mediciones/Mediciones filtradas (saque las feas)/5-27/-35/WaveData5082.csv

#timebase=2000000(ps)
,#voltbase=100000(mv/100)
#size=4000
-8.400E-06,0.004
-8.390E-06,0.004
-8.380E-06,0.004
-8.370E-06,-0.004
-8.360E-06,-0.004
-8.350E-06,0.000
-8.340E-06,0.004
-8.330E-06,0.012
-8.320E-06,0.012
-8.310E-06,0.000
-8.300E-06,0.000
-8.290E-06,0.000
-8.280E-06,0.004
-8.270E-06,0.000
-8.260E-06,0.004
-8.250E-06,0.004
-8.240E-06,0.000
-8.230E-06,0.004
-8.220E-06,0.004
-8.210E-06,0.004
-8.200E-06,0.000
-8.190E-06,0.004
-8.180E-06,0.004
-8.170E-06,0.000
-8.160E-06,0.004
-8.150E-06,-0.004
-8.140E-06,0.000
-8.130E-06,0.008
-8.120E-06,0.004
-8.110E-06,0.008
-8.100E-06,0.000
-8.090E-06,0.004
-8.080E-06,0.004
-8.070E-06,0.008
-8.060E-06,0.008
-8.050E-06,0.008
-8.040E-06,0.012
-8.030E-06,0.008
-8.020E-06,0.004
-8.010E-06,0.000
-8.000E-06,-0.004
-7.990E-06,-0.004
-7.980E-06,-0.004
-7.970E-06,0.004
-7.960E-06,0.000
-7.950E-06,0.000
-7.940E-06,-0.004
-7.930E-06,0.000
-7.920E-06,0.000
-7.910E-06,0.004
-7.900E-06,0.004
-7.890E-06,0.000
-7.880E-06,-0.004
-7.870E-06,0.000
-7.860E-06,-0.004
-7.850E-06,0.000
-7.840E-06,0.000
-7.830E-06,0.000
-7.820E-06,0.000
-7.810E-06,0.004
-7.800E-06,0.004
-7.790E-06,0.004
-7.780E-06,-0.004
-7.770E-06,0.000
-7.760E-06,0.000
-7.750E-06,0.000
-7.740E-06,0.004
-7.730E-06,0.008
-7.720E-06,0.000
-7.710E-06,-0.004
-7.700E-06,0.000
-7.690E-06,-0.004
-7.680E-06,0.000
-7.670E-06,0.004
-7.660E-06,0.004
-7.650E-06,0.004
-7.640E-06,0.008
-7.630E-06,0.008
-7.620E-06,0.008
-7.610E-06,0.012
-7.600E-06,0.012
-7.590E-06,0.008
-7.580E-06,0.004
-7.570E-06,0.004
-7.560E-06,0.004
-7.550E-06,0.000
-7.540E-06,-0.004
-7.530E-06,0.000
-7.520E-06,0.008
-7.510E-06,0.012
-7.500E-06,0.012
-7.490E-06,0.012
-7.480E-06,0.008
-7.470E-06,0.000
-7.460E-06,0.000
-7.450E-06,0.000
-7.440E-06,0.008
-7.430E-06,0.012
-7.420E-06,0.016
-7.410E-06,0.024
-7.400E-06,-0.024
-7.390E-06,-0.028
-7.380E-06,-0.048
-7.370E-06,-0.032
-7.360E-06,-0.008
-7.350E-06,0.024
-7.340E-06,0.032
-7.330E-06,0.024
-7.320E-06,0.012
-7.310E-06,-0.012
-7.300E-06,-0.024
-7.290E-06,-0.028
-7.280E-06,0.004
-7.270E-06,0.024
-7.260E-06,0.020
-7.250E-06,0.020
-7.240E-06,0.004
-7.230E-06,-0.008
-7.220E-06,-0.012
-7.210E-06,0.000
-7.200E-06,0.008
-7.190E-06,0.012
-7.180E-06,0.012
-7.170E-06,0.004
-7.160E-06,0.000
-7.150E-06,-0.008
-7.140E-06,0.004
-7.130E-06,0.012
-7.120E-06,0.008
-7.110E-06,0.008
-7.100E-06,0.012
-7.090E-06,0.016
-7.080E-06,0.024
-7.070E-06,0.024
-7.060E-06,0.028
-7.050E-06,0.016
-7.040E-06,0.012
-7.030E-06,0.000
-7.020E-06,-0.004
-7.010E-06,-0.004
-7.000E-06,-0.004
-6.990E-06,0.008
-6.980E-06,0.012
-6.970E-06,0.028
-6.960E-06,-0.020
-6.950E-06,-0.040
-6.940E-06,-0.032
-6.930E-06,-0.036
-6.920E-06,0.004
-6.910E-06,0.012
-6.900E-06,0.028
-6.890E-06,0.024
-6.880E-06,0.004
-6.870E-06,-0.008
-6.860E-06,-0.020
-6.850E-06,0.000
-6.840E-06,0.008
-6.830E-06,0.024
-6.820E-06,0.012
-6.810E-06,0.008
-6.800E-06,-0.004
-6.790E-06,-0.004
-6.780E-06,0.008
-6.770E-06,0.004
-6.760E-06,0.012
-6.750E-06,0.012
-6.740E-06,0.008
-6.730E-06,0.000
-6.720E-06,0.000
-6.710E-06,0.004
-6.700E-06,0.008
-6.690E-06,0.008
-6.680E-06,0.012
-6.670E-06,0.008
-6.660E-06,0.020
-6.650E-06,0.024
-6.640E-06,0.028
-6.630E-06,0.028
-6.620E-06,0.032
-6.610E-06,0.032
-6.600E-06,0.028
-6.590E-06,0.024
-6.580E-06,-0.024
-6.570E-06,-0.024
-6.560E-06,-0.016
-6.550E-06,-0.028
-6.540E-06,-0.036
-6.530E-06,-0.076
-6.520E-06,-0.068
-6.510E-06,-0.036
-6.500E-06,0.068
-6.490E-06,0.060
-6.480E-06,0.024
-6.470E-06,-0.008
-6.460E-06,-0.028
-6.450E-06,-0.028
-6.440E-06,-0.008
-6.430E-06,0.016
-6.420E-06,0.020
-6.410E-06,0.032
-6.400E-06,-0.012
-6.390E-06,-0.012
-6.380E-06,-0.016
-6.370E-06,0.004
-6.360E-06,0.016
-6.350E-06,0.020
-6.340E-06,0.000
-6.330E-06,-0.004
-6.320E-06,-0.008
-6.310E-06,-0.004
-6.300E-06,0.016
-6.290E-06,0.016
-6.280E-06,0.016
-6.270E-06,0.008
-6.260E-06,0.000
-6.250E-06,-0.008
-6.240E-06,0.000
-6.230E-06,0.008
-6.220E-06,0.012
-6.210E-06,0.008
-6.200E-06,0.008
-6.190E-06,0.000
-6.180E-06,-0.004
-6.170E-06,0.004
-6.160E-06,0.008
-6.150E-06,0.008
-6.140E-06,0.012
-6.130E-06,0.008
-6.120E-06,0.008
-6.110E-06,0.008
-6.100E-06,0.016
-6.090E-06,0.020
-6.080E-06,0.016
-6.070E-06,0.012
-6.060E-06,0.008
-6.050E-06,0.008
-6.040E-06,0.016
-6.030E-06,0.020
-6.020E-06,0.020
-6.010E-06,0.024
-6.000E-06,-0.024
-5.990E-06,-0.020
-5.980E-06,-0.012
-5.970E-06,0.032
-5.960E-06,0.040
-5.950E-06,0.012
-5.940E-06,-0.032
-5.930E-06,-0.080
-5.920E-06,-0.072
-5.910E-06,-0.020
-5.900E-06,0.024
-5.890E-06,0.060
-5.880E-06,0.048
-5.870E-06,0.008
-5.860E-06,-0.036
-5.850E-06,-0.052
-5.840E-06,-0.036
-5.830E-06,0.000
-5.820E-06,0.044
-5.810E-06,0.052
-5.800E-06,0.020
-5.790E-06,-0.020
-5.780E-06,-0.040
-5.770E-06,-0.036
-5.760E-06,-0.004
-5.750E-06,0.028
-5.740E-06,0.032
-5.730E-06,0.012
-5.720E-06,-0.008
-5.710E-06,-0.028
-5.700E-06,-0.020
-5.690E-06,0.004
-5.680E-06,0.024
-5.670E-06,0.024
-5.660E-06,0.012
-5.650E-06,-0.004
-5.640E-06,-0.020
-5.630E-06,-0.012
-5.620E-06,0.000
-5.610E-06,0.012
-5.600E-06,0.016
-5.590E-06,0.016
-5.580E-06,0.008
-5.570E-06,0.000
-5.560E-06,0.000
-5.550E-06,0.000
-5.540E-06,0.004
-5.530E-06,0.008
-5.520E-06,0.008
-5.510E-06,0.000
-5.500E-06,0.008
-5.490E-06,0.000
-5.480E-06,0.004
-5.470E-06,0.004
-5.460E-06,0.000
-5.450E-06,0.000
-5.440E-06,0.000
-5.430E-06,0.004
-5.420E-06,0.008
-5.410E-06,0.012
-5.400E-06,0.004
-5.390E-06,0.004
-5.380E-06,-0.004
-5.370E-06,0.004
-5.360E-06,0.000
-5.350E-06,0.008
-5.340E-06,0.012
-5.330E-06,0.008
-5.320E-06,0.012
-5.310E-06,0.008
-5.300E-06,0.008
-5.290E-06,0.012
-5.280E-06,0.012
-5.270E-06,0.012
-5.260E-06,0.008
-5.250E-06,0.012
-5.240E-06,0.016
-5.230E-06,0.020
-5.220E-06,0.024
-5.210E-06,0.024
-5.200E-06,0.036
-5.190E-06,0.044
-5.180E-06,0.052
-5.170E-06,0.052
-5.160E-06,0.044
-5.150E-06,0.020
-5.140E-06,-0.036
-5.130E-06,-0.080
-5.120E-06,-0.104
-5.110E-06,-0.024
-5.100E-06,0.048
-5.090E-06,0.116
-5.080E-06,0.132
-5.070E-06,0.108
-5.060E-06,0.088
-5.050E-06,0.056
-5.040E-06,0.056
-5.030E-06,0.012
-5.020E-06,-0.108
-5.010E-06,-0.192
-5.000E-06,-0.240
-4.990E-06,-0.192
-4.980E-06,-0.052
-4.970E-06,0.064
-4.960E-06,0.132
-4.950E-06,0.108
-4.940E-06,0.024
-4.930E-06,-0.068
-4.920E-06,-0.100
-4.910E-06,-0.060
-4.900E-06,0.012
-4.890E-06,0.080
-4.880E-06,0.084
-4.870E-06,0.036
-4.860E-06,-0.024
-4.850E-06,-0.044
-4.840E-06,-0.028
-4.830E-06,0.004
-4.820E-06,0.032
-4.810E-06,0.036
-4.800E-06,0.012
-4.790E-06,-0.008
-4.780E-06,-0.020
-4.770E-06,-0.008
-4.760E-06,0.004
-4.750E-06,0.016
-4.740E-06,0.020
-4.730E-06,0.008
-4.720E-06,-0.004
-4.710E-06,-0.004
-4.700E-06,0.008
-4.690E-06,0.024
-4.680E-06,0.024
-4.670E-06,0.020
-4.660E-06,0.008
-4.650E-06,0.000
-4.640E-06,-0.004
-4.630E-06,0.000
-4.620E-06,-0.004
-4.610E-06,0.004
-4.600E-06,-0.004
-4.590E-06,-0.008
-4.580E-06,0.000
-4.570E-06,0.000
-4.560E-06,0.016
-4.550E-06,0.024
-4.540E-06,0.012
-4.530E-06,0.004
-4.520E-06,-0.008
-4.510E-06,-0.012
-4.500E-06,0.000
-4.490E-06,0.016
-4.480E-06,0.032
-4.470E-06,0.028
-4.460E-06,0.016
-4.450E-06,0.008
-4.440E-06,0.008
-4.430E-06,0.016
-4.420E-06,0.024
-4.410E-06,0.040
-4.400E-06,0.044
-4.390E-06,0.048
-4.380E-06,0.040
-4.370E-06,0.040
-4.360E-06,0.056
-4.350E-06,0.076
-4.340E-06,0.088
-4.330E-06,0.092
-4.320E-06,0.100
-4.310E-06,0.108
-4.300E-06,0.108
-4.290E-06,0.100
-4.280E-06,0.080
-4.270E-06,0.056
-4.260E-06,0.056
-4.250E-06,0.056
-4.240E-06,0.056
-4.230E-06,0.020
-4.220E-06,-0.004
-4.210E-06,-0.028
-4.200E-06,-0.036
-4.190E-06,0.020
-4.180E-06,0.088
-4.170E-06,0.156
-4.160E-06,0.176
-4.150E-06,0.152
-4.140E-06,0.020
-4.130E-06,-0.152
-4.120E-06,-0.332
-4.110E-06,-0.396
-4.100E-06,-0.304
-4.090E-06,-0.104
-4.080E-06,0.068
-4.070E-06,0.140
-4.060E-06,0.052
-4.050E-06,-0.108
-4.040E-06,-0.228
-4.030E-06,-0.208
-4.020E-06,-0.120
-4.010E-06,0.024
-4.000E-06,0.144
-3.990E-06,0.144
-3.980E-06,0.064
-3.970E-06,-0.020
-3.960E-06,-0.060
-3.950E-06,-0.048
-3.940E-06,0.000
-3.930E-06,0.016
-3.920E-06,0.000
-3.910E-06,-0.016
-3.900E-06,-0.048
-3.890E-06,-0.052
-3.880E-06,-0.044
-3.870E-06,-0.008
-3.860E-06,0.028
-3.850E-06,0.044
-3.840E-06,0.028
-3.830E-06,0.008
-3.820E-06,-0.024
-3.810E-06,-0.044
-3.800E-06,-0.028
-3.790E-06,-0.012
-3.780E-06,0.020
-3.770E-06,0.036
-3.760E-06,0.028
-3.750E-06,0.008
-3.740E-06,-0.016
-3.730E-06,-0.016
-3.720E-06,-0.008
-3.710E-06,0.008
-3.700E-06,0.024
-3.690E-06,0.032
-3.680E-06,0.024
-3.670E-06,0.012
-3.660E-06,-0.008
-3.650E-06,-0.008
-3.640E-06,-0.008
-3.630E-06,0.004
-3.620E-06,0.020
-3.610E-06,0.024
-3.600E-06,0.024
-3.590E-06,0.012
-3.580E-06,0.004
-3.570E-06,-0.004
-3.560E-06,0.000
-3.550E-06,0.008
-3.540E-06,0.024
-3.530E-06,0.020
-3.520E-06,0.028
-3.510E-06,0.028
-3.500E-06,0.024
-3.490E-06,0.028
-3.480E-06,0.028
-3.470E-06,0.036
-3.460E-06,0.036
-3.450E-06,0.040
-3.440E-06,0.024
-3.430E-06,0.012
-3.420E-06,0.024
-3.410E-06,0.020
-3.400E-06,0.036
-3.390E-06,0.048
-3.380E-06,0.056
-3.370E-06,0.060
-3.360E-06,0.068
-3.350E-06,0.072
-3.340E-06,0.088
-3.330E-06,0.100
-3.320E-06,0.104
-3.310E-06,0.124
-3.300E-06,0.132
-3.290E-06,0.136
-3.280E-06,0.136
-3.270E-06,0.132
-3.260E-06,0.120
-3.250E-06,0.100
-3.240E-06,0.088
-3.230E-06,0.068
-3.220E-06,0.036
-3.210E-06,0.024
-3.200E-06,0.008
-3.190E-06,-0.008
-3.180E-06,-0.008
-3.170E-06,-0.012
-3.160E-06,0.000
-3.150E-06,0.008
-3.140E-06,0.044
-3.130E-06,0.076
-3.120E-06,0.104
-3.110E-06,0.128
-3.100E-06,0.124
-3.090E-06,0.072
-3.080E-06,-0.036
-3.070E-06,-0.180
-3.060E-06,-0.208
-3.050E-06,-0.164
-3.040E-06,-0.116
-3.030E-06,-0.084
-3.020E-06,-0.092
-3.010E-06,-0.028
-3.000E-06,0.024
-2.990E-06,0.020
-2.980E-06,0.024
-2.970E-06,-0.104
-2.960E-06,-0.228
-2.950E-06,-0.332
-2.940E-06,-0.336
-2.930E-06,-0.244
-2.920E-06,-0.076
-2.910E-06,0.076
-2.900E-06,0.096
-2.890E-06,0.044
-2.880E-06,-0.040
-2.870E-06,-0.124
-2.860E-06,-0.096
-2.850E-06,-0.036
-2.840E-06,0.020
-2.830E-06,0.044
-2.820E-06,0.048
-2.810E-06,0.012
-2.800E-06,-0.008
-2.790E-06,-0.012
-2.780E-06,-0.004
-2.770E-06,0.000
-2.760E-06,0.012
-2.750E-06,0.020
-2.740E-06,0.016
-2.730E-06,0.016
-2.720E-06,0.004
-2.710E-06,-0.004
-2.700E-06,-0.008
-2.690E-06,0.004
-2.680E-06,0.008
-2.670E-06,0.012
-2.660E-06,0.020
-2.650E-06,0.012
-2.640E-06,0.000
-2.630E-06,-0.004
-2.620E-06,-0.004
-2.610E-06,0.008
-2.600E-06,0.024
-2.590E-06,0.032
-2.580E-06,0.040
-2.570E-06,0.020
-2.560E-06,0.012
-2.550E-06,-0.004
-2.540E-06,-0.004
-2.530E-06,0.008
-2.520E-06,0.016
-2.510E-06,0.028
-2.500E-06,0.028
-2.490E-06,0.016
-2.480E-06,0.008
-2.470E-06,0.016
-2.460E-06,0.024
-2.450E-06,0.048
-2.440E-06,0.060
-2.430E-06,0.060
-2.420E-06,0.060
-2.410E-06,0.044
-2.400E-06,0.032
-2.390E-06,0.000
-2.380E-06,-0.008
-2.370E-06,-0.012
-2.360E-06,0.000
-2.350E-06,0.024
-2.340E-06,0.024
-2.330E-06,0.024
-2.320E-06,0.028
-2.310E-06,0.016
-2.300E-06,0.012
-2.290E-06,0.016
-2.280E-06,0.036
-2.270E-06,0.056
-2.260E-06,0.068
-2.250E-06,0.072
-2.240E-06,0.056
-2.230E-06,0.044
-2.220E-06,0.036
-2.210E-06,0.028
-2.200E-06,0.032
-2.190E-06,0.032
-2.180E-06,0.012
-2.170E-06,-0.004
-2.160E-06,0.000
-2.150E-06,0.012
-2.140E-06,0.048
-2.130E-06,0.064
-2.120E-06,0.084
-2.110E-06,0.088
-2.100E-06,0.096
-2.090E-06,0.092
-2.080E-06,0.100
-2.070E-06,0.100
-2.060E-06,0.096
-2.050E-06,0.104
-2.040E-06,0.100
-2.030E-06,0.108
-2.020E-06,0.096
-2.010E-06,0.076
-2.000E-06,0.036
-1.990E-06,0.012
-1.980E-06,0.024
-1.970E-06,0.048
-1.960E-06,0.072
-1.950E-06,0.044
-1.940E-06,-0.012
-1.930E-06,-0.084
-1.920E-06,-0.120
-1.910E-06,-0.072
-1.900E-06,-0.064
-1.890E-06,-0.028
-1.880E-06,-0.052
-1.870E-06,-0.072
-1.860E-06,-0.124
-1.850E-06,-0.148
-1.840E-06,-0.176
-1.830E-06,-0.164
-1.820E-06,-0.092
-1.810E-06,-0.056
-1.800E-06,0.000
-1.790E-06,0.020
-1.780E-06,0.036
-1.770E-06,0.024
-1.760E-06,0.016
-1.750E-06,0.016
-1.740E-06,0.052
-1.730E-06,0.084
-1.720E-06,0.128
-1.710E-06,0.148
-1.700E-06,0.156
-1.690E-06,0.140
-1.680E-06,0.100
-1.670E-06,0.084
-1.660E-06,0.048
-1.650E-06,0.040
-1.640E-06,0.008
-1.630E-06,0.012
-1.620E-06,0.008
-1.610E-06,0.012
-1.600E-06,-0.004
-1.590E-06,-0.040
-1.580E-06,-0.048
-1.570E-06,-0.100
-1.560E-06,-0.100
-1.550E-06,-0.124
-1.540E-06,-0.132
-1.530E-06,-0.124
-1.520E-06,-0.124
-1.510E-06,-0.092
-1.500E-06,-0.012
-1.490E-06,0.024
-1.480E-06,0.052
-1.470E-06,0.032
-1.460E-06,0.016
-1.450E-06,-0.024
-1.440E-06,-0.040
-1.430E-06,-0.040
-1.420E-06,-0.024
-1.410E-06,0.008
-1.400E-06,0.004
-1.390E-06,0.000
-1.380E-06,-0.004
-1.370E-06,0.036
-1.360E-06,0.056
-1.350E-06,0.068
-1.340E-06,0.060
-1.330E-06,0.036
-1.320E-06,0.024
-1.310E-06,0.044
-1.300E-06,0.080
-1.290E-06,0.124
-1.280E-06,0.140
-1.270E-06,0.140
-1.260E-06,0.128
-1.250E-06,0.128
-1.240E-06,0.132
-1.230E-06,0.152
-1.220E-06,0.156
-1.210E-06,0.148
-1.200E-06,0.132
-1.190E-06,0.112
-1.180E-06,0.092
-1.170E-06,0.092
-1.160E-06,0.096
-1.150E-06,0.108
-1.140E-06,0.108
-1.130E-06,0.088
-1.120E-06,0.036
-1.110E-06,-0.032
-1.100E-06,-0.128
-1.090E-06,-0.212
-1.080E-06,-0.248
-1.070E-06,-0.232
-1.060E-06,-0.224
-1.050E-06,-0.188
-1.040E-06,-0.168
-1.030E-06,-0.128
-1.020E-06,-0.128
-1.010E-06,-0.088
-1.000E-06,-0.068
-9.900E-07,-0.036
-9.800E-07,0.000
-9.700E-07,-0.008
-9.600E-07,-0.008
-9.500E-07,-0.016
-9.400E-07,0.000
-9.300E-07,0.024
-9.200E-07,0.060
-9.100E-07,0.088
-9.000E-07,0.100
-8.900E-07,0.092
-8.800E-07,0.064
-8.700E-07,0.060
-8.600E-07,0.056
-8.500E-07,0.064
-8.400E-07,0.100
-8.300E-07,0.124
-8.200E-07,0.132
-8.100E-07,0.120
-8.000E-07,0.104
-7.900E-07,0.088
-7.800E-07,0.088
-7.700E-07,0.092
-7.600E-07,0.108
-7.500E-07,0.128
-7.400E-07,0.140
-7.300E-07,0.136
-7.200E-07,0.128
-7.100E-07,0.124
-7.000E-07,0.108
-6.900E-07,0.096
-6.800E-07,0.104
-6.700E-07,0.124
-6.600E-07,0.136
-6.500E-07,0.152
-6.400E-07,0.156
-6.300E-07,0.144
-6.200E-07,0.128
-6.100E-07,0.112
-6.000E-07,0.100
-5.900E-07,0.104
-5.800E-07,0.108
-5.700E-07,0.124
-5.600E-07,0.128
-5.500E-07,0.132
-5.400E-07,0.140
-5.300E-07,0.132
-5.200E-07,0.132
-5.100E-07,0.124
-5.000E-07,0.128
-4.900E-07,0.124
-4.800E-07,0.120
-4.700E-07,0.084
-4.600E-07,0.044
-4.500E-07,0.064
-4.400E-07,0.084
-4.300E-07,0.124
-4.200E-07,0.136
-4.100E-07,0.136
-4.000E-07,0.088
-3.900E-07,-0.036
-3.800E-07,-0.200
-3.700E-07,-0.376
-3.600E-07,-0.504
-3.500E-07,-0.508
-3.400E-07,-0.508
-3.300E-07,-0.508
-3.200E-07,-0.392
-3.100E-07,-0.224
-3.000E-07,-0.144
-2.900E-07,-0.096
-2.800E-07,-0.140
-2.700E-07,-0.180
-2.600E-07,-0.192
-2.500E-07,-0.192
-2.400E-07,-0.124
-2.300E-07,-0.092
-2.200E-07,-0.080
-2.100E-07,-0.056
-2.000E-07,-0.060
-1.900E-07,-0.060
-1.800E-07,-0.024
-1.700E-07,0.004
-1.600E-07,0.028
-1.500E-07,0.044
-1.400E-07,0.032
-1.300E-07,0.032
-1.200E-07,0.028
-1.100E-07,0.056
-1.000E-07,0.068
-9.000E-08,0.096
-8.000E-08,0.120
-7.000E-08,0.136
-6.000E-08,0.148
-5.000E-08,0.156
-4.000E-08,0.156
-3.000E-08,0.160
-2.000E-08,0.168
-1.000E-08,0.180
0.000E+00,0.192
1.000E-08,0.184
2.000E-08,0.176
3.000E-08,0.168
4.000E-08,0.160
5.000E-08,0.164
6.000E-08,0.168
7.000E-08,0.180
8.000E-08,0.184
9.000E-08,0.188
1.000E-07,0.176
1.100E-07,0.168
1.200E-07,0.164
1.300E-07,0.160
1.400E-07,0.168
1.500E-07,0.168
1.600E-07,0.172
1.700E-07,0.176
1.800E-07,0.172
1.900E-07,0.168
2.000E-07,0.168
2.100E-07,0.160
2.200E-07,0.164
2.300E-07,0.168
2.400E-07,0.168
2.500E-07,0.172
2.600E-07,0.176
2.700E-07,0.168
2.800E-07,0.168
2.900E-07,0.160
3.000E-07,0.160
3.100E-07,0.164
3.200E-07,0.160
3.300E-07,0.156
3.400E-07,0.156
3.500E-07,0.152
3.600E-07,0.148
3.700E-07,0.140
3.800E-07,0.128
3.900E-07,0.112
4.000E-07,0.096
4.100E-07,0.076
4.200E-07,0.076
4.300E-07,0.052
4.400E-07,0.052
4.500E-07,0.060
4.600E-07,0.012
4.700E-07,-0.024
4.800E-07,-0.056
4.900E-07,-0.060
5.000E-07,-0.056
5.100E-07,-0.008
5.200E-07,0.024
5.300E-07,0.084
5.400E-07,0.124
5.500E-07,0.132
5.600E-07,0.120
5.700E-07,0.096
5.800E-07,0.088
5.900E-07,0.092
6.000E-07,0.116
6.100E-07,0.112
6.200E-07,0.128
6.300E-07,0.132
6.400E-07,0.124
6.500E-07,0.112
6.600E-07,0.120
6.700E-07,0.136
6.800E-07,0.156
6.900E-07,0.164
7.000E-07,0.156
7.100E-07,0.160
7.200E-07,0.160
7.300E-07,0.156
7.400E-07,0.152
7.500E-07,0.164
7.600E-07,0.176
7.700E-07,0.176
7.800E-07,0.172
7.900E-07,0.172
8.000E-07,0.168
8.100E-07,0.160
8.200E-07,0.156
8.300E-07,0.164
8.400E-07,0.164
8.500E-07,0.168
8.600E-07,0.168
8.700E-07,0.164
8.800E-07,0.164
8.900E-07,0.160
9.000E-07,0.160
9.100E-07,0.164
9.200E-07,0.172
9.300E-07,0.168
9.400E-07,0.168
9.500E-07,0.164
9.600E-07,0.164
9.700E-07,0.164
9.800E-07,0.164
9.900E-07,0.164
1.000E-06,0.156
1.010E-06,0.160
1.020E-06,0.160
1.030E-06,0.164
1.040E-06,0.156
1.050E-06,0.160
1.060E-06,0.160
1.070E-06,0.156
1.080E-06,0.156
1.090E-06,0.160
1.100E-06,0.156
1.110E-06,0.160
1.120E-06,0.164
1.130E-06,0.152
1.140E-06,0.156
1.150E-06,0.156
1.160E-06,0.156
1.170E-06,0.160
1.180E-06,0.160
1.190E-06,0.156
1.200E-06,0.156
1.210E-06,0.160
1.220E-06,0.156
1.230E-06,0.152
1.240E-06,0.152
1.250E-06,0.156
1.260E-06,0.156
1.270E-06,0.160
1.280E-06,0.156
1.290E-06,0.156
1.300E-06,0.160
1.310E-06,0.152
1.320E-06,0.160
1.330E-06,0.148
1.340E-06,0.148
1.350E-06,0.152
1.360E-06,0.156
1.370E-06,0.148
1.380E-06,0.148
1.390E-06,0.152
1.400E-06,0.152
1.410E-06,0.152
1.420E-06,0.152
1.430E-06,0.152
1.440E-06,0.148
1.450E-06,0.148
1.460E-06,0.152
1.470E-06,0.156
1.480E-06,0.156
1.490E-06,0.156
1.500E-06,0.148
1.510E-06,0.148
1.520E-06,0.148
1.530E-06,0.148
1.540E-06,0.148
1.550E-06,0.140
1.560E-06,0.144
1.570E-06,0.144
1.580E-06,0.144
1.590E-06,0.144
1.600E-06,0.140
1.610E-06,0.144
1.620E-06,0.152
1.630E-06,0.140
1.640E-06,0.148
1.650E-06,0.152
1.660E-06,0.148
1.670E-06,0.144
1.680E-06,0.144
1.690E-06,0.144
1.700E-06,0.140
1.710E-06,0.144
1.720E-06,0.148
1.730E-06,0.140
1.740E-06,0.136
1.750E-06,0.140
1.760E-06,0.136
1.770E-06,0.144
1.780E-06,0.136
1.790E-06,0.144
1.800E-06,0.140
1.810E-06,0.140
1.820E-06,0.140
1.830E-06,0.140
1.840E-06,0.136
1.850E-06,0.136
1.860E-06,0.132
1.870E-06,0.136
1.880E-06,0.136
1.890E-06,0.140
1.900E-06,0.136
1.910E-06,0.136
1.920E-06,0.132
1.930E-06,0.132
1.940E-06,0.136
1.950E-06,0.136
1.960E-06,0.136
1.970E-06,0.140
1.980E-06,0.136
1.990E-06,0.136
2.000E-06,0.136
2.010E-06,0.132
2.020E-06,0.136
2.030E-06,0.136
2.040E-06,0.136
2.050E-06,0.136
2.060E-06,0.136
2.070E-06,0.136
2.080E-06,0.132
2.090E-06,0.132
2.100E-06,0.132
2.110E-06,0.132
2.120E-06,0.128
2.130E-06,0.128
2.140E-06,0.128
2.150E-06,0.128
2.160E-06,0.128
2.170E-06,0.132
2.180E-06,0.132
2.190E-06,0.132
2.200E-06,0.132
2.210E-06,0.128
2.220E-06,0.128
2.230E-06,0.132
2.240E-06,0.128
2.250E-06,0.132
2.260E-06,0.132
2.270E-06,0.132
2.280E-06,0.136
2.290E-06,0.132
2.300E-06,0.132
2.310E-06,0.132
2.320E-06,0.132
2.330E-06,0.128
2.340E-06,0.124
2.350E-06,0.124
2.360E-06,0.120
2.370E-06,0.124
2.380E-06,0.124
2.390E-06,0.124
2.400E-06,0.124
2.410E-06,0.120
2.420E-06,0.124
2.430E-06,0.124
2.440E-06,0.116
2.450E-06,0.120
2.460E-06,0.120
2.470E-06,0.120
2.480E-06,0.120
2.490E-06,0.120
2.500E-06,0.120
2.510E-06,0.120
2.520E-06,0.116
2.530E-06,0.120
2.540E-06,0.120
2.550E-06,0.120
2.560E-06,0.120
2.570E-06,0.120
2.580E-06,0.112
2.590E-06,0.116
2.600E-06,0.120
2.610E-06,0.120
2.620E-06,0.116
2.630E-06,0.108
2.640E-06,0.108
2.650E-06,0.108
2.660E-06,0.108
2.670E-06,0.112
2.680E-06,0.112
2.690E-06,0.108
2.700E-06,0.112
2.710E-06,0.112
2.720E-06,0.112
2.730E-06,0.108
2.740E-06,0.108
2.750E-06,0.108
2.760E-06,0.108
2.770E-06,0.104
2.780E-06,0.104
2.790E-06,0.108
2.800E-06,0.108
2.810E-06,0.108
2.820E-06,0.108
2.830E-06,0.108
2.840E-06,0.108
2.850E-06,0.108
2.860E-06,0.108
2.870E-06,0.104
2.880E-06,0.112
2.890E-06,0.112
2.900E-06,0.108
2.910E-06,0.108
2.920E-06,0.108
2.930E-06,0.108
2.940E-06,0.104
2.950E-06,0.104
2.960E-06,0.096
2.970E-06,0.096
2.980E-06,0.096
2.990E-06,0.100
3.000E-06,0.100
3.010E-06,0.104
3.020E-06,0.100
3.030E-06,0.100
3.040E-06,0.096
3.050E-06,0.100
3.060E-06,0.100
3.070E-06,0.100
3.080E-06,0.096
3.090E-06,0.096
3.100E-06,0.100
3.110E-06,0.096
3.120E-06,0.096
3.130E-06,0.096
3.140E-06,0.096
3.150E-06,0.096
3.160E-06,0.096
3.170E-06,0.092
3.180E-06,0.096
3.190E-06,0.092
3.200E-06,0.092
3.210E-06,0.096
3.220E-06,0.096
3.230E-06,0.096
3.240E-06,0.092
3.250E-06,0.092
3.260E-06,0.096
3.270E-06,0.092
3.280E-06,0.096
3.290E-06,0.092
3.300E-06,0.088
3.310E-06,0.092
3.320E-06,0.092
3.330E-06,0.088
3.340E-06,0.092
3.350E-06,0.092
3.360E-06,0.092
3.370E-06,0.088
