mediciones/Mediciones filtradas (saque las feas)/5-27/-35/WaveData5092.csv

#timebase=2000000(ps)
,#voltbase=100000(mv/100)
#size=4000
-8.400E-06,0.024
-8.390E-06,0.024
-8.380E-06,0.008
-8.370E-06,-0.008
-8.360E-06,-0.008
-8.350E-06,-0.008
-8.340E-06,0.004
-8.330E-06,0.020
-8.320E-06,0.028
-8.310E-06,0.028
-8.300E-06,0.016
-8.290E-06,0.004
-8.280E-06,-0.004
-8.270E-06,-0.008
-8.260E-06,-0.004
-8.250E-06,0.004
-8.240E-06,0.024
-8.230E-06,0.020
-8.220E-06,0.020
-8.210E-06,0.008
-8.200E-06,-0.004
-8.190E-06,-0.004
-8.180E-06,0.000
-8.170E-06,0.008
-8.160E-06,0.016
-8.150E-06,0.024
-8.140E-06,0.020
-8.130E-06,0.012
-8.120E-06,0.004
-8.110E-06,0.000
-8.100E-06,0.008
-8.090E-06,0.024
-8.080E-06,0.024
-8.070E-06,0.028
-8.060E-06,0.004
-8.050E-06,-0.004
-8.040E-06,-0.004
-8.030E-06,0.008
-8.020E-06,0.020
-8.010E-06,0.032
-8.000E-06,0.040
-7.990E-06,0.024
-7.980E-06,0.004
-7.970E-06,-0.004
-7.960E-06,0.000
-7.950E-06,0.008
-7.940E-06,0.024
-7.930E-06,0.028
-7.920E-06,0.024
-7.910E-06,0.024
-7.900E-06,0.024
-7.890E-06,0.020
-7.880E-06,0.016
-7.870E-06,0.016
-7.860E-06,0.008
-7.850E-06,0.000
-7.840E-06,-0.012
-7.830E-06,-0.020
-7.820E-06,-0.008
-7.810E-06,-0.012
-7.800E-06,-0.020
-7.790E-06,-0.032
-7.780E-06,-0.036
-7.770E-06,-0.032
-7.760E-06,-0.016
-7.750E-06,-0.004
-7.740E-06,-0.008
-7.730E-06,-0.004
-7.720E-06,-0.008
-7.710E-06,-0.020
-7.700E-06,-0.012
-7.690E-06,-0.008
-7.680E-06,0.012
-7.670E-06,0.020
-7.660E-06,0.004
-7.650E-06,-0.004
-7.640E-06,0.004
-7.630E-06,0.004
-7.620E-06,0.020
-7.610E-06,0.020
-7.600E-06,0.024
-7.590E-06,0.028
-7.580E-06,0.020
-7.570E-06,0.016
-7.560E-06,0.020
-7.550E-06,0.020
-7.540E-06,0.028
-7.530E-06,0.032
-7.520E-06,0.040
-7.510E-06,0.040
-7.500E-06,0.028
-7.490E-06,0.028
-7.480E-06,0.024
-7.470E-06,0.024
-7.460E-06,0.028
-7.450E-06,0.032
-7.440E-06,0.044
-7.430E-06,0.052
-7.420E-06,0.052
-7.410E-06,0.056
-7.400E-06,0.040
-7.390E-06,-0.008
-7.380E-06,-0.124
-7.370E-06,-0.236
-7.360E-06,-0.252
-7.350E-06,-0.176
-7.340E-06,-0.020
-7.330E-06,0.068
-7.320E-06,0.104
-7.310E-06,0.140
-7.300E-06,0.088
-7.290E-06,0.056
-7.280E-06,0.008
-7.270E-06,-0.052
-7.260E-06,-0.068
-7.250E-06,-0.056
-7.240E-06,-0.140
-7.230E-06,-0.164
-7.220E-06,-0.160
-7.210E-06,-0.060
-7.200E-06,0.084
-7.190E-06,0.148
-7.180E-06,0.156
-7.170E-06,0.064
-7.160E-06,-0.044
-7.150E-06,-0.100
-7.140E-06,-0.072
-7.130E-06,-0.004
-7.120E-06,0.040
-7.110E-06,0.060
-7.100E-06,0.048
-7.090E-06,0.040
-7.080E-06,0.028
-7.070E-06,0.032
-7.060E-06,0.024
-7.050E-06,0.008
-7.040E-06,0.000
-7.030E-06,-0.004
-7.020E-06,0.008
-7.010E-06,0.032
-7.000E-06,0.060
-6.990E-06,0.060
-6.980E-06,0.032
-6.970E-06,-0.024
-6.960E-06,-0.056
-6.950E-06,-0.064
-6.940E-06,-0.004
-6.930E-06,0.032
-6.920E-06,0.060
-6.910E-06,0.060
-6.900E-06,0.028
-6.890E-06,-0.004
-6.880E-06,-0.024
-6.870E-06,0.012
-6.860E-06,-0.052
-6.850E-06,-0.112
-6.840E-06,-0.232
-6.830E-06,-0.184
-6.820E-06,0.032
-6.810E-06,0.148
-6.800E-06,0.184
-6.790E-06,0.060
-6.780E-06,-0.028
-6.770E-06,-0.124
-6.760E-06,-0.124
-6.750E-06,-0.012
-6.740E-06,0.100
-6.730E-06,0.144
-6.720E-06,0.120
-6.710E-06,0.072
-6.700E-06,-0.044
-6.690E-06,-0.056
-6.680E-06,-0.152
-6.670E-06,-0.120
-6.660E-06,-0.076
-6.650E-06,0.000
-6.640E-06,0.076
-6.630E-06,0.080
-6.620E-06,0.064
-6.610E-06,0.032
-6.600E-06,0.008
-6.590E-06,-0.008
-6.580E-06,-0.004
-6.570E-06,0.008
-6.560E-06,0.012
-6.550E-06,0.008
-6.540E-06,0.008
-6.530E-06,0.000
-6.520E-06,0.020
-6.510E-06,0.032
-6.500E-06,0.016
-6.490E-06,0.004
-6.480E-06,-0.020
-6.470E-06,-0.020
-6.460E-06,0.000
-6.450E-06,0.028
-6.440E-06,0.044
-6.430E-06,0.032
-6.420E-06,0.012
-6.410E-06,-0.012
-6.400E-06,-0.020
-6.390E-06,-0.024
-6.380E-06,-0.008
-6.370E-06,-0.004
-6.360E-06,0.008
-6.350E-06,0.012
-6.340E-06,0.012
-6.330E-06,0.004
-6.320E-06,-0.004
-6.310E-06,-0.036
-6.300E-06,-0.044
-6.290E-06,-0.036
-6.280E-06,-0.016
-6.270E-06,0.020
-6.260E-06,0.040
-6.250E-06,0.044
-6.240E-06,0.032
-6.230E-06,0.008
-6.220E-06,-0.012
-6.210E-06,-0.008
-6.200E-06,0.008
-6.190E-06,0.028
-6.180E-06,0.048
-6.170E-06,0.044
-6.160E-06,0.040
-6.150E-06,0.032
-6.140E-06,0.028
-6.130E-06,0.016
-6.120E-06,0.024
-6.110E-06,0.020
-6.100E-06,0.012
-6.090E-06,-0.008
-6.080E-06,-0.072
-6.070E-06,-0.092
-6.060E-06,-0.092
-6.050E-06,-0.064
-6.040E-06,0.004
-6.030E-06,0.016
-6.020E-06,0.016
-6.010E-06,-0.036
-6.000E-06,-0.052
-5.990E-06,-0.044
-5.980E-06,-0.008
-5.970E-06,0.024
-5.960E-06,0.032
-5.950E-06,0.016
-5.940E-06,-0.016
-5.930E-06,-0.024
-5.920E-06,-0.024
-5.910E-06,0.000
-5.900E-06,0.020
-5.890E-06,0.020
-5.880E-06,0.000
-5.870E-06,-0.004
-5.860E-06,-0.016
-5.850E-06,-0.008
-5.840E-06,0.012
-5.830E-06,0.016
-5.820E-06,0.012
-5.810E-06,0.008
-5.800E-06,-0.004
-5.790E-06,-0.008
-5.780E-06,-0.004
-5.770E-06,0.004
-5.760E-06,0.012
-5.750E-06,0.012
-5.740E-06,0.012
-5.730E-06,0.004
-5.720E-06,0.000
-5.710E-06,-0.004
-5.700E-06,-0.004
-5.690E-06,0.008
-5.680E-06,0.012
-5.670E-06,0.016
-5.660E-06,0.012
-5.650E-06,0.008
-5.640E-06,0.008
-5.630E-06,0.008
-5.620E-06,0.008
-5.610E-06,0.012
-5.600E-06,0.016
-5.590E-06,0.020
-5.580E-06,0.028
-5.570E-06,0.028
-5.560E-06,0.028
-5.550E-06,0.036
-5.540E-06,0.036
-5.530E-06,0.036
-5.520E-06,0.040
-5.510E-06,0.048
-5.500E-06,0.040
-5.490E-06,0.024
-5.480E-06,0.004
-5.470E-06,-0.004
-5.460E-06,-0.012
-5.450E-06,-0.008
-5.440E-06,0.016
-5.430E-06,-0.164
-5.420E-06,-0.160
-5.410E-06,-0.164
-5.400E-06,-0.108
-5.390E-06,0.120
-5.380E-06,0.148
-5.370E-06,0.120
-5.360E-06,-0.012
-5.350E-06,-0.104
-5.340E-06,-0.152
-5.330E-06,-0.104
-5.320E-06,0.028
-5.310E-06,0.104
-5.300E-06,0.120
-5.290E-06,0.024
-5.280E-06,-0.036
-5.270E-06,-0.060
-5.260E-06,-0.024
-5.250E-06,0.012
-5.240E-06,0.056
-5.230E-06,0.060
-5.220E-06,0.028
-5.210E-06,-0.004
-5.200E-06,-0.036
-5.190E-06,-0.024
-5.180E-06,-0.004
-5.170E-06,0.004
-5.160E-06,0.020
-5.150E-06,0.032
-5.140E-06,0.020
-5.130E-06,0.008
-5.120E-06,0.000
-5.110E-06,-0.008
-5.100E-06,-0.004
-5.090E-06,0.008
-5.080E-06,0.016
-5.070E-06,0.008
-5.060E-06,-0.004
-5.050E-06,-0.016
-5.040E-06,-0.008
-5.030E-06,0.004
-5.020E-06,0.020
-5.010E-06,0.040
-5.000E-06,0.044
-4.990E-06,0.028
-4.980E-06,0.008
-4.970E-06,-0.028
-4.960E-06,-0.064
-4.950E-06,-0.056
-4.940E-06,-0.036
-4.930E-06,0.008
-4.920E-06,0.024
-4.910E-06,0.020
-4.900E-06,0.000
-4.890E-06,-0.016
-4.880E-06,-0.028
-4.870E-06,-0.012
-4.860E-06,0.008
-4.850E-06,0.016
-4.840E-06,0.016
-4.830E-06,0.008
-4.820E-06,0.000
-4.810E-06,-0.004
-4.800E-06,0.008
-4.790E-06,0.016
-4.780E-06,0.032
-4.770E-06,-0.024
-4.760E-06,-0.020
-4.750E-06,-0.040
-4.740E-06,-0.032
-4.730E-06,0.020
-4.720E-06,0.032
-4.710E-06,0.032
-4.700E-06,0.020
-4.690E-06,-0.004
-4.680E-06,-0.028
-4.670E-06,-0.008
-4.660E-06,0.008
-4.650E-06,0.024
-4.640E-06,0.008
-4.630E-06,0.008
-4.620E-06,-0.020
-4.610E-06,-0.016
-4.600E-06,-0.024
-4.590E-06,-0.008
-4.580E-06,0.020
-4.570E-06,0.020
-4.560E-06,0.024
-4.550E-06,0.016
-4.540E-06,-0.004
-4.530E-06,-0.028
-4.520E-06,-0.016
-4.510E-06,-0.028
-4.500E-06,0.016
-4.490E-06,0.012
-4.480E-06,0.008
-4.470E-06,0.016
-4.460E-06,0.012
-4.450E-06,0.000
-4.440E-06,0.004
-4.430E-06,0.000
-4.420E-06,0.000
-4.410E-06,-0.004
-4.400E-06,-0.004
-4.390E-06,0.000
-4.380E-06,0.004
-4.370E-06,0.000
-4.360E-06,-0.004
-4.350E-06,0.008
-4.340E-06,0.004
-4.330E-06,0.000
-4.320E-06,0.000
-4.310E-06,0.000
-4.300E-06,0.000
-4.290E-06,0.008
-4.280E-06,0.000
-4.270E-06,0.004
-4.260E-06,0.004
-4.250E-06,-0.008
-4.240E-06,-0.008
-4.230E-06,0.000
-4.220E-06,-0.004
-4.210E-06,-0.008
-4.200E-06,-0.008
-4.190E-06,0.008
-4.180E-06,0.012
-4.170E-06,0.024
-4.160E-06,0.028
-4.150E-06,0.024
-4.140E-06,0.020
-4.130E-06,0.008
-4.120E-06,0.000
-4.110E-06,0.008
-4.100E-06,0.012
-4.090E-06,0.008
-4.080E-06,0.000
-4.070E-06,-0.004
-4.060E-06,-0.008
-4.050E-06,-0.004
-4.040E-06,0.004
-4.030E-06,0.008
-4.020E-06,0.012
-4.010E-06,0.008
-4.000E-06,-0.004
-3.990E-06,-0.004
-3.980E-06,0.000
-3.970E-06,0.004
-3.960E-06,0.004
-3.950E-06,0.004
-3.940E-06,0.004
-3.930E-06,-0.008
-3.920E-06,-0.008
-3.910E-06,-0.008
-3.900E-06,-0.004
-3.890E-06,0.000
-3.880E-06,0.012
-3.870E-06,0.012
-3.860E-06,0.008
-3.850E-06,0.008
-3.840E-06,0.008
-3.830E-06,0.004
-3.820E-06,0.008
-3.810E-06,0.008
-3.800E-06,0.008
-3.790E-06,0.012
-3.780E-06,0.004
-3.770E-06,0.004
-3.760E-06,0.000
-3.750E-06,-0.004
-3.740E-06,-0.008
-3.730E-06,-0.008
-3.720E-06,-0.008
-3.710E-06,-0.004
-3.700E-06,0.004
-3.690E-06,0.004
-3.680E-06,0.004
-3.670E-06,0.000
-3.660E-06,0.004
-3.650E-06,0.000
-3.640E-06,0.004
-3.630E-06,0.000
-3.620E-06,0.004
-3.610E-06,0.008
-3.600E-06,0.004
-3.590E-06,0.004
-3.580E-06,0.004
-3.570E-06,0.004
-3.560E-06,0.004
-3.550E-06,0.008
-3.540E-06,0.000
-3.530E-06,0.008
-3.520E-06,0.004
-3.510E-06,0.004
-3.500E-06,0.008
-3.490E-06,0.008
-3.480E-06,0.004
-3.470E-06,0.004
-3.460E-06,0.004
-3.450E-06,0.004
-3.440E-06,0.000
-3.430E-06,0.000
-3.420E-06,0.000
-3.410E-06,0.000
-3.400E-06,0.000
-3.390E-06,0.000
-3.380E-06,0.000
-3.370E-06,-0.004
-3.360E-06,0.004
-3.350E-06,0.004
-3.340E-06,0.004
-3.330E-06,0.004
-3.320E-06,0.004
-3.310E-06,0.004
-3.300E-06,0.004
-3.290E-06,0.000
-3.280E-06,0.004
-3.270E-06,0.004
-3.260E-06,0.004
-3.250E-06,0.004
-3.240E-06,0.000
-3.230E-06,0.004
-3.220E-06,-0.004
-3.210E-06,0.000
-3.200E-06,0.000
-3.190E-06,0.000
-3.180E-06,0.004
-3.170E-06,0.004
-3.160E-06,0.004
-3.150E-06,0.004
-3.140E-06,0.008
-3.130E-06,0.008
-3.120E-06,0.000
-3.110E-06,0.000
-3.100E-06,0.000
-3.090E-06,0.000
-3.080E-06,0.000
-3.070E-06,-0.004
-3.060E-06,0.004
-3.050E-06,-0.004
-3.040E-06,0.004
-3.030E-06,0.004
-3.020E-06,0.008
-3.010E-06,0.000
-3.000E-06,0.000
-2.990E-06,0.004
-2.980E-06,0.004
-2.970E-06,0.004
-2.960E-06,0.004
-2.950E-06,0.000
-2.940E-06,0.004
-2.930E-06,0.000
-2.920E-06,0.000
-2.910E-06,0.004
-2.900E-06,0.004
-2.890E-06,0.004
-2.880E-06,0.000
-2.870E-06,0.000
-2.860E-06,0.004
-2.850E-06,0.000
-2.840E-06,0.000
-2.830E-06,0.004
-2.820E-06,0.000
-2.810E-06,0.000
-2.800E-06,0.004
-2.790E-06,0.004
-2.780E-06,0.004
-2.770E-06,0.004
-2.760E-06,0.004
-2.750E-06,0.000
-2.740E-06,0.004
-2.730E-06,0.004
-2.720E-06,0.000
-2.710E-06,0.000
-2.700E-06,0.004
-2.690E-06,0.000
-2.680E-06,0.000
-2.670E-06,0.004
-2.660E-06,0.000
-2.650E-06,0.004
-2.640E-06,0.004
-2.630E-06,0.004
-2.620E-06,0.008
-2.610E-06,0.000
-2.600E-06,0.000
-2.590E-06,0.004
-2.580E-06,0.000
-2.570E-06,0.000
-2.560E-06,0.004
-2.550E-06,-0.004
-2.540E-06,0.000
-2.530E-06,0.000
-2.520E-06,0.004
-2.510E-06,0.004
-2.500E-06,0.004
-2.490E-06,0.004
-2.480E-06,0.004
-2.470E-06,-0.004
-2.460E-06,0.000
-2.450E-06,0.000
-2.440E-06,0.000
-2.430E-06,0.000
-2.420E-06,0.000
-2.410E-06,0.004
-2.400E-06,-0.004
-2.390E-06,0.000
-2.380E-06,0.000
-2.370E-06,0.008
-2.360E-06,0.000
-2.350E-06,0.004
-2.340E-06,0.008
-2.330E-06,0.020
-2.320E-06,0.024
-2.310E-06,0.040
-2.300E-06,0.044
-2.290E-06,0.044
-2.280E-06,0.028
-2.270E-06,0.008
-2.260E-06,-0.024
-2.250E-06,-0.072
-2.240E-06,-0.068
-2.230E-06,-0.060
-2.220E-06,-0.004
-2.210E-06,0.028
-2.200E-06,0.056
-2.190E-06,0.032
-2.180E-06,0.004
-2.170E-06,-0.020
-2.160E-06,-0.012
-2.150E-06,0.004
-2.140E-06,0.028
-2.130E-06,0.012
-2.120E-06,0.028
-2.110E-06,-0.040
-2.100E-06,-0.056
-2.090E-06,-0.028
-2.080E-06,0.004
-2.070E-06,0.020
-2.060E-06,0.036
-2.050E-06,0.016
-2.040E-06,-0.004
-2.030E-06,-0.004
-2.020E-06,0.000
-2.010E-06,0.024
-2.000E-06,0.040
-1.990E-06,0.024
-1.980E-06,-0.004
-1.970E-06,-0.004
-1.960E-06,-0.024
-1.950E-06,-0.016
-1.940E-06,-0.004
-1.930E-06,0.004
-1.920E-06,-0.004
-1.910E-06,0.000
-1.900E-06,-0.008
-1.890E-06,-0.008
-1.880E-06,0.008
-1.870E-06,0.012
-1.860E-06,0.028
-1.850E-06,0.020
-1.840E-06,0.012
-1.830E-06,0.004
-1.820E-06,0.004
-1.810E-06,0.008
-1.800E-06,0.008
-1.790E-06,0.008
-1.780E-06,0.004
-1.770E-06,0.000
-1.760E-06,0.000
-1.750E-06,-0.004
-1.740E-06,0.004
-1.730E-06,0.012
-1.720E-06,0.016
-1.710E-06,0.008
-1.700E-06,0.004
-1.690E-06,0.008
-1.680E-06,0.008
-1.670E-06,0.012
-1.660E-06,0.012
-1.650E-06,0.012
-1.640E-06,0.016
-1.630E-06,0.012
-1.620E-06,0.008
-1.610E-06,0.008
-1.600E-06,0.016
-1.590E-06,0.020
-1.580E-06,0.012
-1.570E-06,0.016
-1.560E-06,0.020
-1.550E-06,0.028
-1.540E-06,0.024
-1.530E-06,0.024
-1.520E-06,0.028
-1.510E-06,0.028
-1.500E-06,0.028
-1.490E-06,0.036
-1.480E-06,0.040
-1.470E-06,0.036
-1.460E-06,0.028
-1.450E-06,0.028
-1.440E-06,0.024
-1.430E-06,0.032
-1.420E-06,0.036
-1.410E-06,0.028
-1.400E-06,0.024
-1.390E-06,0.008
-1.380E-06,-0.008
-1.370E-06,-0.004
-1.360E-06,0.012
-1.350E-06,0.040
-1.340E-06,0.064
-1.330E-06,0.072
-1.320E-06,0.048
-1.310E-06,0.016
-1.300E-06,0.000
-1.290E-06,0.012
-1.280E-06,0.052
-1.270E-06,0.100
-1.260E-06,0.136
-1.250E-06,0.136
-1.240E-06,0.112
-1.230E-06,0.076
-1.220E-06,0.040
-1.210E-06,0.024
-1.200E-06,-0.024
-1.190E-06,-0.056
-1.180E-06,-0.104
-1.170E-06,-0.152
-1.160E-06,-0.120
-1.150E-06,-0.056
-1.140E-06,-0.032
-1.130E-06,-0.032
-1.120E-06,-0.068
-1.110E-06,-0.108
-1.100E-06,-0.096
-1.090E-06,-0.060
-1.080E-06,0.004
-1.070E-06,0.064
-1.060E-06,0.104
-1.050E-06,0.104
-1.040E-06,0.092
-1.030E-06,0.028
-1.020E-06,-0.088
-1.010E-06,-0.168
-1.000E-06,-0.204
-9.900E-07,-0.176
-9.800E-07,-0.060
-9.700E-07,0.052
-9.600E-07,0.124
-9.500E-07,0.112
-9.400E-07,0.044
-9.300E-07,-0.024
-9.200E-07,-0.056
-9.100E-07,-0.068
-9.000E-07,-0.004
-8.900E-07,0.020
-8.800E-07,0.012
-8.700E-07,0.012
-8.600E-07,-0.020
-8.500E-07,-0.024
-8.400E-07,-0.040
-8.300E-07,0.004
-8.200E-07,0.028
-8.100E-07,0.060
-8.000E-07,0.052
-7.900E-07,0.024
-7.800E-07,-0.032
-7.700E-07,-0.068
-7.600E-07,-0.064
-7.500E-07,-0.024
-7.400E-07,0.040
-7.300E-07,0.068
-7.200E-07,0.060
-7.100E-07,0.020
-7.000E-07,-0.008
-6.900E-07,-0.040
-6.800E-07,-0.024
-6.700E-07,0.000
-6.600E-07,0.028
-6.500E-07,0.044
-6.400E-07,0.044
-6.300E-07,0.032
-6.200E-07,0.008
-6.100E-07,-0.008
-6.000E-07,-0.012
-5.900E-07,0.000
-5.800E-07,0.024
-5.700E-07,0.036
-5.600E-07,0.040
-5.500E-07,0.032
-5.400E-07,0.020
-5.300E-07,0.004
-5.200E-07,-0.004
-5.100E-07,0.000
-5.000E-07,0.020
-4.900E-07,0.044
-4.800E-07,0.052
-4.700E-07,0.056
-4.600E-07,0.056
-4.500E-07,0.044
-4.400E-07,0.040
-4.300E-07,0.040
-4.200E-07,0.040
-4.100E-07,0.044
-4.000E-07,0.044
-3.900E-07,0.052
-3.800E-07,0.056
-3.700E-07,0.072
-3.600E-07,0.096
-3.500E-07,0.096
-3.400E-07,0.108
-3.300E-07,0.096
-3.200E-07,0.076
-3.100E-07,0.056
-3.000E-07,0.024
-2.900E-07,-0.016
-2.800E-07,-0.052
-2.700E-07,-0.084
-2.600E-07,-0.088
-2.500E-07,-0.064
-2.400E-07,-0.024
-2.300E-07,0.032
-2.200E-07,0.064
-2.100E-07,0.076
-2.000E-07,0.044
-1.900E-07,0.004
-1.800E-07,0.004
-1.700E-07,0.016
-1.600E-07,0.028
-1.500E-07,0.060
-1.400E-07,0.076
-1.300E-07,0.076
-1.200E-07,0.072
-1.100E-07,0.060
-1.000E-07,0.048
-9.000E-08,0.056
-8.000E-08,0.060
-7.000E-08,0.020
-6.000E-08,-0.044
-5.000E-08,-0.160
-4.000E-08,-0.232
-3.000E-08,-0.140
-2.000E-08,0.012
-1.000E-08,0.196
0.000E+00,0.300
1.000E-08,0.244
2.000E-08,0.036
3.000E-08,-0.192
4.000E-08,-0.508
5.000E-08,-0.512
6.000E-08,-0.420
7.000E-08,-0.144
8.000E-08,0.160
9.000E-08,0.192
1.000E-07,0.032
1.100E-07,-0.016
1.200E-07,-0.232
1.300E-07,-0.228
1.400E-07,-0.192
1.500E-07,-0.072
1.600E-07,0.132
1.700E-07,0.224
1.800E-07,0.168
1.900E-07,0.036
2.000E-07,-0.096
2.100E-07,-0.156
2.200E-07,-0.076
2.300E-07,0.024
2.400E-07,0.124
2.500E-07,0.144
2.600E-07,0.060
2.700E-07,-0.056
2.800E-07,-0.100
2.900E-07,-0.080
3.000E-07,-0.020
3.100E-07,0.072
3.200E-07,0.104
3.300E-07,0.072
3.400E-07,0.016
3.500E-07,-0.040
3.600E-07,-0.080
3.700E-07,-0.052
3.800E-07,0.000
3.900E-07,0.056
4.000E-07,0.088
4.100E-07,0.064
4.200E-07,0.016
4.300E-07,-0.028
4.400E-07,-0.052
4.500E-07,-0.040
4.600E-07,0.004
4.700E-07,0.040
4.800E-07,0.064
4.900E-07,0.056
5.000E-07,0.020
5.100E-07,-0.012
5.200E-07,-0.036
5.300E-07,-0.024
5.400E-07,0.004
5.500E-07,0.040
5.600E-07,0.060
5.700E-07,0.052
5.800E-07,0.028
5.900E-07,0.008
6.000E-07,-0.012
6.100E-07,-0.012
6.200E-07,0.016
6.300E-07,0.028
6.400E-07,0.052
6.500E-07,0.056
6.600E-07,0.036
6.700E-07,0.020
6.800E-07,0.012
6.900E-07,0.016
7.000E-07,0.040
7.100E-07,0.060
7.200E-07,0.092
7.300E-07,0.096
7.400E-07,0.100
7.500E-07,0.084
7.600E-07,0.072
7.700E-07,0.080
7.800E-07,0.092
7.900E-07,0.116
8.000E-07,0.136
8.100E-07,0.148
8.200E-07,0.148
8.300E-07,0.140
8.400E-07,0.116
8.500E-07,0.096
8.600E-07,0.072
8.700E-07,0.028
8.800E-07,-0.052
8.900E-07,-0.140
9.000E-07,-0.192
9.100E-07,-0.160
9.200E-07,-0.060
9.300E-07,0.072
9.400E-07,0.176
9.500E-07,0.208
9.600E-07,0.180
9.700E-07,0.092
9.800E-07,0.024
9.900E-07,-0.012
1.000E-06,0.028
1.010E-06,0.052
1.020E-06,0.052
1.030E-06,-0.012
1.040E-06,-0.156
1.050E-06,-0.232
1.060E-06,-0.288
1.070E-06,-0.188
1.080E-06,-0.160
1.090E-06,-0.108
1.100E-06,-0.200
1.110E-06,-0.240
1.120E-06,-0.176
1.130E-06,-0.044
1.140E-06,0.044
1.150E-06,0.172
1.160E-06,0.192
1.170E-06,0.124
1.180E-06,0.060
1.190E-06,-0.004
1.200E-06,0.016
1.210E-06,0.008
1.220E-06,-0.052
1.230E-06,-0.144
1.240E-06,-0.200
1.250E-06,-0.196
1.260E-06,-0.116
1.270E-06,0.004
1.280E-06,0.108
1.290E-06,0.108
1.300E-06,0.040
1.310E-06,-0.056
1.320E-06,-0.112
1.330E-06,-0.124
1.340E-06,-0.044
1.350E-06,0.044
1.360E-06,0.080
1.370E-06,0.064
1.380E-06,0.008
1.390E-06,-0.036
1.400E-06,-0.056
1.410E-06,-0.036
1.420E-06,0.004
1.430E-06,0.032
1.440E-06,0.036
1.450E-06,0.028
1.460E-06,0.008
1.470E-06,-0.008
1.480E-06,-0.008
1.490E-06,0.004
1.500E-06,0.016
1.510E-06,0.032
1.520E-06,0.040
1.530E-06,0.040
1.540E-06,0.024
1.550E-06,0.012
1.560E-06,0.008
1.570E-06,0.016
1.580E-06,0.020
1.590E-06,0.032
1.600E-06,0.044
1.610E-06,0.040
1.620E-06,0.032
1.630E-06,0.028
1.640E-06,0.028
1.650E-06,0.024
1.660E-06,0.036
1.670E-06,0.032
1.680E-06,0.032
1.690E-06,0.016
1.700E-06,0.020
1.710E-06,0.016
1.720E-06,0.020
1.730E-06,0.032
1.740E-06,0.032
1.750E-06,0.040
1.760E-06,0.028
1.770E-06,0.008
1.780E-06,0.012
1.790E-06,0.024
1.800E-06,0.036
1.810E-06,0.044
1.820E-06,0.044
1.830E-06,0.032
1.840E-06,0.040
1.850E-06,0.036
1.860E-06,0.048
1.870E-06,0.052
1.880E-06,0.064
1.890E-06,0.076
1.900E-06,0.088
1.910E-06,0.100
1.920E-06,0.112
1.930E-06,0.128
1.940E-06,0.144
1.950E-06,0.148
1.960E-06,0.148
1.970E-06,0.140
1.980E-06,0.136
1.990E-06,0.128
2.000E-06,0.136
2.010E-06,0.132
2.020E-06,0.140
2.030E-06,0.140
2.040E-06,0.136
2.050E-06,0.140
2.060E-06,0.140
2.070E-06,0.140
2.080E-06,0.136
2.090E-06,0.144
2.100E-06,0.132
2.110E-06,0.132
2.120E-06,0.128
2.130E-06,0.128
2.140E-06,0.128
2.150E-06,0.136
2.160E-06,0.136
2.170E-06,0.144
2.180E-06,0.144
2.190E-06,0.144
2.200E-06,0.136
2.210E-06,0.124
2.220E-06,0.120
2.230E-06,0.112
2.240E-06,0.120
2.250E-06,0.116
2.260E-06,0.088
2.270E-06,0.072
2.280E-06,0.032
2.290E-06,-0.140
2.300E-06,-0.468
2.310E-06,-0.512
2.320E-06,-0.512
2.330E-06,-0.508
2.340E-06,-0.512
2.350E-06,-0.068
2.360E-06,0.540
2.370E-06,0.540
2.380E-06,0.308
2.390E-06,-0.464
2.400E-06,-0.512
2.410E-06,-0.512
2.420E-06,-0.372
2.430E-06,0.348
2.440E-06,0.540
2.450E-06,0.540
2.460E-06,0.152
2.470E-06,-0.212
2.480E-06,-0.364
2.490E-06,-0.264
2.500E-06,-0.012
2.510E-06,0.176
2.520E-06,0.308
2.530E-06,0.228
2.540E-06,0.112
2.550E-06,-0.032
2.560E-06,-0.104
2.570E-06,-0.096
2.580E-06,0.004
2.590E-06,0.144
2.600E-06,0.244
2.610E-06,0.260
2.620E-06,0.168
2.630E-06,0.044
2.640E-06,-0.052
2.650E-06,-0.052
2.660E-06,0.024
2.670E-06,0.112
2.680E-06,0.156
2.690E-06,0.148
2.700E-06,0.080
2.710E-06,0.016
2.720E-06,-0.004
2.730E-06,0.008
2.740E-06,0.052
2.750E-06,0.116
2.760E-06,0.140
2.770E-06,0.148
2.780E-06,0.124
2.790E-06,0.092
2.800E-06,0.076
2.810E-06,0.092
2.820E-06,0.132
2.830E-06,0.152
2.840E-06,0.172
2.850E-06,0.156
2.860E-06,0.128
2.870E-06,0.104
2.880E-06,0.092
2.890E-06,0.100
2.900E-06,0.120
2.910E-06,0.144
2.920E-06,0.156
2.930E-06,0.160
2.940E-06,0.164
2.950E-06,0.160
2.960E-06,0.160
2.970E-06,0.160
2.980E-06,0.148
2.990E-06,0.140
3.000E-06,0.124
3.010E-06,0.096
3.020E-06,0.084
3.030E-06,0.064
3.040E-06,0.048
3.050E-06,0.056
3.060E-06,0.104
3.070E-06,0.140
3.080E-06,0.160
3.090E-06,0.132
3.100E-06,0.036
3.110E-06,-0.012
3.120E-06,-0.024
3.130E-06,-0.012
3.140E-06,0.056
3.150E-06,0.092
3.160E-06,0.080
3.170E-06,0.052
3.180E-06,0.032
3.190E-06,0.000
3.200E-06,0.012
3.210E-06,-0.020
3.220E-06,-0.084
3.230E-06,-0.176
3.240E-06,-0.220
3.250E-06,-0.336
3.260E-06,-0.380
3.270E-06,-0.512
3.280E-06,-0.484
3.290E-06,-0.440
3.300E-06,-0.280
3.310E-06,-0.192
