mediciones/Mediciones filtradas (saque las feas)/5-27/-35/WaveData5096.csv

#timebase=2000000(ps)
,#voltbase=100000(mv/100)
#size=4000
-8.400E-06,0.008
-8.390E-06,0.000
-8.380E-06,0.000
-8.370E-06,-0.004
-8.360E-06,-0.008
-8.350E-06,-0.008
-8.340E-06,0.004
-8.330E-06,0.008
-8.320E-06,0.008
-8.310E-06,0.016
-8.300E-06,0.004
-8.290E-06,0.000
-8.280E-06,-0.004
-8.270E-06,-0.004
-8.260E-06,0.004
-8.250E-06,0.016
-8.240E-06,0.008
-8.230E-06,0.000
-8.220E-06,0.000
-8.210E-06,-0.004
-8.200E-06,-0.004
-8.190E-06,0.008
-8.180E-06,0.008
-8.170E-06,0.008
-8.160E-06,0.004
-8.150E-06,0.000
-8.140E-06,0.000
-8.130E-06,-0.004
-8.120E-06,0.012
-8.110E-06,0.004
-8.100E-06,0.020
-8.090E-06,-0.004
-8.080E-06,0.004
-8.070E-06,0.008
-8.060E-06,0.004
-8.050E-06,-0.012
-8.040E-06,0.004
-8.030E-06,0.000
-8.020E-06,0.004
-8.010E-06,0.012
-8.000E-06,-0.004
-7.990E-06,-0.016
-7.980E-06,-0.004
-7.970E-06,-0.004
-7.960E-06,0.004
-7.950E-06,0.012
-7.940E-06,0.012
-7.930E-06,0.012
-7.920E-06,0.000
-7.910E-06,0.000
-7.900E-06,-0.008
-7.890E-06,-0.004
-7.880E-06,0.008
-7.870E-06,0.012
-7.860E-06,0.012
-7.850E-06,0.008
-7.840E-06,0.004
-7.830E-06,-0.004
-7.820E-06,0.000
-7.810E-06,0.000
-7.800E-06,0.008
-7.790E-06,0.012
-7.780E-06,0.004
-7.770E-06,-0.004
-7.760E-06,0.000
-7.750E-06,0.000
-7.740E-06,0.016
-7.730E-06,-0.004
-7.720E-06,0.024
-7.710E-06,0.000
-7.700E-06,-0.004
-7.690E-06,0.004
-7.680E-06,0.008
-7.670E-06,0.016
-7.660E-06,0.008
-7.650E-06,-0.004
-7.640E-06,-0.004
-7.630E-06,-0.004
-7.620E-06,0.000
-7.610E-06,0.004
-7.600E-06,0.004
-7.590E-06,0.016
-7.580E-06,-0.004
-7.570E-06,-0.008
-7.560E-06,0.004
-7.550E-06,0.012
-7.540E-06,0.008
-7.530E-06,0.020
-7.520E-06,0.000
-7.510E-06,-0.008
-7.500E-06,-0.016
-7.490E-06,0.000
-7.480E-06,0.000
-7.470E-06,0.028
-7.460E-06,-0.008
-7.450E-06,0.004
-7.440E-06,0.008
-7.430E-06,-0.004
-7.420E-06,-0.008
-7.410E-06,0.004
-7.400E-06,-0.004
-7.390E-06,0.020
-7.380E-06,0.008
-7.370E-06,-0.004
-7.360E-06,-0.008
-7.350E-06,0.004
-7.340E-06,0.012
-7.330E-06,0.012
-7.320E-06,0.008
-7.310E-06,-0.008
-7.300E-06,0.004
-7.290E-06,0.024
-7.280E-06,-0.012
-7.270E-06,-0.008
-7.260E-06,0.012
-7.250E-06,0.024
-7.240E-06,0.004
-7.230E-06,0.016
-7.220E-06,-0.012
-7.210E-06,-0.004
-7.200E-06,0.004
-7.190E-06,0.008
-7.180E-06,0.008
-7.170E-06,0.000
-7.160E-06,0.012
-7.150E-06,0.000
-7.140E-06,-0.004
-7.130E-06,-0.008
-7.120E-06,0.012
-7.110E-06,0.004
-7.100E-06,0.016
-7.090E-06,0.004
-7.080E-06,0.008
-7.070E-06,0.000
-7.060E-06,0.024
-7.050E-06,0.012
-7.040E-06,0.012
-7.030E-06,0.032
-7.020E-06,-0.088
-7.010E-06,-0.036
-7.000E-06,-0.024
-6.990E-06,0.004
-6.980E-06,0.048
-6.970E-06,0.032
-6.960E-06,0.024
-6.950E-06,0.016
-6.940E-06,-0.016
-6.930E-06,-0.004
-6.920E-06,-0.016
-6.910E-06,0.020
-6.900E-06,-0.008
-6.890E-06,0.012
-6.880E-06,0.016
-6.870E-06,0.004
-6.860E-06,0.020
-6.850E-06,0.008
-6.840E-06,-0.004
-6.830E-06,-0.004
-6.820E-06,-0.004
-6.810E-06,-0.004
-6.800E-06,0.000
-6.790E-06,0.020
-6.780E-06,0.020
-6.770E-06,-0.008
-6.760E-06,0.004
-6.750E-06,-0.012
-6.740E-06,-0.020
-6.730E-06,0.016
-6.720E-06,0.024
-6.710E-06,0.004
-6.700E-06,0.004
-6.690E-06,0.012
-6.680E-06,-0.016
-6.670E-06,-0.008
-6.660E-06,0.004
-6.650E-06,0.000
-6.640E-06,0.012
-6.630E-06,0.020
-6.620E-06,0.012
-6.610E-06,-0.004
-6.600E-06,-0.004
-6.590E-06,-0.012
-6.580E-06,0.000
-6.570E-06,0.012
-6.560E-06,0.024
-6.550E-06,0.004
-6.540E-06,0.004
-6.530E-06,0.004
-6.520E-06,0.008
-6.510E-06,0.000
-6.500E-06,0.004
-6.490E-06,0.004
-6.480E-06,0.008
-6.470E-06,0.000
-6.460E-06,0.012
-6.450E-06,0.004
-6.440E-06,0.008
-6.430E-06,-0.004
-6.420E-06,0.004
-6.410E-06,0.012
-6.400E-06,0.004
-6.390E-06,-0.004
-6.380E-06,-0.008
-6.370E-06,0.012
-6.360E-06,0.012
-6.350E-06,0.016
-6.340E-06,0.008
-6.330E-06,0.004
-6.320E-06,0.008
-6.310E-06,0.012
-6.300E-06,0.012
-6.290E-06,-0.020
-6.280E-06,0.028
-6.270E-06,-0.032
-6.260E-06,-0.012
-6.250E-06,-0.008
-6.240E-06,0.008
-6.230E-06,0.028
-6.220E-06,0.028
-6.210E-06,-0.004
-6.200E-06,-0.020
-6.190E-06,-0.008
-6.180E-06,0.000
-6.170E-06,0.008
-6.160E-06,0.020
-6.150E-06,0.028
-6.140E-06,0.000
-6.130E-06,0.000
-6.120E-06,-0.020
-6.110E-06,-0.004
-6.100E-06,0.004
-6.090E-06,0.016
-6.080E-06,0.024
-6.070E-06,0.008
-6.060E-06,-0.004
-6.050E-06,-0.008
-6.040E-06,-0.004
-6.030E-06,0.000
-6.020E-06,0.004
-6.010E-06,0.004
-6.000E-06,0.008
-5.990E-06,0.000
-5.980E-06,0.000
-5.970E-06,0.008
-5.960E-06,0.016
-5.950E-06,0.008
-5.940E-06,0.008
-5.930E-06,0.004
-5.920E-06,-0.004
-5.910E-06,0.000
-5.900E-06,0.008
-5.890E-06,0.012
-5.880E-06,0.008
-5.870E-06,0.020
-5.860E-06,0.008
-5.850E-06,0.004
-5.840E-06,0.008
-5.830E-06,0.012
-5.820E-06,0.012
-5.810E-06,-0.012
-5.800E-06,-0.064
-5.790E-06,-0.052
-5.780E-06,0.000
-5.770E-06,0.048
-5.760E-06,0.100
-5.750E-06,0.000
-5.740E-06,-0.020
-5.730E-06,-0.052
-5.720E-06,-0.060
-5.710E-06,0.000
-5.700E-06,0.024
-5.690E-06,0.052
-5.680E-06,0.040
-5.670E-06,-0.004
-5.660E-06,-0.024
-5.650E-06,-0.024
-5.640E-06,0.000
-5.630E-06,0.008
-5.620E-06,0.024
-5.610E-06,0.016
-5.600E-06,0.008
-5.590E-06,0.000
-5.580E-06,-0.004
-5.570E-06,-0.004
-5.560E-06,0.000
-5.550E-06,0.004
-5.540E-06,0.008
-5.530E-06,0.000
-5.520E-06,0.000
-5.510E-06,0.004
-5.500E-06,0.008
-5.490E-06,0.008
-5.480E-06,0.000
-5.470E-06,0.000
-5.460E-06,0.000
-5.450E-06,0.004
-5.440E-06,0.008
-5.430E-06,0.008
-5.420E-06,0.012
-5.410E-06,0.000
-5.400E-06,0.004
-5.390E-06,0.008
-5.380E-06,0.012
-5.370E-06,0.004
-5.360E-06,0.008
-5.350E-06,0.004
-5.340E-06,0.000
-5.330E-06,-0.004
-5.320E-06,0.004
-5.310E-06,0.004
-5.300E-06,0.012
-5.290E-06,0.008
-5.280E-06,0.004
-5.270E-06,0.008
-5.260E-06,0.016
-5.250E-06,0.008
-5.240E-06,0.012
-5.230E-06,0.020
-5.220E-06,0.016
-5.210E-06,-0.004
-5.200E-06,0.004
-5.190E-06,-0.008
-5.180E-06,-0.004
-5.170E-06,0.000
-5.160E-06,0.000
-5.150E-06,0.000
-5.140E-06,0.004
-5.130E-06,0.016
-5.120E-06,0.012
-5.110E-06,0.012
-5.100E-06,0.004
-5.090E-06,0.008
-5.080E-06,0.008
-5.070E-06,0.020
-5.060E-06,0.024
-5.050E-06,0.044
-5.040E-06,0.052
-5.030E-06,0.028
-5.020E-06,0.012
-5.010E-06,-0.008
-5.000E-06,-0.032
-4.990E-06,-0.044
-4.980E-06,-0.084
-4.970E-06,-0.052
-4.960E-06,-0.044
-4.950E-06,0.000
-4.940E-06,0.028
-4.930E-06,0.036
-4.920E-06,0.016
-4.910E-06,-0.004
-4.900E-06,-0.024
-4.890E-06,-0.024
-4.880E-06,-0.008
-4.870E-06,0.004
-4.860E-06,0.008
-4.850E-06,0.020
-4.840E-06,0.016
-4.830E-06,-0.004
-4.820E-06,-0.008
-4.810E-06,-0.004
-4.800E-06,0.000
-4.790E-06,0.012
-4.780E-06,0.008
-4.770E-06,0.008
-4.760E-06,0.008
-4.750E-06,0.000
-4.740E-06,0.004
-4.730E-06,0.000
-4.720E-06,0.008
-4.710E-06,0.008
-4.700E-06,0.012
-4.690E-06,0.016
-4.680E-06,0.016
-4.670E-06,0.004
-4.660E-06,-0.008
-4.650E-06,-0.016
-4.640E-06,-0.016
-4.630E-06,-0.008
-4.620E-06,0.008
-4.610E-06,0.020
-4.600E-06,0.028
-4.590E-06,0.012
-4.580E-06,0.004
-4.570E-06,0.000
-4.560E-06,0.012
-4.550E-06,0.008
-4.540E-06,-0.016
-4.530E-06,-0.020
-4.520E-06,-0.036
-4.510E-06,-0.004
-4.500E-06,0.008
-4.490E-06,0.024
-4.480E-06,0.016
-4.470E-06,0.004
-4.460E-06,-0.004
-4.450E-06,-0.040
-4.440E-06,-0.016
-4.430E-06,0.008
-4.420E-06,0.036
-4.410E-06,0.032
-4.400E-06,0.008
-4.390E-06,-0.020
-4.380E-06,-0.032
-4.370E-06,-0.012
-4.360E-06,0.004
-4.350E-06,0.016
-4.340E-06,0.020
-4.330E-06,0.008
-4.320E-06,-0.004
-4.310E-06,-0.008
-4.300E-06,-0.008
-4.290E-06,0.004
-4.280E-06,0.020
-4.270E-06,0.020
-4.260E-06,0.008
-4.250E-06,0.004
-4.240E-06,-0.004
-4.230E-06,0.000
-4.220E-06,0.000
-4.210E-06,0.000
-4.200E-06,0.008
-4.190E-06,0.012
-4.180E-06,0.008
-4.170E-06,0.008
-4.160E-06,0.012
-4.150E-06,0.016
-4.140E-06,0.004
-4.130E-06,-0.004
-4.120E-06,-0.008
-4.110E-06,-0.004
-4.100E-06,0.008
-4.090E-06,0.024
-4.080E-06,0.036
-4.070E-06,0.020
-4.060E-06,-0.008
-4.050E-06,-0.008
-4.040E-06,-0.016
-4.030E-06,-0.012
-4.020E-06,0.000
-4.010E-06,0.012
-4.000E-06,0.012
-3.990E-06,0.012
-3.980E-06,-0.004
-3.970E-06,-0.004
-3.960E-06,-0.008
-3.950E-06,-0.008
-3.940E-06,-0.004
-3.930E-06,0.004
-3.920E-06,0.008
-3.910E-06,0.008
-3.900E-06,0.008
-3.890E-06,0.000
-3.880E-06,0.000
-3.870E-06,0.008
-3.860E-06,0.016
-3.850E-06,0.016
-3.840E-06,0.024
-3.830E-06,0.024
-3.820E-06,0.004
-3.810E-06,-0.016
-3.800E-06,-0.016
-3.790E-06,-0.008
-3.780E-06,-0.004
-3.770E-06,0.012
-3.760E-06,0.016
-3.750E-06,0.000
-3.740E-06,0.008
-3.730E-06,-0.004
-3.720E-06,-0.008
-3.710E-06,0.000
-3.700E-06,0.000
-3.690E-06,0.004
-3.680E-06,0.008
-3.670E-06,0.012
-3.660E-06,0.008
-3.650E-06,0.004
-3.640E-06,-0.012
-3.630E-06,-0.016
-3.620E-06,-0.008
-3.610E-06,0.000
-3.600E-06,0.008
-3.590E-06,0.008
-3.580E-06,0.016
-3.570E-06,0.008
-3.560E-06,-0.004
-3.550E-06,-0.008
-3.540E-06,-0.008
-3.530E-06,-0.004
-3.520E-06,0.012
-3.510E-06,0.016
-3.500E-06,0.012
-3.490E-06,0.008
-3.480E-06,0.000
-3.470E-06,0.000
-3.460E-06,0.008
-3.450E-06,0.016
-3.440E-06,0.020
-3.430E-06,0.028
-3.420E-06,0.016
-3.410E-06,0.000
-3.400E-06,-0.020
-3.390E-06,-0.028
-3.380E-06,-0.020
-3.370E-06,-0.004
-3.360E-06,0.020
-3.350E-06,0.028
-3.340E-06,0.036
-3.330E-06,0.032
-3.320E-06,0.024
-3.310E-06,0.016
-3.300E-06,0.000
-3.290E-06,0.000
-3.280E-06,-0.040
-3.270E-06,-0.024
-3.260E-06,-0.028
-3.250E-06,-0.004
-3.240E-06,0.036
-3.230E-06,0.044
-3.220E-06,0.036
-3.210E-06,0.008
-3.200E-06,-0.008
-3.190E-06,-0.036
-3.180E-06,-0.024
-3.170E-06,0.008
-3.160E-06,0.012
-3.150E-06,0.020
-3.140E-06,-0.008
-3.130E-06,-0.028
-3.120E-06,-0.016
-3.110E-06,-0.004
-3.100E-06,0.024
-3.090E-06,0.032
-3.080E-06,0.020
-3.070E-06,-0.004
-3.060E-06,-0.024
-3.050E-06,-0.028
-3.040E-06,-0.004
-3.030E-06,0.024
-3.020E-06,0.036
-3.010E-06,0.028
-3.000E-06,-0.008
-2.990E-06,-0.016
-2.980E-06,-0.016
-2.970E-06,0.000
-2.960E-06,0.004
-2.950E-06,0.016
-2.940E-06,0.012
-2.930E-06,0.004
-2.920E-06,0.008
-2.910E-06,0.016
-2.900E-06,0.016
-2.890E-06,0.012
-2.880E-06,-0.008
-2.870E-06,-0.016
-2.860E-06,-0.012
-2.850E-06,0.000
-2.840E-06,0.008
-2.830E-06,0.016
-2.820E-06,0.008
-2.810E-06,0.004
-2.800E-06,0.000
-2.790E-06,0.000
-2.780E-06,0.004
-2.770E-06,0.008
-2.760E-06,0.020
-2.750E-06,0.024
-2.740E-06,0.012
-2.730E-06,0.000
-2.720E-06,0.004
-2.710E-06,0.008
-2.700E-06,0.012
-2.690E-06,0.024
-2.680E-06,0.024
-2.670E-06,0.020
-2.660E-06,0.020
-2.650E-06,0.016
-2.640E-06,0.016
-2.630E-06,0.020
-2.620E-06,0.028
-2.610E-06,0.032
-2.600E-06,0.016
-2.590E-06,-0.012
-2.580E-06,-0.032
-2.570E-06,-0.044
-2.560E-06,-0.004
-2.550E-06,0.020
-2.540E-06,0.052
-2.530E-06,0.056
-2.520E-06,0.020
-2.510E-06,-0.012
-2.500E-06,-0.040
-2.490E-06,-0.028
-2.480E-06,-0.080
-2.470E-06,-0.072
-2.460E-06,-0.032
-2.450E-06,-0.016
-2.440E-06,0.052
-2.430E-06,0.044
-2.420E-06,0.000
-2.410E-06,0.004
-2.400E-06,-0.028
-2.390E-06,-0.024
-2.380E-06,-0.004
-2.370E-06,0.020
-2.360E-06,0.024
-2.350E-06,0.016
-2.340E-06,-0.008
-2.330E-06,-0.024
-2.320E-06,-0.008
-2.310E-06,0.008
-2.300E-06,0.024
-2.290E-06,0.020
-2.280E-06,0.000
-2.270E-06,-0.008
-2.260E-06,-0.008
-2.250E-06,-0.008
-2.240E-06,0.004
-2.230E-06,0.020
-2.220E-06,0.020
-2.210E-06,0.012
-2.200E-06,0.008
-2.190E-06,-0.004
-2.180E-06,-0.004
-2.170E-06,0.004
-2.160E-06,0.008
-2.150E-06,0.016
-2.140E-06,0.016
-2.130E-06,0.004
-2.120E-06,0.004
-2.110E-06,0.004
-2.100E-06,0.000
-2.090E-06,0.008
-2.080E-06,0.012
-2.070E-06,0.020
-2.060E-06,0.024
-2.050E-06,0.016
-2.040E-06,0.020
-2.030E-06,0.016
-2.020E-06,0.008
-2.010E-06,0.008
-2.000E-06,0.016
-1.990E-06,0.020
-1.980E-06,0.028
-1.970E-06,0.008
-1.960E-06,0.004
-1.950E-06,0.000
-1.940E-06,-0.012
-1.930E-06,0.008
-1.920E-06,0.008
-1.910E-06,-0.004
-1.900E-06,-0.008
-1.890E-06,-0.064
-1.880E-06,-0.036
-1.870E-06,-0.008
-1.860E-06,0.044
-1.850E-06,0.076
-1.840E-06,0.084
-1.830E-06,0.040
-1.820E-06,-0.064
-1.810E-06,-0.124
-1.800E-06,-0.152
-1.790E-06,-0.052
-1.780E-06,0.072
-1.770E-06,0.120
-1.760E-06,0.072
-1.750E-06,0.008
-1.740E-06,-0.068
-1.730E-06,-0.080
-1.720E-06,-0.036
-1.710E-06,0.028
-1.700E-06,0.060
-1.690E-06,0.044
-1.680E-06,0.000
-1.670E-06,-0.040
-1.660E-06,-0.044
-1.650E-06,-0.004
-1.640E-06,0.032
-1.630E-06,0.040
-1.620E-06,0.024
-1.610E-06,0.000
-1.600E-06,-0.028
-1.590E-06,-0.028
-1.580E-06,0.000
-1.570E-06,0.012
-1.560E-06,0.024
-1.550E-06,0.024
-1.540E-06,0.012
-1.530E-06,0.004
-1.520E-06,0.004
-1.510E-06,0.004
-1.500E-06,0.012
-1.490E-06,0.028
-1.480E-06,0.028
-1.470E-06,0.028
-1.460E-06,0.032
-1.450E-06,0.036
-1.440E-06,0.028
-1.430E-06,0.012
-1.420E-06,-0.008
-1.410E-06,-0.028
-1.400E-06,-0.020
-1.390E-06,-0.004
-1.380E-06,0.028
-1.370E-06,0.032
-1.360E-06,0.040
-1.350E-06,0.036
-1.340E-06,0.016
-1.330E-06,0.004
-1.320E-06,-0.040
-1.310E-06,-0.052
-1.300E-06,-0.072
-1.290E-06,-0.024
-1.280E-06,0.024
-1.270E-06,0.084
-1.260E-06,0.108
-1.250E-06,0.056
-1.240E-06,-0.028
-1.230E-06,-0.156
-1.220E-06,-0.168
-1.210E-06,-0.124
-1.200E-06,0.024
-1.190E-06,0.140
-1.180E-06,0.128
-1.170E-06,0.044
-1.160E-06,-0.056
-1.150E-06,-0.108
-1.140E-06,-0.084
-1.130E-06,0.000
-1.120E-06,0.068
-1.110E-06,0.092
-1.100E-06,0.040
-1.090E-06,-0.016
-1.080E-06,-0.056
-1.070E-06,-0.044
-1.060E-06,-0.004
-1.050E-06,0.040
-1.040E-06,0.052
-1.030E-06,0.028
-1.020E-06,0.000
-1.010E-06,-0.036
-1.000E-06,-0.036
-9.900E-07,-0.016
-9.800E-07,0.012
-9.700E-07,0.028
-9.600E-07,0.040
-9.500E-07,0.028
-9.400E-07,0.008
-9.300E-07,-0.012
-9.200E-07,-0.016
-9.100E-07,-0.016
-9.000E-07,-0.004
-8.900E-07,0.016
-8.800E-07,0.032
-8.700E-07,0.036
-8.600E-07,0.028
-8.500E-07,0.028
-8.400E-07,0.012
-8.300E-07,0.000
-8.200E-07,0.000
-8.100E-07,0.008
-8.000E-07,0.016
-7.900E-07,0.020
-7.800E-07,0.000
-7.700E-07,-0.016
-7.600E-07,-0.032
-7.500E-07,-0.036
-7.400E-07,-0.024
-7.300E-07,0.004
-7.200E-07,0.020
-7.100E-07,0.012
-7.000E-07,0.012
-6.900E-07,0.000
-6.800E-07,-0.004
-6.700E-07,-0.008
-6.600E-07,-0.004
-6.500E-07,0.004
-6.400E-07,0.008
-6.300E-07,0.008
-6.200E-07,0.016
-6.100E-07,0.012
-6.000E-07,0.008
-5.900E-07,0.008
-5.800E-07,0.000
-5.700E-07,0.004
-5.600E-07,0.008
-5.500E-07,0.012
-5.400E-07,0.016
-5.300E-07,0.016
-5.200E-07,0.016
-5.100E-07,0.016
-5.000E-07,0.016
-4.900E-07,0.024
-4.800E-07,0.032
-4.700E-07,0.048
-4.600E-07,0.056
-4.500E-07,0.012
-4.400E-07,-0.044
-4.300E-07,-0.040
-4.200E-07,-0.040
-4.100E-07,0.012
-4.000E-07,0.044
-3.900E-07,0.064
-3.800E-07,-0.012
-3.700E-07,-0.036
-3.600E-07,-0.068
-3.500E-07,-0.056
-3.400E-07,-0.004
-3.300E-07,0.052
-3.200E-07,0.056
-3.100E-07,0.028
-3.000E-07,-0.004
-2.900E-07,-0.044
-2.800E-07,-0.040
-2.700E-07,0.000
-2.600E-07,0.036
-2.500E-07,0.056
-2.400E-07,0.044
-2.300E-07,0.008
-2.200E-07,-0.004
-2.100E-07,0.000
-2.000E-07,0.012
-1.900E-07,0.028
-1.800E-07,0.052
-1.700E-07,0.064
-1.600E-07,0.036
-1.500E-07,0.016
-1.400E-07,-0.020
-1.300E-07,-0.024
-1.200E-07,-0.028
-1.100E-07,0.008
-1.000E-07,0.060
-9.000E-08,0.088
-8.000E-08,0.072
-7.000E-08,0.056
-6.000E-08,-0.096
-5.000E-08,-0.360
-4.000E-08,-0.252
-3.000E-08,-0.192
-2.000E-08,0.044
-1.000E-08,0.196
0.000E+00,0.192
1.000E-08,0.144
2.000E-08,-0.024
3.000E-08,-0.164
4.000E-08,-0.180
5.000E-08,-0.048
6.000E-08,0.088
7.000E-08,0.144
8.000E-08,0.076
9.000E-08,-0.016
1.000E-07,-0.068
1.100E-07,-0.072
1.200E-07,-0.024
1.300E-07,0.036
1.400E-07,0.044
1.500E-07,0.028
1.600E-07,0.016
1.700E-07,-0.020
1.800E-07,-0.024
1.900E-07,-0.008
2.000E-07,0.004
2.100E-07,0.008
2.200E-07,0.024
2.300E-07,0.004
2.400E-07,0.000
2.500E-07,-0.004
2.600E-07,-0.008
2.700E-07,-0.004
2.800E-07,0.012
2.900E-07,0.008
3.000E-07,0.012
3.100E-07,0.028
3.200E-07,0.000
3.300E-07,0.000
3.400E-07,-0.004
3.500E-07,-0.008
3.600E-07,0.000
3.700E-07,0.008
3.800E-07,0.016
3.900E-07,0.020
4.000E-07,0.024
4.100E-07,0.016
4.200E-07,-0.004
4.300E-07,-0.004
4.400E-07,-0.004
4.500E-07,0.004
4.600E-07,0.024
4.700E-07,0.032
4.800E-07,0.020
4.900E-07,0.012
5.000E-07,0.012
5.100E-07,0.020
5.200E-07,0.044
5.300E-07,0.060
5.400E-07,0.052
5.500E-07,0.020
5.600E-07,-0.020
5.700E-07,-0.040
5.800E-07,-0.036
5.900E-07,-0.024
6.000E-07,0.012
6.100E-07,0.024
6.200E-07,0.020
6.300E-07,-0.008
6.400E-07,-0.020
6.500E-07,-0.040
6.600E-07,-0.016
6.700E-07,-0.004
6.800E-07,0.028
6.900E-07,0.036
7.000E-07,0.044
7.100E-07,0.020
7.200E-07,-0.020
7.300E-07,-0.036
7.400E-07,-0.032
7.500E-07,-0.012
7.600E-07,0.012
7.700E-07,0.048
7.800E-07,0.052
7.900E-07,0.040
8.000E-07,0.012
8.100E-07,0.000
8.200E-07,-0.004
8.300E-07,0.036
8.400E-07,-0.024
8.500E-07,-0.024
8.600E-07,-0.056
8.700E-07,-0.020
8.800E-07,0.000
8.900E-07,0.024
9.000E-07,0.032
9.100E-07,0.012
9.200E-07,-0.008
9.300E-07,-0.036
9.400E-07,-0.028
9.500E-07,0.004
9.600E-07,0.012
9.700E-07,0.000
9.800E-07,-0.008
9.900E-07,-0.008
1.000E-06,0.000
1.010E-06,0.004
1.020E-06,0.008
1.030E-06,0.008
1.040E-06,-0.008
1.050E-06,0.004
1.060E-06,-0.012
1.070E-06,-0.004
1.080E-06,-0.004
1.090E-06,0.016
1.100E-06,0.020
1.110E-06,0.028
1.120E-06,0.012
1.130E-06,0.000
1.140E-06,-0.020
1.150E-06,-0.024
1.160E-06,-0.012
1.170E-06,0.008
1.180E-06,0.028
1.190E-06,0.024
1.200E-06,0.016
1.210E-06,-0.004
1.220E-06,-0.012
1.230E-06,-0.020
1.240E-06,0.000
1.250E-06,0.012
1.260E-06,0.028
1.270E-06,0.024
1.280E-06,0.012
1.290E-06,-0.004
1.300E-06,-0.020
1.310E-06,-0.012
1.320E-06,-0.008
1.330E-06,0.008
1.340E-06,0.020
1.350E-06,0.028
1.360E-06,0.020
1.370E-06,0.012
1.380E-06,0.008
1.390E-06,-0.004
1.400E-06,0.000
1.410E-06,0.000
1.420E-06,0.004
1.430E-06,0.012
1.440E-06,0.020
1.450E-06,0.020
1.460E-06,0.016
1.470E-06,0.008
1.480E-06,0.000
1.490E-06,0.008
1.500E-06,0.012
1.510E-06,0.032
1.520E-06,0.044
1.530E-06,0.052
1.540E-06,0.052
1.550E-06,0.052
1.560E-06,0.040
1.570E-06,0.024
1.580E-06,0.008
1.590E-06,0.000
1.600E-06,0.000
1.610E-06,-0.004
1.620E-06,0.008
1.630E-06,0.012
1.640E-06,-0.064
1.650E-06,-0.136
1.660E-06,-0.132
1.670E-06,-0.076
1.680E-06,0.064
1.690E-06,0.120
1.700E-06,0.104
1.710E-06,0.088
1.720E-06,0.016
1.730E-06,0.000
1.740E-06,0.008
1.750E-06,0.064
1.760E-06,-0.008
1.770E-06,-0.080
1.780E-06,-0.212
1.790E-06,-0.184
1.800E-06,-0.016
1.810E-06,0.100
1.820E-06,0.108
1.830E-06,0.104
1.840E-06,-0.004
1.850E-06,-0.072
1.860E-06,-0.072
1.870E-06,-0.032
1.880E-06,0.032
1.890E-06,0.068
1.900E-06,0.048
1.910E-06,0.016
1.920E-06,0.000
1.930E-06,-0.020
1.940E-06,0.000
1.950E-06,0.028
1.960E-06,0.028
1.970E-06,0.028
1.980E-06,0.020
1.990E-06,-0.004
2.000E-06,-0.012
2.010E-06,-0.016
2.020E-06,0.012
2.030E-06,0.020
2.040E-06,0.040
2.050E-06,0.056
2.060E-06,0.044
2.070E-06,0.020
2.080E-06,-0.024
2.090E-06,-0.060
2.100E-06,-0.068
2.110E-06,-0.036
2.120E-06,0.000
2.130E-06,0.048
2.140E-06,0.036
2.150E-06,0.008
2.160E-06,-0.020
2.170E-06,-0.036
2.180E-06,-0.024
2.190E-06,0.004
2.200E-06,0.028
2.210E-06,0.028
2.220E-06,0.024
2.230E-06,-0.004
2.240E-06,-0.024
2.250E-06,-0.012
2.260E-06,0.028
2.270E-06,0.052
2.280E-06,0.068
2.290E-06,0.036
2.300E-06,0.016
2.310E-06,0.012
2.320E-06,0.032
2.330E-06,0.048
2.340E-06,0.048
2.350E-06,0.012
2.360E-06,-0.032
2.370E-06,-0.060
2.380E-06,-0.056
2.390E-06,-0.024
2.400E-06,-0.008
2.410E-06,-0.020
2.420E-06,-0.036
2.430E-06,-0.012
2.440E-06,0.020
2.450E-06,0.028
2.460E-06,0.040
2.470E-06,0.028
2.480E-06,0.008
2.490E-06,-0.012
2.500E-06,0.008
2.510E-06,0.056
2.520E-06,0.096
2.530E-06,0.092
2.540E-06,0.036
2.550E-06,-0.036
2.560E-06,-0.076
2.570E-06,-0.072
2.580E-06,-0.028
2.590E-06,0.028
2.600E-06,0.060
2.610E-06,0.040
2.620E-06,0.000
2.630E-06,-0.044
2.640E-06,-0.044
2.650E-06,-0.040
2.660E-06,0.000
2.670E-06,0.024
2.680E-06,0.028
2.690E-06,0.032
2.700E-06,0.032
2.710E-06,0.056
2.720E-06,0.064
2.730E-06,0.056
2.740E-06,0.028
2.750E-06,-0.024
2.760E-06,-0.084
2.770E-06,-0.112
2.780E-06,-0.064
2.790E-06,-0.028
2.800E-06,0.016
2.810E-06,0.012
2.820E-06,-0.004
2.830E-06,-0.024
2.840E-06,-0.044
2.850E-06,-0.040
2.860E-06,0.000
2.870E-06,0.048
2.880E-06,0.068
2.890E-06,0.048
2.900E-06,-0.008
2.910E-06,-0.040
2.920E-06,-0.044
2.930E-06,-0.008
2.940E-06,0.036
2.950E-06,0.068
2.960E-06,0.064
2.970E-06,0.036
2.980E-06,0.012
2.990E-06,0.008
3.000E-06,0.016
3.010E-06,0.052
3.020E-06,0.080
3.030E-06,0.092
3.040E-06,0.084
3.050E-06,0.004
3.060E-06,-0.068
3.070E-06,-0.136
3.080E-06,-0.172
3.090E-06,-0.136
3.100E-06,-0.068
3.110E-06,0.036
3.120E-06,0.092
3.130E-06,0.072
3.140E-06,0.008
3.150E-06,-0.044
3.160E-06,-0.076
3.170E-06,-0.068
3.180E-06,-0.008
3.190E-06,0.040
3.200E-06,0.068
3.210E-06,0.044
3.220E-06,-0.004
3.230E-06,-0.044
3.240E-06,-0.048
3.250E-06,-0.036
3.260E-06,-0.004
3.270E-06,0.028
3.280E-06,0.024
