mediciones/Mediciones filtradas (saque las feas)/5-15/19.97/WaveData47380.csv

#timebase=2000000(ps)
,#voltbase=500000(mv/100)
#size=4000
-8.400E-06,0.400
-8.390E-06,0.360
-8.380E-06,0.340
-8.370E-06,0.340
-8.360E-06,0.340
-8.350E-06,0.340
-8.340E-06,0.320
-8.330E-06,0.280
-8.320E-06,0.260
-8.310E-06,0.160
-8.300E-06,0.120
-8.290E-06,0.020
-8.280E-06,-0.020
-8.270E-06,-0.100
-8.260E-06,-0.160
-8.250E-06,-0.180
-8.240E-06,-0.240
-8.230E-06,-0.260
-8.220E-06,-0.280
-8.210E-06,-0.300
-8.200E-06,-0.260
-8.190E-06,-0.320
-8.180E-06,-0.340
-8.170E-06,-0.460
-8.160E-06,-0.520
-8.150E-06,-0.520
-8.140E-06,-0.520
-8.130E-06,-0.260
-8.120E-06,0.080
-8.110E-06,0.000
-8.100E-06,0.180
-8.090E-06,-0.360
-8.080E-06,-0.600
-8.070E-06,-0.760
-8.060E-06,-0.820
-8.050E-06,-0.740
-8.040E-06,-0.740
-8.030E-06,-1.000
-8.020E-06,-1.180
-8.010E-06,-1.300
-8.000E-06,-1.120
-7.990E-06,-0.940
-7.980E-06,-0.840
-7.970E-06,-0.800
-7.960E-06,-0.760
-7.950E-06,-0.660
-7.940E-06,-0.500
-7.930E-06,-0.360
-7.920E-06,-0.200
-7.910E-06,-0.160
-7.900E-06,-0.100
-7.890E-06,-0.020
-7.880E-06,0.060
-7.870E-06,0.180
-7.860E-06,0.240
-7.850E-06,0.340
-7.840E-06,0.440
-7.830E-06,0.560
-7.820E-06,0.660
-7.810E-06,0.760
-7.800E-06,0.820
-7.790E-06,0.840
-7.780E-06,0.860
-7.770E-06,0.820
-7.760E-06,0.720
-7.750E-06,0.680
-7.740E-06,0.620
-7.730E-06,0.520
-7.720E-06,0.380
-7.710E-06,0.200
-7.700E-06,0.020
-7.690E-06,-0.100
-7.680E-06,-0.200
-7.670E-06,-0.240
-7.660E-06,-0.160
-7.650E-06,-0.120
-7.640E-06,0.020
-7.630E-06,-0.040
-7.620E-06,-0.080
-7.610E-06,-0.100
-7.600E-06,0.040
-7.590E-06,0.340
-7.580E-06,0.140
-7.570E-06,0.260
-7.560E-06,-0.320
-7.550E-06,-0.500
-7.540E-06,-0.720
-7.530E-06,-0.740
-7.520E-06,-0.680
-7.510E-06,-0.680
-7.500E-06,-0.960
-7.490E-06,-1.120
-7.480E-06,-1.240
-7.470E-06,-1.200
-7.460E-06,-1.040
-7.450E-06,-1.020
-7.440E-06,-1.040
-7.430E-06,-1.000
-7.420E-06,-0.940
-7.410E-06,-0.860
-7.400E-06,-0.780
-7.390E-06,-0.680
-7.380E-06,-0.640
-7.370E-06,-0.540
-7.360E-06,-0.420
-7.350E-06,-0.340
-7.340E-06,-0.220
-7.330E-06,-0.080
-7.320E-06,0.080
-7.310E-06,0.200
-7.300E-06,0.360
-7.290E-06,0.480
-7.280E-06,0.580
-7.270E-06,0.740
-7.260E-06,0.780
-7.250E-06,0.800
-7.240E-06,0.780
-7.230E-06,0.740
-7.220E-06,0.720
-7.210E-06,0.720
-7.200E-06,0.660
-7.190E-06,0.560
-7.180E-06,0.480
-7.170E-06,0.340
-7.160E-06,0.280
-7.150E-06,0.300
-7.140E-06,0.280
-7.130E-06,0.340
-7.120E-06,0.420
-7.110E-06,0.440
-7.100E-06,0.480
-7.090E-06,0.520
-7.080E-06,0.360
-7.070E-06,0.460
-7.060E-06,0.260
-7.050E-06,0.260
-7.040E-06,0.120
-7.030E-06,0.040
-7.020E-06,-0.060
-7.010E-06,-0.120
-7.000E-06,-0.260
-6.990E-06,-0.300
-6.980E-06,-0.360
-6.970E-06,-0.440
-6.960E-06,-0.500
-6.950E-06,-0.540
-6.940E-06,-0.520
-6.930E-06,-0.500
-6.920E-06,-0.440
-6.910E-06,-0.440
-6.900E-06,-0.440
-6.890E-06,-0.440
-6.880E-06,-0.340
-6.870E-06,-0.300
-6.860E-06,-0.260
-6.850E-06,-0.280
-6.840E-06,-0.280
-6.830E-06,-0.280
-6.820E-06,-0.260
-6.810E-06,-0.220
-6.800E-06,-0.180
-6.790E-06,-0.180
-6.780E-06,-0.200
-6.770E-06,-0.160
-6.760E-06,-0.120
-6.750E-06,-0.040
-6.740E-06,0.000
-6.730E-06,0.020
-6.720E-06,0.040
-6.710E-06,0.060
-6.700E-06,0.100
-6.690E-06,0.120
-6.680E-06,0.140
-6.670E-06,0.180
-6.660E-06,0.160
-6.650E-06,0.160
-6.640E-06,0.180
-6.630E-06,0.220
-6.620E-06,0.240
-6.610E-06,0.240
-6.600E-06,0.280
-6.590E-06,0.280
-6.580E-06,0.300
-6.570E-06,0.340
-6.560E-06,0.340
-6.550E-06,0.380
-6.540E-06,0.380
-6.530E-06,0.380
-6.520E-06,0.400
-6.510E-06,0.360
-6.500E-06,0.320
-6.490E-06,0.280
-6.480E-06,0.260
-6.470E-06,0.220
-6.460E-06,0.180
-6.450E-06,0.140
-6.440E-06,0.080
-6.430E-06,0.020
-6.420E-06,-0.020
-6.410E-06,-0.020
-6.400E-06,-0.040
-6.390E-06,-0.100
-6.380E-06,-0.180
-6.370E-06,-0.180
-6.360E-06,-0.200
-6.350E-06,-0.200
-6.340E-06,-0.020
-6.330E-06,0.220
-6.320E-06,0.360
-6.310E-06,0.340
-6.300E-06,0.360
-6.290E-06,0.160
-6.280E-06,0.260
-6.270E-06,0.120
-6.260E-06,0.120
-6.250E-06,-0.140
-6.240E-06,-0.380
-6.230E-06,-0.600
-6.220E-06,-0.680
-6.210E-06,-0.640
-6.200E-06,-0.580
-6.190E-06,-0.720
-6.180E-06,-0.840
-6.170E-06,-0.860
-6.160E-06,-0.780
-6.150E-06,-0.640
-6.140E-06,-0.580
-6.130E-06,-0.580
-6.120E-06,-0.560
-6.110E-06,-0.580
-6.100E-06,-0.440
-6.090E-06,-0.400
-6.080E-06,-0.300
-6.070E-06,-0.200
-6.060E-06,-0.180
-6.050E-06,-0.080
-6.040E-06,0.000
-6.030E-06,0.140
-6.020E-06,0.240
-6.010E-06,0.360
-6.000E-06,0.400
-5.990E-06,0.480
-5.980E-06,0.560
-5.970E-06,0.640
-5.960E-06,0.680
-5.950E-06,0.700
-5.940E-06,0.720
-5.930E-06,0.640
-5.920E-06,0.560
-5.910E-06,0.520
-5.900E-06,0.420
-5.890E-06,0.340
-5.880E-06,0.260
-5.870E-06,0.220
-5.860E-06,0.180
-5.850E-06,0.220
-5.840E-06,0.180
-5.830E-06,0.200
-5.820E-06,0.180
-5.810E-06,0.080
-5.800E-06,0.040
-5.790E-06,0.020
-5.780E-06,-0.060
-5.770E-06,0.520
-5.760E-06,0.260
-5.750E-06,0.720
-5.740E-06,0.440
-5.730E-06,0.200
-5.720E-06,0.140
-5.710E-06,-0.080
-5.700E-06,-0.120
-5.690E-06,-0.100
-5.680E-06,-0.360
-5.670E-06,-0.580
-5.660E-06,-0.660
-5.650E-06,-0.700
-5.640E-06,-0.580
-5.630E-06,-0.560
-5.620E-06,-0.620
-5.610E-06,-0.660
-5.600E-06,-0.660
-5.590E-06,-0.560
-5.580E-06,-0.500
-5.570E-06,-0.460
-5.560E-06,-0.520
-5.550E-06,-0.460
-5.540E-06,-0.500
-5.530E-06,-0.480
-5.520E-06,-0.480
-5.510E-06,-0.440
-5.500E-06,-0.340
-5.490E-06,-0.240
-5.480E-06,-0.140
-5.470E-06,-0.040
-5.460E-06,0.080
-5.450E-06,0.180
-5.440E-06,0.260
-5.430E-06,0.360
-5.420E-06,0.380
-5.410E-06,0.440
-5.400E-06,0.500
-5.390E-06,0.500
-5.380E-06,0.500
-5.370E-06,0.500
-5.360E-06,0.480
-5.350E-06,0.420
-5.340E-06,0.400
-5.330E-06,0.320
-5.320E-06,0.260
-5.310E-06,0.240
-5.300E-06,0.240
-5.290E-06,0.320
-5.280E-06,0.360
-5.270E-06,0.360
-5.260E-06,0.360
-5.250E-06,0.360
-5.240E-06,0.340
-5.230E-06,0.300
-5.220E-06,0.300
-5.210E-06,0.240
-5.200E-06,0.160
-5.190E-06,0.120
-5.180E-06,0.060
-5.170E-06,0.020
-5.160E-06,-0.020
-5.150E-06,-0.080
-5.140E-06,-0.120
-5.130E-06,-0.200
-5.120E-06,-0.320
-5.110E-06,-0.340
-5.100E-06,-0.440
-5.090E-06,-0.380
-5.080E-06,-0.360
-5.070E-06,-0.060
-5.060E-06,-0.180
-5.050E-06,-0.140
-5.040E-06,-0.320
-5.030E-06,-0.400
-5.020E-06,-0.460
-5.010E-06,-0.300
-5.000E-06,-0.380
-4.990E-06,-0.260
-4.980E-06,-0.580
-4.970E-06,-0.720
-4.960E-06,-0.840
-4.950E-06,-0.740
-4.940E-06,-0.680
-4.930E-06,-0.560
-4.920E-06,-0.560
-4.910E-06,-0.500
-4.900E-06,-0.420
-4.890E-06,-0.280
-4.880E-06,-0.260
-4.870E-06,-0.200
-4.860E-06,-0.180
-4.850E-06,-0.100
-4.840E-06,-0.120
-4.830E-06,0.000
-4.820E-06,-0.060
-4.810E-06,0.040
-4.800E-06,0.060
-4.790E-06,0.100
-4.780E-06,0.200
-4.770E-06,0.280
-4.760E-06,0.340
-4.750E-06,0.380
-4.740E-06,0.420
-4.730E-06,0.440
-4.720E-06,0.500
-4.710E-06,0.500
-4.700E-06,0.520
-4.690E-06,0.520
-4.680E-06,0.480
-4.670E-06,0.380
-4.660E-06,0.300
-4.650E-06,0.240
-4.640E-06,0.160
-4.630E-06,0.080
-4.620E-06,0.060
-4.610E-06,0.020
-4.600E-06,0.040
-4.590E-06,0.060
-4.580E-06,0.080
-4.570E-06,0.100
-4.560E-06,0.100
-4.550E-06,0.100
-4.540E-06,0.120
-4.530E-06,0.120
-4.520E-06,0.140
-4.510E-06,0.120
-4.500E-06,0.140
-4.490E-06,0.100
-4.480E-06,0.060
-4.470E-06,0.000
-4.460E-06,0.000
-4.450E-06,-0.060
-4.440E-06,-0.100
-4.430E-06,-0.120
-4.420E-06,-0.180
-4.410E-06,-0.240
-4.400E-06,-0.200
-4.390E-06,0.060
-4.380E-06,0.160
-4.370E-06,0.440
-4.360E-06,0.420
-4.350E-06,0.140
-4.340E-06,0.060
-4.330E-06,-0.200
-4.320E-06,-0.220
-4.310E-06,-0.240
-4.300E-06,-0.340
-4.290E-06,-0.580
-4.280E-06,-0.740
-4.270E-06,-0.920
-4.260E-06,-0.860
-4.250E-06,-0.740
-4.240E-06,-0.620
-4.230E-06,-0.580
-4.220E-06,-0.440
-4.210E-06,-0.360
-4.200E-06,-0.120
-4.190E-06,0.020
-4.180E-06,0.180
-4.170E-06,0.200
-4.160E-06,0.160
-4.150E-06,0.100
-4.140E-06,0.060
-4.130E-06,0.040
-4.120E-06,0.020
-4.110E-06,0.020
-4.100E-06,-0.060
-4.090E-06,-0.140
-4.080E-06,-0.160
-4.070E-06,-0.060
-4.060E-06,0.020
-4.050E-06,0.100
-4.040E-06,0.140
-4.030E-06,0.180
-4.020E-06,0.220
-4.010E-06,0.300
-4.000E-06,0.340
-3.990E-06,0.380
-3.980E-06,0.320
-3.970E-06,0.300
-3.960E-06,0.220
-3.950E-06,0.180
-3.940E-06,0.120
-3.930E-06,0.120
-3.920E-06,0.080
-3.910E-06,0.160
-3.900E-06,0.200
-3.890E-06,0.300
-3.880E-06,0.340
-3.870E-06,0.440
-3.860E-06,0.360
-3.850E-06,0.340
-3.840E-06,0.280
-3.830E-06,0.260
-3.820E-06,0.180
-3.810E-06,0.180
-3.800E-06,0.060
-3.790E-06,0.060
-3.780E-06,0.020
-3.770E-06,0.000
-3.760E-06,-0.140
-3.750E-06,-0.240
-3.740E-06,-0.320
-3.730E-06,-0.380
-3.720E-06,-0.240
-3.710E-06,-0.280
-3.700E-06,-0.260
-3.690E-06,-0.260
-3.680E-06,-0.320
-3.670E-06,-0.340
-3.660E-06,-0.220
-3.650E-06,-0.280
-3.640E-06,-0.200
-3.630E-06,-0.360
-3.620E-06,-0.400
-3.610E-06,-0.540
-3.600E-06,-0.500
-3.590E-06,-0.560
-3.580E-06,-0.620
-3.570E-06,-0.680
-3.560E-06,-0.880
-3.550E-06,-0.860
-3.540E-06,-0.840
-3.530E-06,-0.780
-3.520E-06,-0.680
-3.510E-06,-0.660
-3.500E-06,-0.640
-3.490E-06,-0.480
-3.480E-06,-0.360
-3.470E-06,-0.160
-3.460E-06,-0.080
-3.450E-06,0.000
-3.440E-06,-0.020
-3.430E-06,0.080
-3.420E-06,0.080
-3.410E-06,0.220
-3.400E-06,0.280
-3.390E-06,0.300
-3.380E-06,0.340
-3.370E-06,0.360
-3.360E-06,0.440
-3.350E-06,0.500
-3.340E-06,0.580
-3.330E-06,0.620
-3.320E-06,0.660
-3.310E-06,0.600
-3.300E-06,0.640
-3.290E-06,0.580
-3.280E-06,0.660
-3.270E-06,0.640
-3.260E-06,0.680
-3.250E-06,0.540
-3.240E-06,0.420
-3.230E-06,0.360
-3.220E-06,0.220
-3.210E-06,0.260
-3.200E-06,0.260
-3.190E-06,0.160
-3.180E-06,0.080
-3.170E-06,-0.080
-3.160E-06,-0.060
-3.150E-06,-0.200
-3.140E-06,-0.100
-3.130E-06,-0.260
-3.120E-06,-0.320
-3.110E-06,-0.420
-3.100E-06,-0.560
-3.090E-06,-0.640
-3.080E-06,-0.840
-3.070E-06,-0.740
-3.060E-06,-0.340
-3.050E-06,-0.360
-3.040E-06,-0.140
-3.030E-06,-0.520
-3.020E-06,-0.720
-3.010E-06,-0.940
-3.000E-06,-0.840
-2.990E-06,-0.820
-2.980E-06,-0.320
-2.970E-06,-0.460
-2.960E-06,-0.420
-2.950E-06,-0.160
-2.940E-06,-0.020
-2.930E-06,0.740
-2.920E-06,0.760
-2.910E-06,0.800
-2.900E-06,0.420
-2.890E-06,0.240
-2.880E-06,0.140
-2.870E-06,0.260
-2.860E-06,0.160
-2.850E-06,0.020
-2.840E-06,-0.300
-2.830E-06,-0.560
-2.820E-06,-0.480
-2.810E-06,-0.420
-2.800E-06,-0.180
-2.790E-06,-0.040
-2.780E-06,-0.020
-2.770E-06,0.020
-2.760E-06,0.160
-2.750E-06,0.340
-2.740E-06,0.400
-2.730E-06,0.480
-2.720E-06,0.440
-2.710E-06,0.400
-2.700E-06,0.320
-2.690E-06,0.320
-2.680E-06,0.280
-2.670E-06,0.280
-2.660E-06,0.220
-2.650E-06,0.160
-2.640E-06,0.140
-2.630E-06,0.080
-2.620E-06,0.100
-2.610E-06,0.100
-2.600E-06,0.140
-2.590E-06,0.220
-2.580E-06,0.340
-2.570E-06,0.340
-2.560E-06,0.340
-2.550E-06,0.320
-2.540E-06,0.220
-2.530E-06,0.100
-2.520E-06,0.000
-2.510E-06,-0.100
-2.500E-06,-0.200
-2.490E-06,-0.180
-2.480E-06,-0.180
-2.470E-06,-0.160
-2.460E-06,-0.120
-2.450E-06,-0.040
-2.440E-06,-0.020
-2.430E-06,0.020
-2.420E-06,0.000
-2.410E-06,0.020
-2.400E-06,0.000
-2.390E-06,0.020
-2.380E-06,-0.020
-2.370E-06,-0.040
-2.360E-06,-0.180
-2.350E-06,-0.180
-2.340E-06,-0.320
-2.330E-06,-0.260
-2.320E-06,-0.120
-2.310E-06,0.420
-2.300E-06,0.100
-2.290E-06,0.480
-2.280E-06,-0.160
-2.270E-06,0.060
-2.260E-06,0.040
-2.250E-06,0.340
-2.240E-06,0.440
-2.230E-06,0.320
-2.220E-06,-0.160
-2.210E-06,-0.560
-2.200E-06,-0.660
-2.190E-06,-0.660
-2.180E-06,-0.560
-2.170E-06,-0.700
-2.160E-06,-0.940
-2.150E-06,-1.080
-2.140E-06,-1.080
-2.130E-06,-0.860
-2.120E-06,-0.660
-2.110E-06,-0.580
-2.100E-06,-0.480
-2.090E-06,-0.420
-2.080E-06,-0.240
-2.070E-06,-0.140
-2.060E-06,0.000
-2.050E-06,0.120
-2.040E-06,0.220
-2.030E-06,0.340
-2.020E-06,0.380
-2.010E-06,0.500
-2.000E-06,0.500
-1.990E-06,0.540
-1.980E-06,0.500
-1.970E-06,0.500
-1.960E-06,0.600
-1.950E-06,0.700
-1.940E-06,0.760
-1.930E-06,0.860
-1.920E-06,0.720
-1.910E-06,0.660
-1.900E-06,0.560
-1.890E-06,0.420
-1.880E-06,0.340
-1.870E-06,0.200
-1.860E-06,0.000
-1.850E-06,-0.100
-1.840E-06,-0.240
-1.830E-06,-0.300
-1.820E-06,-0.380
-1.810E-06,-0.460
-1.800E-06,-0.540
-1.790E-06,-0.500
-1.780E-06,-0.500
-1.770E-06,-0.420
-1.760E-06,-0.340
-1.750E-06,-0.280
-1.740E-06,-0.240
-1.730E-06,-0.180
-1.720E-06,-0.120
-1.710E-06,-0.060
-1.700E-06,0.020
-1.690E-06,0.000
-1.680E-06,0.040
-1.670E-06,0.000
-1.660E-06,0.040
-1.650E-06,0.060
-1.640E-06,0.080
-1.630E-06,0.060
-1.620E-06,0.080
-1.610E-06,0.060
-1.600E-06,0.040
-1.590E-06,0.060
-1.580E-06,0.100
-1.570E-06,0.060
-1.560E-06,0.080
-1.550E-06,0.100
-1.540E-06,0.040
-1.530E-06,-0.020
-1.520E-06,-0.080
-1.510E-06,-0.200
-1.500E-06,-0.280
-1.490E-06,-0.300
-1.480E-06,-0.280
-1.470E-06,-0.260
-1.460E-06,-0.320
-1.450E-06,-0.340
-1.440E-06,-0.420
-1.430E-06,-0.320
-1.420E-06,-0.380
-1.410E-06,-0.260
-1.400E-06,-0.420
-1.390E-06,-0.520
-1.380E-06,-0.380
-1.370E-06,-0.340
-1.360E-06,-0.180
-1.350E-06,-0.180
-1.340E-06,-0.320
-1.330E-06,-0.520
-1.320E-06,-0.660
-1.310E-06,-0.720
-1.300E-06,-0.640
-1.290E-06,-0.640
-1.280E-06,-0.860
-1.270E-06,-0.960
-1.260E-06,-1.100
-1.250E-06,-0.940
-1.240E-06,-0.700
-1.230E-06,-0.700
-1.220E-06,-0.600
-1.210E-06,-0.740
-1.200E-06,-0.640
-1.190E-06,-0.680
-1.180E-06,-0.500
-1.170E-06,-0.640
-1.160E-06,-0.580
-1.150E-06,-0.740
-1.140E-06,-0.660
-1.130E-06,-0.680
-1.120E-06,-0.580
-1.110E-06,-0.520
-1.100E-06,-0.540
-1.090E-06,-0.540
-1.080E-06,-0.540
-1.070E-06,-0.500
-1.060E-06,-0.160
-1.050E-06,-0.040
-1.040E-06,0.180
-1.030E-06,0.160
-1.020E-06,0.040
-1.010E-06,-0.140
-1.000E-06,-0.020
-9.900E-07,-0.120
-9.800E-07,0.040
-9.700E-07,-0.140
-9.600E-07,-0.260
-9.500E-07,-0.420
-9.400E-07,-0.480
-9.300E-07,-0.360
-9.200E-07,-0.280
-9.100E-07,-0.160
-9.000E-07,-0.160
-8.900E-07,-0.060
-8.800E-07,-0.040
-8.700E-07,0.080
-8.600E-07,0.080
-8.500E-07,0.000
-8.400E-07,0.100
-8.300E-07,0.040
-8.200E-07,0.180
-8.100E-07,0.200
-8.000E-07,0.360
-7.900E-07,0.420
-7.800E-07,0.480
-7.700E-07,0.220
-7.600E-07,-0.220
-7.500E-07,-0.440
-7.400E-07,-0.540
-7.300E-07,-0.520
-7.200E-07,-0.360
-7.100E-07,-0.480
-7.000E-07,-0.740
-6.900E-07,-0.840
-6.800E-07,-0.940
-6.700E-07,-0.720
-6.600E-07,-0.680
-6.500E-07,-0.780
-6.400E-07,-0.900
-6.300E-07,-1.000
-6.200E-07,-0.940
-6.100E-07,-0.920
-6.000E-07,-0.920
-5.900E-07,-0.860
-5.800E-07,-0.860
-5.700E-07,-0.660
-5.600E-07,-0.560
-5.500E-07,-0.380
-5.400E-07,-0.260
-5.300E-07,-0.060
-5.200E-07,0.180
-5.100E-07,0.380
-5.000E-07,0.560
-4.900E-07,0.480
-4.800E-07,0.560
-4.700E-07,0.480
-4.600E-07,0.540
-4.500E-07,0.500
-4.400E-07,0.420
-4.300E-07,0.420
-4.200E-07,0.340
-4.100E-07,0.340
-4.000E-07,0.140
-3.900E-07,0.120
-3.800E-07,-0.040
-3.700E-07,0.060
-3.600E-07,-0.160
-3.500E-07,-0.060
-3.400E-07,-0.260
-3.300E-07,-0.320
-3.200E-07,-0.400
-3.100E-07,-0.460
-3.000E-07,-0.520
-2.900E-07,-0.580
-2.800E-07,-0.680
-2.700E-07,-0.700
-2.600E-07,-0.700
-2.500E-07,-0.740
-2.400E-07,-0.640
-2.300E-07,-0.640
-2.200E-07,-0.680
-2.100E-07,-0.660
-2.000E-07,-0.620
-1.900E-07,-0.640
-1.800E-07,-0.660
-1.700E-07,-0.700
-1.600E-07,-0.700
-1.500E-07,-0.720
-1.400E-07,-0.700
-1.300E-07,-0.700
-1.200E-07,-0.500
-1.100E-07,-0.680
-1.000E-07,-0.540
-9.000E-08,-0.860
-8.000E-08,-1.080
-7.000E-08,-1.600
-6.000E-08,-2.120
-5.000E-08,-1.360
-4.000E-08,-0.560
-3.000E-08,0.160
-2.000E-08,0.720
-1.000E-08,0.920
0.000E+00,0.540
1.000E-08,0.400
2.000E-08,-0.160
3.000E-08,-0.740
4.000E-08,-1.200
5.000E-08,-1.880
6.000E-08,-2.180
7.000E-08,-2.000
8.000E-08,-1.940
9.000E-08,-2.000
1.000E-07,-2.140
1.100E-07,-2.300
1.200E-07,-2.200
1.300E-07,-1.640
1.400E-07,-1.580
1.500E-07,-1.440
1.600E-07,-1.360
1.700E-07,-0.940
1.800E-07,-0.680
1.900E-07,-0.020
2.000E-07,0.280
2.100E-07,0.500
2.200E-07,0.840
2.300E-07,0.880
2.400E-07,0.880
2.500E-07,0.800
2.600E-07,0.760
2.700E-07,0.720
2.800E-07,0.700
2.900E-07,0.660
3.000E-07,0.520
3.100E-07,0.800
3.200E-07,0.860
3.300E-07,1.020
3.400E-07,1.200
3.500E-07,1.120
3.600E-07,1.320
3.700E-07,1.140
3.800E-07,0.980
3.900E-07,0.400
4.000E-07,-0.040
4.100E-07,-0.680
4.200E-07,-1.140
4.300E-07,-1.620
4.400E-07,-1.940
4.500E-07,-2.140
4.600E-07,-2.200
4.700E-07,-2.080
4.800E-07,-1.980
4.900E-07,-1.760
5.000E-07,-1.560
5.100E-07,-1.300
5.200E-07,-1.160
5.300E-07,-1.020
5.400E-07,-1.020
5.500E-07,-0.940
5.600E-07,-0.960
5.700E-07,-0.980
5.800E-07,-1.180
5.900E-07,-1.380
6.000E-07,-1.680
6.100E-07,-1.880
6.200E-07,-2.020
6.300E-07,-1.840
6.400E-07,-1.480
6.500E-07,-1.060
6.600E-07,-0.600
6.700E-07,-0.340
6.800E-07,-0.080
6.900E-07,-0.180
7.000E-07,-0.280
7.100E-07,-0.560
7.200E-07,-0.940
7.300E-07,-1.420
7.400E-07,-1.880
7.500E-07,-2.400
7.600E-07,-2.540
7.700E-07,-2.680
7.800E-07,-2.680
7.900E-07,-2.660
8.000E-07,-2.660
8.100E-07,-2.660
8.200E-07,-2.660
8.300E-07,-2.660
8.400E-07,-2.660
8.500E-07,-2.660
8.600E-07,-2.680
8.700E-07,-2.680
8.800E-07,-2.680
8.900E-07,-2.660
9.000E-07,-2.660
9.100E-07,-2.660
9.200E-07,-2.680
9.300E-07,-2.660
9.400E-07,-2.660
9.500E-07,-2.660
9.600E-07,-2.420
9.700E-07,-2.020
9.800E-07,-1.920
9.900E-07,-1.640
1.000E-06,-1.560
1.010E-06,-1.500
1.020E-06,-1.540
1.030E-06,-1.740
1.040E-06,-2.100
1.050E-06,-2.500
1.060E-06,-2.660
1.070E-06,-2.660
1.080E-06,-2.680
1.090E-06,-2.680
1.100E-06,-2.660
1.110E-06,-2.660
1.120E-06,-2.660
1.130E-06,-2.660
1.140E-06,-2.660
1.150E-06,-2.660
1.160E-06,-2.660
1.170E-06,-2.680
1.180E-06,-2.680
1.190E-06,-2.680
1.200E-06,-2.660
1.210E-06,-2.660
1.220E-06,-2.640
1.230E-06,-2.660
1.240E-06,-2.660
1.250E-06,-2.640
1.260E-06,-2.400
1.270E-06,-2.040
1.280E-06,-2.160
1.290E-06,-2.180
1.300E-06,-2.480
1.310E-06,-2.440
1.320E-06,-2.420
1.330E-06,-2.160
1.340E-06,-2.200
1.350E-06,-2.240
1.360E-06,-2.380
1.370E-06,-2.500
1.380E-06,-2.440
1.390E-06,-2.380
1.400E-06,-2.200
1.410E-06,-2.060
1.420E-06,-1.760
1.430E-06,-1.600
1.440E-06,-1.260
1.450E-06,-1.340
1.460E-06,-1.520
1.470E-06,-1.800
1.480E-06,-2.080
1.490E-06,-2.020
1.500E-06,-2.080
1.510E-06,-2.100
1.520E-06,-2.300
1.530E-06,-2.420
1.540E-06,-2.440
1.550E-06,-2.420
1.560E-06,-2.240
1.570E-06,-2.160
1.580E-06,-2.080
1.590E-06,-2.080
1.600E-06,-2.080
1.610E-06,-2.100
1.620E-06,-1.940
1.630E-06,-1.820
1.640E-06,-1.580
1.650E-06,-1.260
1.660E-06,-0.920
1.670E-06,-0.580
1.680E-06,-0.260
1.690E-06,-0.040
1.700E-06,0.120
1.710E-06,0.280
1.720E-06,0.420
1.730E-06,0.520
1.740E-06,0.560
1.750E-06,0.560
1.760E-06,0.500
1.770E-06,0.460
1.780E-06,0.380
1.790E-06,0.320
1.800E-06,0.260
1.810E-06,0.220
1.820E-06,0.180
1.830E-06,0.140
1.840E-06,0.140
1.850E-06,0.140
1.860E-06,0.160
1.870E-06,0.160
1.880E-06,0.180
1.890E-06,0.240
1.900E-06,0.200
1.910E-06,0.140
1.920E-06,0.040
1.930E-06,-0.060
1.940E-06,-0.120
1.950E-06,-0.140
1.960E-06,-0.140
1.970E-06,-0.080
1.980E-06,0.020
1.990E-06,0.180
2.000E-06,0.320
2.010E-06,0.500
2.020E-06,0.720
2.030E-06,0.860
2.040E-06,0.960
2.050E-06,1.080
2.060E-06,1.200
2.070E-06,1.300
2.080E-06,1.220
2.090E-06,1.100
2.100E-06,0.980
2.110E-06,0.920
2.120E-06,0.980
2.130E-06,1.160
2.140E-06,1.340
2.150E-06,1.720
2.160E-06,2.040
2.170E-06,2.300
2.180E-06,2.240
2.190E-06,1.880
2.200E-06,1.300
2.210E-06,0.600
2.220E-06,-0.140
2.230E-06,-0.660
2.240E-06,-1.060
2.250E-06,-1.280
2.260E-06,-1.440
2.270E-06,-1.460
2.280E-06,-1.380
2.290E-06,-1.260
2.300E-06,-1.100
2.310E-06,-0.860
2.320E-06,-0.660
2.330E-06,-0.420
2.340E-06,-0.300
2.350E-06,-0.200
2.360E-06,-0.100
2.370E-06,-0.040
2.380E-06,0.000
2.390E-06,0.040
2.400E-06,0.100
2.410E-06,0.120
2.420E-06,0.100
2.430E-06,0.120
2.440E-06,0.060
2.450E-06,0.000
2.460E-06,-0.020
2.470E-06,-0.080
2.480E-06,-0.100
2.490E-06,-0.080
2.500E-06,-0.040
2.510E-06,-0.020
2.520E-06,0.080
2.530E-06,0.160
2.540E-06,0.260
2.550E-06,0.380
2.560E-06,0.580
2.570E-06,0.740
2.580E-06,0.900
2.590E-06,0.980
2.600E-06,1.020
2.610E-06,0.940
2.620E-06,0.840
2.630E-06,0.660
2.640E-06,0.520
2.650E-06,0.300
2.660E-06,0.140
2.670E-06,0.000
2.680E-06,-0.120
2.690E-06,-0.120
2.700E-06,-0.100
2.710E-06,0.100
2.720E-06,0.260
2.730E-06,0.400
2.740E-06,0.440
2.750E-06,0.360
2.760E-06,0.260
2.770E-06,0.080
2.780E-06,0.020
2.790E-06,-0.060
2.800E-06,-0.080
2.810E-06,-0.060
2.820E-06,-0.080
2.830E-06,-0.100
2.840E-06,-0.120
2.850E-06,-0.100
2.860E-06,-0.080
2.870E-06,-0.020
2.880E-06,0.060
2.890E-06,0.140
2.900E-06,0.180
2.910E-06,0.200
2.920E-06,0.220
2.930E-06,0.200
2.940E-06,0.180
2.950E-06,0.180
2.960E-06,0.120
2.970E-06,0.040
2.980E-06,-0.040
2.990E-06,-0.120
3.000E-06,-0.220
3.010E-06,-0.300
3.020E-06,-0.360
3.030E-06,-0.380
3.040E-06,-0.380
3.050E-06,-0.360
3.060E-06,-0.260
3.070E-06,-0.180
3.080E-06,-0.120
3.090E-06,0.000
3.100E-06,0.100
3.110E-06,0.220
3.120E-06,0.320
