mediciones/Mediciones filtradas (saque las feas)/5-15/19.97/WaveData47368.csv

#timebase=2000000(ps)
,#voltbase=500000(mv/100)
#size=4000
-8.400E-06,0.500
-8.390E-06,0.620
-8.380E-06,0.740
-8.370E-06,0.760
-8.360E-06,0.820
-8.350E-06,0.800
-8.340E-06,0.700
-8.330E-06,0.600
-8.320E-06,0.420
-8.310E-06,0.260
-8.300E-06,0.060
-8.290E-06,-0.100
-8.280E-06,-0.260
-8.270E-06,-0.360
-8.260E-06,-0.420
-8.250E-06,-0.380
-8.240E-06,-0.340
-8.230E-06,-0.280
-8.220E-06,-0.160
-8.210E-06,-0.080
-8.200E-06,0.020
-8.190E-06,0.120
-8.180E-06,0.180
-8.170E-06,0.200
-8.160E-06,0.200
-8.150E-06,0.220
-8.140E-06,0.200
-8.130E-06,0.160
-8.120E-06,0.180
-8.110E-06,0.180
-8.100E-06,0.160
-8.090E-06,0.160
-8.080E-06,0.180
-8.070E-06,0.220
-8.060E-06,0.240
-8.050E-06,0.200
-8.040E-06,0.180
-8.030E-06,0.160
-8.020E-06,0.160
-8.010E-06,0.100
-8.000E-06,0.020
-7.990E-06,-0.020
-7.980E-06,-0.060
-7.970E-06,-0.140
-7.960E-06,-0.200
-7.950E-06,-0.220
-7.940E-06,-0.200
-7.930E-06,-0.180
-7.920E-06,-0.180
-7.910E-06,-0.180
-7.900E-06,-0.140
-7.890E-06,-0.060
-7.880E-06,-0.020
-7.870E-06,0.000
-7.860E-06,0.060
-7.850E-06,0.100
-7.840E-06,0.120
-7.830E-06,0.160
-7.820E-06,0.180
-7.810E-06,0.220
-7.800E-06,0.240
-7.790E-06,0.240
-7.780E-06,0.240
-7.770E-06,0.260
-7.760E-06,0.280
-7.750E-06,0.280
-7.740E-06,0.280
-7.730E-06,0.260
-7.720E-06,0.260
-7.710E-06,0.260
-7.700E-06,0.220
-7.690E-06,0.220
-7.680E-06,0.180
-7.670E-06,0.160
-7.660E-06,0.120
-7.650E-06,0.100
-7.640E-06,0.040
-7.630E-06,0.040
-7.620E-06,-0.040
-7.610E-06,-0.040
-7.600E-06,-0.100
-7.590E-06,-0.160
-7.580E-06,-0.160
-7.570E-06,-0.200
-7.560E-06,-0.200
-7.550E-06,-0.160
-7.540E-06,-0.160
-7.530E-06,-0.160
-7.520E-06,-0.120
-7.510E-06,-0.040
-7.500E-06,-0.020
-7.490E-06,-0.020
-7.480E-06,0.020
-7.470E-06,0.020
-7.460E-06,0.060
-7.450E-06,0.080
-7.440E-06,0.100
-7.430E-06,0.080
-7.420E-06,0.080
-7.410E-06,0.080
-7.400E-06,0.040
-7.390E-06,0.040
-7.380E-06,0.060
-7.370E-06,0.060
-7.360E-06,0.060
-7.350E-06,0.060
-7.340E-06,0.060
-7.330E-06,0.040
-7.320E-06,0.040
-7.310E-06,0.040
-7.300E-06,0.040
-7.290E-06,0.000
-7.280E-06,0.020
-7.270E-06,0.000
-7.260E-06,0.000
-7.250E-06,-0.020
-7.240E-06,0.000
-7.230E-06,-0.020
-7.220E-06,0.000
-7.210E-06,0.000
-7.200E-06,-0.020
-7.190E-06,0.000
-7.180E-06,0.020
-7.170E-06,0.040
-7.160E-06,0.020
-7.150E-06,0.020
-7.140E-06,0.020
-7.130E-06,0.020
-7.120E-06,0.040
-7.110E-06,0.020
-7.100E-06,0.020
-7.090E-06,0.000
-7.080E-06,0.000
-7.070E-06,0.000
-7.060E-06,-0.020
-7.050E-06,-0.020
-7.040E-06,-0.040
-7.030E-06,-0.020
-7.020E-06,-0.020
-7.010E-06,-0.020
-7.000E-06,0.000
-6.990E-06,-0.020
-6.980E-06,0.000
-6.970E-06,-0.020
-6.960E-06,0.000
-6.950E-06,0.000
-6.940E-06,0.040
-6.930E-06,0.040
-6.920E-06,0.060
-6.910E-06,0.060
-6.900E-06,0.060
-6.890E-06,0.100
-6.880E-06,0.100
-6.870E-06,0.080
-6.860E-06,0.100
-6.850E-06,0.080
-6.840E-06,0.100
-6.830E-06,0.100
-6.820E-06,0.100
-6.810E-06,0.080
-6.800E-06,0.060
-6.790E-06,0.060
-6.780E-06,0.040
-6.770E-06,0.020
-6.760E-06,0.000
-6.750E-06,-0.020
-6.740E-06,-0.040
-6.730E-06,-0.040
-6.720E-06,-0.100
-6.710E-06,-0.080
-6.700E-06,-0.100
-6.690E-06,-0.120
-6.680E-06,-0.080
-6.670E-06,-0.120
-6.660E-06,-0.100
-6.650E-06,-0.100
-6.640E-06,-0.080
-6.630E-06,-0.060
-6.620E-06,-0.060
-6.610E-06,-0.060
-6.600E-06,0.000
-6.590E-06,-0.020
-6.580E-06,0.040
-6.570E-06,0.020
-6.560E-06,0.060
-6.550E-06,0.080
-6.540E-06,0.100
-6.530E-06,0.080
-6.520E-06,0.160
-6.510E-06,0.160
-6.500E-06,0.180
-6.490E-06,0.160
-6.480E-06,0.160
-6.470E-06,0.120
-6.460E-06,0.120
-6.450E-06,0.120
-6.440E-06,0.120
-6.430E-06,0.080
-6.420E-06,0.060
-6.410E-06,0.060
-6.400E-06,0.040
-6.390E-06,0.000
-6.380E-06,0.000
-6.370E-06,0.000
-6.360E-06,0.020
-6.350E-06,0.020
-6.340E-06,-0.020
-6.330E-06,0.000
-6.320E-06,0.000
-6.310E-06,0.000
-6.300E-06,0.000
-6.290E-06,0.000
-6.280E-06,-0.020
-6.270E-06,-0.020
-6.260E-06,0.000
-6.250E-06,0.000
-6.240E-06,-0.020
-6.230E-06,0.000
-6.220E-06,0.000
-6.210E-06,0.000
-6.200E-06,-0.020
-6.190E-06,0.000
-6.180E-06,0.020
-6.170E-06,0.040
-6.160E-06,0.040
-6.150E-06,0.060
-6.140E-06,0.040
-6.130E-06,0.020
-6.120E-06,0.060
-6.110E-06,0.040
-6.100E-06,0.060
-6.090E-06,0.080
-6.080E-06,0.080
-6.070E-06,0.100
-6.060E-06,0.060
-6.050E-06,0.080
-6.040E-06,0.080
-6.030E-06,0.080
-6.020E-06,0.080
-6.010E-06,0.080
-6.000E-06,0.100
-5.990E-06,0.080
-5.980E-06,0.080
-5.970E-06,0.100
-5.960E-06,0.100
-5.950E-06,0.040
-5.940E-06,0.100
-5.930E-06,0.080
-5.920E-06,0.100
-5.910E-06,0.080
-5.900E-06,0.080
-5.890E-06,0.040
-5.880E-06,0.040
-5.870E-06,0.060
-5.860E-06,0.080
-5.850E-06,0.080
-5.840E-06,0.040
-5.830E-06,0.020
-5.820E-06,0.060
-5.810E-06,0.060
-5.800E-06,0.060
-5.790E-06,0.060
-5.780E-06,0.000
-5.770E-06,0.000
-5.760E-06,0.020
-5.750E-06,0.060
-5.740E-06,0.020
-5.730E-06,0.060
-5.720E-06,0.040
-5.710E-06,0.080
-5.700E-06,0.060
-5.690E-06,0.040
-5.680E-06,0.080
-5.670E-06,0.080
-5.660E-06,0.060
-5.650E-06,0.080
-5.640E-06,0.080
-5.630E-06,0.080
-5.620E-06,0.080
-5.610E-06,0.080
-5.600E-06,0.080
-5.590E-06,0.080
-5.580E-06,0.080
-5.570E-06,0.060
-5.560E-06,0.020
-5.550E-06,0.040
-5.540E-06,0.040
-5.530E-06,0.020
-5.520E-06,0.060
-5.510E-06,0.040
-5.500E-06,0.020
-5.490E-06,0.020
-5.480E-06,0.020
-5.470E-06,0.020
-5.460E-06,0.000
-5.450E-06,0.040
-5.440E-06,0.000
-5.430E-06,0.000
-5.420E-06,0.020
-5.410E-06,0.020
-5.400E-06,0.040
-5.390E-06,0.080
-5.380E-06,0.060
-5.370E-06,0.080
-5.360E-06,0.100
-5.350E-06,0.060
-5.340E-06,0.040
-5.330E-06,0.080
-5.320E-06,0.120
-5.310E-06,0.100
-5.300E-06,0.080
-5.290E-06,0.080
-5.280E-06,0.040
-5.270E-06,0.040
-5.260E-06,0.020
-5.250E-06,0.020
-5.240E-06,0.020
-5.230E-06,0.000
-5.220E-06,0.000
-5.210E-06,0.000
-5.200E-06,0.000
-5.190E-06,0.000
-5.180E-06,0.020
-5.170E-06,0.060
-5.160E-06,0.020
-5.150E-06,0.020
-5.140E-06,0.020
-5.130E-06,0.020
-5.120E-06,0.040
-5.110E-06,0.060
-5.100E-06,0.040
-5.090E-06,0.020
-5.080E-06,0.020
-5.070E-06,0.000
-5.060E-06,0.000
-5.050E-06,0.000
-5.040E-06,0.000
-5.030E-06,0.000
-5.020E-06,0.000
-5.010E-06,0.000
-5.000E-06,0.040
-4.990E-06,0.020
-4.980E-06,0.040
-4.970E-06,0.020
-4.960E-06,0.020
-4.950E-06,0.040
-4.940E-06,0.040
-4.930E-06,0.020
-4.920E-06,0.020
-4.910E-06,0.020
-4.900E-06,0.000
-4.890E-06,0.000
-4.880E-06,0.000
-4.870E-06,0.000
-4.860E-06,0.000
-4.850E-06,-0.020
-4.840E-06,-0.020
-4.830E-06,0.000
-4.820E-06,0.000
-4.810E-06,0.020
-4.800E-06,0.020
-4.790E-06,0.020
-4.780E-06,0.020
-4.770E-06,0.000
-4.760E-06,0.020
-4.750E-06,0.000
-4.740E-06,0.040
-4.730E-06,0.040
-4.720E-06,0.020
-4.710E-06,0.000
-4.700E-06,0.040
-4.690E-06,0.080
-4.680E-06,0.060
-4.670E-06,0.080
-4.660E-06,0.040
-4.650E-06,0.020
-4.640E-06,-0.020
-4.630E-06,0.000
-4.620E-06,0.000
-4.610E-06,0.000
-4.600E-06,0.020
-4.590E-06,0.020
-4.580E-06,-0.040
-4.570E-06,0.000
-4.560E-06,0.000
-4.550E-06,0.040
-4.540E-06,0.060
-4.530E-06,0.060
-4.520E-06,0.060
-4.510E-06,0.060
-4.500E-06,0.040
-4.490E-06,0.080
-4.480E-06,0.060
-4.470E-06,0.080
-4.460E-06,0.060
-4.450E-06,0.020
-4.440E-06,0.020
-4.430E-06,0.040
-4.420E-06,0.020
-4.410E-06,0.040
-4.400E-06,0.040
-4.390E-06,0.020
-4.380E-06,0.040
-4.370E-06,0.020
-4.360E-06,0.040
-4.350E-06,0.020
-4.340E-06,0.000
-4.330E-06,0.000
-4.320E-06,0.000
-4.310E-06,0.000
-4.300E-06,0.000
-4.290E-06,-0.020
-4.280E-06,-0.040
-4.270E-06,-0.020
-4.260E-06,-0.040
-4.250E-06,-0.080
-4.240E-06,-0.060
-4.230E-06,-0.080
-4.220E-06,-0.080
-4.210E-06,-0.040
-4.200E-06,-0.040
-4.190E-06,-0.060
-4.180E-06,-0.040
-4.170E-06,-0.040
-4.160E-06,-0.060
-4.150E-06,-0.060
-4.140E-06,-0.040
-4.130E-06,-0.040
-4.120E-06,-0.020
-4.110E-06,-0.020
-4.100E-06,-0.020
-4.090E-06,0.000
-4.080E-06,0.000
-4.070E-06,0.000
-4.060E-06,0.000
-4.050E-06,0.000
-4.040E-06,0.000
-4.030E-06,0.000
-4.020E-06,0.000
-4.010E-06,0.000
-4.000E-06,0.020
-3.990E-06,0.000
-3.980E-06,0.000
-3.970E-06,0.000
-3.960E-06,0.000
-3.950E-06,0.020
-3.940E-06,0.000
-3.930E-06,0.000
-3.920E-06,0.020
-3.910E-06,0.000
-3.900E-06,0.000
-3.890E-06,0.000
-3.880E-06,0.000
-3.870E-06,0.000
-3.860E-06,-0.020
-3.850E-06,0.000
-3.840E-06,0.000
-3.830E-06,0.000
-3.820E-06,-0.020
-3.810E-06,-0.020
-3.800E-06,-0.020
-3.790E-06,-0.040
-3.780E-06,-0.060
-3.770E-06,-0.060
-3.760E-06,-0.040
-3.750E-06,-0.060
-3.740E-06,-0.080
-3.730E-06,-0.080
-3.720E-06,-0.100
-3.710E-06,-0.080
-3.700E-06,-0.080
-3.690E-06,-0.080
-3.680E-06,-0.060
-3.670E-06,-0.080
-3.660E-06,-0.080
-3.650E-06,-0.060
-3.640E-06,-0.100
-3.630E-06,-0.140
-3.620E-06,-0.160
-3.610E-06,-0.180
-3.600E-06,-0.240
-3.590E-06,-0.260
-3.580E-06,-0.280
-3.570E-06,-0.300
-3.560E-06,-0.320
-3.550E-06,-0.360
-3.540E-06,-0.400
-3.530E-06,-0.420
-3.520E-06,-0.440
-3.510E-06,-0.480
-3.500E-06,-0.500
-3.490E-06,-0.560
-3.480E-06,-0.560
-3.470E-06,-0.560
-3.460E-06,-0.560
-3.450E-06,-0.520
-3.440E-06,-0.540
-3.430E-06,-0.540
-3.420E-06,-0.520
-3.410E-06,-0.540
-3.400E-06,-0.520
-3.390E-06,-0.420
-3.380E-06,-0.300
-3.370E-06,-0.380
-3.360E-06,-0.300
-3.350E-06,-0.420
-3.340E-06,-0.340
-3.330E-06,-0.300
-3.320E-06,-0.240
-3.310E-06,-0.180
-3.300E-06,-0.100
-3.290E-06,-0.180
-3.280E-06,-0.160
-3.270E-06,-0.140
-3.260E-06,-0.100
-3.250E-06,-0.020
-3.240E-06,-0.020
-3.230E-06,-0.060
-3.220E-06,-0.080
-3.210E-06,-0.040
-3.200E-06,0.000
-3.190E-06,0.000
-3.180E-06,-0.080
-3.170E-06,-0.100
-3.160E-06,-0.260
-3.150E-06,-0.260
-3.140E-06,-0.280
-3.130E-06,-0.260
-3.120E-06,-0.160
-3.110E-06,-0.220
-3.100E-06,-0.180
-3.090E-06,-0.240
-3.080E-06,-0.240
-3.070E-06,-0.240
-3.060E-06,-0.220
-3.050E-06,-0.260
-3.040E-06,-0.300
-3.030E-06,-0.340
-3.020E-06,-0.360
-3.010E-06,-0.260
-3.000E-06,-0.200
-2.990E-06,-0.200
-2.980E-06,-0.260
-2.970E-06,-0.320
-2.960E-06,-0.340
-2.950E-06,-0.280
-2.940E-06,-0.200
-2.930E-06,-0.180
-2.920E-06,-0.180
-2.910E-06,-0.140
-2.900E-06,-0.100
-2.890E-06,-0.080
-2.880E-06,0.000
-2.870E-06,0.000
-2.860E-06,0.020
-2.850E-06,0.040
-2.840E-06,0.020
-2.830E-06,0.060
-2.820E-06,0.100
-2.810E-06,0.160
-2.800E-06,0.200
-2.790E-06,0.180
-2.780E-06,0.160
-2.770E-06,0.180
-2.760E-06,0.180
-2.750E-06,0.160
-2.740E-06,0.180
-2.730E-06,0.100
-2.720E-06,0.040
-2.710E-06,-0.080
-2.700E-06,-0.120
-2.690E-06,-0.180
-2.680E-06,-0.280
-2.670E-06,-0.340
-2.660E-06,-0.420
-2.650E-06,-0.500
-2.640E-06,-0.520
-2.630E-06,-0.520
-2.620E-06,-0.520
-2.610E-06,-0.560
-2.600E-06,-0.600
-2.590E-06,-0.660
-2.580E-06,-0.760
-2.570E-06,-0.780
-2.560E-06,-0.700
-2.550E-06,-0.640
-2.540E-06,-0.580
-2.530E-06,-0.560
-2.520E-06,-0.540
-2.510E-06,-0.540
-2.500E-06,-0.540
-2.490E-06,-0.500
-2.480E-06,-0.560
-2.470E-06,-0.580
-2.460E-06,-0.480
-2.450E-06,-0.500
-2.440E-06,-0.300
-2.430E-06,-0.180
-2.420E-06,-0.280
-2.410E-06,-0.240
-2.400E-06,-0.320
-2.390E-06,-0.300
-2.380E-06,-0.180
-2.370E-06,-0.120
-2.360E-06,-0.180
-2.350E-06,-0.140
-2.340E-06,-0.340
-2.330E-06,-0.260
-2.320E-06,-0.260
-2.310E-06,-0.280
-2.300E-06,-0.300
-2.290E-06,-0.320
-2.280E-06,-0.340
-2.270E-06,-0.380
-2.260E-06,-0.220
-2.250E-06,-0.140
-2.240E-06,-0.200
-2.230E-06,-0.260
-2.220E-06,-0.260
-2.210E-06,-0.380
-2.200E-06,-0.180
-2.190E-06,-0.220
-2.180E-06,-0.100
-2.170E-06,0.000
-2.160E-06,-0.140
-2.150E-06,-0.160
-2.140E-06,-0.200
-2.130E-06,-0.060
-2.120E-06,-0.080
-2.110E-06,0.000
-2.100E-06,-0.180
-2.090E-06,-0.120
-2.080E-06,-0.180
-2.070E-06,-0.120
-2.060E-06,-0.020
-2.050E-06,0.060
-2.040E-06,0.020
-2.030E-06,0.000
-2.020E-06,-0.060
-2.010E-06,-0.100
-2.000E-06,-0.040
-1.990E-06,-0.020
-1.980E-06,0.000
-1.970E-06,-0.040
-1.960E-06,-0.020
-1.950E-06,0.000
-1.940E-06,0.040
-1.930E-06,0.080
-1.920E-06,0.060
-1.910E-06,0.040
-1.900E-06,0.060
-1.890E-06,0.060
-1.880E-06,0.060
-1.870E-06,0.100
-1.860E-06,0.120
-1.850E-06,0.080
-1.840E-06,0.080
-1.830E-06,0.020
-1.820E-06,-0.020
-1.810E-06,-0.040
-1.800E-06,-0.040
-1.790E-06,-0.040
-1.780E-06,-0.020
-1.770E-06,-0.040
-1.760E-06,-0.020
-1.750E-06,-0.040
-1.740E-06,-0.060
-1.730E-06,-0.020
-1.720E-06,-0.040
-1.710E-06,-0.080
-1.700E-06,-0.060
-1.690E-06,-0.080
-1.680E-06,-0.020
-1.670E-06,-0.040
-1.660E-06,-0.080
-1.650E-06,-0.040
-1.640E-06,-0.060
-1.630E-06,-0.020
-1.620E-06,-0.040
-1.610E-06,-0.060
-1.600E-06,-0.100
-1.590E-06,-0.160
-1.580E-06,-0.180
-1.570E-06,-0.260
-1.560E-06,-0.300
-1.550E-06,-0.340
-1.540E-06,-0.380
-1.530E-06,-0.420
-1.520E-06,-0.400
-1.510E-06,-0.460
-1.500E-06,-0.420
-1.490E-06,-0.460
-1.480E-06,-0.500
-1.470E-06,-0.560
-1.460E-06,-0.640
-1.450E-06,-0.720
-1.440E-06,-0.780
-1.430E-06,-0.880
-1.420E-06,-0.960
-1.410E-06,-1.020
-1.400E-06,-1.060
-1.390E-06,-1.080
-1.380E-06,-1.160
-1.370E-06,-1.300
-1.360E-06,-1.480
-1.350E-06,-1.560
-1.340E-06,-1.560
-1.330E-06,-1.480
-1.320E-06,-1.260
-1.310E-06,-1.300
-1.300E-06,-1.000
-1.290E-06,-0.140
-1.280E-06,-0.420
-1.270E-06,0.320
-1.260E-06,-0.340
-1.250E-06,-0.580
-1.240E-06,-0.620
-1.230E-06,-0.660
-1.220E-06,-0.340
-1.210E-06,-0.160
-1.200E-06,-0.560
-1.190E-06,-0.660
-1.180E-06,-0.800
-1.170E-06,-0.680
-1.160E-06,-0.400
-1.150E-06,-0.320
-1.140E-06,-0.400
-1.130E-06,-0.400
-1.120E-06,-0.380
-1.110E-06,-0.280
-1.100E-06,-0.220
-1.090E-06,-0.180
-1.080E-06,-0.260
-1.070E-06,-0.280
-1.060E-06,-0.340
-1.050E-06,-0.320
-1.040E-06,-0.300
-1.030E-06,-0.160
-1.020E-06,-0.100
-1.010E-06,0.040
-1.000E-06,0.040
-9.900E-07,0.160
-9.800E-07,0.240
-9.700E-07,0.300
-9.600E-07,0.300
-9.500E-07,0.260
-9.400E-07,0.180
-9.300E-07,0.180
-9.200E-07,0.160
-9.100E-07,0.120
-9.000E-07,0.100
-8.900E-07,-0.040
-8.800E-07,-0.240
-8.700E-07,-0.420
-8.600E-07,-0.540
-8.500E-07,-0.620
-8.400E-07,-0.640
-8.300E-07,-0.620
-8.200E-07,-0.600
-8.100E-07,-0.560
-8.000E-07,-0.500
-7.900E-07,-0.520
-7.800E-07,-0.540
-7.700E-07,-0.560
-7.600E-07,-0.600
-7.500E-07,-0.540
-7.400E-07,-0.540
-7.300E-07,-0.500
-7.200E-07,-0.420
-7.100E-07,-0.420
-7.000E-07,-0.360
-6.900E-07,-0.300
-6.800E-07,-0.320
-6.700E-07,-0.420
-6.600E-07,-0.540
-6.500E-07,-0.700
-6.400E-07,-0.920
-6.300E-07,-1.000
-6.200E-07,-1.140
-6.100E-07,-1.240
-6.000E-07,-1.280
-5.900E-07,-1.360
-5.800E-07,-1.420
-5.700E-07,-1.480
-5.600E-07,-1.580
-5.500E-07,-1.600
-5.400E-07,-1.620
-5.300E-07,-1.560
-5.200E-07,-1.520
-5.100E-07,-1.500
-5.000E-07,-1.400
-4.900E-07,-1.300
-4.800E-07,-1.260
-4.700E-07,-1.180
-4.600E-07,-1.180
-4.500E-07,-1.120
-4.400E-07,-1.100
-4.300E-07,-1.140
-4.200E-07,-1.180
-4.100E-07,-1.240
-4.000E-07,-1.300
-3.900E-07,-1.380
-3.800E-07,-1.480
-3.700E-07,-1.600
-3.600E-07,-1.660
-3.500E-07,-1.760
-3.400E-07,-1.760
-3.300E-07,-1.660
-3.200E-07,-1.640
-3.100E-07,-1.660
-3.000E-07,-1.640
-2.900E-07,-1.720
-2.800E-07,-1.660
-2.700E-07,-1.700
-2.600E-07,-1.680
-2.500E-07,-1.740
-2.400E-07,-1.800
-2.300E-07,-1.820
-2.200E-07,-1.780
-2.100E-07,-1.780
-2.000E-07,-1.700
-1.900E-07,-1.700
-1.800E-07,-1.740
-1.700E-07,-1.740
-1.600E-07,-1.740
-1.500E-07,-1.820
-1.400E-07,-1.820
-1.300E-07,-1.860
-1.200E-07,-1.940
-1.100E-07,-1.860
-1.000E-07,-1.820
-9.000E-08,-1.940
-8.000E-08,-1.840
-7.000E-08,-2.020
-6.000E-08,-1.700
-5.000E-08,-1.380
-4.000E-08,-0.100
-3.000E-08,-0.060
-2.000E-08,0.740
-1.000E-08,0.100
0.000E+00,-0.260
1.000E-08,-0.640
2.000E-08,-0.860
3.000E-08,-1.120
4.000E-08,-1.020
5.000E-08,-1.840
6.000E-08,-2.060
7.000E-08,-2.500
8.000E-08,-2.380
9.000E-08,-2.520
1.000E-07,-2.460
1.100E-07,-2.500
1.200E-07,-2.260
1.300E-07,-1.680
1.400E-07,-1.260
1.500E-07,-1.080
1.600E-07,-1.120
1.700E-07,-1.500
1.800E-07,-1.140
1.900E-07,-1.120
2.000E-07,-0.640
2.100E-07,-0.960
2.200E-07,-1.020
2.300E-07,-1.380
2.400E-07,-1.460
2.500E-07,-1.420
2.600E-07,-1.440
2.700E-07,-1.600
2.800E-07,-1.420
2.900E-07,-1.320
3.000E-07,-0.840
3.100E-07,-0.500
3.200E-07,-0.680
3.300E-07,-0.680
3.400E-07,-1.080
3.500E-07,-0.940
3.600E-07,-1.040
3.700E-07,-1.160
3.800E-07,-1.520
3.900E-07,-1.800
4.000E-07,-2.040
4.100E-07,-2.000
4.200E-07,-1.860
4.300E-07,-1.580
4.400E-07,-1.260
4.500E-07,-0.800
4.600E-07,-0.380
4.700E-07,0.020
4.800E-07,0.260
4.900E-07,0.460
5.000E-07,0.580
5.100E-07,0.760
5.200E-07,0.800
5.300E-07,0.780
5.400E-07,0.520
5.500E-07,0.260
5.600E-07,-0.040
5.700E-07,-0.340
5.800E-07,-0.600
5.900E-07,-0.620
6.000E-07,-0.680
6.100E-07,-0.580
6.200E-07,-0.520
6.300E-07,-0.400
6.400E-07,-0.280
6.500E-07,-0.120
6.600E-07,0.040
6.700E-07,0.200
6.800E-07,0.340
6.900E-07,0.360
7.000E-07,0.320
7.100E-07,0.280
7.200E-07,0.160
7.300E-07,0.000
7.400E-07,-0.060
7.500E-07,-0.160
7.600E-07,-0.240
7.700E-07,-0.260
7.800E-07,-0.320
7.900E-07,-0.380
8.000E-07,-0.420
8.100E-07,-0.620
8.200E-07,-0.640
8.300E-07,-0.820
8.400E-07,-1.000
8.500E-07,-1.120
8.600E-07,-1.420
8.700E-07,-1.380
8.800E-07,-1.600
8.900E-07,-1.660
9.000E-07,-1.740
9.100E-07,-1.840
9.200E-07,-1.920
9.300E-07,-2.120
9.400E-07,-2.080
9.500E-07,-2.120
9.600E-07,-1.840
9.700E-07,0.760
9.800E-07,0.360
9.900E-07,2.540
1.000E-06,1.360
1.010E-06,0.360
1.020E-06,-0.320
1.030E-06,-1.300
1.040E-06,-1.240
1.050E-06,-0.900
1.060E-06,-1.500
1.070E-06,-1.400
1.080E-06,-1.440
1.090E-06,-0.820
1.100E-06,-0.180
1.110E-06,-0.240
1.120E-06,-0.780
1.130E-06,-1.360
1.140E-06,-1.340
1.150E-06,-1.020
1.160E-06,-1.060
1.170E-06,-1.260
1.180E-06,-1.700
1.190E-06,-1.940
1.200E-06,-1.740
1.210E-06,-1.540
1.220E-06,-1.400
1.230E-06,-1.160
1.240E-06,-1.000
1.250E-06,-0.660
1.260E-06,-0.480
1.270E-06,-0.160
1.280E-06,-0.020
1.290E-06,0.180
1.300E-06,0.260
1.310E-06,0.220
1.320E-06,0.160
1.330E-06,0.060
1.340E-06,0.060
1.350E-06,0.040
1.360E-06,0.100
1.370E-06,0.060
1.380E-06,0.080
1.390E-06,-0.040
1.400E-06,-0.120
1.410E-06,-0.220
1.420E-06,-0.180
1.430E-06,-0.140
1.440E-06,0.100
1.450E-06,0.340
1.460E-06,0.500
1.470E-06,0.600
1.480E-06,0.620
1.490E-06,0.560
1.500E-06,0.400
1.510E-06,0.360
1.520E-06,0.220
1.530E-06,0.360
1.540E-06,0.340
1.550E-06,0.500
1.560E-06,0.440
1.570E-06,0.480
1.580E-06,0.360
1.590E-06,0.360
1.600E-06,0.300
1.610E-06,0.180
1.620E-06,-0.020
1.630E-06,-0.200
1.640E-06,-0.360
1.650E-06,-0.600
1.660E-06,-0.800
1.670E-06,-0.940
1.680E-06,-1.120
1.690E-06,-1.300
1.700E-06,-1.500
1.710E-06,-1.700
1.720E-06,-1.760
1.730E-06,-1.780
1.740E-06,-1.760
1.750E-06,-1.720
1.760E-06,-1.800
1.770E-06,-1.840
1.780E-06,-1.860
1.790E-06,-1.940
1.800E-06,-2.000
1.810E-06,-2.120
1.820E-06,-2.340
1.830E-06,-2.380
1.840E-06,-2.400
1.850E-06,-2.380
1.860E-06,-2.260
1.870E-06,-2.280
1.880E-06,-2.160
1.890E-06,-1.880
1.900E-06,-1.280
1.910E-06,-0.800
1.920E-06,-0.200
1.930E-06,-0.420
1.940E-06,0.000
1.950E-06,-0.480
1.960E-06,-0.400
1.970E-06,-0.360
1.980E-06,-0.640
1.990E-06,-0.800
2.000E-06,-0.980
2.010E-06,-1.500
2.020E-06,-1.480
2.030E-06,-1.740
2.040E-06,-1.840
2.050E-06,-1.860
2.060E-06,-1.700
2.070E-06,-1.300
2.080E-06,-1.020
2.090E-06,-0.800
2.100E-06,-0.680
2.110E-06,-0.840
2.120E-06,-0.500
2.130E-06,-0.560
2.140E-06,-0.360
2.150E-06,-0.260
2.160E-06,-0.220
2.170E-06,-0.120
2.180E-06,0.140
2.190E-06,0.000
2.200E-06,-0.060
2.210E-06,-0.140
2.220E-06,-0.120
2.230E-06,0.100
2.240E-06,0.260
2.250E-06,0.340
2.260E-06,0.120
2.270E-06,-0.160
2.280E-06,-0.520
2.290E-06,-0.860
2.300E-06,-0.860
2.310E-06,-1.200
2.320E-06,-1.240
2.330E-06,-1.480
2.340E-06,-1.520
2.350E-06,-1.420
2.360E-06,-1.280
2.370E-06,-1.160
2.380E-06,-0.960
2.390E-06,-0.740
2.400E-06,-0.520
2.410E-06,-0.260
2.420E-06,-0.060
2.430E-06,0.120
2.440E-06,0.220
2.450E-06,0.300
2.460E-06,0.380
2.470E-06,0.400
2.480E-06,0.420
2.490E-06,0.260
2.500E-06,0.080
2.510E-06,-0.440
2.520E-06,-0.700
2.530E-06,-0.900
2.540E-06,-0.660
2.550E-06,0.280
2.560E-06,1.280
2.570E-06,1.220
2.580E-06,2.600
2.590E-06,1.560
2.600E-06,1.500
2.610E-06,1.700
2.620E-06,0.340
2.630E-06,0.680
2.640E-06,-0.340
2.650E-06,-1.360
2.660E-06,-1.960
2.670E-06,-2.380
2.680E-06,-2.680
2.690E-06,-2.660
2.700E-06,-2.660
2.710E-06,-2.640
2.720E-06,-2.500
2.730E-06,-2.260
2.740E-06,-1.900
2.750E-06,-1.460
2.760E-06,-1.300
2.770E-06,-1.060
2.780E-06,-0.740
2.790E-06,-0.360
2.800E-06,-0.400
2.810E-06,-0.140
2.820E-06,-0.020
2.830E-06,0.040
2.840E-06,0.400
2.850E-06,0.560
2.860E-06,0.720
2.870E-06,0.900
2.880E-06,1.140
2.890E-06,1.080
2.900E-06,1.300
2.910E-06,1.140
2.920E-06,1.080
2.930E-06,1.000
2.940E-06,0.920
2.950E-06,0.740
2.960E-06,0.500
2.970E-06,0.160
2.980E-06,-0.100
2.990E-06,-0.300
3.000E-06,-0.340
3.010E-06,-0.480
3.020E-06,-0.400
3.030E-06,-0.500
3.040E-06,-0.540
3.050E-06,-0.680
3.060E-06,-0.840
3.070E-06,-1.060
3.080E-06,-1.140
3.090E-06,-1.160
3.100E-06,-1.220
3.110E-06,-1.160
3.120E-06,-1.100
