mediciones/Mediciones filtradas (saque las feas)/5-15/19.97/WaveData47377.csv

#timebase=2000000(ps)
,#voltbase=100000(mv/100)
#size=4000
-8.400E-06,0.004
-8.390E-06,0.004
-8.380E-06,-0.012
-8.370E-06,-0.008
-8.360E-06,0.000
-8.350E-06,0.000
-8.340E-06,0.012
-8.330E-06,0.020
-8.320E-06,0.008
-8.310E-06,0.004
-8.300E-06,-0.004
-8.290E-06,-0.008
-8.280E-06,0.000
-8.270E-06,0.008
-8.260E-06,0.012
-8.250E-06,0.012
-8.240E-06,0.008
-8.230E-06,-0.004
-8.220E-06,-0.020
-8.210E-06,-0.008
-8.200E-06,0.008
-8.190E-06,0.024
-8.180E-06,0.024
-8.170E-06,0.016
-8.160E-06,-0.004
-8.150E-06,-0.016
-8.140E-06,-0.012
-8.130E-06,-0.008
-8.120E-06,0.012
-8.110E-06,0.020
-8.100E-06,0.012
-8.090E-06,0.008
-8.080E-06,0.000
-8.070E-06,-0.008
-8.060E-06,-0.008
-8.050E-06,-0.004
-8.040E-06,0.004
-8.030E-06,0.008
-8.020E-06,0.008
-8.010E-06,0.008
-8.000E-06,0.008
-7.990E-06,0.008
-7.980E-06,0.004
-7.970E-06,-0.004
-7.960E-06,0.000
-7.950E-06,0.000
-7.940E-06,0.008
-7.930E-06,0.008
-7.920E-06,0.016
-7.910E-06,0.012
-7.900E-06,-0.012
-7.890E-06,-0.016
-7.880E-06,-0.008
-7.870E-06,0.004
-7.860E-06,0.016
-7.850E-06,0.024
-7.840E-06,0.012
-7.830E-06,0.004
-7.820E-06,-0.008
-7.810E-06,-0.004
-7.800E-06,0.000
-7.790E-06,0.008
-7.780E-06,0.012
-7.770E-06,0.008
-7.760E-06,0.004
-7.750E-06,0.000
-7.740E-06,0.008
-7.730E-06,0.004
-7.720E-06,0.012
-7.710E-06,0.008
-7.700E-06,-0.008
-7.690E-06,-0.012
-7.680E-06,-0.012
-7.670E-06,-0.008
-7.660E-06,0.016
-7.650E-06,0.012
-7.640E-06,0.004
-7.630E-06,0.008
-7.620E-06,-0.004
-7.610E-06,-0.008
-7.600E-06,0.000
-7.590E-06,0.008
-7.580E-06,0.020
-7.570E-06,0.016
-7.560E-06,0.008
-7.550E-06,-0.004
-7.540E-06,-0.012
-7.530E-06,-0.008
-7.520E-06,0.004
-7.510E-06,0.012
-7.500E-06,0.016
-7.490E-06,0.012
-7.480E-06,0.000
-7.470E-06,-0.004
-7.460E-06,-0.004
-7.450E-06,-0.004
-7.440E-06,0.000
-7.430E-06,0.000
-7.420E-06,0.004
-7.410E-06,0.008
-7.400E-06,0.008
-7.390E-06,0.004
-7.380E-06,0.000
-7.370E-06,0.000
-7.360E-06,-0.008
-7.350E-06,-0.004
-7.340E-06,0.004
-7.330E-06,0.012
-7.320E-06,0.012
-7.310E-06,0.012
-7.300E-06,0.000
-7.290E-06,-0.004
-7.280E-06,-0.004
-7.270E-06,0.000
-7.260E-06,0.008
-7.250E-06,0.012
-7.240E-06,0.012
-7.230E-06,0.008
-7.220E-06,-0.008
-7.210E-06,-0.008
-7.200E-06,0.004
-7.190E-06,0.008
-7.180E-06,0.004
-7.170E-06,0.004
-7.160E-06,0.008
-7.150E-06,0.012
-7.140E-06,0.012
-7.130E-06,0.016
-7.120E-06,0.008
-7.110E-06,0.008
-7.100E-06,0.020
-7.090E-06,0.020
-7.080E-06,0.012
-7.070E-06,-0.024
-7.060E-06,-0.024
-7.050E-06,-0.016
-7.040E-06,-0.012
-7.030E-06,0.016
-7.020E-06,0.040
-7.010E-06,0.028
-7.000E-06,-0.004
-6.990E-06,-0.024
-6.980E-06,-0.032
-6.970E-06,-0.004
-6.960E-06,0.024
-6.950E-06,0.040
-6.940E-06,0.024
-6.930E-06,0.000
-6.920E-06,-0.020
-6.910E-06,-0.024
-6.900E-06,-0.004
-6.890E-06,0.020
-6.880E-06,0.032
-6.870E-06,0.028
-6.860E-06,0.004
-6.850E-06,-0.004
-6.840E-06,-0.008
-6.830E-06,0.000
-6.820E-06,0.012
-6.810E-06,0.016
-6.800E-06,0.008
-6.790E-06,0.008
-6.780E-06,0.000
-6.770E-06,-0.004
-6.760E-06,-0.004
-6.750E-06,0.000
-6.740E-06,0.004
-6.730E-06,-0.004
-6.720E-06,0.000
-6.710E-06,0.008
-6.700E-06,0.008
-6.690E-06,0.008
-6.680E-06,0.008
-6.670E-06,-0.004
-6.660E-06,-0.004
-6.650E-06,-0.004
-6.640E-06,0.004
-6.630E-06,0.012
-6.620E-06,0.016
-6.610E-06,0.012
-6.600E-06,0.004
-6.590E-06,0.004
-6.580E-06,0.000
-6.570E-06,0.008
-6.560E-06,0.016
-6.550E-06,0.004
-6.540E-06,0.000
-6.530E-06,-0.012
-6.520E-06,-0.016
-6.510E-06,-0.004
-6.500E-06,0.020
-6.490E-06,0.036
-6.480E-06,0.004
-6.470E-06,-0.008
-6.460E-06,-0.028
-6.450E-06,-0.024
-6.440E-06,-0.008
-6.430E-06,0.012
-6.420E-06,0.012
-6.410E-06,0.012
-6.400E-06,-0.004
-6.390E-06,-0.012
-6.380E-06,0.004
-6.370E-06,0.020
-6.360E-06,0.012
-6.350E-06,-0.008
-6.340E-06,-0.024
-6.330E-06,-0.020
-6.320E-06,0.000
-6.310E-06,0.028
-6.300E-06,0.040
-6.290E-06,0.020
-6.280E-06,-0.008
-6.270E-06,-0.028
-6.260E-06,-0.020
-6.250E-06,-0.008
-6.240E-06,0.016
-6.230E-06,0.028
-6.220E-06,0.024
-6.210E-06,0.004
-6.200E-06,-0.008
-6.190E-06,-0.008
-6.180E-06,-0.008
-6.170E-06,0.008
-6.160E-06,0.016
-6.150E-06,0.020
-6.140E-06,0.008
-6.130E-06,0.008
-6.120E-06,0.008
-6.110E-06,0.008
-6.100E-06,0.008
-6.090E-06,0.004
-6.080E-06,0.012
-6.070E-06,0.016
-6.060E-06,0.020
-6.050E-06,0.024
-6.040E-06,0.024
-6.030E-06,0.004
-6.020E-06,-0.020
-6.010E-06,-0.016
-6.000E-06,-0.004
-5.990E-06,0.012
-5.980E-06,0.024
-5.970E-06,0.024
-5.960E-06,0.008
-5.950E-06,0.008
-5.940E-06,0.004
-5.930E-06,0.012
-5.920E-06,0.000
-5.910E-06,-0.020
-5.900E-06,-0.020
-5.890E-06,-0.024
-5.880E-06,0.004
-5.870E-06,0.028
-5.860E-06,0.028
-5.850E-06,0.012
-5.840E-06,-0.020
-5.830E-06,-0.032
-5.820E-06,-0.060
-5.810E-06,-0.024
-5.800E-06,0.016
-5.790E-06,0.040
-5.780E-06,0.032
-5.770E-06,-0.020
-5.760E-06,-0.032
-5.750E-06,-0.024
-5.740E-06,0.024
-5.730E-06,0.044
-5.720E-06,0.036
-5.710E-06,0.000
-5.700E-06,-0.028
-5.690E-06,-0.036
-5.680E-06,-0.008
-5.670E-06,0.028
-5.660E-06,0.052
-5.650E-06,0.040
-5.640E-06,0.004
-5.630E-06,-0.020
-5.620E-06,-0.032
-5.610E-06,-0.008
-5.600E-06,0.012
-5.590E-06,0.028
-5.580E-06,0.024
-5.570E-06,0.008
-5.560E-06,-0.008
-5.550E-06,-0.008
-5.540E-06,-0.004
-5.530E-06,0.008
-5.520E-06,0.004
-5.510E-06,0.004
-5.500E-06,0.008
-5.490E-06,0.000
-5.480E-06,0.000
-5.470E-06,0.004
-5.460E-06,0.004
-5.450E-06,0.004
-5.440E-06,0.004
-5.430E-06,0.000
-5.420E-06,0.008
-5.410E-06,0.012
-5.400E-06,0.008
-5.390E-06,0.000
-5.380E-06,-0.008
-5.370E-06,-0.008
-5.360E-06,0.000
-5.350E-06,0.012
-5.340E-06,0.024
-5.330E-06,0.020
-5.320E-06,0.008
-5.310E-06,0.000
-5.300E-06,-0.008
-5.290E-06,-0.008
-5.280E-06,0.008
-5.270E-06,0.020
-5.260E-06,0.032
-5.250E-06,0.028
-5.240E-06,0.020
-5.230E-06,0.008
-5.220E-06,0.004
-5.210E-06,0.008
-5.200E-06,0.036
-5.190E-06,0.040
-5.180E-06,0.024
-5.170E-06,0.004
-5.160E-06,-0.012
-5.150E-06,-0.024
-5.140E-06,-0.012
-5.130E-06,0.024
-5.120E-06,0.056
-5.110E-06,0.056
-5.100E-06,0.032
-5.090E-06,0.012
-5.080E-06,-0.004
-5.070E-06,-0.012
-5.060E-06,0.020
-5.050E-06,-0.128
-5.040E-06,-0.136
-5.030E-06,-0.116
-5.020E-06,-0.056
-5.010E-06,0.084
-5.000E-06,0.156
-4.990E-06,0.156
-4.980E-06,0.028
-4.970E-06,-0.040
-4.960E-06,-0.124
-4.950E-06,-0.092
-4.940E-06,-0.008
-4.930E-06,0.052
-4.920E-06,0.040
-4.910E-06,0.012
-4.900E-06,-0.008
-4.890E-06,-0.044
-4.880E-06,-0.032
-4.870E-06,-0.008
-4.860E-06,0.028
-4.850E-06,0.020
-4.840E-06,0.028
-4.830E-06,-0.008
-4.820E-06,-0.020
-4.810E-06,-0.004
-4.800E-06,0.012
-4.790E-06,0.032
-4.780E-06,0.016
-4.770E-06,0.000
-4.760E-06,-0.012
-4.750E-06,-0.004
-4.740E-06,0.004
-4.730E-06,0.020
-4.720E-06,0.012
-4.710E-06,0.008
-4.700E-06,-0.012
-4.690E-06,-0.012
-4.680E-06,0.000
-4.670E-06,0.020
-4.660E-06,0.032
-4.650E-06,0.032
-4.640E-06,0.028
-4.630E-06,0.016
-4.620E-06,0.032
-4.610E-06,0.040
-4.600E-06,0.028
-4.590E-06,-0.004
-4.580E-06,-0.036
-4.570E-06,-0.044
-4.560E-06,-0.012
-4.550E-06,0.024
-4.540E-06,0.036
-4.530E-06,0.032
-4.520E-06,0.008
-4.510E-06,-0.016
-4.500E-06,-0.028
-4.490E-06,-0.012
-4.480E-06,0.016
-4.470E-06,0.044
-4.460E-06,0.044
-4.450E-06,0.036
-4.440E-06,0.008
-4.430E-06,-0.012
-4.420E-06,0.000
-4.410E-06,0.004
-4.400E-06,0.060
-4.390E-06,0.068
-4.380E-06,0.020
-4.370E-06,-0.028
-4.360E-06,-0.052
-4.350E-06,-0.048
-4.340E-06,-0.032
-4.330E-06,-0.004
-4.320E-06,0.016
-4.310E-06,-0.004
-4.300E-06,0.024
-4.290E-06,-0.004
-4.280E-06,0.016
-4.270E-06,0.040
-4.260E-06,0.028
-4.250E-06,-0.024
-4.240E-06,-0.068
-4.230E-06,-0.008
-4.220E-06,0.036
-4.210E-06,0.008
-4.200E-06,-0.076
-4.190E-06,-0.108
-4.180E-06,-0.096
-4.170E-06,0.024
-4.160E-06,0.108
-4.150E-06,0.160
-4.140E-06,0.056
-4.130E-06,-0.068
-4.120E-06,-0.136
-4.110E-06,-0.136
-4.100E-06,0.004
-4.090E-06,0.100
-4.080E-06,0.144
-4.070E-06,0.092
-4.060E-06,-0.004
-4.050E-06,-0.104
-4.040E-06,-0.108
-4.030E-06,-0.052
-4.020E-06,0.024
-4.010E-06,0.076
-4.000E-06,0.064
-3.990E-06,0.048
-3.980E-06,-0.004
-3.970E-06,-0.044
-3.960E-06,-0.076
-3.950E-06,-0.040
-3.940E-06,0.012
-3.930E-06,0.060
-3.920E-06,0.068
-3.910E-06,0.040
-3.900E-06,-0.008
-3.890E-06,-0.048
-3.880E-06,-0.036
-3.870E-06,-0.012
-3.860E-06,0.020
-3.850E-06,0.032
-3.840E-06,0.036
-3.830E-06,0.012
-3.820E-06,0.000
-3.810E-06,-0.012
-3.800E-06,0.008
-3.790E-06,0.016
-3.780E-06,0.036
-3.770E-06,0.056
-3.760E-06,0.052
-3.750E-06,0.048
-3.740E-06,0.024
-3.730E-06,0.044
-3.720E-06,0.024
-3.710E-06,-0.020
-3.700E-06,-0.080
-3.690E-06,-0.088
-3.680E-06,-0.036
-3.670E-06,0.000
-3.660E-06,0.060
-3.650E-06,0.064
-3.640E-06,0.040
-3.630E-06,-0.008
-3.620E-06,-0.052
-3.610E-06,-0.056
-3.600E-06,-0.024
-3.590E-06,0.012
-3.580E-06,0.040
-3.570E-06,0.040
-3.560E-06,0.000
-3.550E-06,-0.004
-3.540E-06,-0.004
-3.530E-06,0.020
-3.520E-06,0.028
-3.510E-06,0.016
-3.500E-06,0.000
-3.490E-06,-0.020
-3.480E-06,-0.008
-3.470E-06,0.016
-3.460E-06,0.056
-3.450E-06,0.076
-3.440E-06,0.076
-3.430E-06,0.012
-3.420E-06,-0.072
-3.410E-06,-0.104
-3.400E-06,-0.144
-3.390E-06,-0.128
-3.380E-06,0.004
-3.370E-06,0.120
-3.360E-06,0.164
-3.350E-06,0.088
-3.340E-06,-0.008
-3.330E-06,-0.112
-3.320E-06,-0.140
-3.310E-06,-0.072
-3.300E-06,0.028
-3.290E-06,0.112
-3.280E-06,0.124
-3.270E-06,0.068
-3.260E-06,-0.024
-3.250E-06,-0.084
-3.240E-06,-0.104
-3.230E-06,-0.040
-3.220E-06,0.020
-3.210E-06,0.088
-3.200E-06,0.092
-3.190E-06,0.060
-3.180E-06,0.004
-3.170E-06,-0.044
-3.160E-06,-0.068
-3.150E-06,-0.048
-3.140E-06,0.004
-3.130E-06,0.056
-3.120E-06,0.088
-3.110E-06,0.072
-3.100E-06,0.028
-3.090E-06,-0.044
-3.080E-06,-0.080
-3.070E-06,-0.076
-3.060E-06,-0.040
-3.050E-06,0.024
-3.040E-06,0.068
-3.030E-06,0.076
-3.020E-06,0.044
-3.010E-06,0.000
-3.000E-06,-0.036
-2.990E-06,-0.056
-2.980E-06,-0.040
-2.970E-06,0.000
-2.960E-06,0.036
-2.950E-06,0.048
-2.940E-06,0.028
-2.930E-06,0.004
-2.920E-06,-0.020
-2.910E-06,-0.036
-2.900E-06,-0.016
-2.890E-06,0.008
-2.880E-06,0.040
-2.870E-06,0.052
-2.860E-06,0.036
-2.850E-06,0.024
-2.840E-06,0.016
-2.830E-06,0.012
-2.820E-06,0.020
-2.810E-06,0.032
-2.800E-06,0.044
-2.790E-06,0.056
-2.780E-06,0.052
-2.770E-06,0.052
-2.760E-06,0.044
-2.750E-06,0.052
-2.740E-06,0.056
-2.730E-06,0.072
-2.720E-06,0.076
-2.710E-06,0.076
-2.700E-06,0.072
-2.690E-06,0.068
-2.680E-06,0.056
-2.670E-06,0.016
-2.660E-06,-0.020
-2.650E-06,-0.036
-2.640E-06,-0.088
-2.630E-06,-0.108
-2.620E-06,-0.152
-2.610E-06,-0.152
-2.600E-06,-0.140
-2.590E-06,-0.064
-2.580E-06,0.060
-2.570E-06,0.136
-2.560E-06,0.132
-2.550E-06,0.024
-2.540E-06,-0.052
-2.530E-06,-0.088
-2.520E-06,-0.100
-2.510E-06,-0.056
-2.500E-06,0.004
-2.490E-06,0.056
-2.480E-06,0.060
-2.470E-06,0.060
-2.460E-06,0.020
-2.450E-06,0.000
-2.440E-06,-0.052
-2.430E-06,-0.064
-2.420E-06,-0.052
-2.410E-06,-0.012
-2.400E-06,0.044
-2.390E-06,0.088
-2.380E-06,0.100
-2.370E-06,0.076
-2.360E-06,0.048
-2.350E-06,0.036
-2.340E-06,0.040
-2.330E-06,0.032
-2.320E-06,0.016
-2.310E-06,-0.092
-2.300E-06,-0.132
-2.290E-06,-0.176
-2.280E-06,-0.116
-2.270E-06,0.024
-2.260E-06,0.144
-2.250E-06,0.152
-2.240E-06,0.012
-2.230E-06,-0.088
-2.220E-06,-0.156
-2.210E-06,-0.104
-2.200E-06,0.008
-2.190E-06,0.100
-2.180E-06,0.112
-2.170E-06,0.072
-2.160E-06,-0.004
-2.150E-06,-0.068
-2.140E-06,-0.072
-2.130E-06,-0.012
-2.120E-06,0.068
-2.110E-06,0.112
-2.100E-06,0.112
-2.090E-06,0.060
-2.080E-06,0.016
-2.070E-06,-0.012
-2.060E-06,-0.020
-2.050E-06,-0.008
-2.040E-06,0.036
-2.030E-06,0.072
-2.020E-06,0.084
-2.010E-06,0.072
-2.000E-06,0.032
-1.990E-06,0.004
-1.980E-06,0.000
-1.970E-06,0.028
-1.960E-06,0.060
-1.950E-06,0.088
-1.940E-06,0.096
-1.930E-06,0.076
-1.920E-06,0.064
-1.910E-06,0.036
-1.900E-06,-0.008
-1.890E-06,-0.024
-1.880E-06,-0.008
-1.870E-06,-0.012
-1.860E-06,-0.032
-1.850E-06,-0.052
-1.840E-06,-0.060
-1.830E-06,-0.044
-1.820E-06,-0.052
-1.810E-06,-0.072
-1.800E-06,0.032
-1.790E-06,0.016
-1.780E-06,0.040
-1.770E-06,-0.216
-1.760E-06,-0.292
-1.750E-06,-0.200
-1.740E-06,0.084
-1.730E-06,0.224
-1.720E-06,0.216
-1.710E-06,0.096
-1.700E-06,-0.236
-1.690E-06,-0.328
-1.680E-06,-0.396
-1.670E-06,-0.232
-1.660E-06,0.056
-1.650E-06,0.404
-1.640E-06,0.368
-1.630E-06,0.156
-1.620E-06,-0.152
-1.610E-06,-0.320
-1.600E-06,-0.244
-1.590E-06,-0.064
-1.580E-06,0.164
-1.570E-06,0.188
-1.560E-06,0.164
-1.550E-06,0.008
-1.540E-06,-0.052
-1.530E-06,-0.128
-1.520E-06,-0.080
-1.510E-06,-0.012
-1.500E-06,0.064
-1.490E-06,0.112
-1.480E-06,0.080
-1.470E-06,0.040
-1.460E-06,-0.036
-1.450E-06,-0.036
-1.440E-06,-0.032
-1.430E-06,0.036
-1.420E-06,0.072
-1.410E-06,0.108
-1.400E-06,0.088
-1.390E-06,0.060
-1.380E-06,0.056
-1.370E-06,0.080
-1.360E-06,0.084
-1.350E-06,0.072
-1.340E-06,-0.056
-1.330E-06,-0.188
-1.320E-06,-0.140
-1.310E-06,-0.092
-1.300E-06,0.060
-1.290E-06,0.168
-1.280E-06,0.220
-1.270E-06,0.140
-1.260E-06,-0.132
-1.250E-06,-0.368
-1.240E-06,-0.388
-1.230E-06,-0.160
-1.220E-06,0.068
-1.210E-06,0.352
-1.200E-06,0.316
-1.190E-06,0.104
-1.180E-06,-0.148
-1.170E-06,-0.280
-1.160E-06,-0.216
-1.150E-06,-0.056
-1.140E-06,0.160
-1.130E-06,0.208
-1.120E-06,0.180
-1.110E-06,0.024
-1.100E-06,-0.060
-1.090E-06,-0.096
-1.080E-06,-0.032
-1.070E-06,0.024
-1.060E-06,0.024
-1.050E-06,-0.036
-1.040E-06,-0.128
-1.030E-06,-0.088
-1.020E-06,0.032
-1.010E-06,0.148
-1.000E-06,0.104
-9.900E-07,0.004
-9.800E-07,-0.080
-9.700E-07,-0.068
-9.600E-07,-0.004
-9.500E-07,0.036
-9.400E-07,0.072
-9.300E-07,0.064
-9.200E-07,0.056
-9.100E-07,0.020
-9.000E-07,0.012
-8.900E-07,-0.008
-8.800E-07,-0.004
-8.700E-07,0.004
-8.600E-07,0.048
-8.500E-07,0.056
-8.400E-07,0.020
-8.300E-07,0.012
-8.200E-07,-0.024
-8.100E-07,-0.004
-8.000E-07,0.040
-7.900E-07,0.064
-7.800E-07,0.056
-7.700E-07,0.040
-7.600E-07,0.020
-7.500E-07,-0.012
-7.400E-07,-0.020
-7.300E-07,-0.020
-7.200E-07,0.000
-7.100E-07,0.004
-7.000E-07,-0.008
-6.900E-07,-0.044
-6.800E-07,-0.044
-6.700E-07,-0.012
-6.600E-07,0.012
-6.500E-07,0.020
-6.400E-07,0.004
-6.300E-07,-0.032
-6.200E-07,-0.052
-6.100E-07,-0.032
-6.000E-07,0.012
-5.900E-07,0.048
-5.800E-07,0.060
-5.700E-07,0.024
-5.600E-07,-0.008
-5.500E-07,-0.036
-5.400E-07,-0.032
-5.300E-07,0.004
-5.200E-07,0.028
-5.100E-07,0.056
-5.000E-07,0.060
-4.900E-07,0.044
-4.800E-07,0.024
-4.700E-07,-0.004
-4.600E-07,-0.004
-4.500E-07,0.000
-4.400E-07,0.012
-4.300E-07,0.040
-4.200E-07,0.052
-4.100E-07,0.032
-4.000E-07,0.012
-3.900E-07,-0.008
-3.800E-07,-0.012
-3.700E-07,0.000
-3.600E-07,0.028
-3.500E-07,0.044
-3.400E-07,0.060
-3.300E-07,0.060
-3.200E-07,0.044
-3.100E-07,0.028
-3.000E-07,0.024
-2.900E-07,0.032
-2.800E-07,0.052
-2.700E-07,0.068
-2.600E-07,0.068
-2.500E-07,0.060
-2.400E-07,0.052
-2.300E-07,0.040
-2.200E-07,0.036
-2.100E-07,0.056
-2.000E-07,0.060
-1.900E-07,0.056
-1.800E-07,0.040
-1.700E-07,0.040
-1.600E-07,0.036
-1.500E-07,0.032
-1.400E-07,0.056
-1.300E-07,0.076
-1.200E-07,0.092
-1.100E-07,0.088
-1.000E-07,0.064
-9.000E-08,0.028
-8.000E-08,0.060
-7.000E-08,0.032
-6.000E-08,-0.068
-5.000E-08,-0.500
-4.000E-08,-0.512
-3.000E-08,-0.512
-2.000E-08,-0.316
-1.000E-08,0.408
0.000E+00,0.540
1.000E-08,0.540
2.000E-08,-0.152
3.000E-08,-0.512
4.000E-08,-0.512
5.000E-08,-0.508
6.000E-08,0.144
7.000E-08,0.540
8.000E-08,0.540
9.000E-08,0.328
1.000E-07,-0.076
1.100E-07,-0.420
1.200E-07,-0.320
1.300E-07,-0.180
1.400E-07,0.088
1.500E-07,0.220
1.600E-07,0.256
1.700E-07,0.128
1.800E-07,-0.012
1.900E-07,-0.168
2.000E-07,-0.248
2.100E-07,-0.104
2.200E-07,0.080
2.300E-07,0.280
2.400E-07,0.256
2.500E-07,0.120
2.600E-07,-0.116
2.700E-07,-0.212
2.800E-07,-0.176
2.900E-07,0.012
3.000E-07,0.208
3.100E-07,0.288
3.200E-07,0.244
3.300E-07,0.092
3.400E-07,-0.032
3.500E-07,-0.076
3.600E-07,-0.112
3.700E-07,-0.088
3.800E-07,-0.056
3.900E-07,-0.052
4.000E-07,-0.040
4.100E-07,-0.032
4.200E-07,0.008
4.300E-07,-0.020
4.400E-07,-0.008
4.500E-07,-0.016
4.600E-07,0.000
4.700E-07,-0.028
4.800E-07,-0.020
4.900E-07,0.000
5.000E-07,0.000
5.100E-07,-0.012
5.200E-07,-0.036
5.300E-07,-0.024
5.400E-07,0.004
5.500E-07,0.060
5.600E-07,0.072
5.700E-07,0.072
5.800E-07,0.008
5.900E-07,0.000
6.000E-07,-0.004
6.100E-07,0.024
6.200E-07,-0.020
6.300E-07,-0.060
6.400E-07,-0.064
6.500E-07,-0.084
6.600E-07,-0.040
6.700E-07,0.024
6.800E-07,0.088
6.900E-07,0.052
7.000E-07,-0.012
7.100E-07,-0.012
7.200E-07,0.012
7.300E-07,0.028
7.400E-07,0.044
7.500E-07,0.012
7.600E-07,-0.004
7.700E-07,-0.004
7.800E-07,0.064
7.900E-07,0.108
8.000E-07,0.112
8.100E-07,0.068
8.200E-07,-0.012
8.300E-07,-0.072
8.400E-07,-0.048
8.500E-07,0.028
8.600E-07,0.096
8.700E-07,0.148
8.800E-07,0.084
8.900E-07,-0.028
9.000E-07,-0.092
9.100E-07,-0.100
9.200E-07,-0.052
9.300E-07,0.032
9.400E-07,0.048
9.500E-07,-0.012
9.600E-07,-0.072
9.700E-07,-0.088
9.800E-07,-0.028
9.900E-07,0.004
1.000E-06,0.032
1.010E-06,0.000
1.020E-06,-0.028
1.030E-06,-0.060
1.040E-06,-0.044
1.050E-06,-0.008
1.060E-06,0.040
1.070E-06,0.060
1.080E-06,0.044
1.090E-06,0.016
1.100E-06,-0.036
1.110E-06,-0.060
1.120E-06,-0.060
1.130E-06,0.000
1.140E-06,0.060
1.150E-06,0.088
1.160E-06,0.076
1.170E-06,0.020
1.180E-06,-0.044
1.190E-06,-0.084
1.200E-06,-0.068
1.210E-06,-0.008
1.220E-06,0.064
1.230E-06,0.096
1.240E-06,0.084
1.250E-06,0.020
1.260E-06,-0.036
1.270E-06,-0.072
1.280E-06,-0.056
1.290E-06,0.016
1.300E-06,0.088
1.310E-06,0.132
1.320E-06,0.112
1.330E-06,0.056
1.340E-06,-0.008
1.350E-06,-0.036
1.360E-06,-0.016
1.370E-06,0.040
1.380E-06,0.096
1.390E-06,0.124
1.400E-06,0.108
1.410E-06,0.060
1.420E-06,0.008
1.430E-06,-0.028
1.440E-06,-0.028
1.450E-06,0.016
1.460E-06,0.084
1.470E-06,0.128
1.480E-06,0.140
1.490E-06,0.088
1.500E-06,0.024
1.510E-06,-0.008
1.520E-06,-0.012
1.530E-06,0.012
1.540E-06,0.088
1.550E-06,0.100
1.560E-06,0.064
1.570E-06,-0.012
1.580E-06,-0.212
1.590E-06,-0.368
1.600E-06,-0.348
1.610E-06,-0.152
1.620E-06,0.072
1.630E-06,0.260
1.640E-06,0.248
1.650E-06,0.076
1.660E-06,-0.076
1.670E-06,-0.188
1.680E-06,-0.148
1.690E-06,-0.024
1.700E-06,0.116
1.710E-06,0.152
1.720E-06,0.176
1.730E-06,0.100
1.740E-06,0.004
1.750E-06,0.016
1.760E-06,0.012
1.770E-06,0.012
1.780E-06,0.092
1.790E-06,0.192
1.800E-06,0.200
1.810E-06,0.192
1.820E-06,0.132
1.830E-06,0.060
1.840E-06,0.024
1.850E-06,-0.004
1.860E-06,0.024
1.870E-06,0.072
1.880E-06,-0.512
1.890E-06,-0.512
1.900E-06,-0.508
1.910E-06,0.196
1.920E-06,0.544
1.930E-06,0.544
1.940E-06,0.496
1.950E-06,-0.340
1.960E-06,-0.508
1.970E-06,-0.512
1.980E-06,-0.512
1.990E-06,0.508
2.000E-06,0.540
2.010E-06,0.540
2.020E-06,0.176
2.030E-06,-0.508
2.040E-06,-0.508
2.050E-06,-0.512
2.060E-06,0.056
2.070E-06,0.396
2.080E-06,0.492
2.090E-06,0.324
2.100E-06,0.092
2.110E-06,-0.104
2.120E-06,-0.276
2.130E-06,-0.236
2.140E-06,-0.184
2.150E-06,0.096
2.160E-06,0.232
2.170E-06,0.332
2.180E-06,0.152
2.190E-06,-0.024
2.200E-06,-0.176
2.210E-06,-0.160
2.220E-06,-0.028
2.230E-06,0.068
2.240E-06,0.152
2.250E-06,0.096
2.260E-06,0.092
2.270E-06,0.000
2.280E-06,0.032
2.290E-06,0.016
2.300E-06,0.056
2.310E-06,0.012
2.320E-06,0.020
2.330E-06,0.048
2.340E-06,0.092
2.350E-06,-0.016
2.360E-06,-0.172
2.370E-06,-0.216
2.380E-06,-0.236
2.390E-06,-0.172
2.400E-06,0.108
2.410E-06,0.228
2.420E-06,0.132
2.430E-06,-0.004
2.440E-06,-0.072
2.450E-06,-0.028
2.460E-06,0.028
2.470E-06,0.064
2.480E-06,0.012
2.490E-06,-0.024
2.500E-06,-0.096
2.510E-06,-0.084
2.520E-06,0.032
2.530E-06,0.140
2.540E-06,0.156
2.550E-06,0.096
2.560E-06,-0.024
2.570E-06,-0.200
2.580E-06,-0.292
2.590E-06,-0.176
2.600E-06,0.004
2.610E-06,0.172
2.620E-06,0.236
2.630E-06,0.140
2.640E-06,-0.024
2.650E-06,-0.152
2.660E-06,-0.172
2.670E-06,-0.052
2.680E-06,0.048
2.690E-06,0.144
2.700E-06,0.140
2.710E-06,0.092
2.720E-06,-0.024
2.730E-06,-0.088
2.740E-06,-0.108
2.750E-06,-0.052
2.760E-06,0.040
2.770E-06,0.104
2.780E-06,0.124
2.790E-06,0.080
2.800E-06,0.008
2.810E-06,-0.076
2.820E-06,-0.088
2.830E-06,-0.044
2.840E-06,0.028
2.850E-06,0.100
2.860E-06,0.120
2.870E-06,0.080
2.880E-06,0.016
2.890E-06,-0.028
2.900E-06,-0.052
2.910E-06,-0.024
2.920E-06,0.012
2.930E-06,0.064
2.940E-06,0.072
2.950E-06,0.052
2.960E-06,0.004
2.970E-06,-0.032
2.980E-06,-0.048
2.990E-06,-0.008
3.000E-06,0.032
3.010E-06,0.044
3.020E-06,0.028
3.030E-06,0.000
3.040E-06,0.016
3.050E-06,0.020
3.060E-06,0.028
3.070E-06,0.036
3.080E-06,0.024
3.090E-06,0.008
3.100E-06,0.012
3.110E-06,0.000
3.120E-06,-0.004
3.130E-06,0.036
3.140E-06,0.064
3.150E-06,0.084
3.160E-06,0.032
3.170E-06,-0.004
3.180E-06,-0.040
3.190E-06,-0.032
3.200E-06,0.016
3.210E-06,0.024
3.220E-06,-0.016
3.230E-06,-0.068
3.240E-06,-0.072
