mediciones/Mediciones filtradas (saque las feas)/5-15/19.97/WaveData47379.csv

#timebase=2000000(ps)
,#voltbase=100000(mv/100)
#size=4000
-8.400E-06,0.036
-8.390E-06,0.024
-8.380E-06,0.012
-8.370E-06,-0.004
-8.360E-06,-0.020
-8.350E-06,-0.004
-8.340E-06,0.012
-8.330E-06,0.036
-8.320E-06,0.040
-8.310E-06,0.032
-8.300E-06,0.028
-8.290E-06,0.012
-8.280E-06,0.008
-8.270E-06,0.008
-8.260E-06,0.032
-8.250E-06,0.044
-8.240E-06,0.040
-8.230E-06,0.012
-8.220E-06,-0.028
-8.210E-06,-0.052
-8.200E-06,-0.024
-8.190E-06,0.020
-8.180E-06,0.076
-8.170E-06,0.108
-8.160E-06,0.080
-8.150E-06,0.036
-8.140E-06,-0.068
-8.130E-06,-0.184
-8.120E-06,-0.252
-8.110E-06,-0.188
-8.100E-06,0.012
-8.090E-06,0.176
-8.080E-06,0.240
-8.070E-06,0.128
-8.060E-06,-0.100
-8.050E-06,-0.240
-8.040E-06,-0.220
-8.030E-06,-0.036
-8.020E-06,0.136
-8.010E-06,0.216
-8.000E-06,0.144
-7.990E-06,-0.016
-7.980E-06,-0.156
-7.970E-06,-0.176
-7.960E-06,-0.068
-7.950E-06,0.068
-7.940E-06,0.148
-7.930E-06,0.120
-7.920E-06,0.032
-7.910E-06,-0.068
-7.900E-06,-0.104
-7.890E-06,-0.072
-7.880E-06,-0.012
-7.870E-06,0.060
-7.860E-06,0.100
-7.850E-06,0.092
-7.840E-06,0.028
-7.830E-06,-0.028
-7.820E-06,-0.080
-7.810E-06,-0.068
-7.800E-06,-0.016
-7.790E-06,0.056
-7.780E-06,0.092
-7.770E-06,0.088
-7.760E-06,0.028
-7.750E-06,-0.020
-7.740E-06,-0.044
-7.730E-06,-0.032
-7.720E-06,0.024
-7.710E-06,0.072
-7.700E-06,0.096
-7.690E-06,0.068
-7.680E-06,0.008
-7.670E-06,-0.064
-7.660E-06,-0.096
-7.650E-06,-0.068
-7.640E-06,0.012
-7.630E-06,0.104
-7.620E-06,0.152
-7.610E-06,0.112
-7.600E-06,-0.104
-7.590E-06,-0.200
-7.580E-06,-0.216
-7.570E-06,-0.088
-7.560E-06,0.088
-7.550E-06,0.204
-7.540E-06,0.200
-7.530E-06,0.028
-7.520E-06,-0.132
-7.510E-06,-0.228
-7.500E-06,-0.144
-7.490E-06,-0.016
-7.480E-06,0.104
-7.470E-06,0.112
-7.460E-06,0.068
-7.450E-06,-0.020
-7.440E-06,-0.072
-7.430E-06,-0.056
-7.420E-06,-0.012
-7.410E-06,0.024
-7.400E-06,0.024
-7.390E-06,0.028
-7.380E-06,0.000
-7.370E-06,0.004
-7.360E-06,-0.004
-7.350E-06,0.012
-7.340E-06,0.016
-7.330E-06,0.020
-7.320E-06,0.016
-7.310E-06,0.004
-7.300E-06,-0.012
-7.290E-06,-0.016
-7.280E-06,-0.004
-7.270E-06,0.016
-7.260E-06,0.040
-7.250E-06,0.040
-7.240E-06,0.024
-7.230E-06,0.000
-7.220E-06,-0.024
-7.210E-06,-0.024
-7.200E-06,0.004
-7.190E-06,0.048
-7.180E-06,0.076
-7.170E-06,0.088
-7.160E-06,0.040
-7.150E-06,-0.024
-7.140E-06,-0.088
-7.130E-06,-0.088
-7.120E-06,-0.068
-7.110E-06,-0.004
-7.100E-06,0.056
-7.090E-06,0.080
-7.080E-06,0.044
-7.070E-06,0.004
-7.060E-06,-0.044
-7.050E-06,-0.052
-7.040E-06,-0.028
-7.030E-06,0.004
-7.020E-06,0.064
-7.010E-06,0.076
-7.000E-06,0.060
-6.990E-06,-0.008
-6.980E-06,-0.060
-6.970E-06,-0.080
-6.960E-06,-0.036
-6.950E-06,0.024
-6.940E-06,0.060
-6.930E-06,0.068
-6.920E-06,0.048
-6.910E-06,0.020
-6.900E-06,-0.036
-6.890E-06,-0.052
-6.880E-06,-0.068
-6.870E-06,-0.040
-6.860E-06,0.004
-6.850E-06,0.036
-6.840E-06,0.052
-6.830E-06,0.036
-6.820E-06,-0.008
-6.810E-06,-0.052
-6.800E-06,-0.064
-6.790E-06,-0.044
-6.780E-06,0.004
-6.770E-06,0.044
-6.760E-06,0.052
-6.750E-06,0.024
-6.740E-06,-0.004
-6.730E-06,-0.032
-6.720E-06,-0.036
-6.710E-06,-0.008
-6.700E-06,0.008
-6.690E-06,0.032
-6.680E-06,0.032
-6.670E-06,0.028
-6.660E-06,0.008
-6.650E-06,-0.008
-6.640E-06,-0.024
-6.630E-06,-0.008
-6.620E-06,0.008
-6.610E-06,0.028
-6.600E-06,0.036
-6.590E-06,0.036
-6.580E-06,0.020
-6.570E-06,0.008
-6.560E-06,-0.004
-6.550E-06,-0.004
-6.540E-06,0.012
-6.530E-06,0.028
-6.520E-06,0.052
-6.510E-06,0.060
-6.500E-06,0.056
-6.490E-06,0.036
-6.480E-06,0.012
-6.470E-06,-0.004
-6.460E-06,-0.004
-6.450E-06,0.016
-6.440E-06,0.044
-6.430E-06,0.072
-6.420E-06,0.084
-6.410E-06,0.076
-6.400E-06,0.052
-6.390E-06,0.012
-6.380E-06,-0.012
-6.370E-06,-0.024
-6.360E-06,-0.008
-6.350E-06,-0.040
-6.340E-06,-0.120
-6.330E-06,-0.152
-6.320E-06,-0.168
-6.310E-06,-0.020
-6.300E-06,0.140
-6.290E-06,0.176
-6.280E-06,0.064
-6.270E-06,-0.068
-6.260E-06,-0.136
-6.250E-06,-0.132
-6.240E-06,-0.052
-6.230E-06,0.060
-6.220E-06,0.080
-6.210E-06,0.008
-6.200E-06,-0.044
-6.190E-06,-0.072
-6.180E-06,-0.040
-6.170E-06,-0.008
-6.160E-06,0.024
-6.150E-06,0.032
-6.140E-06,0.012
-6.130E-06,0.000
-6.120E-06,0.000
-6.110E-06,0.004
-6.100E-06,0.000
-6.090E-06,-0.020
-6.080E-06,-0.024
-6.070E-06,-0.008
-6.060E-06,0.024
-6.050E-06,0.040
-6.040E-06,0.040
-6.030E-06,0.008
-6.020E-06,-0.020
-6.010E-06,-0.032
-6.000E-06,-0.008
-5.990E-06,0.004
-5.980E-06,0.028
-5.970E-06,0.028
-5.960E-06,0.016
-5.950E-06,0.008
-5.940E-06,-0.004
-5.930E-06,0.000
-5.920E-06,0.000
-5.910E-06,0.016
-5.900E-06,0.028
-5.890E-06,0.024
-5.880E-06,0.024
-5.870E-06,0.008
-5.860E-06,0.008
-5.850E-06,0.008
-5.840E-06,0.024
-5.830E-06,0.040
-5.820E-06,0.060
-5.810E-06,0.072
-5.800E-06,0.060
-5.790E-06,0.008
-5.780E-06,-0.076
-5.770E-06,-0.112
-5.760E-06,-0.232
-5.750E-06,-0.176
-5.740E-06,0.080
-5.730E-06,0.188
-5.720E-06,0.192
-5.710E-06,0.020
-5.700E-06,-0.112
-5.690E-06,-0.180
-5.680E-06,-0.104
-5.670E-06,-0.004
-5.660E-06,0.088
-5.650E-06,0.128
-5.640E-06,0.068
-5.630E-06,-0.012
-5.620E-06,-0.100
-5.610E-06,-0.084
-5.600E-06,-0.036
-5.590E-06,0.044
-5.580E-06,0.076
-5.570E-06,0.072
-5.560E-06,0.016
-5.550E-06,-0.012
-5.540E-06,-0.040
-5.530E-06,-0.036
-5.520E-06,-0.012
-5.510E-06,0.016
-5.500E-06,0.040
-5.490E-06,0.032
-5.480E-06,0.020
-5.470E-06,-0.016
-5.460E-06,-0.036
-5.450E-06,-0.028
-5.440E-06,-0.004
-5.430E-06,0.028
-5.420E-06,0.040
-5.410E-06,0.036
-5.400E-06,0.016
-5.390E-06,0.000
-5.380E-06,-0.020
-5.370E-06,-0.008
-5.360E-06,0.004
-5.350E-06,0.036
-5.340E-06,0.048
-5.330E-06,0.032
-5.320E-06,0.004
-5.310E-06,-0.016
-5.300E-06,-0.020
-5.290E-06,-0.012
-5.280E-06,0.016
-5.270E-06,0.044
-5.260E-06,0.056
-5.250E-06,0.040
-5.240E-06,0.004
-5.230E-06,-0.032
-5.220E-06,-0.036
-5.210E-06,-0.016
-5.200E-06,0.024
-5.190E-06,0.072
-5.180E-06,0.092
-5.170E-06,0.072
-5.160E-06,0.036
-5.150E-06,0.012
-5.140E-06,-0.004
-5.130E-06,0.016
-5.120E-06,0.028
-5.110E-06,0.036
-5.100E-06,0.016
-5.090E-06,0.028
-5.080E-06,-0.052
-5.070E-06,-0.104
-5.060E-06,-0.068
-5.050E-06,0.024
-5.040E-06,0.020
-5.030E-06,0.020
-5.020E-06,0.028
-5.010E-06,-0.056
-5.000E-06,-0.108
-4.990E-06,-0.092
-4.980E-06,0.016
-4.970E-06,0.096
-4.960E-06,0.128
-4.950E-06,0.036
-4.940E-06,-0.052
-4.930E-06,-0.104
-4.920E-06,-0.076
-4.910E-06,0.004
-4.900E-06,0.096
-4.890E-06,0.104
-4.880E-06,0.028
-4.870E-06,-0.052
-4.860E-06,-0.104
-4.850E-06,-0.096
-4.840E-06,-0.044
-4.830E-06,0.044
-4.820E-06,0.068
-4.810E-06,0.060
-4.800E-06,0.016
-4.790E-06,-0.044
-4.780E-06,-0.072
-4.770E-06,-0.072
-4.760E-06,-0.004
-4.750E-06,0.060
-4.740E-06,0.112
-4.730E-06,0.080
-4.720E-06,0.024
-4.710E-06,-0.056
-4.700E-06,-0.076
-4.690E-06,-0.048
-4.680E-06,0.028
-4.670E-06,0.096
-4.660E-06,0.112
-4.650E-06,0.092
-4.640E-06,0.016
-4.630E-06,-0.040
-4.620E-06,-0.076
-4.610E-06,-0.048
-4.600E-06,0.008
-4.590E-06,0.064
-4.580E-06,0.092
-4.570E-06,0.068
-4.560E-06,0.012
-4.550E-06,-0.052
-4.540E-06,-0.068
-4.530E-06,-0.056
-4.520E-06,0.000
-4.510E-06,0.060
-4.500E-06,0.096
-4.490E-06,0.084
-4.480E-06,0.052
-4.470E-06,0.012
-4.460E-06,-0.008
-4.450E-06,0.012
-4.440E-06,0.056
-4.430E-06,0.096
-4.420E-06,0.100
-4.410E-06,0.064
-4.400E-06,-0.044
-4.390E-06,-0.160
-4.380E-06,-0.232
-4.370E-06,-0.204
-4.360E-06,-0.056
-4.350E-06,0.108
-4.340E-06,0.232
-4.330E-06,0.152
-4.320E-06,-0.024
-4.310E-06,-0.168
-4.300E-06,-0.172
-4.290E-06,-0.076
-4.280E-06,0.068
-4.270E-06,0.192
-4.260E-06,0.160
-4.250E-06,0.060
-4.240E-06,-0.080
-4.230E-06,-0.132
-4.220E-06,-0.100
-4.210E-06,-0.004
-4.200E-06,0.080
-4.190E-06,0.108
-4.180E-06,0.040
-4.170E-06,-0.052
-4.160E-06,-0.120
-4.150E-06,-0.124
-4.140E-06,-0.060
-4.130E-06,0.008
-4.120E-06,0.076
-4.110E-06,0.088
-4.100E-06,0.068
-4.090E-06,0.012
-4.080E-06,-0.044
-4.070E-06,-0.084
-4.060E-06,-0.064
-4.050E-06,0.000
-4.040E-06,0.076
-4.030E-06,0.128
-4.020E-06,0.112
-4.010E-06,0.040
-4.000E-06,-0.060
-3.990E-06,-0.088
-3.980E-06,-0.060
-3.970E-06,0.016
-3.960E-06,0.092
-3.950E-06,0.100
-3.940E-06,0.064
-3.930E-06,-0.012
-3.920E-06,-0.100
-3.910E-06,-0.108
-3.900E-06,-0.056
-3.890E-06,0.028
-3.880E-06,0.096
-3.870E-06,0.132
-3.860E-06,0.120
-3.850E-06,0.060
-3.840E-06,-0.020
-3.830E-06,-0.076
-3.820E-06,-0.060
-3.810E-06,0.012
-3.800E-06,0.108
-3.790E-06,0.124
-3.780E-06,0.092
-3.770E-06,-0.008
-3.760E-06,-0.108
-3.750E-06,-0.132
-3.740E-06,-0.076
-3.730E-06,-0.008
-3.720E-06,0.060
-3.710E-06,0.136
-3.700E-06,0.156
-3.690E-06,0.128
-3.680E-06,0.052
-3.670E-06,-0.068
-3.660E-06,-0.152
-3.650E-06,-0.176
-3.640E-06,-0.108
-3.630E-06,0.000
-3.620E-06,0.108
-3.610E-06,0.140
-3.600E-06,0.120
-3.590E-06,0.000
-3.580E-06,-0.128
-3.570E-06,-0.168
-3.560E-06,-0.100
-3.550E-06,0.016
-3.540E-06,0.080
-3.530E-06,0.104
-3.520E-06,0.064
-3.510E-06,0.020
-3.500E-06,-0.024
-3.490E-06,-0.056
-3.480E-06,-0.068
-3.470E-06,-0.036
-3.460E-06,-0.004
-3.450E-06,0.008
-3.440E-06,0.028
-3.430E-06,0.028
-3.420E-06,-0.012
-3.410E-06,-0.036
-3.400E-06,-0.020
-3.390E-06,0.004
-3.380E-06,0.052
-3.370E-06,0.080
-3.360E-06,0.088
-3.350E-06,0.044
-3.340E-06,0.008
-3.330E-06,0.008
-3.320E-06,0.028
-3.310E-06,0.028
-3.300E-06,0.020
-3.290E-06,0.004
-3.280E-06,-0.044
-3.270E-06,-0.076
-3.260E-06,-0.076
-3.250E-06,-0.020
-3.240E-06,0.024
-3.230E-06,0.096
-3.220E-06,0.088
-3.210E-06,0.028
-3.200E-06,-0.028
-3.190E-06,-0.036
-3.180E-06,0.020
-3.170E-06,0.020
-3.160E-06,0.044
-3.150E-06,0.044
-3.140E-06,0.024
-3.130E-06,0.020
-3.120E-06,0.048
-3.110E-06,0.064
-3.100E-06,0.068
-3.090E-06,0.120
-3.080E-06,0.108
-3.070E-06,0.068
-3.060E-06,-0.108
-3.050E-06,-0.260
-3.040E-06,-0.240
-3.030E-06,-0.064
-3.020E-06,0.096
-3.010E-06,0.236
-3.000E-06,0.256
-2.990E-06,0.096
-2.980E-06,-0.080
-2.970E-06,-0.168
-2.960E-06,-0.164
-2.950E-06,-0.148
-2.940E-06,-0.196
-2.930E-06,-0.136
-2.920E-06,-0.072
-2.910E-06,-0.020
-2.900E-06,0.120
-2.890E-06,0.216
-2.880E-06,0.160
-2.870E-06,-0.068
-2.860E-06,-0.196
-2.850E-06,-0.220
-2.840E-06,-0.072
-2.830E-06,0.088
-2.820E-06,0.172
-2.810E-06,0.108
-2.800E-06,-0.012
-2.790E-06,-0.100
-2.780E-06,-0.088
-2.770E-06,-0.040
-2.760E-06,0.016
-2.750E-06,0.052
-2.740E-06,0.048
-2.730E-06,0.028
-2.720E-06,0.000
-2.710E-06,-0.012
-2.700E-06,-0.040
-2.690E-06,-0.032
-2.680E-06,-0.016
-2.670E-06,0.008
-2.660E-06,0.036
-2.650E-06,0.052
-2.640E-06,0.048
-2.630E-06,0.020
-2.620E-06,-0.004
-2.610E-06,-0.040
-2.600E-06,-0.040
-2.590E-06,-0.020
-2.580E-06,0.016
-2.570E-06,0.044
-2.560E-06,0.056
-2.550E-06,0.048
-2.540E-06,0.028
-2.530E-06,0.004
-2.520E-06,-0.020
-2.510E-06,-0.016
-2.500E-06,0.000
-2.490E-06,0.040
-2.480E-06,0.064
-2.470E-06,0.072
-2.460E-06,0.064
-2.450E-06,0.040
-2.440E-06,0.016
-2.430E-06,0.020
-2.420E-06,0.036
-2.410E-06,0.060
-2.400E-06,0.088
-2.390E-06,0.088
-2.380E-06,0.072
-2.370E-06,0.032
-2.360E-06,-0.008
-2.350E-06,-0.004
-2.340E-06,0.020
-2.330E-06,-0.056
-2.320E-06,-0.132
-2.310E-06,-0.140
-2.300E-06,-0.112
-2.290E-06,-0.028
-2.280E-06,0.060
-2.270E-06,0.128
-2.260E-06,0.036
-2.250E-06,-0.108
-2.240E-06,-0.184
-2.230E-06,-0.104
-2.220E-06,0.040
-2.210E-06,0.144
-2.200E-06,0.164
-2.190E-06,-0.012
-2.180E-06,-0.160
-2.170E-06,-0.196
-2.160E-06,-0.080
-2.150E-06,0.092
-2.140E-06,0.176
-2.130E-06,0.128
-2.120E-06,-0.024
-2.110E-06,-0.140
-2.100E-06,-0.168
-2.090E-06,-0.084
-2.080E-06,0.024
-2.070E-06,0.108
-2.060E-06,0.140
-2.050E-06,0.088
-2.040E-06,-0.004
-2.030E-06,-0.060
-2.020E-06,-0.080
-2.010E-06,-0.056
-2.000E-06,0.036
-1.990E-06,0.128
-1.980E-06,0.160
-1.970E-06,0.084
-1.960E-06,-0.020
-1.950E-06,-0.124
-1.940E-06,-0.156
-1.930E-06,-0.112
-1.920E-06,-0.004
-1.910E-06,0.112
-1.900E-06,0.124
-1.890E-06,0.040
-1.880E-06,-0.052
-1.870E-06,-0.108
-1.860E-06,-0.120
-1.850E-06,-0.056
-1.840E-06,0.040
-1.830E-06,0.092
-1.820E-06,0.092
-1.810E-06,0.028
-1.800E-06,-0.020
-1.790E-06,-0.076
-1.780E-06,-0.064
-1.770E-06,-0.024
-1.760E-06,0.036
-1.750E-06,0.092
-1.740E-06,0.096
-1.730E-06,0.044
-1.720E-06,-0.004
-1.710E-06,-0.052
-1.700E-06,-0.052
-1.690E-06,-0.008
-1.680E-06,0.064
-1.670E-06,0.108
-1.660E-06,0.120
-1.650E-06,0.072
-1.640E-06,0.008
-1.630E-06,-0.048
-1.620E-06,-0.044
-1.610E-06,0.000
-1.600E-06,0.056
-1.590E-06,0.104
-1.580E-06,0.088
-1.570E-06,0.048
-1.560E-06,0.004
-1.550E-06,-0.024
-1.540E-06,-0.032
-1.530E-06,-0.012
-1.520E-06,-0.004
-1.510E-06,0.008
-1.500E-06,0.016
-1.490E-06,0.020
-1.480E-06,0.008
-1.470E-06,0.016
-1.460E-06,0.060
-1.450E-06,0.096
-1.440E-06,0.132
-1.430E-06,0.116
-1.420E-06,0.060
-1.410E-06,0.000
-1.400E-06,-0.056
-1.390E-06,-0.120
-1.380E-06,-0.136
-1.370E-06,-0.152
-1.360E-06,-0.108
-1.350E-06,-0.024
-1.340E-06,0.104
-1.330E-06,0.172
-1.320E-06,0.128
-1.310E-06,0.000
-1.300E-06,-0.124
-1.290E-06,-0.120
-1.280E-06,-0.036
-1.270E-06,0.088
-1.260E-06,0.160
-1.250E-06,0.184
-1.240E-06,0.092
-1.230E-06,-0.044
-1.220E-06,-0.084
-1.210E-06,-0.076
-1.200E-06,0.028
-1.190E-06,0.104
-1.180E-06,0.108
-1.170E-06,0.064
-1.160E-06,0.008
-1.150E-06,-0.044
-1.140E-06,-0.104
-1.130E-06,-0.080
-1.120E-06,-0.028
-1.110E-06,0.060
-1.100E-06,0.152
-1.090E-06,0.200
-1.080E-06,0.088
-1.070E-06,-0.072
-1.060E-06,-0.172
-1.050E-06,-0.232
-1.040E-06,-0.152
-1.030E-06,0.048
-1.020E-06,0.204
-1.010E-06,0.260
-1.000E-06,0.204
-9.900E-07,0.032
-9.800E-07,-0.096
-9.700E-07,-0.056
-9.600E-07,0.088
-9.500E-07,0.228
-9.400E-07,0.228
-9.300E-07,0.144
-9.200E-07,-0.032
-9.100E-07,-0.164
-9.000E-07,-0.208
-8.900E-07,-0.128
-8.800E-07,-0.012
-8.700E-07,0.124
-8.600E-07,0.208
-8.500E-07,0.160
-8.400E-07,0.024
-8.300E-07,-0.140
-8.200E-07,-0.232
-8.100E-07,-0.248
-8.000E-07,-0.176
-7.900E-07,-0.048
-7.800E-07,0.100
-7.700E-07,0.140
-7.600E-07,0.108
-7.500E-07,0.132
-7.400E-07,-0.016
-7.300E-07,-0.192
-7.200E-07,-0.300
-7.100E-07,-0.192
-7.000E-07,0.020
-6.900E-07,0.204
-6.800E-07,0.204
-6.700E-07,0.032
-6.600E-07,-0.120
-6.500E-07,-0.176
-6.400E-07,-0.080
-6.300E-07,0.028
-6.200E-07,0.124
-6.100E-07,0.128
-6.000E-07,0.108
-5.900E-07,0.052
-5.800E-07,-0.036
-5.700E-07,-0.096
-5.600E-07,-0.076
-5.500E-07,0.024
-5.400E-07,0.088
-5.300E-07,0.100
-5.200E-07,0.056
-5.100E-07,-0.012
-5.000E-07,-0.040
-4.900E-07,0.004
-4.800E-07,0.060
-4.700E-07,0.092
-4.600E-07,0.124
-4.500E-07,0.104
-4.400E-07,0.068
-4.300E-07,0.028
-4.200E-07,0.012
-4.100E-07,0.032
-4.000E-07,0.060
-3.900E-07,0.064
-3.800E-07,0.060
-3.700E-07,0.032
-3.600E-07,-0.008
-3.500E-07,-0.004
-3.400E-07,0.064
-3.300E-07,0.100
-3.200E-07,0.132
-3.100E-07,0.140
-3.000E-07,0.140
-2.900E-07,0.128
-2.800E-07,0.124
-2.700E-07,0.096
-2.600E-07,0.040
-2.500E-07,0.016
-2.400E-07,0.016
-2.300E-07,0.048
-2.200E-07,0.084
-2.100E-07,0.096
-2.000E-07,0.060
-1.900E-07,0.028
-1.800E-07,-0.008
-1.700E-07,-0.036
-1.600E-07,0.024
-1.500E-07,0.108
-1.400E-07,0.124
-1.300E-07,0.020
-1.200E-07,-0.052
-1.100E-07,-0.172
-1.000E-07,-0.128
-9.000E-08,0.056
-8.000E-08,0.312
-7.000E-08,0.492
-6.000E-08,0.196
-5.000E-08,-0.448
-4.000E-08,-0.512
-3.000E-08,-0.512
-2.000E-08,-0.508
-1.000E-08,0.120
0.000E+00,0.540
1.000E-08,0.540
2.000E-08,0.140
3.000E-08,-0.320
4.000E-08,-0.496
5.000E-08,-0.512
6.000E-08,-0.340
7.000E-08,0.188
8.000E-08,0.540
9.000E-08,0.540
1.000E-07,0.384
1.100E-07,-0.252
1.200E-07,-0.512
1.300E-07,-0.512
1.400E-07,-0.320
1.500E-07,0.236
1.600E-07,0.540
1.700E-07,0.540
1.800E-07,0.396
1.900E-07,-0.084
2.000E-07,-0.512
2.100E-07,-0.512
2.200E-07,-0.308
2.300E-07,0.224
2.400E-07,0.540
2.500E-07,0.540
2.600E-07,0.460
2.700E-07,0.028
2.800E-07,-0.304
2.900E-07,-0.468
3.000E-07,-0.424
3.100E-07,-0.132
3.200E-07,0.184
3.300E-07,0.332
3.400E-07,0.240
3.500E-07,0.048
3.600E-07,-0.156
3.700E-07,-0.244
3.800E-07,-0.144
3.900E-07,0.104
4.000E-07,0.296
4.100E-07,0.408
4.200E-07,0.388
4.300E-07,0.216
4.400E-07,-0.008
4.500E-07,-0.112
4.600E-07,-0.060
4.700E-07,0.112
4.800E-07,0.296
4.900E-07,0.392
5.000E-07,0.368
5.100E-07,0.256
5.200E-07,0.120
5.300E-07,0.000
5.400E-07,-0.004
5.500E-07,0.060
5.600E-07,0.168
5.700E-07,0.264
5.800E-07,0.296
5.900E-07,0.240
6.000E-07,0.132
6.100E-07,0.004
6.200E-07,-0.128
6.300E-07,-0.232
6.400E-07,-0.272
6.500E-07,-0.264
6.600E-07,-0.172
6.700E-07,-0.052
6.800E-07,0.024
6.900E-07,0.032
7.000E-07,-0.032
7.100E-07,-0.124
7.200E-07,-0.176
7.300E-07,-0.084
7.400E-07,0.024
7.500E-07,0.096
7.600E-07,0.136
7.700E-07,0.120
7.800E-07,0.076
7.900E-07,0.040
8.000E-07,0.036
8.100E-07,0.076
8.200E-07,0.152
8.300E-07,0.232
8.400E-07,0.256
8.500E-07,0.260
8.600E-07,0.228
8.700E-07,0.192
8.800E-07,0.144
8.900E-07,0.104
9.000E-07,0.112
9.100E-07,0.128
9.200E-07,0.124
9.300E-07,0.048
9.400E-07,-0.068
9.500E-07,-0.196
9.600E-07,-0.268
9.700E-07,-0.236
9.800E-07,-0.160
9.900E-07,-0.072
1.000E-06,-0.032
1.010E-06,-0.044
1.020E-06,-0.064
1.030E-06,-0.036
1.040E-06,-0.004
1.050E-06,0.044
1.060E-06,0.096
1.070E-06,0.048
1.080E-06,-0.040
1.090E-06,-0.084
1.100E-06,-0.080
1.110E-06,0.040
1.120E-06,0.196
1.130E-06,0.328
1.140E-06,0.404
1.150E-06,0.344
1.160E-06,0.196
1.170E-06,0.040
1.180E-06,-0.048
1.190E-06,-0.060
1.200E-06,0.036
1.210E-06,0.120
1.220E-06,0.140
1.230E-06,0.020
1.240E-06,-0.188
1.250E-06,-0.376
1.260E-06,-0.424
1.270E-06,-0.324
1.280E-06,-0.068
1.290E-06,0.164
1.300E-06,0.288
1.310E-06,0.192
1.320E-06,-0.076
1.330E-06,-0.316
1.340E-06,-0.300
1.350E-06,-0.056
1.360E-06,0.196
1.370E-06,0.368
1.380E-06,0.308
1.390E-06,0.028
1.400E-06,-0.224
1.410E-06,-0.380
1.420E-06,-0.384
1.430E-06,-0.232
1.440E-06,0.016
1.450E-06,0.180
1.460E-06,0.256
1.470E-06,0.196
1.480E-06,-0.028
1.490E-06,-0.228
1.500E-06,-0.276
1.510E-06,-0.140
1.520E-06,0.128
1.530E-06,0.336
1.540E-06,0.384
1.550E-06,0.264
1.560E-06,0.064
1.570E-06,-0.100
1.580E-06,-0.084
1.590E-06,0.064
1.600E-06,0.228
1.610E-06,0.372
1.620E-06,0.388
1.630E-06,0.304
1.640E-06,0.164
1.650E-06,0.064
1.660E-06,0.052
1.670E-06,0.128
1.680E-06,0.244
1.690E-06,0.348
1.700E-06,0.384
1.710E-06,0.328
1.720E-06,0.220
1.730E-06,0.128
1.740E-06,0.092
1.750E-06,0.124
1.760E-06,0.204
1.770E-06,0.284
1.780E-06,0.320
1.790E-06,0.280
1.800E-06,0.204
1.810E-06,0.140
1.820E-06,0.096
1.830E-06,0.104
1.840E-06,0.152
1.850E-06,0.196
1.860E-06,0.240
1.870E-06,0.252
1.880E-06,0.224
1.890E-06,0.196
1.900E-06,0.176
1.910E-06,0.184
1.920E-06,0.216
1.930E-06,0.256
1.940E-06,0.284
1.950E-06,0.276
1.960E-06,0.252
1.970E-06,0.212
1.980E-06,0.180
1.990E-06,0.156
2.000E-06,0.168
2.010E-06,0.176
2.020E-06,0.196
2.030E-06,0.196
2.040E-06,0.176
2.050E-06,0.128
2.060E-06,0.092
2.070E-06,0.072
2.080E-06,0.092
2.090E-06,0.128
2.100E-06,0.124
2.110E-06,0.052
2.120E-06,-0.072
2.130E-06,-0.212
2.140E-06,-0.280
2.150E-06,-0.272
2.160E-06,-0.216
2.170E-06,-0.080
2.180E-06,0.096
2.190E-06,0.216
2.200E-06,0.280
2.210E-06,0.224
2.220E-06,0.132
2.230E-06,0.044
2.240E-06,0.044
2.250E-06,0.128
2.260E-06,0.280
2.270E-06,0.412
2.280E-06,0.452
2.290E-06,0.376
2.300E-06,0.228
2.310E-06,0.108
2.320E-06,0.048
2.330E-06,0.116
2.340E-06,0.236
2.350E-06,0.352
2.360E-06,0.384
2.370E-06,0.352
2.380E-06,0.256
2.390E-06,0.152
2.400E-06,0.096
2.410E-06,0.120
2.420E-06,0.204
2.430E-06,0.296
2.440E-06,0.360
2.450E-06,0.352
2.460E-06,0.284
2.470E-06,0.200
2.480E-06,0.144
2.490E-06,0.140
2.500E-06,0.188
2.510E-06,0.256
2.520E-06,0.304
2.530E-06,0.320
2.540E-06,0.276
2.550E-06,0.208
2.560E-06,0.136
2.570E-06,0.112
2.580E-06,0.124
2.590E-06,0.192
2.600E-06,0.256
2.610E-06,0.292
2.620E-06,0.272
2.630E-06,0.216
2.640E-06,0.156
2.650E-06,0.124
2.660E-06,0.120
2.670E-06,0.148
2.680E-06,0.176
2.690E-06,0.184
2.700E-06,0.164
2.710E-06,0.128
2.720E-06,0.104
2.730E-06,0.132
2.740E-06,0.172
2.750E-06,0.232
2.760E-06,0.256
2.770E-06,0.244
2.780E-06,0.212
2.790E-06,0.164
2.800E-06,0.160
2.810E-06,0.180
2.820E-06,0.224
2.830E-06,0.256
2.840E-06,0.260
2.850E-06,0.232
2.860E-06,0.196
2.870E-06,0.156
2.880E-06,0.152
2.890E-06,0.188
2.900E-06,0.216
2.910E-06,0.244
2.920E-06,0.244
2.930E-06,0.232
2.940E-06,0.200
2.950E-06,0.176
2.960E-06,0.172
2.970E-06,0.192
2.980E-06,0.224
2.990E-06,0.252
3.000E-06,0.256
3.010E-06,0.240
3.020E-06,0.220
3.030E-06,0.200
3.040E-06,0.196
3.050E-06,0.200
3.060E-06,0.212
3.070E-06,0.228
3.080E-06,0.232
3.090E-06,0.224
3.100E-06,0.212
3.110E-06,0.196
3.120E-06,0.188
3.130E-06,0.192
3.140E-06,0.204
3.150E-06,0.220
3.160E-06,0.228
3.170E-06,0.224
3.180E-06,0.216
3.190E-06,0.204
3.200E-06,0.192
3.210E-06,0.184
3.220E-06,0.192
3.230E-06,0.204
3.240E-06,0.220
3.250E-06,0.220
3.260E-06,0.220
