mediciones/6-26/22.6/WaveData5996.csv

#timebase=2000000(ps)
,#voltbase=200000(mv/100)
#size=4000
-8.150E-06,-0.008
-8.140E-06,0.000
-8.130E-06,0.000
-8.120E-06,0.000
-8.110E-06,0.000
-8.100E-06,0.000
-8.090E-06,0.000
-8.080E-06,0.000
-8.070E-06,0.008
-8.060E-06,0.000
-8.050E-06,0.000
-8.040E-06,-0.008
-8.030E-06,0.008
-8.020E-06,-0.008
-8.010E-06,0.008
-8.000E-06,0.008
-7.990E-06,0.008
-7.980E-06,0.008
-7.970E-06,-0.008
-7.960E-06,-0.008
-7.950E-06,0.008
-7.940E-06,0.008
-7.930E-06,0.008
-7.920E-06,0.000
-7.910E-06,0.008
-7.900E-06,0.008
-7.890E-06,0.008
-7.880E-06,0.000
-7.870E-06,0.008
-7.860E-06,0.000
-7.850E-06,0.008
-7.840E-06,0.016
-7.830E-06,-0.008
-7.820E-06,0.000
-7.810E-06,0.000
-7.800E-06,0.000
-7.790E-06,0.000
-7.780E-06,0.008
-7.770E-06,0.008
-7.760E-06,0.000
-7.750E-06,0.000
-7.740E-06,-0.008
-7.730E-06,0.000
-7.720E-06,0.008
-7.710E-06,0.000
-7.700E-06,0.000
-7.690E-06,0.008
-7.680E-06,-0.008
-7.670E-06,0.000
-7.660E-06,0.008
-7.650E-06,0.000
-7.640E-06,0.008
-7.630E-06,0.000
-7.620E-06,0.008
-7.610E-06,-0.008
-7.600E-06,0.008
-7.590E-06,-0.008
-7.580E-06,0.000
-7.570E-06,0.000
-7.560E-06,0.000
-7.550E-06,0.000
-7.540E-06,0.000
-7.530E-06,-0.008
-7.520E-06,0.000
-7.510E-06,0.000
-7.500E-06,0.000
-7.490E-06,0.000
-7.480E-06,0.008
-7.470E-06,0.000
-7.460E-06,0.008
-7.450E-06,0.016
-7.440E-06,0.000
-7.430E-06,-0.008
-7.420E-06,0.008
-7.410E-06,0.016
-7.400E-06,-0.008
-7.390E-06,0.000
-7.380E-06,0.008
-7.370E-06,0.008
-7.360E-06,0.000
-7.350E-06,0.008
-7.340E-06,0.008
-7.330E-06,0.008
-7.320E-06,0.008
-7.310E-06,0.008
-7.300E-06,0.008
-7.290E-06,0.016
-7.280E-06,0.000
-7.270E-06,-0.008
-7.260E-06,0.008
-7.250E-06,0.016
-7.240E-06,0.016
-7.230E-06,0.008
-7.220E-06,-0.008
-7.210E-06,0.000
-7.200E-06,0.000
-7.190E-06,0.008
-7.180E-06,0.008
-7.170E-06,0.008
-7.160E-06,0.000
-7.150E-06,0.000
-7.140E-06,0.000
-7.130E-06,-0.008
-7.120E-06,0.000
-7.110E-06,0.008
-7.100E-06,0.000
-7.090E-06,0.008
-7.080E-06,0.000
-7.070E-06,0.000
-7.060E-06,0.000
-7.050E-06,0.008
-7.040E-06,0.000
-7.030E-06,0.000
-7.020E-06,0.000
-7.010E-06,0.000
-7.000E-06,0.008
-6.990E-06,0.008
-6.980E-06,0.000
-6.970E-06,0.008
-6.960E-06,0.000
-6.950E-06,-0.008
-6.940E-06,0.000
-6.930E-06,0.008
-6.920E-06,0.016
-6.910E-06,0.008
-6.900E-06,-0.008
-6.890E-06,0.000
-6.880E-06,0.008
-6.870E-06,0.008
-6.860E-06,0.016
-6.850E-06,-0.008
-6.840E-06,-0.008
-6.830E-06,0.000
-6.820E-06,-0.008
-6.810E-06,0.000
-6.800E-06,-0.008
-6.790E-06,0.000
-6.780E-06,0.000
-6.770E-06,0.000
-6.760E-06,0.000
-6.750E-06,-0.008
-6.740E-06,0.008
-6.730E-06,0.000
-6.720E-06,0.008
-6.710E-06,0.008
-6.700E-06,0.008
-6.690E-06,0.000
-6.680E-06,0.000
-6.670E-06,0.000
-6.660E-06,0.000
-6.650E-06,0.008
-6.640E-06,0.000
-6.630E-06,0.000
-6.620E-06,0.008
-6.610E-06,0.008
-6.600E-06,0.000
-6.590E-06,0.008
-6.580E-06,0.000
-6.570E-06,0.008
-6.560E-06,0.000
-6.550E-06,0.000
-6.540E-06,0.000
-6.530E-06,0.008
-6.520E-06,0.008
-6.510E-06,0.000
-6.500E-06,0.008
-6.490E-06,0.000
-6.480E-06,0.008
-6.470E-06,0.000
-6.460E-06,0.008
-6.450E-06,0.008
-6.440E-06,0.016
-6.430E-06,0.008
-6.420E-06,0.008
-6.410E-06,-0.008
-6.400E-06,0.000
-6.390E-06,0.000
-6.380E-06,0.000
-6.370E-06,0.000
-6.360E-06,0.000
-6.350E-06,0.016
-6.340E-06,-0.008
-6.330E-06,-0.008
-6.320E-06,0.008
-6.310E-06,0.000
-6.300E-06,0.000
-6.290E-06,0.008
-6.280E-06,0.016
-6.270E-06,0.008
-6.260E-06,0.016
-6.250E-06,-0.008
-6.240E-06,0.008
-6.230E-06,0.000
-6.220E-06,0.000
-6.210E-06,0.008
-6.200E-06,-0.008
-6.190E-06,0.000
-6.180E-06,0.000
-6.170E-06,0.000
-6.160E-06,0.000
-6.150E-06,-0.008
-6.140E-06,0.000
-6.130E-06,0.008
-6.120E-06,0.008
-6.110E-06,-0.008
-6.100E-06,0.000
-6.090E-06,0.000
-6.080E-06,0.000
-6.070E-06,0.000
-6.060E-06,0.008
-6.050E-06,0.008
-6.040E-06,0.008
-6.030E-06,0.000
-6.020E-06,0.000
-6.010E-06,0.008
-6.000E-06,0.008
-5.990E-06,0.008
-5.980E-06,0.008
-5.970E-06,0.008
-5.960E-06,0.008
-5.950E-06,0.000
-5.940E-06,0.000
-5.930E-06,0.000
-5.920E-06,0.000
-5.910E-06,0.000
-5.900E-06,0.000
-5.890E-06,-0.008
-5.880E-06,0.008
-5.870E-06,0.000
-5.860E-06,0.000
-5.850E-06,0.000
-5.840E-06,0.008
-5.830E-06,0.008
-5.820E-06,0.000
-5.810E-06,0.008
-5.800E-06,0.008
-5.790E-06,0.016
-5.780E-06,0.008
-5.770E-06,0.016
-5.760E-06,0.000
-5.750E-06,0.000
-5.740E-06,0.000
-5.730E-06,0.008
-5.720E-06,0.000
-5.710E-06,0.000
-5.700E-06,0.008
-5.690E-06,0.000
-5.680E-06,0.000
-5.670E-06,-0.008
-5.660E-06,0.008
-5.650E-06,0.008
-5.640E-06,0.016
-5.630E-06,0.000
-5.620E-06,0.000
-5.610E-06,0.008
-5.600E-06,0.000
-5.590E-06,-0.008
-5.580E-06,0.000
-5.570E-06,0.008
-5.560E-06,0.000
-5.550E-06,0.008
-5.540E-06,0.000
-5.530E-06,0.008
-5.520E-06,0.000
-5.510E-06,0.000
-5.500E-06,0.008
-5.490E-06,0.000
-5.480E-06,0.008
-5.470E-06,0.000
-5.460E-06,0.000
-5.450E-06,0.016
-5.440E-06,0.000
-5.430E-06,0.008
-5.420E-06,0.000
-5.410E-06,0.008
-5.400E-06,0.000
-5.390E-06,0.008
-5.380E-06,-0.008
-5.370E-06,0.000
-5.360E-06,0.000
-5.350E-06,0.008
-5.340E-06,0.008
-5.330E-06,0.000
-5.320E-06,0.008
-5.310E-06,0.000
-5.300E-06,0.008
-5.290E-06,0.008
-5.280E-06,0.008
-5.270E-06,0.000
-5.260E-06,0.000
-5.250E-06,0.000
-5.240E-06,0.000
-5.230E-06,0.008
-5.220E-06,0.008
-5.210E-06,0.008
-5.200E-06,0.000
-5.190E-06,0.000
-5.180E-06,0.000
-5.170E-06,0.000
-5.160E-06,0.008
-5.150E-06,0.008
-5.140E-06,0.008
-5.130E-06,0.008
-5.120E-06,0.008
-5.110E-06,-0.008
-5.100E-06,0.008
-5.090E-06,-0.008
-5.080E-06,0.008
-5.070E-06,0.000
-5.060E-06,0.008
-5.050E-06,0.000
-5.040E-06,0.008
-5.030E-06,0.008
-5.020E-06,0.000
-5.010E-06,0.000
-5.000E-06,0.000
-4.990E-06,0.008
-4.980E-06,0.000
-4.970E-06,0.008
-4.960E-06,0.000
-4.950E-06,0.000
-4.940E-06,0.008
-4.930E-06,0.008
-4.920E-06,0.008
-4.910E-06,0.016
-4.900E-06,0.008
-4.890E-06,0.000
-4.880E-06,0.000
-4.870E-06,0.000
-4.860E-06,-0.008
-4.850E-06,0.000
-4.840E-06,0.008
-4.830E-06,0.000
-4.820E-06,0.000
-4.810E-06,0.008
-4.800E-06,0.000
-4.790E-06,-0.008
-4.780E-06,-0.008
-4.770E-06,0.008
-4.760E-06,0.000
-4.750E-06,0.000
-4.740E-06,0.000
-4.730E-06,-0.008
-4.720E-06,0.000
-4.710E-06,0.008
-4.700E-06,-0.008
-4.690E-06,0.008
-4.680E-06,0.008
-4.670E-06,0.008
-4.660E-06,0.000
-4.650E-06,0.000
-4.640E-06,0.000
-4.630E-06,0.000
-4.620E-06,-0.008
-4.610E-06,-0.008
-4.600E-06,0.008
-4.590E-06,0.016
-4.580E-06,-0.008
-4.570E-06,0.000
-4.560E-06,0.008
-4.550E-06,0.008
-4.540E-06,-0.008
-4.530E-06,0.000
-4.520E-06,0.008
-4.510E-06,0.008
-4.500E-06,0.008
-4.490E-06,0.008
-4.480E-06,0.008
-4.470E-06,0.000
-4.460E-06,0.016
-4.450E-06,0.008
-4.440E-06,0.016
-4.430E-06,0.008
-4.420E-06,0.016
-4.410E-06,0.000
-4.400E-06,0.000
-4.390E-06,0.000
-4.380E-06,0.000
-4.370E-06,0.008
-4.360E-06,0.008
-4.350E-06,0.008
-4.340E-06,0.000
-4.330E-06,0.000
-4.320E-06,-0.008
-4.310E-06,0.008
-4.300E-06,0.008
-4.290E-06,0.008
-4.280E-06,0.000
-4.270E-06,0.000
-4.260E-06,0.000
-4.250E-06,0.008
-4.240E-06,0.000
-4.230E-06,0.000
-4.220E-06,0.008
-4.210E-06,0.000
-4.200E-06,0.008
-4.190E-06,-0.008
-4.180E-06,0.008
-4.170E-06,0.000
-4.160E-06,0.008
-4.150E-06,0.000
-4.140E-06,-0.008
-4.130E-06,0.000
-4.120E-06,0.000
-4.110E-06,0.008
-4.100E-06,0.008
-4.090E-06,0.000
-4.080E-06,0.000
-4.070E-06,0.008
-4.060E-06,0.000
-4.050E-06,0.000
-4.040E-06,0.000
-4.030E-06,0.000
-4.020E-06,0.008
-4.010E-06,0.008
-4.000E-06,0.008
-3.990E-06,0.008
-3.980E-06,0.016
-3.970E-06,-0.008
-3.960E-06,0.000
-3.950E-06,0.008
-3.940E-06,0.000
-3.930E-06,0.008
-3.920E-06,0.008
-3.910E-06,0.008
-3.900E-06,0.008
-3.890E-06,0.016
-3.880E-06,0.016
-3.870E-06,0.008
-3.860E-06,0.000
-3.850E-06,-0.008
-3.840E-06,0.000
-3.830E-06,0.000
-3.820E-06,0.008
-3.810E-06,0.008
-3.800E-06,0.000
-3.790E-06,0.000
-3.780E-06,0.000
-3.770E-06,0.016
-3.760E-06,0.016
-3.750E-06,0.016
-3.740E-06,0.000
-3.730E-06,0.000
-3.720E-06,0.000
-3.710E-06,0.008
-3.700E-06,0.008
-3.690E-06,0.000
-3.680E-06,-0.008
-3.670E-06,0.008
-3.660E-06,-0.008
-3.650E-06,0.008
-3.640E-06,0.000
-3.630E-06,0.000
-3.620E-06,0.008
-3.610E-06,0.000
-3.600E-06,0.008
-3.590E-06,0.000
-3.580E-06,0.000
-3.570E-06,0.008
-3.560E-06,0.008
-3.550E-06,0.008
-3.540E-06,0.000
-3.530E-06,0.000
-3.520E-06,0.008
-3.510E-06,0.000
-3.500E-06,-0.008
-3.490E-06,0.008
-3.480E-06,0.008
-3.470E-06,0.008
-3.460E-06,0.008
-3.450E-06,0.008
-3.440E-06,0.000
-3.430E-06,0.008
-3.420E-06,0.000
-3.410E-06,0.000
-3.400E-06,0.008
-3.390E-06,0.008
-3.380E-06,0.008
-3.370E-06,0.016
-3.360E-06,0.000
-3.350E-06,0.000
-3.340E-06,0.008
-3.330E-06,0.008
-3.320E-06,0.000
-3.310E-06,0.008
-3.300E-06,0.000
-3.290E-06,0.000
-3.280E-06,0.000
-3.270E-06,0.008
-3.260E-06,0.000
-3.250E-06,0.000
-3.240E-06,0.000
-3.230E-06,0.008
-3.220E-06,0.000
-3.210E-06,0.008
-3.200E-06,0.008
-3.190E-06,0.000
-3.180E-06,0.008
-3.170E-06,0.016
-3.160E-06,0.016
-3.150E-06,-0.008
-3.140E-06,0.000
-3.130E-06,0.008
-3.120E-06,0.000
-3.110E-06,0.008
-3.100E-06,0.000
-3.090E-06,0.000
-3.080E-06,0.000
-3.070E-06,0.000
-3.060E-06,0.000
-3.050E-06,0.008
-3.040E-06,0.008
-3.030E-06,-0.008
-3.020E-06,0.000
-3.010E-06,0.000
-3.000E-06,0.000
-2.990E-06,0.008
-2.980E-06,0.008
-2.970E-06,0.008
-2.960E-06,0.000
-2.950E-06,-0.008
-2.940E-06,0.000
-2.930E-06,0.000
-2.920E-06,0.008
-2.910E-06,0.008
-2.900E-06,0.008
-2.890E-06,0.008
-2.880E-06,0.008
-2.870E-06,0.000
-2.860E-06,0.008
-2.850E-06,0.000
-2.840E-06,-0.008
-2.830E-06,0.008
-2.820E-06,0.000
-2.810E-06,0.008
-2.800E-06,0.000
-2.790E-06,0.000
-2.780E-06,0.008
-2.770E-06,0.008
-2.760E-06,0.000
-2.750E-06,0.008
-2.740E-06,-0.008
-2.730E-06,0.000
-2.720E-06,0.000
-2.710E-06,0.000
-2.700E-06,0.000
-2.690E-06,0.008
-2.680E-06,-0.008
-2.670E-06,0.000
-2.660E-06,0.008
-2.650E-06,0.016
-2.640E-06,0.016
-2.630E-06,-0.008
-2.620E-06,0.000
-2.610E-06,0.008
-2.600E-06,0.000
-2.590E-06,0.000
-2.580E-06,0.008
-2.570E-06,-0.008
-2.560E-06,0.008
-2.550E-06,0.008
-2.540E-06,0.008
-2.530E-06,0.000
-2.520E-06,0.008
-2.510E-06,-0.008
-2.500E-06,0.000
-2.490E-06,0.000
-2.480E-06,0.000
-2.470E-06,0.008
-2.460E-06,0.008
-2.450E-06,-0.008
-2.440E-06,0.000
-2.430E-06,0.008
-2.420E-06,0.000
-2.410E-06,0.008
-2.400E-06,-0.008
-2.390E-06,0.008
-2.380E-06,0.008
-2.370E-06,0.000
-2.360E-06,0.000
-2.350E-06,0.008
-2.340E-06,0.000
-2.330E-06,0.000
-2.320E-06,0.000
-2.310E-06,0.016
-2.300E-06,0.000
-2.290E-06,0.008
-2.280E-06,0.016
-2.270E-06,0.048
-2.260E-06,0.088
-2.250E-06,0.128
-2.240E-06,0.120
-2.230E-06,0.064
-2.220E-06,-0.008
-2.210E-06,-0.112
-2.200E-06,-0.184
-2.190E-06,-0.144
-2.180E-06,-0.056
-2.170E-06,0.048
-2.160E-06,0.144
-2.150E-06,0.128
-2.140E-06,0.072
-2.130E-06,-0.016
-2.120E-06,-0.088
-2.110E-06,-0.064
-2.100E-06,-0.008
-2.090E-06,0.072
-2.080E-06,0.120
-2.070E-06,0.096
-2.060E-06,0.008
-2.050E-06,-0.064
-2.040E-06,-0.104
-2.030E-06,-0.088
-2.020E-06,-0.008
-2.010E-06,0.048
-2.000E-06,0.112
-1.990E-06,0.080
-1.980E-06,0.056
-1.970E-06,0.008
-1.960E-06,-0.040
-1.950E-06,-0.048
-1.940E-06,-0.024
-1.930E-06,0.008
-1.920E-06,0.008
-1.910E-06,0.024
-1.900E-06,0.000
-1.890E-06,-0.016
-1.880E-06,-0.040
-1.870E-06,-0.032
-1.860E-06,-0.008
-1.850E-06,0.024
-1.840E-06,0.040
-1.830E-06,0.056
-1.820E-06,0.064
-1.810E-06,0.016
-1.800E-06,-0.008
-1.790E-06,-0.016
-1.780E-06,-0.016
-1.770E-06,-0.016
-1.760E-06,0.000
-1.750E-06,0.008
-1.740E-06,0.008
-1.730E-06,0.008
-1.720E-06,0.008
-1.710E-06,0.000
-1.700E-06,0.016
-1.690E-06,0.024
-1.680E-06,0.032
-1.670E-06,0.040
-1.660E-06,0.040
-1.650E-06,0.024
-1.640E-06,0.000
-1.630E-06,-0.016
-1.620E-06,-0.008
-1.610E-06,-0.016
-1.600E-06,-0.008
-1.590E-06,0.000
-1.580E-06,0.024
-1.570E-06,0.016
-1.560E-06,0.016
-1.550E-06,0.008
-1.540E-06,-0.008
-1.530E-06,-0.008
-1.520E-06,0.000
-1.510E-06,0.016
-1.500E-06,0.024
-1.490E-06,0.016
-1.480E-06,0.008
-1.470E-06,0.000
-1.460E-06,-0.016
-1.450E-06,-0.024
-1.440E-06,-0.016
-1.430E-06,0.000
-1.420E-06,0.016
-1.410E-06,0.024
-1.400E-06,0.024
-1.390E-06,0.008
-1.380E-06,0.008
-1.370E-06,0.000
-1.360E-06,0.008
-1.350E-06,0.016
-1.340E-06,0.008
-1.330E-06,0.016
-1.320E-06,0.032
-1.310E-06,0.032
-1.300E-06,0.024
-1.290E-06,0.016
-1.280E-06,0.024
-1.270E-06,0.024
-1.260E-06,0.024
-1.250E-06,0.032
-1.240E-06,0.008
-1.230E-06,0.008
-1.220E-06,0.016
-1.210E-06,0.016
-1.200E-06,0.032
-1.190E-06,0.064
-1.180E-06,0.056
-1.170E-06,0.064
-1.160E-06,0.040
-1.150E-06,0.024
-1.140E-06,0.032
-1.130E-06,0.048
-1.120E-06,0.056
-1.110E-06,0.008
-1.100E-06,-0.096
-1.090E-06,-0.120
-1.080E-06,-0.152
-1.070E-06,-0.064
-1.060E-06,-0.056
-1.050E-06,0.112
-1.040E-06,0.080
-1.030E-06,-0.008
-1.020E-06,-0.040
-1.010E-06,-0.040
-1.000E-06,0.000
-9.900E-07,-0.008
-9.800E-07,0.008
-9.700E-07,0.008
-9.600E-07,0.024
-9.500E-07,0.024
-9.400E-07,0.000
-9.300E-07,-0.008
-9.200E-07,-0.016
-9.100E-07,0.016
-9.000E-07,0.016
-8.900E-07,0.024
-8.800E-07,0.016
-8.700E-07,0.008
-8.600E-07,0.016
-8.500E-07,0.008
-8.400E-07,-0.008
-8.300E-07,-0.016
-8.200E-07,-0.016
-8.100E-07,0.016
-8.000E-07,0.024
-7.900E-07,0.000
-7.800E-07,0.024
-7.700E-07,0.016
-7.600E-07,0.016
-7.500E-07,0.008
-7.400E-07,0.000
-7.300E-07,0.000
-7.200E-07,0.000
-7.100E-07,0.008
-7.000E-07,0.016
-6.900E-07,0.024
-6.800E-07,0.024
-6.700E-07,0.024
-6.600E-07,0.008
-6.500E-07,-0.024
-6.400E-07,-0.008
-6.300E-07,0.000
-6.200E-07,0.008
-6.100E-07,0.040
-6.000E-07,0.056
-5.900E-07,0.048
-5.800E-07,0.024
-5.700E-07,-0.008
-5.600E-07,-0.016
-5.500E-07,0.000
-5.400E-07,0.016
-5.300E-07,0.056
-5.200E-07,0.048
-5.100E-07,0.048
-5.000E-07,0.032
-4.900E-07,-0.008
-4.800E-07,-0.008
-4.700E-07,-0.024
-4.600E-07,0.008
-4.500E-07,0.032
-4.400E-07,0.080
-4.300E-07,0.120
-4.200E-07,0.112
-4.100E-07,0.072
-4.000E-07,0.016
-3.900E-07,-0.008
-3.800E-07,-0.008
-3.700E-07,-0.016
-3.600E-07,0.000
-3.500E-07,0.016
-3.400E-07,0.048
-3.300E-07,0.056
-3.200E-07,0.056
-3.100E-07,0.032
-3.000E-07,-0.008
-2.900E-07,-0.056
-2.800E-07,-0.016
-2.700E-07,0.008
-2.600E-07,0.072
-2.500E-07,0.144
-2.400E-07,0.176
-2.300E-07,0.184
-2.200E-07,0.200
-2.100E-07,0.184
-2.000E-07,0.160
-1.900E-07,0.160
-1.800E-07,0.176
-1.700E-07,0.208
-1.600E-07,0.184
-1.500E-07,0.232
-1.400E-07,0.208
-1.300E-07,0.224
-1.200E-07,0.264
-1.100E-07,0.248
-1.000E-07,0.152
-9.000E-08,0.160
-8.000E-08,0.192
-7.000E-08,0.176
-6.000E-08,-0.304
-5.000E-08,-0.400
-4.000E-08,-0.896
-3.000E-08,-0.808
-2.000E-08,-0.664
-1.000E-08,0.128
0.000E+00,0.840
1.000E-08,0.992
2.000E-08,0.856
3.000E-08,0.192
4.000E-08,-0.656
5.000E-08,-1.016
6.000E-08,-1.024
7.000E-08,-0.720
8.000E-08,0.376
9.000E-08,0.864
1.000E-07,0.848
1.100E-07,0.120
1.200E-07,-0.496
1.300E-07,-0.832
1.400E-07,-1.024
1.500E-07,-0.544
1.600E-07,0.136
1.700E-07,0.840
1.800E-07,1.008
1.900E-07,0.512
2.000E-07,-0.200
2.100E-07,-0.784
2.200E-07,-0.752
2.300E-07,-0.384
2.400E-07,0.144
2.500E-07,0.528
2.600E-07,0.648
2.700E-07,0.472
2.800E-07,0.072
2.900E-07,-0.336
3.000E-07,-0.520
3.100E-07,-0.376
3.200E-07,-0.016
3.300E-07,0.360
3.400E-07,0.488
3.500E-07,0.384
3.600E-07,0.136
3.700E-07,-0.152
3.800E-07,-0.328
3.900E-07,-0.320
4.000E-07,-0.112
4.100E-07,0.160
4.200E-07,0.336
4.300E-07,0.328
4.400E-07,0.176
4.500E-07,-0.064
4.600E-07,-0.240
4.700E-07,-0.280
4.800E-07,-0.152
4.900E-07,0.072
5.000E-07,0.264
5.100E-07,0.320
5.200E-07,0.240
5.300E-07,0.072
5.400E-07,-0.096
5.500E-07,-0.168
5.600E-07,-0.104
5.700E-07,0.048
5.800E-07,0.248
5.900E-07,0.368
6.000E-07,0.400
6.100E-07,0.320
6.200E-07,0.128
6.300E-07,-0.144
6.400E-07,-0.416
6.500E-07,-0.360
6.600E-07,-0.112
6.700E-07,0.088
6.800E-07,-0.016
6.900E-07,0.200
7.000E-07,0.144
7.100E-07,-0.184
7.200E-07,-0.416
7.300E-07,-0.400
7.400E-07,-0.232
7.500E-07,0.016
7.600E-07,0.192
7.700E-07,0.272
7.800E-07,0.208
7.900E-07,0.056
8.000E-07,-0.104
8.100E-07,-0.208
8.200E-07,-0.200
8.300E-07,-0.008
8.400E-07,0.168
8.500E-07,0.352
8.600E-07,0.328
8.700E-07,0.168
8.800E-07,-0.072
8.900E-07,-0.184
9.000E-07,-0.240
9.100E-07,-0.064
9.200E-07,0.096
9.300E-07,0.256
9.400E-07,0.280
9.500E-07,0.304
9.600E-07,0.184
9.700E-07,-0.080
9.800E-07,-0.168
9.900E-07,-0.192
1.000E-06,-0.104
1.010E-06,-0.056
1.020E-06,0.120
1.030E-06,0.264
1.040E-06,0.256
1.050E-06,0.048
1.060E-06,-0.136
1.070E-06,-0.336
1.080E-06,-0.152
1.090E-06,0.096
1.100E-06,0.240
1.110E-06,0.184
1.120E-06,0.120
1.130E-06,0.008
1.140E-06,-0.112
1.150E-06,-0.144
1.160E-06,-0.176
1.170E-06,-0.096
1.180E-06,0.064
1.190E-06,0.160
1.200E-06,0.144
1.210E-06,0.008
1.220E-06,-0.096
1.230E-06,-0.184
1.240E-06,-0.144
1.250E-06,-0.024
1.260E-06,0.056
1.270E-06,0.128
1.280E-06,0.144
1.290E-06,0.176
1.300E-06,0.064
1.310E-06,0.080
1.320E-06,0.000
1.330E-06,0.056
1.340E-06,0.144
1.350E-06,0.192
1.360E-06,0.296
1.370E-06,0.312
1.380E-06,0.280
1.390E-06,0.152
1.400E-06,0.160
1.410E-06,0.120
1.420E-06,0.192
1.430E-06,0.248
1.440E-06,0.272
1.450E-06,0.336
1.460E-06,0.304
1.470E-06,0.288
1.480E-06,0.248
1.490E-06,0.208
1.500E-06,0.216
1.510E-06,0.264
1.520E-06,0.280
1.530E-06,0.280
1.540E-06,0.288
1.550E-06,0.248
1.560E-06,0.240
1.570E-06,-0.256
1.580E-06,-0.824
1.590E-06,-1.024
1.600E-06,-1.024
1.610E-06,-0.704
1.620E-06,-0.336
1.630E-06,1.080
1.640E-06,1.080
1.650E-06,1.080
1.660E-06,0.752
1.670E-06,-0.752
1.680E-06,-0.928
1.690E-06,-0.832
1.700E-06,-0.344
1.710E-06,0.696
1.720E-06,1.088
1.730E-06,1.080
1.740E-06,0.520
1.750E-06,-0.328
1.760E-06,-0.824
1.770E-06,-0.832
1.780E-06,-0.344
1.790E-06,0.176
1.800E-06,0.832
1.810E-06,0.944
1.820E-06,0.568
1.830E-06,-0.032
1.840E-06,-0.856
1.850E-06,-1.016
1.860E-06,-0.720
1.870E-06,-0.192
1.880E-06,0.344
1.890E-06,0.672
1.900E-06,0.488
1.910E-06,0.144
1.920E-06,-0.320
1.930E-06,-0.464
1.940E-06,-0.400
1.950E-06,0.080
1.960E-06,0.392
1.970E-06,0.592
1.980E-06,0.688
1.990E-06,0.320
2.000E-06,0.120
2.010E-06,0.008
2.020E-06,0.072
2.030E-06,0.184
2.040E-06,0.408
2.050E-06,0.488
2.060E-06,0.496
2.070E-06,0.384
2.080E-06,0.176
2.090E-06,0.080
2.100E-06,0.088
2.110E-06,0.184
2.120E-06,0.304
2.130E-06,0.448
2.140E-06,0.464
2.150E-06,0.416
2.160E-06,0.328
2.170E-06,0.248
2.180E-06,0.192
2.190E-06,0.240
2.200E-06,0.312
2.210E-06,0.384
2.220E-06,0.432
2.230E-06,0.400
2.240E-06,0.352
2.250E-06,0.264
2.260E-06,0.248
2.270E-06,0.224
2.280E-06,0.264
2.290E-06,0.328
2.300E-06,0.384
2.310E-06,0.384
2.320E-06,0.352
2.330E-06,0.304
2.340E-06,0.256
2.350E-06,0.248
2.360E-06,0.256
2.370E-06,0.304
2.380E-06,0.336
2.390E-06,0.368
2.400E-06,0.360
2.410E-06,0.336
2.420E-06,0.296
2.430E-06,0.264
2.440E-06,0.272
2.450E-06,0.280
2.460E-06,0.328
2.470E-06,0.344
2.480E-06,0.336
2.490E-06,0.320
2.500E-06,0.312
2.510E-06,0.280
2.520E-06,0.280
2.530E-06,0.296
2.540E-06,0.320
2.550E-06,0.336
2.560E-06,0.352
2.570E-06,0.336
2.580E-06,0.312
2.590E-06,0.304
2.600E-06,0.288
2.610E-06,0.288
2.620E-06,0.304
2.630E-06,0.312
2.640E-06,0.328
2.650E-06,0.328
2.660E-06,0.312
2.670E-06,0.312
2.680E-06,0.288
2.690E-06,0.288
2.700E-06,0.296
2.710E-06,0.320
2.720E-06,0.320
2.730E-06,0.312
2.740E-06,0.304
2.750E-06,0.312
2.760E-06,0.296
2.770E-06,0.304
2.780E-06,0.296
2.790E-06,0.312
2.800E-06,0.304
2.810E-06,0.312
2.820E-06,0.312
2.830E-06,0.320
2.840E-06,0.296
2.850E-06,0.288
2.860E-06,0.296
2.870E-06,0.312
2.880E-06,0.296
2.890E-06,0.304
2.900E-06,0.304
2.910E-06,0.304
2.920E-06,0.288
2.930E-06,0.288
2.940E-06,0.288
2.950E-06,0.296
2.960E-06,0.312
2.970E-06,0.320
2.980E-06,0.320
2.990E-06,0.320
3.000E-06,0.296
3.010E-06,0.288
3.020E-06,0.288
3.030E-06,0.296
3.040E-06,0.296
3.050E-06,0.304
3.060E-06,0.304
3.070E-06,0.296
3.080E-06,0.288
3.090E-06,0.288
3.100E-06,0.272
3.110E-06,0.272
3.120E-06,0.288
3.130E-06,0.288
3.140E-06,0.304
3.150E-06,0.304
3.160E-06,0.288
3.170E-06,0.288
3.180E-06,0.288
3.190E-06,0.288
3.200E-06,0.272
3.210E-06,0.288
3.220E-06,0.296
3.230E-06,0.296
3.240E-06,0.296
3.250E-06,0.288
3.260E-06,0.280
3.270E-06,0.272
3.280E-06,0.272
3.290E-06,0.288
3.300E-06,0.280
3.310E-06,0.288
3.320E-06,0.288
3.330E-06,0.280
3.340E-06,0.280
3.350E-06,0.272
3.360E-06,0.272
3.370E-06,0.280
3.380E-06,0.280
3.390E-06,0.280
3.400E-06,0.280
3.410E-06,0.280
3.420E-06,0.256
3.430E-06,0.256
3.440E-06,0.264
3.450E-06,0.280
3.460E-06,0.280
3.470E-06,0.280
3.480E-06,0.288
3.490E-06,0.272
3.500E-06,0.264
3.510E-06,0.264
3.520E-06,0.264
3.530E-06,0.264
3.540E-06,0.264
3.550E-06,0.272
3.560E-06,0.272
3.570E-06,0.264
3.580E-06,0.256
3.590E-06,0.256
3.600E-06,0.256
3.610E-06,0.264
3.620E-06,0.256
3.630E-06,0.264
3.640E-06,0.264
3.650E-06,0.264
3.660E-06,0.256
