mediciones/4-8/medicion_ch2.csv

#timebase=4000000(ps)
,#voltbase=20000(mv/100)
#size=4000
-1.980E-05,0.001
-1.978E-05,0.002
-1.976E-05,0.002
-1.974E-05,0.002
-1.972E-05,0.002
-1.970E-05,0.002
-1.968E-05,0.002
-1.966E-05,0.003
-1.964E-05,0.001
-1.962E-05,0.002
-1.960E-05,0.002
-1.958E-05,0.002
-1.956E-05,0.000
-1.954E-05,0.002
-1.952E-05,0.002
-1.950E-05,0.002
-1.948E-05,0.000
-1.946E-05,0.002
-1.944E-05,0.001
-1.942E-05,0.002
-1.940E-05,0.002
-1.938E-05,0.003
-1.936E-05,0.001
-1.934E-05,0.002
-1.932E-05,0.002
-1.930E-05,0.000
-1.928E-05,0.001
-1.926E-05,0.001
-1.924E-05,0.001
-1.922E-05,0.002
-1.920E-05,0.002
-1.918E-05,0.001
-1.916E-05,0.002
-1.914E-05,0.002
-1.912E-05,0.001
-1.910E-05,0.002
-1.908E-05,0.002
-1.906E-05,0.001
-1.904E-05,0.002
-1.902E-05,0.002
-1.900E-05,0.002
-1.898E-05,0.002
-1.896E-05,0.002
-1.894E-05,0.002
-1.892E-05,0.002
-1.890E-05,0.001
-1.888E-05,0.001
-1.886E-05,0.000
-1.884E-05,0.001
-1.882E-05,0.002
-1.880E-05,-0.001
-1.878E-05,-0.001
-1.876E-05,0.002
-1.874E-05,0.000
-1.872E-05,0.002
-1.870E-05,0.001
-1.868E-05,0.002
-1.866E-05,0.002
-1.864E-05,0.001
-1.862E-05,0.002
-1.860E-05,-0.001
-1.858E-05,0.002
-1.856E-05,0.002
-1.854E-05,0.002
-1.852E-05,0.000
-1.850E-05,0.002
-1.848E-05,0.001
-1.846E-05,0.002
-1.844E-05,0.001
-1.842E-05,0.001
-1.840E-05,-0.001
-1.838E-05,0.002
-1.836E-05,0.001
-1.834E-05,0.002
-1.832E-05,0.002
-1.830E-05,0.002
-1.828E-05,0.001
-1.826E-05,0.002
-1.824E-05,0.000
-1.822E-05,0.002
-1.820E-05,0.002
-1.818E-05,0.002
-1.816E-05,0.002
-1.814E-05,0.001
-1.812E-05,0.001
-1.810E-05,0.001
-1.808E-05,0.002
-1.806E-05,0.002
-1.804E-05,-0.001
-1.802E-05,0.002
-1.800E-05,0.000
-1.798E-05,0.002
-1.796E-05,-0.001
-1.794E-05,0.002
-1.792E-05,0.002
-1.790E-05,0.002
-1.788E-05,0.001
-1.786E-05,0.002
-1.784E-05,0.001
-1.782E-05,0.001
-1.780E-05,0.001
-1.778E-05,0.001
-1.776E-05,0.001
-1.774E-05,0.002
-1.772E-05,0.001
-1.770E-05,0.002
-1.768E-05,0.002
-1.766E-05,0.002
-1.764E-05,0.001
-1.762E-05,0.002
-1.760E-05,0.001
-1.758E-05,0.001
-1.756E-05,0.002
-1.754E-05,0.002
-1.752E-05,0.000
-1.750E-05,0.002
-1.748E-05,0.002
-1.746E-05,0.002
-1.744E-05,0.001
-1.742E-05,0.002
-1.740E-05,0.002
-1.738E-05,0.002
-1.736E-05,0.002
-1.734E-05,0.000
-1.732E-05,0.002
-1.730E-05,0.001
-1.728E-05,0.001
-1.726E-05,0.002
-1.724E-05,0.002
-1.722E-05,0.001
-1.720E-05,0.000
-1.718E-05,0.002
-1.716E-05,0.001
-1.714E-05,0.002
-1.712E-05,0.001
-1.710E-05,0.002
-1.708E-05,0.002
-1.706E-05,0.002
-1.704E-05,0.000
-1.702E-05,0.000
-1.700E-05,0.001
-1.698E-05,0.002
-1.696E-05,0.000
-1.694E-05,0.000
-1.692E-05,0.001
-1.690E-05,0.001
-1.688E-05,0.002
-1.686E-05,0.002
-1.684E-05,0.001
-1.682E-05,0.001
-1.680E-05,0.002
-1.678E-05,0.002
-1.676E-05,0.002
-1.674E-05,0.002
-1.672E-05,0.001
-1.670E-05,0.000
-1.668E-05,0.001
-1.666E-05,0.002
-1.664E-05,0.000
-1.662E-05,0.002
-1.660E-05,0.002
-1.658E-05,0.002
-1.656E-05,0.000
-1.654E-05,0.001
-1.652E-05,0.002
-1.650E-05,0.001
-1.648E-05,0.001
-1.646E-05,0.001
-1.644E-05,0.002
-1.642E-05,0.002
-1.640E-05,0.001
-1.638E-05,0.002
-1.636E-05,0.002
-1.634E-05,0.002
-1.632E-05,0.002
-1.630E-05,0.002
-1.628E-05,0.001
-1.626E-05,0.002
-1.624E-05,0.001
-1.622E-05,0.001
-1.620E-05,0.002
-1.618E-05,0.001
-1.616E-05,0.001
-1.614E-05,0.002
-1.612E-05,0.001
-1.610E-05,0.002
-1.608E-05,0.000
-1.606E-05,0.001
-1.604E-05,0.000
-1.602E-05,0.002
-1.600E-05,0.002
-1.598E-05,0.002
-1.596E-05,0.002
-1.594E-05,-0.001
-1.592E-05,0.001
-1.590E-05,0.001
-1.588E-05,0.002
-1.586E-05,0.001
-1.584E-05,0.000
-1.582E-05,0.002
-1.580E-05,0.000
-1.578E-05,0.002
-1.576E-05,0.001
-1.574E-05,0.002
-1.572E-05,0.001
-1.570E-05,0.002
-1.568E-05,0.001
-1.566E-05,0.002
-1.564E-05,0.002
-1.562E-05,0.002
-1.560E-05,0.001
-1.558E-05,0.001
-1.556E-05,0.001
-1.554E-05,0.002
-1.552E-05,0.002
-1.550E-05,0.002
-1.548E-05,0.001
-1.546E-05,0.002
-1.544E-05,0.001
-1.542E-05,0.001
-1.540E-05,0.001
-1.538E-05,0.002
-1.536E-05,0.002
-1.534E-05,0.002
-1.532E-05,0.002
-1.530E-05,0.002
-1.528E-05,0.002
-1.526E-05,0.002
-1.524E-05,-0.001
-1.522E-05,0.001
-1.520E-05,0.001
-1.518E-05,0.001
-1.516E-05,0.002
-1.514E-05,-0.001
-1.512E-05,0.000
-1.510E-05,0.002
-1.508E-05,0.002
-1.506E-05,0.002
-1.504E-05,0.002
-1.502E-05,0.000
-1.500E-05,0.001
-1.498E-05,0.001
-1.496E-05,0.002
-1.494E-05,0.002
-1.492E-05,0.002
-1.490E-05,0.001
-1.488E-05,0.001
-1.486E-05,0.000
-1.484E-05,0.000
-1.482E-05,0.000
-1.480E-05,0.001
-1.478E-05,0.002
-1.476E-05,0.001
-1.474E-05,0.002
-1.472E-05,0.001
-1.470E-05,0.002
-1.468E-05,0.000
-1.466E-05,0.002
-1.464E-05,0.001
-1.462E-05,0.002
-1.460E-05,0.001
-1.458E-05,0.002
-1.456E-05,0.001
-1.454E-05,0.002
-1.452E-05,0.002
-1.450E-05,0.000
-1.448E-05,0.002
-1.446E-05,0.002
-1.444E-05,0.002
-1.442E-05,0.002
-1.440E-05,0.001
-1.438E-05,0.002
-1.436E-05,0.002
-1.434E-05,0.002
-1.432E-05,0.000
-1.430E-05,0.002
-1.428E-05,0.001
-1.426E-05,0.002
-1.424E-05,0.001
-1.422E-05,0.002
-1.420E-05,0.001
-1.418E-05,0.001
-1.416E-05,0.001
-1.414E-05,0.002
-1.412E-05,0.001
-1.410E-05,0.002
-1.408E-05,0.002
-1.406E-05,0.002
-1.404E-05,0.002
-1.402E-05,0.002
-1.400E-05,0.002
-1.398E-05,0.001
-1.396E-05,0.000
-1.394E-05,0.001
-1.392E-05,0.002
-1.390E-05,0.001
-1.388E-05,0.002
-1.386E-05,0.001
-1.384E-05,0.002
-1.382E-05,0.002
-1.380E-05,-0.001
-1.378E-05,0.002
-1.376E-05,0.001
-1.374E-05,0.000
-1.372E-05,0.002
-1.370E-05,0.003
-1.368E-05,0.002
-1.366E-05,0.001
-1.364E-05,0.001
-1.362E-05,0.002
-1.360E-05,0.002
-1.358E-05,0.001
-1.356E-05,0.002
-1.354E-05,0.000
-1.352E-05,0.001
-1.350E-05,0.002
-1.348E-05,0.000
-1.346E-05,0.001
-1.344E-05,0.001
-1.342E-05,0.001
-1.340E-05,0.002
-1.338E-05,0.002
-1.336E-05,0.003
-1.334E-05,0.001
-1.332E-05,0.001
-1.330E-05,0.001
-1.328E-05,0.000
-1.326E-05,0.001
-1.324E-05,0.001
-1.322E-05,0.002
-1.320E-05,0.001
-1.318E-05,0.002
-1.316E-05,0.002
-1.314E-05,0.002
-1.312E-05,0.001
-1.310E-05,0.001
-1.308E-05,0.002
-1.306E-05,0.001
-1.304E-05,0.002
-1.302E-05,0.001
-1.300E-05,0.002
-1.298E-05,-0.001
-1.296E-05,0.002
-1.294E-05,0.001
-1.292E-05,0.002
-1.290E-05,0.000
-1.288E-05,0.001
-1.286E-05,0.002
-1.284E-05,0.001
-1.282E-05,0.001
-1.280E-05,0.002
-1.278E-05,0.001
-1.276E-05,0.002
-1.274E-05,0.002
-1.272E-05,0.001
-1.270E-05,0.001
-1.268E-05,0.002
-1.266E-05,0.002
-1.264E-05,0.002
-1.262E-05,0.000
-1.260E-05,0.002
-1.258E-05,0.002
-1.256E-05,0.000
-1.254E-05,0.000
-1.252E-05,0.002
-1.250E-05,-0.001
-1.248E-05,0.002
-1.246E-05,0.001
-1.244E-05,0.002
-1.242E-05,0.002
-1.240E-05,0.002
-1.238E-05,0.000
-1.236E-05,0.001
-1.234E-05,0.002
-1.232E-05,0.001
-1.230E-05,0.000
-1.228E-05,0.001
-1.226E-05,0.002
-1.224E-05,0.002
-1.222E-05,0.001
-1.220E-05,0.002
-1.218E-05,0.001
-1.216E-05,0.002
-1.214E-05,0.002
-1.212E-05,0.002
-1.210E-05,0.001
-1.208E-05,0.001
-1.206E-05,0.002
-1.204E-05,0.001
-1.202E-05,0.001
-1.200E-05,0.001
-1.198E-05,0.002
-1.196E-05,0.001
-1.194E-05,0.002
-1.192E-05,0.002
-1.190E-05,0.001
-1.188E-05,0.002
-1.186E-05,0.002
-1.184E-05,0.002
-1.182E-05,0.001
-1.180E-05,0.001
-1.178E-05,0.002
-1.176E-05,0.002
-1.174E-05,0.000
-1.172E-05,0.002
-1.170E-05,0.000
-1.168E-05,0.000
-1.166E-05,0.002
-1.164E-05,0.002
-1.162E-05,0.002
-1.160E-05,0.001
-1.158E-05,0.002
-1.156E-05,0.001
-1.154E-05,0.002
-1.152E-05,0.002
-1.150E-05,0.002
-1.148E-05,0.001
-1.146E-05,0.002
-1.144E-05,0.000
-1.142E-05,0.001
-1.140E-05,0.001
-1.138E-05,0.001
-1.136E-05,0.001
-1.134E-05,0.001
-1.132E-05,0.002
-1.130E-05,0.002
-1.128E-05,0.002
-1.126E-05,0.000
-1.124E-05,0.003
-1.122E-05,0.002
-1.120E-05,0.002
-1.118E-05,0.001
-1.116E-05,0.001
-1.114E-05,0.001
-1.112E-05,0.001
-1.110E-05,0.002
-1.108E-05,0.003
-1.106E-05,0.003
-1.104E-05,0.002
-1.102E-05,0.002
-1.100E-05,0.001
-1.098E-05,0.000
-1.096E-05,0.004
-1.094E-05,0.002
-1.092E-05,0.002
-1.090E-05,0.002
-1.088E-05,0.002
-1.086E-05,0.001
-1.084E-05,0.002
-1.082E-05,0.000
-1.080E-05,0.001
-1.078E-05,0.001
-1.076E-05,0.001
-1.074E-05,0.002
-1.072E-05,0.003
-1.070E-05,0.000
-1.068E-05,0.001
-1.066E-05,0.002
-1.064E-05,0.002
-1.062E-05,0.001
-1.060E-05,0.001
-1.058E-05,0.002
-1.056E-05,0.002
-1.054E-05,0.001
-1.052E-05,0.002
-1.050E-05,0.001
-1.048E-05,0.002
-1.046E-05,0.001
-1.044E-05,0.002
-1.042E-05,0.001
-1.040E-05,0.002
-1.038E-05,0.001
-1.036E-05,0.002
-1.034E-05,0.000
-1.032E-05,0.002
-1.030E-05,0.000
-1.028E-05,0.001
-1.026E-05,0.004
-1.024E-05,0.002
-1.022E-05,0.003
-1.020E-05,0.002
-1.018E-05,0.002
-1.016E-05,0.002
-1.014E-05,0.002
-1.012E-05,0.001
-1.010E-05,0.001
-1.008E-05,0.002
-1.006E-05,0.001
-1.004E-05,0.002
-1.002E-05,0.000
-1.000E-05,0.002
-9.980E-06,0.002
-9.960E-06,0.002
-9.940E-06,0.000
-9.920E-06,0.001
-9.900E-06,0.001
-9.880E-06,0.002
-9.860E-06,0.002
-9.840E-06,0.002
-9.820E-06,0.002
-9.800E-06,0.001
-9.780E-06,0.002
-9.760E-06,0.002
-9.740E-06,0.001
-9.720E-06,0.002
-9.700E-06,0.001
-9.680E-06,0.002
-9.660E-06,0.001
-9.640E-06,0.002
-9.620E-06,0.002
-9.600E-06,0.002
-9.580E-06,0.002
-9.560E-06,0.003
-9.540E-06,-0.001
-9.520E-06,0.002
-9.500E-06,0.000
-9.480E-06,0.002
-9.460E-06,0.002
-9.440E-06,0.001
-9.420E-06,0.002
-9.400E-06,0.002
-9.380E-06,0.002
-9.360E-06,0.001
-9.340E-06,0.002
-9.320E-06,0.002
-9.300E-06,0.002
-9.280E-06,0.001
-9.260E-06,0.001
-9.240E-06,0.001
-9.220E-06,0.002
-9.200E-06,0.002
-9.180E-06,0.002
-9.160E-06,0.002
-9.140E-06,0.001
-9.120E-06,0.002
-9.100E-06,0.001
-9.080E-06,0.002
-9.060E-06,0.002
-9.040E-06,0.002
-9.020E-06,0.001
-9.000E-06,0.001
-8.980E-06,0.002
-8.960E-06,0.001
-8.940E-06,0.002
-8.920E-06,0.002
-8.900E-06,0.002
-8.880E-06,0.002
-8.860E-06,0.004
-8.840E-06,0.000
-8.820E-06,0.002
-8.800E-06,0.002
-8.780E-06,0.000
-8.760E-06,0.000
-8.740E-06,0.002
-8.720E-06,0.002
-8.700E-06,0.001
-8.680E-06,0.002
-8.660E-06,0.001
-8.640E-06,0.002
-8.620E-06,0.001
-8.600E-06,0.002
-8.580E-06,0.000
-8.560E-06,0.002
-8.540E-06,0.001
-8.520E-06,0.002
-8.500E-06,0.002
-8.480E-06,0.003
-8.460E-06,0.002
-8.440E-06,0.002
-8.420E-06,0.002
-8.400E-06,0.002
-8.380E-06,0.002
-8.360E-06,0.001
-8.340E-06,0.002
-8.320E-06,0.002
-8.300E-06,0.001
-8.280E-06,0.002
-8.260E-06,0.001
-8.240E-06,0.002
-8.220E-06,0.002
-8.200E-06,0.001
-8.180E-06,0.002
-8.160E-06,0.001
-8.140E-06,0.000
-8.120E-06,0.003
-8.100E-06,0.000
-8.080E-06,0.001
-8.060E-06,0.001
-8.040E-06,0.001
-8.020E-06,0.001
-8.000E-06,0.002
-7.980E-06,0.002
-7.960E-06,0.000
-7.940E-06,0.000
-7.920E-06,0.002
-7.900E-06,0.002
-7.880E-06,0.002
-7.860E-06,0.001
-7.840E-06,0.001
-7.820E-06,0.002
-7.800E-06,0.001
-7.780E-06,0.002
-7.760E-06,0.002
-7.740E-06,0.002
-7.720E-06,0.002
-7.700E-06,0.001
-7.680E-06,0.002
-7.660E-06,0.002
-7.640E-06,0.002
-7.620E-06,0.001
-7.600E-06,0.001
-7.580E-06,0.002
-7.560E-06,0.002
-7.540E-06,0.001
-7.520E-06,0.001
-7.500E-06,0.001
-7.480E-06,0.001
-7.460E-06,0.002
-7.440E-06,0.002
-7.420E-06,0.002
-7.400E-06,0.002
-7.380E-06,0.002
-7.360E-06,0.002
-7.340E-06,0.002
-7.320E-06,0.002
-7.300E-06,0.001
-7.280E-06,0.002
-7.260E-06,0.001
-7.240E-06,0.002
-7.220E-06,0.001
-7.200E-06,0.002
-7.180E-06,0.002
-7.160E-06,0.002
-7.140E-06,0.001
-7.120E-06,0.001
-7.100E-06,0.002
-7.080E-06,0.000
-7.060E-06,0.002
-7.040E-06,0.002
-7.020E-06,0.001
-7.000E-06,0.002
-6.980E-06,0.002
-6.960E-06,0.002
-6.940E-06,0.001
-6.920E-06,0.000
-6.900E-06,0.002
-6.880E-06,0.002
-6.860E-06,0.002
-6.840E-06,0.002
-6.820E-06,0.001
-6.800E-06,0.001
-6.780E-06,0.001
-6.760E-06,0.002
-6.740E-06,0.002
-6.720E-06,0.002
-6.700E-06,0.000
-6.680E-06,0.002
-6.660E-06,0.001
-6.640E-06,0.002
-6.620E-06,0.001
-6.600E-06,0.002
-6.580E-06,0.002
-6.560E-06,0.002
-6.540E-06,0.000
-6.520E-06,0.001
-6.500E-06,0.002
-6.480E-06,0.002
-6.460E-06,0.001
-6.440E-06,0.002
-6.420E-06,0.002
-6.400E-06,0.002
-6.380E-06,0.002
-6.360E-06,0.002
-6.340E-06,0.002
-6.320E-06,0.000
-6.300E-06,0.001
-6.280E-06,0.002
-6.260E-06,0.002
-6.240E-06,0.002
-6.220E-06,0.000
-6.200E-06,0.001
-6.180E-06,0.002
-6.160E-06,0.001
-6.140E-06,0.001
-6.120E-06,0.001
-6.100E-06,0.002
-6.080E-06,0.002
-6.060E-06,0.001
-6.040E-06,0.002
-6.020E-06,0.002
-6.000E-06,0.002
-5.980E-06,0.002
-5.960E-06,0.000
-5.940E-06,0.001
-5.920E-06,0.002
-5.900E-06,0.001
-5.880E-06,0.001
-5.860E-06,0.002
-5.840E-06,0.002
-5.820E-06,0.002
-5.800E-06,0.002
-5.780E-06,0.002
-5.760E-06,0.002
-5.740E-06,0.001
-5.720E-06,0.002
-5.700E-06,0.001
-5.680E-06,0.002
-5.660E-06,0.000
-5.640E-06,0.002
-5.620E-06,0.002
-5.600E-06,0.002
-5.580E-06,0.002
-5.560E-06,0.002
-5.540E-06,0.001
-5.520E-06,0.002
-5.500E-06,0.002
-5.480E-06,0.001
-5.460E-06,0.002
-5.440E-06,0.002
-5.420E-06,0.002
-5.400E-06,0.001
-5.380E-06,0.000
-5.360E-06,0.002
-5.340E-06,0.000
-5.320E-06,0.002
-5.300E-06,0.001
-5.280E-06,0.002
-5.260E-06,0.001
-5.240E-06,0.001
-5.220E-06,0.002
-5.200E-06,0.001
-5.180E-06,0.002
-5.160E-06,0.002
-5.140E-06,0.002
-5.120E-06,0.002
-5.100E-06,0.002
-5.080E-06,0.002
-5.060E-06,0.002
-5.040E-06,0.002
-5.020E-06,0.002
-5.000E-06,0.001
-4.980E-06,0.001
-4.960E-06,0.002
-4.940E-06,0.002
-4.920E-06,0.001
-4.900E-06,0.002
-4.880E-06,0.002
-4.860E-06,0.002
-4.840E-06,0.000
-4.820E-06,0.001
-4.800E-06,0.002
-4.780E-06,0.002
-4.760E-06,0.002
-4.740E-06,0.002
-4.720E-06,0.002
-4.700E-06,0.002
-4.680E-06,0.001
-4.660E-06,0.002
-4.640E-06,0.002
-4.620E-06,0.001
-4.600E-06,0.004
-4.580E-06,0.001
-4.560E-06,0.002
-4.540E-06,0.002
-4.520E-06,0.002
-4.500E-06,0.002
-4.480E-06,0.002
-4.460E-06,0.002
-4.440E-06,0.002
-4.420E-06,0.001
-4.400E-06,0.002
-4.380E-06,0.002
-4.360E-06,0.002
-4.340E-06,0.001
-4.320E-06,0.001
-4.300E-06,-0.001
-4.280E-06,0.002
-4.260E-06,0.002
-4.240E-06,0.002
-4.220E-06,0.000
-4.200E-06,0.001
-4.180E-06,0.002
-4.160E-06,0.002
-4.140E-06,0.002
-4.120E-06,0.002
-4.100E-06,0.002
-4.080E-06,0.001
-4.060E-06,0.001
-4.040E-06,0.002
-4.020E-06,0.000
-4.000E-06,0.002
-3.980E-06,0.002
-3.960E-06,0.002
-3.940E-06,0.000
-3.920E-06,0.001
-3.900E-06,0.004
-3.880E-06,0.000
-3.860E-06,0.002
-3.840E-06,0.000
-3.820E-06,0.001
-3.800E-06,0.002
-3.780E-06,0.002
-3.760E-06,0.002
-3.740E-06,0.002
-3.720E-06,0.002
-3.700E-06,0.000
-3.680E-06,0.002
-3.660E-06,0.001
-3.640E-06,0.002
-3.620E-06,0.002
-3.600E-06,0.002
-3.580E-06,0.002
-3.560E-06,0.000
-3.540E-06,0.001
-3.520E-06,0.002
-3.500E-06,0.001
-3.480E-06,0.000
-3.460E-06,0.001
-3.440E-06,0.002
-3.420E-06,0.000
-3.400E-06,0.000
-3.380E-06,0.002
-3.360E-06,0.002
-3.340E-06,0.001
-3.320E-06,0.002
-3.300E-06,0.001
-3.280E-06,0.002
-3.260E-06,0.002
-3.240E-06,0.002
-3.220E-06,0.000
-3.200E-06,0.002
-3.180E-06,0.000
-3.160E-06,0.004
-3.140E-06,0.001
-3.120E-06,0.002
-3.100E-06,0.001
-3.080E-06,0.001
-3.060E-06,0.001
-3.040E-06,0.001
-3.020E-06,0.001
-3.000E-06,0.002
-2.980E-06,0.002
-2.960E-06,0.002
-2.940E-06,0.000
-2.920E-06,0.002
-2.900E-06,0.002
-2.880E-06,0.002
-2.860E-06,0.002
-2.840E-06,0.001
-2.820E-06,0.001
-2.800E-06,0.001
-2.780E-06,0.000
-2.760E-06,0.001
-2.740E-06,0.002
-2.720E-06,0.001
-2.700E-06,0.002
-2.680E-06,0.002
-2.660E-06,0.002
-2.640E-06,0.002
-2.620E-06,0.002
-2.600E-06,0.002
-2.580E-06,0.002
-2.560E-06,0.002
-2.540E-06,0.001
-2.520E-06,0.002
-2.500E-06,0.001
-2.480E-06,0.000
-2.460E-06,0.002
-2.440E-06,0.001
-2.420E-06,0.000
-2.400E-06,0.002
-2.380E-06,0.000
-2.360E-06,0.002
-2.340E-06,0.002
-2.320E-06,0.002
-2.300E-06,0.002
-2.280E-06,0.000
-2.260E-06,0.000
-2.240E-06,0.001
-2.220E-06,0.002
-2.200E-06,0.003
-2.180E-06,0.001
-2.160E-06,0.002
-2.140E-06,0.002
-2.120E-06,0.002
-2.100E-06,0.000
-2.080E-06,0.001
-2.060E-06,0.001
-2.040E-06,0.001
-2.020E-06,0.001
-2.000E-06,0.002
-1.980E-06,0.002
-1.960E-06,0.002
-1.940E-06,0.002
-1.920E-06,0.002
-1.900E-06,0.002
-1.880E-06,0.001
-1.860E-06,0.002
-1.840E-06,0.002
-1.820E-06,0.002
-1.800E-06,0.002
-1.780E-06,0.003
-1.760E-06,0.003
-1.740E-06,0.001
-1.720E-06,0.002
-1.700E-06,-0.001
-1.680E-06,0.001
-1.660E-06,0.002
-1.640E-06,0.002
-1.620E-06,0.002
-1.600E-06,0.002
-1.580E-06,0.002
-1.560E-06,0.002
-1.540E-06,0.002
-1.520E-06,0.003
-1.500E-06,0.001
-1.480E-06,0.001
-1.460E-06,0.002
-1.440E-06,0.001
-1.420E-06,0.001
-1.400E-06,0.001
-1.380E-06,0.002
-1.360E-06,0.001
-1.340E-06,0.002
-1.320E-06,0.002
-1.300E-06,0.000
-1.280E-06,0.002
-1.260E-06,0.002
-1.240E-06,0.002
-1.220E-06,0.002
-1.200E-06,0.002
-1.180E-06,0.002
-1.160E-06,0.001
-1.140E-06,0.002
-1.120E-06,0.001
-1.100E-06,0.002
-1.080E-06,0.002
-1.060E-06,0.002
-1.040E-06,0.002
-1.020E-06,0.002
-1.000E-06,0.001
-9.800E-07,0.001
-9.600E-07,0.001
-9.400E-07,0.000
-9.200E-07,0.002
-9.000E-07,0.002
-8.800E-07,0.002
-8.600E-07,0.002
-8.400E-07,0.002
-8.200E-07,0.002
-8.000E-07,0.001
-7.800E-07,0.001
-7.600E-07,0.001
-7.400E-07,0.002
-7.200E-07,0.002
-7.000E-07,0.002
-6.800E-07,0.002
-6.600E-07,0.002
-6.400E-07,0.002
-6.200E-07,0.002
-6.000E-07,0.002
-5.800E-07,0.001
-5.600E-07,0.001
-5.400E-07,0.002
-5.200E-07,0.001
-5.000E-07,0.001
-4.800E-07,0.001
-4.600E-07,0.001
-4.400E-07,0.002
-4.200E-07,0.001
-4.000E-07,0.002
-3.800E-07,0.002
-3.600E-07,0.002
-3.400E-07,0.001
-3.200E-07,0.002
-3.000E-07,0.001
-2.800E-07,0.001
-2.600E-07,0.002
-2.400E-07,0.002
-2.200E-07,0.002
-2.000E-07,0.002
-1.800E-07,0.001
-1.600E-07,0.000
-1.400E-07,0.002
-1.200E-07,0.001
-1.000E-07,-0.001
-8.000E-08,0.002
-6.000E-08,-0.004
-4.000E-08,0.016
-2.000E-08,0.109
0.000E+00,-0.042
2.000E-08,0.063
4.000E-08,0.108
6.000E-08,0.097
8.000E-08,-0.002
1.000E-07,-0.105
1.200E-07,0.036
1.400E-07,0.107
1.600E-07,0.044
1.800E-07,-0.022
2.000E-07,0.036
2.200E-07,0.108
2.400E-07,0.096
2.600E-07,0.000
2.800E-07,0.009
3.000E-07,0.078
3.200E-07,0.074
3.400E-07,0.002
3.600E-07,-0.008
3.800E-07,0.057
4.000E-07,0.080
4.200E-07,0.041
4.400E-07,0.022
4.600E-07,0.059
4.800E-07,0.079
5.000E-07,0.041
5.200E-07,0.017
5.400E-07,0.040
5.600E-07,0.063
5.800E-07,0.047
6.000E-07,0.026
6.200E-07,0.046
6.400E-07,0.070
6.600E-07,0.060
6.800E-07,0.034
7.000E-07,0.040
7.200E-07,0.059
7.400E-07,0.055
7.600E-07,0.035
7.800E-07,0.038
8.000E-07,0.056
8.200E-07,0.059
8.400E-07,0.043
8.600E-07,0.041
8.800E-07,0.054
9.000E-07,0.059
9.200E-07,0.048
9.400E-07,0.044
9.600E-07,0.051
9.800E-07,0.058
1.000E-06,0.049
1.020E-06,0.044
1.040E-06,0.050
1.060E-06,0.058
1.080E-06,0.051
1.100E-06,0.044
1.120E-06,0.048
1.140E-06,0.056
1.160E-06,0.054
1.180E-06,0.046
1.200E-06,0.046
1.220E-06,0.053
1.240E-06,0.054
1.260E-06,0.050
1.280E-06,0.048
1.300E-06,0.052
1.320E-06,0.054
1.340E-06,0.050
1.360E-06,0.049
1.380E-06,0.051
1.400E-06,0.053
1.420E-06,0.050
1.440E-06,0.050
1.460E-06,0.050
1.480E-06,0.053
1.500E-06,0.051
1.520E-06,0.049
1.540E-06,0.052
1.560E-06,0.052
1.580E-06,0.051
1.600E-06,0.050
1.620E-06,0.051
1.640E-06,0.052
1.660E-06,0.052
1.680E-06,0.050
1.700E-06,0.050
1.720E-06,0.050
1.740E-06,0.052
1.760E-06,0.051
1.780E-06,0.049
1.800E-06,0.052
1.820E-06,0.051
1.840E-06,0.050
1.860E-06,0.051
1.880E-06,0.051
1.900E-06,0.050
1.920E-06,0.052
1.940E-06,0.050
1.960E-06,0.050
1.980E-06,0.050
2.000E-06,0.051
2.020E-06,0.051
2.040E-06,0.050
2.060E-06,0.050
2.080E-06,0.051
2.100E-06,0.050
2.120E-06,0.050
2.140E-06,0.050
2.160E-06,0.050
2.180E-06,0.050
2.200E-06,0.049
2.220E-06,0.050
2.240E-06,0.050
2.260E-06,0.051
2.280E-06,0.050
2.300E-06,0.050
2.320E-06,0.048
2.340E-06,0.050
2.360E-06,0.049
2.380E-06,0.048
2.400E-06,0.048
2.420E-06,0.047
2.440E-06,0.047
2.460E-06,0.048
2.480E-06,0.047
2.500E-06,0.050
2.520E-06,0.046
2.540E-06,0.048
2.560E-06,0.046
2.580E-06,0.047
2.600E-06,0.047
2.620E-06,0.047
2.640E-06,0.046
2.660E-06,0.047
2.680E-06,0.046
2.700E-06,0.046
2.720E-06,0.046
2.740E-06,0.045
2.760E-06,0.046
2.780E-06,0.046
2.800E-06,0.043
2.820E-06,0.044
2.840E-06,0.045
2.860E-06,0.045
2.880E-06,0.043
2.900E-06,0.044
2.920E-06,0.044
2.940E-06,0.046
2.960E-06,0.042
2.980E-06,0.044
3.000E-06,0.044
3.020E-06,0.043
3.040E-06,0.043
3.060E-06,0.044
3.080E-06,0.044
3.100E-06,0.043
3.120E-06,0.043
3.140E-06,0.044
3.160E-06,0.043
3.180E-06,0.044
3.200E-06,0.042
3.220E-06,0.040
3.240E-06,0.042
3.260E-06,0.041
3.280E-06,0.041
3.300E-06,0.042
3.320E-06,0.041
3.340E-06,0.042
3.360E-06,0.041
3.380E-06,0.042
3.400E-06,0.040
3.420E-06,0.040
3.440E-06,0.040
3.460E-06,0.040
3.480E-06,0.039
3.500E-06,0.040
3.520E-06,0.038
3.540E-06,0.038
3.560E-06,0.039
3.580E-06,0.040
3.600E-06,0.039
3.620E-06,0.038
3.640E-06,0.038
3.660E-06,0.039
3.680E-06,0.039
3.700E-06,0.038
3.720E-06,0.038
3.740E-06,0.038
3.760E-06,0.038
3.780E-06,0.037
3.800E-06,0.035
3.820E-06,0.037
3.840E-06,0.037
