mediciones/4-8/medicion_cuadrada_para_calibrar.csv

#timebase=200000000(ps)
,#voltbase=100000(mv/100)
#size=4000
-2.000E-03,0.196
-1.999E-03,0.200
-1.998E-03,0.200
-1.997E-03,0.196
-1.996E-03,0.192
-1.995E-03,0.196
-1.994E-03,0.192
-1.993E-03,0.200
-1.992E-03,0.196
-1.991E-03,0.192
-1.990E-03,0.196
-1.989E-03,0.196
-1.988E-03,0.196
-1.987E-03,0.192
-1.986E-03,0.192
-1.985E-03,0.200
-1.984E-03,0.192
-1.983E-03,0.192
-1.982E-03,0.200
-1.981E-03,0.196
-1.980E-03,0.196
-1.979E-03,0.188
-1.978E-03,0.200
-1.977E-03,0.196
-1.976E-03,0.196
-1.975E-03,0.192
-1.974E-03,0.200
-1.973E-03,0.196
-1.972E-03,0.192
-1.971E-03,0.196
-1.970E-03,0.196
-1.969E-03,0.196
-1.968E-03,0.192
-1.967E-03,0.196
-1.966E-03,0.192
-1.965E-03,0.196
-1.964E-03,0.192
-1.963E-03,0.196
-1.962E-03,0.196
-1.961E-03,0.192
-1.960E-03,0.196
-1.959E-03,0.196
-1.958E-03,0.192
-1.957E-03,0.192
-1.956E-03,0.200
-1.955E-03,0.196
-1.954E-03,0.192
-1.953E-03,0.196
-1.952E-03,0.200
-1.951E-03,0.192
-1.950E-03,0.196
-1.949E-03,0.196
-1.948E-03,0.192
-1.947E-03,0.192
-1.946E-03,0.192
-1.945E-03,0.200
-1.944E-03,0.196
-1.943E-03,0.196
-1.942E-03,0.192
-1.941E-03,0.192
-1.940E-03,0.192
-1.939E-03,0.192
-1.938E-03,0.192
-1.937E-03,0.192
-1.936E-03,0.200
-1.935E-03,0.196
-1.934E-03,0.192
-1.933E-03,0.196
-1.932E-03,0.196
-1.931E-03,0.192
-1.930E-03,0.192
-1.929E-03,0.196
-1.928E-03,0.196
-1.927E-03,0.196
-1.926E-03,0.192
-1.925E-03,0.192
-1.924E-03,0.196
-1.923E-03,0.192
-1.922E-03,0.196
-1.921E-03,0.196
-1.920E-03,0.192
-1.919E-03,0.196
-1.918E-03,0.196
-1.917E-03,0.192
-1.916E-03,0.196
-1.915E-03,0.196
-1.914E-03,0.192
-1.913E-03,0.192
-1.912E-03,0.196
-1.911E-03,0.192
-1.910E-03,0.196
-1.909E-03,0.196
-1.908E-03,0.196
-1.907E-03,0.200
-1.906E-03,0.192
-1.905E-03,0.192
-1.904E-03,0.192
-1.903E-03,0.200
-1.902E-03,0.192
-1.901E-03,0.192
-1.900E-03,0.192
-1.899E-03,0.196
-1.898E-03,0.196
-1.897E-03,0.196
-1.896E-03,0.200
-1.895E-03,0.196
-1.894E-03,0.196
-1.893E-03,0.200
-1.892E-03,0.196
-1.891E-03,0.192
-1.890E-03,0.192
-1.889E-03,0.192
-1.888E-03,0.196
-1.887E-03,0.196
-1.886E-03,0.192
-1.885E-03,0.196
-1.884E-03,0.192
-1.883E-03,0.196
-1.882E-03,0.192
-1.881E-03,0.196
-1.880E-03,0.200
-1.879E-03,0.192
-1.878E-03,0.192
-1.877E-03,0.196
-1.876E-03,0.196
-1.875E-03,0.192
-1.874E-03,0.196
-1.873E-03,0.196
-1.872E-03,0.196
-1.871E-03,0.192
-1.870E-03,0.192
-1.869E-03,0.192
-1.868E-03,0.192
-1.867E-03,0.192
-1.866E-03,0.192
-1.865E-03,0.200
-1.864E-03,0.196
-1.863E-03,0.196
-1.862E-03,0.192
-1.861E-03,0.192
-1.860E-03,0.196
-1.859E-03,0.196
-1.858E-03,0.192
-1.857E-03,0.192
-1.856E-03,0.192
-1.855E-03,0.196
-1.854E-03,0.192
-1.853E-03,0.196
-1.852E-03,0.196
-1.851E-03,0.192
-1.850E-03,0.196
-1.849E-03,0.192
-1.848E-03,0.196
-1.847E-03,0.192
-1.846E-03,0.192
-1.845E-03,0.196
-1.844E-03,0.200
-1.843E-03,0.192
-1.842E-03,0.200
-1.841E-03,0.196
-1.840E-03,0.192
-1.839E-03,0.196
-1.838E-03,0.192
-1.837E-03,0.192
-1.836E-03,0.196
-1.835E-03,0.196
-1.834E-03,0.192
-1.833E-03,0.200
-1.832E-03,0.196
-1.831E-03,0.196
-1.830E-03,0.196
-1.829E-03,0.200
-1.828E-03,0.196
-1.827E-03,0.192
-1.826E-03,0.196
-1.825E-03,0.196
-1.824E-03,0.192
-1.823E-03,0.196
-1.822E-03,0.192
-1.821E-03,0.192
-1.820E-03,0.196
-1.819E-03,0.196
-1.818E-03,0.192
-1.817E-03,0.196
-1.816E-03,0.192
-1.815E-03,0.192
-1.814E-03,0.192
-1.813E-03,0.196
-1.812E-03,0.192
-1.811E-03,0.192
-1.810E-03,0.196
-1.809E-03,0.196
-1.808E-03,0.192
-1.807E-03,0.196
-1.806E-03,0.192
-1.805E-03,0.192
-1.804E-03,0.196
-1.803E-03,0.196
-1.802E-03,0.192
-1.801E-03,0.192
-1.800E-03,0.192
-1.799E-03,0.196
-1.798E-03,0.196
-1.797E-03,0.196
-1.796E-03,0.192
-1.795E-03,0.196
-1.794E-03,0.196
-1.793E-03,0.192
-1.792E-03,0.196
-1.791E-03,0.192
-1.790E-03,0.192
-1.789E-03,0.196
-1.788E-03,0.196
-1.787E-03,0.192
-1.786E-03,0.196
-1.785E-03,0.192
-1.784E-03,0.196
-1.783E-03,0.192
-1.782E-03,0.192
-1.781E-03,0.196
-1.780E-03,0.196
-1.779E-03,0.200
-1.778E-03,0.196
-1.777E-03,0.192
-1.776E-03,0.196
-1.775E-03,0.196
-1.774E-03,0.192
-1.773E-03,0.196
-1.772E-03,0.196
-1.771E-03,0.200
-1.770E-03,0.196
-1.769E-03,0.196
-1.768E-03,0.200
-1.767E-03,0.196
-1.766E-03,0.196
-1.765E-03,0.196
-1.764E-03,0.196
-1.763E-03,0.196
-1.762E-03,0.196
-1.761E-03,0.196
-1.760E-03,0.192
-1.759E-03,0.192
-1.758E-03,0.196
-1.757E-03,0.192
-1.756E-03,0.192
-1.755E-03,0.192
-1.754E-03,0.196
-1.753E-03,0.196
-1.752E-03,0.192
-1.751E-03,0.188
-1.750E-03,0.192
-1.749E-03,0.192
-1.748E-03,0.196
-1.747E-03,0.196
-1.746E-03,0.196
-1.745E-03,0.196
-1.744E-03,0.196
-1.743E-03,0.192
-1.742E-03,0.192
-1.741E-03,0.192
-1.740E-03,0.196
-1.739E-03,0.196
-1.738E-03,0.192
-1.737E-03,0.200
-1.736E-03,0.192
-1.735E-03,0.192
-1.734E-03,0.200
-1.733E-03,0.196
-1.732E-03,0.196
-1.731E-03,0.192
-1.730E-03,0.192
-1.729E-03,0.192
-1.728E-03,0.192
-1.727E-03,0.196
-1.726E-03,0.196
-1.725E-03,0.196
-1.724E-03,0.192
-1.723E-03,0.196
-1.722E-03,0.192
-1.721E-03,0.196
-1.720E-03,0.192
-1.719E-03,0.196
-1.718E-03,0.192
-1.717E-03,0.192
-1.716E-03,0.196
-1.715E-03,0.196
-1.714E-03,0.200
-1.713E-03,0.196
-1.712E-03,0.196
-1.711E-03,0.192
-1.710E-03,0.196
-1.709E-03,0.196
-1.708E-03,0.192
-1.707E-03,0.196
-1.706E-03,0.196
-1.705E-03,0.192
-1.704E-03,0.196
-1.703E-03,0.196
-1.702E-03,0.192
-1.701E-03,0.192
-1.700E-03,0.192
-1.699E-03,0.196
-1.698E-03,0.192
-1.697E-03,0.196
-1.696E-03,0.192
-1.695E-03,0.196
-1.694E-03,0.196
-1.693E-03,0.196
-1.692E-03,0.192
-1.691E-03,0.196
-1.690E-03,0.192
-1.689E-03,0.192
-1.688E-03,0.196
-1.687E-03,0.196
-1.686E-03,0.196
-1.685E-03,0.192
-1.684E-03,0.196
-1.683E-03,0.192
-1.682E-03,0.192
-1.681E-03,0.192
-1.680E-03,0.196
-1.679E-03,0.192
-1.678E-03,0.192
-1.677E-03,0.196
-1.676E-03,0.196
-1.675E-03,0.192
-1.674E-03,0.192
-1.673E-03,0.200
-1.672E-03,0.196
-1.671E-03,0.188
-1.670E-03,0.196
-1.669E-03,0.192
-1.668E-03,0.192
-1.667E-03,0.192
-1.666E-03,0.200
-1.665E-03,0.196
-1.664E-03,0.192
-1.663E-03,0.196
-1.662E-03,0.192
-1.661E-03,0.196
-1.660E-03,0.196
-1.659E-03,0.192
-1.658E-03,0.192
-1.657E-03,0.196
-1.656E-03,0.196
-1.655E-03,0.192
-1.654E-03,0.196
-1.653E-03,0.200
-1.652E-03,0.192
-1.651E-03,0.200
-1.650E-03,0.192
-1.649E-03,0.192
-1.648E-03,0.192
-1.647E-03,0.192
-1.646E-03,0.196
-1.645E-03,0.196
-1.644E-03,0.196
-1.643E-03,0.196
-1.642E-03,0.196
-1.641E-03,0.192
-1.640E-03,0.200
-1.639E-03,0.192
-1.638E-03,0.192
-1.637E-03,0.196
-1.636E-03,0.196
-1.635E-03,0.196
-1.634E-03,0.200
-1.633E-03,0.200
-1.632E-03,0.192
-1.631E-03,0.192
-1.630E-03,0.196
-1.629E-03,0.192
-1.628E-03,0.192
-1.627E-03,0.196
-1.626E-03,0.200
-1.625E-03,0.192
-1.624E-03,0.192
-1.623E-03,0.192
-1.622E-03,0.192
-1.621E-03,0.192
-1.620E-03,0.192
-1.619E-03,0.192
-1.618E-03,0.192
-1.617E-03,0.196
-1.616E-03,0.192
-1.615E-03,0.192
-1.614E-03,0.192
-1.613E-03,0.196
-1.612E-03,0.192
-1.611E-03,0.200
-1.610E-03,0.192
-1.609E-03,0.196
-1.608E-03,0.196
-1.607E-03,0.196
-1.606E-03,0.192
-1.605E-03,0.196
-1.604E-03,0.192
-1.603E-03,0.196
-1.602E-03,0.196
-1.601E-03,0.192
-1.600E-03,0.196
-1.599E-03,0.192
-1.598E-03,0.196
-1.597E-03,0.200
-1.596E-03,0.196
-1.595E-03,0.192
-1.594E-03,0.196
-1.593E-03,0.196
-1.592E-03,0.196
-1.591E-03,0.192
-1.590E-03,0.192
-1.589E-03,0.200
-1.588E-03,0.196
-1.587E-03,0.192
-1.586E-03,0.192
-1.585E-03,0.192
-1.584E-03,0.196
-1.583E-03,0.192
-1.582E-03,0.196
-1.581E-03,0.196
-1.580E-03,0.200
-1.579E-03,0.196
-1.578E-03,0.200
-1.577E-03,0.192
-1.576E-03,0.196
-1.575E-03,0.196
-1.574E-03,0.192
-1.573E-03,0.200
-1.572E-03,0.192
-1.571E-03,0.192
-1.570E-03,0.200
-1.569E-03,0.192
-1.568E-03,0.196
-1.567E-03,0.192
-1.566E-03,0.196
-1.565E-03,0.196
-1.564E-03,0.192
-1.563E-03,0.192
-1.562E-03,0.192
-1.561E-03,0.196
-1.560E-03,0.196
-1.559E-03,0.192
-1.558E-03,0.192
-1.557E-03,0.196
-1.556E-03,0.192
-1.555E-03,0.192
-1.554E-03,0.196
-1.553E-03,0.196
-1.552E-03,0.196
-1.551E-03,0.192
-1.550E-03,0.196
-1.549E-03,0.200
-1.548E-03,0.192
-1.547E-03,0.196
-1.546E-03,0.192
-1.545E-03,0.192
-1.544E-03,0.192
-1.543E-03,0.200
-1.542E-03,0.192
-1.541E-03,0.196
-1.540E-03,0.188
-1.539E-03,0.196
-1.538E-03,0.196
-1.537E-03,0.192
-1.536E-03,0.196
-1.535E-03,0.196
-1.534E-03,0.192
-1.533E-03,0.200
-1.532E-03,0.192
-1.531E-03,0.192
-1.530E-03,0.192
-1.529E-03,0.196
-1.528E-03,0.196
-1.527E-03,0.196
-1.526E-03,0.196
-1.525E-03,0.200
-1.524E-03,0.192
-1.523E-03,0.200
-1.522E-03,0.200
-1.521E-03,0.196
-1.520E-03,0.192
-1.519E-03,0.192
-1.518E-03,0.200
-1.517E-03,0.192
-1.516E-03,0.196
-1.515E-03,0.200
-1.514E-03,0.196
-1.513E-03,0.196
-1.512E-03,0.192
-1.511E-03,0.192
-1.510E-03,0.196
-1.509E-03,0.196
-1.508E-03,0.196
-1.507E-03,0.196
-1.506E-03,0.196
-1.505E-03,0.196
-1.504E-03,0.200
-1.503E-03,0.196
-1.502E-03,0.196
-1.501E-03,0.196
-1.500E-03,0.000
-1.499E-03,0.000
-1.498E-03,-0.004
-1.497E-03,-0.004
-1.496E-03,0.000
-1.495E-03,-0.004
-1.494E-03,0.000
-1.493E-03,0.000
-1.492E-03,0.000
-1.491E-03,0.000
-1.490E-03,0.000
-1.489E-03,0.000
-1.488E-03,-0.004
-1.487E-03,-0.004
-1.486E-03,-0.004
-1.485E-03,-0.004
-1.484E-03,0.000
-1.483E-03,-0.004
-1.482E-03,0.000
-1.481E-03,0.000
-1.480E-03,0.000
-1.479E-03,-0.004
-1.478E-03,0.000
-1.477E-03,0.000
-1.476E-03,0.000
-1.475E-03,0.000
-1.474E-03,0.000
-1.473E-03,0.000
-1.472E-03,0.000
-1.471E-03,0.000
-1.470E-03,0.000
-1.469E-03,0.000
-1.468E-03,0.000
-1.467E-03,0.004
-1.466E-03,0.000
-1.465E-03,0.000
-1.464E-03,-0.004
-1.463E-03,0.004
-1.462E-03,0.000
-1.461E-03,0.004
-1.460E-03,0.012
-1.459E-03,0.004
-1.458E-03,0.004
-1.457E-03,0.004
-1.456E-03,-0.004
-1.455E-03,0.000
-1.454E-03,0.000
-1.453E-03,0.000
-1.452E-03,0.000
-1.451E-03,0.000
-1.450E-03,0.000
-1.449E-03,0.000
-1.448E-03,0.000
-1.447E-03,0.004
-1.446E-03,-0.004
-1.445E-03,-0.004
-1.444E-03,0.000
-1.443E-03,-0.008
-1.442E-03,-0.004
-1.441E-03,0.000
-1.440E-03,0.000
-1.439E-03,0.000
-1.438E-03,0.004
-1.437E-03,0.000
-1.436E-03,0.000
-1.435E-03,0.000
-1.434E-03,0.000
-1.433E-03,0.000
-1.432E-03,0.004
-1.431E-03,0.004
-1.430E-03,-0.004
-1.429E-03,0.000
-1.428E-03,0.000
-1.427E-03,0.000
-1.426E-03,0.004
-1.425E-03,0.004
-1.424E-03,-0.004
-1.423E-03,0.000
-1.422E-03,0.000
-1.421E-03,0.000
-1.420E-03,-0.004
-1.419E-03,0.000
-1.418E-03,-0.004
-1.417E-03,0.000
-1.416E-03,0.000
-1.415E-03,0.000
-1.414E-03,0.000
-1.413E-03,0.000
-1.412E-03,0.000
-1.411E-03,0.000
-1.410E-03,0.000
-1.409E-03,-0.008
-1.408E-03,0.004
-1.407E-03,-0.004
-1.406E-03,0.000
-1.405E-03,0.000
-1.404E-03,0.004
-1.403E-03,0.000
-1.402E-03,0.000
-1.401E-03,0.000
-1.400E-03,-0.004
-1.399E-03,0.000
-1.398E-03,-0.004
-1.397E-03,0.000
-1.396E-03,0.000
-1.395E-03,-0.004
-1.394E-03,0.000
-1.393E-03,0.004
-1.392E-03,-0.004
-1.391E-03,0.000
-1.390E-03,0.000
-1.389E-03,0.000
-1.388E-03,0.000
-1.387E-03,0.000
-1.386E-03,0.000
-1.385E-03,-0.004
-1.384E-03,0.004
-1.383E-03,0.004
-1.382E-03,-0.004
-1.381E-03,0.000
-1.380E-03,0.000
-1.379E-03,0.000
-1.378E-03,0.000
-1.377E-03,0.000
-1.376E-03,0.000
-1.375E-03,-0.004
-1.374E-03,0.004
-1.373E-03,-0.004
-1.372E-03,0.004
-1.371E-03,0.000
-1.370E-03,0.000
-1.369E-03,-0.004
-1.368E-03,0.000
-1.367E-03,0.000
-1.366E-03,0.000
-1.365E-03,0.000
-1.364E-03,-0.004
-1.363E-03,0.000
-1.362E-03,0.000
-1.361E-03,0.000
-1.360E-03,0.000
-1.359E-03,0.000
-1.358E-03,0.000
-1.357E-03,0.004
-1.356E-03,0.004
-1.355E-03,-0.004
-1.354E-03,0.000
-1.353E-03,0.000
-1.352E-03,0.000
-1.351E-03,0.008
-1.350E-03,0.000
-1.349E-03,0.000
-1.348E-03,0.000
-1.347E-03,0.000
-1.346E-03,0.008
-1.345E-03,0.000
-1.344E-03,0.004
-1.343E-03,-0.004
-1.342E-03,0.000
-1.341E-03,0.000
-1.340E-03,-0.004
-1.339E-03,0.000
-1.338E-03,0.000
-1.337E-03,0.000
-1.336E-03,0.000
-1.335E-03,-0.004
-1.334E-03,0.000
-1.333E-03,0.000
-1.332E-03,0.004
-1.331E-03,0.000
-1.330E-03,-0.004
-1.329E-03,0.004
-1.328E-03,-0.004
-1.327E-03,0.004
-1.326E-03,0.000
-1.325E-03,0.004
-1.324E-03,-0.004
-1.323E-03,0.004
-1.322E-03,0.004
-1.321E-03,0.000
-1.320E-03,-0.004
-1.319E-03,0.000
-1.318E-03,0.000
-1.317E-03,0.000
-1.316E-03,0.004
-1.315E-03,0.000
-1.314E-03,0.000
-1.313E-03,0.004
-1.312E-03,0.004
-1.311E-03,-0.004
-1.310E-03,-0.004
-1.309E-03,0.000
-1.308E-03,0.004
-1.307E-03,-0.004
-1.306E-03,0.000
-1.305E-03,0.000
-1.304E-03,0.000
-1.303E-03,-0.004
-1.302E-03,0.000
-1.301E-03,0.000
-1.300E-03,0.000
-1.299E-03,0.000
-1.298E-03,0.000
-1.297E-03,0.004
-1.296E-03,0.004
-1.295E-03,-0.004
-1.294E-03,-0.004
-1.293E-03,0.000
-1.292E-03,0.004
-1.291E-03,0.004
-1.290E-03,0.008
-1.289E-03,-0.004
-1.288E-03,-0.004
-1.287E-03,0.004
-1.286E-03,0.000
-1.285E-03,0.004
-1.284E-03,0.000
-1.283E-03,0.004
-1.282E-03,0.000
-1.281E-03,0.000
-1.280E-03,-0.004
-1.279E-03,-0.004
-1.278E-03,0.000
-1.277E-03,-0.004
-1.276E-03,0.000
-1.275E-03,0.000
-1.274E-03,0.004
-1.273E-03,0.000
-1.272E-03,0.000
-1.271E-03,0.000
-1.270E-03,0.000
-1.269E-03,0.000
-1.268E-03,-0.004
-1.267E-03,0.000
-1.266E-03,-0.004
-1.265E-03,0.000
-1.264E-03,0.004
-1.263E-03,-0.004
-1.262E-03,-0.004
-1.261E-03,0.000
-1.260E-03,0.004
-1.259E-03,0.008
-1.258E-03,0.008
-1.257E-03,0.000
-1.256E-03,-0.004
-1.255E-03,0.000
-1.254E-03,0.004
-1.253E-03,0.004
-1.252E-03,-0.004
-1.251E-03,-0.004
-1.250E-03,0.004
-1.249E-03,0.000
-1.248E-03,0.004
-1.247E-03,-0.004
-1.246E-03,0.000
-1.245E-03,0.000
-1.244E-03,-0.004
-1.243E-03,0.000
-1.242E-03,-0.004
-1.241E-03,0.004
-1.240E-03,0.000
-1.239E-03,0.000
-1.238E-03,0.000
-1.237E-03,0.000
-1.236E-03,0.000
-1.235E-03,0.004
-1.234E-03,0.004
-1.233E-03,-0.004
-1.232E-03,0.000
-1.231E-03,0.004
-1.230E-03,0.000
-1.229E-03,0.000
-1.228E-03,0.004
-1.227E-03,0.000
-1.226E-03,0.000
-1.225E-03,0.000
-1.224E-03,0.000
-1.223E-03,-0.004
-1.222E-03,0.000
-1.221E-03,-0.004
-1.220E-03,-0.004
-1.219E-03,0.000
-1.218E-03,0.000
-1.217E-03,0.000
-1.216E-03,0.004
-1.215E-03,0.000
-1.214E-03,0.000
-1.213E-03,0.000
-1.212E-03,0.008
-1.211E-03,0.004
-1.210E-03,0.008
-1.209E-03,0.008
-1.208E-03,-0.004
-1.207E-03,0.004
-1.206E-03,0.000
-1.205E-03,0.004
-1.204E-03,0.000
-1.203E-03,0.004
-1.202E-03,0.008
-1.201E-03,0.000
-1.200E-03,-0.004
-1.199E-03,0.004
-1.198E-03,-0.004
-1.197E-03,-0.004
-1.196E-03,0.000
-1.195E-03,0.004
-1.194E-03,0.004
-1.193E-03,0.004
-1.192E-03,-0.004
-1.191E-03,0.000
-1.190E-03,0.000
-1.189E-03,0.000
-1.188E-03,0.004
-1.187E-03,-0.004
-1.186E-03,0.000
-1.185E-03,0.004
-1.184E-03,0.000
-1.183E-03,0.000
-1.182E-03,-0.004
-1.181E-03,0.000
-1.180E-03,0.004
-1.179E-03,0.004
-1.178E-03,-0.004
-1.177E-03,-0.004
-1.176E-03,0.000
-1.175E-03,0.000
-1.174E-03,0.000
-1.173E-03,0.000
-1.172E-03,0.000
-1.171E-03,0.000
-1.170E-03,0.000
-1.169E-03,0.004
-1.168E-03,0.000
-1.167E-03,0.000
-1.166E-03,0.000
-1.165E-03,0.000
-1.164E-03,0.000
-1.163E-03,0.000
-1.162E-03,0.000
-1.161E-03,0.000
-1.160E-03,0.000
-1.159E-03,0.000
-1.158E-03,0.000
-1.157E-03,-0.004
-1.156E-03,0.000
-1.155E-03,0.000
-1.154E-03,0.000
-1.153E-03,0.000
-1.152E-03,0.008
-1.151E-03,0.004
-1.150E-03,0.000
-1.149E-03,0.000
-1.148E-03,0.000
-1.147E-03,0.000
-1.146E-03,0.004
-1.145E-03,0.008
-1.144E-03,0.004
-1.143E-03,0.000
-1.142E-03,0.004
-1.141E-03,0.000
-1.140E-03,0.004
-1.139E-03,0.000
-1.138E-03,0.000
-1.137E-03,0.000
-1.136E-03,0.000
-1.135E-03,0.000
-1.134E-03,-0.004
-1.133E-03,0.004
-1.132E-03,0.004
-1.131E-03,0.004
-1.130E-03,0.000
-1.129E-03,0.004
-1.128E-03,0.000
-1.127E-03,0.000
-1.126E-03,0.000
-1.125E-03,-0.004
-1.124E-03,0.004
-1.123E-03,-0.004
-1.122E-03,0.004
-1.121E-03,-0.004
-1.120E-03,0.004
-1.119E-03,0.004
-1.118E-03,0.000
-1.117E-03,0.004
-1.116E-03,-0.004
-1.115E-03,0.000
-1.114E-03,-0.004
-1.113E-03,0.000
-1.112E-03,0.004
-1.111E-03,-0.004
-1.110E-03,0.004
-1.109E-03,0.000
-1.108E-03,-0.004
-1.107E-03,0.000
-1.106E-03,0.004
-1.105E-03,-0.004
-1.104E-03,0.000
-1.103E-03,0.000
-1.102E-03,0.004
-1.101E-03,0.000
-1.100E-03,0.004
-1.099E-03,0.000
-1.098E-03,0.000
-1.097E-03,0.000
-1.096E-03,0.000
-1.095E-03,0.000
-1.094E-03,0.004
-1.093E-03,0.004
-1.092E-03,0.004
-1.091E-03,0.004
-1.090E-03,0.004
-1.089E-03,0.000
-1.088E-03,0.004
-1.087E-03,0.004
-1.086E-03,-0.004
-1.085E-03,0.000
-1.084E-03,0.004
-1.083E-03,0.000
-1.082E-03,0.000
-1.081E-03,0.000
-1.080E-03,0.000
-1.079E-03,0.000
-1.078E-03,-0.004
-1.077E-03,0.000
-1.076E-03,-0.004
-1.075E-03,0.000
-1.074E-03,0.000
-1.073E-03,0.000
-1.072E-03,0.000
-1.071E-03,0.000
-1.070E-03,0.000
-1.069E-03,0.000
-1.068E-03,0.004
-1.067E-03,0.000
-1.066E-03,0.000
-1.065E-03,0.004
-1.064E-03,0.004
-1.063E-03,0.004
-1.062E-03,0.000
-1.061E-03,0.004
-1.060E-03,0.004
-1.059E-03,0.008
-1.058E-03,0.004
-1.057E-03,0.004
-1.056E-03,-0.004
-1.055E-03,0.000
-1.054E-03,0.000
-1.053E-03,-0.004
-1.052E-03,0.000
-1.051E-03,0.004
-1.050E-03,-0.004
-1.049E-03,0.004
-1.048E-03,0.000
-1.047E-03,0.000
-1.046E-03,-0.004
-1.045E-03,0.000
-1.044E-03,0.000
-1.043E-03,0.000
-1.042E-03,0.000
-1.041E-03,0.000
-1.040E-03,-0.004
-1.039E-03,-0.004
-1.038E-03,-0.004
-1.037E-03,-0.004
-1.036E-03,0.000
-1.035E-03,0.000
-1.034E-03,0.000
-1.033E-03,0.000
-1.032E-03,0.000
-1.031E-03,-0.004
-1.030E-03,0.000
-1.029E-03,0.000
-1.028E-03,-0.004
-1.027E-03,0.000
-1.026E-03,0.004
-1.025E-03,-0.004
-1.024E-03,-0.004
-1.023E-03,0.004
-1.022E-03,0.008
-1.021E-03,-0.004
-1.020E-03,-0.004
-1.019E-03,0.004
-1.018E-03,0.000
-1.017E-03,0.000
-1.016E-03,0.004
-1.015E-03,0.000
-1.014E-03,0.004
-1.013E-03,0.004
-1.012E-03,0.008
-1.011E-03,0.008
-1.010E-03,0.008
-1.009E-03,0.004
-1.008E-03,-0.004
-1.007E-03,0.000
-1.006E-03,0.004
-1.005E-03,0.000
-1.004E-03,0.004
-1.003E-03,0.004
-1.002E-03,0.004
-1.001E-03,-0.004
-1.000E-03,0.200
-9.990E-04,0.200
-9.980E-04,0.196
-9.970E-04,0.200
-9.960E-04,0.200
-9.950E-04,0.196
-9.940E-04,0.196
-9.930E-04,0.200
-9.920E-04,0.204
-9.910E-04,0.196
-9.900E-04,0.196
-9.890E-04,0.196
-9.880E-04,0.200
-9.870E-04,0.200
-9.860E-04,0.196
-9.850E-04,0.196
-9.840E-04,0.192
-9.830E-04,0.200
-9.820E-04,0.200
-9.810E-04,0.196
-9.800E-04,0.200
-9.790E-04,0.196
-9.780E-04,0.192
-9.770E-04,0.196
-9.760E-04,0.192
-9.750E-04,0.204
-9.740E-04,0.196
-9.730E-04,0.196
-9.720E-04,0.196
-9.710E-04,0.196
-9.700E-04,0.196
-9.690E-04,0.196
-9.680E-04,0.200
-9.670E-04,0.200
-9.660E-04,0.192
-9.650E-04,0.192
-9.640E-04,0.192
-9.630E-04,0.192
-9.620E-04,0.192
-9.610E-04,0.200
-9.600E-04,0.196
-9.590E-04,0.196
-9.580E-04,0.196
-9.570E-04,0.200
-9.560E-04,0.196
-9.550E-04,0.196
-9.540E-04,0.192
-9.530E-04,0.196
-9.520E-04,0.196
-9.510E-04,0.200
-9.500E-04,0.196
-9.490E-04,0.200
-9.480E-04,0.200
-9.470E-04,0.192
-9.460E-04,0.192
-9.450E-04,0.200
-9.440E-04,0.192
-9.430E-04,0.192
-9.420E-04,0.196
-9.410E-04,0.192
-9.400E-04,0.196
-9.390E-04,0.196
-9.380E-04,0.196
-9.370E-04,0.196
-9.360E-04,0.192
-9.350E-04,0.192
-9.340E-04,0.196
-9.330E-04,0.196
-9.320E-04,0.196
-9.310E-04,0.196
-9.300E-04,0.196
-9.290E-04,0.196
-9.280E-04,0.196
-9.270E-04,0.192
-9.260E-04,0.196
-9.250E-04,0.196
-9.240E-04,0.196
-9.230E-04,0.192
-9.220E-04,0.192
-9.210E-04,0.192
-9.200E-04,0.196
-9.190E-04,0.196
-9.180E-04,0.200
-9.170E-04,0.192
-9.160E-04,0.196
-9.150E-04,0.196
-9.140E-04,0.192
-9.130E-04,0.192
-9.120E-04,0.188
-9.110E-04,0.196
-9.100E-04,0.196
-9.090E-04,0.196
-9.080E-04,0.196
-9.070E-04,0.192
-9.060E-04,0.192
-9.050E-04,0.196
-9.040E-04,0.196
-9.030E-04,0.196
-9.020E-04,0.192
-9.010E-04,0.200
-9.000E-04,0.196
-8.990E-04,0.196
-8.980E-04,0.192
-8.970E-04,0.196
-8.960E-04,0.196
-8.950E-04,0.196
-8.940E-04,0.196
-8.930E-04,0.196
-8.920E-04,0.196
-8.910E-04,0.200
-8.900E-04,0.196
-8.890E-04,0.196
-8.880E-04,0.192
-8.870E-04,0.192
-8.860E-04,0.196
-8.850E-04,0.196
-8.840E-04,0.196
-8.830E-04,0.192
-8.820E-04,0.192
-8.810E-04,0.192
-8.800E-04,0.196
-8.790E-04,0.192
-8.780E-04,0.204
-8.770E-04,0.196
-8.760E-04,0.196
-8.750E-04,0.196
-8.740E-04,0.192
-8.730E-04,0.196
-8.720E-04,0.196
-8.710E-04,0.196
-8.700E-04,0.196
-8.690E-04,0.200
-8.680E-04,0.196
-8.670E-04,0.196
-8.660E-04,0.192
-8.650E-04,0.196
-8.640E-04,0.200
-8.630E-04,0.196
-8.620E-04,0.192
-8.610E-04,0.196
-8.600E-04,0.192
-8.590E-04,0.196
-8.580E-04,0.196
-8.570E-04,0.196
-8.560E-04,0.192
-8.550E-04,0.196
-8.540E-04,0.196
-8.530E-04,0.192
-8.520E-04,0.192
-8.510E-04,0.192
-8.500E-04,0.200
-8.490E-04,0.192
-8.480E-04,0.196
-8.470E-04,0.196
-8.460E-04,0.192
-8.450E-04,0.200
-8.440E-04,0.196
-8.430E-04,0.196
-8.420E-04,0.196
-8.410E-04,0.192
-8.400E-04,0.196
-8.390E-04,0.200
-8.380E-04,0.192
-8.370E-04,0.200
-8.360E-04,0.196
-8.350E-04,0.192
