mediciones/mediciones removidas por ser diferentes/12.6/WaveData4745.csv

#timebase=2000000(ps)
,#voltbase=2000000(mv/100)
#size=4000
-8.400E-06,0.080
-8.390E-06,0.000
-8.380E-06,0.080
-8.370E-06,0.000
-8.360E-06,0.080
-8.350E-06,0.000
-8.340E-06,0.080
-8.330E-06,0.080
-8.320E-06,0.000
-8.310E-06,0.080
-8.300E-06,0.000
-8.290E-06,0.000
-8.280E-06,0.080
-8.270E-06,0.080
-8.260E-06,0.080
-8.250E-06,0.000
-8.240E-06,0.000
-8.230E-06,0.080
-8.220E-06,0.080
-8.210E-06,0.080
-8.200E-06,0.160
-8.190E-06,0.000
-8.180E-06,0.080
-8.170E-06,0.000
-8.160E-06,0.000
-8.150E-06,0.080
-8.140E-06,0.080
-8.130E-06,0.000
-8.120E-06,0.080
-8.110E-06,0.000
-8.100E-06,0.080
-8.090E-06,0.000
-8.080E-06,0.000
-8.070E-06,0.160
-8.060E-06,-0.080
-8.050E-06,-0.080
-8.040E-06,0.000
-8.030E-06,0.000
-8.020E-06,0.000
-8.010E-06,0.080
-8.000E-06,0.000
-7.990E-06,0.000
-7.980E-06,0.000
-7.970E-06,0.160
-7.960E-06,0.000
-7.950E-06,0.000
-7.940E-06,0.080
-7.930E-06,0.080
-7.920E-06,0.000
-7.910E-06,0.000
-7.900E-06,0.080
-7.890E-06,-0.080
-7.880E-06,0.000
-7.870E-06,0.080
-7.860E-06,-0.080
-7.850E-06,0.000
-7.840E-06,-0.080
-7.830E-06,0.000
-7.820E-06,0.000
-7.810E-06,-0.080
-7.800E-06,0.080
-7.790E-06,0.080
-7.780E-06,0.080
-7.770E-06,0.000
-7.760E-06,0.080
-7.750E-06,0.160
-7.740E-06,0.160
-7.730E-06,0.080
-7.720E-06,-0.080
-7.710E-06,0.080
-7.700E-06,0.000
-7.690E-06,0.080
-7.680E-06,0.080
-7.670E-06,-0.080
-7.660E-06,0.080
-7.650E-06,-0.080
-7.640E-06,0.080
-7.630E-06,0.080
-7.620E-06,0.000
-7.610E-06,0.080
-7.600E-06,0.080
-7.590E-06,0.000
-7.580E-06,0.080
-7.570E-06,0.000
-7.560E-06,0.080
-7.550E-06,0.080
-7.540E-06,0.000
-7.530E-06,0.000
-7.520E-06,0.160
-7.510E-06,0.000
-7.500E-06,0.080
-7.490E-06,0.000
-7.480E-06,0.080
-7.470E-06,0.080
-7.460E-06,0.080
-7.450E-06,0.080
-7.440E-06,0.000
-7.430E-06,0.080
-7.420E-06,0.080
-7.410E-06,0.080
-7.400E-06,0.000
-7.390E-06,0.080
-7.380E-06,0.080
-7.370E-06,0.000
-7.360E-06,0.080
-7.350E-06,0.160
-7.340E-06,0.160
-7.330E-06,0.080
-7.320E-06,0.000
-7.310E-06,0.000
-7.300E-06,0.080
-7.290E-06,0.080
-7.280E-06,0.080
-7.270E-06,0.080
-7.260E-06,0.080
-7.250E-06,0.000
-7.240E-06,0.080
-7.230E-06,0.080
-7.220E-06,0.000
-7.210E-06,0.080
-7.200E-06,0.160
-7.190E-06,0.000
-7.180E-06,0.000
-7.170E-06,0.000
-7.160E-06,0.160
-7.150E-06,0.000
-7.140E-06,0.000
-7.130E-06,0.080
-7.120E-06,0.160
-7.110E-06,-0.080
-7.100E-06,0.080
-7.090E-06,0.080
-7.080E-06,0.080
-7.070E-06,0.080
-7.060E-06,0.080
-7.050E-06,0.080
-7.040E-06,0.160
-7.030E-06,0.160
-7.020E-06,0.080
-7.010E-06,0.160
-7.000E-06,0.080
-6.990E-06,-0.080
-6.980E-06,0.000
-6.970E-06,0.080
-6.960E-06,-0.080
-6.950E-06,0.080
-6.940E-06,0.000
-6.930E-06,0.080
-6.920E-06,0.160
-6.910E-06,0.080
-6.900E-06,-0.080
-6.890E-06,0.080
-6.880E-06,0.000
-6.870E-06,0.000
-6.860E-06,0.000
-6.850E-06,0.080
-6.840E-06,-0.080
-6.830E-06,0.080
-6.820E-06,0.080
-6.810E-06,0.080
-6.800E-06,0.080
-6.790E-06,0.000
-6.780E-06,-0.080
-6.770E-06,0.080
-6.760E-06,0.080
-6.750E-06,0.160
-6.740E-06,0.160
-6.730E-06,-0.080
-6.720E-06,0.080
-6.710E-06,0.080
-6.700E-06,0.080
-6.690E-06,0.160
-6.680E-06,0.000
-6.670E-06,0.000
-6.660E-06,0.080
-6.650E-06,0.000
-6.640E-06,0.000
-6.630E-06,0.000
-6.620E-06,0.080
-6.610E-06,0.160
-6.600E-06,0.160
-6.590E-06,0.000
-6.580E-06,0.000
-6.570E-06,0.080
-6.560E-06,0.000
-6.550E-06,0.000
-6.540E-06,0.000
-6.530E-06,0.080
-6.520E-06,0.080
-6.510E-06,0.080
-6.500E-06,0.000
-6.490E-06,0.080
-6.480E-06,0.000
-6.470E-06,0.000
-6.460E-06,0.080
-6.450E-06,0.080
-6.440E-06,0.000
-6.430E-06,0.080
-6.420E-06,0.000
-6.410E-06,0.080
-6.400E-06,0.000
-6.390E-06,-0.080
-6.380E-06,0.080
-6.370E-06,0.080
-6.360E-06,0.080
-6.350E-06,0.000
-6.340E-06,0.080
-6.330E-06,0.000
-6.320E-06,0.000
-6.310E-06,0.000
-6.300E-06,0.160
-6.290E-06,0.000
-6.280E-06,0.000
-6.270E-06,0.080
-6.260E-06,0.000
-6.250E-06,0.000
-6.240E-06,0.000
-6.230E-06,-0.400
-6.220E-06,-1.040
-6.210E-06,-2.080
-6.200E-06,-2.880
-6.190E-06,-3.520
-6.180E-06,-3.520
-6.170E-06,-3.280
-6.160E-06,-2.320
-6.150E-06,-1.440
-6.140E-06,-0.480
-6.130E-06,0.720
-6.120E-06,1.600
-6.110E-06,2.480
-6.100E-06,3.120
-6.090E-06,3.200
-6.080E-06,3.120
-6.070E-06,2.720
-6.060E-06,2.320
-6.050E-06,1.840
-6.040E-06,1.520
-6.030E-06,1.440
-6.020E-06,1.200
-6.010E-06,1.120
-6.000E-06,1.120
-5.990E-06,1.120
-5.980E-06,1.200
-5.970E-06,1.120
-5.960E-06,0.800
-5.950E-06,0.480
-5.940E-06,-0.160
-5.930E-06,-0.640
-5.920E-06,-1.040
-5.910E-06,-1.600
-5.900E-06,-1.920
-5.890E-06,-2.080
-5.880E-06,-2.240
-5.870E-06,-2.160
-5.860E-06,-1.920
-5.850E-06,-1.520
-5.840E-06,-1.040
-5.830E-06,-0.640
-5.820E-06,-0.080
-5.810E-06,0.320
-5.800E-06,0.560
-5.790E-06,0.880
-5.780E-06,0.880
-5.770E-06,0.800
-5.760E-06,0.640
-5.750E-06,0.240
-5.740E-06,0.160
-5.730E-06,-0.080
-5.720E-06,-0.240
-5.710E-06,-0.160
-5.700E-06,-0.320
-5.690E-06,-0.160
-5.680E-06,-0.160
-5.670E-06,-0.080
-5.660E-06,0.000
-5.650E-06,0.000
-5.640E-06,0.160
-5.630E-06,0.240
-5.620E-06,0.320
-5.610E-06,0.160
-5.600E-06,0.160
-5.590E-06,-0.080
-5.580E-06,-0.080
-5.570E-06,0.000
-5.560E-06,-0.080
-5.550E-06,-0.080
-5.540E-06,0.080
-5.530E-06,0.320
-5.520E-06,0.320
-5.510E-06,0.480
-5.500E-06,0.640
-5.490E-06,0.800
-5.480E-06,0.960
-5.470E-06,0.960
-5.460E-06,0.960
-5.450E-06,0.800
-5.440E-06,0.720
-5.430E-06,0.560
-5.420E-06,0.400
-5.410E-06,0.160
-5.400E-06,-0.080
-5.390E-06,-0.160
-5.380E-06,-0.320
-5.370E-06,-0.400
-5.360E-06,-0.400
-5.350E-06,-0.160
-5.340E-06,-0.160
-5.330E-06,0.000
-5.320E-06,0.000
-5.310E-06,0.000
-5.300E-06,0.080
-5.290E-06,0.160
-5.280E-06,0.080
-5.270E-06,0.160
-5.260E-06,0.240
-5.250E-06,0.000
-5.240E-06,-0.080
-5.230E-06,0.080
-5.220E-06,-0.080
-5.210E-06,-0.080
-5.200E-06,0.080
-5.190E-06,0.000
-5.180E-06,0.080
-5.170E-06,0.240
-5.160E-06,0.320
-5.150E-06,0.160
-5.140E-06,0.160
-5.130E-06,0.160
-5.120E-06,0.240
-5.110E-06,-0.080
-5.100E-06,0.000
-5.090E-06,-0.080
-5.080E-06,-0.080
-5.070E-06,-0.160
-5.060E-06,-0.160
-5.050E-06,-0.240
-5.040E-06,-0.080
-5.030E-06,-0.160
-5.020E-06,0.080
-5.010E-06,0.080
-5.000E-06,0.080
-4.990E-06,-0.080
-4.980E-06,0.160
-4.970E-06,0.240
-4.960E-06,0.160
-4.950E-06,0.080
-4.940E-06,0.160
-4.930E-06,0.160
-4.920E-06,0.160
-4.910E-06,0.160
-4.900E-06,0.240
-4.890E-06,0.160
-4.880E-06,0.320
-4.870E-06,0.240
-4.860E-06,0.320
-4.850E-06,0.240
-4.840E-06,0.320
-4.830E-06,0.400
-4.820E-06,0.240
-4.810E-06,0.240
-4.800E-06,0.240
-4.790E-06,0.240
-4.780E-06,0.160
-4.770E-06,0.160
-4.760E-06,0.080
-4.750E-06,0.000
-4.740E-06,0.000
-4.730E-06,-0.080
-4.720E-06,0.000
-4.710E-06,-0.080
-4.700E-06,-0.080
-4.690E-06,-0.080
-4.680E-06,-0.160
-4.670E-06,-0.080
-4.660E-06,-0.160
-4.650E-06,-0.160
-4.640E-06,-0.240
-4.630E-06,-0.160
-4.620E-06,-0.160
-4.610E-06,0.080
-4.600E-06,-0.080
-4.590E-06,0.000
-4.580E-06,0.000
-4.570E-06,0.080
-4.560E-06,0.080
-4.550E-06,0.000
-4.540E-06,0.000
-4.530E-06,0.160
-4.520E-06,0.160
-4.510E-06,0.240
-4.500E-06,0.160
-4.490E-06,0.080
-4.480E-06,0.080
-4.470E-06,0.160
-4.460E-06,0.160
-4.450E-06,0.080
-4.440E-06,0.240
-4.430E-06,0.080
-4.420E-06,0.000
-4.410E-06,0.000
-4.400E-06,0.080
-4.390E-06,0.000
-4.380E-06,0.000
-4.370E-06,-0.080
-4.360E-06,0.000
-4.350E-06,0.000
-4.340E-06,0.000
-4.330E-06,0.000
-4.320E-06,0.000
-4.310E-06,-0.080
-4.300E-06,0.000
-4.290E-06,0.080
-4.280E-06,0.080
-4.270E-06,0.080
-4.260E-06,0.080
-4.250E-06,0.080
-4.240E-06,0.080
-4.230E-06,0.080
-4.220E-06,-0.080
-4.210E-06,0.000
-4.200E-06,0.000
-4.190E-06,0.000
-4.180E-06,0.000
-4.170E-06,0.000
-4.160E-06,0.000
-4.150E-06,0.000
-4.140E-06,0.000
-4.130E-06,0.000
-4.120E-06,0.000
-4.110E-06,0.000
-4.100E-06,0.000
-4.090E-06,-0.080
-4.080E-06,-0.080
-4.070E-06,0.080
-4.060E-06,-0.080
-4.050E-06,-0.080
-4.040E-06,0.000
-4.030E-06,-0.080
-4.020E-06,0.000
-4.010E-06,0.000
-4.000E-06,0.000
-3.990E-06,0.080
-3.980E-06,0.080
-3.970E-06,0.160
-3.960E-06,0.000
-3.950E-06,0.080
-3.940E-06,0.080
-3.930E-06,0.240
-3.920E-06,0.080
-3.910E-06,0.160
-3.900E-06,0.160
-3.890E-06,0.080
-3.880E-06,-0.080
-3.870E-06,0.000
-3.860E-06,0.000
-3.850E-06,0.000
-3.840E-06,0.000
-3.830E-06,-0.080
-3.820E-06,0.000
-3.810E-06,-0.080
-3.800E-06,-0.080
-3.790E-06,-0.080
-3.780E-06,-0.080
-3.770E-06,-0.160
-3.760E-06,0.080
-3.750E-06,-0.160
-3.740E-06,-0.160
-3.730E-06,0.000
-3.720E-06,-0.080
-3.710E-06,0.000
-3.700E-06,-0.080
-3.690E-06,0.000
-3.680E-06,0.000
-3.670E-06,0.080
-3.660E-06,0.000
-3.650E-06,0.080
-3.640E-06,0.160
-3.630E-06,0.080
-3.620E-06,0.080
-3.610E-06,0.160
-3.600E-06,0.160
-3.590E-06,0.240
-3.580E-06,0.240
-3.570E-06,0.160
-3.560E-06,0.240
-3.550E-06,0.160
-3.540E-06,0.160
-3.530E-06,0.160
-3.520E-06,0.160
-3.510E-06,0.160
-3.500E-06,0.080
-3.490E-06,0.000
-3.480E-06,0.000
-3.470E-06,0.000
-3.460E-06,0.080
-3.450E-06,0.000
-3.440E-06,0.000
-3.430E-06,0.000
-3.420E-06,0.000
-3.410E-06,0.000
-3.400E-06,0.000
-3.390E-06,-0.080
-3.380E-06,0.000
-3.370E-06,0.000
-3.360E-06,0.000
-3.350E-06,0.000
-3.340E-06,-0.080
-3.330E-06,-0.080
-3.320E-06,0.080
-3.310E-06,0.080
-3.300E-06,-0.080
-3.290E-06,0.000
-3.280E-06,0.000
-3.270E-06,0.080
-3.260E-06,0.080
-3.250E-06,0.080
-3.240E-06,0.080
-3.230E-06,0.080
-3.220E-06,0.160
-3.210E-06,0.000
-3.200E-06,0.000
-3.190E-06,0.160
-3.180E-06,0.160
-3.170E-06,0.000
-3.160E-06,0.080
-3.150E-06,0.080
-3.140E-06,0.160
-3.130E-06,0.080
-3.120E-06,0.080
-3.110E-06,0.000
-3.100E-06,0.080
-3.090E-06,0.080
-3.080E-06,0.080
-3.070E-06,0.000
-3.060E-06,0.160
-3.050E-06,0.000
-3.040E-06,0.000
-3.030E-06,0.080
-3.020E-06,0.000
-3.010E-06,0.000
-3.000E-06,0.080
-2.990E-06,0.160
-2.980E-06,0.000
-2.970E-06,0.000
-2.960E-06,0.080
-2.950E-06,0.000
-2.940E-06,0.080
-2.930E-06,0.080
-2.920E-06,0.000
-2.910E-06,0.080
-2.900E-06,0.160
-2.890E-06,0.160
-2.880E-06,0.080
-2.870E-06,0.160
-2.860E-06,0.240
-2.850E-06,0.000
-2.840E-06,0.000
-2.830E-06,0.160
-2.820E-06,0.240
-2.810E-06,0.160
-2.800E-06,0.160
-2.790E-06,0.160
-2.780E-06,0.160
-2.770E-06,0.160
-2.760E-06,0.160
-2.750E-06,0.000
-2.740E-06,0.080
-2.730E-06,0.080
-2.720E-06,0.000
-2.710E-06,0.160
-2.700E-06,0.000
-2.690E-06,0.000
-2.680E-06,0.080
-2.670E-06,0.080
-2.660E-06,0.080
-2.650E-06,0.080
-2.640E-06,0.080
-2.630E-06,0.080
-2.620E-06,0.160
-2.610E-06,0.000
-2.600E-06,0.000
-2.590E-06,0.080
-2.580E-06,0.000
-2.570E-06,0.080
-2.560E-06,0.080
-2.550E-06,0.080
-2.540E-06,0.080
-2.530E-06,0.080
-2.520E-06,0.080
-2.510E-06,0.080
-2.500E-06,0.080
-2.490E-06,0.240
-2.480E-06,0.080
-2.470E-06,0.080
-2.460E-06,0.080
-2.450E-06,0.000
-2.440E-06,0.080
-2.430E-06,0.080
-2.420E-06,0.080
-2.410E-06,0.080
-2.400E-06,0.000
-2.390E-06,0.000
-2.380E-06,0.080
-2.370E-06,0.080
-2.360E-06,0.080
-2.350E-06,0.080
-2.340E-06,0.000
-2.330E-06,0.080
-2.320E-06,0.000
-2.310E-06,0.000
-2.300E-06,0.160
-2.290E-06,0.000
-2.280E-06,0.000
-2.270E-06,0.080
-2.260E-06,-0.080
-2.250E-06,-0.080
-2.240E-06,0.080
-2.230E-06,-0.080
-2.220E-06,0.080
-2.210E-06,0.080
-2.200E-06,0.080
-2.190E-06,0.000
-2.180E-06,0.000
-2.170E-06,-0.080
-2.160E-06,0.000
-2.150E-06,-0.080
-2.140E-06,0.080
-2.130E-06,0.080
-2.120E-06,0.080
-2.110E-06,0.080
-2.100E-06,0.080
-2.090E-06,0.160
-2.080E-06,0.000
-2.070E-06,0.000
-2.060E-06,0.080
-2.050E-06,0.080
-2.040E-06,0.080
-2.030E-06,0.080
-2.020E-06,0.080
-2.010E-06,0.160
-2.000E-06,0.000
-1.990E-06,0.000
-1.980E-06,0.000
-1.970E-06,0.000
-1.960E-06,0.000
-1.950E-06,0.000
-1.940E-06,0.000
-1.930E-06,0.000
-1.920E-06,-0.080
-1.910E-06,0.000
-1.900E-06,-0.080
-1.890E-06,0.000
-1.880E-06,0.000
-1.870E-06,0.080
-1.860E-06,0.080
-1.850E-06,0.080
-1.840E-06,0.080
-1.830E-06,0.000
-1.820E-06,0.000
-1.810E-06,0.000
-1.800E-06,0.080
-1.790E-06,0.000
-1.780E-06,0.000
-1.770E-06,0.000
-1.760E-06,0.000
-1.750E-06,0.000
-1.740E-06,0.000
-1.730E-06,0.000
-1.720E-06,0.000
-1.710E-06,0.080
-1.700E-06,0.000
-1.690E-06,0.000
-1.680E-06,0.080
-1.670E-06,0.000
-1.660E-06,0.080
-1.650E-06,0.080
-1.640E-06,0.160
-1.630E-06,0.080
-1.620E-06,0.160
-1.610E-06,0.080
-1.600E-06,0.080
-1.590E-06,0.080
-1.580E-06,0.000
-1.570E-06,0.000
-1.560E-06,0.000
-1.550E-06,0.000
-1.540E-06,0.080
-1.530E-06,-0.080
-1.520E-06,0.000
-1.510E-06,0.080
-1.500E-06,0.000
-1.490E-06,0.080
-1.480E-06,0.240
-1.470E-06,0.160
-1.460E-06,0.160
-1.450E-06,-0.080
-1.440E-06,-0.080
-1.430E-06,-0.080
-1.420E-06,-0.080
-1.410E-06,0.000
-1.400E-06,-0.080
-1.390E-06,-0.240
-1.380E-06,-0.160
-1.370E-06,-0.240
-1.360E-06,0.000
-1.350E-06,0.000
-1.340E-06,0.000
-1.330E-06,-0.160
-1.320E-06,-0.080
-1.310E-06,-0.160
-1.300E-06,-0.080
-1.290E-06,0.000
-1.280E-06,0.000
-1.270E-06,0.000
-1.260E-06,0.000
-1.250E-06,0.000
-1.240E-06,-0.080
-1.230E-06,0.080
-1.220E-06,0.160
-1.210E-06,0.240
-1.200E-06,0.080
-1.190E-06,0.080
-1.180E-06,0.080
-1.170E-06,0.080
-1.160E-06,0.000
-1.150E-06,0.080
-1.140E-06,0.080
-1.130E-06,0.080
-1.120E-06,0.080
-1.110E-06,0.080
-1.100E-06,0.000
-1.090E-06,0.000
-1.080E-06,0.000
-1.070E-06,0.000
-1.060E-06,0.000
-1.050E-06,-0.160
-1.040E-06,-0.240
-1.030E-06,-0.240
-1.020E-06,-0.160
-1.010E-06,-0.320
-1.000E-06,-0.320
-9.900E-07,-0.400
-9.800E-07,-0.480
-9.700E-07,-0.480
-9.600E-07,-0.560
-9.500E-07,-0.560
-9.400E-07,-0.560
-9.300E-07,-0.720
-9.200E-07,-0.640
-9.100E-07,-0.640
-9.000E-07,-0.640
-8.900E-07,-0.800
-8.800E-07,-0.800
-8.700E-07,-0.880
-8.600E-07,-0.800
-8.500E-07,-0.800
-8.400E-07,-0.720
-8.300E-07,-0.720
-8.200E-07,-0.240
-8.100E-07,-0.080
-8.000E-07,0.080
-7.900E-07,0.000
-7.800E-07,-0.320
-7.700E-07,-0.160
-7.600E-07,-0.240
-7.500E-07,-0.080
-7.400E-07,0.160
-7.300E-07,-0.080
-7.200E-07,-0.480
-7.100E-07,-0.720
-7.000E-07,-0.560
-6.900E-07,-0.240
-6.800E-07,0.000
-6.700E-07,-0.240
-6.600E-07,-0.240
-6.500E-07,-0.480
-6.400E-07,-0.480
-6.300E-07,-0.240
-6.200E-07,-0.160
-6.100E-07,-0.240
-6.000E-07,-0.240
-5.900E-07,-0.160
-5.800E-07,-0.320
-5.700E-07,-0.320
-5.600E-07,-0.320
-5.500E-07,-0.080
-5.400E-07,-0.080
-5.300E-07,-0.080
-5.200E-07,-0.080
-5.100E-07,-0.080
-5.000E-07,-0.080
-4.900E-07,0.000
-4.800E-07,0.000
-4.700E-07,0.000
-4.600E-07,-0.080
-4.500E-07,-0.080
-4.400E-07,-0.160
-4.300E-07,-0.160
-4.200E-07,-0.080
-4.100E-07,-0.240
-4.000E-07,-0.160
-3.900E-07,-0.080
-3.800E-07,-0.160
-3.700E-07,-0.160
-3.600E-07,-0.160
-3.500E-07,-0.320
-3.400E-07,-0.240
-3.300E-07,-0.080
-3.200E-07,-0.080
-3.100E-07,-0.160
-3.000E-07,-0.080
-2.900E-07,-0.160
-2.800E-07,-0.080
-2.700E-07,-0.240
-2.600E-07,-0.160
-2.500E-07,-0.080
-2.400E-07,-0.080
-2.300E-07,-0.080
-2.200E-07,-0.080
-2.100E-07,-0.080
-2.000E-07,-0.080
-1.900E-07,-0.080
-1.800E-07,-0.080
-1.700E-07,0.000
-1.600E-07,-0.160
-1.500E-07,-0.080
-1.400E-07,-0.160
-1.300E-07,-0.320
-1.200E-07,-0.400
-1.100E-07,-0.400
-1.000E-07,-0.480
-9.000E-08,-0.560
-8.000E-08,-0.560
-7.000E-08,-0.400
-6.000E-08,-0.160
-5.000E-08,0.160
-4.000E-08,0.400
-3.000E-08,0.480
-2.000E-08,0.240
-1.000E-08,-0.320
0.000E+00,-0.560
1.000E-08,-0.720
2.000E-08,-0.640
3.000E-08,-0.720
4.000E-08,-0.800
5.000E-08,-0.880
6.000E-08,-1.040
7.000E-08,-1.040
8.000E-08,-0.880
9.000E-08,-0.720
1.000E-07,-0.640
1.100E-07,-0.640
1.200E-07,-0.720
1.300E-07,-0.720
1.400E-07,-0.800
1.500E-07,-0.800
1.600E-07,-0.960
1.700E-07,-1.120
1.800E-07,-1.200
1.900E-07,-1.280
2.000E-07,-1.520
2.100E-07,-1.680
2.200E-07,-1.760
2.300E-07,-1.680
2.400E-07,-1.840
2.500E-07,-1.920
2.600E-07,-1.920
2.700E-07,-2.160
2.800E-07,-2.080
2.900E-07,-2.240
3.000E-07,-2.320
3.100E-07,-2.400
3.200E-07,-2.480
3.300E-07,-2.560
3.400E-07,-2.400
3.500E-07,-2.400
3.600E-07,-2.320
3.700E-07,-2.240
3.800E-07,-2.240
3.900E-07,-2.240
4.000E-07,-2.400
4.100E-07,-2.320
4.200E-07,-2.320
4.300E-07,-2.400
4.400E-07,-2.480
4.500E-07,-2.240
4.600E-07,-2.160
4.700E-07,-2.080
4.800E-07,-2.160
4.900E-07,-2.400
5.000E-07,-2.480
5.100E-07,-2.640
5.200E-07,-2.640
5.300E-07,-2.720
5.400E-07,-2.640
5.500E-07,-2.560
5.600E-07,-2.400
5.700E-07,-2.560
5.800E-07,-2.400
5.900E-07,-2.320
6.000E-07,-2.480
6.100E-07,-2.480
6.200E-07,-2.400
6.300E-07,-2.400
6.400E-07,-2.480
6.500E-07,-2.720
6.600E-07,-2.800
6.700E-07,-2.960
6.800E-07,-3.200
6.900E-07,-3.280
7.000E-07,-3.280
7.100E-07,-3.360
7.200E-07,-3.600
7.300E-07,-3.520
7.400E-07,-2.960
7.500E-07,-2.800
7.600E-07,-2.240
7.700E-07,-2.080
7.800E-07,-1.760
7.900E-07,-1.200
8.000E-07,-0.960
8.100E-07,-0.560
8.200E-07,-0.480
8.300E-07,-0.720
8.400E-07,-0.960
8.500E-07,-0.720
8.600E-07,-0.880
8.700E-07,-0.640
8.800E-07,-0.800
8.900E-07,-1.040
9.000E-07,-1.280
9.100E-07,-1.280
9.200E-07,-1.360
9.300E-07,-1.360
9.400E-07,-1.440
9.500E-07,-1.440
9.600E-07,-1.440
9.700E-07,-1.520
9.800E-07,-1.520
9.900E-07,-1.520
1.000E-06,-1.520
1.010E-06,-1.520
1.020E-06,-1.600
1.030E-06,-1.600
1.040E-06,-1.280
1.050E-06,-1.360
1.060E-06,-1.200
1.070E-06,-0.960
1.080E-06,-0.720
1.090E-06,-0.480
1.100E-06,-0.080
1.110E-06,0.000
1.120E-06,0.000
1.130E-06,0.160
1.140E-06,0.240
1.150E-06,0.240
1.160E-06,0.320
1.170E-06,0.240
1.180E-06,-0.080
1.190E-06,-0.160
1.200E-06,-0.560
1.210E-06,-0.640
1.220E-06,-0.880
1.230E-06,-1.040
1.240E-06,-1.120
1.250E-06,-1.120
1.260E-06,-1.200
1.270E-06,-1.200
1.280E-06,-1.040
1.290E-06,-1.040
1.300E-06,-0.960
1.310E-06,-0.880
1.320E-06,-0.800
1.330E-06,-0.720
1.340E-06,-0.480
1.350E-06,-0.480
1.360E-06,-0.240
1.370E-06,-0.400
1.380E-06,-0.160
1.390E-06,-0.240
1.400E-06,0.080
1.410E-06,0.320
1.420E-06,0.640
1.430E-06,0.800
1.440E-06,0.640
1.450E-06,0.800
1.460E-06,0.640
1.470E-06,0.480
1.480E-06,0.240
1.490E-06,-0.080
1.500E-06,-0.160
1.510E-06,-0.320
1.520E-06,-0.640
1.530E-06,-0.720
1.540E-06,-0.880
1.550E-06,-0.800
1.560E-06,-0.880
1.570E-06,-0.800
1.580E-06,-0.960
1.590E-06,-0.880
1.600E-06,-1.120
1.610E-06,-1.360
1.620E-06,-1.600
1.630E-06,-1.680
1.640E-06,-1.760
1.650E-06,-1.760
1.660E-06,-1.360
1.670E-06,-0.960
1.680E-06,-0.240
1.690E-06,0.160
1.700E-06,0.640
1.710E-06,0.880
1.720E-06,1.040
1.730E-06,0.800
1.740E-06,0.640
1.750E-06,0.240
1.760E-06,0.000
1.770E-06,-0.480
1.780E-06,-0.800
1.790E-06,-1.040
1.800E-06,-1.280
1.810E-06,-1.360
1.820E-06,-1.360
1.830E-06,-1.360
1.840E-06,-1.120
1.850E-06,-1.120
1.860E-06,-0.960
1.870E-06,-0.640
1.880E-06,-0.480
1.890E-06,-0.320
1.900E-06,0.000
1.910E-06,0.000
1.920E-06,0.320
1.930E-06,0.320
1.940E-06,0.320
1.950E-06,0.240
1.960E-06,0.400
1.970E-06,0.480
1.980E-06,0.560
1.990E-06,0.240
2.000E-06,0.320
2.010E-06,0.000
2.020E-06,-0.080
2.030E-06,-0.320
2.040E-06,-0.560
2.050E-06,-0.720
2.060E-06,-0.960
2.070E-06,-1.200
2.080E-06,-1.440
2.090E-06,-1.600
2.100E-06,-1.680
2.110E-06,-1.760
2.120E-06,-1.840
2.130E-06,-1.760
2.140E-06,-1.680
2.150E-06,-1.680
2.160E-06,-1.680
2.170E-06,-1.520
2.180E-06,-1.360
2.190E-06,-1.280
2.200E-06,-1.360
2.210E-06,-1.200
2.220E-06,-1.200
2.230E-06,-1.120
2.240E-06,-1.040
2.250E-06,-1.040
2.260E-06,-1.040
2.270E-06,-0.960
2.280E-06,-1.040
2.290E-06,-1.040
2.300E-06,-1.120
2.310E-06,-1.040
2.320E-06,-1.200
2.330E-06,-1.200
2.340E-06,-1.520
2.350E-06,-1.440
2.360E-06,-1.600
2.370E-06,-1.680
2.380E-06,-2.080
2.390E-06,-2.320
2.400E-06,-2.560
2.410E-06,-2.800
2.420E-06,-3.200
2.430E-06,-3.360
2.440E-06,-3.280
2.450E-06,-3.440
2.460E-06,-3.360
2.470E-06,-3.280
2.480E-06,-3.200
2.490E-06,-2.960
2.500E-06,-2.880
2.510E-06,-2.560
2.520E-06,-2.080
2.530E-06,-1.840
2.540E-06,-1.280
2.550E-06,-0.960
2.560E-06,-0.560
2.570E-06,-0.160
2.580E-06,0.160
2.590E-06,0.160
2.600E-06,0.320
2.610E-06,0.240
2.620E-06,0.320
2.630E-06,-0.080
2.640E-06,-0.080
2.650E-06,-0.480
2.660E-06,-0.560
2.670E-06,-0.880
2.680E-06,-0.960
2.690E-06,-1.200
2.700E-06,-1.360
2.710E-06,-1.520
2.720E-06,-1.680
2.730E-06,-1.840
2.740E-06,-1.680
2.750E-06,-1.760
2.760E-06,-1.680
2.770E-06,-1.760
2.780E-06,-1.360
2.790E-06,-1.520
2.800E-06,-1.360
2.810E-06,-1.280
2.820E-06,-1.120
2.830E-06,-0.880
2.840E-06,-0.640
2.850E-06,-0.720
2.860E-06,-0.480
2.870E-06,-0.320
2.880E-06,0.160
2.890E-06,0.560
2.900E-06,1.120
2.910E-06,1.680
2.920E-06,1.920
2.930E-06,2.080
2.940E-06,2.080
2.950E-06,1.840
2.960E-06,1.280
2.970E-06,0.640
2.980E-06,0.000
2.990E-06,-0.800
3.000E-06,-1.440
3.010E-06,-1.760
3.020E-06,-2.080
3.030E-06,-2.240
3.040E-06,-2.480
3.050E-06,-2.480
3.060E-06,-2.480
3.070E-06,-2.320
3.080E-06,-2.400
3.090E-06,-2.480
3.100E-06,-2.320
3.110E-06,-2.240
3.120E-06,-2.240
3.130E-06,-2.080
3.140E-06,-1.760
3.150E-06,-1.680
3.160E-06,-1.120
3.170E-06,-0.960
3.180E-06,-0.560
3.190E-06,-0.320
3.200E-06,0.000
3.210E-06,0.320
3.220E-06,0.320
