mediciones/5-15/25/WaveData47418.csv

#timebase=2000000(ps)
,#voltbase=500000(mv/100)
#size=4000
-8.400E-06,-0.520
-8.390E-06,-0.640
-8.380E-06,-0.680
-8.370E-06,-0.560
-8.360E-06,-0.460
-8.350E-06,-0.560
-8.340E-06,-0.640
-8.330E-06,-0.700
-8.320E-06,-0.660
-8.310E-06,-0.420
-8.300E-06,-0.140
-8.290E-06,0.000
-8.280E-06,0.100
-8.270E-06,0.140
-8.260E-06,0.080
-8.250E-06,0.080
-8.240E-06,0.120
-8.230E-06,0.160
-8.220E-06,0.260
-8.210E-06,0.260
-8.200E-06,0.260
-8.190E-06,0.280
-8.180E-06,0.420
-8.170E-06,0.480
-8.160E-06,0.520
-8.150E-06,0.560
-8.140E-06,0.480
-8.130E-06,0.580
-8.120E-06,0.460
-8.110E-06,0.420
-8.100E-06,0.340
-8.090E-06,0.260
-8.080E-06,0.180
-8.070E-06,0.040
-8.060E-06,-0.100
-8.050E-06,-0.240
-8.040E-06,-0.340
-8.030E-06,-0.420
-8.020E-06,-0.340
-8.010E-06,-0.380
-8.000E-06,-0.340
-7.990E-06,0.020
-7.980E-06,0.060
-7.970E-06,0.240
-7.960E-06,0.080
-7.950E-06,-0.180
-7.940E-06,-0.400
-7.930E-06,-0.460
-7.920E-06,-0.280
-7.910E-06,-0.240
-7.900E-06,-0.200
-7.890E-06,-0.400
-7.880E-06,-0.760
-7.870E-06,-0.660
-7.860E-06,-0.720
-7.850E-06,-0.360
-7.840E-06,-0.080
-7.830E-06,0.300
-7.820E-06,0.180
-7.810E-06,0.500
-7.800E-06,0.180
-7.790E-06,0.180
-7.780E-06,0.020
-7.770E-06,-0.100
-7.760E-06,-0.100
-7.750E-06,-0.100
-7.740E-06,-0.380
-7.730E-06,-0.500
-7.720E-06,-0.640
-7.710E-06,-0.640
-7.700E-06,-0.580
-7.690E-06,-0.600
-7.680E-06,-0.420
-7.670E-06,-0.380
-7.660E-06,-0.140
-7.650E-06,0.020
-7.640E-06,0.200
-7.630E-06,0.260
-7.620E-06,0.340
-7.610E-06,0.340
-7.600E-06,0.360
-7.590E-06,0.460
-7.580E-06,0.580
-7.570E-06,0.620
-7.560E-06,0.640
-7.550E-06,0.420
-7.540E-06,0.320
-7.530E-06,0.260
-7.520E-06,0.260
-7.510E-06,0.380
-7.500E-06,0.440
-7.490E-06,0.320
-7.480E-06,0.160
-7.470E-06,0.060
-7.460E-06,0.000
-7.450E-06,0.080
-7.440E-06,0.140
-7.430E-06,0.040
-7.420E-06,-0.040
-7.410E-06,-0.060
-7.400E-06,-0.180
-7.390E-06,0.040
-7.380E-06,0.080
-7.370E-06,0.320
-7.360E-06,0.360
-7.350E-06,0.340
-7.340E-06,0.260
-7.330E-06,0.180
-7.320E-06,0.240
-7.310E-06,0.320
-7.300E-06,0.400
-7.290E-06,0.300
-7.280E-06,0.180
-7.270E-06,0.160
-7.260E-06,0.140
-7.250E-06,0.120
-7.240E-06,0.000
-7.230E-06,-0.240
-7.220E-06,-0.320
-7.210E-06,-0.420
-7.200E-06,-0.420
-7.190E-06,-0.360
-7.180E-06,-0.400
-7.170E-06,-0.580
-7.160E-06,-0.660
-7.150E-06,-0.800
-7.140E-06,-0.660
-7.130E-06,-0.660
-7.120E-06,-0.480
-7.110E-06,-0.340
-7.100E-06,-0.180
-7.090E-06,-0.260
-7.080E-06,-0.020
-7.070E-06,-0.180
-7.060E-06,0.080
-7.050E-06,0.160
-7.040E-06,0.220
-7.030E-06,0.200
-7.020E-06,0.080
-7.010E-06,-0.020
-7.000E-06,0.000
-6.990E-06,0.180
-6.980E-06,0.200
-6.970E-06,0.280
-6.960E-06,0.300
-6.950E-06,0.400
-6.940E-06,0.420
-6.930E-06,0.720
-6.920E-06,0.620
-6.910E-06,0.680
-6.900E-06,0.560
-6.890E-06,0.560
-6.880E-06,0.460
-6.870E-06,0.460
-6.860E-06,0.360
-6.850E-06,0.420
-6.840E-06,0.360
-6.830E-06,0.280
-6.820E-06,0.240
-6.810E-06,0.100
-6.800E-06,0.020
-6.790E-06,-0.040
-6.780E-06,-0.100
-6.770E-06,-0.200
-6.760E-06,-0.320
-6.750E-06,-0.420
-6.740E-06,-0.460
-6.730E-06,-0.500
-6.720E-06,-0.480
-6.710E-06,-0.540
-6.700E-06,-0.560
-6.690E-06,-0.500
-6.680E-06,-0.380
-6.670E-06,-0.300
-6.660E-06,-0.220
-6.650E-06,-0.140
-6.640E-06,-0.080
-6.630E-06,0.000
-6.620E-06,0.020
-6.610E-06,0.060
-6.600E-06,0.120
-6.590E-06,0.180
-6.580E-06,0.260
-6.570E-06,0.300
-6.560E-06,0.320
-6.550E-06,0.380
-6.540E-06,0.360
-6.530E-06,0.420
-6.520E-06,0.440
-6.510E-06,0.480
-6.500E-06,0.480
-6.490E-06,0.460
-6.480E-06,0.420
-6.470E-06,0.380
-6.460E-06,0.380
-6.450E-06,0.340
-6.440E-06,0.220
-6.430E-06,0.080
-6.420E-06,-0.080
-6.410E-06,-0.160
-6.400E-06,-0.280
-6.390E-06,-0.300
-6.380E-06,-0.340
-6.370E-06,-0.340
-6.360E-06,-0.380
-6.350E-06,-0.360
-6.340E-06,-0.340
-6.330E-06,-0.320
-6.320E-06,-0.280
-6.310E-06,-0.240
-6.300E-06,-0.200
-6.290E-06,-0.180
-6.280E-06,-0.100
-6.270E-06,-0.080
-6.260E-06,-0.060
-6.250E-06,-0.040
-6.240E-06,-0.020
-6.230E-06,0.100
-6.220E-06,0.200
-6.210E-06,0.320
-6.200E-06,0.360
-6.190E-06,0.380
-6.180E-06,0.380
-6.170E-06,0.300
-6.160E-06,0.260
-6.150E-06,0.240
-6.140E-06,0.200
-6.130E-06,0.100
-6.120E-06,0.140
-6.110E-06,0.040
-6.100E-06,0.120
-6.090E-06,0.020
-6.080E-06,0.000
-6.070E-06,-0.060
-6.060E-06,-0.020
-6.050E-06,-0.020
-6.040E-06,0.080
-6.030E-06,0.080
-6.020E-06,0.120
-6.010E-06,0.160
-6.000E-06,0.180
-5.990E-06,0.180
-5.980E-06,0.180
-5.970E-06,0.140
-5.960E-06,0.080
-5.950E-06,0.060
-5.940E-06,0.000
-5.930E-06,-0.060
-5.920E-06,-0.060
-5.910E-06,-0.080
-5.900E-06,-0.120
-5.890E-06,-0.160
-5.880E-06,-0.240
-5.870E-06,-0.260
-5.860E-06,-0.320
-5.850E-06,-0.240
-5.840E-06,-0.240
-5.830E-06,-0.240
-5.820E-06,-0.320
-5.810E-06,-0.280
-5.800E-06,-0.400
-5.790E-06,-0.540
-5.780E-06,-0.780
-5.770E-06,-1.000
-5.760E-06,-1.080
-5.750E-06,-1.120
-5.740E-06,-1.100
-5.730E-06,-1.180
-5.720E-06,-1.420
-5.710E-06,-1.460
-5.700E-06,-1.640
-5.690E-06,-1.520
-5.680E-06,-1.400
-5.670E-06,-1.260
-5.660E-06,-1.180
-5.650E-06,-1.180
-5.640E-06,-1.200
-5.630E-06,-1.120
-5.620E-06,-1.160
-5.610E-06,-1.060
-5.600E-06,-1.140
-5.590E-06,-1.200
-5.580E-06,-1.140
-5.570E-06,-1.100
-5.560E-06,-1.080
-5.550E-06,-0.940
-5.540E-06,-1.020
-5.530E-06,-0.760
-5.520E-06,-0.800
-5.510E-06,-0.580
-5.500E-06,-0.300
-5.490E-06,0.560
-5.480E-06,0.520
-5.470E-06,1.000
-5.460E-06,0.660
-5.450E-06,0.040
-5.440E-06,-0.140
-5.430E-06,-0.520
-5.420E-06,-0.620
-5.410E-06,-0.640
-5.400E-06,-1.020
-5.390E-06,-1.280
-5.380E-06,-1.380
-5.370E-06,-1.380
-5.360E-06,-1.240
-5.350E-06,-1.140
-5.340E-06,-1.080
-5.330E-06,-1.060
-5.320E-06,-0.820
-5.310E-06,-0.600
-5.300E-06,-0.440
-5.290E-06,-0.340
-5.280E-06,-0.240
-5.270E-06,-0.140
-5.260E-06,0.120
-5.250E-06,0.460
-5.240E-06,0.700
-5.230E-06,1.180
-5.220E-06,1.300
-5.210E-06,1.560
-5.200E-06,1.520
-5.190E-06,1.520
-5.180E-06,1.380
-5.170E-06,1.400
-5.160E-06,1.200
-5.150E-06,1.040
-5.140E-06,0.640
-5.130E-06,0.380
-5.120E-06,0.020
-5.110E-06,-0.140
-5.100E-06,-0.300
-5.090E-06,-0.480
-5.080E-06,-0.720
-5.070E-06,-0.980
-5.060E-06,-1.080
-5.050E-06,-1.100
-5.040E-06,-1.000
-5.030E-06,-0.800
-5.020E-06,-0.660
-5.010E-06,-0.600
-5.000E-06,-0.420
-4.990E-06,-0.340
-4.980E-06,-0.020
-4.970E-06,0.180
-4.960E-06,0.360
-4.950E-06,0.340
-4.940E-06,0.260
-4.930E-06,0.140
-4.920E-06,0.140
-4.910E-06,0.220
-4.900E-06,0.320
-4.890E-06,0.420
-4.880E-06,0.340
-4.870E-06,0.420
-4.860E-06,0.320
-4.850E-06,0.440
-4.840E-06,0.340
-4.830E-06,0.340
-4.820E-06,0.160
-4.810E-06,0.120
-4.800E-06,-0.020
-4.790E-06,-0.100
-4.780E-06,-0.060
-4.770E-06,-0.040
-4.760E-06,0.020
-4.750E-06,0.180
-4.740E-06,0.020
-4.730E-06,0.020
-4.720E-06,-0.120
-4.710E-06,-0.220
-4.700E-06,-0.140
-4.690E-06,-0.260
-4.680E-06,-0.380
-4.670E-06,-0.580
-4.660E-06,-0.700
-4.650E-06,-0.800
-4.640E-06,-0.720
-4.630E-06,-0.800
-4.620E-06,-0.780
-4.610E-06,-0.760
-4.600E-06,-0.720
-4.590E-06,-0.560
-4.580E-06,-0.480
-4.570E-06,-0.340
-4.560E-06,-0.340
-4.550E-06,-0.120
-4.540E-06,-0.020
-4.530E-06,0.120
-4.520E-06,0.220
-4.510E-06,0.480
-4.500E-06,0.520
-4.490E-06,0.800
-4.480E-06,0.720
-4.470E-06,0.760
-4.460E-06,0.700
-4.450E-06,0.620
-4.440E-06,0.480
-4.430E-06,0.380
-4.420E-06,0.160
-4.410E-06,0.120
-4.400E-06,0.040
-4.390E-06,0.020
-4.380E-06,0.080
-4.370E-06,0.160
-4.360E-06,0.200
-4.350E-06,0.240
-4.340E-06,0.200
-4.330E-06,0.140
-4.320E-06,0.040
-4.310E-06,0.140
-4.300E-06,0.160
-4.290E-06,0.300
-4.280E-06,0.420
-4.270E-06,0.400
-4.260E-06,0.400
-4.250E-06,0.280
-4.240E-06,0.340
-4.230E-06,0.340
-4.220E-06,0.360
-4.210E-06,0.220
-4.200E-06,0.080
-4.190E-06,-0.020
-4.180E-06,-0.180
-4.170E-06,-0.240
-4.160E-06,-0.360
-4.150E-06,-0.500
-4.140E-06,-0.540
-4.130E-06,-0.600
-4.120E-06,-0.560
-4.110E-06,-0.540
-4.100E-06,-0.420
-4.090E-06,-0.460
-4.080E-06,-0.380
-4.070E-06,-0.400
-4.060E-06,-0.380
-4.050E-06,-0.220
-4.040E-06,0.080
-4.030E-06,-0.020
-4.020E-06,0.340
-4.010E-06,0.100
-4.000E-06,0.220
-3.990E-06,0.460
-3.980E-06,0.440
-3.970E-06,0.520
-3.960E-06,0.440
-3.950E-06,0.260
-3.940E-06,0.040
-3.930E-06,-0.020
-3.920E-06,-0.060
-3.910E-06,-0.240
-3.900E-06,-0.220
-3.890E-06,-0.400
-3.880E-06,-0.400
-3.870E-06,-0.060
-3.860E-06,0.480
-3.850E-06,0.660
-3.840E-06,0.920
-3.830E-06,0.660
-3.820E-06,-0.120
-3.810E-06,-0.500
-3.800E-06,-1.120
-3.790E-06,-1.240
-3.780E-06,-1.340
-3.770E-06,-1.620
-3.760E-06,-1.800
-3.750E-06,-2.000
-3.740E-06,-1.880
-3.730E-06,-1.720
-3.720E-06,-1.540
-3.710E-06,-1.420
-3.700E-06,-1.180
-3.690E-06,-1.020
-3.680E-06,-0.600
-3.670E-06,-0.140
-3.660E-06,0.320
-3.650E-06,0.420
-3.640E-06,0.520
-3.630E-06,0.240
-3.620E-06,0.140
-3.610E-06,-0.020
-3.600E-06,-0.040
-3.590E-06,0.020
-3.580E-06,-0.060
-3.570E-06,-0.180
-3.560E-06,-0.280
-3.550E-06,-0.260
-3.540E-06,-0.140
-3.530E-06,-0.020
-3.520E-06,0.040
-3.510E-06,0.040
-3.500E-06,0.100
-3.490E-06,0.240
-3.480E-06,0.340
-3.470E-06,0.400
-3.460E-06,0.420
-3.450E-06,0.420
-3.440E-06,0.300
-3.430E-06,0.200
-3.420E-06,0.100
-3.410E-06,0.020
-3.400E-06,0.020
-3.390E-06,0.060
-3.380E-06,0.120
-3.370E-06,0.180
-3.360E-06,0.240
-3.350E-06,0.280
-3.340E-06,0.340
-3.330E-06,0.380
-3.320E-06,0.520
-3.310E-06,0.600
-3.300E-06,0.800
-3.290E-06,0.840
-3.280E-06,1.020
-3.270E-06,1.160
-3.260E-06,1.260
-3.250E-06,1.360
-3.240E-06,1.180
-3.230E-06,1.020
-3.220E-06,0.840
-3.210E-06,0.820
-3.200E-06,0.700
-3.190E-06,0.860
-3.180E-06,0.740
-3.170E-06,0.640
-3.160E-06,0.380
-3.150E-06,0.340
-3.140E-06,0.220
-3.130E-06,0.160
-3.120E-06,0.000
-3.110E-06,-0.300
-3.100E-06,-0.440
-3.090E-06,-0.700
-3.080E-06,-0.840
-3.070E-06,-1.040
-3.060E-06,-1.360
-3.050E-06,-1.560
-3.040E-06,-1.700
-3.030E-06,-1.840
-3.020E-06,-1.860
-3.010E-06,-1.940
-3.000E-06,-1.960
-2.990E-06,-1.920
-2.980E-06,-1.840
-2.970E-06,-1.740
-2.960E-06,-1.580
-2.950E-06,-1.400
-2.940E-06,-1.240
-2.930E-06,-1.020
-2.920E-06,-0.840
-2.910E-06,-0.580
-2.900E-06,-0.420
-2.890E-06,-0.260
-2.880E-06,-0.120
-2.870E-06,0.060
-2.860E-06,0.240
-2.850E-06,0.460
-2.840E-06,0.720
-2.830E-06,1.080
-2.820E-06,1.400
-2.810E-06,1.820
-2.800E-06,1.880
-2.790E-06,2.260
-2.780E-06,2.040
-2.770E-06,2.120
-2.760E-06,1.920
-2.750E-06,2.280
-2.740E-06,2.220
-2.730E-06,2.440
-2.720E-06,1.760
-2.710E-06,1.380
-2.700E-06,0.520
-2.690E-06,0.060
-2.680E-06,-0.480
-2.670E-06,-0.860
-2.660E-06,-1.320
-2.650E-06,-1.900
-2.640E-06,-2.140
-2.630E-06,-2.260
-2.620E-06,-2.120
-2.610E-06,-1.940
-2.600E-06,-1.860
-2.590E-06,-1.840
-2.580E-06,-1.700
-2.570E-06,-1.520
-2.560E-06,-1.160
-2.550E-06,-0.880
-2.540E-06,-0.500
-2.530E-06,-0.360
-2.520E-06,-0.220
-2.510E-06,0.020
-2.500E-06,0.020
-2.490E-06,0.200
-2.480E-06,0.260
-2.470E-06,0.320
-2.460E-06,0.160
-2.450E-06,0.120
-2.440E-06,0.080
-2.430E-06,0.480
-2.420E-06,0.800
-2.410E-06,1.120
-2.400E-06,1.240
-2.390E-06,1.040
-2.380E-06,0.760
-2.370E-06,0.120
-2.360E-06,-0.540
-2.350E-06,-1.040
-2.340E-06,-1.580
-2.330E-06,-1.660
-2.320E-06,-1.840
-2.310E-06,-1.800
-2.300E-06,-1.880
-2.290E-06,-1.660
-2.280E-06,-1.500
-2.270E-06,-1.220
-2.260E-06,-1.020
-2.250E-06,-0.860
-2.240E-06,-0.620
-2.230E-06,-0.300
-2.220E-06,0.220
-2.210E-06,0.920
-2.200E-06,1.620
-2.190E-06,2.340
-2.180E-06,2.760
-2.170E-06,2.760
-2.160E-06,2.740
-2.150E-06,2.760
-2.140E-06,2.760
-2.130E-06,2.740
-2.120E-06,2.760
-2.110E-06,2.620
-2.100E-06,1.620
-2.090E-06,0.940
-2.080E-06,0.180
-2.070E-06,-0.440
-2.060E-06,-1.260
-2.050E-06,-1.860
-2.040E-06,-2.580
-2.030E-06,-2.660
-2.020E-06,-2.660
-2.010E-06,-2.660
-2.000E-06,-2.660
-1.990E-06,-2.660
-1.980E-06,-2.660
-1.970E-06,-2.560
-1.960E-06,-2.200
-1.950E-06,-1.760
-1.940E-06,-1.440
-1.930E-06,-1.040
-1.920E-06,-0.780
-1.910E-06,-0.600
-1.900E-06,-0.380
-1.890E-06,-0.200
-1.880E-06,-0.040
-1.870E-06,-0.060
-1.860E-06,0.020
-1.850E-06,-0.120
-1.840E-06,0.020
-1.830E-06,0.060
-1.820E-06,0.740
-1.810E-06,1.000
-1.800E-06,1.600
-1.790E-06,1.800
-1.780E-06,1.760
-1.770E-06,1.660
-1.760E-06,1.360
-1.750E-06,1.140
-1.740E-06,0.940
-1.730E-06,0.440
-1.720E-06,-0.280
-1.710E-06,-1.160
-1.700E-06,-1.920
-1.690E-06,-2.500
-1.680E-06,-2.640
-1.670E-06,-2.640
-1.660E-06,-2.660
-1.650E-06,-2.640
-1.640E-06,-2.280
-1.630E-06,-1.860
-1.620E-06,-1.300
-1.610E-06,-0.960
-1.600E-06,-0.540
-1.590E-06,-0.380
-1.580E-06,-0.220
-1.570E-06,-0.100
-1.560E-06,-0.020
-1.550E-06,-0.080
-1.540E-06,-0.180
-1.530E-06,-0.340
-1.520E-06,-0.380
-1.510E-06,-0.340
-1.500E-06,-0.340
-1.490E-06,-0.340
-1.480E-06,-0.320
-1.470E-06,-0.200
-1.460E-06,-0.160
-1.450E-06,-0.080
-1.440E-06,-0.020
-1.430E-06,0.000
-1.420E-06,0.080
-1.410E-06,0.000
-1.400E-06,-0.180
-1.390E-06,-0.420
-1.380E-06,-0.460
-1.370E-06,-0.320
-1.360E-06,-0.020
-1.350E-06,0.420
-1.340E-06,0.820
-1.330E-06,0.600
-1.320E-06,0.740
-1.310E-06,0.380
-1.300E-06,0.560
-1.290E-06,0.460
-1.280E-06,0.380
-1.270E-06,0.220
-1.260E-06,-0.140
-1.250E-06,-0.320
-1.240E-06,-0.360
-1.230E-06,-0.680
-1.220E-06,-0.720
-1.210E-06,-0.960
-1.200E-06,-1.080
-1.190E-06,-1.160
-1.180E-06,-1.100
-1.170E-06,-1.220
-1.160E-06,-1.120
-1.150E-06,-1.120
-1.140E-06,-1.060
-1.130E-06,-0.860
-1.120E-06,-0.720
-1.110E-06,-0.640
-1.100E-06,-0.560
-1.090E-06,-0.520
-1.080E-06,-0.500
-1.070E-06,-0.380
-1.060E-06,-0.300
-1.050E-06,-0.220
-1.040E-06,-0.120
-1.030E-06,-0.040
-1.020E-06,0.000
-1.010E-06,0.060
-1.000E-06,0.160
-9.900E-07,0.460
-9.800E-07,1.000
-9.700E-07,1.360
-9.600E-07,1.760
-9.500E-07,1.600
-9.400E-07,1.420
-9.300E-07,1.200
-9.200E-07,1.000
-9.100E-07,0.900
-9.000E-07,0.840
-8.900E-07,0.300
-8.800E-07,0.060
-8.700E-07,-0.580
-8.600E-07,-0.760
-8.500E-07,-0.960
-8.400E-07,-1.020
-8.300E-07,-1.180
-8.200E-07,-1.120
-8.100E-07,-1.060
-8.000E-07,-0.900
-7.900E-07,-0.760
-7.800E-07,-0.700
-7.700E-07,-0.700
-7.600E-07,-0.680
-7.500E-07,-0.640
-7.400E-07,-0.600
-7.300E-07,-0.540
-7.200E-07,-0.580
-7.100E-07,-0.640
-7.000E-07,-0.640
-6.900E-07,-0.600
-6.800E-07,-0.500
-6.700E-07,-0.400
-6.600E-07,-0.260
-6.500E-07,-0.160
-6.400E-07,-0.060
-6.300E-07,0.000
-6.200E-07,0.020
-6.100E-07,0.100
-6.000E-07,0.200
-5.900E-07,0.200
-5.800E-07,0.160
-5.700E-07,0.100
-5.600E-07,-0.140
-5.500E-07,-0.500
-5.400E-07,-0.840
-5.300E-07,-1.220
-5.200E-07,-1.600
-5.100E-07,-1.940
-5.000E-07,-2.100
-4.900E-07,-2.220
-4.800E-07,-2.100
-4.700E-07,-1.880
-4.600E-07,-1.680
-4.500E-07,-1.400
-4.400E-07,-1.320
-4.300E-07,-1.260
-4.200E-07,-1.200
-4.100E-07,-1.180
-4.000E-07,-1.220
-3.900E-07,-1.280
-3.800E-07,-1.400
-3.700E-07,-1.480
-3.600E-07,-1.520
-3.500E-07,-1.560
-3.400E-07,-1.600
-3.300E-07,-1.660
-3.200E-07,-1.700
-3.100E-07,-1.760
-3.000E-07,-1.800
-2.900E-07,-1.780
-2.800E-07,-1.780
-2.700E-07,-1.760
-2.600E-07,-1.700
-2.500E-07,-1.640
-2.400E-07,-1.600
-2.300E-07,-1.600
-2.200E-07,-1.560
-2.100E-07,-1.480
-2.000E-07,-1.420
-1.900E-07,-1.320
-1.800E-07,-1.220
-1.700E-07,-1.100
-1.600E-07,-0.960
-1.500E-07,-0.760
-1.400E-07,-0.580
-1.300E-07,-0.360
-1.200E-07,-0.220
-1.100E-07,-0.100
-1.000E-07,0.040
-9.000E-08,0.120
-8.000E-08,0.340
-7.000E-08,0.220
-6.000E-08,0.460
-5.000E-08,1.280
-4.000E-08,1.340
-3.000E-08,2.780
-2.000E-08,1.660
-1.000E-08,2.040
0.000E+00,0.760
1.000E-08,0.000
2.000E-08,0.060
3.000E-08,0.740
4.000E-08,2.120
5.000E-08,2.240
6.000E-08,2.220
7.000E-08,0.620
8.000E-08,-0.280
9.000E-08,-1.180
1.000E-07,-1.760
1.100E-07,-2.080
1.200E-07,-2.220
1.300E-07,-2.520
1.400E-07,-2.440
1.500E-07,-2.420
1.600E-07,-1.820
1.700E-07,-1.400
1.800E-07,-1.180
1.900E-07,-0.820
2.000E-07,-0.620
2.100E-07,-0.220
2.200E-07,0.020
2.300E-07,0.000
2.400E-07,-0.500
2.500E-07,-0.760
2.600E-07,-0.960
2.700E-07,-1.080
2.800E-07,-1.180
2.900E-07,-1.620
3.000E-07,-1.940
3.100E-07,-2.140
3.200E-07,-2.100
3.300E-07,-2.040
3.400E-07,-1.760
3.500E-07,-1.420
3.600E-07,-0.940
3.700E-07,-0.500
3.800E-07,-0.160
3.900E-07,0.100
4.000E-07,0.220
4.100E-07,0.220
4.200E-07,0.060
4.300E-07,-0.220
4.400E-07,-0.820
4.500E-07,-1.600
4.600E-07,-2.460
4.700E-07,-2.660
4.800E-07,-2.660
4.900E-07,-2.640
5.000E-07,-2.640
5.100E-07,-2.640
5.200E-07,-2.640
5.300E-07,-2.400
5.400E-07,-1.580
5.500E-07,-0.700
5.600E-07,0.160
5.700E-07,0.980
5.800E-07,1.700
5.900E-07,2.200
6.000E-07,2.540
6.100E-07,2.720
6.200E-07,2.760
6.300E-07,2.680
6.400E-07,2.540
6.500E-07,2.360
6.600E-07,2.160
6.700E-07,1.980
6.800E-07,1.840
6.900E-07,1.720
7.000E-07,1.560
7.100E-07,1.360
7.200E-07,1.180
7.300E-07,0.960
7.400E-07,0.820
7.500E-07,0.680
7.600E-07,0.520
7.700E-07,0.420
7.800E-07,0.180
7.900E-07,0.000
8.000E-07,-0.120
8.100E-07,-0.180
8.200E-07,-0.220
8.300E-07,-0.160
8.400E-07,0.000
8.500E-07,0.240
8.600E-07,0.480
8.700E-07,0.860
8.800E-07,1.360
8.900E-07,1.800
9.000E-07,2.320
9.100E-07,2.620
9.200E-07,2.780
9.300E-07,2.760
9.400E-07,2.700
9.500E-07,2.380
9.600E-07,2.020
9.700E-07,1.640
9.800E-07,0.940
9.900E-07,0.400
1.000E-06,-0.500
1.010E-06,-1.020
1.020E-06,-1.560
1.030E-06,-1.600
1.040E-06,-1.760
1.050E-06,-1.520
1.060E-06,-1.440
1.070E-06,-1.200
1.080E-06,-0.920
1.090E-06,-0.700
1.100E-06,-0.480
1.110E-06,-0.420
1.120E-06,-0.420
1.130E-06,-0.420
1.140E-06,-0.420
1.150E-06,-0.460
1.160E-06,-0.500
1.170E-06,-0.480
1.180E-06,-0.420
1.190E-06,-0.340
1.200E-06,-0.160
1.210E-06,-0.020
1.220E-06,0.200
1.230E-06,0.380
1.240E-06,0.480
1.250E-06,0.560
1.260E-06,0.600
1.270E-06,0.620
1.280E-06,0.560
1.290E-06,0.500
1.300E-06,0.420
1.310E-06,0.340
1.320E-06,0.240
1.330E-06,0.100
1.340E-06,0.000
1.350E-06,-0.140
1.360E-06,-0.260
1.370E-06,-0.360
1.380E-06,-0.480
1.390E-06,-0.600
1.400E-06,-0.780
1.410E-06,-0.920
1.420E-06,-1.140
1.430E-06,-1.380
1.440E-06,-1.620
1.450E-06,-1.860
1.460E-06,-2.060
1.470E-06,-2.260
1.480E-06,-2.440
1.490E-06,-2.560
1.500E-06,-2.640
1.510E-06,-2.660
1.520E-06,-2.660
1.530E-06,-2.640
1.540E-06,-2.620
1.550E-06,-2.580
1.560E-06,-2.520
1.570E-06,-2.400
1.580E-06,-2.340
1.590E-06,-2.240
1.600E-06,-2.180
1.610E-06,-2.060
1.620E-06,-2.000
1.630E-06,-1.920
1.640E-06,-1.760
1.650E-06,-1.660
1.660E-06,-1.500
1.670E-06,-1.360
1.680E-06,-1.180
1.690E-06,-1.020
1.700E-06,-0.860
1.710E-06,-0.760
1.720E-06,-0.620
1.730E-06,-0.540
1.740E-06,-0.500
1.750E-06,-0.460
1.760E-06,-0.420
1.770E-06,-0.400
1.780E-06,-0.420
1.790E-06,-0.400
1.800E-06,-0.360
1.810E-06,-0.360
1.820E-06,-0.340
1.830E-06,-0.300
1.840E-06,-0.260
1.850E-06,-0.220
1.860E-06,-0.140
1.870E-06,-0.060
1.880E-06,0.000
1.890E-06,0.080
1.900E-06,0.160
1.910E-06,0.240
1.920E-06,0.280
1.930E-06,0.340
1.940E-06,0.360
1.950E-06,0.420
1.960E-06,0.440
1.970E-06,0.460
1.980E-06,0.480
1.990E-06,0.520
2.000E-06,0.500
2.010E-06,0.500
2.020E-06,0.560
2.030E-06,0.540
2.040E-06,0.580
2.050E-06,0.580
2.060E-06,0.560
2.070E-06,0.540
2.080E-06,0.520
2.090E-06,0.500
2.100E-06,0.420
2.110E-06,0.360
2.120E-06,0.340
2.130E-06,0.280
2.140E-06,0.240
2.150E-06,0.200
2.160E-06,0.200
2.170E-06,0.240
2.180E-06,0.260
2.190E-06,0.300
2.200E-06,0.360
2.210E-06,0.440
2.220E-06,0.480
2.230E-06,0.520
2.240E-06,0.600
2.250E-06,0.680
2.260E-06,0.740
2.270E-06,0.820
2.280E-06,0.860
2.290E-06,0.880
2.300E-06,0.900
2.310E-06,0.920
2.320E-06,0.900
2.330E-06,0.880
2.340E-06,0.840
2.350E-06,0.820
2.360E-06,0.800
2.370E-06,0.780
2.380E-06,0.760
2.390E-06,0.780
2.400E-06,0.820
2.410E-06,0.800
2.420E-06,0.840
2.430E-06,0.880
2.440E-06,0.920
2.450E-06,0.940
2.460E-06,0.940
2.470E-06,1.000
2.480E-06,1.020
2.490E-06,1.080
2.500E-06,1.120
2.510E-06,1.100
2.520E-06,1.140
2.530E-06,1.160
2.540E-06,1.160
2.550E-06,1.160
2.560E-06,1.180
2.570E-06,1.140
2.580E-06,1.140
2.590E-06,1.140
2.600E-06,1.140
2.610E-06,1.100
2.620E-06,1.060
2.630E-06,1.020
2.640E-06,1.020
2.650E-06,0.980
2.660E-06,0.940
2.670E-06,0.900
2.680E-06,0.900
2.690E-06,0.860
2.700E-06,0.880
2.710E-06,0.860
2.720E-06,0.880
2.730E-06,0.860
2.740E-06,0.880
2.750E-06,0.840
2.760E-06,0.840
2.770E-06,0.820
2.780E-06,0.800
2.790E-06,0.780
2.800E-06,0.760
2.810E-06,0.780
2.820E-06,0.780
2.830E-06,0.760
2.840E-06,0.780
2.850E-06,0.820
2.860E-06,0.840
2.870E-06,0.900
2.880E-06,0.940
2.890E-06,0.960
2.900E-06,0.980
2.910E-06,0.980
2.920E-06,0.980
2.930E-06,0.980
2.940E-06,0.960
2.950E-06,0.960
2.960E-06,0.960
2.970E-06,0.960
2.980E-06,0.940
2.990E-06,0.940
3.000E-06,0.920
3.010E-06,0.900
3.020E-06,0.880
3.030E-06,0.860
3.040E-06,0.840
3.050E-06,0.800
3.060E-06,0.800
3.070E-06,0.800
3.080E-06,0.800
3.090E-06,0.800
3.100E-06,0.860
3.110E-06,0.880
3.120E-06,0.900
3.130E-06,0.940
3.140E-06,0.960
3.150E-06,0.980
3.160E-06,0.980
3.170E-06,1.000
