mediciones/5-15/25/WaveData47416.csv

#timebase=2000000(ps)
,#voltbase=500000(mv/100)
#size=4000
-8.400E-06,-0.020
-8.390E-06,-0.020
-8.380E-06,0.000
-8.370E-06,0.020
-8.360E-06,0.020
-8.350E-06,-0.020
-8.340E-06,-0.020
-8.330E-06,0.000
-8.320E-06,-0.020
-8.310E-06,0.000
-8.300E-06,0.020
-8.290E-06,0.020
-8.280E-06,0.020
-8.270E-06,0.020
-8.260E-06,0.020
-8.250E-06,0.000
-8.240E-06,0.020
-8.230E-06,0.020
-8.220E-06,0.020
-8.210E-06,0.040
-8.200E-06,0.060
-8.190E-06,0.060
-8.180E-06,0.040
-8.170E-06,0.020
-8.160E-06,0.040
-8.150E-06,0.060
-8.140E-06,0.020
-8.130E-06,0.040
-8.120E-06,0.040
-8.110E-06,0.000
-8.100E-06,0.000
-8.090E-06,0.040
-8.080E-06,0.020
-8.070E-06,0.020
-8.060E-06,0.020
-8.050E-06,0.040
-8.040E-06,0.040
-8.030E-06,0.000
-8.020E-06,0.060
-8.010E-06,0.040
-8.000E-06,0.020
-7.990E-06,0.040
-7.980E-06,0.060
-7.970E-06,0.040
-7.960E-06,0.020
-7.950E-06,0.020
-7.940E-06,0.020
-7.930E-06,0.020
-7.920E-06,0.020
-7.910E-06,0.020
-7.900E-06,0.020
-7.890E-06,0.040
-7.880E-06,-0.020
-7.870E-06,0.020
-7.860E-06,0.000
-7.850E-06,0.000
-7.840E-06,0.000
-7.830E-06,0.000
-7.820E-06,0.000
-7.810E-06,0.000
-7.800E-06,0.000
-7.790E-06,0.000
-7.780E-06,0.000
-7.770E-06,0.000
-7.760E-06,-0.020
-7.750E-06,0.000
-7.740E-06,0.000
-7.730E-06,0.020
-7.720E-06,0.000
-7.710E-06,0.020
-7.700E-06,0.020
-7.690E-06,0.000
-7.680E-06,0.000
-7.670E-06,0.000
-7.660E-06,-0.020
-7.650E-06,0.000
-7.640E-06,0.000
-7.630E-06,0.000
-7.620E-06,0.000
-7.610E-06,0.000
-7.600E-06,0.020
-7.590E-06,0.020
-7.580E-06,-0.020
-7.570E-06,-0.020
-7.560E-06,0.000
-7.550E-06,0.000
-7.540E-06,-0.020
-7.530E-06,0.000
-7.520E-06,-0.020
-7.510E-06,-0.020
-7.500E-06,0.000
-7.490E-06,0.000
-7.480E-06,-0.020
-7.470E-06,-0.020
-7.460E-06,-0.020
-7.450E-06,-0.020
-7.440E-06,0.000
-7.430E-06,0.000
-7.420E-06,-0.020
-7.410E-06,-0.020
-7.400E-06,-0.060
-7.390E-06,-0.080
-7.380E-06,-0.040
-7.370E-06,-0.020
-7.360E-06,-0.040
-7.350E-06,-0.060
-7.340E-06,-0.040
-7.330E-06,-0.040
-7.320E-06,-0.040
-7.310E-06,-0.060
-7.300E-06,-0.020
-7.290E-06,-0.020
-7.280E-06,-0.020
-7.270E-06,0.000
-7.260E-06,-0.040
-7.250E-06,-0.060
-7.240E-06,-0.020
-7.230E-06,-0.020
-7.220E-06,-0.020
-7.210E-06,-0.020
-7.200E-06,-0.020
-7.190E-06,-0.020
-7.180E-06,-0.020
-7.170E-06,-0.040
-7.160E-06,-0.020
-7.150E-06,-0.020
-7.140E-06,-0.020
-7.130E-06,0.000
-7.120E-06,0.000
-7.110E-06,-0.040
-7.100E-06,-0.020
-7.090E-06,-0.020
-7.080E-06,0.000
-7.070E-06,0.000
-7.060E-06,0.000
-7.050E-06,0.000
-7.040E-06,-0.020
-7.030E-06,-0.060
-7.020E-06,-0.060
-7.010E-06,-0.040
-7.000E-06,-0.100
-6.990E-06,-0.100
-6.980E-06,-0.140
-6.970E-06,-0.140
-6.960E-06,-0.140
-6.950E-06,-0.160
-6.940E-06,-0.140
-6.930E-06,-0.100
-6.920E-06,-0.140
-6.910E-06,-0.100
-6.900E-06,-0.200
-6.890E-06,-0.180
-6.880E-06,-0.160
-6.870E-06,-0.160
-6.860E-06,-0.140
-6.850E-06,-0.140
-6.840E-06,-0.140
-6.830E-06,-0.140
-6.820E-06,-0.160
-6.810E-06,-0.080
-6.800E-06,-0.080
-6.790E-06,-0.080
-6.780E-06,-0.060
-6.770E-06,-0.060
-6.760E-06,-0.020
-6.750E-06,0.000
-6.740E-06,0.000
-6.730E-06,0.000
-6.720E-06,-0.040
-6.710E-06,-0.060
-6.700E-06,-0.040
-6.690E-06,-0.060
-6.680E-06,-0.060
-6.670E-06,-0.080
-6.660E-06,-0.100
-6.650E-06,-0.100
-6.640E-06,-0.100
-6.630E-06,-0.100
-6.620E-06,-0.120
-6.610E-06,-0.100
-6.600E-06,-0.140
-6.590E-06,-0.140
-6.580E-06,-0.120
-6.570E-06,-0.100
-6.560E-06,-0.120
-6.550E-06,-0.140
-6.540E-06,-0.200
-6.530E-06,-0.200
-6.520E-06,-0.280
-6.510E-06,-0.300
-6.500E-06,-0.320
-6.490E-06,-0.260
-6.480E-06,-0.260
-6.470E-06,-0.280
-6.460E-06,-0.260
-6.450E-06,-0.240
-6.440E-06,-0.200
-6.430E-06,-0.220
-6.420E-06,-0.180
-6.410E-06,-0.240
-6.400E-06,-0.220
-6.390E-06,-0.220
-6.380E-06,-0.200
-6.370E-06,-0.100
-6.360E-06,-0.080
-6.350E-06,-0.100
-6.340E-06,-0.100
-6.330E-06,-0.060
-6.320E-06,-0.040
-6.310E-06,0.000
-6.300E-06,0.000
-6.290E-06,0.000
-6.280E-06,0.000
-6.270E-06,0.000
-6.260E-06,0.040
-6.250E-06,0.080
-6.240E-06,0.080
-6.230E-06,0.060
-6.220E-06,-0.020
-6.210E-06,0.000
-6.200E-06,-0.060
-6.190E-06,-0.040
-6.180E-06,-0.080
-6.170E-06,-0.100
-6.160E-06,-0.140
-6.150E-06,-0.160
-6.140E-06,-0.200
-6.130E-06,-0.220
-6.120E-06,-0.240
-6.110E-06,-0.260
-6.100E-06,-0.240
-6.090E-06,-0.260
-6.080E-06,-0.240
-6.070E-06,-0.220
-6.060E-06,-0.200
-6.050E-06,-0.220
-6.040E-06,-0.260
-6.030E-06,-0.260
-6.020E-06,-0.300
-6.010E-06,-0.300
-6.000E-06,-0.300
-5.990E-06,-0.300
-5.980E-06,-0.340
-5.970E-06,-0.340
-5.960E-06,-0.340
-5.950E-06,-0.340
-5.940E-06,-0.340
-5.930E-06,-0.340
-5.920E-06,-0.340
-5.910E-06,-0.320
-5.900E-06,-0.320
-5.890E-06,-0.260
-5.880E-06,-0.240
-5.870E-06,-0.220
-5.860E-06,-0.220
-5.850E-06,-0.180
-5.840E-06,-0.120
-5.830E-06,-0.100
-5.820E-06,-0.040
-5.810E-06,-0.100
-5.800E-06,-0.100
-5.790E-06,-0.080
-5.780E-06,-0.060
-5.770E-06,-0.060
-5.760E-06,-0.060
-5.750E-06,-0.100
-5.740E-06,-0.120
-5.730E-06,-0.160
-5.720E-06,-0.120
-5.710E-06,-0.160
-5.700E-06,-0.140
-5.690E-06,-0.160
-5.680E-06,-0.160
-5.670E-06,-0.160
-5.660E-06,-0.200
-5.650E-06,-0.200
-5.640E-06,-0.180
-5.630E-06,-0.200
-5.620E-06,-0.240
-5.610E-06,-0.260
-5.600E-06,-0.260
-5.590E-06,-0.260
-5.580E-06,-0.260
-5.570E-06,-0.300
-5.560E-06,-0.300
-5.550E-06,-0.300
-5.540E-06,-0.260
-5.530E-06,-0.260
-5.520E-06,-0.280
-5.510E-06,-0.260
-5.500E-06,-0.260
-5.490E-06,-0.260
-5.480E-06,-0.220
-5.470E-06,-0.260
-5.460E-06,-0.260
-5.450E-06,-0.280
-5.440E-06,-0.300
-5.430E-06,-0.280
-5.420E-06,-0.300
-5.410E-06,-0.300
-5.400E-06,-0.340
-5.390E-06,-0.360
-5.380E-06,-0.400
-5.370E-06,-0.400
-5.360E-06,-0.380
-5.350E-06,-0.380
-5.340E-06,-0.400
-5.330E-06,-0.320
-5.320E-06,-0.260
-5.310E-06,-0.240
-5.300E-06,-0.160
-5.290E-06,-0.180
-5.280E-06,-0.240
-5.270E-06,-0.240
-5.260E-06,-0.260
-5.250E-06,-0.300
-5.240E-06,-0.240
-5.230E-06,-0.280
-5.220E-06,-0.320
-5.210E-06,-0.360
-5.200E-06,-0.460
-5.190E-06,-0.480
-5.180E-06,-0.460
-5.170E-06,-0.380
-5.160E-06,-0.340
-5.150E-06,-0.360
-5.140E-06,-0.360
-5.130E-06,-0.340
-5.120E-06,-0.340
-5.110E-06,-0.300
-5.100E-06,-0.240
-5.090E-06,-0.200
-5.080E-06,-0.180
-5.070E-06,-0.200
-5.060E-06,-0.160
-5.050E-06,-0.160
-5.040E-06,-0.120
-5.030E-06,-0.060
-5.020E-06,-0.060
-5.010E-06,-0.060
-5.000E-06,-0.080
-4.990E-06,-0.080
-4.980E-06,-0.080
-4.970E-06,-0.120
-4.960E-06,-0.120
-4.950E-06,-0.120
-4.940E-06,-0.160
-4.930E-06,-0.160
-4.920E-06,-0.180
-4.910E-06,-0.160
-4.900E-06,-0.200
-4.890E-06,-0.260
-4.880E-06,-0.320
-4.870E-06,-0.360
-4.860E-06,-0.440
-4.850E-06,-0.540
-4.840E-06,-0.580
-4.830E-06,-0.600
-4.820E-06,-0.620
-4.810E-06,-0.620
-4.800E-06,-0.680
-4.790E-06,-0.680
-4.780E-06,-0.820
-4.770E-06,-0.820
-4.760E-06,-0.860
-4.750E-06,-0.860
-4.740E-06,-0.920
-4.730E-06,-0.980
-4.720E-06,-0.980
-4.710E-06,-0.820
-4.700E-06,-0.940
-4.690E-06,-0.820
-4.680E-06,-0.840
-4.670E-06,-0.960
-4.660E-06,-0.920
-4.650E-06,-1.000
-4.640E-06,-0.940
-4.630E-06,-0.900
-4.620E-06,-0.640
-4.610E-06,-0.760
-4.600E-06,-0.520
-4.590E-06,-0.580
-4.580E-06,-0.600
-4.570E-06,-0.520
-4.560E-06,-0.520
-4.550E-06,-0.500
-4.540E-06,-0.400
-4.530E-06,-0.500
-4.520E-06,-0.580
-4.510E-06,-0.580
-4.500E-06,-0.580
-4.490E-06,-0.460
-4.480E-06,-0.420
-4.470E-06,-0.420
-4.460E-06,-0.440
-4.450E-06,-0.380
-4.440E-06,-0.340
-4.430E-06,-0.260
-4.420E-06,-0.200
-4.410E-06,-0.200
-4.400E-06,-0.180
-4.390E-06,-0.160
-4.380E-06,-0.180
-4.370E-06,-0.180
-4.360E-06,-0.200
-4.350E-06,-0.220
-4.340E-06,-0.180
-4.330E-06,-0.220
-4.320E-06,-0.220
-4.310E-06,-0.220
-4.300E-06,-0.240
-4.290E-06,-0.260
-4.280E-06,-0.280
-4.270E-06,-0.340
-4.260E-06,-0.340
-4.250E-06,-0.380
-4.240E-06,-0.400
-4.230E-06,-0.480
-4.220E-06,0.260
-4.210E-06,-0.220
-4.200E-06,0.320
-4.190E-06,-0.040
-4.180E-06,-0.280
-4.170E-06,-0.380
-4.160E-06,-0.560
-4.150E-06,-0.580
-4.140E-06,-0.280
-4.130E-06,-0.440
-4.120E-06,-0.500
-4.110E-06,-0.600
-4.100E-06,-0.760
-4.090E-06,-0.460
-4.080E-06,-0.520
-4.070E-06,-0.240
-4.060E-06,-0.480
-4.050E-06,-0.360
-4.040E-06,-0.420
-4.030E-06,-0.400
-4.020E-06,-0.320
-4.010E-06,-0.280
-4.000E-06,-0.260
-3.990E-06,-0.260
-3.980E-06,-0.340
-3.970E-06,-0.360
-3.960E-06,-0.300
-3.950E-06,-0.240
-3.940E-06,-0.180
-3.930E-06,-0.180
-3.920E-06,-0.160
-3.910E-06,-0.160
-3.900E-06,-0.100
-3.890E-06,-0.040
-3.880E-06,0.000
-3.870E-06,0.000
-3.860E-06,0.000
-3.850E-06,-0.060
-3.840E-06,-0.040
-3.830E-06,-0.060
-3.820E-06,-0.100
-3.810E-06,-0.060
-3.800E-06,-0.080
-3.790E-06,0.100
-3.780E-06,-0.080
-3.770E-06,0.060
-3.760E-06,-0.140
-3.750E-06,-0.160
-3.740E-06,-0.160
-3.730E-06,-0.100
-3.720E-06,-0.080
-3.710E-06,-0.020
-3.700E-06,-0.180
-3.690E-06,-0.260
-3.680E-06,-0.300
-3.670E-06,-0.320
-3.660E-06,-0.200
-3.650E-06,-0.180
-3.640E-06,-0.200
-3.630E-06,-0.220
-3.620E-06,-0.240
-3.610E-06,-0.220
-3.600E-06,-0.220
-3.590E-06,-0.200
-3.580E-06,-0.240
-3.570E-06,-0.260
-3.560E-06,-0.260
-3.550E-06,-0.260
-3.540E-06,-0.200
-3.530E-06,-0.200
-3.520E-06,-0.160
-3.510E-06,-0.180
-3.500E-06,-0.180
-3.490E-06,-0.180
-3.480E-06,-0.140
-3.470E-06,-0.100
-3.460E-06,-0.080
-3.450E-06,-0.120
-3.440E-06,-0.100
-3.430E-06,-0.120
-3.420E-06,-0.080
-3.410E-06,-0.080
-3.400E-06,-0.020
-3.390E-06,-0.040
-3.380E-06,-0.100
-3.370E-06,-0.140
-3.360E-06,-0.180
-3.350E-06,-0.180
-3.340E-06,-0.020
-3.330E-06,-0.100
-3.320E-06,0.000
-3.310E-06,-0.060
-3.300E-06,-0.120
-3.290E-06,-0.120
-3.280E-06,-0.180
-3.270E-06,-0.140
-3.260E-06,-0.080
-3.250E-06,-0.180
-3.240E-06,-0.200
-3.230E-06,-0.260
-3.220E-06,-0.240
-3.210E-06,-0.160
-3.200E-06,-0.140
-3.190E-06,-0.140
-3.180E-06,-0.160
-3.170E-06,-0.160
-3.160E-06,-0.080
-3.150E-06,-0.040
-3.140E-06,-0.020
-3.130E-06,-0.020
-3.120E-06,-0.060
-3.110E-06,-0.020
-3.100E-06,-0.060
-3.090E-06,-0.080
-3.080E-06,-0.040
-3.070E-06,-0.020
-3.060E-06,-0.040
-3.050E-06,-0.060
-3.040E-06,-0.080
-3.030E-06,-0.040
-3.020E-06,-0.020
-3.010E-06,-0.020
-3.000E-06,-0.040
-2.990E-06,-0.060
-2.980E-06,-0.080
-2.970E-06,-0.080
-2.960E-06,-0.100
-2.950E-06,-0.100
-2.940E-06,-0.100
-2.930E-06,0.020
-2.920E-06,-0.100
-2.910E-06,-0.020
-2.900E-06,-0.120
-2.890E-06,-0.200
-2.880E-06,-0.160
-2.870E-06,-0.160
-2.860E-06,-0.140
-2.850E-06,-0.080
-2.840E-06,-0.160
-2.830E-06,-0.180
-2.820E-06,-0.200
-2.810E-06,-0.220
-2.800E-06,-0.140
-2.790E-06,-0.120
-2.780E-06,-0.120
-2.770E-06,-0.140
-2.760E-06,-0.120
-2.750E-06,-0.140
-2.740E-06,-0.120
-2.730E-06,-0.080
-2.720E-06,-0.100
-2.710E-06,-0.120
-2.700E-06,-0.120
-2.690E-06,-0.140
-2.680E-06,-0.160
-2.670E-06,-0.160
-2.660E-06,-0.120
-2.650E-06,-0.140
-2.640E-06,-0.160
-2.630E-06,-0.140
-2.620E-06,-0.120
-2.610E-06,-0.140
-2.600E-06,-0.120
-2.590E-06,-0.120
-2.580E-06,-0.100
-2.570E-06,-0.100
-2.560E-06,-0.080
-2.550E-06,-0.080
-2.540E-06,-0.080
-2.530E-06,-0.020
-2.520E-06,-0.060
-2.510E-06,-0.060
-2.500E-06,-0.100
-2.490E-06,-0.100
-2.480E-06,-0.080
-2.470E-06,-0.080
-2.460E-06,-0.080
-2.450E-06,-0.100
-2.440E-06,-0.100
-2.430E-06,-0.120
-2.420E-06,-0.160
-2.410E-06,-0.180
-2.400E-06,-0.180
-2.390E-06,-0.220
-2.380E-06,-0.240
-2.370E-06,-0.220
-2.360E-06,-0.240
-2.350E-06,-0.220
-2.340E-06,-0.220
-2.330E-06,-0.260
-2.320E-06,-0.280
-2.310E-06,-0.260
-2.300E-06,-0.300
-2.290E-06,-0.280
-2.280E-06,-0.260
-2.270E-06,-0.240
-2.260E-06,-0.180
-2.250E-06,-0.220
-2.240E-06,-0.200
-2.230E-06,-0.240
-2.220E-06,-0.240
-2.210E-06,-0.220
-2.200E-06,-0.240
-2.190E-06,-0.200
-2.180E-06,-0.220
-2.170E-06,-0.240
-2.160E-06,-0.240
-2.150E-06,-0.280
-2.140E-06,-0.240
-2.130E-06,-0.240
-2.120E-06,-0.240
-2.110E-06,-0.260
-2.100E-06,-0.260
-2.090E-06,-0.240
-2.080E-06,-0.240
-2.070E-06,-0.220
-2.060E-06,-0.240
-2.050E-06,-0.220
-2.040E-06,-0.220
-2.030E-06,-0.220
-2.020E-06,-0.220
-2.010E-06,-0.240
-2.000E-06,-0.220
-1.990E-06,-0.200
-1.980E-06,-0.200
-1.970E-06,-0.200
-1.960E-06,-0.220
-1.950E-06,-0.180
-1.940E-06,-0.180
-1.930E-06,-0.160
-1.920E-06,-0.180
-1.910E-06,-0.180
-1.900E-06,-0.160
-1.890E-06,-0.180
-1.880E-06,-0.160
-1.870E-06,-0.160
-1.860E-06,-0.160
-1.850E-06,-0.220
-1.840E-06,-0.240
-1.830E-06,-0.280
-1.820E-06,-0.300
-1.810E-06,-0.320
-1.800E-06,-0.340
-1.790E-06,-0.360
-1.780E-06,-0.380
-1.770E-06,-0.400
-1.760E-06,-0.380
-1.750E-06,-0.400
-1.740E-06,-0.360
-1.730E-06,-0.360
-1.720E-06,-0.460
-1.710E-06,-0.420
-1.700E-06,-0.500
-1.690E-06,-0.540
-1.680E-06,-0.560
-1.670E-06,-0.620
-1.660E-06,-0.660
-1.650E-06,-0.600
-1.640E-06,-0.380
-1.630E-06,-0.320
-1.620E-06,-0.320
-1.610E-06,-0.400
-1.600E-06,-0.660
-1.590E-06,-0.680
-1.580E-06,-0.720
-1.570E-06,-0.680
-1.560E-06,-0.600
-1.550E-06,-0.700
-1.540E-06,-0.780
-1.530E-06,-0.880
-1.520E-06,-0.880
-1.510E-06,-0.820
-1.500E-06,-0.700
-1.490E-06,-0.720
-1.480E-06,-0.680
-1.470E-06,-0.640
-1.460E-06,-0.520
-1.450E-06,-0.480
-1.440E-06,-0.320
-1.430E-06,-0.260
-1.420E-06,-0.160
-1.410E-06,-0.140
-1.400E-06,-0.100
-1.390E-06,-0.140
-1.380E-06,-0.100
-1.370E-06,-0.120
-1.360E-06,-0.080
-1.350E-06,-0.080
-1.340E-06,-0.080
-1.330E-06,-0.060
-1.320E-06,-0.100
-1.310E-06,-0.100
-1.300E-06,-0.140
-1.290E-06,-0.140
-1.280E-06,-0.160
-1.270E-06,-0.180
-1.260E-06,-0.200
-1.250E-06,-0.200
-1.240E-06,-0.280
-1.230E-06,-0.320
-1.220E-06,-0.400
-1.210E-06,-0.460
-1.200E-06,-0.500
-1.190E-06,-0.540
-1.180E-06,-0.600
-1.170E-06,-0.620
-1.160E-06,-0.640
-1.150E-06,-0.600
-1.140E-06,-0.600
-1.130E-06,-0.560
-1.120E-06,-0.540
-1.110E-06,-0.560
-1.100E-06,-0.540
-1.090E-06,-0.520
-1.080E-06,-0.500
-1.070E-06,-0.440
-1.060E-06,-0.460
-1.050E-06,-0.480
-1.040E-06,-0.520
-1.030E-06,-0.500
-1.020E-06,-0.560
-1.010E-06,-0.560
-1.000E-06,-0.640
-9.900E-07,-0.680
-9.800E-07,-0.680
-9.700E-07,-0.760
-9.600E-07,-0.740
-9.500E-07,-0.760
-9.400E-07,-0.720
-9.300E-07,-0.780
-9.200E-07,-0.800
-9.100E-07,-0.780
-9.000E-07,-0.780
-8.900E-07,-0.760
-8.800E-07,-0.760
-8.700E-07,-0.740
-8.600E-07,-0.780
-8.500E-07,-0.820
-8.400E-07,-0.820
-8.300E-07,-0.860
-8.200E-07,-0.840
-8.100E-07,-0.900
-8.000E-07,-0.920
-7.900E-07,-0.960
-7.800E-07,-0.980
-7.700E-07,-0.940
-7.600E-07,-1.020
-7.500E-07,-0.880
-7.400E-07,-0.920
-7.300E-07,-0.780
-7.200E-07,-0.860
-7.100E-07,-0.920
-7.000E-07,-1.080
-6.900E-07,-1.160
-6.800E-07,-1.120
-6.700E-07,-1.040
-6.600E-07,-0.960
-6.500E-07,-0.900
-6.400E-07,-0.940
-6.300E-07,-0.960
-6.200E-07,-0.980
-6.100E-07,-0.940
-6.000E-07,-0.840
-5.900E-07,-0.800
-5.800E-07,-0.780
-5.700E-07,-0.760
-5.600E-07,-0.720
-5.500E-07,-0.640
-5.400E-07,-0.620
-5.300E-07,-0.520
-5.200E-07,-0.500
-5.100E-07,-0.380
-5.000E-07,-0.420
-4.900E-07,-0.360
-4.800E-07,-0.360
-4.700E-07,-0.300
-4.600E-07,-0.300
-4.500E-07,-0.280
-4.400E-07,-0.300
-4.300E-07,-0.240
-4.200E-07,-0.260
-4.100E-07,-0.280
-4.000E-07,-0.340
-3.900E-07,-0.440
-3.800E-07,-0.500
-3.700E-07,-0.600
-3.600E-07,-0.640
-3.500E-07,-0.640
-3.400E-07,-0.680
-3.300E-07,-0.720
-3.200E-07,-0.760
-3.100E-07,-0.840
-3.000E-07,-0.920
-2.900E-07,-0.980
-2.800E-07,-0.980
-2.700E-07,-1.000
-2.600E-07,-1.000
-2.500E-07,-0.980
-2.400E-07,-1.000
-2.300E-07,-1.000
-2.200E-07,-1.040
-2.100E-07,-1.040
-2.000E-07,-1.080
-1.900E-07,-1.120
-1.800E-07,-1.120
-1.700E-07,-1.180
-1.600E-07,-1.260
-1.500E-07,-1.420
-1.400E-07,-1.520
-1.300E-07,-1.640
-1.200E-07,-1.740
-1.100E-07,-1.780
-1.000E-07,-1.840
-9.000E-08,-1.820
-8.000E-08,-1.860
-7.000E-08,-1.920
-6.000E-08,-1.740
-5.000E-08,-1.000
-4.000E-08,-0.920
-3.000E-08,-0.760
-2.000E-08,-0.920
-1.000E-08,-1.500
0.000E+00,-1.560
1.000E-08,-1.660
2.000E-08,-1.620
3.000E-08,-1.280
4.000E-08,-1.540
5.000E-08,-1.700
6.000E-08,-1.920
7.000E-08,-1.860
8.000E-08,-1.620
9.000E-08,-1.380
1.000E-07,-1.280
1.100E-07,-1.240
1.200E-07,-1.020
1.300E-07,-0.860
1.400E-07,-0.680
1.500E-07,-0.500
1.600E-07,-0.440
1.700E-07,-0.360
1.800E-07,-0.280
1.900E-07,-0.240
2.000E-07,-0.160
2.100E-07,-0.100
2.200E-07,-0.020
2.300E-07,0.060
2.400E-07,0.080
2.500E-07,0.360
2.600E-07,0.580
2.700E-07,0.840
2.800E-07,1.020
2.900E-07,0.920
3.000E-07,0.800
3.100E-07,0.660
3.200E-07,0.520
3.300E-07,0.460
3.400E-07,0.280
3.500E-07,0.060
3.600E-07,-0.020
3.700E-07,-0.220
3.800E-07,-0.260
3.900E-07,-0.500
4.000E-07,-0.580
4.100E-07,-0.840
4.200E-07,-0.900
4.300E-07,-0.980
4.400E-07,-0.920
4.500E-07,-0.940
4.600E-07,-1.120
4.700E-07,-1.180
4.800E-07,-1.320
4.900E-07,-1.280
5.000E-07,-1.300
5.100E-07,-1.300
5.200E-07,-1.260
5.300E-07,-1.180
5.400E-07,-1.040
5.500E-07,-0.960
5.600E-07,-0.880
5.700E-07,-0.760
5.800E-07,-0.680
5.900E-07,-0.600
6.000E-07,-0.520
6.100E-07,-0.460
6.200E-07,-0.360
6.300E-07,-0.300
6.400E-07,-0.160
6.500E-07,0.020
6.600E-07,0.180
6.700E-07,0.240
6.800E-07,0.320
6.900E-07,0.260
7.000E-07,0.300
7.100E-07,0.340
7.200E-07,0.400
7.300E-07,0.400
7.400E-07,0.320
7.500E-07,0.220
7.600E-07,0.100
7.700E-07,0.020
7.800E-07,-0.080
7.900E-07,-0.200
8.000E-07,-0.340
8.100E-07,-0.480
8.200E-07,-0.580
8.300E-07,-0.540
8.400E-07,-0.600
8.500E-07,-0.540
8.600E-07,-0.540
8.700E-07,-0.500
8.800E-07,-0.500
8.900E-07,-0.480
9.000E-07,-0.420
9.100E-07,-0.360
9.200E-07,-0.340
9.300E-07,-0.280
9.400E-07,-0.280
9.500E-07,-0.320
9.600E-07,-0.360
9.700E-07,-0.360
9.800E-07,-0.320
9.900E-07,-0.320
1.000E-06,-0.360
1.010E-06,-0.400
1.020E-06,-0.420
1.030E-06,-0.500
1.040E-06,-0.540
1.050E-06,-0.720
1.060E-06,-0.820
1.070E-06,-1.000
1.080E-06,-1.080
1.090E-06,-1.220
1.100E-06,-1.360
1.110E-06,-1.500
1.120E-06,-1.700
1.130E-06,-1.760
1.140E-06,-1.860
1.150E-06,-1.960
1.160E-06,-1.840
1.170E-06,-2.000
1.180E-06,-1.860
1.190E-06,-1.660
1.200E-06,-0.880
1.210E-06,-0.940
1.220E-06,-0.280
1.230E-06,-0.840
1.240E-06,-0.840
1.250E-06,-1.080
1.260E-06,-1.220
1.270E-06,-1.160
1.280E-06,-1.180
1.290E-06,-1.440
1.300E-06,-1.740
1.310E-06,-1.700
1.320E-06,-1.620
1.330E-06,-1.300
1.340E-06,-1.260
1.350E-06,-1.260
1.360E-06,-1.200
1.370E-06,-1.020
1.380E-06,-0.780
1.390E-06,-0.500
1.400E-06,-0.340
1.410E-06,0.460
1.420E-06,1.140
1.430E-06,1.240
1.440E-06,1.460
1.450E-06,0.640
1.460E-06,0.300
1.470E-06,0.020
1.480E-06,-0.220
1.490E-06,-0.120
1.500E-06,-0.340
1.510E-06,-0.840
1.520E-06,-1.300
1.530E-06,-1.360
1.540E-06,-1.180
1.550E-06,-1.040
1.560E-06,-0.880
1.570E-06,-1.020
1.580E-06,-0.920
1.590E-06,-0.760
1.600E-06,-0.720
1.610E-06,-0.780
1.620E-06,-0.880
1.630E-06,-0.900
1.640E-06,-0.920
1.650E-06,-0.820
1.660E-06,-0.840
1.670E-06,-0.760
1.680E-06,-0.600
1.690E-06,-0.360
1.700E-06,-0.200
1.710E-06,0.020
1.720E-06,0.180
1.730E-06,0.320
1.740E-06,0.460
1.750E-06,0.540
1.760E-06,0.620
1.770E-06,0.700
1.780E-06,0.680
1.790E-06,0.660
1.800E-06,0.620
1.810E-06,0.520
1.820E-06,0.400
1.830E-06,0.180
1.840E-06,-0.040
1.850E-06,-0.220
1.860E-06,-0.340
1.870E-06,-0.380
1.880E-06,-0.380
1.890E-06,-0.340
1.900E-06,-0.280
1.910E-06,-0.260
1.920E-06,-0.220
1.930E-06,-0.180
1.940E-06,-0.140
1.950E-06,-0.100
1.960E-06,-0.060
1.970E-06,-0.080
1.980E-06,-0.080
1.990E-06,-0.040
2.000E-06,-0.080
2.010E-06,-0.080
2.020E-06,-0.120
2.030E-06,-0.160
2.040E-06,-0.180
2.050E-06,-0.220
2.060E-06,-0.320
2.070E-06,-0.360
2.080E-06,-0.360
2.090E-06,-0.440
2.100E-06,-0.460
2.110E-06,-0.520
2.120E-06,-0.520
2.130E-06,-0.540
2.140E-06,-0.580
2.150E-06,-0.600
2.160E-06,-0.620
2.170E-06,-0.680
2.180E-06,-0.680
2.190E-06,-0.680
2.200E-06,-0.380
2.210E-06,-0.180
2.220E-06,-0.220
2.230E-06,-0.060
2.240E-06,-0.400
2.250E-06,-0.460
2.260E-06,-0.640
2.270E-06,-0.600
2.280E-06,-0.620
2.290E-06,-0.620
2.300E-06,-0.860
2.310E-06,-0.980
2.320E-06,-1.020
2.330E-06,-0.880
2.340E-06,-0.800
2.350E-06,-0.700
2.360E-06,-0.700
2.370E-06,-0.640
2.380E-06,-0.500
2.390E-06,-0.320
2.400E-06,-0.140
2.410E-06,0.080
2.420E-06,0.120
2.430E-06,0.160
2.440E-06,0.120
2.450E-06,0.000
2.460E-06,-0.040
2.470E-06,-0.080
2.480E-06,-0.120
2.490E-06,-0.120
2.500E-06,-0.220
2.510E-06,-0.340
2.520E-06,-0.400
2.530E-06,-0.360
2.540E-06,-0.340
2.550E-06,-0.260
2.560E-06,-0.260
2.570E-06,-0.280
2.580E-06,-0.260
2.590E-06,-0.260
2.600E-06,-0.240
2.610E-06,-0.240
2.620E-06,-0.320
2.630E-06,-0.400
2.640E-06,-0.460
2.650E-06,-0.480
2.660E-06,-0.440
2.670E-06,-0.380
2.680E-06,-0.340
2.690E-06,-0.240
2.700E-06,-0.180
2.710E-06,-0.080
2.720E-06,-0.080
2.730E-06,-0.020
2.740E-06,-0.020
2.750E-06,0.020
2.760E-06,0.120
2.770E-06,0.100
2.780E-06,0.140
2.790E-06,0.080
2.800E-06,0.020
2.810E-06,0.000
2.820E-06,0.000
2.830E-06,0.020
2.840E-06,0.060
2.850E-06,0.060
2.860E-06,0.040
2.870E-06,0.000
2.880E-06,-0.040
2.890E-06,-0.020
2.900E-06,-0.100
2.910E-06,-0.180
2.920E-06,-0.220
