mediciones/5-15/25/WaveData47434.csv

#timebase=2000000(ps)
,#voltbase=500000(mv/100)
#size=4000
-8.400E-06,-1.080
-8.390E-06,-0.780
-8.380E-06,-0.460
-8.370E-06,-0.160
-8.360E-06,0.120
-8.350E-06,0.340
-8.340E-06,0.520
-8.330E-06,0.620
-8.320E-06,0.600
-8.310E-06,0.500
-8.300E-06,0.340
-8.290E-06,0.160
-8.280E-06,0.020
-8.270E-06,-0.120
-8.260E-06,-0.180
-8.250E-06,-0.180
-8.240E-06,-0.180
-8.230E-06,-0.160
-8.220E-06,-0.140
-8.210E-06,-0.020
-8.200E-06,0.060
-8.190E-06,0.080
-8.180E-06,0.120
-8.170E-06,0.120
-8.160E-06,0.100
-8.150E-06,0.100
-8.140E-06,0.060
-8.130E-06,0.080
-8.120E-06,0.080
-8.110E-06,0.080
-8.100E-06,0.100
-8.090E-06,0.100
-8.080E-06,0.180
-8.070E-06,0.220
-8.060E-06,0.320
-8.050E-06,0.420
-8.040E-06,0.480
-8.030E-06,0.540
-8.020E-06,0.560
-8.010E-06,0.600
-8.000E-06,0.540
-7.990E-06,0.500
-7.980E-06,0.380
-7.970E-06,0.260
-7.960E-06,0.120
-7.950E-06,-0.020
-7.940E-06,-0.120
-7.930E-06,-0.220
-7.920E-06,-0.280
-7.910E-06,-0.280
-7.900E-06,-0.260
-7.890E-06,-0.200
-7.880E-06,-0.120
-7.870E-06,-0.060
-7.860E-06,0.040
-7.850E-06,0.080
-7.840E-06,0.140
-7.830E-06,0.180
-7.820E-06,0.160
-7.810E-06,0.160
-7.800E-06,0.180
-7.790E-06,0.160
-7.780E-06,0.140
-7.770E-06,0.120
-7.760E-06,0.100
-7.750E-06,0.140
-7.740E-06,0.140
-7.730E-06,0.140
-7.720E-06,0.160
-7.710E-06,0.160
-7.700E-06,0.140
-7.690E-06,0.140
-7.680E-06,0.140
-7.670E-06,0.060
-7.660E-06,0.040
-7.650E-06,0.020
-7.640E-06,-0.040
-7.630E-06,-0.080
-7.620E-06,-0.100
-7.610E-06,-0.120
-7.600E-06,-0.120
-7.590E-06,-0.140
-7.580E-06,-0.140
-7.570E-06,-0.080
-7.560E-06,-0.080
-7.550E-06,-0.060
-7.540E-06,0.000
-7.530E-06,0.000
-7.520E-06,0.040
-7.510E-06,0.080
-7.500E-06,0.120
-7.490E-06,0.120
-7.480E-06,0.180
-7.470E-06,0.160
-7.460E-06,0.180
-7.450E-06,0.180
-7.440E-06,0.200
-7.430E-06,0.200
-7.420E-06,0.240
-7.410E-06,0.200
-7.400E-06,0.220
-7.390E-06,0.240
-7.380E-06,0.200
-7.370E-06,0.180
-7.360E-06,0.160
-7.350E-06,0.160
-7.340E-06,0.140
-7.330E-06,0.100
-7.320E-06,0.100
-7.310E-06,0.100
-7.300E-06,0.040
-7.290E-06,-0.020
-7.280E-06,-0.020
-7.270E-06,-0.040
-7.260E-06,-0.080
-7.250E-06,-0.080
-7.240E-06,-0.080
-7.230E-06,-0.140
-7.220E-06,-0.120
-7.210E-06,-0.120
-7.200E-06,-0.140
-7.190E-06,-0.100
-7.180E-06,-0.060
-7.170E-06,-0.060
-7.160E-06,-0.040
-7.150E-06,0.020
-7.140E-06,0.040
-7.130E-06,0.020
-7.120E-06,0.060
-7.110E-06,0.100
-7.100E-06,0.080
-7.090E-06,0.080
-7.080E-06,0.100
-7.070E-06,0.100
-7.060E-06,0.100
-7.050E-06,0.040
-7.040E-06,0.060
-7.030E-06,0.080
-7.020E-06,0.020
-7.010E-06,0.020
-7.000E-06,0.040
-6.990E-06,0.020
-6.980E-06,0.020
-6.970E-06,0.040
-6.960E-06,0.020
-6.950E-06,0.020
-6.940E-06,0.020
-6.930E-06,-0.020
-6.920E-06,0.000
-6.910E-06,0.000
-6.900E-06,-0.020
-6.890E-06,-0.040
-6.880E-06,0.000
-6.870E-06,-0.020
-6.860E-06,0.000
-6.850E-06,0.020
-6.840E-06,0.000
-6.830E-06,0.020
-6.820E-06,0.060
-6.810E-06,0.040
-6.800E-06,0.060
-6.790E-06,0.040
-6.780E-06,0.060
-6.770E-06,0.040
-6.760E-06,0.000
-6.750E-06,0.020
-6.740E-06,0.020
-6.730E-06,0.020
-6.720E-06,-0.040
-6.710E-06,-0.040
-6.700E-06,-0.020
-6.690E-06,0.000
-6.680E-06,0.000
-6.670E-06,0.000
-6.660E-06,0.000
-6.650E-06,0.000
-6.640E-06,0.000
-6.630E-06,0.000
-6.620E-06,0.020
-6.610E-06,0.020
-6.600E-06,0.020
-6.590E-06,0.020
-6.580E-06,0.040
-6.570E-06,0.020
-6.560E-06,0.060
-6.550E-06,0.080
-6.540E-06,0.100
-6.530E-06,0.100
-6.520E-06,0.080
-6.510E-06,0.080
-6.500E-06,0.080
-6.490E-06,0.080
-6.480E-06,0.080
-6.470E-06,0.100
-6.460E-06,0.100
-6.450E-06,0.060
-6.440E-06,0.060
-6.430E-06,0.040
-6.420E-06,-0.020
-6.410E-06,0.000
-6.400E-06,0.000
-6.390E-06,0.000
-6.380E-06,-0.020
-6.370E-06,0.000
-6.360E-06,0.000
-6.350E-06,-0.040
-6.340E-06,-0.040
-6.330E-06,-0.120
-6.320E-06,-0.040
-6.310E-06,-0.100
-6.300E-06,-0.080
-6.290E-06,-0.080
-6.280E-06,-0.100
-6.270E-06,-0.020
-6.260E-06,-0.040
-6.250E-06,-0.020
-6.240E-06,-0.040
-6.230E-06,-0.100
-6.220E-06,-0.100
-6.210E-06,-0.100
-6.200E-06,-0.080
-6.190E-06,-0.020
-6.180E-06,-0.020
-6.170E-06,0.000
-6.160E-06,-0.020
-6.150E-06,-0.020
-6.140E-06,0.020
-6.130E-06,0.060
-6.120E-06,0.060
-6.110E-06,0.080
-6.100E-06,0.040
-6.090E-06,0.020
-6.080E-06,0.040
-6.070E-06,0.100
-6.060E-06,0.100
-6.050E-06,0.120
-6.040E-06,0.100
-6.030E-06,0.060
-6.020E-06,0.080
-6.010E-06,0.100
-6.000E-06,0.080
-5.990E-06,0.080
-5.980E-06,0.080
-5.970E-06,0.080
-5.960E-06,0.080
-5.950E-06,0.020
-5.940E-06,0.040
-5.930E-06,0.080
-5.920E-06,0.060
-5.910E-06,0.100
-5.900E-06,0.080
-5.890E-06,0.060
-5.880E-06,0.060
-5.870E-06,0.000
-5.860E-06,-0.060
-5.850E-06,-0.020
-5.840E-06,-0.040
-5.830E-06,-0.100
-5.820E-06,-0.080
-5.810E-06,-0.120
-5.800E-06,-0.120
-5.790E-06,-0.180
-5.780E-06,-0.160
-5.770E-06,-0.160
-5.760E-06,-0.160
-5.750E-06,-0.160
-5.740E-06,-0.080
-5.730E-06,0.000
-5.720E-06,-0.040
-5.710E-06,-0.120
-5.700E-06,-0.180
-5.690E-06,-0.300
-5.680E-06,-0.240
-5.670E-06,-0.200
-5.660E-06,-0.120
-5.650E-06,-0.080
-5.640E-06,-0.060
-5.630E-06,-0.100
-5.620E-06,-0.080
-5.610E-06,0.000
-5.600E-06,0.080
-5.590E-06,0.100
-5.580E-06,0.080
-5.570E-06,0.080
-5.560E-06,0.060
-5.550E-06,0.160
-5.540E-06,0.200
-5.530E-06,0.220
-5.520E-06,0.220
-5.510E-06,0.180
-5.500E-06,0.160
-5.490E-06,0.140
-5.480E-06,0.140
-5.470E-06,0.140
-5.460E-06,0.160
-5.450E-06,0.160
-5.440E-06,0.160
-5.430E-06,0.160
-5.420E-06,0.120
-5.410E-06,0.080
-5.400E-06,0.080
-5.390E-06,0.000
-5.380E-06,0.000
-5.370E-06,-0.040
-5.360E-06,-0.080
-5.350E-06,-0.060
-5.340E-06,-0.080
-5.330E-06,-0.100
-5.320E-06,-0.140
-5.310E-06,-0.180
-5.300E-06,-0.260
-5.290E-06,-0.200
-5.280E-06,-0.100
-5.270E-06,-0.240
-5.260E-06,-0.100
-5.250E-06,-0.280
-5.240E-06,-0.280
-5.230E-06,-0.280
-5.220E-06,-0.260
-5.210E-06,-0.160
-5.200E-06,-0.120
-5.190E-06,-0.180
-5.180E-06,-0.140
-5.170E-06,-0.120
-5.160E-06,0.000
-5.150E-06,0.080
-5.140E-06,0.080
-5.130E-06,0.060
-5.120E-06,0.060
-5.110E-06,0.120
-5.100E-06,0.180
-5.090E-06,0.180
-5.080E-06,0.240
-5.070E-06,0.260
-5.060E-06,0.220
-5.050E-06,0.180
-5.040E-06,0.160
-5.030E-06,0.160
-5.020E-06,0.180
-5.010E-06,0.200
-5.000E-06,0.180
-4.990E-06,0.120
-4.980E-06,0.100
-4.970E-06,0.100
-4.960E-06,0.080
-4.950E-06,0.080
-4.940E-06,0.020
-4.930E-06,0.020
-4.920E-06,-0.020
-4.910E-06,-0.020
-4.900E-06,0.000
-4.890E-06,0.060
-4.880E-06,0.060
-4.870E-06,0.020
-4.860E-06,-0.040
-4.850E-06,-0.080
-4.840E-06,-0.160
-4.830E-06,-0.180
-4.820E-06,-0.180
-4.810E-06,-0.140
-4.800E-06,-0.160
-4.790E-06,-0.160
-4.780E-06,-0.220
-4.770E-06,-0.180
-4.760E-06,-0.180
-4.750E-06,-0.180
-4.740E-06,-0.160
-4.730E-06,-0.180
-4.720E-06,-0.160
-4.710E-06,-0.140
-4.700E-06,-0.140
-4.690E-06,-0.140
-4.680E-06,-0.120
-4.670E-06,-0.120
-4.660E-06,-0.140
-4.650E-06,-0.140
-4.640E-06,-0.140
-4.630E-06,-0.160
-4.620E-06,-0.120
-4.610E-06,-0.120
-4.600E-06,-0.180
-4.590E-06,-0.120
-4.580E-06,-0.160
-4.570E-06,-0.160
-4.560E-06,-0.180
-4.550E-06,-0.220
-4.540E-06,-0.220
-4.530E-06,-0.220
-4.520E-06,-0.280
-4.510E-06,-0.260
-4.500E-06,-0.240
-4.490E-06,-0.280
-4.480E-06,-0.260
-4.470E-06,-0.280
-4.460E-06,-0.300
-4.450E-06,-0.320
-4.440E-06,-0.320
-4.430E-06,-0.320
-4.420E-06,-0.340
-4.410E-06,-0.320
-4.400E-06,-0.240
-4.390E-06,-0.220
-4.380E-06,-0.340
-4.370E-06,-0.340
-4.360E-06,-0.500
-4.350E-06,-0.500
-4.340E-06,-0.460
-4.330E-06,-0.360
-4.320E-06,-0.260
-4.310E-06,-0.300
-4.300E-06,-0.300
-4.290E-06,-0.300
-4.280E-06,-0.240
-4.270E-06,-0.120
-4.260E-06,-0.060
-4.250E-06,-0.020
-4.240E-06,-0.100
-4.230E-06,-0.040
-4.220E-06,0.000
-4.210E-06,0.060
-4.200E-06,0.100
-4.190E-06,0.100
-4.180E-06,0.080
-4.170E-06,0.040
-4.160E-06,0.040
-4.150E-06,0.080
-4.140E-06,0.140
-4.130E-06,0.160
-4.120E-06,0.160
-4.110E-06,0.080
-4.100E-06,0.100
-4.090E-06,0.080
-4.080E-06,0.080
-4.070E-06,0.100
-4.060E-06,0.120
-4.050E-06,0.080
-4.040E-06,0.020
-4.030E-06,0.000
-4.020E-06,-0.020
-4.010E-06,-0.040
-4.000E-06,-0.120
-3.990E-06,-0.220
-3.980E-06,-0.340
-3.970E-06,-0.380
-3.960E-06,-0.480
-3.950E-06,-0.380
-3.940E-06,-0.400
-3.930E-06,-0.380
-3.920E-06,-0.240
-3.910E-06,-0.120
-3.900E-06,-0.420
-3.890E-06,-0.240
-3.880E-06,-0.600
-3.870E-06,-0.600
-3.860E-06,-0.600
-3.850E-06,-0.360
-3.840E-06,-0.220
-3.830E-06,-0.040
-3.820E-06,-0.160
-3.810E-06,-0.160
-3.800E-06,-0.240
-3.790E-06,-0.200
-3.780E-06,-0.100
-3.770E-06,-0.080
-3.760E-06,-0.140
-3.750E-06,-0.160
-3.740E-06,-0.160
-3.730E-06,-0.080
-3.720E-06,-0.020
-3.710E-06,0.000
-3.700E-06,0.000
-3.690E-06,-0.060
-3.680E-06,-0.100
-3.670E-06,-0.080
-3.660E-06,-0.080
-3.650E-06,0.040
-3.640E-06,0.060
-3.630E-06,0.120
-3.620E-06,0.060
-3.610E-06,0.080
-3.600E-06,0.020
-3.590E-06,0.100
-3.580E-06,0.500
-3.570E-06,0.160
-3.560E-06,0.520
-3.550E-06,0.100
-3.540E-06,0.060
-3.530E-06,0.020
-3.520E-06,0.060
-3.510E-06,0.040
-3.500E-06,0.080
-3.490E-06,-0.220
-3.480E-06,-0.320
-3.470E-06,-0.320
-3.460E-06,-0.280
-3.450E-06,-0.140
-3.440E-06,-0.100
-3.430E-06,-0.160
-3.420E-06,-0.160
-3.410E-06,-0.200
-3.400E-06,-0.160
-3.390E-06,-0.120
-3.380E-06,-0.080
-3.370E-06,0.020
-3.360E-06,-0.080
-3.350E-06,0.000
-3.340E-06,0.000
-3.330E-06,0.020
-3.320E-06,0.040
-3.310E-06,0.080
-3.300E-06,0.040
-3.290E-06,0.080
-3.280E-06,0.060
-3.270E-06,0.080
-3.260E-06,0.140
-3.250E-06,0.160
-3.240E-06,0.160
-3.230E-06,0.120
-3.220E-06,0.100
-3.210E-06,0.080
-3.200E-06,0.040
-3.190E-06,0.040
-3.180E-06,0.000
-3.170E-06,-0.060
-3.160E-06,-0.120
-3.150E-06,-0.100
-3.140E-06,-0.020
-3.130E-06,-0.060
-3.120E-06,0.020
-3.110E-06,-0.140
-3.100E-06,-0.140
-3.090E-06,-0.120
-3.080E-06,-0.140
-3.070E-06,-0.080
-3.060E-06,-0.140
-3.050E-06,-0.140
-3.040E-06,-0.340
-3.030E-06,-0.260
-3.020E-06,-0.220
-3.010E-06,-0.180
-3.000E-06,-0.200
-2.990E-06,-0.220
-2.980E-06,-0.340
-2.970E-06,-0.040
-2.960E-06,-0.020
-2.950E-06,0.080
-2.940E-06,0.020
-2.930E-06,0.000
-2.920E-06,-0.120
-2.910E-06,-0.140
-2.900E-06,-0.180
-2.890E-06,-0.040
-2.880E-06,-0.140
-2.870E-06,-0.140
-2.860E-06,-0.240
-2.850E-06,-0.260
-2.840E-06,-0.160
-2.830E-06,-0.080
-2.820E-06,-0.040
-2.810E-06,-0.040
-2.800E-06,-0.040
-2.790E-06,-0.020
-2.780E-06,0.000
-2.770E-06,0.020
-2.760E-06,0.080
-2.750E-06,0.100
-2.740E-06,0.080
-2.730E-06,0.080
-2.720E-06,-0.020
-2.710E-06,0.000
-2.700E-06,-0.020
-2.690E-06,0.020
-2.680E-06,0.020
-2.670E-06,0.100
-2.660E-06,0.060
-2.650E-06,0.120
-2.640E-06,0.080
-2.630E-06,0.160
-2.620E-06,0.160
-2.610E-06,0.100
-2.600E-06,0.060
-2.590E-06,0.020
-2.580E-06,0.020
-2.570E-06,-0.020
-2.560E-06,-0.040
-2.550E-06,-0.100
-2.540E-06,-0.180
-2.530E-06,-0.240
-2.520E-06,-0.260
-2.510E-06,-0.260
-2.500E-06,-0.280
-2.490E-06,-0.300
-2.480E-06,-0.400
-2.470E-06,-0.520
-2.460E-06,-0.700
-2.450E-06,-0.760
-2.440E-06,-0.840
-2.430E-06,-0.860
-2.420E-06,-0.800
-2.410E-06,-0.600
-2.400E-06,-0.680
-2.390E-06,-0.420
-2.380E-06,-0.500
-2.370E-06,-0.480
-2.360E-06,-0.500
-2.350E-06,-0.520
-2.340E-06,-0.500
-2.330E-06,-0.600
-2.320E-06,-0.820
-2.310E-06,-0.700
-2.300E-06,-0.660
-2.290E-06,-0.480
-2.280E-06,-0.240
-2.270E-06,-0.240
-2.260E-06,-0.260
-2.250E-06,-0.420
-2.240E-06,-0.400
-2.230E-06,-0.420
-2.220E-06,-0.360
-2.210E-06,-0.040
-2.200E-06,-0.180
-2.190E-06,0.020
-2.180E-06,-0.100
-2.170E-06,-0.160
-2.160E-06,-0.180
-2.150E-06,-0.180
-2.140E-06,-0.220
-2.130E-06,-0.140
-2.120E-06,-0.220
-2.110E-06,-0.220
-2.100E-06,-0.260
-2.090E-06,-0.240
-2.080E-06,-0.180
-2.070E-06,-0.140
-2.060E-06,-0.240
-2.050E-06,-0.320
-2.040E-06,-0.360
-2.030E-06,-0.380
-2.020E-06,-0.380
-2.010E-06,-0.400
-2.000E-06,-0.340
-1.990E-06,-0.200
-1.980E-06,0.000
-1.970E-06,0.100
-1.960E-06,0.260
-1.950E-06,0.160
-1.940E-06,0.180
-1.930E-06,0.120
-1.920E-06,0.180
-1.910E-06,0.260
-1.900E-06,0.320
-1.890E-06,0.260
-1.880E-06,0.200
-1.870E-06,0.120
-1.860E-06,0.120
-1.850E-06,0.080
-1.840E-06,0.040
-1.830E-06,-0.060
-1.820E-06,-0.080
-1.810E-06,-0.140
-1.800E-06,-0.220
-1.790E-06,-0.340
-1.780E-06,-0.440
-1.770E-06,-0.580
-1.760E-06,-0.620
-1.750E-06,-0.800
-1.740E-06,-0.880
-1.730E-06,-0.840
-1.720E-06,-0.860
-1.710E-06,-0.820
-1.700E-06,-0.880
-1.690E-06,-0.760
-1.680E-06,0.220
-1.670E-06,-0.400
-1.660E-06,0.340
-1.650E-06,-0.340
-1.640E-06,-0.400
-1.630E-06,-0.260
-1.620E-06,-0.160
-1.610E-06,0.080
-1.600E-06,0.340
-1.590E-06,-0.180
-1.580E-06,-0.460
-1.570E-06,-0.700
-1.560E-06,-0.680
-1.550E-06,-0.340
-1.540E-06,-0.340
-1.530E-06,-0.500
-1.520E-06,-0.680
-1.510E-06,-0.660
-1.500E-06,-0.520
-1.490E-06,-0.380
-1.480E-06,-0.260
-1.470E-06,-0.340
-1.460E-06,-0.340
-1.450E-06,-0.340
-1.440E-06,-0.260
-1.430E-06,-0.220
-1.420E-06,-0.080
-1.410E-06,0.000
-1.400E-06,0.060
-1.390E-06,0.080
-1.380E-06,0.200
-1.370E-06,0.260
-1.360E-06,0.380
-1.350E-06,0.400
-1.340E-06,0.420
-1.330E-06,0.400
-1.320E-06,0.380
-1.310E-06,0.380
-1.300E-06,0.400
-1.290E-06,0.320
-1.280E-06,0.180
-1.270E-06,0.000
-1.260E-06,-0.240
-1.250E-06,-0.360
-1.240E-06,-0.480
-1.230E-06,-0.260
-1.220E-06,-0.120
-1.210E-06,-0.020
-1.200E-06,0.260
-1.190E-06,-0.060
-1.180E-06,0.160
-1.170E-06,0.060
-1.160E-06,0.080
-1.150E-06,0.200
-1.140E-06,0.160
-1.130E-06,-0.020
-1.120E-06,-0.040
-1.110E-06,-0.100
-1.100E-06,-0.080
-1.090E-06,-0.020
-1.080E-06,-0.140
-1.070E-06,-0.220
-1.060E-06,-0.300
-1.050E-06,-0.320
-1.040E-06,-0.280
-1.030E-06,-0.160
-1.020E-06,-0.100
-1.010E-06,0.000
-1.000E-06,0.060
-9.900E-07,-0.020
-9.800E-07,-0.100
-9.700E-07,-0.180
-9.600E-07,-0.220
-9.500E-07,-0.220
-9.400E-07,-0.260
-9.300E-07,-0.280
-9.200E-07,-0.280
-9.100E-07,-0.200
-9.000E-07,-0.220
-8.900E-07,-0.120
-8.800E-07,-0.120
-8.700E-07,-0.080
-8.600E-07,-0.060
-8.500E-07,0.000
-8.400E-07,0.040
-8.300E-07,0.060
-8.200E-07,0.080
-8.100E-07,0.040
-8.000E-07,-0.020
-7.900E-07,-0.040
-7.800E-07,-0.100
-7.700E-07,-0.120
-7.600E-07,-0.120
-7.500E-07,-0.080
-7.400E-07,-0.040
-7.300E-07,-0.160
-7.200E-07,0.080
-7.100E-07,-0.040
-7.000E-07,-0.040
-6.900E-07,0.260
-6.800E-07,0.120
-6.700E-07,0.280
-6.600E-07,0.680
-6.500E-07,0.240
-6.400E-07,0.640
-6.300E-07,0.140
-6.200E-07,0.180
-6.100E-07,0.060
-6.000E-07,0.000
-5.900E-07,-0.100
-5.800E-07,-0.140
-5.700E-07,-0.420
-5.600E-07,-0.560
-5.500E-07,-0.660
-5.400E-07,-0.660
-5.300E-07,-0.640
-5.200E-07,-0.560
-5.100E-07,-0.440
-5.000E-07,-0.200
-4.900E-07,-0.060
-4.800E-07,0.160
-4.700E-07,0.140
-4.600E-07,0.180
-4.500E-07,0.160
-4.400E-07,0.180
-4.300E-07,0.220
-4.200E-07,0.240
-4.100E-07,0.120
-4.000E-07,0.080
-3.900E-07,0.020
-3.800E-07,0.040
-3.700E-07,0.060
-3.600E-07,0.080
-3.500E-07,0.080
-3.400E-07,0.060
-3.300E-07,0.080
-3.200E-07,0.100
-3.100E-07,0.080
-3.000E-07,0.100
-2.900E-07,0.020
-2.800E-07,0.000
-2.700E-07,-0.080
-2.600E-07,-0.160
-2.500E-07,-0.240
-2.400E-07,-0.240
-2.300E-07,-0.280
-2.200E-07,-0.160
-2.100E-07,-0.180
-2.000E-07,-0.100
-1.900E-07,-0.020
-1.800E-07,0.080
-1.700E-07,0.120
-1.600E-07,0.140
-1.500E-07,0.040
-1.400E-07,0.020
-1.300E-07,0.000
-1.200E-07,-0.020
-1.100E-07,-0.040
-1.000E-07,-0.100
-9.000E-08,-0.180
-8.000E-08,-0.260
-7.000E-08,-0.340
-6.000E-08,-0.420
-5.000E-08,-0.140
-4.000E-08,0.160
-3.000E-08,0.100
-2.000E-08,0.220
-1.000E-08,-0.260
0.000E+00,-0.340
1.000E-08,-0.180
2.000E-08,-0.320
3.000E-08,0.080
4.000E-08,-0.260
5.000E-08,-0.500
6.000E-08,-0.820
7.000E-08,-0.840
8.000E-08,-0.740
9.000E-08,-0.540
1.000E-07,-0.640
1.100E-07,-0.840
1.200E-07,-0.900
1.300E-07,-0.760
1.400E-07,-0.580
1.500E-07,-0.380
1.600E-07,-0.340
1.700E-07,-0.340
1.800E-07,-0.260
1.900E-07,-0.180
2.000E-07,-0.120
2.100E-07,0.000
2.200E-07,0.040
2.300E-07,0.080
2.400E-07,0.180
2.500E-07,0.200
2.600E-07,0.320
2.700E-07,0.400
2.800E-07,0.500
2.900E-07,0.520
3.000E-07,0.540
3.100E-07,0.540
3.200E-07,0.600
3.300E-07,0.620
3.400E-07,0.620
3.500E-07,0.600
3.600E-07,0.520
3.700E-07,0.420
3.800E-07,0.340
3.900E-07,0.240
4.000E-07,0.160
4.100E-07,0.080
4.200E-07,0.020
4.300E-07,0.000
4.400E-07,-0.020
4.500E-07,-0.020
4.600E-07,-0.040
4.700E-07,-0.080
4.800E-07,-0.040
4.900E-07,-0.020
5.000E-07,0.000
5.100E-07,0.000
5.200E-07,0.020
5.300E-07,-0.020
5.400E-07,-0.020
5.500E-07,-0.080
5.600E-07,-0.140
5.700E-07,-0.160
5.800E-07,-0.180
5.900E-07,-0.180
6.000E-07,-0.400
6.100E-07,0.920
6.200E-07,-0.120
6.300E-07,1.240
6.400E-07,0.160
6.500E-07,0.240
6.600E-07,-0.260
6.700E-07,-0.300
6.800E-07,-0.440
6.900E-07,-0.240
7.000E-07,-0.680
7.100E-07,-0.840
7.200E-07,-1.000
7.300E-07,-1.180
7.400E-07,-0.960
7.500E-07,-0.900
7.600E-07,-0.900
7.700E-07,-0.880
7.800E-07,-0.780
7.900E-07,-0.600
8.000E-07,-0.420
8.100E-07,-0.320
8.200E-07,-0.300
8.300E-07,-0.240
8.400E-07,-0.160
8.500E-07,-0.040
8.600E-07,0.000
8.700E-07,0.100
8.800E-07,0.160
8.900E-07,0.280
9.000E-07,0.320
9.100E-07,0.440
9.200E-07,0.500
9.300E-07,0.600
9.400E-07,0.640
9.500E-07,0.620
9.600E-07,0.680
9.700E-07,0.700
9.800E-07,0.700
9.900E-07,0.740
1.000E-06,0.740
1.010E-06,0.640
1.020E-06,0.580
1.030E-06,0.480
1.040E-06,0.380
1.050E-06,0.260
1.060E-06,0.160
1.070E-06,0.080
1.080E-06,0.060
1.090E-06,0.100
1.100E-06,0.100
1.110E-06,0.040
1.120E-06,0.020
1.130E-06,-0.020
1.140E-06,-0.040
1.150E-06,-0.060
1.160E-06,-0.060
1.170E-06,-0.060
1.180E-06,-0.100
1.190E-06,-0.100
1.200E-06,-0.120
1.210E-06,-0.140
1.220E-06,-0.160
1.230E-06,-0.160
1.240E-06,-0.220
1.250E-06,-0.240
1.260E-06,-0.260
1.270E-06,-0.280
1.280E-06,-0.360
1.290E-06,-0.300
1.300E-06,-0.480
1.310E-06,-0.420
1.320E-06,-0.500
1.330E-06,-0.460
1.340E-06,-0.700
1.350E-06,0.160
1.360E-06,0.880
1.370E-06,0.600
1.380E-06,1.260
1.390E-06,0.000
1.400E-06,0.040
1.410E-06,-0.160
1.420E-06,-0.280
1.430E-06,0.160
1.440E-06,-0.080
1.450E-06,-0.660
1.460E-06,-0.840
1.470E-06,-0.960
1.480E-06,-0.620
1.490E-06,-0.200
1.500E-06,-0.380
1.510E-06,-0.700
1.520E-06,-0.960
1.530E-06,-0.520
1.540E-06,-0.100
1.550E-06,0.420
1.560E-06,0.500
1.570E-06,0.460
1.580E-06,0.280
1.590E-06,0.300
1.600E-06,0.220
1.610E-06,0.360
1.620E-06,0.480
1.630E-06,0.320
1.640E-06,0.220
1.650E-06,0.120
1.660E-06,0.100
1.670E-06,0.200
1.680E-06,0.220
1.690E-06,0.180
1.700E-06,0.120
1.710E-06,0.080
1.720E-06,0.080
1.730E-06,0.080
1.740E-06,0.140
1.750E-06,0.100
1.760E-06,0.060
1.770E-06,-0.060
1.780E-06,-0.160
1.790E-06,-0.200
1.800E-06,-0.220
1.810E-06,-0.220
1.820E-06,-0.200
1.830E-06,0.000
1.840E-06,0.120
1.850E-06,0.320
1.860E-06,0.380
1.870E-06,0.480
1.880E-06,0.740
1.890E-06,0.860
1.900E-06,1.100
1.910E-06,1.080
1.920E-06,1.020
1.930E-06,0.920
1.940E-06,0.700
1.950E-06,0.520
1.960E-06,0.320
1.970E-06,0.100
1.980E-06,-0.220
1.990E-06,-0.520
2.000E-06,-0.580
2.010E-06,-0.760
2.020E-06,-0.500
2.030E-06,-0.660
2.040E-06,-0.700
2.050E-06,-0.860
2.060E-06,-0.960
2.070E-06,-0.940
2.080E-06,-0.920
2.090E-06,-0.960
2.100E-06,-0.920
2.110E-06,-1.000
2.120E-06,-0.780
2.130E-06,-0.760
2.140E-06,-0.500
2.150E-06,-0.360
2.160E-06,-0.240
2.170E-06,-0.220
2.180E-06,-0.160
2.190E-06,-0.080
2.200E-06,0.100
2.210E-06,0.160
2.220E-06,0.180
2.230E-06,0.140
2.240E-06,0.100
2.250E-06,0.200
2.260E-06,0.240
2.270E-06,0.240
2.280E-06,0.240
2.290E-06,0.280
2.300E-06,0.300
2.310E-06,0.300
2.320E-06,0.340
2.330E-06,0.340
2.340E-06,0.340
2.350E-06,0.320
2.360E-06,0.340
2.370E-06,0.400
2.380E-06,0.320
2.390E-06,0.340
2.400E-06,0.380
2.410E-06,0.600
2.420E-06,0.960
2.430E-06,0.980
2.440E-06,1.200
2.450E-06,0.800
2.460E-06,0.800
2.470E-06,0.500
2.480E-06,0.500
2.490E-06,0.500
2.500E-06,0.400
2.510E-06,0.160
2.520E-06,-0.080
2.530E-06,-0.260
2.540E-06,-0.320
2.550E-06,-0.380
2.560E-06,-0.460
2.570E-06,-0.580
2.580E-06,-0.640
2.590E-06,-0.620
2.600E-06,-0.580
2.610E-06,-0.560
2.620E-06,-0.540
2.630E-06,-0.500
2.640E-06,-0.500
2.650E-06,-0.520
2.660E-06,-0.500
2.670E-06,-0.460
2.680E-06,-0.380
2.690E-06,-0.300
2.700E-06,-0.240
2.710E-06,-0.260
2.720E-06,-0.080
2.730E-06,0.120
2.740E-06,0.340
2.750E-06,0.620
2.760E-06,0.640
2.770E-06,0.740
2.780E-06,0.680
2.790E-06,0.720
2.800E-06,0.660
2.810E-06,0.680
2.820E-06,0.540
2.830E-06,0.340
2.840E-06,0.180
2.850E-06,-0.040
2.860E-06,-0.140
2.870E-06,-0.280
2.880E-06,-0.240
2.890E-06,-0.400
2.900E-06,-0.220
2.910E-06,-0.280
2.920E-06,-0.220
2.930E-06,-0.120
2.940E-06,-0.160
2.950E-06,-0.060
2.960E-06,-0.180
2.970E-06,-0.100
2.980E-06,-0.300
2.990E-06,-0.120
3.000E-06,0.120
3.010E-06,0.420
3.020E-06,0.680
3.030E-06,0.660
3.040E-06,0.500
3.050E-06,0.300
3.060E-06,0.180
3.070E-06,0.060
3.080E-06,0.140
3.090E-06,-0.020
3.100E-06,-0.300
3.110E-06,-0.500
3.120E-06,-0.680
3.130E-06,-0.600
3.140E-06,-0.600
3.150E-06,-0.600
