mediciones/5-27/-45/WaveData50122.csv

#timebase=2000000(ps)
,#voltbase=100000(mv/100)
#size=4000
-8.400E-06,0.004
-8.390E-06,0.016
-8.380E-06,0.012
-8.370E-06,0.004
-8.360E-06,0.004
-8.350E-06,-0.004
-8.340E-06,-0.004
-8.330E-06,0.000
-8.320E-06,0.004
-8.310E-06,-0.004
-8.300E-06,-0.004
-8.290E-06,-0.008
-8.280E-06,0.004
-8.270E-06,0.012
-8.260E-06,0.004
-8.250E-06,0.000
-8.240E-06,-0.004
-8.230E-06,-0.004
-8.220E-06,-0.004
-8.210E-06,0.000
-8.200E-06,0.004
-8.190E-06,0.008
-8.180E-06,0.008
-8.170E-06,0.008
-8.160E-06,-0.004
-8.150E-06,-0.004
-8.140E-06,0.000
-8.130E-06,0.000
-8.120E-06,0.004
-8.110E-06,0.008
-8.100E-06,0.004
-8.090E-06,0.000
-8.080E-06,-0.004
-8.070E-06,0.004
-8.060E-06,0.000
-8.050E-06,0.008
-8.040E-06,0.008
-8.030E-06,0.008
-8.020E-06,0.000
-8.010E-06,0.000
-8.000E-06,0.000
-7.990E-06,0.000
-7.980E-06,0.004
-7.970E-06,0.008
-7.960E-06,0.004
-7.950E-06,0.004
-7.940E-06,0.000
-7.930E-06,0.000
-7.920E-06,0.000
-7.910E-06,0.004
-7.900E-06,0.004
-7.890E-06,0.008
-7.880E-06,0.000
-7.870E-06,0.004
-7.860E-06,0.000
-7.850E-06,0.000
-7.840E-06,0.004
-7.830E-06,0.004
-7.820E-06,0.004
-7.810E-06,0.000
-7.800E-06,0.004
-7.790E-06,0.004
-7.780E-06,0.004
-7.770E-06,0.004
-7.760E-06,0.004
-7.750E-06,0.004
-7.740E-06,0.008
-7.730E-06,0.008
-7.720E-06,0.012
-7.710E-06,0.012
-7.700E-06,0.012
-7.690E-06,0.004
-7.680E-06,0.004
-7.670E-06,0.004
-7.660E-06,0.000
-7.650E-06,0.000
-7.640E-06,0.008
-7.630E-06,0.008
-7.620E-06,0.012
-7.610E-06,0.008
-7.600E-06,0.008
-7.590E-06,0.004
-7.580E-06,0.008
-7.570E-06,0.012
-7.560E-06,0.016
-7.550E-06,0.012
-7.540E-06,0.008
-7.530E-06,-0.008
-7.520E-06,-0.012
-7.510E-06,-0.012
-7.500E-06,-0.012
-7.490E-06,-0.008
-7.480E-06,0.012
-7.470E-06,0.000
-7.460E-06,0.000
-7.450E-06,-0.004
-7.440E-06,0.000
-7.430E-06,0.000
-7.420E-06,0.012
-7.410E-06,0.012
-7.400E-06,0.012
-7.390E-06,0.008
-7.380E-06,-0.008
-7.370E-06,0.000
-7.360E-06,0.000
-7.350E-06,0.012
-7.340E-06,0.008
-7.330E-06,0.004
-7.320E-06,0.000
-7.310E-06,0.000
-7.300E-06,0.000
-7.290E-06,0.008
-7.280E-06,0.004
-7.270E-06,0.000
-7.260E-06,-0.004
-7.250E-06,-0.004
-7.240E-06,0.000
-7.230E-06,0.012
-7.220E-06,0.012
-7.210E-06,0.012
-7.200E-06,0.000
-7.190E-06,-0.004
-7.180E-06,0.000
-7.170E-06,-0.004
-7.160E-06,0.004
-7.150E-06,0.000
-7.140E-06,0.004
-7.130E-06,0.004
-7.120E-06,0.000
-7.110E-06,-0.004
-7.100E-06,0.000
-7.090E-06,0.000
-7.080E-06,0.000
-7.070E-06,0.000
-7.060E-06,0.008
-7.050E-06,0.004
-7.040E-06,0.004
-7.030E-06,0.004
-7.020E-06,-0.004
-7.010E-06,0.004
-7.000E-06,0.008
-6.990E-06,0.012
-6.980E-06,0.016
-6.970E-06,0.016
-6.960E-06,0.016
-6.950E-06,0.004
-6.940E-06,0.008
-6.930E-06,0.004
-6.920E-06,0.000
-6.910E-06,0.000
-6.900E-06,0.008
-6.890E-06,0.000
-6.880E-06,-0.004
-6.870E-06,-0.012
-6.860E-06,-0.020
-6.850E-06,-0.016
-6.840E-06,0.008
-6.830E-06,0.016
-6.820E-06,0.024
-6.810E-06,0.016
-6.800E-06,0.016
-6.790E-06,0.008
-6.780E-06,0.000
-6.770E-06,0.012
-6.760E-06,0.012
-6.750E-06,0.024
-6.740E-06,0.024
-6.730E-06,0.016
-6.720E-06,0.008
-6.710E-06,-0.008
-6.700E-06,-0.012
-6.690E-06,-0.004
-6.680E-06,0.012
-6.670E-06,0.032
-6.660E-06,0.032
-6.650E-06,0.024
-6.640E-06,0.024
-6.630E-06,0.000
-6.620E-06,-0.032
-6.610E-06,-0.040
-6.600E-06,-0.036
-6.590E-06,-0.020
-6.580E-06,0.016
-6.570E-06,0.024
-6.560E-06,0.020
-6.550E-06,0.008
-6.540E-06,-0.008
-6.530E-06,-0.012
-6.520E-06,-0.012
-6.510E-06,0.000
-6.500E-06,0.012
-6.490E-06,0.016
-6.480E-06,0.008
-6.470E-06,0.000
-6.460E-06,-0.004
-6.450E-06,-0.008
-6.440E-06,-0.004
-6.430E-06,0.004
-6.420E-06,0.012
-6.410E-06,0.008
-6.400E-06,0.004
-6.390E-06,-0.004
-6.380E-06,-0.008
-6.370E-06,0.008
-6.360E-06,0.004
-6.350E-06,0.012
-6.340E-06,0.008
-6.330E-06,0.004
-6.320E-06,0.000
-6.310E-06,0.000
-6.300E-06,0.004
-6.290E-06,0.004
-6.280E-06,0.012
-6.270E-06,0.012
-6.260E-06,0.016
-6.250E-06,0.008
-6.240E-06,0.004
-6.230E-06,-0.040
-6.220E-06,-0.028
-6.210E-06,-0.036
-6.200E-06,0.004
-6.190E-06,0.024
-6.180E-06,0.024
-6.170E-06,0.008
-6.160E-06,-0.004
-6.150E-06,-0.020
-6.140E-06,-0.020
-6.130E-06,-0.004
-6.120E-06,0.016
-6.110E-06,0.016
-6.100E-06,0.004
-6.090E-06,-0.004
-6.080E-06,0.000
-6.070E-06,0.000
-6.060E-06,0.004
-6.050E-06,0.012
-6.040E-06,0.008
-6.030E-06,0.000
-6.020E-06,0.000
-6.010E-06,0.000
-6.000E-06,0.008
-5.990E-06,0.008
-5.980E-06,0.016
-5.970E-06,0.008
-5.960E-06,0.008
-5.950E-06,0.004
-5.940E-06,0.008
-5.930E-06,0.008
-5.920E-06,0.004
-5.910E-06,-0.004
-5.900E-06,-0.008
-5.890E-06,-0.004
-5.880E-06,0.004
-5.870E-06,0.008
-5.860E-06,0.012
-5.850E-06,0.004
-5.840E-06,0.004
-5.830E-06,0.000
-5.820E-06,0.000
-5.810E-06,0.000
-5.800E-06,0.016
-5.790E-06,0.008
-5.780E-06,0.008
-5.770E-06,0.000
-5.760E-06,-0.008
-5.750E-06,-0.008
-5.740E-06,0.000
-5.730E-06,0.012
-5.720E-06,0.020
-5.710E-06,0.008
-5.700E-06,0.004
-5.690E-06,-0.004
-5.680E-06,-0.004
-5.670E-06,-0.004
-5.660E-06,0.004
-5.650E-06,0.012
-5.640E-06,0.004
-5.630E-06,-0.004
-5.620E-06,-0.008
-5.610E-06,-0.008
-5.600E-06,0.000
-5.590E-06,0.012
-5.580E-06,0.024
-5.570E-06,0.020
-5.560E-06,0.008
-5.550E-06,0.012
-5.540E-06,0.020
-5.530E-06,0.004
-5.520E-06,0.000
-5.510E-06,-0.020
-5.500E-06,-0.028
-5.490E-06,-0.008
-5.480E-06,-0.004
-5.470E-06,0.004
-5.460E-06,0.012
-5.450E-06,0.012
-5.440E-06,-0.004
-5.430E-06,-0.004
-5.420E-06,-0.008
-5.410E-06,-0.004
-5.400E-06,0.004
-5.390E-06,0.008
-5.380E-06,0.004
-5.370E-06,0.008
-5.360E-06,0.000
-5.350E-06,0.000
-5.340E-06,-0.004
-5.330E-06,0.000
-5.320E-06,0.004
-5.310E-06,0.008
-5.300E-06,0.008
-5.290E-06,0.008
-5.280E-06,0.000
-5.270E-06,0.000
-5.260E-06,-0.004
-5.250E-06,0.008
-5.240E-06,0.008
-5.230E-06,0.000
-5.220E-06,0.000
-5.210E-06,0.000
-5.200E-06,-0.008
-5.190E-06,0.004
-5.180E-06,0.008
-5.170E-06,0.008
-5.160E-06,0.000
-5.150E-06,0.000
-5.140E-06,-0.008
-5.130E-06,-0.004
-5.120E-06,0.008
-5.110E-06,0.012
-5.100E-06,0.008
-5.090E-06,0.000
-5.080E-06,-0.004
-5.070E-06,0.004
-5.060E-06,0.008
-5.050E-06,0.012
-5.040E-06,0.012
-5.030E-06,0.008
-5.020E-06,0.004
-5.010E-06,0.008
-5.000E-06,0.004
-4.990E-06,0.004
-4.980E-06,0.000
-4.970E-06,0.000
-4.960E-06,0.008
-4.950E-06,-0.004
-4.940E-06,-0.004
-4.930E-06,0.000
-4.920E-06,0.004
-4.910E-06,0.004
-4.900E-06,0.008
-4.890E-06,0.004
-4.880E-06,0.004
-4.870E-06,0.004
-4.860E-06,0.000
-4.850E-06,0.000
-4.840E-06,0.008
-4.830E-06,0.012
-4.820E-06,0.000
-4.810E-06,0.000
-4.800E-06,0.000
-4.790E-06,0.004
-4.780E-06,0.008
-4.770E-06,0.008
-4.760E-06,0.008
-4.750E-06,0.008
-4.740E-06,0.008
-4.730E-06,0.004
-4.720E-06,0.008
-4.710E-06,0.008
-4.700E-06,0.000
-4.690E-06,0.004
-4.680E-06,0.004
-4.670E-06,0.008
-4.660E-06,0.012
-4.650E-06,0.016
-4.640E-06,0.016
-4.630E-06,0.008
-4.620E-06,-0.008
-4.610E-06,-0.024
-4.600E-06,-0.008
-4.590E-06,0.000
-4.580E-06,0.012
-4.570E-06,0.016
-4.560E-06,0.012
-4.550E-06,0.004
-4.540E-06,-0.004
-4.530E-06,-0.008
-4.520E-06,0.000
-4.510E-06,-0.004
-4.500E-06,-0.004
-4.490E-06,0.000
-4.480E-06,0.004
-4.470E-06,-0.004
-4.460E-06,-0.004
-4.450E-06,0.004
-4.440E-06,0.004
-4.430E-06,0.008
-4.420E-06,-0.004
-4.410E-06,0.000
-4.400E-06,-0.004
-4.390E-06,0.000
-4.380E-06,0.004
-4.370E-06,0.008
-4.360E-06,0.004
-4.350E-06,0.004
-4.340E-06,0.000
-4.330E-06,0.000
-4.320E-06,0.000
-4.310E-06,0.004
-4.300E-06,0.008
-4.290E-06,0.008
-4.280E-06,0.008
-4.270E-06,0.008
-4.260E-06,0.008
-4.250E-06,0.012
-4.240E-06,0.004
-4.230E-06,0.004
-4.220E-06,0.012
-4.210E-06,0.008
-4.200E-06,0.012
-4.190E-06,0.016
-4.180E-06,0.016
-4.170E-06,0.012
-4.160E-06,0.012
-4.150E-06,0.008
-4.140E-06,0.000
-4.130E-06,-0.008
-4.120E-06,-0.016
-4.110E-06,-0.024
-4.100E-06,-0.008
-4.090E-06,0.000
-4.080E-06,0.008
-4.070E-06,0.004
-4.060E-06,0.004
-4.050E-06,0.000
-4.040E-06,-0.004
-4.030E-06,0.000
-4.020E-06,0.004
-4.010E-06,0.012
-4.000E-06,0.000
-3.990E-06,-0.004
-3.980E-06,-0.004
-3.970E-06,-0.004
-3.960E-06,-0.004
-3.950E-06,0.008
-3.940E-06,0.000
-3.930E-06,0.004
-3.920E-06,0.000
-3.910E-06,0.000
-3.900E-06,0.000
-3.890E-06,0.004
-3.880E-06,0.004
-3.870E-06,0.008
-3.860E-06,0.008
-3.850E-06,0.008
-3.840E-06,0.008
-3.830E-06,0.000
-3.820E-06,0.008
-3.810E-06,0.012
-3.800E-06,0.012
-3.790E-06,0.008
-3.780E-06,0.012
-3.770E-06,0.012
-3.760E-06,0.008
-3.750E-06,0.004
-3.740E-06,0.004
-3.730E-06,0.008
-3.720E-06,0.008
-3.710E-06,0.004
-3.700E-06,-0.004
-3.690E-06,-0.004
-3.680E-06,-0.008
-3.670E-06,0.000
-3.660E-06,0.012
-3.650E-06,0.012
-3.640E-06,0.012
-3.630E-06,0.012
-3.620E-06,0.000
-3.610E-06,-0.004
-3.600E-06,-0.012
-3.590E-06,-0.004
-3.580E-06,0.000
-3.570E-06,0.000
-3.560E-06,0.008
-3.550E-06,0.012
-3.540E-06,0.016
-3.530E-06,0.008
-3.520E-06,0.008
-3.510E-06,0.004
-3.500E-06,0.000
-3.490E-06,0.004
-3.480E-06,0.008
-3.470E-06,0.012
-3.460E-06,0.004
-3.450E-06,0.004
-3.440E-06,0.008
-3.430E-06,0.004
-3.420E-06,0.008
-3.410E-06,0.008
-3.400E-06,0.004
-3.390E-06,0.016
-3.380E-06,0.028
-3.370E-06,0.032
-3.360E-06,0.024
-3.350E-06,0.000
-3.340E-06,-0.020
-3.330E-06,-0.028
-3.320E-06,-0.028
-3.310E-06,-0.012
-3.300E-06,0.000
-3.290E-06,0.016
-3.280E-06,0.028
-3.270E-06,0.028
-3.260E-06,0.012
-3.250E-06,-0.008
-3.240E-06,-0.024
-3.230E-06,-0.012
-3.220E-06,-0.004
-3.210E-06,0.008
-3.200E-06,0.004
-3.190E-06,-0.004
-3.180E-06,-0.004
-3.170E-06,-0.008
-3.160E-06,-0.004
-3.150E-06,0.008
-3.140E-06,0.016
-3.130E-06,0.012
-3.120E-06,0.008
-3.110E-06,0.004
-3.100E-06,0.008
-3.090E-06,0.008
-3.080E-06,0.024
-3.070E-06,0.040
-3.060E-06,0.036
-3.050E-06,0.012
-3.040E-06,-0.036
-3.030E-06,-0.052
-3.020E-06,-0.040
-3.010E-06,-0.008
-3.000E-06,0.028
-2.990E-06,0.056
-2.980E-06,0.048
-2.970E-06,0.032
-2.960E-06,0.000
-2.950E-06,-0.024
-2.940E-06,-0.040
-2.930E-06,-0.020
-2.920E-06,0.000
-2.910E-06,0.016
-2.900E-06,0.012
-2.890E-06,0.008
-2.880E-06,0.000
-2.870E-06,-0.004
-2.860E-06,-0.004
-2.850E-06,0.004
-2.840E-06,0.012
-2.830E-06,0.008
-2.820E-06,0.008
-2.810E-06,0.008
-2.800E-06,0.000
-2.790E-06,0.004
-2.780E-06,0.020
-2.770E-06,0.024
-2.760E-06,0.032
-2.750E-06,0.020
-2.740E-06,0.024
-2.730E-06,0.028
-2.720E-06,0.028
-2.710E-06,0.012
-2.700E-06,-0.016
-2.690E-06,-0.036
-2.680E-06,-0.032
-2.670E-06,-0.008
-2.660E-06,0.000
-2.650E-06,0.024
-2.640E-06,0.028
-2.630E-06,0.016
-2.620E-06,0.004
-2.610E-06,0.000
-2.600E-06,-0.004
-2.590E-06,-0.004
-2.580E-06,0.000
-2.570E-06,0.000
-2.560E-06,0.012
-2.550E-06,0.016
-2.540E-06,0.020
-2.530E-06,0.016
-2.520E-06,0.024
-2.510E-06,0.020
-2.500E-06,0.024
-2.490E-06,0.012
-2.480E-06,0.004
-2.470E-06,0.008
-2.460E-06,0.000
-2.450E-06,-0.004
-2.440E-06,-0.004
-2.430E-06,-0.004
-2.420E-06,-0.004
-2.410E-06,0.008
-2.400E-06,0.000
-2.390E-06,0.008
-2.380E-06,0.004
-2.370E-06,0.000
-2.360E-06,0.004
-2.350E-06,0.012
-2.340E-06,0.016
-2.330E-06,0.028
-2.320E-06,0.020
-2.310E-06,0.016
-2.300E-06,0.016
-2.290E-06,0.012
-2.280E-06,0.032
-2.270E-06,0.044
-2.260E-06,0.024
-2.250E-06,-0.024
-2.240E-06,-0.060
-2.230E-06,-0.068
-2.220E-06,-0.028
-2.210E-06,0.028
-2.200E-06,0.036
-2.190E-06,-0.008
-2.180E-06,-0.092
-2.170E-06,-0.124
-2.160E-06,-0.100
-2.150E-06,0.024
-2.140E-06,0.084
-2.130E-06,0.060
-2.120E-06,0.044
-2.110E-06,-0.012
-2.100E-06,-0.040
-2.090E-06,-0.028
-2.080E-06,0.008
-2.070E-06,0.032
-2.060E-06,0.020
-2.050E-06,0.020
-2.040E-06,0.000
-2.030E-06,0.008
-2.020E-06,-0.020
-2.010E-06,-0.060
-2.000E-06,-0.064
-1.990E-06,-0.028
-1.980E-06,0.032
-1.970E-06,0.048
-1.960E-06,0.032
-1.950E-06,0.016
-1.940E-06,-0.008
-1.930E-06,-0.020
-1.920E-06,-0.024
-1.910E-06,0.024
-1.900E-06,0.028
-1.890E-06,0.028
-1.880E-06,0.012
-1.870E-06,-0.004
-1.860E-06,0.000
-1.850E-06,0.000
-1.840E-06,0.012
-1.830E-06,0.024
-1.820E-06,0.012
-1.810E-06,0.000
-1.800E-06,-0.016
-1.790E-06,-0.012
-1.780E-06,0.008
-1.770E-06,0.028
-1.760E-06,0.036
-1.750E-06,0.020
-1.740E-06,0.008
-1.730E-06,0.004
-1.720E-06,0.000
-1.710E-06,0.004
-1.700E-06,0.004
-1.690E-06,0.004
-1.680E-06,-0.004
-1.670E-06,-0.012
-1.660E-06,0.008
-1.650E-06,-0.020
-1.640E-06,-0.008
-1.630E-06,0.004
-1.620E-06,-0.008
-1.610E-06,0.004
-1.600E-06,-0.004
-1.590E-06,0.004
-1.580E-06,0.012
-1.570E-06,0.024
-1.560E-06,0.008
-1.550E-06,-0.004
-1.540E-06,-0.004
-1.530E-06,0.008
-1.520E-06,0.020
-1.510E-06,0.020
-1.500E-06,0.016
-1.490E-06,0.008
-1.480E-06,0.004
-1.470E-06,0.004
-1.460E-06,0.012
-1.450E-06,0.020
-1.440E-06,0.048
-1.430E-06,0.068
-1.420E-06,0.036
-1.410E-06,-0.004
-1.400E-06,-0.044
-1.390E-06,-0.060
-1.380E-06,-0.044
-1.370E-06,0.000
-1.360E-06,0.044
-1.350E-06,0.068
-1.340E-06,0.044
-1.330E-06,0.004
-1.320E-06,-0.024
-1.310E-06,-0.028
-1.300E-06,0.004
-1.290E-06,0.052
-1.280E-06,0.076
-1.270E-06,0.068
-1.260E-06,0.028
-1.250E-06,-0.020
-1.240E-06,-0.060
-1.230E-06,-0.072
-1.220E-06,-0.060
-1.210E-06,-0.024
-1.200E-06,0.008
-1.190E-06,0.028
-1.180E-06,0.016
-1.170E-06,0.000
-1.160E-06,-0.020
-1.150E-06,-0.028
-1.140E-06,-0.012
-1.130E-06,0.000
-1.120E-06,0.008
-1.110E-06,0.012
-1.100E-06,0.012
-1.090E-06,0.008
-1.080E-06,0.000
-1.070E-06,0.008
-1.060E-06,0.012
-1.050E-06,0.016
-1.040E-06,0.024
-1.030E-06,0.020
-1.020E-06,0.024
-1.010E-06,0.032
-1.000E-06,0.036
-9.900E-07,0.044
-9.800E-07,0.056
-9.700E-07,0.060
-9.600E-07,0.064
-9.500E-07,0.060
-9.400E-07,0.040
-9.300E-07,0.004
-9.200E-07,-0.024
-9.100E-07,-0.040
-9.000E-07,-0.044
-8.900E-07,-0.040
-8.800E-07,-0.024
-8.700E-07,-0.004
-8.600E-07,-0.004
-8.500E-07,0.000
-8.400E-07,-0.004
-8.300E-07,-0.004
-8.200E-07,-0.008
-8.100E-07,0.000
-8.000E-07,0.008
-7.900E-07,0.016
-7.800E-07,0.008
-7.700E-07,0.008
-7.600E-07,0.004
-7.500E-07,0.008
-7.400E-07,0.016
-7.300E-07,0.028
-7.200E-07,0.036
-7.100E-07,0.032
-7.000E-07,0.040
-6.900E-07,0.040
-6.800E-07,0.040
-6.700E-07,0.028
-6.600E-07,0.036
-6.500E-07,0.036
-6.400E-07,0.052
-6.300E-07,0.056
-6.200E-07,0.044
-6.100E-07,0.044
-6.000E-07,0.032
-5.900E-07,0.032
-5.800E-07,0.044
-5.700E-07,0.048
-5.600E-07,0.040
-5.500E-07,0.028
-5.400E-07,-0.012
-5.300E-07,-0.020
-5.200E-07,-0.012
-5.100E-07,-0.004
-5.000E-07,0.016
-4.900E-07,0.044
-4.800E-07,0.056
-4.700E-07,0.024
-4.600E-07,0.000
-4.500E-07,-0.020
-4.400E-07,-0.056
-4.300E-07,-0.072
-4.200E-07,-0.084
-4.100E-07,-0.084
-4.000E-07,-0.064
-3.900E-07,-0.048
-3.800E-07,-0.020
-3.700E-07,-0.008
-3.600E-07,-0.004
-3.500E-07,0.000
-3.400E-07,0.012
-3.300E-07,0.032
-3.200E-07,0.060
-3.100E-07,0.068
-3.000E-07,0.092
-2.900E-07,0.092
-2.800E-07,0.108
-2.700E-07,0.084
-2.600E-07,0.052
-2.500E-07,0.020
-2.400E-07,-0.004
-2.300E-07,-0.020
-2.200E-07,-0.008
-2.100E-07,-0.008
-2.000E-07,-0.008
-1.900E-07,-0.012
-1.800E-07,-0.008
-1.700E-07,-0.024
-1.600E-07,-0.036
-1.500E-07,-0.032
-1.400E-07,-0.008
-1.300E-07,0.028
-1.200E-07,0.064
-1.100E-07,0.072
-1.000E-07,0.080
-9.000E-08,0.092
-8.000E-08,0.076
-7.000E-08,0.040
-6.000E-08,-0.020
-5.000E-08,-0.256
-4.000E-08,-0.436
-3.000E-08,-0.512
-2.000E-08,-0.380
-1.000E-08,0.012
0.000E+00,0.292
1.000E-08,0.308
2.000E-08,0.228
3.000E-08,0.012
4.000E-08,-0.176
5.000E-08,-0.204
6.000E-08,-0.084
7.000E-08,0.064
8.000E-08,0.152
9.000E-08,0.104
1.000E-07,0.016
1.100E-07,-0.032
1.200E-07,-0.012
1.300E-07,0.000
1.400E-07,0.040
1.500E-07,0.036
1.600E-07,-0.008
1.700E-07,-0.080
1.800E-07,-0.100
1.900E-07,-0.072
2.000E-07,0.004
2.100E-07,0.048
2.200E-07,0.044
2.300E-07,0.028
2.400E-07,-0.024
2.500E-07,-0.036
2.600E-07,-0.036
2.700E-07,0.000
2.800E-07,0.024
2.900E-07,0.044
3.000E-07,0.028
3.100E-07,0.016
3.200E-07,0.004
3.300E-07,0.004
3.400E-07,0.008
3.500E-07,0.020
3.600E-07,0.028
3.700E-07,0.024
3.800E-07,0.028
3.900E-07,0.036
4.000E-07,0.048
4.100E-07,0.048
4.200E-07,0.056
4.300E-07,0.060
4.400E-07,0.072
4.500E-07,0.084
4.600E-07,0.100
4.700E-07,0.112
4.800E-07,0.120
4.900E-07,0.112
5.000E-07,0.088
5.100E-07,0.060
5.200E-07,0.016
5.300E-07,-0.036
5.400E-07,-0.068
5.500E-07,-0.116
5.600E-07,-0.120
5.700E-07,-0.120
5.800E-07,-0.080
5.900E-07,-0.040
6.000E-07,-0.008
6.100E-07,-0.008
6.200E-07,-0.032
6.300E-07,-0.028
6.400E-07,-0.032
6.500E-07,-0.012
6.600E-07,0.004
6.700E-07,0.012
6.800E-07,0.016
6.900E-07,0.008
7.000E-07,-0.008
7.100E-07,-0.012
7.200E-07,0.008
7.300E-07,0.028
7.400E-07,0.028
7.500E-07,0.028
7.600E-07,0.028
7.700E-07,0.004
7.800E-07,0.024
7.900E-07,0.024
8.000E-07,0.040
8.100E-07,0.064
8.200E-07,0.096
8.300E-07,0.104
8.400E-07,0.100
8.500E-07,0.092
8.600E-07,0.056
8.700E-07,0.032
8.800E-07,-0.012
8.900E-07,-0.036
9.000E-07,-0.044
9.100E-07,-0.048
9.200E-07,-0.056
9.300E-07,-0.036
9.400E-07,-0.036
9.500E-07,-0.028
9.600E-07,-0.020
9.700E-07,-0.012
9.800E-07,-0.012
9.900E-07,-0.012
1.000E-06,-0.008
1.010E-06,-0.012
1.020E-06,-0.004
1.030E-06,-0.004
1.040E-06,0.000
1.050E-06,0.000
1.060E-06,0.004
1.070E-06,0.012
1.080E-06,0.012
1.090E-06,0.020
1.100E-06,0.044
1.110E-06,0.068
1.120E-06,0.084
1.130E-06,0.104
1.140E-06,0.120
1.150E-06,0.124
1.160E-06,0.124
1.170E-06,0.128
1.180E-06,0.124
1.190E-06,0.128
1.200E-06,0.124
1.210E-06,0.120
1.220E-06,0.116
1.230E-06,0.104
1.240E-06,0.108
1.250E-06,0.096
1.260E-06,0.076
1.270E-06,0.044
1.280E-06,0.028
1.290E-06,-0.004
1.300E-06,-0.028
1.310E-06,-0.044
1.320E-06,-0.052
1.330E-06,-0.052
1.340E-06,-0.060
1.350E-06,-0.056
1.360E-06,-0.040
1.370E-06,-0.008
1.380E-06,-0.004
1.390E-06,0.016
1.400E-06,0.032
1.410E-06,0.060
1.420E-06,0.068
1.430E-06,0.080
1.440E-06,0.084
1.450E-06,0.088
1.460E-06,0.100
1.470E-06,0.096
1.480E-06,0.096
1.490E-06,0.096
1.500E-06,0.092
1.510E-06,0.096
1.520E-06,0.088
1.530E-06,0.088
1.540E-06,0.076
1.550E-06,0.064
1.560E-06,0.056
1.570E-06,0.020
1.580E-06,0.004
1.590E-06,-0.024
1.600E-06,-0.024
1.610E-06,-0.028
1.620E-06,-0.020
1.630E-06,-0.008
1.640E-06,0.004
1.650E-06,0.004
1.660E-06,-0.008
1.670E-06,0.008
1.680E-06,0.012
1.690E-06,0.056
1.700E-06,0.088
1.710E-06,0.116
1.720E-06,0.100
1.730E-06,0.080
1.740E-06,-0.008
1.750E-06,-0.108
1.760E-06,-0.188
1.770E-06,-0.200
1.780E-06,-0.148
1.790E-06,-0.088
1.800E-06,-0.104
1.810E-06,-0.200
1.820E-06,-0.320
1.830E-06,-0.392
1.840E-06,-0.380
1.850E-06,-0.264
1.860E-06,-0.108
1.870E-06,0.012
1.880E-06,0.072
1.890E-06,0.008
1.900E-06,-0.056
1.910E-06,-0.108
1.920E-06,-0.088
1.930E-06,-0.044
1.940E-06,0.020
1.950E-06,0.088
1.960E-06,0.068
1.970E-06,0.032
1.980E-06,-0.032
1.990E-06,-0.040
2.000E-06,-0.032
2.010E-06,0.012
2.020E-06,0.032
2.030E-06,0.044
2.040E-06,0.040
2.050E-06,0.016
2.060E-06,-0.008
2.070E-06,-0.024
2.080E-06,0.000
2.090E-06,0.016
2.100E-06,0.056
2.110E-06,0.072
2.120E-06,0.076
2.130E-06,0.052
2.140E-06,0.032
2.150E-06,0.020
2.160E-06,0.032
2.170E-06,0.056
2.180E-06,0.080
2.190E-06,0.096
2.200E-06,0.104
2.210E-06,0.092
2.220E-06,0.080
2.230E-06,0.080
2.240E-06,0.092
2.250E-06,0.120
2.260E-06,0.148
2.270E-06,0.168
2.280E-06,0.168
2.290E-06,0.156
2.300E-06,0.144
2.310E-06,0.136
2.320E-06,0.132
2.330E-06,0.140
2.340E-06,0.156
2.350E-06,0.160
2.360E-06,0.168
2.370E-06,0.160
2.380E-06,0.160
2.390E-06,0.148
2.400E-06,0.140
2.410E-06,0.148
2.420E-06,0.156
2.430E-06,0.164
2.440E-06,0.160
2.450E-06,0.156
2.460E-06,0.156
2.470E-06,0.156
2.480E-06,0.148
2.490E-06,0.144
2.500E-06,0.124
2.510E-06,0.092
2.520E-06,0.044
2.530E-06,0.004
2.540E-06,-0.036
2.550E-06,-0.040
2.560E-06,-0.084
2.570E-06,-0.152
2.580E-06,-0.184
2.590E-06,-0.224
2.600E-06,-0.180
2.610E-06,-0.112
2.620E-06,-0.008
2.630E-06,0.124
2.640E-06,0.132
2.650E-06,-0.052
2.660E-06,-0.300
2.670E-06,-0.508
2.680E-06,-0.508
2.690E-06,-0.508
2.700E-06,-0.308
2.710E-06,-0.120
2.720E-06,0.000
2.730E-06,0.008
2.740E-06,-0.056
2.750E-06,-0.104
2.760E-06,-0.120
2.770E-06,-0.024
2.780E-06,0.076
2.790E-06,0.108
2.800E-06,0.108
2.810E-06,0.096
2.820E-06,0.064
2.830E-06,0.052
2.840E-06,0.056
2.850E-06,0.080
2.860E-06,0.104
2.870E-06,0.116
2.880E-06,0.108
2.890E-06,0.100
2.900E-06,0.096
2.910E-06,0.092
2.920E-06,0.088
2.930E-06,0.108
2.940E-06,0.120
2.950E-06,0.140
2.960E-06,0.140
2.970E-06,0.128
2.980E-06,0.120
2.990E-06,0.120
3.000E-06,0.128
3.010E-06,0.152
3.020E-06,0.168
3.030E-06,0.180
3.040E-06,0.176
3.050E-06,0.164
3.060E-06,0.144
3.070E-06,0.144
3.080E-06,0.156
3.090E-06,0.164
3.100E-06,0.188
3.110E-06,0.196
3.120E-06,0.192
3.130E-06,0.168
3.140E-06,0.160
3.150E-06,0.152
3.160E-06,0.156
3.170E-06,0.164
3.180E-06,0.164
3.190E-06,0.172
3.200E-06,0.176
3.210E-06,0.152
3.220E-06,0.148
3.230E-06,0.136
3.240E-06,0.136
3.250E-06,0.128
3.260E-06,0.124
3.270E-06,0.104
3.280E-06,0.076
3.290E-06,0.052
3.300E-06,0.000
3.310E-06,-0.032
3.320E-06,-0.052
