mediciones/5-27/-45/WaveData50124.csv

#timebase=2000000(ps)
,#voltbase=100000(mv/100)
#size=4000
-8.400E-06,0.012
-8.390E-06,0.008
-8.380E-06,0.004
-8.370E-06,0.004
-8.360E-06,-0.004
-8.350E-06,-0.004
-8.340E-06,-0.008
-8.330E-06,-0.008
-8.320E-06,0.000
-8.310E-06,-0.004
-8.300E-06,0.004
-8.290E-06,0.016
-8.280E-06,0.016
-8.270E-06,0.008
-8.260E-06,0.004
-8.250E-06,0.000
-8.240E-06,0.000
-8.230E-06,0.004
-8.220E-06,0.008
-8.210E-06,0.004
-8.200E-06,0.004
-8.190E-06,0.004
-8.180E-06,0.004
-8.170E-06,0.000
-8.160E-06,0.004
-8.150E-06,0.008
-8.140E-06,0.004
-8.130E-06,0.004
-8.120E-06,0.008
-8.110E-06,0.000
-8.100E-06,0.004
-8.090E-06,0.004
-8.080E-06,0.004
-8.070E-06,0.004
-8.060E-06,0.000
-8.050E-06,0.004
-8.040E-06,0.004
-8.030E-06,0.004
-8.020E-06,0.000
-8.010E-06,0.004
-8.000E-06,0.000
-7.990E-06,0.004
-7.980E-06,0.008
-7.970E-06,0.008
-7.960E-06,0.008
-7.950E-06,0.004
-7.940E-06,0.004
-7.930E-06,-0.004
-7.920E-06,-0.004
-7.910E-06,-0.004
-7.900E-06,-0.004
-7.890E-06,-0.004
-7.880E-06,-0.004
-7.870E-06,0.016
-7.860E-06,0.016
-7.850E-06,0.008
-7.840E-06,0.008
-7.830E-06,-0.004
-7.820E-06,-0.004
-7.810E-06,0.000
-7.800E-06,0.000
-7.790E-06,0.004
-7.780E-06,0.004
-7.770E-06,0.008
-7.760E-06,0.000
-7.750E-06,0.004
-7.740E-06,0.000
-7.730E-06,0.004
-7.720E-06,0.000
-7.710E-06,0.004
-7.700E-06,0.004
-7.690E-06,0.008
-7.680E-06,0.004
-7.670E-06,0.004
-7.660E-06,0.004
-7.650E-06,0.004
-7.640E-06,0.004
-7.630E-06,0.004
-7.620E-06,0.008
-7.610E-06,0.004
-7.600E-06,0.008
-7.590E-06,0.008
-7.580E-06,0.004
-7.570E-06,0.000
-7.560E-06,0.004
-7.550E-06,0.000
-7.540E-06,0.004
-7.530E-06,0.000
-7.520E-06,0.008
-7.510E-06,0.008
-7.500E-06,0.008
-7.490E-06,0.000
-7.480E-06,-0.004
-7.470E-06,-0.004
-7.460E-06,-0.008
-7.450E-06,0.000
-7.440E-06,-0.004
-7.430E-06,0.004
-7.420E-06,0.004
-7.410E-06,0.012
-7.400E-06,0.012
-7.390E-06,0.000
-7.380E-06,0.000
-7.370E-06,-0.004
-7.360E-06,-0.004
-7.350E-06,-0.004
-7.340E-06,0.008
-7.330E-06,0.008
-7.320E-06,0.004
-7.310E-06,0.004
-7.300E-06,0.000
-7.290E-06,0.004
-7.280E-06,0.000
-7.270E-06,0.000
-7.260E-06,0.000
-7.250E-06,0.000
-7.240E-06,0.000
-7.230E-06,0.004
-7.220E-06,0.008
-7.210E-06,0.012
-7.200E-06,0.012
-7.190E-06,-0.004
-7.180E-06,0.000
-7.170E-06,0.000
-7.160E-06,0.004
-7.150E-06,0.000
-7.140E-06,0.008
-7.130E-06,0.004
-7.120E-06,0.004
-7.110E-06,0.008
-7.100E-06,0.008
-7.090E-06,0.004
-7.080E-06,0.008
-7.070E-06,0.012
-7.060E-06,0.008
-7.050E-06,0.008
-7.040E-06,0.008
-7.030E-06,0.008
-7.020E-06,0.000
-7.010E-06,0.000
-7.000E-06,0.004
-6.990E-06,0.008
-6.980E-06,0.012
-6.970E-06,0.012
-6.960E-06,0.008
-6.950E-06,0.008
-6.940E-06,0.004
-6.930E-06,-0.004
-6.920E-06,-0.008
-6.910E-06,-0.028
-6.900E-06,-0.020
-6.890E-06,-0.016
-6.880E-06,0.012
-6.870E-06,0.028
-6.860E-06,0.020
-6.850E-06,0.012
-6.840E-06,0.000
-6.830E-06,-0.008
-6.820E-06,-0.004
-6.810E-06,0.004
-6.800E-06,0.004
-6.790E-06,0.008
-6.780E-06,0.004
-6.770E-06,0.008
-6.760E-06,0.008
-6.750E-06,0.004
-6.740E-06,0.004
-6.730E-06,0.000
-6.720E-06,0.004
-6.710E-06,0.004
-6.700E-06,0.004
-6.690E-06,0.000
-6.680E-06,0.004
-6.670E-06,0.008
-6.660E-06,0.004
-6.650E-06,0.004
-6.640E-06,0.004
-6.630E-06,0.000
-6.620E-06,0.004
-6.610E-06,0.012
-6.600E-06,0.012
-6.590E-06,0.004
-6.580E-06,0.012
-6.570E-06,0.008
-6.560E-06,0.000
-6.550E-06,0.000
-6.540E-06,-0.004
-6.530E-06,0.000
-6.520E-06,0.004
-6.510E-06,-0.008
-6.500E-06,-0.020
-6.490E-06,-0.012
-6.480E-06,0.008
-6.470E-06,0.012
-6.460E-06,0.012
-6.450E-06,0.008
-6.440E-06,0.004
-6.430E-06,-0.004
-6.420E-06,-0.008
-6.410E-06,0.000
-6.400E-06,0.008
-6.390E-06,0.008
-6.380E-06,0.004
-6.370E-06,0.008
-6.360E-06,0.008
-6.350E-06,-0.004
-6.340E-06,0.004
-6.330E-06,0.008
-6.320E-06,0.004
-6.310E-06,0.004
-6.300E-06,0.004
-6.290E-06,0.004
-6.280E-06,0.000
-6.270E-06,0.004
-6.260E-06,0.004
-6.250E-06,0.004
-6.240E-06,0.000
-6.230E-06,0.000
-6.220E-06,0.004
-6.210E-06,0.004
-6.200E-06,0.000
-6.190E-06,0.000
-6.180E-06,0.004
-6.170E-06,0.004
-6.160E-06,0.008
-6.150E-06,0.004
-6.140E-06,0.008
-6.130E-06,0.008
-6.120E-06,-0.004
-6.110E-06,0.000
-6.100E-06,-0.004
-6.090E-06,-0.004
-6.080E-06,-0.008
-6.070E-06,-0.004
-6.060E-06,0.004
-6.050E-06,0.004
-6.040E-06,0.012
-6.030E-06,0.008
-6.020E-06,0.000
-6.010E-06,0.000
-6.000E-06,-0.004
-5.990E-06,0.000
-5.980E-06,0.008
-5.970E-06,0.012
-5.960E-06,0.004
-5.950E-06,0.004
-5.940E-06,-0.004
-5.930E-06,0.000
-5.920E-06,0.000
-5.910E-06,0.008
-5.900E-06,0.016
-5.890E-06,0.012
-5.880E-06,0.008
-5.870E-06,0.004
-5.860E-06,0.000
-5.850E-06,0.000
-5.840E-06,0.008
-5.830E-06,0.012
-5.820E-06,0.004
-5.810E-06,0.000
-5.800E-06,0.004
-5.790E-06,0.004
-5.780E-06,0.004
-5.770E-06,0.004
-5.760E-06,0.000
-5.750E-06,0.004
-5.740E-06,0.004
-5.730E-06,0.000
-5.720E-06,0.004
-5.710E-06,0.008
-5.700E-06,0.004
-5.690E-06,-0.004
-5.680E-06,0.008
-5.670E-06,0.008
-5.660E-06,0.012
-5.650E-06,0.004
-5.640E-06,0.000
-5.630E-06,0.004
-5.620E-06,0.004
-5.610E-06,0.008
-5.600E-06,-0.008
-5.590E-06,-0.004
-5.580E-06,-0.008
-5.570E-06,-0.008
-5.560E-06,0.012
-5.550E-06,0.008
-5.540E-06,0.008
-5.530E-06,0.008
-5.520E-06,0.000
-5.510E-06,0.000
-5.500E-06,0.000
-5.490E-06,0.004
-5.480E-06,0.004
-5.470E-06,0.004
-5.460E-06,0.000
-5.450E-06,0.000
-5.440E-06,0.000
-5.430E-06,0.000
-5.420E-06,0.004
-5.410E-06,0.008
-5.400E-06,0.004
-5.390E-06,0.008
-5.380E-06,0.004
-5.370E-06,0.004
-5.360E-06,0.000
-5.350E-06,0.004
-5.340E-06,0.004
-5.330E-06,0.004
-5.320E-06,0.008
-5.310E-06,0.008
-5.300E-06,-0.004
-5.290E-06,0.000
-5.280E-06,0.004
-5.270E-06,0.008
-5.260E-06,0.008
-5.250E-06,0.004
-5.240E-06,0.008
-5.230E-06,0.008
-5.220E-06,0.000
-5.210E-06,0.000
-5.200E-06,0.004
-5.190E-06,0.000
-5.180E-06,0.004
-5.170E-06,0.004
-5.160E-06,0.008
-5.150E-06,0.004
-5.140E-06,0.004
-5.130E-06,0.008
-5.120E-06,0.004
-5.110E-06,0.004
-5.100E-06,0.004
-5.090E-06,0.000
-5.080E-06,-0.004
-5.070E-06,0.000
-5.060E-06,0.004
-5.050E-06,0.004
-5.040E-06,-0.004
-5.030E-06,-0.004
-5.020E-06,-0.004
-5.010E-06,-0.004
-5.000E-06,0.004
-4.990E-06,0.004
-4.980E-06,0.000
-4.970E-06,0.004
-4.960E-06,-0.004
-4.950E-06,-0.004
-4.940E-06,0.004
-4.930E-06,0.004
-4.920E-06,-0.004
-4.910E-06,0.000
-4.900E-06,-0.004
-4.890E-06,0.004
-4.880E-06,0.008
-4.870E-06,0.008
-4.860E-06,0.008
-4.850E-06,0.004
-4.840E-06,0.004
-4.830E-06,-0.004
-4.820E-06,0.000
-4.810E-06,0.004
-4.800E-06,0.012
-4.790E-06,0.004
-4.780E-06,0.000
-4.770E-06,0.000
-4.760E-06,0.000
-4.750E-06,0.000
-4.740E-06,0.004
-4.730E-06,0.004
-4.720E-06,0.008
-4.710E-06,0.008
-4.700E-06,0.000
-4.690E-06,0.000
-4.680E-06,0.008
-4.670E-06,0.008
-4.660E-06,0.000
-4.650E-06,0.004
-4.640E-06,0.004
-4.630E-06,0.004
-4.620E-06,0.004
-4.610E-06,0.004
-4.600E-06,0.004
-4.590E-06,0.004
-4.580E-06,0.004
-4.570E-06,0.004
-4.560E-06,0.004
-4.550E-06,0.008
-4.540E-06,0.008
-4.530E-06,0.004
-4.520E-06,0.008
-4.510E-06,0.000
-4.500E-06,-0.004
-4.490E-06,0.000
-4.480E-06,0.004
-4.470E-06,0.008
-4.460E-06,0.004
-4.450E-06,0.004
-4.440E-06,0.000
-4.430E-06,-0.004
-4.420E-06,0.004
-4.410E-06,0.008
-4.400E-06,0.008
-4.390E-06,0.008
-4.380E-06,-0.004
-4.370E-06,-0.004
-4.360E-06,0.000
-4.350E-06,0.008
-4.340E-06,0.008
-4.330E-06,0.000
-4.320E-06,0.004
-4.310E-06,0.000
-4.300E-06,0.000
-4.290E-06,0.004
-4.280E-06,0.008
-4.270E-06,0.008
-4.260E-06,0.004
-4.250E-06,0.000
-4.240E-06,0.004
-4.230E-06,0.008
-4.220E-06,0.000
-4.210E-06,0.004
-4.200E-06,0.008
-4.190E-06,0.008
-4.180E-06,0.000
-4.170E-06,0.000
-4.160E-06,0.004
-4.150E-06,0.004
-4.140E-06,0.004
-4.130E-06,0.004
-4.120E-06,0.004
-4.110E-06,0.004
-4.100E-06,0.004
-4.090E-06,0.004
-4.080E-06,0.008
-4.070E-06,0.008
-4.060E-06,-0.004
-4.050E-06,0.000
-4.040E-06,0.000
-4.030E-06,0.000
-4.020E-06,-0.004
-4.010E-06,0.008
-4.000E-06,0.012
-3.990E-06,0.004
-3.980E-06,0.008
-3.970E-06,0.004
-3.960E-06,0.004
-3.950E-06,-0.004
-3.940E-06,0.000
-3.930E-06,0.004
-3.920E-06,0.008
-3.910E-06,0.000
-3.900E-06,0.004
-3.890E-06,0.008
-3.880E-06,0.008
-3.870E-06,0.008
-3.860E-06,0.008
-3.850E-06,-0.004
-3.840E-06,0.000
-3.830E-06,0.000
-3.820E-06,0.004
-3.810E-06,0.008
-3.800E-06,0.008
-3.790E-06,0.000
-3.780E-06,0.004
-3.770E-06,0.004
-3.760E-06,0.000
-3.750E-06,0.004
-3.740E-06,0.000
-3.730E-06,0.004
-3.720E-06,0.000
-3.710E-06,0.004
-3.700E-06,0.004
-3.690E-06,0.000
-3.680E-06,0.000
-3.670E-06,0.004
-3.660E-06,0.004
-3.650E-06,0.004
-3.640E-06,0.004
-3.630E-06,0.004
-3.620E-06,0.004
-3.610E-06,0.004
-3.600E-06,0.004
-3.590E-06,0.012
-3.580E-06,0.008
-3.570E-06,0.004
-3.560E-06,-0.004
-3.550E-06,-0.004
-3.540E-06,0.004
-3.530E-06,0.008
-3.520E-06,0.004
-3.510E-06,0.004
-3.500E-06,0.008
-3.490E-06,-0.004
-3.480E-06,0.000
-3.470E-06,0.004
-3.460E-06,0.004
-3.450E-06,0.008
-3.440E-06,0.008
-3.430E-06,0.000
-3.420E-06,0.000
-3.410E-06,0.000
-3.400E-06,0.000
-3.390E-06,0.000
-3.380E-06,0.004
-3.370E-06,0.000
-3.360E-06,0.004
-3.350E-06,0.000
-3.340E-06,0.000
-3.330E-06,0.004
-3.320E-06,0.004
-3.310E-06,0.004
-3.300E-06,0.008
-3.290E-06,0.004
-3.280E-06,0.004
-3.270E-06,0.008
-3.260E-06,0.000
-3.250E-06,0.004
-3.240E-06,0.008
-3.230E-06,0.004
-3.220E-06,0.000
-3.210E-06,-0.004
-3.200E-06,0.004
-3.190E-06,0.004
-3.180E-06,0.008
-3.170E-06,0.004
-3.160E-06,0.004
-3.150E-06,0.000
-3.140E-06,0.004
-3.130E-06,0.008
-3.120E-06,0.000
-3.110E-06,0.004
-3.100E-06,0.004
-3.090E-06,0.004
-3.080E-06,0.000
-3.070E-06,0.012
-3.060E-06,0.004
-3.050E-06,0.000
-3.040E-06,-0.004
-3.030E-06,-0.004
-3.020E-06,0.000
-3.010E-06,0.004
-3.000E-06,0.004
-2.990E-06,0.004
-2.980E-06,0.008
-2.970E-06,0.008
-2.960E-06,-0.004
-2.950E-06,-0.004
-2.940E-06,-0.004
-2.930E-06,0.000
-2.920E-06,0.004
-2.910E-06,0.008
-2.900E-06,0.008
-2.890E-06,0.000
-2.880E-06,0.004
-2.870E-06,-0.004
-2.860E-06,0.004
-2.850E-06,0.000
-2.840E-06,0.008
-2.830E-06,0.004
-2.820E-06,0.004
-2.810E-06,0.004
-2.800E-06,0.004
-2.790E-06,0.004
-2.780E-06,0.008
-2.770E-06,0.004
-2.760E-06,0.004
-2.750E-06,-0.004
-2.740E-06,0.000
-2.730E-06,0.008
-2.720E-06,0.000
-2.710E-06,0.000
-2.700E-06,0.004
-2.690E-06,0.004
-2.680E-06,0.004
-2.670E-06,0.004
-2.660E-06,0.004
-2.650E-06,0.004
-2.640E-06,0.008
-2.630E-06,0.008
-2.620E-06,0.004
-2.610E-06,0.004
-2.600E-06,0.004
-2.590E-06,0.004
-2.580E-06,0.004
-2.570E-06,0.004
-2.560E-06,0.004
-2.550E-06,0.000
-2.540E-06,0.004
-2.530E-06,0.000
-2.520E-06,0.004
-2.510E-06,0.004
-2.500E-06,0.008
-2.490E-06,-0.004
-2.480E-06,0.000
-2.470E-06,-0.004
-2.460E-06,0.004
-2.450E-06,0.004
-2.440E-06,0.004
-2.430E-06,-0.004
-2.420E-06,-0.004
-2.410E-06,-0.004
-2.400E-06,0.004
-2.390E-06,0.008
-2.380E-06,0.004
-2.370E-06,0.008
-2.360E-06,0.008
-2.350E-06,0.000
-2.340E-06,-0.008
-2.330E-06,-0.004
-2.320E-06,0.000
-2.310E-06,0.004
-2.300E-06,0.008
-2.290E-06,0.004
-2.280E-06,0.004
-2.270E-06,0.004
-2.260E-06,-0.004
-2.250E-06,0.000
-2.240E-06,0.004
-2.230E-06,0.004
-2.220E-06,0.008
-2.210E-06,0.004
-2.200E-06,0.004
-2.190E-06,0.000
-2.180E-06,0.004
-2.170E-06,0.000
-2.160E-06,0.004
-2.150E-06,0.004
-2.140E-06,0.004
-2.130E-06,0.000
-2.120E-06,0.004
-2.110E-06,0.000
-2.100E-06,0.000
-2.090E-06,0.004
-2.080E-06,0.000
-2.070E-06,0.004
-2.060E-06,0.004
-2.050E-06,0.004
-2.040E-06,0.004
-2.030E-06,0.004
-2.020E-06,0.008
-2.010E-06,0.000
-2.000E-06,0.004
-1.990E-06,0.008
-1.980E-06,0.012
-1.970E-06,0.012
-1.960E-06,0.008
-1.950E-06,0.004
-1.940E-06,0.004
-1.930E-06,-0.004
-1.920E-06,-0.004
-1.910E-06,0.008
-1.900E-06,0.008
-1.890E-06,-0.004
-1.880E-06,-0.004
-1.870E-06,-0.004
-1.860E-06,0.004
-1.850E-06,0.012
-1.840E-06,0.012
-1.830E-06,0.008
-1.820E-06,0.000
-1.810E-06,-0.004
-1.800E-06,0.000
-1.790E-06,0.000
-1.780E-06,0.008
-1.770E-06,0.004
-1.760E-06,0.000
-1.750E-06,0.008
-1.740E-06,0.008
-1.730E-06,0.008
-1.720E-06,0.012
-1.710E-06,0.012
-1.700E-06,0.008
-1.690E-06,0.004
-1.680E-06,0.008
-1.670E-06,0.000
-1.660E-06,-0.004
-1.650E-06,-0.004
-1.640E-06,-0.004
-1.630E-06,0.004
-1.620E-06,0.008
-1.610E-06,0.012
-1.600E-06,0.008
-1.590E-06,-0.004
-1.580E-06,-0.004
-1.570E-06,0.000
-1.560E-06,0.008
-1.550E-06,0.012
-1.540E-06,0.008
-1.530E-06,0.000
-1.520E-06,0.000
-1.510E-06,0.000
-1.500E-06,0.000
-1.490E-06,0.000
-1.480E-06,0.008
-1.470E-06,0.008
-1.460E-06,0.008
-1.450E-06,0.004
-1.440E-06,0.000
-1.430E-06,0.000
-1.420E-06,0.004
-1.410E-06,0.008
-1.400E-06,0.008
-1.390E-06,0.004
-1.380E-06,0.004
-1.370E-06,0.008
-1.360E-06,0.008
-1.350E-06,0.008
-1.340E-06,0.008
-1.330E-06,0.008
-1.320E-06,0.004
-1.310E-06,0.008
-1.300E-06,0.012
-1.290E-06,0.012
-1.280E-06,0.012
-1.270E-06,0.008
-1.260E-06,0.008
-1.250E-06,0.000
-1.240E-06,0.004
-1.230E-06,0.008
-1.220E-06,-0.012
-1.210E-06,-0.016
-1.200E-06,-0.032
-1.190E-06,-0.020
-1.180E-06,0.012
-1.170E-06,0.020
-1.160E-06,0.024
-1.150E-06,0.020
-1.140E-06,-0.004
-1.130E-06,-0.008
-1.120E-06,-0.016
-1.110E-06,0.000
-1.100E-06,0.012
-1.090E-06,0.020
-1.080E-06,0.020
-1.070E-06,0.000
-1.060E-06,-0.008
-1.050E-06,-0.004
-1.040E-06,0.000
-1.030E-06,0.008
-1.020E-06,0.020
-1.010E-06,0.016
-1.000E-06,0.004
-9.900E-07,0.000
-9.800E-07,-0.004
-9.700E-07,0.004
-9.600E-07,0.012
-9.500E-07,0.020
-9.400E-07,0.016
-9.300E-07,0.008
-9.200E-07,0.000
-9.100E-07,0.008
-9.000E-07,0.004
-8.900E-07,0.012
-8.800E-07,0.020
-8.700E-07,0.016
-8.600E-07,0.008
-8.500E-07,0.008
-8.400E-07,0.008
-8.300E-07,0.004
-8.200E-07,0.008
-8.100E-07,0.012
-8.000E-07,0.012
-7.900E-07,0.020
-7.800E-07,0.020
-7.700E-07,0.020
-7.600E-07,0.024
-7.500E-07,0.020
-7.400E-07,0.008
-7.300E-07,0.012
-7.200E-07,0.012
-7.100E-07,0.024
-7.000E-07,0.024
-6.900E-07,0.028
-6.800E-07,0.036
-6.700E-07,0.028
-6.600E-07,0.024
-6.500E-07,0.016
-6.400E-07,0.024
-6.300E-07,0.024
-6.200E-07,0.040
-6.100E-07,0.044
-6.000E-07,0.036
-5.900E-07,0.028
-5.800E-07,0.000
-5.700E-07,-0.028
-5.600E-07,-0.056
-5.500E-07,-0.052
-5.400E-07,-0.036
-5.300E-07,-0.004
-5.200E-07,0.024
-5.100E-07,0.036
-5.000E-07,0.020
-4.900E-07,-0.004
-4.800E-07,-0.032
-4.700E-07,-0.068
-4.600E-07,-0.056
-4.500E-07,-0.032
-4.400E-07,0.000
-4.300E-07,0.020
-4.200E-07,0.024
-4.100E-07,0.012
-4.000E-07,0.004
-3.900E-07,-0.008
-3.800E-07,0.012
-3.700E-07,0.016
-3.600E-07,0.020
-3.500E-07,0.012
-3.400E-07,0.012
-3.300E-07,0.004
-3.200E-07,0.004
-3.100E-07,0.012
-3.000E-07,0.032
-2.900E-07,0.040
-2.800E-07,0.040
-2.700E-07,0.052
-2.600E-07,0.044
-2.500E-07,0.052
-2.400E-07,0.048
-2.300E-07,0.052
-2.200E-07,0.044
-2.100E-07,0.044
-2.000E-07,0.044
-1.900E-07,0.048
-1.800E-07,0.060
-1.700E-07,0.052
-1.600E-07,0.064
-1.500E-07,0.060
-1.400E-07,0.064
-1.300E-07,0.052
-1.200E-07,0.048
-1.100E-07,0.056
-1.000E-07,0.076
-9.000E-08,0.096
-8.000E-08,0.096
-7.000E-08,0.056
-6.000E-08,-0.100
-5.000E-08,-0.344
-4.000E-08,-0.512
-3.000E-08,-0.512
-2.000E-08,-0.292
-1.000E-08,0.144
0.000E+00,0.404
1.000E-08,0.412
2.000E-08,0.256
3.000E-08,0.052
4.000E-08,-0.092
5.000E-08,-0.116
6.000E-08,0.024
7.000E-08,0.164
8.000E-08,0.204
9.000E-08,0.120
1.000E-07,-0.004
1.100E-07,-0.120
1.200E-07,-0.156
1.300E-07,-0.164
1.400E-07,-0.140
1.500E-07,-0.108
1.600E-07,-0.036
1.700E-07,0.048
1.800E-07,0.108
1.900E-07,0.132
2.000E-07,0.112
2.100E-07,0.056
2.200E-07,-0.004
2.300E-07,-0.040
2.400E-07,-0.040
2.500E-07,-0.012
2.600E-07,0.020
2.700E-07,0.052
2.800E-07,0.068
2.900E-07,0.076
3.000E-07,0.088
3.100E-07,0.068
3.200E-07,0.068
3.300E-07,0.060
3.400E-07,0.052
3.500E-07,0.036
3.600E-07,0.020
3.700E-07,0.020
3.800E-07,0.032
3.900E-07,0.052
4.000E-07,0.060
4.100E-07,0.056
4.200E-07,0.032
4.300E-07,0.008
4.400E-07,0.004
4.500E-07,0.024
4.600E-07,0.060
4.700E-07,0.088
4.800E-07,0.128
4.900E-07,0.124
5.000E-07,0.112
5.100E-07,0.092
5.200E-07,0.060
5.300E-07,0.056
5.400E-07,0.060
5.500E-07,0.072
5.600E-07,0.096
5.700E-07,0.104
5.800E-07,0.108
5.900E-07,0.100
6.000E-07,0.088
6.100E-07,0.076
6.200E-07,0.072
6.300E-07,0.076
6.400E-07,0.088
6.500E-07,0.096
6.600E-07,0.104
6.700E-07,0.100
6.800E-07,0.092
6.900E-07,0.088
7.000E-07,0.080
7.100E-07,0.080
7.200E-07,0.092
7.300E-07,0.092
7.400E-07,0.096
7.500E-07,0.092
7.600E-07,0.088
7.700E-07,0.080
7.800E-07,0.080
7.900E-07,0.080
8.000E-07,0.088
8.100E-07,0.092
8.200E-07,0.096
8.300E-07,0.092
8.400E-07,0.084
8.500E-07,0.080
8.600E-07,0.076
8.700E-07,0.084
8.800E-07,0.092
8.900E-07,0.088
9.000E-07,0.096
9.100E-07,0.088
9.200E-07,0.076
9.300E-07,0.076
9.400E-07,0.068
9.500E-07,0.076
9.600E-07,0.088
9.700E-07,0.092
9.800E-07,0.096
9.900E-07,0.088
1.000E-06,0.080
1.010E-06,0.072
1.020E-06,0.060
1.030E-06,0.060
1.040E-06,0.056
1.050E-06,0.048
1.060E-06,0.048
1.070E-06,0.056
1.080E-06,0.080
1.090E-06,0.112
1.100E-06,0.092
1.110E-06,0.128
1.120E-06,0.088
1.130E-06,0.096
1.140E-06,0.088
1.150E-06,0.056
1.160E-06,0.076
1.170E-06,0.088
1.180E-06,0.084
1.190E-06,0.100
1.200E-06,0.084
1.210E-06,0.080
1.220E-06,0.064
1.230E-06,0.076
1.240E-06,0.076
1.250E-06,0.092
1.260E-06,0.088
1.270E-06,0.084
1.280E-06,0.076
1.290E-06,0.080
1.300E-06,0.076
1.310E-06,0.080
1.320E-06,0.084
1.330E-06,0.088
1.340E-06,0.092
1.350E-06,0.088
1.360E-06,0.092
1.370E-06,0.072
1.380E-06,0.064
1.390E-06,0.048
1.400E-06,0.052
1.410E-06,0.060
1.420E-06,0.064
1.430E-06,0.076
1.440E-06,0.076
1.450E-06,0.076
1.460E-06,0.076
1.470E-06,0.072
1.480E-06,0.080
1.490E-06,0.088
1.500E-06,0.092
1.510E-06,0.092
1.520E-06,0.084
1.530E-06,0.076
1.540E-06,0.072
1.550E-06,0.076
1.560E-06,0.088
1.570E-06,0.088
1.580E-06,0.092
1.590E-06,0.092
1.600E-06,0.084
1.610E-06,0.084
1.620E-06,0.080
1.630E-06,0.080
1.640E-06,0.080
1.650E-06,0.084
1.660E-06,0.084
1.670E-06,0.088
1.680E-06,0.084
1.690E-06,0.088
1.700E-06,0.084
1.710E-06,0.084
1.720E-06,0.080
1.730E-06,0.084
1.740E-06,0.088
1.750E-06,0.088
1.760E-06,0.084
1.770E-06,0.072
1.780E-06,0.072
1.790E-06,0.076
1.800E-06,0.076
1.810E-06,0.076
1.820E-06,0.080
1.830E-06,0.084
1.840E-06,0.084
1.850E-06,0.080
1.860E-06,0.076
1.870E-06,0.072
1.880E-06,0.076
1.890E-06,0.080
1.900E-06,0.076
1.910E-06,0.080
1.920E-06,0.080
1.930E-06,0.080
1.940E-06,0.080
1.950E-06,0.072
1.960E-06,0.072
1.970E-06,0.076
1.980E-06,0.076
1.990E-06,0.080
2.000E-06,0.084
2.010E-06,0.088
2.020E-06,0.084
2.030E-06,0.084
2.040E-06,0.088
2.050E-06,0.084
2.060E-06,0.080
2.070E-06,0.076
2.080E-06,0.084
2.090E-06,0.084
2.100E-06,0.084
2.110E-06,0.076
2.120E-06,0.080
2.130E-06,0.084
2.140E-06,0.080
2.150E-06,0.076
2.160E-06,0.080
2.170E-06,0.084
2.180E-06,0.080
2.190E-06,0.080
2.200E-06,0.076
2.210E-06,0.076
2.220E-06,0.076
2.230E-06,0.076
2.240E-06,0.076
2.250E-06,0.080
2.260E-06,0.080
2.270E-06,0.080
2.280E-06,0.080
2.290E-06,0.080
2.300E-06,0.080
2.310E-06,0.076
2.320E-06,0.076
2.330E-06,0.076
2.340E-06,0.080
2.350E-06,0.080
2.360E-06,0.076
2.370E-06,0.076
2.380E-06,0.080
2.390E-06,0.080
2.400E-06,0.076
2.410E-06,0.076
2.420E-06,0.080
2.430E-06,0.076
2.440E-06,0.076
2.450E-06,0.080
2.460E-06,0.080
2.470E-06,0.076
2.480E-06,0.072
2.490E-06,0.072
2.500E-06,0.076
2.510E-06,0.076
2.520E-06,0.080
2.530E-06,0.080
2.540E-06,0.072
2.550E-06,0.076
2.560E-06,0.076
2.570E-06,0.072
2.580E-06,0.080
2.590E-06,0.076
2.600E-06,0.076
2.610E-06,0.072
2.620E-06,0.076
2.630E-06,0.072
2.640E-06,0.076
2.650E-06,0.072
2.660E-06,0.076
2.670E-06,0.076
2.680E-06,0.076
2.690E-06,0.076
2.700E-06,0.072
2.710E-06,0.072
2.720E-06,0.072
2.730E-06,0.072
2.740E-06,0.076
2.750E-06,0.072
2.760E-06,0.072
2.770E-06,0.072
2.780E-06,0.076
2.790E-06,0.076
2.800E-06,0.072
2.810E-06,0.072
2.820E-06,0.072
2.830E-06,0.076
2.840E-06,0.076
2.850E-06,0.068
2.860E-06,0.072
2.870E-06,0.072
2.880E-06,0.072
2.890E-06,0.076
2.900E-06,0.076
2.910E-06,0.068
2.920E-06,0.072
2.930E-06,0.068
2.940E-06,0.072
2.950E-06,0.076
2.960E-06,0.068
2.970E-06,0.076
2.980E-06,0.072
2.990E-06,0.068
3.000E-06,0.068
3.010E-06,0.068
3.020E-06,0.072
3.030E-06,0.076
3.040E-06,0.072
3.050E-06,0.076
3.060E-06,0.072
3.070E-06,0.072
3.080E-06,0.068
3.090E-06,0.072
3.100E-06,0.068
3.110E-06,0.068
3.120E-06,0.072
3.130E-06,0.072
3.140E-06,0.068
3.150E-06,0.068
3.160E-06,0.072
3.170E-06,0.072
3.180E-06,0.064
3.190E-06,0.064
3.200E-06,0.072
3.210E-06,0.068
3.220E-06,0.068
3.230E-06,0.068
3.240E-06,0.068
3.250E-06,0.064
3.260E-06,0.064
3.270E-06,0.064
3.280E-06,0.068
3.290E-06,0.072
3.300E-06,0.068
3.310E-06,0.068
3.320E-06,0.064
3.330E-06,0.064
3.340E-06,0.064
3.350E-06,0.064
3.360E-06,0.064
3.370E-06,0.068
3.380E-06,0.068
3.390E-06,0.064
3.400E-06,0.064
3.410E-06,0.064
3.420E-06,0.064
3.430E-06,0.068
3.440E-06,0.064
