mediciones/5-27/-45/WaveData50141.csv

#timebase=2000000(ps)
,#voltbase=1000000(mv/100)
#size=4000
-8.400E-06,0.360
-8.390E-06,0.160
-8.380E-06,0.040
-8.370E-06,-0.040
-8.360E-06,0.080
-8.350E-06,0.160
-8.340E-06,0.240
-8.330E-06,0.160
-8.320E-06,0.040
-8.310E-06,-0.040
-8.300E-06,-0.040
-8.290E-06,-0.040
-8.280E-06,0.080
-8.270E-06,0.080
-8.260E-06,0.040
-8.250E-06,0.000
-8.240E-06,-0.080
-8.230E-06,-0.080
-8.220E-06,-0.040
-8.210E-06,0.000
-8.200E-06,-0.040
-8.190E-06,0.000
-8.180E-06,0.000
-8.170E-06,-0.080
-8.160E-06,-0.160
-8.150E-06,-0.040
-8.140E-06,0.000
-8.130E-06,-0.040
-8.120E-06,0.040
-8.110E-06,-0.040
-8.100E-06,0.000
-8.090E-06,-0.040
-8.080E-06,-0.040
-8.070E-06,0.000
-8.060E-06,0.000
-8.050E-06,0.000
-8.040E-06,0.040
-8.030E-06,0.040
-8.020E-06,0.080
-8.010E-06,0.120
-8.000E-06,0.160
-7.990E-06,0.040
-7.980E-06,0.120
-7.970E-06,0.160
-7.960E-06,-0.040
-7.950E-06,0.240
-7.940E-06,0.120
-7.930E-06,0.120
-7.920E-06,0.280
-7.910E-06,0.160
-7.900E-06,0.200
-7.890E-06,-0.080
-7.880E-06,-0.040
-7.870E-06,0.080
-7.860E-06,0.240
-7.850E-06,0.480
-7.840E-06,0.480
-7.830E-06,0.240
-7.820E-06,0.080
-7.810E-06,-0.040
-7.800E-06,-0.120
-7.790E-06,0.040
-7.780E-06,0.160
-7.770E-06,0.280
-7.760E-06,0.360
-7.750E-06,0.200
-7.740E-06,0.320
-7.730E-06,0.320
-7.720E-06,0.280
-7.710E-06,0.320
-7.700E-06,0.320
-7.690E-06,0.280
-7.680E-06,0.360
-7.670E-06,0.400
-7.660E-06,0.400
-7.650E-06,0.560
-7.640E-06,0.480
-7.630E-06,0.600
-7.620E-06,0.640
-7.610E-06,0.480
-7.600E-06,0.560
-7.590E-06,0.480
-7.580E-06,0.520
-7.570E-06,0.440
-7.560E-06,0.520
-7.550E-06,0.440
-7.540E-06,0.480
-7.530E-06,0.360
-7.520E-06,0.360
-7.510E-06,0.360
-7.500E-06,0.320
-7.490E-06,0.400
-7.480E-06,0.640
-7.470E-06,0.160
-7.460E-06,0.360
-7.450E-06,0.360
-7.440E-06,0.080
-7.430E-06,0.400
-7.420E-06,0.560
-7.410E-06,0.520
-7.400E-06,0.120
-7.390E-06,0.040
-7.380E-06,0.000
-7.370E-06,0.040
-7.360E-06,0.640
-7.350E-06,0.680
-7.340E-06,0.520
-7.330E-06,0.200
-7.320E-06,-0.240
-7.310E-06,-0.040
-7.300E-06,0.040
-7.290E-06,0.560
-7.280E-06,0.720
-7.270E-06,0.480
-7.260E-06,0.160
-7.250E-06,-0.120
-7.240E-06,-0.240
-7.230E-06,0.000
-7.220E-06,0.240
-7.210E-06,0.440
-7.200E-06,0.360
-7.190E-06,0.040
-7.180E-06,-0.160
-7.170E-06,-0.200
-7.160E-06,-0.120
-7.150E-06,0.000
-7.140E-06,0.080
-7.130E-06,0.000
-7.120E-06,-0.080
-7.110E-06,-0.280
-7.100E-06,-0.240
-7.090E-06,-0.200
-7.080E-06,-0.080
-7.070E-06,-0.080
-7.060E-06,-0.040
-7.050E-06,-0.160
-7.040E-06,-0.240
-7.030E-06,-0.240
-7.020E-06,-0.160
-7.010E-06,-0.120
-7.000E-06,-0.040
-6.990E-06,-0.080
-6.980E-06,-0.080
-6.970E-06,-0.080
-6.960E-06,0.000
-6.950E-06,0.040
-6.940E-06,0.040
-6.930E-06,0.000
-6.920E-06,0.000
-6.910E-06,0.000
-6.900E-06,0.040
-6.890E-06,0.080
-6.880E-06,0.120
-6.870E-06,0.160
-6.860E-06,0.120
-6.850E-06,0.000
-6.840E-06,0.000
-6.830E-06,0.080
-6.820E-06,0.160
-6.810E-06,0.160
-6.800E-06,0.080
-6.790E-06,0.040
-6.780E-06,0.160
-6.770E-06,0.000
-6.760E-06,0.000
-6.750E-06,0.160
-6.740E-06,0.080
-6.730E-06,0.120
-6.720E-06,0.160
-6.710E-06,0.000
-6.700E-06,-0.040
-6.690E-06,0.000
-6.680E-06,0.080
-6.670E-06,0.120
-6.660E-06,0.200
-6.650E-06,0.120
-6.640E-06,0.120
-6.630E-06,0.280
-6.620E-06,0.240
-6.610E-06,0.400
-6.600E-06,0.240
-6.590E-06,0.240
-6.580E-06,0.400
-6.570E-06,0.320
-6.560E-06,0.520
-6.550E-06,0.600
-6.540E-06,0.440
-6.530E-06,0.360
-6.520E-06,0.280
-6.510E-06,0.240
-6.500E-06,0.440
-6.490E-06,0.480
-6.480E-06,0.520
-6.470E-06,0.440
-6.460E-06,0.320
-6.450E-06,0.160
-6.440E-06,0.120
-6.430E-06,0.160
-6.420E-06,0.160
-6.410E-06,0.120
-6.400E-06,0.120
-6.390E-06,0.040
-6.380E-06,0.000
-6.370E-06,-0.120
-6.360E-06,-0.120
-6.350E-06,-0.080
-6.340E-06,-0.120
-6.330E-06,-0.160
-6.320E-06,-0.160
-6.310E-06,-0.200
-6.300E-06,-0.240
-6.290E-06,-0.200
-6.280E-06,-0.160
-6.270E-06,-0.120
-6.260E-06,-0.160
-6.250E-06,-0.160
-6.240E-06,-0.160
-6.230E-06,-0.160
-6.220E-06,-0.160
-6.210E-06,-0.080
-6.200E-06,-0.040
-6.190E-06,0.000
-6.180E-06,-0.040
-6.170E-06,-0.040
-6.160E-06,0.000
-6.150E-06,0.000
-6.140E-06,0.000
-6.130E-06,0.040
-6.120E-06,0.080
-6.110E-06,0.080
-6.100E-06,0.080
-6.090E-06,0.040
-6.080E-06,0.080
-6.070E-06,0.040
-6.060E-06,0.040
-6.050E-06,0.080
-6.040E-06,0.120
-6.030E-06,0.160
-6.020E-06,0.200
-6.010E-06,0.160
-6.000E-06,0.200
-5.990E-06,0.160
-5.980E-06,0.040
-5.970E-06,0.000
-5.960E-06,0.040
-5.950E-06,0.200
-5.940E-06,0.200
-5.930E-06,0.320
-5.920E-06,0.280
-5.910E-06,0.320
-5.900E-06,0.280
-5.890E-06,0.200
-5.880E-06,0.160
-5.870E-06,0.240
-5.860E-06,0.160
-5.850E-06,0.320
-5.840E-06,0.400
-5.830E-06,0.360
-5.820E-06,0.440
-5.810E-06,0.400
-5.800E-06,0.400
-5.790E-06,0.480
-5.780E-06,0.480
-5.770E-06,0.520
-5.760E-06,0.560
-5.750E-06,0.480
-5.740E-06,0.440
-5.730E-06,0.400
-5.720E-06,0.320
-5.710E-06,0.400
-5.700E-06,0.320
-5.690E-06,0.440
-5.680E-06,0.480
-5.670E-06,0.480
-5.660E-06,0.600
-5.650E-06,0.600
-5.640E-06,0.640
-5.630E-06,0.560
-5.620E-06,0.480
-5.610E-06,0.520
-5.600E-06,0.480
-5.590E-06,0.480
-5.580E-06,0.520
-5.570E-06,0.680
-5.560E-06,0.680
-5.550E-06,0.680
-5.540E-06,0.720
-5.530E-06,0.560
-5.520E-06,0.560
-5.510E-06,0.560
-5.500E-06,0.560
-5.490E-06,0.560
-5.480E-06,0.520
-5.470E-06,0.400
-5.460E-06,0.280
-5.450E-06,0.320
-5.440E-06,0.240
-5.430E-06,0.320
-5.420E-06,0.400
-5.410E-06,0.400
-5.400E-06,0.400
-5.390E-06,0.280
-5.380E-06,0.240
-5.370E-06,0.280
-5.360E-06,0.400
-5.350E-06,0.440
-5.340E-06,0.440
-5.330E-06,0.400
-5.320E-06,0.360
-5.310E-06,0.200
-5.300E-06,0.240
-5.290E-06,0.360
-5.280E-06,0.320
-5.270E-06,0.440
-5.260E-06,0.320
-5.250E-06,0.280
-5.240E-06,0.200
-5.230E-06,0.120
-5.220E-06,0.160
-5.210E-06,0.240
-5.200E-06,0.240
-5.190E-06,0.320
-5.180E-06,0.360
-5.170E-06,0.320
-5.160E-06,0.320
-5.150E-06,0.360
-5.140E-06,0.320
-5.130E-06,0.360
-5.120E-06,0.360
-5.110E-06,0.440
-5.100E-06,0.440
-5.090E-06,0.360
-5.080E-06,0.400
-5.070E-06,0.400
-5.060E-06,0.360
-5.050E-06,0.320
-5.040E-06,0.360
-5.030E-06,0.320
-5.020E-06,0.160
-5.010E-06,0.200
-5.000E-06,0.160
-4.990E-06,0.120
-4.980E-06,0.160
-4.970E-06,0.120
-4.960E-06,-0.040
-4.950E-06,0.000
-4.940E-06,-0.080
-4.930E-06,-0.160
-4.920E-06,-0.160
-4.910E-06,0.000
-4.900E-06,0.040
-4.890E-06,0.160
-4.880E-06,0.160
-4.870E-06,0.080
-4.860E-06,0.000
-4.850E-06,0.000
-4.840E-06,0.080
-4.830E-06,0.360
-4.820E-06,0.440
-4.810E-06,0.440
-4.800E-06,0.320
-4.790E-06,0.080
-4.780E-06,0.000
-4.770E-06,0.160
-4.760E-06,0.240
-4.750E-06,0.440
-4.740E-06,0.440
-4.730E-06,0.440
-4.720E-06,0.400
-4.710E-06,0.480
-4.700E-06,0.640
-4.690E-06,0.680
-4.680E-06,0.680
-4.670E-06,0.600
-4.660E-06,0.440
-4.650E-06,0.400
-4.640E-06,0.400
-4.630E-06,0.360
-4.620E-06,0.360
-4.610E-06,0.240
-4.600E-06,0.160
-4.590E-06,0.000
-4.580E-06,-0.120
-4.570E-06,-0.200
-4.560E-06,-0.240
-4.550E-06,-0.320
-4.540E-06,-0.360
-4.530E-06,-0.440
-4.520E-06,-0.440
-4.510E-06,-0.480
-4.500E-06,-0.560
-4.490E-06,-0.600
-4.480E-06,-0.640
-4.470E-06,-0.800
-4.460E-06,-0.880
-4.450E-06,-0.880
-4.440E-06,-0.800
-4.430E-06,-0.760
-4.420E-06,-0.680
-4.410E-06,-0.560
-4.400E-06,-0.480
-4.390E-06,-0.400
-4.380E-06,-0.440
-4.370E-06,-0.280
-4.360E-06,-0.280
-4.350E-06,-0.240
-4.340E-06,0.000
-4.330E-06,-0.040
-4.320E-06,0.080
-4.310E-06,0.160
-4.300E-06,0.200
-4.290E-06,0.360
-4.280E-06,0.440
-4.270E-06,0.520
-4.260E-06,0.560
-4.250E-06,0.480
-4.240E-06,0.480
-4.230E-06,0.440
-4.220E-06,0.440
-4.210E-06,0.440
-4.200E-06,0.440
-4.190E-06,0.440
-4.180E-06,0.320
-4.170E-06,0.200
-4.160E-06,0.160
-4.150E-06,0.080
-4.140E-06,0.000
-4.130E-06,-0.040
-4.120E-06,-0.160
-4.110E-06,-0.200
-4.100E-06,-0.280
-4.090E-06,-0.360
-4.080E-06,-0.400
-4.070E-06,-0.520
-4.060E-06,-0.520
-4.050E-06,-0.640
-4.040E-06,-0.680
-4.030E-06,-0.680
-4.020E-06,-0.640
-4.010E-06,-0.640
-4.000E-06,-0.640
-3.990E-06,-0.840
-3.980E-06,-0.840
-3.970E-06,-1.080
-3.960E-06,-1.000
-3.950E-06,-1.000
-3.940E-06,-0.800
-3.930E-06,-0.520
-3.920E-06,-0.320
-3.910E-06,-0.200
-3.900E-06,-0.120
-3.890E-06,-0.360
-3.880E-06,-0.320
-3.870E-06,-0.280
-3.860E-06,-0.120
-3.850E-06,0.200
-3.840E-06,0.080
-3.830E-06,0.320
-3.820E-06,0.040
-3.810E-06,-0.040
-3.800E-06,0.080
-3.790E-06,-0.080
-3.780E-06,0.240
-3.770E-06,0.360
-3.760E-06,0.240
-3.750E-06,0.240
-3.740E-06,0.120
-3.730E-06,0.040
-3.720E-06,0.120
-3.710E-06,0.120
-3.700E-06,0.280
-3.690E-06,0.160
-3.680E-06,0.200
-3.670E-06,0.080
-3.660E-06,0.120
-3.650E-06,0.240
-3.640E-06,0.200
-3.630E-06,0.320
-3.620E-06,0.040
-3.610E-06,0.040
-3.600E-06,-0.160
-3.590E-06,-0.320
-3.580E-06,-0.280
-3.570E-06,-0.200
-3.560E-06,-0.160
-3.550E-06,0.000
-3.540E-06,-0.200
-3.530E-06,-0.200
-3.520E-06,-0.320
-3.510E-06,-0.320
-3.500E-06,-0.280
-3.490E-06,-0.200
-3.480E-06,-0.080
-3.470E-06,-0.120
-3.460E-06,-0.200
-3.450E-06,-0.160
-3.440E-06,-0.280
-3.430E-06,-0.120
-3.420E-06,-0.080
-3.410E-06,0.000
-3.400E-06,0.000
-3.390E-06,-0.160
-3.380E-06,-0.240
-3.370E-06,-0.400
-3.360E-06,-0.400
-3.350E-06,-0.600
-3.340E-06,-0.520
-3.330E-06,-0.560
-3.320E-06,-0.680
-3.310E-06,-0.680
-3.300E-06,-0.800
-3.290E-06,-0.840
-3.280E-06,-0.960
-3.270E-06,-1.040
-3.260E-06,-1.000
-3.250E-06,-0.920
-3.240E-06,-1.000
-3.230E-06,-0.840
-3.220E-06,-0.920
-3.210E-06,-0.880
-3.200E-06,-0.920
-3.190E-06,-0.920
-3.180E-06,-0.960
-3.170E-06,-0.880
-3.160E-06,-0.800
-3.150E-06,-0.600
-3.140E-06,-0.600
-3.130E-06,-0.640
-3.120E-06,-0.560
-3.110E-06,-0.680
-3.100E-06,-0.360
-3.090E-06,-0.200
-3.080E-06,-0.120
-3.070E-06,0.000
-3.060E-06,-0.040
-3.050E-06,-0.040
-3.040E-06,0.040
-3.030E-06,0.080
-3.020E-06,0.160
-3.010E-06,0.280
-3.000E-06,0.280
-2.990E-06,0.320
-2.980E-06,0.520
-2.970E-06,0.440
-2.960E-06,0.520
-2.950E-06,0.520
-2.940E-06,0.280
-2.930E-06,0.360
-2.920E-06,0.320
-2.910E-06,0.400
-2.900E-06,0.600
-2.890E-06,0.600
-2.880E-06,0.480
-2.870E-06,0.440
-2.860E-06,0.240
-2.850E-06,0.240
-2.840E-06,0.080
-2.830E-06,0.080
-2.820E-06,0.040
-2.810E-06,-0.160
-2.800E-06,-0.240
-2.790E-06,-0.480
-2.780E-06,-0.600
-2.770E-06,-0.680
-2.760E-06,-0.680
-2.750E-06,-0.840
-2.740E-06,-0.880
-2.730E-06,-0.960
-2.720E-06,-1.120
-2.710E-06,-1.200
-2.700E-06,-1.200
-2.690E-06,-1.280
-2.680E-06,-1.280
-2.670E-06,-1.440
-2.660E-06,-1.560
-2.650E-06,-1.560
-2.640E-06,-1.720
-2.630E-06,-1.760
-2.620E-06,-1.680
-2.610E-06,-1.640
-2.600E-06,-1.560
-2.590E-06,-1.480
-2.580E-06,-1.360
-2.570E-06,-1.360
-2.560E-06,-1.320
-2.550E-06,-1.280
-2.540E-06,-1.120
-2.530E-06,-1.040
-2.520E-06,-0.800
-2.510E-06,-0.680
-2.500E-06,-0.520
-2.490E-06,-0.400
-2.480E-06,-0.440
-2.470E-06,-0.320
-2.460E-06,-0.280
-2.450E-06,-0.240
-2.440E-06,-0.080
-2.430E-06,0.040
-2.420E-06,0.080
-2.410E-06,0.080
-2.400E-06,-0.040
-2.390E-06,-0.120
-2.380E-06,-0.120
-2.370E-06,-0.080
-2.360E-06,0.080
-2.350E-06,0.200
-2.340E-06,0.240
-2.330E-06,0.240
-2.320E-06,0.240
-2.310E-06,0.200
-2.300E-06,0.240
-2.290E-06,0.360
-2.280E-06,0.320
-2.270E-06,0.160
-2.260E-06,0.080
-2.250E-06,-0.160
-2.240E-06,-0.200
-2.230E-06,-0.360
-2.220E-06,-0.400
-2.210E-06,-0.560
-2.200E-06,-0.800
-2.190E-06,-1.120
-2.180E-06,-1.320
-2.170E-06,-1.520
-2.160E-06,-1.560
-2.150E-06,-1.440
-2.140E-06,-1.400
-2.130E-06,-1.200
-2.120E-06,-1.200
-2.110E-06,-1.200
-2.100E-06,-1.320
-2.090E-06,-1.320
-2.080E-06,-1.360
-2.070E-06,-1.280
-2.060E-06,-1.040
-2.050E-06,-0.880
-2.040E-06,-0.760
-2.030E-06,-0.480
-2.020E-06,-0.280
-2.010E-06,-0.120
-2.000E-06,0.000
-1.990E-06,0.120
-1.980E-06,0.240
-1.970E-06,0.320
-1.960E-06,0.320
-1.950E-06,0.440
-1.940E-06,0.520
-1.930E-06,0.480
-1.920E-06,0.520
-1.910E-06,0.520
-1.900E-06,0.640
-1.890E-06,0.680
-1.880E-06,0.640
-1.870E-06,0.600
-1.860E-06,0.440
-1.850E-06,0.240
-1.840E-06,0.120
-1.830E-06,-0.200
-1.820E-06,-0.440
-1.810E-06,-0.640
-1.800E-06,-0.960
-1.790E-06,-1.080
-1.780E-06,-1.240
-1.770E-06,-1.240
-1.760E-06,-1.520
-1.750E-06,-1.680
-1.740E-06,-1.800
-1.730E-06,-1.480
-1.720E-06,-1.480
-1.710E-06,-1.200
-1.700E-06,-0.960
-1.690E-06,-0.880
-1.680E-06,-0.720
-1.670E-06,-0.720
-1.660E-06,-0.600
-1.650E-06,-0.520
-1.640E-06,-0.320
-1.630E-06,-0.200
-1.620E-06,0.000
-1.610E-06,0.160
-1.600E-06,0.280
-1.590E-06,0.400
-1.580E-06,0.320
-1.570E-06,0.360
-1.560E-06,0.360
-1.550E-06,0.360
-1.540E-06,0.360
-1.530E-06,0.240
-1.520E-06,0.080
-1.510E-06,-0.200
-1.500E-06,-0.440
-1.490E-06,-0.680
-1.480E-06,-0.640
-1.470E-06,-0.680
-1.460E-06,-0.720
-1.450E-06,-1.160
-1.440E-06,-1.840
-1.430E-06,-1.840
-1.420E-06,-2.400
-1.410E-06,-2.240
-1.400E-06,-1.960
-1.390E-06,-2.320
-1.380E-06,-2.440
-1.370E-06,-3.000
-1.360E-06,-3.160
-1.350E-06,-3.280
-1.340E-06,-3.360
-1.330E-06,-3.120
-1.320E-06,-3.000
-1.310E-06,-3.160
-1.300E-06,-3.320
-1.290E-06,-3.560
-1.280E-06,-3.760
-1.270E-06,-3.720
-1.260E-06,-3.840
-1.250E-06,-3.840
-1.240E-06,-3.960
-1.230E-06,-4.320
-1.220E-06,-4.560
-1.210E-06,-5.040
-1.200E-06,-5.200
-1.190E-06,-5.240
-1.180E-06,-5.240
-1.170E-06,-5.240
-1.160E-06,-5.240
-1.150E-06,-5.240
-1.140E-06,-5.240
-1.130E-06,-5.240
-1.120E-06,-5.240
-1.110E-06,-5.240
-1.100E-06,-5.240
-1.090E-06,-5.200
-1.080E-06,-5.200
-1.070E-06,-5.240
-1.060E-06,-5.240
-1.050E-06,-5.240
-1.040E-06,-5.200
-1.030E-06,-5.200
-1.020E-06,-5.240
-1.010E-06,-5.000
-1.000E-06,-5.000
-9.900E-07,-4.680
-9.800E-07,-4.160
-9.700E-07,-3.800
-9.600E-07,-3.480
-9.500E-07,-3.280
-9.400E-07,-3.040
-9.300E-07,-2.920
-9.200E-07,-2.840
-9.100E-07,-2.720
-9.000E-07,-2.880
-8.900E-07,-2.840
-8.800E-07,-2.800
-8.700E-07,-3.080
-8.600E-07,-3.160
-8.500E-07,-3.360
-8.400E-07,-3.520
-8.300E-07,-3.680
-8.200E-07,-3.960
-8.100E-07,-3.960
-8.000E-07,-4.120
-7.900E-07,-3.960
-7.800E-07,-3.360
-7.700E-07,-3.640
-7.600E-07,-3.280
-7.500E-07,-3.560
-7.400E-07,-4.040
-7.300E-07,-3.840
-7.200E-07,-4.320
-7.100E-07,-4.200
-7.000E-07,-3.560
-6.900E-07,-3.240
-6.800E-07,-2.680
-6.700E-07,-2.200
-6.600E-07,-2.120
-6.500E-07,-2.000
-6.400E-07,-1.960
-6.300E-07,-1.760
-6.200E-07,-1.440
-6.100E-07,-0.960
-6.000E-07,-0.480
-5.900E-07,-0.040
-5.800E-07,0.400
-5.700E-07,0.480
-5.600E-07,0.480
-5.500E-07,0.360
-5.400E-07,0.200
-5.300E-07,0.000
-5.200E-07,-0.160
-5.100E-07,-0.280
-5.000E-07,-0.440
-4.900E-07,-0.560
-4.800E-07,-0.760
-4.700E-07,-1.000
-4.600E-07,-1.280
-4.500E-07,-1.600
-4.400E-07,-1.800
-4.300E-07,-1.880
-4.200E-07,-2.240
-4.100E-07,-2.160
-4.000E-07,-2.400
-3.900E-07,-2.360
-3.800E-07,-2.480
-3.700E-07,-2.560
-3.600E-07,-2.920
-3.500E-07,-3.000
-3.400E-07,-3.160
-3.300E-07,-3.040
-3.200E-07,-2.440
-3.100E-07,-2.040
-3.000E-07,-1.760
-2.900E-07,-1.600
-2.800E-07,-1.720
-2.700E-07,-1.760
-2.600E-07,-1.320
-2.500E-07,-1.320
-2.400E-07,-0.720
-2.300E-07,-0.440
-2.200E-07,-0.280
-2.100E-07,0.120
-2.000E-07,0.320
-1.900E-07,0.680
-1.800E-07,0.760
-1.700E-07,0.720
-1.600E-07,0.760
-1.500E-07,0.680
-1.400E-07,0.640
-1.300E-07,0.480
-1.200E-07,0.240
-1.100E-07,-0.120
-1.000E-07,-0.520
-9.000E-08,-1.000
-8.000E-08,-1.320
-7.000E-08,-1.640
-6.000E-08,-1.960
-5.000E-08,-2.040
-4.000E-08,-2.400
-3.000E-08,-2.520
-2.000E-08,-2.600
-1.000E-08,-2.960
0.000E+00,-2.880
1.000E-08,-2.640
2.000E-08,-2.280
3.000E-08,-1.760
4.000E-08,-1.520
5.000E-08,-1.560
6.000E-08,-1.720
7.000E-08,-1.960
8.000E-08,-1.880
9.000E-08,-1.640
1.000E-07,-1.240
1.100E-07,-1.120
1.200E-07,-0.560
1.300E-07,-0.640
1.400E-07,-0.680
1.500E-07,-0.480
1.600E-07,-0.400
1.700E-07,-0.200
1.800E-07,0.120
1.900E-07,0.400
2.000E-07,0.480
2.100E-07,0.400
2.200E-07,0.120
2.300E-07,0.000
2.400E-07,-0.240
2.500E-07,-0.320
2.600E-07,-0.440
2.700E-07,-0.560
2.800E-07,-0.600
2.900E-07,-0.720
3.000E-07,-1.040
3.100E-07,-1.200
3.200E-07,-1.400
3.300E-07,-1.640
3.400E-07,-1.680
3.500E-07,-1.720
3.600E-07,-1.760
3.700E-07,-1.800
3.800E-07,-1.840
3.900E-07,-1.960
4.000E-07,-2.000
4.100E-07,-2.040
4.200E-07,-2.080
4.300E-07,-2.120
4.400E-07,-2.280
4.500E-07,-2.440
4.600E-07,-2.520
4.700E-07,-2.640
4.800E-07,-2.640
4.900E-07,-2.720
5.000E-07,-2.800
5.100E-07,-2.880
5.200E-07,-3.040
5.300E-07,-3.080
5.400E-07,-3.360
5.500E-07,-3.520
5.600E-07,-3.440
5.700E-07,-3.520
5.800E-07,-3.240
5.900E-07,-2.960
6.000E-07,-2.520
6.100E-07,-2.000
6.200E-07,-1.880
6.300E-07,-1.720
6.400E-07,-1.840
6.500E-07,-2.280
6.600E-07,-2.440
6.700E-07,-2.600
6.800E-07,-2.400
6.900E-07,-2.280
7.000E-07,-2.200
7.100E-07,-2.200
7.200E-07,-2.560
7.300E-07,-2.760
7.400E-07,-2.720
7.500E-07,-2.640
7.600E-07,-2.280
7.700E-07,-1.920
7.800E-07,-1.720
7.900E-07,-1.320
8.000E-07,-1.160
8.100E-07,-1.280
8.200E-07,-1.160
8.300E-07,-1.000
8.400E-07,-1.240
8.500E-07,-1.080
8.600E-07,-1.560
8.700E-07,-1.680
8.800E-07,-2.000
8.900E-07,-2.320
9.000E-07,-2.240
9.100E-07,-2.120
9.200E-07,-1.960
9.300E-07,-1.880
9.400E-07,-1.960
9.500E-07,-2.000
9.600E-07,-2.120
9.700E-07,-2.280
9.800E-07,-2.080
9.900E-07,-2.040
1.000E-06,-1.760
1.010E-06,-1.360
1.020E-06,-1.160
1.030E-06,-0.840
1.040E-06,-0.760
1.050E-06,-0.840
1.060E-06,-1.000
1.070E-06,-1.040
1.080E-06,-1.280
1.090E-06,-1.280
1.100E-06,-1.480
1.110E-06,-1.680
1.120E-06,-2.000
1.130E-06,-2.560
1.140E-06,-3.160
1.150E-06,-3.600
1.160E-06,-4.200
1.170E-06,-4.600
1.180E-06,-4.920
1.190E-06,-5.160
1.200E-06,-5.240
1.210E-06,-5.240
1.220E-06,-5.200
1.230E-06,-5.200
1.240E-06,-5.200
1.250E-06,-5.240
1.260E-06,-5.240
1.270E-06,-5.040
1.280E-06,-4.720
1.290E-06,-4.480
1.300E-06,-4.200
1.310E-06,-4.000
1.320E-06,-3.760
1.330E-06,-3.520
1.340E-06,-3.280
1.350E-06,-3.080
1.360E-06,-3.000
1.370E-06,-2.920
1.380E-06,-2.960
1.390E-06,-3.000
1.400E-06,-3.080
1.410E-06,-3.160
1.420E-06,-3.040
1.430E-06,-3.000
1.440E-06,-3.040
1.450E-06,-3.000
1.460E-06,-3.040
1.470E-06,-3.040
1.480E-06,-2.920
1.490E-06,-2.880
1.500E-06,-2.720
1.510E-06,-2.640
1.520E-06,-2.520
1.530E-06,-2.440
1.540E-06,-2.320
1.550E-06,-2.320
1.560E-06,-2.240
1.570E-06,-2.200
1.580E-06,-2.200
1.590E-06,-2.120
1.600E-06,-2.160
1.610E-06,-2.120
1.620E-06,-2.160
1.630E-06,-2.240
1.640E-06,-2.320
1.650E-06,-2.440
1.660E-06,-2.600
1.670E-06,-2.640
1.680E-06,-2.640
1.690E-06,-2.520
1.700E-06,-2.360
1.710E-06,-2.080
1.720E-06,-1.880
1.730E-06,-1.560
1.740E-06,-1.320
1.750E-06,-1.200
1.760E-06,-1.120
1.770E-06,-1.080
1.780E-06,-1.080
1.790E-06,-1.040
1.800E-06,-1.080
1.810E-06,-1.080
1.820E-06,-1.120
1.830E-06,-1.240
1.840E-06,-1.280
1.850E-06,-1.400
1.860E-06,-1.480
1.870E-06,-1.520
1.880E-06,-1.600
1.890E-06,-1.640
1.900E-06,-1.680
1.910E-06,-1.720
1.920E-06,-1.760
1.930E-06,-1.760
1.940E-06,-1.680
1.950E-06,-1.640
1.960E-06,-1.560
1.970E-06,-1.440
1.980E-06,-1.360
1.990E-06,-1.240
2.000E-06,-1.200
2.010E-06,-1.080
2.020E-06,-1.000
2.030E-06,-0.960
2.040E-06,-0.880
2.050E-06,-0.800
2.060E-06,-0.800
2.070E-06,-0.800
2.080E-06,-0.800
2.090E-06,-0.800
2.100E-06,-0.840
2.110E-06,-0.880
2.120E-06,-0.840
2.130E-06,-0.920
2.140E-06,-1.000
2.150E-06,-1.040
2.160E-06,-1.080
2.170E-06,-1.080
2.180E-06,-1.120
2.190E-06,-1.160
2.200E-06,-1.160
2.210E-06,-1.160
2.220E-06,-1.200
2.230E-06,-1.160
2.240E-06,-1.160
2.250E-06,-1.200
2.260E-06,-1.160
2.270E-06,-1.160
2.280E-06,-1.040
2.290E-06,-1.000
2.300E-06,-0.920
2.310E-06,-0.880
2.320E-06,-0.800
2.330E-06,-0.720
2.340E-06,-0.680
2.350E-06,-0.600
2.360E-06,-0.480
2.370E-06,-0.480
2.380E-06,-0.440
2.390E-06,-0.320
2.400E-06,-0.320
2.410E-06,-0.280
2.420E-06,-0.320
2.430E-06,-0.280
2.440E-06,-0.240
2.450E-06,-0.200
2.460E-06,-0.240
2.470E-06,-0.280
2.480E-06,-0.240
2.490E-06,-0.240
2.500E-06,-0.280
2.510E-06,-0.360
2.520E-06,-0.400
2.530E-06,-0.440
2.540E-06,-0.560
2.550E-06,-0.600
2.560E-06,-0.640
2.570E-06,-0.680
2.580E-06,-0.760
2.590E-06,-0.800
2.600E-06,-0.800
2.610E-06,-0.800
2.620E-06,-0.800
2.630E-06,-0.800
2.640E-06,-0.840
2.650E-06,-0.800
2.660E-06,-0.840
2.670E-06,-0.760
2.680E-06,-0.800
2.690E-06,-0.760
2.700E-06,-0.760
2.710E-06,-0.800
2.720E-06,-0.760
2.730E-06,-0.720
2.740E-06,-0.680
2.750E-06,-0.560
2.760E-06,-0.560
2.770E-06,-0.480
2.780E-06,-0.520
2.790E-06,-0.480
2.800E-06,-0.480
2.810E-06,-0.560
2.820E-06,-0.520
2.830E-06,-0.560
2.840E-06,-0.480
2.850E-06,-0.520
2.860E-06,-0.480
2.870E-06,-0.440
2.880E-06,-0.440
2.890E-06,-0.480
2.900E-06,-0.520
2.910E-06,-0.520
2.920E-06,-0.520
2.930E-06,-0.520
2.940E-06,-0.440
2.950E-06,-0.440
2.960E-06,-0.480
2.970E-06,-0.480
2.980E-06,-0.480
2.990E-06,-0.560
3.000E-06,-0.600
3.010E-06,-0.560
3.020E-06,-0.560
3.030E-06,-0.560
3.040E-06,-0.520
3.050E-06,-0.600
3.060E-06,-0.560
3.070E-06,-0.560
3.080E-06,-0.600
