mediciones/Mediciones filtradas (saque las feas)/6-10/33.2/WaveData55141.csv

#timebase=2000000(ps)
,#voltbase=500000(mv/100)
#size=4000
-4.250E-06,0.040
-4.240E-06,-0.020
-4.230E-06,-0.020
-4.220E-06,-0.040
-4.210E-06,0.000
-4.200E-06,0.040
-4.190E-06,0.040
-4.180E-06,0.020
-4.170E-06,0.000
-4.160E-06,-0.020
-4.150E-06,-0.020
-4.140E-06,0.020
-4.130E-06,0.020
-4.120E-06,0.040
-4.110E-06,0.020
-4.100E-06,0.000
-4.090E-06,0.020
-4.080E-06,0.080
-4.070E-06,0.040
-4.060E-06,0.160
-4.050E-06,0.120
-4.040E-06,0.040
-4.030E-06,0.080
-4.020E-06,-0.020
-4.010E-06,0.120
-4.000E-06,0.060
-3.990E-06,0.060
-3.980E-06,0.120
-3.970E-06,0.020
-3.960E-06,0.040
-3.950E-06,0.080
-3.940E-06,0.040
-3.930E-06,0.040
-3.920E-06,0.060
-3.910E-06,0.020
-3.900E-06,-0.020
-3.890E-06,0.000
-3.880E-06,0.040
-3.870E-06,0.140
-3.860E-06,0.120
-3.850E-06,0.160
-3.840E-06,0.200
-3.830E-06,0.120
-3.820E-06,0.120
-3.810E-06,0.080
-3.800E-06,0.040
-3.790E-06,0.000
-3.780E-06,0.020
-3.770E-06,0.040
-3.760E-06,0.120
-3.750E-06,0.000
-3.740E-06,0.000
-3.730E-06,0.080
-3.720E-06,-0.040
-3.710E-06,0.080
-3.700E-06,0.100
-3.690E-06,0.040
-3.680E-06,0.040
-3.670E-06,0.000
-3.660E-06,0.020
-3.650E-06,0.140
-3.640E-06,0.100
-3.630E-06,0.100
-3.620E-06,0.040
-3.610E-06,0.000
-3.600E-06,-0.040
-3.590E-06,0.000
-3.580E-06,0.020
-3.570E-06,0.060
-3.560E-06,0.000
-3.550E-06,-0.020
-3.540E-06,-0.020
-3.530E-06,0.000
-3.520E-06,0.020
-3.510E-06,0.020
-3.500E-06,0.080
-3.490E-06,0.000
-3.480E-06,0.000
-3.470E-06,0.080
-3.460E-06,0.040
-3.450E-06,0.080
-3.440E-06,0.120
-3.430E-06,0.080
-3.420E-06,0.060
-3.410E-06,0.080
-3.400E-06,0.060
-3.390E-06,0.120
-3.380E-06,0.060
-3.370E-06,0.080
-3.360E-06,0.080
-3.350E-06,0.080
-3.340E-06,0.080
-3.330E-06,0.120
-3.320E-06,0.080
-3.310E-06,-0.100
-3.300E-06,0.140
-3.290E-06,0.000
-3.280E-06,0.120
-3.270E-06,0.260
-3.260E-06,0.140
-3.250E-06,0.120
-3.240E-06,0.000
-3.230E-06,-0.020
-3.220E-06,0.020
-3.210E-06,0.080
-3.200E-06,0.100
-3.190E-06,0.100
-3.180E-06,0.020
-3.170E-06,-0.040
-3.160E-06,-0.060
-3.150E-06,0.000
-3.140E-06,-0.060
-3.130E-06,0.120
-3.120E-06,0.000
-3.110E-06,-0.020
-3.100E-06,0.060
-3.090E-06,0.020
-3.080E-06,0.080
-3.070E-06,0.080
-3.060E-06,0.100
-3.050E-06,0.040
-3.040E-06,0.000
-3.030E-06,-0.020
-3.020E-06,0.020
-3.010E-06,0.020
-3.000E-06,0.060
-2.990E-06,0.000
-2.980E-06,0.020
-2.970E-06,0.000
-2.960E-06,-0.020
-2.950E-06,-0.040
-2.940E-06,0.100
-2.930E-06,0.140
-2.920E-06,0.140
-2.910E-06,0.220
-2.900E-06,0.020
-2.890E-06,0.020
-2.880E-06,-0.020
-2.870E-06,0.020
-2.860E-06,0.080
-2.850E-06,0.120
-2.840E-06,0.140
-2.830E-06,0.080
-2.820E-06,0.060
-2.810E-06,0.020
-2.800E-06,0.040
-2.790E-06,0.020
-2.780E-06,0.080
-2.770E-06,0.080
-2.760E-06,0.060
-2.750E-06,0.100
-2.740E-06,-0.020
-2.730E-06,0.060
-2.720E-06,0.140
-2.710E-06,0.060
-2.700E-06,0.160
-2.690E-06,0.120
-2.680E-06,0.040
-2.670E-06,0.060
-2.660E-06,0.020
-2.650E-06,0.020
-2.640E-06,0.100
-2.630E-06,0.080
-2.620E-06,0.080
-2.610E-06,0.060
-2.600E-06,0.000
-2.590E-06,0.000
-2.580E-06,0.000
-2.570E-06,0.060
-2.560E-06,0.040
-2.550E-06,0.060
-2.540E-06,0.020
-2.530E-06,0.000
-2.520E-06,0.000
-2.510E-06,0.040
-2.500E-06,0.060
-2.490E-06,0.060
-2.480E-06,-0.100
-2.470E-06,0.180
-2.460E-06,-0.020
-2.450E-06,-0.020
-2.440E-06,0.180
-2.430E-06,-0.120
-2.420E-06,-0.020
-2.410E-06,0.040
-2.400E-06,0.100
-2.390E-06,0.100
-2.380E-06,0.080
-2.370E-06,0.020
-2.360E-06,0.060
-2.350E-06,0.040
-2.340E-06,0.060
-2.330E-06,0.120
-2.320E-06,0.100
-2.310E-06,0.040
-2.300E-06,0.040
-2.290E-06,0.000
-2.280E-06,-0.040
-2.270E-06,0.000
-2.260E-06,0.020
-2.250E-06,0.020
-2.240E-06,0.020
-2.230E-06,0.000
-2.220E-06,0.020
-2.210E-06,0.060
-2.200E-06,0.080
-2.190E-06,0.060
-2.180E-06,0.080
-2.170E-06,0.100
-2.160E-06,0.140
-2.150E-06,0.100
-2.140E-06,0.160
-2.130E-06,0.160
-2.120E-06,0.160
-2.110E-06,0.160
-2.100E-06,0.140
-2.090E-06,0.180
-2.080E-06,0.160
-2.070E-06,0.160
-2.060E-06,0.140
-2.050E-06,0.080
-2.040E-06,0.060
-2.030E-06,0.060
-2.020E-06,0.060
-2.010E-06,0.080
-2.000E-06,0.140
-1.990E-06,0.160
-1.980E-06,0.160
-1.970E-06,0.160
-1.960E-06,0.180
-1.950E-06,0.160
-1.940E-06,0.140
-1.930E-06,0.160
-1.920E-06,0.140
-1.910E-06,0.140
-1.900E-06,0.220
-1.890E-06,0.200
-1.880E-06,0.160
-1.870E-06,0.100
-1.860E-06,0.160
-1.850E-06,-0.100
-1.840E-06,0.000
-1.830E-06,0.040
-1.820E-06,-0.040
-1.810E-06,0.200
-1.800E-06,0.160
-1.790E-06,0.160
-1.780E-06,0.100
-1.770E-06,0.020
-1.760E-06,-0.020
-1.750E-06,0.040
-1.740E-06,0.060
-1.730E-06,0.160
-1.720E-06,0.200
-1.710E-06,0.140
-1.700E-06,0.160
-1.690E-06,0.020
-1.680E-06,0.040
-1.670E-06,0.060
-1.660E-06,0.080
-1.650E-06,0.140
-1.640E-06,0.100
-1.630E-06,0.040
-1.620E-06,0.020
-1.610E-06,0.040
-1.600E-06,0.080
-1.590E-06,0.060
-1.580E-06,0.060
-1.570E-06,0.080
-1.560E-06,0.060
-1.550E-06,0.060
-1.540E-06,0.040
-1.530E-06,0.040
-1.520E-06,0.060
-1.510E-06,0.020
-1.500E-06,0.040
-1.490E-06,0.040
-1.480E-06,0.060
-1.470E-06,0.120
-1.460E-06,0.140
-1.450E-06,0.160
-1.440E-06,0.160
-1.430E-06,0.120
-1.420E-06,0.160
-1.410E-06,0.120
-1.400E-06,0.120
-1.390E-06,0.180
-1.380E-06,0.180
-1.370E-06,0.120
-1.360E-06,0.160
-1.350E-06,0.140
-1.340E-06,0.180
-1.330E-06,0.160
-1.320E-06,0.100
-1.310E-06,0.060
-1.300E-06,0.120
-1.290E-06,0.180
-1.280E-06,0.260
-1.270E-06,0.240
-1.260E-06,0.280
-1.250E-06,0.240
-1.240E-06,0.160
-1.230E-06,0.200
-1.220E-06,0.060
-1.210E-06,0.000
-1.200E-06,0.280
-1.190E-06,0.040
-1.180E-06,-0.200
-1.170E-06,0.080
-1.160E-06,0.000
-1.150E-06,0.100
-1.140E-06,0.320
-1.130E-06,0.020
-1.120E-06,0.120
-1.110E-06,-0.180
-1.100E-06,-0.180
-1.090E-06,0.160
-1.080E-06,-0.120
-1.070E-06,0.300
-1.060E-06,0.280
-1.050E-06,0.020
-1.040E-06,0.200
-1.030E-06,0.000
-1.020E-06,0.020
-1.010E-06,0.120
-1.000E-06,-0.080
-9.900E-07,-0.020
-9.800E-07,0.020
-9.700E-07,0.060
-9.600E-07,0.360
-9.500E-07,0.160
-9.400E-07,0.260
-9.300E-07,-0.040
-9.200E-07,-0.180
-9.100E-07,0.160
-9.000E-07,0.260
-8.900E-07,0.500
-8.800E-07,0.540
-8.700E-07,0.200
-8.600E-07,-0.060
-8.500E-07,-0.180
-8.400E-07,-0.060
-8.300E-07,0.220
-8.200E-07,0.560
-8.100E-07,0.460
-8.000E-07,0.520
-7.900E-07,0.220
-7.800E-07,-0.160
-7.700E-07,0.040
-7.600E-07,0.160
-7.500E-07,0.220
-7.400E-07,0.640
-7.300E-07,0.400
-7.200E-07,0.160
-7.100E-07,0.100
-7.000E-07,-0.220
-6.900E-07,-0.080
-6.800E-07,0.080
-6.700E-07,0.000
-6.600E-07,0.100
-6.500E-07,-0.080
-6.400E-07,-0.180
-6.300E-07,-0.160
-6.200E-07,-0.180
-6.100E-07,-0.060
-6.000E-07,-0.060
-5.900E-07,0.020
-5.800E-07,-0.040
-5.700E-07,-0.220
-5.600E-07,-0.220
-5.500E-07,-0.180
-5.400E-07,-0.020
-5.300E-07,0.220
-5.200E-07,0.240
-5.100E-07,0.200
-5.000E-07,0.140
-4.900E-07,-0.040
-4.800E-07,-0.020
-4.700E-07,0.000
-4.600E-07,0.120
-4.500E-07,0.280
-4.400E-07,0.340
-4.300E-07,0.340
-4.200E-07,0.380
-4.100E-07,0.320
-4.000E-07,0.280
-3.900E-07,0.300
-3.800E-07,0.340
-3.700E-07,0.320
-3.600E-07,0.340
-3.500E-07,0.320
-3.400E-07,0.300
-3.300E-07,0.340
-3.200E-07,0.300
-3.100E-07,0.220
-3.000E-07,0.260
-2.900E-07,0.240
-2.800E-07,0.220
-2.700E-07,0.200
-2.600E-07,0.140
-2.500E-07,0.020
-2.400E-07,-0.060
-2.300E-07,-0.080
-2.200E-07,0.080
-2.100E-07,-0.040
-2.000E-07,-0.040
-1.900E-07,0.100
-1.800E-07,0.040
-1.700E-07,-0.180
-1.600E-07,0.020
-1.500E-07,-0.180
-1.400E-07,0.020
-1.300E-07,0.260
-1.200E-07,0.380
-1.100E-07,0.200
-1.000E-07,0.060
-9.000E-08,0.320
-8.000E-08,0.100
-7.000E-08,0.480
-6.000E-08,0.600
-5.000E-08,0.700
-4.000E-08,0.740
-3.000E-08,0.240
-2.000E-08,-0.740
-1.000E-08,-0.320
0.000E+00,-0.500
1.000E-08,0.300
2.000E-08,1.420
3.000E-08,1.160
4.000E-08,1.100
5.000E-08,0.200
6.000E-08,-0.500
7.000E-08,-0.400
8.000E-08,0.040
9.000E-08,0.600
1.000E-07,0.900
1.100E-07,0.360
1.200E-07,0.000
1.300E-07,-0.200
1.400E-07,-0.660
1.500E-07,-0.660
1.600E-07,-0.420
1.700E-07,-0.180
1.800E-07,0.200
1.900E-07,0.460
2.000E-07,0.420
2.100E-07,0.140
2.200E-07,-0.160
2.300E-07,-0.600
2.400E-07,-0.420
2.500E-07,-0.200
2.600E-07,0.260
2.700E-07,0.400
2.800E-07,0.300
2.900E-07,0.000
3.000E-07,-0.300
3.100E-07,-0.260
3.200E-07,-0.080
3.300E-07,0.220
3.400E-07,0.380
3.500E-07,0.420
3.600E-07,0.340
3.700E-07,0.240
3.800E-07,0.120
3.900E-07,0.080
4.000E-07,0.040
4.100E-07,0.060
4.200E-07,0.060
4.300E-07,0.000
4.400E-07,-0.080
4.500E-07,-0.180
4.600E-07,-0.180
4.700E-07,-0.080
4.800E-07,0.080
4.900E-07,0.320
5.000E-07,0.360
5.100E-07,0.320
5.200E-07,0.180
5.300E-07,0.100
5.400E-07,0.020
5.500E-07,0.140
5.600E-07,0.260
5.700E-07,0.340
5.800E-07,0.440
5.900E-07,0.420
6.000E-07,0.360
6.100E-07,0.280
6.200E-07,0.280
6.300E-07,0.340
6.400E-07,0.360
6.500E-07,0.340
6.600E-07,0.220
6.700E-07,0.260
6.800E-07,0.200
6.900E-07,0.380
7.000E-07,0.240
7.100E-07,0.340
7.200E-07,0.320
7.300E-07,0.220
7.400E-07,0.280
7.500E-07,0.160
7.600E-07,0.420
7.700E-07,0.160
7.800E-07,-0.020
7.900E-07,-0.100
8.000E-07,0.000
8.100E-07,0.540
8.200E-07,-0.860
8.300E-07,1.040
8.400E-07,-0.080
8.500E-07,-1.920
8.600E-07,-0.020
8.700E-07,-0.720
8.800E-07,0.460
8.900E-07,1.940
9.000E-07,0.700
9.100E-07,0.480
9.200E-07,-0.280
9.300E-07,-1.060
9.400E-07,0.040
9.500E-07,0.500
9.600E-07,0.600
9.700E-07,0.820
9.800E-07,0.160
9.900E-07,-0.080
1.000E-06,0.000
1.010E-06,0.220
1.020E-06,0.180
1.030E-06,0.340
1.040E-06,0.100
1.050E-06,-0.040
1.060E-06,-0.160
1.070E-06,-0.040
1.080E-06,-0.100
1.090E-06,-0.100
1.100E-06,-0.340
1.110E-06,-0.660
1.120E-06,-0.540
1.130E-06,-0.460
1.140E-06,-0.360
1.150E-06,-0.300
1.160E-06,-0.260
1.170E-06,-0.280
1.180E-06,-0.160
1.190E-06,-0.080
1.200E-06,0.060
1.210E-06,0.060
1.220E-06,0.140
1.230E-06,0.240
1.240E-06,0.300
1.250E-06,0.320
1.260E-06,0.260
1.270E-06,0.240
1.280E-06,0.260
1.290E-06,0.260
1.300E-06,0.300
1.310E-06,0.300
1.320E-06,0.240
1.330E-06,0.300
1.340E-06,0.280
1.350E-06,0.340
1.360E-06,0.260
1.370E-06,0.200
1.380E-06,0.160
1.390E-06,0.180
1.400E-06,0.280
1.410E-06,0.380
1.420E-06,0.380
1.430E-06,0.420
1.440E-06,0.340
1.450E-06,0.240
1.460E-06,0.240
1.470E-06,0.200
1.480E-06,0.200
1.490E-06,0.360
1.500E-06,0.340
1.510E-06,0.360
1.520E-06,0.240
1.530E-06,0.000
1.540E-06,-0.200
1.550E-06,-0.280
1.560E-06,0.400
1.570E-06,-0.440
1.580E-06,0.840
1.590E-06,-0.820
1.600E-06,-2.680
1.610E-06,-2.220
1.620E-06,-2.140
1.630E-06,0.000
1.640E-06,2.320
1.650E-06,2.300
1.660E-06,1.600
1.670E-06,0.280
1.680E-06,-1.940
1.690E-06,-0.940
1.700E-06,0.180
1.710E-06,1.180
1.720E-06,2.120
1.730E-06,0.720
1.740E-06,-0.060
1.750E-06,-0.900
1.760E-06,-0.840
1.770E-06,-0.520
1.780E-06,0.200
1.790E-06,0.040
1.800E-06,-0.100
1.810E-06,-0.440
1.820E-06,-0.520
1.830E-06,-0.700
1.840E-06,-0.500
1.850E-06,-0.660
1.860E-06,-0.840
1.870E-06,-0.560
1.880E-06,-0.520
1.890E-06,-0.100
1.900E-06,0.140
1.910E-06,0.220
1.920E-06,0.260
1.930E-06,0.500
1.940E-06,0.760
1.950E-06,0.720
1.960E-06,0.640
1.970E-06,0.960
1.980E-06,0.660
1.990E-06,0.960
2.000E-06,1.120
2.010E-06,0.740
2.020E-06,0.880
2.030E-06,0.640
2.040E-06,0.600
2.050E-06,0.760
2.060E-06,0.620
2.070E-06,0.400
2.080E-06,0.440
2.090E-06,0.260
2.100E-06,0.360
2.110E-06,0.440
2.120E-06,0.360
2.130E-06,0.420
2.140E-06,0.280
2.150E-06,0.260
2.160E-06,0.080
2.170E-06,0.100
2.180E-06,0.100
2.190E-06,0.160
2.200E-06,0.320
2.210E-06,0.240
2.220E-06,0.300
2.230E-06,0.100
2.240E-06,0.220
2.250E-06,0.080
2.260E-06,-0.080
2.270E-06,0.000
2.280E-06,-0.440
2.290E-06,-0.180
2.300E-06,-0.240
2.310E-06,-0.120
2.320E-06,0.060
2.330E-06,-0.040
2.340E-06,-0.040
2.350E-06,-0.020
2.360E-06,0.080
2.370E-06,0.040
2.380E-06,0.540
2.390E-06,0.260
2.400E-06,0.180
2.410E-06,0.540
2.420E-06,0.320
2.430E-06,0.340
2.440E-06,0.820
2.450E-06,0.740
2.460E-06,1.160
2.470E-06,0.860
2.480E-06,0.700
2.490E-06,0.640
2.500E-06,0.180
2.510E-06,0.300
2.520E-06,0.100
2.530E-06,0.000
2.540E-06,0.160
2.550E-06,0.180
2.560E-06,0.240
2.570E-06,0.900
2.580E-06,0.840
2.590E-06,1.080
2.600E-06,1.280
2.610E-06,1.020
2.620E-06,0.960
2.630E-06,0.720
2.640E-06,0.600
2.650E-06,1.360
2.660E-06,1.320
2.670E-06,1.800
2.680E-06,1.780
2.690E-06,0.980
2.700E-06,0.780
2.710E-06,0.320
2.720E-06,0.400
2.730E-06,0.760
2.740E-06,0.920
2.750E-06,0.860
2.760E-06,0.720
2.770E-06,0.580
2.780E-06,0.680
2.790E-06,0.440
2.800E-06,0.500
2.810E-06,0.380
2.820E-06,0.360
2.830E-06,0.260
2.840E-06,0.080
2.850E-06,0.120
2.860E-06,-0.020
2.870E-06,-0.120
2.880E-06,-0.260
2.890E-06,-0.340
2.900E-06,-0.500
2.910E-06,-0.400
2.920E-06,-0.420
2.930E-06,-0.420
2.940E-06,-0.400
2.950E-06,-0.500
2.960E-06,-0.520
2.970E-06,-0.460
2.980E-06,-0.400
2.990E-06,-0.420
3.000E-06,-0.380
3.010E-06,-0.360
3.020E-06,-0.420
3.030E-06,-0.380
3.040E-06,-0.420
3.050E-06,-0.380
3.060E-06,-0.380
3.070E-06,-0.360
3.080E-06,-0.300
3.090E-06,-0.280
3.100E-06,-0.300
3.110E-06,-0.260
3.120E-06,-0.200
3.130E-06,-0.120
3.140E-06,-0.080
3.150E-06,-0.060
3.160E-06,-0.160
3.170E-06,-0.160
3.180E-06,-0.180
3.190E-06,-0.160
3.200E-06,-0.100
3.210E-06,-0.060
3.220E-06,-0.100
3.230E-06,-0.100
3.240E-06,-0.100
3.250E-06,-0.140
3.260E-06,-0.080
3.270E-06,-0.080
3.280E-06,0.040
3.290E-06,0.060
3.300E-06,0.080
3.310E-06,0.100
3.320E-06,0.060
3.330E-06,0.080
3.340E-06,0.100
3.350E-06,0.080
3.360E-06,0.040
3.370E-06,0.040
3.380E-06,0.020
3.390E-06,0.060
3.400E-06,0.060
3.410E-06,0.060
3.420E-06,0.000
3.430E-06,-0.020
3.440E-06,-0.020
3.450E-06,-0.020
3.460E-06,-0.100
3.470E-06,-0.120
3.480E-06,-0.180
3.490E-06,-0.200
3.500E-06,-0.240
3.510E-06,-0.260
3.520E-06,-0.300
3.530E-06,-0.360
3.540E-06,-0.420
3.550E-06,-0.440
3.560E-06,-0.460
3.570E-06,-0.520
3.580E-06,-0.500
3.590E-06,-0.480
3.600E-06,-0.480
3.610E-06,-0.480
3.620E-06,-0.460
3.630E-06,-0.460
3.640E-06,-0.480
3.650E-06,-0.440
3.660E-06,-0.460
3.670E-06,-0.460
3.680E-06,-0.460
3.690E-06,-0.440
3.700E-06,-0.420
3.710E-06,-0.400
3.720E-06,-0.380
3.730E-06,-0.360
3.740E-06,-0.340
3.750E-06,-0.320
3.760E-06,-0.340
3.770E-06,-0.420
3.780E-06,-0.500
3.790E-06,-0.540
3.800E-06,-0.660
3.810E-06,-0.780
3.820E-06,-0.900
3.830E-06,-1.080
3.840E-06,-1.260
3.850E-06,-1.400
3.860E-06,-1.560
3.870E-06,-1.700
3.880E-06,-1.780
3.890E-06,-1.860
3.900E-06,-1.880
3.910E-06,-1.920
3.920E-06,-1.900
3.930E-06,-1.880
3.940E-06,-1.860
3.950E-06,-1.820
3.960E-06,-1.740
3.970E-06,-1.680
3.980E-06,-1.700
3.990E-06,-1.660
4.000E-06,-1.680
4.010E-06,-1.600
4.020E-06,-1.360
4.030E-06,-1.060
4.040E-06,-0.700
4.050E-06,-0.360
4.060E-06,-0.140
4.070E-06,0.020
4.080E-06,0.040
4.090E-06,0.040
4.100E-06,0.020
4.110E-06,0.000
4.120E-06,-0.020
4.130E-06,-0.020
4.140E-06,-0.020
4.150E-06,-0.060
4.160E-06,0.000
4.170E-06,0.040
4.180E-06,0.020
4.190E-06,-0.080
4.200E-06,-0.140
4.210E-06,-0.140
4.220E-06,-0.140
4.230E-06,-0.160
4.240E-06,-0.220
4.250E-06,-0.220
4.260E-06,-0.280
4.270E-06,-0.280
4.280E-06,-0.260
4.290E-06,-0.280
4.300E-06,-0.300
4.310E-06,-0.320
4.320E-06,-0.340
4.330E-06,-0.360
4.340E-06,-0.440
4.350E-06,-0.380
4.360E-06,-0.380
4.370E-06,-0.380
4.380E-06,-0.360
4.390E-06,-0.300
4.400E-06,-0.260
4.410E-06,-0.180
4.420E-06,-0.160
4.430E-06,-0.180
4.440E-06,-0.160
4.450E-06,-0.200
4.460E-06,-0.180
4.470E-06,-0.080
4.480E-06,-0.020
4.490E-06,0.000
4.500E-06,0.080
4.510E-06,0.100
4.520E-06,0.080
4.530E-06,0.160
4.540E-06,0.240
4.550E-06,0.340
4.560E-06,0.360
4.570E-06,0.400
4.580E-06,0.460
4.590E-06,0.520
4.600E-06,0.640
4.610E-06,0.720
4.620E-06,0.760
4.630E-06,0.820
4.640E-06,0.840
4.650E-06,0.860
4.660E-06,0.800
4.670E-06,0.820
4.680E-06,0.780
4.690E-06,0.800
4.700E-06,0.760
4.710E-06,0.780
4.720E-06,0.760
4.730E-06,0.760
4.740E-06,0.680
4.750E-06,0.700
4.760E-06,0.680
4.770E-06,0.560
4.780E-06,0.560
4.790E-06,0.540
4.800E-06,0.460
4.810E-06,0.480
4.820E-06,0.380
4.830E-06,0.440
4.840E-06,0.480
4.850E-06,0.340
4.860E-06,0.380
4.870E-06,0.320
4.880E-06,0.280
4.890E-06,0.240
4.900E-06,0.240
4.910E-06,0.200
4.920E-06,0.200
4.930E-06,0.220
4.940E-06,0.180
4.950E-06,0.200
4.960E-06,0.160
4.970E-06,0.060
4.980E-06,0.040
4.990E-06,0.000
5.000E-06,0.000
5.010E-06,0.020
5.020E-06,-0.020
5.030E-06,-0.040
5.040E-06,0.000
5.050E-06,-0.040
5.060E-06,0.000
5.070E-06,0.060
5.080E-06,0.080
5.090E-06,0.160
5.100E-06,0.100
5.110E-06,0.120
5.120E-06,0.160
5.130E-06,0.140
5.140E-06,0.160
5.150E-06,0.140
5.160E-06,0.140
5.170E-06,0.140
5.180E-06,0.180
5.190E-06,0.160
5.200E-06,0.180
5.210E-06,0.180
5.220E-06,0.180
5.230E-06,0.160
5.240E-06,0.160
5.250E-06,0.100
5.260E-06,0.060
5.270E-06,0.040
5.280E-06,-0.020
5.290E-06,-0.060
5.300E-06,-0.100
5.310E-06,-0.180
5.320E-06,-0.220
5.330E-06,-0.300
5.340E-06,-0.340
5.350E-06,-0.400
5.360E-06,-0.460
5.370E-06,-0.520
5.380E-06,-0.560
5.390E-06,-0.580
5.400E-06,-0.660
5.410E-06,-0.640
5.420E-06,-0.660
5.430E-06,-0.620
5.440E-06,-0.580
5.450E-06,-0.460
5.460E-06,-0.360
5.470E-06,-0.260
5.480E-06,-0.140
5.490E-06,-0.060
5.500E-06,0.020
5.510E-06,0.040
5.520E-06,0.060
5.530E-06,0.020
5.540E-06,0.040
5.550E-06,0.060
5.560E-06,0.080
5.570E-06,0.100
5.580E-06,0.080
5.590E-06,0.040
5.600E-06,0.060
5.610E-06,0.040
5.620E-06,0.040
5.630E-06,0.080
5.640E-06,0.080
5.650E-06,0.080
5.660E-06,0.020
5.670E-06,0.000
5.680E-06,-0.020
5.690E-06,0.000
5.700E-06,-0.040
5.710E-06,-0.020
5.720E-06,0.080
5.730E-06,0.180
5.740E-06,0.240
5.750E-06,0.320
5.760E-06,0.400
5.770E-06,0.480
5.780E-06,0.540
5.790E-06,0.600
5.800E-06,0.620
5.810E-06,0.640
5.820E-06,0.660
5.830E-06,0.660
5.840E-06,0.620
5.850E-06,0.540
5.860E-06,0.480
5.870E-06,0.440
5.880E-06,0.360
5.890E-06,0.320
5.900E-06,0.300
5.910E-06,0.280
5.920E-06,0.260
5.930E-06,0.220
5.940E-06,0.240
5.950E-06,0.240
5.960E-06,0.240
5.970E-06,0.240
5.980E-06,0.220
5.990E-06,0.180
6.000E-06,0.160
6.010E-06,0.160
6.020E-06,0.060
6.030E-06,0.020
6.040E-06,-0.060
6.050E-06,-0.180
6.060E-06,-0.240
6.070E-06,-0.340
6.080E-06,-0.420
6.090E-06,-0.500
6.100E-06,-0.500
6.110E-06,-0.540
6.120E-06,-0.580
6.130E-06,-0.520
6.140E-06,-0.500
6.150E-06,-0.500
6.160E-06,-0.440
6.170E-06,-0.500
6.180E-06,-0.460
6.190E-06,-0.360
6.200E-06,-0.220
6.210E-06,0.020
6.220E-06,0.220
6.230E-06,0.420
6.240E-06,0.540
6.250E-06,0.620
6.260E-06,0.640
6.270E-06,0.620
6.280E-06,0.500
6.290E-06,0.460
6.300E-06,0.400
6.310E-06,0.340
6.320E-06,0.320
6.330E-06,0.240
6.340E-06,0.220
6.350E-06,0.200
6.360E-06,0.160
6.370E-06,0.120
6.380E-06,0.100
6.390E-06,0.100
6.400E-06,0.120
6.410E-06,0.140
6.420E-06,0.240
6.430E-06,0.340
6.440E-06,0.380
6.450E-06,0.480
6.460E-06,0.500
6.470E-06,0.520
6.480E-06,0.520
6.490E-06,0.500
6.500E-06,0.500
6.510E-06,0.480
6.520E-06,0.400
6.530E-06,0.380
6.540E-06,0.360
6.550E-06,0.340
6.560E-06,0.340
6.570E-06,0.400
6.580E-06,0.400
6.590E-06,0.440
6.600E-06,0.480
6.610E-06,0.520
6.620E-06,0.580
6.630E-06,0.620
6.640E-06,0.620
6.650E-06,0.620
6.660E-06,0.600
6.670E-06,0.520
6.680E-06,0.460
6.690E-06,0.380
6.700E-06,0.240
6.710E-06,0.140
6.720E-06,0.020
6.730E-06,-0.040
6.740E-06,-0.160
6.750E-06,-0.180
6.760E-06,-0.240
6.770E-06,-0.260
6.780E-06,-0.220
6.790E-06,-0.140
6.800E-06,0.000
6.810E-06,0.160
6.820E-06,0.240
6.830E-06,0.300
6.840E-06,0.260
6.850E-06,0.180
6.860E-06,0.040
6.870E-06,-0.100
6.880E-06,-0.200
6.890E-06,-0.300
6.900E-06,-0.340
6.910E-06,-0.320
6.920E-06,-0.320
6.930E-06,-0.280
6.940E-06,-0.180
6.950E-06,-0.100
6.960E-06,0.060
6.970E-06,0.220
6.980E-06,0.340
6.990E-06,0.420
7.000E-06,0.500
7.010E-06,0.560
7.020E-06,0.620
7.030E-06,0.600
7.040E-06,0.560
7.050E-06,0.560
7.060E-06,0.480
7.070E-06,0.440
7.080E-06,0.400
7.090E-06,0.380
7.100E-06,0.400
7.110E-06,0.420
7.120E-06,0.440
7.130E-06,0.420
7.140E-06,0.420
7.150E-06,0.420
7.160E-06,0.440
7.170E-06,0.480
7.180E-06,0.520
7.190E-06,0.580
7.200E-06,0.620
7.210E-06,0.780
7.220E-06,0.860
7.230E-06,0.880
7.240E-06,0.940
7.250E-06,0.960
7.260E-06,1.000
7.270E-06,0.980
7.280E-06,0.980
7.290E-06,0.940
7.300E-06,0.940
7.310E-06,0.960
7.320E-06,0.920
7.330E-06,0.900
7.340E-06,0.860
7.350E-06,0.780
7.360E-06,0.780
7.370E-06,0.680
7.380E-06,0.680
7.390E-06,0.700
7.400E-06,0.660
7.410E-06,0.640
7.420E-06,0.580
7.430E-06,0.520
7.440E-06,0.400
7.450E-06,0.320
7.460E-06,0.240
7.470E-06,0.200
7.480E-06,0.160
7.490E-06,0.220
7.500E-06,0.320
7.510E-06,0.460
7.520E-06,0.640
7.530E-06,0.920
7.540E-06,1.200
7.550E-06,1.620
7.560E-06,2.020
7.570E-06,2.440
7.580E-06,2.780
7.590E-06,2.760
7.600E-06,2.780
7.610E-06,2.760
7.620E-06,2.780
7.630E-06,2.760
7.640E-06,2.780
7.650E-06,2.760
7.660E-06,2.760
7.670E-06,2.740
7.680E-06,2.760
7.690E-06,2.760
7.700E-06,2.740
7.710E-06,2.760
7.720E-06,2.760
