mediciones/Mediciones filtradas (saque las feas)/6-10/33.2/WaveData55137.csv

#timebase=2000000(ps)
,#voltbase=500000(mv/100)
#size=4000
-4.250E-06,-0.160
-4.240E-06,0.260
-4.230E-06,-0.540
-4.220E-06,-0.220
-4.210E-06,-0.180
-4.200E-06,-0.260
-4.190E-06,0.820
-4.180E-06,0.400
-4.170E-06,0.680
-4.160E-06,0.220
-4.150E-06,-0.340
-4.140E-06,-0.040
-4.130E-06,0.000
-4.120E-06,0.320
-4.110E-06,0.460
-4.100E-06,0.340
-4.090E-06,-0.060
-4.080E-06,-0.220
-4.070E-06,-0.260
-4.060E-06,-0.180
-4.050E-06,0.100
-4.040E-06,0.080
-4.030E-06,-0.020
-4.020E-06,-0.120
-4.010E-06,-0.260
-4.000E-06,-0.340
-3.990E-06,-0.160
-3.980E-06,-0.060
-3.970E-06,-0.160
-3.960E-06,-0.360
-3.950E-06,-0.220
-3.940E-06,-0.220
-3.930E-06,-0.060
-3.920E-06,0.160
-3.910E-06,-0.020
-3.900E-06,0.160
-3.890E-06,0.060
-3.880E-06,0.040
-3.870E-06,0.300
-3.860E-06,0.240
-3.850E-06,0.300
-3.840E-06,0.280
-3.830E-06,0.080
-3.820E-06,0.100
-3.810E-06,0.140
-3.800E-06,0.080
-3.790E-06,0.120
-3.780E-06,0.100
-3.770E-06,-0.020
-3.760E-06,-0.060
-3.750E-06,-0.060
-3.740E-06,0.000
-3.730E-06,0.020
-3.720E-06,0.060
-3.710E-06,-0.040
-3.700E-06,-0.180
-3.690E-06,-0.160
-3.680E-06,-0.180
-3.670E-06,-0.120
-3.660E-06,-0.060
-3.650E-06,-0.120
-3.640E-06,-0.160
-3.630E-06,-0.260
-3.620E-06,-0.220
-3.610E-06,-0.240
-3.600E-06,-0.120
-3.590E-06,-0.060
-3.580E-06,-0.120
-3.570E-06,-0.100
-3.560E-06,-0.120
-3.550E-06,-0.160
-3.540E-06,-0.040
-3.530E-06,-0.020
-3.520E-06,0.100
-3.510E-06,0.160
-3.500E-06,0.060
-3.490E-06,0.040
-3.480E-06,0.040
-3.470E-06,0.000
-3.460E-06,0.140
-3.450E-06,0.160
-3.440E-06,0.180
-3.430E-06,0.260
-3.420E-06,0.200
-3.410E-06,0.140
-3.400E-06,0.260
-3.390E-06,0.200
-3.380E-06,0.280
-3.370E-06,0.260
-3.360E-06,0.440
-3.350E-06,0.180
-3.340E-06,-0.340
-3.330E-06,0.560
-3.320E-06,0.140
-3.310E-06,0.700
-3.300E-06,0.980
-3.290E-06,0.420
-3.280E-06,0.560
-3.270E-06,0.040
-3.260E-06,-0.040
-3.250E-06,0.320
-3.240E-06,0.360
-3.230E-06,0.320
-3.220E-06,0.340
-3.210E-06,-0.060
-3.200E-06,-0.240
-3.190E-06,-0.180
-3.180E-06,-0.240
-3.170E-06,-0.100
-3.160E-06,-0.120
-3.150E-06,-0.260
-3.140E-06,-0.340
-3.130E-06,-0.440
-3.120E-06,-0.480
-3.110E-06,-0.400
-3.100E-06,-0.420
-3.090E-06,-0.440
-3.080E-06,-0.500
-3.070E-06,-0.580
-3.060E-06,-0.580
-3.050E-06,-0.500
-3.040E-06,-0.480
-3.030E-06,-0.400
-3.020E-06,-0.340
-3.010E-06,-0.280
-3.000E-06,-0.180
-2.990E-06,-0.160
-2.980E-06,-0.120
-2.970E-06,0.000
-2.960E-06,0.020
-2.950E-06,0.080
-2.940E-06,0.040
-2.930E-06,0.040
-2.920E-06,0.120
-2.910E-06,0.220
-2.900E-06,0.260
-2.890E-06,0.340
-2.880E-06,0.300
-2.870E-06,0.260
-2.860E-06,0.280
-2.850E-06,0.340
-2.840E-06,0.420
-2.830E-06,0.460
-2.820E-06,0.380
-2.810E-06,0.320
-2.800E-06,0.280
-2.790E-06,0.220
-2.780E-06,0.260
-2.770E-06,0.240
-2.760E-06,0.180
-2.750E-06,0.160
-2.740E-06,0.160
-2.730E-06,0.100
-2.720E-06,0.140
-2.710E-06,0.080
-2.700E-06,0.080
-2.690E-06,0.020
-2.680E-06,-0.020
-2.670E-06,-0.040
-2.660E-06,-0.020
-2.650E-06,-0.040
-2.640E-06,-0.060
-2.630E-06,-0.120
-2.620E-06,-0.140
-2.610E-06,-0.200
-2.600E-06,-0.200
-2.590E-06,-0.220
-2.580E-06,-0.120
-2.570E-06,-0.160
-2.560E-06,-0.080
-2.550E-06,-0.080
-2.540E-06,-0.100
-2.530E-06,-0.440
-2.520E-06,-0.480
-2.510E-06,-0.400
-2.500E-06,-0.160
-2.490E-06,0.560
-2.480E-06,0.520
-2.470E-06,0.660
-2.460E-06,0.260
-2.450E-06,-0.280
-2.440E-06,-0.160
-2.430E-06,-0.140
-2.420E-06,0.300
-2.410E-06,0.540
-2.400E-06,0.380
-2.390E-06,0.180
-2.380E-06,-0.020
-2.370E-06,-0.200
-2.360E-06,-0.100
-2.350E-06,-0.060
-2.340E-06,-0.040
-2.330E-06,0.180
-2.320E-06,-0.020
-2.310E-06,-0.040
-2.300E-06,0.060
-2.290E-06,-0.080
-2.280E-06,-0.020
-2.270E-06,0.060
-2.260E-06,-0.020
-2.250E-06,-0.160
-2.240E-06,-0.180
-2.230E-06,-0.180
-2.220E-06,-0.140
-2.210E-06,-0.020
-2.200E-06,0.000
-2.190E-06,0.000
-2.180E-06,0.020
-2.170E-06,0.040
-2.160E-06,0.100
-2.150E-06,0.200
-2.140E-06,0.240
-2.130E-06,0.180
-2.120E-06,0.140
-2.110E-06,0.120
-2.100E-06,0.120
-2.090E-06,0.200
-2.080E-06,0.180
-2.070E-06,0.160
-2.060E-06,0.120
-2.050E-06,0.000
-2.040E-06,0.000
-2.030E-06,0.080
-2.020E-06,0.120
-2.010E-06,0.140
-2.000E-06,0.080
-1.990E-06,-0.040
-1.980E-06,-0.040
-1.970E-06,-0.040
-1.960E-06,-0.040
-1.950E-06,0.000
-1.940E-06,-0.040
-1.930E-06,-0.080
-1.920E-06,-0.120
-1.910E-06,-0.160
-1.900E-06,-0.140
-1.890E-06,-0.120
-1.880E-06,-0.080
-1.870E-06,-0.080
-1.860E-06,-0.120
-1.850E-06,-0.140
-1.840E-06,-0.140
-1.830E-06,-0.140
-1.820E-06,-0.080
-1.810E-06,-0.060
-1.800E-06,-0.060
-1.790E-06,-0.060
-1.780E-06,-0.060
-1.770E-06,-0.120
-1.760E-06,-0.060
-1.750E-06,-0.040
-1.740E-06,0.020
-1.730E-06,0.060
-1.720E-06,0.060
-1.710E-06,0.080
-1.700E-06,0.080
-1.690E-06,0.060
-1.680E-06,0.160
-1.670E-06,0.100
-1.660E-06,0.140
-1.650E-06,0.140
-1.640E-06,-0.020
-1.630E-06,0.080
-1.620E-06,0.080
-1.610E-06,-0.100
-1.600E-06,0.580
-1.590E-06,-0.540
-1.580E-06,-0.140
-1.570E-06,0.600
-1.560E-06,0.000
-1.550E-06,1.860
-1.540E-06,1.140
-1.530E-06,0.980
-1.520E-06,0.620
-1.510E-06,-0.180
-1.500E-06,0.080
-1.490E-06,0.460
-1.480E-06,0.640
-1.470E-06,0.680
-1.460E-06,0.360
-1.450E-06,-0.320
-1.440E-06,-0.240
-1.430E-06,-0.480
-1.420E-06,-0.340
-1.410E-06,-0.560
-1.400E-06,-0.340
-1.390E-06,-0.760
-1.380E-06,-0.860
-1.370E-06,-0.500
-1.360E-06,-0.340
-1.350E-06,-0.260
-1.340E-06,0.080
-1.330E-06,-0.380
-1.320E-06,-0.420
-1.310E-06,-0.440
-1.300E-06,-0.560
-1.290E-06,-0.220
-1.280E-06,0.080
-1.270E-06,0.060
-1.260E-06,0.260
-1.250E-06,0.300
-1.240E-06,0.240
-1.230E-06,0.360
-1.220E-06,0.360
-1.210E-06,0.460
-1.200E-06,0.540
-1.190E-06,0.520
-1.180E-06,0.440
-1.170E-06,0.400
-1.160E-06,0.340
-1.150E-06,0.220
-1.140E-06,0.240
-1.130E-06,0.140
-1.120E-06,0.040
-1.110E-06,-0.020
-1.100E-06,-0.080
-1.090E-06,-0.100
-1.080E-06,-0.060
-1.070E-06,-0.100
-1.060E-06,-0.120
-1.050E-06,-0.160
-1.040E-06,-0.220
-1.030E-06,-0.240
-1.020E-06,-0.340
-1.010E-06,-0.240
-1.000E-06,-0.220
-9.900E-07,-0.140
-9.800E-07,-0.100
-9.700E-07,-0.120
-9.600E-07,-0.160
-9.500E-07,-0.120
-9.400E-07,-0.180
-9.300E-07,-0.040
-9.200E-07,0.000
-9.100E-07,0.000
-9.000E-07,0.040
-8.900E-07,0.020
-8.800E-07,0.080
-8.700E-07,0.100
-8.600E-07,0.120
-8.500E-07,0.160
-8.400E-07,0.180
-8.300E-07,0.200
-8.200E-07,0.220
-8.100E-07,0.180
-8.000E-07,0.220
-7.900E-07,0.180
-7.800E-07,0.240
-7.700E-07,0.300
-7.600E-07,0.260
-7.500E-07,0.180
-7.400E-07,0.140
-7.300E-07,0.120
-7.200E-07,0.100
-7.100E-07,0.140
-7.000E-07,0.120
-6.900E-07,0.060
-6.800E-07,0.080
-6.700E-07,-0.020
-6.600E-07,0.000
-6.500E-07,-0.040
-6.400E-07,-0.060
-6.300E-07,-0.080
-6.200E-07,-0.120
-6.100E-07,-0.080
-6.000E-07,0.000
-5.900E-07,0.020
-5.800E-07,0.120
-5.700E-07,0.100
-5.600E-07,0.080
-5.500E-07,0.100
-5.400E-07,0.120
-5.300E-07,0.260
-5.200E-07,0.320
-5.100E-07,0.420
-5.000E-07,0.360
-4.900E-07,0.340
-4.800E-07,0.240
-4.700E-07,0.260
-4.600E-07,0.240
-4.500E-07,0.280
-4.400E-07,0.280
-4.300E-07,0.160
-4.200E-07,0.160
-4.100E-07,0.060
-4.000E-07,0.080
-3.900E-07,0.100
-3.800E-07,0.020
-3.700E-07,0.060
-3.600E-07,0.000
-3.500E-07,-0.020
-3.400E-07,-0.060
-3.300E-07,-0.100
-3.200E-07,-0.120
-3.100E-07,-0.160
-3.000E-07,-0.160
-2.900E-07,-0.180
-2.800E-07,-0.180
-2.700E-07,-0.100
-2.600E-07,-0.080
-2.500E-07,-0.120
-2.400E-07,-0.100
-2.300E-07,-0.220
-2.200E-07,-0.160
-2.100E-07,-0.160
-2.000E-07,-0.100
-1.900E-07,-0.020
-1.800E-07,0.020
-1.700E-07,0.060
-1.600E-07,0.060
-1.500E-07,0.060
-1.400E-07,0.060
-1.300E-07,0.080
-1.200E-07,0.100
-1.100E-07,0.160
-1.000E-07,0.200
-9.000E-08,0.280
-8.000E-08,0.280
-7.000E-08,0.240
-6.000E-08,0.360
-5.000E-08,0.300
-4.000E-08,0.900
-3.000E-08,-0.340
-2.000E-08,-1.640
-1.000E-08,0.740
0.000E+00,-0.120
1.000E-08,1.660
2.000E-08,2.560
3.000E-08,1.040
4.000E-08,1.240
5.000E-08,-0.460
6.000E-08,-0.800
7.000E-08,0.120
8.000E-08,0.380
9.000E-08,0.620
1.000E-07,0.500
1.100E-07,-0.860
1.200E-07,-0.860
1.300E-07,-1.320
1.400E-07,-0.500
1.500E-07,-0.380
1.600E-07,-0.400
1.700E-07,-0.020
1.800E-07,-0.900
1.900E-07,0.540
2.000E-07,-1.440
2.100E-07,-1.020
2.200E-07,-0.700
2.300E-07,-1.400
2.400E-07,0.500
2.500E-07,0.540
2.600E-07,1.040
2.700E-07,0.760
2.800E-07,-0.080
2.900E-07,-0.320
3.000E-07,0.160
3.100E-07,0.600
3.200E-07,1.200
3.300E-07,1.340
3.400E-07,0.600
3.500E-07,0.280
3.600E-07,0.100
3.700E-07,0.240
3.800E-07,0.320
3.900E-07,0.340
4.000E-07,0.200
4.100E-07,0.000
4.200E-07,-0.340
4.300E-07,-0.460
4.400E-07,-0.500
4.500E-07,-0.460
4.600E-07,-0.360
4.700E-07,-0.200
4.800E-07,-0.100
4.900E-07,-0.080
5.000E-07,-0.120
5.100E-07,-0.320
5.200E-07,-0.380
5.300E-07,-0.220
5.400E-07,-0.140
5.500E-07,-0.520
5.600E-07,-0.100
5.700E-07,-0.240
5.800E-07,-0.220
5.900E-07,0.700
6.000E-07,0.460
6.100E-07,0.420
6.200E-07,0.320
6.300E-07,-0.100
6.400E-07,-0.140
6.500E-07,0.160
6.600E-07,0.240
6.700E-07,0.460
6.800E-07,0.460
6.900E-07,0.180
7.000E-07,0.260
7.100E-07,0.340
7.200E-07,0.260
7.300E-07,0.480
7.400E-07,0.400
7.500E-07,0.300
7.600E-07,0.340
7.700E-07,0.200
7.800E-07,0.160
7.900E-07,0.280
8.000E-07,0.120
8.100E-07,0.000
8.200E-07,-0.020
8.300E-07,-0.140
8.400E-07,-0.120
8.500E-07,-0.140
8.600E-07,-0.140
8.700E-07,-0.220
8.800E-07,-0.240
8.900E-07,-0.280
9.000E-07,-0.260
9.100E-07,-0.260
9.200E-07,-0.240
9.300E-07,-0.240
9.400E-07,-0.220
9.500E-07,-0.240
9.600E-07,-0.320
9.700E-07,-0.240
9.800E-07,-0.220
9.900E-07,-0.160
1.000E-06,-0.100
1.010E-06,-0.180
1.020E-06,-0.200
1.030E-06,-0.140
1.040E-06,-0.240
1.050E-06,-0.060
1.060E-06,0.020
1.070E-06,0.000
1.080E-06,0.060
1.090E-06,0.020
1.100E-06,-0.020
1.110E-06,0.060
1.120E-06,0.080
1.130E-06,0.060
1.140E-06,0.240
1.150E-06,0.160
1.160E-06,0.160
1.170E-06,0.160
1.180E-06,0.180
1.190E-06,0.340
1.200E-06,0.340
1.210E-06,0.400
1.220E-06,0.340
1.230E-06,0.300
1.240E-06,0.280
1.250E-06,0.360
1.260E-06,0.420
1.270E-06,0.500
1.280E-06,0.620
1.290E-06,0.760
1.300E-06,-0.080
1.310E-06,0.020
1.320E-06,0.160
1.330E-06,0.260
1.340E-06,1.160
1.350E-06,0.900
1.360E-06,0.980
1.370E-06,0.480
1.380E-06,0.020
1.390E-06,-0.080
1.400E-06,0.200
1.410E-06,0.320
1.420E-06,0.560
1.430E-06,0.360
1.440E-06,-0.020
1.450E-06,-0.280
1.460E-06,-0.500
1.470E-06,-0.560
1.480E-06,-0.420
1.490E-06,-0.520
1.500E-06,-0.440
1.510E-06,-0.700
1.520E-06,-0.480
1.530E-06,-0.680
1.540E-06,-0.920
1.550E-06,-0.820
1.560E-06,-1.420
1.570E-06,-0.920
1.580E-06,-0.640
1.590E-06,-0.340
1.600E-06,0.300
1.610E-06,0.180
1.620E-06,0.060
1.630E-06,0.080
1.640E-06,-0.180
1.650E-06,0.220
1.660E-06,0.460
1.670E-06,0.660
1.680E-06,0.920
1.690E-06,0.680
1.700E-06,0.560
1.710E-06,0.500
1.720E-06,0.460
1.730E-06,0.500
1.740E-06,0.500
1.750E-06,0.460
1.760E-06,0.400
1.770E-06,0.300
1.780E-06,0.260
1.790E-06,0.240
1.800E-06,0.260
1.810E-06,0.160
1.820E-06,0.080
1.830E-06,-0.120
1.840E-06,-0.160
1.850E-06,-0.240
1.860E-06,-0.260
1.870E-06,-0.400
1.880E-06,-0.420
1.890E-06,-0.460
1.900E-06,-0.400
1.910E-06,-0.400
1.920E-06,-0.320
1.930E-06,-0.240
1.940E-06,-0.200
1.950E-06,-0.160
1.960E-06,-0.140
1.970E-06,-0.040
1.980E-06,-0.060
1.990E-06,-0.060
2.000E-06,0.080
2.010E-06,0.040
2.020E-06,0.160
2.030E-06,0.260
2.040E-06,0.200
2.050E-06,0.320
2.060E-06,0.220
2.070E-06,0.300
2.080E-06,0.380
2.090E-06,0.420
2.100E-06,0.480
2.110E-06,0.520
2.120E-06,0.440
2.130E-06,0.440
2.140E-06,0.460
2.150E-06,0.420
2.160E-06,0.460
2.170E-06,0.440
2.180E-06,0.380
2.190E-06,0.420
2.200E-06,0.760
2.210E-06,-0.280
2.220E-06,0.220
2.230E-06,0.200
2.240E-06,0.020
2.250E-06,1.060
2.260E-06,0.680
2.270E-06,0.760
2.280E-06,0.460
2.290E-06,-0.020
2.300E-06,0.200
2.310E-06,0.340
2.320E-06,0.320
2.330E-06,0.460
2.340E-06,0.000
2.350E-06,-0.340
2.360E-06,-0.300
2.370E-06,-0.480
2.380E-06,-0.420
2.390E-06,-0.300
2.400E-06,-0.500
2.410E-06,-0.500
2.420E-06,-0.620
2.430E-06,-0.600
2.440E-06,-0.820
2.450E-06,-0.760
2.460E-06,-1.020
2.470E-06,-0.860
2.480E-06,-1.160
2.490E-06,-1.120
2.500E-06,-0.880
2.510E-06,-0.740
2.520E-06,-0.300
2.530E-06,-0.100
2.540E-06,-0.240
2.550E-06,0.180
2.560E-06,-0.300
2.570E-06,-0.100
2.580E-06,0.420
2.590E-06,0.420
2.600E-06,1.400
2.610E-06,1.240
2.620E-06,1.040
2.630E-06,0.900
2.640E-06,0.460
2.650E-06,0.660
2.660E-06,0.740
2.670E-06,0.800
2.680E-06,0.940
2.690E-06,0.820
2.700E-06,0.620
2.710E-06,0.660
2.720E-06,0.560
2.730E-06,0.340
2.740E-06,0.560
2.750E-06,0.080
2.760E-06,0.700
2.770E-06,-0.620
2.780E-06,-0.680
2.790E-06,0.000
2.800E-06,-0.560
2.810E-06,1.120
2.820E-06,0.860
2.830E-06,0.540
2.840E-06,0.200
2.850E-06,-0.660
2.860E-06,-0.700
2.870E-06,-0.020
2.880E-06,0.280
2.890E-06,0.540
2.900E-06,0.420
2.910E-06,-0.340
2.920E-06,-0.600
2.930E-06,-0.580
2.940E-06,-0.500
2.950E-06,-0.140
2.960E-06,-0.080
2.970E-06,-0.280
2.980E-06,-0.340
2.990E-06,-0.420
3.000E-06,-0.480
3.010E-06,-0.300
3.020E-06,-0.340
3.030E-06,-0.560
3.040E-06,-0.580
3.050E-06,-0.680
3.060E-06,-0.660
3.070E-06,-0.720
3.080E-06,-0.760
3.090E-06,-0.820
3.100E-06,-0.840
3.110E-06,-0.860
3.120E-06,-1.160
3.130E-06,-1.300
3.140E-06,-1.420
3.150E-06,-1.240
3.160E-06,-0.840
3.170E-06,-0.160
3.180E-06,0.600
3.190E-06,0.860
3.200E-06,1.140
3.210E-06,1.200
3.220E-06,1.360
3.230E-06,1.440
3.240E-06,1.340
3.250E-06,1.180
3.260E-06,1.040
3.270E-06,0.920
3.280E-06,1.100
3.290E-06,1.140
3.300E-06,1.240
3.310E-06,1.080
3.320E-06,0.760
3.330E-06,0.520
3.340E-06,0.280
3.350E-06,0.320
3.360E-06,0.460
3.370E-06,0.440
3.380E-06,0.220
3.390E-06,0.160
3.400E-06,-0.020
3.410E-06,-0.060
3.420E-06,0.140
3.430E-06,0.000
3.440E-06,0.140
3.450E-06,0.080
3.460E-06,-0.020
3.470E-06,0.140
3.480E-06,0.260
3.490E-06,0.320
3.500E-06,0.220
3.510E-06,0.080
3.520E-06,-0.180
3.530E-06,-0.500
3.540E-06,-0.560
3.550E-06,-0.840
3.560E-06,-0.600
3.570E-06,-0.560
3.580E-06,-0.540
3.590E-06,-0.480
3.600E-06,-0.700
3.610E-06,-0.820
3.620E-06,-0.740
3.630E-06,-0.660
3.640E-06,-0.580
3.650E-06,-0.220
3.660E-06,-0.100
3.670E-06,-0.020
3.680E-06,-1.480
3.690E-06,-1.040
3.700E-06,-1.900
3.710E-06,-0.140
3.720E-06,0.120
3.730E-06,2.240
3.740E-06,2.760
3.750E-06,2.260
3.760E-06,2.760
3.770E-06,-0.140
3.780E-06,0.320
3.790E-06,0.040
3.800E-06,-0.260
3.810E-06,2.480
3.820E-06,2.120
3.830E-06,2.580
3.840E-06,1.960
3.850E-06,0.740
3.860E-06,-0.060
3.870E-06,-0.300
3.880E-06,-0.340
3.890E-06,-0.140
3.900E-06,0.180
3.910E-06,-0.020
3.920E-06,-0.120
3.930E-06,-0.360
3.940E-06,-1.220
3.950E-06,-0.920
3.960E-06,-0.840
3.970E-06,-0.460
3.980E-06,0.320
3.990E-06,0.260
4.000E-06,0.080
4.010E-06,-0.040
4.020E-06,-0.800
4.030E-06,-0.660
4.040E-06,-0.480
4.050E-06,-0.140
4.060E-06,0.280
4.070E-06,0.500
4.080E-06,0.360
4.090E-06,0.160
4.100E-06,-0.040
4.110E-06,-0.360
4.120E-06,-0.460
4.130E-06,-0.560
4.140E-06,-0.680
4.150E-06,-0.520
4.160E-06,-0.360
4.170E-06,-0.480
4.180E-06,0.000
4.190E-06,-0.940
4.200E-06,-1.200
4.210E-06,-0.940
4.220E-06,-0.680
4.230E-06,0.460
4.240E-06,1.280
4.250E-06,0.880
4.260E-06,0.840
4.270E-06,0.460
4.280E-06,0.040
4.290E-06,0.980
4.300E-06,1.360
4.310E-06,1.840
4.320E-06,1.820
4.330E-06,1.360
4.340E-06,0.940
4.350E-06,1.120
4.360E-06,0.780
4.370E-06,0.700
4.380E-06,0.680
4.390E-06,0.180
4.400E-06,0.120
4.410E-06,-0.160
4.420E-06,-0.360
4.430E-06,-0.240
4.440E-06,-0.380
4.450E-06,-1.760
4.460E-06,-1.440
4.470E-06,-1.580
4.480E-06,-1.280
4.490E-06,0.460
4.500E-06,0.020
4.510E-06,0.500
4.520E-06,-0.080
4.530E-06,-1.100
4.540E-06,-0.580
4.550E-06,-0.600
4.560E-06,0.020
4.570E-06,0.520
4.580E-06,0.400
4.590E-06,0.380
4.600E-06,0.120
4.610E-06,-0.080
4.620E-06,-0.140
4.630E-06,0.000
4.640E-06,0.100
4.650E-06,-0.020
4.660E-06,-0.060
4.670E-06,-0.240
4.680E-06,-0.300
4.690E-06,-0.140
4.700E-06,-0.080
4.710E-06,-0.160
4.720E-06,-0.160
4.730E-06,-0.340
4.740E-06,-0.340
4.750E-06,-0.280
4.760E-06,-0.320
4.770E-06,-0.360
4.780E-06,-0.340
4.790E-06,0.020
4.800E-06,0.380
4.810E-06,-0.800
4.820E-06,-0.840
4.830E-06,0.180
4.840E-06,-0.280
4.850E-06,2.120
4.860E-06,1.380
4.870E-06,1.180
4.880E-06,0.860
4.890E-06,-0.740
4.900E-06,0.200
4.910E-06,0.440
4.920E-06,1.040
4.930E-06,1.140
4.940E-06,0.840
4.950E-06,0.360
4.960E-06,0.200
4.970E-06,0.280
4.980E-06,0.260
4.990E-06,0.320
5.000E-06,-0.020
5.010E-06,-0.120
5.020E-06,-0.620
5.030E-06,-0.320
5.040E-06,-0.200
5.050E-06,-0.180
5.060E-06,-0.280
5.070E-06,-0.720
5.080E-06,-0.820
5.090E-06,-0.680
5.100E-06,-0.660
5.110E-06,-0.460
5.120E-06,-0.420
5.130E-06,-0.500
5.140E-06,-0.340
5.150E-06,-0.020
5.160E-06,0.040
5.170E-06,0.060
5.180E-06,-0.100
5.190E-06,-0.220
5.200E-06,-0.140
5.210E-06,0.040
5.220E-06,-0.080
5.230E-06,0.040
5.240E-06,0.120
5.250E-06,-1.020
5.260E-06,-0.520
5.270E-06,-0.200
5.280E-06,-0.460
5.290E-06,1.080
5.300E-06,0.440
5.310E-06,0.680
5.320E-06,0.520
5.330E-06,-0.500
5.340E-06,-0.060
5.350E-06,-0.320
5.360E-06,0.080
5.370E-06,0.380
5.380E-06,0.420
5.390E-06,-0.240
5.400E-06,-0.900
5.410E-06,-0.320
5.420E-06,-0.760
5.430E-06,0.380
5.440E-06,0.460
5.450E-06,1.460
5.460E-06,1.380
5.470E-06,1.180
5.480E-06,1.080
5.490E-06,0.380
5.500E-06,0.740
5.510E-06,0.200
5.520E-06,0.500
5.530E-06,0.540
5.540E-06,0.320
5.550E-06,0.300
5.560E-06,0.260
5.570E-06,-0.280
5.580E-06,-0.140
5.590E-06,-0.820
5.600E-06,-0.760
5.610E-06,-0.920
5.620E-06,-1.080
5.630E-06,-0.680
5.640E-06,-0.900
5.650E-06,-0.520
5.660E-06,-0.300
5.670E-06,-0.220
5.680E-06,-0.040
5.690E-06,0.020
5.700E-06,-0.300
5.710E-06,-0.240
5.720E-06,-0.260
5.730E-06,-0.160
5.740E-06,0.260
5.750E-06,0.360
5.760E-06,0.260
5.770E-06,0.380
5.780E-06,0.140
5.790E-06,-0.020
5.800E-06,0.060
5.810E-06,0.060
5.820E-06,0.080
5.830E-06,-0.080
5.840E-06,-0.140
5.850E-06,-0.520
5.860E-06,-0.400
5.870E-06,-0.400
5.880E-06,-0.240
5.890E-06,0.120
5.900E-06,0.140
5.910E-06,-0.020
5.920E-06,-0.140
5.930E-06,-0.340
5.940E-06,-0.340
5.950E-06,-0.180
5.960E-06,-0.040
5.970E-06,0.160
5.980E-06,0.320
5.990E-06,0.340
6.000E-06,0.320
6.010E-06,0.380
6.020E-06,0.220
6.030E-06,0.220
6.040E-06,0.260
6.050E-06,0.320
6.060E-06,0.240
6.070E-06,0.380
6.080E-06,0.340
6.090E-06,0.020
6.100E-06,0.260
6.110E-06,-0.220
6.120E-06,0.060
6.130E-06,0.120
6.140E-06,-0.040
6.150E-06,0.120
6.160E-06,-0.100
6.170E-06,-0.240
6.180E-06,0.100
6.190E-06,0.260
6.200E-06,0.480
6.210E-06,0.320
6.220E-06,0.860
6.230E-06,0.460
6.240E-06,-2.660
6.250E-06,-0.380
6.260E-06,-1.580
6.270E-06,-0.260
6.280E-06,2.380
6.290E-06,1.580
6.300E-06,2.200
6.310E-06,1.440
6.320E-06,-0.500
6.330E-06,0.160
6.340E-06,0.780
6.350E-06,0.420
6.360E-06,1.760
6.370E-06,0.740
6.380E-06,0.080
6.390E-06,0.260
6.400E-06,-0.320
6.410E-06,-0.120
6.420E-06,0.100
6.430E-06,-0.180
6.440E-06,-1.100
6.450E-06,-1.220
6.460E-06,-1.420
6.470E-06,-1.340
6.480E-06,-0.260
6.490E-06,-0.200
6.500E-06,-0.320
6.510E-06,-0.420
6.520E-06,-1.340
6.530E-06,-1.140
6.540E-06,-1.060
6.550E-06,-0.580
6.560E-06,-0.060
6.570E-06,0.000
6.580E-06,-0.020
6.590E-06,0.020
6.600E-06,0.080
6.610E-06,0.060
6.620E-06,0.420
6.630E-06,0.420
6.640E-06,0.360
6.650E-06,0.260
6.660E-06,-0.060
6.670E-06,-0.060
6.680E-06,0.340
6.690E-06,0.360
6.700E-06,0.520
6.710E-06,0.340
6.720E-06,-0.060
6.730E-06,0.060
6.740E-06,-0.120
6.750E-06,-0.080
6.760E-06,0.140
6.770E-06,0.120
6.780E-06,0.080
6.790E-06,0.180
6.800E-06,0.240
6.810E-06,0.240
6.820E-06,0.580
6.830E-06,0.700
6.840E-06,0.660
6.850E-06,0.860
6.860E-06,0.540
6.870E-06,0.560
6.880E-06,0.640
6.890E-06,0.500
6.900E-06,0.480
6.910E-06,0.340
6.920E-06,0.000
6.930E-06,0.000
6.940E-06,0.000
6.950E-06,-0.120
6.960E-06,0.040
6.970E-06,-0.260
6.980E-06,-0.340
6.990E-06,-0.360
7.000E-06,-0.480
7.010E-06,-0.660
7.020E-06,-0.780
7.030E-06,-1.040
7.040E-06,-1.040
7.050E-06,-1.020
7.060E-06,-0.260
7.070E-06,0.000
7.080E-06,0.480
7.090E-06,0.700
7.100E-06,0.360
7.110E-06,-0.160
7.120E-06,-0.140
7.130E-06,-0.620
7.140E-06,-0.160
7.150E-06,0.440
7.160E-06,0.440
7.170E-06,1.020
7.180E-06,0.660
7.190E-06,0.360
7.200E-06,0.260
7.210E-06,0.020
7.220E-06,0.200
7.230E-06,0.420
7.240E-06,0.360
7.250E-06,0.320
7.260E-06,0.280
7.270E-06,-0.040
7.280E-06,-0.200
7.290E-06,-0.320
7.300E-06,-0.420
7.310E-06,-0.320
7.320E-06,-0.320
7.330E-06,-0.420
7.340E-06,-0.360
7.350E-06,-0.500
7.360E-06,-0.500
7.370E-06,-0.580
7.380E-06,-0.360
7.390E-06,-0.200
7.400E-06,0.000
7.410E-06,0.300
7.420E-06,1.040
7.430E-06,0.180
7.440E-06,-2.560
7.450E-06,0.320
7.460E-06,-2.400
7.470E-06,0.440
7.480E-06,2.760
7.490E-06,0.200
7.500E-06,2.760
7.510E-06,0.660
7.520E-06,-0.660
7.530E-06,1.140
7.540E-06,-0.560
7.550E-06,0.940
7.560E-06,1.720
7.570E-06,0.200
7.580E-06,0.880
