mediciones/5-27/-52.5/WaveData50253.csv

#timebase=2000000(ps)
,#voltbase=1000000(mv/100)
#size=4000
-8.400E-06,0.040
-8.390E-06,0.080
-8.380E-06,0.040
-8.370E-06,0.000
-8.360E-06,0.080
-8.350E-06,0.080
-8.340E-06,0.080
-8.330E-06,0.080
-8.320E-06,0.080
-8.310E-06,0.080
-8.300E-06,0.000
-8.290E-06,0.040
-8.280E-06,0.040
-8.270E-06,0.040
-8.260E-06,0.080
-8.250E-06,0.000
-8.240E-06,0.040
-8.230E-06,0.040
-8.220E-06,0.040
-8.210E-06,0.080
-8.200E-06,0.040
-8.190E-06,0.040
-8.180E-06,0.080
-8.170E-06,0.040
-8.160E-06,0.040
-8.150E-06,0.000
-8.140E-06,0.040
-8.130E-06,0.040
-8.120E-06,0.040
-8.110E-06,0.080
-8.100E-06,0.040
-8.090E-06,0.040
-8.080E-06,0.080
-8.070E-06,0.000
-8.060E-06,0.040
-8.050E-06,0.040
-8.040E-06,0.040
-8.030E-06,0.040
-8.020E-06,0.080
-8.010E-06,0.040
-8.000E-06,0.040
-7.990E-06,0.040
-7.980E-06,0.040
-7.970E-06,0.040
-7.960E-06,0.040
-7.950E-06,0.080
-7.940E-06,0.040
-7.930E-06,0.040
-7.920E-06,0.040
-7.910E-06,0.040
-7.900E-06,0.080
-7.890E-06,0.040
-7.880E-06,0.000
-7.870E-06,0.080
-7.860E-06,0.040
-7.850E-06,0.080
-7.840E-06,0.080
-7.830E-06,0.040
-7.820E-06,0.080
-7.810E-06,0.080
-7.800E-06,0.080
-7.790E-06,0.080
-7.780E-06,0.080
-7.770E-06,0.040
-7.760E-06,0.000
-7.750E-06,0.040
-7.740E-06,0.080
-7.730E-06,0.000
-7.720E-06,0.000
-7.710E-06,0.080
-7.700E-06,0.080
-7.690E-06,0.040
-7.680E-06,0.040
-7.670E-06,0.080
-7.660E-06,0.040
-7.650E-06,0.040
-7.640E-06,0.040
-7.630E-06,0.040
-7.620E-06,0.040
-7.610E-06,0.040
-7.600E-06,0.000
-7.590E-06,0.080
-7.580E-06,0.040
-7.570E-06,0.040
-7.560E-06,0.080
-7.550E-06,0.000
-7.540E-06,0.040
-7.530E-06,0.040
-7.520E-06,0.040
-7.510E-06,0.040
-7.500E-06,0.000
-7.490E-06,0.040
-7.480E-06,0.000
-7.470E-06,0.040
-7.460E-06,0.040
-7.450E-06,0.040
-7.440E-06,0.040
-7.430E-06,0.080
-7.420E-06,0.040
-7.410E-06,0.040
-7.400E-06,0.080
-7.390E-06,0.040
-7.380E-06,0.040
-7.370E-06,0.040
-7.360E-06,0.080
-7.350E-06,0.120
-7.340E-06,0.160
-7.330E-06,0.440
-7.320E-06,1.000
-7.310E-06,1.880
-7.300E-06,2.760
-7.290E-06,3.440
-7.280E-06,3.680
-7.270E-06,3.120
-7.260E-06,1.960
-7.250E-06,0.560
-7.240E-06,-0.600
-7.230E-06,-1.400
-7.220E-06,-2.000
-7.210E-06,-2.480
-7.200E-06,-2.880
-7.190E-06,-3.160
-7.180E-06,-3.280
-7.170E-06,-3.160
-7.160E-06,-2.760
-7.150E-06,-2.360
-7.140E-06,-1.920
-7.130E-06,-1.680
-7.120E-06,-1.640
-7.110E-06,-1.560
-7.100E-06,-1.400
-7.090E-06,-1.240
-7.080E-06,-0.960
-7.070E-06,-0.680
-7.060E-06,-0.360
-7.050E-06,0.120
-7.040E-06,0.520
-7.030E-06,1.040
-7.020E-06,1.400
-7.010E-06,1.560
-7.000E-06,1.720
-6.990E-06,1.640
-6.980E-06,1.480
-6.970E-06,1.400
-6.960E-06,1.240
-6.950E-06,1.040
-6.940E-06,0.800
-6.930E-06,0.520
-6.920E-06,0.240
-6.910E-06,0.080
-6.900E-06,0.000
-6.890E-06,0.000
-6.880E-06,0.000
-6.870E-06,0.120
-6.860E-06,0.200
-6.850E-06,0.120
-6.840E-06,0.120
-6.830E-06,0.080
-6.820E-06,0.000
-6.810E-06,-0.040
-6.800E-06,-0.080
-6.790E-06,-0.120
-6.780E-06,-0.040
-6.770E-06,0.000
-6.760E-06,0.000
-6.750E-06,0.120
-6.740E-06,0.080
-6.730E-06,0.120
-6.720E-06,0.120
-6.710E-06,0.000
-6.700E-06,-0.040
-6.690E-06,-0.200
-6.680E-06,-0.240
-6.670E-06,-0.440
-6.660E-06,-0.600
-6.650E-06,-0.720
-6.640E-06,-0.840
-6.630E-06,-0.880
-6.620E-06,-0.920
-6.610E-06,-0.880
-6.600E-06,-0.800
-6.590E-06,-0.720
-6.580E-06,-0.600
-6.570E-06,-0.520
-6.560E-06,-0.360
-6.550E-06,-0.320
-6.540E-06,-0.120
-6.530E-06,0.040
-6.520E-06,0.080
-6.510E-06,0.200
-6.500E-06,0.240
-6.490E-06,0.240
-6.480E-06,0.360
-6.470E-06,0.360
-6.460E-06,0.320
-6.450E-06,0.280
-6.440E-06,0.240
-6.430E-06,0.240
-6.420E-06,0.120
-6.410E-06,0.160
-6.400E-06,0.160
-6.390E-06,0.120
-6.380E-06,0.080
-6.370E-06,0.080
-6.360E-06,0.000
-6.350E-06,-0.040
-6.340E-06,-0.080
-6.330E-06,-0.080
-6.320E-06,-0.120
-6.310E-06,-0.200
-6.300E-06,-0.280
-6.290E-06,-0.320
-6.280E-06,-0.280
-6.270E-06,-0.280
-6.260E-06,-0.200
-6.250E-06,-0.200
-6.240E-06,-0.080
-6.230E-06,0.000
-6.220E-06,-0.040
-6.210E-06,0.080
-6.200E-06,0.120
-6.190E-06,0.200
-6.180E-06,0.200
-6.170E-06,0.200
-6.160E-06,0.240
-6.150E-06,0.160
-6.140E-06,0.200
-6.130E-06,0.160
-6.120E-06,0.080
-6.110E-06,0.000
-6.100E-06,0.040
-6.090E-06,-0.040
-6.080E-06,0.000
-6.070E-06,0.000
-6.060E-06,0.000
-6.050E-06,0.000
-6.040E-06,-0.040
-6.030E-06,-0.040
-6.020E-06,-0.120
-6.010E-06,0.000
-6.000E-06,-0.080
-5.990E-06,-0.080
-5.980E-06,-0.120
-5.970E-06,-0.120
-5.960E-06,-0.160
-5.950E-06,-0.080
-5.940E-06,-0.040
-5.930E-06,0.080
-5.920E-06,-0.040
-5.910E-06,0.120
-5.900E-06,0.080
-5.890E-06,0.160
-5.880E-06,0.240
-5.870E-06,0.200
-5.860E-06,0.320
-5.850E-06,0.360
-5.840E-06,0.480
-5.830E-06,0.600
-5.820E-06,0.560
-5.810E-06,0.600
-5.800E-06,0.560
-5.790E-06,0.520
-5.780E-06,0.520
-5.770E-06,0.480
-5.760E-06,0.560
-5.750E-06,0.480
-5.740E-06,0.400
-5.730E-06,0.320
-5.720E-06,0.200
-5.710E-06,0.200
-5.700E-06,0.080
-5.690E-06,0.080
-5.680E-06,0.040
-5.670E-06,0.000
-5.660E-06,-0.040
-5.650E-06,0.000
-5.640E-06,-0.040
-5.630E-06,0.000
-5.620E-06,-0.040
-5.610E-06,0.000
-5.600E-06,-0.040
-5.590E-06,0.000
-5.580E-06,0.000
-5.570E-06,0.000
-5.560E-06,0.120
-5.550E-06,0.200
-5.540E-06,0.240
-5.530E-06,0.200
-5.520E-06,0.320
-5.510E-06,0.360
-5.500E-06,0.400
-5.490E-06,0.440
-5.480E-06,0.520
-5.470E-06,0.560
-5.460E-06,0.560
-5.450E-06,0.640
-5.440E-06,0.640
-5.430E-06,0.640
-5.420E-06,0.680
-5.410E-06,0.680
-5.400E-06,0.680
-5.390E-06,0.600
-5.380E-06,0.640
-5.370E-06,0.600
-5.360E-06,0.560
-5.350E-06,0.600
-5.340E-06,0.600
-5.330E-06,0.640
-5.320E-06,0.640
-5.310E-06,0.600
-5.300E-06,0.520
-5.290E-06,0.560
-5.280E-06,0.560
-5.270E-06,0.600
-5.260E-06,0.520
-5.250E-06,0.560
-5.240E-06,0.520
-5.230E-06,0.560
-5.220E-06,0.600
-5.210E-06,0.560
-5.200E-06,0.840
-5.190E-06,0.720
-5.180E-06,0.800
-5.170E-06,0.800
-5.160E-06,0.640
-5.150E-06,0.880
-5.140E-06,0.720
-5.130E-06,0.880
-5.120E-06,0.680
-5.110E-06,0.680
-5.100E-06,0.520
-5.090E-06,0.560
-5.080E-06,0.480
-5.070E-06,0.480
-5.060E-06,0.240
-5.050E-06,-0.280
-5.040E-06,-0.960
-5.030E-06,-1.760
-5.020E-06,-2.360
-5.010E-06,-2.400
-5.000E-06,-2.000
-4.990E-06,-1.040
-4.980E-06,0.000
-4.970E-06,0.960
-4.960E-06,1.720
-4.950E-06,1.880
-4.940E-06,2.080
-4.930E-06,2.160
-4.920E-06,2.520
-4.910E-06,3.280
-4.900E-06,4.040
-4.890E-06,4.640
-4.880E-06,4.720
-4.870E-06,4.440
-4.860E-06,4.080
-4.850E-06,3.520
-4.840E-06,3.240
-4.830E-06,3.080
-4.820E-06,2.880
-4.810E-06,2.480
-4.800E-06,1.920
-4.790E-06,1.280
-4.780E-06,0.600
-4.770E-06,-0.040
-4.760E-06,-0.400
-4.750E-06,-0.640
-4.740E-06,-0.680
-4.730E-06,-0.800
-4.720E-06,-0.920
-4.710E-06,-1.080
-4.700E-06,-1.160
-4.690E-06,-1.080
-4.680E-06,-0.920
-4.670E-06,-0.680
-4.660E-06,-0.280
-4.650E-06,0.120
-4.640E-06,0.400
-4.630E-06,0.600
-4.620E-06,0.760
-4.610E-06,0.880
-4.600E-06,0.880
-4.590E-06,0.880
-4.580E-06,0.920
-4.570E-06,0.920
-4.560E-06,0.880
-4.550E-06,0.840
-4.540E-06,0.560
-4.530E-06,0.320
-4.520E-06,0.000
-4.510E-06,-0.280
-4.500E-06,-0.600
-4.490E-06,-0.680
-4.480E-06,-0.840
-4.470E-06,-0.680
-4.460E-06,-0.480
-4.450E-06,-0.280
-4.440E-06,0.000
-4.430E-06,0.080
-4.420E-06,0.200
-4.410E-06,0.120
-4.400E-06,0.240
-4.390E-06,0.480
-4.380E-06,0.840
-4.370E-06,1.200
-4.360E-06,1.560
-4.350E-06,1.760
-4.340E-06,1.800
-4.330E-06,1.760
-4.320E-06,1.680
-4.310E-06,1.640
-4.300E-06,1.560
-4.290E-06,1.600
-4.280E-06,1.360
-4.270E-06,1.160
-4.260E-06,0.920
-4.250E-06,0.640
-4.240E-06,0.480
-4.230E-06,0.440
-4.220E-06,0.440
-4.210E-06,0.400
-4.200E-06,0.400
-4.190E-06,0.280
-4.180E-06,0.080
-4.170E-06,0.040
-4.160E-06,0.320
-4.150E-06,0.560
-4.140E-06,0.680
-4.130E-06,0.920
-4.120E-06,1.000
-4.110E-06,1.080
-4.100E-06,1.360
-4.090E-06,1.520
-4.080E-06,1.600
-4.070E-06,1.600
-4.060E-06,1.720
-4.050E-06,1.760
-4.040E-06,1.840
-4.030E-06,1.920
-4.020E-06,2.080
-4.010E-06,2.160
-4.000E-06,2.080
-3.990E-06,1.840
-3.980E-06,1.720
-3.970E-06,1.240
-3.960E-06,1.120
-3.950E-06,0.840
-3.940E-06,0.760
-3.930E-06,0.880
-3.920E-06,0.880
-3.910E-06,1.160
-3.900E-06,0.920
-3.890E-06,1.200
-3.880E-06,0.400
-3.870E-06,0.520
-3.860E-06,0.240
-3.850E-06,0.200
-3.840E-06,0.360
-3.830E-06,0.120
-3.820E-06,0.440
-3.810E-06,0.240
-3.800E-06,0.200
-3.790E-06,0.320
-3.780E-06,0.400
-3.770E-06,0.680
-3.760E-06,0.760
-3.750E-06,0.680
-3.740E-06,0.680
-3.730E-06,0.480
-3.720E-06,0.480
-3.710E-06,0.560
-3.700E-06,0.640
-3.690E-06,0.640
-3.680E-06,0.600
-3.670E-06,0.440
-3.660E-06,0.240
-3.650E-06,0.120
-3.640E-06,0.120
-3.630E-06,0.080
-3.620E-06,0.000
-3.610E-06,-0.160
-3.600E-06,-0.240
-3.590E-06,-0.400
-3.580E-06,-0.440
-3.570E-06,-0.560
-3.560E-06,-0.600
-3.550E-06,-0.640
-3.540E-06,-0.640
-3.530E-06,-0.520
-3.520E-06,-0.600
-3.510E-06,-0.480
-3.500E-06,-0.400
-3.490E-06,-0.320
-3.480E-06,-0.320
-3.470E-06,-0.280
-3.460E-06,-0.240
-3.450E-06,-0.160
-3.440E-06,-0.080
-3.430E-06,0.000
-3.420E-06,-0.040
-3.410E-06,0.000
-3.400E-06,-0.040
-3.390E-06,-0.120
-3.380E-06,-0.160
-3.370E-06,-0.160
-3.360E-06,-0.240
-3.350E-06,-0.280
-3.340E-06,-0.360
-3.330E-06,-0.360
-3.320E-06,-0.480
-3.310E-06,-0.520
-3.300E-06,-0.520
-3.290E-06,-0.560
-3.280E-06,-0.680
-3.270E-06,-0.680
-3.260E-06,-0.680
-3.250E-06,-0.760
-3.240E-06,-0.680
-3.230E-06,-0.640
-3.220E-06,-0.560
-3.210E-06,-0.560
-3.200E-06,-0.600
-3.190E-06,-0.520
-3.180E-06,-0.520
-3.170E-06,-0.480
-3.160E-06,-0.400
-3.150E-06,-0.360
-3.140E-06,-0.400
-3.130E-06,-0.440
-3.120E-06,-0.400
-3.110E-06,-0.360
-3.100E-06,-0.320
-3.090E-06,-0.360
-3.080E-06,-0.320
-3.070E-06,-0.280
-3.060E-06,-0.360
-3.050E-06,-0.320
-3.040E-06,-0.320
-3.030E-06,-0.280
-3.020E-06,-0.360
-3.010E-06,-0.320
-3.000E-06,-0.800
-2.990E-06,-0.760
-2.980E-06,-0.960
-2.970E-06,-0.680
-2.960E-06,-0.280
-2.950E-06,-0.280
-2.940E-06,-0.160
-2.930E-06,-0.640
-2.920E-06,-0.960
-2.910E-06,-0.960
-2.900E-06,-0.720
-2.890E-06,-0.400
-2.880E-06,-0.160
-2.870E-06,-0.120
-2.860E-06,-0.160
-2.850E-06,-0.480
-2.840E-06,-0.480
-2.830E-06,-0.480
-2.820E-06,-0.360
-2.810E-06,-0.280
-2.800E-06,-0.320
-2.790E-06,-0.360
-2.780E-06,-0.480
-2.770E-06,-0.640
-2.760E-06,-0.720
-2.750E-06,-0.720
-2.740E-06,-0.720
-2.730E-06,-0.800
-2.720E-06,-0.880
-2.710E-06,-0.960
-2.700E-06,-1.000
-2.690E-06,-1.080
-2.680E-06,-1.120
-2.670E-06,-1.120
-2.660E-06,-1.160
-2.650E-06,-1.160
-2.640E-06,-1.120
-2.630E-06,-1.080
-2.620E-06,-1.120
-2.610E-06,-1.080
-2.600E-06,-1.000
-2.590E-06,-0.960
-2.580E-06,-0.920
-2.570E-06,-0.840
-2.560E-06,-0.800
-2.550E-06,-0.760
-2.540E-06,-0.680
-2.530E-06,-0.680
-2.520E-06,-0.600
-2.510E-06,-0.600
-2.500E-06,-0.560
-2.490E-06,-0.600
-2.480E-06,-0.560
-2.470E-06,-0.560
-2.460E-06,-0.520
-2.450E-06,-0.480
-2.440E-06,-0.520
-2.430E-06,-0.560
-2.420E-06,-0.560
-2.410E-06,-0.600
-2.400E-06,-0.640
-2.390E-06,-0.680
-2.380E-06,-0.640
-2.370E-06,-0.680
-2.360E-06,-0.560
-2.350E-06,-0.600
-2.340E-06,-0.520
-2.330E-06,-0.520
-2.320E-06,-0.600
-2.310E-06,-0.480
-2.300E-06,-0.480
-2.290E-06,-0.440
-2.280E-06,-0.400
-2.270E-06,-0.360
-2.260E-06,-0.360
-2.250E-06,-0.400
-2.240E-06,-0.480
-2.230E-06,-0.400
-2.220E-06,-0.520
-2.210E-06,-0.440
-2.200E-06,-0.600
-2.190E-06,-0.640
-2.180E-06,-0.760
-2.170E-06,-0.840
-2.160E-06,-1.040
-2.150E-06,-1.480
-2.140E-06,-1.840
-2.130E-06,-2.240
-2.120E-06,-2.000
-2.110E-06,-1.600
-2.100E-06,-0.840
-2.090E-06,-0.440
-2.080E-06,-0.520
-2.070E-06,-1.000
-2.060E-06,-1.520
-2.050E-06,-1.680
-2.040E-06,-1.320
-2.030E-06,-0.600
-2.020E-06,-0.120
-2.010E-06,0.080
-2.000E-06,-0.040
-1.990E-06,-0.440
-1.980E-06,-0.520
-1.970E-06,-0.560
-1.960E-06,-0.360
-1.950E-06,-0.240
-1.940E-06,-0.200
-1.930E-06,-0.320
-1.920E-06,-0.520
-1.910E-06,-0.680
-1.900E-06,-0.880
-1.890E-06,-0.920
-1.880E-06,-1.000
-1.870E-06,-0.960
-1.860E-06,-1.000
-1.850E-06,-1.120
-1.840E-06,-1.160
-1.830E-06,-1.320
-1.820E-06,-1.440
-1.810E-06,-1.520
-1.800E-06,-1.520
-1.790E-06,-1.360
-1.780E-06,-1.240
-1.770E-06,-1.080
-1.760E-06,-0.840
-1.750E-06,-0.760
-1.740E-06,-0.640
-1.730E-06,-0.640
-1.720E-06,-0.640
-1.710E-06,-0.720
-1.700E-06,-0.720
-1.690E-06,-0.600
-1.680E-06,-0.440
-1.670E-06,-0.520
-1.660E-06,-0.600
-1.650E-06,-0.920
-1.640E-06,-1.200
-1.630E-06,-1.240
-1.620E-06,-1.320
-1.610E-06,-1.320
-1.600E-06,-1.320
-1.590E-06,-1.400
-1.580E-06,-1.440
-1.570E-06,-1.480
-1.560E-06,-1.360
-1.550E-06,-1.120
-1.540E-06,-0.960
-1.530E-06,-1.000
-1.520E-06,-0.960
-1.510E-06,-0.960
-1.500E-06,-0.880
-1.490E-06,-0.760
-1.480E-06,-0.600
-1.470E-06,-0.520
-1.460E-06,-0.440
-1.450E-06,-0.400
-1.440E-06,-0.440
-1.430E-06,-0.480
-1.420E-06,-0.400
-1.410E-06,-0.360
-1.400E-06,-0.360
-1.390E-06,-0.480
-1.380E-06,-0.520
-1.370E-06,-0.560
-1.360E-06,-0.640
-1.350E-06,-0.680
-1.340E-06,-0.680
-1.330E-06,-0.800
-1.320E-06,-0.840
-1.310E-06,-0.800
-1.300E-06,-0.840
-1.290E-06,-0.840
-1.280E-06,-0.800
-1.270E-06,-0.880
-1.260E-06,-0.800
-1.250E-06,-0.960
-1.240E-06,-1.120
-1.230E-06,-1.200
-1.220E-06,-1.600
-1.210E-06,-1.920
-1.200E-06,-1.920
-1.190E-06,-2.000
-1.180E-06,-1.560
-1.170E-06,-1.160
-1.160E-06,-0.760
-1.150E-06,-0.680
-1.140E-06,-1.000
-1.130E-06,-1.080
-1.120E-06,-1.120
-1.110E-06,-0.800
-1.100E-06,-0.400
-1.090E-06,-0.320
-1.080E-06,-0.320
-1.070E-06,-0.560
-1.060E-06,-0.840
-1.050E-06,-1.080
-1.040E-06,-1.120
-1.030E-06,-1.040
-1.020E-06,-1.120
-1.010E-06,-1.200
-1.000E-06,-1.360
-9.900E-07,-1.560
-9.800E-07,-1.800
-9.700E-07,-2.080
-9.600E-07,-2.240
-9.500E-07,-2.480
-9.400E-07,-2.760
-9.300E-07,-2.880
-9.200E-07,-3.080
-9.100E-07,-3.200
-9.000E-07,-3.280
-8.900E-07,-3.320
-8.800E-07,-3.320
-8.700E-07,-3.360
-8.600E-07,-3.440
-8.500E-07,-3.360
-8.400E-07,-3.360
-8.300E-07,-3.200
-8.200E-07,-3.080
-8.100E-07,-2.880
-8.000E-07,-2.800
-7.900E-07,-2.720
-7.800E-07,-2.640
-7.700E-07,-2.520
-7.600E-07,-2.440
-7.500E-07,-2.400
-7.400E-07,-2.360
-7.300E-07,-2.440
-7.200E-07,-2.480
-7.100E-07,-2.440
-7.000E-07,-2.360
-6.900E-07,-2.360
-6.800E-07,-2.400
-6.700E-07,-2.400
-6.600E-07,-2.400
-6.500E-07,-2.360
-6.400E-07,-2.320
-6.300E-07,-2.240
-6.200E-07,-2.240
-6.100E-07,-2.200
-6.000E-07,-2.000
-5.900E-07,-1.920
-5.800E-07,-1.800
-5.700E-07,-1.680
-5.600E-07,-1.600
-5.500E-07,-1.440
-5.400E-07,-1.400
-5.300E-07,-1.360
-5.200E-07,-1.280
-5.100E-07,-1.240
-5.000E-07,-1.280
-4.900E-07,-1.400
-4.800E-07,-1.720
-4.700E-07,-1.680
-4.600E-07,-1.800
-4.500E-07,-1.520
-4.400E-07,-1.440
-4.300E-07,-1.680
-4.200E-07,-1.840
-4.100E-07,-2.600
-4.000E-07,-2.960
-3.900E-07,-2.840
-3.800E-07,-2.920
-3.700E-07,-2.240
-3.600E-07,-2.000
-3.500E-07,-1.680
-3.400E-07,-1.520
-3.300E-07,-1.720
-3.200E-07,-1.640
-3.100E-07,-1.760
-3.000E-07,-1.640
-2.900E-07,-1.400
-2.800E-07,-1.120
-2.700E-07,-0.960
-2.600E-07,-0.720
-2.500E-07,-0.840
-2.400E-07,-0.960
-2.300E-07,-0.960
-2.200E-07,-1.000
-2.100E-07,-0.880
-2.000E-07,-1.000
-1.900E-07,-1.320
-1.800E-07,-1.520
-1.700E-07,-1.720
-1.600E-07,-1.800
-1.500E-07,-1.720
-1.400E-07,-1.800
-1.300E-07,-1.720
-1.200E-07,-1.720
-1.100E-07,-1.880
-1.000E-07,-1.520
-9.000E-08,-1.840
-8.000E-08,-1.680
-7.000E-08,-1.680
-6.000E-08,-1.680
-5.000E-08,-1.280
-4.000E-08,-1.240
-3.000E-08,-0.680
-2.000E-08,-0.800
-1.000E-08,-0.680
0.000E+00,-0.360
1.000E-08,-0.720
2.000E-08,-0.040
3.000E-08,-0.280
4.000E-08,-0.800
5.000E-08,-0.360
6.000E-08,-2.480
7.000E-08,-2.920
8.000E-08,-2.320
9.000E-08,-1.880
1.000E-07,0.160
1.100E-07,1.360
1.200E-07,1.000
1.300E-07,0.640
1.400E-07,-1.400
1.500E-07,-1.600
1.600E-07,-0.880
1.700E-07,0.000
1.800E-07,1.840
1.900E-07,1.600
2.000E-07,1.200
2.100E-07,0.200
2.200E-07,-0.800
2.300E-07,-0.720
2.400E-07,-0.520
2.500E-07,0.160
2.600E-07,0.560
2.700E-07,0.360
2.800E-07,-0.440
2.900E-07,-1.360
3.000E-07,-2.040
3.100E-07,-2.440
3.200E-07,-2.120
3.300E-07,-1.880
3.400E-07,-1.640
3.500E-07,-1.720
3.600E-07,-2.160
3.700E-07,-2.480
3.800E-07,-2.760
3.900E-07,-2.840
4.000E-07,-2.600
4.100E-07,-2.200
4.200E-07,-1.840
4.300E-07,-1.680
4.400E-07,-1.600
4.500E-07,-1.720
4.600E-07,-1.720
4.700E-07,-1.600
4.800E-07,-1.360
4.900E-07,-1.160
5.000E-07,-0.880
5.100E-07,-0.720
5.200E-07,-0.800
5.300E-07,-0.920
5.400E-07,-1.160
5.500E-07,-1.200
5.600E-07,-1.240
5.700E-07,-1.120
5.800E-07,-1.040
5.900E-07,-1.040
6.000E-07,-1.080
6.100E-07,-1.120
6.200E-07,-1.120
6.300E-07,-1.120
6.400E-07,-0.960
6.500E-07,-0.840
6.600E-07,-0.720
6.700E-07,-0.640
6.800E-07,-0.640
6.900E-07,-0.680
7.000E-07,-0.680
7.100E-07,-0.680
7.200E-07,-0.680
7.300E-07,-0.680
7.400E-07,-0.680
7.500E-07,-0.680
7.600E-07,-0.680
7.700E-07,-0.640
7.800E-07,-0.760
7.900E-07,-0.800
8.000E-07,-0.880
8.100E-07,-0.920
8.200E-07,-0.960
8.300E-07,-0.960
8.400E-07,-0.960
8.500E-07,-0.920
8.600E-07,-1.000
8.700E-07,-1.120
8.800E-07,-1.240
8.900E-07,-1.320
9.000E-07,-1.560
9.100E-07,-1.320
9.200E-07,-2.000
9.300E-07,-2.120
9.400E-07,-2.360
9.500E-07,-2.280
9.600E-07,-1.120
9.700E-07,-0.560
9.800E-07,0.120
9.900E-07,-0.120
1.000E-06,-1.000
1.010E-06,-1.560
1.020E-06,-1.680
1.030E-06,-1.160
1.040E-06,-0.360
1.050E-06,-0.080
1.060E-06,0.000
1.070E-06,-0.480
1.080E-06,-0.840
1.090E-06,-0.840
1.100E-06,-1.000
1.110E-06,-0.880
1.120E-06,-0.480
1.130E-06,-0.680
1.140E-06,-0.840
1.150E-06,-0.960
1.160E-06,-1.360
1.170E-06,-1.320
1.180E-06,-1.280
1.190E-06,-0.840
1.200E-06,-0.360
1.210E-06,-0.320
1.220E-06,-0.520
1.230E-06,-1.000
1.240E-06,-1.320
1.250E-06,-1.200
1.260E-06,-1.080
1.270E-06,-0.800
1.280E-06,-0.720
1.290E-06,-0.680
1.300E-06,-0.840
1.310E-06,-0.840
1.320E-06,-0.840
1.330E-06,-0.800
1.340E-06,-0.640
1.350E-06,-0.720
1.360E-06,-0.680
1.370E-06,-0.720
1.380E-06,-0.720
1.390E-06,-0.680
1.400E-06,-0.840
1.410E-06,-0.880
1.420E-06,-1.000
1.430E-06,-1.120
1.440E-06,-0.880
1.450E-06,-0.960
1.460E-06,-0.640
1.470E-06,-0.640
1.480E-06,-0.800
1.490E-06,-1.080
1.500E-06,-1.240
1.510E-06,-1.120
1.520E-06,-0.720
1.530E-06,-0.240
1.540E-06,0.000
1.550E-06,-0.160
1.560E-06,-0.640
1.570E-06,-1.040
1.580E-06,-0.760
1.590E-06,-0.240
1.600E-06,0.320
1.610E-06,0.520
1.620E-06,0.320
1.630E-06,-0.040
1.640E-06,-0.320
1.650E-06,-0.440
1.660E-06,-0.320
1.670E-06,-0.280
1.680E-06,-0.240
1.690E-06,-0.360
1.700E-06,-0.600
1.710E-06,-1.040
1.720E-06,-1.560
1.730E-06,-1.960
1.740E-06,-1.800
1.750E-06,-1.280
1.760E-06,-0.600
1.770E-06,-0.200
1.780E-06,-0.200
1.790E-06,-0.840
1.800E-06,-1.320
1.810E-06,-1.400
1.820E-06,-1.000
1.830E-06,-0.200
1.840E-06,0.240
1.850E-06,0.520
1.860E-06,0.280
1.870E-06,0.000
1.880E-06,-0.200
1.890E-06,-0.280
1.900E-06,-0.160
1.910E-06,-0.120
1.920E-06,-0.200
1.930E-06,-0.280
1.940E-06,-0.600
1.950E-06,-0.840
1.960E-06,-1.160
1.970E-06,-1.360
1.980E-06,-1.560
1.990E-06,-1.600
2.000E-06,-1.520
2.010E-06,-1.640
2.020E-06,-1.560
2.030E-06,-1.600
2.040E-06,-1.480
2.050E-06,-1.320
2.060E-06,-1.200
2.070E-06,-1.040
2.080E-06,-0.960
2.090E-06,-0.280
2.100E-06,-0.720
2.110E-06,-0.960
2.120E-06,-0.800
2.130E-06,-1.200
2.140E-06,-0.040
2.150E-06,0.960
2.160E-06,2.080
2.170E-06,2.760
2.180E-06,1.880
2.190E-06,0.760
2.200E-06,-0.160
2.210E-06,-0.640
2.220E-06,0.560
2.230E-06,1.000
2.240E-06,1.560
2.250E-06,1.320
2.260E-06,0.440
2.270E-06,-0.080
2.280E-06,-0.320
2.290E-06,-0.320
2.300E-06,-0.080
2.310E-06,-0.080
2.320E-06,-0.240
2.330E-06,-0.400
2.340E-06,-0.760
2.350E-06,-0.920
2.360E-06,-1.120
2.370E-06,-1.240
2.380E-06,-1.240
2.390E-06,-1.160
2.400E-06,-1.120
2.410E-06,-0.920
2.420E-06,-1.000
2.430E-06,-1.040
2.440E-06,-1.120
2.450E-06,-1.080
2.460E-06,-0.880
2.470E-06,-0.600
2.480E-06,-0.400
2.490E-06,-0.160
2.500E-06,-0.040
2.510E-06,-0.080
2.520E-06,0.000
2.530E-06,-0.040
2.540E-06,0.040
2.550E-06,0.120
2.560E-06,0.120
2.570E-06,0.160
2.580E-06,0.040
2.590E-06,-0.200
2.600E-06,-0.360
2.610E-06,-0.440
2.620E-06,-0.520
2.630E-06,-0.600
2.640E-06,-0.600
2.650E-06,-0.600
2.660E-06,-0.560
2.670E-06,-0.600
2.680E-06,-0.600
2.690E-06,-0.600
2.700E-06,-0.520
2.710E-06,-0.400
2.720E-06,-0.360
2.730E-06,-0.240
2.740E-06,-0.240
2.750E-06,-0.120
2.760E-06,0.000
2.770E-06,-0.040
2.780E-06,0.120
2.790E-06,0.160
2.800E-06,0.240
2.810E-06,0.320
2.820E-06,0.360
2.830E-06,0.400
2.840E-06,0.400
2.850E-06,0.360
2.860E-06,0.360
2.870E-06,0.360
2.880E-06,0.320
2.890E-06,0.320
2.900E-06,0.320
2.910E-06,0.160
2.920E-06,0.080
2.930E-06,-0.160
2.940E-06,-0.320
2.950E-06,-0.400
2.960E-06,-0.520
2.970E-06,-0.640
2.980E-06,-0.840
2.990E-06,-0.920
3.000E-06,-0.960
3.010E-06,-1.120
3.020E-06,-1.080
3.030E-06,-0.920
3.040E-06,-0.840
3.050E-06,-0.840
3.060E-06,-0.560
3.070E-06,-0.840
3.080E-06,-0.680
