mediciones/5-27/-52.5/WaveData50231.csv

#timebase=2000000(ps)
,#voltbase=1000000(mv/100)
#size=4000
-8.400E-06,0.000
-8.390E-06,0.080
-8.380E-06,0.000
-8.370E-06,0.000
-8.360E-06,0.040
-8.350E-06,0.080
-8.340E-06,0.080
-8.330E-06,0.080
-8.320E-06,0.120
-8.310E-06,0.000
-8.300E-06,0.080
-8.290E-06,0.040
-8.280E-06,0.080
-8.270E-06,0.080
-8.260E-06,0.080
-8.250E-06,0.080
-8.240E-06,0.040
-8.230E-06,0.040
-8.220E-06,0.000
-8.210E-06,0.080
-8.200E-06,0.040
-8.190E-06,0.080
-8.180E-06,0.120
-8.170E-06,0.080
-8.160E-06,0.000
-8.150E-06,0.000
-8.140E-06,0.080
-8.130E-06,0.040
-8.120E-06,0.040
-8.110E-06,0.080
-8.100E-06,0.040
-8.090E-06,0.040
-8.080E-06,0.000
-8.070E-06,0.080
-8.060E-06,0.080
-8.050E-06,0.040
-8.040E-06,0.040
-8.030E-06,0.040
-8.020E-06,0.040
-8.010E-06,0.080
-8.000E-06,0.040
-7.990E-06,0.040
-7.980E-06,0.040
-7.970E-06,0.040
-7.960E-06,0.040
-7.950E-06,0.040
-7.940E-06,0.000
-7.930E-06,0.040
-7.920E-06,0.080
-7.910E-06,0.040
-7.900E-06,0.040
-7.890E-06,0.040
-7.880E-06,0.040
-7.870E-06,0.040
-7.860E-06,0.040
-7.850E-06,0.080
-7.840E-06,0.040
-7.830E-06,0.080
-7.820E-06,0.000
-7.810E-06,0.080
-7.800E-06,0.080
-7.790E-06,0.040
-7.780E-06,0.040
-7.770E-06,0.040
-7.760E-06,0.000
-7.750E-06,0.040
-7.740E-06,0.000
-7.730E-06,0.040
-7.720E-06,0.000
-7.710E-06,0.040
-7.700E-06,0.040
-7.690E-06,0.040
-7.680E-06,0.040
-7.670E-06,0.080
-7.660E-06,0.120
-7.650E-06,0.040
-7.640E-06,0.080
-7.630E-06,0.080
-7.620E-06,0.040
-7.610E-06,0.040
-7.600E-06,0.080
-7.590E-06,0.080
-7.580E-06,0.000
-7.570E-06,0.040
-7.560E-06,0.040
-7.550E-06,0.040
-7.540E-06,0.080
-7.530E-06,0.000
-7.520E-06,0.080
-7.510E-06,0.040
-7.500E-06,0.080
-7.490E-06,0.040
-7.480E-06,0.040
-7.470E-06,0.040
-7.460E-06,0.000
-7.450E-06,0.080
-7.440E-06,0.080
-7.430E-06,0.040
-7.420E-06,0.040
-7.410E-06,0.000
-7.400E-06,0.040
-7.390E-06,0.000
-7.380E-06,0.080
-7.370E-06,0.040
-7.360E-06,0.040
-7.350E-06,0.040
-7.340E-06,0.040
-7.330E-06,0.040
-7.320E-06,0.080
-7.310E-06,0.040
-7.300E-06,0.000
-7.290E-06,0.080
-7.280E-06,0.040
-7.270E-06,0.040
-7.260E-06,0.080
-7.250E-06,0.080
-7.240E-06,0.080
-7.230E-06,0.080
-7.220E-06,0.080
-7.210E-06,0.040
-7.200E-06,0.040
-7.190E-06,0.040
-7.180E-06,0.040
-7.170E-06,0.000
-7.160E-06,0.080
-7.150E-06,0.000
-7.140E-06,0.040
-7.130E-06,0.040
-7.120E-06,0.040
-7.110E-06,0.040
-7.100E-06,0.040
-7.090E-06,0.040
-7.080E-06,0.080
-7.070E-06,0.120
-7.060E-06,0.080
-7.050E-06,0.040
-7.040E-06,0.000
-7.030E-06,0.040
-7.020E-06,0.000
-7.010E-06,0.040
-7.000E-06,0.080
-6.990E-06,0.080
-6.980E-06,0.040
-6.970E-06,0.080
-6.960E-06,0.080
-6.950E-06,0.080
-6.940E-06,0.120
-6.930E-06,0.000
-6.920E-06,0.000
-6.910E-06,0.040
-6.900E-06,0.080
-6.890E-06,0.040
-6.880E-06,0.040
-6.870E-06,0.000
-6.860E-06,0.040
-6.850E-06,0.080
-6.840E-06,0.080
-6.830E-06,0.120
-6.820E-06,0.120
-6.810E-06,0.000
-6.800E-06,0.040
-6.790E-06,0.080
-6.780E-06,0.040
-6.770E-06,0.040
-6.760E-06,0.040
-6.750E-06,0.080
-6.740E-06,0.080
-6.730E-06,0.040
-6.720E-06,0.080
-6.710E-06,0.080
-6.700E-06,0.040
-6.690E-06,0.080
-6.680E-06,0.000
-6.670E-06,0.080
-6.660E-06,0.080
-6.650E-06,0.080
-6.640E-06,0.040
-6.630E-06,0.080
-6.620E-06,0.040
-6.610E-06,0.040
-6.600E-06,0.080
-6.590E-06,0.040
-6.580E-06,0.080
-6.570E-06,0.080
-6.560E-06,0.080
-6.550E-06,0.040
-6.540E-06,0.040
-6.530E-06,0.040
-6.520E-06,0.040
-6.510E-06,0.040
-6.500E-06,0.080
-6.490E-06,0.040
-6.480E-06,0.080
-6.470E-06,0.080
-6.460E-06,0.040
-6.450E-06,0.080
-6.440E-06,0.040
-6.430E-06,0.080
-6.420E-06,0.040
-6.410E-06,0.040
-6.400E-06,0.080
-6.390E-06,0.040
-6.380E-06,0.040
-6.370E-06,0.040
-6.360E-06,0.040
-6.350E-06,0.080
-6.340E-06,0.080
-6.330E-06,0.080
-6.320E-06,0.080
-6.310E-06,0.120
-6.300E-06,0.080
-6.290E-06,0.120
-6.280E-06,0.120
-6.270E-06,0.080
-6.260E-06,0.080
-6.250E-06,0.000
-6.240E-06,0.000
-6.230E-06,0.080
-6.220E-06,0.120
-6.210E-06,0.080
-6.200E-06,0.040
-6.190E-06,0.040
-6.180E-06,0.040
-6.170E-06,0.040
-6.160E-06,0.040
-6.150E-06,0.040
-6.140E-06,0.080
-6.130E-06,0.080
-6.120E-06,0.000
-6.110E-06,0.080
-6.100E-06,0.000
-6.090E-06,0.080
-6.080E-06,0.080
-6.070E-06,0.080
-6.060E-06,0.000
-6.050E-06,0.040
-6.040E-06,0.040
-6.030E-06,0.000
-6.020E-06,0.080
-6.010E-06,0.040
-6.000E-06,0.040
-5.990E-06,0.040
-5.980E-06,0.040
-5.970E-06,0.040
-5.960E-06,0.000
-5.950E-06,0.040
-5.940E-06,0.000
-5.930E-06,0.000
-5.920E-06,0.040
-5.910E-06,0.040
-5.900E-06,0.120
-5.890E-06,0.240
-5.880E-06,0.600
-5.870E-06,1.200
-5.860E-06,2.040
-5.850E-06,2.920
-5.840E-06,3.280
-5.830E-06,3.040
-5.820E-06,2.120
-5.810E-06,0.840
-5.800E-06,-0.360
-5.790E-06,-1.080
-5.780E-06,-1.400
-5.770E-06,-1.720
-5.760E-06,-2.040
-5.750E-06,-2.600
-5.740E-06,-3.040
-5.730E-06,-3.120
-5.720E-06,-2.800
-5.710E-06,-2.280
-5.700E-06,-1.760
-5.690E-06,-1.480
-5.680E-06,-1.360
-5.670E-06,-1.360
-5.660E-06,-1.240
-5.650E-06,-1.040
-5.640E-06,-0.720
-5.630E-06,-0.480
-5.620E-06,-0.160
-5.610E-06,0.160
-5.600E-06,0.440
-5.590E-06,0.840
-5.580E-06,1.200
-5.570E-06,1.400
-5.560E-06,1.520
-5.550E-06,1.400
-5.540E-06,1.320
-5.530E-06,1.240
-5.520E-06,1.160
-5.510E-06,1.080
-5.500E-06,0.840
-5.490E-06,0.600
-5.480E-06,0.360
-5.470E-06,0.120
-5.460E-06,-0.040
-5.450E-06,0.040
-5.440E-06,0.080
-5.430E-06,0.160
-5.420E-06,0.160
-5.410E-06,0.160
-5.400E-06,0.160
-5.390E-06,0.120
-5.380E-06,0.000
-5.370E-06,0.040
-5.360E-06,0.000
-5.350E-06,-0.040
-5.340E-06,-0.080
-5.330E-06,-0.040
-5.320E-06,0.040
-5.310E-06,0.120
-5.300E-06,0.200
-5.290E-06,0.120
-5.280E-06,0.080
-5.270E-06,0.000
-5.260E-06,-0.040
-5.250E-06,-0.080
-5.240E-06,-0.120
-5.230E-06,-0.320
-5.220E-06,-0.440
-5.210E-06,-0.600
-5.200E-06,-0.720
-5.190E-06,-0.840
-5.180E-06,-0.720
-5.170E-06,-0.680
-5.160E-06,-0.640
-5.150E-06,-0.600
-5.140E-06,-0.560
-5.130E-06,-0.480
-5.120E-06,-0.360
-5.110E-06,-0.200
-5.100E-06,0.040
-5.090E-06,0.200
-5.080E-06,0.240
-5.070E-06,0.240
-5.060E-06,0.240
-5.050E-06,0.320
-5.040E-06,0.360
-5.030E-06,0.400
-5.020E-06,0.440
-5.010E-06,0.400
-5.000E-06,0.320
-4.990E-06,0.240
-4.980E-06,0.120
-4.970E-06,0.080
-4.960E-06,0.080
-4.950E-06,0.080
-4.940E-06,0.000
-4.930E-06,-0.040
-4.920E-06,-0.040
-4.910E-06,-0.120
-4.900E-06,-0.160
-4.890E-06,-0.160
-4.880E-06,-0.160
-4.870E-06,-0.240
-4.860E-06,-0.160
-4.850E-06,-0.160
-4.840E-06,-0.160
-4.830E-06,-0.120
-4.820E-06,-0.080
-4.810E-06,-0.040
-4.800E-06,-0.040
-4.790E-06,0.000
-4.780E-06,0.000
-4.770E-06,0.080
-4.760E-06,0.120
-4.750E-06,0.160
-4.740E-06,0.200
-4.730E-06,0.200
-4.720E-06,0.160
-4.710E-06,0.120
-4.700E-06,0.160
-4.690E-06,0.160
-4.680E-06,0.160
-4.670E-06,0.040
-4.660E-06,0.000
-4.650E-06,0.040
-4.640E-06,0.040
-4.630E-06,-0.080
-4.620E-06,-0.040
-4.610E-06,-0.080
-4.600E-06,-0.120
-4.590E-06,0.000
-4.580E-06,0.000
-4.570E-06,-0.040
-4.560E-06,-0.080
-4.550E-06,-0.080
-4.540E-06,0.000
-4.530E-06,-0.080
-4.520E-06,-0.040
-4.510E-06,0.000
-4.500E-06,0.080
-4.490E-06,0.200
-4.480E-06,0.200
-4.470E-06,0.240
-4.460E-06,0.240
-4.450E-06,0.120
-4.440E-06,0.120
-4.430E-06,0.200
-4.420E-06,0.320
-4.410E-06,0.360
-4.400E-06,0.440
-4.390E-06,0.320
-4.380E-06,0.320
-4.370E-06,0.240
-4.360E-06,0.200
-4.350E-06,0.200
-4.340E-06,0.240
-4.330E-06,0.200
-4.320E-06,0.160
-4.310E-06,0.080
-4.300E-06,0.040
-4.290E-06,0.000
-4.280E-06,0.000
-4.270E-06,-0.040
-4.260E-06,-0.080
-4.250E-06,-0.200
-4.240E-06,-0.160
-4.230E-06,-0.200
-4.220E-06,-0.200
-4.210E-06,-0.200
-4.200E-06,-0.160
-4.190E-06,-0.120
-4.180E-06,-0.120
-4.170E-06,-0.080
-4.160E-06,-0.040
-4.150E-06,-0.040
-4.140E-06,0.040
-4.130E-06,0.080
-4.120E-06,0.120
-4.110E-06,0.200
-4.100E-06,0.200
-4.090E-06,0.160
-4.080E-06,0.200
-4.070E-06,0.240
-4.060E-06,0.240
-4.050E-06,0.320
-4.040E-06,0.360
-4.030E-06,0.320
-4.020E-06,0.320
-4.010E-06,0.320
-4.000E-06,0.400
-3.990E-06,0.400
-3.980E-06,0.400
-3.970E-06,0.440
-3.960E-06,0.360
-3.950E-06,0.400
-3.940E-06,0.320
-3.930E-06,0.320
-3.920E-06,0.360
-3.910E-06,0.360
-3.900E-06,0.240
-3.890E-06,0.240
-3.880E-06,0.200
-3.870E-06,0.160
-3.860E-06,0.160
-3.850E-06,0.120
-3.840E-06,0.040
-3.830E-06,0.120
-3.820E-06,0.160
-3.810E-06,0.080
-3.800E-06,0.080
-3.790E-06,0.040
-3.780E-06,0.040
-3.770E-06,0.040
-3.760E-06,0.040
-3.750E-06,-0.040
-3.740E-06,-0.080
-3.730E-06,-0.280
-3.720E-06,-0.560
-3.710E-06,-0.760
-3.700E-06,-1.040
-3.690E-06,-1.000
-3.680E-06,-0.840
-3.670E-06,-0.560
-3.660E-06,-0.320
-3.650E-06,0.000
-3.640E-06,0.120
-3.630E-06,0.120
-3.620E-06,0.320
-3.610E-06,0.480
-3.600E-06,0.640
-3.590E-06,1.000
-3.580E-06,1.120
-3.570E-06,1.360
-3.560E-06,1.440
-3.550E-06,1.520
-3.540E-06,1.520
-3.530E-06,1.520
-3.520E-06,1.520
-3.510E-06,1.480
-3.500E-06,1.360
-3.490E-06,1.160
-3.480E-06,0.920
-3.470E-06,0.680
-3.460E-06,0.480
-3.450E-06,0.360
-3.440E-06,0.320
-3.430E-06,0.280
-3.420E-06,0.160
-3.410E-06,0.040
-3.400E-06,0.000
-3.390E-06,0.040
-3.380E-06,0.080
-3.370E-06,0.040
-3.360E-06,0.160
-3.350E-06,0.280
-3.340E-06,0.400
-3.330E-06,0.440
-3.320E-06,0.560
-3.310E-06,0.640
-3.300E-06,0.680
-3.290E-06,0.720
-3.280E-06,0.680
-3.270E-06,0.720
-3.260E-06,0.680
-3.250E-06,0.680
-3.240E-06,0.640
-3.230E-06,0.520
-3.220E-06,0.480
-3.210E-06,0.400
-3.200E-06,0.320
-3.190E-06,0.240
-3.180E-06,0.240
-3.170E-06,0.240
-3.160E-06,0.200
-3.150E-06,0.160
-3.140E-06,0.160
-3.130E-06,0.240
-3.120E-06,0.320
-3.110E-06,0.400
-3.100E-06,0.520
-3.090E-06,0.600
-3.080E-06,0.680
-3.070E-06,0.760
-3.060E-06,0.840
-3.050E-06,0.880
-3.040E-06,0.960
-3.030E-06,0.960
-3.020E-06,1.000
-3.010E-06,1.000
-3.000E-06,1.000
-2.990E-06,0.960
-2.980E-06,0.880
-2.970E-06,0.840
-2.960E-06,0.720
-2.950E-06,0.600
-2.940E-06,0.520
-2.930E-06,0.480
-2.920E-06,0.360
-2.910E-06,0.320
-2.900E-06,0.360
-2.890E-06,0.280
-2.880E-06,0.280
-2.870E-06,0.120
-2.860E-06,0.000
-2.850E-06,-0.040
-2.840E-06,-0.040
-2.830E-06,0.160
-2.820E-06,0.400
-2.810E-06,0.680
-2.800E-06,0.800
-2.790E-06,0.760
-2.780E-06,0.600
-2.770E-06,0.440
-2.760E-06,0.480
-2.750E-06,0.680
-2.740E-06,0.840
-2.730E-06,0.920
-2.720E-06,0.840
-2.710E-06,0.720
-2.700E-06,0.520
-2.690E-06,0.520
-2.680E-06,0.560
-2.670E-06,0.640
-2.660E-06,0.720
-2.650E-06,0.720
-2.640E-06,0.600
-2.630E-06,0.360
-2.620E-06,0.320
-2.610E-06,0.280
-2.600E-06,0.360
-2.590E-06,0.400
-2.580E-06,0.400
-2.570E-06,0.480
-2.560E-06,0.440
-2.550E-06,0.400
-2.540E-06,0.440
-2.530E-06,0.360
-2.520E-06,0.320
-2.510E-06,0.360
-2.500E-06,0.440
-2.490E-06,0.480
-2.480E-06,0.520
-2.470E-06,0.560
-2.460E-06,0.520
-2.450E-06,0.520
-2.440E-06,0.440
-2.430E-06,0.520
-2.420E-06,0.480
-2.410E-06,0.600
-2.400E-06,0.680
-2.390E-06,0.720
-2.380E-06,0.800
-2.370E-06,0.720
-2.360E-06,0.840
-2.350E-06,0.840
-2.340E-06,0.760
-2.330E-06,0.840
-2.320E-06,0.840
-2.310E-06,0.840
-2.300E-06,0.960
-2.290E-06,1.000
-2.280E-06,1.040
-2.270E-06,1.120
-2.260E-06,1.120
-2.250E-06,1.160
-2.240E-06,1.120
-2.230E-06,1.080
-2.220E-06,1.120
-2.210E-06,0.600
-2.200E-06,0.560
-2.190E-06,0.440
-2.180E-06,0.480
-2.170E-06,0.960
-2.160E-06,1.040
-2.150E-06,1.040
-2.140E-06,0.720
-2.130E-06,0.360
-2.120E-06,0.280
-2.110E-06,0.480
-2.100E-06,0.920
-2.090E-06,1.120
-2.080E-06,1.120
-2.070E-06,0.920
-2.060E-06,0.720
-2.050E-06,0.520
-2.040E-06,0.520
-2.030E-06,0.640
-2.020E-06,0.640
-2.010E-06,0.640
-2.000E-06,0.480
-1.990E-06,0.320
-1.980E-06,0.200
-1.970E-06,0.120
-1.960E-06,0.160
-1.950E-06,0.160
-1.940E-06,0.120
-1.930E-06,0.120
-1.920E-06,0.200
-1.910E-06,0.160
-1.900E-06,0.160
-1.890E-06,0.240
-1.880E-06,0.160
-1.870E-06,0.080
-1.860E-06,0.080
-1.850E-06,0.080
-1.840E-06,0.160
-1.830E-06,0.280
-1.820E-06,0.360
-1.810E-06,0.360
-1.800E-06,0.240
-1.790E-06,0.200
-1.780E-06,0.200
-1.770E-06,0.320
-1.760E-06,0.480
-1.750E-06,0.640
-1.740E-06,0.640
-1.730E-06,0.560
-1.720E-06,0.440
-1.710E-06,0.440
-1.700E-06,0.400
-1.690E-06,0.480
-1.680E-06,0.640
-1.670E-06,0.680
-1.660E-06,0.640
-1.650E-06,0.600
-1.640E-06,0.640
-1.630E-06,0.600
-1.620E-06,0.600
-1.610E-06,0.680
-1.600E-06,0.640
-1.590E-06,0.480
-1.580E-06,0.400
-1.570E-06,0.360
-1.560E-06,0.200
-1.550E-06,0.240
-1.540E-06,0.320
-1.530E-06,0.320
-1.520E-06,0.280
-1.510E-06,0.200
-1.500E-06,0.200
-1.490E-06,0.160
-1.480E-06,0.360
-1.470E-06,0.480
-1.460E-06,0.560
-1.450E-06,0.480
-1.440E-06,0.480
-1.430E-06,0.360
-1.420E-06,0.280
-1.410E-06,0.280
-1.400E-06,0.280
-1.390E-06,0.360
-1.380E-06,0.480
-1.370E-06,0.440
-1.360E-06,0.400
-1.350E-06,0.160
-1.340E-06,0.040
-1.330E-06,0.160
-1.320E-06,0.240
-1.310E-06,0.680
-1.300E-06,0.920
-1.290E-06,1.040
-1.280E-06,1.080
-1.270E-06,0.800
-1.260E-06,0.680
-1.250E-06,0.560
-1.240E-06,0.680
-1.230E-06,0.800
-1.220E-06,0.920
-1.210E-06,1.000
-1.200E-06,1.000
-1.190E-06,1.120
-1.180E-06,0.840
-1.170E-06,0.800
-1.160E-06,0.680
-1.150E-06,0.520
-1.140E-06,0.760
-1.130E-06,0.800
-1.120E-06,1.040
-1.110E-06,1.040
-1.100E-06,0.800
-1.090E-06,0.760
-1.080E-06,0.640
-1.070E-06,0.800
-1.060E-06,0.960
-1.050E-06,1.080
-1.040E-06,1.000
-1.030E-06,1.040
-1.020E-06,1.040
-1.010E-06,1.040
-1.000E-06,0.920
-9.900E-07,0.840
-9.800E-07,0.360
-9.700E-07,0.200
-9.600E-07,-0.440
-9.500E-07,-0.160
-9.400E-07,-0.120
-9.300E-07,0.040
-9.200E-07,0.320
-9.100E-07,-0.040
-9.000E-07,-0.160
-8.900E-07,-0.360
-8.800E-07,-0.160
-8.700E-07,0.120
-8.600E-07,0.240
-8.500E-07,0.480
-8.400E-07,0.320
-8.300E-07,0.200
-8.200E-07,0.160
-8.100E-07,0.160
-8.000E-07,0.320
-7.900E-07,0.440
-7.800E-07,0.480
-7.700E-07,0.400
-7.600E-07,0.320
-7.500E-07,0.240
-7.400E-07,0.160
-7.300E-07,0.200
-7.200E-07,0.200
-7.100E-07,0.240
-7.000E-07,0.280
-6.900E-07,0.200
-6.800E-07,0.200
-6.700E-07,0.080
-6.600E-07,0.000
-6.500E-07,0.000
-6.400E-07,0.000
-6.300E-07,-0.080
-6.200E-07,0.000
-6.100E-07,-0.240
-6.000E-07,0.000
-5.900E-07,-0.720
-5.800E-07,-1.160
-5.700E-07,-1.160
-5.600E-07,-1.280
-5.500E-07,-0.440
-5.400E-07,0.080
-5.300E-07,0.400
-5.200E-07,0.280
-5.100E-07,-0.320
-5.000E-07,-0.720
-4.900E-07,-0.680
-4.800E-07,-0.360
-4.700E-07,0.320
-4.600E-07,0.400
-4.500E-07,0.480
-4.400E-07,0.120
-4.300E-07,-0.240
-4.200E-07,-0.360
-4.100E-07,-0.240
-4.000E-07,-0.120
-3.900E-07,0.000
-3.800E-07,-0.080
-3.700E-07,-0.280
-3.600E-07,-0.360
-3.500E-07,-0.520
-3.400E-07,-0.480
-3.300E-07,-0.440
-3.200E-07,-0.480
-3.100E-07,-0.520
-3.000E-07,-0.560
-2.900E-07,-0.680
-2.800E-07,-0.680
-2.700E-07,-0.680
-2.600E-07,-0.720
-2.500E-07,-0.720
-2.400E-07,-0.680
-2.300E-07,-0.640
-2.200E-07,-0.640
-2.100E-07,-0.560
-2.000E-07,-0.520
-1.900E-07,-0.520
-1.800E-07,-0.520
-1.700E-07,-0.520
-1.600E-07,-0.400
-1.500E-07,-0.320
-1.400E-07,-0.320
-1.300E-07,-0.280
-1.200E-07,-0.240
-1.100E-07,-0.200
-1.000E-07,-0.280
-9.000E-08,-0.280
-8.000E-08,-0.280
-7.000E-08,-0.360
-6.000E-08,-0.440
-5.000E-08,-0.640
-4.000E-08,-0.600
-3.000E-08,-0.640
-2.000E-08,-1.040
-1.000E-08,-1.160
0.000E+00,-1.360
1.000E-08,-0.960
2.000E-08,-0.320
3.000E-08,0.480
4.000E-08,0.760
5.000E-08,0.240
6.000E-08,-0.720
7.000E-08,-1.480
8.000E-08,-1.360
9.000E-08,-0.480
1.000E-07,0.640
1.100E-07,0.920
1.200E-07,0.680
1.300E-07,0.080
1.400E-07,-0.520
1.500E-07,-0.480
1.600E-07,-0.200
1.700E-07,0.240
1.800E-07,0.680
1.900E-07,0.040
2.000E-07,-0.520
2.100E-07,-1.400
2.200E-07,-1.520
2.300E-07,-1.480
2.400E-07,-0.680
2.500E-07,-0.160
2.600E-07,-0.080
2.700E-07,-0.480
2.800E-07,-1.160
2.900E-07,-1.360
3.000E-07,-1.200
3.100E-07,-0.520
3.200E-07,0.040
3.300E-07,0.080
3.400E-07,0.120
3.500E-07,-0.200
3.600E-07,-0.400
3.700E-07,-0.280
3.800E-07,-0.200
3.900E-07,0.120
4.000E-07,0.240
4.100E-07,0.080
4.200E-07,-0.040
4.300E-07,-0.280
4.400E-07,-0.440
4.500E-07,-0.560
4.600E-07,-0.680
4.700E-07,-0.800
4.800E-07,-0.920
4.900E-07,-1.040
5.000E-07,-1.080
5.100E-07,-1.080
5.200E-07,-0.960
5.300E-07,-0.840
5.400E-07,-0.680
5.500E-07,-0.640
5.600E-07,-0.560
5.700E-07,-0.440
5.800E-07,-0.520
5.900E-07,-0.560
6.000E-07,-0.680
6.100E-07,-0.640
6.200E-07,-0.520
6.300E-07,-0.080
6.400E-07,0.320
6.500E-07,0.480
6.600E-07,0.320
6.700E-07,0.120
6.800E-07,-0.160
6.900E-07,-0.240
7.000E-07,0.040
7.100E-07,0.080
7.200E-07,0.320
7.300E-07,0.440
7.400E-07,0.440
7.500E-07,0.440
7.600E-07,0.320
7.700E-07,0.280
7.800E-07,0.160
7.900E-07,0.160
8.000E-07,0.240
8.100E-07,0.440
8.200E-07,0.440
8.300E-07,0.480
8.400E-07,0.320
8.500E-07,0.360
8.600E-07,0.400
8.700E-07,0.520
8.800E-07,0.840
8.900E-07,0.840
9.000E-07,0.840
9.100E-07,0.360
9.200E-07,-0.080
9.300E-07,-0.360
9.400E-07,-0.320
9.500E-07,-0.080
9.600E-07,0.000
9.700E-07,0.120
9.800E-07,-0.160
9.900E-07,-0.360
1.000E-06,-0.440
1.010E-06,-0.320
1.020E-06,-0.040
1.030E-06,0.080
1.040E-06,0.040
1.050E-06,-0.040
1.060E-06,-0.280
1.070E-06,-0.440
1.080E-06,-0.520
1.090E-06,-0.440
1.100E-06,-0.440
1.110E-06,-0.520
1.120E-06,-0.480
1.130E-06,-0.520
1.140E-06,-0.400
1.150E-06,-0.360
1.160E-06,-0.360
1.170E-06,-0.360
1.180E-06,-0.560
1.190E-06,-0.800
1.200E-06,-0.760
1.210E-06,-0.760
1.220E-06,-0.640
1.230E-06,-0.680
1.240E-06,-0.520
1.250E-06,-0.600
1.260E-06,-1.480
1.270E-06,-1.360
1.280E-06,-1.880
1.290E-06,-1.520
1.300E-06,-0.480
1.310E-06,0.440
1.320E-06,1.240
1.330E-06,1.240
1.340E-06,0.600
1.350E-06,0.360
1.360E-06,-0.120
1.370E-06,0.480
1.380E-06,0.800
1.390E-06,1.000
1.400E-06,1.080
1.410E-06,0.600
1.420E-06,0.240
1.430E-06,-0.080
1.440E-06,-0.280
1.450E-06,-0.400
1.460E-06,-0.720
1.470E-06,-1.040
1.480E-06,-1.400
1.490E-06,-1.760
1.500E-06,-2.080
1.510E-06,-2.320
1.520E-06,-2.680
1.530E-06,-2.800
1.540E-06,-3.000
1.550E-06,-3.200
1.560E-06,-3.360
1.570E-06,-3.480
1.580E-06,-3.560
1.590E-06,-3.640
1.600E-06,-3.640
1.610E-06,-3.560
1.620E-06,-3.480
1.630E-06,-3.360
1.640E-06,-3.280
1.650E-06,-3.160
1.660E-06,-3.080
1.670E-06,-3.000
1.680E-06,-2.920
1.690E-06,-2.800
1.700E-06,-2.760
1.710E-06,-2.720
1.720E-06,-2.640
1.730E-06,-2.640
1.740E-06,-2.800
1.750E-06,-2.760
1.760E-06,-2.880
1.770E-06,-2.920
1.780E-06,-3.040
1.790E-06,-3.120
1.800E-06,-3.160
1.810E-06,-3.240
1.820E-06,-3.360
1.830E-06,-3.520
1.840E-06,-3.800
1.850E-06,-4.000
1.860E-06,-3.120
1.870E-06,-5.000
1.880E-06,-4.880
1.890E-06,-5.080
1.900E-06,-5.200
1.910E-06,-2.880
1.920E-06,-2.160
1.930E-06,-1.440
1.940E-06,-1.920
1.950E-06,-4.440
1.960E-06,-4.920
1.970E-06,-5.240
1.980E-06,-3.720
1.990E-06,-1.920
2.000E-06,-1.520
2.010E-06,-1.440
2.020E-06,-2.480
2.030E-06,-3.440
2.040E-06,-3.600
2.050E-06,-3.520
2.060E-06,-3.760
2.070E-06,-3.440
2.080E-06,-3.600
2.090E-06,-3.680
2.100E-06,-2.920
2.110E-06,-2.840
2.120E-06,-2.680
2.130E-06,-3.000
2.140E-06,-3.880
2.150E-06,-4.000
2.160E-06,-3.960
2.170E-06,-3.440
2.180E-06,-2.640
2.190E-06,-2.640
2.200E-06,-2.440
2.210E-06,-2.640
2.220E-06,-2.760
2.230E-06,-2.600
2.240E-06,-2.360
2.250E-06,-2.040
2.260E-06,-1.840
2.270E-06,-1.680
2.280E-06,-1.640
2.290E-06,-1.560
2.300E-06,-1.600
2.310E-06,-1.560
2.320E-06,-1.520
2.330E-06,-1.520
2.340E-06,-1.600
2.350E-06,-1.720
2.360E-06,-1.840
2.370E-06,-1.920
2.380E-06,-2.040
2.390E-06,-2.160
2.400E-06,-2.160
2.410E-06,-2.320
2.420E-06,-2.240
2.430E-06,-2.240
2.440E-06,-2.080
2.450E-06,-2.080
2.460E-06,-1.880
2.470E-06,-1.800
2.480E-06,-1.600
2.490E-06,-1.400
2.500E-06,-1.760
2.510E-06,-1.760
2.520E-06,-2.040
2.530E-06,-1.960
2.540E-06,-1.800
2.550E-06,-1.120
2.560E-06,-0.960
2.570E-06,-0.920
2.580E-06,-1.080
2.590E-06,-1.520
2.600E-06,-1.440
2.610E-06,-1.240
2.620E-06,-0.720
2.630E-06,-0.360
2.640E-06,-0.520
2.650E-06,0.320
2.660E-06,-0.320
2.670E-06,-1.000
2.680E-06,-1.400
2.690E-06,-2.240
2.700E-06,-1.200
2.710E-06,-0.240
2.720E-06,0.560
2.730E-06,1.240
2.740E-06,0.040
2.750E-06,-1.160
2.760E-06,-1.720
2.770E-06,-1.720
2.780E-06,0.000
2.790E-06,0.680
2.800E-06,1.120
2.810E-06,0.720
2.820E-06,-0.200
2.830E-06,-0.800
2.840E-06,-0.800
2.850E-06,-0.920
2.860E-06,-0.480
2.870E-06,-0.440
2.880E-06,-0.480
2.890E-06,-0.680
2.900E-06,-1.120
2.910E-06,-1.720
2.920E-06,-2.000
2.930E-06,-2.320
2.940E-06,-2.160
2.950E-06,-1.840
2.960E-06,-1.760
2.970E-06,-1.720
2.980E-06,-2.080
2.990E-06,-2.400
3.000E-06,-2.520
3.010E-06,-2.360
3.020E-06,-2.040
3.030E-06,-1.680
3.040E-06,-1.480
3.050E-06,-1.320
3.060E-06,-1.320
3.070E-06,-1.360
3.080E-06,-1.240
3.090E-06,-1.000
3.100E-06,-0.840
3.110E-06,-0.640
3.120E-06,-0.520
3.130E-06,-0.600
3.140E-06,-0.640
3.150E-06,-0.840
3.160E-06,-1.040
3.170E-06,-1.040
3.180E-06,-1.080
3.190E-06,-1.040
3.200E-06,-0.960
3.210E-06,-0.880
3.220E-06,-0.920
3.230E-06,-0.880
3.240E-06,-0.840
3.250E-06,-0.800
3.260E-06,-0.640
3.270E-06,-0.480
