mediciones/5-27/-52.5/WaveData50235.csv

#timebase=2000000(ps)
,#voltbase=1000000(mv/100)
#size=4000
-8.400E-06,0.040
-8.390E-06,0.080
-8.380E-06,0.080
-8.370E-06,0.040
-8.360E-06,0.040
-8.350E-06,0.080
-8.340E-06,0.160
-8.330E-06,0.160
-8.320E-06,0.120
-8.310E-06,0.040
-8.300E-06,0.080
-8.290E-06,0.080
-8.280E-06,0.080
-8.270E-06,0.120
-8.260E-06,0.120
-8.250E-06,0.120
-8.240E-06,0.000
-8.230E-06,0.080
-8.220E-06,0.080
-8.210E-06,0.080
-8.200E-06,0.040
-8.190E-06,0.120
-8.180E-06,0.000
-8.170E-06,0.040
-8.160E-06,0.040
-8.150E-06,0.000
-8.140E-06,0.040
-8.130E-06,0.040
-8.120E-06,-0.040
-8.110E-06,0.040
-8.100E-06,0.040
-8.090E-06,0.040
-8.080E-06,0.040
-8.070E-06,0.040
-8.060E-06,0.080
-8.050E-06,0.040
-8.040E-06,0.040
-8.030E-06,0.080
-8.020E-06,0.080
-8.010E-06,0.080
-8.000E-06,0.080
-7.990E-06,0.080
-7.980E-06,0.040
-7.970E-06,0.080
-7.960E-06,0.080
-7.950E-06,0.080
-7.940E-06,0.080
-7.930E-06,0.080
-7.920E-06,0.080
-7.910E-06,0.040
-7.900E-06,0.080
-7.890E-06,0.120
-7.880E-06,0.040
-7.870E-06,0.040
-7.860E-06,0.080
-7.850E-06,0.080
-7.840E-06,0.080
-7.830E-06,0.040
-7.820E-06,0.080
-7.810E-06,0.080
-7.800E-06,0.080
-7.790E-06,0.080
-7.780E-06,0.080
-7.770E-06,0.040
-7.760E-06,0.000
-7.750E-06,0.000
-7.740E-06,0.040
-7.730E-06,0.040
-7.720E-06,0.040
-7.710E-06,0.040
-7.700E-06,0.040
-7.690E-06,0.040
-7.680E-06,0.080
-7.670E-06,0.080
-7.660E-06,0.000
-7.650E-06,0.000
-7.640E-06,0.080
-7.630E-06,0.040
-7.620E-06,0.080
-7.610E-06,0.080
-7.600E-06,0.080
-7.590E-06,0.080
-7.580E-06,0.080
-7.570E-06,0.080
-7.560E-06,0.120
-7.550E-06,0.040
-7.540E-06,0.080
-7.530E-06,0.080
-7.520E-06,0.080
-7.510E-06,0.080
-7.500E-06,0.080
-7.490E-06,0.080
-7.480E-06,0.120
-7.470E-06,0.040
-7.460E-06,0.040
-7.450E-06,0.040
-7.440E-06,0.040
-7.430E-06,0.080
-7.420E-06,0.080
-7.410E-06,0.080
-7.400E-06,0.080
-7.390E-06,0.080
-7.380E-06,0.080
-7.370E-06,0.000
-7.360E-06,0.040
-7.350E-06,0.080
-7.340E-06,0.080
-7.330E-06,0.040
-7.320E-06,0.040
-7.310E-06,0.040
-7.300E-06,0.000
-7.290E-06,0.040
-7.280E-06,0.040
-7.270E-06,0.040
-7.260E-06,0.040
-7.250E-06,0.040
-7.240E-06,0.040
-7.230E-06,0.000
-7.220E-06,0.040
-7.210E-06,0.080
-7.200E-06,0.080
-7.190E-06,0.080
-7.180E-06,0.040
-7.170E-06,0.040
-7.160E-06,0.000
-7.150E-06,0.040
-7.140E-06,0.080
-7.130E-06,0.080
-7.120E-06,0.080
-7.110E-06,0.080
-7.100E-06,0.040
-7.090E-06,0.000
-7.080E-06,0.040
-7.070E-06,0.080
-7.060E-06,0.080
-7.050E-06,0.080
-7.040E-06,0.040
-7.030E-06,0.080
-7.020E-06,0.000
-7.010E-06,0.000
-7.000E-06,0.080
-6.990E-06,0.040
-6.980E-06,0.040
-6.970E-06,0.040
-6.960E-06,0.000
-6.950E-06,0.000
-6.940E-06,0.040
-6.930E-06,0.000
-6.920E-06,0.080
-6.910E-06,0.040
-6.900E-06,0.080
-6.890E-06,0.040
-6.880E-06,0.040
-6.870E-06,0.040
-6.860E-06,0.040
-6.850E-06,0.080
-6.840E-06,0.040
-6.830E-06,0.080
-6.820E-06,0.080
-6.810E-06,0.000
-6.800E-06,0.040
-6.790E-06,0.040
-6.780E-06,0.040
-6.770E-06,0.080
-6.760E-06,0.040
-6.750E-06,0.040
-6.740E-06,0.080
-6.730E-06,0.080
-6.720E-06,0.080
-6.710E-06,0.080
-6.700E-06,0.120
-6.690E-06,0.000
-6.680E-06,0.040
-6.670E-06,0.080
-6.660E-06,0.040
-6.650E-06,0.080
-6.640E-06,0.000
-6.630E-06,0.080
-6.620E-06,0.040
-6.610E-06,0.040
-6.600E-06,0.040
-6.590E-06,0.040
-6.580E-06,0.000
-6.570E-06,0.000
-6.560E-06,0.040
-6.550E-06,0.000
-6.540E-06,0.040
-6.530E-06,0.120
-6.520E-06,0.120
-6.510E-06,0.160
-6.500E-06,0.120
-6.490E-06,0.040
-6.480E-06,0.000
-6.470E-06,0.040
-6.460E-06,0.080
-6.450E-06,0.120
-6.440E-06,0.120
-6.430E-06,0.120
-6.420E-06,0.040
-6.410E-06,0.080
-6.400E-06,0.040
-6.390E-06,0.080
-6.380E-06,0.040
-6.370E-06,0.080
-6.360E-06,0.000
-6.350E-06,0.040
-6.340E-06,0.000
-6.330E-06,0.000
-6.320E-06,0.040
-6.310E-06,0.040
-6.300E-06,0.040
-6.290E-06,0.080
-6.280E-06,0.080
-6.270E-06,0.080
-6.260E-06,0.120
-6.250E-06,0.000
-6.240E-06,0.040
-6.230E-06,0.040
-6.220E-06,0.000
-6.210E-06,0.000
-6.200E-06,0.080
-6.190E-06,0.120
-6.180E-06,0.040
-6.170E-06,0.080
-6.160E-06,0.040
-6.150E-06,0.040
-6.140E-06,0.040
-6.130E-06,0.040
-6.120E-06,0.040
-6.110E-06,0.080
-6.100E-06,0.080
-6.090E-06,0.040
-6.080E-06,0.040
-6.070E-06,0.040
-6.060E-06,0.000
-6.050E-06,0.040
-6.040E-06,0.080
-6.030E-06,0.120
-6.020E-06,0.080
-6.010E-06,0.000
-6.000E-06,0.000
-5.990E-06,0.040
-5.980E-06,0.040
-5.970E-06,0.000
-5.960E-06,0.040
-5.950E-06,0.000
-5.940E-06,0.040
-5.930E-06,0.040
-5.920E-06,0.000
-5.910E-06,0.040
-5.900E-06,0.040
-5.890E-06,0.040
-5.880E-06,0.080
-5.870E-06,0.120
-5.860E-06,0.120
-5.850E-06,0.080
-5.840E-06,0.000
-5.830E-06,0.040
-5.820E-06,0.080
-5.810E-06,0.040
-5.800E-06,0.040
-5.790E-06,0.080
-5.780E-06,0.000
-5.770E-06,0.080
-5.760E-06,0.120
-5.750E-06,0.120
-5.740E-06,0.120
-5.730E-06,0.120
-5.720E-06,0.040
-5.710E-06,0.000
-5.700E-06,0.040
-5.690E-06,0.080
-5.680E-06,0.080
-5.670E-06,0.080
-5.660E-06,0.120
-5.650E-06,0.000
-5.640E-06,0.040
-5.630E-06,0.040
-5.620E-06,0.080
-5.610E-06,0.040
-5.600E-06,0.080
-5.590E-06,0.080
-5.580E-06,0.040
-5.570E-06,0.040
-5.560E-06,0.040
-5.550E-06,0.080
-5.540E-06,-0.040
-5.530E-06,0.080
-5.520E-06,0.040
-5.510E-06,0.040
-5.500E-06,0.080
-5.490E-06,0.120
-5.480E-06,0.120
-5.470E-06,0.080
-5.460E-06,0.080
-5.450E-06,0.120
-5.440E-06,0.080
-5.430E-06,0.080
-5.420E-06,0.080
-5.410E-06,0.160
-5.400E-06,0.120
-5.390E-06,0.080
-5.380E-06,0.120
-5.370E-06,0.120
-5.360E-06,0.120
-5.350E-06,0.040
-5.340E-06,0.080
-5.330E-06,0.080
-5.320E-06,0.120
-5.310E-06,0.080
-5.300E-06,0.040
-5.290E-06,0.040
-5.280E-06,0.040
-5.270E-06,0.080
-5.260E-06,0.040
-5.250E-06,0.080
-5.240E-06,0.040
-5.230E-06,0.040
-5.220E-06,0.000
-5.210E-06,0.000
-5.200E-06,0.080
-5.190E-06,0.000
-5.180E-06,0.040
-5.170E-06,0.000
-5.160E-06,0.000
-5.150E-06,0.040
-5.140E-06,0.000
-5.130E-06,0.040
-5.120E-06,0.040
-5.110E-06,0.000
-5.100E-06,0.000
-5.090E-06,0.000
-5.080E-06,0.000
-5.070E-06,0.040
-5.060E-06,0.120
-5.050E-06,0.120
-5.040E-06,0.160
-5.030E-06,0.000
-5.020E-06,0.120
-5.010E-06,0.040
-5.000E-06,0.080
-4.990E-06,0.080
-4.980E-06,0.120
-4.970E-06,0.200
-4.960E-06,0.160
-4.950E-06,0.200
-4.940E-06,0.240
-4.930E-06,0.120
-4.920E-06,0.160
-4.910E-06,0.120
-4.900E-06,0.160
-4.890E-06,0.200
-4.880E-06,0.200
-4.870E-06,0.080
-4.860E-06,0.080
-4.850E-06,0.000
-4.840E-06,0.000
-4.830E-06,-0.040
-4.820E-06,0.040
-4.810E-06,0.040
-4.800E-06,0.040
-4.790E-06,0.040
-4.780E-06,-0.040
-4.770E-06,0.000
-4.760E-06,0.000
-4.750E-06,0.000
-4.740E-06,0.040
-4.730E-06,0.040
-4.720E-06,0.040
-4.710E-06,0.040
-4.700E-06,-0.040
-4.690E-06,-0.040
-4.680E-06,0.000
-4.670E-06,0.000
-4.660E-06,0.120
-4.650E-06,0.080
-4.640E-06,0.120
-4.630E-06,0.080
-4.620E-06,0.040
-4.610E-06,0.120
-4.600E-06,0.000
-4.590E-06,0.000
-4.580E-06,0.120
-4.570E-06,0.120
-4.560E-06,0.160
-4.550E-06,0.160
-4.540E-06,0.120
-4.530E-06,0.120
-4.520E-06,0.160
-4.510E-06,0.160
-4.500E-06,0.120
-4.490E-06,0.080
-4.480E-06,0.120
-4.470E-06,0.080
-4.460E-06,0.120
-4.450E-06,0.080
-4.440E-06,0.080
-4.430E-06,0.040
-4.420E-06,0.040
-4.410E-06,0.040
-4.400E-06,0.040
-4.390E-06,0.000
-4.380E-06,0.040
-4.370E-06,0.000
-4.360E-06,0.000
-4.350E-06,0.000
-4.340E-06,-0.040
-4.330E-06,-0.040
-4.320E-06,-0.040
-4.310E-06,0.000
-4.300E-06,0.000
-4.290E-06,0.000
-4.280E-06,0.040
-4.270E-06,0.080
-4.260E-06,0.040
-4.250E-06,0.080
-4.240E-06,0.080
-4.230E-06,0.040
-4.220E-06,0.080
-4.210E-06,0.120
-4.200E-06,0.120
-4.190E-06,0.200
-4.180E-06,0.200
-4.170E-06,0.160
-4.160E-06,0.160
-4.150E-06,0.120
-4.140E-06,0.160
-4.130E-06,0.160
-4.120E-06,0.200
-4.110E-06,0.240
-4.100E-06,0.160
-4.090E-06,0.080
-4.080E-06,0.080
-4.070E-06,0.040
-4.060E-06,0.080
-4.050E-06,0.120
-4.040E-06,0.040
-4.030E-06,0.080
-4.020E-06,0.000
-4.010E-06,0.000
-4.000E-06,0.000
-3.990E-06,0.000
-3.980E-06,0.000
-3.970E-06,0.000
-3.960E-06,0.000
-3.950E-06,0.000
-3.940E-06,0.000
-3.930E-06,0.000
-3.920E-06,0.000
-3.910E-06,0.000
-3.900E-06,0.040
-3.890E-06,0.000
-3.880E-06,0.000
-3.870E-06,0.000
-3.860E-06,0.000
-3.850E-06,0.040
-3.840E-06,0.080
-3.830E-06,0.080
-3.820E-06,0.160
-3.810E-06,0.200
-3.800E-06,0.160
-3.790E-06,0.280
-3.780E-06,0.200
-3.770E-06,0.240
-3.760E-06,0.200
-3.750E-06,0.160
-3.740E-06,0.120
-3.730E-06,0.200
-3.720E-06,0.240
-3.710E-06,0.160
-3.700E-06,0.160
-3.690E-06,0.160
-3.680E-06,0.120
-3.670E-06,0.040
-3.660E-06,0.080
-3.650E-06,0.120
-3.640E-06,0.080
-3.630E-06,0.040
-3.620E-06,0.000
-3.610E-06,0.000
-3.600E-06,-0.040
-3.590E-06,-0.040
-3.580E-06,0.000
-3.570E-06,-0.080
-3.560E-06,-0.080
-3.550E-06,-0.040
-3.540E-06,-0.040
-3.530E-06,-0.040
-3.520E-06,0.040
-3.510E-06,0.040
-3.500E-06,0.080
-3.490E-06,0.080
-3.480E-06,0.080
-3.470E-06,0.200
-3.460E-06,0.240
-3.450E-06,0.200
-3.440E-06,0.200
-3.430E-06,0.200
-3.420E-06,0.120
-3.410E-06,0.160
-3.400E-06,0.240
-3.390E-06,0.280
-3.380E-06,0.200
-3.370E-06,0.200
-3.360E-06,0.160
-3.350E-06,0.120
-3.340E-06,0.120
-3.330E-06,0.200
-3.320E-06,0.160
-3.310E-06,0.080
-3.300E-06,0.080
-3.290E-06,0.080
-3.280E-06,0.120
-3.270E-06,0.040
-3.260E-06,0.080
-3.250E-06,0.080
-3.240E-06,0.040
-3.230E-06,0.000
-3.220E-06,-0.040
-3.210E-06,-0.040
-3.200E-06,-0.040
-3.190E-06,0.000
-3.180E-06,0.000
-3.170E-06,0.040
-3.160E-06,0.040
-3.150E-06,0.040
-3.140E-06,0.040
-3.130E-06,0.080
-3.120E-06,0.120
-3.110E-06,0.080
-3.100E-06,0.120
-3.090E-06,0.200
-3.080E-06,0.120
-3.070E-06,0.200
-3.060E-06,0.200
-3.050E-06,0.240
-3.040E-06,0.240
-3.030E-06,0.320
-3.020E-06,0.280
-3.010E-06,0.240
-3.000E-06,0.240
-2.990E-06,0.240
-2.980E-06,0.320
-2.970E-06,0.360
-2.960E-06,0.320
-2.950E-06,0.240
-2.940E-06,0.240
-2.930E-06,0.200
-2.920E-06,0.240
-2.910E-06,0.160
-2.900E-06,0.160
-2.890E-06,0.160
-2.880E-06,0.160
-2.870E-06,0.080
-2.860E-06,0.040
-2.850E-06,0.040
-2.840E-06,0.080
-2.830E-06,0.080
-2.820E-06,0.080
-2.810E-06,0.120
-2.800E-06,0.040
-2.790E-06,0.080
-2.780E-06,0.080
-2.770E-06,0.080
-2.760E-06,0.080
-2.750E-06,0.080
-2.740E-06,0.080
-2.730E-06,0.120
-2.720E-06,0.040
-2.710E-06,0.080
-2.700E-06,0.120
-2.690E-06,0.120
-2.680E-06,0.160
-2.670E-06,0.200
-2.660E-06,0.160
-2.650E-06,0.200
-2.640E-06,0.200
-2.630E-06,0.240
-2.620E-06,0.200
-2.610E-06,0.280
-2.600E-06,0.360
-2.590E-06,0.280
-2.580E-06,0.240
-2.570E-06,0.120
-2.560E-06,0.160
-2.550E-06,0.160
-2.540E-06,0.240
-2.530E-06,0.280
-2.520E-06,0.320
-2.510E-06,0.320
-2.500E-06,0.280
-2.490E-06,0.240
-2.480E-06,0.160
-2.470E-06,0.240
-2.460E-06,0.360
-2.450E-06,0.400
-2.440E-06,0.360
-2.430E-06,0.320
-2.420E-06,0.360
-2.410E-06,0.280
-2.400E-06,0.320
-2.390E-06,0.320
-2.380E-06,0.360
-2.370E-06,0.320
-2.360E-06,0.360
-2.350E-06,0.280
-2.340E-06,0.200
-2.330E-06,0.200
-2.320E-06,0.240
-2.310E-06,0.280
-2.300E-06,0.240
-2.290E-06,0.320
-2.280E-06,0.240
-2.270E-06,0.240
-2.260E-06,0.160
-2.250E-06,0.160
-2.240E-06,0.240
-2.230E-06,0.240
-2.220E-06,0.200
-2.210E-06,0.240
-2.200E-06,0.240
-2.190E-06,0.240
-2.180E-06,0.240
-2.170E-06,0.240
-2.160E-06,0.320
-2.150E-06,0.360
-2.140E-06,0.320
-2.130E-06,0.320
-2.120E-06,0.400
-2.110E-06,0.360
-2.100E-06,0.320
-2.090E-06,0.280
-2.080E-06,0.240
-2.070E-06,0.200
-2.060E-06,0.240
-2.050E-06,0.320
-2.040E-06,0.400
-2.030E-06,0.480
-2.020E-06,0.480
-2.010E-06,0.520
-2.000E-06,0.480
-1.990E-06,0.520
-1.980E-06,0.520
-1.970E-06,0.520
-1.960E-06,0.640
-1.950E-06,0.680
-1.940E-06,0.720
-1.930E-06,0.800
-1.920E-06,0.800
-1.910E-06,0.880
-1.900E-06,0.880
-1.890E-06,0.960
-1.880E-06,1.040
-1.870E-06,1.040
-1.860E-06,1.000
-1.850E-06,1.040
-1.840E-06,1.040
-1.830E-06,1.080
-1.820E-06,1.120
-1.810E-06,1.120
-1.800E-06,1.160
-1.790E-06,1.160
-1.780E-06,1.160
-1.770E-06,1.280
-1.760E-06,1.360
-1.750E-06,1.440
-1.740E-06,1.520
-1.730E-06,1.360
-1.720E-06,1.240
-1.710E-06,1.120
-1.700E-06,1.080
-1.690E-06,1.120
-1.680E-06,1.160
-1.670E-06,1.360
-1.660E-06,1.280
-1.650E-06,1.240
-1.640E-06,1.200
-1.630E-06,1.280
-1.620E-06,1.160
-1.610E-06,1.400
-1.600E-06,1.120
-1.590E-06,1.280
-1.580E-06,1.200
-1.570E-06,1.080
-1.560E-06,1.240
-1.550E-06,1.160
-1.540E-06,1.160
-1.530E-06,1.120
-1.520E-06,0.960
-1.510E-06,0.960
-1.500E-06,0.920
-1.490E-06,1.000
-1.480E-06,1.040
-1.470E-06,1.000
-1.460E-06,0.920
-1.450E-06,0.800
-1.440E-06,0.680
-1.430E-06,0.640
-1.420E-06,0.640
-1.410E-06,0.680
-1.400E-06,0.640
-1.390E-06,0.600
-1.380E-06,0.560
-1.370E-06,0.520
-1.360E-06,0.480
-1.350E-06,0.560
-1.340E-06,0.560
-1.330E-06,0.560
-1.320E-06,0.520
-1.310E-06,0.480
-1.300E-06,0.440
-1.290E-06,0.440
-1.280E-06,0.480
-1.270E-06,0.480
-1.260E-06,0.440
-1.250E-06,0.480
-1.240E-06,0.520
-1.230E-06,0.520
-1.220E-06,0.520
-1.210E-06,0.440
-1.200E-06,0.400
-1.190E-06,0.280
-1.180E-06,0.160
-1.170E-06,0.200
-1.160E-06,0.320
-1.150E-06,0.360
-1.140E-06,0.400
-1.130E-06,0.480
-1.120E-06,0.480
-1.110E-06,0.560
-1.100E-06,0.600
-1.090E-06,0.640
-1.080E-06,0.640
-1.070E-06,0.680
-1.060E-06,0.680
-1.050E-06,0.680
-1.040E-06,0.680
-1.030E-06,0.520
-1.020E-06,0.520
-1.010E-06,0.440
-1.000E-06,0.480
-9.900E-07,0.440
-9.800E-07,0.520
-9.700E-07,0.320
-9.600E-07,0.520
-9.500E-07,0.240
-9.400E-07,0.160
-9.300E-07,0.120
-9.200E-07,0.000
-9.100E-07,0.000
-9.000E-07,0.160
-8.900E-07,0.400
-8.800E-07,0.480
-8.700E-07,0.560
-8.600E-07,0.520
-8.500E-07,0.160
-8.400E-07,0.160
-8.300E-07,0.200
-8.200E-07,0.400
-8.100E-07,0.640
-8.000E-07,0.640
-7.900E-07,0.520
-7.800E-07,0.280
-7.700E-07,0.160
-7.600E-07,0.240
-7.500E-07,0.440
-7.400E-07,0.560
-7.300E-07,0.640
-7.200E-07,0.520
-7.100E-07,0.400
-7.000E-07,0.240
-6.900E-07,0.200
-6.800E-07,0.320
-6.700E-07,0.440
-6.600E-07,0.400
-6.500E-07,0.400
-6.400E-07,0.320
-6.300E-07,0.320
-6.200E-07,0.280
-6.100E-07,0.360
-6.000E-07,0.360
-5.900E-07,0.360
-5.800E-07,0.320
-5.700E-07,0.240
-5.600E-07,0.120
-5.500E-07,0.080
-5.400E-07,0.080
-5.300E-07,0.080
-5.200E-07,0.120
-5.100E-07,0.080
-5.000E-07,0.120
-4.900E-07,0.120
-4.800E-07,0.040
-4.700E-07,0.040
-4.600E-07,0.000
-4.500E-07,0.000
-4.400E-07,0.000
-4.300E-07,0.040
-4.200E-07,0.040
-4.100E-07,0.040
-4.000E-07,-0.040
-3.900E-07,0.000
-3.800E-07,0.040
-3.700E-07,0.080
-3.600E-07,0.160
-3.500E-07,0.120
-3.400E-07,0.120
-3.300E-07,0.120
-3.200E-07,0.200
-3.100E-07,0.200
-3.000E-07,0.280
-2.900E-07,0.360
-2.800E-07,0.360
-2.700E-07,0.360
-2.600E-07,0.400
-2.500E-07,0.400
-2.400E-07,0.320
-2.300E-07,0.360
-2.200E-07,0.240
-2.100E-07,0.200
-2.000E-07,0.200
-1.900E-07,0.200
-1.800E-07,0.280
-1.700E-07,0.360
-1.600E-07,0.360
-1.500E-07,0.280
-1.400E-07,0.240
-1.300E-07,0.280
-1.200E-07,0.240
-1.100E-07,0.360
-1.000E-07,0.480
-9.000E-08,0.560
-8.000E-08,0.640
-7.000E-08,0.560
-6.000E-08,0.760
-5.000E-08,0.680
-4.000E-08,0.880
-3.000E-08,1.080
-2.000E-08,1.080
-1.000E-08,0.640
0.000E+00,0.840
1.000E-08,0.440
2.000E-08,1.240
3.000E-08,1.320
4.000E-08,1.680
5.000E-08,1.400
6.000E-08,0.680
7.000E-08,0.080
8.000E-08,0.040
9.000E-08,0.320
1.000E-07,1.000
1.100E-07,1.760
1.200E-07,1.480
1.300E-07,1.040
1.400E-07,0.560
1.500E-07,0.160
1.600E-07,0.320
1.700E-07,0.520
1.800E-07,0.840
1.900E-07,0.880
2.000E-07,0.680
2.100E-07,0.440
2.200E-07,0.120
2.300E-07,0.040
2.400E-07,0.000
2.500E-07,0.320
2.600E-07,0.440
2.700E-07,0.400
2.800E-07,0.120
2.900E-07,-0.360
3.000E-07,-0.680
3.100E-07,-0.840
3.200E-07,-0.680
3.300E-07,-0.520
3.400E-07,-0.400
3.500E-07,-0.440
3.600E-07,-0.520
3.700E-07,-0.600
3.800E-07,-0.560
3.900E-07,-0.400
4.000E-07,-0.320
4.100E-07,-0.160
4.200E-07,-0.120
4.300E-07,-0.080
4.400E-07,-0.040
4.500E-07,0.160
4.600E-07,0.200
4.700E-07,0.240
4.800E-07,0.320
4.900E-07,0.400
5.000E-07,0.440
5.100E-07,0.560
5.200E-07,0.680
5.300E-07,0.600
5.400E-07,0.480
5.500E-07,0.280
5.600E-07,0.160
5.700E-07,0.200
5.800E-07,0.200
5.900E-07,0.160
6.000E-07,0.040
6.100E-07,0.040
6.200E-07,-0.200
6.300E-07,-0.400
6.400E-07,-0.440
6.500E-07,-0.480
6.600E-07,-0.400
6.700E-07,-0.320
6.800E-07,-0.240
6.900E-07,-0.160
7.000E-07,-0.160
7.100E-07,-0.040
7.200E-07,0.080
7.300E-07,0.240
7.400E-07,0.360
7.500E-07,0.320
7.600E-07,0.400
7.700E-07,0.360
7.800E-07,0.360
7.900E-07,0.280
8.000E-07,0.240
8.100E-07,0.160
8.200E-07,0.160
8.300E-07,0.240
8.400E-07,0.280
8.500E-07,0.240
8.600E-07,0.200
8.700E-07,0.160
8.800E-07,0.080
8.900E-07,0.080
9.000E-07,0.120
9.100E-07,0.200
9.200E-07,0.240
9.300E-07,0.320
9.400E-07,0.240
9.500E-07,0.320
9.600E-07,0.280
9.700E-07,0.320
9.800E-07,0.200
9.900E-07,0.160
1.000E-06,0.280
1.010E-06,0.200
1.020E-06,0.240
1.030E-06,0.200
1.040E-06,0.120
1.050E-06,0.120
1.060E-06,-0.200
1.070E-06,-0.160
1.080E-06,-0.320
1.090E-06,-0.280
1.100E-06,-0.120
1.110E-06,0.120
1.120E-06,0.440
1.130E-06,0.600
1.140E-06,0.560
1.150E-06,0.600
1.160E-06,0.440
1.170E-06,0.440
1.180E-06,0.200
1.190E-06,0.120
1.200E-06,0.120
1.210E-06,0.360
1.220E-06,0.440
1.230E-06,0.560
1.240E-06,0.600
1.250E-06,0.520
1.260E-06,0.480
1.270E-06,0.480
1.280E-06,0.560
1.290E-06,0.800
1.300E-06,0.960
1.310E-06,1.080
1.320E-06,1.040
1.330E-06,0.960
1.340E-06,0.920
1.350E-06,0.880
1.360E-06,0.960
1.370E-06,0.840
1.380E-06,1.000
1.390E-06,1.000
1.400E-06,0.840
1.410E-06,0.920
1.420E-06,0.640
1.430E-06,0.320
1.440E-06,0.120
1.450E-06,-0.040
1.460E-06,0.080
1.470E-06,0.000
1.480E-06,0.160
1.490E-06,0.080
1.500E-06,0.000
1.510E-06,-0.040
1.520E-06,-0.240
1.530E-06,-0.320
1.540E-06,-0.440
1.550E-06,-0.520
1.560E-06,-0.560
1.570E-06,-0.720
1.580E-06,-0.840
1.590E-06,-0.880
1.600E-06,-0.840
1.610E-06,-0.840
1.620E-06,-0.840
1.630E-06,-0.880
1.640E-06,-0.840
1.650E-06,-0.800
1.660E-06,-0.720
1.670E-06,-0.720
1.680E-06,-0.720
1.690E-06,-0.760
1.700E-06,-0.760
1.710E-06,-0.760
1.720E-06,-0.800
1.730E-06,-0.880
1.740E-06,-0.920
1.750E-06,-0.960
1.760E-06,-1.120
1.770E-06,-1.240
1.780E-06,-1.320
1.790E-06,-1.440
1.800E-06,-1.600
1.810E-06,-1.720
1.820E-06,-1.920
1.830E-06,-2.120
1.840E-06,-2.360
1.850E-06,-2.520
1.860E-06,-2.640
1.870E-06,-2.840
1.880E-06,-3.120
1.890E-06,-3.320
1.900E-06,-3.760
1.910E-06,-4.080
1.920E-06,-4.440
1.930E-06,-4.760
1.940E-06,-5.040
1.950E-06,-5.200
1.960E-06,-5.200
1.970E-06,-5.240
1.980E-06,-5.240
1.990E-06,-5.200
2.000E-06,-5.240
2.010E-06,-5.240
2.020E-06,-5.240
2.030E-06,-5.240
2.040E-06,-5.240
2.050E-06,-5.200
2.060E-06,-5.200
2.070E-06,-5.240
2.080E-06,-5.240
2.090E-06,-5.200
2.100E-06,-5.200
2.110E-06,-5.240
2.120E-06,-5.240
2.130E-06,-5.240
2.140E-06,-5.200
2.150E-06,-5.160
2.160E-06,-4.960
2.170E-06,-5.120
2.180E-06,-4.760
2.190E-06,-4.800
2.200E-06,-4.480
2.210E-06,-4.200
2.220E-06,-3.880
2.230E-06,-3.640
2.240E-06,-3.440
2.250E-06,-3.360
2.260E-06,-3.320
2.270E-06,-3.240
2.280E-06,-3.320
2.290E-06,-3.520
2.300E-06,-3.520
2.310E-06,-3.440
2.320E-06,-3.000
2.330E-06,-2.760
2.340E-06,-2.840
2.350E-06,-2.760
2.360E-06,-2.880
2.370E-06,-2.480
2.380E-06,-2.080
2.390E-06,-1.680
2.400E-06,-1.240
2.410E-06,-1.040
2.420E-06,-0.760
2.430E-06,-0.600
2.440E-06,-0.360
2.450E-06,-0.160
2.460E-06,0.000
2.470E-06,-0.080
2.480E-06,0.000
2.490E-06,-0.040
2.500E-06,-0.200
2.510E-06,-0.360
2.520E-06,-0.600
2.530E-06,-0.920
2.540E-06,-1.160
2.550E-06,-1.520
2.560E-06,-1.880
2.570E-06,-2.160
2.580E-06,-2.520
2.590E-06,-2.760
2.600E-06,-3.040
2.610E-06,-3.160
2.620E-06,-3.280
2.630E-06,-3.360
2.640E-06,-3.400
2.650E-06,-3.360
2.660E-06,-3.360
2.670E-06,-3.360
2.680E-06,-3.360
2.690E-06,-3.360
2.700E-06,-3.320
2.710E-06,-3.360
2.720E-06,-3.400
2.730E-06,-3.480
2.740E-06,-3.560
2.750E-06,-3.720
2.760E-06,-3.720
2.770E-06,-3.880
2.780E-06,-4.000
2.790E-06,-4.160
2.800E-06,-4.320
2.810E-06,-4.440
2.820E-06,-4.480
2.830E-06,-4.600
2.840E-06,-4.680
2.850E-06,-4.680
2.860E-06,-4.600
2.870E-06,-4.600
2.880E-06,-4.560
2.890E-06,-4.480
2.900E-06,-4.400
2.910E-06,-4.320
2.920E-06,-4.240
2.930E-06,-4.120
2.940E-06,-4.040
2.950E-06,-4.000
2.960E-06,-3.880
2.970E-06,-3.800
2.980E-06,-3.800
2.990E-06,-3.760
3.000E-06,-3.800
3.010E-06,-3.720
3.020E-06,-3.640
3.030E-06,-3.560
3.040E-06,-3.360
3.050E-06,-3.360
3.060E-06,-3.320
3.070E-06,-3.320
3.080E-06,-3.280
3.090E-06,-3.200
3.100E-06,-3.080
3.110E-06,-2.880
3.120E-06,-2.800
3.130E-06,-2.800
3.140E-06,-2.720
3.150E-06,-2.760
3.160E-06,-2.800
3.170E-06,-2.840
3.180E-06,-2.880
3.190E-06,-2.880
3.200E-06,-3.000
3.210E-06,-3.080
3.220E-06,-3.200
3.230E-06,-3.200
3.240E-06,-3.280
3.250E-06,-3.200
3.260E-06,-3.160
3.270E-06,-3.120
3.280E-06,-3.120
3.290E-06,-3.040
3.300E-06,-3.000
3.310E-06,-2.960
3.320E-06,-2.880
3.330E-06,-2.880
3.340E-06,-2.800
3.350E-06,-2.800
3.360E-06,-2.760
3.370E-06,-2.640
