mediciones/5-27/-52.5/WaveData50248.csv

#timebase=2000000(ps)
,#voltbase=100000(mv/100)
#size=4000
-8.400E-06,0.012
-8.390E-06,0.012
-8.380E-06,0.000
-8.370E-06,-0.012
-8.360E-06,-0.012
-8.350E-06,0.008
-8.340E-06,-0.004
-8.330E-06,0.008
-8.320E-06,0.012
-8.310E-06,0.008
-8.300E-06,0.000
-8.290E-06,0.012
-8.280E-06,0.008
-8.270E-06,0.000
-8.260E-06,0.004
-8.250E-06,0.004
-8.240E-06,0.004
-8.230E-06,0.000
-8.220E-06,0.004
-8.210E-06,-0.004
-8.200E-06,-0.004
-8.190E-06,0.000
-8.180E-06,0.004
-8.170E-06,0.004
-8.160E-06,0.004
-8.150E-06,0.000
-8.140E-06,0.000
-8.130E-06,0.000
-8.120E-06,0.004
-8.110E-06,0.000
-8.100E-06,0.004
-8.090E-06,0.004
-8.080E-06,0.004
-8.070E-06,0.000
-8.060E-06,0.004
-8.050E-06,0.004
-8.040E-06,0.000
-8.030E-06,0.004
-8.020E-06,0.004
-8.010E-06,0.000
-8.000E-06,0.004
-7.990E-06,0.004
-7.980E-06,0.004
-7.970E-06,0.000
-7.960E-06,0.004
-7.950E-06,0.004
-7.940E-06,0.004
-7.930E-06,0.004
-7.920E-06,0.008
-7.910E-06,0.000
-7.900E-06,0.004
-7.890E-06,0.004
-7.880E-06,0.000
-7.870E-06,0.000
-7.860E-06,0.000
-7.850E-06,0.004
-7.840E-06,0.008
-7.830E-06,0.008
-7.820E-06,-0.004
-7.810E-06,0.004
-7.800E-06,0.004
-7.790E-06,0.004
-7.780E-06,0.004
-7.770E-06,0.004
-7.760E-06,0.004
-7.750E-06,0.000
-7.740E-06,0.004
-7.730E-06,0.000
-7.720E-06,0.000
-7.710E-06,0.004
-7.700E-06,0.004
-7.690E-06,0.004
-7.680E-06,0.004
-7.670E-06,0.008
-7.660E-06,0.004
-7.650E-06,0.000
-7.640E-06,0.004
-7.630E-06,0.000
-7.620E-06,0.004
-7.610E-06,0.004
-7.600E-06,0.008
-7.590E-06,0.008
-7.580E-06,0.000
-7.570E-06,0.000
-7.560E-06,0.000
-7.550E-06,0.008
-7.540E-06,0.008
-7.530E-06,0.000
-7.520E-06,0.004
-7.510E-06,0.004
-7.500E-06,0.004
-7.490E-06,0.004
-7.480E-06,0.008
-7.470E-06,0.000
-7.460E-06,0.008
-7.450E-06,0.004
-7.440E-06,0.004
-7.430E-06,0.000
-7.420E-06,0.004
-7.410E-06,0.004
-7.400E-06,0.004
-7.390E-06,0.004
-7.380E-06,0.004
-7.370E-06,0.000
-7.360E-06,0.004
-7.350E-06,0.000
-7.340E-06,0.004
-7.330E-06,0.004
-7.320E-06,0.004
-7.310E-06,0.004
-7.300E-06,0.004
-7.290E-06,0.004
-7.280E-06,0.004
-7.270E-06,-0.004
-7.260E-06,0.000
-7.250E-06,0.000
-7.240E-06,0.000
-7.230E-06,0.000
-7.220E-06,0.004
-7.210E-06,0.000
-7.200E-06,0.000
-7.190E-06,0.000
-7.180E-06,0.008
-7.170E-06,0.004
-7.160E-06,0.004
-7.150E-06,0.004
-7.140E-06,0.000
-7.130E-06,0.004
-7.120E-06,0.004
-7.110E-06,0.000
-7.100E-06,0.004
-7.090E-06,0.004
-7.080E-06,0.004
-7.070E-06,0.008
-7.060E-06,0.008
-7.050E-06,0.008
-7.040E-06,0.000
-7.030E-06,0.004
-7.020E-06,0.000
-7.010E-06,0.000
-7.000E-06,0.000
-6.990E-06,0.000
-6.980E-06,0.008
-6.970E-06,0.012
-6.960E-06,0.000
-6.950E-06,-0.004
-6.940E-06,0.000
-6.930E-06,0.008
-6.920E-06,0.008
-6.910E-06,0.008
-6.900E-06,0.004
-6.890E-06,0.004
-6.880E-06,0.004
-6.870E-06,0.000
-6.860E-06,-0.004
-6.850E-06,0.004
-6.840E-06,0.008
-6.830E-06,0.008
-6.820E-06,0.008
-6.810E-06,0.000
-6.800E-06,-0.004
-6.790E-06,0.004
-6.780E-06,0.008
-6.770E-06,0.008
-6.760E-06,0.004
-6.750E-06,0.008
-6.740E-06,0.000
-6.730E-06,0.000
-6.720E-06,0.004
-6.710E-06,0.000
-6.700E-06,0.004
-6.690E-06,0.000
-6.680E-06,0.000
-6.670E-06,0.000
-6.660E-06,0.000
-6.650E-06,0.000
-6.640E-06,0.004
-6.630E-06,0.000
-6.620E-06,0.004
-6.610E-06,0.000
-6.600E-06,0.004
-6.590E-06,0.004
-6.580E-06,0.004
-6.570E-06,0.000
-6.560E-06,-0.004
-6.550E-06,0.000
-6.540E-06,0.000
-6.530E-06,0.004
-6.520E-06,0.004
-6.510E-06,0.008
-6.500E-06,0.008
-6.490E-06,0.004
-6.480E-06,0.008
-6.470E-06,-0.004
-6.460E-06,0.004
-6.450E-06,0.004
-6.440E-06,0.004
-6.430E-06,0.000
-6.420E-06,0.004
-6.410E-06,0.004
-6.400E-06,0.004
-6.390E-06,0.004
-6.380E-06,0.004
-6.370E-06,0.000
-6.360E-06,-0.004
-6.350E-06,0.004
-6.340E-06,0.004
-6.330E-06,0.008
-6.320E-06,0.008
-6.310E-06,0.008
-6.300E-06,0.008
-6.290E-06,0.000
-6.280E-06,0.000
-6.270E-06,0.000
-6.260E-06,-0.004
-6.250E-06,0.004
-6.240E-06,0.000
-6.230E-06,0.000
-6.220E-06,0.008
-6.210E-06,-0.004
-6.200E-06,0.000
-6.190E-06,0.004
-6.180E-06,0.004
-6.170E-06,0.000
-6.160E-06,0.004
-6.150E-06,0.004
-6.140E-06,0.004
-6.130E-06,0.008
-6.120E-06,0.004
-6.110E-06,0.000
-6.100E-06,0.000
-6.090E-06,0.000
-6.080E-06,-0.004
-6.070E-06,0.004
-6.060E-06,0.000
-6.050E-06,0.004
-6.040E-06,0.004
-6.030E-06,0.004
-6.020E-06,0.004
-6.010E-06,-0.004
-6.000E-06,0.000
-5.990E-06,0.004
-5.980E-06,0.000
-5.970E-06,0.004
-5.960E-06,0.004
-5.950E-06,0.004
-5.940E-06,0.000
-5.930E-06,0.004
-5.920E-06,-0.004
-5.910E-06,0.004
-5.900E-06,0.008
-5.890E-06,0.004
-5.880E-06,0.000
-5.870E-06,0.000
-5.860E-06,0.004
-5.850E-06,0.000
-5.840E-06,0.008
-5.830E-06,0.000
-5.820E-06,0.000
-5.810E-06,0.004
-5.800E-06,0.004
-5.790E-06,0.000
-5.780E-06,0.000
-5.770E-06,0.000
-5.760E-06,0.008
-5.750E-06,0.004
-5.740E-06,0.000
-5.730E-06,0.004
-5.720E-06,0.000
-5.710E-06,0.000
-5.700E-06,0.008
-5.690E-06,0.000
-5.680E-06,0.004
-5.670E-06,0.004
-5.660E-06,0.004
-5.650E-06,0.004
-5.640E-06,0.000
-5.630E-06,0.000
-5.620E-06,0.004
-5.610E-06,0.004
-5.600E-06,0.008
-5.590E-06,0.004
-5.580E-06,0.000
-5.570E-06,0.000
-5.560E-06,0.008
-5.550E-06,0.004
-5.540E-06,0.004
-5.530E-06,0.004
-5.520E-06,0.000
-5.510E-06,0.004
-5.500E-06,0.008
-5.490E-06,0.004
-5.480E-06,0.000
-5.470E-06,0.004
-5.460E-06,0.008
-5.450E-06,0.008
-5.440E-06,-0.004
-5.430E-06,0.000
-5.420E-06,0.004
-5.410E-06,0.000
-5.400E-06,0.008
-5.390E-06,0.004
-5.380E-06,0.000
-5.370E-06,-0.004
-5.360E-06,0.000
-5.350E-06,0.004
-5.340E-06,0.000
-5.330E-06,0.004
-5.320E-06,0.008
-5.310E-06,0.004
-5.300E-06,0.000
-5.290E-06,0.000
-5.280E-06,-0.004
-5.270E-06,0.004
-5.260E-06,0.012
-5.250E-06,0.000
-5.240E-06,0.000
-5.230E-06,0.004
-5.220E-06,-0.004
-5.210E-06,-0.004
-5.200E-06,0.004
-5.190E-06,0.008
-5.180E-06,0.008
-5.170E-06,0.004
-5.160E-06,0.000
-5.150E-06,0.000
-5.140E-06,-0.004
-5.130E-06,0.000
-5.120E-06,0.008
-5.110E-06,0.004
-5.100E-06,0.008
-5.090E-06,0.004
-5.080E-06,0.000
-5.070E-06,0.000
-5.060E-06,0.008
-5.050E-06,0.004
-5.040E-06,0.008
-5.030E-06,0.008
-5.020E-06,0.004
-5.010E-06,0.000
-5.000E-06,-0.004
-4.990E-06,0.000
-4.980E-06,0.008
-4.970E-06,0.000
-4.960E-06,0.008
-4.950E-06,0.000
-4.940E-06,0.008
-4.930E-06,0.000
-4.920E-06,0.008
-4.910E-06,0.004
-4.900E-06,0.004
-4.890E-06,0.012
-4.880E-06,0.004
-4.870E-06,0.000
-4.860E-06,0.000
-4.850E-06,0.004
-4.840E-06,0.004
-4.830E-06,0.004
-4.820E-06,0.004
-4.810E-06,0.004
-4.800E-06,0.000
-4.790E-06,0.000
-4.780E-06,0.000
-4.770E-06,0.004
-4.760E-06,-0.004
-4.750E-06,0.000
-4.740E-06,0.004
-4.730E-06,0.008
-4.720E-06,0.000
-4.710E-06,0.000
-4.700E-06,-0.004
-4.690E-06,0.004
-4.680E-06,0.000
-4.670E-06,0.008
-4.660E-06,0.008
-4.650E-06,0.008
-4.640E-06,0.004
-4.630E-06,0.000
-4.620E-06,-0.004
-4.610E-06,0.000
-4.600E-06,0.008
-4.590E-06,0.004
-4.580E-06,0.008
-4.570E-06,0.008
-4.560E-06,0.000
-4.550E-06,0.000
-4.540E-06,0.000
-4.530E-06,0.004
-4.520E-06,0.000
-4.510E-06,0.000
-4.500E-06,0.000
-4.490E-06,0.000
-4.480E-06,0.000
-4.470E-06,0.008
-4.460E-06,0.004
-4.450E-06,0.004
-4.440E-06,0.000
-4.430E-06,-0.004
-4.420E-06,-0.004
-4.410E-06,0.012
-4.400E-06,0.012
-4.390E-06,0.004
-4.380E-06,0.008
-4.370E-06,0.004
-4.360E-06,0.008
-4.350E-06,0.008
-4.340E-06,0.000
-4.330E-06,-0.004
-4.320E-06,0.000
-4.310E-06,0.000
-4.300E-06,0.004
-4.290E-06,0.008
-4.280E-06,0.008
-4.270E-06,0.004
-4.260E-06,0.000
-4.250E-06,0.000
-4.240E-06,-0.004
-4.230E-06,0.000
-4.220E-06,0.008
-4.210E-06,0.008
-4.200E-06,0.004
-4.190E-06,0.004
-4.180E-06,0.000
-4.170E-06,-0.004
-4.160E-06,0.008
-4.150E-06,0.008
-4.140E-06,0.004
-4.130E-06,0.000
-4.120E-06,-0.004
-4.110E-06,-0.004
-4.100E-06,0.004
-4.090E-06,0.008
-4.080E-06,0.004
-4.070E-06,0.000
-4.060E-06,0.000
-4.050E-06,-0.004
-4.040E-06,-0.004
-4.030E-06,0.000
-4.020E-06,0.012
-4.010E-06,0.008
-4.000E-06,0.004
-3.990E-06,0.000
-3.980E-06,0.000
-3.970E-06,-0.004
-3.960E-06,0.000
-3.950E-06,0.008
-3.940E-06,0.004
-3.930E-06,0.004
-3.920E-06,0.004
-3.910E-06,0.008
-3.900E-06,-0.004
-3.890E-06,0.000
-3.880E-06,0.004
-3.870E-06,0.000
-3.860E-06,0.004
-3.850E-06,0.004
-3.840E-06,0.004
-3.830E-06,-0.004
-3.820E-06,0.000
-3.810E-06,0.000
-3.800E-06,0.012
-3.790E-06,0.008
-3.780E-06,0.008
-3.770E-06,0.000
-3.760E-06,0.008
-3.750E-06,0.004
-3.740E-06,0.004
-3.730E-06,0.008
-3.720E-06,0.000
-3.710E-06,0.000
-3.700E-06,0.004
-3.690E-06,0.012
-3.680E-06,0.000
-3.670E-06,0.000
-3.660E-06,0.004
-3.650E-06,0.004
-3.640E-06,0.008
-3.630E-06,0.004
-3.620E-06,0.004
-3.610E-06,0.004
-3.600E-06,0.000
-3.590E-06,0.000
-3.580E-06,0.004
-3.570E-06,0.012
-3.560E-06,0.012
-3.550E-06,0.012
-3.540E-06,0.008
-3.530E-06,-0.004
-3.520E-06,-0.004
-3.510E-06,0.004
-3.500E-06,0.008
-3.490E-06,0.008
-3.480E-06,0.008
-3.470E-06,0.000
-3.460E-06,0.000
-3.450E-06,0.004
-3.440E-06,0.000
-3.430E-06,0.008
-3.420E-06,0.008
-3.410E-06,0.008
-3.400E-06,-0.004
-3.390E-06,-0.004
-3.380E-06,0.000
-3.370E-06,0.000
-3.360E-06,0.008
-3.350E-06,0.004
-3.340E-06,0.008
-3.330E-06,0.004
-3.320E-06,0.004
-3.310E-06,0.000
-3.300E-06,0.008
-3.290E-06,0.004
-3.280E-06,0.000
-3.270E-06,0.008
-3.260E-06,0.004
-3.250E-06,0.008
-3.240E-06,0.004
-3.230E-06,0.008
-3.220E-06,0.000
-3.210E-06,0.004
-3.200E-06,0.004
-3.190E-06,0.004
-3.180E-06,0.004
-3.170E-06,0.004
-3.160E-06,0.004
-3.150E-06,0.004
-3.140E-06,0.004
-3.130E-06,0.000
-3.120E-06,0.000
-3.110E-06,0.000
-3.100E-06,0.004
-3.090E-06,0.008
-3.080E-06,0.008
-3.070E-06,0.004
-3.060E-06,0.004
-3.050E-06,0.000
-3.040E-06,0.008
-3.030E-06,0.008
-3.020E-06,0.012
-3.010E-06,0.012
-3.000E-06,0.004
-2.990E-06,0.004
-2.980E-06,0.008
-2.970E-06,0.004
-2.960E-06,0.008
-2.950E-06,0.008
-2.940E-06,0.004
-2.930E-06,0.008
-2.920E-06,0.000
-2.910E-06,0.004
-2.900E-06,0.000
-2.890E-06,0.004
-2.880E-06,0.004
-2.870E-06,0.000
-2.860E-06,0.004
-2.850E-06,0.000
-2.840E-06,0.008
-2.830E-06,0.004
-2.820E-06,0.004
-2.810E-06,0.008
-2.800E-06,0.008
-2.790E-06,0.004
-2.780E-06,0.004
-2.770E-06,0.000
-2.760E-06,0.004
-2.750E-06,0.000
-2.740E-06,0.004
-2.730E-06,0.004
-2.720E-06,0.004
-2.710E-06,0.000
-2.700E-06,0.004
-2.690E-06,0.008
-2.680E-06,0.004
-2.670E-06,0.004
-2.660E-06,0.000
-2.650E-06,0.008
-2.640E-06,0.004
-2.630E-06,0.004
-2.620E-06,0.000
-2.610E-06,0.008
-2.600E-06,0.004
-2.590E-06,0.008
-2.580E-06,0.008
-2.570E-06,0.008
-2.560E-06,0.000
-2.550E-06,0.000
-2.540E-06,0.000
-2.530E-06,0.004
-2.520E-06,0.004
-2.510E-06,0.008
-2.500E-06,0.012
-2.490E-06,0.012
-2.480E-06,0.000
-2.470E-06,0.004
-2.460E-06,0.004
-2.450E-06,0.004
-2.440E-06,0.004
-2.430E-06,0.004
-2.420E-06,0.008
-2.410E-06,0.004
-2.400E-06,0.000
-2.390E-06,0.004
-2.380E-06,0.004
-2.370E-06,0.008
-2.360E-06,0.004
-2.350E-06,0.008
-2.340E-06,0.000
-2.330E-06,0.004
-2.320E-06,0.000
-2.310E-06,0.004
-2.300E-06,0.004
-2.290E-06,0.008
-2.280E-06,0.008
-2.270E-06,0.004
-2.260E-06,0.008
-2.250E-06,0.004
-2.240E-06,0.008
-2.230E-06,0.008
-2.220E-06,0.008
-2.210E-06,0.008
-2.200E-06,0.004
-2.190E-06,0.004
-2.180E-06,0.012
-2.170E-06,0.004
-2.160E-06,0.008
-2.150E-06,0.008
-2.140E-06,0.008
-2.130E-06,0.008
-2.120E-06,0.008
-2.110E-06,0.012
-2.100E-06,0.016
-2.090E-06,0.012
-2.080E-06,0.012
-2.070E-06,0.008
-2.060E-06,0.008
-2.050E-06,-0.004
-2.040E-06,0.000
-2.030E-06,0.008
-2.020E-06,0.004
-2.010E-06,0.008
-2.000E-06,0.012
-1.990E-06,0.008
-1.980E-06,0.004
-1.970E-06,0.004
-1.960E-06,0.004
-1.950E-06,0.008
-1.940E-06,0.012
-1.930E-06,0.008
-1.920E-06,0.008
-1.910E-06,0.012
-1.900E-06,0.012
-1.890E-06,0.012
-1.880E-06,0.008
-1.870E-06,0.012
-1.860E-06,0.012
-1.850E-06,0.012
-1.840E-06,0.016
-1.830E-06,0.008
-1.820E-06,0.012
-1.810E-06,0.012
-1.800E-06,0.012
-1.790E-06,0.016
-1.780E-06,0.016
-1.770E-06,0.012
-1.760E-06,0.024
-1.750E-06,0.020
-1.740E-06,0.024
-1.730E-06,0.016
-1.720E-06,0.008
-1.710E-06,0.012
-1.700E-06,0.012
-1.690E-06,0.012
-1.680E-06,0.012
-1.670E-06,0.016
-1.660E-06,0.016
-1.650E-06,0.016
-1.640E-06,0.016
-1.630E-06,0.016
-1.620E-06,0.016
-1.610E-06,0.016
-1.600E-06,0.016
-1.590E-06,0.020
-1.580E-06,0.016
-1.570E-06,0.016
-1.560E-06,0.016
-1.550E-06,0.016
-1.540E-06,0.020
-1.530E-06,0.016
-1.520E-06,0.016
-1.510E-06,0.016
-1.500E-06,0.012
-1.490E-06,0.012
-1.480E-06,0.016
-1.470E-06,0.016
-1.460E-06,0.012
-1.450E-06,0.012
-1.440E-06,0.008
-1.430E-06,0.012
-1.420E-06,0.020
-1.410E-06,0.012
-1.400E-06,0.016
-1.390E-06,0.020
-1.380E-06,0.016
-1.370E-06,0.016
-1.360E-06,0.008
-1.350E-06,0.012
-1.340E-06,0.024
-1.330E-06,0.020
-1.320E-06,0.024
-1.310E-06,0.016
-1.300E-06,0.008
-1.290E-06,0.012
-1.280E-06,0.016
-1.270E-06,0.020
-1.260E-06,0.020
-1.250E-06,0.032
-1.240E-06,0.036
-1.230E-06,0.028
-1.220E-06,0.024
-1.210E-06,-0.004
-1.200E-06,-0.012
-1.190E-06,0.000
-1.180E-06,0.000
-1.170E-06,0.012
-1.160E-06,0.012
-1.150E-06,0.020
-1.140E-06,0.012
-1.130E-06,0.008
-1.120E-06,0.000
-1.110E-06,-0.004
-1.100E-06,0.000
-1.090E-06,0.012
-1.080E-06,0.012
-1.070E-06,0.016
-1.060E-06,0.008
-1.050E-06,0.000
-1.040E-06,0.012
-1.030E-06,0.016
-1.020E-06,0.016
-1.010E-06,0.028
-1.000E-06,0.028
-9.900E-07,0.028
-9.800E-07,0.036
-9.700E-07,0.048
-9.600E-07,0.040
-9.500E-07,0.040
-9.400E-07,0.044
-9.300E-07,0.044
-9.200E-07,0.044
-9.100E-07,0.040
-9.000E-07,0.048
-8.900E-07,0.060
-8.800E-07,0.076
-8.700E-07,0.080
-8.600E-07,0.072
-8.500E-07,0.060
-8.400E-07,0.056
-8.300E-07,0.052
-8.200E-07,0.056
-8.100E-07,0.060
-8.000E-07,0.064
-7.900E-07,0.064
-7.800E-07,0.064
-7.700E-07,0.064
-7.600E-07,0.064
-7.500E-07,0.068
-7.400E-07,0.072
-7.300E-07,0.064
-7.200E-07,0.056
-7.100E-07,0.036
-7.000E-07,0.036
-6.900E-07,0.024
-6.800E-07,0.024
-6.700E-07,0.020
-6.600E-07,0.008
-6.500E-07,0.004
-6.400E-07,-0.004
-6.300E-07,-0.024
-6.200E-07,-0.040
-6.100E-07,-0.028
-6.000E-07,-0.028
-5.900E-07,-0.004
-5.800E-07,0.000
-5.700E-07,-0.008
-5.600E-07,0.008
-5.500E-07,0.012
-5.400E-07,-0.008
-5.300E-07,-0.008
-5.200E-07,0.024
-5.100E-07,0.044
-5.000E-07,0.052
-4.900E-07,0.056
-4.800E-07,0.060
-4.700E-07,0.060
-4.600E-07,0.060
-4.500E-07,0.060
-4.400E-07,0.064
-4.300E-07,0.088
-4.200E-07,0.092
-4.100E-07,0.096
-4.000E-07,0.104
-3.900E-07,0.100
-3.800E-07,0.084
-3.700E-07,0.072
-3.600E-07,0.080
-3.500E-07,0.084
-3.400E-07,0.092
-3.300E-07,0.088
-3.200E-07,0.088
-3.100E-07,0.088
-3.000E-07,0.084
-2.900E-07,0.088
-2.800E-07,0.096
-2.700E-07,0.108
-2.600E-07,0.120
-2.500E-07,0.128
-2.400E-07,0.128
-2.300E-07,0.124
-2.200E-07,0.116
-2.100E-07,0.116
-2.000E-07,0.120
-1.900E-07,0.128
-1.800E-07,0.132
-1.700E-07,0.136
-1.600E-07,0.136
-1.500E-07,0.128
-1.400E-07,0.120
-1.300E-07,0.108
-1.200E-07,0.104
-1.100E-07,0.100
-1.000E-07,0.100
-9.000E-08,0.092
-8.000E-08,0.084
-7.000E-08,0.088
-6.000E-08,0.076
-5.000E-08,0.072
-4.000E-08,0.076
-3.000E-08,0.112
-2.000E-08,0.148
-1.000E-08,0.180
0.000E+00,0.192
1.000E-08,0.192
2.000E-08,0.172
3.000E-08,0.136
4.000E-08,0.124
5.000E-08,0.124
6.000E-08,0.140
7.000E-08,0.152
8.000E-08,0.164
9.000E-08,0.164
1.000E-07,0.148
1.100E-07,0.128
1.200E-07,0.120
1.300E-07,0.120
1.400E-07,0.128
1.500E-07,0.128
1.600E-07,0.132
1.700E-07,0.128
1.800E-07,0.132
1.900E-07,0.136
2.000E-07,0.152
2.100E-07,0.164
2.200E-07,0.172
2.300E-07,0.164
2.400E-07,0.152
2.500E-07,0.140
2.600E-07,0.136
2.700E-07,0.136
2.800E-07,0.140
2.900E-07,0.144
3.000E-07,0.144
3.100E-07,0.128
3.200E-07,0.124
3.300E-07,0.124
3.400E-07,0.128
3.500E-07,0.144
3.600E-07,0.160
3.700E-07,0.160
3.800E-07,0.172
3.900E-07,0.176
4.000E-07,0.160
4.100E-07,0.156
4.200E-07,0.152
4.300E-07,0.148
4.400E-07,0.156
4.500E-07,0.152
4.600E-07,0.156
4.700E-07,0.160
4.800E-07,0.156
4.900E-07,0.156
5.000E-07,0.160
5.100E-07,0.156
5.200E-07,0.152
5.300E-07,0.160
5.400E-07,0.160
5.500E-07,0.168
5.600E-07,0.164
5.700E-07,0.160
5.800E-07,0.160
5.900E-07,0.156
6.000E-07,0.156
6.100E-07,0.164
6.200E-07,0.156
6.300E-07,0.160
6.400E-07,0.164
6.500E-07,0.160
6.600E-07,0.160
6.700E-07,0.152
6.800E-07,0.152
6.900E-07,0.156
7.000E-07,0.152
7.100E-07,0.156
7.200E-07,0.152
7.300E-07,0.156
7.400E-07,0.160
7.500E-07,0.152
7.600E-07,0.156
7.700E-07,0.160
7.800E-07,0.156
7.900E-07,0.152
8.000E-07,0.156
8.100E-07,0.164
8.200E-07,0.160
8.300E-07,0.160
8.400E-07,0.164
8.500E-07,0.160
8.600E-07,0.156
8.700E-07,0.156
8.800E-07,0.156
8.900E-07,0.156
9.000E-07,0.160
9.100E-07,0.160
9.200E-07,0.160
9.300E-07,0.160
9.400E-07,0.156
9.500E-07,0.156
9.600E-07,0.156
9.700E-07,0.160
9.800E-07,0.152
9.900E-07,0.152
1.000E-06,0.156
1.010E-06,0.160
1.020E-06,0.156
1.030E-06,0.156
1.040E-06,0.152
1.050E-06,0.156
1.060E-06,0.160
1.070E-06,0.156
1.080E-06,0.160
1.090E-06,0.148
1.100E-06,0.152
1.110E-06,0.156
1.120E-06,0.156
1.130E-06,0.160
1.140E-06,0.156
1.150E-06,0.152
1.160E-06,0.156
1.170E-06,0.152
1.180E-06,0.152
1.190E-06,0.152
1.200E-06,0.152
1.210E-06,0.152
1.220E-06,0.148
1.230E-06,0.148
1.240E-06,0.148
1.250E-06,0.148
1.260E-06,0.140
1.270E-06,0.144
1.280E-06,0.148
1.290E-06,0.148
1.300E-06,0.140
1.310E-06,0.144
1.320E-06,0.144
1.330E-06,0.144
1.340E-06,0.140
1.350E-06,0.144
1.360E-06,0.144
1.370E-06,0.140
1.380E-06,0.144
1.390E-06,0.144
1.400E-06,0.144
1.410E-06,0.144
1.420E-06,0.144
1.430E-06,0.144
1.440E-06,0.140
1.450E-06,0.140
1.460E-06,0.140
1.470E-06,0.144
1.480E-06,0.144
1.490E-06,0.144
1.500E-06,0.140
1.510E-06,0.144
1.520E-06,0.136
1.530E-06,0.140
1.540E-06,0.140
1.550E-06,0.140
1.560E-06,0.140
1.570E-06,0.140
1.580E-06,0.140
1.590E-06,0.136
1.600E-06,0.136
1.610E-06,0.136
1.620E-06,0.136
1.630E-06,0.136
1.640E-06,0.140
1.650E-06,0.144
1.660E-06,0.144
1.670E-06,0.144
1.680E-06,0.144
1.690E-06,0.144
1.700E-06,0.144
1.710E-06,0.140
1.720E-06,0.136
1.730E-06,0.136
1.740E-06,0.128
1.750E-06,0.128
1.760E-06,0.132
1.770E-06,0.132
1.780E-06,0.128
1.790E-06,0.132
1.800E-06,0.132
1.810E-06,0.128
1.820E-06,0.128
1.830E-06,0.128
1.840E-06,0.128
1.850E-06,0.128
1.860E-06,0.124
1.870E-06,0.128
1.880E-06,0.128
1.890E-06,0.124
1.900E-06,0.128
1.910E-06,0.128
1.920E-06,0.128
1.930E-06,0.128
1.940E-06,0.124
1.950E-06,0.128
1.960E-06,0.128
1.970E-06,0.132
1.980E-06,0.132
1.990E-06,0.128
2.000E-06,0.124
2.010E-06,0.124
2.020E-06,0.124
2.030E-06,0.128
2.040E-06,0.128
2.050E-06,0.128
2.060E-06,0.128
2.070E-06,0.128
2.080E-06,0.124
2.090E-06,0.124
2.100E-06,0.128
2.110E-06,0.124
2.120E-06,0.128
2.130E-06,0.132
2.140E-06,0.132
2.150E-06,0.132
2.160E-06,0.128
2.170E-06,0.128
2.180E-06,0.124
2.190E-06,0.124
2.200E-06,0.124
2.210E-06,0.124
2.220E-06,0.124
2.230E-06,0.128
2.240E-06,0.120
2.250E-06,0.116
2.260E-06,0.120
2.270E-06,0.112
2.280E-06,0.124
2.290E-06,0.124
2.300E-06,0.124
2.310E-06,0.124
2.320E-06,0.108
2.330E-06,0.112
2.340E-06,0.108
2.350E-06,0.108
2.360E-06,0.108
2.370E-06,0.108
2.380E-06,0.112
2.390E-06,0.108
2.400E-06,0.108
2.410E-06,0.108
2.420E-06,0.104
2.430E-06,0.108
2.440E-06,0.108
2.450E-06,0.108
2.460E-06,0.108
2.470E-06,0.104
2.480E-06,0.108
2.490E-06,0.104
2.500E-06,0.104
2.510E-06,0.108
2.520E-06,0.108
2.530E-06,0.104
2.540E-06,0.104
2.550E-06,0.108
2.560E-06,0.108
2.570E-06,0.104
2.580E-06,0.104
2.590E-06,0.104
2.600E-06,0.104
2.610E-06,0.104
2.620E-06,0.104
2.630E-06,0.108
2.640E-06,0.112
2.650E-06,0.108
2.660E-06,0.108
2.670E-06,0.108
2.680E-06,0.104
2.690E-06,0.100
2.700E-06,0.104
2.710E-06,0.104
2.720E-06,0.104
2.730E-06,0.104
2.740E-06,0.104
2.750E-06,0.108
2.760E-06,0.100
2.770E-06,0.108
2.780E-06,0.108
2.790E-06,0.100
2.800E-06,0.100
2.810E-06,0.104
2.820E-06,0.104
2.830E-06,0.108
2.840E-06,0.112
2.850E-06,0.112
2.860E-06,0.112
2.870E-06,0.104
2.880E-06,0.096
2.890E-06,0.092
2.900E-06,0.096
2.910E-06,0.096
2.920E-06,0.104
2.930E-06,0.104
2.940E-06,0.104
2.950E-06,0.100
2.960E-06,0.096
2.970E-06,0.096
2.980E-06,0.092
2.990E-06,0.096
3.000E-06,0.100
3.010E-06,0.100
3.020E-06,0.100
3.030E-06,0.100
3.040E-06,0.092
3.050E-06,0.092
3.060E-06,0.088
3.070E-06,0.096
3.080E-06,0.092
3.090E-06,0.096
3.100E-06,0.096
3.110E-06,0.092
3.120E-06,0.092
3.130E-06,0.092
3.140E-06,0.092
3.150E-06,0.092
3.160E-06,0.092
3.170E-06,0.088
3.180E-06,0.092
3.190E-06,0.092
3.200E-06,0.088
3.210E-06,0.092
3.220E-06,0.088
3.230E-06,0.088
3.240E-06,0.088
3.250E-06,0.084
3.260E-06,0.092
3.270E-06,0.088
3.280E-06,0.088
3.290E-06,0.084
3.300E-06,0.088
3.310E-06,0.088
3.320E-06,0.088
3.330E-06,0.088
3.340E-06,0.084
3.350E-06,0.088
3.360E-06,0.084
3.370E-06,0.076
3.380E-06,0.080
3.390E-06,0.080
3.400E-06,0.080
3.410E-06,0.084
3.420E-06,0.088
3.430E-06,0.080
3.440E-06,0.080
3.450E-06,0.084
3.460E-06,0.088
3.470E-06,0.084
3.480E-06,0.084
3.490E-06,0.084
