mediciones/5-27/-52.5/WaveData50252.csv

#timebase=2000000(ps)
,#voltbase=100000(mv/100)
#size=4000
-8.400E-06,0.000
-8.390E-06,0.000
-8.380E-06,0.004
-8.370E-06,0.004
-8.360E-06,0.000
-8.350E-06,0.004
-8.340E-06,0.004
-8.330E-06,0.000
-8.320E-06,0.004
-8.310E-06,0.000
-8.300E-06,0.000
-8.290E-06,0.004
-8.280E-06,0.000
-8.270E-06,0.004
-8.260E-06,0.000
-8.250E-06,0.004
-8.240E-06,0.000
-8.230E-06,0.004
-8.220E-06,0.000
-8.210E-06,-0.004
-8.200E-06,0.004
-8.190E-06,0.000
-8.180E-06,0.000
-8.170E-06,0.004
-8.160E-06,0.004
-8.150E-06,0.004
-8.140E-06,0.004
-8.130E-06,0.000
-8.120E-06,0.004
-8.110E-06,0.004
-8.100E-06,0.000
-8.090E-06,0.004
-8.080E-06,0.004
-8.070E-06,0.004
-8.060E-06,0.004
-8.050E-06,0.004
-8.040E-06,0.004
-8.030E-06,0.004
-8.020E-06,0.004
-8.010E-06,0.000
-8.000E-06,0.008
-7.990E-06,0.004
-7.980E-06,-0.004
-7.970E-06,0.000
-7.960E-06,0.004
-7.950E-06,0.000
-7.940E-06,0.004
-7.930E-06,0.004
-7.920E-06,0.000
-7.910E-06,0.008
-7.900E-06,-0.004
-7.890E-06,0.004
-7.880E-06,0.000
-7.870E-06,0.004
-7.860E-06,0.004
-7.850E-06,0.004
-7.840E-06,0.000
-7.830E-06,0.000
-7.820E-06,0.004
-7.810E-06,0.004
-7.800E-06,0.004
-7.790E-06,0.004
-7.780E-06,0.004
-7.770E-06,0.004
-7.760E-06,0.000
-7.750E-06,0.000
-7.740E-06,0.000
-7.730E-06,0.004
-7.720E-06,0.004
-7.710E-06,0.004
-7.700E-06,0.004
-7.690E-06,0.008
-7.680E-06,-0.004
-7.670E-06,0.004
-7.660E-06,0.004
-7.650E-06,0.004
-7.640E-06,0.000
-7.630E-06,0.004
-7.620E-06,0.004
-7.610E-06,0.000
-7.600E-06,0.000
-7.590E-06,0.004
-7.580E-06,0.004
-7.570E-06,0.004
-7.560E-06,0.000
-7.550E-06,0.004
-7.540E-06,0.004
-7.530E-06,0.004
-7.520E-06,0.000
-7.510E-06,-0.004
-7.500E-06,0.004
-7.490E-06,0.004
-7.480E-06,0.004
-7.470E-06,0.004
-7.460E-06,0.008
-7.450E-06,0.000
-7.440E-06,0.000
-7.430E-06,0.004
-7.420E-06,0.004
-7.410E-06,0.008
-7.400E-06,0.000
-7.390E-06,0.004
-7.380E-06,0.004
-7.370E-06,0.004
-7.360E-06,0.008
-7.350E-06,0.024
-7.340E-06,0.056
-7.330E-06,0.080
-7.320E-06,0.088
-7.310E-06,0.040
-7.300E-06,-0.020
-7.290E-06,-0.080
-7.280E-06,-0.108
-7.270E-06,-0.076
-7.260E-06,-0.012
-7.250E-06,0.044
-7.240E-06,0.056
-7.230E-06,0.028
-7.220E-06,-0.004
-7.210E-06,-0.036
-7.200E-06,-0.012
-7.190E-06,0.020
-7.180E-06,0.048
-7.170E-06,0.056
-7.160E-06,0.024
-7.150E-06,0.000
-7.140E-06,-0.028
-7.130E-06,-0.028
-7.120E-06,-0.020
-7.110E-06,0.000
-7.100E-06,0.024
-7.090E-06,0.016
-7.080E-06,0.012
-7.070E-06,0.012
-7.060E-06,0.016
-7.050E-06,0.020
-7.040E-06,0.012
-7.030E-06,0.008
-7.020E-06,0.000
-7.010E-06,-0.004
-7.000E-06,-0.008
-6.990E-06,-0.004
-6.980E-06,0.000
-6.970E-06,-0.008
-6.960E-06,-0.016
-6.950E-06,-0.016
-6.940E-06,-0.012
-6.930E-06,0.000
-6.920E-06,0.004
-6.910E-06,0.012
-6.900E-06,0.020
-6.890E-06,0.016
-6.880E-06,0.012
-6.870E-06,0.004
-6.860E-06,0.004
-6.850E-06,0.004
-6.840E-06,0.004
-6.830E-06,0.000
-6.820E-06,-0.004
-6.810E-06,-0.004
-6.800E-06,-0.008
-6.790E-06,-0.004
-6.780E-06,0.000
-6.770E-06,0.008
-6.760E-06,0.004
-6.750E-06,0.008
-6.740E-06,0.008
-6.730E-06,0.008
-6.720E-06,0.008
-6.710E-06,0.008
-6.700E-06,0.008
-6.690E-06,0.004
-6.680E-06,0.000
-6.670E-06,-0.004
-6.660E-06,0.004
-6.650E-06,-0.004
-6.640E-06,0.000
-6.630E-06,0.000
-6.620E-06,0.000
-6.610E-06,-0.004
-6.600E-06,0.004
-6.590E-06,0.000
-6.580E-06,0.004
-6.570E-06,0.008
-6.560E-06,0.004
-6.550E-06,0.008
-6.540E-06,0.008
-6.530E-06,0.004
-6.520E-06,0.004
-6.510E-06,0.004
-6.500E-06,0.008
-6.490E-06,0.008
-6.480E-06,0.008
-6.470E-06,0.000
-6.460E-06,-0.004
-6.450E-06,-0.008
-6.440E-06,0.000
-6.430E-06,-0.004
-6.420E-06,0.008
-6.410E-06,0.012
-6.400E-06,0.008
-6.390E-06,0.004
-6.380E-06,0.000
-6.370E-06,0.000
-6.360E-06,0.004
-6.350E-06,0.004
-6.340E-06,0.004
-6.330E-06,0.008
-6.320E-06,0.008
-6.310E-06,0.004
-6.300E-06,-0.004
-6.290E-06,0.000
-6.280E-06,0.004
-6.270E-06,0.000
-6.260E-06,0.004
-6.250E-06,0.000
-6.240E-06,0.004
-6.230E-06,0.004
-6.220E-06,0.008
-6.210E-06,0.000
-6.200E-06,0.004
-6.190E-06,0.008
-6.180E-06,0.004
-6.170E-06,0.004
-6.160E-06,0.008
-6.150E-06,0.004
-6.140E-06,0.004
-6.130E-06,0.004
-6.120E-06,0.000
-6.110E-06,0.004
-6.100E-06,0.008
-6.090E-06,0.000
-6.080E-06,0.008
-6.070E-06,0.000
-6.060E-06,0.000
-6.050E-06,0.008
-6.040E-06,0.008
-6.030E-06,0.008
-6.020E-06,0.008
-6.010E-06,0.008
-6.000E-06,0.004
-5.990E-06,0.012
-5.980E-06,0.016
-5.970E-06,0.016
-5.960E-06,0.016
-5.950E-06,0.016
-5.940E-06,0.020
-5.930E-06,0.024
-5.920E-06,0.016
-5.910E-06,0.000
-5.900E-06,-0.020
-5.890E-06,-0.028
-5.880E-06,-0.012
-5.870E-06,0.004
-5.860E-06,0.016
-5.850E-06,0.016
-5.840E-06,0.008
-5.830E-06,-0.008
-5.820E-06,-0.020
-5.810E-06,-0.004
-5.800E-06,-0.004
-5.790E-06,0.004
-5.780E-06,0.004
-5.770E-06,0.008
-5.760E-06,0.012
-5.750E-06,0.000
-5.740E-06,0.000
-5.730E-06,-0.004
-5.720E-06,-0.004
-5.710E-06,0.000
-5.700E-06,0.008
-5.690E-06,0.004
-5.680E-06,0.004
-5.670E-06,0.004
-5.660E-06,0.004
-5.650E-06,-0.004
-5.640E-06,0.000
-5.630E-06,0.004
-5.620E-06,0.012
-5.610E-06,0.004
-5.600E-06,0.004
-5.590E-06,0.008
-5.580E-06,0.008
-5.570E-06,0.012
-5.560E-06,0.012
-5.550E-06,0.012
-5.540E-06,0.008
-5.530E-06,0.012
-5.520E-06,0.008
-5.510E-06,0.004
-5.500E-06,0.008
-5.490E-06,0.000
-5.480E-06,0.000
-5.470E-06,0.008
-5.460E-06,0.004
-5.450E-06,0.012
-5.440E-06,0.012
-5.430E-06,0.012
-5.420E-06,0.012
-5.410E-06,0.004
-5.400E-06,0.000
-5.390E-06,-0.004
-5.380E-06,0.004
-5.370E-06,0.012
-5.360E-06,0.020
-5.350E-06,0.020
-5.340E-06,0.024
-5.330E-06,0.016
-5.320E-06,0.008
-5.310E-06,0.004
-5.300E-06,0.000
-5.290E-06,-0.016
-5.280E-06,-0.012
-5.270E-06,-0.040
-5.260E-06,0.000
-5.250E-06,-0.004
-5.240E-06,0.012
-5.230E-06,0.024
-5.220E-06,0.028
-5.210E-06,0.028
-5.200E-06,0.016
-5.190E-06,0.012
-5.180E-06,0.008
-5.170E-06,0.028
-5.160E-06,0.016
-5.150E-06,0.008
-5.140E-06,-0.016
-5.130E-06,-0.028
-5.120E-06,-0.040
-5.110E-06,-0.020
-5.100E-06,-0.008
-5.090E-06,-0.004
-5.080E-06,-0.004
-5.070E-06,-0.024
-5.060E-06,-0.036
-5.050E-06,-0.032
-5.040E-06,-0.008
-5.030E-06,0.028
-5.020E-06,0.048
-5.010E-06,0.056
-5.000E-06,0.048
-4.990E-06,0.016
-4.980E-06,-0.012
-4.970E-06,-0.020
-4.960E-06,-0.020
-4.950E-06,0.016
-4.940E-06,0.036
-4.930E-06,0.032
-4.920E-06,0.024
-4.910E-06,0.000
-4.900E-06,-0.020
-4.890E-06,-0.036
-4.880E-06,-0.020
-4.870E-06,0.004
-4.860E-06,0.040
-4.850E-06,0.036
-4.840E-06,0.024
-4.830E-06,-0.004
-4.820E-06,-0.016
-4.810E-06,-0.008
-4.800E-06,0.000
-4.790E-06,0.024
-4.780E-06,0.028
-4.770E-06,0.032
-4.760E-06,0.016
-4.750E-06,0.000
-4.740E-06,-0.004
-4.730E-06,0.008
-4.720E-06,0.024
-4.710E-06,0.044
-4.700E-06,0.056
-4.690E-06,0.056
-4.680E-06,0.044
-4.670E-06,0.032
-4.660E-06,0.024
-4.650E-06,0.016
-4.640E-06,0.024
-4.630E-06,0.036
-4.620E-06,0.048
-4.610E-06,0.044
-4.600E-06,0.044
-4.590E-06,0.044
-4.580E-06,0.040
-4.570E-06,0.032
-4.560E-06,0.024
-4.550E-06,0.008
-4.540E-06,-0.004
-4.530E-06,-0.052
-4.520E-06,-0.108
-4.510E-06,-0.168
-4.500E-06,-0.168
-4.490E-06,-0.092
-4.480E-06,0.000
-4.470E-06,0.064
-4.460E-06,0.068
-4.450E-06,0.052
-4.440E-06,0.004
-4.430E-06,-0.040
-4.420E-06,-0.044
-4.410E-06,-0.020
-4.400E-06,0.004
-4.390E-06,0.044
-4.380E-06,0.044
-4.370E-06,0.032
-4.360E-06,0.008
-4.350E-06,-0.012
-4.340E-06,-0.008
-4.330E-06,-0.004
-4.320E-06,0.012
-4.310E-06,0.020
-4.300E-06,0.008
-4.290E-06,-0.004
-4.280E-06,-0.008
-4.270E-06,-0.004
-4.260E-06,-0.004
-4.250E-06,0.008
-4.240E-06,0.008
-4.230E-06,0.008
-4.220E-06,0.012
-4.210E-06,0.004
-4.200E-06,0.012
-4.190E-06,0.024
-4.180E-06,0.040
-4.170E-06,0.028
-4.160E-06,0.024
-4.150E-06,0.012
-4.140E-06,-0.004
-4.130E-06,-0.004
-4.120E-06,-0.004
-4.110E-06,-0.024
-4.100E-06,-0.008
-4.090E-06,-0.008
-4.080E-06,0.008
-4.070E-06,0.024
-4.060E-06,0.044
-4.050E-06,0.064
-4.040E-06,0.060
-4.030E-06,0.056
-4.020E-06,0.052
-4.010E-06,0.004
-4.000E-06,-0.060
-3.990E-06,-0.080
-3.980E-06,-0.104
-3.970E-06,-0.072
-3.960E-06,0.004
-3.950E-06,0.032
-3.940E-06,0.048
-3.930E-06,0.044
-3.920E-06,0.012
-3.910E-06,-0.024
-3.900E-06,-0.068
-3.890E-06,-0.052
-3.880E-06,-0.036
-3.870E-06,0.004
-3.860E-06,-0.028
-3.850E-06,0.004
-3.840E-06,0.012
-3.830E-06,0.004
-3.820E-06,-0.008
-3.810E-06,-0.028
-3.800E-06,-0.008
-3.790E-06,-0.004
-3.780E-06,0.000
-3.770E-06,-0.028
-3.760E-06,-0.020
-3.750E-06,-0.004
-3.740E-06,0.012
-3.730E-06,0.020
-3.720E-06,0.008
-3.710E-06,-0.004
-3.700E-06,-0.020
-3.690E-06,-0.012
-3.680E-06,-0.008
-3.670E-06,0.012
-3.660E-06,0.028
-3.650E-06,0.020
-3.640E-06,0.012
-3.630E-06,-0.004
-3.620E-06,-0.008
-3.610E-06,-0.008
-3.600E-06,-0.004
-3.590E-06,0.016
-3.580E-06,0.012
-3.570E-06,0.012
-3.560E-06,0.004
-3.550E-06,0.008
-3.540E-06,0.000
-3.530E-06,-0.004
-3.520E-06,0.008
-3.510E-06,0.012
-3.500E-06,-0.004
-3.490E-06,0.000
-3.480E-06,0.004
-3.470E-06,0.016
-3.460E-06,0.016
-3.450E-06,0.020
-3.440E-06,0.016
-3.430E-06,0.008
-3.420E-06,0.004
-3.410E-06,0.008
-3.400E-06,0.008
-3.390E-06,0.020
-3.380E-06,0.024
-3.370E-06,0.012
-3.360E-06,0.012
-3.350E-06,0.020
-3.340E-06,0.020
-3.330E-06,0.028
-3.320E-06,0.028
-3.310E-06,0.024
-3.300E-06,0.028
-3.290E-06,0.024
-3.280E-06,0.020
-3.270E-06,0.024
-3.260E-06,0.024
-3.250E-06,0.020
-3.240E-06,0.020
-3.230E-06,0.024
-3.220E-06,0.020
-3.210E-06,0.024
-3.200E-06,0.032
-3.190E-06,0.028
-3.180E-06,0.024
-3.170E-06,0.016
-3.160E-06,0.012
-3.150E-06,0.008
-3.140E-06,0.008
-3.130E-06,0.012
-3.120E-06,0.012
-3.110E-06,0.008
-3.100E-06,0.004
-3.090E-06,0.008
-3.080E-06,0.012
-3.070E-06,0.024
-3.060E-06,0.024
-3.050E-06,-0.024
-3.040E-06,-0.104
-3.030E-06,-0.172
-3.020E-06,-0.172
-3.010E-06,-0.104
-3.000E-06,-0.004
-2.990E-06,0.092
-2.980E-06,0.096
-2.970E-06,0.060
-2.960E-06,-0.024
-2.950E-06,-0.084
-2.940E-06,-0.084
-2.930E-06,-0.044
-2.920E-06,0.024
-2.910E-06,0.056
-2.900E-06,0.048
-2.890E-06,0.004
-2.880E-06,-0.024
-2.870E-06,-0.040
-2.860E-06,-0.024
-2.850E-06,0.000
-2.840E-06,0.028
-2.830E-06,0.020
-2.820E-06,0.012
-2.810E-06,-0.004
-2.800E-06,-0.016
-2.790E-06,-0.008
-2.780E-06,0.000
-2.770E-06,0.012
-2.760E-06,0.020
-2.750E-06,0.004
-2.740E-06,-0.004
-2.730E-06,-0.008
-2.720E-06,-0.012
-2.710E-06,0.000
-2.700E-06,0.008
-2.690E-06,0.012
-2.680E-06,0.016
-2.670E-06,0.012
-2.660E-06,0.004
-2.650E-06,0.000
-2.640E-06,0.000
-2.630E-06,0.004
-2.620E-06,0.012
-2.610E-06,0.012
-2.600E-06,0.016
-2.590E-06,0.008
-2.580E-06,0.004
-2.570E-06,0.004
-2.560E-06,0.000
-2.550E-06,0.008
-2.540E-06,0.012
-2.530E-06,0.012
-2.520E-06,0.012
-2.510E-06,0.020
-2.500E-06,0.020
-2.490E-06,0.016
-2.480E-06,0.016
-2.470E-06,0.004
-2.460E-06,0.008
-2.450E-06,0.012
-2.440E-06,0.024
-2.430E-06,0.024
-2.420E-06,0.016
-2.410E-06,0.024
-2.400E-06,0.020
-2.390E-06,0.024
-2.380E-06,0.020
-2.370E-06,0.028
-2.360E-06,0.024
-2.350E-06,0.028
-2.340E-06,0.020
-2.330E-06,0.028
-2.320E-06,0.036
-2.310E-06,0.032
-2.300E-06,0.036
-2.290E-06,0.048
-2.280E-06,0.056
-2.270E-06,0.064
-2.260E-06,0.084
-2.250E-06,0.092
-2.240E-06,0.088
-2.230E-06,0.092
-2.220E-06,0.072
-2.210E-06,0.076
-2.200E-06,0.024
-2.190E-06,-0.052
-2.180E-06,-0.168
-2.170E-06,-0.280
-2.160E-06,-0.300
-2.150E-06,-0.232
-2.140E-06,-0.056
-2.130E-06,0.064
-2.120E-06,0.132
-2.110E-06,0.092
-2.100E-06,0.012
-2.090E-06,-0.088
-2.080E-06,-0.124
-2.070E-06,-0.064
-2.060E-06,0.024
-2.050E-06,0.076
-2.040E-06,0.064
-2.030E-06,0.024
-2.020E-06,-0.044
-2.010E-06,-0.060
-2.000E-06,-0.044
-1.990E-06,0.004
-1.980E-06,0.028
-1.970E-06,0.024
-1.960E-06,0.012
-1.950E-06,-0.024
-1.940E-06,-0.020
-1.930E-06,-0.016
-1.920E-06,0.000
-1.910E-06,0.024
-1.900E-06,0.024
-1.890E-06,0.020
-1.880E-06,0.012
-1.870E-06,-0.008
-1.860E-06,-0.008
-1.850E-06,-0.008
-1.840E-06,0.004
-1.830E-06,0.016
-1.820E-06,0.012
-1.810E-06,0.012
-1.800E-06,0.004
-1.790E-06,0.004
-1.780E-06,-0.008
-1.770E-06,0.008
-1.760E-06,0.016
-1.750E-06,0.016
-1.740E-06,0.012
-1.730E-06,0.016
-1.720E-06,0.024
-1.710E-06,0.016
-1.700E-06,0.004
-1.690E-06,-0.008
-1.680E-06,-0.020
-1.670E-06,-0.024
-1.660E-06,0.020
-1.650E-06,0.032
-1.640E-06,0.044
-1.630E-06,0.036
-1.620E-06,0.008
-1.610E-06,-0.008
-1.600E-06,-0.020
-1.590E-06,0.004
-1.580E-06,0.040
-1.570E-06,0.052
-1.560E-06,0.048
-1.550E-06,0.028
-1.540E-06,0.004
-1.530E-06,0.004
-1.520E-06,0.016
-1.510E-06,0.032
-1.500E-06,0.036
-1.490E-06,0.036
-1.480E-06,0.020
-1.470E-06,0.020
-1.460E-06,0.028
-1.450E-06,0.024
-1.440E-06,0.032
-1.430E-06,0.024
-1.420E-06,0.020
-1.410E-06,0.024
-1.400E-06,0.020
-1.390E-06,0.024
-1.380E-06,0.020
-1.370E-06,0.028
-1.360E-06,0.036
-1.350E-06,0.036
-1.340E-06,0.040
-1.330E-06,0.048
-1.320E-06,0.060
-1.310E-06,0.044
-1.300E-06,0.028
-1.290E-06,0.020
-1.280E-06,0.004
-1.270E-06,-0.036
-1.260E-06,-0.084
-1.250E-06,-0.188
-1.240E-06,-0.240
-1.230E-06,-0.236
-1.220E-06,-0.140
-1.210E-06,0.004
-1.200E-06,0.088
-1.190E-06,0.128
-1.180E-06,0.092
-1.170E-06,0.000
-1.160E-06,-0.076
-1.150E-06,-0.084
-1.140E-06,-0.032
-1.130E-06,0.024
-1.120E-06,0.068
-1.110E-06,0.060
-1.100E-06,0.020
-1.090E-06,-0.020
-1.080E-06,-0.028
-1.070E-06,-0.024
-1.060E-06,0.004
-1.050E-06,0.024
-1.040E-06,0.020
-1.030E-06,0.012
-1.020E-06,0.020
-1.010E-06,0.016
-1.000E-06,0.008
-9.900E-07,0.004
-9.800E-07,-0.004
-9.700E-07,-0.004
-9.600E-07,-0.020
-9.500E-07,-0.020
-9.400E-07,-0.012
-9.300E-07,-0.004
-9.200E-07,0.012
-9.100E-07,0.000
-9.000E-07,-0.004
-8.900E-07,-0.008
-8.800E-07,-0.008
-8.700E-07,0.000
-8.600E-07,0.000
-8.500E-07,0.008
-8.400E-07,0.008
-8.300E-07,0.004
-8.200E-07,0.008
-8.100E-07,0.012
-8.000E-07,0.008
-7.900E-07,0.012
-7.800E-07,0.012
-7.700E-07,0.008
-7.600E-07,0.004
-7.500E-07,0.004
-7.400E-07,0.008
-7.300E-07,0.016
-7.200E-07,0.024
-7.100E-07,0.024
-7.000E-07,0.032
-6.900E-07,0.028
-6.800E-07,0.028
-6.700E-07,0.040
-6.600E-07,0.056
-6.500E-07,0.064
-6.400E-07,0.072
-6.300E-07,0.076
-6.200E-07,0.076
-6.100E-07,0.084
-6.000E-07,0.080
-5.900E-07,0.080
-5.800E-07,0.076
-5.700E-07,0.064
-5.600E-07,0.064
-5.500E-07,0.032
-5.400E-07,-0.008
-5.300E-07,-0.072
-5.200E-07,-0.124
-5.100E-07,-0.144
-5.000E-07,-0.136
-4.900E-07,-0.072
-4.800E-07,0.044
-4.700E-07,0.068
-4.600E-07,0.024
-4.500E-07,-0.024
-4.400E-07,-0.108
-4.300E-07,-0.144
-4.200E-07,-0.144
-4.100E-07,-0.060
-4.000E-07,0.028
-3.900E-07,0.064
-3.800E-07,0.064
-3.700E-07,0.048
-3.600E-07,0.000
-3.500E-07,-0.024
-3.400E-07,-0.028
-3.300E-07,-0.008
-3.200E-07,0.012
-3.100E-07,0.040
-3.000E-07,0.060
-2.900E-07,0.024
-2.800E-07,0.012
-2.700E-07,-0.020
-2.600E-07,-0.008
-2.500E-07,0.012
-2.400E-07,0.028
-2.300E-07,0.028
-2.200E-07,0.012
-2.100E-07,0.012
-2.000E-07,0.012
-1.900E-07,0.036
-1.800E-07,0.052
-1.700E-07,0.060
-1.600E-07,0.052
-1.500E-07,0.012
-1.400E-07,-0.024
-1.300E-07,-0.020
-1.200E-07,-0.024
-1.100E-07,0.008
-1.000E-07,0.056
-9.000E-08,0.060
-8.000E-08,0.092
-7.000E-08,0.060
-6.000E-08,0.064
-5.000E-08,0.016
-4.000E-08,0.020
-3.000E-08,0.068
-2.000E-08,0.124
-1.000E-08,0.188
0.000E+00,0.080
1.000E-08,-0.124
2.000E-08,-0.252
3.000E-08,-0.372
4.000E-08,-0.460
5.000E-08,-0.232
6.000E-08,-0.148
7.000E-08,0.120
8.000E-08,0.108
9.000E-08,0.176
1.000E-07,0.088
1.100E-07,-0.084
1.200E-07,-0.140
1.300E-07,-0.080
1.400E-07,0.068
1.500E-07,0.208
1.600E-07,0.132
1.700E-07,0.008
1.800E-07,-0.108
1.900E-07,-0.140
2.000E-07,-0.072
2.100E-07,0.008
2.200E-07,0.072
2.300E-07,0.064
2.400E-07,-0.008
2.500E-07,-0.076
2.600E-07,-0.120
2.700E-07,-0.092
2.800E-07,-0.004
2.900E-07,0.084
3.000E-07,0.124
3.100E-07,0.108
3.200E-07,0.008
3.300E-07,-0.072
3.400E-07,-0.104
3.500E-07,-0.076
3.600E-07,-0.004
3.700E-07,0.068
3.800E-07,0.092
3.900E-07,0.064
4.000E-07,0.004
4.100E-07,-0.056
4.200E-07,-0.076
4.300E-07,-0.056
4.400E-07,-0.004
4.500E-07,0.060
4.600E-07,0.088
4.700E-07,0.072
4.800E-07,0.028
4.900E-07,-0.024
5.000E-07,-0.064
5.100E-07,-0.056
5.200E-07,-0.016
5.300E-07,0.024
5.400E-07,0.064
5.500E-07,0.056
5.600E-07,0.024
5.700E-07,-0.008
5.800E-07,-0.036
5.900E-07,-0.032
6.000E-07,-0.008
6.100E-07,0.032
6.200E-07,0.056
6.300E-07,0.056
6.400E-07,0.036
6.500E-07,0.004
6.600E-07,-0.008
6.700E-07,-0.008
6.800E-07,0.004
6.900E-07,0.028
7.000E-07,0.044
7.100E-07,0.052
7.200E-07,0.044
7.300E-07,0.036
7.400E-07,0.032
7.500E-07,0.032
7.600E-07,0.040
7.700E-07,0.060
7.800E-07,0.080
7.900E-07,0.080
8.000E-07,0.076
8.100E-07,0.072
8.200E-07,0.064
8.300E-07,0.056
8.400E-07,0.048
8.500E-07,0.048
8.600E-07,0.028
8.700E-07,-0.008
8.800E-07,-0.136
8.900E-07,-0.240
9.000E-07,-0.292
9.100E-07,-0.300
9.200E-07,-0.140
9.300E-07,0.056
9.400E-07,0.164
9.500E-07,0.160
9.600E-07,0.076
9.700E-07,-0.060
9.800E-07,-0.132
9.900E-07,-0.124
1.000E-06,-0.024
1.010E-06,0.092
1.020E-06,0.128
1.030E-06,0.072
1.040E-06,-0.012
1.050E-06,-0.068
1.060E-06,-0.052
1.070E-06,-0.008
1.080E-06,0.040
1.090E-06,0.084
1.100E-06,0.084
1.110E-06,-0.020
1.120E-06,-0.104
1.130E-06,-0.132
1.140E-06,-0.100
1.150E-06,-0.004
1.160E-06,0.072
1.170E-06,0.128
1.180E-06,0.100
1.190E-06,0.036
1.200E-06,-0.040
1.210E-06,-0.076
1.220E-06,-0.044
1.230E-06,0.020
1.240E-06,0.072
1.250E-06,0.072
1.260E-06,0.048
1.270E-06,0.008
1.280E-06,-0.028
1.290E-06,-0.028
1.300E-06,-0.004
1.310E-06,0.020
1.320E-06,0.044
1.330E-06,0.056
1.340E-06,0.040
1.350E-06,0.028
1.360E-06,0.016
1.370E-06,0.004
1.380E-06,0.028
1.390E-06,0.060
1.400E-06,0.060
1.410E-06,0.060
1.420E-06,0.044
1.430E-06,0.044
1.440E-06,0.012
1.450E-06,-0.048
1.460E-06,-0.080
1.470E-06,-0.104
1.480E-06,-0.052
1.490E-06,0.028
1.500E-06,0.092
1.510E-06,0.104
1.520E-06,0.052
1.530E-06,-0.008
1.540E-06,-0.056
1.550E-06,-0.016
1.560E-06,0.032
1.570E-06,0.084
1.580E-06,0.088
1.590E-06,0.056
1.600E-06,0.016
1.610E-06,0.012
1.620E-06,0.024
1.630E-06,0.072
1.640E-06,0.100
1.650E-06,0.092
1.660E-06,0.044
1.670E-06,-0.040
1.680E-06,-0.104
1.690E-06,-0.148
1.700E-06,-0.152
1.710E-06,-0.100
1.720E-06,-0.024
1.730E-06,0.032
1.740E-06,0.052
1.750E-06,0.008
1.760E-06,-0.068
1.770E-06,-0.088
1.780E-06,-0.068
1.790E-06,0.000
1.800E-06,0.060
1.810E-06,0.076
1.820E-06,0.028
1.830E-06,-0.036
1.840E-06,-0.076
1.850E-06,-0.064
1.860E-06,0.000
1.870E-06,0.052
1.880E-06,0.064
1.890E-06,0.056
1.900E-06,0.020
1.910E-06,-0.016
1.920E-06,-0.028
1.930E-06,-0.020
1.940E-06,0.024
1.950E-06,0.068
1.960E-06,0.076
1.970E-06,0.076
1.980E-06,0.052
1.990E-06,0.036
2.000E-06,0.032
2.010E-06,0.056
2.020E-06,0.092
2.030E-06,0.104
2.040E-06,0.112
2.050E-06,0.088
2.060E-06,0.076
2.070E-06,-0.028
2.080E-06,-0.276
2.090E-06,-0.332
2.100E-06,-0.376
2.110E-06,-0.152
2.120E-06,-0.036
2.130E-06,0.124
2.140E-06,0.212
2.150E-06,0.092
2.160E-06,-0.052
2.170E-06,-0.200
2.180E-06,-0.152
2.190E-06,0.012
2.200E-06,0.132
2.210E-06,0.136
2.220E-06,0.040
2.230E-06,-0.076
2.240E-06,-0.144
2.250E-06,-0.120
2.260E-06,-0.028
2.270E-06,0.076
2.280E-06,0.088
2.290E-06,0.056
2.300E-06,-0.016
2.310E-06,-0.076
2.320E-06,-0.064
2.330E-06,-0.032
2.340E-06,0.020
2.350E-06,0.060
2.360E-06,0.060
2.370E-06,0.040
2.380E-06,0.004
2.390E-06,-0.036
2.400E-06,-0.040
2.410E-06,-0.028
2.420E-06,0.000
2.430E-06,0.036
2.440E-06,0.044
2.450E-06,0.036
2.460E-06,0.012
2.470E-06,-0.024
2.480E-06,-0.036
2.490E-06,-0.016
2.500E-06,0.004
2.510E-06,0.040
2.520E-06,0.052
2.530E-06,0.036
2.540E-06,0.016
2.550E-06,-0.008
2.560E-06,-0.024
2.570E-06,-0.020
2.580E-06,0.000
2.590E-06,0.024
2.600E-06,0.032
2.610E-06,0.032
2.620E-06,0.012
2.630E-06,0.004
2.640E-06,-0.004
2.650E-06,0.000
2.660E-06,0.012
2.670E-06,0.024
2.680E-06,0.044
2.690E-06,0.044
2.700E-06,0.032
2.710E-06,0.024
2.720E-06,0.020
2.730E-06,0.028
2.740E-06,0.040
2.750E-06,0.048
2.760E-06,0.064
2.770E-06,0.068
2.780E-06,0.060
2.790E-06,0.060
2.800E-06,0.056
2.810E-06,0.060
2.820E-06,0.060
2.830E-06,0.072
2.840E-06,0.084
2.850E-06,0.084
2.860E-06,0.084
2.870E-06,0.092
2.880E-06,0.088
2.890E-06,0.076
2.900E-06,0.072
2.910E-06,0.056
2.920E-06,0.032
2.930E-06,0.012
2.940E-06,-0.040
2.950E-06,-0.084
2.960E-06,-0.136
2.970E-06,-0.148
2.980E-06,-0.148
2.990E-06,-0.128
3.000E-06,-0.068
3.010E-06,-0.040
3.020E-06,-0.024
3.030E-06,-0.028
3.040E-06,-0.040
3.050E-06,-0.056
3.060E-06,-0.060
3.070E-06,-0.012
3.080E-06,0.020
3.090E-06,0.056
3.100E-06,0.044
3.110E-06,0.012
3.120E-06,-0.012
3.130E-06,-0.028
3.140E-06,0.004
3.150E-06,0.056
3.160E-06,0.088
3.170E-06,0.072
3.180E-06,0.044
3.190E-06,0.012
3.200E-06,-0.012
3.210E-06,-0.028
3.220E-06,-0.004
3.230E-06,0.016
3.240E-06,0.044
3.250E-06,0.056
3.260E-06,0.064
3.270E-06,0.072
3.280E-06,0.056
3.290E-06,0.068
3.300E-06,0.088
3.310E-06,0.076
3.320E-06,0.056
