mediciones/mediciones removidas por ser diferentes/-55/WaveData50281.csv

#timebase=2000000(ps)
,#voltbase=1000000(mv/100)
#size=4000
-3.300E-06,-0.040
-3.290E-06,0.040
-3.280E-06,0.040
-3.270E-06,0.040
-3.260E-06,0.040
-3.250E-06,0.040
-3.240E-06,0.040
-3.230E-06,0.040
-3.220E-06,-0.040
-3.210E-06,0.040
-3.200E-06,0.040
-3.190E-06,-0.040
-3.180E-06,0.000
-3.170E-06,0.040
-3.160E-06,0.040
-3.150E-06,0.080
-3.140E-06,0.120
-3.130E-06,0.040
-3.120E-06,-0.040
-3.110E-06,0.000
-3.100E-06,0.040
-3.090E-06,0.040
-3.080E-06,0.040
-3.070E-06,0.040
-3.060E-06,0.000
-3.050E-06,0.000
-3.040E-06,0.040
-3.030E-06,0.080
-3.020E-06,0.080
-3.010E-06,0.040
-3.000E-06,0.040
-2.990E-06,0.040
-2.980E-06,0.120
-2.970E-06,-0.040
-2.960E-06,0.040
-2.950E-06,0.120
-2.940E-06,0.040
-2.930E-06,0.080
-2.920E-06,0.120
-2.910E-06,0.040
-2.900E-06,0.080
-2.890E-06,0.040
-2.880E-06,0.080
-2.870E-06,0.080
-2.860E-06,0.080
-2.850E-06,0.040
-2.840E-06,0.040
-2.830E-06,0.000
-2.820E-06,0.040
-2.810E-06,0.040
-2.800E-06,0.080
-2.790E-06,0.000
-2.780E-06,0.000
-2.770E-06,0.000
-2.760E-06,0.080
-2.750E-06,0.000
-2.740E-06,0.000
-2.730E-06,0.040
-2.720E-06,0.040
-2.710E-06,0.040
-2.700E-06,0.080
-2.690E-06,0.080
-2.680E-06,0.040
-2.670E-06,0.080
-2.660E-06,0.040
-2.650E-06,0.120
-2.640E-06,0.120
-2.630E-06,0.000
-2.620E-06,0.080
-2.610E-06,0.040
-2.600E-06,0.040
-2.590E-06,0.000
-2.580E-06,0.080
-2.570E-06,0.080
-2.560E-06,0.040
-2.550E-06,0.040
-2.540E-06,0.040
-2.530E-06,0.040
-2.520E-06,0.040
-2.510E-06,0.000
-2.500E-06,0.080
-2.490E-06,-0.040
-2.480E-06,0.040
-2.470E-06,0.080
-2.460E-06,0.040
-2.450E-06,0.040
-2.440E-06,0.080
-2.430E-06,0.000
-2.420E-06,0.080
-2.410E-06,0.120
-2.400E-06,0.040
-2.390E-06,0.120
-2.380E-06,0.120
-2.370E-06,0.080
-2.360E-06,0.080
-2.350E-06,0.000
-2.340E-06,0.040
-2.330E-06,0.080
-2.320E-06,0.000
-2.310E-06,0.000
-2.300E-06,0.080
-2.290E-06,0.080
-2.280E-06,0.080
-2.270E-06,0.000
-2.260E-06,0.040
-2.250E-06,0.080
-2.240E-06,0.040
-2.230E-06,0.080
-2.220E-06,0.000
-2.210E-06,0.040
-2.200E-06,0.040
-2.190E-06,0.040
-2.180E-06,0.040
-2.170E-06,0.080
-2.160E-06,0.040
-2.150E-06,0.080
-2.140E-06,0.080
-2.130E-06,0.080
-2.120E-06,0.040
-2.110E-06,0.080
-2.100E-06,0.040
-2.090E-06,0.040
-2.080E-06,0.040
-2.070E-06,0.040
-2.060E-06,0.080
-2.050E-06,0.080
-2.040E-06,0.000
-2.030E-06,0.040
-2.020E-06,0.040
-2.010E-06,0.040
-2.000E-06,0.040
-1.990E-06,0.040
-1.980E-06,0.040
-1.970E-06,0.000
-1.960E-06,0.040
-1.950E-06,0.000
-1.940E-06,0.000
-1.930E-06,0.000
-1.920E-06,0.000
-1.910E-06,0.000
-1.900E-06,0.040
-1.890E-06,0.040
-1.880E-06,0.080
-1.870E-06,0.040
-1.860E-06,0.040
-1.850E-06,0.040
-1.840E-06,0.000
-1.830E-06,0.080
-1.820E-06,0.160
-1.810E-06,0.040
-1.800E-06,0.120
-1.790E-06,0.080
-1.780E-06,0.040
-1.770E-06,0.080
-1.760E-06,0.080
-1.750E-06,0.120
-1.740E-06,0.160
-1.730E-06,0.080
-1.720E-06,0.040
-1.710E-06,0.000
-1.700E-06,0.000
-1.690E-06,0.040
-1.680E-06,0.080
-1.670E-06,0.000
-1.660E-06,0.080
-1.650E-06,0.000
-1.640E-06,0.040
-1.630E-06,0.040
-1.620E-06,0.040
-1.610E-06,0.080
-1.600E-06,0.080
-1.590E-06,0.000
-1.580E-06,0.000
-1.570E-06,0.040
-1.560E-06,0.080
-1.550E-06,0.040
-1.540E-06,0.040
-1.530E-06,0.040
-1.520E-06,0.000
-1.510E-06,0.080
-1.500E-06,0.080
-1.490E-06,0.080
-1.480E-06,0.040
-1.470E-06,0.040
-1.460E-06,-0.040
-1.450E-06,-0.040
-1.440E-06,0.040
-1.430E-06,0.000
-1.420E-06,0.080
-1.410E-06,0.040
-1.400E-06,0.000
-1.390E-06,0.040
-1.380E-06,0.040
-1.370E-06,0.000
-1.360E-06,0.040
-1.350E-06,0.040
-1.340E-06,0.120
-1.330E-06,0.000
-1.320E-06,0.000
-1.310E-06,0.080
-1.300E-06,0.000
-1.290E-06,0.040
-1.280E-06,0.080
-1.270E-06,0.040
-1.260E-06,0.040
-1.250E-06,0.040
-1.240E-06,0.040
-1.230E-06,0.120
-1.220E-06,0.080
-1.210E-06,0.040
-1.200E-06,0.040
-1.190E-06,0.040
-1.180E-06,0.040
-1.170E-06,0.000
-1.160E-06,0.080
-1.150E-06,0.040
-1.140E-06,0.000
-1.130E-06,0.000
-1.120E-06,0.040
-1.110E-06,0.000
-1.100E-06,0.040
-1.090E-06,0.080
-1.080E-06,0.080
-1.070E-06,0.040
-1.060E-06,0.080
-1.050E-06,0.080
-1.040E-06,0.000
-1.030E-06,0.040
-1.020E-06,0.080
-1.010E-06,0.120
-1.000E-06,0.120
-9.900E-07,0.040
-9.800E-07,0.040
-9.700E-07,0.000
-9.600E-07,0.040
-9.500E-07,0.080
-9.400E-07,0.040
-9.300E-07,0.040
-9.200E-07,0.040
-9.100E-07,0.040
-9.000E-07,0.000
-8.900E-07,0.040
-8.800E-07,0.080
-8.700E-07,0.080
-8.600E-07,0.080
-8.500E-07,0.000
-8.400E-07,0.040
-8.300E-07,0.040
-8.200E-07,-0.040
-8.100E-07,0.080
-8.000E-07,0.000
-7.900E-07,0.040
-7.800E-07,0.120
-7.700E-07,0.000
-7.600E-07,0.160
-7.500E-07,0.080
-7.400E-07,0.080
-7.300E-07,0.080
-7.200E-07,0.000
-7.100E-07,0.120
-7.000E-07,0.040
-6.900E-07,0.080
-6.800E-07,0.080
-6.700E-07,0.080
-6.600E-07,0.040
-6.500E-07,0.040
-6.400E-07,0.040
-6.300E-07,0.040
-6.200E-07,0.080
-6.100E-07,0.000
-6.000E-07,0.000
-5.900E-07,0.040
-5.800E-07,0.040
-5.700E-07,0.040
-5.600E-07,0.080
-5.500E-07,0.000
-5.400E-07,0.000
-5.300E-07,0.040
-5.200E-07,0.080
-5.100E-07,0.120
-5.000E-07,0.040
-4.900E-07,0.040
-4.800E-07,0.040
-4.700E-07,-0.040
-4.600E-07,0.040
-4.500E-07,0.040
-4.400E-07,0.080
-4.300E-07,0.120
-4.200E-07,0.000
-4.100E-07,0.000
-4.000E-07,0.000
-3.900E-07,0.040
-3.800E-07,0.000
-3.700E-07,0.040
-3.600E-07,0.040
-3.500E-07,0.000
-3.400E-07,0.040
-3.300E-07,0.000
-3.200E-07,0.040
-3.100E-07,0.120
-3.000E-07,0.040
-2.900E-07,0.080
-2.800E-07,0.120
-2.700E-07,0.080
-2.600E-07,0.080
-2.500E-07,0.040
-2.400E-07,0.040
-2.300E-07,0.080
-2.200E-07,0.040
-2.100E-07,0.040
-2.000E-07,0.000
-1.900E-07,0.000
-1.800E-07,0.040
-1.700E-07,0.080
-1.600E-07,0.080
-1.500E-07,0.040
-1.400E-07,0.000
-1.300E-07,0.000
-1.200E-07,0.040
-1.100E-07,0.040
-1.000E-07,0.080
-9.000E-08,0.120
-8.000E-08,0.000
-7.000E-08,0.000
-6.000E-08,0.040
-5.000E-08,0.080
-4.000E-08,0.040
-3.000E-08,0.120
-2.000E-08,0.040
-1.000E-08,0.040
0.000E+00,0.040
1.000E-08,0.040
2.000E-08,0.040
3.000E-08,0.040
4.000E-08,0.040
5.000E-08,0.080
6.000E-08,0.040
7.000E-08,0.040
8.000E-08,0.040
9.000E-08,0.000
1.000E-07,0.000
1.100E-07,0.080
1.200E-07,0.040
1.300E-07,0.000
1.400E-07,0.040
1.500E-07,0.040
1.600E-07,0.000
1.700E-07,0.040
1.800E-07,0.120
1.900E-07,0.000
2.000E-07,0.040
2.100E-07,0.040
2.200E-07,0.080
2.300E-07,0.080
2.400E-07,0.040
2.500E-07,0.120
2.600E-07,0.000
2.700E-07,0.040
2.800E-07,0.040
2.900E-07,0.040
3.000E-07,0.080
3.100E-07,0.080
3.200E-07,0.000
3.300E-07,0.040
3.400E-07,0.040
3.500E-07,0.040
3.600E-07,0.080
3.700E-07,0.040
3.800E-07,0.040
3.900E-07,0.040
4.000E-07,0.080
4.100E-07,0.040
4.200E-07,0.080
4.300E-07,0.080
4.400E-07,0.040
4.500E-07,0.080
4.600E-07,0.040
4.700E-07,0.000
4.800E-07,0.080
4.900E-07,0.080
5.000E-07,0.080
5.100E-07,0.040
5.200E-07,0.040
5.300E-07,0.000
5.400E-07,0.040
5.500E-07,0.040
5.600E-07,0.040
5.700E-07,0.040
5.800E-07,0.040
5.900E-07,0.040
6.000E-07,0.040
6.100E-07,0.000
6.200E-07,0.000
6.300E-07,0.080
6.400E-07,0.000
6.500E-07,0.040
6.600E-07,0.040
6.700E-07,0.040
6.800E-07,0.000
6.900E-07,0.080
7.000E-07,0.000
7.100E-07,0.000
7.200E-07,0.120
7.300E-07,0.000
7.400E-07,0.040
7.500E-07,0.120
7.600E-07,0.000
7.700E-07,0.040
7.800E-07,0.080
7.900E-07,0.080
8.000E-07,0.080
8.100E-07,0.040
8.200E-07,0.000
8.300E-07,0.000
8.400E-07,0.040
8.500E-07,0.080
8.600E-07,0.040
8.700E-07,0.000
8.800E-07,0.080
8.900E-07,0.040
9.000E-07,0.040
9.100E-07,0.040
9.200E-07,0.040
9.300E-07,0.040
9.400E-07,0.080
9.500E-07,0.040
9.600E-07,0.000
9.700E-07,0.080
9.800E-07,0.120
9.900E-07,0.040
1.000E-06,0.040
1.010E-06,0.040
1.020E-06,0.040
1.030E-06,0.000
1.040E-06,0.080
1.050E-06,0.080
1.060E-06,0.040
1.070E-06,0.080
1.080E-06,0.080
1.090E-06,0.080
1.100E-06,0.120
1.110E-06,0.000
1.120E-06,0.000
1.130E-06,0.040
1.140E-06,0.080
1.150E-06,0.080
1.160E-06,0.080
1.170E-06,0.120
1.180E-06,0.120
1.190E-06,0.080
1.200E-06,0.080
1.210E-06,0.080
1.220E-06,0.040
1.230E-06,0.000
1.240E-06,0.040
1.250E-06,0.040
1.260E-06,0.000
1.270E-06,0.000
1.280E-06,0.000
1.290E-06,0.000
1.300E-06,0.040
1.310E-06,0.040
1.320E-06,0.000
1.330E-06,0.000
1.340E-06,0.000
1.350E-06,0.000
1.360E-06,-0.040
1.370E-06,0.000
1.380E-06,0.000
1.390E-06,0.040
1.400E-06,0.000
1.410E-06,0.000
1.420E-06,0.040
1.430E-06,0.040
1.440E-06,0.080
1.450E-06,0.040
1.460E-06,0.080
1.470E-06,0.040
1.480E-06,0.040
1.490E-06,0.080
1.500E-06,0.120
1.510E-06,0.040
1.520E-06,0.080
1.530E-06,0.080
1.540E-06,0.080
1.550E-06,0.120
1.560E-06,0.040
1.570E-06,0.040
1.580E-06,0.080
1.590E-06,0.120
1.600E-06,0.120
1.610E-06,0.080
1.620E-06,0.000
1.630E-06,0.040
1.640E-06,0.080
1.650E-06,0.080
1.660E-06,0.040
1.670E-06,0.080
1.680E-06,0.000
1.690E-06,0.080
1.700E-06,0.120
1.710E-06,0.040
1.720E-06,0.040
1.730E-06,0.080
1.740E-06,0.120
1.750E-06,0.080
1.760E-06,0.120
1.770E-06,0.120
1.780E-06,0.120
1.790E-06,0.040
1.800E-06,0.040
1.810E-06,0.040
1.820E-06,0.000
1.830E-06,0.080
1.840E-06,0.120
1.850E-06,0.120
1.860E-06,0.040
1.870E-06,0.000
1.880E-06,0.000
1.890E-06,0.080
1.900E-06,0.080
1.910E-06,0.040
1.920E-06,0.040
1.930E-06,0.040
1.940E-06,0.040
1.950E-06,-0.040
1.960E-06,0.080
1.970E-06,0.080
1.980E-06,0.080
1.990E-06,0.080
2.000E-06,0.040
2.010E-06,0.040
2.020E-06,0.040
2.030E-06,0.040
2.040E-06,0.080
2.050E-06,0.080
2.060E-06,0.080
2.070E-06,0.040
2.080E-06,0.000
2.090E-06,0.080
2.100E-06,0.080
2.110E-06,0.000
2.120E-06,0.040
2.130E-06,0.080
2.140E-06,0.040
2.150E-06,0.040
2.160E-06,0.080
2.170E-06,0.160
2.180E-06,0.120
2.190E-06,0.080
2.200E-06,0.040
2.210E-06,0.080
2.220E-06,0.080
2.230E-06,0.080
2.240E-06,0.160
2.250E-06,0.160
2.260E-06,0.080
2.270E-06,-0.040
2.280E-06,0.160
2.290E-06,0.080
2.300E-06,0.200
2.310E-06,0.240
2.320E-06,0.120
2.330E-06,0.040
2.340E-06,-0.080
2.350E-06,-0.080
2.360E-06,0.000
2.370E-06,0.040
2.380E-06,0.200
2.390E-06,0.160
2.400E-06,-0.040
2.410E-06,-0.040
2.420E-06,-0.080
2.430E-06,0.000
2.440E-06,0.040
2.450E-06,0.080
2.460E-06,0.040
2.470E-06,0.000
2.480E-06,0.040
2.490E-06,0.040
2.500E-06,0.120
2.510E-06,0.200
2.520E-06,0.200
2.530E-06,0.080
2.540E-06,0.160
2.550E-06,0.280
2.560E-06,0.160
2.570E-06,0.400
2.580E-06,0.400
2.590E-06,0.240
2.600E-06,0.480
2.610E-06,0.360
2.620E-06,0.520
2.630E-06,0.480
2.640E-06,0.520
2.650E-06,0.480
2.660E-06,0.200
2.670E-06,0.320
2.680E-06,0.280
2.690E-06,0.400
2.700E-06,0.480
2.710E-06,0.360
2.720E-06,0.320
2.730E-06,0.120
2.740E-06,0.080
2.750E-06,0.200
2.760E-06,0.200
2.770E-06,0.240
2.780E-06,0.240
2.790E-06,0.160
2.800E-06,0.080
2.810E-06,0.000
2.820E-06,0.080
2.830E-06,0.080
2.840E-06,0.160
2.850E-06,0.160
2.860E-06,0.080
2.870E-06,0.040
2.880E-06,-0.080
2.890E-06,-0.040
2.900E-06,-0.040
2.910E-06,0.120
2.920E-06,0.120
2.930E-06,0.040
2.940E-06,0.080
2.950E-06,0.040
2.960E-06,0.160
2.970E-06,0.040
2.980E-06,0.120
2.990E-06,0.160
3.000E-06,0.080
3.010E-06,0.120
3.020E-06,0.120
3.030E-06,0.160
3.040E-06,0.240
3.050E-06,0.240
3.060E-06,0.280
3.070E-06,0.160
3.080E-06,0.200
3.090E-06,0.160
3.100E-06,0.320
3.110E-06,0.360
3.120E-06,0.400
3.130E-06,0.400
3.140E-06,0.320
3.150E-06,0.280
3.160E-06,0.200
3.170E-06,0.240
3.180E-06,0.320
3.190E-06,0.360
3.200E-06,0.320
3.210E-06,0.200
3.220E-06,0.200
3.230E-06,0.040
3.240E-06,0.040
3.250E-06,0.040
3.260E-06,0.080
3.270E-06,0.360
3.280E-06,0.360
3.290E-06,0.320
3.300E-06,0.200
3.310E-06,0.080
3.320E-06,0.160
3.330E-06,0.080
3.340E-06,0.160
3.350E-06,0.280
3.360E-06,0.320
3.370E-06,0.280
3.380E-06,0.240
3.390E-06,0.160
3.400E-06,0.160
3.410E-06,0.360
3.420E-06,0.320
3.430E-06,0.360
3.440E-06,0.320
3.450E-06,0.280
3.460E-06,0.280
3.470E-06,0.280
3.480E-06,0.240
3.490E-06,0.280
3.500E-06,0.160
3.510E-06,0.240
3.520E-06,0.320
3.530E-06,0.320
3.540E-06,0.400
3.550E-06,0.280
3.560E-06,0.280
3.570E-06,0.240
3.580E-06,0.240
3.590E-06,0.360
3.600E-06,0.320
3.610E-06,0.320
3.620E-06,0.320
3.630E-06,0.280
3.640E-06,0.280
3.650E-06,0.280
3.660E-06,0.240
3.670E-06,0.320
3.680E-06,0.280
3.690E-06,0.240
3.700E-06,0.240
3.710E-06,0.240
3.720E-06,0.240
3.730E-06,0.200
3.740E-06,0.240
3.750E-06,0.200
3.760E-06,0.120
3.770E-06,0.120
3.780E-06,0.160
3.790E-06,0.120
3.800E-06,0.080
3.810E-06,0.160
3.820E-06,0.120
3.830E-06,0.080
3.840E-06,0.080
3.850E-06,0.080
3.860E-06,0.080
3.870E-06,0.120
3.880E-06,0.200
3.890E-06,0.160
3.900E-06,0.160
3.910E-06,0.200
3.920E-06,0.200
3.930E-06,0.280
3.940E-06,0.200
3.950E-06,0.200
3.960E-06,0.200
3.970E-06,0.160
3.980E-06,0.160
3.990E-06,0.240
4.000E-06,0.240
4.010E-06,0.200
4.020E-06,0.240
4.030E-06,0.280
4.040E-06,0.240
4.050E-06,0.280
4.060E-06,0.360
4.070E-06,0.360
4.080E-06,0.360
4.090E-06,0.320
4.100E-06,0.360
4.110E-06,0.240
4.120E-06,0.240
4.130E-06,0.240
4.140E-06,0.280
4.150E-06,0.240
4.160E-06,0.320
4.170E-06,0.280
4.180E-06,0.160
4.190E-06,0.160
4.200E-06,0.240
4.210E-06,0.240
4.220E-06,0.320
4.230E-06,0.280
4.240E-06,0.160
4.250E-06,0.160
4.260E-06,0.080
4.270E-06,0.160
4.280E-06,0.200
4.290E-06,0.240
4.300E-06,0.200
4.310E-06,0.120
4.320E-06,0.120
4.330E-06,0.160
4.340E-06,0.160
4.350E-06,0.200
4.360E-06,0.160
4.370E-06,0.160
4.380E-06,0.200
4.390E-06,0.200
4.400E-06,0.200
4.410E-06,0.240
4.420E-06,0.240
4.430E-06,0.160
4.440E-06,0.160
4.450E-06,0.160
4.460E-06,0.080
4.470E-06,0.160
4.480E-06,0.200
4.490E-06,0.120
4.500E-06,0.080
4.510E-06,0.080
4.520E-06,0.040
4.530E-06,0.000
4.540E-06,0.000
4.550E-06,0.040
4.560E-06,0.040
4.570E-06,0.040
4.580E-06,0.000
4.590E-06,0.000
4.600E-06,-0.040
4.610E-06,0.000
4.620E-06,0.000
4.630E-06,0.000
4.640E-06,0.040
4.650E-06,0.040
4.660E-06,0.000
4.670E-06,0.080
4.680E-06,0.040
4.690E-06,0.040
4.700E-06,0.080
4.710E-06,0.000
4.720E-06,0.000
4.730E-06,0.000
4.740E-06,0.080
4.750E-06,0.040
4.760E-06,0.080
4.770E-06,0.160
4.780E-06,0.160
4.790E-06,0.160
4.800E-06,0.160
4.810E-06,0.160
4.820E-06,0.200
4.830E-06,0.160
4.840E-06,0.120
4.850E-06,0.160
4.860E-06,0.160
4.870E-06,0.200
4.880E-06,0.160
4.890E-06,0.120
4.900E-06,0.120
4.910E-06,0.080
4.920E-06,0.160
4.930E-06,0.160
4.940E-06,0.160
4.950E-06,0.200
4.960E-06,0.240
4.970E-06,0.200
4.980E-06,0.200
4.990E-06,0.080
5.000E-06,0.120
5.010E-06,0.160
5.020E-06,0.160
5.030E-06,0.200
5.040E-06,0.240
5.050E-06,0.200
5.060E-06,0.160
5.070E-06,0.160
5.080E-06,0.200
5.090E-06,0.160
5.100E-06,0.160
5.110E-06,0.240
5.120E-06,0.160
5.130E-06,0.120
5.140E-06,0.120
5.150E-06,0.160
5.160E-06,0.160
5.170E-06,0.200
5.180E-06,0.160
5.190E-06,0.160
5.200E-06,0.240
5.210E-06,0.200
5.220E-06,0.120
5.230E-06,0.120
5.240E-06,0.120
5.250E-06,0.120
5.260E-06,0.160
5.270E-06,0.240
5.280E-06,0.200
5.290E-06,0.240
5.300E-06,0.240
5.310E-06,0.200
5.320E-06,0.160
5.330E-06,0.160
5.340E-06,0.160
5.350E-06,-0.080
5.360E-06,0.000
5.370E-06,0.040
5.380E-06,0.080
5.390E-06,0.400
5.400E-06,0.440
5.410E-06,0.320
5.420E-06,0.160
5.430E-06,-0.080
5.440E-06,-0.040
5.450E-06,0.000
5.460E-06,0.120
5.470E-06,0.280
5.480E-06,0.200
5.490E-06,-0.080
5.500E-06,-0.200
5.510E-06,-0.240
5.520E-06,-0.200
5.530E-06,0.120
5.540E-06,0.160
5.550E-06,0.120
5.560E-06,0.080
5.570E-06,-0.120
5.580E-06,-0.200
5.590E-06,-0.160
5.600E-06,-0.160
5.610E-06,-0.040
5.620E-06,0.000
5.630E-06,0.000
5.640E-06,-0.040
5.650E-06,-0.120
5.660E-06,-0.200
5.670E-06,-0.080
5.680E-06,-0.040
5.690E-06,0.000
5.700E-06,0.040
5.710E-06,0.000
5.720E-06,0.000
5.730E-06,0.000
5.740E-06,0.000
5.750E-06,0.080
5.760E-06,0.160
5.770E-06,0.120
5.780E-06,0.040
5.790E-06,0.120
5.800E-06,0.080
5.810E-06,0.000
5.820E-06,0.080
5.830E-06,0.040
5.840E-06,0.040
5.850E-06,0.000
5.860E-06,0.080
5.870E-06,0.080
5.880E-06,0.000
5.890E-06,-0.080
5.900E-06,-0.120
5.910E-06,-0.080
5.920E-06,-0.080
5.930E-06,-0.040
5.940E-06,0.000
5.950E-06,0.000
5.960E-06,0.000
5.970E-06,-0.160
5.980E-06,-0.240
5.990E-06,-0.120
6.000E-06,-0.120
6.010E-06,-0.040
6.020E-06,-0.040
6.030E-06,-0.160
6.040E-06,-0.080
6.050E-06,-0.320
6.060E-06,-0.360
6.070E-06,-0.240
6.080E-06,-0.240
6.090E-06,-0.080
6.100E-06,-0.160
6.110E-06,-0.280
6.120E-06,-0.240
6.130E-06,-0.320
6.140E-06,-0.240
6.150E-06,-0.160
6.160E-06,-0.120
6.170E-06,-0.120
6.180E-06,-0.200
6.190E-06,-0.160
6.200E-06,-0.160
6.210E-06,-0.080
6.220E-06,-0.040
6.230E-06,0.040
6.240E-06,0.040
6.250E-06,0.040
6.260E-06,0.000
6.270E-06,0.000
6.280E-06,0.000
6.290E-06,-0.040
6.300E-06,-0.040
6.310E-06,0.000
6.320E-06,0.000
6.330E-06,0.040
6.340E-06,-0.040
6.350E-06,0.040
6.360E-06,-0.080
6.370E-06,-0.080
6.380E-06,0.000
6.390E-06,0.000
6.400E-06,0.160
6.410E-06,0.120
6.420E-06,0.120
6.430E-06,0.160
6.440E-06,0.040
6.450E-06,0.120
6.460E-06,0.160
6.470E-06,0.200
6.480E-06,0.320
6.490E-06,0.240
6.500E-06,0.200
6.510E-06,0.080
6.520E-06,-0.120
6.530E-06,-0.080
6.540E-06,0.000
6.550E-06,0.000
6.560E-06,-0.080
6.570E-06,-0.200
6.580E-06,-0.240
6.590E-06,-0.360
6.600E-06,-0.360
6.610E-06,-0.320
6.620E-06,-0.320
6.630E-06,-0.360
6.640E-06,-0.400
6.650E-06,-0.440
6.660E-06,-0.440
6.670E-06,-0.400
6.680E-06,-0.360
6.690E-06,-0.240
6.700E-06,-0.240
6.710E-06,-0.240
6.720E-06,-0.160
6.730E-06,-0.120
6.740E-06,-0.080
6.750E-06,0.040
6.760E-06,0.080
6.770E-06,0.160
6.780E-06,0.160
6.790E-06,0.200
6.800E-06,0.200
6.810E-06,0.120
6.820E-06,0.200
6.830E-06,0.240
6.840E-06,0.320
6.850E-06,0.480
6.860E-06,0.480
6.870E-06,0.440
6.880E-06,0.360
6.890E-06,0.120
6.900E-06,0.080
6.910E-06,0.080
6.920E-06,0.080
6.930E-06,0.160
6.940E-06,0.240
6.950E-06,0.160
6.960E-06,0.200
6.970E-06,0.120
6.980E-06,0.160
6.990E-06,0.160
7.000E-06,0.120
7.010E-06,0.160
7.020E-06,0.120
7.030E-06,0.120
7.040E-06,0.040
7.050E-06,0.080
7.060E-06,0.000
7.070E-06,0.000
7.080E-06,0.000
7.090E-06,0.000
7.100E-06,0.000
7.110E-06,0.000
7.120E-06,-0.040
7.130E-06,-0.080
7.140E-06,-0.160
7.150E-06,-0.080
7.160E-06,-0.280
7.170E-06,-0.280
7.180E-06,-0.640
7.190E-06,-0.440
7.200E-06,-0.320
7.210E-06,-0.040
7.220E-06,0.440
7.230E-06,0.240
7.240E-06,0.080
7.250E-06,-0.080
7.260E-06,-0.400
7.270E-06,-0.040
7.280E-06,0.240
7.290E-06,0.280
7.300E-06,0.240
7.310E-06,-0.280
7.320E-06,-0.600
7.330E-06,-0.520
7.340E-06,-0.440
7.350E-06,0.240
7.360E-06,0.360
7.370E-06,0.160
7.380E-06,-0.240
7.390E-06,-0.880
7.400E-06,-0.920
7.410E-06,-0.720
7.420E-06,-0.560
7.430E-06,-0.320
7.440E-06,-0.520
7.450E-06,-0.680
7.460E-06,-0.360
7.470E-06,-1.200
7.480E-06,-0.720
7.490E-06,-0.600
7.500E-06,-0.840
7.510E-06,-0.080
7.520E-06,-0.040
7.530E-06,-0.160
7.540E-06,-0.040
7.550E-06,-0.400
7.560E-06,-0.360
7.570E-06,-0.080
7.580E-06,0.000
7.590E-06,0.240
7.600E-06,0.160
7.610E-06,0.080
7.620E-06,-0.040
7.630E-06,-0.120
7.640E-06,-0.080
7.650E-06,-0.040
7.660E-06,0.000
7.670E-06,-0.120
7.680E-06,-0.200
7.690E-06,-0.400
7.700E-06,-0.560
7.710E-06,-0.680
7.720E-06,-0.800
7.730E-06,-0.840
7.740E-06,-0.920
7.750E-06,-0.880
7.760E-06,-0.920
7.770E-06,-0.960
7.780E-06,-1.040
7.790E-06,-1.040
7.800E-06,-1.120
7.810E-06,-1.120
7.820E-06,-0.960
7.830E-06,-1.040
7.840E-06,-1.040
7.850E-06,-1.040
7.860E-06,-1.040
7.870E-06,-0.880
7.880E-06,-0.640
7.890E-06,-0.480
7.900E-06,-0.440
7.910E-06,-0.400
7.920E-06,-0.360
7.930E-06,-0.280
7.940E-06,-0.200
7.950E-06,-0.120
7.960E-06,-0.080
7.970E-06,0.000
7.980E-06,-0.080
7.990E-06,-0.120
8.000E-06,-0.200
8.010E-06,-0.120
8.020E-06,-0.120
8.030E-06,-0.160
8.040E-06,-0.160
8.050E-06,-0.040
8.060E-06,-0.080
8.070E-06,-0.160
8.080E-06,-0.200
8.090E-06,-0.320
8.100E-06,-0.480
8.110E-06,-0.480
8.120E-06,-0.600
8.130E-06,-0.520
8.140E-06,-0.240
8.150E-06,-0.280
8.160E-06,-0.120
8.170E-06,-0.160
8.180E-06,-0.440
8.190E-06,-0.440
8.200E-06,-0.600
8.210E-06,-0.600
8.220E-06,-0.360
8.230E-06,-0.480
8.240E-06,-0.520
8.250E-06,-0.680
8.260E-06,-0.840
8.270E-06,-0.880
8.280E-06,-0.880
8.290E-06,-0.840
8.300E-06,-0.840
8.310E-06,-0.840
8.320E-06,-0.920
8.330E-06,-0.960
8.340E-06,-0.880
8.350E-06,-0.880
8.360E-06,-0.800
8.370E-06,-0.760
8.380E-06,-0.800
8.390E-06,-0.760
8.400E-06,-0.680
8.410E-06,-0.640
8.420E-06,-0.520
8.430E-06,-0.480
8.440E-06,-0.440
8.450E-06,-0.520
8.460E-06,-0.520
8.470E-06,-0.520
8.480E-06,-0.480
8.490E-06,-0.320
8.500E-06,-0.320
8.510E-06,-0.280
8.520E-06,-0.280
8.530E-06,-0.240
8.540E-06,-0.200
8.550E-06,-0.200
8.560E-06,-0.080
8.570E-06,-0.120
8.580E-06,-0.200
8.590E-06,-0.280
8.600E-06,-0.400
8.610E-06,-0.800
8.620E-06,0.320
8.630E-06,-1.760
8.640E-06,-1.080
8.650E-06,-0.640
8.660E-06,-1.280
8.670E-06,0.960
8.680E-06,1.200
8.690E-06,1.120
8.700E-06,0.680
8.710E-06,-0.840
8.720E-06,-0.880
8.730E-06,-0.320
8.740E-06,0.280
8.750E-06,0.760
8.760E-06,0.160
8.770E-06,-0.640
8.780E-06,-2.000
8.790E-06,-1.960
