mediciones/mediciones removidas por ser diferentes/-55/WaveData50292.csv

#timebase=2000000(ps)
,#voltbase=1000000(mv/100)
#size=4000
-5.650E-06,0.040
-5.640E-06,0.040
-5.630E-06,0.080
-5.620E-06,0.040
-5.610E-06,0.040
-5.600E-06,0.040
-5.590E-06,0.080
-5.580E-06,0.080
-5.570E-06,0.040
-5.560E-06,0.040
-5.550E-06,0.040
-5.540E-06,0.040
-5.530E-06,0.000
-5.520E-06,0.000
-5.510E-06,0.040
-5.500E-06,0.040
-5.490E-06,0.040
-5.480E-06,0.040
-5.470E-06,0.040
-5.460E-06,0.040
-5.450E-06,0.000
-5.440E-06,0.040
-5.430E-06,0.000
-5.420E-06,0.040
-5.410E-06,0.040
-5.400E-06,0.000
-5.390E-06,0.080
-5.380E-06,0.080
-5.370E-06,0.080
-5.360E-06,0.000
-5.350E-06,0.000
-5.340E-06,0.040
-5.330E-06,0.080
-5.320E-06,0.120
-5.310E-06,0.120
-5.300E-06,0.000
-5.290E-06,0.040
-5.280E-06,0.040
-5.270E-06,0.040
-5.260E-06,0.080
-5.250E-06,0.080
-5.240E-06,0.040
-5.230E-06,0.000
-5.220E-06,0.040
-5.210E-06,0.000
-5.200E-06,0.000
-5.190E-06,0.080
-5.180E-06,0.080
-5.170E-06,0.120
-5.160E-06,0.040
-5.150E-06,0.040
-5.140E-06,0.080
-5.130E-06,0.000
-5.120E-06,0.080
-5.110E-06,0.080
-5.100E-06,0.040
-5.090E-06,0.040
-5.080E-06,0.040
-5.070E-06,0.080
-5.060E-06,0.040
-5.050E-06,0.040
-5.040E-06,0.040
-5.030E-06,0.040
-5.020E-06,0.040
-5.010E-06,0.040
-5.000E-06,0.040
-4.990E-06,0.000
-4.980E-06,0.040
-4.970E-06,0.000
-4.960E-06,0.040
-4.950E-06,0.080
-4.940E-06,0.080
-4.930E-06,0.080
-4.920E-06,0.120
-4.910E-06,0.080
-4.900E-06,0.040
-4.890E-06,0.000
-4.880E-06,0.040
-4.870E-06,0.040
-4.860E-06,0.040
-4.850E-06,0.080
-4.840E-06,0.080
-4.830E-06,0.080
-4.820E-06,0.080
-4.810E-06,0.080
-4.800E-06,0.040
-4.790E-06,0.040
-4.780E-06,0.040
-4.770E-06,0.080
-4.760E-06,0.080
-4.750E-06,0.040
-4.740E-06,0.080
-4.730E-06,0.040
-4.720E-06,0.080
-4.710E-06,0.000
-4.700E-06,0.080
-4.690E-06,0.040
-4.680E-06,0.080
-4.670E-06,0.040
-4.660E-06,0.040
-4.650E-06,0.040
-4.640E-06,0.080
-4.630E-06,0.080
-4.620E-06,0.080
-4.610E-06,0.080
-4.600E-06,0.040
-4.590E-06,0.040
-4.580E-06,0.040
-4.570E-06,0.040
-4.560E-06,0.040
-4.550E-06,0.040
-4.540E-06,0.000
-4.530E-06,0.040
-4.520E-06,0.000
-4.510E-06,0.040
-4.500E-06,0.040
-4.490E-06,0.080
-4.480E-06,0.080
-4.470E-06,0.040
-4.460E-06,0.080
-4.450E-06,0.040
-4.440E-06,0.080
-4.430E-06,0.120
-4.420E-06,0.080
-4.410E-06,0.120
-4.400E-06,0.000
-4.390E-06,0.000
-4.380E-06,0.080
-4.370E-06,0.040
-4.360E-06,0.080
-4.350E-06,0.080
-4.340E-06,0.000
-4.330E-06,0.040
-4.320E-06,0.040
-4.310E-06,0.080
-4.300E-06,0.080
-4.290E-06,0.080
-4.280E-06,0.000
-4.270E-06,0.040
-4.260E-06,0.080
-4.250E-06,0.040
-4.240E-06,0.000
-4.230E-06,0.000
-4.220E-06,0.000
-4.210E-06,0.080
-4.200E-06,0.080
-4.190E-06,0.000
-4.180E-06,0.000
-4.170E-06,0.000
-4.160E-06,0.080
-4.150E-06,0.120
-4.140E-06,0.000
-4.130E-06,0.040
-4.120E-06,0.080
-4.110E-06,0.040
-4.100E-06,0.000
-4.090E-06,0.080
-4.080E-06,0.080
-4.070E-06,0.080
-4.060E-06,0.080
-4.050E-06,0.040
-4.040E-06,0.000
-4.030E-06,0.080
-4.020E-06,0.040
-4.010E-06,0.040
-4.000E-06,0.080
-3.990E-06,0.120
-3.980E-06,0.080
-3.970E-06,0.080
-3.960E-06,0.000
-3.950E-06,0.000
-3.940E-06,0.040
-3.930E-06,0.000
-3.920E-06,0.080
-3.910E-06,0.040
-3.900E-06,0.040
-3.890E-06,0.080
-3.880E-06,0.040
-3.870E-06,0.080
-3.860E-06,0.000
-3.850E-06,0.000
-3.840E-06,0.080
-3.830E-06,0.080
-3.820E-06,0.080
-3.810E-06,0.080
-3.800E-06,0.000
-3.790E-06,0.040
-3.780E-06,0.040
-3.770E-06,0.040
-3.760E-06,0.040
-3.750E-06,0.040
-3.740E-06,0.040
-3.730E-06,0.080
-3.720E-06,0.040
-3.710E-06,0.040
-3.700E-06,0.040
-3.690E-06,0.040
-3.680E-06,0.040
-3.670E-06,0.000
-3.660E-06,0.040
-3.650E-06,0.040
-3.640E-06,0.040
-3.630E-06,0.000
-3.620E-06,0.040
-3.610E-06,0.080
-3.600E-06,0.000
-3.590E-06,0.040
-3.580E-06,0.040
-3.570E-06,0.040
-3.560E-06,0.000
-3.550E-06,0.040
-3.540E-06,-0.040
-3.530E-06,0.000
-3.520E-06,0.040
-3.510E-06,0.000
-3.500E-06,0.040
-3.490E-06,0.040
-3.480E-06,0.080
-3.470E-06,0.040
-3.460E-06,0.040
-3.450E-06,0.120
-3.440E-06,0.040
-3.430E-06,0.000
-3.420E-06,0.080
-3.410E-06,0.040
-3.400E-06,0.080
-3.390E-06,0.080
-3.380E-06,0.080
-3.370E-06,0.040
-3.360E-06,0.040
-3.350E-06,0.040
-3.340E-06,0.080
-3.330E-06,0.080
-3.320E-06,0.080
-3.310E-06,0.000
-3.300E-06,0.080
-3.290E-06,0.040
-3.280E-06,0.040
-3.270E-06,0.040
-3.260E-06,0.040
-3.250E-06,0.040
-3.240E-06,0.040
-3.230E-06,0.040
-3.220E-06,0.000
-3.210E-06,0.040
-3.200E-06,0.040
-3.190E-06,0.040
-3.180E-06,0.000
-3.170E-06,0.000
-3.160E-06,0.040
-3.150E-06,0.040
-3.140E-06,0.040
-3.130E-06,0.040
-3.120E-06,0.040
-3.110E-06,0.040
-3.100E-06,0.040
-3.090E-06,0.040
-3.080E-06,0.040
-3.070E-06,0.000
-3.060E-06,0.040
-3.050E-06,0.040
-3.040E-06,0.080
-3.030E-06,0.080
-3.020E-06,0.080
-3.010E-06,0.080
-3.000E-06,0.040
-2.990E-06,0.000
-2.980E-06,0.040
-2.970E-06,0.080
-2.960E-06,0.080
-2.950E-06,0.040
-2.940E-06,0.080
-2.930E-06,0.040
-2.920E-06,0.080
-2.910E-06,0.040
-2.900E-06,0.080
-2.890E-06,0.080
-2.880E-06,0.000
-2.870E-06,0.040
-2.860E-06,0.080
-2.850E-06,0.080
-2.840E-06,0.040
-2.830E-06,0.040
-2.820E-06,0.040
-2.810E-06,0.080
-2.800E-06,0.080
-2.790E-06,0.000
-2.780E-06,0.040
-2.770E-06,0.040
-2.760E-06,0.040
-2.750E-06,0.000
-2.740E-06,0.000
-2.730E-06,0.040
-2.720E-06,0.080
-2.710E-06,0.080
-2.700E-06,-0.040
-2.690E-06,0.000
-2.680E-06,0.000
-2.670E-06,-0.040
-2.660E-06,0.040
-2.650E-06,0.080
-2.640E-06,0.000
-2.630E-06,0.040
-2.620E-06,0.080
-2.610E-06,0.040
-2.600E-06,0.080
-2.590E-06,0.000
-2.580E-06,0.040
-2.570E-06,0.040
-2.560E-06,0.040
-2.550E-06,0.080
-2.540E-06,0.000
-2.530E-06,0.080
-2.520E-06,0.080
-2.510E-06,-0.040
-2.500E-06,0.000
-2.490E-06,-0.040
-2.480E-06,0.000
-2.470E-06,0.000
-2.460E-06,0.120
-2.450E-06,0.120
-2.440E-06,0.000
-2.430E-06,0.000
-2.420E-06,0.040
-2.410E-06,0.040
-2.400E-06,0.080
-2.390E-06,0.080
-2.380E-06,0.080
-2.370E-06,0.040
-2.360E-06,0.040
-2.350E-06,0.040
-2.340E-06,0.080
-2.330E-06,0.080
-2.320E-06,0.120
-2.310E-06,0.120
-2.300E-06,0.000
-2.290E-06,0.000
-2.280E-06,0.040
-2.270E-06,0.080
-2.260E-06,0.120
-2.250E-06,0.080
-2.240E-06,0.080
-2.230E-06,0.000
-2.220E-06,0.000
-2.210E-06,0.040
-2.200E-06,0.080
-2.190E-06,0.040
-2.180E-06,0.040
-2.170E-06,0.040
-2.160E-06,0.000
-2.150E-06,0.000
-2.140E-06,0.040
-2.130E-06,0.080
-2.120E-06,0.080
-2.110E-06,0.000
-2.100E-06,0.000
-2.090E-06,0.000
-2.080E-06,0.000
-2.070E-06,0.040
-2.060E-06,0.040
-2.050E-06,0.040
-2.040E-06,0.000
-2.030E-06,0.000
-2.020E-06,0.000
-2.010E-06,0.000
-2.000E-06,0.000
-1.990E-06,0.040
-1.980E-06,0.000
-1.970E-06,0.000
-1.960E-06,0.040
-1.950E-06,0.040
-1.940E-06,0.040
-1.930E-06,0.000
-1.920E-06,0.040
-1.910E-06,0.040
-1.900E-06,0.040
-1.890E-06,0.040
-1.880E-06,0.000
-1.870E-06,0.000
-1.860E-06,0.040
-1.850E-06,0.080
-1.840E-06,0.000
-1.830E-06,0.000
-1.820E-06,0.080
-1.810E-06,0.000
-1.800E-06,0.080
-1.790E-06,0.080
-1.780E-06,0.120
-1.770E-06,0.040
-1.760E-06,0.040
-1.750E-06,0.080
-1.740E-06,0.040
-1.730E-06,0.080
-1.720E-06,0.120
-1.710E-06,0.040
-1.700E-06,0.080
-1.690E-06,0.080
-1.680E-06,0.080
-1.670E-06,0.080
-1.660E-06,0.080
-1.650E-06,0.080
-1.640E-06,0.080
-1.630E-06,0.080
-1.620E-06,0.080
-1.610E-06,0.040
-1.600E-06,0.040
-1.590E-06,0.080
-1.580E-06,0.120
-1.570E-06,0.080
-1.560E-06,0.080
-1.550E-06,0.160
-1.540E-06,0.240
-1.530E-06,0.200
-1.520E-06,0.160
-1.510E-06,0.240
-1.500E-06,0.240
-1.490E-06,0.240
-1.480E-06,0.320
-1.470E-06,0.240
-1.460E-06,0.160
-1.450E-06,0.120
-1.440E-06,0.040
-1.430E-06,0.080
-1.420E-06,0.000
-1.410E-06,0.040
-1.400E-06,0.040
-1.390E-06,0.000
-1.380E-06,-0.040
-1.370E-06,-0.080
-1.360E-06,-0.040
-1.350E-06,-0.040
-1.340E-06,0.000
-1.330E-06,-0.040
-1.320E-06,-0.040
-1.310E-06,-0.040
-1.300E-06,-0.040
-1.290E-06,0.000
-1.280E-06,0.000
-1.270E-06,0.000
-1.260E-06,0.000
-1.250E-06,0.000
-1.240E-06,0.000
-1.230E-06,-0.080
-1.220E-06,0.000
-1.210E-06,0.000
-1.200E-06,0.000
-1.190E-06,0.000
-1.180E-06,0.000
-1.170E-06,-0.040
-1.160E-06,0.040
-1.150E-06,-0.040
-1.140E-06,0.000
-1.130E-06,0.040
-1.120E-06,0.000
-1.110E-06,0.040
-1.100E-06,0.080
-1.090E-06,0.080
-1.080E-06,0.040
-1.070E-06,0.120
-1.060E-06,0.080
-1.050E-06,0.120
-1.040E-06,0.160
-1.030E-06,0.160
-1.020E-06,0.160
-1.010E-06,0.120
-1.000E-06,0.120
-9.900E-07,0.160
-9.800E-07,0.080
-9.700E-07,0.080
-9.600E-07,0.080
-9.500E-07,0.040
-9.400E-07,0.120
-9.300E-07,0.200
-9.200E-07,0.080
-9.100E-07,0.160
-9.000E-07,0.200
-8.900E-07,0.160
-8.800E-07,0.240
-8.700E-07,0.240
-8.600E-07,0.240
-8.500E-07,0.240
-8.400E-07,0.120
-8.300E-07,0.200
-8.200E-07,0.240
-8.100E-07,0.200
-8.000E-07,0.120
-7.900E-07,0.120
-7.800E-07,0.080
-7.700E-07,0.240
-7.600E-07,0.360
-7.500E-07,0.320
-7.400E-07,0.440
-7.300E-07,0.120
-7.200E-07,0.080
-7.100E-07,-0.080
-7.000E-07,0.000
-6.900E-07,0.200
-6.800E-07,0.280
-6.700E-07,0.360
-6.600E-07,0.240
-6.500E-07,-0.080
-6.400E-07,-0.120
-6.300E-07,-0.120
-6.200E-07,-0.080
-6.100E-07,0.240
-6.000E-07,0.160
-5.900E-07,0.120
-5.800E-07,-0.040
-5.700E-07,-0.120
-5.600E-07,0.000
-5.500E-07,0.080
-5.400E-07,0.280
-5.300E-07,0.320
-5.200E-07,0.160
-5.100E-07,0.200
-5.000E-07,0.080
-4.900E-07,0.080
-4.800E-07,0.280
-4.700E-07,0.400
-4.600E-07,0.400
-4.500E-07,0.320
-4.400E-07,0.320
-4.300E-07,0.200
-4.200E-07,0.240
-4.100E-07,0.280
-4.000E-07,0.400
-3.900E-07,0.480
-3.800E-07,0.400
-3.700E-07,0.400
-3.600E-07,0.360
-3.500E-07,0.240
-3.400E-07,0.360
-3.300E-07,0.360
-3.200E-07,0.320
-3.100E-07,0.400
-3.000E-07,0.360
-2.900E-07,0.320
-2.800E-07,0.320
-2.700E-07,0.320
-2.600E-07,0.320
-2.500E-07,0.360
-2.400E-07,0.360
-2.300E-07,0.200
-2.200E-07,0.160
-2.100E-07,0.080
-2.000E-07,0.080
-1.900E-07,0.040
-1.800E-07,0.160
-1.700E-07,0.160
-1.600E-07,0.200
-1.500E-07,0.120
-1.400E-07,0.080
-1.300E-07,0.160
-1.200E-07,0.160
-1.100E-07,0.240
-1.000E-07,0.520
-9.000E-08,0.240
-8.000E-08,0.360
-7.000E-08,0.200
-6.000E-08,0.240
-5.000E-08,0.200
-4.000E-08,0.360
-3.000E-08,0.320
-2.000E-08,0.200
-1.000E-08,0.000
0.000E+00,0.200
1.000E-08,0.320
2.000E-08,1.000
3.000E-08,1.800
4.000E-08,2.000
5.000E-08,2.080
6.000E-08,1.080
7.000E-08,0.000
8.000E-08,-0.080
9.000E-08,-0.320
1.000E-07,0.760
1.100E-07,1.840
1.200E-07,1.880
1.300E-07,1.720
1.400E-07,0.600
1.500E-07,-0.120
1.600E-07,-0.160
1.700E-07,0.280
1.800E-07,1.080
1.900E-07,1.680
2.000E-07,1.400
2.100E-07,0.960
2.200E-07,0.520
2.300E-07,0.000
2.400E-07,0.240
2.500E-07,0.360
2.600E-07,0.600
2.700E-07,0.760
2.800E-07,0.560
2.900E-07,0.440
3.000E-07,0.320
3.100E-07,0.240
3.200E-07,0.360
3.300E-07,0.280
3.400E-07,0.200
3.500E-07,0.160
3.600E-07,0.160
3.700E-07,0.280
3.800E-07,0.360
3.900E-07,0.360
4.000E-07,0.360
4.100E-07,0.320
4.200E-07,0.280
4.300E-07,0.320
4.400E-07,0.520
4.500E-07,0.600
4.600E-07,0.640
4.700E-07,0.640
4.800E-07,0.640
4.900E-07,0.600
5.000E-07,0.520
5.100E-07,0.440
5.200E-07,0.440
5.300E-07,0.320
5.400E-07,0.320
5.500E-07,0.280
5.600E-07,0.240
5.700E-07,0.320
5.800E-07,0.320
5.900E-07,0.320
6.000E-07,0.320
6.100E-07,0.240
6.200E-07,0.240
6.300E-07,0.320
6.400E-07,0.000
6.500E-07,0.160
6.600E-07,-0.080
6.700E-07,-0.800
6.800E-07,-0.680
6.900E-07,-0.760
7.000E-07,-0.200
7.100E-07,0.400
7.200E-07,1.000
7.300E-07,0.920
7.400E-07,-0.360
7.500E-07,-0.840
7.600E-07,-1.400
7.700E-07,-1.200
7.800E-07,0.240
7.900E-07,0.880
8.000E-07,1.200
8.100E-07,0.440
8.200E-07,-0.840
8.300E-07,-1.080
8.400E-07,-1.040
8.500E-07,-0.360
8.600E-07,1.000
8.700E-07,1.280
8.800E-07,1.320
8.900E-07,0.600
9.000E-07,-0.040
9.100E-07,0.080
9.200E-07,0.240
9.300E-07,0.760
9.400E-07,1.080
9.500E-07,0.880
9.600E-07,0.600
9.700E-07,0.320
9.800E-07,0.080
9.900E-07,0.160
1.000E-06,0.240
1.010E-06,0.280
1.020E-06,0.200
1.030E-06,0.080
1.040E-06,-0.040
1.050E-06,-0.040
1.060E-06,-0.040
1.070E-06,0.000
1.080E-06,0.000
1.090E-06,-0.040
1.100E-06,0.000
1.110E-06,0.040
1.120E-06,0.080
1.130E-06,0.160
1.140E-06,0.160
1.150E-06,0.160
1.160E-06,0.120
1.170E-06,0.160
1.180E-06,0.280
1.190E-06,0.280
1.200E-06,0.240
1.210E-06,0.160
1.220E-06,0.160
1.230E-06,0.080
1.240E-06,0.120
1.250E-06,0.160
1.260E-06,0.200
1.270E-06,0.200
1.280E-06,0.120
1.290E-06,0.120
1.300E-06,0.040
1.310E-06,0.080
1.320E-06,0.160
1.330E-06,0.200
1.340E-06,0.240
1.350E-06,0.200
1.360E-06,0.160
1.370E-06,0.160
1.380E-06,0.160
1.390E-06,0.240
1.400E-06,0.200
1.410E-06,0.120
1.420E-06,0.160
1.430E-06,0.120
1.440E-06,0.200
1.450E-06,0.320
1.460E-06,0.480
1.470E-06,0.560
1.480E-06,0.600
1.490E-06,0.560
1.500E-06,0.440
1.510E-06,0.440
1.520E-06,0.360
1.530E-06,0.320
1.540E-06,0.360
1.550E-06,0.040
1.560E-06,-0.360
1.570E-06,0.280
1.580E-06,-0.680
1.590E-06,-0.360
1.600E-06,-0.040
1.610E-06,-0.840
1.620E-06,-0.080
1.630E-06,0.160
1.640E-06,0.040
1.650E-06,0.960
1.660E-06,0.160
1.670E-06,0.120
1.680E-06,0.080
1.690E-06,-0.120
1.700E-06,0.680
1.710E-06,1.040
1.720E-06,0.680
1.730E-06,0.640
1.740E-06,-0.440
1.750E-06,-1.080
1.760E-06,-0.520
1.770E-06,-0.680
1.780E-06,0.640
1.790E-06,0.960
1.800E-06,0.400
1.810E-06,0.720
1.820E-06,-0.600
1.830E-06,-0.680
1.840E-06,-0.800
1.850E-06,-1.200
1.860E-06,-0.400
1.870E-06,-0.120
1.880E-06,0.120
1.890E-06,0.480
1.900E-06,0.000
1.910E-06,-0.520
1.920E-06,-0.360
1.930E-06,-0.200
1.940E-06,0.640
1.950E-06,1.680
1.960E-06,1.640
1.970E-06,1.800
1.980E-06,1.000
1.990E-06,0.000
2.000E-06,-0.320
2.010E-06,-0.400
2.020E-06,-0.400
2.030E-06,0.120
2.040E-06,0.160
2.050E-06,0.040
2.060E-06,-0.080
2.070E-06,-0.520
2.080E-06,-0.360
2.090E-06,-0.160
2.100E-06,-0.080
2.110E-06,0.120
2.120E-06,-0.080
2.130E-06,-0.240
2.140E-06,-0.160
2.150E-06,-0.120
2.160E-06,0.160
2.170E-06,0.400
2.180E-06,0.600
2.190E-06,0.720
2.200E-06,0.680
2.210E-06,0.600
2.220E-06,0.480
2.230E-06,0.360
2.240E-06,0.320
2.250E-06,0.240
2.260E-06,0.040
2.270E-06,-0.040
2.280E-06,-0.280
2.290E-06,-0.560
2.300E-06,-0.840
2.310E-06,-1.040
2.320E-06,-1.120
2.330E-06,-1.040
2.340E-06,-0.880
2.350E-06,-0.760
2.360E-06,-0.640
2.370E-06,-0.560
2.380E-06,-0.440
2.390E-06,-0.320
2.400E-06,-0.200
2.410E-06,0.000
2.420E-06,0.200
2.430E-06,0.360
2.440E-06,0.520
2.450E-06,0.640
2.460E-06,0.600
2.470E-06,0.640
2.480E-06,0.680
2.490E-06,0.560
2.500E-06,0.680
2.510E-06,0.480
2.520E-06,0.480
2.530E-06,0.320
2.540E-06,0.320
2.550E-06,0.400
2.560E-06,0.320
2.570E-06,0.440
2.580E-06,0.440
2.590E-06,0.240
2.600E-06,0.240
2.610E-06,0.120
2.620E-06,-0.120
2.630E-06,-0.080
2.640E-06,-0.440
2.650E-06,-0.560
2.660E-06,-0.760
2.670E-06,-0.840
2.680E-06,-0.680
2.690E-06,-0.560
2.700E-06,-0.520
2.710E-06,-0.440
2.720E-06,-0.440
2.730E-06,-0.360
2.740E-06,-0.240
2.750E-06,-0.120
2.760E-06,-0.160
2.770E-06,0.080
2.780E-06,0.200
2.790E-06,0.200
2.800E-06,0.360
2.810E-06,0.360
2.820E-06,0.360
2.830E-06,0.240
2.840E-06,0.120
2.850E-06,-0.240
2.860E-06,-0.600
2.870E-06,-0.400
2.880E-06,-0.680
2.890E-06,-0.240
2.900E-06,0.040
2.910E-06,-0.360
2.920E-06,-0.360
2.930E-06,-0.920
2.940E-06,-0.960
2.950E-06,-0.720
2.960E-06,-0.600
2.970E-06,-0.120
2.980E-06,-0.120
2.990E-06,-0.240
3.000E-06,-0.320
3.010E-06,-0.240
3.020E-06,-0.200
3.030E-06,0.000
3.040E-06,0.160
3.050E-06,0.320
3.060E-06,0.360
3.070E-06,0.080
3.080E-06,-0.240
3.090E-06,-0.760
3.100E-06,-1.560
3.110E-06,-2.080
3.120E-06,-2.320
3.130E-06,-2.280
3.140E-06,-2.000
3.150E-06,-1.440
3.160E-06,-1.200
3.170E-06,-0.960
3.180E-06,-0.480
3.190E-06,-0.480
3.200E-06,-0.240
3.210E-06,0.240
3.220E-06,0.520
3.230E-06,1.240
3.240E-06,1.600
3.250E-06,2.000
3.260E-06,1.920
3.270E-06,1.960
3.280E-06,1.760
3.290E-06,1.560
3.300E-06,1.840
3.310E-06,1.840
3.320E-06,2.040
3.330E-06,1.920
3.340E-06,1.640
3.350E-06,1.120
3.360E-06,0.640
3.370E-06,0.120
3.380E-06,-0.120
3.390E-06,-0.400
3.400E-06,-0.560
3.410E-06,-0.680
3.420E-06,-0.920
3.430E-06,-1.160
3.440E-06,-1.200
3.450E-06,-1.240
3.460E-06,-1.360
3.470E-06,-1.240
3.480E-06,-1.200
3.490E-06,-1.240
3.500E-06,-1.040
3.510E-06,-1.160
3.520E-06,-1.120
3.530E-06,-1.080
3.540E-06,-0.920
3.550E-06,-0.960
3.560E-06,-0.960
3.570E-06,-1.040
3.580E-06,-1.160
3.590E-06,-0.840
3.600E-06,-0.720
3.610E-06,-0.600
3.620E-06,-0.520
3.630E-06,-0.800
3.640E-06,-1.000
3.650E-06,-1.200
3.660E-06,-1.160
3.670E-06,-1.120
3.680E-06,-1.000
3.690E-06,-0.680
3.700E-06,-0.520
3.710E-06,-0.200
3.720E-06,0.080
3.730E-06,0.320
3.740E-06,0.560
3.750E-06,0.800
3.760E-06,1.080
3.770E-06,1.360
3.780E-06,1.560
3.790E-06,1.640
3.800E-06,1.640
3.810E-06,1.520
3.820E-06,1.360
3.830E-06,1.280
3.840E-06,1.080
3.850E-06,0.880
3.860E-06,0.680
3.870E-06,0.320
3.880E-06,0.080
3.890E-06,-0.280
3.900E-06,-0.440
3.910E-06,-0.560
3.920E-06,-0.760
3.930E-06,-0.760
3.940E-06,-0.960
3.950E-06,-1.000
3.960E-06,-1.000
3.970E-06,-1.200
3.980E-06,-1.000
3.990E-06,-0.960
4.000E-06,-0.840
4.010E-06,-0.680
4.020E-06,-0.720
4.030E-06,-0.680
4.040E-06,-0.680
4.050E-06,-0.680
4.060E-06,-0.520
4.070E-06,-0.360
4.080E-06,-0.240
4.090E-06,-0.280
4.100E-06,-0.200
4.110E-06,-0.080
4.120E-06,-0.480
4.130E-06,0.200
4.140E-06,-1.960
4.150E-06,1.120
4.160E-06,-3.560
4.170E-06,-0.400
4.180E-06,-4.920
4.190E-06,-3.280
4.200E-06,-2.520
4.210E-06,-2.880
4.220E-06,-0.280
4.230E-06,-0.240
4.240E-06,0.200
4.250E-06,-0.680
4.260E-06,1.160
4.270E-06,0.400
4.280E-06,2.360
4.290E-06,2.440
4.300E-06,2.520
4.310E-06,3.360
4.320E-06,3.360
4.330E-06,3.080
4.340E-06,2.600
4.350E-06,2.240
4.360E-06,1.600
4.370E-06,2.080
4.380E-06,1.560
4.390E-06,1.480
4.400E-06,0.800
4.410E-06,-0.040
4.420E-06,-1.080
4.430E-06,-1.680
4.440E-06,-2.200
4.450E-06,-2.440
4.460E-06,-2.640
4.470E-06,-2.640
4.480E-06,-2.800
4.490E-06,-2.840
4.500E-06,-2.720
4.510E-06,-2.600
4.520E-06,-2.520
4.530E-06,-1.920
4.540E-06,-2.160
4.550E-06,-2.320
4.560E-06,-2.240
4.570E-06,-2.840
4.580E-06,-1.480
4.590E-06,-0.640
4.600E-06,0.640
4.610E-06,2.040
4.620E-06,1.880
4.630E-06,1.560
4.640E-06,0.960
4.650E-06,0.680
4.660E-06,1.000
4.670E-06,1.440
4.680E-06,1.680
4.690E-06,1.680
4.700E-06,1.240
4.710E-06,0.920
4.720E-06,0.520
4.730E-06,0.320
4.740E-06,0.040
4.750E-06,-0.160
4.760E-06,-0.200
4.770E-06,-0.960
4.780E-06,-1.280
4.790E-06,-1.720
4.800E-06,-1.760
4.810E-06,-1.360
4.820E-06,-1.200
4.830E-06,-0.800
4.840E-06,-0.800
4.850E-06,-1.160
4.860E-06,-1.480
4.870E-06,-1.600
4.880E-06,-1.600
4.890E-06,-1.280
4.900E-06,-1.280
4.910E-06,-1.000
4.920E-06,-1.160
4.930E-06,-1.360
4.940E-06,-1.120
4.950E-06,-1.320
4.960E-06,-1.240
4.970E-06,-1.640
4.980E-06,-1.880
4.990E-06,-1.760
5.000E-06,-1.320
5.010E-06,-0.680
5.020E-06,-0.160
5.030E-06,-0.200
5.040E-06,-0.680
5.050E-06,-1.000
5.060E-06,-1.040
5.070E-06,-0.480
5.080E-06,0.120
5.090E-06,0.520
5.100E-06,0.640
5.110E-06,0.560
5.120E-06,0.320
5.130E-06,0.240
5.140E-06,0.440
5.150E-06,0.560
5.160E-06,0.920
5.170E-06,0.920
5.180E-06,0.800
5.190E-06,0.600
5.200E-06,0.200
5.210E-06,0.000
5.220E-06,-0.240
5.230E-06,-0.280
5.240E-06,-0.480
5.250E-06,-0.520
5.260E-06,-1.000
5.270E-06,-1.360
5.280E-06,-1.720
5.290E-06,-2.080
5.300E-06,-2.120
5.310E-06,-2.080
5.320E-06,-1.880
5.330E-06,-1.640
5.340E-06,-1.640
5.350E-06,-1.600
5.360E-06,-1.720
5.370E-06,-1.760
5.380E-06,-1.520
5.390E-06,-1.360
5.400E-06,-0.960
5.410E-06,-0.680
5.420E-06,-0.520
5.430E-06,-0.520
5.440E-06,-0.600
5.450E-06,-0.760
5.460E-06,-0.800
5.470E-06,-0.840
5.480E-06,-0.880
5.490E-06,-0.880
5.500E-06,-0.840
5.510E-06,-0.840
5.520E-06,-0.880
5.530E-06,-0.840
5.540E-06,-0.960
5.550E-06,-1.200
5.560E-06,-1.200
5.570E-06,-1.320
5.580E-06,-1.240
5.590E-06,-1.160
5.600E-06,-1.240
5.610E-06,-1.160
5.620E-06,-1.120
5.630E-06,-1.080
5.640E-06,-0.960
5.650E-06,-0.840
5.660E-06,-0.600
5.670E-06,-0.560
5.680E-06,-0.480
5.690E-06,-0.480
5.700E-06,-0.520
5.710E-06,-0.480
5.720E-06,-0.320
5.730E-06,-0.240
5.740E-06,-0.160
5.750E-06,-0.240
5.760E-06,-0.320
5.770E-06,-0.360
5.780E-06,-0.600
5.790E-06,-0.480
5.800E-06,-0.680
5.810E-06,-0.720
5.820E-06,-0.720
5.830E-06,-1.080
5.840E-06,-1.120
5.850E-06,-1.320
5.860E-06,-1.520
5.870E-06,-1.520
5.880E-06,-1.600
5.890E-06,-1.680
5.900E-06,-1.800
5.910E-06,-1.680
5.920E-06,-1.680
5.930E-06,-1.840
5.940E-06,-1.800
5.950E-06,-1.920
5.960E-06,-1.840
5.970E-06,-2.000
5.980E-06,-2.200
5.990E-06,-1.760
6.000E-06,-2.360
6.010E-06,-2.640
6.020E-06,-2.440
6.030E-06,-3.000
6.040E-06,-2.240
6.050E-06,-0.800
6.060E-06,-0.760
6.070E-06,0.000
6.080E-06,-0.360
6.090E-06,-1.640
6.100E-06,-3.160
6.110E-06,-4.480
6.120E-06,-3.360
6.130E-06,-3.160
6.140E-06,-0.160
6.150E-06,1.840
6.160E-06,2.200
6.170E-06,1.040
6.180E-06,-1.400
6.190E-06,-1.600
6.200E-06,-1.320
6.210E-06,0.840
6.220E-06,2.440
6.230E-06,2.400
