mediciones/6-26/10.0/WaveData59144.csv

#timebase=2000000(ps)
,#voltbase=200000(mv/100)
#size=4000
-8.150E-06,0.000
-8.140E-06,0.008
-8.130E-06,-0.008
-8.120E-06,0.000
-8.110E-06,-0.008
-8.100E-06,0.008
-8.090E-06,0.008
-8.080E-06,0.000
-8.070E-06,0.000
-8.060E-06,0.008
-8.050E-06,0.016
-8.040E-06,0.008
-8.030E-06,0.000
-8.020E-06,0.000
-8.010E-06,0.008
-8.000E-06,0.000
-7.990E-06,0.008
-7.980E-06,0.008
-7.970E-06,0.016
-7.960E-06,-0.008
-7.950E-06,-0.008
-7.940E-06,0.008
-7.930E-06,0.000
-7.920E-06,0.008
-7.910E-06,0.000
-7.900E-06,0.008
-7.890E-06,0.000
-7.880E-06,0.008
-7.870E-06,0.000
-7.860E-06,0.000
-7.850E-06,0.008
-7.840E-06,0.008
-7.830E-06,0.008
-7.820E-06,0.008
-7.810E-06,0.008
-7.800E-06,0.000
-7.790E-06,0.000
-7.780E-06,0.000
-7.770E-06,0.000
-7.760E-06,0.000
-7.750E-06,0.008
-7.740E-06,0.008
-7.730E-06,0.000
-7.720E-06,0.008
-7.710E-06,0.008
-7.700E-06,0.008
-7.690E-06,0.016
-7.680E-06,0.016
-7.670E-06,0.016
-7.660E-06,0.024
-7.650E-06,0.008
-7.640E-06,0.008
-7.630E-06,-0.008
-7.620E-06,0.000
-7.610E-06,0.008
-7.600E-06,0.008
-7.590E-06,0.000
-7.580E-06,0.008
-7.570E-06,0.000
-7.560E-06,0.008
-7.550E-06,0.008
-7.540E-06,0.000
-7.530E-06,0.000
-7.520E-06,0.000
-7.510E-06,0.000
-7.500E-06,0.016
-7.490E-06,0.024
-7.480E-06,0.016
-7.470E-06,-0.008
-7.460E-06,-0.008
-7.450E-06,0.000
-7.440E-06,0.016
-7.430E-06,0.024
-7.420E-06,0.016
-7.410E-06,0.016
-7.400E-06,0.008
-7.390E-06,-0.008
-7.380E-06,-0.008
-7.370E-06,-0.008
-7.360E-06,-0.016
-7.350E-06,-0.008
-7.340E-06,0.008
-7.330E-06,0.016
-7.320E-06,0.008
-7.310E-06,-0.008
-7.300E-06,0.000
-7.290E-06,0.000
-7.280E-06,0.008
-7.270E-06,0.008
-7.260E-06,0.000
-7.250E-06,0.008
-7.240E-06,0.016
-7.230E-06,0.008
-7.220E-06,0.008
-7.210E-06,0.000
-7.200E-06,0.008
-7.190E-06,0.008
-7.180E-06,0.000
-7.170E-06,-0.008
-7.160E-06,0.000
-7.150E-06,0.000
-7.140E-06,0.008
-7.130E-06,0.008
-7.120E-06,0.008
-7.110E-06,0.000
-7.100E-06,0.000
-7.090E-06,0.008
-7.080E-06,0.016
-7.070E-06,0.016
-7.060E-06,0.016
-7.050E-06,0.016
-7.040E-06,-0.008
-7.030E-06,0.000
-7.020E-06,0.000
-7.010E-06,0.008
-7.000E-06,0.000
-6.990E-06,0.016
-6.980E-06,0.008
-6.970E-06,0.000
-6.960E-06,0.000
-6.950E-06,-0.008
-6.940E-06,0.000
-6.930E-06,0.016
-6.920E-06,0.008
-6.910E-06,0.024
-6.900E-06,0.016
-6.890E-06,0.008
-6.880E-06,0.008
-6.870E-06,0.008
-6.860E-06,0.016
-6.850E-06,0.016
-6.840E-06,0.000
-6.830E-06,0.008
-6.820E-06,0.008
-6.810E-06,0.016
-6.800E-06,0.000
-6.790E-06,0.000
-6.780E-06,-0.016
-6.770E-06,-0.008
-6.760E-06,0.016
-6.750E-06,0.024
-6.740E-06,0.016
-6.730E-06,0.016
-6.720E-06,0.008
-6.710E-06,-0.008
-6.700E-06,-0.008
-6.690E-06,-0.008
-6.680E-06,0.000
-6.670E-06,0.016
-6.660E-06,0.024
-6.650E-06,0.032
-6.640E-06,0.024
-6.630E-06,-0.008
-6.620E-06,-0.016
-6.610E-06,-0.016
-6.600E-06,-0.008
-6.590E-06,0.024
-6.580E-06,0.032
-6.570E-06,0.032
-6.560E-06,0.008
-6.550E-06,0.000
-6.540E-06,-0.016
-6.530E-06,-0.016
-6.520E-06,-0.008
-6.510E-06,0.016
-6.500E-06,0.024
-6.490E-06,0.024
-6.480E-06,0.024
-6.470E-06,-0.008
-6.460E-06,-0.016
-6.450E-06,-0.016
-6.440E-06,0.000
-6.430E-06,0.016
-6.420E-06,0.024
-6.410E-06,0.032
-6.400E-06,0.016
-6.390E-06,0.008
-6.380E-06,-0.008
-6.370E-06,-0.016
-6.360E-06,-0.008
-6.350E-06,0.008
-6.340E-06,0.024
-6.330E-06,0.032
-6.320E-06,0.016
-6.310E-06,-0.008
-6.300E-06,-0.008
-6.290E-06,-0.016
-6.280E-06,0.008
-6.270E-06,0.000
-6.260E-06,0.016
-6.250E-06,0.024
-6.240E-06,0.024
-6.230E-06,-0.008
-6.220E-06,-0.008
-6.210E-06,-0.008
-6.200E-06,0.000
-6.190E-06,0.008
-6.180E-06,0.024
-6.170E-06,0.016
-6.160E-06,0.008
-6.150E-06,0.008
-6.140E-06,-0.016
-6.130E-06,-0.008
-6.120E-06,0.016
-6.110E-06,0.008
-6.100E-06,0.024
-6.090E-06,0.008
-6.080E-06,0.016
-6.070E-06,-0.008
-6.060E-06,-0.016
-6.050E-06,-0.016
-6.040E-06,0.008
-6.030E-06,0.032
-6.020E-06,0.040
-6.010E-06,0.024
-6.000E-06,-0.008
-5.990E-06,-0.008
-5.980E-06,-0.008
-5.970E-06,-0.008
-5.960E-06,-0.008
-5.950E-06,0.008
-5.940E-06,-0.008
-5.930E-06,0.016
-5.920E-06,0.016
-5.910E-06,0.016
-5.900E-06,0.000
-5.890E-06,-0.008
-5.880E-06,-0.024
-5.870E-06,-0.016
-5.860E-06,0.000
-5.850E-06,0.024
-5.840E-06,0.032
-5.830E-06,0.016
-5.820E-06,0.000
-5.810E-06,-0.008
-5.800E-06,-0.024
-5.790E-06,0.000
-5.780E-06,0.008
-5.770E-06,0.024
-5.760E-06,0.040
-5.750E-06,0.024
-5.740E-06,0.008
-5.730E-06,0.000
-5.720E-06,-0.008
-5.710E-06,0.000
-5.700E-06,0.008
-5.690E-06,0.032
-5.680E-06,0.040
-5.670E-06,0.016
-5.660E-06,0.000
-5.650E-06,0.000
-5.640E-06,-0.088
-5.630E-06,-0.016
-5.620E-06,0.000
-5.610E-06,-0.008
-5.600E-06,0.048
-5.590E-06,0.048
-5.580E-06,0.080
-5.570E-06,0.008
-5.560E-06,-0.016
-5.550E-06,-0.080
-5.540E-06,-0.056
-5.530E-06,0.016
-5.520E-06,0.064
-5.510E-06,0.056
-5.500E-06,0.040
-5.490E-06,0.016
-5.480E-06,-0.032
-5.470E-06,-0.032
-5.460E-06,-0.024
-5.450E-06,0.000
-5.440E-06,0.048
-5.430E-06,0.048
-5.420E-06,0.032
-5.410E-06,0.008
-5.400E-06,-0.024
-5.390E-06,-0.024
-5.380E-06,-0.008
-5.370E-06,0.000
-5.360E-06,0.040
-5.350E-06,0.040
-5.340E-06,0.016
-5.330E-06,0.000
-5.320E-06,-0.080
-5.310E-06,-0.056
-5.300E-06,-0.024
-5.290E-06,-0.016
-5.280E-06,0.048
-5.270E-06,0.056
-5.260E-06,0.048
-5.250E-06,0.000
-5.240E-06,-0.024
-5.230E-06,-0.056
-5.220E-06,-0.016
-5.210E-06,0.016
-5.200E-06,0.016
-5.190E-06,0.024
-5.180E-06,0.008
-5.170E-06,0.000
-5.160E-06,-0.016
-5.150E-06,-0.008
-5.140E-06,-0.008
-5.130E-06,-0.008
-5.120E-06,0.016
-5.110E-06,0.024
-5.100E-06,0.024
-5.090E-06,0.000
-5.080E-06,0.000
-5.070E-06,0.000
-5.060E-06,-0.008
-5.050E-06,-0.008
-5.040E-06,0.008
-5.030E-06,0.008
-5.020E-06,0.016
-5.010E-06,0.016
-5.000E-06,0.008
-4.990E-06,0.000
-4.980E-06,-0.008
-4.970E-06,0.000
-4.960E-06,0.000
-4.950E-06,0.008
-4.940E-06,0.016
-4.930E-06,0.008
-4.920E-06,0.000
-4.910E-06,0.000
-4.900E-06,0.008
-4.890E-06,0.000
-4.880E-06,0.008
-4.870E-06,0.008
-4.860E-06,0.008
-4.850E-06,0.016
-4.840E-06,0.008
-4.830E-06,0.000
-4.820E-06,0.008
-4.810E-06,0.008
-4.800E-06,0.008
-4.790E-06,0.008
-4.780E-06,0.000
-4.770E-06,0.008
-4.760E-06,0.000
-4.750E-06,-0.008
-4.740E-06,-0.008
-4.730E-06,0.008
-4.720E-06,0.016
-4.710E-06,0.024
-4.700E-06,0.008
-4.690E-06,0.008
-4.680E-06,0.000
-4.670E-06,0.008
-4.660E-06,0.000
-4.650E-06,0.000
-4.640E-06,0.016
-4.630E-06,0.008
-4.620E-06,0.008
-4.610E-06,0.008
-4.600E-06,0.000
-4.590E-06,-0.008
-4.580E-06,-0.008
-4.570E-06,0.000
-4.560E-06,0.008
-4.550E-06,0.000
-4.540E-06,0.000
-4.530E-06,0.008
-4.520E-06,0.016
-4.510E-06,0.000
-4.500E-06,-0.008
-4.490E-06,0.000
-4.480E-06,0.000
-4.470E-06,0.008
-4.460E-06,0.008
-4.450E-06,0.008
-4.440E-06,0.008
-4.430E-06,0.008
-4.420E-06,0.008
-4.410E-06,0.008
-4.400E-06,0.008
-4.390E-06,0.016
-4.380E-06,0.000
-4.370E-06,0.000
-4.360E-06,0.008
-4.350E-06,0.008
-4.340E-06,0.000
-4.330E-06,0.008
-4.320E-06,0.000
-4.310E-06,0.008
-4.300E-06,0.016
-4.290E-06,0.016
-4.280E-06,0.000
-4.270E-06,0.000
-4.260E-06,0.008
-4.250E-06,0.016
-4.240E-06,0.016
-4.230E-06,-0.008
-4.220E-06,-0.008
-4.210E-06,0.008
-4.200E-06,0.008
-4.190E-06,0.008
-4.180E-06,0.000
-4.170E-06,0.000
-4.160E-06,0.000
-4.150E-06,0.008
-4.140E-06,0.008
-4.130E-06,0.000
-4.120E-06,0.008
-4.110E-06,0.008
-4.100E-06,0.000
-4.090E-06,0.000
-4.080E-06,-0.008
-4.070E-06,0.008
-4.060E-06,0.000
-4.050E-06,0.016
-4.040E-06,0.016
-4.030E-06,0.008
-4.020E-06,0.008
-4.010E-06,0.000
-4.000E-06,0.000
-3.990E-06,0.000
-3.980E-06,0.000
-3.970E-06,0.016
-3.960E-06,0.000
-3.950E-06,0.008
-3.940E-06,0.000
-3.930E-06,0.000
-3.920E-06,0.000
-3.910E-06,0.000
-3.900E-06,0.016
-3.890E-06,0.008
-3.880E-06,0.008
-3.870E-06,0.000
-3.860E-06,0.000
-3.850E-06,-0.008
-3.840E-06,0.000
-3.830E-06,0.008
-3.820E-06,0.008
-3.810E-06,0.016
-3.800E-06,0.000
-3.790E-06,0.008
-3.780E-06,0.008
-3.770E-06,0.000
-3.760E-06,-0.008
-3.750E-06,0.000
-3.740E-06,0.008
-3.730E-06,0.000
-3.720E-06,0.016
-3.710E-06,0.008
-3.700E-06,0.008
-3.690E-06,0.008
-3.680E-06,0.000
-3.670E-06,0.000
-3.660E-06,0.008
-3.650E-06,0.016
-3.640E-06,0.016
-3.630E-06,0.008
-3.620E-06,0.008
-3.610E-06,0.000
-3.600E-06,0.000
-3.590E-06,-0.008
-3.580E-06,0.000
-3.570E-06,0.000
-3.560E-06,-0.008
-3.550E-06,0.008
-3.540E-06,0.008
-3.530E-06,0.000
-3.520E-06,0.000
-3.510E-06,0.016
-3.500E-06,0.016
-3.490E-06,0.024
-3.480E-06,0.016
-3.470E-06,0.000
-3.460E-06,0.000
-3.450E-06,0.000
-3.440E-06,-0.008
-3.430E-06,0.000
-3.420E-06,0.024
-3.410E-06,0.024
-3.400E-06,0.008
-3.390E-06,0.000
-3.380E-06,0.008
-3.370E-06,0.000
-3.360E-06,0.008
-3.350E-06,0.008
-3.340E-06,0.008
-3.330E-06,0.024
-3.320E-06,0.032
-3.310E-06,0.024
-3.300E-06,0.024
-3.290E-06,0.000
-3.280E-06,0.000
-3.270E-06,-0.024
-3.260E-06,-0.032
-3.250E-06,-0.008
-3.240E-06,-0.024
-3.230E-06,0.024
-3.220E-06,0.008
-3.210E-06,0.032
-3.200E-06,0.024
-3.190E-06,-0.032
-3.180E-06,0.000
-3.170E-06,-0.008
-3.160E-06,0.016
-3.150E-06,0.048
-3.140E-06,0.032
-3.130E-06,-0.008
-3.120E-06,-0.008
-3.110E-06,-0.016
-3.100E-06,-0.008
-3.090E-06,0.024
-3.080E-06,0.040
-3.070E-06,0.040
-3.060E-06,0.024
-3.050E-06,0.000
-3.040E-06,-0.024
-3.030E-06,-0.008
-3.020E-06,0.000
-3.010E-06,0.024
-3.000E-06,0.016
-2.990E-06,0.016
-2.980E-06,0.024
-2.970E-06,0.008
-2.960E-06,-0.016
-2.950E-06,-0.024
-2.940E-06,-0.008
-2.930E-06,0.016
-2.920E-06,0.024
-2.910E-06,0.016
-2.900E-06,-0.008
-2.890E-06,-0.008
-2.880E-06,-0.008
-2.870E-06,-0.008
-2.860E-06,0.000
-2.850E-06,0.016
-2.840E-06,0.016
-2.830E-06,0.016
-2.820E-06,0.008
-2.810E-06,0.008
-2.800E-06,0.000
-2.790E-06,0.000
-2.780E-06,0.008
-2.770E-06,0.008
-2.760E-06,0.000
-2.750E-06,0.008
-2.740E-06,0.016
-2.730E-06,0.016
-2.720E-06,0.008
-2.710E-06,0.000
-2.700E-06,0.008
-2.690E-06,0.016
-2.680E-06,0.016
-2.670E-06,0.024
-2.660E-06,0.024
-2.650E-06,0.024
-2.640E-06,0.008
-2.630E-06,0.016
-2.620E-06,0.016
-2.610E-06,0.040
-2.600E-06,0.064
-2.590E-06,0.032
-2.580E-06,0.048
-2.570E-06,0.008
-2.560E-06,-0.008
-2.550E-06,-0.040
-2.540E-06,-0.040
-2.530E-06,0.056
-2.520E-06,0.064
-2.510E-06,0.000
-2.500E-06,-0.008
-2.490E-06,-0.016
-2.480E-06,-0.016
-2.470E-06,-0.024
-2.460E-06,-0.032
-2.450E-06,0.008
-2.440E-06,0.072
-2.430E-06,0.056
-2.420E-06,0.024
-2.410E-06,-0.024
-2.400E-06,-0.040
-2.390E-06,-0.016
-2.380E-06,0.048
-2.370E-06,0.088
-2.360E-06,0.112
-2.350E-06,0.080
-2.340E-06,0.000
-2.330E-06,-0.056
-2.320E-06,-0.064
-2.310E-06,-0.088
-2.300E-06,-0.064
-2.290E-06,-0.016
-2.280E-06,0.048
-2.270E-06,0.040
-2.260E-06,-0.008
-2.250E-06,-0.008
-2.240E-06,0.008
-2.230E-06,0.048
-2.220E-06,0.016
-2.210E-06,0.000
-2.200E-06,0.016
-2.190E-06,-0.016
-2.180E-06,-0.008
-2.170E-06,-0.008
-2.160E-06,0.000
-2.150E-06,0.000
-2.140E-06,0.016
-2.130E-06,0.032
-2.120E-06,-0.008
-2.110E-06,-0.032
-2.100E-06,-0.008
-2.090E-06,0.016
-2.080E-06,0.072
-2.070E-06,0.048
-2.060E-06,0.032
-2.050E-06,0.008
-2.040E-06,-0.008
-2.030E-06,-0.016
-2.020E-06,-0.016
-2.010E-06,0.016
-2.000E-06,0.032
-1.990E-06,0.056
-1.980E-06,0.048
-1.970E-06,0.040
-1.960E-06,0.016
-1.950E-06,0.016
-1.940E-06,-0.016
-1.930E-06,0.000
-1.920E-06,-0.032
-1.910E-06,-0.016
-1.900E-06,0.000
-1.890E-06,0.024
-1.880E-06,0.048
-1.870E-06,0.024
-1.860E-06,0.016
-1.850E-06,0.000
-1.840E-06,-0.016
-1.830E-06,-0.032
-1.820E-06,-0.016
-1.810E-06,0.016
-1.800E-06,0.064
-1.790E-06,0.048
-1.780E-06,0.016
-1.770E-06,-0.016
-1.760E-06,-0.040
-1.750E-06,-0.024
-1.740E-06,0.000
-1.730E-06,0.040
-1.720E-06,0.056
-1.710E-06,0.048
-1.700E-06,0.048
-1.690E-06,0.016
-1.680E-06,-0.008
-1.670E-06,-0.008
-1.660E-06,0.000
-1.650E-06,0.048
-1.640E-06,0.080
-1.630E-06,0.080
-1.620E-06,0.096
-1.610E-06,0.072
-1.600E-06,0.080
-1.590E-06,0.080
-1.580E-06,0.000
-1.570E-06,-0.112
-1.560E-06,-0.072
-1.550E-06,-0.016
-1.540E-06,-0.096
-1.530E-06,-0.064
-1.520E-06,-0.032
-1.510E-06,0.008
-1.500E-06,0.000
-1.490E-06,0.000
-1.480E-06,0.040
-1.470E-06,0.064
-1.460E-06,0.112
-1.450E-06,0.024
-1.440E-06,-0.048
-1.430E-06,-0.056
-1.420E-06,-0.064
-1.410E-06,-0.008
-1.400E-06,0.016
-1.390E-06,0.008
-1.380E-06,0.024
-1.370E-06,0.016
-1.360E-06,0.016
-1.350E-06,0.016
-1.340E-06,0.048
-1.330E-06,0.064
-1.320E-06,0.040
-1.310E-06,0.024
-1.300E-06,-0.064
-1.290E-06,-0.080
-1.280E-06,-0.112
-1.270E-06,-0.040
-1.260E-06,0.000
-1.250E-06,0.032
-1.240E-06,0.072
-1.230E-06,0.072
-1.220E-06,0.056
-1.210E-06,-0.008
-1.200E-06,-0.016
-1.190E-06,-0.040
-1.180E-06,0.000
-1.170E-06,0.048
-1.160E-06,0.072
-1.150E-06,0.056
-1.140E-06,0.040
-1.130E-06,0.024
-1.120E-06,0.008
-1.110E-06,0.016
-1.100E-06,0.040
-1.090E-06,0.096
-1.080E-06,0.120
-1.070E-06,0.120
-1.060E-06,0.128
-1.050E-06,0.112
-1.040E-06,0.128
-1.030E-06,0.120
-1.020E-06,0.112
-1.010E-06,0.088
-1.000E-06,0.064
-9.900E-07,0.056
-9.800E-07,-0.016
-9.700E-07,0.120
-9.600E-07,-0.008
-9.500E-07,0.016
-9.400E-07,-0.024
-9.300E-07,-0.064
-9.200E-07,-0.280
-9.100E-07,-0.280
-9.000E-07,-0.248
-8.900E-07,0.208
-8.800E-07,0.200
-8.700E-07,-0.200
-8.600E-07,-0.288
-8.500E-07,-0.464
-8.400E-07,-0.056
-8.300E-07,0.264
-8.200E-07,0.224
-8.100E-07,0.080
-8.000E-07,-0.024
-7.900E-07,-0.008
-7.800E-07,0.040
-7.700E-07,-0.048
-7.600E-07,0.024
-7.500E-07,0.080
-7.400E-07,0.272
-7.300E-07,0.256
-7.200E-07,0.112
-7.100E-07,0.016
-7.000E-07,0.008
-6.900E-07,0.104
-6.800E-07,0.176
-6.700E-07,0.216
-6.600E-07,0.208
-6.500E-07,0.144
-6.400E-07,0.104
-6.300E-07,-0.024
-6.200E-07,-0.072
-6.100E-07,-0.120
-6.000E-07,-0.232
-5.900E-07,-0.264
-5.800E-07,-0.280
-5.700E-07,0.056
-5.600E-07,0.024
-5.500E-07,0.104
-5.400E-07,-0.016
-5.300E-07,-0.088
-5.200E-07,-0.128
-5.100E-07,-0.136
-5.000E-07,-0.176
-4.900E-07,-0.016
-4.800E-07,0.168
-4.700E-07,0.216
-4.600E-07,0.112
-4.500E-07,0.040
-4.400E-07,-0.024
-4.300E-07,-0.064
-4.200E-07,0.000
-4.100E-07,0.112
-4.000E-07,0.184
-3.900E-07,0.224
-3.800E-07,0.192
-3.700E-07,0.144
-3.600E-07,0.016
-3.500E-07,0.000
-3.400E-07,-0.024
-3.300E-07,0.056
-3.200E-07,0.184
-3.100E-07,0.248
-3.000E-07,0.288
-2.900E-07,0.256
-2.800E-07,0.200
-2.700E-07,0.104
-2.600E-07,0.080
-2.500E-07,0.096
-2.400E-07,0.184
-2.300E-07,0.240
-2.200E-07,0.264
-2.100E-07,0.144
-2.000E-07,-0.016
-1.900E-07,-0.072
-1.800E-07,-0.064
-1.700E-07,-0.040
-1.600E-07,0.000
-1.500E-07,0.136
-1.400E-07,0.248
-1.300E-07,0.256
-1.200E-07,0.184
-1.100E-07,0.176
-1.000E-07,0.144
-9.000E-08,0.184
-8.000E-08,0.272
-7.000E-08,0.216
-6.000E-08,-0.408
-5.000E-08,-0.640
-4.000E-08,-1.016
-3.000E-08,-0.416
-2.000E-08,-0.240
-1.000E-08,0.392
0.000E+00,0.536
1.000E-08,0.280
2.000E-08,0.568
3.000E-08,-0.080
4.000E-08,-0.216
5.000E-08,0.064
6.000E-08,0.112
7.000E-08,0.472
8.000E-08,0.656
9.000E-08,0.552
1.000E-07,0.360
1.100E-07,0.160
1.200E-07,-0.056
1.300E-07,-0.072
1.400E-07,0.056
1.500E-07,0.272
1.600E-07,0.512
1.700E-07,0.512
1.800E-07,0.440
1.900E-07,0.232
2.000E-07,0.104
2.100E-07,-0.016
2.200E-07,0.072
2.300E-07,0.144
2.400E-07,0.296
2.500E-07,0.312
2.600E-07,0.280
2.700E-07,0.192
2.800E-07,0.056
2.900E-07,0.000
3.000E-07,0.048
3.100E-07,0.216
3.200E-07,0.384
3.300E-07,0.560
3.400E-07,0.536
3.500E-07,0.448
3.600E-07,0.256
3.700E-07,0.096
3.800E-07,0.088
3.900E-07,0.160
4.000E-07,0.320
4.100E-07,0.464
4.200E-07,0.504
4.300E-07,0.408
4.400E-07,0.256
4.500E-07,0.120
4.600E-07,0.096
4.700E-07,0.168
4.800E-07,0.312
4.900E-07,0.424
5.000E-07,0.456
5.100E-07,0.408
5.200E-07,0.312
5.300E-07,0.192
5.400E-07,0.152
5.500E-07,0.200
5.600E-07,0.296
5.700E-07,0.408
5.800E-07,0.448
5.900E-07,0.408
6.000E-07,0.312
6.100E-07,0.216
6.200E-07,0.168
6.300E-07,0.176
6.400E-07,0.248
6.500E-07,0.336
6.600E-07,0.408
6.700E-07,0.400
6.800E-07,0.360
6.900E-07,0.280
7.000E-07,0.232
7.100E-07,0.208
7.200E-07,0.256
7.300E-07,0.304
7.400E-07,0.376
7.500E-07,0.376
7.600E-07,0.344
7.700E-07,0.296
7.800E-07,0.248
7.900E-07,0.232
8.000E-07,0.256
8.100E-07,0.304
8.200E-07,0.336
8.300E-07,0.360
8.400E-07,0.352
8.500E-07,0.312
8.600E-07,0.272
8.700E-07,0.248
8.800E-07,0.264
8.900E-07,0.304
9.000E-07,0.336
9.100E-07,0.352
9.200E-07,0.344
9.300E-07,0.312
9.400E-07,0.264
9.500E-07,0.248
9.600E-07,0.248
9.700E-07,0.288
9.800E-07,0.328
9.900E-07,0.360
1.000E-06,0.352
1.010E-06,0.312
1.020E-06,0.264
1.030E-06,0.240
1.040E-06,0.240
1.050E-06,0.272
1.060E-06,0.304
1.070E-06,0.312
1.080E-06,0.320
1.090E-06,0.312
1.100E-06,0.272
1.110E-06,0.256
1.120E-06,0.248
1.130E-06,0.272
1.140E-06,0.296
1.150E-06,0.320
1.160E-06,0.312
1.170E-06,0.304
1.180E-06,0.288
1.190E-06,0.256
1.200E-06,0.248
1.210E-06,0.264
1.220E-06,0.280
1.230E-06,0.296
1.240E-06,0.304
1.250E-06,0.288
1.260E-06,0.280
1.270E-06,0.264
1.280E-06,0.256
1.290E-06,0.272
1.300E-06,0.280
1.310E-06,0.304
1.320E-06,0.320
1.330E-06,0.304
1.340E-06,0.296
1.350E-06,0.272
1.360E-06,0.256
1.370E-06,0.256
1.380E-06,0.272
1.390E-06,0.288
1.400E-06,0.296
1.410E-06,0.288
1.420E-06,0.280
1.430E-06,0.272
1.440E-06,0.256
1.450E-06,0.256
1.460E-06,0.264
1.470E-06,0.280
1.480E-06,0.296
1.490E-06,0.296
1.500E-06,0.288
1.510E-06,0.280
1.520E-06,0.264
1.530E-06,0.256
1.540E-06,0.256
1.550E-06,0.264
1.560E-06,0.280
1.570E-06,0.280
1.580E-06,0.272
1.590E-06,0.264
1.600E-06,0.264
1.610E-06,0.256
1.620E-06,0.256
1.630E-06,0.264
1.640E-06,0.280
1.650E-06,0.280
1.660E-06,0.288
1.670E-06,0.272
1.680E-06,0.264
1.690E-06,0.248
1.700E-06,0.256
1.710E-06,0.264
1.720E-06,0.272
1.730E-06,0.280
1.740E-06,0.272
1.750E-06,0.256
1.760E-06,0.248
1.770E-06,0.240
1.780E-06,0.240
1.790E-06,0.248
1.800E-06,0.256
1.810E-06,0.272
1.820E-06,0.264
1.830E-06,0.272
1.840E-06,0.256
1.850E-06,0.256
1.860E-06,0.256
1.870E-06,0.256
1.880E-06,0.256
1.890E-06,0.256
1.900E-06,0.264
1.910E-06,0.248
1.920E-06,0.256
1.930E-06,0.256
1.940E-06,0.256
1.950E-06,0.256
1.960E-06,0.256
1.970E-06,0.256
1.980E-06,0.248
1.990E-06,0.248
2.000E-06,0.248
2.010E-06,0.240
2.020E-06,0.248
2.030E-06,0.248
2.040E-06,0.248
2.050E-06,0.256
2.060E-06,0.248
2.070E-06,0.248
2.080E-06,0.232
2.090E-06,0.232
2.100E-06,0.232
2.110E-06,0.240
2.120E-06,0.248
2.130E-06,0.256
2.140E-06,0.248
2.150E-06,0.232
2.160E-06,0.240
2.170E-06,0.232
2.180E-06,0.224
2.190E-06,0.224
2.200E-06,0.240
2.210E-06,0.248
2.220E-06,0.248
2.230E-06,0.248
2.240E-06,0.256
2.250E-06,0.248
2.260E-06,0.248
2.270E-06,0.256
2.280E-06,0.240
2.290E-06,0.240
2.300E-06,0.224
2.310E-06,0.216
2.320E-06,0.240
2.330E-06,0.224
2.340E-06,0.224
2.350E-06,0.216
2.360E-06,0.216
2.370E-06,0.216
2.380E-06,0.224
2.390E-06,0.224
2.400E-06,0.224
2.410E-06,0.224
2.420E-06,0.224
2.430E-06,0.224
2.440E-06,0.216
2.450E-06,0.216
2.460E-06,0.216
2.470E-06,0.216
2.480E-06,0.224
2.490E-06,0.208
2.500E-06,0.216
2.510E-06,0.216
2.520E-06,0.216
2.530E-06,0.216
2.540E-06,0.216
2.550E-06,0.216
2.560E-06,0.216
2.570E-06,0.200
2.580E-06,0.200
2.590E-06,0.192
2.600E-06,0.184
2.610E-06,0.176
2.620E-06,0.184
2.630E-06,0.184
2.640E-06,0.200
2.650E-06,0.216
2.660E-06,0.216
2.670E-06,0.216
2.680E-06,0.208
2.690E-06,0.200
2.700E-06,0.200
2.710E-06,0.208
2.720E-06,0.216
2.730E-06,0.208
2.740E-06,0.208
2.750E-06,0.200
2.760E-06,0.184
2.770E-06,0.176
2.780E-06,0.184
2.790E-06,0.184
2.800E-06,0.192
2.810E-06,0.200
2.820E-06,0.200
2.830E-06,0.208
2.840E-06,0.200
2.850E-06,0.192
2.860E-06,0.192
2.870E-06,0.176
2.880E-06,0.176
2.890E-06,0.184
2.900E-06,0.200
2.910E-06,0.184
2.920E-06,0.184
2.930E-06,0.184
2.940E-06,0.184
2.950E-06,0.176
2.960E-06,0.184
2.970E-06,0.176
2.980E-06,0.184
2.990E-06,0.200
3.000E-06,0.200
3.010E-06,0.192
3.020E-06,0.192
3.030E-06,0.184
3.040E-06,0.176
3.050E-06,0.176
3.060E-06,0.168
3.070E-06,0.184
3.080E-06,0.176
3.090E-06,0.176
3.100E-06,0.176
3.110E-06,0.184
3.120E-06,0.176
3.130E-06,0.184
3.140E-06,0.184
3.150E-06,0.176
3.160E-06,0.168
3.170E-06,0.184
3.180E-06,0.184
3.190E-06,0.176
3.200E-06,0.176
3.210E-06,0.176
3.220E-06,0.168
3.230E-06,0.168
3.240E-06,0.176
3.250E-06,0.168
3.260E-06,0.176
3.270E-06,0.176
3.280E-06,0.168
3.290E-06,0.160
3.300E-06,0.168
3.310E-06,0.168
3.320E-06,0.160
3.330E-06,0.176
3.340E-06,0.160
3.350E-06,0.168
3.360E-06,0.152
3.370E-06,0.152
3.380E-06,0.144
3.390E-06,0.152
3.400E-06,0.152
3.410E-06,0.152
3.420E-06,0.160
3.430E-06,0.160
3.440E-06,0.160
3.450E-06,0.152
3.460E-06,0.144
3.470E-06,0.152
3.480E-06,0.144
3.490E-06,0.160
3.500E-06,0.152
3.510E-06,0.152
3.520E-06,0.152
3.530E-06,0.144
3.540E-06,0.152
3.550E-06,0.144
3.560E-06,0.136
3.570E-06,0.136
3.580E-06,0.152
3.590E-06,0.152
3.600E-06,0.144
3.610E-06,0.152
3.620E-06,0.136
3.630E-06,0.136
3.640E-06,0.136
3.650E-06,0.136
3.660E-06,0.136
