mediciones/Mediciones filtradas (saque las feas)/5-15/22.5/WaveData47406.csv

#timebase=2000000(ps)
,#voltbase=500000(mv/100)
#size=4000
-8.400E-06,0.080
-8.390E-06,0.040
-8.380E-06,0.060
-8.370E-06,0.060
-8.360E-06,0.060
-8.350E-06,0.060
-8.340E-06,0.040
-8.330E-06,0.040
-8.320E-06,0.040
-8.310E-06,0.080
-8.300E-06,0.040
-8.290E-06,0.040
-8.280E-06,0.040
-8.270E-06,0.020
-8.260E-06,0.060
-8.250E-06,0.020
-8.240E-06,0.020
-8.230E-06,0.060
-8.220E-06,0.040
-8.210E-06,0.040
-8.200E-06,0.040
-8.190E-06,0.060
-8.180E-06,0.040
-8.170E-06,0.020
-8.160E-06,0.040
-8.150E-06,0.040
-8.140E-06,0.040
-8.130E-06,0.020
-8.120E-06,0.040
-8.110E-06,0.040
-8.100E-06,0.060
-8.090E-06,0.040
-8.080E-06,0.040
-8.070E-06,0.040
-8.060E-06,0.040
-8.050E-06,0.060
-8.040E-06,0.040
-8.030E-06,0.020
-8.020E-06,0.060
-8.010E-06,0.020
-8.000E-06,0.020
-7.990E-06,0.040
-7.980E-06,0.040
-7.970E-06,0.040
-7.960E-06,0.060
-7.950E-06,0.060
-7.940E-06,0.020
-7.930E-06,0.060
-7.920E-06,0.040
-7.910E-06,0.060
-7.900E-06,0.080
-7.890E-06,0.040
-7.880E-06,0.040
-7.870E-06,0.060
-7.860E-06,0.040
-7.850E-06,0.080
-7.840E-06,0.060
-7.830E-06,0.020
-7.820E-06,0.040
-7.810E-06,0.060
-7.800E-06,0.040
-7.790E-06,0.020
-7.780E-06,0.060
-7.770E-06,0.040
-7.760E-06,0.020
-7.750E-06,0.040
-7.740E-06,0.060
-7.730E-06,0.060
-7.720E-06,0.040
-7.710E-06,0.020
-7.700E-06,0.060
-7.690E-06,0.040
-7.680E-06,0.040
-7.670E-06,0.060
-7.660E-06,0.060
-7.650E-06,0.040
-7.640E-06,0.040
-7.630E-06,0.080
-7.620E-06,0.040
-7.610E-06,0.060
-7.600E-06,0.040
-7.590E-06,0.040
-7.580E-06,0.040
-7.570E-06,0.040
-7.560E-06,0.060
-7.550E-06,0.080
-7.540E-06,0.040
-7.530E-06,0.060
-7.520E-06,0.080
-7.510E-06,0.040
-7.500E-06,0.020
-7.490E-06,0.040
-7.480E-06,0.020
-7.470E-06,0.040
-7.460E-06,0.040
-7.450E-06,0.060
-7.440E-06,0.060
-7.430E-06,0.060
-7.420E-06,0.020
-7.410E-06,0.040
-7.400E-06,0.040
-7.390E-06,0.060
-7.380E-06,0.040
-7.370E-06,0.020
-7.360E-06,0.060
-7.350E-06,0.040
-7.340E-06,0.060
-7.330E-06,0.020
-7.320E-06,0.060
-7.310E-06,0.020
-7.300E-06,0.040
-7.290E-06,0.060
-7.280E-06,0.060
-7.270E-06,0.020
-7.260E-06,0.020
-7.250E-06,0.060
-7.240E-06,0.020
-7.230E-06,0.040
-7.220E-06,0.040
-7.210E-06,0.040
-7.200E-06,0.040
-7.190E-06,0.060
-7.180E-06,0.040
-7.170E-06,0.040
-7.160E-06,0.060
-7.150E-06,0.040
-7.140E-06,0.060
-7.130E-06,0.040
-7.120E-06,0.040
-7.110E-06,0.040
-7.100E-06,0.080
-7.090E-06,0.080
-7.080E-06,0.080
-7.070E-06,0.020
-7.060E-06,0.020
-7.050E-06,0.040
-7.040E-06,0.020
-7.030E-06,0.060
-7.020E-06,0.040
-7.010E-06,0.060
-7.000E-06,0.060
-6.990E-06,0.040
-6.980E-06,0.040
-6.970E-06,0.060
-6.960E-06,0.040
-6.950E-06,0.020
-6.940E-06,0.020
-6.930E-06,0.040
-6.920E-06,0.020
-6.910E-06,0.040
-6.900E-06,0.060
-6.890E-06,0.080
-6.880E-06,0.020
-6.870E-06,0.040
-6.860E-06,0.080
-6.850E-06,0.040
-6.840E-06,0.060
-6.830E-06,0.060
-6.820E-06,0.080
-6.810E-06,0.080
-6.800E-06,0.080
-6.790E-06,0.040
-6.780E-06,0.060
-6.770E-06,0.060
-6.760E-06,0.060
-6.750E-06,0.040
-6.740E-06,0.020
-6.730E-06,0.020
-6.720E-06,0.060
-6.710E-06,0.060
-6.700E-06,0.040
-6.690E-06,0.040
-6.680E-06,0.060
-6.670E-06,0.060
-6.660E-06,0.020
-6.650E-06,0.040
-6.640E-06,0.060
-6.630E-06,0.060
-6.620E-06,0.040
-6.610E-06,0.040
-6.600E-06,0.020
-6.590E-06,0.060
-6.580E-06,0.040
-6.570E-06,0.020
-6.560E-06,0.040
-6.550E-06,0.060
-6.540E-06,0.060
-6.530E-06,0.080
-6.520E-06,0.060
-6.510E-06,0.040
-6.500E-06,0.080
-6.490E-06,0.060
-6.480E-06,0.040
-6.470E-06,0.040
-6.460E-06,0.040
-6.450E-06,0.060
-6.440E-06,0.040
-6.430E-06,0.040
-6.420E-06,0.060
-6.410E-06,0.040
-6.400E-06,0.060
-6.390E-06,0.020
-6.380E-06,0.020
-6.370E-06,0.060
-6.360E-06,0.060
-6.350E-06,0.080
-6.340E-06,0.060
-6.330E-06,0.020
-6.320E-06,0.060
-6.310E-06,0.020
-6.300E-06,0.040
-6.290E-06,0.060
-6.280E-06,0.020
-6.270E-06,0.020
-6.260E-06,0.060
-6.250E-06,0.060
-6.240E-06,0.080
-6.230E-06,0.040
-6.220E-06,0.040
-6.210E-06,0.040
-6.200E-06,0.020
-6.190E-06,0.040
-6.180E-06,0.040
-6.170E-06,0.040
-6.160E-06,0.060
-6.150E-06,0.060
-6.140E-06,0.060
-6.130E-06,0.040
-6.120E-06,0.040
-6.110E-06,0.020
-6.100E-06,0.040
-6.090E-06,0.040
-6.080E-06,0.040
-6.070E-06,0.080
-6.060E-06,0.040
-6.050E-06,0.040
-6.040E-06,0.040
-6.030E-06,0.040
-6.020E-06,0.040
-6.010E-06,0.080
-6.000E-06,0.060
-5.990E-06,0.020
-5.980E-06,0.040
-5.970E-06,0.060
-5.960E-06,0.040
-5.950E-06,0.020
-5.940E-06,0.060
-5.930E-06,0.040
-5.920E-06,0.060
-5.910E-06,0.040
-5.900E-06,0.040
-5.890E-06,0.040
-5.880E-06,0.060
-5.870E-06,0.060
-5.860E-06,0.060
-5.850E-06,0.060
-5.840E-06,0.040
-5.830E-06,0.040
-5.820E-06,0.020
-5.810E-06,0.040
-5.800E-06,0.060
-5.790E-06,0.060
-5.780E-06,0.060
-5.770E-06,0.080
-5.760E-06,0.060
-5.750E-06,0.080
-5.740E-06,0.020
-5.730E-06,0.040
-5.720E-06,0.040
-5.710E-06,0.060
-5.700E-06,0.080
-5.690E-06,0.040
-5.680E-06,0.040
-5.670E-06,0.040
-5.660E-06,0.060
-5.650E-06,0.080
-5.640E-06,0.060
-5.630E-06,0.080
-5.620E-06,0.040
-5.610E-06,0.040
-5.600E-06,0.040
-5.590E-06,0.020
-5.580E-06,0.040
-5.570E-06,-0.080
-5.560E-06,-0.460
-5.550E-06,-1.200
-5.540E-06,-2.220
-5.530E-06,-2.660
-5.520E-06,-2.660
-5.510E-06,-2.660
-5.500E-06,-2.660
-5.490E-06,-2.660
-5.480E-06,-2.660
-5.470E-06,-1.800
-5.460E-06,-0.300
-5.450E-06,1.220
-5.440E-06,2.660
-5.430E-06,2.780
-5.420E-06,2.760
-5.410E-06,2.760
-5.400E-06,2.760
-5.390E-06,2.740
-5.380E-06,2.760
-5.370E-06,2.760
-5.360E-06,2.300
-5.350E-06,1.980
-5.340E-06,1.720
-5.330E-06,1.600
-5.320E-06,1.580
-5.310E-06,1.600
-5.300E-06,1.520
-5.290E-06,1.220
-5.280E-06,0.740
-5.270E-06,0.100
-5.260E-06,-0.620
-5.250E-06,-1.280
-5.240E-06,-1.880
-5.230E-06,-2.400
-5.220E-06,-2.660
-5.210E-06,-2.660
-5.200E-06,-2.640
-5.190E-06,-2.660
-5.180E-06,-2.380
-5.170E-06,-1.840
-5.160E-06,-1.240
-5.150E-06,-0.620
-5.140E-06,-0.080
-5.130E-06,0.420
-5.120E-06,0.860
-5.110E-06,1.120
-5.100E-06,1.180
-5.090E-06,1.040
-5.080E-06,0.720
-5.070E-06,0.380
-5.060E-06,0.060
-5.050E-06,-0.260
-5.040E-06,-0.500
-5.030E-06,-0.640
-5.020E-06,-0.660
-5.010E-06,-0.680
-5.000E-06,-0.600
-4.990E-06,-0.500
-4.980E-06,-0.440
-4.970E-06,-0.320
-4.960E-06,-0.260
-4.950E-06,-0.180
-4.940E-06,-0.180
-4.930E-06,-0.180
-4.920E-06,-0.160
-4.910E-06,-0.140
-4.900E-06,-0.160
-4.890E-06,-0.140
-4.880E-06,-0.120
-4.870E-06,-0.020
-4.860E-06,0.080
-4.850E-06,0.240
-4.840E-06,0.480
-4.830E-06,0.700
-4.820E-06,0.900
-4.810E-06,1.080
-4.800E-06,1.180
-4.790E-06,1.220
-4.780E-06,1.200
-4.770E-06,1.080
-4.760E-06,0.880
-4.750E-06,0.640
-4.740E-06,0.360
-4.730E-06,0.120
-4.720E-06,-0.160
-4.710E-06,-0.380
-4.700E-06,-0.500
-4.690E-06,-0.580
-4.680E-06,-0.560
-4.670E-06,-0.480
-4.660E-06,-0.360
-4.650E-06,-0.240
-4.640E-06,-0.100
-4.630E-06,0.060
-4.620E-06,0.140
-4.610E-06,0.220
-4.600E-06,0.260
-4.590E-06,0.220
-4.580E-06,0.200
-4.570E-06,0.140
-4.560E-06,0.100
-4.550E-06,0.060
-4.540E-06,0.000
-4.530E-06,0.020
-4.520E-06,-0.020
-4.510E-06,0.000
-4.500E-06,0.020
-4.490E-06,0.020
-4.480E-06,-0.020
-4.470E-06,-0.020
-4.460E-06,-0.040
-4.450E-06,-0.080
-4.440E-06,-0.140
-4.430E-06,-0.200
-4.420E-06,-0.280
-4.410E-06,-0.340
-4.400E-06,-0.440
-4.390E-06,-0.520
-4.380E-06,-0.580
-4.370E-06,-0.580
-4.360E-06,-0.580
-4.350E-06,-0.580
-4.340E-06,-0.560
-4.330E-06,-0.480
-4.320E-06,-0.420
-4.310E-06,-0.420
-4.300E-06,-0.320
-4.290E-06,-0.340
-4.280E-06,-0.340
-4.270E-06,-0.340
-4.260E-06,-0.340
-4.250E-06,-0.240
-4.240E-06,-0.200
-4.230E-06,-0.200
-4.220E-06,-0.220
-4.210E-06,-0.220
-4.200E-06,-0.280
-4.190E-06,-0.260
-4.180E-06,-0.360
-4.170E-06,-0.360
-4.160E-06,-0.400
-4.150E-06,-0.200
-4.140E-06,-0.160
-4.130E-06,-0.220
-4.120E-06,-0.160
-4.110E-06,-0.380
-4.100E-06,-0.380
-4.090E-06,-0.400
-4.080E-06,-0.400
-4.070E-06,-0.340
-4.060E-06,-0.440
-4.050E-06,-0.580
-4.040E-06,-0.600
-4.030E-06,-0.640
-4.020E-06,-0.580
-4.010E-06,-0.540
-4.000E-06,-0.540
-3.990E-06,-0.520
-3.980E-06,-0.520
-3.970E-06,-0.480
-3.960E-06,-0.380
-3.950E-06,-0.320
-3.940E-06,-0.220
-3.930E-06,-0.140
-3.920E-06,-0.100
-3.910E-06,-0.040
-3.900E-06,-0.020
-3.890E-06,-0.020
-3.880E-06,0.000
-3.870E-06,0.020
-3.860E-06,0.040
-3.850E-06,0.040
-3.840E-06,0.060
-3.830E-06,0.040
-3.820E-06,0.040
-3.810E-06,0.020
-3.800E-06,0.000
-3.790E-06,-0.040
-3.780E-06,-0.080
-3.770E-06,-0.100
-3.760E-06,-0.120
-3.750E-06,-0.140
-3.740E-06,-0.200
-3.730E-06,-0.240
-3.720E-06,-0.240
-3.710E-06,-0.320
-3.700E-06,-0.340
-3.690E-06,-0.340
-3.680E-06,-0.340
-3.670E-06,-0.320
-3.660E-06,-0.320
-3.650E-06,-0.300
-3.640E-06,-0.280
-3.630E-06,-0.260
-3.620E-06,-0.200
-3.610E-06,-0.160
-3.600E-06,-0.120
-3.590E-06,-0.100
-3.580E-06,-0.080
-3.570E-06,-0.080
-3.560E-06,-0.080
-3.550E-06,-0.080
-3.540E-06,-0.080
-3.530E-06,-0.100
-3.520E-06,-0.120
-3.510E-06,-0.160
-3.500E-06,-0.220
-3.490E-06,-0.260
-3.480E-06,-0.280
-3.470E-06,-0.340
-3.460E-06,-0.360
-3.450E-06,-0.360
-3.440E-06,-0.360
-3.430E-06,-0.380
-3.420E-06,-0.380
-3.410E-06,-0.400
-3.400E-06,-0.380
-3.390E-06,-0.380
-3.380E-06,-0.420
-3.370E-06,-0.420
-3.360E-06,-0.480
-3.350E-06,-0.240
-3.340E-06,-0.360
-3.330E-06,-0.160
-3.320E-06,-0.200
-3.310E-06,-0.200
-3.300E-06,-0.260
-3.290E-06,-0.240
-3.280E-06,-0.280
-3.270E-06,-0.180
-3.260E-06,-0.260
-3.250E-06,-0.160
-3.240E-06,0.040
-3.230E-06,0.400
-3.220E-06,1.020
-3.210E-06,1.680
-3.200E-06,2.140
-3.190E-06,2.340
-3.180E-06,2.100
-3.170E-06,1.580
-3.160E-06,0.780
-3.150E-06,-0.160
-3.140E-06,-1.000
-3.130E-06,-1.680
-3.120E-06,-2.120
-3.110E-06,-2.460
-3.100E-06,-2.580
-3.090E-06,-2.660
-3.080E-06,-2.660
-3.070E-06,-2.680
-3.060E-06,-2.660
-3.050E-06,-2.660
-3.040E-06,-2.660
-3.030E-06,-2.640
-3.020E-06,-2.460
-3.010E-06,-2.220
-3.000E-06,-1.920
-2.990E-06,-1.540
-2.980E-06,-1.160
-2.970E-06,-0.800
-2.960E-06,-0.340
-2.950E-06,0.100
-2.940E-06,0.520
-2.930E-06,0.880
-2.920E-06,1.180
-2.910E-06,1.380
-2.900E-06,1.600
-2.890E-06,1.680
-2.880E-06,1.660
-2.870E-06,1.600
-2.860E-06,1.400
-2.850E-06,1.100
-2.840E-06,0.680
-2.830E-06,0.220
-2.820E-06,-0.220
-2.810E-06,-0.600
-2.800E-06,-0.860
-2.790E-06,-1.000
-2.780E-06,-1.100
-2.770E-06,-1.080
-2.760E-06,-0.960
-2.750E-06,-0.840
-2.740E-06,-0.620
-2.730E-06,-0.460
-2.720E-06,-0.300
-2.710E-06,-0.180
-2.700E-06,-0.020
-2.690E-06,0.060
-2.680E-06,0.300
-2.670E-06,0.900
-2.660E-06,0.900
-2.650E-06,1.200
-2.640E-06,0.880
-2.630E-06,0.580
-2.620E-06,0.400
-2.610E-06,0.380
-2.600E-06,0.440
-2.590E-06,0.500
-2.580E-06,0.180
-2.570E-06,-0.060
-2.560E-06,-0.460
-2.550E-06,-0.640
-2.540E-06,-0.780
-2.530E-06,-0.960
-2.520E-06,-1.200
-2.510E-06,-1.460
-2.500E-06,-1.480
-2.490E-06,-1.520
-2.480E-06,-1.460
-2.470E-06,-1.360
-2.460E-06,-1.180
-2.450E-06,-1.000
-2.440E-06,-0.740
-2.430E-06,-0.560
-2.420E-06,-0.340
-2.410E-06,-0.080
-2.400E-06,0.140
-2.390E-06,0.420
-2.380E-06,0.580
-2.370E-06,0.800
-2.360E-06,0.840
-2.350E-06,0.920
-2.340E-06,0.860
-2.330E-06,0.840
-2.320E-06,0.680
-2.310E-06,0.600
-2.300E-06,0.480
-2.290E-06,0.420
-2.280E-06,0.220
-2.270E-06,0.040
-2.260E-06,-0.220
-2.250E-06,-0.400
-2.240E-06,-0.620
-2.230E-06,-0.700
-2.220E-06,-0.760
-2.210E-06,-0.680
-2.200E-06,-0.680
-2.190E-06,-0.600
-2.180E-06,-0.520
-2.170E-06,-0.400
-2.160E-06,-0.300
-2.150E-06,-0.200
-2.140E-06,-0.080
-2.130E-06,0.080
-2.120E-06,0.220
-2.110E-06,0.320
-2.100E-06,0.400
-2.090E-06,0.460
-2.080E-06,0.480
-2.070E-06,0.520
-2.060E-06,0.520
-2.050E-06,0.440
-2.040E-06,0.380
-2.030E-06,0.320
-2.020E-06,0.240
-2.010E-06,0.140
-2.000E-06,0.080
-1.990E-06,0.000
-1.980E-06,-0.100
-1.970E-06,-0.160
-1.960E-06,-0.260
-1.950E-06,-0.320
-1.940E-06,-0.380
-1.930E-06,-0.420
-1.920E-06,-0.440
-1.910E-06,-0.440
-1.900E-06,-0.420
-1.890E-06,-0.400
-1.880E-06,-0.340
-1.870E-06,-0.320
-1.860E-06,-0.240
-1.850E-06,-0.180
-1.840E-06,-0.160
-1.830E-06,-0.040
-1.820E-06,0.040
-1.810E-06,0.120
-1.800E-06,0.160
-1.790E-06,0.160
-1.780E-06,0.200
-1.770E-06,0.280
-1.760E-06,0.320
-1.750E-06,0.320
-1.740E-06,0.320
-1.730E-06,0.300
-1.720E-06,0.280
-1.710E-06,0.240
-1.700E-06,0.260
-1.690E-06,0.240
-1.680E-06,0.220
-1.670E-06,0.140
-1.660E-06,0.100
-1.650E-06,0.020
-1.640E-06,-0.020
-1.630E-06,-0.020
-1.620E-06,-0.060
-1.610E-06,-0.060
-1.600E-06,-0.080
-1.590E-06,-0.120
-1.580E-06,-0.140
-1.570E-06,-0.140
-1.560E-06,-0.120
-1.550E-06,-0.120
-1.540E-06,-0.120
-1.530E-06,-0.100
-1.520E-06,-0.100
-1.510E-06,-0.040
-1.500E-06,-0.020
-1.490E-06,-0.020
-1.480E-06,0.000
-1.470E-06,0.240
-1.460E-06,0.140
-1.450E-06,0.060
-1.440E-06,-0.120
-1.430E-06,-0.460
-1.420E-06,-0.360
-1.410E-06,-0.380
-1.400E-06,0.020
-1.390E-06,0.800
-1.380E-06,0.460
-1.370E-06,0.760
-1.360E-06,0.180
-1.350E-06,-0.180
-1.340E-06,-0.200
-1.330E-06,-0.360
-1.320E-06,-0.140
-1.310E-06,0.020
-1.300E-06,-0.160
-1.290E-06,-0.220
-1.280E-06,-0.420
-1.270E-06,-0.440
-1.260E-06,-0.380
-1.250E-06,-0.380
-1.240E-06,-0.460
-1.230E-06,-0.500
-1.220E-06,-0.480
-1.210E-06,-0.440
-1.200E-06,-0.340
-1.190E-06,-0.300
-1.180E-06,-0.260
-1.170E-06,-0.140
-1.160E-06,0.040
-1.150E-06,0.220
-1.140E-06,0.540
-1.130E-06,0.640
-1.120E-06,0.700
-1.110E-06,0.760
-1.100E-06,0.540
-1.090E-06,0.520
-1.080E-06,0.560
-1.070E-06,0.520
-1.060E-06,0.620
-1.050E-06,0.440
-1.040E-06,0.360
-1.030E-06,0.260
-1.020E-06,0.200
-1.010E-06,0.180
-1.000E-06,0.160
-9.900E-07,0.100
-9.800E-07,0.000
-9.700E-07,-0.120
-9.600E-07,-0.240
-9.500E-07,-0.320
-9.400E-07,-0.380
-9.300E-07,-0.360
-9.200E-07,-0.340
-9.100E-07,-0.280
-9.000E-07,-0.260
-8.900E-07,-0.280
-8.800E-07,-0.300
-8.700E-07,-0.280
-8.600E-07,-0.200
-8.500E-07,-0.100
-8.400E-07,-0.020
-8.300E-07,0.000
-8.200E-07,0.060
-8.100E-07,0.060
-8.000E-07,0.080
-7.900E-07,0.100
-7.800E-07,0.120
-7.700E-07,0.160
-7.600E-07,0.160
-7.500E-07,0.180
-7.400E-07,0.100
-7.300E-07,0.040
-7.200E-07,0.040
-7.100E-07,-0.020
-7.000E-07,-0.080
-6.900E-07,-0.160
-6.800E-07,-0.160
-6.700E-07,-0.220
-6.600E-07,-0.220
-6.500E-07,-0.240
-6.400E-07,-0.260
-6.300E-07,-0.200
-6.200E-07,-0.220
-6.100E-07,-0.200
-6.000E-07,-0.220
-5.900E-07,-0.240
-5.800E-07,-0.220
-5.700E-07,-0.220
-5.600E-07,-0.160
-5.500E-07,-0.180
-5.400E-07,-0.160
-5.300E-07,-0.160
-5.200E-07,-0.160
-5.100E-07,-0.140
-5.000E-07,-0.160
-4.900E-07,-0.160
-4.800E-07,-0.180
-4.700E-07,-0.220
-4.600E-07,-0.260
-4.500E-07,-0.260
-4.400E-07,-0.340
-4.300E-07,-0.420
-4.200E-07,-0.520
-4.100E-07,-0.600
-4.000E-07,-0.680
-3.900E-07,-0.780
-3.800E-07,-0.840
-3.700E-07,-0.920
-3.600E-07,-1.000
-3.500E-07,-1.120
-3.400E-07,-1.180
-3.300E-07,-1.260
-3.200E-07,-1.360
-3.100E-07,-1.460
-3.000E-07,-1.520
-2.900E-07,-1.560
-2.800E-07,-1.660
-2.700E-07,-1.720
-2.600E-07,-1.700
-2.500E-07,-1.760
-2.400E-07,-1.740
-2.300E-07,-1.740
-2.200E-07,-1.700
-2.100E-07,-1.700
-2.000E-07,-1.620
-1.900E-07,-1.640
-1.800E-07,-1.600
-1.700E-07,-1.540
-1.600E-07,-1.560
-1.500E-07,-1.520
-1.400E-07,-1.500
-1.300E-07,-1.380
-1.200E-07,-1.420
-1.100E-07,-1.280
-1.000E-07,-1.320
-9.000E-08,-1.360
-8.000E-08,-1.160
-7.000E-08,-1.100
-6.000E-08,-1.380
-5.000E-08,-0.380
-4.000E-08,-0.640
-3.000E-08,1.240
-2.000E-08,0.420
-1.000E-08,0.880
0.000E+00,-0.360
1.000E-08,-0.700
2.000E-08,-0.300
3.000E-08,-0.100
4.000E-08,0.600
5.000E-08,0.360
6.000E-08,-0.840
7.000E-08,-1.260
8.000E-08,-1.800
9.000E-08,-1.280
1.000E-07,-1.120
1.100E-07,-1.460
1.200E-07,-1.760
1.300E-07,-1.940
1.400E-07,-1.320
1.500E-07,-1.100
1.600E-07,-0.860
1.700E-07,-1.000
1.800E-07,-1.000
1.900E-07,-0.680
2.000E-07,-0.440
2.100E-07,-0.260
2.200E-07,-0.200
2.300E-07,0.000
2.400E-07,0.140
2.500E-07,0.440
2.600E-07,0.520
2.700E-07,0.580
2.800E-07,0.680
2.900E-07,0.760
3.000E-07,0.840
3.100E-07,0.840
3.200E-07,0.840
3.300E-07,0.840
3.400E-07,0.820
3.500E-07,0.780
3.600E-07,0.600
3.700E-07,0.340
3.800E-07,0.080
3.900E-07,-0.200
4.000E-07,-0.420
4.100E-07,-0.660
4.200E-07,-0.760
4.300E-07,-0.920
4.400E-07,-1.060
4.500E-07,-1.200
4.600E-07,-1.360
4.700E-07,-1.460
4.800E-07,-1.600
4.900E-07,-1.540
5.000E-07,-1.240
5.100E-07,-0.640
5.200E-07,-0.260
5.300E-07,0.520
5.400E-07,0.440
5.500E-07,0.640
5.600E-07,0.220
5.700E-07,-0.020
5.800E-07,-0.100
5.900E-07,-0.380
6.000E-07,-0.400
6.100E-07,-0.740
6.200E-07,-0.960
6.300E-07,-1.000
6.400E-07,-1.160
6.500E-07,-1.180
6.600E-07,-1.260
6.700E-07,-1.280
6.800E-07,-1.260
6.900E-07,-1.400
7.000E-07,-1.520
7.100E-07,-1.700
7.200E-07,-1.700
7.300E-07,-1.720
7.400E-07,-1.660
7.500E-07,-1.780
7.600E-07,-1.700
7.700E-07,-1.640
7.800E-07,-1.600
7.900E-07,-1.520
8.000E-07,-1.600
8.100E-07,-1.480
8.200E-07,-1.380
8.300E-07,-1.260
8.400E-07,-1.120
8.500E-07,-1.220
8.600E-07,-1.260
8.700E-07,-1.460
8.800E-07,-1.520
8.900E-07,-1.820
9.000E-07,-1.720
9.100E-07,-1.820
9.200E-07,0.420
9.300E-07,0.260
9.400E-07,2.500
9.500E-07,1.380
9.600E-07,0.440
9.700E-07,-0.780
9.800E-07,-2.240
9.900E-07,-2.220
1.000E-06,-1.980
1.010E-06,-2.380
1.020E-06,-2.400
1.030E-06,-2.680
1.040E-06,-2.660
1.050E-06,-2.660
1.060E-06,-2.480
1.070E-06,-2.160
1.080E-06,-1.720
1.090E-06,-1.340
1.100E-06,-0.960
1.110E-06,-0.720
1.120E-06,-0.700
1.130E-06,-0.520
1.140E-06,-0.400
1.150E-06,0.000
1.160E-06,0.120
1.170E-06,0.240
1.180E-06,0.040
1.190E-06,-0.120
1.200E-06,-0.320
1.210E-06,-0.520
1.220E-06,-0.520
1.230E-06,-0.440
1.240E-06,-0.320
1.250E-06,-0.100
1.260E-06,0.000
1.270E-06,0.060
1.280E-06,0.080
1.290E-06,0.100
1.300E-06,0.120
1.310E-06,0.120
1.320E-06,0.080
1.330E-06,-0.200
1.340E-06,-0.580
1.350E-06,-1.020
1.360E-06,-1.440
1.370E-06,-1.800
1.380E-06,-2.000
1.390E-06,-2.040
1.400E-06,-1.660
1.410E-06,-1.340
1.420E-06,-0.700
1.430E-06,-0.500
1.440E-06,-0.160
1.450E-06,0.080
1.460E-06,0.160
1.470E-06,0.420
1.480E-06,0.360
1.490E-06,0.320
1.500E-06,0.160
1.510E-06,-0.180
1.520E-06,-0.540
1.530E-06,-1.000
1.540E-06,-1.420
1.550E-06,-1.860
1.560E-06,-2.220
1.570E-06,-2.340
1.580E-06,-2.440
1.590E-06,-2.560
1.600E-06,-2.560
1.610E-06,-2.640
1.620E-06,-2.620
1.630E-06,-2.660
1.640E-06,-2.660
1.650E-06,-2.660
1.660E-06,-2.660
1.670E-06,-2.660
1.680E-06,-2.660
1.690E-06,-2.660
1.700E-06,-2.660
1.710E-06,-2.400
1.720E-06,-2.040
1.730E-06,-1.600
1.740E-06,-1.280
1.750E-06,-0.980
1.760E-06,-0.860
1.770E-06,-0.640
1.780E-06,-0.560
1.790E-06,-0.420
1.800E-06,-0.520
1.810E-06,-0.500
1.820E-06,-0.580
1.830E-06,-0.600
1.840E-06,-0.580
1.850E-06,-0.700
1.860E-06,-0.840
1.870E-06,-1.020
1.880E-06,-1.380
1.890E-06,-1.640
1.900E-06,-2.000
1.910E-06,-2.320
1.920E-06,-2.500
1.930E-06,-2.660
1.940E-06,-2.660
1.950E-06,-2.660
1.960E-06,-2.660
1.970E-06,-2.680
1.980E-06,-2.660
1.990E-06,-2.660
2.000E-06,-2.640
2.010E-06,-2.660
2.020E-06,-2.660
2.030E-06,-2.660
2.040E-06,-2.660
2.050E-06,-2.620
2.060E-06,-2.540
2.070E-06,-2.480
2.080E-06,-2.420
2.090E-06,-2.260
2.100E-06,-2.160
2.110E-06,-2.040
2.120E-06,-1.940
2.130E-06,-1.880
2.140E-06,-1.740
2.150E-06,-1.680
2.160E-06,-1.600
2.170E-06,-1.580
2.180E-06,-1.600
2.190E-06,-1.640
2.200E-06,-1.700
2.210E-06,-1.860
2.220E-06,-2.040
2.230E-06,-2.220
2.240E-06,-2.380
2.250E-06,-2.480
2.260E-06,-2.320
2.270E-06,-1.940
2.280E-06,-0.840
2.290E-06,0.440
2.300E-06,2.140
2.310E-06,2.760
2.320E-06,2.760
2.330E-06,2.740
2.340E-06,2.760
2.350E-06,1.940
2.360E-06,1.100
2.370E-06,-0.220
2.380E-06,-1.220
2.390E-06,-2.500
2.400E-06,-2.660
2.410E-06,-2.660
2.420E-06,-2.660
2.430E-06,-2.660
2.440E-06,-2.660
2.450E-06,-2.660
2.460E-06,-2.640
2.470E-06,-2.640
2.480E-06,-2.660
2.490E-06,-2.660
2.500E-06,-2.680
2.510E-06,-2.660
2.520E-06,-2.580
2.530E-06,-2.220
2.540E-06,-1.800
2.550E-06,-1.600
2.560E-06,-1.320
2.570E-06,-1.180
2.580E-06,-1.040
2.590E-06,-0.920
2.600E-06,-0.760
2.610E-06,-0.640
2.620E-06,-0.420
2.630E-06,-0.360
2.640E-06,-0.340
2.650E-06,-0.360
2.660E-06,-0.300
2.670E-06,-0.280
2.680E-06,-0.260
2.690E-06,-0.260
2.700E-06,-0.320
2.710E-06,-0.480
2.720E-06,-0.640
2.730E-06,-0.800
2.740E-06,-0.920
2.750E-06,-0.980
2.760E-06,-0.980
2.770E-06,-0.920
2.780E-06,-0.860
2.790E-06,-0.780
2.800E-06,-0.680
2.810E-06,-0.580
2.820E-06,-0.460
2.830E-06,-0.400
2.840E-06,-0.240
2.850E-06,-0.180
2.860E-06,-0.100
2.870E-06,-0.060
2.880E-06,0.000
2.890E-06,0.020
2.900E-06,0.020
2.910E-06,0.080
2.920E-06,0.020
2.930E-06,0.040
2.940E-06,0.020
2.950E-06,-0.020
2.960E-06,-0.020
2.970E-06,0.000
2.980E-06,-0.040
2.990E-06,-0.140
3.000E-06,-0.340
3.010E-06,-0.500
3.020E-06,-0.760
3.030E-06,-0.940
3.040E-06,-1.100
3.050E-06,-1.240
3.060E-06,-1.280
3.070E-06,-1.240
3.080E-06,-1.180
3.090E-06,-1.060
3.100E-06,-1.000
3.110E-06,-0.960
3.120E-06,-1.100
3.130E-06,-1.420
