mediciones/Mediciones filtradas (saque las feas)/5-15/22.5/WaveData47396.csv

#timebase=2000000(ps)
,#voltbase=500000(mv/100)
#size=4000
-8.400E-06,0.040
-8.390E-06,0.020
-8.380E-06,0.020
-8.370E-06,0.040
-8.360E-06,0.020
-8.350E-06,0.040
-8.340E-06,0.000
-8.330E-06,0.020
-8.320E-06,0.040
-8.310E-06,0.000
-8.300E-06,0.000
-8.290E-06,-0.020
-8.280E-06,0.060
-8.270E-06,0.000
-8.260E-06,0.040
-8.250E-06,0.000
-8.240E-06,-0.020
-8.230E-06,0.040
-8.220E-06,0.100
-8.210E-06,0.140
-8.200E-06,0.180
-8.190E-06,0.160
-8.180E-06,0.080
-8.170E-06,0.060
-8.160E-06,0.040
-8.150E-06,0.060
-8.140E-06,0.040
-8.130E-06,0.020
-8.120E-06,0.000
-8.110E-06,-0.060
-8.100E-06,-0.020
-8.090E-06,-0.020
-8.080E-06,0.020
-8.070E-06,0.020
-8.060E-06,-0.060
-8.050E-06,-0.060
-8.040E-06,-0.100
-8.030E-06,-0.140
-8.020E-06,-0.100
-8.010E-06,-0.040
-8.000E-06,-0.060
-7.990E-06,-0.020
-7.980E-06,-0.020
-7.970E-06,-0.020
-7.960E-06,0.020
-7.950E-06,-0.020
-7.940E-06,0.020
-7.930E-06,0.060
-7.920E-06,0.060
-7.910E-06,0.040
-7.900E-06,0.080
-7.890E-06,0.080
-7.880E-06,0.100
-7.870E-06,0.140
-7.860E-06,0.120
-7.850E-06,0.160
-7.840E-06,0.160
-7.830E-06,0.160
-7.820E-06,0.160
-7.810E-06,0.140
-7.800E-06,0.100
-7.790E-06,0.080
-7.780E-06,0.080
-7.770E-06,0.060
-7.760E-06,0.020
-7.750E-06,0.040
-7.740E-06,0.040
-7.730E-06,-0.020
-7.720E-06,0.020
-7.710E-06,0.040
-7.700E-06,0.040
-7.690E-06,0.040
-7.680E-06,-0.020
-7.670E-06,0.060
-7.660E-06,-0.100
-7.650E-06,0.000
-7.640E-06,-0.100
-7.630E-06,-0.120
-7.620E-06,-0.160
-7.610E-06,-0.160
-7.600E-06,-0.160
-7.590E-06,-0.120
-7.580E-06,-0.140
-7.570E-06,-0.140
-7.560E-06,-0.140
-7.550E-06,-0.120
-7.540E-06,-0.080
-7.530E-06,-0.080
-7.520E-06,-0.060
-7.510E-06,-0.060
-7.500E-06,-0.040
-7.490E-06,0.000
-7.480E-06,-0.020
-7.470E-06,0.000
-7.460E-06,0.000
-7.450E-06,0.040
-7.440E-06,0.100
-7.430E-06,0.140
-7.420E-06,0.080
-7.410E-06,0.120
-7.400E-06,0.120
-7.390E-06,0.140
-7.380E-06,0.160
-7.370E-06,0.160
-7.360E-06,0.180
-7.350E-06,0.160
-7.340E-06,0.120
-7.330E-06,0.140
-7.320E-06,0.160
-7.310E-06,0.140
-7.300E-06,0.140
-7.290E-06,0.100
-7.280E-06,0.120
-7.270E-06,0.020
-7.260E-06,0.100
-7.250E-06,0.040
-7.240E-06,0.060
-7.230E-06,0.040
-7.220E-06,0.020
-7.210E-06,0.020
-7.200E-06,0.020
-7.190E-06,0.000
-7.180E-06,0.020
-7.170E-06,0.000
-7.160E-06,0.020
-7.150E-06,-0.020
-7.140E-06,0.020
-7.130E-06,0.000
-7.120E-06,-0.020
-7.110E-06,0.000
-7.100E-06,-0.020
-7.090E-06,0.000
-7.080E-06,0.000
-7.070E-06,0.020
-7.060E-06,0.040
-7.050E-06,0.040
-7.040E-06,0.040
-7.030E-06,0.180
-7.020E-06,0.080
-7.010E-06,0.180
-7.000E-06,0.000
-6.990E-06,0.020
-6.980E-06,-0.020
-6.970E-06,-0.020
-6.960E-06,0.000
-6.950E-06,0.060
-6.940E-06,-0.020
-6.930E-06,0.080
-6.920E-06,0.000
-6.910E-06,0.120
-6.900E-06,0.100
-6.890E-06,0.220
-6.880E-06,0.160
-6.870E-06,0.020
-6.860E-06,0.120
-6.850E-06,-0.020
-6.840E-06,0.040
-6.830E-06,0.060
-6.820E-06,0.040
-6.810E-06,0.100
-6.800E-06,0.060
-6.790E-06,0.000
-6.780E-06,0.040
-6.770E-06,0.100
-6.760E-06,0.080
-6.750E-06,0.080
-6.740E-06,0.060
-6.730E-06,0.020
-6.720E-06,-0.020
-6.710E-06,0.020
-6.700E-06,0.040
-6.690E-06,0.080
-6.680E-06,0.080
-6.670E-06,0.080
-6.660E-06,0.080
-6.650E-06,0.080
-6.640E-06,0.080
-6.630E-06,0.060
-6.620E-06,0.060
-6.610E-06,0.040
-6.600E-06,0.040
-6.590E-06,0.020
-6.580E-06,0.040
-6.570E-06,0.040
-6.560E-06,0.080
-6.550E-06,0.100
-6.540E-06,0.080
-6.530E-06,0.080
-6.520E-06,0.100
-6.510E-06,0.060
-6.500E-06,0.160
-6.490E-06,-0.080
-6.480E-06,0.100
-6.470E-06,-0.020
-6.460E-06,-0.040
-6.450E-06,0.080
-6.440E-06,-0.040
-6.430E-06,-0.020
-6.420E-06,0.000
-6.410E-06,-0.100
-6.400E-06,-0.020
-6.390E-06,-0.020
-6.380E-06,-0.020
-6.370E-06,0.020
-6.360E-06,0.040
-6.350E-06,0.020
-6.340E-06,0.040
-6.330E-06,0.040
-6.320E-06,0.060
-6.310E-06,0.060
-6.300E-06,0.040
-6.290E-06,0.080
-6.280E-06,0.080
-6.270E-06,0.040
-6.260E-06,0.060
-6.250E-06,0.040
-6.240E-06,0.080
-6.230E-06,0.080
-6.220E-06,0.080
-6.210E-06,0.060
-6.200E-06,0.080
-6.190E-06,0.060
-6.180E-06,0.080
-6.170E-06,0.080
-6.160E-06,0.060
-6.150E-06,0.040
-6.140E-06,0.100
-6.130E-06,0.060
-6.120E-06,0.060
-6.110E-06,0.060
-6.100E-06,0.080
-6.090E-06,0.040
-6.080E-06,0.040
-6.070E-06,0.100
-6.060E-06,0.040
-6.050E-06,0.080
-6.040E-06,0.040
-6.030E-06,0.080
-6.020E-06,0.040
-6.010E-06,0.000
-6.000E-06,0.020
-5.990E-06,0.060
-5.980E-06,0.060
-5.970E-06,0.120
-5.960E-06,0.140
-5.950E-06,0.140
-5.940E-06,0.080
-5.930E-06,0.040
-5.920E-06,0.020
-5.910E-06,0.000
-5.900E-06,-0.020
-5.890E-06,0.000
-5.880E-06,-0.020
-5.870E-06,-0.060
-5.860E-06,-0.020
-5.850E-06,0.020
-5.840E-06,0.020
-5.830E-06,0.080
-5.820E-06,0.040
-5.810E-06,0.020
-5.800E-06,0.060
-5.790E-06,0.040
-5.780E-06,0.040
-5.770E-06,0.060
-5.760E-06,0.080
-5.750E-06,0.060
-5.740E-06,0.060
-5.730E-06,0.020
-5.720E-06,0.080
-5.710E-06,0.080
-5.700E-06,0.080
-5.690E-06,0.060
-5.680E-06,0.080
-5.670E-06,0.120
-5.660E-06,0.080
-5.650E-06,0.080
-5.640E-06,0.100
-5.630E-06,0.100
-5.620E-06,0.060
-5.610E-06,0.080
-5.600E-06,0.020
-5.590E-06,0.040
-5.580E-06,0.000
-5.570E-06,-0.040
-5.560E-06,-0.040
-5.550E-06,-0.060
-5.540E-06,-0.060
-5.530E-06,-0.100
-5.520E-06,-0.080
-5.510E-06,-0.100
-5.500E-06,-0.060
-5.490E-06,-0.080
-5.480E-06,-0.060
-5.470E-06,-0.020
-5.460E-06,-0.040
-5.450E-06,-0.020
-5.440E-06,-0.060
-5.430E-06,-0.040
-5.420E-06,-0.040
-5.410E-06,0.020
-5.400E-06,-0.020
-5.390E-06,0.000
-5.380E-06,0.100
-5.370E-06,0.040
-5.360E-06,0.060
-5.350E-06,0.040
-5.340E-06,0.000
-5.330E-06,0.000
-5.320E-06,0.000
-5.310E-06,0.000
-5.300E-06,0.080
-5.290E-06,0.060
-5.280E-06,0.080
-5.270E-06,0.040
-5.260E-06,0.020
-5.250E-06,0.040
-5.240E-06,0.060
-5.230E-06,0.020
-5.220E-06,0.000
-5.210E-06,0.020
-5.200E-06,0.020
-5.190E-06,-0.020
-5.180E-06,-0.020
-5.170E-06,0.000
-5.160E-06,0.000
-5.150E-06,0.000
-5.140E-06,0.000
-5.130E-06,0.000
-5.120E-06,0.000
-5.110E-06,-0.020
-5.100E-06,0.000
-5.090E-06,0.020
-5.080E-06,0.000
-5.070E-06,-0.020
-5.060E-06,-0.040
-5.050E-06,0.060
-5.040E-06,0.080
-5.030E-06,0.180
-5.020E-06,0.200
-5.010E-06,0.140
-5.000E-06,0.140
-4.990E-06,0.060
-4.980E-06,0.020
-4.970E-06,0.020
-4.960E-06,-0.020
-4.950E-06,-0.060
-4.940E-06,-0.080
-4.930E-06,-0.140
-4.920E-06,-0.080
-4.910E-06,-0.080
-4.900E-06,-0.040
-4.890E-06,-0.040
-4.880E-06,-0.100
-4.870E-06,0.000
-4.860E-06,-0.080
-4.850E-06,0.040
-4.840E-06,0.060
-4.830E-06,0.020
-4.820E-06,0.040
-4.810E-06,-0.020
-4.800E-06,-0.040
-4.790E-06,0.020
-4.780E-06,0.000
-4.770E-06,0.040
-4.760E-06,-0.020
-4.750E-06,-0.140
-4.740E-06,-0.180
-4.730E-06,-0.180
-4.720E-06,-0.180
-4.710E-06,-0.160
-4.700E-06,-0.180
-4.690E-06,-0.160
-4.680E-06,-0.200
-4.670E-06,-0.160
-4.660E-06,-0.120
-4.650E-06,-0.080
-4.640E-06,-0.060
-4.630E-06,-0.080
-4.620E-06,-0.060
-4.610E-06,-0.020
-4.600E-06,-0.020
-4.590E-06,-0.020
-4.580E-06,-0.020
-4.570E-06,0.040
-4.560E-06,0.060
-4.550E-06,0.080
-4.540E-06,0.080
-4.530E-06,0.100
-4.520E-06,0.200
-4.510E-06,0.220
-4.500E-06,0.260
-4.490E-06,0.240
-4.480E-06,0.160
-4.470E-06,0.160
-4.460E-06,0.160
-4.450E-06,0.160
-4.440E-06,0.180
-4.430E-06,0.180
-4.420E-06,0.120
-4.410E-06,0.040
-4.400E-06,0.020
-4.390E-06,0.000
-4.380E-06,0.020
-4.370E-06,-0.020
-4.360E-06,0.000
-4.350E-06,-0.060
-4.340E-06,-0.080
-4.330E-06,-0.060
-4.320E-06,-0.080
-4.310E-06,-0.080
-4.300E-06,-0.040
-4.290E-06,-0.060
-4.280E-06,-0.020
-4.270E-06,-0.020
-4.260E-06,0.000
-4.250E-06,-0.020
-4.240E-06,-0.020
-4.230E-06,0.000
-4.220E-06,0.020
-4.210E-06,-0.020
-4.200E-06,0.020
-4.190E-06,0.060
-4.180E-06,0.040
-4.170E-06,0.020
-4.160E-06,0.040
-4.150E-06,0.020
-4.140E-06,0.000
-4.130E-06,-0.020
-4.120E-06,-0.040
-4.110E-06,-0.080
-4.100E-06,-0.060
-4.090E-06,-0.060
-4.080E-06,-0.040
-4.070E-06,-0.140
-4.060E-06,-0.160
-4.050E-06,-0.180
-4.040E-06,-0.240
-4.030E-06,-0.280
-4.020E-06,-0.280
-4.010E-06,-0.320
-4.000E-06,-0.300
-3.990E-06,-0.340
-3.980E-06,-0.320
-3.970E-06,-0.360
-3.960E-06,-0.320
-3.950E-06,-0.320
-3.940E-06,-0.300
-3.930E-06,-0.180
-3.920E-06,-0.260
-3.910E-06,-0.260
-3.900E-06,-0.360
-3.890E-06,-0.360
-3.880E-06,-0.360
-3.870E-06,-0.200
-3.860E-06,-0.260
-3.850E-06,-0.220
-3.840E-06,-0.320
-3.830E-06,-0.320
-3.820E-06,-0.300
-3.810E-06,-0.280
-3.800E-06,-0.260
-3.790E-06,-0.240
-3.780E-06,-0.260
-3.770E-06,-0.260
-3.760E-06,-0.240
-3.750E-06,-0.200
-3.740E-06,-0.180
-3.730E-06,-0.180
-3.720E-06,-0.160
-3.710E-06,-0.180
-3.700E-06,-0.140
-3.690E-06,-0.100
-3.680E-06,-0.060
-3.670E-06,-0.020
-3.660E-06,-0.020
-3.650E-06,-0.040
-3.640E-06,0.000
-3.630E-06,-0.040
-3.620E-06,0.020
-3.610E-06,0.040
-3.600E-06,0.120
-3.590E-06,0.140
-3.580E-06,0.160
-3.570E-06,0.180
-3.560E-06,0.220
-3.550E-06,0.240
-3.540E-06,0.220
-3.530E-06,0.160
-3.520E-06,0.160
-3.510E-06,0.080
-3.500E-06,0.020
-3.490E-06,-0.020
-3.480E-06,-0.040
-3.470E-06,-0.040
-3.460E-06,-0.060
-3.450E-06,-0.040
-3.440E-06,-0.080
-3.430E-06,-0.040
-3.420E-06,0.000
-3.410E-06,0.000
-3.400E-06,0.040
-3.390E-06,0.040
-3.380E-06,-0.020
-3.370E-06,0.000
-3.360E-06,-0.020
-3.350E-06,-0.020
-3.340E-06,0.000
-3.330E-06,-0.020
-3.320E-06,-0.060
-3.310E-06,-0.080
-3.300E-06,-0.100
-3.290E-06,-0.120
-3.280E-06,-0.100
-3.270E-06,-0.100
-3.260E-06,-0.120
-3.250E-06,-0.140
-3.240E-06,-0.140
-3.230E-06,-0.180
-3.220E-06,-0.140
-3.210E-06,-0.120
-3.200E-06,-0.120
-3.190E-06,-0.140
-3.180E-06,-0.160
-3.170E-06,-0.200
-3.160E-06,-0.160
-3.150E-06,-0.180
-3.140E-06,0.000
-3.130E-06,-0.040
-3.120E-06,0.020
-3.110E-06,-0.080
-3.100E-06,-0.220
-3.090E-06,-0.320
-3.080E-06,-0.340
-3.070E-06,-0.360
-3.060E-06,-0.260
-3.050E-06,-0.320
-3.040E-06,-0.360
-3.030E-06,-0.340
-3.020E-06,-0.320
-3.010E-06,-0.240
-3.000E-06,-0.220
-2.990E-06,-0.220
-2.980E-06,-0.240
-2.970E-06,-0.280
-2.960E-06,-0.200
-2.950E-06,-0.160
-2.940E-06,-0.100
-2.930E-06,-0.080
-2.920E-06,-0.040
-2.910E-06,0.040
-2.900E-06,0.060
-2.890E-06,0.100
-2.880E-06,0.140
-2.870E-06,0.200
-2.860E-06,0.200
-2.850E-06,0.200
-2.840E-06,0.200
-2.830E-06,0.220
-2.820E-06,0.180
-2.810E-06,0.200
-2.800E-06,0.220
-2.790E-06,0.200
-2.780E-06,0.100
-2.770E-06,0.220
-2.760E-06,0.200
-2.750E-06,0.380
-2.740E-06,0.360
-2.730E-06,0.220
-2.720E-06,0.160
-2.710E-06,0.000
-2.700E-06,-0.040
-2.690E-06,-0.060
-2.680E-06,-0.160
-2.670E-06,-0.260
-2.660E-06,-0.340
-2.650E-06,-0.500
-2.640E-06,-0.480
-2.630E-06,-0.400
-2.620E-06,-0.460
-2.610E-06,-0.440
-2.600E-06,-0.500
-2.590E-06,-0.520
-2.580E-06,-0.580
-2.570E-06,-0.600
-2.560E-06,-0.540
-2.550E-06,-0.540
-2.540E-06,-0.520
-2.530E-06,-0.520
-2.520E-06,-0.540
-2.510E-06,-0.520
-2.500E-06,-0.480
-2.490E-06,-0.400
-2.480E-06,-0.140
-2.470E-06,0.100
-2.460E-06,0.000
-2.450E-06,0.120
-2.440E-06,-0.280
-2.430E-06,-0.240
-2.420E-06,-0.540
-2.410E-06,-0.300
-2.400E-06,-0.360
-2.390E-06,-0.240
-2.380E-06,-0.260
-2.370E-06,-0.180
-2.360E-06,-0.200
-2.350E-06,0.000
-2.340E-06,-0.100
-2.330E-06,-0.060
-2.320E-06,-0.140
-2.310E-06,-0.140
-2.300E-06,-0.100
-2.290E-06,-0.080
-2.280E-06,-0.100
-2.270E-06,-0.080
-2.260E-06,0.020
-2.250E-06,0.100
-2.240E-06,0.080
-2.230E-06,0.080
-2.220E-06,0.040
-2.210E-06,0.120
-2.200E-06,0.160
-2.190E-06,0.420
-2.180E-06,0.500
-2.170E-06,0.540
-2.160E-06,0.580
-2.150E-06,0.380
-2.140E-06,0.340
-2.130E-06,0.240
-2.120E-06,0.220
-2.110E-06,0.280
-2.100E-06,0.160
-2.090E-06,0.080
-2.080E-06,-0.060
-2.070E-06,-0.060
-2.060E-06,-0.120
-2.050E-06,-0.140
-2.040E-06,-0.240
-2.030E-06,-0.300
-2.020E-06,-0.380
-2.010E-06,-0.260
-2.000E-06,-0.200
-1.990E-06,-0.180
-1.980E-06,-0.180
-1.970E-06,-0.160
-1.960E-06,-0.160
-1.950E-06,-0.180
-1.940E-06,-0.180
-1.930E-06,-0.160
-1.920E-06,-0.160
-1.910E-06,-0.120
-1.900E-06,-0.120
-1.890E-06,-0.100
-1.880E-06,-0.080
-1.870E-06,-0.060
-1.860E-06,-0.060
-1.850E-06,-0.040
-1.840E-06,-0.040
-1.830E-06,-0.020
-1.820E-06,0.040
-1.810E-06,0.120
-1.800E-06,0.160
-1.790E-06,0.180
-1.780E-06,0.160
-1.770E-06,0.100
-1.760E-06,0.060
-1.750E-06,0.040
-1.740E-06,-0.020
-1.730E-06,-0.040
-1.720E-06,-0.020
-1.710E-06,-0.020
-1.700E-06,-0.020
-1.690E-06,0.000
-1.680E-06,-0.020
-1.670E-06,-0.040
-1.660E-06,-0.060
-1.650E-06,-0.080
-1.640E-06,-0.120
-1.630E-06,-0.180
-1.620E-06,-0.180
-1.610E-06,-0.160
-1.600E-06,-0.200
-1.590E-06,-0.180
-1.580E-06,-0.240
-1.570E-06,-0.260
-1.560E-06,-0.260
-1.550E-06,-0.300
-1.540E-06,-0.300
-1.530E-06,-0.320
-1.520E-06,-0.340
-1.510E-06,-0.300
-1.500E-06,-0.280
-1.490E-06,-0.300
-1.480E-06,-0.260
-1.470E-06,-0.240
-1.460E-06,-0.220
-1.450E-06,-0.200
-1.440E-06,-0.160
-1.430E-06,-0.240
-1.420E-06,-0.240
-1.410E-06,-0.320
-1.400E-06,-0.300
-1.390E-06,-0.380
-1.380E-06,-0.240
-1.370E-06,0.000
-1.360E-06,0.000
-1.350E-06,0.160
-1.340E-06,-0.180
-1.330E-06,-0.180
-1.320E-06,-0.640
-1.310E-06,-0.400
-1.300E-06,-0.500
-1.290E-06,-0.420
-1.280E-06,-0.680
-1.270E-06,-0.880
-1.260E-06,-1.020
-1.250E-06,-0.860
-1.240E-06,-0.720
-1.230E-06,-0.660
-1.220E-06,-0.740
-1.210E-06,-0.800
-1.200E-06,-0.660
-1.190E-06,-0.280
-1.180E-06,-0.040
-1.170E-06,0.160
-1.160E-06,0.180
-1.150E-06,0.060
-1.140E-06,0.040
-1.130E-06,0.060
-1.120E-06,0.080
-1.110E-06,0.060
-1.100E-06,0.060
-1.090E-06,0.080
-1.080E-06,0.040
-1.070E-06,0.060
-1.060E-06,-0.080
-1.050E-06,-0.040
-1.040E-06,-0.100
-1.030E-06,-0.040
-1.020E-06,-0.060
-1.010E-06,-0.120
-1.000E-06,-0.180
-9.900E-07,-0.120
-9.800E-07,0.160
-9.700E-07,0.220
-9.600E-07,0.280
-9.500E-07,0.240
-9.400E-07,0.060
-9.300E-07,0.080
-9.200E-07,-0.040
-9.100E-07,-0.140
-9.000E-07,-0.140
-8.900E-07,-0.140
-8.800E-07,-0.140
-8.700E-07,-0.180
-8.600E-07,-0.180
-8.500E-07,-0.280
-8.400E-07,-0.180
-8.300E-07,-0.140
-8.200E-07,-0.040
-8.100E-07,0.040
-8.000E-07,0.000
-7.900E-07,0.000
-7.800E-07,-0.060
-7.700E-07,0.000
-7.600E-07,-0.040
-7.500E-07,-0.020
-7.400E-07,-0.040
-7.300E-07,-0.160
-7.200E-07,-0.140
-7.100E-07,-0.160
-7.000E-07,-0.200
-6.900E-07,-0.180
-6.800E-07,-0.180
-6.700E-07,-0.200
-6.600E-07,-0.180
-6.500E-07,-0.160
-6.400E-07,-0.140
-6.300E-07,-0.080
-6.200E-07,0.000
-6.100E-07,-0.020
-6.000E-07,0.040
-5.900E-07,0.060
-5.800E-07,0.080
-5.700E-07,0.140
-5.600E-07,0.080
-5.500E-07,0.060
-5.400E-07,0.020
-5.300E-07,-0.060
-5.200E-07,0.060
-5.100E-07,-0.020
-5.000E-07,-0.040
-4.900E-07,-0.100
-4.800E-07,-0.100
-4.700E-07,-0.060
-4.600E-07,-0.120
-4.500E-07,-0.140
-4.400E-07,-0.180
-4.300E-07,-0.220
-4.200E-07,-0.260
-4.100E-07,-0.240
-4.000E-07,-0.300
-3.900E-07,-0.300
-3.800E-07,-0.380
-3.700E-07,-0.340
-3.600E-07,-0.400
-3.500E-07,-0.300
-3.400E-07,-0.340
-3.300E-07,-0.320
-3.200E-07,-0.380
-3.100E-07,-0.340
-3.000E-07,-0.360
-2.900E-07,-0.320
-2.800E-07,-0.320
-2.700E-07,-0.300
-2.600E-07,-0.360
-2.500E-07,-0.300
-2.400E-07,-0.320
-2.300E-07,-0.300
-2.200E-07,-0.340
-2.100E-07,-0.360
-2.000E-07,-0.340
-1.900E-07,-0.340
-1.800E-07,-0.380
-1.700E-07,-0.360
-1.600E-07,-0.420
-1.500E-07,-0.480
-1.400E-07,-0.500
-1.300E-07,-0.520
-1.200E-07,-0.520
-1.100E-07,-0.600
-1.000E-07,-0.660
-9.000E-08,-0.780
-8.000E-08,-0.820
-7.000E-08,-0.860
-6.000E-08,-0.860
-5.000E-08,-0.420
-4.000E-08,0.140
-3.000E-08,0.320
-2.000E-08,0.520
-1.000E-08,0.020
0.000E+00,-0.700
1.000E-08,-1.080
2.000E-08,-1.340
3.000E-08,-0.840
4.000E-08,-0.080
5.000E-08,-0.020
6.000E-08,0.040
7.000E-08,-0.320
8.000E-08,-0.660
9.000E-08,-0.600
1.000E-07,-0.760
1.100E-07,-0.900
1.200E-07,-1.060
1.300E-07,-1.380
1.400E-07,-1.500
1.500E-07,-1.480
1.600E-07,-1.380
1.700E-07,-1.100
1.800E-07,-0.940
1.900E-07,-0.840
2.000E-07,-0.780
2.100E-07,-0.680
2.200E-07,-0.520
2.300E-07,-0.380
2.400E-07,-0.340
2.500E-07,-0.180
2.600E-07,-0.080
2.700E-07,0.100
2.800E-07,0.300
2.900E-07,0.380
3.000E-07,0.580
3.100E-07,0.640
3.200E-07,0.740
3.300E-07,0.920
3.400E-07,1.040
3.500E-07,1.180
3.600E-07,1.240
3.700E-07,1.280
3.800E-07,1.380
3.900E-07,1.880
4.000E-07,1.960
4.100E-07,2.160
4.200E-07,1.580
4.300E-07,0.820
4.400E-07,0.060
4.500E-07,-0.500
4.600E-07,-0.780
4.700E-07,-1.120
4.800E-07,-1.540
4.900E-07,-1.960
5.000E-07,-2.200
5.100E-07,-2.020
5.200E-07,-1.740
5.300E-07,-1.520
5.400E-07,-1.420
5.500E-07,-1.420
5.600E-07,-1.280
5.700E-07,-1.060
5.800E-07,-0.920
5.900E-07,-0.700
6.000E-07,-0.640
6.100E-07,-0.380
6.200E-07,-0.260
6.300E-07,-0.100
6.400E-07,0.080
6.500E-07,0.100
6.600E-07,0.140
6.700E-07,0.160
6.800E-07,0.140
6.900E-07,0.140
7.000E-07,0.240
7.100E-07,0.400
7.200E-07,0.680
7.300E-07,0.760
7.400E-07,0.900
7.500E-07,0.880
7.600E-07,0.960
7.700E-07,1.120
7.800E-07,1.520
7.900E-07,1.580
8.000E-07,1.800
8.100E-07,1.440
8.200E-07,1.160
8.300E-07,0.740
8.400E-07,0.400
8.500E-07,0.200
8.600E-07,0.120
8.700E-07,-0.200
8.800E-07,-0.480
8.900E-07,-0.660
9.000E-07,-0.700
9.100E-07,-0.620
9.200E-07,-0.640
9.300E-07,-0.680
9.400E-07,-0.760
9.500E-07,-0.720
9.600E-07,-0.660
9.700E-07,-0.600
9.800E-07,-0.540
9.900E-07,-0.560
1.000E-06,-0.520
1.010E-06,-0.460
1.020E-06,-0.440
1.030E-06,-0.500
1.040E-06,-0.420
1.050E-06,-0.260
1.060E-06,-0.120
1.070E-06,0.020
1.080E-06,0.060
1.090E-06,0.080
1.100E-06,0.180
1.110E-06,0.280
1.120E-06,0.380
1.130E-06,0.500
1.140E-06,0.480
1.150E-06,0.420
1.160E-06,0.400
1.170E-06,0.440
1.180E-06,0.440
1.190E-06,0.420
1.200E-06,0.340
1.210E-06,0.200
1.220E-06,0.060
1.230E-06,-0.040
1.240E-06,-0.080
1.250E-06,-0.160
1.260E-06,-0.180
1.270E-06,-0.160
1.280E-06,-0.140
1.290E-06,-0.120
1.300E-06,-0.100
1.310E-06,-0.080
1.320E-06,-0.020
1.330E-06,0.000
1.340E-06,0.000
1.350E-06,-0.020
1.360E-06,0.020
1.370E-06,0.040
1.380E-06,0.060
1.390E-06,0.080
1.400E-06,0.140
1.410E-06,0.200
1.420E-06,0.260
1.430E-06,0.280
1.440E-06,0.340
1.450E-06,0.380
1.460E-06,0.440
1.470E-06,0.420
1.480E-06,0.420
1.490E-06,0.360
1.500E-06,0.320
1.510E-06,0.260
1.520E-06,0.220
1.530E-06,0.240
1.540E-06,0.120
1.550E-06,0.100
1.560E-06,0.040
1.570E-06,-0.020
1.580E-06,-0.020
1.590E-06,-0.040
1.600E-06,-0.100
1.610E-06,-0.140
1.620E-06,-0.060
1.630E-06,0.000
1.640E-06,0.080
1.650E-06,0.080
1.660E-06,0.160
1.670E-06,0.100
1.680E-06,0.200
1.690E-06,0.140
1.700E-06,0.140
1.710E-06,0.080
1.720E-06,0.120
1.730E-06,0.020
1.740E-06,0.060
1.750E-06,0.020
1.760E-06,-0.020
1.770E-06,-0.140
1.780E-06,-0.200
1.790E-06,-0.240
1.800E-06,-0.300
1.810E-06,-0.400
1.820E-06,-0.180
1.830E-06,0.040
1.840E-06,0.360
1.850E-06,0.660
1.860E-06,0.540
1.870E-06,0.320
1.880E-06,0.040
1.890E-06,-0.160
1.900E-06,-0.300
1.910E-06,-0.480
1.920E-06,-0.700
1.930E-06,-1.000
1.940E-06,-1.180
1.950E-06,-1.200
1.960E-06,-1.080
1.970E-06,-0.940
1.980E-06,-0.980
1.990E-06,-0.920
2.000E-06,-0.920
2.010E-06,-0.720
2.020E-06,-0.580
2.030E-06,-0.340
2.040E-06,-0.260
2.050E-06,-0.160
2.060E-06,-0.120
2.070E-06,-0.060
2.080E-06,-0.020
2.090E-06,0.260
2.100E-06,0.380
2.110E-06,0.740
2.120E-06,0.920
2.130E-06,1.040
2.140E-06,1.040
2.150E-06,0.860
2.160E-06,0.980
2.170E-06,0.840
2.180E-06,0.800
2.190E-06,0.600
2.200E-06,0.420
2.210E-06,0.200
2.220E-06,0.120
2.230E-06,0.080
2.240E-06,-0.040
2.250E-06,-0.220
2.260E-06,-0.520
2.270E-06,-0.740
2.280E-06,-0.900
2.290E-06,-0.940
2.300E-06,-0.980
2.310E-06,-0.940
2.320E-06,-0.920
2.330E-06,-0.860
2.340E-06,-0.720
2.350E-06,-0.620
2.360E-06,-0.420
2.370E-06,-0.240
2.380E-06,-0.120
2.390E-06,0.040
2.400E-06,0.180
2.410E-06,0.260
2.420E-06,0.300
2.430E-06,0.260
2.440E-06,0.320
2.450E-06,0.240
2.460E-06,0.160
2.470E-06,0.160
2.480E-06,0.120
2.490E-06,0.160
2.500E-06,0.120
2.510E-06,0.020
2.520E-06,-0.020
2.530E-06,0.000
2.540E-06,0.100
2.550E-06,0.060
2.560E-06,0.080
2.570E-06,0.020
2.580E-06,-0.080
2.590E-06,-0.020
2.600E-06,-0.120
2.610E-06,-0.180
2.620E-06,-0.280
2.630E-06,-0.320
2.640E-06,-0.360
2.650E-06,-0.340
2.660E-06,-0.260
2.670E-06,-0.220
2.680E-06,-0.160
2.690E-06,-0.100
2.700E-06,-0.060
2.710E-06,-0.040
2.720E-06,-0.040
2.730E-06,-0.160
2.740E-06,-0.220
2.750E-06,-0.380
2.760E-06,-0.480
2.770E-06,-0.500
2.780E-06,-0.400
2.790E-06,0.020
2.800E-06,0.120
2.810E-06,0.360
2.820E-06,0.220
2.830E-06,-0.100
2.840E-06,-0.200
2.850E-06,-0.340
2.860E-06,-0.360
2.870E-06,-0.380
2.880E-06,-0.620
2.890E-06,-0.760
2.900E-06,-0.800
2.910E-06,-0.660
2.920E-06,-0.440
2.930E-06,-0.420
2.940E-06,-0.560
2.950E-06,-0.700
2.960E-06,-0.760
2.970E-06,-0.740
2.980E-06,-0.640
2.990E-06,-0.680
3.000E-06,-0.500
3.010E-06,-0.260
3.020E-06,0.040
3.030E-06,0.420
3.040E-06,0.640
3.050E-06,0.800
3.060E-06,0.780
3.070E-06,0.820
3.080E-06,0.660
3.090E-06,0.580
3.100E-06,0.340
3.110E-06,0.200
3.120E-06,0.000
3.130E-06,-0.140
3.140E-06,-0.260
3.150E-06,-0.260
