mediciones/Mediciones filtradas (saque las feas)/5-15/22.5/WaveData47405.csv

#timebase=2000000(ps)
,#voltbase=100000(mv/100)
#size=4000
-8.400E-06,0.000
-8.390E-06,0.008
-8.380E-06,0.000
-8.370E-06,0.000
-8.360E-06,0.000
-8.350E-06,0.000
-8.340E-06,0.004
-8.330E-06,0.004
-8.320E-06,0.004
-8.310E-06,0.004
-8.300E-06,0.000
-8.290E-06,-0.004
-8.280E-06,0.000
-8.270E-06,0.000
-8.260E-06,0.004
-8.250E-06,0.000
-8.240E-06,0.000
-8.230E-06,0.004
-8.220E-06,0.000
-8.210E-06,0.004
-8.200E-06,0.000
-8.190E-06,0.004
-8.180E-06,0.000
-8.170E-06,0.000
-8.160E-06,0.000
-8.150E-06,0.000
-8.140E-06,0.004
-8.130E-06,0.000
-8.120E-06,-0.004
-8.110E-06,0.004
-8.100E-06,0.000
-8.090E-06,0.004
-8.080E-06,0.004
-8.070E-06,0.000
-8.060E-06,0.000
-8.050E-06,0.000
-8.040E-06,0.000
-8.030E-06,0.008
-8.020E-06,0.008
-8.010E-06,0.000
-8.000E-06,0.004
-7.990E-06,0.004
-7.980E-06,0.004
-7.970E-06,0.004
-7.960E-06,0.004
-7.950E-06,0.004
-7.940E-06,0.004
-7.930E-06,0.004
-7.920E-06,0.000
-7.910E-06,0.004
-7.900E-06,0.004
-7.890E-06,0.004
-7.880E-06,0.004
-7.870E-06,0.004
-7.860E-06,0.004
-7.850E-06,0.004
-7.840E-06,0.008
-7.830E-06,0.008
-7.820E-06,0.008
-7.810E-06,0.000
-7.800E-06,0.000
-7.790E-06,0.004
-7.780E-06,0.008
-7.770E-06,0.000
-7.760E-06,0.004
-7.750E-06,0.004
-7.740E-06,0.000
-7.730E-06,0.004
-7.720E-06,0.008
-7.710E-06,0.008
-7.700E-06,0.008
-7.690E-06,0.000
-7.680E-06,0.000
-7.670E-06,0.000
-7.660E-06,0.008
-7.650E-06,0.000
-7.640E-06,0.004
-7.630E-06,0.000
-7.620E-06,0.004
-7.610E-06,0.004
-7.600E-06,0.004
-7.590E-06,0.004
-7.580E-06,0.008
-7.570E-06,0.000
-7.560E-06,-0.004
-7.550E-06,0.004
-7.540E-06,0.008
-7.530E-06,-0.004
-7.520E-06,0.004
-7.510E-06,0.004
-7.500E-06,0.004
-7.490E-06,0.008
-7.480E-06,0.008
-7.470E-06,0.000
-7.460E-06,0.004
-7.450E-06,0.004
-7.440E-06,0.000
-7.430E-06,0.008
-7.420E-06,0.008
-7.410E-06,-0.004
-7.400E-06,-0.004
-7.390E-06,0.004
-7.380E-06,0.000
-7.370E-06,0.000
-7.360E-06,0.000
-7.350E-06,0.000
-7.340E-06,0.004
-7.330E-06,0.000
-7.320E-06,-0.004
-7.310E-06,0.004
-7.300E-06,-0.004
-7.290E-06,0.004
-7.280E-06,0.000
-7.270E-06,0.004
-7.260E-06,0.004
-7.250E-06,0.008
-7.240E-06,0.000
-7.230E-06,0.004
-7.220E-06,0.004
-7.210E-06,0.004
-7.200E-06,0.000
-7.190E-06,0.004
-7.180E-06,0.000
-7.170E-06,0.004
-7.160E-06,-0.004
-7.150E-06,0.004
-7.140E-06,0.004
-7.130E-06,0.004
-7.120E-06,0.004
-7.110E-06,0.000
-7.100E-06,0.004
-7.090E-06,0.000
-7.080E-06,0.000
-7.070E-06,-0.004
-7.060E-06,0.000
-7.050E-06,0.008
-7.040E-06,0.000
-7.030E-06,0.000
-7.020E-06,0.004
-7.010E-06,0.008
-7.000E-06,0.000
-6.990E-06,0.000
-6.980E-06,0.004
-6.970E-06,0.008
-6.960E-06,0.008
-6.950E-06,0.000
-6.940E-06,0.000
-6.930E-06,0.004
-6.920E-06,0.008
-6.910E-06,0.008
-6.900E-06,0.008
-6.890E-06,0.008
-6.880E-06,0.008
-6.870E-06,0.008
-6.860E-06,0.008
-6.850E-06,0.000
-6.840E-06,0.004
-6.830E-06,0.004
-6.820E-06,0.004
-6.810E-06,0.000
-6.800E-06,0.000
-6.790E-06,0.000
-6.780E-06,0.004
-6.770E-06,0.000
-6.760E-06,0.004
-6.750E-06,0.004
-6.740E-06,0.000
-6.730E-06,0.004
-6.720E-06,0.000
-6.710E-06,0.004
-6.700E-06,0.004
-6.690E-06,0.004
-6.680E-06,0.004
-6.670E-06,0.008
-6.660E-06,0.000
-6.650E-06,0.004
-6.640E-06,0.000
-6.630E-06,0.004
-6.620E-06,0.000
-6.610E-06,0.004
-6.600E-06,0.000
-6.590E-06,0.000
-6.580E-06,0.004
-6.570E-06,0.000
-6.560E-06,0.004
-6.550E-06,0.004
-6.540E-06,0.000
-6.530E-06,0.000
-6.520E-06,0.004
-6.510E-06,0.004
-6.500E-06,0.000
-6.490E-06,0.004
-6.480E-06,0.008
-6.470E-06,0.008
-6.460E-06,-0.004
-6.450E-06,0.004
-6.440E-06,0.000
-6.430E-06,0.000
-6.420E-06,0.004
-6.410E-06,0.000
-6.400E-06,0.004
-6.390E-06,0.000
-6.380E-06,0.000
-6.370E-06,0.004
-6.360E-06,0.004
-6.350E-06,0.004
-6.340E-06,0.004
-6.330E-06,0.000
-6.320E-06,0.004
-6.310E-06,0.004
-6.300E-06,0.004
-6.290E-06,0.000
-6.280E-06,0.004
-6.270E-06,0.000
-6.260E-06,0.004
-6.250E-06,0.004
-6.240E-06,0.000
-6.230E-06,0.000
-6.220E-06,0.004
-6.210E-06,0.000
-6.200E-06,0.004
-6.190E-06,0.004
-6.180E-06,0.004
-6.170E-06,0.004
-6.160E-06,0.000
-6.150E-06,0.000
-6.140E-06,0.000
-6.130E-06,0.000
-6.120E-06,0.004
-6.110E-06,0.008
-6.100E-06,0.000
-6.090E-06,0.004
-6.080E-06,0.004
-6.070E-06,0.000
-6.060E-06,0.000
-6.050E-06,0.000
-6.040E-06,0.004
-6.030E-06,0.000
-6.020E-06,0.004
-6.010E-06,0.004
-6.000E-06,0.004
-5.990E-06,0.004
-5.980E-06,0.000
-5.970E-06,0.000
-5.960E-06,0.004
-5.950E-06,0.004
-5.940E-06,0.004
-5.930E-06,0.004
-5.920E-06,0.008
-5.910E-06,0.000
-5.900E-06,0.000
-5.890E-06,0.004
-5.880E-06,0.008
-5.870E-06,0.000
-5.860E-06,0.000
-5.850E-06,0.004
-5.840E-06,0.000
-5.830E-06,0.000
-5.820E-06,0.004
-5.810E-06,0.008
-5.800E-06,0.000
-5.790E-06,0.000
-5.780E-06,0.004
-5.770E-06,0.008
-5.760E-06,0.004
-5.750E-06,0.004
-5.740E-06,0.008
-5.730E-06,-0.004
-5.720E-06,0.004
-5.710E-06,0.004
-5.700E-06,0.004
-5.690E-06,0.004
-5.680E-06,0.008
-5.670E-06,0.008
-5.660E-06,0.008
-5.650E-06,0.000
-5.640E-06,0.000
-5.630E-06,0.000
-5.620E-06,0.000
-5.610E-06,0.004
-5.600E-06,0.000
-5.590E-06,0.004
-5.580E-06,0.004
-5.570E-06,0.008
-5.560E-06,0.044
-5.550E-06,0.100
-5.540E-06,0.148
-5.530E-06,0.136
-5.520E-06,0.048
-5.510E-06,-0.152
-5.500E-06,-0.276
-5.490E-06,-0.240
-5.480E-06,-0.104
-5.470E-06,0.172
-5.460E-06,0.292
-5.450E-06,0.236
-5.440E-06,0.084
-5.430E-06,-0.080
-5.420E-06,-0.236
-5.410E-06,-0.192
-5.400E-06,-0.028
-5.390E-06,0.120
-5.380E-06,0.184
-5.370E-06,0.152
-5.360E-06,0.060
-5.350E-06,-0.060
-5.340E-06,-0.116
-5.330E-06,-0.132
-5.320E-06,-0.076
-5.310E-06,-0.020
-5.300E-06,0.060
-5.290E-06,0.124
-5.280E-06,0.132
-5.270E-06,0.084
-5.260E-06,-0.008
-5.250E-06,-0.072
-5.240E-06,-0.108
-5.230E-06,-0.072
-5.220E-06,0.004
-5.210E-06,0.100
-5.200E-06,0.108
-5.190E-06,0.060
-5.180E-06,-0.024
-5.170E-06,-0.100
-5.160E-06,-0.116
-5.150E-06,-0.060
-5.140E-06,0.016
-5.130E-06,0.080
-5.120E-06,0.096
-5.110E-06,0.060
-5.100E-06,0.008
-5.090E-06,-0.016
-5.080E-06,-0.020
-5.070E-06,0.004
-5.060E-06,0.032
-5.050E-06,0.040
-5.040E-06,0.040
-5.030E-06,0.024
-5.020E-06,0.004
-5.010E-06,-0.016
-5.000E-06,-0.024
-4.990E-06,-0.020
-4.980E-06,0.004
-4.970E-06,0.032
-4.960E-06,0.052
-4.950E-06,0.056
-4.940E-06,0.048
-4.930E-06,0.004
-4.920E-06,-0.040
-4.910E-06,-0.056
-4.900E-06,-0.044
-4.890E-06,0.004
-4.880E-06,0.036
-4.870E-06,0.056
-4.860E-06,0.040
-4.850E-06,0.000
-4.840E-06,-0.044
-4.830E-06,-0.064
-4.820E-06,-0.056
-4.810E-06,-0.028
-4.800E-06,0.028
-4.790E-06,0.056
-4.780E-06,0.048
-4.770E-06,0.028
-4.760E-06,-0.004
-4.750E-06,-0.024
-4.740E-06,-0.028
-4.730E-06,0.004
-4.720E-06,0.024
-4.710E-06,0.052
-4.700E-06,0.044
-4.690E-06,0.012
-4.680E-06,-0.028
-4.670E-06,-0.040
-4.660E-06,-0.028
-4.650E-06,-0.004
-4.640E-06,0.020
-4.630E-06,0.036
-4.620E-06,0.024
-4.610E-06,0.008
-4.600E-06,-0.008
-4.590E-06,-0.020
-4.580E-06,-0.004
-4.570E-06,0.004
-4.560E-06,0.020
-4.550E-06,0.024
-4.540E-06,0.028
-4.530E-06,0.024
-4.520E-06,0.008
-4.510E-06,0.000
-4.500E-06,0.000
-4.490E-06,0.000
-4.480E-06,-0.004
-4.470E-06,0.004
-4.460E-06,0.000
-4.450E-06,0.000
-4.440E-06,-0.004
-4.430E-06,0.004
-4.420E-06,0.004
-4.410E-06,0.004
-4.400E-06,0.012
-4.390E-06,0.020
-4.380E-06,0.028
-4.370E-06,0.028
-4.360E-06,0.020
-4.350E-06,0.004
-4.340E-06,0.004
-4.330E-06,0.000
-4.320E-06,0.008
-4.310E-06,0.012
-4.300E-06,0.040
-4.290E-06,0.060
-4.280E-06,0.056
-4.270E-06,0.024
-4.260E-06,-0.016
-4.250E-06,-0.040
-4.240E-06,-0.044
-4.230E-06,-0.024
-4.220E-06,0.020
-4.210E-06,0.068
-4.200E-06,0.076
-4.190E-06,0.064
-4.180E-06,-0.016
-4.170E-06,-0.056
-4.160E-06,-0.068
-4.150E-06,-0.120
-4.140E-06,-0.052
-4.130E-06,-0.024
-4.120E-06,0.004
-4.110E-06,0.020
-4.100E-06,0.084
-4.090E-06,0.028
-4.080E-06,-0.060
-4.070E-06,-0.072
-4.060E-06,-0.052
-4.050E-06,0.024
-4.040E-06,0.068
-4.030E-06,0.072
-4.020E-06,0.008
-4.010E-06,-0.032
-4.000E-06,-0.052
-3.990E-06,-0.016
-3.980E-06,0.012
-3.970E-06,0.036
-3.960E-06,0.028
-3.950E-06,0.012
-3.940E-06,-0.016
-3.930E-06,-0.028
-3.920E-06,-0.028
-3.910E-06,-0.004
-3.900E-06,0.028
-3.890E-06,0.032
-3.880E-06,0.032
-3.870E-06,0.008
-3.860E-06,-0.008
-3.850E-06,-0.024
-3.840E-06,-0.012
-3.830E-06,-0.004
-3.820E-06,0.016
-3.810E-06,0.020
-3.800E-06,0.020
-3.790E-06,0.012
-3.780E-06,-0.004
-3.770E-06,-0.004
-3.760E-06,-0.008
-3.750E-06,0.004
-3.740E-06,0.016
-3.730E-06,0.028
-3.720E-06,0.036
-3.710E-06,0.024
-3.700E-06,0.012
-3.690E-06,-0.004
-3.680E-06,-0.012
-3.670E-06,-0.004
-3.660E-06,0.020
-3.650E-06,0.024
-3.640E-06,0.028
-3.630E-06,0.012
-3.620E-06,-0.004
-3.610E-06,-0.008
-3.600E-06,-0.008
-3.590E-06,0.012
-3.580E-06,0.028
-3.570E-06,0.028
-3.560E-06,0.024
-3.550E-06,0.012
-3.540E-06,-0.004
-3.530E-06,-0.008
-3.520E-06,-0.008
-3.510E-06,-0.004
-3.500E-06,0.016
-3.490E-06,0.032
-3.480E-06,0.028
-3.470E-06,0.020
-3.460E-06,0.008
-3.450E-06,0.000
-3.440E-06,-0.008
-3.430E-06,0.000
-3.420E-06,0.004
-3.410E-06,0.012
-3.400E-06,0.024
-3.390E-06,0.032
-3.380E-06,0.040
-3.370E-06,0.024
-3.360E-06,0.000
-3.350E-06,0.028
-3.340E-06,0.012
-3.330E-06,-0.020
-3.320E-06,0.028
-3.310E-06,0.036
-3.300E-06,0.080
-3.290E-06,-0.032
-3.280E-06,-0.072
-3.270E-06,-0.092
-3.260E-06,-0.048
-3.250E-06,-0.008
-3.240E-06,0.040
-3.230E-06,0.044
-3.220E-06,0.024
-3.210E-06,-0.020
-3.200E-06,-0.036
-3.190E-06,0.020
-3.180E-06,0.064
-3.170E-06,0.108
-3.160E-06,0.072
-3.150E-06,-0.008
-3.140E-06,-0.144
-3.130E-06,-0.232
-3.120E-06,-0.168
-3.110E-06,-0.028
-3.100E-06,0.120
-3.090E-06,0.200
-3.080E-06,0.192
-3.070E-06,0.052
-3.060E-06,-0.108
-3.050E-06,-0.200
-3.040E-06,-0.168
-3.030E-06,-0.064
-3.020E-06,0.088
-3.010E-06,0.180
-3.000E-06,0.160
-2.990E-06,0.092
-2.980E-06,-0.028
-2.970E-06,-0.100
-2.960E-06,-0.124
-2.950E-06,-0.076
-2.940E-06,0.000
-2.930E-06,0.092
-2.920E-06,0.120
-2.910E-06,0.092
-2.900E-06,0.012
-2.890E-06,-0.056
-2.880E-06,-0.084
-2.870E-06,-0.056
-2.860E-06,0.016
-2.850E-06,0.092
-2.840E-06,0.132
-2.830E-06,0.104
-2.820E-06,0.044
-2.810E-06,-0.032
-2.800E-06,-0.084
-2.790E-06,-0.076
-2.780E-06,-0.024
-2.770E-06,0.052
-2.760E-06,0.096
-2.750E-06,0.100
-2.740E-06,0.064
-2.730E-06,0.004
-2.720E-06,-0.040
-2.710E-06,-0.048
-2.700E-06,-0.020
-2.690E-06,0.008
-2.680E-06,-0.152
-2.670E-06,-0.180
-2.660E-06,-0.276
-2.650E-06,-0.164
-2.640E-06,-0.012
-2.630E-06,0.196
-2.620E-06,0.244
-2.610E-06,0.028
-2.600E-06,-0.108
-2.590E-06,-0.196
-2.580E-06,-0.088
-2.570E-06,-0.016
-2.560E-06,0.104
-2.550E-06,0.112
-2.540E-06,0.092
-2.530E-06,0.004
-2.520E-06,-0.068
-2.510E-06,-0.072
-2.500E-06,-0.040
-2.490E-06,0.016
-2.480E-06,0.016
-2.470E-06,0.028
-2.460E-06,0.000
-2.450E-06,0.024
-2.440E-06,0.004
-2.430E-06,0.012
-2.420E-06,0.004
-2.410E-06,0.016
-2.400E-06,0.028
-2.390E-06,0.028
-2.380E-06,0.012
-2.370E-06,-0.020
-2.360E-06,-0.016
-2.350E-06,-0.016
-2.340E-06,0.020
-2.330E-06,0.024
-2.320E-06,0.004
-2.310E-06,-0.032
-2.300E-06,-0.040
-2.290E-06,-0.044
-2.280E-06,-0.016
-2.270E-06,0.024
-2.260E-06,0.056
-2.250E-06,0.060
-2.240E-06,0.004
-2.230E-06,-0.032
-2.220E-06,-0.056
-2.210E-06,-0.044
-2.200E-06,-0.004
-2.190E-06,0.032
-2.180E-06,0.048
-2.170E-06,0.048
-2.160E-06,0.012
-2.150E-06,-0.028
-2.140E-06,-0.040
-2.130E-06,-0.040
-2.120E-06,-0.008
-2.110E-06,0.016
-2.100E-06,0.044
-2.090E-06,0.040
-2.080E-06,0.028
-2.070E-06,-0.004
-2.060E-06,-0.032
-2.050E-06,-0.032
-2.040E-06,-0.020
-2.030E-06,0.012
-2.020E-06,0.040
-2.010E-06,0.056
-2.000E-06,0.040
-1.990E-06,0.008
-1.980E-06,-0.024
-1.970E-06,-0.040
-1.960E-06,-0.040
-1.950E-06,-0.008
-1.940E-06,0.028
-1.930E-06,0.052
-1.920E-06,0.052
-1.910E-06,0.028
-1.900E-06,-0.004
-1.890E-06,-0.028
-1.880E-06,-0.028
-1.870E-06,-0.008
-1.860E-06,0.016
-1.850E-06,0.032
-1.840E-06,0.024
-1.830E-06,0.020
-1.820E-06,0.004
-1.810E-06,-0.012
-1.800E-06,-0.016
-1.790E-06,0.000
-1.780E-06,0.008
-1.770E-06,0.012
-1.760E-06,0.024
-1.750E-06,0.020
-1.740E-06,0.020
-1.730E-06,0.020
-1.720E-06,0.008
-1.710E-06,-0.004
-1.700E-06,-0.008
-1.690E-06,0.000
-1.680E-06,0.012
-1.670E-06,0.032
-1.660E-06,0.040
-1.650E-06,0.036
-1.640E-06,0.008
-1.630E-06,-0.004
-1.620E-06,-0.008
-1.610E-06,-0.004
-1.600E-06,0.012
-1.590E-06,0.032
-1.580E-06,0.036
-1.570E-06,0.032
-1.560E-06,0.008
-1.550E-06,-0.004
-1.540E-06,-0.004
-1.530E-06,0.008
-1.520E-06,0.016
-1.510E-06,0.032
-1.500E-06,0.056
-1.490E-06,0.060
-1.480E-06,0.028
-1.470E-06,-0.048
-1.460E-06,-0.064
-1.450E-06,-0.004
-1.440E-06,0.028
-1.430E-06,0.068
-1.420E-06,0.104
-1.410E-06,-0.048
-1.400E-06,-0.236
-1.390E-06,-0.284
-1.380E-06,-0.280
-1.370E-06,0.020
-1.360E-06,0.252
-1.350E-06,0.328
-1.340E-06,0.168
-1.330E-06,-0.112
-1.320E-06,-0.276
-1.310E-06,-0.276
-1.300E-06,-0.052
-1.290E-06,0.156
-1.280E-06,0.260
-1.270E-06,0.188
-1.260E-06,0.048
-1.250E-06,-0.124
-1.240E-06,-0.208
-1.230E-06,-0.136
-1.220E-06,0.008
-1.210E-06,0.152
-1.200E-06,0.192
-1.190E-06,0.136
-1.180E-06,0.012
-1.170E-06,-0.084
-1.160E-06,-0.160
-1.150E-06,-0.164
-1.140E-06,-0.064
-1.130E-06,0.048
-1.120E-06,0.136
-1.110E-06,0.156
-1.100E-06,0.100
-1.090E-06,-0.008
-1.080E-06,-0.132
-1.070E-06,-0.160
-1.060E-06,-0.076
-1.050E-06,0.036
-1.040E-06,0.144
-1.030E-06,0.152
-1.020E-06,0.076
-1.010E-06,-0.040
-1.000E-06,-0.120
-9.900E-07,-0.116
-9.800E-07,-0.044
-9.700E-07,0.072
-9.600E-07,0.140
-9.500E-07,0.136
-9.400E-07,0.060
-9.300E-07,-0.040
-9.200E-07,-0.112
-9.100E-07,-0.104
-9.000E-07,-0.032
-8.900E-07,0.072
-8.800E-07,0.132
-8.700E-07,0.108
-8.600E-07,0.028
-8.500E-07,-0.068
-8.400E-07,-0.112
-8.300E-07,-0.088
-8.200E-07,0.000
-8.100E-07,0.080
-8.000E-07,0.120
-7.900E-07,0.092
-7.800E-07,0.028
-7.700E-07,-0.052
-7.600E-07,-0.084
-7.500E-07,-0.064
-7.400E-07,0.000
-7.300E-07,0.064
-7.200E-07,0.092
-7.100E-07,0.072
-7.000E-07,0.036
-6.900E-07,-0.024
-6.800E-07,-0.040
-6.700E-07,-0.028
-6.600E-07,0.000
-6.500E-07,0.028
-6.400E-07,0.048
-6.300E-07,0.056
-6.200E-07,0.020
-6.100E-07,0.004
-6.000E-07,-0.024
-5.900E-07,-0.024
-5.800E-07,-0.008
-5.700E-07,0.020
-5.600E-07,0.040
-5.500E-07,0.048
-5.400E-07,0.036
-5.300E-07,0.008
-5.200E-07,-0.012
-5.100E-07,-0.024
-5.000E-07,-0.024
-4.900E-07,0.000
-4.800E-07,0.028
-4.700E-07,0.052
-4.600E-07,0.044
-4.500E-07,0.028
-4.400E-07,0.016
-4.300E-07,0.016
-4.200E-07,0.028
-4.100E-07,0.040
-4.000E-07,0.052
-3.900E-07,0.056
-3.800E-07,0.056
-3.700E-07,0.056
-3.600E-07,0.048
-3.500E-07,0.036
-3.400E-07,0.032
-3.300E-07,0.040
-3.200E-07,0.044
-3.100E-07,0.044
-3.000E-07,0.052
-2.900E-07,0.044
-2.800E-07,0.020
-2.700E-07,0.032
-2.600E-07,0.044
-2.500E-07,0.056
-2.400E-07,0.056
-2.300E-07,0.060
-2.200E-07,0.064
-2.100E-07,0.064
-2.000E-07,0.060
-1.900E-07,0.056
-1.800E-07,0.044
-1.700E-07,0.052
-1.600E-07,0.044
-1.500E-07,0.040
-1.400E-07,0.028
-1.300E-07,0.028
-1.200E-07,0.024
-1.100E-07,0.080
-1.000E-07,0.048
-9.000E-08,-0.020
-8.000E-08,-0.012
-7.000E-08,0.044
-6.000E-08,-0.168
-5.000E-08,-0.084
-4.000E-08,-0.512
-3.000E-08,-0.512
-2.000E-08,-0.508
-1.000E-08,-0.020
0.000E+00,0.540
1.000E-08,0.536
2.000E-08,0.388
3.000E-08,-0.512
4.000E-08,-0.512
5.000E-08,-0.512
6.000E-08,0.088
7.000E-08,0.544
8.000E-08,0.544
9.000E-08,0.380
1.000E-07,-0.036
1.100E-07,-0.296
1.200E-07,-0.372
1.300E-07,-0.184
1.400E-07,-0.040
1.500E-07,0.200
1.600E-07,0.224
1.700E-07,0.240
1.800E-07,0.064
1.900E-07,-0.032
2.000E-07,-0.164
2.100E-07,-0.164
2.200E-07,-0.060
2.300E-07,0.080
2.400E-07,0.208
2.500E-07,0.168
2.600E-07,0.092
2.700E-07,-0.068
2.800E-07,-0.060
2.900E-07,-0.064
3.000E-07,0.016
3.100E-07,0.056
3.200E-07,0.124
3.300E-07,0.112
3.400E-07,0.056
3.500E-07,0.040
3.600E-07,-0.004
3.700E-07,0.004
3.800E-07,0.016
3.900E-07,0.064
4.000E-07,0.072
4.100E-07,0.072
4.200E-07,0.056
4.300E-07,0.064
4.400E-07,0.088
4.500E-07,0.108
4.600E-07,0.116
4.700E-07,0.108
4.800E-07,0.052
4.900E-07,-0.080
5.000E-07,-0.232
5.100E-07,-0.360
5.200E-07,-0.404
5.300E-07,-0.168
5.400E-07,0.068
5.500E-07,0.260
5.600E-07,0.268
5.700E-07,0.144
5.800E-07,-0.080
5.900E-07,-0.276
6.000E-07,-0.192
6.100E-07,-0.040
6.200E-07,0.184
6.300E-07,0.288
6.400E-07,0.268
6.500E-07,0.084
6.600E-07,-0.112
6.700E-07,-0.204
6.800E-07,-0.168
6.900E-07,-0.012
7.000E-07,0.160
7.100E-07,0.244
7.200E-07,0.200
7.300E-07,0.112
7.400E-07,-0.004
7.500E-07,-0.040
7.600E-07,-0.012
7.700E-07,0.104
7.800E-07,0.200
7.900E-07,0.252
8.000E-07,0.208
8.100E-07,0.096
8.200E-07,0.000
8.300E-07,-0.064
8.400E-07,0.028
8.500E-07,0.156
8.600E-07,0.288
8.700E-07,0.304
8.800E-07,0.260
8.900E-07,-0.004
9.000E-07,-0.180
9.100E-07,-0.512
9.200E-07,-0.508
9.300E-07,-0.508
9.400E-07,-0.512
9.500E-07,0.256
9.600E-07,0.540
9.700E-07,0.544
9.800E-07,0.504
9.900E-07,-0.272
1.000E-06,-0.512
1.010E-06,-0.508
1.020E-06,-0.152
1.030E-06,0.540
1.040E-06,0.540
1.050E-06,0.540
1.060E-06,0.076
1.070E-06,-0.512
1.080E-06,-0.512
1.090E-06,-0.512
1.100E-06,-0.068
1.110E-06,0.472
1.120E-06,0.540
1.130E-06,0.540
1.140E-06,0.064
1.150E-06,-0.456
1.160E-06,-0.512
1.170E-06,-0.512
1.180E-06,-0.052
1.190E-06,0.472
1.200E-06,0.544
1.210E-06,0.536
1.220E-06,0.076
1.230E-06,-0.316
1.240E-06,-0.508
1.250E-06,-0.364
1.260E-06,0.016
1.270E-06,0.384
1.280E-06,0.540
1.290E-06,0.432
1.300E-06,0.132
1.310E-06,-0.216
1.320E-06,-0.312
1.330E-06,-0.192
1.340E-06,0.124
1.350E-06,0.400
1.360E-06,0.540
1.370E-06,0.424
1.380E-06,0.124
1.390E-06,-0.224
1.400E-06,-0.408
1.410E-06,-0.392
1.420E-06,-0.160
1.430E-06,0.104
1.440E-06,0.300
1.450E-06,0.264
1.460E-06,-0.004
1.470E-06,-0.252
1.480E-06,-0.400
1.490E-06,-0.308
1.500E-06,-0.104
1.510E-06,0.160
1.520E-06,0.308
1.530E-06,0.308
1.540E-06,0.176
1.550E-06,-0.036
1.560E-06,-0.216
1.570E-06,-0.268
1.580E-06,-0.132
1.590E-06,0.100
1.600E-06,0.308
1.610E-06,0.344
1.620E-06,0.244
1.630E-06,0.056
1.640E-06,-0.076
1.650E-06,-0.100
1.660E-06,0.008
1.670E-06,0.220
1.680E-06,0.340
1.690E-06,0.312
1.700E-06,0.120
1.710E-06,-0.128
1.720E-06,-0.332
1.730E-06,-0.380
1.740E-06,-0.240
1.750E-06,-0.012
1.760E-06,0.176
1.770E-06,0.220
1.780E-06,0.152
1.790E-06,0.028
1.800E-06,-0.092
1.810E-06,-0.176
1.820E-06,-0.136
1.830E-06,-0.052
1.840E-06,0.108
1.850E-06,0.168
1.860E-06,0.164
1.870E-06,0.092
1.880E-06,0.020
1.890E-06,-0.028
1.900E-06,-0.016
1.910E-06,0.056
1.920E-06,0.144
1.930E-06,0.224
1.940E-06,0.240
1.950E-06,0.208
1.960E-06,0.160
1.970E-06,0.108
1.980E-06,0.108
1.990E-06,0.152
2.000E-06,0.212
2.010E-06,0.240
2.020E-06,0.240
2.030E-06,0.196
2.040E-06,0.144
2.050E-06,0.104
2.060E-06,0.116
2.070E-06,0.152
2.080E-06,0.184
2.090E-06,0.200
2.100E-06,0.184
2.110E-06,0.156
2.120E-06,0.104
2.130E-06,0.084
2.140E-06,0.076
2.150E-06,0.092
2.160E-06,0.100
2.170E-06,0.112
2.180E-06,0.108
2.190E-06,0.112
2.200E-06,0.124
2.210E-06,0.132
2.220E-06,0.156
2.230E-06,0.136
2.240E-06,0.040
2.250E-06,-0.148
2.260E-06,-0.368
2.270E-06,-0.512
2.280E-06,-0.512
2.290E-06,-0.508
2.300E-06,-0.512
2.310E-06,-0.448
2.320E-06,-0.152
2.330E-06,0.056
2.340E-06,-0.024
2.350E-06,-0.224
2.360E-06,-0.432
2.370E-06,-0.488
2.380E-06,-0.304
2.390E-06,0.040
2.400E-06,0.316
2.410E-06,0.380
2.420E-06,0.180
2.430E-06,-0.032
2.440E-06,-0.220
2.450E-06,-0.244
2.460E-06,-0.104
2.470E-06,0.136
2.480E-06,0.320
2.490E-06,0.344
2.500E-06,0.244
2.510E-06,0.028
2.520E-06,-0.120
2.530E-06,-0.148
2.540E-06,-0.008
2.550E-06,0.180
2.560E-06,0.320
2.570E-06,0.340
2.580E-06,0.232
2.590E-06,0.100
2.600E-06,-0.008
2.610E-06,-0.012
2.620E-06,0.080
2.630E-06,0.256
2.640E-06,0.340
2.650E-06,0.356
2.660E-06,0.276
2.670E-06,0.168
2.680E-06,0.076
2.690E-06,0.064
2.700E-06,0.152
2.710E-06,0.264
2.720E-06,0.368
2.730E-06,0.372
2.740E-06,0.312
2.750E-06,0.208
2.760E-06,0.136
2.770E-06,0.108
2.780E-06,0.160
2.790E-06,0.256
2.800E-06,0.324
2.810E-06,0.348
2.820E-06,0.316
2.830E-06,0.244
2.840E-06,0.164
2.850E-06,0.136
2.860E-06,0.152
2.870E-06,0.208
2.880E-06,0.268
2.890E-06,0.292
2.900E-06,0.272
2.910E-06,0.224
2.920E-06,0.164
2.930E-06,0.128
2.940E-06,0.116
2.950E-06,0.124
2.960E-06,0.152
2.970E-06,0.176
2.980E-06,0.192
2.990E-06,0.204
3.000E-06,0.200
3.010E-06,0.192
3.020E-06,0.152
3.030E-06,0.100
3.040E-06,0.060
3.050E-06,0.036
3.060E-06,-0.004
3.070E-06,-0.036
3.080E-06,-0.056
3.090E-06,-0.112
3.100E-06,-0.128
3.110E-06,-0.132
3.120E-06,-0.068
3.130E-06,0.016
3.140E-06,0.140
3.150E-06,0.200
3.160E-06,0.128
3.170E-06,0.000
3.180E-06,-0.060
3.190E-06,-0.072
3.200E-06,0.016
3.210E-06,0.172
3.220E-06,0.300
3.230E-06,0.292
3.240E-06,0.204
3.250E-06,0.060
3.260E-06,-0.060
3.270E-06,-0.056
3.280E-06,0.004
3.290E-06,0.120
3.300E-06,0.224
3.310E-06,0.252
