mediciones/Mediciones filtradas (saque las feas)/5-15/22.5/WaveData47392.csv

#timebase=2000000(ps)
,#voltbase=500000(mv/100)
#size=4000
-8.400E-06,0.060
-8.390E-06,0.060
-8.380E-06,0.080
-8.370E-06,0.040
-8.360E-06,0.040
-8.350E-06,0.060
-8.340E-06,0.040
-8.330E-06,0.080
-8.320E-06,0.060
-8.310E-06,0.060
-8.300E-06,0.080
-8.290E-06,0.060
-8.280E-06,0.060
-8.270E-06,0.080
-8.260E-06,0.040
-8.250E-06,0.060
-8.240E-06,0.080
-8.230E-06,0.060
-8.220E-06,0.040
-8.210E-06,0.040
-8.200E-06,0.080
-8.190E-06,0.020
-8.180E-06,0.040
-8.170E-06,0.040
-8.160E-06,0.040
-8.150E-06,0.080
-8.140E-06,0.040
-8.130E-06,0.060
-8.120E-06,0.060
-8.110E-06,0.060
-8.100E-06,0.040
-8.090E-06,0.040
-8.080E-06,0.080
-8.070E-06,0.040
-8.060E-06,0.040
-8.050E-06,0.060
-8.040E-06,0.040
-8.030E-06,0.040
-8.020E-06,0.040
-8.010E-06,0.020
-8.000E-06,0.060
-7.990E-06,0.080
-7.980E-06,0.060
-7.970E-06,0.080
-7.960E-06,0.060
-7.950E-06,0.020
-7.940E-06,0.060
-7.930E-06,0.060
-7.920E-06,0.060
-7.910E-06,0.040
-7.900E-06,0.020
-7.890E-06,0.020
-7.880E-06,0.040
-7.870E-06,0.060
-7.860E-06,0.080
-7.850E-06,0.060
-7.840E-06,0.020
-7.830E-06,0.040
-7.820E-06,0.040
-7.810E-06,0.060
-7.800E-06,0.060
-7.790E-06,0.060
-7.780E-06,0.040
-7.770E-06,0.060
-7.760E-06,0.020
-7.750E-06,0.040
-7.740E-06,0.040
-7.730E-06,0.020
-7.720E-06,0.060
-7.710E-06,0.040
-7.700E-06,0.060
-7.690E-06,0.080
-7.680E-06,0.020
-7.670E-06,0.040
-7.660E-06,0.040
-7.650E-06,0.040
-7.640E-06,0.080
-7.630E-06,0.060
-7.620E-06,0.040
-7.610E-06,0.060
-7.600E-06,0.040
-7.590E-06,0.080
-7.580E-06,0.040
-7.570E-06,0.040
-7.560E-06,0.040
-7.550E-06,0.040
-7.540E-06,0.060
-7.530E-06,0.040
-7.520E-06,0.040
-7.510E-06,0.060
-7.500E-06,0.080
-7.490E-06,0.040
-7.480E-06,0.060
-7.470E-06,0.040
-7.460E-06,0.020
-7.450E-06,0.040
-7.440E-06,0.060
-7.430E-06,0.080
-7.420E-06,0.020
-7.410E-06,0.040
-7.400E-06,0.060
-7.390E-06,0.040
-7.380E-06,0.020
-7.370E-06,0.040
-7.360E-06,0.040
-7.350E-06,0.060
-7.340E-06,0.040
-7.330E-06,0.060
-7.320E-06,0.040
-7.310E-06,0.040
-7.300E-06,0.060
-7.290E-06,0.040
-7.280E-06,0.020
-7.270E-06,0.060
-7.260E-06,0.040
-7.250E-06,0.060
-7.240E-06,0.040
-7.230E-06,0.040
-7.220E-06,0.060
-7.210E-06,0.060
-7.200E-06,0.060
-7.190E-06,0.080
-7.180E-06,0.060
-7.170E-06,0.060
-7.160E-06,0.060
-7.150E-06,0.080
-7.140E-06,0.060
-7.130E-06,0.040
-7.120E-06,0.060
-7.110E-06,0.080
-7.100E-06,0.020
-7.090E-06,0.040
-7.080E-06,0.040
-7.070E-06,0.020
-7.060E-06,0.040
-7.050E-06,0.060
-7.040E-06,0.080
-7.030E-06,0.060
-7.020E-06,0.040
-7.010E-06,0.060
-7.000E-06,0.060
-6.990E-06,0.080
-6.980E-06,0.040
-6.970E-06,0.060
-6.960E-06,0.040
-6.950E-06,0.060
-6.940E-06,0.060
-6.930E-06,0.060
-6.920E-06,0.060
-6.910E-06,0.060
-6.900E-06,0.060
-6.890E-06,0.060
-6.880E-06,0.060
-6.870E-06,0.040
-6.860E-06,0.040
-6.850E-06,0.040
-6.840E-06,0.040
-6.830E-06,0.040
-6.820E-06,0.040
-6.810E-06,0.060
-6.800E-06,0.040
-6.790E-06,0.020
-6.780E-06,0.040
-6.770E-06,0.040
-6.760E-06,0.060
-6.750E-06,0.040
-6.740E-06,0.020
-6.730E-06,0.040
-6.720E-06,0.040
-6.710E-06,0.040
-6.700E-06,0.080
-6.690E-06,0.060
-6.680E-06,0.080
-6.670E-06,0.040
-6.660E-06,0.040
-6.650E-06,0.060
-6.640E-06,0.040
-6.630E-06,0.040
-6.620E-06,0.040
-6.610E-06,0.040
-6.600E-06,0.040
-6.590E-06,0.040
-6.580E-06,0.040
-6.570E-06,0.040
-6.560E-06,0.060
-6.550E-06,0.060
-6.540E-06,0.040
-6.530E-06,0.020
-6.520E-06,0.040
-6.510E-06,0.040
-6.500E-06,0.080
-6.490E-06,0.040
-6.480E-06,0.040
-6.470E-06,0.020
-6.460E-06,0.040
-6.450E-06,0.060
-6.440E-06,0.060
-6.430E-06,0.040
-6.420E-06,0.020
-6.410E-06,0.020
-6.400E-06,0.040
-6.390E-06,0.080
-6.380E-06,0.060
-6.370E-06,0.020
-6.360E-06,0.040
-6.350E-06,0.040
-6.340E-06,0.040
-6.330E-06,0.040
-6.320E-06,0.040
-6.310E-06,0.020
-6.300E-06,0.020
-6.290E-06,0.060
-6.280E-06,0.020
-6.270E-06,0.040
-6.260E-06,0.060
-6.250E-06,0.060
-6.240E-06,0.060
-6.230E-06,0.060
-6.220E-06,0.040
-6.210E-06,0.060
-6.200E-06,0.060
-6.190E-06,0.040
-6.180E-06,0.060
-6.170E-06,0.060
-6.160E-06,0.040
-6.150E-06,0.020
-6.140E-06,0.040
-6.130E-06,0.040
-6.120E-06,0.040
-6.110E-06,0.060
-6.100E-06,0.080
-6.090E-06,0.040
-6.080E-06,0.020
-6.070E-06,0.060
-6.060E-06,0.080
-6.050E-06,0.060
-6.040E-06,0.060
-6.030E-06,0.060
-6.020E-06,0.060
-6.010E-06,0.060
-6.000E-06,0.020
-5.990E-06,0.040
-5.980E-06,0.040
-5.970E-06,0.040
-5.960E-06,0.080
-5.950E-06,0.060
-5.940E-06,0.040
-5.930E-06,0.040
-5.920E-06,0.040
-5.910E-06,0.040
-5.900E-06,0.060
-5.890E-06,0.080
-5.880E-06,0.040
-5.870E-06,0.020
-5.860E-06,0.040
-5.850E-06,0.060
-5.840E-06,0.020
-5.830E-06,0.040
-5.820E-06,0.060
-5.810E-06,0.080
-5.800E-06,0.040
-5.790E-06,0.040
-5.780E-06,0.060
-5.770E-06,0.060
-5.760E-06,0.040
-5.750E-06,0.060
-5.740E-06,0.060
-5.730E-06,0.080
-5.720E-06,0.080
-5.710E-06,0.040
-5.700E-06,0.060
-5.690E-06,0.060
-5.680E-06,0.080
-5.670E-06,0.060
-5.660E-06,0.080
-5.650E-06,0.060
-5.640E-06,0.020
-5.630E-06,0.060
-5.620E-06,0.040
-5.610E-06,0.080
-5.600E-06,0.060
-5.590E-06,0.080
-5.580E-06,0.020
-5.570E-06,0.040
-5.560E-06,0.040
-5.550E-06,0.060
-5.540E-06,0.080
-5.530E-06,0.060
-5.520E-06,0.020
-5.510E-06,0.060
-5.500E-06,0.060
-5.490E-06,0.060
-5.480E-06,0.040
-5.470E-06,0.040
-5.460E-06,0.040
-5.450E-06,0.040
-5.440E-06,0.060
-5.430E-06,0.040
-5.420E-06,0.040
-5.410E-06,0.040
-5.400E-06,0.060
-5.390E-06,0.040
-5.380E-06,0.020
-5.370E-06,0.040
-5.360E-06,0.060
-5.350E-06,0.040
-5.340E-06,0.040
-5.330E-06,0.060
-5.320E-06,0.040
-5.310E-06,0.040
-5.300E-06,0.060
-5.290E-06,0.080
-5.280E-06,0.040
-5.270E-06,0.040
-5.260E-06,0.040
-5.250E-06,0.040
-5.240E-06,0.080
-5.230E-06,0.060
-5.220E-06,0.060
-5.210E-06,0.060
-5.200E-06,0.080
-5.190E-06,0.040
-5.180E-06,0.040
-5.170E-06,0.080
-5.160E-06,0.060
-5.150E-06,0.020
-5.140E-06,0.040
-5.130E-06,0.060
-5.120E-06,0.040
-5.110E-06,0.040
-5.100E-06,0.060
-5.090E-06,0.040
-5.080E-06,0.060
-5.070E-06,0.060
-5.060E-06,0.020
-5.050E-06,0.020
-5.040E-06,0.020
-5.030E-06,0.060
-5.020E-06,0.040
-5.010E-06,0.060
-5.000E-06,0.060
-4.990E-06,0.060
-4.980E-06,0.080
-4.970E-06,0.060
-4.960E-06,0.080
-4.950E-06,0.040
-4.940E-06,0.060
-4.930E-06,0.060
-4.920E-06,0.060
-4.910E-06,0.060
-4.900E-06,0.080
-4.890E-06,0.060
-4.880E-06,0.080
-4.870E-06,0.020
-4.860E-06,0.020
-4.850E-06,0.040
-4.840E-06,0.020
-4.830E-06,0.060
-4.820E-06,0.040
-4.810E-06,0.060
-4.800E-06,0.040
-4.790E-06,0.080
-4.780E-06,0.080
-4.770E-06,0.020
-4.760E-06,0.060
-4.750E-06,0.060
-4.740E-06,0.040
-4.730E-06,0.040
-4.720E-06,0.040
-4.710E-06,0.060
-4.700E-06,0.020
-4.690E-06,0.040
-4.680E-06,0.060
-4.670E-06,0.060
-4.660E-06,0.040
-4.650E-06,0.040
-4.640E-06,0.060
-4.630E-06,0.040
-4.620E-06,0.040
-4.610E-06,0.060
-4.600E-06,0.040
-4.590E-06,0.060
-4.580E-06,0.060
-4.570E-06,0.060
-4.560E-06,0.040
-4.550E-06,0.020
-4.540E-06,0.060
-4.530E-06,0.040
-4.520E-06,0.080
-4.510E-06,0.060
-4.500E-06,0.040
-4.490E-06,0.040
-4.480E-06,0.060
-4.470E-06,0.040
-4.460E-06,0.060
-4.450E-06,0.040
-4.440E-06,0.020
-4.430E-06,0.040
-4.420E-06,0.020
-4.410E-06,0.020
-4.400E-06,0.060
-4.390E-06,0.020
-4.380E-06,0.020
-4.370E-06,0.040
-4.360E-06,0.020
-4.350E-06,0.020
-4.340E-06,0.040
-4.330E-06,0.020
-4.320E-06,0.040
-4.310E-06,0.020
-4.300E-06,0.040
-4.290E-06,0.040
-4.280E-06,0.040
-4.270E-06,0.040
-4.260E-06,0.040
-4.250E-06,0.040
-4.240E-06,0.040
-4.230E-06,0.060
-4.220E-06,0.040
-4.210E-06,0.020
-4.200E-06,0.060
-4.190E-06,0.040
-4.180E-06,0.060
-4.170E-06,0.060
-4.160E-06,0.040
-4.150E-06,0.080
-4.140E-06,0.060
-4.130E-06,0.040
-4.120E-06,0.060
-4.110E-06,0.040
-4.100E-06,0.080
-4.090E-06,0.040
-4.080E-06,0.040
-4.070E-06,0.060
-4.060E-06,0.020
-4.050E-06,0.060
-4.040E-06,0.040
-4.030E-06,0.060
-4.020E-06,0.060
-4.010E-06,0.060
-4.000E-06,0.100
-3.990E-06,0.060
-3.980E-06,0.040
-3.970E-06,0.020
-3.960E-06,0.040
-3.950E-06,0.020
-3.940E-06,0.040
-3.930E-06,0.040
-3.920E-06,0.040
-3.910E-06,0.020
-3.900E-06,0.020
-3.890E-06,-0.020
-3.880E-06,-0.020
-3.870E-06,0.000
-3.860E-06,-0.040
-3.850E-06,-0.040
-3.840E-06,-0.040
-3.830E-06,0.020
-3.820E-06,-0.020
-3.810E-06,0.000
-3.800E-06,0.000
-3.790E-06,0.000
-3.780E-06,-0.020
-3.770E-06,0.000
-3.760E-06,-0.020
-3.750E-06,0.000
-3.740E-06,-0.020
-3.730E-06,-0.020
-3.720E-06,0.000
-3.710E-06,0.000
-3.700E-06,0.020
-3.690E-06,0.020
-3.680E-06,0.040
-3.670E-06,0.020
-3.660E-06,0.040
-3.650E-06,0.000
-3.640E-06,-0.020
-3.630E-06,0.000
-3.620E-06,-0.020
-3.610E-06,-0.020
-3.600E-06,-0.020
-3.590E-06,-0.040
-3.580E-06,0.000
-3.570E-06,-0.020
-3.560E-06,-0.020
-3.550E-06,-0.020
-3.540E-06,-0.020
-3.530E-06,0.000
-3.520E-06,-0.020
-3.510E-06,0.000
-3.500E-06,-0.020
-3.490E-06,-0.040
-3.480E-06,-0.080
-3.470E-06,-0.080
-3.460E-06,-0.060
-3.450E-06,-0.100
-3.440E-06,-0.140
-3.430E-06,-0.120
-3.420E-06,-0.120
-3.410E-06,-0.120
-3.400E-06,-0.100
-3.390E-06,-0.120
-3.380E-06,-0.120
-3.370E-06,-0.100
-3.360E-06,-0.100
-3.350E-06,-0.040
-3.340E-06,-0.060
-3.330E-06,-0.040
-3.320E-06,-0.040
-3.310E-06,-0.060
-3.300E-06,-0.060
-3.290E-06,-0.100
-3.280E-06,-0.060
-3.270E-06,-0.080
-3.260E-06,-0.080
-3.250E-06,-0.060
-3.240E-06,-0.040
-3.230E-06,-0.080
-3.220E-06,-0.100
-3.210E-06,-0.080
-3.200E-06,-0.120
-3.190E-06,-0.140
-3.180E-06,-0.160
-3.170E-06,-0.180
-3.160E-06,-0.200
-3.150E-06,-0.200
-3.140E-06,-0.220
-3.130E-06,-0.220
-3.120E-06,-0.200
-3.110E-06,-0.200
-3.100E-06,-0.200
-3.090E-06,-0.180
-3.080E-06,-0.200
-3.070E-06,-0.220
-3.060E-06,-0.220
-3.050E-06,-0.220
-3.040E-06,-0.240
-3.030E-06,-0.240
-3.020E-06,-0.220
-3.010E-06,-0.200
-3.000E-06,-0.220
-2.990E-06,-0.180
-2.980E-06,-0.180
-2.970E-06,-0.180
-2.960E-06,-0.180
-2.950E-06,-0.160
-2.940E-06,-0.160
-2.930E-06,-0.160
-2.920E-06,-0.180
-2.910E-06,-0.160
-2.900E-06,-0.120
-2.890E-06,-0.120
-2.880E-06,-0.100
-2.870E-06,-0.080
-2.860E-06,-0.080
-2.850E-06,-0.100
-2.840E-06,-0.080
-2.830E-06,-0.080
-2.820E-06,-0.060
-2.810E-06,-0.060
-2.800E-06,-0.040
-2.790E-06,-0.020
-2.780E-06,-0.020
-2.770E-06,-0.040
-2.760E-06,-0.040
-2.750E-06,0.000
-2.740E-06,-0.020
-2.730E-06,-0.020
-2.720E-06,0.000
-2.710E-06,0.000
-2.700E-06,0.000
-2.690E-06,0.000
-2.680E-06,0.000
-2.670E-06,-0.020
-2.660E-06,-0.020
-2.650E-06,-0.040
-2.640E-06,-0.040
-2.630E-06,-0.080
-2.620E-06,-0.060
-2.610E-06,-0.080
-2.600E-06,-0.080
-2.590E-06,-0.080
-2.580E-06,-0.100
-2.570E-06,-0.100
-2.560E-06,-0.100
-2.550E-06,-0.120
-2.540E-06,-0.140
-2.530E-06,-0.160
-2.520E-06,-0.180
-2.510E-06,-0.180
-2.500E-06,-0.220
-2.490E-06,-0.200
-2.480E-06,-0.240
-2.470E-06,-0.260
-2.460E-06,-0.240
-2.450E-06,-0.240
-2.440E-06,-0.260
-2.430E-06,-0.300
-2.420E-06,-0.300
-2.410E-06,-0.320
-2.400E-06,-0.320
-2.390E-06,-0.320
-2.380E-06,-0.340
-2.370E-06,-0.360
-2.360E-06,-0.340
-2.350E-06,-0.400
-2.340E-06,-0.420
-2.330E-06,-0.420
-2.320E-06,-0.460
-2.310E-06,-0.500
-2.300E-06,-0.520
-2.290E-06,-0.540
-2.280E-06,-0.560
-2.270E-06,-0.580
-2.260E-06,-0.600
-2.250E-06,-0.600
-2.240E-06,-0.620
-2.230E-06,-0.620
-2.220E-06,-0.620
-2.210E-06,-0.640
-2.200E-06,-0.680
-2.190E-06,-0.700
-2.180E-06,-0.700
-2.170E-06,-0.740
-2.160E-06,-0.760
-2.150E-06,-0.780
-2.140E-06,-0.800
-2.130E-06,-0.800
-2.120E-06,-0.820
-2.110E-06,-0.840
-2.100E-06,-0.840
-2.090E-06,-0.880
-2.080E-06,-0.920
-2.070E-06,-0.960
-2.060E-06,-1.000
-2.050E-06,-1.000
-2.040E-06,-1.060
-2.030E-06,-1.060
-2.020E-06,-1.100
-2.010E-06,-1.100
-2.000E-06,-1.060
-1.990E-06,-1.100
-1.980E-06,-1.080
-1.970E-06,-1.080
-1.960E-06,-1.080
-1.950E-06,-1.040
-1.940E-06,-1.020
-1.930E-06,-0.980
-1.920E-06,-0.980
-1.910E-06,-1.000
-1.900E-06,-1.020
-1.890E-06,-1.020
-1.880E-06,-1.020
-1.870E-06,-1.000
-1.860E-06,-1.020
-1.850E-06,-1.020
-1.840E-06,-1.020
-1.830E-06,-1.040
-1.820E-06,-1.020
-1.810E-06,-1.000
-1.800E-06,-0.960
-1.790E-06,-0.920
-1.780E-06,-0.920
-1.770E-06,-0.900
-1.760E-06,-0.900
-1.750E-06,-0.880
-1.740E-06,-0.840
-1.730E-06,-0.800
-1.720E-06,-0.800
-1.710E-06,-0.760
-1.700E-06,-0.780
-1.690E-06,-0.780
-1.680E-06,-0.800
-1.670E-06,-0.820
-1.660E-06,-0.820
-1.650E-06,-0.880
-1.640E-06,-0.880
-1.630E-06,-0.920
-1.620E-06,-0.940
-1.610E-06,-1.000
-1.600E-06,-0.940
-1.590E-06,-0.960
-1.580E-06,-0.940
-1.570E-06,-0.960
-1.560E-06,-0.960
-1.550E-06,-1.020
-1.540E-06,-1.040
-1.530E-06,-1.040
-1.520E-06,-1.040
-1.510E-06,-1.100
-1.500E-06,-1.120
-1.490E-06,-1.160
-1.480E-06,-1.240
-1.470E-06,-1.220
-1.460E-06,-1.340
-1.450E-06,-1.400
-1.440E-06,-1.520
-1.430E-06,-1.520
-1.420E-06,-1.680
-1.410E-06,-1.600
-1.400E-06,-1.740
-1.390E-06,-1.660
-1.380E-06,-1.700
-1.370E-06,-1.620
-1.360E-06,-1.620
-1.350E-06,-1.560
-1.340E-06,-1.480
-1.330E-06,-1.460
-1.320E-06,-1.580
-1.310E-06,-1.660
-1.300E-06,-1.800
-1.290E-06,-2.000
-1.280E-06,-2.140
-1.270E-06,-2.320
-1.260E-06,-2.420
-1.250E-06,-2.500
-1.240E-06,-2.620
-1.230E-06,-2.680
-1.220E-06,-2.680
-1.210E-06,-2.680
-1.200E-06,-2.660
-1.190E-06,-2.660
-1.180E-06,-2.640
-1.170E-06,-2.640
-1.160E-06,-2.660
-1.150E-06,-2.660
-1.140E-06,-2.660
-1.130E-06,-2.660
-1.120E-06,-2.680
-1.110E-06,-2.660
-1.100E-06,-2.660
-1.090E-06,-2.660
-1.080E-06,-2.640
-1.070E-06,-2.560
-1.060E-06,-2.460
-1.050E-06,-2.360
-1.040E-06,-2.260
-1.030E-06,-2.160
-1.020E-06,-2.040
-1.010E-06,-1.980
-1.000E-06,-1.940
-9.900E-07,-1.920
-9.800E-07,-1.860
-9.700E-07,-1.820
-9.600E-07,-1.760
-9.500E-07,-1.680
-9.400E-07,-1.580
-9.300E-07,-1.420
-9.200E-07,-1.360
-9.100E-07,-1.300
-9.000E-07,-1.280
-8.900E-07,-1.240
-8.800E-07,-1.180
-8.700E-07,-1.140
-8.600E-07,-1.140
-8.500E-07,-1.040
-8.400E-07,-1.040
-8.300E-07,-1.020
-8.200E-07,-0.920
-8.100E-07,-0.980
-8.000E-07,-0.940
-7.900E-07,-0.980
-7.800E-07,-0.980
-7.700E-07,-1.020
-7.600E-07,-1.020
-7.500E-07,-0.980
-7.400E-07,-0.920
-7.300E-07,-0.940
-7.200E-07,-0.920
-7.100E-07,-0.900
-7.000E-07,-0.940
-6.900E-07,-0.920
-6.800E-07,-0.920
-6.700E-07,-0.940
-6.600E-07,-1.020
-6.500E-07,-1.080
-6.400E-07,-1.120
-6.300E-07,-1.160
-6.200E-07,-1.200
-6.100E-07,-1.140
-6.000E-07,-1.280
-5.900E-07,-1.260
-5.800E-07,-1.340
-5.700E-07,-1.420
-5.600E-07,-1.540
-5.500E-07,-1.640
-5.400E-07,-1.700
-5.300E-07,-1.840
-5.200E-07,-1.960
-5.100E-07,-1.960
-5.000E-07,-2.180
-4.900E-07,-2.240
-4.800E-07,-2.240
-4.700E-07,-2.320
-4.600E-07,-2.320
-4.500E-07,-2.420
-4.400E-07,-2.460
-4.300E-07,-2.540
-4.200E-07,-2.460
-4.100E-07,-2.480
-4.000E-07,-2.420
-3.900E-07,-2.500
-3.800E-07,-2.480
-3.700E-07,-2.520
-3.600E-07,-2.520
-3.500E-07,-2.540
-3.400E-07,-2.620
-3.300E-07,-2.620
-3.200E-07,-2.540
-3.100E-07,-2.440
-3.000E-07,-2.460
-2.900E-07,-2.380
-2.800E-07,-2.360
-2.700E-07,-2.260
-2.600E-07,-2.220
-2.500E-07,-2.140
-2.400E-07,-2.140
-2.300E-07,-2.060
-2.200E-07,-2.100
-2.100E-07,-2.080
-2.000E-07,-2.240
-1.900E-07,-2.120
-1.800E-07,-2.160
-1.700E-07,-2.200
-1.600E-07,-2.140
-1.500E-07,-2.460
-1.400E-07,-2.380
-1.300E-07,-2.440
-1.200E-07,-2.660
-1.100E-07,-2.460
-1.000E-07,-2.660
-9.000E-08,-2.660
-8.000E-08,-2.660
-7.000E-08,-2.660
-6.000E-08,-2.660
-5.000E-08,-2.680
-4.000E-08,-2.600
-3.000E-08,-1.740
-2.000E-08,-1.860
-1.000E-08,-2.200
0.000E+00,-2.660
1.000E-08,-2.660
2.000E-08,-2.660
3.000E-08,-2.660
4.000E-08,-2.660
5.000E-08,-2.660
6.000E-08,-2.660
7.000E-08,-2.660
8.000E-08,-2.680
9.000E-08,-2.680
1.000E-07,-2.680
1.100E-07,-2.680
1.200E-07,-2.660
1.300E-07,-2.660
1.400E-07,-2.660
1.500E-07,-2.660
1.600E-07,-2.660
1.700E-07,-2.660
1.800E-07,-2.660
1.900E-07,-2.680
2.000E-07,-2.680
2.100E-07,-2.680
2.200E-07,-2.660
2.300E-07,-2.660
2.400E-07,-2.660
2.500E-07,-2.680
2.600E-07,-2.660
2.700E-07,-2.660
2.800E-07,-2.660
2.900E-07,-2.660
3.000E-07,-2.660
3.100E-07,-2.660
3.200E-07,-2.660
3.300E-07,-2.660
3.400E-07,-2.660
3.500E-07,-2.660
3.600E-07,-2.660
3.700E-07,-2.680
3.800E-07,-2.660
3.900E-07,-2.660
4.000E-07,-2.660
4.100E-07,-2.680
4.200E-07,-2.680
4.300E-07,-2.660
4.400E-07,-2.660
4.500E-07,-2.660
4.600E-07,-2.660
4.700E-07,-2.660
4.800E-07,-2.660
4.900E-07,-2.660
5.000E-07,-2.680
5.100E-07,-2.680
5.200E-07,-2.680
5.300E-07,-2.660
5.400E-07,-2.660
5.500E-07,-2.640
5.600E-07,-2.660
5.700E-07,-2.660
5.800E-07,-2.640
5.900E-07,-2.600
6.000E-07,-2.540
6.100E-07,-2.500
6.200E-07,-2.420
6.300E-07,-2.400
6.400E-07,-2.280
6.500E-07,-2.240
6.600E-07,-2.140
6.700E-07,-2.040
6.800E-07,-1.860
6.900E-07,-1.700
7.000E-07,-1.540
7.100E-07,-1.440
7.200E-07,-1.360
7.300E-07,-1.240
7.400E-07,-1.120
7.500E-07,-1.040
7.600E-07,-0.900
7.700E-07,-0.840
7.800E-07,-0.760
7.900E-07,-0.760
8.000E-07,-0.600
8.100E-07,-0.540
8.200E-07,-0.380
8.300E-07,-0.400
8.400E-07,-0.280
8.500E-07,-0.340
8.600E-07,-0.320
8.700E-07,-0.500
8.800E-07,-0.580
8.900E-07,-0.680
9.000E-07,-0.780
9.100E-07,-0.800
9.200E-07,-0.980
9.300E-07,-1.020
9.400E-07,-1.260
9.500E-07,-1.240
9.600E-07,-1.200
9.700E-07,-1.260
9.800E-07,-1.280
9.900E-07,-1.380
1.000E-06,-1.380
1.010E-06,-1.380
1.020E-06,-1.360
1.030E-06,-1.380
1.040E-06,-1.500
1.050E-06,-1.640
1.060E-06,-1.740
1.070E-06,-1.760
1.080E-06,-1.920
1.090E-06,-1.980
1.100E-06,-2.160
1.110E-06,-2.300
1.120E-06,-2.400
1.130E-06,-2.540
1.140E-06,-2.640
1.150E-06,-2.660
1.160E-06,-2.660
1.170E-06,-2.680
1.180E-06,-2.660
1.190E-06,-2.600
1.200E-06,-2.440
1.210E-06,-2.260
1.220E-06,-2.160
1.230E-06,-2.000
1.240E-06,-1.940
1.250E-06,-1.860
1.260E-06,-1.760
1.270E-06,-1.720
1.280E-06,-1.680
1.290E-06,-1.660
1.300E-06,-1.680
1.310E-06,-1.740
1.320E-06,-1.800
1.330E-06,-1.880
1.340E-06,-1.960
1.350E-06,-2.020
1.360E-06,-2.060
1.370E-06,-2.060
1.380E-06,-2.040
1.390E-06,-2.000
1.400E-06,-1.920
1.410E-06,-1.760
1.420E-06,-1.640
1.430E-06,-1.480
1.440E-06,-1.340
1.450E-06,-1.200
1.460E-06,-1.100
1.470E-06,-1.000
1.480E-06,-1.020
1.490E-06,-1.060
1.500E-06,-1.120
1.510E-06,-1.260
1.520E-06,-1.400
1.530E-06,-1.620
1.540E-06,-1.840
1.550E-06,-2.120
1.560E-06,-2.380
1.570E-06,-2.640
1.580E-06,-2.660
1.590E-06,-2.660
1.600E-06,-2.660
1.610E-06,-2.660
1.620E-06,-2.660
1.630E-06,-2.680
1.640E-06,-2.680
1.650E-06,-2.680
1.660E-06,-2.660
1.670E-06,-2.660
1.680E-06,-2.660
1.690E-06,-2.660
1.700E-06,-2.660
1.710E-06,-2.660
1.720E-06,-2.640
1.730E-06,-2.660
1.740E-06,-2.660
1.750E-06,-2.660
1.760E-06,-2.660
1.770E-06,-2.660
1.780E-06,-2.660
1.790E-06,-2.660
1.800E-06,-2.660
1.810E-06,-2.660
1.820E-06,-2.660
1.830E-06,-2.660
1.840E-06,-2.540
1.850E-06,-2.160
1.860E-06,-1.760
1.870E-06,-1.360
1.880E-06,-1.020
1.890E-06,-0.780
1.900E-06,-0.460
1.910E-06,-0.200
1.920E-06,0.000
1.930E-06,0.220
1.940E-06,0.360
1.950E-06,0.480
1.960E-06,0.600
1.970E-06,0.720
1.980E-06,0.760
1.990E-06,0.780
2.000E-06,0.760
2.010E-06,0.780
2.020E-06,0.800
2.030E-06,0.840
2.040E-06,0.880
2.050E-06,0.940
2.060E-06,0.940
2.070E-06,1.000
2.080E-06,1.020
2.090E-06,1.000
2.100E-06,1.000
2.110E-06,1.000
2.120E-06,0.940
2.130E-06,0.920
2.140E-06,0.900
2.150E-06,0.860
2.160E-06,0.860
2.170E-06,0.840
2.180E-06,0.800
2.190E-06,0.800
2.200E-06,0.760
2.210E-06,0.780
2.220E-06,0.760
2.230E-06,0.780
2.240E-06,0.780
2.250E-06,0.780
2.260E-06,0.740
2.270E-06,0.760
2.280E-06,0.740
2.290E-06,0.700
2.300E-06,0.680
2.310E-06,0.680
2.320E-06,0.680
2.330E-06,0.600
2.340E-06,0.640
2.350E-06,0.640
2.360E-06,0.660
2.370E-06,0.720
2.380E-06,0.760
2.390E-06,0.800
2.400E-06,0.840
2.410E-06,0.900
2.420E-06,0.920
2.430E-06,1.000
2.440E-06,0.960
2.450E-06,0.940
2.460E-06,0.900
2.470E-06,0.840
2.480E-06,0.840
2.490E-06,0.760
2.500E-06,0.760
2.510E-06,0.780
2.520E-06,0.740
2.530E-06,0.780
2.540E-06,0.780
2.550E-06,0.760
2.560E-06,0.780
2.570E-06,0.780
2.580E-06,0.820
2.590E-06,0.860
2.600E-06,0.860
2.610E-06,0.860
2.620E-06,0.900
2.630E-06,0.920
2.640E-06,0.900
2.650E-06,0.900
2.660E-06,0.940
2.670E-06,1.000
2.680E-06,1.060
2.690E-06,1.080
2.700E-06,1.100
2.710E-06,1.040
2.720E-06,1.020
2.730E-06,0.940
2.740E-06,0.900
2.750E-06,0.820
2.760E-06,0.760
2.770E-06,0.660
2.780E-06,0.660
2.790E-06,0.640
2.800E-06,0.640
2.810E-06,0.680
2.820E-06,0.720
2.830E-06,0.760
2.840E-06,0.800
2.850E-06,0.840
2.860E-06,0.900
2.870E-06,0.940
2.880E-06,1.020
2.890E-06,1.040
2.900E-06,1.080
2.910E-06,1.100
2.920E-06,1.080
2.930E-06,1.100
2.940E-06,1.100
2.950E-06,1.080
2.960E-06,1.100
2.970E-06,1.100
2.980E-06,1.120
2.990E-06,1.120
3.000E-06,1.140
3.010E-06,1.180
3.020E-06,1.180
3.030E-06,1.240
3.040E-06,1.300
3.050E-06,1.320
3.060E-06,1.340
3.070E-06,1.360
3.080E-06,1.360
3.090E-06,1.300
3.100E-06,1.300
3.110E-06,1.260
3.120E-06,1.240
3.130E-06,1.240
3.140E-06,1.220
3.150E-06,1.200
3.160E-06,1.240
3.170E-06,1.260
3.180E-06,1.360
