mediciones/Mediciones filtradas (saque las feas)/5-15/22.5/WaveData47395.csv

#timebase=2000000(ps)
,#voltbase=100000(mv/100)
#size=4000
-8.400E-06,0.028
-8.390E-06,0.020
-8.380E-06,0.012
-8.370E-06,0.000
-8.360E-06,-0.012
-8.350E-06,-0.012
-8.340E-06,-0.004
-8.330E-06,0.012
-8.320E-06,0.028
-8.310E-06,0.028
-8.300E-06,0.024
-8.290E-06,0.012
-8.280E-06,-0.004
-8.270E-06,-0.024
-8.260E-06,-0.004
-8.250E-06,0.016
-8.240E-06,0.020
-8.230E-06,0.008
-8.220E-06,-0.020
-8.210E-06,-0.028
-8.200E-06,-0.012
-8.190E-06,0.016
-8.180E-06,0.024
-8.170E-06,0.032
-8.160E-06,0.024
-8.150E-06,0.000
-8.140E-06,-0.020
-8.130E-06,-0.028
-8.120E-06,-0.004
-8.110E-06,0.020
-8.100E-06,0.040
-8.090E-06,0.028
-8.080E-06,0.004
-8.070E-06,-0.008
-8.060E-06,-0.024
-8.050E-06,-0.004
-8.040E-06,0.008
-8.030E-06,0.024
-8.020E-06,0.024
-8.010E-06,-0.004
-8.000E-06,-0.008
-7.990E-06,-0.020
-7.980E-06,-0.016
-7.970E-06,0.000
-7.960E-06,0.016
-7.950E-06,0.016
-7.940E-06,0.012
-7.930E-06,0.008
-7.920E-06,0.004
-7.910E-06,-0.008
-7.900E-06,0.008
-7.890E-06,0.012
-7.880E-06,0.008
-7.870E-06,0.012
-7.860E-06,0.012
-7.850E-06,-0.004
-7.840E-06,-0.008
-7.830E-06,-0.004
-7.820E-06,0.008
-7.810E-06,0.008
-7.800E-06,0.020
-7.790E-06,0.016
-7.780E-06,0.004
-7.770E-06,0.008
-7.760E-06,0.012
-7.750E-06,0.012
-7.740E-06,0.012
-7.730E-06,-0.004
-7.720E-06,-0.016
-7.710E-06,-0.008
-7.700E-06,-0.008
-7.690E-06,-0.004
-7.680E-06,-0.004
-7.670E-06,0.024
-7.660E-06,0.000
-7.650E-06,-0.008
-7.640E-06,-0.008
-7.630E-06,-0.008
-7.620E-06,0.000
-7.610E-06,0.004
-7.600E-06,0.024
-7.590E-06,0.012
-7.580E-06,0.004
-7.570E-06,-0.004
-7.560E-06,-0.004
-7.550E-06,-0.012
-7.540E-06,-0.004
-7.530E-06,0.008
-7.520E-06,0.020
-7.510E-06,0.024
-7.500E-06,0.012
-7.490E-06,0.000
-7.480E-06,-0.008
-7.470E-06,-0.008
-7.460E-06,0.000
-7.450E-06,0.012
-7.440E-06,0.016
-7.430E-06,0.012
-7.420E-06,0.000
-7.410E-06,-0.004
-7.400E-06,0.000
-7.390E-06,-0.004
-7.380E-06,0.004
-7.370E-06,-0.008
-7.360E-06,0.004
-7.350E-06,0.008
-7.340E-06,0.020
-7.330E-06,0.008
-7.320E-06,0.000
-7.310E-06,-0.008
-7.300E-06,0.000
-7.290E-06,0.008
-7.280E-06,0.024
-7.270E-06,0.012
-7.260E-06,-0.016
-7.250E-06,-0.008
-7.240E-06,-0.056
-7.230E-06,-0.036
-7.220E-06,0.028
-7.210E-06,0.052
-7.200E-06,0.036
-7.190E-06,0.012
-7.180E-06,0.016
-7.170E-06,-0.024
-7.160E-06,-0.024
-7.150E-06,-0.008
-7.140E-06,0.004
-7.130E-06,0.020
-7.120E-06,0.032
-7.110E-06,0.036
-7.100E-06,0.000
-7.090E-06,-0.008
-7.080E-06,-0.024
-7.070E-06,-0.012
-7.060E-06,-0.004
-7.050E-06,0.012
-7.040E-06,0.000
-7.030E-06,0.004
-7.020E-06,-0.004
-7.010E-06,0.008
-7.000E-06,0.016
-6.990E-06,0.024
-6.980E-06,0.012
-6.970E-06,-0.004
-6.960E-06,-0.004
-6.950E-06,-0.012
-6.940E-06,0.012
-6.930E-06,0.020
-6.920E-06,0.028
-6.910E-06,-0.012
-6.900E-06,-0.004
-6.890E-06,-0.064
-6.880E-06,-0.036
-6.870E-06,0.016
-6.860E-06,0.044
-6.850E-06,0.044
-6.840E-06,0.036
-6.830E-06,-0.008
-6.820E-06,-0.052
-6.810E-06,-0.024
-6.800E-06,-0.008
-6.790E-06,0.020
-6.780E-06,0.024
-6.770E-06,0.032
-6.760E-06,-0.008
-6.750E-06,-0.008
-6.740E-06,-0.012
-6.730E-06,0.000
-6.720E-06,0.008
-6.710E-06,0.012
-6.700E-06,0.012
-6.690E-06,-0.004
-6.680E-06,0.004
-6.670E-06,0.000
-6.660E-06,0.004
-6.650E-06,0.000
-6.640E-06,-0.008
-6.630E-06,0.000
-6.620E-06,0.004
-6.610E-06,0.012
-6.600E-06,0.008
-6.590E-06,0.008
-6.580E-06,-0.004
-6.570E-06,-0.004
-6.560E-06,-0.008
-6.550E-06,0.004
-6.540E-06,0.008
-6.530E-06,0.008
-6.520E-06,0.008
-6.510E-06,-0.012
-6.500E-06,-0.016
-6.490E-06,0.000
-6.480E-06,0.024
-6.470E-06,0.016
-6.460E-06,0.012
-6.450E-06,0.004
-6.440E-06,-0.032
-6.430E-06,0.004
-6.420E-06,0.028
-6.410E-06,0.024
-6.400E-06,0.016
-6.390E-06,0.020
-6.380E-06,0.008
-6.370E-06,-0.020
-6.360E-06,-0.012
-6.350E-06,-0.020
-6.340E-06,0.000
-6.330E-06,0.008
-6.320E-06,0.032
-6.310E-06,0.020
-6.300E-06,0.000
-6.290E-06,-0.008
-6.280E-06,-0.008
-6.270E-06,-0.008
-6.260E-06,0.000
-6.250E-06,0.008
-6.240E-06,0.016
-6.230E-06,0.012
-6.220E-06,0.004
-6.210E-06,-0.004
-6.200E-06,-0.008
-6.190E-06,0.000
-6.180E-06,0.004
-6.170E-06,0.012
-6.160E-06,0.008
-6.150E-06,0.004
-6.140E-06,0.004
-6.130E-06,0.000
-6.120E-06,0.000
-6.110E-06,0.000
-6.100E-06,0.008
-6.090E-06,0.000
-6.080E-06,0.004
-6.070E-06,0.004
-6.060E-06,0.008
-6.050E-06,0.020
-6.040E-06,0.012
-6.030E-06,0.008
-6.020E-06,0.012
-6.010E-06,0.008
-6.000E-06,0.016
-5.990E-06,-0.008
-5.980E-06,-0.024
-5.970E-06,-0.028
-5.960E-06,-0.008
-5.950E-06,0.012
-5.940E-06,0.044
-5.930E-06,0.044
-5.920E-06,0.032
-5.910E-06,0.000
-5.900E-06,-0.020
-5.890E-06,-0.024
-5.880E-06,-0.004
-5.870E-06,0.020
-5.860E-06,0.028
-5.850E-06,0.016
-5.840E-06,-0.004
-5.830E-06,-0.012
-5.820E-06,-0.028
-5.810E-06,-0.004
-5.800E-06,0.012
-5.790E-06,0.028
-5.780E-06,0.020
-5.770E-06,0.012
-5.760E-06,0.008
-5.750E-06,0.008
-5.740E-06,0.012
-5.730E-06,0.008
-5.720E-06,-0.004
-5.710E-06,-0.020
-5.700E-06,-0.024
-5.690E-06,-0.008
-5.680E-06,0.016
-5.670E-06,0.028
-5.660E-06,0.016
-5.650E-06,0.000
-5.640E-06,-0.012
-5.630E-06,-0.016
-5.620E-06,-0.012
-5.610E-06,0.000
-5.600E-06,0.008
-5.590E-06,0.024
-5.580E-06,0.028
-5.570E-06,0.012
-5.560E-06,0.000
-5.550E-06,-0.012
-5.540E-06,0.000
-5.530E-06,0.008
-5.520E-06,0.012
-5.510E-06,0.016
-5.500E-06,0.012
-5.490E-06,0.008
-5.480E-06,0.000
-5.470E-06,-0.004
-5.460E-06,0.008
-5.450E-06,0.020
-5.440E-06,0.032
-5.430E-06,0.032
-5.420E-06,0.016
-5.410E-06,-0.008
-5.400E-06,-0.016
-5.390E-06,-0.008
-5.380E-06,-0.024
-5.370E-06,0.000
-5.360E-06,0.016
-5.350E-06,0.008
-5.340E-06,0.004
-5.330E-06,-0.004
-5.320E-06,-0.024
-5.310E-06,-0.028
-5.300E-06,-0.024
-5.290E-06,0.000
-5.280E-06,0.016
-5.270E-06,0.032
-5.260E-06,0.024
-5.250E-06,0.000
-5.240E-06,-0.016
-5.230E-06,-0.024
-5.220E-06,-0.020
-5.210E-06,0.004
-5.200E-06,0.028
-5.190E-06,0.036
-5.180E-06,0.028
-5.170E-06,0.000
-5.160E-06,-0.016
-5.150E-06,-0.020
-5.140E-06,-0.008
-5.130E-06,0.008
-5.120E-06,0.028
-5.110E-06,0.040
-5.100E-06,0.028
-5.090E-06,0.016
-5.080E-06,-0.004
-5.070E-06,-0.004
-5.060E-06,0.008
-5.050E-06,0.016
-5.040E-06,-0.004
-5.030E-06,-0.024
-5.020E-06,-0.036
-5.010E-06,-0.020
-5.000E-06,0.024
-4.990E-06,0.044
-4.980E-06,0.032
-4.970E-06,0.012
-4.960E-06,-0.004
-4.950E-06,-0.008
-4.940E-06,0.008
-4.930E-06,0.016
-4.920E-06,0.024
-4.910E-06,0.024
-4.900E-06,0.020
-4.890E-06,0.016
-4.880E-06,-0.012
-4.870E-06,-0.024
-4.860E-06,-0.036
-4.850E-06,-0.032
-4.840E-06,-0.008
-4.830E-06,0.012
-4.820E-06,0.028
-4.810E-06,0.024
-4.800E-06,0.016
-4.790E-06,-0.016
-4.780E-06,-0.048
-4.770E-06,-0.036
-4.760E-06,-0.004
-4.750E-06,0.044
-4.740E-06,0.068
-4.730E-06,0.028
-4.720E-06,-0.024
-4.710E-06,-0.040
-4.700E-06,-0.044
-4.690E-06,-0.012
-4.680E-06,0.020
-4.670E-06,0.056
-4.660E-06,0.036
-4.650E-06,0.008
-4.640E-06,-0.012
-4.630E-06,-0.028
-4.620E-06,-0.024
-4.610E-06,0.008
-4.600E-06,0.024
-4.590E-06,0.028
-4.580E-06,0.016
-4.570E-06,0.000
-4.560E-06,-0.008
-4.550E-06,0.000
-4.540E-06,0.000
-4.530E-06,-0.004
-4.520E-06,-0.008
-4.510E-06,-0.008
-4.500E-06,0.004
-4.490E-06,0.016
-4.480E-06,0.028
-4.470E-06,0.020
-4.460E-06,0.000
-4.450E-06,-0.020
-4.440E-06,-0.020
-4.430E-06,-0.004
-4.420E-06,0.024
-4.410E-06,0.044
-4.400E-06,0.024
-4.390E-06,-0.004
-4.380E-06,-0.020
-4.370E-06,-0.024
-4.360E-06,-0.008
-4.350E-06,0.016
-4.340E-06,0.028
-4.330E-06,0.024
-4.320E-06,0.012
-4.310E-06,-0.004
-4.300E-06,-0.020
-4.290E-06,-0.020
-4.280E-06,0.004
-4.270E-06,0.028
-4.260E-06,0.040
-4.250E-06,0.036
-4.240E-06,0.024
-4.230E-06,-0.004
-4.220E-06,-0.008
-4.210E-06,-0.020
-4.200E-06,-0.020
-4.190E-06,0.004
-4.180E-06,0.016
-4.170E-06,0.028
-4.160E-06,0.028
-4.150E-06,0.028
-4.140E-06,0.016
-4.130E-06,0.004
-4.120E-06,0.000
-4.110E-06,-0.008
-4.100E-06,-0.008
-4.090E-06,-0.004
-4.080E-06,0.012
-4.070E-06,0.028
-4.060E-06,0.032
-4.050E-06,0.032
-4.040E-06,0.020
-4.030E-06,-0.004
-4.020E-06,-0.008
-4.010E-06,-0.004
-4.000E-06,0.012
-3.990E-06,0.024
-3.980E-06,0.020
-3.970E-06,0.020
-3.960E-06,-0.020
-3.950E-06,-0.036
-3.940E-06,-0.056
-3.930E-06,-0.032
-3.920E-06,0.000
-3.910E-06,0.040
-3.900E-06,0.052
-3.890E-06,0.016
-3.880E-06,-0.052
-3.870E-06,-0.092
-3.860E-06,-0.052
-3.850E-06,0.000
-3.840E-06,0.060
-3.830E-06,0.076
-3.820E-06,0.048
-3.810E-06,-0.020
-3.800E-06,-0.064
-3.790E-06,-0.068
-3.780E-06,-0.020
-3.770E-06,0.036
-3.760E-06,0.072
-3.750E-06,0.064
-3.740E-06,0.012
-3.730E-06,-0.020
-3.720E-06,-0.044
-3.710E-06,-0.036
-3.700E-06,-0.012
-3.690E-06,0.016
-3.680E-06,0.028
-3.670E-06,0.048
-3.660E-06,0.032
-3.650E-06,0.004
-3.640E-06,-0.020
-3.630E-06,-0.036
-3.620E-06,-0.016
-3.610E-06,0.004
-3.600E-06,0.028
-3.590E-06,0.036
-3.580E-06,0.032
-3.570E-06,0.016
-3.560E-06,-0.004
-3.550E-06,-0.028
-3.540E-06,-0.036
-3.530E-06,-0.024
-3.520E-06,0.008
-3.510E-06,0.044
-3.500E-06,0.056
-3.490E-06,0.036
-3.480E-06,0.004
-3.470E-06,-0.020
-3.460E-06,-0.032
-3.450E-06,-0.020
-3.440E-06,0.000
-3.430E-06,0.024
-3.420E-06,0.040
-3.410E-06,0.028
-3.400E-06,0.008
-3.390E-06,0.000
-3.380E-06,-0.008
-3.370E-06,-0.008
-3.360E-06,0.016
-3.350E-06,0.016
-3.340E-06,0.020
-3.330E-06,0.016
-3.320E-06,0.012
-3.310E-06,0.008
-3.300E-06,0.004
-3.290E-06,0.000
-3.280E-06,-0.008
-3.270E-06,-0.004
-3.260E-06,0.008
-3.250E-06,0.024
-3.240E-06,0.024
-3.230E-06,0.024
-3.220E-06,0.004
-3.210E-06,-0.004
-3.200E-06,-0.004
-3.190E-06,0.016
-3.180E-06,0.028
-3.170E-06,0.016
-3.160E-06,0.012
-3.150E-06,-0.044
-3.140E-06,-0.084
-3.130E-06,-0.112
-3.120E-06,-0.068
-3.110E-06,0.024
-3.100E-06,0.060
-3.090E-06,0.088
-3.080E-06,0.028
-3.070E-06,-0.036
-3.060E-06,-0.076
-3.050E-06,-0.068
-3.040E-06,-0.004
-3.030E-06,0.048
-3.020E-06,0.064
-3.010E-06,0.032
-3.000E-06,0.008
-2.990E-06,-0.048
-2.980E-06,-0.048
-2.970E-06,0.008
-2.960E-06,0.028
-2.950E-06,0.028
-2.940E-06,0.020
-2.930E-06,0.000
-2.920E-06,-0.008
-2.910E-06,-0.004
-2.900E-06,0.004
-2.890E-06,0.024
-2.880E-06,0.028
-2.870E-06,0.028
-2.860E-06,0.020
-2.850E-06,0.020
-2.840E-06,0.008
-2.830E-06,0.004
-2.820E-06,0.008
-2.810E-06,0.040
-2.800E-06,0.060
-2.790E-06,0.056
-2.780E-06,0.024
-2.770E-06,-0.020
-2.760E-06,-0.084
-2.750E-06,-0.096
-2.740E-06,-0.020
-2.730E-06,0.036
-2.720E-06,0.104
-2.710E-06,0.088
-2.700E-06,0.040
-2.690E-06,-0.040
-2.680E-06,-0.080
-2.670E-06,-0.052
-2.660E-06,0.012
-2.650E-06,0.076
-2.640E-06,0.068
-2.630E-06,0.028
-2.620E-06,-0.040
-2.610E-06,-0.072
-2.600E-06,-0.056
-2.590E-06,0.016
-2.580E-06,0.076
-2.570E-06,0.092
-2.560E-06,0.064
-2.550E-06,0.020
-2.540E-06,-0.008
-2.530E-06,-0.008
-2.520E-06,0.004
-2.510E-06,0.028
-2.500E-06,0.064
-2.490E-06,-0.012
-2.480E-06,-0.104
-2.470E-06,-0.172
-2.460E-06,-0.148
-2.450E-06,0.048
-2.440E-06,0.128
-2.430E-06,0.180
-2.420E-06,0.116
-2.410E-06,-0.052
-2.400E-06,-0.228
-2.390E-06,-0.232
-2.380E-06,-0.072
-2.370E-06,0.060
-2.360E-06,0.184
-2.350E-06,0.192
-2.340E-06,0.120
-2.330E-06,-0.040
-2.320E-06,-0.128
-2.310E-06,-0.140
-2.300E-06,-0.044
-2.290E-06,0.056
-2.280E-06,0.140
-2.270E-06,0.136
-2.260E-06,0.056
-2.250E-06,-0.024
-2.240E-06,-0.084
-2.230E-06,-0.064
-2.220E-06,-0.024
-2.210E-06,0.044
-2.200E-06,0.088
-2.190E-06,0.028
-2.180E-06,-0.012
-2.170E-06,-0.020
-2.160E-06,-0.040
-2.150E-06,-0.040
-2.140E-06,0.028
-2.130E-06,0.048
-2.120E-06,0.008
-2.110E-06,-0.032
-2.100E-06,-0.036
-2.090E-06,0.008
-2.080E-06,0.044
-2.070E-06,0.056
-2.060E-06,0.008
-2.050E-06,-0.020
-2.040E-06,-0.056
-2.030E-06,-0.016
-2.020E-06,-0.004
-2.010E-06,0.008
-2.000E-06,0.004
-1.990E-06,0.004
-1.980E-06,-0.004
-1.970E-06,-0.008
-1.960E-06,-0.008
-1.950E-06,-0.016
-1.940E-06,-0.008
-1.930E-06,-0.004
-1.920E-06,0.008
-1.910E-06,0.020
-1.900E-06,0.024
-1.890E-06,0.004
-1.880E-06,-0.012
-1.870E-06,-0.024
-1.860E-06,-0.024
-1.850E-06,0.004
-1.840E-06,0.020
-1.830E-06,0.020
-1.820E-06,0.016
-1.810E-06,0.004
-1.800E-06,-0.008
-1.790E-06,0.000
-1.780E-06,0.008
-1.770E-06,0.020
-1.760E-06,0.024
-1.750E-06,0.020
-1.740E-06,0.008
-1.730E-06,-0.004
-1.720E-06,-0.004
-1.710E-06,0.004
-1.700E-06,0.016
-1.690E-06,0.036
-1.680E-06,0.028
-1.670E-06,0.024
-1.660E-06,0.004
-1.650E-06,0.000
-1.640E-06,0.020
-1.630E-06,0.040
-1.620E-06,0.060
-1.610E-06,0.060
-1.600E-06,0.028
-1.590E-06,-0.004
-1.580E-06,-0.016
-1.570E-06,-0.008
-1.560E-06,0.008
-1.550E-06,0.032
-1.540E-06,0.052
-1.530E-06,0.044
-1.520E-06,0.016
-1.510E-06,0.000
-1.500E-06,-0.024
-1.490E-06,-0.024
-1.480E-06,-0.004
-1.470E-06,0.008
-1.460E-06,0.016
-1.450E-06,0.016
-1.440E-06,0.024
-1.430E-06,0.024
-1.420E-06,0.020
-1.410E-06,0.012
-1.400E-06,0.016
-1.390E-06,-0.044
-1.380E-06,-0.144
-1.370E-06,-0.224
-1.360E-06,-0.200
-1.350E-06,0.020
-1.340E-06,0.144
-1.330E-06,0.228
-1.320E-06,0.188
-1.310E-06,-0.028
-1.300E-06,-0.204
-1.290E-06,-0.244
-1.280E-06,-0.096
-1.270E-06,0.088
-1.260E-06,0.256
-1.250E-06,0.224
-1.240E-06,0.112
-1.230E-06,-0.048
-1.220E-06,-0.140
-1.210E-06,-0.156
-1.200E-06,-0.104
-1.190E-06,-0.024
-1.180E-06,0.008
-1.170E-06,0.032
-1.160E-06,0.064
-1.150E-06,0.084
-1.140E-06,0.040
-1.130E-06,-0.044
-1.120E-06,-0.088
-1.110E-06,-0.068
-1.100E-06,-0.024
-1.090E-06,0.056
-1.080E-06,0.108
-1.070E-06,0.096
-1.060E-06,0.052
-1.050E-06,0.008
-1.040E-06,-0.040
-1.030E-06,-0.068
-1.020E-06,-0.036
-1.010E-06,0.044
-1.000E-06,0.120
-9.900E-07,0.080
-9.800E-07,0.008
-9.700E-07,-0.044
-9.600E-07,-0.096
-9.500E-07,-0.076
-9.400E-07,0.000
-9.300E-07,0.088
-9.200E-07,0.088
-9.100E-07,0.048
-9.000E-07,-0.008
-8.900E-07,-0.052
-8.800E-07,-0.036
-8.700E-07,0.000
-8.600E-07,0.028
-8.500E-07,0.052
-8.400E-07,0.044
-8.300E-07,-0.012
-8.200E-07,-0.056
-8.100E-07,-0.040
-8.000E-07,-0.004
-7.900E-07,0.052
-7.800E-07,0.072
-7.700E-07,0.036
-7.600E-07,-0.004
-7.500E-07,-0.048
-7.400E-07,-0.044
-7.300E-07,-0.004
-7.200E-07,0.048
-7.100E-07,0.064
-7.000E-07,0.040
-6.900E-07,0.012
-6.800E-07,-0.024
-6.700E-07,-0.052
-6.600E-07,-0.040
-6.500E-07,-0.008
-6.400E-07,0.028
-6.300E-07,0.056
-6.200E-07,0.052
-6.100E-07,0.032
-6.000E-07,0.008
-5.900E-07,-0.028
-5.800E-07,-0.036
-5.700E-07,-0.024
-5.600E-07,0.008
-5.500E-07,0.044
-5.400E-07,0.076
-5.300E-07,0.060
-5.200E-07,0.020
-5.100E-07,-0.020
-5.000E-07,-0.032
-4.900E-07,-0.012
-4.800E-07,0.020
-4.700E-07,0.056
-4.600E-07,0.060
-4.500E-07,0.056
-4.400E-07,0.008
-4.300E-07,0.000
-4.200E-07,-0.016
-4.100E-07,-0.004
-4.000E-07,0.008
-3.900E-07,0.056
-3.800E-07,0.076
-3.700E-07,0.072
-3.600E-07,0.024
-3.500E-07,-0.024
-3.400E-07,-0.020
-3.300E-07,-0.004
-3.200E-07,0.032
-3.100E-07,0.072
-3.000E-07,0.080
-2.900E-07,0.044
-2.800E-07,0.008
-2.700E-07,-0.008
-2.600E-07,-0.024
-2.500E-07,0.000
-2.400E-07,0.028
-2.300E-07,0.048
-2.200E-07,0.052
-2.100E-07,0.044
-2.000E-07,0.012
-1.900E-07,-0.008
-1.800E-07,-0.004
-1.700E-07,-0.004
-1.600E-07,0.020
-1.500E-07,0.056
-1.400E-07,0.072
-1.300E-07,0.052
-1.200E-07,0.036
-1.100E-07,0.020
-1.000E-07,0.020
-9.000E-08,0.024
-8.000E-08,0.028
-7.000E-08,0.020
-6.000E-08,-0.160
-5.000E-08,-0.436
-4.000E-08,-0.512
-3.000E-08,-0.472
-2.000E-08,-0.084
-1.000E-08,0.380
0.000E+00,0.540
1.000E-08,0.540
2.000E-08,0.208
3.000E-08,-0.504
4.000E-08,-0.512
5.000E-08,-0.512
6.000E-08,-0.292
7.000E-08,0.452
8.000E-08,0.540
9.000E-08,0.540
1.000E-07,0.152
1.100E-07,-0.488
1.200E-07,-0.508
1.300E-07,-0.508
1.400E-07,-0.040
1.500E-07,0.392
1.600E-07,0.540
1.700E-07,0.396
1.800E-07,0.040
1.900E-07,-0.300
2.000E-07,-0.440
2.100E-07,-0.308
2.200E-07,0.008
2.300E-07,0.316
2.400E-07,0.444
2.500E-07,0.328
2.600E-07,0.064
2.700E-07,-0.172
2.800E-07,-0.260
2.900E-07,-0.160
3.000E-07,0.064
3.100E-07,0.284
3.200E-07,0.352
3.300E-07,0.248
3.400E-07,0.020
3.500E-07,-0.184
3.600E-07,-0.264
3.700E-07,-0.236
3.800E-07,-0.176
3.900E-07,-0.108
4.000E-07,-0.128
4.100E-07,-0.128
4.200E-07,0.032
4.300E-07,0.192
4.400E-07,0.180
4.500E-07,0.012
4.600E-07,-0.132
4.700E-07,-0.204
4.800E-07,-0.112
4.900E-07,0.052
5.000E-07,0.176
5.100E-07,0.148
5.200E-07,0.036
5.300E-07,-0.072
5.400E-07,-0.120
5.500E-07,-0.072
5.600E-07,0.020
5.700E-07,0.088
5.800E-07,0.096
5.900E-07,0.044
6.000E-07,-0.052
6.100E-07,-0.076
6.200E-07,-0.052
6.300E-07,-0.016
6.400E-07,0.028
6.500E-07,0.044
6.600E-07,0.060
6.700E-07,0.064
6.800E-07,0.068
6.900E-07,0.052
7.000E-07,0.028
7.100E-07,0.008
7.200E-07,0.012
7.300E-07,0.048
7.400E-07,0.072
7.500E-07,0.076
7.600E-07,0.076
7.700E-07,-0.052
7.800E-07,-0.236
7.900E-07,-0.268
8.000E-07,-0.156
8.100E-07,-0.032
8.200E-07,0.112
8.300E-07,0.236
8.400E-07,0.172
8.500E-07,-0.016
8.600E-07,-0.200
8.700E-07,-0.204
8.800E-07,-0.068
8.900E-07,0.112
9.000E-07,0.192
9.100E-07,0.156
9.200E-07,0.028
9.300E-07,-0.104
9.400E-07,-0.140
9.500E-07,-0.088
9.600E-07,-0.004
9.700E-07,0.076
9.800E-07,0.128
9.900E-07,0.092
1.000E-06,0.032
1.010E-06,-0.068
1.020E-06,-0.096
1.030E-06,-0.056
1.040E-06,0.016
1.050E-06,0.060
1.060E-06,0.068
1.070E-06,0.036
1.080E-06,-0.012
1.090E-06,-0.044
1.100E-06,-0.056
1.110E-06,-0.056
1.120E-06,-0.040
1.130E-06,0.020
1.140E-06,0.060
1.150E-06,0.076
1.160E-06,0.040
1.170E-06,0.000
1.180E-06,-0.052
1.190E-06,-0.064
1.200E-06,-0.044
1.210E-06,0.012
1.220E-06,0.068
1.230E-06,0.092
1.240E-06,0.060
1.250E-06,-0.008
1.260E-06,-0.056
1.270E-06,-0.072
1.280E-06,-0.024
1.290E-06,0.032
1.300E-06,0.072
1.310E-06,0.072
1.320E-06,0.044
1.330E-06,0.000
1.340E-06,-0.040
1.350E-06,-0.052
1.360E-06,-0.028
1.370E-06,0.036
1.380E-06,0.076
1.390E-06,0.076
1.400E-06,0.040
1.410E-06,-0.016
1.420E-06,-0.060
1.430E-06,-0.052
1.440E-06,-0.016
1.450E-06,0.016
1.460E-06,0.052
1.470E-06,0.060
1.480E-06,0.060
1.490E-06,0.036
1.500E-06,-0.008
1.510E-06,-0.028
1.520E-06,-0.024
1.530E-06,-0.004
1.540E-06,0.028
1.550E-06,0.068
1.560E-06,0.064
1.570E-06,0.024
1.580E-06,0.008
1.590E-06,0.000
1.600E-06,0.000
1.610E-06,0.028
1.620E-06,0.044
1.630E-06,0.024
1.640E-06,0.024
1.650E-06,0.016
1.660E-06,0.012
1.670E-06,0.020
1.680E-06,0.060
1.690E-06,0.060
1.700E-06,0.028
1.710E-06,0.032
1.720E-06,0.008
1.730E-06,0.000
1.740E-06,0.000
1.750E-06,0.032
1.760E-06,0.056
1.770E-06,0.076
1.780E-06,0.060
1.790E-06,0.016
1.800E-06,-0.024
1.810E-06,-0.056
1.820E-06,-0.140
1.830E-06,-0.224
1.840E-06,-0.252
1.850E-06,-0.188
1.860E-06,-0.028
1.870E-06,0.136
1.880E-06,0.244
1.890E-06,0.200
1.900E-06,-0.004
1.910E-06,-0.160
1.920E-06,-0.176
1.930E-06,-0.072
1.940E-06,0.072
1.950E-06,0.164
1.960E-06,0.132
1.970E-06,0.032
1.980E-06,-0.040
1.990E-06,-0.072
2.000E-06,-0.060
2.010E-06,-0.008
2.020E-06,0.048
2.030E-06,0.056
2.040E-06,0.088
2.050E-06,0.076
2.060E-06,0.068
2.070E-06,0.024
2.080E-06,-0.024
2.090E-06,-0.080
2.100E-06,-0.084
2.110E-06,-0.128
2.120E-06,-0.100
2.130E-06,-0.016
2.140E-06,0.076
2.150E-06,0.104
2.160E-06,0.068
2.170E-06,-0.040
2.180E-06,-0.128
2.190E-06,-0.096
2.200E-06,-0.004
2.210E-06,0.092
2.220E-06,0.100
2.230E-06,0.056
2.240E-06,-0.008
2.250E-06,-0.032
2.260E-06,-0.028
2.270E-06,0.000
2.280E-06,0.048
2.290E-06,0.060
2.300E-06,0.056
2.310E-06,0.028
2.320E-06,0.036
2.330E-06,0.032
2.340E-06,0.024
2.350E-06,0.008
2.360E-06,0.020
2.370E-06,0.016
2.380E-06,0.032
2.390E-06,0.032
2.400E-06,0.036
2.410E-06,0.068
2.420E-06,0.064
2.430E-06,0.060
2.440E-06,0.036
2.450E-06,0.044
2.460E-06,0.036
2.470E-06,0.040
2.480E-06,0.032
2.490E-06,0.040
2.500E-06,0.048
2.510E-06,0.036
2.520E-06,0.004
2.530E-06,-0.048
2.540E-06,-0.072
2.550E-06,-0.068
2.560E-06,-0.032
2.570E-06,0.012
2.580E-06,0.056
2.590E-06,0.072
2.600E-06,0.024
2.610E-06,-0.008
2.620E-06,-0.012
2.630E-06,-0.012
2.640E-06,0.004
2.650E-06,0.012
2.660E-06,0.028
2.670E-06,0.020
2.680E-06,0.024
2.690E-06,0.024
2.700E-06,0.024
2.710E-06,0.028
2.720E-06,0.036
2.730E-06,0.056
2.740E-06,0.076
2.750E-06,0.096
2.760E-06,0.096
2.770E-06,0.044
2.780E-06,-0.152
2.790E-06,-0.276
2.800E-06,-0.356
2.810E-06,-0.252
2.820E-06,-0.020
2.830E-06,0.244
2.840E-06,0.344
2.850E-06,0.208
2.860E-06,-0.012
2.870E-06,-0.168
2.880E-06,-0.160
2.890E-06,-0.028
2.900E-06,0.120
2.910E-06,0.184
2.920E-06,0.184
2.930E-06,0.120
2.940E-06,0.048
2.950E-06,-0.016
2.960E-06,-0.056
2.970E-06,-0.060
2.980E-06,-0.040
2.990E-06,-0.028
3.000E-06,-0.008
3.010E-06,-0.020
3.020E-06,-0.044
3.030E-06,-0.092
3.040E-06,-0.152
3.050E-06,-0.136
3.060E-06,-0.060
3.070E-06,-0.004
3.080E-06,0.008
3.090E-06,0.020
3.100E-06,0.020
3.110E-06,0.020
3.120E-06,0.028
3.130E-06,0.004
3.140E-06,0.000
3.150E-06,0.000
3.160E-06,0.000
3.170E-06,0.012
3.180E-06,0.036
3.190E-06,0.060
3.200E-06,0.060
3.210E-06,0.032
3.220E-06,-0.012
3.230E-06,-0.008
3.240E-06,-0.008
