mediciones/Mediciones filtradas (saque las feas)/5-15/22.5/WaveData47397.csv

#timebase=2000000(ps)
,#voltbase=100000(mv/100)
#size=4000
-8.400E-06,0.004
-8.390E-06,0.004
-8.380E-06,-0.004
-8.370E-06,0.000
-8.360E-06,0.004
-8.350E-06,0.008
-8.340E-06,0.004
-8.330E-06,0.000
-8.320E-06,0.008
-8.310E-06,0.008
-8.300E-06,0.004
-8.290E-06,0.000
-8.280E-06,0.004
-8.270E-06,0.008
-8.260E-06,0.008
-8.250E-06,0.012
-8.240E-06,0.012
-8.230E-06,0.000
-8.220E-06,0.000
-8.210E-06,0.004
-8.200E-06,0.000
-8.190E-06,0.004
-8.180E-06,0.004
-8.170E-06,0.004
-8.160E-06,0.004
-8.150E-06,0.004
-8.140E-06,-0.004
-8.130E-06,0.004
-8.120E-06,0.004
-8.110E-06,0.004
-8.100E-06,0.008
-8.090E-06,0.008
-8.080E-06,0.000
-8.070E-06,0.000
-8.060E-06,0.004
-8.050E-06,0.000
-8.040E-06,0.004
-8.030E-06,0.004
-8.020E-06,0.000
-8.010E-06,0.000
-8.000E-06,0.004
-7.990E-06,0.004
-7.980E-06,0.004
-7.970E-06,0.000
-7.960E-06,0.004
-7.950E-06,0.004
-7.940E-06,0.000
-7.930E-06,0.004
-7.920E-06,0.004
-7.910E-06,0.000
-7.900E-06,0.004
-7.890E-06,0.000
-7.880E-06,0.004
-7.870E-06,0.008
-7.860E-06,0.004
-7.850E-06,0.004
-7.840E-06,-0.004
-7.830E-06,0.004
-7.820E-06,-0.004
-7.810E-06,0.000
-7.800E-06,0.004
-7.790E-06,0.000
-7.780E-06,0.004
-7.770E-06,0.004
-7.760E-06,0.004
-7.750E-06,0.004
-7.740E-06,0.004
-7.730E-06,0.000
-7.720E-06,0.004
-7.710E-06,0.000
-7.700E-06,0.004
-7.690E-06,0.004
-7.680E-06,0.004
-7.670E-06,0.000
-7.660E-06,0.004
-7.650E-06,-0.004
-7.640E-06,0.004
-7.630E-06,0.004
-7.620E-06,0.004
-7.610E-06,0.008
-7.600E-06,-0.004
-7.590E-06,-0.004
-7.580E-06,0.000
-7.570E-06,-0.004
-7.560E-06,0.000
-7.550E-06,0.004
-7.540E-06,0.000
-7.530E-06,0.000
-7.520E-06,0.004
-7.510E-06,-0.004
-7.500E-06,0.000
-7.490E-06,0.000
-7.480E-06,0.004
-7.470E-06,0.012
-7.460E-06,0.000
-7.450E-06,0.004
-7.440E-06,0.000
-7.430E-06,0.000
-7.420E-06,0.004
-7.410E-06,0.004
-7.400E-06,0.004
-7.390E-06,0.000
-7.380E-06,0.004
-7.370E-06,0.000
-7.360E-06,0.000
-7.350E-06,-0.004
-7.340E-06,0.004
-7.330E-06,0.004
-7.320E-06,0.004
-7.310E-06,0.004
-7.300E-06,0.004
-7.290E-06,0.004
-7.280E-06,0.008
-7.270E-06,0.000
-7.260E-06,0.004
-7.250E-06,0.004
-7.240E-06,0.000
-7.230E-06,0.008
-7.220E-06,0.008
-7.210E-06,0.008
-7.200E-06,0.008
-7.190E-06,0.008
-7.180E-06,0.008
-7.170E-06,0.008
-7.160E-06,0.008
-7.150E-06,0.004
-7.140E-06,0.008
-7.130E-06,0.000
-7.120E-06,0.000
-7.110E-06,0.000
-7.100E-06,0.008
-7.090E-06,0.000
-7.080E-06,0.004
-7.070E-06,0.004
-7.060E-06,0.000
-7.050E-06,0.000
-7.040E-06,0.004
-7.030E-06,0.004
-7.020E-06,0.008
-7.010E-06,0.004
-7.000E-06,-0.004
-6.990E-06,0.004
-6.980E-06,0.004
-6.970E-06,0.000
-6.960E-06,0.008
-6.950E-06,0.004
-6.940E-06,0.000
-6.930E-06,0.000
-6.920E-06,0.008
-6.910E-06,0.004
-6.900E-06,0.004
-6.890E-06,0.004
-6.880E-06,0.000
-6.870E-06,0.000
-6.860E-06,0.004
-6.850E-06,0.004
-6.840E-06,0.000
-6.830E-06,0.004
-6.820E-06,0.004
-6.810E-06,0.000
-6.800E-06,0.004
-6.790E-06,0.004
-6.780E-06,0.000
-6.770E-06,-0.004
-6.760E-06,0.004
-6.750E-06,0.004
-6.740E-06,0.000
-6.730E-06,0.004
-6.720E-06,0.004
-6.710E-06,0.004
-6.700E-06,0.000
-6.690E-06,0.004
-6.680E-06,0.004
-6.670E-06,0.004
-6.660E-06,0.000
-6.650E-06,0.004
-6.640E-06,0.004
-6.630E-06,0.000
-6.620E-06,0.004
-6.610E-06,0.004
-6.600E-06,0.000
-6.590E-06,0.000
-6.580E-06,0.004
-6.570E-06,0.000
-6.560E-06,0.004
-6.550E-06,0.004
-6.540E-06,0.004
-6.530E-06,0.008
-6.520E-06,0.008
-6.510E-06,0.000
-6.500E-06,0.000
-6.490E-06,0.004
-6.480E-06,0.004
-6.470E-06,0.000
-6.460E-06,0.004
-6.450E-06,0.000
-6.440E-06,0.000
-6.430E-06,0.004
-6.420E-06,0.000
-6.410E-06,0.004
-6.400E-06,0.000
-6.390E-06,0.004
-6.380E-06,0.000
-6.370E-06,0.004
-6.360E-06,0.004
-6.350E-06,0.004
-6.340E-06,0.000
-6.330E-06,0.000
-6.320E-06,0.004
-6.310E-06,0.008
-6.300E-06,0.000
-6.290E-06,0.000
-6.280E-06,0.000
-6.270E-06,0.004
-6.260E-06,0.004
-6.250E-06,-0.004
-6.240E-06,0.004
-6.230E-06,0.000
-6.220E-06,0.004
-6.210E-06,0.000
-6.200E-06,-0.004
-6.190E-06,0.000
-6.180E-06,0.000
-6.170E-06,0.004
-6.160E-06,0.004
-6.150E-06,0.004
-6.140E-06,0.000
-6.130E-06,0.000
-6.120E-06,0.004
-6.110E-06,-0.004
-6.100E-06,0.000
-6.090E-06,0.000
-6.080E-06,0.004
-6.070E-06,0.004
-6.060E-06,0.004
-6.050E-06,0.000
-6.040E-06,-0.004
-6.030E-06,0.000
-6.020E-06,0.000
-6.010E-06,0.000
-6.000E-06,0.004
-5.990E-06,0.000
-5.980E-06,0.004
-5.970E-06,0.008
-5.960E-06,0.004
-5.950E-06,0.000
-5.940E-06,0.004
-5.930E-06,0.004
-5.920E-06,0.004
-5.910E-06,0.008
-5.900E-06,0.008
-5.890E-06,0.000
-5.880E-06,0.004
-5.870E-06,0.000
-5.860E-06,0.004
-5.850E-06,0.004
-5.840E-06,0.000
-5.830E-06,0.004
-5.820E-06,0.004
-5.810E-06,0.000
-5.800E-06,0.000
-5.790E-06,0.004
-5.780E-06,-0.004
-5.770E-06,0.000
-5.760E-06,0.004
-5.750E-06,0.004
-5.740E-06,0.000
-5.730E-06,0.000
-5.720E-06,0.004
-5.710E-06,0.000
-5.700E-06,0.000
-5.690E-06,0.004
-5.680E-06,0.004
-5.670E-06,0.004
-5.660E-06,0.004
-5.650E-06,0.004
-5.640E-06,0.004
-5.630E-06,0.004
-5.620E-06,0.008
-5.610E-06,0.008
-5.600E-06,0.000
-5.590E-06,0.004
-5.580E-06,0.000
-5.570E-06,0.004
-5.560E-06,0.004
-5.550E-06,0.004
-5.540E-06,0.008
-5.530E-06,-0.004
-5.520E-06,0.000
-5.510E-06,0.000
-5.500E-06,0.000
-5.490E-06,0.004
-5.480E-06,0.000
-5.470E-06,0.004
-5.460E-06,-0.004
-5.450E-06,0.000
-5.440E-06,0.004
-5.430E-06,0.004
-5.420E-06,0.004
-5.410E-06,0.000
-5.400E-06,0.004
-5.390E-06,0.000
-5.380E-06,0.000
-5.370E-06,0.004
-5.360E-06,0.004
-5.350E-06,0.004
-5.340E-06,0.000
-5.330E-06,0.000
-5.320E-06,0.000
-5.310E-06,0.008
-5.300E-06,0.004
-5.290E-06,0.000
-5.280E-06,0.000
-5.270E-06,0.000
-5.260E-06,0.008
-5.250E-06,0.000
-5.240E-06,0.008
-5.230E-06,0.008
-5.220E-06,0.000
-5.210E-06,0.004
-5.200E-06,0.004
-5.190E-06,0.004
-5.180E-06,0.008
-5.170E-06,0.008
-5.160E-06,0.000
-5.150E-06,0.000
-5.140E-06,0.004
-5.130E-06,0.000
-5.120E-06,0.000
-5.110E-06,0.004
-5.100E-06,-0.004
-5.090E-06,0.004
-5.080E-06,0.000
-5.070E-06,0.004
-5.060E-06,0.004
-5.050E-06,0.000
-5.040E-06,0.004
-5.030E-06,0.004
-5.020E-06,0.000
-5.010E-06,0.000
-5.000E-06,0.000
-4.990E-06,0.004
-4.980E-06,0.004
-4.970E-06,0.004
-4.960E-06,0.008
-4.950E-06,0.004
-4.940E-06,0.000
-4.930E-06,0.000
-4.920E-06,0.000
-4.910E-06,0.004
-4.900E-06,0.000
-4.890E-06,0.000
-4.880E-06,0.004
-4.870E-06,0.008
-4.860E-06,0.004
-4.850E-06,-0.004
-4.840E-06,0.000
-4.830E-06,0.004
-4.820E-06,0.008
-4.810E-06,0.004
-4.800E-06,0.008
-4.790E-06,0.004
-4.780E-06,-0.004
-4.770E-06,0.000
-4.760E-06,0.000
-4.750E-06,0.004
-4.740E-06,0.000
-4.730E-06,0.008
-4.720E-06,0.008
-4.710E-06,0.012
-4.700E-06,-0.004
-4.690E-06,0.004
-4.680E-06,-0.004
-4.670E-06,0.000
-4.660E-06,0.004
-4.650E-06,0.008
-4.640E-06,0.008
-4.630E-06,0.004
-4.620E-06,0.004
-4.610E-06,-0.004
-4.600E-06,0.000
-4.590E-06,-0.004
-4.580E-06,0.000
-4.570E-06,0.012
-4.560E-06,0.004
-4.550E-06,0.004
-4.540E-06,0.004
-4.530E-06,0.004
-4.520E-06,0.004
-4.510E-06,0.000
-4.500E-06,0.004
-4.490E-06,0.008
-4.480E-06,0.004
-4.470E-06,0.008
-4.460E-06,0.000
-4.450E-06,0.004
-4.440E-06,0.008
-4.430E-06,0.000
-4.420E-06,0.008
-4.410E-06,0.004
-4.400E-06,0.004
-4.390E-06,0.012
-4.380E-06,0.004
-4.370E-06,0.000
-4.360E-06,0.000
-4.350E-06,0.000
-4.340E-06,0.000
-4.330E-06,0.004
-4.320E-06,0.008
-4.310E-06,0.000
-4.300E-06,0.000
-4.290E-06,0.000
-4.280E-06,0.000
-4.270E-06,0.004
-4.260E-06,0.004
-4.250E-06,0.004
-4.240E-06,0.000
-4.230E-06,0.000
-4.220E-06,0.004
-4.210E-06,0.004
-4.200E-06,0.004
-4.190E-06,0.004
-4.180E-06,0.000
-4.170E-06,0.000
-4.160E-06,0.004
-4.150E-06,0.004
-4.140E-06,-0.004
-4.130E-06,0.004
-4.120E-06,0.004
-4.110E-06,0.004
-4.100E-06,0.004
-4.090E-06,0.008
-4.080E-06,0.004
-4.070E-06,0.008
-4.060E-06,0.004
-4.050E-06,0.004
-4.040E-06,0.000
-4.030E-06,0.004
-4.020E-06,0.008
-4.010E-06,0.008
-4.000E-06,0.000
-3.990E-06,0.000
-3.980E-06,0.004
-3.970E-06,0.004
-3.960E-06,0.004
-3.950E-06,0.000
-3.940E-06,0.008
-3.930E-06,0.008
-3.920E-06,0.004
-3.910E-06,0.004
-3.900E-06,0.000
-3.890E-06,0.004
-3.880E-06,0.004
-3.870E-06,0.008
-3.860E-06,0.000
-3.850E-06,0.004
-3.840E-06,0.004
-3.830E-06,0.004
-3.820E-06,0.004
-3.810E-06,0.000
-3.800E-06,0.008
-3.790E-06,0.008
-3.780E-06,0.000
-3.770E-06,0.004
-3.760E-06,0.008
-3.750E-06,0.008
-3.740E-06,0.008
-3.730E-06,0.008
-3.720E-06,0.008
-3.710E-06,0.000
-3.700E-06,-0.004
-3.690E-06,0.004
-3.680E-06,0.012
-3.670E-06,0.008
-3.660E-06,0.000
-3.650E-06,0.004
-3.640E-06,0.004
-3.630E-06,0.004
-3.620E-06,0.004
-3.610E-06,0.008
-3.600E-06,0.004
-3.590E-06,0.004
-3.580E-06,0.000
-3.570E-06,0.000
-3.560E-06,-0.004
-3.550E-06,-0.004
-3.540E-06,0.000
-3.530E-06,0.008
-3.520E-06,0.008
-3.510E-06,0.008
-3.500E-06,0.008
-3.490E-06,0.000
-3.480E-06,-0.004
-3.470E-06,0.000
-3.460E-06,0.000
-3.450E-06,0.004
-3.440E-06,0.008
-3.430E-06,0.008
-3.420E-06,0.008
-3.410E-06,0.004
-3.400E-06,-0.004
-3.390E-06,0.000
-3.380E-06,-0.004
-3.370E-06,0.004
-3.360E-06,0.000
-3.350E-06,0.004
-3.340E-06,0.000
-3.330E-06,0.000
-3.320E-06,0.000
-3.310E-06,0.004
-3.300E-06,0.000
-3.290E-06,0.000
-3.280E-06,0.000
-3.270E-06,0.004
-3.260E-06,0.000
-3.250E-06,0.004
-3.240E-06,0.004
-3.230E-06,0.004
-3.220E-06,0.008
-3.210E-06,0.004
-3.200E-06,0.004
-3.190E-06,0.004
-3.180E-06,0.008
-3.170E-06,0.000
-3.160E-06,0.008
-3.150E-06,0.004
-3.140E-06,0.000
-3.130E-06,-0.004
-3.120E-06,-0.004
-3.110E-06,0.004
-3.100E-06,0.008
-3.090E-06,0.004
-3.080E-06,0.000
-3.070E-06,0.004
-3.060E-06,0.004
-3.050E-06,0.004
-3.040E-06,0.008
-3.030E-06,0.000
-3.020E-06,0.004
-3.010E-06,0.004
-3.000E-06,0.004
-2.990E-06,0.000
-2.980E-06,0.004
-2.970E-06,0.012
-2.960E-06,0.012
-2.950E-06,0.012
-2.940E-06,0.004
-2.930E-06,-0.004
-2.920E-06,0.000
-2.910E-06,0.004
-2.900E-06,0.008
-2.890E-06,0.008
-2.880E-06,0.004
-2.870E-06,0.000
-2.860E-06,0.004
-2.850E-06,0.008
-2.840E-06,0.008
-2.830E-06,0.004
-2.820E-06,-0.004
-2.810E-06,-0.004
-2.800E-06,0.004
-2.790E-06,0.000
-2.780E-06,0.004
-2.770E-06,0.008
-2.760E-06,0.004
-2.750E-06,0.004
-2.740E-06,-0.004
-2.730E-06,0.000
-2.720E-06,0.004
-2.710E-06,0.008
-2.700E-06,0.008
-2.690E-06,0.004
-2.680E-06,0.008
-2.670E-06,0.004
-2.660E-06,0.004
-2.650E-06,0.004
-2.640E-06,0.004
-2.630E-06,0.008
-2.620E-06,0.004
-2.610E-06,0.012
-2.600E-06,0.008
-2.590E-06,0.012
-2.580E-06,0.012
-2.570E-06,0.012
-2.560E-06,0.004
-2.550E-06,0.000
-2.540E-06,0.000
-2.530E-06,0.004
-2.520E-06,0.008
-2.510E-06,0.012
-2.500E-06,0.008
-2.490E-06,0.004
-2.480E-06,0.000
-2.470E-06,0.004
-2.460E-06,0.008
-2.450E-06,0.012
-2.440E-06,0.016
-2.430E-06,0.012
-2.420E-06,0.000
-2.410E-06,0.000
-2.400E-06,-0.004
-2.390E-06,-0.004
-2.380E-06,0.008
-2.370E-06,0.012
-2.360E-06,0.008
-2.350E-06,0.008
-2.340E-06,0.004
-2.330E-06,0.008
-2.320E-06,0.008
-2.310E-06,0.012
-2.300E-06,0.008
-2.290E-06,0.008
-2.280E-06,0.008
-2.270E-06,0.012
-2.260E-06,0.016
-2.250E-06,0.008
-2.240E-06,0.004
-2.230E-06,0.008
-2.220E-06,0.004
-2.210E-06,0.004
-2.200E-06,0.012
-2.190E-06,0.008
-2.180E-06,0.012
-2.170E-06,0.008
-2.160E-06,0.008
-2.150E-06,0.008
-2.140E-06,0.004
-2.130E-06,0.008
-2.120E-06,0.016
-2.110E-06,0.012
-2.100E-06,0.016
-2.090E-06,0.012
-2.080E-06,0.008
-2.070E-06,0.004
-2.060E-06,0.008
-2.050E-06,0.004
-2.040E-06,0.012
-2.030E-06,0.028
-2.020E-06,0.024
-2.010E-06,0.020
-2.000E-06,0.024
-1.990E-06,0.024
-1.980E-06,0.020
-1.970E-06,0.024
-1.960E-06,0.016
-1.950E-06,0.020
-1.940E-06,0.032
-1.930E-06,0.036
-1.920E-06,0.040
-1.910E-06,0.032
-1.900E-06,0.028
-1.890E-06,0.024
-1.880E-06,0.020
-1.870E-06,0.028
-1.860E-06,0.028
-1.850E-06,0.028
-1.840E-06,0.004
-1.830E-06,-0.020
-1.820E-06,-0.028
-1.810E-06,-0.024
-1.800E-06,-0.020
-1.790E-06,-0.016
-1.780E-06,-0.008
-1.770E-06,-0.004
-1.760E-06,-0.008
-1.750E-06,-0.008
-1.740E-06,-0.020
-1.730E-06,-0.024
-1.720E-06,-0.020
-1.710E-06,-0.008
-1.700E-06,0.004
-1.690E-06,0.016
-1.680E-06,0.032
-1.670E-06,0.020
-1.660E-06,0.000
-1.650E-06,-0.032
-1.640E-06,-0.044
-1.630E-06,-0.036
-1.620E-06,-0.012
-1.610E-06,0.016
-1.600E-06,0.028
-1.590E-06,0.036
-1.580E-06,0.012
-1.570E-06,0.000
-1.560E-06,-0.020
-1.550E-06,-0.004
-1.540E-06,0.020
-1.530E-06,0.044
-1.520E-06,0.048
-1.510E-06,0.024
-1.500E-06,0.000
-1.490E-06,-0.040
-1.480E-06,-0.036
-1.470E-06,0.000
-1.460E-06,0.040
-1.450E-06,0.068
-1.440E-06,0.060
-1.430E-06,0.008
-1.420E-06,-0.024
-1.410E-06,-0.040
-1.400E-06,-0.028
-1.390E-06,0.012
-1.380E-06,0.040
-1.370E-06,0.072
-1.360E-06,0.068
-1.350E-06,0.040
-1.340E-06,0.008
-1.330E-06,-0.008
-1.320E-06,-0.012
-1.310E-06,0.024
-1.300E-06,0.056
-1.290E-06,0.084
-1.280E-06,0.080
-1.270E-06,0.056
-1.260E-06,0.024
-1.250E-06,0.016
-1.240E-06,0.016
-1.230E-06,0.040
-1.220E-06,0.072
-1.210E-06,0.092
-1.200E-06,0.072
-1.190E-06,0.028
-1.180E-06,0.004
-1.170E-06,-0.008
-1.160E-06,0.000
-1.150E-06,0.024
-1.140E-06,0.032
-1.130E-06,0.020
-1.120E-06,-0.004
-1.110E-06,-0.028
-1.100E-06,-0.036
-1.090E-06,-0.028
-1.080E-06,0.008
-1.070E-06,0.036
-1.060E-06,0.044
-1.050E-06,0.048
-1.040E-06,0.016
-1.030E-06,-0.044
-1.020E-06,-0.056
-1.010E-06,-0.052
-1.000E-06,-0.004
-9.900E-07,0.024
-9.800E-07,0.048
-9.700E-07,0.072
-9.600E-07,0.072
-9.500E-07,0.052
-9.400E-07,0.008
-9.300E-07,-0.028
-9.200E-07,0.012
-9.100E-07,0.028
-9.000E-07,0.040
-8.900E-07,0.036
-8.800E-07,0.024
-8.700E-07,0.008
-8.600E-07,-0.008
-8.500E-07,0.004
-8.400E-07,0.012
-8.300E-07,0.048
-8.200E-07,0.088
-8.100E-07,0.104
-8.000E-07,0.092
-7.900E-07,0.056
-7.800E-07,0.024
-7.700E-07,0.008
-7.600E-07,0.020
-7.500E-07,0.064
-7.400E-07,0.096
-7.300E-07,0.108
-7.200E-07,0.096
-7.100E-07,0.064
-7.000E-07,0.020
-6.900E-07,-0.020
-6.800E-07,-0.032
-6.700E-07,-0.008
-6.600E-07,0.028
-6.500E-07,0.060
-6.400E-07,0.068
-6.300E-07,0.020
-6.200E-07,-0.020
-6.100E-07,-0.036
-6.000E-07,-0.020
-5.900E-07,0.024
-5.800E-07,0.084
-5.700E-07,0.120
-5.600E-07,0.120
-5.500E-07,0.108
-5.400E-07,0.076
-5.300E-07,0.084
-5.200E-07,0.096
-5.100E-07,0.128
-5.000E-07,0.136
-4.900E-07,0.136
-4.800E-07,0.128
-4.700E-07,0.096
-4.600E-07,0.060
-4.500E-07,0.024
-4.400E-07,0.016
-4.300E-07,0.004
-4.200E-07,0.004
-4.100E-07,0.028
-4.000E-07,0.044
-3.900E-07,0.052
-3.800E-07,0.072
-3.700E-07,0.084
-3.600E-07,0.072
-3.500E-07,0.072
-3.400E-07,0.080
-3.300E-07,0.068
-3.200E-07,0.064
-3.100E-07,0.064
-3.000E-07,0.076
-2.900E-07,0.092
-2.800E-07,0.112
-2.700E-07,0.104
-2.600E-07,0.072
-2.500E-07,0.088
-2.400E-07,0.116
-2.300E-07,0.120
-2.200E-07,0.120
-2.100E-07,0.136
-2.000E-07,0.152
-1.900E-07,0.148
-1.800E-07,0.144
-1.700E-07,0.160
-1.600E-07,0.172
-1.500E-07,0.192
-1.400E-07,0.216
-1.300E-07,0.192
-1.200E-07,0.200
-1.100E-07,0.188
-1.000E-07,0.200
-9.000E-08,0.140
-8.000E-08,0.104
-7.000E-08,0.004
-6.000E-08,-0.140
-5.000E-08,-0.240
-4.000E-08,-0.220
-3.000E-08,-0.016
-2.000E-08,0.188
-1.000E-08,0.428
0.000E+00,0.396
1.000E-08,0.316
2.000E-08,0.036
3.000E-08,-0.316
4.000E-08,-0.508
5.000E-08,-0.512
6.000E-08,-0.512
7.000E-08,-0.508
8.000E-08,0.036
9.000E-08,0.544
1.000E-07,0.540
1.100E-07,0.540
1.200E-07,-0.120
1.300E-07,-0.512
1.400E-07,-0.508
1.500E-07,-0.508
1.600E-07,-0.512
1.700E-07,-0.160
1.800E-07,0.544
1.900E-07,0.540
2.000E-07,0.540
2.100E-07,-0.228
2.200E-07,-0.508
2.300E-07,-0.508
2.400E-07,-0.508
2.500E-07,0.248
2.600E-07,0.540
2.700E-07,0.540
2.800E-07,0.540
2.900E-07,-0.036
3.000E-07,-0.508
3.100E-07,-0.508
3.200E-07,-0.508
3.300E-07,0.056
3.400E-07,0.540
3.500E-07,0.540
3.600E-07,0.536
3.700E-07,0.144
3.800E-07,-0.460
3.900E-07,-0.512
4.000E-07,-0.508
4.100E-07,-0.108
4.200E-07,0.468
4.300E-07,0.540
4.400E-07,0.540
4.500E-07,0.252
4.600E-07,-0.264
4.700E-07,-0.508
4.800E-07,-0.512
4.900E-07,-0.192
5.000E-07,0.224
5.100E-07,0.524
5.200E-07,0.528
5.300E-07,0.296
5.400E-07,-0.056
5.500E-07,-0.296
5.600E-07,-0.308
5.700E-07,-0.092
5.800E-07,0.224
5.900E-07,0.472
6.000E-07,0.528
6.100E-07,0.368
6.200E-07,0.136
6.300E-07,-0.072
6.400E-07,-0.100
6.500E-07,0.012
6.600E-07,0.244
6.700E-07,0.436
6.800E-07,0.512
6.900E-07,0.428
7.000E-07,0.252
7.100E-07,0.092
7.200E-07,0.012
7.300E-07,0.060
7.400E-07,0.200
7.500E-07,0.356
7.600E-07,0.424
7.700E-07,0.396
7.800E-07,0.276
7.900E-07,0.120
8.000E-07,0.012
8.100E-07,-0.004
8.200E-07,0.076
8.300E-07,0.188
8.400E-07,0.276
8.500E-07,0.288
8.600E-07,0.208
8.700E-07,0.092
8.800E-07,0.000
8.900E-07,-0.008
9.000E-07,0.072
9.100E-07,0.204
9.200E-07,0.336
9.300E-07,0.384
9.400E-07,0.324
9.500E-07,0.192
9.600E-07,0.084
9.700E-07,0.004
9.800E-07,0.000
9.900E-07,0.044
1.000E-06,0.088
1.010E-06,0.108
1.020E-06,0.072
1.030E-06,0.016
1.040E-06,-0.044
1.050E-06,-0.076
1.060E-06,-0.068
1.070E-06,-0.044
1.080E-06,-0.024
1.090E-06,0.000
1.100E-06,0.056
1.110E-06,0.064
1.120E-06,0.056
1.130E-06,-0.024
1.140E-06,-0.072
1.150E-06,-0.024
1.160E-06,0.084
1.170E-06,0.148
1.180E-06,0.156
1.190E-06,0.188
1.200E-06,0.196
1.210E-06,0.132
1.220E-06,0.028
1.230E-06,-0.092
1.240E-06,-0.176
1.250E-06,-0.104
1.260E-06,0.008
1.270E-06,0.104
1.280E-06,0.092
1.290E-06,0.028
1.300E-06,-0.124
1.310E-06,-0.224
1.320E-06,-0.304
1.330E-06,-0.268
1.340E-06,-0.172
1.350E-06,-0.064
1.360E-06,-0.072
1.370E-06,-0.072
1.380E-06,-0.036
1.390E-06,-0.076
1.400E-06,-0.012
1.410E-06,-0.096
1.420E-06,-0.056
1.430E-06,0.020
1.440E-06,0.208
1.450E-06,0.272
1.460E-06,0.276
1.470E-06,0.244
1.480E-06,0.188
1.490E-06,0.172
1.500E-06,0.156
1.510E-06,0.200
1.520E-06,0.232
1.530E-06,0.300
1.540E-06,0.296
1.550E-06,0.284
1.560E-06,0.220
1.570E-06,0.188
1.580E-06,0.156
1.590E-06,0.176
1.600E-06,0.232
1.610E-06,0.276
1.620E-06,0.308
1.630E-06,0.280
1.640E-06,0.240
1.650E-06,0.184
1.660E-06,0.172
1.670E-06,0.168
1.680E-06,0.216
1.690E-06,0.256
1.700E-06,0.280
1.710E-06,0.284
1.720E-06,0.248
1.730E-06,0.208
1.740E-06,0.164
1.750E-06,0.164
1.760E-06,0.192
1.770E-06,0.232
1.780E-06,0.264
1.790E-06,0.272
1.800E-06,0.260
1.810E-06,0.220
1.820E-06,0.200
1.830E-06,0.192
1.840E-06,0.212
1.850E-06,0.228
1.860E-06,0.260
1.870E-06,0.268
1.880E-06,0.256
1.890E-06,0.220
1.900E-06,0.200
1.910E-06,0.184
1.920E-06,0.168
1.930E-06,0.172
1.940E-06,0.152
1.950E-06,0.136
1.960E-06,0.120
1.970E-06,0.128
1.980E-06,0.108
1.990E-06,0.128
2.000E-06,0.164
2.010E-06,0.212
2.020E-06,0.252
2.030E-06,0.280
2.040E-06,0.272
2.050E-06,0.240
2.060E-06,0.196
2.070E-06,0.156
2.080E-06,0.156
2.090E-06,0.176
2.100E-06,0.220
2.110E-06,0.252
2.120E-06,0.248
2.130E-06,0.220
2.140E-06,0.172
2.150E-06,0.144
2.160E-06,0.136
2.170E-06,0.168
2.180E-06,0.204
2.190E-06,0.244
2.200E-06,0.264
2.210E-06,0.256
2.220E-06,0.220
2.230E-06,0.188
2.240E-06,0.164
2.250E-06,0.176
2.260E-06,0.216
2.270E-06,0.256
2.280E-06,0.276
2.290E-06,0.272
2.300E-06,0.244
2.310E-06,0.196
2.320E-06,0.172
2.330E-06,0.168
2.340E-06,0.196
2.350E-06,0.228
2.360E-06,0.252
2.370E-06,0.256
2.380E-06,0.236
2.390E-06,0.204
2.400E-06,0.188
2.410E-06,0.180
2.420E-06,0.196
2.430E-06,0.208
2.440E-06,0.232
2.450E-06,0.232
2.460E-06,0.224
2.470E-06,0.208
2.480E-06,0.196
2.490E-06,0.184
2.500E-06,0.192
2.510E-06,0.204
2.520E-06,0.216
2.530E-06,0.224
2.540E-06,0.216
2.550E-06,0.212
2.560E-06,0.196
2.570E-06,0.192
2.580E-06,0.196
2.590E-06,0.200
2.600E-06,0.208
2.610E-06,0.216
2.620E-06,0.212
2.630E-06,0.204
2.640E-06,0.196
2.650E-06,0.192
2.660E-06,0.192
2.670E-06,0.192
2.680E-06,0.196
2.690E-06,0.204
2.700E-06,0.208
2.710E-06,0.200
2.720E-06,0.188
2.730E-06,0.192
2.740E-06,0.188
2.750E-06,0.188
2.760E-06,0.196
2.770E-06,0.196
2.780E-06,0.200
2.790E-06,0.196
2.800E-06,0.192
2.810E-06,0.196
2.820E-06,0.192
2.830E-06,0.188
2.840E-06,0.188
2.850E-06,0.188
2.860E-06,0.192
2.870E-06,0.196
2.880E-06,0.196
2.890E-06,0.192
2.900E-06,0.192
2.910E-06,0.192
2.920E-06,0.180
2.930E-06,0.188
2.940E-06,0.188
2.950E-06,0.196
2.960E-06,0.188
2.970E-06,0.192
2.980E-06,0.184
2.990E-06,0.188
3.000E-06,0.180
3.010E-06,0.180
3.020E-06,0.180
3.030E-06,0.176
3.040E-06,0.176
3.050E-06,0.176
3.060E-06,0.184
3.070E-06,0.188
3.080E-06,0.184
3.090E-06,0.188
3.100E-06,0.180
3.110E-06,0.172
3.120E-06,0.172
3.130E-06,0.176
3.140E-06,0.188
3.150E-06,0.184
3.160E-06,0.188
3.170E-06,0.184
3.180E-06,0.176
3.190E-06,0.180
3.200E-06,0.176
3.210E-06,0.172
3.220E-06,0.176
3.230E-06,0.172
3.240E-06,0.176
3.250E-06,0.180
3.260E-06,0.172
3.270E-06,0.172
3.280E-06,0.164
3.290E-06,0.164
3.300E-06,0.180
3.310E-06,0.176
3.320E-06,0.180
3.330E-06,0.172
3.340E-06,0.168
3.350E-06,0.160
3.360E-06,0.160
3.370E-06,0.164
3.380E-06,0.164
3.390E-06,0.168
3.400E-06,0.160
3.410E-06,0.164
3.420E-06,0.156
3.430E-06,0.160
