mediciones/Mediciones filtradas (saque las feas)/5-15/25/WaveData47426.csv

#timebase=2000000(ps)
,#voltbase=500000(mv/100)
#size=4000
-8.400E-06,0.160
-8.390E-06,0.160
-8.380E-06,0.140
-8.370E-06,0.140
-8.360E-06,0.140
-8.350E-06,0.100
-8.340E-06,0.080
-8.330E-06,0.080
-8.320E-06,-0.020
-8.310E-06,-0.020
-8.300E-06,-0.040
-8.290E-06,-0.040
-8.280E-06,-0.040
-8.270E-06,-0.020
-8.260E-06,-0.020
-8.250E-06,-0.020
-8.240E-06,-0.020
-8.230E-06,0.000
-8.220E-06,-0.020
-8.210E-06,0.020
-8.200E-06,0.000
-8.190E-06,0.020
-8.180E-06,0.020
-8.170E-06,0.040
-8.160E-06,0.040
-8.150E-06,0.040
-8.140E-06,0.080
-8.130E-06,0.060
-8.120E-06,0.080
-8.110E-06,0.040
-8.100E-06,0.080
-8.090E-06,0.080
-8.080E-06,0.060
-8.070E-06,0.080
-8.060E-06,0.120
-8.050E-06,0.100
-8.040E-06,0.060
-8.030E-06,0.080
-8.020E-06,0.080
-8.010E-06,0.060
-8.000E-06,0.080
-7.990E-06,0.100
-7.980E-06,0.080
-7.970E-06,0.040
-7.960E-06,0.040
-7.950E-06,0.060
-7.940E-06,0.040
-7.930E-06,0.040
-7.920E-06,0.020
-7.910E-06,0.020
-7.900E-06,0.020
-7.890E-06,0.000
-7.880E-06,0.020
-7.870E-06,0.020
-7.860E-06,0.020
-7.850E-06,0.060
-7.840E-06,0.040
-7.830E-06,0.020
-7.820E-06,0.040
-7.810E-06,0.060
-7.800E-06,0.040
-7.790E-06,0.060
-7.780E-06,0.040
-7.770E-06,0.060
-7.760E-06,0.080
-7.750E-06,0.080
-7.740E-06,0.080
-7.730E-06,0.060
-7.720E-06,0.080
-7.710E-06,0.060
-7.700E-06,0.080
-7.690E-06,0.080
-7.680E-06,0.100
-7.670E-06,0.100
-7.660E-06,0.080
-7.650E-06,0.080
-7.640E-06,0.060
-7.630E-06,0.060
-7.620E-06,0.080
-7.610E-06,0.060
-7.600E-06,0.060
-7.590E-06,0.020
-7.580E-06,0.020
-7.570E-06,0.060
-7.560E-06,0.020
-7.550E-06,0.040
-7.540E-06,0.020
-7.530E-06,-0.020
-7.520E-06,-0.020
-7.510E-06,0.000
-7.500E-06,0.020
-7.490E-06,-0.020
-7.480E-06,0.000
-7.470E-06,0.000
-7.460E-06,0.000
-7.450E-06,0.000
-7.440E-06,-0.020
-7.430E-06,0.020
-7.420E-06,-0.020
-7.410E-06,0.020
-7.400E-06,0.020
-7.390E-06,0.040
-7.380E-06,0.060
-7.370E-06,0.020
-7.360E-06,0.060
-7.350E-06,0.060
-7.340E-06,0.060
-7.330E-06,0.060
-7.320E-06,0.060
-7.310E-06,0.100
-7.300E-06,0.080
-7.290E-06,0.060
-7.280E-06,0.080
-7.270E-06,0.100
-7.260E-06,0.100
-7.250E-06,0.100
-7.240E-06,0.100
-7.230E-06,0.100
-7.220E-06,0.120
-7.210E-06,0.100
-7.200E-06,0.060
-7.190E-06,0.040
-7.180E-06,0.060
-7.170E-06,0.060
-7.160E-06,0.060
-7.150E-06,0.080
-7.140E-06,0.040
-7.130E-06,0.020
-7.120E-06,0.040
-7.110E-06,0.040
-7.100E-06,0.080
-7.090E-06,0.060
-7.080E-06,0.060
-7.070E-06,0.060
-7.060E-06,0.020
-7.050E-06,0.080
-7.040E-06,0.100
-7.030E-06,0.080
-7.020E-06,0.020
-7.010E-06,-0.020
-7.000E-06,-0.040
-6.990E-06,-0.040
-6.980E-06,-0.060
-6.970E-06,0.020
-6.960E-06,0.020
-6.950E-06,0.000
-6.940E-06,0.020
-6.930E-06,0.040
-6.920E-06,0.020
-6.910E-06,0.080
-6.900E-06,0.060
-6.890E-06,0.020
-6.880E-06,0.000
-6.870E-06,0.000
-6.860E-06,0.000
-6.850E-06,-0.020
-6.840E-06,0.000
-6.830E-06,0.000
-6.820E-06,-0.020
-6.810E-06,0.000
-6.800E-06,-0.020
-6.790E-06,0.020
-6.780E-06,0.000
-6.770E-06,0.040
-6.760E-06,0.080
-6.750E-06,0.060
-6.740E-06,0.080
-6.730E-06,0.100
-6.720E-06,0.120
-6.710E-06,0.120
-6.700E-06,0.160
-6.690E-06,0.160
-6.680E-06,0.160
-6.670E-06,0.160
-6.660E-06,0.180
-6.650E-06,0.160
-6.640E-06,0.140
-6.630E-06,0.140
-6.620E-06,0.120
-6.610E-06,0.120
-6.600E-06,0.100
-6.590E-06,0.060
-6.580E-06,0.080
-6.570E-06,0.080
-6.560E-06,0.080
-6.550E-06,0.100
-6.540E-06,0.100
-6.530E-06,0.080
-6.520E-06,0.080
-6.510E-06,0.060
-6.500E-06,0.060
-6.490E-06,0.060
-6.480E-06,0.020
-6.470E-06,0.000
-6.460E-06,0.000
-6.450E-06,0.000
-6.440E-06,-0.020
-6.430E-06,0.020
-6.420E-06,0.000
-6.410E-06,0.000
-6.400E-06,-0.020
-6.390E-06,0.000
-6.380E-06,0.040
-6.370E-06,0.000
-6.360E-06,0.000
-6.350E-06,0.040
-6.340E-06,0.000
-6.330E-06,0.020
-6.320E-06,0.020
-6.310E-06,0.020
-6.300E-06,0.020
-6.290E-06,0.020
-6.280E-06,0.000
-6.270E-06,0.040
-6.260E-06,0.060
-6.250E-06,0.040
-6.240E-06,0.060
-6.230E-06,0.020
-6.220E-06,0.040
-6.210E-06,0.060
-6.200E-06,0.080
-6.190E-06,0.040
-6.180E-06,0.020
-6.170E-06,0.060
-6.160E-06,0.040
-6.150E-06,0.040
-6.140E-06,0.040
-6.130E-06,0.060
-6.120E-06,0.040
-6.110E-06,0.020
-6.100E-06,0.040
-6.090E-06,0.060
-6.080E-06,0.060
-6.070E-06,0.060
-6.060E-06,0.060
-6.050E-06,0.020
-6.040E-06,0.040
-6.030E-06,0.060
-6.020E-06,0.040
-6.010E-06,0.040
-6.000E-06,0.060
-5.990E-06,0.060
-5.980E-06,0.120
-5.970E-06,0.120
-5.960E-06,0.160
-5.950E-06,0.140
-5.940E-06,0.080
-5.930E-06,0.100
-5.920E-06,0.020
-5.910E-06,0.060
-5.900E-06,0.060
-5.890E-06,0.060
-5.880E-06,0.040
-5.870E-06,0.020
-5.860E-06,0.040
-5.850E-06,0.040
-5.840E-06,0.060
-5.830E-06,0.060
-5.820E-06,0.060
-5.810E-06,0.020
-5.800E-06,0.020
-5.790E-06,0.000
-5.780E-06,0.020
-5.770E-06,0.000
-5.760E-06,0.020
-5.750E-06,0.060
-5.740E-06,0.000
-5.730E-06,0.000
-5.720E-06,0.020
-5.710E-06,0.000
-5.700E-06,0.040
-5.690E-06,0.000
-5.680E-06,0.040
-5.670E-06,0.000
-5.660E-06,0.040
-5.650E-06,0.040
-5.640E-06,0.060
-5.630E-06,0.100
-5.620E-06,0.080
-5.610E-06,0.080
-5.600E-06,0.060
-5.590E-06,0.080
-5.580E-06,0.100
-5.570E-06,0.100
-5.560E-06,0.100
-5.550E-06,0.100
-5.540E-06,0.140
-5.530E-06,0.120
-5.520E-06,0.100
-5.510E-06,0.120
-5.500E-06,0.080
-5.490E-06,0.060
-5.480E-06,0.040
-5.470E-06,0.020
-5.460E-06,0.020
-5.450E-06,0.000
-5.440E-06,-0.020
-5.430E-06,-0.020
-5.420E-06,0.020
-5.410E-06,0.040
-5.400E-06,0.080
-5.390E-06,0.080
-5.380E-06,0.020
-5.370E-06,0.040
-5.360E-06,-0.020
-5.350E-06,-0.040
-5.340E-06,-0.060
-5.330E-06,-0.060
-5.320E-06,-0.040
-5.310E-06,-0.040
-5.300E-06,0.000
-5.290E-06,-0.020
-5.280E-06,0.000
-5.270E-06,-0.020
-5.260E-06,0.040
-5.250E-06,0.020
-5.240E-06,0.040
-5.230E-06,0.060
-5.220E-06,0.040
-5.210E-06,0.080
-5.200E-06,0.060
-5.190E-06,0.100
-5.180E-06,0.140
-5.170E-06,0.100
-5.160E-06,0.120
-5.150E-06,0.100
-5.140E-06,0.140
-5.130E-06,0.120
-5.120E-06,0.120
-5.110E-06,0.100
-5.100E-06,0.100
-5.090E-06,0.080
-5.080E-06,0.100
-5.070E-06,0.100
-5.060E-06,0.100
-5.050E-06,0.120
-5.040E-06,0.100
-5.030E-06,0.120
-5.020E-06,0.100
-5.010E-06,0.080
-5.000E-06,0.080
-4.990E-06,0.040
-4.980E-06,0.060
-4.970E-06,0.060
-4.960E-06,0.020
-4.950E-06,-0.020
-4.940E-06,0.020
-4.930E-06,0.020
-4.920E-06,0.040
-4.910E-06,0.000
-4.900E-06,-0.020
-4.890E-06,0.000
-4.880E-06,-0.020
-4.870E-06,0.000
-4.860E-06,-0.020
-4.850E-06,-0.020
-4.840E-06,0.020
-4.830E-06,0.000
-4.820E-06,0.020
-4.810E-06,0.020
-4.800E-06,0.020
-4.790E-06,0.040
-4.780E-06,0.040
-4.770E-06,0.060
-4.760E-06,0.040
-4.750E-06,0.060
-4.740E-06,0.020
-4.730E-06,0.040
-4.720E-06,0.060
-4.710E-06,0.060
-4.700E-06,0.040
-4.690E-06,0.080
-4.680E-06,0.080
-4.670E-06,0.080
-4.660E-06,0.120
-4.650E-06,0.100
-4.640E-06,0.120
-4.630E-06,0.120
-4.620E-06,0.100
-4.610E-06,0.100
-4.600E-06,0.080
-4.590E-06,0.080
-4.580E-06,0.080
-4.570E-06,0.080
-4.560E-06,0.060
-4.550E-06,0.040
-4.540E-06,0.060
-4.530E-06,0.000
-4.520E-06,-0.020
-4.510E-06,0.000
-4.500E-06,0.020
-4.490E-06,-0.040
-4.480E-06,0.000
-4.470E-06,-0.020
-4.460E-06,-0.020
-4.450E-06,-0.020
-4.440E-06,-0.020
-4.430E-06,0.000
-4.420E-06,0.020
-4.410E-06,0.020
-4.400E-06,0.040
-4.390E-06,0.060
-4.380E-06,0.060
-4.370E-06,0.040
-4.360E-06,0.020
-4.350E-06,0.000
-4.340E-06,-0.040
-4.330E-06,-0.040
-4.320E-06,-0.060
-4.310E-06,-0.080
-4.300E-06,-0.080
-4.290E-06,-0.080
-4.280E-06,-0.160
-4.270E-06,-0.200
-4.260E-06,-0.220
-4.250E-06,-0.160
-4.240E-06,-0.060
-4.230E-06,-0.140
-4.220E-06,-0.120
-4.210E-06,-0.220
-4.200E-06,-0.300
-4.190E-06,-0.300
-4.180E-06,-0.280
-4.170E-06,-0.240
-4.160E-06,-0.200
-4.150E-06,-0.240
-4.140E-06,-0.260
-4.130E-06,-0.260
-4.120E-06,-0.200
-4.110E-06,-0.160
-4.100E-06,-0.120
-4.090E-06,-0.080
-4.080E-06,-0.080
-4.070E-06,-0.020
-4.060E-06,0.000
-4.050E-06,0.020
-4.040E-06,0.080
-4.030E-06,0.080
-4.020E-06,0.100
-4.010E-06,0.140
-4.000E-06,0.160
-3.990E-06,0.200
-3.980E-06,0.220
-3.970E-06,0.220
-3.960E-06,0.220
-3.950E-06,0.220
-3.940E-06,0.180
-3.930E-06,0.220
-3.920E-06,0.220
-3.910E-06,0.240
-3.900E-06,0.240
-3.890E-06,0.220
-3.880E-06,0.200
-3.870E-06,0.220
-3.860E-06,0.160
-3.850E-06,0.160
-3.840E-06,0.140
-3.830E-06,0.100
-3.820E-06,0.040
-3.810E-06,0.000
-3.800E-06,-0.020
-3.790E-06,-0.040
-3.780E-06,-0.020
-3.770E-06,-0.040
-3.760E-06,-0.060
-3.750E-06,-0.020
-3.740E-06,-0.020
-3.730E-06,-0.020
-3.720E-06,-0.020
-3.710E-06,0.020
-3.700E-06,0.000
-3.690E-06,-0.020
-3.680E-06,0.000
-3.670E-06,0.000
-3.660E-06,0.000
-3.650E-06,0.000
-3.640E-06,0.000
-3.630E-06,0.040
-3.620E-06,0.060
-3.610E-06,0.040
-3.600E-06,0.020
-3.590E-06,0.020
-3.580E-06,0.040
-3.570E-06,0.040
-3.560E-06,0.080
-3.550E-06,0.040
-3.540E-06,0.020
-3.530E-06,0.000
-3.520E-06,0.000
-3.510E-06,-0.040
-3.500E-06,-0.060
-3.490E-06,-0.040
-3.480E-06,-0.060
-3.470E-06,-0.080
-3.460E-06,-0.060
-3.450E-06,-0.080
-3.440E-06,-0.060
-3.430E-06,-0.040
-3.420E-06,-0.040
-3.410E-06,-0.020
-3.400E-06,0.000
-3.390E-06,0.000
-3.380E-06,-0.020
-3.370E-06,0.000
-3.360E-06,0.000
-3.350E-06,0.020
-3.340E-06,0.040
-3.330E-06,0.060
-3.320E-06,0.060
-3.310E-06,0.040
-3.300E-06,0.100
-3.290E-06,0.080
-3.280E-06,0.080
-3.270E-06,0.080
-3.260E-06,0.080
-3.250E-06,0.060
-3.240E-06,0.080
-3.230E-06,0.080
-3.220E-06,0.060
-3.210E-06,0.060
-3.200E-06,0.020
-3.190E-06,0.020
-3.180E-06,-0.040
-3.170E-06,0.000
-3.160E-06,-0.040
-3.150E-06,-0.100
-3.140E-06,-0.100
-3.130E-06,-0.100
-3.120E-06,-0.100
-3.110E-06,-0.100
-3.100E-06,-0.120
-3.090E-06,-0.180
-3.080E-06,-0.160
-3.070E-06,-0.220
-3.060E-06,-0.240
-3.050E-06,-0.220
-3.040E-06,-0.260
-3.030E-06,-0.260
-3.020E-06,-0.260
-3.010E-06,-0.300
-3.000E-06,-0.300
-2.990E-06,-0.320
-2.980E-06,-0.300
-2.970E-06,-0.340
-2.960E-06,-0.360
-2.950E-06,-0.380
-2.940E-06,-0.380
-2.930E-06,-0.380
-2.920E-06,-0.360
-2.910E-06,-0.360
-2.900E-06,-0.240
-2.890E-06,-0.160
-2.880E-06,-0.080
-2.870E-06,-0.120
-2.860E-06,-0.160
-2.850E-06,-0.180
-2.840E-06,-0.200
-2.830E-06,-0.200
-2.820E-06,-0.160
-2.810E-06,-0.160
-2.800E-06,-0.220
-2.790E-06,-0.220
-2.780E-06,-0.240
-2.770E-06,-0.180
-2.760E-06,-0.160
-2.750E-06,-0.100
-2.740E-06,-0.120
-2.730E-06,-0.100
-2.720E-06,-0.080
-2.710E-06,-0.100
-2.700E-06,-0.060
-2.690E-06,-0.060
-2.680E-06,-0.020
-2.670E-06,0.000
-2.660E-06,0.040
-2.650E-06,0.060
-2.640E-06,0.100
-2.630E-06,0.140
-2.620E-06,0.160
-2.610E-06,0.160
-2.600E-06,0.180
-2.590E-06,0.200
-2.580E-06,0.220
-2.570E-06,0.260
-2.560E-06,0.240
-2.550E-06,0.220
-2.540E-06,0.220
-2.530E-06,0.220
-2.520E-06,0.160
-2.510E-06,0.140
-2.500E-06,0.100
-2.490E-06,0.000
-2.480E-06,-0.080
-2.470E-06,-0.160
-2.460E-06,-0.200
-2.450E-06,-0.220
-2.440E-06,-0.200
-2.430E-06,-0.180
-2.420E-06,-0.200
-2.410E-06,-0.240
-2.400E-06,-0.320
-2.390E-06,-0.380
-2.380E-06,-0.460
-2.370E-06,-0.560
-2.360E-06,-0.600
-2.350E-06,-0.660
-2.340E-06,-0.680
-2.330E-06,-0.740
-2.320E-06,-0.720
-2.310E-06,-0.700
-2.300E-06,-0.740
-2.290E-06,-0.740
-2.280E-06,-0.800
-2.270E-06,-0.800
-2.260E-06,-0.860
-2.250E-06,-0.780
-2.240E-06,-0.780
-2.230E-06,-0.720
-2.220E-06,-0.700
-2.210E-06,-0.660
-2.200E-06,-0.620
-2.190E-06,-0.580
-2.180E-06,-0.560
-2.170E-06,-0.540
-2.160E-06,-0.580
-2.150E-06,-0.560
-2.140E-06,-0.500
-2.130E-06,-0.560
-2.120E-06,-0.500
-2.110E-06,-0.520
-2.100E-06,-0.480
-2.090E-06,-0.520
-2.080E-06,-0.440
-2.070E-06,-0.460
-2.060E-06,-0.300
-2.050E-06,-0.300
-2.040E-06,-0.180
-2.030E-06,-0.260
-2.020E-06,-0.280
-2.010E-06,-0.360
-2.000E-06,-0.400
-1.990E-06,-0.400
-1.980E-06,-0.420
-1.970E-06,-0.500
-1.960E-06,-0.440
-1.950E-06,-0.420
-1.940E-06,-0.420
-1.930E-06,-0.440
-1.920E-06,-0.420
-1.910E-06,-0.500
-1.900E-06,-0.500
-1.890E-06,-0.520
-1.880E-06,-0.540
-1.870E-06,-0.520
-1.860E-06,-0.520
-1.850E-06,-0.640
-1.840E-06,-0.600
-1.830E-06,-0.700
-1.820E-06,-0.680
-1.810E-06,-0.720
-1.800E-06,-0.700
-1.790E-06,-0.720
-1.780E-06,-0.780
-1.770E-06,-0.800
-1.760E-06,-0.840
-1.750E-06,-0.840
-1.740E-06,-0.880
-1.730E-06,-0.880
-1.720E-06,-0.920
-1.710E-06,-0.940
-1.700E-06,-1.000
-1.690E-06,-0.980
-1.680E-06,-0.980
-1.670E-06,-1.020
-1.660E-06,-0.980
-1.650E-06,-1.020
-1.640E-06,-1.040
-1.630E-06,-1.140
-1.620E-06,-1.140
-1.610E-06,-1.260
-1.600E-06,-1.160
-1.590E-06,-1.300
-1.580E-06,-1.140
-1.570E-06,-1.040
-1.560E-06,-1.000
-1.550E-06,-0.680
-1.540E-06,-0.880
-1.530E-06,-0.760
-1.520E-06,-0.840
-1.510E-06,-0.860
-1.500E-06,-0.840
-1.490E-06,-0.840
-1.480E-06,-0.940
-1.470E-06,-1.020
-1.460E-06,-1.000
-1.450E-06,-1.140
-1.440E-06,-1.020
-1.430E-06,-1.160
-1.420E-06,-1.140
-1.410E-06,-1.240
-1.400E-06,-1.240
-1.390E-06,-1.300
-1.380E-06,-1.300
-1.370E-06,-1.400
-1.360E-06,-1.360
-1.350E-06,-1.380
-1.340E-06,-1.320
-1.330E-06,-1.240
-1.320E-06,-1.120
-1.310E-06,-0.940
-1.300E-06,-0.840
-1.290E-06,-0.760
-1.280E-06,-0.760
-1.270E-06,-0.760
-1.260E-06,-0.800
-1.250E-06,-0.820
-1.240E-06,-0.960
-1.230E-06,-1.020
-1.220E-06,-1.180
-1.210E-06,-1.120
-1.200E-06,-1.200
-1.190E-06,-0.700
-1.180E-06,-0.340
-1.170E-06,-0.040
-1.160E-06,0.320
-1.150E-06,-0.020
-1.140E-06,-0.200
-1.130E-06,-0.680
-1.120E-06,-0.920
-1.110E-06,-0.860
-1.100E-06,-0.880
-1.090E-06,-0.940
-1.080E-06,-0.940
-1.070E-06,-1.100
-1.060E-06,-1.100
-1.050E-06,-0.940
-1.040E-06,-0.880
-1.030E-06,-0.820
-1.020E-06,-0.800
-1.010E-06,-0.800
-1.000E-06,-0.840
-9.900E-07,-0.840
-9.800E-07,-0.800
-9.700E-07,-0.760
-9.600E-07,-0.660
-9.500E-07,-0.540
-9.400E-07,-0.380
-9.300E-07,-0.300
-9.200E-07,-0.200
-9.100E-07,-0.160
-9.000E-07,-0.140
-8.900E-07,-0.140
-8.800E-07,-0.120
-8.700E-07,-0.140
-8.600E-07,-0.020
-8.500E-07,0.000
-8.400E-07,0.100
-8.300E-07,0.220
-8.200E-07,0.300
-8.100E-07,0.520
-8.000E-07,0.560
-7.900E-07,0.740
-7.800E-07,0.760
-7.700E-07,0.780
-7.600E-07,0.680
-7.500E-07,0.560
-7.400E-07,0.380
-7.300E-07,0.280
-7.200E-07,-0.040
-7.100E-07,-0.160
-7.000E-07,-0.380
-6.900E-07,-0.460
-6.800E-07,-0.620
-6.700E-07,-0.660
-6.600E-07,-0.760
-6.500E-07,-0.840
-6.400E-07,-0.880
-6.300E-07,-0.940
-6.200E-07,-0.940
-6.100E-07,-1.020
-6.000E-07,-1.080
-5.900E-07,-1.280
-5.800E-07,-1.240
-5.700E-07,-1.060
-5.600E-07,-0.540
-5.500E-07,-0.380
-5.400E-07,-0.120
-5.300E-07,-0.260
-5.200E-07,-0.460
-5.100E-07,-0.660
-5.000E-07,-0.760
-4.900E-07,-0.840
-4.800E-07,-1.000
-4.700E-07,-1.100
-4.600E-07,-1.280
-4.500E-07,-1.280
-4.400E-07,-1.180
-4.300E-07,-1.220
-4.200E-07,-1.260
-4.100E-07,-1.320
-4.000E-07,-1.200
-3.900E-07,-1.060
-3.800E-07,-0.860
-3.700E-07,-0.840
-3.600E-07,-0.780
-3.500E-07,-0.760
-3.400E-07,-0.580
-3.300E-07,-0.340
-3.200E-07,-0.180
-3.100E-07,-0.040
-3.000E-07,-0.040
-2.900E-07,-0.020
-2.800E-07,-0.120
-2.700E-07,-0.040
-2.600E-07,-0.020
-2.500E-07,0.000
-2.400E-07,0.100
-2.300E-07,0.160
-2.200E-07,0.240
-2.100E-07,0.340
-2.000E-07,0.340
-1.900E-07,0.320
-1.800E-07,0.300
-1.700E-07,0.260
-1.600E-07,0.260
-1.500E-07,0.120
-1.400E-07,-0.100
-1.300E-07,-0.340
-1.200E-07,-0.620
-1.100E-07,-0.760
-1.000E-07,-0.840
-9.000E-08,-0.920
-8.000E-08,-0.980
-7.000E-08,-1.020
-6.000E-08,-0.340
-5.000E-08,0.380
-4.000E-08,0.820
-3.000E-08,1.220
-2.000E-08,0.800
-1.000E-08,0.180
0.000E+00,-0.320
1.000E-08,-0.960
2.000E-08,-1.120
3.000E-08,-1.420
4.000E-08,-1.760
5.000E-08,-2.000
6.000E-08,-2.160
7.000E-08,-2.220
8.000E-08,-1.980
9.000E-08,-1.980
1.000E-07,-1.840
1.100E-07,-1.780
1.200E-07,-1.500
1.300E-07,-1.340
1.400E-07,-1.060
1.500E-07,-0.900
1.600E-07,-0.640
1.700E-07,-0.320
1.800E-07,0.040
1.900E-07,0.420
2.000E-07,0.700
2.100E-07,1.020
2.200E-07,1.020
2.300E-07,1.060
2.400E-07,1.020
2.500E-07,1.180
2.600E-07,1.240
2.700E-07,1.420
2.800E-07,1.240
2.900E-07,1.120
3.000E-07,0.740
3.100E-07,0.520
3.200E-07,0.180
3.300E-07,0.060
3.400E-07,-0.200
3.500E-07,-0.520
3.600E-07,-0.840
3.700E-07,-1.100
3.800E-07,-1.380
3.900E-07,-1.460
4.000E-07,-1.560
4.100E-07,-1.600
4.200E-07,-1.480
4.300E-07,-1.320
4.400E-07,-1.080
4.500E-07,-0.860
4.600E-07,-0.620
4.700E-07,-0.440
4.800E-07,-0.180
4.900E-07,0.000
5.000E-07,0.200
5.100E-07,0.380
5.200E-07,0.500
5.300E-07,0.620
5.400E-07,0.660
5.500E-07,0.760
5.600E-07,0.760
5.700E-07,0.860
5.800E-07,0.940
5.900E-07,1.060
6.000E-07,1.020
6.100E-07,1.000
6.200E-07,0.700
6.300E-07,0.520
6.400E-07,0.260
6.500E-07,0.000
6.600E-07,-0.180
6.700E-07,-0.400
6.800E-07,-0.660
6.900E-07,-0.820
7.000E-07,-0.940
7.100E-07,-1.000
7.200E-07,-0.980
7.300E-07,-0.940
7.400E-07,-0.940
7.500E-07,-0.860
7.600E-07,-0.820
7.700E-07,-0.720
7.800E-07,-0.660
7.900E-07,-0.580
8.000E-07,-0.440
8.100E-07,-0.320
8.200E-07,-0.180
8.300E-07,-0.120
8.400E-07,0.080
8.500E-07,0.120
8.600E-07,0.320
8.700E-07,0.360
8.800E-07,0.500
8.900E-07,0.540
9.000E-07,0.660
9.100E-07,0.660
9.200E-07,0.760
9.300E-07,0.740
9.400E-07,0.760
9.500E-07,0.660
9.600E-07,0.640
9.700E-07,0.520
9.800E-07,0.420
9.900E-07,0.260
1.000E-06,0.080
1.010E-06,-0.020
1.020E-06,-0.160
1.030E-06,-0.260
1.040E-06,-0.440
1.050E-06,-0.560
1.060E-06,-0.680
1.070E-06,-0.740
1.080E-06,-0.800
1.090E-06,-0.920
1.100E-06,-0.980
1.110E-06,-1.100
1.120E-06,-1.180
1.130E-06,-1.320
1.140E-06,-1.460
1.150E-06,-1.620
1.160E-06,-1.660
1.170E-06,-1.740
1.180E-06,-1.640
1.190E-06,-1.660
1.200E-06,-1.640
1.210E-06,-1.680
1.220E-06,-1.760
1.230E-06,-1.780
1.240E-06,-1.740
1.250E-06,-1.260
1.260E-06,-0.560
1.270E-06,-0.680
1.280E-06,-0.100
1.290E-06,-0.760
1.300E-06,-0.800
1.310E-06,-1.280
1.320E-06,-1.320
1.330E-06,-1.240
1.340E-06,-1.200
1.350E-06,-1.040
1.360E-06,-0.220
1.370E-06,-0.460
1.380E-06,0.000
1.390E-06,-1.000
1.400E-06,-1.640
1.410E-06,-2.340
1.420E-06,-2.660
1.430E-06,-2.620
1.440E-06,-2.620
1.450E-06,-2.660
1.460E-06,-2.660
1.470E-06,-2.660
1.480E-06,-2.380
1.490E-06,-1.760
1.500E-06,-1.280
1.510E-06,-0.920
1.520E-06,-0.380
1.530E-06,0.000
1.540E-06,0.340
1.550E-06,0.500
1.560E-06,0.540
1.570E-06,0.520
1.580E-06,0.600
1.590E-06,0.740
1.600E-06,0.800
1.610E-06,0.800
1.620E-06,0.740
1.630E-06,0.660
1.640E-06,0.740
1.650E-06,0.800
1.660E-06,0.840
1.670E-06,0.840
1.680E-06,0.780
1.690E-06,0.680
1.700E-06,0.620
1.710E-06,0.560
1.720E-06,0.500
1.730E-06,0.500
1.740E-06,0.440
1.750E-06,0.340
1.760E-06,0.180
1.770E-06,-0.040
1.780E-06,-0.300
1.790E-06,-0.560
1.800E-06,-0.680
1.810E-06,-0.720
1.820E-06,-0.640
1.830E-06,-0.500
1.840E-06,-0.440
1.850E-06,-0.320
1.860E-06,-0.200
1.870E-06,-0.140
1.880E-06,-0.020
1.890E-06,0.020
1.900E-06,0.140
1.910E-06,0.200
1.920E-06,0.260
1.930E-06,0.260
1.940E-06,0.260
1.950E-06,0.260
1.960E-06,0.180
1.970E-06,0.220
1.980E-06,0.200
1.990E-06,0.380
2.000E-06,0.500
2.010E-06,0.800
2.020E-06,0.980
2.030E-06,1.140
2.040E-06,1.200
2.050E-06,1.200
2.060E-06,1.020
2.070E-06,0.700
2.080E-06,0.280
2.090E-06,-0.180
2.100E-06,-0.580
2.110E-06,-0.940
2.120E-06,-1.140
2.130E-06,-1.260
2.140E-06,-1.200
2.150E-06,-0.940
2.160E-06,-0.840
2.170E-06,-0.520
2.180E-06,-0.580
2.190E-06,-0.340
2.200E-06,-0.460
2.210E-06,-0.400
2.220E-06,-0.540
2.230E-06,-0.520
2.240E-06,-0.620
2.250E-06,-0.640
2.260E-06,-0.580
2.270E-06,-0.520
2.280E-06,-0.520
2.290E-06,-0.600
2.300E-06,-0.640
2.310E-06,-0.520
2.320E-06,-0.380
2.330E-06,-0.220
2.340E-06,-0.160
2.350E-06,0.340
2.360E-06,1.480
2.370E-06,2.060
2.380E-06,2.760
2.390E-06,2.760
2.400E-06,2.100
2.410E-06,1.360
2.420E-06,0.280
2.430E-06,-0.700
2.440E-06,-1.580
2.450E-06,-2.520
2.460E-06,-2.660
2.470E-06,-2.660
2.480E-06,-2.660
2.490E-06,-2.660
2.500E-06,-2.660
2.510E-06,-2.660
2.520E-06,-2.660
2.530E-06,-2.340
2.540E-06,-1.760
2.550E-06,-1.420
2.560E-06,-1.060
2.570E-06,-0.960
2.580E-06,-0.420
2.590E-06,0.020
2.600E-06,0.500
2.610E-06,0.720
2.620E-06,0.800
2.630E-06,0.700
2.640E-06,0.540
2.650E-06,0.400
2.660E-06,0.240
2.670E-06,0.160
2.680E-06,0.040
2.690E-06,-0.080
2.700E-06,-0.200
2.710E-06,-0.320
2.720E-06,-0.480
2.730E-06,-0.660
2.740E-06,-0.900
2.750E-06,-1.080
2.760E-06,-1.220
2.770E-06,-1.380
2.780E-06,-1.520
2.790E-06,-1.660
2.800E-06,-1.720
2.810E-06,-1.600
2.820E-06,-1.400
2.830E-06,-1.000
2.840E-06,-0.660
2.850E-06,-0.280
2.860E-06,0.060
2.870E-06,0.340
2.880E-06,0.600
2.890E-06,0.760
2.900E-06,0.880
2.910E-06,0.920
2.920E-06,0.920
2.930E-06,0.860
2.940E-06,0.840
2.950E-06,0.660
2.960E-06,0.580
2.970E-06,0.460
2.980E-06,0.520
2.990E-06,0.560
3.000E-06,0.680
3.010E-06,0.860
3.020E-06,0.740
3.030E-06,0.640
3.040E-06,0.380
3.050E-06,0.080
3.060E-06,-0.160
3.070E-06,-0.560
3.080E-06,-0.640
3.090E-06,-0.440
3.100E-06,-0.040
3.110E-06,1.260
3.120E-06,1.500
3.130E-06,1.680
3.140E-06,0.520
3.150E-06,-0.440
3.160E-06,-1.440
3.170E-06,-1.660
3.180E-06,-2.180
