mediciones/Mediciones filtradas (saque las feas)/5-15/25/WaveData47413.csv

#timebase=2000000(ps)
,#voltbase=100000(mv/100)
#size=4000
-8.400E-06,0.000
-8.390E-06,-0.004
-8.380E-06,0.004
-8.370E-06,0.008
-8.360E-06,0.008
-8.350E-06,0.004
-8.340E-06,0.000
-8.330E-06,0.000
-8.320E-06,0.004
-8.310E-06,0.000
-8.300E-06,0.004
-8.290E-06,0.000
-8.280E-06,0.004
-8.270E-06,0.004
-8.260E-06,0.004
-8.250E-06,0.004
-8.240E-06,0.004
-8.230E-06,0.004
-8.220E-06,0.000
-8.210E-06,-0.004
-8.200E-06,0.004
-8.190E-06,0.000
-8.180E-06,0.004
-8.170E-06,0.008
-8.160E-06,0.000
-8.150E-06,0.004
-8.140E-06,0.004
-8.130E-06,0.004
-8.120E-06,0.000
-8.110E-06,0.004
-8.100E-06,-0.004
-8.090E-06,0.004
-8.080E-06,0.012
-8.070E-06,0.008
-8.060E-06,0.000
-8.050E-06,-0.004
-8.040E-06,0.000
-8.030E-06,-0.004
-8.020E-06,0.004
-8.010E-06,0.008
-8.000E-06,0.008
-7.990E-06,0.000
-7.980E-06,0.000
-7.970E-06,0.000
-7.960E-06,0.004
-7.950E-06,0.004
-7.940E-06,0.004
-7.930E-06,0.004
-7.920E-06,0.000
-7.910E-06,0.004
-7.900E-06,0.000
-7.890E-06,0.004
-7.880E-06,0.004
-7.870E-06,0.004
-7.860E-06,0.004
-7.850E-06,0.004
-7.840E-06,0.004
-7.830E-06,0.004
-7.820E-06,0.004
-7.810E-06,0.000
-7.800E-06,0.004
-7.790E-06,0.008
-7.780E-06,0.000
-7.770E-06,0.000
-7.760E-06,0.004
-7.750E-06,0.008
-7.740E-06,-0.004
-7.730E-06,0.000
-7.720E-06,0.004
-7.710E-06,0.004
-7.700E-06,0.004
-7.690E-06,0.004
-7.680E-06,0.004
-7.670E-06,0.004
-7.660E-06,0.000
-7.650E-06,0.000
-7.640E-06,0.004
-7.630E-06,0.008
-7.620E-06,0.004
-7.610E-06,0.008
-7.600E-06,0.004
-7.590E-06,0.000
-7.580E-06,0.004
-7.570E-06,0.004
-7.560E-06,0.004
-7.550E-06,0.000
-7.540E-06,0.000
-7.530E-06,0.004
-7.520E-06,0.008
-7.510E-06,-0.004
-7.500E-06,0.004
-7.490E-06,0.000
-7.480E-06,0.004
-7.470E-06,0.004
-7.460E-06,-0.004
-7.450E-06,0.000
-7.440E-06,0.000
-7.430E-06,0.004
-7.420E-06,0.004
-7.410E-06,0.008
-7.400E-06,0.008
-7.390E-06,-0.004
-7.380E-06,0.004
-7.370E-06,0.000
-7.360E-06,0.000
-7.350E-06,0.000
-7.340E-06,0.000
-7.330E-06,0.004
-7.320E-06,0.008
-7.310E-06,0.008
-7.300E-06,0.004
-7.290E-06,0.004
-7.280E-06,0.000
-7.270E-06,0.000
-7.260E-06,0.000
-7.250E-06,0.000
-7.240E-06,0.004
-7.230E-06,0.004
-7.220E-06,0.004
-7.210E-06,0.000
-7.200E-06,0.004
-7.190E-06,0.004
-7.180E-06,0.008
-7.170E-06,0.004
-7.160E-06,0.000
-7.150E-06,0.000
-7.140E-06,0.004
-7.130E-06,0.000
-7.120E-06,0.004
-7.110E-06,0.004
-7.100E-06,0.000
-7.090E-06,0.000
-7.080E-06,0.004
-7.070E-06,0.004
-7.060E-06,0.004
-7.050E-06,0.004
-7.040E-06,0.004
-7.030E-06,-0.004
-7.020E-06,0.000
-7.010E-06,0.004
-7.000E-06,0.004
-6.990E-06,0.004
-6.980E-06,0.004
-6.970E-06,0.000
-6.960E-06,0.000
-6.950E-06,0.000
-6.940E-06,0.004
-6.930E-06,0.004
-6.920E-06,0.004
-6.910E-06,0.008
-6.900E-06,0.000
-6.890E-06,0.000
-6.880E-06,0.004
-6.870E-06,-0.004
-6.860E-06,0.004
-6.850E-06,0.004
-6.840E-06,0.000
-6.830E-06,0.004
-6.820E-06,0.000
-6.810E-06,0.000
-6.800E-06,0.004
-6.790E-06,0.000
-6.780E-06,0.000
-6.770E-06,0.000
-6.760E-06,-0.004
-6.750E-06,0.000
-6.740E-06,0.008
-6.730E-06,0.000
-6.720E-06,0.008
-6.710E-06,0.004
-6.700E-06,0.000
-6.690E-06,-0.004
-6.680E-06,0.004
-6.670E-06,0.004
-6.660E-06,0.008
-6.650E-06,0.004
-6.640E-06,0.000
-6.630E-06,0.004
-6.620E-06,0.000
-6.610E-06,0.008
-6.600E-06,0.000
-6.590E-06,0.008
-6.580E-06,0.004
-6.570E-06,0.004
-6.560E-06,0.000
-6.550E-06,0.004
-6.540E-06,0.004
-6.530E-06,-0.004
-6.520E-06,0.004
-6.510E-06,0.004
-6.500E-06,0.008
-6.490E-06,0.004
-6.480E-06,0.004
-6.470E-06,0.000
-6.460E-06,-0.004
-6.450E-06,-0.004
-6.440E-06,0.004
-6.430E-06,0.004
-6.420E-06,0.004
-6.410E-06,0.008
-6.400E-06,0.004
-6.390E-06,0.000
-6.380E-06,0.000
-6.370E-06,0.004
-6.360E-06,0.000
-6.350E-06,0.004
-6.340E-06,0.004
-6.330E-06,0.004
-6.320E-06,0.000
-6.310E-06,0.004
-6.300E-06,-0.004
-6.290E-06,0.004
-6.280E-06,0.004
-6.270E-06,0.004
-6.260E-06,-0.004
-6.250E-06,0.000
-6.240E-06,0.004
-6.230E-06,0.000
-6.220E-06,0.000
-6.210E-06,0.000
-6.200E-06,0.000
-6.190E-06,0.004
-6.180E-06,0.004
-6.170E-06,0.004
-6.160E-06,0.000
-6.150E-06,0.004
-6.140E-06,0.004
-6.130E-06,0.000
-6.120E-06,0.004
-6.110E-06,0.000
-6.100E-06,0.000
-6.090E-06,0.008
-6.080E-06,0.000
-6.070E-06,0.000
-6.060E-06,0.008
-6.050E-06,0.004
-6.040E-06,0.004
-6.030E-06,0.004
-6.020E-06,0.000
-6.010E-06,-0.004
-6.000E-06,0.004
-5.990E-06,0.004
-5.980E-06,0.008
-5.970E-06,0.004
-5.960E-06,0.004
-5.950E-06,0.004
-5.940E-06,0.000
-5.930E-06,0.004
-5.920E-06,0.004
-5.910E-06,0.004
-5.900E-06,0.000
-5.890E-06,0.004
-5.880E-06,0.008
-5.870E-06,0.008
-5.860E-06,0.000
-5.850E-06,0.000
-5.840E-06,0.004
-5.830E-06,0.004
-5.820E-06,0.000
-5.810E-06,0.004
-5.800E-06,0.000
-5.790E-06,0.004
-5.780E-06,0.004
-5.770E-06,0.004
-5.760E-06,0.000
-5.750E-06,-0.004
-5.740E-06,0.000
-5.730E-06,0.000
-5.720E-06,0.004
-5.710E-06,0.004
-5.700E-06,0.008
-5.690E-06,0.004
-5.680E-06,0.008
-5.670E-06,-0.004
-5.660E-06,0.000
-5.650E-06,0.004
-5.640E-06,0.000
-5.630E-06,0.004
-5.620E-06,0.000
-5.610E-06,0.000
-5.600E-06,0.004
-5.590E-06,0.008
-5.580E-06,0.000
-5.570E-06,0.000
-5.560E-06,0.000
-5.550E-06,0.000
-5.540E-06,0.000
-5.530E-06,0.004
-5.520E-06,0.008
-5.510E-06,0.000
-5.500E-06,0.004
-5.490E-06,-0.004
-5.480E-06,0.000
-5.470E-06,0.000
-5.460E-06,0.000
-5.450E-06,0.004
-5.440E-06,0.000
-5.430E-06,0.004
-5.420E-06,0.008
-5.410E-06,-0.004
-5.400E-06,0.000
-5.390E-06,0.000
-5.380E-06,0.004
-5.370E-06,0.008
-5.360E-06,0.012
-5.350E-06,0.004
-5.340E-06,0.000
-5.330E-06,0.004
-5.320E-06,0.004
-5.310E-06,0.004
-5.300E-06,0.000
-5.290E-06,0.000
-5.280E-06,-0.004
-5.270E-06,0.000
-5.260E-06,0.000
-5.250E-06,0.008
-5.240E-06,0.004
-5.230E-06,0.004
-5.220E-06,0.000
-5.210E-06,-0.004
-5.200E-06,0.000
-5.190E-06,0.000
-5.180E-06,0.008
-5.170E-06,0.008
-5.160E-06,0.004
-5.150E-06,0.000
-5.140E-06,-0.004
-5.130E-06,0.000
-5.120E-06,0.004
-5.110E-06,0.008
-5.100E-06,0.012
-5.090E-06,0.008
-5.080E-06,0.008
-5.070E-06,0.008
-5.060E-06,0.008
-5.050E-06,0.008
-5.040E-06,0.004
-5.030E-06,0.004
-5.020E-06,0.004
-5.010E-06,0.000
-5.000E-06,0.008
-4.990E-06,0.008
-4.980E-06,0.004
-4.970E-06,0.000
-4.960E-06,0.000
-4.950E-06,0.000
-4.940E-06,0.004
-4.930E-06,0.000
-4.920E-06,0.004
-4.910E-06,0.000
-4.900E-06,0.008
-4.890E-06,0.004
-4.880E-06,0.008
-4.870E-06,0.004
-4.860E-06,-0.004
-4.850E-06,-0.004
-4.840E-06,0.004
-4.830E-06,0.004
-4.820E-06,0.008
-4.810E-06,0.004
-4.800E-06,0.000
-4.790E-06,0.004
-4.780E-06,0.000
-4.770E-06,0.000
-4.760E-06,0.004
-4.750E-06,0.008
-4.740E-06,0.004
-4.730E-06,0.004
-4.720E-06,0.000
-4.710E-06,0.000
-4.700E-06,0.000
-4.690E-06,0.004
-4.680E-06,0.000
-4.670E-06,0.004
-4.660E-06,0.000
-4.650E-06,0.004
-4.640E-06,0.012
-4.630E-06,0.000
-4.620E-06,0.000
-4.610E-06,0.000
-4.600E-06,0.004
-4.590E-06,0.000
-4.580E-06,0.000
-4.570E-06,0.000
-4.560E-06,0.004
-4.550E-06,0.008
-4.540E-06,0.004
-4.530E-06,0.004
-4.520E-06,-0.004
-4.510E-06,0.004
-4.500E-06,0.000
-4.490E-06,0.000
-4.480E-06,0.000
-4.470E-06,0.000
-4.460E-06,0.004
-4.450E-06,-0.004
-4.440E-06,0.004
-4.430E-06,0.008
-4.420E-06,0.008
-4.410E-06,0.000
-4.400E-06,0.000
-4.390E-06,0.000
-4.380E-06,0.000
-4.370E-06,0.004
-4.360E-06,0.008
-4.350E-06,0.012
-4.340E-06,0.000
-4.330E-06,0.000
-4.320E-06,0.000
-4.310E-06,0.000
-4.300E-06,0.004
-4.290E-06,0.008
-4.280E-06,0.008
-4.270E-06,0.000
-4.260E-06,0.000
-4.250E-06,0.000
-4.240E-06,0.004
-4.230E-06,0.000
-4.220E-06,0.004
-4.210E-06,0.008
-4.200E-06,0.008
-4.190E-06,0.008
-4.180E-06,0.008
-4.170E-06,0.008
-4.160E-06,0.004
-4.150E-06,-0.008
-4.140E-06,-0.004
-4.130E-06,0.000
-4.120E-06,0.012
-4.110E-06,0.004
-4.100E-06,0.008
-4.090E-06,0.004
-4.080E-06,0.000
-4.070E-06,0.000
-4.060E-06,0.000
-4.050E-06,0.004
-4.040E-06,0.004
-4.030E-06,0.004
-4.020E-06,0.008
-4.010E-06,0.000
-4.000E-06,0.000
-3.990E-06,0.000
-3.980E-06,0.000
-3.970E-06,0.004
-3.960E-06,0.012
-3.950E-06,0.016
-3.940E-06,0.012
-3.930E-06,0.008
-3.920E-06,0.008
-3.910E-06,-0.008
-3.900E-06,0.004
-3.890E-06,-0.004
-3.880E-06,0.004
-3.870E-06,0.008
-3.860E-06,0.004
-3.850E-06,0.004
-3.840E-06,0.008
-3.830E-06,0.008
-3.820E-06,0.004
-3.810E-06,0.004
-3.800E-06,0.004
-3.790E-06,0.004
-3.780E-06,0.008
-3.770E-06,0.008
-3.760E-06,0.012
-3.750E-06,0.012
-3.740E-06,0.004
-3.730E-06,0.008
-3.720E-06,0.008
-3.710E-06,0.004
-3.700E-06,0.004
-3.690E-06,0.004
-3.680E-06,0.000
-3.670E-06,0.008
-3.660E-06,0.012
-3.650E-06,0.004
-3.640E-06,0.004
-3.630E-06,0.004
-3.620E-06,-0.008
-3.610E-06,-0.016
-3.600E-06,-0.004
-3.590E-06,0.008
-3.580E-06,0.020
-3.570E-06,0.028
-3.560E-06,0.016
-3.550E-06,-0.008
-3.540E-06,-0.028
-3.530E-06,-0.020
-3.520E-06,0.000
-3.510E-06,0.012
-3.500E-06,0.024
-3.490E-06,0.016
-3.480E-06,0.000
-3.470E-06,-0.012
-3.460E-06,-0.012
-3.450E-06,-0.008
-3.440E-06,0.004
-3.430E-06,0.012
-3.420E-06,0.012
-3.410E-06,0.008
-3.400E-06,0.004
-3.390E-06,-0.008
-3.380E-06,0.000
-3.370E-06,-0.004
-3.360E-06,-0.004
-3.350E-06,0.000
-3.340E-06,0.008
-3.330E-06,0.004
-3.320E-06,0.004
-3.310E-06,0.008
-3.300E-06,0.004
-3.290E-06,-0.008
-3.280E-06,0.000
-3.270E-06,0.000
-3.260E-06,0.008
-3.250E-06,0.016
-3.240E-06,0.004
-3.230E-06,0.004
-3.220E-06,0.000
-3.210E-06,0.000
-3.200E-06,0.000
-3.190E-06,0.004
-3.180E-06,0.004
-3.170E-06,0.008
-3.160E-06,0.008
-3.150E-06,0.004
-3.140E-06,0.000
-3.130E-06,-0.008
-3.120E-06,0.004
-3.110E-06,-0.004
-3.100E-06,0.000
-3.090E-06,0.012
-3.080E-06,0.004
-3.070E-06,0.004
-3.060E-06,0.000
-3.050E-06,-0.008
-3.040E-06,-0.008
-3.030E-06,-0.004
-3.020E-06,0.004
-3.010E-06,0.012
-3.000E-06,0.020
-2.990E-06,0.024
-2.980E-06,0.012
-2.970E-06,0.000
-2.960E-06,-0.008
-2.950E-06,-0.008
-2.940E-06,-0.004
-2.930E-06,0.008
-2.920E-06,0.012
-2.910E-06,0.016
-2.900E-06,0.008
-2.890E-06,-0.004
-2.880E-06,0.000
-2.870E-06,0.000
-2.860E-06,0.000
-2.850E-06,0.004
-2.840E-06,0.008
-2.830E-06,0.012
-2.820E-06,0.012
-2.810E-06,0.004
-2.800E-06,0.000
-2.790E-06,0.000
-2.780E-06,-0.004
-2.770E-06,0.004
-2.760E-06,0.012
-2.750E-06,0.012
-2.740E-06,0.020
-2.730E-06,0.012
-2.720E-06,0.008
-2.710E-06,-0.004
-2.700E-06,-0.004
-2.690E-06,0.000
-2.680E-06,0.016
-2.670E-06,0.028
-2.660E-06,0.024
-2.650E-06,0.012
-2.640E-06,-0.012
-2.630E-06,-0.056
-2.620E-06,-0.068
-2.610E-06,-0.060
-2.600E-06,0.008
-2.590E-06,0.072
-2.580E-06,0.124
-2.570E-06,0.076
-2.560E-06,0.000
-2.550E-06,-0.064
-2.540E-06,-0.084
-2.530E-06,-0.072
-2.520E-06,-0.004
-2.510E-06,0.072
-2.500E-06,0.100
-2.490E-06,0.068
-2.480E-06,0.004
-2.470E-06,-0.040
-2.460E-06,-0.068
-2.450E-06,-0.028
-2.440E-06,0.008
-2.430E-06,0.060
-2.420E-06,0.064
-2.410E-06,0.040
-2.400E-06,-0.016
-2.390E-06,-0.044
-2.380E-06,-0.056
-2.370E-06,-0.012
-2.360E-06,0.024
-2.350E-06,0.052
-2.340E-06,0.044
-2.330E-06,0.036
-2.320E-06,0.012
-2.310E-06,-0.008
-2.300E-06,-0.020
-2.290E-06,0.000
-2.280E-06,0.016
-2.270E-06,0.028
-2.260E-06,0.036
-2.250E-06,0.036
-2.240E-06,0.028
-2.230E-06,0.020
-2.220E-06,0.016
-2.210E-06,-0.004
-2.200E-06,-0.004
-2.190E-06,-0.004
-2.180E-06,-0.004
-2.170E-06,0.012
-2.160E-06,0.012
-2.150E-06,0.008
-2.140E-06,-0.004
-2.130E-06,-0.008
-2.120E-06,-0.008
-2.110E-06,-0.008
-2.100E-06,0.004
-2.090E-06,0.020
-2.080E-06,0.028
-2.070E-06,0.028
-2.060E-06,0.024
-2.050E-06,0.012
-2.040E-06,0.012
-2.030E-06,0.016
-2.020E-06,0.020
-2.010E-06,0.044
-2.000E-06,0.056
-1.990E-06,0.084
-1.980E-06,0.072
-1.970E-06,0.024
-1.960E-06,-0.020
-1.950E-06,-0.056
-1.940E-06,-0.064
-1.930E-06,-0.068
-1.920E-06,-0.048
-1.910E-06,-0.036
-1.900E-06,-0.008
-1.890E-06,0.012
-1.880E-06,0.004
-1.870E-06,-0.016
-1.860E-06,-0.040
-1.850E-06,-0.036
-1.840E-06,-0.028
-1.830E-06,0.004
-1.820E-06,0.020
-1.810E-06,0.032
-1.800E-06,0.036
-1.790E-06,0.024
-1.780E-06,0.020
-1.770E-06,0.008
-1.760E-06,0.020
-1.750E-06,0.048
-1.740E-06,0.064
-1.730E-06,0.076
-1.720E-06,0.088
-1.710E-06,0.076
-1.700E-06,0.060
-1.690E-06,0.024
-1.680E-06,-0.004
-1.670E-06,0.000
-1.660E-06,0.020
-1.650E-06,0.044
-1.640E-06,0.068
-1.630E-06,0.060
-1.620E-06,0.044
-1.610E-06,0.000
-1.600E-06,-0.048
-1.590E-06,-0.056
-1.580E-06,-0.044
-1.570E-06,0.004
-1.560E-06,0.060
-1.550E-06,0.084
-1.540E-06,0.088
-1.530E-06,0.020
-1.520E-06,-0.060
-1.510E-06,-0.124
-1.500E-06,-0.128
-1.490E-06,-0.072
-1.480E-06,0.012
-1.470E-06,0.088
-1.460E-06,0.108
-1.450E-06,0.076
-1.440E-06,0.008
-1.430E-06,-0.052
-1.420E-06,-0.060
-1.410E-06,-0.028
-1.400E-06,0.028
-1.390E-06,0.064
-1.380E-06,0.080
-1.370E-06,0.060
-1.360E-06,0.024
-1.350E-06,-0.012
-1.340E-06,-0.032
-1.330E-06,-0.012
-1.320E-06,0.016
-1.310E-06,0.076
-1.300E-06,0.100
-1.290E-06,0.096
-1.280E-06,0.072
-1.270E-06,0.056
-1.260E-06,0.016
-1.250E-06,-0.008
-1.240E-06,-0.040
-1.230E-06,-0.032
-1.220E-06,-0.016
-1.210E-06,0.008
-1.200E-06,-0.004
-1.190E-06,-0.056
-1.180E-06,-0.104
-1.170E-06,-0.128
-1.160E-06,-0.100
-1.150E-06,-0.040
-1.140E-06,0.008
-1.130E-06,0.040
-1.120E-06,0.048
-1.110E-06,0.040
-1.100E-06,0.024
-1.090E-06,-0.004
-1.080E-06,-0.028
-1.070E-06,-0.020
-1.060E-06,0.008
-1.050E-06,0.060
-1.040E-06,0.076
-1.030E-06,0.088
-1.020E-06,0.056
-1.010E-06,0.036
-1.000E-06,0.016
-9.900E-07,0.024
-9.800E-07,0.064
-9.700E-07,0.104
-9.600E-07,0.112
-9.500E-07,0.076
-9.400E-07,0.040
-9.300E-07,0.004
-9.200E-07,0.008
-9.100E-07,0.032
-9.000E-07,0.060
-8.900E-07,0.076
-8.800E-07,0.076
-8.700E-07,0.048
-8.600E-07,0.016
-8.500E-07,-0.016
-8.400E-07,-0.040
-8.300E-07,-0.044
-8.200E-07,-0.024
-8.100E-07,0.008
-8.000E-07,0.048
-7.900E-07,0.064
-7.800E-07,0.060
-7.700E-07,0.024
-7.600E-07,0.000
-7.500E-07,-0.004
-7.400E-07,0.008
-7.300E-07,0.048
-7.200E-07,0.056
-7.100E-07,0.064
-7.000E-07,0.064
-6.900E-07,0.056
-6.800E-07,0.028
-6.700E-07,0.024
-6.600E-07,0.036
-6.500E-07,0.060
-6.400E-07,0.076
-6.300E-07,0.068
-6.200E-07,0.060
-6.100E-07,0.080
-6.000E-07,0.072
-5.900E-07,0.044
-5.800E-07,0.056
-5.700E-07,0.092
-5.600E-07,0.124
-5.500E-07,0.132
-5.400E-07,0.100
-5.300E-07,0.076
-5.200E-07,0.080
-5.100E-07,0.076
-5.000E-07,0.060
-4.900E-07,0.060
-4.800E-07,0.064
-4.700E-07,0.084
-4.600E-07,0.056
-4.500E-07,0.000
-4.400E-07,-0.028
-4.300E-07,-0.048
-4.200E-07,-0.064
-4.100E-07,-0.032
-4.000E-07,0.008
-3.900E-07,0.020
-3.800E-07,0.036
-3.700E-07,0.064
-3.600E-07,0.068
-3.500E-07,0.008
-3.400E-07,0.012
-3.300E-07,0.064
-3.200E-07,0.116
-3.100E-07,0.140
-3.000E-07,0.160
-2.900E-07,0.152
-2.800E-07,0.144
-2.700E-07,0.136
-2.600E-07,0.124
-2.500E-07,0.124
-2.400E-07,0.128
-2.300E-07,0.136
-2.200E-07,0.160
-2.100E-07,0.160
-2.000E-07,0.128
-1.900E-07,0.076
-1.800E-07,0.096
-1.700E-07,0.104
-1.600E-07,0.036
-1.500E-07,-0.124
-1.400E-07,-0.248
-1.300E-07,-0.428
-1.200E-07,-0.512
-1.100E-07,-0.364
-1.000E-07,-0.280
-9.000E-08,-0.136
-8.000E-08,0.136
-7.000E-08,0.252
-6.000E-08,-0.336
-5.000E-08,-0.512
-4.000E-08,-0.512
-3.000E-08,-0.512
-2.000E-08,-0.192
-1.000E-08,0.228
0.000E+00,0.460
1.000E-08,0.216
2.000E-08,-0.144
3.000E-08,-0.472
4.000E-08,-0.452
5.000E-08,-0.276
6.000E-08,0.048
7.000E-08,0.376
8.000E-08,0.452
9.000E-08,0.280
1.000E-07,-0.004
1.100E-07,-0.184
1.200E-07,-0.292
1.300E-07,-0.156
1.400E-07,0.048
1.500E-07,0.256
1.600E-07,0.292
1.700E-07,0.208
1.800E-07,0.040
1.900E-07,-0.152
2.000E-07,-0.236
2.100E-07,-0.196
2.200E-07,0.008
2.300E-07,0.160
2.400E-07,0.196
2.500E-07,0.096
2.600E-07,0.020
2.700E-07,-0.072
2.800E-07,-0.128
2.900E-07,-0.064
3.000E-07,0.088
3.100E-07,0.224
3.200E-07,0.284
3.300E-07,0.232
3.400E-07,0.084
3.500E-07,-0.008
3.600E-07,-0.068
3.700E-07,-0.036
3.800E-07,0.056
3.900E-07,0.160
4.000E-07,0.212
4.100E-07,0.224
4.200E-07,0.168
4.300E-07,0.088
4.400E-07,0.052
4.500E-07,0.092
4.600E-07,0.164
4.700E-07,0.228
4.800E-07,0.284
4.900E-07,0.276
5.000E-07,0.252
5.100E-07,0.224
5.200E-07,0.208
5.300E-07,0.196
5.400E-07,0.212
5.500E-07,0.244
5.600E-07,0.272
5.700E-07,0.264
5.800E-07,0.240
5.900E-07,0.216
6.000E-07,0.192
6.100E-07,0.152
6.200E-07,0.112
6.300E-07,0.028
6.400E-07,-0.268
6.500E-07,-0.512
6.600E-07,-0.512
6.700E-07,-0.372
6.800E-07,0.252
6.900E-07,0.536
7.000E-07,0.536
7.100E-07,-0.096
7.200E-07,-0.508
7.300E-07,-0.508
7.400E-07,-0.508
7.500E-07,-0.512
7.600E-07,-0.036
7.700E-07,0.472
7.800E-07,0.456
7.900E-07,0.112
8.000E-07,-0.336
8.100E-07,-0.512
8.200E-07,-0.512
8.300E-07,-0.328
8.400E-07,0.152
8.500E-07,0.536
8.600E-07,0.540
8.700E-07,0.476
8.800E-07,0.028
8.900E-07,-0.308
9.000E-07,-0.508
9.100E-07,-0.312
9.200E-07,0.064
9.300E-07,0.500
9.400E-07,0.536
9.500E-07,0.492
9.600E-07,0.136
9.700E-07,-0.216
9.800E-07,-0.340
9.900E-07,-0.272
1.000E-06,0.016
1.010E-06,0.276
1.020E-06,0.460
1.030E-06,0.396
1.040E-06,0.212
1.050E-06,-0.080
1.060E-06,-0.252
1.070E-06,-0.228
1.080E-06,-0.048
1.090E-06,0.200
1.100E-06,0.336
1.110E-06,0.280
1.120E-06,0.056
1.130E-06,-0.152
1.140E-06,-0.324
1.150E-06,-0.288
1.160E-06,-0.172
1.170E-06,0.012
1.180E-06,0.188
1.190E-06,0.252
1.200E-06,0.160
1.210E-06,0.004
1.220E-06,-0.108
1.230E-06,-0.100
1.240E-06,-0.044
1.250E-06,0.096
1.260E-06,0.236
1.270E-06,0.316
1.280E-06,0.324
1.290E-06,0.216
1.300E-06,0.112
1.310E-06,0.068
1.320E-06,0.120
1.330E-06,0.224
1.340E-06,0.324
1.350E-06,0.368
1.360E-06,0.344
1.370E-06,0.280
1.380E-06,0.192
1.390E-06,0.128
1.400E-06,0.096
1.410E-06,0.132
1.420E-06,0.200
1.430E-06,0.256
1.440E-06,0.268
1.450E-06,0.240
1.460E-06,0.180
1.470E-06,0.132
1.480E-06,0.096
1.490E-06,0.112
1.500E-06,0.184
1.510E-06,0.240
1.520E-06,0.300
1.530E-06,0.260
1.540E-06,0.116
1.550E-06,-0.132
1.560E-06,-0.432
1.570E-06,-0.508
1.580E-06,-0.508
1.590E-06,-0.508
1.600E-06,-0.508
1.610E-06,-0.508
1.620E-06,-0.508
1.630E-06,-0.508
1.640E-06,-0.508
1.650E-06,-0.488
1.660E-06,-0.144
1.670E-06,0.120
1.680E-06,0.332
1.690E-06,0.324
1.700E-06,0.048
1.710E-06,-0.148
1.720E-06,-0.196
1.730E-06,-0.020
1.740E-06,0.020
1.750E-06,0.084
1.760E-06,0.000
1.770E-06,0.056
1.780E-06,0.016
1.790E-06,0.000
1.800E-06,-0.060
1.810E-06,-0.088
1.820E-06,0.000
1.830E-06,0.088
1.840E-06,0.200
1.850E-06,0.124
1.860E-06,0.136
1.870E-06,0.044
1.880E-06,0.100
1.890E-06,0.100
1.900E-06,0.188
1.910E-06,0.224
1.920E-06,0.224
1.930E-06,0.208
1.940E-06,0.152
1.950E-06,0.152
1.960E-06,0.108
1.970E-06,0.172
1.980E-06,0.168
1.990E-06,0.252
2.000E-06,0.256
2.010E-06,0.260
2.020E-06,0.204
2.030E-06,0.172
2.040E-06,0.160
2.050E-06,0.172
2.060E-06,0.240
2.070E-06,0.268
2.080E-06,0.312
2.090E-06,0.292
2.100E-06,0.276
2.110E-06,0.212
2.120E-06,0.200
2.130E-06,0.188
2.140E-06,0.224
2.150E-06,0.252
2.160E-06,0.264
2.170E-06,0.272
2.180E-06,0.244
2.190E-06,0.224
2.200E-06,0.188
2.210E-06,0.192
2.220E-06,0.192
2.230E-06,0.224
2.240E-06,0.240
2.250E-06,0.256
2.260E-06,0.248
2.270E-06,0.228
2.280E-06,0.220
2.290E-06,0.208
2.300E-06,0.220
2.310E-06,0.228
2.320E-06,0.252
2.330E-06,0.248
2.340E-06,0.244
2.350E-06,0.216
2.360E-06,0.184
2.370E-06,0.160
2.380E-06,0.132
2.390E-06,0.128
2.400E-06,0.132
2.410E-06,0.140
2.420E-06,0.156
2.430E-06,0.188
2.440E-06,0.192
2.450E-06,0.212
2.460E-06,0.224
2.470E-06,0.236
2.480E-06,0.236
2.490E-06,0.232
2.500E-06,0.228
2.510E-06,0.216
2.520E-06,0.220
2.530E-06,0.216
2.540E-06,0.208
2.550E-06,0.188
2.560E-06,0.184
2.570E-06,0.172
2.580E-06,0.180
2.590E-06,0.168
2.600E-06,0.100
2.610E-06,0.004
2.620E-06,-0.068
2.630E-06,-0.124
2.640E-06,-0.080
2.650E-06,-0.016
2.660E-06,0.020
2.670E-06,0.032
2.680E-06,0.056
2.690E-06,0.096
2.700E-06,0.172
2.710E-06,0.284
2.720E-06,0.360
2.730E-06,0.368
2.740E-06,0.292
2.750E-06,0.188
2.760E-06,0.112
2.770E-06,0.108
2.780E-06,0.156
2.790E-06,0.220
2.800E-06,0.252
2.810E-06,0.212
2.820E-06,0.148
2.830E-06,0.104
2.840E-06,0.084
2.850E-06,0.112
2.860E-06,0.160
2.870E-06,0.176
2.880E-06,0.140
2.890E-06,0.080
2.900E-06,0.004
2.910E-06,-0.084
2.920E-06,-0.136
2.930E-06,-0.128
2.940E-06,-0.144
2.950E-06,-0.112
2.960E-06,-0.036
2.970E-06,-0.008
2.980E-06,0.072
2.990E-06,0.192
3.000E-06,0.276
3.010E-06,0.244
3.020E-06,0.248
3.030E-06,0.184
3.040E-06,0.168
3.050E-06,0.192
3.060E-06,0.256
3.070E-06,0.316
3.080E-06,0.344
3.090E-06,0.328
3.100E-06,0.260
3.110E-06,0.204
3.120E-06,0.136
3.130E-06,0.152
3.140E-06,0.184
3.150E-06,0.260
3.160E-06,0.296
3.170E-06,0.308
3.180E-06,0.272
3.190E-06,0.216
3.200E-06,0.168
3.210E-06,0.144
3.220E-06,0.180
3.230E-06,0.212
3.240E-06,0.264
3.250E-06,0.284
3.260E-06,0.288
3.270E-06,0.236
3.280E-06,0.200
3.290E-06,0.164
3.300E-06,0.160
3.310E-06,0.192
3.320E-06,0.220
3.330E-06,0.244
3.340E-06,0.248
3.350E-06,0.236
3.360E-06,0.196
3.370E-06,0.176
3.380E-06,0.160
3.390E-06,0.172
