mediciones/Mediciones filtradas (saque las feas)/5-15/25/WaveData47409.csv

#timebase=2000000(ps)
,#voltbase=100000(mv/100)
#size=4000
-8.400E-06,0.072
-8.390E-06,0.092
-8.380E-06,0.060
-8.370E-06,-0.008
-8.360E-06,-0.048
-8.350E-06,-0.084
-8.340E-06,-0.040
-8.330E-06,0.024
-8.320E-06,0.072
-8.310E-06,0.060
-8.300E-06,0.032
-8.290E-06,-0.012
-8.280E-06,-0.072
-8.270E-06,-0.064
-8.260E-06,-0.028
-8.250E-06,0.028
-8.240E-06,0.064
-8.230E-06,0.076
-8.220E-06,0.040
-8.210E-06,-0.012
-8.200E-06,-0.064
-8.190E-06,-0.072
-8.180E-06,-0.044
-8.170E-06,0.024
-8.160E-06,0.068
-8.150E-06,0.092
-8.140E-06,0.064
-8.130E-06,0.000
-8.120E-06,-0.040
-8.110E-06,-0.068
-8.100E-06,-0.016
-8.090E-06,-0.056
-8.080E-06,0.000
-8.070E-06,0.036
-8.060E-06,0.036
-8.050E-06,0.012
-8.040E-06,0.028
-8.030E-06,0.036
-8.020E-06,-0.028
-8.010E-06,-0.040
-8.000E-06,-0.064
-7.990E-06,-0.004
-7.980E-06,0.044
-7.970E-06,0.084
-7.960E-06,0.056
-7.950E-06,-0.008
-7.940E-06,-0.064
-7.930E-06,-0.076
-7.920E-06,-0.028
-7.910E-06,0.024
-7.900E-06,0.080
-7.890E-06,0.076
-7.880E-06,0.040
-7.870E-06,-0.028
-7.860E-06,-0.060
-7.850E-06,-0.060
-7.840E-06,-0.020
-7.830E-06,0.024
-7.820E-06,0.060
-7.810E-06,0.068
-7.800E-06,0.028
-7.790E-06,-0.004
-7.780E-06,-0.044
-7.770E-06,-0.056
-7.760E-06,-0.036
-7.750E-06,0.012
-7.740E-06,0.044
-7.730E-06,0.064
-7.720E-06,0.048
-7.710E-06,0.000
-7.700E-06,-0.036
-7.690E-06,-0.060
-7.680E-06,-0.040
-7.670E-06,0.004
-7.660E-06,0.040
-7.650E-06,0.064
-7.640E-06,0.060
-7.630E-06,0.012
-7.620E-06,-0.028
-7.610E-06,-0.044
-7.600E-06,-0.032
-7.590E-06,0.016
-7.580E-06,0.056
-7.570E-06,0.072
-7.560E-06,0.040
-7.550E-06,-0.004
-7.540E-06,-0.052
-7.530E-06,-0.036
-7.520E-06,0.008
-7.510E-06,0.056
-7.500E-06,0.084
-7.490E-06,0.032
-7.480E-06,-0.068
-7.470E-06,-0.196
-7.460E-06,-0.152
-7.450E-06,0.032
-7.440E-06,0.132
-7.430E-06,0.156
-7.420E-06,0.040
-7.410E-06,-0.012
-7.400E-06,-0.072
-7.390E-06,-0.088
-7.380E-06,-0.016
-7.370E-06,0.056
-7.360E-06,0.096
-7.350E-06,0.048
-7.340E-06,0.008
-7.330E-06,-0.064
-7.320E-06,-0.056
-7.310E-06,-0.016
-7.300E-06,0.056
-7.290E-06,0.060
-7.280E-06,0.036
-7.270E-06,-0.008
-7.260E-06,-0.036
-7.250E-06,-0.020
-7.240E-06,0.000
-7.230E-06,0.020
-7.220E-06,0.024
-7.210E-06,0.016
-7.200E-06,-0.004
-7.190E-06,-0.008
-7.180E-06,-0.020
-7.170E-06,-0.012
-7.160E-06,-0.012
-7.150E-06,0.012
-7.140E-06,0.032
-7.130E-06,0.040
-7.120E-06,0.032
-7.110E-06,0.008
-7.100E-06,-0.016
-7.090E-06,-0.024
-7.080E-06,0.000
-7.070E-06,0.028
-7.060E-06,0.040
-7.050E-06,0.028
-7.040E-06,-0.036
-7.030E-06,-0.080
-7.020E-06,-0.044
-7.010E-06,0.020
-7.000E-06,0.064
-6.990E-06,0.088
-6.980E-06,0.032
-6.970E-06,-0.028
-6.960E-06,-0.084
-6.950E-06,-0.076
-6.940E-06,0.000
-6.930E-06,0.040
-6.920E-06,0.060
-6.910E-06,0.044
-6.900E-06,0.004
-6.890E-06,-0.040
-6.880E-06,-0.028
-6.870E-06,0.000
-6.860E-06,0.012
-6.850E-06,0.004
-6.840E-06,0.000
-6.830E-06,-0.008
-6.820E-06,0.000
-6.810E-06,0.008
-6.800E-06,0.008
-6.790E-06,0.008
-6.780E-06,0.004
-6.770E-06,0.004
-6.760E-06,-0.004
-6.750E-06,-0.004
-6.740E-06,0.004
-6.730E-06,0.020
-6.720E-06,0.032
-6.710E-06,0.024
-6.700E-06,-0.020
-6.690E-06,-0.056
-6.680E-06,-0.044
-6.670E-06,-0.004
-6.660E-06,0.016
-6.650E-06,0.040
-6.640E-06,0.036
-6.630E-06,0.016
-6.620E-06,-0.004
-6.610E-06,-0.020
-6.600E-06,-0.016
-6.590E-06,-0.012
-6.580E-06,0.000
-6.570E-06,0.016
-6.560E-06,0.024
-6.550E-06,0.032
-6.540E-06,0.028
-6.530E-06,0.012
-6.520E-06,-0.020
-6.510E-06,-0.056
-6.500E-06,-0.056
-6.490E-06,-0.020
-6.480E-06,0.000
-6.470E-06,0.076
-6.460E-06,0.076
-6.450E-06,0.000
-6.440E-06,-0.040
-6.430E-06,-0.056
-6.420E-06,-0.024
-6.410E-06,0.024
-6.400E-06,0.040
-6.390E-06,0.024
-6.380E-06,0.004
-6.370E-06,-0.008
-6.360E-06,-0.004
-6.350E-06,0.004
-6.340E-06,0.020
-6.330E-06,0.004
-6.320E-06,-0.004
-6.310E-06,-0.004
-6.300E-06,0.000
-6.290E-06,0.020
-6.280E-06,0.032
-6.270E-06,0.032
-6.260E-06,0.012
-6.250E-06,0.004
-6.240E-06,-0.028
-6.230E-06,-0.044
-6.220E-06,-0.020
-6.210E-06,0.016
-6.200E-06,0.024
-6.190E-06,0.036
-6.180E-06,0.012
-6.170E-06,-0.020
-6.160E-06,-0.040
-6.150E-06,-0.024
-6.140E-06,0.008
-6.130E-06,0.028
-6.120E-06,0.032
-6.110E-06,0.008
-6.100E-06,0.000
-6.090E-06,-0.016
-6.080E-06,-0.008
-6.070E-06,-0.004
-6.060E-06,0.004
-6.050E-06,0.012
-6.040E-06,0.004
-6.030E-06,0.012
-6.020E-06,0.000
-6.010E-06,0.004
-6.000E-06,-0.004
-5.990E-06,-0.004
-5.980E-06,0.000
-5.970E-06,0.008
-5.960E-06,0.008
-5.950E-06,0.012
-5.940E-06,0.008
-5.930E-06,0.012
-5.920E-06,0.008
-5.910E-06,0.004
-5.900E-06,0.004
-5.890E-06,0.012
-5.880E-06,0.032
-5.870E-06,0.032
-5.860E-06,0.040
-5.850E-06,0.008
-5.840E-06,-0.024
-5.830E-06,-0.040
-5.820E-06,-0.048
-5.810E-06,-0.028
-5.800E-06,0.016
-5.790E-06,0.028
-5.780E-06,0.028
-5.770E-06,0.028
-5.760E-06,-0.004
-5.750E-06,-0.036
-5.740E-06,-0.036
-5.730E-06,-0.004
-5.720E-06,0.020
-5.710E-06,0.032
-5.700E-06,0.032
-5.690E-06,0.008
-5.680E-06,-0.004
-5.670E-06,-0.008
-5.660E-06,-0.008
-5.650E-06,-0.004
-5.640E-06,0.008
-5.630E-06,0.012
-5.620E-06,0.008
-5.610E-06,0.012
-5.600E-06,0.004
-5.590E-06,-0.004
-5.580E-06,0.000
-5.570E-06,-0.004
-5.560E-06,0.008
-5.550E-06,0.008
-5.540E-06,0.016
-5.530E-06,0.016
-5.520E-06,0.020
-5.510E-06,0.016
-5.500E-06,0.004
-5.490E-06,-0.004
-5.480E-06,-0.008
-5.470E-06,-0.004
-5.460E-06,0.008
-5.450E-06,0.032
-5.440E-06,0.056
-5.430E-06,0.044
-5.420E-06,0.020
-5.410E-06,-0.056
-5.400E-06,-0.124
-5.390E-06,-0.060
-5.380E-06,0.048
-5.370E-06,0.080
-5.360E-06,0.088
-5.350E-06,0.024
-5.340E-06,-0.012
-5.330E-06,-0.052
-5.320E-06,-0.060
-5.310E-06,-0.012
-5.300E-06,0.032
-5.290E-06,0.068
-5.280E-06,0.048
-5.270E-06,0.012
-5.260E-06,-0.036
-5.250E-06,-0.028
-5.240E-06,-0.004
-5.230E-06,0.036
-5.220E-06,0.040
-5.210E-06,0.032
-5.200E-06,0.012
-5.190E-06,-0.012
-5.180E-06,0.008
-5.170E-06,-0.008
-5.160E-06,0.024
-5.150E-06,0.052
-5.140E-06,0.044
-5.130E-06,-0.020
-5.120E-06,-0.056
-5.110E-06,-0.056
-5.100E-06,-0.008
-5.090E-06,0.060
-5.080E-06,0.072
-5.070E-06,0.040
-5.060E-06,-0.020
-5.050E-06,-0.064
-5.040E-06,-0.060
-5.030E-06,-0.012
-5.020E-06,0.024
-5.010E-06,0.056
-5.000E-06,0.052
-4.990E-06,0.012
-4.980E-06,-0.020
-4.970E-06,-0.036
-4.960E-06,-0.004
-4.950E-06,0.040
-4.940E-06,0.056
-4.930E-06,0.060
-4.920E-06,0.048
-4.910E-06,0.000
-4.900E-06,-0.036
-4.890E-06,-0.060
-4.880E-06,-0.036
-4.870E-06,0.024
-4.860E-06,0.064
-4.850E-06,0.020
-4.840E-06,-0.044
-4.830E-06,-0.024
-4.820E-06,-0.032
-4.810E-06,0.016
-4.800E-06,0.012
-4.790E-06,0.004
-4.780E-06,-0.028
-4.770E-06,0.004
-4.760E-06,0.024
-4.750E-06,0.004
-4.740E-06,0.024
-4.730E-06,0.008
-4.720E-06,0.028
-4.710E-06,0.028
-4.700E-06,0.024
-4.690E-06,-0.008
-4.680E-06,-0.048
-4.670E-06,-0.004
-4.660E-06,0.004
-4.650E-06,0.052
-4.640E-06,0.004
-4.630E-06,-0.160
-4.620E-06,-0.204
-4.610E-06,-0.048
-4.600E-06,0.092
-4.590E-06,0.240
-4.580E-06,0.204
-4.570E-06,0.048
-4.560E-06,-0.160
-4.550E-06,-0.292
-4.540E-06,-0.204
-4.530E-06,0.024
-4.520E-06,0.244
-4.510E-06,0.248
-4.500E-06,0.140
-4.490E-06,-0.088
-4.480E-06,-0.188
-4.470E-06,-0.160
-4.460E-06,-0.012
-4.450E-06,0.128
-4.440E-06,0.176
-4.430E-06,0.076
-4.420E-06,-0.028
-4.410E-06,-0.084
-4.400E-06,-0.108
-4.390E-06,-0.052
-4.380E-06,-0.020
-4.370E-06,0.032
-4.360E-06,0.044
-4.350E-06,0.076
-4.340E-06,0.056
-4.330E-06,-0.004
-4.320E-06,-0.064
-4.310E-06,-0.092
-4.300E-06,-0.064
-4.290E-06,-0.008
-4.280E-06,0.072
-4.270E-06,0.096
-4.260E-06,0.088
-4.250E-06,0.000
-4.240E-06,-0.068
-4.230E-06,-0.100
-4.220E-06,-0.048
-4.210E-06,0.032
-4.200E-06,0.100
-4.190E-06,0.112
-4.180E-06,0.076
-4.170E-06,0.008
-4.160E-06,-0.024
-4.150E-06,-0.040
-4.140E-06,-0.056
-4.130E-06,-0.056
-4.120E-06,-0.052
-4.110E-06,-0.020
-4.100E-06,-0.004
-4.090E-06,0.024
-4.080E-06,0.028
-4.070E-06,0.000
-4.060E-06,-0.012
-4.050E-06,-0.016
-4.040E-06,0.008
-4.030E-06,0.028
-4.020E-06,0.020
-4.010E-06,-0.004
-4.000E-06,-0.012
-3.990E-06,-0.028
-3.980E-06,-0.016
-3.970E-06,0.012
-3.960E-06,0.032
-3.950E-06,0.032
-3.940E-06,0.024
-3.930E-06,0.000
-3.920E-06,-0.028
-3.910E-06,-0.028
-3.900E-06,-0.024
-3.890E-06,0.004
-3.880E-06,0.028
-3.870E-06,0.040
-3.860E-06,0.036
-3.850E-06,0.024
-3.840E-06,-0.008
-3.830E-06,-0.028
-3.820E-06,-0.032
-3.810E-06,-0.020
-3.800E-06,0.016
-3.790E-06,0.036
-3.780E-06,0.036
-3.770E-06,0.016
-3.760E-06,-0.004
-3.750E-06,-0.028
-3.740E-06,-0.024
-3.730E-06,-0.008
-3.720E-06,0.008
-3.710E-06,0.020
-3.700E-06,0.028
-3.690E-06,0.020
-3.680E-06,0.000
-3.670E-06,-0.012
-3.660E-06,-0.008
-3.650E-06,-0.004
-3.640E-06,0.020
-3.630E-06,0.036
-3.620E-06,0.044
-3.610E-06,0.036
-3.600E-06,0.008
-3.590E-06,-0.004
-3.580E-06,-0.004
-3.570E-06,0.004
-3.560E-06,0.036
-3.550E-06,0.088
-3.540E-06,0.040
-3.530E-06,0.000
-3.520E-06,-0.044
-3.510E-06,-0.080
-3.500E-06,-0.068
-3.490E-06,-0.004
-3.480E-06,0.040
-3.470E-06,0.056
-3.460E-06,0.032
-3.450E-06,-0.008
-3.440E-06,-0.032
-3.430E-06,-0.032
-3.420E-06,-0.008
-3.410E-06,0.004
-3.400E-06,0.016
-3.390E-06,0.016
-3.380E-06,0.012
-3.370E-06,0.020
-3.360E-06,0.008
-3.350E-06,0.004
-3.340E-06,0.000
-3.330E-06,-0.004
-3.320E-06,-0.012
-3.310E-06,-0.004
-3.300E-06,0.004
-3.290E-06,0.024
-3.280E-06,0.024
-3.270E-06,0.016
-3.260E-06,-0.004
-3.250E-06,-0.016
-3.240E-06,-0.008
-3.230E-06,-0.004
-3.220E-06,0.020
-3.210E-06,0.028
-3.200E-06,0.028
-3.190E-06,0.012
-3.180E-06,0.004
-3.170E-06,0.000
-3.160E-06,0.000
-3.150E-06,0.024
-3.140E-06,0.032
-3.130E-06,0.036
-3.120E-06,0.028
-3.110E-06,0.028
-3.100E-06,0.028
-3.090E-06,0.040
-3.080E-06,0.020
-3.070E-06,0.008
-3.060E-06,-0.028
-3.050E-06,-0.072
-3.040E-06,-0.040
-3.030E-06,-0.044
-3.020E-06,-0.004
-3.010E-06,0.044
-3.000E-06,0.048
-2.990E-06,0.008
-2.980E-06,-0.044
-2.970E-06,-0.068
-2.960E-06,-0.052
-2.950E-06,0.012
-2.940E-06,0.044
-2.930E-06,0.044
-2.920E-06,0.008
-2.910E-06,-0.004
-2.900E-06,-0.008
-2.890E-06,-0.008
-2.880E-06,-0.004
-2.870E-06,-0.004
-2.860E-06,0.016
-2.850E-06,0.028
-2.840E-06,0.040
-2.830E-06,0.044
-2.820E-06,0.056
-2.810E-06,0.048
-2.800E-06,-0.024
-2.790E-06,-0.064
-2.780E-06,-0.072
-2.770E-06,-0.064
-2.760E-06,-0.020
-2.750E-06,0.048
-2.740E-06,0.088
-2.730E-06,0.084
-2.720E-06,0.032
-2.710E-06,-0.028
-2.700E-06,-0.036
-2.690E-06,0.000
-2.680E-06,0.060
-2.670E-06,0.096
-2.660E-06,0.052
-2.650E-06,-0.012
-2.640E-06,-0.064
-2.630E-06,-0.084
-2.620E-06,-0.052
-2.610E-06,0.020
-2.600E-06,0.040
-2.590E-06,0.032
-2.580E-06,0.016
-2.570E-06,-0.004
-2.560E-06,-0.036
-2.550E-06,-0.052
-2.540E-06,-0.028
-2.530E-06,-0.004
-2.520E-06,0.044
-2.510E-06,0.044
-2.500E-06,0.028
-2.490E-06,-0.008
-2.480E-06,-0.036
-2.470E-06,-0.044
-2.460E-06,-0.012
-2.450E-06,0.028
-2.440E-06,0.076
-2.430E-06,0.088
-2.420E-06,0.056
-2.410E-06,0.012
-2.400E-06,-0.100
-2.390E-06,-0.088
-2.380E-06,-0.108
-2.370E-06,-0.040
-2.360E-06,0.084
-2.350E-06,0.160
-2.340E-06,0.096
-2.330E-06,-0.164
-2.320E-06,-0.240
-2.310E-06,-0.208
-2.300E-06,-0.032
-2.290E-06,0.108
-2.280E-06,0.228
-2.270E-06,0.200
-2.260E-06,0.040
-2.250E-06,-0.108
-2.240E-06,-0.220
-2.230E-06,-0.156
-2.220E-06,-0.036
-2.210E-06,0.148
-2.200E-06,0.180
-2.190E-06,0.144
-2.180E-06,-0.004
-2.170E-06,-0.108
-2.160E-06,-0.152
-2.150E-06,-0.104
-2.140E-06,0.004
-2.130E-06,0.096
-2.120E-06,0.140
-2.110E-06,0.096
-2.100E-06,0.024
-2.090E-06,-0.076
-2.080E-06,-0.108
-2.070E-06,-0.096
-2.060E-06,-0.008
-2.050E-06,0.072
-2.040E-06,0.120
-2.030E-06,0.088
-2.020E-06,0.016
-2.010E-06,-0.056
-2.000E-06,-0.096
-1.990E-06,-0.076
-1.980E-06,-0.016
-1.970E-06,0.068
-1.960E-06,0.096
-1.950E-06,0.084
-1.940E-06,0.016
-1.930E-06,-0.036
-1.920E-06,-0.072
-1.910E-06,-0.064
-1.900E-06,-0.004
-1.890E-06,0.068
-1.880E-06,0.088
-1.870E-06,0.056
-1.860E-06,0.004
-1.850E-06,-0.056
-1.840E-06,-0.076
-1.830E-06,-0.056
-1.820E-06,0.008
-1.810E-06,0.064
-1.800E-06,0.088
-1.790E-06,0.064
-1.780E-06,0.016
-1.770E-06,-0.036
-1.760E-06,-0.060
-1.750E-06,-0.052
-1.740E-06,-0.016
-1.730E-06,0.032
-1.720E-06,0.068
-1.710E-06,0.068
-1.700E-06,0.028
-1.690E-06,-0.004
-1.680E-06,-0.040
-1.670E-06,-0.044
-1.660E-06,-0.008
-1.650E-06,0.028
-1.640E-06,0.064
-1.630E-06,0.072
-1.620E-06,0.056
-1.610E-06,0.024
-1.600E-06,-0.004
-1.590E-06,-0.020
-1.580E-06,-0.004
-1.570E-06,0.024
-1.560E-06,0.080
-1.550E-06,0.096
-1.540E-06,0.092
-1.530E-06,-0.036
-1.520E-06,-0.112
-1.510E-06,-0.164
-1.500E-06,-0.136
-1.490E-06,-0.044
-1.480E-06,0.108
-1.470E-06,0.196
-1.460E-06,0.144
-1.450E-06,0.036
-1.440E-06,-0.120
-1.430E-06,-0.160
-1.420E-06,-0.108
-1.410E-06,0.024
-1.400E-06,0.096
-1.390E-06,0.124
-1.380E-06,0.060
-1.370E-06,-0.016
-1.360E-06,-0.076
-1.350E-06,-0.072
-1.340E-06,-0.024
-1.330E-06,0.020
-1.320E-06,0.076
-1.310E-06,0.080
-1.300E-06,0.072
-1.290E-06,0.024
-1.280E-06,-0.020
-1.270E-06,-0.052
-1.260E-06,-0.032
-1.250E-06,0.028
-1.240E-06,0.092
-1.230E-06,0.108
-1.220E-06,0.076
-1.210E-06,0.040
-1.200E-06,-0.056
-1.190E-06,-0.056
-1.180E-06,-0.052
-1.170E-06,-0.004
-1.160E-06,0.024
-1.150E-06,0.028
-1.140E-06,0.016
-1.130E-06,0.012
-1.120E-06,0.032
-1.110E-06,0.028
-1.100E-06,0.056
-1.090E-06,0.048
-1.080E-06,0.040
-1.070E-06,0.024
-1.060E-06,0.020
-1.050E-06,-0.040
-1.040E-06,-0.204
-1.030E-06,-0.280
-1.020E-06,-0.284
-1.010E-06,-0.060
-1.000E-06,0.144
-9.900E-07,0.356
-9.800E-07,0.268
-9.700E-07,0.008
-9.600E-07,-0.200
-9.500E-07,-0.276
-9.400E-07,-0.128
-9.300E-07,0.060
-9.200E-07,0.240
-9.100E-07,0.224
-9.000E-07,0.136
-8.900E-07,-0.068
-8.800E-07,-0.128
-8.700E-07,-0.100
-8.600E-07,0.004
-8.500E-07,0.092
-8.400E-07,0.120
-8.300E-07,-0.028
-8.200E-07,-0.176
-8.100E-07,-0.120
-8.000E-07,-0.072
-7.900E-07,0.020
-7.800E-07,0.096
-7.700E-07,0.104
-7.600E-07,0.028
-7.500E-07,-0.044
-7.400E-07,-0.076
-7.300E-07,-0.032
-7.200E-07,0.032
-7.100E-07,0.040
-7.000E-07,0.028
-6.900E-07,-0.032
-6.800E-07,-0.052
-6.700E-07,-0.032
-6.600E-07,0.024
-6.500E-07,0.036
-6.400E-07,0.024
-6.300E-07,0.020
-6.200E-07,0.004
-6.100E-07,0.000
-6.000E-07,0.000
-5.900E-07,-0.008
-5.800E-07,-0.008
-5.700E-07,-0.004
-5.600E-07,0.004
-5.500E-07,0.020
-5.400E-07,0.032
-5.300E-07,0.024
-5.200E-07,0.016
-5.100E-07,0.004
-5.000E-07,-0.004
-4.900E-07,-0.008
-4.800E-07,0.004
-4.700E-07,0.016
-4.600E-07,0.024
-4.500E-07,0.036
-4.400E-07,0.032
-4.300E-07,0.024
-4.200E-07,0.012
-4.100E-07,0.016
-4.000E-07,0.028
-3.900E-07,0.036
-3.800E-07,0.040
-3.700E-07,0.048
-3.600E-07,0.044
-3.500E-07,0.032
-3.400E-07,-0.020
-3.300E-07,-0.116
-3.200E-07,-0.104
-3.100E-07,-0.032
-3.000E-07,0.036
-2.900E-07,0.092
-2.800E-07,0.088
-2.700E-07,0.020
-2.600E-07,-0.016
-2.500E-07,-0.040
-2.400E-07,-0.040
-2.300E-07,0.008
-2.200E-07,0.044
-2.100E-07,0.048
-2.000E-07,0.024
-1.900E-07,0.008
-1.800E-07,0.004
-1.700E-07,0.012
-1.600E-07,0.040
-1.500E-07,0.036
-1.400E-07,0.056
-1.300E-07,0.044
-1.200E-07,0.032
-1.100E-07,0.032
-1.000E-07,0.040
-9.000E-08,0.040
-8.000E-08,0.044
-7.000E-08,0.040
-6.000E-08,-0.208
-5.000E-08,-0.304
-4.000E-08,-0.500
-3.000E-08,-0.348
-2.000E-08,0.088
-1.000E-08,0.460
0.000E+00,0.516
1.000E-08,0.180
2.000E-08,-0.164
3.000E-08,-0.420
4.000E-08,-0.328
5.000E-08,-0.080
6.000E-08,0.188
7.000E-08,0.276
8.000E-08,0.204
9.000E-08,0.064
1.000E-07,-0.132
1.100E-07,-0.176
1.200E-07,-0.152
1.300E-07,-0.004
1.400E-07,0.072
1.500E-07,0.140
1.600E-07,0.088
1.700E-07,0.032
1.800E-07,-0.044
1.900E-07,-0.088
2.000E-07,-0.076
2.100E-07,-0.032
2.200E-07,0.056
2.300E-07,0.084
2.400E-07,0.088
2.500E-07,0.012
2.600E-07,-0.040
2.700E-07,-0.072
2.800E-07,-0.040
2.900E-07,0.000
3.000E-07,0.044
3.100E-07,0.052
3.200E-07,0.024
3.300E-07,-0.004
3.400E-07,-0.032
3.500E-07,-0.020
3.600E-07,0.000
3.700E-07,0.044
3.800E-07,0.048
3.900E-07,0.032
4.000E-07,-0.004
4.100E-07,-0.024
4.200E-07,-0.028
4.300E-07,-0.008
4.400E-07,0.028
4.500E-07,0.060
4.600E-07,0.060
4.700E-07,0.028
4.800E-07,-0.008
4.900E-07,-0.036
5.000E-07,-0.036
5.100E-07,0.000
5.200E-07,0.056
5.300E-07,0.084
5.400E-07,0.076
5.500E-07,0.036
5.600E-07,-0.012
5.700E-07,-0.044
5.800E-07,-0.040
5.900E-07,0.012
6.000E-07,0.056
6.100E-07,0.116
6.200E-07,0.100
6.300E-07,-0.004
6.400E-07,-0.152
6.500E-07,-0.272
6.600E-07,-0.224
6.700E-07,0.012
6.800E-07,0.188
6.900E-07,0.208
7.000E-07,0.120
7.100E-07,0.012
7.200E-07,-0.092
7.300E-07,-0.148
7.400E-07,-0.108
7.500E-07,-0.056
7.600E-07,0.052
7.700E-07,0.124
7.800E-07,0.140
7.900E-07,0.108
8.000E-07,0.068
8.100E-07,-0.032
8.200E-07,-0.164
8.300E-07,-0.200
8.400E-07,-0.188
8.500E-07,-0.136
8.600E-07,0.012
8.700E-07,0.196
8.800E-07,0.272
8.900E-07,0.136
9.000E-07,-0.052
9.100E-07,-0.204
9.200E-07,-0.196
9.300E-07,-0.084
9.400E-07,0.060
9.500E-07,0.156
9.600E-07,0.140
9.700E-07,0.056
9.800E-07,-0.056
9.900E-07,-0.120
1.000E-06,-0.120
1.010E-06,-0.048
1.020E-06,0.040
1.030E-06,0.104
1.040E-06,0.104
1.050E-06,0.056
1.060E-06,-0.008
1.070E-06,-0.068
1.080E-06,-0.080
1.090E-06,-0.052
1.100E-06,0.012
1.110E-06,0.068
1.120E-06,0.092
1.130E-06,0.060
1.140E-06,0.012
1.150E-06,-0.040
1.160E-06,-0.060
1.170E-06,-0.044
1.180E-06,-0.008
1.190E-06,0.028
1.200E-06,0.044
1.210E-06,0.056
1.220E-06,0.040
1.230E-06,-0.008
1.240E-06,-0.056
1.250E-06,-0.048
1.260E-06,-0.024
1.270E-06,0.044
1.280E-06,0.096
1.290E-06,0.112
1.300E-06,0.068
1.310E-06,0.032
1.320E-06,0.000
1.330E-06,-0.044
1.340E-06,-0.092
1.350E-06,-0.080
1.360E-06,-0.024
1.370E-06,0.060
1.380E-06,0.104
1.390E-06,0.068
1.400E-06,0.016
1.410E-06,-0.032
1.420E-06,-0.036
1.430E-06,-0.032
1.440E-06,0.004
1.450E-06,0.004
1.460E-06,0.024
1.470E-06,0.032
1.480E-06,0.036
1.490E-06,0.028
1.500E-06,0.004
1.510E-06,-0.008
1.520E-06,-0.008
1.530E-06,0.012
1.540E-06,0.036
1.550E-06,0.064
1.560E-06,0.068
1.570E-06,0.068
1.580E-06,-0.028
1.590E-06,-0.108
1.600E-06,-0.132
1.610E-06,-0.128
1.620E-06,-0.100
1.630E-06,0.056
1.640E-06,0.156
1.650E-06,0.148
1.660E-06,0.036
1.670E-06,-0.112
1.680E-06,-0.152
1.690E-06,-0.108
1.700E-06,0.016
1.710E-06,0.100
1.720E-06,0.108
1.730E-06,0.028
1.740E-06,-0.032
1.750E-06,-0.060
1.760E-06,-0.048
1.770E-06,-0.008
1.780E-06,0.036
1.790E-06,0.060
1.800E-06,0.044
1.810E-06,0.024
1.820E-06,-0.016
1.830E-06,-0.028
1.840E-06,-0.012
1.850E-06,0.032
1.860E-06,0.056
1.870E-06,0.052
1.880E-06,0.016
1.890E-06,-0.016
1.900E-06,-0.040
1.910E-06,-0.036
1.920E-06,-0.004
1.930E-06,0.032
1.940E-06,0.048
1.950E-06,0.032
1.960E-06,-0.012
1.970E-06,-0.052
1.980E-06,-0.056
1.990E-06,-0.036
2.000E-06,0.020
2.010E-06,0.068
2.020E-06,0.064
2.030E-06,0.020
2.040E-06,-0.024
2.050E-06,-0.048
2.060E-06,-0.044
2.070E-06,0.000
2.080E-06,0.032
2.090E-06,0.056
2.100E-06,0.052
2.110E-06,0.032
2.120E-06,0.000
2.130E-06,-0.016
2.140E-06,-0.008
2.150E-06,0.004
2.160E-06,0.028
2.170E-06,0.032
2.180E-06,0.024
2.190E-06,0.008
2.200E-06,0.008
2.210E-06,0.020
2.220E-06,0.004
2.230E-06,-0.044
2.240E-06,-0.092
2.250E-06,-0.120
2.260E-06,-0.072
2.270E-06,0.060
2.280E-06,0.124
2.290E-06,0.092
2.300E-06,-0.020
2.310E-06,-0.092
2.320E-06,-0.088
2.330E-06,0.012
2.340E-06,0.080
2.350E-06,0.076
2.360E-06,0.016
2.370E-06,-0.036
2.380E-06,-0.060
2.390E-06,-0.056
2.400E-06,0.008
2.410E-06,0.024
2.420E-06,0.056
2.430E-06,0.032
2.440E-06,0.004
2.450E-06,-0.036
2.460E-06,-0.052
2.470E-06,-0.044
2.480E-06,-0.008
2.490E-06,0.036
2.500E-06,0.048
2.510E-06,0.056
2.520E-06,0.024
2.530E-06,-0.012
2.540E-06,-0.056
2.550E-06,-0.052
2.560E-06,-0.024
2.570E-06,0.032
2.580E-06,0.068
2.590E-06,0.060
2.600E-06,0.020
2.610E-06,-0.020
2.620E-06,-0.060
2.630E-06,-0.056
2.640E-06,-0.020
2.650E-06,0.028
2.660E-06,0.072
2.670E-06,0.080
2.680E-06,0.060
2.690E-06,0.008
2.700E-06,-0.044
2.710E-06,-0.076
2.720E-06,-0.068
2.730E-06,-0.020
2.740E-06,0.032
2.750E-06,0.076
2.760E-06,0.072
2.770E-06,0.024
2.780E-06,-0.036
2.790E-06,-0.072
2.800E-06,-0.060
2.810E-06,-0.012
2.820E-06,0.032
2.830E-06,0.060
2.840E-06,0.048
2.850E-06,0.012
2.860E-06,-0.024
2.870E-06,-0.032
2.880E-06,-0.016
2.890E-06,0.000
2.900E-06,0.040
2.910E-06,0.048
2.920E-06,0.052
2.930E-06,0.044
2.940E-06,0.024
2.950E-06,0.020
2.960E-06,0.016
2.970E-06,0.052
2.980E-06,0.092
2.990E-06,0.100
3.000E-06,0.092
3.010E-06,-0.012
3.020E-06,-0.180
3.030E-06,-0.256
3.040E-06,-0.180
3.050E-06,-0.028
3.060E-06,0.120
3.070E-06,0.260
3.080E-06,0.192
3.090E-06,0.000
3.100E-06,-0.188
3.110E-06,-0.256
3.120E-06,-0.104
3.130E-06,0.072
3.140E-06,0.208
3.150E-06,0.172
3.160E-06,0.084
3.170E-06,-0.072
3.180E-06,-0.136
3.190E-06,-0.104
3.200E-06,-0.008
3.210E-06,0.064
3.220E-06,0.108
