mediciones/Mediciones filtradas (saque las feas)/5-15/25/WaveData47420.csv

#timebase=2000000(ps)
,#voltbase=500000(mv/100)
#size=4000
-8.400E-06,0.040
-8.390E-06,0.020
-8.380E-06,0.060
-8.370E-06,0.020
-8.360E-06,0.040
-8.350E-06,0.040
-8.340E-06,0.060
-8.330E-06,0.040
-8.320E-06,0.060
-8.310E-06,0.080
-8.300E-06,0.060
-8.290E-06,0.020
-8.280E-06,0.040
-8.270E-06,0.080
-8.260E-06,0.040
-8.250E-06,0.060
-8.240E-06,0.060
-8.230E-06,0.040
-8.220E-06,0.040
-8.210E-06,0.040
-8.200E-06,0.060
-8.190E-06,0.040
-8.180E-06,0.060
-8.170E-06,0.080
-8.160E-06,0.080
-8.150E-06,0.040
-8.140E-06,0.020
-8.130E-06,0.040
-8.120E-06,0.040
-8.110E-06,0.040
-8.100E-06,0.060
-8.090E-06,0.040
-8.080E-06,0.060
-8.070E-06,0.060
-8.060E-06,0.080
-8.050E-06,0.060
-8.040E-06,0.080
-8.030E-06,0.040
-8.020E-06,0.040
-8.010E-06,0.060
-8.000E-06,0.040
-7.990E-06,0.060
-7.980E-06,0.060
-7.970E-06,0.060
-7.960E-06,0.040
-7.950E-06,0.040
-7.940E-06,0.060
-7.930E-06,0.040
-7.920E-06,0.040
-7.910E-06,0.060
-7.900E-06,0.040
-7.890E-06,0.060
-7.880E-06,0.080
-7.870E-06,0.040
-7.860E-06,0.060
-7.850E-06,0.080
-7.840E-06,0.060
-7.830E-06,0.060
-7.820E-06,0.040
-7.810E-06,0.080
-7.800E-06,0.060
-7.790E-06,0.060
-7.780E-06,0.060
-7.770E-06,0.040
-7.760E-06,0.040
-7.750E-06,0.060
-7.740E-06,0.040
-7.730E-06,0.040
-7.720E-06,0.040
-7.710E-06,0.060
-7.700E-06,0.040
-7.690E-06,0.060
-7.680E-06,0.080
-7.670E-06,0.080
-7.660E-06,0.020
-7.650E-06,0.040
-7.640E-06,0.060
-7.630E-06,0.060
-7.620E-06,0.060
-7.610E-06,0.060
-7.600E-06,0.060
-7.590E-06,0.060
-7.580E-06,0.040
-7.570E-06,0.040
-7.560E-06,0.060
-7.550E-06,0.080
-7.540E-06,0.020
-7.530E-06,0.040
-7.520E-06,0.060
-7.510E-06,0.060
-7.500E-06,0.040
-7.490E-06,0.060
-7.480E-06,0.080
-7.470E-06,0.040
-7.460E-06,0.060
-7.450E-06,0.020
-7.440E-06,0.020
-7.430E-06,0.060
-7.420E-06,0.020
-7.410E-06,0.040
-7.400E-06,0.080
-7.390E-06,0.060
-7.380E-06,0.040
-7.370E-06,0.020
-7.360E-06,0.060
-7.350E-06,0.020
-7.340E-06,0.060
-7.330E-06,0.060
-7.320E-06,0.040
-7.310E-06,0.040
-7.300E-06,0.020
-7.290E-06,0.060
-7.280E-06,0.060
-7.270E-06,0.040
-7.260E-06,0.060
-7.250E-06,0.040
-7.240E-06,0.040
-7.230E-06,0.080
-7.220E-06,0.040
-7.210E-06,0.040
-7.200E-06,0.040
-7.190E-06,0.080
-7.180E-06,0.040
-7.170E-06,0.040
-7.160E-06,0.060
-7.150E-06,0.080
-7.140E-06,0.040
-7.130E-06,0.060
-7.120E-06,0.020
-7.110E-06,0.060
-7.100E-06,0.040
-7.090E-06,0.060
-7.080E-06,0.040
-7.070E-06,0.040
-7.060E-06,0.040
-7.050E-06,0.040
-7.040E-06,0.040
-7.030E-06,0.060
-7.020E-06,0.080
-7.010E-06,0.040
-7.000E-06,0.040
-6.990E-06,0.060
-6.980E-06,0.040
-6.970E-06,0.040
-6.960E-06,0.060
-6.950E-06,0.040
-6.940E-06,0.080
-6.930E-06,0.020
-6.920E-06,0.040
-6.910E-06,0.080
-6.900E-06,0.060
-6.890E-06,0.060
-6.880E-06,0.060
-6.870E-06,0.020
-6.860E-06,0.020
-6.850E-06,0.060
-6.840E-06,0.060
-6.830E-06,0.020
-6.820E-06,0.040
-6.810E-06,0.040
-6.800E-06,0.060
-6.790E-06,0.060
-6.780E-06,0.020
-6.770E-06,0.060
-6.760E-06,0.020
-6.750E-06,0.060
-6.740E-06,0.060
-6.730E-06,0.060
-6.720E-06,0.080
-6.710E-06,0.040
-6.700E-06,0.040
-6.690E-06,0.060
-6.680E-06,0.080
-6.670E-06,0.040
-6.660E-06,0.060
-6.650E-06,0.080
-6.640E-06,0.060
-6.630E-06,0.040
-6.620E-06,0.060
-6.610E-06,0.080
-6.600E-06,0.060
-6.590E-06,0.060
-6.580E-06,0.060
-6.570E-06,0.060
-6.560E-06,0.060
-6.550E-06,0.060
-6.540E-06,0.020
-6.530E-06,0.020
-6.520E-06,0.040
-6.510E-06,0.060
-6.500E-06,0.060
-6.490E-06,0.060
-6.480E-06,0.040
-6.470E-06,0.020
-6.460E-06,0.040
-6.450E-06,0.040
-6.440E-06,0.060
-6.430E-06,0.040
-6.420E-06,0.060
-6.410E-06,0.060
-6.400E-06,0.020
-6.390E-06,0.060
-6.380E-06,0.060
-6.370E-06,0.040
-6.360E-06,0.020
-6.350E-06,0.020
-6.340E-06,0.060
-6.330E-06,0.080
-6.320E-06,0.080
-6.310E-06,0.060
-6.300E-06,0.060
-6.290E-06,0.040
-6.280E-06,0.020
-6.270E-06,0.060
-6.260E-06,0.040
-6.250E-06,0.040
-6.240E-06,0.080
-6.230E-06,0.060
-6.220E-06,0.020
-6.210E-06,0.040
-6.200E-06,0.020
-6.190E-06,0.040
-6.180E-06,0.040
-6.170E-06,0.040
-6.160E-06,0.020
-6.150E-06,0.040
-6.140E-06,0.020
-6.130E-06,0.060
-6.120E-06,0.040
-6.110E-06,0.060
-6.100E-06,0.060
-6.090E-06,0.020
-6.080E-06,0.060
-6.070E-06,0.040
-6.060E-06,0.040
-6.050E-06,0.040
-6.040E-06,0.040
-6.030E-06,0.040
-6.020E-06,0.040
-6.010E-06,0.040
-6.000E-06,0.060
-5.990E-06,0.060
-5.980E-06,0.020
-5.970E-06,0.040
-5.960E-06,0.040
-5.950E-06,0.060
-5.940E-06,0.040
-5.930E-06,0.020
-5.920E-06,0.040
-5.910E-06,0.060
-5.900E-06,0.040
-5.890E-06,0.080
-5.880E-06,0.040
-5.870E-06,0.040
-5.860E-06,0.080
-5.850E-06,0.060
-5.840E-06,0.060
-5.830E-06,0.080
-5.820E-06,0.020
-5.810E-06,0.060
-5.800E-06,0.080
-5.790E-06,0.040
-5.780E-06,0.040
-5.770E-06,0.060
-5.760E-06,0.060
-5.750E-06,0.040
-5.740E-06,0.020
-5.730E-06,0.040
-5.720E-06,0.060
-5.710E-06,0.020
-5.700E-06,0.020
-5.690E-06,0.040
-5.680E-06,0.020
-5.670E-06,0.060
-5.660E-06,0.060
-5.650E-06,0.060
-5.640E-06,0.060
-5.630E-06,0.040
-5.620E-06,0.040
-5.610E-06,0.060
-5.600E-06,0.080
-5.590E-06,0.060
-5.580E-06,0.080
-5.570E-06,0.040
-5.560E-06,0.040
-5.550E-06,0.040
-5.540E-06,0.060
-5.530E-06,0.020
-5.520E-06,0.040
-5.510E-06,0.060
-5.500E-06,0.040
-5.490E-06,0.060
-5.480E-06,0.060
-5.470E-06,0.060
-5.460E-06,0.060
-5.450E-06,0.020
-5.440E-06,0.040
-5.430E-06,0.060
-5.420E-06,0.060
-5.410E-06,0.060
-5.400E-06,0.060
-5.390E-06,0.040
-5.380E-06,0.020
-5.370E-06,0.040
-5.360E-06,0.020
-5.350E-06,0.020
-5.340E-06,0.040
-5.330E-06,0.060
-5.320E-06,0.040
-5.310E-06,0.060
-5.300E-06,0.080
-5.290E-06,0.040
-5.280E-06,0.020
-5.270E-06,0.040
-5.260E-06,0.020
-5.250E-06,0.040
-5.240E-06,0.040
-5.230E-06,0.080
-5.220E-06,0.060
-5.210E-06,0.060
-5.200E-06,0.040
-5.190E-06,0.040
-5.180E-06,0.040
-5.170E-06,0.060
-5.160E-06,0.080
-5.150E-06,0.060
-5.140E-06,0.040
-5.130E-06,0.060
-5.120E-06,0.060
-5.110E-06,0.020
-5.100E-06,0.060
-5.090E-06,0.080
-5.080E-06,0.040
-5.070E-06,0.040
-5.060E-06,0.060
-5.050E-06,0.020
-5.040E-06,0.060
-5.030E-06,0.040
-5.020E-06,0.060
-5.010E-06,0.020
-5.000E-06,0.060
-4.990E-06,0.060
-4.980E-06,0.060
-4.970E-06,0.080
-4.960E-06,0.060
-4.950E-06,0.080
-4.940E-06,0.040
-4.930E-06,0.060
-4.920E-06,0.060
-4.910E-06,0.060
-4.900E-06,0.060
-4.890E-06,0.080
-4.880E-06,0.080
-4.870E-06,0.060
-4.860E-06,0.080
-4.850E-06,0.060
-4.840E-06,0.060
-4.830E-06,0.060
-4.820E-06,0.040
-4.810E-06,0.060
-4.800E-06,0.080
-4.790E-06,0.060
-4.780E-06,0.040
-4.770E-06,0.040
-4.760E-06,0.040
-4.750E-06,0.060
-4.740E-06,0.060
-4.730E-06,0.040
-4.720E-06,0.020
-4.710E-06,0.060
-4.700E-06,0.060
-4.690E-06,0.040
-4.680E-06,0.060
-4.670E-06,0.060
-4.660E-06,0.060
-4.650E-06,0.060
-4.640E-06,0.020
-4.630E-06,0.020
-4.620E-06,0.040
-4.610E-06,0.020
-4.600E-06,0.040
-4.590E-06,0.040
-4.580E-06,0.060
-4.570E-06,0.080
-4.560E-06,0.060
-4.550E-06,0.060
-4.540E-06,0.020
-4.530E-06,0.020
-4.520E-06,0.040
-4.510E-06,0.040
-4.500E-06,0.040
-4.490E-06,0.020
-4.480E-06,0.040
-4.470E-06,0.060
-4.460E-06,0.020
-4.450E-06,0.020
-4.440E-06,0.040
-4.430E-06,0.040
-4.420E-06,0.080
-4.410E-06,0.060
-4.400E-06,0.040
-4.390E-06,0.060
-4.380E-06,0.060
-4.370E-06,0.080
-4.360E-06,0.040
-4.350E-06,0.020
-4.340E-06,0.060
-4.330E-06,0.040
-4.320E-06,0.040
-4.310E-06,0.060
-4.300E-06,0.040
-4.290E-06,0.020
-4.280E-06,0.040
-4.270E-06,0.060
-4.260E-06,0.060
-4.250E-06,0.020
-4.240E-06,0.000
-4.230E-06,0.040
-4.220E-06,0.020
-4.210E-06,0.040
-4.200E-06,0.020
-4.190E-06,0.040
-4.180E-06,0.060
-4.170E-06,0.040
-4.160E-06,0.060
-4.150E-06,0.040
-4.140E-06,0.040
-4.130E-06,0.040
-4.120E-06,0.040
-4.110E-06,0.080
-4.100E-06,0.040
-4.090E-06,0.060
-4.080E-06,0.020
-4.070E-06,0.040
-4.060E-06,0.040
-4.050E-06,0.020
-4.040E-06,0.020
-4.030E-06,0.040
-4.020E-06,0.040
-4.010E-06,0.000
-4.000E-06,0.000
-3.990E-06,0.000
-3.980E-06,-0.020
-3.970E-06,0.020
-3.960E-06,0.020
-3.950E-06,0.040
-3.940E-06,0.040
-3.930E-06,0.040
-3.920E-06,0.040
-3.910E-06,0.060
-3.900E-06,0.040
-3.890E-06,0.040
-3.880E-06,0.060
-3.870E-06,0.040
-3.860E-06,0.020
-3.850E-06,0.040
-3.840E-06,0.040
-3.830E-06,0.040
-3.820E-06,-0.020
-3.810E-06,0.000
-3.800E-06,0.000
-3.790E-06,0.000
-3.780E-06,-0.020
-3.770E-06,0.000
-3.760E-06,0.000
-3.750E-06,0.000
-3.740E-06,0.000
-3.730E-06,0.000
-3.720E-06,0.000
-3.710E-06,0.000
-3.700E-06,0.000
-3.690E-06,0.000
-3.680E-06,0.020
-3.670E-06,0.020
-3.660E-06,0.020
-3.650E-06,0.020
-3.640E-06,0.020
-3.630E-06,0.000
-3.620E-06,0.000
-3.610E-06,0.000
-3.600E-06,0.020
-3.590E-06,0.020
-3.580E-06,0.020
-3.570E-06,0.040
-3.560E-06,0.020
-3.550E-06,0.020
-3.540E-06,-0.020
-3.530E-06,0.000
-3.520E-06,-0.020
-3.510E-06,-0.020
-3.500E-06,-0.040
-3.490E-06,-0.040
-3.480E-06,0.000
-3.470E-06,-0.020
-3.460E-06,-0.020
-3.450E-06,-0.060
-3.440E-06,-0.020
-3.430E-06,0.000
-3.420E-06,-0.020
-3.410E-06,0.000
-3.400E-06,-0.040
-3.390E-06,-0.060
-3.380E-06,-0.040
-3.370E-06,-0.020
-3.360E-06,-0.020
-3.350E-06,-0.060
-3.340E-06,-0.080
-3.330E-06,-0.100
-3.320E-06,-0.120
-3.310E-06,-0.100
-3.300E-06,-0.140
-3.290E-06,-0.140
-3.280E-06,-0.120
-3.270E-06,-0.120
-3.260E-06,-0.120
-3.250E-06,-0.120
-3.240E-06,-0.100
-3.230E-06,-0.060
-3.220E-06,-0.100
-3.210E-06,-0.120
-3.200E-06,-0.080
-3.190E-06,-0.100
-3.180E-06,-0.100
-3.170E-06,-0.060
-3.160E-06,-0.040
-3.150E-06,-0.060
-3.140E-06,-0.020
-3.130E-06,-0.020
-3.120E-06,-0.020
-3.110E-06,-0.020
-3.100E-06,0.020
-3.090E-06,-0.020
-3.080E-06,-0.020
-3.070E-06,0.000
-3.060E-06,-0.020
-3.050E-06,-0.040
-3.040E-06,0.000
-3.030E-06,-0.020
-3.020E-06,-0.020
-3.010E-06,-0.040
-3.000E-06,-0.060
-2.990E-06,-0.060
-2.980E-06,-0.040
-2.970E-06,-0.080
-2.960E-06,-0.080
-2.950E-06,-0.060
-2.940E-06,-0.040
-2.930E-06,-0.060
-2.920E-06,-0.060
-2.910E-06,-0.060
-2.900E-06,-0.080
-2.890E-06,-0.060
-2.880E-06,-0.040
-2.870E-06,-0.040
-2.860E-06,-0.040
-2.850E-06,-0.080
-2.840E-06,-0.100
-2.830E-06,-0.080
-2.820E-06,-0.080
-2.810E-06,-0.080
-2.800E-06,-0.080
-2.790E-06,-0.100
-2.780E-06,-0.100
-2.770E-06,-0.080
-2.760E-06,-0.080
-2.750E-06,-0.100
-2.740E-06,-0.060
-2.730E-06,-0.040
-2.720E-06,-0.060
-2.710E-06,-0.080
-2.700E-06,-0.060
-2.690E-06,-0.060
-2.680E-06,-0.080
-2.670E-06,-0.100
-2.660E-06,-0.140
-2.650E-06,-0.100
-2.640E-06,-0.120
-2.630E-06,-0.080
-2.620E-06,-0.080
-2.610E-06,-0.080
-2.600E-06,-0.100
-2.590E-06,-0.100
-2.580E-06,-0.120
-2.570E-06,-0.120
-2.560E-06,-0.120
-2.550E-06,-0.160
-2.540E-06,-0.180
-2.530E-06,-0.160
-2.520E-06,-0.220
-2.510E-06,-0.220
-2.500E-06,-0.280
-2.490E-06,-0.280
-2.480E-06,-0.300
-2.470E-06,-0.320
-2.460E-06,-0.340
-2.450E-06,-0.360
-2.440E-06,-0.360
-2.430E-06,-0.380
-2.420E-06,-0.380
-2.410E-06,-0.420
-2.400E-06,-0.480
-2.390E-06,-0.460
-2.380E-06,-0.480
-2.370E-06,-0.480
-2.360E-06,-0.460
-2.350E-06,-0.480
-2.340E-06,-0.480
-2.330E-06,-0.440
-2.320E-06,-0.460
-2.310E-06,-0.440
-2.300E-06,-0.440
-2.290E-06,-0.420
-2.280E-06,-0.420
-2.270E-06,-0.420
-2.260E-06,-0.420
-2.250E-06,-0.480
-2.240E-06,-0.520
-2.230E-06,-0.520
-2.220E-06,-0.560
-2.210E-06,-0.580
-2.200E-06,-0.580
-2.190E-06,-0.560
-2.180E-06,-0.560
-2.170E-06,-0.580
-2.160E-06,-0.580
-2.150E-06,-0.620
-2.140E-06,-0.600
-2.130E-06,-0.620
-2.120E-06,-0.600
-2.110E-06,-0.600
-2.100E-06,-0.600
-2.090E-06,-0.600
-2.080E-06,-0.620
-2.070E-06,-0.600
-2.060E-06,-0.580
-2.050E-06,-0.580
-2.040E-06,-0.560
-2.030E-06,-0.580
-2.020E-06,-0.580
-2.010E-06,-0.560
-2.000E-06,-0.580
-1.990E-06,-0.500
-1.980E-06,-0.540
-1.970E-06,-0.480
-1.960E-06,-0.480
-1.950E-06,-0.460
-1.940E-06,-0.420
-1.930E-06,-0.400
-1.920E-06,-0.420
-1.910E-06,-0.440
-1.900E-06,-0.460
-1.890E-06,-0.400
-1.880E-06,-0.440
-1.870E-06,-0.380
-1.860E-06,-0.340
-1.850E-06,-0.360
-1.840E-06,-0.340
-1.830E-06,-0.340
-1.820E-06,-0.340
-1.810E-06,-0.260
-1.800E-06,-0.320
-1.790E-06,-0.380
-1.780E-06,-0.400
-1.770E-06,-0.460
-1.760E-06,-0.440
-1.750E-06,-0.460
-1.740E-06,-0.480
-1.730E-06,-0.520
-1.720E-06,-0.560
-1.710E-06,-0.620
-1.700E-06,-0.640
-1.690E-06,-0.660
-1.680E-06,-0.660
-1.670E-06,-0.660
-1.660E-06,-0.600
-1.650E-06,-0.560
-1.640E-06,-0.520
-1.630E-06,-0.400
-1.620E-06,-0.360
-1.610E-06,-0.300
-1.600E-06,-0.280
-1.590E-06,-0.280
-1.580E-06,-0.280
-1.570E-06,-0.280
-1.560E-06,-0.300
-1.550E-06,-0.300
-1.540E-06,-0.320
-1.530E-06,-0.340
-1.520E-06,-0.320
-1.510E-06,-0.320
-1.500E-06,-0.340
-1.490E-06,-0.320
-1.480E-06,-0.300
-1.470E-06,-0.320
-1.460E-06,-0.320
-1.450E-06,-0.340
-1.440E-06,-0.360
-1.430E-06,-0.360
-1.420E-06,-0.360
-1.410E-06,-0.360
-1.400E-06,-0.380
-1.390E-06,-0.440
-1.380E-06,-0.500
-1.370E-06,-0.520
-1.360E-06,-0.580
-1.350E-06,-0.580
-1.340E-06,-0.520
-1.330E-06,-0.560
-1.320E-06,-0.560
-1.310E-06,-0.600
-1.300E-06,-0.640
-1.290E-06,-0.580
-1.280E-06,-0.560
-1.270E-06,-0.460
-1.260E-06,-0.340
-1.250E-06,-0.300
-1.240E-06,-0.260
-1.230E-06,-0.240
-1.220E-06,-0.260
-1.210E-06,-0.300
-1.200E-06,-0.300
-1.190E-06,-0.340
-1.180E-06,-0.380
-1.170E-06,-0.420
-1.160E-06,-0.520
-1.150E-06,-0.460
-1.140E-06,-0.580
-1.130E-06,-0.500
-1.120E-06,-0.620
-1.110E-06,-0.580
-1.100E-06,-0.660
-1.090E-06,-0.680
-1.080E-06,-0.680
-1.070E-06,-0.640
-1.060E-06,-0.720
-1.050E-06,-0.800
-1.040E-06,-0.880
-1.030E-06,-1.000
-1.020E-06,-1.000
-1.010E-06,-1.120
-1.000E-06,-1.160
-9.900E-07,-1.320
-9.800E-07,-1.280
-9.700E-07,-1.400
-9.600E-07,-1.280
-9.500E-07,-1.280
-9.400E-07,-1.280
-9.300E-07,-1.300
-9.200E-07,-1.340
-9.100E-07,-1.380
-9.000E-07,-1.320
-8.900E-07,-1.360
-8.800E-07,-1.280
-8.700E-07,-1.300
-8.600E-07,-1.280
-8.500E-07,-1.260
-8.400E-07,-1.180
-8.300E-07,-1.160
-8.200E-07,-1.140
-8.100E-07,-1.080
-8.000E-07,-1.000
-7.900E-07,-0.940
-7.800E-07,-0.860
-7.700E-07,-0.860
-7.600E-07,-0.840
-7.500E-07,-0.860
-7.400E-07,-0.860
-7.300E-07,-0.920
-7.200E-07,-0.960
-7.100E-07,-1.000
-7.000E-07,-0.980
-6.900E-07,-0.980
-6.800E-07,-0.960
-6.700E-07,-0.900
-6.600E-07,-0.860
-6.500E-07,-0.840
-6.400E-07,-0.800
-6.300E-07,-0.840
-6.200E-07,-0.800
-6.100E-07,-0.800
-6.000E-07,-0.780
-5.900E-07,-0.800
-5.800E-07,-0.820
-5.700E-07,-0.840
-5.600E-07,-0.840
-5.500E-07,-0.800
-5.400E-07,-0.840
-5.300E-07,-0.840
-5.200E-07,-0.880
-5.100E-07,-0.940
-5.000E-07,-1.000
-4.900E-07,-1.040
-4.800E-07,-1.040
-4.700E-07,-1.120
-4.600E-07,-1.140
-4.500E-07,-1.220
-4.400E-07,-1.280
-4.300E-07,-1.440
-4.200E-07,-1.520
-4.100E-07,-1.680
-4.000E-07,-1.780
-3.900E-07,-1.940
-3.800E-07,-2.160
-3.700E-07,-2.400
-3.600E-07,-2.440
-3.500E-07,-2.440
-3.400E-07,-2.500
-3.300E-07,-2.460
-3.200E-07,-2.540
-3.100E-07,-2.540
-3.000E-07,-2.660
-2.900E-07,-2.660
-2.800E-07,-2.620
-2.700E-07,-2.660
-2.600E-07,-2.580
-2.500E-07,-2.600
-2.400E-07,-2.580
-2.300E-07,-2.520
-2.200E-07,-2.500
-2.100E-07,-2.380
-2.000E-07,-2.340
-1.900E-07,-2.320
-1.800E-07,-2.260
-1.700E-07,-2.180
-1.600E-07,-2.120
-1.500E-07,-2.000
-1.400E-07,-1.940
-1.300E-07,-1.900
-1.200E-07,-1.920
-1.100E-07,-1.920
-1.000E-07,-1.900
-9.000E-08,-1.880
-8.000E-08,-1.740
-7.000E-08,-1.880
-6.000E-08,-1.440
-5.000E-08,1.400
-4.000E-08,-0.420
-3.000E-08,2.780
-2.000E-08,1.240
-1.000E-08,2.500
0.000E+00,1.780
1.000E-08,1.320
2.000E-08,0.780
3.000E-08,1.660
4.000E-08,-1.060
5.000E-08,-0.160
6.000E-08,-1.840
7.000E-08,-1.940
8.000E-08,-1.440
9.000E-08,-1.660
1.000E-07,-2.000
1.100E-07,-2.220
1.200E-07,-2.180
1.300E-07,-2.240
1.400E-07,-1.940
1.500E-07,-2.020
1.600E-07,-2.440
1.700E-07,-2.380
1.800E-07,-2.320
1.900E-07,-2.380
2.000E-07,-2.280
2.100E-07,-2.300
2.200E-07,-2.320
2.300E-07,-2.140
2.400E-07,-2.040
2.500E-07,-2.020
2.600E-07,-2.040
2.700E-07,-1.980
2.800E-07,-2.020
2.900E-07,-2.160
3.000E-07,-2.180
3.100E-07,-2.440
3.200E-07,-2.440
3.300E-07,-2.500
3.400E-07,-2.660
3.500E-07,-2.660
3.600E-07,-2.680
3.700E-07,-2.660
3.800E-07,-2.660
3.900E-07,-2.660
4.000E-07,-2.660
4.100E-07,-2.660
4.200E-07,-2.660
4.300E-07,-2.640
4.400E-07,-2.640
4.500E-07,-2.660
4.600E-07,-2.660
4.700E-07,-2.660
4.800E-07,-2.660
4.900E-07,-2.660
5.000E-07,-2.660
5.100E-07,-2.660
5.200E-07,-2.500
5.300E-07,-2.340
5.400E-07,-2.280
5.500E-07,-2.280
5.600E-07,-2.240
5.700E-07,-2.220
5.800E-07,-2.200
5.900E-07,-2.280
6.000E-07,-2.320
6.100E-07,-2.320
6.200E-07,-2.400
6.300E-07,-2.420
6.400E-07,-2.500
6.500E-07,-2.500
6.600E-07,-2.440
6.700E-07,-2.380
6.800E-07,-2.420
6.900E-07,-2.380
7.000E-07,-2.560
7.100E-07,-2.360
7.200E-07,-2.460
7.300E-07,-2.220
7.400E-07,-2.100
7.500E-07,-1.980
7.600E-07,-1.920
7.700E-07,-1.820
7.800E-07,-1.820
7.900E-07,-1.680
8.000E-07,-1.800
8.100E-07,-1.800
8.200E-07,-1.940
8.300E-07,-2.000
8.400E-07,-2.020
8.500E-07,-2.140
8.600E-07,-2.240
8.700E-07,-2.420
8.800E-07,-2.620
8.900E-07,-2.660
9.000E-07,-2.660
9.100E-07,-2.640
9.200E-07,-2.640
9.300E-07,-2.640
9.400E-07,-2.640
9.500E-07,-2.640
9.600E-07,-2.660
9.700E-07,-2.660
9.800E-07,-2.660
9.900E-07,-2.660
1.000E-06,-2.660
1.010E-06,-2.660
1.020E-06,-2.660
1.030E-06,-2.660
1.040E-06,-2.680
1.050E-06,-2.660
1.060E-06,-2.660
1.070E-06,-2.660
1.080E-06,-2.660
1.090E-06,-2.660
1.100E-06,-2.660
1.110E-06,-2.660
1.120E-06,-2.660
1.130E-06,-2.640
1.140E-06,-2.660
1.150E-06,-2.660
1.160E-06,-2.660
1.170E-06,-2.660
1.180E-06,-2.660
1.190E-06,-2.660
1.200E-06,-2.660
1.210E-06,-2.660
1.220E-06,-2.640
1.230E-06,-2.640
1.240E-06,-2.660
1.250E-06,-2.660
1.260E-06,-2.680
1.270E-06,-2.420
1.280E-06,-2.160
1.290E-06,-1.660
1.300E-06,-1.200
1.310E-06,-0.840
1.320E-06,-0.460
1.330E-06,-0.240
1.340E-06,-0.140
1.350E-06,-0.080
1.360E-06,-0.220
1.370E-06,-0.400
1.380E-06,-0.620
1.390E-06,-0.880
1.400E-06,-1.080
1.410E-06,-1.280
1.420E-06,-1.440
1.430E-06,-1.600
1.440E-06,-1.720
1.450E-06,-1.740
1.460E-06,-1.660
1.470E-06,-1.520
1.480E-06,-1.380
1.490E-06,-1.200
1.500E-06,-1.020
1.510E-06,-0.880
1.520E-06,-0.720
1.530E-06,-0.620
1.540E-06,-0.520
1.550E-06,-0.480
1.560E-06,-0.400
1.570E-06,-0.460
1.580E-06,-0.480
1.590E-06,-0.540
1.600E-06,-0.600
1.610E-06,-0.600
1.620E-06,-0.540
1.630E-06,-0.460
1.640E-06,-0.340
1.650E-06,-0.300
1.660E-06,-0.260
1.670E-06,-0.200
1.680E-06,-0.180
1.690E-06,-0.240
1.700E-06,-0.360
1.710E-06,-0.400
1.720E-06,-0.580
1.730E-06,-0.680
1.740E-06,-0.860
1.750E-06,-1.000
1.760E-06,-1.140
1.770E-06,-1.300
1.780E-06,-1.500
1.790E-06,-1.640
1.800E-06,-1.740
1.810E-06,-1.880
1.820E-06,-1.980
1.830E-06,-2.100
1.840E-06,-2.200
1.850E-06,-2.320
1.860E-06,-2.460
1.870E-06,-2.580
1.880E-06,-2.680
1.890E-06,-2.680
1.900E-06,-2.680
1.910E-06,-2.680
1.920E-06,-2.660
1.930E-06,-2.660
1.940E-06,-2.660
1.950E-06,-2.660
1.960E-06,-2.660
1.970E-06,-2.660
1.980E-06,-2.660
1.990E-06,-2.660
2.000E-06,-2.660
2.010E-06,-2.680
2.020E-06,-2.660
2.030E-06,-2.660
2.040E-06,-2.660
2.050E-06,-2.660
2.060E-06,-2.660
2.070E-06,-2.660
2.080E-06,-2.660
2.090E-06,-2.660
2.100E-06,-2.660
2.110E-06,-2.660
2.120E-06,-2.660
2.130E-06,-2.660
2.140E-06,-2.660
2.150E-06,-2.660
2.160E-06,-2.660
2.170E-06,-2.660
2.180E-06,-2.620
2.190E-06,-2.360
2.200E-06,-2.100
2.210E-06,-1.840
2.220E-06,-1.600
2.230E-06,-1.380
2.240E-06,-1.140
2.250E-06,-0.960
2.260E-06,-0.760
2.270E-06,-0.600
2.280E-06,-0.400
2.290E-06,-0.240
2.300E-06,-0.120
2.310E-06,0.000
2.320E-06,0.100
2.330E-06,0.180
2.340E-06,0.260
2.350E-06,0.320
2.360E-06,0.340
2.370E-06,0.380
2.380E-06,0.360
2.390E-06,0.360
2.400E-06,0.340
2.410E-06,0.320
2.420E-06,0.300
2.430E-06,0.260
2.440E-06,0.220
2.450E-06,0.180
2.460E-06,0.180
2.470E-06,0.140
2.480E-06,0.060
2.490E-06,0.080
2.500E-06,0.040
2.510E-06,0.020
2.520E-06,0.020
2.530E-06,0.020
2.540E-06,0.020
2.550E-06,0.060
2.560E-06,0.040
2.570E-06,0.040
2.580E-06,0.080
2.590E-06,0.100
2.600E-06,0.140
2.610E-06,0.180
2.620E-06,0.180
2.630E-06,0.220
2.640E-06,0.260
2.650E-06,0.300
2.660E-06,0.320
2.670E-06,0.380
2.680E-06,0.420
2.690E-06,0.440
2.700E-06,0.460
2.710E-06,0.520
2.720E-06,0.500
2.730E-06,0.540
2.740E-06,0.540
2.750E-06,0.600
2.760E-06,0.620
2.770E-06,0.640
2.780E-06,0.640
2.790E-06,0.640
2.800E-06,0.640
2.810E-06,0.620
2.820E-06,0.580
2.830E-06,0.560
2.840E-06,0.520
2.850E-06,0.480
2.860E-06,0.460
2.870E-06,0.420
2.880E-06,0.440
2.890E-06,0.480
2.900E-06,0.500
2.910E-06,0.520
2.920E-06,0.620
2.930E-06,0.660
2.940E-06,0.720
2.950E-06,0.740
2.960E-06,0.820
2.970E-06,0.860
2.980E-06,0.880
2.990E-06,0.900
3.000E-06,0.920
3.010E-06,0.860
3.020E-06,0.840
3.030E-06,0.760
3.040E-06,0.720
3.050E-06,0.680
3.060E-06,0.600
3.070E-06,0.580
3.080E-06,0.540
3.090E-06,0.500
3.100E-06,0.480
3.110E-06,0.460
3.120E-06,0.440
3.130E-06,0.380
3.140E-06,0.340
3.150E-06,0.340
3.160E-06,0.340
3.170E-06,0.340
