mediciones/Mediciones filtradas (saque las feas)/5-15/25/WaveData47424.csv

#timebase=2000000(ps)
,#voltbase=500000(mv/100)
#size=4000
-8.400E-06,0.040
-8.390E-06,0.040
-8.380E-06,0.060
-8.370E-06,0.060
-8.360E-06,0.060
-8.350E-06,0.060
-8.340E-06,0.060
-8.330E-06,0.040
-8.320E-06,0.040
-8.310E-06,0.080
-8.300E-06,0.060
-8.290E-06,0.080
-8.280E-06,0.020
-8.270E-06,0.040
-8.260E-06,0.060
-8.250E-06,0.060
-8.240E-06,0.020
-8.230E-06,0.040
-8.220E-06,0.060
-8.210E-06,0.020
-8.200E-06,0.040
-8.190E-06,0.060
-8.180E-06,0.080
-8.170E-06,0.040
-8.160E-06,0.040
-8.150E-06,0.060
-8.140E-06,0.060
-8.130E-06,0.060
-8.120E-06,0.020
-8.110E-06,0.060
-8.100E-06,0.080
-8.090E-06,0.060
-8.080E-06,0.040
-8.070E-06,0.060
-8.060E-06,0.080
-8.050E-06,0.060
-8.040E-06,0.040
-8.030E-06,0.020
-8.020E-06,0.040
-8.010E-06,0.020
-8.000E-06,0.040
-7.990E-06,0.060
-7.980E-06,0.040
-7.970E-06,0.020
-7.960E-06,0.020
-7.950E-06,0.060
-7.940E-06,0.040
-7.930E-06,0.020
-7.920E-06,0.040
-7.910E-06,0.040
-7.900E-06,0.040
-7.890E-06,0.080
-7.880E-06,0.040
-7.870E-06,0.040
-7.860E-06,0.040
-7.850E-06,0.060
-7.840E-06,0.040
-7.830E-06,0.040
-7.820E-06,0.040
-7.810E-06,0.040
-7.800E-06,0.040
-7.790E-06,0.060
-7.780E-06,0.060
-7.770E-06,0.040
-7.760E-06,0.040
-7.750E-06,0.040
-7.740E-06,0.060
-7.730E-06,0.080
-7.720E-06,0.080
-7.710E-06,0.080
-7.700E-06,0.040
-7.690E-06,0.040
-7.680E-06,0.060
-7.670E-06,0.040
-7.660E-06,0.060
-7.650E-06,0.060
-7.640E-06,0.060
-7.630E-06,0.020
-7.620E-06,0.040
-7.610E-06,0.040
-7.600E-06,0.060
-7.590E-06,0.040
-7.580E-06,0.020
-7.570E-06,0.000
-7.560E-06,0.040
-7.550E-06,0.000
-7.540E-06,0.040
-7.530E-06,0.020
-7.520E-06,0.040
-7.510E-06,0.060
-7.500E-06,0.040
-7.490E-06,0.060
-7.480E-06,0.060
-7.470E-06,0.020
-7.460E-06,0.040
-7.450E-06,0.040
-7.440E-06,0.060
-7.430E-06,0.040
-7.420E-06,0.060
-7.410E-06,0.080
-7.400E-06,0.040
-7.390E-06,0.040
-7.380E-06,0.080
-7.370E-06,0.060
-7.360E-06,0.020
-7.350E-06,0.040
-7.340E-06,0.040
-7.330E-06,0.040
-7.320E-06,0.080
-7.310E-06,0.040
-7.300E-06,0.040
-7.290E-06,0.060
-7.280E-06,0.040
-7.270E-06,0.060
-7.260E-06,0.060
-7.250E-06,0.080
-7.240E-06,0.060
-7.230E-06,0.040
-7.220E-06,0.020
-7.210E-06,0.060
-7.200E-06,0.040
-7.190E-06,0.060
-7.180E-06,0.080
-7.170E-06,0.020
-7.160E-06,0.020
-7.150E-06,0.040
-7.140E-06,0.020
-7.130E-06,0.040
-7.120E-06,0.060
-7.110E-06,0.040
-7.100E-06,0.060
-7.090E-06,0.060
-7.080E-06,0.060
-7.070E-06,0.020
-7.060E-06,0.020
-7.050E-06,0.040
-7.040E-06,0.060
-7.030E-06,0.020
-7.020E-06,0.020
-7.010E-06,0.040
-7.000E-06,0.060
-6.990E-06,0.060
-6.980E-06,0.040
-6.970E-06,0.060
-6.960E-06,0.060
-6.950E-06,0.020
-6.940E-06,0.040
-6.930E-06,0.060
-6.920E-06,0.080
-6.910E-06,0.060
-6.900E-06,0.040
-6.890E-06,0.040
-6.880E-06,0.080
-6.870E-06,0.060
-6.860E-06,0.080
-6.850E-06,0.060
-6.840E-06,0.020
-6.830E-06,0.040
-6.820E-06,0.060
-6.810E-06,0.060
-6.800E-06,0.020
-6.790E-06,0.040
-6.780E-06,0.060
-6.770E-06,0.060
-6.760E-06,0.020
-6.750E-06,0.020
-6.740E-06,0.040
-6.730E-06,0.040
-6.720E-06,0.040
-6.710E-06,0.040
-6.700E-06,0.020
-6.690E-06,0.040
-6.680E-06,0.040
-6.670E-06,0.040
-6.660E-06,0.040
-6.650E-06,0.040
-6.640E-06,0.060
-6.630E-06,0.040
-6.620E-06,0.040
-6.610E-06,0.040
-6.600E-06,0.040
-6.590E-06,0.040
-6.580E-06,0.060
-6.570E-06,0.040
-6.560E-06,0.060
-6.550E-06,0.060
-6.540E-06,0.020
-6.530E-06,0.020
-6.520E-06,0.040
-6.510E-06,0.020
-6.500E-06,0.040
-6.490E-06,0.020
-6.480E-06,0.020
-6.470E-06,0.040
-6.460E-06,0.060
-6.450E-06,0.040
-6.440E-06,0.020
-6.430E-06,0.040
-6.420E-06,0.040
-6.410E-06,0.040
-6.400E-06,0.080
-6.390E-06,0.040
-6.380E-06,0.060
-6.370E-06,0.020
-6.360E-06,0.040
-6.350E-06,0.060
-6.340E-06,0.040
-6.330E-06,0.060
-6.320E-06,0.020
-6.310E-06,0.020
-6.300E-06,0.040
-6.290E-06,0.060
-6.280E-06,0.040
-6.270E-06,0.040
-6.260E-06,0.020
-6.250E-06,0.020
-6.240E-06,0.020
-6.230E-06,0.020
-6.220E-06,0.020
-6.210E-06,0.040
-6.200E-06,0.040
-6.190E-06,0.040
-6.180E-06,0.040
-6.170E-06,0.060
-6.160E-06,0.040
-6.150E-06,0.060
-6.140E-06,0.020
-6.130E-06,0.040
-6.120E-06,0.040
-6.110E-06,0.040
-6.100E-06,0.080
-6.090E-06,0.060
-6.080E-06,0.040
-6.070E-06,0.060
-6.060E-06,0.060
-6.050E-06,0.080
-6.040E-06,0.100
-6.030E-06,0.080
-6.020E-06,0.080
-6.010E-06,0.080
-6.000E-06,0.100
-5.990E-06,0.100
-5.980E-06,0.080
-5.970E-06,0.080
-5.960E-06,0.060
-5.950E-06,0.040
-5.940E-06,0.100
-5.930E-06,0.040
-5.920E-06,0.060
-5.910E-06,0.080
-5.900E-06,0.020
-5.890E-06,0.040
-5.880E-06,0.040
-5.870E-06,0.000
-5.860E-06,0.000
-5.850E-06,0.000
-5.840E-06,0.000
-5.830E-06,-0.020
-5.820E-06,0.000
-5.810E-06,0.020
-5.800E-06,0.000
-5.790E-06,0.000
-5.780E-06,0.000
-5.770E-06,-0.020
-5.760E-06,0.000
-5.750E-06,0.000
-5.740E-06,0.020
-5.730E-06,-0.020
-5.720E-06,0.000
-5.710E-06,0.000
-5.700E-06,0.000
-5.690E-06,0.000
-5.680E-06,0.000
-5.670E-06,0.000
-5.660E-06,0.020
-5.650E-06,0.020
-5.640E-06,0.020
-5.630E-06,0.020
-5.620E-06,0.000
-5.610E-06,0.000
-5.600E-06,0.020
-5.590E-06,0.020
-5.580E-06,0.000
-5.570E-06,-0.020
-5.560E-06,0.000
-5.550E-06,-0.020
-5.540E-06,0.000
-5.530E-06,0.000
-5.520E-06,0.000
-5.510E-06,0.000
-5.500E-06,0.000
-5.490E-06,0.000
-5.480E-06,0.000
-5.470E-06,0.000
-5.460E-06,0.000
-5.450E-06,0.000
-5.440E-06,0.000
-5.430E-06,0.000
-5.420E-06,0.020
-5.410E-06,-0.020
-5.400E-06,-0.020
-5.390E-06,0.000
-5.380E-06,0.040
-5.370E-06,0.020
-5.360E-06,0.020
-5.350E-06,0.040
-5.340E-06,0.060
-5.330E-06,0.040
-5.320E-06,0.020
-5.310E-06,0.040
-5.300E-06,0.000
-5.290E-06,0.020
-5.280E-06,0.020
-5.270E-06,0.040
-5.260E-06,0.020
-5.250E-06,0.000
-5.240E-06,0.000
-5.230E-06,0.000
-5.220E-06,0.020
-5.210E-06,0.020
-5.200E-06,0.000
-5.190E-06,0.000
-5.180E-06,0.000
-5.170E-06,0.000
-5.160E-06,0.000
-5.150E-06,0.000
-5.140E-06,0.000
-5.130E-06,0.000
-5.120E-06,0.000
-5.110E-06,0.000
-5.100E-06,0.000
-5.090E-06,0.000
-5.080E-06,-0.020
-5.070E-06,0.000
-5.060E-06,0.000
-5.050E-06,0.000
-5.040E-06,0.000
-5.030E-06,0.000
-5.020E-06,-0.020
-5.010E-06,-0.020
-5.000E-06,-0.020
-4.990E-06,-0.020
-4.980E-06,-0.020
-4.970E-06,-0.020
-4.960E-06,-0.020
-4.950E-06,-0.020
-4.940E-06,0.000
-4.930E-06,-0.040
-4.920E-06,-0.020
-4.910E-06,0.000
-4.900E-06,0.000
-4.890E-06,0.000
-4.880E-06,0.000
-4.870E-06,0.000
-4.860E-06,0.020
-4.850E-06,0.000
-4.840E-06,0.000
-4.830E-06,0.000
-4.820E-06,0.020
-4.810E-06,0.000
-4.800E-06,0.000
-4.790E-06,0.000
-4.780E-06,0.000
-4.770E-06,0.000
-4.760E-06,0.020
-4.750E-06,-0.020
-4.740E-06,0.000
-4.730E-06,0.020
-4.720E-06,0.020
-4.710E-06,-0.020
-4.700E-06,0.000
-4.690E-06,0.020
-4.680E-06,0.020
-4.670E-06,-0.020
-4.660E-06,0.000
-4.650E-06,0.000
-4.640E-06,0.000
-4.630E-06,0.000
-4.620E-06,0.000
-4.610E-06,-0.020
-4.600E-06,0.020
-4.590E-06,0.000
-4.580E-06,-0.020
-4.570E-06,-0.020
-4.560E-06,0.000
-4.550E-06,0.000
-4.540E-06,-0.020
-4.530E-06,-0.020
-4.520E-06,0.000
-4.510E-06,0.020
-4.500E-06,-0.040
-4.490E-06,-0.020
-4.480E-06,0.000
-4.470E-06,-0.020
-4.460E-06,-0.020
-4.450E-06,-0.020
-4.440E-06,-0.040
-4.430E-06,-0.020
-4.420E-06,-0.020
-4.410E-06,-0.020
-4.400E-06,-0.040
-4.390E-06,-0.040
-4.380E-06,-0.020
-4.370E-06,-0.020
-4.360E-06,-0.020
-4.350E-06,0.000
-4.340E-06,-0.020
-4.330E-06,-0.020
-4.320E-06,0.000
-4.310E-06,0.000
-4.300E-06,-0.020
-4.290E-06,-0.020
-4.280E-06,0.000
-4.270E-06,0.000
-4.260E-06,0.000
-4.250E-06,0.000
-4.240E-06,0.000
-4.230E-06,0.000
-4.220E-06,0.000
-4.210E-06,0.020
-4.200E-06,0.020
-4.190E-06,0.000
-4.180E-06,0.000
-4.170E-06,0.040
-4.160E-06,0.000
-4.150E-06,0.000
-4.140E-06,0.040
-4.130E-06,0.040
-4.120E-06,0.040
-4.110E-06,0.060
-4.100E-06,0.060
-4.090E-06,0.080
-4.080E-06,0.020
-4.070E-06,0.040
-4.060E-06,0.060
-4.050E-06,0.020
-4.040E-06,0.020
-4.030E-06,0.020
-4.020E-06,0.020
-4.010E-06,0.000
-4.000E-06,0.000
-3.990E-06,0.000
-3.980E-06,0.000
-3.970E-06,0.000
-3.960E-06,0.000
-3.950E-06,0.000
-3.940E-06,0.000
-3.930E-06,-0.020
-3.920E-06,-0.020
-3.910E-06,0.000
-3.900E-06,-0.020
-3.890E-06,0.000
-3.880E-06,-0.020
-3.870E-06,-0.020
-3.860E-06,-0.060
-3.850E-06,-0.040
-3.840E-06,-0.040
-3.830E-06,-0.060
-3.820E-06,-0.020
-3.810E-06,-0.020
-3.800E-06,-0.020
-3.790E-06,-0.020
-3.780E-06,-0.060
-3.770E-06,-0.020
-3.760E-06,-0.020
-3.750E-06,-0.060
-3.740E-06,-0.040
-3.730E-06,-0.020
-3.720E-06,-0.040
-3.710E-06,-0.020
-3.700E-06,-0.100
-3.690E-06,-0.080
-3.680E-06,-0.120
-3.670E-06,-0.100
-3.660E-06,-0.100
-3.650E-06,-0.120
-3.640E-06,-0.120
-3.630E-06,-0.160
-3.620E-06,-0.140
-3.610E-06,-0.160
-3.600E-06,-0.160
-3.590E-06,-0.160
-3.580E-06,-0.160
-3.570E-06,-0.160
-3.560E-06,-0.160
-3.550E-06,-0.180
-3.540E-06,-0.200
-3.530E-06,-0.200
-3.520E-06,-0.220
-3.510E-06,-0.220
-3.500E-06,-0.260
-3.490E-06,-0.260
-3.480E-06,-0.280
-3.470E-06,-0.320
-3.460E-06,-0.320
-3.450E-06,-0.340
-3.440E-06,-0.360
-3.430E-06,-0.380
-3.420E-06,-0.400
-3.410E-06,-0.400
-3.400E-06,-0.420
-3.390E-06,-0.440
-3.380E-06,-0.440
-3.370E-06,-0.420
-3.360E-06,-0.420
-3.350E-06,-0.500
-3.340E-06,-0.520
-3.330E-06,-0.520
-3.320E-06,-0.540
-3.310E-06,-0.540
-3.300E-06,-0.520
-3.290E-06,-0.500
-3.280E-06,-0.480
-3.270E-06,-0.460
-3.260E-06,-0.400
-3.250E-06,-0.380
-3.240E-06,-0.400
-3.230E-06,-0.400
-3.220E-06,-0.400
-3.210E-06,-0.380
-3.200E-06,-0.360
-3.190E-06,-0.320
-3.180E-06,-0.340
-3.170E-06,-0.340
-3.160E-06,-0.340
-3.150E-06,-0.360
-3.140E-06,-0.320
-3.130E-06,-0.320
-3.120E-06,-0.360
-3.110E-06,-0.320
-3.100E-06,-0.320
-3.090E-06,-0.340
-3.080E-06,-0.300
-3.070E-06,-0.320
-3.060E-06,-0.340
-3.050E-06,-0.320
-3.040E-06,-0.320
-3.030E-06,-0.300
-3.020E-06,-0.320
-3.010E-06,-0.280
-3.000E-06,-0.340
-2.990E-06,-0.340
-2.980E-06,-0.340
-2.970E-06,-0.300
-2.960E-06,-0.260
-2.950E-06,-0.240
-2.940E-06,-0.300
-2.930E-06,-0.260
-2.920E-06,-0.240
-2.910E-06,-0.220
-2.900E-06,-0.200
-2.890E-06,-0.200
-2.880E-06,-0.180
-2.870E-06,-0.180
-2.860E-06,-0.160
-2.850E-06,-0.140
-2.840E-06,-0.060
-2.830E-06,0.000
-2.820E-06,0.000
-2.810E-06,-0.020
-2.800E-06,-0.080
-2.790E-06,-0.160
-2.780E-06,-0.220
-2.770E-06,-0.280
-2.760E-06,-0.300
-2.750E-06,-0.340
-2.740E-06,-0.340
-2.730E-06,-0.340
-2.720E-06,-0.180
-2.710E-06,-0.160
-2.700E-06,-0.160
-2.690E-06,-0.180
-2.680E-06,-0.180
-2.670E-06,-0.180
-2.660E-06,-0.120
-2.650E-06,-0.080
-2.640E-06,-0.020
-2.630E-06,-0.040
-2.620E-06,-0.100
-2.610E-06,-0.100
-2.600E-06,-0.120
-2.590E-06,-0.100
-2.580E-06,-0.120
-2.570E-06,-0.100
-2.560E-06,-0.100
-2.550E-06,-0.120
-2.540E-06,-0.100
-2.530E-06,-0.120
-2.520E-06,-0.100
-2.510E-06,-0.120
-2.500E-06,-0.160
-2.490E-06,-0.180
-2.480E-06,-0.160
-2.470E-06,-0.180
-2.460E-06,-0.220
-2.450E-06,-0.200
-2.440E-06,-0.240
-2.430E-06,-0.200
-2.420E-06,-0.200
-2.410E-06,-0.200
-2.400E-06,-0.220
-2.390E-06,-0.260
-2.380E-06,-0.260
-2.370E-06,-0.300
-2.360E-06,-0.300
-2.350E-06,-0.340
-2.340E-06,-0.360
-2.330E-06,-0.360
-2.320E-06,-0.360
-2.310E-06,-0.420
-2.300E-06,-0.460
-2.290E-06,-0.480
-2.280E-06,-0.420
-2.270E-06,-0.380
-2.260E-06,-0.340
-2.250E-06,-0.340
-2.240E-06,-0.300
-2.230E-06,-0.360
-2.220E-06,-0.400
-2.210E-06,-0.480
-2.200E-06,-0.540
-2.190E-06,-0.660
-2.180E-06,-0.640
-2.170E-06,-0.720
-2.160E-06,-0.780
-2.150E-06,-0.800
-2.140E-06,-0.780
-2.130E-06,-0.800
-2.120E-06,-0.720
-2.110E-06,-0.680
-2.100E-06,-0.680
-2.090E-06,-0.700
-2.080E-06,-0.760
-2.070E-06,-0.800
-2.060E-06,-0.800
-2.050E-06,-0.820
-2.040E-06,-0.840
-2.030E-06,-0.860
-2.020E-06,-0.880
-2.010E-06,-0.960
-2.000E-06,-0.940
-1.990E-06,-1.000
-1.980E-06,-1.020
-1.970E-06,-1.100
-1.960E-06,-1.160
-1.950E-06,-1.180
-1.940E-06,-1.280
-1.930E-06,-1.320
-1.920E-06,-1.340
-1.910E-06,-1.360
-1.900E-06,-1.340
-1.890E-06,-1.400
-1.880E-06,-1.420
-1.870E-06,-1.420
-1.860E-06,-1.420
-1.850E-06,-1.340
-1.840E-06,-1.340
-1.830E-06,-1.280
-1.820E-06,-1.320
-1.810E-06,-1.300
-1.800E-06,-1.260
-1.790E-06,-1.280
-1.780E-06,-1.240
-1.770E-06,-1.200
-1.760E-06,-1.180
-1.750E-06,-1.180
-1.740E-06,-1.120
-1.730E-06,-1.080
-1.720E-06,-1.000
-1.710E-06,-0.980
-1.700E-06,-0.900
-1.690E-06,-0.920
-1.680E-06,-0.900
-1.670E-06,-0.900
-1.660E-06,-0.880
-1.650E-06,-0.920
-1.640E-06,-0.920
-1.630E-06,-0.940
-1.620E-06,-0.980
-1.610E-06,-0.980
-1.600E-06,-1.020
-1.590E-06,-1.020
-1.580E-06,-1.040
-1.570E-06,-1.040
-1.560E-06,-1.060
-1.550E-06,-1.040
-1.540E-06,-1.020
-1.530E-06,-0.940
-1.520E-06,-0.900
-1.510E-06,-0.860
-1.500E-06,-0.860
-1.490E-06,-0.880
-1.480E-06,-0.840
-1.470E-06,-0.820
-1.460E-06,-0.740
-1.450E-06,-0.680
-1.440E-06,-0.600
-1.430E-06,-0.560
-1.420E-06,-0.340
-1.410E-06,-0.340
-1.400E-06,-0.120
-1.390E-06,-0.200
-1.380E-06,-0.240
-1.370E-06,-0.340
-1.360E-06,-0.320
-1.350E-06,-0.420
-1.340E-06,-0.320
-1.330E-06,-0.460
-1.320E-06,-0.500
-1.310E-06,-0.480
-1.300E-06,-0.560
-1.290E-06,-0.420
-1.280E-06,-0.500
-1.270E-06,-0.560
-1.260E-06,-0.580
-1.250E-06,-0.660
-1.240E-06,-0.740
-1.230E-06,-0.800
-1.220E-06,-0.840
-1.210E-06,-0.880
-1.200E-06,-0.880
-1.190E-06,-0.940
-1.180E-06,-1.000
-1.170E-06,-1.200
-1.160E-06,-1.260
-1.150E-06,-1.380
-1.140E-06,-1.360
-1.130E-06,-1.520
-1.120E-06,-1.440
-1.110E-06,-1.460
-1.100E-06,-1.400
-1.090E-06,-1.240
-1.080E-06,-1.020
-1.070E-06,-0.840
-1.060E-06,-0.740
-1.050E-06,-0.640
-1.040E-06,-0.600
-1.030E-06,-0.560
-1.020E-06,-0.620
-1.010E-06,-0.640
-1.000E-06,-0.680
-9.900E-07,-0.760
-9.800E-07,-0.780
-9.700E-07,-0.800
-9.600E-07,-0.800
-9.500E-07,-0.740
-9.400E-07,-0.720
-9.300E-07,-0.620
-9.200E-07,-0.680
-9.100E-07,-0.700
-9.000E-07,-0.740
-8.900E-07,-0.760
-8.800E-07,-0.700
-8.700E-07,-0.840
-8.600E-07,-0.900
-8.500E-07,-0.980
-8.400E-07,-1.000
-8.300E-07,-1.000
-8.200E-07,-0.900
-8.100E-07,-0.900
-8.000E-07,-0.900
-7.900E-07,-0.940
-7.800E-07,-1.040
-7.700E-07,-1.100
-7.600E-07,-1.100
-7.500E-07,-1.160
-7.400E-07,-1.180
-7.300E-07,-1.180
-7.200E-07,-1.280
-7.100E-07,-1.260
-7.000E-07,-1.300
-6.900E-07,-1.340
-6.800E-07,-1.400
-6.700E-07,-1.460
-6.600E-07,-1.520
-6.500E-07,-1.520
-6.400E-07,-1.500
-6.300E-07,-1.440
-6.200E-07,-1.340
-6.100E-07,-1.240
-6.000E-07,-1.120
-5.900E-07,-1.020
-5.800E-07,-0.940
-5.700E-07,-0.840
-5.600E-07,-0.760
-5.500E-07,-0.720
-5.400E-07,-0.640
-5.300E-07,-0.600
-5.200E-07,-0.560
-5.100E-07,-0.520
-5.000E-07,-0.520
-4.900E-07,-0.480
-4.800E-07,-0.480
-4.700E-07,-0.520
-4.600E-07,-0.560
-4.500E-07,-0.600
-4.400E-07,-0.660
-4.300E-07,-0.660
-4.200E-07,-0.720
-4.100E-07,-0.740
-4.000E-07,-0.800
-3.900E-07,-0.860
-3.800E-07,-0.900
-3.700E-07,-0.920
-3.600E-07,-0.960
-3.500E-07,-1.020
-3.400E-07,-1.040
-3.300E-07,-1.060
-3.200E-07,-1.100
-3.100E-07,-1.160
-3.000E-07,-1.140
-2.900E-07,-1.160
-2.800E-07,-1.180
-2.700E-07,-1.220
-2.600E-07,-1.280
-2.500E-07,-1.300
-2.400E-07,-1.360
-2.300E-07,-1.400
-2.200E-07,-1.500
-2.100E-07,-1.540
-2.000E-07,-1.640
-1.900E-07,-1.680
-1.800E-07,-1.800
-1.700E-07,-1.840
-1.600E-07,-1.920
-1.500E-07,-2.100
-1.400E-07,-2.120
-1.300E-07,-2.320
-1.200E-07,-2.420
-1.100E-07,-2.560
-1.000E-07,-2.660
-9.000E-08,-2.680
-8.000E-08,-2.660
-7.000E-08,-2.660
-6.000E-08,-2.560
-5.000E-08,-2.180
-4.000E-08,-0.980
-3.000E-08,-0.380
-2.000E-08,-0.080
-1.000E-08,-0.480
0.000E+00,-1.520
1.000E-08,-1.620
2.000E-08,-2.080
3.000E-08,-1.560
4.000E-08,-1.780
5.000E-08,-2.000
6.000E-08,-2.660
7.000E-08,-2.660
8.000E-08,-2.360
9.000E-08,-1.500
1.000E-07,-1.020
1.100E-07,-1.060
1.200E-07,-1.560
1.300E-07,-1.520
1.400E-07,-1.260
1.500E-07,-0.920
1.600E-07,-0.680
1.700E-07,-0.740
1.800E-07,-0.480
1.900E-07,-0.540
2.000E-07,-0.500
2.100E-07,-0.840
2.200E-07,-0.780
2.300E-07,-1.020
2.400E-07,-0.580
2.500E-07,-0.420
2.600E-07,-0.040
2.700E-07,-0.140
2.800E-07,0.000
2.900E-07,-0.380
3.000E-07,-0.440
3.100E-07,-0.560
3.200E-07,-0.880
3.300E-07,-0.960
3.400E-07,-1.180
3.500E-07,-1.420
3.600E-07,-1.400
3.700E-07,-1.560
3.800E-07,-1.740
3.900E-07,-1.760
4.000E-07,-1.960
4.100E-07,-1.660
4.200E-07,-1.440
4.300E-07,-1.200
4.400E-07,-1.040
4.500E-07,-1.020
4.600E-07,-1.120
4.700E-07,-1.420
4.800E-07,-1.420
4.900E-07,-1.460
5.000E-07,-1.180
5.100E-07,0.240
5.200E-07,0.340
5.300E-07,0.940
5.400E-07,0.460
5.500E-07,-0.100
5.600E-07,-0.420
5.700E-07,-0.520
5.800E-07,-0.700
5.900E-07,-0.480
6.000E-07,-1.140
6.100E-07,-1.680
6.200E-07,-2.080
6.300E-07,-2.000
6.400E-07,-1.700
6.500E-07,-1.320
6.600E-07,-1.240
6.700E-07,-1.260
6.800E-07,-1.140
6.900E-07,-1.100
7.000E-07,-1.180
7.100E-07,-1.020
7.200E-07,-0.700
7.300E-07,-0.560
7.400E-07,-0.160
7.500E-07,-0.400
7.600E-07,-0.480
7.700E-07,-0.420
7.800E-07,-0.280
7.900E-07,0.100
8.000E-07,0.260
8.100E-07,0.320
8.200E-07,0.260
8.300E-07,0.360
8.400E-07,0.420
8.500E-07,0.400
8.600E-07,0.300
8.700E-07,0.180
8.800E-07,0.100
8.900E-07,0.020
9.000E-07,0.000
9.100E-07,-0.040
9.200E-07,-0.200
9.300E-07,-0.180
9.400E-07,-0.280
9.500E-07,-0.460
9.600E-07,-0.440
9.700E-07,-0.600
9.800E-07,-0.300
9.900E-07,-0.140
1.000E-06,0.000
1.010E-06,0.080
1.020E-06,0.000
1.030E-06,-0.060
1.040E-06,-0.120
1.050E-06,-0.160
1.060E-06,-0.260
1.070E-06,-0.360
1.080E-06,-0.400
1.090E-06,-0.480
1.100E-06,-0.440
1.110E-06,-0.480
1.120E-06,-0.440
1.130E-06,-0.540
1.140E-06,-0.600
1.150E-06,-0.840
1.160E-06,-0.940
1.170E-06,-1.080
1.180E-06,-0.900
1.190E-06,-0.360
1.200E-06,0.060
1.210E-06,0.660
1.220E-06,0.860
1.230E-06,0.660
1.240E-06,0.260
1.250E-06,0.000
1.260E-06,-0.300
1.270E-06,-0.380
1.280E-06,-0.600
1.290E-06,-0.800
1.300E-06,-1.020
1.310E-06,-1.180
1.320E-06,-1.120
1.330E-06,-1.080
1.340E-06,-1.080
1.350E-06,-1.140
1.360E-06,-1.080
1.370E-06,-1.240
1.380E-06,-0.940
1.390E-06,-0.960
1.400E-06,-0.760
1.410E-06,-0.820
1.420E-06,-0.740
1.430E-06,-0.980
1.440E-06,-0.960
1.450E-06,-0.900
1.460E-06,-0.720
1.470E-06,-0.340
1.480E-06,-0.160
1.490E-06,0.000
1.500E-06,0.160
1.510E-06,0.340
1.520E-06,0.420
1.530E-06,0.360
1.540E-06,0.160
1.550E-06,0.120
1.560E-06,0.220
1.570E-06,0.320
1.580E-06,0.440
1.590E-06,0.340
1.600E-06,0.100
1.610E-06,-0.300
1.620E-06,-0.500
1.630E-06,-0.360
1.640E-06,-0.140
1.650E-06,0.760
1.660E-06,0.000
1.670E-06,0.160
1.680E-06,-1.120
1.690E-06,-1.500
1.700E-06,-1.680
1.710E-06,-1.620
1.720E-06,-1.880
1.730E-06,-2.040
1.740E-06,-2.660
1.750E-06,-2.640
1.760E-06,-2.480
1.770E-06,-2.060
1.780E-06,-1.520
1.790E-06,-1.140
1.800E-06,-1.080
1.810E-06,-0.760
1.820E-06,-0.500
1.830E-06,-0.400
1.840E-06,-0.420
1.850E-06,-0.300
1.860E-06,-0.320
1.870E-06,0.640
1.880E-06,0.480
1.890E-06,0.580
1.900E-06,0.160
1.910E-06,-0.300
1.920E-06,-0.240
1.930E-06,-0.240
1.940E-06,0.000
1.950E-06,0.120
1.960E-06,0.100
1.970E-06,0.120
1.980E-06,0.000
1.990E-06,0.160
2.000E-06,0.040
2.010E-06,0.080
2.020E-06,-0.040
2.030E-06,-0.160
2.040E-06,-0.120
2.050E-06,-0.280
2.060E-06,-0.700
2.070E-06,-1.160
2.080E-06,-1.420
2.090E-06,-1.460
2.100E-06,-1.200
2.110E-06,-1.020
2.120E-06,-0.940
2.130E-06,-0.800
2.140E-06,-0.600
2.150E-06,-0.340
2.160E-06,-0.140
2.170E-06,0.040
2.180E-06,0.120
2.190E-06,0.260
2.200E-06,0.320
2.210E-06,0.280
2.220E-06,0.220
2.230E-06,0.020
2.240E-06,0.060
2.250E-06,0.120
2.260E-06,0.180
2.270E-06,0.200
2.280E-06,-0.020
2.290E-06,-0.280
2.300E-06,-0.540
2.310E-06,-0.620
2.320E-06,-0.580
2.330E-06,-0.480
2.340E-06,-0.500
2.350E-06,-0.600
2.360E-06,-0.680
2.370E-06,-0.740
2.380E-06,-0.760
2.390E-06,-0.760
2.400E-06,-0.740
2.410E-06,-0.780
2.420E-06,-0.760
2.430E-06,-0.680
2.440E-06,-0.640
2.450E-06,-0.580
2.460E-06,-0.540
2.470E-06,-0.560
2.480E-06,-0.520
2.490E-06,-0.520
2.500E-06,-0.460
2.510E-06,-0.440
2.520E-06,-0.480
2.530E-06,-0.460
2.540E-06,-0.500
2.550E-06,-0.480
2.560E-06,-0.460
2.570E-06,-0.400
2.580E-06,-0.420
2.590E-06,-0.420
2.600E-06,-0.380
2.610E-06,-0.360
2.620E-06,-0.320
2.630E-06,-0.180
2.640E-06,-0.240
2.650E-06,-0.220
2.660E-06,-0.340
2.670E-06,-0.360
2.680E-06,-0.420
2.690E-06,-0.400
2.700E-06,-0.400
2.710E-06,-0.420
2.720E-06,-0.520
2.730E-06,-0.540
2.740E-06,-0.540
2.750E-06,-0.500
2.760E-06,-0.520
2.770E-06,-0.500
2.780E-06,-0.500
2.790E-06,-0.440
2.800E-06,-0.400
2.810E-06,-0.380
2.820E-06,-0.340
2.830E-06,-0.380
2.840E-06,-0.360
2.850E-06,-0.420
2.860E-06,-0.240
2.870E-06,-0.320
2.880E-06,0.160
2.890E-06,0.200
2.900E-06,1.300
2.910E-06,0.840
2.920E-06,1.300
2.930E-06,0.640
2.940E-06,0.280
2.950E-06,0.100
2.960E-06,-0.140
2.970E-06,-0.160
2.980E-06,-0.320
2.990E-06,-0.720
3.000E-06,-1.100
3.010E-06,-1.100
3.020E-06,-1.280
3.030E-06,-0.980
3.040E-06,-1.140
3.050E-06,-1.000
3.060E-06,-0.940
3.070E-06,-0.460
3.080E-06,-0.180
3.090E-06,0.580
3.100E-06,0.960
