mediciones/Mediciones filtradas (saque las feas)/5-15/25/WaveData47421.csv

#timebase=2000000(ps)
,#voltbase=100000(mv/100)
#size=4000
-8.400E-06,-0.064
-8.390E-06,-0.056
-8.380E-06,-0.020
-8.370E-06,0.020
-8.360E-06,0.056
-8.350E-06,0.056
-8.340E-06,0.028
-8.330E-06,0.000
-8.320E-06,-0.024
-8.310E-06,-0.032
-8.300E-06,-0.004
-8.290E-06,0.008
-8.280E-06,0.028
-8.270E-06,0.032
-8.260E-06,0.020
-8.250E-06,0.000
-8.240E-06,-0.008
-8.230E-06,-0.020
-8.220E-06,-0.016
-8.210E-06,-0.008
-8.200E-06,0.016
-8.190E-06,0.024
-8.180E-06,0.028
-8.170E-06,0.024
-8.160E-06,0.012
-8.150E-06,0.000
-8.140E-06,-0.008
-8.130E-06,-0.008
-8.120E-06,0.000
-8.110E-06,0.012
-8.100E-06,0.016
-8.090E-06,0.008
-8.080E-06,0.004
-8.070E-06,-0.008
-8.060E-06,-0.012
-8.050E-06,-0.012
-8.040E-06,-0.004
-8.030E-06,0.012
-8.020E-06,0.016
-8.010E-06,0.016
-8.000E-06,0.008
-7.990E-06,-0.004
-7.980E-06,-0.004
-7.970E-06,-0.008
-7.960E-06,0.000
-7.950E-06,0.012
-7.940E-06,0.012
-7.930E-06,0.008
-7.920E-06,0.000
-7.910E-06,-0.004
-7.900E-06,-0.004
-7.890E-06,0.000
-7.880E-06,0.000
-7.870E-06,0.008
-7.860E-06,0.012
-7.850E-06,0.012
-7.840E-06,0.008
-7.830E-06,0.004
-7.820E-06,0.000
-7.810E-06,-0.004
-7.800E-06,-0.004
-7.790E-06,0.004
-7.780E-06,0.012
-7.770E-06,0.016
-7.760E-06,0.004
-7.750E-06,0.004
-7.740E-06,-0.004
-7.730E-06,-0.004
-7.720E-06,-0.004
-7.710E-06,-0.004
-7.700E-06,0.008
-7.690E-06,0.008
-7.680E-06,0.012
-7.670E-06,0.008
-7.660E-06,0.000
-7.650E-06,-0.004
-7.640E-06,0.000
-7.630E-06,0.000
-7.620E-06,0.008
-7.610E-06,0.012
-7.600E-06,0.012
-7.590E-06,0.004
-7.580E-06,0.004
-7.570E-06,0.000
-7.560E-06,-0.004
-7.550E-06,0.000
-7.540E-06,0.004
-7.530E-06,0.000
-7.520E-06,0.008
-7.510E-06,0.004
-7.500E-06,0.004
-7.490E-06,0.004
-7.480E-06,0.000
-7.470E-06,0.000
-7.460E-06,0.000
-7.450E-06,0.004
-7.440E-06,0.004
-7.430E-06,0.004
-7.420E-06,0.008
-7.410E-06,0.008
-7.400E-06,-0.004
-7.390E-06,0.000
-7.380E-06,0.000
-7.370E-06,0.004
-7.360E-06,0.000
-7.350E-06,0.004
-7.340E-06,0.004
-7.330E-06,0.004
-7.320E-06,0.004
-7.310E-06,0.000
-7.300E-06,0.004
-7.290E-06,0.004
-7.280E-06,0.000
-7.270E-06,0.000
-7.260E-06,0.008
-7.250E-06,0.008
-7.240E-06,0.004
-7.230E-06,0.000
-7.220E-06,0.004
-7.210E-06,-0.004
-7.200E-06,-0.004
-7.190E-06,0.004
-7.180E-06,0.008
-7.170E-06,0.000
-7.160E-06,0.004
-7.150E-06,0.004
-7.140E-06,0.000
-7.130E-06,0.000
-7.120E-06,0.004
-7.110E-06,0.008
-7.100E-06,0.000
-7.090E-06,0.000
-7.080E-06,0.004
-7.070E-06,0.008
-7.060E-06,0.004
-7.050E-06,0.004
-7.040E-06,0.004
-7.030E-06,0.000
-7.020E-06,0.004
-7.010E-06,0.008
-7.000E-06,0.008
-6.990E-06,0.004
-6.980E-06,0.004
-6.970E-06,0.004
-6.960E-06,0.008
-6.950E-06,0.000
-6.940E-06,0.004
-6.930E-06,-0.004
-6.920E-06,0.000
-6.910E-06,0.008
-6.900E-06,0.012
-6.890E-06,0.016
-6.880E-06,0.016
-6.870E-06,-0.008
-6.860E-06,-0.024
-6.850E-06,-0.016
-6.840E-06,-0.012
-6.830E-06,0.008
-6.820E-06,0.020
-6.810E-06,0.016
-6.800E-06,0.000
-6.790E-06,-0.012
-6.780E-06,-0.024
-6.770E-06,-0.008
-6.760E-06,0.016
-6.750E-06,0.012
-6.740E-06,0.000
-6.730E-06,-0.004
-6.720E-06,-0.004
-6.710E-06,-0.008
-6.700E-06,0.004
-6.690E-06,0.012
-6.680E-06,0.004
-6.670E-06,0.008
-6.660E-06,0.008
-6.650E-06,-0.004
-6.640E-06,-0.004
-6.630E-06,0.004
-6.620E-06,0.004
-6.610E-06,0.004
-6.600E-06,0.004
-6.590E-06,0.008
-6.580E-06,0.008
-6.570E-06,0.004
-6.560E-06,0.004
-6.550E-06,0.000
-6.540E-06,-0.004
-6.530E-06,-0.004
-6.520E-06,-0.004
-6.510E-06,0.008
-6.500E-06,0.012
-6.490E-06,0.008
-6.480E-06,0.004
-6.470E-06,0.000
-6.460E-06,-0.004
-6.450E-06,0.000
-6.440E-06,0.000
-6.430E-06,0.008
-6.420E-06,0.012
-6.410E-06,0.012
-6.400E-06,0.004
-6.390E-06,-0.004
-6.380E-06,-0.004
-6.370E-06,0.004
-6.360E-06,0.008
-6.350E-06,0.012
-6.340E-06,0.012
-6.330E-06,0.012
-6.320E-06,0.008
-6.310E-06,-0.004
-6.300E-06,0.000
-6.290E-06,-0.004
-6.280E-06,-0.004
-6.270E-06,0.008
-6.260E-06,0.008
-6.250E-06,0.008
-6.240E-06,0.008
-6.230E-06,0.004
-6.220E-06,0.000
-6.210E-06,0.000
-6.200E-06,0.000
-6.190E-06,0.000
-6.180E-06,0.004
-6.170E-06,0.008
-6.160E-06,0.008
-6.150E-06,0.004
-6.140E-06,0.004
-6.130E-06,-0.004
-6.120E-06,0.000
-6.110E-06,0.004
-6.100E-06,0.004
-6.090E-06,0.004
-6.080E-06,0.008
-6.070E-06,0.008
-6.060E-06,0.000
-6.050E-06,0.008
-6.040E-06,0.008
-6.030E-06,0.004
-6.020E-06,-0.004
-6.010E-06,-0.004
-6.000E-06,0.000
-5.990E-06,0.004
-5.980E-06,0.008
-5.970E-06,0.008
-5.960E-06,0.008
-5.950E-06,-0.004
-5.940E-06,-0.012
-5.930E-06,-0.020
-5.920E-06,0.000
-5.910E-06,0.016
-5.900E-06,0.028
-5.890E-06,0.024
-5.880E-06,-0.004
-5.870E-06,-0.004
-5.860E-06,-0.012
-5.850E-06,-0.004
-5.840E-06,0.004
-5.830E-06,0.024
-5.820E-06,0.016
-5.810E-06,0.004
-5.800E-06,0.000
-5.790E-06,-0.008
-5.780E-06,-0.004
-5.770E-06,0.000
-5.760E-06,0.008
-5.750E-06,0.008
-5.740E-06,0.004
-5.730E-06,0.000
-5.720E-06,0.004
-5.710E-06,0.004
-5.700E-06,0.000
-5.690E-06,0.004
-5.680E-06,0.000
-5.670E-06,0.004
-5.660E-06,0.004
-5.650E-06,0.004
-5.640E-06,0.008
-5.630E-06,0.008
-5.620E-06,0.000
-5.610E-06,0.000
-5.600E-06,0.000
-5.590E-06,0.004
-5.580E-06,0.008
-5.570E-06,0.012
-5.560E-06,0.012
-5.550E-06,0.000
-5.540E-06,0.004
-5.530E-06,0.000
-5.520E-06,0.004
-5.510E-06,0.004
-5.500E-06,0.008
-5.490E-06,0.008
-5.480E-06,0.000
-5.470E-06,0.004
-5.460E-06,0.000
-5.450E-06,0.000
-5.440E-06,0.008
-5.430E-06,0.008
-5.420E-06,0.004
-5.410E-06,0.004
-5.400E-06,0.004
-5.390E-06,0.008
-5.380E-06,0.004
-5.370E-06,0.008
-5.360E-06,-0.004
-5.350E-06,0.000
-5.340E-06,0.000
-5.330E-06,0.000
-5.320E-06,0.004
-5.310E-06,0.000
-5.300E-06,0.004
-5.290E-06,0.004
-5.280E-06,0.004
-5.270E-06,0.000
-5.260E-06,-0.004
-5.250E-06,0.004
-5.240E-06,0.008
-5.230E-06,0.004
-5.220E-06,0.004
-5.210E-06,0.004
-5.200E-06,0.004
-5.190E-06,0.000
-5.180E-06,0.000
-5.170E-06,0.000
-5.160E-06,0.004
-5.150E-06,0.004
-5.140E-06,0.008
-5.130E-06,0.004
-5.120E-06,0.004
-5.110E-06,0.000
-5.100E-06,0.004
-5.090E-06,0.008
-5.080E-06,0.004
-5.070E-06,0.004
-5.060E-06,0.004
-5.050E-06,0.000
-5.040E-06,0.000
-5.030E-06,0.004
-5.020E-06,0.008
-5.010E-06,0.008
-5.000E-06,0.000
-4.990E-06,-0.008
-4.980E-06,-0.012
-4.970E-06,-0.004
-4.960E-06,0.004
-4.950E-06,0.016
-4.940E-06,0.016
-4.930E-06,0.004
-4.920E-06,-0.004
-4.910E-06,-0.012
-4.900E-06,-0.008
-4.890E-06,0.008
-4.880E-06,0.020
-4.870E-06,0.008
-4.860E-06,0.008
-4.850E-06,0.000
-4.840E-06,-0.008
-4.830E-06,-0.004
-4.820E-06,0.000
-4.810E-06,0.008
-4.800E-06,0.008
-4.790E-06,0.008
-4.780E-06,0.000
-4.770E-06,0.000
-4.760E-06,-0.004
-4.750E-06,0.000
-4.740E-06,0.004
-4.730E-06,0.004
-4.720E-06,0.008
-4.710E-06,0.004
-4.700E-06,0.004
-4.690E-06,0.004
-4.680E-06,-0.004
-4.670E-06,-0.004
-4.660E-06,0.000
-4.650E-06,0.004
-4.640E-06,0.008
-4.630E-06,0.004
-4.620E-06,0.008
-4.610E-06,0.000
-4.600E-06,0.000
-4.590E-06,-0.004
-4.580E-06,-0.004
-4.570E-06,0.000
-4.560E-06,0.008
-4.550E-06,0.008
-4.540E-06,0.008
-4.530E-06,0.004
-4.520E-06,0.000
-4.510E-06,0.000
-4.500E-06,-0.004
-4.490E-06,0.004
-4.480E-06,0.004
-4.470E-06,0.008
-4.460E-06,0.008
-4.450E-06,0.004
-4.440E-06,0.000
-4.430E-06,-0.004
-4.420E-06,0.000
-4.410E-06,0.004
-4.400E-06,0.004
-4.390E-06,0.008
-4.380E-06,0.008
-4.370E-06,0.004
-4.360E-06,0.004
-4.350E-06,0.004
-4.340E-06,-0.004
-4.330E-06,0.000
-4.320E-06,0.004
-4.310E-06,0.008
-4.300E-06,0.004
-4.290E-06,0.008
-4.280E-06,0.008
-4.270E-06,0.000
-4.260E-06,-0.004
-4.250E-06,0.000
-4.240E-06,-0.004
-4.230E-06,0.008
-4.220E-06,0.008
-4.210E-06,0.008
-4.200E-06,0.008
-4.190E-06,0.008
-4.180E-06,-0.004
-4.170E-06,0.000
-4.160E-06,0.004
-4.150E-06,0.004
-4.140E-06,0.008
-4.130E-06,0.004
-4.120E-06,0.004
-4.110E-06,0.004
-4.100E-06,0.000
-4.090E-06,0.000
-4.080E-06,0.000
-4.070E-06,0.000
-4.060E-06,0.004
-4.050E-06,0.004
-4.040E-06,0.004
-4.030E-06,-0.004
-4.020E-06,0.004
-4.010E-06,0.000
-4.000E-06,0.008
-3.990E-06,0.008
-3.980E-06,0.004
-3.970E-06,0.008
-3.960E-06,-0.008
-3.950E-06,-0.016
-3.940E-06,-0.016
-3.930E-06,0.000
-3.920E-06,0.012
-3.910E-06,0.028
-3.900E-06,0.028
-3.890E-06,0.008
-3.880E-06,-0.008
-3.870E-06,-0.020
-3.860E-06,-0.020
-3.850E-06,0.000
-3.840E-06,0.024
-3.830E-06,0.024
-3.820E-06,0.016
-3.810E-06,-0.008
-3.800E-06,-0.024
-3.790E-06,-0.024
-3.780E-06,-0.008
-3.770E-06,0.016
-3.760E-06,0.024
-3.750E-06,0.024
-3.740E-06,0.008
-3.730E-06,0.000
-3.720E-06,-0.020
-3.710E-06,-0.008
-3.700E-06,0.000
-3.690E-06,0.012
-3.680E-06,0.024
-3.670E-06,0.020
-3.660E-06,0.008
-3.650E-06,0.000
-3.640E-06,-0.008
-3.630E-06,-0.016
-3.620E-06,-0.012
-3.610E-06,0.000
-3.600E-06,0.012
-3.590E-06,0.024
-3.580E-06,0.020
-3.570E-06,0.008
-3.560E-06,0.000
-3.550E-06,-0.008
-3.540E-06,-0.004
-3.530E-06,-0.004
-3.520E-06,0.008
-3.510E-06,0.012
-3.500E-06,0.020
-3.490E-06,0.012
-3.480E-06,0.000
-3.470E-06,-0.008
-3.460E-06,-0.008
-3.450E-06,0.004
-3.440E-06,0.016
-3.430E-06,0.024
-3.420E-06,0.020
-3.410E-06,0.008
-3.400E-06,-0.004
-3.390E-06,-0.004
-3.380E-06,-0.004
-3.370E-06,0.008
-3.360E-06,0.016
-3.350E-06,0.016
-3.340E-06,0.012
-3.330E-06,-0.004
-3.320E-06,-0.008
-3.310E-06,-0.012
-3.300E-06,0.000
-3.290E-06,0.000
-3.280E-06,0.008
-3.270E-06,0.004
-3.260E-06,0.012
-3.250E-06,0.008
-3.240E-06,0.000
-3.230E-06,-0.004
-3.220E-06,-0.004
-3.210E-06,-0.004
-3.200E-06,0.004
-3.190E-06,0.012
-3.180E-06,0.012
-3.170E-06,0.012
-3.160E-06,0.000
-3.150E-06,-0.004
-3.140E-06,-0.004
-3.130E-06,-0.004
-3.120E-06,0.004
-3.110E-06,0.012
-3.100E-06,0.016
-3.090E-06,0.008
-3.080E-06,0.008
-3.070E-06,-0.004
-3.060E-06,-0.004
-3.050E-06,-0.004
-3.040E-06,0.000
-3.030E-06,0.004
-3.020E-06,0.008
-3.010E-06,0.008
-3.000E-06,0.004
-2.990E-06,-0.004
-2.980E-06,0.000
-2.970E-06,-0.004
-2.960E-06,-0.008
-2.950E-06,0.004
-2.940E-06,0.004
-2.930E-06,0.012
-2.920E-06,0.012
-2.910E-06,0.008
-2.900E-06,0.000
-2.890E-06,-0.004
-2.880E-06,-0.004
-2.870E-06,0.004
-2.860E-06,0.004
-2.850E-06,0.008
-2.840E-06,0.012
-2.830E-06,0.008
-2.820E-06,0.000
-2.810E-06,-0.008
-2.800E-06,-0.008
-2.790E-06,-0.004
-2.780E-06,0.008
-2.770E-06,0.012
-2.760E-06,0.008
-2.750E-06,0.000
-2.740E-06,-0.004
-2.730E-06,-0.004
-2.720E-06,-0.004
-2.710E-06,0.004
-2.700E-06,0.008
-2.690E-06,0.012
-2.680E-06,0.004
-2.670E-06,0.004
-2.660E-06,-0.004
-2.650E-06,-0.004
-2.640E-06,-0.004
-2.630E-06,0.004
-2.620E-06,0.008
-2.610E-06,0.004
-2.600E-06,0.004
-2.590E-06,0.004
-2.580E-06,0.008
-2.570E-06,-0.004
-2.560E-06,0.004
-2.550E-06,0.004
-2.540E-06,0.004
-2.530E-06,0.004
-2.520E-06,0.008
-2.510E-06,0.008
-2.500E-06,0.004
-2.490E-06,-0.004
-2.480E-06,0.000
-2.470E-06,-0.004
-2.460E-06,0.004
-2.450E-06,0.004
-2.440E-06,0.004
-2.430E-06,0.008
-2.420E-06,0.004
-2.410E-06,0.000
-2.400E-06,0.000
-2.390E-06,0.004
-2.380E-06,0.008
-2.370E-06,0.012
-2.360E-06,0.008
-2.350E-06,-0.004
-2.340E-06,0.000
-2.330E-06,0.000
-2.320E-06,-0.004
-2.310E-06,0.008
-2.300E-06,0.008
-2.290E-06,0.008
-2.280E-06,0.012
-2.270E-06,0.008
-2.260E-06,0.000
-2.250E-06,-0.004
-2.240E-06,-0.004
-2.230E-06,0.000
-2.220E-06,-0.004
-2.210E-06,0.008
-2.200E-06,0.012
-2.190E-06,0.012
-2.180E-06,0.008
-2.170E-06,0.004
-2.160E-06,0.000
-2.150E-06,-0.004
-2.140E-06,0.000
-2.130E-06,0.004
-2.120E-06,0.008
-2.110E-06,0.012
-2.100E-06,0.012
-2.090E-06,0.008
-2.080E-06,0.004
-2.070E-06,0.000
-2.060E-06,0.000
-2.050E-06,0.000
-2.040E-06,0.000
-2.030E-06,0.012
-2.020E-06,0.012
-2.010E-06,0.012
-2.000E-06,0.008
-1.990E-06,-0.004
-1.980E-06,-0.004
-1.970E-06,0.000
-1.960E-06,0.012
-1.950E-06,0.008
-1.940E-06,0.008
-1.930E-06,0.008
-1.920E-06,0.004
-1.910E-06,0.008
-1.900E-06,0.012
-1.890E-06,0.004
-1.880E-06,0.000
-1.870E-06,0.000
-1.860E-06,0.004
-1.850E-06,0.012
-1.840E-06,0.016
-1.830E-06,0.016
-1.820E-06,0.012
-1.810E-06,0.008
-1.800E-06,0.008
-1.790E-06,0.000
-1.780E-06,0.004
-1.770E-06,0.012
-1.760E-06,0.020
-1.750E-06,0.020
-1.740E-06,0.024
-1.730E-06,0.016
-1.720E-06,0.012
-1.710E-06,0.004
-1.700E-06,0.000
-1.690E-06,0.000
-1.680E-06,0.008
-1.670E-06,0.028
-1.660E-06,0.028
-1.650E-06,0.032
-1.640E-06,0.024
-1.630E-06,0.012
-1.620E-06,0.000
-1.610E-06,-0.008
-1.600E-06,-0.008
-1.590E-06,0.004
-1.580E-06,0.020
-1.570E-06,0.044
-1.560E-06,0.048
-1.550E-06,0.044
-1.540E-06,0.020
-1.530E-06,-0.008
-1.520E-06,-0.012
-1.510E-06,-0.008
-1.500E-06,0.020
-1.490E-06,0.036
-1.480E-06,0.052
-1.470E-06,0.048
-1.460E-06,0.028
-1.450E-06,0.004
-1.440E-06,-0.020
-1.430E-06,-0.016
-1.420E-06,-0.008
-1.410E-06,0.016
-1.400E-06,0.016
-1.390E-06,0.000
-1.380E-06,-0.016
-1.370E-06,-0.036
-1.360E-06,-0.032
-1.350E-06,-0.004
-1.340E-06,0.012
-1.330E-06,0.028
-1.320E-06,0.028
-1.310E-06,0.000
-1.300E-06,-0.012
-1.290E-06,-0.020
-1.280E-06,-0.012
-1.270E-06,0.000
-1.260E-06,0.008
-1.250E-06,0.012
-1.240E-06,0.008
-1.230E-06,0.004
-1.220E-06,0.008
-1.210E-06,0.012
-1.200E-06,0.012
-1.190E-06,0.004
-1.180E-06,0.008
-1.170E-06,0.012
-1.160E-06,0.016
-1.150E-06,0.024
-1.140E-06,0.028
-1.130E-06,0.024
-1.120E-06,0.012
-1.110E-06,0.000
-1.100E-06,0.000
-1.090E-06,0.004
-1.080E-06,0.012
-1.070E-06,0.024
-1.060E-06,0.020
-1.050E-06,0.020
-1.040E-06,0.008
-1.030E-06,-0.004
-1.020E-06,-0.008
-1.010E-06,0.000
-1.000E-06,0.012
-9.900E-07,0.024
-9.800E-07,0.028
-9.700E-07,0.028
-9.600E-07,0.016
-9.500E-07,0.004
-9.400E-07,-0.004
-9.300E-07,-0.008
-9.200E-07,-0.012
-9.100E-07,-0.008
-9.000E-07,0.000
-8.900E-07,0.012
-8.800E-07,0.008
-8.700E-07,0.008
-8.600E-07,0.004
-8.500E-07,-0.008
-8.400E-07,0.000
-8.300E-07,0.000
-8.200E-07,0.012
-8.100E-07,0.036
-8.000E-07,0.044
-7.900E-07,0.044
-7.800E-07,0.040
-7.700E-07,0.024
-7.600E-07,0.008
-7.500E-07,0.004
-7.400E-07,0.008
-7.300E-07,0.012
-7.200E-07,0.028
-7.100E-07,0.032
-7.000E-07,0.028
-6.900E-07,0.036
-6.800E-07,0.036
-6.700E-07,0.028
-6.600E-07,0.024
-6.500E-07,0.012
-6.400E-07,0.000
-6.300E-07,0.016
-6.200E-07,0.024
-6.100E-07,0.032
-6.000E-07,0.036
-5.900E-07,0.036
-5.800E-07,0.020
-5.700E-07,0.012
-5.600E-07,0.012
-5.500E-07,0.008
-5.400E-07,0.008
-5.300E-07,0.012
-5.200E-07,0.016
-5.100E-07,0.016
-5.000E-07,0.012
-4.900E-07,0.004
-4.800E-07,0.004
-4.700E-07,0.012
-4.600E-07,0.008
-4.500E-07,0.008
-4.400E-07,0.012
-4.300E-07,0.024
-4.200E-07,0.032
-4.100E-07,0.024
-4.000E-07,0.024
-3.900E-07,0.016
-3.800E-07,0.032
-3.700E-07,0.044
-3.600E-07,0.052
-3.500E-07,0.064
-3.400E-07,0.064
-3.300E-07,0.044
-3.200E-07,0.040
-3.100E-07,0.040
-3.000E-07,0.040
-2.900E-07,0.032
-2.800E-07,0.036
-2.700E-07,0.048
-2.600E-07,0.060
-2.500E-07,0.056
-2.400E-07,0.040
-2.300E-07,0.012
-2.200E-07,0.020
-2.100E-07,0.032
-2.000E-07,0.060
-1.900E-07,0.076
-1.800E-07,0.056
-1.700E-07,0.044
-1.600E-07,0.048
-1.500E-07,0.060
-1.400E-07,0.072
-1.300E-07,0.100
-1.200E-07,0.104
-1.100E-07,0.108
-1.000E-07,0.092
-9.000E-08,0.068
-8.000E-08,0.036
-7.000E-08,0.000
-6.000E-08,-0.076
-5.000E-08,-0.284
-4.000E-08,-0.508
-3.000E-08,-0.508
-2.000E-08,-0.512
-1.000E-08,0.092
0.000E+00,0.536
1.000E-08,0.536
2.000E-08,0.540
3.000E-08,-0.244
4.000E-08,-0.508
5.000E-08,-0.508
6.000E-08,-0.508
7.000E-08,0.180
8.000E-08,0.540
9.000E-08,0.544
1.000E-07,0.540
1.100E-07,0.080
1.200E-07,-0.512
1.300E-07,-0.508
1.400E-07,-0.508
1.500E-07,0.012
1.600E-07,0.532
1.700E-07,0.540
1.800E-07,0.540
1.900E-07,0.056
2.000E-07,-0.512
2.100E-07,-0.508
2.200E-07,-0.508
2.300E-07,-0.260
2.400E-07,0.352
2.500E-07,0.540
2.600E-07,0.540
2.700E-07,0.512
2.800E-07,-0.020
2.900E-07,-0.496
3.000E-07,-0.512
3.100E-07,-0.356
3.200E-07,0.132
3.300E-07,0.544
3.400E-07,0.544
3.500E-07,0.496
3.600E-07,0.104
3.700E-07,-0.252
3.800E-07,-0.396
3.900E-07,-0.240
4.000E-07,0.096
4.100E-07,0.416
4.200E-07,0.504
4.300E-07,0.352
4.400E-07,0.044
4.500E-07,-0.244
4.600E-07,-0.364
4.700E-07,-0.336
4.800E-07,-0.200
4.900E-07,-0.020
5.000E-07,0.052
5.100E-07,0.044
5.200E-07,-0.044
5.300E-07,-0.048
5.400E-07,-0.024
5.500E-07,-0.076
5.600E-07,-0.100
5.700E-07,-0.056
5.800E-07,0.048
5.900E-07,0.172
6.000E-07,0.152
6.100E-07,0.056
6.200E-07,-0.076
6.300E-07,-0.216
6.400E-07,-0.288
6.500E-07,-0.188
6.600E-07,-0.048
6.700E-07,0.068
6.800E-07,0.188
6.900E-07,0.264
7.000E-07,0.248
7.100E-07,0.160
7.200E-07,0.004
7.300E-07,-0.080
7.400E-07,-0.068
7.500E-07,-0.024
7.600E-07,0.032
7.700E-07,0.096
7.800E-07,0.140
7.900E-07,0.072
8.000E-07,0.008
8.100E-07,-0.100
8.200E-07,-0.160
8.300E-07,-0.104
8.400E-07,-0.040
8.500E-07,0.012
8.600E-07,0.020
8.700E-07,-0.076
8.800E-07,-0.164
8.900E-07,-0.240
9.000E-07,-0.256
9.100E-07,-0.160
9.200E-07,-0.024
9.300E-07,0.092
9.400E-07,0.156
9.500E-07,0.072
9.600E-07,-0.032
9.700E-07,-0.176
9.800E-07,-0.220
9.900E-07,-0.136
1.000E-06,-0.004
1.010E-06,0.128
1.020E-06,0.136
1.030E-06,0.076
1.040E-06,-0.044
1.050E-06,-0.108
1.060E-06,-0.144
1.070E-06,-0.084
1.080E-06,0.004
1.090E-06,0.112
1.100E-06,0.196
1.110E-06,0.180
1.120E-06,0.120
1.130E-06,0.004
1.140E-06,-0.060
1.150E-06,-0.040
1.160E-06,0.064
1.170E-06,0.160
1.180E-06,0.208
1.190E-06,0.172
1.200E-06,0.092
1.210E-06,-0.032
1.220E-06,-0.100
1.230E-06,-0.084
1.240E-06,-0.024
1.250E-06,0.092
1.260E-06,0.160
1.270E-06,0.176
1.280E-06,0.132
1.290E-06,0.056
1.300E-06,-0.004
1.310E-06,0.012
1.320E-06,0.064
1.330E-06,0.136
1.340E-06,0.188
1.350E-06,0.188
1.360E-06,0.140
1.370E-06,0.088
1.380E-06,0.028
1.390E-06,-0.008
1.400E-06,0.016
1.410E-06,0.052
1.420E-06,0.100
1.430E-06,0.108
1.440E-06,0.096
1.450E-06,0.060
1.460E-06,0.028
1.470E-06,0.020
1.480E-06,0.040
1.490E-06,0.084
1.500E-06,0.104
1.510E-06,0.124
1.520E-06,0.112
1.530E-06,0.092
1.540E-06,0.068
1.550E-06,0.076
1.560E-06,0.088
1.570E-06,0.112
1.580E-06,0.140
1.590E-06,0.160
1.600E-06,0.156
1.610E-06,0.156
1.620E-06,0.132
1.630E-06,0.108
1.640E-06,0.080
1.650E-06,0.048
1.660E-06,0.008
1.670E-06,-0.028
1.680E-06,-0.020
1.690E-06,0.008
1.700E-06,0.084
1.710E-06,0.164
1.720E-06,0.204
1.730E-06,0.200
1.740E-06,0.164
1.750E-06,0.104
1.760E-06,0.012
1.770E-06,-0.052
1.780E-06,-0.132
1.790E-06,-0.128
1.800E-06,-0.136
1.810E-06,-0.148
1.820E-06,-0.136
1.830E-06,-0.088
1.840E-06,0.000
1.850E-06,0.060
1.860E-06,0.072
1.870E-06,0.124
1.880E-06,0.144
1.890E-06,0.120
1.900E-06,0.020
1.910E-06,-0.028
1.920E-06,-0.052
1.930E-06,0.052
1.940E-06,0.116
1.950E-06,0.148
1.960E-06,0.108
1.970E-06,0.040
1.980E-06,0.012
1.990E-06,0.024
2.000E-06,0.076
2.010E-06,0.124
2.020E-06,0.176
2.030E-06,0.184
2.040E-06,0.160
2.050E-06,0.116
2.060E-06,0.080
2.070E-06,0.052
2.080E-06,0.060
2.090E-06,0.064
2.100E-06,0.092
2.110E-06,0.092
2.120E-06,0.056
2.130E-06,0.008
2.140E-06,-0.040
2.150E-06,-0.056
2.160E-06,-0.048
2.170E-06,-0.020
2.180E-06,0.000
2.190E-06,0.004
2.200E-06,-0.020
2.210E-06,-0.036
2.220E-06,-0.036
2.230E-06,-0.020
2.240E-06,0.024
2.250E-06,0.076
2.260E-06,0.124
2.270E-06,0.140
2.280E-06,0.148
2.290E-06,0.144
2.300E-06,0.152
2.310E-06,0.156
2.320E-06,0.168
2.330E-06,0.172
2.340E-06,0.168
2.350E-06,0.152
2.360E-06,0.124
2.370E-06,0.100
2.380E-06,0.092
2.390E-06,0.096
2.400E-06,0.112
2.410E-06,0.128
2.420E-06,0.140
2.430E-06,0.128
2.440E-06,0.120
2.450E-06,0.104
2.460E-06,0.104
2.470E-06,0.084
2.480E-06,0.092
2.490E-06,0.096
2.500E-06,0.108
2.510E-06,0.108
2.520E-06,0.096
2.530E-06,0.088
2.540E-06,0.080
2.550E-06,0.092
2.560E-06,0.108
2.570E-06,0.124
2.580E-06,0.132
2.590E-06,0.140
2.600E-06,0.140
2.610E-06,0.136
2.620E-06,0.128
2.630E-06,0.116
2.640E-06,0.116
2.650E-06,0.124
2.660E-06,0.140
2.670E-06,0.144
2.680E-06,0.152
2.690E-06,0.140
2.700E-06,0.140
2.710E-06,0.132
2.720E-06,0.132
2.730E-06,0.136
2.740E-06,0.144
2.750E-06,0.152
2.760E-06,0.156
2.770E-06,0.152
2.780E-06,0.144
2.790E-06,0.132
2.800E-06,0.128
2.810E-06,0.128
2.820E-06,0.124
2.830E-06,0.132
2.840E-06,0.128
2.850E-06,0.124
2.860E-06,0.124
2.870E-06,0.116
2.880E-06,0.108
2.890E-06,0.120
2.900E-06,0.124
2.910E-06,0.128
2.920E-06,0.132
2.930E-06,0.132
2.940E-06,0.136
2.950E-06,0.136
2.960E-06,0.136
2.970E-06,0.136
2.980E-06,0.144
2.990E-06,0.140
3.000E-06,0.144
3.010E-06,0.148
3.020E-06,0.144
3.030E-06,0.136
3.040E-06,0.140
3.050E-06,0.148
3.060E-06,0.140
3.070E-06,0.140
3.080E-06,0.152
3.090E-06,0.152
3.100E-06,0.148
3.110E-06,0.148
3.120E-06,0.140
3.130E-06,0.140
3.140E-06,0.144
3.150E-06,0.148
3.160E-06,0.152
3.170E-06,0.152
3.180E-06,0.148
3.190E-06,0.148
3.200E-06,0.148
3.210E-06,0.140
3.220E-06,0.140
3.230E-06,0.144
3.240E-06,0.144
3.250E-06,0.140
3.260E-06,0.144
3.270E-06,0.140
3.280E-06,0.140
3.290E-06,0.140
3.300E-06,0.140
3.310E-06,0.144
3.320E-06,0.140
3.330E-06,0.144
3.340E-06,0.144
3.350E-06,0.140
3.360E-06,0.140
