mediciones/5-27/-30/WaveData5037.csv

#timebase=2000000(ps)
,#voltbase=500000(mv/100)
#size=4000
-8.400E-06,0.060
-8.390E-06,0.120
-8.380E-06,0.080
-8.370E-06,0.080
-8.360E-06,0.040
-8.350E-06,0.040
-8.340E-06,0.080
-8.330E-06,0.060
-8.320E-06,0.040
-8.310E-06,0.000
-8.300E-06,0.000
-8.290E-06,0.020
-8.280E-06,0.000
-8.270E-06,0.040
-8.260E-06,0.020
-8.250E-06,0.000
-8.240E-06,-0.020
-8.230E-06,-0.020
-8.220E-06,-0.040
-8.210E-06,-0.020
-8.200E-06,0.000
-8.190E-06,0.020
-8.180E-06,0.040
-8.170E-06,0.000
-8.160E-06,-0.020
-8.150E-06,-0.020
-8.140E-06,0.000
-8.130E-06,0.000
-8.120E-06,0.000
-8.110E-06,0.040
-8.100E-06,0.000
-8.090E-06,0.000
-8.080E-06,0.000
-8.070E-06,0.020
-8.060E-06,0.020
-8.050E-06,0.060
-8.040E-06,0.040
-8.030E-06,0.020
-8.020E-06,0.040
-8.010E-06,0.060
-8.000E-06,0.060
-7.990E-06,0.060
-7.980E-06,0.060
-7.970E-06,0.060
-7.960E-06,0.040
-7.950E-06,0.040
-7.940E-06,0.020
-7.930E-06,0.040
-7.920E-06,0.020
-7.910E-06,0.040
-7.900E-06,0.040
-7.890E-06,-0.020
-7.880E-06,-0.020
-7.870E-06,0.000
-7.860E-06,0.000
-7.850E-06,0.000
-7.840E-06,0.000
-7.830E-06,0.000
-7.820E-06,0.000
-7.810E-06,0.020
-7.800E-06,-0.020
-7.790E-06,-0.020
-7.780E-06,0.000
-7.770E-06,-0.020
-7.760E-06,0.020
-7.750E-06,0.020
-7.740E-06,0.020
-7.730E-06,0.020
-7.720E-06,0.020
-7.710E-06,0.020
-7.700E-06,0.020
-7.690E-06,0.020
-7.680E-06,0.020
-7.670E-06,0.060
-7.660E-06,0.040
-7.650E-06,0.040
-7.640E-06,0.020
-7.630E-06,0.060
-7.620E-06,0.060
-7.610E-06,0.080
-7.600E-06,0.060
-7.590E-06,0.040
-7.580E-06,0.040
-7.570E-06,0.060
-7.560E-06,0.040
-7.550E-06,0.060
-7.540E-06,0.040
-7.530E-06,0.020
-7.520E-06,0.020
-7.510E-06,0.020
-7.500E-06,0.020
-7.490E-06,0.040
-7.480E-06,-0.020
-7.470E-06,-0.020
-7.460E-06,0.000
-7.450E-06,-0.020
-7.440E-06,-0.020
-7.430E-06,0.020
-7.420E-06,-0.020
-7.410E-06,0.000
-7.400E-06,0.000
-7.390E-06,0.020
-7.380E-06,0.000
-7.370E-06,0.000
-7.360E-06,-0.020
-7.350E-06,0.020
-7.340E-06,0.000
-7.330E-06,0.020
-7.320E-06,0.020
-7.310E-06,0.040
-7.300E-06,0.060
-7.290E-06,0.040
-7.280E-06,0.060
-7.270E-06,0.040
-7.260E-06,0.040
-7.250E-06,0.060
-7.240E-06,0.040
-7.230E-06,0.060
-7.220E-06,0.040
-7.210E-06,0.060
-7.200E-06,0.080
-7.190E-06,0.020
-7.180E-06,0.000
-7.170E-06,0.040
-7.160E-06,0.040
-7.150E-06,0.020
-7.140E-06,0.040
-7.130E-06,0.060
-7.120E-06,0.020
-7.110E-06,0.000
-7.100E-06,0.020
-7.090E-06,-0.020
-7.080E-06,0.000
-7.070E-06,0.020
-7.060E-06,0.020
-7.050E-06,0.000
-7.040E-06,0.000
-7.030E-06,0.020
-7.020E-06,0.020
-7.010E-06,0.000
-7.000E-06,0.000
-6.990E-06,0.020
-6.980E-06,0.000
-6.970E-06,0.000
-6.960E-06,0.020
-6.950E-06,0.020
-6.940E-06,0.020
-6.930E-06,0.020
-6.920E-06,0.020
-6.910E-06,0.040
-6.900E-06,0.040
-6.890E-06,0.020
-6.880E-06,0.060
-6.870E-06,0.040
-6.860E-06,0.020
-6.850E-06,0.060
-6.840E-06,0.040
-6.830E-06,0.040
-6.820E-06,0.040
-6.810E-06,0.040
-6.800E-06,0.040
-6.790E-06,0.080
-6.780E-06,0.040
-6.770E-06,0.040
-6.760E-06,0.040
-6.750E-06,0.040
-6.740E-06,0.060
-6.730E-06,0.040
-6.720E-06,0.000
-6.710E-06,0.040
-6.700E-06,0.020
-6.690E-06,0.020
-6.680E-06,0.000
-6.670E-06,0.020
-6.660E-06,0.000
-6.650E-06,0.020
-6.640E-06,0.000
-6.630E-06,0.000
-6.620E-06,0.000
-6.610E-06,0.000
-6.600E-06,-0.020
-6.590E-06,0.020
-6.580E-06,0.000
-6.570E-06,0.000
-6.560E-06,0.040
-6.550E-06,0.000
-6.540E-06,-0.020
-6.530E-06,0.020
-6.520E-06,0.040
-6.510E-06,0.000
-6.500E-06,0.040
-6.490E-06,0.040
-6.480E-06,0.040
-6.470E-06,0.040
-6.460E-06,0.020
-6.450E-06,0.060
-6.440E-06,0.040
-6.430E-06,0.000
-6.420E-06,0.040
-6.410E-06,0.060
-6.400E-06,0.060
-6.390E-06,0.000
-6.380E-06,0.040
-6.370E-06,0.060
-6.360E-06,0.040
-6.350E-06,0.000
-6.340E-06,0.000
-6.330E-06,0.020
-6.320E-06,0.020
-6.310E-06,0.020
-6.300E-06,0.040
-6.290E-06,0.020
-6.280E-06,0.000
-6.270E-06,0.020
-6.260E-06,0.000
-6.250E-06,0.000
-6.240E-06,0.020
-6.230E-06,0.020
-6.220E-06,0.000
-6.210E-06,-0.020
-6.200E-06,0.020
-6.190E-06,0.020
-6.180E-06,0.020
-6.170E-06,0.020
-6.160E-06,0.000
-6.150E-06,0.020
-6.140E-06,0.040
-6.130E-06,0.020
-6.120E-06,0.040
-6.110E-06,0.040
-6.100E-06,0.040
-6.090E-06,0.040
-6.080E-06,0.060
-6.070E-06,0.040
-6.060E-06,0.020
-6.050E-06,0.040
-6.040E-06,0.040
-6.030E-06,0.040
-6.020E-06,0.020
-6.010E-06,0.040
-6.000E-06,0.040
-5.990E-06,0.020
-5.980E-06,0.040
-5.970E-06,0.040
-5.960E-06,0.000
-5.950E-06,0.020
-5.940E-06,0.020
-5.930E-06,0.020
-5.920E-06,0.000
-5.910E-06,0.000
-5.900E-06,0.040
-5.890E-06,0.040
-5.880E-06,0.000
-5.870E-06,0.000
-5.860E-06,0.020
-5.850E-06,0.000
-5.840E-06,0.020
-5.830E-06,0.020
-5.820E-06,0.040
-5.810E-06,0.020
-5.800E-06,0.060
-5.790E-06,0.020
-5.780E-06,0.020
-5.770E-06,0.040
-5.760E-06,0.040
-5.750E-06,0.060
-5.740E-06,0.020
-5.730E-06,0.000
-5.720E-06,0.040
-5.710E-06,0.020
-5.700E-06,0.040
-5.690E-06,0.040
-5.680E-06,0.040
-5.670E-06,0.060
-5.660E-06,0.040
-5.650E-06,0.020
-5.640E-06,0.040
-5.630E-06,0.040
-5.620E-06,0.040
-5.610E-06,0.040
-5.600E-06,0.060
-5.590E-06,0.020
-5.580E-06,0.000
-5.570E-06,0.020
-5.560E-06,-0.020
-5.550E-06,0.020
-5.540E-06,0.040
-5.530E-06,0.020
-5.520E-06,0.000
-5.510E-06,0.000
-5.500E-06,0.000
-5.490E-06,-0.020
-5.480E-06,0.020
-5.470E-06,0.020
-5.460E-06,0.060
-5.450E-06,0.040
-5.440E-06,0.020
-5.430E-06,0.040
-5.420E-06,0.020
-5.410E-06,0.020
-5.400E-06,0.020
-5.390E-06,0.040
-5.380E-06,0.060
-5.370E-06,0.040
-5.360E-06,0.020
-5.350E-06,0.040
-5.340E-06,0.020
-5.330E-06,0.020
-5.320E-06,0.040
-5.310E-06,0.060
-5.300E-06,0.020
-5.290E-06,0.040
-5.280E-06,0.020
-5.270E-06,0.040
-5.260E-06,0.000
-5.250E-06,0.040
-5.240E-06,0.040
-5.230E-06,0.060
-5.220E-06,0.020
-5.210E-06,0.020
-5.200E-06,0.020
-5.190E-06,0.020
-5.180E-06,0.000
-5.170E-06,0.020
-5.160E-06,0.020
-5.150E-06,0.020
-5.140E-06,0.040
-5.130E-06,0.020
-5.120E-06,0.040
-5.110E-06,0.000
-5.100E-06,0.020
-5.090E-06,0.000
-5.080E-06,0.000
-5.070E-06,0.040
-5.060E-06,0.020
-5.050E-06,0.040
-5.040E-06,0.020
-5.030E-06,0.040
-5.020E-06,0.060
-5.010E-06,0.020
-5.000E-06,0.020
-4.990E-06,0.040
-4.980E-06,0.060
-4.970E-06,0.040
-4.960E-06,0.000
-4.950E-06,0.040
-4.940E-06,0.060
-4.930E-06,0.060
-4.920E-06,0.060
-4.910E-06,0.000
-4.900E-06,0.020
-4.890E-06,0.020
-4.880E-06,0.020
-4.870E-06,0.040
-4.860E-06,0.060
-4.850E-06,0.040
-4.840E-06,0.000
-4.830E-06,0.020
-4.820E-06,0.020
-4.810E-06,0.060
-4.800E-06,0.040
-4.790E-06,0.060
-4.780E-06,0.020
-4.770E-06,0.000
-4.760E-06,0.020
-4.750E-06,0.060
-4.740E-06,0.040
-4.730E-06,0.040
-4.720E-06,0.020
-4.710E-06,0.020
-4.700E-06,0.040
-4.690E-06,0.040
-4.680E-06,0.040
-4.670E-06,0.040
-4.660E-06,0.020
-4.650E-06,0.040
-4.640E-06,0.040
-4.630E-06,0.000
-4.620E-06,0.020
-4.610E-06,0.040
-4.600E-06,0.020
-4.590E-06,0.040
-4.580E-06,0.020
-4.570E-06,0.020
-4.560E-06,0.040
-4.550E-06,0.040
-4.540E-06,0.020
-4.530E-06,0.040
-4.520E-06,0.020
-4.510E-06,0.020
-4.500E-06,0.020
-4.490E-06,0.020
-4.480E-06,0.000
-4.470E-06,0.040
-4.460E-06,0.060
-4.450E-06,0.060
-4.440E-06,0.020
-4.430E-06,0.000
-4.420E-06,0.040
-4.410E-06,0.020
-4.400E-06,0.020
-4.390E-06,0.000
-4.380E-06,0.040
-4.370E-06,0.020
-4.360E-06,0.040
-4.350E-06,0.020
-4.340E-06,0.040
-4.330E-06,0.040
-4.320E-06,0.040
-4.310E-06,0.040
-4.300E-06,0.060
-4.290E-06,0.040
-4.280E-06,0.040
-4.270E-06,0.040
-4.260E-06,0.040
-4.250E-06,0.040
-4.240E-06,0.040
-4.230E-06,0.040
-4.220E-06,0.060
-4.210E-06,0.040
-4.200E-06,0.040
-4.190E-06,0.040
-4.180E-06,0.040
-4.170E-06,0.060
-4.160E-06,0.040
-4.150E-06,0.020
-4.140E-06,0.020
-4.130E-06,0.020
-4.120E-06,0.020
-4.110E-06,0.060
-4.100E-06,0.020
-4.090E-06,0.020
-4.080E-06,0.020
-4.070E-06,0.000
-4.060E-06,0.020
-4.050E-06,0.020
-4.040E-06,0.020
-4.030E-06,0.060
-4.020E-06,0.060
-4.010E-06,0.020
-4.000E-06,0.020
-3.990E-06,0.020
-3.980E-06,0.020
-3.970E-06,0.040
-3.960E-06,0.020
-3.950E-06,0.040
-3.940E-06,0.020
-3.930E-06,0.020
-3.920E-06,0.060
-3.910E-06,0.040
-3.900E-06,0.020
-3.890E-06,0.040
-3.880E-06,0.040
-3.870E-06,0.060
-3.860E-06,0.040
-3.850E-06,0.040
-3.840E-06,0.060
-3.830E-06,0.060
-3.820E-06,0.060
-3.810E-06,0.020
-3.800E-06,0.040
-3.790E-06,0.040
-3.780E-06,0.040
-3.770E-06,0.060
-3.760E-06,0.040
-3.750E-06,0.000
-3.740E-06,0.020
-3.730E-06,0.000
-3.720E-06,0.000
-3.710E-06,0.020
-3.700E-06,0.000
-3.690E-06,0.020
-3.680E-06,0.040
-3.670E-06,0.020
-3.660E-06,0.020
-3.650E-06,0.020
-3.640E-06,0.020
-3.630E-06,0.020
-3.620E-06,0.060
-3.610E-06,0.020
-3.600E-06,0.040
-3.590E-06,0.020
-3.580E-06,0.020
-3.570E-06,0.040
-3.560E-06,0.020
-3.550E-06,0.000
-3.540E-06,0.040
-3.530E-06,0.060
-3.520E-06,0.020
-3.510E-06,0.040
-3.500E-06,0.020
-3.490E-06,0.060
-3.480E-06,0.040
-3.470E-06,0.060
-3.460E-06,0.020
-3.450E-06,0.020
-3.440E-06,0.040
-3.430E-06,0.020
-3.420E-06,0.020
-3.410E-06,0.040
-3.400E-06,0.020
-3.390E-06,0.040
-3.380E-06,0.020
-3.370E-06,0.040
-3.360E-06,0.020
-3.350E-06,0.020
-3.340E-06,0.020
-3.330E-06,0.020
-3.320E-06,0.000
-3.310E-06,0.020
-3.300E-06,0.020
-3.290E-06,0.020
-3.280E-06,0.020
-3.270E-06,0.020
-3.260E-06,0.040
-3.250E-06,0.040
-3.240E-06,-0.020
-3.230E-06,-0.020
-3.220E-06,0.020
-3.210E-06,0.060
-3.200E-06,0.020
-3.190E-06,0.020
-3.180E-06,0.020
-3.170E-06,-0.020
-3.160E-06,0.000
-3.150E-06,0.020
-3.140E-06,0.020
-3.130E-06,0.040
-3.120E-06,0.040
-3.110E-06,0.020
-3.100E-06,0.040
-3.090E-06,0.060
-3.080E-06,0.060
-3.070E-06,0.060
-3.060E-06,0.020
-3.050E-06,0.040
-3.040E-06,0.020
-3.030E-06,0.020
-3.020E-06,0.020
-3.010E-06,0.020
-3.000E-06,0.020
-2.990E-06,0.040
-2.980E-06,0.060
-2.970E-06,0.040
-2.960E-06,0.020
-2.950E-06,0.060
-2.940E-06,0.040
-2.930E-06,0.020
-2.920E-06,0.000
-2.910E-06,0.000
-2.900E-06,0.000
-2.890E-06,0.020
-2.880E-06,-0.020
-2.870E-06,0.020
-2.860E-06,0.000
-2.850E-06,0.000
-2.840E-06,-0.020
-2.830E-06,0.000
-2.820E-06,-0.020
-2.810E-06,-0.080
-2.800E-06,-0.080
-2.790E-06,-0.080
-2.780E-06,-0.060
-2.770E-06,0.060
-2.760E-06,0.080
-2.750E-06,0.080
-2.740E-06,-0.060
-2.730E-06,-0.140
-2.720E-06,-0.180
-2.710E-06,-0.080
-2.700E-06,0.220
-2.690E-06,0.460
-2.680E-06,0.500
-2.670E-06,0.460
-2.660E-06,0.240
-2.650E-06,0.060
-2.640E-06,0.040
-2.630E-06,0.160
-2.620E-06,0.380
-2.610E-06,0.420
-2.600E-06,0.340
-2.590E-06,0.280
-2.580E-06,0.080
-2.570E-06,0.040
-2.560E-06,0.060
-2.550E-06,0.100
-2.540E-06,0.200
-2.530E-06,0.180
-2.520E-06,0.100
-2.510E-06,0.000
-2.500E-06,-0.040
-2.490E-06,-0.060
-2.480E-06,0.060
-2.470E-06,-0.180
-2.460E-06,-0.060
-2.450E-06,-0.320
-2.440E-06,-0.580
-2.430E-06,-0.280
-2.420E-06,-0.500
-2.410E-06,0.020
-2.400E-06,0.380
-2.390E-06,0.260
-2.380E-06,0.480
-2.370E-06,0.180
-2.360E-06,-0.060
-2.350E-06,0.000
-2.340E-06,0.000
-2.330E-06,0.280
-2.320E-06,0.440
-2.310E-06,0.360
-2.300E-06,0.300
-2.290E-06,0.080
-2.280E-06,0.000
-2.270E-06,0.080
-2.260E-06,0.160
-2.250E-06,0.300
-2.240E-06,0.280
-2.230E-06,0.200
-2.220E-06,0.080
-2.210E-06,0.040
-2.200E-06,0.020
-2.190E-06,0.080
-2.180E-06,0.100
-2.170E-06,0.020
-2.160E-06,0.080
-2.150E-06,0.000
-2.140E-06,0.100
-2.130E-06,-0.100
-2.120E-06,0.000
-2.110E-06,-0.120
-2.100E-06,-0.120
-2.090E-06,-0.060
-2.080E-06,-0.260
-2.070E-06,0.000
-2.060E-06,-0.200
-2.050E-06,-0.160
-2.040E-06,0.060
-2.030E-06,-0.020
-2.020E-06,0.200
-2.010E-06,0.120
-2.000E-06,0.020
-1.990E-06,0.040
-1.980E-06,0.020
-1.970E-06,0.120
-1.960E-06,0.200
-1.950E-06,0.180
-1.940E-06,0.200
-1.930E-06,0.140
-1.920E-06,0.080
-1.910E-06,0.080
-1.900E-06,0.160
-1.890E-06,0.220
-1.880E-06,0.180
-1.870E-06,0.160
-1.860E-06,0.100
-1.850E-06,0.060
-1.840E-06,0.100
-1.830E-06,0.060
-1.820E-06,0.100
-1.810E-06,0.040
-1.800E-06,0.060
-1.790E-06,0.060
-1.780E-06,-0.160
-1.770E-06,0.000
-1.760E-06,-0.180
-1.750E-06,-0.220
-1.740E-06,0.000
-1.730E-06,-0.080
-1.720E-06,0.020
-1.710E-06,0.040
-1.700E-06,-0.080
-1.690E-06,-0.100
-1.680E-06,-0.100
-1.670E-06,-0.040
-1.660E-06,0.080
-1.650E-06,0.140
-1.640E-06,0.100
-1.630E-06,0.020
-1.620E-06,0.000
-1.610E-06,0.080
-1.600E-06,0.040
-1.590E-06,0.140
-1.580E-06,0.100
-1.570E-06,0.320
-1.560E-06,0.040
-1.550E-06,-0.320
-1.540E-06,0.100
-1.530E-06,-0.340
-1.520E-06,0.020
-1.510E-06,0.500
-1.500E-06,0.520
-1.490E-06,0.700
-1.480E-06,0.320
-1.470E-06,0.120
-1.460E-06,0.080
-1.450E-06,0.060
-1.440E-06,0.460
-1.430E-06,0.580
-1.420E-06,0.440
-1.410E-06,0.340
-1.400E-06,0.040
-1.390E-06,-0.120
-1.380E-06,0.180
-1.370E-06,0.100
-1.360E-06,0.260
-1.350E-06,0.340
-1.340E-06,0.100
-1.330E-06,-0.020
-1.320E-06,0.020
-1.310E-06,-0.040
-1.300E-06,0.060
-1.290E-06,-0.240
-1.280E-06,0.420
-1.270E-06,0.000
-1.260E-06,-0.460
-1.250E-06,0.140
-1.240E-06,-0.680
-1.230E-06,-0.340
-1.220E-06,0.240
-1.210E-06,0.260
-1.200E-06,0.760
-1.190E-06,0.340
-1.180E-06,-0.040
-1.170E-06,-0.180
-1.160E-06,-0.360
-1.150E-06,0.120
-1.140E-06,0.500
-1.130E-06,0.520
-1.120E-06,0.480
-1.110E-06,0.080
-1.100E-06,-0.080
-1.090E-06,-0.220
-1.080E-06,0.080
-1.070E-06,0.300
-1.060E-06,0.260
-1.050E-06,0.480
-1.040E-06,0.140
-1.030E-06,0.100
-1.020E-06,0.060
-1.010E-06,-0.080
-1.000E-06,0.060
-9.900E-07,0.120
-9.800E-07,0.120
-9.700E-07,0.160
-9.600E-07,0.080
-9.500E-07,0.120
-9.400E-07,0.000
-9.300E-07,0.020
-9.200E-07,0.080
-9.100E-07,0.080
-9.000E-07,0.160
-8.900E-07,0.160
-8.800E-07,0.200
-8.700E-07,0.220
-8.600E-07,0.080
-8.500E-07,0.340
-8.400E-07,0.180
-8.300E-07,-0.300
-8.200E-07,0.400
-8.100E-07,-0.260
-8.000E-07,0.240
-7.900E-07,0.560
-7.800E-07,0.740
-7.700E-07,0.760
-7.600E-07,0.520
-7.500E-07,0.400
-7.400E-07,0.160
-7.300E-07,0.580
-7.200E-07,0.660
-7.100E-07,1.000
-7.000E-07,1.020
-6.900E-07,0.720
-6.800E-07,0.740
-6.700E-07,0.720
-6.600E-07,0.620
-6.500E-07,0.940
-6.400E-07,0.780
-6.300E-07,0.700
-6.200E-07,0.720
-6.100E-07,0.740
-6.000E-07,0.600
-5.900E-07,1.020
-5.800E-07,0.720
-5.700E-07,0.420
-5.600E-07,0.880
-5.500E-07,0.260
-5.400E-07,0.840
-5.300E-07,0.820
-5.200E-07,0.640
-5.100E-07,0.820
-5.000E-07,0.560
-4.900E-07,0.400
-4.800E-07,0.820
-4.700E-07,0.780
-4.600E-07,0.680
-4.500E-07,1.040
-4.400E-07,0.680
-4.300E-07,0.920
-4.200E-07,1.000
-4.100E-07,0.900
-4.000E-07,1.340
-3.900E-07,1.080
-3.800E-07,1.180
-3.700E-07,1.320
-3.600E-07,0.980
-3.500E-07,1.580
-3.400E-07,1.040
-3.300E-07,1.460
-3.200E-07,1.400
-3.100E-07,0.560
-3.000E-07,0.800
-2.900E-07,0.760
-2.800E-07,0.640
-2.700E-07,0.960
-2.600E-07,0.980
-2.500E-07,0.460
-2.400E-07,0.060
-2.300E-07,0.360
-2.200E-07,0.200
-2.100E-07,1.120
-2.000E-07,1.160
-1.900E-07,0.960
-1.800E-07,1.100
-1.700E-07,0.660
-1.600E-07,0.720
-1.500E-07,1.580
-1.400E-07,1.320
-1.300E-07,2.040
-1.200E-07,2.020
-1.100E-07,1.480
-1.000E-07,1.880
-9.000E-08,1.280
-8.000E-08,1.540
-7.000E-08,1.440
-6.000E-08,1.440
-5.000E-08,1.680
-4.000E-08,1.620
-3.000E-08,1.700
-2.000E-08,1.480
-1.000E-08,1.540
0.000E+00,1.400
1.000E-08,1.500
2.000E-08,1.860
3.000E-08,1.940
4.000E-08,2.080
5.000E-08,2.020
6.000E-08,1.760
7.000E-08,1.700
8.000E-08,1.620
9.000E-08,1.880
1.000E-07,1.920
1.100E-07,1.960
1.200E-07,1.940
1.300E-07,1.720
1.400E-07,1.680
1.500E-07,1.680
1.600E-07,1.640
1.700E-07,1.740
1.800E-07,1.580
1.900E-07,1.420
2.000E-07,1.240
2.100E-07,1.120
2.200E-07,1.080
2.300E-07,1.020
2.400E-07,1.060
2.500E-07,1.060
2.600E-07,0.940
2.700E-07,0.960
2.800E-07,0.860
2.900E-07,0.800
3.000E-07,0.900
3.100E-07,0.960
3.200E-07,1.060
3.300E-07,1.120
3.400E-07,1.140
3.500E-07,1.100
3.600E-07,1.040
3.700E-07,1.140
3.800E-07,1.100
3.900E-07,1.240
4.000E-07,1.320
4.100E-07,1.220
4.200E-07,1.220
4.300E-07,1.180
4.400E-07,1.200
4.500E-07,1.300
4.600E-07,1.240
4.700E-07,1.200
4.800E-07,1.160
4.900E-07,1.020
5.000E-07,1.020
5.100E-07,1.040
5.200E-07,1.020
5.300E-07,1.040
5.400E-07,1.020
5.500E-07,1.000
5.600E-07,1.020
5.700E-07,1.040
5.800E-07,1.120
5.900E-07,1.140
6.000E-07,1.140
6.100E-07,1.160
6.200E-07,1.180
6.300E-07,1.180
6.400E-07,1.180
6.500E-07,1.180
6.600E-07,1.180
6.700E-07,1.180
6.800E-07,1.160
6.900E-07,1.200
7.000E-07,1.180
7.100E-07,1.180
7.200E-07,1.180
7.300E-07,1.160
7.400E-07,1.160
7.500E-07,1.140
7.600E-07,1.140
7.700E-07,1.140
7.800E-07,1.160
7.900E-07,1.160
8.000E-07,1.160
8.100E-07,1.100
8.200E-07,1.080
8.300E-07,1.040
8.400E-07,1.020
8.500E-07,0.980
8.600E-07,0.960
8.700E-07,0.900
8.800E-07,0.840
8.900E-07,0.780
9.000E-07,0.740
9.100E-07,0.680
9.200E-07,0.620
9.300E-07,0.560
9.400E-07,0.540
9.500E-07,0.480
9.600E-07,0.440
9.700E-07,0.400
9.800E-07,0.380
9.900E-07,0.340
1.000E-06,0.300
1.010E-06,0.220
1.020E-06,0.180
1.030E-06,0.060
1.040E-06,0.000
1.050E-06,0.000
1.060E-06,-0.100
1.070E-06,-0.180
1.080E-06,-0.240
1.090E-06,-0.340
1.100E-06,-0.520
1.110E-06,-0.500
1.120E-06,-0.560
1.130E-06,-0.740
1.140E-06,-0.840
1.150E-06,-1.000
1.160E-06,-1.100
1.170E-06,-1.180
1.180E-06,-1.280
1.190E-06,-1.320
1.200E-06,-1.360
1.210E-06,-1.460
1.220E-06,-1.580
1.230E-06,-1.760
1.240E-06,-1.780
1.250E-06,-1.900
1.260E-06,-2.000
1.270E-06,-2.120
1.280E-06,-2.320
1.290E-06,-2.380
1.300E-06,-2.540
1.310E-06,-2.640
1.320E-06,-2.660
1.330E-06,-2.660
1.340E-06,-2.660
1.350E-06,-2.660
1.360E-06,-2.640
1.370E-06,-2.640
1.380E-06,-2.640
1.390E-06,-2.660
1.400E-06,-2.660
1.410E-06,-2.660
1.420E-06,-2.660
1.430E-06,-2.660
1.440E-06,-2.660
1.450E-06,-2.660
1.460E-06,-2.660
1.470E-06,-2.660
1.480E-06,-2.660
1.490E-06,-2.680
1.500E-06,-2.680
1.510E-06,-2.680
1.520E-06,-2.680
1.530E-06,-2.680
1.540E-06,-2.660
1.550E-06,-2.660
1.560E-06,-2.640
1.570E-06,-2.660
1.580E-06,-2.660
1.590E-06,-2.680
1.600E-06,-2.660
1.610E-06,-2.660
1.620E-06,-2.660
1.630E-06,-2.660
1.640E-06,-2.660
1.650E-06,-2.660
1.660E-06,-2.660
1.670E-06,-2.660
1.680E-06,-2.660
1.690E-06,-2.640
1.700E-06,-2.640
1.710E-06,-2.640
1.720E-06,-2.640
1.730E-06,-2.660
1.740E-06,-2.660
1.750E-06,-2.660
1.760E-06,-2.660
1.770E-06,-2.660
1.780E-06,-2.660
1.790E-06,-2.660
1.800E-06,-2.660
1.810E-06,-2.660
1.820E-06,-2.680
1.830E-06,-2.660
1.840E-06,-2.660
1.850E-06,-2.660
1.860E-06,-2.680
1.870E-06,-2.660
1.880E-06,-2.660
1.890E-06,-2.640
1.900E-06,-2.600
1.910E-06,-2.480
1.920E-06,-2.420
1.930E-06,-2.300
1.940E-06,-2.200
1.950E-06,-2.120
1.960E-06,-2.060
1.970E-06,-2.040
1.980E-06,-1.920
1.990E-06,-1.840
2.000E-06,-1.800
2.010E-06,-1.780
2.020E-06,-1.760
2.030E-06,-1.800
2.040E-06,-1.840
2.050E-06,-1.860
2.060E-06,-1.880
2.070E-06,-1.940
2.080E-06,-1.980
2.090E-06,-2.060
2.100E-06,-2.120
2.110E-06,-2.200
2.120E-06,-2.280
2.130E-06,-2.320
2.140E-06,-2.340
2.150E-06,-2.380
2.160E-06,-2.380
2.170E-06,-2.400
2.180E-06,-2.440
2.190E-06,-2.420
2.200E-06,-2.460
2.210E-06,-2.480
2.220E-06,-2.500
2.230E-06,-2.480
2.240E-06,-2.520
2.250E-06,-2.500
2.260E-06,-2.520
2.270E-06,-2.560
2.280E-06,-2.540
2.290E-06,-2.560
2.300E-06,-2.540
2.310E-06,-2.540
2.320E-06,-2.500
2.330E-06,-2.460
2.340E-06,-2.440
2.350E-06,-2.380
2.360E-06,-2.340
2.370E-06,-2.280
2.380E-06,-2.200
2.390E-06,-2.120
2.400E-06,-2.020
2.410E-06,-1.940
2.420E-06,-1.840
2.430E-06,-1.760
2.440E-06,-1.680
2.450E-06,-1.620
2.460E-06,-1.520
2.470E-06,-1.500
2.480E-06,-1.460
2.490E-06,-1.460
2.500E-06,-1.540
2.510E-06,-1.580
2.520E-06,-1.680
2.530E-06,-1.720
2.540E-06,-1.740
2.550E-06,-1.720
2.560E-06,-1.740
2.570E-06,-1.760
2.580E-06,-1.760
2.590E-06,-1.740
2.600E-06,-1.700
2.610E-06,-1.680
2.620E-06,-1.660
2.630E-06,-1.660
2.640E-06,-1.660
2.650E-06,-1.660
2.660E-06,-1.660
2.670E-06,-1.600
2.680E-06,-1.560
2.690E-06,-1.540
2.700E-06,-1.540
2.710E-06,-1.560
2.720E-06,-1.580
2.730E-06,-1.600
2.740E-06,-1.640
2.750E-06,-1.700
2.760E-06,-1.760
2.770E-06,-1.820
2.780E-06,-1.940
2.790E-06,-2.020
2.800E-06,-2.100
2.810E-06,-2.240
2.820E-06,-2.400
2.830E-06,-2.560
2.840E-06,-2.660
2.850E-06,-2.660
2.860E-06,-2.640
2.870E-06,-2.660
2.880E-06,-2.660
2.890E-06,-2.660
2.900E-06,-2.660
2.910E-06,-2.660
2.920E-06,-2.640
2.930E-06,-2.660
2.940E-06,-2.660
2.950E-06,-2.660
2.960E-06,-2.660
2.970E-06,-2.660
2.980E-06,-2.660
2.990E-06,-2.660
3.000E-06,-2.660
3.010E-06,-2.660
3.020E-06,-2.660
3.030E-06,-2.660
3.040E-06,-2.660
3.050E-06,-2.660
3.060E-06,-2.660
3.070E-06,-2.660
3.080E-06,-2.680
3.090E-06,-2.680
3.100E-06,-2.680
3.110E-06,-2.680
3.120E-06,-2.660
3.130E-06,-2.660
3.140E-06,-2.640
3.150E-06,-2.640
3.160E-06,-2.660
3.170E-06,-2.660
3.180E-06,-2.680
3.190E-06,-2.660
3.200E-06,-2.580
3.210E-06,-2.320
3.220E-06,-2.060
3.230E-06,-1.860
3.240E-06,-1.720
3.250E-06,-1.680
3.260E-06,-1.700
3.270E-06,-1.840
3.280E-06,-1.880
3.290E-06,-1.940
3.300E-06,-1.960
3.310E-06,-1.960
3.320E-06,-2.000
3.330E-06,-2.080
