mediciones/5-27/-30/WaveData5047.csv

#timebase=2000000(ps)
,#voltbase=500000(mv/100)
#size=4000
-8.400E-06,0.000
-8.390E-06,-0.020
-8.380E-06,0.080
-8.370E-06,-0.040
-8.360E-06,-0.020
-8.350E-06,0.160
-8.340E-06,0.060
-8.330E-06,0.020
-8.320E-06,0.040
-8.310E-06,-0.020
-8.300E-06,0.000
-8.290E-06,0.020
-8.280E-06,0.080
-8.270E-06,0.100
-8.260E-06,0.040
-8.250E-06,0.020
-8.240E-06,0.000
-8.230E-06,0.020
-8.220E-06,0.060
-8.210E-06,0.100
-8.200E-06,0.060
-8.190E-06,0.060
-8.180E-06,0.040
-8.170E-06,0.020
-8.160E-06,0.020
-8.150E-06,0.020
-8.140E-06,0.040
-8.130E-06,0.020
-8.120E-06,0.000
-8.110E-06,0.040
-8.100E-06,0.060
-8.090E-06,0.020
-8.080E-06,0.020
-8.070E-06,0.040
-8.060E-06,0.080
-8.050E-06,0.020
-8.040E-06,0.020
-8.030E-06,0.100
-8.020E-06,-0.020
-8.010E-06,0.000
-8.000E-06,0.100
-7.990E-06,0.040
-7.980E-06,0.020
-7.970E-06,0.080
-7.960E-06,0.020
-7.950E-06,-0.020
-7.940E-06,0.020
-7.930E-06,0.020
-7.920E-06,0.060
-7.910E-06,0.080
-7.900E-06,0.060
-7.890E-06,0.000
-7.880E-06,0.020
-7.870E-06,0.020
-7.860E-06,0.040
-7.850E-06,0.080
-7.840E-06,0.040
-7.830E-06,0.060
-7.820E-06,0.060
-7.810E-06,0.060
-7.800E-06,0.020
-7.790E-06,0.020
-7.780E-06,0.040
-7.770E-06,0.040
-7.760E-06,0.060
-7.750E-06,0.000
-7.740E-06,0.040
-7.730E-06,0.040
-7.720E-06,0.040
-7.710E-06,0.080
-7.700E-06,0.040
-7.690E-06,0.060
-7.680E-06,0.020
-7.670E-06,0.000
-7.660E-06,0.060
-7.650E-06,0.060
-7.640E-06,0.020
-7.630E-06,0.000
-7.620E-06,0.040
-7.610E-06,-0.020
-7.600E-06,-0.020
-7.590E-06,0.160
-7.580E-06,0.080
-7.570E-06,-0.020
-7.560E-06,0.100
-7.550E-06,0.000
-7.540E-06,-0.020
-7.530E-06,0.020
-7.520E-06,0.060
-7.510E-06,0.080
-7.500E-06,0.060
-7.490E-06,0.080
-7.480E-06,0.040
-7.470E-06,-0.020
-7.460E-06,0.040
-7.450E-06,0.060
-7.440E-06,0.040
-7.430E-06,0.020
-7.420E-06,0.040
-7.410E-06,0.040
-7.400E-06,0.060
-7.390E-06,0.040
-7.380E-06,0.020
-7.370E-06,0.040
-7.360E-06,0.040
-7.350E-06,0.020
-7.340E-06,0.060
-7.330E-06,0.020
-7.320E-06,0.040
-7.310E-06,0.040
-7.300E-06,0.020
-7.290E-06,0.020
-7.280E-06,0.020
-7.270E-06,0.020
-7.260E-06,0.000
-7.250E-06,0.060
-7.240E-06,0.020
-7.230E-06,0.020
-7.220E-06,0.020
-7.210E-06,0.040
-7.200E-06,0.040
-7.190E-06,0.060
-7.180E-06,0.100
-7.170E-06,0.020
-7.160E-06,-0.020
-7.150E-06,0.000
-7.140E-06,0.000
-7.130E-06,0.020
-7.120E-06,0.120
-7.110E-06,0.080
-7.100E-06,0.040
-7.090E-06,0.060
-7.080E-06,0.000
-7.070E-06,0.020
-7.060E-06,0.080
-7.050E-06,0.080
-7.040E-06,0.100
-7.030E-06,0.020
-7.020E-06,-0.020
-7.010E-06,0.000
-7.000E-06,0.000
-6.990E-06,0.040
-6.980E-06,0.080
-6.970E-06,0.060
-6.960E-06,0.040
-6.950E-06,0.040
-6.940E-06,0.020
-6.930E-06,0.040
-6.920E-06,0.060
-6.910E-06,0.060
-6.900E-06,0.080
-6.890E-06,0.060
-6.880E-06,0.020
-6.870E-06,0.040
-6.860E-06,0.060
-6.850E-06,0.040
-6.840E-06,0.000
-6.830E-06,0.000
-6.820E-06,0.040
-6.810E-06,0.060
-6.800E-06,0.060
-6.790E-06,0.080
-6.780E-06,0.060
-6.770E-06,0.020
-6.760E-06,0.040
-6.750E-06,0.040
-6.740E-06,0.040
-6.730E-06,0.040
-6.720E-06,0.040
-6.710E-06,0.060
-6.700E-06,0.040
-6.690E-06,0.020
-6.680E-06,0.020
-6.670E-06,0.040
-6.660E-06,0.020
-6.650E-06,0.040
-6.640E-06,0.020
-6.630E-06,0.020
-6.620E-06,0.040
-6.610E-06,0.020
-6.600E-06,0.040
-6.590E-06,0.060
-6.580E-06,0.080
-6.570E-06,0.080
-6.560E-06,0.060
-6.550E-06,0.080
-6.540E-06,0.060
-6.530E-06,0.060
-6.520E-06,0.040
-6.510E-06,0.040
-6.500E-06,0.040
-6.490E-06,0.040
-6.480E-06,0.040
-6.470E-06,0.080
-6.460E-06,0.040
-6.450E-06,0.000
-6.440E-06,0.060
-6.430E-06,0.020
-6.420E-06,0.020
-6.410E-06,0.100
-6.400E-06,0.040
-6.390E-06,0.020
-6.380E-06,0.040
-6.370E-06,0.020
-6.360E-06,0.040
-6.350E-06,0.040
-6.340E-06,0.080
-6.330E-06,0.120
-6.320E-06,0.060
-6.310E-06,-0.040
-6.300E-06,-0.020
-6.290E-06,0.000
-6.280E-06,-0.040
-6.270E-06,0.100
-6.260E-06,0.160
-6.250E-06,0.020
-6.240E-06,0.060
-6.230E-06,0.020
-6.220E-06,0.000
-6.210E-06,0.060
-6.200E-06,0.060
-6.190E-06,0.120
-6.180E-06,0.080
-6.170E-06,0.060
-6.160E-06,0.060
-6.150E-06,0.020
-6.140E-06,0.020
-6.130E-06,0.060
-6.120E-06,0.060
-6.110E-06,0.080
-6.100E-06,0.080
-6.090E-06,0.060
-6.080E-06,0.020
-6.070E-06,0.040
-6.060E-06,0.080
-6.050E-06,0.060
-6.040E-06,0.080
-6.030E-06,0.020
-6.020E-06,-0.060
-6.010E-06,0.020
-6.000E-06,0.000
-5.990E-06,0.020
-5.980E-06,0.120
-5.970E-06,0.040
-5.960E-06,0.000
-5.950E-06,0.020
-5.940E-06,0.000
-5.930E-06,0.000
-5.920E-06,0.060
-5.910E-06,0.060
-5.900E-06,0.060
-5.890E-06,0.020
-5.880E-06,0.000
-5.870E-06,0.000
-5.860E-06,0.020
-5.850E-06,0.040
-5.840E-06,0.080
-5.830E-06,0.060
-5.820E-06,0.020
-5.810E-06,0.020
-5.800E-06,0.020
-5.790E-06,0.060
-5.780E-06,0.060
-5.770E-06,0.060
-5.760E-06,0.060
-5.750E-06,0.040
-5.740E-06,0.020
-5.730E-06,0.040
-5.720E-06,0.040
-5.710E-06,0.060
-5.700E-06,0.080
-5.690E-06,0.040
-5.680E-06,0.060
-5.670E-06,0.060
-5.660E-06,0.060
-5.650E-06,0.040
-5.640E-06,0.040
-5.630E-06,0.020
-5.620E-06,0.040
-5.610E-06,0.060
-5.600E-06,-0.020
-5.590E-06,0.000
-5.580E-06,0.020
-5.570E-06,-0.020
-5.560E-06,0.080
-5.550E-06,0.100
-5.540E-06,0.000
-5.530E-06,0.020
-5.520E-06,0.000
-5.510E-06,0.000
-5.500E-06,0.020
-5.490E-06,0.080
-5.480E-06,0.080
-5.470E-06,0.100
-5.460E-06,-0.100
-5.450E-06,0.000
-5.440E-06,0.040
-5.430E-06,-0.140
-5.420E-06,0.200
-5.410E-06,0.160
-5.400E-06,-0.040
-5.390E-06,0.060
-5.380E-06,0.020
-5.370E-06,-0.040
-5.360E-06,0.040
-5.350E-06,0.080
-5.340E-06,0.100
-5.330E-06,0.020
-5.320E-06,-0.040
-5.310E-06,0.020
-5.300E-06,0.060
-5.290E-06,0.060
-5.280E-06,0.080
-5.270E-06,0.080
-5.260E-06,0.020
-5.250E-06,0.000
-5.240E-06,0.040
-5.230E-06,0.060
-5.220E-06,0.040
-5.210E-06,0.040
-5.200E-06,0.000
-5.190E-06,0.000
-5.180E-06,0.000
-5.170E-06,0.000
-5.160E-06,0.040
-5.150E-06,0.080
-5.140E-06,0.020
-5.130E-06,-0.020
-5.120E-06,0.060
-5.110E-06,0.020
-5.100E-06,0.020
-5.090E-06,0.100
-5.080E-06,0.040
-5.070E-06,0.020
-5.060E-06,0.020
-5.050E-06,-0.020
-5.040E-06,0.020
-5.030E-06,0.040
-5.020E-06,0.040
-5.010E-06,0.040
-5.000E-06,0.000
-4.990E-06,0.020
-4.980E-06,0.020
-4.970E-06,0.060
-4.960E-06,0.060
-4.950E-06,0.040
-4.940E-06,0.060
-4.930E-06,0.060
-4.920E-06,0.000
-4.910E-06,0.040
-4.900E-06,0.040
-4.890E-06,0.060
-4.880E-06,0.080
-4.870E-06,0.040
-4.860E-06,0.020
-4.850E-06,0.000
-4.840E-06,0.020
-4.830E-06,0.040
-4.820E-06,0.040
-4.810E-06,0.060
-4.800E-06,0.040
-4.790E-06,0.020
-4.780E-06,0.060
-4.770E-06,0.040
-4.760E-06,0.040
-4.750E-06,0.040
-4.740E-06,0.060
-4.730E-06,0.060
-4.720E-06,0.020
-4.710E-06,0.060
-4.700E-06,0.020
-4.690E-06,0.040
-4.680E-06,0.080
-4.670E-06,-0.020
-4.660E-06,0.060
-4.650E-06,0.080
-4.640E-06,0.020
-4.630E-06,0.040
-4.620E-06,0.060
-4.610E-06,0.060
-4.600E-06,0.080
-4.590E-06,0.080
-4.580E-06,0.000
-4.570E-06,-0.020
-4.560E-06,0.100
-4.550E-06,-0.060
-4.540E-06,0.080
-4.530E-06,0.220
-4.520E-06,0.000
-4.510E-06,0.040
-4.500E-06,0.100
-4.490E-06,-0.040
-4.480E-06,0.100
-4.470E-06,0.040
-4.460E-06,0.080
-4.450E-06,0.080
-4.440E-06,-0.040
-4.430E-06,0.080
-4.420E-06,0.060
-4.410E-06,0.000
-4.400E-06,0.080
-4.390E-06,0.060
-4.380E-06,0.000
-4.370E-06,0.000
-4.360E-06,0.060
-4.350E-06,0.080
-4.340E-06,0.060
-4.330E-06,0.040
-4.320E-06,0.000
-4.310E-06,-0.020
-4.300E-06,0.040
-4.290E-06,0.020
-4.280E-06,0.040
-4.270E-06,0.100
-4.260E-06,0.060
-4.250E-06,0.000
-4.240E-06,0.020
-4.230E-06,0.020
-4.220E-06,0.020
-4.210E-06,0.080
-4.200E-06,0.040
-4.190E-06,0.040
-4.180E-06,-0.020
-4.170E-06,-0.020
-4.160E-06,0.060
-4.150E-06,0.040
-4.140E-06,0.040
-4.130E-06,0.080
-4.120E-06,0.020
-4.110E-06,-0.020
-4.100E-06,0.020
-4.090E-06,0.020
-4.080E-06,0.060
-4.070E-06,0.060
-4.060E-06,0.080
-4.050E-06,0.040
-4.040E-06,0.000
-4.030E-06,0.020
-4.020E-06,0.040
-4.010E-06,0.060
-4.000E-06,0.060
-3.990E-06,0.060
-3.980E-06,0.040
-3.970E-06,0.000
-3.960E-06,0.020
-3.950E-06,0.040
-3.940E-06,0.020
-3.930E-06,0.060
-3.920E-06,0.040
-3.910E-06,-0.020
-3.900E-06,0.040
-3.890E-06,0.040
-3.880E-06,0.080
-3.870E-06,0.060
-3.860E-06,0.000
-3.850E-06,0.000
-3.840E-06,0.020
-3.830E-06,0.020
-3.820E-06,0.040
-3.810E-06,0.080
-3.800E-06,0.040
-3.790E-06,0.060
-3.780E-06,0.040
-3.770E-06,0.000
-3.760E-06,0.000
-3.750E-06,0.040
-3.740E-06,0.100
-3.730E-06,0.040
-3.720E-06,0.020
-3.710E-06,0.040
-3.700E-06,0.060
-3.690E-06,0.040
-3.680E-06,0.060
-3.670E-06,0.100
-3.660E-06,0.040
-3.650E-06,-0.020
-3.640E-06,0.040
-3.630E-06,0.020
-3.620E-06,0.060
-3.610E-06,0.060
-3.600E-06,0.040
-3.590E-06,0.040
-3.580E-06,0.040
-3.570E-06,0.060
-3.560E-06,0.040
-3.550E-06,0.040
-3.540E-06,0.080
-3.530E-06,0.060
-3.520E-06,0.060
-3.510E-06,0.040
-3.500E-06,0.020
-3.490E-06,0.040
-3.480E-06,0.060
-3.470E-06,0.040
-3.460E-06,0.040
-3.450E-06,0.040
-3.440E-06,0.020
-3.430E-06,0.020
-3.420E-06,0.020
-3.410E-06,0.040
-3.400E-06,0.060
-3.390E-06,0.020
-3.380E-06,0.020
-3.370E-06,0.020
-3.360E-06,0.060
-3.350E-06,0.000
-3.340E-06,0.020
-3.330E-06,0.040
-3.320E-06,0.060
-3.310E-06,0.020
-3.300E-06,0.060
-3.290E-06,0.040
-3.280E-06,0.060
-3.270E-06,0.040
-3.260E-06,0.060
-3.250E-06,0.060
-3.240E-06,0.080
-3.230E-06,0.060
-3.220E-06,0.060
-3.210E-06,0.060
-3.200E-06,0.040
-3.190E-06,0.020
-3.180E-06,0.060
-3.170E-06,0.020
-3.160E-06,0.020
-3.150E-06,0.040
-3.140E-06,0.060
-3.130E-06,0.020
-3.120E-06,0.040
-3.110E-06,0.060
-3.100E-06,0.020
-3.090E-06,0.040
-3.080E-06,0.000
-3.070E-06,0.040
-3.060E-06,0.060
-3.050E-06,0.020
-3.040E-06,0.080
-3.030E-06,-0.060
-3.020E-06,-0.040
-3.010E-06,0.040
-3.000E-06,-0.020
-2.990E-06,0.100
-2.980E-06,0.140
-2.970E-06,-0.020
-2.960E-06,0.000
-2.950E-06,0.020
-2.940E-06,0.020
-2.930E-06,0.040
-2.920E-06,0.100
-2.910E-06,0.040
-2.900E-06,0.000
-2.890E-06,0.000
-2.880E-06,0.000
-2.870E-06,0.080
-2.860E-06,0.120
-2.850E-06,0.080
-2.840E-06,0.080
-2.830E-06,0.000
-2.820E-06,0.000
-2.810E-06,0.060
-2.800E-06,0.060
-2.790E-06,0.100
-2.780E-06,0.080
-2.770E-06,0.040
-2.760E-06,-0.020
-2.750E-06,0.000
-2.740E-06,-0.060
-2.730E-06,0.080
-2.720E-06,0.100
-2.710E-06,-0.040
-2.700E-06,0.080
-2.690E-06,0.000
-2.680E-06,-0.080
-2.670E-06,0.060
-2.660E-06,0.160
-2.650E-06,0.080
-2.640E-06,0.020
-2.630E-06,0.060
-2.620E-06,-0.020
-2.610E-06,0.000
-2.600E-06,0.140
-2.590E-06,0.100
-2.580E-06,0.060
-2.570E-06,0.020
-2.560E-06,-0.020
-2.550E-06,-0.040
-2.540E-06,0.000
-2.530E-06,0.140
-2.520E-06,0.080
-2.510E-06,0.080
-2.500E-06,0.080
-2.490E-06,0.020
-2.480E-06,-0.020
-2.470E-06,0.040
-2.460E-06,0.100
-2.450E-06,0.100
-2.440E-06,0.060
-2.430E-06,0.060
-2.420E-06,0.000
-2.410E-06,0.000
-2.400E-06,0.040
-2.390E-06,0.080
-2.380E-06,0.040
-2.370E-06,0.040
-2.360E-06,0.040
-2.350E-06,0.040
-2.340E-06,0.060
-2.330E-06,0.040
-2.320E-06,0.020
-2.310E-06,0.060
-2.300E-06,0.060
-2.290E-06,0.020
-2.280E-06,0.020
-2.270E-06,0.020
-2.260E-06,0.080
-2.250E-06,0.040
-2.240E-06,0.060
-2.230E-06,0.040
-2.220E-06,0.000
-2.210E-06,0.020
-2.200E-06,0.080
-2.190E-06,0.040
-2.180E-06,0.080
-2.170E-06,0.100
-2.160E-06,0.000
-2.150E-06,0.000
-2.140E-06,0.100
-2.130E-06,0.060
-2.120E-06,0.040
-2.110E-06,0.000
-2.100E-06,0.060
-2.090E-06,-0.020
-2.080E-06,-0.060
-2.070E-06,0.140
-2.060E-06,0.040
-2.050E-06,0.020
-2.040E-06,0.100
-2.030E-06,0.020
-2.020E-06,0.000
-2.010E-06,0.000
-2.000E-06,0.060
-1.990E-06,0.080
-1.980E-06,0.100
-1.970E-06,0.060
-1.960E-06,0.020
-1.950E-06,0.000
-1.940E-06,0.060
-1.930E-06,0.060
-1.920E-06,0.080
-1.910E-06,0.080
-1.900E-06,0.060
-1.890E-06,0.020
-1.880E-06,-0.040
-1.870E-06,0.060
-1.860E-06,0.020
-1.850E-06,-0.020
-1.840E-06,0.160
-1.830E-06,0.040
-1.820E-06,-0.020
-1.810E-06,0.100
-1.800E-06,-0.020
-1.790E-06,0.000
-1.780E-06,0.080
-1.770E-06,0.060
-1.760E-06,0.040
-1.750E-06,0.060
-1.740E-06,0.060
-1.730E-06,0.020
-1.720E-06,0.040
-1.710E-06,-0.020
-1.700E-06,0.020
-1.690E-06,-0.020
-1.680E-06,-0.020
-1.670E-06,-0.020
-1.660E-06,0.000
-1.650E-06,-0.020
-1.640E-06,-0.040
-1.630E-06,0.040
-1.620E-06,0.040
-1.610E-06,0.060
-1.600E-06,0.060
-1.590E-06,0.000
-1.580E-06,0.040
-1.570E-06,0.040
-1.560E-06,0.080
-1.550E-06,0.080
-1.540E-06,0.020
-1.530E-06,0.020
-1.520E-06,0.000
-1.510E-06,-0.020
-1.500E-06,0.040
-1.490E-06,0.160
-1.480E-06,0.220
-1.470E-06,0.260
-1.460E-06,0.240
-1.450E-06,0.160
-1.440E-06,0.160
-1.430E-06,0.180
-1.420E-06,0.240
-1.410E-06,0.260
-1.400E-06,0.260
-1.390E-06,0.260
-1.380E-06,0.260
-1.370E-06,0.200
-1.360E-06,0.180
-1.350E-06,0.220
-1.340E-06,0.220
-1.330E-06,0.240
-1.320E-06,0.280
-1.310E-06,0.280
-1.300E-06,0.240
-1.290E-06,0.220
-1.280E-06,0.240
-1.270E-06,0.240
-1.260E-06,0.260
-1.250E-06,0.260
-1.240E-06,0.240
-1.230E-06,0.260
-1.220E-06,0.240
-1.210E-06,0.240
-1.200E-06,0.200
-1.190E-06,0.220
-1.180E-06,0.260
-1.170E-06,0.260
-1.160E-06,0.280
-1.150E-06,0.260
-1.140E-06,0.240
-1.130E-06,0.260
-1.120E-06,0.260
-1.110E-06,0.260
-1.100E-06,0.280
-1.090E-06,0.280
-1.080E-06,0.260
-1.070E-06,0.260
-1.060E-06,0.240
-1.050E-06,0.240
-1.040E-06,0.260
-1.030E-06,0.280
-1.020E-06,0.280
-1.010E-06,0.280
-1.000E-06,0.280
-9.900E-07,0.280
-9.800E-07,0.280
-9.700E-07,0.300
-9.600E-07,0.320
-9.500E-07,0.320
-9.400E-07,0.320
-9.300E-07,0.320
-9.200E-07,0.320
-9.100E-07,0.320
-9.000E-07,0.340
-8.900E-07,0.340
-8.800E-07,0.340
-8.700E-07,0.380
-8.600E-07,0.360
-8.500E-07,0.380
-8.400E-07,0.420
-8.300E-07,0.440
-8.200E-07,0.460
-8.100E-07,0.500
-8.000E-07,0.560
-7.900E-07,0.600
-7.800E-07,0.640
-7.700E-07,0.660
-7.600E-07,0.680
-7.500E-07,0.720
-7.400E-07,0.760
-7.300E-07,0.840
-7.200E-07,0.860
-7.100E-07,0.900
-7.000E-07,0.940
-6.900E-07,0.940
-6.800E-07,0.960
-6.700E-07,1.020
-6.600E-07,1.020
-6.500E-07,1.080
-6.400E-07,1.080
-6.300E-07,1.080
-6.200E-07,1.120
-6.100E-07,1.180
-6.000E-07,1.180
-5.900E-07,1.180
-5.800E-07,1.200
-5.700E-07,1.200
-5.600E-07,1.240
-5.500E-07,1.220
-5.400E-07,1.260
-5.300E-07,1.240
-5.200E-07,1.240
-5.100E-07,1.240
-5.000E-07,1.280
-4.900E-07,1.280
-4.800E-07,1.280
-4.700E-07,1.280
-4.600E-07,1.320
-4.500E-07,1.320
-4.400E-07,1.360
-4.300E-07,1.360
-4.200E-07,1.380
-4.100E-07,1.400
-4.000E-07,1.440
-3.900E-07,1.480
-3.800E-07,1.520
-3.700E-07,1.520
-3.600E-07,1.560
-3.500E-07,1.600
-3.400E-07,1.620
-3.300E-07,1.640
-3.200E-07,1.640
-3.100E-07,1.700
-3.000E-07,1.700
-2.900E-07,1.740
-2.800E-07,1.740
-2.700E-07,1.720
-2.600E-07,1.720
-2.500E-07,1.760
-2.400E-07,1.760
-2.300E-07,1.740
-2.200E-07,1.740
-2.100E-07,1.740
-2.000E-07,1.740
-1.900E-07,1.760
-1.800E-07,1.740
-1.700E-07,1.680
-1.600E-07,1.700
-1.500E-07,1.700
-1.400E-07,1.660
-1.300E-07,1.640
-1.200E-07,1.600
-1.100E-07,1.580
-1.000E-07,1.520
-9.000E-08,1.500
-8.000E-08,1.460
-7.000E-08,1.360
-6.000E-08,1.280
-5.000E-08,1.260
-4.000E-08,1.160
-3.000E-08,1.100
-2.000E-08,1.020
-1.000E-08,0.900
0.000E+00,0.900
1.000E-08,0.580
2.000E-08,0.900
3.000E-08,0.180
4.000E-08,0.640
5.000E-08,0.160
6.000E-08,0.080
7.000E-08,0.060
8.000E-08,-0.240
9.000E-08,-0.260
1.000E-07,-0.260
1.100E-07,-0.480
1.200E-07,-0.460
1.300E-07,-0.660
1.400E-07,-0.740
1.500E-07,-0.840
1.600E-07,-0.920
1.700E-07,-0.980
1.800E-07,-1.060
1.900E-07,-1.120
2.000E-07,-1.240
2.100E-07,-1.320
2.200E-07,-1.360
2.300E-07,-1.480
2.400E-07,-1.540
2.500E-07,-1.580
2.600E-07,-1.760
2.700E-07,-1.780
2.800E-07,-1.840
2.900E-07,-1.980
3.000E-07,-1.980
3.100E-07,-2.080
3.200E-07,-2.180
3.300E-07,-2.220
3.400E-07,-2.320
3.500E-07,-2.420
3.600E-07,-2.440
3.700E-07,-2.520
3.800E-07,-2.560
3.900E-07,-2.620
4.000E-07,-2.660
4.100E-07,-2.660
4.200E-07,-2.660
4.300E-07,-2.660
4.400E-07,-2.660
4.500E-07,-2.680
4.600E-07,-2.680
4.700E-07,-2.660
4.800E-07,-2.660
4.900E-07,-2.660
5.000E-07,-2.660
5.100E-07,-2.660
5.200E-07,-2.660
5.300E-07,-2.660
5.400E-07,-2.660
5.500E-07,-2.660
5.600E-07,-2.660
5.700E-07,-2.660
5.800E-07,-2.660
5.900E-07,-2.640
6.000E-07,-2.640
6.100E-07,-2.660
6.200E-07,-2.660
6.300E-07,-2.680
6.400E-07,-2.680
6.500E-07,-2.660
6.600E-07,-2.640
6.700E-07,-2.600
6.800E-07,-2.540
6.900E-07,-2.500
7.000E-07,-2.480
7.100E-07,-2.440
7.200E-07,-2.400
7.300E-07,-2.380
7.400E-07,-2.320
7.500E-07,-2.280
7.600E-07,-2.260
7.700E-07,-2.240
7.800E-07,-2.220
7.900E-07,-2.200
8.000E-07,-2.160
8.100E-07,-2.140
8.200E-07,-2.120
8.300E-07,-2.080
8.400E-07,-2.060
8.500E-07,-2.040
8.600E-07,-2.020
8.700E-07,-2.000
8.800E-07,-1.960
8.900E-07,-1.940
9.000E-07,-1.940
9.100E-07,-1.920
9.200E-07,-1.960
9.300E-07,-1.940
9.400E-07,-1.980
9.500E-07,-1.980
9.600E-07,-1.960
9.700E-07,-1.940
9.800E-07,-1.960
9.900E-07,-1.940
1.000E-06,-1.940
1.010E-06,-1.900
1.020E-06,-1.860
1.030E-06,-1.860
1.040E-06,-1.840
1.050E-06,-1.760
1.060E-06,-1.740
1.070E-06,-1.660
1.080E-06,-1.600
1.090E-06,-1.540
1.100E-06,-1.500
1.110E-06,-1.440
1.120E-06,-1.420
1.130E-06,-1.340
1.140E-06,-1.320
1.150E-06,-1.240
1.160E-06,-1.240
1.170E-06,-1.200
1.180E-06,-1.140
1.190E-06,-1.100
1.200E-06,-1.080
1.210E-06,-1.040
1.220E-06,-1.000
1.230E-06,-1.020
1.240E-06,-1.040
1.250E-06,-1.060
1.260E-06,-1.100
1.270E-06,-1.200
1.280E-06,-1.300
1.290E-06,-1.380
1.300E-06,-1.420
1.310E-06,-1.440
1.320E-06,-1.440
1.330E-06,-1.460
1.340E-06,-1.500
1.350E-06,-1.500
1.360E-06,-1.460
1.370E-06,-1.440
1.380E-06,-1.460
1.390E-06,-1.520
1.400E-06,-1.660
1.410E-06,-1.720
1.420E-06,-1.780
1.430E-06,-1.840
1.440E-06,-1.860
1.450E-06,-1.880
1.460E-06,-1.860
1.470E-06,-1.820
1.480E-06,-1.800
1.490E-06,-1.780
1.500E-06,-1.740
1.510E-06,-1.700
1.520E-06,-1.680
1.530E-06,-1.680
1.540E-06,-1.680
1.550E-06,-1.660
1.560E-06,-1.660
1.570E-06,-1.660
1.580E-06,-1.660
1.590E-06,-1.700
1.600E-06,-1.760
1.610E-06,-1.800
1.620E-06,-1.840
1.630E-06,-1.860
1.640E-06,-1.940
1.650E-06,-1.920
1.660E-06,-1.940
1.670E-06,-1.880
1.680E-06,-1.820
1.690E-06,-1.760
1.700E-06,-1.680
1.710E-06,-1.620
1.720E-06,-1.540
1.730E-06,-1.480
1.740E-06,-1.440
1.750E-06,-1.360
1.760E-06,-1.340
1.770E-06,-1.320
1.780E-06,-1.300
1.790E-06,-1.300
1.800E-06,-1.260
1.810E-06,-1.260
1.820E-06,-1.260
1.830E-06,-1.280
1.840E-06,-1.260
1.850E-06,-1.260
1.860E-06,-1.260
1.870E-06,-1.240
1.880E-06,-1.240
1.890E-06,-1.180
1.900E-06,-1.160
1.910E-06,-1.140
1.920E-06,-1.100
1.930E-06,-1.120
1.940E-06,-1.060
1.950E-06,-1.040
1.960E-06,-0.980
1.970E-06,-0.980
1.980E-06,-0.940
1.990E-06,-0.900
2.000E-06,-0.860
2.010E-06,-0.860
2.020E-06,-0.840
2.030E-06,-0.880
2.040E-06,-0.860
2.050E-06,-0.860
2.060E-06,-0.880
2.070E-06,-0.920
2.080E-06,-0.940
2.090E-06,-1.000
2.100E-06,-1.020
2.110E-06,-1.040
2.120E-06,-1.020
2.130E-06,-1.000
2.140E-06,-1.060
2.150E-06,-1.080
2.160E-06,-1.100
2.170E-06,-1.100
2.180E-06,-1.060
2.190E-06,-1.100
2.200E-06,-1.120
2.210E-06,-1.060
2.220E-06,-1.120
2.230E-06,-1.120
2.240E-06,-1.160
2.250E-06,-1.180
2.260E-06,-1.240
2.270E-06,-1.260
2.280E-06,-1.320
2.290E-06,-1.360
2.300E-06,-1.380
2.310E-06,-1.460
2.320E-06,-1.540
2.330E-06,-1.580
2.340E-06,-1.620
2.350E-06,-1.680
2.360E-06,-1.700
2.370E-06,-1.680
2.380E-06,-1.660
2.390E-06,-1.660
2.400E-06,-1.620
2.410E-06,-1.580
2.420E-06,-1.540
2.430E-06,-1.480
2.440E-06,-1.380
2.450E-06,-1.320
2.460E-06,-1.200
2.470E-06,-1.080
2.480E-06,-0.980
2.490E-06,-0.880
2.500E-06,-0.820
2.510E-06,-0.700
2.520E-06,-0.660
2.530E-06,-0.640
2.540E-06,-0.600
2.550E-06,-0.600
2.560E-06,-0.540
2.570E-06,-0.540
2.580E-06,-0.560
2.590E-06,-0.600
2.600E-06,-0.620
2.610E-06,-0.660
2.620E-06,-0.660
2.630E-06,-0.660
2.640E-06,-0.720
2.650E-06,-0.760
2.660E-06,-0.740
2.670E-06,-0.800
2.680E-06,-0.840
2.690E-06,-0.880
2.700E-06,-0.920
2.710E-06,-0.920
2.720E-06,-1.000
2.730E-06,-1.000
2.740E-06,-1.020
2.750E-06,-1.060
2.760E-06,-1.100
2.770E-06,-1.140
2.780E-06,-1.160
2.790E-06,-1.180
2.800E-06,-1.200
2.810E-06,-1.200
2.820E-06,-1.220
2.830E-06,-1.220
2.840E-06,-1.240
2.850E-06,-1.240
2.860E-06,-1.260
2.870E-06,-1.260
2.880E-06,-1.240
2.890E-06,-1.200
2.900E-06,-1.180
2.910E-06,-1.140
2.920E-06,-1.040
2.930E-06,-1.000
2.940E-06,-0.920
2.950E-06,-0.880
2.960E-06,-0.840
2.970E-06,-0.800
2.980E-06,-0.720
2.990E-06,-0.720
3.000E-06,-0.700
3.010E-06,-0.720
3.020E-06,-0.760
3.030E-06,-0.780
3.040E-06,-0.800
3.050E-06,-0.840
3.060E-06,-0.880
3.070E-06,-0.880
3.080E-06,-0.860
3.090E-06,-0.860
3.100E-06,-0.880
3.110E-06,-0.840
3.120E-06,-0.860
3.130E-06,-0.820
3.140E-06,-0.800
3.150E-06,-0.760
3.160E-06,-0.700
3.170E-06,-0.680
3.180E-06,-0.640
3.190E-06,-0.620
3.200E-06,-0.640
3.210E-06,-0.620
3.220E-06,-0.660
3.230E-06,-0.660
3.240E-06,-0.680
3.250E-06,-0.700
3.260E-06,-0.740
3.270E-06,-0.780
3.280E-06,-0.840
