mediciones/5-27/-30/WaveData5065.csv

#timebase=2000000(ps)
,#voltbase=500000(mv/100)
#size=4000
-8.400E-06,0.060
-8.390E-06,0.060
-8.380E-06,0.060
-8.370E-06,0.040
-8.360E-06,0.060
-8.350E-06,0.060
-8.340E-06,0.060
-8.330E-06,0.060
-8.320E-06,0.080
-8.310E-06,0.040
-8.300E-06,0.060
-8.290E-06,0.080
-8.280E-06,0.060
-8.270E-06,0.080
-8.260E-06,0.080
-8.250E-06,0.080
-8.240E-06,0.060
-8.230E-06,0.080
-8.220E-06,0.080
-8.210E-06,0.060
-8.200E-06,0.060
-8.190E-06,0.080
-8.180E-06,0.100
-8.170E-06,0.080
-8.160E-06,0.080
-8.150E-06,0.060
-8.140E-06,0.060
-8.130E-06,0.080
-8.120E-06,0.100
-8.110E-06,0.080
-8.100E-06,0.100
-8.090E-06,0.080
-8.080E-06,0.040
-8.070E-06,0.020
-8.060E-06,0.060
-8.050E-06,0.040
-8.040E-06,0.040
-8.030E-06,0.060
-8.020E-06,0.060
-8.010E-06,0.040
-8.000E-06,0.020
-7.990E-06,0.040
-7.980E-06,0.080
-7.970E-06,0.060
-7.960E-06,0.040
-7.950E-06,0.040
-7.940E-06,0.040
-7.930E-06,0.060
-7.920E-06,0.040
-7.910E-06,0.040
-7.900E-06,0.060
-7.890E-06,0.080
-7.880E-06,0.060
-7.870E-06,0.040
-7.860E-06,0.080
-7.850E-06,0.060
-7.840E-06,0.080
-7.830E-06,0.080
-7.820E-06,0.080
-7.810E-06,0.080
-7.800E-06,0.060
-7.790E-06,0.100
-7.780E-06,0.100
-7.770E-06,0.120
-7.760E-06,0.120
-7.750E-06,0.100
-7.740E-06,0.120
-7.730E-06,0.100
-7.720E-06,0.080
-7.710E-06,0.080
-7.700E-06,0.080
-7.690E-06,0.100
-7.680E-06,0.080
-7.670E-06,0.060
-7.660E-06,0.080
-7.650E-06,0.100
-7.640E-06,0.060
-7.630E-06,0.060
-7.620E-06,0.040
-7.610E-06,0.060
-7.600E-06,0.080
-7.590E-06,0.040
-7.580E-06,0.040
-7.570E-06,0.080
-7.560E-06,0.060
-7.550E-06,0.040
-7.540E-06,0.060
-7.530E-06,0.060
-7.520E-06,0.040
-7.510E-06,0.080
-7.500E-06,0.060
-7.490E-06,0.040
-7.480E-06,0.060
-7.470E-06,0.040
-7.460E-06,0.040
-7.450E-06,0.080
-7.440E-06,0.080
-7.430E-06,0.080
-7.420E-06,0.080
-7.410E-06,0.060
-7.400E-06,0.100
-7.390E-06,0.100
-7.380E-06,0.080
-7.370E-06,0.100
-7.360E-06,0.120
-7.350E-06,0.140
-7.340E-06,0.140
-7.330E-06,0.160
-7.320E-06,0.180
-7.310E-06,0.120
-7.300E-06,0.160
-7.290E-06,0.120
-7.280E-06,0.160
-7.270E-06,0.160
-7.260E-06,0.160
-7.250E-06,0.160
-7.240E-06,0.140
-7.230E-06,0.160
-7.220E-06,0.140
-7.210E-06,0.140
-7.200E-06,0.180
-7.190E-06,0.160
-7.180E-06,0.140
-7.170E-06,0.140
-7.160E-06,0.140
-7.150E-06,0.180
-7.140E-06,0.160
-7.130E-06,0.160
-7.120E-06,0.160
-7.110E-06,0.180
-7.100E-06,0.200
-7.090E-06,0.200
-7.080E-06,0.220
-7.070E-06,0.220
-7.060E-06,0.260
-7.050E-06,0.280
-7.040E-06,0.300
-7.030E-06,0.300
-7.020E-06,0.340
-7.010E-06,0.360
-7.000E-06,0.320
-6.990E-06,0.320
-6.980E-06,0.340
-6.970E-06,0.360
-6.960E-06,0.340
-6.950E-06,0.360
-6.940E-06,0.340
-6.930E-06,0.340
-6.920E-06,0.380
-6.910E-06,0.340
-6.900E-06,0.360
-6.890E-06,0.360
-6.880E-06,0.340
-6.870E-06,0.340
-6.860E-06,0.300
-6.850E-06,0.320
-6.840E-06,0.320
-6.830E-06,0.320
-6.820E-06,0.340
-6.810E-06,0.340
-6.800E-06,0.340
-6.790E-06,0.340
-6.780E-06,0.340
-6.770E-06,0.340
-6.760E-06,0.320
-6.750E-06,0.320
-6.740E-06,0.340
-6.730E-06,0.340
-6.720E-06,0.380
-6.710E-06,0.400
-6.700E-06,0.400
-6.690E-06,0.420
-6.680E-06,0.420
-6.670E-06,0.420
-6.660E-06,0.460
-6.650E-06,0.480
-6.640E-06,0.360
-6.630E-06,0.540
-6.620E-06,0.420
-6.610E-06,0.300
-6.600E-06,0.420
-6.590E-06,0.260
-6.580E-06,0.400
-6.570E-06,0.600
-6.560E-06,0.740
-6.550E-06,0.920
-6.540E-06,0.740
-6.530E-06,0.760
-6.520E-06,0.540
-6.510E-06,0.460
-6.500E-06,0.780
-6.490E-06,0.560
-6.480E-06,0.760
-6.470E-06,0.620
-6.460E-06,0.420
-6.450E-06,0.380
-6.440E-06,0.340
-6.430E-06,0.560
-6.420E-06,0.680
-6.410E-06,0.840
-6.400E-06,0.780
-6.390E-06,0.500
-6.380E-06,0.320
-6.370E-06,0.220
-6.360E-06,0.340
-6.350E-06,0.520
-6.340E-06,0.580
-6.330E-06,0.500
-6.320E-06,0.380
-6.310E-06,0.300
-6.300E-06,0.280
-6.290E-06,0.360
-6.280E-06,0.440
-6.270E-06,0.460
-6.260E-06,0.440
-6.250E-06,0.340
-6.240E-06,0.320
-6.230E-06,0.340
-6.220E-06,0.420
-6.210E-06,0.440
-6.200E-06,0.440
-6.190E-06,0.420
-6.180E-06,0.360
-6.170E-06,0.360
-6.160E-06,0.340
-6.150E-06,0.400
-6.140E-06,0.460
-6.130E-06,0.520
-6.120E-06,0.380
-6.110E-06,0.380
-6.100E-06,0.340
-6.090E-06,0.280
-6.080E-06,0.340
-6.070E-06,0.380
-6.060E-06,0.380
-6.050E-06,0.420
-6.040E-06,0.420
-6.030E-06,0.400
-6.020E-06,0.420
-6.010E-06,0.480
-6.000E-06,0.500
-5.990E-06,0.600
-5.980E-06,0.720
-5.970E-06,0.820
-5.960E-06,0.900
-5.950E-06,0.920
-5.940E-06,0.900
-5.930E-06,0.900
-5.920E-06,0.900
-5.910E-06,0.900
-5.900E-06,0.960
-5.890E-06,1.000
-5.880E-06,1.040
-5.870E-06,0.840
-5.860E-06,0.800
-5.850E-06,0.640
-5.840E-06,0.600
-5.830E-06,0.720
-5.820E-06,0.760
-5.810E-06,0.880
-5.800E-06,0.920
-5.790E-06,0.860
-5.780E-06,0.760
-5.770E-06,0.840
-5.760E-06,0.740
-5.750E-06,0.700
-5.740E-06,0.520
-5.730E-06,0.220
-5.720E-06,0.180
-5.710E-06,0.080
-5.700E-06,0.400
-5.690E-06,0.640
-5.680E-06,0.620
-5.670E-06,0.540
-5.660E-06,0.240
-5.650E-06,0.100
-5.640E-06,0.120
-5.630E-06,0.300
-5.620E-06,0.500
-5.610E-06,0.580
-5.600E-06,0.480
-5.590E-06,0.280
-5.580E-06,0.140
-5.570E-06,0.060
-5.560E-06,0.160
-5.550E-06,0.220
-5.540E-06,0.260
-5.530E-06,0.240
-5.520E-06,0.200
-5.510E-06,0.180
-5.500E-06,0.180
-5.490E-06,0.120
-5.480E-06,0.080
-5.470E-06,0.040
-5.460E-06,0.000
-5.450E-06,-0.020
-5.440E-06,0.000
-5.430E-06,0.080
-5.420E-06,0.040
-5.410E-06,0.040
-5.400E-06,0.040
-5.390E-06,0.000
-5.380E-06,0.120
-5.370E-06,0.200
-5.360E-06,0.380
-5.350E-06,0.480
-5.340E-06,0.500
-5.330E-06,0.520
-5.320E-06,0.500
-5.310E-06,0.440
-5.300E-06,0.480
-5.290E-06,0.760
-5.280E-06,0.560
-5.270E-06,0.320
-5.260E-06,0.160
-5.250E-06,-0.160
-5.240E-06,-0.180
-5.230E-06,0.180
-5.220E-06,0.320
-5.210E-06,0.340
-5.200E-06,0.140
-5.190E-06,-0.260
-5.180E-06,-0.340
-5.170E-06,-0.180
-5.160E-06,0.000
-5.150E-06,0.140
-5.140E-06,0.080
-5.130E-06,-0.160
-5.120E-06,-0.320
-5.110E-06,-0.360
-5.100E-06,-0.280
-5.090E-06,-0.080
-5.080E-06,0.000
-5.070E-06,0.020
-5.060E-06,0.000
-5.050E-06,-0.040
-5.040E-06,-0.040
-5.030E-06,0.020
-5.020E-06,0.020
-5.010E-06,-0.060
-5.000E-06,-0.100
-4.990E-06,-0.180
-4.980E-06,-0.220
-4.970E-06,-0.220
-4.960E-06,-0.160
-4.950E-06,-0.180
-4.940E-06,-0.180
-4.930E-06,-0.160
-4.920E-06,-0.160
-4.910E-06,-0.160
-4.900E-06,-0.120
-4.890E-06,-0.100
-4.880E-06,-0.060
-4.870E-06,-0.020
-4.860E-06,-0.040
-4.850E-06,-0.020
-4.840E-06,0.000
-4.830E-06,0.000
-4.820E-06,0.040
-4.810E-06,0.020
-4.800E-06,0.000
-4.790E-06,-0.060
-4.780E-06,-0.040
-4.770E-06,-0.020
-4.760E-06,0.000
-4.750E-06,0.020
-4.740E-06,0.060
-4.730E-06,0.040
-4.720E-06,0.000
-4.710E-06,0.100
-4.700E-06,-0.040
-4.690E-06,-0.020
-4.680E-06,-0.020
-4.670E-06,-0.240
-4.660E-06,-0.080
-4.650E-06,0.060
-4.640E-06,0.260
-4.630E-06,0.440
-4.620E-06,0.340
-4.610E-06,0.240
-4.600E-06,0.140
-4.590E-06,0.000
-4.580E-06,0.160
-4.570E-06,0.220
-4.560E-06,0.340
-4.550E-06,0.420
-4.540E-06,0.420
-4.530E-06,0.320
-4.520E-06,0.140
-4.510E-06,0.320
-4.500E-06,0.120
-4.490E-06,0.240
-4.480E-06,0.100
-4.470E-06,-0.140
-4.460E-06,-0.040
-4.450E-06,-0.280
-4.440E-06,0.120
-4.430E-06,0.280
-4.420E-06,0.220
-4.410E-06,0.220
-4.400E-06,-0.120
-4.390E-06,-0.240
-4.380E-06,-0.200
-4.370E-06,-0.100
-4.360E-06,0.140
-4.350E-06,0.180
-4.340E-06,0.040
-4.330E-06,-0.160
-4.320E-06,-0.340
-4.310E-06,-0.360
-4.300E-06,-0.300
-4.290E-06,-0.200
-4.280E-06,-0.160
-4.270E-06,-0.140
-4.260E-06,-0.180
-4.250E-06,-0.200
-4.240E-06,-0.220
-4.230E-06,-0.240
-4.220E-06,-0.200
-4.210E-06,-0.260
-4.200E-06,-0.260
-4.190E-06,-0.260
-4.180E-06,-0.240
-4.170E-06,-0.240
-4.160E-06,-0.280
-4.150E-06,-0.320
-4.140E-06,-0.320
-4.130E-06,-0.320
-4.120E-06,-0.320
-4.110E-06,-0.260
-4.100E-06,-0.240
-4.090E-06,-0.240
-4.080E-06,-0.240
-4.070E-06,-0.260
-4.060E-06,-0.200
-4.050E-06,-0.180
-4.040E-06,-0.080
-4.030E-06,-0.040
-4.020E-06,-0.060
-4.010E-06,-0.080
-4.000E-06,-0.100
-3.990E-06,-0.120
-3.980E-06,-0.080
-3.970E-06,-0.040
-3.960E-06,0.000
-3.950E-06,-0.100
-3.940E-06,-0.060
-3.930E-06,0.100
-3.920E-06,-0.260
-3.910E-06,-0.460
-3.900E-06,-0.420
-3.890E-06,-0.820
-3.880E-06,-0.340
-3.870E-06,-0.020
-3.860E-06,0.160
-3.850E-06,0.220
-3.840E-06,-0.120
-3.830E-06,-0.360
-3.820E-06,-0.560
-3.810E-06,-0.340
-3.800E-06,-0.080
-3.790E-06,0.060
-3.780E-06,0.000
-3.770E-06,-0.200
-3.760E-06,-0.420
-3.750E-06,-0.460
-3.740E-06,-0.340
-3.730E-06,-0.220
-3.720E-06,-0.060
-3.710E-06,-0.100
-3.700E-06,-0.180
-3.690E-06,-0.260
-3.680E-06,-0.300
-3.670E-06,-0.340
-3.660E-06,-0.340
-3.650E-06,-0.360
-3.640E-06,-0.460
-3.630E-06,-0.480
-3.620E-06,-0.560
-3.610E-06,-0.620
-3.600E-06,-0.600
-3.590E-06,-0.660
-3.580E-06,-0.660
-3.570E-06,-0.660
-3.560E-06,-0.640
-3.550E-06,-0.600
-3.540E-06,-0.540
-3.530E-06,-0.500
-3.520E-06,-0.400
-3.510E-06,-0.340
-3.500E-06,-0.340
-3.490E-06,-0.260
-3.480E-06,-0.260
-3.470E-06,-0.220
-3.460E-06,-0.160
-3.450E-06,-0.180
-3.440E-06,-0.160
-3.430E-06,-0.160
-3.420E-06,-0.180
-3.410E-06,-0.180
-3.400E-06,-0.160
-3.390E-06,-0.160
-3.380E-06,-0.160
-3.370E-06,-0.180
-3.360E-06,-0.240
-3.350E-06,-0.260
-3.340E-06,-0.260
-3.330E-06,-0.260
-3.320E-06,-0.260
-3.310E-06,-0.280
-3.300E-06,-0.280
-3.290E-06,-0.280
-3.280E-06,-0.280
-3.270E-06,-0.240
-3.260E-06,-0.260
-3.250E-06,-0.240
-3.240E-06,-0.220
-3.230E-06,-0.240
-3.220E-06,-0.240
-3.210E-06,-0.160
-3.200E-06,-0.180
-3.190E-06,-0.160
-3.180E-06,-0.120
-3.170E-06,-0.160
-3.160E-06,-0.220
-3.150E-06,-0.200
-3.140E-06,-0.200
-3.130E-06,-0.160
-3.120E-06,-0.080
-3.110E-06,-0.020
-3.100E-06,-0.020
-3.090E-06,-0.020
-3.080E-06,0.000
-3.070E-06,0.020
-3.060E-06,0.080
-3.050E-06,0.180
-3.040E-06,0.300
-3.030E-06,0.380
-3.020E-06,0.420
-3.010E-06,0.480
-3.000E-06,0.300
-2.990E-06,0.160
-2.980E-06,0.240
-2.970E-06,0.220
-2.960E-06,0.180
-2.950E-06,0.380
-2.940E-06,0.120
-2.930E-06,-0.140
-2.920E-06,-0.160
-2.910E-06,-0.180
-2.900E-06,0.060
-2.890E-06,0.300
-2.880E-06,0.400
-2.870E-06,0.460
-2.860E-06,0.180
-2.850E-06,-0.060
-2.840E-06,0.160
-2.830E-06,0.180
-2.820E-06,0.220
-2.810E-06,0.480
-2.800E-06,0.100
-2.790E-06,-0.200
-2.780E-06,-0.120
-2.770E-06,-0.340
-2.760E-06,-0.080
-2.750E-06,0.160
-2.740E-06,0.180
-2.730E-06,-0.100
-2.720E-06,-0.360
-2.710E-06,-0.360
-2.700E-06,-0.320
-2.690E-06,0.100
-2.680E-06,0.500
-2.670E-06,0.500
-2.660E-06,0.380
-2.650E-06,0.140
-2.640E-06,0.040
-2.630E-06,0.180
-2.620E-06,0.360
-2.610E-06,0.460
-2.600E-06,0.380
-2.590E-06,0.220
-2.580E-06,0.040
-2.570E-06,-0.100
-2.560E-06,-0.080
-2.550E-06,-0.160
-2.540E-06,-0.180
-2.530E-06,-0.340
-2.520E-06,-0.520
-2.510E-06,-0.680
-2.500E-06,-0.840
-2.490E-06,-0.940
-2.480E-06,-1.100
-2.470E-06,-1.260
-2.460E-06,-1.400
-2.450E-06,-1.440
-2.440E-06,-1.460
-2.430E-06,-1.400
-2.420E-06,-1.300
-2.410E-06,-1.300
-2.400E-06,-1.260
-2.390E-06,-1.220
-2.380E-06,-1.160
-2.370E-06,-0.980
-2.360E-06,-0.920
-2.350E-06,-0.760
-2.340E-06,-0.740
-2.330E-06,-0.580
-2.320E-06,-0.600
-2.310E-06,-0.540
-2.300E-06,-0.380
-2.290E-06,-0.420
-2.280E-06,-0.220
-2.270E-06,-0.200
-2.260E-06,-0.140
-2.250E-06,-0.020
-2.240E-06,0.040
-2.230E-06,0.180
-2.220E-06,0.260
-2.210E-06,0.380
-2.200E-06,0.480
-2.190E-06,0.540
-2.180E-06,0.600
-2.170E-06,0.540
-2.160E-06,0.500
-2.150E-06,0.500
-2.140E-06,0.560
-2.130E-06,0.640
-2.120E-06,0.640
-2.110E-06,0.600
-2.100E-06,0.520
-2.090E-06,0.340
-2.080E-06,0.240
-2.070E-06,0.120
-2.060E-06,-0.060
-2.050E-06,-0.160
-2.040E-06,-0.320
-2.030E-06,-0.540
-2.020E-06,-0.780
-2.010E-06,-0.840
-2.000E-06,-0.920
-1.990E-06,-0.900
-1.980E-06,-0.680
-1.970E-06,-0.680
-1.960E-06,-0.600
-1.950E-06,-0.820
-1.940E-06,-0.800
-1.930E-06,-0.480
-1.920E-06,-0.520
-1.910E-06,-0.160
-1.900E-06,-0.100
-1.890E-06,-0.140
-1.880E-06,0.020
-1.870E-06,0.160
-1.860E-06,0.220
-1.850E-06,0.360
-1.840E-06,0.260
-1.830E-06,0.160
-1.820E-06,0.320
-1.810E-06,0.360
-1.800E-06,0.540
-1.790E-06,0.740
-1.780E-06,0.900
-1.770E-06,0.960
-1.760E-06,1.080
-1.750E-06,1.000
-1.740E-06,1.020
-1.730E-06,1.200
-1.720E-06,1.080
-1.710E-06,1.080
-1.700E-06,1.020
-1.690E-06,0.520
-1.680E-06,0.440
-1.670E-06,0.060
-1.660E-06,0.160
-1.650E-06,0.340
-1.640E-06,0.600
-1.630E-06,0.520
-1.620E-06,0.400
-1.610E-06,0.080
-1.600E-06,-0.300
-1.590E-06,0.000
-1.580E-06,0.040
-1.570E-06,0.180
-1.560E-06,0.300
-1.550E-06,-0.100
-1.540E-06,-0.220
-1.530E-06,-0.480
-1.520E-06,-0.520
-1.510E-06,-0.340
-1.500E-06,-0.340
-1.490E-06,-0.300
-1.480E-06,-0.580
-1.470E-06,-0.780
-1.460E-06,-0.920
-1.450E-06,-1.120
-1.440E-06,-1.160
-1.430E-06,-1.340
-1.420E-06,-1.360
-1.410E-06,-1.420
-1.400E-06,-1.480
-1.390E-06,-1.360
-1.380E-06,-1.660
-1.370E-06,-1.520
-1.360E-06,-1.680
-1.350E-06,-1.800
-1.340E-06,-1.680
-1.330E-06,-1.700
-1.320E-06,-1.640
-1.310E-06,-1.460
-1.300E-06,-1.700
-1.290E-06,-1.620
-1.280E-06,-1.680
-1.270E-06,-1.680
-1.260E-06,-1.360
-1.250E-06,-1.280
-1.240E-06,-0.900
-1.230E-06,-0.820
-1.220E-06,-0.800
-1.210E-06,-0.800
-1.200E-06,-0.800
-1.190E-06,-0.660
-1.180E-06,-0.600
-1.170E-06,-0.540
-1.160E-06,-0.520
-1.150E-06,-0.460
-1.140E-06,-0.480
-1.130E-06,-0.500
-1.120E-06,-0.580
-1.110E-06,-0.720
-1.100E-06,-0.880
-1.090E-06,-1.040
-1.080E-06,-1.280
-1.070E-06,-1.540
-1.060E-06,-1.880
-1.050E-06,-2.320
-1.040E-06,-2.660
-1.030E-06,-2.660
-1.020E-06,-2.660
-1.010E-06,-2.660
-1.000E-06,-2.660
-9.900E-07,-2.660
-9.800E-07,-2.660
-9.700E-07,-2.660
-9.600E-07,-2.680
-9.500E-07,-2.660
-9.400E-07,-2.660
-9.300E-07,-2.640
-9.200E-07,-2.640
-9.100E-07,-2.640
-9.000E-07,-2.640
-8.900E-07,-2.640
-8.800E-07,-2.660
-8.700E-07,-2.660
-8.600E-07,-2.680
-8.500E-07,-2.680
-8.400E-07,-2.660
-8.300E-07,-2.660
-8.200E-07,-2.640
-8.100E-07,-2.660
-8.000E-07,-2.660
-7.900E-07,-2.660
-7.800E-07,-2.620
-7.700E-07,-2.560
-7.600E-07,-2.500
-7.500E-07,-2.520
-7.400E-07,-2.540
-7.300E-07,-2.620
-7.200E-07,-2.660
-7.100E-07,-2.660
-7.000E-07,-2.660
-6.900E-07,-2.640
-6.800E-07,-2.660
-6.700E-07,-2.660
-6.600E-07,-2.660
-6.500E-07,-2.640
-6.400E-07,-2.640
-6.300E-07,-2.660
-6.200E-07,-2.660
-6.100E-07,-2.680
-6.000E-07,-2.660
-5.900E-07,-2.660
-5.800E-07,-2.660
-5.700E-07,-2.660
-5.600E-07,-2.580
-5.500E-07,-2.440
-5.400E-07,-2.340
-5.300E-07,-2.320
-5.200E-07,-2.280
-5.100E-07,-2.080
-5.000E-07,-2.300
-4.900E-07,-2.260
-4.800E-07,-1.960
-4.700E-07,-1.640
-4.600E-07,-1.600
-4.500E-07,-1.700
-4.400E-07,-1.560
-4.300E-07,-1.780
-4.200E-07,-1.580
-4.100E-07,-1.520
-4.000E-07,-1.480
-3.900E-07,-1.420
-3.800E-07,-2.140
-3.700E-07,-1.700
-3.600E-07,-1.360
-3.500E-07,-1.180
-3.400E-07,-0.320
-3.300E-07,-0.440
-3.200E-07,-0.780
-3.100E-07,-0.200
-3.000E-07,-0.320
-2.900E-07,-0.380
-2.800E-07,-0.280
-2.700E-07,-0.980
-2.600E-07,-1.360
-2.500E-07,-1.300
-2.400E-07,-1.260
-2.300E-07,-0.780
-2.200E-07,-0.280
-2.100E-07,-0.300
-2.000E-07,-0.100
-1.900E-07,-0.120
-1.800E-07,0.060
-1.700E-07,0.740
-1.600E-07,0.640
-1.500E-07,1.240
-1.400E-07,1.180
-1.300E-07,0.960
-1.200E-07,1.140
-1.100E-07,0.580
-1.000E-07,0.540
-9.000E-08,0.600
-8.000E-08,0.420
-7.000E-08,0.480
-6.000E-08,0.360
-5.000E-08,0.060
-4.000E-08,-0.260
-3.000E-08,-0.260
-2.000E-08,-0.500
-1.000E-08,-0.600
0.000E+00,-0.740
1.000E-08,-0.780
2.000E-08,-0.840
3.000E-08,-0.820
4.000E-08,-0.800
5.000E-08,-0.980
6.000E-08,-1.080
7.000E-08,-1.380
8.000E-08,-1.680
9.000E-08,-1.960
1.000E-07,-2.200
1.100E-07,-2.300
1.200E-07,-2.520
1.300E-07,-2.620
1.400E-07,-2.660
1.500E-07,-2.660
1.600E-07,-2.660
1.700E-07,-2.660
1.800E-07,-2.660
1.900E-07,-2.660
2.000E-07,-2.660
2.100E-07,-2.660
2.200E-07,-2.660
2.300E-07,-2.660
2.400E-07,-2.640
2.500E-07,-2.660
2.600E-07,-2.660
2.700E-07,-2.660
2.800E-07,-2.660
2.900E-07,-2.660
3.000E-07,-2.660
3.100E-07,-2.660
3.200E-07,-2.660
3.300E-07,-2.660
3.400E-07,-2.660
3.500E-07,-2.680
3.600E-07,-2.660
3.700E-07,-2.660
3.800E-07,-2.660
3.900E-07,-2.620
4.000E-07,-2.660
4.100E-07,-2.580
4.200E-07,-2.520
4.300E-07,-2.420
4.400E-07,-2.420
4.500E-07,-2.380
4.600E-07,-2.280
4.700E-07,-2.300
4.800E-07,-2.240
4.900E-07,-2.200
5.000E-07,-2.180
5.100E-07,-2.240
5.200E-07,-2.240
5.300E-07,-2.240
5.400E-07,-2.200
5.500E-07,-2.180
5.600E-07,-2.160
5.700E-07,-2.200
5.800E-07,-2.220
5.900E-07,-2.320
6.000E-07,-2.400
6.100E-07,-2.440
6.200E-07,-2.540
6.300E-07,-2.660
6.400E-07,-2.660
6.500E-07,-2.660
6.600E-07,-2.660
6.700E-07,-2.660
6.800E-07,-2.640
6.900E-07,-2.660
7.000E-07,-2.660
7.100E-07,-2.660
7.200E-07,-2.660
7.300E-07,-2.660
7.400E-07,-2.660
7.500E-07,-2.660
7.600E-07,-2.660
7.700E-07,-2.660
7.800E-07,-2.660
7.900E-07,-2.660
8.000E-07,-2.660
8.100E-07,-2.660
8.200E-07,-2.660
8.300E-07,-2.660
8.400E-07,-2.660
8.500E-07,-2.680
8.600E-07,-2.660
8.700E-07,-2.660
8.800E-07,-2.660
8.900E-07,-2.660
9.000E-07,-2.660
9.100E-07,-2.640
9.200E-07,-2.660
9.300E-07,-2.660
9.400E-07,-2.660
9.500E-07,-2.660
9.600E-07,-2.660
9.700E-07,-2.660
9.800E-07,-2.680
9.900E-07,-2.680
1.000E-06,-2.660
1.010E-06,-2.660
1.020E-06,-2.660
1.030E-06,-2.660
1.040E-06,-2.660
1.050E-06,-2.660
1.060E-06,-2.660
1.070E-06,-2.660
1.080E-06,-2.640
1.090E-06,-2.660
1.100E-06,-2.660
1.110E-06,-2.660
1.120E-06,-2.660
1.130E-06,-2.660
1.140E-06,-2.660
1.150E-06,-2.660
1.160E-06,-2.660
1.170E-06,-2.660
1.180E-06,-2.660
1.190E-06,-2.660
1.200E-06,-2.660
1.210E-06,-2.660
1.220E-06,-2.660
1.230E-06,-2.660
1.240E-06,-2.660
1.250E-06,-2.660
1.260E-06,-2.660
1.270E-06,-2.680
1.280E-06,-2.660
1.290E-06,-2.660
1.300E-06,-2.640
1.310E-06,-2.660
1.320E-06,-2.660
1.330E-06,-2.660
1.340E-06,-2.660
1.350E-06,-2.660
1.360E-06,-2.660
1.370E-06,-2.660
1.380E-06,-2.680
1.390E-06,-2.660
1.400E-06,-2.660
1.410E-06,-2.620
1.420E-06,-2.560
1.430E-06,-2.520
1.440E-06,-2.520
1.450E-06,-2.500
1.460E-06,-2.460
1.470E-06,-2.460
1.480E-06,-2.440
1.490E-06,-2.440
1.500E-06,-2.440
1.510E-06,-2.420
1.520E-06,-2.440
1.530E-06,-2.420
1.540E-06,-2.340
1.550E-06,-2.260
1.560E-06,-2.180
1.570E-06,-2.100
1.580E-06,-2.100
1.590E-06,-2.080
1.600E-06,-2.080
1.610E-06,-2.080
1.620E-06,-2.140
1.630E-06,-2.220
1.640E-06,-2.320
1.650E-06,-2.440
1.660E-06,-2.560
1.670E-06,-2.680
1.680E-06,-2.660
1.690E-06,-2.660
1.700E-06,-2.660
1.710E-06,-2.660
1.720E-06,-2.680
1.730E-06,-2.660
1.740E-06,-2.660
1.750E-06,-2.640
1.760E-06,-2.640
1.770E-06,-2.640
1.780E-06,-2.660
1.790E-06,-2.660
1.800E-06,-2.640
1.810E-06,-2.560
1.820E-06,-2.500
1.830E-06,-2.460
1.840E-06,-2.420
1.850E-06,-2.380
1.860E-06,-2.280
1.870E-06,-2.260
1.880E-06,-2.220
1.890E-06,-2.160
1.900E-06,-2.080
1.910E-06,-2.060
1.920E-06,-2.020
1.930E-06,-1.960
1.940E-06,-1.960
1.950E-06,-1.940
1.960E-06,-1.900
1.970E-06,-1.800
1.980E-06,-1.800
1.990E-06,-1.740
2.000E-06,-1.700
2.010E-06,-1.680
2.020E-06,-1.600
2.030E-06,-1.560
2.040E-06,-1.520
2.050E-06,-1.560
2.060E-06,-1.680
2.070E-06,-1.720
2.080E-06,-1.880
2.090E-06,-2.080
2.100E-06,-2.260
2.110E-06,-2.460
2.120E-06,-2.600
2.130E-06,-2.660
2.140E-06,-2.660
2.150E-06,-2.660
2.160E-06,-2.660
2.170E-06,-2.660
2.180E-06,-2.660
2.190E-06,-2.640
2.200E-06,-2.640
2.210E-06,-2.660
2.220E-06,-2.660
2.230E-06,-2.660
2.240E-06,-2.660
2.250E-06,-2.600
2.260E-06,-2.500
2.270E-06,-2.400
2.280E-06,-2.340
2.290E-06,-2.240
2.300E-06,-2.140
2.310E-06,-2.020
2.320E-06,-1.900
2.330E-06,-1.800
2.340E-06,-1.700
2.350E-06,-1.600
2.360E-06,-1.500
2.370E-06,-1.380
2.380E-06,-1.240
2.390E-06,-1.140
2.400E-06,-1.020
2.410E-06,-1.020
2.420E-06,-0.940
2.430E-06,-0.960
2.440E-06,-0.980
2.450E-06,-0.960
2.460E-06,-0.940
2.470E-06,-0.920
2.480E-06,-0.840
2.490E-06,-0.840
2.500E-06,-0.860
2.510E-06,-0.880
2.520E-06,-0.980
2.530E-06,-1.080
2.540E-06,-1.260
2.550E-06,-1.380
2.560E-06,-1.520
2.570E-06,-1.640
2.580E-06,-1.660
2.590E-06,-1.680
2.600E-06,-1.660
2.610E-06,-1.560
2.620E-06,-1.460
2.630E-06,-1.280
2.640E-06,-1.100
2.650E-06,-1.020
2.660E-06,-0.940
2.670E-06,-0.880
2.680E-06,-0.840
2.690E-06,-0.800
2.700E-06,-0.780
2.710E-06,-0.820
2.720E-06,-0.860
2.730E-06,-0.940
2.740E-06,-1.080
2.750E-06,-1.220
2.760E-06,-1.360
2.770E-06,-1.420
2.780E-06,-1.380
2.790E-06,-1.260
2.800E-06,-1.020
2.810E-06,-0.800
2.820E-06,-0.600
2.830E-06,-0.400
2.840E-06,-0.400
2.850E-06,-0.420
2.860E-06,-0.480
2.870E-06,-0.600
2.880E-06,-0.660
2.890E-06,-0.680
2.900E-06,-0.700
2.910E-06,-0.760
2.920E-06,-0.800
2.930E-06,-0.840
2.940E-06,-0.900
2.950E-06,-0.980
2.960E-06,-1.020
2.970E-06,-1.000
2.980E-06,-1.040
2.990E-06,-1.100
3.000E-06,-1.140
3.010E-06,-1.200
3.020E-06,-1.260
3.030E-06,-1.360
3.040E-06,-1.420
3.050E-06,-1.480
3.060E-06,-1.520
3.070E-06,-1.520
3.080E-06,-1.540
3.090E-06,-1.540
3.100E-06,-1.540
