mediciones/5-27/-30/WaveData5042.csv

#timebase=2000000(ps)
,#voltbase=100000(mv/100)
#size=4000
-8.400E-06,0.008
-8.390E-06,0.004
-8.380E-06,0.008
-8.370E-06,-0.004
-8.360E-06,0.000
-8.350E-06,-0.004
-8.340E-06,0.004
-8.330E-06,0.004
-8.320E-06,0.004
-8.310E-06,0.004
-8.300E-06,0.000
-8.290E-06,0.000
-8.280E-06,0.000
-8.270E-06,-0.004
-8.260E-06,0.000
-8.250E-06,0.004
-8.240E-06,0.004
-8.230E-06,0.008
-8.220E-06,0.008
-8.210E-06,0.000
-8.200E-06,-0.004
-8.190E-06,-0.004
-8.180E-06,0.004
-8.170E-06,0.008
-8.160E-06,0.008
-8.150E-06,0.004
-8.140E-06,0.008
-8.130E-06,0.004
-8.120E-06,-0.004
-8.110E-06,0.000
-8.100E-06,0.004
-8.090E-06,0.008
-8.080E-06,0.000
-8.070E-06,0.004
-8.060E-06,0.000
-8.050E-06,0.008
-8.040E-06,0.012
-8.030E-06,0.008
-8.020E-06,0.004
-8.010E-06,-0.004
-8.000E-06,0.000
-7.990E-06,0.004
-7.980E-06,0.004
-7.970E-06,0.008
-7.960E-06,0.000
-7.950E-06,-0.004
-7.940E-06,0.000
-7.930E-06,-0.004
-7.920E-06,0.004
-7.910E-06,0.008
-7.900E-06,0.008
-7.890E-06,0.008
-7.880E-06,0.008
-7.870E-06,0.000
-7.860E-06,-0.004
-7.850E-06,0.000
-7.840E-06,-0.004
-7.830E-06,0.004
-7.820E-06,-0.004
-7.810E-06,0.000
-7.800E-06,0.004
-7.790E-06,0.008
-7.780E-06,0.024
-7.770E-06,-0.004
-7.760E-06,-0.004
-7.750E-06,-0.020
-7.740E-06,-0.008
-7.730E-06,0.008
-7.720E-06,0.028
-7.710E-06,0.028
-7.700E-06,0.024
-7.690E-06,0.000
-7.680E-06,-0.024
-7.670E-06,-0.004
-7.660E-06,0.000
-7.650E-06,0.008
-7.640E-06,0.016
-7.630E-06,0.012
-7.620E-06,0.004
-7.610E-06,0.000
-7.600E-06,-0.004
-7.590E-06,0.000
-7.580E-06,0.004
-7.570E-06,0.004
-7.560E-06,0.000
-7.550E-06,-0.004
-7.540E-06,0.004
-7.530E-06,0.012
-7.520E-06,0.004
-7.510E-06,0.004
-7.500E-06,0.004
-7.490E-06,-0.012
-7.480E-06,-0.004
-7.470E-06,-0.008
-7.460E-06,0.000
-7.450E-06,0.008
-7.440E-06,0.008
-7.430E-06,0.004
-7.420E-06,-0.004
-7.410E-06,-0.004
-7.400E-06,-0.008
-7.390E-06,0.012
-7.380E-06,0.012
-7.370E-06,0.012
-7.360E-06,0.000
-7.350E-06,-0.004
-7.340E-06,0.000
-7.330E-06,0.004
-7.320E-06,0.008
-7.310E-06,0.004
-7.300E-06,-0.004
-7.290E-06,-0.004
-7.280E-06,0.000
-7.270E-06,-0.004
-7.260E-06,0.004
-7.250E-06,0.004
-7.240E-06,0.008
-7.230E-06,-0.004
-7.220E-06,-0.004
-7.210E-06,-0.004
-7.200E-06,-0.004
-7.190E-06,0.004
-7.180E-06,0.012
-7.170E-06,0.012
-7.160E-06,0.008
-7.150E-06,-0.004
-7.140E-06,0.000
-7.130E-06,0.004
-7.120E-06,0.004
-7.110E-06,0.000
-7.100E-06,0.000
-7.090E-06,0.004
-7.080E-06,0.008
-7.070E-06,0.000
-7.060E-06,0.004
-7.050E-06,0.004
-7.040E-06,0.004
-7.030E-06,0.008
-7.020E-06,0.008
-7.010E-06,0.000
-7.000E-06,0.004
-6.990E-06,0.004
-6.980E-06,0.008
-6.970E-06,0.000
-6.960E-06,0.004
-6.950E-06,-0.004
-6.940E-06,-0.004
-6.930E-06,0.004
-6.920E-06,0.000
-6.910E-06,0.000
-6.900E-06,0.004
-6.890E-06,0.008
-6.880E-06,0.020
-6.870E-06,0.028
-6.860E-06,0.020
-6.850E-06,0.000
-6.840E-06,-0.020
-6.830E-06,-0.024
-6.820E-06,0.000
-6.810E-06,0.028
-6.800E-06,0.044
-6.790E-06,0.044
-6.780E-06,0.012
-6.770E-06,-0.012
-6.760E-06,-0.032
-6.750E-06,-0.028
-6.740E-06,-0.008
-6.730E-06,0.008
-6.720E-06,0.024
-6.710E-06,0.028
-6.700E-06,0.012
-6.690E-06,-0.004
-6.680E-06,-0.012
-6.670E-06,-0.024
-6.660E-06,-0.012
-6.650E-06,-0.008
-6.640E-06,0.008
-6.630E-06,0.000
-6.620E-06,0.004
-6.610E-06,0.008
-6.600E-06,0.004
-6.590E-06,0.000
-6.580E-06,0.000
-6.570E-06,-0.004
-6.560E-06,0.000
-6.550E-06,0.004
-6.540E-06,0.000
-6.530E-06,0.004
-6.520E-06,0.000
-6.510E-06,0.004
-6.500E-06,0.004
-6.490E-06,0.008
-6.480E-06,0.008
-6.470E-06,0.004
-6.460E-06,0.000
-6.450E-06,0.000
-6.440E-06,-0.004
-6.430E-06,-0.004
-6.420E-06,0.004
-6.410E-06,0.004
-6.400E-06,0.008
-6.390E-06,0.004
-6.380E-06,0.000
-6.370E-06,0.000
-6.360E-06,-0.004
-6.350E-06,0.004
-6.340E-06,0.000
-6.330E-06,0.008
-6.320E-06,0.008
-6.310E-06,0.008
-6.300E-06,0.008
-6.290E-06,0.008
-6.280E-06,0.008
-6.270E-06,0.012
-6.260E-06,0.004
-6.250E-06,0.008
-6.240E-06,0.008
-6.230E-06,0.004
-6.220E-06,0.000
-6.210E-06,0.004
-6.200E-06,0.008
-6.190E-06,0.016
-6.180E-06,0.020
-6.170E-06,0.024
-6.160E-06,0.028
-6.150E-06,0.024
-6.140E-06,0.016
-6.130E-06,0.012
-6.120E-06,-0.016
-6.110E-06,-0.028
-6.100E-06,-0.068
-6.090E-06,-0.064
-6.080E-06,-0.024
-6.070E-06,0.028
-6.060E-06,0.060
-6.050E-06,0.060
-6.040E-06,0.028
-6.030E-06,-0.004
-6.020E-06,-0.036
-6.010E-06,-0.028
-6.000E-06,-0.008
-5.990E-06,0.024
-5.980E-06,0.032
-5.970E-06,0.008
-5.960E-06,0.000
-5.950E-06,-0.012
-5.940E-06,-0.004
-5.930E-06,-0.004
-5.920E-06,0.012
-5.910E-06,0.008
-5.900E-06,0.004
-5.890E-06,-0.008
-5.880E-06,-0.012
-5.870E-06,0.000
-5.860E-06,0.012
-5.850E-06,0.024
-5.840E-06,0.016
-5.830E-06,0.004
-5.820E-06,-0.004
-5.810E-06,-0.008
-5.800E-06,-0.008
-5.790E-06,0.004
-5.780E-06,0.000
-5.770E-06,0.012
-5.760E-06,0.012
-5.750E-06,0.012
-5.740E-06,0.008
-5.730E-06,0.000
-5.720E-06,0.004
-5.710E-06,0.008
-5.700E-06,0.008
-5.690E-06,0.004
-5.680E-06,0.000
-5.670E-06,0.000
-5.660E-06,0.012
-5.650E-06,0.028
-5.640E-06,0.032
-5.630E-06,0.028
-5.620E-06,0.000
-5.610E-06,-0.024
-5.600E-06,-0.036
-5.590E-06,-0.024
-5.580E-06,0.004
-5.570E-06,0.032
-5.560E-06,0.032
-5.550E-06,0.020
-5.540E-06,0.008
-5.530E-06,-0.004
-5.520E-06,-0.004
-5.510E-06,-0.004
-5.500E-06,-0.004
-5.490E-06,-0.008
-5.480E-06,-0.004
-5.470E-06,0.000
-5.460E-06,0.004
-5.450E-06,0.004
-5.440E-06,0.012
-5.430E-06,0.008
-5.420E-06,0.000
-5.410E-06,-0.012
-5.400E-06,-0.012
-5.390E-06,0.000
-5.380E-06,0.016
-5.370E-06,0.024
-5.360E-06,0.020
-5.350E-06,0.016
-5.340E-06,0.000
-5.330E-06,0.000
-5.320E-06,0.000
-5.310E-06,0.008
-5.300E-06,0.004
-5.290E-06,0.012
-5.280E-06,0.004
-5.270E-06,0.008
-5.260E-06,0.008
-5.250E-06,0.000
-5.240E-06,0.000
-5.230E-06,-0.016
-5.220E-06,-0.016
-5.210E-06,-0.012
-5.200E-06,-0.012
-5.190E-06,-0.012
-5.180E-06,-0.004
-5.170E-06,-0.004
-5.160E-06,0.024
-5.150E-06,0.040
-5.140E-06,0.028
-5.130E-06,0.044
-5.120E-06,0.016
-5.110E-06,-0.016
-5.100E-06,-0.040
-5.090E-06,-0.048
-5.080E-06,-0.020
-5.070E-06,0.008
-5.060E-06,0.028
-5.050E-06,0.032
-5.040E-06,0.028
-5.030E-06,0.012
-5.020E-06,-0.004
-5.010E-06,-0.016
-5.000E-06,-0.020
-4.990E-06,-0.020
-4.980E-06,0.000
-4.970E-06,0.004
-4.960E-06,0.008
-4.950E-06,0.008
-4.940E-06,0.004
-4.930E-06,-0.004
-4.920E-06,-0.008
-4.910E-06,-0.004
-4.900E-06,0.004
-4.890E-06,0.004
-4.880E-06,0.012
-4.870E-06,0.008
-4.860E-06,0.008
-4.850E-06,0.000
-4.840E-06,-0.004
-4.830E-06,-0.004
-4.820E-06,-0.004
-4.810E-06,0.004
-4.800E-06,0.008
-4.790E-06,0.004
-4.780E-06,0.004
-4.770E-06,0.000
-4.760E-06,-0.004
-4.750E-06,-0.004
-4.740E-06,0.004
-4.730E-06,0.012
-4.720E-06,0.012
-4.710E-06,0.008
-4.700E-06,0.008
-4.690E-06,-0.004
-4.680E-06,0.000
-4.670E-06,0.004
-4.660E-06,0.012
-4.650E-06,0.020
-4.640E-06,0.016
-4.630E-06,0.016
-4.620E-06,0.020
-4.610E-06,0.016
-4.600E-06,0.024
-4.590E-06,0.024
-4.580E-06,0.036
-4.570E-06,0.048
-4.560E-06,0.056
-4.550E-06,0.056
-4.540E-06,0.056
-4.530E-06,0.048
-4.520E-06,0.016
-4.510E-06,-0.012
-4.500E-06,-0.036
-4.490E-06,-0.048
-4.480E-06,-0.048
-4.470E-06,-0.028
-4.460E-06,0.000
-4.450E-06,0.032
-4.440E-06,0.048
-4.430E-06,0.044
-4.420E-06,0.024
-4.410E-06,0.000
-4.400E-06,-0.008
-4.390E-06,-0.012
-4.380E-06,-0.012
-4.370E-06,-0.012
-4.360E-06,-0.008
-4.350E-06,-0.012
-4.340E-06,-0.004
-4.330E-06,0.004
-4.320E-06,0.004
-4.310E-06,0.008
-4.300E-06,-0.004
-4.290E-06,-0.008
-4.280E-06,-0.020
-4.270E-06,-0.024
-4.260E-06,-0.016
-4.250E-06,-0.004
-4.240E-06,0.012
-4.230E-06,0.020
-4.220E-06,0.024
-4.210E-06,0.024
-4.200E-06,0.016
-4.190E-06,0.016
-4.180E-06,0.024
-4.170E-06,0.036
-4.160E-06,0.040
-4.150E-06,0.052
-4.140E-06,0.052
-4.130E-06,0.048
-4.120E-06,0.036
-4.110E-06,0.024
-4.100E-06,0.008
-4.090E-06,-0.012
-4.080E-06,-0.024
-4.070E-06,-0.016
-4.060E-06,0.000
-4.050E-06,0.008
-4.040E-06,0.028
-4.030E-06,0.044
-4.020E-06,0.036
-4.010E-06,0.016
-4.000E-06,-0.028
-3.990E-06,-0.040
-3.980E-06,-0.036
-3.970E-06,-0.008
-3.960E-06,0.028
-3.950E-06,0.056
-3.940E-06,0.072
-3.930E-06,0.056
-3.920E-06,0.016
-3.910E-06,-0.004
-3.900E-06,-0.024
-3.890E-06,-0.024
-3.880E-06,-0.016
-3.870E-06,-0.004
-3.860E-06,0.012
-3.850E-06,0.020
-3.840E-06,0.024
-3.830E-06,0.016
-3.820E-06,0.008
-3.810E-06,-0.004
-3.800E-06,-0.004
-3.790E-06,-0.004
-3.780E-06,0.008
-3.770E-06,0.008
-3.760E-06,0.020
-3.750E-06,0.016
-3.740E-06,-0.004
-3.730E-06,-0.004
-3.720E-06,-0.004
-3.710E-06,0.008
-3.700E-06,0.008
-3.690E-06,0.008
-3.680E-06,0.008
-3.670E-06,0.008
-3.660E-06,-0.004
-3.650E-06,-0.004
-3.640E-06,0.000
-3.630E-06,0.008
-3.620E-06,0.008
-3.610E-06,0.004
-3.600E-06,0.008
-3.590E-06,0.020
-3.580E-06,0.032
-3.570E-06,0.040
-3.560E-06,0.036
-3.550E-06,0.028
-3.540E-06,0.024
-3.530E-06,0.032
-3.520E-06,0.036
-3.510E-06,0.044
-3.500E-06,0.048
-3.490E-06,0.040
-3.480E-06,0.036
-3.470E-06,0.032
-3.460E-06,0.028
-3.450E-06,0.028
-3.440E-06,0.052
-3.430E-06,0.060
-3.420E-06,0.076
-3.410E-06,0.064
-3.400E-06,0.056
-3.390E-06,0.040
-3.380E-06,0.032
-3.370E-06,0.028
-3.360E-06,0.036
-3.350E-06,0.028
-3.340E-06,0.028
-3.330E-06,-0.004
-3.320E-06,-0.052
-3.310E-06,-0.104
-3.300E-06,-0.136
-3.290E-06,-0.136
-3.280E-06,-0.116
-3.270E-06,-0.060
-3.260E-06,0.000
-3.250E-06,0.028
-3.240E-06,0.040
-3.230E-06,0.024
-3.220E-06,0.004
-3.210E-06,0.000
-3.200E-06,0.000
-3.190E-06,0.016
-3.180E-06,0.024
-3.170E-06,0.028
-3.160E-06,0.016
-3.150E-06,0.012
-3.140E-06,0.016
-3.130E-06,0.024
-3.120E-06,0.044
-3.110E-06,0.056
-3.100E-06,0.048
-3.090E-06,0.044
-3.080E-06,0.024
-3.070E-06,0.020
-3.060E-06,0.028
-3.050E-06,0.040
-3.040E-06,0.060
-3.030E-06,0.072
-3.020E-06,0.068
-3.010E-06,0.052
-3.000E-06,0.032
-2.990E-06,0.012
-2.980E-06,0.000
-2.970E-06,-0.008
-2.960E-06,-0.036
-2.950E-06,-0.068
-2.940E-06,-0.096
-2.930E-06,-0.112
-2.920E-06,-0.088
-2.910E-06,-0.036
-2.900E-06,0.012
-2.890E-06,0.044
-2.880E-06,0.056
-2.870E-06,0.044
-2.860E-06,0.020
-2.850E-06,0.000
-2.840E-06,0.004
-2.830E-06,0.036
-2.820E-06,0.072
-2.810E-06,0.104
-2.800E-06,0.120
-2.790E-06,0.112
-2.780E-06,0.096
-2.770E-06,0.072
-2.760E-06,0.064
-2.750E-06,0.060
-2.740E-06,0.056
-2.730E-06,0.056
-2.720E-06,0.024
-2.710E-06,-0.016
-2.700E-06,-0.048
-2.690E-06,-0.056
-2.680E-06,-0.040
-2.670E-06,-0.040
-2.660E-06,-0.056
-2.650E-06,-0.144
-2.640E-06,-0.204
-2.630E-06,-0.188
-2.620E-06,-0.152
-2.610E-06,-0.008
-2.600E-06,0.064
-2.590E-06,0.124
-2.580E-06,0.072
-2.570E-06,0.028
-2.560E-06,-0.032
-2.550E-06,-0.052
-2.540E-06,0.000
-2.530E-06,0.068
-2.520E-06,0.136
-2.510E-06,0.152
-2.500E-06,0.140
-2.490E-06,0.072
-2.480E-06,-0.008
-2.470E-06,-0.076
-2.460E-06,-0.100
-2.450E-06,-0.060
-2.440E-06,0.000
-2.430E-06,0.068
-2.420E-06,0.092
-2.410E-06,0.072
-2.400E-06,0.016
-2.390E-06,-0.068
-2.380E-06,-0.108
-2.370E-06,-0.104
-2.360E-06,-0.072
-2.350E-06,-0.028
-2.340E-06,0.012
-2.330E-06,0.036
-2.320E-06,0.032
-2.310E-06,0.064
-2.300E-06,0.060
-2.290E-06,0.076
-2.280E-06,0.008
-2.270E-06,-0.052
-2.260E-06,-0.124
-2.250E-06,-0.140
-2.240E-06,-0.084
-2.230E-06,0.004
-2.220E-06,0.092
-2.210E-06,0.164
-2.200E-06,0.164
-2.190E-06,0.140
-2.180E-06,0.100
-2.170E-06,0.076
-2.160E-06,0.064
-2.150E-06,0.072
-2.140E-06,0.052
-2.130E-06,-0.004
-2.120E-06,-0.072
-2.110E-06,-0.128
-2.100E-06,-0.160
-2.090E-06,-0.156
-2.080E-06,-0.144
-2.070E-06,-0.120
-2.060E-06,-0.116
-2.050E-06,-0.104
-2.040E-06,-0.072
-2.030E-06,-0.024
-2.020E-06,0.028
-2.010E-06,0.028
-2.000E-06,0.028
-1.990E-06,0.028
-1.980E-06,0.008
-1.970E-06,-0.072
-1.960E-06,-0.036
-1.950E-06,0.040
-1.940E-06,0.056
-1.930E-06,0.084
-1.920E-06,0.084
-1.910E-06,0.080
-1.900E-06,0.072
-1.890E-06,0.076
-1.880E-06,0.076
-1.870E-06,0.108
-1.860E-06,0.104
-1.850E-06,0.104
-1.840E-06,0.076
-1.830E-06,0.020
-1.820E-06,-0.036
-1.810E-06,-0.064
-1.800E-06,-0.084
-1.790E-06,-0.064
-1.780E-06,-0.032
-1.770E-06,-0.012
-1.760E-06,-0.004
-1.750E-06,-0.044
-1.740E-06,-0.064
-1.730E-06,-0.064
-1.720E-06,-0.024
-1.710E-06,0.028
-1.700E-06,0.044
-1.690E-06,0.036
-1.680E-06,0.016
-1.670E-06,-0.032
-1.660E-06,-0.056
-1.650E-06,-0.052
-1.640E-06,-0.036
-1.630E-06,0.000
-1.620E-06,0.004
-1.610E-06,0.016
-1.600E-06,0.016
-1.590E-06,0.028
-1.580E-06,0.028
-1.570E-06,0.048
-1.560E-06,0.076
-1.550E-06,0.100
-1.540E-06,0.124
-1.530E-06,0.128
-1.520E-06,0.136
-1.510E-06,0.128
-1.500E-06,0.108
-1.490E-06,0.088
-1.480E-06,0.084
-1.470E-06,0.084
-1.460E-06,0.096
-1.450E-06,0.096
-1.440E-06,0.092
-1.430E-06,0.060
-1.420E-06,0.012
-1.410E-06,-0.036
-1.400E-06,-0.060
-1.390E-06,-0.076
-1.380E-06,-0.080
-1.370E-06,-0.136
-1.360E-06,-0.156
-1.350E-06,-0.200
-1.340E-06,-0.188
-1.330E-06,-0.196
-1.320E-06,-0.188
-1.310E-06,-0.152
-1.300E-06,-0.068
-1.290E-06,-0.016
-1.280E-06,0.012
-1.270E-06,0.020
-1.260E-06,0.024
-1.250E-06,0.012
-1.240E-06,0.016
-1.230E-06,0.028
-1.220E-06,0.052
-1.210E-06,0.064
-1.200E-06,0.088
-1.190E-06,0.092
-1.180E-06,0.088
-1.170E-06,0.104
-1.160E-06,0.112
-1.150E-06,0.128
-1.140E-06,0.128
-1.130E-06,0.120
-1.120E-06,0.068
-1.110E-06,0.008
-1.100E-06,-0.060
-1.090E-06,-0.120
-1.080E-06,-0.160
-1.070E-06,-0.168
-1.060E-06,-0.160
-1.050E-06,-0.124
-1.040E-06,-0.080
-1.030E-06,-0.052
-1.020E-06,-0.048
-1.010E-06,-0.052
-1.000E-06,-0.044
-9.900E-07,-0.020
-9.800E-07,-0.004
-9.700E-07,0.016
-9.600E-07,0.048
-9.500E-07,0.064
-9.400E-07,0.088
-9.300E-07,0.092
-9.200E-07,0.100
-9.100E-07,0.108
-9.000E-07,0.108
-8.900E-07,0.092
-8.800E-07,0.072
-8.700E-07,0.052
-8.600E-07,0.044
-8.500E-07,0.044
-8.400E-07,0.056
-8.300E-07,0.052
-8.200E-07,0.044
-8.100E-07,0.016
-8.000E-07,-0.012
-7.900E-07,-0.028
-7.800E-07,-0.028
-7.700E-07,-0.012
-7.600E-07,0.016
-7.500E-07,0.020
-7.400E-07,0.024
-7.300E-07,0.024
-7.200E-07,0.016
-7.100E-07,0.028
-7.000E-07,0.028
-6.900E-07,0.056
-6.800E-07,0.076
-6.700E-07,0.080
-6.600E-07,0.084
-6.500E-07,0.092
-6.400E-07,0.096
-6.300E-07,0.108
-6.200E-07,0.132
-6.100E-07,0.136
-6.000E-07,0.136
-5.900E-07,0.124
-5.800E-07,0.108
-5.700E-07,0.092
-5.600E-07,0.088
-5.500E-07,0.084
-5.400E-07,0.092
-5.300E-07,0.100
-5.200E-07,0.104
-5.100E-07,0.092
-5.000E-07,0.064
-4.900E-07,0.028
-4.800E-07,0.004
-4.700E-07,-0.004
-4.600E-07,-0.004
-4.500E-07,0.008
-4.400E-07,0.032
-4.300E-07,0.064
-4.200E-07,0.096
-4.100E-07,0.104
-4.000E-07,0.100
-3.900E-07,0.088
-3.800E-07,0.080
-3.700E-07,0.080
-3.600E-07,0.088
-3.500E-07,0.104
-3.400E-07,0.092
-3.300E-07,0.044
-3.200E-07,-0.020
-3.100E-07,-0.052
-3.000E-07,-0.064
-2.900E-07,-0.064
-2.800E-07,-0.060
-2.700E-07,-0.056
-2.600E-07,-0.032
-2.500E-07,-0.004
-2.400E-07,0.064
-2.300E-07,0.128
-2.200E-07,0.108
-2.100E-07,0.108
-2.000E-07,0.044
-1.900E-07,-0.008
-1.800E-07,-0.016
-1.700E-07,0.000
-1.600E-07,0.020
-1.500E-07,-0.020
-1.400E-07,-0.152
-1.300E-07,-0.304
-1.200E-07,-0.452
-1.100E-07,-0.424
-1.000E-07,-0.344
-9.000E-08,-0.192
-8.000E-08,-0.044
-7.000E-08,0.032
-6.000E-08,0.036
-5.000E-08,0.008
-4.000E-08,-0.024
-3.000E-08,-0.008
-2.000E-08,0.060
-1.000E-08,0.140
0.000E+00,0.208
1.000E-08,0.224
2.000E-08,0.196
3.000E-08,0.152
4.000E-08,0.100
5.000E-08,0.068
6.000E-08,0.064
7.000E-08,0.072
8.000E-08,0.088
9.000E-08,0.100
1.000E-07,0.092
1.100E-07,0.084
1.200E-07,0.064
1.300E-07,0.052
1.400E-07,0.028
1.500E-07,0.024
1.600E-07,0.028
1.700E-07,0.016
1.800E-07,0.020
1.900E-07,0.012
2.000E-07,0.032
2.100E-07,0.060
2.200E-07,0.068
2.300E-07,0.088
2.400E-07,0.080
2.500E-07,0.064
2.600E-07,0.064
2.700E-07,0.064
2.800E-07,0.080
2.900E-07,0.092
3.000E-07,0.092
3.100E-07,0.088
3.200E-07,0.080
3.300E-07,0.064
3.400E-07,0.072
3.500E-07,0.064
3.600E-07,0.084
3.700E-07,0.100
3.800E-07,0.104
3.900E-07,0.108
4.000E-07,0.104
4.100E-07,0.116
4.200E-07,0.124
4.300E-07,0.140
4.400E-07,0.144
4.500E-07,0.144
4.600E-07,0.136
4.700E-07,0.124
4.800E-07,0.120
4.900E-07,0.112
5.000E-07,0.108
5.100E-07,0.124
5.200E-07,0.128
5.300E-07,0.128
5.400E-07,0.124
5.500E-07,0.120
5.600E-07,0.112
5.700E-07,0.108
5.800E-07,0.112
5.900E-07,0.120
6.000E-07,0.124
6.100E-07,0.124
6.200E-07,0.128
6.300E-07,0.132
6.400E-07,0.132
6.500E-07,0.136
6.600E-07,0.136
6.700E-07,0.136
6.800E-07,0.136
6.900E-07,0.132
7.000E-07,0.132
7.100E-07,0.132
7.200E-07,0.132
7.300E-07,0.128
7.400E-07,0.132
7.500E-07,0.128
7.600E-07,0.128
7.700E-07,0.124
7.800E-07,0.128
7.900E-07,0.128
8.000E-07,0.128
8.100E-07,0.128
8.200E-07,0.132
8.300E-07,0.132
8.400E-07,0.136
8.500E-07,0.132
8.600E-07,0.132
8.700E-07,0.132
8.800E-07,0.132
8.900E-07,0.124
9.000E-07,0.128
9.100E-07,0.128
9.200E-07,0.132
9.300E-07,0.132
9.400E-07,0.128
9.500E-07,0.132
9.600E-07,0.128
9.700E-07,0.124
9.800E-07,0.124
9.900E-07,0.112
1.000E-06,0.108
1.010E-06,0.092
1.020E-06,0.072
1.030E-06,0.048
1.040E-06,0.032
1.050E-06,0.024
1.060E-06,0.044
1.070E-06,0.092
1.080E-06,0.140
1.090E-06,0.164
1.100E-06,0.164
1.110E-06,0.136
1.120E-06,0.108
1.130E-06,0.092
1.140E-06,0.096
1.150E-06,0.124
1.160E-06,0.144
1.170E-06,0.156
1.180E-06,0.148
1.190E-06,0.132
1.200E-06,0.112
1.210E-06,0.104
1.220E-06,0.108
1.230E-06,0.128
1.240E-06,0.136
1.250E-06,0.140
1.260E-06,0.140
1.270E-06,0.132
1.280E-06,0.124
1.290E-06,0.120
1.300E-06,0.120
1.310E-06,0.124
1.320E-06,0.132
1.330E-06,0.140
1.340E-06,0.140
1.350E-06,0.128
1.360E-06,0.120
1.370E-06,0.116
1.380E-06,0.120
1.390E-06,0.124
1.400E-06,0.128
1.410E-06,0.128
1.420E-06,0.124
1.430E-06,0.128
1.440E-06,0.124
1.450E-06,0.124
1.460E-06,0.120
1.470E-06,0.124
1.480E-06,0.128
1.490E-06,0.128
1.500E-06,0.128
1.510E-06,0.124
1.520E-06,0.124
1.530E-06,0.120
1.540E-06,0.120
1.550E-06,0.120
1.560E-06,0.124
1.570E-06,0.124
1.580E-06,0.128
1.590E-06,0.124
1.600E-06,0.120
1.610E-06,0.120
1.620E-06,0.120
1.630E-06,0.124
1.640E-06,0.124
1.650E-06,0.128
1.660E-06,0.128
1.670E-06,0.120
1.680E-06,0.120
1.690E-06,0.112
1.700E-06,0.112
1.710E-06,0.120
1.720E-06,0.120
1.730E-06,0.120
1.740E-06,0.124
1.750E-06,0.124
1.760E-06,0.120
1.770E-06,0.120
1.780E-06,0.116
1.790E-06,0.120
1.800E-06,0.120
1.810E-06,0.124
1.820E-06,0.124
1.830E-06,0.120
1.840E-06,0.124
1.850E-06,0.124
1.860E-06,0.108
1.870E-06,0.120
1.880E-06,0.116
1.890E-06,0.120
1.900E-06,0.120
1.910E-06,0.120
1.920E-06,0.120
1.930E-06,0.108
1.940E-06,0.112
1.950E-06,0.112
1.960E-06,0.112
1.970E-06,0.120
1.980E-06,0.112
1.990E-06,0.112
2.000E-06,0.112
2.010E-06,0.112
2.020E-06,0.112
2.030E-06,0.112
2.040E-06,0.112
2.050E-06,0.108
2.060E-06,0.112
2.070E-06,0.112
2.080E-06,0.112
2.090E-06,0.108
2.100E-06,0.112
2.110E-06,0.108
2.120E-06,0.112
2.130E-06,0.112
2.140E-06,0.108
2.150E-06,0.112
2.160E-06,0.108
2.170E-06,0.108
2.180E-06,0.104
2.190E-06,0.104
2.200E-06,0.104
2.210E-06,0.108
2.220E-06,0.108
2.230E-06,0.108
2.240E-06,0.108
2.250E-06,0.108
2.260E-06,0.108
2.270E-06,0.104
2.280E-06,0.104
2.290E-06,0.108
2.300E-06,0.104
2.310E-06,0.108
2.320E-06,0.104
2.330E-06,0.104
2.340E-06,0.104
2.350E-06,0.108
2.360E-06,0.104
2.370E-06,0.104
2.380E-06,0.104
2.390E-06,0.100
2.400E-06,0.108
2.410E-06,0.100
2.420E-06,0.100
2.430E-06,0.104
2.440E-06,0.104
2.450E-06,0.096
2.460E-06,0.104
2.470E-06,0.104
2.480E-06,0.100
2.490E-06,0.100
2.500E-06,0.100
2.510E-06,0.096
2.520E-06,0.096
2.530E-06,0.096
2.540E-06,0.096
2.550E-06,0.100
2.560E-06,0.096
2.570E-06,0.100
2.580E-06,0.100
2.590E-06,0.096
2.600E-06,0.096
2.610E-06,0.100
2.620E-06,0.100
2.630E-06,0.096
2.640E-06,0.100
2.650E-06,0.092
2.660E-06,0.092
2.670E-06,0.092
2.680E-06,0.100
2.690E-06,0.096
2.700E-06,0.100
2.710E-06,0.096
2.720E-06,0.092
2.730E-06,0.092
2.740E-06,0.096
2.750E-06,0.096
2.760E-06,0.092
2.770E-06,0.092
2.780E-06,0.092
2.790E-06,0.092
2.800E-06,0.096
2.810E-06,0.096
2.820E-06,0.088
2.830E-06,0.092
2.840E-06,0.092
2.850E-06,0.096
2.860E-06,0.092
2.870E-06,0.088
2.880E-06,0.088
2.890E-06,0.092
2.900E-06,0.088
2.910E-06,0.088
2.920E-06,0.088
2.930E-06,0.088
2.940E-06,0.088
2.950E-06,0.092
2.960E-06,0.092
2.970E-06,0.088
2.980E-06,0.088
2.990E-06,0.092
3.000E-06,0.088
3.010E-06,0.088
3.020E-06,0.092
3.030E-06,0.092
3.040E-06,0.088
3.050E-06,0.092
3.060E-06,0.092
3.070E-06,0.092
3.080E-06,0.088
3.090E-06,0.092
3.100E-06,0.088
3.110E-06,0.088
3.120E-06,0.088
3.130E-06,0.088
3.140E-06,0.084
3.150E-06,0.084
3.160E-06,0.084
3.170E-06,0.088
3.180E-06,0.088
3.190E-06,0.084
3.200E-06,0.084
3.210E-06,0.088
3.220E-06,0.084
3.230E-06,0.080
3.240E-06,0.088
3.250E-06,0.080
3.260E-06,0.080
3.270E-06,0.084
3.280E-06,0.088
3.290E-06,0.076
3.300E-06,0.076
3.310E-06,0.076
3.320E-06,0.076
3.330E-06,0.076
3.340E-06,0.076
3.350E-06,0.076
3.360E-06,0.076
