mediciones/5-27/-30/WaveData5053.csv

#timebase=2000000(ps)
,#voltbase=500000(mv/100)
#size=4000
-8.400E-06,-0.060
-8.390E-06,0.020
-8.380E-06,0.000
-8.370E-06,0.060
-8.360E-06,0.040
-8.350E-06,0.000
-8.340E-06,0.000
-8.330E-06,0.040
-8.320E-06,0.080
-8.310E-06,0.140
-8.300E-06,0.120
-8.290E-06,0.080
-8.280E-06,0.080
-8.270E-06,0.040
-8.260E-06,0.040
-8.250E-06,0.080
-8.240E-06,0.260
-8.230E-06,0.320
-8.220E-06,0.340
-8.210E-06,0.500
-8.200E-06,0.060
-8.190E-06,0.080
-8.180E-06,-0.100
-8.170E-06,-0.220
-8.160E-06,0.240
-8.150E-06,0.280
-8.140E-06,0.340
-8.130E-06,0.340
-8.120E-06,0.000
-8.110E-06,-0.140
-8.100E-06,-0.160
-8.090E-06,-0.100
-8.080E-06,0.080
-8.070E-06,0.120
-8.060E-06,0.060
-8.050E-06,-0.060
-8.040E-06,-0.220
-8.030E-06,-0.260
-8.020E-06,-0.220
-8.010E-06,-0.160
-8.000E-06,-0.120
-7.990E-06,-0.120
-7.980E-06,-0.160
-7.970E-06,-0.160
-7.960E-06,-0.160
-7.950E-06,-0.180
-7.940E-06,-0.180
-7.930E-06,-0.160
-7.920E-06,-0.180
-7.910E-06,-0.120
-7.900E-06,-0.100
-7.890E-06,-0.040
-7.880E-06,0.000
-7.870E-06,0.000
-7.860E-06,-0.020
-7.850E-06,-0.020
-7.840E-06,0.000
-7.830E-06,0.040
-7.820E-06,0.080
-7.810E-06,0.060
-7.800E-06,0.080
-7.790E-06,0.000
-7.780E-06,-0.020
-7.770E-06,-0.040
-7.760E-06,0.180
-7.750E-06,-0.040
-7.740E-06,-0.020
-7.730E-06,0.080
-7.720E-06,-0.120
-7.710E-06,0.000
-7.700E-06,0.180
-7.690E-06,0.140
-7.680E-06,0.060
-7.670E-06,-0.100
-7.660E-06,-0.260
-7.650E-06,-0.100
-7.640E-06,0.000
-7.630E-06,0.300
-7.620E-06,0.340
-7.610E-06,0.180
-7.600E-06,0.120
-7.590E-06,0.000
-7.580E-06,0.080
-7.570E-06,0.340
-7.560E-06,0.420
-7.550E-06,0.540
-7.540E-06,0.360
-7.530E-06,0.160
-7.520E-06,0.100
-7.510E-06,0.040
-7.500E-06,0.200
-7.490E-06,0.220
-7.480E-06,0.380
-7.470E-06,0.120
-7.460E-06,0.020
-7.450E-06,-0.020
-7.440E-06,-0.220
-7.430E-06,-0.020
-7.420E-06,0.100
-7.410E-06,0.060
-7.400E-06,0.080
-7.390E-06,-0.120
-7.380E-06,-0.240
-7.370E-06,-0.280
-7.360E-06,-0.260
-7.350E-06,-0.140
-7.340E-06,-0.100
-7.330E-06,-0.180
-7.320E-06,-0.220
-7.310E-06,-0.280
-7.300E-06,-0.300
-7.290E-06,-0.280
-7.280E-06,-0.200
-7.270E-06,-0.160
-7.260E-06,-0.160
-7.250E-06,-0.160
-7.240E-06,-0.220
-7.230E-06,-0.180
-7.220E-06,-0.080
-7.210E-06,-0.040
-7.200E-06,0.080
-7.190E-06,0.040
-7.180E-06,0.020
-7.170E-06,0.040
-7.160E-06,0.020
-7.150E-06,0.100
-7.140E-06,0.120
-7.130E-06,0.100
-7.120E-06,0.160
-7.110E-06,0.060
-7.100E-06,0.080
-7.090E-06,0.080
-7.080E-06,0.080
-7.070E-06,0.080
-7.060E-06,0.080
-7.050E-06,0.060
-7.040E-06,0.040
-7.030E-06,0.040
-7.020E-06,0.060
-7.010E-06,0.020
-7.000E-06,-0.020
-6.990E-06,-0.020
-6.980E-06,-0.060
-6.970E-06,0.000
-6.960E-06,0.080
-6.950E-06,0.200
-6.940E-06,0.180
-6.930E-06,0.200
-6.920E-06,0.300
-6.910E-06,0.020
-6.900E-06,0.280
-6.890E-06,0.080
-6.880E-06,0.080
-6.870E-06,0.200
-6.860E-06,0.100
-6.850E-06,0.440
-6.840E-06,0.380
-6.830E-06,0.360
-6.820E-06,0.180
-6.810E-06,0.340
-6.800E-06,-0.080
-6.790E-06,-0.100
-6.780E-06,0.160
-6.770E-06,-0.260
-6.760E-06,0.020
-6.750E-06,0.220
-6.740E-06,0.060
-6.730E-06,0.280
-6.720E-06,0.000
-6.710E-06,-0.140
-6.700E-06,-0.140
-6.690E-06,-0.160
-6.680E-06,0.020
-6.670E-06,0.080
-6.660E-06,-0.020
-6.650E-06,-0.060
-6.640E-06,-0.240
-6.630E-06,-0.340
-6.620E-06,-0.300
-6.610E-06,-0.260
-6.600E-06,-0.180
-6.590E-06,-0.140
-6.580E-06,-0.180
-6.570E-06,-0.240
-6.560E-06,-0.240
-6.550E-06,-0.260
-6.540E-06,-0.240
-6.530E-06,-0.180
-6.520E-06,-0.160
-6.510E-06,-0.080
-6.500E-06,-0.080
-6.490E-06,-0.080
-6.480E-06,-0.020
-6.470E-06,-0.060
-6.460E-06,-0.080
-6.450E-06,-0.040
-6.440E-06,-0.080
-6.430E-06,0.000
-6.420E-06,0.060
-6.410E-06,0.160
-6.400E-06,0.240
-6.390E-06,0.220
-6.380E-06,0.180
-6.370E-06,0.100
-6.360E-06,0.080
-6.350E-06,0.140
-6.340E-06,0.200
-6.330E-06,0.160
-6.320E-06,0.140
-6.310E-06,0.120
-6.300E-06,0.080
-6.290E-06,0.080
-6.280E-06,0.120
-6.270E-06,0.120
-6.260E-06,0.180
-6.250E-06,0.160
-6.240E-06,0.160
-6.230E-06,0.160
-6.220E-06,0.180
-6.210E-06,0.160
-6.200E-06,0.120
-6.190E-06,0.120
-6.180E-06,0.080
-6.170E-06,0.080
-6.160E-06,0.120
-6.150E-06,0.060
-6.140E-06,0.060
-6.130E-06,-0.020
-6.120E-06,0.000
-6.110E-06,-0.040
-6.100E-06,0.260
-6.090E-06,0.500
-6.080E-06,0.340
-6.070E-06,0.500
-6.060E-06,0.160
-6.050E-06,-0.040
-6.040E-06,0.000
-6.030E-06,0.080
-6.020E-06,0.260
-6.010E-06,0.260
-6.000E-06,0.220
-5.990E-06,0.080
-5.980E-06,-0.100
-5.970E-06,-0.100
-5.960E-06,-0.140
-5.950E-06,-0.100
-5.940E-06,-0.060
-5.930E-06,-0.100
-5.920E-06,-0.100
-5.910E-06,-0.160
-5.900E-06,-0.220
-5.890E-06,-0.260
-5.880E-06,-0.320
-5.870E-06,-0.340
-5.860E-06,-0.320
-5.850E-06,-0.260
-5.840E-06,-0.180
-5.830E-06,-0.180
-5.820E-06,-0.200
-5.810E-06,-0.220
-5.800E-06,-0.240
-5.790E-06,-0.240
-5.780E-06,-0.180
-5.770E-06,-0.120
-5.760E-06,-0.120
-5.750E-06,0.020
-5.740E-06,0.000
-5.730E-06,-0.080
-5.720E-06,-0.020
-5.710E-06,-0.080
-5.700E-06,-0.020
-5.690E-06,0.180
-5.680E-06,0.160
-5.670E-06,0.240
-5.660E-06,0.140
-5.650E-06,0.040
-5.640E-06,0.080
-5.630E-06,0.080
-5.620E-06,0.140
-5.610E-06,0.160
-5.600E-06,0.100
-5.590E-06,0.020
-5.580E-06,0.000
-5.570E-06,0.060
-5.560E-06,0.180
-5.550E-06,0.200
-5.540E-06,0.180
-5.530E-06,0.160
-5.520E-06,0.120
-5.510E-06,0.120
-5.500E-06,0.160
-5.490E-06,0.200
-5.480E-06,0.160
-5.470E-06,0.140
-5.460E-06,-0.040
-5.450E-06,0.040
-5.440E-06,0.040
-5.430E-06,-0.080
-5.420E-06,0.100
-5.410E-06,0.060
-5.400E-06,0.140
-5.390E-06,0.420
-5.380E-06,0.360
-5.370E-06,0.440
-5.360E-06,0.240
-5.350E-06,0.000
-5.340E-06,0.020
-5.330E-06,0.060
-5.320E-06,0.200
-5.310E-06,0.300
-5.300E-06,0.260
-5.290E-06,0.140
-5.280E-06,-0.040
-5.270E-06,-0.120
-5.260E-06,-0.100
-5.250E-06,-0.080
-5.240E-06,-0.020
-5.230E-06,-0.020
-5.220E-06,-0.080
-5.210E-06,-0.200
-5.200E-06,-0.260
-5.190E-06,-0.320
-5.180E-06,-0.340
-5.170E-06,-0.320
-5.160E-06,-0.340
-5.150E-06,-0.340
-5.140E-06,-0.340
-5.130E-06,-0.360
-5.120E-06,-0.360
-5.110E-06,-0.420
-5.100E-06,-0.400
-5.090E-06,-0.360
-5.080E-06,-0.360
-5.070E-06,-0.280
-5.060E-06,-0.220
-5.050E-06,-0.240
-5.040E-06,-0.180
-5.030E-06,-0.160
-5.020E-06,-0.140
-5.010E-06,-0.080
-5.000E-06,-0.060
-4.990E-06,-0.040
-4.980E-06,0.000
-4.970E-06,0.000
-4.960E-06,0.060
-4.950E-06,0.040
-4.940E-06,0.100
-4.930E-06,0.140
-4.920E-06,0.160
-4.910E-06,0.320
-4.900E-06,0.060
-4.890E-06,0.140
-4.880E-06,0.140
-4.870E-06,0.300
-4.860E-06,0.140
-4.850E-06,0.640
-4.840E-06,0.780
-4.830E-06,0.620
-4.820E-06,0.980
-4.810E-06,0.580
-4.800E-06,0.500
-4.790E-06,0.420
-4.780E-06,0.340
-4.770E-06,0.540
-4.760E-06,0.560
-4.750E-06,0.580
-4.740E-06,0.540
-4.730E-06,0.300
-4.720E-06,0.160
-4.710E-06,0.160
-4.700E-06,0.120
-4.690E-06,0.120
-4.680E-06,0.140
-4.670E-06,0.020
-4.660E-06,-0.100
-4.650E-06,-0.220
-4.640E-06,-0.300
-4.630E-06,-0.420
-4.620E-06,-0.400
-4.610E-06,-0.580
-4.600E-06,-0.600
-4.590E-06,-0.700
-4.580E-06,-0.980
-4.570E-06,-0.860
-4.560E-06,-0.940
-4.550E-06,-0.920
-4.540E-06,-0.500
-4.530E-06,-0.320
-4.520E-06,-0.300
-4.510E-06,-0.260
-4.500E-06,-0.360
-4.490E-06,-0.420
-4.480E-06,-0.320
-4.470E-06,-0.040
-4.460E-06,0.240
-4.450E-06,0.260
-4.440E-06,0.000
-4.430E-06,0.020
-4.420E-06,0.100
-4.410E-06,-0.220
-4.400E-06,0.280
-4.390E-06,0.560
-4.380E-06,0.380
-4.370E-06,0.640
-4.360E-06,0.700
-4.350E-06,0.540
-4.340E-06,0.800
-4.330E-06,0.680
-4.320E-06,0.500
-4.310E-06,0.420
-4.300E-06,0.300
-4.290E-06,0.480
-4.280E-06,0.500
-4.270E-06,0.420
-4.260E-06,0.400
-4.250E-06,0.220
-4.240E-06,0.060
-4.230E-06,-0.020
-4.220E-06,0.000
-4.210E-06,0.000
-4.200E-06,0.020
-4.190E-06,-0.100
-4.180E-06,-0.160
-4.170E-06,-0.240
-4.160E-06,-0.240
-4.150E-06,-0.240
-4.140E-06,-0.220
-4.130E-06,-0.240
-4.120E-06,-0.240
-4.110E-06,-0.300
-4.100E-06,-0.300
-4.090E-06,-0.320
-4.080E-06,-0.320
-4.070E-06,-0.300
-4.060E-06,-0.300
-4.050E-06,-0.300
-4.040E-06,-0.260
-4.030E-06,-0.240
-4.020E-06,-0.200
-4.010E-06,-0.140
-4.000E-06,-0.140
-3.990E-06,-0.100
-3.980E-06,-0.020
-3.970E-06,-0.040
-3.960E-06,-0.040
-3.950E-06,-0.020
-3.940E-06,-0.020
-3.930E-06,0.020
-3.920E-06,-0.020
-3.910E-06,-0.020
-3.900E-06,-0.040
-3.890E-06,-0.040
-3.880E-06,-0.060
-3.870E-06,-0.040
-3.860E-06,-0.020
-3.850E-06,-0.020
-3.840E-06,-0.020
-3.830E-06,-0.040
-3.820E-06,-0.040
-3.810E-06,0.000
-3.800E-06,0.000
-3.790E-06,-0.020
-3.780E-06,-0.020
-3.770E-06,-0.060
-3.760E-06,-0.040
-3.750E-06,-0.040
-3.740E-06,-0.140
-3.730E-06,-0.080
-3.720E-06,-0.060
-3.710E-06,-0.020
-3.700E-06,-0.020
-3.690E-06,-0.100
-3.680E-06,-0.180
-3.670E-06,-0.300
-3.660E-06,-0.100
-3.650E-06,-0.280
-3.640E-06,0.100
-3.630E-06,0.380
-3.620E-06,0.320
-3.610E-06,0.720
-3.600E-06,0.560
-3.590E-06,0.480
-3.580E-06,0.520
-3.570E-06,0.440
-3.560E-06,0.540
-3.550E-06,0.560
-3.540E-06,0.540
-3.530E-06,0.560
-3.520E-06,0.460
-3.510E-06,0.360
-3.500E-06,0.360
-3.490E-06,0.280
-3.480E-06,0.260
-3.470E-06,0.260
-3.460E-06,0.180
-3.450E-06,0.100
-3.440E-06,0.020
-3.430E-06,-0.080
-3.420E-06,-0.260
-3.410E-06,-0.340
-3.400E-06,-0.480
-3.390E-06,-0.520
-3.380E-06,-0.560
-3.370E-06,-0.700
-3.360E-06,-0.780
-3.350E-06,-0.940
-3.340E-06,-0.920
-3.330E-06,-0.800
-3.320E-06,-0.860
-3.310E-06,-0.580
-3.300E-06,-0.880
-3.290E-06,-0.840
-3.280E-06,-0.780
-3.270E-06,-0.660
-3.260E-06,-0.260
-3.250E-06,0.020
-3.240E-06,0.300
-3.230E-06,-0.240
-3.220E-06,0.560
-3.210E-06,-0.120
-3.200E-06,0.020
-3.190E-06,0.460
-3.180E-06,-0.060
-3.170E-06,0.700
-3.160E-06,1.000
-3.150E-06,1.020
-3.140E-06,1.240
-3.130E-06,0.840
-3.120E-06,0.520
-3.110E-06,0.400
-3.100E-06,0.580
-3.090E-06,1.000
-3.080E-06,1.060
-3.070E-06,0.880
-3.060E-06,0.500
-3.050E-06,0.140
-3.040E-06,-0.100
-3.030E-06,0.020
-3.020E-06,0.260
-3.010E-06,0.340
-3.000E-06,0.260
-2.990E-06,0.000
-2.980E-06,-0.320
-2.970E-06,-0.420
-2.960E-06,-0.440
-2.950E-06,-0.340
-2.940E-06,-0.480
-2.930E-06,-0.520
-2.920E-06,-0.520
-2.910E-06,-0.720
-2.900E-06,-0.480
-2.890E-06,-0.380
-2.880E-06,-0.380
-2.870E-06,-0.260
-2.860E-06,-0.460
-2.850E-06,-0.460
-2.840E-06,-0.380
-2.830E-06,-0.260
-2.820E-06,-0.240
-2.810E-06,-0.160
-2.800E-06,-0.240
-2.790E-06,-0.360
-2.780E-06,-0.200
-2.770E-06,-0.120
-2.760E-06,0.080
-2.750E-06,0.180
-2.740E-06,0.080
-2.730E-06,0.000
-2.720E-06,-0.100
-2.710E-06,-0.140
-2.700E-06,-0.060
-2.690E-06,-0.020
-2.680E-06,-0.220
-2.670E-06,-0.240
-2.660E-06,-0.420
-2.650E-06,-0.540
-2.640E-06,-0.120
-2.630E-06,-0.040
-2.620E-06,0.120
-2.610E-06,0.160
-2.600E-06,0.000
-2.590E-06,0.020
-2.580E-06,0.060
-2.570E-06,0.320
-2.560E-06,0.500
-2.550E-06,0.480
-2.540E-06,0.440
-2.530E-06,0.320
-2.520E-06,0.240
-2.510E-06,0.280
-2.500E-06,0.360
-2.490E-06,0.460
-2.480E-06,0.480
-2.470E-06,0.420
-2.460E-06,0.300
-2.450E-06,0.100
-2.440E-06,0.100
-2.430E-06,0.060
-2.420E-06,0.080
-2.410E-06,0.260
-2.400E-06,0.140
-2.390E-06,0.120
-2.380E-06,-0.020
-2.370E-06,-0.140
-2.360E-06,-0.080
-2.350E-06,-0.140
-2.340E-06,-0.040
-2.330E-06,-0.080
-2.320E-06,-0.140
-2.310E-06,-0.200
-2.300E-06,-0.280
-2.290E-06,-0.340
-2.280E-06,-0.320
-2.270E-06,-0.360
-2.260E-06,-0.320
-2.250E-06,-0.340
-2.240E-06,-0.340
-2.230E-06,-0.280
-2.220E-06,-0.240
-2.210E-06,-0.320
-2.200E-06,-0.320
-2.190E-06,-0.340
-2.180E-06,-0.340
-2.170E-06,-0.260
-2.160E-06,-0.220
-2.150E-06,-0.160
-2.140E-06,-0.160
-2.130E-06,-0.160
-2.120E-06,-0.140
-2.110E-06,-0.120
-2.100E-06,-0.040
-2.090E-06,-0.020
-2.080E-06,0.020
-2.070E-06,0.100
-2.060E-06,0.100
-2.050E-06,0.120
-2.040E-06,0.160
-2.030E-06,0.240
-2.020E-06,0.240
-2.010E-06,0.220
-2.000E-06,0.220
-1.990E-06,0.180
-1.980E-06,0.180
-1.970E-06,0.220
-1.960E-06,0.220
-1.950E-06,0.160
-1.940E-06,0.120
-1.930E-06,0.040
-1.920E-06,0.000
-1.910E-06,-0.120
-1.900E-06,-0.140
-1.890E-06,-0.160
-1.880E-06,-0.200
-1.870E-06,-0.160
-1.860E-06,-0.160
-1.850E-06,-0.140
-1.840E-06,-0.360
-1.830E-06,-0.400
-1.820E-06,-0.340
-1.810E-06,-0.280
-1.800E-06,0.180
-1.790E-06,0.200
-1.780E-06,0.400
-1.770E-06,-0.060
-1.760E-06,-0.600
-1.750E-06,-0.200
-1.740E-06,-0.220
-1.730E-06,0.500
-1.720E-06,1.260
-1.710E-06,0.860
-1.700E-06,0.780
-1.690E-06,0.120
-1.680E-06,-0.180
-1.670E-06,0.120
-1.660E-06,0.440
-1.650E-06,0.720
-1.640E-06,0.660
-1.630E-06,0.260
-1.620E-06,-0.020
-1.610E-06,-0.240
-1.600E-06,-0.180
-1.590E-06,-0.020
-1.580E-06,-0.060
-1.570E-06,-0.140
-1.560E-06,-0.340
-1.550E-06,-0.620
-1.540E-06,-0.620
-1.530E-06,-1.000
-1.520E-06,-0.900
-1.510E-06,-0.900
-1.500E-06,-0.940
-1.490E-06,-0.520
-1.480E-06,-0.480
-1.470E-06,-0.500
-1.460E-06,-0.560
-1.450E-06,-0.820
-1.440E-06,-0.700
-1.430E-06,-0.600
-1.420E-06,-0.440
-1.410E-06,-0.260
-1.400E-06,-0.240
-1.390E-06,-0.180
-1.380E-06,-0.340
-1.370E-06,-0.160
-1.360E-06,-0.160
-1.350E-06,-0.040
-1.340E-06,0.320
-1.330E-06,0.560
-1.320E-06,0.740
-1.310E-06,0.920
-1.300E-06,0.360
-1.290E-06,0.340
-1.280E-06,0.260
-1.270E-06,0.200
-1.260E-06,0.840
-1.250E-06,0.860
-1.240E-06,0.960
-1.230E-06,0.820
-1.220E-06,0.360
-1.210E-06,0.380
-1.200E-06,0.320
-1.190E-06,0.480
-1.180E-06,0.580
-1.170E-06,0.420
-1.160E-06,0.300
-1.150E-06,0.020
-1.140E-06,-0.160
-1.130E-06,-0.100
-1.120E-06,-0.200
-1.110E-06,-0.120
-1.100E-06,-0.180
-1.090E-06,-0.260
-1.080E-06,-0.220
-1.070E-06,-0.340
-1.060E-06,-0.320
-1.050E-06,-0.360
-1.040E-06,-0.480
-1.030E-06,-0.500
-1.020E-06,-0.500
-1.010E-06,-0.460
-1.000E-06,-0.440
-9.900E-07,-0.380
-9.800E-07,-0.360
-9.700E-07,-0.340
-9.600E-07,-0.320
-9.500E-07,-0.260
-9.400E-07,-0.220
-9.300E-07,-0.120
-9.200E-07,-0.100
-9.100E-07,-0.020
-9.000E-07,0.000
-8.900E-07,0.000
-8.800E-07,-0.020
-8.700E-07,0.000
-8.600E-07,-0.040
-8.500E-07,-0.060
-8.400E-07,-0.100
-8.300E-07,-0.140
-8.200E-07,-0.120
-8.100E-07,-0.120
-8.000E-07,-0.120
-7.900E-07,-0.060
-7.800E-07,-0.060
-7.700E-07,-0.100
-7.600E-07,-0.080
-7.500E-07,-0.060
-7.400E-07,-0.040
-7.300E-07,0.000
-7.200E-07,0.020
-7.100E-07,0.080
-7.000E-07,0.120
-6.900E-07,0.100
-6.800E-07,0.140
-6.700E-07,0.160
-6.600E-07,0.180
-6.500E-07,0.200
-6.400E-07,0.220
-6.300E-07,0.160
-6.200E-07,0.180
-6.100E-07,0.100
-6.000E-07,0.120
-5.900E-07,0.120
-5.800E-07,0.100
-5.700E-07,0.100
-5.600E-07,0.060
-5.500E-07,0.020
-5.400E-07,0.000
-5.300E-07,-0.020
-5.200E-07,-0.020
-5.100E-07,-0.060
-5.000E-07,-0.040
-4.900E-07,-0.100
-4.800E-07,-0.100
-4.700E-07,-0.120
-4.600E-07,-0.100
-4.500E-07,-0.080
-4.400E-07,-0.120
-4.300E-07,-0.080
-4.200E-07,-0.060
-4.100E-07,-0.080
-4.000E-07,-0.100
-3.900E-07,-0.040
-3.800E-07,-0.040
-3.700E-07,-0.080
-3.600E-07,-0.080
-3.500E-07,-0.100
-3.400E-07,-0.100
-3.300E-07,-0.040
-3.200E-07,-0.060
-3.100E-07,-0.020
-3.000E-07,-0.040
-2.900E-07,-0.040
-2.800E-07,-0.060
-2.700E-07,-0.080
-2.600E-07,-0.080
-2.500E-07,-0.120
-2.400E-07,-0.100
-2.300E-07,-0.080
-2.200E-07,-0.100
-2.100E-07,-0.080
-2.000E-07,-0.100
-1.900E-07,-0.080
-1.800E-07,-0.100
-1.700E-07,-0.100
-1.600E-07,-0.060
-1.500E-07,-0.060
-1.400E-07,-0.020
-1.300E-07,-0.020
-1.200E-07,0.020
-1.100E-07,0.080
-1.000E-07,0.040
-9.000E-08,0.080
-8.000E-08,0.080
-7.000E-08,0.080
-6.000E-08,-0.020
-5.000E-08,0.000
-4.000E-08,0.080
-3.000E-08,-0.680
-2.000E-08,-0.460
-1.000E-08,-1.440
0.000E+00,-0.780
1.000E-08,-1.180
2.000E-08,0.220
3.000E-08,1.180
4.000E-08,0.920
5.000E-08,1.280
6.000E-08,0.160
7.000E-08,-0.740
8.000E-08,-0.740
9.000E-08,-0.360
1.000E-07,0.480
1.100E-07,1.060
1.200E-07,0.880
1.300E-07,0.580
1.400E-07,0.020
1.500E-07,-0.320
1.600E-07,-0.100
1.700E-07,0.040
1.800E-07,0.240
1.900E-07,0.480
2.000E-07,0.260
2.100E-07,0.100
2.200E-07,-0.080
2.300E-07,-0.440
2.400E-07,-0.480
2.500E-07,-0.500
2.600E-07,-0.500
2.700E-07,-0.260
2.800E-07,-0.160
2.900E-07,-0.120
3.000E-07,-0.100
3.100E-07,-0.260
3.200E-07,-0.340
3.300E-07,-0.440
3.400E-07,-0.340
3.500E-07,-0.180
3.600E-07,-0.040
3.700E-07,0.080
3.800E-07,0.120
3.900E-07,0.100
4.000E-07,-0.020
4.100E-07,0.080
4.200E-07,0.220
4.300E-07,0.480
4.400E-07,0.840
4.500E-07,1.040
4.600E-07,1.080
4.700E-07,0.980
4.800E-07,0.780
4.900E-07,0.740
5.000E-07,0.760
5.100E-07,0.760
5.200E-07,0.880
5.300E-07,0.740
5.400E-07,0.680
5.500E-07,0.620
5.600E-07,0.420
5.700E-07,0.680
5.800E-07,0.420
5.900E-07,0.540
6.000E-07,0.580
6.100E-07,0.380
6.200E-07,0.640
6.300E-07,0.580
6.400E-07,0.560
6.500E-07,0.520
6.600E-07,0.340
6.700E-07,0.340
6.800E-07,0.360
6.900E-07,0.380
7.000E-07,0.360
7.100E-07,0.340
7.200E-07,0.260
7.300E-07,0.180
7.400E-07,0.080
7.500E-07,0.160
7.600E-07,0.160
7.700E-07,0.140
7.800E-07,0.160
7.900E-07,0.100
8.000E-07,0.160
8.100E-07,0.220
8.200E-07,0.240
8.300E-07,0.320
8.400E-07,0.300
8.500E-07,0.320
8.600E-07,0.320
8.700E-07,0.300
8.800E-07,0.400
8.900E-07,0.320
9.000E-07,0.320
9.100E-07,0.340
9.200E-07,0.380
9.300E-07,0.400
9.400E-07,0.440
9.500E-07,0.500
9.600E-07,0.500
9.700E-07,0.520
9.800E-07,0.460
9.900E-07,0.440
1.000E-06,0.580
1.010E-06,0.220
1.020E-06,0.600
1.030E-06,0.400
1.040E-06,0.240
1.050E-06,1.120
1.060E-06,-2.100
1.070E-06,-0.180
1.080E-06,-1.460
1.090E-06,-1.020
1.100E-06,1.600
1.110E-06,1.380
1.120E-06,1.940
1.130E-06,1.600
1.140E-06,-0.040
1.150E-06,-0.180
1.160E-06,-0.100
1.170E-06,-0.600
1.180E-06,0.520
1.190E-06,0.320
1.200E-06,0.640
1.210E-06,1.420
1.220E-06,1.060
1.230E-06,1.520
1.240E-06,1.340
1.250E-06,1.020
1.260E-06,1.160
1.270E-06,1.020
1.280E-06,0.940
1.290E-06,1.040
1.300E-06,0.400
1.310E-06,0.100
1.320E-06,-0.140
1.330E-06,-0.520
1.340E-06,-0.300
1.350E-06,-0.300
1.360E-06,-0.420
1.370E-06,-0.380
1.380E-06,-0.660
1.390E-06,-0.900
1.400E-06,-0.860
1.410E-06,-1.080
1.420E-06,-1.200
1.430E-06,-1.040
1.440E-06,-1.360
1.450E-06,-1.260
1.460E-06,-1.180
1.470E-06,-1.360
1.480E-06,-1.080
1.490E-06,-1.100
1.500E-06,-1.120
1.510E-06,-0.960
1.520E-06,-1.040
1.530E-06,-1.020
1.540E-06,-0.980
1.550E-06,-0.900
1.560E-06,-0.680
1.570E-06,-0.420
1.580E-06,-0.240
1.590E-06,0.020
1.600E-06,0.220
1.610E-06,0.420
1.620E-06,0.580
1.630E-06,0.660
1.640E-06,0.800
1.650E-06,0.880
1.660E-06,0.980
1.670E-06,0.920
1.680E-06,0.980
1.690E-06,0.840
1.700E-06,0.720
1.710E-06,0.680
1.720E-06,0.460
1.730E-06,0.480
1.740E-06,0.400
1.750E-06,0.260
1.760E-06,0.320
1.770E-06,0.180
1.780E-06,0.060
1.790E-06,-0.020
1.800E-06,-0.260
1.810E-06,-0.240
1.820E-06,-0.580
1.830E-06,-0.940
1.840E-06,-2.060
1.850E-06,-2.660
1.860E-06,-2.460
1.870E-06,-1.880
1.880E-06,-0.180
1.890E-06,0.780
1.900E-06,1.000
1.910E-06,0.500
1.920E-06,-0.920
1.930E-06,-1.240
1.940E-06,-0.920
1.950E-06,-0.160
1.960E-06,0.760
1.970E-06,0.800
1.980E-06,0.320
1.990E-06,-0.600
2.000E-06,-1.700
2.010E-06,-1.860
2.020E-06,-1.600
2.030E-06,-0.920
2.040E-06,0.180
2.050E-06,0.360
2.060E-06,0.600
2.070E-06,-0.080
2.080E-06,-0.660
2.090E-06,-1.000
2.100E-06,-1.220
2.110E-06,-1.000
2.120E-06,-0.780
2.130E-06,-0.640
2.140E-06,-0.840
2.150E-06,-0.900
2.160E-06,-1.240
2.170E-06,-1.080
2.180E-06,-0.740
2.190E-06,-0.340
2.200E-06,-0.020
2.210E-06,0.040
2.220E-06,-0.120
2.230E-06,-0.340
2.240E-06,-0.340
2.250E-06,-0.320
2.260E-06,-0.080
2.270E-06,0.020
2.280E-06,0.000
2.290E-06,0.000
2.300E-06,-0.340
2.310E-06,-0.420
2.320E-06,-0.680
2.330E-06,-0.800
2.340E-06,-0.780
2.350E-06,-0.740
2.360E-06,-0.600
2.370E-06,-0.600
2.380E-06,-0.500
2.390E-06,-0.620
2.400E-06,-0.640
2.410E-06,-0.540
2.420E-06,-0.400
2.430E-06,-0.180
2.440E-06,-0.020
2.450E-06,0.000
2.460E-06,0.000
2.470E-06,-0.100
2.480E-06,-0.160
2.490E-06,-0.180
2.500E-06,-0.240
2.510E-06,-0.300
2.520E-06,-0.300
2.530E-06,-0.360
2.540E-06,-0.440
2.550E-06,-0.420
2.560E-06,-0.560
2.570E-06,-0.800
2.580E-06,-1.100
2.590E-06,-1.200
2.600E-06,-1.500
2.610E-06,-1.520
2.620E-06,-1.000
2.630E-06,-0.920
2.640E-06,-0.840
2.650E-06,-0.160
2.660E-06,-0.380
2.670E-06,-2.620
2.680E-06,-2.580
2.690E-06,-2.640
2.700E-06,-2.540
2.710E-06,1.140
2.720E-06,1.780
2.730E-06,2.740
2.740E-06,2.100
2.750E-06,-0.100
2.760E-06,-0.540
2.770E-06,-0.340
2.780E-06,0.620
2.790E-06,1.220
2.800E-06,1.140
2.810E-06,0.400
2.820E-06,-0.240
2.830E-06,-0.540
2.840E-06,-0.180
2.850E-06,0.180
2.860E-06,0.460
2.870E-06,0.340
2.880E-06,-0.120
2.890E-06,-0.360
2.900E-06,-0.600
2.910E-06,-0.760
2.920E-06,-0.900
2.930E-06,-1.080
2.940E-06,-1.340
2.950E-06,-1.360
2.960E-06,-1.380
2.970E-06,-1.360
2.980E-06,-1.340
2.990E-06,-1.320
3.000E-06,-1.100
3.010E-06,-0.800
3.020E-06,-0.460
3.030E-06,-0.220
3.040E-06,-0.180
3.050E-06,-0.380
3.060E-06,-0.600
3.070E-06,-0.520
3.080E-06,-0.460
3.090E-06,-0.180
3.100E-06,-0.160
3.110E-06,-0.440
3.120E-06,-0.860
3.130E-06,-1.480
3.140E-06,-2.080
3.150E-06,-2.360
