mediciones/5-27/-30/WaveData5069.csv

#timebase=2000000(ps)
,#voltbase=500000(mv/100)
#size=4000
-8.400E-06,0.040
-8.390E-06,0.080
-8.380E-06,0.060
-8.370E-06,0.060
-8.360E-06,0.020
-8.350E-06,0.040
-8.340E-06,0.040
-8.330E-06,0.040
-8.320E-06,0.060
-8.310E-06,0.040
-8.300E-06,0.060
-8.290E-06,0.020
-8.280E-06,0.040
-8.270E-06,0.040
-8.260E-06,0.020
-8.250E-06,0.040
-8.240E-06,0.060
-8.230E-06,0.020
-8.220E-06,0.020
-8.210E-06,0.040
-8.200E-06,0.020
-8.190E-06,0.040
-8.180E-06,0.060
-8.170E-06,0.040
-8.160E-06,0.040
-8.150E-06,0.040
-8.140E-06,0.040
-8.130E-06,0.040
-8.120E-06,0.040
-8.110E-06,0.060
-8.100E-06,0.040
-8.090E-06,0.020
-8.080E-06,0.040
-8.070E-06,0.020
-8.060E-06,0.040
-8.050E-06,0.040
-8.040E-06,0.060
-8.030E-06,0.020
-8.020E-06,0.040
-8.010E-06,0.040
-8.000E-06,0.060
-7.990E-06,0.040
-7.980E-06,0.040
-7.970E-06,0.060
-7.960E-06,0.040
-7.950E-06,0.040
-7.940E-06,0.060
-7.930E-06,0.040
-7.920E-06,0.020
-7.910E-06,0.040
-7.900E-06,0.060
-7.890E-06,0.040
-7.880E-06,0.060
-7.870E-06,0.060
-7.860E-06,0.020
-7.850E-06,0.040
-7.840E-06,0.040
-7.830E-06,0.040
-7.820E-06,0.060
-7.810E-06,0.040
-7.800E-06,0.040
-7.790E-06,0.040
-7.780E-06,0.040
-7.770E-06,0.060
-7.760E-06,0.040
-7.750E-06,0.020
-7.740E-06,0.020
-7.730E-06,0.040
-7.720E-06,0.020
-7.710E-06,0.040
-7.700E-06,0.040
-7.690E-06,0.060
-7.680E-06,0.040
-7.670E-06,0.020
-7.660E-06,0.040
-7.650E-06,0.060
-7.640E-06,0.020
-7.630E-06,0.060
-7.620E-06,0.060
-7.610E-06,0.060
-7.600E-06,0.020
-7.590E-06,0.020
-7.580E-06,0.040
-7.570E-06,0.060
-7.560E-06,0.020
-7.550E-06,0.040
-7.540E-06,0.040
-7.530E-06,0.040
-7.520E-06,0.060
-7.510E-06,0.040
-7.500E-06,0.060
-7.490E-06,0.080
-7.480E-06,0.020
-7.470E-06,0.020
-7.460E-06,0.040
-7.450E-06,0.060
-7.440E-06,0.020
-7.430E-06,0.040
-7.420E-06,0.060
-7.410E-06,0.040
-7.400E-06,0.020
-7.390E-06,0.040
-7.380E-06,0.020
-7.370E-06,0.040
-7.360E-06,0.040
-7.350E-06,0.080
-7.340E-06,0.040
-7.330E-06,0.060
-7.320E-06,0.020
-7.310E-06,0.020
-7.300E-06,0.040
-7.290E-06,0.060
-7.280E-06,0.060
-7.270E-06,0.020
-7.260E-06,0.040
-7.250E-06,0.060
-7.240E-06,0.040
-7.230E-06,0.060
-7.220E-06,0.060
-7.210E-06,0.020
-7.200E-06,0.020
-7.190E-06,0.040
-7.180E-06,0.060
-7.170E-06,0.020
-7.160E-06,0.040
-7.150E-06,0.060
-7.140E-06,0.040
-7.130E-06,0.020
-7.120E-06,0.020
-7.110E-06,0.040
-7.100E-06,0.020
-7.090E-06,0.040
-7.080E-06,0.060
-7.070E-06,0.040
-7.060E-06,0.060
-7.050E-06,0.020
-7.040E-06,0.020
-7.030E-06,0.040
-7.020E-06,0.040
-7.010E-06,0.060
-7.000E-06,0.040
-6.990E-06,0.040
-6.980E-06,0.060
-6.970E-06,0.040
-6.960E-06,0.040
-6.950E-06,0.060
-6.940E-06,0.040
-6.930E-06,0.020
-6.920E-06,0.040
-6.910E-06,0.040
-6.900E-06,0.060
-6.890E-06,0.040
-6.880E-06,0.040
-6.870E-06,0.040
-6.860E-06,0.040
-6.850E-06,0.040
-6.840E-06,0.040
-6.830E-06,0.040
-6.820E-06,0.060
-6.810E-06,0.040
-6.800E-06,0.060
-6.790E-06,0.060
-6.780E-06,0.020
-6.770E-06,0.040
-6.760E-06,0.060
-6.750E-06,0.040
-6.740E-06,0.020
-6.730E-06,0.040
-6.720E-06,0.040
-6.710E-06,0.060
-6.700E-06,0.040
-6.690E-06,0.000
-6.680E-06,0.020
-6.670E-06,0.040
-6.660E-06,0.020
-6.650E-06,0.040
-6.640E-06,0.060
-6.630E-06,0.060
-6.620E-06,0.060
-6.610E-06,0.060
-6.600E-06,0.060
-6.590E-06,0.060
-6.580E-06,0.020
-6.570E-06,0.020
-6.560E-06,0.040
-6.550E-06,0.060
-6.540E-06,0.060
-6.530E-06,0.020
-6.520E-06,0.040
-6.510E-06,0.080
-6.500E-06,0.040
-6.490E-06,0.060
-6.480E-06,0.040
-6.470E-06,0.060
-6.460E-06,0.040
-6.450E-06,0.020
-6.440E-06,0.040
-6.430E-06,0.020
-6.420E-06,0.040
-6.410E-06,0.100
-6.400E-06,0.200
-6.390E-06,0.420
-6.380E-06,0.900
-6.370E-06,1.680
-6.360E-06,2.700
-6.350E-06,2.760
-6.340E-06,2.740
-6.330E-06,2.760
-6.320E-06,2.640
-6.310E-06,1.080
-6.300E-06,-0.320
-6.290E-06,-1.360
-6.280E-06,-1.840
-6.270E-06,-2.220
-6.260E-06,-2.660
-6.250E-06,-2.660
-6.240E-06,-2.680
-6.230E-06,-2.680
-6.220E-06,-2.660
-6.210E-06,-2.660
-6.200E-06,-2.160
-6.190E-06,-1.780
-6.180E-06,-1.740
-6.170E-06,-1.780
-6.160E-06,-1.700
-6.150E-06,-1.440
-6.140E-06,-1.000
-6.130E-06,-0.600
-6.120E-06,-0.200
-6.110E-06,0.140
-6.100E-06,0.460
-6.090E-06,0.940
-6.080E-06,1.440
-6.070E-06,1.800
-6.060E-06,1.980
-6.050E-06,1.940
-6.040E-06,1.780
-6.030E-06,1.560
-6.020E-06,1.340
-6.010E-06,1.180
-6.000E-06,1.000
-5.990E-06,0.740
-5.980E-06,0.380
-5.970E-06,0.100
-5.960E-06,-0.100
-5.950E-06,-0.120
-5.940E-06,-0.040
-5.930E-06,0.100
-5.920E-06,0.200
-5.910E-06,0.180
-5.900E-06,0.120
-5.890E-06,0.020
-5.880E-06,0.000
-5.870E-06,-0.080
-5.860E-06,-0.080
-5.850E-06,-0.140
-5.840E-06,-0.140
-5.830E-06,-0.060
-5.820E-06,0.020
-5.810E-06,0.080
-5.800E-06,0.120
-5.790E-06,0.100
-5.780E-06,0.060
-5.770E-06,0.020
-5.760E-06,-0.080
-5.750E-06,-0.160
-5.740E-06,-0.220
-5.730E-06,-0.400
-5.720E-06,-0.580
-5.710E-06,-0.760
-5.700E-06,-0.900
-5.690E-06,-0.920
-5.680E-06,-0.940
-5.670E-06,-0.860
-5.660E-06,-0.780
-5.650E-06,-0.740
-5.640E-06,-0.620
-5.630E-06,-0.500
-5.620E-06,-0.400
-5.610E-06,-0.240
-5.600E-06,-0.080
-5.590E-06,0.080
-5.580E-06,0.160
-5.570E-06,0.240
-5.560E-06,0.280
-5.550E-06,0.340
-5.540E-06,0.360
-5.530E-06,0.400
-5.520E-06,0.400
-5.510E-06,0.300
-5.500E-06,0.240
-5.490E-06,0.180
-5.480E-06,0.120
-5.470E-06,0.080
-5.460E-06,0.040
-5.450E-06,-0.060
-5.440E-06,-0.080
-5.430E-06,-0.180
-5.420E-06,-0.220
-5.410E-06,-0.280
-5.400E-06,-0.280
-5.390E-06,-0.260
-5.380E-06,-0.260
-5.370E-06,-0.300
-5.360E-06,-0.280
-5.350E-06,-0.240
-5.340E-06,-0.260
-5.330E-06,-0.220
-5.320E-06,-0.140
-5.310E-06,-0.140
-5.300E-06,-0.040
-5.290E-06,0.000
-5.280E-06,0.080
-5.270E-06,0.120
-5.260E-06,0.220
-5.250E-06,0.260
-5.240E-06,0.300
-5.230E-06,0.300
-5.220E-06,0.320
-5.210E-06,0.280
-5.200E-06,0.240
-5.190E-06,0.220
-5.180E-06,0.180
-5.170E-06,0.120
-5.160E-06,0.100
-5.150E-06,0.020
-5.140E-06,-0.040
-5.130E-06,-0.080
-5.120E-06,-0.080
-5.110E-06,-0.140
-5.100E-06,-0.160
-5.090E-06,-0.200
-5.080E-06,-0.240
-5.070E-06,-0.260
-5.060E-06,-0.260
-5.050E-06,-0.280
-5.040E-06,-0.260
-5.030E-06,-0.360
-5.020E-06,-0.360
-5.010E-06,-0.320
-5.000E-06,-0.320
-4.990E-06,-0.240
-4.980E-06,-0.120
-4.970E-06,-0.060
-4.960E-06,0.000
-4.950E-06,0.000
-4.940E-06,0.040
-4.930E-06,0.060
-4.920E-06,0.180
-4.910E-06,0.340
-4.900E-06,0.400
-4.890E-06,0.440
-4.880E-06,0.460
-4.870E-06,0.440
-4.860E-06,0.440
-4.850E-06,0.440
-4.840E-06,0.460
-4.830E-06,0.440
-4.820E-06,0.340
-4.810E-06,0.300
-4.800E-06,0.200
-4.790E-06,0.160
-4.780E-06,0.100
-4.770E-06,0.080
-4.760E-06,0.060
-4.750E-06,0.000
-4.740E-06,-0.020
-4.730E-06,-0.040
-4.720E-06,-0.060
-4.710E-06,-0.080
-4.700E-06,-0.040
-4.690E-06,-0.020
-4.680E-06,-0.040
-4.670E-06,-0.060
-4.660E-06,-0.060
-4.650E-06,-0.040
-4.640E-06,-0.020
-4.630E-06,0.020
-4.620E-06,0.060
-4.610E-06,0.080
-4.600E-06,0.120
-4.590E-06,0.100
-4.580E-06,0.160
-4.570E-06,0.180
-4.560E-06,0.180
-4.550E-06,0.200
-4.540E-06,0.240
-4.530E-06,0.240
-4.520E-06,0.220
-4.510E-06,0.260
-4.500E-06,0.260
-4.490E-06,0.240
-4.480E-06,0.220
-4.470E-06,0.220
-4.460E-06,0.200
-4.450E-06,0.220
-4.440E-06,0.240
-4.430E-06,0.240
-4.420E-06,0.220
-4.410E-06,0.220
-4.400E-06,0.220
-4.390E-06,0.240
-4.380E-06,0.220
-4.370E-06,0.240
-4.360E-06,0.220
-4.350E-06,0.180
-4.340E-06,0.200
-4.330E-06,0.160
-4.320E-06,0.160
-4.310E-06,0.140
-4.300E-06,0.160
-4.290E-06,0.160
-4.280E-06,0.120
-4.270E-06,0.100
-4.260E-06,0.100
-4.250E-06,0.120
-4.240E-06,0.140
-4.230E-06,0.180
-4.220E-06,0.220
-4.210E-06,0.280
-4.200E-06,0.220
-4.190E-06,0.300
-4.180E-06,0.220
-4.170E-06,0.180
-4.160E-06,0.200
-4.150E-06,0.160
-4.140E-06,0.160
-4.130E-06,0.240
-4.120E-06,0.120
-4.110E-06,0.020
-4.100E-06,-0.020
-4.090E-06,-0.220
-4.080E-06,-0.120
-4.070E-06,-0.160
-4.060E-06,-0.240
-4.050E-06,-0.260
-4.040E-06,-0.380
-4.030E-06,-0.220
-4.020E-06,-0.080
-4.010E-06,0.240
-4.000E-06,0.460
-3.990E-06,0.520
-3.980E-06,0.500
-3.970E-06,0.460
-3.960E-06,0.440
-3.950E-06,0.540
-3.940E-06,0.760
-3.930E-06,0.900
-3.920E-06,0.940
-3.910E-06,0.940
-3.900E-06,0.820
-3.890E-06,0.720
-3.880E-06,0.740
-3.870E-06,0.720
-3.860E-06,0.760
-3.850E-06,0.780
-3.840E-06,0.700
-3.830E-06,0.540
-3.820E-06,0.420
-3.810E-06,0.360
-3.800E-06,0.320
-3.790E-06,0.340
-3.780E-06,0.380
-3.770E-06,0.340
-3.760E-06,0.320
-3.750E-06,0.260
-3.740E-06,0.320
-3.730E-06,0.360
-3.720E-06,0.380
-3.710E-06,0.460
-3.700E-06,0.500
-3.690E-06,0.540
-3.680E-06,0.580
-3.670E-06,0.580
-3.660E-06,0.660
-3.650E-06,0.680
-3.640E-06,0.700
-3.630E-06,0.680
-3.620E-06,0.660
-3.610E-06,0.660
-3.600E-06,0.600
-3.590E-06,0.580
-3.580E-06,0.520
-3.570E-06,0.440
-3.560E-06,0.360
-3.550E-06,0.280
-3.540E-06,0.220
-3.530E-06,0.200
-3.520E-06,0.140
-3.510E-06,0.100
-3.500E-06,0.100
-3.490E-06,0.040
-3.480E-06,0.060
-3.470E-06,0.080
-3.460E-06,0.180
-3.450E-06,0.240
-3.440E-06,0.280
-3.430E-06,0.320
-3.420E-06,0.340
-3.410E-06,0.440
-3.400E-06,0.540
-3.390E-06,0.660
-3.380E-06,0.820
-3.370E-06,0.900
-3.360E-06,0.900
-3.350E-06,0.820
-3.340E-06,0.740
-3.330E-06,0.420
-3.320E-06,0.320
-3.310E-06,0.220
-3.300E-06,0.180
-3.290E-06,0.400
-3.280E-06,0.500
-3.270E-06,0.580
-3.260E-06,0.520
-3.250E-06,0.400
-3.240E-06,0.240
-3.230E-06,0.200
-3.220E-06,0.260
-3.210E-06,0.420
-3.200E-06,0.560
-3.190E-06,0.620
-3.180E-06,0.640
-3.170E-06,0.560
-3.160E-06,0.500
-3.150E-06,0.580
-3.140E-06,0.640
-3.130E-06,0.780
-3.120E-06,0.900
-3.110E-06,0.880
-3.100E-06,0.840
-3.090E-06,0.840
-3.080E-06,0.760
-3.070E-06,0.740
-3.060E-06,0.760
-3.050E-06,0.740
-3.040E-06,0.760
-3.030E-06,0.680
-3.020E-06,0.580
-3.010E-06,0.520
-3.000E-06,0.460
-2.990E-06,0.440
-2.980E-06,0.420
-2.970E-06,0.400
-2.960E-06,0.400
-2.950E-06,0.360
-2.940E-06,0.420
-2.930E-06,0.440
-2.920E-06,0.460
-2.910E-06,0.500
-2.900E-06,0.480
-2.890E-06,0.460
-2.880E-06,0.500
-2.870E-06,0.500
-2.860E-06,0.560
-2.850E-06,0.600
-2.840E-06,0.640
-2.830E-06,0.740
-2.820E-06,0.780
-2.810E-06,0.860
-2.800E-06,0.820
-2.790E-06,0.780
-2.780E-06,0.780
-2.770E-06,0.740
-2.760E-06,0.760
-2.750E-06,0.760
-2.740E-06,0.760
-2.730E-06,0.760
-2.720E-06,0.700
-2.710E-06,0.700
-2.700E-06,0.700
-2.690E-06,0.740
-2.680E-06,0.780
-2.670E-06,0.780
-2.660E-06,0.820
-2.650E-06,0.780
-2.640E-06,0.760
-2.630E-06,0.760
-2.620E-06,0.700
-2.610E-06,0.700
-2.600E-06,0.660
-2.590E-06,0.600
-2.580E-06,0.560
-2.570E-06,0.500
-2.560E-06,0.500
-2.550E-06,0.440
-2.540E-06,0.440
-2.530E-06,0.460
-2.520E-06,0.440
-2.510E-06,0.520
-2.500E-06,0.500
-2.490E-06,0.560
-2.480E-06,0.540
-2.470E-06,0.520
-2.460E-06,0.540
-2.450E-06,0.580
-2.440E-06,0.640
-2.430E-06,0.720
-2.420E-06,0.760
-2.410E-06,0.760
-2.400E-06,0.800
-2.390E-06,0.820
-2.380E-06,0.800
-2.370E-06,0.720
-2.360E-06,0.680
-2.350E-06,0.500
-2.340E-06,0.200
-2.330E-06,0.100
-2.320E-06,0.020
-2.310E-06,0.000
-2.300E-06,0.360
-2.290E-06,0.680
-2.280E-06,0.940
-2.270E-06,1.060
-2.260E-06,0.860
-2.250E-06,0.660
-2.240E-06,0.440
-2.230E-06,0.360
-2.220E-06,0.560
-2.210E-06,0.660
-2.200E-06,0.840
-2.190E-06,0.820
-2.180E-06,0.740
-2.170E-06,0.660
-2.160E-06,0.500
-2.150E-06,0.600
-2.140E-06,0.660
-2.130E-06,0.720
-2.120E-06,0.840
-2.110E-06,0.800
-2.100E-06,0.840
-2.090E-06,0.880
-2.080E-06,0.940
-2.070E-06,1.040
-2.060E-06,1.080
-2.050E-06,1.140
-2.040E-06,1.100
-2.030E-06,1.140
-2.020E-06,1.100
-2.010E-06,1.020
-2.000E-06,1.040
-1.990E-06,1.000
-1.980E-06,0.980
-1.970E-06,1.000
-1.960E-06,1.060
-1.950E-06,1.100
-1.940E-06,1.160
-1.930E-06,1.180
-1.920E-06,1.200
-1.910E-06,1.280
-1.900E-06,1.320
-1.890E-06,1.340
-1.880E-06,1.420
-1.870E-06,1.420
-1.860E-06,1.440
-1.850E-06,1.340
-1.840E-06,1.340
-1.830E-06,1.360
-1.820E-06,1.340
-1.810E-06,1.340
-1.800E-06,1.220
-1.790E-06,1.240
-1.780E-06,1.240
-1.770E-06,1.180
-1.760E-06,1.200
-1.750E-06,1.180
-1.740E-06,1.180
-1.730E-06,1.180
-1.720E-06,1.200
-1.710E-06,1.240
-1.700E-06,1.220
-1.690E-06,1.240
-1.680E-06,1.200
-1.670E-06,1.160
-1.660E-06,1.000
-1.650E-06,0.920
-1.640E-06,0.820
-1.630E-06,0.600
-1.620E-06,0.620
-1.610E-06,0.660
-1.600E-06,0.600
-1.590E-06,1.100
-1.580E-06,0.600
-1.570E-06,0.760
-1.560E-06,0.540
-1.550E-06,-0.060
-1.540E-06,0.060
-1.530E-06,-0.280
-1.520E-06,-0.040
-1.510E-06,0.420
-1.500E-06,0.700
-1.490E-06,1.240
-1.480E-06,1.320
-1.470E-06,1.260
-1.460E-06,1.180
-1.450E-06,1.100
-1.440E-06,1.260
-1.430E-06,1.340
-1.420E-06,1.500
-1.410E-06,1.380
-1.400E-06,1.180
-1.390E-06,1.020
-1.380E-06,0.740
-1.370E-06,0.760
-1.360E-06,0.740
-1.350E-06,0.760
-1.340E-06,0.780
-1.330E-06,0.540
-1.320E-06,0.360
-1.310E-06,0.140
-1.300E-06,0.000
-1.290E-06,-0.120
-1.280E-06,-0.100
-1.270E-06,-0.120
-1.260E-06,-0.200
-1.250E-06,-0.020
-1.240E-06,-0.160
-1.230E-06,-0.020
-1.220E-06,0.100
-1.210E-06,0.100
-1.200E-06,0.200
-1.190E-06,0.100
-1.180E-06,0.220
-1.170E-06,0.260
-1.160E-06,0.280
-1.150E-06,0.340
-1.140E-06,0.300
-1.130E-06,0.240
-1.120E-06,0.240
-1.110E-06,0.120
-1.100E-06,0.200
-1.090E-06,0.160
-1.080E-06,0.200
-1.070E-06,0.380
-1.060E-06,0.300
-1.050E-06,0.340
-1.040E-06,0.380
-1.030E-06,0.180
-1.020E-06,0.200
-1.010E-06,0.300
-1.000E-06,0.320
-9.900E-07,0.520
-9.800E-07,0.560
-9.700E-07,0.540
-9.600E-07,0.660
-9.500E-07,0.560
-9.400E-07,0.660
-9.300E-07,0.840
-9.200E-07,0.920
-9.100E-07,1.080
-9.000E-07,1.200
-8.900E-07,1.260
-8.800E-07,1.320
-8.700E-07,1.320
-8.600E-07,1.180
-8.500E-07,1.120
-8.400E-07,1.080
-8.300E-07,1.060
-8.200E-07,1.300
-8.100E-07,1.460
-8.000E-07,1.660
-7.900E-07,1.780
-7.800E-07,1.680
-7.700E-07,1.560
-7.600E-07,1.180
-7.500E-07,1.100
-7.400E-07,0.900
-7.300E-07,0.500
-7.200E-07,-0.040
-7.100E-07,-0.820
-7.000E-07,-1.640
-6.900E-07,-1.840
-6.800E-07,-1.440
-6.700E-07,-0.820
-6.600E-07,0.080
-6.500E-07,0.460
-6.400E-07,0.320
-6.300E-07,0.260
-6.200E-07,0.280
-6.100E-07,0.720
-6.000E-07,1.300
-5.900E-07,1.620
-5.800E-07,1.880
-5.700E-07,1.640
-5.600E-07,1.480
-5.500E-07,1.400
-5.400E-07,1.380
-5.300E-07,1.660
-5.200E-07,1.620
-5.100E-07,1.560
-5.000E-07,1.260
-4.900E-07,0.760
-4.800E-07,0.320
-4.700E-07,-0.160
-4.600E-07,-0.420
-4.500E-07,-0.480
-4.400E-07,-0.480
-4.300E-07,-0.500
-4.200E-07,-0.580
-4.100E-07,-0.820
-4.000E-07,-0.940
-3.900E-07,-1.100
-3.800E-07,-1.120
-3.700E-07,-0.960
-3.600E-07,-0.840
-3.500E-07,-0.660
-3.400E-07,-0.620
-3.300E-07,-0.520
-3.200E-07,-0.360
-3.100E-07,-0.240
-3.000E-07,-0.120
-2.900E-07,-0.020
-2.800E-07,0.040
-2.700E-07,0.100
-2.600E-07,0.140
-2.500E-07,0.060
-2.400E-07,0.000
-2.300E-07,-0.240
-2.200E-07,-0.480
-2.100E-07,-0.700
-2.000E-07,-0.880
-1.900E-07,-1.000
-1.800E-07,-1.100
-1.700E-07,-1.140
-1.600E-07,-1.200
-1.500E-07,-1.260
-1.400E-07,-1.200
-1.300E-07,-1.160
-1.200E-07,-1.200
-1.100E-07,-1.100
-1.000E-07,-0.840
-9.000E-08,-0.920
-8.000E-08,-0.620
-7.000E-08,-0.660
-6.000E-08,-0.780
-5.000E-08,-0.500
-4.000E-08,-1.000
-3.000E-08,-1.740
-2.000E-08,-1.680
-1.000E-08,-2.000
0.000E+00,-1.280
1.000E-08,-0.360
2.000E-08,0.180
3.000E-08,0.520
4.000E-08,-0.220
5.000E-08,-0.840
6.000E-08,-1.520
7.000E-08,-1.500
8.000E-08,-0.980
9.000E-08,-0.380
1.000E-07,0.100
1.100E-07,0.220
1.200E-07,-0.120
1.300E-07,-0.400
1.400E-07,-0.720
1.500E-07,-0.840
1.600E-07,-0.460
1.700E-07,-0.340
1.800E-07,0.040
1.900E-07,0.140
2.000E-07,-0.080
2.100E-07,-0.320
2.200E-07,-0.620
2.300E-07,-0.680
2.400E-07,-0.740
2.500E-07,-0.560
2.600E-07,-0.540
2.700E-07,-0.620
2.800E-07,-0.760
2.900E-07,-1.100
3.000E-07,-1.300
3.100E-07,-1.520
3.200E-07,-1.520
3.300E-07,-1.580
3.400E-07,-1.460
3.500E-07,-1.360
3.600E-07,-1.320
3.700E-07,-1.320
3.800E-07,-1.300
3.900E-07,-1.260
4.000E-07,-1.360
4.100E-07,-1.140
4.200E-07,-1.100
4.300E-07,-1.120
4.400E-07,-1.120
4.500E-07,-1.140
4.600E-07,-1.180
4.700E-07,-1.360
4.800E-07,-1.520
4.900E-07,-1.720
5.000E-07,-1.860
5.100E-07,-1.840
5.200E-07,-1.780
5.300E-07,-1.800
5.400E-07,-1.960
5.500E-07,-2.280
5.600E-07,-2.580
5.700E-07,-2.640
5.800E-07,-2.640
5.900E-07,-2.640
6.000E-07,-2.640
6.100E-07,-2.640
6.200E-07,-2.660
6.300E-07,-2.660
6.400E-07,-2.680
6.500E-07,-2.680
6.600E-07,-2.660
6.700E-07,-2.660
6.800E-07,-2.640
6.900E-07,-2.640
7.000E-07,-2.660
7.100E-07,-2.660
7.200E-07,-2.660
7.300E-07,-2.660
7.400E-07,-2.660
7.500E-07,-2.660
7.600E-07,-2.660
7.700E-07,-2.660
7.800E-07,-2.660
7.900E-07,-2.660
8.000E-07,-2.660
8.100E-07,-2.660
8.200E-07,-2.660
8.300E-07,-2.660
8.400E-07,-2.660
8.500E-07,-2.660
8.600E-07,-2.660
8.700E-07,-2.660
8.800E-07,-2.660
8.900E-07,-2.680
9.000E-07,-2.660
9.100E-07,-2.660
9.200E-07,-2.640
9.300E-07,-2.660
9.400E-07,-2.660
9.500E-07,-2.660
9.600E-07,-2.660
9.700E-07,-2.660
9.800E-07,-2.660
9.900E-07,-2.660
1.000E-06,-2.660
1.010E-06,-2.660
1.020E-06,-2.660
1.030E-06,-2.660
1.040E-06,-2.640
1.050E-06,-2.640
1.060E-06,-2.660
1.070E-06,-2.660
1.080E-06,-2.660
1.090E-06,-2.660
1.100E-06,-2.640
1.110E-06,-2.660
1.120E-06,-2.660
1.130E-06,-2.660
1.140E-06,-2.660
1.150E-06,-2.660
1.160E-06,-2.660
1.170E-06,-2.640
1.180E-06,-2.660
1.190E-06,-2.660
1.200E-06,-2.660
1.210E-06,-2.660
1.220E-06,-2.660
1.230E-06,-2.660
1.240E-06,-2.660
1.250E-06,-2.660
1.260E-06,-2.680
1.270E-06,-2.660
1.280E-06,-2.640
1.290E-06,-2.520
1.300E-06,-2.420
1.310E-06,-2.280
1.320E-06,-2.120
1.330E-06,-2.020
1.340E-06,-1.760
1.350E-06,-1.680
1.360E-06,-1.520
1.370E-06,-1.460
1.380E-06,-1.340
1.390E-06,-1.260
1.400E-06,-1.200
1.410E-06,-1.020
1.420E-06,-1.020
1.430E-06,-0.940
1.440E-06,-0.900
1.450E-06,-0.960
1.460E-06,-0.900
1.470E-06,-0.900
1.480E-06,-1.020
1.490E-06,-0.800
1.500E-06,-0.660
1.510E-06,-0.660
1.520E-06,0.000
1.530E-06,-1.220
1.540E-06,-2.660
1.550E-06,-2.660
1.560E-06,-2.660
1.570E-06,-2.660
1.580E-06,-1.660
1.590E-06,-1.020
1.600E-06,-0.080
1.610E-06,-1.440
1.620E-06,-2.660
1.630E-06,-2.660
1.640E-06,-2.520
1.650E-06,-0.680
1.660E-06,0.180
1.670E-06,-0.040
1.680E-06,0.060
1.690E-06,-1.040
1.700E-06,-1.020
1.710E-06,-0.460
1.720E-06,-0.380
1.730E-06,0.260
1.740E-06,0.640
1.750E-06,-0.080
1.760E-06,-0.240
1.770E-06,-1.000
1.780E-06,-1.740
1.790E-06,-1.340
1.800E-06,-1.400
1.810E-06,-1.020
1.820E-06,-0.680
1.830E-06,-0.980
1.840E-06,-1.280
1.850E-06,-1.620
1.860E-06,-1.960
1.870E-06,-1.660
1.880E-06,-1.240
1.890E-06,-0.920
1.900E-06,-0.500
1.910E-06,-0.440
1.920E-06,-0.520
1.930E-06,-0.520
1.940E-06,-0.600
1.950E-06,-0.400
1.960E-06,-0.140
1.970E-06,0.020
1.980E-06,0.260
1.990E-06,0.100
2.000E-06,-0.160
2.010E-06,-0.560
2.020E-06,-0.920
2.030E-06,-1.100
2.040E-06,-1.120
2.050E-06,-1.040
2.060E-06,-1.000
2.070E-06,-1.020
2.080E-06,-1.180
2.090E-06,-1.180
2.100E-06,-1.280
2.110E-06,-1.160
2.120E-06,-0.920
2.130E-06,-0.740
2.140E-06,-0.520
2.150E-06,-0.340
2.160E-06,-0.360
2.170E-06,-0.340
2.180E-06,-0.260
2.190E-06,-0.260
2.200E-06,-0.240
2.210E-06,-0.140
2.220E-06,-0.240
2.230E-06,-0.180
2.240E-06,-0.200
2.250E-06,-0.160
2.260E-06,-0.200
2.270E-06,-0.180
2.280E-06,-0.320
2.290E-06,-0.360
2.300E-06,-0.280
2.310E-06,-0.260
2.320E-06,0.000
2.330E-06,0.160
2.340E-06,0.300
2.350E-06,0.440
2.360E-06,0.480
2.370E-06,0.520
2.380E-06,0.600
2.390E-06,0.760
2.400E-06,0.840
2.410E-06,0.680
2.420E-06,0.560
2.430E-06,0.340
2.440E-06,0.100
2.450E-06,-0.120
2.460E-06,-0.640
2.470E-06,-0.620
2.480E-06,-1.000
2.490E-06,-1.260
2.500E-06,-1.340
2.510E-06,-2.000
2.520E-06,-1.720
2.530E-06,-1.060
2.540E-06,-1.980
2.550E-06,-1.660
2.560E-06,-1.580
2.570E-06,-2.640
2.580E-06,-1.360
2.590E-06,-0.940
2.600E-06,-0.040
2.610E-06,0.060
2.620E-06,-1.440
2.630E-06,-1.900
2.640E-06,-2.580
2.650E-06,-1.020
2.660E-06,0.500
2.670E-06,0.960
2.680E-06,1.100
2.690E-06,-0.320
2.700E-06,-1.200
2.710E-06,-1.240
2.720E-06,-0.560
2.730E-06,0.320
2.740E-06,0.880
2.750E-06,1.000
2.760E-06,0.780
2.770E-06,0.520
2.780E-06,0.320
2.790E-06,0.140
2.800E-06,0.280
2.810E-06,0.460
2.820E-06,0.680
2.830E-06,0.920
2.840E-06,0.760
2.850E-06,0.400
2.860E-06,-0.160
2.870E-06,-0.640
2.880E-06,-0.740
2.890E-06,-0.680
2.900E-06,-0.560
2.910E-06,-0.580
2.920E-06,-0.680
2.930E-06,-0.980
2.940E-06,-1.260
2.950E-06,-1.240
2.960E-06,-1.180
2.970E-06,-0.760
2.980E-06,-0.380
2.990E-06,-0.060
3.000E-06,0.060
3.010E-06,-0.020
3.020E-06,-0.100
3.030E-06,-0.140
3.040E-06,0.100
3.050E-06,0.500
3.060E-06,0.780
3.070E-06,0.940
3.080E-06,0.840
3.090E-06,0.540
3.100E-06,0.340
3.110E-06,0.160
3.120E-06,0.060
3.130E-06,0.100
3.140E-06,0.120
3.150E-06,0.000
3.160E-06,0.080
3.170E-06,-0.120
3.180E-06,-0.200
3.190E-06,-0.140
3.200E-06,-0.140
3.210E-06,-0.020
3.220E-06,-0.060
3.230E-06,-0.080
3.240E-06,-0.500
3.250E-06,-0.240
3.260E-06,-0.640
