mediciones/5-15/10/WaveData47292.csv

#timebase=2000000(ps)
,#voltbase=500000(mv/100)
#size=4000
-8.400E-06,0.220
-8.390E-06,0.200
-8.380E-06,0.100
-8.370E-06,0.120
-8.360E-06,0.120
-8.350E-06,0.100
-8.340E-06,0.100
-8.330E-06,0.140
-8.320E-06,0.140
-8.310E-06,0.140
-8.300E-06,0.160
-8.290E-06,0.120
-8.280E-06,0.100
-8.270E-06,0.000
-8.260E-06,-0.020
-8.250E-06,-0.040
-8.240E-06,-0.080
-8.230E-06,-0.060
-8.220E-06,-0.040
-8.210E-06,-0.040
-8.200E-06,-0.060
-8.190E-06,-0.080
-8.180E-06,-0.060
-8.170E-06,-0.060
-8.160E-06,-0.040
-8.150E-06,-0.020
-8.140E-06,-0.040
-8.130E-06,0.000
-8.120E-06,0.000
-8.110E-06,0.040
-8.100E-06,0.080
-8.090E-06,0.100
-8.080E-06,0.060
-8.070E-06,0.100
-8.060E-06,0.100
-8.050E-06,0.100
-8.040E-06,0.160
-8.030E-06,0.260
-8.020E-06,0.140
-8.010E-06,0.200
-8.000E-06,0.000
-7.990E-06,0.040
-7.980E-06,0.000
-7.970E-06,0.000
-7.960E-06,0.020
-7.950E-06,0.000
-7.940E-06,-0.100
-7.930E-06,-0.160
-7.920E-06,-0.160
-7.910E-06,-0.080
-7.900E-06,-0.100
-7.890E-06,-0.120
-7.880E-06,-0.040
-7.870E-06,0.020
-7.860E-06,0.080
-7.850E-06,0.180
-7.840E-06,0.040
-7.830E-06,-0.020
-7.820E-06,-0.140
-7.810E-06,-0.140
-7.800E-06,-0.020
-7.790E-06,0.000
-7.780E-06,-0.060
-7.770E-06,-0.100
-7.760E-06,-0.140
-7.750E-06,-0.120
-7.740E-06,-0.020
-7.730E-06,0.000
-7.720E-06,0.020
-7.710E-06,0.020
-7.700E-06,0.040
-7.690E-06,0.040
-7.680E-06,0.080
-7.670E-06,0.140
-7.660E-06,0.160
-7.650E-06,0.160
-7.640E-06,0.160
-7.630E-06,0.140
-7.620E-06,0.120
-7.610E-06,0.160
-7.600E-06,0.160
-7.590E-06,0.140
-7.580E-06,0.120
-7.570E-06,0.080
-7.560E-06,0.080
-7.550E-06,0.100
-7.540E-06,0.120
-7.530E-06,0.120
-7.520E-06,0.100
-7.510E-06,0.060
-7.500E-06,0.080
-7.490E-06,0.080
-7.480E-06,0.080
-7.470E-06,0.080
-7.460E-06,0.040
-7.450E-06,-0.020
-7.440E-06,-0.040
-7.430E-06,-0.100
-7.420E-06,-0.140
-7.410E-06,-0.080
-7.400E-06,-0.120
-7.390E-06,-0.040
-7.380E-06,0.040
-7.370E-06,0.000
-7.360E-06,0.100
-7.350E-06,-0.020
-7.340E-06,-0.020
-7.330E-06,0.000
-7.320E-06,-0.020
-7.310E-06,0.020
-7.300E-06,-0.020
-7.290E-06,-0.040
-7.280E-06,-0.020
-7.270E-06,-0.040
-7.260E-06,0.020
-7.250E-06,0.000
-7.240E-06,0.020
-7.230E-06,0.000
-7.220E-06,0.000
-7.210E-06,0.020
-7.200E-06,0.040
-7.190E-06,0.020
-7.180E-06,0.060
-7.170E-06,0.040
-7.160E-06,0.040
-7.150E-06,0.080
-7.140E-06,0.020
-7.130E-06,0.040
-7.120E-06,0.080
-7.110E-06,0.060
-7.100E-06,0.020
-7.090E-06,0.060
-7.080E-06,0.000
-7.070E-06,0.220
-7.060E-06,0.200
-7.050E-06,0.220
-7.040E-06,0.260
-7.030E-06,0.040
-7.020E-06,0.100
-7.010E-06,0.000
-7.000E-06,0.020
-6.990E-06,0.080
-6.980E-06,0.020
-6.970E-06,-0.020
-6.960E-06,-0.040
-6.950E-06,-0.040
-6.940E-06,-0.020
-6.930E-06,0.000
-6.920E-06,-0.060
-6.910E-06,-0.100
-6.900E-06,-0.140
-6.890E-06,-0.120
-6.880E-06,-0.040
-6.870E-06,-0.040
-6.860E-06,-0.040
-6.850E-06,0.000
-6.840E-06,0.000
-6.830E-06,0.000
-6.820E-06,0.080
-6.810E-06,0.080
-6.800E-06,0.120
-6.790E-06,0.080
-6.780E-06,0.040
-6.770E-06,0.060
-6.760E-06,0.080
-6.750E-06,0.140
-6.740E-06,0.160
-6.730E-06,0.120
-6.720E-06,0.100
-6.710E-06,0.120
-6.700E-06,0.120
-6.690E-06,0.180
-6.680E-06,0.160
-6.670E-06,0.120
-6.660E-06,0.120
-6.650E-06,0.060
-6.640E-06,0.060
-6.630E-06,0.020
-6.620E-06,-0.040
-6.610E-06,-0.040
-6.600E-06,-0.040
-6.590E-06,-0.040
-6.580E-06,-0.020
-6.570E-06,-0.020
-6.560E-06,0.020
-6.550E-06,0.020
-6.540E-06,0.060
-6.530E-06,0.040
-6.520E-06,0.020
-6.510E-06,0.020
-6.500E-06,0.020
-6.490E-06,0.020
-6.480E-06,0.100
-6.470E-06,0.060
-6.460E-06,0.100
-6.450E-06,0.060
-6.440E-06,0.080
-6.430E-06,0.020
-6.420E-06,0.020
-6.410E-06,0.020
-6.400E-06,0.020
-6.390E-06,-0.020
-6.380E-06,-0.040
-6.370E-06,-0.020
-6.360E-06,-0.040
-6.350E-06,0.020
-6.340E-06,0.000
-6.330E-06,0.020
-6.320E-06,0.000
-6.310E-06,-0.080
-6.300E-06,-0.060
-6.290E-06,-0.060
-6.280E-06,-0.100
-6.270E-06,0.060
-6.260E-06,0.180
-6.250E-06,0.080
-6.240E-06,0.180
-6.230E-06,-0.020
-6.220E-06,-0.140
-6.210E-06,-0.200
-6.200E-06,-0.240
-6.190E-06,-0.160
-6.180E-06,-0.200
-6.170E-06,-0.280
-6.160E-06,-0.340
-6.150E-06,-0.340
-6.140E-06,-0.260
-6.130E-06,-0.180
-6.120E-06,-0.220
-6.110E-06,-0.220
-6.100E-06,-0.220
-6.090E-06,-0.200
-6.080E-06,-0.140
-6.070E-06,-0.120
-6.060E-06,-0.060
-6.050E-06,-0.040
-6.040E-06,0.000
-6.030E-06,0.040
-6.020E-06,0.080
-6.010E-06,0.080
-6.000E-06,0.160
-5.990E-06,0.200
-5.980E-06,0.200
-5.970E-06,0.220
-5.960E-06,0.220
-5.950E-06,0.240
-5.940E-06,0.240
-5.930E-06,0.260
-5.920E-06,0.240
-5.910E-06,0.220
-5.900E-06,0.200
-5.890E-06,0.180
-5.880E-06,0.180
-5.870E-06,0.080
-5.860E-06,0.040
-5.850E-06,-0.020
-5.840E-06,0.280
-5.830E-06,0.100
-5.820E-06,0.300
-5.810E-06,0.040
-5.800E-06,-0.080
-5.790E-06,-0.140
-5.780E-06,-0.100
-5.770E-06,-0.020
-5.760E-06,0.140
-5.750E-06,0.000
-5.740E-06,-0.100
-5.730E-06,-0.220
-5.720E-06,-0.220
-5.710E-06,-0.100
-5.700E-06,-0.060
-5.690E-06,-0.040
-5.680E-06,-0.080
-5.670E-06,-0.160
-5.660E-06,-0.140
-5.650E-06,-0.120
-5.640E-06,-0.080
-5.630E-06,-0.080
-5.620E-06,-0.080
-5.610E-06,-0.080
-5.600E-06,-0.080
-5.590E-06,-0.080
-5.580E-06,0.020
-5.570E-06,0.060
-5.560E-06,0.020
-5.550E-06,0.020
-5.540E-06,0.000
-5.530E-06,0.020
-5.520E-06,0.040
-5.510E-06,0.080
-5.500E-06,0.100
-5.490E-06,0.140
-5.480E-06,0.140
-5.470E-06,0.160
-5.460E-06,0.160
-5.450E-06,0.200
-5.440E-06,0.180
-5.430E-06,0.180
-5.420E-06,0.140
-5.410E-06,0.080
-5.400E-06,0.080
-5.390E-06,0.060
-5.380E-06,0.080
-5.370E-06,0.040
-5.360E-06,0.020
-5.350E-06,-0.020
-5.340E-06,-0.020
-5.330E-06,-0.060
-5.320E-06,-0.040
-5.310E-06,0.000
-5.300E-06,-0.040
-5.290E-06,-0.080
-5.280E-06,-0.080
-5.270E-06,-0.080
-5.260E-06,0.000
-5.250E-06,0.000
-5.240E-06,0.000
-5.230E-06,-0.060
-5.220E-06,-0.060
-5.210E-06,-0.040
-5.200E-06,0.020
-5.190E-06,0.040
-5.180E-06,0.060
-5.170E-06,0.060
-5.160E-06,0.060
-5.150E-06,-0.020
-5.140E-06,-0.020
-5.130E-06,0.000
-5.120E-06,-0.020
-5.110E-06,0.000
-5.100E-06,-0.080
-5.090E-06,-0.020
-5.080E-06,0.000
-5.070E-06,0.220
-5.060E-06,0.120
-5.050E-06,0.200
-5.040E-06,-0.060
-5.030E-06,-0.180
-5.020E-06,-0.160
-5.010E-06,-0.240
-5.000E-06,-0.140
-4.990E-06,-0.120
-4.980E-06,-0.240
-4.970E-06,-0.300
-4.960E-06,-0.320
-4.950E-06,-0.280
-4.940E-06,-0.180
-4.930E-06,-0.200
-4.920E-06,-0.160
-4.910E-06,-0.180
-4.900E-06,-0.140
-4.890E-06,-0.060
-4.880E-06,-0.060
-4.870E-06,0.000
-4.860E-06,0.000
-4.850E-06,0.040
-4.840E-06,0.080
-4.830E-06,0.060
-4.820E-06,0.140
-4.810E-06,0.180
-4.800E-06,0.160
-4.790E-06,0.180
-4.780E-06,0.160
-4.770E-06,0.160
-4.760E-06,0.220
-4.750E-06,0.220
-4.740E-06,0.220
-4.730E-06,0.220
-4.720E-06,0.200
-4.710E-06,0.160
-4.700E-06,0.160
-4.690E-06,0.180
-4.680E-06,0.160
-4.670E-06,0.120
-4.660E-06,0.080
-4.650E-06,0.020
-4.640E-06,-0.020
-4.630E-06,-0.040
-4.620E-06,-0.040
-4.610E-06,-0.060
-4.600E-06,-0.040
-4.590E-06,-0.060
-4.580E-06,-0.020
-4.570E-06,0.000
-4.560E-06,-0.020
-4.550E-06,0.000
-4.540E-06,0.000
-4.530E-06,0.000
-4.520E-06,0.000
-4.510E-06,0.020
-4.500E-06,0.020
-4.490E-06,0.000
-4.480E-06,0.000
-4.470E-06,0.020
-4.460E-06,0.000
-4.450E-06,-0.020
-4.440E-06,-0.020
-4.430E-06,-0.020
-4.420E-06,-0.040
-4.410E-06,-0.020
-4.400E-06,-0.060
-4.390E-06,-0.040
-4.380E-06,-0.120
-4.370E-06,-0.160
-4.360E-06,-0.180
-4.350E-06,-0.060
-4.340E-06,-0.040
-4.330E-06,0.160
-4.320E-06,0.080
-4.310E-06,0.100
-4.300E-06,-0.020
-4.290E-06,-0.160
-4.280E-06,-0.120
-4.270E-06,-0.100
-4.260E-06,-0.160
-4.250E-06,-0.200
-4.240E-06,-0.320
-4.230E-06,-0.360
-4.220E-06,-0.340
-4.210E-06,-0.360
-4.200E-06,-0.400
-4.190E-06,-0.520
-4.180E-06,-0.420
-4.170E-06,-0.460
-4.160E-06,-0.480
-4.150E-06,-0.340
-4.140E-06,-0.540
-4.130E-06,-0.440
-4.120E-06,-0.580
-4.110E-06,-0.480
-4.100E-06,-0.420
-4.090E-06,-0.140
-4.080E-06,-0.160
-4.070E-06,0.080
-4.060E-06,0.080
-4.050E-06,0.040
-4.040E-06,0.060
-4.030E-06,-0.020
-4.020E-06,0.000
-4.010E-06,0.040
-4.000E-06,0.000
-3.990E-06,-0.060
-3.980E-06,-0.060
-3.970E-06,-0.060
-3.960E-06,0.000
-3.950E-06,-0.020
-3.940E-06,-0.020
-3.930E-06,-0.060
-3.920E-06,-0.080
-3.910E-06,-0.060
-3.900E-06,-0.060
-3.890E-06,-0.140
-3.880E-06,-0.060
-3.870E-06,-0.140
-3.860E-06,-0.060
-3.850E-06,-0.020
-3.840E-06,0.100
-3.830E-06,0.280
-3.820E-06,0.220
-3.810E-06,0.160
-3.800E-06,-0.020
-3.790E-06,-0.040
-3.780E-06,-0.080
-3.770E-06,-0.060
-3.760E-06,-0.100
-3.750E-06,-0.200
-3.740E-06,-0.320
-3.730E-06,-0.400
-3.720E-06,-0.360
-3.710E-06,-0.300
-3.700E-06,-0.280
-3.690E-06,-0.260
-3.680E-06,-0.260
-3.670E-06,-0.200
-3.660E-06,-0.220
-3.650E-06,-0.180
-3.640E-06,-0.360
-3.630E-06,-0.380
-3.620E-06,-0.500
-3.610E-06,-0.440
-3.600E-06,-0.380
-3.590E-06,-0.160
-3.580E-06,-0.140
-3.570E-06,0.000
-3.560E-06,-0.020
-3.550E-06,-0.080
-3.540E-06,0.040
-3.530E-06,-0.040
-3.520E-06,0.040
-3.510E-06,0.040
-3.500E-06,0.040
-3.490E-06,-0.040
-3.480E-06,-0.020
-3.470E-06,-0.040
-3.460E-06,0.000
-3.450E-06,-0.020
-3.440E-06,-0.060
-3.430E-06,-0.140
-3.420E-06,-0.160
-3.410E-06,-0.160
-3.400E-06,-0.060
-3.390E-06,-0.020
-3.380E-06,0.040
-3.370E-06,0.060
-3.360E-06,-0.020
-3.350E-06,0.000
-3.340E-06,0.000
-3.330E-06,0.020
-3.320E-06,0.080
-3.310E-06,0.060
-3.300E-06,0.000
-3.290E-06,-0.060
-3.280E-06,-0.040
-3.270E-06,-0.020
-3.260E-06,-0.020
-3.250E-06,-0.040
-3.240E-06,-0.080
-3.230E-06,-0.140
-3.220E-06,-0.100
-3.210E-06,-0.040
-3.200E-06,-0.020
-3.190E-06,0.000
-3.180E-06,0.000
-3.170E-06,0.000
-3.160E-06,-0.040
-3.150E-06,-0.060
-3.140E-06,-0.060
-3.130E-06,-0.020
-3.120E-06,-0.020
-3.110E-06,0.000
-3.100E-06,0.000
-3.090E-06,0.000
-3.080E-06,0.020
-3.070E-06,-0.020
-3.060E-06,-0.140
-3.050E-06,0.340
-3.040E-06,0.240
-3.030E-06,0.520
-3.020E-06,0.520
-3.010E-06,0.280
-3.000E-06,0.260
-2.990E-06,0.140
-2.980E-06,0.100
-2.970E-06,0.160
-2.960E-06,-0.040
-2.950E-06,-0.260
-2.940E-06,-0.380
-2.930E-06,-0.380
-2.920E-06,-0.320
-2.910E-06,-0.200
-2.900E-06,-0.260
-2.890E-06,-0.300
-2.880E-06,-0.340
-2.870E-06,-0.260
-2.860E-06,-0.220
-2.850E-06,-0.160
-2.840E-06,-0.180
-2.830E-06,-0.120
-2.820E-06,-0.060
-2.810E-06,-0.020
-2.800E-06,-0.020
-2.790E-06,0.000
-2.780E-06,0.060
-2.770E-06,0.060
-2.760E-06,0.060
-2.750E-06,0.060
-2.740E-06,0.020
-2.730E-06,0.180
-2.720E-06,0.320
-2.710E-06,0.380
-2.700E-06,0.540
-2.690E-06,0.380
-2.680E-06,0.420
-2.670E-06,0.340
-2.660E-06,0.340
-2.650E-06,0.360
-2.640E-06,0.260
-2.630E-06,0.080
-2.620E-06,-0.040
-2.610E-06,-0.160
-2.600E-06,-0.220
-2.590E-06,-0.240
-2.580E-06,-0.240
-2.570E-06,-0.280
-2.560E-06,-0.340
-2.550E-06,-0.320
-2.540E-06,-0.300
-2.530E-06,-0.280
-2.520E-06,-0.240
-2.510E-06,-0.200
-2.500E-06,-0.160
-2.490E-06,-0.120
-2.480E-06,-0.060
-2.470E-06,-0.040
-2.460E-06,0.020
-2.450E-06,0.040
-2.440E-06,0.080
-2.430E-06,0.060
-2.420E-06,0.060
-2.410E-06,0.020
-2.400E-06,0.040
-2.390E-06,0.020
-2.380E-06,0.040
-2.370E-06,0.000
-2.360E-06,-0.020
-2.350E-06,-0.060
-2.340E-06,-0.040
-2.330E-06,0.040
-2.320E-06,0.180
-2.310E-06,0.500
-2.300E-06,0.620
-2.290E-06,0.540
-2.280E-06,0.540
-2.270E-06,0.100
-2.260E-06,0.040
-2.250E-06,-0.200
-2.240E-06,-0.220
-2.230E-06,-0.280
-2.220E-06,-0.360
-2.210E-06,-0.560
-2.200E-06,-0.600
-2.190E-06,-0.640
-2.180E-06,-0.600
-2.170E-06,-0.540
-2.160E-06,-0.580
-2.150E-06,-0.620
-2.140E-06,-0.620
-2.130E-06,-0.580
-2.120E-06,-0.520
-2.110E-06,-0.420
-2.100E-06,-0.360
-2.090E-06,-0.340
-2.080E-06,-0.280
-2.070E-06,-0.200
-2.060E-06,-0.120
-2.050E-06,0.000
-2.040E-06,0.160
-2.030E-06,0.240
-2.020E-06,0.420
-2.010E-06,0.460
-2.000E-06,0.520
-1.990E-06,0.520
-1.980E-06,0.500
-1.970E-06,0.480
-1.960E-06,0.520
-1.950E-06,0.500
-1.940E-06,0.480
-1.930E-06,0.380
-1.920E-06,0.280
-1.910E-06,0.220
-1.900E-06,0.160
-1.890E-06,0.060
-1.880E-06,-0.080
-1.870E-06,-0.180
-1.860E-06,-0.280
-1.850E-06,-0.280
-1.840E-06,-0.300
-1.830E-06,-0.240
-1.820E-06,-0.260
-1.810E-06,-0.200
-1.800E-06,-0.160
-1.790E-06,-0.160
-1.780E-06,-0.140
-1.770E-06,-0.120
-1.760E-06,-0.140
-1.750E-06,-0.100
-1.740E-06,-0.140
-1.730E-06,-0.100
-1.720E-06,-0.140
-1.710E-06,-0.140
-1.700E-06,-0.180
-1.690E-06,-0.140
-1.680E-06,0.260
-1.670E-06,0.340
-1.660E-06,0.480
-1.650E-06,0.560
-1.640E-06,0.320
-1.630E-06,0.280
-1.620E-06,0.160
-1.610E-06,0.040
-1.600E-06,0.060
-1.590E-06,-0.140
-1.580E-06,-0.340
-1.570E-06,-0.400
-1.560E-06,-0.500
-1.550E-06,-0.480
-1.540E-06,-0.420
-1.530E-06,-0.440
-1.520E-06,-0.500
-1.510E-06,-0.520
-1.500E-06,-0.500
-1.490E-06,-0.480
-1.480E-06,-0.420
-1.470E-06,-0.420
-1.460E-06,-0.360
-1.450E-06,-0.320
-1.440E-06,-0.260
-1.430E-06,-0.220
-1.420E-06,-0.200
-1.410E-06,-0.120
-1.400E-06,-0.120
-1.390E-06,-0.080
-1.380E-06,-0.060
-1.370E-06,0.000
-1.360E-06,0.180
-1.350E-06,0.240
-1.340E-06,0.460
-1.330E-06,0.460
-1.320E-06,0.560
-1.310E-06,0.500
-1.300E-06,0.540
-1.290E-06,0.540
-1.280E-06,0.520
-1.270E-06,0.440
-1.260E-06,0.340
-1.250E-06,0.120
-1.240E-06,0.000
-1.230E-06,-0.100
-1.220E-06,-0.180
-1.210E-06,-0.180
-1.200E-06,-0.260
-1.190E-06,-0.280
-1.180E-06,-0.300
-1.170E-06,-0.300
-1.160E-06,-0.280
-1.150E-06,-0.360
-1.140E-06,-0.320
-1.130E-06,-0.320
-1.120E-06,-0.420
-1.110E-06,-0.360
-1.100E-06,-0.400
-1.090E-06,-0.340
-1.080E-06,-0.300
-1.070E-06,-0.340
-1.060E-06,-0.320
-1.050E-06,-0.340
-1.040E-06,-0.380
-1.030E-06,-0.360
-1.020E-06,-0.320
-1.010E-06,-0.320
-1.000E-06,-0.300
-9.900E-07,-0.280
-9.800E-07,-0.240
-9.700E-07,-0.180
-9.600E-07,-0.180
-9.500E-07,-0.160
-9.400E-07,-0.180
-9.300E-07,-0.160
-9.200E-07,-0.220
-9.100E-07,-0.220
-9.000E-07,-0.220
-8.900E-07,-0.220
-8.800E-07,-0.180
-8.700E-07,-0.200
-8.600E-07,-0.180
-8.500E-07,-0.240
-8.400E-07,-0.300
-8.300E-07,-0.300
-8.200E-07,-0.260
-8.100E-07,0.060
-8.000E-07,0.240
-7.900E-07,0.140
-7.800E-07,0.280
-7.700E-07,0.020
-7.600E-07,-0.060
-7.500E-07,0.100
-7.400E-07,0.080
-7.300E-07,0.000
-7.200E-07,-0.240
-7.100E-07,-0.660
-7.000E-07,-0.780
-6.900E-07,-0.780
-6.800E-07,-0.760
-6.700E-07,-0.800
-6.600E-07,-0.920
-6.500E-07,-1.040
-6.400E-07,-1.040
-6.300E-07,-0.920
-6.200E-07,-0.840
-6.100E-07,-0.780
-6.000E-07,-0.720
-5.900E-07,-0.640
-5.800E-07,-0.500
-5.700E-07,-0.380
-5.600E-07,-0.280
-5.500E-07,-0.180
-5.400E-07,-0.140
-5.300E-07,0.040
-5.200E-07,0.100
-5.100E-07,0.220
-5.000E-07,0.300
-4.900E-07,0.320
-4.800E-07,0.360
-4.700E-07,0.400
-4.600E-07,0.420
-4.500E-07,0.460
-4.400E-07,0.520
-4.300E-07,0.500
-4.200E-07,0.500
-4.100E-07,0.480
-4.000E-07,0.420
-3.900E-07,0.320
-3.800E-07,0.140
-3.700E-07,0.000
-3.600E-07,-0.180
-3.500E-07,-0.200
-3.400E-07,-0.300
-3.300E-07,-0.360
-3.200E-07,-0.520
-3.100E-07,-0.580
-3.000E-07,-0.660
-2.900E-07,-0.720
-2.800E-07,-0.600
-2.700E-07,-0.520
-2.600E-07,-0.320
-2.500E-07,-0.340
-2.400E-07,-0.180
-2.300E-07,-0.320
-2.200E-07,-0.240
-2.100E-07,-0.320
-2.000E-07,-0.160
-1.900E-07,-0.240
-1.800E-07,-0.240
-1.700E-07,-0.340
-1.600E-07,-0.540
-1.500E-07,-0.600
-1.400E-07,-0.580
-1.300E-07,-0.680
-1.200E-07,-0.660
-1.100E-07,-0.860
-1.000E-07,-1.000
-9.000E-08,-1.120
-8.000E-08,-1.180
-7.000E-08,-1.380
-6.000E-08,-1.260
-5.000E-08,-0.220
-4.000E-08,-0.320
-3.000E-08,0.480
-2.000E-08,0.040
-1.000E-08,-0.460
0.000E+00,-0.720
1.000E-08,-0.920
2.000E-08,-0.660
3.000E-08,-0.500
4.000E-08,-0.880
5.000E-08,-1.220
6.000E-08,-1.540
7.000E-08,-1.540
8.000E-08,-1.220
9.000E-08,0.000
1.000E-07,0.340
1.100E-07,0.920
1.200E-07,0.880
1.300E-07,0.600
1.400E-07,-0.040
1.500E-07,-0.020
1.600E-07,-0.480
1.700E-07,-0.040
1.800E-07,-0.360
1.900E-07,-0.820
2.000E-07,-1.140
2.100E-07,-1.200
2.200E-07,-0.960
2.300E-07,-0.600
2.400E-07,-0.680
2.500E-07,-0.740
2.600E-07,-0.580
2.700E-07,-0.160
2.800E-07,0.000
2.900E-07,0.260
3.000E-07,0.040
3.100E-07,-0.120
3.200E-07,-0.160
3.300E-07,-0.220
3.400E-07,-0.240
3.500E-07,-0.300
3.600E-07,-0.560
3.700E-07,-0.820
3.800E-07,-0.940
3.900E-07,-0.960
4.000E-07,-0.780
4.100E-07,-0.600
4.200E-07,-0.400
4.300E-07,-0.220
4.400E-07,0.000
4.500E-07,0.240
4.600E-07,0.460
4.700E-07,0.640
4.800E-07,0.800
4.900E-07,0.840
5.000E-07,0.840
5.100E-07,0.740
5.200E-07,0.500
5.300E-07,0.320
5.400E-07,0.180
5.500E-07,-0.020
5.600E-07,-0.060
5.700E-07,-0.040
5.800E-07,0.060
5.900E-07,0.080
6.000E-07,0.160
6.100E-07,0.180
6.200E-07,0.220
6.300E-07,0.260
6.400E-07,0.300
6.500E-07,0.280
6.600E-07,0.260
6.700E-07,0.140
6.800E-07,0.000
6.900E-07,-0.200
7.000E-07,-0.300
7.100E-07,-0.360
7.200E-07,-0.440
7.300E-07,-0.320
7.400E-07,-0.420
7.500E-07,-0.060
7.600E-07,-0.080
7.700E-07,0.200
7.800E-07,0.200
7.900E-07,0.260
8.000E-07,0.240
8.100E-07,0.040
8.200E-07,-0.220
8.300E-07,-0.500
8.400E-07,-0.820
8.500E-07,-1.020
8.600E-07,-1.140
8.700E-07,-1.360
8.800E-07,-1.420
8.900E-07,-1.600
9.000E-07,-1.600
9.100E-07,-1.560
9.200E-07,-1.460
9.300E-07,-1.400
9.400E-07,-1.340
9.500E-07,-1.360
9.600E-07,-1.180
9.700E-07,-1.100
9.800E-07,-0.980
9.900E-07,-0.940
1.000E-06,-0.760
1.010E-06,-0.640
1.020E-06,-0.500
1.030E-06,-0.380
1.040E-06,-0.280
1.050E-06,-0.200
1.060E-06,-0.100
1.070E-06,0.120
1.080E-06,0.200
1.090E-06,0.400
1.100E-06,0.420
1.110E-06,0.500
1.120E-06,0.540
1.130E-06,0.620
1.140E-06,0.600
1.150E-06,0.620
1.160E-06,0.500
1.170E-06,0.380
1.180E-06,0.300
1.190E-06,0.180
1.200E-06,0.060
1.210E-06,-0.040
1.220E-06,-0.180
1.230E-06,-0.320
1.240E-06,-0.420
1.250E-06,-0.580
1.260E-06,-0.600
1.270E-06,-0.680
1.280E-06,-0.700
1.290E-06,-0.780
1.300E-06,-0.760
1.310E-06,-0.720
1.320E-06,-0.680
1.330E-06,-0.540
1.340E-06,-0.600
1.350E-06,-0.500
1.360E-06,-0.660
1.370E-06,-0.660
1.380E-06,-0.700
1.390E-06,-0.820
1.400E-06,-0.860
1.410E-06,-1.080
1.420E-06,-1.180
1.430E-06,-1.360
1.440E-06,-1.480
1.450E-06,-1.620
1.460E-06,-1.720
1.470E-06,-1.900
1.480E-06,-2.040
1.490E-06,-2.260
1.500E-06,-2.440
1.510E-06,-2.240
1.520E-06,-1.440
1.530E-06,-1.240
1.540E-06,-0.020
1.550E-06,-0.540
1.560E-06,-0.100
1.570E-06,-0.720
1.580E-06,-0.700
1.590E-06,-0.780
1.600E-06,-0.760
1.610E-06,-1.160
1.620E-06,-1.400
1.630E-06,-1.800
1.640E-06,-1.820
1.650E-06,-1.780
1.660E-06,-1.700
1.670E-06,-1.860
1.680E-06,-1.920
1.690E-06,-1.940
1.700E-06,-1.380
1.710E-06,-0.800
1.720E-06,-0.260
1.730E-06,-0.020
1.740E-06,0.080
1.750E-06,-0.080
1.760E-06,-0.160
1.770E-06,-0.240
1.780E-06,-0.320
1.790E-06,-0.360
1.800E-06,-0.400
1.810E-06,-0.500
1.820E-06,-0.420
1.830E-06,-0.300
1.840E-06,-0.260
1.850E-06,-0.020
1.860E-06,0.020
1.870E-06,0.280
1.880E-06,0.520
1.890E-06,0.480
1.900E-06,0.520
1.910E-06,0.180
1.920E-06,0.140
1.930E-06,-0.340
1.940E-06,-0.520
1.950E-06,-1.120
1.960E-06,-1.320
1.970E-06,-1.680
1.980E-06,-1.560
1.990E-06,-1.480
2.000E-06,-1.380
2.010E-06,-1.340
2.020E-06,-1.180
2.030E-06,-0.960
2.040E-06,-0.560
2.050E-06,-0.180
2.060E-06,0.040
2.070E-06,0.220
2.080E-06,0.420
2.090E-06,0.580
2.100E-06,0.740
2.110E-06,0.860
2.120E-06,0.820
2.130E-06,0.740
2.140E-06,0.600
2.150E-06,0.460
2.160E-06,0.340
2.170E-06,0.200
2.180E-06,0.160
2.190E-06,0.180
2.200E-06,0.240
2.210E-06,0.260
2.220E-06,0.320
2.230E-06,0.360
2.240E-06,0.380
2.250E-06,0.500
2.260E-06,0.520
2.270E-06,0.640
2.280E-06,0.540
2.290E-06,0.620
2.300E-06,0.340
2.310E-06,0.320
2.320E-06,0.140
2.330E-06,-0.080
2.340E-06,-0.180
2.350E-06,-0.400
2.360E-06,-0.580
2.370E-06,-0.680
2.380E-06,-0.840
2.390E-06,-0.900
2.400E-06,-1.020
2.410E-06,-0.960
2.420E-06,-1.040
2.430E-06,-1.060
2.440E-06,-1.280
2.450E-06,-1.360
2.460E-06,-1.540
2.470E-06,-1.540
2.480E-06,-1.820
2.490E-06,-2.000
2.500E-06,-2.040
2.510E-06,-2.260
2.520E-06,-0.660
2.530E-06,0.960
2.540E-06,0.340
2.550E-06,0.600
2.560E-06,-2.040
2.570E-06,-2.500
2.580E-06,-2.660
2.590E-06,-2.660
2.600E-06,-2.660
2.610E-06,-2.680
2.620E-06,-2.680
2.630E-06,-2.660
2.640E-06,-2.660
2.650E-06,-2.660
2.660E-06,-2.160
2.670E-06,-1.900
2.680E-06,-1.960
2.690E-06,-1.060
2.700E-06,-0.220
2.710E-06,0.420
2.720E-06,0.320
2.730E-06,0.100
2.740E-06,0.080
2.750E-06,0.600
2.760E-06,0.800
2.770E-06,0.700
2.780E-06,0.420
2.790E-06,0.500
2.800E-06,0.700
2.810E-06,0.980
2.820E-06,1.120
2.830E-06,1.240
2.840E-06,1.440
2.850E-06,1.560
2.860E-06,1.580
2.870E-06,1.460
2.880E-06,1.360
2.890E-06,1.160
2.900E-06,0.900
2.910E-06,0.440
2.920E-06,0.040
2.930E-06,-0.480
2.940E-06,-0.860
2.950E-06,-1.340
2.960E-06,-1.620
2.970E-06,-1.780
2.980E-06,-1.660
2.990E-06,-1.360
3.000E-06,-1.020
3.010E-06,-0.680
3.020E-06,-0.380
3.030E-06,-0.080
3.040E-06,0.160
3.050E-06,0.420
3.060E-06,0.680
3.070E-06,0.920
3.080E-06,1.140
3.090E-06,1.500
3.100E-06,1.840
3.110E-06,2.000
3.120E-06,2.020
