mediciones/5-15/10/WaveData47291.csv

#timebase=2000000(ps)
,#voltbase=100000(mv/100)
#size=4000
-8.400E-06,0.040
-8.390E-06,0.024
-8.380E-06,-0.004
-8.370E-06,-0.028
-8.360E-06,-0.040
-8.350E-06,-0.040
-8.340E-06,-0.004
-8.330E-06,0.028
-8.320E-06,0.048
-8.310E-06,0.036
-8.300E-06,0.028
-8.290E-06,-0.004
-8.280E-06,-0.036
-8.270E-06,-0.040
-8.260E-06,-0.020
-8.250E-06,0.008
-8.240E-06,0.028
-8.230E-06,0.036
-8.220E-06,0.028
-8.210E-06,0.012
-8.200E-06,-0.008
-8.190E-06,-0.020
-8.180E-06,-0.024
-8.170E-06,-0.008
-8.160E-06,0.012
-8.150E-06,0.032
-8.140E-06,0.056
-8.130E-06,0.032
-8.120E-06,0.000
-8.110E-06,-0.016
-8.100E-06,-0.028
-8.090E-06,-0.028
-8.080E-06,0.004
-8.070E-06,0.032
-8.060E-06,0.044
-8.050E-06,0.036
-8.040E-06,0.020
-8.030E-06,-0.004
-8.020E-06,-0.020
-8.010E-06,-0.028
-8.000E-06,-0.040
-7.990E-06,0.016
-7.980E-06,0.036
-7.970E-06,0.008
-7.960E-06,-0.004
-7.950E-06,0.000
-7.940E-06,0.020
-7.930E-06,0.028
-7.920E-06,0.012
-7.910E-06,-0.024
-7.900E-06,-0.028
-7.890E-06,-0.024
-7.880E-06,-0.040
-7.870E-06,-0.008
-7.860E-06,0.020
-7.850E-06,0.020
-7.840E-06,0.012
-7.830E-06,0.048
-7.820E-06,0.036
-7.810E-06,-0.020
-7.800E-06,-0.060
-7.790E-06,-0.060
-7.780E-06,0.000
-7.770E-06,0.064
-7.760E-06,0.088
-7.750E-06,0.044
-7.740E-06,-0.008
-7.730E-06,-0.068
-7.720E-06,-0.068
-7.710E-06,-0.020
-7.700E-06,0.040
-7.690E-06,0.068
-7.680E-06,0.052
-7.670E-06,0.008
-7.660E-06,-0.036
-7.650E-06,-0.052
-7.640E-06,-0.032
-7.630E-06,0.016
-7.620E-06,0.044
-7.610E-06,0.056
-7.600E-06,0.032
-7.590E-06,0.004
-7.580E-06,-0.024
-7.570E-06,-0.036
-7.560E-06,-0.024
-7.550E-06,0.004
-7.540E-06,0.032
-7.530E-06,0.032
-7.520E-06,0.028
-7.510E-06,0.012
-7.500E-06,-0.008
-7.490E-06,-0.024
-7.480E-06,-0.024
-7.470E-06,-0.008
-7.460E-06,0.020
-7.450E-06,0.044
-7.440E-06,0.044
-7.430E-06,0.020
-7.420E-06,-0.008
-7.410E-06,-0.032
-7.400E-06,-0.036
-7.390E-06,-0.012
-7.380E-06,0.016
-7.370E-06,0.044
-7.360E-06,0.032
-7.350E-06,0.012
-7.340E-06,-0.008
-7.330E-06,-0.040
-7.320E-06,-0.056
-7.310E-06,-0.028
-7.300E-06,0.012
-7.290E-06,0.056
-7.280E-06,0.064
-7.270E-06,0.040
-7.260E-06,-0.012
-7.250E-06,-0.056
-7.240E-06,-0.068
-7.230E-06,-0.028
-7.220E-06,0.032
-7.210E-06,0.068
-7.200E-06,0.060
-7.190E-06,0.028
-7.180E-06,-0.008
-7.170E-06,-0.040
-7.160E-06,-0.052
-7.150E-06,-0.020
-7.140E-06,0.016
-7.130E-06,0.056
-7.120E-06,0.060
-7.110E-06,0.036
-7.100E-06,0.000
-7.090E-06,-0.008
-7.080E-06,-0.012
-7.070E-06,-0.056
-7.060E-06,-0.036
-7.050E-06,-0.004
-7.040E-06,0.044
-7.030E-06,0.040
-7.020E-06,0.056
-7.010E-06,0.012
-7.000E-06,-0.040
-6.990E-06,-0.056
-6.980E-06,-0.068
-6.970E-06,-0.012
-6.960E-06,0.040
-6.950E-06,0.076
-6.940E-06,0.044
-6.930E-06,0.004
-6.920E-06,-0.040
-6.910E-06,-0.036
-6.900E-06,-0.012
-6.890E-06,0.020
-6.880E-06,0.028
-6.870E-06,0.016
-6.860E-06,0.016
-6.850E-06,0.004
-6.840E-06,0.000
-6.830E-06,-0.016
-6.820E-06,-0.008
-6.810E-06,-0.008
-6.800E-06,0.012
-6.790E-06,0.024
-6.780E-06,0.024
-6.770E-06,0.012
-6.760E-06,-0.012
-6.750E-06,-0.036
-6.740E-06,-0.040
-6.730E-06,0.008
-6.720E-06,0.036
-6.710E-06,0.040
-6.700E-06,0.028
-6.690E-06,0.004
-6.680E-06,-0.020
-6.670E-06,-0.024
-6.660E-06,-0.004
-6.650E-06,0.020
-6.640E-06,0.032
-6.630E-06,0.028
-6.620E-06,0.008
-6.610E-06,-0.008
-6.600E-06,-0.012
-6.590E-06,-0.008
-6.580E-06,0.008
-6.570E-06,0.028
-6.560E-06,0.024
-6.550E-06,0.004
-6.540E-06,0.000
-6.530E-06,-0.008
-6.520E-06,-0.004
-6.510E-06,0.020
-6.500E-06,0.016
-6.490E-06,-0.012
-6.480E-06,0.012
-6.470E-06,0.008
-6.460E-06,0.012
-6.450E-06,-0.004
-6.440E-06,0.000
-6.430E-06,0.008
-6.420E-06,0.020
-6.410E-06,0.028
-6.400E-06,0.008
-6.390E-06,0.024
-6.380E-06,0.016
-6.370E-06,0.012
-6.360E-06,-0.008
-6.350E-06,0.000
-6.340E-06,-0.008
-6.330E-06,-0.004
-6.320E-06,0.004
-6.310E-06,0.028
-6.300E-06,0.028
-6.290E-06,-0.024
-6.280E-06,-0.016
-6.270E-06,-0.060
-6.260E-06,-0.056
-6.250E-06,-0.040
-6.240E-06,0.032
-6.230E-06,0.056
-6.220E-06,0.088
-6.210E-06,0.036
-6.200E-06,-0.068
-6.190E-06,-0.096
-6.180E-06,-0.060
-6.170E-06,0.016
-6.160E-06,0.064
-6.150E-06,0.084
-6.140E-06,0.024
-6.130E-06,-0.028
-6.120E-06,-0.068
-6.110E-06,-0.048
-6.100E-06,-0.008
-6.090E-06,0.044
-6.080E-06,0.060
-6.070E-06,0.040
-6.060E-06,0.004
-6.050E-06,-0.028
-6.040E-06,-0.032
-6.030E-06,-0.020
-6.020E-06,0.012
-6.010E-06,0.028
-6.000E-06,0.032
-5.990E-06,0.020
-5.980E-06,0.012
-5.970E-06,-0.012
-5.960E-06,-0.016
-5.950E-06,-0.020
-5.940E-06,0.000
-5.930E-06,0.024
-5.920E-06,0.040
-5.910E-06,0.040
-5.900E-06,0.028
-5.890E-06,-0.004
-5.880E-06,0.000
-5.870E-06,0.008
-5.860E-06,0.008
-5.850E-06,0.024
-5.840E-06,-0.004
-5.830E-06,-0.068
-5.820E-06,-0.032
-5.810E-06,0.036
-5.800E-06,0.052
-5.790E-06,0.044
-5.780E-06,-0.032
-5.770E-06,-0.068
-5.760E-06,-0.068
-5.750E-06,0.000
-5.740E-06,0.044
-5.730E-06,0.076
-5.720E-06,0.056
-5.710E-06,0.000
-5.700E-06,-0.072
-5.690E-06,-0.096
-5.680E-06,-0.036
-5.670E-06,0.056
-5.660E-06,0.120
-5.650E-06,0.072
-5.640E-06,-0.008
-5.630E-06,-0.076
-5.620E-06,-0.080
-5.610E-06,-0.040
-5.600E-06,0.024
-5.590E-06,0.072
-5.580E-06,0.076
-5.570E-06,0.040
-5.560E-06,-0.008
-5.550E-06,-0.044
-5.540E-06,-0.056
-5.530E-06,-0.024
-5.520E-06,0.012
-5.510E-06,0.060
-5.500E-06,0.072
-5.490E-06,0.044
-5.480E-06,0.004
-5.470E-06,-0.036
-5.460E-06,-0.056
-5.450E-06,-0.044
-5.440E-06,-0.008
-5.430E-06,0.024
-5.420E-06,0.056
-5.410E-06,0.060
-5.400E-06,0.032
-5.390E-06,-0.016
-5.380E-06,-0.040
-5.370E-06,-0.040
-5.360E-06,-0.004
-5.350E-06,0.032
-5.340E-06,0.056
-5.330E-06,0.052
-5.320E-06,0.020
-5.310E-06,-0.008
-5.300E-06,-0.032
-5.290E-06,-0.028
-5.280E-06,0.000
-5.270E-06,0.028
-5.260E-06,0.056
-5.250E-06,0.056
-5.240E-06,0.036
-5.230E-06,0.000
-5.220E-06,-0.044
-5.210E-06,-0.060
-5.200E-06,-0.048
-5.190E-06,-0.012
-5.180E-06,0.020
-5.170E-06,0.060
-5.160E-06,0.072
-5.150E-06,0.056
-5.140E-06,0.008
-5.130E-06,-0.036
-5.120E-06,-0.056
-5.110E-06,-0.032
-5.100E-06,0.004
-5.090E-06,0.012
-5.080E-06,-0.036
-5.070E-06,-0.068
-5.060E-06,-0.072
-5.050E-06,-0.024
-5.040E-06,0.088
-5.030E-06,0.100
-5.020E-06,0.056
-5.010E-06,-0.052
-5.000E-06,-0.084
-4.990E-06,-0.072
-4.980E-06,-0.008
-4.970E-06,0.056
-4.960E-06,0.072
-4.950E-06,0.048
-4.940E-06,-0.004
-4.930E-06,-0.044
-4.920E-06,-0.068
-4.910E-06,-0.020
-4.900E-06,0.028
-4.890E-06,0.064
-4.880E-06,0.044
-4.870E-06,0.016
-4.860E-06,-0.032
-4.850E-06,-0.036
-4.840E-06,-0.020
-4.830E-06,0.000
-4.820E-06,0.028
-4.810E-06,0.036
-4.800E-06,0.032
-4.790E-06,0.008
-4.780E-06,-0.012
-4.770E-06,-0.036
-4.760E-06,-0.028
-4.750E-06,-0.004
-4.740E-06,0.024
-4.730E-06,0.048
-4.720E-06,0.040
-4.710E-06,0.008
-4.700E-06,-0.032
-4.690E-06,-0.028
-4.680E-06,-0.028
-4.670E-06,0.004
-4.660E-06,0.032
-4.650E-06,0.052
-4.640E-06,0.036
-4.630E-06,0.008
-4.620E-06,-0.020
-4.610E-06,-0.036
-4.600E-06,-0.032
-4.590E-06,-0.004
-4.580E-06,0.032
-4.570E-06,0.044
-4.560E-06,0.044
-4.550E-06,0.016
-4.540E-06,-0.012
-4.530E-06,-0.036
-4.520E-06,-0.032
-4.510E-06,-0.004
-4.500E-06,0.032
-4.490E-06,0.056
-4.480E-06,0.048
-4.470E-06,0.016
-4.460E-06,-0.004
-4.450E-06,-0.024
-4.440E-06,-0.008
-4.430E-06,-0.004
-4.420E-06,0.032
-4.410E-06,0.060
-4.400E-06,0.068
-4.390E-06,0.048
-4.380E-06,0.024
-4.370E-06,-0.008
-4.360E-06,-0.052
-4.350E-06,-0.060
-4.340E-06,-0.060
-4.330E-06,-0.004
-4.320E-06,0.044
-4.310E-06,0.088
-4.300E-06,0.088
-4.290E-06,0.024
-4.280E-06,-0.044
-4.270E-06,-0.104
-4.260E-06,-0.084
-4.250E-06,0.008
-4.240E-06,0.108
-4.230E-06,0.140
-4.220E-06,0.096
-4.210E-06,0.024
-4.200E-06,-0.052
-4.190E-06,-0.072
-4.180E-06,-0.028
-4.170E-06,0.044
-4.160E-06,0.060
-4.150E-06,0.056
-4.140E-06,0.016
-4.130E-06,0.000
-4.120E-06,-0.064
-4.110E-06,-0.068
-4.100E-06,-0.056
-4.090E-06,-0.008
-4.080E-06,0.004
-4.070E-06,0.012
-4.060E-06,0.028
-4.050E-06,0.020
-4.040E-06,0.012
-4.030E-06,-0.052
-4.020E-06,-0.056
-4.010E-06,-0.044
-4.000E-06,0.020
-3.990E-06,0.076
-3.980E-06,0.084
-3.970E-06,0.032
-3.960E-06,-0.036
-3.950E-06,-0.052
-3.940E-06,-0.040
-3.930E-06,0.020
-3.920E-06,0.060
-3.910E-06,0.104
-3.900E-06,0.100
-3.890E-06,0.064
-3.880E-06,0.000
-3.870E-06,-0.060
-3.860E-06,-0.076
-3.850E-06,-0.056
-3.840E-06,-0.052
-3.830E-06,-0.036
-3.820E-06,0.024
-3.810E-06,0.080
-3.800E-06,0.076
-3.790E-06,-0.004
-3.780E-06,-0.072
-3.770E-06,-0.116
-3.760E-06,-0.068
-3.750E-06,0.016
-3.740E-06,0.104
-3.730E-06,0.124
-3.720E-06,0.068
-3.710E-06,-0.004
-3.700E-06,-0.072
-3.690E-06,-0.068
-3.680E-06,0.012
-3.670E-06,0.104
-3.660E-06,0.112
-3.650E-06,0.076
-3.640E-06,-0.016
-3.630E-06,-0.072
-3.620E-06,-0.104
-3.610E-06,-0.076
-3.600E-06,-0.020
-3.590E-06,0.056
-3.580E-06,0.100
-3.570E-06,0.068
-3.560E-06,0.020
-3.550E-06,-0.068
-3.540E-06,-0.096
-3.530E-06,-0.108
-3.520E-06,-0.040
-3.510E-06,0.056
-3.500E-06,0.140
-3.490E-06,0.144
-3.480E-06,0.068
-3.470E-06,-0.024
-3.460E-06,-0.116
-3.450E-06,-0.104
-3.440E-06,-0.052
-3.430E-06,0.048
-3.420E-06,0.128
-3.410E-06,0.156
-3.400E-06,0.088
-3.390E-06,-0.068
-3.380E-06,-0.136
-3.370E-06,-0.144
-3.360E-06,-0.076
-3.350E-06,0.016
-3.340E-06,0.092
-3.330E-06,0.108
-3.320E-06,0.056
-3.310E-06,-0.024
-3.300E-06,-0.072
-3.290E-06,-0.096
-3.280E-06,-0.068
-3.270E-06,-0.004
-3.260E-06,0.044
-3.250E-06,0.072
-3.240E-06,0.072
-3.230E-06,0.040
-3.220E-06,-0.016
-3.210E-06,-0.064
-3.200E-06,-0.076
-3.190E-06,-0.036
-3.180E-06,0.024
-3.170E-06,0.096
-3.160E-06,0.112
-3.150E-06,0.080
-3.140E-06,0.024
-3.130E-06,-0.040
-3.120E-06,-0.056
-3.110E-06,-0.032
-3.100E-06,0.036
-3.090E-06,0.092
-3.080E-06,0.124
-3.070E-06,0.124
-3.060E-06,0.044
-3.050E-06,-0.140
-3.040E-06,-0.272
-3.030E-06,-0.192
-3.020E-06,-0.008
-3.010E-06,0.084
-3.000E-06,0.180
-2.990E-06,0.136
-2.980E-06,0.036
-2.970E-06,-0.100
-2.960E-06,-0.168
-2.950E-06,-0.128
-2.940E-06,-0.028
-2.930E-06,0.096
-2.920E-06,0.124
-2.910E-06,0.084
-2.900E-06,-0.024
-2.890E-06,-0.060
-2.880E-06,-0.068
-2.870E-06,-0.032
-2.860E-06,-0.008
-2.850E-06,0.012
-2.840E-06,0.040
-2.830E-06,0.056
-2.820E-06,0.060
-2.810E-06,0.020
-2.800E-06,-0.004
-2.790E-06,-0.028
-2.780E-06,-0.008
-2.770E-06,0.012
-2.760E-06,0.064
-2.750E-06,0.096
-2.740E-06,0.092
-2.730E-06,-0.008
-2.720E-06,-0.084
-2.710E-06,-0.112
-2.700E-06,-0.108
-2.690E-06,-0.040
-2.680E-06,0.084
-2.670E-06,0.120
-2.660E-06,0.060
-2.650E-06,-0.004
-2.640E-06,-0.064
-2.630E-06,-0.060
-2.620E-06,-0.028
-2.610E-06,0.016
-2.600E-06,0.020
-2.590E-06,0.016
-2.580E-06,0.004
-2.570E-06,-0.008
-2.560E-06,0.000
-2.550E-06,0.008
-2.540E-06,0.008
-2.530E-06,0.000
-2.520E-06,-0.004
-2.510E-06,-0.008
-2.500E-06,-0.004
-2.490E-06,0.008
-2.480E-06,0.032
-2.470E-06,0.036
-2.460E-06,0.032
-2.450E-06,0.032
-2.440E-06,0.008
-2.430E-06,0.004
-2.420E-06,0.008
-2.410E-06,0.016
-2.400E-06,0.028
-2.390E-06,0.048
-2.380E-06,0.060
-2.370E-06,0.092
-2.360E-06,0.100
-2.350E-06,0.088
-2.340E-06,0.052
-2.330E-06,-0.044
-2.320E-06,-0.168
-2.310E-06,-0.320
-2.300E-06,-0.264
-2.290E-06,-0.096
-2.280E-06,0.112
-2.270E-06,0.224
-2.260E-06,0.244
-2.250E-06,0.096
-2.240E-06,-0.120
-2.230E-06,-0.232
-2.220E-06,-0.220
-2.210E-06,-0.032
-2.200E-06,0.132
-2.190E-06,0.220
-2.180E-06,0.128
-2.170E-06,0.008
-2.160E-06,-0.120
-2.150E-06,-0.136
-2.140E-06,-0.072
-2.130E-06,0.016
-2.120E-06,0.092
-2.110E-06,0.112
-2.100E-06,0.088
-2.090E-06,0.004
-2.080E-06,-0.040
-2.070E-06,-0.080
-2.060E-06,-0.056
-2.050E-06,-0.008
-2.040E-06,0.040
-2.030E-06,0.052
-2.020E-06,0.036
-2.010E-06,0.000
-2.000E-06,-0.032
-1.990E-06,-0.036
-1.980E-06,-0.028
-1.970E-06,-0.004
-1.960E-06,0.012
-1.950E-06,0.024
-1.940E-06,0.020
-1.930E-06,0.024
-1.920E-06,0.000
-1.910E-06,-0.016
-1.900E-06,-0.024
-1.890E-06,-0.012
-1.880E-06,0.008
-1.870E-06,0.036
-1.860E-06,0.056
-1.850E-06,0.032
-1.840E-06,0.012
-1.830E-06,-0.024
-1.820E-06,-0.024
-1.810E-06,-0.008
-1.800E-06,0.032
-1.790E-06,0.060
-1.780E-06,0.072
-1.770E-06,0.064
-1.760E-06,0.044
-1.750E-06,0.020
-1.740E-06,0.004
-1.730E-06,0.008
-1.720E-06,0.008
-1.710E-06,0.008
-1.700E-06,0.040
-1.690E-06,0.052
-1.680E-06,-0.076
-1.670E-06,-0.136
-1.660E-06,-0.048
-1.650E-06,0.000
-1.640E-06,-0.032
-1.630E-06,0.032
-1.620E-06,0.048
-1.610E-06,0.008
-1.600E-06,-0.036
-1.590E-06,-0.056
-1.580E-06,-0.028
-1.570E-06,0.000
-1.560E-06,0.056
-1.550E-06,0.036
-1.540E-06,-0.004
-1.530E-06,-0.060
-1.520E-06,-0.032
-1.510E-06,0.016
-1.500E-06,0.044
-1.490E-06,0.036
-1.480E-06,0.004
-1.470E-06,-0.008
-1.460E-06,-0.008
-1.450E-06,0.012
-1.440E-06,0.020
-1.430E-06,0.044
-1.420E-06,0.040
-1.410E-06,0.040
-1.400E-06,0.036
-1.390E-06,0.044
-1.380E-06,0.028
-1.370E-06,0.016
-1.360E-06,0.004
-1.350E-06,-0.032
-1.340E-06,-0.060
-1.330E-06,-0.056
-1.320E-06,0.004
-1.310E-06,0.032
-1.300E-06,0.036
-1.290E-06,0.028
-1.280E-06,-0.008
-1.270E-06,-0.012
-1.260E-06,-0.008
-1.250E-06,0.008
-1.240E-06,0.020
-1.230E-06,0.012
-1.220E-06,-0.008
-1.210E-06,-0.012
-1.200E-06,-0.004
-1.190E-06,0.000
-1.180E-06,0.024
-1.170E-06,0.032
-1.160E-06,0.036
-1.150E-06,0.036
-1.140E-06,0.028
-1.130E-06,0.004
-1.120E-06,0.020
-1.110E-06,0.060
-1.100E-06,-0.004
-1.090E-06,-0.020
-1.080E-06,-0.012
-1.070E-06,-0.020
-1.060E-06,-0.020
-1.050E-06,-0.004
-1.040E-06,0.016
-1.030E-06,0.028
-1.020E-06,0.048
-1.010E-06,0.032
-1.000E-06,0.012
-9.900E-07,-0.012
-9.800E-07,-0.008
-9.700E-07,0.016
-9.600E-07,0.044
-9.500E-07,0.072
-9.400E-07,0.080
-9.300E-07,0.072
-9.200E-07,0.044
-9.100E-07,-0.004
-9.000E-07,-0.032
-8.900E-07,-0.028
-8.800E-07,0.000
-8.700E-07,0.040
-8.600E-07,0.096
-8.500E-07,0.124
-8.400E-07,0.096
-8.300E-07,-0.008
-8.200E-07,-0.144
-8.100E-07,-0.228
-8.000E-07,-0.244
-7.900E-07,-0.072
-7.800E-07,0.140
-7.700E-07,0.156
-7.600E-07,0.120
-7.500E-07,-0.056
-7.400E-07,-0.248
-7.300E-07,-0.272
-7.200E-07,-0.128
-7.100E-07,0.072
-7.000E-07,0.192
-6.900E-07,0.188
-6.800E-07,0.048
-6.700E-07,-0.080
-6.600E-07,-0.152
-6.500E-07,-0.104
-6.400E-07,-0.024
-6.300E-07,0.056
-6.200E-07,0.068
-6.100E-07,0.072
-6.000E-07,0.044
-5.900E-07,0.008
-5.800E-07,-0.012
-5.700E-07,-0.028
-5.600E-07,-0.008
-5.500E-07,0.028
-5.400E-07,0.060
-5.300E-07,0.064
-5.200E-07,0.048
-5.100E-07,0.016
-5.000E-07,-0.012
-4.900E-07,-0.004
-4.800E-07,0.016
-4.700E-07,0.048
-4.600E-07,0.076
-4.500E-07,0.088
-4.400E-07,0.064
-4.300E-07,0.024
-4.200E-07,-0.032
-4.100E-07,-0.044
-4.000E-07,-0.036
-3.900E-07,0.004
-3.800E-07,0.048
-3.700E-07,0.080
-3.600E-07,0.072
-3.500E-07,0.060
-3.400E-07,0.040
-3.300E-07,0.036
-3.200E-07,0.044
-3.100E-07,0.096
-3.000E-07,0.124
-2.900E-07,0.124
-2.800E-07,0.044
-2.700E-07,-0.060
-2.600E-07,-0.140
-2.500E-07,-0.152
-2.400E-07,-0.104
-2.300E-07,-0.012
-2.200E-07,0.072
-2.100E-07,0.128
-2.000E-07,0.068
-1.900E-07,0.012
-1.800E-07,-0.028
-1.700E-07,-0.008
-1.600E-07,0.008
-1.500E-07,0.040
-1.400E-07,0.016
-1.300E-07,-0.004
-1.200E-07,0.020
-1.100E-07,0.044
-1.000E-07,0.100
-9.000E-08,0.136
-8.000E-08,0.136
-7.000E-08,0.112
-6.000E-08,-0.188
-5.000E-08,-0.340
-4.000E-08,-0.504
-3.000E-08,-0.336
-2.000E-08,0.004
-1.000E-08,0.392
0.000E+00,0.540
1.000E-08,0.292
2.000E-08,-0.092
3.000E-08,-0.404
4.000E-08,-0.292
5.000E-08,0.016
6.000E-08,0.360
7.000E-08,0.420
8.000E-08,0.088
9.000E-08,-0.384
1.000E-07,-0.512
1.100E-07,-0.512
1.200E-07,-0.144
1.300E-07,0.468
1.400E-07,0.540
1.500E-07,0.540
1.600E-07,0.036
1.700E-07,-0.468
1.800E-07,-0.512
1.900E-07,-0.332
2.000E-07,0.136
2.100E-07,0.456
2.200E-07,0.496
2.300E-07,0.232
2.400E-07,-0.112
2.500E-07,-0.352
2.600E-07,-0.336
2.700E-07,-0.160
2.800E-07,0.024
2.900E-07,0.176
3.000E-07,0.212
3.100E-07,0.128
3.200E-07,-0.072
3.300E-07,-0.256
3.400E-07,-0.288
3.500E-07,-0.136
3.600E-07,0.120
3.700E-07,0.312
3.800E-07,0.312
3.900E-07,0.104
4.000E-07,-0.144
4.100E-07,-0.304
4.200E-07,-0.256
4.300E-07,-0.060
4.400E-07,0.168
4.500E-07,0.288
4.600E-07,0.232
4.700E-07,0.056
4.800E-07,-0.152
4.900E-07,-0.236
5.000E-07,-0.180
5.100E-07,-0.004
5.200E-07,0.188
5.300E-07,0.284
5.400E-07,0.224
5.500E-07,0.056
5.600E-07,-0.112
5.700E-07,-0.180
5.800E-07,-0.124
5.900E-07,0.008
6.000E-07,0.172
6.100E-07,0.240
6.200E-07,0.204
6.300E-07,0.076
6.400E-07,-0.072
6.500E-07,-0.132
6.600E-07,-0.068
6.700E-07,0.076
6.800E-07,0.208
6.900E-07,0.256
7.000E-07,0.152
7.100E-07,-0.060
7.200E-07,-0.280
7.300E-07,-0.348
7.400E-07,-0.308
7.500E-07,-0.128
7.600E-07,0.068
7.700E-07,0.216
7.800E-07,0.224
7.900E-07,0.044
8.000E-07,-0.124
8.100E-07,-0.252
8.200E-07,-0.180
8.300E-07,-0.020
8.400E-07,0.124
8.500E-07,0.164
8.600E-07,0.152
8.700E-07,0.088
8.800E-07,-0.032
8.900E-07,-0.120
9.000E-07,-0.144
9.100E-07,-0.056
9.200E-07,0.040
9.300E-07,0.168
9.400E-07,0.156
9.500E-07,0.108
9.600E-07,0.048
9.700E-07,-0.064
9.800E-07,-0.136
9.900E-07,-0.144
1.000E-06,-0.036
1.010E-06,0.068
1.020E-06,0.140
1.030E-06,0.128
1.040E-06,0.072
1.050E-06,0.004
1.060E-06,-0.076
1.070E-06,-0.120
1.080E-06,-0.072
1.090E-06,0.048
1.100E-06,0.148
1.110E-06,0.172
1.120E-06,0.120
1.130E-06,0.036
1.140E-06,-0.036
1.150E-06,-0.036
1.160E-06,-0.020
1.170E-06,0.060
1.180E-06,0.152
1.190E-06,0.160
1.200E-06,0.116
1.210E-06,0.048
1.220E-06,-0.024
1.230E-06,-0.040
1.240E-06,0.012
1.250E-06,0.092
1.260E-06,0.176
1.270E-06,0.224
1.280E-06,0.176
1.290E-06,0.044
1.300E-06,-0.120
1.310E-06,-0.188
1.320E-06,-0.188
1.330E-06,-0.104
1.340E-06,0.024
1.350E-06,0.132
1.360E-06,0.148
1.370E-06,0.100
1.380E-06,0.008
1.390E-06,-0.088
1.400E-06,-0.084
1.410E-06,-0.048
1.420E-06,0.064
1.430E-06,0.144
1.440E-06,0.168
1.450E-06,0.132
1.460E-06,0.052
1.470E-06,-0.040
1.480E-06,-0.052
1.490E-06,0.040
1.500E-06,0.072
1.510E-06,-0.012
1.520E-06,-0.220
1.530E-06,-0.436
1.540E-06,-0.368
1.550E-06,-0.272
1.560E-06,-0.064
1.570E-06,0.240
1.580E-06,0.236
1.590E-06,0.140
1.600E-06,-0.072
1.610E-06,-0.152
1.620E-06,-0.136
1.630E-06,0.004
1.640E-06,0.132
1.650E-06,0.212
1.660E-06,0.160
1.670E-06,0.120
1.680E-06,0.132
1.690E-06,0.028
1.700E-06,-0.164
1.710E-06,-0.300
1.720E-06,-0.332
1.730E-06,-0.200
1.740E-06,0.008
1.750E-06,0.124
1.760E-06,0.156
1.770E-06,0.100
1.780E-06,-0.040
1.790E-06,-0.080
1.800E-06,-0.012
1.810E-06,0.072
1.820E-06,0.132
1.830E-06,0.188
1.840E-06,0.148
1.850E-06,0.084
1.860E-06,-0.044
1.870E-06,-0.120
1.880E-06,-0.104
1.890E-06,-0.044
1.900E-06,0.008
1.910E-06,0.028
1.920E-06,0.008
1.930E-06,-0.040
1.940E-06,-0.056
1.950E-06,-0.060
1.960E-06,-0.028
1.970E-06,-0.060
1.980E-06,-0.052
1.990E-06,-0.040
2.000E-06,-0.024
2.010E-06,0.028
2.020E-06,0.044
2.030E-06,-0.004
2.040E-06,-0.048
2.050E-06,-0.060
2.060E-06,-0.060
2.070E-06,-0.020
2.080E-06,0.036
2.090E-06,0.076
2.100E-06,0.064
2.110E-06,0.040
2.120E-06,0.024
2.130E-06,0.040
2.140E-06,0.072
2.150E-06,0.080
2.160E-06,0.064
2.170E-06,0.044
2.180E-06,0.052
2.190E-06,0.056
2.200E-06,0.068
2.210E-06,0.076
2.220E-06,0.076
2.230E-06,0.060
2.240E-06,0.024
2.250E-06,-0.024
2.260E-06,-0.060
2.270E-06,-0.040
2.280E-06,0.020
2.290E-06,0.084
2.300E-06,0.128
2.310E-06,0.156
2.320E-06,0.140
2.330E-06,0.080
2.340E-06,0.080
2.350E-06,0.104
2.360E-06,0.156
2.370E-06,0.192
2.380E-06,0.196
2.390E-06,0.160
2.400E-06,0.080
2.410E-06,0.004
2.420E-06,-0.044
2.430E-06,-0.036
2.440E-06,0.032
2.450E-06,0.088
2.460E-06,0.080
2.470E-06,0.100
2.480E-06,0.056
2.490E-06,0.000
2.500E-06,0.044
2.510E-06,-0.004
2.520E-06,-0.512
2.530E-06,-0.508
2.540E-06,-0.512
2.550E-06,-0.512
2.560E-06,0.352
2.570E-06,0.540
2.580E-06,0.504
2.590E-06,-0.056
2.600E-06,-0.496
2.610E-06,-0.512
2.620E-06,-0.008
2.630E-06,0.240
2.640E-06,0.332
2.650E-06,0.140
2.660E-06,0.000
2.670E-06,-0.120
2.680E-06,-0.132
2.690E-06,-0.004
2.700E-06,0.064
2.710E-06,0.148
2.720E-06,0.080
2.730E-06,0.084
2.740E-06,0.000
2.750E-06,-0.004
2.760E-06,-0.084
2.770E-06,-0.036
2.780E-06,0.076
2.790E-06,0.196
2.800E-06,0.208
2.810E-06,0.068
2.820E-06,-0.100
2.830E-06,-0.236
2.840E-06,-0.152
2.850E-06,-0.028
2.860E-06,0.124
2.870E-06,0.112
2.880E-06,0.044
2.890E-06,-0.060
2.900E-06,-0.096
2.910E-06,-0.076
2.920E-06,-0.020
2.930E-06,0.088
2.940E-06,0.164
2.950E-06,0.208
2.960E-06,0.132
2.970E-06,0.048
2.980E-06,-0.104
2.990E-06,-0.112
3.000E-06,-0.048
3.010E-06,0.104
3.020E-06,0.200
3.030E-06,0.204
3.040E-06,0.136
3.050E-06,0.012
3.060E-06,-0.052
3.070E-06,-0.092
3.080E-06,-0.048
3.090E-06,0.072
3.100E-06,0.188
3.110E-06,0.188
3.120E-06,0.172
3.130E-06,0.100
3.140E-06,-0.004
3.150E-06,-0.032
3.160E-06,-0.020
3.170E-06,0.060
3.180E-06,0.128
3.190E-06,0.172
3.200E-06,0.144
3.210E-06,0.112
