mediciones/5-15/10/WaveData47282.csv

#timebase=2000000(ps)
,#voltbase=500000(mv/100)
#size=4000
-8.400E-06,0.060
-8.390E-06,0.040
-8.380E-06,0.080
-8.370E-06,0.040
-8.360E-06,0.060
-8.350E-06,0.080
-8.340E-06,0.040
-8.330E-06,0.040
-8.320E-06,0.060
-8.310E-06,0.060
-8.300E-06,0.040
-8.290E-06,0.020
-8.280E-06,0.040
-8.270E-06,0.060
-8.260E-06,0.040
-8.250E-06,0.040
-8.240E-06,0.080
-8.230E-06,0.040
-8.220E-06,0.020
-8.210E-06,0.040
-8.200E-06,0.040
-8.190E-06,0.020
-8.180E-06,0.040
-8.170E-06,0.060
-8.160E-06,0.040
-8.150E-06,0.060
-8.140E-06,0.040
-8.130E-06,0.040
-8.120E-06,0.060
-8.110E-06,0.060
-8.100E-06,0.020
-8.090E-06,0.060
-8.080E-06,0.040
-8.070E-06,0.040
-8.060E-06,0.060
-8.050E-06,0.040
-8.040E-06,0.020
-8.030E-06,0.060
-8.020E-06,0.040
-8.010E-06,0.060
-8.000E-06,0.060
-7.990E-06,0.080
-7.980E-06,0.040
-7.970E-06,0.080
-7.960E-06,0.020
-7.950E-06,0.020
-7.940E-06,0.060
-7.930E-06,0.040
-7.920E-06,0.040
-7.910E-06,0.060
-7.900E-06,0.020
-7.890E-06,0.060
-7.880E-06,0.060
-7.870E-06,0.080
-7.860E-06,0.040
-7.850E-06,0.040
-7.840E-06,0.080
-7.830E-06,0.040
-7.820E-06,0.040
-7.810E-06,0.060
-7.800E-06,0.060
-7.790E-06,0.060
-7.780E-06,0.080
-7.770E-06,0.060
-7.760E-06,0.040
-7.750E-06,0.040
-7.740E-06,0.060
-7.730E-06,0.020
-7.720E-06,0.040
-7.710E-06,0.060
-7.700E-06,0.060
-7.690E-06,0.080
-7.680E-06,0.060
-7.670E-06,0.040
-7.660E-06,0.020
-7.650E-06,0.060
-7.640E-06,0.080
-7.630E-06,0.020
-7.620E-06,0.060
-7.610E-06,0.040
-7.600E-06,0.080
-7.590E-06,0.060
-7.580E-06,0.040
-7.570E-06,0.040
-7.560E-06,0.040
-7.550E-06,0.020
-7.540E-06,0.060
-7.530E-06,0.040
-7.520E-06,0.060
-7.510E-06,0.040
-7.500E-06,0.060
-7.490E-06,0.060
-7.480E-06,0.080
-7.470E-06,0.060
-7.460E-06,0.060
-7.450E-06,0.080
-7.440E-06,0.060
-7.430E-06,0.040
-7.420E-06,0.060
-7.410E-06,0.080
-7.400E-06,0.060
-7.390E-06,0.080
-7.380E-06,0.080
-7.370E-06,0.020
-7.360E-06,0.020
-7.350E-06,0.060
-7.340E-06,0.020
-7.330E-06,0.040
-7.320E-06,0.060
-7.310E-06,0.040
-7.300E-06,0.040
-7.290E-06,0.060
-7.280E-06,0.080
-7.270E-06,0.060
-7.260E-06,0.040
-7.250E-06,0.060
-7.240E-06,0.040
-7.230E-06,0.060
-7.220E-06,0.040
-7.210E-06,0.040
-7.200E-06,0.040
-7.190E-06,0.060
-7.180E-06,0.040
-7.170E-06,0.060
-7.160E-06,0.080
-7.150E-06,0.040
-7.140E-06,0.040
-7.130E-06,0.060
-7.120E-06,0.060
-7.110E-06,0.040
-7.100E-06,0.040
-7.090E-06,0.060
-7.080E-06,0.060
-7.070E-06,0.060
-7.060E-06,0.080
-7.050E-06,0.060
-7.040E-06,0.040
-7.030E-06,0.060
-7.020E-06,0.040
-7.010E-06,0.060
-7.000E-06,0.040
-6.990E-06,0.060
-6.980E-06,0.080
-6.970E-06,0.060
-6.960E-06,0.040
-6.950E-06,0.060
-6.940E-06,0.040
-6.930E-06,0.060
-6.920E-06,0.040
-6.910E-06,0.060
-6.900E-06,0.040
-6.890E-06,0.060
-6.880E-06,0.080
-6.870E-06,0.040
-6.860E-06,0.040
-6.850E-06,0.080
-6.840E-06,0.040
-6.830E-06,0.060
-6.820E-06,0.060
-6.810E-06,0.080
-6.800E-06,0.060
-6.790E-06,0.040
-6.780E-06,0.060
-6.770E-06,0.080
-6.760E-06,0.060
-6.750E-06,0.040
-6.740E-06,0.060
-6.730E-06,0.080
-6.720E-06,0.040
-6.710E-06,0.040
-6.700E-06,0.060
-6.690E-06,0.040
-6.680E-06,0.040
-6.670E-06,0.060
-6.660E-06,0.040
-6.650E-06,0.060
-6.640E-06,0.040
-6.630E-06,0.020
-6.620E-06,0.040
-6.610E-06,0.060
-6.600E-06,0.040
-6.590E-06,0.060
-6.580E-06,0.020
-6.570E-06,0.040
-6.560E-06,0.060
-6.550E-06,0.060
-6.540E-06,0.020
-6.530E-06,0.040
-6.520E-06,0.020
-6.510E-06,0.060
-6.500E-06,0.040
-6.490E-06,0.040
-6.480E-06,0.080
-6.470E-06,0.040
-6.460E-06,0.040
-6.450E-06,0.060
-6.440E-06,0.060
-6.430E-06,0.080
-6.420E-06,0.020
-6.410E-06,0.020
-6.400E-06,0.040
-6.390E-06,0.060
-6.380E-06,0.060
-6.370E-06,0.040
-6.360E-06,0.060
-6.350E-06,0.080
-6.340E-06,0.060
-6.330E-06,0.040
-6.320E-06,0.060
-6.310E-06,0.040
-6.300E-06,0.040
-6.290E-06,0.060
-6.280E-06,0.080
-6.270E-06,0.040
-6.260E-06,0.060
-6.250E-06,0.080
-6.240E-06,0.060
-6.230E-06,0.060
-6.220E-06,0.060
-6.210E-06,0.040
-6.200E-06,0.040
-6.190E-06,0.040
-6.180E-06,0.040
-6.170E-06,0.060
-6.160E-06,0.040
-6.150E-06,0.040
-6.140E-06,0.040
-6.130E-06,0.060
-6.120E-06,0.020
-6.110E-06,0.060
-6.100E-06,0.020
-6.090E-06,0.040
-6.080E-06,0.060
-6.070E-06,0.040
-6.060E-06,0.060
-6.050E-06,0.040
-6.040E-06,0.020
-6.030E-06,0.020
-6.020E-06,0.040
-6.010E-06,0.060
-6.000E-06,0.060
-5.990E-06,0.060
-5.980E-06,0.060
-5.970E-06,0.060
-5.960E-06,0.080
-5.950E-06,0.020
-5.940E-06,0.040
-5.930E-06,0.060
-5.920E-06,0.080
-5.910E-06,0.060
-5.900E-06,0.040
-5.890E-06,0.060
-5.880E-06,0.040
-5.870E-06,0.040
-5.860E-06,0.060
-5.850E-06,0.060
-5.840E-06,0.060
-5.830E-06,0.040
-5.820E-06,0.020
-5.810E-06,0.060
-5.800E-06,0.060
-5.790E-06,0.080
-5.780E-06,0.020
-5.770E-06,0.020
-5.760E-06,0.040
-5.750E-06,0.020
-5.740E-06,0.040
-5.730E-06,0.020
-5.720E-06,0.060
-5.710E-06,0.020
-5.700E-06,0.040
-5.690E-06,0.040
-5.680E-06,0.040
-5.670E-06,0.060
-5.660E-06,0.040
-5.650E-06,0.040
-5.640E-06,0.080
-5.630E-06,0.060
-5.620E-06,0.040
-5.610E-06,0.060
-5.600E-06,0.060
-5.590E-06,0.080
-5.580E-06,0.080
-5.570E-06,0.080
-5.560E-06,0.080
-5.550E-06,0.040
-5.540E-06,0.060
-5.530E-06,0.080
-5.520E-06,0.060
-5.510E-06,0.040
-5.500E-06,0.040
-5.490E-06,0.020
-5.480E-06,0.060
-5.470E-06,0.080
-5.460E-06,0.080
-5.450E-06,0.040
-5.440E-06,0.020
-5.430E-06,0.040
-5.420E-06,0.080
-5.410E-06,0.060
-5.400E-06,0.080
-5.390E-06,0.080
-5.380E-06,0.040
-5.370E-06,0.040
-5.360E-06,0.060
-5.350E-06,0.060
-5.340E-06,0.060
-5.330E-06,0.040
-5.320E-06,0.080
-5.310E-06,0.060
-5.300E-06,0.040
-5.290E-06,0.040
-5.280E-06,0.060
-5.270E-06,0.020
-5.260E-06,0.060
-5.250E-06,0.040
-5.240E-06,0.040
-5.230E-06,0.040
-5.220E-06,0.060
-5.210E-06,0.040
-5.200E-06,0.060
-5.190E-06,0.040
-5.180E-06,0.060
-5.170E-06,0.060
-5.160E-06,0.060
-5.150E-06,0.020
-5.140E-06,0.020
-5.130E-06,0.060
-5.120E-06,0.040
-5.110E-06,0.080
-5.100E-06,0.040
-5.090E-06,0.020
-5.080E-06,0.040
-5.070E-06,0.020
-5.060E-06,0.040
-5.050E-06,0.060
-5.040E-06,0.080
-5.030E-06,0.040
-5.020E-06,0.060
-5.010E-06,0.060
-5.000E-06,0.080
-4.990E-06,0.060
-4.980E-06,0.040
-4.970E-06,0.100
-4.960E-06,0.040
-4.950E-06,0.060
-4.940E-06,0.040
-4.930E-06,0.060
-4.920E-06,0.040
-4.910E-06,0.040
-4.900E-06,0.040
-4.890E-06,0.060
-4.880E-06,0.060
-4.870E-06,0.060
-4.860E-06,0.020
-4.850E-06,0.040
-4.840E-06,0.060
-4.830E-06,0.060
-4.820E-06,0.040
-4.810E-06,0.060
-4.800E-06,0.020
-4.790E-06,0.040
-4.780E-06,0.060
-4.770E-06,0.040
-4.760E-06,0.020
-4.750E-06,0.040
-4.740E-06,0.020
-4.730E-06,0.040
-4.720E-06,0.060
-4.710E-06,0.060
-4.700E-06,0.080
-4.690E-06,0.020
-4.680E-06,0.040
-4.670E-06,0.060
-4.660E-06,0.040
-4.650E-06,0.060
-4.640E-06,0.060
-4.630E-06,0.040
-4.620E-06,0.020
-4.610E-06,0.060
-4.600E-06,0.060
-4.590E-06,0.080
-4.580E-06,0.060
-4.570E-06,0.080
-4.560E-06,0.080
-4.550E-06,0.040
-4.540E-06,0.040
-4.530E-06,0.060
-4.520E-06,0.040
-4.510E-06,0.060
-4.500E-06,0.060
-4.490E-06,0.060
-4.480E-06,0.060
-4.470E-06,0.060
-4.460E-06,0.080
-4.450E-06,0.080
-4.440E-06,0.040
-4.430E-06,0.060
-4.420E-06,0.060
-4.410E-06,0.040
-4.400E-06,0.040
-4.390E-06,0.040
-4.380E-06,0.080
-4.370E-06,0.020
-4.360E-06,0.020
-4.350E-06,0.040
-4.340E-06,0.040
-4.330E-06,0.040
-4.320E-06,0.020
-4.310E-06,0.040
-4.300E-06,0.060
-4.290E-06,0.060
-4.280E-06,0.020
-4.270E-06,0.040
-4.260E-06,0.080
-4.250E-06,0.060
-4.240E-06,0.040
-4.230E-06,0.020
-4.220E-06,0.040
-4.210E-06,0.040
-4.200E-06,0.080
-4.190E-06,0.040
-4.180E-06,0.040
-4.170E-06,0.040
-4.160E-06,0.060
-4.150E-06,0.060
-4.140E-06,0.040
-4.130E-06,0.060
-4.120E-06,0.080
-4.110E-06,0.060
-4.100E-06,0.040
-4.090E-06,0.040
-4.080E-06,0.060
-4.070E-06,0.060
-4.060E-06,0.080
-4.050E-06,0.060
-4.040E-06,0.040
-4.030E-06,0.020
-4.020E-06,0.060
-4.010E-06,0.060
-4.000E-06,0.060
-3.990E-06,0.040
-3.980E-06,0.080
-3.970E-06,0.040
-3.960E-06,0.000
-3.950E-06,0.000
-3.940E-06,0.000
-3.930E-06,-0.020
-3.920E-06,-0.020
-3.910E-06,-0.020
-3.900E-06,0.000
-3.890E-06,-0.040
-3.880E-06,-0.060
-3.870E-06,-0.060
-3.860E-06,-0.080
-3.850E-06,-0.060
-3.840E-06,-0.080
-3.830E-06,-0.020
-3.820E-06,-0.040
-3.810E-06,-0.020
-3.800E-06,-0.020
-3.790E-06,0.000
-3.780E-06,0.000
-3.770E-06,0.020
-3.760E-06,0.020
-3.750E-06,0.020
-3.740E-06,0.020
-3.730E-06,0.060
-3.720E-06,0.060
-3.710E-06,0.080
-3.700E-06,0.080
-3.690E-06,0.100
-3.680E-06,0.080
-3.670E-06,0.080
-3.660E-06,0.080
-3.650E-06,0.040
-3.640E-06,0.060
-3.630E-06,0.060
-3.620E-06,0.060
-3.610E-06,0.060
-3.600E-06,0.040
-3.590E-06,0.040
-3.580E-06,0.020
-3.570E-06,0.000
-3.560E-06,0.000
-3.550E-06,0.000
-3.540E-06,-0.020
-3.530E-06,0.000
-3.520E-06,-0.020
-3.510E-06,-0.060
-3.500E-06,-0.020
-3.490E-06,-0.020
-3.480E-06,-0.040
-3.470E-06,-0.020
-3.460E-06,-0.040
-3.450E-06,-0.020
-3.440E-06,-0.020
-3.430E-06,0.000
-3.420E-06,0.000
-3.410E-06,-0.020
-3.400E-06,0.000
-3.390E-06,-0.020
-3.380E-06,0.000
-3.370E-06,-0.020
-3.360E-06,0.000
-3.350E-06,0.020
-3.340E-06,0.040
-3.330E-06,0.040
-3.320E-06,0.000
-3.310E-06,0.000
-3.300E-06,0.020
-3.290E-06,0.040
-3.280E-06,0.000
-3.270E-06,0.000
-3.260E-06,0.020
-3.250E-06,-0.020
-3.240E-06,0.000
-3.230E-06,0.000
-3.220E-06,0.000
-3.210E-06,0.000
-3.200E-06,0.000
-3.190E-06,-0.020
-3.180E-06,-0.040
-3.170E-06,-0.040
-3.160E-06,-0.060
-3.150E-06,-0.060
-3.140E-06,-0.040
-3.130E-06,-0.080
-3.120E-06,-0.120
-3.110E-06,-0.120
-3.100E-06,-0.120
-3.090E-06,-0.100
-3.080E-06,-0.080
-3.070E-06,-0.060
-3.060E-06,-0.100
-3.050E-06,-0.120
-3.040E-06,-0.080
-3.030E-06,-0.100
-3.020E-06,-0.080
-3.010E-06,-0.120
-3.000E-06,-0.120
-2.990E-06,-0.140
-2.980E-06,-0.120
-2.970E-06,-0.120
-2.960E-06,-0.100
-2.950E-06,-0.100
-2.940E-06,-0.120
-2.930E-06,-0.120
-2.920E-06,-0.160
-2.910E-06,-0.180
-2.900E-06,-0.160
-2.890E-06,-0.180
-2.880E-06,-0.180
-2.870E-06,-0.200
-2.860E-06,-0.220
-2.850E-06,-0.240
-2.840E-06,-0.260
-2.830E-06,-0.260
-2.820E-06,-0.300
-2.810E-06,-0.300
-2.800E-06,-0.320
-2.790E-06,-0.300
-2.780E-06,-0.300
-2.770E-06,-0.300
-2.760E-06,-0.280
-2.750E-06,-0.280
-2.740E-06,-0.240
-2.730E-06,-0.240
-2.720E-06,-0.220
-2.710E-06,-0.220
-2.700E-06,-0.220
-2.690E-06,-0.220
-2.680E-06,-0.220
-2.670E-06,-0.200
-2.660E-06,-0.220
-2.650E-06,-0.240
-2.640E-06,-0.240
-2.630E-06,-0.220
-2.620E-06,-0.260
-2.610E-06,-0.220
-2.600E-06,-0.240
-2.590E-06,-0.240
-2.580E-06,-0.220
-2.570E-06,-0.220
-2.560E-06,-0.220
-2.550E-06,-0.200
-2.540E-06,-0.220
-2.530E-06,-0.200
-2.520E-06,-0.180
-2.510E-06,-0.220
-2.500E-06,-0.200
-2.490E-06,-0.160
-2.480E-06,-0.180
-2.470E-06,-0.200
-2.460E-06,-0.180
-2.450E-06,-0.220
-2.440E-06,-0.240
-2.430E-06,-0.260
-2.420E-06,-0.280
-2.410E-06,-0.300
-2.400E-06,-0.340
-2.390E-06,-0.340
-2.380E-06,-0.380
-2.370E-06,-0.400
-2.360E-06,-0.400
-2.350E-06,-0.420
-2.340E-06,-0.440
-2.330E-06,-0.420
-2.320E-06,-0.460
-2.310E-06,-0.440
-2.300E-06,-0.460
-2.290E-06,-0.440
-2.280E-06,-0.480
-2.270E-06,-0.480
-2.260E-06,-0.440
-2.250E-06,-0.440
-2.240E-06,-0.460
-2.230E-06,-0.460
-2.220E-06,-0.480
-2.210E-06,-0.520
-2.200E-06,-0.540
-2.190E-06,-0.520
-2.180E-06,-0.520
-2.170E-06,-0.500
-2.160E-06,-0.460
-2.150E-06,-0.400
-2.140E-06,-0.360
-2.130E-06,-0.360
-2.120E-06,-0.380
-2.110E-06,-0.400
-2.100E-06,-0.420
-2.090E-06,-0.380
-2.080E-06,-0.460
-2.070E-06,-0.480
-2.060E-06,-0.500
-2.050E-06,-0.580
-2.040E-06,-0.560
-2.030E-06,-0.540
-2.020E-06,-0.620
-2.010E-06,-0.620
-2.000E-06,-0.700
-1.990E-06,-0.760
-1.980E-06,-0.780
-1.970E-06,-0.800
-1.960E-06,-0.900
-1.950E-06,-1.020
-1.940E-06,-1.080
-1.930E-06,-1.120
-1.920E-06,-1.200
-1.910E-06,-1.220
-1.900E-06,-1.340
-1.890E-06,-1.340
-1.880E-06,-1.480
-1.870E-06,-1.500
-1.860E-06,-1.520
-1.850E-06,-1.540
-1.840E-06,-1.560
-1.830E-06,-1.580
-1.820E-06,-1.620
-1.810E-06,-1.620
-1.800E-06,-1.660
-1.790E-06,-1.640
-1.780E-06,-1.640
-1.770E-06,-1.600
-1.760E-06,-1.580
-1.750E-06,-1.580
-1.740E-06,-1.480
-1.730E-06,-1.560
-1.720E-06,-1.520
-1.710E-06,-1.520
-1.700E-06,-1.480
-1.690E-06,-1.440
-1.680E-06,-1.440
-1.670E-06,-1.360
-1.660E-06,-1.260
-1.650E-06,-1.120
-1.640E-06,-1.040
-1.630E-06,-0.920
-1.620E-06,-0.880
-1.610E-06,-0.760
-1.600E-06,-0.600
-1.590E-06,-0.440
-1.580E-06,-0.280
-1.570E-06,-0.320
-1.560E-06,-0.440
-1.550E-06,-0.680
-1.540E-06,-0.660
-1.530E-06,-0.600
-1.520E-06,-0.440
-1.510E-06,-0.420
-1.500E-06,-0.540
-1.490E-06,-0.580
-1.480E-06,-0.600
-1.470E-06,-0.560
-1.460E-06,-0.520
-1.450E-06,-0.580
-1.440E-06,-0.580
-1.430E-06,-0.680
-1.420E-06,-0.700
-1.410E-06,-0.720
-1.400E-06,-0.660
-1.390E-06,-0.540
-1.380E-06,-0.520
-1.370E-06,-0.520
-1.360E-06,-0.540
-1.350E-06,-0.560
-1.340E-06,-0.560
-1.330E-06,-0.600
-1.320E-06,-0.580
-1.310E-06,-0.540
-1.300E-06,-0.640
-1.290E-06,-0.620
-1.280E-06,-0.660
-1.270E-06,-0.660
-1.260E-06,-0.600
-1.250E-06,-0.640
-1.240E-06,-0.660
-1.230E-06,-0.780
-1.220E-06,-0.880
-1.210E-06,-0.880
-1.200E-06,-0.840
-1.190E-06,-0.840
-1.180E-06,-0.860
-1.170E-06,-0.940
-1.160E-06,-0.880
-1.150E-06,-0.840
-1.140E-06,-0.800
-1.130E-06,-0.740
-1.120E-06,-0.800
-1.110E-06,-0.720
-1.100E-06,-0.600
-1.090E-06,-0.500
-1.080E-06,-0.260
-1.070E-06,-0.260
-1.060E-06,-0.220
-1.050E-06,-0.180
-1.040E-06,-0.240
-1.030E-06,-0.220
-1.020E-06,-0.280
-1.010E-06,-0.340
-1.000E-06,-0.420
-9.900E-07,-0.560
-9.800E-07,-0.640
-9.700E-07,-0.700
-9.600E-07,-0.700
-9.500E-07,-0.760
-9.400E-07,-0.760
-9.300E-07,-0.820
-9.200E-07,-0.840
-9.100E-07,-0.820
-9.000E-07,-0.860
-8.900E-07,-0.840
-8.800E-07,-0.800
-8.700E-07,-0.820
-8.600E-07,-0.760
-8.500E-07,-0.780
-8.400E-07,-0.720
-8.300E-07,-0.700
-8.200E-07,-0.780
-8.100E-07,-0.800
-8.000E-07,-0.840
-7.900E-07,-0.900
-7.800E-07,-0.920
-7.700E-07,-0.860
-7.600E-07,-0.840
-7.500E-07,-0.860
-7.400E-07,-0.860
-7.300E-07,-1.040
-7.200E-07,-0.940
-7.100E-07,-1.080
-7.000E-07,-1.060
-6.900E-07,-1.120
-6.800E-07,-1.160
-6.700E-07,-1.220
-6.600E-07,-1.140
-6.500E-07,-1.200
-6.400E-07,-1.080
-6.300E-07,-1.080
-6.200E-07,-1.040
-6.100E-07,-1.020
-6.000E-07,-1.040
-5.900E-07,-1.040
-5.800E-07,-1.120
-5.700E-07,-1.060
-5.600E-07,-1.140
-5.500E-07,-1.100
-5.400E-07,-1.080
-5.300E-07,-1.100
-5.200E-07,-1.140
-5.100E-07,-1.120
-5.000E-07,-1.240
-4.900E-07,-1.280
-4.800E-07,-1.440
-4.700E-07,-1.420
-4.600E-07,-1.420
-4.500E-07,-1.380
-4.400E-07,-1.340
-4.300E-07,-1.260
-4.200E-07,-1.220
-4.100E-07,-1.140
-4.000E-07,-1.140
-3.900E-07,-1.080
-3.800E-07,-1.060
-3.700E-07,-1.040
-3.600E-07,-1.020
-3.500E-07,-1.020
-3.400E-07,-1.020
-3.300E-07,-1.080
-3.200E-07,-1.100
-3.100E-07,-1.120
-3.000E-07,-1.100
-2.900E-07,-1.160
-2.800E-07,-1.160
-2.700E-07,-1.220
-2.600E-07,-1.240
-2.500E-07,-1.220
-2.400E-07,-1.260
-2.300E-07,-1.240
-2.200E-07,-1.240
-2.100E-07,-1.240
-2.000E-07,-1.240
-1.900E-07,-1.200
-1.800E-07,-1.220
-1.700E-07,-1.260
-1.600E-07,-1.240
-1.500E-07,-1.240
-1.400E-07,-1.220
-1.300E-07,-1.280
-1.200E-07,-1.340
-1.100E-07,-1.400
-1.000E-07,-1.400
-9.000E-08,-1.160
-8.000E-08,-1.460
-7.000E-08,-1.460
-6.000E-08,-1.840
-5.000E-08,-1.920
-4.000E-08,-1.560
-3.000E-08,-1.140
-2.000E-08,-0.940
-1.000E-08,-1.100
0.000E+00,-1.700
1.000E-08,-2.020
2.000E-08,-2.240
3.000E-08,-1.500
4.000E-08,-1.380
5.000E-08,-1.080
6.000E-08,-1.680
7.000E-08,-1.940
8.000E-08,-1.980
9.000E-08,-1.840
1.000E-07,-1.560
1.100E-07,-1.540
1.200E-07,-1.520
1.300E-07,-1.700
1.400E-07,-1.620
1.500E-07,-1.860
1.600E-07,-2.000
1.700E-07,-1.960
1.800E-07,-2.180
1.900E-07,-1.660
2.000E-07,-1.420
2.100E-07,-0.980
2.200E-07,-1.040
2.300E-07,-0.880
2.400E-07,-1.180
2.500E-07,-1.140
2.600E-07,-1.200
2.700E-07,-1.060
2.800E-07,-1.080
2.900E-07,-1.080
3.000E-07,-1.180
3.100E-07,-1.240
3.200E-07,-1.180
3.300E-07,-1.120
3.400E-07,-1.040
3.500E-07,-0.960
3.600E-07,-0.920
3.700E-07,-0.760
3.800E-07,-0.760
3.900E-07,-0.840
4.000E-07,-0.960
4.100E-07,-1.040
4.200E-07,-1.100
4.300E-07,-1.060
4.400E-07,-0.960
4.500E-07,-1.020
4.600E-07,-1.000
4.700E-07,-1.060
4.800E-07,-1.100
4.900E-07,-1.080
5.000E-07,-1.000
5.100E-07,-0.740
5.200E-07,-0.580
5.300E-07,-0.240
5.400E-07,-0.240
5.500E-07,-0.120
5.600E-07,-0.120
5.700E-07,-0.040
5.800E-07,-0.020
5.900E-07,-0.120
6.000E-07,-0.180
6.100E-07,-0.240
6.200E-07,-0.400
6.300E-07,-0.420
6.400E-07,-0.600
6.500E-07,-0.720
6.600E-07,-0.880
6.700E-07,-0.940
6.800E-07,-1.080
6.900E-07,-1.220
7.000E-07,-1.500
7.100E-07,-1.720
7.200E-07,-1.900
7.300E-07,-2.000
7.400E-07,-2.060
7.500E-07,-2.160
7.600E-07,-2.260
7.700E-07,-2.260
7.800E-07,-2.220
7.900E-07,-2.220
8.000E-07,-2.260
8.100E-07,-2.240
8.200E-07,-2.340
8.300E-07,-2.320
8.400E-07,-2.380
8.500E-07,-2.380
8.600E-07,-2.460
8.700E-07,-2.520
8.800E-07,-2.580
8.900E-07,-2.620
9.000E-07,-2.640
9.100E-07,-2.660
9.200E-07,-2.660
9.300E-07,-2.660
9.400E-07,-2.660
9.500E-07,-2.660
9.600E-07,-2.660
9.700E-07,-2.660
9.800E-07,-2.660
9.900E-07,-2.660
1.000E-06,-2.640
1.010E-06,-2.620
1.020E-06,-2.520
1.030E-06,-2.460
1.040E-06,-2.360
1.050E-06,-2.420
1.060E-06,-2.460
1.070E-06,-2.500
1.080E-06,-2.540
1.090E-06,-2.580
1.100E-06,-2.480
1.110E-06,-2.540
1.120E-06,-2.580
1.130E-06,-2.640
1.140E-06,-2.640
1.150E-06,-2.640
1.160E-06,-2.660
1.170E-06,-2.660
1.180E-06,-2.660
1.190E-06,-2.640
1.200E-06,-2.660
1.210E-06,-2.660
1.220E-06,-2.660
1.230E-06,-2.660
1.240E-06,-2.660
1.250E-06,-2.660
1.260E-06,-2.560
1.270E-06,-2.580
1.280E-06,-2.480
1.290E-06,-2.240
1.300E-06,-2.200
1.310E-06,-2.100
1.320E-06,-1.880
1.330E-06,-1.560
1.340E-06,-1.420
1.350E-06,-1.180
1.360E-06,-1.180
1.370E-06,-1.100
1.380E-06,-1.100
1.390E-06,-1.180
1.400E-06,-1.120
1.410E-06,-1.360
1.420E-06,-1.380
1.430E-06,-1.600
1.440E-06,-1.720
1.450E-06,-1.980
1.460E-06,-2.080
1.470E-06,-2.300
1.480E-06,-2.340
1.490E-06,-2.460
1.500E-06,-2.400
1.510E-06,-2.380
1.520E-06,-2.280
1.530E-06,-2.300
1.540E-06,-2.200
1.550E-06,-2.200
1.560E-06,-2.120
1.570E-06,-2.100
1.580E-06,-2.060
1.590E-06,-1.980
1.600E-06,-1.860
1.610E-06,-1.660
1.620E-06,-1.520
1.630E-06,-1.400
1.640E-06,-1.220
1.650E-06,-1.120
1.660E-06,-0.960
1.670E-06,-0.840
1.680E-06,-0.800
1.690E-06,-0.760
1.700E-06,-0.700
1.710E-06,-0.660
1.720E-06,-0.700
1.730E-06,-0.660
1.740E-06,-0.660
1.750E-06,-0.620
1.760E-06,-0.580
1.770E-06,-0.540
1.780E-06,-0.560
1.790E-06,-0.500
1.800E-06,-0.500
1.810E-06,-0.480
1.820E-06,-0.380
1.830E-06,-0.240
1.840E-06,-0.080
1.850E-06,0.040
1.860E-06,0.100
1.870E-06,0.160
1.880E-06,0.220
1.890E-06,0.260
1.900E-06,0.400
1.910E-06,0.540
1.920E-06,0.680
1.930E-06,0.840
1.940E-06,0.960
1.950E-06,1.080
1.960E-06,1.080
1.970E-06,1.000
1.980E-06,0.920
1.990E-06,0.840
2.000E-06,0.780
2.010E-06,0.800
2.020E-06,0.700
2.030E-06,0.660
2.040E-06,0.560
2.050E-06,0.520
2.060E-06,0.420
2.070E-06,0.200
2.080E-06,-0.020
2.090E-06,-0.240
2.100E-06,-0.360
2.110E-06,-0.540
2.120E-06,-0.600
2.130E-06,-0.700
2.140E-06,-0.760
2.150E-06,-0.860
2.160E-06,-0.940
2.170E-06,-1.040
2.180E-06,-1.160
2.190E-06,-1.260
2.200E-06,-1.340
2.210E-06,-1.420
2.220E-06,-1.480
2.230E-06,-1.480
2.240E-06,-1.540
2.250E-06,-1.560
2.260E-06,-1.640
2.270E-06,-1.720
2.280E-06,-1.820
2.290E-06,-1.940
2.300E-06,-2.100
2.310E-06,-2.240
2.320E-06,-2.360
2.330E-06,-2.520
2.340E-06,-2.660
2.350E-06,-2.660
2.360E-06,-2.640
2.370E-06,-2.660
2.380E-06,-2.660
2.390E-06,-2.660
2.400E-06,-2.640
2.410E-06,-2.660
2.420E-06,-2.660
2.430E-06,-2.680
2.440E-06,-2.680
2.450E-06,-2.680
2.460E-06,-2.660
2.470E-06,-2.660
2.480E-06,-2.660
2.490E-06,-2.660
2.500E-06,-2.680
2.510E-06,-2.680
2.520E-06,-2.680
2.530E-06,-2.660
2.540E-06,-2.660
2.550E-06,-2.660
2.560E-06,-2.660
2.570E-06,-2.680
2.580E-06,-2.460
2.590E-06,-2.260
2.600E-06,-2.020
2.610E-06,-1.820
2.620E-06,-1.620
2.630E-06,-1.420
2.640E-06,-1.200
2.650E-06,-1.040
2.660E-06,-0.840
2.670E-06,-0.660
2.680E-06,-0.540
2.690E-06,-0.400
2.700E-06,-0.260
2.710E-06,-0.180
2.720E-06,-0.060
2.730E-06,0.000
2.740E-06,0.040
2.750E-06,0.080
2.760E-06,0.160
2.770E-06,0.200
2.780E-06,0.220
2.790E-06,0.240
2.800E-06,0.220
2.810E-06,0.220
2.820E-06,0.180
2.830E-06,0.160
2.840E-06,0.120
2.850E-06,0.120
2.860E-06,0.100
2.870E-06,0.060
2.880E-06,0.080
2.890E-06,0.060
2.900E-06,0.060
2.910E-06,0.100
2.920E-06,0.160
2.930E-06,0.180
2.940E-06,0.220
2.950E-06,0.260
2.960E-06,0.320
2.970E-06,0.360
2.980E-06,0.420
2.990E-06,0.420
3.000E-06,0.460
3.010E-06,0.520
3.020E-06,0.500
3.030E-06,0.500
3.040E-06,0.500
3.050E-06,0.520
3.060E-06,0.520
3.070E-06,0.500
3.080E-06,0.500
3.090E-06,0.520
3.100E-06,0.520
3.110E-06,0.500
3.120E-06,0.520
3.130E-06,0.480
3.140E-06,0.440
3.150E-06,0.420
