mediciones/5-15/10/WaveData47299.csv

#timebase=2000000(ps)
,#voltbase=100000(mv/100)
#size=4000
-8.400E-06,0.004
-8.390E-06,0.004
-8.380E-06,-0.008
-8.370E-06,-0.004
-8.360E-06,0.000
-8.350E-06,0.004
-8.340E-06,0.008
-8.330E-06,0.008
-8.320E-06,0.004
-8.310E-06,0.000
-8.300E-06,0.000
-8.290E-06,0.000
-8.280E-06,0.004
-8.270E-06,-0.004
-8.260E-06,0.004
-8.250E-06,0.008
-8.240E-06,0.004
-8.230E-06,0.008
-8.220E-06,0.004
-8.210E-06,0.000
-8.200E-06,-0.004
-8.190E-06,-0.004
-8.180E-06,0.004
-8.170E-06,0.000
-8.160E-06,0.008
-8.150E-06,0.000
-8.140E-06,0.000
-8.130E-06,0.000
-8.120E-06,0.000
-8.110E-06,0.004
-8.100E-06,0.004
-8.090E-06,0.008
-8.080E-06,0.008
-8.070E-06,0.012
-8.060E-06,0.008
-8.050E-06,0.004
-8.040E-06,0.004
-8.030E-06,0.004
-8.020E-06,-0.004
-8.010E-06,0.004
-8.000E-06,0.008
-7.990E-06,0.004
-7.980E-06,0.008
-7.970E-06,-0.004
-7.960E-06,0.000
-7.950E-06,0.000
-7.940E-06,0.004
-7.930E-06,0.008
-7.920E-06,0.008
-7.910E-06,0.004
-7.900E-06,0.000
-7.890E-06,0.004
-7.880E-06,-0.004
-7.870E-06,-0.004
-7.860E-06,0.000
-7.850E-06,0.008
-7.840E-06,0.004
-7.830E-06,0.004
-7.820E-06,0.000
-7.810E-06,-0.004
-7.800E-06,0.000
-7.790E-06,0.004
-7.780E-06,0.000
-7.770E-06,0.008
-7.760E-06,0.004
-7.750E-06,0.000
-7.740E-06,0.004
-7.730E-06,0.004
-7.720E-06,0.000
-7.710E-06,-0.004
-7.700E-06,0.000
-7.690E-06,0.000
-7.680E-06,0.004
-7.670E-06,0.004
-7.660E-06,0.008
-7.650E-06,0.004
-7.640E-06,0.000
-7.630E-06,0.000
-7.620E-06,0.000
-7.610E-06,0.008
-7.600E-06,0.012
-7.590E-06,0.004
-7.580E-06,0.004
-7.570E-06,-0.004
-7.560E-06,0.004
-7.550E-06,0.000
-7.540E-06,-0.004
-7.530E-06,0.000
-7.520E-06,0.008
-7.510E-06,-0.004
-7.500E-06,0.000
-7.490E-06,0.008
-7.480E-06,-0.004
-7.470E-06,-0.004
-7.460E-06,-0.004
-7.450E-06,0.004
-7.440E-06,0.000
-7.430E-06,0.004
-7.420E-06,0.000
-7.410E-06,0.004
-7.400E-06,0.012
-7.390E-06,-0.008
-7.380E-06,0.000
-7.370E-06,0.000
-7.360E-06,-0.004
-7.350E-06,0.004
-7.340E-06,0.008
-7.330E-06,0.008
-7.320E-06,0.000
-7.310E-06,0.000
-7.300E-06,0.000
-7.290E-06,0.000
-7.280E-06,-0.004
-7.270E-06,0.004
-7.260E-06,0.008
-7.250E-06,0.000
-7.240E-06,0.008
-7.230E-06,0.008
-7.220E-06,0.000
-7.210E-06,-0.004
-7.200E-06,0.000
-7.190E-06,0.000
-7.180E-06,0.012
-7.170E-06,0.008
-7.160E-06,0.004
-7.150E-06,0.000
-7.140E-06,0.000
-7.130E-06,-0.004
-7.120E-06,-0.004
-7.110E-06,0.004
-7.100E-06,0.008
-7.090E-06,0.012
-7.080E-06,0.004
-7.070E-06,0.000
-7.060E-06,0.000
-7.050E-06,-0.004
-7.040E-06,-0.008
-7.030E-06,0.000
-7.020E-06,0.004
-7.010E-06,0.008
-7.000E-06,0.004
-6.990E-06,0.000
-6.980E-06,-0.008
-6.970E-06,0.004
-6.960E-06,0.000
-6.950E-06,0.000
-6.940E-06,0.004
-6.930E-06,0.004
-6.920E-06,0.004
-6.910E-06,0.004
-6.900E-06,0.004
-6.890E-06,0.000
-6.880E-06,0.000
-6.870E-06,-0.004
-6.860E-06,0.008
-6.850E-06,0.004
-6.840E-06,0.004
-6.830E-06,0.004
-6.820E-06,0.004
-6.810E-06,0.004
-6.800E-06,0.000
-6.790E-06,0.000
-6.780E-06,0.000
-6.770E-06,0.004
-6.760E-06,0.004
-6.750E-06,0.008
-6.740E-06,0.004
-6.730E-06,0.004
-6.720E-06,0.008
-6.710E-06,-0.004
-6.700E-06,0.004
-6.690E-06,0.008
-6.680E-06,0.004
-6.670E-06,0.004
-6.660E-06,-0.004
-6.650E-06,0.000
-6.640E-06,0.000
-6.630E-06,0.004
-6.620E-06,0.008
-6.610E-06,0.008
-6.600E-06,0.012
-6.590E-06,0.008
-6.580E-06,0.004
-6.570E-06,-0.004
-6.560E-06,-0.004
-6.550E-06,0.004
-6.540E-06,0.004
-6.530E-06,0.008
-6.520E-06,0.000
-6.510E-06,0.008
-6.500E-06,0.004
-6.490E-06,0.004
-6.480E-06,-0.004
-6.470E-06,-0.004
-6.460E-06,0.000
-6.450E-06,0.008
-6.440E-06,0.008
-6.430E-06,0.008
-6.420E-06,0.004
-6.410E-06,-0.004
-6.400E-06,0.000
-6.390E-06,0.000
-6.380E-06,0.000
-6.370E-06,0.000
-6.360E-06,0.012
-6.350E-06,0.012
-6.340E-06,0.008
-6.330E-06,0.000
-6.320E-06,-0.004
-6.310E-06,0.000
-6.300E-06,0.004
-6.290E-06,0.008
-6.280E-06,0.004
-6.270E-06,0.004
-6.260E-06,0.004
-6.250E-06,0.000
-6.240E-06,0.004
-6.230E-06,0.004
-6.220E-06,0.000
-6.210E-06,0.008
-6.200E-06,0.004
-6.190E-06,0.008
-6.180E-06,0.000
-6.170E-06,0.000
-6.160E-06,0.000
-6.150E-06,0.000
-6.140E-06,0.004
-6.130E-06,0.008
-6.120E-06,0.008
-6.110E-06,0.012
-6.100E-06,0.000
-6.090E-06,0.004
-6.080E-06,0.000
-6.070E-06,0.000
-6.060E-06,0.004
-6.050E-06,0.008
-6.040E-06,0.008
-6.030E-06,0.004
-6.020E-06,0.004
-6.010E-06,0.000
-6.000E-06,0.000
-5.990E-06,0.000
-5.980E-06,0.008
-5.970E-06,0.004
-5.960E-06,0.000
-5.950E-06,0.004
-5.940E-06,0.004
-5.930E-06,0.000
-5.920E-06,0.000
-5.910E-06,0.004
-5.900E-06,0.000
-5.890E-06,0.004
-5.880E-06,0.000
-5.870E-06,0.004
-5.860E-06,0.004
-5.850E-06,0.004
-5.840E-06,0.004
-5.830E-06,0.012
-5.820E-06,0.008
-5.810E-06,0.004
-5.800E-06,0.008
-5.790E-06,-0.004
-5.780E-06,-0.004
-5.770E-06,0.008
-5.760E-06,0.004
-5.750E-06,0.004
-5.740E-06,0.004
-5.730E-06,0.000
-5.720E-06,-0.004
-5.710E-06,0.004
-5.700E-06,0.012
-5.690E-06,0.004
-5.680E-06,0.004
-5.670E-06,0.004
-5.660E-06,0.000
-5.650E-06,-0.004
-5.640E-06,0.000
-5.630E-06,-0.004
-5.620E-06,0.008
-5.610E-06,0.012
-5.600E-06,0.004
-5.590E-06,0.004
-5.580E-06,0.000
-5.570E-06,0.004
-5.560E-06,0.008
-5.550E-06,0.008
-5.540E-06,0.004
-5.530E-06,0.000
-5.520E-06,0.000
-5.510E-06,0.004
-5.500E-06,0.004
-5.490E-06,0.004
-5.480E-06,0.000
-5.470E-06,-0.004
-5.460E-06,0.008
-5.450E-06,0.004
-5.440E-06,0.004
-5.430E-06,0.004
-5.420E-06,0.004
-5.410E-06,0.000
-5.400E-06,-0.004
-5.390E-06,-0.004
-5.380E-06,0.000
-5.370E-06,0.004
-5.360E-06,0.012
-5.350E-06,0.008
-5.340E-06,0.004
-5.330E-06,-0.004
-5.320E-06,-0.004
-5.310E-06,0.008
-5.300E-06,0.008
-5.290E-06,0.000
-5.280E-06,0.004
-5.270E-06,0.004
-5.260E-06,0.004
-5.250E-06,0.008
-5.240E-06,0.000
-5.230E-06,0.008
-5.220E-06,0.000
-5.210E-06,0.000
-5.200E-06,0.008
-5.190E-06,0.008
-5.180E-06,0.012
-5.170E-06,0.012
-5.160E-06,0.000
-5.150E-06,0.000
-5.140E-06,0.000
-5.130E-06,0.000
-5.120E-06,0.004
-5.110E-06,0.004
-5.100E-06,0.008
-5.090E-06,0.000
-5.080E-06,0.008
-5.070E-06,0.008
-5.060E-06,-0.004
-5.050E-06,0.000
-5.040E-06,0.000
-5.030E-06,0.000
-5.020E-06,0.004
-5.010E-06,0.000
-5.000E-06,0.000
-4.990E-06,0.004
-4.980E-06,0.008
-4.970E-06,0.000
-4.960E-06,0.000
-4.950E-06,-0.004
-4.940E-06,0.000
-4.930E-06,0.008
-4.920E-06,0.004
-4.910E-06,0.000
-4.900E-06,0.008
-4.890E-06,0.004
-4.880E-06,0.000
-4.870E-06,0.004
-4.860E-06,0.000
-4.850E-06,0.004
-4.840E-06,0.004
-4.830E-06,0.008
-4.820E-06,0.004
-4.810E-06,0.000
-4.800E-06,0.004
-4.790E-06,0.000
-4.780E-06,0.000
-4.770E-06,0.004
-4.760E-06,0.000
-4.750E-06,0.000
-4.740E-06,0.004
-4.730E-06,0.008
-4.720E-06,0.004
-4.710E-06,0.004
-4.700E-06,0.004
-4.690E-06,0.004
-4.680E-06,0.000
-4.670E-06,0.004
-4.660E-06,0.004
-4.650E-06,0.004
-4.640E-06,0.000
-4.630E-06,0.000
-4.620E-06,0.004
-4.610E-06,0.004
-4.600E-06,0.008
-4.590E-06,0.008
-4.580E-06,0.008
-4.570E-06,-0.004
-4.560E-06,0.000
-4.550E-06,0.004
-4.540E-06,0.004
-4.530E-06,0.004
-4.520E-06,0.004
-4.510E-06,0.004
-4.500E-06,0.004
-4.490E-06,0.004
-4.480E-06,0.000
-4.470E-06,0.004
-4.460E-06,0.000
-4.450E-06,0.004
-4.440E-06,0.004
-4.430E-06,0.000
-4.420E-06,0.004
-4.410E-06,0.000
-4.400E-06,0.008
-4.390E-06,0.008
-4.380E-06,0.012
-4.370E-06,0.004
-4.360E-06,0.004
-4.350E-06,0.000
-4.340E-06,0.000
-4.330E-06,0.008
-4.320E-06,0.012
-4.310E-06,0.000
-4.300E-06,0.000
-4.290E-06,0.004
-4.280E-06,0.000
-4.270E-06,0.000
-4.260E-06,0.008
-4.250E-06,0.008
-4.240E-06,0.008
-4.230E-06,0.000
-4.220E-06,0.000
-4.210E-06,0.004
-4.200E-06,0.000
-4.190E-06,0.004
-4.180E-06,0.000
-4.170E-06,0.004
-4.160E-06,0.000
-4.150E-06,0.000
-4.140E-06,0.004
-4.130E-06,0.008
-4.120E-06,0.008
-4.110E-06,0.000
-4.100E-06,0.000
-4.090E-06,0.000
-4.080E-06,0.000
-4.070E-06,0.004
-4.060E-06,0.004
-4.050E-06,0.008
-4.040E-06,0.004
-4.030E-06,0.000
-4.020E-06,0.000
-4.010E-06,0.000
-4.000E-06,0.004
-3.990E-06,0.004
-3.980E-06,0.008
-3.970E-06,0.008
-3.960E-06,0.004
-3.950E-06,0.008
-3.940E-06,0.008
-3.930E-06,0.004
-3.920E-06,0.004
-3.910E-06,0.008
-3.900E-06,-0.004
-3.890E-06,-0.004
-3.880E-06,0.000
-3.870E-06,0.004
-3.860E-06,0.008
-3.850E-06,0.004
-3.840E-06,0.008
-3.830E-06,0.000
-3.820E-06,-0.004
-3.810E-06,-0.004
-3.800E-06,-0.004
-3.790E-06,0.004
-3.780E-06,0.008
-3.770E-06,0.004
-3.760E-06,0.008
-3.750E-06,-0.004
-3.740E-06,-0.004
-3.730E-06,0.000
-3.720E-06,-0.004
-3.710E-06,0.004
-3.700E-06,0.000
-3.690E-06,0.012
-3.680E-06,0.004
-3.670E-06,0.008
-3.660E-06,0.000
-3.650E-06,0.000
-3.640E-06,0.000
-3.630E-06,0.000
-3.620E-06,0.000
-3.610E-06,0.004
-3.600E-06,0.004
-3.590E-06,0.008
-3.580E-06,0.000
-3.570E-06,0.000
-3.560E-06,0.000
-3.550E-06,0.000
-3.540E-06,0.004
-3.530E-06,0.008
-3.520E-06,0.008
-3.510E-06,0.008
-3.500E-06,0.004
-3.490E-06,-0.004
-3.480E-06,-0.008
-3.470E-06,0.004
-3.460E-06,0.012
-3.450E-06,0.012
-3.440E-06,0.004
-3.430E-06,0.008
-3.420E-06,0.004
-3.410E-06,0.000
-3.400E-06,0.000
-3.390E-06,-0.004
-3.380E-06,0.000
-3.370E-06,0.000
-3.360E-06,0.004
-3.350E-06,0.012
-3.340E-06,0.004
-3.330E-06,0.000
-3.320E-06,0.000
-3.310E-06,-0.004
-3.300E-06,0.000
-3.290E-06,0.000
-3.280E-06,0.012
-3.270E-06,0.016
-3.260E-06,0.016
-3.250E-06,0.016
-3.240E-06,-0.004
-3.230E-06,-0.004
-3.220E-06,-0.004
-3.210E-06,0.000
-3.200E-06,0.008
-3.190E-06,0.012
-3.180E-06,0.020
-3.170E-06,0.016
-3.160E-06,0.008
-3.150E-06,0.000
-3.140E-06,-0.008
-3.130E-06,-0.004
-3.120E-06,0.004
-3.110E-06,0.008
-3.100E-06,0.016
-3.090E-06,0.020
-3.080E-06,0.008
-3.070E-06,0.000
-3.060E-06,-0.008
-3.050E-06,-0.008
-3.040E-06,-0.004
-3.030E-06,0.012
-3.020E-06,0.020
-3.010E-06,0.016
-3.000E-06,0.008
-2.990E-06,0.000
-2.980E-06,-0.012
-2.970E-06,-0.012
-2.960E-06,-0.008
-2.950E-06,0.000
-2.940E-06,0.008
-2.930E-06,0.020
-2.920E-06,0.016
-2.910E-06,0.008
-2.900E-06,-0.008
-2.890E-06,-0.020
-2.880E-06,-0.008
-2.870E-06,0.000
-2.860E-06,0.024
-2.850E-06,0.024
-2.840E-06,0.020
-2.830E-06,0.008
-2.820E-06,-0.004
-2.810E-06,-0.020
-2.800E-06,-0.004
-2.790E-06,-0.004
-2.780E-06,0.012
-2.770E-06,0.016
-2.760E-06,0.016
-2.750E-06,0.008
-2.740E-06,0.000
-2.730E-06,-0.004
-2.720E-06,-0.004
-2.710E-06,0.000
-2.700E-06,0.004
-2.690E-06,0.012
-2.680E-06,0.012
-2.670E-06,0.012
-2.660E-06,0.008
-2.650E-06,0.000
-2.640E-06,-0.004
-2.630E-06,-0.004
-2.620E-06,-0.004
-2.610E-06,0.004
-2.600E-06,0.012
-2.590E-06,0.016
-2.580E-06,0.008
-2.570E-06,0.004
-2.560E-06,0.000
-2.550E-06,-0.004
-2.540E-06,0.000
-2.530E-06,0.008
-2.520E-06,0.012
-2.510E-06,0.012
-2.500E-06,0.012
-2.490E-06,0.004
-2.480E-06,0.000
-2.470E-06,0.000
-2.460E-06,0.004
-2.450E-06,0.008
-2.440E-06,0.012
-2.430E-06,0.012
-2.420E-06,0.012
-2.410E-06,0.000
-2.400E-06,0.004
-2.390E-06,0.000
-2.380E-06,0.004
-2.370E-06,0.000
-2.360E-06,0.008
-2.350E-06,0.012
-2.340E-06,0.016
-2.330E-06,0.016
-2.320E-06,0.008
-2.310E-06,0.008
-2.300E-06,0.000
-2.290E-06,0.008
-2.280E-06,0.024
-2.270E-06,0.028
-2.260E-06,0.036
-2.250E-06,0.028
-2.240E-06,0.012
-2.230E-06,-0.012
-2.220E-06,-0.020
-2.210E-06,-0.020
-2.200E-06,0.004
-2.190E-06,0.036
-2.180E-06,0.048
-2.170E-06,0.036
-2.160E-06,0.016
-2.150E-06,-0.008
-2.140E-06,-0.036
-2.130E-06,-0.028
-2.120E-06,-0.012
-2.110E-06,0.020
-2.100E-06,0.048
-2.090E-06,0.060
-2.080E-06,0.044
-2.070E-06,0.008
-2.060E-06,-0.036
-2.050E-06,-0.060
-2.040E-06,-0.044
-2.030E-06,-0.012
-2.020E-06,0.032
-2.010E-06,0.040
-2.000E-06,0.040
-1.990E-06,0.012
-1.980E-06,-0.020
-1.970E-06,-0.040
-1.960E-06,-0.036
-1.950E-06,-0.012
-1.940E-06,0.016
-1.930E-06,0.040
-1.920E-06,0.036
-1.910E-06,0.020
-1.900E-06,0.000
-1.890E-06,-0.016
-1.880E-06,-0.008
-1.870E-06,0.012
-1.860E-06,0.024
-1.850E-06,0.040
-1.840E-06,0.032
-1.830E-06,0.012
-1.820E-06,-0.008
-1.810E-06,-0.036
-1.800E-06,-0.040
-1.790E-06,-0.016
-1.780E-06,0.004
-1.770E-06,0.028
-1.760E-06,0.032
-1.750E-06,0.028
-1.740E-06,0.012
-1.730E-06,-0.004
-1.720E-06,-0.004
-1.710E-06,-0.004
-1.700E-06,0.004
-1.690E-06,0.020
-1.680E-06,0.032
-1.670E-06,0.036
-1.660E-06,0.020
-1.650E-06,0.012
-1.640E-06,-0.016
-1.630E-06,-0.004
-1.620E-06,-0.004
-1.610E-06,0.012
-1.600E-06,0.020
-1.590E-06,0.028
-1.580E-06,0.028
-1.570E-06,0.028
-1.560E-06,0.024
-1.550E-06,0.016
-1.540E-06,0.016
-1.530E-06,0.020
-1.520E-06,0.028
-1.510E-06,0.024
-1.500E-06,0.044
-1.490E-06,0.048
-1.480E-06,0.044
-1.470E-06,0.020
-1.460E-06,0.008
-1.450E-06,0.012
-1.440E-06,0.024
-1.430E-06,0.060
-1.420E-06,0.064
-1.410E-06,0.056
-1.400E-06,0.032
-1.390E-06,0.008
-1.380E-06,-0.008
-1.370E-06,0.012
-1.360E-06,0.032
-1.350E-06,0.056
-1.340E-06,0.064
-1.330E-06,0.064
-1.320E-06,0.044
-1.310E-06,0.020
-1.300E-06,0.012
-1.290E-06,0.024
-1.280E-06,0.032
-1.270E-06,0.052
-1.260E-06,0.064
-1.250E-06,0.068
-1.240E-06,0.060
-1.230E-06,0.040
-1.220E-06,0.024
-1.210E-06,0.012
-1.200E-06,0.024
-1.190E-06,0.052
-1.180E-06,0.076
-1.170E-06,0.088
-1.160E-06,0.084
-1.150E-06,0.060
-1.140E-06,0.040
-1.130E-06,0.032
-1.120E-06,0.024
-1.110E-06,0.052
-1.100E-06,0.072
-1.090E-06,0.096
-1.080E-06,0.108
-1.070E-06,0.080
-1.060E-06,0.044
-1.050E-06,0.024
-1.040E-06,0.016
-1.030E-06,0.056
-1.020E-06,0.096
-1.010E-06,0.136
-1.000E-06,0.160
-9.900E-07,0.144
-9.800E-07,0.108
-9.700E-07,0.060
-9.600E-07,0.032
-9.500E-07,-0.004
-9.400E-07,-0.020
-9.300E-07,-0.076
-9.200E-07,-0.104
-9.100E-07,-0.124
-9.000E-07,-0.136
-8.900E-07,-0.120
-8.800E-07,-0.052
-8.700E-07,0.000
-8.600E-07,0.020
-8.500E-07,0.024
-8.400E-07,-0.024
-8.300E-07,-0.108
-8.200E-07,-0.136
-8.100E-07,-0.136
-8.000E-07,-0.088
-7.900E-07,-0.016
-7.800E-07,0.064
-7.700E-07,0.124
-7.600E-07,0.108
-7.500E-07,0.036
-7.400E-07,-0.036
-7.300E-07,-0.060
-7.200E-07,-0.036
-7.100E-07,0.048
-7.000E-07,0.120
-6.900E-07,0.164
-6.800E-07,0.156
-6.700E-07,0.128
-6.600E-07,0.092
-6.500E-07,0.056
-6.400E-07,0.056
-6.300E-07,0.088
-6.200E-07,0.140
-6.100E-07,0.168
-6.000E-07,0.188
-5.900E-07,0.164
-5.800E-07,0.132
-5.700E-07,0.120
-5.600E-07,0.108
-5.500E-07,0.128
-5.400E-07,0.156
-5.300E-07,0.192
-5.200E-07,0.192
-5.100E-07,0.168
-5.000E-07,0.108
-4.900E-07,0.032
-4.800E-07,-0.036
-4.700E-07,-0.092
-4.600E-07,-0.116
-4.500E-07,-0.100
-4.400E-07,-0.060
-4.300E-07,-0.032
-4.200E-07,-0.064
-4.100E-07,-0.068
-4.000E-07,-0.144
-3.900E-07,-0.140
-3.800E-07,-0.092
-3.700E-07,-0.024
-3.600E-07,0.072
-3.500E-07,0.108
-3.400E-07,0.188
-3.300E-07,0.184
-3.200E-07,0.180
-3.100E-07,0.140
-3.000E-07,0.144
-2.900E-07,0.188
-2.800E-07,0.220
-2.700E-07,0.260
-2.600E-07,0.232
-2.500E-07,0.188
-2.400E-07,0.136
-2.300E-07,0.132
-2.200E-07,0.144
-2.100E-07,0.192
-2.000E-07,0.252
-1.900E-07,0.260
-1.800E-07,0.220
-1.700E-07,0.136
-1.600E-07,0.044
-1.500E-07,0.020
-1.400E-07,0.072
-1.300E-07,0.160
-1.200E-07,0.232
-1.100E-07,0.240
-1.000E-07,0.200
-9.000E-08,0.128
-8.000E-08,0.072
-7.000E-08,-0.028
-6.000E-08,-0.404
-5.000E-08,-0.508
-4.000E-08,-0.512
-3.000E-08,-0.508
-2.000E-08,-0.332
-1.000E-08,0.312
0.000E+00,0.540
1.000E-08,0.488
2.000E-08,0.236
3.000E-08,-0.512
4.000E-08,-0.508
5.000E-08,-0.508
6.000E-08,-0.512
7.000E-08,-0.076
8.000E-08,0.544
9.000E-08,0.540
1.000E-07,0.500
1.100E-07,-0.168
1.200E-07,-0.508
1.300E-07,-0.508
1.400E-07,-0.508
1.500E-07,0.108
1.600E-07,0.536
1.700E-07,0.540
1.800E-07,0.540
1.900E-07,-0.044
2.000E-07,-0.508
2.100E-07,-0.508
2.200E-07,-0.508
2.300E-07,-0.036
2.400E-07,0.540
2.500E-07,0.540
2.600E-07,0.540
2.700E-07,0.080
2.800E-07,-0.360
2.900E-07,-0.508
3.000E-07,-0.496
3.100E-07,-0.088
3.200E-07,0.272
3.300E-07,0.540
3.400E-07,0.428
3.500E-07,0.200
3.600E-07,-0.240
3.700E-07,-0.384
3.800E-07,-0.368
3.900E-07,-0.100
4.000E-07,0.192
4.100E-07,0.356
4.200E-07,0.376
4.300E-07,0.176
4.400E-07,-0.044
4.500E-07,-0.216
4.600E-07,-0.172
4.700E-07,-0.056
4.800E-07,0.196
4.900E-07,0.308
5.000E-07,0.344
5.100E-07,0.212
5.200E-07,0.076
5.300E-07,-0.024
5.400E-07,-0.044
5.500E-07,0.072
5.600E-07,0.220
5.700E-07,0.360
5.800E-07,0.360
5.900E-07,0.316
6.000E-07,0.176
6.100E-07,0.100
6.200E-07,0.064
6.300E-07,0.124
6.400E-07,0.220
6.500E-07,0.308
6.600E-07,0.356
6.700E-07,0.312
6.800E-07,0.236
6.900E-07,0.128
7.000E-07,0.096
7.100E-07,0.112
7.200E-07,0.216
7.300E-07,0.308
7.400E-07,0.372
7.500E-07,0.336
7.600E-07,0.240
7.700E-07,0.148
7.800E-07,0.100
7.900E-07,0.140
8.000E-07,0.220
8.100E-07,0.300
8.200E-07,0.256
8.300E-07,0.044
8.400E-07,-0.284
8.500E-07,-0.512
8.600E-07,-0.396
8.700E-07,-0.196
8.800E-07,0.256
8.900E-07,0.540
9.000E-07,0.540
9.100E-07,0.364
9.200E-07,-0.120
9.300E-07,-0.432
9.400E-07,-0.512
9.500E-07,-0.416
9.600E-07,-0.284
9.700E-07,-0.084
9.800E-07,-0.268
9.900E-07,-0.512
1.000E-06,-0.508
1.010E-06,-0.508
1.020E-06,-0.512
1.030E-06,-0.376
1.040E-06,-0.036
1.050E-06,-0.036
1.060E-06,0.168
1.070E-06,0.012
1.080E-06,-0.164
1.090E-06,-0.432
1.100E-06,-0.276
1.110E-06,-0.180
1.120E-06,0.020
1.130E-06,0.260
1.140E-06,0.336
1.150E-06,0.288
1.160E-06,-0.016
1.170E-06,-0.084
1.180E-06,-0.172
1.190E-06,0.012
1.200E-06,0.092
1.210E-06,0.320
1.220E-06,0.328
1.230E-06,0.256
1.240E-06,0.084
1.250E-06,-0.056
1.260E-06,-0.056
1.270E-06,-0.012
1.280E-06,0.188
1.290E-06,0.268
1.300E-06,0.348
1.310E-06,0.240
1.320E-06,0.188
1.330E-06,0.088
1.340E-06,0.068
1.350E-06,0.092
1.360E-06,0.196
1.370E-06,0.308
1.380E-06,0.332
1.390E-06,0.328
1.400E-06,0.232
1.410E-06,0.196
1.420E-06,0.140
1.430E-06,0.188
1.440E-06,0.224
1.450E-06,0.300
1.460E-06,0.324
1.470E-06,0.316
1.480E-06,0.284
1.490E-06,0.212
1.500E-06,0.188
1.510E-06,0.168
1.520E-06,0.224
1.530E-06,0.252
1.540E-06,0.292
1.550E-06,0.260
1.560E-06,0.212
1.570E-06,0.144
1.580E-06,0.072
1.590E-06,0.056
1.600E-06,0.072
1.610E-06,0.076
1.620E-06,-0.008
1.630E-06,-0.084
1.640E-06,-0.204
1.650E-06,-0.224
1.660E-06,-0.056
1.670E-06,0.252
1.680E-06,0.528
1.690E-06,0.540
1.700E-06,0.492
1.710E-06,0.208
1.720E-06,-0.144
1.730E-06,-0.240
1.740E-06,-0.116
1.750E-06,0.136
1.760E-06,0.356
1.770E-06,0.408
1.780E-06,0.300
1.790E-06,0.116
1.800E-06,-0.040
1.810E-06,-0.188
1.820E-06,-0.196
1.830E-06,-0.104
1.840E-06,0.076
1.850E-06,0.240
1.860E-06,0.292
1.870E-06,0.212
1.880E-06,0.020
1.890E-06,-0.120
1.900E-06,-0.108
1.910E-06,0.092
1.920E-06,0.332
1.930E-06,0.520
1.940E-06,0.520
1.950E-06,0.352
1.960E-06,0.108
1.970E-06,-0.044
1.980E-06,-0.048
1.990E-06,0.092
2.000E-06,0.268
2.010E-06,0.396
2.020E-06,0.412
2.030E-06,0.316
2.040E-06,0.168
2.050E-06,0.028
2.060E-06,0.008
2.070E-06,0.080
2.080E-06,0.224
2.090E-06,0.336
2.100E-06,0.380
2.110E-06,0.332
2.120E-06,0.224
2.130E-06,0.128
2.140E-06,0.084
2.150E-06,0.128
2.160E-06,0.208
2.170E-06,0.296
2.180E-06,0.340
2.190E-06,0.316
2.200E-06,0.240
2.210E-06,0.160
2.220E-06,0.120
2.230E-06,0.128
2.240E-06,0.192
2.250E-06,0.272
2.260E-06,0.316
2.270E-06,0.316
2.280E-06,0.268
2.290E-06,0.196
2.300E-06,0.156
2.310E-06,0.148
2.320E-06,0.192
2.330E-06,0.244
2.340E-06,0.284
2.350E-06,0.292
2.360E-06,0.264
2.370E-06,0.220
2.380E-06,0.168
2.390E-06,0.156
2.400E-06,0.176
2.410E-06,0.224
2.420E-06,0.256
2.430E-06,0.272
2.440E-06,0.260
2.450E-06,0.228
2.460E-06,0.192
2.470E-06,0.184
2.480E-06,0.188
2.490E-06,0.212
2.500E-06,0.232
2.510E-06,0.260
2.520E-06,0.248
2.530E-06,0.228
2.540E-06,0.204
2.550E-06,0.180
2.560E-06,0.176
2.570E-06,0.188
2.580E-06,0.204
2.590E-06,0.228
2.600E-06,0.236
2.610E-06,0.232
2.620E-06,0.208
2.630E-06,0.192
2.640E-06,0.184
2.650E-06,0.192
2.660E-06,0.204
2.670E-06,0.220
2.680E-06,0.232
2.690E-06,0.224
2.700E-06,0.212
2.710E-06,0.196
2.720E-06,0.184
2.730E-06,0.180
2.740E-06,0.192
2.750E-06,0.208
2.760E-06,0.208
2.770E-06,0.200
2.780E-06,0.196
2.790E-06,0.172
2.800E-06,0.160
2.810E-06,0.160
2.820E-06,0.172
2.830E-06,0.188
2.840E-06,0.200
2.850E-06,0.204
2.860E-06,0.200
2.870E-06,0.192
2.880E-06,0.180
2.890E-06,0.180
2.900E-06,0.192
2.910E-06,0.212
2.920E-06,0.224
2.930E-06,0.220
2.940E-06,0.204
2.950E-06,0.196
2.960E-06,0.196
2.970E-06,0.192
2.980E-06,0.204
2.990E-06,0.208
3.000E-06,0.212
3.010E-06,0.204
3.020E-06,0.204
3.030E-06,0.196
3.040E-06,0.192
3.050E-06,0.188
3.060E-06,0.192
3.070E-06,0.196
3.080E-06,0.192
3.090E-06,0.196
3.100E-06,0.192
3.110E-06,0.188
3.120E-06,0.188
3.130E-06,0.184
3.140E-06,0.184
3.150E-06,0.188
3.160E-06,0.204
3.170E-06,0.212
3.180E-06,0.208
3.190E-06,0.200
3.200E-06,0.192
3.210E-06,0.172
3.220E-06,0.160
3.230E-06,0.164
3.240E-06,0.180
3.250E-06,0.192
3.260E-06,0.196
3.270E-06,0.208
3.280E-06,0.200
3.290E-06,0.188
3.300E-06,0.176
3.310E-06,0.164
3.320E-06,0.164
3.330E-06,0.180
3.340E-06,0.192
3.350E-06,0.196
3.360E-06,0.200
3.370E-06,0.192
3.380E-06,0.188
3.390E-06,0.180
