mediciones/5-15/10/WaveData47296.csv

#timebase=2000000(ps)
,#voltbase=500000(mv/100)
#size=4000
-8.400E-06,0.060
-8.390E-06,0.060
-8.380E-06,0.060
-8.370E-06,0.060
-8.360E-06,0.060
-8.350E-06,0.040
-8.340E-06,0.020
-8.330E-06,0.060
-8.320E-06,0.040
-8.310E-06,0.060
-8.300E-06,0.040
-8.290E-06,0.060
-8.280E-06,0.060
-8.270E-06,0.020
-8.260E-06,0.040
-8.250E-06,0.080
-8.240E-06,0.040
-8.230E-06,0.040
-8.220E-06,0.040
-8.210E-06,0.080
-8.200E-06,0.020
-8.190E-06,0.060
-8.180E-06,0.080
-8.170E-06,0.040
-8.160E-06,0.020
-8.150E-06,0.060
-8.140E-06,0.020
-8.130E-06,0.060
-8.120E-06,0.060
-8.110E-06,0.040
-8.100E-06,0.040
-8.090E-06,0.060
-8.080E-06,0.040
-8.070E-06,0.020
-8.060E-06,0.040
-8.050E-06,0.060
-8.040E-06,0.080
-8.030E-06,0.040
-8.020E-06,0.020
-8.010E-06,0.040
-8.000E-06,0.020
-7.990E-06,0.040
-7.980E-06,0.040
-7.970E-06,0.040
-7.960E-06,0.080
-7.950E-06,0.040
-7.940E-06,0.060
-7.930E-06,0.060
-7.920E-06,0.060
-7.910E-06,0.060
-7.900E-06,0.040
-7.890E-06,0.060
-7.880E-06,0.060
-7.870E-06,0.040
-7.860E-06,0.080
-7.850E-06,0.040
-7.840E-06,0.020
-7.830E-06,0.060
-7.820E-06,0.060
-7.810E-06,0.080
-7.800E-06,0.040
-7.790E-06,0.020
-7.780E-06,0.020
-7.770E-06,0.060
-7.760E-06,0.020
-7.750E-06,0.040
-7.740E-06,0.060
-7.730E-06,0.060
-7.720E-06,0.040
-7.710E-06,0.080
-7.700E-06,0.080
-7.690E-06,0.060
-7.680E-06,0.040
-7.670E-06,0.020
-7.660E-06,0.040
-7.650E-06,0.080
-7.640E-06,0.020
-7.630E-06,0.020
-7.620E-06,0.060
-7.610E-06,0.080
-7.600E-06,0.060
-7.590E-06,0.080
-7.580E-06,0.060
-7.570E-06,0.060
-7.560E-06,0.020
-7.550E-06,0.040
-7.540E-06,0.040
-7.530E-06,0.060
-7.520E-06,0.060
-7.510E-06,0.060
-7.500E-06,0.060
-7.490E-06,0.020
-7.480E-06,0.020
-7.470E-06,0.060
-7.460E-06,0.040
-7.450E-06,0.060
-7.440E-06,0.040
-7.430E-06,0.020
-7.420E-06,0.040
-7.410E-06,0.040
-7.400E-06,0.020
-7.390E-06,0.040
-7.380E-06,0.020
-7.370E-06,0.060
-7.360E-06,0.060
-7.350E-06,0.040
-7.340E-06,0.060
-7.330E-06,0.040
-7.320E-06,0.040
-7.310E-06,0.040
-7.300E-06,0.020
-7.290E-06,0.060
-7.280E-06,0.020
-7.270E-06,0.040
-7.260E-06,0.020
-7.250E-06,0.020
-7.240E-06,0.040
-7.230E-06,0.020
-7.220E-06,0.040
-7.210E-06,0.020
-7.200E-06,0.020
-7.190E-06,0.040
-7.180E-06,0.060
-7.170E-06,0.060
-7.160E-06,0.080
-7.150E-06,0.060
-7.140E-06,0.020
-7.130E-06,0.020
-7.120E-06,0.040
-7.110E-06,0.080
-7.100E-06,0.060
-7.090E-06,0.020
-7.080E-06,0.020
-7.070E-06,0.040
-7.060E-06,0.040
-7.050E-06,0.080
-7.040E-06,0.060
-7.030E-06,0.020
-7.020E-06,0.040
-7.010E-06,0.020
-7.000E-06,0.020
-6.990E-06,0.040
-6.980E-06,0.040
-6.970E-06,0.040
-6.960E-06,0.040
-6.950E-06,0.040
-6.940E-06,0.080
-6.930E-06,0.040
-6.920E-06,0.020
-6.910E-06,0.040
-6.900E-06,0.040
-6.890E-06,0.040
-6.880E-06,0.020
-6.870E-06,0.040
-6.860E-06,0.060
-6.850E-06,0.060
-6.840E-06,0.060
-6.830E-06,0.040
-6.820E-06,0.020
-6.810E-06,0.040
-6.800E-06,0.060
-6.790E-06,0.040
-6.780E-06,0.040
-6.770E-06,0.040
-6.760E-06,0.040
-6.750E-06,0.060
-6.740E-06,0.040
-6.730E-06,0.020
-6.720E-06,0.040
-6.710E-06,0.020
-6.700E-06,0.040
-6.690E-06,0.060
-6.680E-06,0.060
-6.670E-06,0.040
-6.660E-06,0.040
-6.650E-06,0.060
-6.640E-06,0.040
-6.630E-06,0.040
-6.620E-06,0.040
-6.610E-06,0.060
-6.600E-06,0.040
-6.590E-06,0.040
-6.580E-06,0.060
-6.570E-06,0.060
-6.560E-06,0.040
-6.550E-06,0.040
-6.540E-06,0.060
-6.530E-06,0.060
-6.520E-06,0.040
-6.510E-06,0.040
-6.500E-06,0.040
-6.490E-06,0.040
-6.480E-06,0.080
-6.470E-06,0.040
-6.460E-06,0.020
-6.450E-06,0.040
-6.440E-06,0.020
-6.430E-06,0.060
-6.420E-06,0.020
-6.410E-06,0.040
-6.400E-06,0.020
-6.390E-06,0.040
-6.380E-06,0.060
-6.370E-06,0.040
-6.360E-06,0.060
-6.350E-06,0.040
-6.340E-06,0.060
-6.330E-06,0.040
-6.320E-06,0.060
-6.310E-06,0.040
-6.300E-06,0.080
-6.290E-06,0.040
-6.280E-06,0.080
-6.270E-06,0.020
-6.260E-06,0.020
-6.250E-06,0.040
-6.240E-06,0.040
-6.230E-06,0.040
-6.220E-06,0.080
-6.210E-06,0.060
-6.200E-06,0.060
-6.190E-06,0.060
-6.180E-06,0.020
-6.170E-06,0.040
-6.160E-06,0.040
-6.150E-06,0.060
-6.140E-06,0.040
-6.130E-06,0.020
-6.120E-06,0.040
-6.110E-06,0.040
-6.100E-06,0.040
-6.090E-06,0.060
-6.080E-06,0.040
-6.070E-06,0.040
-6.060E-06,0.040
-6.050E-06,0.020
-6.040E-06,0.060
-6.030E-06,0.060
-6.020E-06,0.040
-6.010E-06,0.040
-6.000E-06,0.060
-5.990E-06,0.040
-5.980E-06,0.020
-5.970E-06,0.020
-5.960E-06,0.040
-5.950E-06,0.020
-5.940E-06,0.020
-5.930E-06,0.040
-5.920E-06,0.020
-5.910E-06,0.020
-5.900E-06,0.040
-5.890E-06,0.040
-5.880E-06,0.080
-5.870E-06,0.040
-5.860E-06,0.020
-5.850E-06,0.060
-5.840E-06,0.040
-5.830E-06,0.040
-5.820E-06,0.060
-5.810E-06,0.040
-5.800E-06,0.040
-5.790E-06,0.080
-5.780E-06,0.040
-5.770E-06,0.020
-5.760E-06,0.060
-5.750E-06,0.020
-5.740E-06,0.040
-5.730E-06,0.080
-5.720E-06,0.040
-5.710E-06,0.040
-5.700E-06,0.060
-5.690E-06,0.060
-5.680E-06,0.020
-5.670E-06,0.040
-5.660E-06,0.060
-5.650E-06,0.080
-5.640E-06,0.040
-5.630E-06,0.040
-5.620E-06,0.060
-5.610E-06,0.040
-5.600E-06,0.060
-5.590E-06,0.020
-5.580E-06,0.060
-5.570E-06,0.060
-5.560E-06,0.060
-5.550E-06,0.060
-5.540E-06,0.060
-5.530E-06,0.040
-5.520E-06,0.040
-5.510E-06,0.040
-5.500E-06,0.020
-5.490E-06,0.040
-5.480E-06,0.040
-5.470E-06,0.080
-5.460E-06,0.040
-5.450E-06,0.060
-5.440E-06,0.060
-5.430E-06,0.060
-5.420E-06,0.040
-5.410E-06,0.040
-5.400E-06,0.040
-5.390E-06,0.060
-5.380E-06,0.020
-5.370E-06,0.040
-5.360E-06,0.020
-5.350E-06,0.020
-5.340E-06,0.040
-5.330E-06,0.020
-5.320E-06,0.040
-5.310E-06,0.080
-5.300E-06,0.060
-5.290E-06,0.020
-5.280E-06,0.040
-5.270E-06,0.040
-5.260E-06,0.060
-5.250E-06,0.040
-5.240E-06,0.020
-5.230E-06,0.060
-5.220E-06,0.060
-5.210E-06,0.060
-5.200E-06,0.040
-5.190E-06,0.060
-5.180E-06,0.040
-5.170E-06,0.060
-5.160E-06,0.060
-5.150E-06,0.040
-5.140E-06,0.060
-5.130E-06,0.060
-5.120E-06,0.040
-5.110E-06,0.040
-5.100E-06,0.040
-5.090E-06,0.020
-5.080E-06,0.040
-5.070E-06,0.060
-5.060E-06,0.040
-5.050E-06,0.040
-5.040E-06,0.040
-5.030E-06,0.060
-5.020E-06,0.040
-5.010E-06,0.040
-5.000E-06,0.060
-4.990E-06,0.040
-4.980E-06,0.040
-4.970E-06,0.020
-4.960E-06,0.040
-4.950E-06,0.040
-4.940E-06,0.060
-4.930E-06,0.060
-4.920E-06,0.040
-4.910E-06,0.060
-4.900E-06,0.040
-4.890E-06,0.040
-4.880E-06,0.040
-4.870E-06,0.040
-4.860E-06,0.020
-4.850E-06,0.060
-4.840E-06,0.080
-4.830E-06,0.020
-4.820E-06,0.020
-4.810E-06,0.060
-4.800E-06,0.020
-4.790E-06,0.040
-4.780E-06,0.020
-4.770E-06,0.040
-4.760E-06,0.060
-4.750E-06,0.060
-4.740E-06,0.060
-4.730E-06,0.040
-4.720E-06,0.040
-4.710E-06,0.040
-4.700E-06,0.020
-4.690E-06,0.040
-4.680E-06,0.040
-4.670E-06,0.040
-4.660E-06,0.080
-4.650E-06,0.040
-4.640E-06,0.040
-4.630E-06,0.080
-4.620E-06,0.040
-4.610E-06,0.040
-4.600E-06,0.040
-4.590E-06,0.040
-4.580E-06,0.060
-4.570E-06,0.080
-4.560E-06,0.040
-4.550E-06,0.020
-4.540E-06,0.040
-4.530E-06,0.040
-4.520E-06,0.040
-4.510E-06,0.080
-4.500E-06,0.060
-4.490E-06,0.040
-4.480E-06,0.040
-4.470E-06,0.020
-4.460E-06,0.020
-4.450E-06,0.060
-4.440E-06,0.020
-4.430E-06,0.060
-4.420E-06,0.060
-4.410E-06,0.020
-4.400E-06,0.020
-4.390E-06,0.040
-4.380E-06,0.020
-4.370E-06,0.040
-4.360E-06,0.080
-4.350E-06,0.060
-4.340E-06,0.040
-4.330E-06,0.060
-4.320E-06,0.080
-4.310E-06,0.040
-4.300E-06,0.040
-4.290E-06,0.040
-4.280E-06,0.080
-4.270E-06,0.020
-4.260E-06,0.020
-4.250E-06,0.060
-4.240E-06,0.040
-4.230E-06,0.040
-4.220E-06,0.020
-4.210E-06,0.040
-4.200E-06,0.060
-4.190E-06,0.060
-4.180E-06,0.060
-4.170E-06,0.060
-4.160E-06,0.080
-4.150E-06,0.060
-4.140E-06,0.020
-4.130E-06,0.040
-4.120E-06,0.040
-4.110E-06,0.060
-4.100E-06,0.060
-4.090E-06,0.020
-4.080E-06,0.060
-4.070E-06,0.060
-4.060E-06,0.040
-4.050E-06,0.060
-4.040E-06,0.020
-4.030E-06,0.040
-4.020E-06,0.060
-4.010E-06,0.020
-4.000E-06,0.040
-3.990E-06,0.040
-3.980E-06,0.040
-3.970E-06,0.060
-3.960E-06,0.040
-3.950E-06,0.020
-3.940E-06,0.040
-3.930E-06,0.060
-3.920E-06,0.020
-3.910E-06,0.040
-3.900E-06,0.020
-3.890E-06,0.040
-3.880E-06,0.060
-3.870E-06,0.060
-3.860E-06,0.040
-3.850E-06,0.060
-3.840E-06,0.040
-3.830E-06,0.060
-3.820E-06,0.060
-3.810E-06,0.060
-3.800E-06,0.020
-3.790E-06,0.060
-3.780E-06,0.060
-3.770E-06,0.040
-3.760E-06,0.040
-3.750E-06,0.040
-3.740E-06,0.080
-3.730E-06,0.060
-3.720E-06,0.040
-3.710E-06,0.040
-3.700E-06,0.040
-3.690E-06,0.040
-3.680E-06,0.040
-3.670E-06,0.060
-3.660E-06,0.040
-3.650E-06,0.040
-3.640E-06,0.020
-3.630E-06,0.040
-3.620E-06,0.060
-3.610E-06,0.080
-3.600E-06,0.060
-3.590E-06,0.040
-3.580E-06,0.020
-3.570E-06,0.060
-3.560E-06,0.040
-3.550E-06,0.040
-3.540E-06,0.060
-3.530E-06,0.080
-3.520E-06,0.020
-3.510E-06,0.020
-3.500E-06,0.060
-3.490E-06,0.020
-3.480E-06,0.060
-3.470E-06,0.040
-3.460E-06,0.060
-3.450E-06,0.080
-3.440E-06,0.060
-3.430E-06,0.060
-3.420E-06,0.060
-3.410E-06,0.060
-3.400E-06,0.060
-3.390E-06,0.060
-3.380E-06,0.080
-3.370E-06,0.060
-3.360E-06,0.080
-3.350E-06,0.060
-3.340E-06,0.020
-3.330E-06,0.040
-3.320E-06,0.020
-3.310E-06,0.020
-3.300E-06,0.000
-3.290E-06,0.000
-3.280E-06,0.020
-3.270E-06,0.020
-3.260E-06,0.020
-3.250E-06,-0.020
-3.240E-06,-0.020
-3.230E-06,0.020
-3.220E-06,0.000
-3.210E-06,0.040
-3.200E-06,0.020
-3.190E-06,0.060
-3.180E-06,0.020
-3.170E-06,0.040
-3.160E-06,0.020
-3.150E-06,0.040
-3.140E-06,0.060
-3.130E-06,0.020
-3.120E-06,0.040
-3.110E-06,0.080
-3.100E-06,0.040
-3.090E-06,0.040
-3.080E-06,0.040
-3.070E-06,0.060
-3.060E-06,0.060
-3.050E-06,0.060
-3.040E-06,0.080
-3.030E-06,0.060
-3.020E-06,0.040
-3.010E-06,0.060
-3.000E-06,0.040
-2.990E-06,0.040
-2.980E-06,0.040
-2.970E-06,0.040
-2.960E-06,0.060
-2.950E-06,0.020
-2.940E-06,0.040
-2.930E-06,0.020
-2.920E-06,0.040
-2.910E-06,0.020
-2.900E-06,0.020
-2.890E-06,0.000
-2.880E-06,-0.020
-2.870E-06,0.000
-2.860E-06,-0.020
-2.850E-06,-0.020
-2.840E-06,0.000
-2.830E-06,-0.020
-2.820E-06,0.000
-2.810E-06,0.000
-2.800E-06,0.000
-2.790E-06,0.000
-2.780E-06,-0.020
-2.770E-06,-0.020
-2.760E-06,0.000
-2.750E-06,-0.020
-2.740E-06,0.000
-2.730E-06,0.000
-2.720E-06,0.020
-2.710E-06,0.020
-2.700E-06,0.020
-2.690E-06,0.000
-2.680E-06,0.000
-2.670E-06,0.020
-2.660E-06,0.020
-2.650E-06,0.020
-2.640E-06,0.020
-2.630E-06,0.000
-2.620E-06,-0.020
-2.610E-06,0.000
-2.600E-06,-0.020
-2.590E-06,0.000
-2.580E-06,-0.020
-2.570E-06,0.000
-2.560E-06,-0.020
-2.550E-06,-0.020
-2.540E-06,-0.020
-2.530E-06,-0.020
-2.520E-06,0.000
-2.510E-06,-0.020
-2.500E-06,-0.040
-2.490E-06,-0.060
-2.480E-06,-0.040
-2.470E-06,-0.040
-2.460E-06,-0.040
-2.450E-06,-0.060
-2.440E-06,-0.060
-2.430E-06,-0.020
-2.420E-06,-0.060
-2.410E-06,-0.020
-2.400E-06,-0.100
-2.390E-06,-0.040
-2.380E-06,-0.060
-2.370E-06,-0.040
-2.360E-06,-0.080
-2.350E-06,-0.080
-2.340E-06,-0.080
-2.330E-06,-0.080
-2.320E-06,-0.040
-2.310E-06,-0.040
-2.300E-06,-0.100
-2.290E-06,-0.080
-2.280E-06,-0.060
-2.270E-06,-0.060
-2.260E-06,-0.060
-2.250E-06,-0.060
-2.240E-06,-0.040
-2.230E-06,-0.040
-2.220E-06,-0.080
-2.210E-06,-0.040
-2.200E-06,-0.040
-2.190E-06,-0.060
-2.180E-06,-0.060
-2.170E-06,-0.060
-2.160E-06,-0.080
-2.150E-06,-0.100
-2.140E-06,-0.100
-2.130E-06,-0.080
-2.120E-06,-0.100
-2.110E-06,-0.140
-2.100E-06,-0.120
-2.090E-06,-0.140
-2.080E-06,-0.120
-2.070E-06,-0.140
-2.060E-06,-0.140
-2.050E-06,-0.120
-2.040E-06,-0.140
-2.030E-06,-0.140
-2.020E-06,-0.140
-2.010E-06,-0.140
-2.000E-06,-0.160
-1.990E-06,-0.160
-1.980E-06,-0.160
-1.970E-06,-0.160
-1.960E-06,-0.180
-1.950E-06,-0.160
-1.940E-06,-0.160
-1.930E-06,-0.160
-1.920E-06,-0.160
-1.910E-06,-0.160
-1.900E-06,-0.160
-1.890E-06,-0.140
-1.880E-06,-0.160
-1.870E-06,-0.180
-1.860E-06,-0.180
-1.850E-06,-0.160
-1.840E-06,-0.200
-1.830E-06,-0.180
-1.820E-06,-0.200
-1.810E-06,-0.220
-1.800E-06,-0.180
-1.790E-06,-0.200
-1.780E-06,-0.180
-1.770E-06,-0.180
-1.760E-06,-0.180
-1.750E-06,-0.160
-1.740E-06,-0.180
-1.730E-06,-0.160
-1.720E-06,-0.180
-1.710E-06,-0.200
-1.700E-06,-0.180
-1.690E-06,-0.200
-1.680E-06,-0.160
-1.670E-06,-0.160
-1.660E-06,-0.160
-1.650E-06,-0.160
-1.640E-06,-0.180
-1.630E-06,-0.140
-1.620E-06,-0.140
-1.610E-06,-0.120
-1.600E-06,-0.140
-1.590E-06,-0.140
-1.580E-06,-0.140
-1.570E-06,-0.140
-1.560E-06,-0.120
-1.550E-06,-0.120
-1.540E-06,-0.120
-1.530E-06,-0.120
-1.520E-06,-0.120
-1.510E-06,-0.140
-1.500E-06,-0.120
-1.490E-06,-0.140
-1.480E-06,-0.140
-1.470E-06,-0.120
-1.460E-06,-0.120
-1.450E-06,-0.120
-1.440E-06,-0.120
-1.430E-06,-0.140
-1.420E-06,-0.120
-1.410E-06,-0.140
-1.400E-06,-0.140
-1.390E-06,-0.160
-1.380E-06,-0.180
-1.370E-06,-0.180
-1.360E-06,-0.140
-1.350E-06,-0.100
-1.340E-06,-0.040
-1.330E-06,-0.020
-1.320E-06,-0.020
-1.310E-06,-0.040
-1.300E-06,-0.060
-1.290E-06,-0.100
-1.280E-06,-0.160
-1.270E-06,-0.180
-1.260E-06,-0.220
-1.250E-06,-0.160
-1.240E-06,-0.160
-1.230E-06,-0.180
-1.220E-06,-0.160
-1.210E-06,-0.160
-1.200E-06,-0.180
-1.190E-06,-0.180
-1.180E-06,-0.220
-1.170E-06,-0.260
-1.160E-06,-0.320
-1.150E-06,-0.320
-1.140E-06,-0.380
-1.130E-06,-0.400
-1.120E-06,-0.440
-1.110E-06,-0.460
-1.100E-06,-0.480
-1.090E-06,-0.480
-1.080E-06,-0.520
-1.070E-06,-0.500
-1.060E-06,-0.540
-1.050E-06,-0.560
-1.040E-06,-0.560
-1.030E-06,-0.580
-1.020E-06,-0.600
-1.010E-06,-0.640
-1.000E-06,-0.660
-9.900E-07,-0.660
-9.800E-07,-0.700
-9.700E-07,-0.700
-9.600E-07,-0.720
-9.500E-07,-0.740
-9.400E-07,-0.740
-9.300E-07,-0.780
-9.200E-07,-0.780
-9.100E-07,-0.780
-9.000E-07,-0.820
-8.900E-07,-0.800
-8.800E-07,-0.840
-8.700E-07,-0.840
-8.600E-07,-0.860
-8.500E-07,-0.880
-8.400E-07,-0.880
-8.300E-07,-0.900
-8.200E-07,-0.940
-8.100E-07,-0.940
-8.000E-07,-0.940
-7.900E-07,-0.940
-7.800E-07,-1.000
-7.700E-07,-1.020
-7.600E-07,-1.020
-7.500E-07,-1.020
-7.400E-07,-1.020
-7.300E-07,-1.040
-7.200E-07,-1.020
-7.100E-07,-1.020
-7.000E-07,-1.040
-6.900E-07,-1.080
-6.800E-07,-1.060
-6.700E-07,-1.020
-6.600E-07,-1.060
-6.500E-07,-1.080
-6.400E-07,-1.060
-6.300E-07,-1.020
-6.200E-07,-1.060
-6.100E-07,-1.040
-6.000E-07,-1.040
-5.900E-07,-1.040
-5.800E-07,-1.080
-5.700E-07,-1.020
-5.600E-07,-1.040
-5.500E-07,-1.040
-5.400E-07,-1.040
-5.300E-07,-1.040
-5.200E-07,-1.040
-5.100E-07,-1.020
-5.000E-07,-1.000
-4.900E-07,-1.000
-4.800E-07,-1.000
-4.700E-07,-0.940
-4.600E-07,-0.940
-4.500E-07,-0.940
-4.400E-07,-0.940
-4.300E-07,-0.940
-4.200E-07,-0.900
-4.100E-07,-0.900
-4.000E-07,-0.880
-3.900E-07,-0.880
-3.800E-07,-0.920
-3.700E-07,-0.900
-3.600E-07,-0.900
-3.500E-07,-0.900
-3.400E-07,-0.920
-3.300E-07,-0.900
-3.200E-07,-0.900
-3.100E-07,-0.900
-3.000E-07,-0.860
-2.900E-07,-0.860
-2.800E-07,-0.880
-2.700E-07,-0.920
-2.600E-07,-0.920
-2.500E-07,-0.960
-2.400E-07,-0.940
-2.300E-07,-0.840
-2.200E-07,-0.880
-2.100E-07,-0.820
-2.000E-07,-0.920
-1.900E-07,-0.920
-1.800E-07,-1.000
-1.700E-07,-0.920
-1.600E-07,-0.920
-1.500E-07,-0.920
-1.400E-07,-0.960
-1.300E-07,-0.980
-1.200E-07,-0.980
-1.100E-07,-1.000
-1.000E-07,-1.020
-9.000E-08,-1.040
-8.000E-08,-1.180
-7.000E-08,-1.180
-6.000E-08,-1.200
-5.000E-08,-1.120
-4.000E-08,-1.000
-3.000E-08,-0.980
-2.000E-08,-1.060
-1.000E-08,-1.100
0.000E+00,-1.280
1.000E-08,-1.360
2.000E-08,-1.400
3.000E-08,-1.460
4.000E-08,-1.420
5.000E-08,-1.500
6.000E-08,-1.480
7.000E-08,-1.500
8.000E-08,-1.520
9.000E-08,-1.500
1.000E-07,-1.480
1.100E-07,-1.540
1.200E-07,-1.520
1.300E-07,-1.700
1.400E-07,-1.740
1.500E-07,-1.900
1.600E-07,-1.960
1.700E-07,-1.960
1.800E-07,-1.940
1.900E-07,-1.780
2.000E-07,-1.700
2.100E-07,-1.620
2.200E-07,-1.640
2.300E-07,-1.700
2.400E-07,-1.840
2.500E-07,-1.860
2.600E-07,-1.920
2.700E-07,-1.960
2.800E-07,-1.960
2.900E-07,-2.020
3.000E-07,-1.980
3.100E-07,-1.960
3.200E-07,-1.820
3.300E-07,-1.740
3.400E-07,-1.660
3.500E-07,-1.620
3.600E-07,-1.600
3.700E-07,-1.660
3.800E-07,-1.700
3.900E-07,-1.780
4.000E-07,-1.840
4.100E-07,-1.820
4.200E-07,-1.760
4.300E-07,-1.720
4.400E-07,-1.600
4.500E-07,-1.460
4.600E-07,-1.300
4.700E-07,-1.100
4.800E-07,-0.980
4.900E-07,-0.860
5.000E-07,-0.800
5.100E-07,-0.720
5.200E-07,-0.660
5.300E-07,-0.660
5.400E-07,-0.600
5.500E-07,-0.600
5.600E-07,-0.540
5.700E-07,-0.500
5.800E-07,-0.400
5.900E-07,-0.300
6.000E-07,-0.220
6.100E-07,-0.240
6.200E-07,-0.200
6.300E-07,-0.220
6.400E-07,-0.140
6.500E-07,-0.160
6.600E-07,-0.120
6.700E-07,-0.080
6.800E-07,-0.080
6.900E-07,-0.100
7.000E-07,-0.080
7.100E-07,-0.140
7.200E-07,-0.160
7.300E-07,-0.220
7.400E-07,-0.320
7.500E-07,-0.560
7.600E-07,-0.760
7.700E-07,-1.040
7.800E-07,-1.220
7.900E-07,-1.320
8.000E-07,-1.500
8.100E-07,-1.580
8.200E-07,-1.740
8.300E-07,-1.900
8.400E-07,-2.020
8.500E-07,-2.180
8.600E-07,-2.300
8.700E-07,-2.420
8.800E-07,-2.500
8.900E-07,-2.460
9.000E-07,-2.520
9.100E-07,-2.480
9.200E-07,-2.520
9.300E-07,-2.440
9.400E-07,-2.380
9.500E-07,-2.220
9.600E-07,-2.100
9.700E-07,-1.940
9.800E-07,-1.840
9.900E-07,-1.700
1.000E-06,-1.660
1.010E-06,-1.640
1.020E-06,-1.660
1.030E-06,-1.700
1.040E-06,-1.700
1.050E-06,-1.720
1.060E-06,-1.700
1.070E-06,-1.780
1.080E-06,-1.780
1.090E-06,-1.800
1.100E-06,-1.800
1.110E-06,-1.780
1.120E-06,-1.720
1.130E-06,-1.640
1.140E-06,-1.520
1.150E-06,-1.460
1.160E-06,-1.340
1.170E-06,-1.200
1.180E-06,-1.020
1.190E-06,-0.920
1.200E-06,-0.760
1.210E-06,-0.640
1.220E-06,-0.560
1.230E-06,-0.460
1.240E-06,-0.420
1.250E-06,-0.400
1.260E-06,-0.360
1.270E-06,-0.300
1.280E-06,-0.260
1.290E-06,-0.260
1.300E-06,-0.220
1.310E-06,-0.240
1.320E-06,-0.240
1.330E-06,-0.280
1.340E-06,-0.280
1.350E-06,-0.280
1.360E-06,-0.260
1.370E-06,-0.200
1.380E-06,-0.140
1.390E-06,-0.080
1.400E-06,-0.020
1.410E-06,0.060
1.420E-06,0.080
1.430E-06,0.120
1.440E-06,0.160
1.450E-06,0.200
1.460E-06,0.200
1.470E-06,0.200
1.480E-06,0.200
1.490E-06,0.160
1.500E-06,0.140
1.510E-06,0.120
1.520E-06,0.040
1.530E-06,0.040
1.540E-06,-0.020
1.550E-06,-0.080
1.560E-06,-0.140
1.570E-06,-0.180
1.580E-06,-0.220
1.590E-06,-0.240
1.600E-06,-0.260
1.610E-06,-0.300
1.620E-06,-0.340
1.630E-06,-0.340
1.640E-06,-0.340
1.650E-06,-0.320
1.660E-06,-0.340
1.670E-06,-0.320
1.680E-06,-0.320
1.690E-06,-0.320
1.700E-06,-0.260
1.710E-06,-0.240
1.720E-06,-0.260
1.730E-06,-0.240
1.740E-06,-0.200
1.750E-06,-0.180
1.760E-06,-0.160
1.770E-06,-0.160
1.780E-06,-0.140
1.790E-06,-0.140
1.800E-06,-0.120
1.810E-06,-0.120
1.820E-06,-0.100
1.830E-06,-0.060
1.840E-06,-0.060
1.850E-06,0.000
1.860E-06,-0.020
1.870E-06,0.040
1.880E-06,0.100
1.890E-06,0.120
1.900E-06,0.140
1.910E-06,0.180
1.920E-06,0.160
1.930E-06,0.160
1.940E-06,0.100
1.950E-06,0.100
1.960E-06,0.080
1.970E-06,0.020
1.980E-06,-0.040
1.990E-06,-0.080
2.000E-06,-0.120
2.010E-06,-0.160
2.020E-06,-0.220
2.030E-06,-0.280
2.040E-06,-0.300
2.050E-06,-0.340
2.060E-06,-0.360
2.070E-06,-0.400
2.080E-06,-0.400
2.090E-06,-0.380
2.100E-06,-0.400
2.110E-06,-0.400
2.120E-06,-0.400
2.130E-06,-0.380
2.140E-06,-0.400
2.150E-06,-0.380
2.160E-06,-0.320
2.170E-06,-0.340
2.180E-06,-0.300
2.190E-06,-0.320
2.200E-06,-0.300
2.210E-06,-0.260
2.220E-06,-0.260
2.230E-06,-0.260
2.240E-06,-0.240
2.250E-06,-0.240
2.260E-06,-0.260
2.270E-06,-0.260
2.280E-06,-0.260
2.290E-06,-0.300
2.300E-06,-0.320
2.310E-06,-0.340
2.320E-06,-0.380
2.330E-06,-0.400
2.340E-06,-0.420
2.350E-06,-0.480
2.360E-06,-0.520
2.370E-06,-0.540
2.380E-06,-0.520
2.390E-06,-0.500
2.400E-06,-0.520
2.410E-06,-0.520
2.420E-06,-0.480
2.430E-06,-0.440
2.440E-06,-0.460
2.450E-06,-0.460
2.460E-06,-0.420
2.470E-06,-0.460
2.480E-06,-0.480
2.490E-06,-0.480
2.500E-06,-0.560
2.510E-06,-0.580
2.520E-06,-0.640
2.530E-06,-0.680
2.540E-06,-0.800
2.550E-06,-0.840
2.560E-06,-0.920
2.570E-06,-0.980
2.580E-06,-1.040
2.590E-06,-1.100
2.600E-06,-1.200
2.610E-06,-1.260
2.620E-06,-1.300
2.630E-06,-1.360
2.640E-06,-1.400
2.650E-06,-1.420
2.660E-06,-1.480
2.670E-06,-1.520
2.680E-06,-1.540
2.690E-06,-1.520
2.700E-06,-1.540
2.710E-06,-1.520
2.720E-06,-1.480
2.730E-06,-1.440
2.740E-06,-1.380
2.750E-06,-1.340
2.760E-06,-1.300
2.770E-06,-1.240
2.780E-06,-1.160
2.790E-06,-1.120
2.800E-06,-1.020
2.810E-06,-0.960
2.820E-06,-0.900
2.830E-06,-0.820
2.840E-06,-0.760
2.850E-06,-0.660
2.860E-06,-0.620
2.870E-06,-0.540
2.880E-06,-0.480
2.890E-06,-0.420
2.900E-06,-0.400
2.910E-06,-0.340
2.920E-06,-0.260
2.930E-06,-0.220
2.940E-06,-0.180
2.950E-06,-0.160
2.960E-06,-0.080
2.970E-06,-0.060
2.980E-06,-0.040
2.990E-06,0.000
3.000E-06,0.020
3.010E-06,0.080
3.020E-06,0.080
3.030E-06,0.120
3.040E-06,0.160
3.050E-06,0.240
3.060E-06,0.260
3.070E-06,0.300
3.080E-06,0.320
3.090E-06,0.340
3.100E-06,0.320
3.110E-06,0.340
3.120E-06,0.300
3.130E-06,0.320
3.140E-06,0.280
3.150E-06,0.260
3.160E-06,0.260
3.170E-06,0.200
3.180E-06,0.160
3.190E-06,0.180
