mediciones/5-15/10/WaveData47283.csv

#timebase=2000000(ps)
,#voltbase=100000(mv/100)
#size=4000
-8.400E-06,0.000
-8.390E-06,0.000
-8.380E-06,-0.004
-8.370E-06,-0.004
-8.360E-06,0.004
-8.350E-06,0.012
-8.340E-06,0.012
-8.330E-06,0.000
-8.320E-06,0.000
-8.310E-06,0.000
-8.300E-06,-0.004
-8.290E-06,0.000
-8.280E-06,-0.004
-8.270E-06,0.000
-8.260E-06,0.008
-8.250E-06,0.012
-8.240E-06,0.012
-8.230E-06,0.008
-8.220E-06,-0.004
-8.210E-06,-0.008
-8.200E-06,-0.004
-8.190E-06,0.000
-8.180E-06,0.012
-8.170E-06,0.020
-8.160E-06,0.028
-8.150E-06,0.000
-8.140E-06,-0.004
-8.130E-06,-0.020
-8.120E-06,0.000
-8.110E-06,0.004
-8.100E-06,0.020
-8.090E-06,0.020
-8.080E-06,0.008
-8.070E-06,0.000
-8.060E-06,-0.008
-8.050E-06,-0.008
-8.040E-06,0.000
-8.030E-06,0.004
-8.020E-06,0.008
-8.010E-06,0.008
-8.000E-06,0.008
-7.990E-06,0.008
-7.980E-06,0.000
-7.970E-06,-0.004
-7.960E-06,-0.004
-7.950E-06,-0.004
-7.940E-06,0.008
-7.930E-06,0.008
-7.920E-06,0.012
-7.910E-06,0.004
-7.900E-06,0.004
-7.890E-06,-0.004
-7.880E-06,-0.004
-7.870E-06,-0.004
-7.860E-06,0.004
-7.850E-06,0.004
-7.840E-06,0.012
-7.830E-06,0.008
-7.820E-06,0.000
-7.810E-06,-0.004
-7.800E-06,-0.004
-7.790E-06,0.000
-7.780E-06,0.004
-7.770E-06,0.008
-7.760E-06,0.008
-7.750E-06,0.008
-7.740E-06,-0.004
-7.730E-06,-0.004
-7.720E-06,0.004
-7.710E-06,0.004
-7.700E-06,0.000
-7.690E-06,0.008
-7.680E-06,0.004
-7.670E-06,0.000
-7.660E-06,0.000
-7.650E-06,-0.004
-7.640E-06,-0.008
-7.630E-06,0.000
-7.620E-06,0.004
-7.610E-06,0.012
-7.600E-06,0.008
-7.590E-06,0.008
-7.580E-06,0.000
-7.570E-06,-0.004
-7.560E-06,-0.004
-7.550E-06,-0.004
-7.540E-06,0.004
-7.530E-06,0.012
-7.520E-06,0.024
-7.510E-06,0.012
-7.500E-06,0.000
-7.490E-06,0.000
-7.480E-06,-0.004
-7.470E-06,-0.008
-7.460E-06,0.004
-7.450E-06,0.012
-7.440E-06,0.004
-7.430E-06,0.008
-7.420E-06,0.008
-7.410E-06,0.004
-7.400E-06,-0.004
-7.390E-06,-0.008
-7.380E-06,0.004
-7.370E-06,0.000
-7.360E-06,0.004
-7.350E-06,0.008
-7.340E-06,0.004
-7.330E-06,0.004
-7.320E-06,0.004
-7.310E-06,0.000
-7.300E-06,0.004
-7.290E-06,0.000
-7.280E-06,0.004
-7.270E-06,0.004
-7.260E-06,0.004
-7.250E-06,0.000
-7.240E-06,0.000
-7.230E-06,0.000
-7.220E-06,-0.004
-7.210E-06,0.000
-7.200E-06,-0.004
-7.190E-06,0.004
-7.180E-06,0.012
-7.170E-06,0.016
-7.160E-06,0.012
-7.150E-06,0.000
-7.140E-06,-0.004
-7.130E-06,-0.004
-7.120E-06,0.004
-7.110E-06,0.008
-7.100E-06,0.008
-7.090E-06,0.008
-7.080E-06,0.008
-7.070E-06,0.000
-7.060E-06,0.000
-7.050E-06,-0.004
-7.040E-06,0.004
-7.030E-06,0.008
-7.020E-06,0.008
-7.010E-06,0.008
-7.000E-06,0.000
-6.990E-06,0.000
-6.980E-06,0.000
-6.970E-06,0.004
-6.960E-06,0.004
-6.950E-06,0.008
-6.940E-06,0.004
-6.930E-06,0.008
-6.920E-06,0.008
-6.910E-06,0.004
-6.900E-06,0.000
-6.890E-06,0.000
-6.880E-06,0.000
-6.870E-06,-0.004
-6.860E-06,0.004
-6.850E-06,0.008
-6.840E-06,0.000
-6.830E-06,0.000
-6.820E-06,0.004
-6.810E-06,0.000
-6.800E-06,-0.004
-6.790E-06,0.000
-6.780E-06,0.000
-6.770E-06,0.004
-6.760E-06,0.012
-6.750E-06,0.012
-6.740E-06,0.008
-6.730E-06,0.004
-6.720E-06,0.004
-6.710E-06,0.000
-6.700E-06,0.000
-6.690E-06,0.004
-6.680E-06,0.004
-6.670E-06,0.008
-6.660E-06,0.000
-6.650E-06,-0.004
-6.640E-06,-0.004
-6.630E-06,-0.004
-6.620E-06,0.004
-6.610E-06,0.008
-6.600E-06,0.012
-6.590E-06,0.008
-6.580E-06,0.004
-6.570E-06,0.000
-6.560E-06,0.000
-6.550E-06,0.004
-6.540E-06,-0.008
-6.530E-06,0.004
-6.520E-06,0.000
-6.510E-06,0.004
-6.500E-06,0.008
-6.490E-06,0.004
-6.480E-06,-0.004
-6.470E-06,-0.004
-6.460E-06,0.000
-6.450E-06,-0.004
-6.440E-06,0.000
-6.430E-06,0.008
-6.420E-06,0.004
-6.410E-06,0.004
-6.400E-06,-0.004
-6.390E-06,0.000
-6.380E-06,-0.004
-6.370E-06,0.000
-6.360E-06,0.004
-6.350E-06,0.008
-6.340E-06,0.004
-6.330E-06,0.004
-6.320E-06,0.000
-6.310E-06,0.000
-6.300E-06,0.004
-6.290E-06,0.004
-6.280E-06,0.000
-6.270E-06,0.000
-6.260E-06,0.004
-6.250E-06,0.000
-6.240E-06,0.004
-6.230E-06,0.000
-6.220E-06,0.004
-6.210E-06,0.000
-6.200E-06,0.000
-6.190E-06,-0.004
-6.180E-06,-0.004
-6.170E-06,0.000
-6.160E-06,0.008
-6.150E-06,0.008
-6.140E-06,0.008
-6.130E-06,0.008
-6.120E-06,0.008
-6.110E-06,0.008
-6.100E-06,0.000
-6.090E-06,0.004
-6.080E-06,0.004
-6.070E-06,0.004
-6.060E-06,0.004
-6.050E-06,0.000
-6.040E-06,0.000
-6.030E-06,-0.004
-6.020E-06,0.000
-6.010E-06,0.004
-6.000E-06,0.008
-5.990E-06,0.008
-5.980E-06,0.008
-5.970E-06,-0.004
-5.960E-06,0.000
-5.950E-06,0.000
-5.940E-06,0.008
-5.930E-06,0.004
-5.920E-06,0.004
-5.910E-06,0.000
-5.900E-06,-0.004
-5.890E-06,-0.004
-5.880E-06,-0.004
-5.870E-06,0.008
-5.860E-06,0.004
-5.850E-06,0.008
-5.840E-06,-0.004
-5.830E-06,-0.004
-5.820E-06,-0.004
-5.810E-06,0.008
-5.800E-06,0.016
-5.790E-06,0.016
-5.780E-06,-0.004
-5.770E-06,-0.004
-5.760E-06,-0.008
-5.750E-06,-0.004
-5.740E-06,0.008
-5.730E-06,0.024
-5.720E-06,0.020
-5.710E-06,0.012
-5.700E-06,-0.008
-5.690E-06,-0.012
-5.680E-06,-0.008
-5.670E-06,0.008
-5.660E-06,0.008
-5.650E-06,0.008
-5.640E-06,0.008
-5.630E-06,0.000
-5.620E-06,-0.008
-5.610E-06,-0.004
-5.600E-06,0.000
-5.590E-06,0.008
-5.580E-06,0.012
-5.570E-06,0.008
-5.560E-06,0.000
-5.550E-06,0.000
-5.540E-06,-0.004
-5.530E-06,0.000
-5.520E-06,0.004
-5.510E-06,0.004
-5.500E-06,0.008
-5.490E-06,0.012
-5.480E-06,0.004
-5.470E-06,-0.008
-5.460E-06,0.000
-5.450E-06,0.004
-5.440E-06,0.004
-5.430E-06,0.008
-5.420E-06,0.004
-5.410E-06,0.004
-5.400E-06,0.000
-5.390E-06,0.000
-5.380E-06,-0.004
-5.370E-06,0.000
-5.360E-06,0.012
-5.350E-06,0.016
-5.340E-06,0.008
-5.330E-06,0.008
-5.320E-06,-0.004
-5.310E-06,-0.008
-5.300E-06,-0.008
-5.290E-06,0.004
-5.280E-06,0.008
-5.270E-06,0.008
-5.260E-06,0.012
-5.250E-06,0.012
-5.240E-06,0.000
-5.230E-06,-0.008
-5.220E-06,0.000
-5.210E-06,0.004
-5.200E-06,0.008
-5.190E-06,0.008
-5.180E-06,0.012
-5.170E-06,-0.004
-5.160E-06,-0.004
-5.150E-06,-0.004
-5.140E-06,0.000
-5.130E-06,0.008
-5.120E-06,0.008
-5.110E-06,0.004
-5.100E-06,0.000
-5.090E-06,0.004
-5.080E-06,0.004
-5.070E-06,0.004
-5.060E-06,0.008
-5.050E-06,-0.004
-5.040E-06,-0.004
-5.030E-06,0.004
-5.020E-06,0.004
-5.010E-06,0.004
-5.000E-06,0.004
-4.990E-06,0.000
-4.980E-06,0.000
-4.970E-06,-0.008
-4.960E-06,0.004
-4.950E-06,0.004
-4.940E-06,0.004
-4.930E-06,0.004
-4.920E-06,0.004
-4.910E-06,-0.004
-4.900E-06,0.000
-4.890E-06,0.004
-4.880E-06,-0.004
-4.870E-06,0.004
-4.860E-06,0.004
-4.850E-06,0.004
-4.840E-06,0.000
-4.830E-06,0.004
-4.820E-06,-0.004
-4.810E-06,0.004
-4.800E-06,0.004
-4.790E-06,0.004
-4.780E-06,0.000
-4.770E-06,0.000
-4.760E-06,0.004
-4.750E-06,0.000
-4.740E-06,0.000
-4.730E-06,0.004
-4.720E-06,-0.004
-4.710E-06,0.000
-4.700E-06,0.004
-4.690E-06,0.000
-4.680E-06,0.004
-4.670E-06,0.000
-4.660E-06,0.000
-4.650E-06,-0.004
-4.640E-06,0.012
-4.630E-06,0.004
-4.620E-06,0.008
-4.610E-06,0.004
-4.600E-06,-0.008
-4.590E-06,-0.008
-4.580E-06,-0.004
-4.570E-06,-0.004
-4.560E-06,0.008
-4.550E-06,0.004
-4.540E-06,0.008
-4.530E-06,0.012
-4.520E-06,0.012
-4.510E-06,-0.004
-4.500E-06,-0.008
-4.490E-06,0.000
-4.480E-06,0.008
-4.470E-06,0.012
-4.460E-06,0.024
-4.450E-06,0.016
-4.440E-06,-0.004
-4.430E-06,0.000
-4.420E-06,0.000
-4.410E-06,0.004
-4.400E-06,0.004
-4.390E-06,0.004
-4.380E-06,-0.004
-4.370E-06,-0.004
-4.360E-06,0.004
-4.350E-06,0.008
-4.340E-06,0.012
-4.330E-06,0.012
-4.320E-06,-0.004
-4.310E-06,-0.004
-4.300E-06,0.000
-4.290E-06,0.004
-4.280E-06,0.008
-4.270E-06,0.008
-4.260E-06,0.004
-4.250E-06,0.000
-4.240E-06,0.000
-4.230E-06,-0.004
-4.220E-06,0.000
-4.210E-06,0.000
-4.200E-06,-0.004
-4.190E-06,-0.004
-4.180E-06,-0.004
-4.170E-06,0.008
-4.160E-06,0.012
-4.150E-06,0.024
-4.140E-06,0.012
-4.130E-06,-0.004
-4.120E-06,-0.012
-4.110E-06,-0.008
-4.100E-06,0.004
-4.090E-06,0.012
-4.080E-06,0.024
-4.070E-06,0.024
-4.060E-06,0.012
-4.050E-06,-0.008
-4.040E-06,-0.008
-4.030E-06,-0.004
-4.020E-06,0.000
-4.010E-06,0.008
-4.000E-06,0.020
-3.990E-06,0.008
-3.980E-06,0.000
-3.970E-06,0.000
-3.960E-06,-0.004
-3.950E-06,-0.004
-3.940E-06,-0.004
-3.930E-06,0.004
-3.920E-06,0.004
-3.910E-06,0.012
-3.900E-06,0.008
-3.890E-06,0.004
-3.880E-06,-0.004
-3.870E-06,-0.004
-3.860E-06,-0.004
-3.850E-06,0.004
-3.840E-06,0.016
-3.830E-06,0.024
-3.820E-06,0.016
-3.810E-06,-0.004
-3.800E-06,-0.008
-3.790E-06,-0.020
-3.780E-06,-0.008
-3.770E-06,0.004
-3.760E-06,0.020
-3.750E-06,0.024
-3.740E-06,0.020
-3.730E-06,0.004
-3.720E-06,-0.012
-3.710E-06,-0.008
-3.700E-06,0.004
-3.690E-06,0.012
-3.680E-06,0.012
-3.670E-06,0.016
-3.660E-06,0.012
-3.650E-06,0.000
-3.640E-06,0.000
-3.630E-06,0.008
-3.620E-06,0.004
-3.610E-06,0.000
-3.600E-06,-0.004
-3.590E-06,0.004
-3.580E-06,0.008
-3.570E-06,0.004
-3.560E-06,0.008
-3.550E-06,0.004
-3.540E-06,0.000
-3.530E-06,-0.004
-3.520E-06,0.004
-3.510E-06,0.012
-3.500E-06,0.016
-3.490E-06,0.016
-3.480E-06,0.016
-3.470E-06,0.012
-3.460E-06,0.000
-3.450E-06,0.000
-3.440E-06,0.012
-3.430E-06,0.032
-3.420E-06,0.024
-3.410E-06,0.008
-3.400E-06,0.012
-3.390E-06,0.008
-3.380E-06,-0.004
-3.370E-06,-0.008
-3.360E-06,-0.004
-3.350E-06,0.004
-3.340E-06,0.012
-3.330E-06,0.016
-3.320E-06,0.008
-3.310E-06,-0.004
-3.300E-06,-0.008
-3.290E-06,-0.008
-3.280E-06,0.000
-3.270E-06,0.008
-3.260E-06,0.020
-3.250E-06,0.024
-3.240E-06,0.024
-3.230E-06,0.012
-3.220E-06,0.000
-3.210E-06,-0.008
-3.200E-06,-0.008
-3.190E-06,0.012
-3.180E-06,0.028
-3.170E-06,0.036
-3.160E-06,0.032
-3.150E-06,0.016
-3.140E-06,-0.012
-3.130E-06,-0.016
-3.120E-06,-0.012
-3.110E-06,0.000
-3.100E-06,0.024
-3.090E-06,0.040
-3.080E-06,0.032
-3.070E-06,0.008
-3.060E-06,-0.012
-3.050E-06,-0.028
-3.040E-06,-0.020
-3.030E-06,0.004
-3.020E-06,0.028
-3.010E-06,0.032
-3.000E-06,0.028
-2.990E-06,0.004
-2.980E-06,-0.008
-2.970E-06,0.000
-2.960E-06,0.004
-2.950E-06,0.012
-2.940E-06,0.024
-2.930E-06,0.024
-2.920E-06,0.016
-2.910E-06,0.004
-2.900E-06,0.000
-2.890E-06,0.012
-2.880E-06,0.020
-2.870E-06,0.016
-2.860E-06,0.020
-2.850E-06,0.020
-2.840E-06,0.020
-2.830E-06,0.024
-2.820E-06,0.020
-2.810E-06,0.012
-2.800E-06,0.008
-2.790E-06,0.012
-2.780E-06,0.024
-2.770E-06,0.024
-2.760E-06,0.024
-2.750E-06,0.024
-2.740E-06,0.028
-2.730E-06,0.028
-2.720E-06,0.032
-2.710E-06,0.020
-2.700E-06,0.032
-2.690E-06,0.040
-2.680E-06,0.028
-2.670E-06,0.032
-2.660E-06,0.032
-2.650E-06,0.040
-2.640E-06,0.060
-2.630E-06,0.076
-2.620E-06,0.076
-2.610E-06,0.044
-2.600E-06,0.020
-2.590E-06,-0.036
-2.580E-06,-0.084
-2.570E-06,-0.136
-2.560E-06,-0.124
-2.550E-06,-0.088
-2.540E-06,-0.016
-2.530E-06,0.044
-2.520E-06,0.068
-2.510E-06,0.048
-2.500E-06,-0.008
-2.490E-06,-0.052
-2.480E-06,-0.072
-2.470E-06,-0.036
-2.460E-06,0.012
-2.450E-06,0.056
-2.440E-06,0.072
-2.430E-06,0.060
-2.420E-06,-0.004
-2.410E-06,-0.040
-2.400E-06,-0.064
-2.390E-06,-0.040
-2.380E-06,-0.004
-2.370E-06,0.060
-2.360E-06,0.072
-2.350E-06,0.056
-2.340E-06,0.016
-2.330E-06,-0.020
-2.320E-06,-0.036
-2.310E-06,-0.012
-2.300E-06,0.024
-2.290E-06,0.056
-2.280E-06,0.080
-2.270E-06,0.072
-2.260E-06,0.060
-2.250E-06,0.032
-2.240E-06,0.020
-2.230E-06,0.020
-2.220E-06,0.036
-2.210E-06,0.076
-2.200E-06,0.088
-2.190E-06,0.100
-2.180E-06,0.092
-2.170E-06,0.028
-2.160E-06,-0.028
-2.150E-06,-0.028
-2.140E-06,-0.012
-2.130E-06,-0.008
-2.120E-06,-0.008
-2.110E-06,-0.008
-2.100E-06,-0.040
-2.090E-06,-0.064
-2.080E-06,-0.024
-2.070E-06,0.036
-2.060E-06,0.100
-2.050E-06,0.100
-2.040E-06,0.056
-2.030E-06,-0.004
-2.020E-06,-0.020
-2.010E-06,0.016
-2.000E-06,0.056
-1.990E-06,0.088
-1.980E-06,0.092
-1.970E-06,0.068
-1.960E-06,0.044
-1.950E-06,0.032
-1.940E-06,0.040
-1.930E-06,0.060
-1.920E-06,0.064
-1.910E-06,0.064
-1.900E-06,0.064
-1.890E-06,0.056
-1.880E-06,0.044
-1.870E-06,0.032
-1.860E-06,0.036
-1.850E-06,0.068
-1.840E-06,0.088
-1.830E-06,0.096
-1.820E-06,0.092
-1.810E-06,0.084
-1.800E-06,0.056
-1.790E-06,0.048
-1.780E-06,0.048
-1.770E-06,0.032
-1.760E-06,-0.036
-1.750E-06,-0.172
-1.740E-06,-0.304
-1.730E-06,-0.360
-1.720E-06,-0.324
-1.710E-06,-0.212
-1.700E-06,-0.104
-1.690E-06,-0.052
-1.680E-06,-0.004
-1.670E-06,0.008
-1.660E-06,-0.052
-1.650E-06,-0.112
-1.640E-06,-0.084
-1.630E-06,0.056
-1.620E-06,0.148
-1.610E-06,0.124
-1.600E-06,0.072
-1.590E-06,-0.012
-1.580E-06,-0.044
-1.570E-06,-0.008
-1.560E-06,0.064
-1.550E-06,0.108
-1.540E-06,0.108
-1.530E-06,0.072
-1.520E-06,0.000
-1.510E-06,-0.108
-1.500E-06,-0.100
-1.490E-06,-0.080
-1.480E-06,0.072
-1.470E-06,0.148
-1.460E-06,0.172
-1.450E-06,0.008
-1.440E-06,-0.144
-1.430E-06,-0.240
-1.420E-06,-0.232
-1.410E-06,-0.100
-1.400E-06,0.104
-1.390E-06,0.296
-1.380E-06,0.272
-1.370E-06,0.096
-1.360E-06,-0.160
-1.350E-06,-0.320
-1.340E-06,-0.324
-1.330E-06,-0.124
-1.320E-06,0.096
-1.310E-06,0.256
-1.300E-06,0.280
-1.290E-06,0.148
-1.280E-06,-0.028
-1.270E-06,-0.172
-1.260E-06,-0.192
-1.250E-06,-0.076
-1.240E-06,0.092
-1.230E-06,0.216
-1.220E-06,0.256
-1.210E-06,0.172
-1.200E-06,0.012
-1.190E-06,-0.108
-1.180E-06,-0.112
-1.170E-06,-0.008
-1.160E-06,0.108
-1.150E-06,0.208
-1.140E-06,0.232
-1.130E-06,0.196
-1.120E-06,0.064
-1.110E-06,-0.044
-1.100E-06,-0.120
-1.090E-06,-0.104
-1.080E-06,-0.060
-1.070E-06,-0.012
-1.060E-06,0.020
-1.050E-06,0.008
-1.040E-06,-0.008
-1.030E-06,-0.036
-1.020E-06,-0.040
-1.010E-06,-0.044
-1.000E-06,-0.028
-9.900E-07,0.008
-9.800E-07,0.064
-9.700E-07,0.100
-9.600E-07,0.104
-9.500E-07,0.084
-9.400E-07,-0.004
-9.300E-07,-0.076
-9.200E-07,-0.052
-9.100E-07,0.008
-9.000E-07,0.072
-8.900E-07,0.132
-8.800E-07,0.144
-8.700E-07,0.088
-8.600E-07,0.024
-8.500E-07,-0.044
-8.400E-07,-0.028
-8.300E-07,0.036
-8.200E-07,0.092
-8.100E-07,0.124
-8.000E-07,0.100
-7.900E-07,0.064
-7.800E-07,0.004
-7.700E-07,-0.004
-7.600E-07,0.024
-7.500E-07,0.076
-7.400E-07,0.112
-7.300E-07,0.124
-7.200E-07,0.096
-7.100E-07,0.064
-7.000E-07,0.040
-6.900E-07,0.048
-6.800E-07,0.072
-6.700E-07,0.108
-6.600E-07,0.128
-6.500E-07,0.140
-6.400E-07,0.124
-6.300E-07,0.100
-6.200E-07,0.080
-6.100E-07,0.076
-6.000E-07,0.096
-5.900E-07,0.108
-5.800E-07,0.132
-5.700E-07,0.132
-5.600E-07,0.092
-5.500E-07,0.036
-5.400E-07,-0.024
-5.300E-07,-0.044
-5.200E-07,-0.044
-5.100E-07,-0.036
-5.000E-07,-0.024
-4.900E-07,-0.012
-4.800E-07,-0.012
-4.700E-07,-0.040
-4.600E-07,-0.048
-4.500E-07,-0.048
-4.400E-07,-0.068
-4.300E-07,-0.056
-4.200E-07,-0.008
-4.100E-07,0.004
-4.000E-07,-0.004
-3.900E-07,-0.020
-3.800E-07,-0.024
-3.700E-07,0.028
-3.600E-07,0.072
-3.500E-07,0.096
-3.400E-07,0.140
-3.300E-07,0.132
-3.200E-07,0.128
-3.100E-07,0.124
-3.000E-07,0.136
-2.900E-07,0.156
-2.800E-07,0.160
-2.700E-07,0.156
-2.600E-07,0.136
-2.500E-07,0.124
-2.400E-07,0.124
-2.300E-07,0.128
-2.200E-07,0.124
-2.100E-07,0.160
-2.000E-07,0.176
-1.900E-07,0.184
-1.800E-07,0.156
-1.700E-07,0.120
-1.600E-07,0.088
-1.500E-07,0.060
-1.400E-07,0.056
-1.300E-07,0.108
-1.200E-07,0.176
-1.100E-07,0.252
-1.000E-07,0.292
-9.000E-08,0.204
-8.000E-08,0.016
-7.000E-08,-0.336
-6.000E-08,-0.508
-5.000E-08,-0.508
-4.000E-08,-0.512
-3.000E-08,-0.512
-2.000E-08,-0.144
-1.000E-08,0.316
0.000E+00,0.540
1.000E-08,0.420
2.000E-08,-0.332
3.000E-08,-0.512
4.000E-08,-0.508
5.000E-08,-0.512
6.000E-08,-0.476
7.000E-08,0.120
8.000E-08,0.540
9.000E-08,0.544
1.000E-07,0.224
1.100E-07,-0.320
1.200E-07,-0.512
1.300E-07,-0.512
1.400E-07,-0.360
1.500E-07,0.184
1.600E-07,0.540
1.700E-07,0.540
1.800E-07,0.352
1.900E-07,-0.180
2.000E-07,-0.504
2.100E-07,-0.512
2.200E-07,-0.300
2.300E-07,0.188
2.400E-07,0.540
2.500E-07,0.540
2.600E-07,0.432
2.700E-07,0.044
2.800E-07,-0.320
2.900E-07,-0.420
3.000E-07,-0.264
3.100E-07,0.088
3.200E-07,0.388
3.300E-07,0.484
3.400E-07,0.356
3.500E-07,0.092
3.600E-07,-0.180
3.700E-07,-0.308
3.800E-07,-0.208
3.900E-07,0.016
4.000E-07,0.272
4.100E-07,0.348
4.200E-07,0.300
4.300E-07,0.080
4.400E-07,-0.152
4.500E-07,-0.264
4.600E-07,-0.216
4.700E-07,-0.056
4.800E-07,0.128
4.900E-07,0.256
5.000E-07,0.224
5.100E-07,0.120
5.200E-07,-0.040
5.300E-07,-0.148
5.400E-07,-0.144
5.500E-07,-0.028
5.600E-07,0.136
5.700E-07,0.272
5.800E-07,0.332
5.900E-07,0.264
6.000E-07,0.156
6.100E-07,0.068
6.200E-07,0.080
6.300E-07,0.140
6.400E-07,0.256
6.500E-07,0.328
6.600E-07,0.340
6.700E-07,0.280
6.800E-07,0.184
6.900E-07,0.104
7.000E-07,0.064
7.100E-07,0.096
7.200E-07,0.144
7.300E-07,0.188
7.400E-07,0.196
7.500E-07,0.160
7.600E-07,0.092
7.700E-07,0.044
7.800E-07,0.044
7.900E-07,0.100
8.000E-07,0.188
8.100E-07,0.256
8.200E-07,0.284
8.300E-07,0.256
8.400E-07,0.204
8.500E-07,0.140
8.600E-07,0.116
8.700E-07,0.128
8.800E-07,0.164
8.900E-07,0.216
9.000E-07,0.236
9.100E-07,0.220
9.200E-07,0.176
9.300E-07,0.124
9.400E-07,0.100
9.500E-07,0.116
9.600E-07,0.156
9.700E-07,0.224
9.800E-07,0.260
9.900E-07,0.240
1.000E-06,0.192
1.010E-06,0.128
1.020E-06,0.092
1.030E-06,0.088
1.040E-06,0.128
1.050E-06,0.172
1.060E-06,0.196
1.070E-06,0.176
1.080E-06,0.108
1.090E-06,0.024
1.100E-06,-0.008
1.110E-06,-0.008
1.120E-06,0.040
1.130E-06,0.088
1.140E-06,0.092
1.150E-06,0.040
1.160E-06,-0.012
1.170E-06,-0.044
1.180E-06,-0.024
1.190E-06,0.076
1.200E-06,0.212
1.210E-06,0.288
1.220E-06,0.284
1.230E-06,0.208
1.240E-06,0.084
1.250E-06,0.004
1.260E-06,0.000
1.270E-06,0.064
1.280E-06,0.156
1.290E-06,0.240
1.300E-06,0.264
1.310E-06,0.212
1.320E-06,0.128
1.330E-06,0.024
1.340E-06,-0.016
1.350E-06,-0.020
1.360E-06,0.036
1.370E-06,0.128
1.380E-06,0.204
1.390E-06,0.236
1.400E-06,0.208
1.410E-06,0.140
1.420E-06,0.052
1.430E-06,0.028
1.440E-06,0.060
1.450E-06,0.160
1.460E-06,0.244
1.470E-06,0.292
1.480E-06,0.264
1.490E-06,0.180
1.500E-06,0.112
1.510E-06,0.092
1.520E-06,0.124
1.530E-06,0.180
1.540E-06,0.248
1.550E-06,0.276
1.560E-06,0.264
1.570E-06,0.212
1.580E-06,0.148
1.590E-06,0.112
1.600E-06,0.124
1.610E-06,0.168
1.620E-06,0.232
1.630E-06,0.268
1.640E-06,0.264
1.650E-06,0.228
1.660E-06,0.180
1.670E-06,0.148
1.680E-06,0.140
1.690E-06,0.172
1.700E-06,0.212
1.710E-06,0.244
1.720E-06,0.248
1.730E-06,0.228
1.740E-06,0.196
1.750E-06,0.156
1.760E-06,0.152
1.770E-06,0.164
1.780E-06,0.196
1.790E-06,0.224
1.800E-06,0.236
1.810E-06,0.220
1.820E-06,0.196
1.830E-06,0.168
1.840E-06,0.160
1.850E-06,0.156
1.860E-06,0.184
1.870E-06,0.208
1.880E-06,0.224
1.890E-06,0.216
1.900E-06,0.200
1.910E-06,0.180
1.920E-06,0.168
1.930E-06,0.168
1.940E-06,0.180
1.950E-06,0.200
1.960E-06,0.212
1.970E-06,0.212
1.980E-06,0.208
1.990E-06,0.188
2.000E-06,0.172
2.010E-06,0.168
2.020E-06,0.168
2.030E-06,0.184
2.040E-06,0.200
2.050E-06,0.200
2.060E-06,0.204
2.070E-06,0.188
2.080E-06,0.172
2.090E-06,0.172
2.100E-06,0.168
2.110E-06,0.184
2.120E-06,0.192
2.130E-06,0.192
2.140E-06,0.192
2.150E-06,0.172
2.160E-06,0.160
2.170E-06,0.160
2.180E-06,0.160
2.190E-06,0.168
2.200E-06,0.176
2.210E-06,0.176
2.220E-06,0.172
2.230E-06,0.176
2.240E-06,0.176
2.250E-06,0.172
2.260E-06,0.176
2.270E-06,0.172
2.280E-06,0.176
2.290E-06,0.176
2.300E-06,0.172
2.310E-06,0.176
2.320E-06,0.176
2.330E-06,0.172
2.340E-06,0.168
2.350E-06,0.172
2.360E-06,0.176
2.370E-06,0.172
2.380E-06,0.172
2.390E-06,0.168
2.400E-06,0.172
2.410E-06,0.172
2.420E-06,0.180
2.430E-06,0.180
2.440E-06,0.176
2.450E-06,0.180
2.460E-06,0.180
2.470E-06,0.180
2.480E-06,0.176
2.490E-06,0.176
2.500E-06,0.176
2.510E-06,0.180
2.520E-06,0.180
2.530E-06,0.176
2.540E-06,0.176
2.550E-06,0.176
2.560E-06,0.172
2.570E-06,0.172
2.580E-06,0.172
2.590E-06,0.164
2.600E-06,0.164
2.610E-06,0.172
2.620E-06,0.172
2.630E-06,0.168
2.640E-06,0.172
2.650E-06,0.172
2.660E-06,0.172
2.670E-06,0.168
2.680E-06,0.168
2.690E-06,0.172
2.700E-06,0.172
2.710E-06,0.160
2.720E-06,0.160
2.730E-06,0.164
2.740E-06,0.164
2.750E-06,0.156
2.760E-06,0.160
2.770E-06,0.164
2.780E-06,0.164
2.790E-06,0.164
2.800E-06,0.164
2.810E-06,0.156
2.820E-06,0.160
2.830E-06,0.156
2.840E-06,0.156
2.850E-06,0.160
2.860E-06,0.164
2.870E-06,0.156
2.880E-06,0.156
2.890E-06,0.152
2.900E-06,0.152
2.910E-06,0.160
2.920E-06,0.160
2.930E-06,0.152
2.940E-06,0.156
2.950E-06,0.160
2.960E-06,0.156
2.970E-06,0.160
2.980E-06,0.160
2.990E-06,0.152
3.000E-06,0.152
3.010E-06,0.156
3.020E-06,0.152
3.030E-06,0.156
3.040E-06,0.152
3.050E-06,0.152
3.060E-06,0.156
3.070E-06,0.152
3.080E-06,0.152
3.090E-06,0.156
3.100E-06,0.152
3.110E-06,0.156
3.120E-06,0.156
3.130E-06,0.160
3.140E-06,0.152
3.150E-06,0.156
3.160E-06,0.148
3.170E-06,0.148
3.180E-06,0.152
3.190E-06,0.152
3.200E-06,0.152
3.210E-06,0.148
3.220E-06,0.144
3.230E-06,0.140
3.240E-06,0.136
3.250E-06,0.140
3.260E-06,0.140
3.270E-06,0.144
3.280E-06,0.148
3.290E-06,0.148
3.300E-06,0.148
3.310E-06,0.144
3.320E-06,0.136
3.330E-06,0.136
3.340E-06,0.136
3.350E-06,0.140
3.360E-06,0.136
