mediciones/5-15/10/WaveData47290.csv

#timebase=2000000(ps)
,#voltbase=500000(mv/100)
#size=4000
-8.400E-06,0.020
-8.390E-06,0.040
-8.380E-06,0.060
-8.370E-06,0.060
-8.360E-06,0.040
-8.350E-06,0.060
-8.340E-06,0.040
-8.330E-06,0.020
-8.320E-06,0.040
-8.310E-06,0.040
-8.300E-06,0.060
-8.290E-06,0.060
-8.280E-06,0.040
-8.270E-06,0.060
-8.260E-06,0.080
-8.250E-06,0.060
-8.240E-06,0.080
-8.230E-06,0.040
-8.220E-06,0.060
-8.210E-06,0.060
-8.200E-06,0.040
-8.190E-06,0.040
-8.180E-06,0.060
-8.170E-06,0.060
-8.160E-06,0.060
-8.150E-06,0.040
-8.140E-06,0.060
-8.130E-06,0.040
-8.120E-06,0.040
-8.110E-06,0.060
-8.100E-06,0.080
-8.090E-06,0.060
-8.080E-06,0.040
-8.070E-06,0.060
-8.060E-06,0.060
-8.050E-06,0.060
-8.040E-06,0.080
-8.030E-06,0.060
-8.020E-06,0.060
-8.010E-06,0.080
-8.000E-06,0.080
-7.990E-06,0.080
-7.980E-06,0.040
-7.970E-06,0.040
-7.960E-06,0.040
-7.950E-06,0.020
-7.940E-06,0.040
-7.930E-06,0.020
-7.920E-06,0.040
-7.910E-06,0.060
-7.900E-06,0.040
-7.890E-06,0.060
-7.880E-06,0.040
-7.870E-06,0.040
-7.860E-06,0.040
-7.850E-06,0.060
-7.840E-06,0.080
-7.830E-06,0.060
-7.820E-06,0.060
-7.810E-06,0.020
-7.800E-06,0.020
-7.790E-06,0.060
-7.780E-06,0.080
-7.770E-06,0.080
-7.760E-06,0.040
-7.750E-06,0.040
-7.740E-06,0.060
-7.730E-06,0.040
-7.720E-06,0.060
-7.710E-06,0.060
-7.700E-06,0.040
-7.690E-06,0.040
-7.680E-06,0.040
-7.670E-06,0.080
-7.660E-06,0.040
-7.650E-06,0.060
-7.640E-06,0.060
-7.630E-06,0.040
-7.620E-06,0.080
-7.610E-06,0.040
-7.600E-06,0.040
-7.590E-06,0.040
-7.580E-06,0.040
-7.570E-06,0.080
-7.560E-06,0.060
-7.550E-06,0.080
-7.540E-06,0.040
-7.530E-06,0.040
-7.520E-06,0.080
-7.510E-06,0.040
-7.500E-06,0.020
-7.490E-06,0.060
-7.480E-06,0.080
-7.470E-06,0.020
-7.460E-06,0.020
-7.450E-06,0.040
-7.440E-06,0.020
-7.430E-06,0.060
-7.420E-06,0.080
-7.410E-06,0.080
-7.400E-06,0.060
-7.390E-06,0.060
-7.380E-06,0.020
-7.370E-06,0.060
-7.360E-06,0.060
-7.350E-06,0.060
-7.340E-06,0.040
-7.330E-06,0.040
-7.320E-06,0.060
-7.310E-06,0.020
-7.300E-06,0.040
-7.290E-06,0.080
-7.280E-06,0.060
-7.270E-06,0.020
-7.260E-06,0.040
-7.250E-06,0.080
-7.240E-06,0.040
-7.230E-06,0.040
-7.220E-06,0.080
-7.210E-06,0.060
-7.200E-06,0.040
-7.190E-06,0.080
-7.180E-06,0.060
-7.170E-06,0.040
-7.160E-06,0.060
-7.150E-06,0.040
-7.140E-06,0.040
-7.130E-06,0.080
-7.120E-06,0.060
-7.110E-06,0.020
-7.100E-06,0.040
-7.090E-06,0.040
-7.080E-06,0.060
-7.070E-06,0.060
-7.060E-06,0.080
-7.050E-06,0.060
-7.040E-06,0.040
-7.030E-06,0.060
-7.020E-06,0.020
-7.010E-06,0.020
-7.000E-06,0.040
-6.990E-06,0.020
-6.980E-06,0.040
-6.970E-06,0.060
-6.960E-06,0.060
-6.950E-06,0.040
-6.940E-06,0.040
-6.930E-06,0.060
-6.920E-06,0.060
-6.910E-06,0.060
-6.900E-06,0.060
-6.890E-06,0.040
-6.880E-06,0.060
-6.870E-06,0.060
-6.860E-06,0.060
-6.850E-06,0.080
-6.840E-06,0.040
-6.830E-06,0.060
-6.820E-06,0.040
-6.810E-06,0.060
-6.800E-06,0.080
-6.790E-06,0.060
-6.780E-06,0.060
-6.770E-06,0.060
-6.760E-06,0.040
-6.750E-06,0.020
-6.740E-06,0.040
-6.730E-06,0.080
-6.720E-06,0.040
-6.710E-06,0.060
-6.700E-06,0.040
-6.690E-06,0.060
-6.680E-06,0.040
-6.670E-06,0.020
-6.660E-06,0.060
-6.650E-06,0.060
-6.640E-06,0.080
-6.630E-06,0.060
-6.620E-06,0.040
-6.610E-06,0.060
-6.600E-06,0.060
-6.590E-06,0.060
-6.580E-06,0.060
-6.570E-06,0.040
-6.560E-06,0.060
-6.550E-06,0.060
-6.540E-06,0.040
-6.530E-06,0.060
-6.520E-06,0.020
-6.510E-06,0.060
-6.500E-06,0.020
-6.490E-06,0.040
-6.480E-06,0.060
-6.470E-06,0.060
-6.460E-06,0.060
-6.450E-06,0.040
-6.440E-06,0.060
-6.430E-06,0.060
-6.420E-06,0.080
-6.410E-06,0.060
-6.400E-06,0.020
-6.390E-06,0.040
-6.380E-06,0.080
-6.370E-06,0.080
-6.360E-06,0.020
-6.350E-06,0.020
-6.340E-06,0.040
-6.330E-06,0.060
-6.320E-06,0.040
-6.310E-06,0.040
-6.300E-06,0.060
-6.290E-06,0.060
-6.280E-06,0.040
-6.270E-06,0.040
-6.260E-06,0.060
-6.250E-06,0.040
-6.240E-06,0.060
-6.230E-06,0.060
-6.220E-06,0.060
-6.210E-06,0.060
-6.200E-06,0.040
-6.190E-06,0.040
-6.180E-06,0.080
-6.170E-06,0.060
-6.160E-06,0.040
-6.150E-06,0.060
-6.140E-06,0.060
-6.130E-06,0.060
-6.120E-06,0.060
-6.110E-06,0.060
-6.100E-06,0.040
-6.090E-06,0.060
-6.080E-06,0.060
-6.070E-06,0.080
-6.060E-06,0.060
-6.050E-06,0.060
-6.040E-06,0.060
-6.030E-06,0.060
-6.020E-06,0.060
-6.010E-06,0.040
-6.000E-06,0.040
-5.990E-06,0.060
-5.980E-06,0.020
-5.970E-06,0.020
-5.960E-06,0.040
-5.950E-06,0.020
-5.940E-06,0.060
-5.930E-06,0.060
-5.920E-06,0.080
-5.910E-06,0.020
-5.900E-06,0.020
-5.890E-06,0.060
-5.880E-06,0.040
-5.870E-06,0.040
-5.860E-06,0.040
-5.850E-06,0.060
-5.840E-06,0.040
-5.830E-06,0.080
-5.820E-06,0.040
-5.810E-06,0.040
-5.800E-06,0.060
-5.790E-06,0.040
-5.780E-06,0.080
-5.770E-06,0.040
-5.760E-06,0.020
-5.750E-06,0.040
-5.740E-06,0.020
-5.730E-06,0.060
-5.720E-06,0.060
-5.710E-06,0.060
-5.700E-06,0.040
-5.690E-06,0.040
-5.680E-06,0.080
-5.670E-06,0.060
-5.660E-06,0.060
-5.650E-06,0.060
-5.640E-06,0.040
-5.630E-06,0.060
-5.620E-06,0.040
-5.610E-06,0.080
-5.600E-06,0.060
-5.590E-06,0.060
-5.580E-06,0.020
-5.570E-06,0.020
-5.560E-06,0.060
-5.550E-06,0.040
-5.540E-06,0.060
-5.530E-06,0.040
-5.520E-06,0.040
-5.510E-06,0.080
-5.500E-06,0.060
-5.490E-06,0.040
-5.480E-06,0.040
-5.470E-06,0.080
-5.460E-06,0.020
-5.450E-06,0.060
-5.440E-06,0.060
-5.430E-06,0.060
-5.420E-06,0.080
-5.410E-06,0.060
-5.400E-06,0.040
-5.390E-06,0.020
-5.380E-06,0.060
-5.370E-06,0.020
-5.360E-06,0.060
-5.350E-06,0.080
-5.340E-06,0.040
-5.330E-06,0.040
-5.320E-06,0.060
-5.310E-06,0.040
-5.300E-06,0.040
-5.290E-06,0.020
-5.280E-06,0.060
-5.270E-06,0.080
-5.260E-06,0.060
-5.250E-06,0.020
-5.240E-06,0.060
-5.230E-06,0.040
-5.220E-06,0.040
-5.210E-06,0.080
-5.200E-06,0.040
-5.190E-06,0.040
-5.180E-06,0.040
-5.170E-06,0.060
-5.160E-06,0.020
-5.150E-06,0.040
-5.140E-06,0.040
-5.130E-06,0.080
-5.120E-06,0.020
-5.110E-06,0.020
-5.100E-06,0.060
-5.090E-06,0.020
-5.080E-06,0.060
-5.070E-06,0.060
-5.060E-06,0.080
-5.050E-06,0.080
-5.040E-06,0.080
-5.030E-06,0.060
-5.020E-06,0.060
-5.010E-06,0.060
-5.000E-06,0.060
-4.990E-06,0.040
-4.980E-06,0.040
-4.970E-06,0.060
-4.960E-06,0.040
-4.950E-06,0.040
-4.940E-06,0.080
-4.930E-06,0.060
-4.920E-06,0.040
-4.910E-06,0.060
-4.900E-06,0.060
-4.890E-06,0.040
-4.880E-06,0.060
-4.870E-06,0.060
-4.860E-06,0.020
-4.850E-06,0.040
-4.840E-06,0.020
-4.830E-06,0.040
-4.820E-06,0.040
-4.810E-06,0.040
-4.800E-06,0.040
-4.790E-06,0.040
-4.780E-06,0.040
-4.770E-06,0.040
-4.760E-06,0.020
-4.750E-06,0.040
-4.740E-06,0.080
-4.730E-06,0.040
-4.720E-06,0.060
-4.710E-06,0.060
-4.700E-06,0.060
-4.690E-06,0.060
-4.680E-06,0.040
-4.670E-06,0.040
-4.660E-06,0.060
-4.650E-06,0.040
-4.640E-06,0.080
-4.630E-06,0.020
-4.620E-06,0.040
-4.610E-06,0.060
-4.600E-06,0.020
-4.590E-06,0.040
-4.580E-06,0.020
-4.570E-06,0.040
-4.560E-06,0.040
-4.550E-06,0.080
-4.540E-06,0.060
-4.530E-06,0.040
-4.520E-06,0.060
-4.510E-06,0.080
-4.500E-06,0.040
-4.490E-06,0.040
-4.480E-06,0.060
-4.470E-06,0.040
-4.460E-06,0.040
-4.450E-06,0.080
-4.440E-06,0.060
-4.430E-06,0.080
-4.420E-06,0.040
-4.410E-06,0.040
-4.400E-06,0.040
-4.390E-06,0.080
-4.380E-06,0.060
-4.370E-06,0.080
-4.360E-06,0.080
-4.350E-06,0.020
-4.340E-06,0.040
-4.330E-06,0.060
-4.320E-06,0.060
-4.310E-06,0.060
-4.300E-06,0.060
-4.290E-06,0.060
-4.280E-06,0.060
-4.270E-06,0.040
-4.260E-06,0.060
-4.250E-06,0.060
-4.240E-06,0.060
-4.230E-06,0.060
-4.220E-06,0.060
-4.210E-06,0.060
-4.200E-06,0.060
-4.190E-06,0.040
-4.180E-06,0.080
-4.170E-06,0.060
-4.160E-06,0.040
-4.150E-06,0.040
-4.140E-06,0.080
-4.130E-06,0.060
-4.120E-06,0.020
-4.110E-06,0.040
-4.100E-06,0.020
-4.090E-06,0.020
-4.080E-06,0.040
-4.070E-06,0.020
-4.060E-06,0.040
-4.050E-06,0.020
-4.040E-06,0.040
-4.030E-06,0.060
-4.020E-06,0.060
-4.010E-06,0.040
-4.000E-06,0.060
-3.990E-06,0.080
-3.980E-06,0.060
-3.970E-06,0.040
-3.960E-06,0.060
-3.950E-06,0.040
-3.940E-06,0.040
-3.930E-06,0.060
-3.920E-06,0.040
-3.910E-06,0.040
-3.900E-06,0.040
-3.890E-06,0.060
-3.880E-06,0.040
-3.870E-06,0.080
-3.860E-06,0.060
-3.850E-06,0.020
-3.840E-06,0.020
-3.830E-06,0.020
-3.820E-06,-0.060
-3.810E-06,-0.420
-3.800E-06,-1.140
-3.790E-06,-2.180
-3.780E-06,-2.660
-3.770E-06,-2.660
-3.760E-06,-2.660
-3.750E-06,-2.660
-3.740E-06,-2.660
-3.730E-06,-2.660
-3.720E-06,-2.180
-3.710E-06,-0.600
-3.700E-06,1.060
-3.690E-06,2.580
-3.680E-06,2.760
-3.670E-06,2.760
-3.660E-06,2.760
-3.650E-06,2.760
-3.640E-06,2.740
-3.630E-06,2.760
-3.620E-06,2.780
-3.610E-06,2.660
-3.600E-06,2.300
-3.590E-06,2.040
-3.580E-06,1.860
-3.570E-06,1.780
-3.560E-06,1.700
-3.550E-06,1.660
-3.540E-06,1.420
-3.530E-06,0.940
-3.520E-06,0.300
-3.510E-06,-0.480
-3.500E-06,-1.260
-3.490E-06,-1.980
-3.480E-06,-2.600
-3.470E-06,-2.660
-3.460E-06,-2.660
-3.450E-06,-2.680
-3.440E-06,-2.660
-3.430E-06,-2.660
-3.420E-06,-2.380
-3.410E-06,-1.720
-3.400E-06,-1.000
-3.390E-06,-0.260
-3.380E-06,0.320
-3.370E-06,0.860
-3.360E-06,1.140
-3.350E-06,1.340
-3.340E-06,1.220
-3.330E-06,1.020
-3.320E-06,0.680
-3.310E-06,0.320
-3.300E-06,-0.040
-3.290E-06,-0.260
-3.280E-06,-0.400
-3.270E-06,-0.460
-3.260E-06,-0.420
-3.250E-06,-0.320
-3.240E-06,-0.200
-3.230E-06,-0.080
-3.220E-06,0.000
-3.210E-06,0.080
-3.200E-06,0.140
-3.190E-06,0.140
-3.180E-06,0.120
-3.170E-06,0.020
-3.160E-06,-0.040
-3.150E-06,-0.080
-3.140E-06,-0.080
-3.130E-06,-0.020
-3.120E-06,0.100
-3.110E-06,0.240
-3.100E-06,0.440
-3.090E-06,0.600
-3.080E-06,0.860
-3.070E-06,1.080
-3.060E-06,1.260
-3.050E-06,1.440
-3.040E-06,1.460
-3.030E-06,1.420
-3.020E-06,1.260
-3.010E-06,1.000
-3.000E-06,0.760
-2.990E-06,0.480
-2.980E-06,0.180
-2.970E-06,-0.080
-2.960E-06,-0.360
-2.950E-06,-0.560
-2.940E-06,-0.640
-2.930E-06,-0.620
-2.920E-06,-0.560
-2.910E-06,-0.420
-2.900E-06,-0.300
-2.890E-06,-0.180
-2.880E-06,-0.040
-2.870E-06,0.060
-2.860E-06,0.140
-2.850E-06,0.180
-2.840E-06,0.220
-2.830E-06,0.180
-2.820E-06,0.200
-2.810E-06,0.200
-2.800E-06,0.180
-2.790E-06,0.200
-2.780E-06,0.260
-2.770E-06,0.240
-2.760E-06,0.280
-2.750E-06,0.260
-2.740E-06,0.260
-2.730E-06,0.260
-2.720E-06,0.140
-2.710E-06,0.260
-2.700E-06,0.080
-2.690E-06,0.120
-2.680E-06,0.000
-2.670E-06,-0.120
-2.660E-06,-0.220
-2.650E-06,-0.280
-2.640E-06,-0.340
-2.630E-06,-0.320
-2.620E-06,-0.360
-2.610E-06,-0.380
-2.600E-06,-0.400
-2.590E-06,-0.360
-2.580E-06,-0.300
-2.570E-06,-0.240
-2.560E-06,-0.160
-2.550E-06,-0.100
-2.540E-06,-0.040
-2.530E-06,0.060
-2.520E-06,0.120
-2.510E-06,0.240
-2.500E-06,0.300
-2.490E-06,0.360
-2.480E-06,0.380
-2.470E-06,0.440
-2.460E-06,0.420
-2.450E-06,0.460
-2.440E-06,0.500
-2.430E-06,0.460
-2.420E-06,0.460
-2.410E-06,0.420
-2.400E-06,0.420
-2.390E-06,0.380
-2.380E-06,0.360
-2.370E-06,0.360
-2.360E-06,0.340
-2.350E-06,0.240
-2.340E-06,0.160
-2.330E-06,0.080
-2.320E-06,0.040
-2.310E-06,-0.080
-2.300E-06,-0.180
-2.290E-06,-0.300
-2.280E-06,-0.380
-2.270E-06,-0.520
-2.260E-06,-0.560
-2.250E-06,-0.600
-2.240E-06,-0.580
-2.230E-06,-0.660
-2.220E-06,-0.660
-2.210E-06,-0.660
-2.200E-06,-0.600
-2.190E-06,-0.540
-2.180E-06,-0.380
-2.170E-06,-0.180
-2.160E-06,-0.040
-2.150E-06,0.100
-2.140E-06,0.060
-2.130E-06,-0.020
-2.120E-06,-0.040
-2.110E-06,-0.140
-2.100E-06,-0.100
-2.090E-06,-0.080
-2.080E-06,-0.160
-2.070E-06,-0.160
-2.060E-06,-0.100
-2.050E-06,-0.120
-2.040E-06,0.020
-2.030E-06,0.000
-2.020E-06,-0.020
-2.010E-06,-0.060
-2.000E-06,-0.080
-1.990E-06,-0.140
-1.980E-06,-0.060
-1.970E-06,-0.120
-1.960E-06,-0.080
-1.950E-06,-0.140
-1.940E-06,-0.140
-1.930E-06,-0.080
-1.920E-06,0.000
-1.910E-06,0.180
-1.900E-06,0.360
-1.890E-06,0.560
-1.880E-06,0.700
-1.870E-06,0.780
-1.860E-06,0.800
-1.850E-06,0.760
-1.840E-06,0.640
-1.830E-06,0.520
-1.820E-06,0.400
-1.810E-06,0.260
-1.800E-06,0.160
-1.790E-06,0.020
-1.780E-06,-0.060
-1.770E-06,-0.200
-1.760E-06,-0.360
-1.750E-06,-0.520
-1.740E-06,-0.680
-1.730E-06,-0.760
-1.720E-06,-0.820
-1.710E-06,-0.860
-1.700E-06,-0.900
-1.690E-06,-0.940
-1.680E-06,-0.920
-1.670E-06,-0.920
-1.660E-06,-0.860
-1.650E-06,-0.800
-1.640E-06,-0.720
-1.630E-06,-0.720
-1.620E-06,-0.720
-1.610E-06,-0.660
-1.600E-06,-0.560
-1.590E-06,-0.500
-1.580E-06,-0.360
-1.570E-06,-0.340
-1.560E-06,-0.280
-1.550E-06,-0.240
-1.540E-06,-0.220
-1.530E-06,-0.240
-1.520E-06,-0.260
-1.510E-06,-0.340
-1.500E-06,-0.440
-1.490E-06,-0.540
-1.480E-06,-0.600
-1.470E-06,-0.660
-1.460E-06,-0.720
-1.450E-06,-0.820
-1.440E-06,-0.840
-1.430E-06,-0.860
-1.420E-06,-0.880
-1.410E-06,-0.860
-1.400E-06,-0.840
-1.390E-06,-0.860
-1.380E-06,-0.820
-1.370E-06,-0.820
-1.360E-06,-0.760
-1.350E-06,-0.700
-1.340E-06,-0.680
-1.330E-06,-0.600
-1.320E-06,-0.580
-1.310E-06,-0.560
-1.300E-06,-0.560
-1.290E-06,-0.500
-1.280E-06,-0.520
-1.270E-06,-0.500
-1.260E-06,-0.560
-1.250E-06,-0.460
-1.240E-06,-0.360
-1.230E-06,-0.300
-1.220E-06,-0.240
-1.210E-06,-0.240
-1.200E-06,-0.240
-1.190E-06,-0.160
-1.180E-06,-0.020
-1.170E-06,-0.040
-1.160E-06,-0.100
-1.150E-06,-0.440
-1.140E-06,-0.740
-1.130E-06,-0.900
-1.120E-06,-0.840
-1.110E-06,-0.680
-1.100E-06,-0.600
-1.090E-06,-0.660
-1.080E-06,-0.760
-1.070E-06,-0.840
-1.060E-06,-0.760
-1.050E-06,-0.680
-1.040E-06,-0.640
-1.030E-06,-0.680
-1.020E-06,-0.720
-1.010E-06,-0.720
-1.000E-06,-0.680
-9.900E-07,-0.720
-9.800E-07,-0.740
-9.700E-07,-0.700
-9.600E-07,-0.720
-9.500E-07,-0.740
-9.400E-07,-0.820
-9.300E-07,-0.800
-9.200E-07,-0.700
-9.100E-07,-0.680
-9.000E-07,-0.600
-8.900E-07,-0.620
-8.800E-07,-0.640
-8.700E-07,-0.640
-8.600E-07,-0.620
-8.500E-07,-0.500
-8.400E-07,-0.500
-8.300E-07,-0.480
-8.200E-07,-0.520
-8.100E-07,-0.560
-8.000E-07,-0.560
-7.900E-07,-0.520
-7.800E-07,-0.480
-7.700E-07,-0.460
-7.600E-07,-0.460
-7.500E-07,-0.520
-7.400E-07,-0.520
-7.300E-07,-0.540
-7.200E-07,-0.560
-7.100E-07,-0.600
-7.000E-07,-0.640
-6.900E-07,-0.740
-6.800E-07,-0.860
-6.700E-07,-0.920
-6.600E-07,-1.000
-6.500E-07,-1.040
-6.400E-07,-1.160
-6.300E-07,-1.240
-6.200E-07,-1.300
-6.100E-07,-1.360
-6.000E-07,-1.400
-5.900E-07,-1.140
-5.800E-07,-1.020
-5.700E-07,-0.760
-5.600E-07,-0.680
-5.500E-07,-0.500
-5.400E-07,-0.740
-5.300E-07,-0.860
-5.200E-07,-1.120
-5.100E-07,-1.200
-5.000E-07,-1.260
-4.900E-07,-1.240
-4.800E-07,-1.280
-4.700E-07,-1.300
-4.600E-07,-1.380
-4.500E-07,-1.400
-4.400E-07,-1.520
-4.300E-07,-1.620
-4.200E-07,-1.880
-4.100E-07,-1.960
-4.000E-07,-2.240
-3.900E-07,-2.240
-3.800E-07,-2.120
-3.700E-07,-2.020
-3.600E-07,-1.540
-3.500E-07,-1.300
-3.400E-07,-1.000
-3.300E-07,-0.780
-3.200E-07,-0.860
-3.100E-07,-0.700
-3.000E-07,-0.900
-2.900E-07,-0.860
-2.800E-07,-0.980
-2.700E-07,-1.000
-2.600E-07,-1.020
-2.500E-07,-1.060
-2.400E-07,-1.100
-2.300E-07,-1.180
-2.200E-07,-1.120
-2.100E-07,-1.080
-2.000E-07,-1.100
-1.900E-07,-1.020
-1.800E-07,-0.960
-1.700E-07,-0.860
-1.600E-07,-0.820
-1.500E-07,-0.800
-1.400E-07,-0.820
-1.300E-07,-0.820
-1.200E-07,-0.860
-1.100E-07,-0.880
-1.000E-07,-0.820
-9.000E-08,-0.780
-8.000E-08,-0.680
-7.000E-08,-0.580
-6.000E-08,-0.440
-5.000E-08,-0.620
-4.000E-08,1.140
-3.000E-08,1.380
-2.000E-08,2.580
-1.000E-08,2.700
0.000E+00,1.600
1.000E-08,1.440
2.000E-08,0.100
3.000E-08,0.140
4.000E-08,0.760
5.000E-08,0.520
6.000E-08,0.800
7.000E-08,0.060
8.000E-08,-0.020
9.000E-08,-0.340
1.000E-07,-0.340
1.100E-07,-0.480
1.200E-07,-0.900
1.300E-07,-0.760
1.400E-07,-0.940
1.500E-07,-0.940
1.600E-07,-0.980
1.700E-07,-1.040
1.800E-07,-1.000
1.900E-07,-0.600
2.000E-07,-0.320
2.100E-07,-0.260
2.200E-07,-0.200
2.300E-07,-0.320
2.400E-07,-0.160
2.500E-07,0.020
2.600E-07,0.100
2.700E-07,0.260
2.800E-07,0.360
2.900E-07,0.340
3.000E-07,0.340
3.100E-07,0.220
3.200E-07,0.140
3.300E-07,0.020
3.400E-07,0.000
3.500E-07,-0.120
3.600E-07,-0.160
3.700E-07,-0.240
3.800E-07,-0.300
3.900E-07,-0.340
4.000E-07,-0.360
4.100E-07,-0.360
4.200E-07,-0.300
4.300E-07,-0.280
4.400E-07,-0.240
4.500E-07,-0.220
4.600E-07,-0.280
4.700E-07,-0.400
4.800E-07,-0.140
4.900E-07,-0.140
5.000E-07,0.280
5.100E-07,0.340
5.200E-07,0.440
5.300E-07,0.480
5.400E-07,0.480
5.500E-07,0.480
5.600E-07,0.600
5.700E-07,0.540
5.800E-07,0.560
5.900E-07,0.480
6.000E-07,0.400
6.100E-07,0.320
6.200E-07,0.200
6.300E-07,0.020
6.400E-07,-0.200
6.500E-07,-0.400
6.600E-07,-0.560
6.700E-07,-0.660
6.800E-07,-0.680
6.900E-07,-0.740
7.000E-07,-0.740
7.100E-07,-0.740
7.200E-07,-0.740
7.300E-07,-0.760
7.400E-07,-0.460
7.500E-07,-0.180
7.600E-07,0.160
7.700E-07,0.460
7.800E-07,0.320
7.900E-07,0.360
8.000E-07,0.200
8.100E-07,0.320
8.200E-07,0.420
8.300E-07,0.400
8.400E-07,0.320
8.500E-07,0.100
8.600E-07,0.420
8.700E-07,0.340
8.800E-07,0.880
8.900E-07,0.900
9.000E-07,0.800
9.100E-07,0.540
9.200E-07,0.260
9.300E-07,-0.060
9.400E-07,-0.080
9.500E-07,-0.340
9.600E-07,-0.360
9.700E-07,-0.460
9.800E-07,-0.520
9.900E-07,-0.560
1.000E-06,-0.500
1.010E-06,-0.500
1.020E-06,-0.500
1.030E-06,-0.480
1.040E-06,-0.560
1.050E-06,-0.480
1.060E-06,-0.340
1.070E-06,-0.200
1.080E-06,0.000
1.090E-06,0.100
1.100E-06,0.180
1.110E-06,0.220
1.120E-06,0.300
1.130E-06,0.360
1.140E-06,0.440
1.150E-06,0.440
1.160E-06,0.420
1.170E-06,0.360
1.180E-06,0.300
1.190E-06,0.240
1.200E-06,0.180
1.210E-06,0.100
1.220E-06,0.060
1.230E-06,0.060
1.240E-06,0.060
1.250E-06,0.020
1.260E-06,0.020
1.270E-06,-0.020
1.280E-06,0.000
1.290E-06,-0.040
1.300E-06,-0.120
1.310E-06,-0.140
1.320E-06,-0.180
1.330E-06,-0.200
1.340E-06,-0.260
1.350E-06,-0.260
1.360E-06,-0.240
1.370E-06,-0.220
1.380E-06,-0.200
1.390E-06,-0.180
1.400E-06,-0.180
1.410E-06,-0.200
1.420E-06,-0.200
1.430E-06,-0.220
1.440E-06,-0.180
1.450E-06,-0.240
1.460E-06,-0.340
1.470E-06,-0.460
1.480E-06,-0.400
1.490E-06,-0.560
1.500E-06,-0.260
1.510E-06,-0.420
1.520E-06,-0.640
1.530E-06,-0.780
1.540E-06,-1.020
1.550E-06,-0.580
1.560E-06,0.740
1.570E-06,0.720
1.580E-06,1.940
1.590E-06,0.940
1.600E-06,0.940
1.610E-06,0.760
1.620E-06,0.840
1.630E-06,1.260
1.640E-06,1.160
1.650E-06,0.500
1.660E-06,0.060
1.670E-06,-0.380
1.680E-06,-0.340
1.690E-06,-0.520
1.700E-06,-0.600
1.710E-06,-0.960
1.720E-06,-1.000
1.730E-06,-0.940
1.740E-06,-0.940
1.750E-06,-0.820
1.760E-06,-0.760
1.770E-06,-0.640
1.780E-06,-0.520
1.790E-06,-0.340
1.800E-06,-0.300
1.810E-06,-0.280
1.820E-06,-0.240
1.830E-06,-0.180
1.840E-06,-0.120
1.850E-06,-0.020
1.860E-06,0.180
1.870E-06,0.320
1.880E-06,0.560
1.890E-06,0.680
1.900E-06,0.760
1.910E-06,0.840
1.920E-06,0.860
1.930E-06,0.840
1.940E-06,0.820
1.950E-06,0.880
1.960E-06,0.840
1.970E-06,0.940
1.980E-06,0.960
1.990E-06,0.280
2.000E-06,0.200
2.010E-06,-0.420
2.020E-06,-0.840
2.030E-06,-0.580
2.040E-06,-1.140
2.050E-06,-0.660
2.060E-06,-0.760
2.070E-06,-0.500
2.080E-06,-0.300
2.090E-06,-0.160
2.100E-06,-0.020
2.110E-06,-0.060
2.120E-06,-0.140
2.130E-06,-0.140
2.140E-06,-0.340
2.150E-06,-0.460
2.160E-06,-0.460
2.170E-06,-0.080
2.180E-06,0.280
2.190E-06,0.620
2.200E-06,0.440
2.210E-06,0.060
2.220E-06,-0.040
2.230E-06,-0.220
2.240E-06,0.100
2.250E-06,0.180
2.260E-06,-0.020
2.270E-06,-0.060
2.280E-06,-0.200
2.290E-06,-0.020
2.300E-06,0.000
2.310E-06,-0.040
2.320E-06,-0.280
2.330E-06,-0.480
2.340E-06,-0.460
2.350E-06,-0.480
2.360E-06,-0.360
2.370E-06,-0.320
2.380E-06,-0.060
2.390E-06,0.120
2.400E-06,0.340
2.410E-06,0.320
2.420E-06,0.280
2.430E-06,0.260
2.440E-06,0.340
2.450E-06,0.380
2.460E-06,0.440
2.470E-06,0.400
2.480E-06,0.340
2.490E-06,0.280
2.500E-06,0.220
2.510E-06,0.200
2.520E-06,0.120
2.530E-06,0.060
2.540E-06,0.100
2.550E-06,0.160
2.560E-06,0.240
2.570E-06,0.320
2.580E-06,0.360
2.590E-06,0.320
2.600E-06,0.300
2.610E-06,0.240
2.620E-06,0.160
2.630E-06,0.080
2.640E-06,0.020
2.650E-06,-0.040
2.660E-06,-0.100
2.670E-06,-0.140
2.680E-06,-0.160
2.690E-06,-0.160
2.700E-06,-0.160
2.710E-06,-0.120
2.720E-06,-0.100
2.730E-06,-0.040
2.740E-06,-0.060
2.750E-06,0.580
2.760E-06,0.340
2.770E-06,0.580
2.780E-06,0.780
2.790E-06,0.060
2.800E-06,0.600
2.810E-06,0.240
2.820E-06,0.300
2.830E-06,0.320
2.840E-06,-0.020
2.850E-06,-0.240
2.860E-06,-0.500
2.870E-06,0.000
2.880E-06,0.020
2.890E-06,0.020
2.900E-06,0.240
2.910E-06,-0.560
2.920E-06,-0.260
2.930E-06,-0.160
2.940E-06,-0.200
2.950E-06,0.120
2.960E-06,0.000
2.970E-06,-0.300
2.980E-06,-0.160
2.990E-06,-0.200
3.000E-06,-0.100
3.010E-06,-0.060
3.020E-06,-0.160
3.030E-06,-0.180
3.040E-06,-0.200
3.050E-06,0.020
3.060E-06,-0.040
3.070E-06,0.060
3.080E-06,0.080
3.090E-06,0.120
3.100E-06,0.140
3.110E-06,0.180
3.120E-06,0.140
3.130E-06,0.180
3.140E-06,0.160
3.150E-06,0.140
3.160E-06,0.120
3.170E-06,0.120
3.180E-06,0.120
3.190E-06,0.180
3.200E-06,0.240
3.210E-06,0.200
3.220E-06,0.240
3.230E-06,0.260
3.240E-06,0.280
3.250E-06,0.300
