mediciones/5-27/-60/WaveData50351.csv

#timebase=2000000(ps)
,#voltbase=100000(mv/100)
#size=4000
-5.650E-06,0.004
-5.640E-06,0.000
-5.630E-06,0.004
-5.620E-06,0.004
-5.610E-06,0.004
-5.600E-06,0.000
-5.590E-06,0.004
-5.580E-06,0.000
-5.570E-06,0.004
-5.560E-06,0.004
-5.550E-06,0.004
-5.540E-06,0.004
-5.530E-06,-0.004
-5.520E-06,0.004
-5.510E-06,0.000
-5.500E-06,0.000
-5.490E-06,0.000
-5.480E-06,0.004
-5.470E-06,0.000
-5.460E-06,0.000
-5.450E-06,0.004
-5.440E-06,0.008
-5.430E-06,-0.004
-5.420E-06,0.000
-5.410E-06,0.004
-5.400E-06,0.000
-5.390E-06,0.004
-5.380E-06,0.004
-5.370E-06,0.004
-5.360E-06,0.004
-5.350E-06,0.000
-5.340E-06,0.004
-5.330E-06,0.004
-5.320E-06,0.004
-5.310E-06,0.008
-5.300E-06,0.004
-5.290E-06,0.000
-5.280E-06,0.000
-5.270E-06,0.004
-5.260E-06,0.000
-5.250E-06,0.004
-5.240E-06,0.004
-5.230E-06,0.004
-5.220E-06,0.004
-5.210E-06,0.004
-5.200E-06,0.004
-5.190E-06,0.000
-5.180E-06,0.000
-5.170E-06,0.004
-5.160E-06,0.000
-5.150E-06,0.004
-5.140E-06,0.000
-5.130E-06,0.004
-5.120E-06,0.000
-5.110E-06,0.004
-5.100E-06,0.000
-5.090E-06,0.004
-5.080E-06,0.000
-5.070E-06,0.000
-5.060E-06,0.004
-5.050E-06,0.004
-5.040E-06,0.000
-5.030E-06,0.004
-5.020E-06,0.008
-5.010E-06,0.000
-5.000E-06,0.004
-4.990E-06,0.004
-4.980E-06,0.000
-4.970E-06,0.004
-4.960E-06,0.000
-4.950E-06,0.000
-4.940E-06,0.004
-4.930E-06,0.000
-4.920E-06,0.004
-4.910E-06,0.008
-4.900E-06,0.000
-4.890E-06,0.004
-4.880E-06,0.000
-4.870E-06,0.004
-4.860E-06,0.004
-4.850E-06,0.004
-4.840E-06,0.004
-4.830E-06,0.008
-4.820E-06,0.008
-4.810E-06,0.008
-4.800E-06,0.000
-4.790E-06,0.000
-4.780E-06,0.000
-4.770E-06,0.004
-4.760E-06,0.004
-4.750E-06,0.004
-4.740E-06,0.008
-4.730E-06,0.008
-4.720E-06,0.000
-4.710E-06,0.000
-4.700E-06,0.004
-4.690E-06,0.008
-4.680E-06,0.000
-4.670E-06,0.004
-4.660E-06,0.004
-4.650E-06,0.004
-4.640E-06,0.004
-4.630E-06,0.008
-4.620E-06,0.008
-4.610E-06,0.000
-4.600E-06,0.004
-4.590E-06,0.000
-4.580E-06,0.004
-4.570E-06,0.004
-4.560E-06,-0.004
-4.550E-06,0.004
-4.540E-06,0.004
-4.530E-06,0.004
-4.520E-06,0.004
-4.510E-06,0.004
-4.500E-06,0.004
-4.490E-06,0.000
-4.480E-06,0.004
-4.470E-06,0.000
-4.460E-06,0.000
-4.450E-06,0.004
-4.440E-06,0.004
-4.430E-06,0.004
-4.420E-06,0.004
-4.410E-06,0.004
-4.400E-06,0.008
-4.390E-06,0.000
-4.380E-06,0.004
-4.370E-06,0.004
-4.360E-06,0.004
-4.350E-06,0.004
-4.340E-06,0.000
-4.330E-06,0.004
-4.320E-06,0.004
-4.310E-06,0.004
-4.300E-06,0.000
-4.290E-06,0.004
-4.280E-06,0.008
-4.270E-06,0.004
-4.260E-06,0.004
-4.250E-06,0.004
-4.240E-06,0.004
-4.230E-06,0.004
-4.220E-06,0.000
-4.210E-06,0.000
-4.200E-06,0.008
-4.190E-06,0.000
-4.180E-06,0.004
-4.170E-06,0.004
-4.160E-06,0.000
-4.150E-06,-0.004
-4.140E-06,0.004
-4.130E-06,0.000
-4.120E-06,0.004
-4.110E-06,0.004
-4.100E-06,0.004
-4.090E-06,0.004
-4.080E-06,0.000
-4.070E-06,0.004
-4.060E-06,0.000
-4.050E-06,0.004
-4.040E-06,0.008
-4.030E-06,0.008
-4.020E-06,0.000
-4.010E-06,0.004
-4.000E-06,0.004
-3.990E-06,0.004
-3.980E-06,0.004
-3.970E-06,0.004
-3.960E-06,0.004
-3.950E-06,0.004
-3.940E-06,0.004
-3.930E-06,0.004
-3.920E-06,0.004
-3.910E-06,0.004
-3.900E-06,0.004
-3.890E-06,0.004
-3.880E-06,0.008
-3.870E-06,0.000
-3.860E-06,0.000
-3.850E-06,0.004
-3.840E-06,0.000
-3.830E-06,0.004
-3.820E-06,0.004
-3.810E-06,0.004
-3.800E-06,0.004
-3.790E-06,0.000
-3.780E-06,0.004
-3.770E-06,0.000
-3.760E-06,0.000
-3.750E-06,0.008
-3.740E-06,0.004
-3.730E-06,0.000
-3.720E-06,0.004
-3.710E-06,0.000
-3.700E-06,0.004
-3.690E-06,0.000
-3.680E-06,0.004
-3.670E-06,0.004
-3.660E-06,0.004
-3.650E-06,0.004
-3.640E-06,0.004
-3.630E-06,0.000
-3.620E-06,0.000
-3.610E-06,0.008
-3.600E-06,0.000
-3.590E-06,0.008
-3.580E-06,0.004
-3.570E-06,0.000
-3.560E-06,0.000
-3.550E-06,0.004
-3.540E-06,0.000
-3.530E-06,0.008
-3.520E-06,0.004
-3.510E-06,0.000
-3.500E-06,0.004
-3.490E-06,0.000
-3.480E-06,0.004
-3.470E-06,0.008
-3.460E-06,0.004
-3.450E-06,0.008
-3.440E-06,0.008
-3.430E-06,0.000
-3.420E-06,0.004
-3.410E-06,0.004
-3.400E-06,0.004
-3.390E-06,0.000
-3.380E-06,0.004
-3.370E-06,0.008
-3.360E-06,-0.004
-3.350E-06,0.000
-3.340E-06,0.004
-3.330E-06,0.008
-3.320E-06,0.000
-3.310E-06,0.000
-3.300E-06,0.004
-3.290E-06,0.008
-3.280E-06,0.008
-3.270E-06,-0.004
-3.260E-06,0.004
-3.250E-06,0.004
-3.240E-06,0.004
-3.230E-06,0.008
-3.220E-06,0.008
-3.210E-06,0.008
-3.200E-06,0.008
-3.190E-06,0.008
-3.180E-06,0.004
-3.170E-06,-0.004
-3.160E-06,0.004
-3.150E-06,0.004
-3.140E-06,0.004
-3.130E-06,0.000
-3.120E-06,-0.004
-3.110E-06,0.004
-3.100E-06,0.004
-3.090E-06,0.000
-3.080E-06,-0.008
-3.070E-06,-0.008
-3.060E-06,-0.012
-3.050E-06,-0.008
-3.040E-06,0.012
-3.030E-06,0.008
-3.020E-06,0.012
-3.010E-06,0.008
-3.000E-06,-0.004
-2.990E-06,0.000
-2.980E-06,0.004
-2.970E-06,0.004
-2.960E-06,0.012
-2.950E-06,0.008
-2.940E-06,0.000
-2.930E-06,-0.004
-2.920E-06,0.004
-2.910E-06,0.020
-2.900E-06,0.028
-2.890E-06,0.012
-2.880E-06,-0.008
-2.870E-06,-0.028
-2.860E-06,-0.028
-2.850E-06,-0.016
-2.840E-06,0.016
-2.830E-06,0.032
-2.820E-06,0.032
-2.810E-06,0.008
-2.800E-06,-0.008
-2.790E-06,-0.024
-2.780E-06,-0.012
-2.770E-06,0.000
-2.760E-06,0.020
-2.750E-06,0.028
-2.740E-06,0.012
-2.730E-06,0.004
-2.720E-06,-0.004
-2.710E-06,-0.004
-2.700E-06,0.004
-2.690E-06,0.016
-2.680E-06,0.016
-2.670E-06,0.008
-2.660E-06,0.000
-2.650E-06,-0.008
-2.640E-06,-0.004
-2.630E-06,0.004
-2.620E-06,0.008
-2.610E-06,0.012
-2.600E-06,-0.004
-2.590E-06,-0.004
-2.580E-06,0.004
-2.570E-06,-0.004
-2.560E-06,0.008
-2.550E-06,0.008
-2.540E-06,0.008
-2.530E-06,-0.004
-2.520E-06,-0.004
-2.510E-06,-0.008
-2.500E-06,0.000
-2.490E-06,0.008
-2.480E-06,0.008
-2.470E-06,0.004
-2.460E-06,-0.004
-2.450E-06,-0.004
-2.440E-06,-0.004
-2.430E-06,0.008
-2.420E-06,0.012
-2.410E-06,0.004
-2.400E-06,0.000
-2.390E-06,0.000
-2.380E-06,0.000
-2.370E-06,0.004
-2.360E-06,0.008
-2.350E-06,0.008
-2.340E-06,0.004
-2.330E-06,0.004
-2.320E-06,0.000
-2.310E-06,0.000
-2.300E-06,0.004
-2.290E-06,0.008
-2.280E-06,0.004
-2.270E-06,0.004
-2.260E-06,-0.004
-2.250E-06,0.000
-2.240E-06,0.004
-2.230E-06,0.004
-2.220E-06,0.004
-2.210E-06,0.004
-2.200E-06,0.004
-2.190E-06,0.004
-2.180E-06,0.000
-2.170E-06,0.004
-2.160E-06,0.004
-2.150E-06,0.000
-2.140E-06,0.004
-2.130E-06,0.004
-2.120E-06,0.008
-2.110E-06,0.000
-2.100E-06,0.004
-2.090E-06,0.004
-2.080E-06,0.004
-2.070E-06,0.000
-2.060E-06,0.000
-2.050E-06,0.004
-2.040E-06,0.000
-2.030E-06,0.004
-2.020E-06,0.008
-2.010E-06,0.004
-2.000E-06,0.004
-1.990E-06,0.000
-1.980E-06,0.000
-1.970E-06,0.000
-1.960E-06,0.004
-1.950E-06,0.000
-1.940E-06,0.004
-1.930E-06,0.004
-1.920E-06,0.004
-1.910E-06,0.004
-1.900E-06,0.004
-1.890E-06,0.004
-1.880E-06,0.004
-1.870E-06,0.000
-1.860E-06,0.004
-1.850E-06,0.004
-1.840E-06,0.008
-1.830E-06,0.004
-1.820E-06,0.004
-1.810E-06,0.004
-1.800E-06,0.004
-1.790E-06,0.004
-1.780E-06,0.008
-1.770E-06,0.000
-1.760E-06,0.004
-1.750E-06,0.004
-1.740E-06,0.008
-1.730E-06,0.004
-1.720E-06,0.008
-1.710E-06,0.004
-1.700E-06,0.004
-1.690E-06,0.008
-1.680E-06,0.008
-1.670E-06,0.004
-1.660E-06,0.008
-1.650E-06,0.008
-1.640E-06,0.008
-1.630E-06,0.008
-1.620E-06,0.008
-1.610E-06,0.008
-1.600E-06,0.012
-1.590E-06,0.008
-1.580E-06,0.000
-1.570E-06,0.008
-1.560E-06,0.008
-1.550E-06,0.012
-1.540E-06,0.020
-1.530E-06,0.012
-1.520E-06,0.012
-1.510E-06,0.012
-1.500E-06,0.000
-1.490E-06,-0.004
-1.480E-06,0.000
-1.470E-06,0.012
-1.460E-06,0.008
-1.450E-06,0.020
-1.440E-06,0.020
-1.430E-06,0.012
-1.420E-06,0.012
-1.410E-06,0.012
-1.400E-06,0.012
-1.390E-06,0.012
-1.380E-06,0.016
-1.370E-06,0.016
-1.360E-06,0.020
-1.350E-06,0.016
-1.340E-06,0.016
-1.330E-06,0.012
-1.320E-06,0.016
-1.310E-06,0.012
-1.300E-06,0.012
-1.290E-06,0.012
-1.280E-06,0.020
-1.270E-06,0.028
-1.260E-06,0.032
-1.250E-06,0.028
-1.240E-06,0.024
-1.230E-06,0.016
-1.220E-06,0.012
-1.210E-06,0.020
-1.200E-06,0.024
-1.190E-06,0.040
-1.180E-06,0.032
-1.170E-06,0.024
-1.160E-06,0.020
-1.150E-06,0.016
-1.140E-06,0.024
-1.130E-06,0.028
-1.120E-06,0.028
-1.110E-06,0.036
-1.100E-06,0.040
-1.090E-06,0.040
-1.080E-06,0.040
-1.070E-06,0.044
-1.060E-06,0.044
-1.050E-06,0.036
-1.040E-06,0.028
-1.030E-06,0.032
-1.020E-06,0.032
-1.010E-06,0.036
-1.000E-06,0.036
-9.900E-07,0.044
-9.800E-07,0.040
-9.700E-07,0.040
-9.600E-07,0.048
-9.500E-07,0.044
-9.400E-07,0.056
-9.300E-07,0.060
-9.200E-07,0.056
-9.100E-07,0.056
-9.000E-07,0.044
-8.900E-07,0.044
-8.800E-07,0.040
-8.700E-07,0.044
-8.600E-07,0.052
-8.500E-07,0.052
-8.400E-07,0.056
-8.300E-07,0.052
-8.200E-07,0.056
-8.100E-07,0.060
-8.000E-07,0.060
-7.900E-07,0.056
-7.800E-07,0.056
-7.700E-07,0.064
-7.600E-07,0.064
-7.500E-07,0.068
-7.400E-07,0.076
-7.300E-07,0.076
-7.200E-07,0.076
-7.100E-07,0.080
-7.000E-07,0.084
-6.900E-07,0.088
-6.800E-07,0.096
-6.700E-07,0.096
-6.600E-07,0.108
-6.500E-07,0.112
-6.400E-07,0.116
-6.300E-07,0.120
-6.200E-07,0.120
-6.100E-07,0.120
-6.000E-07,0.124
-5.900E-07,0.124
-5.800E-07,0.124
-5.700E-07,0.120
-5.600E-07,0.124
-5.500E-07,0.124
-5.400E-07,0.124
-5.300E-07,0.124
-5.200E-07,0.124
-5.100E-07,0.124
-5.000E-07,0.124
-4.900E-07,0.124
-4.800E-07,0.124
-4.700E-07,0.128
-4.600E-07,0.128
-4.500E-07,0.128
-4.400E-07,0.124
-4.300E-07,0.128
-4.200E-07,0.128
-4.100E-07,0.124
-4.000E-07,0.124
-3.900E-07,0.124
-3.800E-07,0.124
-3.700E-07,0.128
-3.600E-07,0.128
-3.500E-07,0.128
-3.400E-07,0.128
-3.300E-07,0.128
-3.200E-07,0.132
-3.100E-07,0.136
-3.000E-07,0.132
-2.900E-07,0.132
-2.800E-07,0.132
-2.700E-07,0.132
-2.600E-07,0.132
-2.500E-07,0.136
-2.400E-07,0.132
-2.300E-07,0.132
-2.200E-07,0.132
-2.100E-07,0.132
-2.000E-07,0.136
-1.900E-07,0.140
-1.800E-07,0.132
-1.700E-07,0.132
-1.600E-07,0.132
-1.500E-07,0.132
-1.400E-07,0.132
-1.300E-07,0.140
-1.200E-07,0.140
-1.100E-07,0.140
-1.000E-07,0.140
-9.000E-08,0.140
-8.000E-08,0.140
-7.000E-08,0.140
-6.000E-08,0.140
-5.000E-08,0.136
-4.000E-08,0.140
-3.000E-08,0.144
-2.000E-08,0.136
-1.000E-08,0.140
0.000E+00,0.140
1.000E-08,0.140
2.000E-08,0.140
3.000E-08,0.136
4.000E-08,0.140
5.000E-08,0.140
6.000E-08,0.140
7.000E-08,0.140
8.000E-08,0.140
9.000E-08,0.140
1.000E-07,0.140
1.100E-07,0.140
1.200E-07,0.140
1.300E-07,0.140
1.400E-07,0.140
1.500E-07,0.140
1.600E-07,0.136
1.700E-07,0.140
1.800E-07,0.144
1.900E-07,0.136
2.000E-07,0.136
2.100E-07,0.140
2.200E-07,0.136
2.300E-07,0.140
2.400E-07,0.136
2.500E-07,0.140
2.600E-07,0.140
2.700E-07,0.140
2.800E-07,0.140
2.900E-07,0.140
3.000E-07,0.136
3.100E-07,0.140
3.200E-07,0.136
3.300E-07,0.136
3.400E-07,0.136
3.500E-07,0.144
3.600E-07,0.140
3.700E-07,0.144
3.800E-07,0.144
3.900E-07,0.144
4.000E-07,0.136
4.100E-07,0.136
4.200E-07,0.140
4.300E-07,0.140
4.400E-07,0.144
4.500E-07,0.136
4.600E-07,0.136
4.700E-07,0.136
4.800E-07,0.136
4.900E-07,0.140
5.000E-07,0.140
5.100E-07,0.136
5.200E-07,0.136
5.300E-07,0.136
5.400E-07,0.136
5.500E-07,0.136
5.600E-07,0.136
5.700E-07,0.132
5.800E-07,0.132
5.900E-07,0.136
6.000E-07,0.136
6.100E-07,0.136
6.200E-07,0.136
6.300E-07,0.136
6.400E-07,0.132
6.500E-07,0.136
6.600E-07,0.136
6.700E-07,0.136
6.800E-07,0.136
6.900E-07,0.140
7.000E-07,0.136
7.100E-07,0.136
7.200E-07,0.132
7.300E-07,0.132
7.400E-07,0.132
7.500E-07,0.136
7.600E-07,0.136
7.700E-07,0.132
7.800E-07,0.136
7.900E-07,0.132
8.000E-07,0.132
8.100E-07,0.128
8.200E-07,0.128
8.300E-07,0.132
8.400E-07,0.132
8.500E-07,0.132
8.600E-07,0.132
8.700E-07,0.124
8.800E-07,0.124
8.900E-07,0.128
9.000E-07,0.128
9.100E-07,0.128
9.200E-07,0.128
9.300E-07,0.124
9.400E-07,0.128
9.500E-07,0.128
9.600E-07,0.128
9.700E-07,0.128
9.800E-07,0.128
9.900E-07,0.128
1.000E-06,0.128
1.010E-06,0.128
1.020E-06,0.128
1.030E-06,0.128
1.040E-06,0.128
1.050E-06,0.132
1.060E-06,0.132
1.070E-06,0.128
1.080E-06,0.128
1.090E-06,0.124
1.100E-06,0.124
1.110E-06,0.120
1.120E-06,0.120
1.130E-06,0.116
1.140E-06,0.120
1.150E-06,0.128
1.160E-06,0.128
1.170E-06,0.132
1.180E-06,0.128
1.190E-06,0.124
1.200E-06,0.124
1.210E-06,0.120
1.220E-06,0.124
1.230E-06,0.120
1.240E-06,0.124
1.250E-06,0.124
1.260E-06,0.124
1.270E-06,0.124
1.280E-06,0.124
1.290E-06,0.120
1.300E-06,0.128
1.310E-06,0.128
1.320E-06,0.124
1.330E-06,0.124
1.340E-06,0.124
1.350E-06,0.124
1.360E-06,0.120
1.370E-06,0.120
1.380E-06,0.120
1.390E-06,0.120
1.400E-06,0.116
1.410E-06,0.120
1.420E-06,0.112
1.430E-06,0.112
1.440E-06,0.116
1.450E-06,0.112
1.460E-06,0.108
1.470E-06,0.108
1.480E-06,0.108
1.490E-06,0.108
1.500E-06,0.112
1.510E-06,0.108
1.520E-06,0.108
1.530E-06,0.112
1.540E-06,0.108
1.550E-06,0.108
1.560E-06,0.112
1.570E-06,0.112
1.580E-06,0.112
1.590E-06,0.116
1.600E-06,0.112
1.610E-06,0.108
1.620E-06,0.112
1.630E-06,0.112
1.640E-06,0.116
1.650E-06,0.116
1.660E-06,0.112
1.670E-06,0.120
1.680E-06,0.112
1.690E-06,0.112
1.700E-06,0.112
1.710E-06,0.108
1.720E-06,0.108
1.730E-06,0.112
1.740E-06,0.120
1.750E-06,0.112
1.760E-06,0.116
1.770E-06,0.116
1.780E-06,0.120
1.790E-06,0.116
1.800E-06,0.112
1.810E-06,0.112
1.820E-06,0.112
1.830E-06,0.108
1.840E-06,0.112
1.850E-06,0.112
1.860E-06,0.108
1.870E-06,0.112
1.880E-06,0.112
1.890E-06,0.108
1.900E-06,0.104
1.910E-06,0.108
1.920E-06,0.108
1.930E-06,0.108
1.940E-06,0.108
1.950E-06,0.108
1.960E-06,0.108
1.970E-06,0.108
1.980E-06,0.104
1.990E-06,0.104
2.000E-06,0.108
2.010E-06,0.108
2.020E-06,0.104
2.030E-06,0.104
2.040E-06,0.108
2.050E-06,0.108
2.060E-06,0.108
2.070E-06,0.104
2.080E-06,0.104
2.090E-06,0.104
2.100E-06,0.104
2.110E-06,0.100
2.120E-06,0.104
2.130E-06,0.108
2.140E-06,0.104
2.150E-06,0.104
2.160E-06,0.100
2.170E-06,0.100
2.180E-06,0.096
2.190E-06,0.100
2.200E-06,0.100
2.210E-06,0.100
2.220E-06,0.096
2.230E-06,0.096
2.240E-06,0.096
2.250E-06,0.096
2.260E-06,0.096
2.270E-06,0.100
2.280E-06,0.096
2.290E-06,0.096
2.300E-06,0.096
2.310E-06,0.092
2.320E-06,0.096
2.330E-06,0.096
2.340E-06,0.096
2.350E-06,0.092
2.360E-06,0.096
2.370E-06,0.096
2.380E-06,0.096
2.390E-06,0.088
2.400E-06,0.092
2.410E-06,0.088
2.420E-06,0.092
2.430E-06,0.092
2.440E-06,0.096
2.450E-06,0.088
2.460E-06,0.088
2.470E-06,0.092
2.480E-06,0.088
2.490E-06,0.088
2.500E-06,0.088
2.510E-06,0.092
2.520E-06,0.092
2.530E-06,0.092
2.540E-06,0.088
2.550E-06,0.096
2.560E-06,0.088
2.570E-06,0.088
2.580E-06,0.088
2.590E-06,0.096
2.600E-06,0.092
2.610E-06,0.088
2.620E-06,0.088
2.630E-06,0.092
2.640E-06,0.092
2.650E-06,0.092
2.660E-06,0.088
2.670E-06,0.088
2.680E-06,0.092
2.690E-06,0.088
2.700E-06,0.084
2.710E-06,0.088
2.720E-06,0.084
2.730E-06,0.084
2.740E-06,0.080
2.750E-06,0.084
2.760E-06,0.084
2.770E-06,0.084
2.780E-06,0.076
2.790E-06,0.080
2.800E-06,0.080
2.810E-06,0.080
2.820E-06,0.076
2.830E-06,0.076
2.840E-06,0.080
2.850E-06,0.076
2.860E-06,0.072
2.870E-06,0.076
2.880E-06,0.080
2.890E-06,0.072
2.900E-06,0.076
2.910E-06,0.076
2.920E-06,0.072
2.930E-06,0.072
2.940E-06,0.076
2.950E-06,0.080
2.960E-06,0.072
2.970E-06,0.076
2.980E-06,0.072
2.990E-06,0.072
3.000E-06,0.076
3.010E-06,0.072
3.020E-06,0.076
3.030E-06,0.076
3.040E-06,0.080
3.050E-06,0.080
3.060E-06,0.072
3.070E-06,0.076
3.080E-06,0.072
3.090E-06,0.072
3.100E-06,0.072
3.110E-06,0.076
3.120E-06,0.076
3.130E-06,0.072
3.140E-06,0.076
3.150E-06,0.072
3.160E-06,0.072
3.170E-06,0.068
3.180E-06,0.072
3.190E-06,0.072
3.200E-06,0.068
3.210E-06,0.072
3.220E-06,0.068
3.230E-06,0.072
3.240E-06,0.068
3.250E-06,0.068
3.260E-06,0.068
3.270E-06,0.068
3.280E-06,0.064
3.290E-06,0.064
3.300E-06,0.064
3.310E-06,0.068
3.320E-06,0.068
3.330E-06,0.064
3.340E-06,0.068
3.350E-06,0.068
3.360E-06,0.068
3.370E-06,0.064
3.380E-06,0.068
3.390E-06,0.068
3.400E-06,0.064
3.410E-06,0.064
3.420E-06,0.068
3.430E-06,0.064
3.440E-06,0.060
3.450E-06,0.068
3.460E-06,0.060
3.470E-06,0.060
3.480E-06,0.060
3.490E-06,0.060
3.500E-06,0.060
3.510E-06,0.060
3.520E-06,0.064
3.530E-06,0.064
3.540E-06,0.060
3.550E-06,0.064
3.560E-06,0.060
3.570E-06,0.060
3.580E-06,0.060
3.590E-06,0.064
3.600E-06,0.060
3.610E-06,0.060
3.620E-06,0.056
3.630E-06,0.060
3.640E-06,0.060
3.650E-06,0.056
3.660E-06,0.056
3.670E-06,0.056
3.680E-06,0.056
3.690E-06,0.060
3.700E-06,0.060
3.710E-06,0.056
3.720E-06,0.060
3.730E-06,0.056
3.740E-06,0.056
3.750E-06,0.056
3.760E-06,0.060
3.770E-06,0.056
3.780E-06,0.052
3.790E-06,0.052
3.800E-06,0.056
3.810E-06,0.056
3.820E-06,0.052
3.830E-06,0.060
3.840E-06,0.056
3.850E-06,0.052
3.860E-06,0.052
3.870E-06,0.052
3.880E-06,0.056
3.890E-06,0.056
3.900E-06,0.052
3.910E-06,0.048
3.920E-06,0.052
3.930E-06,0.052
3.940E-06,0.044
3.950E-06,0.048
3.960E-06,0.048
3.970E-06,0.044
3.980E-06,0.048
3.990E-06,0.048
4.000E-06,0.044
4.010E-06,0.048
4.020E-06,0.048
4.030E-06,0.044
4.040E-06,0.048
4.050E-06,0.048
4.060E-06,0.044
4.070E-06,0.044
4.080E-06,0.044
4.090E-06,0.044
4.100E-06,0.044
4.110E-06,0.044
4.120E-06,0.044
4.130E-06,0.044
4.140E-06,0.044
4.150E-06,0.040
4.160E-06,0.040
4.170E-06,0.040
4.180E-06,0.048
4.190E-06,0.044
4.200E-06,0.040
4.210E-06,0.044
4.220E-06,0.040
4.230E-06,0.040
4.240E-06,0.040
4.250E-06,0.040
4.260E-06,0.036
4.270E-06,0.036
4.280E-06,0.040
4.290E-06,0.044
4.300E-06,0.040
4.310E-06,0.040
4.320E-06,0.044
4.330E-06,0.040
4.340E-06,0.036
4.350E-06,0.040
4.360E-06,0.044
4.370E-06,0.044
4.380E-06,0.040
4.390E-06,0.036
4.400E-06,0.040
4.410E-06,0.040
4.420E-06,0.040
4.430E-06,0.044
4.440E-06,0.040
4.450E-06,0.044
4.460E-06,0.036
4.470E-06,0.036
4.480E-06,0.040
4.490E-06,0.040
4.500E-06,0.036
4.510E-06,0.036
4.520E-06,0.040
4.530E-06,0.036
4.540E-06,0.036
4.550E-06,0.040
4.560E-06,0.036
4.570E-06,0.040
4.580E-06,0.040
4.590E-06,0.036
4.600E-06,0.036
4.610E-06,0.032
4.620E-06,0.032
4.630E-06,0.036
4.640E-06,0.036
4.650E-06,0.032
4.660E-06,0.028
4.670E-06,0.032
4.680E-06,0.036
4.690E-06,0.032
4.700E-06,0.028
4.710E-06,0.032
4.720E-06,0.024
4.730E-06,0.028
4.740E-06,0.036
4.750E-06,0.024
4.760E-06,0.032
4.770E-06,0.032
4.780E-06,0.032
4.790E-06,0.028
4.800E-06,0.032
4.810E-06,0.028
4.820E-06,0.032
4.830E-06,0.024
4.840E-06,0.024
4.850E-06,0.028
4.860E-06,0.024
4.870E-06,0.028
4.880E-06,0.024
4.890E-06,0.028
4.900E-06,0.024
4.910E-06,0.028
4.920E-06,0.032
4.930E-06,0.024
4.940E-06,0.020
4.950E-06,0.024
4.960E-06,0.024
4.970E-06,0.020
4.980E-06,0.028
4.990E-06,0.024
5.000E-06,0.032
5.010E-06,0.024
5.020E-06,0.028
5.030E-06,0.020
5.040E-06,0.024
5.050E-06,0.024
5.060E-06,0.028
5.070E-06,0.024
5.080E-06,0.028
5.090E-06,0.020
5.100E-06,0.020
5.110E-06,0.020
5.120E-06,0.028
5.130E-06,0.024
5.140E-06,0.016
5.150E-06,0.020
5.160E-06,0.020
5.170E-06,0.020
5.180E-06,0.020
5.190E-06,0.024
5.200E-06,0.020
5.210E-06,0.024
5.220E-06,0.020
5.230E-06,0.028
5.240E-06,0.016
5.250E-06,0.020
5.260E-06,0.024
5.270E-06,0.020
5.280E-06,0.012
5.290E-06,0.016
5.300E-06,0.016
5.310E-06,0.016
5.320E-06,0.012
5.330E-06,0.020
5.340E-06,0.012
5.350E-06,0.016
5.360E-06,0.016
5.370E-06,0.016
5.380E-06,0.016
5.390E-06,0.024
5.400E-06,0.012
5.410E-06,0.016
5.420E-06,0.016
5.430E-06,0.008
5.440E-06,0.016
5.450E-06,0.016
5.460E-06,0.012
5.470E-06,0.016
5.480E-06,0.016
5.490E-06,0.012
5.500E-06,0.012
5.510E-06,0.012
5.520E-06,0.016
5.530E-06,0.016
5.540E-06,0.008
5.550E-06,0.008
5.560E-06,0.012
5.570E-06,0.016
5.580E-06,0.008
5.590E-06,0.012
5.600E-06,0.012
5.610E-06,0.012
5.620E-06,0.008
5.630E-06,0.012
5.640E-06,0.012
5.650E-06,0.012
5.660E-06,0.016
5.670E-06,0.008
5.680E-06,0.008
5.690E-06,0.012
5.700E-06,0.004
5.710E-06,0.008
5.720E-06,0.012
5.730E-06,0.012
5.740E-06,0.008
5.750E-06,0.008
5.760E-06,0.008
5.770E-06,0.008
5.780E-06,0.008
5.790E-06,0.008
5.800E-06,0.008
5.810E-06,0.004
5.820E-06,0.008
5.830E-06,0.008
5.840E-06,0.008
5.850E-06,0.008
5.860E-06,0.008
5.870E-06,0.008
5.880E-06,0.008
5.890E-06,0.004
5.900E-06,0.008
5.910E-06,0.008
5.920E-06,0.008
5.930E-06,0.008
5.940E-06,0.004
5.950E-06,0.004
5.960E-06,0.008
5.970E-06,0.004
5.980E-06,0.008
5.990E-06,0.000
6.000E-06,0.004
6.010E-06,0.008
6.020E-06,0.004
6.030E-06,0.008
6.040E-06,0.008
6.050E-06,0.004
6.060E-06,0.004
6.070E-06,0.012
6.080E-06,0.012
6.090E-06,0.012
6.100E-06,0.008
6.110E-06,0.000
6.120E-06,0.000
6.130E-06,0.004
6.140E-06,0.000
6.150E-06,0.000
6.160E-06,0.004
6.170E-06,0.008
6.180E-06,0.008
6.190E-06,0.008
6.200E-06,0.008
6.210E-06,0.000
6.220E-06,0.000
6.230E-06,0.004
6.240E-06,0.000
6.250E-06,0.000
6.260E-06,0.000
6.270E-06,0.000
6.280E-06,0.000
6.290E-06,0.000
6.300E-06,-0.004
6.310E-06,0.000
6.320E-06,0.000
6.330E-06,0.000
6.340E-06,0.000
6.350E-06,0.000
6.360E-06,0.000
6.370E-06,-0.004
6.380E-06,0.000
6.390E-06,0.000
6.400E-06,0.004
6.410E-06,0.000
6.420E-06,-0.004
