mediciones/5-27/-60/WaveData50346.csv

#timebase=2000000(ps)
,#voltbase=1000000(mv/100)
#size=4000
-5.650E-06,-0.200
-5.640E-06,-0.240
-5.630E-06,-0.320
-5.620E-06,-0.360
-5.610E-06,-0.400
-5.600E-06,-0.400
-5.590E-06,-0.360
-5.580E-06,-0.400
-5.570E-06,-0.400
-5.560E-06,-0.400
-5.550E-06,-0.360
-5.540E-06,-0.320
-5.530E-06,-0.320
-5.520E-06,-0.280
-5.510E-06,-0.200
-5.500E-06,-0.200
-5.490E-06,-0.120
-5.480E-06,0.000
-5.470E-06,0.000
-5.460E-06,0.080
-5.450E-06,0.120
-5.440E-06,0.200
-5.430E-06,0.200
-5.420E-06,0.160
-5.410E-06,0.360
-5.400E-06,0.320
-5.390E-06,0.520
-5.380E-06,0.440
-5.370E-06,0.400
-5.360E-06,0.240
-5.350E-06,0.240
-5.340E-06,0.320
-5.330E-06,0.560
-5.320E-06,0.800
-5.310E-06,0.840
-5.300E-06,0.640
-5.290E-06,0.320
-5.280E-06,0.200
-5.270E-06,0.080
-5.260E-06,0.240
-5.250E-06,0.360
-5.240E-06,0.240
-5.230E-06,0.160
-5.220E-06,-0.040
-5.210E-06,-0.120
-5.200E-06,-0.120
-5.190E-06,-0.120
-5.180E-06,-0.160
-5.170E-06,-0.200
-5.160E-06,-0.360
-5.150E-06,-0.480
-5.140E-06,-0.440
-5.130E-06,-0.480
-5.120E-06,-0.360
-5.110E-06,-0.320
-5.100E-06,-0.320
-5.090E-06,-0.240
-5.080E-06,-0.160
-5.070E-06,-0.160
-5.060E-06,-0.080
-5.050E-06,0.000
-5.040E-06,0.080
-5.030E-06,0.160
-5.020E-06,0.160
-5.010E-06,0.320
-5.000E-06,0.400
-4.990E-06,0.400
-4.980E-06,0.440
-4.970E-06,0.360
-4.960E-06,0.360
-4.950E-06,0.320
-4.940E-06,0.400
-4.930E-06,0.400
-4.920E-06,0.400
-4.910E-06,0.240
-4.900E-06,0.320
-4.890E-06,0.040
-4.880E-06,0.240
-4.870E-06,0.000
-4.860E-06,0.080
-4.850E-06,-0.080
-4.840E-06,-0.080
-4.830E-06,0.000
-4.820E-06,-0.040
-4.810E-06,0.080
-4.800E-06,0.160
-4.790E-06,0.160
-4.780E-06,0.080
-4.770E-06,-0.040
-4.760E-06,0.000
-4.750E-06,0.040
-4.740E-06,0.000
-4.730E-06,-0.040
-4.720E-06,0.120
-4.710E-06,0.000
-4.700E-06,-0.040
-4.690E-06,-0.080
-4.680E-06,-0.080
-4.670E-06,0.000
-4.660E-06,0.120
-4.650E-06,0.160
-4.640E-06,0.160
-4.630E-06,0.240
-4.620E-06,0.200
-4.610E-06,0.120
-4.600E-06,0.320
-4.590E-06,0.200
-4.580E-06,0.360
-4.570E-06,0.280
-4.560E-06,0.200
-4.550E-06,0.200
-4.540E-06,0.200
-4.530E-06,0.280
-4.520E-06,0.440
-4.510E-06,0.480
-4.500E-06,0.520
-4.490E-06,0.360
-4.480E-06,0.160
-4.470E-06,0.040
-4.460E-06,0.080
-4.450E-06,0.200
-4.440E-06,0.360
-4.430E-06,0.360
-4.420E-06,0.160
-4.410E-06,0.080
-4.400E-06,0.000
-4.390E-06,-0.040
-4.380E-06,0.000
-4.370E-06,0.000
-4.360E-06,0.000
-4.350E-06,-0.080
-4.340E-06,-0.160
-4.330E-06,-0.240
-4.320E-06,-0.200
-4.310E-06,-0.240
-4.300E-06,-0.280
-4.290E-06,-0.240
-4.280E-06,-0.240
-4.270E-06,-0.200
-4.260E-06,-0.240
-4.250E-06,-0.280
-4.240E-06,-0.200
-4.230E-06,-0.200
-4.220E-06,-0.120
-4.210E-06,-0.040
-4.200E-06,-0.040
-4.190E-06,-0.040
-4.180E-06,-0.040
-4.170E-06,0.040
-4.160E-06,0.080
-4.150E-06,0.080
-4.140E-06,0.320
-4.130E-06,0.200
-4.120E-06,0.240
-4.110E-06,0.480
-4.100E-06,0.400
-4.090E-06,0.560
-4.080E-06,0.760
-4.070E-06,0.720
-4.060E-06,0.640
-4.050E-06,0.480
-4.040E-06,0.360
-4.030E-06,0.440
-4.020E-06,0.400
-4.010E-06,0.520
-4.000E-06,0.520
-3.990E-06,0.280
-3.980E-06,0.080
-3.970E-06,0.000
-3.960E-06,-0.160
-3.950E-06,-0.080
-3.940E-06,-0.040
-3.930E-06,-0.080
-3.920E-06,-0.200
-3.910E-06,-0.320
-3.900E-06,-0.360
-3.890E-06,-0.400
-3.880E-06,-0.480
-3.870E-06,-0.440
-3.860E-06,-0.400
-3.850E-06,-0.400
-3.840E-06,-0.400
-3.830E-06,-0.320
-3.820E-06,-0.320
-3.810E-06,-0.240
-3.800E-06,-0.240
-3.790E-06,-0.240
-3.780E-06,-0.200
-3.770E-06,-0.160
-3.760E-06,-0.040
-3.750E-06,-0.040
-3.740E-06,0.000
-3.730E-06,0.040
-3.720E-06,0.080
-3.710E-06,0.120
-3.700E-06,0.120
-3.690E-06,0.200
-3.680E-06,0.160
-3.670E-06,0.160
-3.660E-06,0.200
-3.650E-06,0.160
-3.640E-06,0.200
-3.630E-06,0.240
-3.620E-06,0.280
-3.610E-06,0.240
-3.600E-06,0.280
-3.590E-06,0.200
-3.580E-06,0.080
-3.570E-06,0.080
-3.560E-06,0.120
-3.550E-06,0.200
-3.540E-06,0.280
-3.530E-06,0.320
-3.520E-06,0.320
-3.510E-06,0.240
-3.500E-06,0.160
-3.490E-06,0.200
-3.480E-06,0.120
-3.470E-06,0.120
-3.460E-06,0.120
-3.450E-06,0.080
-3.440E-06,0.000
-3.430E-06,-0.080
-3.420E-06,-0.120
-3.410E-06,-0.160
-3.400E-06,-0.080
-3.390E-06,-0.080
-3.380E-06,-0.160
-3.370E-06,-0.160
-3.360E-06,-0.160
-3.350E-06,-0.160
-3.340E-06,-0.040
-3.330E-06,-0.040
-3.320E-06,0.000
-3.310E-06,-0.040
-3.300E-06,-0.080
-3.290E-06,-0.080
-3.280E-06,0.000
-3.270E-06,0.120
-3.260E-06,0.200
-3.250E-06,0.280
-3.240E-06,0.200
-3.230E-06,0.120
-3.220E-06,0.080
-3.210E-06,0.080
-3.200E-06,0.160
-3.190E-06,0.200
-3.180E-06,0.240
-3.170E-06,0.240
-3.160E-06,0.160
-3.150E-06,0.040
-3.140E-06,0.040
-3.130E-06,0.040
-3.120E-06,0.000
-3.110E-06,0.000
-3.100E-06,0.000
-3.090E-06,-0.040
-3.080E-06,-0.040
-3.070E-06,-0.040
-3.060E-06,-0.200
-3.050E-06,0.000
-3.040E-06,-0.120
-3.030E-06,-0.040
-3.020E-06,-0.040
-3.010E-06,-0.200
-3.000E-06,-0.200
-2.990E-06,-0.320
-2.980E-06,-0.240
-2.970E-06,-0.160
-2.960E-06,0.040
-2.950E-06,0.200
-2.940E-06,0.200
-2.930E-06,0.040
-2.920E-06,-0.040
-2.910E-06,-0.080
-2.900E-06,0.000
-2.890E-06,0.200
-2.880E-06,0.160
-2.870E-06,0.080
-2.860E-06,0.000
-2.850E-06,-0.040
-2.840E-06,0.000
-2.830E-06,0.120
-2.820E-06,0.240
-2.810E-06,0.360
-2.800E-06,0.200
-2.790E-06,0.000
-2.780E-06,-0.120
-2.770E-06,-0.120
-2.760E-06,-0.040
-2.750E-06,0.000
-2.740E-06,-0.040
-2.730E-06,-0.040
-2.720E-06,-0.080
-2.710E-06,-0.120
-2.700E-06,-0.080
-2.690E-06,-0.040
-2.680E-06,0.080
-2.670E-06,0.080
-2.660E-06,0.000
-2.650E-06,-0.080
-2.640E-06,-0.120
-2.630E-06,-0.160
-2.620E-06,-0.040
-2.610E-06,0.160
-2.600E-06,0.320
-2.590E-06,0.440
-2.580E-06,0.320
-2.570E-06,0.280
-2.560E-06,0.160
-2.550E-06,0.120
-2.540E-06,0.200
-2.530E-06,0.320
-2.520E-06,0.440
-2.510E-06,0.400
-2.500E-06,0.400
-2.490E-06,0.360
-2.480E-06,0.320
-2.470E-06,0.280
-2.460E-06,0.320
-2.450E-06,0.320
-2.440E-06,0.440
-2.430E-06,0.440
-2.420E-06,0.480
-2.410E-06,0.480
-2.400E-06,0.480
-2.390E-06,0.320
-2.380E-06,0.280
-2.370E-06,0.160
-2.360E-06,0.200
-2.350E-06,0.200
-2.340E-06,0.080
-2.330E-06,0.000
-2.320E-06,-0.120
-2.310E-06,-0.200
-2.300E-06,-0.040
-2.290E-06,0.120
-2.280E-06,0.280
-2.270E-06,0.280
-2.260E-06,0.120
-2.250E-06,-0.040
-2.240E-06,0.000
-2.230E-06,0.040
-2.220E-06,0.240
-2.210E-06,0.440
-2.200E-06,0.480
-2.190E-06,0.480
-2.180E-06,0.320
-2.170E-06,0.240
-2.160E-06,0.320
-2.150E-06,0.480
-2.140E-06,0.480
-2.130E-06,0.560
-2.120E-06,0.480
-2.110E-06,0.400
-2.100E-06,0.400
-2.090E-06,0.280
-2.080E-06,0.400
-2.070E-06,0.400
-2.060E-06,0.480
-2.050E-06,0.480
-2.040E-06,0.400
-2.030E-06,0.480
-2.020E-06,0.480
-2.010E-06,0.440
-2.000E-06,0.480
-1.990E-06,0.480
-1.980E-06,0.480
-1.970E-06,0.480
-1.960E-06,0.440
-1.950E-06,0.520
-1.940E-06,0.520
-1.930E-06,0.600
-1.920E-06,0.800
-1.910E-06,0.680
-1.900E-06,0.680
-1.890E-06,0.640
-1.880E-06,0.600
-1.870E-06,0.800
-1.860E-06,0.800
-1.850E-06,0.920
-1.840E-06,1.040
-1.830E-06,1.120
-1.820E-06,1.240
-1.810E-06,1.280
-1.800E-06,1.200
-1.790E-06,1.160
-1.780E-06,1.160
-1.770E-06,1.200
-1.760E-06,1.240
-1.750E-06,1.320
-1.740E-06,1.360
-1.730E-06,1.400
-1.720E-06,1.240
-1.710E-06,1.160
-1.700E-06,1.240
-1.690E-06,1.240
-1.680E-06,1.200
-1.670E-06,1.200
-1.660E-06,1.160
-1.650E-06,1.080
-1.640E-06,0.920
-1.630E-06,0.880
-1.620E-06,0.760
-1.610E-06,0.800
-1.600E-06,0.680
-1.590E-06,0.600
-1.580E-06,0.640
-1.570E-06,0.480
-1.560E-06,0.480
-1.550E-06,0.480
-1.540E-06,0.480
-1.530E-06,0.480
-1.520E-06,0.440
-1.510E-06,0.400
-1.500E-06,0.360
-1.490E-06,0.440
-1.480E-06,0.400
-1.470E-06,0.320
-1.460E-06,0.160
-1.450E-06,0.200
-1.440E-06,0.040
-1.430E-06,0.120
-1.420E-06,0.280
-1.410E-06,0.520
-1.400E-06,0.680
-1.390E-06,0.640
-1.380E-06,0.600
-1.370E-06,0.560
-1.360E-06,0.480
-1.350E-06,0.640
-1.340E-06,0.760
-1.330E-06,0.880
-1.320E-06,1.000
-1.310E-06,0.920
-1.300E-06,0.920
-1.290E-06,0.880
-1.280E-06,0.800
-1.270E-06,0.960
-1.260E-06,0.880
-1.250E-06,0.960
-1.240E-06,1.000
-1.230E-06,0.920
-1.220E-06,1.040
-1.210E-06,0.920
-1.200E-06,0.840
-1.190E-06,0.960
-1.180E-06,0.840
-1.170E-06,1.000
-1.160E-06,0.920
-1.150E-06,0.960
-1.140E-06,0.840
-1.130E-06,0.640
-1.120E-06,0.440
-1.110E-06,0.360
-1.100E-06,0.400
-1.090E-06,0.520
-1.080E-06,0.520
-1.070E-06,0.640
-1.060E-06,0.520
-1.050E-06,0.480
-1.040E-06,0.320
-1.030E-06,0.240
-1.020E-06,0.360
-1.010E-06,0.480
-1.000E-06,0.600
-9.900E-07,0.560
-9.800E-07,0.560
-9.700E-07,0.400
-9.600E-07,0.320
-9.500E-07,0.200
-9.400E-07,0.120
-9.300E-07,0.240
-9.200E-07,0.160
-9.100E-07,0.400
-9.000E-07,0.280
-8.900E-07,0.400
-8.800E-07,0.280
-8.700E-07,0.400
-8.600E-07,0.320
-8.500E-07,0.320
-8.400E-07,0.480
-8.300E-07,0.480
-8.200E-07,0.640
-8.100E-07,0.640
-8.000E-07,0.400
-7.900E-07,0.240
-7.800E-07,0.240
-7.700E-07,0.200
-7.600E-07,0.360
-7.500E-07,0.640
-7.400E-07,0.840
-7.300E-07,0.880
-7.200E-07,0.840
-7.100E-07,0.760
-7.000E-07,0.680
-6.900E-07,0.680
-6.800E-07,0.720
-6.700E-07,0.800
-6.600E-07,0.800
-6.500E-07,0.760
-6.400E-07,0.640
-6.300E-07,0.600
-6.200E-07,0.520
-6.100E-07,0.560
-6.000E-07,0.520
-5.900E-07,0.680
-5.800E-07,0.720
-5.700E-07,0.760
-5.600E-07,0.760
-5.500E-07,0.760
-5.400E-07,0.680
-5.300E-07,0.600
-5.200E-07,0.440
-5.100E-07,0.400
-5.000E-07,0.320
-4.900E-07,0.280
-4.800E-07,0.320
-4.700E-07,0.360
-4.600E-07,0.520
-4.500E-07,0.600
-4.400E-07,0.760
-4.300E-07,0.520
-4.200E-07,0.480
-4.100E-07,0.520
-4.000E-07,0.320
-3.900E-07,0.480
-3.800E-07,0.440
-3.700E-07,0.680
-3.600E-07,0.520
-3.500E-07,0.640
-3.400E-07,0.640
-3.300E-07,0.760
-3.200E-07,0.760
-3.100E-07,0.800
-3.000E-07,0.840
-2.900E-07,0.840
-2.800E-07,0.840
-2.700E-07,0.960
-2.600E-07,1.000
-2.500E-07,1.440
-2.400E-07,1.520
-2.300E-07,1.680
-2.200E-07,1.440
-2.100E-07,1.480
-2.000E-07,1.520
-1.900E-07,1.880
-1.800E-07,2.040
-1.700E-07,2.160
-1.600E-07,2.360
-1.500E-07,2.240
-1.400E-07,2.240
-1.300E-07,2.360
-1.200E-07,2.240
-1.100E-07,2.360
-1.000E-07,1.720
-9.000E-08,1.120
-8.000E-08,1.000
-7.000E-08,0.640
-6.000E-08,0.880
-5.000E-08,1.000
-4.000E-08,1.400
-3.000E-08,1.520
-2.000E-08,1.480
-1.000E-08,1.080
0.000E+00,0.880
1.000E-08,0.800
2.000E-08,0.640
3.000E-08,1.160
4.000E-08,1.240
5.000E-08,1.000
6.000E-08,0.960
7.000E-08,0.200
8.000E-08,-0.240
9.000E-08,-1.120
1.000E-07,-1.160
1.100E-07,-1.120
1.200E-07,-0.800
1.300E-07,-0.520
1.400E-07,-0.680
1.500E-07,-0.880
1.600E-07,-1.360
1.700E-07,-1.480
1.800E-07,-1.240
1.900E-07,-0.920
2.000E-07,-0.400
2.100E-07,-0.080
2.200E-07,0.000
2.300E-07,-0.040
2.400E-07,-0.160
2.500E-07,-0.040
2.600E-07,0.040
2.700E-07,0.440
2.800E-07,0.640
2.900E-07,0.800
3.000E-07,0.640
3.100E-07,0.480
3.200E-07,0.120
3.300E-07,-0.120
3.400E-07,-0.120
3.500E-07,-0.240
3.600E-07,-0.160
3.700E-07,-0.320
3.800E-07,-0.440
3.900E-07,-0.640
4.000E-07,-0.960
4.100E-07,-1.120
4.200E-07,-1.160
4.300E-07,-1.160
4.400E-07,-1.160
4.500E-07,-1.080
4.600E-07,-1.120
4.700E-07,-1.040
4.800E-07,-0.960
4.900E-07,-0.880
5.000E-07,-0.720
5.100E-07,-0.560
5.200E-07,-0.320
5.300E-07,-0.200
5.400E-07,-0.080
5.500E-07,-0.040
5.600E-07,-0.160
5.700E-07,-0.240
5.800E-07,-0.440
5.900E-07,-0.680
6.000E-07,-0.720
6.100E-07,-0.880
6.200E-07,-1.000
6.300E-07,-1.160
6.400E-07,-1.240
6.500E-07,-1.320
6.600E-07,-1.440
6.700E-07,-1.400
6.800E-07,-1.480
6.900E-07,-1.520
7.000E-07,-1.520
7.100E-07,-1.560
7.200E-07,-1.560
7.300E-07,-1.560
7.400E-07,-1.600
7.500E-07,-1.680
7.600E-07,-1.720
7.700E-07,-1.680
7.800E-07,-1.680
7.900E-07,-1.720
8.000E-07,-1.760
8.100E-07,-1.880
8.200E-07,-2.000
8.300E-07,-2.160
8.400E-07,-2.160
8.500E-07,-2.160
8.600E-07,-2.200
8.700E-07,-1.920
8.800E-07,-2.040
8.900E-07,-2.000
9.000E-07,-2.320
9.100E-07,-2.720
9.200E-07,-3.000
9.300E-07,-3.200
9.400E-07,-2.520
9.500E-07,-2.440
9.600E-07,-2.200
9.700E-07,-1.040
9.800E-07,-2.600
9.900E-07,-1.320
1.000E-06,-1.880
1.010E-06,-1.520
1.020E-06,-1.560
1.030E-06,-2.640
1.040E-06,-2.640
1.050E-06,-3.360
1.060E-06,-3.520
1.070E-06,-3.080
1.080E-06,-3.480
1.090E-06,-3.160
1.100E-06,-3.280
1.110E-06,-4.400
1.120E-06,-3.920
1.130E-06,-4.920
1.140E-06,-4.560
1.150E-06,-4.680
1.160E-06,-4.960
1.170E-06,-4.520
1.180E-06,-5.120
1.190E-06,-4.680
1.200E-06,-4.680
1.210E-06,-4.480
1.220E-06,-4.600
1.230E-06,-4.920
1.240E-06,-5.240
1.250E-06,-5.200
1.260E-06,-5.200
1.270E-06,-5.200
1.280E-06,-5.200
1.290E-06,-5.200
1.300E-06,-5.240
1.310E-06,-5.240
1.320E-06,-5.240
1.330E-06,-5.240
1.340E-06,-5.240
1.350E-06,-5.240
1.360E-06,-5.240
1.370E-06,-5.240
1.380E-06,-5.200
1.390E-06,-5.080
1.400E-06,-5.120
1.410E-06,-5.200
1.420E-06,-5.240
1.430E-06,-5.240
1.440E-06,-5.160
1.450E-06,-4.960
1.460E-06,-4.920
1.470E-06,-4.760
1.480E-06,-4.680
1.490E-06,-4.680
1.500E-06,-4.680
1.510E-06,-4.680
1.520E-06,-4.520
1.530E-06,-4.520
1.540E-06,-4.520
1.550E-06,-4.520
1.560E-06,-4.520
1.570E-06,-4.480
1.580E-06,-4.480
1.590E-06,-4.360
1.600E-06,-4.320
1.610E-06,-4.200
1.620E-06,-4.080
1.630E-06,-4.040
1.640E-06,-3.920
1.650E-06,-3.840
1.660E-06,-3.800
1.670E-06,-3.600
1.680E-06,-3.560
1.690E-06,-3.520
1.700E-06,-3.480
1.710E-06,-3.400
1.720E-06,-3.320
1.730E-06,-3.200
1.740E-06,-3.120
1.750E-06,-3.000
1.760E-06,-2.960
1.770E-06,-2.960
1.780E-06,-2.920
1.790E-06,-2.760
1.800E-06,-2.680
1.810E-06,-2.640
1.820E-06,-2.520
1.830E-06,-2.560
1.840E-06,-2.600
1.850E-06,-2.640
1.860E-06,-2.640
1.870E-06,-2.640
1.880E-06,-2.680
1.890E-06,-2.600
1.900E-06,-2.680
1.910E-06,-2.720
1.920E-06,-2.680
1.930E-06,-2.680
1.940E-06,-2.480
1.950E-06,-2.280
1.960E-06,-2.240
1.970E-06,-2.200
1.980E-06,-2.400
1.990E-06,-2.400
2.000E-06,-2.680
2.010E-06,-2.840
2.020E-06,-3.040
2.030E-06,-2.760
2.040E-06,-2.600
2.050E-06,-1.680
2.060E-06,-1.280
2.070E-06,0.040
2.080E-06,-0.160
2.090E-06,0.360
2.100E-06,-0.360
2.110E-06,-0.920
2.120E-06,-3.520
2.130E-06,-2.080
2.140E-06,-4.920
2.150E-06,-2.400
2.160E-06,-1.400
2.170E-06,-3.520
2.180E-06,-2.280
2.190E-06,-4.000
2.200E-06,-4.200
2.210E-06,-3.560
2.220E-06,-3.960
2.230E-06,-2.880
2.240E-06,-2.440
2.250E-06,-2.040
2.260E-06,-1.880
2.270E-06,-1.720
2.280E-06,-1.880
2.290E-06,-2.040
2.300E-06,-2.280
2.310E-06,-2.400
2.320E-06,-2.520
2.330E-06,-2.680
2.340E-06,-2.840
2.350E-06,-3.240
2.360E-06,-3.560
2.370E-06,-3.840
2.380E-06,-4.040
2.390E-06,-4.040
2.400E-06,-3.640
2.410E-06,-3.400
2.420E-06,-3.000
2.430E-06,-2.640
2.440E-06,-2.360
2.450E-06,-1.840
2.460E-06,-1.320
2.470E-06,-0.920
2.480E-06,-0.440
2.490E-06,-0.200
2.500E-06,-0.080
2.510E-06,-0.080
2.520E-06,-0.240
2.530E-06,-0.400
2.540E-06,-0.560
2.550E-06,-1.000
2.560E-06,-1.360
2.570E-06,-1.800
2.580E-06,-2.200
2.590E-06,-2.560
2.600E-06,-2.920
2.610E-06,-3.240
2.620E-06,-3.480
2.630E-06,-3.680
2.640E-06,-3.840
2.650E-06,-3.840
2.660E-06,-3.760
2.670E-06,-3.680
2.680E-06,-3.520
2.690E-06,-3.440
2.700E-06,-3.360
2.710E-06,-3.280
2.720E-06,-3.200
2.730E-06,-3.040
2.740E-06,-2.920
2.750E-06,-2.680
2.760E-06,-2.640
2.770E-06,-2.680
2.780E-06,-2.720
2.790E-06,-2.720
2.800E-06,-2.640
2.810E-06,-2.480
2.820E-06,-2.400
2.830E-06,-2.400
2.840E-06,-2.440
2.850E-06,-2.480
2.860E-06,-2.600
2.870E-06,-2.560
2.880E-06,-2.560
2.890E-06,-2.480
2.900E-06,-2.480
2.910E-06,-2.520
2.920E-06,-2.560
2.930E-06,-2.600
2.940E-06,-2.640
2.950E-06,-2.640
2.960E-06,-2.680
2.970E-06,-2.640
2.980E-06,-2.680
2.990E-06,-2.680
3.000E-06,-2.640
3.010E-06,-2.640
3.020E-06,-2.640
3.030E-06,-2.760
3.040E-06,-2.800
3.050E-06,-2.960
3.060E-06,-3.000
3.070E-06,-3.040
3.080E-06,-3.080
3.090E-06,-3.120
3.100E-06,-3.240
3.110E-06,-3.280
3.120E-06,-3.240
3.130E-06,-3.280
3.140E-06,-3.240
3.150E-06,-3.160
3.160E-06,-3.080
3.170E-06,-3.120
3.180E-06,-3.080
3.190E-06,-3.080
3.200E-06,-3.200
3.210E-06,-3.280
3.220E-06,-3.240
3.230E-06,-3.240
3.240E-06,-3.160
3.250E-06,-3.040
3.260E-06,-2.880
3.270E-06,-2.680
3.280E-06,-2.520
3.290E-06,-2.360
3.300E-06,-2.280
3.310E-06,-2.200
3.320E-06,-2.160
3.330E-06,-2.000
3.340E-06,-1.960
3.350E-06,-1.880
3.360E-06,-1.800
3.370E-06,-1.760
3.380E-06,-1.720
3.390E-06,-1.600
3.400E-06,-1.560
3.410E-06,-1.480
3.420E-06,-1.400
3.430E-06,-1.360
3.440E-06,-1.360
3.450E-06,-1.360
3.460E-06,-1.400
3.470E-06,-1.400
3.480E-06,-1.400
3.490E-06,-1.360
3.500E-06,-1.320
3.510E-06,-1.360
3.520E-06,-1.360
3.530E-06,-1.400
3.540E-06,-1.480
3.550E-06,-1.520
3.560E-06,-1.560
3.570E-06,-1.640
3.580E-06,-1.640
3.590E-06,-1.680
3.600E-06,-1.760
3.610E-06,-1.760
3.620E-06,-1.800
3.630E-06,-1.840
3.640E-06,-1.840
3.650E-06,-1.920
3.660E-06,-1.960
3.670E-06,-2.000
3.680E-06,-2.080
3.690E-06,-2.080
3.700E-06,-2.160
3.710E-06,-2.200
3.720E-06,-2.160
3.730E-06,-2.160
3.740E-06,-2.160
3.750E-06,-2.120
3.760E-06,-2.120
3.770E-06,-2.000
3.780E-06,-2.000
3.790E-06,-2.000
3.800E-06,-1.840
3.810E-06,-1.760
3.820E-06,-1.720
3.830E-06,-1.600
3.840E-06,-1.480
3.850E-06,-1.400
3.860E-06,-1.280
3.870E-06,-1.200
3.880E-06,-1.080
3.890E-06,-1.040
3.900E-06,-1.000
3.910E-06,-0.960
3.920E-06,-0.960
3.930E-06,-0.960
3.940E-06,-0.960
3.950E-06,-1.000
3.960E-06,-1.080
3.970E-06,-1.080
3.980E-06,-1.120
3.990E-06,-1.160
4.000E-06,-1.160
4.010E-06,-1.160
4.020E-06,-1.160
4.030E-06,-1.200
4.040E-06,-1.200
4.050E-06,-1.120
4.060E-06,-1.160
4.070E-06,-1.080
4.080E-06,-1.120
4.090E-06,-1.040
4.100E-06,-1.040
4.110E-06,-0.960
4.120E-06,-0.960
4.130E-06,-1.000
4.140E-06,-0.960
4.150E-06,-1.040
4.160E-06,-1.000
4.170E-06,-1.040
4.180E-06,-1.160
4.190E-06,-1.200
4.200E-06,-1.280
4.210E-06,-1.360
4.220E-06,-1.440
4.230E-06,-1.520
4.240E-06,-1.640
4.250E-06,-1.680
4.260E-06,-1.720
4.270E-06,-1.760
4.280E-06,-1.760
4.290E-06,-1.800
4.300E-06,-1.800
4.310E-06,-1.800
4.320E-06,-1.760
4.330E-06,-1.680
4.340E-06,-1.680
4.350E-06,-1.600
4.360E-06,-1.480
4.370E-06,-1.480
4.380E-06,-1.400
4.390E-06,-1.320
4.400E-06,-1.200
4.410E-06,-1.160
4.420E-06,-1.080
4.430E-06,-1.000
4.440E-06,-1.160
4.450E-06,-1.160
4.460E-06,-1.280
4.470E-06,-1.320
4.480E-06,-1.440
4.490E-06,-1.480
4.500E-06,-1.600
4.510E-06,-1.600
4.520E-06,-1.600
4.530E-06,-1.600
4.540E-06,-1.600
4.550E-06,-1.520
4.560E-06,-1.480
4.570E-06,-1.480
4.580E-06,-1.400
4.590E-06,-1.320
4.600E-06,-1.280
4.610E-06,-1.200
4.620E-06,-1.200
4.630E-06,-1.080
4.640E-06,-0.960
4.650E-06,-0.920
4.660E-06,-0.880
4.670E-06,-0.840
4.680E-06,-0.880
4.690E-06,-0.800
4.700E-06,-0.840
4.710E-06,-0.800
4.720E-06,-0.840
4.730E-06,-0.880
4.740E-06,-0.880
4.750E-06,-0.920
4.760E-06,-0.880
4.770E-06,-0.840
4.780E-06,-0.760
4.790E-06,-0.680
4.800E-06,-0.680
4.810E-06,-0.680
4.820E-06,-0.600
4.830E-06,-0.480
4.840E-06,-0.360
4.850E-06,-0.320
4.860E-06,-0.160
4.870E-06,-0.120
4.880E-06,-0.160
4.890E-06,-0.160
4.900E-06,-0.200
4.910E-06,-0.200
4.920E-06,-0.320
4.930E-06,-0.400
4.940E-06,-0.480
4.950E-06,-0.520
4.960E-06,-0.640
4.970E-06,-0.680
4.980E-06,-0.800
4.990E-06,-0.840
5.000E-06,-0.920
5.010E-06,-1.000
5.020E-06,-1.040
5.030E-06,-1.120
5.040E-06,-1.160
5.050E-06,-1.120
5.060E-06,-1.080
5.070E-06,-1.040
5.080E-06,-1.080
5.090E-06,-1.000
5.100E-06,-0.920
5.110E-06,-0.840
5.120E-06,-0.760
5.130E-06,-0.760
5.140E-06,-0.680
5.150E-06,-0.640
5.160E-06,-0.640
5.170E-06,-0.640
5.180E-06,-0.680
5.190E-06,-0.680
5.200E-06,-0.680
5.210E-06,-0.800
5.220E-06,-0.800
5.230E-06,-0.920
5.240E-06,-1.000
5.250E-06,-1.080
5.260E-06,-1.040
5.270E-06,-0.960
5.280E-06,-0.920
5.290E-06,-0.880
5.300E-06,-0.800
5.310E-06,-0.760
5.320E-06,-0.720
5.330E-06,-0.680
5.340E-06,-0.680
5.350E-06,-0.680
5.360E-06,-0.640
5.370E-06,-0.680
5.380E-06,-0.720
5.390E-06,-0.680
5.400E-06,-0.760
5.410E-06,-0.840
5.420E-06,-1.040
5.430E-06,-1.160
5.440E-06,-1.160
5.450E-06,-1.120
5.460E-06,-1.040
5.470E-06,-0.880
5.480E-06,-0.800
5.490E-06,-0.760
5.500E-06,-0.640
5.510E-06,-0.560
5.520E-06,-0.360
5.530E-06,-0.280
5.540E-06,-0.200
5.550E-06,-0.160
5.560E-06,-0.120
5.570E-06,-0.160
5.580E-06,-0.200
5.590E-06,-0.160
5.600E-06,-0.200
5.610E-06,-0.200
5.620E-06,-0.080
5.630E-06,-0.120
5.640E-06,-0.160
5.650E-06,-0.080
5.660E-06,-0.040
5.670E-06,-0.040
5.680E-06,0.000
5.690E-06,-0.040
5.700E-06,-0.040
5.710E-06,0.000
5.720E-06,0.000
5.730E-06,0.000
5.740E-06,-0.040
5.750E-06,0.080
5.760E-06,0.160
5.770E-06,0.200
5.780E-06,0.120
5.790E-06,0.120
5.800E-06,0.160
5.810E-06,0.200
5.820E-06,0.200
5.830E-06,0.160
5.840E-06,0.160
5.850E-06,0.040
5.860E-06,-0.080
5.870E-06,-0.160
5.880E-06,-0.320
5.890E-06,-0.480
5.900E-06,-0.560
5.910E-06,-0.640
5.920E-06,-0.680
5.930E-06,-0.720
5.940E-06,-0.720
5.950E-06,-0.720
5.960E-06,-0.760
5.970E-06,-0.720
5.980E-06,-0.720
5.990E-06,-0.680
6.000E-06,-0.680
6.010E-06,-0.760
