mediciones/5-27/-60/WaveData50352.csv

#timebase=2000000(ps)
,#voltbase=1000000(mv/100)
#size=4000
-5.650E-06,0.000
-5.640E-06,0.000
-5.630E-06,0.040
-5.620E-06,0.080
-5.610E-06,0.000
-5.600E-06,0.080
-5.590E-06,0.080
-5.580E-06,0.080
-5.570E-06,0.000
-5.560E-06,0.040
-5.550E-06,0.040
-5.540E-06,0.040
-5.530E-06,0.080
-5.520E-06,0.040
-5.510E-06,0.040
-5.500E-06,0.120
-5.490E-06,0.000
-5.480E-06,0.000
-5.470E-06,0.040
-5.460E-06,0.040
-5.450E-06,0.080
-5.440E-06,0.040
-5.430E-06,0.040
-5.420E-06,0.040
-5.410E-06,0.040
-5.400E-06,0.040
-5.390E-06,0.080
-5.380E-06,0.040
-5.370E-06,0.040
-5.360E-06,0.040
-5.350E-06,0.080
-5.340E-06,0.040
-5.330E-06,0.080
-5.320E-06,0.040
-5.310E-06,0.040
-5.300E-06,0.040
-5.290E-06,0.040
-5.280E-06,0.000
-5.270E-06,0.040
-5.260E-06,0.000
-5.250E-06,0.040
-5.240E-06,0.000
-5.230E-06,0.040
-5.220E-06,0.040
-5.210E-06,0.040
-5.200E-06,0.040
-5.190E-06,-0.040
-5.180E-06,0.040
-5.170E-06,0.040
-5.160E-06,0.040
-5.150E-06,0.040
-5.140E-06,0.000
-5.130E-06,0.040
-5.120E-06,0.120
-5.110E-06,0.080
-5.100E-06,0.000
-5.090E-06,0.000
-5.080E-06,0.040
-5.070E-06,0.000
-5.060E-06,0.040
-5.050E-06,0.080
-5.040E-06,0.040
-5.030E-06,0.040
-5.020E-06,0.080
-5.010E-06,0.040
-5.000E-06,0.040
-4.990E-06,0.080
-4.980E-06,0.040
-4.970E-06,0.040
-4.960E-06,0.040
-4.950E-06,0.080
-4.940E-06,0.040
-4.930E-06,0.000
-4.920E-06,0.040
-4.910E-06,0.000
-4.900E-06,0.040
-4.890E-06,0.080
-4.880E-06,0.040
-4.870E-06,0.040
-4.860E-06,0.040
-4.850E-06,0.000
-4.840E-06,0.080
-4.830E-06,0.080
-4.820E-06,0.120
-4.810E-06,0.000
-4.800E-06,0.040
-4.790E-06,0.080
-4.780E-06,0.040
-4.770E-06,0.120
-4.760E-06,0.040
-4.750E-06,0.040
-4.740E-06,0.040
-4.730E-06,0.040
-4.720E-06,0.040
-4.710E-06,0.080
-4.700E-06,0.080
-4.690E-06,0.040
-4.680E-06,0.040
-4.670E-06,0.000
-4.660E-06,0.000
-4.650E-06,0.080
-4.640E-06,0.040
-4.630E-06,0.040
-4.620E-06,0.040
-4.610E-06,0.080
-4.600E-06,0.040
-4.590E-06,0.040
-4.580E-06,0.080
-4.570E-06,0.040
-4.560E-06,0.080
-4.550E-06,0.080
-4.540E-06,0.080
-4.530E-06,0.040
-4.520E-06,0.080
-4.510E-06,0.080
-4.500E-06,0.040
-4.490E-06,0.000
-4.480E-06,0.080
-4.470E-06,0.040
-4.460E-06,0.040
-4.450E-06,0.040
-4.440E-06,0.080
-4.430E-06,0.120
-4.420E-06,0.120
-4.410E-06,0.120
-4.400E-06,0.120
-4.390E-06,0.080
-4.380E-06,0.080
-4.370E-06,0.120
-4.360E-06,0.120
-4.350E-06,0.040
-4.340E-06,0.000
-4.330E-06,0.080
-4.320E-06,0.040
-4.310E-06,0.080
-4.300E-06,0.080
-4.290E-06,0.040
-4.280E-06,0.080
-4.270E-06,0.040
-4.260E-06,0.040
-4.250E-06,0.080
-4.240E-06,0.040
-4.230E-06,0.080
-4.220E-06,0.040
-4.210E-06,0.080
-4.200E-06,0.080
-4.190E-06,0.080
-4.180E-06,0.000
-4.170E-06,0.080
-4.160E-06,0.080
-4.150E-06,0.080
-4.140E-06,0.080
-4.130E-06,0.080
-4.120E-06,0.000
-4.110E-06,0.040
-4.100E-06,0.080
-4.090E-06,0.120
-4.080E-06,0.000
-4.070E-06,0.000
-4.060E-06,0.080
-4.050E-06,0.080
-4.040E-06,0.040
-4.030E-06,0.040
-4.020E-06,0.080
-4.010E-06,0.040
-4.000E-06,0.080
-3.990E-06,0.080
-3.980E-06,0.080
-3.970E-06,0.080
-3.960E-06,0.080
-3.950E-06,0.040
-3.940E-06,0.080
-3.930E-06,0.040
-3.920E-06,0.040
-3.910E-06,0.040
-3.900E-06,0.040
-3.890E-06,0.040
-3.880E-06,0.040
-3.870E-06,0.080
-3.860E-06,0.080
-3.850E-06,0.040
-3.840E-06,0.000
-3.830E-06,0.040
-3.820E-06,0.080
-3.810E-06,0.080
-3.800E-06,0.080
-3.790E-06,0.040
-3.780E-06,0.040
-3.770E-06,0.040
-3.760E-06,0.040
-3.750E-06,0.000
-3.740E-06,0.040
-3.730E-06,0.000
-3.720E-06,0.040
-3.710E-06,0.080
-3.700E-06,0.000
-3.690E-06,0.040
-3.680E-06,0.040
-3.670E-06,0.040
-3.660E-06,0.040
-3.650E-06,0.040
-3.640E-06,0.040
-3.630E-06,0.000
-3.620E-06,0.080
-3.610E-06,0.120
-3.600E-06,0.040
-3.590E-06,0.000
-3.580E-06,0.080
-3.570E-06,0.000
-3.560E-06,0.000
-3.550E-06,0.080
-3.540E-06,0.040
-3.530E-06,0.040
-3.520E-06,0.040
-3.510E-06,0.080
-3.500E-06,0.080
-3.490E-06,0.000
-3.480E-06,0.080
-3.470E-06,0.080
-3.460E-06,0.040
-3.450E-06,0.040
-3.440E-06,0.080
-3.430E-06,0.040
-3.420E-06,0.040
-3.410E-06,0.040
-3.400E-06,0.040
-3.390E-06,0.080
-3.380E-06,0.040
-3.370E-06,0.080
-3.360E-06,0.040
-3.350E-06,0.080
-3.340E-06,0.040
-3.330E-06,0.000
-3.320E-06,0.080
-3.310E-06,0.000
-3.300E-06,0.040
-3.290E-06,0.040
-3.280E-06,0.040
-3.270E-06,0.040
-3.260E-06,0.080
-3.250E-06,0.080
-3.240E-06,0.080
-3.230E-06,0.080
-3.220E-06,0.040
-3.210E-06,0.080
-3.200E-06,0.040
-3.190E-06,0.080
-3.180E-06,0.000
-3.170E-06,0.080
-3.160E-06,0.040
-3.150E-06,0.000
-3.140E-06,0.080
-3.130E-06,0.000
-3.120E-06,0.080
-3.110E-06,0.120
-3.100E-06,0.120
-3.090E-06,0.120
-3.080E-06,0.120
-3.070E-06,0.080
-3.060E-06,0.120
-3.050E-06,0.080
-3.040E-06,0.040
-3.030E-06,0.040
-3.020E-06,0.080
-3.010E-06,0.160
-3.000E-06,0.160
-2.990E-06,0.320
-2.980E-06,0.240
-2.970E-06,0.160
-2.960E-06,0.240
-2.950E-06,0.160
-2.940E-06,0.240
-2.930E-06,0.280
-2.920E-06,0.240
-2.910E-06,0.120
-2.900E-06,0.080
-2.890E-06,0.160
-2.880E-06,0.120
-2.870E-06,0.120
-2.860E-06,0.240
-2.850E-06,0.160
-2.840E-06,-0.040
-2.830E-06,-0.160
-2.820E-06,-0.120
-2.810E-06,0.000
-2.800E-06,0.120
-2.790E-06,0.240
-2.780E-06,0.200
-2.770E-06,0.120
-2.760E-06,0.040
-2.750E-06,-0.040
-2.740E-06,0.080
-2.730E-06,0.200
-2.720E-06,0.200
-2.710E-06,0.200
-2.700E-06,0.120
-2.690E-06,0.080
-2.680E-06,0.040
-2.670E-06,0.080
-2.660E-06,0.120
-2.650E-06,0.120
-2.640E-06,0.080
-2.630E-06,0.080
-2.620E-06,0.040
-2.610E-06,0.040
-2.600E-06,0.000
-2.590E-06,0.000
-2.580E-06,0.080
-2.570E-06,0.000
-2.560E-06,0.000
-2.550E-06,0.040
-2.540E-06,0.080
-2.530E-06,0.120
-2.520E-06,0.080
-2.510E-06,0.080
-2.500E-06,0.120
-2.490E-06,0.080
-2.480E-06,0.080
-2.470E-06,0.080
-2.460E-06,0.200
-2.450E-06,0.160
-2.440E-06,0.080
-2.430E-06,0.080
-2.420E-06,0.040
-2.410E-06,0.080
-2.400E-06,0.040
-2.390E-06,0.120
-2.380E-06,0.080
-2.370E-06,0.040
-2.360E-06,0.040
-2.350E-06,0.000
-2.340E-06,0.040
-2.330E-06,0.040
-2.320E-06,0.040
-2.310E-06,0.040
-2.300E-06,0.000
-2.290E-06,0.000
-2.280E-06,0.000
-2.270E-06,0.000
-2.260E-06,0.040
-2.250E-06,0.120
-2.240E-06,0.040
-2.230E-06,0.040
-2.220E-06,0.040
-2.210E-06,0.120
-2.200E-06,0.040
-2.190E-06,0.040
-2.180E-06,0.120
-2.170E-06,0.120
-2.160E-06,0.160
-2.150E-06,0.120
-2.140E-06,0.040
-2.130E-06,0.080
-2.120E-06,0.080
-2.110E-06,0.040
-2.100E-06,0.080
-2.090E-06,0.080
-2.080E-06,0.120
-2.070E-06,0.080
-2.060E-06,0.120
-2.050E-06,0.040
-2.040E-06,0.000
-2.030E-06,0.040
-2.020E-06,0.080
-2.010E-06,0.080
-2.000E-06,0.000
-1.990E-06,0.040
-1.980E-06,0.040
-1.970E-06,0.080
-1.960E-06,0.000
-1.950E-06,0.040
-1.940E-06,0.040
-1.930E-06,0.040
-1.920E-06,0.000
-1.910E-06,0.040
-1.900E-06,0.000
-1.890E-06,0.040
-1.880E-06,0.040
-1.870E-06,0.040
-1.860E-06,0.080
-1.850E-06,0.080
-1.840E-06,0.000
-1.830E-06,0.000
-1.820E-06,0.040
-1.810E-06,0.080
-1.800E-06,0.000
-1.790E-06,0.000
-1.780E-06,0.040
-1.770E-06,0.040
-1.760E-06,0.000
-1.750E-06,0.040
-1.740E-06,0.040
-1.730E-06,0.040
-1.720E-06,0.040
-1.710E-06,0.040
-1.700E-06,0.080
-1.690E-06,0.120
-1.680E-06,0.120
-1.670E-06,0.080
-1.660E-06,0.080
-1.650E-06,0.120
-1.640E-06,0.040
-1.630E-06,0.040
-1.620E-06,0.080
-1.610E-06,0.040
-1.600E-06,0.000
-1.590E-06,0.080
-1.580E-06,0.040
-1.570E-06,0.080
-1.560E-06,0.040
-1.550E-06,0.080
-1.540E-06,0.040
-1.530E-06,0.080
-1.520E-06,0.080
-1.510E-06,0.120
-1.500E-06,0.160
-1.490E-06,0.200
-1.480E-06,0.120
-1.470E-06,0.080
-1.460E-06,0.040
-1.450E-06,0.080
-1.440E-06,0.120
-1.430E-06,0.200
-1.420E-06,0.120
-1.410E-06,0.160
-1.400E-06,0.200
-1.390E-06,0.200
-1.380E-06,0.160
-1.370E-06,0.080
-1.360E-06,0.120
-1.350E-06,0.160
-1.340E-06,0.120
-1.330E-06,0.160
-1.320E-06,0.120
-1.310E-06,0.120
-1.300E-06,0.200
-1.290E-06,0.160
-1.280E-06,0.120
-1.270E-06,0.120
-1.260E-06,0.160
-1.250E-06,0.120
-1.240E-06,0.200
-1.230E-06,0.200
-1.220E-06,0.200
-1.210E-06,0.160
-1.200E-06,0.120
-1.190E-06,0.040
-1.180E-06,0.040
-1.170E-06,0.120
-1.160E-06,0.120
-1.150E-06,0.160
-1.140E-06,0.080
-1.130E-06,0.120
-1.120E-06,0.080
-1.110E-06,0.120
-1.100E-06,0.080
-1.090E-06,0.160
-1.080E-06,0.200
-1.070E-06,0.160
-1.060E-06,0.200
-1.050E-06,0.200
-1.040E-06,0.160
-1.030E-06,0.240
-1.020E-06,0.240
-1.010E-06,0.160
-1.000E-06,0.160
-9.900E-07,0.160
-9.800E-07,0.200
-9.700E-07,0.240
-9.600E-07,0.320
-9.500E-07,0.280
-9.400E-07,0.280
-9.300E-07,0.280
-9.200E-07,0.280
-9.100E-07,0.320
-9.000E-07,0.360
-8.900E-07,0.360
-8.800E-07,0.440
-8.700E-07,0.360
-8.600E-07,0.480
-8.500E-07,0.440
-8.400E-07,0.480
-8.300E-07,0.520
-8.200E-07,0.600
-8.100E-07,0.560
-8.000E-07,0.640
-7.900E-07,0.640
-7.800E-07,0.680
-7.700E-07,0.720
-7.600E-07,0.720
-7.500E-07,0.760
-7.400E-07,0.720
-7.300E-07,0.840
-7.200E-07,0.840
-7.100E-07,0.840
-7.000E-07,0.840
-6.900E-07,0.840
-6.800E-07,0.920
-6.700E-07,0.880
-6.600E-07,0.880
-6.500E-07,0.880
-6.400E-07,0.960
-6.300E-07,0.960
-6.200E-07,0.880
-6.100E-07,0.920
-6.000E-07,0.920
-5.900E-07,0.920
-5.800E-07,0.920
-5.700E-07,0.880
-5.600E-07,0.920
-5.500E-07,0.960
-5.400E-07,0.920
-5.300E-07,0.880
-5.200E-07,0.880
-5.100E-07,0.840
-5.000E-07,0.840
-4.900E-07,0.840
-4.800E-07,0.840
-4.700E-07,0.800
-4.600E-07,0.840
-4.500E-07,0.720
-4.400E-07,0.800
-4.300E-07,0.800
-4.200E-07,0.800
-4.100E-07,0.720
-4.000E-07,0.720
-3.900E-07,0.680
-3.800E-07,0.680
-3.700E-07,0.680
-3.600E-07,0.680
-3.500E-07,0.680
-3.400E-07,0.640
-3.300E-07,0.600
-3.200E-07,0.640
-3.100E-07,0.640
-3.000E-07,0.680
-2.900E-07,0.640
-2.800E-07,0.600
-2.700E-07,0.640
-2.600E-07,0.640
-2.500E-07,0.640
-2.400E-07,0.640
-2.300E-07,0.640
-2.200E-07,0.680
-2.100E-07,0.680
-2.000E-07,0.600
-1.900E-07,0.640
-1.800E-07,0.640
-1.700E-07,0.640
-1.600E-07,0.640
-1.500E-07,0.640
-1.400E-07,0.720
-1.300E-07,0.720
-1.200E-07,0.680
-1.100E-07,0.720
-1.000E-07,0.760
-9.000E-08,0.760
-8.000E-08,0.760
-7.000E-08,0.760
-6.000E-08,0.720
-5.000E-08,0.760
-4.000E-08,0.760
-3.000E-08,0.720
-2.000E-08,0.720
-1.000E-08,0.720
0.000E+00,0.720
1.000E-08,0.680
2.000E-08,0.720
3.000E-08,0.680
4.000E-08,0.680
5.000E-08,0.640
6.000E-08,0.680
7.000E-08,0.640
8.000E-08,0.600
9.000E-08,0.560
1.000E-07,0.560
1.100E-07,0.480
1.200E-07,0.400
1.300E-07,0.400
1.400E-07,0.320
1.500E-07,0.240
1.600E-07,0.200
1.700E-07,0.080
1.800E-07,0.000
1.900E-07,-0.080
2.000E-07,-0.160
2.100E-07,-0.200
2.200E-07,-0.320
2.300E-07,-0.480
2.400E-07,-0.560
2.500E-07,-0.680
2.600E-07,-0.840
2.700E-07,-0.880
2.800E-07,-1.040
2.900E-07,-1.040
3.000E-07,-1.160
3.100E-07,-1.320
3.200E-07,-1.400
3.300E-07,-1.440
3.400E-07,-1.600
3.500E-07,-1.600
3.600E-07,-1.800
3.700E-07,-1.800
3.800E-07,-1.880
3.900E-07,-2.040
4.000E-07,-2.080
4.100E-07,-2.120
4.200E-07,-2.200
4.300E-07,-2.240
4.400E-07,-2.320
4.500E-07,-2.400
4.600E-07,-2.480
4.700E-07,-2.480
4.800E-07,-2.560
4.900E-07,-2.640
5.000E-07,-2.680
5.100E-07,-2.680
5.200E-07,-2.720
5.300E-07,-2.800
5.400E-07,-2.880
5.500E-07,-2.800
5.600E-07,-2.840
5.700E-07,-2.920
5.800E-07,-2.880
5.900E-07,-2.960
6.000E-07,-3.040
6.100E-07,-3.000
6.200E-07,-3.080
6.300E-07,-3.080
6.400E-07,-3.080
6.500E-07,-3.080
6.600E-07,-3.160
6.700E-07,-3.160
6.800E-07,-3.160
6.900E-07,-3.160
7.000E-07,-3.160
7.100E-07,-3.200
7.200E-07,-3.240
7.300E-07,-3.200
7.400E-07,-3.200
7.500E-07,-3.200
7.600E-07,-3.240
7.700E-07,-3.200
7.800E-07,-3.200
7.900E-07,-3.240
8.000E-07,-3.280
8.100E-07,-3.280
8.200E-07,-3.320
8.300E-07,-3.320
8.400E-07,-3.360
8.500E-07,-3.360
8.600E-07,-3.360
8.700E-07,-3.400
8.800E-07,-3.360
8.900E-07,-3.400
9.000E-07,-3.440
9.100E-07,-3.440
9.200E-07,-3.400
9.300E-07,-3.400
9.400E-07,-3.440
9.500E-07,-3.440
9.600E-07,-3.400
9.700E-07,-3.400
9.800E-07,-3.360
9.900E-07,-3.360
1.000E-06,-3.400
1.010E-06,-3.360
1.020E-06,-3.360
1.030E-06,-3.360
1.040E-06,-3.360
1.050E-06,-3.280
1.060E-06,-3.280
1.070E-06,-3.280
1.080E-06,-3.320
1.090E-06,-3.360
1.100E-06,-3.280
1.110E-06,-3.320
1.120E-06,-3.240
1.130E-06,-3.280
1.140E-06,-3.320
1.150E-06,-3.280
1.160E-06,-3.360
1.170E-06,-3.360
1.180E-06,-3.360
1.190E-06,-3.360
1.200E-06,-3.280
1.210E-06,-3.320
1.220E-06,-3.360
1.230E-06,-3.400
1.240E-06,-3.440
1.250E-06,-3.400
1.260E-06,-3.480
1.270E-06,-3.440
1.280E-06,-3.520
1.290E-06,-3.560
1.300E-06,-3.560
1.310E-06,-3.600
1.320E-06,-3.640
1.330E-06,-3.600
1.340E-06,-3.680
1.350E-06,-3.720
1.360E-06,-3.840
1.370E-06,-3.880
1.380E-06,-3.880
1.390E-06,-4.040
1.400E-06,-4.120
1.410E-06,-4.240
1.420E-06,-4.360
1.430E-06,-4.480
1.440E-06,-4.600
1.450E-06,-4.880
1.460E-06,-5.080
1.470E-06,-5.240
1.480E-06,-5.240
1.490E-06,-5.240
1.500E-06,-5.200
1.510E-06,-5.240
1.520E-06,-5.200
1.530E-06,-5.200
1.540E-06,-5.200
1.550E-06,-5.240
1.560E-06,-5.240
1.570E-06,-5.240
1.580E-06,-5.240
1.590E-06,-5.200
1.600E-06,-5.240
1.610E-06,-5.200
1.620E-06,-5.200
1.630E-06,-5.240
1.640E-06,-5.240
1.650E-06,-5.200
1.660E-06,-5.200
1.670E-06,-5.200
1.680E-06,-5.240
1.690E-06,-5.200
1.700E-06,-5.240
1.710E-06,-5.240
1.720E-06,-5.200
1.730E-06,-5.200
1.740E-06,-5.200
1.750E-06,-5.240
1.760E-06,-5.240
1.770E-06,-5.240
1.780E-06,-5.240
1.790E-06,-5.240
1.800E-06,-5.240
1.810E-06,-5.240
1.820E-06,-5.200
1.830E-06,-5.200
1.840E-06,-5.240
1.850E-06,-5.240
1.860E-06,-5.240
1.870E-06,-5.200
1.880E-06,-5.240
1.890E-06,-5.240
1.900E-06,-5.240
1.910E-06,-5.200
1.920E-06,-5.240
1.930E-06,-5.240
1.940E-06,-5.240
1.950E-06,-5.200
1.960E-06,-5.200
1.970E-06,-5.240
1.980E-06,-5.240
1.990E-06,-5.200
2.000E-06,-5.200
2.010E-06,-5.200
2.020E-06,-5.200
2.030E-06,-5.200
2.040E-06,-5.200
2.050E-06,-5.200
2.060E-06,-5.160
2.070E-06,-5.040
2.080E-06,-4.920
2.090E-06,-4.800
2.100E-06,-4.600
2.110E-06,-4.440
2.120E-06,-4.320
2.130E-06,-4.120
2.140E-06,-3.960
2.150E-06,-3.800
2.160E-06,-3.680
2.170E-06,-3.480
2.180E-06,-3.360
2.190E-06,-3.240
2.200E-06,-3.120
2.210E-06,-3.000
2.220E-06,-2.920
2.230E-06,-2.760
2.240E-06,-2.640
2.250E-06,-2.600
2.260E-06,-2.440
2.270E-06,-2.320
2.280E-06,-2.240
2.290E-06,-2.160
2.300E-06,-2.080
2.310E-06,-1.960
2.320E-06,-1.880
2.330E-06,-1.840
2.340E-06,-1.840
2.350E-06,-1.720
2.360E-06,-1.680
2.370E-06,-1.600
2.380E-06,-1.520
2.390E-06,-1.480
2.400E-06,-1.520
2.410E-06,-1.520
2.420E-06,-1.560
2.430E-06,-1.600
2.440E-06,-1.680
2.450E-06,-1.800
2.460E-06,-1.920
2.470E-06,-2.000
2.480E-06,-2.120
2.490E-06,-2.240
2.500E-06,-2.360
2.510E-06,-2.520
2.520E-06,-2.600
2.530E-06,-2.640
2.540E-06,-2.760
2.550E-06,-2.800
2.560E-06,-2.960
2.570E-06,-2.960
2.580E-06,-3.000
2.590E-06,-3.040
2.600E-06,-3.040
2.610E-06,-3.000
2.620E-06,-2.920
2.630E-06,-2.920
2.640E-06,-2.880
2.650E-06,-2.800
2.660E-06,-2.640
2.670E-06,-2.600
2.680E-06,-2.520
2.690E-06,-2.480
2.700E-06,-2.320
2.710E-06,-2.280
2.720E-06,-2.160
2.730E-06,-2.120
2.740E-06,-2.000
2.750E-06,-1.840
2.760E-06,-1.800
2.770E-06,-1.720
2.780E-06,-1.640
2.790E-06,-1.520
2.800E-06,-1.440
2.810E-06,-1.440
2.820E-06,-1.400
2.830E-06,-1.360
2.840E-06,-1.360
2.850E-06,-1.320
2.860E-06,-1.360
2.870E-06,-1.320
2.880E-06,-1.360
2.890E-06,-1.320
2.900E-06,-1.400
2.910E-06,-1.400
2.920E-06,-1.400
2.930E-06,-1.400
2.940E-06,-1.360
2.950E-06,-1.360
2.960E-06,-1.320
2.970E-06,-1.360
2.980E-06,-1.360
2.990E-06,-1.280
3.000E-06,-1.280
3.010E-06,-1.320
3.020E-06,-1.280
3.030E-06,-1.320
3.040E-06,-1.240
3.050E-06,-1.240
3.060E-06,-1.240
3.070E-06,-1.240
3.080E-06,-1.200
3.090E-06,-1.160
3.100E-06,-1.120
3.110E-06,-1.040
3.120E-06,-1.000
3.130E-06,-0.920
3.140E-06,-0.880
3.150E-06,-0.840
3.160E-06,-0.800
3.170E-06,-0.800
3.180E-06,-0.760
3.190E-06,-0.760
3.200E-06,-0.760
3.210E-06,-0.760
3.220E-06,-0.760
3.230E-06,-0.760
3.240E-06,-0.840
3.250E-06,-0.840
3.260E-06,-0.840
3.270E-06,-0.840
3.280E-06,-0.800
3.290E-06,-0.840
3.300E-06,-0.800
3.310E-06,-0.840
3.320E-06,-0.840
3.330E-06,-0.800
3.340E-06,-0.760
3.350E-06,-0.720
3.360E-06,-0.720
3.370E-06,-0.640
3.380E-06,-0.560
3.390E-06,-0.520
3.400E-06,-0.520
3.410E-06,-0.520
3.420E-06,-0.480
3.430E-06,-0.520
3.440E-06,-0.520
3.450E-06,-0.600
3.460E-06,-0.640
3.470E-06,-0.720
3.480E-06,-0.840
3.490E-06,-0.960
3.500E-06,-1.080
3.510E-06,-1.120
3.520E-06,-1.160
3.530E-06,-1.120
3.540E-06,-1.200
3.550E-06,-1.160
3.560E-06,-1.200
3.570E-06,-1.080
3.580E-06,-1.120
3.590E-06,-1.000
3.600E-06,-1.000
3.610E-06,-1.000
3.620E-06,-0.960
3.630E-06,-0.920
3.640E-06,-0.920
3.650E-06,-0.840
3.660E-06,-0.920
3.670E-06,-0.840
3.680E-06,-0.840
3.690E-06,-0.800
3.700E-06,-0.800
3.710E-06,-0.800
3.720E-06,-0.760
3.730E-06,-0.800
3.740E-06,-0.800
3.750E-06,-0.720
3.760E-06,-0.760
3.770E-06,-0.720
3.780E-06,-0.720
3.790E-06,-0.720
3.800E-06,-0.760
3.810E-06,-0.760
3.820E-06,-0.760
3.830E-06,-0.760
3.840E-06,-0.840
3.850E-06,-0.840
3.860E-06,-0.880
3.870E-06,-0.840
3.880E-06,-0.800
3.890E-06,-0.800
3.900E-06,-0.680
3.910E-06,-0.640
3.920E-06,-0.680
3.930E-06,-0.560
3.940E-06,-0.520
3.950E-06,-0.560
3.960E-06,-0.560
3.970E-06,-0.520
3.980E-06,-0.600
3.990E-06,-0.600
4.000E-06,-0.640
4.010E-06,-0.640
4.020E-06,-0.640
4.030E-06,-0.680
4.040E-06,-0.720
4.050E-06,-0.760
4.060E-06,-0.720
4.070E-06,-0.680
4.080E-06,-0.640
4.090E-06,-0.560
4.100E-06,-0.520
4.110E-06,-0.480
4.120E-06,-0.440
4.130E-06,-0.360
4.140E-06,-0.240
4.150E-06,-0.120
4.160E-06,-0.120
4.170E-06,-0.080
4.180E-06,0.040
4.190E-06,0.000
4.200E-06,0.040
4.210E-06,0.080
4.220E-06,0.120
4.230E-06,0.040
4.240E-06,0.040
4.250E-06,0.040
4.260E-06,0.000
4.270E-06,0.000
4.280E-06,-0.040
4.290E-06,-0.080
4.300E-06,-0.120
4.310E-06,-0.160
4.320E-06,-0.200
4.330E-06,-0.160
4.340E-06,-0.200
4.350E-06,-0.120
4.360E-06,-0.120
4.370E-06,-0.160
4.380E-06,-0.160
4.390E-06,-0.160
4.400E-06,-0.200
4.410E-06,-0.200
4.420E-06,-0.320
4.430E-06,-0.400
4.440E-06,-0.440
4.450E-06,-0.440
4.460E-06,-0.440
4.470E-06,-0.480
4.480E-06,-0.480
4.490E-06,-0.440
4.500E-06,-0.480
4.510E-06,-0.440
4.520E-06,-0.360
4.530E-06,-0.360
4.540E-06,-0.320
4.550E-06,-0.280
4.560E-06,-0.200
4.570E-06,-0.080
4.580E-06,-0.120
4.590E-06,-0.120
4.600E-06,0.040
4.610E-06,-0.040
4.620E-06,0.000
4.630E-06,0.040
4.640E-06,0.080
4.650E-06,0.080
4.660E-06,0.040
4.670E-06,0.000
4.680E-06,0.000
4.690E-06,0.000
4.700E-06,-0.040
4.710E-06,-0.120
4.720E-06,-0.120
4.730E-06,-0.200
4.740E-06,-0.280
4.750E-06,-0.320
4.760E-06,-0.360
4.770E-06,-0.440
4.780E-06,-0.360
4.790E-06,-0.440
4.800E-06,-0.400
4.810E-06,-0.360
4.820E-06,-0.360
4.830E-06,-0.360
4.840E-06,-0.360
4.850E-06,-0.240
4.860E-06,-0.240
4.870E-06,-0.240
4.880E-06,-0.160
4.890E-06,-0.120
4.900E-06,-0.080
4.910E-06,-0.080
4.920E-06,-0.080
4.930E-06,-0.120
4.940E-06,-0.080
4.950E-06,-0.200
4.960E-06,-0.200
4.970E-06,-0.280
4.980E-06,-0.360
4.990E-06,-0.320
5.000E-06,-0.320
5.010E-06,-0.320
5.020E-06,-0.200
5.030E-06,-0.200
5.040E-06,-0.120
5.050E-06,-0.040
5.060E-06,0.000
5.070E-06,0.000
5.080E-06,0.040
5.090E-06,0.040
5.100E-06,0.040
5.110E-06,0.040
5.120E-06,0.000
5.130E-06,0.040
5.140E-06,0.080
5.150E-06,0.000
5.160E-06,0.040
5.170E-06,0.080
5.180E-06,0.120
5.190E-06,0.080
5.200E-06,0.080
5.210E-06,0.120
5.220E-06,0.160
5.230E-06,0.240
5.240E-06,0.280
5.250E-06,0.320
5.260E-06,0.400
5.270E-06,0.440
5.280E-06,0.480
5.290E-06,0.520
5.300E-06,0.560
5.310E-06,0.560
5.320E-06,0.560
5.330E-06,0.600
5.340E-06,0.600
5.350E-06,0.600
5.360E-06,0.600
5.370E-06,0.520
5.380E-06,0.560
5.390E-06,0.560
5.400E-06,0.520
5.410E-06,0.520
5.420E-06,0.560
5.430E-06,0.560
5.440E-06,0.560
5.450E-06,0.560
5.460E-06,0.520
5.470E-06,0.520
5.480E-06,0.520
5.490E-06,0.520
5.500E-06,0.480
5.510E-06,0.480
5.520E-06,0.520
5.530E-06,0.480
5.540E-06,0.440
5.550E-06,0.480
5.560E-06,0.480
5.570E-06,0.440
5.580E-06,0.440
5.590E-06,0.400
5.600E-06,0.440
5.610E-06,0.440
5.620E-06,0.400
5.630E-06,0.480
5.640E-06,0.440
5.650E-06,0.480
5.660E-06,0.480
5.670E-06,0.520
5.680E-06,0.520
5.690E-06,0.520
5.700E-06,0.560
5.710E-06,0.560
5.720E-06,0.520
5.730E-06,0.600
5.740E-06,0.560
5.750E-06,0.560
5.760E-06,0.520
5.770E-06,0.560
5.780E-06,0.560
5.790E-06,0.480
5.800E-06,0.480
5.810E-06,0.440
5.820E-06,0.440
5.830E-06,0.440
5.840E-06,0.440
5.850E-06,0.360
5.860E-06,0.360
5.870E-06,0.400
5.880E-06,0.360
5.890E-06,0.360
5.900E-06,0.360
5.910E-06,0.360
5.920E-06,0.400
5.930E-06,0.400
5.940E-06,0.360
5.950E-06,0.360
5.960E-06,0.400
5.970E-06,0.320
5.980E-06,0.320
5.990E-06,0.320
6.000E-06,0.320
6.010E-06,0.360
6.020E-06,0.280
6.030E-06,0.360
6.040E-06,0.360
6.050E-06,0.320
6.060E-06,0.320
6.070E-06,0.360
6.080E-06,0.320
6.090E-06,0.360
6.100E-06,0.360
6.110E-06,0.320
6.120E-06,0.360
6.130E-06,0.400
6.140E-06,0.360
6.150E-06,0.400
