mediciones/5-27/-60/WaveData50343.csv

#timebase=2000000(ps)
,#voltbase=100000(mv/100)
#size=4000
-5.650E-06,0.004
-5.640E-06,0.004
-5.630E-06,0.000
-5.620E-06,0.004
-5.610E-06,0.004
-5.600E-06,0.000
-5.590E-06,-0.004
-5.580E-06,0.004
-5.570E-06,0.000
-5.560E-06,0.004
-5.550E-06,0.000
-5.540E-06,0.000
-5.530E-06,0.004
-5.520E-06,0.008
-5.510E-06,0.004
-5.500E-06,0.008
-5.490E-06,0.004
-5.480E-06,0.008
-5.470E-06,0.000
-5.460E-06,0.004
-5.450E-06,0.004
-5.440E-06,0.000
-5.430E-06,0.000
-5.420E-06,0.004
-5.410E-06,0.000
-5.400E-06,0.004
-5.390E-06,0.000
-5.380E-06,0.004
-5.370E-06,0.004
-5.360E-06,0.004
-5.350E-06,0.004
-5.340E-06,-0.004
-5.330E-06,-0.004
-5.320E-06,0.004
-5.310E-06,0.000
-5.300E-06,0.004
-5.290E-06,0.004
-5.280E-06,0.004
-5.270E-06,0.000
-5.260E-06,0.004
-5.250E-06,0.000
-5.240E-06,0.004
-5.230E-06,0.000
-5.220E-06,-0.004
-5.210E-06,0.004
-5.200E-06,-0.004
-5.190E-06,0.004
-5.180E-06,0.000
-5.170E-06,0.004
-5.160E-06,0.012
-5.150E-06,0.000
-5.140E-06,0.000
-5.130E-06,0.004
-5.120E-06,0.000
-5.110E-06,-0.004
-5.100E-06,0.004
-5.090E-06,-0.004
-5.080E-06,0.000
-5.070E-06,0.004
-5.060E-06,0.004
-5.050E-06,0.000
-5.040E-06,0.000
-5.030E-06,0.000
-5.020E-06,0.004
-5.010E-06,0.000
-5.000E-06,0.004
-4.990E-06,0.004
-4.980E-06,0.004
-4.970E-06,0.000
-4.960E-06,0.004
-4.950E-06,0.004
-4.940E-06,0.000
-4.930E-06,0.004
-4.920E-06,0.000
-4.910E-06,0.004
-4.900E-06,0.000
-4.890E-06,0.008
-4.880E-06,0.008
-4.870E-06,0.008
-4.860E-06,0.004
-4.850E-06,0.004
-4.840E-06,0.000
-4.830E-06,0.000
-4.820E-06,0.008
-4.810E-06,0.004
-4.800E-06,0.004
-4.790E-06,0.000
-4.780E-06,0.000
-4.770E-06,0.000
-4.760E-06,0.004
-4.750E-06,0.004
-4.740E-06,0.004
-4.730E-06,-0.004
-4.720E-06,0.004
-4.710E-06,0.004
-4.700E-06,0.008
-4.690E-06,0.000
-4.680E-06,0.000
-4.670E-06,0.000
-4.660E-06,0.004
-4.650E-06,0.004
-4.640E-06,-0.004
-4.630E-06,0.004
-4.620E-06,0.008
-4.610E-06,0.004
-4.600E-06,0.000
-4.590E-06,0.000
-4.580E-06,0.000
-4.570E-06,0.004
-4.560E-06,0.004
-4.550E-06,0.004
-4.540E-06,0.000
-4.530E-06,0.004
-4.520E-06,0.004
-4.510E-06,0.004
-4.500E-06,0.008
-4.490E-06,0.000
-4.480E-06,0.000
-4.470E-06,0.004
-4.460E-06,-0.004
-4.450E-06,0.000
-4.440E-06,0.004
-4.430E-06,0.008
-4.420E-06,0.000
-4.410E-06,0.004
-4.400E-06,0.004
-4.390E-06,0.004
-4.380E-06,0.004
-4.370E-06,0.000
-4.360E-06,0.004
-4.350E-06,0.000
-4.340E-06,0.004
-4.330E-06,0.000
-4.320E-06,0.008
-4.310E-06,0.000
-4.300E-06,0.004
-4.290E-06,0.004
-4.280E-06,0.004
-4.270E-06,0.004
-4.260E-06,0.008
-4.250E-06,0.000
-4.240E-06,0.000
-4.230E-06,0.000
-4.220E-06,0.000
-4.210E-06,0.008
-4.200E-06,0.004
-4.190E-06,0.000
-4.180E-06,0.000
-4.170E-06,0.004
-4.160E-06,-0.004
-4.150E-06,0.004
-4.140E-06,0.000
-4.130E-06,0.004
-4.120E-06,-0.004
-4.110E-06,0.004
-4.100E-06,0.004
-4.090E-06,0.000
-4.080E-06,0.004
-4.070E-06,0.000
-4.060E-06,0.004
-4.050E-06,0.004
-4.040E-06,0.000
-4.030E-06,0.000
-4.020E-06,0.004
-4.010E-06,0.000
-4.000E-06,0.004
-3.990E-06,0.004
-3.980E-06,0.000
-3.970E-06,0.004
-3.960E-06,0.004
-3.950E-06,0.004
-3.940E-06,0.000
-3.930E-06,0.004
-3.920E-06,0.004
-3.910E-06,0.004
-3.900E-06,0.000
-3.890E-06,0.000
-3.880E-06,0.004
-3.870E-06,0.000
-3.860E-06,0.004
-3.850E-06,-0.004
-3.840E-06,0.004
-3.830E-06,0.008
-3.820E-06,-0.004
-3.810E-06,0.000
-3.800E-06,0.004
-3.790E-06,0.008
-3.780E-06,0.004
-3.770E-06,0.008
-3.760E-06,0.004
-3.750E-06,-0.004
-3.740E-06,0.004
-3.730E-06,0.004
-3.720E-06,0.004
-3.710E-06,0.000
-3.700E-06,0.004
-3.690E-06,0.004
-3.680E-06,0.008
-3.670E-06,-0.004
-3.660E-06,0.000
-3.650E-06,0.004
-3.640E-06,0.000
-3.630E-06,0.004
-3.620E-06,0.008
-3.610E-06,0.004
-3.600E-06,0.004
-3.590E-06,0.000
-3.580E-06,0.004
-3.570E-06,0.004
-3.560E-06,0.004
-3.550E-06,0.004
-3.540E-06,0.004
-3.530E-06,0.000
-3.520E-06,0.004
-3.510E-06,0.000
-3.500E-06,0.004
-3.490E-06,0.004
-3.480E-06,0.004
-3.470E-06,0.008
-3.460E-06,0.004
-3.450E-06,0.000
-3.440E-06,0.060
-3.430E-06,-0.032
-3.420E-06,-0.016
-3.410E-06,-0.012
-3.400E-06,-0.008
-3.390E-06,0.024
-3.380E-06,0.032
-3.370E-06,0.008
-3.360E-06,-0.008
-3.350E-06,0.008
-3.340E-06,-0.028
-3.330E-06,0.000
-3.320E-06,0.016
-3.310E-06,0.012
-3.300E-06,0.004
-3.290E-06,0.008
-3.280E-06,-0.004
-3.270E-06,-0.008
-3.260E-06,0.012
-3.250E-06,0.008
-3.240E-06,0.008
-3.230E-06,0.008
-3.220E-06,0.008
-3.210E-06,-0.004
-3.200E-06,-0.008
-3.190E-06,0.012
-3.180E-06,0.000
-3.170E-06,0.012
-3.160E-06,0.008
-3.150E-06,-0.004
-3.140E-06,0.000
-3.130E-06,0.004
-3.120E-06,0.000
-3.110E-06,0.008
-3.100E-06,0.004
-3.090E-06,-0.004
-3.080E-06,0.000
-3.070E-06,0.000
-3.060E-06,0.000
-3.050E-06,0.004
-3.040E-06,0.008
-3.030E-06,0.004
-3.020E-06,0.008
-3.010E-06,-0.004
-3.000E-06,-0.004
-2.990E-06,0.004
-2.980E-06,0.008
-2.970E-06,-0.008
-2.960E-06,0.012
-2.950E-06,-0.004
-2.940E-06,0.012
-2.930E-06,0.004
-2.920E-06,-0.004
-2.910E-06,-0.004
-2.900E-06,0.004
-2.890E-06,0.008
-2.880E-06,0.004
-2.870E-06,0.008
-2.860E-06,0.000
-2.850E-06,0.004
-2.840E-06,0.004
-2.830E-06,0.000
-2.820E-06,0.004
-2.810E-06,-0.004
-2.800E-06,-0.004
-2.790E-06,0.004
-2.780E-06,0.012
-2.770E-06,-0.004
-2.760E-06,0.008
-2.750E-06,0.000
-2.740E-06,0.004
-2.730E-06,0.000
-2.720E-06,0.000
-2.710E-06,0.004
-2.700E-06,0.004
-2.690E-06,0.004
-2.680E-06,0.004
-2.670E-06,-0.004
-2.660E-06,0.000
-2.650E-06,0.004
-2.640E-06,0.008
-2.630E-06,0.004
-2.620E-06,0.004
-2.610E-06,0.012
-2.600E-06,-0.004
-2.590E-06,-0.008
-2.580E-06,0.008
-2.570E-06,0.004
-2.560E-06,0.004
-2.550E-06,0.012
-2.540E-06,0.008
-2.530E-06,-0.004
-2.520E-06,-0.004
-2.510E-06,0.008
-2.500E-06,-0.004
-2.490E-06,0.008
-2.480E-06,0.008
-2.470E-06,0.000
-2.460E-06,0.000
-2.450E-06,0.004
-2.440E-06,0.008
-2.430E-06,0.000
-2.420E-06,0.004
-2.410E-06,0.008
-2.400E-06,0.000
-2.390E-06,-0.004
-2.380E-06,0.004
-2.370E-06,0.000
-2.360E-06,0.000
-2.350E-06,-0.004
-2.340E-06,-0.008
-2.330E-06,-0.008
-2.320E-06,-0.004
-2.310E-06,-0.004
-2.300E-06,0.012
-2.290E-06,0.016
-2.280E-06,0.004
-2.270E-06,0.000
-2.260E-06,-0.008
-2.250E-06,-0.012
-2.240E-06,0.004
-2.230E-06,0.016
-2.220E-06,0.032
-2.210E-06,0.036
-2.200E-06,0.028
-2.190E-06,0.004
-2.180E-06,-0.008
-2.170E-06,-0.024
-2.160E-06,-0.008
-2.150E-06,0.008
-2.140E-06,0.024
-2.130E-06,0.032
-2.120E-06,0.012
-2.110E-06,-0.004
-2.100E-06,-0.012
-2.090E-06,-0.008
-2.080E-06,0.012
-2.070E-06,0.024
-2.060E-06,0.024
-2.050E-06,0.004
-2.040E-06,0.000
-2.030E-06,-0.008
-2.020E-06,-0.016
-2.010E-06,-0.004
-2.000E-06,0.000
-1.990E-06,0.000
-1.980E-06,0.008
-1.970E-06,0.012
-1.960E-06,0.012
-1.950E-06,0.008
-1.940E-06,0.004
-1.930E-06,0.004
-1.920E-06,0.000
-1.910E-06,0.004
-1.900E-06,0.016
-1.890E-06,0.008
-1.880E-06,0.012
-1.870E-06,0.008
-1.860E-06,0.008
-1.850E-06,0.008
-1.840E-06,-0.004
-1.830E-06,0.008
-1.820E-06,0.008
-1.810E-06,0.008
-1.800E-06,0.004
-1.790E-06,0.008
-1.780E-06,0.004
-1.770E-06,0.008
-1.760E-06,0.004
-1.750E-06,0.008
-1.740E-06,0.004
-1.730E-06,0.008
-1.720E-06,0.012
-1.710E-06,0.008
-1.700E-06,0.008
-1.690E-06,0.016
-1.680E-06,0.016
-1.670E-06,0.012
-1.660E-06,0.016
-1.650E-06,0.008
-1.640E-06,0.008
-1.630E-06,0.008
-1.620E-06,0.008
-1.610E-06,0.012
-1.600E-06,0.012
-1.590E-06,0.020
-1.580E-06,0.016
-1.570E-06,0.016
-1.560E-06,0.008
-1.550E-06,0.004
-1.540E-06,0.012
-1.530E-06,0.008
-1.520E-06,0.016
-1.510E-06,0.008
-1.500E-06,0.008
-1.490E-06,0.008
-1.480E-06,0.012
-1.470E-06,0.008
-1.460E-06,0.020
-1.450E-06,0.016
-1.440E-06,0.012
-1.430E-06,0.012
-1.420E-06,0.012
-1.410E-06,0.012
-1.400E-06,0.016
-1.390E-06,0.008
-1.380E-06,0.016
-1.370E-06,0.016
-1.360E-06,0.016
-1.350E-06,0.024
-1.340E-06,0.024
-1.330E-06,0.016
-1.320E-06,0.012
-1.310E-06,0.008
-1.300E-06,0.012
-1.290E-06,0.016
-1.280E-06,0.020
-1.270E-06,0.024
-1.260E-06,0.024
-1.250E-06,0.024
-1.240E-06,0.020
-1.230E-06,0.020
-1.220E-06,0.020
-1.210E-06,0.024
-1.200E-06,0.028
-1.190E-06,0.028
-1.180E-06,0.028
-1.170E-06,0.020
-1.160E-06,0.020
-1.150E-06,0.020
-1.140E-06,0.012
-1.130E-06,0.020
-1.120E-06,0.020
-1.110E-06,0.028
-1.100E-06,0.020
-1.090E-06,0.020
-1.080E-06,0.024
-1.070E-06,0.028
-1.060E-06,0.032
-1.050E-06,0.028
-1.040E-06,0.028
-1.030E-06,0.032
-1.020E-06,0.028
-1.010E-06,0.024
-1.000E-06,0.032
-9.900E-07,0.036
-9.800E-07,0.028
-9.700E-07,0.028
-9.600E-07,0.028
-9.500E-07,0.020
-9.400E-07,0.016
-9.300E-07,0.020
-9.200E-07,0.020
-9.100E-07,0.028
-9.000E-07,0.032
-8.900E-07,0.024
-8.800E-07,0.024
-8.700E-07,0.028
-8.600E-07,0.024
-8.500E-07,0.028
-8.400E-07,0.032
-8.300E-07,0.032
-8.200E-07,0.020
-8.100E-07,0.020
-8.000E-07,0.024
-7.900E-07,0.020
-7.800E-07,0.020
-7.700E-07,0.024
-7.600E-07,0.024
-7.500E-07,0.020
-7.400E-07,0.028
-7.300E-07,0.028
-7.200E-07,0.032
-7.100E-07,0.044
-7.000E-07,0.040
-6.900E-07,0.044
-6.800E-07,0.040
-6.700E-07,0.044
-6.600E-07,0.048
-6.500E-07,0.048
-6.400E-07,0.044
-6.300E-07,0.052
-6.200E-07,0.048
-6.100E-07,0.056
-6.000E-07,0.056
-5.900E-07,0.060
-5.800E-07,0.060
-5.700E-07,0.060
-5.600E-07,0.056
-5.500E-07,0.064
-5.400E-07,0.076
-5.300E-07,0.072
-5.200E-07,0.080
-5.100E-07,0.076
-5.000E-07,0.072
-4.900E-07,0.060
-4.800E-07,0.060
-4.700E-07,0.068
-4.600E-07,0.072
-4.500E-07,0.080
-4.400E-07,0.088
-4.300E-07,0.092
-4.200E-07,0.088
-4.100E-07,0.088
-4.000E-07,0.088
-3.900E-07,0.096
-3.800E-07,0.100
-3.700E-07,0.108
-3.600E-07,0.112
-3.500E-07,0.108
-3.400E-07,0.104
-3.300E-07,0.112
-3.200E-07,0.116
-3.100E-07,0.116
-3.000E-07,0.116
-2.900E-07,0.120
-2.800E-07,0.124
-2.700E-07,0.124
-2.600E-07,0.124
-2.500E-07,0.128
-2.400E-07,0.128
-2.300E-07,0.124
-2.200E-07,0.132
-2.100E-07,0.132
-2.000E-07,0.132
-1.900E-07,0.132
-1.800E-07,0.132
-1.700E-07,0.132
-1.600E-07,0.132
-1.500E-07,0.128
-1.400E-07,0.128
-1.300E-07,0.132
-1.200E-07,0.132
-1.100E-07,0.132
-1.000E-07,0.128
-9.000E-08,0.136
-8.000E-08,0.136
-7.000E-08,0.140
-6.000E-08,0.140
-5.000E-08,0.140
-4.000E-08,0.140
-3.000E-08,0.136
-2.000E-08,0.144
-1.000E-08,0.144
0.000E+00,0.136
1.000E-08,0.136
2.000E-08,0.140
3.000E-08,0.144
4.000E-08,0.144
5.000E-08,0.144
6.000E-08,0.136
7.000E-08,0.144
8.000E-08,0.140
9.000E-08,0.140
1.000E-07,0.136
1.100E-07,0.140
1.200E-07,0.140
1.300E-07,0.140
1.400E-07,0.140
1.500E-07,0.140
1.600E-07,0.136
1.700E-07,0.140
1.800E-07,0.144
1.900E-07,0.144
2.000E-07,0.148
2.100E-07,0.148
2.200E-07,0.148
2.300E-07,0.148
2.400E-07,0.148
2.500E-07,0.148
2.600E-07,0.136
2.700E-07,0.136
2.800E-07,0.140
2.900E-07,0.140
3.000E-07,0.144
3.100E-07,0.140
3.200E-07,0.144
3.300E-07,0.144
3.400E-07,0.144
3.500E-07,0.144
3.600E-07,0.144
3.700E-07,0.144
3.800E-07,0.144
3.900E-07,0.148
4.000E-07,0.148
4.100E-07,0.148
4.200E-07,0.148
4.300E-07,0.148
4.400E-07,0.148
4.500E-07,0.148
4.600E-07,0.144
4.700E-07,0.144
4.800E-07,0.144
4.900E-07,0.140
5.000E-07,0.140
5.100E-07,0.144
5.200E-07,0.148
5.300E-07,0.144
5.400E-07,0.144
5.500E-07,0.144
5.600E-07,0.148
5.700E-07,0.148
5.800E-07,0.140
5.900E-07,0.140
6.000E-07,0.144
6.100E-07,0.140
6.200E-07,0.144
6.300E-07,0.140
6.400E-07,0.144
6.500E-07,0.148
6.600E-07,0.148
6.700E-07,0.148
6.800E-07,0.144
6.900E-07,0.144
7.000E-07,0.144
7.100E-07,0.144
7.200E-07,0.144
7.300E-07,0.148
7.400E-07,0.152
7.500E-07,0.152
7.600E-07,0.144
7.700E-07,0.140
7.800E-07,0.148
7.900E-07,0.148
8.000E-07,0.148
8.100E-07,0.148
8.200E-07,0.148
8.300E-07,0.148
8.400E-07,0.144
8.500E-07,0.148
8.600E-07,0.148
8.700E-07,0.148
8.800E-07,0.148
8.900E-07,0.148
9.000E-07,0.148
9.100E-07,0.144
9.200E-07,0.148
9.300E-07,0.148
9.400E-07,0.148
9.500E-07,0.148
9.600E-07,0.140
9.700E-07,0.148
9.800E-07,0.148
9.900E-07,0.148
1.000E-06,0.140
1.010E-06,0.148
1.020E-06,0.140
1.030E-06,0.144
1.040E-06,0.148
1.050E-06,0.148
1.060E-06,0.144
1.070E-06,0.148
1.080E-06,0.140
1.090E-06,0.144
1.100E-06,0.144
1.110E-06,0.144
1.120E-06,0.148
1.130E-06,0.140
1.140E-06,0.144
1.150E-06,0.144
1.160E-06,0.144
1.170E-06,0.148
1.180E-06,0.148
1.190E-06,0.140
1.200E-06,0.144
1.210E-06,0.144
1.220E-06,0.144
1.230E-06,0.140
1.240E-06,0.144
1.250E-06,0.144
1.260E-06,0.140
1.270E-06,0.144
1.280E-06,0.136
1.290E-06,0.140
1.300E-06,0.136
1.310E-06,0.136
1.320E-06,0.140
1.330E-06,0.144
1.340E-06,0.144
1.350E-06,0.144
1.360E-06,0.140
1.370E-06,0.144
1.380E-06,0.136
1.390E-06,0.136
1.400E-06,0.140
1.410E-06,0.136
1.420E-06,0.136
1.430E-06,0.132
1.440E-06,0.136
1.450E-06,0.136
1.460E-06,0.136
1.470E-06,0.136
1.480E-06,0.136
1.490E-06,0.132
1.500E-06,0.132
1.510E-06,0.132
1.520E-06,0.132
1.530E-06,0.132
1.540E-06,0.132
1.550E-06,0.132
1.560E-06,0.132
1.570E-06,0.132
1.580E-06,0.132
1.590E-06,0.132
1.600E-06,0.132
1.610E-06,0.132
1.620E-06,0.132
1.630E-06,0.128
1.640E-06,0.128
1.650E-06,0.132
1.660E-06,0.128
1.670E-06,0.128
1.680E-06,0.128
1.690E-06,0.128
1.700E-06,0.128
1.710E-06,0.128
1.720E-06,0.128
1.730E-06,0.128
1.740E-06,0.128
1.750E-06,0.128
1.760E-06,0.124
1.770E-06,0.128
1.780E-06,0.124
1.790E-06,0.128
1.800E-06,0.128
1.810E-06,0.132
1.820E-06,0.124
1.830E-06,0.124
1.840E-06,0.124
1.850E-06,0.120
1.860E-06,0.124
1.870E-06,0.124
1.880E-06,0.128
1.890E-06,0.124
1.900E-06,0.124
1.910E-06,0.124
1.920E-06,0.124
1.930E-06,0.120
1.940E-06,0.120
1.950E-06,0.120
1.960E-06,0.124
1.970E-06,0.124
1.980E-06,0.124
1.990E-06,0.124
2.000E-06,0.124
2.010E-06,0.120
2.020E-06,0.120
2.030E-06,0.120
2.040E-06,0.116
2.050E-06,0.116
2.060E-06,0.120
2.070E-06,0.116
2.080E-06,0.108
2.090E-06,0.112
2.100E-06,0.112
2.110E-06,0.112
2.120E-06,0.108
2.130E-06,0.108
2.140E-06,0.112
2.150E-06,0.112
2.160E-06,0.112
2.170E-06,0.112
2.180E-06,0.112
2.190E-06,0.112
2.200E-06,0.108
2.210E-06,0.112
2.220E-06,0.112
2.230E-06,0.112
2.240E-06,0.112
2.250E-06,0.112
2.260E-06,0.112
2.270E-06,0.112
2.280E-06,0.108
2.290E-06,0.112
2.300E-06,0.112
2.310E-06,0.112
2.320E-06,0.112
2.330E-06,0.112
2.340E-06,0.112
2.350E-06,0.112
2.360E-06,0.112
2.370E-06,0.108
2.380E-06,0.112
2.390E-06,0.112
2.400E-06,0.108
2.410E-06,0.108
2.420E-06,0.108
2.430E-06,0.112
2.440E-06,0.108
2.450E-06,0.104
2.460E-06,0.112
2.470E-06,0.108
2.480E-06,0.108
2.490E-06,0.108
2.500E-06,0.108
2.510E-06,0.108
2.520E-06,0.108
2.530E-06,0.108
2.540E-06,0.108
2.550E-06,0.100
2.560E-06,0.100
2.570E-06,0.100
2.580E-06,0.100
2.590E-06,0.100
2.600E-06,0.104
2.610E-06,0.104
2.620E-06,0.100
2.630E-06,0.100
2.640E-06,0.100
2.650E-06,0.096
2.660E-06,0.096
2.670E-06,0.096
2.680E-06,0.096
2.690E-06,0.092
2.700E-06,0.092
2.710E-06,0.100
2.720E-06,0.100
2.730E-06,0.092
2.740E-06,0.096
2.750E-06,0.096
2.760E-06,0.092
2.770E-06,0.092
2.780E-06,0.092
2.790E-06,0.092
2.800E-06,0.092
2.810E-06,0.096
2.820E-06,0.096
2.830E-06,0.092
2.840E-06,0.092
2.850E-06,0.096
2.860E-06,0.096
2.870E-06,0.096
2.880E-06,0.096
2.890E-06,0.096
2.900E-06,0.092
2.910E-06,0.092
2.920E-06,0.096
2.930E-06,0.088
2.940E-06,0.092
2.950E-06,0.088
2.960E-06,0.088
2.970E-06,0.088
2.980E-06,0.092
2.990E-06,0.092
3.000E-06,0.088
3.010E-06,0.092
3.020E-06,0.088
3.030E-06,0.092
3.040E-06,0.088
3.050E-06,0.092
3.060E-06,0.092
3.070E-06,0.088
3.080E-06,0.092
3.090E-06,0.092
3.100E-06,0.092
3.110E-06,0.092
3.120E-06,0.088
3.130E-06,0.092
3.140E-06,0.092
3.150E-06,0.088
3.160E-06,0.088
3.170E-06,0.092
3.180E-06,0.092
3.190E-06,0.092
3.200E-06,0.088
3.210E-06,0.092
3.220E-06,0.092
3.230E-06,0.088
3.240E-06,0.088
3.250E-06,0.084
3.260E-06,0.088
3.270E-06,0.080
3.280E-06,0.084
3.290E-06,0.088
3.300E-06,0.088
3.310E-06,0.076
3.320E-06,0.080
3.330E-06,0.076
3.340E-06,0.084
3.350E-06,0.080
3.360E-06,0.076
3.370E-06,0.080
3.380E-06,0.076
3.390E-06,0.076
3.400E-06,0.076
3.410E-06,0.076
3.420E-06,0.076
3.430E-06,0.076
3.440E-06,0.072
3.450E-06,0.076
3.460E-06,0.072
3.470E-06,0.076
3.480E-06,0.072
3.490E-06,0.072
3.500E-06,0.072
3.510E-06,0.072
3.520E-06,0.072
3.530E-06,0.076
3.540E-06,0.076
3.550E-06,0.072
3.560E-06,0.076
3.570E-06,0.072
3.580E-06,0.072
3.590E-06,0.068
3.600E-06,0.076
3.610E-06,0.072
3.620E-06,0.072
3.630E-06,0.072
3.640E-06,0.068
3.650E-06,0.072
3.660E-06,0.068
3.670E-06,0.072
3.680E-06,0.068
3.690E-06,0.072
3.700E-06,0.068
3.710E-06,0.072
3.720E-06,0.068
3.730E-06,0.068
3.740E-06,0.068
3.750E-06,0.068
3.760E-06,0.068
3.770E-06,0.068
3.780E-06,0.064
3.790E-06,0.064
3.800E-06,0.064
3.810E-06,0.064
3.820E-06,0.068
3.830E-06,0.068
3.840E-06,0.064
3.850E-06,0.064
3.860E-06,0.064
3.870E-06,0.064
3.880E-06,0.064
3.890E-06,0.060
3.900E-06,0.060
3.910E-06,0.060
3.920E-06,0.060
3.930E-06,0.060
3.940E-06,0.060
3.950E-06,0.060
3.960E-06,0.060
3.970E-06,0.060
3.980E-06,0.060
3.990E-06,0.064
4.000E-06,0.060
4.010E-06,0.060
4.020E-06,0.060
4.030E-06,0.056
4.040E-06,0.056
4.050E-06,0.056
4.060E-06,0.056
4.070E-06,0.056
4.080E-06,0.060
4.090E-06,0.060
4.100E-06,0.056
4.110E-06,0.060
4.120E-06,0.060
4.130E-06,0.056
4.140E-06,0.060
4.150E-06,0.056
4.160E-06,0.056
4.170E-06,0.060
4.180E-06,0.052
4.190E-06,0.060
4.200E-06,0.056
4.210E-06,0.052
4.220E-06,0.056
4.230E-06,0.052
4.240E-06,0.052
4.250E-06,0.056
4.260E-06,0.052
4.270E-06,0.052
4.280E-06,0.052
4.290E-06,0.048
4.300E-06,0.052
4.310E-06,0.052
4.320E-06,0.056
4.330E-06,0.056
4.340E-06,0.052
4.350E-06,0.048
4.360E-06,0.048
4.370E-06,0.044
4.380E-06,0.048
4.390E-06,0.040
4.400E-06,0.048
4.410E-06,0.052
4.420E-06,0.044
4.430E-06,0.048
4.440E-06,0.044
4.450E-06,0.048
4.460E-06,0.044
4.470E-06,0.044
4.480E-06,0.040
4.490E-06,0.044
4.500E-06,0.048
4.510E-06,0.048
4.520E-06,0.044
4.530E-06,0.048
4.540E-06,0.044
4.550E-06,0.044
4.560E-06,0.044
4.570E-06,0.044
4.580E-06,0.048
4.590E-06,0.044
4.600E-06,0.040
4.610E-06,0.036
4.620E-06,0.040
4.630E-06,0.044
4.640E-06,0.044
4.650E-06,0.040
4.660E-06,0.040
4.670E-06,0.044
4.680E-06,0.044
4.690E-06,0.040
4.700E-06,0.044
4.710E-06,0.044
4.720E-06,0.040
4.730E-06,0.044
4.740E-06,0.044
4.750E-06,0.036
4.760E-06,0.040
4.770E-06,0.040
4.780E-06,0.036
4.790E-06,0.036
4.800E-06,0.044
4.810E-06,0.040
4.820E-06,0.036
4.830E-06,0.036
4.840E-06,0.040
4.850E-06,0.036
4.860E-06,0.036
4.870E-06,0.040
4.880E-06,0.040
4.890E-06,0.036
4.900E-06,0.040
4.910E-06,0.036
4.920E-06,0.040
4.930E-06,0.036
4.940E-06,0.032
4.950E-06,0.032
4.960E-06,0.036
4.970E-06,0.040
4.980E-06,0.036
4.990E-06,0.040
5.000E-06,0.036
5.010E-06,0.036
5.020E-06,0.032
5.030E-06,0.032
5.040E-06,0.032
5.050E-06,0.036
5.060E-06,0.032
5.070E-06,0.028
5.080E-06,0.028
5.090E-06,0.032
5.100E-06,0.028
5.110E-06,0.028
5.120E-06,0.032
5.130E-06,0.028
5.140E-06,0.028
5.150E-06,0.036
5.160E-06,0.028
5.170E-06,0.024
5.180E-06,0.028
5.190E-06,0.028
5.200E-06,0.024
5.210E-06,0.028
5.220E-06,0.028
5.230E-06,0.028
5.240E-06,0.028
5.250E-06,0.032
5.260E-06,0.028
5.270E-06,0.028
5.280E-06,0.028
5.290E-06,0.032
5.300E-06,0.028
5.310E-06,0.024
5.320E-06,0.032
5.330E-06,0.028
5.340E-06,0.032
5.350E-06,0.028
5.360E-06,0.032
5.370E-06,0.020
5.380E-06,0.020
5.390E-06,0.024
5.400E-06,0.028
5.410E-06,0.028
5.420E-06,0.028
5.430E-06,0.024
5.440E-06,0.024
5.450E-06,0.024
5.460E-06,0.028
5.470E-06,0.028
5.480E-06,0.028
5.490E-06,0.020
5.500E-06,0.020
5.510E-06,0.024
5.520E-06,0.020
5.530E-06,0.020
5.540E-06,0.024
5.550E-06,0.020
5.560E-06,0.020
5.570E-06,0.024
5.580E-06,0.020
5.590E-06,0.020
5.600E-06,0.024
5.610E-06,0.020
5.620E-06,0.020
5.630E-06,0.024
5.640E-06,0.024
5.650E-06,0.020
5.660E-06,0.020
5.670E-06,0.020
5.680E-06,0.024
5.690E-06,0.020
5.700E-06,0.020
5.710E-06,0.020
5.720E-06,0.016
5.730E-06,0.016
5.740E-06,0.016
5.750E-06,0.016
5.760E-06,0.016
5.770E-06,0.016
5.780E-06,0.016
5.790E-06,0.012
5.800E-06,0.012
5.810E-06,0.012
5.820E-06,0.012
5.830E-06,0.012
5.840E-06,0.016
5.850E-06,0.012
5.860E-06,0.012
5.870E-06,0.008
5.880E-06,0.012
5.890E-06,0.016
5.900E-06,0.016
5.910E-06,0.016
5.920E-06,0.016
5.930E-06,0.008
5.940E-06,0.008
5.950E-06,0.012
5.960E-06,0.008
5.970E-06,0.012
5.980E-06,0.012
5.990E-06,0.012
6.000E-06,0.012
6.010E-06,0.012
6.020E-06,0.008
6.030E-06,0.008
6.040E-06,0.004
6.050E-06,0.008
6.060E-06,0.008
6.070E-06,0.008
6.080E-06,0.008
6.090E-06,0.004
6.100E-06,0.008
6.110E-06,0.008
6.120E-06,0.008
6.130E-06,0.008
6.140E-06,0.004
6.150E-06,0.008
6.160E-06,0.008
6.170E-06,0.008
6.180E-06,0.012
6.190E-06,0.004
6.200E-06,0.004
6.210E-06,0.008
6.220E-06,0.012
6.230E-06,0.012
6.240E-06,0.012
6.250E-06,0.004
6.260E-06,0.004
6.270E-06,0.008
6.280E-06,0.004
6.290E-06,0.004
6.300E-06,0.004
6.310E-06,0.000
6.320E-06,0.004
6.330E-06,0.008
6.340E-06,0.000
6.350E-06,0.000
6.360E-06,0.004
6.370E-06,0.008
6.380E-06,0.000
6.390E-06,0.000
6.400E-06,0.004
6.410E-06,0.004
