mediciones/5-27/-60/WaveData50339.csv

#timebase=2000000(ps)
,#voltbase=100000(mv/100)
#size=4000
-5.650E-06,0.004
-5.640E-06,-0.004
-5.630E-06,0.000
-5.620E-06,0.008
-5.610E-06,0.004
-5.600E-06,0.008
-5.590E-06,0.004
-5.580E-06,0.000
-5.570E-06,0.000
-5.560E-06,0.004
-5.550E-06,0.008
-5.540E-06,0.004
-5.530E-06,0.008
-5.520E-06,0.004
-5.510E-06,0.008
-5.500E-06,0.008
-5.490E-06,0.008
-5.480E-06,0.012
-5.470E-06,0.016
-5.460E-06,0.016
-5.450E-06,0.008
-5.440E-06,0.004
-5.430E-06,0.008
-5.420E-06,0.012
-5.410E-06,0.012
-5.400E-06,0.012
-5.390E-06,0.008
-5.380E-06,0.008
-5.370E-06,0.008
-5.360E-06,0.008
-5.350E-06,0.012
-5.340E-06,0.012
-5.330E-06,0.000
-5.320E-06,0.012
-5.310E-06,0.000
-5.300E-06,-0.008
-5.290E-06,-0.024
-5.280E-06,-0.020
-5.270E-06,-0.016
-5.260E-06,0.000
-5.250E-06,0.004
-5.240E-06,0.012
-5.230E-06,0.008
-5.220E-06,0.000
-5.210E-06,-0.008
-5.200E-06,-0.020
-5.190E-06,-0.008
-5.180E-06,0.000
-5.170E-06,0.012
-5.160E-06,0.016
-5.150E-06,-0.004
-5.140E-06,-0.008
-5.130E-06,-0.008
-5.120E-06,0.000
-5.110E-06,0.004
-5.100E-06,0.016
-5.090E-06,0.016
-5.080E-06,0.000
-5.070E-06,-0.008
-5.060E-06,-0.008
-5.050E-06,-0.004
-5.040E-06,0.004
-5.030E-06,0.012
-5.020E-06,0.012
-5.010E-06,0.008
-5.000E-06,-0.004
-4.990E-06,-0.004
-4.980E-06,0.000
-4.970E-06,0.004
-4.960E-06,0.008
-4.950E-06,0.008
-4.940E-06,0.000
-4.930E-06,0.000
-4.920E-06,0.000
-4.910E-06,0.004
-4.900E-06,0.004
-4.890E-06,0.008
-4.880E-06,0.008
-4.870E-06,0.004
-4.860E-06,0.004
-4.850E-06,0.008
-4.840E-06,0.008
-4.830E-06,0.008
-4.820E-06,0.008
-4.810E-06,0.004
-4.800E-06,0.000
-4.790E-06,-0.004
-4.780E-06,0.008
-4.770E-06,0.008
-4.760E-06,0.016
-4.750E-06,0.012
-4.740E-06,0.008
-4.730E-06,0.008
-4.720E-06,0.000
-4.710E-06,0.000
-4.700E-06,0.004
-4.690E-06,0.004
-4.680E-06,0.012
-4.670E-06,0.012
-4.660E-06,0.004
-4.650E-06,-0.004
-4.640E-06,-0.008
-4.630E-06,-0.004
-4.620E-06,0.004
-4.610E-06,0.012
-4.600E-06,0.016
-4.590E-06,0.012
-4.580E-06,0.000
-4.570E-06,0.000
-4.560E-06,-0.004
-4.550E-06,0.008
-4.540E-06,0.012
-4.530E-06,0.016
-4.520E-06,0.012
-4.510E-06,0.000
-4.500E-06,0.000
-4.490E-06,0.008
-4.480E-06,0.020
-4.470E-06,0.016
-4.460E-06,0.020
-4.450E-06,0.012
-4.440E-06,0.004
-4.430E-06,-0.004
-4.420E-06,-0.004
-4.410E-06,0.000
-4.400E-06,0.008
-4.390E-06,0.012
-4.380E-06,0.012
-4.370E-06,-0.004
-4.360E-06,-0.008
-4.350E-06,-0.012
-4.340E-06,-0.008
-4.330E-06,0.012
-4.320E-06,0.020
-4.310E-06,0.020
-4.300E-06,0.012
-4.290E-06,-0.004
-4.280E-06,-0.004
-4.270E-06,-0.004
-4.260E-06,0.004
-4.250E-06,0.016
-4.240E-06,0.008
-4.230E-06,0.012
-4.220E-06,0.008
-4.210E-06,0.008
-4.200E-06,0.008
-4.190E-06,0.008
-4.180E-06,0.008
-4.170E-06,0.012
-4.160E-06,0.016
-4.150E-06,0.008
-4.140E-06,0.008
-4.130E-06,0.008
-4.120E-06,0.008
-4.110E-06,0.008
-4.100E-06,0.004
-4.090E-06,-0.004
-4.080E-06,-0.004
-4.070E-06,0.000
-4.060E-06,-0.004
-4.050E-06,0.004
-4.040E-06,0.008
-4.030E-06,0.008
-4.020E-06,0.008
-4.010E-06,0.004
-4.000E-06,0.000
-3.990E-06,0.000
-3.980E-06,0.000
-3.970E-06,-0.004
-3.960E-06,0.000
-3.950E-06,0.000
-3.940E-06,0.000
-3.930E-06,0.008
-3.920E-06,0.004
-3.910E-06,0.004
-3.900E-06,0.008
-3.890E-06,0.004
-3.880E-06,0.000
-3.870E-06,0.004
-3.860E-06,0.004
-3.850E-06,0.012
-3.840E-06,0.012
-3.830E-06,0.008
-3.820E-06,0.012
-3.810E-06,0.008
-3.800E-06,0.004
-3.790E-06,0.008
-3.780E-06,0.012
-3.770E-06,0.012
-3.760E-06,0.012
-3.750E-06,0.008
-3.740E-06,0.016
-3.730E-06,0.024
-3.720E-06,0.020
-3.710E-06,0.028
-3.700E-06,0.032
-3.690E-06,0.036
-3.680E-06,0.040
-3.670E-06,0.028
-3.660E-06,0.016
-3.650E-06,0.000
-3.640E-06,-0.008
-3.630E-06,-0.008
-3.620E-06,-0.012
-3.610E-06,-0.008
-3.600E-06,-0.004
-3.590E-06,-0.004
-3.580E-06,0.000
-3.570E-06,-0.004
-3.560E-06,-0.004
-3.550E-06,0.004
-3.540E-06,0.008
-3.530E-06,0.004
-3.520E-06,0.004
-3.510E-06,0.004
-3.500E-06,0.008
-3.490E-06,0.008
-3.480E-06,0.008
-3.470E-06,0.008
-3.460E-06,0.012
-3.450E-06,0.012
-3.440E-06,0.012
-3.430E-06,0.008
-3.420E-06,0.012
-3.410E-06,0.012
-3.400E-06,0.008
-3.390E-06,0.004
-3.380E-06,0.012
-3.370E-06,0.020
-3.360E-06,0.028
-3.350E-06,0.024
-3.340E-06,0.028
-3.330E-06,0.028
-3.320E-06,0.028
-3.310E-06,0.024
-3.300E-06,0.024
-3.290E-06,0.028
-3.280E-06,0.024
-3.270E-06,0.020
-3.260E-06,0.024
-3.250E-06,0.020
-3.240E-06,0.012
-3.230E-06,0.028
-3.220E-06,0.024
-3.210E-06,0.016
-3.200E-06,0.016
-3.190E-06,-0.008
-3.180E-06,-0.020
-3.170E-06,-0.108
-3.160E-06,-0.144
-3.150E-06,-0.148
-3.140E-06,-0.112
-3.130E-06,-0.008
-3.120E-06,0.040
-3.110E-06,0.068
-3.100E-06,0.044
-3.090E-06,-0.004
-3.080E-06,-0.044
-3.070E-06,-0.064
-3.060E-06,-0.024
-3.050E-06,0.004
-3.040E-06,0.032
-3.030E-06,0.036
-3.020E-06,0.016
-3.010E-06,-0.004
-3.000E-06,-0.008
-2.990E-06,-0.004
-2.980E-06,-0.008
-2.970E-06,0.008
-2.960E-06,0.012
-2.950E-06,0.000
-2.940E-06,0.004
-2.930E-06,0.000
-2.920E-06,0.004
-2.910E-06,0.016
-2.900E-06,0.020
-2.890E-06,0.032
-2.880E-06,0.040
-2.870E-06,0.032
-2.860E-06,0.044
-2.850E-06,0.056
-2.840E-06,0.052
-2.830E-06,0.012
-2.820E-06,-0.092
-2.810E-06,-0.168
-2.800E-06,-0.176
-2.790E-06,-0.100
-2.780E-06,0.024
-2.770E-06,0.080
-2.760E-06,0.088
-2.750E-06,0.048
-2.740E-06,-0.020
-2.730E-06,-0.064
-2.720E-06,-0.060
-2.710E-06,-0.008
-2.700E-06,0.036
-2.690E-06,0.036
-2.680E-06,0.004
-2.670E-06,-0.024
-2.660E-06,-0.036
-2.650E-06,-0.016
-2.640E-06,0.004
-2.630E-06,0.024
-2.620E-06,0.020
-2.610E-06,0.000
-2.600E-06,-0.012
-2.590E-06,-0.020
-2.580E-06,-0.008
-2.570E-06,0.008
-2.560E-06,0.016
-2.550E-06,0.020
-2.540E-06,0.008
-2.530E-06,0.004
-2.520E-06,0.000
-2.510E-06,0.004
-2.500E-06,0.008
-2.490E-06,0.008
-2.480E-06,0.012
-2.470E-06,0.008
-2.460E-06,0.000
-2.450E-06,0.004
-2.440E-06,0.008
-2.430E-06,0.012
-2.420E-06,0.004
-2.410E-06,0.004
-2.400E-06,0.008
-2.390E-06,0.016
-2.380E-06,0.020
-2.370E-06,0.024
-2.360E-06,0.008
-2.350E-06,0.000
-2.340E-06,-0.008
-2.330E-06,-0.008
-2.320E-06,-0.004
-2.310E-06,0.008
-2.300E-06,0.012
-2.290E-06,0.008
-2.280E-06,0.008
-2.270E-06,0.008
-2.260E-06,0.008
-2.250E-06,0.004
-2.240E-06,0.004
-2.230E-06,0.008
-2.220E-06,0.012
-2.210E-06,0.016
-2.200E-06,0.020
-2.190E-06,0.016
-2.180E-06,0.020
-2.170E-06,0.020
-2.160E-06,0.024
-2.150E-06,0.028
-2.140E-06,0.032
-2.130E-06,0.040
-2.120E-06,0.044
-2.110E-06,0.052
-2.100E-06,0.056
-2.090E-06,0.056
-2.080E-06,0.056
-2.070E-06,0.056
-2.060E-06,0.060
-2.050E-06,0.040
-2.040E-06,0.028
-2.030E-06,0.016
-2.020E-06,0.012
-2.010E-06,-0.008
-2.000E-06,-0.032
-1.990E-06,-0.064
-1.980E-06,-0.100
-1.970E-06,-0.132
-1.960E-06,-0.112
-1.950E-06,-0.072
-1.940E-06,-0.012
-1.930E-06,0.024
-1.920E-06,0.068
-1.910E-06,0.076
-1.900E-06,0.040
-1.890E-06,0.000
-1.880E-06,-0.012
-1.870E-06,-0.012
-1.860E-06,0.000
-1.850E-06,0.020
-1.840E-06,0.048
-1.830E-06,0.044
-1.820E-06,0.024
-1.810E-06,-0.040
-1.800E-06,-0.068
-1.790E-06,-0.084
-1.780E-06,-0.044
-1.770E-06,-0.008
-1.760E-06,0.024
-1.750E-06,0.052
-1.740E-06,0.012
-1.730E-06,-0.024
-1.720E-06,-0.072
-1.710E-06,-0.068
-1.700E-06,-0.012
-1.690E-06,0.024
-1.680E-06,0.060
-1.670E-06,0.040
-1.660E-06,0.000
-1.650E-06,-0.028
-1.640E-06,-0.036
-1.630E-06,-0.008
-1.620E-06,0.028
-1.610E-06,0.040
-1.600E-06,0.032
-1.590E-06,0.008
-1.580E-06,-0.008
-1.570E-06,-0.008
-1.560E-06,0.012
-1.550E-06,0.036
-1.540E-06,0.052
-1.530E-06,0.044
-1.520E-06,0.028
-1.510E-06,0.012
-1.500E-06,0.016
-1.490E-06,0.032
-1.480E-06,0.048
-1.470E-06,0.052
-1.460E-06,0.044
-1.450E-06,0.012
-1.440E-06,-0.012
-1.430E-06,-0.036
-1.420E-06,-0.040
-1.410E-06,-0.036
-1.400E-06,-0.020
-1.390E-06,-0.004
-1.380E-06,0.012
-1.370E-06,0.012
-1.360E-06,0.000
-1.350E-06,-0.004
-1.340E-06,-0.008
-1.330E-06,-0.004
-1.320E-06,-0.004
-1.310E-06,0.004
-1.300E-06,0.012
-1.290E-06,0.008
-1.280E-06,0.004
-1.270E-06,0.000
-1.260E-06,0.004
-1.250E-06,0.012
-1.240E-06,0.020
-1.230E-06,0.028
-1.220E-06,0.028
-1.210E-06,0.020
-1.200E-06,0.008
-1.190E-06,0.012
-1.180E-06,0.012
-1.170E-06,0.024
-1.160E-06,0.032
-1.150E-06,0.032
-1.140E-06,0.028
-1.130E-06,0.016
-1.120E-06,0.016
-1.110E-06,0.012
-1.100E-06,0.016
-1.090E-06,0.016
-1.080E-06,0.016
-1.070E-06,0.024
-1.060E-06,0.024
-1.050E-06,0.020
-1.040E-06,0.032
-1.030E-06,0.044
-1.020E-06,0.056
-1.010E-06,0.048
-1.000E-06,0.044
-9.900E-07,0.036
-9.800E-07,0.024
-9.700E-07,0.020
-9.600E-07,0.020
-9.500E-07,0.012
-9.400E-07,-0.004
-9.300E-07,-0.028
-9.200E-07,-0.044
-9.100E-07,-0.052
-9.000E-07,-0.044
-8.900E-07,-0.032
-8.800E-07,-0.028
-8.700E-07,-0.024
-8.600E-07,-0.020
-8.500E-07,-0.024
-8.400E-07,-0.024
-8.300E-07,-0.016
-8.200E-07,-0.008
-8.100E-07,0.000
-8.000E-07,0.008
-7.900E-07,0.008
-7.800E-07,0.004
-7.700E-07,0.000
-7.600E-07,0.000
-7.500E-07,0.012
-7.400E-07,0.024
-7.300E-07,0.028
-7.200E-07,0.024
-7.100E-07,0.028
-7.000E-07,0.024
-6.900E-07,0.016
-6.800E-07,0.020
-6.700E-07,0.024
-6.600E-07,0.028
-6.500E-07,0.024
-6.400E-07,0.012
-6.300E-07,0.004
-6.200E-07,0.008
-6.100E-07,0.008
-6.000E-07,0.020
-5.900E-07,0.016
-5.800E-07,0.008
-5.700E-07,-0.020
-5.600E-07,-0.056
-5.500E-07,-0.072
-5.400E-07,-0.088
-5.300E-07,-0.052
-5.200E-07,-0.032
-5.100E-07,0.008
-5.000E-07,0.024
-4.900E-07,0.028
-4.800E-07,0.020
-4.700E-07,0.016
-4.600E-07,0.000
-4.500E-07,0.008
-4.400E-07,0.032
-4.300E-07,0.044
-4.200E-07,0.056
-4.100E-07,0.044
-4.000E-07,0.032
-3.900E-07,0.020
-3.800E-07,0.008
-3.700E-07,0.024
-3.600E-07,0.032
-3.500E-07,0.056
-3.400E-07,0.060
-3.300E-07,0.052
-3.200E-07,0.044
-3.100E-07,0.036
-3.000E-07,0.028
-2.900E-07,0.028
-2.800E-07,0.044
-2.700E-07,0.044
-2.600E-07,0.044
-2.500E-07,0.040
-2.400E-07,0.024
-2.300E-07,0.016
-2.200E-07,0.012
-2.100E-07,0.012
-2.000E-07,0.016
-1.900E-07,0.028
-1.800E-07,0.028
-1.700E-07,0.040
-1.600E-07,0.044
-1.500E-07,0.056
-1.400E-07,0.068
-1.300E-07,0.076
-1.200E-07,0.084
-1.100E-07,0.084
-1.000E-07,0.088
-9.000E-08,0.072
-8.000E-08,0.044
-7.000E-08,-0.036
-6.000E-08,-0.212
-5.000E-08,-0.476
-4.000E-08,-0.512
-3.000E-08,-0.504
-2.000E-08,-0.204
-1.000E-08,0.204
0.000E+00,0.408
1.000E-08,0.348
2.000E-08,0.192
3.000E-08,-0.064
4.000E-08,-0.200
5.000E-08,-0.132
6.000E-08,-0.024
7.000E-08,0.188
8.000E-08,0.160
9.000E-08,0.124
1.000E-07,-0.088
1.100E-07,-0.184
1.200E-07,-0.200
1.300E-07,-0.060
1.400E-07,0.104
1.500E-07,0.108
1.600E-07,0.072
1.700E-07,-0.004
1.800E-07,-0.024
1.900E-07,-0.032
2.000E-07,0.004
2.100E-07,0.088
2.200E-07,0.124
2.300E-07,0.104
2.400E-07,0.056
2.500E-07,0.032
2.600E-07,0.024
2.700E-07,0.028
2.800E-07,0.040
2.900E-07,0.008
3.000E-07,-0.020
3.100E-07,-0.040
3.200E-07,-0.100
3.300E-07,-0.084
3.400E-07,-0.064
3.500E-07,-0.024
3.600E-07,0.040
3.700E-07,0.088
3.800E-07,0.096
3.900E-07,0.072
4.000E-07,-0.008
4.100E-07,-0.008
4.200E-07,-0.076
4.300E-07,-0.052
4.400E-07,-0.060
4.500E-07,-0.072
4.600E-07,-0.084
4.700E-07,-0.072
4.800E-07,-0.008
4.900E-07,0.036
5.000E-07,0.044
5.100E-07,0.040
5.200E-07,0.016
5.300E-07,-0.024
5.400E-07,-0.044
5.500E-07,-0.048
5.600E-07,-0.024
5.700E-07,0.020
5.800E-07,0.040
5.900E-07,0.060
6.000E-07,0.064
6.100E-07,0.064
6.200E-07,0.028
6.300E-07,0.008
6.400E-07,0.012
6.500E-07,0.028
6.600E-07,0.048
6.700E-07,0.032
6.800E-07,-0.060
6.900E-07,-0.108
7.000E-07,-0.152
7.100E-07,-0.104
7.200E-07,0.016
7.300E-07,0.088
7.400E-07,0.144
7.500E-07,0.028
7.600E-07,0.000
7.700E-07,-0.104
7.800E-07,-0.136
7.900E-07,-0.060
8.000E-07,-0.012
8.100E-07,0.040
8.200E-07,0.008
8.300E-07,0.000
8.400E-07,-0.004
8.500E-07,0.000
8.600E-07,0.000
8.700E-07,0.024
8.800E-07,0.004
8.900E-07,0.000
9.000E-07,-0.016
9.100E-07,-0.024
9.200E-07,-0.008
9.300E-07,0.004
9.400E-07,0.028
9.500E-07,0.040
9.600E-07,0.024
9.700E-07,0.008
9.800E-07,0.000
9.900E-07,-0.004
1.000E-06,0.008
1.010E-06,0.028
1.020E-06,0.040
1.030E-06,0.052
1.040E-06,0.036
1.050E-06,0.008
1.060E-06,0.000
1.070E-06,0.016
1.080E-06,0.048
1.090E-06,0.092
1.100E-06,0.124
1.110E-06,0.128
1.120E-06,0.100
1.130E-06,0.044
1.140E-06,-0.008
1.150E-06,-0.056
1.160E-06,-0.068
1.170E-06,-0.060
1.180E-06,-0.040
1.190E-06,-0.004
1.200E-06,0.000
1.210E-06,-0.004
1.220E-06,-0.004
1.230E-06,-0.012
1.240E-06,-0.012
1.250E-06,-0.004
1.260E-06,0.000
1.270E-06,-0.004
1.280E-06,-0.016
1.290E-06,-0.024
1.300E-06,-0.036
1.310E-06,-0.008
1.320E-06,0.000
1.330E-06,0.024
1.340E-06,0.024
1.350E-06,0.028
1.360E-06,0.012
1.370E-06,0.008
1.380E-06,0.012
1.390E-06,0.008
1.400E-06,0.016
1.410E-06,0.012
1.420E-06,0.008
1.430E-06,0.012
1.440E-06,0.028
1.450E-06,0.032
1.460E-06,0.040
1.470E-06,0.044
1.480E-06,0.040
1.490E-06,0.036
1.500E-06,0.032
1.510E-06,0.048
1.520E-06,0.060
1.530E-06,0.076
1.540E-06,0.080
1.550E-06,0.080
1.560E-06,0.076
1.570E-06,0.088
1.580E-06,0.076
1.590E-06,0.072
1.600E-06,0.040
1.610E-06,0.000
1.620E-06,-0.080
1.630E-06,-0.144
1.640E-06,-0.212
1.650E-06,-0.216
1.660E-06,-0.180
1.670E-06,-0.096
1.680E-06,-0.012
1.690E-06,0.028
1.700E-06,0.024
1.710E-06,0.000
1.720E-06,-0.016
1.730E-06,-0.020
1.740E-06,0.004
1.750E-06,0.020
1.760E-06,0.024
1.770E-06,0.028
1.780E-06,0.008
1.790E-06,-0.020
1.800E-06,-0.008
1.810E-06,0.000
1.820E-06,0.032
1.830E-06,0.044
1.840E-06,0.028
1.850E-06,0.012
1.860E-06,0.000
1.870E-06,-0.020
1.880E-06,-0.004
1.890E-06,0.016
1.900E-06,0.040
1.910E-06,0.040
1.920E-06,0.016
1.930E-06,-0.004
1.940E-06,0.000
1.950E-06,0.008
1.960E-06,0.036
1.970E-06,0.056
1.980E-06,0.072
1.990E-06,0.068
2.000E-06,0.028
2.010E-06,-0.052
2.020E-06,-0.108
2.030E-06,-0.120
2.040E-06,-0.080
2.050E-06,-0.036
2.060E-06,0.008
2.070E-06,0.028
2.080E-06,0.024
2.090E-06,0.008
2.100E-06,-0.024
2.110E-06,-0.044
2.120E-06,0.012
2.130E-06,0.032
2.140E-06,0.044
2.150E-06,0.028
2.160E-06,0.012
2.170E-06,0.004
2.180E-06,0.004
2.190E-06,0.012
2.200E-06,0.032
2.210E-06,0.060
2.220E-06,0.060
2.230E-06,0.040
2.240E-06,0.036
2.250E-06,0.024
2.260E-06,0.024
2.270E-06,0.024
2.280E-06,0.028
2.290E-06,0.024
2.300E-06,0.044
2.310E-06,0.048
2.320E-06,0.048
2.330E-06,0.056
2.340E-06,0.052
2.350E-06,0.060
2.360E-06,0.080
2.370E-06,0.096
2.380E-06,0.108
2.390E-06,0.108
2.400E-06,0.108
2.410E-06,0.096
2.420E-06,0.092
2.430E-06,0.072
2.440E-06,0.064
2.450E-06,0.060
2.460E-06,0.064
2.470E-06,0.056
2.480E-06,0.056
2.490E-06,0.044
2.500E-06,0.020
2.510E-06,-0.108
2.520E-06,-0.316
2.530E-06,-0.512
2.540E-06,-0.508
2.550E-06,-0.508
2.560E-06,-0.512
2.570E-06,-0.216
2.580E-06,0.396
2.590E-06,0.540
2.600E-06,0.468
2.610E-06,-0.116
2.620E-06,-0.512
2.630E-06,-0.512
2.640E-06,-0.176
2.650E-06,0.272
2.660E-06,0.408
2.670E-06,0.204
2.680E-06,-0.060
2.690E-06,-0.188
2.700E-06,-0.148
2.710E-06,0.012
2.720E-06,0.148
2.730E-06,0.152
2.740E-06,0.088
2.750E-06,-0.024
2.760E-06,-0.036
2.770E-06,-0.028
2.780E-06,0.064
2.790E-06,0.144
2.800E-06,0.152
2.810E-06,0.164
2.820E-06,0.120
2.830E-06,0.020
2.840E-06,-0.016
2.850E-06,-0.020
2.860E-06,0.004
2.870E-06,0.088
2.880E-06,0.148
2.890E-06,0.148
2.900E-06,0.112
2.910E-06,0.028
2.920E-06,-0.072
2.930E-06,-0.132
2.940E-06,-0.136
2.950E-06,-0.040
2.960E-06,0.048
2.970E-06,0.120
2.980E-06,0.000
2.990E-06,-0.108
3.000E-06,-0.208
3.010E-06,-0.260
3.020E-06,-0.196
3.030E-06,-0.048
3.040E-06,0.084
3.050E-06,0.144
3.060E-06,0.088
3.070E-06,-0.004
3.080E-06,-0.100
3.090E-06,-0.084
3.100E-06,-0.040
3.110E-06,0.060
3.120E-06,0.092
3.130E-06,0.080
3.140E-06,0.036
3.150E-06,0.036
3.160E-06,0.052
3.170E-06,0.032
3.180E-06,-0.040
3.190E-06,-0.104
3.200E-06,-0.136
3.210E-06,-0.116
3.220E-06,-0.064
3.230E-06,-0.004
3.240E-06,0.024
3.250E-06,0.044
3.260E-06,0.040
3.270E-06,0.040
3.280E-06,0.056
3.290E-06,0.068
3.300E-06,0.056
3.310E-06,0.032
3.320E-06,0.044
3.330E-06,0.032
3.340E-06,0.024
3.350E-06,-0.008
3.360E-06,-0.060
3.370E-06,-0.056
3.380E-06,-0.036
3.390E-06,0.032
3.400E-06,0.064
3.410E-06,0.088
3.420E-06,0.100
3.430E-06,0.064
3.440E-06,0.064
3.450E-06,0.056
3.460E-06,0.072
3.470E-06,0.072
3.480E-06,0.044
3.490E-06,0.012
3.500E-06,-0.024
3.510E-06,-0.048
3.520E-06,-0.080
3.530E-06,-0.080
3.540E-06,-0.056
3.550E-06,-0.052
3.560E-06,-0.060
3.570E-06,-0.056
3.580E-06,-0.080
3.590E-06,-0.052
3.600E-06,-0.008
3.610E-06,0.044
3.620E-06,0.056
3.630E-06,0.052
3.640E-06,0.004
3.650E-06,-0.012
3.660E-06,-0.008
3.670E-06,0.012
3.680E-06,0.044
3.690E-06,0.056
3.700E-06,0.044
3.710E-06,0.020
3.720E-06,-0.004
3.730E-06,0.000
3.740E-06,0.008
3.750E-06,0.032
3.760E-06,0.052
3.770E-06,0.064
3.780E-06,0.076
3.790E-06,0.072
3.800E-06,0.076
3.810E-06,0.056
3.820E-06,0.056
3.830E-06,0.040
3.840E-06,0.036
3.850E-06,0.028
3.860E-06,0.012
3.870E-06,0.004
3.880E-06,-0.008
3.890E-06,0.020
3.900E-06,0.024
3.910E-06,0.064
3.920E-06,0.076
3.930E-06,0.092
3.940E-06,0.096
3.950E-06,0.084
3.960E-06,0.080
3.970E-06,0.088
3.980E-06,0.104
3.990E-06,0.108
4.000E-06,0.092
4.010E-06,0.060
4.020E-06,0.028
4.030E-06,0.024
4.040E-06,0.048
4.050E-06,0.068
4.060E-06,0.092
4.070E-06,0.120
4.080E-06,0.124
4.090E-06,0.104
4.100E-06,0.072
4.110E-06,0.040
4.120E-06,0.012
4.130E-06,0.000
4.140E-06,-0.008
4.150E-06,0.000
4.160E-06,0.000
4.170E-06,0.004
4.180E-06,-0.016
4.190E-06,-0.044
4.200E-06,-0.068
4.210E-06,-0.076
4.220E-06,-0.072
4.230E-06,-0.072
4.240E-06,-0.060
4.250E-06,-0.052
4.260E-06,-0.028
4.270E-06,-0.036
4.280E-06,-0.024
4.290E-06,-0.008
4.300E-06,0.004
4.310E-06,0.024
4.320E-06,0.032
4.330E-06,0.052
4.340E-06,0.056
4.350E-06,0.088
4.360E-06,0.100
4.370E-06,0.128
4.380E-06,0.124
4.390E-06,0.108
4.400E-06,0.088
4.410E-06,0.076
4.420E-06,0.072
4.430E-06,0.092
4.440E-06,0.112
4.450E-06,0.132
4.460E-06,0.128
4.470E-06,0.112
4.480E-06,0.092
4.490E-06,0.088
4.500E-06,0.088
4.510E-06,0.096
4.520E-06,0.108
4.530E-06,0.120
4.540E-06,0.124
4.550E-06,0.108
4.560E-06,0.088
4.570E-06,0.060
4.580E-06,0.044
4.590E-06,0.060
4.600E-06,0.092
4.610E-06,0.116
4.620E-06,0.128
4.630E-06,0.104
4.640E-06,0.092
4.650E-06,0.040
4.660E-06,0.020
4.670E-06,0.024
4.680E-06,0.088
4.690E-06,0.128
4.700E-06,0.144
4.710E-06,0.092
4.720E-06,0.032
4.730E-06,-0.004
4.740E-06,-0.076
4.750E-06,-0.168
4.760E-06,-0.264
4.770E-06,-0.376
4.780E-06,-0.368
4.790E-06,-0.256
4.800E-06,-0.024
4.810E-06,0.156
4.820E-06,0.220
4.830E-06,0.200
4.840E-06,-0.008
4.850E-06,-0.248
4.860E-06,-0.372
4.870E-06,-0.472
4.880E-06,-0.460
4.890E-06,-0.416
4.900E-06,-0.300
4.910E-06,-0.192
4.920E-06,-0.096
4.930E-06,-0.020
4.940E-06,0.012
4.950E-06,0.044
4.960E-06,0.068
4.970E-06,0.072
4.980E-06,0.084
4.990E-06,0.080
5.000E-06,0.056
5.010E-06,0.012
5.020E-06,0.012
5.030E-06,0.044
5.040E-06,0.108
5.050E-06,0.164
5.060E-06,0.172
5.070E-06,0.148
5.080E-06,0.088
5.090E-06,0.036
5.100E-06,0.024
5.110E-06,0.040
5.120E-06,0.068
5.130E-06,0.092
5.140E-06,0.096
5.150E-06,0.080
5.160E-06,0.060
5.170E-06,0.040
5.180E-06,0.036
5.190E-06,0.056
5.200E-06,0.076
5.210E-06,0.104
5.220E-06,0.092
5.230E-06,0.092
5.240E-06,0.080
5.250E-06,0.080
5.260E-06,0.088
5.270E-06,0.100
5.280E-06,0.128
5.290E-06,0.156
5.300E-06,0.164
5.310E-06,0.168
5.320E-06,0.172
5.330E-06,0.164
5.340E-06,0.172
5.350E-06,0.168
5.360E-06,0.172
5.370E-06,0.176
5.380E-06,0.164
5.390E-06,0.156
5.400E-06,0.136
5.410E-06,0.136
5.420E-06,0.124
5.430E-06,0.108
5.440E-06,0.128
5.450E-06,0.128
5.460E-06,0.136
5.470E-06,0.132
5.480E-06,0.124
5.490E-06,0.120
5.500E-06,0.116
5.510E-06,0.128
5.520E-06,0.140
5.530E-06,0.148
5.540E-06,0.156
5.550E-06,0.156
5.560E-06,0.156
5.570E-06,0.144
5.580E-06,0.136
5.590E-06,0.128
5.600E-06,0.124
5.610E-06,0.108
5.620E-06,0.108
5.630E-06,0.124
5.640E-06,0.124
5.650E-06,0.124
5.660E-06,0.112
5.670E-06,0.100
5.680E-06,0.088
5.690E-06,0.080
5.700E-06,0.080
5.710E-06,0.060
5.720E-06,0.060
5.730E-06,0.028
5.740E-06,-0.024
5.750E-06,-0.056
5.760E-06,-0.084
5.770E-06,-0.072
5.780E-06,-0.016
5.790E-06,0.060
5.800E-06,0.144
5.810E-06,0.176
5.820E-06,0.144
5.830E-06,0.092
5.840E-06,0.032
5.850E-06,0.040
5.860E-06,0.072
5.870E-06,0.156
5.880E-06,0.208
5.890E-06,0.232
5.900E-06,0.204
5.910E-06,0.144
5.920E-06,0.112
5.930E-06,0.104
5.940E-06,0.124
5.950E-06,0.152
5.960E-06,0.188
5.970E-06,0.184
5.980E-06,0.164
5.990E-06,0.136
6.000E-06,0.128
6.010E-06,0.128
6.020E-06,0.144
6.030E-06,0.160
6.040E-06,0.176
6.050E-06,0.180
6.060E-06,0.160
6.070E-06,0.152
6.080E-06,0.148
6.090E-06,0.148
6.100E-06,0.156
6.110E-06,0.164
6.120E-06,0.172
6.130E-06,0.172
6.140E-06,0.164
6.150E-06,0.156
6.160E-06,0.140
6.170E-06,0.144
6.180E-06,0.148
6.190E-06,0.156
6.200E-06,0.160
6.210E-06,0.164
6.220E-06,0.156
6.230E-06,0.148
6.240E-06,0.144
6.250E-06,0.144
