mediciones/5-27/-60/WaveData50356.csv

#timebase=2000000(ps)
,#voltbase=1000000(mv/100)
#size=4000
-5.650E-06,0.040
-5.640E-06,0.040
-5.630E-06,0.080
-5.620E-06,0.080
-5.610E-06,0.000
-5.600E-06,0.040
-5.590E-06,0.080
-5.580E-06,0.080
-5.570E-06,0.080
-5.560E-06,0.040
-5.550E-06,0.040
-5.540E-06,0.080
-5.530E-06,0.080
-5.520E-06,0.080
-5.510E-06,0.080
-5.500E-06,0.040
-5.490E-06,0.040
-5.480E-06,0.040
-5.470E-06,0.080
-5.460E-06,0.040
-5.450E-06,0.040
-5.440E-06,0.080
-5.430E-06,0.040
-5.420E-06,0.040
-5.410E-06,0.040
-5.400E-06,0.000
-5.390E-06,0.080
-5.380E-06,0.000
-5.370E-06,0.040
-5.360E-06,0.040
-5.350E-06,0.040
-5.340E-06,0.080
-5.330E-06,0.040
-5.320E-06,0.080
-5.310E-06,0.040
-5.300E-06,0.040
-5.290E-06,0.040
-5.280E-06,0.040
-5.270E-06,0.080
-5.260E-06,0.000
-5.250E-06,0.040
-5.240E-06,0.120
-5.230E-06,0.120
-5.220E-06,0.080
-5.210E-06,0.040
-5.200E-06,0.040
-5.190E-06,0.080
-5.180E-06,0.040
-5.170E-06,0.120
-5.160E-06,0.080
-5.150E-06,0.000
-5.140E-06,0.080
-5.130E-06,0.080
-5.120E-06,0.040
-5.110E-06,0.040
-5.100E-06,0.080
-5.090E-06,0.120
-5.080E-06,0.080
-5.070E-06,0.040
-5.060E-06,0.000
-5.050E-06,0.040
-5.040E-06,0.040
-5.030E-06,0.000
-5.020E-06,0.040
-5.010E-06,0.000
-5.000E-06,0.080
-4.990E-06,0.000
-4.980E-06,0.040
-4.970E-06,0.040
-4.960E-06,0.080
-4.950E-06,0.080
-4.940E-06,0.040
-4.930E-06,0.080
-4.920E-06,0.040
-4.910E-06,0.080
-4.900E-06,0.080
-4.890E-06,0.040
-4.880E-06,0.080
-4.870E-06,0.040
-4.860E-06,0.040
-4.850E-06,0.040
-4.840E-06,0.000
-4.830E-06,0.040
-4.820E-06,0.000
-4.810E-06,0.080
-4.800E-06,0.080
-4.790E-06,0.040
-4.780E-06,0.080
-4.770E-06,0.040
-4.760E-06,0.040
-4.750E-06,0.080
-4.740E-06,0.080
-4.730E-06,0.120
-4.720E-06,0.080
-4.710E-06,0.120
-4.700E-06,0.000
-4.690E-06,0.000
-4.680E-06,0.080
-4.670E-06,0.040
-4.660E-06,0.080
-4.650E-06,0.000
-4.640E-06,0.000
-4.630E-06,0.040
-4.620E-06,0.080
-4.610E-06,0.120
-4.600E-06,0.000
-4.590E-06,0.000
-4.580E-06,0.040
-4.570E-06,0.040
-4.560E-06,0.040
-4.550E-06,0.040
-4.540E-06,0.080
-4.530E-06,0.040
-4.520E-06,0.040
-4.510E-06,0.040
-4.500E-06,0.040
-4.490E-06,0.040
-4.480E-06,0.080
-4.470E-06,0.040
-4.460E-06,0.080
-4.450E-06,0.040
-4.440E-06,0.040
-4.430E-06,0.080
-4.420E-06,0.000
-4.410E-06,0.080
-4.400E-06,0.080
-4.390E-06,0.080
-4.380E-06,0.000
-4.370E-06,0.000
-4.360E-06,0.080
-4.350E-06,0.000
-4.340E-06,0.080
-4.330E-06,0.080
-4.320E-06,0.000
-4.310E-06,0.080
-4.300E-06,0.040
-4.290E-06,0.040
-4.280E-06,0.080
-4.270E-06,0.040
-4.260E-06,0.040
-4.250E-06,0.040
-4.240E-06,0.080
-4.230E-06,0.080
-4.220E-06,0.040
-4.210E-06,0.000
-4.200E-06,0.080
-4.190E-06,0.040
-4.180E-06,0.040
-4.170E-06,0.080
-4.160E-06,0.040
-4.150E-06,0.000
-4.140E-06,0.040
-4.130E-06,0.040
-4.120E-06,0.080
-4.110E-06,0.040
-4.100E-06,0.040
-4.090E-06,0.040
-4.080E-06,0.040
-4.070E-06,0.080
-4.060E-06,0.040
-4.050E-06,0.040
-4.040E-06,0.000
-4.030E-06,0.080
-4.020E-06,0.040
-4.010E-06,0.000
-4.000E-06,0.080
-3.990E-06,0.000
-3.980E-06,0.080
-3.970E-06,0.040
-3.960E-06,0.000
-3.950E-06,0.080
-3.940E-06,0.000
-3.930E-06,0.080
-3.920E-06,0.080
-3.910E-06,0.080
-3.900E-06,0.080
-3.890E-06,0.040
-3.880E-06,0.040
-3.870E-06,0.040
-3.860E-06,0.080
-3.850E-06,0.040
-3.840E-06,0.080
-3.830E-06,0.080
-3.820E-06,0.080
-3.810E-06,0.040
-3.800E-06,0.040
-3.790E-06,0.040
-3.780E-06,0.080
-3.770E-06,0.120
-3.760E-06,0.120
-3.750E-06,0.120
-3.740E-06,0.120
-3.730E-06,0.040
-3.720E-06,0.040
-3.710E-06,0.040
-3.700E-06,0.040
-3.690E-06,0.080
-3.680E-06,0.080
-3.670E-06,0.040
-3.660E-06,0.080
-3.650E-06,0.040
-3.640E-06,0.040
-3.630E-06,0.000
-3.620E-06,0.000
-3.610E-06,0.080
-3.600E-06,0.040
-3.590E-06,0.080
-3.580E-06,0.040
-3.570E-06,0.040
-3.560E-06,0.000
-3.550E-06,0.080
-3.540E-06,0.080
-3.530E-06,0.080
-3.520E-06,0.040
-3.510E-06,0.040
-3.500E-06,0.040
-3.490E-06,0.040
-3.480E-06,0.080
-3.470E-06,0.080
-3.460E-06,0.080
-3.450E-06,0.080
-3.440E-06,0.040
-3.430E-06,0.080
-3.420E-06,0.040
-3.410E-06,0.080
-3.400E-06,0.120
-3.390E-06,0.080
-3.380E-06,0.040
-3.370E-06,0.000
-3.360E-06,0.080
-3.350E-06,0.120
-3.340E-06,0.080
-3.330E-06,0.040
-3.320E-06,0.000
-3.310E-06,0.040
-3.300E-06,0.120
-3.290E-06,0.000
-3.280E-06,0.000
-3.270E-06,0.040
-3.260E-06,0.040
-3.250E-06,0.040
-3.240E-06,0.040
-3.230E-06,0.000
-3.220E-06,0.080
-3.210E-06,0.040
-3.200E-06,0.040
-3.190E-06,0.040
-3.180E-06,0.080
-3.170E-06,0.080
-3.160E-06,0.040
-3.150E-06,0.080
-3.140E-06,0.080
-3.130E-06,0.080
-3.120E-06,0.000
-3.110E-06,0.080
-3.100E-06,0.080
-3.090E-06,0.040
-3.080E-06,0.080
-3.070E-06,0.080
-3.060E-06,0.080
-3.050E-06,0.040
-3.040E-06,0.000
-3.030E-06,0.040
-3.020E-06,0.040
-3.010E-06,0.080
-3.000E-06,0.080
-2.990E-06,0.040
-2.980E-06,0.000
-2.970E-06,0.040
-2.960E-06,0.000
-2.950E-06,0.040
-2.940E-06,0.080
-2.930E-06,0.000
-2.920E-06,0.080
-2.910E-06,0.040
-2.900E-06,0.040
-2.890E-06,0.080
-2.880E-06,0.120
-2.870E-06,0.040
-2.860E-06,0.040
-2.850E-06,0.080
-2.840E-06,0.080
-2.830E-06,0.040
-2.820E-06,0.080
-2.810E-06,0.080
-2.800E-06,0.040
-2.790E-06,0.040
-2.780E-06,-0.040
-2.770E-06,0.040
-2.760E-06,0.000
-2.750E-06,0.000
-2.740E-06,0.040
-2.730E-06,0.000
-2.720E-06,0.040
-2.710E-06,0.080
-2.700E-06,0.000
-2.690E-06,0.040
-2.680E-06,0.040
-2.670E-06,0.040
-2.660E-06,0.000
-2.650E-06,0.080
-2.640E-06,0.040
-2.630E-06,0.040
-2.620E-06,0.080
-2.610E-06,0.120
-2.600E-06,0.000
-2.590E-06,0.080
-2.580E-06,0.080
-2.570E-06,0.120
-2.560E-06,0.160
-2.550E-06,0.080
-2.540E-06,0.040
-2.530E-06,0.000
-2.520E-06,0.080
-2.510E-06,0.120
-2.500E-06,0.160
-2.490E-06,0.120
-2.480E-06,-0.080
-2.470E-06,-0.040
-2.460E-06,-0.040
-2.450E-06,0.000
-2.440E-06,0.000
-2.430E-06,0.040
-2.420E-06,0.000
-2.410E-06,0.000
-2.400E-06,-0.040
-2.390E-06,-0.040
-2.380E-06,0.000
-2.370E-06,0.120
-2.360E-06,0.040
-2.350E-06,0.080
-2.340E-06,0.000
-2.330E-06,0.000
-2.320E-06,0.080
-2.310E-06,0.040
-2.300E-06,0.160
-2.290E-06,0.200
-2.280E-06,0.280
-2.270E-06,0.160
-2.260E-06,0.240
-2.250E-06,0.200
-2.240E-06,0.120
-2.230E-06,0.240
-2.220E-06,0.240
-2.210E-06,0.320
-2.200E-06,0.240
-2.190E-06,0.240
-2.180E-06,0.120
-2.170E-06,0.160
-2.160E-06,0.240
-2.150E-06,0.200
-2.140E-06,0.200
-2.130E-06,0.200
-2.120E-06,0.200
-2.110E-06,0.120
-2.100E-06,0.160
-2.090E-06,0.160
-2.080E-06,0.200
-2.070E-06,0.120
-2.060E-06,0.120
-2.050E-06,0.080
-2.040E-06,0.160
-2.030E-06,0.080
-2.020E-06,0.160
-2.010E-06,0.080
-2.000E-06,0.160
-1.990E-06,0.120
-1.980E-06,0.160
-1.970E-06,0.120
-1.960E-06,0.120
-1.950E-06,-0.040
-1.940E-06,0.000
-1.930E-06,0.040
-1.920E-06,0.040
-1.910E-06,0.040
-1.900E-06,0.000
-1.890E-06,-0.040
-1.880E-06,0.040
-1.870E-06,0.000
-1.860E-06,0.040
-1.850E-06,0.040
-1.840E-06,0.080
-1.830E-06,0.000
-1.820E-06,0.040
-1.810E-06,0.080
-1.800E-06,0.080
-1.790E-06,0.080
-1.780E-06,0.040
-1.770E-06,0.120
-1.760E-06,0.080
-1.750E-06,0.080
-1.740E-06,0.120
-1.730E-06,0.120
-1.720E-06,0.120
-1.710E-06,0.120
-1.700E-06,0.160
-1.690E-06,0.160
-1.680E-06,0.160
-1.670E-06,0.160
-1.660E-06,0.160
-1.650E-06,0.160
-1.640E-06,0.160
-1.630E-06,0.160
-1.620E-06,0.120
-1.610E-06,0.160
-1.600E-06,0.120
-1.590E-06,0.160
-1.580E-06,0.160
-1.570E-06,0.160
-1.560E-06,0.200
-1.550E-06,0.160
-1.540E-06,0.080
-1.530E-06,0.160
-1.520E-06,0.160
-1.510E-06,0.200
-1.500E-06,0.160
-1.490E-06,0.120
-1.480E-06,0.160
-1.470E-06,0.160
-1.460E-06,0.160
-1.450E-06,0.120
-1.440E-06,0.160
-1.430E-06,0.120
-1.420E-06,0.120
-1.410E-06,0.120
-1.400E-06,0.200
-1.390E-06,0.200
-1.380E-06,0.120
-1.370E-06,0.160
-1.360E-06,0.160
-1.350E-06,0.200
-1.340E-06,0.160
-1.330E-06,0.160
-1.320E-06,0.120
-1.310E-06,0.160
-1.300E-06,0.200
-1.290E-06,0.200
-1.280E-06,0.200
-1.270E-06,0.160
-1.260E-06,0.240
-1.250E-06,0.200
-1.240E-06,0.200
-1.230E-06,0.200
-1.220E-06,0.240
-1.210E-06,0.200
-1.200E-06,0.240
-1.190E-06,0.200
-1.180E-06,0.240
-1.170E-06,0.280
-1.160E-06,0.240
-1.150E-06,0.280
-1.140E-06,0.280
-1.130E-06,0.320
-1.120E-06,0.360
-1.110E-06,0.440
-1.100E-06,0.400
-1.090E-06,0.400
-1.080E-06,0.400
-1.070E-06,0.440
-1.060E-06,0.520
-1.050E-06,0.520
-1.040E-06,0.640
-1.030E-06,0.680
-1.020E-06,0.760
-1.010E-06,0.760
-1.000E-06,0.840
-9.900E-07,0.880
-9.800E-07,0.880
-9.700E-07,0.920
-9.600E-07,1.000
-9.500E-07,0.960
-9.400E-07,1.120
-9.300E-07,1.120
-9.200E-07,1.120
-9.100E-07,1.120
-9.000E-07,1.160
-8.900E-07,1.200
-8.800E-07,1.200
-8.700E-07,1.240
-8.600E-07,1.160
-8.500E-07,1.160
-8.400E-07,1.160
-8.300E-07,1.120
-8.200E-07,1.080
-8.100E-07,1.120
-8.000E-07,1.160
-7.900E-07,1.120
-7.800E-07,1.120
-7.700E-07,1.160
-7.600E-07,1.200
-7.500E-07,1.240
-7.400E-07,1.240
-7.300E-07,1.240
-7.200E-07,1.280
-7.100E-07,1.160
-7.000E-07,1.120
-6.900E-07,1.160
-6.800E-07,1.160
-6.700E-07,1.120
-6.600E-07,1.000
-6.500E-07,1.040
-6.400E-07,1.040
-6.300E-07,1.000
-6.200E-07,0.880
-6.100E-07,0.960
-6.000E-07,0.920
-5.900E-07,0.920
-5.800E-07,0.880
-5.700E-07,1.000
-5.600E-07,1.120
-5.500E-07,1.040
-5.400E-07,1.040
-5.300E-07,1.000
-5.200E-07,0.920
-5.100E-07,1.000
-5.000E-07,1.000
-4.900E-07,1.000
-4.800E-07,1.000
-4.700E-07,1.000
-4.600E-07,0.960
-4.500E-07,0.920
-4.400E-07,0.840
-4.300E-07,0.840
-4.200E-07,0.800
-4.100E-07,0.800
-4.000E-07,0.760
-3.900E-07,0.720
-3.800E-07,0.720
-3.700E-07,0.680
-3.600E-07,0.640
-3.500E-07,0.640
-3.400E-07,0.600
-3.300E-07,0.600
-3.200E-07,0.680
-3.100E-07,0.680
-3.000E-07,0.640
-2.900E-07,0.640
-2.800E-07,0.680
-2.700E-07,0.680
-2.600E-07,0.720
-2.500E-07,0.720
-2.400E-07,0.720
-2.300E-07,0.840
-2.200E-07,0.720
-2.100E-07,0.800
-2.000E-07,0.800
-1.900E-07,0.760
-1.800E-07,0.760
-1.700E-07,0.760
-1.600E-07,0.680
-1.500E-07,0.720
-1.400E-07,0.640
-1.300E-07,0.640
-1.200E-07,0.640
-1.100E-07,0.640
-1.000E-07,0.600
-9.000E-08,0.560
-8.000E-08,0.480
-7.000E-08,0.480
-6.000E-08,0.440
-5.000E-08,0.360
-4.000E-08,0.320
-3.000E-08,0.240
-2.000E-08,0.200
-1.000E-08,0.160
0.000E+00,0.040
1.000E-08,-0.040
2.000E-08,-0.040
3.000E-08,-0.040
4.000E-08,-0.120
5.000E-08,-0.120
6.000E-08,-0.200
7.000E-08,-0.240
8.000E-08,-0.240
9.000E-08,-0.320
1.000E-07,-0.320
1.100E-07,-0.400
1.200E-07,-0.440
1.300E-07,-0.440
1.400E-07,-0.520
1.500E-07,-0.560
1.600E-07,-0.600
1.700E-07,-0.640
1.800E-07,-0.680
1.900E-07,-0.720
2.000E-07,-0.720
2.100E-07,-0.800
2.200E-07,-0.800
2.300E-07,-0.880
2.400E-07,-0.920
2.500E-07,-1.000
2.600E-07,-1.080
2.700E-07,-1.120
2.800E-07,-1.200
2.900E-07,-1.240
3.000E-07,-1.320
3.100E-07,-1.440
3.200E-07,-1.520
3.300E-07,-1.560
3.400E-07,-1.680
3.500E-07,-1.720
3.600E-07,-1.840
3.700E-07,-1.920
3.800E-07,-2.040
3.900E-07,-2.040
4.000E-07,-2.160
4.100E-07,-2.200
4.200E-07,-2.360
4.300E-07,-2.440
4.400E-07,-2.480
4.500E-07,-2.520
4.600E-07,-2.640
4.700E-07,-2.680
4.800E-07,-2.800
4.900E-07,-2.880
5.000E-07,-2.920
5.100E-07,-2.960
5.200E-07,-3.040
5.300E-07,-3.120
5.400E-07,-3.120
5.500E-07,-3.240
5.600E-07,-3.280
5.700E-07,-3.280
5.800E-07,-3.360
5.900E-07,-3.400
6.000E-07,-3.480
6.100E-07,-3.480
6.200E-07,-3.520
6.300E-07,-3.560
6.400E-07,-3.560
6.500E-07,-3.560
6.600E-07,-3.600
6.700E-07,-3.600
6.800E-07,-3.600
6.900E-07,-3.600
7.000E-07,-3.640
7.100E-07,-3.640
7.200E-07,-3.640
7.300E-07,-3.600
7.400E-07,-3.640
7.500E-07,-3.680
7.600E-07,-3.720
7.700E-07,-3.680
7.800E-07,-3.640
7.900E-07,-3.640
8.000E-07,-3.680
8.100E-07,-3.640
8.200E-07,-3.680
8.300E-07,-3.680
8.400E-07,-3.680
8.500E-07,-3.760
8.600E-07,-3.720
8.700E-07,-3.800
8.800E-07,-3.840
8.900E-07,-3.840
9.000E-07,-3.880
9.100E-07,-3.880
9.200E-07,-3.920
9.300E-07,-3.960
9.400E-07,-3.960
9.500E-07,-4.000
9.600E-07,-4.040
9.700E-07,-4.120
9.800E-07,-4.200
9.900E-07,-4.360
1.000E-06,-4.480
1.010E-06,-4.680
1.020E-06,-4.880
1.030E-06,-5.160
1.040E-06,-5.240
1.050E-06,-5.240
1.060E-06,-5.240
1.070E-06,-5.200
1.080E-06,-5.200
1.090E-06,-5.240
1.100E-06,-5.240
1.110E-06,-5.240
1.120E-06,-5.240
1.130E-06,-5.240
1.140E-06,-5.200
1.150E-06,-5.240
1.160E-06,-5.200
1.170E-06,-5.240
1.180E-06,-5.240
1.190E-06,-5.200
1.200E-06,-5.240
1.210E-06,-5.200
1.220E-06,-5.240
1.230E-06,-5.240
1.240E-06,-5.240
1.250E-06,-5.240
1.260E-06,-5.240
1.270E-06,-5.240
1.280E-06,-5.240
1.290E-06,-5.240
1.300E-06,-5.240
1.310E-06,-5.240
1.320E-06,-5.240
1.330E-06,-5.240
1.340E-06,-5.240
1.350E-06,-5.240
1.360E-06,-5.240
1.370E-06,-5.240
1.380E-06,-5.200
1.390E-06,-5.200
1.400E-06,-5.240
1.410E-06,-5.200
1.420E-06,-5.200
1.430E-06,-5.240
1.440E-06,-5.240
1.450E-06,-5.200
1.460E-06,-5.240
1.470E-06,-5.200
1.480E-06,-5.240
1.490E-06,-5.240
1.500E-06,-5.240
1.510E-06,-5.240
1.520E-06,-5.240
1.530E-06,-5.240
1.540E-06,-5.240
1.550E-06,-5.240
1.560E-06,-5.240
1.570E-06,-5.200
1.580E-06,-5.240
1.590E-06,-5.240
1.600E-06,-5.240
1.610E-06,-5.240
1.620E-06,-5.240
1.630E-06,-5.240
1.640E-06,-5.200
1.650E-06,-5.200
1.660E-06,-5.240
1.670E-06,-5.240
1.680E-06,-5.160
1.690E-06,-5.040
1.700E-06,-4.880
1.710E-06,-4.720
1.720E-06,-4.600
1.730E-06,-4.520
1.740E-06,-4.400
1.750E-06,-4.320
1.760E-06,-4.160
1.770E-06,-4.120
1.780E-06,-3.960
1.790E-06,-3.840
1.800E-06,-3.720
1.810E-06,-3.680
1.820E-06,-3.600
1.830E-06,-3.600
1.840E-06,-3.640
1.850E-06,-3.560
1.860E-06,-3.560
1.870E-06,-3.520
1.880E-06,-3.520
1.890E-06,-3.560
1.900E-06,-3.600
1.910E-06,-3.560
1.920E-06,-3.600
1.930E-06,-3.640
1.940E-06,-3.720
1.950E-06,-3.800
1.960E-06,-3.760
1.970E-06,-3.800
1.980E-06,-3.760
1.990E-06,-3.680
2.000E-06,-3.680
2.010E-06,-3.600
2.020E-06,-3.520
2.030E-06,-3.480
2.040E-06,-3.440
2.050E-06,-3.400
2.060E-06,-3.360
2.070E-06,-3.360
2.080E-06,-3.360
2.090E-06,-3.320
2.100E-06,-3.320
2.110E-06,-3.400
2.120E-06,-3.480
2.130E-06,-3.560
2.140E-06,-3.600
2.150E-06,-3.640
2.160E-06,-3.640
2.170E-06,-3.520
2.180E-06,-3.440
2.190E-06,-3.280
2.200E-06,-3.160
2.210E-06,-3.040
2.220E-06,-2.880
2.230E-06,-2.640
2.240E-06,-2.520
2.250E-06,-2.320
2.260E-06,-2.200
2.270E-06,-2.240
2.280E-06,-2.200
2.290E-06,-2.160
2.300E-06,-2.200
2.310E-06,-2.240
2.320E-06,-2.360
2.330E-06,-2.440
2.340E-06,-2.560
2.350E-06,-2.720
2.360E-06,-2.880
2.370E-06,-2.960
2.380E-06,-3.080
2.390E-06,-3.160
2.400E-06,-3.280
2.410E-06,-3.360
2.420E-06,-3.400
2.430E-06,-3.400
2.440E-06,-3.360
2.450E-06,-3.400
2.460E-06,-3.360
2.470E-06,-3.280
2.480E-06,-3.200
2.490E-06,-3.080
2.500E-06,-3.000
2.510E-06,-2.920
2.520E-06,-2.840
2.530E-06,-2.680
2.540E-06,-2.640
2.550E-06,-2.520
2.560E-06,-2.480
2.570E-06,-2.480
2.580E-06,-2.360
2.590E-06,-2.360
2.600E-06,-2.280
2.610E-06,-2.240
2.620E-06,-2.160
2.630E-06,-2.080
2.640E-06,-2.080
2.650E-06,-1.960
2.660E-06,-1.920
2.670E-06,-1.840
2.680E-06,-1.840
2.690E-06,-1.800
2.700E-06,-1.800
2.710E-06,-1.680
2.720E-06,-1.680
2.730E-06,-1.560
2.740E-06,-1.520
2.750E-06,-1.480
2.760E-06,-1.360
2.770E-06,-1.320
2.780E-06,-1.280
2.790E-06,-1.160
2.800E-06,-1.040
2.810E-06,-0.960
2.820E-06,-1.000
2.830E-06,-1.000
2.840E-06,-1.040
2.850E-06,-0.960
2.860E-06,-0.920
2.870E-06,-0.920
2.880E-06,-1.000
2.890E-06,-1.000
2.900E-06,-1.120
2.910E-06,-1.120
2.920E-06,-1.200
2.930E-06,-1.240
2.940E-06,-1.280
2.950E-06,-1.360
2.960E-06,-1.440
2.970E-06,-1.400
2.980E-06,-1.440
2.990E-06,-1.480
3.000E-06,-1.520
3.010E-06,-1.440
3.020E-06,-1.440
3.030E-06,-1.480
3.040E-06,-1.440
3.050E-06,-1.400
3.060E-06,-1.320
3.070E-06,-1.360
3.080E-06,-1.280
3.090E-06,-1.240
3.100E-06,-1.160
3.110E-06,-1.120
3.120E-06,-1.160
3.130E-06,-1.160
3.140E-06,-1.160
3.150E-06,-1.200
3.160E-06,-1.160
3.170E-06,-1.200
3.180E-06,-1.200
3.190E-06,-1.160
3.200E-06,-1.240
3.210E-06,-1.280
3.220E-06,-1.320
3.230E-06,-1.320
3.240E-06,-1.360
3.250E-06,-1.400
3.260E-06,-1.400
3.270E-06,-1.400
3.280E-06,-1.480
3.290E-06,-1.440
3.300E-06,-1.440
3.310E-06,-1.360
3.320E-06,-1.360
3.330E-06,-1.320
3.340E-06,-1.240
3.350E-06,-1.240
3.360E-06,-1.160
3.370E-06,-1.120
3.380E-06,-1.080
3.390E-06,-1.000
3.400E-06,-0.920
3.410E-06,-0.880
3.420E-06,-0.800
3.430E-06,-0.760
3.440E-06,-0.640
3.450E-06,-0.560
3.460E-06,-0.560
3.470E-06,-0.440
3.480E-06,-0.360
3.490E-06,-0.280
3.500E-06,-0.200
3.510E-06,-0.120
3.520E-06,-0.080
3.530E-06,0.000
3.540E-06,0.040
3.550E-06,0.000
3.560E-06,0.040
3.570E-06,0.040
3.580E-06,0.000
3.590E-06,0.000
3.600E-06,-0.080
3.610E-06,0.000
3.620E-06,-0.080
3.630E-06,-0.120
3.640E-06,-0.200
3.650E-06,-0.280
3.660E-06,-0.320
3.670E-06,-0.400
3.680E-06,-0.400
3.690E-06,-0.440
3.700E-06,-0.440
3.710E-06,-0.400
3.720E-06,-0.360
3.730E-06,-0.320
3.740E-06,-0.320
3.750E-06,-0.320
3.760E-06,-0.360
3.770E-06,-0.360
3.780E-06,-0.320
3.790E-06,-0.400
3.800E-06,-0.360
3.810E-06,-0.400
3.820E-06,-0.440
3.830E-06,-0.440
3.840E-06,-0.480
3.850E-06,-0.480
3.860E-06,-0.480
3.870E-06,-0.520
3.880E-06,-0.480
3.890E-06,-0.440
3.900E-06,-0.480
3.910E-06,-0.480
3.920E-06,-0.440
3.930E-06,-0.440
3.940E-06,-0.480
3.950E-06,-0.560
3.960E-06,-0.600
3.970E-06,-0.640
3.980E-06,-0.680
3.990E-06,-0.720
4.000E-06,-0.640
4.010E-06,-0.640
4.020E-06,-0.560
4.030E-06,-0.480
4.040E-06,-0.400
4.050E-06,-0.320
4.060E-06,-0.320
4.070E-06,-0.320
4.080E-06,-0.240
4.090E-06,-0.240
4.100E-06,-0.280
4.110E-06,-0.320
4.120E-06,-0.320
4.130E-06,-0.400
4.140E-06,-0.440
4.150E-06,-0.440
4.160E-06,-0.480
4.170E-06,-0.520
4.180E-06,-0.560
4.190E-06,-0.600
4.200E-06,-0.640
4.210E-06,-0.680
4.220E-06,-0.680
4.230E-06,-0.760
4.240E-06,-0.840
4.250E-06,-0.880
4.260E-06,-0.920
4.270E-06,-1.000
4.280E-06,-1.040
4.290E-06,-1.000
4.300E-06,-1.000
4.310E-06,-1.040
4.320E-06,-1.000
4.330E-06,-0.960
4.340E-06,-1.000
4.350E-06,-0.960
4.360E-06,-1.040
4.370E-06,-1.000
4.380E-06,-1.040
4.390E-06,-1.000
4.400E-06,-1.000
4.410E-06,-1.000
4.420E-06,-0.920
4.430E-06,-0.840
4.440E-06,-0.840
4.450E-06,-0.840
4.460E-06,-0.800
4.470E-06,-0.760
4.480E-06,-0.680
4.490E-06,-0.680
4.500E-06,-0.640
4.510E-06,-0.680
4.520E-06,-0.760
4.530E-06,-0.800
4.540E-06,-0.920
4.550E-06,-1.000
4.560E-06,-1.160
4.570E-06,-1.200
4.580E-06,-1.320
4.590E-06,-1.360
4.600E-06,-1.440
4.610E-06,-1.360
4.620E-06,-1.320
4.630E-06,-1.240
4.640E-06,-1.160
4.650E-06,-0.960
4.660E-06,-0.880
4.670E-06,-0.840
4.680E-06,-0.720
4.690E-06,-0.760
4.700E-06,-0.720
4.710E-06,-0.680
4.720E-06,-0.760
4.730E-06,-0.720
4.740E-06,-0.640
4.750E-06,-0.640
4.760E-06,-0.560
4.770E-06,-0.600
4.780E-06,-0.520
4.790E-06,-0.440
4.800E-06,-0.480
4.810E-06,-0.360
4.820E-06,-0.240
4.830E-06,-0.240
4.840E-06,-0.200
4.850E-06,-0.200
4.860E-06,-0.120
4.870E-06,-0.160
4.880E-06,-0.120
4.890E-06,-0.080
4.900E-06,-0.160
4.910E-06,-0.280
4.920E-06,-0.360
4.930E-06,-0.440
4.940E-06,-0.400
4.950E-06,-0.360
4.960E-06,-0.360
4.970E-06,-0.360
4.980E-06,-0.320
4.990E-06,-0.360
5.000E-06,-0.280
5.010E-06,-0.120
5.020E-06,-0.080
5.030E-06,0.000
5.040E-06,0.040
5.050E-06,0.080
5.060E-06,0.120
5.070E-06,0.080
5.080E-06,0.160
5.090E-06,0.240
5.100E-06,0.240
5.110E-06,0.200
5.120E-06,0.320
5.130E-06,0.360
5.140E-06,0.400
5.150E-06,0.320
5.160E-06,0.320
5.170E-06,0.360
5.180E-06,0.200
5.190E-06,0.160
5.200E-06,0.160
5.210E-06,0.120
5.220E-06,0.080
5.230E-06,0.080
5.240E-06,0.080
5.250E-06,0.000
5.260E-06,0.000
5.270E-06,0.000
5.280E-06,-0.040
5.290E-06,-0.080
5.300E-06,-0.080
5.310E-06,-0.080
5.320E-06,-0.120
5.330E-06,-0.080
5.340E-06,0.040
5.350E-06,0.080
5.360E-06,0.120
5.370E-06,0.080
5.380E-06,0.160
5.390E-06,0.200
5.400E-06,0.160
5.410E-06,0.160
5.420E-06,0.200
5.430E-06,0.160
5.440E-06,0.200
5.450E-06,0.200
5.460E-06,0.120
5.470E-06,0.160
5.480E-06,0.200
5.490E-06,0.160
5.500E-06,0.240
5.510E-06,0.240
5.520E-06,0.160
5.530E-06,0.200
5.540E-06,0.240
5.550E-06,0.200
5.560E-06,0.240
5.570E-06,0.160
5.580E-06,0.160
5.590E-06,0.240
5.600E-06,0.200
5.610E-06,0.240
5.620E-06,0.280
5.630E-06,0.320
5.640E-06,0.320
5.650E-06,0.400
5.660E-06,0.360
5.670E-06,0.360
5.680E-06,0.400
5.690E-06,0.400
5.700E-06,0.440
5.710E-06,0.440
5.720E-06,0.440
5.730E-06,0.440
5.740E-06,0.440
5.750E-06,0.480
5.760E-06,0.480
5.770E-06,0.480
5.780E-06,0.480
5.790E-06,0.520
5.800E-06,0.520
5.810E-06,0.440
5.820E-06,0.440
5.830E-06,0.400
5.840E-06,0.400
5.850E-06,0.400
5.860E-06,0.360
5.870E-06,0.360
5.880E-06,0.360
5.890E-06,0.360
5.900E-06,0.360
5.910E-06,0.360
5.920E-06,0.320
5.930E-06,0.280
5.940E-06,0.280
5.950E-06,0.200
5.960E-06,0.240
5.970E-06,0.240
5.980E-06,0.240
5.990E-06,0.200
6.000E-06,0.160
6.010E-06,0.200
6.020E-06,0.200
6.030E-06,0.280
6.040E-06,0.240
6.050E-06,0.240
6.060E-06,0.320
6.070E-06,0.360
6.080E-06,0.360
6.090E-06,0.360
6.100E-06,0.400
6.110E-06,0.480
6.120E-06,0.520
6.130E-06,0.480
