mediciones/5-27/-60/WaveData50368.csv

#timebase=2000000(ps)
,#voltbase=1000000(mv/100)
#size=4000
-5.650E-06,0.160
-5.640E-06,0.040
-5.630E-06,0.040
-5.620E-06,0.120
-5.610E-06,0.000
-5.600E-06,0.040
-5.590E-06,0.000
-5.580E-06,0.120
-5.570E-06,0.040
-5.560E-06,0.040
-5.550E-06,0.120
-5.540E-06,0.000
-5.530E-06,0.040
-5.520E-06,0.040
-5.510E-06,0.080
-5.500E-06,0.040
-5.490E-06,0.040
-5.480E-06,0.080
-5.470E-06,0.000
-5.460E-06,0.040
-5.450E-06,0.040
-5.440E-06,0.080
-5.430E-06,0.080
-5.420E-06,0.080
-5.410E-06,0.080
-5.400E-06,0.120
-5.390E-06,0.120
-5.380E-06,0.000
-5.370E-06,0.080
-5.360E-06,0.040
-5.350E-06,0.040
-5.340E-06,0.000
-5.330E-06,0.080
-5.320E-06,0.040
-5.310E-06,0.080
-5.300E-06,0.040
-5.290E-06,0.040
-5.280E-06,0.000
-5.270E-06,0.080
-5.260E-06,0.120
-5.250E-06,0.080
-5.240E-06,0.120
-5.230E-06,0.040
-5.220E-06,0.120
-5.210E-06,0.080
-5.200E-06,0.080
-5.190E-06,0.040
-5.180E-06,0.000
-5.170E-06,0.080
-5.160E-06,0.040
-5.150E-06,0.080
-5.140E-06,0.040
-5.130E-06,0.000
-5.120E-06,0.080
-5.110E-06,0.040
-5.100E-06,0.000
-5.090E-06,0.080
-5.080E-06,0.040
-5.070E-06,0.080
-5.060E-06,0.080
-5.050E-06,0.040
-5.040E-06,0.040
-5.030E-06,0.000
-5.020E-06,0.080
-5.010E-06,0.120
-5.000E-06,0.080
-4.990E-06,0.040
-4.980E-06,0.000
-4.970E-06,0.000
-4.960E-06,0.040
-4.950E-06,0.040
-4.940E-06,0.040
-4.930E-06,0.040
-4.920E-06,0.000
-4.910E-06,0.040
-4.900E-06,0.000
-4.890E-06,0.040
-4.880E-06,0.080
-4.870E-06,0.040
-4.860E-06,0.080
-4.850E-06,0.040
-4.840E-06,0.040
-4.830E-06,0.080
-4.820E-06,0.080
-4.810E-06,0.080
-4.800E-06,0.080
-4.790E-06,0.000
-4.780E-06,0.080
-4.770E-06,0.080
-4.760E-06,0.080
-4.750E-06,0.080
-4.740E-06,0.040
-4.730E-06,0.080
-4.720E-06,0.000
-4.710E-06,0.080
-4.700E-06,0.080
-4.690E-06,0.040
-4.680E-06,0.080
-4.670E-06,0.040
-4.660E-06,0.040
-4.650E-06,0.040
-4.640E-06,0.040
-4.630E-06,0.040
-4.620E-06,0.120
-4.610E-06,0.120
-4.600E-06,0.080
-4.590E-06,0.040
-4.580E-06,-0.040
-4.570E-06,0.040
-4.560E-06,0.000
-4.550E-06,0.080
-4.540E-06,0.080
-4.530E-06,0.040
-4.520E-06,0.080
-4.510E-06,-0.040
-4.500E-06,0.000
-4.490E-06,0.040
-4.480E-06,0.120
-4.470E-06,0.040
-4.460E-06,0.040
-4.450E-06,0.040
-4.440E-06,0.040
-4.430E-06,-0.040
-4.420E-06,0.080
-4.410E-06,0.080
-4.400E-06,0.000
-4.390E-06,0.040
-4.380E-06,0.000
-4.370E-06,0.000
-4.360E-06,0.000
-4.350E-06,0.040
-4.340E-06,0.000
-4.330E-06,0.080
-4.320E-06,0.120
-4.310E-06,-0.040
-4.300E-06,0.040
-4.290E-06,0.040
-4.280E-06,0.040
-4.270E-06,0.000
-4.260E-06,0.040
-4.250E-06,0.080
-4.240E-06,0.120
-4.230E-06,0.000
-4.220E-06,0.040
-4.210E-06,0.040
-4.200E-06,0.080
-4.190E-06,0.040
-4.180E-06,0.040
-4.170E-06,0.080
-4.160E-06,0.040
-4.150E-06,0.040
-4.140E-06,0.040
-4.130E-06,0.000
-4.120E-06,0.080
-4.110E-06,0.000
-4.100E-06,0.000
-4.090E-06,0.040
-4.080E-06,0.040
-4.070E-06,0.080
-4.060E-06,0.080
-4.050E-06,0.000
-4.040E-06,0.040
-4.030E-06,0.040
-4.020E-06,0.000
-4.010E-06,0.040
-4.000E-06,-0.040
-3.990E-06,0.040
-3.980E-06,0.000
-3.970E-06,0.040
-3.960E-06,-0.040
-3.950E-06,0.080
-3.940E-06,0.000
-3.930E-06,0.000
-3.920E-06,0.040
-3.910E-06,0.080
-3.900E-06,0.000
-3.890E-06,0.000
-3.880E-06,0.080
-3.870E-06,0.040
-3.860E-06,0.040
-3.850E-06,0.040
-3.840E-06,0.040
-3.830E-06,0.040
-3.820E-06,0.000
-3.810E-06,0.040
-3.800E-06,0.040
-3.790E-06,0.040
-3.780E-06,0.000
-3.770E-06,0.080
-3.760E-06,0.040
-3.750E-06,0.040
-3.740E-06,0.000
-3.730E-06,0.000
-3.720E-06,0.080
-3.710E-06,0.040
-3.700E-06,0.040
-3.690E-06,0.040
-3.680E-06,0.040
-3.670E-06,0.080
-3.660E-06,0.040
-3.650E-06,0.080
-3.640E-06,0.040
-3.630E-06,0.080
-3.620E-06,0.040
-3.610E-06,0.040
-3.600E-06,0.040
-3.590E-06,0.040
-3.580E-06,0.000
-3.570E-06,0.040
-3.560E-06,0.040
-3.550E-06,0.040
-3.540E-06,0.000
-3.530E-06,0.000
-3.520E-06,0.080
-3.510E-06,0.040
-3.500E-06,0.040
-3.490E-06,0.040
-3.480E-06,0.040
-3.470E-06,0.040
-3.460E-06,0.040
-3.450E-06,0.040
-3.440E-06,0.040
-3.430E-06,0.040
-3.420E-06,0.080
-3.410E-06,0.000
-3.400E-06,0.040
-3.390E-06,0.000
-3.380E-06,0.040
-3.370E-06,0.120
-3.360E-06,0.120
-3.350E-06,-0.040
-3.340E-06,0.040
-3.330E-06,0.040
-3.320E-06,0.000
-3.310E-06,0.080
-3.300E-06,-0.040
-3.290E-06,0.080
-3.280E-06,0.000
-3.270E-06,0.080
-3.260E-06,0.040
-3.250E-06,0.040
-3.240E-06,0.080
-3.230E-06,0.000
-3.220E-06,0.040
-3.210E-06,0.040
-3.200E-06,0.080
-3.190E-06,0.080
-3.180E-06,0.080
-3.170E-06,0.120
-3.160E-06,0.080
-3.150E-06,0.080
-3.140E-06,0.000
-3.130E-06,0.040
-3.120E-06,0.040
-3.110E-06,0.040
-3.100E-06,0.080
-3.090E-06,0.040
-3.080E-06,0.000
-3.070E-06,0.040
-3.060E-06,0.040
-3.050E-06,0.000
-3.040E-06,0.040
-3.030E-06,0.040
-3.020E-06,0.000
-3.010E-06,0.040
-3.000E-06,0.000
-2.990E-06,0.000
-2.980E-06,0.040
-2.970E-06,0.000
-2.960E-06,0.080
-2.950E-06,-0.040
-2.940E-06,0.120
-2.930E-06,0.040
-2.920E-06,0.000
-2.910E-06,0.080
-2.900E-06,0.000
-2.890E-06,0.040
-2.880E-06,0.040
-2.870E-06,0.080
-2.860E-06,0.080
-2.850E-06,-0.040
-2.840E-06,0.000
-2.830E-06,0.080
-2.820E-06,0.000
-2.810E-06,0.080
-2.800E-06,-0.040
-2.790E-06,0.040
-2.780E-06,0.040
-2.770E-06,0.000
-2.760E-06,0.040
-2.750E-06,0.040
-2.740E-06,0.040
-2.730E-06,0.040
-2.720E-06,0.080
-2.710E-06,0.040
-2.700E-06,0.040
-2.690E-06,0.080
-2.680E-06,0.000
-2.670E-06,0.040
-2.660E-06,0.000
-2.650E-06,0.080
-2.640E-06,0.080
-2.630E-06,-0.040
-2.620E-06,0.080
-2.610E-06,-0.040
-2.600E-06,0.040
-2.590E-06,-0.040
-2.580E-06,0.040
-2.570E-06,0.080
-2.560E-06,0.000
-2.550E-06,0.080
-2.540E-06,0.000
-2.530E-06,0.040
-2.520E-06,0.040
-2.510E-06,0.000
-2.500E-06,0.040
-2.490E-06,0.040
-2.480E-06,0.000
-2.470E-06,0.120
-2.460E-06,0.080
-2.450E-06,0.080
-2.440E-06,0.080
-2.430E-06,-0.040
-2.420E-06,0.040
-2.410E-06,0.000
-2.400E-06,0.040
-2.390E-06,0.080
-2.380E-06,0.040
-2.370E-06,0.000
-2.360E-06,0.040
-2.350E-06,0.040
-2.340E-06,0.080
-2.330E-06,0.080
-2.320E-06,0.000
-2.310E-06,0.040
-2.300E-06,0.040
-2.290E-06,0.040
-2.280E-06,0.000
-2.270E-06,0.040
-2.260E-06,0.000
-2.250E-06,0.040
-2.240E-06,0.080
-2.230E-06,0.080
-2.220E-06,0.000
-2.210E-06,0.000
-2.200E-06,0.040
-2.190E-06,0.080
-2.180E-06,0.000
-2.170E-06,-0.040
-2.160E-06,0.120
-2.150E-06,-0.040
-2.140E-06,0.040
-2.130E-06,0.040
-2.120E-06,0.000
-2.110E-06,0.040
-2.100E-06,-0.040
-2.090E-06,0.160
-2.080E-06,0.040
-2.070E-06,0.080
-2.060E-06,0.120
-2.050E-06,0.040
-2.040E-06,0.000
-2.030E-06,-0.040
-2.020E-06,0.160
-2.010E-06,0.160
-2.000E-06,0.120
-1.990E-06,0.040
-1.980E-06,0.040
-1.970E-06,0.040
-1.960E-06,0.120
-1.950E-06,0.360
-1.940E-06,0.400
-1.930E-06,0.320
-1.920E-06,0.200
-1.910E-06,0.160
-1.900E-06,0.200
-1.890E-06,0.200
-1.880E-06,0.320
-1.870E-06,0.360
-1.860E-06,0.320
-1.850E-06,0.280
-1.840E-06,0.160
-1.830E-06,0.160
-1.820E-06,0.240
-1.810E-06,0.200
-1.800E-06,0.240
-1.790E-06,0.200
-1.780E-06,0.080
-1.770E-06,0.040
-1.760E-06,0.080
-1.750E-06,0.080
-1.740E-06,0.040
-1.730E-06,0.080
-1.720E-06,0.120
-1.710E-06,0.080
-1.700E-06,0.000
-1.690E-06,0.040
-1.680E-06,0.000
-1.670E-06,0.040
-1.660E-06,0.080
-1.650E-06,0.040
-1.640E-06,0.000
-1.630E-06,0.000
-1.620E-06,0.000
-1.610E-06,0.000
-1.600E-06,0.000
-1.590E-06,0.000
-1.580E-06,0.000
-1.570E-06,0.000
-1.560E-06,0.040
-1.550E-06,-0.040
-1.540E-06,0.040
-1.530E-06,0.040
-1.520E-06,0.040
-1.510E-06,0.040
-1.500E-06,0.040
-1.490E-06,0.080
-1.480E-06,0.120
-1.470E-06,0.040
-1.460E-06,0.040
-1.450E-06,0.080
-1.440E-06,0.080
-1.430E-06,0.080
-1.420E-06,0.120
-1.410E-06,0.160
-1.400E-06,0.120
-1.390E-06,0.080
-1.380E-06,0.120
-1.370E-06,0.040
-1.360E-06,0.080
-1.350E-06,0.080
-1.340E-06,0.080
-1.330E-06,0.080
-1.320E-06,0.080
-1.310E-06,0.080
-1.300E-06,0.040
-1.290E-06,0.000
-1.280E-06,0.040
-1.270E-06,0.000
-1.260E-06,0.040
-1.250E-06,0.040
-1.240E-06,0.040
-1.230E-06,0.000
-1.220E-06,-0.040
-1.210E-06,-0.040
-1.200E-06,0.040
-1.190E-06,0.000
-1.180E-06,0.040
-1.170E-06,0.000
-1.160E-06,0.040
-1.150E-06,0.000
-1.140E-06,0.000
-1.130E-06,0.080
-1.120E-06,0.120
-1.110E-06,0.040
-1.100E-06,0.040
-1.090E-06,0.080
-1.080E-06,0.080
-1.070E-06,0.040
-1.060E-06,0.080
-1.050E-06,0.080
-1.040E-06,0.080
-1.030E-06,0.040
-1.020E-06,0.080
-1.010E-06,0.080
-1.000E-06,0.040
-9.900E-07,0.080
-9.800E-07,0.080
-9.700E-07,0.080
-9.600E-07,0.080
-9.500E-07,0.000
-9.400E-07,0.000
-9.300E-07,0.040
-9.200E-07,0.040
-9.100E-07,0.040
-9.000E-07,0.040
-8.900E-07,0.040
-8.800E-07,0.040
-8.700E-07,0.040
-8.600E-07,0.040
-8.500E-07,0.000
-8.400E-07,0.000
-8.300E-07,0.000
-8.200E-07,0.040
-8.100E-07,0.040
-8.000E-07,0.000
-7.900E-07,0.040
-7.800E-07,0.040
-7.700E-07,0.040
-7.600E-07,0.080
-7.500E-07,-0.040
-7.400E-07,0.040
-7.300E-07,0.040
-7.200E-07,0.040
-7.100E-07,0.040
-7.000E-07,0.080
-6.900E-07,0.080
-6.800E-07,0.080
-6.700E-07,0.040
-6.600E-07,0.120
-6.500E-07,0.040
-6.400E-07,0.080
-6.300E-07,0.080
-6.200E-07,0.080
-6.100E-07,0.120
-6.000E-07,0.080
-5.900E-07,0.080
-5.800E-07,0.120
-5.700E-07,0.120
-5.600E-07,0.160
-5.500E-07,0.120
-5.400E-07,0.160
-5.300E-07,0.160
-5.200E-07,0.160
-5.100E-07,0.160
-5.000E-07,0.160
-4.900E-07,0.160
-4.800E-07,0.120
-4.700E-07,0.200
-4.600E-07,0.120
-4.500E-07,0.120
-4.400E-07,0.200
-4.300E-07,0.160
-4.200E-07,0.200
-4.100E-07,0.160
-4.000E-07,0.160
-3.900E-07,0.200
-3.800E-07,0.240
-3.700E-07,0.240
-3.600E-07,0.200
-3.500E-07,0.240
-3.400E-07,0.280
-3.300E-07,0.320
-3.200E-07,0.280
-3.100E-07,0.320
-3.000E-07,0.320
-2.900E-07,0.320
-2.800E-07,0.360
-2.700E-07,0.320
-2.600E-07,0.360
-2.500E-07,0.400
-2.400E-07,0.360
-2.300E-07,0.400
-2.200E-07,0.400
-2.100E-07,0.440
-2.000E-07,0.440
-1.900E-07,0.440
-1.800E-07,0.480
-1.700E-07,0.520
-1.600E-07,0.440
-1.500E-07,0.520
-1.400E-07,0.440
-1.300E-07,0.520
-1.200E-07,0.520
-1.100E-07,0.480
-1.000E-07,0.480
-9.000E-08,0.480
-8.000E-08,0.480
-7.000E-08,0.520
-6.000E-08,0.520
-5.000E-08,0.480
-4.000E-08,0.480
-3.000E-08,0.520
-2.000E-08,0.480
-1.000E-08,0.480
0.000E+00,0.480
1.000E-08,0.480
2.000E-08,0.480
3.000E-08,0.480
4.000E-08,0.480
5.000E-08,0.440
6.000E-08,0.480
7.000E-08,0.480
8.000E-08,0.440
9.000E-08,0.440
1.000E-07,0.480
1.100E-07,0.440
1.200E-07,0.480
1.300E-07,0.440
1.400E-07,0.440
1.500E-07,0.440
1.600E-07,0.480
1.700E-07,0.440
1.800E-07,0.440
1.900E-07,0.440
2.000E-07,0.480
2.100E-07,0.480
2.200E-07,0.480
2.300E-07,0.480
2.400E-07,0.480
2.500E-07,0.480
2.600E-07,0.520
2.700E-07,0.480
2.800E-07,0.520
2.900E-07,0.520
3.000E-07,0.520
3.100E-07,0.520
3.200E-07,0.480
3.300E-07,0.520
3.400E-07,0.480
3.500E-07,0.520
3.600E-07,0.520
3.700E-07,0.480
3.800E-07,0.520
3.900E-07,0.520
4.000E-07,0.520
4.100E-07,0.560
4.200E-07,0.560
4.300E-07,0.560
4.400E-07,0.600
4.500E-07,0.560
4.600E-07,0.600
4.700E-07,0.600
4.800E-07,0.600
4.900E-07,0.600
5.000E-07,0.680
5.100E-07,0.680
5.200E-07,0.600
5.300E-07,0.600
5.400E-07,0.640
5.500E-07,0.640
5.600E-07,0.680
5.700E-07,0.640
5.800E-07,0.600
5.900E-07,0.600
6.000E-07,0.640
6.100E-07,0.640
6.200E-07,0.680
6.300E-07,0.600
6.400E-07,0.680
6.500E-07,0.680
6.600E-07,0.600
6.700E-07,0.600
6.800E-07,0.600
6.900E-07,0.560
7.000E-07,0.560
7.100E-07,0.520
7.200E-07,0.480
7.300E-07,0.520
7.400E-07,0.440
7.500E-07,0.400
7.600E-07,0.360
7.700E-07,0.320
7.800E-07,0.320
7.900E-07,0.240
8.000E-07,0.200
8.100E-07,0.200
8.200E-07,0.120
8.300E-07,0.080
8.400E-07,0.040
8.500E-07,0.000
8.600E-07,-0.080
8.700E-07,-0.120
8.800E-07,-0.200
8.900E-07,-0.240
9.000E-07,-0.320
9.100E-07,-0.440
9.200E-07,-0.520
9.300E-07,-0.600
9.400E-07,-0.640
9.500E-07,-0.680
9.600E-07,-0.840
9.700E-07,-0.920
9.800E-07,-1.000
9.900E-07,-1.080
1.000E-06,-1.120
1.010E-06,-1.200
1.020E-06,-1.360
1.030E-06,-1.400
1.040E-06,-1.560
1.050E-06,-1.600
1.060E-06,-1.680
1.070E-06,-1.760
1.080E-06,-1.800
1.090E-06,-1.920
1.100E-06,-2.040
1.110E-06,-2.160
1.120E-06,-2.240
1.130E-06,-2.280
1.140E-06,-2.400
1.150E-06,-2.440
1.160E-06,-2.520
1.170E-06,-2.600
1.180E-06,-2.680
1.190E-06,-2.760
1.200E-06,-2.880
1.210E-06,-2.880
1.220E-06,-3.000
1.230E-06,-3.080
1.240E-06,-3.200
1.250E-06,-3.200
1.260E-06,-3.280
1.270E-06,-3.360
1.280E-06,-3.400
1.290E-06,-3.520
1.300E-06,-3.600
1.310E-06,-3.680
1.320E-06,-3.680
1.330E-06,-3.800
1.340E-06,-3.800
1.350E-06,-3.840
1.360E-06,-3.920
1.370E-06,-3.960
1.380E-06,-4.000
1.390E-06,-4.040
1.400E-06,-4.120
1.410E-06,-4.160
1.420E-06,-4.200
1.430E-06,-4.200
1.440E-06,-4.240
1.450E-06,-4.240
1.460E-06,-4.240
1.470E-06,-4.280
1.480E-06,-4.320
1.490E-06,-4.320
1.500E-06,-4.400
1.510E-06,-4.400
1.520E-06,-4.400
1.530E-06,-4.400
1.540E-06,-4.400
1.550E-06,-4.440
1.560E-06,-4.440
1.570E-06,-4.440
1.580E-06,-4.480
1.590E-06,-4.520
1.600E-06,-4.480
1.610E-06,-4.520
1.620E-06,-4.480
1.630E-06,-4.520
1.640E-06,-4.560
1.650E-06,-4.560
1.660E-06,-4.560
1.670E-06,-4.600
1.680E-06,-4.560
1.690E-06,-4.600
1.700E-06,-4.520
1.710E-06,-4.560
1.720E-06,-4.480
1.730E-06,-4.440
1.740E-06,-4.480
1.750E-06,-4.400
1.760E-06,-4.360
1.770E-06,-4.320
1.780E-06,-4.320
1.790E-06,-4.320
1.800E-06,-4.200
1.810E-06,-4.240
1.820E-06,-4.240
1.830E-06,-4.280
1.840E-06,-4.240
1.850E-06,-4.360
1.860E-06,-4.520
1.870E-06,-4.760
1.880E-06,-5.080
1.890E-06,-5.200
1.900E-06,-5.240
1.910E-06,-5.240
1.920E-06,-5.200
1.930E-06,-5.240
1.940E-06,-5.200
1.950E-06,-5.200
1.960E-06,-5.240
1.970E-06,-5.240
1.980E-06,-5.200
1.990E-06,-5.240
2.000E-06,-5.200
2.010E-06,-5.200
2.020E-06,-5.240
2.030E-06,-5.240
2.040E-06,-5.200
2.050E-06,-5.240
2.060E-06,-5.240
2.070E-06,-5.200
2.080E-06,-5.240
2.090E-06,-5.240
2.100E-06,-5.200
2.110E-06,-5.240
2.120E-06,-5.240
2.130E-06,-5.200
2.140E-06,-5.240
2.150E-06,-5.240
2.160E-06,-5.200
2.170E-06,-5.200
2.180E-06,-5.240
2.190E-06,-5.200
2.200E-06,-5.200
2.210E-06,-5.200
2.220E-06,-5.200
2.230E-06,-5.200
2.240E-06,-5.200
2.250E-06,-5.200
2.260E-06,-5.200
2.270E-06,-5.240
2.280E-06,-5.240
2.290E-06,-5.200
2.300E-06,-5.240
2.310E-06,-5.240
2.320E-06,-5.240
2.330E-06,-5.200
2.340E-06,-5.240
2.350E-06,-5.200
2.360E-06,-5.200
2.370E-06,-5.200
2.380E-06,-5.240
2.390E-06,-5.240
2.400E-06,-5.200
2.410E-06,-5.200
2.420E-06,-5.240
2.430E-06,-5.200
2.440E-06,-5.200
2.450E-06,-5.200
2.460E-06,-5.240
2.470E-06,-5.240
2.480E-06,-5.200
2.490E-06,-5.200
2.500E-06,-5.200
2.510E-06,-5.200
2.520E-06,-5.240
2.530E-06,-5.200
2.540E-06,-5.200
2.550E-06,-5.240
2.560E-06,-5.200
2.570E-06,-5.000
2.580E-06,-4.840
2.590E-06,-4.640
2.600E-06,-4.440
2.610E-06,-4.320
2.620E-06,-4.040
2.630E-06,-3.880
2.640E-06,-3.640
2.650E-06,-3.480
2.660E-06,-3.320
2.670E-06,-3.120
2.680E-06,-3.040
2.690E-06,-2.800
2.700E-06,-2.720
2.710E-06,-2.640
2.720E-06,-2.600
2.730E-06,-2.520
2.740E-06,-2.480
2.750E-06,-2.480
2.760E-06,-2.400
2.770E-06,-2.320
2.780E-06,-2.280
2.790E-06,-2.200
2.800E-06,-2.080
2.810E-06,-2.000
2.820E-06,-1.960
2.830E-06,-1.840
2.840E-06,-1.840
2.850E-06,-1.720
2.860E-06,-1.680
2.870E-06,-1.680
2.880E-06,-1.640
2.890E-06,-1.560
2.900E-06,-1.600
2.910E-06,-1.600
2.920E-06,-1.600
2.930E-06,-1.560
2.940E-06,-1.560
2.950E-06,-1.600
2.960E-06,-1.560
2.970E-06,-1.560
2.980E-06,-1.640
2.990E-06,-1.640
3.000E-06,-1.680
3.010E-06,-1.640
3.020E-06,-1.640
3.030E-06,-1.640
3.040E-06,-1.680
3.050E-06,-1.680
3.060E-06,-1.680
3.070E-06,-1.640
3.080E-06,-1.720
3.090E-06,-1.760
3.100E-06,-1.800
3.110E-06,-1.840
3.120E-06,-1.920
3.130E-06,-1.920
3.140E-06,-2.000
3.150E-06,-2.040
3.160E-06,-2.000
3.170E-06,-2.080
3.180E-06,-2.040
3.190E-06,-2.000
3.200E-06,-2.000
3.210E-06,-2.000
3.220E-06,-1.880
3.230E-06,-1.840
3.240E-06,-1.840
3.250E-06,-1.760
3.260E-06,-1.680
3.270E-06,-1.600
3.280E-06,-1.480
3.290E-06,-1.400
3.300E-06,-1.360
3.310E-06,-1.280
3.320E-06,-1.160
3.330E-06,-1.080
3.340E-06,-1.000
3.350E-06,-0.960
3.360E-06,-0.880
3.370E-06,-0.840
3.380E-06,-0.800
3.390E-06,-0.800
3.400E-06,-0.760
3.410E-06,-0.720
3.420E-06,-0.720
3.430E-06,-0.720
3.440E-06,-0.680
3.450E-06,-0.720
3.460E-06,-0.720
3.470E-06,-0.640
3.480E-06,-0.680
3.490E-06,-0.640
3.500E-06,-0.560
3.510E-06,-0.600
3.520E-06,-0.600
3.530E-06,-0.640
3.540E-06,-0.680
3.550E-06,-0.720
3.560E-06,-0.760
3.570E-06,-0.840
3.580E-06,-0.920
3.590E-06,-1.040
3.600E-06,-1.040
3.610E-06,-1.160
3.620E-06,-1.280
3.630E-06,-1.320
3.640E-06,-1.440
3.650E-06,-1.560
3.660E-06,-1.560
3.670E-06,-1.600
3.680E-06,-1.680
3.690E-06,-1.680
3.700E-06,-1.600
3.710E-06,-1.600
3.720E-06,-1.560
3.730E-06,-1.520
3.740E-06,-1.480
3.750E-06,-1.440
3.760E-06,-1.440
3.770E-06,-1.360
3.780E-06,-1.320
3.790E-06,-1.320
3.800E-06,-1.320
3.810E-06,-1.360
3.820E-06,-1.360
3.830E-06,-1.440
3.840E-06,-1.480
3.850E-06,-1.560
3.860E-06,-1.600
3.870E-06,-1.680
3.880E-06,-1.680
3.890E-06,-1.720
3.900E-06,-1.720
3.910E-06,-1.720
3.920E-06,-1.720
3.930E-06,-1.720
3.940E-06,-1.720
3.950E-06,-1.720
3.960E-06,-1.720
3.970E-06,-1.560
3.980E-06,-1.560
3.990E-06,-1.440
4.000E-06,-1.440
4.010E-06,-1.360
4.020E-06,-1.280
4.030E-06,-1.200
4.040E-06,-1.200
4.050E-06,-1.080
4.060E-06,-1.000
4.070E-06,-0.960
4.080E-06,-0.880
4.090E-06,-0.880
4.100E-06,-0.840
4.110E-06,-0.840
4.120E-06,-0.840
4.130E-06,-0.840
4.140E-06,-0.840
4.150E-06,-0.840
4.160E-06,-0.800
4.170E-06,-0.800
4.180E-06,-0.760
4.190E-06,-0.640
4.200E-06,-0.680
4.210E-06,-0.640
4.220E-06,-0.560
4.230E-06,-0.520
4.240E-06,-0.480
4.250E-06,-0.480
4.260E-06,-0.400
4.270E-06,-0.400
4.280E-06,-0.400
4.290E-06,-0.400
4.300E-06,-0.480
4.310E-06,-0.520
4.320E-06,-0.480
4.330E-06,-0.520
4.340E-06,-0.560
4.350E-06,-0.640
4.360E-06,-0.680
4.370E-06,-0.640
4.380E-06,-0.680
4.390E-06,-0.720
4.400E-06,-0.760
4.410E-06,-0.760
4.420E-06,-0.760
4.430E-06,-0.800
4.440E-06,-0.760
4.450E-06,-0.760
4.460E-06,-0.720
4.470E-06,-0.680
4.480E-06,-0.640
4.490E-06,-0.600
4.500E-06,-0.560
4.510E-06,-0.480
4.520E-06,-0.480
4.530E-06,-0.360
4.540E-06,-0.400
4.550E-06,-0.320
4.560E-06,-0.320
4.570E-06,-0.360
4.580E-06,-0.360
4.590E-06,-0.240
4.600E-06,-0.280
4.610E-06,-0.360
4.620E-06,-0.320
4.630E-06,-0.320
4.640E-06,-0.360
4.650E-06,-0.320
4.660E-06,-0.360
4.670E-06,-0.360
4.680E-06,-0.320
4.690E-06,-0.400
4.700E-06,-0.320
4.710E-06,-0.360
4.720E-06,-0.320
4.730E-06,-0.320
4.740E-06,-0.280
4.750E-06,-0.320
4.760E-06,-0.320
4.770E-06,-0.240
4.780E-06,-0.280
4.790E-06,-0.160
4.800E-06,-0.200
4.810E-06,-0.160
4.820E-06,-0.120
4.830E-06,-0.200
4.840E-06,-0.240
4.850E-06,-0.240
4.860E-06,-0.240
4.870E-06,-0.320
4.880E-06,-0.360
4.890E-06,-0.400
4.900E-06,-0.480
4.910E-06,-0.520
4.920E-06,-0.600
4.930E-06,-0.560
4.940E-06,-0.640
4.950E-06,-0.640
4.960E-06,-0.640
4.970E-06,-0.600
4.980E-06,-0.520
4.990E-06,-0.440
5.000E-06,-0.360
5.010E-06,-0.320
5.020E-06,-0.160
5.030E-06,-0.080
5.040E-06,0.000
5.050E-06,0.160
5.060E-06,0.120
5.070E-06,0.160
5.080E-06,0.280
5.090E-06,0.280
5.100E-06,0.360
5.110E-06,0.320
5.120E-06,0.320
5.130E-06,0.360
5.140E-06,0.400
5.150E-06,0.400
5.160E-06,0.440
5.170E-06,0.400
5.180E-06,0.400
5.190E-06,0.440
5.200E-06,0.400
5.210E-06,0.480
5.220E-06,0.400
5.230E-06,0.440
5.240E-06,0.360
5.250E-06,0.360
5.260E-06,0.320
5.270E-06,0.240
5.280E-06,0.200
5.290E-06,0.160
5.300E-06,0.080
5.310E-06,0.080
5.320E-06,0.000
5.330E-06,0.000
5.340E-06,0.000
5.350E-06,0.000
5.360E-06,0.000
5.370E-06,0.000
5.380E-06,0.040
5.390E-06,-0.040
5.400E-06,0.000
5.410E-06,-0.040
5.420E-06,-0.040
5.430E-06,-0.040
5.440E-06,-0.080
5.450E-06,-0.120
5.460E-06,-0.160
5.470E-06,-0.080
5.480E-06,-0.120
5.490E-06,-0.200
5.500E-06,-0.240
5.510E-06,-0.320
5.520E-06,-0.360
5.530E-06,-0.320
5.540E-06,-0.400
5.550E-06,-0.440
5.560E-06,-0.520
5.570E-06,-0.520
5.580E-06,-0.520
5.590E-06,-0.520
5.600E-06,-0.560
5.610E-06,-0.520
5.620E-06,-0.560
5.630E-06,-0.560
5.640E-06,-0.520
5.650E-06,-0.520
5.660E-06,-0.520
5.670E-06,-0.480
5.680E-06,-0.440
5.690E-06,-0.400
5.700E-06,-0.320
5.710E-06,-0.320
5.720E-06,-0.280
5.730E-06,-0.200
5.740E-06,-0.200
5.750E-06,-0.160
5.760E-06,-0.040
5.770E-06,-0.040
5.780E-06,0.000
5.790E-06,0.040
5.800E-06,0.040
5.810E-06,0.120
5.820E-06,0.200
5.830E-06,0.200
5.840E-06,0.240
5.850E-06,0.240
5.860E-06,0.240
5.870E-06,0.280
5.880E-06,0.280
5.890E-06,0.280
5.900E-06,0.240
5.910E-06,0.240
5.920E-06,0.240
5.930E-06,0.200
5.940E-06,0.160
5.950E-06,0.240
5.960E-06,0.160
5.970E-06,0.080
5.980E-06,0.040
5.990E-06,0.080
6.000E-06,0.000
6.010E-06,0.040
6.020E-06,0.040
6.030E-06,0.040
6.040E-06,0.000
6.050E-06,0.080
6.060E-06,0.080
6.070E-06,0.080
6.080E-06,0.040
6.090E-06,0.040
6.100E-06,-0.040
6.110E-06,0.000
6.120E-06,0.000
6.130E-06,0.000
6.140E-06,0.000
