mediciones/mediciones removidas por ser diferentes/0.01/WaveData4701.csv

#timebase=2000000(ps)
,#voltbase=1000000(mv/100)
#size=4000
-8.400E-06,0.200
-8.390E-06,0.080
-8.380E-06,0.000
-8.370E-06,0.040
-8.360E-06,0.040
-8.350E-06,-0.040
-8.340E-06,-0.200
-8.330E-06,-0.240
-8.320E-06,-0.280
-8.310E-06,-0.200
-8.300E-06,-0.280
-8.290E-06,-0.360
-8.280E-06,-0.360
-8.270E-06,-0.280
-8.260E-06,-0.280
-8.250E-06,-0.280
-8.240E-06,-0.200
-8.230E-06,-0.120
-8.220E-06,-0.160
-8.210E-06,-0.120
-8.200E-06,-0.120
-8.190E-06,-0.120
-8.180E-06,-0.040
-8.170E-06,0.000
-8.160E-06,0.080
-8.150E-06,0.080
-8.140E-06,0.080
-8.130E-06,0.160
-8.120E-06,0.160
-8.110E-06,0.160
-8.100E-06,0.200
-8.090E-06,0.200
-8.080E-06,0.200
-8.070E-06,0.120
-8.060E-06,0.120
-8.050E-06,0.120
-8.040E-06,0.160
-8.030E-06,0.080
-8.020E-06,0.040
-8.010E-06,0.040
-8.000E-06,0.080
-7.990E-06,0.200
-7.980E-06,0.040
-7.970E-06,0.040
-7.960E-06,0.040
-7.950E-06,0.040
-7.940E-06,0.040
-7.930E-06,0.120
-7.920E-06,0.040
-7.910E-06,0.000
-7.900E-06,0.040
-7.890E-06,0.000
-7.880E-06,0.040
-7.870E-06,0.080
-7.860E-06,0.160
-7.850E-06,0.120
-7.840E-06,0.240
-7.830E-06,0.360
-7.820E-06,0.200
-7.810E-06,0.120
-7.800E-06,0.040
-7.790E-06,0.080
-7.780E-06,0.000
-7.770E-06,0.080
-7.760E-06,0.040
-7.750E-06,-0.040
-7.740E-06,-0.080
-7.730E-06,-0.160
-7.720E-06,-0.200
-7.710E-06,-0.080
-7.700E-06,-0.160
-7.690E-06,-0.160
-7.680E-06,-0.240
-7.670E-06,-0.200
-7.660E-06,-0.120
-7.650E-06,-0.160
-7.640E-06,-0.080
-7.630E-06,-0.160
-7.620E-06,-0.080
-7.610E-06,-0.160
-7.600E-06,-0.120
-7.590E-06,-0.120
-7.580E-06,-0.040
-7.570E-06,-0.200
-7.560E-06,-0.160
-7.550E-06,0.480
-7.540E-06,0.680
-7.530E-06,0.760
-7.520E-06,0.840
-7.510E-06,0.160
-7.500E-06,-0.080
-7.490E-06,-0.080
-7.480E-06,-0.280
-7.470E-06,0.040
-7.460E-06,-0.120
-7.450E-06,-0.480
-7.440E-06,-0.600
-7.430E-06,-0.880
-7.420E-06,-0.720
-7.410E-06,-0.520
-7.400E-06,-0.560
-7.390E-06,-0.520
-7.380E-06,-0.600
-7.370E-06,-0.560
-7.360E-06,-0.520
-7.350E-06,-0.400
-7.340E-06,-0.360
-7.330E-06,-0.320
-7.320E-06,-0.200
-7.310E-06,-0.160
-7.300E-06,-0.200
-7.290E-06,-0.120
-7.280E-06,0.040
-7.270E-06,0.040
-7.260E-06,0.200
-7.250E-06,0.240
-7.240E-06,0.320
-7.230E-06,0.360
-7.220E-06,0.480
-7.210E-06,0.520
-7.200E-06,0.600
-7.190E-06,0.600
-7.180E-06,0.680
-7.170E-06,0.880
-7.160E-06,0.920
-7.150E-06,1.280
-7.140E-06,1.520
-7.130E-06,1.160
-7.120E-06,0.960
-7.110E-06,0.360
-7.100E-06,-0.080
-7.090E-06,-0.080
-7.080E-06,-0.040
-7.070E-06,-0.240
-7.060E-06,-0.320
-7.050E-06,-0.880
-7.040E-06,-1.040
-7.030E-06,-0.960
-7.020E-06,-0.880
-7.010E-06,-0.840
-7.000E-06,-0.720
-6.990E-06,-0.800
-6.980E-06,-0.760
-6.970E-06,-0.640
-6.960E-06,-0.600
-6.950E-06,-0.600
-6.940E-06,-0.520
-6.930E-06,-0.440
-6.920E-06,-0.360
-6.910E-06,-0.160
-6.900E-06,-0.120
-6.890E-06,-0.120
-6.880E-06,-0.120
-6.870E-06,-0.080
-6.860E-06,-0.040
-6.850E-06,0.160
-6.840E-06,0.200
-6.830E-06,0.320
-6.820E-06,0.320
-6.810E-06,0.360
-6.800E-06,0.480
-6.790E-06,0.480
-6.780E-06,0.640
-6.770E-06,0.640
-6.760E-06,0.600
-6.750E-06,0.440
-6.740E-06,0.240
-6.730E-06,0.120
-6.720E-06,0.520
-6.710E-06,0.360
-6.700E-06,0.720
-6.690E-06,0.560
-6.680E-06,0.440
-6.670E-06,0.240
-6.660E-06,0.120
-6.650E-06,0.040
-6.640E-06,0.120
-6.630E-06,0.120
-6.620E-06,0.000
-6.610E-06,-0.120
-6.600E-06,-0.200
-6.590E-06,-0.200
-6.580E-06,-0.200
-6.570E-06,-0.200
-6.560E-06,-0.200
-6.550E-06,-0.160
-6.540E-06,-0.240
-6.530E-06,-0.280
-6.520E-06,-0.240
-6.510E-06,-0.160
-6.500E-06,-0.200
-6.490E-06,-0.240
-6.480E-06,-0.200
-6.470E-06,-0.160
-6.460E-06,-0.080
-6.450E-06,-0.120
-6.440E-06,-0.080
-6.430E-06,-0.080
-6.420E-06,-0.080
-6.410E-06,-0.040
-6.400E-06,-0.040
-6.390E-06,0.000
-6.380E-06,0.040
-6.370E-06,0.000
-6.360E-06,0.000
-6.350E-06,0.080
-6.340E-06,0.160
-6.330E-06,0.240
-6.320E-06,0.160
-6.310E-06,0.240
-6.300E-06,0.280
-6.290E-06,0.200
-6.280E-06,0.160
-6.270E-06,0.080
-6.260E-06,-0.040
-6.250E-06,-0.040
-6.240E-06,0.000
-6.230E-06,-0.040
-6.220E-06,0.080
-6.210E-06,0.040
-6.200E-06,0.040
-6.190E-06,0.040
-6.180E-06,0.040
-6.170E-06,0.080
-6.160E-06,0.120
-6.150E-06,0.040
-6.140E-06,0.040
-6.130E-06,0.080
-6.120E-06,0.000
-6.110E-06,0.040
-6.100E-06,0.080
-6.090E-06,0.040
-6.080E-06,0.080
-6.070E-06,0.040
-6.060E-06,0.000
-6.050E-06,0.000
-6.040E-06,0.080
-6.030E-06,0.400
-6.020E-06,0.240
-6.010E-06,0.600
-6.000E-06,0.080
-5.990E-06,0.320
-5.980E-06,-0.040
-5.970E-06,0.080
-5.960E-06,0.120
-5.950E-06,0.200
-5.940E-06,-0.080
-5.930E-06,-0.040
-5.920E-06,-0.200
-5.910E-06,-0.200
-5.900E-06,-0.040
-5.890E-06,-0.200
-5.880E-06,-0.120
-5.870E-06,-0.200
-5.860E-06,-0.240
-5.850E-06,-0.200
-5.840E-06,0.000
-5.830E-06,-0.080
-5.820E-06,-0.040
-5.810E-06,-0.160
-5.800E-06,-0.160
-5.790E-06,-0.120
-5.780E-06,-0.040
-5.770E-06,-0.040
-5.760E-06,0.000
-5.750E-06,-0.080
-5.740E-06,-0.040
-5.730E-06,0.120
-5.720E-06,0.240
-5.710E-06,0.200
-5.700E-06,0.320
-5.690E-06,0.120
-5.680E-06,0.280
-5.670E-06,0.160
-5.660E-06,0.160
-5.650E-06,0.200
-5.640E-06,0.200
-5.630E-06,0.200
-5.620E-06,0.200
-5.610E-06,0.160
-5.600E-06,0.040
-5.590E-06,0.040
-5.580E-06,0.040
-5.570E-06,0.080
-5.560E-06,0.040
-5.550E-06,0.080
-5.540E-06,0.120
-5.530E-06,0.040
-5.520E-06,0.040
-5.510E-06,0.000
-5.500E-06,0.000
-5.490E-06,0.040
-5.480E-06,0.000
-5.470E-06,0.040
-5.460E-06,0.000
-5.450E-06,0.000
-5.440E-06,0.000
-5.430E-06,0.120
-5.420E-06,-0.040
-5.410E-06,0.040
-5.400E-06,0.000
-5.390E-06,0.000
-5.380E-06,-0.040
-5.370E-06,0.040
-5.360E-06,0.040
-5.350E-06,0.000
-5.340E-06,0.000
-5.330E-06,0.000
-5.320E-06,0.000
-5.310E-06,-0.040
-5.300E-06,0.000
-5.290E-06,-0.040
-5.280E-06,-0.040
-5.270E-06,0.000
-5.260E-06,0.000
-5.250E-06,0.000
-5.240E-06,0.000
-5.230E-06,0.040
-5.220E-06,0.040
-5.210E-06,0.040
-5.200E-06,0.080
-5.190E-06,-0.040
-5.180E-06,0.040
-5.170E-06,0.000
-5.160E-06,0.000
-5.150E-06,0.000
-5.140E-06,0.000
-5.130E-06,-0.040
-5.120E-06,-0.040
-5.110E-06,-0.080
-5.100E-06,-0.160
-5.090E-06,-0.040
-5.080E-06,0.000
-5.070E-06,0.040
-5.060E-06,0.320
-5.050E-06,0.040
-5.040E-06,0.120
-5.030E-06,0.000
-5.020E-06,-0.040
-5.010E-06,0.120
-5.000E-06,0.120
-4.990E-06,0.040
-4.980E-06,0.000
-4.970E-06,-0.040
-4.960E-06,-0.080
-4.950E-06,-0.040
-4.940E-06,0.000
-4.930E-06,0.000
-4.920E-06,0.000
-4.910E-06,-0.040
-4.900E-06,0.160
-4.890E-06,0.120
-4.880E-06,0.240
-4.870E-06,0.080
-4.860E-06,0.080
-4.850E-06,0.040
-4.840E-06,0.080
-4.830E-06,0.040
-4.820E-06,0.120
-4.810E-06,0.000
-4.800E-06,0.000
-4.790E-06,-0.040
-4.780E-06,0.000
-4.770E-06,0.000
-4.760E-06,0.120
-4.750E-06,0.120
-4.740E-06,0.120
-4.730E-06,0.120
-4.720E-06,0.120
-4.710E-06,0.040
-4.700E-06,0.080
-4.690E-06,0.040
-4.680E-06,0.120
-4.670E-06,0.040
-4.660E-06,0.000
-4.650E-06,-0.040
-4.640E-06,-0.080
-4.630E-06,-0.120
-4.620E-06,-0.080
-4.610E-06,-0.080
-4.600E-06,-0.080
-4.590E-06,-0.040
-4.580E-06,-0.120
-4.570E-06,-0.120
-4.560E-06,0.080
-4.550E-06,-0.040
-4.540E-06,0.160
-4.530E-06,0.040
-4.520E-06,0.080
-4.510E-06,0.000
-4.500E-06,0.040
-4.490E-06,0.040
-4.480E-06,0.080
-4.470E-06,0.040
-4.460E-06,0.040
-4.450E-06,0.040
-4.440E-06,0.040
-4.430E-06,0.080
-4.420E-06,0.080
-4.410E-06,0.080
-4.400E-06,0.080
-4.390E-06,0.080
-4.380E-06,0.080
-4.370E-06,0.080
-4.360E-06,0.120
-4.350E-06,0.120
-4.340E-06,0.080
-4.330E-06,0.000
-4.320E-06,0.000
-4.310E-06,0.000
-4.300E-06,-0.040
-4.290E-06,-0.040
-4.280E-06,0.000
-4.270E-06,0.000
-4.260E-06,0.000
-4.250E-06,0.000
-4.240E-06,-0.040
-4.230E-06,0.000
-4.220E-06,-0.040
-4.210E-06,-0.040
-4.200E-06,0.000
-4.190E-06,-0.040
-4.180E-06,0.160
-4.170E-06,0.000
-4.160E-06,0.200
-4.150E-06,0.040
-4.140E-06,0.120
-4.130E-06,0.080
-4.120E-06,0.120
-4.110E-06,0.040
-4.100E-06,0.120
-4.090E-06,0.000
-4.080E-06,-0.040
-4.070E-06,-0.040
-4.060E-06,-0.040
-4.050E-06,0.000
-4.040E-06,0.040
-4.030E-06,-0.040
-4.020E-06,-0.040
-4.010E-06,0.000
-4.000E-06,0.000
-3.990E-06,0.040
-3.980E-06,0.040
-3.970E-06,0.040
-3.960E-06,0.000
-3.950E-06,-0.040
-3.940E-06,0.040
-3.930E-06,-0.040
-3.920E-06,0.000
-3.910E-06,0.160
-3.900E-06,0.000
-3.890E-06,0.360
-3.880E-06,0.160
-3.870E-06,0.160
-3.860E-06,0.120
-3.850E-06,0.080
-3.840E-06,0.160
-3.830E-06,0.280
-3.820E-06,0.200
-3.810E-06,0.200
-3.800E-06,0.120
-3.790E-06,-0.040
-3.780E-06,0.040
-3.770E-06,0.080
-3.760E-06,0.040
-3.750E-06,0.040
-3.740E-06,-0.040
-3.730E-06,-0.040
-3.720E-06,0.000
-3.710E-06,0.000
-3.700E-06,-0.040
-3.690E-06,0.000
-3.680E-06,0.000
-3.670E-06,-0.040
-3.660E-06,-0.040
-3.650E-06,-0.040
-3.640E-06,-0.040
-3.630E-06,0.000
-3.620E-06,0.000
-3.610E-06,0.000
-3.600E-06,0.000
-3.590E-06,0.080
-3.580E-06,0.040
-3.570E-06,0.080
-3.560E-06,0.200
-3.550E-06,0.240
-3.540E-06,0.080
-3.530E-06,0.120
-3.520E-06,0.040
-3.510E-06,0.080
-3.500E-06,0.080
-3.490E-06,0.080
-3.480E-06,0.080
-3.470E-06,0.000
-3.460E-06,-0.080
-3.450E-06,-0.040
-3.440E-06,-0.080
-3.430E-06,-0.080
-3.420E-06,0.040
-3.410E-06,-0.040
-3.400E-06,-0.040
-3.390E-06,0.000
-3.380E-06,0.000
-3.370E-06,-0.040
-3.360E-06,0.000
-3.350E-06,-0.040
-3.340E-06,0.000
-3.330E-06,0.000
-3.320E-06,0.000
-3.310E-06,0.000
-3.300E-06,0.040
-3.290E-06,0.080
-3.280E-06,0.080
-3.270E-06,0.080
-3.260E-06,0.080
-3.250E-06,0.080
-3.240E-06,0.040
-3.230E-06,0.040
-3.220E-06,0.040
-3.210E-06,0.040
-3.200E-06,0.040
-3.190E-06,0.080
-3.180E-06,0.120
-3.170E-06,0.080
-3.160E-06,0.000
-3.150E-06,0.000
-3.140E-06,0.000
-3.130E-06,0.000
-3.120E-06,0.000
-3.110E-06,0.080
-3.100E-06,0.000
-3.090E-06,-0.040
-3.080E-06,0.040
-3.070E-06,0.080
-3.060E-06,0.000
-3.050E-06,0.040
-3.040E-06,0.080
-3.030E-06,0.040
-3.020E-06,0.040
-3.010E-06,0.040
-3.000E-06,0.040
-2.990E-06,0.040
-2.980E-06,0.040
-2.970E-06,0.080
-2.960E-06,0.120
-2.950E-06,0.120
-2.940E-06,0.080
-2.930E-06,0.080
-2.920E-06,0.000
-2.910E-06,-0.040
-2.900E-06,0.040
-2.890E-06,0.040
-2.880E-06,0.040
-2.870E-06,0.040
-2.860E-06,0.040
-2.850E-06,-0.040
-2.840E-06,0.000
-2.830E-06,-0.040
-2.820E-06,0.000
-2.810E-06,0.000
-2.800E-06,-0.040
-2.790E-06,0.000
-2.780E-06,-0.080
-2.770E-06,0.000
-2.760E-06,0.000
-2.750E-06,0.120
-2.740E-06,0.040
-2.730E-06,0.000
-2.720E-06,-0.040
-2.710E-06,0.000
-2.700E-06,0.000
-2.690E-06,0.040
-2.680E-06,0.000
-2.670E-06,-0.120
-2.660E-06,-0.120
-2.650E-06,-0.040
-2.640E-06,-0.040
-2.630E-06,0.000
-2.620E-06,0.040
-2.610E-06,-0.120
-2.600E-06,0.160
-2.590E-06,0.360
-2.580E-06,0.480
-2.570E-06,0.520
-2.560E-06,0.280
-2.550E-06,0.160
-2.540E-06,0.040
-2.530E-06,0.000
-2.520E-06,0.240
-2.510E-06,0.200
-2.500E-06,0.040
-2.490E-06,-0.080
-2.480E-06,-0.120
-2.470E-06,-0.120
-2.460E-06,-0.040
-2.450E-06,0.000
-2.440E-06,-0.040
-2.430E-06,-0.080
-2.420E-06,-0.080
-2.410E-06,0.040
-2.400E-06,-0.080
-2.390E-06,-0.080
-2.380E-06,-0.040
-2.370E-06,-0.040
-2.360E-06,-0.040
-2.350E-06,-0.120
-2.340E-06,-0.040
-2.330E-06,-0.080
-2.320E-06,-0.120
-2.310E-06,-0.080
-2.300E-06,-0.040
-2.290E-06,-0.040
-2.280E-06,0.040
-2.270E-06,0.200
-2.260E-06,0.160
-2.250E-06,0.160
-2.240E-06,0.160
-2.230E-06,0.240
-2.220E-06,0.120
-2.210E-06,0.200
-2.200E-06,0.200
-2.190E-06,0.200
-2.180E-06,0.200
-2.170E-06,0.080
-2.160E-06,0.000
-2.150E-06,0.000
-2.140E-06,-0.040
-2.130E-06,-0.040
-2.120E-06,-0.040
-2.110E-06,0.000
-2.100E-06,0.000
-2.090E-06,0.000
-2.080E-06,0.000
-2.070E-06,0.000
-2.060E-06,0.000
-2.050E-06,0.000
-2.040E-06,0.000
-2.030E-06,-0.040
-2.020E-06,0.000
-2.010E-06,0.040
-2.000E-06,0.000
-1.990E-06,0.000
-1.980E-06,0.000
-1.970E-06,0.000
-1.960E-06,0.000
-1.950E-06,0.000
-1.940E-06,-0.040
-1.930E-06,-0.040
-1.920E-06,0.000
-1.910E-06,-0.040
-1.900E-06,0.040
-1.890E-06,-0.040
-1.880E-06,-0.040
-1.870E-06,0.000
-1.860E-06,0.040
-1.850E-06,0.040
-1.840E-06,-0.040
-1.830E-06,-0.040
-1.820E-06,0.040
-1.810E-06,-0.040
-1.800E-06,0.040
-1.790E-06,0.000
-1.780E-06,0.040
-1.770E-06,0.040
-1.760E-06,0.000
-1.750E-06,0.040
-1.740E-06,-0.040
-1.730E-06,0.000
-1.720E-06,0.000
-1.710E-06,0.000
-1.700E-06,0.040
-1.690E-06,0.000
-1.680E-06,0.040
-1.670E-06,-0.080
-1.660E-06,0.000
-1.650E-06,-0.040
-1.640E-06,-0.040
-1.630E-06,-0.080
-1.620E-06,-0.080
-1.610E-06,-0.160
-1.600E-06,-0.240
-1.590E-06,-0.320
-1.580E-06,-0.280
-1.570E-06,-0.400
-1.560E-06,-0.320
-1.550E-06,-0.360
-1.540E-06,-0.280
-1.530E-06,-0.280
-1.520E-06,-0.240
-1.510E-06,-0.080
-1.500E-06,0.000
-1.490E-06,0.040
-1.480E-06,0.080
-1.470E-06,-0.040
-1.460E-06,-0.040
-1.450E-06,-0.040
-1.440E-06,-0.040
-1.430E-06,0.000
-1.420E-06,-0.080
-1.410E-06,-0.080
-1.400E-06,-0.040
-1.390E-06,-0.080
-1.380E-06,-0.120
-1.370E-06,0.040
-1.360E-06,-0.080
-1.350E-06,0.040
-1.340E-06,-0.040
-1.330E-06,0.000
-1.320E-06,0.040
-1.310E-06,0.080
-1.300E-06,0.080
-1.290E-06,0.040
-1.280E-06,0.120
-1.270E-06,0.120
-1.260E-06,0.160
-1.250E-06,0.160
-1.240E-06,0.160
-1.230E-06,0.120
-1.220E-06,0.200
-1.210E-06,0.120
-1.200E-06,0.200
-1.190E-06,0.160
-1.180E-06,0.200
-1.170E-06,0.120
-1.160E-06,0.040
-1.150E-06,0.040
-1.140E-06,-0.040
-1.130E-06,-0.040
-1.120E-06,-0.040
-1.110E-06,-0.120
-1.100E-06,-0.200
-1.090E-06,-0.200
-1.080E-06,-0.240
-1.070E-06,-0.200
-1.060E-06,-0.240
-1.050E-06,-0.280
-1.040E-06,-0.240
-1.030E-06,-0.240
-1.020E-06,-0.200
-1.010E-06,-0.200
-1.000E-06,-0.200
-9.900E-07,-0.080
-9.800E-07,-0.040
-9.700E-07,-0.040
-9.600E-07,-0.040
-9.500E-07,0.000
-9.400E-07,0.000
-9.300E-07,-0.080
-9.200E-07,0.000
-9.100E-07,0.080
-9.000E-07,0.320
-8.900E-07,0.400
-8.800E-07,0.480
-8.700E-07,0.400
-8.600E-07,0.240
-8.500E-07,0.280
-8.400E-07,0.280
-8.300E-07,0.360
-8.200E-07,0.280
-8.100E-07,0.160
-8.000E-07,0.000
-7.900E-07,-0.080
-7.800E-07,-0.240
-7.700E-07,-0.080
-7.600E-07,-0.160
-7.500E-07,-0.200
-7.400E-07,-0.120
-7.300E-07,-0.080
-7.200E-07,-0.080
-7.100E-07,0.000
-7.000E-07,-0.080
-6.900E-07,-0.160
-6.800E-07,-0.040
-6.700E-07,-0.120
-6.600E-07,-0.040
-6.500E-07,-0.080
-6.400E-07,0.000
-6.300E-07,-0.040
-6.200E-07,0.080
-6.100E-07,0.080
-6.000E-07,0.160
-5.900E-07,0.240
-5.800E-07,0.320
-5.700E-07,0.320
-5.600E-07,0.360
-5.500E-07,0.360
-5.400E-07,0.480
-5.300E-07,0.440
-5.200E-07,0.360
-5.100E-07,0.160
-5.000E-07,0.120
-4.900E-07,-0.040
-4.800E-07,-0.040
-4.700E-07,-0.160
-4.600E-07,-0.280
-4.500E-07,-0.400
-4.400E-07,-0.440
-4.300E-07,-0.400
-4.200E-07,-0.360
-4.100E-07,-0.280
-4.000E-07,-0.240
-3.900E-07,-0.200
-3.800E-07,-0.200
-3.700E-07,-0.120
-3.600E-07,-0.160
-3.500E-07,-0.160
-3.400E-07,-0.120
-3.300E-07,-0.200
-3.200E-07,-0.160
-3.100E-07,-0.160
-3.000E-07,-0.200
-2.900E-07,-0.320
-2.800E-07,-0.280
-2.700E-07,-0.360
-2.600E-07,-0.320
-2.500E-07,-0.320
-2.400E-07,-0.320
-2.300E-07,-0.480
-2.200E-07,-0.560
-2.100E-07,-0.720
-2.000E-07,-0.520
-1.900E-07,-0.200
-1.800E-07,-0.240
-1.700E-07,0.080
-1.600E-07,0.000
-1.500E-07,-0.200
-1.400E-07,0.000
-1.300E-07,-0.200
-1.200E-07,-0.080
-1.100E-07,-0.280
-1.000E-07,-0.600
-9.000E-08,-0.720
-8.000E-08,-0.960
-7.000E-08,-0.840
-6.000E-08,-0.880
-5.000E-08,-0.400
-4.000E-08,0.240
-3.000E-08,0.440
-2.000E-08,1.040
-1.000E-08,0.520
0.000E+00,0.120
1.000E-08,-0.040
2.000E-08,-0.280
3.000E-08,0.040
4.000E-08,0.000
5.000E-08,-0.160
6.000E-08,0.400
7.000E-08,0.880
8.000E-08,1.320
9.000E-08,1.440
1.000E-07,0.880
1.100E-07,0.200
1.200E-07,-0.040
1.300E-07,0.320
1.400E-07,0.560
1.500E-07,0.640
1.600E-07,-0.120
1.700E-07,-0.760
1.800E-07,-1.040
1.900E-07,-0.800
2.000E-07,-0.720
2.100E-07,-0.760
2.200E-07,-1.000
2.300E-07,-1.120
2.400E-07,-1.040
2.500E-07,-1.080
2.600E-07,-0.920
2.700E-07,-0.800
2.800E-07,-0.400
2.900E-07,-0.520
3.000E-07,0.000
3.100E-07,-0.480
3.200E-07,-0.360
3.300E-07,-0.440
3.400E-07,-0.120
3.500E-07,0.000
3.600E-07,0.240
3.700E-07,0.080
3.800E-07,0.240
3.900E-07,0.440
4.000E-07,0.320
4.100E-07,0.480
4.200E-07,0.280
4.300E-07,0.160
4.400E-07,0.240
4.500E-07,0.400
4.600E-07,0.320
4.700E-07,0.200
4.800E-07,-0.120
4.900E-07,-0.280
5.000E-07,-0.320
5.100E-07,-0.520
5.200E-07,-0.520
5.300E-07,-0.600
5.400E-07,-0.360
5.500E-07,-0.440
5.600E-07,-0.360
5.700E-07,-0.480
5.800E-07,-0.280
5.900E-07,0.280
6.000E-07,0.720
6.100E-07,1.120
6.200E-07,0.960
6.300E-07,0.600
6.400E-07,0.200
6.500E-07,0.160
6.600E-07,0.120
6.700E-07,0.280
6.800E-07,0.040
6.900E-07,-0.120
7.000E-07,-0.520
7.100E-07,-0.640
7.200E-07,-0.600
7.300E-07,-0.480
7.400E-07,-0.360
7.500E-07,-0.440
7.600E-07,-0.200
7.700E-07,-0.160
7.800E-07,-0.200
7.900E-07,-0.160
8.000E-07,-0.360
8.100E-07,-0.040
8.200E-07,0.000
8.300E-07,0.160
8.400E-07,0.040
8.500E-07,0.080
8.600E-07,-0.080
8.700E-07,0.080
8.800E-07,0.200
8.900E-07,0.480
9.000E-07,0.640
9.100E-07,0.640
9.200E-07,0.560
9.300E-07,0.560
9.400E-07,0.480
9.500E-07,0.480
9.600E-07,0.360
9.700E-07,0.280
9.800E-07,0.160
9.900E-07,0.080
1.000E-06,-0.040
1.010E-06,-0.160
1.020E-06,-0.320
1.030E-06,-0.400
1.040E-06,-0.480
1.050E-06,-0.440
1.060E-06,-0.360
1.070E-06,-0.360
1.080E-06,-0.240
1.090E-06,-0.200
1.100E-06,-0.080
1.110E-06,-0.080
1.120E-06,-0.120
1.130E-06,-0.080
1.140E-06,0.000
1.150E-06,0.160
1.160E-06,0.240
1.170E-06,0.280
1.180E-06,0.200
1.190E-06,0.160
1.200E-06,0.360
1.210E-06,0.520
1.220E-06,0.520
1.230E-06,0.520
1.240E-06,0.120
1.250E-06,0.040
1.260E-06,-0.040
1.270E-06,0.000
1.280E-06,0.040
1.290E-06,-0.080
1.300E-06,-0.320
1.310E-06,-0.440
1.320E-06,-0.440
1.330E-06,-0.360
1.340E-06,-0.400
1.350E-06,-0.400
1.360E-06,-0.560
1.370E-06,-0.480
1.380E-06,-0.560
1.390E-06,-0.480
1.400E-06,-0.560
1.410E-06,-0.480
1.420E-06,-0.520
1.430E-06,-0.400
1.440E-06,-0.320
1.450E-06,-0.360
1.460E-06,-0.320
1.470E-06,-0.400
1.480E-06,-0.440
1.490E-06,-0.480
1.500E-06,-0.520
1.510E-06,-0.640
1.520E-06,-0.720
1.530E-06,-0.760
1.540E-06,-0.920
1.550E-06,0.120
1.560E-06,1.560
1.570E-06,1.000
1.580E-06,1.960
1.590E-06,0.040
1.600E-06,-0.240
1.610E-06,-0.360
1.620E-06,-0.120
1.630E-06,0.640
1.640E-06,2.360
1.650E-06,1.480
1.660E-06,1.400
1.670E-06,0.600
1.680E-06,0.040
1.690E-06,0.200
1.700E-06,0.400
1.710E-06,0.000
1.720E-06,0.360
1.730E-06,-0.160
1.740E-06,-0.880
1.750E-06,-1.120
1.760E-06,-1.160
1.770E-06,-0.880
1.780E-06,-0.440
1.790E-06,-0.400
1.800E-06,-0.600
1.810E-06,-0.400
1.820E-06,-0.240
1.830E-06,-0.120
1.840E-06,-0.120
1.850E-06,-0.200
1.860E-06,0.080
1.870E-06,0.200
1.880E-06,0.360
1.890E-06,-0.040
1.900E-06,-0.120
1.910E-06,-0.080
1.920E-06,-0.120
1.930E-06,0.040
1.940E-06,0.000
1.950E-06,0.040
1.960E-06,0.120
1.970E-06,-0.120
1.980E-06,-0.400
1.990E-06,-0.400
2.000E-06,-0.520
2.010E-06,-0.280
2.020E-06,-0.240
2.030E-06,-0.240
2.040E-06,-0.160
2.050E-06,-0.320
2.060E-06,-0.440
2.070E-06,-0.440
2.080E-06,-0.560
2.090E-06,-0.680
2.100E-06,-0.560
2.110E-06,-0.200
2.120E-06,0.400
2.130E-06,1.040
2.140E-06,1.040
2.150E-06,0.960
2.160E-06,0.440
2.170E-06,0.600
2.180E-06,0.360
2.190E-06,0.480
2.200E-06,0.080
2.210E-06,-0.160
2.220E-06,-0.480
2.230E-06,-0.680
2.240E-06,-0.680
2.250E-06,-0.760
2.260E-06,-0.640
2.270E-06,-0.760
2.280E-06,-0.640
2.290E-06,-0.440
2.300E-06,-0.280
2.310E-06,-0.160
2.320E-06,-0.200
2.330E-06,-0.320
2.340E-06,0.120
2.350E-06,1.040
2.360E-06,1.360
2.370E-06,1.520
2.380E-06,1.040
2.390E-06,0.360
2.400E-06,0.200
2.410E-06,0.080
2.420E-06,0.240
2.430E-06,0.320
2.440E-06,0.040
2.450E-06,-0.360
2.460E-06,-0.480
2.470E-06,-0.360
2.480E-06,-0.040
2.490E-06,0.240
2.500E-06,0.360
2.510E-06,0.400
2.520E-06,0.360
2.530E-06,0.440
2.540E-06,0.120
2.550E-06,-0.040
2.560E-06,-0.440
2.570E-06,-0.480
2.580E-06,-0.600
2.590E-06,-0.760
2.600E-06,-0.800
2.610E-06,-0.800
2.620E-06,-0.640
2.630E-06,-0.480
2.640E-06,-0.360
2.650E-06,-0.080
2.660E-06,0.200
2.670E-06,0.360
2.680E-06,0.440
2.690E-06,0.360
2.700E-06,0.160
2.710E-06,0.520
2.720E-06,2.320
2.730E-06,1.640
2.740E-06,2.640
2.750E-06,1.400
2.760E-06,0.080
2.770E-06,-0.120
2.780E-06,-0.960
2.790E-06,-0.760
2.800E-06,-0.800
2.810E-06,-1.080
2.820E-06,-1.880
2.830E-06,-1.400
2.840E-06,-1.320
2.850E-06,-0.640
2.860E-06,-0.080
2.870E-06,-0.360
2.880E-06,-0.240
2.890E-06,0.240
2.900E-06,0.360
2.910E-06,0.520
2.920E-06,0.280
2.930E-06,0.000
2.940E-06,-0.240
2.950E-06,-0.080
2.960E-06,-0.280
2.970E-06,-0.160
2.980E-06,-0.120
2.990E-06,0.120
3.000E-06,0.400
3.010E-06,0.880
3.020E-06,1.120
3.030E-06,1.320
3.040E-06,1.520
3.050E-06,1.400
3.060E-06,1.280
3.070E-06,0.680
3.080E-06,2.200
3.090E-06,2.000
3.100E-06,2.120
3.110E-06,1.760
3.120E-06,0.240
3.130E-06,0.120
3.140E-06,0.360
3.150E-06,-0.160
3.160E-06,0.120
3.170E-06,-1.200
3.180E-06,-2.240
3.190E-06,-2.400
3.200E-06,-2.160
3.210E-06,-1.720
