mediciones/6-26/23.5/WaveData59239.csv

#timebase=2000000(ps)
,#voltbase=200000(mv/100)
#size=4000
-8.150E-06,0.560
-8.140E-06,1.000
-8.130E-06,1.080
-8.120E-06,1.088
-8.110E-06,1.032
-8.100E-06,0.624
-8.090E-06,0.256
-8.080E-06,0.152
-8.070E-06,0.208
-8.060E-06,0.368
-8.050E-06,0.352
-8.040E-06,0.248
-8.030E-06,0.056
-8.020E-06,-0.184
-8.010E-06,-0.312
-8.000E-06,-0.360
-7.990E-06,-0.312
-7.980E-06,-0.248
-7.970E-06,-0.256
-7.960E-06,-0.320
-7.950E-06,-0.408
-7.940E-06,-0.456
-7.930E-06,-0.488
-7.920E-06,-0.464
-7.910E-06,-0.416
-7.900E-06,-0.368
-7.890E-06,-0.328
-7.880E-06,-0.336
-7.870E-06,-0.344
-7.860E-06,-0.360
-7.850E-06,-0.360
-7.840E-06,-0.328
-7.830E-06,-0.280
-7.820E-06,-0.264
-7.810E-06,-0.264
-7.800E-06,-0.240
-7.790E-06,-0.256
-7.780E-06,-0.280
-7.770E-06,-0.328
-7.760E-06,-0.368
-7.750E-06,-0.376
-7.740E-06,-0.376
-7.730E-06,-0.368
-7.720E-06,-0.368
-7.710E-06,-0.272
-7.700E-06,-0.032
-7.690E-06,-0.232
-7.680E-06,-0.096
-7.670E-06,0.184
-7.660E-06,0.512
-7.650E-06,1.088
-7.640E-06,1.080
-7.630E-06,1.080
-7.620E-06,1.080
-7.610E-06,0.992
-7.600E-06,0.584
-7.590E-06,0.680
-7.580E-06,0.808
-7.570E-06,0.952
-7.560E-06,0.960
-7.550E-06,0.688
-7.540E-06,0.216
-7.530E-06,-0.184
-7.520E-06,-0.400
-7.510E-06,-0.384
-7.500E-06,-0.240
-7.490E-06,-0.176
-7.480E-06,-0.200
-7.470E-06,-0.384
-7.460E-06,-0.576
-7.450E-06,-0.624
-7.440E-06,-0.672
-7.430E-06,-0.600
-7.420E-06,-0.488
-7.410E-06,-0.520
-7.400E-06,-0.536
-7.390E-06,-0.696
-7.380E-06,-0.600
-7.370E-06,-0.464
-7.360E-06,-0.232
-7.350E-06,-0.112
-7.340E-06,-0.176
-7.330E-06,-0.384
-7.320E-06,-0.400
-7.310E-06,-0.520
-7.300E-06,-0.560
-7.290E-06,-0.384
-7.280E-06,-0.224
-7.270E-06,0.064
-7.260E-06,0.288
-7.250E-06,0.288
-7.240E-06,0.088
-7.230E-06,-0.008
-7.220E-06,-0.008
-7.210E-06,0.264
-7.200E-06,0.424
-7.190E-06,0.488
-7.180E-06,0.440
-7.170E-06,0.304
-7.160E-06,0.192
-7.150E-06,0.104
-7.140E-06,0.144
-7.130E-06,0.208
-7.120E-06,0.336
-7.110E-06,0.456
-7.100E-06,0.296
-7.090E-06,0.200
-7.080E-06,0.296
-7.070E-06,0.384
-7.060E-06,0.568
-7.050E-06,0.704
-7.040E-06,0.472
-7.030E-06,0.192
-7.020E-06,-0.056
-7.010E-06,-0.200
-7.000E-06,-0.136
-6.990E-06,-0.120
-6.980E-06,-0.096
-6.970E-06,-0.136
-6.960E-06,-0.240
-6.950E-06,-0.408
-6.940E-06,-0.504
-6.930E-06,-0.520
-6.920E-06,-0.448
-6.910E-06,-0.352
-6.900E-06,-0.264
-6.890E-06,-0.216
-6.880E-06,-0.216
-6.870E-06,-0.240
-6.860E-06,-0.232
-6.850E-06,-0.192
-6.840E-06,-0.088
-6.830E-06,-0.040
-6.820E-06,-0.024
-6.810E-06,-0.024
-6.800E-06,-0.048
-6.790E-06,-0.040
-6.780E-06,-0.048
-6.770E-06,-0.056
-6.760E-06,-0.136
-6.750E-06,-0.144
-6.740E-06,-0.200
-6.730E-06,-0.288
-6.720E-06,-0.360
-6.710E-06,-0.168
-6.700E-06,-0.200
-6.690E-06,-0.128
-6.680E-06,-0.024
-6.670E-06,0.312
-6.660E-06,1.000
-6.650E-06,1.088
-6.640E-06,1.080
-6.630E-06,0.960
-6.620E-06,0.400
-6.610E-06,0.088
-6.600E-06,0.264
-6.590E-06,0.512
-6.580E-06,0.680
-6.570E-06,0.576
-6.560E-06,0.440
-6.550E-06,0.112
-6.540E-06,-0.168
-6.530E-06,-0.272
-6.520E-06,-0.192
-6.510E-06,-0.064
-6.500E-06,-0.016
-6.490E-06,-0.104
-6.480E-06,-0.232
-6.470E-06,-0.344
-6.460E-06,-0.424
-6.450E-06,-0.416
-6.440E-06,-0.384
-6.430E-06,-0.344
-6.420E-06,-0.360
-6.410E-06,-0.360
-6.400E-06,-0.424
-6.390E-06,-0.456
-6.380E-06,-0.456
-6.370E-06,-0.360
-6.360E-06,-0.296
-6.350E-06,-0.264
-6.340E-06,-0.248
-6.330E-06,-0.240
-6.320E-06,-0.232
-6.310E-06,-0.224
-6.300E-06,-0.192
-6.290E-06,-0.152
-6.280E-06,-0.128
-6.270E-06,-0.152
-6.260E-06,-0.216
-6.250E-06,-0.192
-6.240E-06,-0.208
-6.230E-06,-0.200
-6.220E-06,-0.200
-6.210E-06,-0.232
-6.200E-06,-0.288
-6.190E-06,-0.352
-6.180E-06,-0.200
-6.170E-06,-0.072
-6.160E-06,-0.296
-6.150E-06,-0.040
-6.140E-06,0.040
-6.130E-06,0.184
-6.120E-06,1.032
-6.110E-06,1.080
-6.100E-06,1.080
-6.090E-06,1.080
-6.080E-06,1.080
-6.070E-06,1.088
-6.060E-06,0.936
-6.050E-06,0.696
-6.040E-06,0.776
-6.030E-06,0.984
-6.020E-06,1.088
-6.010E-06,1.040
-6.000E-06,0.536
-5.990E-06,0.128
-5.980E-06,-0.136
-5.970E-06,-0.184
-5.960E-06,-0.160
-5.950E-06,-0.120
-5.940E-06,-0.200
-5.930E-06,-0.336
-5.920E-06,-0.536
-5.910E-06,-0.672
-5.900E-06,-0.688
-5.890E-06,-0.648
-5.880E-06,-0.592
-5.870E-06,-0.624
-5.860E-06,-0.680
-5.850E-06,-0.784
-5.840E-06,-0.816
-5.830E-06,-0.800
-5.820E-06,-0.784
-5.810E-06,-0.688
-5.800E-06,-0.512
-5.790E-06,-0.400
-5.780E-06,-0.248
-5.770E-06,-0.264
-5.760E-06,-0.400
-5.750E-06,-0.496
-5.740E-06,-0.512
-5.730E-06,-0.384
-5.720E-06,-0.192
-5.710E-06,-0.088
-5.700E-06,0.008
-5.690E-06,-0.008
-5.680E-06,-0.016
-5.670E-06,-0.048
-5.660E-06,0.048
-5.650E-06,0.104
-5.640E-06,0.136
-5.630E-06,0.208
-5.620E-06,0.264
-5.610E-06,0.392
-5.600E-06,0.528
-5.590E-06,0.600
-5.580E-06,0.600
-5.570E-06,0.520
-5.560E-06,0.496
-5.550E-06,0.464
-5.540E-06,0.456
-5.530E-06,0.312
-5.520E-06,0.128
-5.510E-06,-0.024
-5.500E-06,-0.136
-5.490E-06,0.064
-5.480E-06,-0.352
-5.470E-06,-0.144
-5.460E-06,0.288
-5.450E-06,0.392
-5.440E-06,0.864
-5.430E-06,0.856
-5.420E-06,0.560
-5.410E-06,0.112
-5.400E-06,-0.112
-5.390E-06,-0.168
-5.380E-06,0.144
-5.370E-06,0.120
-5.360E-06,0.208
-5.350E-06,0.184
-5.340E-06,-0.032
-5.330E-06,-0.256
-5.320E-06,-0.344
-5.310E-06,-0.320
-5.300E-06,-0.176
-5.290E-06,-0.144
-5.280E-06,-0.232
-5.270E-06,-0.240
-5.260E-06,-0.288
-5.250E-06,-0.240
-5.240E-06,-0.240
-5.230E-06,-0.256
-5.220E-06,-0.216
-5.210E-06,-0.304
-5.200E-06,-0.320
-5.190E-06,-0.344
-5.180E-06,-0.328
-5.170E-06,-0.336
-5.160E-06,-0.128
-5.150E-06,-0.064
-5.140E-06,-0.096
-5.130E-06,-0.208
-5.120E-06,-0.304
-5.110E-06,-0.312
-5.100E-06,-0.224
-5.090E-06,-0.208
-5.080E-06,-0.144
-5.070E-06,-0.136
-5.060E-06,-0.192
-5.050E-06,-0.216
-5.040E-06,-0.248
-5.030E-06,-0.368
-5.020E-06,-0.328
-5.010E-06,-0.496
-5.000E-06,-0.448
-4.990E-06,-0.392
-4.980E-06,-0.080
-4.970E-06,0.216
-4.960E-06,0.384
-4.950E-06,0.592
-4.940E-06,0.688
-4.930E-06,0.736
-4.920E-06,0.936
-4.910E-06,1.072
-4.900E-06,0.880
-4.890E-06,0.440
-4.880E-06,0.216
-4.870E-06,0.088
-4.860E-06,0.376
-4.850E-06,0.776
-4.840E-06,1.024
-4.830E-06,0.912
-4.820E-06,0.584
-4.810E-06,0.232
-4.800E-06,0.112
-4.790E-06,0.072
-4.780E-06,0.096
-4.770E-06,0.200
-4.760E-06,0.184
-4.750E-06,0.040
-4.740E-06,-0.104
-4.730E-06,-0.264
-4.720E-06,-0.296
-4.710E-06,-0.288
-4.700E-06,-0.280
-4.690E-06,-0.312
-4.680E-06,-0.408
-4.670E-06,-0.512
-4.660E-06,-0.560
-4.650E-06,-0.600
-4.640E-06,-0.696
-4.630E-06,-0.656
-4.620E-06,-0.504
-4.610E-06,-0.312
-4.600E-06,-0.216
-4.590E-06,-0.080
-4.580E-06,-0.168
-4.570E-06,-0.376
-4.560E-06,-0.520
-4.550E-06,-0.488
-4.540E-06,-0.328
-4.530E-06,-0.216
-4.520E-06,-0.168
-4.510E-06,-0.112
-4.500E-06,-0.056
-4.490E-06,-0.088
-4.480E-06,-0.048
-4.470E-06,-0.056
-4.460E-06,0.008
-4.450E-06,0.112
-4.440E-06,0.208
-4.430E-06,0.288
-4.420E-06,0.232
-4.410E-06,0.096
-4.400E-06,0.008
-4.390E-06,-0.120
-4.380E-06,0.048
-4.370E-06,0.216
-4.360E-06,0.512
-4.350E-06,0.672
-4.340E-06,0.408
-4.330E-06,0.344
-4.320E-06,0.368
-4.310E-06,0.496
-4.300E-06,0.808
-4.290E-06,0.760
-4.280E-06,0.480
-4.270E-06,0.144
-4.260E-06,-0.088
-4.250E-06,-0.048
-4.240E-06,0.040
-4.230E-06,0.032
-4.220E-06,0.112
-4.210E-06,0.056
-4.200E-06,-0.048
-4.190E-06,-0.136
-4.180E-06,-0.200
-4.170E-06,-0.208
-4.160E-06,-0.152
-4.150E-06,-0.128
-4.140E-06,-0.120
-4.130E-06,-0.152
-4.120E-06,-0.176
-4.110E-06,-0.184
-4.100E-06,-0.240
-4.090E-06,-0.312
-4.080E-06,-0.304
-4.070E-06,-0.280
-4.060E-06,-0.208
-4.050E-06,-0.152
-4.040E-06,-0.168
-4.030E-06,-0.256
-4.020E-06,-0.344
-4.010E-06,-0.400
-4.000E-06,-0.432
-3.990E-06,-0.432
-3.980E-06,-0.416
-3.970E-06,-0.344
-3.960E-06,-0.344
-3.950E-06,-0.256
-3.940E-06,-0.256
-3.930E-06,-0.072
-3.920E-06,0.216
-3.910E-06,0.328
-3.900E-06,0.328
-3.890E-06,0.296
-3.880E-06,0.176
-3.870E-06,0.192
-3.860E-06,0.448
-3.850E-06,0.344
-3.840E-06,0.216
-3.830E-06,0.352
-3.820E-06,0.576
-3.810E-06,0.880
-3.800E-06,0.920
-3.790E-06,0.648
-3.780E-06,0.288
-3.770E-06,-0.064
-3.760E-06,-0.096
-3.750E-06,0.120
-3.740E-06,0.208
-3.730E-06,0.216
-3.720E-06,0.136
-3.710E-06,-0.016
-3.700E-06,-0.144
-3.690E-06,-0.224
-3.680E-06,-0.208
-3.670E-06,-0.152
-3.660E-06,-0.096
-3.650E-06,-0.128
-3.640E-06,-0.184
-3.630E-06,-0.232
-3.620E-06,-0.256
-3.610E-06,-0.280
-3.600E-06,-0.264
-3.590E-06,-0.256
-3.580E-06,-0.240
-3.570E-06,-0.224
-3.560E-06,-0.224
-3.550E-06,-0.296
-3.540E-06,-0.320
-3.530E-06,-0.312
-3.520E-06,-0.280
-3.510E-06,-0.304
-3.500E-06,-0.272
-3.490E-06,-0.232
-3.480E-06,-0.160
-3.470E-06,-0.048
-3.460E-06,0.056
-3.450E-06,0.080
-3.440E-06,0.040
-3.430E-06,-0.008
-3.420E-06,-0.032
-3.410E-06,-0.024
-3.400E-06,-0.024
-3.390E-06,-0.032
-3.380E-06,-0.104
-3.370E-06,-0.128
-3.360E-06,0.032
-3.350E-06,-0.008
-3.340E-06,0.072
-3.330E-06,0.272
-3.320E-06,0.440
-3.310E-06,0.656
-3.300E-06,0.752
-3.290E-06,0.512
-3.280E-06,0.176
-3.270E-06,-0.184
-3.260E-06,-0.264
-3.250E-06,0.048
-3.240E-06,0.328
-3.230E-06,0.576
-3.220E-06,0.720
-3.210E-06,0.552
-3.200E-06,0.040
-3.190E-06,-0.440
-3.180E-06,-0.752
-3.170E-06,-0.392
-3.160E-06,0.080
-3.150E-06,0.584
-3.140E-06,0.560
-3.130E-06,0.144
-3.120E-06,-0.200
-3.110E-06,-0.328
-3.100E-06,-0.272
-3.090E-06,-0.136
-3.080E-06,-0.064
-3.070E-06,-0.104
-3.060E-06,0.072
-3.050E-06,0.136
-3.040E-06,0.000
-3.030E-06,-0.136
-3.020E-06,-0.288
-3.010E-06,-0.256
-3.000E-06,-0.080
-2.990E-06,0.008
-2.980E-06,0.040
-2.970E-06,-0.096
-2.960E-06,-0.288
-2.950E-06,-0.400
-2.940E-06,-0.376
-2.930E-06,-0.384
-2.920E-06,-0.360
-2.910E-06,-0.240
-2.900E-06,-0.224
-2.890E-06,-0.112
-2.880E-06,-0.056
-2.870E-06,-0.080
-2.860E-06,-0.040
-2.850E-06,-0.008
-2.840E-06,0.056
-2.830E-06,0.248
-2.820E-06,0.288
-2.810E-06,0.264
-2.800E-06,0.352
-2.790E-06,0.216
-2.780E-06,0.152
-2.770E-06,0.192
-2.760E-06,0.088
-2.750E-06,0.120
-2.740E-06,0.224
-2.730E-06,0.120
-2.720E-06,0.104
-2.710E-06,0.000
-2.700E-06,-0.160
-2.690E-06,-0.136
-2.680E-06,-0.072
-2.670E-06,-0.136
-2.660E-06,-0.048
-2.650E-06,-0.104
-2.640E-06,-0.272
-2.630E-06,-0.224
-2.620E-06,0.000
-2.610E-06,0.032
-2.600E-06,0.008
-2.590E-06,-0.288
-2.580E-06,-0.504
-2.570E-06,-0.224
-2.560E-06,0.056
-2.550E-06,0.552
-2.540E-06,0.752
-2.530E-06,0.448
-2.520E-06,-0.064
-2.510E-06,-0.184
-2.500E-06,-0.272
-2.490E-06,0.136
-2.480E-06,0.440
-2.470E-06,0.448
-2.460E-06,0.800
-2.450E-06,0.816
-2.440E-06,0.632
-2.430E-06,0.352
-2.420E-06,0.072
-2.410E-06,-0.048
-2.400E-06,0.128
-2.390E-06,0.352
-2.380E-06,0.392
-2.370E-06,0.096
-2.360E-06,-0.184
-2.350E-06,-0.360
-2.340E-06,-0.376
-2.330E-06,-0.368
-2.320E-06,-0.360
-2.310E-06,-0.296
-2.300E-06,-0.304
-2.290E-06,-0.464
-2.280E-06,-0.616
-2.270E-06,-0.688
-2.260E-06,-0.664
-2.250E-06,-0.408
-2.240E-06,-0.128
-2.230E-06,0.008
-2.220E-06,0.000
-2.210E-06,-0.152
-2.200E-06,-0.288
-2.190E-06,-0.296
-2.180E-06,-0.264
-2.170E-06,-0.176
-2.160E-06,-0.080
-2.150E-06,-0.064
-2.140E-06,-0.112
-2.130E-06,-0.192
-2.120E-06,-0.264
-2.110E-06,0.032
-2.100E-06,-0.136
-2.090E-06,-0.256
-2.080E-06,-0.128
-2.070E-06,0.160
-2.060E-06,0.704
-2.050E-06,1.072
-2.040E-06,1.040
-2.030E-06,0.320
-2.020E-06,-0.296
-2.010E-06,-0.424
-2.000E-06,-0.104
-1.990E-06,0.376
-1.980E-06,0.624
-1.970E-06,0.664
-1.960E-06,0.696
-1.950E-06,0.728
-1.940E-06,0.568
-1.930E-06,0.000
-1.920E-06,-0.608
-1.910E-06,-0.600
-1.900E-06,-0.040
-1.890E-06,0.392
-1.880E-06,0.824
-1.870E-06,0.648
-1.860E-06,-0.040
-1.850E-06,-0.608
-1.840E-06,-0.800
-1.830E-06,-0.232
-1.820E-06,0.136
-1.810E-06,0.168
-1.800E-06,0.080
-1.790E-06,-0.176
-1.780E-06,-0.448
-1.770E-06,-0.264
-1.760E-06,-0.256
-1.750E-06,-0.216
-1.740E-06,-0.200
-1.730E-06,-0.104
-1.720E-06,0.160
-1.710E-06,0.192
-1.700E-06,-0.016
-1.690E-06,-0.248
-1.680E-06,-0.360
-1.670E-06,-0.392
-1.660E-06,-0.240
-1.650E-06,-0.096
-1.640E-06,-0.112
-1.630E-06,-0.240
-1.620E-06,-0.312
-1.610E-06,-0.384
-1.600E-06,-0.216
-1.590E-06,0.120
-1.580E-06,0.144
-1.570E-06,0.096
-1.560E-06,0.128
-1.550E-06,0.160
-1.540E-06,-0.192
-1.530E-06,-0.088
-1.520E-06,0.264
-1.510E-06,0.328
-1.500E-06,0.872
-1.490E-06,0.584
-1.480E-06,0.032
-1.470E-06,-0.312
-1.460E-06,-0.608
-1.450E-06,-0.240
-1.440E-06,0.272
-1.430E-06,0.224
-1.420E-06,0.312
-1.410E-06,0.240
-1.400E-06,0.072
-1.390E-06,0.072
-1.380E-06,0.048
-1.370E-06,0.008
-1.360E-06,0.064
-1.350E-06,0.064
-1.340E-06,0.064
-1.330E-06,0.024
-1.320E-06,-0.008
-1.310E-06,-0.040
-1.300E-06,-0.096
-1.290E-06,-0.080
-1.280E-06,-0.072
-1.270E-06,-0.064
-1.260E-06,-0.064
-1.250E-06,-0.120
-1.240E-06,-0.184
-1.230E-06,-0.192
-1.220E-06,-0.160
-1.210E-06,-0.104
-1.200E-06,-0.056
-1.190E-06,-0.072
-1.180E-06,-0.120
-1.170E-06,-0.176
-1.160E-06,-0.264
-1.150E-06,-0.224
-1.140E-06,-0.200
-1.130E-06,-0.120
-1.120E-06,-0.056
-1.110E-06,-0.024
-1.100E-06,-0.056
-1.090E-06,-0.112
-1.080E-06,-0.144
-1.070E-06,-0.168
-1.060E-06,-0.200
-1.050E-06,-0.216
-1.040E-06,-0.136
-1.030E-06,-0.056
-1.020E-06,-0.136
-1.010E-06,0.232
-1.000E-06,-0.288
-9.900E-07,-0.424
-9.800E-07,-0.424
-9.700E-07,-0.248
-9.600E-07,0.528
-9.500E-07,0.920
-9.400E-07,1.032
-9.300E-07,0.640
-9.200E-07,0.248
-9.100E-07,-0.104
-9.000E-07,0.224
-8.900E-07,0.424
-8.800E-07,0.512
-8.700E-07,0.512
-8.600E-07,0.360
-8.500E-07,0.200
-8.400E-07,0.192
-8.300E-07,0.112
-8.200E-07,0.072
-8.100E-07,-0.080
-8.000E-07,0.048
-7.900E-07,0.248
-7.800E-07,0.392
-7.700E-07,0.440
-7.600E-07,0.112
-7.500E-07,-0.264
-7.400E-07,-0.296
-7.300E-07,-0.328
-7.200E-07,0.016
-7.100E-07,0.248
-7.000E-07,0.184
-6.900E-07,0.032
-6.800E-07,-0.176
-6.700E-07,-0.328
-6.600E-07,-0.432
-6.500E-07,0.032
-6.400E-07,0.072
-6.300E-07,0.552
-6.200E-07,0.928
-6.100E-07,1.040
-6.000E-07,0.720
-5.900E-07,0.296
-5.800E-07,-0.528
-5.700E-07,-0.776
-5.600E-07,-0.712
-5.500E-07,-0.520
-5.400E-07,0.088
-5.300E-07,0.072
-5.200E-07,-0.416
-5.100E-07,-0.312
-5.000E-07,-0.408
-4.900E-07,-0.128
-4.800E-07,0.264
-4.700E-07,0.128
-4.600E-07,-0.104
-4.500E-07,-0.336
-4.400E-07,-0.568
-4.300E-07,-0.440
-4.200E-07,-0.424
-4.100E-07,-0.264
-4.000E-07,0.000
-3.900E-07,0.256
-3.800E-07,0.456
-3.700E-07,0.160
-3.600E-07,-0.168
-3.500E-07,-0.472
-3.400E-07,-0.648
-3.300E-07,-0.352
-3.200E-07,-0.112
-3.100E-07,0.120
-3.000E-07,0.312
-2.900E-07,0.264
-2.800E-07,0.096
-2.700E-07,-0.040
-2.600E-07,-0.160
-2.500E-07,-0.072
-2.400E-07,0.088
-2.300E-07,0.080
-2.200E-07,0.016
-2.100E-07,-0.016
-2.000E-07,-0.040
-1.900E-07,-0.008
-1.800E-07,0.032
-1.700E-07,0.064
-1.600E-07,0.024
-1.500E-07,-0.056
-1.400E-07,-0.136
-1.300E-07,-0.128
-1.200E-07,-0.120
-1.100E-07,-0.144
-1.000E-07,-0.232
-9.000E-08,-0.432
-8.000E-08,-0.584
-7.000E-08,-0.456
-6.000E-08,-0.416
-5.000E-08,0.112
-4.000E-08,-0.664
-3.000E-08,-0.544
-2.000E-08,-0.232
-1.000E-08,0.008
0.000E+00,1.080
1.000E-08,1.072
2.000E-08,0.528
3.000E-08,0.264
4.000E-08,-0.472
5.000E-08,-0.448
6.000E-08,0.304
7.000E-08,0.424
8.000E-08,1.088
9.000E-08,1.080
1.000E-07,1.088
1.100E-07,1.080
1.200E-07,0.360
1.300E-07,-0.176
1.400E-07,-0.376
1.500E-07,-0.248
1.600E-07,-0.176
1.700E-07,0.184
1.800E-07,0.296
1.900E-07,0.824
2.000E-07,0.624
2.100E-07,0.072
2.200E-07,-0.264
2.300E-07,-0.672
2.400E-07,-0.144
2.500E-07,0.224
2.600E-07,-0.280
2.700E-07,-0.376
2.800E-07,-0.688
2.900E-07,-0.896
3.000E-07,-0.640
3.100E-07,-0.512
3.200E-07,-0.344
3.300E-07,0.328
3.400E-07,0.528
3.500E-07,0.640
3.600E-07,0.200
3.700E-07,-0.400
3.800E-07,-0.600
3.900E-07,-0.320
4.000E-07,0.008
4.100E-07,0.072
4.200E-07,-0.072
4.300E-07,-0.240
4.400E-07,-0.344
4.500E-07,-0.280
4.600E-07,-0.240
4.700E-07,-0.112
4.800E-07,0.000
4.900E-07,0.048
5.000E-07,0.000
5.100E-07,-0.128
5.200E-07,-0.304
5.300E-07,-0.360
5.400E-07,-0.224
5.500E-07,-0.072
5.600E-07,0.032
5.700E-07,0.056
5.800E-07,0.032
5.900E-07,-0.048
6.000E-07,-0.120
6.100E-07,-0.144
6.200E-07,-0.184
6.300E-07,-0.216
6.400E-07,-0.216
6.500E-07,-0.232
6.600E-07,-0.336
6.700E-07,-0.416
6.800E-07,-0.008
6.900E-07,-0.896
7.000E-07,-0.792
7.100E-07,-0.592
7.200E-07,-0.408
7.300E-07,0.992
7.400E-07,1.080
7.500E-07,0.928
7.600E-07,0.632
7.700E-07,-0.072
7.800E-07,0.104
7.900E-07,0.728
8.000E-07,0.576
8.100E-07,0.520
8.200E-07,0.304
8.300E-07,-0.144
8.400E-07,0.208
8.500E-07,0.424
8.600E-07,0.248
8.700E-07,0.016
8.800E-07,-0.160
8.900E-07,0.048
9.000E-07,0.624
9.100E-07,1.080
9.200E-07,1.088
9.300E-07,1.088
9.400E-07,0.784
9.500E-07,0.288
9.600E-07,0.080
9.700E-07,0.272
9.800E-07,0.184
9.900E-07,0.000
1.000E-06,-0.200
1.010E-06,-0.496
1.020E-06,-0.648
1.030E-06,-0.784
1.040E-06,-0.912
1.050E-06,-0.800
1.060E-06,-0.752
1.070E-06,-0.728
1.080E-06,-0.672
1.090E-06,-0.760
1.100E-06,-0.936
1.110E-06,-0.912
1.120E-06,-0.864
1.130E-06,-0.768
1.140E-06,-0.488
1.150E-06,-0.424
1.160E-06,-0.376
1.170E-06,-0.432
1.180E-06,-0.528
1.190E-06,-0.528
1.200E-06,-0.488
1.210E-06,-0.608
1.220E-06,-0.616
1.230E-06,-0.728
1.240E-06,-0.784
1.250E-06,-0.592
1.260E-06,-0.496
1.270E-06,0.000
1.280E-06,0.200
1.290E-06,-0.952
1.300E-06,-0.352
1.310E-06,-0.176
1.320E-06,0.384
1.330E-06,1.080
1.340E-06,1.080
1.350E-06,1.080
1.360E-06,1.072
1.370E-06,1.080
1.380E-06,1.088
1.390E-06,1.080
1.400E-06,1.088
1.410E-06,1.080
1.420E-06,0.168
1.430E-06,-0.936
1.440E-06,-0.448
1.450E-06,0.304
1.460E-06,0.920
1.470E-06,1.080
1.480E-06,1.080
1.490E-06,1.072
1.500E-06,1.080
1.510E-06,0.136
1.520E-06,-1.032
1.530E-06,-1.040
1.540E-06,-1.040
1.550E-06,-0.504
1.560E-06,-0.224
1.570E-06,-0.432
1.580E-06,-1.040
1.590E-06,-1.040
1.600E-06,-1.048
1.610E-06,-1.040
1.620E-06,-1.032
1.630E-06,-1.040
1.640E-06,-1.032
1.650E-06,-1.024
1.660E-06,-1.000
1.670E-06,-1.048
1.680E-06,-1.000
1.690E-06,-0.680
1.700E-06,-0.448
1.710E-06,-0.224
1.720E-06,-0.128
1.730E-06,-0.144
1.740E-06,-0.224
1.750E-06,-0.160
1.760E-06,-0.320
1.770E-06,-0.456
1.780E-06,-0.464
1.790E-06,-0.488
1.800E-06,-0.496
1.810E-06,-0.512
1.820E-06,-0.648
1.830E-06,-0.840
1.840E-06,-0.864
1.850E-06,-1.016
1.860E-06,-1.048
1.870E-06,-1.032
1.880E-06,-1.040
1.890E-06,-0.424
1.900E-06,0.552
1.910E-06,1.088
1.920E-06,1.080
1.930E-06,1.088
1.940E-06,1.080
1.950E-06,1.088
1.960E-06,1.080
1.970E-06,-0.048
1.980E-06,-1.032
1.990E-06,-1.040
2.000E-06,-1.032
2.010E-06,-1.040
2.020E-06,-1.048
2.030E-06,-1.040
2.040E-06,-1.032
2.050E-06,-0.888
2.060E-06,-0.368
2.070E-06,0.496
2.080E-06,1.080
2.090E-06,1.080
2.100E-06,1.088
2.110E-06,1.080
2.120E-06,1.080
2.130E-06,1.072
2.140E-06,1.080
2.150E-06,1.080
2.160E-06,1.080
2.170E-06,0.152
2.180E-06,-0.808
2.190E-06,-1.040
2.200E-06,-1.048
2.210E-06,-1.040
2.220E-06,-1.048
2.230E-06,-1.032
2.240E-06,-1.040
2.250E-06,-1.048
2.260E-06,-1.040
2.270E-06,-1.048
2.280E-06,-1.032
2.290E-06,-1.040
2.300E-06,-1.048
2.310E-06,-1.040
2.320E-06,-1.032
2.330E-06,-1.032
2.340E-06,-1.040
2.350E-06,-1.040
2.360E-06,-1.048
2.370E-06,-1.040
2.380E-06,-1.032
2.390E-06,-0.936
2.400E-06,-0.624
2.410E-06,-0.112
2.420E-06,0.400
2.430E-06,1.080
2.440E-06,1.088
2.450E-06,1.080
2.460E-06,1.072
2.470E-06,1.080
2.480E-06,1.088
2.490E-06,1.080
2.500E-06,1.080
2.510E-06,1.080
2.520E-06,1.080
2.530E-06,1.072
2.540E-06,1.080
2.550E-06,1.080
2.560E-06,1.088
2.570E-06,1.088
2.580E-06,1.080
2.590E-06,1.080
2.600E-06,0.104
2.610E-06,-0.480
2.620E-06,-0.664
2.630E-06,-1.024
2.640E-06,-1.040
2.650E-06,-1.048
2.660E-06,-1.040
2.670E-06,-1.040
2.680E-06,-1.048
2.690E-06,-1.040
2.700E-06,-1.040
2.710E-06,-1.040
2.720E-06,-1.024
2.730E-06,-0.552
2.740E-06,0.136
2.750E-06,1.088
2.760E-06,1.080
2.770E-06,1.088
2.780E-06,1.080
2.790E-06,1.072
2.800E-06,0.456
2.810E-06,-0.072
2.820E-06,-0.400
2.830E-06,-0.096
2.840E-06,0.512
2.850E-06,1.080
2.860E-06,1.072
2.870E-06,1.080
2.880E-06,1.088
2.890E-06,1.080
2.900E-06,1.088
2.910E-06,1.080
2.920E-06,1.088
2.930E-06,1.088
2.940E-06,0.384
2.950E-06,-0.424
2.960E-06,-1.040
2.970E-06,-1.048
2.980E-06,-1.040
2.990E-06,-1.032
3.000E-06,-1.040
3.010E-06,-1.032
3.020E-06,-1.032
3.030E-06,-1.040
3.040E-06,-0.656
3.050E-06,0.096
3.060E-06,0.968
3.070E-06,1.080
3.080E-06,1.080
3.090E-06,1.072
3.100E-06,1.080
3.110E-06,1.088
3.120E-06,1.080
3.130E-06,1.088
3.140E-06,1.080
3.150E-06,1.080
3.160E-06,1.080
3.170E-06,1.064
3.180E-06,0.736
3.190E-06,0.448
3.200E-06,0.248
3.210E-06,0.168
3.220E-06,0.176
3.230E-06,0.360
3.240E-06,0.624
3.250E-06,0.928
3.260E-06,1.088
3.270E-06,1.080
3.280E-06,1.088
3.290E-06,1.080
3.300E-06,1.072
3.310E-06,1.080
3.320E-06,1.080
3.330E-06,-0.328
3.340E-06,-1.040
3.350E-06,-1.040
3.360E-06,-1.040
3.370E-06,-1.048
