mediciones/6-26/23.5/WaveData59232.csv

#timebase=2000000(ps)
,#voltbase=200000(mv/100)
#size=4000
-8.150E-06,0.000
-8.140E-06,-0.024
-8.130E-06,0.008
-8.120E-06,0.032
-8.110E-06,0.040
-8.100E-06,0.016
-8.090E-06,-0.024
-8.080E-06,-0.048
-8.070E-06,-0.024
-8.060E-06,0.016
-8.050E-06,0.048
-8.040E-06,0.048
-8.030E-06,0.040
-8.020E-06,0.016
-8.010E-06,0.016
-8.000E-06,-0.056
-7.990E-06,-0.064
-7.980E-06,-0.008
-7.970E-06,0.024
-7.960E-06,0.040
-7.950E-06,0.040
-7.940E-06,0.016
-7.930E-06,-0.008
-7.920E-06,-0.016
-7.910E-06,-0.016
-7.900E-06,0.000
-7.890E-06,0.024
-7.880E-06,0.048
-7.870E-06,0.056
-7.860E-06,0.024
-7.850E-06,-0.008
-7.840E-06,-0.008
-7.830E-06,0.008
-7.820E-06,0.032
-7.810E-06,0.056
-7.800E-06,0.032
-7.790E-06,0.016
-7.780E-06,-0.024
-7.770E-06,-0.024
-7.760E-06,-0.048
-7.750E-06,-0.048
-7.740E-06,-0.008
-7.730E-06,0.024
-7.720E-06,0.048
-7.710E-06,0.040
-7.700E-06,0.048
-7.690E-06,0.000
-7.680E-06,-0.040
-7.670E-06,-0.064
-7.660E-06,-0.056
-7.650E-06,0.016
-7.640E-06,0.056
-7.630E-06,0.080
-7.620E-06,0.056
-7.610E-06,0.008
-7.600E-06,-0.024
-7.590E-06,-0.040
-7.580E-06,-0.024
-7.570E-06,0.000
-7.560E-06,0.040
-7.550E-06,0.048
-7.540E-06,0.048
-7.530E-06,0.008
-7.520E-06,-0.016
-7.510E-06,-0.040
-7.500E-06,-0.016
-7.490E-06,-0.008
-7.480E-06,0.024
-7.470E-06,0.048
-7.460E-06,0.048
-7.450E-06,0.024
-7.440E-06,0.000
-7.430E-06,-0.008
-7.420E-06,0.000
-7.410E-06,0.000
-7.400E-06,0.032
-7.390E-06,0.032
-7.380E-06,-0.032
-7.370E-06,-0.040
-7.360E-06,-0.120
-7.350E-06,-0.064
-7.340E-06,0.056
-7.330E-06,0.040
-7.320E-06,0.080
-7.310E-06,0.008
-7.300E-06,-0.048
-7.290E-06,-0.064
-7.280E-06,-0.040
-7.270E-06,0.008
-7.260E-06,0.072
-7.250E-06,0.088
-7.240E-06,0.048
-7.230E-06,-0.008
-7.220E-06,-0.040
-7.210E-06,-0.064
-7.200E-06,-0.024
-7.190E-06,0.024
-7.180E-06,0.064
-7.170E-06,0.064
-7.160E-06,0.024
-7.150E-06,-0.008
-7.140E-06,-0.024
-7.130E-06,-0.024
-7.120E-06,-0.016
-7.110E-06,0.016
-7.100E-06,0.040
-7.090E-06,0.040
-7.080E-06,0.032
-7.070E-06,0.000
-7.060E-06,-0.016
-7.050E-06,-0.016
-7.040E-06,-0.008
-7.030E-06,0.008
-7.020E-06,0.024
-7.010E-06,0.032
-7.000E-06,0.040
-6.990E-06,0.016
-6.980E-06,-0.008
-6.970E-06,-0.008
-6.960E-06,-0.016
-6.950E-06,0.000
-6.940E-06,0.016
-6.930E-06,0.024
-6.920E-06,0.032
-6.910E-06,0.024
-6.900E-06,0.016
-6.890E-06,-0.008
-6.880E-06,-0.016
-6.870E-06,0.000
-6.860E-06,0.016
-6.850E-06,0.032
-6.840E-06,0.048
-6.830E-06,0.024
-6.820E-06,0.008
-6.810E-06,0.000
-6.800E-06,0.000
-6.790E-06,0.000
-6.780E-06,0.016
-6.770E-06,0.048
-6.760E-06,0.032
-6.750E-06,0.016
-6.740E-06,0.016
-6.730E-06,0.008
-6.720E-06,0.016
-6.710E-06,0.000
-6.700E-06,-0.024
-6.690E-06,-0.016
-6.680E-06,-0.160
-6.670E-06,-0.064
-6.660E-06,0.016
-6.650E-06,0.072
-6.640E-06,0.048
-6.630E-06,0.008
-6.620E-06,-0.056
-6.610E-06,-0.104
-6.600E-06,-0.080
-6.590E-06,-0.008
-6.580E-06,0.080
-6.570E-06,0.128
-6.560E-06,0.120
-6.550E-06,0.008
-6.540E-06,-0.064
-6.530E-06,-0.104
-6.520E-06,-0.072
-6.510E-06,-0.008
-6.500E-06,0.048
-6.490E-06,0.072
-6.480E-06,0.048
-6.470E-06,0.008
-6.460E-06,-0.024
-6.450E-06,-0.048
-6.440E-06,-0.032
-6.430E-06,0.024
-6.420E-06,0.064
-6.410E-06,0.080
-6.400E-06,0.056
-6.390E-06,-0.008
-6.380E-06,-0.112
-6.370E-06,-0.216
-6.360E-06,-0.096
-6.350E-06,-0.080
-6.340E-06,0.120
-6.330E-06,0.160
-6.320E-06,0.184
-6.310E-06,0.080
-6.300E-06,-0.072
-6.290E-06,-0.128
-6.280E-06,-0.152
-6.270E-06,-0.064
-6.260E-06,0.040
-6.250E-06,0.112
-6.240E-06,0.120
-6.230E-06,0.088
-6.220E-06,0.000
-6.210E-06,-0.064
-6.200E-06,-0.096
-6.190E-06,-0.056
-6.180E-06,0.000
-6.170E-06,0.088
-6.160E-06,0.072
-6.150E-06,0.048
-6.140E-06,-0.008
-6.130E-06,-0.056
-6.120E-06,-0.056
-6.110E-06,-0.016
-6.100E-06,0.016
-6.090E-06,0.040
-6.080E-06,0.080
-6.070E-06,0.048
-6.060E-06,0.008
-6.050E-06,-0.008
-6.040E-06,-0.080
-6.030E-06,-0.048
-6.020E-06,-0.016
-6.010E-06,0.056
-6.000E-06,0.048
-5.990E-06,0.064
-5.980E-06,0.024
-5.970E-06,-0.024
-5.960E-06,-0.056
-5.950E-06,-0.056
-5.940E-06,-0.032
-5.930E-06,0.016
-5.920E-06,0.048
-5.910E-06,0.064
-5.900E-06,0.016
-5.890E-06,-0.008
-5.880E-06,-0.032
-5.870E-06,-0.040
-5.860E-06,-0.008
-5.850E-06,0.008
-5.840E-06,0.032
-5.830E-06,0.032
-5.820E-06,0.040
-5.810E-06,0.016
-5.800E-06,-0.008
-5.790E-06,-0.016
-5.780E-06,-0.016
-5.770E-06,-0.008
-5.760E-06,0.016
-5.750E-06,0.048
-5.740E-06,0.024
-5.730E-06,0.024
-5.720E-06,-0.008
-5.710E-06,-0.016
-5.700E-06,-0.016
-5.690E-06,-0.016
-5.680E-06,0.016
-5.670E-06,0.040
-5.660E-06,0.048
-5.650E-06,0.024
-5.640E-06,0.008
-5.630E-06,-0.040
-5.620E-06,-0.040
-5.610E-06,-0.024
-5.600E-06,0.008
-5.590E-06,0.048
-5.580E-06,0.040
-5.570E-06,0.040
-5.560E-06,0.000
-5.550E-06,-0.008
-5.540E-06,-0.024
-5.530E-06,-0.016
-5.520E-06,-0.008
-5.510E-06,0.016
-5.500E-06,0.048
-5.490E-06,0.024
-5.480E-06,0.024
-5.470E-06,-0.016
-5.460E-06,-0.024
-5.450E-06,-0.016
-5.440E-06,-0.008
-5.430E-06,0.016
-5.420E-06,0.024
-5.410E-06,0.032
-5.400E-06,0.024
-5.390E-06,0.008
-5.380E-06,-0.008
-5.370E-06,-0.016
-5.360E-06,-0.008
-5.350E-06,-0.016
-5.340E-06,0.024
-5.330E-06,0.032
-5.320E-06,0.032
-5.310E-06,0.016
-5.300E-06,0.000
-5.290E-06,-0.008
-5.280E-06,-0.016
-5.270E-06,0.000
-5.260E-06,0.024
-5.250E-06,0.040
-5.240E-06,0.008
-5.230E-06,0.000
-5.220E-06,0.000
-5.210E-06,0.000
-5.200E-06,0.000
-5.190E-06,0.000
-5.180E-06,0.016
-5.170E-06,0.016
-5.160E-06,0.016
-5.150E-06,0.016
-5.140E-06,-0.008
-5.130E-06,0.000
-5.120E-06,-0.008
-5.110E-06,0.016
-5.100E-06,0.000
-5.090E-06,0.008
-5.080E-06,0.016
-5.070E-06,0.000
-5.060E-06,0.000
-5.050E-06,0.000
-5.040E-06,0.000
-5.030E-06,0.000
-5.020E-06,-0.008
-5.010E-06,0.000
-5.000E-06,-0.008
-4.990E-06,0.000
-4.980E-06,0.008
-4.970E-06,0.000
-4.960E-06,-0.008
-4.950E-06,0.000
-4.940E-06,-0.008
-4.930E-06,0.000
-4.920E-06,0.000
-4.910E-06,0.008
-4.900E-06,0.008
-4.890E-06,0.000
-4.880E-06,-0.008
-4.870E-06,0.000
-4.860E-06,-0.008
-4.850E-06,0.000
-4.840E-06,0.000
-4.830E-06,0.008
-4.820E-06,0.008
-4.810E-06,0.016
-4.800E-06,0.000
-4.790E-06,0.000
-4.780E-06,0.008
-4.770E-06,0.000
-4.760E-06,0.000
-4.750E-06,0.000
-4.740E-06,0.016
-4.730E-06,0.008
-4.720E-06,0.000
-4.710E-06,0.008
-4.700E-06,0.000
-4.690E-06,0.008
-4.680E-06,-0.008
-4.670E-06,0.000
-4.660E-06,0.008
-4.650E-06,0.016
-4.640E-06,0.000
-4.630E-06,0.000
-4.620E-06,-0.008
-4.610E-06,-0.008
-4.600E-06,-0.008
-4.590E-06,0.000
-4.580E-06,0.008
-4.570E-06,0.016
-4.560E-06,0.016
-4.550E-06,0.000
-4.540E-06,0.000
-4.530E-06,0.008
-4.520E-06,0.008
-4.510E-06,0.000
-4.500E-06,0.008
-4.490E-06,0.008
-4.480E-06,0.000
-4.470E-06,0.000
-4.460E-06,0.008
-4.450E-06,0.008
-4.440E-06,0.016
-4.430E-06,0.008
-4.420E-06,0.016
-4.410E-06,0.016
-4.400E-06,-0.016
-4.390E-06,-0.016
-4.380E-06,-0.008
-4.370E-06,0.008
-4.360E-06,0.016
-4.350E-06,0.024
-4.340E-06,0.024
-4.330E-06,0.008
-4.320E-06,0.016
-4.310E-06,0.000
-4.300E-06,0.000
-4.290E-06,0.016
-4.280E-06,0.024
-4.270E-06,0.024
-4.260E-06,0.016
-4.250E-06,0.000
-4.240E-06,0.000
-4.230E-06,0.000
-4.220E-06,0.008
-4.210E-06,0.008
-4.200E-06,0.016
-4.190E-06,0.024
-4.180E-06,0.016
-4.170E-06,-0.008
-4.160E-06,0.000
-4.150E-06,-0.048
-4.140E-06,-0.008
-4.130E-06,0.000
-4.120E-06,0.024
-4.110E-06,0.008
-4.100E-06,0.000
-4.090E-06,-0.008
-4.080E-06,-0.024
-4.070E-06,-0.008
-4.060E-06,0.000
-4.050E-06,0.024
-4.040E-06,0.024
-4.030E-06,0.016
-4.020E-06,0.000
-4.010E-06,-0.024
-4.000E-06,-0.008
-3.990E-06,0.000
-3.980E-06,0.016
-3.970E-06,0.024
-3.960E-06,0.040
-3.950E-06,0.016
-3.940E-06,0.000
-3.930E-06,-0.008
-3.920E-06,0.000
-3.910E-06,-0.008
-3.900E-06,0.016
-3.890E-06,0.032
-3.880E-06,0.048
-3.870E-06,0.016
-3.860E-06,0.000
-3.850E-06,-0.016
-3.840E-06,-0.024
-3.830E-06,-0.016
-3.820E-06,0.008
-3.810E-06,0.024
-3.800E-06,0.040
-3.790E-06,0.056
-3.780E-06,0.024
-3.770E-06,0.008
-3.760E-06,-0.016
-3.750E-06,-0.008
-3.740E-06,-0.008
-3.730E-06,-0.064
-3.720E-06,-0.024
-3.710E-06,-0.008
-3.700E-06,-0.024
-3.690E-06,0.024
-3.680E-06,0.048
-3.670E-06,0.048
-3.660E-06,-0.008
-3.650E-06,-0.080
-3.640E-06,-0.008
-3.630E-06,0.000
-3.620E-06,0.024
-3.610E-06,0.056
-3.600E-06,0.032
-3.590E-06,0.024
-3.580E-06,-0.008
-3.570E-06,-0.032
-3.560E-06,-0.064
-3.550E-06,-0.016
-3.540E-06,0.024
-3.530E-06,0.056
-3.520E-06,0.064
-3.510E-06,0.016
-3.500E-06,-0.016
-3.490E-06,-0.048
-3.480E-06,-0.024
-3.470E-06,0.000
-3.460E-06,0.016
-3.450E-06,0.032
-3.440E-06,0.048
-3.430E-06,0.024
-3.420E-06,0.000
-3.410E-06,-0.024
-3.400E-06,-0.008
-3.390E-06,0.000
-3.380E-06,0.024
-3.370E-06,0.040
-3.360E-06,0.032
-3.350E-06,0.032
-3.340E-06,0.008
-3.330E-06,-0.008
-3.320E-06,-0.008
-3.310E-06,-0.008
-3.300E-06,0.000
-3.290E-06,0.024
-3.280E-06,0.048
-3.270E-06,0.048
-3.260E-06,0.016
-3.250E-06,0.000
-3.240E-06,-0.016
-3.230E-06,-0.016
-3.220E-06,-0.008
-3.210E-06,0.000
-3.200E-06,0.032
-3.190E-06,0.032
-3.180E-06,-0.008
-3.170E-06,-0.008
-3.160E-06,-0.016
-3.150E-06,0.000
-3.140E-06,0.008
-3.130E-06,0.024
-3.120E-06,0.008
-3.110E-06,0.000
-3.100E-06,-0.008
-3.090E-06,-0.008
-3.080E-06,0.000
-3.070E-06,0.008
-3.060E-06,0.008
-3.050E-06,0.008
-3.040E-06,0.016
-3.030E-06,0.016
-3.020E-06,-0.008
-3.010E-06,0.000
-3.000E-06,0.000
-2.990E-06,0.016
-2.980E-06,0.024
-2.970E-06,0.008
-2.960E-06,0.008
-2.950E-06,0.016
-2.940E-06,0.024
-2.930E-06,0.000
-2.920E-06,0.008
-2.910E-06,0.016
-2.900E-06,-0.016
-2.890E-06,-0.016
-2.880E-06,-0.024
-2.870E-06,-0.008
-2.860E-06,0.008
-2.850E-06,0.008
-2.840E-06,0.016
-2.830E-06,0.016
-2.820E-06,-0.016
-2.810E-06,-0.024
-2.800E-06,-0.016
-2.790E-06,0.008
-2.780E-06,0.008
-2.770E-06,0.016
-2.760E-06,0.016
-2.750E-06,0.016
-2.740E-06,0.000
-2.730E-06,-0.008
-2.720E-06,-0.008
-2.710E-06,0.000
-2.700E-06,0.008
-2.690E-06,0.016
-2.680E-06,0.000
-2.670E-06,0.000
-2.660E-06,0.008
-2.650E-06,-0.008
-2.640E-06,0.000
-2.630E-06,0.008
-2.620E-06,0.000
-2.610E-06,0.016
-2.600E-06,0.016
-2.590E-06,0.016
-2.580E-06,0.000
-2.570E-06,0.000
-2.560E-06,-0.016
-2.550E-06,0.008
-2.540E-06,0.016
-2.530E-06,0.024
-2.520E-06,0.008
-2.510E-06,0.008
-2.500E-06,0.008
-2.490E-06,-0.008
-2.480E-06,0.000
-2.470E-06,0.008
-2.460E-06,0.000
-2.450E-06,0.016
-2.440E-06,0.016
-2.430E-06,0.016
-2.420E-06,0.016
-2.410E-06,0.008
-2.400E-06,0.008
-2.390E-06,0.008
-2.380E-06,0.008
-2.370E-06,0.008
-2.360E-06,0.000
-2.350E-06,0.008
-2.340E-06,0.016
-2.330E-06,0.016
-2.320E-06,0.008
-2.310E-06,0.016
-2.300E-06,0.024
-2.290E-06,0.008
-2.280E-06,0.016
-2.270E-06,0.024
-2.260E-06,0.032
-2.250E-06,0.016
-2.240E-06,0.024
-2.230E-06,0.032
-2.220E-06,0.032
-2.210E-06,0.048
-2.200E-06,0.024
-2.190E-06,0.040
-2.180E-06,0.024
-2.170E-06,0.024
-2.160E-06,0.040
-2.150E-06,0.040
-2.140E-06,0.048
-2.130E-06,0.144
-2.120E-06,0.024
-2.110E-06,-0.064
-2.100E-06,0.008
-2.090E-06,0.056
-2.080E-06,0.104
-2.070E-06,0.008
-2.060E-06,0.072
-2.050E-06,-0.080
-2.040E-06,-0.072
-2.030E-06,-0.344
-2.020E-06,-0.424
-2.010E-06,-0.208
-2.000E-06,0.104
-1.990E-06,0.304
-1.980E-06,0.344
-1.970E-06,0.184
-1.960E-06,-0.136
-1.950E-06,-0.304
-1.940E-06,-0.328
-1.930E-06,-0.136
-1.920E-06,0.128
-1.910E-06,0.264
-1.900E-06,0.296
-1.890E-06,0.128
-1.880E-06,-0.072
-1.870E-06,-0.208
-1.860E-06,-0.160
-1.850E-06,-0.032
-1.840E-06,0.096
-1.830E-06,0.200
-1.820E-06,0.152
-1.810E-06,0.032
-1.800E-06,0.024
-1.790E-06,-0.144
-1.780E-06,-0.104
-1.770E-06,-0.048
-1.760E-06,0.008
-1.750E-06,0.144
-1.740E-06,0.128
-1.730E-06,0.088
-1.720E-06,-0.008
-1.710E-06,-0.072
-1.700E-06,-0.080
-1.690E-06,-0.048
-1.680E-06,0.024
-1.670E-06,0.072
-1.660E-06,0.104
-1.650E-06,0.080
-1.640E-06,0.024
-1.630E-06,-0.016
-1.620E-06,-0.048
-1.610E-06,-0.024
-1.600E-06,0.024
-1.590E-06,0.040
-1.580E-06,0.072
-1.570E-06,0.056
-1.560E-06,0.032
-1.550E-06,-0.008
-1.540E-06,-0.008
-1.530E-06,-0.008
-1.520E-06,0.024
-1.510E-06,0.064
-1.500E-06,0.072
-1.490E-06,0.104
-1.480E-06,0.096
-1.470E-06,0.080
-1.460E-06,0.072
-1.450E-06,0.056
-1.440E-06,-0.096
-1.430E-06,-0.152
-1.420E-06,-0.272
-1.410E-06,-0.112
-1.400E-06,-0.064
-1.390E-06,0.112
-1.380E-06,0.136
-1.370E-06,0.088
-1.360E-06,0.032
-1.350E-06,-0.112
-1.340E-06,-0.144
-1.330E-06,-0.152
-1.320E-06,-0.032
-1.310E-06,0.112
-1.300E-06,0.200
-1.290E-06,0.216
-1.280E-06,0.104
-1.270E-06,-0.040
-1.260E-06,-0.128
-1.250E-06,-0.120
-1.240E-06,0.000
-1.230E-06,-0.024
-1.220E-06,0.184
-1.210E-06,0.088
-1.200E-06,0.024
-1.190E-06,-0.032
-1.180E-06,-0.144
-1.170E-06,-0.136
-1.160E-06,-0.072
-1.150E-06,0.096
-1.140E-06,0.128
-1.130E-06,0.160
-1.120E-06,0.080
-1.110E-06,-0.016
-1.100E-06,-0.056
-1.090E-06,-0.040
-1.080E-06,0.048
-1.070E-06,0.072
-1.060E-06,0.048
-1.050E-06,0.048
-1.040E-06,0.000
-1.030E-06,-0.112
-1.020E-06,-0.152
-1.010E-06,-0.072
-1.000E-06,0.088
-9.900E-07,0.112
-9.800E-07,0.112
-9.700E-07,0.056
-9.600E-07,0.016
-9.500E-07,0.008
-9.400E-07,-0.040
-9.300E-07,0.008
-9.200E-07,0.056
-9.100E-07,0.048
-9.000E-07,0.128
-8.900E-07,0.024
-8.800E-07,0.064
-8.700E-07,0.024
-8.600E-07,0.048
-8.500E-07,0.040
-8.400E-07,0.024
-8.300E-07,0.016
-8.200E-07,0.008
-8.100E-07,0.072
-8.000E-07,0.024
-7.900E-07,0.032
-7.800E-07,0.040
-7.700E-07,0.024
-7.600E-07,0.104
-7.500E-07,0.112
-7.400E-07,0.104
-7.300E-07,0.064
-7.200E-07,0.096
-7.100E-07,0.096
-7.000E-07,0.112
-6.900E-07,0.096
-6.800E-07,0.088
-6.700E-07,0.056
-6.600E-07,0.000
-6.500E-07,0.016
-6.400E-07,-0.040
-6.300E-07,0.048
-6.200E-07,0.104
-6.100E-07,0.120
-6.000E-07,0.112
-5.900E-07,0.128
-5.800E-07,0.088
-5.700E-07,0.112
-5.600E-07,0.048
-5.500E-07,0.112
-5.400E-07,0.152
-5.300E-07,0.128
-5.200E-07,0.144
-5.100E-07,0.136
-5.000E-07,0.080
-4.900E-07,0.080
-4.800E-07,0.072
-4.700E-07,0.152
-4.600E-07,0.176
-4.500E-07,0.152
-4.400E-07,0.192
-4.300E-07,0.136
-4.200E-07,0.160
-4.100E-07,0.112
-4.000E-07,0.104
-3.900E-07,0.184
-3.800E-07,0.192
-3.700E-07,0.264
-3.600E-07,0.248
-3.500E-07,0.240
-3.400E-07,0.184
-3.300E-07,0.184
-3.200E-07,0.128
-3.100E-07,0.120
-3.000E-07,-0.008
-2.900E-07,-0.072
-2.800E-07,-0.056
-2.700E-07,-0.064
-2.600E-07,0.128
-2.500E-07,0.072
-2.400E-07,0.120
-2.300E-07,0.176
-2.200E-07,0.168
-2.100E-07,-0.024
-2.000E-07,-0.192
-1.900E-07,-0.176
-1.800E-07,0.000
-1.700E-07,0.136
-1.600E-07,0.224
-1.500E-07,0.240
-1.400E-07,0.144
-1.300E-07,0.168
-1.200E-07,0.040
-1.100E-07,0.136
-1.000E-07,0.184
-9.000E-08,0.224
-8.000E-08,0.120
-7.000E-08,-0.256
-6.000E-08,-0.544
-5.000E-08,-0.672
-4.000E-08,-0.592
-3.000E-08,-0.184
-2.000E-08,0.120
-1.000E-08,0.528
0.000E+00,0.248
1.000E-08,-0.104
2.000E-08,-0.480
3.000E-08,-0.864
4.000E-08,-0.768
5.000E-08,-0.344
6.000E-08,-0.056
7.000E-08,0.328
8.000E-08,0.328
9.000E-08,0.256
1.000E-07,-0.064
1.100E-07,-0.336
1.200E-07,-0.384
1.300E-07,-0.040
1.400E-07,0.384
1.500E-07,0.584
1.600E-07,0.688
1.700E-07,0.544
1.800E-07,0.320
1.900E-07,0.016
2.000E-07,-0.144
2.100E-07,-0.160
2.200E-07,0.040
2.300E-07,0.280
2.400E-07,0.432
2.500E-07,0.456
2.600E-07,0.264
2.700E-07,-0.032
2.800E-07,-0.208
2.900E-07,-0.192
3.000E-07,-0.048
3.100E-07,0.192
3.200E-07,0.384
3.300E-07,0.416
3.400E-07,0.352
3.500E-07,0.216
3.600E-07,0.104
3.700E-07,0.072
3.800E-07,0.192
3.900E-07,0.344
4.000E-07,0.392
4.100E-07,0.376
4.200E-07,0.296
4.300E-07,0.224
4.400E-07,0.184
4.500E-07,0.176
4.600E-07,0.256
4.700E-07,0.352
4.800E-07,0.432
4.900E-07,0.440
5.000E-07,0.384
5.100E-07,0.320
5.200E-07,0.256
5.300E-07,0.216
5.400E-07,0.264
5.500E-07,0.328
5.600E-07,0.376
5.700E-07,0.400
5.800E-07,0.384
5.900E-07,0.304
6.000E-07,0.264
6.100E-07,0.216
6.200E-07,0.248
6.300E-07,0.272
6.400E-07,0.312
6.500E-07,0.328
6.600E-07,0.320
6.700E-07,0.288
6.800E-07,0.248
6.900E-07,0.216
7.000E-07,0.216
7.100E-07,0.240
7.200E-07,0.256
7.300E-07,0.280
7.400E-07,0.280
7.500E-07,0.264
7.600E-07,0.256
7.700E-07,0.248
7.800E-07,0.256
7.900E-07,0.312
8.000E-07,0.336
8.100E-07,0.360
8.200E-07,0.360
8.300E-07,0.320
8.400E-07,0.280
8.500E-07,0.256
8.600E-07,0.248
8.700E-07,0.280
8.800E-07,0.304
8.900E-07,0.328
9.000E-07,0.336
9.100E-07,0.328
9.200E-07,0.312
9.300E-07,0.272
9.400E-07,0.280
9.500E-07,0.288
9.600E-07,0.312
9.700E-07,0.336
9.800E-07,0.336
9.900E-07,0.336
1.000E-06,0.304
1.010E-06,0.304
1.020E-06,0.288
1.030E-06,0.304
1.040E-06,0.312
1.050E-06,0.336
1.060E-06,0.336
1.070E-06,0.320
1.080E-06,0.304
1.090E-06,0.296
1.100E-06,0.280
1.110E-06,0.280
1.120E-06,0.288
1.130E-06,0.304
1.140E-06,0.312
1.150E-06,0.304
1.160E-06,0.312
1.170E-06,0.288
1.180E-06,0.288
1.190E-06,0.280
1.200E-06,0.288
1.210E-06,0.296
1.220E-06,0.312
1.230E-06,0.312
1.240E-06,0.312
1.250E-06,0.304
1.260E-06,0.288
1.270E-06,0.272
1.280E-06,0.280
1.290E-06,0.288
1.300E-06,0.288
1.310E-06,0.280
1.320E-06,0.280
1.330E-06,0.280
1.340E-06,0.288
1.350E-06,0.288
1.360E-06,0.272
1.370E-06,0.280
1.380E-06,0.288
1.390E-06,0.280
1.400E-06,0.288
1.410E-06,0.280
1.420E-06,0.280
1.430E-06,0.272
1.440E-06,0.280
1.450E-06,0.272
1.460E-06,0.288
1.470E-06,0.288
1.480E-06,0.288
1.490E-06,0.288
1.500E-06,0.272
1.510E-06,0.264
1.520E-06,0.256
1.530E-06,0.272
1.540E-06,0.264
1.550E-06,0.272
1.560E-06,0.256
1.570E-06,0.256
1.580E-06,0.248
1.590E-06,0.248
1.600E-06,0.272
1.610E-06,0.288
1.620E-06,0.296
1.630E-06,0.304
1.640E-06,0.288
1.650E-06,0.272
1.660E-06,0.256
1.670E-06,0.256
1.680E-06,0.248
1.690E-06,0.280
1.700E-06,0.288
1.710E-06,0.288
1.720E-06,0.280
1.730E-06,0.264
1.740E-06,0.248
1.750E-06,0.248
1.760E-06,0.240
1.770E-06,0.248
1.780E-06,0.264
1.790E-06,0.280
1.800E-06,0.272
1.810E-06,0.280
1.820E-06,0.272
1.830E-06,0.264
1.840E-06,0.264
1.850E-06,0.264
1.860E-06,0.256
1.870E-06,0.256
1.880E-06,0.256
1.890E-06,0.256
1.900E-06,0.248
1.910E-06,0.248
1.920E-06,0.248
1.930E-06,0.256
1.940E-06,0.264
1.950E-06,0.264
1.960E-06,0.256
1.970E-06,0.256
1.980E-06,0.248
1.990E-06,0.248
2.000E-06,0.248
2.010E-06,0.248
2.020E-06,0.248
2.030E-06,0.256
2.040E-06,0.256
2.050E-06,0.256
2.060E-06,0.248
2.070E-06,0.248
2.080E-06,0.240
2.090E-06,0.248
2.100E-06,0.256
2.110E-06,0.256
2.120E-06,0.256
2.130E-06,0.256
2.140E-06,0.248
2.150E-06,0.240
2.160E-06,0.224
2.170E-06,0.240
2.180E-06,0.240
2.190E-06,0.256
2.200E-06,0.248
2.210E-06,0.248
2.220E-06,0.248
2.230E-06,0.248
2.240E-06,0.240
2.250E-06,0.240
2.260E-06,0.248
2.270E-06,0.248
2.280E-06,0.240
2.290E-06,0.248
2.300E-06,0.232
2.310E-06,0.232
2.320E-06,0.232
2.330E-06,0.224
2.340E-06,0.216
2.350E-06,0.224
2.360E-06,0.216
2.370E-06,0.232
2.380E-06,0.240
2.390E-06,0.240
2.400E-06,0.240
2.410E-06,0.224
2.420E-06,0.216
2.430E-06,0.216
2.440E-06,0.224
2.450E-06,0.224
2.460E-06,0.240
2.470E-06,0.240
2.480E-06,0.224
2.490E-06,0.216
2.500E-06,0.200
2.510E-06,0.192
2.520E-06,0.216
2.530E-06,0.224
2.540E-06,0.240
2.550E-06,0.240
2.560E-06,0.224
2.570E-06,0.208
2.580E-06,0.184
2.590E-06,0.176
2.600E-06,0.200
2.610E-06,0.208
2.620E-06,0.216
2.630E-06,0.224
2.640E-06,0.208
2.650E-06,0.192
2.660E-06,0.152
2.670E-06,0.160
2.680E-06,0.184
2.690E-06,0.216
2.700E-06,0.224
2.710E-06,0.232
2.720E-06,0.216
2.730E-06,0.200
2.740E-06,0.176
2.750E-06,0.184
2.760E-06,0.192
2.770E-06,0.216
2.780E-06,0.248
2.790E-06,0.240
2.800E-06,0.216
2.810E-06,0.176
2.820E-06,0.152
2.830E-06,0.160
2.840E-06,0.176
2.850E-06,0.208
2.860E-06,0.216
2.870E-06,0.232
2.880E-06,0.224
2.890E-06,0.192
2.900E-06,0.176
2.910E-06,0.168
2.920E-06,0.168
2.930E-06,0.192
2.940E-06,0.216
2.950E-06,0.208
2.960E-06,0.208
2.970E-06,0.192
2.980E-06,0.176
2.990E-06,0.152
3.000E-06,0.176
3.010E-06,0.192
3.020E-06,0.208
3.030E-06,0.216
3.040E-06,0.208
3.050E-06,0.200
3.060E-06,0.184
3.070E-06,0.168
3.080E-06,0.176
3.090E-06,0.176
3.100E-06,0.192
3.110E-06,0.184
3.120E-06,0.176
3.130E-06,0.176
3.140E-06,0.176
3.150E-06,0.176
3.160E-06,0.168
3.170E-06,0.176
3.180E-06,0.192
3.190E-06,0.192
3.200E-06,0.192
3.210E-06,0.184
3.220E-06,0.184
3.230E-06,0.168
3.240E-06,0.168
3.250E-06,0.168
3.260E-06,0.176
3.270E-06,0.176
3.280E-06,0.176
3.290E-06,0.176
3.300E-06,0.184
3.310E-06,0.176
3.320E-06,0.160
3.330E-06,0.152
3.340E-06,0.160
3.350E-06,0.152
3.360E-06,0.152
3.370E-06,0.152
3.380E-06,0.152
3.390E-06,0.144
3.400E-06,0.168
3.410E-06,0.176
3.420E-06,0.176
3.430E-06,0.168
3.440E-06,0.160
3.450E-06,0.152
3.460E-06,0.144
3.470E-06,0.152
3.480E-06,0.160
3.490E-06,0.168
3.500E-06,0.176
3.510E-06,0.168
3.520E-06,0.152
3.530E-06,0.144
3.540E-06,0.144
3.550E-06,0.152
3.560E-06,0.144
3.570E-06,0.168
3.580E-06,0.168
3.590E-06,0.168
3.600E-06,0.144
3.610E-06,0.136
3.620E-06,0.128
