mediciones/6-26/23.5/WaveData59228.csv

#timebase=2000000(ps)
,#voltbase=200000(mv/100)
#size=4000
-8.150E-06,0.000
-8.140E-06,0.016
-8.130E-06,0.008
-8.120E-06,0.000
-8.110E-06,0.008
-8.100E-06,0.000
-8.090E-06,0.000
-8.080E-06,0.000
-8.070E-06,-0.008
-8.060E-06,0.000
-8.050E-06,0.008
-8.040E-06,-0.008
-8.030E-06,0.008
-8.020E-06,0.000
-8.010E-06,0.008
-8.000E-06,-0.008
-7.990E-06,0.000
-7.980E-06,0.000
-7.970E-06,0.000
-7.960E-06,0.000
-7.950E-06,0.000
-7.940E-06,0.008
-7.930E-06,0.016
-7.920E-06,0.000
-7.910E-06,0.000
-7.900E-06,0.000
-7.890E-06,0.000
-7.880E-06,0.016
-7.870E-06,0.000
-7.860E-06,0.008
-7.850E-06,0.008
-7.840E-06,0.000
-7.830E-06,0.000
-7.820E-06,-0.008
-7.810E-06,-0.008
-7.800E-06,0.000
-7.790E-06,-0.008
-7.780E-06,0.000
-7.770E-06,-0.008
-7.760E-06,0.000
-7.750E-06,0.008
-7.740E-06,0.008
-7.730E-06,0.008
-7.720E-06,0.008
-7.710E-06,0.000
-7.700E-06,0.000
-7.690E-06,0.008
-7.680E-06,0.008
-7.670E-06,0.000
-7.660E-06,0.008
-7.650E-06,-0.008
-7.640E-06,-0.008
-7.630E-06,0.000
-7.620E-06,0.000
-7.610E-06,-0.008
-7.600E-06,0.008
-7.590E-06,0.000
-7.580E-06,0.008
-7.570E-06,0.008
-7.560E-06,0.008
-7.550E-06,0.000
-7.540E-06,-0.008
-7.530E-06,0.008
-7.520E-06,0.000
-7.510E-06,0.000
-7.500E-06,0.000
-7.490E-06,0.008
-7.480E-06,0.008
-7.470E-06,0.000
-7.460E-06,0.000
-7.450E-06,0.000
-7.440E-06,0.000
-7.430E-06,0.008
-7.420E-06,0.008
-7.410E-06,0.000
-7.400E-06,0.000
-7.390E-06,0.000
-7.380E-06,0.008
-7.370E-06,0.000
-7.360E-06,0.008
-7.350E-06,0.000
-7.340E-06,0.000
-7.330E-06,0.000
-7.320E-06,0.008
-7.310E-06,0.000
-7.300E-06,0.000
-7.290E-06,0.000
-7.280E-06,0.000
-7.270E-06,0.000
-7.260E-06,0.000
-7.250E-06,0.008
-7.240E-06,0.008
-7.230E-06,0.008
-7.220E-06,0.000
-7.210E-06,0.000
-7.200E-06,0.008
-7.190E-06,-0.008
-7.180E-06,0.000
-7.170E-06,0.008
-7.160E-06,0.000
-7.150E-06,0.008
-7.140E-06,0.008
-7.130E-06,-0.008
-7.120E-06,0.000
-7.110E-06,0.000
-7.100E-06,-0.008
-7.090E-06,0.000
-7.080E-06,0.008
-7.070E-06,0.008
-7.060E-06,0.008
-7.050E-06,0.000
-7.040E-06,0.008
-7.030E-06,-0.008
-7.020E-06,-0.008
-7.010E-06,0.000
-7.000E-06,-0.008
-6.990E-06,0.000
-6.980E-06,0.008
-6.970E-06,0.008
-6.960E-06,0.008
-6.950E-06,0.008
-6.940E-06,-0.008
-6.930E-06,0.008
-6.920E-06,0.008
-6.910E-06,0.008
-6.900E-06,0.000
-6.890E-06,0.008
-6.880E-06,0.016
-6.870E-06,0.016
-6.860E-06,0.008
-6.850E-06,-0.008
-6.840E-06,0.000
-6.830E-06,0.000
-6.820E-06,0.016
-6.810E-06,0.016
-6.800E-06,0.000
-6.790E-06,0.000
-6.780E-06,0.008
-6.770E-06,0.000
-6.760E-06,0.000
-6.750E-06,0.000
-6.740E-06,0.008
-6.730E-06,0.000
-6.720E-06,-0.008
-6.710E-06,0.008
-6.700E-06,0.000
-6.690E-06,0.008
-6.680E-06,0.008
-6.670E-06,0.000
-6.660E-06,0.008
-6.650E-06,0.000
-6.640E-06,0.000
-6.630E-06,0.008
-6.620E-06,-0.008
-6.610E-06,0.000
-6.600E-06,0.008
-6.590E-06,0.000
-6.580E-06,-0.008
-6.570E-06,0.008
-6.560E-06,0.016
-6.550E-06,0.008
-6.540E-06,0.016
-6.530E-06,0.016
-6.520E-06,0.000
-6.510E-06,0.000
-6.500E-06,0.000
-6.490E-06,0.008
-6.480E-06,0.000
-6.470E-06,0.000
-6.460E-06,0.000
-6.450E-06,0.000
-6.440E-06,0.000
-6.430E-06,0.000
-6.420E-06,0.008
-6.410E-06,0.000
-6.400E-06,0.000
-6.390E-06,0.008
-6.380E-06,-0.008
-6.370E-06,0.000
-6.360E-06,0.000
-6.350E-06,0.008
-6.340E-06,0.008
-6.330E-06,0.000
-6.320E-06,0.008
-6.310E-06,-0.008
-6.300E-06,0.000
-6.290E-06,-0.008
-6.280E-06,0.008
-6.270E-06,0.000
-6.260E-06,0.008
-6.250E-06,0.008
-6.240E-06,0.008
-6.230E-06,0.008
-6.220E-06,0.008
-6.210E-06,-0.008
-6.200E-06,0.008
-6.190E-06,0.000
-6.180E-06,0.008
-6.170E-06,0.008
-6.160E-06,0.000
-6.150E-06,0.000
-6.140E-06,0.008
-6.130E-06,0.008
-6.120E-06,-0.008
-6.110E-06,0.000
-6.100E-06,-0.008
-6.090E-06,-0.008
-6.080E-06,0.008
-6.070E-06,0.000
-6.060E-06,0.000
-6.050E-06,0.008
-6.040E-06,0.000
-6.030E-06,0.000
-6.020E-06,0.000
-6.010E-06,0.000
-6.000E-06,0.008
-5.990E-06,0.000
-5.980E-06,0.000
-5.970E-06,0.000
-5.960E-06,0.000
-5.950E-06,0.008
-5.940E-06,0.000
-5.930E-06,0.000
-5.920E-06,0.000
-5.910E-06,0.016
-5.900E-06,0.016
-5.890E-06,-0.008
-5.880E-06,-0.008
-5.870E-06,0.008
-5.860E-06,0.008
-5.850E-06,0.008
-5.840E-06,0.016
-5.830E-06,0.016
-5.820E-06,-0.008
-5.810E-06,0.000
-5.800E-06,0.008
-5.790E-06,0.000
-5.780E-06,0.000
-5.770E-06,0.008
-5.760E-06,0.008
-5.750E-06,0.008
-5.740E-06,-0.008
-5.730E-06,0.000
-5.720E-06,0.000
-5.710E-06,-0.008
-5.700E-06,0.008
-5.690E-06,-0.008
-5.680E-06,0.000
-5.670E-06,0.008
-5.660E-06,-0.008
-5.650E-06,0.000
-5.640E-06,0.000
-5.630E-06,0.008
-5.620E-06,0.016
-5.610E-06,0.016
-5.600E-06,0.016
-5.590E-06,0.016
-5.580E-06,0.016
-5.570E-06,0.000
-5.560E-06,0.000
-5.550E-06,0.000
-5.540E-06,0.000
-5.530E-06,0.008
-5.520E-06,0.000
-5.510E-06,0.008
-5.500E-06,-0.008
-5.490E-06,0.008
-5.480E-06,0.008
-5.470E-06,0.008
-5.460E-06,0.000
-5.450E-06,0.000
-5.440E-06,-0.008
-5.430E-06,-0.008
-5.420E-06,0.000
-5.410E-06,0.008
-5.400E-06,0.000
-5.390E-06,0.000
-5.380E-06,0.008
-5.370E-06,0.000
-5.360E-06,-0.008
-5.350E-06,-0.008
-5.340E-06,0.008
-5.330E-06,0.000
-5.320E-06,0.000
-5.310E-06,-0.008
-5.300E-06,0.000
-5.290E-06,0.000
-5.280E-06,0.000
-5.270E-06,0.000
-5.260E-06,0.000
-5.250E-06,0.008
-5.240E-06,0.000
-5.230E-06,0.000
-5.220E-06,0.016
-5.210E-06,0.016
-5.200E-06,0.008
-5.190E-06,0.000
-5.180E-06,0.008
-5.170E-06,0.000
-5.160E-06,0.000
-5.150E-06,0.000
-5.140E-06,-0.008
-5.130E-06,0.000
-5.120E-06,0.008
-5.110E-06,0.016
-5.100E-06,0.024
-5.090E-06,0.008
-5.080E-06,0.016
-5.070E-06,0.008
-5.060E-06,-0.008
-5.050E-06,0.000
-5.040E-06,0.000
-5.030E-06,0.008
-5.020E-06,0.000
-5.010E-06,0.008
-5.000E-06,0.000
-4.990E-06,0.000
-4.980E-06,0.008
-4.970E-06,0.008
-4.960E-06,0.008
-4.950E-06,0.000
-4.940E-06,0.008
-4.930E-06,0.000
-4.920E-06,0.008
-4.910E-06,0.000
-4.900E-06,0.000
-4.890E-06,0.008
-4.880E-06,0.000
-4.870E-06,0.000
-4.860E-06,0.008
-4.850E-06,-0.008
-4.840E-06,0.000
-4.830E-06,0.008
-4.820E-06,0.000
-4.810E-06,0.008
-4.800E-06,0.008
-4.790E-06,0.000
-4.780E-06,0.000
-4.770E-06,0.000
-4.760E-06,0.000
-4.750E-06,0.000
-4.740E-06,0.000
-4.730E-06,0.008
-4.720E-06,0.008
-4.710E-06,0.008
-4.700E-06,0.000
-4.690E-06,0.008
-4.680E-06,-0.008
-4.670E-06,0.000
-4.660E-06,0.000
-4.650E-06,0.008
-4.640E-06,0.000
-4.630E-06,0.000
-4.620E-06,0.000
-4.610E-06,0.000
-4.600E-06,0.000
-4.590E-06,0.008
-4.580E-06,0.008
-4.570E-06,-0.008
-4.560E-06,0.008
-4.550E-06,-0.008
-4.540E-06,0.000
-4.530E-06,0.008
-4.520E-06,0.008
-4.510E-06,0.000
-4.500E-06,0.000
-4.490E-06,0.000
-4.480E-06,0.000
-4.470E-06,0.008
-4.460E-06,-0.008
-4.450E-06,0.008
-4.440E-06,0.008
-4.430E-06,0.016
-4.420E-06,0.008
-4.410E-06,-0.008
-4.400E-06,0.008
-4.390E-06,0.000
-4.380E-06,0.000
-4.370E-06,0.008
-4.360E-06,0.008
-4.350E-06,0.000
-4.340E-06,0.008
-4.330E-06,0.008
-4.320E-06,0.008
-4.310E-06,0.000
-4.300E-06,0.008
-4.290E-06,0.008
-4.280E-06,0.008
-4.270E-06,0.008
-4.260E-06,-0.008
-4.250E-06,-0.008
-4.240E-06,0.000
-4.230E-06,0.000
-4.220E-06,0.000
-4.210E-06,-0.008
-4.200E-06,-0.008
-4.190E-06,0.008
-4.180E-06,0.000
-4.170E-06,0.016
-4.160E-06,0.008
-4.150E-06,0.000
-4.140E-06,0.000
-4.130E-06,-0.008
-4.120E-06,0.008
-4.110E-06,-0.008
-4.100E-06,0.000
-4.090E-06,0.016
-4.080E-06,0.000
-4.070E-06,-0.008
-4.060E-06,0.000
-4.050E-06,0.000
-4.040E-06,0.000
-4.030E-06,0.008
-4.020E-06,0.008
-4.010E-06,0.008
-4.000E-06,0.000
-3.990E-06,0.008
-3.980E-06,0.008
-3.970E-06,0.000
-3.960E-06,0.000
-3.950E-06,0.000
-3.940E-06,0.008
-3.930E-06,0.008
-3.920E-06,0.008
-3.910E-06,0.000
-3.900E-06,-0.008
-3.890E-06,0.000
-3.880E-06,0.000
-3.870E-06,0.008
-3.860E-06,0.008
-3.850E-06,0.000
-3.840E-06,0.008
-3.830E-06,0.008
-3.820E-06,0.000
-3.810E-06,-0.008
-3.800E-06,0.008
-3.790E-06,0.016
-3.780E-06,0.016
-3.770E-06,0.000
-3.760E-06,0.000
-3.750E-06,0.000
-3.740E-06,0.000
-3.730E-06,0.008
-3.720E-06,-0.008
-3.710E-06,0.008
-3.700E-06,0.008
-3.690E-06,0.016
-3.680E-06,0.008
-3.670E-06,0.000
-3.660E-06,0.000
-3.650E-06,0.000
-3.640E-06,0.000
-3.630E-06,0.000
-3.620E-06,-0.008
-3.610E-06,0.008
-3.600E-06,0.000
-3.590E-06,0.000
-3.580E-06,0.000
-3.570E-06,0.000
-3.560E-06,0.000
-3.550E-06,0.008
-3.540E-06,0.000
-3.530E-06,-0.008
-3.520E-06,0.000
-3.510E-06,0.008
-3.500E-06,0.016
-3.490E-06,0.000
-3.480E-06,-0.008
-3.470E-06,0.008
-3.460E-06,-0.008
-3.450E-06,0.000
-3.440E-06,0.000
-3.430E-06,0.000
-3.420E-06,0.000
-3.410E-06,0.000
-3.400E-06,0.008
-3.390E-06,0.008
-3.380E-06,0.000
-3.370E-06,0.000
-3.360E-06,0.000
-3.350E-06,0.000
-3.340E-06,0.008
-3.330E-06,0.000
-3.320E-06,0.008
-3.310E-06,0.008
-3.300E-06,0.000
-3.290E-06,0.008
-3.280E-06,0.008
-3.270E-06,0.008
-3.260E-06,0.000
-3.250E-06,0.008
-3.240E-06,0.024
-3.230E-06,-0.008
-3.220E-06,0.000
-3.210E-06,0.008
-3.200E-06,-0.008
-3.190E-06,0.008
-3.180E-06,0.008
-3.170E-06,0.008
-3.160E-06,0.000
-3.150E-06,0.008
-3.140E-06,-0.008
-3.130E-06,0.000
-3.120E-06,0.000
-3.110E-06,0.000
-3.100E-06,0.008
-3.090E-06,0.008
-3.080E-06,0.008
-3.070E-06,0.008
-3.060E-06,0.000
-3.050E-06,0.008
-3.040E-06,0.008
-3.030E-06,0.008
-3.020E-06,0.008
-3.010E-06,0.000
-3.000E-06,-0.008
-2.990E-06,-0.008
-2.980E-06,0.008
-2.970E-06,0.000
-2.960E-06,0.000
-2.950E-06,0.008
-2.940E-06,0.008
-2.930E-06,0.008
-2.920E-06,0.008
-2.910E-06,0.000
-2.900E-06,0.016
-2.890E-06,0.024
-2.880E-06,0.024
-2.870E-06,0.000
-2.860E-06,0.000
-2.850E-06,0.008
-2.840E-06,0.008
-2.830E-06,0.008
-2.820E-06,0.008
-2.810E-06,0.016
-2.800E-06,0.000
-2.790E-06,0.008
-2.780E-06,0.016
-2.770E-06,0.008
-2.760E-06,0.008
-2.750E-06,0.000
-2.740E-06,0.000
-2.730E-06,0.000
-2.720E-06,0.008
-2.710E-06,0.008
-2.700E-06,0.000
-2.690E-06,0.008
-2.680E-06,0.008
-2.670E-06,0.008
-2.660E-06,0.016
-2.650E-06,0.024
-2.640E-06,0.024
-2.630E-06,0.024
-2.620E-06,0.008
-2.610E-06,-0.008
-2.600E-06,-0.008
-2.590E-06,-0.016
-2.580E-06,-0.008
-2.570E-06,0.016
-2.560E-06,0.024
-2.550E-06,0.016
-2.540E-06,0.016
-2.530E-06,0.000
-2.520E-06,-0.016
-2.510E-06,-0.008
-2.500E-06,-0.008
-2.490E-06,0.000
-2.480E-06,0.016
-2.470E-06,0.024
-2.460E-06,0.040
-2.450E-06,0.040
-2.440E-06,0.008
-2.430E-06,-0.008
-2.420E-06,0.000
-2.410E-06,0.024
-2.400E-06,0.016
-2.390E-06,0.016
-2.380E-06,0.040
-2.370E-06,0.048
-2.360E-06,0.032
-2.350E-06,0.032
-2.340E-06,0.008
-2.330E-06,-0.016
-2.320E-06,-0.024
-2.310E-06,-0.024
-2.300E-06,0.008
-2.290E-06,0.048
-2.280E-06,0.040
-2.270E-06,0.040
-2.260E-06,0.024
-2.250E-06,0.016
-2.240E-06,-0.008
-2.230E-06,0.008
-2.220E-06,0.040
-2.210E-06,0.064
-2.200E-06,0.080
-2.190E-06,0.056
-2.180E-06,0.032
-2.170E-06,0.000
-2.160E-06,-0.024
-2.150E-06,-0.024
-2.140E-06,-0.016
-2.130E-06,0.024
-2.120E-06,0.056
-2.110E-06,0.080
-2.100E-06,0.024
-2.090E-06,-0.016
-2.080E-06,-0.072
-2.070E-06,-0.080
-2.060E-06,-0.072
-2.050E-06,-0.008
-2.040E-06,0.024
-2.030E-06,0.080
-2.020E-06,0.080
-2.010E-06,0.040
-2.000E-06,0.016
-1.990E-06,-0.024
-1.980E-06,0.000
-1.970E-06,0.024
-1.960E-06,0.064
-1.950E-06,0.088
-1.940E-06,0.120
-1.930E-06,0.080
-1.920E-06,0.040
-1.910E-06,0.000
-1.900E-06,-0.024
-1.890E-06,-0.008
-1.880E-06,0.056
-1.870E-06,0.120
-1.860E-06,0.152
-1.850E-06,0.160
-1.840E-06,0.128
-1.830E-06,0.072
-1.820E-06,0.064
-1.810E-06,0.032
-1.800E-06,0.040
-1.790E-06,0.088
-1.780E-06,0.112
-1.770E-06,0.096
-1.760E-06,0.096
-1.750E-06,0.000
-1.740E-06,-0.048
-1.730E-06,-0.080
-1.720E-06,-0.064
-1.710E-06,0.096
-1.700E-06,0.072
-1.690E-06,0.088
-1.680E-06,-0.048
-1.670E-06,-0.144
-1.660E-06,-0.168
-1.650E-06,-0.128
-1.640E-06,0.056
-1.630E-06,0.248
-1.620E-06,0.336
-1.610E-06,0.344
-1.600E-06,0.280
-1.590E-06,0.080
-1.580E-06,0.048
-1.570E-06,-0.152
-1.560E-06,-0.088
-1.550E-06,-0.368
-1.540E-06,-0.320
-1.530E-06,-0.408
-1.520E-06,-0.160
-1.510E-06,-0.016
-1.500E-06,0.224
-1.490E-06,0.248
-1.480E-06,-0.016
-1.470E-06,-0.032
-1.460E-06,-0.136
-1.450E-06,-0.016
-1.440E-06,-0.016
-1.430E-06,0.104
-1.420E-06,0.080
-1.410E-06,0.136
-1.400E-06,0.096
-1.390E-06,-0.032
-1.380E-06,0.000
-1.370E-06,-0.048
-1.360E-06,0.136
-1.350E-06,0.176
-1.340E-06,0.248
-1.330E-06,0.056
-1.320E-06,-0.016
-1.310E-06,-0.344
-1.300E-06,-0.360
-1.290E-06,-0.456
-1.280E-06,-0.128
-1.270E-06,0.272
-1.260E-06,0.208
-1.250E-06,0.352
-1.240E-06,-0.168
-1.230E-06,-0.224
-1.220E-06,-0.320
-1.210E-06,-0.152
-1.200E-06,-0.048
-1.190E-06,0.128
-1.180E-06,0.232
-1.170E-06,0.208
-1.160E-06,0.208
-1.150E-06,-0.008
-1.140E-06,-0.080
-1.130E-06,-0.064
-1.120E-06,0.024
-1.110E-06,0.104
-1.100E-06,0.248
-1.090E-06,0.240
-1.080E-06,0.152
-1.070E-06,0.072
-1.060E-06,-0.128
-1.050E-06,-0.080
-1.040E-06,-0.104
-1.030E-06,0.024
-1.020E-06,0.016
-1.010E-06,0.064
-1.000E-06,0.184
-9.900E-07,0.056
-9.800E-07,0.072
-9.700E-07,0.168
-9.600E-07,0.088
-9.500E-07,0.024
-9.400E-07,-0.208
-9.300E-07,-0.160
-9.200E-07,-0.280
-9.100E-07,-0.232
-9.000E-07,-0.320
-8.900E-07,-0.248
-8.800E-07,0.096
-8.700E-07,0.064
-8.600E-07,0.112
-8.500E-07,0.024
-8.400E-07,0.056
-8.300E-07,-0.056
-8.200E-07,-0.032
-8.100E-07,-0.136
-8.000E-07,-0.096
-7.900E-07,0.000
-7.800E-07,0.112
-7.700E-07,0.144
-7.600E-07,0.128
-7.500E-07,0.136
-7.400E-07,0.008
-7.300E-07,0.040
-7.200E-07,0.048
-7.100E-07,0.080
-7.000E-07,0.120
-6.900E-07,0.144
-6.800E-07,0.152
-6.700E-07,0.040
-6.600E-07,0.008
-6.500E-07,0.000
-6.400E-07,0.120
-6.300E-07,0.144
-6.200E-07,0.272
-6.100E-07,0.192
-6.000E-07,0.176
-5.900E-07,0.032
-5.800E-07,0.016
-5.700E-07,0.072
-5.600E-07,0.168
-5.500E-07,0.200
-5.400E-07,0.184
-5.300E-07,0.144
-5.200E-07,0.024
-5.100E-07,-0.056
-5.000E-07,0.048
-4.900E-07,0.176
-4.800E-07,0.240
-4.700E-07,0.104
-4.600E-07,0.056
-4.500E-07,0.032
-4.400E-07,-0.120
-4.300E-07,-0.016
-4.200E-07,0.032
-4.100E-07,0.104
-4.000E-07,0.064
-3.900E-07,0.056
-3.800E-07,0.088
-3.700E-07,0.088
-3.600E-07,0.216
-3.500E-07,0.192
-3.400E-07,0.176
-3.300E-07,0.176
-3.200E-07,0.184
-3.100E-07,0.184
-3.000E-07,0.112
-2.900E-07,0.112
-2.800E-07,0.152
-2.700E-07,0.192
-2.600E-07,0.256
-2.500E-07,0.272
-2.400E-07,0.304
-2.300E-07,0.264
-2.200E-07,0.168
-2.100E-07,0.128
-2.000E-07,0.200
-1.900E-07,0.216
-1.800E-07,0.288
-1.700E-07,0.368
-1.600E-07,0.352
-1.500E-07,0.296
-1.400E-07,0.200
-1.300E-07,0.192
-1.200E-07,0.208
-1.100E-07,0.272
-1.000E-07,0.320
-9.000E-08,0.248
-8.000E-08,0.192
-7.000E-08,-0.072
-6.000E-08,-0.352
-5.000E-08,-0.576
-4.000E-08,-0.480
-3.000E-08,-0.008
-2.000E-08,-0.392
-1.000E-08,0.120
0.000E+00,0.512
1.000E-08,0.848
2.000E-08,0.208
3.000E-08,-0.480
4.000E-08,-0.696
5.000E-08,-0.880
6.000E-08,-0.488
7.000E-08,0.160
8.000E-08,0.776
9.000E-08,0.080
1.000E-07,0.032
1.100E-07,-0.288
1.200E-07,-0.600
1.300E-07,-0.384
1.400E-07,0.000
1.500E-07,0.768
1.600E-07,0.888
1.700E-07,0.816
1.800E-07,0.384
1.900E-07,-0.040
2.000E-07,-0.392
2.100E-07,-0.248
2.200E-07,-0.048
2.300E-07,0.384
2.400E-07,0.704
2.500E-07,0.728
2.600E-07,0.576
2.700E-07,0.112
2.800E-07,-0.072
2.900E-07,-0.240
3.000E-07,0.008
3.100E-07,0.304
3.200E-07,0.568
3.300E-07,0.680
3.400E-07,0.576
3.500E-07,0.336
3.600E-07,0.096
3.700E-07,-0.008
3.800E-07,0.040
3.900E-07,0.264
4.000E-07,0.480
4.100E-07,0.608
4.200E-07,0.584
4.300E-07,0.408
4.400E-07,0.208
4.500E-07,0.080
4.600E-07,0.096
4.700E-07,0.216
4.800E-07,0.384
4.900E-07,0.512
5.000E-07,0.552
5.100E-07,0.440
5.200E-07,0.320
5.300E-07,0.184
5.400E-07,0.144
5.500E-07,0.200
5.600E-07,0.328
5.700E-07,0.440
5.800E-07,0.472
5.900E-07,0.432
6.000E-07,0.336
6.100E-07,0.248
6.200E-07,0.176
6.300E-07,0.200
6.400E-07,0.280
6.500E-07,0.368
6.600E-07,0.424
6.700E-07,0.416
6.800E-07,0.360
6.900E-07,0.280
7.000E-07,0.240
7.100E-07,0.216
7.200E-07,0.272
7.300E-07,0.320
7.400E-07,0.384
7.500E-07,0.392
7.600E-07,0.376
7.700E-07,0.304
7.800E-07,0.256
7.900E-07,0.248
8.000E-07,0.248
8.100E-07,0.304
8.200E-07,0.344
8.300E-07,0.376
8.400E-07,0.352
8.500E-07,0.320
8.600E-07,0.280
8.700E-07,0.256
8.800E-07,0.256
8.900E-07,0.296
9.000E-07,0.336
9.100E-07,0.352
9.200E-07,0.344
9.300E-07,0.328
9.400E-07,0.296
9.500E-07,0.256
9.600E-07,0.256
9.700E-07,0.280
9.800E-07,0.312
9.900E-07,0.320
1.000E-06,0.320
1.010E-06,0.320
1.020E-06,0.296
1.030E-06,0.280
1.040E-06,0.264
1.050E-06,0.280
1.060E-06,0.296
1.070E-06,0.320
1.080E-06,0.320
1.090E-06,0.304
1.100E-06,0.304
1.110E-06,0.288
1.120E-06,0.272
1.130E-06,0.272
1.140E-06,0.280
1.150E-06,0.296
1.160E-06,0.304
1.170E-06,0.296
1.180E-06,0.280
1.190E-06,0.280
1.200E-06,0.272
1.210E-06,0.280
1.220E-06,0.288
1.230E-06,0.304
1.240E-06,0.288
1.250E-06,0.296
1.260E-06,0.280
1.270E-06,0.264
1.280E-06,0.264
1.290E-06,0.280
1.300E-06,0.280
1.310E-06,0.296
1.320E-06,0.296
1.330E-06,0.272
1.340E-06,0.280
1.350E-06,0.272
1.360E-06,0.272
1.370E-06,0.272
1.380E-06,0.280
1.390E-06,0.288
1.400E-06,0.296
1.410E-06,0.288
1.420E-06,0.264
1.430E-06,0.264
1.440E-06,0.256
1.450E-06,0.264
1.460E-06,0.280
1.470E-06,0.272
1.480E-06,0.280
1.490E-06,0.280
1.500E-06,0.264
1.510E-06,0.264
1.520E-06,0.256
1.530E-06,0.264
1.540E-06,0.264
1.550E-06,0.280
1.560E-06,0.288
1.570E-06,0.288
1.580E-06,0.296
1.590E-06,0.288
1.600E-06,0.264
1.610E-06,0.256
1.620E-06,0.256
1.630E-06,0.280
1.640E-06,0.288
1.650E-06,0.280
1.660E-06,0.280
1.670E-06,0.264
1.680E-06,0.256
1.690E-06,0.248
1.700E-06,0.248
1.710E-06,0.256
1.720E-06,0.264
1.730E-06,0.272
1.740E-06,0.272
1.750E-06,0.264
1.760E-06,0.256
1.770E-06,0.240
1.780E-06,0.240
1.790E-06,0.248
1.800E-06,0.256
1.810E-06,0.264
1.820E-06,0.264
1.830E-06,0.256
1.840E-06,0.248
1.850E-06,0.248
1.860E-06,0.240
1.870E-06,0.248
1.880E-06,0.248
1.890E-06,0.264
1.900E-06,0.264
1.910E-06,0.256
1.920E-06,0.248
1.930E-06,0.248
1.940E-06,0.248
1.950E-06,0.248
1.960E-06,0.240
1.970E-06,0.232
1.980E-06,0.232
1.990E-06,0.224
2.000E-06,0.240
2.010E-06,0.248
2.020E-06,0.256
2.030E-06,0.264
2.040E-06,0.264
2.050E-06,0.256
2.060E-06,0.224
2.070E-06,0.216
2.080E-06,0.240
2.090E-06,0.248
2.100E-06,0.240
2.110E-06,0.248
2.120E-06,0.240
2.130E-06,0.224
2.140E-06,0.224
2.150E-06,0.208
2.160E-06,0.208
2.170E-06,0.224
2.180E-06,0.240
2.190E-06,0.248
2.200E-06,0.248
2.210E-06,0.240
2.220E-06,0.224
2.230E-06,0.224
2.240E-06,0.224
2.250E-06,0.224
2.260E-06,0.224
2.270E-06,0.224
2.280E-06,0.232
2.290E-06,0.240
2.300E-06,0.240
2.310E-06,0.216
2.320E-06,0.224
2.330E-06,0.216
2.340E-06,0.208
2.350E-06,0.216
2.360E-06,0.216
2.370E-06,0.216
2.380E-06,0.216
2.390E-06,0.216
2.400E-06,0.216
2.410E-06,0.208
2.420E-06,0.208
2.430E-06,0.208
2.440E-06,0.216
2.450E-06,0.224
2.460E-06,0.208
2.470E-06,0.216
2.480E-06,0.208
2.490E-06,0.216
2.500E-06,0.216
2.510E-06,0.216
2.520E-06,0.216
2.530E-06,0.208
2.540E-06,0.200
2.550E-06,0.200
2.560E-06,0.208
2.570E-06,0.208
2.580E-06,0.192
2.590E-06,0.200
2.600E-06,0.192
2.610E-06,0.192
2.620E-06,0.200
2.630E-06,0.192
2.640E-06,0.200
2.650E-06,0.192
2.660E-06,0.200
2.670E-06,0.192
2.680E-06,0.192
2.690E-06,0.192
2.700E-06,0.192
2.710E-06,0.200
2.720E-06,0.200
2.730E-06,0.184
2.740E-06,0.200
2.750E-06,0.192
2.760E-06,0.192
2.770E-06,0.192
2.780E-06,0.192
2.790E-06,0.192
2.800E-06,0.184
2.810E-06,0.184
2.820E-06,0.184
2.830E-06,0.200
2.840E-06,0.192
2.850E-06,0.184
2.860E-06,0.184
2.870E-06,0.184
2.880E-06,0.192
2.890E-06,0.192
2.900E-06,0.192
2.910E-06,0.184
2.920E-06,0.184
2.930E-06,0.184
2.940E-06,0.184
2.950E-06,0.176
2.960E-06,0.176
2.970E-06,0.176
2.980E-06,0.184
2.990E-06,0.184
3.000E-06,0.176
3.010E-06,0.176
3.020E-06,0.184
3.030E-06,0.176
3.040E-06,0.176
3.050E-06,0.168
3.060E-06,0.176
3.070E-06,0.176
3.080E-06,0.176
3.090E-06,0.176
3.100E-06,0.168
3.110E-06,0.168
3.120E-06,0.168
3.130E-06,0.168
3.140E-06,0.168
3.150E-06,0.176
3.160E-06,0.168
3.170E-06,0.176
3.180E-06,0.160
3.190E-06,0.168
3.200E-06,0.160
3.210E-06,0.168
3.220E-06,0.160
3.230E-06,0.160
3.240E-06,0.168
3.250E-06,0.160
3.260E-06,0.160
3.270E-06,0.168
3.280E-06,0.160
3.290E-06,0.160
3.300E-06,0.152
3.310E-06,0.152
3.320E-06,0.160
3.330E-06,0.152
3.340E-06,0.152
3.350E-06,0.152
3.360E-06,0.144
3.370E-06,0.160
3.380E-06,0.160
3.390E-06,0.144
3.400E-06,0.152
3.410E-06,0.144
3.420E-06,0.152
3.430E-06,0.144
3.440E-06,0.152
3.450E-06,0.152
3.460E-06,0.144
3.470E-06,0.144
3.480E-06,0.152
3.490E-06,0.144
3.500E-06,0.152
3.510E-06,0.144
3.520E-06,0.152
3.530E-06,0.144
3.540E-06,0.144
3.550E-06,0.144
3.560E-06,0.136
3.570E-06,0.136
3.580E-06,0.144
3.590E-06,0.144
3.600E-06,0.136
3.610E-06,0.136
3.620E-06,0.136
3.630E-06,0.136
3.640E-06,0.144
3.650E-06,0.144
3.660E-06,0.136
3.670E-06,0.136
3.680E-06,0.128
3.690E-06,0.136
