mediciones/6-26/23.5/WaveData59236.csv

#timebase=2000000(ps)
,#voltbase=200000(mv/100)
#size=4000
-8.150E-06,0.008
-8.140E-06,0.008
-8.130E-06,0.008
-8.120E-06,0.000
-8.110E-06,0.008
-8.100E-06,0.000
-8.090E-06,0.008
-8.080E-06,-0.008
-8.070E-06,0.008
-8.060E-06,0.000
-8.050E-06,0.008
-8.040E-06,0.000
-8.030E-06,0.008
-8.020E-06,0.008
-8.010E-06,0.000
-8.000E-06,0.000
-7.990E-06,0.008
-7.980E-06,0.008
-7.970E-06,0.000
-7.960E-06,0.008
-7.950E-06,0.000
-7.940E-06,0.000
-7.930E-06,0.000
-7.920E-06,0.008
-7.910E-06,0.000
-7.900E-06,0.008
-7.890E-06,0.008
-7.880E-06,0.000
-7.870E-06,0.008
-7.860E-06,0.008
-7.850E-06,0.000
-7.840E-06,-0.008
-7.830E-06,0.008
-7.820E-06,0.008
-7.810E-06,0.016
-7.800E-06,0.016
-7.790E-06,0.008
-7.780E-06,-0.008
-7.770E-06,-0.008
-7.760E-06,0.000
-7.750E-06,0.016
-7.740E-06,0.008
-7.730E-06,0.000
-7.720E-06,0.008
-7.710E-06,0.008
-7.700E-06,0.008
-7.690E-06,0.000
-7.680E-06,0.008
-7.670E-06,-0.008
-7.660E-06,0.000
-7.650E-06,-0.008
-7.640E-06,0.008
-7.630E-06,0.000
-7.620E-06,0.000
-7.610E-06,0.008
-7.600E-06,0.008
-7.590E-06,0.000
-7.580E-06,0.008
-7.570E-06,0.000
-7.560E-06,0.008
-7.550E-06,0.000
-7.540E-06,0.008
-7.530E-06,-0.008
-7.520E-06,0.008
-7.510E-06,0.008
-7.500E-06,0.000
-7.490E-06,0.000
-7.480E-06,0.008
-7.470E-06,0.008
-7.460E-06,0.008
-7.450E-06,-0.008
-7.440E-06,-0.008
-7.430E-06,0.008
-7.420E-06,0.000
-7.410E-06,0.008
-7.400E-06,0.000
-7.390E-06,0.000
-7.380E-06,0.008
-7.370E-06,0.008
-7.360E-06,0.008
-7.350E-06,0.000
-7.340E-06,0.008
-7.330E-06,0.008
-7.320E-06,0.008
-7.310E-06,0.000
-7.300E-06,0.000
-7.290E-06,0.000
-7.280E-06,0.000
-7.270E-06,0.000
-7.260E-06,0.000
-7.250E-06,0.008
-7.240E-06,0.008
-7.230E-06,-0.008
-7.220E-06,0.008
-7.210E-06,0.000
-7.200E-06,0.008
-7.190E-06,0.008
-7.180E-06,0.008
-7.170E-06,0.008
-7.160E-06,0.000
-7.150E-06,0.008
-7.140E-06,-0.008
-7.130E-06,0.000
-7.120E-06,0.000
-7.110E-06,-0.008
-7.100E-06,0.008
-7.090E-06,0.016
-7.080E-06,-0.008
-7.070E-06,0.000
-7.060E-06,0.008
-7.050E-06,0.000
-7.040E-06,0.008
-7.030E-06,0.000
-7.020E-06,0.000
-7.010E-06,0.008
-7.000E-06,-0.008
-6.990E-06,0.000
-6.980E-06,-0.008
-6.970E-06,0.000
-6.960E-06,0.008
-6.950E-06,0.008
-6.940E-06,0.008
-6.930E-06,0.008
-6.920E-06,0.000
-6.910E-06,-0.008
-6.900E-06,0.016
-6.890E-06,0.008
-6.880E-06,0.008
-6.870E-06,0.008
-6.860E-06,0.000
-6.850E-06,0.000
-6.840E-06,0.008
-6.830E-06,0.008
-6.820E-06,0.000
-6.810E-06,0.008
-6.800E-06,0.000
-6.790E-06,0.008
-6.780E-06,0.000
-6.770E-06,0.000
-6.760E-06,0.000
-6.750E-06,-0.008
-6.740E-06,0.008
-6.730E-06,0.000
-6.720E-06,0.008
-6.710E-06,0.000
-6.700E-06,0.000
-6.690E-06,0.000
-6.680E-06,0.000
-6.670E-06,0.008
-6.660E-06,0.000
-6.650E-06,0.008
-6.640E-06,0.008
-6.630E-06,0.000
-6.620E-06,0.000
-6.610E-06,0.008
-6.600E-06,0.008
-6.590E-06,0.008
-6.580E-06,0.008
-6.570E-06,0.008
-6.560E-06,0.000
-6.550E-06,0.008
-6.540E-06,0.008
-6.530E-06,0.008
-6.520E-06,0.000
-6.510E-06,0.000
-6.500E-06,0.008
-6.490E-06,-0.008
-6.480E-06,0.000
-6.470E-06,0.008
-6.460E-06,0.008
-6.450E-06,0.008
-6.440E-06,-0.008
-6.430E-06,0.008
-6.420E-06,0.008
-6.410E-06,0.000
-6.400E-06,0.008
-6.390E-06,-0.008
-6.380E-06,0.008
-6.370E-06,0.000
-6.360E-06,0.000
-6.350E-06,-0.008
-6.340E-06,0.000
-6.330E-06,0.000
-6.320E-06,0.008
-6.310E-06,0.008
-6.300E-06,0.000
-6.290E-06,0.008
-6.280E-06,0.008
-6.270E-06,-0.008
-6.260E-06,0.000
-6.250E-06,0.008
-6.240E-06,0.008
-6.230E-06,0.008
-6.220E-06,0.000
-6.210E-06,0.000
-6.200E-06,-0.008
-6.190E-06,0.008
-6.180E-06,0.008
-6.170E-06,0.008
-6.160E-06,0.000
-6.150E-06,0.008
-6.140E-06,0.016
-6.130E-06,0.000
-6.120E-06,0.000
-6.110E-06,0.000
-6.100E-06,0.008
-6.090E-06,0.008
-6.080E-06,0.000
-6.070E-06,-0.008
-6.060E-06,0.008
-6.050E-06,0.000
-6.040E-06,0.000
-6.030E-06,0.008
-6.020E-06,0.000
-6.010E-06,0.000
-6.000E-06,0.000
-5.990E-06,0.000
-5.980E-06,0.008
-5.970E-06,0.008
-5.960E-06,0.000
-5.950E-06,0.000
-5.940E-06,0.008
-5.930E-06,0.008
-5.920E-06,0.000
-5.910E-06,0.000
-5.900E-06,0.008
-5.890E-06,0.008
-5.880E-06,0.008
-5.870E-06,0.000
-5.860E-06,0.000
-5.850E-06,0.000
-5.840E-06,0.008
-5.830E-06,0.000
-5.820E-06,0.000
-5.810E-06,0.000
-5.800E-06,-0.008
-5.790E-06,0.000
-5.780E-06,0.008
-5.770E-06,0.016
-5.760E-06,0.016
-5.750E-06,0.000
-5.740E-06,0.000
-5.730E-06,0.000
-5.720E-06,0.000
-5.710E-06,0.008
-5.700E-06,0.000
-5.690E-06,0.000
-5.680E-06,0.000
-5.670E-06,0.000
-5.660E-06,0.000
-5.650E-06,0.008
-5.640E-06,0.008
-5.630E-06,0.008
-5.620E-06,-0.008
-5.610E-06,0.000
-5.600E-06,0.008
-5.590E-06,0.000
-5.580E-06,0.008
-5.570E-06,0.000
-5.560E-06,0.008
-5.550E-06,0.008
-5.540E-06,0.000
-5.530E-06,0.000
-5.520E-06,0.008
-5.510E-06,0.008
-5.500E-06,0.008
-5.490E-06,0.000
-5.480E-06,0.008
-5.470E-06,0.008
-5.460E-06,0.008
-5.450E-06,0.016
-5.440E-06,0.000
-5.430E-06,0.000
-5.420E-06,0.000
-5.410E-06,0.008
-5.400E-06,0.000
-5.390E-06,0.008
-5.380E-06,0.000
-5.370E-06,0.008
-5.360E-06,-0.008
-5.350E-06,0.008
-5.340E-06,-0.008
-5.330E-06,0.000
-5.320E-06,0.000
-5.310E-06,0.008
-5.300E-06,0.008
-5.290E-06,0.008
-5.280E-06,0.000
-5.270E-06,0.008
-5.260E-06,0.000
-5.250E-06,0.008
-5.240E-06,0.000
-5.230E-06,0.000
-5.220E-06,0.008
-5.210E-06,0.000
-5.200E-06,0.000
-5.190E-06,0.000
-5.180E-06,0.000
-5.170E-06,0.008
-5.160E-06,0.008
-5.150E-06,0.016
-5.140E-06,-0.008
-5.130E-06,0.000
-5.120E-06,0.000
-5.110E-06,0.000
-5.100E-06,0.008
-5.090E-06,0.000
-5.080E-06,0.008
-5.070E-06,0.016
-5.060E-06,0.016
-5.050E-06,0.008
-5.040E-06,0.016
-5.030E-06,-0.008
-5.020E-06,0.008
-5.010E-06,0.000
-5.000E-06,0.008
-4.990E-06,-0.008
-4.980E-06,0.000
-4.970E-06,0.008
-4.960E-06,0.008
-4.950E-06,0.000
-4.940E-06,0.016
-4.930E-06,-0.008
-4.920E-06,-0.008
-4.910E-06,0.008
-4.900E-06,0.008
-4.890E-06,0.016
-4.880E-06,0.008
-4.870E-06,0.016
-4.860E-06,0.008
-4.850E-06,0.008
-4.840E-06,0.016
-4.830E-06,0.008
-4.820E-06,0.000
-4.810E-06,-0.008
-4.800E-06,0.008
-4.790E-06,0.016
-4.780E-06,-0.008
-4.770E-06,-0.008
-4.760E-06,0.000
-4.750E-06,0.008
-4.740E-06,0.008
-4.730E-06,0.008
-4.720E-06,0.000
-4.710E-06,0.000
-4.700E-06,0.000
-4.690E-06,0.000
-4.680E-06,0.008
-4.670E-06,0.016
-4.660E-06,0.016
-4.650E-06,0.000
-4.640E-06,0.008
-4.630E-06,0.000
-4.620E-06,0.000
-4.610E-06,0.008
-4.600E-06,0.008
-4.590E-06,0.000
-4.580E-06,0.000
-4.570E-06,0.000
-4.560E-06,0.000
-4.550E-06,0.008
-4.540E-06,0.008
-4.530E-06,0.008
-4.520E-06,0.000
-4.510E-06,-0.008
-4.500E-06,0.000
-4.490E-06,0.000
-4.480E-06,0.008
-4.470E-06,0.000
-4.460E-06,0.000
-4.450E-06,0.008
-4.440E-06,0.016
-4.430E-06,0.000
-4.420E-06,0.000
-4.410E-06,0.008
-4.400E-06,0.008
-4.390E-06,0.008
-4.380E-06,0.000
-4.370E-06,-0.008
-4.360E-06,0.008
-4.350E-06,0.000
-4.340E-06,0.008
-4.330E-06,0.008
-4.320E-06,0.008
-4.310E-06,0.008
-4.300E-06,0.000
-4.290E-06,0.008
-4.280E-06,0.000
-4.270E-06,0.008
-4.260E-06,0.000
-4.250E-06,0.008
-4.240E-06,0.000
-4.230E-06,0.000
-4.220E-06,0.000
-4.210E-06,0.008
-4.200E-06,0.008
-4.190E-06,0.008
-4.180E-06,0.008
-4.170E-06,0.008
-4.160E-06,0.000
-4.150E-06,0.008
-4.140E-06,0.016
-4.130E-06,0.000
-4.120E-06,0.000
-4.110E-06,0.008
-4.100E-06,0.016
-4.090E-06,0.000
-4.080E-06,-0.008
-4.070E-06,0.000
-4.060E-06,0.000
-4.050E-06,0.008
-4.040E-06,0.000
-4.030E-06,0.016
-4.020E-06,0.000
-4.010E-06,0.008
-4.000E-06,0.008
-3.990E-06,0.000
-3.980E-06,0.008
-3.970E-06,0.008
-3.960E-06,0.000
-3.950E-06,0.008
-3.940E-06,0.008
-3.930E-06,0.008
-3.920E-06,0.008
-3.910E-06,-0.008
-3.900E-06,0.000
-3.890E-06,0.008
-3.880E-06,0.008
-3.870E-06,0.000
-3.860E-06,0.008
-3.850E-06,-0.008
-3.840E-06,0.000
-3.830E-06,0.000
-3.820E-06,0.000
-3.810E-06,0.000
-3.800E-06,0.016
-3.790E-06,0.016
-3.780E-06,0.008
-3.770E-06,0.008
-3.760E-06,0.008
-3.750E-06,0.000
-3.740E-06,-0.008
-3.730E-06,0.008
-3.720E-06,0.008
-3.710E-06,0.016
-3.700E-06,0.016
-3.690E-06,0.008
-3.680E-06,0.008
-3.670E-06,-0.008
-3.660E-06,0.000
-3.650E-06,0.016
-3.640E-06,0.008
-3.630E-06,0.000
-3.620E-06,0.008
-3.610E-06,0.008
-3.600E-06,0.008
-3.590E-06,0.008
-3.580E-06,0.000
-3.570E-06,0.008
-3.560E-06,0.000
-3.550E-06,0.008
-3.540E-06,0.016
-3.530E-06,0.016
-3.520E-06,0.008
-3.510E-06,0.000
-3.500E-06,0.008
-3.490E-06,0.008
-3.480E-06,0.008
-3.470E-06,0.008
-3.460E-06,0.008
-3.450E-06,0.016
-3.440E-06,0.016
-3.430E-06,0.016
-3.420E-06,0.016
-3.410E-06,0.008
-3.400E-06,0.016
-3.390E-06,0.008
-3.380E-06,0.000
-3.370E-06,0.016
-3.360E-06,0.008
-3.350E-06,0.032
-3.340E-06,0.024
-3.330E-06,0.024
-3.320E-06,0.008
-3.310E-06,0.032
-3.300E-06,0.072
-3.290E-06,0.048
-3.280E-06,0.024
-3.270E-06,-0.048
-3.260E-06,-0.064
-3.250E-06,-0.040
-3.240E-06,0.000
-3.230E-06,0.016
-3.220E-06,0.056
-3.210E-06,0.056
-3.200E-06,0.024
-3.190E-06,-0.008
-3.180E-06,-0.096
-3.170E-06,-0.112
-3.160E-06,-0.056
-3.150E-06,0.000
-3.140E-06,0.056
-3.130E-06,0.056
-3.120E-06,0.040
-3.110E-06,0.000
-3.100E-06,-0.040
-3.090E-06,-0.040
-3.080E-06,-0.024
-3.070E-06,-0.016
-3.060E-06,0.008
-3.050E-06,0.024
-3.040E-06,0.040
-3.030E-06,0.024
-3.020E-06,0.000
-3.010E-06,-0.016
-3.000E-06,-0.008
-2.990E-06,0.000
-2.980E-06,0.016
-2.970E-06,0.016
-2.960E-06,0.032
-2.950E-06,0.048
-2.940E-06,0.024
-2.930E-06,0.016
-2.920E-06,0.000
-2.910E-06,0.000
-2.900E-06,0.008
-2.890E-06,0.016
-2.880E-06,0.032
-2.870E-06,0.024
-2.860E-06,0.024
-2.850E-06,0.008
-2.840E-06,-0.008
-2.830E-06,0.000
-2.820E-06,0.008
-2.810E-06,0.024
-2.800E-06,0.032
-2.790E-06,0.048
-2.780E-06,0.032
-2.770E-06,0.032
-2.760E-06,0.016
-2.750E-06,0.024
-2.740E-06,0.024
-2.730E-06,0.024
-2.720E-06,0.040
-2.710E-06,0.016
-2.700E-06,0.024
-2.690E-06,0.024
-2.680E-06,0.016
-2.670E-06,0.016
-2.660E-06,0.016
-2.650E-06,0.040
-2.640E-06,0.088
-2.630E-06,0.032
-2.620E-06,0.032
-2.610E-06,0.072
-2.600E-06,0.088
-2.590E-06,-0.016
-2.580E-06,-0.144
-2.570E-06,-0.160
-2.560E-06,-0.192
-2.550E-06,-0.032
-2.540E-06,0.072
-2.530E-06,0.184
-2.520E-06,0.144
-2.510E-06,0.008
-2.500E-06,-0.136
-2.490E-06,-0.248
-2.480E-06,-0.208
-2.470E-06,-0.064
-2.460E-06,0.080
-2.450E-06,0.200
-2.440E-06,0.176
-2.430E-06,0.048
-2.420E-06,-0.080
-2.410E-06,-0.192
-2.400E-06,-0.168
-2.390E-06,-0.064
-2.380E-06,0.072
-2.370E-06,0.160
-2.360E-06,0.152
-2.350E-06,0.064
-2.340E-06,-0.032
-2.330E-06,-0.120
-2.320E-06,-0.112
-2.310E-06,-0.048
-2.300E-06,0.056
-2.290E-06,0.128
-2.280E-06,0.120
-2.270E-06,0.072
-2.260E-06,-0.008
-2.250E-06,-0.040
-2.240E-06,-0.080
-2.230E-06,-0.040
-2.220E-06,0.000
-2.210E-06,0.056
-2.200E-06,0.096
-2.190E-06,0.064
-2.180E-06,0.032
-2.170E-06,-0.016
-2.160E-06,-0.032
-2.150E-06,-0.016
-2.140E-06,0.008
-2.130E-06,0.040
-2.120E-06,0.064
-2.110E-06,0.040
-2.100E-06,0.032
-2.090E-06,0.016
-2.080E-06,0.008
-2.070E-06,0.000
-2.060E-06,0.032
-2.050E-06,0.040
-2.040E-06,0.056
-2.030E-06,0.088
-2.020E-06,0.080
-2.010E-06,0.064
-2.000E-06,0.032
-1.990E-06,-0.016
-1.980E-06,-0.024
-1.970E-06,0.008
-1.960E-06,0.064
-1.950E-06,0.112
-1.940E-06,0.136
-1.930E-06,0.096
-1.920E-06,0.032
-1.910E-06,-0.048
-1.900E-06,-0.136
-1.890E-06,-0.080
-1.880E-06,0.024
-1.870E-06,0.096
-1.860E-06,0.184
-1.850E-06,0.152
-1.840E-06,0.048
-1.830E-06,-0.088
-1.820E-06,-0.272
-1.810E-06,-0.256
-1.800E-06,-0.256
-1.790E-06,-0.008
-1.780E-06,0.168
-1.770E-06,0.272
-1.760E-06,0.216
-1.750E-06,0.088
-1.740E-06,-0.040
-1.730E-06,-0.224
-1.720E-06,-0.216
-1.710E-06,-0.168
-1.700E-06,0.072
-1.690E-06,0.208
-1.680E-06,0.208
-1.670E-06,0.128
-1.660E-06,-0.048
-1.650E-06,-0.200
-1.640E-06,-0.216
-1.630E-06,-0.160
-1.620E-06,-0.008
-1.610E-06,0.136
-1.600E-06,0.256
-1.590E-06,0.216
-1.580E-06,0.072
-1.570E-06,-0.080
-1.560E-06,-0.128
-1.550E-06,-0.072
-1.540E-06,0.000
-1.530E-06,0.056
-1.520E-06,0.168
-1.510E-06,0.136
-1.500E-06,0.064
-1.490E-06,-0.008
-1.480E-06,-0.056
-1.470E-06,-0.024
-1.460E-06,0.024
-1.450E-06,0.056
-1.440E-06,0.112
-1.430E-06,0.064
-1.420E-06,0.064
-1.410E-06,-0.048
-1.400E-06,-0.104
-1.390E-06,-0.192
-1.380E-06,-0.064
-1.370E-06,0.016
-1.360E-06,0.104
-1.350E-06,0.168
-1.340E-06,0.096
-1.330E-06,0.016
-1.320E-06,-0.096
-1.310E-06,-0.152
-1.300E-06,-0.128
-1.290E-06,-0.016
-1.280E-06,0.088
-1.270E-06,0.152
-1.260E-06,0.120
-1.250E-06,0.040
-1.240E-06,-0.056
-1.230E-06,-0.120
-1.220E-06,-0.072
-1.210E-06,0.008
-1.200E-06,0.096
-1.190E-06,0.168
-1.180E-06,0.184
-1.170E-06,0.128
-1.160E-06,0.056
-1.150E-06,-0.024
-1.140E-06,-0.056
-1.130E-06,-0.032
-1.120E-06,0.048
-1.110E-06,0.136
-1.100E-06,0.192
-1.090E-06,0.184
-1.080E-06,0.120
-1.070E-06,0.040
-1.060E-06,0.008
-1.050E-06,0.016
-1.040E-06,0.056
-1.030E-06,0.120
-1.020E-06,0.160
-1.010E-06,0.184
-1.000E-06,0.144
-9.900E-07,0.120
-9.800E-07,0.072
-9.700E-07,0.088
-9.600E-07,0.120
-9.500E-07,0.184
-9.400E-07,0.192
-9.300E-07,0.200
-9.200E-07,0.184
-9.100E-07,0.176
-9.000E-07,0.056
-8.900E-07,0.056
-8.800E-07,-0.040
-8.700E-07,0.024
-8.600E-07,-0.080
-8.500E-07,0.048
-8.400E-07,-0.200
-8.300E-07,-0.136
-8.200E-07,-0.040
-8.100E-07,0.024
-8.000E-07,-0.024
-7.900E-07,-0.176
-7.800E-07,-0.296
-7.700E-07,-0.152
-7.600E-07,-0.176
-7.500E-07,-0.112
-7.400E-07,-0.048
-7.300E-07,0.088
-7.200E-07,0.208
-7.100E-07,0.240
-7.000E-07,0.184
-6.900E-07,0.040
-6.800E-07,-0.040
-6.700E-07,0.152
-6.600E-07,0.152
-6.500E-07,0.168
-6.400E-07,0.120
-6.300E-07,0.136
-6.200E-07,0.128
-6.100E-07,0.024
-6.000E-07,0.032
-5.900E-07,0.048
-5.800E-07,0.168
-5.700E-07,0.208
-5.600E-07,0.200
-5.500E-07,0.184
-5.400E-07,0.136
-5.300E-07,0.184
-5.200E-07,0.192
-5.100E-07,0.272
-5.000E-07,0.280
-4.900E-07,0.336
-4.800E-07,0.320
-4.700E-07,0.280
-4.600E-07,0.280
-4.500E-07,0.248
-4.400E-07,0.216
-4.300E-07,0.280
-4.200E-07,0.312
-4.100E-07,0.320
-4.000E-07,0.352
-3.900E-07,0.296
-3.800E-07,0.288
-3.700E-07,0.208
-3.600E-07,0.128
-3.500E-07,0.176
-3.400E-07,0.240
-3.300E-07,0.352
-3.200E-07,0.392
-3.100E-07,0.480
-3.000E-07,0.368
-2.900E-07,0.320
-2.800E-07,0.144
-2.700E-07,0.128
-2.600E-07,0.168
-2.500E-07,0.288
-2.400E-07,0.416
-2.300E-07,0.488
-2.200E-07,0.472
-2.100E-07,0.328
-2.000E-07,0.192
-1.900E-07,0.112
-1.800E-07,0.176
-1.700E-07,0.152
-1.600E-07,0.168
-1.500E-07,0.216
-1.400E-07,0.328
-1.300E-07,0.192
-1.200E-07,0.224
-1.100E-07,0.264
-1.000E-07,0.392
-9.000E-08,0.312
-8.000E-08,0.296
-7.000E-08,0.160
-6.000E-08,0.072
-5.000E-08,-0.136
-4.000E-08,-0.320
-3.000E-08,-0.536
-2.000E-08,-0.528
-1.000E-08,0.064
0.000E+00,0.616
1.000E-08,0.944
2.000E-08,0.992
3.000E-08,0.680
4.000E-08,0.272
5.000E-08,-0.280
6.000E-08,-0.472
7.000E-08,-0.224
8.000E-08,0.272
9.000E-08,0.776
1.000E-07,0.936
1.100E-07,0.720
1.200E-07,0.264
1.300E-07,-0.080
1.400E-07,-0.272
1.500E-07,-0.120
1.600E-07,0.224
1.700E-07,0.584
1.800E-07,0.792
1.900E-07,0.736
2.000E-07,0.488
2.100E-07,0.176
2.200E-07,-0.024
2.300E-07,-0.016
2.400E-07,0.184
2.500E-07,0.448
2.600E-07,0.608
2.700E-07,0.624
2.800E-07,0.480
2.900E-07,0.248
3.000E-07,0.056
3.100E-07,0.024
3.200E-07,0.128
3.300E-07,0.328
3.400E-07,0.512
3.500E-07,0.576
3.600E-07,0.512
3.700E-07,0.360
3.800E-07,0.208
3.900E-07,0.120
4.000E-07,0.176
4.100E-07,0.288
4.200E-07,0.416
4.300E-07,0.488
4.400E-07,0.464
4.500E-07,0.368
4.600E-07,0.256
4.700E-07,0.152
4.800E-07,0.160
4.900E-07,0.248
5.000E-07,0.352
5.100E-07,0.424
5.200E-07,0.440
5.300E-07,0.376
5.400E-07,0.296
5.500E-07,0.224
5.600E-07,0.200
5.700E-07,0.256
5.800E-07,0.320
5.900E-07,0.376
6.000E-07,0.400
6.100E-07,0.376
6.200E-07,0.312
6.300E-07,0.264
6.400E-07,0.216
6.500E-07,0.224
6.600E-07,0.272
6.700E-07,0.328
6.800E-07,0.368
6.900E-07,0.368
7.000E-07,0.328
7.100E-07,0.296
7.200E-07,0.256
7.300E-07,0.248
7.400E-07,0.272
7.500E-07,0.296
7.600E-07,0.320
7.700E-07,0.336
7.800E-07,0.328
7.900E-07,0.280
8.000E-07,0.264
8.100E-07,0.240
8.200E-07,0.264
8.300E-07,0.296
8.400E-07,0.328
8.500E-07,0.336
8.600E-07,0.312
8.700E-07,0.304
8.800E-07,0.264
8.900E-07,0.256
9.000E-07,0.256
9.100E-07,0.272
9.200E-07,0.304
9.300E-07,0.328
9.400E-07,0.320
9.500E-07,0.312
9.600E-07,0.288
9.700E-07,0.272
9.800E-07,0.264
9.900E-07,0.272
1.000E-06,0.304
1.010E-06,0.312
1.020E-06,0.320
1.030E-06,0.304
1.040E-06,0.280
1.050E-06,0.264
1.060E-06,0.264
1.070E-06,0.272
1.080E-06,0.288
1.090E-06,0.296
1.100E-06,0.288
1.110E-06,0.296
1.120E-06,0.280
1.130E-06,0.272
1.140E-06,0.264
1.150E-06,0.264
1.160E-06,0.272
1.170E-06,0.280
1.180E-06,0.280
1.190E-06,0.288
1.200E-06,0.280
1.210E-06,0.272
1.220E-06,0.272
1.230E-06,0.264
1.240E-06,0.264
1.250E-06,0.280
1.260E-06,0.280
1.270E-06,0.272
1.280E-06,0.272
1.290E-06,0.272
1.300E-06,0.264
1.310E-06,0.248
1.320E-06,0.256
1.330E-06,0.256
1.340E-06,0.272
1.350E-06,0.272
1.360E-06,0.272
1.370E-06,0.264
1.380E-06,0.256
1.390E-06,0.256
1.400E-06,0.256
1.410E-06,0.256
1.420E-06,0.264
1.430E-06,0.264
1.440E-06,0.264
1.450E-06,0.256
1.460E-06,0.256
1.470E-06,0.256
1.480E-06,0.256
1.490E-06,0.256
1.500E-06,0.256
1.510E-06,0.248
1.520E-06,0.256
1.530E-06,0.256
1.540E-06,0.256
1.550E-06,0.256
1.560E-06,0.256
1.570E-06,0.256
1.580E-06,0.256
1.590E-06,0.248
1.600E-06,0.240
1.610E-06,0.240
1.620E-06,0.256
1.630E-06,0.248
1.640E-06,0.248
1.650E-06,0.248
1.660E-06,0.248
1.670E-06,0.240
1.680E-06,0.240
1.690E-06,0.232
1.700E-06,0.224
1.710E-06,0.240
1.720E-06,0.248
1.730E-06,0.256
1.740E-06,0.256
1.750E-06,0.248
1.760E-06,0.240
1.770E-06,0.224
1.780E-06,0.224
1.790E-06,0.216
1.800E-06,0.248
1.810E-06,0.256
1.820E-06,0.256
1.830E-06,0.256
1.840E-06,0.240
1.850E-06,0.224
1.860E-06,0.224
1.870E-06,0.240
1.880E-06,0.240
1.890E-06,0.248
1.900E-06,0.248
1.910E-06,0.256
1.920E-06,0.256
1.930E-06,0.216
1.940E-06,0.216
1.950E-06,0.216
1.960E-06,0.216
1.970E-06,0.224
1.980E-06,0.216
1.990E-06,0.216
2.000E-06,0.224
2.010E-06,0.224
2.020E-06,0.216
2.030E-06,0.208
2.040E-06,0.208
2.050E-06,0.216
2.060E-06,0.224
2.070E-06,0.216
2.080E-06,0.216
2.090E-06,0.224
2.100E-06,0.216
2.110E-06,0.200
2.120E-06,0.192
2.130E-06,0.200
2.140E-06,0.208
2.150E-06,0.216
2.160E-06,0.216
2.170E-06,0.216
2.180E-06,0.216
2.190E-06,0.200
2.200E-06,0.208
2.210E-06,0.192
2.220E-06,0.208
2.230E-06,0.192
2.240E-06,0.200
2.250E-06,0.208
2.260E-06,0.192
2.270E-06,0.192
2.280E-06,0.184
2.290E-06,0.176
2.300E-06,0.176
2.310E-06,0.184
2.320E-06,0.184
2.330E-06,0.192
2.340E-06,0.200
2.350E-06,0.200
2.360E-06,0.192
2.370E-06,0.176
2.380E-06,0.176
2.390E-06,0.176
2.400E-06,0.184
2.410E-06,0.208
2.420E-06,0.216
2.430E-06,0.216
2.440E-06,0.200
2.450E-06,0.184
2.460E-06,0.144
2.470E-06,0.144
2.480E-06,0.160
2.490E-06,0.184
2.500E-06,0.192
2.510E-06,0.216
2.520E-06,0.216
2.530E-06,0.200
2.540E-06,0.176
2.550E-06,0.176
2.560E-06,0.176
2.570E-06,0.176
2.580E-06,0.192
2.590E-06,0.200
2.600E-06,0.192
2.610E-06,0.176
2.620E-06,0.176
2.630E-06,0.160
2.640E-06,0.152
2.650E-06,0.152
2.660E-06,0.160
2.670E-06,0.184
2.680E-06,0.184
2.690E-06,0.176
2.700E-06,0.184
2.710E-06,0.184
2.720E-06,0.176
2.730E-06,0.176
2.740E-06,0.176
2.750E-06,0.160
2.760E-06,0.152
2.770E-06,0.152
2.780E-06,0.160
2.790E-06,0.160
2.800E-06,0.168
2.810E-06,0.184
2.820E-06,0.176
2.830E-06,0.168
2.840E-06,0.152
2.850E-06,0.168
2.860E-06,0.160
2.870E-06,0.160
2.880E-06,0.152
2.890E-06,0.160
2.900E-06,0.160
2.910E-06,0.144
2.920E-06,0.152
2.930E-06,0.152
2.940E-06,0.144
2.950E-06,0.152
2.960E-06,0.160
2.970E-06,0.152
2.980E-06,0.152
2.990E-06,0.144
3.000E-06,0.144
3.010E-06,0.144
3.020E-06,0.144
3.030E-06,0.152
3.040E-06,0.152
3.050E-06,0.152
3.060E-06,0.144
3.070E-06,0.144
3.080E-06,0.136
3.090E-06,0.136
3.100E-06,0.144
3.110E-06,0.144
3.120E-06,0.144
3.130E-06,0.152
3.140E-06,0.152
3.150E-06,0.136
3.160E-06,0.144
3.170E-06,0.136
3.180E-06,0.144
3.190E-06,0.144
3.200E-06,0.144
3.210E-06,0.128
3.220E-06,0.136
3.230E-06,0.128
3.240E-06,0.128
3.250E-06,0.136
3.260E-06,0.128
3.270E-06,0.136
3.280E-06,0.136
3.290E-06,0.136
3.300E-06,0.120
3.310E-06,0.136
3.320E-06,0.128
3.330E-06,0.136
3.340E-06,0.136
3.350E-06,0.128
3.360E-06,0.128
3.370E-06,0.128
3.380E-06,0.128
3.390E-06,0.128
3.400E-06,0.120
3.410E-06,0.128
3.420E-06,0.120
3.430E-06,0.120
3.440E-06,0.120
3.450E-06,0.120
3.460E-06,0.120
3.470E-06,0.112
3.480E-06,0.120
3.490E-06,0.120
3.500E-06,0.120
3.510E-06,0.120
3.520E-06,0.120
3.530E-06,0.112
3.540E-06,0.120
3.550E-06,0.128
3.560E-06,0.120
3.570E-06,0.112
3.580E-06,0.120
3.590E-06,0.112
3.600E-06,0.112
3.610E-06,0.112
3.620E-06,0.112
3.630E-06,0.112
3.640E-06,0.112
3.650E-06,0.112
3.660E-06,0.104
3.670E-06,0.104
3.680E-06,0.104
3.690E-06,0.112
3.700E-06,0.112
