mediciones/6-26/23.5/WaveData59238.csv

#timebase=2000000(ps)
,#voltbase=200000(mv/100)
#size=4000
-8.150E-06,0.088
-8.140E-06,0.064
-8.130E-06,-0.016
-8.120E-06,-0.080
-8.110E-06,-0.120
-8.100E-06,-0.056
-8.090E-06,0.056
-8.080E-06,0.112
-8.070E-06,0.104
-8.060E-06,0.032
-8.050E-06,-0.024
-8.040E-06,-0.048
-8.030E-06,-0.064
-8.020E-06,-0.032
-8.010E-06,0.024
-8.000E-06,0.088
-7.990E-06,0.080
-7.980E-06,0.056
-7.970E-06,0.000
-7.960E-06,-0.048
-7.950E-06,-0.048
-7.940E-06,-0.016
-7.930E-06,0.024
-7.920E-06,0.048
-7.910E-06,0.048
-7.900E-06,0.048
-7.890E-06,0.008
-7.880E-06,-0.016
-7.870E-06,-0.048
-7.860E-06,-0.016
-7.850E-06,0.016
-7.840E-06,0.040
-7.830E-06,0.056
-7.820E-06,0.048
-7.810E-06,0.040
-7.800E-06,0.016
-7.790E-06,-0.008
-7.780E-06,0.000
-7.770E-06,0.024
-7.760E-06,0.040
-7.750E-06,0.048
-7.740E-06,0.056
-7.730E-06,0.040
-7.720E-06,0.040
-7.710E-06,-0.176
-7.700E-06,-0.120
-7.690E-06,-0.144
-7.680E-06,-0.192
-7.670E-06,0.128
-7.660E-06,0.152
-7.650E-06,0.216
-7.640E-06,0.048
-7.630E-06,-0.136
-7.620E-06,-0.192
-7.610E-06,-0.104
-7.600E-06,0.008
-7.590E-06,0.112
-7.580E-06,0.120
-7.570E-06,0.088
-7.560E-06,0.024
-7.550E-06,-0.056
-7.540E-06,-0.088
-7.530E-06,-0.072
-7.520E-06,0.000
-7.510E-06,0.080
-7.500E-06,0.112
-7.490E-06,0.072
-7.480E-06,0.008
-7.470E-06,-0.048
-7.460E-06,-0.040
-7.450E-06,-0.016
-7.440E-06,0.008
-7.430E-06,0.056
-7.420E-06,0.016
-7.410E-06,0.024
-7.400E-06,0.000
-7.390E-06,-0.008
-7.380E-06,-0.008
-7.370E-06,0.024
-7.360E-06,0.024
-7.350E-06,0.056
-7.340E-06,0.056
-7.330E-06,-0.016
-7.320E-06,-0.016
-7.310E-06,-0.032
-7.300E-06,-0.048
-7.290E-06,-0.024
-7.280E-06,-0.008
-7.270E-06,0.064
-7.260E-06,0.048
-7.250E-06,0.032
-7.240E-06,0.008
-7.230E-06,-0.016
-7.220E-06,-0.016
-7.210E-06,-0.016
-7.200E-06,-0.016
-7.190E-06,0.000
-7.180E-06,0.024
-7.170E-06,0.048
-7.160E-06,0.048
-7.150E-06,0.024
-7.140E-06,-0.008
-7.130E-06,0.000
-7.120E-06,-0.064
-7.110E-06,-0.032
-7.100E-06,-0.072
-7.090E-06,-0.016
-7.080E-06,0.048
-7.070E-06,0.112
-7.060E-06,0.112
-7.050E-06,0.000
-7.040E-06,-0.072
-7.030E-06,-0.064
-7.020E-06,-0.008
-7.010E-06,0.040
-7.000E-06,0.064
-6.990E-06,0.040
-6.980E-06,0.032
-6.970E-06,0.024
-6.960E-06,-0.016
-6.950E-06,-0.048
-6.940E-06,-0.016
-6.930E-06,0.008
-6.920E-06,0.048
-6.910E-06,0.056
-6.900E-06,0.040
-6.890E-06,0.016
-6.880E-06,-0.008
-6.870E-06,-0.024
-6.860E-06,-0.008
-6.850E-06,0.000
-6.840E-06,0.024
-6.830E-06,0.032
-6.820E-06,0.024
-6.810E-06,0.024
-6.800E-06,0.016
-6.790E-06,0.000
-6.780E-06,0.000
-6.770E-06,0.000
-6.760E-06,0.024
-6.750E-06,0.032
-6.740E-06,0.048
-6.730E-06,0.080
-6.720E-06,-0.048
-6.710E-06,-0.128
-6.700E-06,-0.080
-6.690E-06,-0.168
-6.680E-06,-0.008
-6.670E-06,0.064
-6.660E-06,0.168
-6.650E-06,0.176
-6.640E-06,0.016
-6.630E-06,-0.088
-6.620E-06,-0.144
-6.610E-06,-0.072
-6.600E-06,0.032
-6.590E-06,0.056
-6.580E-06,0.048
-6.570E-06,0.040
-6.560E-06,0.024
-6.550E-06,0.000
-6.540E-06,-0.024
-6.530E-06,-0.040
-6.520E-06,-0.008
-6.510E-06,0.024
-6.500E-06,0.040
-6.490E-06,0.032
-6.480E-06,0.024
-6.470E-06,0.008
-6.460E-06,0.008
-6.450E-06,-0.008
-6.440E-06,-0.008
-6.430E-06,-0.008
-6.420E-06,0.008
-6.410E-06,0.016
-6.400E-06,0.024
-6.390E-06,0.024
-6.380E-06,0.016
-6.370E-06,0.008
-6.360E-06,-0.008
-6.350E-06,-0.008
-6.340E-06,0.000
-6.330E-06,0.024
-6.320E-06,0.024
-6.310E-06,0.048
-6.300E-06,0.040
-6.290E-06,0.040
-6.280E-06,0.016
-6.270E-06,0.040
-6.260E-06,0.048
-6.250E-06,0.032
-6.240E-06,0.024
-6.230E-06,0.024
-6.220E-06,0.000
-6.210E-06,-0.016
-6.200E-06,-0.048
-6.190E-06,-0.088
-6.180E-06,-0.064
-6.170E-06,-0.032
-6.160E-06,0.064
-6.150E-06,0.064
-6.140E-06,0.144
-6.130E-06,0.072
-6.120E-06,-0.032
-6.110E-06,-0.192
-6.100E-06,-0.080
-6.090E-06,-0.128
-6.080E-06,-0.032
-6.070E-06,0.080
-6.060E-06,0.104
-6.050E-06,0.120
-6.040E-06,0.008
-6.030E-06,-0.072
-6.020E-06,-0.136
-6.010E-06,-0.112
-6.000E-06,-0.024
-5.990E-06,0.072
-5.980E-06,0.144
-5.970E-06,0.128
-5.960E-06,0.048
-5.950E-06,-0.064
-5.940E-06,-0.128
-5.930E-06,-0.112
-5.920E-06,-0.048
-5.910E-06,0.056
-5.900E-06,0.120
-5.890E-06,0.120
-5.880E-06,0.072
-5.870E-06,-0.016
-5.860E-06,-0.072
-5.850E-06,-0.080
-5.840E-06,-0.016
-5.830E-06,0.024
-5.820E-06,0.048
-5.810E-06,0.064
-5.800E-06,0.048
-5.790E-06,0.024
-5.780E-06,-0.024
-5.770E-06,-0.064
-5.760E-06,-0.048
-5.750E-06,0.000
-5.740E-06,0.064
-5.730E-06,0.088
-5.720E-06,0.056
-5.710E-06,0.016
-5.700E-06,0.000
-5.690E-06,-0.016
-5.680E-06,0.000
-5.670E-06,0.000
-5.660E-06,0.016
-5.650E-06,0.048
-5.640E-06,0.032
-5.630E-06,0.000
-5.620E-06,-0.048
-5.610E-06,-0.040
-5.600E-06,0.000
-5.590E-06,0.008
-5.580E-06,0.024
-5.570E-06,0.024
-5.560E-06,0.032
-5.550E-06,0.056
-5.540E-06,0.016
-5.530E-06,-0.024
-5.520E-06,-0.024
-5.510E-06,-0.008
-5.500E-06,-0.200
-5.490E-06,-0.048
-5.480E-06,0.000
-5.470E-06,-0.056
-5.460E-06,0.016
-5.450E-06,0.072
-5.440E-06,0.168
-5.430E-06,0.008
-5.420E-06,-0.008
-5.410E-06,-0.112
-5.400E-06,-0.064
-5.390E-06,0.048
-5.380E-06,0.056
-5.370E-06,0.032
-5.360E-06,-0.016
-5.350E-06,0.008
-5.340E-06,0.016
-5.330E-06,0.024
-5.320E-06,0.024
-5.310E-06,0.000
-5.300E-06,0.024
-5.290E-06,0.032
-5.280E-06,0.016
-5.270E-06,-0.016
-5.260E-06,-0.016
-5.250E-06,0.008
-5.240E-06,0.024
-5.230E-06,0.032
-5.220E-06,-0.008
-5.210E-06,-0.008
-5.200E-06,-0.016
-5.190E-06,-0.008
-5.180E-06,0.008
-5.170E-06,0.016
-5.160E-06,0.016
-5.150E-06,0.000
-5.140E-06,0.008
-5.130E-06,0.016
-5.120E-06,0.016
-5.110E-06,0.032
-5.100E-06,0.032
-5.090E-06,0.024
-5.080E-06,0.032
-5.070E-06,0.056
-5.060E-06,0.024
-5.050E-06,-0.008
-5.040E-06,-0.016
-5.030E-06,-0.048
-5.020E-06,-0.048
-5.010E-06,-0.016
-5.000E-06,0.032
-4.990E-06,0.072
-4.980E-06,0.064
-4.970E-06,0.024
-4.960E-06,-0.040
-4.950E-06,-0.016
-4.940E-06,-0.048
-4.930E-06,0.000
-4.920E-06,-0.032
-4.910E-06,-0.016
-4.900E-06,-0.024
-4.890E-06,-0.040
-4.880E-06,-0.016
-4.870E-06,0.000
-4.860E-06,0.056
-4.850E-06,0.040
-4.840E-06,-0.008
-4.830E-06,-0.040
-4.820E-06,-0.056
-4.810E-06,0.000
-4.800E-06,0.056
-4.790E-06,0.064
-4.780E-06,0.048
-4.770E-06,0.016
-4.760E-06,-0.040
-4.750E-06,-0.040
-4.740E-06,-0.032
-4.730E-06,0.000
-4.720E-06,0.032
-4.710E-06,0.048
-4.700E-06,0.048
-4.690E-06,0.024
-4.680E-06,0.000
-4.670E-06,-0.016
-4.660E-06,-0.064
-4.650E-06,0.000
-4.640E-06,0.032
-4.630E-06,0.016
-4.620E-06,-0.008
-4.610E-06,0.008
-4.600E-06,0.048
-4.590E-06,0.016
-4.580E-06,-0.016
-4.570E-06,-0.032
-4.560E-06,0.024
-4.550E-06,0.056
-4.540E-06,0.056
-4.530E-06,0.024
-4.520E-06,-0.016
-4.510E-06,0.000
-4.500E-06,0.000
-4.490E-06,0.008
-4.480E-06,0.000
-4.470E-06,0.016
-4.460E-06,0.040
-4.450E-06,0.040
-4.440E-06,0.016
-4.430E-06,0.000
-4.420E-06,-0.080
-4.410E-06,-0.008
-4.400E-06,-0.008
-4.390E-06,0.064
-4.380E-06,0.056
-4.370E-06,0.000
-4.360E-06,-0.024
-4.350E-06,-0.160
-4.340E-06,-0.088
-4.330E-06,-0.024
-4.320E-06,0.008
-4.310E-06,0.112
-4.300E-06,0.112
-4.290E-06,0.048
-4.280E-06,-0.040
-4.270E-06,-0.088
-4.260E-06,-0.064
-4.250E-06,0.000
-4.240E-06,0.040
-4.230E-06,0.056
-4.220E-06,0.048
-4.210E-06,0.032
-4.200E-06,0.000
-4.190E-06,-0.024
-4.180E-06,-0.040
-4.170E-06,-0.016
-4.160E-06,0.016
-4.150E-06,0.048
-4.140E-06,0.048
-4.130E-06,0.064
-4.120E-06,0.040
-4.110E-06,-0.016
-4.100E-06,-0.016
-4.090E-06,-0.032
-4.080E-06,-0.016
-4.070E-06,0.016
-4.060E-06,0.048
-4.050E-06,0.056
-4.040E-06,0.048
-4.030E-06,0.016
-4.020E-06,0.008
-4.010E-06,0.000
-4.000E-06,0.024
-3.990E-06,0.040
-3.980E-06,0.048
-3.970E-06,0.048
-3.960E-06,-0.080
-3.950E-06,-0.112
-3.940E-06,-0.120
-3.930E-06,0.000
-3.920E-06,-0.008
-3.910E-06,0.056
-3.900E-06,0.072
-3.890E-06,0.056
-3.880E-06,0.056
-3.870E-06,-0.056
-3.860E-06,-0.144
-3.850E-06,-0.072
-3.840E-06,-0.008
-3.830E-06,0.056
-3.820E-06,0.048
-3.810E-06,0.064
-3.800E-06,0.024
-3.790E-06,-0.016
-3.780E-06,-0.064
-3.770E-06,-0.064
-3.760E-06,-0.008
-3.750E-06,0.040
-3.740E-06,0.048
-3.730E-06,0.032
-3.720E-06,0.008
-3.710E-06,-0.016
-3.700E-06,-0.008
-3.690E-06,-0.008
-3.680E-06,0.000
-3.670E-06,0.016
-3.660E-06,0.016
-3.650E-06,0.024
-3.640E-06,0.024
-3.630E-06,0.008
-3.620E-06,0.000
-3.610E-06,-0.008
-3.600E-06,0.016
-3.590E-06,0.016
-3.580E-06,0.016
-3.570E-06,0.016
-3.560E-06,0.024
-3.550E-06,0.024
-3.540E-06,0.016
-3.530E-06,0.016
-3.520E-06,0.000
-3.510E-06,0.008
-3.500E-06,0.008
-3.490E-06,0.008
-3.480E-06,0.008
-3.470E-06,0.024
-3.460E-06,0.024
-3.450E-06,0.016
-3.440E-06,0.024
-3.430E-06,0.040
-3.420E-06,0.048
-3.410E-06,0.040
-3.400E-06,0.016
-3.390E-06,0.016
-3.380E-06,0.000
-3.370E-06,-0.096
-3.360E-06,-0.072
-3.350E-06,-0.016
-3.340E-06,-0.048
-3.330E-06,0.072
-3.320E-06,0.056
-3.310E-06,0.088
-3.300E-06,0.032
-3.290E-06,0.000
-3.280E-06,-0.096
-3.270E-06,-0.048
-3.260E-06,-0.008
-3.250E-06,0.064
-3.240E-06,0.080
-3.230E-06,0.056
-3.220E-06,-0.008
-3.210E-06,-0.088
-3.200E-06,-0.072
-3.190E-06,-0.064
-3.180E-06,0.000
-3.170E-06,0.064
-3.160E-06,0.072
-3.150E-06,-0.016
-3.140E-06,-0.016
-3.130E-06,-0.040
-3.120E-06,-0.048
-3.110E-06,0.000
-3.100E-06,-0.016
-3.090E-06,0.032
-3.080E-06,0.024
-3.070E-06,0.040
-3.060E-06,0.040
-3.050E-06,0.016
-3.040E-06,-0.016
-3.030E-06,-0.016
-3.020E-06,-0.008
-3.010E-06,0.016
-3.000E-06,0.040
-2.990E-06,0.032
-2.980E-06,0.040
-2.970E-06,0.024
-2.960E-06,0.032
-2.950E-06,-0.016
-2.940E-06,0.000
-2.930E-06,0.016
-2.920E-06,0.040
-2.910E-06,0.040
-2.900E-06,0.016
-2.890E-06,0.016
-2.880E-06,0.008
-2.870E-06,-0.016
-2.860E-06,-0.008
-2.850E-06,0.008
-2.840E-06,0.008
-2.830E-06,0.016
-2.820E-06,-0.008
-2.810E-06,-0.008
-2.800E-06,-0.008
-2.790E-06,0.008
-2.780E-06,-0.008
-2.770E-06,0.016
-2.760E-06,0.056
-2.750E-06,0.032
-2.740E-06,0.040
-2.730E-06,0.016
-2.720E-06,0.016
-2.710E-06,0.016
-2.700E-06,-0.016
-2.690E-06,0.000
-2.680E-06,0.024
-2.670E-06,-0.008
-2.660E-06,0.000
-2.650E-06,0.024
-2.640E-06,0.048
-2.630E-06,0.048
-2.620E-06,-0.008
-2.610E-06,-0.136
-2.600E-06,-0.160
-2.590E-06,-0.136
-2.580E-06,-0.056
-2.570E-06,0.072
-2.560E-06,0.080
-2.550E-06,0.176
-2.540E-06,0.064
-2.530E-06,-0.056
-2.520E-06,-0.120
-2.510E-06,-0.056
-2.500E-06,-0.032
-2.490E-06,0.032
-2.480E-06,0.088
-2.470E-06,0.048
-2.460E-06,0.024
-2.450E-06,-0.104
-2.440E-06,-0.072
-2.430E-06,-0.088
-2.420E-06,-0.008
-2.410E-06,0.072
-2.400E-06,0.112
-2.390E-06,0.088
-2.380E-06,-0.016
-2.370E-06,-0.032
-2.360E-06,-0.056
-2.350E-06,-0.016
-2.340E-06,0.040
-2.330E-06,0.080
-2.320E-06,0.104
-2.310E-06,0.056
-2.300E-06,0.016
-2.290E-06,-0.048
-2.280E-06,-0.072
-2.270E-06,-0.040
-2.260E-06,0.008
-2.250E-06,0.072
-2.240E-06,0.096
-2.230E-06,0.048
-2.220E-06,0.000
-2.210E-06,-0.040
-2.200E-06,-0.048
-2.190E-06,-0.008
-2.180E-06,0.032
-2.170E-06,0.072
-2.160E-06,0.072
-2.150E-06,0.088
-2.140E-06,0.064
-2.130E-06,0.048
-2.120E-06,-0.072
-2.110E-06,-0.216
-2.100E-06,-0.128
-2.090E-06,-0.048
-2.080E-06,0.128
-2.070E-06,0.168
-2.060E-06,0.192
-2.050E-06,0.080
-2.040E-06,-0.040
-2.030E-06,-0.088
-2.020E-06,-0.128
-2.010E-06,-0.032
-2.000E-06,0.032
-1.990E-06,0.016
-1.980E-06,0.056
-1.970E-06,0.096
-1.960E-06,0.072
-1.950E-06,-0.088
-1.940E-06,-0.192
-1.930E-06,-0.152
-1.920E-06,-0.056
-1.910E-06,0.144
-1.900E-06,0.128
-1.890E-06,0.184
-1.880E-06,0.016
-1.870E-06,-0.128
-1.860E-06,-0.112
-1.850E-06,-0.064
-1.840E-06,0.016
-1.830E-06,0.064
-1.820E-06,0.136
-1.810E-06,0.056
-1.800E-06,-0.016
-1.790E-06,-0.080
-1.780E-06,-0.056
-1.770E-06,-0.032
-1.760E-06,-0.008
-1.750E-06,0.024
-1.740E-06,0.048
-1.730E-06,0.048
-1.720E-06,0.024
-1.710E-06,-0.016
-1.700E-06,-0.048
-1.690E-06,-0.016
-1.680E-06,0.032
-1.670E-06,0.056
-1.660E-06,0.064
-1.650E-06,0.024
-1.640E-06,-0.024
-1.630E-06,-0.032
-1.620E-06,-0.024
-1.610E-06,0.016
-1.600E-06,0.032
-1.590E-06,0.048
-1.580E-06,0.072
-1.570E-06,0.064
-1.560E-06,-0.080
-1.550E-06,-0.192
-1.540E-06,-0.168
-1.530E-06,0.048
-1.520E-06,0.104
-1.510E-06,0.088
-1.500E-06,0.032
-1.490E-06,-0.080
-1.480E-06,0.024
-1.470E-06,0.016
-1.460E-06,-0.016
-1.450E-06,-0.016
-1.440E-06,0.016
-1.430E-06,0.048
-1.420E-06,0.064
-1.410E-06,0.008
-1.400E-06,-0.032
-1.390E-06,-0.016
-1.380E-06,-0.008
-1.370E-06,0.000
-1.360E-06,0.016
-1.350E-06,0.000
-1.340E-06,0.016
-1.330E-06,0.032
-1.320E-06,0.040
-1.310E-06,0.000
-1.300E-06,0.000
-1.290E-06,0.008
-1.280E-06,0.008
-1.270E-06,0.016
-1.260E-06,0.016
-1.250E-06,0.016
-1.240E-06,0.024
-1.230E-06,0.032
-1.220E-06,0.040
-1.210E-06,0.024
-1.200E-06,0.024
-1.190E-06,0.008
-1.180E-06,0.000
-1.170E-06,0.008
-1.160E-06,0.000
-1.150E-06,0.008
-1.140E-06,0.040
-1.130E-06,0.056
-1.120E-06,0.048
-1.110E-06,0.032
-1.100E-06,0.032
-1.090E-06,0.032
-1.080E-06,0.016
-1.070E-06,0.048
-1.060E-06,0.048
-1.050E-06,0.104
-1.040E-06,0.120
-1.030E-06,0.128
-1.020E-06,-0.080
-1.010E-06,-0.208
-1.000E-06,-0.208
-9.900E-07,-0.024
-9.800E-07,0.120
-9.700E-07,0.184
-9.600E-07,0.144
-9.500E-07,0.112
-9.400E-07,-0.016
-9.300E-07,-0.112
-9.200E-07,-0.232
-9.100E-07,-0.144
-9.000E-07,0.088
-8.900E-07,0.216
-8.800E-07,0.224
-8.700E-07,0.136
-8.600E-07,-0.040
-8.500E-07,-0.104
-8.400E-07,-0.088
-8.300E-07,-0.176
-8.200E-07,-0.072
-8.100E-07,0.096
-8.000E-07,0.168
-7.900E-07,0.176
-7.800E-07,0.184
-7.700E-07,-0.024
-7.600E-07,-0.168
-7.500E-07,-0.136
-7.400E-07,-0.176
-7.300E-07,0.008
-7.200E-07,0.136
-7.100E-07,0.152
-7.000E-07,0.184
-6.900E-07,-0.008
-6.800E-07,-0.152
-6.700E-07,-0.256
-6.600E-07,-0.208
-6.500E-07,-0.256
-6.400E-07,0.064
-6.300E-07,0.072
-6.200E-07,0.136
-6.100E-07,0.048
-6.000E-07,0.024
-5.900E-07,-0.016
-5.800E-07,-0.080
-5.700E-07,-0.008
-5.600E-07,0.024
-5.500E-07,0.064
-5.400E-07,0.088
-5.300E-07,0.032
-5.200E-07,-0.024
-5.100E-07,-0.064
-5.000E-07,-0.040
-4.900E-07,0.048
-4.800E-07,0.048
-4.700E-07,0.072
-4.600E-07,0.040
-4.500E-07,0.024
-4.400E-07,0.008
-4.300E-07,0.000
-4.200E-07,-0.072
-4.100E-07,-0.056
-4.000E-07,0.024
-3.900E-07,0.072
-3.800E-07,0.088
-3.700E-07,0.016
-3.600E-07,0.016
-3.500E-07,-0.008
-3.400E-07,0.016
-3.300E-07,-0.008
-3.200E-07,-0.032
-3.100E-07,-0.008
-3.000E-07,0.016
-2.900E-07,0.032
-2.800E-07,0.016
-2.700E-07,0.016
-2.600E-07,0.008
-2.500E-07,0.000
-2.400E-07,0.008
-2.300E-07,0.000
-2.200E-07,0.008
-2.100E-07,0.016
-2.000E-07,0.064
-1.900E-07,0.040
-1.800E-07,0.048
-1.700E-07,0.024
-1.600E-07,0.032
-1.500E-07,0.056
-1.400E-07,0.048
-1.300E-07,0.096
-1.200E-07,0.088
-1.100E-07,0.072
-1.000E-07,0.072
-9.000E-08,0.032
-8.000E-08,0.064
-7.000E-08,0.032
-6.000E-08,-0.136
-5.000E-08,-0.368
-4.000E-08,-0.344
-3.000E-08,0.008
-2.000E-08,-0.008
-1.000E-08,0.256
0.000E+00,0.392
1.000E-08,0.280
2.000E-08,0.032
3.000E-08,-0.216
4.000E-08,-0.344
5.000E-08,-0.280
6.000E-08,-0.040
7.000E-08,0.144
8.000E-08,0.360
9.000E-08,0.312
1.000E-07,0.088
1.100E-07,-0.048
1.200E-07,-0.304
1.300E-07,-0.328
1.400E-07,-0.208
1.500E-07,-0.208
1.600E-07,0.168
1.700E-07,0.256
1.800E-07,0.296
1.900E-07,0.184
2.000E-07,-0.136
2.100E-07,-0.216
2.200E-07,-0.208
2.300E-07,-0.048
2.400E-07,0.136
2.500E-07,0.264
2.600E-07,0.208
2.700E-07,0.072
2.800E-07,-0.136
2.900E-07,-0.320
3.000E-07,-0.072
3.100E-07,-0.272
3.200E-07,0.024
3.300E-07,0.192
3.400E-07,0.216
3.500E-07,0.152
3.600E-07,-0.048
3.700E-07,-0.144
3.800E-07,-0.184
3.900E-07,-0.048
4.000E-07,0.048
4.100E-07,0.128
4.200E-07,0.152
4.300E-07,0.112
4.400E-07,0.024
4.500E-07,-0.056
4.600E-07,-0.104
4.700E-07,-0.080
4.800E-07,0.008
4.900E-07,0.088
5.000E-07,0.152
5.100E-07,0.128
5.200E-07,0.056
5.300E-07,-0.024
5.400E-07,-0.072
5.500E-07,-0.072
5.600E-07,-0.008
5.700E-07,0.040
5.800E-07,0.088
5.900E-07,0.112
6.000E-07,0.104
6.100E-07,0.072
6.200E-07,-0.008
6.300E-07,0.008
6.400E-07,0.056
6.500E-07,0.120
6.600E-07,0.184
6.700E-07,-0.096
6.800E-07,-0.304
6.900E-07,-0.352
7.000E-07,-0.120
7.100E-07,0.008
7.200E-07,0.152
7.300E-07,0.272
7.400E-07,0.144
7.500E-07,0.152
7.600E-07,-0.008
7.700E-07,-0.216
7.800E-07,-0.184
7.900E-07,-0.072
8.000E-07,0.104
8.100E-07,0.176
8.200E-07,0.144
8.300E-07,0.064
8.400E-07,0.024
8.500E-07,-0.032
8.600E-07,-0.080
8.700E-07,-0.224
8.800E-07,-0.160
8.900E-07,0.080
9.000E-07,0.248
9.100E-07,0.192
9.200E-07,-0.056
9.300E-07,-0.200
9.400E-07,-0.144
9.500E-07,-0.008
9.600E-07,0.064
9.700E-07,0.080
9.800E-07,0.056
9.900E-07,0.088
1.000E-06,0.080
1.010E-06,0.000
1.020E-06,-0.048
1.030E-06,-0.048
1.040E-06,0.016
1.050E-06,0.120
1.060E-06,0.176
1.070E-06,0.136
1.080E-06,0.088
1.090E-06,0.016
1.100E-06,-0.008
1.110E-06,0.008
1.120E-06,0.024
1.130E-06,0.080
1.140E-06,0.112
1.150E-06,0.120
1.160E-06,0.128
1.170E-06,0.048
1.180E-06,0.048
1.190E-06,0.016
1.200E-06,0.048
1.210E-06,0.112
1.220E-06,0.152
1.230E-06,0.192
1.240E-06,0.232
1.250E-06,0.192
1.260E-06,-0.040
1.270E-06,-0.384
1.280E-06,-0.392
1.290E-06,-0.400
1.300E-06,0.008
1.310E-06,-0.120
1.320E-06,0.200
1.330E-06,0.344
1.340E-06,-0.192
1.350E-06,-0.576
1.360E-06,-0.424
1.370E-06,-0.112
1.380E-06,0.216
1.390E-06,0.496
1.400E-06,0.152
1.410E-06,0.360
1.420E-06,-0.264
1.430E-06,-0.544
1.440E-06,-0.376
1.450E-06,-0.408
1.460E-06,-0.056
1.470E-06,0.128
1.480E-06,0.272
1.490E-06,0.376
1.500E-06,0.264
1.510E-06,-0.144
1.520E-06,-0.288
1.530E-06,-0.232
1.540E-06,0.016
1.550E-06,0.120
1.560E-06,0.184
1.570E-06,0.176
1.580E-06,0.072
1.590E-06,0.104
1.600E-06,0.048
1.610E-06,-0.024
1.620E-06,-0.056
1.630E-06,0.016
1.640E-06,0.120
1.650E-06,0.184
1.660E-06,0.120
1.670E-06,0.056
1.680E-06,-0.008
1.690E-06,-0.008
1.700E-06,-0.008
1.710E-06,0.000
1.720E-06,0.072
1.730E-06,0.112
1.740E-06,0.168
1.750E-06,0.128
1.760E-06,0.072
1.770E-06,0.008
1.780E-06,0.008
1.790E-06,0.016
1.800E-06,0.144
1.810E-06,0.240
1.820E-06,0.120
1.830E-06,0.088
1.840E-06,-0.016
1.850E-06,-0.136
1.860E-06,-0.312
1.870E-06,-0.272
1.880E-06,-0.104
1.890E-06,-0.024
1.900E-06,0.216
1.910E-06,0.216
1.920E-06,0.064
1.930E-06,-0.032
1.940E-06,-0.128
1.950E-06,-0.064
1.960E-06,0.120
1.970E-06,0.256
1.980E-06,0.336
1.990E-06,0.264
2.000E-06,0.136
2.010E-06,-0.048
2.020E-06,-0.216
2.030E-06,-0.136
2.040E-06,-0.040
2.050E-06,0.096
2.060E-06,0.192
2.070E-06,0.128
2.080E-06,0.104
2.090E-06,-0.008
2.100E-06,-0.152
2.110E-06,-0.184
2.120E-06,-0.120
2.130E-06,0.080
2.140E-06,0.120
2.150E-06,0.176
2.160E-06,0.152
2.170E-06,0.120
2.180E-06,0.064
2.190E-06,0.024
2.200E-06,0.048
2.210E-06,0.112
2.220E-06,0.184
2.230E-06,0.224
2.240E-06,0.256
2.250E-06,0.176
2.260E-06,0.144
2.270E-06,0.080
2.280E-06,0.096
2.290E-06,0.120
2.300E-06,0.160
2.310E-06,0.216
2.320E-06,0.216
2.330E-06,0.224
2.340E-06,0.216
2.350E-06,0.192
2.360E-06,0.176
2.370E-06,0.160
2.380E-06,0.208
2.390E-06,0.264
2.400E-06,0.304
2.410E-06,0.304
2.420E-06,0.200
2.430E-06,0.144
2.440E-06,0.040
2.450E-06,-0.008
2.460E-06,-0.104
2.470E-06,-0.536
2.480E-06,-0.120
2.490E-06,-0.248
2.500E-06,-0.344
2.510E-06,-1.016
2.520E-06,-1.024
2.530E-06,0.072
2.540E-06,-0.320
2.550E-06,-0.416
2.560E-06,-0.096
2.570E-06,0.024
2.580E-06,0.240
2.590E-06,0.048
2.600E-06,-0.120
2.610E-06,0.008
2.620E-06,-0.008
2.630E-06,0.336
2.640E-06,0.528
2.650E-06,0.416
2.660E-06,0.472
2.670E-06,0.192
2.680E-06,0.152
2.690E-06,0.024
2.700E-06,-0.072
2.710E-06,0.024
2.720E-06,0.192
2.730E-06,0.328
2.740E-06,0.432
2.750E-06,0.360
2.760E-06,0.224
2.770E-06,0.080
2.780E-06,0.040
2.790E-06,0.072
2.800E-06,0.088
2.810E-06,0.248
2.820E-06,0.248
2.830E-06,0.192
2.840E-06,0.072
2.850E-06,-0.104
2.860E-06,-0.080
2.870E-06,-0.112
2.880E-06,0.048
2.890E-06,0.096
2.900E-06,0.136
2.910E-06,0.184
2.920E-06,0.112
2.930E-06,0.096
2.940E-06,0.032
2.950E-06,0.088
2.960E-06,0.184
2.970E-06,0.264
2.980E-06,0.368
2.990E-06,0.384
3.000E-06,0.392
3.010E-06,0.320
3.020E-06,0.264
3.030E-06,0.216
3.040E-06,0.216
3.050E-06,0.264
3.060E-06,0.312
3.070E-06,0.360
3.080E-06,0.320
3.090E-06,0.288
3.100E-06,0.224
3.110E-06,0.192
3.120E-06,0.192
3.130E-06,0.224
3.140E-06,0.272
3.150E-06,0.288
3.160E-06,0.304
3.170E-06,0.248
3.180E-06,0.232
3.190E-06,0.208
3.200E-06,0.192
3.210E-06,0.208
3.220E-06,0.192
3.230E-06,0.184
3.240E-06,0.128
3.250E-06,0.120
3.260E-06,0.056
3.270E-06,0.064
3.280E-06,0.000
3.290E-06,0.096
3.300E-06,0.120
3.310E-06,0.128
3.320E-06,0.184
3.330E-06,0.176
3.340E-06,0.168
3.350E-06,0.272
3.360E-06,0.272
3.370E-06,0.152
3.380E-06,0.128
3.390E-06,0.168
3.400E-06,0.296
3.410E-06,0.312
3.420E-06,0.328
3.430E-06,0.384
3.440E-06,0.320
3.450E-06,0.280
3.460E-06,0.224
3.470E-06,0.224
3.480E-06,0.272
3.490E-06,0.344
3.500E-06,0.384
3.510E-06,0.344
3.520E-06,0.288
3.530E-06,0.240
3.540E-06,0.232
