mediciones/5-15/19.97/WaveData47382.csv

#timebase=2000000(ps)
,#voltbase=500000(mv/100)
#size=4000
-8.400E-06,0.060
-8.390E-06,0.040
-8.380E-06,0.040
-8.370E-06,0.060
-8.360E-06,0.060
-8.350E-06,0.040
-8.340E-06,0.060
-8.330E-06,0.060
-8.320E-06,0.060
-8.310E-06,0.040
-8.300E-06,0.020
-8.290E-06,0.040
-8.280E-06,0.040
-8.270E-06,0.040
-8.260E-06,0.040
-8.250E-06,0.040
-8.240E-06,0.020
-8.230E-06,0.060
-8.220E-06,0.060
-8.210E-06,0.060
-8.200E-06,0.040
-8.190E-06,0.060
-8.180E-06,0.080
-8.170E-06,0.060
-8.160E-06,0.060
-8.150E-06,0.040
-8.140E-06,0.040
-8.130E-06,0.060
-8.120E-06,0.040
-8.110E-06,0.080
-8.100E-06,0.040
-8.090E-06,0.020
-8.080E-06,0.040
-8.070E-06,0.060
-8.060E-06,0.060
-8.050E-06,0.060
-8.040E-06,0.080
-8.030E-06,0.060
-8.020E-06,0.020
-8.010E-06,0.060
-8.000E-06,0.040
-7.990E-06,0.060
-7.980E-06,0.080
-7.970E-06,0.040
-7.960E-06,0.040
-7.950E-06,0.040
-7.940E-06,0.060
-7.930E-06,0.080
-7.920E-06,0.040
-7.910E-06,0.040
-7.900E-06,0.060
-7.890E-06,0.040
-7.880E-06,0.020
-7.870E-06,0.040
-7.860E-06,0.020
-7.850E-06,0.040
-7.840E-06,0.060
-7.830E-06,0.060
-7.820E-06,0.020
-7.810E-06,0.040
-7.800E-06,0.080
-7.790E-06,0.060
-7.780E-06,0.080
-7.770E-06,0.080
-7.760E-06,0.060
-7.750E-06,0.040
-7.740E-06,0.040
-7.730E-06,0.060
-7.720E-06,0.040
-7.710E-06,0.040
-7.700E-06,0.080
-7.690E-06,0.040
-7.680E-06,0.020
-7.670E-06,0.040
-7.660E-06,0.040
-7.650E-06,0.060
-7.640E-06,0.060
-7.630E-06,0.020
-7.620E-06,0.040
-7.610E-06,0.060
-7.600E-06,0.040
-7.590E-06,0.060
-7.580E-06,0.060
-7.570E-06,0.020
-7.560E-06,0.040
-7.550E-06,0.020
-7.540E-06,0.020
-7.530E-06,0.040
-7.520E-06,0.040
-7.510E-06,0.060
-7.500E-06,0.060
-7.490E-06,0.020
-7.480E-06,0.040
-7.470E-06,0.040
-7.460E-06,0.040
-7.450E-06,0.040
-7.440E-06,0.080
-7.430E-06,0.040
-7.420E-06,0.020
-7.410E-06,0.060
-7.400E-06,0.020
-7.390E-06,0.040
-7.380E-06,0.020
-7.370E-06,0.040
-7.360E-06,0.080
-7.350E-06,0.020
-7.340E-06,0.040
-7.330E-06,0.060
-7.320E-06,0.040
-7.310E-06,0.060
-7.300E-06,0.060
-7.290E-06,0.060
-7.280E-06,0.060
-7.270E-06,0.040
-7.260E-06,0.060
-7.250E-06,0.060
-7.240E-06,0.020
-7.230E-06,0.040
-7.220E-06,0.040
-7.210E-06,0.060
-7.200E-06,0.040
-7.190E-06,0.080
-7.180E-06,0.040
-7.170E-06,0.040
-7.160E-06,0.040
-7.150E-06,0.060
-7.140E-06,0.060
-7.130E-06,0.000
-7.120E-06,0.040
-7.110E-06,0.060
-7.100E-06,0.060
-7.090E-06,0.060
-7.080E-06,0.080
-7.070E-06,0.020
-7.060E-06,0.040
-7.050E-06,0.040
-7.040E-06,0.060
-7.030E-06,0.020
-7.020E-06,0.060
-7.010E-06,0.040
-7.000E-06,0.060
-6.990E-06,0.060
-6.980E-06,0.020
-6.970E-06,0.020
-6.960E-06,0.040
-6.950E-06,0.040
-6.940E-06,0.020
-6.930E-06,0.040
-6.920E-06,0.060
-6.910E-06,0.020
-6.900E-06,0.040
-6.890E-06,0.040
-6.880E-06,0.040
-6.870E-06,0.080
-6.860E-06,0.040
-6.850E-06,0.020
-6.840E-06,0.040
-6.830E-06,0.060
-6.820E-06,0.040
-6.810E-06,0.060
-6.800E-06,0.040
-6.790E-06,0.020
-6.780E-06,0.040
-6.770E-06,0.060
-6.760E-06,0.040
-6.750E-06,0.020
-6.740E-06,0.040
-6.730E-06,0.020
-6.720E-06,0.020
-6.710E-06,0.040
-6.700E-06,0.040
-6.690E-06,0.020
-6.680E-06,0.060
-6.670E-06,0.020
-6.660E-06,0.060
-6.650E-06,0.060
-6.640E-06,0.040
-6.630E-06,0.020
-6.620E-06,0.020
-6.610E-06,0.040
-6.600E-06,0.040
-6.590E-06,0.040
-6.580E-06,0.040
-6.570E-06,0.040
-6.560E-06,0.040
-6.550E-06,0.060
-6.540E-06,0.040
-6.530E-06,0.040
-6.520E-06,0.060
-6.510E-06,0.060
-6.500E-06,0.040
-6.490E-06,0.020
-6.480E-06,0.060
-6.470E-06,0.040
-6.460E-06,0.060
-6.450E-06,0.040
-6.440E-06,0.040
-6.430E-06,0.060
-6.420E-06,0.040
-6.410E-06,0.060
-6.400E-06,0.080
-6.390E-06,0.040
-6.380E-06,0.040
-6.370E-06,0.040
-6.360E-06,0.020
-6.350E-06,0.060
-6.340E-06,0.040
-6.330E-06,0.060
-6.320E-06,0.040
-6.310E-06,0.060
-6.300E-06,0.020
-6.290E-06,0.060
-6.280E-06,0.020
-6.270E-06,0.040
-6.260E-06,0.020
-6.250E-06,0.020
-6.240E-06,0.040
-6.230E-06,0.040
-6.220E-06,0.040
-6.210E-06,0.040
-6.200E-06,0.040
-6.190E-06,0.020
-6.180E-06,0.040
-6.170E-06,0.040
-6.160E-06,0.060
-6.150E-06,0.040
-6.140E-06,0.020
-6.130E-06,0.020
-6.120E-06,0.040
-6.110E-06,0.040
-6.100E-06,0.040
-6.090E-06,0.060
-6.080E-06,0.040
-6.070E-06,0.060
-6.060E-06,0.040
-6.050E-06,0.060
-6.040E-06,0.040
-6.030E-06,0.060
-6.020E-06,0.060
-6.010E-06,0.080
-6.000E-06,0.020
-5.990E-06,0.060
-5.980E-06,0.080
-5.970E-06,0.060
-5.960E-06,0.080
-5.950E-06,0.080
-5.940E-06,0.080
-5.930E-06,0.040
-5.920E-06,0.060
-5.910E-06,0.060
-5.900E-06,0.040
-5.890E-06,0.060
-5.880E-06,0.080
-5.870E-06,0.060
-5.860E-06,0.020
-5.850E-06,0.020
-5.840E-06,0.040
-5.830E-06,0.060
-5.820E-06,0.060
-5.810E-06,0.040
-5.800E-06,0.040
-5.790E-06,0.000
-5.780E-06,-0.020
-5.770E-06,0.000
-5.760E-06,0.020
-5.750E-06,0.020
-5.740E-06,0.000
-5.730E-06,0.000
-5.720E-06,0.020
-5.710E-06,0.000
-5.700E-06,0.000
-5.690E-06,0.040
-5.680E-06,0.020
-5.670E-06,0.040
-5.660E-06,0.040
-5.650E-06,0.060
-5.640E-06,0.040
-5.630E-06,0.060
-5.620E-06,0.080
-5.610E-06,0.100
-5.600E-06,0.100
-5.590E-06,0.080
-5.580E-06,0.100
-5.570E-06,0.080
-5.560E-06,0.060
-5.550E-06,0.080
-5.540E-06,0.100
-5.530E-06,0.080
-5.520E-06,0.080
-5.510E-06,0.080
-5.500E-06,0.060
-5.490E-06,0.080
-5.480E-06,0.080
-5.470E-06,0.040
-5.460E-06,0.040
-5.450E-06,0.060
-5.440E-06,0.060
-5.430E-06,0.040
-5.420E-06,0.060
-5.410E-06,0.080
-5.400E-06,0.060
-5.390E-06,0.020
-5.380E-06,0.040
-5.370E-06,0.060
-5.360E-06,0.040
-5.350E-06,0.040
-5.340E-06,0.060
-5.330E-06,0.040
-5.320E-06,0.020
-5.310E-06,0.040
-5.300E-06,0.040
-5.290E-06,0.080
-5.280E-06,0.060
-5.270E-06,0.020
-5.260E-06,0.020
-5.250E-06,0.020
-5.240E-06,0.020
-5.230E-06,0.020
-5.220E-06,0.000
-5.210E-06,0.000
-5.200E-06,0.000
-5.190E-06,0.000
-5.180E-06,0.000
-5.170E-06,0.020
-5.160E-06,0.040
-5.150E-06,0.020
-5.140E-06,0.040
-5.130E-06,0.060
-5.120E-06,0.040
-5.110E-06,0.020
-5.100E-06,0.040
-5.090E-06,0.040
-5.080E-06,0.060
-5.070E-06,0.060
-5.060E-06,0.040
-5.050E-06,0.020
-5.040E-06,0.020
-5.030E-06,0.020
-5.020E-06,0.000
-5.010E-06,0.000
-5.000E-06,0.000
-4.990E-06,-0.040
-4.980E-06,-0.040
-4.970E-06,0.000
-4.960E-06,0.000
-4.950E-06,-0.020
-4.940E-06,-0.020
-4.930E-06,0.000
-4.920E-06,0.000
-4.910E-06,-0.020
-4.900E-06,-0.020
-4.890E-06,-0.020
-4.880E-06,-0.020
-4.870E-06,-0.020
-4.860E-06,-0.020
-4.850E-06,0.000
-4.840E-06,-0.020
-4.830E-06,-0.020
-4.820E-06,-0.020
-4.810E-06,0.000
-4.800E-06,0.000
-4.790E-06,0.000
-4.780E-06,0.000
-4.770E-06,0.000
-4.760E-06,0.000
-4.750E-06,0.020
-4.740E-06,0.020
-4.730E-06,0.020
-4.720E-06,0.040
-4.710E-06,0.060
-4.700E-06,0.080
-4.690E-06,0.060
-4.680E-06,0.040
-4.670E-06,0.020
-4.660E-06,-0.020
-4.650E-06,0.000
-4.640E-06,0.000
-4.630E-06,-0.020
-4.620E-06,-0.020
-4.610E-06,-0.020
-4.600E-06,-0.060
-4.590E-06,-0.020
-4.580E-06,0.000
-4.570E-06,0.000
-4.560E-06,0.000
-4.550E-06,0.000
-4.540E-06,0.000
-4.530E-06,-0.020
-4.520E-06,0.000
-4.510E-06,0.020
-4.500E-06,0.020
-4.490E-06,0.020
-4.480E-06,0.020
-4.470E-06,0.020
-4.460E-06,0.020
-4.450E-06,0.060
-4.440E-06,0.040
-4.430E-06,0.060
-4.420E-06,0.060
-4.410E-06,0.040
-4.400E-06,0.020
-4.390E-06,0.060
-4.380E-06,0.080
-4.370E-06,0.040
-4.360E-06,0.080
-4.350E-06,0.080
-4.340E-06,0.100
-4.330E-06,0.100
-4.320E-06,0.080
-4.310E-06,0.100
-4.300E-06,0.080
-4.290E-06,0.100
-4.280E-06,0.100
-4.270E-06,0.080
-4.260E-06,0.100
-4.250E-06,0.100
-4.240E-06,0.060
-4.230E-06,0.060
-4.220E-06,0.080
-4.210E-06,0.040
-4.200E-06,0.020
-4.190E-06,0.040
-4.180E-06,0.040
-4.170E-06,0.000
-4.160E-06,0.020
-4.150E-06,0.000
-4.140E-06,0.020
-4.130E-06,0.000
-4.120E-06,0.000
-4.110E-06,-0.020
-4.100E-06,0.020
-4.090E-06,-0.020
-4.080E-06,0.000
-4.070E-06,0.020
-4.060E-06,0.020
-4.050E-06,0.020
-4.040E-06,0.040
-4.030E-06,0.080
-4.020E-06,0.040
-4.010E-06,0.080
-4.000E-06,0.080
-3.990E-06,0.020
-3.980E-06,0.060
-3.970E-06,0.040
-3.960E-06,0.040
-3.950E-06,0.040
-3.940E-06,0.020
-3.930E-06,0.020
-3.920E-06,-0.020
-3.910E-06,-0.020
-3.900E-06,0.000
-3.890E-06,-0.040
-3.880E-06,0.000
-3.870E-06,-0.020
-3.860E-06,-0.040
-3.850E-06,-0.040
-3.840E-06,-0.080
-3.830E-06,-0.080
-3.820E-06,-0.080
-3.810E-06,-0.120
-3.800E-06,-0.140
-3.790E-06,-0.160
-3.780E-06,-0.160
-3.770E-06,-0.180
-3.760E-06,-0.160
-3.750E-06,-0.160
-3.740E-06,-0.140
-3.730E-06,-0.180
-3.720E-06,-0.180
-3.710E-06,-0.240
-3.700E-06,-0.260
-3.690E-06,-0.280
-3.680E-06,-0.280
-3.670E-06,-0.300
-3.660E-06,-0.320
-3.650E-06,-0.320
-3.640E-06,-0.320
-3.630E-06,-0.320
-3.620E-06,-0.260
-3.610E-06,-0.260
-3.600E-06,-0.260
-3.590E-06,-0.260
-3.580E-06,-0.260
-3.570E-06,-0.240
-3.560E-06,-0.220
-3.550E-06,-0.200
-3.540E-06,-0.180
-3.530E-06,-0.200
-3.520E-06,-0.160
-3.510E-06,-0.180
-3.500E-06,-0.180
-3.490E-06,-0.120
-3.480E-06,-0.120
-3.470E-06,-0.140
-3.460E-06,-0.100
-3.450E-06,-0.080
-3.440E-06,-0.100
-3.430E-06,-0.080
-3.420E-06,-0.120
-3.410E-06,-0.120
-3.400E-06,-0.140
-3.390E-06,-0.140
-3.380E-06,-0.120
-3.370E-06,-0.100
-3.360E-06,-0.080
-3.350E-06,-0.100
-3.340E-06,-0.100
-3.330E-06,-0.120
-3.320E-06,-0.120
-3.310E-06,-0.140
-3.300E-06,-0.160
-3.290E-06,-0.180
-3.280E-06,-0.160
-3.270E-06,-0.160
-3.260E-06,-0.160
-3.250E-06,-0.160
-3.240E-06,-0.180
-3.230E-06,-0.180
-3.220E-06,-0.200
-3.210E-06,-0.220
-3.200E-06,-0.220
-3.190E-06,-0.240
-3.180E-06,-0.240
-3.170E-06,-0.200
-3.160E-06,-0.240
-3.150E-06,-0.240
-3.140E-06,-0.220
-3.130E-06,-0.220
-3.120E-06,-0.200
-3.110E-06,-0.180
-3.100E-06,-0.180
-3.090E-06,-0.160
-3.080E-06,-0.140
-3.070E-06,-0.120
-3.060E-06,-0.100
-3.050E-06,-0.100
-3.040E-06,-0.060
-3.030E-06,-0.080
-3.020E-06,-0.020
-3.010E-06,-0.020
-3.000E-06,0.000
-2.990E-06,0.000
-2.980E-06,0.040
-2.970E-06,0.020
-2.960E-06,0.040
-2.950E-06,0.080
-2.940E-06,0.060
-2.930E-06,0.080
-2.920E-06,0.040
-2.910E-06,0.060
-2.900E-06,0.060
-2.890E-06,0.080
-2.880E-06,0.060
-2.870E-06,0.040
-2.860E-06,0.060
-2.850E-06,0.060
-2.840E-06,0.060
-2.830E-06,0.020
-2.820E-06,-0.020
-2.810E-06,-0.020
-2.800E-06,-0.020
-2.790E-06,-0.020
-2.780E-06,-0.040
-2.770E-06,-0.080
-2.760E-06,-0.060
-2.750E-06,-0.040
-2.740E-06,-0.060
-2.730E-06,-0.080
-2.720E-06,-0.040
-2.710E-06,-0.080
-2.700E-06,-0.080
-2.690E-06,-0.080
-2.680E-06,-0.040
-2.670E-06,-0.060
-2.660E-06,-0.060
-2.650E-06,-0.080
-2.640E-06,-0.060
-2.630E-06,-0.060
-2.620E-06,-0.060
-2.610E-06,-0.080
-2.600E-06,-0.060
-2.590E-06,-0.080
-2.580E-06,-0.080
-2.570E-06,-0.080
-2.560E-06,-0.060
-2.550E-06,-0.100
-2.540E-06,-0.140
-2.530E-06,-0.140
-2.520E-06,-0.160
-2.510E-06,-0.160
-2.500E-06,-0.180
-2.490E-06,-0.200
-2.480E-06,-0.200
-2.470E-06,-0.220
-2.460E-06,-0.240
-2.450E-06,-0.240
-2.440E-06,-0.320
-2.430E-06,-0.360
-2.420E-06,-0.320
-2.410E-06,-0.380
-2.400E-06,-0.400
-2.390E-06,-0.460
-2.380E-06,-0.480
-2.370E-06,-0.520
-2.360E-06,-0.580
-2.350E-06,-0.600
-2.340E-06,-0.620
-2.330E-06,-0.640
-2.320E-06,-0.660
-2.310E-06,-0.660
-2.300E-06,-0.700
-2.290E-06,-0.660
-2.280E-06,-0.700
-2.270E-06,-0.760
-2.260E-06,-0.800
-2.250E-06,-0.840
-2.240E-06,-0.860
-2.230E-06,-0.860
-2.220E-06,-0.900
-2.210E-06,-1.000
-2.200E-06,-1.020
-2.190E-06,-1.120
-2.180E-06,-1.120
-2.170E-06,-1.180
-2.160E-06,-1.180
-2.150E-06,-1.220
-2.140E-06,-1.240
-2.130E-06,-1.260
-2.120E-06,-1.200
-2.110E-06,-1.140
-2.100E-06,-1.060
-2.090E-06,-1.000
-2.080E-06,-0.940
-2.070E-06,-0.880
-2.060E-06,-0.840
-2.050E-06,-0.780
-2.040E-06,-0.720
-2.030E-06,-0.680
-2.020E-06,-0.660
-2.010E-06,-0.640
-2.000E-06,-0.680
-1.990E-06,-0.680
-1.980E-06,-0.640
-1.970E-06,-0.620
-1.960E-06,-0.600
-1.950E-06,-0.580
-1.940E-06,-0.600
-1.930E-06,-0.600
-1.920E-06,-0.560
-1.910E-06,-0.580
-1.900E-06,-0.560
-1.890E-06,-0.540
-1.880E-06,-0.500
-1.870E-06,-0.500
-1.860E-06,-0.440
-1.850E-06,-0.460
-1.840E-06,-0.440
-1.830E-06,-0.420
-1.820E-06,-0.380
-1.810E-06,-0.340
-1.800E-06,-0.340
-1.790E-06,-0.340
-1.780E-06,-0.320
-1.770E-06,-0.320
-1.760E-06,-0.320
-1.750E-06,-0.300
-1.740E-06,-0.300
-1.730E-06,-0.300
-1.720E-06,-0.320
-1.710E-06,-0.340
-1.700E-06,-0.320
-1.690E-06,-0.300
-1.680E-06,-0.280
-1.670E-06,-0.300
-1.660E-06,-0.320
-1.650E-06,-0.320
-1.640E-06,-0.320
-1.630E-06,-0.320
-1.620E-06,-0.320
-1.610E-06,-0.320
-1.600E-06,-0.300
-1.590E-06,-0.320
-1.580E-06,-0.320
-1.570E-06,-0.320
-1.560E-06,-0.300
-1.550E-06,-0.320
-1.540E-06,-0.300
-1.530E-06,-0.300
-1.520E-06,-0.320
-1.510E-06,-0.340
-1.500E-06,-0.340
-1.490E-06,-0.360
-1.480E-06,-0.320
-1.470E-06,-0.360
-1.460E-06,-0.420
-1.450E-06,-0.460
-1.440E-06,-0.520
-1.430E-06,-0.520
-1.420E-06,-0.500
-1.410E-06,-0.500
-1.400E-06,-0.540
-1.390E-06,-0.520
-1.380E-06,-0.580
-1.370E-06,-0.600
-1.360E-06,-0.640
-1.350E-06,-0.740
-1.340E-06,-0.800
-1.330E-06,-0.900
-1.320E-06,-0.900
-1.310E-06,-1.040
-1.300E-06,-1.100
-1.290E-06,-1.200
-1.280E-06,-1.260
-1.270E-06,-1.340
-1.260E-06,-1.380
-1.250E-06,-1.440
-1.240E-06,-1.460
-1.230E-06,-1.500
-1.220E-06,-1.480
-1.210E-06,-1.540
-1.200E-06,-1.520
-1.190E-06,-1.620
-1.180E-06,-1.580
-1.170E-06,-1.700
-1.160E-06,-1.680
-1.150E-06,-1.660
-1.140E-06,-1.560
-1.130E-06,-1.460
-1.120E-06,-1.380
-1.110E-06,-1.340
-1.100E-06,-1.280
-1.090E-06,-1.180
-1.080E-06,-1.120
-1.070E-06,-1.020
-1.060E-06,-1.000
-1.050E-06,-0.900
-1.040E-06,-0.860
-1.030E-06,-0.840
-1.020E-06,-0.840
-1.010E-06,-0.840
-1.000E-06,-0.800
-9.900E-07,-0.780
-9.800E-07,-0.800
-9.700E-07,-0.800
-9.600E-07,-0.820
-9.500E-07,-0.800
-9.400E-07,-0.780
-9.300E-07,-0.700
-9.200E-07,-0.740
-9.100E-07,-0.740
-9.000E-07,-0.760
-8.900E-07,-0.800
-8.800E-07,-0.760
-8.700E-07,-0.760
-8.600E-07,-0.760
-8.500E-07,-0.740
-8.400E-07,-0.760
-8.300E-07,-0.780
-8.200E-07,-0.800
-8.100E-07,-0.820
-8.000E-07,-0.800
-7.900E-07,-0.840
-7.800E-07,-0.800
-7.700E-07,-0.820
-7.600E-07,-0.760
-7.500E-07,-0.820
-7.400E-07,-0.740
-7.300E-07,-0.720
-7.200E-07,-0.660
-7.100E-07,-0.600
-7.000E-07,-0.620
-6.900E-07,-0.600
-6.800E-07,-0.680
-6.700E-07,-0.820
-6.600E-07,-0.840
-6.500E-07,-0.900
-6.400E-07,-0.860
-6.300E-07,-0.940
-6.200E-07,-0.980
-6.100E-07,-1.180
-6.000E-07,-1.140
-5.900E-07,-1.260
-5.800E-07,-1.140
-5.700E-07,-1.260
-5.600E-07,-1.200
-5.500E-07,-1.240
-5.400E-07,-1.220
-5.300E-07,-1.240
-5.200E-07,-1.240
-5.100E-07,-1.240
-5.000E-07,-1.200
-4.900E-07,-1.240
-4.800E-07,-1.220
-4.700E-07,-1.200
-4.600E-07,-1.160
-4.500E-07,-1.140
-4.400E-07,-1.100
-4.300E-07,-1.080
-4.200E-07,-1.040
-4.100E-07,-0.940
-4.000E-07,-0.960
-3.900E-07,-0.900
-3.800E-07,-0.860
-3.700E-07,-0.820
-3.600E-07,-0.800
-3.500E-07,-0.780
-3.400E-07,-0.740
-3.300E-07,-0.720
-3.200E-07,-0.660
-3.100E-07,-0.600
-3.000E-07,-0.640
-2.900E-07,-0.660
-2.800E-07,-0.700
-2.700E-07,-0.740
-2.600E-07,-0.800
-2.500E-07,-0.880
-2.400E-07,-0.960
-2.300E-07,-1.080
-2.200E-07,-1.140
-2.100E-07,-1.200
-2.000E-07,-1.300
-1.900E-07,-1.380
-1.800E-07,-1.480
-1.700E-07,-1.620
-1.600E-07,-1.660
-1.500E-07,-1.780
-1.400E-07,-1.740
-1.300E-07,-1.540
-1.200E-07,-1.500
-1.100E-07,-1.380
-1.000E-07,-1.360
-9.000E-08,-1.780
-8.000E-08,-1.800
-7.000E-08,-2.120
-6.000E-08,-2.080
-5.000E-08,-2.020
-4.000E-08,-1.820
-3.000E-08,-1.540
-2.000E-08,-1.540
-1.000E-08,-1.460
0.000E+00,-2.300
1.000E-08,-2.280
2.000E-08,-2.660
3.000E-08,-2.520
4.000E-08,-2.060
5.000E-08,-2.060
6.000E-08,-1.800
7.000E-08,-1.820
8.000E-08,-1.240
9.000E-08,-0.980
1.000E-07,-0.340
1.100E-07,-0.520
1.200E-07,-0.900
1.300E-07,-1.440
1.400E-07,-1.860
1.500E-07,-1.840
1.600E-07,-2.100
1.700E-07,-2.220
1.800E-07,-2.560
1.900E-07,-2.520
2.000E-07,-2.380
2.100E-07,-2.180
2.200E-07,-2.100
2.300E-07,-2.260
2.400E-07,-2.220
2.500E-07,-2.200
2.600E-07,-2.080
2.700E-07,-2.060
2.800E-07,-2.020
2.900E-07,-2.120
3.000E-07,-1.980
3.100E-07,-2.020
3.200E-07,-1.880
3.300E-07,-1.700
3.400E-07,-1.460
3.500E-07,-1.280
3.600E-07,-0.940
3.700E-07,-0.840
3.800E-07,-0.580
3.900E-07,-0.500
4.000E-07,-0.500
4.100E-07,-0.560
4.200E-07,-0.560
4.300E-07,-0.540
4.400E-07,-0.500
4.500E-07,-0.420
4.600E-07,-0.460
4.700E-07,-0.440
4.800E-07,-0.500
4.900E-07,-0.520
5.000E-07,-0.620
5.100E-07,-0.640
5.200E-07,-0.720
5.300E-07,-0.740
5.400E-07,-0.860
5.500E-07,-0.900
5.600E-07,-1.000
5.700E-07,-1.040
5.800E-07,-1.080
5.900E-07,-1.280
6.000E-07,-1.380
6.100E-07,-1.480
6.200E-07,-1.560
6.300E-07,-1.540
6.400E-07,-1.540
6.500E-07,-1.560
6.600E-07,-1.540
6.700E-07,-1.520
6.800E-07,-1.520
6.900E-07,-1.500
7.000E-07,-1.480
7.100E-07,-1.420
7.200E-07,-1.400
7.300E-07,-1.340
7.400E-07,-1.320
7.500E-07,-1.260
7.600E-07,-1.280
7.700E-07,-1.260
7.800E-07,-1.220
7.900E-07,-1.240
8.000E-07,-1.200
8.100E-07,-1.240
8.200E-07,-1.260
8.300E-07,-1.300
8.400E-07,-1.320
8.500E-07,-1.300
8.600E-07,-1.240
8.700E-07,-1.220
8.800E-07,-1.120
8.900E-07,-1.120
9.000E-07,-1.080
9.100E-07,-1.160
9.200E-07,-1.180
9.300E-07,-1.220
9.400E-07,-1.240
9.500E-07,-1.180
9.600E-07,-1.200
9.700E-07,-1.180
9.800E-07,-1.240
9.900E-07,-1.240
1.000E-06,-1.240
1.010E-06,-1.180
1.020E-06,-1.140
1.030E-06,-1.160
1.040E-06,-1.180
1.050E-06,-1.200
1.060E-06,-1.260
1.070E-06,-1.240
1.080E-06,-1.440
1.090E-06,-1.520
1.100E-06,-1.680
1.110E-06,-1.700
1.120E-06,-1.720
1.130E-06,-1.640
1.140E-06,-1.700
1.150E-06,-1.860
1.160E-06,-2.120
1.170E-06,-2.240
1.180E-06,-2.240
1.190E-06,-1.960
1.200E-06,-1.760
1.210E-06,-1.540
1.220E-06,-1.480
1.230E-06,-1.580
1.240E-06,-1.600
1.250E-06,-1.800
1.260E-06,-2.020
1.270E-06,-2.260
1.280E-06,-2.660
1.290E-06,-2.660
1.300E-06,-2.640
1.310E-06,-2.660
1.320E-06,-2.660
1.330E-06,-2.660
1.340E-06,-2.660
1.350E-06,-2.660
1.360E-06,-2.660
1.370E-06,-2.660
1.380E-06,-2.660
1.390E-06,-2.680
1.400E-06,-2.660
1.410E-06,-2.660
1.420E-06,-2.640
1.430E-06,-2.660
1.440E-06,-2.660
1.450E-06,-2.660
1.460E-06,-2.660
1.470E-06,-2.660
1.480E-06,-2.660
1.490E-06,-2.660
1.500E-06,-2.660
1.510E-06,-2.660
1.520E-06,-2.660
1.530E-06,-2.660
1.540E-06,-2.640
1.550E-06,-2.640
1.560E-06,-2.660
1.570E-06,-2.560
1.580E-06,-2.240
1.590E-06,-1.880
1.600E-06,-1.480
1.610E-06,-1.140
1.620E-06,-0.800
1.630E-06,-0.540
1.640E-06,-0.260
1.650E-06,-0.120
1.660E-06,0.020
1.670E-06,-0.020
1.680E-06,-0.020
1.690E-06,-0.100
1.700E-06,-0.160
1.710E-06,-0.220
1.720E-06,-0.260
1.730E-06,-0.260
1.740E-06,-0.240
1.750E-06,-0.180
1.760E-06,-0.140
1.770E-06,-0.040
1.780E-06,0.080
1.790E-06,0.140
1.800E-06,0.260
1.810E-06,0.340
1.820E-06,0.440
1.830E-06,0.500
1.840E-06,0.560
1.850E-06,0.580
1.860E-06,0.580
1.870E-06,0.600
1.880E-06,0.600
1.890E-06,0.580
1.900E-06,0.520
1.910E-06,0.500
1.920E-06,0.440
1.930E-06,0.420
1.940E-06,0.320
1.950E-06,0.260
1.960E-06,0.180
1.970E-06,0.100
1.980E-06,-0.020
1.990E-06,-0.080
2.000E-06,-0.180
2.010E-06,-0.260
2.020E-06,-0.340
2.030E-06,-0.400
2.040E-06,-0.400
2.050E-06,-0.400
2.060E-06,-0.400
2.070E-06,-0.400
2.080E-06,-0.340
2.090E-06,-0.300
2.100E-06,-0.260
2.110E-06,-0.240
2.120E-06,-0.160
2.130E-06,-0.160
2.140E-06,-0.160
2.150E-06,-0.160
2.160E-06,-0.180
2.170E-06,-0.160
2.180E-06,-0.140
2.190E-06,-0.140
2.200E-06,-0.120
2.210E-06,-0.120
2.220E-06,-0.100
2.230E-06,-0.040
2.240E-06,-0.040
2.250E-06,0.000
2.260E-06,0.060
2.270E-06,0.120
2.280E-06,0.180
2.290E-06,0.280
2.300E-06,0.420
2.310E-06,0.540
2.320E-06,0.620
2.330E-06,0.700
2.340E-06,0.740
2.350E-06,0.780
2.360E-06,0.720
2.370E-06,0.640
2.380E-06,0.560
2.390E-06,0.480
2.400E-06,0.380
2.410E-06,0.300
2.420E-06,0.240
2.430E-06,0.200
2.440E-06,0.120
2.450E-06,0.060
2.460E-06,0.040
2.470E-06,0.000
2.480E-06,0.000
2.490E-06,-0.020
2.500E-06,-0.040
2.510E-06,-0.080
2.520E-06,-0.100
2.530E-06,-0.080
2.540E-06,-0.100
2.550E-06,-0.100
2.560E-06,-0.120
2.570E-06,-0.120
2.580E-06,-0.120
2.590E-06,-0.160
2.600E-06,-0.160
2.610E-06,-0.140
2.620E-06,-0.100
2.630E-06,-0.060
2.640E-06,-0.020
2.650E-06,0.100
2.660E-06,0.160
2.670E-06,0.260
2.680E-06,0.320
2.690E-06,0.400
2.700E-06,0.400
2.710E-06,0.420
2.720E-06,0.440
2.730E-06,0.420
2.740E-06,0.420
2.750E-06,0.420
2.760E-06,0.360
2.770E-06,0.360
2.780E-06,0.340
2.790E-06,0.360
2.800E-06,0.360
2.810E-06,0.360
2.820E-06,0.400
2.830E-06,0.420
2.840E-06,0.460
2.850E-06,0.480
2.860E-06,0.480
2.870E-06,0.500
2.880E-06,0.500
2.890E-06,0.520
2.900E-06,0.500
2.910E-06,0.500
2.920E-06,0.520
2.930E-06,0.560
2.940E-06,0.560
2.950E-06,0.600
2.960E-06,0.600
2.970E-06,0.580
2.980E-06,0.580
2.990E-06,0.580
3.000E-06,0.520
3.010E-06,0.480
3.020E-06,0.440
3.030E-06,0.440
3.040E-06,0.400
3.050E-06,0.340
3.060E-06,0.320
3.070E-06,0.300
3.080E-06,0.220
3.090E-06,0.160
3.100E-06,0.120
3.110E-06,0.040
3.120E-06,-0.020
3.130E-06,-0.140
3.140E-06,-0.200
