mediciones/5-15/19.97/WaveData47378.csv

#timebase=2000000(ps)
,#voltbase=500000(mv/100)
#size=4000
-8.400E-06,-0.020
-8.390E-06,0.000
-8.380E-06,0.000
-8.370E-06,0.020
-8.360E-06,0.020
-8.350E-06,0.040
-8.340E-06,0.020
-8.330E-06,0.020
-8.320E-06,0.000
-8.310E-06,0.020
-8.300E-06,0.040
-8.290E-06,0.020
-8.280E-06,0.040
-8.270E-06,0.020
-8.260E-06,0.040
-8.250E-06,0.060
-8.240E-06,0.040
-8.230E-06,0.080
-8.220E-06,0.080
-8.210E-06,0.080
-8.200E-06,0.080
-8.190E-06,0.040
-8.180E-06,0.000
-8.170E-06,0.020
-8.160E-06,0.040
-8.150E-06,0.040
-8.140E-06,0.040
-8.130E-06,0.020
-8.120E-06,0.040
-8.110E-06,0.020
-8.100E-06,0.060
-8.090E-06,0.040
-8.080E-06,0.040
-8.070E-06,0.060
-8.060E-06,0.040
-8.050E-06,0.020
-8.040E-06,0.060
-8.030E-06,0.020
-8.020E-06,0.020
-8.010E-06,0.020
-8.000E-06,0.020
-7.990E-06,0.020
-7.980E-06,0.020
-7.970E-06,0.060
-7.960E-06,0.020
-7.950E-06,0.020
-7.940E-06,0.040
-7.930E-06,0.020
-7.920E-06,0.040
-7.910E-06,0.020
-7.900E-06,0.100
-7.890E-06,0.100
-7.880E-06,0.080
-7.870E-06,0.100
-7.860E-06,0.060
-7.850E-06,0.040
-7.840E-06,0.020
-7.830E-06,0.040
-7.820E-06,0.040
-7.810E-06,0.040
-7.800E-06,0.000
-7.790E-06,0.000
-7.780E-06,0.000
-7.770E-06,0.020
-7.760E-06,0.000
-7.750E-06,0.000
-7.740E-06,0.000
-7.730E-06,-0.020
-7.720E-06,0.000
-7.710E-06,0.000
-7.700E-06,0.000
-7.690E-06,0.020
-7.680E-06,0.020
-7.670E-06,0.040
-7.660E-06,0.000
-7.650E-06,0.020
-7.640E-06,0.000
-7.630E-06,-0.020
-7.620E-06,0.000
-7.610E-06,-0.040
-7.600E-06,-0.040
-7.590E-06,-0.040
-7.580E-06,-0.100
-7.570E-06,-0.060
-7.560E-06,-0.080
-7.550E-06,-0.040
-7.540E-06,-0.020
-7.530E-06,-0.020
-7.520E-06,-0.020
-7.510E-06,0.000
-7.500E-06,-0.020
-7.490E-06,0.000
-7.480E-06,0.020
-7.470E-06,0.020
-7.460E-06,0.020
-7.450E-06,0.040
-7.440E-06,0.040
-7.430E-06,0.040
-7.420E-06,0.080
-7.410E-06,0.080
-7.400E-06,0.040
-7.390E-06,0.040
-7.380E-06,0.040
-7.370E-06,0.040
-7.360E-06,0.060
-7.350E-06,0.040
-7.340E-06,0.040
-7.330E-06,0.040
-7.320E-06,0.060
-7.310E-06,0.020
-7.300E-06,0.040
-7.290E-06,0.040
-7.280E-06,0.020
-7.270E-06,0.000
-7.260E-06,0.000
-7.250E-06,0.000
-7.240E-06,0.000
-7.230E-06,0.020
-7.220E-06,0.020
-7.210E-06,0.020
-7.200E-06,-0.020
-7.190E-06,-0.020
-7.180E-06,0.000
-7.170E-06,0.020
-7.160E-06,0.020
-7.150E-06,0.020
-7.140E-06,-0.020
-7.130E-06,0.000
-7.120E-06,-0.020
-7.110E-06,-0.040
-7.100E-06,-0.060
-7.090E-06,-0.080
-7.080E-06,-0.060
-7.070E-06,-0.020
-7.060E-06,0.020
-7.050E-06,-0.020
-7.040E-06,0.020
-7.030E-06,-0.080
-7.020E-06,-0.120
-7.010E-06,-0.160
-7.000E-06,-0.180
-6.990E-06,-0.120
-6.980E-06,-0.080
-6.970E-06,-0.160
-6.960E-06,-0.120
-6.950E-06,-0.140
-6.940E-06,-0.120
-6.930E-06,-0.060
-6.920E-06,-0.040
-6.910E-06,-0.040
-6.900E-06,-0.060
-6.890E-06,-0.080
-6.880E-06,-0.060
-6.870E-06,-0.040
-6.860E-06,0.000
-6.850E-06,0.000
-6.840E-06,0.000
-6.830E-06,-0.020
-6.820E-06,-0.020
-6.810E-06,-0.020
-6.800E-06,0.000
-6.790E-06,0.060
-6.780E-06,0.040
-6.770E-06,0.020
-6.760E-06,0.000
-6.750E-06,-0.020
-6.740E-06,-0.020
-6.730E-06,-0.040
-6.720E-06,-0.060
-6.710E-06,-0.040
-6.700E-06,-0.020
-6.690E-06,-0.060
-6.680E-06,-0.060
-6.670E-06,-0.060
-6.660E-06,-0.060
-6.650E-06,-0.080
-6.640E-06,-0.060
-6.630E-06,-0.100
-6.620E-06,-0.140
-6.610E-06,-0.160
-6.600E-06,-0.140
-6.590E-06,-0.120
-6.580E-06,-0.120
-6.570E-06,-0.120
-6.560E-06,-0.120
-6.550E-06,-0.140
-6.540E-06,-0.100
-6.530E-06,-0.040
-6.520E-06,-0.040
-6.510E-06,-0.080
-6.500E-06,-0.140
-6.490E-06,-0.200
-6.480E-06,-0.140
-6.470E-06,-0.160
-6.460E-06,-0.080
-6.450E-06,-0.140
-6.440E-06,-0.180
-6.430E-06,-0.180
-6.420E-06,-0.160
-6.410E-06,-0.140
-6.400E-06,-0.100
-6.390E-06,-0.100
-6.380E-06,-0.160
-6.370E-06,-0.180
-6.360E-06,-0.180
-6.350E-06,-0.140
-6.340E-06,-0.080
-6.330E-06,-0.080
-6.320E-06,-0.060
-6.310E-06,-0.080
-6.300E-06,-0.060
-6.290E-06,-0.020
-6.280E-06,0.000
-6.270E-06,0.020
-6.260E-06,-0.020
-6.250E-06,0.000
-6.240E-06,0.020
-6.230E-06,-0.020
-6.220E-06,0.020
-6.210E-06,0.060
-6.200E-06,0.080
-6.190E-06,0.060
-6.180E-06,0.040
-6.170E-06,0.040
-6.160E-06,0.060
-6.150E-06,0.060
-6.140E-06,0.080
-6.130E-06,0.060
-6.120E-06,0.060
-6.110E-06,0.020
-6.100E-06,0.020
-6.090E-06,0.020
-6.080E-06,0.020
-6.070E-06,-0.040
-6.060E-06,-0.020
-6.050E-06,-0.060
-6.040E-06,-0.080
-6.030E-06,-0.060
-6.020E-06,-0.080
-6.010E-06,-0.080
-6.000E-06,-0.100
-5.990E-06,-0.160
-5.980E-06,-0.160
-5.970E-06,-0.180
-5.960E-06,-0.160
-5.950E-06,-0.160
-5.940E-06,-0.180
-5.930E-06,-0.200
-5.920E-06,-0.180
-5.910E-06,-0.180
-5.900E-06,-0.160
-5.890E-06,-0.180
-5.880E-06,-0.140
-5.870E-06,-0.220
-5.860E-06,-0.220
-5.850E-06,-0.220
-5.840E-06,-0.220
-5.830E-06,-0.040
-5.820E-06,-0.220
-5.810E-06,-0.120
-5.800E-06,-0.340
-5.790E-06,-0.320
-5.780E-06,-0.300
-5.770E-06,-0.260
-5.760E-06,-0.200
-5.750E-06,-0.120
-5.740E-06,-0.180
-5.730E-06,-0.160
-5.720E-06,-0.180
-5.710E-06,-0.060
-5.700E-06,0.020
-5.690E-06,0.040
-5.680E-06,0.020
-5.670E-06,-0.040
-5.660E-06,-0.040
-5.650E-06,0.020
-5.640E-06,0.080
-5.630E-06,0.140
-5.620E-06,0.080
-5.610E-06,0.080
-5.600E-06,0.060
-5.590E-06,0.040
-5.580E-06,0.080
-5.570E-06,0.100
-5.560E-06,0.120
-5.550E-06,0.100
-5.540E-06,0.100
-5.530E-06,0.100
-5.520E-06,0.080
-5.510E-06,0.100
-5.500E-06,0.060
-5.490E-06,0.060
-5.480E-06,0.000
-5.470E-06,0.020
-5.460E-06,0.000
-5.450E-06,-0.020
-5.440E-06,0.000
-5.430E-06,0.000
-5.420E-06,-0.060
-5.410E-06,-0.100
-5.400E-06,-0.120
-5.390E-06,-0.120
-5.380E-06,-0.120
-5.370E-06,-0.100
-5.360E-06,-0.100
-5.350E-06,-0.080
-5.340E-06,-0.080
-5.330E-06,-0.100
-5.320E-06,-0.080
-5.310E-06,-0.060
-5.300E-06,-0.060
-5.290E-06,-0.060
-5.280E-06,-0.080
-5.270E-06,-0.060
-5.260E-06,-0.060
-5.250E-06,-0.060
-5.240E-06,-0.100
-5.230E-06,-0.120
-5.220E-06,-0.120
-5.210E-06,-0.180
-5.200E-06,-0.200
-5.190E-06,-0.220
-5.180E-06,-0.200
-5.170E-06,-0.200
-5.160E-06,-0.180
-5.150E-06,-0.200
-5.140E-06,-0.220
-5.130E-06,-0.280
-5.120E-06,-0.360
-5.110E-06,-0.400
-5.100E-06,-0.360
-5.090E-06,-0.420
-5.080E-06,-0.440
-5.070E-06,-0.480
-5.060E-06,-0.480
-5.050E-06,-0.400
-5.040E-06,-0.240
-5.030E-06,-0.340
-5.020E-06,-0.220
-5.010E-06,-0.380
-5.000E-06,-0.460
-4.990E-06,-0.560
-4.980E-06,-0.560
-4.970E-06,-0.560
-4.960E-06,-0.480
-4.950E-06,-0.420
-4.940E-06,-0.380
-4.930E-06,-0.300
-4.920E-06,-0.220
-4.910E-06,-0.060
-4.900E-06,0.020
-4.890E-06,0.060
-4.880E-06,-0.020
-4.870E-06,-0.020
-4.860E-06,-0.120
-4.850E-06,-0.160
-4.840E-06,-0.120
-4.830E-06,-0.100
-4.820E-06,-0.080
-4.810E-06,-0.080
-4.800E-06,-0.120
-4.790E-06,-0.100
-4.780E-06,-0.040
-4.770E-06,0.000
-4.760E-06,0.040
-4.750E-06,0.020
-4.740E-06,-0.020
-4.730E-06,0.000
-4.720E-06,-0.020
-4.710E-06,0.000
-4.700E-06,0.000
-4.690E-06,0.000
-4.680E-06,0.000
-4.670E-06,-0.020
-4.660E-06,-0.040
-4.650E-06,-0.040
-4.640E-06,-0.100
-4.630E-06,-0.140
-4.620E-06,-0.220
-4.610E-06,-0.320
-4.600E-06,-0.300
-4.590E-06,-0.320
-4.580E-06,-0.220
-4.570E-06,-0.180
-4.560E-06,-0.160
-4.550E-06,-0.160
-4.540E-06,-0.160
-4.530E-06,-0.200
-4.520E-06,-0.160
-4.510E-06,-0.200
-4.500E-06,-0.180
-4.490E-06,-0.200
-4.480E-06,-0.260
-4.470E-06,-0.300
-4.460E-06,-0.300
-4.450E-06,-0.340
-4.440E-06,-0.400
-4.430E-06,-0.420
-4.420E-06,-0.480
-4.410E-06,-0.600
-4.400E-06,-0.620
-4.390E-06,-0.720
-4.380E-06,-0.620
-4.370E-06,-0.620
-4.360E-06,-0.580
-4.350E-06,-0.680
-4.340E-06,-0.620
-4.330E-06,-0.660
-4.320E-06,-0.640
-4.310E-06,-0.600
-4.300E-06,-0.460
-4.290E-06,-0.640
-4.280E-06,-0.480
-4.270E-06,-0.720
-4.260E-06,-0.520
-4.250E-06,-0.520
-4.240E-06,-0.420
-4.230E-06,-0.360
-4.220E-06,-0.520
-4.210E-06,-0.460
-4.200E-06,-0.180
-4.190E-06,-0.160
-4.180E-06,0.000
-4.170E-06,-0.040
-4.160E-06,-0.420
-4.150E-06,-0.520
-4.140E-06,-0.620
-4.130E-06,-0.480
-4.120E-06,-0.320
-4.110E-06,-0.400
-4.100E-06,-0.420
-4.090E-06,-0.500
-4.080E-06,-0.480
-4.070E-06,-0.340
-4.060E-06,-0.260
-4.050E-06,-0.260
-4.040E-06,-0.180
-4.030E-06,-0.140
-4.020E-06,-0.040
-4.010E-06,-0.020
-4.000E-06,-0.020
-3.990E-06,-0.060
-3.980E-06,-0.060
-3.970E-06,-0.040
-3.960E-06,-0.020
-3.950E-06,-0.060
-3.940E-06,-0.040
-3.930E-06,-0.060
-3.920E-06,-0.080
-3.910E-06,-0.060
-3.900E-06,-0.060
-3.890E-06,-0.120
-3.880E-06,-0.160
-3.870E-06,-0.180
-3.860E-06,-0.160
-3.850E-06,-0.140
-3.840E-06,-0.100
-3.830E-06,-0.080
-3.820E-06,0.000
-3.810E-06,0.000
-3.800E-06,-0.060
-3.790E-06,-0.100
-3.780E-06,-0.140
-3.770E-06,-0.180
-3.760E-06,-0.240
-3.750E-06,-0.340
-3.740E-06,-0.400
-3.730E-06,-0.380
-3.720E-06,-0.420
-3.710E-06,-0.280
-3.700E-06,-0.240
-3.690E-06,-0.180
-3.680E-06,-0.160
-3.670E-06,-0.160
-3.660E-06,-0.160
-3.650E-06,-0.200
-3.640E-06,-0.220
-3.630E-06,-0.180
-3.620E-06,-0.180
-3.610E-06,-0.240
-3.600E-06,-0.280
-3.590E-06,-0.400
-3.580E-06,-0.440
-3.570E-06,-0.420
-3.560E-06,-0.420
-3.550E-06,-0.420
-3.540E-06,-0.480
-3.530E-06,-0.520
-3.520E-06,-0.500
-3.510E-06,-0.540
-3.500E-06,-0.500
-3.490E-06,-0.500
-3.480E-06,-0.520
-3.470E-06,-0.520
-3.460E-06,-0.580
-3.450E-06,-0.560
-3.440E-06,-0.580
-3.430E-06,-0.600
-3.420E-06,-0.680
-3.410E-06,-0.380
-3.400E-06,-0.500
-3.390E-06,-0.200
-3.380E-06,-0.200
-3.370E-06,-0.200
-3.360E-06,-0.220
-3.350E-06,-0.280
-3.340E-06,-0.260
-3.330E-06,-0.160
-3.320E-06,-0.180
-3.310E-06,-0.200
-3.300E-06,-0.260
-3.290E-06,-0.260
-3.280E-06,-0.240
-3.270E-06,-0.220
-3.260E-06,-0.260
-3.250E-06,-0.280
-3.240E-06,-0.320
-3.230E-06,-0.360
-3.220E-06,-0.320
-3.210E-06,-0.280
-3.200E-06,-0.280
-3.190E-06,-0.220
-3.180E-06,-0.220
-3.170E-06,-0.220
-3.160E-06,-0.220
-3.150E-06,-0.200
-3.140E-06,-0.160
-3.130E-06,-0.140
-3.120E-06,-0.060
-3.110E-06,-0.100
-3.100E-06,-0.060
-3.090E-06,-0.080
-3.080E-06,-0.080
-3.070E-06,-0.020
-3.060E-06,-0.100
-3.050E-06,-0.120
-3.040E-06,-0.100
-3.030E-06,-0.120
-3.020E-06,-0.040
-3.010E-06,-0.060
-3.000E-06,-0.080
-2.990E-06,-0.100
-2.980E-06,-0.140
-2.970E-06,-0.160
-2.960E-06,-0.160
-2.950E-06,-0.160
-2.940E-06,-0.160
-2.930E-06,-0.180
-2.920E-06,-0.160
-2.910E-06,-0.140
-2.900E-06,-0.160
-2.890E-06,-0.200
-2.880E-06,-0.220
-2.870E-06,-0.200
-2.860E-06,-0.240
-2.850E-06,-0.220
-2.840E-06,-0.240
-2.830E-06,-0.260
-2.820E-06,-0.300
-2.810E-06,-0.340
-2.800E-06,-0.340
-2.790E-06,-0.380
-2.780E-06,-0.420
-2.770E-06,-0.440
-2.760E-06,-0.460
-2.750E-06,-0.500
-2.740E-06,-0.540
-2.730E-06,-0.560
-2.720E-06,-0.600
-2.710E-06,-0.640
-2.700E-06,-0.660
-2.690E-06,-0.720
-2.680E-06,-0.720
-2.670E-06,-0.780
-2.660E-06,-0.740
-2.650E-06,-0.700
-2.640E-06,-0.640
-2.630E-06,-0.640
-2.620E-06,-0.560
-2.610E-06,-0.440
-2.600E-06,-0.420
-2.590E-06,-0.380
-2.580E-06,-0.340
-2.570E-06,-0.540
-2.560E-06,-0.540
-2.550E-06,-0.600
-2.540E-06,-0.560
-2.530E-06,-0.560
-2.520E-06,-0.560
-2.510E-06,-0.660
-2.500E-06,-0.540
-2.490E-06,-0.480
-2.480E-06,-0.420
-2.470E-06,-0.420
-2.460E-06,-0.500
-2.450E-06,-0.600
-2.440E-06,-0.600
-2.430E-06,-0.520
-2.420E-06,-0.460
-2.410E-06,-0.420
-2.400E-06,-0.500
-2.390E-06,-0.500
-2.380E-06,-0.500
-2.370E-06,-0.460
-2.360E-06,-0.540
-2.350E-06,-0.680
-2.340E-06,-0.840
-2.330E-06,-0.960
-2.320E-06,-1.120
-2.310E-06,-1.120
-2.300E-06,-0.760
-2.290E-06,-0.700
-2.280E-06,-0.340
-2.270E-06,-0.340
-2.260E-06,-0.360
-2.250E-06,-0.340
-2.240E-06,-0.420
-2.230E-06,-0.340
-2.220E-06,-0.340
-2.210E-06,-0.540
-2.200E-06,-0.740
-2.190E-06,-0.880
-2.180E-06,-0.920
-2.170E-06,-0.800
-2.160E-06,-0.760
-2.150E-06,-0.780
-2.140E-06,-0.840
-2.130E-06,-0.780
-2.120E-06,-0.700
-2.110E-06,-0.660
-2.100E-06,-0.640
-2.090E-06,-0.640
-2.080E-06,-0.620
-2.070E-06,-0.560
-2.060E-06,-0.500
-2.050E-06,-0.480
-2.040E-06,-0.380
-2.030E-06,-0.340
-2.020E-06,-0.280
-2.010E-06,-0.320
-2.000E-06,-0.260
-1.990E-06,-0.360
-1.980E-06,-0.340
-1.970E-06,-0.360
-1.960E-06,-0.400
-1.950E-06,-0.420
-1.940E-06,-0.460
-1.930E-06,-0.540
-1.920E-06,-0.620
-1.910E-06,-0.680
-1.900E-06,-0.800
-1.890E-06,-0.860
-1.880E-06,-0.920
-1.870E-06,-0.920
-1.860E-06,-0.980
-1.850E-06,-0.840
-1.840E-06,-0.960
-1.830E-06,-0.940
-1.820E-06,-1.240
-1.810E-06,-1.300
-1.800E-06,-1.360
-1.790E-06,-1.460
-1.780E-06,-1.500
-1.770E-06,-1.360
-1.760E-06,-0.860
-1.750E-06,-0.860
-1.740E-06,-0.600
-1.730E-06,-0.460
-1.720E-06,-0.480
-1.710E-06,-0.620
-1.700E-06,0.060
-1.690E-06,-0.320
-1.680E-06,0.280
-1.670E-06,-0.180
-1.660E-06,-0.600
-1.650E-06,-0.860
-1.640E-06,-1.100
-1.630E-06,-1.140
-1.620E-06,-1.100
-1.610E-06,-1.260
-1.600E-06,-1.480
-1.590E-06,-1.480
-1.580E-06,-1.580
-1.570E-06,-1.500
-1.560E-06,-1.420
-1.550E-06,-1.360
-1.540E-06,-1.260
-1.530E-06,-1.180
-1.520E-06,-1.020
-1.510E-06,-0.960
-1.500E-06,-0.720
-1.490E-06,-0.580
-1.480E-06,-0.380
-1.470E-06,-0.340
-1.460E-06,-0.180
-1.450E-06,-0.100
-1.440E-06,0.060
-1.430E-06,0.180
-1.420E-06,0.280
-1.410E-06,0.380
-1.400E-06,0.460
-1.390E-06,0.540
-1.380E-06,0.560
-1.370E-06,0.560
-1.360E-06,0.280
-1.350E-06,0.300
-1.340E-06,0.160
-1.330E-06,0.540
-1.320E-06,0.660
-1.310E-06,0.920
-1.300E-06,0.840
-1.290E-06,0.560
-1.280E-06,0.400
-1.270E-06,-0.060
-1.260E-06,0.200
-1.250E-06,0.120
-1.240E-06,0.080
-1.230E-06,0.060
-1.220E-06,-0.500
-1.210E-06,-0.600
-1.200E-06,-0.920
-1.190E-06,-1.000
-1.180E-06,-1.020
-1.170E-06,-1.040
-1.160E-06,-1.320
-1.150E-06,-1.420
-1.140E-06,-1.560
-1.130E-06,-1.480
-1.120E-06,-1.380
-1.110E-06,-1.340
-1.100E-06,-1.320
-1.090E-06,-1.340
-1.080E-06,-1.420
-1.070E-06,-1.160
-1.060E-06,-0.860
-1.050E-06,-0.500
-1.040E-06,-0.120
-1.030E-06,0.020
-1.020E-06,0.100
-1.010E-06,0.240
-1.000E-06,0.220
-9.900E-07,0.440
-9.800E-07,0.620
-9.700E-07,0.680
-9.600E-07,0.660
-9.500E-07,0.640
-9.400E-07,0.700
-9.300E-07,0.740
-9.200E-07,0.760
-9.100E-07,0.660
-9.000E-07,0.540
-8.900E-07,0.420
-8.800E-07,0.360
-8.700E-07,0.300
-8.600E-07,0.240
-8.500E-07,0.320
-8.400E-07,0.220
-8.300E-07,0.260
-8.200E-07,0.120
-8.100E-07,0.020
-8.000E-07,-0.140
-7.900E-07,-0.220
-7.800E-07,-0.260
-7.700E-07,-0.200
-7.600E-07,-0.180
-7.500E-07,-0.140
-7.400E-07,-0.180
-7.300E-07,-0.180
-7.200E-07,-0.160
-7.100E-07,-0.180
-7.000E-07,-0.040
-6.900E-07,0.000
-6.800E-07,0.140
-6.700E-07,0.100
-6.600E-07,0.000
-6.500E-07,-0.040
-6.400E-07,-0.160
-6.300E-07,-0.200
-6.200E-07,-0.320
-6.100E-07,-0.420
-6.000E-07,-0.600
-5.900E-07,-0.680
-5.800E-07,-0.660
-5.700E-07,-0.700
-5.600E-07,-0.660
-5.500E-07,-0.720
-5.400E-07,-0.700
-5.300E-07,-0.680
-5.200E-07,-0.680
-5.100E-07,-0.600
-5.000E-07,-0.580
-4.900E-07,-0.520
-4.800E-07,-0.460
-4.700E-07,-0.420
-4.600E-07,-0.380
-4.500E-07,-0.340
-4.400E-07,-0.320
-4.300E-07,-0.320
-4.200E-07,-0.300
-4.100E-07,-0.320
-4.000E-07,-0.320
-3.900E-07,-0.320
-3.800E-07,-0.320
-3.700E-07,-0.320
-3.600E-07,-0.280
-3.500E-07,-0.260
-3.400E-07,-0.220
-3.300E-07,-0.260
-3.200E-07,-0.260
-3.100E-07,-0.260
-3.000E-07,-0.320
-2.900E-07,-0.380
-2.800E-07,-0.420
-2.700E-07,-0.500
-2.600E-07,-0.580
-2.500E-07,-0.640
-2.400E-07,-0.680
-2.300E-07,-0.740
-2.200E-07,-0.760
-2.100E-07,-0.800
-2.000E-07,-0.780
-1.900E-07,-0.780
-1.800E-07,-0.800
-1.700E-07,-0.820
-1.600E-07,-0.820
-1.500E-07,-0.840
-1.400E-07,-0.920
-1.300E-07,-1.020
-1.200E-07,-1.080
-1.100E-07,-1.200
-1.000E-07,-1.280
-9.000E-08,-1.340
-8.000E-08,-1.440
-7.000E-08,-1.700
-6.000E-08,-1.700
-5.000E-08,-1.340
-4.000E-08,0.620
-3.000E-08,-0.400
-2.000E-08,0.700
-1.000E-08,-0.940
0.000E+00,-1.780
1.000E-08,-1.680
2.000E-08,-2.200
3.000E-08,-1.180
4.000E-08,-1.020
5.000E-08,-1.640
6.000E-08,-1.940
7.000E-08,-1.940
8.000E-08,-1.740
9.000E-08,-1.160
1.000E-07,-1.340
1.100E-07,-1.700
1.200E-07,-1.580
1.300E-07,-1.360
1.400E-07,-1.000
1.500E-07,-0.840
1.600E-07,-0.800
1.700E-07,-0.980
1.800E-07,-0.860
1.900E-07,-0.700
2.000E-07,-0.600
2.100E-07,-0.340
2.200E-07,-0.320
2.300E-07,-0.320
2.400E-07,-0.240
2.500E-07,-0.140
2.600E-07,0.060
2.700E-07,0.280
2.800E-07,0.360
2.900E-07,0.340
3.000E-07,0.340
3.100E-07,0.500
3.200E-07,0.540
3.300E-07,0.720
3.400E-07,0.640
3.500E-07,0.720
3.600E-07,0.740
3.700E-07,1.120
3.800E-07,1.000
3.900E-07,1.560
4.000E-07,1.360
4.100E-07,1.540
4.200E-07,1.200
4.300E-07,0.860
4.400E-07,0.620
4.500E-07,0.260
4.600E-07,-0.100
4.700E-07,-0.460
4.800E-07,-0.860
4.900E-07,-1.100
5.000E-07,-1.380
5.100E-07,-1.520
5.200E-07,-1.540
5.300E-07,-1.580
5.400E-07,-1.540
5.500E-07,-1.580
5.600E-07,-1.600
5.700E-07,-1.520
5.800E-07,-1.420
5.900E-07,-1.220
6.000E-07,-1.180
6.100E-07,-0.980
6.200E-07,-0.640
6.300E-07,-0.240
6.400E-07,0.080
6.500E-07,0.360
6.600E-07,0.360
6.700E-07,0.560
6.800E-07,0.580
6.900E-07,0.840
7.000E-07,0.940
7.100E-07,1.060
7.200E-07,1.000
7.300E-07,0.880
7.400E-07,0.900
7.500E-07,0.880
7.600E-07,0.880
7.700E-07,0.820
7.800E-07,0.600
7.900E-07,0.480
8.000E-07,0.480
8.100E-07,0.500
8.200E-07,0.480
8.300E-07,0.320
8.400E-07,0.120
8.500E-07,-0.120
8.600E-07,-0.440
8.700E-07,-0.500
8.800E-07,-0.380
8.900E-07,-0.120
9.000E-07,0.060
9.100E-07,0.160
9.200E-07,0.040
9.300E-07,0.140
9.400E-07,0.040
9.500E-07,0.260
9.600E-07,0.240
9.700E-07,0.300
9.800E-07,0.200
9.900E-07,0.120
1.000E-06,0.060
1.010E-06,0.020
1.020E-06,-0.020
1.030E-06,-0.120
1.040E-06,-0.260
1.050E-06,-0.400
1.060E-06,-0.460
1.070E-06,-0.500
1.080E-06,-0.640
1.090E-06,-0.720
1.100E-06,-0.780
1.110E-06,-0.780
1.120E-06,-0.760
1.130E-06,-0.740
1.140E-06,-0.700
1.150E-06,-0.660
1.160E-06,-0.580
1.170E-06,-0.400
1.180E-06,-0.280
1.190E-06,-0.140
1.200E-06,0.040
1.210E-06,0.160
1.220E-06,0.220
1.230E-06,0.260
1.240E-06,0.300
1.250E-06,0.360
1.260E-06,0.420
1.270E-06,0.500
1.280E-06,0.560
1.290E-06,0.720
1.300E-06,0.820
1.310E-06,0.940
1.320E-06,1.140
1.330E-06,1.340
1.340E-06,1.460
1.350E-06,1.560
1.360E-06,1.520
1.370E-06,1.400
1.380E-06,1.180
1.390E-06,0.920
1.400E-06,0.600
1.410E-06,0.280
1.420E-06,0.020
1.430E-06,-0.200
1.440E-06,-0.340
1.450E-06,-0.480
1.460E-06,-0.540
1.470E-06,-0.600
1.480E-06,-0.660
1.490E-06,-0.720
1.500E-06,-0.720
1.510E-06,-0.780
1.520E-06,-0.800
1.530E-06,-0.840
1.540E-06,-0.800
1.550E-06,-0.820
1.560E-06,-0.720
1.570E-06,-0.600
1.580E-06,-0.360
1.590E-06,0.140
1.600E-06,0.340
1.610E-06,0.620
1.620E-06,0.540
1.630E-06,0.560
1.640E-06,0.560
1.650E-06,0.680
1.660E-06,0.560
1.670E-06,0.560
1.680E-06,0.140
1.690E-06,-0.100
1.700E-06,-0.420
1.710E-06,-0.660
1.720E-06,-0.900
1.730E-06,-1.180
1.740E-06,-1.580
1.750E-06,-1.840
1.760E-06,-1.860
1.770E-06,-1.880
1.780E-06,-1.840
1.790E-06,-1.800
1.800E-06,-1.920
1.810E-06,-1.720
1.820E-06,-1.780
1.830E-06,-1.660
1.840E-06,-1.540
1.850E-06,-1.380
1.860E-06,-1.100
1.870E-06,-0.980
1.880E-06,0.800
1.890E-06,1.680
1.900E-06,2.520
1.910E-06,2.640
1.920E-06,1.020
1.930E-06,0.940
1.940E-06,0.300
1.950E-06,0.480
1.960E-06,1.100
1.970E-06,0.320
1.980E-06,-1.120
1.990E-06,-2.080
2.000E-06,-2.660
2.010E-06,-2.680
2.020E-06,-2.280
2.030E-06,-2.640
2.040E-06,-2.660
2.050E-06,-2.660
2.060E-06,-2.660
2.070E-06,-2.680
2.080E-06,-2.480
2.090E-06,-1.980
2.100E-06,-1.880
2.110E-06,-1.600
2.120E-06,-1.000
2.130E-06,-0.640
2.140E-06,0.040
2.150E-06,0.300
2.160E-06,0.500
2.170E-06,0.600
2.180E-06,0.760
2.190E-06,0.980
2.200E-06,1.120
2.210E-06,1.140
2.220E-06,1.000
2.230E-06,1.020
2.240E-06,0.880
2.250E-06,1.000
2.260E-06,0.900
2.270E-06,0.800
2.280E-06,0.500
2.290E-06,0.340
2.300E-06,0.060
2.310E-06,0.100
2.320E-06,-0.140
2.330E-06,-0.060
2.340E-06,-0.240
2.350E-06,0.180
2.360E-06,0.560
2.370E-06,0.960
2.380E-06,1.360
2.390E-06,1.060
2.400E-06,0.920
2.410E-06,0.600
2.420E-06,0.580
2.430E-06,0.640
2.440E-06,0.520
2.450E-06,0.200
2.460E-06,-0.180
2.470E-06,-0.560
2.480E-06,-0.560
2.490E-06,-0.820
2.500E-06,-0.880
2.510E-06,-1.260
2.520E-06,-1.520
2.530E-06,-1.580
2.540E-06,-1.640
2.550E-06,-1.520
2.560E-06,-1.340
2.570E-06,-0.980
2.580E-06,-0.760
2.590E-06,-0.440
2.600E-06,-0.400
2.610E-06,-0.640
2.620E-06,-0.480
2.630E-06,-0.560
2.640E-06,-0.320
2.650E-06,-0.180
2.660E-06,-0.240
2.670E-06,-0.200
2.680E-06,-0.080
2.690E-06,0.020
2.700E-06,0.240
2.710E-06,0.260
2.720E-06,0.300
2.730E-06,0.340
2.740E-06,0.460
2.750E-06,0.500
2.760E-06,0.580
2.770E-06,0.560
2.780E-06,0.560
2.790E-06,0.560
2.800E-06,0.560
2.810E-06,0.460
2.820E-06,0.360
2.830E-06,0.280
2.840E-06,0.220
2.850E-06,0.160
2.860E-06,0.140
2.870E-06,0.100
2.880E-06,0.100
2.890E-06,0.080
2.900E-06,0.060
2.910E-06,0.080
2.920E-06,0.140
2.930E-06,0.180
2.940E-06,0.300
2.950E-06,0.440
2.960E-06,0.600
2.970E-06,0.780
2.980E-06,0.760
2.990E-06,0.780
3.000E-06,0.700
3.010E-06,0.520
3.020E-06,0.500
3.030E-06,0.420
3.040E-06,0.360
3.050E-06,0.300
