mediciones/5-15/19.97/WaveData47385.csv

#timebase=2000000(ps)
,#voltbase=100000(mv/100)
#size=4000
-8.400E-06,0.004
-8.390E-06,0.004
-8.380E-06,0.004
-8.370E-06,0.004
-8.360E-06,0.000
-8.350E-06,-0.004
-8.340E-06,0.000
-8.330E-06,0.004
-8.320E-06,0.008
-8.310E-06,0.008
-8.300E-06,0.012
-8.290E-06,-0.004
-8.280E-06,0.000
-8.270E-06,0.000
-8.260E-06,0.000
-8.250E-06,0.004
-8.240E-06,0.004
-8.230E-06,0.008
-8.220E-06,0.000
-8.210E-06,0.000
-8.200E-06,0.000
-8.190E-06,0.000
-8.180E-06,0.004
-8.170E-06,0.004
-8.160E-06,0.004
-8.150E-06,0.004
-8.140E-06,0.004
-8.130E-06,0.004
-8.120E-06,0.000
-8.110E-06,0.004
-8.100E-06,0.000
-8.090E-06,0.004
-8.080E-06,0.004
-8.070E-06,0.004
-8.060E-06,0.004
-8.050E-06,0.004
-8.040E-06,0.004
-8.030E-06,0.004
-8.020E-06,0.004
-8.010E-06,0.004
-8.000E-06,0.000
-7.990E-06,0.000
-7.980E-06,0.008
-7.970E-06,0.004
-7.960E-06,0.004
-7.950E-06,0.000
-7.940E-06,0.004
-7.930E-06,0.004
-7.920E-06,0.000
-7.910E-06,0.004
-7.900E-06,0.004
-7.890E-06,0.004
-7.880E-06,0.000
-7.870E-06,0.008
-7.860E-06,-0.004
-7.850E-06,0.000
-7.840E-06,0.004
-7.830E-06,0.004
-7.820E-06,0.004
-7.810E-06,-0.004
-7.800E-06,0.000
-7.790E-06,0.000
-7.780E-06,0.008
-7.770E-06,0.004
-7.760E-06,0.004
-7.750E-06,0.008
-7.740E-06,0.000
-7.730E-06,-0.004
-7.720E-06,0.000
-7.710E-06,0.004
-7.700E-06,0.004
-7.690E-06,0.008
-7.680E-06,0.000
-7.670E-06,0.000
-7.660E-06,-0.004
-7.650E-06,-0.004
-7.640E-06,0.004
-7.630E-06,0.004
-7.620E-06,0.004
-7.610E-06,0.004
-7.600E-06,0.004
-7.590E-06,0.000
-7.580E-06,0.000
-7.570E-06,-0.004
-7.560E-06,0.004
-7.550E-06,0.004
-7.540E-06,0.008
-7.530E-06,0.000
-7.520E-06,0.004
-7.510E-06,-0.004
-7.500E-06,0.004
-7.490E-06,0.000
-7.480E-06,0.000
-7.470E-06,0.004
-7.460E-06,0.000
-7.450E-06,0.004
-7.440E-06,0.000
-7.430E-06,0.004
-7.420E-06,0.004
-7.410E-06,0.000
-7.400E-06,0.004
-7.390E-06,0.004
-7.380E-06,0.008
-7.370E-06,0.004
-7.360E-06,0.008
-7.350E-06,0.004
-7.340E-06,0.004
-7.330E-06,0.000
-7.320E-06,-0.004
-7.310E-06,0.000
-7.300E-06,0.004
-7.290E-06,0.012
-7.280E-06,0.000
-7.270E-06,0.000
-7.260E-06,0.000
-7.250E-06,-0.004
-7.240E-06,0.004
-7.230E-06,0.008
-7.220E-06,0.000
-7.210E-06,0.000
-7.200E-06,0.000
-7.190E-06,0.000
-7.180E-06,0.000
-7.170E-06,0.004
-7.160E-06,0.008
-7.150E-06,-0.004
-7.140E-06,0.000
-7.130E-06,0.000
-7.120E-06,0.000
-7.110E-06,0.000
-7.100E-06,0.004
-7.090E-06,0.004
-7.080E-06,-0.004
-7.070E-06,-0.004
-7.060E-06,0.000
-7.050E-06,0.004
-7.040E-06,0.008
-7.030E-06,0.008
-7.020E-06,0.004
-7.010E-06,0.000
-7.000E-06,0.000
-6.990E-06,0.004
-6.980E-06,0.004
-6.970E-06,0.004
-6.960E-06,0.000
-6.950E-06,0.004
-6.940E-06,0.000
-6.930E-06,0.004
-6.920E-06,0.004
-6.910E-06,0.004
-6.900E-06,0.000
-6.890E-06,0.000
-6.880E-06,0.000
-6.870E-06,0.000
-6.860E-06,0.004
-6.850E-06,0.004
-6.840E-06,0.008
-6.830E-06,0.000
-6.820E-06,0.000
-6.810E-06,0.004
-6.800E-06,0.004
-6.790E-06,0.000
-6.780E-06,0.008
-6.770E-06,0.008
-6.760E-06,0.004
-6.750E-06,0.000
-6.740E-06,-0.004
-6.730E-06,-0.004
-6.720E-06,0.000
-6.710E-06,0.008
-6.700E-06,0.004
-6.690E-06,0.004
-6.680E-06,0.004
-6.670E-06,0.000
-6.660E-06,0.000
-6.650E-06,-0.004
-6.640E-06,0.000
-6.630E-06,0.004
-6.620E-06,0.008
-6.610E-06,0.004
-6.600E-06,0.004
-6.590E-06,0.004
-6.580E-06,0.008
-6.570E-06,0.004
-6.560E-06,0.008
-6.550E-06,0.008
-6.540E-06,0.008
-6.530E-06,-0.004
-6.520E-06,0.004
-6.510E-06,0.000
-6.500E-06,0.004
-6.490E-06,0.004
-6.480E-06,0.000
-6.470E-06,0.000
-6.460E-06,0.008
-6.450E-06,0.012
-6.440E-06,0.000
-6.430E-06,0.004
-6.420E-06,0.000
-6.410E-06,0.004
-6.400E-06,0.008
-6.390E-06,0.008
-6.380E-06,0.000
-6.370E-06,0.004
-6.360E-06,0.000
-6.350E-06,0.000
-6.340E-06,0.008
-6.330E-06,0.000
-6.320E-06,0.000
-6.310E-06,0.004
-6.300E-06,0.000
-6.290E-06,-0.004
-6.280E-06,0.004
-6.270E-06,0.000
-6.260E-06,0.000
-6.250E-06,0.004
-6.240E-06,0.000
-6.230E-06,-0.004
-6.220E-06,0.004
-6.210E-06,0.000
-6.200E-06,0.004
-6.190E-06,-0.004
-6.180E-06,0.004
-6.170E-06,0.004
-6.160E-06,0.000
-6.150E-06,0.008
-6.140E-06,0.004
-6.130E-06,0.004
-6.120E-06,0.004
-6.110E-06,0.004
-6.100E-06,0.000
-6.090E-06,0.004
-6.080E-06,0.012
-6.070E-06,0.012
-6.060E-06,0.008
-6.050E-06,0.008
-6.040E-06,0.004
-6.030E-06,-0.004
-6.020E-06,0.004
-6.010E-06,0.008
-6.000E-06,0.004
-5.990E-06,0.004
-5.980E-06,0.000
-5.970E-06,-0.004
-5.960E-06,0.004
-5.950E-06,0.000
-5.940E-06,0.004
-5.930E-06,0.008
-5.920E-06,0.004
-5.910E-06,0.000
-5.900E-06,0.000
-5.890E-06,0.000
-5.880E-06,0.000
-5.870E-06,0.008
-5.860E-06,0.004
-5.850E-06,0.000
-5.840E-06,0.004
-5.830E-06,0.004
-5.820E-06,0.004
-5.810E-06,0.000
-5.800E-06,0.008
-5.790E-06,0.000
-5.780E-06,0.000
-5.770E-06,0.000
-5.760E-06,0.004
-5.750E-06,0.008
-5.740E-06,0.004
-5.730E-06,0.004
-5.720E-06,0.000
-5.710E-06,0.004
-5.700E-06,0.000
-5.690E-06,0.004
-5.680E-06,0.008
-5.670E-06,0.000
-5.660E-06,0.004
-5.650E-06,0.008
-5.640E-06,0.004
-5.630E-06,0.004
-5.620E-06,0.000
-5.610E-06,0.004
-5.600E-06,0.004
-5.590E-06,0.004
-5.580E-06,0.000
-5.570E-06,0.000
-5.560E-06,-0.004
-5.550E-06,0.004
-5.540E-06,-0.004
-5.530E-06,0.004
-5.520E-06,0.004
-5.510E-06,0.008
-5.500E-06,0.008
-5.490E-06,0.008
-5.480E-06,0.008
-5.470E-06,0.004
-5.460E-06,0.004
-5.450E-06,0.000
-5.440E-06,0.004
-5.430E-06,0.008
-5.420E-06,0.000
-5.410E-06,0.004
-5.400E-06,0.000
-5.390E-06,0.000
-5.380E-06,0.000
-5.370E-06,0.008
-5.360E-06,0.008
-5.350E-06,0.008
-5.340E-06,0.004
-5.330E-06,0.000
-5.320E-06,-0.004
-5.310E-06,0.004
-5.300E-06,0.000
-5.290E-06,0.004
-5.280E-06,0.004
-5.270E-06,0.004
-5.260E-06,0.008
-5.250E-06,0.008
-5.240E-06,0.000
-5.230E-06,-0.004
-5.220E-06,0.008
-5.210E-06,0.000
-5.200E-06,0.000
-5.190E-06,0.008
-5.180E-06,0.004
-5.170E-06,0.004
-5.160E-06,0.000
-5.150E-06,0.000
-5.140E-06,0.004
-5.130E-06,0.004
-5.120E-06,0.004
-5.110E-06,0.004
-5.100E-06,0.008
-5.090E-06,0.004
-5.080E-06,0.004
-5.070E-06,0.000
-5.060E-06,0.000
-5.050E-06,0.004
-5.040E-06,0.004
-5.030E-06,0.008
-5.020E-06,0.008
-5.010E-06,0.000
-5.000E-06,0.004
-4.990E-06,0.004
-4.980E-06,0.004
-4.970E-06,0.000
-4.960E-06,0.004
-4.950E-06,0.004
-4.940E-06,0.004
-4.930E-06,0.000
-4.920E-06,0.004
-4.910E-06,0.008
-4.900E-06,0.000
-4.890E-06,0.000
-4.880E-06,0.004
-4.870E-06,0.000
-4.860E-06,0.000
-4.850E-06,0.000
-4.840E-06,0.012
-4.830E-06,0.008
-4.820E-06,0.008
-4.810E-06,0.004
-4.800E-06,0.000
-4.790E-06,-0.004
-4.780E-06,0.000
-4.770E-06,0.004
-4.760E-06,0.008
-4.750E-06,0.008
-4.740E-06,0.004
-4.730E-06,0.008
-4.720E-06,0.000
-4.710E-06,0.004
-4.700E-06,0.004
-4.690E-06,0.004
-4.680E-06,0.000
-4.670E-06,0.000
-4.660E-06,0.004
-4.650E-06,0.004
-4.640E-06,0.004
-4.630E-06,0.008
-4.620E-06,0.004
-4.610E-06,0.004
-4.600E-06,0.004
-4.590E-06,0.004
-4.580E-06,0.000
-4.570E-06,0.004
-4.560E-06,0.004
-4.550E-06,0.004
-4.540E-06,0.004
-4.530E-06,0.012
-4.520E-06,0.012
-4.510E-06,0.012
-4.500E-06,0.008
-4.490E-06,-0.004
-4.480E-06,0.000
-4.470E-06,0.000
-4.460E-06,0.008
-4.450E-06,0.004
-4.440E-06,0.008
-4.430E-06,0.000
-4.420E-06,0.004
-4.410E-06,0.000
-4.400E-06,0.000
-4.390E-06,0.000
-4.380E-06,0.000
-4.370E-06,0.008
-4.360E-06,0.012
-4.350E-06,0.012
-4.340E-06,0.012
-4.330E-06,0.000
-4.320E-06,-0.004
-4.310E-06,0.000
-4.300E-06,0.004
-4.290E-06,0.016
-4.280E-06,0.012
-4.270E-06,0.008
-4.260E-06,-0.004
-4.250E-06,-0.004
-4.240E-06,-0.008
-4.230E-06,-0.004
-4.220E-06,0.016
-4.210E-06,0.012
-4.200E-06,0.004
-4.190E-06,-0.004
-4.180E-06,-0.004
-4.170E-06,-0.008
-4.160E-06,-0.004
-4.150E-06,0.008
-4.140E-06,0.012
-4.130E-06,0.004
-4.120E-06,0.000
-4.110E-06,0.000
-4.100E-06,-0.004
-4.090E-06,-0.004
-4.080E-06,0.004
-4.070E-06,0.008
-4.060E-06,0.008
-4.050E-06,0.008
-4.040E-06,0.000
-4.030E-06,0.000
-4.020E-06,0.000
-4.010E-06,-0.004
-4.000E-06,0.000
-3.990E-06,0.000
-3.980E-06,0.000
-3.970E-06,0.004
-3.960E-06,0.008
-3.950E-06,0.004
-3.940E-06,0.004
-3.930E-06,0.000
-3.920E-06,0.000
-3.910E-06,0.000
-3.900E-06,0.004
-3.890E-06,0.000
-3.880E-06,0.008
-3.870E-06,0.004
-3.860E-06,0.004
-3.850E-06,0.004
-3.840E-06,0.008
-3.830E-06,0.008
-3.820E-06,0.000
-3.810E-06,0.000
-3.800E-06,0.000
-3.790E-06,0.008
-3.780E-06,0.004
-3.770E-06,0.004
-3.760E-06,0.008
-3.750E-06,0.000
-3.740E-06,0.004
-3.730E-06,0.000
-3.720E-06,0.000
-3.710E-06,0.000
-3.700E-06,0.004
-3.690E-06,0.008
-3.680E-06,0.008
-3.670E-06,0.008
-3.660E-06,0.008
-3.650E-06,0.008
-3.640E-06,-0.004
-3.630E-06,0.000
-3.620E-06,0.000
-3.610E-06,0.004
-3.600E-06,0.008
-3.590E-06,0.012
-3.580E-06,0.008
-3.570E-06,0.008
-3.560E-06,-0.004
-3.550E-06,0.000
-3.540E-06,-0.004
-3.530E-06,0.004
-3.520E-06,0.008
-3.510E-06,0.012
-3.500E-06,0.012
-3.490E-06,0.008
-3.480E-06,0.004
-3.470E-06,-0.004
-3.460E-06,-0.004
-3.450E-06,0.000
-3.440E-06,0.012
-3.430E-06,0.012
-3.420E-06,0.008
-3.410E-06,0.008
-3.400E-06,0.004
-3.390E-06,-0.004
-3.380E-06,-0.004
-3.370E-06,0.000
-3.360E-06,0.004
-3.350E-06,0.012
-3.340E-06,0.020
-3.330E-06,0.004
-3.320E-06,-0.004
-3.310E-06,0.000
-3.300E-06,0.000
-3.290E-06,0.008
-3.280E-06,0.008
-3.270E-06,0.012
-3.260E-06,0.012
-3.250E-06,0.008
-3.240E-06,0.008
-3.230E-06,0.008
-3.220E-06,0.008
-3.210E-06,0.008
-3.200E-06,0.004
-3.190E-06,0.008
-3.180E-06,0.012
-3.170E-06,0.012
-3.160E-06,0.012
-3.150E-06,0.016
-3.140E-06,0.020
-3.130E-06,0.016
-3.120E-06,0.012
-3.110E-06,0.016
-3.100E-06,0.016
-3.090E-06,0.008
-3.080E-06,0.020
-3.070E-06,0.036
-3.060E-06,0.044
-3.050E-06,0.024
-3.040E-06,-0.004
-3.030E-06,-0.024
-3.020E-06,-0.028
-3.010E-06,-0.024
-3.000E-06,-0.004
-2.990E-06,0.004
-2.980E-06,0.016
-2.970E-06,0.008
-2.960E-06,0.004
-2.950E-06,-0.004
-2.940E-06,-0.004
-2.930E-06,-0.008
-2.920E-06,-0.004
-2.910E-06,0.000
-2.900E-06,-0.004
-2.890E-06,0.008
-2.880E-06,0.012
-2.870E-06,0.016
-2.860E-06,-0.012
-2.850E-06,-0.032
-2.840E-06,-0.040
-2.830E-06,-0.028
-2.820E-06,-0.004
-2.810E-06,0.028
-2.800E-06,0.048
-2.790E-06,0.028
-2.780E-06,-0.004
-2.770E-06,-0.040
-2.760E-06,-0.048
-2.750E-06,-0.020
-2.740E-06,0.032
-2.730E-06,0.056
-2.720E-06,0.048
-2.710E-06,0.008
-2.700E-06,-0.024
-2.690E-06,-0.044
-2.680E-06,-0.024
-2.670E-06,0.004
-2.660E-06,0.040
-2.650E-06,0.044
-2.640E-06,0.028
-2.630E-06,0.008
-2.620E-06,-0.008
-2.610E-06,-0.004
-2.600E-06,0.008
-2.590E-06,0.028
-2.580E-06,0.032
-2.570E-06,0.028
-2.560E-06,0.012
-2.550E-06,-0.008
-2.540E-06,0.000
-2.530E-06,-0.004
-2.520E-06,0.004
-2.510E-06,0.008
-2.500E-06,0.016
-2.490E-06,0.016
-2.480E-06,0.012
-2.470E-06,0.012
-2.460E-06,0.016
-2.450E-06,0.020
-2.440E-06,0.020
-2.430E-06,0.016
-2.420E-06,0.000
-2.410E-06,-0.012
-2.400E-06,0.000
-2.390E-06,0.016
-2.380E-06,0.032
-2.370E-06,0.036
-2.360E-06,0.020
-2.350E-06,0.000
-2.340E-06,-0.024
-2.330E-06,-0.020
-2.320E-06,-0.008
-2.310E-06,0.012
-2.300E-06,0.032
-2.290E-06,0.036
-2.280E-06,0.032
-2.270E-06,0.012
-2.260E-06,-0.008
-2.250E-06,-0.008
-2.240E-06,0.004
-2.230E-06,0.012
-2.220E-06,0.004
-2.210E-06,-0.004
-2.200E-06,-0.008
-2.190E-06,-0.012
-2.180E-06,0.004
-2.170E-06,0.016
-2.160E-06,0.016
-2.150E-06,0.008
-2.140E-06,0.000
-2.130E-06,-0.020
-2.120E-06,-0.028
-2.110E-06,-0.024
-2.100E-06,-0.004
-2.090E-06,0.020
-2.080E-06,0.040
-2.070E-06,0.020
-2.060E-06,-0.004
-2.050E-06,-0.044
-2.040E-06,-0.052
-2.030E-06,-0.044
-2.020E-06,-0.008
-2.010E-06,0.024
-2.000E-06,0.036
-1.990E-06,0.028
-1.980E-06,-0.008
-1.970E-06,-0.036
-1.960E-06,-0.036
-1.950E-06,-0.004
-1.940E-06,0.020
-1.930E-06,0.044
-1.920E-06,0.040
-1.910E-06,0.036
-1.900E-06,0.020
-1.890E-06,0.004
-1.880E-06,0.000
-1.870E-06,0.012
-1.860E-06,0.024
-1.850E-06,0.028
-1.840E-06,0.016
-1.830E-06,0.012
-1.820E-06,0.004
-1.810E-06,-0.004
-1.800E-06,-0.004
-1.790E-06,0.008
-1.780E-06,0.020
-1.770E-06,0.032
-1.760E-06,0.028
-1.750E-06,0.016
-1.740E-06,0.012
-1.730E-06,0.024
-1.720E-06,0.032
-1.710E-06,0.044
-1.700E-06,0.048
-1.690E-06,0.048
-1.680E-06,0.040
-1.670E-06,0.036
-1.660E-06,0.036
-1.650E-06,0.032
-1.640E-06,0.040
-1.630E-06,0.068
-1.620E-06,0.072
-1.610E-06,0.068
-1.600E-06,0.044
-1.590E-06,0.000
-1.580E-06,-0.064
-1.570E-06,-0.088
-1.560E-06,-0.068
-1.550E-06,-0.012
-1.540E-06,0.012
-1.530E-06,0.036
-1.520E-06,0.004
-1.510E-06,-0.036
-1.500E-06,-0.076
-1.490E-06,-0.084
-1.480E-06,-0.060
-1.470E-06,-0.012
-1.460E-06,0.020
-1.450E-06,0.024
-1.440E-06,0.008
-1.430E-06,-0.020
-1.420E-06,-0.032
-1.410E-06,-0.036
-1.400E-06,-0.024
-1.390E-06,-0.012
-1.380E-06,0.012
-1.370E-06,0.024
-1.360E-06,0.024
-1.350E-06,0.024
-1.340E-06,0.000
-1.330E-06,-0.004
-1.320E-06,-0.012
-1.310E-06,-0.004
-1.300E-06,0.012
-1.290E-06,0.036
-1.280E-06,0.040
-1.270E-06,0.028
-1.260E-06,0.012
-1.250E-06,0.004
-1.240E-06,0.008
-1.230E-06,0.020
-1.220E-06,0.032
-1.210E-06,0.028
-1.200E-06,0.036
-1.190E-06,0.024
-1.180E-06,0.036
-1.170E-06,0.032
-1.160E-06,0.036
-1.150E-06,0.036
-1.140E-06,0.036
-1.130E-06,0.048
-1.120E-06,0.048
-1.110E-06,0.024
-1.100E-06,0.016
-1.090E-06,0.012
-1.080E-06,0.024
-1.070E-06,0.052
-1.060E-06,0.068
-1.050E-06,0.072
-1.040E-06,0.056
-1.030E-06,0.012
-1.020E-06,0.000
-1.010E-06,-0.028
-1.000E-06,0.000
-9.900E-07,0.024
-9.800E-07,0.060
-9.700E-07,0.052
-9.600E-07,0.040
-9.500E-07,0.012
-9.400E-07,-0.008
-9.300E-07,0.008
-9.200E-07,0.024
-9.100E-07,0.044
-9.000E-07,0.048
-8.900E-07,0.056
-8.800E-07,0.024
-8.700E-07,0.032
-8.600E-07,0.020
-8.500E-07,0.024
-8.400E-07,0.020
-8.300E-07,0.024
-8.200E-07,0.028
-8.100E-07,0.024
-8.000E-07,0.024
-7.900E-07,0.020
-7.800E-07,0.036
-7.700E-07,0.024
-7.600E-07,0.036
-7.500E-07,0.028
-7.400E-07,0.028
-7.300E-07,0.020
-7.200E-07,0.012
-7.100E-07,0.020
-7.000E-07,0.020
-6.900E-07,0.036
-6.800E-07,0.032
-6.700E-07,0.024
-6.600E-07,0.004
-6.500E-07,-0.012
-6.400E-07,0.000
-6.300E-07,0.004
-6.200E-07,0.012
-6.100E-07,0.024
-6.000E-07,0.008
-5.900E-07,0.004
-5.800E-07,0.028
-5.700E-07,0.052
-5.600E-07,0.068
-5.500E-07,0.076
-5.400E-07,0.092
-5.300E-07,0.084
-5.200E-07,0.092
-5.100E-07,0.088
-5.000E-07,0.104
-4.900E-07,0.096
-4.800E-07,0.112
-4.700E-07,0.112
-4.600E-07,0.108
-4.500E-07,0.112
-4.400E-07,0.108
-4.300E-07,0.112
-4.200E-07,0.104
-4.100E-07,0.104
-4.000E-07,0.108
-3.900E-07,0.112
-3.800E-07,0.092
-3.700E-07,0.084
-3.600E-07,0.084
-3.500E-07,0.096
-3.400E-07,0.104
-3.300E-07,0.108
-3.200E-07,0.116
-3.100E-07,0.104
-3.000E-07,0.092
-2.900E-07,0.084
-2.800E-07,0.092
-2.700E-07,0.112
-2.600E-07,0.132
-2.500E-07,0.136
-2.400E-07,0.140
-2.300E-07,0.144
-2.200E-07,0.128
-2.100E-07,0.124
-2.000E-07,0.128
-1.900E-07,0.128
-1.800E-07,0.132
-1.700E-07,0.156
-1.600E-07,0.156
-1.500E-07,0.176
-1.400E-07,0.208
-1.300E-07,0.180
-1.200E-07,0.172
-1.100E-07,0.160
-1.000E-07,0.112
-9.000E-08,0.132
-8.000E-08,0.168
-7.000E-08,0.120
-6.000E-08,-0.124
-5.000E-08,-0.512
-4.000E-08,-0.512
-3.000E-08,-0.512
-2.000E-08,-0.512
-1.000E-08,0.208
0.000E+00,0.540
1.000E-08,0.544
2.000E-08,0.124
3.000E-08,-0.512
4.000E-08,-0.508
5.000E-08,-0.512
6.000E-08,-0.512
7.000E-08,0.328
8.000E-08,0.540
9.000E-08,0.540
1.000E-07,0.484
1.100E-07,-0.508
1.200E-07,-0.508
1.300E-07,-0.508
1.400E-07,-0.308
1.500E-07,0.536
1.600E-07,0.536
1.700E-07,0.540
1.800E-07,0.540
1.900E-07,-0.120
2.000E-07,-0.512
2.100E-07,-0.512
2.200E-07,-0.436
2.300E-07,0.256
2.400E-07,0.536
2.500E-07,0.540
2.600E-07,0.540
2.700E-07,0.040
2.800E-07,-0.496
2.900E-07,-0.512
3.000E-07,-0.440
3.100E-07,0.032
3.200E-07,0.480
3.300E-07,0.540
3.400E-07,0.540
3.500E-07,0.124
3.600E-07,-0.316
3.700E-07,-0.512
3.800E-07,-0.476
3.900E-07,-0.124
4.000E-07,0.288
4.100E-07,0.512
4.200E-07,0.436
4.300E-07,0.164
4.400E-07,-0.204
4.500E-07,-0.408
4.600E-07,-0.400
4.700E-07,-0.136
4.800E-07,0.208
4.900E-07,0.436
5.000E-07,0.460
5.100E-07,0.264
5.200E-07,0.028
5.300E-07,-0.172
5.400E-07,-0.176
5.500E-07,-0.048
5.600E-07,0.224
5.700E-07,0.408
5.800E-07,0.516
5.900E-07,0.436
6.000E-07,0.276
6.100E-07,0.088
6.200E-07,-0.016
6.300E-07,0.020
6.400E-07,0.160
6.500E-07,0.332
6.600E-07,0.412
6.700E-07,0.416
6.800E-07,0.296
6.900E-07,0.168
7.000E-07,0.052
7.100E-07,0.052
7.200E-07,0.124
7.300E-07,0.244
7.400E-07,0.336
7.500E-07,0.356
7.600E-07,0.308
7.700E-07,0.192
7.800E-07,0.092
7.900E-07,0.044
8.000E-07,0.072
8.100E-07,0.164
8.200E-07,0.260
8.300E-07,0.304
8.400E-07,0.284
8.500E-07,0.196
8.600E-07,0.096
8.700E-07,0.040
8.800E-07,0.060
8.900E-07,0.108
9.000E-07,0.164
9.100E-07,0.168
9.200E-07,0.140
9.300E-07,0.144
9.400E-07,0.120
9.500E-07,0.028
9.600E-07,-0.068
9.700E-07,-0.160
9.800E-07,-0.244
9.900E-07,-0.240
1.000E-06,-0.184
1.010E-06,-0.020
1.020E-06,0.136
1.030E-06,0.264
1.040E-06,0.292
1.050E-06,0.204
1.060E-06,0.072
1.070E-06,-0.144
1.080E-06,-0.296
1.090E-06,-0.420
1.100E-06,-0.332
1.110E-06,-0.224
1.120E-06,-0.028
1.130E-06,0.008
1.140E-06,0.020
1.150E-06,-0.156
1.160E-06,-0.436
1.170E-06,-0.512
1.180E-06,-0.508
1.190E-06,-0.396
1.200E-06,-0.104
1.210E-06,0.336
1.220E-06,0.540
1.230E-06,0.540
1.240E-06,0.316
1.250E-06,-0.204
1.260E-06,-0.500
1.270E-06,-0.508
1.280E-06,-0.300
1.290E-06,0.160
1.300E-06,0.520
1.310E-06,0.544
1.320E-06,0.292
1.330E-06,-0.148
1.340E-06,-0.452
1.350E-06,-0.500
1.360E-06,-0.220
1.370E-06,0.156
1.380E-06,0.432
1.390E-06,0.336
1.400E-06,-0.008
1.410E-06,-0.380
1.420E-06,-0.512
1.430E-06,-0.512
1.440E-06,-0.176
1.450E-06,0.312
1.460E-06,0.540
1.470E-06,0.544
1.480E-06,0.372
1.490E-06,0.008
1.500E-06,-0.296
1.510E-06,-0.356
1.520E-06,-0.136
1.530E-06,0.212
1.540E-06,0.500
1.550E-06,0.540
1.560E-06,0.456
1.570E-06,0.172
1.580E-06,-0.056
1.590E-06,-0.120
1.600E-06,0.012
1.610E-06,0.264
1.620E-06,0.472
1.630E-06,0.540
1.640E-06,0.444
1.650E-06,0.248
1.660E-06,0.044
1.670E-06,-0.044
1.680E-06,0.024
1.690E-06,0.192
1.700E-06,0.368
1.710E-06,0.464
1.720E-06,0.432
1.730E-06,0.292
1.740E-06,0.140
1.750E-06,0.028
1.760E-06,0.044
1.770E-06,0.144
1.780E-06,0.276
1.790E-06,0.364
1.800E-06,0.376
1.810E-06,0.296
1.820E-06,0.192
1.830E-06,0.108
1.840E-06,0.088
1.850E-06,0.148
1.860E-06,0.236
1.870E-06,0.328
1.880E-06,0.352
1.890E-06,0.308
1.900E-06,0.224
1.910E-06,0.144
1.920E-06,0.112
1.930E-06,0.136
1.940E-06,0.204
1.950E-06,0.268
1.960E-06,0.304
1.970E-06,0.288
1.980E-06,0.236
1.990E-06,0.180
2.000E-06,0.152
2.010E-06,0.156
2.020E-06,0.192
2.030E-06,0.236
2.040E-06,0.260
2.050E-06,0.264
2.060E-06,0.224
2.070E-06,0.184
2.080E-06,0.152
2.090E-06,0.136
2.100E-06,0.148
2.110E-06,0.176
2.120E-06,0.196
2.130E-06,0.208
2.140E-06,0.208
2.150E-06,0.204
2.160E-06,0.188
2.170E-06,0.180
2.180E-06,0.184
2.190E-06,0.192
2.200E-06,0.208
2.210E-06,0.220
2.220E-06,0.220
2.230E-06,0.228
2.240E-06,0.224
2.250E-06,0.204
2.260E-06,0.196
2.270E-06,0.196
2.280E-06,0.196
2.290E-06,0.196
2.300E-06,0.204
2.310E-06,0.208
2.320E-06,0.204
2.330E-06,0.192
2.340E-06,0.188
2.350E-06,0.188
2.360E-06,0.180
2.370E-06,0.192
2.380E-06,0.188
2.390E-06,0.196
2.400E-06,0.192
2.410E-06,0.192
2.420E-06,0.196
2.430E-06,0.196
2.440E-06,0.192
2.450E-06,0.200
2.460E-06,0.208
2.470E-06,0.212
2.480E-06,0.216
2.490E-06,0.216
2.500E-06,0.216
2.510E-06,0.208
2.520E-06,0.200
2.530E-06,0.200
2.540E-06,0.200
2.550E-06,0.208
2.560E-06,0.208
2.570E-06,0.208
2.580E-06,0.204
2.590E-06,0.192
2.600E-06,0.192
2.610E-06,0.192
2.620E-06,0.196
2.630E-06,0.200
2.640E-06,0.204
2.650E-06,0.196
2.660E-06,0.196
2.670E-06,0.192
2.680E-06,0.196
2.690E-06,0.200
2.700E-06,0.204
2.710E-06,0.208
2.720E-06,0.204
2.730E-06,0.204
2.740E-06,0.196
2.750E-06,0.192
2.760E-06,0.188
2.770E-06,0.200
2.780E-06,0.208
2.790E-06,0.212
2.800E-06,0.204
2.810E-06,0.192
2.820E-06,0.184
2.830E-06,0.184
2.840E-06,0.184
2.850E-06,0.188
2.860E-06,0.192
2.870E-06,0.196
2.880E-06,0.200
2.890E-06,0.196
2.900E-06,0.192
2.910E-06,0.184
2.920E-06,0.184
2.930E-06,0.188
2.940E-06,0.196
2.950E-06,0.204
2.960E-06,0.196
2.970E-06,0.192
2.980E-06,0.192
2.990E-06,0.184
3.000E-06,0.180
3.010E-06,0.180
3.020E-06,0.188
3.030E-06,0.192
3.040E-06,0.196
3.050E-06,0.188
3.060E-06,0.188
3.070E-06,0.180
3.080E-06,0.180
3.090E-06,0.180
3.100E-06,0.184
3.110E-06,0.184
3.120E-06,0.184
3.130E-06,0.184
3.140E-06,0.176
3.150E-06,0.176
3.160E-06,0.180
3.170E-06,0.176
3.180E-06,0.176
3.190E-06,0.176
3.200E-06,0.176
3.210E-06,0.168
3.220E-06,0.168
3.230E-06,0.176
3.240E-06,0.184
3.250E-06,0.184
3.260E-06,0.180
3.270E-06,0.176
3.280E-06,0.172
3.290E-06,0.172
3.300E-06,0.168
3.310E-06,0.168
3.320E-06,0.176
3.330E-06,0.176
3.340E-06,0.180
3.350E-06,0.176
3.360E-06,0.172
3.370E-06,0.172
3.380E-06,0.164
3.390E-06,0.172
3.400E-06,0.168
3.410E-06,0.168
