mediciones/Mediciones filtradas (saque las feas)/6-10/60/WaveData55193.csv

#timebase=2000000(ps)
,#voltbase=100000(mv/100)
#size=4000
-4.250E-06,0.004
-4.240E-06,0.004
-4.230E-06,-0.004
-4.220E-06,0.004
-4.210E-06,0.008
-4.200E-06,0.008
-4.190E-06,0.008
-4.180E-06,-0.004
-4.170E-06,-0.004
-4.160E-06,0.000
-4.150E-06,-0.004
-4.140E-06,0.004
-4.130E-06,0.004
-4.120E-06,0.000
-4.110E-06,0.004
-4.100E-06,0.004
-4.090E-06,0.004
-4.080E-06,0.000
-4.070E-06,0.004
-4.060E-06,0.000
-4.050E-06,0.000
-4.040E-06,0.000
-4.030E-06,0.004
-4.020E-06,0.004
-4.010E-06,0.004
-4.000E-06,0.004
-3.990E-06,0.004
-3.980E-06,0.004
-3.970E-06,0.004
-3.960E-06,0.008
-3.950E-06,0.008
-3.940E-06,0.008
-3.930E-06,0.008
-3.920E-06,0.000
-3.910E-06,0.000
-3.900E-06,0.000
-3.890E-06,0.004
-3.880E-06,0.004
-3.870E-06,0.004
-3.860E-06,0.000
-3.850E-06,0.004
-3.840E-06,0.004
-3.830E-06,0.004
-3.820E-06,-0.004
-3.810E-06,-0.004
-3.800E-06,0.004
-3.790E-06,0.004
-3.780E-06,0.004
-3.770E-06,0.004
-3.760E-06,0.004
-3.750E-06,0.000
-3.740E-06,0.000
-3.730E-06,0.000
-3.720E-06,0.004
-3.710E-06,0.004
-3.700E-06,0.000
-3.690E-06,0.004
-3.680E-06,0.000
-3.670E-06,0.004
-3.660E-06,0.008
-3.650E-06,0.020
-3.640E-06,0.056
-3.630E-06,0.044
-3.620E-06,0.108
-3.610E-06,-0.032
-3.600E-06,-0.012
-3.590E-06,-0.124
-3.580E-06,-0.084
-3.570E-06,-0.044
-3.560E-06,-0.004
-3.550E-06,0.092
-3.540E-06,0.096
-3.530E-06,0.060
-3.520E-06,-0.012
-3.510E-06,-0.020
-3.500E-06,-0.028
-3.490E-06,-0.004
-3.480E-06,0.040
-3.470E-06,0.064
-3.460E-06,0.044
-3.450E-06,0.000
-3.440E-06,-0.028
-3.430E-06,-0.052
-3.420E-06,-0.036
-3.410E-06,-0.020
-3.400E-06,0.012
-3.390E-06,0.040
-3.380E-06,0.052
-3.370E-06,0.032
-3.360E-06,0.028
-3.350E-06,0.000
-3.340E-06,-0.012
-3.330E-06,-0.020
-3.320E-06,-0.008
-3.310E-06,-0.004
-3.300E-06,-0.004
-3.290E-06,0.008
-3.280E-06,-0.004
-3.270E-06,-0.012
-3.260E-06,-0.012
-3.250E-06,-0.024
-3.240E-06,-0.016
-3.230E-06,0.008
-3.220E-06,0.040
-3.210E-06,0.044
-3.200E-06,0.036
-3.190E-06,0.028
-3.180E-06,0.000
-3.170E-06,-0.008
-3.160E-06,-0.032
-3.150E-06,-0.016
-3.140E-06,0.004
-3.130E-06,0.012
-3.120E-06,0.000
-3.110E-06,0.008
-3.100E-06,0.008
-3.090E-06,-0.012
-3.080E-06,0.000
-3.070E-06,0.008
-3.060E-06,0.008
-3.050E-06,0.020
-3.040E-06,0.024
-3.030E-06,0.016
-3.020E-06,0.008
-3.010E-06,-0.004
-3.000E-06,-0.012
-2.990E-06,-0.020
-2.980E-06,-0.008
-2.970E-06,0.004
-2.960E-06,0.008
-2.950E-06,0.012
-2.940E-06,0.008
-2.930E-06,0.004
-2.920E-06,-0.004
-2.910E-06,-0.004
-2.900E-06,-0.012
-2.890E-06,0.024
-2.880E-06,0.012
-2.870E-06,0.020
-2.860E-06,0.028
-2.850E-06,-0.004
-2.840E-06,-0.008
-2.830E-06,-0.020
-2.820E-06,-0.008
-2.810E-06,0.000
-2.800E-06,0.008
-2.790E-06,0.008
-2.780E-06,0.000
-2.770E-06,0.008
-2.760E-06,0.012
-2.750E-06,-0.004
-2.740E-06,0.004
-2.730E-06,-0.008
-2.720E-06,0.008
-2.710E-06,0.016
-2.700E-06,0.012
-2.690E-06,0.016
-2.680E-06,0.000
-2.670E-06,-0.008
-2.660E-06,-0.020
-2.650E-06,0.000
-2.640E-06,-0.004
-2.630E-06,0.024
-2.620E-06,0.028
-2.610E-06,0.008
-2.600E-06,0.000
-2.590E-06,-0.008
-2.580E-06,-0.032
-2.570E-06,-0.008
-2.560E-06,0.016
-2.550E-06,0.044
-2.540E-06,0.000
-2.530E-06,0.004
-2.520E-06,0.000
-2.510E-06,0.004
-2.500E-06,-0.004
-2.490E-06,-0.004
-2.480E-06,-0.012
-2.470E-06,-0.004
-2.460E-06,0.036
-2.450E-06,0.012
-2.440E-06,0.008
-2.430E-06,-0.012
-2.420E-06,-0.024
-2.410E-06,-0.004
-2.400E-06,0.024
-2.390E-06,0.024
-2.380E-06,0.020
-2.370E-06,0.028
-2.360E-06,0.000
-2.350E-06,0.008
-2.340E-06,-0.004
-2.330E-06,-0.028
-2.320E-06,-0.028
-2.310E-06,0.036
-2.300E-06,0.048
-2.290E-06,-0.008
-2.280E-06,0.008
-2.270E-06,0.008
-2.260E-06,-0.016
-2.250E-06,0.028
-2.240E-06,-0.016
-2.230E-06,-0.040
-2.220E-06,0.000
-2.210E-06,0.076
-2.200E-06,0.004
-2.190E-06,-0.004
-2.180E-06,0.000
-2.170E-06,-0.056
-2.160E-06,0.020
-2.150E-06,0.012
-2.140E-06,-0.008
-2.130E-06,-0.020
-2.120E-06,0.028
-2.110E-06,0.016
-2.100E-06,0.016
-2.090E-06,0.008
-2.080E-06,-0.008
-2.070E-06,-0.020
-2.060E-06,0.020
-2.050E-06,0.012
-2.040E-06,-0.004
-2.030E-06,0.004
-2.020E-06,0.020
-2.010E-06,0.008
-2.000E-06,0.000
-1.990E-06,-0.008
-1.980E-06,-0.024
-1.970E-06,0.020
-1.960E-06,0.028
-1.950E-06,0.004
-1.940E-06,-0.024
-1.930E-06,0.008
-1.920E-06,0.000
-1.910E-06,-0.020
-1.900E-06,0.032
-1.890E-06,0.004
-1.880E-06,0.004
-1.870E-06,0.048
-1.860E-06,0.024
-1.850E-06,-0.016
-1.840E-06,0.020
-1.830E-06,0.004
-1.820E-06,-0.036
-1.810E-06,0.028
-1.800E-06,0.052
-1.790E-06,0.068
-1.780E-06,-0.088
-1.770E-06,-0.004
-1.760E-06,0.076
-1.750E-06,-0.024
-1.740E-06,-0.068
-1.730E-06,0.032
-1.720E-06,0.016
-1.710E-06,-0.040
-1.700E-06,0.008
-1.690E-06,0.076
-1.680E-06,-0.024
-1.670E-06,0.008
-1.660E-06,0.008
-1.650E-06,-0.008
-1.640E-06,-0.012
-1.630E-06,-0.012
-1.620E-06,0.000
-1.610E-06,-0.004
-1.600E-06,0.008
-1.590E-06,0.032
-1.580E-06,0.012
-1.570E-06,0.052
-1.560E-06,-0.028
-1.550E-06,-0.036
-1.540E-06,0.000
-1.530E-06,0.052
-1.520E-06,-0.020
-1.510E-06,0.024
-1.500E-06,0.044
-1.490E-06,-0.044
-1.480E-06,-0.012
-1.470E-06,0.060
-1.460E-06,0.020
-1.450E-06,0.000
-1.440E-06,0.024
-1.430E-06,0.020
-1.420E-06,0.024
-1.410E-06,-0.004
-1.400E-06,0.008
-1.390E-06,0.004
-1.380E-06,0.020
-1.370E-06,0.016
-1.360E-06,0.024
-1.350E-06,-0.004
-1.340E-06,-0.004
-1.330E-06,-0.004
-1.320E-06,-0.020
-1.310E-06,-0.024
-1.300E-06,-0.016
-1.290E-06,0.000
-1.280E-06,0.000
-1.270E-06,0.032
-1.260E-06,0.012
-1.250E-06,-0.004
-1.240E-06,-0.008
-1.230E-06,0.000
-1.220E-06,-0.004
-1.210E-06,-0.004
-1.200E-06,0.016
-1.190E-06,0.016
-1.180E-06,0.012
-1.170E-06,0.008
-1.160E-06,0.008
-1.150E-06,-0.008
-1.140E-06,0.004
-1.130E-06,0.024
-1.120E-06,0.012
-1.110E-06,0.000
-1.100E-06,-0.020
-1.090E-06,-0.020
-1.080E-06,-0.016
-1.070E-06,0.008
-1.060E-06,0.024
-1.050E-06,0.028
-1.040E-06,0.008
-1.030E-06,0.004
-1.020E-06,-0.008
-1.010E-06,-0.020
-1.000E-06,-0.012
-9.900E-07,0.008
-9.800E-07,0.008
-9.700E-07,0.000
-9.600E-07,0.024
-9.500E-07,0.020
-9.400E-07,-0.020
-9.300E-07,-0.024
-9.200E-07,-0.008
-9.100E-07,-0.008
-9.000E-07,-0.004
-8.900E-07,0.028
-8.800E-07,0.016
-8.700E-07,0.012
-8.600E-07,0.024
-8.500E-07,0.004
-8.400E-07,-0.016
-8.300E-07,0.000
-8.200E-07,0.012
-8.100E-07,0.012
-8.000E-07,0.024
-7.900E-07,0.020
-7.800E-07,0.008
-7.700E-07,0.004
-7.600E-07,0.008
-7.500E-07,0.004
-7.400E-07,0.004
-7.300E-07,0.020
-7.200E-07,0.028
-7.100E-07,0.020
-7.000E-07,0.020
-6.900E-07,0.004
-6.800E-07,0.008
-6.700E-07,0.016
-6.600E-07,0.028
-6.500E-07,0.032
-6.400E-07,0.032
-6.300E-07,0.028
-6.200E-07,0.012
-6.100E-07,0.008
-6.000E-07,0.008
-5.900E-07,0.012
-5.800E-07,0.008
-5.700E-07,0.024
-5.600E-07,0.024
-5.500E-07,0.028
-5.400E-07,0.032
-5.300E-07,0.024
-5.200E-07,0.024
-5.100E-07,0.040
-5.000E-07,0.024
-4.900E-07,0.032
-4.800E-07,0.008
-4.700E-07,0.004
-4.600E-07,0.000
-4.500E-07,0.016
-4.400E-07,0.040
-4.300E-07,0.044
-4.200E-07,0.052
-4.100E-07,0.052
-4.000E-07,0.052
-3.900E-07,0.060
-3.800E-07,0.040
-3.700E-07,0.060
-3.600E-07,0.060
-3.500E-07,0.100
-3.400E-07,0.068
-3.300E-07,0.076
-3.200E-07,0.072
-3.100E-07,0.032
-3.000E-07,-0.044
-2.900E-07,-0.068
-2.800E-07,-0.112
-2.700E-07,-0.092
-2.600E-07,0.012
-2.500E-07,0.092
-2.400E-07,0.144
-2.300E-07,0.072
-2.200E-07,0.032
-2.100E-07,0.000
-2.000E-07,-0.016
-1.900E-07,-0.008
-1.800E-07,0.020
-1.700E-07,0.060
-1.600E-07,0.096
-1.500E-07,0.084
-1.400E-07,0.056
-1.300E-07,0.012
-1.200E-07,-0.004
-1.100E-07,-0.008
-1.000E-07,0.004
-9.000E-08,-0.008
-8.000E-08,-0.036
-7.000E-08,0.208
-6.000E-08,-0.512
-5.000E-08,-0.208
-4.000E-08,-0.508
-3.000E-08,-0.340
-2.000E-08,-0.432
-1.000E-08,0.040
0.000E+00,0.540
1.000E-08,0.528
2.000E-08,0.196
3.000E-08,-0.068
4.000E-08,-0.108
5.000E-08,-0.508
6.000E-08,-0.220
7.000E-08,0.196
8.000E-08,0.492
9.000E-08,0.224
1.000E-07,0.044
1.100E-07,-0.176
1.200E-07,-0.336
1.300E-07,-0.076
1.400E-07,-0.028
1.500E-07,0.228
1.600E-07,0.204
1.700E-07,0.324
1.800E-07,0.144
1.900E-07,0.044
2.000E-07,-0.044
2.100E-07,-0.140
2.200E-07,-0.028
2.300E-07,0.056
2.400E-07,0.164
2.500E-07,0.096
2.600E-07,0.172
2.700E-07,0.008
2.800E-07,-0.056
2.900E-07,-0.172
3.000E-07,-0.136
3.100E-07,-0.060
3.200E-07,0.060
3.300E-07,0.140
3.400E-07,0.156
3.500E-07,0.136
3.600E-07,-0.028
3.700E-07,-0.076
3.800E-07,-0.108
3.900E-07,-0.008
4.000E-07,0.032
4.100E-07,0.092
4.200E-07,0.116
4.300E-07,0.060
4.400E-07,0.000
4.500E-07,-0.096
4.600E-07,-0.072
4.700E-07,-0.052
4.800E-07,0.008
4.900E-07,0.052
5.000E-07,0.084
5.100E-07,0.052
5.200E-07,0.028
5.300E-07,-0.032
5.400E-07,-0.040
5.500E-07,-0.004
5.600E-07,0.024
5.700E-07,0.088
5.800E-07,0.096
5.900E-07,0.108
6.000E-07,0.056
6.100E-07,0.036
6.200E-07,0.016
6.300E-07,0.040
6.400E-07,0.088
6.500E-07,0.132
6.600E-07,0.152
6.700E-07,0.136
6.800E-07,0.116
6.900E-07,0.068
7.000E-07,0.060
7.100E-07,0.048
7.200E-07,0.072
7.300E-07,0.104
7.400E-07,0.136
7.500E-07,0.148
7.600E-07,0.132
7.700E-07,0.072
7.800E-07,0.024
7.900E-07,0.040
8.000E-07,0.088
8.100E-07,0.092
8.200E-07,0.112
8.300E-07,0.028
8.400E-07,-0.040
8.500E-07,-0.512
8.600E-07,-0.512
8.700E-07,-0.368
8.800E-07,0.208
8.900E-07,-0.372
9.000E-07,-0.184
9.100E-07,-0.508
9.200E-07,-0.508
9.300E-07,-0.432
9.400E-07,0.224
9.500E-07,0.536
9.600E-07,0.536
9.700E-07,0.360
9.800E-07,-0.140
9.900E-07,-0.508
1.000E-06,-0.508
1.010E-06,-0.192
1.020E-06,0.160
1.030E-06,0.532
1.040E-06,0.492
1.050E-06,0.240
1.060E-06,-0.160
1.070E-06,-0.288
1.080E-06,-0.332
1.090E-06,-0.228
1.100E-06,0.052
1.110E-06,0.228
1.120E-06,0.368
1.130E-06,0.248
1.140E-06,0.068
1.150E-06,-0.184
1.160E-06,-0.256
1.170E-06,-0.180
1.180E-06,-0.044
1.190E-06,0.104
1.200E-06,0.180
1.210E-06,0.216
1.220E-06,0.072
1.230E-06,-0.056
1.240E-06,-0.152
1.250E-06,-0.136
1.260E-06,-0.072
1.270E-06,0.096
1.280E-06,0.196
1.290E-06,0.208
1.300E-06,0.136
1.310E-06,0.012
1.320E-06,-0.052
1.330E-06,-0.080
1.340E-06,-0.020
1.350E-06,0.056
1.360E-06,0.160
1.370E-06,0.176
1.380E-06,0.160
1.390E-06,0.108
1.400E-06,0.040
1.410E-06,0.012
1.420E-06,0.052
1.430E-06,0.128
1.440E-06,0.228
1.450E-06,0.272
1.460E-06,0.260
1.470E-06,0.212
1.480E-06,0.108
1.490E-06,0.052
1.500E-06,0.036
1.510E-06,0.092
1.520E-06,0.136
1.530E-06,0.172
1.540E-06,0.172
1.550E-06,0.156
1.560E-06,0.124
1.570E-06,0.100
1.580E-06,0.096
1.590E-06,0.108
1.600E-06,0.136
1.610E-06,0.136
1.620E-06,0.136
1.630E-06,0.100
1.640E-06,0.056
1.650E-06,0.020
1.660E-06,-0.020
1.670E-06,-0.016
1.680E-06,-0.004
1.690E-06,0.004
1.700E-06,0.092
1.710E-06,0.144
1.720E-06,0.156
1.730E-06,0.188
1.740E-06,0.168
1.750E-06,0.140
1.760E-06,0.096
1.770E-06,0.092
1.780E-06,0.140
1.790E-06,0.192
1.800E-06,0.220
1.810E-06,0.204
1.820E-06,0.144
1.830E-06,0.084
1.840E-06,0.060
1.850E-06,0.072
1.860E-06,0.108
1.870E-06,0.124
1.880E-06,0.164
1.890E-06,0.160
1.900E-06,0.060
1.910E-06,-0.100
1.920E-06,-0.232
1.930E-06,-0.320
1.940E-06,-0.228
1.950E-06,-0.032
1.960E-06,0.276
1.970E-06,0.476
1.980E-06,0.488
1.990E-06,0.208
2.000E-06,-0.240
2.010E-06,-0.512
2.020E-06,-0.512
2.030E-06,-0.464
2.040E-06,-0.192
2.050E-06,0.024
2.060E-06,-0.092
2.070E-06,-0.332
2.080E-06,-0.508
2.090E-06,-0.432
2.100E-06,-0.376
2.110E-06,-0.152
2.120E-06,0.240
2.130E-06,0.440
2.140E-06,0.328
2.150E-06,0.028
2.160E-06,-0.184
2.170E-06,-0.136
2.180E-06,-0.008
2.190E-06,0.260
2.200E-06,0.444
2.210E-06,0.472
2.220E-06,0.372
2.230E-06,0.188
2.240E-06,0.004
2.250E-06,-0.056
2.260E-06,0.036
2.270E-06,0.180
2.280E-06,0.328
2.290E-06,0.384
2.300E-06,0.324
2.310E-06,0.208
2.320E-06,0.092
2.330E-06,0.036
2.340E-06,0.064
2.350E-06,0.172
2.360E-06,0.288
2.370E-06,0.356
2.380E-06,0.340
2.390E-06,0.256
2.400E-06,0.144
2.410E-06,0.080
2.420E-06,0.092
2.430E-06,0.152
2.440E-06,0.228
2.450E-06,0.280
2.460E-06,0.288
2.470E-06,0.248
2.480E-06,0.188
2.490E-06,0.128
2.500E-06,0.112
2.510E-06,0.140
2.520E-06,0.192
2.530E-06,0.232
2.540E-06,0.248
2.550E-06,0.240
2.560E-06,0.200
2.570E-06,0.164
2.580E-06,0.140
2.590E-06,0.156
2.600E-06,0.184
2.610E-06,0.216
2.620E-06,0.236
2.630E-06,0.236
2.640E-06,0.224
2.650E-06,0.188
2.660E-06,0.172
2.670E-06,0.156
2.680E-06,0.168
2.690E-06,0.184
2.700E-06,0.204
2.710E-06,0.216
2.720E-06,0.212
2.730E-06,0.184
2.740E-06,0.140
2.750E-06,0.120
2.760E-06,0.096
2.770E-06,0.084
2.780E-06,0.080
2.790E-06,0.084
2.800E-06,0.096
2.810E-06,0.104
2.820E-06,0.136
2.830E-06,0.164
2.840E-06,0.212
2.850E-06,0.220
2.860E-06,0.196
2.870E-06,0.192
2.880E-06,0.184
2.890E-06,0.188
2.900E-06,0.160
2.910E-06,0.172
2.920E-06,0.204
2.930E-06,0.204
2.940E-06,0.204
2.950E-06,0.196
2.960E-06,0.184
2.970E-06,0.176
2.980E-06,0.188
2.990E-06,0.200
3.000E-06,0.204
3.010E-06,0.200
3.020E-06,0.192
3.030E-06,0.196
3.040E-06,0.192
3.050E-06,0.184
3.060E-06,0.192
3.070E-06,0.200
3.080E-06,0.212
3.090E-06,0.204
3.100E-06,0.204
3.110E-06,0.188
3.120E-06,0.180
3.130E-06,0.184
3.140E-06,0.188
3.150E-06,0.192
3.160E-06,0.200
3.170E-06,0.204
3.180E-06,0.200
3.190E-06,0.196
3.200E-06,0.188
3.210E-06,0.188
3.220E-06,0.188
3.230E-06,0.192
3.240E-06,0.196
3.250E-06,0.204
3.260E-06,0.200
3.270E-06,0.192
3.280E-06,0.188
3.290E-06,0.184
3.300E-06,0.176
3.310E-06,0.180
3.320E-06,0.188
3.330E-06,0.196
3.340E-06,0.196
3.350E-06,0.192
3.360E-06,0.188
3.370E-06,0.184
3.380E-06,0.180
3.390E-06,0.180
3.400E-06,0.176
3.410E-06,0.188
3.420E-06,0.192
3.430E-06,0.192
3.440E-06,0.188
3.450E-06,0.184
3.460E-06,0.184
3.470E-06,0.180
3.480E-06,0.180
3.490E-06,0.184
3.500E-06,0.192
3.510E-06,0.188
3.520E-06,0.192
3.530E-06,0.180
3.540E-06,0.172
3.550E-06,0.176
3.560E-06,0.176
3.570E-06,0.180
3.580E-06,0.184
3.590E-06,0.184
3.600E-06,0.184
3.610E-06,0.176
3.620E-06,0.168
3.630E-06,0.164
3.640E-06,0.172
3.650E-06,0.172
3.660E-06,0.176
3.670E-06,0.176
3.680E-06,0.176
3.690E-06,0.172
3.700E-06,0.168
3.710E-06,0.164
3.720E-06,0.164
3.730E-06,0.168
3.740E-06,0.168
3.750E-06,0.164
3.760E-06,0.176
3.770E-06,0.176
3.780E-06,0.168
3.790E-06,0.164
3.800E-06,0.164
3.810E-06,0.160
3.820E-06,0.160
3.830E-06,0.172
3.840E-06,0.172
3.850E-06,0.168
3.860E-06,0.164
3.870E-06,0.164
3.880E-06,0.160
3.890E-06,0.164
3.900E-06,0.156
3.910E-06,0.164
3.920E-06,0.164
3.930E-06,0.164
3.940E-06,0.160
3.950E-06,0.160
3.960E-06,0.164
3.970E-06,0.160
3.980E-06,0.156
3.990E-06,0.164
4.000E-06,0.160
4.010E-06,0.160
4.020E-06,0.160
4.030E-06,0.160
4.040E-06,0.160
4.050E-06,0.168
4.060E-06,0.164
4.070E-06,0.164
4.080E-06,0.172
4.090E-06,0.172
4.100E-06,0.160
4.110E-06,0.152
4.120E-06,0.156
4.130E-06,0.160
4.140E-06,0.156
4.150E-06,0.160
4.160E-06,0.164
4.170E-06,0.168
4.180E-06,0.160
4.190E-06,0.152
4.200E-06,0.144
4.210E-06,0.144
4.220E-06,0.148
4.230E-06,0.152
4.240E-06,0.156
4.250E-06,0.160
4.260E-06,0.156
4.270E-06,0.144
4.280E-06,0.144
4.290E-06,0.140
4.300E-06,0.144
4.310E-06,0.152
4.320E-06,0.156
4.330E-06,0.156
4.340E-06,0.164
4.350E-06,0.152
4.360E-06,0.140
4.370E-06,0.148
4.380E-06,0.144
4.390E-06,0.148
4.400E-06,0.148
4.410E-06,0.148
4.420E-06,0.144
4.430E-06,0.144
4.440E-06,0.144
4.450E-06,0.140
4.460E-06,0.140
4.470E-06,0.144
4.480E-06,0.144
4.490E-06,0.148
4.500E-06,0.144
4.510E-06,0.144
4.520E-06,0.144
4.530E-06,0.136
4.540E-06,0.136
4.550E-06,0.132
4.560E-06,0.136
4.570E-06,0.140
4.580E-06,0.144
4.590E-06,0.136
4.600E-06,0.136
4.610E-06,0.140
4.620E-06,0.136
4.630E-06,0.140
4.640E-06,0.132
4.650E-06,0.132
4.660E-06,0.136
4.670E-06,0.132
4.680E-06,0.136
4.690E-06,0.132
4.700E-06,0.132
4.710E-06,0.136
4.720E-06,0.136
4.730E-06,0.136
4.740E-06,0.132
4.750E-06,0.132
4.760E-06,0.132
4.770E-06,0.132
4.780E-06,0.132
4.790E-06,0.136
4.800E-06,0.132
4.810E-06,0.132
4.820E-06,0.124
4.830E-06,0.132
4.840E-06,0.128
4.850E-06,0.132
4.860E-06,0.128
4.870E-06,0.128
4.880E-06,0.128
4.890E-06,0.112
4.900E-06,0.112
4.910E-06,0.108
4.920E-06,0.112
4.930E-06,0.112
4.940E-06,0.116
4.950E-06,0.112
4.960E-06,0.116
4.970E-06,0.120
4.980E-06,0.116
4.990E-06,0.120
5.000E-06,0.120
5.010E-06,0.120
5.020E-06,0.112
5.030E-06,0.116
5.040E-06,0.112
5.050E-06,0.112
5.060E-06,0.108
5.070E-06,0.120
5.080E-06,0.124
5.090E-06,0.120
5.100E-06,0.124
5.110E-06,0.128
5.120E-06,0.120
5.130E-06,0.120
5.140E-06,0.120
5.150E-06,0.120
5.160E-06,0.120
5.170E-06,0.116
5.180E-06,0.120
5.190E-06,0.120
5.200E-06,0.120
5.210E-06,0.120
5.220E-06,0.112
5.230E-06,0.112
5.240E-06,0.112
5.250E-06,0.116
5.260E-06,0.116
5.270E-06,0.112
5.280E-06,0.112
5.290E-06,0.108
5.300E-06,0.104
5.310E-06,0.104
5.320E-06,0.104
5.330E-06,0.108
5.340E-06,0.108
5.350E-06,0.108
5.360E-06,0.104
5.370E-06,0.104
5.380E-06,0.104
5.390E-06,0.104
5.400E-06,0.104
5.410E-06,0.104
5.420E-06,0.104
5.430E-06,0.104
5.440E-06,0.112
5.450E-06,0.108
5.460E-06,0.100
5.470E-06,0.096
5.480E-06,0.100
5.490E-06,0.096
5.500E-06,0.100
5.510E-06,0.104
5.520E-06,0.104
5.530E-06,0.108
5.540E-06,0.104
5.550E-06,0.096
5.560E-06,0.100
5.570E-06,0.096
5.580E-06,0.100
5.590E-06,0.100
5.600E-06,0.108
5.610E-06,0.108
5.620E-06,0.096
5.630E-06,0.100
5.640E-06,0.092
5.650E-06,0.096
5.660E-06,0.096
5.670E-06,0.096
5.680E-06,0.096
5.690E-06,0.096
5.700E-06,0.096
5.710E-06,0.092
5.720E-06,0.092
5.730E-06,0.092
5.740E-06,0.092
5.750E-06,0.092
5.760E-06,0.096
5.770E-06,0.092
5.780E-06,0.088
5.790E-06,0.092
5.800E-06,0.092
5.810E-06,0.088
5.820E-06,0.088
5.830E-06,0.084
5.840E-06,0.088
5.850E-06,0.080
5.860E-06,0.084
5.870E-06,0.088
5.880E-06,0.088
5.890E-06,0.088
5.900E-06,0.080
5.910E-06,0.080
5.920E-06,0.088
5.930E-06,0.088
5.940E-06,0.076
5.950E-06,0.084
5.960E-06,0.084
5.970E-06,0.076
5.980E-06,0.072
5.990E-06,0.076
6.000E-06,0.080
6.010E-06,0.080
6.020E-06,0.080
6.030E-06,0.084
6.040E-06,0.076
6.050E-06,0.076
6.060E-06,0.068
6.070E-06,0.068
6.080E-06,0.068
6.090E-06,0.076
6.100E-06,0.080
6.110E-06,0.080
6.120E-06,0.076
6.130E-06,0.072
6.140E-06,0.076
6.150E-06,0.072
6.160E-06,0.068
6.170E-06,0.072
6.180E-06,0.076
6.190E-06,0.072
6.200E-06,0.076
6.210E-06,0.076
6.220E-06,0.068
6.230E-06,0.064
6.240E-06,0.064
6.250E-06,0.064
6.260E-06,0.072
6.270E-06,0.072
6.280E-06,0.068
6.290E-06,0.060
6.300E-06,0.060
6.310E-06,0.060
6.320E-06,0.064
6.330E-06,0.068
6.340E-06,0.064
6.350E-06,0.068
6.360E-06,0.068
6.370E-06,0.060
6.380E-06,0.060
6.390E-06,0.064
6.400E-06,0.060
6.410E-06,0.064
6.420E-06,0.056
6.430E-06,0.072
6.440E-06,0.060
6.450E-06,0.048
6.460E-06,0.064
6.470E-06,0.056
6.480E-06,0.056
6.490E-06,0.064
6.500E-06,0.060
6.510E-06,0.060
6.520E-06,0.060
6.530E-06,0.060
6.540E-06,0.060
6.550E-06,0.056
6.560E-06,0.056
6.570E-06,0.060
6.580E-06,0.064
6.590E-06,0.056
6.600E-06,0.060
6.610E-06,0.056
6.620E-06,0.052
6.630E-06,0.052
6.640E-06,0.056
6.650E-06,0.056
6.660E-06,0.056
6.670E-06,0.064
6.680E-06,0.056
6.690E-06,0.044
6.700E-06,0.052
6.710E-06,0.048
6.720E-06,0.052
6.730E-06,0.052
6.740E-06,0.060
6.750E-06,0.064
6.760E-06,0.060
6.770E-06,0.056
6.780E-06,0.056
6.790E-06,0.048
6.800E-06,0.044
6.810E-06,0.044
6.820E-06,0.048
6.830E-06,0.056
6.840E-06,0.052
6.850E-06,0.048
6.860E-06,0.044
6.870E-06,0.036
6.880E-06,0.040
6.890E-06,0.044
6.900E-06,0.048
6.910E-06,0.044
6.920E-06,0.052
6.930E-06,0.044
6.940E-06,0.048
6.950E-06,0.048
6.960E-06,0.044
6.970E-06,0.048
6.980E-06,0.056
6.990E-06,0.048
7.000E-06,0.048
7.010E-06,0.032
7.020E-06,0.040
7.030E-06,0.044
7.040E-06,0.040
7.050E-06,0.052
7.060E-06,0.044
7.070E-06,0.044
7.080E-06,0.044
7.090E-06,0.040
7.100E-06,0.036
7.110E-06,0.036
7.120E-06,0.036
7.130E-06,0.048
7.140E-06,0.048
7.150E-06,0.044
7.160E-06,0.048
7.170E-06,0.040
7.180E-06,0.032
7.190E-06,0.040
7.200E-06,0.032
7.210E-06,0.036
7.220E-06,0.048
7.230E-06,0.044
7.240E-06,0.040
7.250E-06,0.040
7.260E-06,0.040
7.270E-06,0.032
7.280E-06,0.028
7.290E-06,0.032
7.300E-06,0.036
7.310E-06,0.040
7.320E-06,0.040
7.330E-06,0.040
7.340E-06,0.036
7.350E-06,0.032
7.360E-06,0.028
7.370E-06,0.028
7.380E-06,0.028
7.390E-06,0.032
7.400E-06,0.040
7.410E-06,0.032
7.420E-06,0.036
7.430E-06,0.032
7.440E-06,0.020
7.450E-06,0.028
7.460E-06,0.028
7.470E-06,0.028
7.480E-06,0.032
7.490E-06,0.028
7.500E-06,0.028
7.510E-06,0.032
7.520E-06,0.024
7.530E-06,0.024
7.540E-06,0.028
7.550E-06,0.024
7.560E-06,0.020
7.570E-06,0.028
7.580E-06,0.020
7.590E-06,0.024
7.600E-06,0.024
7.610E-06,0.028
7.620E-06,0.024
7.630E-06,0.024
7.640E-06,0.024
7.650E-06,0.024
7.660E-06,0.024
7.670E-06,0.028
7.680E-06,0.020
7.690E-06,0.016
7.700E-06,0.020
7.710E-06,0.024
7.720E-06,0.020
7.730E-06,0.016
7.740E-06,0.024
7.750E-06,0.024
7.760E-06,0.020
7.770E-06,0.016
7.780E-06,0.020
7.790E-06,0.024
7.800E-06,0.020
