mediciones/Mediciones filtradas (saque las feas)/6-10/48.7/WaveData55230.csv

#timebase=2000000(ps)
,#voltbase=500000(mv/100)
#size=4000
-4.250E-06,0.100
-4.240E-06,0.100
-4.230E-06,0.080
-4.220E-06,0.080
-4.210E-06,0.060
-4.200E-06,0.080
-4.190E-06,0.080
-4.180E-06,0.060
-4.170E-06,0.040
-4.160E-06,0.060
-4.150E-06,0.060
-4.140E-06,0.020
-4.130E-06,0.040
-4.120E-06,0.020
-4.110E-06,0.000
-4.100E-06,0.000
-4.090E-06,0.000
-4.080E-06,-0.020
-4.070E-06,0.000
-4.060E-06,0.000
-4.050E-06,0.000
-4.040E-06,0.020
-4.030E-06,0.060
-4.020E-06,0.060
-4.010E-06,0.000
-4.000E-06,0.020
-3.990E-06,0.020
-3.980E-06,0.000
-3.970E-06,0.000
-3.960E-06,0.040
-3.950E-06,0.040
-3.940E-06,0.020
-3.930E-06,0.060
-3.920E-06,0.100
-3.910E-06,0.080
-3.900E-06,0.100
-3.890E-06,0.060
-3.880E-06,0.040
-3.870E-06,0.060
-3.860E-06,0.040
-3.850E-06,0.060
-3.840E-06,0.100
-3.830E-06,0.100
-3.820E-06,0.100
-3.810E-06,0.060
-3.800E-06,0.060
-3.790E-06,0.060
-3.780E-06,0.100
-3.770E-06,0.060
-3.760E-06,0.040
-3.750E-06,0.040
-3.740E-06,0.080
-3.730E-06,0.080
-3.720E-06,0.080
-3.710E-06,0.100
-3.700E-06,0.100
-3.690E-06,-0.060
-3.680E-06,0.020
-3.670E-06,0.000
-3.660E-06,-0.040
-3.650E-06,0.100
-3.640E-06,0.100
-3.630E-06,0.180
-3.620E-06,0.180
-3.610E-06,0.060
-3.600E-06,0.040
-3.590E-06,0.000
-3.580E-06,0.020
-3.570E-06,0.100
-3.560E-06,0.120
-3.550E-06,0.140
-3.540E-06,0.100
-3.530E-06,-0.020
-3.520E-06,0.000
-3.510E-06,0.020
-3.500E-06,0.060
-3.490E-06,0.040
-3.480E-06,0.060
-3.470E-06,0.060
-3.460E-06,0.000
-3.450E-06,0.000
-3.440E-06,0.020
-3.430E-06,0.020
-3.420E-06,0.000
-3.410E-06,0.000
-3.400E-06,-0.020
-3.390E-06,-0.040
-3.380E-06,-0.020
-3.370E-06,-0.020
-3.360E-06,0.000
-3.350E-06,0.020
-3.340E-06,0.040
-3.330E-06,-0.020
-3.320E-06,0.000
-3.310E-06,0.000
-3.300E-06,0.020
-3.290E-06,0.060
-3.280E-06,0.100
-3.270E-06,0.060
-3.260E-06,0.080
-3.250E-06,0.080
-3.240E-06,0.060
-3.230E-06,0.120
-3.220E-06,0.120
-3.210E-06,0.120
-3.200E-06,0.100
-3.190E-06,0.100
-3.180E-06,0.120
-3.170E-06,0.160
-3.160E-06,0.180
-3.150E-06,0.220
-3.140E-06,0.120
-3.130E-06,0.160
-3.120E-06,0.140
-3.110E-06,0.160
-3.100E-06,0.220
-3.090E-06,0.240
-3.080E-06,0.180
-3.070E-06,0.160
-3.060E-06,0.140
-3.050E-06,0.120
-3.040E-06,0.120
-3.030E-06,0.080
-3.020E-06,0.140
-3.010E-06,0.140
-3.000E-06,0.160
-2.990E-06,0.160
-2.980E-06,0.140
-2.970E-06,0.120
-2.960E-06,0.100
-2.950E-06,0.100
-2.940E-06,0.100
-2.930E-06,0.080
-2.920E-06,0.100
-2.910E-06,0.060
-2.900E-06,0.020
-2.890E-06,0.000
-2.880E-06,-0.020
-2.870E-06,0.000
-2.860E-06,0.020
-2.850E-06,0.040
-2.840E-06,0.020
-2.830E-06,0.000
-2.820E-06,0.000
-2.810E-06,0.000
-2.800E-06,0.000
-2.790E-06,0.000
-2.780E-06,0.080
-2.770E-06,0.040
-2.760E-06,0.040
-2.750E-06,0.020
-2.740E-06,0.020
-2.730E-06,0.020
-2.720E-06,-0.020
-2.710E-06,0.000
-2.700E-06,-0.020
-2.690E-06,0.000
-2.680E-06,0.000
-2.670E-06,0.040
-2.660E-06,0.080
-2.650E-06,0.040
-2.640E-06,0.040
-2.630E-06,0.020
-2.620E-06,0.020
-2.610E-06,0.060
-2.600E-06,0.100
-2.590E-06,0.100
-2.580E-06,0.060
-2.570E-06,0.080
-2.560E-06,0.100
-2.550E-06,0.100
-2.540E-06,0.100
-2.530E-06,0.080
-2.520E-06,0.080
-2.510E-06,0.080
-2.500E-06,0.080
-2.490E-06,0.100
-2.480E-06,0.100
-2.470E-06,0.100
-2.460E-06,0.140
-2.450E-06,0.080
-2.440E-06,0.060
-2.430E-06,0.060
-2.420E-06,0.000
-2.410E-06,0.000
-2.400E-06,0.080
-2.390E-06,0.080
-2.380E-06,0.060
-2.370E-06,0.080
-2.360E-06,0.040
-2.350E-06,0.000
-2.340E-06,0.080
-2.330E-06,0.080
-2.320E-06,0.080
-2.310E-06,0.060
-2.300E-06,-0.020
-2.290E-06,0.020
-2.280E-06,-0.020
-2.270E-06,0.080
-2.260E-06,0.100
-2.250E-06,0.160
-2.240E-06,0.120
-2.230E-06,0.140
-2.220E-06,0.040
-2.210E-06,0.060
-2.200E-06,0.100
-2.190E-06,0.080
-2.180E-06,0.160
-2.170E-06,0.180
-2.160E-06,0.160
-2.150E-06,0.140
-2.140E-06,0.040
-2.130E-06,0.080
-2.120E-06,0.100
-2.110E-06,0.140
-2.100E-06,0.120
-2.090E-06,0.160
-2.080E-06,0.120
-2.070E-06,0.080
-2.060E-06,0.080
-2.050E-06,0.080
-2.040E-06,0.080
-2.030E-06,0.080
-2.020E-06,0.040
-2.010E-06,0.080
-2.000E-06,0.080
-1.990E-06,0.080
-1.980E-06,0.100
-1.970E-06,0.120
-1.960E-06,0.120
-1.950E-06,0.100
-1.940E-06,0.140
-1.930E-06,0.120
-1.920E-06,0.160
-1.910E-06,0.120
-1.900E-06,0.140
-1.890E-06,0.120
-1.880E-06,0.100
-1.870E-06,0.060
-1.860E-06,-0.020
-1.850E-06,0.100
-1.840E-06,0.000
-1.830E-06,0.040
-1.820E-06,0.040
-1.810E-06,0.080
-1.800E-06,0.120
-1.790E-06,0.280
-1.780E-06,0.380
-1.770E-06,0.260
-1.760E-06,0.300
-1.750E-06,0.000
-1.740E-06,0.000
-1.730E-06,0.020
-1.720E-06,0.100
-1.710E-06,0.180
-1.700E-06,0.140
-1.690E-06,0.080
-1.680E-06,-0.040
-1.670E-06,-0.060
-1.660E-06,-0.020
-1.650E-06,-0.100
-1.640E-06,0.020
-1.630E-06,0.000
-1.620E-06,-0.040
-1.610E-06,0.040
-1.600E-06,-0.020
-1.590E-06,0.000
-1.580E-06,0.040
-1.570E-06,0.080
-1.560E-06,0.080
-1.550E-06,0.140
-1.540E-06,0.160
-1.530E-06,0.260
-1.520E-06,0.320
-1.510E-06,0.220
-1.500E-06,0.320
-1.490E-06,0.300
-1.480E-06,0.260
-1.470E-06,0.360
-1.460E-06,0.180
-1.450E-06,0.220
-1.440E-06,0.260
-1.430E-06,0.220
-1.420E-06,0.340
-1.410E-06,0.740
-1.400E-06,0.160
-1.390E-06,0.100
-1.380E-06,0.380
-1.370E-06,-0.700
-1.360E-06,-0.220
-1.350E-06,0.080
-1.340E-06,-0.180
-1.330E-06,0.720
-1.320E-06,0.400
-1.310E-06,0.260
-1.300E-06,0.260
-1.290E-06,-0.320
-1.280E-06,-0.340
-1.270E-06,-0.140
-1.260E-06,0.180
-1.250E-06,0.500
-1.240E-06,-0.260
-1.230E-06,-0.180
-1.220E-06,-0.500
-1.210E-06,-0.780
-1.200E-06,0.060
-1.190E-06,0.080
-1.180E-06,0.320
-1.170E-06,0.300
-1.160E-06,-0.300
-1.150E-06,-0.340
-1.140E-06,-0.360
-1.130E-06,-0.140
-1.120E-06,0.260
-1.110E-06,0.160
-1.100E-06,0.040
-1.090E-06,0.020
-1.080E-06,-0.040
-1.070E-06,0.160
-1.060E-06,0.380
-1.050E-06,0.440
-1.040E-06,0.480
-1.030E-06,0.300
-1.020E-06,0.360
-1.010E-06,0.500
-1.000E-06,0.540
-9.900E-07,0.620
-9.800E-07,0.520
-9.700E-07,0.400
-9.600E-07,0.420
-9.500E-07,0.400
-9.400E-07,0.080
-9.300E-07,0.120
-9.200E-07,-0.480
-9.100E-07,-0.400
-9.000E-07,-0.020
-8.900E-07,-0.060
-8.800E-07,0.120
-8.700E-07,0.720
-8.600E-07,0.020
-8.500E-07,0.120
-8.400E-07,0.040
-8.300E-07,-0.480
-8.200E-07,0.200
-8.100E-07,0.200
-8.000E-07,0.260
-7.900E-07,0.600
-7.800E-07,-0.180
-7.700E-07,0.080
-7.600E-07,-0.040
-7.500E-07,-0.020
-7.400E-07,0.060
-7.300E-07,0.180
-7.200E-07,0.060
-7.100E-07,0.220
-7.000E-07,0.280
-6.900E-07,0.240
-6.800E-07,0.320
-6.700E-07,0.260
-6.600E-07,0.060
-6.500E-07,0.160
-6.400E-07,0.180
-6.300E-07,0.320
-6.200E-07,0.320
-6.100E-07,0.300
-6.000E-07,0.340
-5.900E-07,0.260
-5.800E-07,0.200
-5.700E-07,0.340
-5.600E-07,0.240
-5.500E-07,0.360
-5.400E-07,0.340
-5.300E-07,0.260
-5.200E-07,0.420
-5.100E-07,0.340
-5.000E-07,0.440
-4.900E-07,0.520
-4.800E-07,0.280
-4.700E-07,0.540
-4.600E-07,-0.120
-4.500E-07,-0.340
-4.400E-07,-0.320
-4.300E-07,-0.500
-4.200E-07,-0.360
-4.100E-07,0.420
-4.000E-07,0.180
-3.900E-07,0.360
-3.800E-07,0.320
-3.700E-07,-0.180
-3.600E-07,0.200
-3.500E-07,0.160
-3.400E-07,0.420
-3.300E-07,0.540
-3.200E-07,0.320
-3.100E-07,0.280
-3.000E-07,0.140
-2.900E-07,0.060
-2.800E-07,0.120
-2.700E-07,0.100
-2.600E-07,0.080
-2.500E-07,0.120
-2.400E-07,0.120
-2.300E-07,0.220
-2.200E-07,0.220
-2.100E-07,0.180
-2.000E-07,0.140
-1.900E-07,0.020
-1.800E-07,0.040
-1.700E-07,0.100
-1.600E-07,0.020
-1.500E-07,0.040
-1.400E-07,-0.060
-1.300E-07,-0.020
-1.200E-07,-0.100
-1.100E-07,0.160
-1.000E-07,-0.140
-9.000E-08,-0.080
-8.000E-08,0.080
-7.000E-08,-0.120
-6.000E-08,-0.800
-5.000E-08,0.180
-4.000E-08,-2.260
-3.000E-08,2.760
-2.000E-08,-2.660
-1.000E-08,0.880
0.000E+00,-1.080
1.000E-08,-2.620
2.000E-08,2.760
3.000E-08,-1.040
4.000E-08,1.820
5.000E-08,-0.740
6.000E-08,-1.680
7.000E-08,0.100
8.000E-08,0.920
9.000E-08,0.780
1.000E-07,1.340
1.100E-07,0.720
1.200E-07,-0.860
1.300E-07,0.180
1.400E-07,-0.300
1.500E-07,0.460
1.600E-07,0.660
1.700E-07,0.560
1.800E-07,0.060
1.900E-07,-0.080
2.000E-07,-0.340
2.100E-07,-0.340
2.200E-07,-0.360
2.300E-07,-0.300
2.400E-07,-0.540
2.500E-07,-0.320
2.600E-07,-0.220
2.700E-07,-0.280
2.800E-07,-0.180
2.900E-07,-0.320
3.000E-07,-0.160
3.100E-07,-0.100
3.200E-07,0.120
3.300E-07,0.320
3.400E-07,0.260
3.500E-07,0.300
3.600E-07,0.300
3.700E-07,0.240
3.800E-07,0.180
3.900E-07,0.100
4.000E-07,0.060
4.100E-07,0.180
4.200E-07,0.140
4.300E-07,0.140
4.400E-07,0.080
4.500E-07,0.100
4.600E-07,0.100
4.700E-07,0.320
4.800E-07,0.360
4.900E-07,0.500
5.000E-07,0.400
5.100E-07,0.400
5.200E-07,0.260
5.300E-07,0.240
5.400E-07,0.300
5.500E-07,0.320
5.600E-07,0.420
5.700E-07,0.400
5.800E-07,0.400
5.900E-07,0.340
6.000E-07,0.200
6.100E-07,0.180
6.200E-07,0.160
6.300E-07,0.100
6.400E-07,0.180
6.500E-07,-0.180
6.600E-07,-0.380
6.700E-07,0.260
6.800E-07,-0.240
6.900E-07,0.780
7.000E-07,0.120
7.100E-07,-0.180
7.200E-07,-0.840
7.300E-07,-0.980
7.400E-07,-0.420
7.500E-07,-0.360
7.600E-07,0.880
7.700E-07,-0.100
7.800E-07,1.060
7.900E-07,-0.420
8.000E-07,-0.400
8.100E-07,-0.280
8.200E-07,-1.000
8.300E-07,-0.020
8.400E-07,0.000
8.500E-07,0.780
8.600E-07,0.680
8.700E-07,0.760
8.800E-07,0.140
8.900E-07,0.160
9.000E-07,0.040
9.100E-07,0.160
9.200E-07,0.300
9.300E-07,0.400
9.400E-07,0.300
9.500E-07,0.000
9.600E-07,-0.180
9.700E-07,-0.500
9.800E-07,-0.500
9.900E-07,-0.660
1.000E-06,-0.520
1.010E-06,-0.600
1.020E-06,-0.380
1.030E-06,-0.520
1.040E-06,-0.320
1.050E-06,-0.460
1.060E-06,-0.300
1.070E-06,-0.320
1.080E-06,-0.200
1.090E-06,-0.100
1.100E-06,-0.020
1.110E-06,0.040
1.120E-06,-0.020
1.130E-06,0.000
1.140E-06,-0.100
1.150E-06,0.000
1.160E-06,-0.080
1.170E-06,-0.020
1.180E-06,-0.140
1.190E-06,-0.180
1.200E-06,-0.200
1.210E-06,-0.160
1.220E-06,-0.220
1.230E-06,-0.200
1.240E-06,-0.240
1.250E-06,-0.220
1.260E-06,-0.260
1.270E-06,-0.380
1.280E-06,-0.380
1.290E-06,-0.520
1.300E-06,-0.560
1.310E-06,-0.640
1.320E-06,-0.740
1.330E-06,-0.860
1.340E-06,-0.980
1.350E-06,-1.140
1.360E-06,-1.240
1.370E-06,-1.340
1.380E-06,-1.480
1.390E-06,-1.640
1.400E-06,-1.740
1.410E-06,-1.840
1.420E-06,-1.920
1.430E-06,-1.980
1.440E-06,-2.040
1.450E-06,-2.020
1.460E-06,-1.960
1.470E-06,-1.920
1.480E-06,-1.880
1.490E-06,-1.860
1.500E-06,-1.840
1.510E-06,-1.700
1.520E-06,-1.640
1.530E-06,-1.600
1.540E-06,-1.520
1.550E-06,-1.540
1.560E-06,-1.520
1.570E-06,-1.420
1.580E-06,-1.260
1.590E-06,-1.240
1.600E-06,-1.000
1.610E-06,-0.900
1.620E-06,-0.860
1.630E-06,-0.720
1.640E-06,-0.720
1.650E-06,-0.700
1.660E-06,-0.680
1.670E-06,-0.700
1.680E-06,-0.660
1.690E-06,-0.600
1.700E-06,-0.640
1.710E-06,-0.540
1.720E-06,-0.520
1.730E-06,-0.460
1.740E-06,-0.340
1.750E-06,-0.260
1.760E-06,-0.260
1.770E-06,-0.160
1.780E-06,-0.140
1.790E-06,-0.140
1.800E-06,-0.100
1.810E-06,-0.120
1.820E-06,-0.140
1.830E-06,-0.080
1.840E-06,-0.160
1.850E-06,-0.240
1.860E-06,-0.300
1.870E-06,-0.440
1.880E-06,-0.440
1.890E-06,-0.500
1.900E-06,-0.500
1.910E-06,-0.500
1.920E-06,-0.500
1.930E-06,-0.480
1.940E-06,-0.440
1.950E-06,-0.460
1.960E-06,-0.380
1.970E-06,-0.360
1.980E-06,-0.340
1.990E-06,-0.300
2.000E-06,-0.200
2.010E-06,-0.180
2.020E-06,-0.180
2.030E-06,-0.180
2.040E-06,-0.180
2.050E-06,-0.160
2.060E-06,-0.140
2.070E-06,-0.160
2.080E-06,-0.140
2.090E-06,-0.080
2.100E-06,-0.060
2.110E-06,-0.100
2.120E-06,-0.060
2.130E-06,-0.020
2.140E-06,-0.040
2.150E-06,0.020
2.160E-06,-0.020
2.170E-06,-0.020
2.180E-06,0.000
2.190E-06,-0.020
2.200E-06,0.000
2.210E-06,-0.020
2.220E-06,-0.040
2.230E-06,-0.100
2.240E-06,-0.180
2.250E-06,-0.300
2.260E-06,-0.440
2.270E-06,-0.520
2.280E-06,-0.500
2.290E-06,-0.360
2.300E-06,-0.060
2.310E-06,0.140
2.320E-06,0.360
2.330E-06,0.540
2.340E-06,0.620
2.350E-06,0.660
2.360E-06,0.640
2.370E-06,0.560
2.380E-06,0.560
2.390E-06,0.500
2.400E-06,0.500
2.410E-06,0.500
2.420E-06,0.440
2.430E-06,0.380
2.440E-06,0.260
2.450E-06,0.220
2.460E-06,0.140
2.470E-06,0.060
2.480E-06,0.000
2.490E-06,-0.020
2.500E-06,-0.040
2.510E-06,-0.060
2.520E-06,-0.040
2.530E-06,-0.040
2.540E-06,-0.040
2.550E-06,0.000
2.560E-06,0.000
2.570E-06,0.020
2.580E-06,0.000
2.590E-06,0.040
2.600E-06,0.060
2.610E-06,0.100
2.620E-06,0.180
2.630E-06,0.180
2.640E-06,0.180
2.650E-06,0.200
2.660E-06,0.160
2.670E-06,0.160
2.680E-06,0.120
2.690E-06,0.080
2.700E-06,0.020
2.710E-06,-0.040
2.720E-06,-0.080
2.730E-06,-0.100
2.740E-06,-0.160
2.750E-06,-0.160
2.760E-06,-0.180
2.770E-06,-0.180
2.780E-06,-0.180
2.790E-06,-0.120
2.800E-06,-0.140
2.810E-06,-0.040
2.820E-06,0.000
2.830E-06,0.100
2.840E-06,0.200
2.850E-06,0.260
2.860E-06,0.360
2.870E-06,0.360
2.880E-06,0.440
2.890E-06,0.440
2.900E-06,0.440
2.910E-06,0.420
2.920E-06,0.420
2.930E-06,0.440
2.940E-06,0.340
2.950E-06,0.280
2.960E-06,0.220
2.970E-06,0.240
2.980E-06,0.160
2.990E-06,0.120
3.000E-06,0.020
3.010E-06,-0.020
3.020E-06,-0.100
3.030E-06,-0.120
3.040E-06,-0.140
3.050E-06,-0.120
3.060E-06,-0.120
3.070E-06,-0.120
3.080E-06,-0.100
3.090E-06,-0.100
3.100E-06,-0.040
3.110E-06,0.040
3.120E-06,0.020
3.130E-06,0.080
3.140E-06,0.100
3.150E-06,0.140
3.160E-06,0.200
3.170E-06,0.220
3.180E-06,0.240
3.190E-06,0.220
3.200E-06,0.200
3.210E-06,0.160
3.220E-06,0.160
3.230E-06,0.120
3.240E-06,0.060
3.250E-06,0.040
3.260E-06,0.000
3.270E-06,-0.020
3.280E-06,-0.080
3.290E-06,-0.120
3.300E-06,-0.160
3.310E-06,-0.160
3.320E-06,-0.160
3.330E-06,-0.180
3.340E-06,-0.160
3.350E-06,-0.140
3.360E-06,-0.140
3.370E-06,-0.100
3.380E-06,-0.040
3.390E-06,-0.020
3.400E-06,0.100
3.410E-06,0.100
3.420E-06,0.120
3.430E-06,0.100
3.440E-06,0.140
3.450E-06,0.080
3.460E-06,0.100
3.470E-06,0.100
3.480E-06,0.100
3.490E-06,0.100
3.500E-06,0.080
3.510E-06,0.080
3.520E-06,0.040
3.530E-06,0.000
3.540E-06,0.000
3.550E-06,-0.060
3.560E-06,-0.080
3.570E-06,-0.080
3.580E-06,-0.100
3.590E-06,-0.140
3.600E-06,-0.140
3.610E-06,-0.160
3.620E-06,-0.040
3.630E-06,0.180
3.640E-06,0.320
3.650E-06,0.580
3.660E-06,0.740
3.670E-06,0.640
3.680E-06,0.580
3.690E-06,0.280
3.700E-06,0.000
3.710E-06,-0.240
3.720E-06,-0.520
3.730E-06,-0.620
3.740E-06,-0.660
3.750E-06,-0.580
3.760E-06,-0.400
3.770E-06,-0.240
3.780E-06,-0.100
3.790E-06,0.040
3.800E-06,0.120
3.810E-06,0.200
3.820E-06,0.240
3.830E-06,0.200
3.840E-06,0.140
3.850E-06,0.040
3.860E-06,-0.020
3.870E-06,0.020
3.880E-06,0.060
3.890E-06,0.160
3.900E-06,0.240
3.910E-06,0.240
3.920E-06,0.220
3.930E-06,0.160
3.940E-06,0.080
3.950E-06,0.020
3.960E-06,-0.040
3.970E-06,-0.100
3.980E-06,-0.140
3.990E-06,-0.160
4.000E-06,-0.160
4.010E-06,-0.180
4.020E-06,-0.160
4.030E-06,-0.160
4.040E-06,-0.080
4.050E-06,0.020
4.060E-06,0.080
4.070E-06,0.140
4.080E-06,0.180
4.090E-06,0.200
4.100E-06,0.280
4.110E-06,0.300
4.120E-06,0.340
4.130E-06,0.340
4.140E-06,0.340
4.150E-06,0.320
4.160E-06,0.320
4.170E-06,0.280
4.180E-06,0.260
4.190E-06,0.260
4.200E-06,0.240
4.210E-06,0.200
4.220E-06,0.160
4.230E-06,0.080
4.240E-06,0.040
4.250E-06,-0.080
4.260E-06,-0.120
4.270E-06,-0.160
4.280E-06,-0.160
4.290E-06,-0.180
4.300E-06,-0.140
4.310E-06,-0.060
4.320E-06,0.000
4.330E-06,0.020
4.340E-06,0.100
4.350E-06,0.120
4.360E-06,0.140
4.370E-06,0.180
4.380E-06,0.160
4.390E-06,0.180
4.400E-06,0.180
4.410E-06,0.160
4.420E-06,0.180
4.430E-06,0.140
4.440E-06,0.100
4.450E-06,0.100
4.460E-06,0.080
4.470E-06,0.060
4.480E-06,0.040
4.490E-06,0.060
4.500E-06,0.000
4.510E-06,0.020
4.520E-06,0.020
4.530E-06,-0.020
4.540E-06,-0.020
4.550E-06,-0.040
4.560E-06,-0.060
4.570E-06,-0.040
4.580E-06,-0.020
4.590E-06,-0.020
4.600E-06,0.000
4.610E-06,0.060
4.620E-06,0.080
4.630E-06,0.080
4.640E-06,0.080
4.650E-06,0.120
4.660E-06,0.140
4.670E-06,0.160
4.680E-06,0.180
4.690E-06,0.180
4.700E-06,0.160
4.710E-06,0.160
4.720E-06,0.200
4.730E-06,0.160
4.740E-06,0.200
4.750E-06,0.200
4.760E-06,0.200
4.770E-06,0.240
4.780E-06,0.200
4.790E-06,0.220
4.800E-06,0.220
4.810E-06,0.200
4.820E-06,0.220
4.830E-06,0.260
4.840E-06,0.260
4.850E-06,0.280
4.860E-06,0.300
4.870E-06,0.340
4.880E-06,0.360
4.890E-06,0.320
4.900E-06,0.340
4.910E-06,0.300
4.920E-06,0.300
4.930E-06,0.320
4.940E-06,0.260
4.950E-06,0.320
4.960E-06,0.260
4.970E-06,0.300
4.980E-06,0.340
4.990E-06,0.300
5.000E-06,0.300
5.010E-06,0.280
5.020E-06,0.260
5.030E-06,0.220
5.040E-06,0.160
5.050E-06,0.140
5.060E-06,0.140
5.070E-06,0.120
5.080E-06,0.100
5.090E-06,0.100
5.100E-06,0.080
5.110E-06,0.080
5.120E-06,0.080
5.130E-06,0.080
5.140E-06,0.060
5.150E-06,0.080
5.160E-06,0.100
5.170E-06,0.080
5.180E-06,0.060
5.190E-06,0.100
5.200E-06,0.120
5.210E-06,0.160
5.220E-06,0.180
5.230E-06,0.220
5.240E-06,0.240
5.250E-06,0.260
5.260E-06,0.260
5.270E-06,0.240
5.280E-06,0.160
5.290E-06,0.120
5.300E-06,0.060
5.310E-06,0.020
5.320E-06,-0.020
5.330E-06,-0.100
5.340E-06,-0.100
5.350E-06,-0.080
5.360E-06,-0.060
5.370E-06,0.020
5.380E-06,0.100
5.390E-06,0.200
5.400E-06,0.240
5.410E-06,0.300
5.420E-06,0.340
5.430E-06,0.340
5.440E-06,0.300
5.450E-06,0.300
5.460E-06,0.280
5.470E-06,0.300
5.480E-06,0.320
5.490E-06,0.320
5.500E-06,0.360
5.510E-06,0.400
5.520E-06,0.440
5.530E-06,0.480
5.540E-06,0.480
5.550E-06,0.500
5.560E-06,0.540
5.570E-06,0.520
5.580E-06,0.560
5.590E-06,0.580
5.600E-06,0.600
5.610E-06,0.580
5.620E-06,0.520
5.630E-06,0.440
5.640E-06,0.400
5.650E-06,0.260
5.660E-06,0.200
5.670E-06,0.180
5.680E-06,0.120
5.690E-06,0.120
5.700E-06,0.140
5.710E-06,0.100
5.720E-06,0.140
5.730E-06,0.120
5.740E-06,0.120
5.750E-06,0.140
5.760E-06,0.160
5.770E-06,0.200
5.780E-06,0.240
5.790E-06,0.300
5.800E-06,0.320
5.810E-06,0.380
5.820E-06,0.420
5.830E-06,0.440
5.840E-06,0.500
5.850E-06,0.540
5.860E-06,0.580
5.870E-06,0.660
5.880E-06,0.660
5.890E-06,0.720
5.900E-06,0.700
5.910E-06,0.720
5.920E-06,0.720
5.930E-06,0.720
5.940E-06,0.740
5.950E-06,0.720
5.960E-06,0.720
5.970E-06,0.680
5.980E-06,0.660
5.990E-06,0.640
6.000E-06,0.600
6.010E-06,0.560
6.020E-06,0.500
6.030E-06,0.500
6.040E-06,0.440
6.050E-06,0.420
6.060E-06,0.420
6.070E-06,0.460
6.080E-06,0.460
6.090E-06,0.480
6.100E-06,0.500
6.110E-06,0.520
6.120E-06,0.500
6.130E-06,0.520
6.140E-06,0.540
6.150E-06,0.560
6.160E-06,0.560
6.170E-06,0.560
6.180E-06,0.560
6.190E-06,0.540
6.200E-06,0.520
6.210E-06,0.560
6.220E-06,0.580
6.230E-06,0.600
6.240E-06,0.620
6.250E-06,0.680
6.260E-06,0.760
6.270E-06,0.760
6.280E-06,0.920
6.290E-06,1.020
6.300E-06,1.180
6.310E-06,1.340
6.320E-06,1.520
6.330E-06,1.680
6.340E-06,1.940
6.350E-06,2.160
6.360E-06,2.360
6.370E-06,2.540
6.380E-06,2.740
6.390E-06,2.780
6.400E-06,2.760
6.410E-06,2.760
6.420E-06,2.760
6.430E-06,2.780
6.440E-06,2.760
6.450E-06,2.740
6.460E-06,2.760
6.470E-06,2.760
6.480E-06,2.740
6.490E-06,2.760
6.500E-06,2.700
6.510E-06,2.520
6.520E-06,2.360
6.530E-06,2.220
6.540E-06,2.020
6.550E-06,1.860
6.560E-06,1.660
6.570E-06,1.480
6.580E-06,1.320
6.590E-06,1.180
6.600E-06,1.100
6.610E-06,1.020
6.620E-06,0.940
6.630E-06,0.880
6.640E-06,0.840
6.650E-06,0.780
6.660E-06,0.660
6.670E-06,0.620
6.680E-06,0.540
6.690E-06,0.500
6.700E-06,0.480
6.710E-06,0.460
6.720E-06,0.460
6.730E-06,0.440
6.740E-06,0.420
6.750E-06,0.420
6.760E-06,0.460
6.770E-06,0.440
6.780E-06,0.420
6.790E-06,0.440
6.800E-06,0.440
6.810E-06,0.480
6.820E-06,0.460
6.830E-06,0.500
6.840E-06,0.500
6.850E-06,0.520
6.860E-06,0.520
6.870E-06,0.520
6.880E-06,0.540
6.890E-06,0.560
6.900E-06,0.540
6.910E-06,0.540
6.920E-06,0.520
6.930E-06,0.520
6.940E-06,0.500
6.950E-06,0.480
6.960E-06,0.460
6.970E-06,0.500
6.980E-06,0.500
6.990E-06,0.480
7.000E-06,0.460
7.010E-06,0.440
7.020E-06,0.420
7.030E-06,0.360
7.040E-06,0.340
7.050E-06,0.380
7.060E-06,0.380
7.070E-06,0.360
7.080E-06,0.380
7.090E-06,0.340
7.100E-06,0.300
7.110E-06,0.220
7.120E-06,0.200
7.130E-06,0.180
7.140E-06,0.200
7.150E-06,0.240
7.160E-06,0.260
7.170E-06,0.320
7.180E-06,0.360
7.190E-06,0.360
7.200E-06,0.360
7.210E-06,0.360
7.220E-06,0.360
7.230E-06,0.380
7.240E-06,0.400
7.250E-06,0.400
7.260E-06,0.360
7.270E-06,0.360
7.280E-06,0.400
7.290E-06,0.380
7.300E-06,0.380
7.310E-06,0.400
7.320E-06,0.360
7.330E-06,0.380
7.340E-06,0.400
7.350E-06,0.340
7.360E-06,0.340
7.370E-06,0.340
7.380E-06,0.320
7.390E-06,0.340
7.400E-06,0.280
7.410E-06,0.300
7.420E-06,0.320
7.430E-06,0.340
7.440E-06,0.360
7.450E-06,0.400
7.460E-06,0.360
7.470E-06,0.420
7.480E-06,0.420
7.490E-06,0.420
7.500E-06,0.460
7.510E-06,0.500
7.520E-06,0.520
7.530E-06,0.520
7.540E-06,0.520
7.550E-06,0.520
7.560E-06,0.540
7.570E-06,0.520
7.580E-06,0.500
7.590E-06,0.520
7.600E-06,0.520
7.610E-06,0.500
7.620E-06,0.520
7.630E-06,0.540
7.640E-06,0.580
7.650E-06,0.580
7.660E-06,0.600
7.670E-06,0.580
7.680E-06,0.540
7.690E-06,0.540
7.700E-06,0.500
7.710E-06,0.500
7.720E-06,0.460
7.730E-06,0.480
7.740E-06,0.480
