mediciones/Mediciones filtradas (saque las feas)/6-10/48.7/WaveData55275.csv

#timebase=2000000(ps)
,#voltbase=100000(mv/100)
#size=4000
-4.200E-06,-0.004
-4.190E-06,0.012
-4.180E-06,0.012
-4.170E-06,0.012
-4.160E-06,-0.004
-4.150E-06,0.008
-4.140E-06,-0.008
-4.130E-06,0.000
-4.120E-06,0.000
-4.110E-06,0.000
-4.100E-06,0.000
-4.090E-06,0.000
-4.080E-06,0.008
-4.070E-06,0.008
-4.060E-06,0.000
-4.050E-06,0.008
-4.040E-06,0.008
-4.030E-06,-0.004
-4.020E-06,0.000
-4.010E-06,0.000
-4.000E-06,0.008
-3.990E-06,0.012
-3.980E-06,0.008
-3.970E-06,0.004
-3.960E-06,0.000
-3.950E-06,0.000
-3.940E-06,-0.008
-3.930E-06,0.004
-3.920E-06,0.000
-3.910E-06,0.012
-3.900E-06,0.012
-3.890E-06,0.008
-3.880E-06,0.000
-3.870E-06,0.000
-3.860E-06,0.004
-3.850E-06,-0.008
-3.840E-06,0.000
-3.830E-06,0.000
-3.820E-06,0.012
-3.810E-06,0.004
-3.800E-06,0.012
-3.790E-06,0.004
-3.780E-06,-0.004
-3.770E-06,-0.004
-3.760E-06,0.000
-3.750E-06,-0.004
-3.740E-06,0.000
-3.730E-06,0.012
-3.720E-06,0.012
-3.710E-06,0.012
-3.700E-06,0.000
-3.690E-06,-0.004
-3.680E-06,-0.008
-3.670E-06,-0.004
-3.660E-06,0.008
-3.650E-06,0.004
-3.640E-06,0.008
-3.630E-06,0.008
-3.620E-06,-0.004
-3.610E-06,-0.004
-3.600E-06,0.000
-3.590E-06,-0.004
-3.580E-06,0.004
-3.570E-06,0.012
-3.560E-06,0.008
-3.550E-06,0.008
-3.540E-06,0.008
-3.530E-06,0.000
-3.520E-06,0.000
-3.510E-06,0.000
-3.500E-06,0.000
-3.490E-06,0.000
-3.480E-06,0.008
-3.470E-06,0.012
-3.460E-06,0.004
-3.450E-06,0.004
-3.440E-06,0.012
-3.430E-06,0.000
-3.420E-06,0.000
-3.410E-06,0.000
-3.400E-06,0.000
-3.390E-06,0.008
-3.380E-06,0.004
-3.370E-06,0.012
-3.360E-06,0.004
-3.350E-06,0.012
-3.340E-06,-0.004
-3.330E-06,-0.004
-3.320E-06,-0.004
-3.310E-06,0.000
-3.300E-06,0.012
-3.290E-06,0.020
-3.280E-06,0.012
-3.270E-06,0.008
-3.260E-06,0.004
-3.250E-06,-0.004
-3.240E-06,0.000
-3.230E-06,0.000
-3.220E-06,0.000
-3.210E-06,0.004
-3.200E-06,0.012
-3.190E-06,0.008
-3.180E-06,0.008
-3.170E-06,0.000
-3.160E-06,-0.004
-3.150E-06,-0.004
-3.140E-06,0.012
-3.130E-06,0.008
-3.120E-06,0.012
-3.110E-06,0.008
-3.100E-06,0.008
-3.090E-06,0.000
-3.080E-06,-0.004
-3.070E-06,-0.008
-3.060E-06,0.004
-3.050E-06,0.016
-3.040E-06,0.016
-3.030E-06,0.012
-3.020E-06,0.008
-3.010E-06,0.000
-3.000E-06,0.000
-2.990E-06,0.000
-2.980E-06,-0.004
-2.970E-06,-0.004
-2.960E-06,-0.004
-2.950E-06,0.004
-2.940E-06,0.004
-2.930E-06,0.000
-2.920E-06,-0.004
-2.910E-06,0.004
-2.900E-06,0.008
-2.890E-06,0.008
-2.880E-06,0.008
-2.870E-06,0.008
-2.860E-06,0.004
-2.850E-06,0.004
-2.840E-06,0.000
-2.830E-06,0.004
-2.820E-06,0.004
-2.810E-06,0.000
-2.800E-06,0.004
-2.790E-06,0.012
-2.780E-06,0.008
-2.770E-06,0.012
-2.760E-06,0.016
-2.750E-06,0.004
-2.740E-06,0.004
-2.730E-06,0.008
-2.720E-06,0.004
-2.710E-06,0.004
-2.700E-06,0.012
-2.690E-06,0.020
-2.680E-06,0.020
-2.670E-06,0.020
-2.660E-06,0.028
-2.650E-06,0.024
-2.640E-06,0.008
-2.630E-06,-0.004
-2.620E-06,-0.004
-2.610E-06,-0.008
-2.600E-06,-0.004
-2.590E-06,0.016
-2.580E-06,0.016
-2.570E-06,0.020
-2.560E-06,0.020
-2.550E-06,0.016
-2.540E-06,0.004
-2.530E-06,0.008
-2.520E-06,0.020
-2.510E-06,0.044
-2.500E-06,0.052
-2.490E-06,0.044
-2.480E-06,0.032
-2.470E-06,0.024
-2.460E-06,-0.008
-2.450E-06,0.040
-2.440E-06,-0.076
-2.430E-06,-0.036
-2.420E-06,-0.096
-2.410E-06,-0.044
-2.400E-06,0.008
-2.390E-06,0.096
-2.380E-06,0.088
-2.370E-06,0.108
-2.360E-06,-0.060
-2.350E-06,-0.144
-2.340E-06,-0.176
-2.330E-06,-0.064
-2.320E-06,0.056
-2.310E-06,0.088
-2.300E-06,0.092
-2.290E-06,0.000
-2.280E-06,-0.024
-2.270E-06,-0.068
-2.260E-06,-0.040
-2.250E-06,-0.012
-2.240E-06,0.004
-2.230E-06,0.004
-2.220E-06,0.032
-2.210E-06,0.036
-2.200E-06,0.016
-2.190E-06,0.004
-2.180E-06,-0.028
-2.170E-06,-0.028
-2.160E-06,-0.024
-2.150E-06,0.004
-2.140E-06,0.028
-2.130E-06,0.056
-2.120E-06,0.052
-2.110E-06,0.020
-2.100E-06,-0.008
-2.090E-06,-0.040
-2.080E-06,-0.024
-2.070E-06,-0.004
-2.060E-06,0.040
-2.050E-06,0.056
-2.040E-06,0.060
-2.030E-06,0.044
-2.020E-06,0.032
-2.010E-06,-0.020
-2.000E-06,-0.028
-1.990E-06,-0.008
-1.980E-06,0.040
-1.970E-06,0.028
-1.960E-06,-0.016
-1.950E-06,-0.020
-1.940E-06,-0.036
-1.930E-06,-0.044
-1.920E-06,-0.004
-1.910E-06,-0.028
-1.900E-06,0.016
-1.890E-06,0.016
-1.880E-06,-0.008
-1.870E-06,0.004
-1.860E-06,-0.028
-1.850E-06,-0.032
-1.840E-06,0.004
-1.830E-06,0.020
-1.820E-06,0.028
-1.810E-06,0.024
-1.800E-06,-0.020
-1.790E-06,-0.024
-1.780E-06,-0.016
-1.770E-06,0.012
-1.760E-06,0.028
-1.750E-06,0.020
-1.740E-06,0.012
-1.730E-06,-0.004
-1.720E-06,-0.008
-1.710E-06,-0.012
-1.700E-06,0.004
-1.690E-06,0.012
-1.680E-06,0.020
-1.670E-06,0.020
-1.660E-06,0.012
-1.650E-06,0.016
-1.640E-06,0.000
-1.630E-06,0.024
-1.620E-06,0.028
-1.610E-06,0.012
-1.600E-06,-0.016
-1.590E-06,-0.012
-1.580E-06,-0.004
-1.570E-06,0.012
-1.560E-06,0.028
-1.550E-06,0.044
-1.540E-06,0.036
-1.530E-06,0.012
-1.520E-06,-0.004
-1.510E-06,-0.024
-1.500E-06,-0.032
-1.490E-06,-0.016
-1.480E-06,0.004
-1.470E-06,0.020
-1.460E-06,0.032
-1.450E-06,0.012
-1.440E-06,0.000
-1.430E-06,-0.012
-1.420E-06,-0.016
-1.410E-06,-0.004
-1.400E-06,0.000
-1.390E-06,0.008
-1.380E-06,0.012
-1.370E-06,0.008
-1.360E-06,0.004
-1.350E-06,0.008
-1.340E-06,0.008
-1.330E-06,0.008
-1.320E-06,0.012
-1.310E-06,0.020
-1.300E-06,0.032
-1.290E-06,0.032
-1.280E-06,0.024
-1.270E-06,0.028
-1.260E-06,0.032
-1.250E-06,0.016
-1.240E-06,0.004
-1.230E-06,-0.008
-1.220E-06,-0.012
-1.210E-06,-0.004
-1.200E-06,0.004
-1.190E-06,0.020
-1.180E-06,0.028
-1.170E-06,0.028
-1.160E-06,0.036
-1.150E-06,-0.004
-1.140E-06,-0.020
-1.130E-06,-0.044
-1.120E-06,-0.020
-1.110E-06,0.000
-1.100E-06,0.024
-1.090E-06,0.036
-1.080E-06,0.028
-1.070E-06,-0.012
-1.060E-06,-0.040
-1.050E-06,-0.036
-1.040E-06,-0.024
-1.030E-06,0.008
-1.020E-06,0.032
-1.010E-06,0.052
-1.000E-06,0.056
-9.900E-07,0.032
-9.800E-07,0.020
-9.700E-07,-0.004
-9.600E-07,-0.008
-9.500E-07,0.000
-9.400E-07,0.012
-9.300E-07,0.028
-9.200E-07,0.040
-9.100E-07,0.040
-9.000E-07,0.020
-8.900E-07,-0.004
-8.800E-07,-0.012
-8.700E-07,-0.020
-8.600E-07,-0.008
-8.500E-07,0.000
-8.400E-07,0.008
-8.300E-07,0.016
-8.200E-07,0.008
-8.100E-07,0.004
-8.000E-07,-0.008
-7.900E-07,-0.004
-7.800E-07,0.004
-7.700E-07,0.024
-7.600E-07,0.040
-7.500E-07,0.012
-7.400E-07,-0.020
-7.300E-07,-0.036
-7.200E-07,-0.040
-7.100E-07,-0.032
-7.000E-07,0.052
-6.900E-07,0.056
-6.800E-07,0.064
-6.700E-07,0.056
-6.600E-07,-0.012
-6.500E-07,-0.064
-6.400E-07,-0.040
-6.300E-07,-0.028
-6.200E-07,0.020
-6.100E-07,0.056
-6.000E-07,0.072
-5.900E-07,0.028
-5.800E-07,-0.004
-5.700E-07,-0.052
-5.600E-07,-0.068
-5.500E-07,-0.016
-5.400E-07,0.024
-5.300E-07,0.072
-5.200E-07,0.076
-5.100E-07,0.060
-5.000E-07,-0.004
-4.900E-07,-0.020
-4.800E-07,-0.044
-4.700E-07,-0.016
-4.600E-07,-0.004
-4.500E-07,0.032
-4.400E-07,0.012
-4.300E-07,0.000
-4.200E-07,-0.004
-4.100E-07,-0.028
-4.000E-07,-0.008
-3.900E-07,-0.016
-3.800E-07,0.020
-3.700E-07,0.028
-3.600E-07,0.032
-3.500E-07,0.048
-3.400E-07,0.008
-3.300E-07,0.040
-3.200E-07,-0.104
-3.100E-07,0.036
-3.000E-07,0.012
-2.900E-07,0.036
-2.800E-07,0.092
-2.700E-07,0.056
-2.600E-07,0.088
-2.500E-07,-0.044
-2.400E-07,0.024
-2.300E-07,-0.020
-2.200E-07,0.004
-2.100E-07,0.088
-2.000E-07,0.072
-1.900E-07,0.092
-1.800E-07,0.028
-1.700E-07,0.012
-1.600E-07,-0.004
-1.500E-07,0.040
-1.400E-07,0.056
-1.300E-07,0.072
-1.200E-07,0.072
-1.100E-07,0.060
-1.000E-07,0.044
-9.000E-08,0.024
-8.000E-08,-0.004
-7.000E-08,-0.088
-6.000E-08,-0.236
-5.000E-08,-0.252
-4.000E-08,-0.508
-3.000E-08,-0.448
-2.000E-08,-0.160
-1.000E-08,0.320
0.000E+00,0.436
1.000E-08,0.364
2.000E-08,0.192
3.000E-08,-0.284
4.000E-08,-0.336
5.000E-08,-0.236
6.000E-08,-0.056
7.000E-08,0.156
8.000E-08,0.240
9.000E-08,0.204
1.000E-07,0.064
1.100E-07,-0.088
1.200E-07,-0.224
1.300E-07,-0.176
1.400E-07,-0.028
1.500E-07,0.132
1.600E-07,0.228
1.700E-07,0.188
1.800E-07,0.060
1.900E-07,-0.100
2.000E-07,-0.184
2.100E-07,-0.184
2.200E-07,-0.092
2.300E-07,0.028
2.400E-07,0.108
2.500E-07,0.148
2.600E-07,0.112
2.700E-07,0.012
2.800E-07,-0.092
2.900E-07,-0.136
3.000E-07,-0.072
3.100E-07,0.012
3.200E-07,0.100
3.300E-07,0.124
3.400E-07,0.120
3.500E-07,0.032
3.600E-07,-0.056
3.700E-07,-0.120
3.800E-07,-0.108
3.900E-07,-0.024
4.000E-07,0.060
4.100E-07,0.108
4.200E-07,0.080
4.300E-07,0.032
4.400E-07,-0.024
4.500E-07,-0.064
4.600E-07,-0.056
4.700E-07,-0.020
4.800E-07,0.040
4.900E-07,0.076
5.000E-07,0.088
5.100E-07,0.060
5.200E-07,0.020
5.300E-07,-0.012
5.400E-07,-0.016
5.500E-07,0.004
5.600E-07,0.056
5.700E-07,0.072
5.800E-07,0.064
5.900E-07,0.032
6.000E-07,0.012
6.100E-07,-0.004
6.200E-07,-0.008
6.300E-07,0.004
6.400E-07,0.036
6.500E-07,0.036
6.600E-07,0.028
6.700E-07,0.016
6.800E-07,-0.008
6.900E-07,-0.008
7.000E-07,-0.008
7.100E-07,0.000
7.200E-07,0.012
7.300E-07,0.016
7.400E-07,0.020
7.500E-07,0.032
7.600E-07,0.028
7.700E-07,0.024
7.800E-07,0.036
7.900E-07,0.056
8.000E-07,0.076
8.100E-07,0.092
8.200E-07,0.104
8.300E-07,0.120
8.400E-07,0.104
8.500E-07,0.096
8.600E-07,0.084
8.700E-07,0.044
8.800E-07,0.024
8.900E-07,-0.060
9.000E-07,-0.048
9.100E-07,-0.076
9.200E-07,-0.156
9.300E-07,-0.136
9.400E-07,-0.008
9.500E-07,-0.008
9.600E-07,0.048
9.700E-07,0.100
9.800E-07,-0.036
9.900E-07,-0.012
1.000E-06,-0.220
1.010E-06,-0.172
1.020E-06,-0.216
1.030E-06,0.072
1.040E-06,0.056
1.050E-06,0.072
1.060E-06,0.096
1.070E-06,-0.040
1.080E-06,-0.064
1.090E-06,-0.128
1.100E-06,-0.084
1.110E-06,-0.024
1.120E-06,0.044
1.130E-06,0.088
1.140E-06,0.064
1.150E-06,0.020
1.160E-06,-0.064
1.170E-06,-0.096
1.180E-06,-0.068
1.190E-06,-0.004
1.200E-06,0.052
1.210E-06,0.080
1.220E-06,0.072
1.230E-06,0.024
1.240E-06,-0.008
1.250E-06,-0.032
1.260E-06,-0.040
1.270E-06,0.008
1.280E-06,0.024
1.290E-06,0.052
1.300E-06,0.056
1.310E-06,0.036
1.320E-06,0.024
1.330E-06,-0.004
1.340E-06,0.008
1.350E-06,0.024
1.360E-06,0.048
1.370E-06,0.056
1.380E-06,0.048
1.390E-06,0.028
1.400E-06,0.028
1.410E-06,0.008
1.420E-06,0.016
1.430E-06,0.056
1.440E-06,0.088
1.450E-06,0.128
1.460E-06,0.124
1.470E-06,0.096
1.480E-06,0.004
1.490E-06,-0.036
1.500E-06,-0.136
1.510E-06,-0.188
1.520E-06,-0.252
1.530E-06,-0.128
1.540E-06,-0.040
1.550E-06,0.080
1.560E-06,0.160
1.570E-06,0.092
1.580E-06,0.040
1.590E-06,-0.116
1.600E-06,-0.188
1.610E-06,-0.136
1.620E-06,-0.084
1.630E-06,0.052
1.640E-06,0.124
1.650E-06,0.088
1.660E-06,0.004
1.670E-06,-0.088
1.680E-06,-0.112
1.690E-06,-0.100
1.700E-06,-0.012
1.710E-06,0.072
1.720E-06,0.104
1.730E-06,0.092
1.740E-06,0.060
1.750E-06,-0.024
1.760E-06,-0.052
1.770E-06,-0.024
1.780E-06,0.008
1.790E-06,0.044
1.800E-06,0.040
1.810E-06,0.020
1.820E-06,-0.004
1.830E-06,-0.004
1.840E-06,-0.024
1.850E-06,0.000
1.860E-06,0.024
1.870E-06,0.036
1.880E-06,0.036
1.890E-06,0.044
1.900E-06,0.060
1.910E-06,0.072
1.920E-06,0.080
1.930E-06,0.080
1.940E-06,0.092
1.950E-06,0.092
1.960E-06,0.084
1.970E-06,0.076
1.980E-06,0.056
1.990E-06,0.072
2.000E-06,0.052
2.010E-06,-0.020
2.020E-06,-0.120
2.030E-06,-0.232
2.040E-06,-0.224
2.050E-06,-0.216
2.060E-06,-0.008
2.070E-06,0.096
2.080E-06,0.192
2.090E-06,0.148
2.100E-06,0.052
2.110E-06,-0.076
2.120E-06,-0.156
2.130E-06,-0.068
2.140E-06,0.008
2.150E-06,0.092
2.160E-06,0.140
2.170E-06,0.044
2.180E-06,-0.056
2.190E-06,-0.172
2.200E-06,-0.204
2.210E-06,-0.136
2.220E-06,-0.004
2.230E-06,0.080
2.240E-06,0.148
2.250E-06,0.096
2.260E-06,0.008
2.270E-06,-0.072
2.280E-06,-0.072
2.290E-06,-0.076
2.300E-06,0.024
2.310E-06,0.060
2.320E-06,0.080
2.330E-06,0.040
2.340E-06,-0.008
2.350E-06,-0.056
2.360E-06,-0.052
2.370E-06,-0.012
2.380E-06,0.032
2.390E-06,0.080
2.400E-06,0.080
2.410E-06,0.072
2.420E-06,0.068
2.430E-06,0.060
2.440E-06,0.032
2.450E-06,0.036
2.460E-06,0.028
2.470E-06,0.056
2.480E-06,0.064
2.490E-06,0.064
2.500E-06,0.060
2.510E-06,0.056
2.520E-06,0.060
2.530E-06,0.068
2.540E-06,0.056
2.550E-06,0.072
2.560E-06,0.060
2.570E-06,0.060
2.580E-06,-0.400
2.590E-06,0.060
2.600E-06,-0.364
2.610E-06,-0.512
2.620E-06,0.052
2.630E-06,0.504
2.640E-06,0.032
2.650E-06,-0.016
2.660E-06,0.064
2.670E-06,0.008
2.680E-06,-0.360
2.690E-06,0.096
2.700E-06,0.356
2.710E-06,0.056
2.720E-06,-0.104
2.730E-06,-0.184
2.740E-06,-0.100
2.750E-06,-0.036
2.760E-06,-0.196
2.770E-06,-0.032
2.780E-06,0.076
2.790E-06,0.156
2.800E-06,0.068
2.810E-06,0.048
2.820E-06,-0.004
2.830E-06,-0.096
2.840E-06,-0.036
2.850E-06,-0.052
2.860E-06,0.024
2.870E-06,0.040
2.880E-06,0.064
2.890E-06,0.076
2.900E-06,0.028
2.910E-06,0.012
2.920E-06,-0.064
2.930E-06,-0.088
2.940E-06,-0.088
2.950E-06,-0.036
2.960E-06,0.092
2.970E-06,0.076
2.980E-06,0.036
2.990E-06,-0.028
3.000E-06,-0.068
3.010E-06,-0.040
3.020E-06,0.028
3.030E-06,0.076
3.040E-06,0.096
3.050E-06,0.088
3.060E-06,0.052
3.070E-06,-0.004
3.080E-06,-0.028
3.090E-06,-0.040
3.100E-06,-0.024
3.110E-06,0.004
3.120E-06,0.028
3.130E-06,0.028
3.140E-06,0.000
3.150E-06,-0.008
3.160E-06,-0.028
3.170E-06,-0.044
3.180E-06,-0.028
3.190E-06,0.020
3.200E-06,0.024
3.210E-06,0.040
3.220E-06,0.044
3.230E-06,0.012
3.240E-06,-0.008
3.250E-06,-0.032
3.260E-06,-0.028
3.270E-06,-0.004
3.280E-06,0.008
3.290E-06,0.052
3.300E-06,0.044
3.310E-06,0.056
3.320E-06,0.020
3.330E-06,0.012
3.340E-06,0.056
3.350E-06,-0.004
3.360E-06,0.000
3.370E-06,0.032
3.380E-06,0.028
3.390E-06,0.000
3.400E-06,-0.028
3.410E-06,-0.056
3.420E-06,-0.056
3.430E-06,-0.008
3.440E-06,0.032
3.450E-06,0.032
3.460E-06,0.028
3.470E-06,0.028
3.480E-06,0.016
3.490E-06,0.024
3.500E-06,0.028
3.510E-06,0.048
3.520E-06,0.060
3.530E-06,0.052
3.540E-06,0.064
3.550E-06,0.048
3.560E-06,0.028
3.570E-06,0.012
3.580E-06,0.024
3.590E-06,0.056
3.600E-06,0.076
3.610E-06,0.092
3.620E-06,0.088
3.630E-06,0.088
3.640E-06,0.056
3.650E-06,0.036
3.660E-06,0.020
3.670E-06,0.000
3.680E-06,0.000
3.690E-06,-0.004
3.700E-06,0.020
3.710E-06,0.032
3.720E-06,0.024
3.730E-06,0.016
3.740E-06,0.000
3.750E-06,0.016
3.760E-06,0.008
3.770E-06,0.040
3.780E-06,-0.004
3.790E-06,-0.068
3.800E-06,-0.140
3.810E-06,-0.292
3.820E-06,-0.276
3.830E-06,-0.212
3.840E-06,0.036
3.850E-06,0.128
3.860E-06,0.188
3.870E-06,0.104
3.880E-06,-0.068
3.890E-06,-0.124
3.900E-06,-0.180
3.910E-06,-0.072
3.920E-06,0.036
3.930E-06,0.148
3.940E-06,0.188
3.950E-06,0.088
3.960E-06,0.012
3.970E-06,-0.088
3.980E-06,-0.132
3.990E-06,-0.100
4.000E-06,-0.040
4.010E-06,0.064
4.020E-06,0.104
4.030E-06,0.088
4.040E-06,0.052
4.050E-06,-0.012
4.060E-06,-0.008
4.070E-06,-0.040
4.080E-06,-0.012
4.090E-06,0.024
4.100E-06,0.064
4.110E-06,0.100
4.120E-06,0.104
4.130E-06,0.076
4.140E-06,0.012
4.150E-06,0.024
4.160E-06,0.044
4.170E-06,0.096
4.180E-06,0.144
4.190E-06,0.156
4.200E-06,0.152
4.210E-06,0.076
4.220E-06,-0.004
4.230E-06,-0.020
4.240E-06,-0.020
4.250E-06,0.012
4.260E-06,0.056
4.270E-06,0.064
4.280E-06,0.060
4.290E-06,-0.008
4.300E-06,-0.104
4.310E-06,-0.124
4.320E-06,-0.104
4.330E-06,-0.120
4.340E-06,0.024
4.350E-06,-0.036
4.360E-06,0.024
4.370E-06,-0.176
4.380E-06,-0.232
4.390E-06,-0.212
4.400E-06,-0.184
4.410E-06,-0.056
4.420E-06,0.072
4.430E-06,0.164
4.440E-06,0.084
4.450E-06,0.008
4.460E-06,-0.044
4.470E-06,-0.120
4.480E-06,-0.128
4.490E-06,-0.056
4.500E-06,0.048
4.510E-06,0.112
4.520E-06,0.128
4.530E-06,0.052
4.540E-06,-0.020
4.550E-06,-0.092
4.560E-06,-0.068
4.570E-06,0.000
4.580E-06,0.072
4.590E-06,0.104
4.600E-06,0.108
4.610E-06,0.084
4.620E-06,0.032
4.630E-06,0.024
4.640E-06,0.048
4.650E-06,0.104
4.660E-06,0.132
4.670E-06,0.136
4.680E-06,0.124
4.690E-06,0.120
4.700E-06,0.080
4.710E-06,0.064
4.720E-06,0.064
4.730E-06,0.084
4.740E-06,0.100
4.750E-06,0.108
4.760E-06,0.128
4.770E-06,0.100
4.780E-06,0.076
4.790E-06,0.092
4.800E-06,0.060
4.810E-06,0.036
4.820E-06,-0.008
4.830E-06,0.036
4.840E-06,0.060
4.850E-06,0.032
4.860E-06,0.036
4.870E-06,0.056
4.880E-06,0.064
4.890E-06,0.084
4.900E-06,0.068
4.910E-06,0.100
4.920E-06,0.100
4.930E-06,0.108
4.940E-06,0.072
4.950E-06,0.000
4.960E-06,-0.120
4.970E-06,-0.248
4.980E-06,-0.288
4.990E-06,-0.312
5.000E-06,-0.236
5.010E-06,-0.172
5.020E-06,-0.052
5.030E-06,0.108
5.040E-06,0.112
5.050E-06,0.036
5.060E-06,0.028
5.070E-06,-0.060
5.080E-06,-0.020
5.090E-06,-0.040
5.100E-06,-0.040
5.110E-06,0.028
5.120E-06,0.100
5.130E-06,0.112
5.140E-06,0.144
5.150E-06,0.164
5.160E-06,0.140
5.170E-06,0.132
5.180E-06,0.048
5.190E-06,0.008
5.200E-06,-0.076
5.210E-06,-0.188
5.220E-06,-0.196
5.230E-06,-0.268
5.240E-06,-0.272
5.250E-06,-0.312
5.260E-06,-0.172
5.270E-06,-0.120
5.280E-06,0.008
5.290E-06,0.148
5.300E-06,0.176
5.310E-06,0.032
5.320E-06,-0.056
5.330E-06,-0.148
5.340E-06,-0.328
5.350E-06,-0.144
5.360E-06,0.000
5.370E-06,0.144
5.380E-06,0.160
5.390E-06,0.132
5.400E-06,0.080
5.410E-06,-0.008
5.420E-06,-0.104
5.430E-06,-0.084
5.440E-06,0.000
5.450E-06,0.120
5.460E-06,0.208
5.470E-06,0.212
5.480E-06,0.128
5.490E-06,0.048
5.500E-06,0.036
5.510E-06,0.056
5.520E-06,0.148
5.530E-06,0.176
5.540E-06,0.192
5.550E-06,0.148
5.560E-06,0.044
5.570E-06,-0.072
5.580E-06,-0.208
5.590E-06,-0.220
5.600E-06,-0.204
5.610E-06,-0.056
5.620E-06,0.008
5.630E-06,0.044
5.640E-06,0.008
5.650E-06,-0.044
5.660E-06,-0.104
5.670E-06,-0.140
5.680E-06,-0.128
5.690E-06,0.008
5.700E-06,0.076
5.710E-06,0.140
5.720E-06,0.144
5.730E-06,0.052
5.740E-06,0.008
5.750E-06,-0.016
5.760E-06,0.020
5.770E-06,0.068
5.780E-06,0.156
5.790E-06,0.220
5.800E-06,0.228
5.810E-06,0.188
5.820E-06,0.132
5.830E-06,0.084
5.840E-06,0.068
5.850E-06,0.120
5.860E-06,0.180
5.870E-06,0.204
5.880E-06,0.180
5.890E-06,0.136
5.900E-06,0.048
5.910E-06,0.000
5.920E-06,-0.004
5.930E-06,0.012
5.940E-06,0.060
5.950E-06,0.072
5.960E-06,0.028
5.970E-06,-0.032
5.980E-06,-0.136
5.990E-06,-0.204
6.000E-06,-0.164
6.010E-06,-0.108
6.020E-06,-0.036
6.030E-06,0.016
6.040E-06,0.000
6.050E-06,-0.008
6.060E-06,-0.028
6.070E-06,-0.128
6.080E-06,-0.072
6.090E-06,0.044
6.100E-06,0.072
6.110E-06,0.124
6.120E-06,0.040
6.130E-06,0.112
6.140E-06,0.072
6.150E-06,0.088
6.160E-06,0.120
6.170E-06,0.196
6.180E-06,0.252
6.190E-06,0.244
6.200E-06,0.172
6.210E-06,0.092
6.220E-06,0.040
6.230E-06,0.012
6.240E-06,0.052
6.250E-06,0.076
6.260E-06,0.072
6.270E-06,0.024
6.280E-06,-0.044
6.290E-06,-0.192
6.300E-06,-0.248
6.310E-06,-0.280
6.320E-06,-0.280
6.330E-06,-0.104
6.340E-06,-0.052
6.350E-06,0.120
6.360E-06,0.052
6.370E-06,0.016
6.380E-06,-0.008
6.390E-06,-0.064
6.400E-06,-0.008
6.410E-06,0.036
6.420E-06,0.232
6.430E-06,0.268
6.440E-06,0.320
6.450E-06,0.296
6.460E-06,0.184
6.470E-06,0.064
6.480E-06,0.012
6.490E-06,0.040
6.500E-06,0.080
6.510E-06,0.164
6.520E-06,0.192
6.530E-06,0.156
6.540E-06,0.076
6.550E-06,-0.012
6.560E-06,-0.088
6.570E-06,-0.064
6.580E-06,-0.056
6.590E-06,0.012
6.600E-06,-0.004
6.610E-06,0.008
6.620E-06,0.020
6.630E-06,-0.020
6.640E-06,-0.128
6.650E-06,-0.156
6.660E-06,-0.064
6.670E-06,-0.028
6.680E-06,0.012
6.690E-06,0.100
6.700E-06,0.132
6.710E-06,0.156
6.720E-06,0.088
6.730E-06,0.104
6.740E-06,0.072
6.750E-06,0.132
6.760E-06,0.184
6.770E-06,0.212
6.780E-06,0.240
6.790E-06,0.204
6.800E-06,0.192
6.810E-06,0.144
6.820E-06,0.140
6.830E-06,0.168
6.840E-06,0.192
6.850E-06,0.220
6.860E-06,0.208
6.870E-06,0.192
6.880E-06,0.168
6.890E-06,0.140
6.900E-06,0.144
6.910E-06,0.152
6.920E-06,0.184
6.930E-06,0.196
6.940E-06,0.208
6.950E-06,0.208
6.960E-06,0.188
6.970E-06,0.176
6.980E-06,0.160
6.990E-06,0.156
7.000E-06,0.164
7.010E-06,0.192
7.020E-06,0.196
7.030E-06,0.204
7.040E-06,0.208
7.050E-06,0.196
7.060E-06,0.176
7.070E-06,0.168
7.080E-06,0.168
7.090E-06,0.172
7.100E-06,0.192
7.110E-06,0.200
7.120E-06,0.196
7.130E-06,0.180
7.140E-06,0.164
7.150E-06,0.144
7.160E-06,0.144
7.170E-06,0.148
7.180E-06,0.164
7.190E-06,0.172
7.200E-06,0.180
7.210E-06,0.176
7.220E-06,0.172
7.230E-06,0.168
7.240E-06,0.164
7.250E-06,0.168
7.260E-06,0.176
7.270E-06,0.184
7.280E-06,0.188
7.290E-06,0.192
7.300E-06,0.192
7.310E-06,0.192
7.320E-06,0.184
7.330E-06,0.176
7.340E-06,0.172
7.350E-06,0.180
7.360E-06,0.192
7.370E-06,0.196
7.380E-06,0.196
7.390E-06,0.192
7.400E-06,0.184
7.410E-06,0.188
7.420E-06,0.180
7.430E-06,0.184
7.440E-06,0.192
7.450E-06,0.196
7.460E-06,0.192
7.470E-06,0.196
7.480E-06,0.184
7.490E-06,0.172
7.500E-06,0.172
7.510E-06,0.180
7.520E-06,0.180
7.530E-06,0.188
7.540E-06,0.188
7.550E-06,0.192
7.560E-06,0.188
7.570E-06,0.176
7.580E-06,0.176
7.590E-06,0.176
7.600E-06,0.184
7.610E-06,0.192
7.620E-06,0.188
7.630E-06,0.188
7.640E-06,0.180
7.650E-06,0.180
7.660E-06,0.176
7.670E-06,0.168
7.680E-06,0.176
7.690E-06,0.176
7.700E-06,0.184
7.710E-06,0.180
7.720E-06,0.172
7.730E-06,0.176
7.740E-06,0.168
7.750E-06,0.164
