mediciones/Mediciones filtradas (saque las feas)/6-10/48.7/WaveData55278.csv

#timebase=2000000(ps)
,#voltbase=500000(mv/100)
#size=4000
-4.200E-06,-0.360
-4.190E-06,-0.300
-4.180E-06,-0.200
-4.170E-06,-0.200
-4.160E-06,-0.260
-4.150E-06,-0.260
-4.140E-06,-0.260
-4.130E-06,-0.160
-4.120E-06,-0.020
-4.110E-06,0.040
-4.100E-06,0.080
-4.090E-06,0.060
-4.080E-06,0.080
-4.070E-06,0.140
-4.060E-06,0.180
-4.050E-06,0.200
-4.040E-06,0.160
-4.030E-06,0.120
-4.020E-06,0.040
-4.010E-06,0.000
-4.000E-06,0.000
-3.990E-06,0.000
-3.980E-06,-0.020
-3.970E-06,0.000
-3.960E-06,-0.060
-3.950E-06,-0.120
-3.940E-06,-0.140
-3.930E-06,-0.100
-3.920E-06,-0.020
-3.910E-06,0.040
-3.900E-06,0.120
-3.890E-06,0.140
-3.880E-06,0.200
-3.870E-06,0.240
-3.860E-06,0.280
-3.850E-06,0.340
-3.840E-06,0.380
-3.830E-06,0.360
-3.820E-06,0.420
-3.810E-06,0.420
-3.800E-06,0.420
-3.790E-06,0.340
-3.780E-06,0.300
-3.770E-06,0.260
-3.760E-06,0.180
-3.750E-06,0.340
-3.740E-06,0.020
-3.730E-06,0.100
-3.720E-06,0.120
-3.710E-06,-0.080
-3.700E-06,0.000
-3.690E-06,-0.140
-3.680E-06,-0.160
-3.670E-06,-0.180
-3.660E-06,-0.360
-3.650E-06,-0.340
-3.640E-06,-0.240
-3.630E-06,-0.300
-3.620E-06,-0.140
-3.610E-06,0.040
-3.600E-06,0.280
-3.590E-06,0.380
-3.580E-06,0.440
-3.570E-06,0.220
-3.560E-06,-0.020
-3.550E-06,-0.120
-3.540E-06,-0.080
-3.530E-06,0.120
-3.520E-06,0.320
-3.510E-06,0.380
-3.500E-06,0.300
-3.490E-06,0.080
-3.480E-06,-0.060
-3.470E-06,-0.100
-3.460E-06,0.000
-3.450E-06,0.060
-3.440E-06,0.100
-3.430E-06,0.060
-3.420E-06,-0.040
-3.410E-06,-0.120
-3.400E-06,-0.120
-3.390E-06,-0.060
-3.380E-06,-0.060
-3.370E-06,-0.040
-3.360E-06,-0.020
-3.350E-06,-0.040
-3.340E-06,-0.040
-3.330E-06,0.040
-3.320E-06,0.080
-3.310E-06,0.120
-3.300E-06,0.140
-3.290E-06,0.200
-3.280E-06,0.240
-3.270E-06,0.200
-3.260E-06,0.220
-3.250E-06,0.240
-3.240E-06,0.260
-3.230E-06,0.280
-3.220E-06,0.220
-3.210E-06,0.240
-3.200E-06,0.220
-3.190E-06,0.180
-3.180E-06,0.160
-3.170E-06,0.140
-3.160E-06,0.140
-3.150E-06,0.120
-3.140E-06,0.120
-3.130E-06,0.100
-3.120E-06,0.100
-3.110E-06,0.040
-3.100E-06,0.080
-3.090E-06,0.000
-3.080E-06,-0.020
-3.070E-06,0.020
-3.060E-06,0.020
-3.050E-06,0.020
-3.040E-06,0.060
-3.030E-06,0.020
-3.020E-06,0.040
-3.010E-06,0.020
-3.000E-06,0.020
-2.990E-06,-0.020
-2.980E-06,0.040
-2.970E-06,0.060
-2.960E-06,0.040
-2.950E-06,0.000
-2.940E-06,0.040
-2.930E-06,0.020
-2.920E-06,0.020
-2.910E-06,0.040
-2.900E-06,0.020
-2.890E-06,0.040
-2.880E-06,0.060
-2.870E-06,0.060
-2.860E-06,0.060
-2.850E-06,0.080
-2.840E-06,0.060
-2.830E-06,0.080
-2.820E-06,0.080
-2.810E-06,0.180
-2.800E-06,0.180
-2.790E-06,0.160
-2.780E-06,0.200
-2.770E-06,0.160
-2.760E-06,-0.020
-2.750E-06,-0.320
-2.740E-06,-0.600
-2.730E-06,-0.580
-2.720E-06,-0.280
-2.710E-06,0.360
-2.700E-06,0.780
-2.690E-06,0.800
-2.680E-06,0.580
-2.670E-06,-0.060
-2.660E-06,-0.320
-2.650E-06,-0.460
-2.640E-06,-0.160
-2.630E-06,0.340
-2.620E-06,0.440
-2.610E-06,0.320
-2.600E-06,0.060
-2.590E-06,-0.160
-2.580E-06,-0.180
-2.570E-06,-0.080
-2.560E-06,0.080
-2.550E-06,0.180
-2.540E-06,0.100
-2.530E-06,-0.020
-2.520E-06,-0.100
-2.510E-06,-0.060
-2.500E-06,0.160
-2.490E-06,0.160
-2.480E-06,0.140
-2.470E-06,0.060
-2.460E-06,-0.040
-2.450E-06,0.020
-2.440E-06,0.100
-2.430E-06,0.240
-2.420E-06,0.300
-2.410E-06,0.200
-2.400E-06,0.080
-2.390E-06,0.060
-2.380E-06,0.040
-2.370E-06,0.120
-2.360E-06,0.240
-2.350E-06,0.220
-2.340E-06,0.200
-2.330E-06,0.120
-2.320E-06,0.040
-2.310E-06,0.040
-2.300E-06,0.020
-2.290E-06,0.100
-2.280E-06,0.080
-2.270E-06,0.060
-2.260E-06,0.100
-2.250E-06,0.100
-2.240E-06,0.100
-2.230E-06,0.160
-2.220E-06,0.100
-2.210E-06,0.080
-2.200E-06,0.060
-2.190E-06,0.100
-2.180E-06,0.180
-2.170E-06,0.220
-2.160E-06,0.260
-2.150E-06,0.260
-2.140E-06,0.140
-2.130E-06,-0.060
-2.120E-06,-0.240
-2.110E-06,-0.400
-2.100E-06,-0.460
-2.090E-06,-0.320
-2.080E-06,-0.040
-2.070E-06,0.200
-2.060E-06,0.360
-2.050E-06,0.380
-2.040E-06,0.180
-2.030E-06,0.020
-2.020E-06,0.040
-2.010E-06,0.140
-2.000E-06,0.160
-1.990E-06,0.280
-1.980E-06,0.240
-1.970E-06,0.240
-1.960E-06,0.320
-1.950E-06,0.240
-1.940E-06,0.280
-1.930E-06,0.340
-1.920E-06,0.380
-1.910E-06,0.360
-1.900E-06,0.460
-1.890E-06,0.460
-1.880E-06,0.440
-1.870E-06,0.400
-1.860E-06,0.300
-1.850E-06,0.300
-1.840E-06,0.260
-1.830E-06,0.220
-1.820E-06,0.240
-1.810E-06,0.220
-1.800E-06,0.160
-1.790E-06,0.160
-1.780E-06,0.060
-1.770E-06,-0.020
-1.760E-06,-0.020
-1.750E-06,-0.020
-1.740E-06,-0.040
-1.730E-06,0.020
-1.720E-06,0.020
-1.710E-06,0.040
-1.700E-06,0.100
-1.690E-06,0.040
-1.680E-06,0.000
-1.670E-06,0.000
-1.660E-06,-0.020
-1.650E-06,0.000
-1.640E-06,0.040
-1.630E-06,0.040
-1.620E-06,0.060
-1.610E-06,0.040
-1.600E-06,0.000
-1.590E-06,0.020
-1.580E-06,0.020
-1.570E-06,0.000
-1.560E-06,0.000
-1.550E-06,0.020
-1.540E-06,0.000
-1.530E-06,0.020
-1.520E-06,0.040
-1.510E-06,0.060
-1.500E-06,0.040
-1.490E-06,0.040
-1.480E-06,0.060
-1.470E-06,0.080
-1.460E-06,0.120
-1.450E-06,0.120
-1.440E-06,0.160
-1.430E-06,0.140
-1.420E-06,0.180
-1.410E-06,0.200
-1.400E-06,0.180
-1.390E-06,0.220
-1.380E-06,0.200
-1.370E-06,0.120
-1.360E-06,0.100
-1.350E-06,0.100
-1.340E-06,0.060
-1.330E-06,0.060
-1.320E-06,0.040
-1.310E-06,0.040
-1.300E-06,0.080
-1.290E-06,0.100
-1.280E-06,0.080
-1.270E-06,0.100
-1.260E-06,0.100
-1.250E-06,0.120
-1.240E-06,0.160
-1.230E-06,0.180
-1.220E-06,0.180
-1.210E-06,0.240
-1.200E-06,0.200
-1.190E-06,0.120
-1.180E-06,0.000
-1.170E-06,-0.080
-1.160E-06,-0.040
-1.150E-06,-0.260
-1.140E-06,-0.140
-1.130E-06,-0.280
-1.120E-06,-0.460
-1.110E-06,-0.100
-1.100E-06,-0.160
-1.090E-06,0.060
-1.080E-06,0.060
-1.070E-06,-0.020
-1.060E-06,-0.080
-1.050E-06,-0.020
-1.040E-06,0.140
-1.030E-06,0.500
-1.020E-06,0.840
-1.010E-06,0.860
-1.000E-06,0.880
-9.900E-07,0.680
-9.800E-07,0.560
-9.700E-07,0.500
-9.600E-07,0.440
-9.500E-07,0.340
-9.400E-07,0.240
-9.300E-07,0.340
-9.200E-07,0.280
-9.100E-07,0.560
-9.000E-07,0.440
-8.900E-07,0.380
-8.800E-07,0.160
-8.700E-07,0.000
-8.600E-07,0.060
-8.500E-07,0.140
-8.400E-07,0.240
-8.300E-07,0.320
-8.200E-07,0.300
-8.100E-07,0.120
-8.000E-07,0.180
-7.900E-07,0.080
-7.800E-07,0.220
-7.700E-07,0.420
-7.600E-07,0.440
-7.500E-07,0.500
-7.400E-07,0.520
-7.300E-07,0.320
-7.200E-07,0.360
-7.100E-07,0.160
-7.000E-07,0.240
-6.900E-07,0.080
-6.800E-07,0.000
-6.700E-07,0.080
-6.600E-07,-0.360
-6.500E-07,0.060
-6.400E-07,0.080
-6.300E-07,-0.260
-6.200E-07,0.160
-6.100E-07,-0.160
-6.000E-07,-0.140
-5.900E-07,0.060
-5.800E-07,-0.140
-5.700E-07,-0.040
-5.600E-07,0.280
-5.500E-07,0.320
-5.400E-07,0.340
-5.300E-07,0.440
-5.200E-07,0.400
-5.100E-07,0.420
-5.000E-07,0.520
-4.900E-07,0.660
-4.800E-07,0.500
-4.700E-07,0.640
-4.600E-07,0.560
-4.500E-07,0.440
-4.400E-07,0.440
-4.300E-07,0.340
-4.200E-07,0.320
-4.100E-07,0.360
-4.000E-07,0.320
-3.900E-07,0.320
-3.800E-07,0.340
-3.700E-07,0.240
-3.600E-07,0.240
-3.500E-07,0.260
-3.400E-07,0.240
-3.300E-07,0.260
-3.200E-07,0.320
-3.100E-07,0.340
-3.000E-07,0.340
-2.900E-07,0.380
-2.800E-07,0.420
-2.700E-07,0.380
-2.600E-07,0.380
-2.500E-07,0.340
-2.400E-07,0.320
-2.300E-07,0.240
-2.200E-07,0.160
-2.100E-07,0.020
-2.000E-07,-0.020
-1.900E-07,-0.220
-1.800E-07,-0.360
-1.700E-07,-0.340
-1.600E-07,-0.400
-1.500E-07,-0.540
-1.400E-07,-0.680
-1.300E-07,-0.680
-1.200E-07,-1.020
-1.100E-07,-1.440
-1.000E-07,-1.480
-9.000E-08,-1.100
-8.000E-08,-0.660
-7.000E-08,-0.020
-6.000E-08,0.940
-5.000E-08,0.500
-4.000E-08,0.600
-3.000E-08,0.000
-2.000E-08,-0.980
-1.000E-08,0.000
0.000E+00,0.240
1.000E-08,1.260
2.000E-08,2.260
3.000E-08,1.780
4.000E-08,1.440
5.000E-08,0.880
6.000E-08,0.320
7.000E-08,0.760
8.000E-08,1.160
9.000E-08,1.380
1.000E-07,1.620
1.100E-07,1.460
1.200E-07,0.820
1.300E-07,0.280
1.400E-07,-0.040
1.500E-07,-0.360
1.600E-07,-0.380
1.700E-07,-0.340
1.800E-07,-0.440
1.900E-07,-0.220
2.000E-07,-0.420
2.100E-07,-0.440
2.200E-07,-0.660
2.300E-07,-0.860
2.400E-07,-0.680
2.500E-07,-0.640
2.600E-07,-0.300
2.700E-07,-0.200
2.800E-07,0.240
2.900E-07,-0.060
3.000E-07,-0.060
3.100E-07,-0.020
3.200E-07,-0.400
3.300E-07,-0.160
3.400E-07,-0.140
3.500E-07,-0.120
3.600E-07,-0.220
3.700E-07,-0.360
3.800E-07,-0.720
3.900E-07,-0.580
4.000E-07,-0.720
4.100E-07,-0.660
4.200E-07,-0.340
4.300E-07,-0.380
4.400E-07,-0.260
4.500E-07,-0.060
4.600E-07,-0.180
4.700E-07,-0.120
4.800E-07,0.020
4.900E-07,0.040
5.000E-07,0.220
5.100E-07,0.380
5.200E-07,0.520
5.300E-07,0.520
5.400E-07,0.700
5.500E-07,0.560
5.600E-07,0.460
5.700E-07,0.600
5.800E-07,0.480
5.900E-07,0.620
6.000E-07,0.640
6.100E-07,0.600
6.200E-07,0.600
6.300E-07,0.480
6.400E-07,0.400
6.500E-07,0.380
6.600E-07,0.340
6.700E-07,0.340
6.800E-07,0.380
6.900E-07,0.340
7.000E-07,0.340
7.100E-07,0.320
7.200E-07,0.320
7.300E-07,0.400
7.400E-07,0.360
7.500E-07,0.400
7.600E-07,0.340
7.700E-07,0.300
7.800E-07,0.220
7.900E-07,0.120
8.000E-07,-0.040
8.100E-07,-0.160
8.200E-07,-0.260
8.300E-07,-0.300
8.400E-07,-0.400
8.500E-07,-0.440
8.600E-07,-0.520
8.700E-07,-0.640
8.800E-07,-0.680
8.900E-07,-0.660
9.000E-07,-0.640
9.100E-07,-0.520
9.200E-07,-0.520
9.300E-07,-0.780
9.400E-07,-0.740
9.500E-07,-0.840
9.600E-07,-0.820
9.700E-07,-0.440
9.800E-07,-0.520
9.900E-07,0.760
1.000E-06,0.380
1.010E-06,0.540
1.020E-06,0.480
1.030E-06,-1.860
1.040E-06,-0.980
1.050E-06,-0.940
1.060E-06,-2.020
1.070E-06,0.000
1.080E-06,-0.920
1.090E-06,-0.900
1.100E-06,0.000
1.110E-06,-0.740
1.120E-06,0.160
1.130E-06,0.900
1.140E-06,0.840
1.150E-06,1.840
1.160E-06,2.040
1.170E-06,2.140
1.180E-06,2.620
1.190E-06,2.580
1.200E-06,2.340
1.210E-06,2.280
1.220E-06,2.020
1.230E-06,1.760
1.240E-06,1.600
1.250E-06,1.300
1.260E-06,0.860
1.270E-06,0.340
1.280E-06,-0.260
1.290E-06,-0.780
1.300E-06,-0.940
1.310E-06,-1.120
1.320E-06,-1.180
1.330E-06,-1.220
1.340E-06,-1.340
1.350E-06,-1.500
1.360E-06,-1.460
1.370E-06,-1.460
1.380E-06,-1.340
1.390E-06,-1.100
1.400E-06,-0.840
1.410E-06,-0.520
1.420E-06,-0.300
1.430E-06,-0.240
1.440E-06,-0.260
1.450E-06,-0.400
1.460E-06,-0.460
1.470E-06,-0.540
1.480E-06,-0.580
1.490E-06,-0.560
1.500E-06,-0.560
1.510E-06,-0.540
1.520E-06,-0.520
1.530E-06,-0.600
1.540E-06,-0.600
1.550E-06,-0.640
1.560E-06,-0.600
1.570E-06,-0.500
1.580E-06,-0.360
1.590E-06,-0.160
1.600E-06,-0.060
1.610E-06,0.080
1.620E-06,0.160
1.630E-06,0.320
1.640E-06,0.400
1.650E-06,0.460
1.660E-06,0.520
1.670E-06,0.520
1.680E-06,0.480
1.690E-06,0.340
1.700E-06,0.260
1.710E-06,0.220
1.720E-06,0.240
1.730E-06,0.240
1.740E-06,0.120
1.750E-06,0.000
1.760E-06,-0.100
1.770E-06,-0.300
1.780E-06,-0.340
1.790E-06,-0.440
1.800E-06,-0.580
1.810E-06,-0.620
1.820E-06,-0.560
1.830E-06,-0.360
1.840E-06,-0.120
1.850E-06,0.060
1.860E-06,0.160
1.870E-06,0.220
1.880E-06,0.040
1.890E-06,0.120
1.900E-06,0.000
1.910E-06,-0.100
1.920E-06,-0.080
1.930E-06,-0.280
1.940E-06,-0.320
1.950E-06,-0.240
1.960E-06,-0.340
1.970E-06,-0.280
1.980E-06,-0.300
1.990E-06,-0.320
2.000E-06,-0.240
2.010E-06,-0.300
2.020E-06,-0.180
2.030E-06,-0.100
2.040E-06,-0.040
2.050E-06,0.000
2.060E-06,0.120
2.070E-06,0.080
2.080E-06,0.100
2.090E-06,0.060
2.100E-06,-0.160
2.110E-06,-0.240
2.120E-06,-0.400
2.130E-06,-0.600
2.140E-06,-0.680
2.150E-06,-0.840
2.160E-06,-0.880
2.170E-06,-0.940
2.180E-06,-1.040
2.190E-06,-1.180
2.200E-06,-1.340
2.210E-06,-1.560
2.220E-06,-1.700
2.230E-06,-1.900
2.240E-06,-1.980
2.250E-06,-1.960
2.260E-06,-1.960
2.270E-06,-1.900
2.280E-06,-1.880
2.290E-06,-1.840
2.300E-06,-1.760
2.310E-06,-1.700
2.320E-06,-1.620
2.330E-06,-1.480
2.340E-06,-1.340
2.350E-06,-1.180
2.360E-06,-1.000
2.370E-06,-0.860
2.380E-06,-0.720
2.390E-06,-0.580
2.400E-06,-0.500
2.410E-06,-0.360
2.420E-06,-0.360
2.430E-06,-0.320
2.440E-06,-0.300
2.450E-06,-0.280
2.460E-06,-0.280
2.470E-06,-0.240
2.480E-06,-0.260
2.490E-06,-0.260
2.500E-06,-0.260
2.510E-06,-0.260
2.520E-06,-0.260
2.530E-06,-0.340
2.540E-06,-0.340
2.550E-06,-0.400
2.560E-06,-0.440
2.570E-06,-0.400
2.580E-06,-0.400
2.590E-06,-0.400
2.600E-06,-0.380
2.610E-06,-0.380
2.620E-06,-0.400
2.630E-06,-0.420
2.640E-06,-0.440
2.650E-06,-0.480
2.660E-06,-0.460
2.670E-06,-0.460
2.680E-06,-0.440
2.690E-06,-0.380
2.700E-06,-0.360
2.710E-06,-0.340
2.720E-06,-0.320
2.730E-06,-0.300
2.740E-06,-0.300
2.750E-06,-0.260
2.760E-06,-0.260
2.770E-06,-0.260
2.780E-06,-0.260
2.790E-06,-0.200
2.800E-06,-0.240
2.810E-06,-0.180
2.820E-06,-0.180
2.830E-06,-0.180
2.840E-06,-0.200
2.850E-06,-0.220
2.860E-06,-0.280
2.870E-06,-0.300
2.880E-06,-0.340
2.890E-06,-0.360
2.900E-06,-0.340
2.910E-06,-0.360
2.920E-06,-0.320
2.930E-06,-0.260
2.940E-06,-0.260
2.950E-06,-0.240
2.960E-06,-0.200
2.970E-06,-0.160
2.980E-06,-0.160
2.990E-06,-0.120
3.000E-06,-0.060
3.010E-06,-0.020
3.020E-06,0.000
3.030E-06,0.040
3.040E-06,0.080
3.050E-06,0.100
3.060E-06,0.100
3.070E-06,0.100
3.080E-06,0.100
3.090E-06,0.060
3.100E-06,0.080
3.110E-06,0.080
3.120E-06,0.040
3.130E-06,0.040
3.140E-06,0.060
3.150E-06,0.080
3.160E-06,0.020
3.170E-06,0.020
3.180E-06,0.000
3.190E-06,-0.020
3.200E-06,-0.060
3.210E-06,-0.080
3.220E-06,-0.080
3.230E-06,-0.100
3.240E-06,-0.100
3.250E-06,-0.080
3.260E-06,-0.100
3.270E-06,-0.140
3.280E-06,-0.140
3.290E-06,-0.140
3.300E-06,-0.160
3.310E-06,-0.160
3.320E-06,-0.180
3.330E-06,-0.180
3.340E-06,-0.180
3.350E-06,-0.140
3.360E-06,-0.140
3.370E-06,-0.080
3.380E-06,-0.080
3.390E-06,-0.080
3.400E-06,-0.040
3.410E-06,-0.080
3.420E-06,-0.160
3.430E-06,-0.160
3.440E-06,-0.180
3.450E-06,-0.160
3.460E-06,-0.180
3.470E-06,-0.160
3.480E-06,-0.180
3.490E-06,-0.160
3.500E-06,-0.160
3.510E-06,-0.140
3.520E-06,-0.160
3.530E-06,-0.140
3.540E-06,-0.180
3.550E-06,-0.160
3.560E-06,-0.120
3.570E-06,-0.080
3.580E-06,-0.020
3.590E-06,0.060
3.600E-06,0.160
3.610E-06,0.240
3.620E-06,0.260
3.630E-06,0.340
3.640E-06,0.280
3.650E-06,0.280
3.660E-06,0.260
3.670E-06,0.220
3.680E-06,0.180
3.690E-06,0.100
3.700E-06,0.020
3.710E-06,-0.060
3.720E-06,-0.160
3.730E-06,-0.200
3.740E-06,-0.260
3.750E-06,-0.220
3.760E-06,-0.200
3.770E-06,-0.220
3.780E-06,-0.240
3.790E-06,-0.200
3.800E-06,-0.180
3.810E-06,-0.180
3.820E-06,-0.180
3.830E-06,-0.140
3.840E-06,-0.100
3.850E-06,-0.100
3.860E-06,-0.060
3.870E-06,-0.060
3.880E-06,-0.100
3.890E-06,-0.080
3.900E-06,-0.060
3.910E-06,-0.040
3.920E-06,0.020
3.930E-06,0.020
3.940E-06,-0.060
3.950E-06,0.000
3.960E-06,0.000
3.970E-06,0.000
3.980E-06,0.060
3.990E-06,0.080
4.000E-06,0.040
4.010E-06,0.080
4.020E-06,0.060
4.030E-06,0.080
4.040E-06,0.060
4.050E-06,0.080
4.060E-06,0.080
4.070E-06,0.040
4.080E-06,0.020
4.090E-06,0.020
4.100E-06,0.000
4.110E-06,-0.060
4.120E-06,-0.120
4.130E-06,-0.180
4.140E-06,-0.200
4.150E-06,-0.200
4.160E-06,-0.160
4.170E-06,-0.160
4.180E-06,-0.160
4.190E-06,-0.120
4.200E-06,-0.140
4.210E-06,-0.120
4.220E-06,-0.100
4.230E-06,-0.100
4.240E-06,-0.060
4.250E-06,-0.060
4.260E-06,-0.060
4.270E-06,-0.060
4.280E-06,-0.080
4.290E-06,-0.060
4.300E-06,-0.080
4.310E-06,-0.060
4.320E-06,-0.060
4.330E-06,0.020
4.340E-06,0.020
4.350E-06,0.020
4.360E-06,0.020
4.370E-06,0.040
4.380E-06,0.060
4.390E-06,0.100
4.400E-06,0.080
4.410E-06,0.100
4.420E-06,0.100
4.430E-06,0.180
4.440E-06,0.180
4.450E-06,0.280
4.460E-06,0.240
4.470E-06,0.260
4.480E-06,0.200
4.490E-06,0.140
4.500E-06,0.080
4.510E-06,0.040
4.520E-06,-0.060
4.530E-06,-0.060
4.540E-06,-0.120
4.550E-06,-0.160
4.560E-06,-0.140
4.570E-06,-0.160
4.580E-06,-0.160
4.590E-06,-0.160
4.600E-06,-0.160
4.610E-06,-0.180
4.620E-06,-0.160
4.630E-06,-0.120
4.640E-06,-0.100
4.650E-06,-0.060
4.660E-06,0.000
4.670E-06,0.040
4.680E-06,0.060
4.690E-06,0.100
4.700E-06,0.120
4.710E-06,0.120
4.720E-06,0.140
4.730E-06,0.140
4.740E-06,0.180
4.750E-06,0.160
4.760E-06,0.160
4.770E-06,0.180
4.780E-06,0.160
4.790E-06,0.200
4.800E-06,0.200
4.810E-06,0.200
4.820E-06,0.260
4.830E-06,0.280
4.840E-06,0.300
4.850E-06,0.320
4.860E-06,0.320
4.870E-06,0.320
4.880E-06,0.280
4.890E-06,0.220
4.900E-06,0.180
4.910E-06,0.100
4.920E-06,0.020
4.930E-06,-0.040
4.940E-06,-0.100
4.950E-06,-0.180
4.960E-06,-0.200
4.970E-06,-0.180
4.980E-06,-0.200
4.990E-06,-0.180
5.000E-06,-0.160
5.010E-06,-0.140
5.020E-06,-0.100
5.030E-06,-0.060
5.040E-06,0.000
5.050E-06,0.100
5.060E-06,0.180
5.070E-06,0.260
5.080E-06,0.340
5.090E-06,0.420
5.100E-06,0.460
5.110E-06,0.520
5.120E-06,0.560
5.130E-06,0.600
5.140E-06,0.600
5.150E-06,0.540
5.160E-06,0.480
5.170E-06,0.380
5.180E-06,0.340
5.190E-06,0.260
5.200E-06,0.180
5.210E-06,0.080
5.220E-06,0.040
5.230E-06,0.040
5.240E-06,0.020
5.250E-06,0.020
5.260E-06,0.020
5.270E-06,0.020
5.280E-06,0.080
5.290E-06,0.120
5.300E-06,0.160
5.310E-06,0.200
5.320E-06,0.220
5.330E-06,0.180
5.340E-06,0.160
5.350E-06,0.100
5.360E-06,0.080
5.370E-06,0.040
5.380E-06,-0.020
5.390E-06,-0.040
5.400E-06,-0.040
5.410E-06,-0.060
5.420E-06,-0.060
5.430E-06,-0.060
5.440E-06,-0.060
5.450E-06,-0.060
5.460E-06,-0.060
5.470E-06,-0.040
5.480E-06,0.000
5.490E-06,0.060
5.500E-06,0.120
5.510E-06,0.180
5.520E-06,0.220
5.530E-06,0.340
5.540E-06,0.420
5.550E-06,0.440
5.560E-06,0.480
5.570E-06,0.480
5.580E-06,0.480
5.590E-06,0.440
5.600E-06,0.420
5.610E-06,0.400
5.620E-06,0.400
5.630E-06,0.380
5.640E-06,0.340
5.650E-06,0.340
5.660E-06,0.340
5.670E-06,0.360
5.680E-06,0.380
5.690E-06,0.360
5.700E-06,0.380
5.710E-06,0.360
5.720E-06,0.360
5.730E-06,0.380
5.740E-06,0.360
5.750E-06,0.400
5.760E-06,0.360
5.770E-06,0.360
5.780E-06,0.360
5.790E-06,0.380
5.800E-06,0.380
5.810E-06,0.380
5.820E-06,0.380
5.830E-06,0.380
5.840E-06,0.400
5.850E-06,0.400
5.860E-06,0.480
5.870E-06,0.540
5.880E-06,0.600
5.890E-06,0.700
5.900E-06,0.800
5.910E-06,0.840
5.920E-06,0.920
5.930E-06,0.940
5.940E-06,0.980
5.950E-06,1.060
5.960E-06,1.180
5.970E-06,1.300
5.980E-06,1.460
5.990E-06,1.700
6.000E-06,1.980
6.010E-06,2.260
6.020E-06,2.580
6.030E-06,2.740
6.040E-06,2.760
6.050E-06,2.760
6.060E-06,2.780
6.070E-06,2.760
6.080E-06,2.740
6.090E-06,2.760
6.100E-06,2.760
6.110E-06,2.760
6.120E-06,2.580
6.130E-06,2.440
6.140E-06,2.200
6.150E-06,2.080
6.160E-06,1.980
6.170E-06,1.880
6.180E-06,1.800
6.190E-06,1.680
6.200E-06,1.540
6.210E-06,1.340
6.220E-06,1.160
6.230E-06,1.020
6.240E-06,0.880
6.250E-06,0.780
6.260E-06,0.760
6.270E-06,0.680
6.280E-06,0.580
6.290E-06,0.540
6.300E-06,0.460
6.310E-06,0.440
6.320E-06,0.400
6.330E-06,0.340
6.340E-06,0.380
6.350E-06,0.420
6.360E-06,0.420
6.370E-06,0.420
6.380E-06,0.440
6.390E-06,0.480
6.400E-06,0.480
6.410E-06,0.440
6.420E-06,0.440
6.430E-06,0.420
6.440E-06,0.420
6.450E-06,0.380
6.460E-06,0.420
6.470E-06,0.400
6.480E-06,0.400
6.490E-06,0.400
6.500E-06,0.400
6.510E-06,0.360
6.520E-06,0.320
6.530E-06,0.380
6.540E-06,0.400
6.550E-06,0.340
6.560E-06,0.340
6.570E-06,0.360
6.580E-06,0.320
6.590E-06,0.320
6.600E-06,0.320
6.610E-06,0.260
6.620E-06,0.260
6.630E-06,0.220
6.640E-06,0.200
6.650E-06,0.220
6.660E-06,0.260
6.670E-06,0.260
6.680E-06,0.320
6.690E-06,0.320
6.700E-06,0.340
6.710E-06,0.340
6.720E-06,0.360
6.730E-06,0.360
6.740E-06,0.340
6.750E-06,0.320
6.760E-06,0.360
6.770E-06,0.380
6.780E-06,0.360
6.790E-06,0.340
6.800E-06,0.380
6.810E-06,0.340
6.820E-06,0.340
6.830E-06,0.320
6.840E-06,0.300
6.850E-06,0.300
6.860E-06,0.260
6.870E-06,0.260
6.880E-06,0.240
6.890E-06,0.240
6.900E-06,0.260
6.910E-06,0.240
6.920E-06,0.260
6.930E-06,0.240
6.940E-06,0.220
6.950E-06,0.220
6.960E-06,0.220
6.970E-06,0.220
6.980E-06,0.220
6.990E-06,0.220
7.000E-06,0.280
7.010E-06,0.260
7.020E-06,0.260
7.030E-06,0.240
7.040E-06,0.240
7.050E-06,0.220
7.060E-06,0.220
7.070E-06,0.240
7.080E-06,0.280
7.090E-06,0.300
7.100E-06,0.320
7.110E-06,0.300
7.120E-06,0.340
7.130E-06,0.360
7.140E-06,0.360
7.150E-06,0.380
7.160E-06,0.460
7.170E-06,0.460
7.180E-06,0.500
7.190E-06,0.520
7.200E-06,0.500
7.210E-06,0.520
7.220E-06,0.520
7.230E-06,0.500
7.240E-06,0.460
7.250E-06,0.360
7.260E-06,0.340
7.270E-06,0.300
7.280E-06,0.260
7.290E-06,0.240
7.300E-06,0.240
7.310E-06,0.240
7.320E-06,0.260
7.330E-06,0.300
7.340E-06,0.320
7.350E-06,0.340
7.360E-06,0.360
7.370E-06,0.340
7.380E-06,0.340
7.390E-06,0.340
7.400E-06,0.300
7.410E-06,0.300
7.420E-06,0.320
7.430E-06,0.320
7.440E-06,0.320
7.450E-06,0.300
7.460E-06,0.320
7.470E-06,0.320
7.480E-06,0.300
7.490E-06,0.320
7.500E-06,0.320
7.510E-06,0.340
7.520E-06,0.340
7.530E-06,0.380
7.540E-06,0.380
7.550E-06,0.400
7.560E-06,0.400
7.570E-06,0.360
7.580E-06,0.380
7.590E-06,0.340
7.600E-06,0.360
7.610E-06,0.360
7.620E-06,0.360
7.630E-06,0.400
7.640E-06,0.380
7.650E-06,0.380
7.660E-06,0.420
7.670E-06,0.380
7.680E-06,0.420
7.690E-06,0.420
7.700E-06,0.460
7.710E-06,0.440
7.720E-06,0.440
