mediciones/5-15/64.4/WaveData47253.csv

#timebase=2000000(ps)
,#voltbase=100000(mv/100)
#size=4000
-8.400E-06,0.004
-8.390E-06,-0.004
-8.380E-06,0.000
-8.370E-06,0.004
-8.360E-06,-0.004
-8.350E-06,0.004
-8.340E-06,0.004
-8.330E-06,0.000
-8.320E-06,0.008
-8.310E-06,0.000
-8.300E-06,0.000
-8.290E-06,0.004
-8.280E-06,0.000
-8.270E-06,0.008
-8.260E-06,0.004
-8.250E-06,0.008
-8.240E-06,0.000
-8.230E-06,0.000
-8.220E-06,0.000
-8.210E-06,0.000
-8.200E-06,0.000
-8.190E-06,0.004
-8.180E-06,-0.004
-8.170E-06,0.004
-8.160E-06,0.000
-8.150E-06,0.004
-8.140E-06,0.008
-8.130E-06,0.008
-8.120E-06,0.004
-8.110E-06,0.004
-8.100E-06,0.008
-8.090E-06,0.012
-8.080E-06,0.008
-8.070E-06,0.000
-8.060E-06,0.004
-8.050E-06,0.004
-8.040E-06,0.000
-8.030E-06,0.004
-8.020E-06,0.004
-8.010E-06,0.004
-8.000E-06,0.004
-7.990E-06,0.004
-7.980E-06,0.000
-7.970E-06,0.004
-7.960E-06,0.004
-7.950E-06,0.004
-7.940E-06,0.000
-7.930E-06,0.000
-7.920E-06,0.004
-7.910E-06,0.000
-7.900E-06,0.004
-7.890E-06,0.008
-7.880E-06,0.008
-7.870E-06,0.000
-7.860E-06,0.000
-7.850E-06,0.000
-7.840E-06,0.004
-7.830E-06,0.000
-7.820E-06,0.000
-7.810E-06,0.008
-7.800E-06,0.008
-7.790E-06,0.004
-7.780E-06,0.000
-7.770E-06,0.000
-7.760E-06,-0.004
-7.750E-06,-0.004
-7.740E-06,0.004
-7.730E-06,0.004
-7.720E-06,0.004
-7.710E-06,0.004
-7.700E-06,0.000
-7.690E-06,0.000
-7.680E-06,0.000
-7.670E-06,0.004
-7.660E-06,0.012
-7.650E-06,0.000
-7.640E-06,0.004
-7.630E-06,0.004
-7.620E-06,0.008
-7.610E-06,0.000
-7.600E-06,-0.004
-7.590E-06,0.004
-7.580E-06,0.000
-7.570E-06,0.000
-7.560E-06,0.008
-7.550E-06,0.008
-7.540E-06,0.000
-7.530E-06,0.000
-7.520E-06,0.004
-7.510E-06,0.000
-7.500E-06,0.000
-7.490E-06,0.008
-7.480E-06,0.000
-7.470E-06,0.000
-7.460E-06,0.000
-7.450E-06,0.004
-7.440E-06,0.000
-7.430E-06,0.008
-7.420E-06,0.004
-7.410E-06,0.000
-7.400E-06,0.000
-7.390E-06,0.008
-7.380E-06,0.004
-7.370E-06,-0.004
-7.360E-06,0.004
-7.350E-06,0.000
-7.340E-06,0.000
-7.330E-06,0.004
-7.320E-06,0.004
-7.310E-06,0.000
-7.300E-06,0.004
-7.290E-06,0.008
-7.280E-06,-0.004
-7.270E-06,0.004
-7.260E-06,0.000
-7.250E-06,0.004
-7.240E-06,0.000
-7.230E-06,0.004
-7.220E-06,0.000
-7.210E-06,0.000
-7.200E-06,0.004
-7.190E-06,0.004
-7.180E-06,0.000
-7.170E-06,0.000
-7.160E-06,0.004
-7.150E-06,0.008
-7.140E-06,0.004
-7.130E-06,0.000
-7.120E-06,0.008
-7.110E-06,0.004
-7.100E-06,0.000
-7.090E-06,0.004
-7.080E-06,-0.004
-7.070E-06,0.004
-7.060E-06,0.004
-7.050E-06,0.008
-7.040E-06,0.004
-7.030E-06,0.004
-7.020E-06,0.000
-7.010E-06,0.000
-7.000E-06,0.000
-6.990E-06,0.000
-6.980E-06,0.000
-6.970E-06,0.000
-6.960E-06,0.008
-6.950E-06,0.000
-6.940E-06,0.004
-6.930E-06,-0.004
-6.920E-06,-0.004
-6.910E-06,0.000
-6.900E-06,0.012
-6.890E-06,0.000
-6.880E-06,0.004
-6.870E-06,0.008
-6.860E-06,0.000
-6.850E-06,0.000
-6.840E-06,-0.004
-6.830E-06,0.012
-6.820E-06,0.004
-6.810E-06,0.004
-6.800E-06,0.004
-6.790E-06,0.004
-6.780E-06,0.004
-6.770E-06,0.000
-6.760E-06,0.000
-6.750E-06,0.008
-6.740E-06,0.008
-6.730E-06,-0.004
-6.720E-06,0.008
-6.710E-06,-0.004
-6.700E-06,0.004
-6.690E-06,0.008
-6.680E-06,0.008
-6.670E-06,-0.004
-6.660E-06,0.004
-6.650E-06,0.000
-6.640E-06,-0.004
-6.630E-06,0.000
-6.620E-06,0.008
-6.610E-06,0.004
-6.600E-06,0.004
-6.590E-06,0.008
-6.580E-06,0.000
-6.570E-06,0.000
-6.560E-06,0.000
-6.550E-06,0.000
-6.540E-06,0.008
-6.530E-06,0.008
-6.520E-06,0.008
-6.510E-06,0.000
-6.500E-06,-0.004
-6.490E-06,-0.004
-6.480E-06,0.000
-6.470E-06,0.000
-6.460E-06,0.004
-6.450E-06,0.000
-6.440E-06,0.000
-6.430E-06,-0.004
-6.420E-06,-0.004
-6.410E-06,0.008
-6.400E-06,0.004
-6.390E-06,0.004
-6.380E-06,0.004
-6.370E-06,0.004
-6.360E-06,0.004
-6.350E-06,0.004
-6.340E-06,0.004
-6.330E-06,0.004
-6.320E-06,0.004
-6.310E-06,0.000
-6.300E-06,0.004
-6.290E-06,0.004
-6.280E-06,0.000
-6.270E-06,0.000
-6.260E-06,0.004
-6.250E-06,0.004
-6.240E-06,-0.004
-6.230E-06,0.000
-6.220E-06,0.008
-6.210E-06,0.008
-6.200E-06,0.000
-6.190E-06,0.000
-6.180E-06,0.000
-6.170E-06,0.004
-6.160E-06,0.008
-6.150E-06,0.004
-6.140E-06,0.000
-6.130E-06,0.004
-6.120E-06,0.004
-6.110E-06,-0.004
-6.100E-06,0.004
-6.090E-06,0.004
-6.080E-06,0.008
-6.070E-06,0.004
-6.060E-06,0.004
-6.050E-06,0.000
-6.040E-06,0.004
-6.030E-06,0.000
-6.020E-06,0.004
-6.010E-06,0.004
-6.000E-06,0.004
-5.990E-06,-0.004
-5.980E-06,-0.004
-5.970E-06,0.004
-5.960E-06,0.004
-5.950E-06,0.004
-5.940E-06,0.004
-5.930E-06,0.004
-5.920E-06,0.000
-5.910E-06,-0.004
-5.900E-06,0.000
-5.890E-06,0.004
-5.880E-06,0.004
-5.870E-06,0.004
-5.860E-06,0.000
-5.850E-06,0.008
-5.840E-06,0.000
-5.830E-06,0.000
-5.820E-06,0.000
-5.810E-06,0.000
-5.800E-06,0.004
-5.790E-06,0.004
-5.780E-06,0.000
-5.770E-06,0.000
-5.760E-06,-0.004
-5.750E-06,-0.004
-5.740E-06,0.008
-5.730E-06,-0.008
-5.720E-06,0.008
-5.710E-06,0.000
-5.700E-06,0.004
-5.690E-06,0.004
-5.680E-06,0.004
-5.670E-06,0.000
-5.660E-06,0.000
-5.650E-06,0.008
-5.640E-06,0.004
-5.630E-06,0.000
-5.620E-06,0.008
-5.610E-06,0.004
-5.600E-06,0.004
-5.590E-06,0.004
-5.580E-06,0.004
-5.570E-06,0.004
-5.560E-06,0.004
-5.550E-06,0.004
-5.540E-06,0.008
-5.530E-06,-0.004
-5.520E-06,0.000
-5.510E-06,0.000
-5.500E-06,0.000
-5.490E-06,0.000
-5.480E-06,0.000
-5.470E-06,0.004
-5.460E-06,0.000
-5.450E-06,0.004
-5.440E-06,0.004
-5.430E-06,0.004
-5.420E-06,0.004
-5.410E-06,0.004
-5.400E-06,0.004
-5.390E-06,-0.004
-5.380E-06,0.000
-5.370E-06,0.000
-5.360E-06,0.000
-5.350E-06,0.004
-5.340E-06,0.008
-5.330E-06,0.004
-5.320E-06,0.004
-5.310E-06,0.004
-5.300E-06,0.004
-5.290E-06,-0.004
-5.280E-06,0.000
-5.270E-06,0.004
-5.260E-06,0.000
-5.250E-06,0.000
-5.240E-06,0.004
-5.230E-06,0.004
-5.220E-06,0.004
-5.210E-06,0.000
-5.200E-06,0.004
-5.190E-06,0.000
-5.180E-06,0.004
-5.170E-06,0.004
-5.160E-06,0.004
-5.150E-06,0.000
-5.140E-06,0.012
-5.130E-06,0.008
-5.120E-06,-0.004
-5.110E-06,0.000
-5.100E-06,0.004
-5.090E-06,0.000
-5.080E-06,0.000
-5.070E-06,0.004
-5.060E-06,0.004
-5.050E-06,0.004
-5.040E-06,-0.004
-5.030E-06,0.000
-5.020E-06,0.000
-5.010E-06,0.004
-5.000E-06,0.004
-4.990E-06,0.008
-4.980E-06,0.004
-4.970E-06,0.004
-4.960E-06,0.004
-4.950E-06,0.000
-4.940E-06,0.000
-4.930E-06,0.004
-4.920E-06,0.004
-4.910E-06,0.004
-4.900E-06,0.004
-4.890E-06,0.008
-4.880E-06,0.000
-4.870E-06,0.000
-4.860E-06,0.000
-4.850E-06,0.004
-4.840E-06,0.004
-4.830E-06,0.004
-4.820E-06,0.000
-4.810E-06,0.008
-4.800E-06,0.008
-4.790E-06,0.008
-4.780E-06,0.000
-4.770E-06,-0.008
-4.760E-06,0.008
-4.750E-06,0.000
-4.740E-06,0.004
-4.730E-06,0.008
-4.720E-06,0.004
-4.710E-06,0.004
-4.700E-06,0.008
-4.690E-06,0.000
-4.680E-06,0.000
-4.670E-06,-0.004
-4.660E-06,0.000
-4.650E-06,0.004
-4.640E-06,0.004
-4.630E-06,0.008
-4.620E-06,0.008
-4.610E-06,0.004
-4.600E-06,0.000
-4.590E-06,-0.004
-4.580E-06,-0.004
-4.570E-06,0.000
-4.560E-06,0.008
-4.550E-06,0.008
-4.540E-06,0.008
-4.530E-06,0.004
-4.520E-06,0.004
-4.510E-06,0.000
-4.500E-06,0.004
-4.490E-06,-0.004
-4.480E-06,0.000
-4.470E-06,0.004
-4.460E-06,0.012
-4.450E-06,0.008
-4.440E-06,0.004
-4.430E-06,0.004
-4.420E-06,0.000
-4.410E-06,-0.004
-4.400E-06,-0.004
-4.390E-06,0.004
-4.380E-06,0.004
-4.370E-06,0.008
-4.360E-06,0.012
-4.350E-06,0.008
-4.340E-06,-0.008
-4.330E-06,-0.008
-4.320E-06,-0.004
-4.310E-06,0.008
-4.300E-06,0.012
-4.290E-06,0.008
-4.280E-06,0.008
-4.270E-06,0.000
-4.260E-06,0.004
-4.250E-06,-0.004
-4.240E-06,-0.004
-4.230E-06,0.000
-4.220E-06,0.000
-4.210E-06,0.008
-4.200E-06,0.012
-4.190E-06,0.004
-4.180E-06,0.008
-4.170E-06,0.004
-4.160E-06,-0.004
-4.150E-06,-0.004
-4.140E-06,0.000
-4.130E-06,0.008
-4.120E-06,0.008
-4.110E-06,0.008
-4.100E-06,0.004
-4.090E-06,0.000
-4.080E-06,0.000
-4.070E-06,-0.004
-4.060E-06,-0.004
-4.050E-06,0.008
-4.040E-06,0.008
-4.030E-06,0.012
-4.020E-06,0.004
-4.010E-06,-0.004
-4.000E-06,-0.004
-3.990E-06,-0.004
-3.980E-06,0.004
-3.970E-06,0.008
-3.960E-06,0.004
-3.950E-06,0.004
-3.940E-06,0.004
-3.930E-06,0.004
-3.920E-06,-0.008
-3.910E-06,0.004
-3.900E-06,-0.004
-3.890E-06,0.004
-3.880E-06,0.008
-3.870E-06,0.004
-3.860E-06,0.000
-3.850E-06,0.004
-3.840E-06,-0.004
-3.830E-06,0.000
-3.820E-06,0.000
-3.810E-06,0.004
-3.800E-06,0.004
-3.790E-06,0.008
-3.780E-06,0.008
-3.770E-06,0.000
-3.760E-06,0.000
-3.750E-06,-0.004
-3.740E-06,0.004
-3.730E-06,0.004
-3.720E-06,0.004
-3.710E-06,0.004
-3.700E-06,0.000
-3.690E-06,0.000
-3.680E-06,-0.004
-3.670E-06,0.000
-3.660E-06,0.000
-3.650E-06,0.004
-3.640E-06,0.008
-3.630E-06,0.000
-3.620E-06,0.004
-3.610E-06,-0.004
-3.600E-06,0.000
-3.590E-06,0.000
-3.580E-06,-0.004
-3.570E-06,0.000
-3.560E-06,-0.004
-3.550E-06,0.008
-3.540E-06,0.012
-3.530E-06,0.012
-3.520E-06,0.012
-3.510E-06,0.008
-3.500E-06,0.004
-3.490E-06,0.004
-3.480E-06,-0.004
-3.470E-06,0.008
-3.460E-06,0.012
-3.450E-06,0.012
-3.440E-06,0.008
-3.430E-06,-0.004
-3.420E-06,-0.004
-3.410E-06,-0.004
-3.400E-06,0.004
-3.390E-06,0.008
-3.380E-06,0.008
-3.370E-06,0.008
-3.360E-06,0.008
-3.350E-06,-0.004
-3.340E-06,-0.004
-3.330E-06,-0.004
-3.320E-06,0.000
-3.310E-06,0.000
-3.300E-06,0.000
-3.290E-06,0.004
-3.280E-06,0.008
-3.270E-06,0.008
-3.260E-06,0.004
-3.250E-06,0.004
-3.240E-06,0.000
-3.230E-06,-0.004
-3.220E-06,0.000
-3.210E-06,0.004
-3.200E-06,0.008
-3.190E-06,0.016
-3.180E-06,0.012
-3.170E-06,0.004
-3.160E-06,-0.004
-3.150E-06,-0.004
-3.140E-06,0.000
-3.130E-06,0.008
-3.120E-06,0.012
-3.110E-06,0.008
-3.100E-06,0.004
-3.090E-06,0.004
-3.080E-06,0.004
-3.070E-06,0.008
-3.060E-06,0.012
-3.050E-06,0.016
-3.040E-06,0.004
-3.030E-06,0.000
-3.020E-06,0.000
-3.010E-06,-0.004
-3.000E-06,0.000
-2.990E-06,0.000
-2.980E-06,0.000
-2.970E-06,0.004
-2.960E-06,0.012
-2.950E-06,0.004
-2.940E-06,0.008
-2.930E-06,0.000
-2.920E-06,-0.004
-2.910E-06,-0.004
-2.900E-06,-0.004
-2.890E-06,0.000
-2.880E-06,0.004
-2.870E-06,0.008
-2.860E-06,0.016
-2.850E-06,0.012
-2.840E-06,0.000
-2.830E-06,0.000
-2.820E-06,0.000
-2.810E-06,0.000
-2.800E-06,0.000
-2.790E-06,0.008
-2.780E-06,0.012
-2.770E-06,0.008
-2.760E-06,0.004
-2.750E-06,0.000
-2.740E-06,0.000
-2.730E-06,0.000
-2.720E-06,0.004
-2.710E-06,0.008
-2.700E-06,0.008
-2.690E-06,0.012
-2.680E-06,0.008
-2.670E-06,0.004
-2.660E-06,-0.004
-2.650E-06,0.000
-2.640E-06,0.004
-2.630E-06,0.012
-2.620E-06,0.008
-2.610E-06,0.012
-2.600E-06,0.012
-2.590E-06,0.004
-2.580E-06,-0.004
-2.570E-06,0.000
-2.560E-06,-0.004
-2.550E-06,0.004
-2.540E-06,0.016
-2.530E-06,0.024
-2.520E-06,0.024
-2.510E-06,0.012
-2.500E-06,-0.004
-2.490E-06,-0.004
-2.480E-06,-0.004
-2.470E-06,0.012
-2.460E-06,0.024
-2.450E-06,0.024
-2.440E-06,0.020
-2.430E-06,0.004
-2.420E-06,-0.004
-2.410E-06,0.000
-2.400E-06,0.004
-2.390E-06,0.012
-2.380E-06,0.012
-2.370E-06,0.012
-2.360E-06,0.012
-2.350E-06,0.012
-2.340E-06,0.008
-2.330E-06,0.012
-2.320E-06,0.004
-2.310E-06,0.004
-2.300E-06,0.012
-2.290E-06,0.008
-2.280E-06,0.012
-2.270E-06,0.020
-2.260E-06,0.008
-2.250E-06,0.012
-2.240E-06,0.012
-2.230E-06,0.016
-2.220E-06,0.008
-2.210E-06,0.012
-2.200E-06,0.012
-2.190E-06,0.016
-2.180E-06,0.012
-2.170E-06,0.000
-2.160E-06,-0.004
-2.150E-06,-0.008
-2.140E-06,-0.008
-2.130E-06,0.000
-2.120E-06,0.016
-2.110E-06,0.028
-2.100E-06,0.020
-2.090E-06,0.004
-2.080E-06,-0.004
-2.070E-06,-0.008
-2.060E-06,-0.008
-2.050E-06,0.000
-2.040E-06,0.012
-2.030E-06,0.020
-2.020E-06,0.020
-2.010E-06,0.012
-2.000E-06,-0.004
-1.990E-06,-0.004
-1.980E-06,-0.008
-1.970E-06,-0.008
-1.960E-06,0.000
-1.950E-06,0.004
-1.940E-06,0.012
-1.930E-06,0.004
-1.920E-06,-0.004
-1.910E-06,-0.008
-1.900E-06,-0.008
-1.890E-06,0.004
-1.880E-06,0.008
-1.870E-06,0.012
-1.860E-06,0.016
-1.850E-06,0.012
-1.840E-06,-0.008
-1.830E-06,-0.012
-1.820E-06,0.000
-1.810E-06,0.000
-1.800E-06,0.008
-1.790E-06,0.016
-1.780E-06,0.016
-1.770E-06,0.024
-1.760E-06,0.016
-1.750E-06,0.008
-1.740E-06,0.004
-1.730E-06,-0.008
-1.720E-06,-0.008
-1.710E-06,-0.008
-1.700E-06,0.000
-1.690E-06,0.004
-1.680E-06,0.020
-1.670E-06,0.016
-1.660E-06,0.004
-1.650E-06,-0.008
-1.640E-06,-0.004
-1.630E-06,0.008
-1.620E-06,0.028
-1.610E-06,0.040
-1.600E-06,0.024
-1.590E-06,0.016
-1.580E-06,-0.004
-1.570E-06,0.004
-1.560E-06,0.012
-1.550E-06,0.024
-1.540E-06,0.036
-1.530E-06,0.040
-1.520E-06,0.028
-1.510E-06,0.016
-1.500E-06,0.012
-1.490E-06,0.008
-1.480E-06,0.012
-1.470E-06,0.024
-1.460E-06,0.024
-1.450E-06,0.028
-1.440E-06,0.032
-1.430E-06,0.028
-1.420E-06,0.024
-1.410E-06,0.012
-1.400E-06,0.012
-1.390E-06,0.012
-1.380E-06,0.020
-1.370E-06,0.024
-1.360E-06,0.028
-1.350E-06,0.040
-1.340E-06,0.032
-1.330E-06,0.032
-1.320E-06,0.024
-1.310E-06,0.020
-1.300E-06,0.012
-1.290E-06,0.024
-1.280E-06,0.036
-1.270E-06,0.020
-1.260E-06,0.012
-1.250E-06,-0.008
-1.240E-06,-0.020
-1.230E-06,-0.016
-1.220E-06,-0.004
-1.210E-06,0.012
-1.200E-06,0.028
-1.190E-06,0.020
-1.180E-06,0.016
-1.170E-06,0.008
-1.160E-06,-0.008
-1.150E-06,-0.008
-1.140E-06,-0.008
-1.130E-06,-0.008
-1.120E-06,0.016
-1.110E-06,0.040
-1.100E-06,0.028
-1.090E-06,0.000
-1.080E-06,-0.024
-1.070E-06,-0.024
-1.060E-06,0.008
-1.050E-06,0.036
-1.040E-06,0.044
-1.030E-06,0.040
-1.020E-06,0.028
-1.010E-06,0.024
-1.000E-06,0.012
-9.900E-07,0.012
-9.800E-07,0.024
-9.700E-07,0.052
-9.600E-07,0.064
-9.500E-07,0.064
-9.400E-07,0.056
-9.300E-07,0.048
-9.200E-07,0.028
-9.100E-07,0.028
-9.000E-07,0.040
-8.900E-07,0.060
-8.800E-07,0.064
-8.700E-07,0.060
-8.600E-07,0.044
-8.500E-07,0.036
-8.400E-07,0.028
-8.300E-07,0.032
-8.200E-07,0.044
-8.100E-07,0.060
-8.000E-07,0.076
-7.900E-07,0.076
-7.800E-07,0.076
-7.700E-07,0.056
-7.600E-07,0.036
-7.500E-07,0.028
-7.400E-07,0.032
-7.300E-07,0.052
-7.200E-07,0.068
-7.100E-07,0.096
-7.000E-07,0.088
-6.900E-07,0.076
-6.800E-07,0.080
-6.700E-07,0.044
-6.600E-07,-0.004
-6.500E-07,-0.052
-6.400E-07,-0.072
-6.300E-07,-0.080
-6.200E-07,-0.084
-6.100E-07,-0.044
-6.000E-07,-0.020
-5.900E-07,-0.012
-5.800E-07,-0.032
-5.700E-07,-0.064
-5.600E-07,-0.092
-5.500E-07,-0.084
-5.400E-07,-0.056
-5.300E-07,-0.008
-5.200E-07,0.036
-5.100E-07,0.056
-5.000E-07,0.068
-4.900E-07,0.036
-4.800E-07,0.000
-4.700E-07,0.016
-4.600E-07,0.044
-4.500E-07,0.076
-4.400E-07,0.120
-4.300E-07,0.128
-4.200E-07,0.052
-4.100E-07,0.008
-4.000E-07,0.008
-3.900E-07,0.024
-3.800E-07,0.068
-3.700E-07,0.092
-3.600E-07,0.132
-3.500E-07,0.152
-3.400E-07,0.160
-3.300E-07,0.156
-3.200E-07,0.144
-3.100E-07,0.132
-3.000E-07,0.160
-2.900E-07,0.188
-2.800E-07,0.192
-2.700E-07,0.200
-2.600E-07,0.180
-2.500E-07,0.148
-2.400E-07,0.128
-2.300E-07,0.132
-2.200E-07,0.140
-2.100E-07,0.156
-2.000E-07,0.164
-1.900E-07,0.176
-1.800E-07,0.172
-1.700E-07,0.188
-1.600E-07,0.160
-1.500E-07,0.088
-1.400E-07,0.052
-1.300E-07,0.048
-1.200E-07,0.128
-1.100E-07,0.012
-1.000E-07,0.104
-9.000E-08,-0.084
-8.000E-08,-0.020
-7.000E-08,0.064
-6.000E-08,-0.192
-5.000E-08,-0.512
-4.000E-08,-0.512
-3.000E-08,-0.512
-2.000E-08,-0.512
-1.000E-08,-0.044
0.000E+00,0.540
1.000E-08,0.540
2.000E-08,0.536
3.000E-08,-0.328
4.000E-08,-0.508
5.000E-08,-0.512
6.000E-08,-0.512
7.000E-08,0.176
8.000E-08,0.536
9.000E-08,0.536
1.000E-07,0.536
1.100E-07,-0.152
1.200E-07,-0.512
1.300E-07,-0.512
1.400E-07,-0.512
1.500E-07,-0.068
1.600E-07,0.544
1.700E-07,0.540
1.800E-07,0.540
1.900E-07,0.256
2.000E-07,-0.508
2.100E-07,-0.512
2.200E-07,-0.512
2.300E-07,-0.248
2.400E-07,0.488
2.500E-07,0.540
2.600E-07,0.540
2.700E-07,0.308
2.800E-07,-0.304
2.900E-07,-0.512
3.000E-07,-0.512
3.100E-07,-0.360
3.200E-07,0.204
3.300E-07,0.536
3.400E-07,0.536
3.500E-07,0.360
3.600E-07,-0.040
3.700E-07,-0.412
3.800E-07,-0.476
3.900E-07,-0.276
4.000E-07,0.124
4.100E-07,0.460
4.200E-07,0.536
4.300E-07,0.456
4.400E-07,0.144
4.500E-07,-0.140
4.600E-07,-0.280
4.700E-07,-0.176
4.800E-07,0.056
4.900E-07,0.352
5.000E-07,0.492
5.100E-07,0.468
5.200E-07,0.308
5.300E-07,0.108
5.400E-07,-0.008
5.500E-07,-0.020
5.600E-07,0.120
5.700E-07,0.300
5.800E-07,0.448
5.900E-07,0.468
6.000E-07,0.388
6.100E-07,0.224
6.200E-07,0.068
6.300E-07,0.004
6.400E-07,0.048
6.500E-07,0.188
6.600E-07,0.320
6.700E-07,0.392
6.800E-07,0.352
6.900E-07,0.240
7.000E-07,0.100
7.100E-07,0.028
7.200E-07,0.036
7.300E-07,0.128
7.400E-07,0.244
7.500E-07,0.324
7.600E-07,0.340
7.700E-07,0.276
7.800E-07,0.176
7.900E-07,0.084
8.000E-07,0.056
8.100E-07,0.092
8.200E-07,0.172
8.300E-07,0.212
8.400E-07,0.228
8.500E-07,0.100
8.600E-07,-0.004
8.700E-07,-0.220
8.800E-07,-0.340
8.900E-07,-0.504
9.000E-07,-0.512
9.100E-07,-0.512
9.200E-07,-0.508
9.300E-07,-0.512
9.400E-07,-0.512
9.500E-07,-0.512
9.600E-07,-0.512
9.700E-07,-0.316
9.800E-07,0.024
9.900E-07,0.372
1.000E-06,0.208
1.010E-06,-0.048
1.020E-06,-0.328
1.030E-06,-0.456
1.040E-06,-0.256
1.050E-06,0.192
1.060E-06,0.460
1.070E-06,0.452
1.080E-06,0.284
1.090E-06,-0.028
1.100E-06,-0.188
1.110E-06,-0.176
1.120E-06,-0.020
1.130E-06,0.172
1.140E-06,0.344
1.150E-06,0.356
1.160E-06,0.268
1.170E-06,0.100
1.180E-06,-0.056
1.190E-06,-0.104
1.200E-06,-0.040
1.210E-06,0.124
1.220E-06,0.244
1.230E-06,0.292
1.240E-06,0.208
1.250E-06,0.060
1.260E-06,-0.076
1.270E-06,-0.136
1.280E-06,-0.104
1.290E-06,0.000
1.300E-06,0.120
1.310E-06,0.208
1.320E-06,0.228
1.330E-06,0.180
1.340E-06,0.116
1.350E-06,0.056
1.360E-06,0.056
1.370E-06,0.136
1.380E-06,0.232
1.390E-06,0.284
1.400E-06,0.296
1.410E-06,0.268
1.420E-06,0.212
1.430E-06,0.168
1.440E-06,0.164
1.450E-06,0.204
1.460E-06,0.244
1.470E-06,0.288
1.480E-06,0.284
1.490E-06,0.256
1.500E-06,0.212
1.510E-06,0.184
1.520E-06,0.152
1.530E-06,0.152
1.540E-06,0.168
1.550E-06,0.176
1.560E-06,0.188
1.570E-06,0.196
1.580E-06,0.184
1.590E-06,0.168
1.600E-06,0.172
1.610E-06,0.160
1.620E-06,0.128
1.630E-06,0.084
1.640E-06,0.036
1.650E-06,0.024
1.660E-06,0.024
1.670E-06,0.072
1.680E-06,0.132
1.690E-06,0.180
1.700E-06,0.192
1.710E-06,0.204
1.720E-06,0.204
1.730E-06,0.216
1.740E-06,0.224
1.750E-06,0.224
1.760E-06,0.216
1.770E-06,0.172
1.780E-06,0.144
1.790E-06,0.084
1.800E-06,0.040
1.810E-06,0.028
1.820E-06,0.024
1.830E-06,-0.004
1.840E-06,-0.060
1.850E-06,-0.128
1.860E-06,-0.232
1.870E-06,-0.296
1.880E-06,-0.352
1.890E-06,-0.408
1.900E-06,-0.472
1.910E-06,-0.480
1.920E-06,-0.448
1.930E-06,-0.344
1.940E-06,-0.164
1.950E-06,-0.036
1.960E-06,0.064
1.970E-06,0.072
1.980E-06,0.100
1.990E-06,0.112
2.000E-06,0.112
2.010E-06,0.140
2.020E-06,0.208
2.030E-06,0.228
2.040E-06,0.208
2.050E-06,0.188
2.060E-06,0.192
2.070E-06,0.216
2.080E-06,0.224
2.090E-06,0.260
2.100E-06,0.260
2.110E-06,0.256
2.120E-06,0.240
2.130E-06,0.240
2.140E-06,0.240
2.150E-06,0.224
2.160E-06,0.232
2.170E-06,0.232
2.180E-06,0.252
2.190E-06,0.252
2.200E-06,0.256
2.210E-06,0.240
2.220E-06,0.240
2.230E-06,0.236
2.240E-06,0.228
2.250E-06,0.232
2.260E-06,0.228
2.270E-06,0.224
2.280E-06,0.224
2.290E-06,0.220
2.300E-06,0.204
2.310E-06,0.188
2.320E-06,0.176
2.330E-06,0.176
2.340E-06,0.188
2.350E-06,0.192
2.360E-06,0.208
2.370E-06,0.200
2.380E-06,0.188
2.390E-06,0.156
2.400E-06,0.144
2.410E-06,0.140
2.420E-06,0.156
2.430E-06,0.164
2.440E-06,0.148
2.450E-06,0.148
2.460E-06,0.144
2.470E-06,0.152
2.480E-06,0.176
2.490E-06,0.192
2.500E-06,0.168
2.510E-06,0.144
2.520E-06,0.140
2.530E-06,0.164
2.540E-06,0.208
2.550E-06,0.236
2.560E-06,0.232
2.570E-06,0.192
2.580E-06,0.140
2.590E-06,0.116
2.600E-06,0.128
2.610E-06,0.172
2.620E-06,0.212
2.630E-06,0.232
2.640E-06,0.220
2.650E-06,0.200
2.660E-06,0.180
2.670E-06,0.176
2.680E-06,0.192
2.690E-06,0.204
2.700E-06,0.228
2.710E-06,0.236
2.720E-06,0.240
2.730E-06,0.232
2.740E-06,0.220
2.750E-06,0.208
2.760E-06,0.200
2.770E-06,0.208
2.780E-06,0.228
2.790E-06,0.240
2.800E-06,0.244
2.810E-06,0.228
2.820E-06,0.216
2.830E-06,0.204
2.840E-06,0.200
2.850E-06,0.204
2.860E-06,0.216
2.870E-06,0.224
2.880E-06,0.228
2.890E-06,0.228
2.900E-06,0.216
2.910E-06,0.204
2.920E-06,0.200
2.930E-06,0.196
2.940E-06,0.208
2.950E-06,0.212
2.960E-06,0.220
2.970E-06,0.224
2.980E-06,0.208
2.990E-06,0.204
3.000E-06,0.192
3.010E-06,0.192
3.020E-06,0.196
3.030E-06,0.204
3.040E-06,0.208
3.050E-06,0.212
3.060E-06,0.212
3.070E-06,0.200
3.080E-06,0.196
3.090E-06,0.196
3.100E-06,0.192
3.110E-06,0.200
3.120E-06,0.204
3.130E-06,0.208
3.140E-06,0.212
3.150E-06,0.208
3.160E-06,0.216
3.170E-06,0.216
3.180E-06,0.216
3.190E-06,0.204
3.200E-06,0.200
3.210E-06,0.196
3.220E-06,0.188
3.230E-06,0.188
3.240E-06,0.200
3.250E-06,0.208
3.260E-06,0.208
3.270E-06,0.212
3.280E-06,0.204
3.290E-06,0.192
3.300E-06,0.184
3.310E-06,0.184
3.320E-06,0.192
3.330E-06,0.200
3.340E-06,0.196
3.350E-06,0.188
3.360E-06,0.168
3.370E-06,0.148
3.380E-06,0.132
3.390E-06,0.148
3.400E-06,0.176
