mediciones/Mediciones filtradas (saque las feas)/5-15/-0.01/WaveData47649.csv

#timebase=2000000(ps)
,#voltbase=100000(mv/100)
#size=4000
-8.400E-06,0.004
-8.390E-06,0.004
-8.380E-06,0.004
-8.370E-06,0.004
-8.360E-06,0.004
-8.350E-06,0.004
-8.340E-06,0.008
-8.330E-06,0.000
-8.320E-06,0.004
-8.310E-06,0.000
-8.300E-06,0.004
-8.290E-06,0.000
-8.280E-06,0.004
-8.270E-06,-0.004
-8.260E-06,0.004
-8.250E-06,-0.004
-8.240E-06,0.000
-8.230E-06,0.004
-8.220E-06,0.000
-8.210E-06,0.004
-8.200E-06,0.004
-8.190E-06,0.004
-8.180E-06,0.004
-8.170E-06,0.004
-8.160E-06,0.004
-8.150E-06,0.004
-8.140E-06,0.004
-8.130E-06,0.004
-8.120E-06,0.004
-8.110E-06,0.004
-8.100E-06,0.004
-8.090E-06,0.004
-8.080E-06,0.000
-8.070E-06,0.000
-8.060E-06,0.004
-8.050E-06,0.008
-8.040E-06,0.000
-8.030E-06,0.004
-8.020E-06,0.004
-8.010E-06,0.000
-8.000E-06,0.004
-7.990E-06,0.008
-7.980E-06,0.000
-7.970E-06,0.000
-7.960E-06,0.004
-7.950E-06,0.000
-7.940E-06,0.000
-7.930E-06,0.004
-7.920E-06,0.000
-7.910E-06,0.004
-7.900E-06,0.004
-7.890E-06,0.004
-7.880E-06,0.004
-7.870E-06,0.004
-7.860E-06,0.000
-7.850E-06,0.004
-7.840E-06,0.000
-7.830E-06,0.004
-7.820E-06,0.004
-7.810E-06,0.004
-7.800E-06,0.004
-7.790E-06,0.004
-7.780E-06,0.004
-7.770E-06,0.008
-7.760E-06,0.000
-7.750E-06,0.000
-7.740E-06,0.004
-7.730E-06,0.004
-7.720E-06,0.000
-7.710E-06,0.000
-7.700E-06,0.004
-7.690E-06,0.000
-7.680E-06,0.000
-7.670E-06,0.004
-7.660E-06,0.000
-7.650E-06,0.000
-7.640E-06,0.004
-7.630E-06,0.004
-7.620E-06,0.004
-7.610E-06,0.008
-7.600E-06,0.008
-7.590E-06,0.004
-7.580E-06,0.000
-7.570E-06,0.004
-7.560E-06,0.004
-7.550E-06,0.004
-7.540E-06,0.000
-7.530E-06,0.000
-7.520E-06,0.004
-7.510E-06,0.008
-7.500E-06,0.008
-7.490E-06,0.008
-7.480E-06,0.008
-7.470E-06,0.008
-7.460E-06,0.008
-7.450E-06,0.004
-7.440E-06,0.000
-7.430E-06,0.004
-7.420E-06,0.000
-7.410E-06,0.004
-7.400E-06,0.000
-7.390E-06,0.004
-7.380E-06,0.000
-7.370E-06,0.000
-7.360E-06,0.004
-7.350E-06,0.004
-7.340E-06,0.004
-7.330E-06,0.004
-7.320E-06,0.004
-7.310E-06,0.008
-7.300E-06,0.008
-7.290E-06,0.008
-7.280E-06,0.008
-7.270E-06,0.000
-7.260E-06,0.004
-7.250E-06,0.000
-7.240E-06,0.004
-7.230E-06,0.004
-7.220E-06,0.000
-7.210E-06,0.004
-7.200E-06,0.004
-7.190E-06,0.000
-7.180E-06,0.004
-7.170E-06,0.000
-7.160E-06,0.000
-7.150E-06,0.004
-7.140E-06,0.004
-7.130E-06,0.004
-7.120E-06,0.000
-7.110E-06,0.000
-7.100E-06,0.004
-7.090E-06,0.008
-7.080E-06,0.000
-7.070E-06,0.004
-7.060E-06,0.004
-7.050E-06,0.000
-7.040E-06,0.004
-7.030E-06,0.004
-7.020E-06,0.004
-7.010E-06,0.004
-7.000E-06,0.000
-6.990E-06,0.004
-6.980E-06,0.004
-6.970E-06,0.008
-6.960E-06,0.000
-6.950E-06,0.000
-6.940E-06,0.004
-6.930E-06,0.000
-6.920E-06,0.004
-6.910E-06,0.004
-6.900E-06,0.004
-6.890E-06,0.004
-6.880E-06,0.004
-6.870E-06,0.000
-6.860E-06,0.000
-6.850E-06,0.004
-6.840E-06,0.004
-6.830E-06,0.004
-6.820E-06,-0.004
-6.810E-06,0.000
-6.800E-06,0.004
-6.790E-06,0.008
-6.780E-06,0.000
-6.770E-06,0.000
-6.760E-06,0.004
-6.750E-06,0.000
-6.740E-06,0.000
-6.730E-06,0.004
-6.720E-06,0.004
-6.710E-06,0.004
-6.700E-06,0.004
-6.690E-06,0.000
-6.680E-06,-0.004
-6.670E-06,0.004
-6.660E-06,0.008
-6.650E-06,0.008
-6.640E-06,0.000
-6.630E-06,0.004
-6.620E-06,0.004
-6.610E-06,0.000
-6.600E-06,0.000
-6.590E-06,0.004
-6.580E-06,-0.004
-6.570E-06,-0.004
-6.560E-06,0.004
-6.550E-06,0.000
-6.540E-06,0.000
-6.530E-06,0.004
-6.520E-06,0.004
-6.510E-06,0.004
-6.500E-06,0.008
-6.490E-06,0.008
-6.480E-06,0.000
-6.470E-06,0.000
-6.460E-06,0.004
-6.450E-06,0.000
-6.440E-06,0.004
-6.430E-06,0.000
-6.420E-06,0.000
-6.410E-06,0.004
-6.400E-06,0.004
-6.390E-06,0.008
-6.380E-06,0.004
-6.370E-06,0.000
-6.360E-06,0.004
-6.350E-06,0.004
-6.340E-06,0.004
-6.330E-06,0.004
-6.320E-06,0.008
-6.310E-06,0.000
-6.300E-06,0.000
-6.290E-06,0.004
-6.280E-06,0.004
-6.270E-06,0.000
-6.260E-06,0.004
-6.250E-06,0.008
-6.240E-06,0.000
-6.230E-06,0.004
-6.220E-06,0.004
-6.210E-06,0.004
-6.200E-06,0.004
-6.190E-06,0.004
-6.180E-06,0.004
-6.170E-06,0.004
-6.160E-06,0.008
-6.150E-06,0.000
-6.140E-06,0.000
-6.130E-06,0.004
-6.120E-06,0.004
-6.110E-06,0.000
-6.100E-06,0.000
-6.090E-06,0.004
-6.080E-06,0.000
-6.070E-06,0.000
-6.060E-06,0.004
-6.050E-06,0.000
-6.040E-06,0.004
-6.030E-06,0.000
-6.020E-06,0.004
-6.010E-06,0.004
-6.000E-06,0.000
-5.990E-06,0.004
-5.980E-06,0.004
-5.970E-06,0.004
-5.960E-06,0.000
-5.950E-06,0.004
-5.940E-06,0.004
-5.930E-06,0.004
-5.920E-06,0.004
-5.910E-06,0.000
-5.900E-06,0.004
-5.890E-06,0.004
-5.880E-06,0.004
-5.870E-06,0.004
-5.860E-06,0.000
-5.850E-06,0.004
-5.840E-06,0.004
-5.830E-06,0.008
-5.820E-06,0.004
-5.810E-06,0.008
-5.800E-06,0.000
-5.790E-06,0.004
-5.780E-06,0.004
-5.770E-06,0.004
-5.760E-06,0.004
-5.750E-06,0.004
-5.740E-06,0.004
-5.730E-06,0.004
-5.720E-06,0.008
-5.710E-06,0.004
-5.700E-06,0.000
-5.690E-06,0.000
-5.680E-06,0.004
-5.670E-06,0.000
-5.660E-06,0.004
-5.650E-06,0.004
-5.640E-06,0.000
-5.630E-06,0.000
-5.620E-06,0.000
-5.610E-06,0.004
-5.600E-06,0.008
-5.590E-06,0.000
-5.580E-06,0.004
-5.570E-06,0.004
-5.560E-06,0.004
-5.550E-06,0.000
-5.540E-06,0.004
-5.530E-06,0.004
-5.520E-06,0.004
-5.510E-06,0.004
-5.500E-06,0.004
-5.490E-06,0.000
-5.480E-06,0.004
-5.470E-06,0.000
-5.460E-06,0.000
-5.450E-06,0.004
-5.440E-06,0.008
-5.430E-06,0.008
-5.420E-06,0.008
-5.410E-06,0.000
-5.400E-06,0.000
-5.390E-06,0.004
-5.380E-06,0.000
-5.370E-06,0.004
-5.360E-06,0.004
-5.350E-06,0.004
-5.340E-06,0.004
-5.330E-06,0.004
-5.320E-06,0.004
-5.310E-06,0.000
-5.300E-06,0.004
-5.290E-06,0.000
-5.280E-06,0.000
-5.270E-06,0.004
-5.260E-06,-0.004
-5.250E-06,0.004
-5.240E-06,0.000
-5.230E-06,0.000
-5.220E-06,0.004
-5.210E-06,0.004
-5.200E-06,0.004
-5.190E-06,0.004
-5.180E-06,0.000
-5.170E-06,0.004
-5.160E-06,0.000
-5.150E-06,0.004
-5.140E-06,0.000
-5.130E-06,0.004
-5.120E-06,0.004
-5.110E-06,0.004
-5.100E-06,0.004
-5.090E-06,0.000
-5.080E-06,0.004
-5.070E-06,0.000
-5.060E-06,0.000
-5.050E-06,0.004
-5.040E-06,0.000
-5.030E-06,0.004
-5.020E-06,0.008
-5.010E-06,0.008
-5.000E-06,0.000
-4.990E-06,0.000
-4.980E-06,0.004
-4.970E-06,0.004
-4.960E-06,0.004
-4.950E-06,0.004
-4.940E-06,0.000
-4.930E-06,0.000
-4.920E-06,0.008
-4.910E-06,0.000
-4.900E-06,0.004
-4.890E-06,0.004
-4.880E-06,0.004
-4.870E-06,0.004
-4.860E-06,0.004
-4.850E-06,0.004
-4.840E-06,0.004
-4.830E-06,0.000
-4.820E-06,0.004
-4.810E-06,0.004
-4.800E-06,0.004
-4.790E-06,0.004
-4.780E-06,0.000
-4.770E-06,0.004
-4.760E-06,0.004
-4.750E-06,0.000
-4.740E-06,0.000
-4.730E-06,0.004
-4.720E-06,0.000
-4.710E-06,0.004
-4.700E-06,0.004
-4.690E-06,0.004
-4.680E-06,0.000
-4.670E-06,0.004
-4.660E-06,0.004
-4.650E-06,0.004
-4.640E-06,0.004
-4.630E-06,0.000
-4.620E-06,0.004
-4.610E-06,0.000
-4.600E-06,0.000
-4.590E-06,0.004
-4.580E-06,0.004
-4.570E-06,-0.004
-4.560E-06,0.004
-4.550E-06,0.004
-4.540E-06,0.004
-4.530E-06,0.004
-4.520E-06,0.004
-4.510E-06,0.000
-4.500E-06,0.004
-4.490E-06,0.000
-4.480E-06,0.000
-4.470E-06,0.004
-4.460E-06,0.004
-4.450E-06,0.000
-4.440E-06,0.004
-4.430E-06,0.004
-4.420E-06,0.004
-4.410E-06,0.004
-4.400E-06,0.004
-4.390E-06,0.004
-4.380E-06,0.004
-4.370E-06,0.004
-4.360E-06,0.004
-4.350E-06,0.004
-4.340E-06,0.000
-4.330E-06,0.004
-4.320E-06,0.004
-4.310E-06,0.004
-4.300E-06,0.004
-4.290E-06,0.004
-4.280E-06,0.000
-4.270E-06,0.004
-4.260E-06,0.000
-4.250E-06,0.004
-4.240E-06,0.004
-4.230E-06,0.004
-4.220E-06,0.004
-4.210E-06,0.004
-4.200E-06,0.008
-4.190E-06,0.004
-4.180E-06,0.004
-4.170E-06,0.008
-4.160E-06,0.000
-4.150E-06,0.004
-4.140E-06,0.000
-4.130E-06,0.004
-4.120E-06,0.004
-4.110E-06,0.004
-4.100E-06,0.000
-4.090E-06,0.004
-4.080E-06,0.004
-4.070E-06,0.004
-4.060E-06,0.000
-4.050E-06,0.000
-4.040E-06,0.004
-4.030E-06,0.000
-4.020E-06,0.004
-4.010E-06,0.004
-4.000E-06,0.004
-3.990E-06,0.004
-3.980E-06,0.004
-3.970E-06,0.004
-3.960E-06,0.004
-3.950E-06,0.004
-3.940E-06,0.000
-3.930E-06,0.004
-3.920E-06,0.004
-3.910E-06,0.000
-3.900E-06,0.004
-3.890E-06,0.008
-3.880E-06,0.008
-3.870E-06,-0.004
-3.860E-06,0.000
-3.850E-06,0.004
-3.840E-06,0.000
-3.830E-06,0.004
-3.820E-06,0.004
-3.810E-06,0.004
-3.800E-06,0.004
-3.790E-06,0.004
-3.780E-06,0.004
-3.770E-06,0.008
-3.760E-06,0.000
-3.750E-06,0.004
-3.740E-06,0.004
-3.730E-06,0.004
-3.720E-06,0.004
-3.710E-06,0.000
-3.700E-06,0.004
-3.690E-06,0.004
-3.680E-06,0.004
-3.670E-06,0.004
-3.660E-06,0.004
-3.650E-06,0.000
-3.640E-06,0.004
-3.630E-06,0.004
-3.620E-06,0.000
-3.610E-06,0.004
-3.600E-06,0.000
-3.590E-06,0.000
-3.580E-06,0.004
-3.570E-06,0.000
-3.560E-06,0.000
-3.550E-06,0.004
-3.540E-06,0.008
-3.530E-06,0.008
-3.520E-06,-0.004
-3.510E-06,0.000
-3.500E-06,0.004
-3.490E-06,0.000
-3.480E-06,0.000
-3.470E-06,0.000
-3.460E-06,0.004
-3.450E-06,0.004
-3.440E-06,0.004
-3.430E-06,0.004
-3.420E-06,0.004
-3.410E-06,0.004
-3.400E-06,0.004
-3.390E-06,0.004
-3.380E-06,0.004
-3.370E-06,0.000
-3.360E-06,0.004
-3.350E-06,0.000
-3.340E-06,0.000
-3.330E-06,0.004
-3.320E-06,-0.004
-3.310E-06,0.000
-3.300E-06,0.004
-3.290E-06,0.004
-3.280E-06,0.004
-3.270E-06,0.004
-3.260E-06,0.000
-3.250E-06,0.004
-3.240E-06,0.004
-3.230E-06,0.004
-3.220E-06,0.004
-3.210E-06,0.004
-3.200E-06,0.000
-3.190E-06,0.004
-3.180E-06,0.000
-3.170E-06,0.004
-3.160E-06,0.004
-3.150E-06,0.004
-3.140E-06,0.000
-3.130E-06,0.000
-3.120E-06,0.004
-3.110E-06,0.000
-3.100E-06,0.000
-3.090E-06,0.004
-3.080E-06,0.000
-3.070E-06,0.000
-3.060E-06,0.004
-3.050E-06,0.000
-3.040E-06,0.004
-3.030E-06,0.004
-3.020E-06,0.008
-3.010E-06,0.008
-3.000E-06,0.008
-2.990E-06,0.008
-2.980E-06,0.000
-2.970E-06,0.004
-2.960E-06,0.004
-2.950E-06,0.000
-2.940E-06,0.008
-2.930E-06,0.032
-2.920E-06,0.084
-2.910E-06,0.120
-2.900E-06,0.092
-2.890E-06,-0.004
-2.880E-06,-0.140
-2.870E-06,-0.224
-2.860E-06,-0.192
-2.850E-06,0.000
-2.840E-06,0.176
-2.830E-06,0.256
-2.820E-06,0.200
-2.810E-06,0.020
-2.800E-06,-0.172
-2.790E-06,-0.240
-2.780E-06,-0.148
-2.770E-06,0.008
-2.760E-06,0.168
-2.750E-06,0.212
-2.740E-06,0.144
-2.730E-06,0.004
-2.720E-06,-0.120
-2.710E-06,-0.164
-2.700E-06,-0.136
-2.690E-06,-0.036
-2.680E-06,0.052
-2.670E-06,0.120
-2.660E-06,0.132
-2.650E-06,0.092
-2.640E-06,0.024
-2.630E-06,-0.060
-2.620E-06,-0.116
-2.610E-06,-0.108
-2.600E-06,-0.044
-2.590E-06,0.056
-2.580E-06,0.128
-2.570E-06,0.128
-2.560E-06,0.060
-2.550E-06,-0.048
-2.540E-06,-0.140
-2.530E-06,-0.136
-2.520E-06,-0.072
-2.510E-06,0.028
-2.500E-06,0.108
-2.490E-06,0.128
-2.480E-06,0.080
-2.470E-06,-0.004
-2.460E-06,-0.056
-2.450E-06,-0.076
-2.440E-06,-0.044
-2.430E-06,0.008
-2.420E-06,0.056
-2.410E-06,0.068
-2.400E-06,0.056
-2.390E-06,0.012
-2.380E-06,-0.020
-2.370E-06,-0.056
-2.360E-06,-0.052
-2.350E-06,-0.028
-2.340E-06,0.012
-2.330E-06,0.040
-2.320E-06,0.060
-2.310E-06,0.060
-2.300E-06,0.024
-2.290E-06,-0.016
-2.280E-06,-0.040
-2.270E-06,-0.036
-2.260E-06,-0.008
-2.250E-06,0.020
-2.240E-06,0.044
-2.230E-06,0.048
-2.220E-06,0.016
-2.210E-06,-0.020
-2.200E-06,-0.040
-2.190E-06,-0.040
-2.180E-06,-0.024
-2.170E-06,0.008
-2.160E-06,0.028
-2.150E-06,0.040
-2.140E-06,0.020
-2.130E-06,0.004
-2.120E-06,-0.008
-2.110E-06,-0.012
-2.100E-06,-0.004
-2.090E-06,0.008
-2.080E-06,0.024
-2.070E-06,0.020
-2.060E-06,0.008
-2.050E-06,0.004
-2.040E-06,-0.004
-2.030E-06,-0.012
-2.020E-06,-0.012
-2.010E-06,0.004
-2.000E-06,0.016
-1.990E-06,0.024
-1.980E-06,0.024
-1.970E-06,0.004
-1.960E-06,-0.004
-1.950E-06,-0.012
-1.940E-06,-0.004
-1.930E-06,0.004
-1.920E-06,0.016
-1.910E-06,0.024
-1.900E-06,0.008
-1.890E-06,-0.004
-1.880E-06,-0.008
-1.870E-06,-0.008
-1.860E-06,0.000
-1.850E-06,0.008
-1.840E-06,0.008
-1.830E-06,0.004
-1.820E-06,0.004
-1.810E-06,0.000
-1.800E-06,0.000
-1.790E-06,0.000
-1.780E-06,0.004
-1.770E-06,0.008
-1.760E-06,0.008
-1.750E-06,0.004
-1.740E-06,0.000
-1.730E-06,0.000
-1.720E-06,0.004
-1.710E-06,0.000
-1.700E-06,0.004
-1.690E-06,0.000
-1.680E-06,-0.008
-1.670E-06,0.000
-1.660E-06,0.020
-1.650E-06,0.024
-1.640E-06,0.008
-1.630E-06,-0.004
-1.620E-06,-0.012
-1.610E-06,-0.004
-1.600E-06,0.012
-1.590E-06,0.012
-1.580E-06,0.012
-1.570E-06,0.004
-1.560E-06,0.004
-1.550E-06,0.000
-1.540E-06,-0.004
-1.530E-06,-0.008
-1.520E-06,-0.004
-1.510E-06,0.004
-1.500E-06,0.016
-1.490E-06,0.012
-1.480E-06,0.004
-1.470E-06,-0.004
-1.460E-06,-0.004
-1.450E-06,-0.004
-1.440E-06,-0.008
-1.430E-06,0.012
-1.420E-06,0.016
-1.410E-06,0.012
-1.400E-06,0.008
-1.390E-06,0.008
-1.380E-06,-0.004
-1.370E-06,-0.008
-1.360E-06,0.000
-1.350E-06,0.000
-1.340E-06,0.016
-1.330E-06,0.020
-1.320E-06,0.016
-1.310E-06,0.000
-1.300E-06,-0.004
-1.290E-06,-0.004
-1.280E-06,-0.004
-1.270E-06,-0.004
-1.260E-06,0.008
-1.250E-06,0.016
-1.240E-06,0.000
-1.230E-06,0.016
-1.220E-06,0.004
-1.210E-06,-0.008
-1.200E-06,-0.008
-1.190E-06,-0.004
-1.180E-06,0.012
-1.170E-06,0.012
-1.160E-06,0.008
-1.150E-06,0.004
-1.140E-06,0.000
-1.130E-06,0.000
-1.120E-06,0.000
-1.110E-06,-0.004
-1.100E-06,0.004
-1.090E-06,0.000
-1.080E-06,0.012
-1.070E-06,0.020
-1.060E-06,0.008
-1.050E-06,-0.004
-1.040E-06,0.000
-1.030E-06,0.000
-1.020E-06,0.000
-1.010E-06,0.004
-1.000E-06,0.004
-9.900E-07,0.012
-9.800E-07,0.024
-9.700E-07,0.016
-9.600E-07,0.000
-9.500E-07,-0.004
-9.400E-07,-0.008
-9.300E-07,-0.008
-9.200E-07,0.008
-9.100E-07,0.032
-9.000E-07,0.024
-8.900E-07,0.012
-8.800E-07,-0.004
-8.700E-07,-0.008
-8.600E-07,-0.004
-8.500E-07,0.004
-8.400E-07,0.032
-8.300E-07,0.044
-8.200E-07,0.048
-8.100E-07,0.036
-8.000E-07,0.028
-7.900E-07,0.012
-7.800E-07,0.004
-7.700E-07,0.004
-7.600E-07,0.008
-7.500E-07,0.012
-7.400E-07,0.032
-7.300E-07,0.048
-7.200E-07,0.068
-7.100E-07,0.076
-7.000E-07,0.076
-6.900E-07,0.052
-6.800E-07,0.000
-6.700E-07,-0.096
-6.600E-07,-0.208
-6.500E-07,-0.256
-6.400E-07,-0.112
-6.300E-07,0.004
-6.200E-07,0.152
-6.100E-07,0.160
-6.000E-07,0.016
-5.900E-07,-0.096
-5.800E-07,-0.116
-5.700E-07,-0.084
-5.600E-07,-0.012
-5.500E-07,0.092
-5.400E-07,0.120
-5.300E-07,0.072
-5.200E-07,-0.028
-5.100E-07,-0.076
-5.000E-07,-0.084
-4.900E-07,-0.020
-4.800E-07,0.044
-4.700E-07,0.080
-4.600E-07,0.064
-4.500E-07,0.004
-4.400E-07,-0.016
-4.300E-07,-0.024
-4.200E-07,-0.004
-4.100E-07,-0.004
-4.000E-07,0.012
-3.900E-07,0.016
-3.800E-07,0.024
-3.700E-07,0.008
-3.600E-07,0.016
-3.500E-07,-0.008
-3.400E-07,-0.020
-3.300E-07,-0.012
-3.200E-07,0.028
-3.100E-07,0.056
-3.000E-07,0.056
-2.900E-07,0.032
-2.800E-07,-0.004
-2.700E-07,0.004
-2.600E-07,0.024
-2.500E-07,0.044
-2.400E-07,0.052
-2.300E-07,0.044
-2.200E-07,0.028
-2.100E-07,0.036
-2.000E-07,0.036
-1.900E-07,0.056
-1.800E-07,0.076
-1.700E-07,0.072
-1.600E-07,0.064
-1.500E-07,0.052
-1.400E-07,0.060
-1.300E-07,0.088
-1.200E-07,0.108
-1.100E-07,0.128
-1.000E-07,0.116
-9.000E-08,0.096
-8.000E-08,0.080
-7.000E-08,0.016
-6.000E-08,-0.028
-5.000E-08,-0.248
-4.000E-08,-0.512
-3.000E-08,-0.512
-2.000E-08,-0.344
-1.000E-08,0.336
0.000E+00,0.540
1.000E-08,0.388
2.000E-08,0.016
3.000E-08,-0.432
4.000E-08,-0.508
5.000E-08,-0.364
6.000E-08,0.128
7.000E-08,0.468
8.000E-08,0.540
9.000E-08,0.236
1.000E-07,-0.200
1.100E-07,-0.432
1.200E-07,-0.296
1.300E-07,-0.068
1.400E-07,0.160
1.500E-07,0.260
1.600E-07,0.192
1.700E-07,0.076
1.800E-07,-0.060
1.900E-07,-0.104
2.000E-07,-0.136
2.100E-07,-0.084
2.200E-07,-0.036
2.300E-07,0.056
2.400E-07,0.124
2.500E-07,0.140
2.600E-07,0.108
2.700E-07,0.008
2.800E-07,-0.088
2.900E-07,-0.148
3.000E-07,-0.104
3.100E-07,-0.004
3.200E-07,0.124
3.300E-07,0.172
3.400E-07,0.136
3.500E-07,0.024
3.600E-07,-0.080
3.700E-07,-0.120
3.800E-07,-0.084
3.900E-07,0.008
4.000E-07,0.084
4.100E-07,0.124
4.200E-07,0.092
4.300E-07,0.032
4.400E-07,-0.032
4.500E-07,-0.048
4.600E-07,-0.024
4.700E-07,0.024
4.800E-07,0.076
4.900E-07,0.096
5.000E-07,0.096
5.100E-07,0.072
5.200E-07,0.056
5.300E-07,0.036
5.400E-07,0.044
5.500E-07,0.048
5.600E-07,0.068
5.700E-07,0.064
5.800E-07,0.064
5.900E-07,0.048
6.000E-07,0.040
6.100E-07,0.044
6.200E-07,0.044
6.300E-07,0.060
6.400E-07,0.080
6.500E-07,0.128
6.600E-07,0.132
6.700E-07,0.100
6.800E-07,0.020
6.900E-07,-0.052
7.000E-07,-0.204
7.100E-07,-0.388
7.200E-07,-0.512
7.300E-07,-0.508
7.400E-07,-0.276
7.500E-07,0.244
7.600E-07,0.540
7.700E-07,0.540
7.800E-07,0.336
7.900E-07,-0.356
8.000E-07,-0.512
8.100E-07,-0.512
8.200E-07,-0.252
8.300E-07,0.300
8.400E-07,0.540
8.500E-07,0.480
8.600E-07,0.156
8.700E-07,-0.204
8.800E-07,-0.432
8.900E-07,-0.388
9.000E-07,-0.136
9.100E-07,0.196
9.200E-07,0.372
9.300E-07,0.288
9.400E-07,0.024
9.500E-07,-0.252
9.600E-07,-0.372
9.700E-07,-0.232
9.800E-07,0.000
9.900E-07,0.200
1.000E-06,0.272
1.010E-06,0.224
1.020E-06,0.060
1.030E-06,-0.120
1.040E-06,-0.188
1.050E-06,-0.160
1.060E-06,-0.048
1.070E-06,0.068
1.080E-06,0.156
1.090E-06,0.152
1.100E-06,0.076
1.110E-06,-0.020
1.120E-06,-0.080
1.130E-06,-0.096
1.140E-06,-0.056
1.150E-06,0.024
1.160E-06,0.088
1.170E-06,0.104
1.180E-06,0.060
1.190E-06,0.004
1.200E-06,-0.040
1.210E-06,-0.052
1.220E-06,-0.016
1.230E-06,0.040
1.240E-06,0.076
1.250E-06,0.072
1.260E-06,0.048
1.270E-06,0.020
1.280E-06,0.004
1.290E-06,0.016
1.300E-06,0.040
1.310E-06,0.060
1.320E-06,0.064
1.330E-06,0.056
1.340E-06,0.036
1.350E-06,0.032
1.360E-06,0.044
1.370E-06,0.072
1.380E-06,0.092
1.390E-06,0.100
1.400E-06,0.100
1.410E-06,0.104
1.420E-06,0.096
1.430E-06,0.096
1.440E-06,0.116
1.450E-06,0.152
1.460E-06,0.176
1.470E-06,0.200
1.480E-06,0.196
1.490E-06,0.188
1.500E-06,0.156
1.510E-06,0.080
1.520E-06,0.000
1.530E-06,-0.460
1.540E-06,-0.512
1.550E-06,-0.512
1.560E-06,-0.508
1.570E-06,0.012
1.580E-06,0.536
1.590E-06,0.540
1.600E-06,0.540
1.610E-06,0.260
1.620E-06,-0.508
1.630E-06,-0.512
1.640E-06,-0.508
1.650E-06,0.108
1.660E-06,0.540
1.670E-06,0.540
1.680E-06,0.540
1.690E-06,-0.452
1.700E-06,-0.508
1.710E-06,-0.512
1.720E-06,-0.500
1.730E-06,0.516
1.740E-06,0.536
1.750E-06,0.536
1.760E-06,0.420
1.770E-06,-0.268
1.780E-06,-0.512
1.790E-06,-0.512
1.800E-06,-0.416
1.810E-06,0.140
1.820E-06,0.540
1.830E-06,0.540
1.840E-06,0.460
1.850E-06,-0.032
1.860E-06,-0.460
1.870E-06,-0.512
1.880E-06,-0.432
1.890E-06,-0.056
1.900E-06,0.344
1.910E-06,0.540
1.920E-06,0.436
1.930E-06,0.084
1.940E-06,-0.276
1.950E-06,-0.436
1.960E-06,-0.364
1.970E-06,-0.076
1.980E-06,0.244
1.990E-06,0.412
2.000E-06,0.340
2.010E-06,0.096
2.020E-06,-0.164
2.030E-06,-0.320
2.040E-06,-0.284
2.050E-06,-0.084
2.060E-06,0.164
2.070E-06,0.304
2.080E-06,0.276
2.090E-06,0.104
2.100E-06,-0.100
2.110E-06,-0.232
2.120E-06,-0.208
2.130E-06,-0.060
2.140E-06,0.112
2.150E-06,0.208
2.160E-06,0.204
2.170E-06,0.096
2.180E-06,-0.044
2.190E-06,-0.132
2.200E-06,-0.120
2.210E-06,-0.032
2.220E-06,0.088
2.230E-06,0.172
2.240E-06,0.192
2.250E-06,0.148
2.260E-06,0.064
2.270E-06,0.000
2.280E-06,-0.004
2.290E-06,0.048
2.300E-06,0.132
2.310E-06,0.208
2.320E-06,0.220
2.330E-06,0.136
2.340E-06,-0.004
2.350E-06,-0.140
2.360E-06,-0.188
2.370E-06,-0.132
2.380E-06,-0.100
2.390E-06,-0.088
2.400E-06,-0.080
2.410E-06,-0.100
2.420E-06,-0.104
2.430E-06,-0.056
2.440E-06,0.032
2.450E-06,0.092
2.460E-06,0.084
2.470E-06,0.008
2.480E-06,-0.012
2.490E-06,-0.028
2.500E-06,-0.024
2.510E-06,-0.008
2.520E-06,0.032
2.530E-06,0.056
2.540E-06,0.088
2.550E-06,0.096
2.560E-06,0.068
2.570E-06,0.044
2.580E-06,0.012
2.590E-06,0.024
2.600E-06,0.076
2.610E-06,0.160
2.620E-06,0.196
2.630E-06,0.188
2.640E-06,0.048
2.650E-06,-0.076
2.660E-06,-0.236
2.670E-06,-0.332
2.680E-06,-0.192
2.690E-06,-0.044
2.700E-06,0.140
2.710E-06,0.220
2.720E-06,0.188
2.730E-06,-0.032
2.740E-06,-0.228
2.750E-06,-0.288
2.760E-06,-0.192
2.770E-06,-0.004
2.780E-06,0.164
2.790E-06,0.256
2.800E-06,0.144
2.810E-06,-0.024
2.820E-06,-0.164
2.830E-06,-0.180
2.840E-06,-0.096
2.850E-06,0.060
2.860E-06,0.200
2.870E-06,0.272
2.880E-06,0.260
2.890E-06,0.156
2.900E-06,0.064
2.910E-06,0.000
2.920E-06,0.036
2.930E-06,0.108
2.940E-06,0.192
2.950E-06,0.232
2.960E-06,0.176
2.970E-06,0.036
2.980E-06,-0.140
2.990E-06,-0.236
3.000E-06,-0.300
3.010E-06,-0.164
3.020E-06,0.012
3.030E-06,0.084
3.040E-06,0.028
3.050E-06,-0.284
3.060E-06,-0.512
3.070E-06,-0.440
3.080E-06,-0.112
3.090E-06,0.200
3.100E-06,0.456
3.110E-06,0.412
3.120E-06,0.104
3.130E-06,-0.264
3.140E-06,-0.436
3.150E-06,-0.332
3.160E-06,-0.020
3.170E-06,0.276
3.180E-06,0.388
3.190E-06,0.276
3.200E-06,0.064
3.210E-06,-0.124
3.220E-06,-0.252
3.230E-06,-0.188
3.240E-06,0.024
3.250E-06,0.256
3.260E-06,0.424
3.270E-06,0.444
3.280E-06,0.296
3.290E-06,0.048
3.300E-06,-0.244
3.310E-06,-0.364
3.320E-06,-0.336
3.330E-06,-0.204
3.340E-06,0.028
3.350E-06,0.232
3.360E-06,0.208
3.370E-06,0.076
