mediciones/Mediciones filtradas (saque las feas)/5-15/-0.01/WaveData47643.csv

#timebase=2000000(ps)
,#voltbase=100000(mv/100)
#size=4000
-8.400E-06,0.008
-8.390E-06,0.000
-8.380E-06,0.000
-8.370E-06,0.004
-8.360E-06,0.004
-8.350E-06,0.004
-8.340E-06,0.004
-8.330E-06,0.000
-8.320E-06,0.004
-8.310E-06,0.004
-8.300E-06,0.004
-8.290E-06,-0.004
-8.280E-06,0.000
-8.270E-06,0.004
-8.260E-06,0.000
-8.250E-06,0.004
-8.240E-06,0.008
-8.230E-06,0.004
-8.220E-06,0.008
-8.210E-06,0.008
-8.200E-06,0.000
-8.190E-06,0.000
-8.180E-06,0.004
-8.170E-06,-0.004
-8.160E-06,0.004
-8.150E-06,0.008
-8.140E-06,0.008
-8.130E-06,0.000
-8.120E-06,0.004
-8.110E-06,0.000
-8.100E-06,0.000
-8.090E-06,0.000
-8.080E-06,0.000
-8.070E-06,0.008
-8.060E-06,0.004
-8.050E-06,0.004
-8.040E-06,-0.004
-8.030E-06,0.004
-8.020E-06,0.004
-8.010E-06,0.000
-8.000E-06,0.004
-7.990E-06,0.008
-7.980E-06,0.008
-7.970E-06,0.008
-7.960E-06,0.004
-7.950E-06,0.004
-7.940E-06,0.008
-7.930E-06,0.000
-7.920E-06,0.004
-7.910E-06,0.004
-7.900E-06,0.004
-7.890E-06,0.004
-7.880E-06,0.004
-7.870E-06,0.004
-7.860E-06,0.004
-7.850E-06,0.000
-7.840E-06,0.000
-7.830E-06,0.004
-7.820E-06,0.004
-7.810E-06,0.004
-7.800E-06,0.008
-7.790E-06,0.004
-7.780E-06,0.000
-7.770E-06,0.000
-7.760E-06,0.000
-7.750E-06,0.000
-7.740E-06,0.004
-7.730E-06,0.000
-7.720E-06,-0.004
-7.710E-06,0.004
-7.700E-06,0.000
-7.690E-06,0.004
-7.680E-06,0.004
-7.670E-06,0.004
-7.660E-06,0.000
-7.650E-06,0.008
-7.640E-06,0.004
-7.630E-06,0.000
-7.620E-06,0.004
-7.610E-06,0.004
-7.600E-06,0.000
-7.590E-06,0.000
-7.580E-06,0.004
-7.570E-06,0.000
-7.560E-06,0.004
-7.550E-06,0.012
-7.540E-06,0.000
-7.530E-06,0.000
-7.520E-06,0.004
-7.510E-06,0.004
-7.500E-06,0.004
-7.490E-06,0.004
-7.480E-06,0.000
-7.470E-06,0.004
-7.460E-06,0.008
-7.450E-06,0.004
-7.440E-06,-0.004
-7.430E-06,-0.004
-7.420E-06,0.004
-7.410E-06,0.008
-7.400E-06,0.008
-7.390E-06,0.008
-7.380E-06,0.004
-7.370E-06,0.000
-7.360E-06,0.000
-7.350E-06,0.000
-7.340E-06,0.004
-7.330E-06,0.004
-7.320E-06,0.008
-7.310E-06,0.008
-7.300E-06,0.004
-7.290E-06,0.004
-7.280E-06,0.000
-7.270E-06,0.000
-7.260E-06,0.000
-7.250E-06,0.004
-7.240E-06,0.000
-7.230E-06,0.008
-7.220E-06,0.004
-7.210E-06,0.004
-7.200E-06,0.000
-7.190E-06,0.000
-7.180E-06,0.000
-7.170E-06,0.000
-7.160E-06,0.000
-7.150E-06,0.004
-7.140E-06,0.004
-7.130E-06,0.008
-7.120E-06,0.004
-7.110E-06,0.008
-7.100E-06,-0.004
-7.090E-06,0.004
-7.080E-06,0.004
-7.070E-06,0.004
-7.060E-06,0.000
-7.050E-06,0.004
-7.040E-06,0.000
-7.030E-06,0.004
-7.020E-06,0.008
-7.010E-06,0.004
-7.000E-06,0.004
-6.990E-06,0.000
-6.980E-06,0.004
-6.970E-06,0.008
-6.960E-06,0.004
-6.950E-06,0.004
-6.940E-06,0.004
-6.930E-06,0.004
-6.920E-06,0.000
-6.910E-06,0.000
-6.900E-06,0.004
-6.890E-06,0.012
-6.880E-06,0.012
-6.870E-06,0.008
-6.860E-06,0.008
-6.850E-06,0.008
-6.840E-06,-0.004
-6.830E-06,0.000
-6.820E-06,0.004
-6.810E-06,0.000
-6.800E-06,0.004
-6.790E-06,0.008
-6.780E-06,-0.004
-6.770E-06,-0.004
-6.760E-06,0.000
-6.750E-06,-0.004
-6.740E-06,0.004
-6.730E-06,0.008
-6.720E-06,0.004
-6.710E-06,0.004
-6.700E-06,0.000
-6.690E-06,0.000
-6.680E-06,-0.004
-6.670E-06,0.000
-6.660E-06,0.004
-6.650E-06,0.008
-6.640E-06,0.000
-6.630E-06,0.000
-6.620E-06,0.000
-6.610E-06,0.000
-6.600E-06,0.004
-6.590E-06,0.004
-6.580E-06,0.004
-6.570E-06,0.004
-6.560E-06,0.000
-6.550E-06,0.004
-6.540E-06,0.000
-6.530E-06,0.000
-6.520E-06,0.004
-6.510E-06,0.000
-6.500E-06,0.000
-6.490E-06,0.004
-6.480E-06,0.000
-6.470E-06,0.004
-6.460E-06,-0.004
-6.450E-06,0.000
-6.440E-06,0.000
-6.430E-06,-0.004
-6.420E-06,0.000
-6.410E-06,0.008
-6.400E-06,0.004
-6.390E-06,0.008
-6.380E-06,-0.004
-6.370E-06,-0.004
-6.360E-06,0.000
-6.350E-06,0.008
-6.340E-06,0.000
-6.330E-06,0.004
-6.320E-06,0.004
-6.310E-06,0.004
-6.300E-06,0.004
-6.290E-06,0.004
-6.280E-06,0.008
-6.270E-06,0.004
-6.260E-06,-0.004
-6.250E-06,0.000
-6.240E-06,0.004
-6.230E-06,0.008
-6.220E-06,0.004
-6.210E-06,0.004
-6.200E-06,0.000
-6.190E-06,-0.004
-6.180E-06,-0.004
-6.170E-06,0.000
-6.160E-06,0.000
-6.150E-06,0.008
-6.140E-06,0.000
-6.130E-06,0.004
-6.120E-06,-0.004
-6.110E-06,-0.004
-6.100E-06,0.000
-6.090E-06,0.000
-6.080E-06,0.008
-6.070E-06,0.008
-6.060E-06,0.008
-6.050E-06,0.000
-6.040E-06,0.004
-6.030E-06,0.004
-6.020E-06,0.000
-6.010E-06,0.004
-6.000E-06,0.008
-5.990E-06,0.008
-5.980E-06,0.008
-5.970E-06,0.000
-5.960E-06,0.000
-5.950E-06,0.004
-5.940E-06,0.004
-5.930E-06,0.004
-5.920E-06,0.004
-5.910E-06,0.004
-5.900E-06,0.004
-5.890E-06,0.004
-5.880E-06,0.004
-5.870E-06,0.004
-5.860E-06,0.004
-5.850E-06,0.000
-5.840E-06,0.000
-5.830E-06,0.000
-5.820E-06,0.004
-5.810E-06,0.008
-5.800E-06,0.000
-5.790E-06,-0.004
-5.780E-06,0.000
-5.770E-06,0.000
-5.760E-06,0.004
-5.750E-06,0.004
-5.740E-06,0.008
-5.730E-06,0.004
-5.720E-06,0.000
-5.710E-06,0.000
-5.700E-06,0.000
-5.690E-06,0.008
-5.680E-06,0.004
-5.670E-06,0.000
-5.660E-06,0.004
-5.650E-06,0.004
-5.640E-06,0.004
-5.630E-06,0.000
-5.620E-06,0.004
-5.610E-06,0.004
-5.600E-06,-0.004
-5.590E-06,0.000
-5.580E-06,0.004
-5.570E-06,0.008
-5.560E-06,0.004
-5.550E-06,0.004
-5.540E-06,-0.004
-5.530E-06,0.000
-5.520E-06,0.000
-5.510E-06,0.004
-5.500E-06,0.012
-5.490E-06,0.000
-5.480E-06,-0.004
-5.470E-06,0.000
-5.460E-06,-0.004
-5.450E-06,0.000
-5.440E-06,0.008
-5.430E-06,0.004
-5.420E-06,0.004
-5.410E-06,0.000
-5.400E-06,-0.004
-5.390E-06,0.000
-5.380E-06,-0.004
-5.370E-06,0.004
-5.360E-06,0.008
-5.350E-06,0.004
-5.340E-06,0.008
-5.330E-06,0.000
-5.320E-06,0.000
-5.310E-06,0.004
-5.300E-06,0.008
-5.290E-06,0.000
-5.280E-06,0.000
-5.270E-06,0.004
-5.260E-06,0.008
-5.250E-06,0.000
-5.240E-06,0.000
-5.230E-06,0.000
-5.220E-06,0.000
-5.210E-06,0.000
-5.200E-06,-0.004
-5.190E-06,0.008
-5.180E-06,0.004
-5.170E-06,0.000
-5.160E-06,0.000
-5.150E-06,0.000
-5.140E-06,0.004
-5.130E-06,0.008
-5.120E-06,0.004
-5.110E-06,0.000
-5.100E-06,0.004
-5.090E-06,0.008
-5.080E-06,0.004
-5.070E-06,0.004
-5.060E-06,0.004
-5.050E-06,-0.004
-5.040E-06,0.000
-5.030E-06,0.004
-5.020E-06,0.004
-5.010E-06,0.000
-5.000E-06,0.004
-4.990E-06,0.004
-4.980E-06,0.004
-4.970E-06,0.000
-4.960E-06,0.000
-4.950E-06,0.008
-4.940E-06,0.000
-4.930E-06,0.004
-4.920E-06,0.008
-4.910E-06,0.008
-4.900E-06,0.004
-4.890E-06,0.000
-4.880E-06,0.000
-4.870E-06,0.000
-4.860E-06,0.000
-4.850E-06,0.000
-4.840E-06,0.004
-4.830E-06,0.004
-4.820E-06,0.004
-4.810E-06,0.000
-4.800E-06,0.000
-4.790E-06,-0.004
-4.780E-06,0.000
-4.770E-06,0.008
-4.760E-06,0.000
-4.750E-06,0.000
-4.740E-06,0.004
-4.730E-06,0.004
-4.720E-06,0.000
-4.710E-06,0.004
-4.700E-06,0.004
-4.690E-06,0.004
-4.680E-06,0.000
-4.670E-06,0.008
-4.660E-06,0.000
-4.650E-06,0.004
-4.640E-06,0.000
-4.630E-06,0.004
-4.620E-06,0.004
-4.610E-06,0.004
-4.600E-06,0.000
-4.590E-06,0.000
-4.580E-06,0.004
-4.570E-06,0.008
-4.560E-06,-0.004
-4.550E-06,0.000
-4.540E-06,0.000
-4.530E-06,0.008
-4.520E-06,0.008
-4.510E-06,0.000
-4.500E-06,0.000
-4.490E-06,0.000
-4.480E-06,0.004
-4.470E-06,-0.004
-4.460E-06,0.000
-4.450E-06,0.008
-4.440E-06,0.012
-4.430E-06,0.012
-4.420E-06,0.008
-4.410E-06,-0.004
-4.400E-06,0.000
-4.390E-06,0.004
-4.380E-06,0.004
-4.370E-06,0.004
-4.360E-06,0.012
-4.350E-06,0.012
-4.340E-06,0.008
-4.330E-06,0.004
-4.320E-06,-0.004
-4.310E-06,0.000
-4.300E-06,0.000
-4.290E-06,0.008
-4.280E-06,0.004
-4.270E-06,0.004
-4.260E-06,0.004
-4.250E-06,0.004
-4.240E-06,0.004
-4.230E-06,0.000
-4.220E-06,0.000
-4.210E-06,0.000
-4.200E-06,0.004
-4.190E-06,0.000
-4.180E-06,0.004
-4.170E-06,0.008
-4.160E-06,-0.004
-4.150E-06,0.004
-4.140E-06,0.000
-4.130E-06,-0.004
-4.120E-06,0.000
-4.110E-06,0.008
-4.100E-06,0.012
-4.090E-06,0.012
-4.080E-06,0.008
-4.070E-06,0.004
-4.060E-06,-0.004
-4.050E-06,0.000
-4.040E-06,0.004
-4.030E-06,0.000
-4.020E-06,0.008
-4.010E-06,0.008
-4.000E-06,-0.004
-3.990E-06,0.004
-3.980E-06,0.004
-3.970E-06,0.004
-3.960E-06,0.004
-3.950E-06,0.000
-3.940E-06,0.004
-3.930E-06,0.004
-3.920E-06,0.008
-3.910E-06,0.004
-3.900E-06,0.000
-3.890E-06,-0.004
-3.880E-06,0.004
-3.870E-06,0.004
-3.860E-06,0.008
-3.850E-06,0.004
-3.840E-06,0.004
-3.830E-06,0.000
-3.820E-06,0.000
-3.810E-06,0.004
-3.800E-06,-0.008
-3.790E-06,0.000
-3.780E-06,0.008
-3.770E-06,0.008
-3.760E-06,-0.004
-3.750E-06,0.000
-3.740E-06,0.004
-3.730E-06,0.004
-3.720E-06,-0.004
-3.710E-06,0.012
-3.700E-06,0.008
-3.690E-06,-0.004
-3.680E-06,-0.004
-3.670E-06,0.000
-3.660E-06,0.000
-3.650E-06,0.008
-3.640E-06,0.008
-3.630E-06,0.008
-3.620E-06,0.000
-3.610E-06,0.000
-3.600E-06,-0.004
-3.590E-06,0.000
-3.580E-06,0.008
-3.570E-06,0.016
-3.560E-06,0.004
-3.550E-06,0.000
-3.540E-06,0.000
-3.530E-06,-0.004
-3.520E-06,0.000
-3.510E-06,0.004
-3.500E-06,0.000
-3.490E-06,0.008
-3.480E-06,0.004
-3.470E-06,0.000
-3.460E-06,0.004
-3.450E-06,0.004
-3.440E-06,0.004
-3.430E-06,0.000
-3.420E-06,0.004
-3.410E-06,0.004
-3.400E-06,0.004
-3.390E-06,0.004
-3.380E-06,0.004
-3.370E-06,0.000
-3.360E-06,0.000
-3.350E-06,-0.004
-3.340E-06,0.000
-3.330E-06,0.000
-3.320E-06,0.008
-3.310E-06,0.008
-3.300E-06,0.004
-3.290E-06,0.000
-3.280E-06,-0.004
-3.270E-06,0.004
-3.260E-06,0.004
-3.250E-06,0.008
-3.240E-06,0.008
-3.230E-06,0.000
-3.220E-06,-0.004
-3.210E-06,0.000
-3.200E-06,0.008
-3.190E-06,0.012
-3.180E-06,0.000
-3.170E-06,0.000
-3.160E-06,0.004
-3.150E-06,0.004
-3.140E-06,0.004
-3.130E-06,0.000
-3.120E-06,0.004
-3.110E-06,0.000
-3.100E-06,0.000
-3.090E-06,0.004
-3.080E-06,0.004
-3.070E-06,0.004
-3.060E-06,0.004
-3.050E-06,0.004
-3.040E-06,0.000
-3.030E-06,0.000
-3.020E-06,0.004
-3.010E-06,0.000
-3.000E-06,0.004
-2.990E-06,0.000
-2.980E-06,0.004
-2.970E-06,0.000
-2.960E-06,0.004
-2.950E-06,0.000
-2.940E-06,0.008
-2.930E-06,0.004
-2.920E-06,-0.004
-2.910E-06,-0.004
-2.900E-06,-0.008
-2.890E-06,0.004
-2.880E-06,0.008
-2.870E-06,0.012
-2.860E-06,0.004
-2.850E-06,0.000
-2.840E-06,0.000
-2.830E-06,-0.004
-2.820E-06,0.000
-2.810E-06,0.004
-2.800E-06,0.008
-2.790E-06,0.012
-2.780E-06,0.004
-2.770E-06,0.000
-2.760E-06,-0.004
-2.750E-06,-0.004
-2.740E-06,0.000
-2.730E-06,0.000
-2.720E-06,0.008
-2.710E-06,0.008
-2.700E-06,0.004
-2.690E-06,0.000
-2.680E-06,0.000
-2.670E-06,-0.004
-2.660E-06,-0.004
-2.650E-06,0.004
-2.640E-06,0.004
-2.630E-06,0.008
-2.620E-06,0.008
-2.610E-06,0.004
-2.600E-06,-0.004
-2.590E-06,-0.004
-2.580E-06,0.000
-2.570E-06,0.000
-2.560E-06,0.008
-2.550E-06,0.004
-2.540E-06,0.000
-2.530E-06,0.004
-2.520E-06,-0.008
-2.510E-06,0.004
-2.500E-06,0.008
-2.490E-06,0.000
-2.480E-06,0.000
-2.470E-06,0.004
-2.460E-06,0.008
-2.450E-06,0.000
-2.440E-06,0.004
-2.430E-06,0.004
-2.420E-06,0.000
-2.410E-06,0.000
-2.400E-06,0.004
-2.390E-06,0.000
-2.380E-06,0.004
-2.370E-06,0.004
-2.360E-06,0.000
-2.350E-06,0.000
-2.340E-06,0.004
-2.330E-06,0.000
-2.320E-06,0.000
-2.310E-06,0.004
-2.300E-06,0.004
-2.290E-06,0.000
-2.280E-06,0.000
-2.270E-06,0.004
-2.260E-06,0.004
-2.250E-06,0.004
-2.240E-06,0.004
-2.230E-06,0.004
-2.220E-06,0.004
-2.210E-06,0.000
-2.200E-06,0.000
-2.190E-06,0.000
-2.180E-06,-0.004
-2.170E-06,0.004
-2.160E-06,0.008
-2.150E-06,0.008
-2.140E-06,0.004
-2.130E-06,0.000
-2.120E-06,-0.004
-2.110E-06,-0.004
-2.100E-06,0.004
-2.090E-06,0.004
-2.080E-06,0.008
-2.070E-06,0.008
-2.060E-06,0.004
-2.050E-06,0.000
-2.040E-06,0.004
-2.030E-06,0.004
-2.020E-06,0.004
-2.010E-06,0.000
-2.000E-06,0.000
-1.990E-06,0.004
-1.980E-06,0.008
-1.970E-06,0.004
-1.960E-06,0.004
-1.950E-06,0.004
-1.940E-06,-0.004
-1.930E-06,0.000
-1.920E-06,0.008
-1.910E-06,0.004
-1.900E-06,0.004
-1.890E-06,0.004
-1.880E-06,0.000
-1.870E-06,0.000
-1.860E-06,-0.004
-1.850E-06,-0.004
-1.840E-06,0.004
-1.830E-06,0.004
-1.820E-06,0.008
-1.810E-06,0.008
-1.800E-06,0.004
-1.790E-06,0.004
-1.780E-06,-0.004
-1.770E-06,0.000
-1.760E-06,0.004
-1.750E-06,0.012
-1.740E-06,0.004
-1.730E-06,0.004
-1.720E-06,0.008
-1.710E-06,0.000
-1.700E-06,-0.004
-1.690E-06,0.000
-1.680E-06,0.008
-1.670E-06,0.004
-1.660E-06,0.004
-1.650E-06,0.008
-1.640E-06,0.004
-1.630E-06,0.004
-1.620E-06,0.004
-1.610E-06,0.008
-1.600E-06,0.000
-1.590E-06,0.004
-1.580E-06,0.008
-1.570E-06,0.008
-1.560E-06,0.008
-1.550E-06,0.012
-1.540E-06,0.000
-1.530E-06,-0.004
-1.520E-06,0.000
-1.510E-06,0.000
-1.500E-06,0.008
-1.490E-06,0.008
-1.480E-06,0.008
-1.470E-06,0.012
-1.460E-06,0.008
-1.450E-06,0.004
-1.440E-06,0.000
-1.430E-06,0.000
-1.420E-06,0.004
-1.410E-06,0.008
-1.400E-06,0.008
-1.390E-06,0.004
-1.380E-06,0.008
-1.370E-06,0.000
-1.360E-06,-0.004
-1.350E-06,0.004
-1.340E-06,0.012
-1.330E-06,0.004
-1.320E-06,0.004
-1.310E-06,0.012
-1.300E-06,0.016
-1.290E-06,0.012
-1.280E-06,0.004
-1.270E-06,0.000
-1.260E-06,0.008
-1.250E-06,0.012
-1.240E-06,0.004
-1.230E-06,0.012
-1.220E-06,0.012
-1.210E-06,0.016
-1.200E-06,0.012
-1.190E-06,0.016
-1.180E-06,0.008
-1.170E-06,0.004
-1.160E-06,-0.008
-1.150E-06,-0.016
-1.140E-06,-0.004
-1.130E-06,-0.004
-1.120E-06,0.000
-1.110E-06,0.008
-1.100E-06,0.000
-1.090E-06,-0.008
-1.080E-06,-0.004
-1.070E-06,0.008
-1.060E-06,0.000
-1.050E-06,0.000
-1.040E-06,0.008
-1.030E-06,0.016
-1.020E-06,0.020
-1.010E-06,0.012
-1.000E-06,0.008
-9.900E-07,-0.004
-9.800E-07,-0.004
-9.700E-07,0.012
-9.600E-07,0.028
-9.500E-07,0.028
-9.400E-07,0.020
-9.300E-07,0.008
-9.200E-07,-0.024
-9.100E-07,-0.020
-9.000E-07,-0.020
-8.900E-07,-0.004
-8.800E-07,0.012
-8.700E-07,0.024
-8.600E-07,0.028
-8.500E-07,0.012
-8.400E-07,0.000
-8.300E-07,-0.004
-8.200E-07,0.000
-8.100E-07,0.008
-8.000E-07,0.024
-7.900E-07,0.028
-7.800E-07,0.024
-7.700E-07,0.020
-7.600E-07,0.020
-7.500E-07,0.016
-7.400E-07,0.000
-7.300E-07,0.000
-7.200E-07,0.000
-7.100E-07,0.016
-7.000E-07,0.024
-6.900E-07,0.036
-6.800E-07,0.036
-6.700E-07,0.028
-6.600E-07,0.020
-6.500E-07,0.012
-6.400E-07,0.012
-6.300E-07,0.008
-6.200E-07,0.008
-6.100E-07,0.004
-6.000E-07,0.008
-5.900E-07,0.004
-5.800E-07,0.012
-5.700E-07,0.012
-5.600E-07,0.024
-5.500E-07,0.024
-5.400E-07,0.008
-5.300E-07,0.004
-5.200E-07,0.004
-5.100E-07,0.004
-5.000E-07,0.028
-4.900E-07,0.028
-4.800E-07,0.020
-4.700E-07,0.004
-4.600E-07,0.004
-4.500E-07,0.000
-4.400E-07,0.012
-4.300E-07,0.024
-4.200E-07,0.044
-4.100E-07,0.056
-4.000E-07,0.056
-3.900E-07,0.024
-3.800E-07,0.052
-3.700E-07,0.080
-3.600E-07,0.092
-3.500E-07,0.084
-3.400E-07,0.012
-3.300E-07,-0.104
-3.200E-07,-0.176
-3.100E-07,-0.124
-3.000E-07,-0.032
-2.900E-07,0.108
-2.800E-07,0.156
-2.700E-07,0.100
-2.600E-07,0.040
-2.500E-07,-0.012
-2.400E-07,-0.040
-2.300E-07,-0.052
-2.200E-07,-0.004
-2.100E-07,0.072
-2.000E-07,0.140
-1.900E-07,0.168
-1.800E-07,0.124
-1.700E-07,0.072
-1.600E-07,0.044
-1.500E-07,0.028
-1.400E-07,0.012
-1.300E-07,0.044
-1.200E-07,0.124
-1.100E-07,0.160
-1.000E-07,0.144
-9.000E-08,0.140
-8.000E-08,0.076
-7.000E-08,-0.028
-6.000E-08,-0.152
-5.000E-08,-0.388
-4.000E-08,-0.512
-3.000E-08,-0.492
-2.000E-08,-0.196
-1.000E-08,0.168
0.000E+00,0.432
1.000E-08,0.440
2.000E-08,0.172
3.000E-08,-0.164
4.000E-08,-0.432
5.000E-08,-0.416
6.000E-08,-0.184
7.000E-08,0.140
8.000E-08,0.356
9.000E-08,0.396
1.000E-07,0.228
1.100E-07,0.084
1.200E-07,-0.044
1.300E-07,-0.028
1.400E-07,0.076
1.500E-07,0.200
1.600E-07,0.240
1.700E-07,0.236
1.800E-07,0.272
1.900E-07,0.188
2.000E-07,0.000
2.100E-07,-0.232
2.200E-07,-0.424
2.300E-07,-0.400
2.400E-07,-0.120
2.500E-07,0.184
2.600E-07,0.224
2.700E-07,0.192
2.800E-07,-0.128
2.900E-07,-0.212
3.000E-07,-0.108
3.100E-07,-0.160
3.200E-07,-0.164
3.300E-07,0.056
3.400E-07,0.100
3.500E-07,0.132
3.600E-07,0.120
3.700E-07,0.044
3.800E-07,-0.056
3.900E-07,-0.064
4.000E-07,0.004
4.100E-07,0.044
4.200E-07,0.160
4.300E-07,0.168
4.400E-07,0.220
4.500E-07,0.220
4.600E-07,0.192
4.700E-07,0.108
4.800E-07,0.108
4.900E-07,0.128
5.000E-07,0.164
5.100E-07,0.192
5.200E-07,0.184
5.300E-07,0.156
5.400E-07,0.044
5.500E-07,-0.056
5.600E-07,-0.136
5.700E-07,-0.136
5.800E-07,-0.056
5.900E-07,0.056
6.000E-07,0.040
6.100E-07,0.072
6.200E-07,0.008
6.300E-07,-0.088
6.400E-07,-0.152
6.500E-07,-0.148
6.600E-07,-0.160
6.700E-07,-0.124
6.800E-07,0.012
6.900E-07,0.104
7.000E-07,0.188
7.100E-07,0.152
7.200E-07,0.128
7.300E-07,0.060
7.400E-07,0.068
7.500E-07,0.112
7.600E-07,0.228
7.700E-07,0.320
7.800E-07,0.332
7.900E-07,0.260
8.000E-07,0.160
8.100E-07,0.096
8.200E-07,0.048
8.300E-07,0.136
8.400E-07,0.212
8.500E-07,0.292
8.600E-07,0.320
8.700E-07,0.304
8.800E-07,0.224
8.900E-07,0.160
9.000E-07,0.096
9.100E-07,0.104
9.200E-07,0.164
9.300E-07,0.256
9.400E-07,0.312
9.500E-07,0.308
9.600E-07,0.260
9.700E-07,0.168
9.800E-07,0.132
9.900E-07,0.128
1.000E-06,0.192
1.010E-06,0.224
1.020E-06,0.264
1.030E-06,0.276
1.040E-06,0.260
1.050E-06,0.216
1.060E-06,0.196
1.070E-06,0.172
1.080E-06,0.172
1.090E-06,0.184
1.100E-06,0.228
1.110E-06,0.256
1.120E-06,0.236
1.130E-06,0.212
1.140E-06,0.176
1.150E-06,0.140
1.160E-06,0.104
1.170E-06,0.200
1.180E-06,0.208
1.190E-06,0.232
1.200E-06,0.272
1.210E-06,0.268
1.220E-06,0.260
1.230E-06,0.232
1.240E-06,0.224
1.250E-06,0.192
1.260E-06,0.216
1.270E-06,0.228
1.280E-06,0.260
1.290E-06,0.260
1.300E-06,0.252
1.310E-06,0.232
1.320E-06,0.208
1.330E-06,0.196
1.340E-06,0.208
1.350E-06,0.240
1.360E-06,0.256
1.370E-06,0.260
1.380E-06,0.240
1.390E-06,0.228
1.400E-06,0.204
1.410E-06,0.204
1.420E-06,0.220
1.430E-06,0.232
1.440E-06,0.240
1.450E-06,0.252
1.460E-06,0.248
1.470E-06,0.232
1.480E-06,0.220
1.490E-06,0.208
1.500E-06,0.212
1.510E-06,0.228
1.520E-06,0.244
1.530E-06,0.256
1.540E-06,0.256
1.550E-06,0.244
1.560E-06,0.228
1.570E-06,0.220
1.580E-06,0.220
1.590E-06,0.228
1.600E-06,0.240
1.610E-06,0.252
1.620E-06,0.244
1.630E-06,0.236
1.640E-06,0.228
1.650E-06,0.224
1.660E-06,0.216
1.670E-06,0.220
1.680E-06,0.236
1.690E-06,0.244
1.700E-06,0.244
1.710E-06,0.236
1.720E-06,0.232
1.730E-06,0.220
1.740E-06,0.216
1.750E-06,0.220
1.760E-06,0.228
1.770E-06,0.236
1.780E-06,0.236
1.790E-06,0.236
1.800E-06,0.228
1.810E-06,0.220
1.820E-06,0.216
1.830E-06,0.216
1.840E-06,0.220
1.850E-06,0.224
1.860E-06,0.228
1.870E-06,0.232
1.880E-06,0.228
1.890E-06,0.224
1.900E-06,0.220
1.910E-06,0.220
1.920E-06,0.220
1.930E-06,0.228
1.940E-06,0.224
1.950E-06,0.228
1.960E-06,0.224
1.970E-06,0.224
1.980E-06,0.220
1.990E-06,0.216
2.000E-06,0.220
2.010E-06,0.224
2.020E-06,0.220
2.030E-06,0.228
2.040E-06,0.224
2.050E-06,0.228
2.060E-06,0.224
2.070E-06,0.220
2.080E-06,0.216
2.090E-06,0.224
2.100E-06,0.220
2.110E-06,0.224
2.120E-06,0.224
2.130E-06,0.224
2.140E-06,0.224
2.150E-06,0.224
2.160E-06,0.216
2.170E-06,0.224
2.180E-06,0.216
2.190E-06,0.216
2.200E-06,0.220
2.210E-06,0.220
2.220E-06,0.216
2.230E-06,0.224
2.240E-06,0.220
2.250E-06,0.212
2.260E-06,0.212
2.270E-06,0.216
2.280E-06,0.220
2.290E-06,0.212
2.300E-06,0.208
2.310E-06,0.208
2.320E-06,0.212
2.330E-06,0.208
2.340E-06,0.208
2.350E-06,0.208
2.360E-06,0.212
2.370E-06,0.208
2.380E-06,0.204
2.390E-06,0.204
2.400E-06,0.212
2.410E-06,0.212
2.420E-06,0.204
2.430E-06,0.208
2.440E-06,0.204
2.450E-06,0.204
2.460E-06,0.204
2.470E-06,0.204
2.480E-06,0.204
2.490E-06,0.204
2.500E-06,0.204
2.510E-06,0.204
2.520E-06,0.200
2.530E-06,0.200
2.540E-06,0.200
2.550E-06,0.200
2.560E-06,0.200
2.570E-06,0.204
2.580E-06,0.204
2.590E-06,0.200
2.600E-06,0.196
2.610E-06,0.196
2.620E-06,0.200
2.630E-06,0.196
2.640E-06,0.196
2.650E-06,0.196
2.660E-06,0.196
2.670E-06,0.196
2.680E-06,0.200
2.690E-06,0.200
2.700E-06,0.196
2.710E-06,0.192
2.720E-06,0.196
2.730E-06,0.196
2.740E-06,0.192
2.750E-06,0.192
2.760E-06,0.196
2.770E-06,0.196
2.780E-06,0.192
2.790E-06,0.192
2.800E-06,0.192
2.810E-06,0.188
2.820E-06,0.188
2.830E-06,0.192
2.840E-06,0.192
2.850E-06,0.188
2.860E-06,0.192
2.870E-06,0.192
2.880E-06,0.188
2.890E-06,0.192
2.900E-06,0.184
2.910E-06,0.188
2.920E-06,0.184
2.930E-06,0.188
2.940E-06,0.184
2.950E-06,0.188
2.960E-06,0.184
2.970E-06,0.184
2.980E-06,0.184
2.990E-06,0.180
3.000E-06,0.180
3.010E-06,0.180
3.020E-06,0.176
3.030E-06,0.180
3.040E-06,0.176
3.050E-06,0.176
3.060E-06,0.172
3.070E-06,0.172
3.080E-06,0.172
3.090E-06,0.168
3.100E-06,0.172
3.110E-06,0.172
3.120E-06,0.172
3.130E-06,0.172
3.140E-06,0.168
3.150E-06,0.164
3.160E-06,0.168
3.170E-06,0.164
3.180E-06,0.164
3.190E-06,0.168
3.200E-06,0.160
3.210E-06,0.160
3.220E-06,0.164
3.230E-06,0.164
3.240E-06,0.168
3.250E-06,0.164
3.260E-06,0.160
3.270E-06,0.160
3.280E-06,0.152
3.290E-06,0.156
3.300E-06,0.160
3.310E-06,0.164
3.320E-06,0.164
3.330E-06,0.168
3.340E-06,0.164
3.350E-06,0.156
3.360E-06,0.160
3.370E-06,0.156
3.380E-06,0.160
3.390E-06,0.156
3.400E-06,0.160
3.410E-06,0.164
3.420E-06,0.164
3.430E-06,0.160
3.440E-06,0.160
3.450E-06,0.152
