mediciones/Mediciones filtradas (saque las feas)/6-10/37.5/WaveData55247.csv

#timebase=2000000(ps)
,#voltbase=100000(mv/100)
#size=4000
-4.200E-06,0.012
-4.190E-06,0.012
-4.180E-06,0.004
-4.170E-06,0.000
-4.160E-06,-0.004
-4.150E-06,0.000
-4.140E-06,-0.020
-4.130E-06,-0.004
-4.120E-06,-0.004
-4.110E-06,0.024
-4.100E-06,0.020
-4.090E-06,0.032
-4.080E-06,0.004
-4.070E-06,-0.024
-4.060E-06,-0.020
-4.050E-06,-0.008
-4.040E-06,0.012
-4.030E-06,0.020
-4.020E-06,0.020
-4.010E-06,0.008
-4.000E-06,0.008
-3.990E-06,-0.016
-3.980E-06,-0.020
-3.970E-06,-0.012
-3.960E-06,0.008
-3.950E-06,0.024
-3.940E-06,0.032
-3.930E-06,0.024
-3.920E-06,0.000
-3.910E-06,0.000
-3.900E-06,-0.008
-3.890E-06,-0.012
-3.880E-06,-0.012
-3.870E-06,0.004
-3.860E-06,-0.004
-3.850E-06,0.012
-3.840E-06,0.020
-3.830E-06,0.008
-3.820E-06,0.004
-3.810E-06,-0.004
-3.800E-06,0.000
-3.790E-06,-0.004
-3.780E-06,0.008
-3.770E-06,0.008
-3.760E-06,0.016
-3.750E-06,0.012
-3.740E-06,0.000
-3.730E-06,-0.004
-3.720E-06,-0.008
-3.710E-06,0.000
-3.700E-06,0.008
-3.690E-06,0.008
-3.680E-06,0.000
-3.670E-06,-0.004
-3.660E-06,-0.008
-3.650E-06,0.000
-3.640E-06,0.008
-3.630E-06,0.016
-3.620E-06,0.008
-3.610E-06,0.008
-3.600E-06,-0.004
-3.590E-06,0.004
-3.580E-06,-0.004
-3.570E-06,-0.004
-3.560E-06,0.012
-3.550E-06,0.000
-3.540E-06,0.004
-3.530E-06,0.008
-3.520E-06,0.008
-3.510E-06,0.008
-3.500E-06,0.008
-3.490E-06,0.004
-3.480E-06,0.000
-3.470E-06,0.000
-3.460E-06,0.004
-3.450E-06,0.008
-3.440E-06,0.008
-3.430E-06,0.012
-3.420E-06,-0.016
-3.410E-06,-0.020
-3.400E-06,-0.004
-3.390E-06,0.000
-3.380E-06,0.024
-3.370E-06,0.024
-3.360E-06,0.028
-3.350E-06,0.008
-3.340E-06,-0.008
-3.330E-06,-0.016
-3.320E-06,-0.008
-3.310E-06,0.004
-3.300E-06,0.020
-3.290E-06,0.004
-3.280E-06,0.008
-3.270E-06,0.008
-3.260E-06,0.004
-3.250E-06,0.000
-3.240E-06,-0.004
-3.230E-06,0.004
-3.220E-06,-0.008
-3.210E-06,0.016
-3.200E-06,0.028
-3.190E-06,0.004
-3.180E-06,0.004
-3.170E-06,-0.024
-3.160E-06,0.000
-3.150E-06,-0.012
-3.140E-06,0.004
-3.130E-06,0.020
-3.120E-06,0.020
-3.110E-06,0.028
-3.100E-06,0.008
-3.090E-06,0.004
-3.080E-06,-0.016
-3.070E-06,-0.004
-3.060E-06,-0.008
-3.050E-06,0.024
-3.040E-06,0.020
-3.030E-06,0.012
-3.020E-06,0.008
-3.010E-06,-0.004
-3.000E-06,-0.004
-2.990E-06,0.000
-2.980E-06,-0.004
-2.970E-06,-0.028
-2.960E-06,0.024
-2.950E-06,-0.004
-2.940E-06,0.024
-2.930E-06,0.016
-2.920E-06,-0.004
-2.910E-06,0.004
-2.900E-06,0.000
-2.890E-06,0.020
-2.880E-06,0.008
-2.870E-06,0.004
-2.860E-06,0.012
-2.850E-06,0.008
-2.840E-06,0.000
-2.830E-06,0.008
-2.820E-06,-0.008
-2.810E-06,-0.028
-2.800E-06,-0.004
-2.790E-06,0.000
-2.780E-06,0.024
-2.770E-06,0.012
-2.760E-06,0.008
-2.750E-06,-0.004
-2.740E-06,-0.004
-2.730E-06,-0.004
-2.720E-06,-0.004
-2.710E-06,0.000
-2.700E-06,0.012
-2.690E-06,0.016
-2.680E-06,0.008
-2.670E-06,0.000
-2.660E-06,-0.004
-2.650E-06,0.008
-2.640E-06,0.008
-2.630E-06,0.016
-2.620E-06,0.004
-2.610E-06,0.008
-2.600E-06,-0.004
-2.590E-06,0.008
-2.580E-06,0.012
-2.570E-06,0.008
-2.560E-06,0.004
-2.550E-06,-0.016
-2.540E-06,0.004
-2.530E-06,-0.036
-2.520E-06,0.016
-2.510E-06,0.000
-2.500E-06,0.024
-2.490E-06,0.020
-2.480E-06,0.012
-2.470E-06,0.000
-2.460E-06,-0.004
-2.450E-06,-0.004
-2.440E-06,0.004
-2.430E-06,0.008
-2.420E-06,0.012
-2.410E-06,0.008
-2.400E-06,0.004
-2.390E-06,0.004
-2.380E-06,0.012
-2.370E-06,-0.008
-2.360E-06,0.008
-2.350E-06,0.008
-2.340E-06,0.008
-2.330E-06,0.004
-2.320E-06,0.012
-2.310E-06,0.008
-2.300E-06,0.004
-2.290E-06,0.008
-2.280E-06,-0.004
-2.270E-06,-0.004
-2.260E-06,0.004
-2.250E-06,0.008
-2.240E-06,-0.016
-2.230E-06,-0.008
-2.220E-06,0.004
-2.210E-06,0.008
-2.200E-06,0.024
-2.190E-06,0.012
-2.180E-06,0.000
-2.170E-06,0.000
-2.160E-06,-0.004
-2.150E-06,-0.004
-2.140E-06,-0.004
-2.130E-06,-0.004
-2.120E-06,0.012
-2.110E-06,-0.008
-2.100E-06,0.012
-2.090E-06,0.012
-2.080E-06,0.012
-2.070E-06,0.008
-2.060E-06,-0.012
-2.050E-06,-0.024
-2.040E-06,-0.016
-2.030E-06,0.012
-2.020E-06,0.020
-2.010E-06,0.028
-2.000E-06,0.012
-1.990E-06,-0.004
-1.980E-06,-0.004
-1.970E-06,-0.004
-1.960E-06,-0.004
-1.950E-06,0.016
-1.940E-06,0.008
-1.930E-06,0.008
-1.920E-06,0.008
-1.910E-06,0.000
-1.900E-06,0.004
-1.890E-06,0.008
-1.880E-06,0.016
-1.870E-06,0.008
-1.860E-06,-0.012
-1.850E-06,-0.008
-1.840E-06,-0.004
-1.830E-06,0.004
-1.820E-06,0.004
-1.810E-06,0.008
-1.800E-06,0.008
-1.790E-06,0.004
-1.780E-06,0.004
-1.770E-06,0.000
-1.760E-06,-0.004
-1.750E-06,0.004
-1.740E-06,0.012
-1.730E-06,0.004
-1.720E-06,-0.004
-1.710E-06,0.004
-1.700E-06,0.000
-1.690E-06,-0.004
-1.680E-06,0.020
-1.670E-06,0.032
-1.660E-06,-0.028
-1.650E-06,0.024
-1.640E-06,-0.012
-1.630E-06,-0.004
-1.620E-06,0.024
-1.610E-06,0.000
-1.600E-06,0.016
-1.590E-06,-0.012
-1.580E-06,0.020
-1.570E-06,0.028
-1.560E-06,0.000
-1.550E-06,0.008
-1.540E-06,0.004
-1.530E-06,-0.008
-1.520E-06,0.012
-1.510E-06,0.024
-1.500E-06,-0.004
-1.490E-06,-0.016
-1.480E-06,-0.024
-1.470E-06,-0.008
-1.460E-06,0.008
-1.450E-06,0.016
-1.440E-06,0.012
-1.430E-06,0.016
-1.420E-06,0.020
-1.410E-06,0.012
-1.400E-06,0.004
-1.390E-06,0.000
-1.380E-06,0.000
-1.370E-06,0.000
-1.360E-06,0.008
-1.350E-06,0.012
-1.340E-06,0.020
-1.330E-06,0.024
-1.320E-06,0.024
-1.310E-06,-0.012
-1.300E-06,-0.008
-1.290E-06,-0.032
-1.280E-06,0.028
-1.270E-06,-0.012
-1.260E-06,0.060
-1.250E-06,0.020
-1.240E-06,0.060
-1.230E-06,-0.008
-1.220E-06,0.028
-1.210E-06,0.056
-1.200E-06,0.024
-1.190E-06,0.000
-1.180E-06,-0.024
-1.170E-06,-0.040
-1.160E-06,-0.036
-1.150E-06,-0.016
-1.140E-06,0.040
-1.130E-06,0.048
-1.120E-06,0.036
-1.110E-06,0.016
-1.100E-06,-0.016
-1.090E-06,-0.036
-1.080E-06,-0.024
-1.070E-06,-0.004
-1.060E-06,0.008
-1.050E-06,0.044
-1.040E-06,0.060
-1.030E-06,0.056
-1.020E-06,0.056
-1.010E-06,0.036
-1.000E-06,0.016
-9.900E-07,0.004
-9.800E-07,0.012
-9.700E-07,0.024
-9.600E-07,-0.012
-9.500E-07,0.072
-9.400E-07,-0.072
-9.300E-07,0.012
-9.200E-07,-0.120
-9.100E-07,-0.048
-9.000E-07,-0.004
-8.900E-07,0.012
-8.800E-07,0.060
-8.700E-07,0.048
-8.600E-07,0.020
-8.500E-07,-0.036
-8.400E-07,-0.040
-8.300E-07,-0.036
-8.200E-07,0.008
-8.100E-07,0.056
-8.000E-07,0.040
-7.900E-07,0.004
-7.800E-07,0.004
-7.700E-07,0.012
-7.600E-07,-0.016
-7.500E-07,0.020
-7.400E-07,0.048
-7.300E-07,0.092
-7.200E-07,0.160
-7.100E-07,0.112
-7.000E-07,0.180
-6.900E-07,0.068
-6.800E-07,0.000
-6.700E-07,0.012
-6.600E-07,-0.028
-6.500E-07,0.060
-6.400E-07,0.036
-6.300E-07,0.096
-6.200E-07,-0.204
-6.100E-07,-0.268
-6.000E-07,-0.120
-5.900E-07,-0.104
-5.800E-07,0.056
-5.700E-07,0.204
-5.600E-07,0.192
-5.500E-07,-0.040
-5.400E-07,-0.120
-5.300E-07,-0.208
-5.200E-07,-0.160
-5.100E-07,-0.100
-5.000E-07,0.036
-4.900E-07,0.120
-4.800E-07,0.120
-4.700E-07,0.148
-4.600E-07,-0.032
-4.500E-07,-0.036
-4.400E-07,-0.072
-4.300E-07,-0.036
-4.200E-07,0.044
-4.100E-07,0.096
-4.000E-07,0.092
-3.900E-07,0.040
-3.800E-07,0.056
-3.700E-07,-0.032
-3.600E-07,-0.036
-3.500E-07,-0.004
-3.400E-07,0.108
-3.300E-07,0.208
-3.200E-07,0.256
-3.100E-07,0.272
-3.000E-07,0.232
-2.900E-07,0.096
-2.800E-07,0.024
-2.700E-07,-0.004
-2.600E-07,0.064
-2.500E-07,0.168
-2.400E-07,0.268
-2.300E-07,0.272
-2.200E-07,0.172
-2.100E-07,0.112
-2.000E-07,0.036
-1.900E-07,0.088
-1.800E-07,0.124
-1.700E-07,0.168
-1.600E-07,0.172
-1.500E-07,-0.064
-1.400E-07,0.060
-1.300E-07,-0.436
-1.200E-07,-0.012
-1.100E-07,-0.452
-1.000E-07,0.012
-9.000E-08,0.024
-8.000E-08,-0.036
-7.000E-08,0.060
-6.000E-08,-0.264
-5.000E-08,-0.232
-4.000E-08,-0.140
-3.000E-08,0.072
-2.000E-08,0.160
-1.000E-08,0.132
0.000E+00,0.148
1.000E-08,0.392
2.000E-08,0.236
3.000E-08,0.196
4.000E-08,0.144
5.000E-08,0.108
6.000E-08,0.100
7.000E-08,0.216
8.000E-08,0.320
9.000E-08,0.220
1.000E-07,0.284
1.100E-07,0.152
1.200E-07,0.192
1.300E-07,0.124
1.400E-07,0.176
1.500E-07,0.208
1.600E-07,0.192
1.700E-07,0.132
1.800E-07,0.164
1.900E-07,0.216
2.000E-07,0.140
2.100E-07,0.192
2.200E-07,0.220
2.300E-07,0.252
2.400E-07,0.276
2.500E-07,0.244
2.600E-07,0.192
2.700E-07,0.152
2.800E-07,0.196
2.900E-07,0.212
3.000E-07,0.260
3.100E-07,0.224
3.200E-07,0.240
3.300E-07,0.196
3.400E-07,0.208
3.500E-07,0.196
3.600E-07,0.208
3.700E-07,0.216
3.800E-07,0.220
3.900E-07,0.236
4.000E-07,0.228
4.100E-07,0.236
4.200E-07,0.204
4.300E-07,0.208
4.400E-07,0.196
4.500E-07,0.216
4.600E-07,0.220
4.700E-07,0.228
4.800E-07,0.240
4.900E-07,0.224
5.000E-07,0.220
5.100E-07,0.204
5.200E-07,0.208
5.300E-07,0.208
5.400E-07,0.216
5.500E-07,0.224
5.600E-07,0.228
5.700E-07,0.220
5.800E-07,0.224
5.900E-07,0.212
6.000E-07,0.208
6.100E-07,0.208
6.200E-07,0.220
6.300E-07,0.220
6.400E-07,0.224
6.500E-07,0.224
6.600E-07,0.224
6.700E-07,0.220
6.800E-07,0.208
6.900E-07,0.212
7.000E-07,0.212
7.100E-07,0.220
7.200E-07,0.224
7.300E-07,0.220
7.400E-07,0.220
7.500E-07,0.212
7.600E-07,0.212
7.700E-07,0.208
7.800E-07,0.208
7.900E-07,0.212
8.000E-07,0.220
8.100E-07,0.220
8.200E-07,0.220
8.300E-07,0.212
8.400E-07,0.212
8.500E-07,0.208
8.600E-07,0.212
8.700E-07,0.216
8.800E-07,0.216
8.900E-07,0.216
9.000E-07,0.220
9.100E-07,0.216
9.200E-07,0.216
9.300E-07,0.208
9.400E-07,0.204
9.500E-07,0.204
9.600E-07,0.208
9.700E-07,0.212
9.800E-07,0.220
9.900E-07,0.224
1.000E-06,0.216
1.010E-06,0.212
1.020E-06,0.208
1.030E-06,0.204
1.040E-06,0.208
1.050E-06,0.208
1.060E-06,0.208
1.070E-06,0.212
1.080E-06,0.212
1.090E-06,0.208
1.100E-06,0.204
1.110E-06,0.204
1.120E-06,0.208
1.130E-06,0.204
1.140E-06,0.204
1.150E-06,0.204
1.160E-06,0.212
1.170E-06,0.204
1.180E-06,0.204
1.190E-06,0.204
1.200E-06,0.200
1.210E-06,0.196
1.220E-06,0.196
1.230E-06,0.200
1.240E-06,0.208
1.250E-06,0.208
1.260E-06,0.200
1.270E-06,0.196
1.280E-06,0.192
1.290E-06,0.196
1.300E-06,0.196
1.310E-06,0.192
1.320E-06,0.200
1.330E-06,0.200
1.340E-06,0.196
1.350E-06,0.200
1.360E-06,0.196
1.370E-06,0.188
1.380E-06,0.196
1.390E-06,0.192
1.400E-06,0.196
1.410E-06,0.200
1.420E-06,0.192
1.430E-06,0.196
1.440E-06,0.192
1.450E-06,0.188
1.460E-06,0.188
1.470E-06,0.188
1.480E-06,0.192
1.490E-06,0.192
1.500E-06,0.188
1.510E-06,0.188
1.520E-06,0.184
1.530E-06,0.180
1.540E-06,0.180
1.550E-06,0.188
1.560E-06,0.192
1.570E-06,0.188
1.580E-06,0.188
1.590E-06,0.188
1.600E-06,0.180
1.610E-06,0.172
1.620E-06,0.176
1.630E-06,0.180
1.640E-06,0.188
1.650E-06,0.188
1.660E-06,0.188
1.670E-06,0.188
1.680E-06,0.184
1.690E-06,0.188
1.700E-06,0.180
1.710E-06,0.176
1.720E-06,0.176
1.730E-06,0.192
1.740E-06,0.196
1.750E-06,0.180
1.760E-06,0.180
1.770E-06,0.176
1.780E-06,0.172
1.790E-06,0.188
1.800E-06,0.184
1.810E-06,0.188
1.820E-06,0.176
1.830E-06,0.172
1.840E-06,0.172
1.850E-06,0.188
1.860E-06,0.176
1.870E-06,0.184
1.880E-06,0.176
1.890E-06,0.176
1.900E-06,0.168
1.910E-06,0.172
1.920E-06,0.164
1.930E-06,0.172
1.940E-06,0.180
1.950E-06,0.172
1.960E-06,0.172
1.970E-06,0.172
1.980E-06,0.164
1.990E-06,0.164
2.000E-06,0.164
2.010E-06,0.168
2.020E-06,0.164
2.030E-06,0.156
2.040E-06,0.168
2.050E-06,0.164
2.060E-06,0.164
2.070E-06,0.168
2.080E-06,0.160
2.090E-06,0.156
2.100E-06,0.152
2.110E-06,0.156
2.120E-06,0.160
2.130E-06,0.160
2.140E-06,0.164
2.150E-06,0.160
2.160E-06,0.152
2.170E-06,0.160
2.180E-06,0.156
2.190E-06,0.152
2.200E-06,0.160
2.210E-06,0.164
2.220E-06,0.168
2.230E-06,0.156
2.240E-06,0.164
2.250E-06,0.164
2.260E-06,0.156
2.270E-06,0.148
2.280E-06,0.156
2.290E-06,0.160
2.300E-06,0.156
2.310E-06,0.156
2.320E-06,0.164
2.330E-06,0.156
2.340E-06,0.156
2.350E-06,0.152
2.360E-06,0.148
2.370E-06,0.148
2.380E-06,0.152
2.390E-06,0.152
2.400E-06,0.156
2.410E-06,0.152
2.420E-06,0.152
2.430E-06,0.148
2.440E-06,0.148
2.450E-06,0.144
2.460E-06,0.144
2.470E-06,0.144
2.480E-06,0.144
2.490E-06,0.144
2.500E-06,0.144
2.510E-06,0.144
2.520E-06,0.140
2.530E-06,0.144
2.540E-06,0.140
2.550E-06,0.144
2.560E-06,0.136
2.570E-06,0.136
2.580E-06,0.140
2.590E-06,0.136
2.600E-06,0.136
2.610E-06,0.140
2.620E-06,0.140
2.630E-06,0.140
2.640E-06,0.140
2.650E-06,0.140
2.660E-06,0.140
2.670E-06,0.132
2.680E-06,0.140
2.690E-06,0.140
2.700E-06,0.136
2.710E-06,0.132
2.720E-06,0.136
2.730E-06,0.132
2.740E-06,0.136
2.750E-06,0.136
2.760E-06,0.136
2.770E-06,0.136
2.780E-06,0.136
2.790E-06,0.136
2.800E-06,0.132
2.810E-06,0.128
2.820E-06,0.128
2.830E-06,0.132
2.840E-06,0.128
2.850E-06,0.124
2.860E-06,0.128
2.870E-06,0.132
2.880E-06,0.128
2.890E-06,0.128
2.900E-06,0.128
2.910E-06,0.128
2.920E-06,0.128
2.930E-06,0.124
2.940E-06,0.124
2.950E-06,0.124
2.960E-06,0.128
2.970E-06,0.128
2.980E-06,0.128
2.990E-06,0.128
3.000E-06,0.128
3.010E-06,0.128
3.020E-06,0.124
3.030E-06,0.128
3.040E-06,0.132
3.050E-06,0.136
3.060E-06,0.136
3.070E-06,0.128
3.080E-06,0.120
3.090E-06,0.112
3.100E-06,0.112
3.110E-06,0.112
3.120E-06,0.120
3.130E-06,0.124
3.140E-06,0.124
3.150E-06,0.124
3.160E-06,0.108
3.170E-06,0.108
3.180E-06,0.108
3.190E-06,0.108
3.200E-06,0.116
3.210E-06,0.120
3.220E-06,0.120
3.230E-06,0.112
3.240E-06,0.108
3.250E-06,0.096
3.260E-06,0.100
3.270E-06,0.096
3.280E-06,0.104
3.290E-06,0.112
3.300E-06,0.112
3.310E-06,0.112
3.320E-06,0.108
3.330E-06,0.100
3.340E-06,0.096
3.350E-06,0.100
3.360E-06,0.104
3.370E-06,0.112
3.380E-06,0.108
3.390E-06,0.104
3.400E-06,0.104
3.410E-06,0.100
3.420E-06,0.092
3.430E-06,0.092
3.440E-06,0.100
3.450E-06,0.096
3.460E-06,0.104
3.470E-06,0.100
3.480E-06,0.104
3.490E-06,0.100
3.500E-06,0.092
3.510E-06,0.088
3.520E-06,0.092
3.530E-06,0.096
3.540E-06,0.096
3.550E-06,0.096
3.560E-06,0.096
3.570E-06,0.088
3.580E-06,0.088
3.590E-06,0.088
3.600E-06,0.092
3.610E-06,0.088
3.620E-06,0.092
3.630E-06,0.096
3.640E-06,0.096
3.650E-06,0.096
3.660E-06,0.096
3.670E-06,0.092
3.680E-06,0.096
3.690E-06,0.096
3.700E-06,0.092
3.710E-06,0.088
3.720E-06,0.092
3.730E-06,0.088
3.740E-06,0.092
3.750E-06,0.088
3.760E-06,0.092
3.770E-06,0.096
3.780E-06,0.092
3.790E-06,0.088
3.800E-06,0.088
3.810E-06,0.084
3.820E-06,0.080
3.830E-06,0.084
3.840E-06,0.084
3.850E-06,0.092
3.860E-06,0.092
3.870E-06,0.092
3.880E-06,0.084
3.890E-06,0.076
3.900E-06,0.080
3.910E-06,0.080
3.920E-06,0.076
3.930E-06,0.088
3.940E-06,0.084
3.950E-06,0.080
3.960E-06,0.076
3.970E-06,0.076
3.980E-06,0.076
3.990E-06,0.076
4.000E-06,0.076
4.010E-06,0.080
4.020E-06,0.080
4.030E-06,0.084
4.040E-06,0.076
4.050E-06,0.076
4.060E-06,0.076
4.070E-06,0.072
4.080E-06,0.076
4.090E-06,0.076
4.100E-06,0.072
4.110E-06,0.080
4.120E-06,0.076
4.130E-06,0.080
4.140E-06,0.076
4.150E-06,0.072
4.160E-06,0.068
4.170E-06,0.072
4.180E-06,0.072
4.190E-06,0.068
4.200E-06,0.072
4.210E-06,0.072
4.220E-06,0.072
4.230E-06,0.072
4.240E-06,0.076
4.250E-06,0.068
4.260E-06,0.076
4.270E-06,0.072
4.280E-06,0.068
4.290E-06,0.064
4.300E-06,0.060
4.310E-06,0.064
4.320E-06,0.072
4.330E-06,0.064
4.340E-06,0.064
4.350E-06,0.064
4.360E-06,0.068
4.370E-06,0.064
4.380E-06,0.056
4.390E-06,0.064
4.400E-06,0.060
4.410E-06,0.064
4.420E-06,0.064
4.430E-06,0.064
4.440E-06,0.064
4.450E-06,0.056
4.460E-06,0.056
4.470E-06,0.052
4.480E-06,0.060
4.490E-06,0.056
4.500E-06,0.056
4.510E-06,0.056
4.520E-06,0.060
4.530E-06,0.060
4.540E-06,0.052
4.550E-06,0.056
4.560E-06,0.056
4.570E-06,0.060
4.580E-06,0.056
4.590E-06,0.060
4.600E-06,0.056
4.610E-06,0.052
4.620E-06,0.052
4.630E-06,0.052
4.640E-06,0.048
4.650E-06,0.048
4.660E-06,0.048
4.670E-06,0.044
4.680E-06,0.052
4.690E-06,0.052
4.700E-06,0.048
4.710E-06,0.048
4.720E-06,0.044
4.730E-06,0.044
4.740E-06,0.044
4.750E-06,0.052
4.760E-06,0.048
4.770E-06,0.040
4.780E-06,0.044
4.790E-06,0.048
4.800E-06,0.048
4.810E-06,0.040
4.820E-06,0.048
4.830E-06,0.040
4.840E-06,0.040
4.850E-06,0.040
4.860E-06,0.044
4.870E-06,0.052
4.880E-06,0.048
4.890E-06,0.044
4.900E-06,0.048
4.910E-06,0.048
4.920E-06,0.048
4.930E-06,0.040
4.940E-06,0.040
4.950E-06,0.040
4.960E-06,0.036
4.970E-06,0.040
4.980E-06,0.048
4.990E-06,0.044
5.000E-06,0.036
5.010E-06,0.032
5.020E-06,0.032
5.030E-06,0.048
5.040E-06,0.044
5.050E-06,0.032
5.060E-06,0.036
5.070E-06,0.028
5.080E-06,0.028
5.090E-06,0.028
5.100E-06,0.040
5.110E-06,0.044
5.120E-06,0.044
5.130E-06,0.032
5.140E-06,0.024
5.150E-06,0.024
5.160E-06,0.028
5.170E-06,0.032
5.180E-06,0.040
5.190E-06,0.040
5.200E-06,0.040
5.210E-06,0.028
5.220E-06,0.028
5.230E-06,0.020
5.240E-06,0.020
5.250E-06,0.028
5.260E-06,0.032
5.270E-06,0.036
5.280E-06,0.036
5.290E-06,0.032
5.300E-06,0.032
5.310E-06,0.028
5.320E-06,0.020
5.330E-06,0.028
5.340E-06,0.028
5.350E-06,0.036
5.360E-06,0.032
5.370E-06,0.024
5.380E-06,0.024
5.390E-06,0.024
5.400E-06,0.028
5.410E-06,0.024
5.420E-06,0.024
5.430E-06,0.028
5.440E-06,0.032
5.450E-06,0.020
5.460E-06,0.024
5.470E-06,0.024
5.480E-06,0.024
5.490E-06,0.024
5.500E-06,0.020
5.510E-06,0.024
5.520E-06,0.020
5.530E-06,0.024
5.540E-06,0.020
5.550E-06,0.020
5.560E-06,0.028
5.570E-06,0.024
5.580E-06,0.024
5.590E-06,0.020
5.600E-06,0.028
5.610E-06,0.020
5.620E-06,0.016
5.630E-06,0.020
5.640E-06,0.020
5.650E-06,0.024
5.660E-06,0.020
5.670E-06,0.016
5.680E-06,0.020
5.690E-06,0.020
5.700E-06,0.020
5.710E-06,0.024
5.720E-06,0.024
5.730E-06,0.016
5.740E-06,0.016
5.750E-06,0.016
5.760E-06,0.024
5.770E-06,0.012
5.780E-06,0.012
5.790E-06,0.016
5.800E-06,0.012
5.810E-06,0.016
5.820E-06,0.016
5.830E-06,0.016
5.840E-06,0.008
5.850E-06,0.012
5.860E-06,0.008
5.870E-06,0.012
5.880E-06,0.016
5.890E-06,0.016
5.900E-06,0.008
5.910E-06,0.012
5.920E-06,0.012
5.930E-06,0.012
5.940E-06,0.012
5.950E-06,0.004
5.960E-06,0.008
5.970E-06,0.008
5.980E-06,0.004
5.990E-06,0.008
6.000E-06,0.012
6.010E-06,0.012
6.020E-06,0.008
6.030E-06,0.008
6.040E-06,0.008
6.050E-06,0.008
6.060E-06,0.008
6.070E-06,0.008
6.080E-06,0.016
6.090E-06,0.012
6.100E-06,0.004
6.110E-06,0.000
6.120E-06,0.004
6.130E-06,0.000
6.140E-06,0.004
6.150E-06,0.012
6.160E-06,0.012
6.170E-06,0.012
6.180E-06,0.004
6.190E-06,0.004
6.200E-06,0.004
6.210E-06,0.000
6.220E-06,0.000
6.230E-06,0.004
6.240E-06,0.004
6.250E-06,0.008
6.260E-06,0.000
6.270E-06,0.004
6.280E-06,0.000
6.290E-06,0.000
6.300E-06,-0.008
6.310E-06,0.004
6.320E-06,0.004
6.330E-06,-0.004
6.340E-06,0.000
6.350E-06,-0.004
6.360E-06,0.000
6.370E-06,-0.004
6.380E-06,-0.004
6.390E-06,-0.004
6.400E-06,-0.004
6.410E-06,0.000
6.420E-06,0.000
6.430E-06,0.004
6.440E-06,-0.008
6.450E-06,0.000
6.460E-06,0.000
6.470E-06,-0.004
6.480E-06,-0.004
6.490E-06,-0.004
6.500E-06,-0.004
6.510E-06,-0.004
6.520E-06,-0.004
6.530E-06,-0.004
6.540E-06,-0.004
6.550E-06,-0.008
6.560E-06,-0.004
6.570E-06,-0.004
6.580E-06,-0.008
6.590E-06,-0.004
6.600E-06,-0.004
6.610E-06,-0.004
6.620E-06,-0.004
6.630E-06,-0.004
6.640E-06,-0.004
6.650E-06,-0.004
6.660E-06,-0.004
6.670E-06,-0.008
6.680E-06,-0.008
6.690E-06,-0.008
6.700E-06,-0.004
6.710E-06,-0.004
6.720E-06,-0.008
6.730E-06,-0.008
6.740E-06,-0.008
6.750E-06,-0.004
6.760E-06,0.000
6.770E-06,-0.004
6.780E-06,-0.008
6.790E-06,-0.008
6.800E-06,-0.008
6.810E-06,-0.008
6.820E-06,-0.004
6.830E-06,-0.012
6.840E-06,-0.012
6.850E-06,-0.004
6.860E-06,-0.004
6.870E-06,-0.008
6.880E-06,-0.012
6.890E-06,-0.004
6.900E-06,-0.012
6.910E-06,-0.008
6.920E-06,-0.012
6.930E-06,-0.008
6.940E-06,-0.008
6.950E-06,-0.008
6.960E-06,-0.012
6.970E-06,-0.012
6.980E-06,-0.016
6.990E-06,-0.016
7.000E-06,-0.012
7.010E-06,-0.008
7.020E-06,-0.008
7.030E-06,-0.012
7.040E-06,-0.012
7.050E-06,-0.012
7.060E-06,-0.012
7.070E-06,-0.012
7.080E-06,-0.012
7.090E-06,-0.016
7.100E-06,-0.016
7.110E-06,-0.012
7.120E-06,-0.016
7.130E-06,-0.012
7.140E-06,-0.020
7.150E-06,-0.016
7.160E-06,-0.012
7.170E-06,-0.024
7.180E-06,-0.020
7.190E-06,-0.024
7.200E-06,-0.016
7.210E-06,-0.020
7.220E-06,-0.016
7.230E-06,-0.016
7.240E-06,-0.016
7.250E-06,-0.020
7.260E-06,-0.016
7.270E-06,-0.024
7.280E-06,-0.020
7.290E-06,-0.016
7.300E-06,-0.020
7.310E-06,-0.016
7.320E-06,-0.020
7.330E-06,-0.024
7.340E-06,-0.024
7.350E-06,-0.016
7.360E-06,-0.016
7.370E-06,-0.020
7.380E-06,-0.024
7.390E-06,-0.016
7.400E-06,-0.020
7.410E-06,-0.024
7.420E-06,-0.024
7.430E-06,-0.020
7.440E-06,-0.020
7.450E-06,-0.024
7.460E-06,-0.024
7.470E-06,-0.024
7.480E-06,-0.028
7.490E-06,-0.024
7.500E-06,-0.028
7.510E-06,-0.016
7.520E-06,-0.016
7.530E-06,-0.024
7.540E-06,-0.028
7.550E-06,-0.028
7.560E-06,-0.028
7.570E-06,-0.020
7.580E-06,-0.024
7.590E-06,-0.024
7.600E-06,-0.028
7.610E-06,-0.024
7.620E-06,-0.024
7.630E-06,-0.028
7.640E-06,-0.024
7.650E-06,-0.028
7.660E-06,-0.024
7.670E-06,-0.024
7.680E-06,-0.024
7.690E-06,-0.028
7.700E-06,-0.020
7.710E-06,-0.024
7.720E-06,-0.028
7.730E-06,-0.024
7.740E-06,-0.020
7.750E-06,-0.024
7.760E-06,-0.024
7.770E-06,-0.020
7.780E-06,-0.020
7.790E-06,-0.028
7.800E-06,-0.032
7.810E-06,-0.032
