mediciones/Mediciones filtradas (saque las feas)/6-10/37.5/WaveData55249.csv

#timebase=2000000(ps)
,#voltbase=100000(mv/100)
#size=4000
-4.200E-06,0.000
-4.190E-06,-0.004
-4.180E-06,0.004
-4.170E-06,0.000
-4.160E-06,-0.004
-4.150E-06,0.000
-4.140E-06,0.008
-4.130E-06,0.008
-4.120E-06,-0.004
-4.110E-06,0.004
-4.100E-06,-0.004
-4.090E-06,-0.004
-4.080E-06,0.008
-4.070E-06,0.016
-4.060E-06,0.008
-4.050E-06,0.004
-4.040E-06,0.000
-4.030E-06,-0.004
-4.020E-06,-0.004
-4.010E-06,-0.004
-4.000E-06,0.000
-3.990E-06,0.004
-3.980E-06,0.004
-3.970E-06,0.008
-3.960E-06,0.008
-3.950E-06,0.012
-3.940E-06,-0.004
-3.930E-06,-0.004
-3.920E-06,0.004
-3.910E-06,0.008
-3.900E-06,0.004
-3.890E-06,0.008
-3.880E-06,0.004
-3.870E-06,0.000
-3.860E-06,0.000
-3.850E-06,-0.004
-3.840E-06,0.000
-3.830E-06,0.000
-3.820E-06,0.004
-3.810E-06,0.004
-3.800E-06,0.008
-3.790E-06,0.000
-3.780E-06,0.000
-3.770E-06,0.000
-3.760E-06,0.000
-3.750E-06,0.004
-3.740E-06,0.000
-3.730E-06,0.000
-3.720E-06,0.000
-3.710E-06,0.008
-3.700E-06,-0.004
-3.690E-06,0.000
-3.680E-06,0.000
-3.670E-06,0.004
-3.660E-06,0.004
-3.650E-06,0.000
-3.640E-06,0.004
-3.630E-06,0.012
-3.620E-06,0.008
-3.610E-06,0.000
-3.600E-06,0.004
-3.590E-06,0.000
-3.580E-06,-0.004
-3.570E-06,0.004
-3.560E-06,0.008
-3.550E-06,0.000
-3.540E-06,0.012
-3.530E-06,0.012
-3.520E-06,-0.004
-3.510E-06,-0.004
-3.500E-06,0.000
-3.490E-06,-0.004
-3.480E-06,0.000
-3.470E-06,0.004
-3.460E-06,0.008
-3.450E-06,0.004
-3.440E-06,0.008
-3.430E-06,0.000
-3.420E-06,-0.004
-3.410E-06,0.000
-3.400E-06,0.000
-3.390E-06,0.004
-3.380E-06,0.008
-3.370E-06,0.008
-3.360E-06,0.012
-3.350E-06,0.000
-3.340E-06,-0.004
-3.330E-06,0.008
-3.320E-06,-0.008
-3.310E-06,0.004
-3.300E-06,0.008
-3.290E-06,0.000
-3.280E-06,0.004
-3.270E-06,0.004
-3.260E-06,0.000
-3.250E-06,-0.004
-3.240E-06,0.000
-3.230E-06,0.004
-3.220E-06,0.008
-3.210E-06,0.004
-3.200E-06,0.008
-3.190E-06,0.008
-3.180E-06,0.008
-3.170E-06,0.004
-3.160E-06,-0.004
-3.150E-06,0.004
-3.140E-06,0.000
-3.130E-06,0.004
-3.120E-06,0.008
-3.110E-06,0.008
-3.100E-06,0.004
-3.090E-06,0.008
-3.080E-06,0.004
-3.070E-06,-0.004
-3.060E-06,-0.004
-3.050E-06,0.008
-3.040E-06,0.000
-3.030E-06,0.008
-3.020E-06,0.012
-3.010E-06,0.008
-3.000E-06,0.004
-2.990E-06,0.000
-2.980E-06,-0.004
-2.970E-06,0.000
-2.960E-06,0.004
-2.950E-06,0.008
-2.940E-06,0.008
-2.930E-06,0.008
-2.920E-06,0.004
-2.910E-06,0.000
-2.900E-06,0.000
-2.890E-06,0.000
-2.880E-06,0.004
-2.870E-06,0.008
-2.860E-06,0.016
-2.850E-06,0.004
-2.840E-06,0.000
-2.830E-06,-0.004
-2.820E-06,0.000
-2.810E-06,0.012
-2.800E-06,0.012
-2.790E-06,0.016
-2.780E-06,0.004
-2.770E-06,-0.004
-2.760E-06,-0.008
-2.750E-06,-0.012
-2.740E-06,0.004
-2.730E-06,0.008
-2.720E-06,0.016
-2.710E-06,0.008
-2.700E-06,0.000
-2.690E-06,-0.008
-2.680E-06,-0.008
-2.670E-06,0.000
-2.660E-06,0.016
-2.650E-06,0.012
-2.640E-06,0.004
-2.630E-06,0.020
-2.620E-06,0.008
-2.610E-06,-0.004
-2.600E-06,-0.008
-2.590E-06,-0.008
-2.580E-06,-0.004
-2.570E-06,0.012
-2.560E-06,0.024
-2.550E-06,0.024
-2.540E-06,0.016
-2.530E-06,0.004
-2.520E-06,-0.004
-2.510E-06,0.000
-2.500E-06,0.012
-2.490E-06,0.008
-2.480E-06,0.012
-2.470E-06,0.012
-2.460E-06,0.008
-2.450E-06,0.004
-2.440E-06,0.004
-2.430E-06,0.008
-2.420E-06,0.012
-2.410E-06,0.004
-2.400E-06,0.000
-2.390E-06,-0.008
-2.380E-06,-0.016
-2.370E-06,-0.012
-2.360E-06,0.000
-2.350E-06,0.008
-2.340E-06,0.012
-2.330E-06,0.008
-2.320E-06,0.008
-2.310E-06,0.000
-2.300E-06,0.000
-2.290E-06,0.012
-2.280E-06,0.012
-2.270E-06,0.012
-2.260E-06,0.008
-2.250E-06,0.008
-2.240E-06,0.004
-2.230E-06,0.008
-2.220E-06,0.008
-2.210E-06,0.008
-2.200E-06,0.004
-2.190E-06,0.012
-2.180E-06,0.012
-2.170E-06,0.020
-2.160E-06,0.036
-2.150E-06,0.028
-2.140E-06,0.032
-2.130E-06,0.004
-2.120E-06,0.024
-2.110E-06,0.024
-2.100E-06,0.012
-2.090E-06,0.004
-2.080E-06,-0.024
-2.070E-06,-0.044
-2.060E-06,-0.092
-2.050E-06,-0.152
-2.040E-06,-0.104
-2.030E-06,-0.012
-2.020E-06,0.092
-2.010E-06,0.076
-2.000E-06,0.012
-1.990E-06,0.012
-1.980E-06,-0.012
-1.970E-06,-0.052
-1.960E-06,-0.068
-1.950E-06,-0.008
-1.940E-06,0.048
-1.930E-06,0.088
-1.920E-06,0.016
-1.910E-06,-0.004
-1.900E-06,-0.036
-1.890E-06,-0.028
-1.880E-06,0.004
-1.870E-06,0.008
-1.860E-06,0.008
-1.850E-06,0.000
-1.840E-06,0.012
-1.830E-06,0.008
-1.820E-06,0.016
-1.810E-06,0.000
-1.800E-06,-0.004
-1.790E-06,-0.020
-1.780E-06,-0.012
-1.770E-06,0.008
-1.760E-06,0.024
-1.750E-06,0.036
-1.740E-06,0.016
-1.730E-06,0.004
-1.720E-06,-0.008
-1.710E-06,-0.008
-1.700E-06,0.000
-1.690E-06,0.024
-1.680E-06,0.040
-1.670E-06,0.040
-1.660E-06,0.024
-1.650E-06,0.008
-1.640E-06,0.004
-1.630E-06,0.004
-1.620E-06,0.032
-1.610E-06,0.036
-1.600E-06,0.056
-1.590E-06,0.032
-1.580E-06,0.048
-1.570E-06,-0.012
-1.560E-06,-0.044
-1.550E-06,-0.092
-1.540E-06,-0.068
-1.530E-06,0.016
-1.520E-06,0.064
-1.510E-06,0.108
-1.500E-06,0.044
-1.490E-06,-0.056
-1.480E-06,-0.192
-1.470E-06,-0.148
-1.460E-06,-0.060
-1.450E-06,0.092
-1.440E-06,0.096
-1.430E-06,0.124
-1.420E-06,0.064
-1.410E-06,-0.060
-1.400E-06,-0.076
-1.390E-06,-0.104
-1.380E-06,-0.032
-1.370E-06,0.028
-1.360E-06,0.120
-1.350E-06,0.092
-1.340E-06,0.060
-1.330E-06,0.008
-1.320E-06,-0.048
-1.310E-06,-0.068
-1.300E-06,-0.064
-1.290E-06,-0.008
-1.280E-06,0.028
-1.270E-06,0.076
-1.260E-06,0.088
-1.250E-06,0.072
-1.240E-06,0.024
-1.230E-06,0.000
-1.220E-06,-0.040
-1.210E-06,-0.008
-1.200E-06,-0.016
-1.190E-06,-0.036
-1.180E-06,-0.032
-1.170E-06,-0.004
-1.160E-06,0.028
-1.150E-06,0.008
-1.140E-06,-0.004
-1.130E-06,-0.024
-1.120E-06,-0.008
-1.110E-06,-0.004
-1.100E-06,0.008
-1.090E-06,0.008
-1.080E-06,0.016
-1.070E-06,0.024
-1.060E-06,0.024
-1.050E-06,0.012
-1.040E-06,0.000
-1.030E-06,0.000
-1.020E-06,0.004
-1.010E-06,0.024
-1.000E-06,0.036
-9.900E-07,0.056
-9.800E-07,0.044
-9.700E-07,0.036
-9.600E-07,0.040
-9.500E-07,0.032
-9.400E-07,0.028
-9.300E-07,-0.056
-9.200E-07,-0.024
-9.100E-07,-0.076
-9.000E-07,-0.064
-8.900E-07,-0.020
-8.800E-07,0.012
-8.700E-07,0.048
-8.600E-07,0.044
-8.500E-07,0.008
-8.400E-07,-0.036
-8.300E-07,-0.040
-8.200E-07,-0.020
-8.100E-07,0.012
-8.000E-07,0.036
-7.900E-07,0.028
-7.800E-07,0.008
-7.700E-07,0.008
-7.600E-07,0.004
-7.500E-07,0.016
-7.400E-07,0.028
-7.300E-07,0.044
-7.200E-07,0.028
-7.100E-07,0.056
-7.000E-07,0.032
-6.900E-07,-0.068
-6.800E-07,-0.088
-6.700E-07,-0.100
-6.600E-07,-0.112
-6.500E-07,-0.036
-6.400E-07,0.060
-6.300E-07,0.092
-6.200E-07,0.052
-6.100E-07,0.016
-6.000E-07,-0.040
-5.900E-07,-0.072
-5.800E-07,-0.064
-5.700E-07,-0.008
-5.600E-07,0.036
-5.500E-07,0.064
-5.400E-07,0.052
-5.300E-07,0.020
-5.200E-07,-0.020
-5.100E-07,-0.052
-5.000E-07,-0.044
-4.900E-07,-0.008
-4.800E-07,0.032
-4.700E-07,0.040
-4.600E-07,0.040
-4.500E-07,0.020
-4.400E-07,-0.004
-4.300E-07,-0.024
-4.200E-07,-0.024
-4.100E-07,-0.008
-4.000E-07,-0.004
-3.900E-07,0.008
-3.800E-07,0.012
-3.700E-07,0.012
-3.600E-07,0.008
-3.500E-07,0.008
-3.400E-07,0.004
-3.300E-07,0.000
-3.200E-07,-0.004
-3.100E-07,0.012
-3.000E-07,0.012
-2.900E-07,0.020
-2.800E-07,0.024
-2.700E-07,0.016
-2.600E-07,0.012
-2.500E-07,0.004
-2.400E-07,0.008
-2.300E-07,0.024
-2.200E-07,0.028
-2.100E-07,0.044
-2.000E-07,0.056
-1.900E-07,0.060
-1.800E-07,0.064
-1.700E-07,0.064
-1.600E-07,0.100
-1.500E-07,0.128
-1.400E-07,0.108
-1.300E-07,0.088
-1.200E-07,0.076
-1.100E-07,0.048
-1.000E-07,0.028
-9.000E-08,0.064
-8.000E-08,0.024
-7.000E-08,0.028
-6.000E-08,0.016
-5.000E-08,-0.200
-4.000E-08,-0.368
-3.000E-08,-0.512
-2.000E-08,-0.416
-1.000E-08,-0.008
0.000E+00,0.332
1.000E-08,0.400
2.000E-08,0.232
3.000E-08,-0.036
4.000E-08,-0.272
5.000E-08,-0.332
6.000E-08,-0.212
7.000E-08,0.060
8.000E-08,0.276
9.000E-08,0.236
1.000E-07,0.160
1.100E-07,-0.004
1.200E-07,-0.136
1.300E-07,-0.192
1.400E-07,-0.136
1.500E-07,-0.036
1.600E-07,0.092
1.700E-07,0.164
1.800E-07,0.124
1.900E-07,0.048
2.000E-07,-0.032
2.100E-07,-0.104
2.200E-07,-0.088
2.300E-07,-0.040
2.400E-07,0.028
2.500E-07,0.076
2.600E-07,0.104
2.700E-07,0.064
2.800E-07,0.000
2.900E-07,-0.060
3.000E-07,-0.072
3.100E-07,-0.036
3.200E-07,0.036
3.300E-07,0.096
3.400E-07,0.128
3.500E-07,0.112
3.600E-07,0.076
3.700E-07,0.028
3.800E-07,0.032
3.900E-07,0.044
4.000E-07,0.108
4.100E-07,0.024
4.200E-07,-0.108
4.300E-07,-0.256
4.400E-07,-0.272
4.500E-07,-0.156
4.600E-07,0.056
4.700E-07,0.184
4.800E-07,0.220
4.900E-07,0.128
5.000E-07,-0.036
5.100E-07,-0.144
5.200E-07,-0.188
5.300E-07,-0.104
5.400E-07,0.020
5.500E-07,0.092
5.600E-07,0.108
5.700E-07,0.068
5.800E-07,-0.004
5.900E-07,-0.064
6.000E-07,-0.080
6.100E-07,-0.056
6.200E-07,-0.004
6.300E-07,0.028
6.400E-07,0.064
6.500E-07,0.056
6.600E-07,0.036
6.700E-07,-0.004
6.800E-07,-0.028
6.900E-07,-0.040
7.000E-07,-0.016
7.100E-07,0.012
7.200E-07,0.060
7.300E-07,0.072
7.400E-07,0.028
7.500E-07,0.000
7.600E-07,-0.044
7.700E-07,-0.056
7.800E-07,-0.036
7.900E-07,0.004
8.000E-07,0.048
8.100E-07,0.060
8.200E-07,0.044
8.300E-07,0.004
8.400E-07,-0.032
8.500E-07,-0.048
8.600E-07,-0.036
8.700E-07,0.000
8.800E-07,0.028
8.900E-07,0.044
9.000E-07,0.028
9.100E-07,0.004
9.200E-07,-0.016
9.300E-07,-0.024
9.400E-07,-0.016
9.500E-07,-0.004
9.600E-07,0.016
9.700E-07,0.028
9.800E-07,0.032
9.900E-07,0.028
1.000E-06,0.008
1.010E-06,-0.004
1.020E-06,-0.004
1.030E-06,0.000
1.040E-06,0.020
1.050E-06,0.036
1.060E-06,0.040
1.070E-06,0.024
1.080E-06,0.008
1.090E-06,-0.016
1.100E-06,-0.040
1.110E-06,-0.016
1.120E-06,0.008
1.130E-06,0.072
1.140E-06,0.104
1.150E-06,0.120
1.160E-06,0.120
1.170E-06,0.092
1.180E-06,0.060
1.190E-06,0.016
1.200E-06,-0.020
1.210E-06,-0.028
1.220E-06,-0.020
1.230E-06,0.020
1.240E-06,0.064
1.250E-06,0.052
1.260E-06,0.020
1.270E-06,-0.020
1.280E-06,-0.068
1.290E-06,-0.080
1.300E-06,-0.072
1.310E-06,-0.004
1.320E-06,0.056
1.330E-06,0.148
1.340E-06,0.104
1.350E-06,0.052
1.360E-06,-0.012
1.370E-06,-0.012
1.380E-06,0.028
1.390E-06,0.012
1.400E-06,-0.088
1.410E-06,-0.200
1.420E-06,-0.252
1.430E-06,-0.256
1.440E-06,-0.068
1.450E-06,0.088
1.460E-06,0.156
1.470E-06,0.160
1.480E-06,0.024
1.490E-06,-0.108
1.500E-06,-0.152
1.510E-06,-0.120
1.520E-06,0.000
1.530E-06,0.096
1.540E-06,0.120
1.550E-06,0.080
1.560E-06,0.008
1.570E-06,-0.056
1.580E-06,-0.096
1.590E-06,-0.064
1.600E-06,0.000
1.610E-06,0.056
1.620E-06,0.068
1.630E-06,0.048
1.640E-06,0.032
1.650E-06,0.000
1.660E-06,-0.008
1.670E-06,-0.024
1.680E-06,-0.004
1.690E-06,0.024
1.700E-06,0.052
1.710E-06,0.044
1.720E-06,0.008
1.730E-06,-0.040
1.740E-06,-0.040
1.750E-06,-0.048
1.760E-06,-0.008
1.770E-06,0.020
1.780E-06,0.056
1.790E-06,0.080
1.800E-06,0.032
1.810E-06,-0.004
1.820E-06,-0.036
1.830E-06,-0.036
1.840E-06,-0.020
1.850E-06,0.012
1.860E-06,0.076
1.870E-06,0.088
1.880E-06,0.120
1.890E-06,0.108
1.900E-06,0.072
1.910E-06,0.092
1.920E-06,0.076
1.930E-06,-0.156
1.940E-06,-0.268
1.950E-06,-0.460
1.960E-06,-0.220
1.970E-06,0.308
1.980E-06,0.312
1.990E-06,0.280
2.000E-06,0.112
2.010E-06,-0.120
2.020E-06,-0.212
2.030E-06,-0.276
2.040E-06,-0.124
2.050E-06,0.068
2.060E-06,0.180
2.070E-06,0.144
2.080E-06,0.072
2.090E-06,-0.036
2.100E-06,-0.080
2.110E-06,-0.072
2.120E-06,-0.008
2.130E-06,0.044
2.140E-06,0.084
2.150E-06,0.048
2.160E-06,0.000
2.170E-06,-0.020
2.180E-06,-0.056
2.190E-06,-0.020
2.200E-06,0.008
2.210E-06,0.048
2.220E-06,0.060
2.230E-06,0.052
2.240E-06,0.008
2.250E-06,-0.008
2.260E-06,-0.024
2.270E-06,-0.036
2.280E-06,0.004
2.290E-06,0.040
2.300E-06,0.072
2.310E-06,0.060
2.320E-06,0.064
2.330E-06,0.028
2.340E-06,0.004
2.350E-06,0.008
2.360E-06,0.020
2.370E-06,0.040
2.380E-06,0.048
2.390E-06,0.056
2.400E-06,0.052
2.410E-06,0.068
2.420E-06,0.072
2.430E-06,0.088
2.440E-06,0.092
2.450E-06,0.124
2.460E-06,-0.012
2.470E-06,-0.084
2.480E-06,-0.108
2.490E-06,-0.204
2.500E-06,-0.072
2.510E-06,-0.024
2.520E-06,0.092
2.530E-06,0.060
2.540E-06,-0.076
2.550E-06,-0.224
2.560E-06,-0.152
2.570E-06,0.052
2.580E-06,0.120
2.590E-06,0.148
2.600E-06,0.216
2.610E-06,0.116
2.620E-06,0.016
2.630E-06,-0.160
2.640E-06,-0.152
2.650E-06,-0.220
2.660E-06,-0.200
2.670E-06,-0.104
2.680E-06,0.108
2.690E-06,0.192
2.700E-06,0.084
2.710E-06,-0.024
2.720E-06,-0.136
2.730E-06,-0.152
2.740E-06,-0.084
2.750E-06,0.008
2.760E-06,0.068
2.770E-06,0.124
2.780E-06,0.092
2.790E-06,0.040
2.800E-06,-0.028
2.810E-06,-0.072
2.820E-06,-0.072
2.830E-06,-0.024
2.840E-06,0.044
2.850E-06,0.084
2.860E-06,0.092
2.870E-06,0.044
2.880E-06,-0.004
2.890E-06,-0.040
2.900E-06,-0.056
2.910E-06,-0.040
2.920E-06,-0.016
2.930E-06,0.032
2.940E-06,0.040
2.950E-06,0.060
2.960E-06,0.016
2.970E-06,0.012
2.980E-06,-0.028
2.990E-06,-0.008
3.000E-06,0.008
3.010E-06,0.036
3.020E-06,0.060
3.030E-06,0.056
3.040E-06,0.064
3.050E-06,0.056
3.060E-06,0.056
3.070E-06,0.064
3.080E-06,0.084
3.090E-06,0.104
3.100E-06,0.100
3.110E-06,0.056
3.120E-06,0.024
3.130E-06,0.004
3.140E-06,0.016
3.150E-06,0.016
3.160E-06,0.032
3.170E-06,0.064
3.180E-06,0.088
3.190E-06,0.164
3.200E-06,0.092
3.210E-06,0.112
3.220E-06,0.020
3.230E-06,0.104
3.240E-06,0.088
3.250E-06,0.128
3.260E-06,0.148
3.270E-06,0.132
3.280E-06,0.132
3.290E-06,0.028
3.300E-06,-0.072
3.310E-06,-0.140
3.320E-06,-0.036
3.330E-06,-0.192
3.340E-06,-0.180
3.350E-06,-0.136
3.360E-06,-0.096
3.370E-06,-0.512
3.380E-06,-0.472
3.390E-06,-0.308
3.400E-06,-0.284
3.410E-06,-0.060
3.420E-06,0.068
3.430E-06,0.324
3.440E-06,0.408
3.450E-06,0.264
3.460E-06,-0.104
3.470E-06,-0.372
3.480E-06,-0.408
3.490E-06,-0.076
3.500E-06,0.064
3.510E-06,0.224
3.520E-06,0.132
3.530E-06,-0.004
3.540E-06,-0.036
3.550E-06,-0.136
3.560E-06,-0.056
3.570E-06,-0.040
3.580E-06,0.020
3.590E-06,0.020
3.600E-06,0.076
3.610E-06,0.084
3.620E-06,0.028
3.630E-06,0.000
3.640E-06,-0.056
3.650E-06,-0.016
3.660E-06,0.000
3.670E-06,0.012
3.680E-06,0.044
3.690E-06,0.060
3.700E-06,0.036
3.710E-06,0.012
3.720E-06,0.016
3.730E-06,0.012
3.740E-06,0.004
3.750E-06,0.008
3.760E-06,0.028
3.770E-06,0.032
3.780E-06,0.044
3.790E-06,0.052
3.800E-06,0.060
3.810E-06,0.028
3.820E-06,0.008
3.830E-06,0.032
3.840E-06,0.036
3.850E-06,0.052
3.860E-06,0.060
3.870E-06,0.096
3.880E-06,0.088
3.890E-06,0.092
3.900E-06,0.088
3.910E-06,0.056
3.920E-06,0.032
3.930E-06,-0.064
3.940E-06,-0.256
3.950E-06,-0.364
3.960E-06,-0.340
3.970E-06,-0.232
3.980E-06,0.292
3.990E-06,0.296
4.000E-06,0.188
4.010E-06,-0.024
4.020E-06,-0.172
4.030E-06,-0.252
4.040E-06,-0.268
4.050E-06,-0.016
4.060E-06,0.208
4.070E-06,0.284
4.080E-06,0.300
4.090E-06,0.072
4.100E-06,-0.168
4.110E-06,-0.268
4.120E-06,-0.168
4.130E-06,-0.032
4.140E-06,0.124
4.150E-06,0.224
4.160E-06,0.172
4.170E-06,0.012
4.180E-06,-0.116
4.190E-06,-0.116
4.200E-06,-0.100
4.210E-06,-0.008
4.220E-06,0.084
4.230E-06,0.144
4.240E-06,0.128
4.250E-06,0.024
4.260E-06,-0.084
4.270E-06,-0.132
4.280E-06,-0.092
4.290E-06,0.000
4.300E-06,0.088
4.310E-06,0.124
4.320E-06,0.108
4.330E-06,0.068
4.340E-06,-0.028
4.350E-06,-0.116
4.360E-06,-0.128
4.370E-06,-0.044
4.380E-06,0.060
4.390E-06,0.128
4.400E-06,0.128
4.410E-06,0.076
4.420E-06,0.016
4.430E-06,-0.036
4.440E-06,-0.068
4.450E-06,-0.032
4.460E-06,0.036
4.470E-06,0.112
4.480E-06,0.128
4.490E-06,0.104
4.500E-06,0.052
4.510E-06,-0.024
4.520E-06,-0.024
4.530E-06,0.028
4.540E-06,0.096
4.550E-06,0.156
4.560E-06,0.208
4.570E-06,0.164
4.580E-06,0.132
4.590E-06,0.044
4.600E-06,-0.004
4.610E-06,-0.040
4.620E-06,-0.104
4.630E-06,-0.148
4.640E-06,-0.172
4.650E-06,-0.164
4.660E-06,-0.072
4.670E-06,-0.008
4.680E-06,0.040
4.690E-06,0.056
4.700E-06,0.008
4.710E-06,-0.044
4.720E-06,-0.056
4.730E-06,-0.032
4.740E-06,0.028
4.750E-06,0.024
4.760E-06,0.060
4.770E-06,0.040
4.780E-06,0.004
4.790E-06,-0.040
4.800E-06,-0.028
4.810E-06,-0.012
4.820E-06,0.004
4.830E-06,0.020
4.840E-06,0.100
4.850E-06,0.088
4.860E-06,0.104
4.870E-06,0.020
4.880E-06,-0.040
4.890E-06,-0.008
4.900E-06,-0.004
4.910E-06,0.040
4.920E-06,0.072
4.930E-06,0.164
4.940E-06,0.188
4.950E-06,0.220
4.960E-06,0.124
4.970E-06,0.080
4.980E-06,-0.004
4.990E-06,-0.004
5.000E-06,-0.012
5.010E-06,-0.012
5.020E-06,-0.044
5.030E-06,-0.072
5.040E-06,-0.072
5.050E-06,-0.108
5.060E-06,-0.108
5.070E-06,-0.104
5.080E-06,-0.028
5.090E-06,0.012
5.100E-06,0.016
5.110E-06,-0.024
5.120E-06,-0.016
5.130E-06,-0.016
5.140E-06,0.020
5.150E-06,0.068
5.160E-06,0.124
5.170E-06,0.180
5.180E-06,0.172
5.190E-06,0.188
5.200E-06,0.156
5.210E-06,0.152
5.220E-06,0.152
5.230E-06,0.172
5.240E-06,0.188
5.250E-06,0.176
5.260E-06,0.164
5.270E-06,0.156
5.280E-06,0.124
5.290E-06,0.128
5.300E-06,0.024
5.310E-06,-0.044
5.320E-06,-0.136
5.330E-06,-0.232
5.340E-06,-0.136
5.350E-06,0.008
5.360E-06,0.068
5.370E-06,0.192
5.380E-06,0.012
5.390E-06,-0.036
5.400E-06,-0.340
5.410E-06,-0.484
5.420E-06,-0.376
5.430E-06,-0.148
5.440E-06,-0.028
5.450E-06,0.272
5.460E-06,0.156
5.470E-06,0.092
5.480E-06,-0.108
5.490E-06,-0.228
5.500E-06,-0.136
5.510E-06,-0.044
5.520E-06,0.204
5.530E-06,0.384
5.540E-06,0.332
5.550E-06,0.276
5.560E-06,0.140
5.570E-06,0.032
5.580E-06,-0.020
5.590E-06,0.000
5.600E-06,0.112
5.610E-06,0.136
5.620E-06,0.068
5.630E-06,-0.052
5.640E-06,-0.144
5.650E-06,-0.324
5.660E-06,-0.296
5.670E-06,-0.252
5.680E-06,-0.156
5.690E-06,-0.028
5.700E-06,0.036
5.710E-06,0.016
5.720E-06,0.168
5.730E-06,-0.020
5.740E-06,-0.124
5.750E-06,-0.212
5.760E-06,-0.208
5.770E-06,-0.188
5.780E-06,-0.116
5.790E-06,0.060
5.800E-06,0.224
5.810E-06,0.184
5.820E-06,0.056
5.830E-06,-0.060
5.840E-06,-0.108
5.850E-06,-0.008
5.860E-06,0.060
5.870E-06,0.196
5.880E-06,0.264
5.890E-06,0.236
5.900E-06,0.200
5.910E-06,0.072
5.920E-06,0.036
5.930E-06,0.036
5.940E-06,0.104
5.950E-06,0.192
5.960E-06,0.288
5.970E-06,0.284
5.980E-06,0.220
5.990E-06,0.196
6.000E-06,0.128
6.010E-06,0.092
6.020E-06,0.112
6.030E-06,0.160
6.040E-06,0.236
6.050E-06,0.256
6.060E-06,0.252
6.070E-06,0.212
6.080E-06,0.156
6.090E-06,0.128
6.100E-06,0.096
6.110E-06,0.152
6.120E-06,0.176
6.130E-06,0.160
6.140E-06,0.180
6.150E-06,-0.088
6.160E-06,-0.168
6.170E-06,-0.496
6.180E-06,-0.428
6.190E-06,-0.376
6.200E-06,-0.296
6.210E-06,-0.004
6.220E-06,0.136
6.230E-06,0.048
6.240E-06,-0.428
6.250E-06,-0.320
6.260E-06,-0.208
6.270E-06,-0.072
6.280E-06,0.140
6.290E-06,0.428
6.300E-06,0.436
6.310E-06,0.236
6.320E-06,-0.008
6.330E-06,-0.300
6.340E-06,-0.188
6.350E-06,0.020
6.360E-06,0.292
6.370E-06,0.372
6.380E-06,0.368
6.390E-06,0.096
6.400E-06,-0.112
6.410E-06,-0.360
6.420E-06,-0.392
6.430E-06,-0.232
6.440E-06,-0.136
6.450E-06,0.208
6.460E-06,0.288
6.470E-06,0.328
6.480E-06,0.208
6.490E-06,-0.108
6.500E-06,-0.324
6.510E-06,-0.280
6.520E-06,-0.164
6.530E-06,0.128
6.540E-06,0.336
6.550E-06,0.520
6.560E-06,0.452
6.570E-06,0.268
6.580E-06,0.008
6.590E-06,-0.140
6.600E-06,-0.036
6.610E-06,0.124
6.620E-06,0.352
6.630E-06,0.472
6.640E-06,0.460
6.650E-06,0.292
6.660E-06,0.104
6.670E-06,-0.036
6.680E-06,-0.060
6.690E-06,0.060
6.700E-06,0.220
6.710E-06,0.340
6.720E-06,0.344
6.730E-06,0.264
6.740E-06,0.080
6.750E-06,-0.068
6.760E-06,-0.108
6.770E-06,-0.036
6.780E-06,0.124
6.790E-06,0.276
6.800E-06,0.340
6.810E-06,0.308
6.820E-06,0.204
6.830E-06,0.116
6.840E-06,0.068
6.850E-06,0.096
6.860E-06,0.176
6.870E-06,0.252
6.880E-06,0.288
6.890E-06,0.260
6.900E-06,0.184
6.910E-06,0.096
6.920E-06,0.056
6.930E-06,0.060
6.940E-06,0.076
6.950E-06,0.100
6.960E-06,0.072
6.970E-06,0.076
6.980E-06,0.004
6.990E-06,-0.016
7.000E-06,0.028
7.010E-06,0.136
7.020E-06,0.232
7.030E-06,0.256
7.040E-06,0.276
7.050E-06,0.244
7.060E-06,0.196
7.070E-06,0.152
7.080E-06,0.140
7.090E-06,0.168
7.100E-06,0.216
7.110E-06,0.244
7.120E-06,0.256
7.130E-06,0.236
7.140E-06,0.200
7.150E-06,0.172
7.160E-06,0.160
7.170E-06,0.164
7.180E-06,0.196
7.190E-06,0.228
7.200E-06,0.240
7.210E-06,0.236
7.220E-06,0.212
7.230E-06,0.192
7.240E-06,0.172
7.250E-06,0.176
7.260E-06,0.196
7.270E-06,0.220
7.280E-06,0.232
7.290E-06,0.232
7.300E-06,0.212
7.310E-06,0.192
7.320E-06,0.172
7.330E-06,0.176
7.340E-06,0.188
7.350E-06,0.208
7.360E-06,0.228
7.370E-06,0.224
7.380E-06,0.208
7.390E-06,0.196
7.400E-06,0.184
7.410E-06,0.180
7.420E-06,0.188
7.430E-06,0.204
7.440E-06,0.220
7.450E-06,0.220
7.460E-06,0.212
7.470E-06,0.200
7.480E-06,0.184
7.490E-06,0.180
7.500E-06,0.188
7.510E-06,0.196
7.520E-06,0.216
7.530E-06,0.216
7.540E-06,0.208
7.550E-06,0.196
7.560E-06,0.192
7.570E-06,0.184
7.580E-06,0.184
7.590E-06,0.192
7.600E-06,0.204
7.610E-06,0.208
7.620E-06,0.208
7.630E-06,0.200
7.640E-06,0.184
7.650E-06,0.172
7.660E-06,0.176
7.670E-06,0.188
7.680E-06,0.192
7.690E-06,0.204
7.700E-06,0.208
7.710E-06,0.192
7.720E-06,0.188
7.730E-06,0.180
7.740E-06,0.192
