mediciones/mediciones removidas por ser diferentes/-17.5/WaveData51139.csv

#timebase=2000000(ps)
,#voltbase=1000000(mv/100)
#size=4000
-5.650E-06,0.080
-5.640E-06,0.040
-5.630E-06,0.080
-5.620E-06,0.080
-5.610E-06,0.080
-5.600E-06,0.040
-5.590E-06,0.080
-5.580E-06,0.000
-5.570E-06,0.040
-5.560E-06,0.000
-5.550E-06,0.000
-5.540E-06,0.040
-5.530E-06,-0.040
-5.520E-06,0.000
-5.510E-06,0.000
-5.500E-06,0.000
-5.490E-06,-0.040
-5.480E-06,-0.040
-5.470E-06,0.000
-5.460E-06,-0.040
-5.450E-06,-0.040
-5.440E-06,0.000
-5.430E-06,0.000
-5.420E-06,0.000
-5.410E-06,0.000
-5.400E-06,0.000
-5.390E-06,0.040
-5.380E-06,0.040
-5.370E-06,0.040
-5.360E-06,0.040
-5.350E-06,0.040
-5.340E-06,0.040
-5.330E-06,0.040
-5.320E-06,0.040
-5.310E-06,0.120
-5.300E-06,0.160
-5.290E-06,0.160
-5.280E-06,0.160
-5.270E-06,0.160
-5.260E-06,0.160
-5.250E-06,0.200
-5.240E-06,0.200
-5.230E-06,0.120
-5.220E-06,0.120
-5.210E-06,0.160
-5.200E-06,0.120
-5.190E-06,0.120
-5.180E-06,0.160
-5.170E-06,0.120
-5.160E-06,0.120
-5.150E-06,0.120
-5.140E-06,0.120
-5.130E-06,0.080
-5.120E-06,0.080
-5.110E-06,0.080
-5.100E-06,0.000
-5.090E-06,0.040
-5.080E-06,0.040
-5.070E-06,0.040
-5.060E-06,0.040
-5.050E-06,-0.040
-5.040E-06,-0.040
-5.030E-06,0.000
-5.020E-06,0.000
-5.010E-06,0.000
-5.000E-06,0.000
-4.990E-06,0.000
-4.980E-06,0.000
-4.970E-06,-0.040
-4.960E-06,0.040
-4.950E-06,-0.080
-4.940E-06,0.000
-4.930E-06,-0.040
-4.920E-06,0.000
-4.910E-06,-0.040
-4.900E-06,0.000
-4.890E-06,0.000
-4.880E-06,0.000
-4.870E-06,0.040
-4.860E-06,0.080
-4.850E-06,0.000
-4.840E-06,0.040
-4.830E-06,0.080
-4.820E-06,0.080
-4.810E-06,0.080
-4.800E-06,0.040
-4.790E-06,0.040
-4.780E-06,0.040
-4.770E-06,0.000
-4.760E-06,0.080
-4.750E-06,0.080
-4.740E-06,0.080
-4.730E-06,0.080
-4.720E-06,0.040
-4.710E-06,0.040
-4.700E-06,0.040
-4.690E-06,0.000
-4.680E-06,0.000
-4.670E-06,0.080
-4.660E-06,0.040
-4.650E-06,0.080
-4.640E-06,0.120
-4.630E-06,0.120
-4.620E-06,0.040
-4.610E-06,0.080
-4.600E-06,0.200
-4.590E-06,0.200
-4.580E-06,0.200
-4.570E-06,0.240
-4.560E-06,0.160
-4.550E-06,0.160
-4.540E-06,0.120
-4.530E-06,0.200
-4.520E-06,0.200
-4.510E-06,0.200
-4.500E-06,0.280
-4.490E-06,0.240
-4.480E-06,0.240
-4.470E-06,0.240
-4.460E-06,0.280
-4.450E-06,0.360
-4.440E-06,0.320
-4.430E-06,0.280
-4.420E-06,0.280
-4.410E-06,0.320
-4.400E-06,0.320
-4.390E-06,0.320
-4.380E-06,0.280
-4.370E-06,0.240
-4.360E-06,0.200
-4.350E-06,0.200
-4.340E-06,0.240
-4.330E-06,0.160
-4.320E-06,0.200
-4.310E-06,0.080
-4.300E-06,0.040
-4.290E-06,0.040
-4.280E-06,-0.040
-4.270E-06,-0.040
-4.260E-06,0.000
-4.250E-06,-0.040
-4.240E-06,-0.040
-4.230E-06,-0.040
-4.220E-06,-0.040
-4.210E-06,-0.040
-4.200E-06,-0.040
-4.190E-06,-0.040
-4.180E-06,0.000
-4.170E-06,0.000
-4.160E-06,0.000
-4.150E-06,-0.040
-4.140E-06,-0.040
-4.130E-06,0.000
-4.120E-06,-0.040
-4.110E-06,0.000
-4.100E-06,-0.040
-4.090E-06,0.000
-4.080E-06,0.080
-4.070E-06,0.080
-4.060E-06,0.080
-4.050E-06,0.080
-4.040E-06,0.080
-4.030E-06,0.120
-4.020E-06,0.160
-4.010E-06,0.200
-4.000E-06,0.200
-3.990E-06,0.160
-3.980E-06,0.200
-3.970E-06,0.160
-3.960E-06,0.160
-3.950E-06,0.160
-3.940E-06,0.240
-3.930E-06,0.240
-3.920E-06,0.160
-3.910E-06,0.160
-3.900E-06,0.360
-3.890E-06,0.320
-3.880E-06,0.400
-3.870E-06,0.400
-3.860E-06,0.320
-3.850E-06,0.360
-3.840E-06,0.320
-3.830E-06,0.360
-3.820E-06,0.320
-3.810E-06,0.360
-3.800E-06,0.320
-3.790E-06,0.240
-3.780E-06,0.200
-3.770E-06,0.320
-3.760E-06,0.360
-3.750E-06,0.360
-3.740E-06,0.240
-3.730E-06,0.200
-3.720E-06,0.160
-3.710E-06,0.200
-3.700E-06,0.240
-3.690E-06,0.280
-3.680E-06,0.200
-3.670E-06,0.200
-3.660E-06,0.200
-3.650E-06,0.120
-3.640E-06,0.080
-3.630E-06,0.120
-3.620E-06,0.160
-3.610E-06,0.200
-3.600E-06,0.120
-3.590E-06,0.040
-3.580E-06,0.080
-3.570E-06,0.080
-3.560E-06,0.080
-3.550E-06,0.120
-3.540E-06,0.040
-3.530E-06,0.040
-3.520E-06,0.040
-3.510E-06,-0.040
-3.500E-06,0.000
-3.490E-06,0.000
-3.480E-06,0.040
-3.470E-06,0.000
-3.460E-06,0.040
-3.450E-06,0.000
-3.440E-06,-0.040
-3.430E-06,0.000
-3.420E-06,-0.040
-3.410E-06,0.000
-3.400E-06,-0.040
-3.390E-06,0.000
-3.380E-06,0.080
-3.370E-06,0.120
-3.360E-06,0.120
-3.350E-06,0.080
-3.340E-06,0.080
-3.330E-06,0.120
-3.320E-06,0.240
-3.310E-06,0.400
-3.300E-06,0.520
-3.290E-06,0.560
-3.280E-06,0.400
-3.270E-06,0.320
-3.260E-06,0.360
-3.250E-06,0.400
-3.240E-06,0.440
-3.230E-06,0.480
-3.220E-06,0.520
-3.210E-06,0.480
-3.200E-06,0.440
-3.190E-06,0.400
-3.180E-06,0.440
-3.170E-06,0.480
-3.160E-06,0.520
-3.150E-06,0.560
-3.140E-06,0.480
-3.130E-06,0.400
-3.120E-06,0.360
-3.110E-06,0.360
-3.100E-06,0.440
-3.090E-06,0.440
-3.080E-06,0.400
-3.070E-06,0.320
-3.060E-06,0.240
-3.050E-06,0.200
-3.040E-06,0.240
-3.030E-06,0.240
-3.020E-06,0.240
-3.010E-06,0.200
-3.000E-06,0.080
-2.990E-06,0.080
-2.980E-06,0.080
-2.970E-06,0.040
-2.960E-06,0.000
-2.950E-06,0.040
-2.940E-06,0.040
-2.930E-06,0.000
-2.920E-06,-0.040
-2.910E-06,-0.080
-2.900E-06,-0.040
-2.890E-06,-0.080
-2.880E-06,-0.080
-2.870E-06,-0.080
-2.860E-06,-0.120
-2.850E-06,-0.120
-2.840E-06,0.000
-2.830E-06,-0.040
-2.820E-06,0.000
-2.810E-06,0.000
-2.800E-06,0.040
-2.790E-06,-0.040
-2.780E-06,-0.040
-2.770E-06,0.040
-2.760E-06,0.120
-2.750E-06,0.080
-2.740E-06,0.160
-2.730E-06,0.160
-2.720E-06,0.240
-2.710E-06,0.360
-2.700E-06,0.320
-2.690E-06,0.320
-2.680E-06,0.360
-2.670E-06,0.360
-2.660E-06,0.480
-2.650E-06,0.480
-2.640E-06,0.520
-2.630E-06,0.520
-2.620E-06,0.520
-2.610E-06,0.480
-2.600E-06,0.600
-2.590E-06,0.640
-2.580E-06,0.600
-2.570E-06,0.680
-2.560E-06,0.680
-2.550E-06,0.800
-2.540E-06,0.840
-2.530E-06,0.880
-2.520E-06,0.840
-2.510E-06,0.840
-2.500E-06,0.720
-2.490E-06,0.680
-2.480E-06,0.560
-2.470E-06,0.520
-2.460E-06,0.520
-2.450E-06,0.520
-2.440E-06,0.360
-2.430E-06,0.280
-2.420E-06,0.160
-2.410E-06,0.120
-2.400E-06,0.200
-2.390E-06,0.240
-2.380E-06,0.240
-2.370E-06,0.120
-2.360E-06,0.080
-2.350E-06,0.120
-2.340E-06,0.040
-2.330E-06,0.080
-2.320E-06,0.080
-2.310E-06,0.080
-2.300E-06,0.120
-2.290E-06,0.160
-2.280E-06,0.160
-2.270E-06,0.120
-2.260E-06,0.120
-2.250E-06,0.040
-2.240E-06,0.080
-2.230E-06,0.080
-2.220E-06,0.080
-2.210E-06,0.160
-2.200E-06,0.080
-2.190E-06,0.080
-2.180E-06,0.080
-2.170E-06,0.040
-2.160E-06,0.080
-2.150E-06,0.080
-2.140E-06,0.160
-2.130E-06,0.160
-2.120E-06,0.200
-2.110E-06,0.280
-2.100E-06,0.280
-2.090E-06,0.240
-2.080E-06,0.280
-2.070E-06,0.320
-2.060E-06,0.320
-2.050E-06,0.360
-2.040E-06,0.320
-2.030E-06,0.360
-2.020E-06,0.360
-2.010E-06,0.400
-2.000E-06,0.360
-1.990E-06,0.400
-1.980E-06,0.400
-1.970E-06,0.480
-1.960E-06,0.480
-1.950E-06,0.480
-1.940E-06,0.480
-1.930E-06,0.360
-1.920E-06,0.400
-1.910E-06,0.400
-1.900E-06,0.480
-1.890E-06,0.360
-1.880E-06,0.440
-1.870E-06,0.400
-1.860E-06,0.480
-1.850E-06,0.480
-1.840E-06,0.760
-1.830E-06,0.920
-1.820E-06,0.600
-1.810E-06,0.200
-1.800E-06,0.160
-1.790E-06,0.120
-1.780E-06,0.520
-1.770E-06,0.680
-1.760E-06,0.520
-1.750E-06,0.880
-1.740E-06,0.000
-1.730E-06,0.160
-1.720E-06,0.360
-1.710E-06,0.560
-1.700E-06,0.600
-1.690E-06,0.400
-1.680E-06,0.160
-1.670E-06,0.480
-1.660E-06,0.720
-1.650E-06,0.880
-1.640E-06,0.760
-1.630E-06,0.400
-1.620E-06,0.440
-1.610E-06,0.280
-1.600E-06,0.520
-1.590E-06,0.640
-1.580E-06,0.640
-1.570E-06,0.520
-1.560E-06,0.360
-1.550E-06,0.080
-1.540E-06,0.120
-1.530E-06,0.240
-1.520E-06,0.360
-1.510E-06,0.320
-1.500E-06,0.280
-1.490E-06,0.040
-1.480E-06,-0.040
-1.470E-06,-0.040
-1.460E-06,-0.080
-1.450E-06,-0.160
-1.440E-06,-0.120
-1.430E-06,-0.240
-1.420E-06,-0.320
-1.410E-06,-0.440
-1.400E-06,-0.520
-1.390E-06,-0.440
-1.380E-06,-0.360
-1.370E-06,-0.280
-1.360E-06,-0.320
-1.350E-06,-0.200
-1.340E-06,-0.080
-1.330E-06,0.040
-1.320E-06,0.400
-1.310E-06,0.600
-1.300E-06,0.720
-1.290E-06,0.680
-1.280E-06,0.600
-1.270E-06,0.560
-1.260E-06,0.800
-1.250E-06,0.960
-1.240E-06,1.120
-1.230E-06,1.520
-1.220E-06,0.720
-1.210E-06,0.920
-1.200E-06,0.520
-1.190E-06,0.520
-1.180E-06,0.960
-1.170E-06,1.200
-1.160E-06,1.560
-1.150E-06,1.320
-1.140E-06,0.840
-1.130E-06,0.680
-1.120E-06,0.720
-1.110E-06,0.960
-1.100E-06,1.120
-1.090E-06,1.000
-1.080E-06,0.880
-1.070E-06,0.480
-1.060E-06,0.160
-1.050E-06,0.160
-1.040E-06,0.160
-1.030E-06,0.200
-1.020E-06,0.240
-1.010E-06,0.000
-1.000E-06,-0.240
-9.900E-07,-0.400
-9.800E-07,-0.560
-9.700E-07,-0.680
-9.600E-07,-0.800
-9.500E-07,-0.800
-9.400E-07,-0.920
-9.300E-07,-1.000
-9.200E-07,-1.000
-9.100E-07,-1.040
-9.000E-07,-0.960
-8.900E-07,-0.760
-8.800E-07,-0.480
-8.700E-07,-0.280
-8.600E-07,-0.040
-8.500E-07,-0.080
-8.400E-07,0.000
-8.300E-07,0.000
-8.200E-07,0.160
-8.100E-07,0.360
-8.000E-07,0.520
-7.900E-07,0.560
-7.800E-07,0.360
-7.700E-07,0.360
-7.600E-07,0.320
-7.500E-07,0.400
-7.400E-07,0.480
-7.300E-07,0.480
-7.200E-07,0.480
-7.100E-07,0.520
-7.000E-07,0.480
-6.900E-07,0.480
-6.800E-07,0.520
-6.700E-07,0.440
-6.600E-07,0.440
-6.500E-07,0.360
-6.400E-07,0.320
-6.300E-07,0.360
-6.200E-07,0.320
-6.100E-07,0.320
-6.000E-07,0.320
-5.900E-07,0.280
-5.800E-07,0.160
-5.700E-07,0.160
-5.600E-07,0.160
-5.500E-07,0.120
-5.400E-07,0.120
-5.300E-07,0.080
-5.200E-07,0.040
-5.100E-07,0.080
-5.000E-07,0.080
-4.900E-07,0.080
-4.800E-07,0.080
-4.700E-07,0.120
-4.600E-07,0.040
-4.500E-07,-0.040
-4.400E-07,0.000
-4.300E-07,0.000
-4.200E-07,-0.040
-4.100E-07,0.000
-4.000E-07,-0.040
-3.900E-07,-0.120
-3.800E-07,-0.200
-3.700E-07,-0.200
-3.600E-07,-0.160
-3.500E-07,-0.240
-3.400E-07,-0.200
-3.300E-07,-0.120
-3.200E-07,-0.080
-3.100E-07,0.040
-3.000E-07,0.080
-2.900E-07,0.160
-2.800E-07,0.200
-2.700E-07,0.160
-2.600E-07,0.240
-2.500E-07,0.280
-2.400E-07,0.400
-2.300E-07,0.480
-2.200E-07,0.560
-2.100E-07,0.600
-2.000E-07,0.600
-1.900E-07,0.680
-1.800E-07,0.720
-1.700E-07,0.720
-1.600E-07,0.760
-1.500E-07,0.800
-1.400E-07,0.760
-1.300E-07,0.840
-1.200E-07,0.800
-1.100E-07,0.920
-1.000E-07,0.880
-9.000E-08,0.840
-8.000E-08,0.720
-7.000E-08,0.720
-6.000E-08,0.760
-5.000E-08,0.200
-4.000E-08,0.800
-3.000E-08,0.880
-2.000E-08,-0.200
-1.000E-08,-0.640
0.000E+00,-0.560
1.000E-08,-1.200
2.000E-08,0.480
3.000E-08,1.200
4.000E-08,1.680
5.000E-08,0.960
6.000E-08,-0.520
7.000E-08,-1.200
8.000E-08,-1.360
9.000E-08,-0.160
1.000E-07,1.040
1.100E-07,1.320
1.200E-07,1.040
1.300E-07,0.360
1.400E-07,-0.360
1.500E-07,-0.600
1.600E-07,-0.200
1.700E-07,0.480
1.800E-07,0.960
1.900E-07,0.520
2.000E-07,0.080
2.100E-07,-0.760
2.200E-07,-1.040
2.300E-07,-0.720
2.400E-07,-0.360
2.500E-07,0.280
2.600E-07,0.160
2.700E-07,0.000
2.800E-07,-0.840
2.900E-07,-1.320
3.000E-07,-1.320
3.100E-07,-1.240
3.200E-07,-0.800
3.300E-07,-0.080
3.400E-07,0.040
3.500E-07,0.160
3.600E-07,-0.040
3.700E-07,-0.080
3.800E-07,0.080
3.900E-07,0.480
4.000E-07,1.040
4.100E-07,1.320
4.200E-07,1.280
4.300E-07,1.080
4.400E-07,0.800
4.500E-07,0.600
4.600E-07,0.680
4.700E-07,0.880
4.800E-07,1.160
4.900E-07,1.240
5.000E-07,1.200
5.100E-07,0.920
5.200E-07,0.680
5.300E-07,0.440
5.400E-07,0.320
5.500E-07,0.280
5.600E-07,0.200
5.700E-07,0.120
5.800E-07,0.000
5.900E-07,-0.200
6.000E-07,-0.440
6.100E-07,-0.640
6.200E-07,-0.760
6.300E-07,-0.760
6.400E-07,-0.720
6.500E-07,-0.720
6.600E-07,-1.000
6.700E-07,-0.960
6.800E-07,-1.080
6.900E-07,-0.640
7.000E-07,-0.520
7.100E-07,-0.040
7.200E-07,-0.160
7.300E-07,-0.200
7.400E-07,-0.160
7.500E-07,-0.320
7.600E-07,0.240
7.700E-07,0.600
7.800E-07,0.840
7.900E-07,0.960
8.000E-07,0.560
8.100E-07,0.520
8.200E-07,0.200
8.300E-07,0.560
8.400E-07,0.840
8.500E-07,0.960
8.600E-07,0.880
8.700E-07,0.680
8.800E-07,0.280
8.900E-07,0.080
9.000E-07,-0.160
9.100E-07,-0.040
9.200E-07,-0.440
9.300E-07,-0.520
9.400E-07,-0.560
9.500E-07,-1.000
9.600E-07,-0.240
9.700E-07,-0.200
9.800E-07,0.160
9.900E-07,0.120
1.000E-06,-0.400
1.010E-06,-0.560
1.020E-06,-0.680
1.030E-06,-0.240
1.040E-06,0.280
1.050E-06,0.440
1.060E-06,0.440
1.070E-06,0.240
1.080E-06,-0.160
1.090E-06,0.000
1.100E-06,0.080
1.110E-06,0.400
1.120E-06,0.600
1.130E-06,0.640
1.140E-06,0.480
1.150E-06,0.400
1.160E-06,0.280
1.170E-06,0.160
1.180E-06,0.200
1.190E-06,0.160
1.200E-06,0.080
1.210E-06,-0.040
1.220E-06,-0.240
1.230E-06,-0.320
1.240E-06,-0.480
1.250E-06,-0.520
1.260E-06,-0.560
1.270E-06,-0.560
1.280E-06,-0.400
1.290E-06,-0.720
1.300E-06,-0.520
1.310E-06,-0.680
1.320E-06,-0.680
1.330E-06,0.080
1.340E-06,-0.480
1.350E-06,-0.200
1.360E-06,0.120
1.370E-06,-0.360
1.380E-06,0.800
1.390E-06,1.080
1.400E-06,1.560
1.410E-06,1.520
1.420E-06,0.840
1.430E-06,0.520
1.440E-06,0.400
1.450E-06,0.800
1.460E-06,1.360
1.470E-06,1.320
1.480E-06,1.040
1.490E-06,0.360
1.500E-06,-0.480
1.510E-06,-0.200
1.520E-06,-0.840
1.530E-06,-0.520
1.540E-06,-0.480
1.550E-06,-0.760
1.560E-06,-0.240
1.570E-06,-0.200
1.580E-06,0.360
1.590E-06,0.320
1.600E-06,-0.040
1.610E-06,-0.240
1.620E-06,-0.320
1.630E-06,-0.240
1.640E-06,0.240
1.650E-06,0.440
1.660E-06,0.520
1.670E-06,0.360
1.680E-06,0.160
1.690E-06,0.080
1.700E-06,0.040
1.710E-06,0.120
1.720E-06,0.320
1.730E-06,0.360
1.740E-06,0.360
1.750E-06,0.240
1.760E-06,0.120
1.770E-06,0.000
1.780E-06,0.040
1.790E-06,0.080
1.800E-06,0.120
1.810E-06,0.160
1.820E-06,0.040
1.830E-06,-0.040
1.840E-06,-0.240
1.850E-06,-0.200
1.860E-06,-0.200
1.870E-06,-0.120
1.880E-06,-0.080
1.890E-06,0.000
1.900E-06,-0.040
1.910E-06,-0.040
1.920E-06,-0.120
1.930E-06,-0.040
1.940E-06,-0.040
1.950E-06,0.040
1.960E-06,0.120
1.970E-06,0.200
1.980E-06,0.200
1.990E-06,0.200
2.000E-06,0.160
2.010E-06,0.000
2.020E-06,0.000
2.030E-06,0.080
2.040E-06,0.080
2.050E-06,-0.040
2.060E-06,-0.200
2.070E-06,-0.080
2.080E-06,0.000
2.090E-06,0.600
2.100E-06,0.960
2.110E-06,1.200
2.120E-06,1.040
2.130E-06,0.320
2.140E-06,0.120
2.150E-06,0.200
2.160E-06,0.600
2.170E-06,1.120
2.180E-06,1.080
2.190E-06,1.000
2.200E-06,0.600
2.210E-06,0.320
2.220E-06,0.280
2.230E-06,0.320
2.240E-06,0.560
2.250E-06,0.640
2.260E-06,0.600
2.270E-06,0.360
2.280E-06,0.160
2.290E-06,-0.040
2.300E-06,-0.120
2.310E-06,-0.120
2.320E-06,-0.160
2.330E-06,-0.200
2.340E-06,-0.120
2.350E-06,-0.120
2.360E-06,-0.040
2.370E-06,-0.040
2.380E-06,-0.080
2.390E-06,-0.160
2.400E-06,-0.240
2.410E-06,-0.120
2.420E-06,-0.040
2.430E-06,0.160
2.440E-06,0.320
2.450E-06,0.320
2.460E-06,0.360
2.470E-06,0.320
2.480E-06,0.320
2.490E-06,0.200
2.500E-06,1.080
2.510E-06,0.080
2.520E-06,0.280
2.530E-06,0.200
2.540E-06,0.240
2.550E-06,0.720
2.560E-06,1.400
2.570E-06,1.440
2.580E-06,1.120
2.590E-06,0.400
2.600E-06,-0.200
2.610E-06,-0.040
2.620E-06,0.400
2.630E-06,1.240
2.640E-06,1.320
2.650E-06,0.840
2.660E-06,0.440
2.670E-06,-0.160
2.680E-06,-0.280
2.690E-06,0.000
2.700E-06,0.200
2.710E-06,0.120
2.720E-06,-0.120
2.730E-06,-0.600
2.740E-06,-0.560
2.750E-06,-0.480
2.760E-06,-0.480
2.770E-06,-0.160
2.780E-06,-0.720
2.790E-06,-1.160
2.800E-06,-1.560
2.810E-06,-1.640
2.820E-06,-1.280
2.830E-06,-0.080
2.840E-06,0.600
2.850E-06,1.200
2.860E-06,0.800
2.870E-06,0.080
2.880E-06,-0.360
2.890E-06,-0.320
2.900E-06,0.520
2.910E-06,1.440
2.920E-06,1.760
2.930E-06,1.720
2.940E-06,1.000
2.950E-06,0.640
2.960E-06,0.440
2.970E-06,0.600
2.980E-06,0.880
2.990E-06,1.000
3.000E-06,1.000
3.010E-06,0.640
3.020E-06,0.280
3.030E-06,0.000
3.040E-06,-0.080
3.050E-06,-0.200
3.060E-06,-0.200
3.070E-06,-0.120
3.080E-06,-0.240
3.090E-06,-0.400
3.100E-06,-0.600
3.110E-06,-0.720
3.120E-06,-0.680
3.130E-06,-0.520
3.140E-06,-0.440
3.150E-06,-0.400
3.160E-06,-0.480
3.170E-06,-0.560
3.180E-06,-0.520
3.190E-06,-0.400
3.200E-06,-0.400
3.210E-06,-0.080
3.220E-06,-0.320
3.230E-06,-0.440
3.240E-06,-0.120
3.250E-06,-0.280
3.260E-06,0.040
3.270E-06,0.520
3.280E-06,0.560
3.290E-06,0.600
3.300E-06,0.360
3.310E-06,-0.160
3.320E-06,0.320
3.330E-06,0.040
3.340E-06,0.720
3.350E-06,0.680
3.360E-06,0.560
3.370E-06,0.600
3.380E-06,0.200
3.390E-06,0.200
3.400E-06,0.240
3.410E-06,0.240
3.420E-06,0.400
3.430E-06,0.320
3.440E-06,0.120
3.450E-06,0.000
3.460E-06,-0.120
3.470E-06,-0.080
3.480E-06,-0.080
3.490E-06,-0.120
3.500E-06,-0.160
3.510E-06,-0.240
3.520E-06,-0.320
3.530E-06,-0.320
3.540E-06,-0.360
3.550E-06,-0.320
3.560E-06,-0.280
3.570E-06,-0.360
3.580E-06,-0.320
3.590E-06,-0.240
3.600E-06,-0.200
3.610E-06,-0.120
3.620E-06,-0.120
3.630E-06,-0.160
3.640E-06,-0.120
3.650E-06,-0.080
3.660E-06,-0.040
3.670E-06,0.000
3.680E-06,0.040
3.690E-06,0.040
3.700E-06,0.000
3.710E-06,-0.040
3.720E-06,-0.040
3.730E-06,0.000
3.740E-06,0.000
3.750E-06,0.040
3.760E-06,-0.040
3.770E-06,0.000
3.780E-06,-0.080
3.790E-06,-0.160
3.800E-06,-0.080
3.810E-06,0.000
3.820E-06,-0.040
3.830E-06,-0.080
3.840E-06,-0.040
3.850E-06,-0.080
3.860E-06,-0.080
3.870E-06,-0.040
3.880E-06,0.000
3.890E-06,0.000
3.900E-06,0.040
3.910E-06,-0.040
3.920E-06,-0.040
3.930E-06,0.000
3.940E-06,0.040
3.950E-06,0.040
3.960E-06,0.040
3.970E-06,0.040
3.980E-06,0.080
3.990E-06,-0.040
4.000E-06,-0.040
4.010E-06,0.040
4.020E-06,0.040
4.030E-06,0.040
4.040E-06,0.080
4.050E-06,0.120
4.060E-06,0.040
4.070E-06,0.040
4.080E-06,0.040
4.090E-06,0.080
4.100E-06,0.120
4.110E-06,0.120
4.120E-06,0.080
4.130E-06,0.000
4.140E-06,0.000
4.150E-06,0.000
4.160E-06,0.000
4.170E-06,0.000
4.180E-06,-0.040
4.190E-06,-0.040
4.200E-06,-0.040
4.210E-06,-0.080
4.220E-06,-0.080
4.230E-06,-0.080
4.240E-06,-0.080
4.250E-06,-0.120
4.260E-06,-0.080
4.270E-06,-0.120
4.280E-06,-0.080
4.290E-06,-0.080
4.300E-06,-0.040
4.310E-06,-0.040
4.320E-06,-0.040
4.330E-06,0.000
4.340E-06,0.000
4.350E-06,0.000
4.360E-06,0.040
4.370E-06,0.080
4.380E-06,0.040
4.390E-06,0.080
4.400E-06,0.160
4.410E-06,0.120
4.420E-06,0.120
4.430E-06,0.080
4.440E-06,0.120
4.450E-06,0.120
4.460E-06,0.160
4.470E-06,0.200
4.480E-06,0.160
4.490E-06,0.120
4.500E-06,0.120
4.510E-06,0.120
4.520E-06,0.080
4.530E-06,0.120
4.540E-06,0.160
4.550E-06,0.080
4.560E-06,0.080
4.570E-06,0.080
4.580E-06,0.080
4.590E-06,0.080
4.600E-06,0.080
4.610E-06,0.080
4.620E-06,0.040
4.630E-06,0.040
4.640E-06,0.000
4.650E-06,0.000
4.660E-06,-0.040
4.670E-06,0.000
4.680E-06,0.000
4.690E-06,0.000
4.700E-06,0.000
4.710E-06,0.000
4.720E-06,0.000
4.730E-06,0.040
4.740E-06,0.080
4.750E-06,-0.040
4.760E-06,0.080
4.770E-06,0.040
4.780E-06,0.080
4.790E-06,0.120
4.800E-06,0.040
4.810E-06,0.080
4.820E-06,0.120
4.830E-06,0.200
4.840E-06,0.120
4.850E-06,0.120
4.860E-06,0.160
4.870E-06,0.120
4.880E-06,0.160
4.890E-06,0.120
4.900E-06,0.120
4.910E-06,0.160
4.920E-06,0.160
4.930E-06,0.160
4.940E-06,0.160
4.950E-06,0.200
4.960E-06,0.120
4.970E-06,0.080
4.980E-06,0.120
4.990E-06,0.080
5.000E-06,0.120
5.010E-06,0.040
5.020E-06,0.040
5.030E-06,0.080
5.040E-06,0.080
5.050E-06,0.040
5.060E-06,0.080
5.070E-06,0.040
5.080E-06,0.040
5.090E-06,0.040
5.100E-06,0.040
5.110E-06,0.000
5.120E-06,0.040
5.130E-06,0.000
5.140E-06,0.000
5.150E-06,0.040
5.160E-06,0.080
5.170E-06,0.080
5.180E-06,0.080
5.190E-06,0.080
5.200E-06,0.080
5.210E-06,0.120
5.220E-06,0.120
5.230E-06,0.120
5.240E-06,0.160
5.250E-06,0.120
5.260E-06,0.080
5.270E-06,0.120
5.280E-06,0.120
5.290E-06,0.200
5.300E-06,0.160
5.310E-06,0.120
5.320E-06,0.080
5.330E-06,0.160
5.340E-06,0.080
5.350E-06,0.080
5.360E-06,0.120
5.370E-06,0.080
5.380E-06,0.080
5.390E-06,0.120
5.400E-06,0.120
5.410E-06,0.120
5.420E-06,0.040
5.430E-06,0.040
5.440E-06,0.040
5.450E-06,0.000
5.460E-06,0.040
5.470E-06,0.040
5.480E-06,0.040
5.490E-06,0.000
5.500E-06,0.000
5.510E-06,0.000
5.520E-06,0.000
5.530E-06,0.000
5.540E-06,0.000
5.550E-06,0.000
5.560E-06,0.040
5.570E-06,0.040
5.580E-06,0.040
5.590E-06,0.040
5.600E-06,0.040
5.610E-06,0.040
5.620E-06,0.080
5.630E-06,0.080
5.640E-06,0.040
5.650E-06,0.080
5.660E-06,0.040
5.670E-06,0.040
5.680E-06,0.080
5.690E-06,0.080
5.700E-06,0.080
5.710E-06,0.120
5.720E-06,0.080
5.730E-06,0.080
5.740E-06,0.080
5.750E-06,0.080
5.760E-06,0.080
5.770E-06,0.040
5.780E-06,0.080
5.790E-06,0.040
5.800E-06,0.080
5.810E-06,0.040
5.820E-06,0.040
5.830E-06,0.000
5.840E-06,0.040
5.850E-06,0.040
5.860E-06,0.080
5.870E-06,-0.040
5.880E-06,-0.040
5.890E-06,0.040
5.900E-06,-0.040
5.910E-06,0.000
5.920E-06,0.000
5.930E-06,0.000
5.940E-06,0.000
5.950E-06,0.000
5.960E-06,0.000
5.970E-06,0.000
5.980E-06,0.000
5.990E-06,0.000
6.000E-06,0.040
6.010E-06,0.000
6.020E-06,0.000
6.030E-06,0.040
6.040E-06,0.080
6.050E-06,0.080
6.060E-06,0.080
6.070E-06,0.000
6.080E-06,0.040
6.090E-06,0.080
6.100E-06,0.040
6.110E-06,0.080
6.120E-06,0.080
6.130E-06,0.040
6.140E-06,0.040
6.150E-06,0.080
6.160E-06,0.080
6.170E-06,0.040
6.180E-06,0.040
6.190E-06,0.000
6.200E-06,0.000
6.210E-06,0.040
6.220E-06,0.000
6.230E-06,0.040
6.240E-06,0.080
6.250E-06,0.080
6.260E-06,0.000
6.270E-06,0.000
