mediciones/5-15/1.2/WaveData47587.csv

#timebase=2000000(ps)
,#voltbase=200000(mv/100)
#size=4000
-8.400E-06,0.008
-8.390E-06,0.008
-8.380E-06,0.008
-8.370E-06,-0.008
-8.360E-06,0.000
-8.350E-06,0.008
-8.340E-06,-0.008
-8.330E-06,-0.008
-8.320E-06,0.000
-8.310E-06,0.008
-8.300E-06,0.016
-8.290E-06,0.008
-8.280E-06,0.016
-8.270E-06,0.008
-8.260E-06,0.008
-8.250E-06,-0.008
-8.240E-06,-0.008
-8.230E-06,0.000
-8.220E-06,0.000
-8.210E-06,0.000
-8.200E-06,0.008
-8.190E-06,0.008
-8.180E-06,-0.008
-8.170E-06,0.000
-8.160E-06,0.000
-8.150E-06,0.008
-8.140E-06,0.000
-8.130E-06,0.000
-8.120E-06,0.000
-8.110E-06,0.000
-8.100E-06,0.000
-8.090E-06,0.000
-8.080E-06,0.000
-8.070E-06,-0.008
-8.060E-06,-0.008
-8.050E-06,0.000
-8.040E-06,-0.008
-8.030E-06,-0.008
-8.020E-06,0.000
-8.010E-06,0.008
-8.000E-06,0.008
-7.990E-06,-0.008
-7.980E-06,0.000
-7.970E-06,0.000
-7.960E-06,0.000
-7.950E-06,0.008
-7.940E-06,-0.008
-7.930E-06,0.000
-7.920E-06,0.000
-7.910E-06,0.000
-7.900E-06,0.000
-7.890E-06,0.000
-7.880E-06,0.000
-7.870E-06,0.000
-7.860E-06,0.000
-7.850E-06,-0.008
-7.840E-06,-0.008
-7.830E-06,0.000
-7.820E-06,0.000
-7.810E-06,0.000
-7.800E-06,0.000
-7.790E-06,0.000
-7.780E-06,0.008
-7.770E-06,0.000
-7.760E-06,0.000
-7.750E-06,-0.008
-7.740E-06,0.000
-7.730E-06,-0.008
-7.720E-06,-0.112
-7.710E-06,-0.440
-7.700E-06,-1.040
-7.690E-06,-1.048
-7.680E-06,-1.040
-7.670E-06,-1.048
-7.660E-06,-1.032
-7.650E-06,-1.040
-7.640E-06,-1.048
-7.630E-06,-1.040
-7.620E-06,-0.400
-7.610E-06,0.464
-7.600E-06,1.080
-7.590E-06,1.080
-7.580E-06,1.072
-7.570E-06,1.080
-7.560E-06,1.088
-7.550E-06,1.088
-7.540E-06,1.080
-7.530E-06,1.088
-7.520E-06,1.088
-7.510E-06,1.048
-7.500E-06,0.936
-7.490E-06,0.840
-7.480E-06,0.800
-7.470E-06,0.784
-7.460E-06,0.760
-7.450E-06,0.648
-7.440E-06,0.416
-7.430E-06,0.056
-7.420E-06,-0.336
-7.410E-06,-0.680
-7.400E-06,-0.992
-7.390E-06,-1.040
-7.380E-06,-1.040
-7.370E-06,-1.048
-7.360E-06,-1.040
-7.350E-06,-1.032
-7.340E-06,-1.040
-7.330E-06,-1.040
-7.320E-06,-0.776
-7.310E-06,-0.456
-7.300E-06,-0.104
-7.290E-06,0.192
-7.280E-06,0.448
-7.270E-06,0.608
-7.260E-06,0.648
-7.250E-06,0.616
-7.240E-06,0.472
-7.230E-06,0.288
-7.220E-06,0.096
-7.210E-06,-0.056
-7.200E-06,-0.184
-7.190E-06,-0.224
-7.180E-06,-0.264
-7.170E-06,-0.272
-7.160E-06,-0.240
-7.150E-06,-0.176
-7.140E-06,-0.104
-7.130E-06,-0.024
-7.120E-06,0.016
-7.110E-06,0.048
-7.100E-06,0.056
-7.090E-06,0.072
-7.080E-06,0.056
-7.070E-06,0.040
-7.060E-06,0.024
-7.050E-06,0.024
-7.040E-06,0.032
-7.030E-06,0.048
-7.020E-06,0.112
-7.010E-06,0.176
-7.000E-06,0.248
-6.990E-06,0.352
-6.980E-06,0.440
-6.970E-06,0.528
-6.960E-06,0.600
-6.950E-06,0.640
-6.940E-06,0.616
-6.930E-06,0.616
-6.920E-06,0.456
-6.910E-06,0.360
-6.900E-06,0.184
-6.890E-06,-0.008
-6.880E-06,-0.160
-6.870E-06,-0.312
-6.860E-06,-0.400
-6.850E-06,-0.424
-6.840E-06,-0.440
-6.830E-06,-0.408
-6.820E-06,-0.344
-6.810E-06,-0.280
-6.800E-06,-0.144
-6.790E-06,-0.064
-6.780E-06,0.024
-6.770E-06,0.088
-6.760E-06,0.104
-6.750E-06,0.120
-6.740E-06,0.120
-6.730E-06,0.112
-6.720E-06,0.112
-6.710E-06,0.104
-6.700E-06,0.104
-6.690E-06,0.104
-6.680E-06,0.096
-6.670E-06,0.136
-6.660E-06,0.136
-6.650E-06,0.160
-6.640E-06,0.168
-6.630E-06,0.144
-6.620E-06,0.120
-6.610E-06,0.104
-6.600E-06,0.040
-6.590E-06,0.016
-6.580E-06,-0.056
-6.570E-06,-0.096
-6.560E-06,-0.136
-6.550E-06,-0.192
-6.540E-06,-0.192
-6.530E-06,-0.216
-6.520E-06,-0.200
-6.510E-06,-0.192
-6.500E-06,-0.184
-6.490E-06,-0.160
-6.480E-06,-0.128
-6.470E-06,-0.064
-6.460E-06,-0.016
-6.450E-06,0.024
-6.440E-06,0.080
-6.430E-06,0.080
-6.420E-06,0.080
-6.410E-06,0.104
-6.400E-06,0.112
-6.390E-06,0.136
-6.380E-06,0.152
-6.370E-06,0.160
-6.360E-06,0.176
-6.350E-06,0.200
-6.340E-06,0.200
-6.330E-06,0.208
-6.320E-06,0.168
-6.310E-06,0.168
-6.300E-06,0.160
-6.290E-06,0.152
-6.280E-06,0.144
-6.270E-06,0.112
-6.260E-06,0.096
-6.250E-06,0.072
-6.240E-06,0.024
-6.230E-06,0.016
-6.220E-06,-0.016
-6.210E-06,-0.056
-6.200E-06,-0.080
-6.190E-06,-0.112
-6.180E-06,-0.136
-6.170E-06,-0.144
-6.160E-06,-0.168
-6.150E-06,-0.176
-6.140E-06,-0.160
-6.130E-06,-0.168
-6.120E-06,-0.144
-6.110E-06,-0.128
-6.100E-06,-0.104
-6.090E-06,-0.072
-6.080E-06,-0.040
-6.070E-06,-0.024
-6.060E-06,0.000
-6.050E-06,0.008
-6.040E-06,0.032
-6.030E-06,0.040
-6.020E-06,0.040
-6.010E-06,0.024
-6.000E-06,0.024
-5.990E-06,0.032
-5.980E-06,0.016
-5.970E-06,0.032
-5.960E-06,0.008
-5.950E-06,0.008
-5.940E-06,0.016
-5.930E-06,0.000
-5.920E-06,0.024
-5.910E-06,0.000
-5.900E-06,0.024
-5.890E-06,0.024
-5.880E-06,0.008
-5.870E-06,-0.008
-5.860E-06,0.000
-5.850E-06,-0.032
-5.840E-06,-0.040
-5.830E-06,-0.048
-5.820E-06,-0.016
-5.810E-06,-0.032
-5.800E-06,0.008
-5.790E-06,0.000
-5.780E-06,0.016
-5.770E-06,0.000
-5.760E-06,-0.032
-5.750E-06,-0.016
-5.740E-06,0.000
-5.730E-06,-0.008
-5.720E-06,-0.016
-5.710E-06,-0.072
-5.700E-06,-0.064
-5.690E-06,-0.064
-5.680E-06,-0.064
-5.670E-06,-0.072
-5.660E-06,-0.096
-5.650E-06,-0.096
-5.640E-06,-0.096
-5.630E-06,-0.088
-5.620E-06,-0.088
-5.610E-06,-0.048
-5.600E-06,-0.056
-5.590E-06,-0.056
-5.580E-06,-0.072
-5.570E-06,-0.072
-5.560E-06,0.008
-5.550E-06,-0.024
-5.540E-06,0.048
-5.530E-06,0.008
-5.520E-06,-0.008
-5.510E-06,-0.016
-5.500E-06,-0.008
-5.490E-06,-0.008
-5.480E-06,0.040
-5.470E-06,0.000
-5.460E-06,0.008
-5.450E-06,0.016
-5.440E-06,0.016
-5.430E-06,0.056
-5.420E-06,0.072
-5.410E-06,0.040
-5.400E-06,0.016
-5.390E-06,0.000
-5.380E-06,-0.024
-5.370E-06,-0.024
-5.360E-06,-0.016
-5.350E-06,-0.016
-5.340E-06,-0.032
-5.330E-06,-0.064
-5.320E-06,-0.096
-5.310E-06,-0.104
-5.300E-06,-0.112
-5.290E-06,-0.096
-5.280E-06,-0.112
-5.270E-06,-0.128
-5.260E-06,-0.128
-5.250E-06,-0.128
-5.240E-06,-0.080
-5.230E-06,-0.024
-5.220E-06,-0.016
-5.210E-06,-0.032
-5.200E-06,-0.104
-5.190E-06,-0.128
-5.180E-06,-0.160
-5.170E-06,-0.128
-5.160E-06,-0.072
-5.150E-06,-0.056
-5.140E-06,0.008
-5.130E-06,-0.008
-5.120E-06,0.008
-5.110E-06,0.016
-5.100E-06,0.000
-5.090E-06,0.000
-5.080E-06,0.016
-5.070E-06,0.000
-5.060E-06,0.000
-5.050E-06,-0.040
-5.040E-06,-0.048
-5.030E-06,-0.056
-5.020E-06,-0.048
-5.010E-06,-0.048
-5.000E-06,-0.064
-4.990E-06,-0.088
-4.980E-06,-0.080
-4.970E-06,-0.096
-4.960E-06,-0.064
-4.950E-06,-0.040
-4.940E-06,-0.016
-4.930E-06,0.032
-4.920E-06,-0.008
-4.910E-06,-0.008
-4.900E-06,-0.040
-4.890E-06,-0.088
-4.880E-06,-0.072
-4.870E-06,-0.064
-4.860E-06,-0.088
-4.850E-06,-0.040
-4.840E-06,-0.008
-4.830E-06,-0.048
-4.820E-06,0.040
-4.810E-06,-0.056
-4.800E-06,-0.080
-4.790E-06,-0.152
-4.780E-06,-0.200
-4.770E-06,-0.176
-4.760E-06,-0.144
-4.750E-06,-0.144
-4.740E-06,-0.136
-4.730E-06,-0.152
-4.720E-06,-0.128
-4.710E-06,-0.104
-4.700E-06,-0.080
-4.690E-06,-0.072
-4.680E-06,-0.064
-4.670E-06,-0.064
-4.660E-06,-0.048
-4.650E-06,-0.024
-4.640E-06,0.000
-4.630E-06,0.024
-4.620E-06,0.040
-4.610E-06,0.048
-4.600E-06,0.016
-4.590E-06,0.024
-4.580E-06,0.032
-4.570E-06,0.032
-4.560E-06,0.072
-4.550E-06,0.080
-4.540E-06,0.088
-4.530E-06,0.120
-4.520E-06,0.056
-4.510E-06,0.088
-4.500E-06,0.160
-4.490E-06,0.072
-4.480E-06,0.128
-4.470E-06,0.032
-4.460E-06,-0.080
-4.450E-06,-0.112
-4.440E-06,-0.168
-4.430E-06,-0.120
-4.420E-06,-0.080
-4.410E-06,-0.136
-4.400E-06,-0.168
-4.390E-06,-0.224
-4.380E-06,-0.208
-4.370E-06,-0.160
-4.360E-06,-0.136
-4.350E-06,-0.104
-4.340E-06,-0.120
-4.330E-06,-0.096
-4.320E-06,-0.040
-4.310E-06,0.000
-4.300E-06,0.072
-4.290E-06,0.040
-4.280E-06,-0.008
-4.270E-06,-0.056
-4.260E-06,-0.080
-4.250E-06,-0.080
-4.240E-06,-0.064
-4.230E-06,-0.056
-4.220E-06,-0.048
-4.210E-06,-0.064
-4.200E-06,-0.072
-4.190E-06,-0.048
-4.180E-06,-0.032
-4.170E-06,-0.008
-4.160E-06,0.000
-4.150E-06,0.048
-4.140E-06,0.072
-4.130E-06,0.080
-4.120E-06,0.104
-4.110E-06,0.088
-4.100E-06,0.040
-4.090E-06,0.016
-4.080E-06,-0.008
-4.070E-06,-0.008
-4.060E-06,-0.040
-4.050E-06,-0.064
-4.040E-06,-0.088
-4.030E-06,-0.064
-4.020E-06,-0.032
-4.010E-06,0.000
-4.000E-06,-0.016
-3.990E-06,-0.032
-3.980E-06,-0.080
-3.970E-06,-0.104
-3.960E-06,-0.112
-3.950E-06,-0.088
-3.940E-06,-0.072
-3.930E-06,-0.056
-3.920E-06,-0.048
-3.910E-06,-0.056
-3.900E-06,-0.088
-3.890E-06,-0.112
-3.880E-06,-0.112
-3.870E-06,-0.128
-3.860E-06,-0.136
-3.850E-06,-0.128
-3.840E-06,-0.112
-3.830E-06,-0.072
-3.820E-06,-0.056
-3.810E-06,-0.016
-3.800E-06,-0.056
-3.790E-06,-0.080
-3.780E-06,-0.104
-3.770E-06,-0.112
-3.760E-06,-0.104
-3.750E-06,-0.128
-3.740E-06,-0.080
-3.730E-06,-0.080
-3.720E-06,-0.120
-3.710E-06,-0.104
-3.700E-06,-0.184
-3.690E-06,-0.224
-3.680E-06,-0.208
-3.670E-06,-0.224
-3.660E-06,-0.136
-3.650E-06,-0.152
-3.640E-06,-0.168
-3.630E-06,-0.152
-3.620E-06,-0.160
-3.610E-06,-0.112
-3.600E-06,-0.080
-3.590E-06,-0.064
-3.580E-06,-0.088
-3.570E-06,-0.080
-3.560E-06,-0.064
-3.550E-06,-0.016
-3.540E-06,0.008
-3.530E-06,0.048
-3.520E-06,0.040
-3.510E-06,0.040
-3.500E-06,0.016
-3.490E-06,0.016
-3.480E-06,0.024
-3.470E-06,0.040
-3.460E-06,0.048
-3.450E-06,0.048
-3.440E-06,0.024
-3.430E-06,0.016
-3.420E-06,0.000
-3.410E-06,0.008
-3.400E-06,0.024
-3.390E-06,0.032
-3.380E-06,0.088
-3.370E-06,0.112
-3.360E-06,0.112
-3.350E-06,0.112
-3.340E-06,0.072
-3.330E-06,0.008
-3.320E-06,-0.048
-3.310E-06,-0.104
-3.300E-06,-0.136
-3.290E-06,-0.192
-3.280E-06,-0.232
-3.270E-06,-0.272
-3.260E-06,-0.296
-3.250E-06,-0.296
-3.240E-06,-0.304
-3.230E-06,-0.312
-3.220E-06,-0.312
-3.210E-06,-0.320
-3.200E-06,-0.328
-3.190E-06,-0.304
-3.180E-06,-0.272
-3.170E-06,-0.248
-3.160E-06,-0.216
-3.150E-06,-0.232
-3.140E-06,-0.216
-3.130E-06,-0.256
-3.120E-06,-0.232
-3.110E-06,-0.280
-3.100E-06,-0.248
-3.090E-06,-0.136
-3.080E-06,-0.112
-3.070E-06,-0.056
-3.060E-06,-0.064
-3.050E-06,-0.144
-3.040E-06,-0.104
-3.030E-06,-0.096
-3.020E-06,-0.048
-3.010E-06,0.016
-3.000E-06,-0.008
-2.990E-06,-0.056
-2.980E-06,-0.112
-2.970E-06,-0.048
-2.960E-06,0.032
-2.950E-06,0.072
-2.940E-06,0.104
-2.930E-06,0.040
-2.920E-06,-0.040
-2.910E-06,-0.096
-2.900E-06,-0.112
-2.890E-06,0.000
-2.880E-06,-0.088
-2.870E-06,-0.152
-2.860E-06,-0.304
-2.850E-06,-0.400
-2.840E-06,-0.448
-2.830E-06,-0.416
-2.820E-06,-0.360
-2.810E-06,-0.352
-2.800E-06,-0.424
-2.790E-06,-0.448
-2.780E-06,-0.440
-2.770E-06,-0.368
-2.760E-06,-0.264
-2.750E-06,-0.208
-2.740E-06,-0.200
-2.730E-06,-0.200
-2.720E-06,-0.152
-2.710E-06,-0.096
-2.700E-06,-0.024
-2.690E-06,0.016
-2.680E-06,0.040
-2.670E-06,0.024
-2.660E-06,-0.008
-2.650E-06,-0.008
-2.640E-06,0.024
-2.630E-06,0.064
-2.620E-06,0.096
-2.610E-06,0.112
-2.600E-06,0.096
-2.590E-06,0.096
-2.580E-06,0.088
-2.570E-06,0.104
-2.560E-06,0.120
-2.550E-06,0.136
-2.540E-06,0.112
-2.530E-06,0.096
-2.520E-06,0.080
-2.510E-06,0.072
-2.500E-06,0.072
-2.490E-06,0.032
-2.480E-06,-0.016
-2.470E-06,-0.056
-2.460E-06,-0.104
-2.450E-06,-0.160
-2.440E-06,-0.200
-2.430E-06,-0.232
-2.420E-06,-0.264
-2.410E-06,-0.288
-2.400E-06,-0.328
-2.390E-06,-0.376
-2.380E-06,-0.408
-2.370E-06,-0.480
-2.360E-06,-0.528
-2.350E-06,-0.592
-2.340E-06,-0.648
-2.330E-06,-0.672
-2.320E-06,-0.696
-2.310E-06,-0.704
-2.300E-06,-0.704
-2.290E-06,-0.728
-2.280E-06,-0.736
-2.270E-06,-0.728
-2.260E-06,-0.728
-2.250E-06,-0.720
-2.240E-06,-0.704
-2.230E-06,-0.680
-2.220E-06,-0.640
-2.210E-06,-0.624
-2.200E-06,-0.592
-2.190E-06,-0.584
-2.180E-06,-0.584
-2.170E-06,-0.560
-2.160E-06,-0.528
-2.150E-06,-0.528
-2.140E-06,-0.504
-2.130E-06,-0.512
-2.120E-06,-0.496
-2.110E-06,-0.464
-2.100E-06,-0.456
-2.090E-06,-0.432
-2.080E-06,-0.416
-2.070E-06,-0.424
-2.060E-06,-0.416
-2.050E-06,-0.408
-2.040E-06,-0.392
-2.030E-06,-0.368
-2.020E-06,-0.352
-2.010E-06,-0.328
-2.000E-06,-0.320
-1.990E-06,-0.320
-1.980E-06,-0.304
-1.970E-06,-0.296
-1.960E-06,-0.312
-1.950E-06,-0.328
-1.940E-06,-0.368
-1.930E-06,-0.392
-1.920E-06,-0.440
-1.910E-06,-0.488
-1.900E-06,-0.536
-1.890E-06,-0.584
-1.880E-06,-0.632
-1.870E-06,-0.664
-1.860E-06,-0.696
-1.850E-06,-0.704
-1.840E-06,-0.712
-1.830E-06,-0.712
-1.820E-06,-0.704
-1.810E-06,-0.696
-1.800E-06,-0.704
-1.790E-06,-0.728
-1.780E-06,-0.752
-1.770E-06,-0.800
-1.760E-06,-0.808
-1.750E-06,-0.816
-1.740E-06,-0.800
-1.730E-06,-0.768
-1.720E-06,-0.744
-1.710E-06,-0.696
-1.700E-06,-0.704
-1.690E-06,-0.672
-1.680E-06,-0.584
-1.670E-06,-0.496
-1.660E-06,-0.400
-1.650E-06,-0.400
-1.640E-06,-0.472
-1.630E-06,-0.640
-1.620E-06,-0.728
-1.610E-06,-0.864
-1.600E-06,-0.864
-1.590E-06,-0.864
-1.580E-06,-0.912
-1.570E-06,-0.944
-1.560E-06,-1.008
-1.550E-06,-1.048
-1.540E-06,-1.048
-1.530E-06,-1.032
-1.520E-06,-1.040
-1.510E-06,-1.048
-1.500E-06,-1.040
-1.490E-06,-1.048
-1.480E-06,-1.048
-1.470E-06,-1.032
-1.460E-06,-1.032
-1.450E-06,-1.040
-1.440E-06,-1.032
-1.430E-06,-1.032
-1.420E-06,-1.040
-1.410E-06,-1.048
-1.400E-06,-1.008
-1.390E-06,-1.024
-1.380E-06,-1.032
-1.370E-06,-1.040
-1.360E-06,-1.032
-1.350E-06,-1.040
-1.340E-06,-1.048
-1.330E-06,-1.040
-1.320E-06,-1.040
-1.310E-06,-1.040
-1.300E-06,-1.048
-1.290E-06,-1.040
-1.280E-06,-1.040
-1.270E-06,-1.040
-1.260E-06,-1.048
-1.250E-06,-1.040
-1.240E-06,-1.032
-1.230E-06,-1.040
-1.220E-06,-1.032
-1.210E-06,-1.040
-1.200E-06,-1.032
-1.190E-06,-1.040
-1.180E-06,-1.048
-1.170E-06,-1.048
-1.160E-06,-1.048
-1.150E-06,-1.048
-1.140E-06,-1.048
-1.130E-06,-1.032
-1.120E-06,-1.032
-1.110E-06,-1.040
-1.100E-06,-1.040
-1.090E-06,-1.040
-1.080E-06,-1.048
-1.070E-06,-1.040
-1.060E-06,-1.040
-1.050E-06,-1.048
-1.040E-06,-1.040
-1.030E-06,-1.040
-1.020E-06,-1.048
-1.010E-06,-1.040
-1.000E-06,-1.040
-9.900E-07,-1.040
-9.800E-07,-1.040
-9.700E-07,-1.048
-9.600E-07,-1.040
-9.500E-07,-1.048
-9.400E-07,-1.032
-9.300E-07,-1.040
-9.200E-07,-1.040
-9.100E-07,-1.040
-9.000E-07,-1.040
-8.900E-07,-1.040
-8.800E-07,-1.048
-8.700E-07,-1.040
-8.600E-07,-1.040
-8.500E-07,-1.048
-8.400E-07,-1.040
-8.300E-07,-1.040
-8.200E-07,-1.040
-8.100E-07,-1.040
-8.000E-07,-1.048
-7.900E-07,-1.040
-7.800E-07,-1.032
-7.700E-07,-1.032
-7.600E-07,-1.040
-7.500E-07,-1.032
-7.400E-07,-1.040
-7.300E-07,-1.040
-7.200E-07,-1.040
-7.100E-07,-1.048
-7.000E-07,-1.040
-6.900E-07,-1.040
-6.800E-07,-1.048
-6.700E-07,-1.040
-6.600E-07,-1.048
-6.500E-07,-1.048
-6.400E-07,-1.048
-6.300E-07,-1.032
-6.200E-07,-1.032
-6.100E-07,-1.040
-6.000E-07,-1.032
-5.900E-07,-1.040
-5.800E-07,-1.048
-5.700E-07,-1.032
-5.600E-07,-1.032
-5.500E-07,-1.040
-5.400E-07,-1.048
-5.300E-07,-1.048
-5.200E-07,-1.048
-5.100E-07,-1.032
-5.000E-07,-1.040
-4.900E-07,-1.048
-4.800E-07,-1.040
-4.700E-07,-1.032
-4.600E-07,-1.032
-4.500E-07,-1.040
-4.400E-07,-1.048
-4.300E-07,-1.048
-4.200E-07,-1.032
-4.100E-07,-1.032
-4.000E-07,-1.040
-3.900E-07,-1.048
-3.800E-07,-1.048
-3.700E-07,-1.032
-3.600E-07,-1.040
-3.500E-07,-1.048
-3.400E-07,-1.040
-3.300E-07,-1.032
-3.200E-07,-1.040
-3.100E-07,-1.040
-3.000E-07,-1.040
-2.900E-07,-1.048
-2.800E-07,-1.040
-2.700E-07,-1.032
-2.600E-07,-1.040
-2.500E-07,-1.048
-2.400E-07,-1.040
-2.300E-07,-1.048
-2.200E-07,-1.048
-2.100E-07,-1.048
-2.000E-07,-1.048
-1.900E-07,-1.032
-1.800E-07,-1.032
-1.700E-07,-1.040
-1.600E-07,-1.032
-1.500E-07,-1.040
-1.400E-07,-1.040
-1.300E-07,-1.040
-1.200E-07,-1.048
-1.100E-07,-1.040
-1.000E-07,-1.048
-9.000E-08,-1.032
-8.000E-08,-1.032
-7.000E-08,-1.040
-6.000E-08,-1.040
-5.000E-08,-1.048
-4.000E-08,-1.040
-3.000E-08,-1.032
-2.000E-08,-1.040
-1.000E-08,-1.032
0.000E+00,-1.040
1.000E-08,-1.040
2.000E-08,-1.040
3.000E-08,-1.048
4.000E-08,-1.040
5.000E-08,-1.040
6.000E-08,-1.048
7.000E-08,-1.040
8.000E-08,-1.032
9.000E-08,-1.040
1.000E-07,-1.032
1.100E-07,-1.040
1.200E-07,-1.048
1.300E-07,-1.040
1.400E-07,-1.032
1.500E-07,-1.040
1.600E-07,-1.048
1.700E-07,-1.032
1.800E-07,-1.040
1.900E-07,-1.048
2.000E-07,-1.040
2.100E-07,-1.032
2.200E-07,-1.040
2.300E-07,-1.032
2.400E-07,-1.032
2.500E-07,-1.040
2.600E-07,-1.032
2.700E-07,-1.040
2.800E-07,-1.048
2.900E-07,-1.040
3.000E-07,-1.032
3.100E-07,-1.040
3.200E-07,-1.048
3.300E-07,-1.032
3.400E-07,-1.032
3.500E-07,-1.040
3.600E-07,-1.040
3.700E-07,-1.040
3.800E-07,-1.048
3.900E-07,-1.040
4.000E-07,-1.032
4.100E-07,-1.040
4.200E-07,-1.032
4.300E-07,-1.040
4.400E-07,-1.048
4.500E-07,-1.040
4.600E-07,-1.032
4.700E-07,-1.040
4.800E-07,-1.040
4.900E-07,-1.048
5.000E-07,-1.040
5.100E-07,-1.032
5.200E-07,-1.040
5.300E-07,-1.048
5.400E-07,-1.040
5.500E-07,-1.032
5.600E-07,-1.040
5.700E-07,-1.040
5.800E-07,-1.040
5.900E-07,-1.048
6.000E-07,-1.040
6.100E-07,-1.040
6.200E-07,-1.048
6.300E-07,-1.040
6.400E-07,-1.040
6.500E-07,-1.040
6.600E-07,-1.040
6.700E-07,-1.040
6.800E-07,-1.048
6.900E-07,-1.040
7.000E-07,-1.032
7.100E-07,-1.040
7.200E-07,-1.048
7.300E-07,-1.040
7.400E-07,-1.040
7.500E-07,-1.040
7.600E-07,-1.048
7.700E-07,-1.040
7.800E-07,-1.032
7.900E-07,-1.040
8.000E-07,-1.048
8.100E-07,-1.048
8.200E-07,-1.032
8.300E-07,-1.040
8.400E-07,-1.048
8.500E-07,-1.040
8.600E-07,-1.032
8.700E-07,-1.040
8.800E-07,-1.048
8.900E-07,-1.032
9.000E-07,-1.040
9.100E-07,-1.040
9.200E-07,-1.040
9.300E-07,-1.040
9.400E-07,-1.048
9.500E-07,-1.040
9.600E-07,-1.048
9.700E-07,-1.048
9.800E-07,-1.032
9.900E-07,-1.040
1.000E-06,-1.048
1.010E-06,-1.040
1.020E-06,-1.040
1.030E-06,-0.960
1.040E-06,-0.784
1.050E-06,-0.664
1.060E-06,-0.536
1.070E-06,-0.496
1.080E-06,-0.504
1.090E-06,-0.544
1.100E-06,-0.600
1.110E-06,-0.680
1.120E-06,-0.744
1.130E-06,-0.816
1.140E-06,-0.872
1.150E-06,-0.912
1.160E-06,-0.904
1.170E-06,-0.864
1.180E-06,-0.808
1.190E-06,-0.728
1.200E-06,-0.664
1.210E-06,-0.592
1.220E-06,-0.528
1.230E-06,-0.432
1.240E-06,-0.392
1.250E-06,-0.336
1.260E-06,-0.312
1.270E-06,-0.312
1.280E-06,-0.312
1.290E-06,-0.352
1.300E-06,-0.400
1.310E-06,-0.480
1.320E-06,-0.568
1.330E-06,-0.688
1.340E-06,-0.824
1.350E-06,-0.968
1.360E-06,-1.048
1.370E-06,-1.048
1.380E-06,-1.032
1.390E-06,-1.040
1.400E-06,-1.040
1.410E-06,-1.048
1.420E-06,-1.040
1.430E-06,-1.040
1.440E-06,-1.048
1.450E-06,-1.040
1.460E-06,-1.048
1.470E-06,-1.032
1.480E-06,-1.032
1.490E-06,-1.040
1.500E-06,-1.032
1.510E-06,-1.040
1.520E-06,-1.040
1.530E-06,-1.048
1.540E-06,-1.040
1.550E-06,-1.032
1.560E-06,-1.032
1.570E-06,-1.040
1.580E-06,-1.032
1.590E-06,-1.032
1.600E-06,-1.040
1.610E-06,-1.032
1.620E-06,-1.040
1.630E-06,-1.032
1.640E-06,-1.040
1.650E-06,-1.048
1.660E-06,-1.032
1.670E-06,-1.032
1.680E-06,-1.040
1.690E-06,-1.040
1.700E-06,-1.040
1.710E-06,-1.048
1.720E-06,-1.040
1.730E-06,-1.032
1.740E-06,-1.040
1.750E-06,-1.048
1.760E-06,-1.040
1.770E-06,-1.032
1.780E-06,-1.040
1.790E-06,-1.032
1.800E-06,-1.008
1.810E-06,-0.760
1.820E-06,-0.592
1.830E-06,-0.448
1.840E-06,-0.320
1.850E-06,-0.200
1.860E-06,-0.088
1.870E-06,0.000
1.880E-06,0.072
1.890E-06,0.136
1.900E-06,0.200
1.910E-06,0.248
1.920E-06,0.304
1.930E-06,0.328
1.940E-06,0.368
1.950E-06,0.376
1.960E-06,0.400
1.970E-06,0.416
1.980E-06,0.440
1.990E-06,0.440
2.000E-06,0.416
2.010E-06,0.416
2.020E-06,0.408
2.030E-06,0.400
2.040E-06,0.376
2.050E-06,0.352
2.060E-06,0.328
2.070E-06,0.296
2.080E-06,0.264
2.090E-06,0.224
2.100E-06,0.200
2.110E-06,0.168
2.120E-06,0.144
2.130E-06,0.136
2.140E-06,0.128
2.150E-06,0.120
2.160E-06,0.096
2.170E-06,0.096
2.180E-06,0.088
2.190E-06,0.080
2.200E-06,0.080
2.210E-06,0.064
2.220E-06,0.072
2.230E-06,0.080
2.240E-06,0.112
2.250E-06,0.160
2.260E-06,0.272
2.270E-06,0.352
2.280E-06,0.272
2.290E-06,0.296
2.300E-06,0.264
2.310E-06,0.248
2.320E-06,0.280
2.330E-06,0.312
2.340E-06,0.288
2.350E-06,0.256
2.360E-06,0.264
2.370E-06,0.272
2.380E-06,0.232
2.390E-06,0.216
2.400E-06,0.208
2.410E-06,0.240
2.420E-06,0.256
2.430E-06,0.256
2.440E-06,0.208
2.450E-06,0.184
2.460E-06,0.120
2.470E-06,0.024
2.480E-06,-0.064
2.490E-06,-0.144
2.500E-06,-0.240
2.510E-06,-0.312
2.520E-06,-0.384
2.530E-06,-0.432
2.540E-06,-0.512
2.550E-06,-0.568
2.560E-06,-0.584
2.570E-06,-0.624
2.580E-06,-0.600
2.590E-06,-0.576
2.600E-06,-0.464
2.610E-06,-0.328
2.620E-06,-0.144
2.630E-06,0.040
2.640E-06,0.264
2.650E-06,0.496
2.660E-06,0.728
2.670E-06,0.944
2.680E-06,1.088
2.690E-06,1.080
2.700E-06,1.080
2.710E-06,1.072
2.720E-06,1.080
2.730E-06,1.080
2.740E-06,1.088
2.750E-06,1.080
2.760E-06,1.072
2.770E-06,1.080
2.780E-06,1.088
2.790E-06,1.080
2.800E-06,1.080
2.810E-06,1.072
2.820E-06,1.080
2.830E-06,1.080
2.840E-06,1.080
2.850E-06,1.072
2.860E-06,1.080
2.870E-06,1.088
2.880E-06,1.080
2.890E-06,1.080
2.900E-06,1.080
2.910E-06,1.080
2.920E-06,1.080
2.930E-06,1.072
2.940E-06,1.080
2.950E-06,1.088
2.960E-06,1.080
2.970E-06,1.072
2.980E-06,1.080
2.990E-06,1.088
3.000E-06,1.080
3.010E-06,1.072
3.020E-06,1.048
3.030E-06,1.008
3.040E-06,0.976
