mediciones/5-15/1.2/WaveData47595.csv

#timebase=2000000(ps)
,#voltbase=200000(mv/100)
#size=4000
-8.400E-06,-0.096
-8.390E-06,-0.096
-8.380E-06,-0.144
-8.370E-06,-0.128
-8.360E-06,-0.160
-8.350E-06,-0.160
-8.340E-06,-0.200
-8.330E-06,-0.192
-8.320E-06,-0.200
-8.310E-06,-0.112
-8.300E-06,-0.112
-8.290E-06,-0.072
-8.280E-06,-0.096
-8.270E-06,-0.152
-8.260E-06,-0.168
-8.250E-06,-0.200
-8.240E-06,-0.184
-8.230E-06,-0.224
-8.220E-06,-0.296
-8.210E-06,-0.304
-8.200E-06,-0.384
-8.190E-06,-0.376
-8.180E-06,-0.360
-8.170E-06,-0.360
-8.160E-06,-0.144
-8.150E-06,-0.360
-8.140E-06,-0.192
-8.130E-06,-0.304
-8.120E-06,-0.280
-8.110E-06,-0.256
-8.100E-06,-0.240
-8.090E-06,-0.200
-8.080E-06,-0.216
-8.070E-06,-0.200
-8.060E-06,-0.240
-8.050E-06,0.000
-8.040E-06,-0.104
-8.030E-06,0.000
-8.020E-06,-0.088
-8.010E-06,-0.128
-8.000E-06,0.136
-7.990E-06,0.248
-7.980E-06,0.104
-7.970E-06,0.296
-7.960E-06,-0.304
-7.950E-06,-0.192
-7.940E-06,-0.344
-7.930E-06,-0.256
-7.920E-06,-0.056
-7.910E-06,-0.248
-7.900E-06,-0.344
-7.890E-06,-0.440
-7.880E-06,-0.424
-7.870E-06,-0.248
-7.860E-06,-0.128
-7.850E-06,-0.096
-7.840E-06,-0.112
-7.830E-06,-0.120
-7.820E-06,-0.080
-7.810E-06,0.000
-7.800E-06,0.112
-7.790E-06,0.136
-7.780E-06,0.144
-7.770E-06,0.112
-7.760E-06,0.080
-7.750E-06,0.064
-7.740E-06,0.096
-7.730E-06,0.144
-7.720E-06,0.120
-7.710E-06,0.120
-7.700E-06,0.032
-7.690E-06,0.344
-7.680E-06,0.512
-7.670E-06,0.344
-7.660E-06,0.664
-7.650E-06,0.104
-7.640E-06,0.184
-7.630E-06,0.000
-7.620E-06,-0.080
-7.610E-06,0.064
-7.600E-06,-0.112
-7.590E-06,-0.064
-7.580E-06,-0.168
-7.570E-06,-0.160
-7.560E-06,-0.232
-7.550E-06,-0.256
-7.540E-06,-0.424
-7.530E-06,-0.392
-7.520E-06,-0.416
-7.510E-06,-0.304
-7.500E-06,-0.328
-7.490E-06,-0.328
-7.480E-06,-0.416
-7.470E-06,-0.392
-7.460E-06,-0.328
-7.450E-06,-0.224
-7.440E-06,-0.208
-7.430E-06,-0.200
-7.420E-06,-0.192
-7.410E-06,-0.168
-7.400E-06,-0.096
-7.390E-06,-0.016
-7.380E-06,0.056
-7.370E-06,0.104
-7.360E-06,0.112
-7.350E-06,0.144
-7.340E-06,0.192
-7.330E-06,0.224
-7.320E-06,0.296
-7.310E-06,0.296
-7.300E-06,0.336
-7.290E-06,0.312
-7.280E-06,0.304
-7.270E-06,0.296
-7.260E-06,0.216
-7.250E-06,0.208
-7.240E-06,0.136
-7.230E-06,0.128
-7.220E-06,0.120
-7.210E-06,0.320
-7.200E-06,0.296
-7.190E-06,0.192
-7.180E-06,0.216
-7.170E-06,-0.048
-7.160E-06,0.024
-7.150E-06,-0.040
-7.140E-06,-0.064
-7.130E-06,0.000
-7.120E-06,-0.064
-7.110E-06,-0.144
-7.100E-06,-0.168
-7.090E-06,0.040
-7.080E-06,-0.032
-7.070E-06,0.128
-7.060E-06,-0.016
-7.050E-06,-0.152
-7.040E-06,-0.216
-7.030E-06,-0.328
-7.020E-06,-0.328
-7.010E-06,-0.184
-7.000E-06,-0.344
-6.990E-06,-0.304
-6.980E-06,-0.424
-6.970E-06,-0.448
-6.960E-06,-0.392
-6.950E-06,-0.352
-6.940E-06,-0.264
-6.930E-06,-0.256
-6.920E-06,-0.224
-6.910E-06,-0.176
-6.900E-06,-0.144
-6.890E-06,-0.048
-6.880E-06,-0.008
-6.870E-06,0.032
-6.860E-06,0.072
-6.850E-06,0.040
-6.840E-06,0.128
-6.830E-06,0.264
-6.820E-06,0.288
-6.810E-06,0.392
-6.800E-06,0.312
-6.790E-06,0.344
-6.780E-06,0.400
-6.770E-06,0.456
-6.760E-06,0.432
-6.750E-06,0.456
-6.740E-06,0.240
-6.730E-06,0.256
-6.720E-06,0.136
-6.710E-06,0.120
-6.700E-06,0.136
-6.690E-06,0.048
-6.680E-06,-0.064
-6.670E-06,-0.136
-6.660E-06,-0.208
-6.650E-06,-0.224
-6.640E-06,-0.192
-6.630E-06,-0.256
-6.620E-06,-0.200
-6.610E-06,-0.208
-6.600E-06,-0.184
-6.590E-06,-0.152
-6.580E-06,-0.152
-6.570E-06,-0.120
-6.560E-06,-0.088
-6.550E-06,-0.080
-6.540E-06,-0.104
-6.530E-06,-0.040
-6.520E-06,-0.072
-6.510E-06,0.064
-6.500E-06,0.048
-6.490E-06,0.136
-6.480E-06,0.088
-6.470E-06,0.192
-6.460E-06,0.120
-6.450E-06,0.224
-6.440E-06,0.176
-6.430E-06,0.168
-6.420E-06,0.184
-6.410E-06,0.104
-6.400E-06,0.104
-6.390E-06,0.096
-6.380E-06,0.016
-6.370E-06,0.048
-6.360E-06,0.000
-6.350E-06,0.064
-6.340E-06,0.080
-6.330E-06,0.240
-6.320E-06,0.208
-6.310E-06,0.128
-6.300E-06,0.040
-6.290E-06,-0.104
-6.280E-06,-0.080
-6.270E-06,-0.160
-6.260E-06,-0.112
-6.250E-06,-0.112
-6.240E-06,-0.200
-6.230E-06,-0.288
-6.220E-06,-0.328
-6.210E-06,-0.312
-6.200E-06,-0.248
-6.190E-06,-0.208
-6.180E-06,-0.200
-6.170E-06,-0.224
-6.160E-06,-0.216
-6.150E-06,-0.200
-6.140E-06,-0.136
-6.130E-06,-0.104
-6.120E-06,-0.040
-6.110E-06,-0.016
-6.100E-06,0.000
-6.090E-06,-0.056
-6.080E-06,0.024
-6.070E-06,0.008
-6.060E-06,0.088
-6.050E-06,0.104
-6.040E-06,0.096
-6.030E-06,0.128
-6.020E-06,0.168
-6.010E-06,0.184
-6.000E-06,0.264
-5.990E-06,0.256
-5.980E-06,0.264
-5.970E-06,0.264
-5.960E-06,0.224
-5.950E-06,0.264
-5.940E-06,0.272
-5.930E-06,0.224
-5.920E-06,0.200
-5.910E-06,0.112
-5.900E-06,0.072
-5.890E-06,0.024
-5.880E-06,0.048
-5.870E-06,0.040
-5.860E-06,-0.008
-5.850E-06,0.040
-5.840E-06,-0.072
-5.830E-06,0.072
-5.820E-06,0.032
-5.810E-06,0.192
-5.800E-06,0.168
-5.790E-06,0.040
-5.780E-06,-0.016
-5.770E-06,-0.216
-5.760E-06,-0.200
-5.750E-06,-0.200
-5.740E-06,-0.200
-5.730E-06,-0.200
-5.720E-06,-0.320
-5.710E-06,-0.392
-5.700E-06,-0.384
-5.690E-06,-0.376
-5.680E-06,-0.288
-5.670E-06,-0.200
-5.660E-06,-0.344
-5.650E-06,-0.224
-5.640E-06,-0.264
-5.630E-06,-0.216
-5.620E-06,-0.136
-5.610E-06,-0.104
-5.600E-06,-0.064
-5.590E-06,-0.064
-5.580E-06,-0.104
-5.570E-06,-0.064
-5.560E-06,-0.008
-5.550E-06,0.000
-5.540E-06,0.040
-5.530E-06,0.040
-5.520E-06,0.056
-5.510E-06,0.136
-5.500E-06,0.216
-5.490E-06,0.400
-5.480E-06,0.528
-5.470E-06,0.432
-5.460E-06,0.488
-5.450E-06,0.304
-5.440E-06,0.296
-5.430E-06,0.264
-5.420E-06,0.216
-5.410E-06,0.248
-5.400E-06,0.128
-5.390E-06,0.056
-5.380E-06,-0.056
-5.370E-06,-0.056
-5.360E-06,-0.080
-5.350E-06,-0.072
-5.340E-06,-0.128
-5.330E-06,-0.152
-5.320E-06,-0.184
-5.310E-06,-0.144
-5.300E-06,-0.088
-5.290E-06,-0.080
-5.280E-06,-0.104
-5.270E-06,-0.160
-5.260E-06,-0.224
-5.250E-06,-0.208
-5.240E-06,-0.192
-5.230E-06,-0.160
-5.220E-06,-0.080
-5.210E-06,-0.088
-5.200E-06,-0.008
-5.190E-06,-0.032
-5.180E-06,0.040
-5.170E-06,0.024
-5.160E-06,0.064
-5.150E-06,0.040
-5.140E-06,0.048
-5.130E-06,0.024
-5.120E-06,0.008
-5.110E-06,-0.008
-5.100E-06,-0.008
-5.090E-06,0.000
-5.080E-06,-0.016
-5.070E-06,-0.032
-5.060E-06,-0.048
-5.050E-06,-0.096
-5.040E-06,-0.064
-5.030E-06,-0.056
-5.020E-06,-0.032
-5.010E-06,0.000
-5.000E-06,0.032
-4.990E-06,0.056
-4.980E-06,0.104
-4.970E-06,0.080
-4.960E-06,0.104
-4.950E-06,0.104
-4.940E-06,0.088
-4.930E-06,0.096
-4.920E-06,0.080
-4.910E-06,0.096
-4.900E-06,0.080
-4.890E-06,0.064
-4.880E-06,0.024
-4.870E-06,0.008
-4.860E-06,-0.048
-4.850E-06,-0.056
-4.840E-06,-0.080
-4.830E-06,-0.080
-4.820E-06,-0.080
-4.810E-06,-0.096
-4.800E-06,-0.104
-4.790E-06,-0.136
-4.780E-06,-0.144
-4.770E-06,-0.160
-4.760E-06,-0.152
-4.750E-06,-0.144
-4.740E-06,-0.144
-4.730E-06,-0.128
-4.720E-06,-0.128
-4.710E-06,-0.136
-4.700E-06,-0.136
-4.690E-06,-0.104
-4.680E-06,-0.104
-4.670E-06,-0.088
-4.660E-06,-0.080
-4.650E-06,-0.040
-4.640E-06,0.008
-4.630E-06,0.032
-4.620E-06,0.064
-4.610E-06,0.072
-4.600E-06,0.040
-4.590E-06,0.000
-4.580E-06,-0.016
-4.570E-06,-0.048
-4.560E-06,-0.072
-4.550E-06,-0.016
-4.540E-06,-0.096
-4.530E-06,0.016
-4.520E-06,-0.448
-4.510E-06,-0.320
-4.500E-06,-0.352
-4.490E-06,0.024
-4.480E-06,0.008
-4.470E-06,0.344
-4.460E-06,-0.144
-4.450E-06,-0.104
-4.440E-06,-0.408
-4.430E-06,-0.352
-4.420E-06,-0.152
-4.410E-06,-0.232
-4.400E-06,-0.384
-4.390E-06,-0.544
-4.380E-06,-0.704
-4.370E-06,-0.616
-4.360E-06,-0.488
-4.350E-06,-0.504
-4.340E-06,-0.504
-4.330E-06,-0.376
-4.320E-06,-0.368
-4.310E-06,-0.088
-4.300E-06,-0.112
-4.290E-06,0.072
-4.280E-06,0.008
-4.270E-06,0.128
-4.260E-06,0.104
-4.250E-06,0.240
-4.240E-06,0.488
-4.230E-06,0.440
-4.220E-06,0.560
-4.210E-06,0.472
-4.200E-06,0.184
-4.190E-06,0.296
-4.180E-06,0.040
-4.170E-06,0.128
-4.160E-06,0.080
-4.150E-06,-0.040
-4.140E-06,-0.216
-4.130E-06,-0.288
-4.120E-06,-0.408
-4.110E-06,-0.312
-4.100E-06,-0.336
-4.090E-06,-0.344
-4.080E-06,-0.376
-4.070E-06,-0.424
-4.060E-06,-0.400
-4.050E-06,-0.368
-4.040E-06,-0.344
-4.030E-06,-0.320
-4.020E-06,-0.264
-4.010E-06,-0.192
-4.000E-06,-0.144
-3.990E-06,-0.088
-3.980E-06,-0.032
-3.970E-06,0.032
-3.960E-06,0.120
-3.950E-06,0.200
-3.940E-06,0.256
-3.930E-06,0.320
-3.920E-06,0.368
-3.910E-06,0.392
-3.900E-06,0.408
-3.890E-06,0.416
-3.880E-06,0.424
-3.870E-06,0.400
-3.860E-06,0.360
-3.850E-06,0.328
-3.840E-06,0.264
-3.830E-06,0.200
-3.820E-06,0.136
-3.810E-06,0.096
-3.800E-06,0.008
-3.790E-06,-0.040
-3.780E-06,-0.136
-3.770E-06,-0.176
-3.760E-06,-0.232
-3.750E-06,-0.248
-3.740E-06,-0.224
-3.730E-06,-0.296
-3.720E-06,-0.256
-3.710E-06,-0.344
-3.700E-06,-0.424
-3.690E-06,-0.448
-3.680E-06,-0.568
-3.670E-06,-0.576
-3.660E-06,-0.344
-3.650E-06,0.352
-3.640E-06,-0.392
-3.630E-06,0.384
-3.620E-06,-0.912
-3.610E-06,-0.552
-3.600E-06,-0.968
-3.590E-06,-0.760
-3.580E-06,-0.656
-3.570E-06,-0.664
-3.560E-06,-1.000
-3.550E-06,-1.032
-3.540E-06,-1.040
-3.530E-06,-0.920
-3.520E-06,-0.584
-3.510E-06,-0.368
-3.500E-06,-0.368
-3.490E-06,-0.632
-3.480E-06,-0.096
-3.470E-06,-0.088
-3.460E-06,0.408
-3.450E-06,0.696
-3.440E-06,0.584
-3.430E-06,0.408
-3.420E-06,0.416
-3.410E-06,0.104
-3.400E-06,0.392
-3.390E-06,0.336
-3.380E-06,0.248
-3.370E-06,0.136
-3.360E-06,-0.048
-3.350E-06,-0.016
-3.340E-06,0.056
-3.330E-06,0.088
-3.320E-06,0.048
-3.310E-06,-0.016
-3.300E-06,-0.088
-3.290E-06,-0.104
-3.280E-06,-0.080
-3.270E-06,-0.024
-3.260E-06,-0.064
-3.250E-06,-0.120
-3.240E-06,-0.304
-3.230E-06,-0.400
-3.220E-06,-0.216
-3.210E-06,-0.256
-3.200E-06,0.088
-3.190E-06,-0.024
-3.180E-06,0.160
-3.170E-06,0.024
-3.160E-06,0.144
-3.150E-06,0.104
-3.140E-06,0.280
-3.130E-06,0.184
-3.120E-06,0.224
-3.110E-06,0.112
-3.100E-06,0.080
-3.090E-06,0.104
-3.080E-06,0.296
-3.070E-06,0.112
-3.060E-06,0.192
-3.050E-06,-0.056
-3.040E-06,-0.200
-3.030E-06,-0.248
-3.020E-06,-0.432
-3.010E-06,-0.440
-3.000E-06,-0.472
-2.990E-06,-0.568
-2.980E-06,-0.632
-2.970E-06,-0.688
-2.960E-06,-0.728
-2.950E-06,-0.672
-2.940E-06,-0.632
-2.930E-06,-0.576
-2.920E-06,-0.496
-2.910E-06,-0.400
-2.900E-06,-0.264
-2.890E-06,-0.216
-2.880E-06,-0.072
-2.870E-06,-0.016
-2.860E-06,0.104
-2.850E-06,0.240
-2.840E-06,0.320
-2.830E-06,0.304
-2.820E-06,0.360
-2.810E-06,0.256
-2.800E-06,0.376
-2.790E-06,0.424
-2.780E-06,0.440
-2.770E-06,0.520
-2.760E-06,0.472
-2.750E-06,0.520
-2.740E-06,0.376
-2.730E-06,0.416
-2.720E-06,0.144
-2.710E-06,0.128
-2.700E-06,-0.136
-2.690E-06,-0.200
-2.680E-06,-0.368
-2.670E-06,-0.448
-2.660E-06,-0.568
-2.650E-06,-0.656
-2.640E-06,-0.696
-2.630E-06,-0.744
-2.620E-06,-0.720
-2.610E-06,-0.672
-2.600E-06,-0.600
-2.590E-06,-0.520
-2.580E-06,-0.464
-2.570E-06,-0.432
-2.560E-06,-0.368
-2.550E-06,-0.328
-2.540E-06,-0.264
-2.530E-06,-0.200
-2.520E-06,-0.136
-2.510E-06,-0.072
-2.500E-06,-0.008
-2.490E-06,0.048
-2.480E-06,0.096
-2.470E-06,0.160
-2.460E-06,0.216
-2.450E-06,0.272
-2.440E-06,0.264
-2.430E-06,0.280
-2.420E-06,0.200
-2.410E-06,0.184
-2.400E-06,0.064
-2.390E-06,-0.048
-2.380E-06,0.000
-2.370E-06,-0.120
-2.360E-06,-0.016
-2.350E-06,0.000
-2.340E-06,0.056
-2.330E-06,0.768
-2.320E-06,1.064
-2.310E-06,0.808
-2.300E-06,1.080
-2.290E-06,-0.096
-2.280E-06,0.248
-2.270E-06,-0.536
-2.260E-06,-0.568
-2.250E-06,-0.552
-2.240E-06,-0.976
-2.230E-06,-1.032
-2.220E-06,-1.040
-2.210E-06,-1.040
-2.200E-06,-1.040
-2.190E-06,-1.040
-2.180E-06,-0.792
-2.170E-06,-0.688
-2.160E-06,0.312
-2.150E-06,0.128
-2.140E-06,0.608
-2.130E-06,0.360
-2.120E-06,0.472
-2.110E-06,0.352
-2.100E-06,0.576
-2.090E-06,0.296
-2.080E-06,0.168
-2.070E-06,-0.128
-2.060E-06,-0.376
-2.050E-06,-0.264
-2.040E-06,-0.360
-2.030E-06,-0.232
-2.020E-06,-0.264
-2.010E-06,-0.240
-2.000E-06,-0.224
-1.990E-06,-0.128
-1.980E-06,-0.040
-1.970E-06,0.008
-1.960E-06,0.088
-1.950E-06,0.112
-1.940E-06,0.128
-1.930E-06,0.112
-1.920E-06,0.008
-1.910E-06,-0.104
-1.900E-06,-0.248
-1.890E-06,-0.336
-1.880E-06,-0.344
-1.870E-06,-0.312
-1.860E-06,-0.192
-1.850E-06,-0.080
-1.840E-06,0.048
-1.830E-06,0.120
-1.820E-06,0.240
-1.810E-06,0.224
-1.800E-06,0.304
-1.790E-06,0.296
-1.780E-06,0.288
-1.770E-06,0.200
-1.760E-06,0.256
-1.750E-06,0.144
-1.740E-06,0.056
-1.730E-06,-0.008
-1.720E-06,1.088
-1.710E-06,0.696
-1.700E-06,1.072
-1.690E-06,0.800
-1.680E-06,0.032
-1.670E-06,-0.112
-1.660E-06,-0.832
-1.650E-06,-0.712
-1.640E-06,-0.744
-1.630E-06,-1.048
-1.620E-06,-1.040
-1.610E-06,-1.032
-1.600E-06,-1.040
-1.590E-06,-1.040
-1.580E-06,-1.048
-1.570E-06,-1.040
-1.560E-06,-1.032
-1.550E-06,-1.040
-1.540E-06,-1.032
-1.530E-06,-0.840
-1.520E-06,-0.616
-1.510E-06,-0.536
-1.500E-06,-0.320
-1.490E-06,-0.168
-1.480E-06,0.016
-1.470E-06,0.096
-1.460E-06,0.208
-1.450E-06,0.312
-1.440E-06,0.536
-1.430E-06,0.440
-1.420E-06,0.976
-1.410E-06,1.080
-1.400E-06,1.072
-1.390E-06,1.080
-1.380E-06,1.088
-1.370E-06,1.080
-1.360E-06,1.080
-1.350E-06,1.088
-1.340E-06,1.080
-1.330E-06,1.072
-1.320E-06,1.048
-1.310E-06,0.632
-1.300E-06,0.184
-1.290E-06,-0.336
-1.280E-06,-0.664
-1.270E-06,-0.920
-1.260E-06,-1.040
-1.250E-06,-1.040
-1.240E-06,-1.048
-1.230E-06,-1.040
-1.220E-06,-1.032
-1.210E-06,-1.040
-1.200E-06,-0.936
-1.190E-06,-1.040
-1.180E-06,-0.720
-1.170E-06,-0.944
-1.160E-06,-0.832
-1.150E-06,-0.800
-1.140E-06,-0.920
-1.130E-06,-0.720
-1.120E-06,-0.688
-1.110E-06,-0.696
-1.100E-06,-0.608
-1.090E-06,-0.696
-1.080E-06,-0.840
-1.070E-06,-0.664
-1.060E-06,-0.248
-1.050E-06,0.448
-1.040E-06,0.864
-1.030E-06,1.080
-1.020E-06,1.080
-1.010E-06,1.080
-1.000E-06,0.728
-9.900E-07,0.544
-9.800E-07,0.520
-9.700E-07,0.288
-9.600E-07,-0.048
-9.500E-07,-0.416
-9.400E-07,-0.720
-9.300E-07,-0.800
-9.200E-07,-0.848
-9.100E-07,-0.792
-9.000E-07,-0.864
-8.900E-07,-0.792
-8.800E-07,-0.816
-8.700E-07,-0.768
-8.600E-07,-0.712
-8.500E-07,-0.696
-8.400E-07,-0.552
-8.300E-07,-0.568
-8.200E-07,-0.416
-8.100E-07,-0.360
-8.000E-07,-0.232
-7.900E-07,0.256
-7.800E-07,0.376
-7.700E-07,0.880
-7.600E-07,0.888
-7.500E-07,0.952
-7.400E-07,0.824
-7.300E-07,0.872
-7.200E-07,0.480
-7.100E-07,0.512
-7.000E-07,0.104
-6.900E-07,-0.040
-6.800E-07,-0.192
-6.700E-07,-0.408
-6.600E-07,-0.312
-6.500E-07,-0.560
-6.400E-07,-0.624
-6.300E-07,-0.864
-6.200E-07,-0.832
-6.100E-07,-1.024
-6.000E-07,-0.736
-5.900E-07,-0.424
-5.800E-07,-0.328
-5.700E-07,0.264
-5.600E-07,0.216
-5.500E-07,0.288
-5.400E-07,0.208
-5.300E-07,-0.080
-5.200E-07,-0.104
-5.100E-07,-0.120
-5.000E-07,-0.248
-4.900E-07,-0.248
-4.800E-07,-0.448
-4.700E-07,-0.432
-4.600E-07,-0.480
-4.500E-07,-0.280
-4.400E-07,-0.328
-4.300E-07,-0.168
-4.200E-07,-0.296
-4.100E-07,-0.320
-4.000E-07,-0.440
-3.900E-07,-0.416
-3.800E-07,-0.576
-3.700E-07,-0.664
-3.600E-07,-0.864
-3.500E-07,-1.048
-3.400E-07,-1.040
-3.300E-07,-1.048
-3.200E-07,-1.032
-3.100E-07,-1.040
-3.000E-07,-1.048
-2.900E-07,-1.040
-2.800E-07,-1.032
-2.700E-07,-1.040
-2.600E-07,-1.048
-2.500E-07,-1.040
-2.400E-07,-1.008
-2.300E-07,-0.864
-2.200E-07,-0.504
-2.100E-07,-0.560
-2.000E-07,-0.272
-1.900E-07,-0.344
-1.800E-07,-0.464
-1.700E-07,-0.440
-1.600E-07,-0.704
-1.500E-07,-0.864
-1.400E-07,-1.016
-1.300E-07,-1.040
-1.200E-07,-1.040
-1.100E-07,-1.040
-1.000E-07,-1.048
-9.000E-08,-1.040
-8.000E-08,-1.040
-7.000E-08,-1.040
-6.000E-08,-1.040
-5.000E-08,-0.456
-4.000E-08,-0.200
-3.000E-08,0.528
-2.000E-08,0.400
-1.000E-08,-0.224
0.000E+00,-0.312
1.000E-08,-0.328
2.000E-08,-0.320
3.000E-08,-0.272
4.000E-08,-0.608
5.000E-08,-1.008
6.000E-08,-1.040
7.000E-08,-1.040
8.000E-08,-1.040
9.000E-08,-1.048
1.000E-07,-1.040
1.100E-07,-1.032
1.200E-07,-1.032
1.300E-07,-1.040
1.400E-07,-1.032
1.500E-07,-0.992
1.600E-07,-1.048
1.700E-07,-1.040
1.800E-07,-1.048
1.900E-07,-0.976
2.000E-07,-1.024
2.100E-07,-1.032
2.200E-07,-1.040
2.300E-07,-1.048
2.400E-07,-1.032
2.500E-07,-1.040
2.600E-07,-1.032
2.700E-07,-0.904
2.800E-07,-0.688
2.900E-07,-0.496
3.000E-07,-0.216
3.100E-07,0.024
3.200E-07,0.200
3.300E-07,0.416
3.400E-07,0.544
3.500E-07,0.608
3.600E-07,0.608
3.700E-07,0.464
3.800E-07,0.392
3.900E-07,0.200
4.000E-07,0.088
4.100E-07,0.048
4.200E-07,-0.040
4.300E-07,0.008
4.400E-07,-0.088
4.500E-07,0.016
4.600E-07,-0.064
4.700E-07,0.120
4.800E-07,0.096
4.900E-07,0.256
5.000E-07,0.280
5.100E-07,0.336
5.200E-07,0.336
5.300E-07,0.232
5.400E-07,0.200
5.500E-07,0.024
5.600E-07,-0.024
5.700E-07,-0.176
5.800E-07,-0.232
5.900E-07,-0.336
6.000E-07,-0.440
6.100E-07,-0.520
6.200E-07,-0.560
6.300E-07,-0.576
6.400E-07,-0.584
6.500E-07,-0.536
6.600E-07,-0.560
6.700E-07,-0.552
6.800E-07,-0.584
6.900E-07,-0.600
7.000E-07,-0.616
7.100E-07,-0.752
7.200E-07,-0.968
7.300E-07,-0.960
7.400E-07,-0.256
7.500E-07,0.552
7.600E-07,1.088
7.700E-07,1.080
7.800E-07,1.080
7.900E-07,1.072
8.000E-07,1.080
8.100E-07,1.080
8.200E-07,1.000
8.300E-07,0.928
8.400E-07,0.768
8.500E-07,0.184
8.600E-07,0.440
8.700E-07,-0.464
8.800E-07,-0.840
8.900E-07,-1.040
9.000E-07,-1.040
9.100E-07,-1.048
9.200E-07,-1.040
9.300E-07,-1.032
9.400E-07,-1.040
9.500E-07,-1.048
9.600E-07,-1.040
9.700E-07,-0.864
9.800E-07,-0.624
9.900E-07,-0.504
1.000E-06,-0.400
1.010E-06,-0.104
1.020E-06,0.016
1.030E-06,0.120
1.040E-06,0.136
1.050E-06,0.200
1.060E-06,0.336
1.070E-06,0.624
1.080E-06,0.744
1.090E-06,0.872
1.100E-06,1.016
1.110E-06,1.040
1.120E-06,1.072
1.130E-06,1.080
1.140E-06,1.032
1.150E-06,0.936
1.160E-06,0.680
1.170E-06,0.248
1.180E-06,-0.232
1.190E-06,-0.832
1.200E-06,-1.048
1.210E-06,-1.040
1.220E-06,-1.048
1.230E-06,-1.048
1.240E-06,-1.048
1.250E-06,-1.032
1.260E-06,-1.040
1.270E-06,-1.048
1.280E-06,-1.040
1.290E-06,-1.048
1.300E-06,-1.032
1.310E-06,-1.040
1.320E-06,-1.048
1.330E-06,-1.040
1.340E-06,-1.032
1.350E-06,-1.040
1.360E-06,-1.048
1.370E-06,-1.048
1.380E-06,-1.048
1.390E-06,-1.032
1.400E-06,-1.032
1.410E-06,-1.040
1.420E-06,-1.040
1.430E-06,-1.048
1.440E-06,-1.040
1.450E-06,-1.048
1.460E-06,-1.032
1.470E-06,-1.040
1.480E-06,-1.040
1.490E-06,-1.048
1.500E-06,-1.040
1.510E-06,-1.032
1.520E-06,-1.040
1.530E-06,-1.040
1.540E-06,-1.048
1.550E-06,-1.040
1.560E-06,-1.048
1.570E-06,-1.032
1.580E-06,-1.040
1.590E-06,-1.040
1.600E-06,-1.040
1.610E-06,-1.040
1.620E-06,-1.048
1.630E-06,-1.040
1.640E-06,-1.032
1.650E-06,-1.040
1.660E-06,-1.040
1.670E-06,-0.432
1.680E-06,0.328
1.690E-06,0.664
1.700E-06,1.080
1.710E-06,0.920
1.720E-06,1.080
1.730E-06,1.080
1.740E-06,0.384
1.750E-06,0.664
1.760E-06,-0.888
1.770E-06,-1.040
1.780E-06,-1.032
1.790E-06,-1.040
1.800E-06,-1.048
1.810E-06,-1.040
1.820E-06,-1.032
1.830E-06,-1.040
1.840E-06,-1.032
1.850E-06,-1.040
1.860E-06,-1.040
1.870E-06,-1.048
1.880E-06,-1.040
1.890E-06,-1.040
1.900E-06,-1.040
1.910E-06,-1.040
1.920E-06,-1.048
1.930E-06,-1.040
1.940E-06,-1.032
1.950E-06,-1.032
1.960E-06,-1.040
1.970E-06,-0.744
1.980E-06,-0.352
1.990E-06,-0.072
2.000E-06,0.112
2.010E-06,0.144
2.020E-06,0.096
2.030E-06,-0.064
2.040E-06,-0.288
2.050E-06,-0.496
2.060E-06,-0.736
2.070E-06,-0.968
2.080E-06,-1.032
2.090E-06,-1.040
2.100E-06,-1.048
2.110E-06,-1.048
2.120E-06,-1.048
2.130E-06,-1.048
2.140E-06,-1.032
2.150E-06,-1.024
2.160E-06,-0.992
2.170E-06,-0.952
2.180E-06,-0.920
2.190E-06,-0.832
2.200E-06,-0.664
2.210E-06,-0.496
2.220E-06,-0.304
2.230E-06,-0.160
2.240E-06,-0.024
2.250E-06,0.088
2.260E-06,0.200
2.270E-06,0.296
2.280E-06,0.408
2.290E-06,0.496
2.300E-06,0.552
2.310E-06,0.568
2.320E-06,0.512
2.330E-06,0.456
2.340E-06,0.312
2.350E-06,0.168
2.360E-06,0.000
2.370E-06,-0.160
2.380E-06,-0.328
2.390E-06,-0.440
2.400E-06,-0.512
2.410E-06,-0.536
2.420E-06,-0.464
2.430E-06,-0.384
2.440E-06,-0.240
2.450E-06,-0.176
2.460E-06,-0.144
2.470E-06,-0.200
2.480E-06,-0.184
2.490E-06,-0.144
2.500E-06,-0.024
2.510E-06,0.104
2.520E-06,0.208
2.530E-06,0.208
2.540E-06,-0.080
2.550E-06,-0.440
2.560E-06,-0.824
2.570E-06,-0.984
2.580E-06,-1.048
2.590E-06,-0.616
2.600E-06,-0.136
2.610E-06,0.784
2.620E-06,1.080
2.630E-06,1.088
2.640E-06,1.088
2.650E-06,1.080
2.660E-06,1.088
2.670E-06,1.080
2.680E-06,1.072
2.690E-06,1.080
2.700E-06,1.088
2.710E-06,1.072
2.720E-06,0.168
2.730E-06,-0.760
2.740E-06,-1.048
2.750E-06,-1.032
2.760E-06,-1.040
2.770E-06,-1.040
2.780E-06,-1.048
2.790E-06,-1.040
2.800E-06,-1.040
2.810E-06,-1.040
2.820E-06,-1.048
2.830E-06,-1.040
2.840E-06,-1.032
2.850E-06,-1.040
2.860E-06,-1.048
2.870E-06,-1.040
2.880E-06,-1.040
2.890E-06,-1.040
2.900E-06,-1.048
2.910E-06,-1.040
2.920E-06,-0.904
2.930E-06,-0.672
2.940E-06,-0.456
2.950E-06,-0.344
2.960E-06,-0.336
2.970E-06,-0.336
2.980E-06,-0.400
2.990E-06,-0.512
3.000E-06,-0.624
3.010E-06,-0.720
3.020E-06,-0.808
3.030E-06,-0.864
3.040E-06,-0.952
3.050E-06,-0.952
3.060E-06,-0.952
3.070E-06,-0.896
