mediciones/5-15/1.2/WaveData47589.csv

#timebase=2000000(ps)
,#voltbase=200000(mv/100)
#size=4000
-8.400E-06,0.008
-8.390E-06,0.000
-8.380E-06,0.000
-8.370E-06,0.008
-8.360E-06,0.016
-8.350E-06,0.000
-8.340E-06,-0.008
-8.330E-06,0.000
-8.320E-06,0.008
-8.310E-06,0.008
-8.300E-06,-0.008
-8.290E-06,0.000
-8.280E-06,0.000
-8.270E-06,-0.008
-8.260E-06,-0.008
-8.250E-06,0.000
-8.240E-06,0.008
-8.230E-06,0.000
-8.220E-06,0.008
-8.210E-06,0.008
-8.200E-06,-0.008
-8.190E-06,0.000
-8.180E-06,0.000
-8.170E-06,0.008
-8.160E-06,0.008
-8.150E-06,0.000
-8.140E-06,0.000
-8.130E-06,0.000
-8.120E-06,-0.008
-8.110E-06,0.000
-8.100E-06,0.016
-8.090E-06,0.000
-8.080E-06,0.000
-8.070E-06,0.000
-8.060E-06,0.000
-8.050E-06,0.000
-8.040E-06,0.008
-8.030E-06,0.000
-8.020E-06,0.000
-8.010E-06,0.000
-8.000E-06,0.000
-7.990E-06,0.000
-7.980E-06,0.008
-7.970E-06,0.008
-7.960E-06,0.008
-7.950E-06,0.008
-7.940E-06,0.000
-7.930E-06,-0.008
-7.920E-06,0.008
-7.910E-06,0.000
-7.900E-06,0.008
-7.890E-06,0.008
-7.880E-06,0.008
-7.870E-06,0.008
-7.860E-06,0.016
-7.850E-06,0.008
-7.840E-06,0.008
-7.830E-06,0.000
-7.820E-06,0.000
-7.810E-06,0.000
-7.800E-06,-0.008
-7.790E-06,0.000
-7.780E-06,-0.008
-7.770E-06,-0.008
-7.760E-06,0.000
-7.750E-06,-0.008
-7.740E-06,0.000
-7.730E-06,-0.008
-7.720E-06,0.000
-7.710E-06,-0.008
-7.700E-06,0.000
-7.690E-06,0.000
-7.680E-06,0.000
-7.670E-06,0.000
-7.660E-06,0.000
-7.650E-06,-0.008
-7.640E-06,0.000
-7.630E-06,-0.008
-7.620E-06,0.000
-7.610E-06,0.000
-7.600E-06,0.000
-7.590E-06,0.000
-7.580E-06,0.000
-7.570E-06,0.000
-7.560E-06,-0.008
-7.550E-06,0.000
-7.540E-06,-0.008
-7.530E-06,0.000
-7.520E-06,0.000
-7.510E-06,0.000
-7.500E-06,0.016
-7.490E-06,0.008
-7.480E-06,0.016
-7.470E-06,0.008
-7.460E-06,-0.008
-7.450E-06,0.000
-7.440E-06,0.008
-7.430E-06,0.008
-7.420E-06,0.008
-7.410E-06,-0.008
-7.400E-06,0.008
-7.390E-06,0.008
-7.380E-06,0.008
-7.370E-06,0.016
-7.360E-06,0.000
-7.350E-06,0.000
-7.340E-06,0.000
-7.330E-06,0.000
-7.320E-06,0.000
-7.310E-06,0.000
-7.300E-06,0.000
-7.290E-06,0.000
-7.280E-06,0.000
-7.270E-06,0.000
-7.260E-06,0.000
-7.250E-06,0.000
-7.240E-06,-0.008
-7.230E-06,0.000
-7.220E-06,-0.008
-7.210E-06,-0.008
-7.200E-06,0.000
-7.190E-06,-0.008
-7.180E-06,-0.008
-7.170E-06,0.000
-7.160E-06,0.008
-7.150E-06,0.016
-7.140E-06,0.016
-7.130E-06,-0.008
-7.120E-06,0.000
-7.110E-06,0.000
-7.100E-06,0.000
-7.090E-06,0.008
-7.080E-06,0.000
-7.070E-06,0.000
-7.060E-06,0.000
-7.050E-06,0.000
-7.040E-06,0.000
-7.030E-06,-0.008
-7.020E-06,0.000
-7.010E-06,0.008
-7.000E-06,0.008
-6.990E-06,0.008
-6.980E-06,-0.008
-6.970E-06,-0.008
-6.960E-06,0.000
-6.950E-06,-0.008
-6.940E-06,0.000
-6.930E-06,-0.008
-6.920E-06,0.000
-6.910E-06,0.000
-6.900E-06,0.008
-6.890E-06,0.000
-6.880E-06,0.000
-6.870E-06,0.000
-6.860E-06,-0.008
-6.850E-06,0.000
-6.840E-06,0.008
-6.830E-06,0.000
-6.820E-06,0.008
-6.810E-06,0.008
-6.800E-06,0.008
-6.790E-06,0.008
-6.780E-06,0.008
-6.770E-06,0.008
-6.760E-06,0.008
-6.750E-06,0.008
-6.740E-06,-0.008
-6.730E-06,0.000
-6.720E-06,0.000
-6.710E-06,0.000
-6.700E-06,0.000
-6.690E-06,0.008
-6.680E-06,-0.008
-6.670E-06,0.000
-6.660E-06,0.000
-6.650E-06,0.000
-6.640E-06,0.000
-6.630E-06,0.000
-6.620E-06,0.000
-6.610E-06,-0.008
-6.600E-06,0.000
-6.590E-06,0.000
-6.580E-06,0.000
-6.570E-06,-0.008
-6.560E-06,0.000
-6.550E-06,0.000
-6.540E-06,0.000
-6.530E-06,0.000
-6.520E-06,0.008
-6.510E-06,0.008
-6.500E-06,0.008
-6.490E-06,-0.008
-6.480E-06,-0.008
-6.470E-06,0.000
-6.460E-06,0.008
-6.450E-06,-0.008
-6.440E-06,0.000
-6.430E-06,0.008
-6.420E-06,0.016
-6.410E-06,0.000
-6.400E-06,0.008
-6.390E-06,0.016
-6.380E-06,0.024
-6.370E-06,0.008
-6.360E-06,0.008
-6.350E-06,0.008
-6.340E-06,0.016
-6.330E-06,0.000
-6.320E-06,0.000
-6.310E-06,0.000
-6.300E-06,0.008
-6.290E-06,0.008
-6.280E-06,0.008
-6.270E-06,0.000
-6.260E-06,0.008
-6.250E-06,0.016
-6.240E-06,0.016
-6.230E-06,0.024
-6.220E-06,0.016
-6.210E-06,0.024
-6.200E-06,0.008
-6.190E-06,0.016
-6.180E-06,0.016
-6.170E-06,0.008
-6.160E-06,0.008
-6.150E-06,0.008
-6.140E-06,0.008
-6.130E-06,0.008
-6.120E-06,0.000
-6.110E-06,0.000
-6.100E-06,0.000
-6.090E-06,0.000
-6.080E-06,0.000
-6.070E-06,0.008
-6.060E-06,0.008
-6.050E-06,0.008
-6.040E-06,0.008
-6.030E-06,0.008
-6.020E-06,-0.008
-6.010E-06,-0.008
-6.000E-06,0.000
-5.990E-06,0.008
-5.980E-06,-0.008
-5.970E-06,-0.008
-5.960E-06,0.000
-5.950E-06,0.008
-5.940E-06,0.008
-5.930E-06,-0.008
-5.920E-06,0.008
-5.910E-06,0.008
-5.900E-06,0.008
-5.890E-06,0.000
-5.880E-06,0.008
-5.870E-06,0.016
-5.860E-06,0.016
-5.850E-06,0.016
-5.840E-06,0.016
-5.830E-06,0.000
-5.820E-06,0.000
-5.810E-06,0.008
-5.800E-06,0.000
-5.790E-06,0.008
-5.780E-06,0.016
-5.770E-06,0.000
-5.760E-06,0.000
-5.750E-06,0.008
-5.740E-06,0.008
-5.730E-06,0.016
-5.720E-06,0.000
-5.710E-06,0.008
-5.700E-06,0.016
-5.690E-06,0.008
-5.680E-06,-0.008
-5.670E-06,0.016
-5.660E-06,-0.008
-5.650E-06,0.000
-5.640E-06,0.008
-5.630E-06,0.000
-5.620E-06,0.008
-5.610E-06,0.008
-5.600E-06,0.008
-5.590E-06,0.008
-5.580E-06,0.016
-5.570E-06,0.008
-5.560E-06,0.016
-5.550E-06,-0.008
-5.540E-06,0.000
-5.530E-06,0.000
-5.520E-06,0.000
-5.510E-06,-0.008
-5.500E-06,0.000
-5.490E-06,0.000
-5.480E-06,0.000
-5.470E-06,0.000
-5.460E-06,-0.008
-5.450E-06,0.000
-5.440E-06,0.008
-5.430E-06,0.008
-5.420E-06,0.000
-5.410E-06,0.000
-5.400E-06,0.016
-5.390E-06,0.016
-5.380E-06,0.016
-5.370E-06,0.016
-5.360E-06,0.016
-5.350E-06,-0.008
-5.340E-06,0.000
-5.330E-06,0.008
-5.320E-06,0.000
-5.310E-06,0.000
-5.300E-06,-0.008
-5.290E-06,0.000
-5.280E-06,-0.008
-5.270E-06,0.008
-5.260E-06,-0.008
-5.250E-06,0.000
-5.240E-06,0.000
-5.230E-06,0.000
-5.220E-06,0.008
-5.210E-06,-0.008
-5.200E-06,0.000
-5.190E-06,0.000
-5.180E-06,0.000
-5.170E-06,0.008
-5.160E-06,0.008
-5.150E-06,0.008
-5.140E-06,0.008
-5.130E-06,-0.008
-5.120E-06,0.000
-5.110E-06,0.000
-5.100E-06,0.000
-5.090E-06,0.008
-5.080E-06,0.008
-5.070E-06,0.000
-5.060E-06,-0.008
-5.050E-06,0.008
-5.040E-06,0.016
-5.030E-06,-0.008
-5.020E-06,0.000
-5.010E-06,0.016
-5.000E-06,0.016
-4.990E-06,0.008
-4.980E-06,0.008
-4.970E-06,0.008
-4.960E-06,0.000
-4.950E-06,0.008
-4.940E-06,0.000
-4.930E-06,0.008
-4.920E-06,0.008
-4.910E-06,0.008
-4.900E-06,0.016
-4.890E-06,0.008
-4.880E-06,0.000
-4.870E-06,0.008
-4.860E-06,0.000
-4.850E-06,0.008
-4.840E-06,0.008
-4.830E-06,0.000
-4.820E-06,0.000
-4.810E-06,-0.008
-4.800E-06,-0.008
-4.790E-06,0.000
-4.780E-06,0.008
-4.770E-06,-0.008
-4.760E-06,-0.008
-4.750E-06,0.000
-4.740E-06,0.008
-4.730E-06,0.000
-4.720E-06,0.000
-4.710E-06,0.000
-4.700E-06,-0.008
-4.690E-06,-0.008
-4.680E-06,0.000
-4.670E-06,0.000
-4.660E-06,-0.008
-4.650E-06,0.008
-4.640E-06,-0.016
-4.630E-06,0.008
-4.620E-06,0.008
-4.610E-06,-0.008
-4.600E-06,-0.008
-4.590E-06,0.000
-4.580E-06,0.008
-4.570E-06,0.008
-4.560E-06,-0.008
-4.550E-06,0.000
-4.540E-06,0.008
-4.530E-06,0.016
-4.520E-06,0.016
-4.510E-06,0.008
-4.500E-06,-0.008
-4.490E-06,0.000
-4.480E-06,-0.008
-4.470E-06,0.000
-4.460E-06,-0.008
-4.450E-06,0.000
-4.440E-06,0.000
-4.430E-06,0.008
-4.420E-06,0.008
-4.410E-06,0.008
-4.400E-06,0.016
-4.390E-06,-0.008
-4.380E-06,0.000
-4.370E-06,-0.008
-4.360E-06,-0.008
-4.350E-06,0.008
-4.340E-06,0.008
-4.330E-06,0.008
-4.320E-06,0.008
-4.310E-06,0.008
-4.300E-06,0.008
-4.290E-06,0.000
-4.280E-06,0.000
-4.270E-06,0.000
-4.260E-06,-0.008
-4.250E-06,0.000
-4.240E-06,-0.008
-4.230E-06,0.000
-4.220E-06,0.000
-4.210E-06,-0.008
-4.200E-06,0.000
-4.190E-06,-0.008
-4.180E-06,-0.008
-4.170E-06,-0.008
-4.160E-06,-0.008
-4.150E-06,0.000
-4.140E-06,0.000
-4.130E-06,-0.008
-4.120E-06,0.000
-4.110E-06,-0.008
-4.100E-06,0.000
-4.090E-06,0.000
-4.080E-06,0.016
-4.070E-06,0.008
-4.060E-06,0.008
-4.050E-06,-0.008
-4.040E-06,0.000
-4.030E-06,0.000
-4.020E-06,0.000
-4.010E-06,0.000
-4.000E-06,0.000
-3.990E-06,-0.008
-3.980E-06,0.000
-3.970E-06,0.000
-3.960E-06,0.000
-3.950E-06,0.008
-3.940E-06,0.008
-3.930E-06,-0.016
-3.920E-06,0.000
-3.910E-06,-0.008
-3.900E-06,0.000
-3.890E-06,-0.008
-3.880E-06,0.000
-3.870E-06,0.000
-3.860E-06,0.000
-3.850E-06,0.000
-3.840E-06,0.000
-3.830E-06,0.000
-3.820E-06,0.000
-3.810E-06,-0.016
-3.800E-06,-0.008
-3.790E-06,-0.024
-3.780E-06,-0.032
-3.770E-06,-0.024
-3.760E-06,-0.032
-3.750E-06,-0.040
-3.740E-06,-0.056
-3.730E-06,-0.072
-3.720E-06,-0.072
-3.710E-06,-0.080
-3.700E-06,-0.088
-3.690E-06,-0.096
-3.680E-06,-0.080
-3.670E-06,-0.088
-3.660E-06,-0.080
-3.650E-06,-0.088
-3.640E-06,-0.080
-3.630E-06,-0.064
-3.620E-06,-0.056
-3.610E-06,-0.056
-3.600E-06,-0.048
-3.590E-06,-0.048
-3.580E-06,-0.032
-3.570E-06,-0.008
-3.560E-06,-0.008
-3.550E-06,0.008
-3.540E-06,0.008
-3.530E-06,0.008
-3.520E-06,0.000
-3.510E-06,0.000
-3.500E-06,0.000
-3.490E-06,0.000
-3.480E-06,-0.008
-3.470E-06,0.000
-3.460E-06,0.000
-3.450E-06,0.000
-3.440E-06,0.000
-3.430E-06,0.000
-3.420E-06,-0.008
-3.410E-06,-0.008
-3.400E-06,-0.024
-3.390E-06,-0.024
-3.380E-06,-0.032
-3.370E-06,-0.016
-3.360E-06,-0.024
-3.350E-06,-0.024
-3.340E-06,-0.032
-3.330E-06,-0.048
-3.320E-06,-0.048
-3.310E-06,-0.056
-3.300E-06,-0.080
-3.290E-06,-0.096
-3.280E-06,-0.088
-3.270E-06,-0.112
-3.260E-06,-0.096
-3.250E-06,-0.096
-3.240E-06,-0.096
-3.230E-06,-0.080
-3.220E-06,-0.096
-3.210E-06,-0.088
-3.200E-06,-0.112
-3.190E-06,-0.144
-3.180E-06,-0.168
-3.170E-06,-0.192
-3.160E-06,-0.192
-3.150E-06,-0.200
-3.140E-06,-0.192
-3.130E-06,-0.216
-3.120E-06,-0.216
-3.110E-06,-0.216
-3.100E-06,-0.184
-3.090E-06,-0.168
-3.080E-06,-0.144
-3.070E-06,-0.136
-3.060E-06,-0.120
-3.050E-06,-0.112
-3.040E-06,-0.104
-3.030E-06,-0.088
-3.020E-06,-0.080
-3.010E-06,-0.064
-3.000E-06,-0.072
-2.990E-06,-0.064
-2.980E-06,-0.072
-2.970E-06,-0.064
-2.960E-06,-0.032
-2.950E-06,-0.032
-2.940E-06,-0.024
-2.930E-06,-0.032
-2.920E-06,-0.048
-2.910E-06,-0.040
-2.900E-06,-0.040
-2.890E-06,-0.024
-2.880E-06,-0.032
-2.870E-06,-0.040
-2.860E-06,-0.024
-2.850E-06,-0.040
-2.840E-06,-0.048
-2.830E-06,-0.032
-2.820E-06,-0.048
-2.810E-06,-0.032
-2.800E-06,-0.032
-2.790E-06,-0.040
-2.780E-06,-0.032
-2.770E-06,-0.040
-2.760E-06,-0.056
-2.750E-06,-0.064
-2.740E-06,-0.080
-2.730E-06,-0.104
-2.720E-06,-0.104
-2.710E-06,-0.128
-2.700E-06,-0.128
-2.690E-06,-0.136
-2.680E-06,-0.144
-2.670E-06,-0.184
-2.660E-06,-0.208
-2.650E-06,-0.200
-2.640E-06,-0.200
-2.630E-06,-0.192
-2.620E-06,-0.200
-2.610E-06,-0.200
-2.600E-06,-0.208
-2.590E-06,-0.216
-2.580E-06,-0.216
-2.570E-06,-0.216
-2.560E-06,-0.216
-2.550E-06,-0.224
-2.540E-06,-0.224
-2.530E-06,-0.224
-2.520E-06,-0.224
-2.510E-06,-0.224
-2.500E-06,-0.224
-2.490E-06,-0.232
-2.480E-06,-0.264
-2.470E-06,-0.296
-2.460E-06,-0.320
-2.450E-06,-0.328
-2.440E-06,-0.352
-2.430E-06,-0.352
-2.420E-06,-0.368
-2.410E-06,-0.376
-2.400E-06,-0.400
-2.390E-06,-0.408
-2.380E-06,-0.424
-2.370E-06,-0.432
-2.360E-06,-0.472
-2.350E-06,-0.480
-2.340E-06,-0.512
-2.330E-06,-0.504
-2.320E-06,-0.512
-2.310E-06,-0.512
-2.300E-06,-0.520
-2.290E-06,-0.536
-2.280E-06,-0.568
-2.270E-06,-0.576
-2.260E-06,-0.600
-2.250E-06,-0.616
-2.240E-06,-0.640
-2.230E-06,-0.648
-2.220E-06,-0.656
-2.210E-06,-0.680
-2.200E-06,-0.712
-2.190E-06,-0.720
-2.180E-06,-0.784
-2.170E-06,-0.808
-2.160E-06,-0.864
-2.150E-06,-0.872
-2.140E-06,-0.888
-2.130E-06,-0.896
-2.120E-06,-0.880
-2.110E-06,-0.848
-2.100E-06,-0.848
-2.090E-06,-0.776
-2.080E-06,-0.776
-2.070E-06,-0.744
-2.060E-06,-0.704
-2.050E-06,-0.720
-2.040E-06,-0.672
-2.030E-06,-0.672
-2.020E-06,-0.696
-2.010E-06,-0.656
-2.000E-06,-0.688
-1.990E-06,-0.680
-1.980E-06,-0.664
-1.970E-06,-0.624
-1.960E-06,-0.640
-1.950E-06,-0.624
-1.940E-06,-0.656
-1.930E-06,-0.624
-1.920E-06,-0.664
-1.910E-06,-0.648
-1.900E-06,-0.672
-1.890E-06,-0.640
-1.880E-06,-0.680
-1.870E-06,-0.672
-1.860E-06,-0.664
-1.850E-06,-0.736
-1.840E-06,-0.680
-1.830E-06,-0.656
-1.820E-06,-0.584
-1.810E-06,-0.520
-1.800E-06,-0.424
-1.790E-06,-0.432
-1.780E-06,-0.408
-1.770E-06,-0.432
-1.760E-06,-0.408
-1.750E-06,-0.352
-1.740E-06,-0.296
-1.730E-06,-0.368
-1.720E-06,-0.400
-1.710E-06,-0.512
-1.700E-06,-0.528
-1.690E-06,-0.504
-1.680E-06,-0.496
-1.670E-06,-0.488
-1.660E-06,-0.536
-1.650E-06,-0.672
-1.640E-06,-0.624
-1.630E-06,-0.616
-1.620E-06,-0.512
-1.610E-06,-0.424
-1.600E-06,-0.416
-1.590E-06,-0.464
-1.580E-06,-0.480
-1.570E-06,-0.480
-1.560E-06,-0.408
-1.550E-06,-0.400
-1.540E-06,-0.376
-1.530E-06,-0.392
-1.520E-06,-0.376
-1.510E-06,-0.368
-1.500E-06,-0.288
-1.490E-06,-0.224
-1.480E-06,-0.216
-1.470E-06,-0.224
-1.460E-06,-0.232
-1.450E-06,-0.264
-1.440E-06,-0.248
-1.430E-06,-0.248
-1.420E-06,-0.240
-1.410E-06,-0.240
-1.400E-06,-0.232
-1.390E-06,-0.232
-1.380E-06,-0.232
-1.370E-06,-0.240
-1.360E-06,-0.216
-1.350E-06,-0.216
-1.340E-06,-0.224
-1.330E-06,-0.224
-1.320E-06,-0.216
-1.310E-06,-0.208
-1.300E-06,-0.192
-1.290E-06,-0.208
-1.280E-06,-0.160
-1.270E-06,-0.192
-1.260E-06,-0.168
-1.250E-06,-0.256
-1.240E-06,-0.248
-1.230E-06,-0.280
-1.220E-06,-0.256
-1.210E-06,-0.272
-1.200E-06,-0.240
-1.190E-06,-0.280
-1.180E-06,-0.296
-1.170E-06,-0.328
-1.160E-06,-0.352
-1.150E-06,-0.344
-1.140E-06,-0.360
-1.130E-06,-0.376
-1.120E-06,-0.416
-1.110E-06,-0.464
-1.100E-06,-0.480
-1.090E-06,-0.496
-1.080E-06,-0.512
-1.070E-06,-0.536
-1.060E-06,-0.576
-1.050E-06,-0.616
-1.040E-06,-0.624
-1.030E-06,-0.656
-1.020E-06,-0.664
-1.010E-06,-0.664
-1.000E-06,-0.632
-9.900E-07,-0.640
-9.800E-07,-0.640
-9.700E-07,-0.648
-9.600E-07,-0.632
-9.500E-07,-0.608
-9.400E-07,-0.592
-9.300E-07,-0.600
-9.200E-07,-0.608
-9.100E-07,-0.640
-9.000E-07,-0.640
-8.900E-07,-0.592
-8.800E-07,-0.600
-8.700E-07,-0.520
-8.600E-07,-0.560
-8.500E-07,-0.552
-8.400E-07,-0.640
-8.300E-07,-0.528
-8.200E-07,-0.728
-8.100E-07,-0.544
-8.000E-07,-0.728
-7.900E-07,-0.608
-7.800E-07,-0.704
-7.700E-07,-0.640
-7.600E-07,-0.736
-7.500E-07,-0.696
-7.400E-07,-0.800
-7.300E-07,-0.800
-7.200E-07,-0.848
-7.100E-07,-0.848
-7.000E-07,-0.856
-6.900E-07,-0.848
-6.800E-07,-0.952
-6.700E-07,-0.912
-6.600E-07,-1.032
-6.500E-07,-1.032
-6.400E-07,-1.040
-6.300E-07,-1.032
-6.200E-07,-1.032
-6.100E-07,-1.040
-6.000E-07,-1.048
-5.900E-07,-1.032
-5.800E-07,-1.040
-5.700E-07,-1.040
-5.600E-07,-1.048
-5.500E-07,-1.040
-5.400E-07,-1.032
-5.300E-07,-1.032
-5.200E-07,-1.040
-5.100E-07,-1.032
-5.000E-07,-1.040
-4.900E-07,-1.048
-4.800E-07,-1.040
-4.700E-07,-1.032
-4.600E-07,-1.040
-4.500E-07,-1.040
-4.400E-07,-1.040
-4.300E-07,-1.048
-4.200E-07,-1.040
-4.100E-07,-1.032
-4.000E-07,-1.040
-3.900E-07,-1.048
-3.800E-07,-1.040
-3.700E-07,-1.040
-3.600E-07,-1.040
-3.500E-07,-1.040
-3.400E-07,-1.048
-3.300E-07,-1.040
-3.200E-07,-1.032
-3.100E-07,-1.032
-3.000E-07,-1.040
-2.900E-07,-1.032
-2.800E-07,-1.040
-2.700E-07,-1.048
-2.600E-07,-1.040
-2.500E-07,-1.032
-2.400E-07,-1.040
-2.300E-07,-1.040
-2.200E-07,-1.048
-2.100E-07,-1.040
-2.000E-07,-1.048
-1.900E-07,-1.032
-1.800E-07,-1.040
-1.700E-07,-1.048
-1.600E-07,-1.040
-1.500E-07,-1.032
-1.400E-07,-1.040
-1.300E-07,-1.048
-1.200E-07,-1.048
-1.100E-07,-1.048
-1.000E-07,-1.048
-9.000E-08,-1.048
-8.000E-08,-1.032
-7.000E-08,-1.040
-6.000E-08,-1.048
-5.000E-08,-1.040
-4.000E-08,-0.112
-3.000E-08,1.072
-2.000E-08,1.080
-1.000E-08,1.080
0.000E+00,1.088
1.000E-08,0.536
2.000E-08,0.832
3.000E-08,0.296
4.000E-08,-0.024
5.000E-08,-1.048
6.000E-08,-1.032
7.000E-08,-1.032
8.000E-08,-1.040
9.000E-08,-1.040
1.000E-07,-1.040
1.100E-07,-1.040
1.200E-07,-1.048
1.300E-07,-1.040
1.400E-07,-1.032
1.500E-07,-1.032
1.600E-07,-1.040
1.700E-07,-1.032
1.800E-07,-1.032
1.900E-07,-1.040
2.000E-07,-1.040
2.100E-07,-1.040
2.200E-07,-1.040
2.300E-07,-1.040
2.400E-07,-1.048
2.500E-07,-1.040
2.600E-07,-1.048
2.700E-07,-1.032
2.800E-07,-1.040
2.900E-07,-1.040
3.000E-07,-1.048
3.100E-07,-1.040
3.200E-07,-1.040
3.300E-07,-1.040
3.400E-07,-1.048
3.500E-07,-1.040
3.600E-07,-1.048
3.700E-07,-1.032
3.800E-07,-1.040
3.900E-07,-1.040
4.000E-07,-1.040
4.100E-07,-1.040
4.200E-07,-1.048
4.300E-07,-1.040
4.400E-07,-1.048
4.500E-07,-1.048
4.600E-07,-1.032
4.700E-07,-1.040
4.800E-07,-1.040
4.900E-07,-1.040
5.000E-07,-1.040
5.100E-07,-1.048
5.200E-07,-1.040
5.300E-07,-1.048
5.400E-07,-1.048
5.500E-07,-1.032
5.600E-07,-1.032
5.700E-07,-1.040
5.800E-07,-1.032
5.900E-07,-1.040
6.000E-07,-1.032
6.100E-07,-1.040
6.200E-07,-1.048
6.300E-07,-1.048
6.400E-07,-1.032
6.500E-07,-1.032
6.600E-07,-1.040
6.700E-07,-1.040
6.800E-07,-1.040
6.900E-07,-1.048
7.000E-07,-1.040
7.100E-07,-1.040
7.200E-07,-1.048
7.300E-07,-1.040
7.400E-07,-1.040
7.500E-07,-1.040
7.600E-07,-1.040
7.700E-07,-1.040
7.800E-07,-1.040
7.900E-07,-1.040
8.000E-07,-1.048
8.100E-07,-1.040
8.200E-07,-1.048
8.300E-07,-1.032
8.400E-07,-1.040
8.500E-07,-1.040
8.600E-07,-1.048
8.700E-07,-1.040
8.800E-07,-1.032
8.900E-07,-1.040
9.000E-07,-1.040
9.100E-07,-1.048
9.200E-07,-1.040
9.300E-07,-1.032
9.400E-07,-1.040
9.500E-07,-1.040
9.600E-07,-1.040
9.700E-07,-1.040
9.800E-07,-1.048
9.900E-07,-1.040
1.000E-06,-1.032
1.010E-06,-1.040
1.020E-06,-1.048
1.030E-06,-1.048
1.040E-06,-1.032
1.050E-06,-1.040
1.060E-06,-1.048
1.070E-06,-1.040
1.080E-06,-1.048
1.090E-06,-1.048
1.100E-06,-1.032
1.110E-06,-1.040
1.120E-06,-1.040
1.130E-06,-1.040
1.140E-06,-1.040
1.150E-06,-1.040
1.160E-06,-1.048
1.170E-06,-1.040
1.180E-06,-1.032
1.190E-06,-1.032
1.200E-06,-1.040
1.210E-06,-1.032
1.220E-06,-1.032
1.230E-06,-1.040
1.240E-06,-1.032
1.250E-06,-1.040
1.260E-06,-1.032
1.270E-06,-1.032
1.280E-06,-1.040
1.290E-06,-1.048
1.300E-06,-1.048
1.310E-06,-1.032
1.320E-06,-1.040
1.330E-06,-1.040
1.340E-06,-1.048
1.350E-06,-1.040
1.360E-06,-1.048
1.370E-06,-1.048
1.380E-06,-1.032
1.390E-06,-1.040
1.400E-06,-1.048
1.410E-06,-1.040
1.420E-06,-1.040
1.430E-06,-1.048
1.440E-06,-1.040
1.450E-06,-1.040
1.460E-06,-1.040
1.470E-06,-1.040
1.480E-06,-1.048
1.490E-06,-1.040
1.500E-06,-1.032
1.510E-06,-1.040
1.520E-06,-1.048
1.530E-06,-1.032
1.540E-06,-1.032
1.550E-06,-0.928
1.560E-06,-0.856
1.570E-06,-0.776
1.580E-06,-0.688
1.590E-06,-0.576
1.600E-06,-0.480
1.610E-06,-0.392
1.620E-06,-0.328
1.630E-06,-0.280
1.640E-06,-0.200
1.650E-06,-0.096
1.660E-06,0.000
1.670E-06,0.104
1.680E-06,0.136
1.690E-06,0.088
1.700E-06,0.000
1.710E-06,-0.112
1.720E-06,-0.240
1.730E-06,-0.344
1.740E-06,-0.448
1.750E-06,-0.496
1.760E-06,-0.536
1.770E-06,-0.552
1.780E-06,-0.568
1.790E-06,-0.592
1.800E-06,-0.584
1.810E-06,-0.464
1.820E-06,-0.456
1.830E-06,-0.272
1.840E-06,-0.296
1.850E-06,-0.216
1.860E-06,-0.304
1.870E-06,-0.384
1.880E-06,-0.584
1.890E-06,-0.760
1.900E-06,-0.992
1.910E-06,-1.040
1.920E-06,-1.040
1.930E-06,-1.040
1.940E-06,-1.040
1.950E-06,-1.040
1.960E-06,-1.040
1.970E-06,-1.040
1.980E-06,-1.048
1.990E-06,-1.040
2.000E-06,-1.040
2.010E-06,-1.040
2.020E-06,-1.048
2.030E-06,-1.040
2.040E-06,-1.048
2.050E-06,-1.032
2.060E-06,-1.032
2.070E-06,-1.040
2.080E-06,-1.040
2.090E-06,-1.048
2.100E-06,-1.040
2.110E-06,-1.032
2.120E-06,-1.040
2.130E-06,-1.048
2.140E-06,-1.032
2.150E-06,-1.040
2.160E-06,-1.040
2.170E-06,-1.048
2.180E-06,-1.040
2.190E-06,-1.040
2.200E-06,-1.048
2.210E-06,-1.040
2.220E-06,-1.032
2.230E-06,-1.040
2.240E-06,-1.040
2.250E-06,-1.048
2.260E-06,-1.040
2.270E-06,-1.040
2.280E-06,-1.040
2.290E-06,-1.048
2.300E-06,-1.040
2.310E-06,-1.032
2.320E-06,-1.040
2.330E-06,-1.048
2.340E-06,-1.040
2.350E-06,-1.048
2.360E-06,-1.048
2.370E-06,-1.032
2.380E-06,-1.040
2.390E-06,-1.048
2.400E-06,-1.040
2.410E-06,-1.016
2.420E-06,-0.968
2.430E-06,-0.904
2.440E-06,-0.840
2.450E-06,-0.760
2.460E-06,-0.712
2.470E-06,-0.632
2.480E-06,-0.552
2.490E-06,-0.480
2.500E-06,-0.392
2.510E-06,-0.264
2.520E-06,-0.176
2.530E-06,-0.104
2.540E-06,-0.064
2.550E-06,-0.016
2.560E-06,0.000
2.570E-06,0.040
2.580E-06,0.064
2.590E-06,0.088
2.600E-06,0.112
2.610E-06,0.136
2.620E-06,0.176
2.630E-06,0.200
2.640E-06,0.224
2.650E-06,0.240
2.660E-06,0.248
2.670E-06,0.256
2.680E-06,0.264
2.690E-06,0.256
2.700E-06,0.240
2.710E-06,0.192
2.720E-06,0.168
2.730E-06,0.112
2.740E-06,0.040
2.750E-06,0.016
2.760E-06,-0.064
2.770E-06,-0.064
2.780E-06,-0.128
2.790E-06,-0.128
2.800E-06,-0.176
2.810E-06,-0.152
2.820E-06,-0.200
2.830E-06,-0.160
2.840E-06,-0.160
2.850E-06,-0.136
2.860E-06,-0.096
2.870E-06,-0.048
2.880E-06,0.000
2.890E-06,0.056
2.900E-06,0.104
2.910E-06,0.176
2.920E-06,0.224
2.930E-06,0.296
2.940E-06,0.344
2.950E-06,0.392
2.960E-06,0.432
2.970E-06,0.432
2.980E-06,0.464
2.990E-06,0.464
3.000E-06,0.472
3.010E-06,0.472
3.020E-06,0.432
3.030E-06,0.424
3.040E-06,0.400
3.050E-06,0.376
3.060E-06,0.360
3.070E-06,0.344
3.080E-06,0.328
