mediciones/5-15/12.6/WaveData4765.csv

#timebase=2000000(ps)
,#voltbase=2000000(mv/100)
#size=4000
-8.400E-06,0.080
-8.390E-06,0.080
-8.380E-06,0.000
-8.370E-06,0.080
-8.360E-06,-0.080
-8.350E-06,0.080
-8.340E-06,0.080
-8.330E-06,0.000
-8.320E-06,0.080
-8.310E-06,0.160
-8.300E-06,0.160
-8.290E-06,0.160
-8.280E-06,0.000
-8.270E-06,0.000
-8.260E-06,0.080
-8.250E-06,0.000
-8.240E-06,0.080
-8.230E-06,0.160
-8.220E-06,0.160
-8.210E-06,0.160
-8.200E-06,0.160
-8.190E-06,0.160
-8.180E-06,0.160
-8.170E-06,0.160
-8.160E-06,0.160
-8.150E-06,0.000
-8.140E-06,0.080
-8.130E-06,0.080
-8.120E-06,0.080
-8.110E-06,0.000
-8.100E-06,0.080
-8.090E-06,0.000
-8.080E-06,0.080
-8.070E-06,0.080
-8.060E-06,0.000
-8.050E-06,0.080
-8.040E-06,0.080
-8.030E-06,0.080
-8.020E-06,0.000
-8.010E-06,0.000
-8.000E-06,0.080
-7.990E-06,0.000
-7.980E-06,0.080
-7.970E-06,0.000
-7.960E-06,0.000
-7.950E-06,0.080
-7.940E-06,0.160
-7.930E-06,0.160
-7.920E-06,0.160
-7.910E-06,0.160
-7.900E-06,0.160
-7.890E-06,0.160
-7.880E-06,0.160
-7.870E-06,0.080
-7.860E-06,0.160
-7.850E-06,0.000
-7.840E-06,0.080
-7.830E-06,0.080
-7.820E-06,0.080
-7.810E-06,0.000
-7.800E-06,0.080
-7.790E-06,0.080
-7.780E-06,0.080
-7.770E-06,0.080
-7.760E-06,0.080
-7.750E-06,0.080
-7.740E-06,0.080
-7.730E-06,0.080
-7.720E-06,0.160
-7.710E-06,0.160
-7.700E-06,0.080
-7.690E-06,0.160
-7.680E-06,0.160
-7.670E-06,0.000
-7.660E-06,0.080
-7.650E-06,0.000
-7.640E-06,0.080
-7.630E-06,0.000
-7.620E-06,0.000
-7.610E-06,0.000
-7.600E-06,0.000
-7.590E-06,0.080
-7.580E-06,-0.080
-7.570E-06,0.080
-7.560E-06,0.080
-7.550E-06,0.080
-7.540E-06,0.080
-7.530E-06,0.080
-7.520E-06,0.160
-7.510E-06,-0.080
-7.500E-06,-0.080
-7.490E-06,0.000
-7.480E-06,0.080
-7.470E-06,0.080
-7.460E-06,0.000
-7.450E-06,0.080
-7.440E-06,0.080
-7.430E-06,0.080
-7.420E-06,0.080
-7.410E-06,0.080
-7.400E-06,0.160
-7.390E-06,-0.080
-7.380E-06,0.080
-7.370E-06,0.080
-7.360E-06,0.000
-7.350E-06,0.080
-7.340E-06,0.000
-7.330E-06,0.160
-7.320E-06,-0.080
-7.310E-06,0.000
-7.300E-06,0.080
-7.290E-06,0.160
-7.280E-06,-0.080
-7.270E-06,0.000
-7.260E-06,0.080
-7.250E-06,0.000
-7.240E-06,0.080
-7.230E-06,0.000
-7.220E-06,0.000
-7.210E-06,0.080
-7.200E-06,0.080
-7.190E-06,0.000
-7.180E-06,0.080
-7.170E-06,0.160
-7.160E-06,0.080
-7.150E-06,0.000
-7.140E-06,0.000
-7.130E-06,0.080
-7.120E-06,0.000
-7.110E-06,0.080
-7.100E-06,0.080
-7.090E-06,0.080
-7.080E-06,0.080
-7.070E-06,0.080
-7.060E-06,0.160
-7.050E-06,0.160
-7.040E-06,0.160
-7.030E-06,-0.080
-7.020E-06,0.080
-7.010E-06,0.080
-7.000E-06,0.080
-6.990E-06,0.080
-6.980E-06,0.080
-6.970E-06,0.000
-6.960E-06,0.080
-6.950E-06,0.080
-6.940E-06,0.000
-6.930E-06,0.080
-6.920E-06,0.000
-6.910E-06,0.000
-6.900E-06,0.000
-6.890E-06,0.000
-6.880E-06,0.000
-6.870E-06,0.080
-6.860E-06,0.080
-6.850E-06,0.080
-6.840E-06,0.000
-6.830E-06,0.080
-6.820E-06,0.080
-6.810E-06,0.000
-6.800E-06,0.080
-6.790E-06,0.080
-6.780E-06,0.080
-6.770E-06,0.000
-6.760E-06,0.000
-6.750E-06,-0.080
-6.740E-06,0.080
-6.730E-06,0.000
-6.720E-06,0.080
-6.710E-06,0.160
-6.700E-06,0.000
-6.690E-06,0.000
-6.680E-06,0.080
-6.670E-06,0.080
-6.660E-06,0.160
-6.650E-06,0.160
-6.640E-06,0.160
-6.630E-06,0.160
-6.620E-06,0.160
-6.610E-06,0.160
-6.600E-06,0.000
-6.590E-06,-0.080
-6.580E-06,0.080
-6.570E-06,0.000
-6.560E-06,0.080
-6.550E-06,0.000
-6.540E-06,0.080
-6.530E-06,0.160
-6.520E-06,0.000
-6.510E-06,0.000
-6.500E-06,0.080
-6.490E-06,0.080
-6.480E-06,0.000
-6.470E-06,0.080
-6.460E-06,0.080
-6.450E-06,0.080
-6.440E-06,0.080
-6.430E-06,0.000
-6.420E-06,0.000
-6.410E-06,-0.080
-6.400E-06,0.080
-6.390E-06,0.080
-6.380E-06,0.080
-6.370E-06,0.080
-6.360E-06,0.080
-6.350E-06,-0.080
-6.340E-06,0.080
-6.330E-06,0.080
-6.320E-06,0.080
-6.310E-06,0.080
-6.300E-06,0.080
-6.290E-06,0.080
-6.280E-06,0.160
-6.270E-06,0.000
-6.260E-06,0.000
-6.250E-06,0.080
-6.240E-06,0.000
-6.230E-06,0.080
-6.220E-06,0.000
-6.210E-06,0.080
-6.200E-06,0.160
-6.190E-06,0.160
-6.180E-06,0.160
-6.170E-06,0.000
-6.160E-06,0.080
-6.150E-06,0.000
-6.140E-06,0.080
-6.130E-06,0.000
-6.120E-06,0.080
-6.110E-06,0.080
-6.100E-06,0.080
-6.090E-06,0.080
-6.080E-06,0.080
-6.070E-06,0.000
-6.060E-06,0.080
-6.050E-06,0.160
-6.040E-06,0.080
-6.030E-06,0.160
-6.020E-06,0.160
-6.010E-06,0.160
-6.000E-06,0.080
-5.990E-06,0.160
-5.980E-06,0.000
-5.970E-06,0.080
-5.960E-06,0.080
-5.950E-06,0.080
-5.940E-06,0.080
-5.930E-06,0.160
-5.920E-06,0.160
-5.910E-06,0.000
-5.900E-06,0.080
-5.890E-06,0.000
-5.880E-06,0.000
-5.870E-06,0.080
-5.860E-06,0.080
-5.850E-06,0.000
-5.840E-06,0.080
-5.830E-06,0.080
-5.820E-06,0.080
-5.810E-06,0.080
-5.800E-06,0.080
-5.790E-06,0.000
-5.780E-06,0.080
-5.770E-06,0.000
-5.760E-06,0.080
-5.750E-06,0.000
-5.740E-06,0.080
-5.730E-06,0.000
-5.720E-06,0.000
-5.710E-06,0.080
-5.700E-06,0.000
-5.690E-06,0.080
-5.680E-06,0.080
-5.670E-06,0.080
-5.660E-06,0.080
-5.650E-06,0.080
-5.640E-06,0.080
-5.630E-06,0.080
-5.620E-06,0.080
-5.610E-06,0.000
-5.600E-06,0.000
-5.590E-06,0.080
-5.580E-06,0.080
-5.570E-06,0.080
-5.560E-06,0.000
-5.550E-06,0.000
-5.540E-06,0.000
-5.530E-06,0.160
-5.520E-06,0.160
-5.510E-06,-0.080
-5.500E-06,0.000
-5.490E-06,0.080
-5.480E-06,0.000
-5.470E-06,0.080
-5.460E-06,0.080
-5.450E-06,0.080
-5.440E-06,0.080
-5.430E-06,0.000
-5.420E-06,0.000
-5.410E-06,0.080
-5.400E-06,0.080
-5.390E-06,0.080
-5.380E-06,0.080
-5.370E-06,0.080
-5.360E-06,0.080
-5.350E-06,0.000
-5.340E-06,0.080
-5.330E-06,0.160
-5.320E-06,0.000
-5.310E-06,-0.080
-5.300E-06,0.000
-5.290E-06,0.000
-5.280E-06,0.000
-5.270E-06,0.080
-5.260E-06,0.080
-5.250E-06,0.080
-5.240E-06,0.080
-5.230E-06,0.080
-5.220E-06,0.080
-5.210E-06,0.080
-5.200E-06,0.080
-5.190E-06,0.160
-5.180E-06,0.000
-5.170E-06,0.000
-5.160E-06,0.080
-5.150E-06,0.160
-5.140E-06,0.080
-5.130E-06,0.000
-5.120E-06,0.080
-5.110E-06,0.000
-5.100E-06,0.080
-5.090E-06,0.080
-5.080E-06,0.000
-5.070E-06,0.080
-5.060E-06,0.000
-5.050E-06,0.080
-5.040E-06,0.160
-5.030E-06,0.000
-5.020E-06,0.080
-5.010E-06,0.000
-5.000E-06,0.080
-4.990E-06,0.000
-4.980E-06,0.080
-4.970E-06,0.080
-4.960E-06,0.080
-4.950E-06,0.080
-4.940E-06,0.080
-4.930E-06,0.080
-4.920E-06,0.080
-4.910E-06,0.080
-4.900E-06,0.080
-4.890E-06,0.080
-4.880E-06,0.000
-4.870E-06,0.000
-4.860E-06,0.080
-4.850E-06,0.160
-4.840E-06,0.080
-4.830E-06,0.160
-4.820E-06,0.080
-4.810E-06,0.160
-4.800E-06,0.160
-4.790E-06,0.000
-4.780E-06,-0.080
-4.770E-06,0.080
-4.760E-06,-0.080
-4.750E-06,0.080
-4.740E-06,0.000
-4.730E-06,0.080
-4.720E-06,-0.080
-4.710E-06,0.080
-4.700E-06,0.080
-4.690E-06,0.000
-4.680E-06,0.080
-4.670E-06,0.080
-4.660E-06,0.080
-4.650E-06,0.080
-4.640E-06,0.000
-4.630E-06,0.080
-4.620E-06,0.080
-4.610E-06,0.000
-4.600E-06,0.000
-4.590E-06,0.080
-4.580E-06,0.000
-4.570E-06,0.000
-4.560E-06,0.080
-4.550E-06,0.080
-4.540E-06,0.000
-4.530E-06,0.080
-4.520E-06,0.080
-4.510E-06,0.080
-4.500E-06,0.080
-4.490E-06,0.000
-4.480E-06,0.000
-4.470E-06,0.000
-4.460E-06,0.000
-4.450E-06,0.080
-4.440E-06,0.080
-4.430E-06,0.000
-4.420E-06,0.080
-4.410E-06,0.080
-4.400E-06,0.080
-4.390E-06,0.080
-4.380E-06,0.080
-4.370E-06,0.080
-4.360E-06,0.080
-4.350E-06,0.080
-4.340E-06,0.080
-4.330E-06,0.160
-4.320E-06,0.000
-4.310E-06,0.080
-4.300E-06,0.080
-4.290E-06,0.080
-4.280E-06,0.160
-4.270E-06,0.160
-4.260E-06,0.160
-4.250E-06,0.000
-4.240E-06,-0.080
-4.230E-06,0.080
-4.220E-06,0.160
-4.210E-06,0.000
-4.200E-06,0.000
-4.190E-06,0.080
-4.180E-06,0.000
-4.170E-06,0.000
-4.160E-06,0.080
-4.150E-06,0.160
-4.140E-06,0.160
-4.130E-06,-0.080
-4.120E-06,0.000
-4.110E-06,0.000
-4.100E-06,0.160
-4.090E-06,0.160
-4.080E-06,0.160
-4.070E-06,0.000
-4.060E-06,0.000
-4.050E-06,0.080
-4.040E-06,0.080
-4.030E-06,0.080
-4.020E-06,0.080
-4.010E-06,0.080
-4.000E-06,0.080
-3.990E-06,0.080
-3.980E-06,0.000
-3.970E-06,0.000
-3.960E-06,0.080
-3.950E-06,0.160
-3.940E-06,0.000
-3.930E-06,0.080
-3.920E-06,0.080
-3.910E-06,0.080
-3.900E-06,0.160
-3.890E-06,0.160
-3.880E-06,0.000
-3.870E-06,0.000
-3.860E-06,0.080
-3.850E-06,0.000
-3.840E-06,0.000
-3.830E-06,0.080
-3.820E-06,0.000
-3.810E-06,0.000
-3.800E-06,0.080
-3.790E-06,0.000
-3.780E-06,0.080
-3.770E-06,0.000
-3.760E-06,0.080
-3.750E-06,0.080
-3.740E-06,0.080
-3.730E-06,0.080
-3.720E-06,0.080
-3.710E-06,0.080
-3.700E-06,0.080
-3.690E-06,0.080
-3.680E-06,0.080
-3.670E-06,0.160
-3.660E-06,0.160
-3.650E-06,0.160
-3.640E-06,0.000
-3.630E-06,0.000
-3.620E-06,0.080
-3.610E-06,0.000
-3.600E-06,0.080
-3.590E-06,0.000
-3.580E-06,0.000
-3.570E-06,0.160
-3.560E-06,-0.080
-3.550E-06,0.000
-3.540E-06,0.080
-3.530E-06,0.160
-3.520E-06,0.000
-3.510E-06,0.080
-3.500E-06,0.000
-3.490E-06,0.080
-3.480E-06,0.080
-3.470E-06,0.080
-3.460E-06,0.000
-3.450E-06,0.000
-3.440E-06,0.000
-3.430E-06,0.080
-3.420E-06,0.080
-3.410E-06,0.080
-3.400E-06,0.000
-3.390E-06,-0.080
-3.380E-06,0.000
-3.370E-06,-0.080
-3.360E-06,-0.560
-3.350E-06,-1.440
-3.340E-06,-2.640
-3.330E-06,-3.840
-3.320E-06,-4.800
-3.310E-06,-5.200
-3.300E-06,-5.120
-3.290E-06,-4.400
-3.280E-06,-3.200
-3.270E-06,-1.600
-3.260E-06,0.000
-3.250E-06,1.680
-3.240E-06,3.280
-3.230E-06,4.240
-3.220E-06,4.800
-3.210E-06,4.880
-3.200E-06,4.640
-3.190E-06,4.000
-3.180E-06,3.440
-3.170E-06,3.040
-3.160E-06,2.480
-3.150E-06,2.240
-3.140E-06,1.840
-3.130E-06,1.680
-3.120E-06,1.680
-3.110E-06,1.600
-3.100E-06,1.520
-3.090E-06,1.200
-3.080E-06,0.720
-3.070E-06,0.000
-3.060E-06,-0.720
-3.050E-06,-1.600
-3.040E-06,-2.240
-3.030E-06,-2.800
-3.020E-06,-3.200
-3.010E-06,-3.440
-3.000E-06,-3.360
-2.990E-06,-3.200
-2.980E-06,-2.640
-2.970E-06,-2.160
-2.960E-06,-1.200
-2.950E-06,-0.560
-2.940E-06,0.000
-2.930E-06,0.640
-2.920E-06,1.040
-2.910E-06,1.360
-2.900E-06,1.360
-2.890E-06,1.360
-2.880E-06,1.040
-2.870E-06,0.480
-2.860E-06,0.160
-2.850E-06,-0.080
-2.840E-06,-0.320
-2.830E-06,-0.560
-2.820E-06,-0.640
-2.810E-06,-0.480
-2.800E-06,-0.400
-2.790E-06,-0.320
-2.780E-06,-0.160
-2.770E-06,-0.080
-2.760E-06,0.080
-2.750E-06,0.160
-2.740E-06,-0.080
-2.730E-06,0.000
-2.720E-06,0.000
-2.710E-06,0.000
-2.700E-06,0.000
-2.690E-06,0.000
-2.680E-06,0.160
-2.670E-06,0.240
-2.660E-06,0.240
-2.650E-06,0.400
-2.640E-06,0.640
-2.630E-06,0.880
-2.620E-06,1.040
-2.610E-06,1.040
-2.600E-06,1.280
-2.590E-06,1.200
-2.580E-06,1.120
-2.570E-06,1.040
-2.560E-06,0.640
-2.550E-06,0.400
-2.540E-06,0.000
-2.530E-06,-0.160
-2.520E-06,-0.480
-2.510E-06,-0.640
-2.500E-06,-0.880
-2.490E-06,-0.960
-2.480E-06,-0.960
-2.470E-06,-0.720
-2.460E-06,-0.640
-2.450E-06,-0.320
-2.440E-06,0.000
-2.430E-06,0.000
-2.420E-06,0.080
-2.410E-06,0.160
-2.400E-06,0.080
-2.390E-06,0.000
-2.380E-06,-0.080
-2.370E-06,-0.240
-2.360E-06,-0.320
-2.350E-06,-0.320
-2.340E-06,-0.160
-2.330E-06,-0.320
-2.320E-06,-0.240
-2.310E-06,-0.080
-2.300E-06,-0.160
-2.290E-06,0.080
-2.280E-06,-0.240
-2.270E-06,0.240
-2.260E-06,0.240
-2.250E-06,0.320
-2.240E-06,0.320
-2.230E-06,0.160
-2.220E-06,-0.160
-2.210E-06,-0.400
-2.200E-06,-0.720
-2.190E-06,-0.240
-2.180E-06,-0.640
-2.170E-06,-0.240
-2.160E-06,-0.560
-2.150E-06,-0.560
-2.140E-06,-0.400
-2.130E-06,-0.080
-2.120E-06,-0.080
-2.110E-06,0.160
-2.100E-06,-0.080
-2.090E-06,-0.080
-2.080E-06,0.000
-2.070E-06,0.000
-2.060E-06,0.000
-2.050E-06,0.000
-2.040E-06,-0.080
-2.030E-06,-0.240
-2.020E-06,-0.400
-2.010E-06,-0.480
-2.000E-06,-0.400
-1.990E-06,-0.320
-1.980E-06,-0.400
-1.970E-06,-0.640
-1.960E-06,-0.720
-1.950E-06,-0.800
-1.940E-06,-0.880
-1.930E-06,-1.120
-1.920E-06,-1.200
-1.910E-06,-1.520
-1.900E-06,-1.600
-1.890E-06,-1.600
-1.880E-06,-0.880
-1.870E-06,-0.960
-1.860E-06,-0.640
-1.850E-06,-0.720
-1.840E-06,-0.960
-1.830E-06,-0.800
-1.820E-06,-0.880
-1.810E-06,-0.880
-1.800E-06,-0.720
-1.790E-06,-1.040
-1.780E-06,-0.960
-1.770E-06,-0.800
-1.760E-06,-0.720
-1.750E-06,-0.480
-1.740E-06,-0.480
-1.730E-06,-0.480
-1.720E-06,-0.240
-1.710E-06,-0.160
-1.700E-06,0.000
-1.690E-06,0.000
-1.680E-06,0.160
-1.670E-06,0.080
-1.660E-06,0.160
-1.650E-06,0.240
-1.640E-06,0.080
-1.630E-06,0.000
-1.620E-06,-0.080
-1.610E-06,0.000
-1.600E-06,0.000
-1.590E-06,0.000
-1.580E-06,-0.240
-1.570E-06,-0.080
-1.560E-06,-0.160
-1.550E-06,-0.320
-1.540E-06,-0.320
-1.530E-06,-0.400
-1.520E-06,-0.480
-1.510E-06,-0.480
-1.500E-06,-0.480
-1.490E-06,-0.400
-1.480E-06,-0.240
-1.470E-06,0.080
-1.460E-06,0.240
-1.450E-06,0.400
-1.440E-06,0.480
-1.430E-06,0.320
-1.420E-06,0.160
-1.410E-06,0.080
-1.400E-06,0.000
-1.390E-06,-0.160
-1.380E-06,-0.400
-1.370E-06,-0.640
-1.360E-06,-0.640
-1.350E-06,-0.720
-1.340E-06,-1.040
-1.330E-06,-1.040
-1.320E-06,-1.280
-1.310E-06,-1.440
-1.300E-06,-1.360
-1.290E-06,-1.360
-1.280E-06,-1.440
-1.270E-06,-1.520
-1.260E-06,-1.360
-1.250E-06,-1.360
-1.240E-06,-1.280
-1.230E-06,-1.120
-1.220E-06,-1.040
-1.210E-06,-0.720
-1.200E-06,-0.560
-1.190E-06,-0.400
-1.180E-06,-0.320
-1.170E-06,-0.240
-1.160E-06,-0.160
-1.150E-06,-0.160
-1.140E-06,-0.240
-1.130E-06,-0.240
-1.120E-06,-0.400
-1.110E-06,-0.480
-1.100E-06,-0.560
-1.090E-06,-0.640
-1.080E-06,-0.800
-1.070E-06,-0.960
-1.060E-06,-1.040
-1.050E-06,-1.040
-1.040E-06,-1.200
-1.030E-06,-1.360
-1.020E-06,-1.360
-1.010E-06,-1.200
-1.000E-06,-1.200
-9.900E-07,-1.280
-9.800E-07,-1.120
-9.700E-07,-1.120
-9.600E-07,-1.120
-9.500E-07,-1.200
-9.400E-07,-1.200
-9.300E-07,-1.120
-9.200E-07,-1.120
-9.100E-07,-1.200
-9.000E-07,-1.280
-8.900E-07,-1.440
-8.800E-07,-1.680
-8.700E-07,-1.760
-8.600E-07,-2.080
-8.500E-07,-2.160
-8.400E-07,-2.480
-8.300E-07,-2.720
-8.200E-07,-2.880
-8.100E-07,-3.200
-8.000E-07,-3.440
-7.900E-07,-3.440
-7.800E-07,-3.600
-7.700E-07,-3.760
-7.600E-07,-3.680
-7.500E-07,-3.840
-7.400E-07,-3.680
-7.300E-07,-3.680
-7.200E-07,-3.440
-7.100E-07,-3.360
-7.000E-07,-3.040
-6.900E-07,-2.640
-6.800E-07,-2.160
-6.700E-07,-1.680
-6.600E-07,-1.360
-6.500E-07,-0.960
-6.400E-07,-0.800
-6.300E-07,-0.720
-6.200E-07,-0.720
-6.100E-07,-0.960
-6.000E-07,-1.200
-5.900E-07,-1.280
-5.800E-07,-1.520
-5.700E-07,-1.840
-5.600E-07,-2.080
-5.500E-07,-2.320
-5.400E-07,-2.240
-5.300E-07,-2.240
-5.200E-07,-2.240
-5.100E-07,-2.240
-5.000E-07,-2.160
-4.900E-07,-2.080
-4.800E-07,-2.000
-4.700E-07,-1.760
-4.600E-07,-1.520
-4.500E-07,-1.360
-4.400E-07,-1.120
-4.300E-07,-0.800
-4.200E-07,-0.640
-4.100E-07,-0.400
-4.000E-07,-0.240
-3.900E-07,0.080
-3.800E-07,0.240
-3.700E-07,0.160
-3.600E-07,0.320
-3.500E-07,0.400
-3.400E-07,0.400
-3.300E-07,0.320
-3.200E-07,0.400
-3.100E-07,0.320
-3.000E-07,0.160
-2.900E-07,-0.080
-2.800E-07,-0.080
-2.700E-07,-0.400
-2.600E-07,-0.560
-2.500E-07,-0.880
-2.400E-07,-1.040
-2.300E-07,-1.360
-2.200E-07,-1.360
-2.100E-07,-1.440
-2.000E-07,-1.360
-1.900E-07,-1.360
-1.800E-07,-1.360
-1.700E-07,-1.360
-1.600E-07,-1.200
-1.500E-07,-1.280
-1.400E-07,-1.040
-1.300E-07,-0.960
-1.200E-07,-0.880
-1.100E-07,-0.720
-1.000E-07,-0.720
-9.000E-08,-0.640
-8.000E-08,-0.720
-7.000E-08,-0.720
-6.000E-08,-0.720
-5.000E-08,-0.640
-4.000E-08,-0.240
-3.000E-08,-0.240
-2.000E-08,-0.400
-1.000E-08,-0.720
0.000E+00,-1.200
1.000E-08,-1.120
2.000E-08,-1.040
3.000E-08,-0.320
4.000E-08,-0.240
5.000E-08,0.080
6.000E-08,0.000
7.000E-08,-0.320
8.000E-08,-0.320
9.000E-08,-0.400
1.000E-07,-1.040
1.100E-07,-1.120
1.200E-07,-1.600
1.300E-07,-1.680
1.400E-07,-1.600
1.500E-07,-1.680
1.600E-07,-1.840
1.700E-07,-2.000
1.800E-07,-2.080
1.900E-07,-2.080
2.000E-07,-2.240
2.100E-07,-2.400
2.200E-07,-2.560
2.300E-07,-2.640
2.400E-07,-2.720
2.500E-07,-2.560
2.600E-07,-2.480
2.700E-07,-1.840
2.800E-07,-1.440
2.900E-07,-0.720
3.000E-07,-1.040
3.100E-07,-1.040
3.200E-07,-1.040
3.300E-07,-1.040
3.400E-07,-0.560
3.500E-07,-0.480
3.600E-07,-0.480
3.700E-07,-0.720
3.800E-07,-1.040
3.900E-07,-1.200
4.000E-07,-1.120
4.100E-07,-1.120
4.200E-07,-0.800
4.300E-07,-0.480
4.400E-07,-0.800
4.500E-07,-0.880
4.600E-07,-1.120
4.700E-07,-1.520
4.800E-07,-1.360
4.900E-07,-1.280
5.000E-07,-1.200
5.100E-07,-1.120
5.200E-07,-0.960
5.300E-07,-0.880
5.400E-07,-0.960
5.500E-07,-0.960
5.600E-07,-1.040
5.700E-07,-1.120
5.800E-07,-1.120
5.900E-07,-1.120
6.000E-07,-1.040
6.100E-07,-1.280
6.200E-07,-1.360
6.300E-07,-1.280
6.400E-07,-0.800
6.500E-07,-0.480
6.600E-07,0.160
6.700E-07,0.560
6.800E-07,0.960
6.900E-07,1.200
7.000E-07,1.200
7.100E-07,1.280
7.200E-07,1.040
7.300E-07,0.560
7.400E-07,0.080
7.500E-07,-0.240
7.600E-07,-0.480
7.700E-07,-0.720
7.800E-07,-0.960
7.900E-07,-0.960
8.000E-07,-0.960
8.100E-07,-0.800
8.200E-07,-0.960
8.300E-07,-0.960
8.400E-07,-1.120
8.500E-07,-1.040
8.600E-07,-1.200
8.700E-07,-1.200
8.800E-07,-1.200
8.900E-07,-1.200
9.000E-07,-1.360
9.100E-07,-1.440
9.200E-07,-1.600
9.300E-07,-1.840
9.400E-07,-1.920
9.500E-07,-1.840
9.600E-07,-1.680
9.700E-07,-1.760
9.800E-07,-1.440
9.900E-07,-1.280
1.000E-06,-0.960
1.010E-06,-0.880
1.020E-06,-0.560
1.030E-06,-0.480
1.040E-06,-0.320
1.050E-06,-0.240
1.060E-06,0.000
1.070E-06,-0.080
1.080E-06,-0.160
1.090E-06,-0.480
1.100E-06,-0.560
1.110E-06,-0.800
1.120E-06,-1.040
1.130E-06,-1.280
1.140E-06,-1.520
1.150E-06,-1.600
1.160E-06,-1.600
1.170E-06,-1.680
1.180E-06,-1.680
1.190E-06,-1.600
1.200E-06,-1.680
1.210E-06,-1.600
1.220E-06,-1.600
1.230E-06,-1.680
1.240E-06,-1.840
1.250E-06,-1.920
1.260E-06,-2.160
1.270E-06,-2.400
1.280E-06,-2.240
1.290E-06,-2.160
1.300E-06,-2.080
1.310E-06,-1.600
1.320E-06,-1.520
1.330E-06,-1.680
1.340E-06,-2.000
1.350E-06,-2.560
1.360E-06,-2.720
1.370E-06,-2.480
1.380E-06,-2.160
1.390E-06,-2.080
1.400E-06,-1.200
1.410E-06,-0.080
1.420E-06,-0.080
1.430E-06,1.200
1.440E-06,-0.080
1.450E-06,-0.240
1.460E-06,-1.200
1.470E-06,-1.600
1.480E-06,-2.160
1.490E-06,-2.160
1.500E-06,-2.640
1.510E-06,-2.160
1.520E-06,-1.920
1.530E-06,-1.040
1.540E-06,-1.040
1.550E-06,-1.120
1.560E-06,-1.760
1.570E-06,-2.160
1.580E-06,-1.680
1.590E-06,-1.680
1.600E-06,-1.600
1.610E-06,-1.680
1.620E-06,-1.680
1.630E-06,-1.200
1.640E-06,-0.960
1.650E-06,-0.960
1.660E-06,-0.960
1.670E-06,-1.360
1.680E-06,-1.200
1.690E-06,-1.200
1.700E-06,-1.040
1.710E-06,-1.040
1.720E-06,-1.040
1.730E-06,-1.120
1.740E-06,-1.040
1.750E-06,-1.040
1.760E-06,-1.200
1.770E-06,-1.200
1.780E-06,-1.280
1.790E-06,-1.360
1.800E-06,-1.200
1.810E-06,-1.200
1.820E-06,-1.440
1.830E-06,-1.200
1.840E-06,-1.120
1.850E-06,-0.720
1.860E-06,-0.560
1.870E-06,-0.240
1.880E-06,-0.160
1.890E-06,-0.080
1.900E-06,-0.080
1.910E-06,0.000
1.920E-06,0.160
1.930E-06,0.080
1.940E-06,0.160
1.950E-06,0.160
1.960E-06,0.240
1.970E-06,0.480
1.980E-06,0.560
1.990E-06,0.800
2.000E-06,1.040
2.010E-06,1.520
2.020E-06,1.520
2.030E-06,2.080
2.040E-06,1.920
2.050E-06,1.760
2.060E-06,1.360
2.070E-06,0.960
2.080E-06,0.400
2.090E-06,-0.160
2.100E-06,-0.720
2.110E-06,-1.280
2.120E-06,-1.600
2.130E-06,-1.840
2.140E-06,-2.000
2.150E-06,-2.000
2.160E-06,-1.840
2.170E-06,-1.680
2.180E-06,-1.440
2.190E-06,-1.440
2.200E-06,-1.280
2.210E-06,-1.360
2.220E-06,-1.280
2.230E-06,-1.120
2.240E-06,-1.280
2.250E-06,-1.200
2.260E-06,-1.360
2.270E-06,-1.360
2.280E-06,-1.360
2.290E-06,-1.360
2.300E-06,-1.520
2.310E-06,-1.200
2.320E-06,-1.120
2.330E-06,-0.880
2.340E-06,-0.720
2.350E-06,-0.320
2.360E-06,0.000
2.370E-06,0.400
2.380E-06,0.560
2.390E-06,0.640
2.400E-06,0.800
2.410E-06,0.800
2.420E-06,0.640
2.430E-06,0.560
2.440E-06,0.240
2.450E-06,0.000
2.460E-06,-0.400
2.470E-06,-0.640
2.480E-06,-0.960
2.490E-06,-1.200
2.500E-06,-1.280
2.510E-06,-1.360
2.520E-06,-1.440
2.530E-06,-1.280
2.540E-06,-1.040
2.550E-06,-1.280
2.560E-06,-1.520
2.570E-06,-2.000
2.580E-06,-1.840
2.590E-06,-1.520
2.600E-06,-0.240
2.610E-06,1.600
2.620E-06,2.400
2.630E-06,3.360
2.640E-06,1.760
2.650E-06,0.720
2.660E-06,-1.040
2.670E-06,-1.680
2.680E-06,-2.160
2.690E-06,-2.480
2.700E-06,-3.200
2.710E-06,-3.680
2.720E-06,-4.080
2.730E-06,-3.840
2.740E-06,-3.520
2.750E-06,-3.200
2.760E-06,-3.200
2.770E-06,-2.720
2.780E-06,-2.400
2.790E-06,-2.080
2.800E-06,-2.000
2.810E-06,-2.000
2.820E-06,-1.760
2.830E-06,-1.360
2.840E-06,-1.040
2.850E-06,-0.720
2.860E-06,-0.400
2.870E-06,-0.160
2.880E-06,-0.160
2.890E-06,-0.240
2.900E-06,-0.160
2.910E-06,-0.080
2.920E-06,0.080
2.930E-06,0.400
2.940E-06,0.560
2.950E-06,0.480
2.960E-06,0.320
2.970E-06,0.080
2.980E-06,-0.160
2.990E-06,-0.400
3.000E-06,-0.640
3.010E-06,-1.120
3.020E-06,-1.520
3.030E-06,-2.080
3.040E-06,-2.640
3.050E-06,-2.880
3.060E-06,-3.120
3.070E-06,-2.880
3.080E-06,-2.400
3.090E-06,-1.680
3.100E-06,-0.880
3.110E-06,-0.240
3.120E-06,0.400
3.130E-06,1.200
3.140E-06,1.920
3.150E-06,2.960
3.160E-06,3.120
3.170E-06,3.760
3.180E-06,3.360
3.190E-06,3.040
3.200E-06,2.080
