mediciones/5-15/12.6/WaveData4744.csv

#timebase=2000000(ps)
,#voltbase=100000(mv/100)
#size=4000
-8.400E-06,0.004
-8.390E-06,0.000
-8.380E-06,0.004
-8.370E-06,0.004
-8.360E-06,0.000
-8.350E-06,0.004
-8.340E-06,-0.004
-8.330E-06,0.004
-8.320E-06,-0.004
-8.310E-06,0.000
-8.300E-06,0.004
-8.290E-06,0.004
-8.280E-06,0.008
-8.270E-06,0.000
-8.260E-06,0.000
-8.250E-06,0.000
-8.240E-06,0.004
-8.230E-06,0.004
-8.220E-06,0.000
-8.210E-06,0.000
-8.200E-06,0.004
-8.190E-06,0.000
-8.180E-06,0.000
-8.170E-06,0.004
-8.160E-06,0.004
-8.150E-06,0.004
-8.140E-06,0.004
-8.130E-06,0.004
-8.120E-06,0.004
-8.110E-06,0.000
-8.100E-06,0.000
-8.090E-06,0.000
-8.080E-06,0.004
-8.070E-06,0.000
-8.060E-06,0.004
-8.050E-06,0.004
-8.040E-06,0.004
-8.030E-06,-0.004
-8.020E-06,0.004
-8.010E-06,0.000
-8.000E-06,0.000
-7.990E-06,0.000
-7.980E-06,-0.004
-7.970E-06,0.000
-7.960E-06,0.004
-7.950E-06,0.000
-7.940E-06,0.000
-7.930E-06,0.000
-7.920E-06,0.008
-7.910E-06,-0.004
-7.900E-06,0.000
-7.890E-06,0.004
-7.880E-06,0.000
-7.870E-06,0.004
-7.860E-06,0.004
-7.850E-06,0.000
-7.840E-06,0.004
-7.830E-06,0.004
-7.820E-06,0.000
-7.810E-06,0.004
-7.800E-06,0.000
-7.790E-06,0.008
-7.780E-06,-0.004
-7.770E-06,0.000
-7.760E-06,0.000
-7.750E-06,0.000
-7.740E-06,0.000
-7.730E-06,0.004
-7.720E-06,0.004
-7.710E-06,0.000
-7.700E-06,0.004
-7.690E-06,0.004
-7.680E-06,0.000
-7.670E-06,0.004
-7.660E-06,0.004
-7.650E-06,0.004
-7.640E-06,0.004
-7.630E-06,0.004
-7.620E-06,0.004
-7.610E-06,0.004
-7.600E-06,0.004
-7.590E-06,0.008
-7.580E-06,0.000
-7.570E-06,0.000
-7.560E-06,0.004
-7.550E-06,0.000
-7.540E-06,0.000
-7.530E-06,0.000
-7.520E-06,0.004
-7.510E-06,0.004
-7.500E-06,0.000
-7.490E-06,0.000
-7.480E-06,0.004
-7.470E-06,0.000
-7.460E-06,0.000
-7.450E-06,0.004
-7.440E-06,0.000
-7.430E-06,0.004
-7.420E-06,0.004
-7.410E-06,0.008
-7.400E-06,0.000
-7.390E-06,0.000
-7.380E-06,0.004
-7.370E-06,0.000
-7.360E-06,0.000
-7.350E-06,0.004
-7.340E-06,-0.004
-7.330E-06,0.004
-7.320E-06,0.008
-7.310E-06,-0.004
-7.300E-06,0.004
-7.290E-06,0.004
-7.280E-06,0.000
-7.270E-06,0.000
-7.260E-06,0.004
-7.250E-06,0.004
-7.240E-06,0.004
-7.230E-06,0.004
-7.220E-06,0.008
-7.210E-06,-0.004
-7.200E-06,-0.004
-7.190E-06,0.000
-7.180E-06,0.004
-7.170E-06,0.004
-7.160E-06,0.004
-7.150E-06,0.000
-7.140E-06,0.000
-7.130E-06,0.000
-7.120E-06,-0.004
-7.110E-06,0.004
-7.100E-06,0.000
-7.090E-06,0.000
-7.080E-06,0.004
-7.070E-06,0.004
-7.060E-06,0.004
-7.050E-06,0.004
-7.040E-06,0.004
-7.030E-06,0.004
-7.020E-06,0.004
-7.010E-06,0.000
-7.000E-06,0.004
-6.990E-06,0.000
-6.980E-06,0.004
-6.970E-06,0.000
-6.960E-06,0.004
-6.950E-06,0.000
-6.940E-06,0.000
-6.930E-06,0.004
-6.920E-06,0.004
-6.910E-06,0.000
-6.900E-06,0.004
-6.890E-06,0.004
-6.880E-06,0.004
-6.870E-06,0.000
-6.860E-06,0.004
-6.850E-06,0.004
-6.840E-06,0.004
-6.830E-06,0.004
-6.820E-06,0.004
-6.810E-06,0.000
-6.800E-06,0.000
-6.790E-06,0.004
-6.780E-06,0.004
-6.770E-06,0.004
-6.760E-06,0.004
-6.750E-06,0.000
-6.740E-06,0.004
-6.730E-06,0.004
-6.720E-06,-0.004
-6.710E-06,0.000
-6.700E-06,0.004
-6.690E-06,0.000
-6.680E-06,0.000
-6.670E-06,0.004
-6.660E-06,0.000
-6.650E-06,0.004
-6.640E-06,0.000
-6.630E-06,0.004
-6.620E-06,0.000
-6.610E-06,0.000
-6.600E-06,0.000
-6.590E-06,0.004
-6.580E-06,0.004
-6.570E-06,0.000
-6.560E-06,0.004
-6.550E-06,0.000
-6.540E-06,0.000
-6.530E-06,0.004
-6.520E-06,0.000
-6.510E-06,-0.004
-6.500E-06,0.000
-6.490E-06,0.000
-6.480E-06,0.000
-6.470E-06,0.000
-6.460E-06,0.000
-6.450E-06,0.004
-6.440E-06,0.004
-6.430E-06,-0.004
-6.420E-06,0.004
-6.410E-06,0.004
-6.400E-06,0.008
-6.390E-06,0.004
-6.380E-06,0.008
-6.370E-06,0.000
-6.360E-06,0.000
-6.350E-06,0.004
-6.340E-06,0.000
-6.330E-06,0.000
-6.320E-06,0.000
-6.310E-06,0.004
-6.300E-06,0.004
-6.290E-06,0.004
-6.280E-06,0.004
-6.270E-06,0.004
-6.260E-06,-0.004
-6.250E-06,0.004
-6.240E-06,0.008
-6.230E-06,0.048
-6.220E-06,0.096
-6.210E-06,0.128
-6.200E-06,0.092
-6.190E-06,-0.024
-6.180E-06,-0.156
-6.170E-06,-0.228
-6.160E-06,-0.188
-6.150E-06,0.008
-6.140E-06,0.184
-6.130E-06,0.256
-6.120E-06,0.180
-6.110E-06,0.012
-6.100E-06,-0.160
-6.090E-06,-0.184
-6.080E-06,-0.136
-6.070E-06,0.024
-6.060E-06,0.128
-6.050E-06,0.140
-6.040E-06,0.104
-6.030E-06,-0.004
-6.020E-06,-0.084
-6.010E-06,-0.100
-6.000E-06,-0.084
-5.990E-06,-0.036
-5.980E-06,0.024
-5.970E-06,0.068
-5.960E-06,0.096
-5.950E-06,0.076
-5.940E-06,0.020
-5.930E-06,-0.028
-5.920E-06,-0.076
-5.910E-06,-0.076
-5.900E-06,-0.028
-5.890E-06,0.032
-5.880E-06,0.088
-5.870E-06,0.088
-5.860E-06,0.024
-5.850E-06,-0.040
-5.840E-06,-0.092
-5.830E-06,-0.100
-5.820E-06,-0.044
-5.810E-06,0.020
-5.800E-06,0.072
-5.790E-06,0.088
-5.780E-06,0.056
-5.770E-06,0.008
-5.760E-06,-0.036
-5.750E-06,-0.040
-5.740E-06,-0.028
-5.730E-06,0.000
-5.720E-06,0.032
-5.710E-06,0.044
-5.700E-06,0.032
-5.690E-06,0.008
-5.680E-06,-0.020
-5.670E-06,-0.028
-5.660E-06,-0.036
-5.650E-06,-0.020
-5.640E-06,0.004
-5.630E-06,0.028
-5.620E-06,0.040
-5.610E-06,0.040
-5.600E-06,0.028
-5.590E-06,-0.004
-5.580E-06,-0.020
-5.570E-06,-0.024
-5.560E-06,-0.008
-5.550E-06,0.004
-5.540E-06,0.024
-5.530E-06,0.020
-5.520E-06,0.008
-5.510E-06,-0.008
-5.500E-06,-0.028
-5.490E-06,-0.024
-5.480E-06,-0.008
-5.470E-06,0.008
-5.460E-06,0.020
-5.450E-06,0.020
-5.440E-06,0.020
-5.430E-06,0.008
-5.420E-06,-0.004
-5.410E-06,-0.008
-5.400E-06,0.000
-5.390E-06,-0.004
-5.380E-06,0.004
-5.370E-06,0.008
-5.360E-06,0.008
-5.350E-06,0.000
-5.340E-06,-0.004
-5.330E-06,0.000
-5.320E-06,-0.004
-5.310E-06,0.000
-5.300E-06,0.004
-5.290E-06,0.012
-5.280E-06,0.008
-5.270E-06,0.008
-5.260E-06,0.008
-5.250E-06,-0.004
-5.240E-06,-0.004
-5.230E-06,0.000
-5.220E-06,-0.004
-5.210E-06,0.004
-5.200E-06,0.008
-5.190E-06,0.004
-5.180E-06,-0.004
-5.170E-06,0.000
-5.160E-06,-0.004
-5.150E-06,0.000
-5.140E-06,0.008
-5.130E-06,0.008
-5.120E-06,0.004
-5.110E-06,-0.004
-5.100E-06,0.004
-5.090E-06,0.000
-5.080E-06,0.000
-5.070E-06,0.008
-5.060E-06,0.008
-5.050E-06,0.012
-5.040E-06,0.008
-5.030E-06,0.004
-5.020E-06,-0.008
-5.010E-06,0.000
-5.000E-06,0.000
-4.990E-06,0.008
-4.980E-06,0.008
-4.970E-06,0.004
-4.960E-06,0.004
-4.950E-06,0.004
-4.940E-06,0.008
-4.930E-06,0.000
-4.920E-06,0.000
-4.910E-06,0.000
-4.900E-06,0.008
-4.890E-06,0.008
-4.880E-06,0.012
-4.870E-06,0.004
-4.860E-06,0.000
-4.850E-06,0.000
-4.840E-06,-0.008
-4.830E-06,0.004
-4.820E-06,0.000
-4.810E-06,0.008
-4.800E-06,0.008
-4.790E-06,0.004
-4.780E-06,-0.004
-4.770E-06,0.000
-4.760E-06,0.000
-4.750E-06,0.000
-4.740E-06,0.000
-4.730E-06,0.008
-4.720E-06,0.020
-4.710E-06,0.008
-4.700E-06,0.008
-4.690E-06,-0.020
-4.680E-06,-0.008
-4.670E-06,-0.004
-4.660E-06,0.000
-4.650E-06,0.012
-4.640E-06,0.024
-4.630E-06,0.020
-4.620E-06,-0.004
-4.610E-06,-0.012
-4.600E-06,-0.024
-4.590E-06,-0.004
-4.580E-06,0.004
-4.570E-06,0.024
-4.560E-06,0.024
-4.550E-06,0.008
-4.540E-06,0.000
-4.530E-06,-0.008
-4.520E-06,-0.004
-4.510E-06,0.000
-4.500E-06,0.004
-4.490E-06,0.008
-4.480E-06,0.004
-4.470E-06,0.004
-4.460E-06,0.012
-4.450E-06,-0.004
-4.440E-06,-0.004
-4.430E-06,-0.008
-4.420E-06,0.000
-4.410E-06,0.008
-4.400E-06,0.012
-4.390E-06,0.012
-4.380E-06,0.000
-4.370E-06,0.000
-4.360E-06,-0.004
-4.350E-06,0.000
-4.340E-06,0.000
-4.330E-06,-0.004
-4.320E-06,0.004
-4.310E-06,0.008
-4.300E-06,0.008
-4.290E-06,0.004
-4.280E-06,-0.004
-4.270E-06,-0.004
-4.260E-06,0.000
-4.250E-06,0.000
-4.240E-06,0.008
-4.230E-06,0.012
-4.220E-06,0.008
-4.210E-06,0.008
-4.200E-06,-0.004
-4.190E-06,-0.004
-4.180E-06,0.000
-4.170E-06,0.000
-4.160E-06,0.008
-4.150E-06,0.008
-4.140E-06,0.004
-4.130E-06,0.004
-4.120E-06,0.000
-4.110E-06,0.004
-4.100E-06,-0.004
-4.090E-06,0.004
-4.080E-06,0.000
-4.070E-06,0.004
-4.060E-06,0.008
-4.050E-06,0.008
-4.040E-06,0.004
-4.030E-06,0.000
-4.020E-06,0.004
-4.010E-06,0.000
-4.000E-06,0.000
-3.990E-06,0.000
-3.980E-06,0.008
-3.970E-06,0.000
-3.960E-06,0.004
-3.950E-06,0.004
-3.940E-06,0.008
-3.930E-06,-0.004
-3.920E-06,-0.004
-3.910E-06,0.004
-3.900E-06,0.004
-3.890E-06,0.008
-3.880E-06,0.004
-3.870E-06,0.000
-3.860E-06,0.004
-3.850E-06,-0.004
-3.840E-06,0.000
-3.830E-06,0.004
-3.820E-06,0.004
-3.810E-06,0.004
-3.800E-06,0.004
-3.790E-06,0.000
-3.780E-06,0.000
-3.770E-06,0.004
-3.760E-06,0.000
-3.750E-06,0.004
-3.740E-06,-0.004
-3.730E-06,0.008
-3.720E-06,0.004
-3.710E-06,0.008
-3.700E-06,0.004
-3.690E-06,0.004
-3.680E-06,0.000
-3.670E-06,-0.004
-3.660E-06,0.000
-3.650E-06,0.000
-3.640E-06,0.004
-3.630E-06,0.008
-3.620E-06,0.008
-3.610E-06,0.004
-3.600E-06,-0.004
-3.590E-06,-0.008
-3.580E-06,-0.012
-3.570E-06,-0.004
-3.560E-06,0.008
-3.550E-06,0.012
-3.540E-06,0.008
-3.530E-06,0.000
-3.520E-06,-0.004
-3.510E-06,0.004
-3.500E-06,-0.008
-3.490E-06,0.008
-3.480E-06,0.012
-3.470E-06,-0.008
-3.460E-06,0.004
-3.450E-06,0.000
-3.440E-06,0.012
-3.430E-06,0.004
-3.420E-06,0.004
-3.410E-06,-0.004
-3.400E-06,0.000
-3.390E-06,0.012
-3.380E-06,0.020
-3.370E-06,-0.008
-3.360E-06,-0.012
-3.350E-06,0.012
-3.340E-06,0.008
-3.330E-06,0.012
-3.320E-06,0.016
-3.310E-06,0.000
-3.300E-06,-0.020
-3.290E-06,0.000
-3.280E-06,0.012
-3.270E-06,-0.008
-3.260E-06,0.016
-3.250E-06,-0.008
-3.240E-06,0.016
-3.230E-06,0.020
-3.220E-06,0.000
-3.210E-06,-0.016
-3.200E-06,-0.008
-3.190E-06,0.016
-3.180E-06,0.004
-3.170E-06,0.008
-3.160E-06,0.016
-3.150E-06,0.000
-3.140E-06,-0.004
-3.130E-06,-0.024
-3.120E-06,0.008
-3.110E-06,0.016
-3.100E-06,0.020
-3.090E-06,-0.004
-3.080E-06,-0.008
-3.070E-06,-0.004
-3.060E-06,0.004
-3.050E-06,-0.004
-3.040E-06,0.024
-3.030E-06,0.016
-3.020E-06,-0.016
-3.010E-06,-0.016
-3.000E-06,-0.008
-2.990E-06,0.032
-2.980E-06,0.024
-2.970E-06,0.000
-2.960E-06,-0.008
-2.950E-06,0.004
-2.940E-06,0.000
-2.930E-06,-0.008
-2.920E-06,0.004
-2.910E-06,0.032
-2.900E-06,0.000
-2.890E-06,0.000
-2.880E-06,-0.004
-2.870E-06,0.004
-2.860E-06,0.016
-2.850E-06,0.000
-2.840E-06,-0.004
-2.830E-06,-0.008
-2.820E-06,0.000
-2.810E-06,-0.004
-2.800E-06,0.016
-2.790E-06,0.008
-2.780E-06,0.008
-2.770E-06,-0.004
-2.760E-06,0.004
-2.750E-06,-0.020
-2.740E-06,0.000
-2.730E-06,0.008
-2.720E-06,0.008
-2.710E-06,0.012
-2.700E-06,-0.004
-2.690E-06,0.012
-2.680E-06,-0.004
-2.670E-06,0.000
-2.660E-06,-0.012
-2.650E-06,0.016
-2.640E-06,0.016
-2.630E-06,0.004
-2.620E-06,0.004
-2.610E-06,-0.004
-2.600E-06,0.004
-2.590E-06,0.008
-2.580E-06,0.000
-2.570E-06,0.000
-2.560E-06,0.000
-2.550E-06,0.004
-2.540E-06,0.008
-2.530E-06,0.012
-2.520E-06,0.008
-2.510E-06,0.004
-2.500E-06,-0.012
-2.490E-06,0.000
-2.480E-06,0.000
-2.470E-06,0.000
-2.460E-06,0.012
-2.450E-06,0.012
-2.440E-06,0.008
-2.430E-06,-0.004
-2.420E-06,0.000
-2.410E-06,-0.008
-2.400E-06,-0.004
-2.390E-06,0.012
-2.380E-06,0.004
-2.370E-06,0.012
-2.360E-06,0.000
-2.350E-06,0.000
-2.340E-06,-0.004
-2.330E-06,0.008
-2.320E-06,0.008
-2.310E-06,0.012
-2.300E-06,0.000
-2.290E-06,-0.004
-2.280E-06,0.000
-2.270E-06,-0.004
-2.260E-06,0.012
-2.250E-06,0.024
-2.240E-06,0.016
-2.230E-06,-0.008
-2.220E-06,-0.004
-2.210E-06,-0.012
-2.200E-06,0.000
-2.190E-06,0.016
-2.180E-06,0.028
-2.170E-06,0.028
-2.160E-06,0.000
-2.150E-06,-0.020
-2.140E-06,-0.036
-2.130E-06,-0.032
-2.120E-06,-0.008
-2.110E-06,0.032
-2.100E-06,0.044
-2.090E-06,0.036
-2.080E-06,0.008
-2.070E-06,-0.032
-2.060E-06,-0.040
-2.050E-06,-0.020
-2.040E-06,-0.004
-2.030E-06,0.020
-2.020E-06,0.036
-2.010E-06,0.028
-2.000E-06,0.004
-1.990E-06,-0.028
-1.980E-06,-0.004
-1.970E-06,-0.004
-1.960E-06,0.008
-1.950E-06,0.004
-1.940E-06,0.012
-1.930E-06,0.016
-1.920E-06,0.004
-1.910E-06,-0.004
-1.900E-06,-0.004
-1.890E-06,0.000
-1.880E-06,0.000
-1.870E-06,0.008
-1.860E-06,0.000
-1.850E-06,0.004
-1.840E-06,0.012
-1.830E-06,0.012
-1.820E-06,0.000
-1.810E-06,0.000
-1.800E-06,-0.004
-1.790E-06,0.000
-1.780E-06,0.008
-1.770E-06,0.020
-1.760E-06,0.012
-1.750E-06,0.000
-1.740E-06,0.000
-1.730E-06,-0.004
-1.720E-06,0.012
-1.710E-06,0.004
-1.700E-06,0.004
-1.690E-06,0.012
-1.680E-06,0.008
-1.670E-06,0.000
-1.660E-06,0.004
-1.650E-06,0.004
-1.640E-06,-0.004
-1.630E-06,0.008
-1.620E-06,0.004
-1.610E-06,0.008
-1.600E-06,0.000
-1.590E-06,0.016
-1.580E-06,0.016
-1.570E-06,0.012
-1.560E-06,0.004
-1.550E-06,-0.024
-1.540E-06,-0.012
-1.530E-06,-0.024
-1.520E-06,0.016
-1.510E-06,0.056
-1.500E-06,0.028
-1.490E-06,-0.044
-1.480E-06,-0.088
-1.470E-06,-0.056
-1.460E-06,0.004
-1.450E-06,0.072
-1.440E-06,0.092
-1.430E-06,0.056
-1.420E-06,-0.032
-1.410E-06,-0.072
-1.400E-06,-0.068
-1.390E-06,-0.020
-1.380E-06,0.052
-1.370E-06,0.064
-1.360E-06,0.040
-1.350E-06,-0.008
-1.340E-06,-0.028
-1.330E-06,-0.028
-1.320E-06,-0.016
-1.310E-06,-0.004
-1.300E-06,0.004
-1.290E-06,0.008
-1.280E-06,0.020
-1.270E-06,0.024
-1.260E-06,0.024
-1.250E-06,0.008
-1.240E-06,-0.008
-1.230E-06,-0.020
-1.220E-06,-0.016
-1.210E-06,0.016
-1.200E-06,0.036
-1.190E-06,0.052
-1.180E-06,0.044
-1.170E-06,0.012
-1.160E-06,-0.024
-1.150E-06,-0.044
-1.140E-06,-0.028
-1.130E-06,0.000
-1.120E-06,0.028
-1.110E-06,0.040
-1.100E-06,0.036
-1.090E-06,0.012
-1.080E-06,0.000
-1.070E-06,-0.008
-1.060E-06,-0.004
-1.050E-06,0.024
-1.040E-06,0.036
-1.030E-06,0.044
-1.020E-06,0.036
-1.010E-06,0.024
-1.000E-06,0.020
-9.900E-07,0.032
-9.800E-07,0.044
-9.700E-07,0.064
-9.600E-07,0.076
-9.500E-07,0.072
-9.400E-07,0.056
-9.300E-07,0.032
-9.200E-07,0.028
-9.100E-07,0.036
-9.000E-07,0.068
-8.900E-07,0.096
-8.800E-07,0.128
-8.700E-07,0.112
-8.600E-07,0.072
-8.500E-07,0.044
-8.400E-07,0.028
-8.300E-07,-0.084
-8.200E-07,-0.360
-8.100E-07,-0.444
-8.000E-07,-0.368
-7.900E-07,-0.036
-7.800E-07,0.276
-7.700E-07,0.272
-7.600E-07,0.060
-7.500E-07,-0.256
-7.400E-07,-0.320
-7.300E-07,-0.204
-7.200E-07,0.052
-7.100E-07,0.232
-7.000E-07,0.220
-6.900E-07,0.088
-6.800E-07,-0.076
-6.700E-07,-0.128
-6.600E-07,-0.072
-6.500E-07,-0.008
-6.400E-07,0.024
-6.300E-07,0.044
-6.200E-07,0.032
-6.100E-07,0.040
-6.000E-07,0.040
-5.900E-07,0.028
-5.800E-07,-0.004
-5.700E-07,-0.052
-5.600E-07,-0.076
-5.500E-07,-0.044
-5.400E-07,0.028
-5.300E-07,0.084
-5.200E-07,0.104
-5.100E-07,0.060
-5.000E-07,-0.008
-4.900E-07,-0.072
-4.800E-07,-0.076
-4.700E-07,-0.036
-4.600E-07,0.028
-4.500E-07,0.080
-4.400E-07,0.092
-4.300E-07,0.056
-4.200E-07,-0.008
-4.100E-07,-0.036
-4.000E-07,-0.036
-3.900E-07,-0.008
-3.800E-07,0.032
-3.700E-07,0.056
-3.600E-07,0.044
-3.500E-07,0.024
-3.400E-07,0.004
-3.300E-07,-0.008
-3.200E-07,-0.008
-3.100E-07,0.000
-3.000E-07,0.016
-2.900E-07,0.040
-2.800E-07,0.052
-2.700E-07,0.064
-2.600E-07,0.060
-2.500E-07,0.052
-2.400E-07,0.040
-2.300E-07,0.012
-2.200E-07,0.004
-2.100E-07,0.012
-2.000E-07,0.040
-1.900E-07,0.056
-1.800E-07,0.076
-1.700E-07,0.080
-1.600E-07,0.068
-1.500E-07,0.068
-1.400E-07,0.068
-1.300E-07,0.076
-1.200E-07,0.100
-1.100E-07,0.124
-1.000E-07,0.140
-9.000E-08,0.124
-8.000E-08,0.060
-7.000E-08,-0.096
-6.000E-08,-0.400
-5.000E-08,-0.508
-4.000E-08,-0.512
-3.000E-08,-0.312
-2.000E-08,0.148
-1.000E-08,0.504
0.000E+00,0.540
1.000E-08,0.276
2.000E-08,-0.120
3.000E-08,-0.428
4.000E-08,-0.448
5.000E-08,-0.180
6.000E-08,0.156
7.000E-08,0.368
8.000E-08,0.352
9.000E-08,0.148
1.000E-07,-0.124
1.100E-07,-0.288
1.200E-07,-0.264
1.300E-07,-0.112
1.400E-07,0.092
1.500E-07,0.232
1.600E-07,0.260
1.700E-07,0.152
1.800E-07,0.016
1.900E-07,-0.104
2.000E-07,-0.160
2.100E-07,-0.128
2.200E-07,-0.004
2.300E-07,0.132
2.400E-07,0.220
2.500E-07,0.216
2.600E-07,0.132
2.700E-07,0.024
2.800E-07,-0.052
2.900E-07,-0.036
3.000E-07,0.008
3.100E-07,0.124
3.200E-07,0.204
3.300E-07,0.180
3.400E-07,0.080
3.500E-07,-0.064
3.600E-07,-0.188
3.700E-07,-0.212
3.800E-07,-0.120
3.900E-07,0.068
4.000E-07,0.224
4.100E-07,0.296
4.200E-07,0.212
4.300E-07,0.036
4.400E-07,-0.140
4.500E-07,-0.220
4.600E-07,-0.172
4.700E-07,-0.024
4.800E-07,0.184
4.900E-07,0.288
5.000E-07,0.288
5.100E-07,0.196
5.200E-07,0.024
5.300E-07,-0.176
5.400E-07,-0.272
5.500E-07,-0.204
5.600E-07,-0.140
5.700E-07,-0.068
5.800E-07,-0.012
5.900E-07,-0.016
6.000E-07,-0.036
6.100E-07,-0.044
6.200E-07,-0.064
6.300E-07,-0.028
6.400E-07,0.044
6.500E-07,0.144
6.600E-07,0.184
6.700E-07,0.144
6.800E-07,0.068
6.900E-07,-0.004
7.000E-07,-0.040
7.100E-07,-0.068
7.200E-07,-0.068
7.300E-07,-0.176
7.400E-07,-0.100
7.500E-07,-0.080
7.600E-07,-0.004
7.700E-07,-0.020
7.800E-07,-0.176
7.900E-07,-0.284
8.000E-07,-0.400
8.100E-07,-0.260
8.200E-07,0.028
8.300E-07,0.328
8.400E-07,0.396
8.500E-07,0.224
8.600E-07,-0.056
8.700E-07,-0.272
8.800E-07,-0.300
8.900E-07,-0.188
9.000E-07,0.064
9.100E-07,0.232
9.200E-07,0.252
9.300E-07,0.132
9.400E-07,-0.028
9.500E-07,-0.144
9.600E-07,-0.164
9.700E-07,-0.084
9.800E-07,0.044
9.900E-07,0.164
1.000E-06,0.216
1.010E-06,0.196
1.020E-06,0.100
1.030E-06,0.000
1.040E-06,-0.060
1.050E-06,-0.072
1.060E-06,-0.068
1.070E-06,-0.036
1.080E-06,-0.036
1.090E-06,-0.032
1.100E-06,-0.024
1.110E-06,0.016
1.120E-06,0.036
1.130E-06,0.044
1.140E-06,0.032
1.150E-06,0.016
1.160E-06,0.032
1.170E-06,0.072
1.180E-06,0.132
1.190E-06,0.184
1.200E-06,0.212
1.210E-06,0.208
1.220E-06,0.188
1.230E-06,0.168
1.240E-06,0.160
1.250E-06,0.160
1.260E-06,0.164
1.270E-06,0.160
1.280E-06,0.144
1.290E-06,0.128
1.300E-06,0.088
1.310E-06,-0.016
1.320E-06,-0.184
1.330E-06,-0.352
1.340E-06,-0.408
1.350E-06,-0.328
1.360E-06,-0.132
1.370E-06,0.056
1.380E-06,0.116
1.390E-06,0.056
1.400E-06,-0.076
1.410E-06,-0.256
1.420E-06,-0.340
1.430E-06,-0.200
1.440E-06,-0.088
1.450E-06,0.124
1.460E-06,0.204
1.470E-06,0.184
1.480E-06,0.076
1.490E-06,-0.056
1.500E-06,-0.140
1.510E-06,-0.140
1.520E-06,0.008
1.530E-06,0.136
1.540E-06,0.232
1.550E-06,0.180
1.560E-06,0.072
1.570E-06,-0.056
1.580E-06,-0.128
1.590E-06,-0.060
1.600E-06,0.100
1.610E-06,0.204
1.620E-06,0.296
1.630E-06,0.268
1.640E-06,0.128
1.650E-06,-0.100
1.660E-06,-0.280
1.670E-06,-0.348
1.680E-06,-0.296
1.690E-06,-0.148
1.700E-06,0.028
1.710E-06,0.152
1.720E-06,0.092
1.730E-06,-0.020
1.740E-06,-0.136
1.750E-06,-0.148
1.760E-06,-0.104
1.770E-06,-0.012
1.780E-06,0.080
1.790E-06,0.136
1.800E-06,0.156
1.810E-06,0.104
1.820E-06,-0.008
1.830E-06,-0.080
1.840E-06,-0.088
1.850E-06,-0.056
1.860E-06,0.008
1.870E-06,0.056
1.880E-06,0.060
1.890E-06,0.040
1.900E-06,-0.004
1.910E-06,-0.048
1.920E-06,-0.064
1.930E-06,-0.016
1.940E-06,0.024
1.950E-06,0.064
1.960E-06,0.064
1.970E-06,0.072
1.980E-06,0.060
1.990E-06,0.088
2.000E-06,0.104
2.010E-06,0.128
2.020E-06,0.164
2.030E-06,0.160
2.040E-06,0.136
2.050E-06,0.188
2.060E-06,0.208
2.070E-06,0.208
2.080E-06,0.180
2.090E-06,0.144
2.100E-06,0.096
2.110E-06,0.068
2.120E-06,0.032
2.130E-06,-0.044
2.140E-06,-0.072
2.150E-06,-0.076
2.160E-06,-0.040
2.170E-06,-0.016
2.180E-06,0.008
2.190E-06,0.000
2.200E-06,-0.032
2.210E-06,-0.076
2.220E-06,-0.144
2.230E-06,-0.180
2.240E-06,-0.164
2.250E-06,-0.108
2.260E-06,-0.032
2.270E-06,0.008
2.280E-06,0.004
2.290E-06,-0.020
2.300E-06,-0.092
2.310E-06,-0.100
2.320E-06,-0.024
2.330E-06,0.072
2.340E-06,0.120
2.350E-06,0.120
2.360E-06,0.132
2.370E-06,0.084
2.380E-06,0.040
2.390E-06,0.040
2.400E-06,0.136
2.410E-06,0.220
2.420E-06,0.272
2.430E-06,0.284
2.440E-06,0.264
2.450E-06,0.208
2.460E-06,0.136
2.470E-06,0.072
2.480E-06,0.036
2.490E-06,0.036
2.500E-06,0.016
2.510E-06,-0.020
2.520E-06,-0.120
2.530E-06,-0.244
2.540E-06,-0.352
2.550E-06,-0.372
2.560E-06,-0.324
2.570E-06,-0.224
2.580E-06,-0.116
2.590E-06,-0.060
2.600E-06,-0.044
2.610E-06,-0.120
2.620E-06,-0.172
2.630E-06,-0.164
2.640E-06,-0.096
2.650E-06,-0.040
2.660E-06,0.012
2.670E-06,0.008
2.680E-06,-0.004
2.690E-06,-0.012
2.700E-06,-0.040
2.710E-06,-0.056
2.720E-06,-0.048
2.730E-06,-0.012
2.740E-06,0.016
2.750E-06,0.040
2.760E-06,0.032
2.770E-06,0.040
2.780E-06,0.036
2.790E-06,0.032
2.800E-06,-0.004
2.810E-06,-0.020
2.820E-06,-0.020
2.830E-06,-0.008
2.840E-06,0.000
2.850E-06,0.016
2.860E-06,0.044
2.870E-06,0.024
2.880E-06,-0.020
2.890E-06,-0.048
2.900E-06,-0.008
2.910E-06,0.020
2.920E-06,0.068
2.930E-06,0.084
2.940E-06,0.072
2.950E-06,0.032
2.960E-06,-0.008
2.970E-06,-0.032
2.980E-06,-0.020
2.990E-06,0.016
3.000E-06,0.048
3.010E-06,0.096
3.020E-06,0.124
3.030E-06,0.112
3.040E-06,0.092
3.050E-06,0.084
3.060E-06,0.080
3.070E-06,0.112
3.080E-06,0.168
3.090E-06,0.204
3.100E-06,0.232
3.110E-06,0.232
3.120E-06,0.220
3.130E-06,0.196
3.140E-06,0.200
3.150E-06,0.216
3.160E-06,0.256
3.170E-06,0.288
3.180E-06,0.296
3.190E-06,0.280
3.200E-06,0.240
3.210E-06,0.224
3.220E-06,0.200
3.230E-06,0.200
3.240E-06,0.212
3.250E-06,0.232
3.260E-06,0.228
3.270E-06,0.228
3.280E-06,0.204
3.290E-06,0.176
3.300E-06,0.156
3.310E-06,0.144
