mediciones/6-10/50/WaveData553.csv

#timebase=2000000(ps)
,#voltbase=500000(mv/100)
#size=4000
-4.250E-06,0.060
-4.240E-06,0.020
-4.230E-06,0.040
-4.220E-06,0.040
-4.210E-06,0.040
-4.200E-06,0.060
-4.190E-06,0.060
-4.180E-06,0.040
-4.170E-06,0.080
-4.160E-06,0.040
-4.150E-06,0.060
-4.140E-06,0.040
-4.130E-06,0.040
-4.120E-06,0.060
-4.110E-06,0.040
-4.100E-06,0.040
-4.090E-06,0.060
-4.080E-06,0.040
-4.070E-06,0.060
-4.060E-06,0.040
-4.050E-06,0.020
-4.040E-06,0.000
-4.030E-06,0.040
-4.020E-06,0.020
-4.010E-06,0.060
-4.000E-06,0.100
-3.990E-06,0.060
-3.980E-06,0.020
-3.970E-06,0.040
-3.960E-06,0.040
-3.950E-06,0.040
-3.940E-06,0.080
-3.930E-06,0.040
-3.920E-06,0.040
-3.910E-06,0.060
-3.900E-06,0.060
-3.890E-06,0.040
-3.880E-06,0.040
-3.870E-06,0.040
-3.860E-06,0.080
-3.850E-06,0.040
-3.840E-06,0.040
-3.830E-06,0.020
-3.820E-06,0.040
-3.810E-06,0.040
-3.800E-06,0.060
-3.790E-06,0.040
-3.780E-06,0.060
-3.770E-06,0.040
-3.760E-06,0.020
-3.750E-06,0.060
-3.740E-06,0.040
-3.730E-06,0.040
-3.720E-06,0.040
-3.710E-06,0.040
-3.700E-06,0.060
-3.690E-06,0.060
-3.680E-06,0.040
-3.670E-06,0.000
-3.660E-06,0.020
-3.650E-06,0.060
-3.640E-06,0.040
-3.630E-06,0.060
-3.620E-06,0.040
-3.610E-06,0.020
-3.600E-06,0.060
-3.590E-06,0.080
-3.580E-06,0.060
-3.570E-06,0.040
-3.560E-06,0.060
-3.550E-06,0.060
-3.540E-06,0.060
-3.530E-06,0.020
-3.520E-06,0.020
-3.510E-06,0.060
-3.500E-06,0.040
-3.490E-06,0.080
-3.480E-06,0.040
-3.470E-06,0.060
-3.460E-06,0.080
-3.450E-06,0.080
-3.440E-06,0.080
-3.430E-06,0.020
-3.420E-06,0.040
-3.410E-06,0.060
-3.400E-06,0.080
-3.390E-06,0.040
-3.380E-06,0.040
-3.370E-06,0.060
-3.360E-06,0.060
-3.350E-06,0.060
-3.340E-06,0.060
-3.330E-06,0.020
-3.320E-06,0.020
-3.310E-06,0.060
-3.300E-06,0.020
-3.290E-06,0.040
-3.280E-06,0.080
-3.270E-06,0.040
-3.260E-06,0.060
-3.250E-06,0.080
-3.240E-06,0.040
-3.230E-06,0.020
-3.220E-06,0.060
-3.210E-06,0.040
-3.200E-06,0.040
-3.190E-06,0.060
-3.180E-06,0.040
-3.170E-06,0.020
-3.160E-06,0.040
-3.150E-06,0.080
-3.140E-06,0.060
-3.130E-06,0.020
-3.120E-06,0.040
-3.110E-06,0.040
-3.100E-06,0.040
-3.090E-06,0.020
-3.080E-06,0.040
-3.070E-06,0.040
-3.060E-06,0.060
-3.050E-06,0.040
-3.040E-06,0.060
-3.030E-06,0.060
-3.020E-06,0.040
-3.010E-06,0.060
-3.000E-06,0.020
-2.990E-06,0.060
-2.980E-06,0.040
-2.970E-06,0.060
-2.960E-06,0.060
-2.950E-06,0.040
-2.940E-06,0.040
-2.930E-06,0.080
-2.920E-06,0.040
-2.910E-06,0.060
-2.900E-06,0.040
-2.890E-06,0.040
-2.880E-06,0.060
-2.870E-06,0.040
-2.860E-06,0.080
-2.850E-06,0.040
-2.840E-06,0.040
-2.830E-06,0.060
-2.820E-06,0.060
-2.810E-06,0.020
-2.800E-06,0.060
-2.790E-06,0.020
-2.780E-06,0.040
-2.770E-06,0.060
-2.760E-06,0.080
-2.750E-06,0.060
-2.740E-06,0.060
-2.730E-06,0.080
-2.720E-06,0.060
-2.710E-06,0.040
-2.700E-06,0.080
-2.690E-06,0.060
-2.680E-06,0.020
-2.670E-06,0.040
-2.660E-06,0.080
-2.650E-06,0.040
-2.640E-06,0.020
-2.630E-06,0.040
-2.620E-06,0.020
-2.610E-06,0.060
-2.600E-06,0.040
-2.590E-06,0.060
-2.580E-06,0.040
-2.570E-06,0.060
-2.560E-06,0.040
-2.550E-06,0.060
-2.540E-06,0.080
-2.530E-06,0.060
-2.520E-06,0.080
-2.510E-06,0.040
-2.500E-06,0.020
-2.490E-06,0.060
-2.480E-06,0.060
-2.470E-06,0.080
-2.460E-06,0.080
-2.450E-06,0.040
-2.440E-06,0.020
-2.430E-06,0.060
-2.420E-06,0.020
-2.410E-06,0.060
-2.400E-06,0.040
-2.390E-06,0.040
-2.380E-06,0.040
-2.370E-06,0.060
-2.360E-06,0.020
-2.350E-06,0.020
-2.340E-06,0.040
-2.330E-06,0.020
-2.320E-06,0.040
-2.310E-06,0.080
-2.300E-06,0.040
-2.290E-06,0.040
-2.280E-06,0.040
-2.270E-06,0.040
-2.260E-06,0.060
-2.250E-06,0.060
-2.240E-06,0.060
-2.230E-06,0.060
-2.220E-06,0.020
-2.210E-06,0.000
-2.200E-06,0.040
-2.190E-06,0.040
-2.180E-06,0.080
-2.170E-06,0.060
-2.160E-06,0.060
-2.150E-06,0.060
-2.140E-06,0.040
-2.130E-06,0.020
-2.120E-06,0.040
-2.110E-06,0.020
-2.100E-06,0.040
-2.090E-06,0.040
-2.080E-06,0.060
-2.070E-06,0.060
-2.060E-06,0.060
-2.050E-06,0.060
-2.040E-06,0.060
-2.030E-06,0.060
-2.020E-06,0.060
-2.010E-06,0.060
-2.000E-06,0.020
-1.990E-06,0.060
-1.980E-06,0.080
-1.970E-06,0.060
-1.960E-06,0.020
-1.950E-06,0.040
-1.940E-06,0.060
-1.930E-06,0.040
-1.920E-06,0.040
-1.910E-06,0.060
-1.900E-06,0.040
-1.890E-06,0.040
-1.880E-06,0.060
-1.870E-06,0.060
-1.860E-06,0.060
-1.850E-06,0.040
-1.840E-06,0.060
-1.830E-06,0.040
-1.820E-06,0.040
-1.810E-06,0.040
-1.800E-06,0.040
-1.790E-06,0.080
-1.780E-06,0.040
-1.770E-06,0.080
-1.760E-06,0.020
-1.750E-06,0.040
-1.740E-06,0.040
-1.730E-06,0.080
-1.720E-06,0.060
-1.710E-06,0.060
-1.700E-06,0.020
-1.690E-06,0.040
-1.680E-06,0.040
-1.670E-06,0.040
-1.660E-06,0.040
-1.650E-06,0.060
-1.640E-06,0.040
-1.630E-06,0.060
-1.620E-06,0.060
-1.610E-06,0.040
-1.600E-06,0.000
-1.590E-06,0.080
-1.580E-06,0.300
-1.570E-06,0.860
-1.560E-06,1.640
-1.550E-06,2.380
-1.540E-06,2.760
-1.530E-06,2.780
-1.520E-06,2.320
-1.510E-06,1.200
-1.500E-06,-0.120
-1.490E-06,-1.220
-1.480E-06,-2.180
-1.470E-06,-2.660
-1.460E-06,-2.660
-1.450E-06,-2.660
-1.440E-06,-2.660
-1.430E-06,-2.660
-1.420E-06,-2.600
-1.410E-06,-1.840
-1.400E-06,-1.200
-1.390E-06,-0.540
-1.380E-06,-0.120
-1.370E-06,0.120
-1.360E-06,0.320
-1.350E-06,0.380
-1.340E-06,0.480
-1.330E-06,0.520
-1.320E-06,0.640
-1.310E-06,0.720
-1.300E-06,0.860
-1.290E-06,1.080
-1.280E-06,1.300
-1.270E-06,1.460
-1.260E-06,1.500
-1.250E-06,1.400
-1.240E-06,1.180
-1.230E-06,0.920
-1.220E-06,0.640
-1.210E-06,0.340
-1.200E-06,0.080
-1.190E-06,-0.180
-1.180E-06,-0.420
-1.170E-06,-0.640
-1.160E-06,-0.740
-1.150E-06,-0.700
-1.140E-06,-0.500
-1.130E-06,-0.040
-1.120E-06,0.200
-1.110E-06,0.240
-1.100E-06,0.540
-1.090E-06,1.160
-1.080E-06,0.820
-1.070E-06,1.320
-1.060E-06,1.560
-1.050E-06,1.100
-1.040E-06,0.980
-1.030E-06,0.760
-1.020E-06,0.620
-1.010E-06,0.420
-1.000E-06,0.480
-9.900E-07,0.180
-9.800E-07,-0.160
-9.700E-07,-0.680
-9.600E-07,-1.100
-9.500E-07,-1.180
-9.400E-07,-1.340
-9.300E-07,-1.360
-9.200E-07,-1.360
-9.100E-07,-1.460
-9.000E-07,-1.540
-8.900E-07,-1.340
-8.800E-07,-1.120
-8.700E-07,-0.740
-8.600E-07,-0.340
-8.500E-07,-0.080
-8.400E-07,0.060
-8.300E-07,0.320
-8.200E-07,0.540
-8.100E-07,0.720
-8.000E-07,0.900
-7.900E-07,1.000
-7.800E-07,0.920
-7.700E-07,0.780
-7.600E-07,0.700
-7.500E-07,0.520
-7.400E-07,0.440
-7.300E-07,0.320
-7.200E-07,0.260
-7.100E-07,0.140
-7.000E-07,-0.020
-6.900E-07,-0.100
-6.800E-07,-0.220
-6.700E-07,-0.280
-6.600E-07,-0.340
-6.500E-07,-0.420
-6.400E-07,-0.440
-6.300E-07,-0.500
-6.200E-07,-0.500
-6.100E-07,-0.440
-6.000E-07,-0.300
-5.900E-07,-0.160
-5.800E-07,-0.040
-5.700E-07,0.080
-5.600E-07,0.200
-5.500E-07,0.440
-5.400E-07,0.520
-5.300E-07,0.680
-5.200E-07,0.760
-5.100E-07,0.780
-5.000E-07,0.680
-4.900E-07,0.540
-4.800E-07,0.480
-4.700E-07,0.380
-4.600E-07,0.380
-4.500E-07,0.360
-4.400E-07,0.240
-4.300E-07,0.140
-4.200E-07,0.060
-4.100E-07,-0.080
-4.000E-07,-0.080
-3.900E-07,-0.100
-3.800E-07,-0.140
-3.700E-07,-0.140
-3.600E-07,-0.180
-3.500E-07,-0.240
-3.400E-07,-0.240
-3.300E-07,-0.240
-3.200E-07,-0.260
-3.100E-07,-0.220
-3.000E-07,-0.260
-2.900E-07,-0.180
-2.800E-07,-0.040
-2.700E-07,0.020
-2.600E-07,0.000
-2.500E-07,0.020
-2.400E-07,-0.020
-2.300E-07,0.020
-2.200E-07,0.120
-2.100E-07,0.240
-2.000E-07,0.360
-1.900E-07,0.500
-1.800E-07,0.400
-1.700E-07,0.380
-1.600E-07,0.320
-1.500E-07,0.300
-1.400E-07,0.440
-1.300E-07,0.280
-1.200E-07,0.540
-1.100E-07,0.000
-1.000E-07,0.460
-9.000E-08,0.280
-8.000E-08,0.340
-7.000E-08,0.740
-6.000E-08,0.280
-5.000E-08,0.520
-4.000E-08,-0.040
-3.000E-08,-0.060
-2.000E-08,-0.200
-1.000E-08,-0.320
0.000E+00,0.000
1.000E-08,0.400
2.000E-08,0.820
3.000E-08,0.640
4.000E-08,0.320
5.000E-08,-0.340
6.000E-08,-0.280
7.000E-08,-0.140
8.000E-08,0.400
9.000E-08,0.780
1.000E-07,0.700
1.100E-07,0.340
1.200E-07,-0.120
1.300E-07,-0.240
1.400E-07,-0.160
1.500E-07,0.120
1.600E-07,0.260
1.700E-07,0.300
1.800E-07,-0.040
1.900E-07,-0.400
2.000E-07,-0.860
2.100E-07,-1.240
2.200E-07,-1.660
2.300E-07,-1.940
2.400E-07,-2.000
2.500E-07,-1.700
2.600E-07,-1.080
2.700E-07,-0.180
2.800E-07,0.680
2.900E-07,1.180
3.000E-07,1.500
3.100E-07,1.480
3.200E-07,1.380
3.300E-07,1.260
3.400E-07,1.180
3.500E-07,1.240
3.600E-07,1.240
3.700E-07,1.520
3.800E-07,1.500
3.900E-07,1.360
4.000E-07,1.120
4.100E-07,0.560
4.200E-07,0.220
4.300E-07,-0.080
4.400E-07,-0.100
4.500E-07,0.000
4.600E-07,-0.100
4.700E-07,-0.180
4.800E-07,-0.440
4.900E-07,-0.640
5.000E-07,-0.680
5.100E-07,-0.680
5.200E-07,-0.420
5.300E-07,-0.240
5.400E-07,-0.060
5.500E-07,0.180
5.600E-07,0.060
5.700E-07,0.040
5.800E-07,0.060
5.900E-07,0.060
6.000E-07,0.420
6.100E-07,0.680
6.200E-07,0.700
6.300E-07,0.560
6.400E-07,0.420
6.500E-07,-0.040
6.600E-07,-0.020
6.700E-07,-0.240
6.800E-07,-0.020
6.900E-07,-0.340
7.000E-07,-0.200
7.100E-07,-0.400
7.200E-07,-0.660
7.300E-07,-0.140
7.400E-07,-0.820
7.500E-07,-0.140
7.600E-07,-0.300
7.700E-07,-0.360
7.800E-07,0.200
7.900E-07,0.160
8.000E-07,0.220
8.100E-07,0.720
8.200E-07,0.940
8.300E-07,0.560
8.400E-07,1.440
8.500E-07,0.920
8.600E-07,0.940
8.700E-07,1.120
8.800E-07,0.320
8.900E-07,0.580
9.000E-07,0.600
9.100E-07,0.580
9.200E-07,0.920
9.300E-07,0.840
9.400E-07,0.500
9.500E-07,0.080
9.600E-07,-0.180
9.700E-07,-0.400
9.800E-07,-0.240
9.900E-07,-0.160
1.000E-06,-0.280
1.010E-06,-0.240
1.020E-06,-0.340
1.030E-06,-0.360
1.040E-06,-0.340
1.050E-06,-0.160
1.060E-06,-0.240
1.070E-06,-0.200
1.080E-06,0.040
1.090E-06,-0.180
1.100E-06,-0.020
1.110E-06,0.240
1.120E-06,0.300
1.130E-06,0.480
1.140E-06,0.580
1.150E-06,0.360
1.160E-06,0.180
1.170E-06,0.020
1.180E-06,-0.320
1.190E-06,-0.120
1.200E-06,0.000
1.210E-06,0.180
1.220E-06,0.340
1.230E-06,0.160
1.240E-06,-0.080
1.250E-06,-0.180
1.260E-06,-0.220
1.270E-06,-0.060
1.280E-06,0.040
1.290E-06,0.140
1.300E-06,0.080
1.310E-06,-0.080
1.320E-06,-0.160
1.330E-06,-0.160
1.340E-06,-0.040
1.350E-06,0.040
1.360E-06,0.080
1.370E-06,0.100
1.380E-06,0.100
1.390E-06,0.020
1.400E-06,0.020
1.410E-06,-0.020
1.420E-06,0.040
1.430E-06,0.060
1.440E-06,0.120
1.450E-06,0.180
1.460E-06,0.160
1.470E-06,0.140
1.480E-06,0.100
1.490E-06,-0.020
1.500E-06,0.000
1.510E-06,-0.020
1.520E-06,0.000
1.530E-06,0.060
1.540E-06,0.100
1.550E-06,0.140
1.560E-06,0.140
1.570E-06,0.180
1.580E-06,0.120
1.590E-06,0.060
1.600E-06,0.000
1.610E-06,-0.040
1.620E-06,0.000
1.630E-06,0.120
1.640E-06,0.080
1.650E-06,0.140
1.660E-06,0.080
1.670E-06,0.000
1.680E-06,0.040
1.690E-06,0.080
1.700E-06,0.100
1.710E-06,0.500
1.720E-06,0.000
1.730E-06,0.020
1.740E-06,-0.100
1.750E-06,-0.260
1.760E-06,0.020
1.770E-06,-0.020
1.780E-06,0.000
1.790E-06,0.000
1.800E-06,-0.140
1.810E-06,-0.200
1.820E-06,-0.140
1.830E-06,-0.080
1.840E-06,0.040
1.850E-06,0.120
1.860E-06,0.040
1.870E-06,0.020
1.880E-06,-0.020
1.890E-06,0.020
1.900E-06,0.060
1.910E-06,0.100
1.920E-06,0.100
1.930E-06,0.060
1.940E-06,0.080
1.950E-06,0.120
1.960E-06,0.100
1.970E-06,0.140
1.980E-06,0.020
1.990E-06,-0.020
2.000E-06,-0.140
2.010E-06,0.080
2.020E-06,-0.060
2.030E-06,-0.060
2.040E-06,0.060
2.050E-06,-0.180
2.060E-06,-0.020
2.070E-06,0.040
2.080E-06,0.000
2.090E-06,0.060
2.100E-06,-0.080
2.110E-06,-0.180
2.120E-06,-0.080
2.130E-06,-0.060
2.140E-06,0.080
2.150E-06,0.140
2.160E-06,0.100
2.170E-06,0.040
2.180E-06,0.020
2.190E-06,0.020
2.200E-06,0.100
2.210E-06,0.160
2.220E-06,0.140
2.230E-06,0.120
2.240E-06,0.100
2.250E-06,0.040
2.260E-06,0.040
2.270E-06,0.060
2.280E-06,0.040
2.290E-06,0.040
2.300E-06,0.060
2.310E-06,0.080
2.320E-06,0.060
2.330E-06,0.020
2.340E-06,-0.020
2.350E-06,-0.060
2.360E-06,-0.040
2.370E-06,0.060
2.380E-06,0.080
2.390E-06,0.060
2.400E-06,0.100
2.410E-06,0.000
2.420E-06,-0.020
2.430E-06,0.020
2.440E-06,-0.040
2.450E-06,0.080
2.460E-06,0.160
2.470E-06,0.160
2.480E-06,0.220
2.490E-06,0.120
2.500E-06,0.020
2.510E-06,-0.020
2.520E-06,-0.060
2.530E-06,0.020
2.540E-06,0.120
2.550E-06,0.180
2.560E-06,0.180
2.570E-06,0.060
2.580E-06,0.000
2.590E-06,-0.040
2.600E-06,-0.040
2.610E-06,-0.040
2.620E-06,0.020
2.630E-06,0.020
2.640E-06,0.000
2.650E-06,0.000
2.660E-06,0.000
2.670E-06,-0.020
2.680E-06,-0.020
2.690E-06,0.020
2.700E-06,0.020
2.710E-06,0.020
2.720E-06,0.000
2.730E-06,0.020
2.740E-06,0.080
2.750E-06,0.060
2.760E-06,0.060
2.770E-06,0.080
2.780E-06,0.080
2.790E-06,0.100
2.800E-06,0.140
2.810E-06,0.140
2.820E-06,0.140
2.830E-06,0.080
2.840E-06,0.020
2.850E-06,0.100
2.860E-06,0.140
2.870E-06,0.200
2.880E-06,0.180
2.890E-06,0.140
2.900E-06,0.020
2.910E-06,-0.020
2.920E-06,0.020
2.930E-06,0.100
2.940E-06,0.300
2.950E-06,0.360
2.960E-06,0.300
2.970E-06,0.160
2.980E-06,0.100
2.990E-06,0.040
3.000E-06,0.120
3.010E-06,0.160
3.020E-06,0.260
3.030E-06,0.220
3.040E-06,0.260
3.050E-06,0.260
3.060E-06,0.260
3.070E-06,0.260
3.080E-06,0.160
3.090E-06,0.120
3.100E-06,0.060
3.110E-06,0.060
3.120E-06,0.120
3.130E-06,0.160
3.140E-06,0.240
3.150E-06,0.240
3.160E-06,0.100
3.170E-06,-0.020
3.180E-06,-0.100
3.190E-06,-0.100
3.200E-06,-0.120
3.210E-06,0.180
3.220E-06,0.180
3.230E-06,0.200
3.240E-06,0.180
3.250E-06,-0.100
3.260E-06,-0.060
3.270E-06,-0.080
3.280E-06,0.000
3.290E-06,0.260
3.300E-06,0.280
3.310E-06,0.280
3.320E-06,0.200
3.330E-06,0.000
3.340E-06,0.000
3.350E-06,0.000
3.360E-06,0.040
3.370E-06,0.160
3.380E-06,0.160
3.390E-06,0.100
3.400E-06,0.000
3.410E-06,-0.100
3.420E-06,-0.120
3.430E-06,-0.080
3.440E-06,-0.040
3.450E-06,-0.020
3.460E-06,0.000
3.470E-06,-0.040
3.480E-06,-0.100
3.490E-06,-0.060
3.500E-06,-0.040
3.510E-06,0.000
3.520E-06,0.020
3.530E-06,0.040
3.540E-06,0.020
3.550E-06,0.040
3.560E-06,0.040
3.570E-06,0.120
3.580E-06,0.140
3.590E-06,0.220
3.600E-06,0.200
3.610E-06,0.220
3.620E-06,0.240
3.630E-06,0.240
3.640E-06,0.240
3.650E-06,0.200
3.660E-06,0.160
3.670E-06,0.140
3.680E-06,0.140
3.690E-06,0.120
3.700E-06,0.160
3.710E-06,0.180
3.720E-06,0.180
3.730E-06,0.200
3.740E-06,0.200
3.750E-06,0.220
3.760E-06,0.160
3.770E-06,0.160
3.780E-06,0.140
3.790E-06,0.140
3.800E-06,0.100
3.810E-06,0.140
3.820E-06,0.160
3.830E-06,0.200
3.840E-06,0.160
3.850E-06,0.180
3.860E-06,0.220
3.870E-06,0.200
3.880E-06,0.320
3.890E-06,0.320
3.900E-06,0.380
3.910E-06,0.320
3.920E-06,0.180
3.930E-06,0.140
3.940E-06,0.060
3.950E-06,0.060
3.960E-06,0.180
3.970E-06,0.280
3.980E-06,0.260
3.990E-06,0.380
4.000E-06,0.220
4.010E-06,0.180
4.020E-06,0.180
4.030E-06,0.100
4.040E-06,0.160
4.050E-06,0.300
4.060E-06,0.300
4.070E-06,0.280
4.080E-06,0.220
4.090E-06,0.100
4.100E-06,0.120
4.110E-06,0.040
4.120E-06,0.100
4.130E-06,0.120
4.140E-06,0.000
4.150E-06,0.020
4.160E-06,0.080
4.170E-06,0.020
4.180E-06,0.060
4.190E-06,0.100
4.200E-06,0.040
4.210E-06,0.160
4.220E-06,0.160
4.230E-06,0.240
4.240E-06,0.300
4.250E-06,0.280
4.260E-06,0.320
4.270E-06,0.300
4.280E-06,0.240
4.290E-06,0.260
4.300E-06,0.200
4.310E-06,0.220
4.320E-06,0.260
4.330E-06,0.280
4.340E-06,0.220
4.350E-06,0.240
4.360E-06,0.240
4.370E-06,0.100
4.380E-06,0.080
4.390E-06,0.060
4.400E-06,-0.080
4.410E-06,0.220
4.420E-06,0.200
4.430E-06,0.340
4.440E-06,0.560
4.450E-06,0.180
4.460E-06,0.180
4.470E-06,0.100
4.480E-06,-0.160
4.490E-06,0.500
4.500E-06,0.240
4.510E-06,-0.300
4.520E-06,-0.300
4.530E-06,-0.500
4.540E-06,0.220
4.550E-06,0.320
4.560E-06,0.560
4.570E-06,0.420
4.580E-06,-0.300
4.590E-06,-0.340
4.600E-06,-0.280
4.610E-06,-0.220
4.620E-06,0.720
4.630E-06,1.020
4.640E-06,0.840
4.650E-06,1.180
4.660E-06,0.720
4.670E-06,0.540
4.680E-06,0.300
4.690E-06,0.100
4.700E-06,0.260
4.710E-06,0.320
4.720E-06,0.380
4.730E-06,0.500
4.740E-06,0.540
4.750E-06,0.240
4.760E-06,-0.100
4.770E-06,-0.380
4.780E-06,-0.640
4.790E-06,-0.500
4.800E-06,-0.360
4.810E-06,-0.120
4.820E-06,0.000
4.830E-06,-0.100
4.840E-06,-0.200
4.850E-06,-0.320
4.860E-06,-0.340
4.870E-06,-0.140
4.880E-06,0.080
4.890E-06,0.220
4.900E-06,0.280
4.910E-06,0.040
4.920E-06,-0.120
4.930E-06,-0.020
4.940E-06,0.160
4.950E-06,0.460
4.960E-06,0.600
4.970E-06,0.500
4.980E-06,0.380
4.990E-06,0.160
5.000E-06,0.080
5.010E-06,0.000
5.020E-06,-0.020
5.030E-06,-0.060
5.040E-06,-0.200
5.050E-06,-0.280
5.060E-06,-0.580
5.070E-06,-1.780
5.080E-06,-1.100
5.090E-06,-1.480
5.100E-06,-0.100
5.110E-06,1.060
5.120E-06,0.740
5.130E-06,0.840
5.140E-06,-0.160
5.150E-06,-0.340
5.160E-06,-0.180
5.170E-06,1.040
5.180E-06,1.600
5.190E-06,1.760
5.200E-06,1.540
5.210E-06,0.940
5.220E-06,0.380
5.230E-06,0.000
5.240E-06,0.100
5.250E-06,0.300
5.260E-06,0.560
5.270E-06,0.560
5.280E-06,0.840
5.290E-06,0.740
5.300E-06,0.060
5.310E-06,-0.040
5.320E-06,-0.800
5.330E-06,-1.000
5.340E-06,-0.200
5.350E-06,-0.200
5.360E-06,0.400
5.370E-06,0.680
5.380E-06,0.240
5.390E-06,0.400
5.400E-06,0.260
5.410E-06,0.360
5.420E-06,0.660
5.430E-06,0.700
5.440E-06,0.620
5.450E-06,0.640
5.460E-06,0.360
5.470E-06,0.280
5.480E-06,0.180
5.490E-06,-0.080
5.500E-06,-0.200
5.510E-06,-0.280
5.520E-06,-0.420
5.530E-06,-0.520
5.540E-06,-0.660
5.550E-06,-0.760
5.560E-06,-0.700
5.570E-06,-0.620
5.580E-06,-0.540
5.590E-06,-0.520
5.600E-06,-0.420
5.610E-06,-0.320
5.620E-06,-0.100
5.630E-06,0.120
5.640E-06,0.300
5.650E-06,0.360
5.660E-06,0.400
5.670E-06,0.420
5.680E-06,0.440
5.690E-06,0.400
5.700E-06,0.340
5.710E-06,0.340
5.720E-06,0.360
5.730E-06,0.180
5.740E-06,0.100
5.750E-06,-0.040
5.760E-06,-0.080
5.770E-06,-0.220
5.780E-06,-0.340
5.790E-06,-0.400
5.800E-06,-0.480
5.810E-06,-0.620
5.820E-06,-0.360
5.830E-06,-0.060
5.840E-06,0.160
5.850E-06,0.380
5.860E-06,0.520
5.870E-06,0.560
5.880E-06,0.700
5.890E-06,0.840
5.900E-06,0.920
5.910E-06,0.980
5.920E-06,1.040
5.930E-06,0.840
5.940E-06,0.960
5.950E-06,0.980
5.960E-06,0.880
5.970E-06,1.080
5.980E-06,0.980
5.990E-06,0.900
6.000E-06,0.800
6.010E-06,0.560
6.020E-06,0.120
6.030E-06,0.220
6.040E-06,-0.200
6.050E-06,-0.180
6.060E-06,-0.240
6.070E-06,-0.700
6.080E-06,-0.460
6.090E-06,-0.520
6.100E-06,-0.220
6.110E-06,-0.080
6.120E-06,-0.300
6.130E-06,-0.080
6.140E-06,-0.460
6.150E-06,-0.200
6.160E-06,0.160
6.170E-06,0.220
6.180E-06,0.700
6.190E-06,0.560
6.200E-06,0.480
6.210E-06,0.460
6.220E-06,0.280
6.230E-06,0.240
6.240E-06,0.380
6.250E-06,0.380
6.260E-06,0.360
6.270E-06,0.280
6.280E-06,0.020
6.290E-06,-0.140
6.300E-06,-0.200
6.310E-06,-0.300
6.320E-06,-0.260
6.330E-06,-0.180
6.340E-06,-0.240
6.350E-06,-0.140
6.360E-06,-0.100
6.370E-06,-0.040
6.380E-06,0.000
6.390E-06,0.020
6.400E-06,0.100
6.410E-06,0.100
6.420E-06,0.100
6.430E-06,0.020
6.440E-06,-0.040
6.450E-06,-0.100
6.460E-06,-0.160
6.470E-06,-0.320
6.480E-06,-0.360
6.490E-06,-0.340
6.500E-06,-0.340
6.510E-06,-0.180
6.520E-06,0.140
6.530E-06,0.260
6.540E-06,0.420
6.550E-06,0.400
6.560E-06,0.280
6.570E-06,0.280
6.580E-06,0.260
6.590E-06,0.360
6.600E-06,0.480
6.610E-06,0.500
6.620E-06,0.560
6.630E-06,0.520
6.640E-06,0.460
6.650E-06,0.340
6.660E-06,0.260
6.670E-06,0.120
6.680E-06,0.040
6.690E-06,-0.060
6.700E-06,-0.160
6.710E-06,-0.200
6.720E-06,-0.300
6.730E-06,-0.200
6.740E-06,-0.240
6.750E-06,-0.300
6.760E-06,-0.400
6.770E-06,-0.260
6.780E-06,-0.280
6.790E-06,-0.320
6.800E-06,-0.300
6.810E-06,0.060
6.820E-06,0.260
6.830E-06,0.720
6.840E-06,0.900
6.850E-06,0.480
6.860E-06,0.460
6.870E-06,0.220
6.880E-06,0.160
6.890E-06,0.560
6.900E-06,0.660
6.910E-06,0.820
6.920E-06,0.940
6.930E-06,0.640
6.940E-06,0.580
6.950E-06,0.340
6.960E-06,0.140
6.970E-06,0.040
6.980E-06,-0.080
6.990E-06,-0.160
7.000E-06,-0.140
7.010E-06,-0.260
7.020E-06,-0.280
7.030E-06,-0.320
7.040E-06,-0.440
7.050E-06,-0.340
7.060E-06,-0.180
7.070E-06,0.060
7.080E-06,0.260
7.090E-06,0.300
7.100E-06,0.380
7.110E-06,0.360
7.120E-06,0.340
7.130E-06,0.420
7.140E-06,0.320
7.150E-06,0.320
7.160E-06,0.240
7.170E-06,0.160
7.180E-06,0.180
7.190E-06,0.180
7.200E-06,0.200
7.210E-06,0.160
7.220E-06,0.180
7.230E-06,0.120
7.240E-06,0.080
7.250E-06,0.080
7.260E-06,0.020
7.270E-06,0.020
7.280E-06,-0.060
7.290E-06,-0.040
7.300E-06,-0.080
7.310E-06,-0.140
7.320E-06,-0.160
7.330E-06,-0.180
7.340E-06,-0.240
7.350E-06,-0.260
7.360E-06,-0.320
7.370E-06,-0.360
7.380E-06,-0.360
7.390E-06,-0.340
7.400E-06,-0.360
7.410E-06,-0.380
7.420E-06,-0.420
7.430E-06,-0.380
7.440E-06,-0.340
7.450E-06,-0.280
7.460E-06,-0.280
7.470E-06,-0.220
7.480E-06,-0.160
7.490E-06,-0.140
7.500E-06,-0.040
7.510E-06,-0.040
7.520E-06,-0.020
7.530E-06,0.000
7.540E-06,0.060
7.550E-06,0.060
7.560E-06,0.100
7.570E-06,0.100
7.580E-06,0.100
7.590E-06,0.120
7.600E-06,0.080
7.610E-06,0.100
7.620E-06,0.020
7.630E-06,0.020
7.640E-06,-0.040
7.650E-06,-0.020
7.660E-06,-0.060
7.670E-06,-0.100
7.680E-06,-0.140
7.690E-06,-0.160
7.700E-06,-0.180
7.710E-06,-0.180
7.720E-06,-0.220
7.730E-06,-0.220
