mediciones/6-10/50/WaveData558.csv

#timebase=2000000(ps)
,#voltbase=100000(mv/100)
#size=4000
-4.250E-06,0.000
-4.240E-06,0.004
-4.230E-06,0.000
-4.220E-06,-0.004
-4.210E-06,0.000
-4.200E-06,0.008
-4.190E-06,-0.004
-4.180E-06,0.004
-4.170E-06,0.000
-4.160E-06,-0.004
-4.150E-06,0.004
-4.140E-06,-0.004
-4.130E-06,0.004
-4.120E-06,0.000
-4.110E-06,0.000
-4.100E-06,0.008
-4.090E-06,0.008
-4.080E-06,0.008
-4.070E-06,0.004
-4.060E-06,0.008
-4.050E-06,0.000
-4.040E-06,0.004
-4.030E-06,0.000
-4.020E-06,0.000
-4.010E-06,0.004
-4.000E-06,0.000
-3.990E-06,0.000
-3.980E-06,0.004
-3.970E-06,0.008
-3.960E-06,0.000
-3.950E-06,0.004
-3.940E-06,0.004
-3.930E-06,-0.004
-3.920E-06,0.000
-3.910E-06,0.008
-3.900E-06,0.004
-3.890E-06,0.000
-3.880E-06,0.000
-3.870E-06,-0.004
-3.860E-06,0.000
-3.850E-06,0.000
-3.840E-06,0.008
-3.830E-06,0.000
-3.820E-06,0.000
-3.810E-06,0.004
-3.800E-06,0.004
-3.790E-06,0.004
-3.780E-06,0.000
-3.770E-06,0.008
-3.760E-06,0.000
-3.750E-06,0.004
-3.740E-06,0.004
-3.730E-06,-0.004
-3.720E-06,0.008
-3.710E-06,0.004
-3.700E-06,0.000
-3.690E-06,-0.004
-3.680E-06,0.008
-3.670E-06,0.004
-3.660E-06,0.000
-3.650E-06,0.000
-3.640E-06,0.000
-3.630E-06,-0.004
-3.620E-06,0.008
-3.610E-06,0.004
-3.600E-06,0.008
-3.590E-06,0.004
-3.580E-06,-0.004
-3.570E-06,0.000
-3.560E-06,0.004
-3.550E-06,0.000
-3.540E-06,0.000
-3.530E-06,0.008
-3.520E-06,0.004
-3.510E-06,0.004
-3.500E-06,0.004
-3.490E-06,0.000
-3.480E-06,0.008
-3.470E-06,-0.004
-3.460E-06,0.008
-3.450E-06,0.004
-3.440E-06,0.008
-3.430E-06,0.004
-3.420E-06,-0.004
-3.410E-06,0.008
-3.400E-06,0.004
-3.390E-06,0.004
-3.380E-06,0.008
-3.370E-06,0.000
-3.360E-06,0.004
-3.350E-06,0.000
-3.340E-06,0.004
-3.330E-06,0.004
-3.320E-06,0.000
-3.310E-06,0.000
-3.300E-06,0.004
-3.290E-06,0.004
-3.280E-06,0.004
-3.270E-06,0.000
-3.260E-06,0.004
-3.250E-06,0.004
-3.240E-06,0.000
-3.230E-06,0.000
-3.220E-06,-0.004
-3.210E-06,0.004
-3.200E-06,-0.004
-3.190E-06,0.008
-3.180E-06,-0.004
-3.170E-06,0.004
-3.160E-06,0.000
-3.150E-06,0.000
-3.140E-06,0.000
-3.130E-06,0.004
-3.120E-06,0.004
-3.110E-06,0.004
-3.100E-06,0.000
-3.090E-06,0.004
-3.080E-06,-0.004
-3.070E-06,0.004
-3.060E-06,0.012
-3.050E-06,0.000
-3.040E-06,0.000
-3.030E-06,0.000
-3.020E-06,0.004
-3.010E-06,0.000
-3.000E-06,0.004
-2.990E-06,0.000
-2.980E-06,-0.004
-2.970E-06,0.004
-2.960E-06,0.000
-2.950E-06,0.000
-2.940E-06,0.000
-2.930E-06,0.004
-2.920E-06,0.000
-2.910E-06,0.000
-2.900E-06,0.008
-2.890E-06,0.008
-2.880E-06,-0.004
-2.870E-06,0.000
-2.860E-06,0.008
-2.850E-06,0.000
-2.840E-06,0.000
-2.830E-06,0.012
-2.820E-06,0.008
-2.810E-06,0.008
-2.800E-06,0.008
-2.790E-06,0.004
-2.780E-06,-0.004
-2.770E-06,0.000
-2.760E-06,0.004
-2.750E-06,0.004
-2.740E-06,0.000
-2.730E-06,0.008
-2.720E-06,0.004
-2.710E-06,0.000
-2.700E-06,0.004
-2.690E-06,0.004
-2.680E-06,0.000
-2.670E-06,0.000
-2.660E-06,0.008
-2.650E-06,0.000
-2.640E-06,-0.004
-2.630E-06,0.004
-2.620E-06,-0.004
-2.610E-06,0.000
-2.600E-06,0.008
-2.590E-06,0.004
-2.580E-06,0.004
-2.570E-06,0.000
-2.560E-06,0.004
-2.550E-06,0.004
-2.540E-06,0.000
-2.530E-06,0.000
-2.520E-06,0.004
-2.510E-06,0.000
-2.500E-06,0.004
-2.490E-06,0.008
-2.480E-06,0.004
-2.470E-06,0.004
-2.460E-06,-0.004
-2.450E-06,0.004
-2.440E-06,0.004
-2.430E-06,0.000
-2.420E-06,0.000
-2.410E-06,0.008
-2.400E-06,0.004
-2.390E-06,0.004
-2.380E-06,0.000
-2.370E-06,0.004
-2.360E-06,0.000
-2.350E-06,0.004
-2.340E-06,0.004
-2.330E-06,0.000
-2.320E-06,0.004
-2.310E-06,0.004
-2.300E-06,0.008
-2.290E-06,0.000
-2.280E-06,0.004
-2.270E-06,0.004
-2.260E-06,0.000
-2.250E-06,0.008
-2.240E-06,0.004
-2.230E-06,0.004
-2.220E-06,0.004
-2.210E-06,0.000
-2.200E-06,-0.004
-2.190E-06,-0.004
-2.180E-06,0.008
-2.170E-06,0.000
-2.160E-06,0.012
-2.150E-06,0.000
-2.140E-06,0.004
-2.130E-06,0.000
-2.120E-06,0.000
-2.110E-06,0.004
-2.100E-06,0.004
-2.090E-06,0.000
-2.080E-06,0.000
-2.070E-06,0.000
-2.060E-06,0.008
-2.050E-06,0.004
-2.040E-06,-0.004
-2.030E-06,0.004
-2.020E-06,-0.004
-2.010E-06,0.008
-2.000E-06,0.008
-1.990E-06,0.004
-1.980E-06,-0.004
-1.970E-06,0.000
-1.960E-06,0.004
-1.950E-06,0.008
-1.940E-06,0.004
-1.930E-06,0.004
-1.920E-06,0.008
-1.910E-06,0.008
-1.900E-06,0.000
-1.890E-06,0.008
-1.880E-06,0.008
-1.870E-06,0.004
-1.860E-06,0.004
-1.850E-06,0.012
-1.840E-06,0.012
-1.830E-06,0.008
-1.820E-06,-0.008
-1.810E-06,-0.012
-1.800E-06,0.000
-1.790E-06,0.000
-1.780E-06,0.008
-1.770E-06,0.008
-1.760E-06,0.012
-1.750E-06,0.008
-1.740E-06,0.004
-1.730E-06,0.000
-1.720E-06,0.004
-1.710E-06,0.000
-1.700E-06,0.000
-1.690E-06,0.004
-1.680E-06,-0.004
-1.670E-06,-0.004
-1.660E-06,0.004
-1.650E-06,0.008
-1.640E-06,0.004
-1.630E-06,0.012
-1.620E-06,0.000
-1.610E-06,0.000
-1.600E-06,0.008
-1.590E-06,0.016
-1.580E-06,0.008
-1.570E-06,0.024
-1.560E-06,0.008
-1.550E-06,0.004
-1.540E-06,0.000
-1.530E-06,0.008
-1.520E-06,0.008
-1.510E-06,0.000
-1.500E-06,0.012
-1.490E-06,0.008
-1.480E-06,0.008
-1.470E-06,-0.008
-1.460E-06,-0.004
-1.450E-06,0.004
-1.440E-06,0.020
-1.430E-06,0.032
-1.420E-06,0.024
-1.410E-06,0.024
-1.400E-06,0.016
-1.390E-06,0.012
-1.380E-06,0.008
-1.370E-06,0.056
-1.360E-06,0.020
-1.350E-06,0.072
-1.340E-06,0.008
-1.330E-06,0.032
-1.320E-06,0.020
-1.310E-06,-0.012
-1.300E-06,-0.020
-1.290E-06,-0.040
-1.280E-06,-0.044
-1.270E-06,-0.012
-1.260E-06,0.020
-1.250E-06,0.028
-1.240E-06,0.040
-1.230E-06,0.012
-1.220E-06,0.004
-1.210E-06,-0.004
-1.200E-06,0.020
-1.190E-06,0.032
-1.180E-06,0.056
-1.170E-06,0.056
-1.160E-06,0.044
-1.150E-06,0.024
-1.140E-06,-0.012
-1.130E-06,-0.004
-1.120E-06,-0.008
-1.110E-06,0.032
-1.100E-06,0.024
-1.090E-06,0.020
-1.080E-06,0.004
-1.070E-06,-0.068
-1.060E-06,-0.084
-1.050E-06,-0.104
-1.040E-06,-0.080
-1.030E-06,-0.020
-1.020E-06,0.024
-1.010E-06,0.072
-1.000E-06,0.032
-9.900E-07,0.008
-9.800E-07,-0.024
-9.700E-07,-0.040
-9.600E-07,-0.024
-9.500E-07,0.008
-9.400E-07,0.052
-9.300E-07,0.080
-9.200E-07,0.080
-9.100E-07,0.040
-9.000E-07,0.012
-8.900E-07,-0.008
-8.800E-07,-0.004
-8.700E-07,0.016
-8.600E-07,0.048
-8.500E-07,0.088
-8.400E-07,0.080
-8.300E-07,0.052
-8.200E-07,0.008
-8.100E-07,-0.028
-8.000E-07,-0.044
-7.900E-07,-0.020
-7.800E-07,-0.008
-7.700E-07,0.020
-7.600E-07,0.040
-7.500E-07,0.056
-7.400E-07,0.044
-7.300E-07,0.032
-7.200E-07,0.044
-7.100E-07,0.056
-7.000E-07,0.056
-6.900E-07,0.060
-6.800E-07,0.052
-6.700E-07,0.048
-6.600E-07,0.056
-6.500E-07,0.076
-6.400E-07,0.072
-6.300E-07,0.052
-6.200E-07,0.088
-6.100E-07,0.092
-6.000E-07,0.072
-5.900E-07,-0.004
-5.800E-07,-0.100
-5.700E-07,-0.172
-5.600E-07,-0.216
-5.500E-07,-0.176
-5.400E-07,-0.120
-5.300E-07,0.036
-5.200E-07,0.072
-5.100E-07,0.092
-5.000E-07,-0.012
-4.900E-07,-0.112
-4.800E-07,-0.108
-4.700E-07,-0.056
-4.600E-07,0.052
-4.500E-07,0.112
-4.400E-07,0.184
-4.300E-07,0.192
-4.200E-07,0.060
-4.100E-07,-0.072
-4.000E-07,-0.136
-3.900E-07,-0.124
-3.800E-07,-0.096
-3.700E-07,-0.040
-3.600E-07,0.044
-3.500E-07,0.044
-3.400E-07,0.060
-3.300E-07,0.072
-3.200E-07,0.080
-3.100E-07,-0.056
-3.000E-07,-0.064
-2.900E-07,-0.084
-2.800E-07,-0.036
-2.700E-07,0.044
-2.600E-07,0.096
-2.500E-07,0.112
-2.400E-07,0.112
-2.300E-07,0.084
-2.200E-07,0.020
-2.100E-07,-0.044
-2.000E-07,-0.068
-1.900E-07,-0.020
-1.800E-07,0.068
-1.700E-07,0.136
-1.600E-07,0.156
-1.500E-07,0.164
-1.400E-07,0.076
-1.300E-07,0.136
-1.200E-07,0.096
-1.100E-07,0.144
-1.000E-07,0.108
-9.000E-08,0.232
-8.000E-08,0.056
-7.000E-08,-0.136
-6.000E-08,-0.148
-5.000E-08,-0.356
-4.000E-08,-0.280
-3.000E-08,-0.152
-2.000E-08,0.068
-1.000E-08,0.308
0.000E+00,0.288
1.000E-08,0.164
2.000E-08,-0.064
3.000E-08,-0.104
4.000E-08,-0.192
5.000E-08,-0.056
6.000E-08,-0.244
7.000E-08,-0.204
8.000E-08,-0.200
9.000E-08,0.016
1.000E-07,0.000
1.100E-07,0.024
1.200E-07,0.072
1.300E-07,0.012
1.400E-07,-0.156
1.500E-07,-0.240
1.600E-07,-0.120
1.700E-07,0.000
1.800E-07,0.184
1.900E-07,0.192
2.000E-07,0.064
2.100E-07,0.008
2.200E-07,-0.068
2.300E-07,-0.084
2.400E-07,-0.052
2.500E-07,0.004
2.600E-07,0.092
2.700E-07,0.128
2.800E-07,0.104
2.900E-07,0.044
3.000E-07,-0.020
3.100E-07,-0.032
3.200E-07,-0.004
3.300E-07,0.024
3.400E-07,0.048
3.500E-07,0.072
3.600E-07,0.084
3.700E-07,0.052
3.800E-07,0.020
3.900E-07,-0.016
4.000E-07,0.012
4.100E-07,0.028
4.200E-07,0.076
4.300E-07,0.092
4.400E-07,0.088
4.500E-07,0.104
4.600E-07,0.044
4.700E-07,0.036
4.800E-07,0.072
4.900E-07,0.104
5.000E-07,0.100
5.100E-07,0.120
5.200E-07,0.064
5.300E-07,0.056
5.400E-07,0.060
5.500E-07,0.088
5.600E-07,0.140
5.700E-07,0.124
5.800E-07,0.248
5.900E-07,0.104
6.000E-07,0.144
6.100E-07,0.072
6.200E-07,-0.036
6.300E-07,0.276
6.400E-07,-0.072
6.500E-07,-0.060
6.600E-07,-0.512
6.700E-07,-0.508
6.800E-07,-0.484
6.900E-07,-0.136
7.000E-07,0.276
7.100E-07,0.540
7.200E-07,0.540
7.300E-07,0.312
7.400E-07,-0.296
7.500E-07,-0.508
7.600E-07,-0.508
7.700E-07,-0.284
7.800E-07,0.020
7.900E-07,0.444
8.000E-07,0.500
8.100E-07,0.096
8.200E-07,0.004
8.300E-07,-0.436
8.400E-07,-0.324
8.500E-07,-0.252
8.600E-07,0.108
8.700E-07,0.340
8.800E-07,0.368
8.900E-07,0.232
9.000E-07,-0.084
9.100E-07,-0.204
9.200E-07,-0.284
9.300E-07,-0.132
9.400E-07,0.060
9.500E-07,0.272
9.600E-07,0.320
9.700E-07,0.256
9.800E-07,0.124
9.900E-07,0.020
1.000E-06,0.000
1.010E-06,0.076
1.020E-06,0.176
1.030E-06,0.260
1.040E-06,0.296
1.050E-06,0.232
1.060E-06,0.164
1.070E-06,0.084
1.080E-06,0.020
1.090E-06,0.064
1.100E-06,0.144
1.110E-06,0.200
1.120E-06,0.204
1.130E-06,0.108
1.140E-06,-0.056
1.150E-06,-0.120
1.160E-06,-0.128
1.170E-06,0.008
1.180E-06,0.056
1.190E-06,0.012
1.200E-06,0.472
1.210E-06,0.072
1.220E-06,0.320
1.230E-06,0.084
1.240E-06,0.032
1.250E-06,0.028
1.260E-06,0.212
1.270E-06,0.284
1.280E-06,0.248
1.290E-06,0.312
1.300E-06,0.172
1.310E-06,0.160
1.320E-06,0.136
1.330E-06,0.120
1.340E-06,0.160
1.350E-06,0.228
1.360E-06,0.256
1.370E-06,0.276
1.380E-06,0.220
1.390E-06,0.184
1.400E-06,0.132
1.410E-06,0.128
1.420E-06,0.168
1.430E-06,0.204
1.440E-06,0.264
1.450E-06,0.264
1.460E-06,0.244
1.470E-06,0.188
1.480E-06,0.124
1.490E-06,0.076
1.500E-06,0.088
1.510E-06,0.024
1.520E-06,0.068
1.530E-06,-0.056
1.540E-06,-0.068
1.550E-06,0.156
1.560E-06,-0.172
1.570E-06,0.088
1.580E-06,0.020
1.590E-06,0.140
1.600E-06,0.372
1.610E-06,0.136
1.620E-06,0.440
1.630E-06,0.180
1.640E-06,0.260
1.650E-06,0.176
1.660E-06,0.064
1.670E-06,0.136
1.680E-06,0.128
1.690E-06,0.296
1.700E-06,0.260
1.710E-06,0.292
1.720E-06,0.192
1.730E-06,0.140
1.740E-06,0.140
1.750E-06,0.164
1.760E-06,0.208
1.770E-06,0.240
1.780E-06,0.264
1.790E-06,0.244
1.800E-06,0.224
1.810E-06,0.176
1.820E-06,0.164
1.830E-06,0.156
1.840E-06,0.204
1.850E-06,0.220
1.860E-06,0.256
1.870E-06,0.244
1.880E-06,0.220
1.890E-06,0.192
1.900E-06,0.176
1.910E-06,0.176
1.920E-06,0.192
1.930E-06,0.220
1.940E-06,0.228
1.950E-06,0.244
1.960E-06,0.224
1.970E-06,0.204
1.980E-06,0.184
1.990E-06,0.180
2.000E-06,0.184
2.010E-06,0.204
2.020E-06,0.220
2.030E-06,0.220
2.040E-06,0.220
2.050E-06,0.204
2.060E-06,0.192
2.070E-06,0.188
2.080E-06,0.192
2.090E-06,0.196
2.100E-06,0.212
2.110E-06,0.220
2.120E-06,0.208
2.130E-06,0.204
2.140E-06,0.196
2.150E-06,0.188
2.160E-06,0.176
2.170E-06,0.188
2.180E-06,0.192
2.190E-06,0.200
2.200E-06,0.208
2.210E-06,0.208
2.220E-06,0.196
2.230E-06,0.196
2.240E-06,0.184
2.250E-06,0.184
2.260E-06,0.188
2.270E-06,0.200
2.280E-06,0.204
2.290E-06,0.204
2.300E-06,0.196
2.310E-06,0.192
2.320E-06,0.184
2.330E-06,0.184
2.340E-06,0.184
2.350E-06,0.188
2.360E-06,0.196
2.370E-06,0.200
2.380E-06,0.200
2.390E-06,0.188
2.400E-06,0.184
2.410E-06,0.176
2.420E-06,0.184
2.430E-06,0.192
2.440E-06,0.192
2.450E-06,0.192
2.460E-06,0.192
2.470E-06,0.192
2.480E-06,0.188
2.490E-06,0.188
2.500E-06,0.184
2.510E-06,0.188
2.520E-06,0.192
2.530E-06,0.196
2.540E-06,0.196
2.550E-06,0.200
2.560E-06,0.196
2.570E-06,0.188
2.580E-06,0.184
2.590E-06,0.184
2.600E-06,0.188
2.610E-06,0.188
2.620E-06,0.188
2.630E-06,0.192
2.640E-06,0.192
2.650E-06,0.176
2.660E-06,0.176
2.670E-06,0.180
2.680E-06,0.176
2.690E-06,0.184
2.700E-06,0.188
2.710E-06,0.188
2.720E-06,0.188
2.730E-06,0.192
2.740E-06,0.192
2.750E-06,0.176
2.760E-06,0.176
2.770E-06,0.176
2.780E-06,0.176
2.790E-06,0.180
2.800E-06,0.180
2.810E-06,0.188
2.820E-06,0.188
2.830E-06,0.184
2.840E-06,0.176
2.850E-06,0.176
2.860E-06,0.176
2.870E-06,0.180
2.880E-06,0.188
2.890E-06,0.184
2.900E-06,0.188
2.910E-06,0.180
2.920E-06,0.172
2.930E-06,0.176
2.940E-06,0.172
2.950E-06,0.184
2.960E-06,0.188
2.970E-06,0.184
2.980E-06,0.180
2.990E-06,0.180
3.000E-06,0.172
3.010E-06,0.176
3.020E-06,0.176
3.030E-06,0.180
3.040E-06,0.176
3.050E-06,0.176
3.060E-06,0.176
3.070E-06,0.184
3.080E-06,0.192
3.090E-06,0.192
3.100E-06,0.184
3.110E-06,0.180
3.120E-06,0.172
3.130E-06,0.160
3.140E-06,0.160
3.150E-06,0.164
3.160E-06,0.172
3.170E-06,0.172
3.180E-06,0.168
3.190E-06,0.172
3.200E-06,0.160
3.210E-06,0.160
3.220E-06,0.160
3.230E-06,0.160
3.240E-06,0.160
3.250E-06,0.168
3.260E-06,0.176
3.270E-06,0.168
3.280E-06,0.168
3.290E-06,0.164
3.300E-06,0.152
3.310E-06,0.152
3.320E-06,0.156
3.330E-06,0.156
3.340E-06,0.168
3.350E-06,0.168
3.360E-06,0.160
3.370E-06,0.160
3.380E-06,0.152
3.390E-06,0.156
3.400E-06,0.160
3.410E-06,0.156
3.420E-06,0.160
3.430E-06,0.164
3.440E-06,0.156
3.450E-06,0.152
3.460E-06,0.144
3.470E-06,0.144
3.480E-06,0.144
3.490E-06,0.152
3.500E-06,0.156
3.510E-06,0.160
3.520E-06,0.156
3.530E-06,0.152
3.540E-06,0.152
3.550E-06,0.140
3.560E-06,0.144
3.570E-06,0.144
3.580E-06,0.152
3.590E-06,0.152
3.600E-06,0.148
3.610E-06,0.148
3.620E-06,0.148
3.630E-06,0.140
3.640E-06,0.140
3.650E-06,0.140
3.660E-06,0.140
3.670E-06,0.140
3.680E-06,0.144
3.690E-06,0.144
3.700E-06,0.140
3.710E-06,0.144
3.720E-06,0.136
3.730E-06,0.136
3.740E-06,0.136
3.750E-06,0.136
3.760E-06,0.136
3.770E-06,0.136
3.780E-06,0.144
3.790E-06,0.140
3.800E-06,0.140
3.810E-06,0.136
3.820E-06,0.144
3.830E-06,0.132
3.840E-06,0.136
3.850E-06,0.140
3.860E-06,0.144
3.870E-06,0.144
3.880E-06,0.136
3.890E-06,0.136
3.900E-06,0.128
3.910E-06,0.132
3.920E-06,0.128
3.930E-06,0.124
3.940E-06,0.128
3.950E-06,0.140
3.960E-06,0.136
3.970E-06,0.140
3.980E-06,0.132
3.990E-06,0.128
4.000E-06,0.124
4.010E-06,0.128
4.020E-06,0.136
4.030E-06,0.136
4.040E-06,0.136
4.050E-06,0.132
4.060E-06,0.132
4.070E-06,0.128
4.080E-06,0.124
4.090E-06,0.124
4.100E-06,0.124
4.110E-06,0.128
4.120E-06,0.132
4.130E-06,0.128
4.140E-06,0.128
4.150E-06,0.124
4.160E-06,0.124
4.170E-06,0.120
4.180E-06,0.124
4.190E-06,0.128
4.200E-06,0.128
4.210E-06,0.128
4.220E-06,0.124
4.230E-06,0.124
4.240E-06,0.112
4.250E-06,0.120
4.260E-06,0.124
4.270E-06,0.124
4.280E-06,0.124
4.290E-06,0.124
4.300E-06,0.124
4.310E-06,0.124
4.320E-06,0.112
4.330E-06,0.112
4.340E-06,0.116
4.350E-06,0.120
4.360E-06,0.124
4.370E-06,0.124
4.380E-06,0.120
4.390E-06,0.120
4.400E-06,0.112
4.410E-06,0.108
4.420E-06,0.108
4.430E-06,0.112
4.440E-06,0.112
4.450E-06,0.112
4.460E-06,0.120
4.470E-06,0.120
4.480E-06,0.108
4.490E-06,0.104
4.500E-06,0.108
4.510E-06,0.108
4.520E-06,0.104
4.530E-06,0.112
4.540E-06,0.112
4.550E-06,0.112
4.560E-06,0.112
4.570E-06,0.108
4.580E-06,0.104
4.590E-06,0.104
4.600E-06,0.104
4.610E-06,0.108
4.620E-06,0.108
4.630E-06,0.108
4.640E-06,0.104
4.650E-06,0.104
4.660E-06,0.096
4.670E-06,0.096
4.680E-06,0.096
4.690E-06,0.096
4.700E-06,0.096
4.710E-06,0.104
4.720E-06,0.104
4.730E-06,0.104
4.740E-06,0.100
4.750E-06,0.096
4.760E-06,0.096
4.770E-06,0.096
4.780E-06,0.092
4.790E-06,0.096
4.800E-06,0.096
4.810E-06,0.092
4.820E-06,0.096
4.830E-06,0.096
4.840E-06,0.092
4.850E-06,0.092
4.860E-06,0.100
4.870E-06,0.100
4.880E-06,0.096
4.890E-06,0.092
4.900E-06,0.092
4.910E-06,0.088
4.920E-06,0.088
4.930E-06,0.096
4.940E-06,0.096
4.950E-06,0.088
4.960E-06,0.088
4.970E-06,0.084
4.980E-06,0.088
4.990E-06,0.088
5.000E-06,0.092
5.010E-06,0.092
5.020E-06,0.088
5.030E-06,0.092
5.040E-06,0.088
5.050E-06,0.084
5.060E-06,0.088
5.070E-06,0.080
5.080E-06,0.084
5.090E-06,0.084
5.100E-06,0.084
5.110E-06,0.076
5.120E-06,0.076
5.130E-06,0.076
5.140E-06,0.080
5.150E-06,0.072
5.160E-06,0.076
5.170E-06,0.072
5.180E-06,0.076
5.190E-06,0.080
5.200E-06,0.072
5.210E-06,0.076
5.220E-06,0.076
5.230E-06,0.076
5.240E-06,0.076
5.250E-06,0.080
5.260E-06,0.080
5.270E-06,0.076
5.280E-06,0.072
5.290E-06,0.072
5.300E-06,0.072
5.310E-06,0.076
5.320E-06,0.076
5.330E-06,0.076
5.340E-06,0.072
5.350E-06,0.076
5.360E-06,0.072
5.370E-06,0.064
5.380E-06,0.064
5.390E-06,0.068
5.400E-06,0.068
5.410E-06,0.068
5.420E-06,0.072
5.430E-06,0.076
5.440E-06,0.068
5.450E-06,0.064
5.460E-06,0.060
5.470E-06,0.060
5.480E-06,0.064
5.490E-06,0.072
5.500E-06,0.072
5.510E-06,0.072
5.520E-06,0.068
5.530E-06,0.064
5.540E-06,0.060
5.550E-06,0.064
5.560E-06,0.064
5.570E-06,0.060
5.580E-06,0.072
5.590E-06,0.068
5.600E-06,0.064
5.610E-06,0.064
5.620E-06,0.064
5.630E-06,0.060
5.640E-06,0.060
5.650E-06,0.068
5.660E-06,0.064
5.670E-06,0.064
5.680E-06,0.064
5.690E-06,0.068
5.700E-06,0.068
5.710E-06,0.064
5.720E-06,0.068
5.730E-06,0.064
5.740E-06,0.060
5.750E-06,0.064
5.760E-06,0.056
5.770E-06,0.056
5.780E-06,0.064
5.790E-06,0.060
5.800E-06,0.056
5.810E-06,0.060
5.820E-06,0.056
5.830E-06,0.052
5.840E-06,0.056
5.850E-06,0.064
5.860E-06,0.064
5.870E-06,0.064
5.880E-06,0.068
5.890E-06,0.060
5.900E-06,0.044
5.910E-06,0.044
5.920E-06,0.048
5.930E-06,0.052
5.940E-06,0.064
5.950E-06,0.068
5.960E-06,0.064
5.970E-06,0.056
5.980E-06,0.052
5.990E-06,0.040
6.000E-06,0.040
6.010E-06,0.040
6.020E-06,0.056
6.030E-06,0.068
6.040E-06,0.068
6.050E-06,0.056
6.060E-06,0.048
6.070E-06,0.040
6.080E-06,0.036
6.090E-06,0.044
6.100E-06,0.052
6.110E-06,0.056
6.120E-06,0.060
6.130E-06,0.056
6.140E-06,0.044
6.150E-06,0.040
6.160E-06,0.036
6.170E-06,0.036
6.180E-06,0.044
6.190E-06,0.052
6.200E-06,0.060
6.210E-06,0.056
6.220E-06,0.048
6.230E-06,0.040
6.240E-06,0.036
6.250E-06,0.040
6.260E-06,0.044
6.270E-06,0.048
6.280E-06,0.048
6.290E-06,0.048
6.300E-06,0.044
6.310E-06,0.036
6.320E-06,0.028
6.330E-06,0.032
6.340E-06,0.040
6.350E-06,0.036
6.360E-06,0.044
6.370E-06,0.044
6.380E-06,0.040
6.390E-06,0.040
6.400E-06,0.032
6.410E-06,0.024
6.420E-06,0.032
6.430E-06,0.028
6.440E-06,0.036
6.450E-06,0.044
6.460E-06,0.032
6.470E-06,0.028
6.480E-06,0.028
6.490E-06,0.032
6.500E-06,0.028
6.510E-06,0.032
6.520E-06,0.032
6.530E-06,0.032
6.540E-06,0.036
6.550E-06,0.028
6.560E-06,0.024
6.570E-06,0.024
6.580E-06,0.024
6.590E-06,0.028
6.600E-06,0.028
6.610E-06,0.032
6.620E-06,0.028
6.630E-06,0.024
6.640E-06,0.028
6.650E-06,0.024
6.660E-06,0.028
6.670E-06,0.024
6.680E-06,0.020
6.690E-06,0.020
6.700E-06,0.028
6.710E-06,0.032
6.720E-06,0.028
6.730E-06,0.020
6.740E-06,0.024
6.750E-06,0.028
6.760E-06,0.024
6.770E-06,0.028
6.780E-06,0.028
6.790E-06,0.020
6.800E-06,0.020
6.810E-06,0.020
6.820E-06,0.016
6.830E-06,0.020
6.840E-06,0.020
6.850E-06,0.024
6.860E-06,0.020
6.870E-06,0.020
6.880E-06,0.016
6.890E-06,0.020
6.900E-06,0.020
6.910E-06,0.020
6.920E-06,0.020
6.930E-06,0.024
6.940E-06,0.020
6.950E-06,0.016
6.960E-06,0.016
6.970E-06,0.020
6.980E-06,0.016
6.990E-06,0.016
7.000E-06,0.016
7.010E-06,0.012
7.020E-06,0.016
7.030E-06,0.016
7.040E-06,0.012
7.050E-06,0.012
7.060E-06,0.012
7.070E-06,0.016
7.080E-06,0.016
7.090E-06,0.012
7.100E-06,0.012
7.110E-06,0.012
7.120E-06,0.016
7.130E-06,0.012
7.140E-06,0.016
7.150E-06,0.008
7.160E-06,0.008
7.170E-06,0.012
7.180E-06,0.008
7.190E-06,0.012
7.200E-06,0.012
7.210E-06,0.012
7.220E-06,0.008
7.230E-06,0.012
7.240E-06,0.012
7.250E-06,0.012
7.260E-06,0.008
7.270E-06,0.008
7.280E-06,0.012
7.290E-06,0.012
7.300E-06,0.012
7.310E-06,0.008
7.320E-06,0.008
7.330E-06,0.008
7.340E-06,0.012
7.350E-06,0.012
7.360E-06,0.004
7.370E-06,0.008
7.380E-06,0.008
7.390E-06,0.008
7.400E-06,0.008
7.410E-06,0.008
7.420E-06,0.008
7.430E-06,0.008
7.440E-06,0.008
7.450E-06,0.008
7.460E-06,0.008
7.470E-06,0.008
7.480E-06,0.004
7.490E-06,0.004
7.500E-06,0.004
7.510E-06,0.008
7.520E-06,0.008
7.530E-06,0.004
7.540E-06,0.004
7.550E-06,0.004
7.560E-06,0.000
7.570E-06,0.004
7.580E-06,0.004
7.590E-06,0.000
7.600E-06,0.004
7.610E-06,0.004
7.620E-06,0.004
7.630E-06,0.004
7.640E-06,0.008
7.650E-06,-0.004
7.660E-06,0.000
7.670E-06,0.000
7.680E-06,0.000
7.690E-06,0.004
7.700E-06,0.004
7.710E-06,0.004
7.720E-06,-0.004
7.730E-06,0.000
7.740E-06,0.000
7.750E-06,0.000
7.760E-06,-0.004
7.770E-06,0.000
7.780E-06,0.000
7.790E-06,-0.004
7.800E-06,-0.004
7.810E-06,0.000
7.820E-06,0.004
7.830E-06,-0.008
7.840E-06,-0.008
7.850E-06,0.004
