mediciones/6-10/50/WaveData551.csv

#timebase=2000000(ps)
,#voltbase=500000(mv/100)
#size=4000
-4.250E-06,0.060
-4.240E-06,0.100
-4.230E-06,0.140
-4.220E-06,0.060
-4.210E-06,0.020
-4.200E-06,0.020
-4.190E-06,0.140
-4.180E-06,0.260
-4.170E-06,0.320
-4.160E-06,0.340
-4.150E-06,0.240
-4.140E-06,0.140
-4.130E-06,0.120
-4.120E-06,0.100
-4.110E-06,0.180
-4.100E-06,0.140
-4.090E-06,0.060
-4.080E-06,0.020
-4.070E-06,0.020
-4.060E-06,0.020
-4.050E-06,0.060
-4.040E-06,0.060
-4.030E-06,0.060
-4.020E-06,-0.040
-4.010E-06,-0.080
-4.000E-06,-0.100
-3.990E-06,-0.120
-3.980E-06,-0.040
-3.970E-06,0.060
-3.960E-06,0.060
-3.950E-06,0.100
-3.940E-06,0.060
-3.930E-06,0.000
-3.920E-06,-0.040
-3.910E-06,0.220
-3.900E-06,-0.240
-3.890E-06,0.020
-3.880E-06,0.320
-3.870E-06,0.220
-3.860E-06,0.460
-3.850E-06,0.500
-3.840E-06,0.060
-3.830E-06,0.180
-3.820E-06,0.000
-3.810E-06,-0.020
-3.800E-06,0.320
-3.790E-06,0.300
-3.780E-06,0.300
-3.770E-06,0.220
-3.760E-06,0.000
-3.750E-06,-0.100
-3.740E-06,-0.080
-3.730E-06,-0.040
-3.720E-06,0.040
-3.710E-06,0.040
-3.700E-06,0.040
-3.690E-06,0.100
-3.680E-06,-0.060
-3.670E-06,-0.100
-3.660E-06,-0.200
-3.650E-06,-0.200
-3.640E-06,-0.100
-3.630E-06,-0.060
-3.620E-06,0.000
-3.610E-06,0.020
-3.600E-06,-0.060
-3.590E-06,-0.140
-3.580E-06,-0.160
-3.570E-06,-0.100
-3.560E-06,0.020
-3.550E-06,0.080
-3.540E-06,0.120
-3.530E-06,0.040
-3.520E-06,0.100
-3.510E-06,0.120
-3.500E-06,0.200
-3.490E-06,0.320
-3.480E-06,0.280
-3.470E-06,0.280
-3.460E-06,0.220
-3.450E-06,0.120
-3.440E-06,0.160
-3.430E-06,0.180
-3.420E-06,0.200
-3.410E-06,0.280
-3.400E-06,0.240
-3.390E-06,0.160
-3.380E-06,0.040
-3.370E-06,-0.020
-3.360E-06,-0.020
-3.350E-06,-0.020
-3.340E-06,0.080
-3.330E-06,0.060
-3.320E-06,-0.020
-3.310E-06,-0.060
-3.300E-06,-0.100
-3.290E-06,-0.060
-3.280E-06,0.000
-3.270E-06,0.020
-3.260E-06,0.000
-3.250E-06,-0.020
-3.240E-06,-0.080
-3.230E-06,-0.060
-3.220E-06,-0.040
-3.210E-06,-0.040
-3.200E-06,-0.020
-3.190E-06,-0.020
-3.180E-06,-0.020
-3.170E-06,-0.020
-3.160E-06,0.000
-3.150E-06,0.000
-3.140E-06,0.020
-3.130E-06,0.040
-3.120E-06,-0.020
-3.110E-06,0.020
-3.100E-06,0.040
-3.090E-06,0.080
-3.080E-06,0.120
-3.070E-06,0.100
-3.060E-06,0.040
-3.050E-06,0.040
-3.040E-06,-0.060
-3.030E-06,-0.040
-3.020E-06,-0.100
-3.010E-06,-0.040
-3.000E-06,0.180
-2.990E-06,0.280
-2.980E-06,0.340
-2.970E-06,0.320
-2.960E-06,0.120
-2.950E-06,0.040
-2.940E-06,0.000
-2.930E-06,0.060
-2.920E-06,0.220
-2.910E-06,0.220
-2.900E-06,0.180
-2.890E-06,0.120
-2.880E-06,0.060
-2.870E-06,0.080
-2.860E-06,0.120
-2.850E-06,0.200
-2.840E-06,0.160
-2.830E-06,0.200
-2.820E-06,0.180
-2.810E-06,0.180
-2.800E-06,0.180
-2.790E-06,0.200
-2.780E-06,0.180
-2.770E-06,0.200
-2.760E-06,0.120
-2.750E-06,0.060
-2.740E-06,0.020
-2.730E-06,0.060
-2.720E-06,0.080
-2.710E-06,0.100
-2.700E-06,0.060
-2.690E-06,0.180
-2.680E-06,-0.180
-2.670E-06,0.020
-2.660E-06,-0.060
-2.650E-06,0.060
-2.640E-06,-0.380
-2.630E-06,0.480
-2.620E-06,-0.060
-2.610E-06,0.220
-2.600E-06,0.340
-2.590E-06,-0.180
-2.580E-06,0.320
-2.570E-06,0.060
-2.560E-06,0.160
-2.550E-06,0.340
-2.540E-06,0.200
-2.530E-06,0.060
-2.520E-06,0.220
-2.510E-06,0.000
-2.500E-06,0.080
-2.490E-06,0.140
-2.480E-06,0.100
-2.470E-06,0.000
-2.460E-06,-0.040
-2.450E-06,-0.080
-2.440E-06,-0.120
-2.430E-06,0.000
-2.420E-06,-0.080
-2.410E-06,-0.060
-2.400E-06,-0.060
-2.390E-06,-0.140
-2.380E-06,-0.180
-2.370E-06,-0.100
-2.360E-06,-0.160
-2.350E-06,0.000
-2.340E-06,-0.020
-2.330E-06,-0.080
-2.320E-06,-0.060
-2.310E-06,-0.080
-2.300E-06,-0.080
-2.290E-06,0.040
-2.280E-06,0.000
-2.270E-06,0.080
-2.260E-06,0.100
-2.250E-06,0.040
-2.240E-06,0.100
-2.230E-06,0.180
-2.220E-06,0.160
-2.210E-06,0.140
-2.200E-06,0.320
-2.190E-06,-0.020
-2.180E-06,0.340
-2.170E-06,0.080
-2.160E-06,0.300
-2.150E-06,0.400
-2.140E-06,0.320
-2.130E-06,0.480
-2.120E-06,0.340
-2.110E-06,0.420
-2.100E-06,0.400
-2.090E-06,0.460
-2.080E-06,0.340
-2.070E-06,0.320
-2.060E-06,0.320
-2.050E-06,0.200
-2.040E-06,0.240
-2.030E-06,0.220
-2.020E-06,0.180
-2.010E-06,0.200
-2.000E-06,0.180
-1.990E-06,0.100
-1.980E-06,0.160
-1.970E-06,0.080
-1.960E-06,0.100
-1.950E-06,0.080
-1.940E-06,0.000
-1.930E-06,-0.040
-1.920E-06,-0.040
-1.910E-06,-0.080
-1.900E-06,-0.060
-1.890E-06,-0.040
-1.880E-06,-0.040
-1.870E-06,-0.060
-1.860E-06,-0.080
-1.850E-06,0.020
-1.840E-06,-0.040
-1.830E-06,0.040
-1.820E-06,0.020
-1.810E-06,0.000
-1.800E-06,0.040
-1.790E-06,-0.220
-1.780E-06,-0.240
-1.770E-06,-0.100
-1.760E-06,0.080
-1.750E-06,0.500
-1.740E-06,0.640
-1.730E-06,0.660
-1.720E-06,0.520
-1.710E-06,0.320
-1.700E-06,0.260
-1.690E-06,0.460
-1.680E-06,0.600
-1.670E-06,0.840
-1.660E-06,0.740
-1.650E-06,0.540
-1.640E-06,0.520
-1.630E-06,0.340
-1.620E-06,0.600
-1.610E-06,0.560
-1.600E-06,0.820
-1.590E-06,0.240
-1.580E-06,0.440
-1.570E-06,0.100
-1.560E-06,-0.020
-1.550E-06,0.300
-1.540E-06,0.140
-1.530E-06,0.160
-1.520E-06,0.160
-1.510E-06,0.020
-1.500E-06,0.260
-1.490E-06,0.260
-1.480E-06,0.340
-1.470E-06,0.420
-1.460E-06,0.260
-1.450E-06,0.320
-1.440E-06,0.240
-1.430E-06,0.100
-1.420E-06,0.140
-1.410E-06,-0.080
-1.400E-06,-0.140
-1.390E-06,-0.180
-1.380E-06,-0.080
-1.370E-06,-0.140
-1.360E-06,-0.100
-1.350E-06,-0.800
-1.340E-06,-0.460
-1.330E-06,-0.540
-1.320E-06,-0.120
-1.310E-06,0.680
-1.300E-06,0.520
-1.290E-06,1.040
-1.280E-06,0.680
-1.270E-06,0.140
-1.260E-06,0.180
-1.250E-06,0.180
-1.240E-06,0.460
-1.230E-06,0.660
-1.220E-06,0.620
-1.210E-06,0.120
-1.200E-06,0.240
-1.190E-06,-0.200
-1.180E-06,-0.440
-1.170E-06,-0.420
-1.160E-06,-0.520
-1.150E-06,-0.360
-1.140E-06,-0.180
-1.130E-06,-0.060
-1.120E-06,-0.160
-1.110E-06,-0.260
-1.100E-06,-0.680
-1.090E-06,-0.800
-1.080E-06,-0.760
-1.070E-06,-0.640
-1.060E-06,-0.420
-1.050E-06,-0.240
-1.040E-06,-0.460
-1.030E-06,-0.680
-1.020E-06,-0.360
-1.010E-06,-0.380
-1.000E-06,0.260
-9.900E-07,0.460
-9.800E-07,0.460
-9.700E-07,0.440
-9.600E-07,0.300
-9.500E-07,0.400
-9.400E-07,0.420
-9.300E-07,0.920
-9.200E-07,0.820
-9.100E-07,0.720
-9.000E-07,0.540
-8.900E-07,0.420
-8.800E-07,0.260
-8.700E-07,0.160
-8.600E-07,0.060
-8.500E-07,0.480
-8.400E-07,0.520
-8.300E-07,0.220
-8.200E-07,0.700
-8.100E-07,-0.060
-8.000E-07,0.220
-7.900E-07,0.320
-7.800E-07,0.700
-7.700E-07,0.440
-7.600E-07,0.040
-7.500E-07,0.000
-7.400E-07,-0.580
-7.300E-07,0.160
-7.200E-07,0.240
-7.100E-07,0.260
-7.000E-07,0.420
-6.900E-07,-0.400
-6.800E-07,-0.360
-6.700E-07,-0.080
-6.600E-07,-0.080
-6.500E-07,0.280
-6.400E-07,0.220
-6.300E-07,-0.220
-6.200E-07,-0.200
-6.100E-07,-0.360
-6.000E-07,-0.320
-5.900E-07,-0.120
-5.800E-07,-0.040
-5.700E-07,-0.020
-5.600E-07,-0.060
-5.500E-07,0.020
-5.400E-07,-0.160
-5.300E-07,0.140
-5.200E-07,-0.020
-5.100E-07,0.100
-5.000E-07,0.120
-4.900E-07,0.240
-4.800E-07,0.220
-4.700E-07,0.260
-4.600E-07,0.200
-4.500E-07,-0.100
-4.400E-07,-0.080
-4.300E-07,-0.160
-4.200E-07,-0.100
-4.100E-07,-0.880
-4.000E-07,-0.300
-3.900E-07,-0.900
-3.800E-07,0.560
-3.700E-07,1.480
-3.600E-07,1.700
-3.500E-07,1.880
-3.400E-07,0.660
-3.300E-07,-0.020
-3.200E-07,-0.480
-3.100E-07,0.000
-3.000E-07,0.760
-2.900E-07,1.260
-2.800E-07,0.760
-2.700E-07,0.320
-2.600E-07,-0.720
-2.500E-07,-0.940
-2.400E-07,-1.040
-2.300E-07,-0.740
-2.200E-07,-0.340
-2.100E-07,-0.520
-2.000E-07,-0.220
-1.900E-07,-0.600
-1.800E-07,-0.380
-1.700E-07,-0.340
-1.600E-07,-0.600
-1.500E-07,-0.680
-1.400E-07,-0.640
-1.300E-07,-0.620
-1.200E-07,-0.380
-1.100E-07,-0.160
-1.000E-07,-0.040
-9.000E-08,0.060
-8.000E-08,0.160
-7.000E-08,0.320
-6.000E-08,0.520
-5.000E-08,0.820
-4.000E-08,1.000
-3.000E-08,0.960
-2.000E-08,0.840
-1.000E-08,0.440
0.000E+00,0.220
1.000E-08,0.860
2.000E-08,0.740
3.000E-08,1.320
4.000E-08,1.740
5.000E-08,0.820
6.000E-08,0.980
7.000E-08,-0.100
8.000E-08,-0.320
9.000E-08,0.300
1.000E-07,0.520
1.100E-07,1.500
1.200E-07,1.240
1.300E-07,0.940
1.400E-07,0.220
1.500E-07,-0.360
1.600E-07,-0.360
1.700E-07,-0.500
1.800E-07,0.000
1.900E-07,0.200
2.000E-07,-0.160
2.100E-07,-0.280
2.200E-07,-1.120
2.300E-07,-1.140
2.400E-07,-0.880
2.500E-07,-0.860
2.600E-07,-0.440
2.700E-07,-0.500
2.800E-07,-0.640
2.900E-07,-0.560
3.000E-07,-0.540
3.100E-07,-0.360
3.200E-07,-0.260
3.300E-07,-0.300
3.400E-07,-0.300
3.500E-07,-0.220
3.600E-07,-0.320
3.700E-07,-0.100
3.800E-07,0.040
3.900E-07,0.080
4.000E-07,0.340
4.100E-07,0.360
4.200E-07,0.320
4.300E-07,0.340
4.400E-07,0.080
4.500E-07,0.040
4.600E-07,-0.600
4.700E-07,-0.300
4.800E-07,0.000
4.900E-07,0.460
5.000E-07,1.160
5.100E-07,0.900
5.200E-07,0.760
5.300E-07,0.300
5.400E-07,0.200
5.500E-07,0.340
5.600E-07,0.420
5.700E-07,0.920
5.800E-07,0.860
5.900E-07,0.400
6.000E-07,0.180
6.100E-07,-0.420
6.200E-07,-0.520
6.300E-07,-0.400
6.400E-07,-0.320
6.500E-07,0.240
6.600E-07,0.220
6.700E-07,0.300
6.800E-07,0.220
6.900E-07,-0.020
7.000E-07,-0.060
7.100E-07,0.000
7.200E-07,0.120
7.300E-07,0.400
7.400E-07,0.480
7.500E-07,0.420
7.600E-07,0.300
7.700E-07,0.120
7.800E-07,-0.020
7.900E-07,-0.100
8.000E-07,0.000
8.100E-07,-0.020
8.200E-07,0.000
8.300E-07,0.000
8.400E-07,-0.040
8.500E-07,-0.180
8.600E-07,-0.340
8.700E-07,-0.440
8.800E-07,-0.600
8.900E-07,-0.860
9.000E-07,-0.980
9.100E-07,-1.060
9.200E-07,-1.140
9.300E-07,-1.100
9.400E-07,-1.100
9.500E-07,-0.980
9.600E-07,-1.120
9.700E-07,-1.300
9.800E-07,-1.300
9.900E-07,-1.700
1.000E-06,-1.900
1.010E-06,-1.720
1.020E-06,-2.120
1.030E-06,-1.920
1.040E-06,-2.080
1.050E-06,-2.360
1.060E-06,-1.920
1.070E-06,-2.280
1.080E-06,-1.620
1.090E-06,-1.240
1.100E-06,-1.160
1.110E-06,-1.000
1.120E-06,-1.500
1.130E-06,-2.220
1.140E-06,-1.520
1.150E-06,-1.940
1.160E-06,-1.040
1.170E-06,-0.500
1.180E-06,-1.040
1.190E-06,-0.120
1.200E-06,-1.080
1.210E-06,-1.460
1.220E-06,-0.960
1.230E-06,-1.120
1.240E-06,-0.840
1.250E-06,-0.740
1.260E-06,-0.580
1.270E-06,-2.080
1.280E-06,-1.200
1.290E-06,-2.000
1.300E-06,-2.180
1.310E-06,-0.080
1.320E-06,-0.820
1.330E-06,1.380
1.340E-06,0.420
1.350E-06,0.160
1.360E-06,0.700
1.370E-06,0.020
1.380E-06,0.100
1.390E-06,-0.740
1.400E-06,-0.860
1.410E-06,-1.900
1.420E-06,-1.440
1.430E-06,-0.760
1.440E-06,-0.580
1.450E-06,0.440
1.460E-06,0.340
1.470E-06,0.020
1.480E-06,0.080
1.490E-06,0.260
1.500E-06,0.520
1.510E-06,0.820
1.520E-06,0.580
1.530E-06,0.360
1.540E-06,0.100
1.550E-06,-0.340
1.560E-06,-0.300
1.570E-06,-0.120
1.580E-06,-0.320
1.590E-06,-0.160
1.600E-06,-0.240
1.610E-06,-0.060
1.620E-06,0.060
1.630E-06,0.160
1.640E-06,0.100
1.650E-06,0.120
1.660E-06,0.100
1.670E-06,0.140
1.680E-06,0.240
1.690E-06,0.080
1.700E-06,0.080
1.710E-06,-0.100
1.720E-06,-0.220
1.730E-06,-0.380
1.740E-06,-0.420
1.750E-06,-0.580
1.760E-06,-0.580
1.770E-06,-0.420
1.780E-06,-0.160
1.790E-06,0.060
1.800E-06,0.300
1.810E-06,0.420
1.820E-06,0.460
1.830E-06,0.420
1.840E-06,0.360
1.850E-06,0.260
1.860E-06,0.240
1.870E-06,0.160
1.880E-06,0.060
1.890E-06,-0.100
1.900E-06,-0.240
1.910E-06,-0.340
1.920E-06,-0.480
1.930E-06,-0.560
1.940E-06,-0.540
1.950E-06,-0.620
1.960E-06,-0.620
1.970E-06,-0.740
1.980E-06,-0.760
1.990E-06,-0.740
2.000E-06,-0.620
2.010E-06,-0.440
2.020E-06,-0.300
2.030E-06,-0.060
2.040E-06,-0.060
2.050E-06,0.040
2.060E-06,-0.020
2.070E-06,0.080
2.080E-06,0.160
2.090E-06,0.040
2.100E-06,0.180
2.110E-06,0.060
2.120E-06,0.100
2.130E-06,0.380
2.140E-06,0.500
2.150E-06,0.800
2.160E-06,0.940
2.170E-06,0.880
2.180E-06,0.780
2.190E-06,0.500
2.200E-06,0.280
2.210E-06,0.080
2.220E-06,-0.040
2.230E-06,-0.120
2.240E-06,-0.180
2.250E-06,-0.240
2.260E-06,-0.280
2.270E-06,-0.360
2.280E-06,-0.400
2.290E-06,-0.420
2.300E-06,-0.480
2.310E-06,-0.380
2.320E-06,-0.360
2.330E-06,-0.320
2.340E-06,-0.300
2.350E-06,-0.320
2.360E-06,-0.360
2.370E-06,-0.380
2.380E-06,-0.460
2.390E-06,-0.520
2.400E-06,-0.520
2.410E-06,-0.560
2.420E-06,-0.620
2.430E-06,-0.680
2.440E-06,-0.720
2.450E-06,-0.760
2.460E-06,-0.840
2.470E-06,-0.800
2.480E-06,-0.760
2.490E-06,-0.760
2.500E-06,-0.720
2.510E-06,-0.640
2.520E-06,-0.540
2.530E-06,-0.500
2.540E-06,-0.400
2.550E-06,-0.260
2.560E-06,-0.160
2.570E-06,-0.020
2.580E-06,0.060
2.590E-06,0.160
2.600E-06,0.260
2.610E-06,0.380
2.620E-06,0.420
2.630E-06,0.500
2.640E-06,0.500
2.650E-06,0.500
2.660E-06,0.500
2.670E-06,0.500
2.680E-06,0.520
2.690E-06,0.500
2.700E-06,0.420
2.710E-06,0.420
2.720E-06,0.380
2.730E-06,0.320
2.740E-06,0.300
2.750E-06,0.240
2.760E-06,0.240
2.770E-06,0.220
2.780E-06,0.200
2.790E-06,0.180
2.800E-06,0.160
2.810E-06,0.160
2.820E-06,0.180
2.830E-06,0.180
2.840E-06,0.160
2.850E-06,0.200
2.860E-06,0.220
2.870E-06,0.220
2.880E-06,0.220
2.890E-06,0.240
2.900E-06,0.240
2.910E-06,0.240
2.920E-06,0.220
2.930E-06,0.160
2.940E-06,0.160
2.950E-06,0.180
2.960E-06,0.140
2.970E-06,0.120
2.980E-06,0.120
2.990E-06,0.080
3.000E-06,0.100
3.010E-06,0.080
3.020E-06,0.100
3.030E-06,0.080
3.040E-06,0.040
3.050E-06,0.020
3.060E-06,0.040
3.070E-06,0.000
3.080E-06,0.000
3.090E-06,0.060
3.100E-06,0.020
3.110E-06,0.040
3.120E-06,0.040
3.130E-06,0.040
3.140E-06,0.080
3.150E-06,0.080
3.160E-06,0.060
3.170E-06,0.120
3.180E-06,0.180
3.190E-06,0.240
3.200E-06,0.340
3.210E-06,0.400
3.220E-06,0.500
3.230E-06,0.560
3.240E-06,0.580
3.250E-06,0.620
3.260E-06,0.620
3.270E-06,0.620
3.280E-06,0.620
3.290E-06,0.620
3.300E-06,0.600
3.310E-06,0.560
3.320E-06,0.540
3.330E-06,0.480
3.340E-06,0.400
3.350E-06,0.340
3.360E-06,0.360
3.370E-06,0.320
3.380E-06,0.340
3.390E-06,0.320
3.400E-06,0.280
3.410E-06,0.240
3.420E-06,0.220
3.430E-06,0.180
3.440E-06,0.160
3.450E-06,0.080
3.460E-06,0.020
3.470E-06,0.040
3.480E-06,-0.020
3.490E-06,-0.040
3.500E-06,-0.060
3.510E-06,-0.080
3.520E-06,-0.060
3.530E-06,0.020
3.540E-06,-0.020
3.550E-06,-0.020
3.560E-06,0.000
3.570E-06,-0.060
3.580E-06,0.020
3.590E-06,0.060
3.600E-06,0.080
3.610E-06,0.020
3.620E-06,0.060
3.630E-06,0.000
3.640E-06,0.040
3.650E-06,0.040
3.660E-06,0.100
3.670E-06,0.080
3.680E-06,0.180
3.690E-06,0.200
3.700E-06,0.260
3.710E-06,0.340
3.720E-06,0.320
3.730E-06,0.340
3.740E-06,0.320
3.750E-06,0.240
3.760E-06,0.240
3.770E-06,0.160
3.780E-06,0.200
3.790E-06,0.200
3.800E-06,0.200
3.810E-06,0.240
3.820E-06,0.180
3.830E-06,0.140
3.840E-06,0.080
3.850E-06,-0.020
3.860E-06,0.000
3.870E-06,0.000
3.880E-06,0.000
3.890E-06,-0.020
3.900E-06,0.000
3.910E-06,-0.020
3.920E-06,0.020
3.930E-06,0.020
3.940E-06,0.040
3.950E-06,0.120
3.960E-06,0.080
3.970E-06,0.080
3.980E-06,0.100
3.990E-06,0.040
4.000E-06,0.120
4.010E-06,0.120
4.020E-06,0.220
4.030E-06,0.240
4.040E-06,0.180
4.050E-06,0.200
4.060E-06,0.160
4.070E-06,0.160
4.080E-06,0.140
4.090E-06,0.040
4.100E-06,-0.020
4.110E-06,-0.040
4.120E-06,-0.100
4.130E-06,-0.060
4.140E-06,-0.080
4.150E-06,-0.080
4.160E-06,-0.140
4.170E-06,-0.200
4.180E-06,-0.260
4.190E-06,-0.320
4.200E-06,-0.320
4.210E-06,-0.300
4.220E-06,-0.220
4.230E-06,-0.140
4.240E-06,-0.100
4.250E-06,0.000
4.260E-06,0.040
4.270E-06,0.080
4.280E-06,0.100
4.290E-06,0.120
4.300E-06,0.160
4.310E-06,0.200
4.320E-06,0.220
4.330E-06,0.240
4.340E-06,0.240
4.350E-06,0.240
4.360E-06,0.240
4.370E-06,0.340
4.380E-06,0.240
4.390E-06,0.260
4.400E-06,0.320
4.410E-06,0.280
4.420E-06,0.260
4.430E-06,0.260
4.440E-06,0.280
4.450E-06,0.340
4.460E-06,0.440
4.470E-06,0.480
4.480E-06,0.440
4.490E-06,0.420
4.500E-06,0.440
4.510E-06,0.460
4.520E-06,0.480
4.530E-06,0.440
4.540E-06,0.460
4.550E-06,0.460
4.560E-06,0.420
4.570E-06,0.380
4.580E-06,0.340
4.590E-06,0.320
4.600E-06,0.260
4.610E-06,0.200
4.620E-06,0.180
4.630E-06,0.120
4.640E-06,0.040
4.650E-06,0.040
4.660E-06,0.040
4.670E-06,0.060
4.680E-06,0.060
4.690E-06,0.120
4.700E-06,0.160
4.710E-06,0.220
4.720E-06,0.240
4.730E-06,0.240
4.740E-06,0.300
4.750E-06,0.340
4.760E-06,0.300
4.770E-06,0.260
4.780E-06,0.240
4.790E-06,0.240
4.800E-06,0.240
4.810E-06,0.280
4.820E-06,0.320
4.830E-06,0.360
4.840E-06,0.360
4.850E-06,0.380
4.860E-06,0.340
4.870E-06,0.340
4.880E-06,0.280
4.890E-06,0.260
4.900E-06,0.260
4.910E-06,0.240
4.920E-06,0.200
4.930E-06,0.160
4.940E-06,0.160
4.950E-06,0.180
4.960E-06,0.220
4.970E-06,0.220
4.980E-06,0.260
4.990E-06,0.380
5.000E-06,0.400
5.010E-06,0.440
5.020E-06,0.460
5.030E-06,0.460
5.040E-06,0.380
5.050E-06,0.400
5.060E-06,0.420
5.070E-06,0.360
5.080E-06,0.380
5.090E-06,0.360
5.100E-06,0.380
5.110E-06,0.360
5.120E-06,0.380
5.130E-06,0.360
5.140E-06,0.340
5.150E-06,0.260
5.160E-06,0.240
5.170E-06,0.220
5.180E-06,0.180
5.190E-06,0.140
5.200E-06,0.080
5.210E-06,0.100
5.220E-06,0.080
5.230E-06,0.060
5.240E-06,0.080
5.250E-06,0.060
5.260E-06,0.100
5.270E-06,0.120
5.280E-06,0.140
5.290E-06,0.160
5.300E-06,0.160
5.310E-06,0.160
5.320E-06,0.160
5.330E-06,0.160
5.340E-06,0.100
5.350E-06,0.060
5.360E-06,0.020
5.370E-06,0.000
5.380E-06,-0.040
5.390E-06,-0.020
5.400E-06,-0.040
5.410E-06,-0.020
5.420E-06,0.040
5.430E-06,0.080
5.440E-06,0.160
5.450E-06,0.240
5.460E-06,0.260
5.470E-06,0.280
5.480E-06,0.260
5.490E-06,0.260
5.500E-06,0.220
5.510E-06,0.220
5.520E-06,0.260
5.530E-06,0.320
5.540E-06,0.380
5.550E-06,0.520
5.560E-06,0.640
5.570E-06,0.760
5.580E-06,0.860
5.590E-06,0.920
5.600E-06,1.000
5.610E-06,1.020
5.620E-06,1.000
5.630E-06,0.980
5.640E-06,0.920
5.650E-06,0.860
5.660E-06,0.860
5.670E-06,0.800
5.680E-06,0.720
5.690E-06,0.680
5.700E-06,0.640
5.710E-06,0.580
5.720E-06,0.560
5.730E-06,0.500
5.740E-06,0.460
5.750E-06,0.420
5.760E-06,0.360
5.770E-06,0.300
5.780E-06,0.260
5.790E-06,0.160
5.800E-06,0.160
5.810E-06,0.180
5.820E-06,0.200
5.830E-06,0.260
5.840E-06,0.380
5.850E-06,0.460
5.860E-06,0.520
5.870E-06,0.560
5.880E-06,0.560
5.890E-06,0.520
5.900E-06,0.440
5.910E-06,0.360
5.920E-06,0.300
5.930E-06,0.300
5.940E-06,0.320
5.950E-06,0.420
5.960E-06,0.500
5.970E-06,0.640
5.980E-06,0.760
5.990E-06,0.840
6.000E-06,0.860
6.010E-06,0.840
6.020E-06,0.840
6.030E-06,0.860
6.040E-06,0.800
6.050E-06,0.720
6.060E-06,0.680
6.070E-06,0.620
6.080E-06,0.600
6.090E-06,0.560
6.100E-06,0.560
6.110E-06,0.580
6.120E-06,0.560
6.130E-06,0.560
6.140E-06,0.540
6.150E-06,0.500
6.160E-06,0.460
6.170E-06,0.380
6.180E-06,0.360
6.190E-06,0.360
6.200E-06,0.360
6.210E-06,0.360
6.220E-06,0.360
6.230E-06,0.240
6.240E-06,0.220
6.250E-06,0.160
6.260E-06,0.200
6.270E-06,0.240
6.280E-06,0.280
6.290E-06,0.320
6.300E-06,0.340
6.310E-06,0.420
6.320E-06,0.420
6.330E-06,0.500
6.340E-06,0.560
6.350E-06,0.580
6.360E-06,0.600
6.370E-06,0.640
6.380E-06,0.640
6.390E-06,0.640
6.400E-06,0.760
6.410E-06,0.740
6.420E-06,0.680
6.430E-06,0.740
6.440E-06,0.740
6.450E-06,0.780
6.460E-06,0.980
6.470E-06,0.980
6.480E-06,0.920
6.490E-06,0.960
6.500E-06,0.940
6.510E-06,0.980
6.520E-06,1.060
6.530E-06,1.040
6.540E-06,1.040
6.550E-06,1.000
6.560E-06,1.040
6.570E-06,1.080
6.580E-06,1.100
6.590E-06,1.120
6.600E-06,1.160
6.610E-06,1.180
6.620E-06,1.160
6.630E-06,1.180
6.640E-06,1.180
6.650E-06,1.200
6.660E-06,1.300
6.670E-06,1.440
6.680E-06,1.660
6.690E-06,1.940
6.700E-06,2.300
6.710E-06,2.640
6.720E-06,2.740
6.730E-06,2.760
6.740E-06,2.760
6.750E-06,2.760
6.760E-06,2.740
6.770E-06,2.760
6.780E-06,2.760
6.790E-06,2.760
6.800E-06,2.780
6.810E-06,2.760
6.820E-06,2.740
6.830E-06,2.760
6.840E-06,2.760
6.850E-06,2.740
6.860E-06,2.760
6.870E-06,2.760
6.880E-06,2.740
6.890E-06,2.760
6.900E-06,2.780
6.910E-06,2.780
6.920E-06,2.760
6.930E-06,2.760
6.940E-06,2.620
6.950E-06,2.400
6.960E-06,2.200
6.970E-06,1.960
6.980E-06,1.760
6.990E-06,1.520
7.000E-06,1.340
7.010E-06,1.160
7.020E-06,1.000
7.030E-06,0.920
7.040E-06,0.820
7.050E-06,0.780
7.060E-06,0.780
7.070E-06,0.720
7.080E-06,0.760
7.090E-06,0.820
7.100E-06,0.880
7.110E-06,0.880
7.120E-06,0.880
7.130E-06,0.840
7.140E-06,0.840
7.150E-06,0.860
7.160E-06,0.860
7.170E-06,0.820
7.180E-06,0.800
7.190E-06,0.820
7.200E-06,0.800
7.210E-06,0.840
7.220E-06,0.860
7.230E-06,0.840
7.240E-06,0.820
7.250E-06,0.820
7.260E-06,0.800
7.270E-06,0.800
7.280E-06,0.820
7.290E-06,0.780
7.300E-06,0.780
7.310E-06,0.760
7.320E-06,0.780
7.330E-06,0.740
7.340E-06,0.660
7.350E-06,0.680
7.360E-06,0.620
7.370E-06,0.580
7.380E-06,0.560
7.390E-06,0.540
7.400E-06,0.540
7.410E-06,0.500
7.420E-06,0.560
7.430E-06,0.540
7.440E-06,0.540
7.450E-06,0.500
7.460E-06,0.480
7.470E-06,0.480
7.480E-06,0.420
7.490E-06,0.440
7.500E-06,0.400
7.510E-06,0.420
7.520E-06,0.420
7.530E-06,0.420
7.540E-06,0.440
7.550E-06,0.400
7.560E-06,0.420
7.570E-06,0.440
7.580E-06,0.440
7.590E-06,0.420
7.600E-06,0.460
7.610E-06,0.500
7.620E-06,0.480
7.630E-06,0.480
7.640E-06,0.500
7.650E-06,0.500
7.660E-06,0.500
7.670E-06,0.520
7.680E-06,0.480
7.690E-06,0.500
7.700E-06,0.500
7.710E-06,0.520
7.720E-06,0.540
