mediciones/Mediciones filtradas (saque las feas)/5-27/-17.5/WaveData51103.csv

#timebase=2000000(ps)
,#voltbase=1000000(mv/100)
#size=4000
-7.300E-06,-0.480
-7.290E-06,-0.600
-7.280E-06,-0.720
-7.270E-06,-0.800
-7.260E-06,-0.840
-7.250E-06,-0.720
-7.240E-06,-0.720
-7.230E-06,-0.640
-7.220E-06,-0.520
-7.210E-06,-0.440
-7.200E-06,-0.360
-7.190E-06,-0.120
-7.180E-06,0.000
-7.170E-06,0.080
-7.160E-06,0.200
-7.150E-06,0.160
-7.140E-06,0.240
-7.130E-06,0.360
-7.120E-06,0.360
-7.110E-06,0.360
-7.100E-06,0.360
-7.090E-06,0.360
-7.080E-06,0.320
-7.070E-06,0.200
-7.060E-06,0.120
-7.050E-06,0.080
-7.040E-06,0.000
-7.030E-06,0.000
-7.020E-06,-0.040
-7.010E-06,-0.120
-7.000E-06,-0.160
-6.990E-06,-0.200
-6.980E-06,-0.240
-6.970E-06,-0.240
-6.960E-06,-0.280
-6.950E-06,-0.240
-6.940E-06,-0.280
-6.930E-06,-0.280
-6.920E-06,-0.240
-6.910E-06,-0.240
-6.900E-06,-0.200
-6.890E-06,-0.080
-6.880E-06,-0.080
-6.870E-06,0.000
-6.860E-06,0.040
-6.850E-06,0.120
-6.840E-06,0.160
-6.830E-06,0.240
-6.820E-06,0.280
-6.810E-06,0.320
-6.800E-06,0.320
-6.790E-06,0.320
-6.780E-06,0.240
-6.770E-06,0.240
-6.760E-06,0.200
-6.750E-06,0.160
-6.740E-06,0.040
-6.730E-06,0.000
-6.720E-06,0.000
-6.710E-06,-0.040
-6.700E-06,-0.040
-6.690E-06,-0.080
-6.680E-06,-0.080
-6.670E-06,-0.120
-6.660E-06,-0.160
-6.650E-06,-0.080
-6.640E-06,-0.080
-6.630E-06,-0.160
-6.620E-06,-0.120
-6.610E-06,-0.160
-6.600E-06,-0.200
-6.590E-06,-0.160
-6.580E-06,-0.200
-6.570E-06,-0.120
-6.560E-06,-0.120
-6.550E-06,-0.080
-6.540E-06,-0.040
-6.530E-06,0.000
-6.520E-06,0.040
-6.510E-06,0.000
-6.500E-06,0.120
-6.490E-06,0.200
-6.480E-06,0.200
-6.470E-06,0.240
-6.460E-06,0.280
-6.450E-06,0.320
-6.440E-06,0.280
-6.430E-06,0.240
-6.420E-06,0.240
-6.410E-06,0.240
-6.400E-06,0.200
-6.390E-06,0.160
-6.380E-06,0.120
-6.370E-06,0.120
-6.360E-06,0.080
-6.350E-06,0.040
-6.340E-06,0.040
-6.330E-06,-0.040
-6.320E-06,-0.040
-6.310E-06,-0.040
-6.300E-06,-0.040
-6.290E-06,0.000
-6.280E-06,-0.040
-6.270E-06,0.000
-6.260E-06,0.000
-6.250E-06,0.000
-6.240E-06,0.000
-6.230E-06,0.000
-6.220E-06,0.000
-6.210E-06,0.040
-6.200E-06,0.040
-6.190E-06,0.040
-6.180E-06,0.120
-6.170E-06,0.120
-6.160E-06,0.080
-6.150E-06,0.080
-6.140E-06,0.120
-6.130E-06,0.200
-6.120E-06,0.200
-6.110E-06,0.200
-6.100E-06,0.200
-6.090E-06,0.240
-6.080E-06,0.240
-6.070E-06,0.160
-6.060E-06,0.160
-6.050E-06,0.160
-6.040E-06,0.160
-6.030E-06,0.240
-6.020E-06,0.200
-6.010E-06,0.160
-6.000E-06,0.120
-5.990E-06,0.160
-5.980E-06,0.160
-5.970E-06,0.160
-5.960E-06,0.200
-5.950E-06,0.160
-5.940E-06,0.160
-5.930E-06,0.160
-5.920E-06,0.160
-5.910E-06,0.120
-5.900E-06,0.040
-5.890E-06,0.040
-5.880E-06,0.080
-5.870E-06,0.000
-5.860E-06,0.040
-5.850E-06,0.040
-5.840E-06,0.000
-5.830E-06,0.080
-5.820E-06,0.040
-5.810E-06,0.040
-5.800E-06,-0.040
-5.790E-06,-0.040
-5.780E-06,0.000
-5.770E-06,0.040
-5.760E-06,0.120
-5.750E-06,0.080
-5.740E-06,0.080
-5.730E-06,0.000
-5.720E-06,0.040
-5.710E-06,0.080
-5.700E-06,0.200
-5.690E-06,0.200
-5.680E-06,0.120
-5.670E-06,0.080
-5.660E-06,0.120
-5.650E-06,0.120
-5.640E-06,0.160
-5.630E-06,0.240
-5.620E-06,0.280
-5.610E-06,0.200
-5.600E-06,0.200
-5.590E-06,0.160
-5.580E-06,0.200
-5.570E-06,0.200
-5.560E-06,0.240
-5.550E-06,0.240
-5.540E-06,0.200
-5.530E-06,0.120
-5.520E-06,0.120
-5.510E-06,0.120
-5.500E-06,0.200
-5.490E-06,0.160
-5.480E-06,0.200
-5.470E-06,0.160
-5.460E-06,0.000
-5.450E-06,0.000
-5.440E-06,0.000
-5.430E-06,0.000
-5.420E-06,0.000
-5.410E-06,0.000
-5.400E-06,-0.120
-5.390E-06,-0.120
-5.380E-06,-0.040
-5.370E-06,-0.120
-5.360E-06,-0.080
-5.350E-06,-0.080
-5.340E-06,-0.080
-5.330E-06,-0.120
-5.320E-06,-0.040
-5.310E-06,-0.040
-5.300E-06,-0.040
-5.290E-06,0.000
-5.280E-06,-0.040
-5.270E-06,0.000
-5.260E-06,0.000
-5.250E-06,0.080
-5.240E-06,0.160
-5.230E-06,0.200
-5.220E-06,0.240
-5.210E-06,0.160
-5.200E-06,0.200
-5.190E-06,0.200
-5.180E-06,0.240
-5.170E-06,0.240
-5.160E-06,0.240
-5.150E-06,0.280
-5.140E-06,0.320
-5.130E-06,0.280
-5.120E-06,0.200
-5.110E-06,0.240
-5.100E-06,0.200
-5.090E-06,0.240
-5.080E-06,0.160
-5.070E-06,0.120
-5.060E-06,0.160
-5.050E-06,0.080
-5.040E-06,0.040
-5.030E-06,0.040
-5.020E-06,0.040
-5.010E-06,0.000
-5.000E-06,0.040
-4.990E-06,0.000
-4.980E-06,0.000
-4.970E-06,-0.040
-4.960E-06,0.000
-4.950E-06,-0.080
-4.940E-06,0.000
-4.930E-06,-0.040
-4.920E-06,0.040
-4.910E-06,0.040
-4.900E-06,0.120
-4.890E-06,0.120
-4.880E-06,0.000
-4.870E-06,0.000
-4.860E-06,0.000
-4.850E-06,-0.040
-4.840E-06,0.040
-4.830E-06,0.120
-4.820E-06,0.120
-4.810E-06,0.080
-4.800E-06,0.040
-4.790E-06,0.040
-4.780E-06,0.000
-4.770E-06,-0.040
-4.760E-06,0.040
-4.750E-06,0.120
-4.740E-06,0.040
-4.730E-06,0.080
-4.720E-06,0.080
-4.710E-06,0.120
-4.700E-06,0.040
-4.690E-06,0.040
-4.680E-06,0.120
-4.670E-06,0.160
-4.660E-06,0.200
-4.650E-06,0.200
-4.640E-06,0.200
-4.630E-06,0.240
-4.620E-06,0.240
-4.610E-06,0.240
-4.600E-06,0.280
-4.590E-06,0.320
-4.580E-06,0.320
-4.570E-06,0.320
-4.560E-06,0.320
-4.550E-06,0.360
-4.540E-06,0.240
-4.530E-06,0.240
-4.520E-06,0.240
-4.510E-06,0.240
-4.500E-06,0.160
-4.490E-06,0.160
-4.480E-06,0.160
-4.470E-06,0.160
-4.460E-06,0.160
-4.450E-06,0.120
-4.440E-06,0.160
-4.430E-06,0.040
-4.420E-06,0.000
-4.410E-06,0.000
-4.400E-06,0.040
-4.390E-06,0.080
-4.380E-06,0.120
-4.370E-06,0.040
-4.360E-06,0.040
-4.350E-06,0.080
-4.340E-06,0.040
-4.330E-06,0.120
-4.320E-06,0.160
-4.310E-06,0.200
-4.300E-06,0.160
-4.290E-06,0.200
-4.280E-06,0.120
-4.270E-06,0.120
-4.260E-06,0.160
-4.250E-06,0.160
-4.240E-06,0.160
-4.230E-06,0.240
-4.220E-06,0.160
-4.210E-06,0.120
-4.200E-06,0.160
-4.190E-06,0.200
-4.180E-06,0.200
-4.170E-06,0.120
-4.160E-06,0.160
-4.150E-06,0.160
-4.140E-06,0.120
-4.130E-06,0.160
-4.120E-06,0.200
-4.110E-06,0.160
-4.100E-06,0.200
-4.090E-06,0.160
-4.080E-06,0.200
-4.070E-06,0.240
-4.060E-06,0.240
-4.050E-06,0.280
-4.040E-06,0.280
-4.030E-06,0.200
-4.020E-06,0.160
-4.010E-06,0.200
-4.000E-06,0.160
-3.990E-06,0.240
-3.980E-06,0.240
-3.970E-06,0.240
-3.960E-06,0.240
-3.950E-06,0.240
-3.940E-06,0.200
-3.930E-06,0.200
-3.920E-06,0.120
-3.910E-06,0.160
-3.900E-06,0.160
-3.890E-06,0.120
-3.880E-06,0.160
-3.870E-06,0.200
-3.860E-06,0.200
-3.850E-06,0.120
-3.840E-06,0.200
-3.830E-06,0.200
-3.820E-06,0.240
-3.810E-06,0.240
-3.800E-06,0.280
-3.790E-06,0.240
-3.780E-06,0.320
-3.770E-06,0.360
-3.760E-06,0.320
-3.750E-06,0.280
-3.740E-06,0.320
-3.730E-06,0.280
-3.720E-06,0.280
-3.710E-06,0.320
-3.700E-06,0.320
-3.690E-06,0.320
-3.680E-06,0.320
-3.670E-06,0.360
-3.660E-06,0.160
-3.650E-06,0.280
-3.640E-06,0.240
-3.630E-06,0.280
-3.620E-06,0.320
-3.610E-06,0.240
-3.600E-06,0.280
-3.590E-06,0.240
-3.580E-06,0.240
-3.570E-06,0.240
-3.560E-06,0.200
-3.550E-06,0.240
-3.540E-06,0.240
-3.530E-06,0.240
-3.520E-06,0.240
-3.510E-06,0.160
-3.500E-06,0.240
-3.490E-06,0.280
-3.480E-06,0.320
-3.470E-06,0.280
-3.460E-06,0.320
-3.450E-06,0.320
-3.440E-06,0.360
-3.430E-06,0.320
-3.420E-06,0.320
-3.410E-06,0.360
-3.400E-06,0.360
-3.390E-06,0.360
-3.380E-06,0.360
-3.370E-06,0.360
-3.360E-06,0.320
-3.350E-06,0.320
-3.340E-06,0.240
-3.330E-06,0.240
-3.320E-06,0.160
-3.310E-06,0.160
-3.300E-06,0.200
-3.290E-06,0.200
-3.280E-06,0.200
-3.270E-06,0.240
-3.260E-06,0.360
-3.250E-06,0.360
-3.240E-06,0.400
-3.230E-06,0.360
-3.220E-06,0.400
-3.210E-06,0.320
-3.200E-06,0.200
-3.190E-06,0.200
-3.180E-06,0.240
-3.170E-06,0.280
-3.160E-06,0.280
-3.150E-06,0.160
-3.140E-06,0.120
-3.130E-06,0.120
-3.120E-06,0.080
-3.110E-06,0.160
-3.100E-06,0.120
-3.090E-06,0.160
-3.080E-06,0.120
-3.070E-06,0.160
-3.060E-06,0.040
-3.050E-06,0.080
-3.040E-06,0.120
-3.030E-06,0.120
-3.020E-06,0.120
-3.010E-06,0.080
-3.000E-06,0.000
-2.990E-06,0.040
-2.980E-06,0.080
-2.970E-06,0.160
-2.960E-06,0.200
-2.950E-06,0.080
-2.940E-06,0.120
-2.930E-06,0.160
-2.920E-06,0.200
-2.910E-06,0.160
-2.900E-06,0.160
-2.890E-06,0.280
-2.880E-06,0.160
-2.870E-06,0.160
-2.860E-06,0.280
-2.850E-06,0.320
-2.840E-06,0.440
-2.830E-06,0.480
-2.820E-06,0.640
-2.810E-06,0.720
-2.800E-06,0.720
-2.790E-06,0.880
-2.780E-06,0.880
-2.770E-06,0.880
-2.760E-06,0.960
-2.750E-06,1.000
-2.740E-06,1.000
-2.730E-06,0.960
-2.720E-06,1.000
-2.710E-06,0.920
-2.700E-06,1.000
-2.690E-06,1.000
-2.680E-06,1.040
-2.670E-06,0.960
-2.660E-06,0.960
-2.650E-06,1.000
-2.640E-06,0.880
-2.630E-06,0.880
-2.620E-06,0.880
-2.610E-06,0.840
-2.600E-06,0.840
-2.590E-06,0.840
-2.580E-06,0.800
-2.570E-06,0.760
-2.560E-06,0.680
-2.550E-06,0.640
-2.540E-06,0.640
-2.530E-06,0.720
-2.520E-06,0.800
-2.510E-06,0.800
-2.500E-06,0.880
-2.490E-06,0.920
-2.480E-06,0.960
-2.470E-06,0.960
-2.460E-06,0.920
-2.450E-06,0.960
-2.440E-06,0.800
-2.430E-06,0.760
-2.420E-06,0.600
-2.410E-06,0.440
-2.400E-06,0.520
-2.390E-06,0.640
-2.380E-06,0.800
-2.370E-06,1.000
-2.360E-06,0.960
-2.350E-06,0.880
-2.340E-06,0.640
-2.330E-06,0.400
-2.320E-06,0.520
-2.310E-06,0.480
-2.300E-06,0.600
-2.290E-06,0.720
-2.280E-06,0.680
-2.270E-06,0.640
-2.260E-06,0.640
-2.250E-06,0.600
-2.240E-06,0.680
-2.230E-06,0.680
-2.220E-06,0.680
-2.210E-06,0.560
-2.200E-06,0.480
-2.190E-06,0.480
-2.180E-06,0.440
-2.170E-06,0.480
-2.160E-06,0.400
-2.150E-06,0.440
-2.140E-06,0.400
-2.130E-06,0.400
-2.120E-06,0.440
-2.110E-06,0.480
-2.100E-06,0.480
-2.090E-06,0.520
-2.080E-06,0.520
-2.070E-06,0.480
-2.060E-06,0.520
-2.050E-06,0.440
-2.040E-06,0.480
-2.030E-06,0.440
-2.020E-06,0.400
-2.010E-06,0.360
-2.000E-06,0.360
-1.990E-06,0.320
-1.980E-06,0.320
-1.970E-06,0.280
-1.960E-06,0.320
-1.950E-06,0.320
-1.940E-06,0.320
-1.930E-06,0.320
-1.920E-06,0.320
-1.910E-06,0.320
-1.900E-06,0.320
-1.890E-06,0.400
-1.880E-06,0.400
-1.870E-06,0.360
-1.860E-06,0.400
-1.850E-06,0.400
-1.840E-06,0.400
-1.830E-06,0.360
-1.820E-06,0.360
-1.810E-06,0.360
-1.800E-06,0.360
-1.790E-06,0.400
-1.780E-06,0.360
-1.770E-06,0.440
-1.760E-06,0.440
-1.750E-06,0.440
-1.740E-06,0.520
-1.730E-06,0.520
-1.720E-06,0.400
-1.710E-06,0.400
-1.700E-06,0.360
-1.690E-06,0.360
-1.680E-06,0.400
-1.670E-06,0.400
-1.660E-06,0.440
-1.650E-06,0.400
-1.640E-06,0.360
-1.630E-06,0.400
-1.620E-06,0.440
-1.610E-06,0.480
-1.600E-06,0.480
-1.590E-06,0.480
-1.580E-06,0.480
-1.570E-06,0.440
-1.560E-06,0.360
-1.550E-06,0.160
-1.540E-06,0.040
-1.530E-06,-0.080
-1.520E-06,0.040
-1.510E-06,0.160
-1.500E-06,0.520
-1.490E-06,0.760
-1.480E-06,0.520
-1.470E-06,0.400
-1.460E-06,0.000
-1.450E-06,0.080
-1.440E-06,0.480
-1.430E-06,0.680
-1.420E-06,1.040
-1.410E-06,1.040
-1.400E-06,0.720
-1.390E-06,0.760
-1.380E-06,0.840
-1.370E-06,0.760
-1.360E-06,1.160
-1.350E-06,1.240
-1.340E-06,0.920
-1.330E-06,0.920
-1.320E-06,0.440
-1.310E-06,0.320
-1.300E-06,0.120
-1.290E-06,0.080
-1.280E-06,0.240
-1.270E-06,0.160
-1.260E-06,0.360
-1.250E-06,0.400
-1.240E-06,0.360
-1.230E-06,0.400
-1.220E-06,0.280
-1.210E-06,0.160
-1.200E-06,0.120
-1.190E-06,0.200
-1.180E-06,0.280
-1.170E-06,0.400
-1.160E-06,0.440
-1.150E-06,0.400
-1.140E-06,0.320
-1.130E-06,0.280
-1.120E-06,0.320
-1.110E-06,0.480
-1.100E-06,0.560
-1.090E-06,0.880
-1.080E-06,0.800
-1.070E-06,0.760
-1.060E-06,0.640
-1.050E-06,0.520
-1.040E-06,0.560
-1.030E-06,0.520
-1.020E-06,0.600
-1.010E-06,0.600
-1.000E-06,0.600
-9.900E-07,0.520
-9.800E-07,0.640
-9.700E-07,0.560
-9.600E-07,0.680
-9.500E-07,0.680
-9.400E-07,0.600
-9.300E-07,0.720
-9.200E-07,0.840
-9.100E-07,0.880
-9.000E-07,1.000
-8.900E-07,1.120
-8.800E-07,1.160
-8.700E-07,0.960
-8.600E-07,0.800
-8.500E-07,0.720
-8.400E-07,0.840
-8.300E-07,0.920
-8.200E-07,1.040
-8.100E-07,0.920
-8.000E-07,0.880
-7.900E-07,1.000
-7.800E-07,0.960
-7.700E-07,1.000
-7.600E-07,0.840
-7.500E-07,0.760
-7.400E-07,0.520
-7.300E-07,0.480
-7.200E-07,0.600
-7.100E-07,0.680
-7.000E-07,0.720
-6.900E-07,0.640
-6.800E-07,0.360
-6.700E-07,0.080
-6.600E-07,0.000
-6.500E-07,0.240
-6.400E-07,0.480
-6.300E-07,0.840
-6.200E-07,0.760
-6.100E-07,0.760
-6.000E-07,0.600
-5.900E-07,0.600
-5.800E-07,0.600
-5.700E-07,0.640
-5.600E-07,0.680
-5.500E-07,0.680
-5.400E-07,0.680
-5.300E-07,0.800
-5.200E-07,0.840
-5.100E-07,0.840
-5.000E-07,0.720
-4.900E-07,0.560
-4.800E-07,0.400
-4.700E-07,0.320
-4.600E-07,0.280
-4.500E-07,0.160
-4.400E-07,0.080
-4.300E-07,0.000
-4.200E-07,-0.080
-4.100E-07,-0.160
-4.000E-07,-0.240
-3.900E-07,-0.280
-3.800E-07,-0.240
-3.700E-07,-0.240
-3.600E-07,-0.200
-3.500E-07,-0.160
-3.400E-07,-0.080
-3.300E-07,0.080
-3.200E-07,0.160
-3.100E-07,0.240
-3.000E-07,0.320
-2.900E-07,0.400
-2.800E-07,0.480
-2.700E-07,0.520
-2.600E-07,0.520
-2.500E-07,0.560
-2.400E-07,0.560
-2.300E-07,0.480
-2.200E-07,0.440
-2.100E-07,0.320
-2.000E-07,0.280
-1.900E-07,0.240
-1.800E-07,0.120
-1.700E-07,0.080
-1.600E-07,0.040
-1.500E-07,0.000
-1.400E-07,-0.120
-1.300E-07,-0.160
-1.200E-07,-0.120
-1.100E-07,-0.160
-1.000E-07,-0.080
-9.000E-08,-0.080
-8.000E-08,-0.080
-7.000E-08,-0.080
-6.000E-08,-0.400
-5.000E-08,-0.120
-4.000E-08,-0.680
-3.000E-08,-1.040
-2.000E-08,-1.760
-1.000E-08,-2.200
0.000E+00,-1.280
1.000E-08,-1.280
2.000E-08,0.360
3.000E-08,0.520
4.000E-08,0.880
5.000E-08,0.680
6.000E-08,-0.600
7.000E-08,-0.800
8.000E-08,-0.640
9.000E-08,-0.200
1.000E-07,0.360
1.100E-07,0.160
1.200E-07,0.440
1.300E-07,0.400
1.400E-07,0.440
1.500E-07,0.600
1.600E-07,0.600
1.700E-07,0.680
1.800E-07,0.600
1.900E-07,0.560
2.000E-07,0.680
2.100E-07,0.760
2.200E-07,0.720
2.300E-07,0.520
2.400E-07,0.200
2.500E-07,0.000
2.600E-07,-0.320
2.700E-07,-0.040
2.800E-07,-0.160
2.900E-07,0.040
3.000E-07,-0.240
3.100E-07,-0.560
3.200E-07,-0.480
3.300E-07,-0.680
3.400E-07,-0.200
3.500E-07,-0.120
3.600E-07,-0.360
3.700E-07,-0.520
3.800E-07,-0.840
3.900E-07,-0.840
4.000E-07,-0.600
4.100E-07,-0.480
4.200E-07,-0.400
4.300E-07,0.160
4.400E-07,-0.040
4.500E-07,-0.080
4.600E-07,-0.680
4.700E-07,-1.200
4.800E-07,-1.160
4.900E-07,-1.320
5.000E-07,-0.800
5.100E-07,-0.120
5.200E-07,0.400
5.300E-07,0.840
5.400E-07,1.040
5.500E-07,1.160
5.600E-07,1.240
5.700E-07,1.280
5.800E-07,1.360
5.900E-07,1.440
6.000E-07,1.480
6.100E-07,1.480
6.200E-07,1.280
6.300E-07,1.080
6.400E-07,0.880
6.500E-07,0.720
6.600E-07,0.600
6.700E-07,0.440
6.800E-07,0.280
6.900E-07,0.040
7.000E-07,-0.320
7.100E-07,-0.520
7.200E-07,-0.680
7.300E-07,-0.720
7.400E-07,-0.680
7.500E-07,-0.840
7.600E-07,-0.960
7.700E-07,-1.120
7.800E-07,-1.080
7.900E-07,-1.040
8.000E-07,-1.080
8.100E-07,-0.960
8.200E-07,-0.920
8.300E-07,-0.920
8.400E-07,-0.840
8.500E-07,-0.800
8.600E-07,-0.680
8.700E-07,-0.560
8.800E-07,-0.520
8.900E-07,-0.360
9.000E-07,-0.360
9.100E-07,-0.240
9.200E-07,-0.200
9.300E-07,-0.240
9.400E-07,-0.160
9.500E-07,-0.120
9.600E-07,-0.200
9.700E-07,-0.240
9.800E-07,-0.320
9.900E-07,-0.320
1.000E-06,-0.240
1.010E-06,-0.160
1.020E-06,-0.160
1.030E-06,-0.280
1.040E-06,-0.320
1.050E-06,-0.400
1.060E-06,-0.320
1.070E-06,-0.160
1.080E-06,-0.120
1.090E-06,0.040
1.100E-06,0.320
1.110E-06,0.400
1.120E-06,0.680
1.130E-06,0.440
1.140E-06,0.560
1.150E-06,0.360
1.160E-06,0.240
1.170E-06,0.280
1.180E-06,0.080
1.190E-06,0.240
1.200E-06,0.080
1.210E-06,0.040
1.220E-06,0.040
1.230E-06,-0.080
1.240E-06,0.040
1.250E-06,-0.040
1.260E-06,-0.040
1.270E-06,0.000
1.280E-06,-0.120
1.290E-06,0.040
1.300E-06,-0.080
1.310E-06,-0.040
1.320E-06,0.000
1.330E-06,0.080
1.340E-06,0.360
1.350E-06,0.440
1.360E-06,0.520
1.370E-06,0.320
1.380E-06,0.160
1.390E-06,0.000
1.400E-06,0.000
1.410E-06,0.080
1.420E-06,0.120
1.430E-06,0.160
1.440E-06,-0.040
1.450E-06,-0.120
1.460E-06,-0.240
1.470E-06,-0.280
1.480E-06,-0.320
1.490E-06,-0.320
1.500E-06,-0.360
1.510E-06,-0.400
1.520E-06,-0.480
1.530E-06,-0.560
1.540E-06,-0.600
1.550E-06,-0.680
1.560E-06,-0.720
1.570E-06,-0.760
1.580E-06,-0.800
1.590E-06,-0.800
1.600E-06,-0.880
1.610E-06,-0.880
1.620E-06,-0.920
1.630E-06,-0.920
1.640E-06,-0.800
1.650E-06,-0.720
1.660E-06,-0.640
1.670E-06,-0.560
1.680E-06,-0.440
1.690E-06,-0.440
1.700E-06,-0.360
1.710E-06,-0.200
1.720E-06,-0.080
1.730E-06,-0.080
1.740E-06,0.080
1.750E-06,0.040
1.760E-06,0.080
1.770E-06,0.040
1.780E-06,0.000
1.790E-06,-0.080
1.800E-06,-0.160
1.810E-06,-0.240
1.820E-06,-0.280
1.830E-06,-0.320
1.840E-06,-0.320
1.850E-06,-0.360
1.860E-06,-0.360
1.870E-06,-0.440
1.880E-06,-0.520
1.890E-06,-0.400
1.900E-06,-0.200
1.910E-06,-0.080
1.920E-06,-0.120
1.930E-06,-0.240
1.940E-06,-0.320
1.950E-06,-0.400
1.960E-06,-0.360
1.970E-06,-0.360
1.980E-06,-0.200
1.990E-06,0.040
2.000E-06,0.040
2.010E-06,0.120
2.020E-06,0.200
2.030E-06,0.120
2.040E-06,0.240
2.050E-06,0.360
2.060E-06,0.440
2.070E-06,0.600
2.080E-06,0.640
2.090E-06,0.640
2.100E-06,0.800
2.110E-06,0.800
2.120E-06,0.840
2.130E-06,0.760
2.140E-06,0.560
2.150E-06,0.480
2.160E-06,0.400
2.170E-06,0.400
2.180E-06,0.520
2.190E-06,0.520
2.200E-06,0.440
2.210E-06,0.360
2.220E-06,-0.080
2.230E-06,0.120
2.240E-06,-0.960
2.250E-06,-0.520
2.260E-06,0.320
2.270E-06,-2.720
2.280E-06,-1.160
2.290E-06,-3.760
2.300E-06,-3.000
2.310E-06,-1.400
2.320E-06,-0.320
2.330E-06,1.280
2.340E-06,1.120
2.350E-06,0.080
2.360E-06,-0.760
2.370E-06,-1.680
2.380E-06,-0.760
2.390E-06,0.320
2.400E-06,0.800
2.410E-06,1.360
2.420E-06,1.080
2.430E-06,0.480
2.440E-06,0.520
2.450E-06,0.280
2.460E-06,0.320
2.470E-06,0.480
2.480E-06,0.360
2.490E-06,0.200
2.500E-06,0.120
2.510E-06,-0.200
2.520E-06,-0.360
2.530E-06,-0.640
2.540E-06,-0.960
2.550E-06,-0.880
2.560E-06,-1.080
2.570E-06,-1.200
2.580E-06,-1.240
2.590E-06,-1.480
2.600E-06,-1.600
2.610E-06,-1.600
2.620E-06,-1.560
2.630E-06,-1.520
2.640E-06,-1.280
2.650E-06,-1.280
2.660E-06,-1.200
2.670E-06,-1.200
2.680E-06,-1.240
2.690E-06,-1.160
2.700E-06,-1.120
2.710E-06,-1.040
2.720E-06,-1.040
2.730E-06,-1.160
2.740E-06,-0.960
2.750E-06,-0.920
2.760E-06,-0.680
2.770E-06,-0.600
2.780E-06,-0.400
2.790E-06,-0.640
2.800E-06,-0.920
2.810E-06,-1.160
2.820E-06,-1.240
2.830E-06,-1.120
2.840E-06,-0.760
2.850E-06,-0.720
2.860E-06,-0.400
2.870E-06,-0.080
2.880E-06,0.440
2.890E-06,1.120
2.900E-06,1.840
2.910E-06,2.400
2.920E-06,2.400
2.930E-06,2.280
2.940E-06,1.880
2.950E-06,1.600
2.960E-06,1.520
2.970E-06,1.680
2.980E-06,1.760
2.990E-06,1.840
3.000E-06,1.640
3.010E-06,1.240
3.020E-06,0.680
3.030E-06,0.120
3.040E-06,-0.280
3.050E-06,-0.480
3.060E-06,-0.640
3.070E-06,-0.800
3.080E-06,-1.000
3.090E-06,-1.360
3.100E-06,-1.680
3.110E-06,-2.080
3.120E-06,-2.360
3.130E-06,-2.560
3.140E-06,-2.640
3.150E-06,-2.800
3.160E-06,-2.520
3.170E-06,-2.760
3.180E-06,-2.560
3.190E-06,-2.880
3.200E-06,-2.760
3.210E-06,-2.320
3.220E-06,-1.880
3.230E-06,-0.800
3.240E-06,-0.360
3.250E-06,0.000
3.260E-06,0.040
3.270E-06,-0.240
3.280E-06,-0.160
3.290E-06,-0.080
3.300E-06,0.120
3.310E-06,0.480
3.320E-06,0.480
3.330E-06,0.560
3.340E-06,0.360
3.350E-06,0.320
3.360E-06,0.280
3.370E-06,0.200
3.380E-06,0.120
3.390E-06,0.080
3.400E-06,0.040
3.410E-06,-0.040
3.420E-06,-0.120
3.430E-06,-0.240
3.440E-06,-0.360
3.450E-06,-0.520
3.460E-06,-0.720
3.470E-06,-0.800
3.480E-06,-0.880
3.490E-06,-0.880
3.500E-06,-0.880
3.510E-06,-0.920
3.520E-06,-0.920
3.530E-06,-0.960
3.540E-06,-0.920
3.550E-06,-0.920
3.560E-06,-0.920
3.570E-06,-0.800
3.580E-06,-0.720
3.590E-06,-0.680
3.600E-06,-0.640
3.610E-06,-0.640
3.620E-06,-0.560
3.630E-06,-0.360
3.640E-06,-0.280
3.650E-06,-0.120
3.660E-06,-0.040
3.670E-06,-0.040
3.680E-06,-0.120
3.690E-06,-0.160
3.700E-06,-0.200
3.710E-06,-0.200
3.720E-06,-0.120
3.730E-06,-0.360
3.740E-06,-0.360
3.750E-06,-0.560
3.760E-06,-0.760
3.770E-06,-0.960
3.780E-06,-1.040
3.790E-06,-1.120
3.800E-06,-1.240
3.810E-06,-1.280
3.820E-06,-1.360
3.830E-06,-1.480
3.840E-06,-1.520
3.850E-06,-1.720
3.860E-06,-1.680
3.870E-06,-1.600
3.880E-06,-1.680
3.890E-06,-1.440
3.900E-06,-1.560
3.910E-06,-1.520
3.920E-06,-1.400
3.930E-06,-1.320
3.940E-06,-1.040
3.950E-06,-0.880
3.960E-06,-0.680
3.970E-06,-0.680
3.980E-06,-0.680
3.990E-06,-0.360
4.000E-06,-0.240
4.010E-06,-0.040
4.020E-06,-0.040
4.030E-06,0.000
4.040E-06,0.160
4.050E-06,0.320
4.060E-06,0.600
4.070E-06,0.680
4.080E-06,0.800
4.090E-06,0.960
4.100E-06,1.000
4.110E-06,1.120
4.120E-06,1.120
4.130E-06,0.960
4.140E-06,0.880
4.150E-06,0.680
4.160E-06,0.400
4.170E-06,0.280
4.180E-06,0.080
4.190E-06,0.040
4.200E-06,0.000
4.210E-06,-0.120
4.220E-06,-0.240
4.230E-06,-0.400
4.240E-06,-0.520
4.250E-06,-0.720
4.260E-06,-0.880
4.270E-06,-1.000
4.280E-06,-1.120
4.290E-06,-1.160
4.300E-06,-1.280
4.310E-06,-1.160
4.320E-06,-1.240
4.330E-06,-1.160
4.340E-06,-1.200
4.350E-06,-1.040
4.360E-06,-0.840
4.370E-06,-0.720
4.380E-06,-0.520
4.390E-06,-0.360
4.400E-06,-0.200
4.410E-06,-0.040
4.420E-06,0.280
4.430E-06,0.440
4.440E-06,0.680
4.450E-06,0.800
4.460E-06,0.720
