mediciones/Mediciones filtradas (saque las feas)/5-27/-17.5/WaveData51134.csv

#timebase=2000000(ps)
,#voltbase=100000(mv/100)
#size=4000
-5.650E-06,0.000
-5.640E-06,0.004
-5.630E-06,0.000
-5.620E-06,0.008
-5.610E-06,0.000
-5.600E-06,-0.008
-5.590E-06,-0.004
-5.580E-06,0.000
-5.570E-06,0.000
-5.560E-06,0.008
-5.550E-06,0.008
-5.540E-06,-0.008
-5.530E-06,-0.004
-5.520E-06,-0.004
-5.510E-06,0.000
-5.500E-06,0.008
-5.490E-06,0.020
-5.480E-06,0.008
-5.470E-06,0.004
-5.460E-06,-0.004
-5.450E-06,-0.004
-5.440E-06,0.000
-5.430E-06,0.008
-5.420E-06,0.004
-5.410E-06,0.012
-5.400E-06,0.004
-5.390E-06,0.000
-5.380E-06,-0.004
-5.370E-06,0.000
-5.360E-06,0.008
-5.350E-06,0.004
-5.340E-06,0.008
-5.330E-06,0.004
-5.320E-06,0.004
-5.310E-06,0.012
-5.300E-06,0.012
-5.290E-06,0.008
-5.280E-06,0.012
-5.270E-06,0.012
-5.260E-06,0.016
-5.250E-06,0.012
-5.240E-06,0.020
-5.230E-06,0.024
-5.220E-06,0.016
-5.210E-06,0.008
-5.200E-06,0.012
-5.190E-06,0.016
-5.180E-06,0.024
-5.170E-06,0.028
-5.160E-06,0.024
-5.150E-06,0.016
-5.140E-06,0.012
-5.130E-06,0.012
-5.120E-06,0.016
-5.110E-06,0.028
-5.100E-06,0.040
-5.090E-06,0.048
-5.080E-06,0.036
-5.070E-06,0.004
-5.060E-06,-0.016
-5.050E-06,-0.028
-5.040E-06,-0.008
-5.030E-06,0.028
-5.020E-06,0.064
-5.010E-06,0.056
-5.000E-06,0.036
-4.990E-06,-0.008
-4.980E-06,-0.036
-4.970E-06,-0.040
-4.960E-06,-0.016
-4.950E-06,0.024
-4.940E-06,0.048
-4.930E-06,0.056
-4.920E-06,-0.008
-4.910E-06,-0.060
-4.900E-06,-0.108
-4.890E-06,-0.088
-4.880E-06,-0.048
-4.870E-06,0.024
-4.860E-06,0.072
-4.850E-06,0.060
-4.840E-06,0.024
-4.830E-06,-0.016
-4.820E-06,-0.040
-4.810E-06,-0.032
-4.800E-06,-0.004
-4.790E-06,0.028
-4.780E-06,0.044
-4.770E-06,0.036
-4.760E-06,0.028
-4.750E-06,0.016
-4.740E-06,0.000
-4.730E-06,-0.016
-4.720E-06,-0.052
-4.710E-06,-0.056
-4.700E-06,-0.040
-4.690E-06,-0.008
-4.680E-06,0.024
-4.670E-06,0.020
-4.660E-06,0.028
-4.650E-06,0.012
-4.640E-06,0.004
-4.630E-06,-0.004
-4.620E-06,0.016
-4.610E-06,0.044
-4.600E-06,0.060
-4.590E-06,0.060
-4.580E-06,0.064
-4.570E-06,0.064
-4.560E-06,0.072
-4.550E-06,0.076
-4.540E-06,0.084
-4.530E-06,0.076
-4.520E-06,0.068
-4.510E-06,0.060
-4.500E-06,0.056
-4.490E-06,0.072
-4.480E-06,0.084
-4.470E-06,0.088
-4.460E-06,0.080
-4.450E-06,0.052
-4.440E-06,0.020
-4.430E-06,0.012
-4.420E-06,0.012
-4.410E-06,0.040
-4.400E-06,0.072
-4.390E-06,0.092
-4.380E-06,0.104
-4.370E-06,0.096
-4.360E-06,0.088
-4.350E-06,0.056
-4.340E-06,0.024
-4.330E-06,-0.012
-4.320E-06,-0.052
-4.310E-06,-0.056
-4.300E-06,-0.076
-4.290E-06,-0.028
-4.280E-06,0.048
-4.270E-06,0.132
-4.260E-06,0.168
-4.250E-06,0.168
-4.240E-06,0.072
-4.230E-06,-0.028
-4.220E-06,-0.100
-4.210E-06,-0.136
-4.200E-06,-0.120
-4.190E-06,-0.112
-4.180E-06,-0.068
-4.170E-06,-0.044
-4.160E-06,-0.040
-4.150E-06,-0.032
-4.140E-06,-0.024
-4.130E-06,-0.020
-4.120E-06,-0.008
-4.110E-06,-0.004
-4.100E-06,0.052
-4.090E-06,0.096
-4.080E-06,0.152
-4.070E-06,0.144
-4.060E-06,0.092
-4.050E-06,0.024
-4.040E-06,-0.064
-4.030E-06,-0.084
-4.020E-06,-0.088
-4.010E-06,-0.088
-4.000E-06,-0.104
-3.990E-06,-0.104
-3.980E-06,-0.092
-3.970E-06,-0.044
-3.960E-06,0.024
-3.950E-06,0.040
-3.940E-06,0.024
-3.930E-06,-0.012
-3.920E-06,-0.056
-3.910E-06,-0.040
-3.900E-06,0.000
-3.890E-06,0.032
-3.880E-06,0.084
-3.870E-06,0.108
-3.860E-06,0.088
-3.850E-06,0.028
-3.840E-06,0.008
-3.830E-06,0.012
-3.820E-06,0.032
-3.810E-06,0.052
-3.800E-06,0.068
-3.790E-06,0.056
-3.780E-06,0.044
-3.770E-06,0.032
-3.760E-06,0.028
-3.750E-06,0.044
-3.740E-06,0.064
-3.730E-06,0.084
-3.720E-06,0.076
-3.710E-06,0.056
-3.700E-06,-0.004
-3.690E-06,-0.052
-3.680E-06,-0.092
-3.670E-06,-0.080
-3.660E-06,-0.052
-3.650E-06,0.012
-3.640E-06,0.048
-3.630E-06,0.084
-3.620E-06,0.080
-3.610E-06,0.068
-3.600E-06,0.068
-3.590E-06,0.068
-3.580E-06,0.096
-3.570E-06,0.108
-3.560E-06,0.128
-3.550E-06,0.116
-3.540E-06,0.100
-3.530E-06,0.088
-3.520E-06,0.068
-3.510E-06,0.048
-3.500E-06,0.032
-3.490E-06,-0.032
-3.480E-06,-0.108
-3.470E-06,-0.236
-3.460E-06,-0.340
-3.450E-06,-0.348
-3.440E-06,-0.188
-3.430E-06,-0.040
-3.420E-06,0.144
-3.410E-06,0.192
-3.400E-06,-0.112
-3.390E-06,-0.212
-3.380E-06,-0.304
-3.370E-06,-0.108
-3.360E-06,-0.044
-3.350E-06,0.108
-3.340E-06,0.176
-3.330E-06,0.044
-3.320E-06,-0.136
-3.310E-06,-0.368
-3.300E-06,-0.300
-3.290E-06,-0.140
-3.280E-06,0.076
-3.270E-06,0.204
-3.260E-06,0.216
-3.250E-06,0.128
-3.240E-06,-0.016
-3.230E-06,-0.132
-3.220E-06,-0.152
-3.210E-06,-0.060
-3.200E-06,0.024
-3.190E-06,0.128
-3.180E-06,0.104
-3.170E-06,0.044
-3.160E-06,-0.056
-3.150E-06,-0.128
-3.140E-06,-0.108
-3.130E-06,-0.068
-3.120E-06,0.028
-3.110E-06,0.060
-3.100E-06,0.088
-3.090E-06,0.040
-3.080E-06,0.004
-3.070E-06,-0.020
-3.060E-06,-0.028
-3.050E-06,-0.024
-3.040E-06,-0.004
-3.030E-06,0.032
-3.020E-06,0.060
-3.010E-06,0.056
-3.000E-06,0.040
-2.990E-06,0.004
-2.980E-06,-0.004
-2.970E-06,-0.008
-2.960E-06,0.016
-2.950E-06,0.060
-2.940E-06,0.096
-2.930E-06,0.096
-2.920E-06,0.088
-2.910E-06,0.064
-2.900E-06,0.060
-2.890E-06,0.068
-2.880E-06,0.088
-2.870E-06,0.128
-2.860E-06,0.156
-2.850E-06,0.168
-2.840E-06,0.176
-2.830E-06,0.156
-2.820E-06,0.156
-2.810E-06,0.152
-2.800E-06,0.156
-2.790E-06,0.160
-2.780E-06,0.164
-2.770E-06,0.156
-2.760E-06,0.152
-2.750E-06,0.144
-2.740E-06,0.132
-2.730E-06,0.108
-2.720E-06,0.096
-2.710E-06,0.096
-2.700E-06,0.100
-2.690E-06,0.096
-2.680E-06,0.092
-2.670E-06,0.072
-2.660E-06,0.044
-2.650E-06,0.004
-2.640E-06,-0.036
-2.630E-06,-0.108
-2.620E-06,-0.152
-2.610E-06,-0.168
-2.600E-06,-0.156
-2.590E-06,-0.104
-2.580E-06,-0.048
-2.570E-06,-0.036
-2.560E-06,-0.012
-2.550E-06,-0.052
-2.540E-06,-0.044
-2.530E-06,-0.044
-2.520E-06,0.000
-2.510E-06,0.036
-2.500E-06,0.112
-2.490E-06,0.164
-2.480E-06,0.136
-2.470E-06,0.120
-2.460E-06,0.100
-2.450E-06,0.104
-2.440E-06,0.108
-2.430E-06,0.136
-2.420E-06,0.168
-2.410E-06,0.164
-2.400E-06,0.124
-2.390E-06,0.044
-2.380E-06,-0.012
-2.370E-06,-0.040
-2.360E-06,-0.040
-2.350E-06,-0.044
-2.340E-06,-0.024
-2.330E-06,-0.008
-2.320E-06,-0.008
-2.310E-06,-0.004
-2.300E-06,0.004
-2.290E-06,0.016
-2.280E-06,0.056
-2.270E-06,0.096
-2.260E-06,0.120
-2.250E-06,0.112
-2.240E-06,0.044
-2.230E-06,-0.012
-2.220E-06,-0.056
-2.210E-06,-0.064
-2.200E-06,-0.012
-2.190E-06,0.052
-2.180E-06,0.108
-2.170E-06,0.120
-2.160E-06,0.072
-2.150E-06,0.028
-2.140E-06,0.000
-2.130E-06,0.056
-2.120E-06,0.140
-2.110E-06,0.224
-2.100E-06,0.256
-2.090E-06,0.208
-2.080E-06,0.132
-2.070E-06,0.044
-2.060E-06,-0.004
-2.050E-06,0.004
-2.040E-06,0.060
-2.030E-06,0.124
-2.020E-06,0.148
-2.010E-06,0.128
-2.000E-06,0.068
-1.990E-06,0.000
-1.980E-06,-0.004
-1.970E-06,0.008
-1.960E-06,0.044
-1.950E-06,0.060
-1.940E-06,0.016
-1.930E-06,-0.088
-1.920E-06,-0.216
-1.910E-06,-0.296
-1.900E-06,-0.288
-1.890E-06,-0.164
-1.880E-06,0.008
-1.870E-06,0.180
-1.860E-06,0.268
-1.850E-06,0.284
-1.840E-06,0.200
-1.830E-06,0.104
-1.820E-06,0.032
-1.810E-06,0.024
-1.800E-06,0.052
-1.790E-06,0.092
-1.780E-06,0.100
-1.770E-06,0.080
-1.760E-06,0.064
-1.750E-06,0.076
-1.740E-06,0.128
-1.730E-06,0.160
-1.720E-06,0.192
-1.710E-06,0.160
-1.700E-06,0.096
-1.690E-06,0.024
-1.680E-06,-0.024
-1.670E-06,-0.020
-1.660E-06,0.008
-1.650E-06,0.080
-1.640E-06,0.108
-1.630E-06,0.108
-1.620E-06,0.020
-1.610E-06,-0.104
-1.600E-06,-0.224
-1.590E-06,-0.340
-1.580E-06,-0.356
-1.570E-06,-0.292
-1.560E-06,-0.136
-1.550E-06,0.008
-1.540E-06,0.088
-1.530E-06,0.044
-1.520E-06,-0.044
-1.510E-06,-0.084
-1.500E-06,-0.080
-1.490E-06,0.012
-1.480E-06,0.108
-1.470E-06,0.228
-1.460E-06,0.264
-1.450E-06,0.228
-1.440E-06,0.172
-1.430E-06,0.124
-1.420E-06,0.104
-1.410E-06,0.108
-1.400E-06,0.128
-1.390E-06,0.136
-1.380E-06,0.136
-1.370E-06,0.124
-1.360E-06,0.096
-1.350E-06,0.080
-1.340E-06,0.068
-1.330E-06,0.076
-1.320E-06,0.092
-1.310E-06,0.124
-1.300E-06,0.160
-1.290E-06,0.188
-1.280E-06,0.172
-1.270E-06,0.144
-1.260E-06,0.096
-1.250E-06,0.068
-1.240E-06,0.056
-1.230E-06,0.064
-1.220E-06,0.092
-1.210E-06,0.104
-1.200E-06,0.116
-1.190E-06,0.112
-1.180E-06,0.108
-1.170E-06,0.112
-1.160E-06,0.128
-1.150E-06,0.152
-1.140E-06,0.176
-1.130E-06,0.196
-1.120E-06,0.200
-1.110E-06,0.192
-1.100E-06,0.172
-1.090E-06,0.160
-1.080E-06,0.148
-1.070E-06,0.160
-1.060E-06,0.172
-1.050E-06,0.180
-1.040E-06,0.184
-1.030E-06,0.176
-1.020E-06,0.156
-1.010E-06,0.136
-1.000E-06,0.132
-9.900E-07,0.136
-9.800E-07,0.140
-9.700E-07,0.144
-9.600E-07,0.136
-9.500E-07,0.124
-9.400E-07,0.112
-9.300E-07,0.092
-9.200E-07,0.076
-9.100E-07,0.072
-9.000E-07,0.104
-8.900E-07,0.156
-8.800E-07,0.188
-8.700E-07,0.204
-8.600E-07,0.184
-8.500E-07,0.152
-8.400E-07,0.120
-8.300E-07,0.108
-8.200E-07,0.128
-8.100E-07,0.156
-8.000E-07,0.200
-7.900E-07,0.200
-7.800E-07,0.168
-7.700E-07,0.132
-7.600E-07,0.108
-7.500E-07,0.108
-7.400E-07,0.128
-7.300E-07,0.144
-7.200E-07,0.164
-7.100E-07,0.172
-7.000E-07,0.160
-6.900E-07,0.144
-6.800E-07,0.136
-6.700E-07,0.132
-6.600E-07,0.140
-6.500E-07,0.148
-6.400E-07,0.156
-6.300E-07,0.160
-6.200E-07,0.164
-6.100E-07,0.160
-6.000E-07,0.152
-5.900E-07,0.148
-5.800E-07,0.148
-5.700E-07,0.156
-5.600E-07,0.172
-5.500E-07,0.168
-5.400E-07,0.164
-5.300E-07,0.160
-5.200E-07,0.152
-5.100E-07,0.144
-5.000E-07,0.148
-4.900E-07,0.156
-4.800E-07,0.156
-4.700E-07,0.160
-4.600E-07,0.164
-4.500E-07,0.160
-4.400E-07,0.152
-4.300E-07,0.140
-4.200E-07,0.140
-4.100E-07,0.144
-4.000E-07,0.144
-3.900E-07,0.140
-3.800E-07,0.144
-3.700E-07,0.148
-3.600E-07,0.148
-3.500E-07,0.140
-3.400E-07,0.144
-3.300E-07,0.148
-3.200E-07,0.152
-3.100E-07,0.160
-3.000E-07,0.156
-2.900E-07,0.148
-2.800E-07,0.148
-2.700E-07,0.140
-2.600E-07,0.152
-2.500E-07,0.156
-2.400E-07,0.164
-2.300E-07,0.168
-2.200E-07,0.160
-2.100E-07,0.148
-2.000E-07,0.140
-1.900E-07,0.140
-1.800E-07,0.144
-1.700E-07,0.144
-1.600E-07,0.148
-1.500E-07,0.152
-1.400E-07,0.140
-1.300E-07,0.136
-1.200E-07,0.132
-1.100E-07,0.132
-1.000E-07,0.136
-9.000E-08,0.144
-8.000E-08,0.140
-7.000E-08,0.140
-6.000E-08,0.144
-5.000E-08,0.148
-4.000E-08,0.144
-3.000E-08,0.136
-2.000E-08,0.136
-1.000E-08,0.136
0.000E+00,0.140
1.000E-08,0.148
2.000E-08,0.148
3.000E-08,0.152
4.000E-08,0.156
5.000E-08,0.148
6.000E-08,0.132
7.000E-08,0.120
8.000E-08,0.112
9.000E-08,0.112
1.000E-07,0.128
1.100E-07,0.136
1.200E-07,0.144
1.300E-07,0.144
1.400E-07,0.136
1.500E-07,0.136
1.600E-07,0.140
1.700E-07,0.136
1.800E-07,0.140
1.900E-07,0.140
2.000E-07,0.140
2.100E-07,0.132
2.200E-07,0.128
2.300E-07,0.120
2.400E-07,0.120
2.500E-07,0.128
2.600E-07,0.132
2.700E-07,0.136
2.800E-07,0.136
2.900E-07,0.140
3.000E-07,0.136
3.100E-07,0.140
3.200E-07,0.136
3.300E-07,0.128
3.400E-07,0.124
3.500E-07,0.124
3.600E-07,0.128
3.700E-07,0.124
3.800E-07,0.128
3.900E-07,0.132
4.000E-07,0.128
4.100E-07,0.128
4.200E-07,0.124
4.300E-07,0.124
4.400E-07,0.124
4.500E-07,0.128
4.600E-07,0.132
4.700E-07,0.136
4.800E-07,0.144
4.900E-07,0.140
5.000E-07,0.136
5.100E-07,0.132
5.200E-07,0.128
5.300E-07,0.124
5.400E-07,0.128
5.500E-07,0.128
5.600E-07,0.128
5.700E-07,0.136
5.800E-07,0.132
5.900E-07,0.132
6.000E-07,0.132
6.100E-07,0.128
6.200E-07,0.128
6.300E-07,0.120
6.400E-07,0.124
6.500E-07,0.124
6.600E-07,0.124
6.700E-07,0.124
6.800E-07,0.128
6.900E-07,0.124
7.000E-07,0.124
7.100E-07,0.124
7.200E-07,0.120
7.300E-07,0.116
7.400E-07,0.112
7.500E-07,0.120
7.600E-07,0.124
7.700E-07,0.124
7.800E-07,0.124
7.900E-07,0.120
8.000E-07,0.108
8.100E-07,0.108
8.200E-07,0.108
8.300E-07,0.124
8.400E-07,0.124
8.500E-07,0.124
8.600E-07,0.120
8.700E-07,0.104
8.800E-07,0.108
8.900E-07,0.104
9.000E-07,0.108
9.100E-07,0.120
9.200E-07,0.120
9.300E-07,0.108
9.400E-07,0.104
9.500E-07,0.104
9.600E-07,0.108
9.700E-07,0.108
9.800E-07,0.116
9.900E-07,0.120
1.000E-06,0.124
1.010E-06,0.124
1.020E-06,0.120
1.030E-06,0.120
1.040E-06,0.120
1.050E-06,0.124
1.060E-06,0.120
1.070E-06,0.120
1.080E-06,0.112
1.090E-06,0.108
1.100E-06,0.104
1.110E-06,0.104
1.120E-06,0.108
1.130E-06,0.112
1.140E-06,0.112
1.150E-06,0.108
1.160E-06,0.108
1.170E-06,0.104
1.180E-06,0.096
1.190E-06,0.092
1.200E-06,0.096
1.210E-06,0.100
1.220E-06,0.108
1.230E-06,0.100
1.240E-06,0.100
1.250E-06,0.100
1.260E-06,0.100
1.270E-06,0.096
1.280E-06,0.100
1.290E-06,0.104
1.300E-06,0.104
1.310E-06,0.100
1.320E-06,0.096
1.330E-06,0.092
1.340E-06,0.092
1.350E-06,0.092
1.360E-06,0.104
1.370E-06,0.104
1.380E-06,0.104
1.390E-06,0.104
1.400E-06,0.100
1.410E-06,0.092
1.420E-06,0.096
1.430E-06,0.092
1.440E-06,0.092
1.450E-06,0.096
1.460E-06,0.100
1.470E-06,0.096
1.480E-06,0.092
1.490E-06,0.092
1.500E-06,0.092
1.510E-06,0.092
1.520E-06,0.096
1.530E-06,0.100
1.540E-06,0.096
1.550E-06,0.100
1.560E-06,0.096
1.570E-06,0.100
1.580E-06,0.096
1.590E-06,0.096
1.600E-06,0.092
1.610E-06,0.092
1.620E-06,0.088
1.630E-06,0.088
1.640E-06,0.088
1.650E-06,0.096
1.660E-06,0.088
1.670E-06,0.088
1.680E-06,0.092
1.690E-06,0.092
1.700E-06,0.092
1.710E-06,0.092
1.720E-06,0.088
1.730E-06,0.092
1.740E-06,0.088
1.750E-06,0.088
1.760E-06,0.088
1.770E-06,0.088
1.780E-06,0.092
1.790E-06,0.092
1.800E-06,0.092
1.810E-06,0.084
1.820E-06,0.088
1.830E-06,0.084
1.840E-06,0.092
1.850E-06,0.092
1.860E-06,0.088
1.870E-06,0.092
1.880E-06,0.092
1.890E-06,0.084
1.900E-06,0.080
1.910E-06,0.084
1.920E-06,0.084
1.930E-06,0.084
1.940E-06,0.084
1.950E-06,0.088
1.960E-06,0.088
1.970E-06,0.088
1.980E-06,0.080
1.990E-06,0.088
2.000E-06,0.080
2.010E-06,0.088
2.020E-06,0.088
2.030E-06,0.084
2.040E-06,0.080
2.050E-06,0.084
2.060E-06,0.084
2.070E-06,0.080
2.080E-06,0.080
2.090E-06,0.080
2.100E-06,0.080
2.110E-06,0.076
2.120E-06,0.076
2.130E-06,0.076
2.140E-06,0.076
2.150E-06,0.076
2.160E-06,0.076
2.170E-06,0.076
2.180E-06,0.080
2.190E-06,0.080
2.200E-06,0.076
2.210E-06,0.076
2.220E-06,0.076
2.230E-06,0.072
2.240E-06,0.072
2.250E-06,0.076
2.260E-06,0.076
2.270E-06,0.072
2.280E-06,0.072
2.290E-06,0.076
2.300E-06,0.072
2.310E-06,0.076
2.320E-06,0.068
2.330E-06,0.072
2.340E-06,0.072
2.350E-06,0.072
2.360E-06,0.072
2.370E-06,0.068
2.380E-06,0.072
2.390E-06,0.068
2.400E-06,0.072
2.410E-06,0.068
2.420E-06,0.068
2.430E-06,0.068
2.440E-06,0.072
2.450E-06,0.068
2.460E-06,0.068
2.470E-06,0.068
2.480E-06,0.064
2.490E-06,0.064
2.500E-06,0.064
2.510E-06,0.064
2.520E-06,0.068
2.530E-06,0.068
2.540E-06,0.064
2.550E-06,0.064
2.560E-06,0.064
2.570E-06,0.064
2.580E-06,0.064
2.590E-06,0.068
2.600E-06,0.064
2.610E-06,0.060
2.620E-06,0.064
2.630E-06,0.068
2.640E-06,0.068
2.650E-06,0.064
2.660E-06,0.060
2.670E-06,0.060
2.680E-06,0.060
2.690E-06,0.056
2.700E-06,0.056
2.710E-06,0.056
2.720E-06,0.060
2.730E-06,0.064
2.740E-06,0.060
2.750E-06,0.056
2.760E-06,0.056
2.770E-06,0.056
2.780E-06,0.060
2.790E-06,0.060
2.800E-06,0.056
2.810E-06,0.056
2.820E-06,0.056
2.830E-06,0.056
2.840E-06,0.060
2.850E-06,0.060
2.860E-06,0.052
2.870E-06,0.052
2.880E-06,0.056
2.890E-06,0.052
2.900E-06,0.056
2.910E-06,0.052
2.920E-06,0.052
2.930E-06,0.052
2.940E-06,0.052
2.950E-06,0.052
2.960E-06,0.052
2.970E-06,0.052
2.980E-06,0.048
2.990E-06,0.044
3.000E-06,0.048
3.010E-06,0.048
3.020E-06,0.048
3.030E-06,0.044
3.040E-06,0.048
3.050E-06,0.044
3.060E-06,0.044
3.070E-06,0.044
3.080E-06,0.044
3.090E-06,0.044
3.100E-06,0.044
3.110E-06,0.044
3.120E-06,0.048
3.130E-06,0.044
3.140E-06,0.044
3.150E-06,0.040
3.160E-06,0.044
3.170E-06,0.044
3.180E-06,0.044
3.190E-06,0.040
3.200E-06,0.040
3.210E-06,0.040
3.220E-06,0.040
3.230E-06,0.044
3.240E-06,0.044
3.250E-06,0.040
3.260E-06,0.044
3.270E-06,0.048
3.280E-06,0.040
3.290E-06,0.040
3.300E-06,0.040
3.310E-06,0.036
3.320E-06,0.040
3.330E-06,0.044
3.340E-06,0.048
3.350E-06,0.044
3.360E-06,0.044
3.370E-06,0.040
3.380E-06,0.044
3.390E-06,0.044
3.400E-06,0.052
3.410E-06,0.048
3.420E-06,0.044
3.430E-06,0.044
3.440E-06,0.044
3.450E-06,0.044
3.460E-06,0.044
3.470E-06,0.036
3.480E-06,0.040
3.490E-06,0.040
3.500E-06,0.036
3.510E-06,0.032
3.520E-06,0.036
3.530E-06,0.036
3.540E-06,0.032
3.550E-06,0.024
3.560E-06,0.028
3.570E-06,0.032
3.580E-06,0.032
3.590E-06,0.032
3.600E-06,0.032
3.610E-06,0.028
3.620E-06,0.036
3.630E-06,0.024
3.640E-06,0.024
3.650E-06,0.028
3.660E-06,0.028
3.670E-06,0.032
3.680E-06,0.028
3.690E-06,0.024
3.700E-06,0.024
3.710E-06,0.028
3.720E-06,0.028
3.730E-06,0.024
3.740E-06,0.028
3.750E-06,0.032
3.760E-06,0.028
3.770E-06,0.028
3.780E-06,0.032
3.790E-06,0.024
3.800E-06,0.020
3.810E-06,0.024
3.820E-06,0.024
3.830E-06,0.032
3.840E-06,0.028
3.850E-06,0.024
3.860E-06,0.024
3.870E-06,0.028
3.880E-06,0.028
3.890E-06,0.020
3.900E-06,0.020
3.910E-06,0.028
3.920E-06,0.028
3.930E-06,0.028
3.940E-06,0.024
3.950E-06,0.020
3.960E-06,0.024
3.970E-06,0.024
3.980E-06,0.024
3.990E-06,0.024
4.000E-06,0.024
4.010E-06,0.024
4.020E-06,0.024
4.030E-06,0.024
4.040E-06,0.028
4.050E-06,0.024
4.060E-06,0.020
4.070E-06,0.024
4.080E-06,0.028
4.090E-06,0.016
4.100E-06,0.024
4.110E-06,0.028
4.120E-06,0.024
4.130E-06,0.024
4.140E-06,0.024
4.150E-06,0.028
4.160E-06,0.024
4.170E-06,0.020
4.180E-06,0.024
4.190E-06,0.024
4.200E-06,0.024
4.210E-06,0.020
4.220E-06,0.016
4.230E-06,0.020
4.240E-06,0.016
4.250E-06,0.016
4.260E-06,0.020
4.270E-06,0.024
4.280E-06,0.024
4.290E-06,0.024
4.300E-06,0.012
4.310E-06,0.020
4.320E-06,0.016
4.330E-06,0.016
4.340E-06,0.016
4.350E-06,0.012
4.360E-06,0.012
4.370E-06,0.012
4.380E-06,0.012
4.390E-06,0.012
4.400E-06,0.008
4.410E-06,0.012
4.420E-06,0.016
4.430E-06,0.008
4.440E-06,0.008
4.450E-06,0.012
4.460E-06,0.016
4.470E-06,0.008
4.480E-06,0.008
4.490E-06,0.012
4.500E-06,0.012
4.510E-06,0.012
4.520E-06,0.012
4.530E-06,0.012
4.540E-06,0.012
4.550E-06,0.012
4.560E-06,0.016
4.570E-06,0.012
4.580E-06,0.012
4.590E-06,0.012
4.600E-06,0.008
4.610E-06,0.012
4.620E-06,0.008
4.630E-06,0.008
4.640E-06,0.008
4.650E-06,0.008
4.660E-06,0.008
4.670E-06,0.008
4.680E-06,0.012
4.690E-06,0.012
4.700E-06,0.004
4.710E-06,0.004
4.720E-06,0.008
4.730E-06,0.012
4.740E-06,0.012
4.750E-06,0.004
4.760E-06,0.004
4.770E-06,0.008
4.780E-06,0.004
4.790E-06,0.008
4.800E-06,0.008
4.810E-06,0.008
4.820E-06,0.008
4.830E-06,0.008
4.840E-06,0.008
4.850E-06,0.004
4.860E-06,0.008
4.870E-06,0.008
4.880E-06,0.004
4.890E-06,0.008
4.900E-06,0.004
4.910E-06,0.008
4.920E-06,0.000
4.930E-06,0.004
4.940E-06,0.004
4.950E-06,0.004
4.960E-06,0.004
4.970E-06,0.004
4.980E-06,0.004
4.990E-06,0.004
5.000E-06,0.000
5.010E-06,0.004
5.020E-06,0.000
5.030E-06,0.004
5.040E-06,0.000
5.050E-06,0.000
5.060E-06,0.000
5.070E-06,0.000
5.080E-06,0.004
5.090E-06,0.000
5.100E-06,0.000
5.110E-06,0.000
5.120E-06,0.000
5.130E-06,-0.004
5.140E-06,0.000
5.150E-06,0.000
5.160E-06,0.000
5.170E-06,0.004
5.180E-06,-0.004
5.190E-06,0.000
5.200E-06,0.000
5.210E-06,-0.004
5.220E-06,0.000
5.230E-06,0.000
5.240E-06,-0.004
5.250E-06,0.000
5.260E-06,-0.004
5.270E-06,-0.004
5.280E-06,-0.004
5.290E-06,-0.004
5.300E-06,-0.004
5.310E-06,-0.004
5.320E-06,-0.004
5.330E-06,-0.004
5.340E-06,-0.004
5.350E-06,-0.004
5.360E-06,-0.004
5.370E-06,-0.004
5.380E-06,-0.008
5.390E-06,-0.004
5.400E-06,-0.004
5.410E-06,-0.004
5.420E-06,0.000
5.430E-06,-0.004
5.440E-06,-0.004
5.450E-06,-0.004
5.460E-06,-0.008
5.470E-06,-0.008
5.480E-06,-0.008
5.490E-06,-0.008
5.500E-06,-0.004
5.510E-06,0.000
5.520E-06,-0.008
5.530E-06,-0.008
5.540E-06,-0.004
5.550E-06,-0.008
5.560E-06,-0.012
5.570E-06,-0.012
5.580E-06,-0.004
5.590E-06,-0.008
5.600E-06,-0.008
5.610E-06,-0.008
5.620E-06,-0.008
5.630E-06,-0.008
5.640E-06,-0.008
5.650E-06,-0.012
5.660E-06,-0.012
5.670E-06,-0.012
5.680E-06,-0.012
5.690E-06,-0.004
5.700E-06,-0.004
5.710E-06,-0.008
5.720E-06,-0.012
5.730E-06,-0.004
5.740E-06,-0.008
5.750E-06,-0.008
5.760E-06,-0.008
5.770E-06,-0.012
5.780E-06,-0.012
5.790E-06,-0.008
5.800E-06,-0.004
5.810E-06,-0.008
5.820E-06,-0.008
5.830E-06,-0.008
5.840E-06,-0.012
5.850E-06,-0.004
5.860E-06,-0.008
5.870E-06,-0.008
5.880E-06,-0.008
5.890E-06,-0.008
5.900E-06,-0.008
5.910E-06,-0.012
5.920E-06,-0.012
5.930E-06,-0.012
5.940E-06,-0.012
5.950E-06,-0.008
5.960E-06,-0.008
5.970E-06,-0.012
5.980E-06,-0.008
5.990E-06,-0.008
6.000E-06,-0.012
6.010E-06,-0.016
6.020E-06,-0.016
6.030E-06,-0.016
6.040E-06,-0.008
6.050E-06,-0.012
6.060E-06,-0.016
6.070E-06,-0.012
6.080E-06,-0.008
6.090E-06,-0.016
6.100E-06,-0.020
6.110E-06,-0.016
6.120E-06,-0.016
6.130E-06,-0.020
6.140E-06,-0.012
6.150E-06,-0.020
6.160E-06,-0.024
6.170E-06,-0.024
6.180E-06,-0.016
6.190E-06,-0.020
6.200E-06,-0.020
6.210E-06,-0.024
6.220E-06,-0.020
6.230E-06,-0.016
6.240E-06,-0.020
6.250E-06,-0.020
6.260E-06,-0.020
6.270E-06,-0.020
6.280E-06,-0.020
6.290E-06,-0.020
