mediciones/Mediciones filtradas (saque las feas)/5-27/-17.5/WaveData51125.csv

#timebase=2000000(ps)
,#voltbase=1000000(mv/100)
#size=4000
-7.300E-06,0.040
-7.290E-06,0.080
-7.280E-06,0.200
-7.270E-06,0.160
-7.260E-06,0.120
-7.250E-06,0.000
-7.240E-06,-0.040
-7.230E-06,-0.040
-7.220E-06,0.000
-7.210E-06,0.000
-7.200E-06,0.000
-7.190E-06,-0.040
-7.180E-06,-0.080
-7.170E-06,-0.160
-7.160E-06,-0.160
-7.150E-06,-0.160
-7.140E-06,-0.080
-7.130E-06,-0.160
-7.120E-06,-0.160
-7.110E-06,-0.160
-7.100E-06,-0.360
-7.090E-06,-0.280
-7.080E-06,-0.240
-7.070E-06,-0.200
-7.060E-06,-0.120
-7.050E-06,-0.160
-7.040E-06,-0.080
-7.030E-06,-0.160
-7.020E-06,-0.240
-7.010E-06,-0.120
-7.000E-06,-0.120
-6.990E-06,-0.120
-6.980E-06,-0.120
-6.970E-06,-0.120
-6.960E-06,-0.120
-6.950E-06,-0.160
-6.940E-06,-0.040
-6.930E-06,-0.040
-6.920E-06,0.040
-6.910E-06,0.000
-6.900E-06,0.000
-6.890E-06,0.000
-6.880E-06,-0.040
-6.870E-06,0.000
-6.860E-06,0.000
-6.850E-06,0.000
-6.840E-06,0.000
-6.830E-06,0.000
-6.820E-06,0.000
-6.810E-06,0.000
-6.800E-06,0.000
-6.790E-06,-0.040
-6.780E-06,-0.040
-6.770E-06,0.000
-6.760E-06,0.040
-6.750E-06,0.040
-6.740E-06,-0.040
-6.730E-06,-0.040
-6.720E-06,0.000
-6.710E-06,0.000
-6.700E-06,0.000
-6.690E-06,0.000
-6.680E-06,0.040
-6.670E-06,0.040
-6.660E-06,-0.040
-6.650E-06,0.000
-6.640E-06,-0.040
-6.630E-06,-0.080
-6.620E-06,-0.080
-6.610E-06,-0.040
-6.600E-06,-0.040
-6.590E-06,0.000
-6.580E-06,-0.040
-6.570E-06,-0.080
-6.560E-06,-0.120
-6.550E-06,-0.080
-6.540E-06,-0.080
-6.530E-06,-0.080
-6.520E-06,0.000
-6.510E-06,-0.040
-6.500E-06,-0.080
-6.490E-06,-0.080
-6.480E-06,-0.080
-6.470E-06,-0.160
-6.460E-06,0.000
-6.450E-06,0.000
-6.440E-06,-0.080
-6.430E-06,-0.040
-6.420E-06,-0.120
-6.410E-06,0.000
-6.400E-06,-0.080
-6.390E-06,-0.040
-6.380E-06,-0.040
-6.370E-06,0.000
-6.360E-06,0.000
-6.350E-06,-0.080
-6.340E-06,-0.080
-6.330E-06,-0.040
-6.320E-06,-0.040
-6.310E-06,0.120
-6.300E-06,0.120
-6.290E-06,0.080
-6.280E-06,0.040
-6.270E-06,-0.040
-6.260E-06,0.000
-6.250E-06,0.040
-6.240E-06,0.080
-6.230E-06,0.080
-6.220E-06,0.040
-6.210E-06,0.040
-6.200E-06,-0.080
-6.190E-06,0.040
-6.180E-06,0.040
-6.170E-06,0.040
-6.160E-06,0.000
-6.150E-06,0.000
-6.140E-06,-0.040
-6.130E-06,-0.080
-6.120E-06,0.000
-6.110E-06,-0.040
-6.100E-06,-0.040
-6.090E-06,0.000
-6.080E-06,-0.040
-6.070E-06,-0.080
-6.060E-06,-0.120
-6.050E-06,-0.080
-6.040E-06,-0.080
-6.030E-06,-0.080
-6.020E-06,-0.080
-6.010E-06,-0.080
-6.000E-06,-0.080
-5.990E-06,-0.120
-5.980E-06,-0.040
-5.970E-06,-0.040
-5.960E-06,-0.040
-5.950E-06,-0.080
-5.940E-06,0.000
-5.930E-06,-0.040
-5.920E-06,-0.040
-5.910E-06,0.000
-5.900E-06,0.040
-5.890E-06,0.000
-5.880E-06,-0.040
-5.870E-06,-0.080
-5.860E-06,-0.040
-5.850E-06,0.000
-5.840E-06,-0.040
-5.830E-06,0.000
-5.820E-06,-0.040
-5.810E-06,-0.040
-5.800E-06,-0.080
-5.790E-06,-0.080
-5.780E-06,-0.040
-5.770E-06,-0.040
-5.760E-06,0.000
-5.750E-06,-0.040
-5.740E-06,-0.040
-5.730E-06,-0.040
-5.720E-06,0.000
-5.710E-06,0.000
-5.700E-06,0.000
-5.690E-06,0.000
-5.680E-06,0.000
-5.670E-06,0.000
-5.660E-06,0.000
-5.650E-06,-0.040
-5.640E-06,0.000
-5.630E-06,0.000
-5.620E-06,0.000
-5.610E-06,0.000
-5.600E-06,0.000
-5.590E-06,0.000
-5.580E-06,0.080
-5.570E-06,0.040
-5.560E-06,0.040
-5.550E-06,0.080
-5.540E-06,0.120
-5.530E-06,0.000
-5.520E-06,0.040
-5.510E-06,0.000
-5.500E-06,0.040
-5.490E-06,0.000
-5.480E-06,0.000
-5.470E-06,0.000
-5.460E-06,0.000
-5.450E-06,0.040
-5.440E-06,0.000
-5.430E-06,0.040
-5.420E-06,0.040
-5.410E-06,0.040
-5.400E-06,-0.040
-5.390E-06,0.000
-5.380E-06,0.000
-5.370E-06,0.000
-5.360E-06,0.000
-5.350E-06,0.040
-5.340E-06,-0.040
-5.330E-06,-0.040
-5.320E-06,-0.040
-5.310E-06,-0.080
-5.300E-06,-0.080
-5.290E-06,0.040
-5.280E-06,0.040
-5.270E-06,0.000
-5.260E-06,-0.040
-5.250E-06,-0.080
-5.240E-06,-0.080
-5.230E-06,-0.040
-5.220E-06,0.000
-5.210E-06,0.000
-5.200E-06,0.040
-5.190E-06,-0.040
-5.180E-06,0.000
-5.170E-06,-0.040
-5.160E-06,0.000
-5.150E-06,0.000
-5.140E-06,-0.040
-5.130E-06,0.000
-5.120E-06,0.000
-5.110E-06,0.040
-5.100E-06,0.040
-5.090E-06,-0.040
-5.080E-06,0.000
-5.070E-06,0.000
-5.060E-06,0.040
-5.050E-06,0.000
-5.040E-06,0.040
-5.030E-06,0.120
-5.020E-06,0.040
-5.010E-06,0.080
-5.000E-06,0.040
-4.990E-06,0.080
-4.980E-06,0.080
-4.970E-06,0.080
-4.960E-06,0.160
-4.950E-06,0.160
-4.940E-06,0.200
-4.930E-06,0.040
-4.920E-06,0.080
-4.910E-06,0.040
-4.900E-06,0.080
-4.890E-06,0.040
-4.880E-06,0.080
-4.870E-06,-0.040
-4.860E-06,0.000
-4.850E-06,-0.040
-4.840E-06,0.000
-4.830E-06,-0.080
-4.820E-06,-0.040
-4.810E-06,-0.040
-4.800E-06,0.000
-4.790E-06,0.040
-4.780E-06,0.040
-4.770E-06,-0.040
-4.760E-06,-0.040
-4.750E-06,-0.040
-4.740E-06,-0.040
-4.730E-06,-0.040
-4.720E-06,-0.040
-4.710E-06,-0.040
-4.700E-06,0.000
-4.690E-06,-0.040
-4.680E-06,-0.080
-4.670E-06,-0.040
-4.660E-06,0.000
-4.650E-06,0.000
-4.640E-06,0.000
-4.630E-06,0.000
-4.620E-06,-0.040
-4.610E-06,0.000
-4.600E-06,-0.040
-4.590E-06,0.000
-4.580E-06,-0.040
-4.570E-06,0.000
-4.560E-06,0.000
-4.550E-06,0.000
-4.540E-06,0.000
-4.530E-06,0.040
-4.520E-06,0.040
-4.510E-06,0.040
-4.500E-06,0.040
-4.490E-06,0.040
-4.480E-06,0.000
-4.470E-06,0.080
-4.460E-06,0.080
-4.450E-06,0.000
-4.440E-06,-0.040
-4.430E-06,0.040
-4.420E-06,0.000
-4.410E-06,0.080
-4.400E-06,0.120
-4.390E-06,0.000
-4.380E-06,-0.040
-4.370E-06,0.000
-4.360E-06,0.000
-4.350E-06,0.040
-4.340E-06,0.000
-4.330E-06,0.040
-4.320E-06,-0.040
-4.310E-06,-0.040
-4.300E-06,0.000
-4.290E-06,-0.040
-4.280E-06,-0.040
-4.270E-06,0.000
-4.260E-06,0.000
-4.250E-06,-0.040
-4.240E-06,0.000
-4.230E-06,0.000
-4.220E-06,0.000
-4.210E-06,0.000
-4.200E-06,0.000
-4.190E-06,0.000
-4.180E-06,0.000
-4.170E-06,0.040
-4.160E-06,0.000
-4.150E-06,0.040
-4.140E-06,0.040
-4.130E-06,0.040
-4.120E-06,0.040
-4.110E-06,-0.040
-4.100E-06,0.000
-4.090E-06,0.000
-4.080E-06,0.080
-4.070E-06,0.040
-4.060E-06,0.040
-4.050E-06,0.080
-4.040E-06,0.000
-4.030E-06,0.000
-4.020E-06,0.040
-4.010E-06,0.000
-4.000E-06,0.040
-3.990E-06,0.000
-3.980E-06,0.000
-3.970E-06,0.040
-3.960E-06,0.040
-3.950E-06,0.080
-3.940E-06,0.160
-3.930E-06,0.080
-3.920E-06,0.080
-3.910E-06,0.000
-3.900E-06,0.000
-3.890E-06,0.040
-3.880E-06,0.080
-3.870E-06,0.160
-3.860E-06,0.080
-3.850E-06,0.040
-3.840E-06,0.040
-3.830E-06,0.000
-3.820E-06,0.000
-3.810E-06,0.080
-3.800E-06,0.120
-3.790E-06,0.160
-3.780E-06,0.080
-3.770E-06,-0.040
-3.760E-06,0.000
-3.750E-06,0.000
-3.740E-06,0.040
-3.730E-06,0.040
-3.720E-06,0.040
-3.710E-06,0.000
-3.700E-06,0.000
-3.690E-06,0.000
-3.680E-06,0.000
-3.670E-06,0.000
-3.660E-06,0.000
-3.650E-06,-0.040
-3.640E-06,-0.080
-3.630E-06,-0.040
-3.620E-06,0.000
-3.610E-06,0.000
-3.600E-06,0.000
-3.590E-06,0.000
-3.580E-06,0.080
-3.570E-06,-0.040
-3.560E-06,0.040
-3.550E-06,0.040
-3.540E-06,0.040
-3.530E-06,0.080
-3.520E-06,0.040
-3.510E-06,0.040
-3.500E-06,0.080
-3.490E-06,0.040
-3.480E-06,0.120
-3.470E-06,0.120
-3.460E-06,0.120
-3.450E-06,0.160
-3.440E-06,0.080
-3.430E-06,0.040
-3.420E-06,0.040
-3.410E-06,0.080
-3.400E-06,0.080
-3.390E-06,0.040
-3.380E-06,0.080
-3.370E-06,0.080
-3.360E-06,0.040
-3.350E-06,0.040
-3.340E-06,0.000
-3.330E-06,0.000
-3.320E-06,0.040
-3.310E-06,0.080
-3.300E-06,-0.040
-3.290E-06,0.040
-3.280E-06,0.000
-3.270E-06,0.040
-3.260E-06,0.040
-3.250E-06,0.000
-3.240E-06,0.080
-3.230E-06,0.000
-3.220E-06,0.040
-3.210E-06,0.000
-3.200E-06,0.000
-3.190E-06,0.040
-3.180E-06,0.000
-3.170E-06,0.080
-3.160E-06,0.080
-3.150E-06,0.080
-3.140E-06,0.080
-3.130E-06,0.040
-3.120E-06,0.040
-3.110E-06,0.040
-3.100E-06,-0.040
-3.090E-06,0.000
-3.080E-06,0.040
-3.070E-06,-0.080
-3.060E-06,0.040
-3.050E-06,0.080
-3.040E-06,0.040
-3.030E-06,0.120
-3.020E-06,0.120
-3.010E-06,0.000
-3.000E-06,0.000
-2.990E-06,0.000
-2.980E-06,0.120
-2.970E-06,0.200
-2.960E-06,0.240
-2.950E-06,0.280
-2.940E-06,0.200
-2.930E-06,0.120
-2.920E-06,0.080
-2.910E-06,0.080
-2.900E-06,0.160
-2.890E-06,0.120
-2.880E-06,0.160
-2.870E-06,0.120
-2.860E-06,0.120
-2.850E-06,0.040
-2.840E-06,0.080
-2.830E-06,0.120
-2.820E-06,0.040
-2.810E-06,0.080
-2.800E-06,0.040
-2.790E-06,0.080
-2.780E-06,0.040
-2.770E-06,0.040
-2.760E-06,0.000
-2.750E-06,0.000
-2.740E-06,0.040
-2.730E-06,0.000
-2.720E-06,0.000
-2.710E-06,-0.040
-2.700E-06,0.000
-2.690E-06,-0.040
-2.680E-06,0.040
-2.670E-06,0.040
-2.660E-06,0.040
-2.650E-06,0.000
-2.640E-06,0.000
-2.630E-06,0.000
-2.620E-06,0.000
-2.610E-06,0.000
-2.600E-06,0.000
-2.590E-06,0.040
-2.580E-06,0.040
-2.570E-06,0.000
-2.560E-06,0.080
-2.550E-06,0.080
-2.540E-06,0.040
-2.530E-06,0.080
-2.520E-06,0.080
-2.510E-06,0.120
-2.500E-06,0.120
-2.490E-06,0.160
-2.480E-06,0.200
-2.470E-06,0.120
-2.460E-06,0.120
-2.450E-06,0.120
-2.440E-06,0.080
-2.430E-06,0.160
-2.420E-06,0.080
-2.410E-06,0.200
-2.400E-06,0.200
-2.390E-06,0.120
-2.380E-06,0.160
-2.370E-06,0.160
-2.360E-06,0.160
-2.350E-06,0.280
-2.340E-06,0.360
-2.330E-06,0.320
-2.320E-06,0.360
-2.310E-06,0.240
-2.300E-06,0.200
-2.290E-06,0.200
-2.280E-06,0.240
-2.270E-06,0.200
-2.260E-06,0.240
-2.250E-06,0.120
-2.240E-06,0.160
-2.230E-06,0.080
-2.220E-06,0.080
-2.210E-06,0.000
-2.200E-06,0.000
-2.190E-06,-0.040
-2.180E-06,0.000
-2.170E-06,-0.040
-2.160E-06,-0.040
-2.150E-06,-0.040
-2.140E-06,-0.040
-2.130E-06,-0.040
-2.120E-06,-0.040
-2.110E-06,-0.040
-2.100E-06,-0.080
-2.090E-06,0.000
-2.080E-06,0.000
-2.070E-06,0.000
-2.060E-06,-0.080
-2.050E-06,0.040
-2.040E-06,-0.040
-2.030E-06,0.000
-2.020E-06,0.040
-2.010E-06,0.000
-2.000E-06,0.000
-1.990E-06,0.040
-1.980E-06,0.040
-1.970E-06,0.040
-1.960E-06,0.080
-1.950E-06,0.120
-1.940E-06,0.040
-1.930E-06,0.080
-1.920E-06,0.080
-1.910E-06,0.080
-1.900E-06,0.080
-1.890E-06,0.080
-1.880E-06,0.040
-1.870E-06,0.120
-1.860E-06,0.200
-1.850E-06,0.280
-1.840E-06,0.280
-1.830E-06,0.200
-1.820E-06,0.120
-1.810E-06,0.120
-1.800E-06,0.200
-1.790E-06,0.240
-1.780E-06,0.240
-1.770E-06,0.240
-1.760E-06,0.200
-1.750E-06,0.160
-1.740E-06,0.160
-1.730E-06,0.200
-1.720E-06,0.200
-1.710E-06,0.240
-1.700E-06,0.320
-1.690E-06,0.360
-1.680E-06,0.240
-1.670E-06,0.280
-1.660E-06,0.280
-1.650E-06,0.320
-1.640E-06,0.320
-1.630E-06,0.320
-1.620E-06,0.320
-1.610E-06,0.320
-1.600E-06,0.360
-1.590E-06,0.320
-1.580E-06,0.320
-1.570E-06,0.360
-1.560E-06,0.360
-1.550E-06,0.360
-1.540E-06,0.360
-1.530E-06,0.320
-1.520E-06,0.320
-1.510E-06,0.360
-1.500E-06,0.360
-1.490E-06,0.360
-1.480E-06,0.360
-1.470E-06,0.320
-1.460E-06,0.320
-1.450E-06,0.320
-1.440E-06,0.280
-1.430E-06,0.320
-1.420E-06,0.280
-1.410E-06,0.360
-1.400E-06,0.240
-1.390E-06,0.240
-1.380E-06,0.200
-1.370E-06,0.200
-1.360E-06,0.240
-1.350E-06,0.280
-1.340E-06,0.280
-1.330E-06,0.320
-1.320E-06,0.280
-1.310E-06,0.320
-1.300E-06,0.320
-1.290E-06,0.320
-1.280E-06,0.360
-1.270E-06,0.360
-1.260E-06,0.360
-1.250E-06,0.360
-1.240E-06,0.360
-1.230E-06,0.400
-1.220E-06,0.440
-1.210E-06,0.440
-1.200E-06,0.480
-1.190E-06,0.480
-1.180E-06,0.480
-1.170E-06,0.520
-1.160E-06,0.480
-1.150E-06,0.520
-1.140E-06,0.440
-1.130E-06,0.480
-1.120E-06,0.480
-1.110E-06,0.440
-1.100E-06,0.480
-1.090E-06,0.400
-1.080E-06,0.360
-1.070E-06,0.320
-1.060E-06,0.320
-1.050E-06,0.360
-1.040E-06,0.360
-1.030E-06,0.360
-1.020E-06,0.320
-1.010E-06,0.320
-1.000E-06,0.320
-9.900E-07,0.320
-9.800E-07,0.360
-9.700E-07,0.320
-9.600E-07,0.320
-9.500E-07,0.400
-9.400E-07,0.400
-9.300E-07,0.520
-9.200E-07,0.480
-9.100E-07,0.560
-9.000E-07,0.600
-8.900E-07,0.640
-8.800E-07,0.720
-8.700E-07,0.800
-8.600E-07,0.880
-8.500E-07,0.960
-8.400E-07,0.960
-8.300E-07,0.960
-8.200E-07,0.840
-8.100E-07,0.840
-8.000E-07,0.840
-7.900E-07,0.840
-7.800E-07,0.760
-7.700E-07,0.720
-7.600E-07,0.680
-7.500E-07,0.640
-7.400E-07,0.520
-7.300E-07,0.480
-7.200E-07,0.480
-7.100E-07,0.440
-7.000E-07,0.440
-6.900E-07,0.440
-6.800E-07,0.480
-6.700E-07,0.480
-6.600E-07,0.480
-6.500E-07,0.400
-6.400E-07,0.400
-6.300E-07,0.360
-6.200E-07,0.360
-6.100E-07,0.360
-6.000E-07,0.320
-5.900E-07,0.280
-5.800E-07,0.160
-5.700E-07,0.160
-5.600E-07,0.120
-5.500E-07,0.160
-5.400E-07,0.080
-5.300E-07,0.000
-5.200E-07,0.040
-5.100E-07,0.120
-5.000E-07,0.200
-4.900E-07,0.280
-4.800E-07,0.360
-4.700E-07,0.360
-4.600E-07,0.360
-4.500E-07,0.400
-4.400E-07,0.440
-4.300E-07,0.480
-4.200E-07,0.640
-4.100E-07,0.720
-4.000E-07,0.760
-3.900E-07,0.720
-3.800E-07,0.680
-3.700E-07,0.720
-3.600E-07,0.800
-3.500E-07,0.880
-3.400E-07,0.960
-3.300E-07,1.000
-3.200E-07,1.000
-3.100E-07,1.040
-3.000E-07,0.880
-2.900E-07,0.920
-2.800E-07,0.960
-2.700E-07,0.880
-2.600E-07,0.840
-2.500E-07,0.760
-2.400E-07,0.640
-2.300E-07,0.640
-2.200E-07,0.600
-2.100E-07,0.600
-2.000E-07,0.520
-1.900E-07,0.360
-1.800E-07,0.320
-1.700E-07,0.240
-1.600E-07,0.240
-1.500E-07,0.240
-1.400E-07,0.240
-1.300E-07,0.120
-1.200E-07,0.160
-1.100E-07,0.040
-1.000E-07,-0.040
-9.000E-08,-0.040
-8.000E-08,-0.040
-7.000E-08,0.000
-6.000E-08,-0.200
-5.000E-08,-0.120
-4.000E-08,0.120
-3.000E-08,0.000
-2.000E-08,-0.480
-1.000E-08,-0.400
0.000E+00,-1.240
1.000E-08,-0.680
2.000E-08,-0.080
3.000E-08,0.880
4.000E-08,1.120
5.000E-08,0.840
6.000E-08,0.000
7.000E-08,-0.320
8.000E-08,-0.120
9.000E-08,0.480
1.000E-07,0.960
1.100E-07,1.000
1.200E-07,0.880
1.300E-07,0.560
1.400E-07,0.400
1.500E-07,0.440
1.600E-07,0.480
1.700E-07,0.600
1.800E-07,0.640
1.900E-07,0.480
2.000E-07,0.400
2.100E-07,0.360
2.200E-07,0.240
2.300E-07,0.120
2.400E-07,-0.040
2.500E-07,-0.120
2.600E-07,-0.200
2.700E-07,-0.240
2.800E-07,-0.160
2.900E-07,-0.120
3.000E-07,-0.280
3.100E-07,-0.440
3.200E-07,-0.520
3.300E-07,-0.640
3.400E-07,-0.640
3.500E-07,-0.600
3.600E-07,-0.480
3.700E-07,-0.320
3.800E-07,-0.280
3.900E-07,-0.240
4.000E-07,-0.120
4.100E-07,-0.040
4.200E-07,0.000
4.300E-07,0.040
4.400E-07,0.080
4.500E-07,0.080
4.600E-07,0.040
4.700E-07,0.080
4.800E-07,0.120
4.900E-07,0.160
5.000E-07,0.080
5.100E-07,0.120
5.200E-07,0.120
5.300E-07,0.040
5.400E-07,0.120
5.500E-07,0.240
5.600E-07,0.360
5.700E-07,0.400
5.800E-07,0.400
5.900E-07,0.400
6.000E-07,0.360
6.100E-07,0.360
6.200E-07,0.400
6.300E-07,0.480
6.400E-07,0.600
6.500E-07,0.520
6.600E-07,0.560
6.700E-07,0.480
6.800E-07,0.520
6.900E-07,0.640
7.000E-07,0.680
7.100E-07,0.680
7.200E-07,0.840
7.300E-07,0.640
7.400E-07,0.400
7.500E-07,-0.440
7.600E-07,-0.680
7.700E-07,-0.920
7.800E-07,-0.480
7.900E-07,0.480
8.000E-07,0.920
8.100E-07,0.880
8.200E-07,0.440
8.300E-07,-0.480
8.400E-07,-0.520
8.500E-07,-0.280
8.600E-07,0.560
8.700E-07,1.120
8.800E-07,0.880
8.900E-07,0.480
9.000E-07,0.160
9.100E-07,-0.440
9.200E-07,0.040
9.300E-07,0.120
9.400E-07,0.320
9.500E-07,0.600
9.600E-07,-0.120
9.700E-07,0.000
9.800E-07,-0.400
9.900E-07,-0.440
1.000E-06,-0.440
1.010E-06,-0.680
1.020E-06,-0.600
1.030E-06,-0.680
1.040E-06,-0.560
1.050E-06,-0.480
1.060E-06,-0.400
1.070E-06,-0.560
1.080E-06,-0.600
1.090E-06,-0.600
1.100E-06,-0.600
1.110E-06,-0.360
1.120E-06,-0.160
1.130E-06,-0.040
1.140E-06,0.000
1.150E-06,0.000
1.160E-06,0.200
1.170E-06,0.080
1.180E-06,0.200
1.190E-06,0.120
1.200E-06,0.160
1.210E-06,0.160
1.220E-06,0.040
1.230E-06,0.080
1.240E-06,0.000
1.250E-06,0.080
1.260E-06,0.160
1.270E-06,0.320
1.280E-06,0.440
1.290E-06,0.480
1.300E-06,0.320
1.310E-06,0.320
1.320E-06,0.320
1.330E-06,0.360
1.340E-06,0.440
1.350E-06,0.320
1.360E-06,0.360
1.370E-06,0.120
1.380E-06,0.040
1.390E-06,-0.040
1.400E-06,-0.240
1.410E-06,-0.400
1.420E-06,-0.560
1.430E-06,-0.400
1.440E-06,-0.280
1.450E-06,-0.200
1.460E-06,0.000
1.470E-06,0.200
1.480E-06,0.080
1.490E-06,0.000
1.500E-06,-0.160
1.510E-06,-0.120
1.520E-06,0.040
1.530E-06,0.080
1.540E-06,0.160
1.550E-06,0.160
1.560E-06,0.200
1.570E-06,0.280
1.580E-06,0.200
1.590E-06,0.360
1.600E-06,0.320
1.610E-06,0.360
1.620E-06,0.520
1.630E-06,0.480
1.640E-06,0.560
1.650E-06,0.520
1.660E-06,0.400
1.670E-06,0.360
1.680E-06,0.280
1.690E-06,0.200
1.700E-06,0.160
1.710E-06,0.200
1.720E-06,0.240
1.730E-06,0.160
1.740E-06,0.080
1.750E-06,-0.040
1.760E-06,-0.200
1.770E-06,-0.320
1.780E-06,-0.360
1.790E-06,-0.360
1.800E-06,-0.280
1.810E-06,-0.320
1.820E-06,-0.240
1.830E-06,-0.400
1.840E-06,-0.360
1.850E-06,-0.360
1.860E-06,-0.480
1.870E-06,-0.280
1.880E-06,-0.320
1.890E-06,-0.280
1.900E-06,-0.120
1.910E-06,-0.320
1.920E-06,-0.120
1.930E-06,-0.320
1.940E-06,-0.320
1.950E-06,-0.400
1.960E-06,-0.240
1.970E-06,-0.280
1.980E-06,-0.240
1.990E-06,-0.360
2.000E-06,-0.240
2.010E-06,-0.720
2.020E-06,-0.240
2.030E-06,-0.840
2.040E-06,-0.880
2.050E-06,-1.960
2.060E-06,-1.400
2.070E-06,-2.040
2.080E-06,-0.600
2.090E-06,-0.280
2.100E-06,-0.320
2.110E-06,0.000
2.120E-06,-1.520
2.130E-06,-0.960
2.140E-06,-1.120
2.150E-06,-0.240
2.160E-06,0.360
2.170E-06,0.080
2.180E-06,0.120
2.190E-06,-0.160
2.200E-06,-0.360
2.210E-06,-0.400
2.220E-06,-0.400
2.230E-06,-0.440
2.240E-06,-0.240
2.250E-06,-0.360
2.260E-06,-0.320
2.270E-06,-0.320
2.280E-06,-0.600
2.290E-06,-0.880
2.300E-06,-1.000
2.310E-06,-1.120
2.320E-06,-1.280
2.330E-06,-1.040
2.340E-06,-1.320
2.350E-06,-1.280
2.360E-06,-1.320
2.370E-06,-1.600
2.380E-06,-1.480
2.390E-06,-1.760
2.400E-06,-1.440
2.410E-06,-1.680
2.420E-06,-1.160
2.430E-06,-1.160
2.440E-06,-0.800
2.450E-06,-0.880
2.460E-06,-0.840
2.470E-06,-0.800
2.480E-06,-0.680
2.490E-06,-0.400
2.500E-06,-0.240
2.510E-06,-0.200
2.520E-06,-0.280
2.530E-06,-0.480
2.540E-06,-0.560
2.550E-06,-0.480
2.560E-06,-0.520
2.570E-06,-0.600
2.580E-06,-0.600
2.590E-06,-0.680
2.600E-06,-0.680
2.610E-06,-0.760
2.620E-06,-0.800
2.630E-06,-0.800
2.640E-06,-0.960
2.650E-06,-1.000
2.660E-06,-1.040
2.670E-06,-1.000
2.680E-06,-1.080
2.690E-06,-1.120
2.700E-06,-1.160
2.710E-06,-1.240
2.720E-06,-1.320
2.730E-06,-1.320
2.740E-06,-1.320
2.750E-06,-1.240
2.760E-06,-1.160
2.770E-06,-1.080
2.780E-06,-1.120
2.790E-06,-0.960
2.800E-06,-0.920
2.810E-06,-0.920
2.820E-06,-0.840
2.830E-06,-0.880
2.840E-06,-0.880
2.850E-06,-1.040
2.860E-06,-1.200
2.870E-06,-1.280
2.880E-06,-1.320
2.890E-06,-1.280
2.900E-06,-1.360
2.910E-06,-1.400
2.920E-06,-1.520
2.930E-06,-1.520
2.940E-06,-1.680
2.950E-06,-1.680
2.960E-06,-1.640
2.970E-06,-1.640
2.980E-06,-1.560
2.990E-06,-1.560
3.000E-06,-1.600
3.010E-06,-1.600
3.020E-06,-1.560
3.030E-06,-1.560
3.040E-06,-1.520
3.050E-06,-1.520
3.060E-06,-1.480
3.070E-06,-1.560
3.080E-06,-1.560
3.090E-06,-1.520
3.100E-06,-1.560
3.110E-06,-1.480
3.120E-06,-1.280
3.130E-06,-1.240
3.140E-06,-1.040
3.150E-06,-1.080
3.160E-06,-1.000
3.170E-06,-1.000
3.180E-06,-1.040
3.190E-06,-0.960
3.200E-06,-1.080
3.210E-06,-0.960
3.220E-06,-1.160
3.230E-06,-1.200
3.240E-06,-1.440
3.250E-06,-1.720
3.260E-06,-1.920
3.270E-06,-1.920
3.280E-06,-2.040
3.290E-06,-2.160
3.300E-06,-2.280
3.310E-06,-2.680
3.320E-06,-2.600
3.330E-06,-2.680
3.340E-06,-2.640
3.350E-06,-2.760
3.360E-06,-3.360
3.370E-06,-3.840
3.380E-06,-4.200
3.390E-06,-4.120
3.400E-06,-4.480
3.410E-06,-4.360
3.420E-06,-4.480
3.430E-06,-4.640
3.440E-06,-4.720
3.450E-06,-4.920
3.460E-06,-5.160
3.470E-06,-5.240
3.480E-06,-5.120
3.490E-06,-4.560
3.500E-06,-4.120
3.510E-06,-3.760
3.520E-06,-3.520
3.530E-06,-4.080
3.540E-06,-4.280
3.550E-06,-4.440
3.560E-06,-4.720
3.570E-06,-4.400
3.580E-06,-4.520
3.590E-06,-4.360
3.600E-06,-4.400
3.610E-06,-4.640
3.620E-06,-4.800
3.630E-06,-5.080
3.640E-06,-5.240
3.650E-06,-5.240
3.660E-06,-5.240
3.670E-06,-5.160
3.680E-06,-5.120
3.690E-06,-5.200
3.700E-06,-5.240
3.710E-06,-5.200
3.720E-06,-5.200
3.730E-06,-5.240
3.740E-06,-5.160
3.750E-06,-5.120
3.760E-06,-5.080
3.770E-06,-5.120
3.780E-06,-5.200
3.790E-06,-5.200
3.800E-06,-5.200
3.810E-06,-5.160
3.820E-06,-5.120
3.830E-06,-5.000
3.840E-06,-4.920
3.850E-06,-4.960
3.860E-06,-4.920
3.870E-06,-4.840
3.880E-06,-4.760
3.890E-06,-4.640
3.900E-06,-4.600
3.910E-06,-4.560
3.920E-06,-4.560
3.930E-06,-4.560
3.940E-06,-4.600
3.950E-06,-4.680
3.960E-06,-4.640
3.970E-06,-4.640
3.980E-06,-4.440
3.990E-06,-4.160
4.000E-06,-4.000
4.010E-06,-3.640
4.020E-06,-3.440
4.030E-06,-3.160
4.040E-06,-3.000
4.050E-06,-2.680
4.060E-06,-2.520
4.070E-06,-2.440
4.080E-06,-2.320
4.090E-06,-2.200
4.100E-06,-1.960
4.110E-06,-1.800
4.120E-06,-1.680
4.130E-06,-1.520
4.140E-06,-1.400
4.150E-06,-1.320
4.160E-06,-1.280
4.170E-06,-1.120
4.180E-06,-1.040
4.190E-06,-0.920
4.200E-06,-0.880
4.210E-06,-0.840
4.220E-06,-0.800
4.230E-06,-0.680
4.240E-06,-0.560
4.250E-06,-0.440
4.260E-06,-0.360
4.270E-06,-0.400
4.280E-06,-0.440
4.290E-06,-0.520
4.300E-06,-0.520
4.310E-06,-0.640
4.320E-06,-0.680
4.330E-06,-0.880
4.340E-06,-0.960
4.350E-06,-1.120
4.360E-06,-1.360
4.370E-06,-1.480
4.380E-06,-1.760
4.390E-06,-2.040
