mediciones/Mediciones filtradas (saque las feas)/5-27/-17.5/WaveData51111.csv

#timebase=2000000(ps)
,#voltbase=1000000(mv/100)
#size=4000
-7.300E-06,0.040
-7.290E-06,0.080
-7.280E-06,0.000
-7.270E-06,0.040
-7.260E-06,0.040
-7.250E-06,0.080
-7.240E-06,0.040
-7.230E-06,0.040
-7.220E-06,0.080
-7.210E-06,0.080
-7.200E-06,0.080
-7.190E-06,0.040
-7.180E-06,0.040
-7.170E-06,0.040
-7.160E-06,0.000
-7.150E-06,0.040
-7.140E-06,0.040
-7.130E-06,0.000
-7.120E-06,0.040
-7.110E-06,0.080
-7.100E-06,0.040
-7.090E-06,0.040
-7.080E-06,0.080
-7.070E-06,0.000
-7.060E-06,0.040
-7.050E-06,0.040
-7.040E-06,0.080
-7.030E-06,0.080
-7.020E-06,0.080
-7.010E-06,0.040
-7.000E-06,0.040
-6.990E-06,0.080
-6.980E-06,0.040
-6.970E-06,0.080
-6.960E-06,0.040
-6.950E-06,0.040
-6.940E-06,0.040
-6.930E-06,0.000
-6.920E-06,0.000
-6.910E-06,0.040
-6.900E-06,0.040
-6.890E-06,0.080
-6.880E-06,0.080
-6.870E-06,0.080
-6.860E-06,0.080
-6.850E-06,0.120
-6.840E-06,0.040
-6.830E-06,0.080
-6.820E-06,0.040
-6.810E-06,0.080
-6.800E-06,0.080
-6.790E-06,0.080
-6.780E-06,0.120
-6.770E-06,0.000
-6.760E-06,0.040
-6.750E-06,0.040
-6.740E-06,0.080
-6.730E-06,0.000
-6.720E-06,0.080
-6.710E-06,0.040
-6.700E-06,0.000
-6.690E-06,0.040
-6.680E-06,0.040
-6.670E-06,0.080
-6.660E-06,0.040
-6.650E-06,0.080
-6.640E-06,0.080
-6.630E-06,0.080
-6.620E-06,0.120
-6.610E-06,0.040
-6.600E-06,0.000
-6.590E-06,0.040
-6.580E-06,0.000
-6.570E-06,0.040
-6.560E-06,0.000
-6.550E-06,0.040
-6.540E-06,0.080
-6.530E-06,0.000
-6.520E-06,0.040
-6.510E-06,0.040
-6.500E-06,0.040
-6.490E-06,0.040
-6.480E-06,0.080
-6.470E-06,0.040
-6.460E-06,0.040
-6.450E-06,0.120
-6.440E-06,0.040
-6.430E-06,0.040
-6.420E-06,0.080
-6.410E-06,0.000
-6.400E-06,0.000
-6.390E-06,0.080
-6.380E-06,0.000
-6.370E-06,0.040
-6.360E-06,0.000
-6.350E-06,0.080
-6.340E-06,0.040
-6.330E-06,0.080
-6.320E-06,0.040
-6.310E-06,0.120
-6.300E-06,0.000
-6.290E-06,0.080
-6.280E-06,0.080
-6.270E-06,0.080
-6.260E-06,0.120
-6.250E-06,0.080
-6.240E-06,0.080
-6.230E-06,0.120
-6.220E-06,0.000
-6.210E-06,0.080
-6.200E-06,0.040
-6.190E-06,0.040
-6.180E-06,0.080
-6.170E-06,0.080
-6.160E-06,0.080
-6.150E-06,0.000
-6.140E-06,0.080
-6.130E-06,0.120
-6.120E-06,0.040
-6.110E-06,0.040
-6.100E-06,0.080
-6.090E-06,0.040
-6.080E-06,0.040
-6.070E-06,0.080
-6.060E-06,0.080
-6.050E-06,0.040
-6.040E-06,0.040
-6.030E-06,0.040
-6.020E-06,0.080
-6.010E-06,0.080
-6.000E-06,0.080
-5.990E-06,0.080
-5.980E-06,0.000
-5.970E-06,0.040
-5.960E-06,0.080
-5.950E-06,0.040
-5.940E-06,0.080
-5.930E-06,0.040
-5.920E-06,0.080
-5.910E-06,0.040
-5.900E-06,0.040
-5.890E-06,0.040
-5.880E-06,0.080
-5.870E-06,0.080
-5.860E-06,0.040
-5.850E-06,0.080
-5.840E-06,0.080
-5.830E-06,0.040
-5.820E-06,0.040
-5.810E-06,0.080
-5.800E-06,0.040
-5.790E-06,0.080
-5.780E-06,0.080
-5.770E-06,0.120
-5.760E-06,0.080
-5.750E-06,0.000
-5.740E-06,0.080
-5.730E-06,0.040
-5.720E-06,0.080
-5.710E-06,0.040
-5.700E-06,0.080
-5.690E-06,0.040
-5.680E-06,0.080
-5.670E-06,0.000
-5.660E-06,0.080
-5.650E-06,0.080
-5.640E-06,0.000
-5.630E-06,0.000
-5.620E-06,0.040
-5.610E-06,0.080
-5.600E-06,0.120
-5.590E-06,0.080
-5.580E-06,0.000
-5.570E-06,0.080
-5.560E-06,0.080
-5.550E-06,0.040
-5.540E-06,0.080
-5.530E-06,0.000
-5.520E-06,0.080
-5.510E-06,0.120
-5.500E-06,0.120
-5.490E-06,0.040
-5.480E-06,0.040
-5.470E-06,0.080
-5.460E-06,0.120
-5.450E-06,0.000
-5.440E-06,0.080
-5.430E-06,0.080
-5.420E-06,0.080
-5.410E-06,0.080
-5.400E-06,0.040
-5.390E-06,0.040
-5.380E-06,0.040
-5.370E-06,0.080
-5.360E-06,0.080
-5.350E-06,0.080
-5.340E-06,0.120
-5.330E-06,0.040
-5.320E-06,0.000
-5.310E-06,0.080
-5.300E-06,0.040
-5.290E-06,0.040
-5.280E-06,0.080
-5.270E-06,0.000
-5.260E-06,0.040
-5.250E-06,0.040
-5.240E-06,0.080
-5.230E-06,0.040
-5.220E-06,0.080
-5.210E-06,0.040
-5.200E-06,0.080
-5.190E-06,0.040
-5.180E-06,0.040
-5.170E-06,0.080
-5.160E-06,0.080
-5.150E-06,0.040
-5.140E-06,0.080
-5.130E-06,0.080
-5.120E-06,0.080
-5.110E-06,0.080
-5.100E-06,0.000
-5.090E-06,0.080
-5.080E-06,0.080
-5.070E-06,0.080
-5.060E-06,0.080
-5.050E-06,0.080
-5.040E-06,0.080
-5.030E-06,0.080
-5.020E-06,0.040
-5.010E-06,0.040
-5.000E-06,0.040
-4.990E-06,0.040
-4.980E-06,0.040
-4.970E-06,0.040
-4.960E-06,0.040
-4.950E-06,0.080
-4.940E-06,0.040
-4.930E-06,0.080
-4.920E-06,0.040
-4.910E-06,0.040
-4.900E-06,0.040
-4.890E-06,0.040
-4.880E-06,0.080
-4.870E-06,0.080
-4.860E-06,0.200
-4.850E-06,0.520
-4.840E-06,1.080
-4.830E-06,1.880
-4.820E-06,2.640
-4.810E-06,2.840
-4.800E-06,2.600
-4.790E-06,1.720
-4.780E-06,0.480
-4.770E-06,-0.440
-4.760E-06,-1.040
-4.750E-06,-1.280
-4.740E-06,-1.480
-4.730E-06,-1.760
-4.720E-06,-2.040
-4.710E-06,-2.320
-4.700E-06,-2.280
-4.690E-06,-2.160
-4.680E-06,-1.760
-4.670E-06,-1.480
-4.660E-06,-1.280
-4.650E-06,-1.200
-4.640E-06,-1.040
-4.630E-06,-0.880
-4.620E-06,-0.720
-4.610E-06,-0.520
-4.600E-06,-0.400
-4.590E-06,-0.240
-4.580E-06,0.000
-4.570E-06,0.320
-4.560E-06,0.680
-4.550E-06,0.920
-4.540E-06,1.040
-4.530E-06,1.120
-4.520E-06,1.080
-4.510E-06,0.960
-4.500E-06,0.960
-4.490E-06,0.880
-4.480E-06,0.840
-4.470E-06,0.720
-4.460E-06,0.600
-4.450E-06,0.360
-4.440E-06,0.280
-4.430E-06,0.160
-4.420E-06,0.160
-4.410E-06,0.160
-4.400E-06,0.200
-4.390E-06,0.080
-4.380E-06,0.120
-4.370E-06,0.080
-4.360E-06,0.120
-4.350E-06,0.080
-4.340E-06,0.080
-4.330E-06,0.040
-4.320E-06,0.000
-4.310E-06,0.040
-4.300E-06,0.040
-4.290E-06,0.160
-4.280E-06,0.080
-4.270E-06,0.120
-4.260E-06,0.200
-4.250E-06,0.000
-4.240E-06,0.000
-4.230E-06,-0.080
-4.220E-06,-0.240
-4.210E-06,-0.320
-4.200E-06,-0.280
-4.190E-06,-0.320
-4.180E-06,-0.400
-4.170E-06,-0.520
-4.160E-06,-0.520
-4.150E-06,-0.600
-4.140E-06,-0.480
-4.130E-06,-0.440
-4.120E-06,-0.360
-4.110E-06,-0.360
-4.100E-06,-0.240
-4.090E-06,-0.160
-4.080E-06,-0.080
-4.070E-06,0.000
-4.060E-06,0.080
-4.050E-06,0.200
-4.040E-06,0.120
-4.030E-06,0.160
-4.020E-06,0.160
-4.010E-06,0.160
-4.000E-06,0.200
-3.990E-06,0.240
-3.980E-06,0.240
-3.970E-06,0.200
-3.960E-06,0.200
-3.950E-06,0.160
-3.940E-06,0.040
-3.930E-06,0.000
-3.920E-06,-0.040
-3.910E-06,0.000
-3.900E-06,-0.040
-3.890E-06,0.000
-3.880E-06,-0.040
-3.870E-06,-0.040
-3.860E-06,-0.040
-3.850E-06,-0.080
-3.840E-06,-0.080
-3.830E-06,-0.080
-3.820E-06,0.000
-3.810E-06,0.000
-3.800E-06,0.000
-3.790E-06,0.080
-3.780E-06,0.160
-3.770E-06,0.120
-3.760E-06,0.200
-3.750E-06,0.200
-3.740E-06,0.200
-3.730E-06,0.200
-3.720E-06,0.360
-3.710E-06,0.440
-3.700E-06,0.520
-3.690E-06,0.520
-3.680E-06,0.400
-3.670E-06,0.400
-3.660E-06,0.360
-3.650E-06,0.320
-3.640E-06,0.400
-3.630E-06,0.400
-3.620E-06,0.440
-3.610E-06,0.320
-3.600E-06,0.240
-3.590E-06,0.080
-3.580E-06,-0.040
-3.570E-06,0.040
-3.560E-06,-0.040
-3.550E-06,0.160
-3.540E-06,0.080
-3.530E-06,0.160
-3.520E-06,0.160
-3.510E-06,0.080
-3.500E-06,0.160
-3.490E-06,0.080
-3.480E-06,0.120
-3.470E-06,0.360
-3.460E-06,0.240
-3.450E-06,0.280
-3.440E-06,0.200
-3.430E-06,0.160
-3.420E-06,0.120
-3.410E-06,0.200
-3.400E-06,0.320
-3.390E-06,0.360
-3.380E-06,0.440
-3.370E-06,0.480
-3.360E-06,0.520
-3.350E-06,0.640
-3.340E-06,0.720
-3.330E-06,0.800
-3.320E-06,0.920
-3.310E-06,0.920
-3.300E-06,0.880
-3.290E-06,0.760
-3.280E-06,0.520
-3.270E-06,0.240
-3.260E-06,0.320
-3.250E-06,0.000
-3.240E-06,0.440
-3.230E-06,0.400
-3.220E-06,0.520
-3.210E-06,0.520
-3.200E-06,0.320
-3.190E-06,0.360
-3.180E-06,0.080
-3.170E-06,0.240
-3.160E-06,0.400
-3.150E-06,0.560
-3.140E-06,0.640
-3.130E-06,0.680
-3.120E-06,0.680
-3.110E-06,0.560
-3.100E-06,0.240
-3.090E-06,0.640
-3.080E-06,0.400
-3.070E-06,0.480
-3.060E-06,0.480
-3.050E-06,0.640
-3.040E-06,0.600
-3.030E-06,0.880
-3.020E-06,0.960
-3.010E-06,0.880
-3.000E-06,0.880
-2.990E-06,0.720
-2.980E-06,0.640
-2.970E-06,1.280
-2.960E-06,1.400
-2.950E-06,1.400
-2.940E-06,1.240
-2.930E-06,0.480
-2.920E-06,0.520
-2.910E-06,0.240
-2.900E-06,0.880
-2.890E-06,1.120
-2.880E-06,1.080
-2.870E-06,0.920
-2.860E-06,0.360
-2.850E-06,0.080
-2.840E-06,0.240
-2.830E-06,0.600
-2.820E-06,0.920
-2.810E-06,0.880
-2.800E-06,0.720
-2.790E-06,0.320
-2.780E-06,0.160
-2.770E-06,0.200
-2.760E-06,0.440
-2.750E-06,0.680
-2.740E-06,0.720
-2.730E-06,0.600
-2.720E-06,0.400
-2.710E-06,0.240
-2.700E-06,0.240
-2.690E-06,0.360
-2.680E-06,0.400
-2.670E-06,0.360
-2.660E-06,0.480
-2.650E-06,0.480
-2.640E-06,0.320
-2.630E-06,0.480
-2.620E-06,0.200
-2.610E-06,0.280
-2.600E-06,0.360
-2.590E-06,0.240
-2.580E-06,0.480
-2.570E-06,0.320
-2.560E-06,0.280
-2.550E-06,0.160
-2.540E-06,0.080
-2.530E-06,0.160
-2.520E-06,0.200
-2.510E-06,0.240
-2.500E-06,0.320
-2.490E-06,0.320
-2.480E-06,0.360
-2.470E-06,0.280
-2.460E-06,0.280
-2.450E-06,0.280
-2.440E-06,0.360
-2.430E-06,0.400
-2.420E-06,0.400
-2.410E-06,0.400
-2.400E-06,0.400
-2.390E-06,0.480
-2.380E-06,0.440
-2.370E-06,0.440
-2.360E-06,0.480
-2.350E-06,0.440
-2.340E-06,0.360
-2.330E-06,0.200
-2.320E-06,0.200
-2.310E-06,0.200
-2.300E-06,0.280
-2.290E-06,0.280
-2.280E-06,0.320
-2.270E-06,0.280
-2.260E-06,0.160
-2.250E-06,0.120
-2.240E-06,0.200
-2.230E-06,0.320
-2.220E-06,0.440
-2.210E-06,0.640
-2.200E-06,0.760
-2.190E-06,0.680
-2.180E-06,0.720
-2.170E-06,0.600
-2.160E-06,0.600
-2.150E-06,0.720
-2.140E-06,0.760
-2.130E-06,0.920
-2.120E-06,0.920
-2.110E-06,0.920
-2.100E-06,0.960
-2.090E-06,1.040
-2.080E-06,1.120
-2.070E-06,1.200
-2.060E-06,1.160
-2.050E-06,1.080
-2.040E-06,1.000
-2.030E-06,1.000
-2.020E-06,0.800
-2.010E-06,0.800
-2.000E-06,0.680
-1.990E-06,0.560
-1.980E-06,0.400
-1.970E-06,0.400
-1.960E-06,0.560
-1.950E-06,0.680
-1.940E-06,0.800
-1.930E-06,0.760
-1.920E-06,0.760
-1.910E-06,0.680
-1.900E-06,0.880
-1.890E-06,0.960
-1.880E-06,1.080
-1.870E-06,0.960
-1.860E-06,0.960
-1.850E-06,1.040
-1.840E-06,1.040
-1.830E-06,1.000
-1.820E-06,1.080
-1.810E-06,1.200
-1.800E-06,1.280
-1.790E-06,1.360
-1.780E-06,1.360
-1.770E-06,1.240
-1.760E-06,1.280
-1.750E-06,1.480
-1.740E-06,1.680
-1.730E-06,1.880
-1.720E-06,2.040
-1.710E-06,2.040
-1.700E-06,1.880
-1.690E-06,1.680
-1.680E-06,1.640
-1.670E-06,1.640
-1.660E-06,1.960
-1.650E-06,2.080
-1.640E-06,2.040
-1.630E-06,1.960
-1.620E-06,1.840
-1.610E-06,1.760
-1.600E-06,1.880
-1.590E-06,1.880
-1.580E-06,2.000
-1.570E-06,2.160
-1.560E-06,2.280
-1.550E-06,2.320
-1.540E-06,2.320
-1.530E-06,2.360
-1.520E-06,2.200
-1.510E-06,2.120
-1.500E-06,1.680
-1.490E-06,1.800
-1.480E-06,1.600
-1.470E-06,1.800
-1.460E-06,1.840
-1.450E-06,1.720
-1.440E-06,1.200
-1.430E-06,0.800
-1.420E-06,0.560
-1.410E-06,0.560
-1.400E-06,0.760
-1.390E-06,0.920
-1.380E-06,0.960
-1.370E-06,0.800
-1.360E-06,0.800
-1.350E-06,0.880
-1.340E-06,0.800
-1.330E-06,1.120
-1.320E-06,1.160
-1.310E-06,1.280
-1.300E-06,1.240
-1.290E-06,1.240
-1.280E-06,1.200
-1.270E-06,1.160
-1.260E-06,1.120
-1.250E-06,1.120
-1.240E-06,1.080
-1.230E-06,1.200
-1.220E-06,1.280
-1.210E-06,1.120
-1.200E-06,1.080
-1.190E-06,0.920
-1.180E-06,1.040
-1.170E-06,1.000
-1.160E-06,1.240
-1.150E-06,1.520
-1.140E-06,1.200
-1.130E-06,1.120
-1.120E-06,0.840
-1.110E-06,0.720
-1.100E-06,1.000
-1.090E-06,1.040
-1.080E-06,1.120
-1.070E-06,1.000
-1.060E-06,0.800
-1.050E-06,0.760
-1.040E-06,0.880
-1.030E-06,1.000
-1.020E-06,1.080
-1.010E-06,1.280
-1.000E-06,1.280
-9.900E-07,1.320
-9.800E-07,1.280
-9.700E-07,1.280
-9.600E-07,1.320
-9.500E-07,1.280
-9.400E-07,1.160
-9.300E-07,0.880
-9.200E-07,0.560
-9.100E-07,-0.120
-9.000E-07,-0.280
-8.900E-07,-0.400
-8.800E-07,-0.360
-8.700E-07,-0.120
-8.600E-07,-0.120
-8.500E-07,-0.160
-8.400E-07,-0.400
-8.300E-07,-0.440
-8.200E-07,-0.320
-8.100E-07,0.000
-8.000E-07,0.200
-7.900E-07,0.440
-7.800E-07,0.600
-7.700E-07,0.640
-7.600E-07,0.840
-7.500E-07,0.880
-7.400E-07,1.040
-7.300E-07,1.200
-7.200E-07,1.240
-7.100E-07,1.240
-7.000E-07,1.160
-6.900E-07,1.040
-6.800E-07,1.040
-6.700E-07,1.000
-6.600E-07,0.960
-6.500E-07,0.880
-6.400E-07,0.760
-6.300E-07,0.520
-6.200E-07,0.480
-6.100E-07,0.200
-6.000E-07,0.160
-5.900E-07,0.040
-5.800E-07,-0.040
-5.700E-07,0.000
-5.600E-07,0.000
-5.500E-07,-0.040
-5.400E-07,-0.040
-5.300E-07,-0.080
-5.200E-07,0.080
-5.100E-07,0.120
-5.000E-07,0.240
-4.900E-07,0.360
-4.800E-07,0.280
-4.700E-07,0.160
-4.600E-07,0.040
-4.500E-07,0.000
-4.400E-07,-0.160
-4.300E-07,-0.240
-4.200E-07,-0.160
-4.100E-07,-0.240
-4.000E-07,-0.240
-3.900E-07,-0.200
-3.800E-07,-0.240
-3.700E-07,-0.240
-3.600E-07,-0.240
-3.500E-07,-0.320
-3.400E-07,-0.240
-3.300E-07,-0.240
-3.200E-07,-0.080
-3.100E-07,-0.040
-3.000E-07,0.000
-2.900E-07,0.080
-2.800E-07,0.160
-2.700E-07,0.160
-2.600E-07,0.360
-2.500E-07,0.320
-2.400E-07,0.400
-2.300E-07,0.440
-2.200E-07,0.480
-2.100E-07,0.520
-2.000E-07,0.520
-1.900E-07,0.480
-1.800E-07,0.440
-1.700E-07,0.480
-1.600E-07,0.400
-1.500E-07,0.360
-1.400E-07,0.280
-1.300E-07,0.160
-1.200E-07,0.000
-1.100E-07,0.000
-1.000E-07,-0.200
-9.000E-08,-0.040
-8.000E-08,-0.280
-7.000E-08,0.000
-6.000E-08,-0.120
-5.000E-08,-0.440
-4.000E-08,-0.480
-3.000E-08,-0.640
-2.000E-08,-1.360
-1.000E-08,-1.400
0.000E+00,-2.040
1.000E-08,-1.400
2.000E-08,-1.120
3.000E-08,0.400
4.000E-08,0.960
5.000E-08,0.840
6.000E-08,0.440
7.000E-08,-0.520
8.000E-08,-0.560
9.000E-08,0.200
1.000E-07,0.760
1.100E-07,1.440
1.200E-07,1.120
1.300E-07,0.840
1.400E-07,0.440
1.500E-07,0.200
1.600E-07,0.480
1.700E-07,0.680
1.800E-07,1.040
1.900E-07,1.280
2.000E-07,1.320
2.100E-07,1.200
2.200E-07,1.080
2.300E-07,0.960
2.400E-07,0.920
2.500E-07,0.840
2.600E-07,0.840
2.700E-07,0.840
2.800E-07,0.840
2.900E-07,0.760
3.000E-07,0.720
3.100E-07,0.680
3.200E-07,0.720
3.300E-07,0.840
3.400E-07,0.920
3.500E-07,1.040
3.600E-07,1.120
3.700E-07,1.160
3.800E-07,1.200
3.900E-07,1.320
4.000E-07,1.440
4.100E-07,1.480
4.200E-07,1.560
4.300E-07,1.560
4.400E-07,1.520
4.500E-07,1.400
4.600E-07,1.280
4.700E-07,1.080
4.800E-07,1.000
4.900E-07,0.880
5.000E-07,0.840
5.100E-07,0.760
5.200E-07,0.560
5.300E-07,0.560
5.400E-07,0.440
5.500E-07,0.520
5.600E-07,0.520
5.700E-07,0.480
5.800E-07,0.680
5.900E-07,0.680
6.000E-07,0.800
6.100E-07,0.720
6.200E-07,0.520
6.300E-07,0.440
6.400E-07,0.400
6.500E-07,0.520
6.600E-07,0.720
6.700E-07,0.840
6.800E-07,0.720
6.900E-07,0.480
7.000E-07,0.360
7.100E-07,0.240
7.200E-07,0.320
7.300E-07,0.520
7.400E-07,0.640
7.500E-07,0.800
7.600E-07,0.640
7.700E-07,0.560
7.800E-07,0.440
7.900E-07,0.360
8.000E-07,0.400
8.100E-07,0.360
8.200E-07,0.600
8.300E-07,0.480
8.400E-07,0.640
8.500E-07,0.520
8.600E-07,0.480
8.700E-07,0.440
8.800E-07,0.440
8.900E-07,0.520
9.000E-07,0.560
9.100E-07,0.680
9.200E-07,0.720
9.300E-07,0.680
9.400E-07,0.640
9.500E-07,0.560
9.600E-07,0.680
9.700E-07,0.720
9.800E-07,0.840
9.900E-07,1.000
1.000E-06,1.000
1.010E-06,1.000
1.020E-06,0.800
1.030E-06,0.760
1.040E-06,0.720
1.050E-06,0.680
1.060E-06,0.680
1.070E-06,0.600
1.080E-06,0.440
1.090E-06,0.240
1.100E-06,0.000
1.110E-06,-0.120
1.120E-06,-0.240
1.130E-06,-0.360
1.140E-06,-0.480
1.150E-06,-0.640
1.160E-06,-0.800
1.170E-06,-0.920
1.180E-06,-0.960
1.190E-06,-1.080
1.200E-06,-1.120
1.210E-06,-1.160
1.220E-06,-1.200
1.230E-06,-1.200
1.240E-06,-1.240
1.250E-06,-1.320
1.260E-06,-1.320
1.270E-06,-1.280
1.280E-06,-1.280
1.290E-06,-1.320
1.300E-06,-1.360
1.310E-06,-1.360
1.320E-06,-1.360
1.330E-06,-1.360
1.340E-06,-1.440
1.350E-06,-1.520
1.360E-06,-1.480
1.370E-06,-1.560
1.380E-06,-1.520
1.390E-06,-1.560
1.400E-06,-1.520
1.410E-06,-1.560
1.420E-06,-1.560
1.430E-06,-1.600
1.440E-06,-1.600
1.450E-06,-1.600
1.460E-06,-1.600
1.470E-06,-1.600
1.480E-06,-1.600
1.490E-06,-1.640
1.500E-06,-1.640
1.510E-06,-1.680
1.520E-06,-1.680
1.530E-06,-1.680
1.540E-06,-1.680
1.550E-06,-1.720
1.560E-06,-1.760
1.570E-06,-1.840
1.580E-06,-2.000
1.590E-06,-2.160
1.600E-06,-2.240
1.610E-06,-2.440
1.620E-06,-2.680
1.630E-06,-2.920
1.640E-06,-3.160
1.650E-06,-3.480
1.660E-06,-3.920
1.670E-06,-4.280
1.680E-06,-4.600
1.690E-06,-5.040
1.700E-06,-5.200
1.710E-06,-5.200
1.720E-06,-5.200
1.730E-06,-5.200
1.740E-06,-5.240
1.750E-06,-5.240
1.760E-06,-5.240
1.770E-06,-5.240
1.780E-06,-5.240
1.790E-06,-5.240
1.800E-06,-5.200
1.810E-06,-5.200
1.820E-06,-5.200
1.830E-06,-5.240
1.840E-06,-5.240
1.850E-06,-5.200
1.860E-06,-5.240
1.870E-06,-5.200
1.880E-06,-5.240
1.890E-06,-5.240
1.900E-06,-5.240
1.910E-06,-5.240
1.920E-06,-5.240
1.930E-06,-5.240
1.940E-06,-5.240
1.950E-06,-5.040
1.960E-06,-4.920
1.970E-06,-4.720
1.980E-06,-4.600
1.990E-06,-4.560
2.000E-06,-4.480
2.010E-06,-4.520
2.020E-06,-4.480
2.030E-06,-4.520
2.040E-06,-4.440
2.050E-06,-4.400
2.060E-06,-4.360
2.070E-06,-4.280
2.080E-06,-4.240
2.090E-06,-4.200
2.100E-06,-4.160
2.110E-06,-4.200
2.120E-06,-4.120
2.130E-06,-4.000
2.140E-06,-3.960
2.150E-06,-3.840
2.160E-06,-3.840
2.170E-06,-3.760
2.180E-06,-3.640
2.190E-06,-3.680
2.200E-06,-3.560
2.210E-06,-3.560
2.220E-06,-3.480
2.230E-06,-3.440
2.240E-06,-3.360
2.250E-06,-3.400
2.260E-06,-3.440
2.270E-06,-3.480
2.280E-06,-3.480
2.290E-06,-3.480
2.300E-06,-3.520
2.310E-06,-3.520
2.320E-06,-3.480
2.330E-06,-3.480
2.340E-06,-3.520
2.350E-06,-3.520
2.360E-06,-3.520
2.370E-06,-3.480
2.380E-06,-3.360
2.390E-06,-3.320
2.400E-06,-3.240
2.410E-06,-3.120
2.420E-06,-2.920
2.430E-06,-2.760
2.440E-06,-2.520
2.450E-06,-2.440
2.460E-06,-2.320
2.470E-06,-2.240
2.480E-06,-2.040
2.490E-06,-1.960
2.500E-06,-1.720
2.510E-06,-1.600
2.520E-06,-1.480
2.530E-06,-1.320
2.540E-06,-1.240
2.550E-06,-1.120
2.560E-06,-1.040
2.570E-06,-1.000
2.580E-06,-0.920
2.590E-06,-0.880
2.600E-06,-0.960
2.610E-06,-0.960
2.620E-06,-1.040
2.630E-06,-1.120
2.640E-06,-1.120
2.650E-06,-1.120
2.660E-06,-1.160
2.670E-06,-1.160
2.680E-06,-1.240
2.690E-06,-1.200
2.700E-06,-1.160
2.710E-06,-1.120
2.720E-06,-1.040
2.730E-06,-1.040
2.740E-06,-0.960
2.750E-06,-0.920
2.760E-06,-0.840
2.770E-06,-0.840
2.780E-06,-0.920
2.790E-06,-1.000
2.800E-06,-1.040
2.810E-06,-1.160
2.820E-06,-1.240
2.830E-06,-1.320
2.840E-06,-1.400
2.850E-06,-1.520
2.860E-06,-1.600
2.870E-06,-1.680
2.880E-06,-1.720
2.890E-06,-1.760
2.900E-06,-1.800
2.910E-06,-1.880
2.920E-06,-1.960
2.930E-06,-2.000
2.940E-06,-2.040
2.950E-06,-2.040
2.960E-06,-2.000
2.970E-06,-2.000
2.980E-06,-2.000
2.990E-06,-2.040
3.000E-06,-2.080
3.010E-06,-2.040
3.020E-06,-2.040
3.030E-06,-2.080
3.040E-06,-2.000
3.050E-06,-2.040
3.060E-06,-2.080
3.070E-06,-2.040
3.080E-06,-2.000
3.090E-06,-1.920
3.100E-06,-1.880
3.110E-06,-1.800
3.120E-06,-1.680
3.130E-06,-1.600
3.140E-06,-1.440
3.150E-06,-1.360
3.160E-06,-1.160
3.170E-06,-0.960
3.180E-06,-0.880
3.190E-06,-0.760
3.200E-06,-0.640
3.210E-06,-0.520
3.220E-06,-0.400
3.230E-06,-0.320
3.240E-06,-0.240
3.250E-06,-0.160
3.260E-06,-0.120
3.270E-06,-0.200
3.280E-06,-0.240
3.290E-06,-0.280
3.300E-06,-0.320
3.310E-06,-0.400
3.320E-06,-0.520
3.330E-06,-0.520
3.340E-06,-0.640
3.350E-06,-0.680
3.360E-06,-0.760
3.370E-06,-0.840
3.380E-06,-0.920
3.390E-06,-1.040
3.400E-06,-1.120
3.410E-06,-1.240
3.420E-06,-1.320
3.430E-06,-1.480
3.440E-06,-1.640
3.450E-06,-1.720
3.460E-06,-1.760
3.470E-06,-1.840
3.480E-06,-1.840
3.490E-06,-1.800
3.500E-06,-1.760
3.510E-06,-1.640
3.520E-06,-1.480
3.530E-06,-1.240
3.540E-06,-1.120
3.550E-06,-0.840
3.560E-06,-0.680
3.570E-06,-0.520
3.580E-06,-0.360
3.590E-06,-0.280
3.600E-06,-0.160
3.610E-06,0.000
3.620E-06,0.000
3.630E-06,0.080
3.640E-06,0.040
3.650E-06,0.040
3.660E-06,0.000
3.670E-06,-0.040
3.680E-06,-0.120
3.690E-06,-0.160
3.700E-06,-0.360
3.710E-06,-0.360
3.720E-06,-0.440
3.730E-06,-0.480
3.740E-06,-0.520
3.750E-06,-0.560
3.760E-06,-0.600
3.770E-06,-0.640
3.780E-06,-0.600
3.790E-06,-0.680
3.800E-06,-0.720
3.810E-06,-0.800
3.820E-06,-0.880
3.830E-06,-0.960
3.840E-06,-1.120
3.850E-06,-1.280
3.860E-06,-1.400
3.870E-06,-1.480
3.880E-06,-1.600
3.890E-06,-1.680
3.900E-06,-1.720
3.910E-06,-1.720
3.920E-06,-1.680
3.930E-06,-1.680
3.940E-06,-1.600
3.950E-06,-1.560
3.960E-06,-1.440
3.970E-06,-1.400
3.980E-06,-1.360
3.990E-06,-1.320
4.000E-06,-1.240
4.010E-06,-1.120
4.020E-06,-1.000
4.030E-06,-0.880
4.040E-06,-0.760
4.050E-06,-0.680
4.060E-06,-0.520
4.070E-06,-0.400
4.080E-06,-0.320
4.090E-06,-0.240
4.100E-06,-0.080
4.110E-06,-0.040
4.120E-06,0.080
4.130E-06,0.120
4.140E-06,0.240
4.150E-06,0.240
4.160E-06,0.320
4.170E-06,0.320
4.180E-06,0.280
4.190E-06,0.240
4.200E-06,0.160
4.210E-06,0.040
4.220E-06,-0.040
4.230E-06,-0.120
4.240E-06,-0.280
4.250E-06,-0.280
4.260E-06,-0.360
4.270E-06,-0.320
4.280E-06,-0.280
4.290E-06,-0.280
4.300E-06,-0.200
4.310E-06,-0.200
4.320E-06,-0.200
4.330E-06,-0.200
4.340E-06,-0.120
4.350E-06,-0.120
4.360E-06,-0.160
4.370E-06,-0.200
4.380E-06,-0.320
4.390E-06,-0.360
4.400E-06,-0.480
4.410E-06,-0.680
4.420E-06,-0.800
4.430E-06,-0.960
4.440E-06,-1.040
