mediciones/5-15/-19.9/WaveData47663.csv

#timebase=2000000(ps)
,#voltbase=100000(mv/100)
#size=4000
-8.400E-06,0.000
-8.390E-06,0.004
-8.380E-06,0.000
-8.370E-06,0.000
-8.360E-06,0.004
-8.350E-06,0.004
-8.340E-06,0.004
-8.330E-06,0.000
-8.320E-06,0.004
-8.310E-06,-0.004
-8.300E-06,0.004
-8.290E-06,0.000
-8.280E-06,0.004
-8.270E-06,0.008
-8.260E-06,0.000
-8.250E-06,0.000
-8.240E-06,0.004
-8.230E-06,-0.004
-8.220E-06,0.000
-8.210E-06,0.004
-8.200E-06,0.000
-8.190E-06,0.000
-8.180E-06,0.004
-8.170E-06,0.004
-8.160E-06,0.000
-8.150E-06,0.000
-8.140E-06,0.000
-8.130E-06,0.008
-8.120E-06,0.000
-8.110E-06,0.004
-8.100E-06,0.004
-8.090E-06,0.004
-8.080E-06,0.004
-8.070E-06,0.004
-8.060E-06,-0.004
-8.050E-06,-0.004
-8.040E-06,0.004
-8.030E-06,0.004
-8.020E-06,0.004
-8.010E-06,0.004
-8.000E-06,0.004
-7.990E-06,0.004
-7.980E-06,0.004
-7.970E-06,0.000
-7.960E-06,0.000
-7.950E-06,0.004
-7.940E-06,0.008
-7.930E-06,0.008
-7.920E-06,0.000
-7.910E-06,0.004
-7.900E-06,0.004
-7.890E-06,0.004
-7.880E-06,0.004
-7.870E-06,0.000
-7.860E-06,0.004
-7.850E-06,0.004
-7.840E-06,0.004
-7.830E-06,0.004
-7.820E-06,0.004
-7.810E-06,0.004
-7.800E-06,0.004
-7.790E-06,0.004
-7.780E-06,0.000
-7.770E-06,0.000
-7.760E-06,0.004
-7.750E-06,0.004
-7.740E-06,0.004
-7.730E-06,0.004
-7.720E-06,0.000
-7.710E-06,0.000
-7.700E-06,0.004
-7.690E-06,0.004
-7.680E-06,0.004
-7.670E-06,0.004
-7.660E-06,0.008
-7.650E-06,0.008
-7.640E-06,0.000
-7.630E-06,0.000
-7.620E-06,0.004
-7.610E-06,0.000
-7.600E-06,0.000
-7.590E-06,0.004
-7.580E-06,0.000
-7.570E-06,-0.004
-7.560E-06,0.000
-7.550E-06,0.008
-7.540E-06,0.008
-7.530E-06,0.000
-7.520E-06,0.004
-7.510E-06,0.004
-7.500E-06,0.004
-7.490E-06,0.004
-7.480E-06,0.004
-7.470E-06,0.004
-7.460E-06,0.004
-7.450E-06,0.004
-7.440E-06,0.004
-7.430E-06,0.004
-7.420E-06,0.004
-7.410E-06,0.004
-7.400E-06,0.004
-7.390E-06,0.008
-7.380E-06,0.000
-7.370E-06,-0.004
-7.360E-06,0.004
-7.350E-06,0.000
-7.340E-06,0.004
-7.330E-06,0.000
-7.320E-06,0.004
-7.310E-06,0.000
-7.300E-06,0.004
-7.290E-06,0.000
-7.280E-06,0.004
-7.270E-06,0.000
-7.260E-06,0.000
-7.250E-06,0.004
-7.240E-06,0.000
-7.230E-06,0.004
-7.220E-06,0.004
-7.210E-06,0.004
-7.200E-06,0.000
-7.190E-06,0.004
-7.180E-06,0.004
-7.170E-06,0.004
-7.160E-06,0.000
-7.150E-06,0.000
-7.140E-06,-0.004
-7.130E-06,0.004
-7.120E-06,-0.004
-7.110E-06,0.000
-7.100E-06,0.004
-7.090E-06,0.004
-7.080E-06,0.004
-7.070E-06,0.004
-7.060E-06,0.000
-7.050E-06,0.004
-7.040E-06,0.008
-7.030E-06,0.008
-7.020E-06,0.000
-7.010E-06,0.004
-7.000E-06,0.000
-6.990E-06,0.004
-6.980E-06,0.004
-6.970E-06,0.000
-6.960E-06,0.004
-6.950E-06,0.000
-6.940E-06,0.004
-6.930E-06,0.000
-6.920E-06,0.000
-6.910E-06,0.004
-6.900E-06,0.004
-6.890E-06,0.004
-6.880E-06,0.004
-6.870E-06,0.004
-6.860E-06,0.008
-6.850E-06,0.036
-6.840E-06,0.092
-6.830E-06,0.112
-6.820E-06,0.100
-6.810E-06,-0.008
-6.800E-06,-0.132
-6.790E-06,-0.228
-6.780E-06,-0.188
-6.770E-06,-0.012
-6.760E-06,0.180
-6.750E-06,0.264
-6.740E-06,0.192
-6.730E-06,0.024
-6.720E-06,-0.164
-6.710E-06,-0.220
-6.700E-06,-0.152
-6.690E-06,0.008
-6.680E-06,0.164
-6.670E-06,0.208
-6.660E-06,0.152
-6.650E-06,0.016
-6.640E-06,-0.112
-6.630E-06,-0.176
-6.620E-06,-0.136
-6.610E-06,-0.060
-6.600E-06,0.056
-6.590E-06,0.128
-6.580E-06,0.140
-6.570E-06,0.100
-6.560E-06,0.016
-6.550E-06,-0.068
-6.540E-06,-0.136
-6.530E-06,-0.108
-6.520E-06,-0.044
-6.510E-06,0.064
-6.500E-06,0.144
-6.490E-06,0.120
-6.480E-06,0.032
-6.470E-06,-0.064
-6.460E-06,-0.140
-6.450E-06,-0.128
-6.440E-06,-0.056
-6.430E-06,0.016
-6.420E-06,0.092
-6.410E-06,0.044
-6.400E-06,0.016
-6.390E-06,-0.040
-6.380E-06,-0.008
-6.370E-06,0.048
-6.360E-06,0.056
-6.350E-06,-0.008
-6.340E-06,-0.064
-6.330E-06,-0.008
-6.320E-06,-0.004
-6.310E-06,0.024
-6.300E-06,0.044
-6.290E-06,0.060
-6.280E-06,-0.024
-6.270E-06,-0.060
-6.260E-06,-0.056
-6.250E-06,-0.016
-6.240E-06,0.032
-6.230E-06,0.076
-6.220E-06,0.084
-6.210E-06,0.020
-6.200E-06,-0.016
-6.190E-06,-0.052
-6.180E-06,-0.028
-6.170E-06,0.000
-6.160E-06,0.020
-6.150E-06,0.024
-6.140E-06,0.024
-6.130E-06,0.000
-6.120E-06,-0.004
-6.110E-06,-0.004
-6.100E-06,-0.004
-6.090E-06,-0.004
-6.080E-06,0.000
-6.070E-06,0.004
-6.060E-06,0.012
-6.050E-06,0.024
-6.040E-06,0.028
-6.030E-06,0.028
-6.020E-06,0.004
-6.010E-06,-0.016
-6.000E-06,-0.008
-5.990E-06,0.000
-5.980E-06,0.012
-5.970E-06,0.028
-5.960E-06,0.020
-5.950E-06,0.000
-5.940E-06,-0.008
-5.930E-06,-0.012
-5.920E-06,-0.004
-5.910E-06,0.012
-5.900E-06,0.020
-5.890E-06,0.024
-5.880E-06,0.012
-5.870E-06,0.008
-5.860E-06,-0.008
-5.850E-06,0.012
-5.840E-06,0.016
-5.830E-06,0.012
-5.820E-06,0.012
-5.810E-06,0.008
-5.800E-06,0.004
-5.790E-06,0.004
-5.780E-06,0.012
-5.770E-06,0.012
-5.760E-06,0.012
-5.750E-06,0.012
-5.740E-06,0.012
-5.730E-06,0.008
-5.720E-06,0.016
-5.710E-06,0.020
-5.700E-06,0.028
-5.690E-06,0.032
-5.680E-06,0.020
-5.670E-06,0.016
-5.660E-06,0.028
-5.650E-06,0.040
-5.640E-06,0.056
-5.630E-06,0.044
-5.620E-06,0.040
-5.610E-06,-0.008
-5.600E-06,-0.140
-5.590E-06,-0.304
-5.580E-06,-0.208
-5.570E-06,-0.076
-5.560E-06,0.132
-5.550E-06,0.268
-5.540E-06,0.216
-5.530E-06,-0.020
-5.520E-06,-0.172
-5.510E-06,-0.168
-5.500E-06,-0.124
-5.490E-06,-0.016
-5.480E-06,0.152
-5.470E-06,0.188
-5.460E-06,0.092
-5.450E-06,0.000
-5.440E-06,-0.100
-5.430E-06,-0.128
-5.420E-06,-0.072
-5.410E-06,0.028
-5.400E-06,0.076
-5.390E-06,0.084
-5.380E-06,0.064
-5.370E-06,0.024
-5.360E-06,-0.012
-5.350E-06,-0.056
-5.340E-06,-0.072
-5.330E-06,-0.040
-5.320E-06,0.012
-5.310E-06,0.060
-5.300E-06,0.092
-5.290E-06,0.076
-5.280E-06,0.012
-5.270E-06,-0.056
-5.260E-06,-0.080
-5.250E-06,-0.060
-5.240E-06,-0.004
-5.230E-06,0.056
-5.220E-06,0.092
-5.210E-06,0.072
-5.200E-06,0.012
-5.190E-06,-0.040
-5.180E-06,-0.072
-5.170E-06,-0.044
-5.160E-06,0.000
-5.150E-06,0.044
-5.140E-06,0.064
-5.130E-06,0.048
-5.120E-06,0.020
-5.110E-06,-0.016
-5.100E-06,-0.036
-5.090E-06,-0.020
-5.080E-06,0.000
-5.070E-06,0.020
-5.060E-06,0.028
-5.050E-06,0.028
-5.040E-06,0.024
-5.030E-06,0.012
-5.020E-06,0.000
-5.010E-06,-0.008
-5.000E-06,0.000
-4.990E-06,0.012
-4.980E-06,0.036
-4.970E-06,0.040
-4.960E-06,0.072
-4.950E-06,0.068
-4.940E-06,-0.004
-4.930E-06,-0.104
-4.920E-06,-0.124
-4.910E-06,-0.084
-4.900E-06,-0.080
-4.890E-06,0.016
-4.880E-06,0.056
-4.870E-06,0.096
-4.860E-06,-0.024
-4.850E-06,-0.008
-4.840E-06,-0.068
-4.830E-06,-0.044
-4.820E-06,-0.012
-4.810E-06,0.068
-4.800E-06,0.092
-4.790E-06,0.008
-4.780E-06,-0.020
-4.770E-06,-0.044
-4.760E-06,-0.036
-4.750E-06,-0.016
-4.740E-06,0.048
-4.730E-06,0.044
-4.720E-06,0.032
-4.710E-06,-0.008
-4.700E-06,-0.008
-4.690E-06,-0.020
-4.680E-06,-0.008
-4.670E-06,0.016
-4.660E-06,0.016
-4.650E-06,0.016
-4.640E-06,0.004
-4.630E-06,0.012
-4.620E-06,0.008
-4.610E-06,0.008
-4.600E-06,-0.004
-4.590E-06,-0.004
-4.580E-06,-0.008
-4.570E-06,0.000
-4.560E-06,0.016
-4.550E-06,0.024
-4.540E-06,0.028
-4.530E-06,-0.004
-4.520E-06,-0.004
-4.510E-06,-0.016
-4.500E-06,-0.008
-4.490E-06,0.004
-4.480E-06,0.024
-4.470E-06,0.028
-4.460E-06,0.012
-4.450E-06,0.004
-4.440E-06,-0.008
-4.430E-06,-0.004
-4.420E-06,0.000
-4.410E-06,0.016
-4.400E-06,0.020
-4.390E-06,0.020
-4.380E-06,0.012
-4.370E-06,0.004
-4.360E-06,0.004
-4.350E-06,0.016
-4.340E-06,0.020
-4.330E-06,0.024
-4.320E-06,0.032
-4.310E-06,0.036
-4.300E-06,0.040
-4.290E-06,0.048
-4.280E-06,0.044
-4.270E-06,0.024
-4.260E-06,0.024
-4.250E-06,0.004
-4.240E-06,0.024
-4.230E-06,-0.328
-4.220E-06,-0.248
-4.210E-06,-0.060
-4.200E-06,0.004
-4.190E-06,0.140
-4.180E-06,0.208
-4.170E-06,0.108
-4.160E-06,-0.012
-4.150E-06,-0.068
-4.140E-06,-0.168
-4.130E-06,-0.180
-4.120E-06,0.040
-4.110E-06,0.172
-4.100E-06,0.088
-4.090E-06,0.100
-4.080E-06,0.004
-4.070E-06,-0.080
-4.060E-06,-0.100
-4.050E-06,-0.044
-4.040E-06,-0.024
-4.030E-06,0.040
-4.020E-06,0.092
-4.010E-06,0.088
-4.000E-06,0.044
-3.990E-06,-0.036
-3.980E-06,-0.088
-3.970E-06,-0.080
-3.960E-06,-0.016
-3.950E-06,0.024
-3.940E-06,0.088
-3.930E-06,0.092
-3.920E-06,0.044
-3.910E-06,-0.016
-3.900E-06,-0.068
-3.890E-06,-0.068
-3.880E-06,-0.044
-3.870E-06,0.020
-3.860E-06,0.064
-3.850E-06,0.084
-3.840E-06,0.044
-3.830E-06,-0.004
-3.820E-06,-0.040
-3.810E-06,-0.056
-3.800E-06,-0.040
-3.790E-06,0.000
-3.780E-06,0.048
-3.770E-06,0.056
-3.760E-06,0.048
-3.750E-06,0.008
-3.740E-06,-0.020
-3.730E-06,-0.036
-3.720E-06,-0.032
-3.710E-06,0.000
-3.700E-06,0.028
-3.690E-06,0.048
-3.680E-06,0.044
-3.670E-06,0.028
-3.660E-06,0.000
-3.650E-06,-0.024
-3.640E-06,-0.024
-3.630E-06,-0.008
-3.620E-06,0.016
-3.610E-06,0.032
-3.600E-06,0.036
-3.590E-06,0.032
-3.580E-06,0.008
-3.570E-06,-0.004
-3.560E-06,-0.004
-3.550E-06,0.004
-3.540E-06,0.028
-3.530E-06,0.044
-3.520E-06,0.052
-3.510E-06,0.048
-3.500E-06,0.028
-3.490E-06,0.016
-3.480E-06,0.020
-3.470E-06,0.012
-3.460E-06,0.004
-3.450E-06,0.004
-3.440E-06,0.040
-3.430E-06,-0.004
-3.420E-06,-0.076
-3.410E-06,-0.040
-3.400E-06,-0.152
-3.390E-06,-0.092
-3.380E-06,-0.028
-3.370E-06,0.136
-3.360E-06,-0.104
-3.350E-06,-0.040
-3.340E-06,0.032
-3.330E-06,0.036
-3.320E-06,-0.036
-3.310E-06,0.008
-3.300E-06,0.060
-3.290E-06,-0.032
-3.280E-06,0.032
-3.270E-06,-0.072
-3.260E-06,-0.036
-3.250E-06,0.024
-3.240E-06,0.112
-3.230E-06,0.032
-3.220E-06,0.012
-3.210E-06,-0.052
-3.200E-06,-0.056
-3.190E-06,-0.008
-3.180E-06,0.032
-3.170E-06,0.068
-3.160E-06,0.024
-3.150E-06,0.020
-3.140E-06,-0.036
-3.130E-06,-0.016
-3.120E-06,-0.032
-3.110E-06,0.008
-3.100E-06,0.028
-3.090E-06,0.044
-3.080E-06,0.036
-3.070E-06,0.004
-3.060E-06,0.000
-3.050E-06,-0.032
-3.040E-06,-0.012
-3.030E-06,-0.012
-3.020E-06,0.020
-3.010E-06,0.028
-3.000E-06,0.040
-2.990E-06,0.024
-2.980E-06,0.004
-2.970E-06,-0.016
-2.960E-06,-0.032
-2.950E-06,-0.012
-2.940E-06,0.012
-2.930E-06,0.036
-2.920E-06,0.036
-2.910E-06,0.032
-2.900E-06,0.004
-2.890E-06,-0.020
-2.880E-06,-0.032
-2.870E-06,-0.020
-2.860E-06,0.008
-2.850E-06,0.032
-2.840E-06,0.044
-2.830E-06,0.036
-2.820E-06,0.008
-2.810E-06,-0.008
-2.800E-06,-0.012
-2.790E-06,-0.004
-2.780E-06,0.020
-2.770E-06,0.044
-2.760E-06,0.064
-2.750E-06,0.056
-2.740E-06,0.048
-2.730E-06,0.028
-2.720E-06,0.020
-2.710E-06,0.044
-2.700E-06,0.024
-2.690E-06,-0.028
-2.680E-06,-0.128
-2.670E-06,-0.332
-2.660E-06,-0.216
-2.650E-06,-0.056
-2.640E-06,0.188
-2.630E-06,0.260
-2.620E-06,0.300
-2.610E-06,0.092
-2.600E-06,-0.236
-2.590E-06,-0.340
-2.580E-06,-0.260
-2.570E-06,0.044
-2.560E-06,0.220
-2.550E-06,0.312
-2.540E-06,0.112
-2.530E-06,-0.120
-2.520E-06,-0.260
-2.510E-06,-0.172
-2.500E-06,-0.012
-2.490E-06,0.128
-2.480E-06,0.188
-2.470E-06,0.108
-2.460E-06,0.004
-2.450E-06,-0.104
-2.440E-06,-0.100
-2.430E-06,-0.076
-2.420E-06,0.004
-2.410E-06,0.056
-2.400E-06,0.092
-2.390E-06,0.076
-2.380E-06,0.044
-2.370E-06,-0.008
-2.360E-06,-0.068
-2.350E-06,-0.080
-2.340E-06,-0.060
-2.330E-06,0.012
-2.320E-06,0.076
-2.310E-06,0.104
-2.300E-06,0.060
-2.290E-06,0.000
-2.280E-06,-0.072
-2.270E-06,-0.084
-2.260E-06,-0.040
-2.250E-06,0.032
-2.240E-06,0.100
-2.230E-06,0.092
-2.220E-06,0.048
-2.210E-06,-0.040
-2.200E-06,-0.076
-2.190E-06,-0.072
-2.180E-06,-0.020
-2.170E-06,0.052
-2.160E-06,0.092
-2.150E-06,0.080
-2.140E-06,0.032
-2.130E-06,-0.032
-2.120E-06,-0.068
-2.110E-06,-0.056
-2.100E-06,-0.024
-2.090E-06,0.040
-2.080E-06,0.072
-2.070E-06,0.068
-2.060E-06,0.028
-2.050E-06,-0.012
-2.040E-06,-0.052
-2.030E-06,-0.056
-2.020E-06,-0.016
-2.010E-06,0.024
-2.000E-06,0.060
-1.990E-06,0.072
-1.980E-06,0.040
-1.970E-06,0.008
-1.960E-06,-0.036
-1.950E-06,-0.048
-1.940E-06,-0.024
-1.930E-06,0.020
-1.920E-06,0.068
-1.910E-06,0.100
-1.900E-06,0.104
-1.890E-06,0.088
-1.880E-06,0.068
-1.870E-06,0.040
-1.860E-06,-0.040
-1.850E-06,-0.100
-1.840E-06,-0.120
-1.830E-06,-0.120
-1.820E-06,-0.132
-1.810E-06,-0.164
-1.800E-06,-0.008
-1.790E-06,0.100
-1.780E-06,0.152
-1.770E-06,0.156
-1.760E-06,0.064
-1.750E-06,-0.088
-1.740E-06,-0.192
-1.730E-06,-0.160
-1.720E-06,-0.040
-1.710E-06,0.152
-1.700E-06,0.204
-1.690E-06,0.096
-1.680E-06,-0.100
-1.670E-06,-0.200
-1.660E-06,-0.160
-1.650E-06,-0.016
-1.640E-06,0.096
-1.630E-06,0.168
-1.620E-06,0.136
-1.610E-06,0.000
-1.600E-06,-0.100
-1.590E-06,-0.120
-1.580E-06,-0.076
-1.570E-06,-0.012
-1.560E-06,0.080
-1.550E-06,0.120
-1.540E-06,0.084
-1.530E-06,0.024
-1.520E-06,-0.020
-1.510E-06,-0.072
-1.500E-06,-0.080
-1.490E-06,-0.036
-1.480E-06,0.024
-1.470E-06,0.072
-1.460E-06,0.080
-1.450E-06,0.056
-1.440E-06,-0.008
-1.430E-06,-0.064
-1.420E-06,-0.072
-1.410E-06,-0.032
-1.400E-06,0.032
-1.390E-06,0.072
-1.380E-06,0.084
-1.370E-06,0.048
-1.360E-06,-0.016
-1.350E-06,-0.068
-1.340E-06,-0.068
-1.330E-06,-0.024
-1.320E-06,0.028
-1.310E-06,0.068
-1.300E-06,0.076
-1.290E-06,0.040
-1.280E-06,-0.012
-1.270E-06,-0.060
-1.260E-06,-0.064
-1.250E-06,-0.032
-1.240E-06,0.020
-1.230E-06,0.064
-1.220E-06,0.076
-1.210E-06,0.044
-1.200E-06,0.000
-1.190E-06,-0.036
-1.180E-06,-0.048
-1.170E-06,-0.036
-1.160E-06,0.004
-1.150E-06,0.040
-1.140E-06,0.060
-1.130E-06,0.056
-1.120E-06,0.028
-1.110E-06,-0.012
-1.100E-06,-0.032
-1.090E-06,-0.028
-1.080E-06,0.004
-1.070E-06,0.044
-1.060E-06,0.080
-1.050E-06,0.088
-1.040E-06,0.072
-1.030E-06,0.040
-1.020E-06,0.020
-1.010E-06,0.016
-1.000E-06,0.048
-9.900E-07,0.080
-9.800E-07,0.100
-9.700E-07,0.048
-9.600E-07,0.004
-9.500E-07,-0.128
-9.400E-07,-0.156
-9.300E-07,-0.148
-9.200E-07,-0.148
-9.100E-07,-0.076
-9.000E-07,0.020
-8.900E-07,0.068
-8.800E-07,0.064
-8.700E-07,0.084
-8.600E-07,0.040
-8.500E-07,-0.052
-8.400E-07,-0.088
-8.300E-07,-0.080
-8.200E-07,-0.024
-8.100E-07,0.068
-8.000E-07,0.104
-7.900E-07,0.048
-7.800E-07,-0.024
-7.700E-07,-0.056
-7.600E-07,-0.048
-7.500E-07,-0.056
-7.400E-07,-0.044
-7.300E-07,0.008
-7.200E-07,0.088
-7.100E-07,0.080
-7.000E-07,0.016
-6.900E-07,-0.064
-6.800E-07,-0.072
-6.700E-07,-0.040
-6.600E-07,0.000
-6.500E-07,0.048
-6.400E-07,0.072
-6.300E-07,0.060
-6.200E-07,-0.004
-6.100E-07,-0.044
-6.000E-07,-0.064
-5.900E-07,-0.040
-5.800E-07,0.004
-5.700E-07,0.064
-5.600E-07,0.072
-5.500E-07,0.028
-5.400E-07,-0.024
-5.300E-07,-0.048
-5.200E-07,-0.040
-5.100E-07,-0.012
-5.000E-07,0.024
-4.900E-07,0.044
-4.800E-07,0.036
-4.700E-07,0.016
-4.600E-07,0.000
-4.500E-07,-0.024
-4.400E-07,-0.036
-4.300E-07,-0.024
-4.200E-07,0.000
-4.100E-07,0.024
-4.000E-07,0.028
-3.900E-07,0.024
-3.800E-07,0.008
-3.700E-07,-0.008
-3.600E-07,-0.020
-3.500E-07,-0.012
-3.400E-07,0.004
-3.300E-07,0.024
-3.200E-07,0.028
-3.100E-07,0.028
-3.000E-07,0.008
-2.900E-07,-0.012
-2.800E-07,-0.016
-2.700E-07,-0.008
-2.600E-07,0.012
-2.500E-07,0.024
-2.400E-07,0.036
-2.300E-07,0.024
-2.200E-07,0.008
-2.100E-07,-0.004
-2.000E-07,-0.004
-1.900E-07,0.012
-1.800E-07,0.032
-1.700E-07,0.044
-1.600E-07,0.044
-1.500E-07,0.040
-1.400E-07,0.032
-1.300E-07,0.012
-1.200E-07,0.004
-1.100E-07,0.004
-1.000E-07,0.020
-9.000E-08,0.036
-8.000E-08,0.064
-7.000E-08,0.076
-6.000E-08,0.028
-5.000E-08,-0.316
-4.000E-08,-0.356
-3.000E-08,-0.332
-2.000E-08,-0.112
-1.000E-08,0.308
0.000E+00,0.484
1.000E-08,0.360
2.000E-08,-0.016
3.000E-08,-0.284
4.000E-08,-0.452
5.000E-08,-0.320
6.000E-08,0.064
7.000E-08,0.352
8.000E-08,0.376
9.000E-08,0.164
1.000E-07,-0.088
1.100E-07,-0.288
1.200E-07,-0.268
1.300E-07,-0.104
1.400E-07,0.108
1.500E-07,0.196
1.600E-07,0.192
1.700E-07,0.088
1.800E-07,-0.032
1.900E-07,-0.128
2.000E-07,-0.136
2.100E-07,-0.076
2.200E-07,0.004
2.300E-07,0.100
2.400E-07,0.152
2.500E-07,0.128
2.600E-07,0.024
2.700E-07,-0.072
2.800E-07,-0.136
2.900E-07,-0.112
3.000E-07,-0.024
3.100E-07,0.088
3.200E-07,0.136
3.300E-07,0.108
3.400E-07,0.028
3.500E-07,-0.068
3.600E-07,-0.104
3.700E-07,-0.080
3.800E-07,0.000
3.900E-07,0.080
4.000E-07,0.108
4.100E-07,0.068
4.200E-07,-0.004
4.300E-07,-0.056
4.400E-07,-0.080
4.500E-07,-0.044
4.600E-07,0.008
4.700E-07,0.064
4.800E-07,0.080
4.900E-07,0.052
5.000E-07,-0.004
5.100E-07,-0.040
5.200E-07,-0.056
5.300E-07,-0.032
5.400E-07,0.024
5.500E-07,0.064
5.600E-07,0.072
5.700E-07,0.048
5.800E-07,0.008
5.900E-07,-0.024
6.000E-07,-0.028
6.100E-07,0.012
6.200E-07,0.060
6.300E-07,0.132
6.400E-07,0.164
6.500E-07,0.040
6.600E-07,-0.040
6.700E-07,-0.136
6.800E-07,-0.200
6.900E-07,-0.264
7.000E-07,-0.056
7.100E-07,0.144
7.200E-07,0.192
7.300E-07,0.168
7.400E-07,0.072
7.500E-07,-0.068
7.600E-07,-0.204
7.700E-07,-0.192
7.800E-07,-0.064
7.900E-07,0.092
8.000E-07,0.200
8.100E-07,0.196
8.200E-07,0.064
8.300E-07,-0.104
8.400E-07,-0.204
8.500E-07,-0.172
8.600E-07,-0.056
8.700E-07,0.084
8.800E-07,0.188
8.900E-07,0.172
9.000E-07,0.064
9.100E-07,-0.064
9.200E-07,-0.156
9.300E-07,-0.172
9.400E-07,-0.080
9.500E-07,0.060
9.600E-07,0.156
9.700E-07,0.160
9.800E-07,0.084
9.900E-07,-0.032
1.000E-06,-0.128
1.010E-06,-0.140
1.020E-06,-0.068
1.030E-06,0.036
1.040E-06,0.104
1.050E-06,0.120
1.060E-06,0.064
1.070E-06,-0.020
1.080E-06,-0.088
1.090E-06,-0.088
1.100E-06,-0.044
1.110E-06,0.024
1.120E-06,0.080
1.130E-06,0.092
1.140E-06,0.052
1.150E-06,-0.008
1.160E-06,-0.056
1.170E-06,-0.064
1.180E-06,-0.036
1.190E-06,0.012
1.200E-06,0.064
1.210E-06,0.068
1.220E-06,0.044
1.230E-06,-0.004
1.240E-06,-0.044
1.250E-06,-0.056
1.260E-06,-0.028
1.270E-06,0.016
1.280E-06,0.060
1.290E-06,0.068
1.300E-06,0.036
1.310E-06,0.000
1.320E-06,-0.036
1.330E-06,-0.044
1.340E-06,-0.032
1.350E-06,0.008
1.360E-06,0.044
1.370E-06,0.060
1.380E-06,0.040
1.390E-06,0.004
1.400E-06,-0.020
1.410E-06,-0.036
1.420E-06,-0.020
1.430E-06,0.008
1.440E-06,0.048
1.450E-06,0.080
1.460E-06,0.088
1.470E-06,0.072
1.480E-06,0.056
1.490E-06,0.040
1.500E-06,0.044
1.510E-06,0.040
1.520E-06,0.024
1.530E-06,-0.016
1.540E-06,-0.076
1.550E-06,-0.116
1.560E-06,-0.184
1.570E-06,-0.132
1.580E-06,-0.040
1.590E-06,0.060
1.600E-06,0.152
1.610E-06,0.148
1.620E-06,0.056
1.630E-06,-0.112
1.640E-06,-0.184
1.650E-06,-0.124
1.660E-06,-0.024
1.670E-06,0.104
1.680E-06,0.160
1.690E-06,0.100
1.700E-06,-0.032
1.710E-06,-0.100
1.720E-06,-0.116
1.730E-06,-0.052
1.740E-06,0.028
1.750E-06,0.100
1.760E-06,0.108
1.770E-06,0.064
1.780E-06,0.008
1.790E-06,-0.028
1.800E-06,-0.040
1.810E-06,-0.072
1.820E-06,-0.032
1.830E-06,0.008
1.840E-06,0.040
1.850E-06,0.064
1.860E-06,0.072
1.870E-06,0.008
1.880E-06,-0.076
1.890E-06,-0.100
1.900E-06,-0.044
1.910E-06,0.040
1.920E-06,0.080
1.930E-06,0.084
1.940E-06,0.020
1.950E-06,-0.044
1.960E-06,-0.068
1.970E-06,-0.032
1.980E-06,0.020
1.990E-06,0.060
2.000E-06,0.072
2.010E-06,0.044
2.020E-06,0.000
2.030E-06,-0.024
2.040E-06,-0.012
2.050E-06,0.020
2.060E-06,0.064
2.070E-06,0.080
2.080E-06,0.024
2.090E-06,-0.056
2.100E-06,-0.104
2.110E-06,-0.088
2.120E-06,-0.024
2.130E-06,0.060
2.140E-06,0.096
2.150E-06,0.092
2.160E-06,0.052
2.170E-06,-0.004
2.180E-06,-0.024
2.190E-06,0.000
2.200E-06,0.016
2.210E-06,0.000
2.220E-06,-0.008
2.230E-06,-0.008
2.240E-06,0.000
2.250E-06,0.008
2.260E-06,0.020
2.270E-06,0.020
2.280E-06,-0.004
2.290E-06,-0.080
2.300E-06,-0.124
2.310E-06,-0.056
2.320E-06,0.044
2.330E-06,0.044
2.340E-06,0.064
2.350E-06,0.016
2.360E-06,-0.024
2.370E-06,-0.052
2.380E-06,-0.064
2.390E-06,-0.084
2.400E-06,-0.032
2.410E-06,0.072
2.420E-06,0.108
2.430E-06,0.088
2.440E-06,-0.008
2.450E-06,-0.060
2.460E-06,-0.108
2.470E-06,-0.052
2.480E-06,0.012
2.490E-06,0.068
2.500E-06,0.060
2.510E-06,0.048
2.520E-06,0.012
2.530E-06,-0.020
2.540E-06,-0.044
2.550E-06,-0.036
2.560E-06,-0.008
2.570E-06,0.012
2.580E-06,0.040
2.590E-06,0.044
2.600E-06,0.036
2.610E-06,0.000
2.620E-06,-0.024
2.630E-06,-0.040
2.640E-06,-0.032
2.650E-06,-0.008
2.660E-06,0.028
2.670E-06,0.060
2.680E-06,0.044
2.690E-06,0.028
2.700E-06,-0.012
2.710E-06,-0.036
2.720E-06,-0.036
2.730E-06,-0.016
2.740E-06,0.008
2.750E-06,0.028
2.760E-06,0.040
2.770E-06,0.032
2.780E-06,0.012
2.790E-06,-0.004
2.800E-06,-0.024
2.810E-06,-0.028
2.820E-06,-0.008
2.830E-06,0.012
2.840E-06,0.024
2.850E-06,0.036
2.860E-06,0.028
2.870E-06,0.012
2.880E-06,-0.008
2.890E-06,-0.020
2.900E-06,-0.016
2.910E-06,-0.004
2.920E-06,0.012
2.930E-06,0.028
2.940E-06,0.036
2.950E-06,0.024
2.960E-06,0.012
2.970E-06,-0.004
2.980E-06,-0.004
2.990E-06,0.012
3.000E-06,0.028
3.010E-06,0.052
3.020E-06,0.088
3.030E-06,0.104
3.040E-06,0.120
3.050E-06,0.096
3.060E-06,0.056
3.070E-06,-0.024
3.080E-06,-0.052
3.090E-06,-0.036
3.100E-06,-0.152
3.110E-06,-0.148
3.120E-06,-0.172
3.130E-06,-0.052
3.140E-06,0.032
3.150E-06,0.124
3.160E-06,0.180
3.170E-06,0.092
3.180E-06,-0.088
3.190E-06,-0.256
3.200E-06,-0.208
3.210E-06,-0.056
3.220E-06,0.160
3.230E-06,0.256
3.240E-06,0.192
3.250E-06,-0.004
