mediciones/5-15/-19.9/WaveData47662.csv

#timebase=2000000(ps)
,#voltbase=500000(mv/100)
#size=4000
-8.400E-06,0.040
-8.390E-06,0.020
-8.380E-06,0.060
-8.370E-06,0.040
-8.360E-06,0.040
-8.350E-06,0.080
-8.340E-06,0.040
-8.330E-06,0.060
-8.320E-06,0.060
-8.310E-06,0.040
-8.300E-06,0.040
-8.290E-06,0.080
-8.280E-06,0.060
-8.270E-06,0.080
-8.260E-06,0.040
-8.250E-06,0.040
-8.240E-06,0.040
-8.230E-06,0.040
-8.220E-06,0.060
-8.210E-06,0.040
-8.200E-06,0.040
-8.190E-06,0.040
-8.180E-06,0.040
-8.170E-06,0.080
-8.160E-06,0.040
-8.150E-06,0.060
-8.140E-06,0.080
-8.130E-06,0.060
-8.120E-06,0.020
-8.110E-06,0.060
-8.100E-06,0.060
-8.090E-06,0.060
-8.080E-06,0.040
-8.070E-06,0.080
-8.060E-06,0.040
-8.050E-06,0.040
-8.040E-06,0.060
-8.030E-06,0.040
-8.020E-06,0.060
-8.010E-06,0.080
-8.000E-06,0.060
-7.990E-06,0.060
-7.980E-06,0.020
-7.970E-06,0.040
-7.960E-06,0.060
-7.950E-06,0.060
-7.940E-06,0.060
-7.930E-06,0.060
-7.920E-06,0.040
-7.910E-06,0.040
-7.900E-06,0.040
-7.890E-06,0.060
-7.880E-06,0.060
-7.870E-06,0.060
-7.860E-06,0.060
-7.850E-06,0.020
-7.840E-06,0.040
-7.830E-06,0.060
-7.820E-06,0.080
-7.810E-06,0.020
-7.800E-06,0.060
-7.790E-06,0.060
-7.780E-06,0.060
-7.770E-06,0.080
-7.760E-06,0.080
-7.750E-06,0.080
-7.740E-06,0.040
-7.730E-06,0.020
-7.720E-06,0.060
-7.710E-06,0.080
-7.700E-06,0.080
-7.690E-06,0.020
-7.680E-06,0.040
-7.670E-06,0.060
-7.660E-06,0.040
-7.650E-06,0.060
-7.640E-06,0.060
-7.630E-06,0.060
-7.620E-06,0.040
-7.610E-06,0.040
-7.600E-06,0.060
-7.590E-06,0.040
-7.580E-06,0.060
-7.570E-06,0.060
-7.560E-06,0.060
-7.550E-06,0.080
-7.540E-06,0.060
-7.530E-06,0.020
-7.520E-06,0.060
-7.510E-06,0.040
-7.500E-06,0.040
-7.490E-06,0.060
-7.480E-06,0.040
-7.470E-06,0.040
-7.460E-06,0.060
-7.450E-06,0.060
-7.440E-06,0.040
-7.430E-06,0.040
-7.420E-06,0.040
-7.410E-06,0.040
-7.400E-06,0.040
-7.390E-06,0.040
-7.380E-06,0.040
-7.370E-06,0.060
-7.360E-06,0.060
-7.350E-06,0.060
-7.340E-06,0.060
-7.330E-06,0.060
-7.320E-06,0.040
-7.310E-06,0.080
-7.300E-06,0.040
-7.290E-06,0.060
-7.280E-06,0.060
-7.270E-06,0.060
-7.260E-06,0.080
-7.250E-06,0.060
-7.240E-06,0.080
-7.230E-06,0.060
-7.220E-06,0.080
-7.210E-06,0.080
-7.200E-06,0.040
-7.190E-06,0.060
-7.180E-06,0.060
-7.170E-06,0.060
-7.160E-06,0.060
-7.150E-06,0.060
-7.140E-06,0.020
-7.130E-06,0.040
-7.120E-06,0.040
-7.110E-06,0.060
-7.100E-06,0.040
-7.090E-06,0.040
-7.080E-06,0.040
-7.070E-06,0.040
-7.060E-06,0.020
-7.050E-06,0.040
-7.040E-06,0.040
-7.030E-06,0.040
-7.020E-06,0.080
-7.010E-06,0.060
-7.000E-06,0.040
-6.990E-06,0.060
-6.980E-06,0.020
-6.970E-06,0.060
-6.960E-06,0.060
-6.950E-06,0.060
-6.940E-06,0.060
-6.930E-06,0.060
-6.920E-06,0.060
-6.910E-06,0.080
-6.900E-06,0.060
-6.890E-06,0.020
-6.880E-06,0.060
-6.870E-06,0.080
-6.860E-06,0.060
-6.850E-06,0.080
-6.840E-06,0.080
-6.830E-06,0.040
-6.820E-06,0.060
-6.810E-06,0.060
-6.800E-06,0.060
-6.790E-06,0.040
-6.780E-06,0.040
-6.770E-06,0.060
-6.760E-06,0.040
-6.750E-06,0.060
-6.740E-06,0.080
-6.730E-06,0.060
-6.720E-06,0.040
-6.710E-06,0.040
-6.700E-06,0.060
-6.690E-06,0.080
-6.680E-06,0.060
-6.670E-06,0.080
-6.660E-06,0.080
-6.650E-06,0.020
-6.640E-06,0.040
-6.630E-06,0.060
-6.620E-06,0.060
-6.610E-06,0.060
-6.600E-06,0.080
-6.590E-06,0.040
-6.580E-06,0.040
-6.570E-06,0.040
-6.560E-06,0.040
-6.550E-06,0.040
-6.540E-06,0.040
-6.530E-06,0.040
-6.520E-06,0.040
-6.510E-06,0.040
-6.500E-06,0.060
-6.490E-06,0.060
-6.480E-06,0.060
-6.470E-06,0.080
-6.460E-06,0.060
-6.450E-06,0.040
-6.440E-06,0.060
-6.430E-06,0.040
-6.420E-06,0.080
-6.410E-06,0.060
-6.400E-06,0.080
-6.390E-06,0.080
-6.380E-06,0.080
-6.370E-06,0.080
-6.360E-06,0.060
-6.350E-06,0.040
-6.340E-06,0.040
-6.330E-06,0.060
-6.320E-06,0.060
-6.310E-06,0.080
-6.300E-06,0.080
-6.290E-06,0.080
-6.280E-06,0.080
-6.270E-06,0.080
-6.260E-06,0.040
-6.250E-06,0.060
-6.240E-06,0.080
-6.230E-06,0.060
-6.220E-06,0.080
-6.210E-06,0.040
-6.200E-06,0.020
-6.190E-06,0.060
-6.180E-06,0.080
-6.170E-06,0.040
-6.160E-06,0.060
-6.150E-06,0.060
-6.140E-06,0.040
-6.130E-06,0.060
-6.120E-06,0.020
-6.110E-06,0.040
-6.100E-06,0.040
-6.090E-06,0.040
-6.080E-06,0.060
-6.070E-06,0.080
-6.060E-06,0.080
-6.050E-06,0.040
-6.040E-06,0.040
-6.030E-06,0.060
-6.020E-06,0.040
-6.010E-06,0.040
-6.000E-06,0.040
-5.990E-06,0.060
-5.980E-06,0.040
-5.970E-06,0.060
-5.960E-06,0.020
-5.950E-06,0.060
-5.940E-06,0.040
-5.930E-06,0.060
-5.920E-06,0.060
-5.910E-06,0.080
-5.900E-06,0.060
-5.890E-06,0.060
-5.880E-06,0.060
-5.870E-06,0.060
-5.860E-06,0.080
-5.850E-06,0.060
-5.840E-06,0.060
-5.830E-06,0.080
-5.820E-06,0.060
-5.810E-06,0.060
-5.800E-06,0.080
-5.790E-06,0.040
-5.780E-06,0.040
-5.770E-06,0.060
-5.760E-06,0.020
-5.750E-06,0.060
-5.740E-06,0.080
-5.730E-06,0.060
-5.720E-06,0.040
-5.710E-06,0.060
-5.700E-06,0.040
-5.690E-06,0.060
-5.680E-06,0.080
-5.670E-06,0.060
-5.660E-06,0.040
-5.650E-06,0.060
-5.640E-06,0.040
-5.630E-06,0.060
-5.620E-06,0.040
-5.610E-06,0.060
-5.600E-06,0.040
-5.590E-06,0.020
-5.580E-06,0.060
-5.570E-06,0.020
-5.560E-06,0.040
-5.550E-06,0.060
-5.540E-06,0.080
-5.530E-06,0.040
-5.520E-06,0.040
-5.510E-06,0.060
-5.500E-06,0.080
-5.490E-06,0.060
-5.480E-06,0.020
-5.470E-06,0.060
-5.460E-06,0.060
-5.450E-06,0.060
-5.440E-06,0.060
-5.430E-06,0.080
-5.420E-06,0.060
-5.410E-06,0.040
-5.400E-06,0.060
-5.390E-06,0.060
-5.380E-06,0.060
-5.370E-06,0.080
-5.360E-06,0.060
-5.350E-06,0.040
-5.340E-06,0.060
-5.330E-06,0.080
-5.320E-06,0.080
-5.310E-06,0.080
-5.300E-06,0.080
-5.290E-06,0.040
-5.280E-06,0.040
-5.270E-06,0.060
-5.260E-06,0.020
-5.250E-06,0.060
-5.240E-06,0.060
-5.230E-06,0.060
-5.220E-06,0.060
-5.210E-06,0.060
-5.200E-06,0.080
-5.190E-06,0.060
-5.180E-06,0.040
-5.170E-06,0.060
-5.160E-06,0.040
-5.150E-06,0.060
-5.140E-06,0.040
-5.130E-06,0.060
-5.120E-06,0.080
-5.110E-06,0.080
-5.100E-06,0.040
-5.090E-06,0.040
-5.080E-06,0.060
-5.070E-06,0.060
-5.060E-06,0.080
-5.050E-06,0.060
-5.040E-06,0.040
-5.030E-06,0.060
-5.020E-06,0.080
-5.010E-06,0.060
-5.000E-06,0.060
-4.990E-06,0.060
-4.980E-06,0.060
-4.970E-06,0.060
-4.960E-06,0.040
-4.950E-06,0.080
-4.940E-06,0.060
-4.930E-06,0.060
-4.920E-06,0.080
-4.910E-06,0.060
-4.900E-06,0.080
-4.890E-06,0.080
-4.880E-06,0.080
-4.870E-06,0.040
-4.860E-06,0.040
-4.850E-06,0.060
-4.840E-06,0.020
-4.830E-06,0.060
-4.820E-06,0.040
-4.810E-06,0.060
-4.800E-06,0.020
-4.790E-06,0.060
-4.780E-06,0.060
-4.770E-06,0.080
-4.760E-06,0.080
-4.750E-06,0.040
-4.740E-06,0.040
-4.730E-06,0.060
-4.720E-06,0.040
-4.710E-06,0.040
-4.700E-06,0.040
-4.690E-06,0.060
-4.680E-06,0.060
-4.670E-06,0.040
-4.660E-06,0.040
-4.650E-06,0.060
-4.640E-06,0.040
-4.630E-06,0.080
-4.620E-06,0.080
-4.610E-06,0.080
-4.600E-06,0.020
-4.590E-06,0.020
-4.580E-06,0.060
-4.570E-06,0.040
-4.560E-06,0.040
-4.550E-06,0.080
-4.540E-06,0.060
-4.530E-06,0.040
-4.520E-06,0.060
-4.510E-06,0.080
-4.500E-06,0.080
-4.490E-06,0.080
-4.480E-06,0.040
-4.470E-06,0.040
-4.460E-06,0.060
-4.450E-06,0.040
-4.440E-06,0.080
-4.430E-06,0.060
-4.420E-06,0.040
-4.410E-06,0.060
-4.400E-06,0.060
-4.390E-06,0.040
-4.380E-06,0.080
-4.370E-06,0.040
-4.360E-06,0.080
-4.350E-06,0.020
-4.340E-06,0.040
-4.330E-06,0.060
-4.320E-06,0.040
-4.310E-06,0.040
-4.300E-06,0.040
-4.290E-06,0.040
-4.280E-06,0.060
-4.270E-06,0.020
-4.260E-06,0.040
-4.250E-06,0.060
-4.240E-06,0.060
-4.230E-06,0.080
-4.220E-06,0.040
-4.210E-06,0.040
-4.200E-06,0.060
-4.190E-06,0.080
-4.180E-06,0.040
-4.170E-06,0.040
-4.160E-06,0.060
-4.150E-06,0.040
-4.140E-06,0.080
-4.130E-06,0.060
-4.120E-06,0.020
-4.110E-06,0.060
-4.100E-06,0.040
-4.090E-06,0.060
-4.080E-06,0.060
-4.070E-06,0.080
-4.060E-06,0.060
-4.050E-06,0.060
-4.040E-06,0.080
-4.030E-06,0.060
-4.020E-06,0.060
-4.010E-06,0.060
-4.000E-06,0.060
-3.990E-06,0.060
-3.980E-06,0.040
-3.970E-06,0.080
-3.960E-06,0.040
-3.950E-06,0.040
-3.940E-06,0.060
-3.930E-06,0.060
-3.920E-06,0.060
-3.910E-06,0.060
-3.900E-06,0.080
-3.890E-06,0.060
-3.880E-06,0.080
-3.870E-06,0.060
-3.860E-06,0.040
-3.850E-06,0.040
-3.840E-06,0.040
-3.830E-06,0.040
-3.820E-06,0.080
-3.810E-06,0.040
-3.800E-06,0.060
-3.790E-06,0.080
-3.780E-06,0.080
-3.770E-06,0.040
-3.760E-06,0.020
-3.750E-06,0.040
-3.740E-06,0.040
-3.730E-06,0.040
-3.720E-06,-0.100
-3.710E-06,-0.540
-3.700E-06,-1.300
-3.690E-06,-2.400
-3.680E-06,-2.680
-3.670E-06,-2.680
-3.660E-06,-2.680
-3.650E-06,-2.660
-3.640E-06,-2.660
-3.630E-06,-2.640
-3.620E-06,-1.980
-3.610E-06,-0.440
-3.600E-06,1.160
-3.590E-06,2.660
-3.580E-06,2.780
-3.570E-06,2.760
-3.560E-06,2.760
-3.550E-06,2.740
-3.540E-06,2.760
-3.530E-06,2.760
-3.520E-06,2.740
-3.510E-06,2.700
-3.500E-06,2.360
-3.490E-06,2.060
-3.480E-06,1.900
-3.470E-06,1.880
-3.460E-06,1.780
-3.450E-06,1.680
-3.440E-06,1.340
-3.430E-06,0.860
-3.420E-06,0.220
-3.410E-06,-0.540
-3.400E-06,-1.300
-3.390E-06,-2.020
-3.380E-06,-2.600
-3.370E-06,-2.640
-3.360E-06,-2.660
-3.350E-06,-2.660
-3.340E-06,-2.660
-3.330E-06,-2.660
-3.320E-06,-2.340
-3.310E-06,-1.680
-3.300E-06,-0.940
-3.290E-06,-0.240
-3.280E-06,0.320
-3.270E-06,0.840
-3.260E-06,1.140
-3.250E-06,1.280
-3.240E-06,1.220
-3.230E-06,0.980
-3.220E-06,0.660
-3.210E-06,0.320
-3.200E-06,0.040
-3.190E-06,-0.160
-3.180E-06,-0.320
-3.170E-06,-0.400
-3.160E-06,-0.420
-3.150E-06,-0.360
-3.140E-06,-0.280
-3.130E-06,-0.180
-3.120E-06,-0.020
-3.110E-06,0.040
-3.100E-06,0.040
-3.090E-06,0.080
-3.080E-06,0.060
-3.070E-06,0.000
-3.060E-06,0.000
-3.050E-06,0.000
-3.040E-06,0.000
-3.030E-06,0.060
-3.020E-06,0.120
-3.010E-06,0.260
-3.000E-06,0.440
-2.990E-06,0.660
-2.980E-06,0.900
-2.970E-06,1.100
-2.960E-06,1.280
-2.950E-06,1.340
-2.940E-06,1.420
-2.930E-06,1.360
-2.920E-06,1.200
-2.910E-06,1.020
-2.900E-06,0.780
-2.890E-06,0.460
-2.880E-06,0.140
-2.870E-06,-0.140
-2.860E-06,-0.380
-2.850E-06,-0.580
-2.840E-06,-0.680
-2.830E-06,-0.680
-2.820E-06,-0.640
-2.810E-06,-0.520
-2.800E-06,-0.420
-2.790E-06,-0.260
-2.780E-06,-0.120
-2.770E-06,0.000
-2.760E-06,0.080
-2.750E-06,0.140
-2.740E-06,0.160
-2.730E-06,0.180
-2.720E-06,0.160
-2.710E-06,0.180
-2.700E-06,0.200
-2.690E-06,0.200
-2.680E-06,0.220
-2.670E-06,0.240
-2.660E-06,0.260
-2.650E-06,0.260
-2.640E-06,0.280
-2.630E-06,0.300
-2.620E-06,0.240
-2.610E-06,0.240
-2.600E-06,0.140
-2.590E-06,0.040
-2.580E-06,-0.080
-2.570E-06,-0.180
-2.560E-06,-0.240
-2.550E-06,-0.280
-2.540E-06,-0.360
-2.530E-06,-0.400
-2.520E-06,-0.420
-2.510E-06,-0.440
-2.500E-06,-0.380
-2.490E-06,-0.320
-2.480E-06,-0.300
-2.470E-06,-0.240
-2.460E-06,-0.180
-2.450E-06,-0.120
-2.440E-06,-0.020
-2.430E-06,0.100
-2.420E-06,0.160
-2.410E-06,0.260
-2.400E-06,0.300
-2.390E-06,0.360
-2.380E-06,0.400
-2.370E-06,0.460
-2.360E-06,0.500
-2.350E-06,0.480
-2.340E-06,0.460
-2.330E-06,0.460
-2.320E-06,0.440
-2.310E-06,0.400
-2.300E-06,0.400
-2.290E-06,0.380
-2.280E-06,0.340
-2.270E-06,0.300
-2.260E-06,0.280
-2.250E-06,0.220
-2.240E-06,0.160
-2.230E-06,0.060
-2.220E-06,-0.020
-2.210E-06,-0.080
-2.200E-06,-0.180
-2.190E-06,-0.280
-2.180E-06,-0.360
-2.170E-06,-0.420
-2.160E-06,-0.460
-2.150E-06,-0.480
-2.140E-06,-0.520
-2.130E-06,-0.460
-2.120E-06,-0.400
-2.110E-06,-0.360
-2.100E-06,-0.320
-2.090E-06,-0.260
-2.080E-06,-0.220
-2.070E-06,-0.160
-2.060E-06,-0.140
-2.050E-06,-0.080
-2.040E-06,-0.080
-2.030E-06,-0.040
-2.020E-06,-0.040
-2.010E-06,-0.040
-2.000E-06,0.000
-1.990E-06,0.140
-1.980E-06,0.000
-1.970E-06,0.080
-1.960E-06,-0.080
-1.950E-06,-0.140
-1.940E-06,-0.120
-1.930E-06,-0.080
-1.920E-06,-0.080
-1.910E-06,0.000
-1.900E-06,-0.140
-1.890E-06,-0.140
-1.880E-06,-0.200
-1.870E-06,-0.140
-1.860E-06,-0.080
-1.850E-06,-0.040
-1.840E-06,-0.080
-1.830E-06,-0.100
-1.820E-06,-0.080
-1.810E-06,0.060
-1.800E-06,0.260
-1.790E-06,0.460
-1.780E-06,0.620
-1.770E-06,0.740
-1.760E-06,0.760
-1.750E-06,0.760
-1.740E-06,0.740
-1.730E-06,0.660
-1.720E-06,0.560
-1.710E-06,0.380
-1.700E-06,0.260
-1.690E-06,0.100
-1.680E-06,-0.020
-1.670E-06,-0.140
-1.660E-06,-0.260
-1.650E-06,-0.320
-1.640E-06,-0.440
-1.630E-06,-0.580
-1.620E-06,-0.660
-1.610E-06,-0.680
-1.600E-06,-0.720
-1.590E-06,-0.700
-1.580E-06,-0.700
-1.570E-06,-0.660
-1.560E-06,-0.660
-1.550E-06,-0.600
-1.540E-06,-0.500
-1.530E-06,-0.380
-1.520E-06,-0.280
-1.510E-06,-0.180
-1.500E-06,-0.100
-1.490E-06,-0.020
-1.480E-06,0.080
-1.470E-06,0.160
-1.460E-06,0.240
-1.450E-06,0.300
-1.440E-06,0.340
-1.430E-06,0.340
-1.420E-06,0.260
-1.410E-06,0.220
-1.400E-06,0.180
-1.390E-06,0.100
-1.380E-06,0.020
-1.370E-06,-0.100
-1.360E-06,-0.160
-1.350E-06,-0.220
-1.340E-06,-0.260
-1.330E-06,-0.280
-1.320E-06,-0.260
-1.310E-06,-0.300
-1.300E-06,-0.300
-1.290E-06,-0.280
-1.280E-06,-0.260
-1.270E-06,-0.220
-1.260E-06,-0.180
-1.250E-06,-0.160
-1.240E-06,-0.140
-1.230E-06,-0.080
-1.220E-06,-0.040
-1.210E-06,-0.020
-1.200E-06,0.000
-1.190E-06,0.020
-1.180E-06,0.020
-1.170E-06,0.040
-1.160E-06,0.060
-1.150E-06,0.040
-1.140E-06,0.060
-1.130E-06,0.040
-1.120E-06,0.000
-1.110E-06,-0.020
-1.100E-06,-0.080
-1.090E-06,-0.140
-1.080E-06,-0.160
-1.070E-06,-0.260
-1.060E-06,-0.300
-1.050E-06,-0.340
-1.040E-06,-0.360
-1.030E-06,-0.380
-1.020E-06,-0.380
-1.010E-06,-0.400
-1.000E-06,-0.380
-9.900E-07,-0.400
-9.800E-07,-0.400
-9.700E-07,-0.400
-9.600E-07,-0.360
-9.500E-07,-0.320
-9.400E-07,-0.300
-9.300E-07,-0.260
-9.200E-07,-0.300
-9.100E-07,-0.320
-9.000E-07,-0.340
-8.900E-07,-0.380
-8.800E-07,-0.480
-8.700E-07,-0.560
-8.600E-07,-0.660
-8.500E-07,-0.780
-8.400E-07,-0.840
-8.300E-07,-0.800
-8.200E-07,-0.680
-8.100E-07,-0.600
-8.000E-07,-0.500
-7.900E-07,-0.500
-7.800E-07,-0.520
-7.700E-07,-0.580
-7.600E-07,-0.560
-7.500E-07,-0.540
-7.400E-07,-0.520
-7.300E-07,-0.500
-7.200E-07,-0.520
-7.100E-07,-0.560
-7.000E-07,-0.540
-6.900E-07,-0.500
-6.800E-07,-0.460
-6.700E-07,-0.480
-6.600E-07,-0.520
-6.500E-07,-0.520
-6.400E-07,-0.520
-6.300E-07,-0.500
-6.200E-07,-0.460
-6.100E-07,-0.440
-6.000E-07,-0.460
-5.900E-07,-0.520
-5.800E-07,-0.540
-5.700E-07,-0.600
-5.600E-07,-0.660
-5.500E-07,-0.700
-5.400E-07,-0.720
-5.300E-07,-0.780
-5.200E-07,-0.800
-5.100E-07,-0.740
-5.000E-07,-0.760
-4.900E-07,-0.680
-4.800E-07,-0.700
-4.700E-07,-0.740
-4.600E-07,-0.800
-4.500E-07,-0.800
-4.400E-07,-0.860
-4.300E-07,-0.860
-4.200E-07,-0.860
-4.100E-07,-0.860
-4.000E-07,-0.940
-3.900E-07,-0.920
-3.800E-07,-0.900
-3.700E-07,-0.880
-3.600E-07,-0.840
-3.500E-07,-0.820
-3.400E-07,-0.800
-3.300E-07,-0.780
-3.200E-07,-0.780
-3.100E-07,-0.700
-3.000E-07,-0.680
-2.900E-07,-0.680
-2.800E-07,-0.660
-2.700E-07,-0.680
-2.600E-07,-0.660
-2.500E-07,-0.680
-2.400E-07,-0.660
-2.300E-07,-0.720
-2.200E-07,-0.720
-2.100E-07,-0.780
-2.000E-07,-0.800
-1.900E-07,-0.780
-1.800E-07,-0.780
-1.700E-07,-0.800
-1.600E-07,-0.780
-1.500E-07,-0.800
-1.400E-07,-0.800
-1.300E-07,-0.840
-1.200E-07,-0.900
-1.100E-07,-0.940
-1.000E-07,-1.020
-9.000E-08,-1.020
-8.000E-08,-1.020
-7.000E-08,-1.060
-6.000E-08,-1.100
-5.000E-08,-0.360
-4.000E-08,1.400
-3.000E-08,1.840
-2.000E-08,0.200
-1.000E-08,-0.020
0.000E+00,1.220
1.000E-08,0.980
2.000E-08,-0.080
3.000E-08,0.460
4.000E-08,0.940
5.000E-08,0.080
6.000E-08,-0.860
7.000E-08,-0.360
8.000E-08,0.180
9.000E-08,0.060
1.000E-07,-0.200
1.100E-07,-0.320
1.200E-07,-0.920
1.300E-07,-1.080
1.400E-07,-0.980
1.500E-07,-1.020
1.600E-07,-1.020
1.700E-07,-0.660
1.800E-07,-0.520
1.900E-07,-0.680
2.000E-07,-0.940
2.100E-07,-0.920
2.200E-07,-0.860
2.300E-07,-0.860
2.400E-07,-0.820
2.500E-07,-0.840
2.600E-07,-1.040
2.700E-07,-1.040
2.800E-07,-1.060
2.900E-07,-1.180
3.000E-07,-1.400
3.100E-07,-1.520
3.200E-07,-1.480
3.300E-07,-1.200
3.400E-07,0.100
3.500E-07,0.440
3.600E-07,-0.200
3.700E-07,-0.420
3.800E-07,-0.540
3.900E-07,-0.760
4.000E-07,-0.800
4.100E-07,-0.500
4.200E-07,-0.020
4.300E-07,-0.420
4.400E-07,-0.940
4.500E-07,-1.000
4.600E-07,-0.680
4.700E-07,-0.340
4.800E-07,-0.160
4.900E-07,-0.200
5.000E-07,-0.360
5.100E-07,-0.560
5.200E-07,-0.640
5.300E-07,-0.580
5.400E-07,-0.300
5.500E-07,-0.080
5.600E-07,0.000
5.700E-07,-0.160
5.800E-07,-0.340
5.900E-07,-0.120
6.000E-07,0.080
6.100E-07,-0.180
6.200E-07,-0.220
6.300E-07,-0.220
6.400E-07,-0.300
6.500E-07,-0.280
6.600E-07,-0.060
6.700E-07,0.000
6.800E-07,-0.260
6.900E-07,-0.440
7.000E-07,-0.500
7.100E-07,-0.520
7.200E-07,-0.480
7.300E-07,-0.200
7.400E-07,-0.160
7.500E-07,-0.560
7.600E-07,-0.920
7.700E-07,-1.040
7.800E-07,-1.040
7.900E-07,-1.020
8.000E-07,-0.940
8.100E-07,-0.720
8.200E-07,-0.680
8.300E-07,-0.900
8.400E-07,-0.980
8.500E-07,-0.840
8.600E-07,-0.680
8.700E-07,-0.500
8.800E-07,-0.360
8.900E-07,-0.340
9.000E-07,-0.420
9.100E-07,-0.560
9.200E-07,-0.500
9.300E-07,-0.440
9.400E-07,-0.440
9.500E-07,-0.500
9.600E-07,-0.680
9.700E-07,-0.880
9.800E-07,-0.980
9.900E-07,-1.200
1.000E-06,-1.360
1.010E-06,-1.180
1.020E-06,-1.400
1.030E-06,-1.460
1.040E-06,-1.480
1.050E-06,-1.180
1.060E-06,-1.000
1.070E-06,-1.080
1.080E-06,-1.040
1.090E-06,-1.000
1.100E-06,-0.960
1.110E-06,-0.940
1.120E-06,-0.800
1.130E-06,-0.680
1.140E-06,-0.740
1.150E-06,-0.880
1.160E-06,-0.920
1.170E-06,-0.820
1.180E-06,-0.580
1.190E-06,-0.320
1.200E-06,-0.220
1.210E-06,-0.180
1.220E-06,-0.140
1.230E-06,-0.020
1.240E-06,0.060
1.250E-06,0.020
1.260E-06,0.000
1.270E-06,-0.080
1.280E-06,-0.280
1.290E-06,-0.420
1.300E-06,-0.560
1.310E-06,-0.640
1.320E-06,-0.740
1.330E-06,-0.800
1.340E-06,-0.840
1.350E-06,-0.780
1.360E-06,-0.780
1.370E-06,-0.800
1.380E-06,-0.840
1.390E-06,-0.900
1.400E-06,-0.960
1.410E-06,-1.020
1.420E-06,-1.120
1.430E-06,-1.240
1.440E-06,-1.280
1.450E-06,-1.380
1.460E-06,-1.680
1.470E-06,-1.540
1.480E-06,0.000
1.490E-06,0.520
1.500E-06,-0.060
1.510E-06,-0.160
1.520E-06,-0.020
1.530E-06,-0.280
1.540E-06,-0.480
1.550E-06,-0.100
1.560E-06,0.480
1.570E-06,0.040
1.580E-06,-0.540
1.590E-06,-0.660
1.600E-06,-0.460
1.610E-06,-0.400
1.620E-06,-0.460
1.630E-06,-0.580
1.640E-06,-0.740
1.650E-06,-0.920
1.660E-06,-1.060
1.670E-06,-1.060
1.680E-06,-0.980
1.690E-06,-0.800
1.700E-06,-0.680
1.710E-06,-0.560
1.720E-06,-0.540
1.730E-06,-0.600
1.740E-06,-0.640
1.750E-06,-0.700
1.760E-06,-0.740
1.770E-06,-0.600
1.780E-06,-0.560
1.790E-06,-0.660
1.800E-06,-0.660
1.810E-06,-0.420
1.820E-06,-0.160
1.830E-06,-0.300
1.840E-06,-0.220
1.850E-06,-0.040
1.860E-06,-0.140
1.870E-06,-0.260
1.880E-06,-0.220
1.890E-06,-0.200
1.900E-06,-0.220
1.910E-06,-0.360
1.920E-06,-0.600
1.930E-06,-0.680
1.940E-06,-0.780
1.950E-06,-0.860
1.960E-06,-0.960
1.970E-06,-0.720
1.980E-06,-0.780
1.990E-06,-0.780
2.000E-06,-0.700
2.010E-06,-0.500
2.020E-06,-0.420
2.030E-06,-0.440
2.040E-06,-0.300
2.050E-06,-0.280
2.060E-06,-0.320
2.070E-06,-0.500
2.080E-06,-0.500
2.090E-06,-0.520
2.100E-06,-0.580
2.110E-06,-0.680
2.120E-06,-0.640
2.130E-06,-0.680
2.140E-06,-0.720
2.150E-06,-0.760
2.160E-06,-0.780
2.170E-06,-0.740
2.180E-06,-0.660
2.190E-06,-0.600
2.200E-06,-0.560
2.210E-06,-0.540
2.220E-06,-0.560
2.230E-06,-0.600
2.240E-06,-0.720
2.250E-06,-0.720
2.260E-06,-0.780
2.270E-06,-0.820
2.280E-06,-0.860
2.290E-06,-0.880
2.300E-06,-0.900
2.310E-06,-0.960
2.320E-06,-1.020
2.330E-06,-1.080
2.340E-06,-0.980
2.350E-06,-0.940
2.360E-06,-0.920
2.370E-06,-0.940
2.380E-06,-1.000
2.390E-06,-1.100
2.400E-06,-1.160
2.410E-06,-1.000
2.420E-06,-0.600
2.430E-06,-0.660
2.440E-06,-0.840
2.450E-06,-0.720
2.460E-06,-0.640
2.470E-06,-0.720
2.480E-06,-0.820
2.490E-06,-0.840
2.500E-06,-1.100
2.510E-06,-1.540
2.520E-06,-1.760
2.530E-06,-1.840
2.540E-06,-1.940
2.550E-06,-2.180
2.560E-06,-2.340
2.570E-06,-2.400
2.580E-06,-2.620
2.590E-06,-2.660
2.600E-06,-2.660
2.610E-06,-2.660
2.620E-06,-2.660
2.630E-06,-2.660
2.640E-06,-2.660
2.650E-06,-2.660
2.660E-06,-2.680
2.670E-06,-2.360
2.680E-06,-2.180
2.690E-06,-2.200
2.700E-06,-2.000
2.710E-06,-2.080
2.720E-06,-2.140
2.730E-06,-2.060
2.740E-06,-2.040
2.750E-06,-2.080
2.760E-06,-2.280
2.770E-06,-2.380
2.780E-06,-2.420
2.790E-06,-2.480
2.800E-06,-2.520
2.810E-06,-2.520
2.820E-06,-2.600
2.830E-06,-2.680
2.840E-06,-2.660
2.850E-06,-2.660
2.860E-06,-2.580
2.870E-06,-2.560
2.880E-06,-2.440
2.890E-06,-2.340
2.900E-06,-2.400
2.910E-06,-2.060
2.920E-06,-0.940
2.930E-06,0.080
2.940E-06,0.460
2.950E-06,0.660
2.960E-06,0.980
2.970E-06,1.180
2.980E-06,1.000
2.990E-06,1.040
3.000E-06,1.160
3.010E-06,0.680
3.020E-06,-0.180
3.030E-06,-0.860
3.040E-06,-1.000
3.050E-06,-1.500
3.060E-06,-1.760
3.070E-06,-1.920
3.080E-06,-2.160
3.090E-06,-2.440
3.100E-06,-2.640
3.110E-06,-2.660
3.120E-06,-2.660
3.130E-06,-2.660
3.140E-06,-2.660
3.150E-06,-2.660
3.160E-06,-2.660
3.170E-06,-2.660
3.180E-06,-2.660
3.190E-06,-2.460
