mediciones/mediciones removidas por ser diferentes/32.5/WaveData47077.csv

#timebase=2000000(ps)
,#voltbase=2000000(mv/100)
#size=4000
-8.400E-06,0.080
-8.390E-06,0.080
-8.380E-06,0.080
-8.370E-06,0.080
-8.360E-06,0.000
-8.350E-06,-0.080
-8.340E-06,0.000
-8.330E-06,0.000
-8.320E-06,0.000
-8.310E-06,0.000
-8.300E-06,0.000
-8.290E-06,0.000
-8.280E-06,0.080
-8.270E-06,0.000
-8.260E-06,0.080
-8.250E-06,0.080
-8.240E-06,0.080
-8.230E-06,0.160
-8.220E-06,0.000
-8.210E-06,0.160
-8.200E-06,0.160
-8.190E-06,0.240
-8.180E-06,0.160
-8.170E-06,0.080
-8.160E-06,0.000
-8.150E-06,0.000
-8.140E-06,0.000
-8.130E-06,0.080
-8.120E-06,0.000
-8.110E-06,0.080
-8.100E-06,0.080
-8.090E-06,0.080
-8.080E-06,0.080
-8.070E-06,0.080
-8.060E-06,0.160
-8.050E-06,0.160
-8.040E-06,0.000
-8.030E-06,0.080
-8.020E-06,0.080
-8.010E-06,0.080
-8.000E-06,0.000
-7.990E-06,0.000
-7.980E-06,0.080
-7.970E-06,0.080
-7.960E-06,0.080
-7.950E-06,0.160
-7.940E-06,0.000
-7.930E-06,0.080
-7.920E-06,0.000
-7.910E-06,0.000
-7.900E-06,0.000
-7.890E-06,0.000
-7.880E-06,0.080
-7.870E-06,0.080
-7.860E-06,0.000
-7.850E-06,0.000
-7.840E-06,-0.080
-7.830E-06,0.000
-7.820E-06,0.080
-7.810E-06,-0.080
-7.800E-06,0.000
-7.790E-06,0.000
-7.780E-06,0.000
-7.770E-06,-0.080
-7.760E-06,0.000
-7.750E-06,0.000
-7.740E-06,0.000
-7.730E-06,-0.080
-7.720E-06,-0.080
-7.710E-06,0.000
-7.700E-06,-0.080
-7.690E-06,0.000
-7.680E-06,-0.080
-7.670E-06,0.080
-7.660E-06,0.080
-7.650E-06,0.080
-7.640E-06,0.080
-7.630E-06,0.080
-7.620E-06,0.080
-7.610E-06,0.080
-7.600E-06,0.160
-7.590E-06,0.160
-7.580E-06,0.080
-7.570E-06,0.160
-7.560E-06,0.080
-7.550E-06,0.080
-7.540E-06,0.080
-7.530E-06,0.080
-7.520E-06,0.080
-7.510E-06,0.080
-7.500E-06,0.000
-7.490E-06,0.080
-7.480E-06,0.000
-7.470E-06,0.080
-7.460E-06,0.000
-7.450E-06,0.000
-7.440E-06,0.080
-7.430E-06,0.000
-7.420E-06,0.000
-7.410E-06,0.000
-7.400E-06,0.000
-7.390E-06,0.080
-7.380E-06,0.000
-7.370E-06,0.000
-7.360E-06,0.080
-7.350E-06,0.160
-7.340E-06,0.160
-7.330E-06,0.240
-7.320E-06,0.160
-7.310E-06,0.240
-7.300E-06,0.160
-7.290E-06,0.000
-7.280E-06,0.080
-7.270E-06,0.080
-7.260E-06,0.080
-7.250E-06,0.000
-7.240E-06,0.000
-7.230E-06,0.000
-7.220E-06,0.000
-7.210E-06,0.080
-7.200E-06,0.080
-7.190E-06,0.080
-7.180E-06,0.000
-7.170E-06,0.000
-7.160E-06,0.160
-7.150E-06,0.000
-7.140E-06,0.080
-7.130E-06,0.080
-7.120E-06,0.080
-7.110E-06,0.160
-7.100E-06,0.000
-7.090E-06,0.080
-7.080E-06,0.160
-7.070E-06,0.160
-7.060E-06,0.000
-7.050E-06,0.080
-7.040E-06,0.080
-7.030E-06,0.080
-7.020E-06,0.080
-7.010E-06,0.080
-7.000E-06,0.000
-6.990E-06,0.000
-6.980E-06,0.080
-6.970E-06,0.080
-6.960E-06,0.000
-6.950E-06,0.080
-6.940E-06,0.000
-6.930E-06,0.000
-6.920E-06,-0.080
-6.910E-06,0.000
-6.900E-06,-0.080
-6.890E-06,-0.080
-6.880E-06,0.000
-6.870E-06,-0.080
-6.860E-06,0.000
-6.850E-06,-0.080
-6.840E-06,-0.080
-6.830E-06,0.000
-6.820E-06,-0.080
-6.810E-06,0.000
-6.800E-06,0.000
-6.790E-06,0.080
-6.780E-06,0.080
-6.770E-06,0.000
-6.760E-06,0.080
-6.750E-06,0.160
-6.740E-06,0.160
-6.730E-06,0.000
-6.720E-06,0.080
-6.710E-06,0.080
-6.700E-06,0.080
-6.690E-06,0.080
-6.680E-06,0.080
-6.670E-06,0.000
-6.660E-06,0.080
-6.650E-06,0.080
-6.640E-06,0.080
-6.630E-06,0.080
-6.620E-06,0.080
-6.610E-06,0.080
-6.600E-06,0.080
-6.590E-06,0.080
-6.580E-06,0.080
-6.570E-06,0.080
-6.560E-06,0.160
-6.550E-06,0.160
-6.540E-06,0.080
-6.530E-06,0.080
-6.520E-06,0.080
-6.510E-06,0.080
-6.500E-06,0.080
-6.490E-06,0.000
-6.480E-06,0.000
-6.470E-06,0.000
-6.460E-06,0.080
-6.450E-06,-0.080
-6.440E-06,0.000
-6.430E-06,0.000
-6.420E-06,0.000
-6.410E-06,0.000
-6.400E-06,0.000
-6.390E-06,0.000
-6.380E-06,0.000
-6.370E-06,0.000
-6.360E-06,-0.080
-6.350E-06,-0.080
-6.340E-06,0.000
-6.330E-06,-0.080
-6.320E-06,0.000
-6.310E-06,0.080
-6.300E-06,0.080
-6.290E-06,0.000
-6.280E-06,0.080
-6.270E-06,0.080
-6.260E-06,0.080
-6.250E-06,0.240
-6.240E-06,0.160
-6.230E-06,0.080
-6.220E-06,0.080
-6.210E-06,0.240
-6.200E-06,0.160
-6.190E-06,0.160
-6.180E-06,0.080
-6.170E-06,0.160
-6.160E-06,0.160
-6.150E-06,0.160
-6.140E-06,0.240
-6.130E-06,0.080
-6.120E-06,0.000
-6.110E-06,0.000
-6.100E-06,0.080
-6.090E-06,0.160
-6.080E-06,0.000
-6.070E-06,-0.080
-6.060E-06,0.000
-6.050E-06,-0.080
-6.040E-06,0.000
-6.030E-06,-0.080
-6.020E-06,0.000
-6.010E-06,0.080
-6.000E-06,0.080
-5.990E-06,-0.080
-5.980E-06,-0.080
-5.970E-06,0.000
-5.960E-06,0.080
-5.950E-06,-0.080
-5.940E-06,0.000
-5.930E-06,0.080
-5.920E-06,0.080
-5.910E-06,0.080
-5.900E-06,0.080
-5.890E-06,0.080
-5.880E-06,0.080
-5.870E-06,0.080
-5.860E-06,0.240
-5.850E-06,0.080
-5.840E-06,0.240
-5.830E-06,0.240
-5.820E-06,0.000
-5.810E-06,0.080
-5.800E-06,0.080
-5.790E-06,0.080
-5.780E-06,0.080
-5.770E-06,0.080
-5.760E-06,0.080
-5.750E-06,0.080
-5.740E-06,0.080
-5.730E-06,0.080
-5.720E-06,0.000
-5.710E-06,0.080
-5.700E-06,0.000
-5.690E-06,0.000
-5.680E-06,0.080
-5.670E-06,-0.080
-5.660E-06,0.000
-5.650E-06,0.000
-5.640E-06,0.000
-5.630E-06,0.000
-5.620E-06,0.000
-5.610E-06,0.000
-5.600E-06,0.000
-5.590E-06,-0.080
-5.580E-06,-0.080
-5.570E-06,0.000
-5.560E-06,-0.080
-5.550E-06,0.000
-5.540E-06,0.000
-5.530E-06,0.080
-5.520E-06,0.000
-5.510E-06,-0.080
-5.500E-06,-0.080
-5.490E-06,0.080
-5.480E-06,0.160
-5.470E-06,0.160
-5.460E-06,0.160
-5.450E-06,0.160
-5.440E-06,0.000
-5.430E-06,0.000
-5.420E-06,0.080
-5.410E-06,0.240
-5.400E-06,0.000
-5.390E-06,0.080
-5.380E-06,0.160
-5.370E-06,0.080
-5.360E-06,0.160
-5.350E-06,0.080
-5.340E-06,0.080
-5.330E-06,0.080
-5.320E-06,0.080
-5.310E-06,0.000
-5.300E-06,0.080
-5.290E-06,0.160
-5.280E-06,0.160
-5.270E-06,0.000
-5.260E-06,-0.080
-5.250E-06,0.000
-5.240E-06,0.000
-5.230E-06,0.000
-5.220E-06,0.000
-5.210E-06,0.000
-5.200E-06,0.000
-5.190E-06,0.000
-5.180E-06,0.000
-5.170E-06,0.000
-5.160E-06,0.000
-5.150E-06,0.000
-5.140E-06,0.000
-5.130E-06,0.000
-5.120E-06,0.000
-5.110E-06,0.000
-5.100E-06,0.000
-5.090E-06,0.000
-5.080E-06,-0.080
-5.070E-06,0.000
-5.060E-06,-0.080
-5.050E-06,0.000
-5.040E-06,-0.080
-5.030E-06,0.000
-5.020E-06,0.080
-5.010E-06,0.080
-5.000E-06,0.080
-4.990E-06,0.080
-4.980E-06,0.080
-4.970E-06,0.080
-4.960E-06,0.080
-4.950E-06,0.080
-4.940E-06,0.000
-4.930E-06,0.080
-4.920E-06,0.000
-4.910E-06,0.000
-4.900E-06,0.080
-4.890E-06,0.000
-4.880E-06,0.080
-4.870E-06,0.000
-4.860E-06,0.160
-4.850E-06,0.000
-4.840E-06,0.080
-4.830E-06,0.080
-4.820E-06,0.080
-4.810E-06,0.000
-4.800E-06,0.080
-4.790E-06,0.000
-4.780E-06,0.080
-4.770E-06,0.000
-4.760E-06,0.080
-4.750E-06,0.160
-4.740E-06,0.000
-4.730E-06,0.080
-4.720E-06,0.080
-4.710E-06,0.080
-4.700E-06,0.160
-4.690E-06,0.160
-4.680E-06,0.000
-4.670E-06,0.000
-4.660E-06,0.080
-4.650E-06,0.080
-4.640E-06,0.000
-4.630E-06,0.000
-4.620E-06,0.080
-4.610E-06,-0.080
-4.600E-06,0.080
-4.590E-06,0.000
-4.580E-06,0.000
-4.570E-06,0.000
-4.560E-06,-0.080
-4.550E-06,0.000
-4.540E-06,0.080
-4.530E-06,0.000
-4.520E-06,0.000
-4.510E-06,0.000
-4.500E-06,0.080
-4.490E-06,0.080
-4.480E-06,0.080
-4.470E-06,0.000
-4.460E-06,0.080
-4.450E-06,0.000
-4.440E-06,0.000
-4.430E-06,0.080
-4.420E-06,0.000
-4.410E-06,0.000
-4.400E-06,-0.080
-4.390E-06,0.080
-4.380E-06,0.160
-4.370E-06,0.000
-4.360E-06,0.000
-4.350E-06,0.080
-4.340E-06,0.000
-4.330E-06,0.080
-4.320E-06,0.160
-4.310E-06,0.160
-4.300E-06,0.000
-4.290E-06,0.080
-4.280E-06,0.080
-4.270E-06,0.080
-4.260E-06,0.000
-4.250E-06,0.080
-4.240E-06,0.000
-4.230E-06,0.000
-4.220E-06,0.160
-4.210E-06,0.080
-4.200E-06,0.080
-4.190E-06,0.160
-4.180E-06,0.080
-4.170E-06,0.080
-4.160E-06,0.240
-4.150E-06,0.160
-4.140E-06,0.000
-4.130E-06,0.000
-4.120E-06,0.080
-4.110E-06,0.080
-4.100E-06,0.080
-4.090E-06,0.080
-4.080E-06,0.080
-4.070E-06,0.000
-4.060E-06,0.000
-4.050E-06,0.000
-4.040E-06,0.000
-4.030E-06,0.000
-4.020E-06,0.000
-4.010E-06,0.000
-4.000E-06,-0.080
-3.990E-06,-0.080
-3.980E-06,-0.080
-3.970E-06,0.000
-3.960E-06,-0.080
-3.950E-06,-0.080
-3.940E-06,0.000
-3.930E-06,-0.080
-3.920E-06,-0.080
-3.910E-06,0.000
-3.900E-06,0.080
-3.890E-06,-0.080
-3.880E-06,0.000
-3.870E-06,0.000
-3.860E-06,-0.080
-3.850E-06,0.000
-3.840E-06,0.000
-3.830E-06,0.000
-3.820E-06,0.000
-3.810E-06,0.000
-3.800E-06,0.080
-3.790E-06,0.080
-3.780E-06,0.000
-3.770E-06,0.080
-3.760E-06,0.160
-3.750E-06,0.000
-3.740E-06,0.080
-3.730E-06,0.080
-3.720E-06,0.080
-3.710E-06,0.160
-3.700E-06,0.080
-3.690E-06,0.160
-3.680E-06,0.240
-3.670E-06,0.000
-3.660E-06,0.080
-3.650E-06,0.080
-3.640E-06,0.240
-3.630E-06,0.080
-3.620E-06,0.000
-3.610E-06,0.000
-3.600E-06,0.080
-3.590E-06,0.080
-3.580E-06,0.080
-3.570E-06,0.000
-3.560E-06,-0.080
-3.550E-06,0.000
-3.540E-06,0.000
-3.530E-06,0.000
-3.520E-06,0.000
-3.510E-06,0.000
-3.500E-06,0.000
-3.490E-06,0.080
-3.480E-06,-0.080
-3.470E-06,0.000
-3.460E-06,0.080
-3.450E-06,-0.080
-3.440E-06,0.000
-3.430E-06,0.080
-3.420E-06,-0.080
-3.410E-06,0.000
-3.400E-06,0.000
-3.390E-06,0.000
-3.380E-06,0.000
-3.370E-06,0.000
-3.360E-06,0.000
-3.350E-06,0.000
-3.340E-06,-0.080
-3.330E-06,0.000
-3.320E-06,-0.080
-3.310E-06,-0.080
-3.300E-06,0.000
-3.290E-06,0.000
-3.280E-06,0.000
-3.270E-06,0.080
-3.260E-06,0.080
-3.250E-06,0.080
-3.240E-06,0.160
-3.230E-06,0.240
-3.220E-06,0.160
-3.210E-06,0.000
-3.200E-06,0.160
-3.190E-06,0.080
-3.180E-06,0.160
-3.170E-06,0.000
-3.160E-06,0.000
-3.150E-06,0.000
-3.140E-06,-0.080
-3.130E-06,0.000
-3.120E-06,0.080
-3.110E-06,0.000
-3.100E-06,0.080
-3.090E-06,0.160
-3.080E-06,0.000
-3.070E-06,0.160
-3.060E-06,0.240
-3.050E-06,0.160
-3.040E-06,0.080
-3.030E-06,0.000
-3.020E-06,0.080
-3.010E-06,0.160
-3.000E-06,0.160
-2.990E-06,0.160
-2.980E-06,0.160
-2.970E-06,0.080
-2.960E-06,0.160
-2.950E-06,0.240
-2.940E-06,0.160
-2.930E-06,0.160
-2.920E-06,0.240
-2.910E-06,0.080
-2.900E-06,0.080
-2.890E-06,0.160
-2.880E-06,0.000
-2.870E-06,0.160
-2.860E-06,0.000
-2.850E-06,0.080
-2.840E-06,0.160
-2.830E-06,0.080
-2.820E-06,-0.080
-2.810E-06,0.000
-2.800E-06,0.000
-2.790E-06,0.000
-2.780E-06,0.000
-2.770E-06,-0.080
-2.760E-06,0.000
-2.750E-06,0.000
-2.740E-06,0.000
-2.730E-06,0.000
-2.720E-06,0.000
-2.710E-06,0.000
-2.700E-06,0.000
-2.690E-06,0.000
-2.680E-06,0.000
-2.670E-06,0.000
-2.660E-06,-0.080
-2.650E-06,-0.080
-2.640E-06,0.000
-2.630E-06,-0.160
-2.620E-06,-0.080
-2.610E-06,-0.160
-2.600E-06,-0.240
-2.590E-06,-0.240
-2.580E-06,-0.240
-2.570E-06,-0.160
-2.560E-06,-0.240
-2.550E-06,-0.240
-2.540E-06,-0.240
-2.530E-06,-0.080
-2.520E-06,-0.080
-2.510E-06,-0.160
-2.500E-06,-0.080
-2.490E-06,-0.160
-2.480E-06,-0.080
-2.470E-06,-0.240
-2.460E-06,0.000
-2.450E-06,0.000
-2.440E-06,0.080
-2.430E-06,0.080
-2.420E-06,0.000
-2.410E-06,0.000
-2.400E-06,0.000
-2.390E-06,0.000
-2.380E-06,0.000
-2.370E-06,0.000
-2.360E-06,-0.080
-2.350E-06,-0.080
-2.340E-06,-0.160
-2.330E-06,-0.240
-2.320E-06,-0.160
-2.310E-06,-0.240
-2.300E-06,-0.320
-2.290E-06,-0.480
-2.280E-06,-0.480
-2.270E-06,-0.400
-2.260E-06,-0.480
-2.250E-06,-0.400
-2.240E-06,-0.160
-2.230E-06,-0.240
-2.220E-06,-0.080
-2.210E-06,-0.160
-2.200E-06,-0.160
-2.190E-06,-0.080
-2.180E-06,-0.240
-2.170E-06,-0.320
-2.160E-06,-0.400
-2.150E-06,-0.400
-2.140E-06,-0.480
-2.130E-06,-0.560
-2.120E-06,-0.640
-2.110E-06,-0.560
-2.100E-06,-0.720
-2.090E-06,-0.560
-2.080E-06,-0.720
-2.070E-06,-0.640
-2.060E-06,-0.640
-2.050E-06,-0.560
-2.040E-06,-0.560
-2.030E-06,-0.640
-2.020E-06,-0.640
-2.010E-06,-0.560
-2.000E-06,-0.560
-1.990E-06,-0.560
-1.980E-06,-0.560
-1.970E-06,-0.480
-1.960E-06,-0.560
-1.950E-06,-0.480
-1.940E-06,-0.560
-1.930E-06,-0.480
-1.920E-06,-0.400
-1.910E-06,-0.400
-1.900E-06,-0.400
-1.890E-06,-0.400
-1.880E-06,-0.320
-1.870E-06,-0.320
-1.860E-06,-0.160
-1.850E-06,-0.320
-1.840E-06,-0.400
-1.830E-06,-0.480
-1.820E-06,-0.400
-1.810E-06,-0.560
-1.800E-06,-0.480
-1.790E-06,-0.560
-1.780E-06,-0.560
-1.770E-06,-0.480
-1.760E-06,-0.400
-1.750E-06,-0.400
-1.740E-06,-0.400
-1.730E-06,-0.480
-1.720E-06,-0.320
-1.710E-06,-0.320
-1.700E-06,-0.320
-1.690E-06,-0.320
-1.680E-06,-0.400
-1.670E-06,-0.400
-1.660E-06,-0.400
-1.650E-06,-0.400
-1.640E-06,-0.400
-1.630E-06,-0.400
-1.620E-06,-0.400
-1.610E-06,-0.480
-1.600E-06,-0.400
-1.590E-06,-0.400
-1.580E-06,-0.480
-1.570E-06,-0.160
-1.560E-06,-0.240
-1.550E-06,-0.320
-1.540E-06,-0.080
-1.530E-06,-0.240
-1.520E-06,0.160
-1.510E-06,0.000
-1.500E-06,0.320
-1.490E-06,0.480
-1.480E-06,0.320
-1.470E-06,0.480
-1.460E-06,-0.400
-1.450E-06,-0.640
-1.440E-06,-1.120
-1.430E-06,-1.200
-1.420E-06,-1.120
-1.410E-06,-0.960
-1.400E-06,-1.040
-1.390E-06,-0.800
-1.380E-06,-0.960
-1.370E-06,-0.480
-1.360E-06,-0.400
-1.350E-06,-0.400
-1.340E-06,-0.080
-1.330E-06,-0.320
-1.320E-06,-0.080
-1.310E-06,-0.480
-1.300E-06,-0.640
-1.290E-06,-0.720
-1.280E-06,-0.720
-1.270E-06,-0.800
-1.260E-06,-0.800
-1.250E-06,-0.960
-1.240E-06,-1.040
-1.230E-06,-1.040
-1.220E-06,-0.960
-1.210E-06,-0.880
-1.200E-06,-0.640
-1.190E-06,-0.720
-1.180E-06,-0.480
-1.170E-06,-0.320
-1.160E-06,-0.160
-1.150E-06,-0.080
-1.140E-06,0.000
-1.130E-06,0.080
-1.120E-06,0.320
-1.110E-06,0.240
-1.100E-06,0.240
-1.090E-06,0.320
-1.080E-06,0.400
-1.070E-06,0.480
-1.060E-06,0.560
-1.050E-06,0.640
-1.040E-06,0.640
-1.030E-06,0.640
-1.020E-06,0.640
-1.010E-06,0.480
-1.000E-06,0.480
-9.900E-07,0.320
-9.800E-07,0.000
-9.700E-07,-0.080
-9.600E-07,-0.240
-9.500E-07,-0.400
-9.400E-07,-0.720
-9.300E-07,-0.480
-9.200E-07,-0.400
-9.100E-07,-0.160
-9.000E-07,0.080
-8.900E-07,0.160
-8.800E-07,0.240
-8.700E-07,0.320
-8.600E-07,0.160
-8.500E-07,0.000
-8.400E-07,-0.240
-8.300E-07,-0.640
-8.200E-07,-0.960
-8.100E-07,-1.040
-8.000E-07,-1.120
-7.900E-07,-1.280
-7.800E-07,-1.200
-7.700E-07,-1.360
-7.600E-07,-1.280
-7.500E-07,-1.280
-7.400E-07,-1.040
-7.300E-07,-0.960
-7.200E-07,-0.800
-7.100E-07,-0.800
-7.000E-07,-0.720
-6.900E-07,-0.640
-6.800E-07,-0.560
-6.700E-07,-0.320
-6.600E-07,-0.320
-6.500E-07,-0.240
-6.400E-07,0.080
-6.300E-07,-0.080
-6.200E-07,0.080
-6.100E-07,0.000
-6.000E-07,0.080
-5.900E-07,0.160
-5.800E-07,0.080
-5.700E-07,0.080
-5.600E-07,0.320
-5.500E-07,0.240
-5.400E-07,0.480
-5.300E-07,0.560
-5.200E-07,0.560
-5.100E-07,0.560
-5.000E-07,0.560
-4.900E-07,0.480
-4.800E-07,0.480
-4.700E-07,0.480
-4.600E-07,0.320
-4.500E-07,0.160
-4.400E-07,0.160
-4.300E-07,0.080
-4.200E-07,0.080
-4.100E-07,0.000
-4.000E-07,0.000
-3.900E-07,0.000
-3.800E-07,0.000
-3.700E-07,0.000
-3.600E-07,0.000
-3.500E-07,0.000
-3.400E-07,0.000
-3.300E-07,0.000
-3.200E-07,0.000
-3.100E-07,-0.160
-3.000E-07,-0.160
-2.900E-07,-0.400
-2.800E-07,-0.560
-2.700E-07,-0.720
-2.600E-07,-0.800
-2.500E-07,-0.800
-2.400E-07,-0.880
-2.300E-07,-0.880
-2.200E-07,-0.800
-2.100E-07,-0.800
-2.000E-07,-0.800
-1.900E-07,-0.720
-1.800E-07,-0.720
-1.700E-07,-0.640
-1.600E-07,-0.560
-1.500E-07,-0.560
-1.400E-07,-0.400
-1.300E-07,-0.480
-1.200E-07,-0.240
-1.100E-07,-0.400
-1.000E-07,-0.400
-9.000E-08,-0.400
-8.000E-08,-0.560
-7.000E-08,-0.240
-6.000E-08,0.160
-5.000E-08,1.200
-4.000E-08,1.840
-3.000E-08,2.880
-2.000E-08,2.400
-1.000E-08,2.240
0.000E+00,1.200
1.000E-08,0.480
2.000E-08,0.080
3.000E-08,-0.080
4.000E-08,-1.120
5.000E-08,-1.200
6.000E-08,-1.760
7.000E-08,-1.600
8.000E-08,-1.040
9.000E-08,-0.800
1.000E-07,-0.720
1.100E-07,-0.640
1.200E-07,-0.720
1.300E-07,-0.320
1.400E-07,0.000
1.500E-07,0.000
1.600E-07,0.160
1.700E-07,0.080
1.800E-07,0.080
1.900E-07,0.000
2.000E-07,0.240
2.100E-07,0.240
2.200E-07,0.400
2.300E-07,0.800
2.400E-07,1.200
2.500E-07,1.520
2.600E-07,1.920
2.700E-07,1.840
2.800E-07,2.400
2.900E-07,1.920
3.000E-07,1.840
3.100E-07,1.120
3.200E-07,0.480
3.300E-07,-0.320
3.400E-07,-0.720
3.500E-07,-1.280
3.600E-07,-1.440
3.700E-07,-1.680
3.800E-07,-1.680
3.900E-07,-1.920
4.000E-07,-1.760
4.100E-07,-1.520
4.200E-07,-1.200
4.300E-07,-1.040
4.400E-07,-0.960
4.500E-07,-0.640
4.600E-07,-0.480
4.700E-07,-0.480
4.800E-07,-0.240
4.900E-07,-0.160
5.000E-07,-0.160
5.100E-07,-0.080
5.200E-07,0.000
5.300E-07,0.080
5.400E-07,0.160
5.500E-07,0.320
5.600E-07,0.240
5.700E-07,0.480
5.800E-07,0.560
5.900E-07,0.720
6.000E-07,0.720
6.100E-07,0.640
6.200E-07,0.640
6.300E-07,0.720
6.400E-07,0.720
6.500E-07,0.480
6.600E-07,0.480
6.700E-07,0.400
6.800E-07,0.160
6.900E-07,0.080
7.000E-07,0.000
7.100E-07,0.000
7.200E-07,0.080
7.300E-07,0.080
7.400E-07,0.320
7.500E-07,0.400
7.600E-07,0.720
7.700E-07,0.800
7.800E-07,0.960
7.900E-07,1.040
8.000E-07,1.040
8.100E-07,0.880
8.200E-07,0.800
8.300E-07,0.640
8.400E-07,0.560
8.500E-07,0.320
8.600E-07,0.160
8.700E-07,0.080
8.800E-07,0.080
8.900E-07,0.000
9.000E-07,0.000
9.100E-07,-0.080
9.200E-07,-0.080
9.300E-07,-0.160
9.400E-07,-0.320
9.500E-07,-0.400
9.600E-07,-0.400
9.700E-07,-0.400
9.800E-07,-0.480
9.900E-07,-0.480
1.000E-06,-0.560
1.010E-06,-0.560
1.020E-06,-0.560
1.030E-06,-0.320
1.040E-06,-0.320
1.050E-06,-0.320
1.060E-06,-0.160
1.070E-06,-0.240
1.080E-06,-0.240
1.090E-06,-0.240
1.100E-06,-0.080
1.110E-06,0.000
1.120E-06,0.000
1.130E-06,0.000
1.140E-06,0.080
1.150E-06,0.160
1.160E-06,0.400
1.170E-06,0.240
1.180E-06,1.040
1.190E-06,1.440
1.200E-06,2.080
1.210E-06,2.320
1.220E-06,2.080
1.230E-06,1.760
1.240E-06,1.120
1.250E-06,0.800
1.260E-06,0.160
1.270E-06,0.000
1.280E-06,-0.560
1.290E-06,-0.560
1.300E-06,-0.880
1.310E-06,-0.720
1.320E-06,-0.880
1.330E-06,-0.720
1.340E-06,-0.640
1.350E-06,-0.720
1.360E-06,-0.480
1.370E-06,-0.400
1.380E-06,-0.320
1.390E-06,-0.160
1.400E-06,-0.080
1.410E-06,-0.080
1.420E-06,0.080
1.430E-06,0.080
1.440E-06,0.480
1.450E-06,1.040
1.460E-06,1.360
1.470E-06,1.360
1.480E-06,0.880
1.490E-06,-0.080
1.500E-06,-0.640
1.510E-06,-1.040
1.520E-06,-1.360
1.530E-06,-1.680
1.540E-06,-1.920
1.550E-06,-2.240
1.560E-06,-2.000
1.570E-06,-1.520
1.580E-06,-1.040
1.590E-06,-0.640
1.600E-06,-0.240
1.610E-06,0.080
1.620E-06,0.560
1.630E-06,0.800
1.640E-06,1.040
1.650E-06,0.800
1.660E-06,1.040
1.670E-06,0.800
1.680E-06,0.960
1.690E-06,0.720
1.700E-06,0.720
1.710E-06,0.400
1.720E-06,0.400
1.730E-06,0.320
1.740E-06,0.480
1.750E-06,0.480
1.760E-06,0.480
1.770E-06,0.480
1.780E-06,0.480
1.790E-06,0.400
1.800E-06,0.240
1.810E-06,0.160
1.820E-06,0.000
1.830E-06,-0.160
1.840E-06,-0.400
1.850E-06,-0.560
1.860E-06,-0.800
1.870E-06,-1.040
1.880E-06,-1.040
1.890E-06,-1.120
1.900E-06,-1.040
1.910E-06,-0.800
1.920E-06,-0.640
1.930E-06,-0.320
1.940E-06,-0.080
1.950E-06,0.240
1.960E-06,0.400
1.970E-06,0.640
1.980E-06,0.800
1.990E-06,1.040
2.000E-06,1.120
2.010E-06,1.280
2.020E-06,1.200
2.030E-06,1.360
2.040E-06,1.360
2.050E-06,1.200
2.060E-06,1.040
2.070E-06,1.040
2.080E-06,0.800
2.090E-06,0.560
2.100E-06,0.240
2.110E-06,0.080
2.120E-06,-0.160
2.130E-06,-0.160
2.140E-06,-0.320
2.150E-06,-0.400
2.160E-06,-0.400
2.170E-06,-0.240
2.180E-06,-0.160
2.190E-06,0.080
2.200E-06,0.320
2.210E-06,0.480
2.220E-06,0.480
2.230E-06,0.480
2.240E-06,0.400
2.250E-06,0.080
2.260E-06,0.080
2.270E-06,0.000
2.280E-06,0.000
2.290E-06,-0.160
2.300E-06,-0.400
2.310E-06,-0.480
2.320E-06,-0.400
2.330E-06,-0.320
2.340E-06,-0.240
2.350E-06,-0.080
2.360E-06,0.000
2.370E-06,0.240
2.380E-06,0.400
2.390E-06,0.640
2.400E-06,0.800
2.410E-06,0.880
2.420E-06,1.040
2.430E-06,1.120
2.440E-06,1.120
2.450E-06,0.960
2.460E-06,0.720
2.470E-06,0.160
2.480E-06,0.000
2.490E-06,-0.320
2.500E-06,-0.400
2.510E-06,-0.480
2.520E-06,-0.640
2.530E-06,-0.640
2.540E-06,-0.800
2.550E-06,-0.640
2.560E-06,-0.640
2.570E-06,-0.640
2.580E-06,-0.640
2.590E-06,-0.560
2.600E-06,-0.480
2.610E-06,-0.320
2.620E-06,-0.080
2.630E-06,0.000
2.640E-06,0.160
2.650E-06,0.480
2.660E-06,0.640
2.670E-06,0.880
2.680E-06,0.880
2.690E-06,0.880
2.700E-06,0.800
2.710E-06,0.560
2.720E-06,0.480
2.730E-06,0.160
2.740E-06,0.080
2.750E-06,0.000
2.760E-06,-0.160
2.770E-06,-0.320
2.780E-06,-0.480
2.790E-06,-0.640
2.800E-06,-0.640
2.810E-06,-0.720
2.820E-06,-0.720
2.830E-06,-0.560
2.840E-06,-0.560
2.850E-06,-0.320
2.860E-06,-0.320
2.870E-06,0.000
2.880E-06,0.080
2.890E-06,0.240
2.900E-06,0.320
2.910E-06,0.400
2.920E-06,0.560
2.930E-06,0.480
2.940E-06,0.400
2.950E-06,0.400
2.960E-06,0.400
2.970E-06,0.240
2.980E-06,0.160
2.990E-06,0.080
3.000E-06,0.000
3.010E-06,0.000
3.020E-06,0.000
3.030E-06,-0.160
3.040E-06,-0.240
3.050E-06,-0.320
3.060E-06,-0.320
3.070E-06,-0.320
3.080E-06,-0.160
3.090E-06,-0.320
3.100E-06,-0.160
3.110E-06,-0.080
3.120E-06,0.000
3.130E-06,0.240
3.140E-06,0.240
3.150E-06,0.400
3.160E-06,0.560
3.170E-06,0.560
3.180E-06,0.400
3.190E-06,0.320
3.200E-06,0.000
3.210E-06,-0.080
3.220E-06,-0.400
3.230E-06,-0.560
3.240E-06,-0.640
3.250E-06,-0.720
3.260E-06,-0.880
3.270E-06,-0.720
3.280E-06,-0.640
