mediciones/Mediciones filtradas (saque las feas)/6-10/46/WaveData55271.csv

#timebase=2000000(ps)
,#voltbase=100000(mv/100)
#size=4000
-4.200E-06,-0.024
-4.190E-06,-0.036
-4.180E-06,-0.052
-4.170E-06,-0.012
-4.160E-06,0.012
-4.150E-06,0.040
-4.140E-06,0.060
-4.130E-06,0.020
-4.120E-06,-0.004
-4.110E-06,-0.040
-4.100E-06,-0.024
-4.090E-06,-0.024
-4.080E-06,0.004
-4.070E-06,0.036
-4.060E-06,0.028
-4.050E-06,0.028
-4.040E-06,0.020
-4.030E-06,0.008
-4.020E-06,-0.004
-4.010E-06,-0.012
-4.000E-06,-0.008
-3.990E-06,0.004
-3.980E-06,0.024
-3.970E-06,0.024
-3.960E-06,0.004
-3.950E-06,0.000
-3.940E-06,-0.008
-3.930E-06,-0.012
-3.920E-06,-0.012
-3.910E-06,0.000
-3.900E-06,0.016
-3.890E-06,0.012
-3.880E-06,0.012
-3.870E-06,0.000
-3.860E-06,-0.004
-3.850E-06,-0.012
-3.840E-06,0.000
-3.830E-06,-0.008
-3.820E-06,0.004
-3.810E-06,0.004
-3.800E-06,0.008
-3.790E-06,0.004
-3.780E-06,-0.004
-3.770E-06,-0.004
-3.760E-06,-0.004
-3.750E-06,0.004
-3.740E-06,0.012
-3.730E-06,0.008
-3.720E-06,0.016
-3.710E-06,0.008
-3.700E-06,0.000
-3.690E-06,0.008
-3.680E-06,0.000
-3.670E-06,0.008
-3.660E-06,0.012
-3.650E-06,0.012
-3.640E-06,0.012
-3.630E-06,0.008
-3.620E-06,-0.004
-3.610E-06,-0.004
-3.600E-06,-0.004
-3.590E-06,0.008
-3.580E-06,0.016
-3.570E-06,0.016
-3.560E-06,0.012
-3.550E-06,-0.004
-3.540E-06,-0.004
-3.530E-06,0.000
-3.520E-06,0.020
-3.510E-06,0.008
-3.500E-06,0.012
-3.490E-06,-0.004
-3.480E-06,0.000
-3.470E-06,0.000
-3.460E-06,0.012
-3.450E-06,0.012
-3.440E-06,0.024
-3.430E-06,0.024
-3.420E-06,0.012
-3.410E-06,0.000
-3.400E-06,-0.008
-3.390E-06,-0.008
-3.380E-06,-0.004
-3.370E-06,0.012
-3.360E-06,0.040
-3.350E-06,0.024
-3.340E-06,0.000
-3.330E-06,-0.028
-3.320E-06,-0.044
-3.310E-06,-0.020
-3.300E-06,0.000
-3.290E-06,0.032
-3.280E-06,0.036
-3.270E-06,0.028
-3.260E-06,0.000
-3.250E-06,-0.020
-3.240E-06,-0.032
-3.230E-06,-0.012
-3.220E-06,0.008
-3.210E-06,0.016
-3.200E-06,0.028
-3.190E-06,0.028
-3.180E-06,0.004
-3.170E-06,-0.012
-3.160E-06,-0.024
-3.150E-06,-0.012
-3.140E-06,0.004
-3.130E-06,0.012
-3.120E-06,0.008
-3.110E-06,0.008
-3.100E-06,0.008
-3.090E-06,0.004
-3.080E-06,0.000
-3.070E-06,0.000
-3.060E-06,-0.004
-3.050E-06,0.012
-3.040E-06,0.012
-3.030E-06,0.016
-3.020E-06,0.016
-3.010E-06,-0.004
-3.000E-06,-0.004
-2.990E-06,-0.024
-2.980E-06,-0.012
-2.970E-06,-0.024
-2.960E-06,0.004
-2.950E-06,0.024
-2.940E-06,0.040
-2.930E-06,0.044
-2.920E-06,0.044
-2.910E-06,0.032
-2.900E-06,0.004
-2.890E-06,-0.004
-2.880E-06,-0.008
-2.870E-06,-0.004
-2.860E-06,0.000
-2.850E-06,-0.004
-2.840E-06,-0.008
-2.830E-06,-0.004
-2.820E-06,0.024
-2.810E-06,0.024
-2.800E-06,0.012
-2.790E-06,-0.004
-2.780E-06,-0.008
-2.770E-06,-0.020
-2.760E-06,-0.004
-2.750E-06,0.024
-2.740E-06,0.028
-2.730E-06,0.044
-2.720E-06,0.020
-2.710E-06,-0.008
-2.700E-06,-0.036
-2.690E-06,-0.044
-2.680E-06,-0.028
-2.670E-06,0.012
-2.660E-06,0.048
-2.650E-06,0.056
-2.640E-06,0.048
-2.630E-06,0.012
-2.620E-06,-0.008
-2.610E-06,-0.024
-2.600E-06,-0.008
-2.590E-06,0.020
-2.580E-06,0.028
-2.570E-06,0.036
-2.560E-06,0.028
-2.550E-06,0.004
-2.540E-06,-0.008
-2.530E-06,-0.016
-2.520E-06,0.000
-2.510E-06,0.012
-2.500E-06,0.036
-2.490E-06,0.036
-2.480E-06,0.000
-2.470E-06,-0.084
-2.460E-06,-0.044
-2.450E-06,-0.016
-2.440E-06,-0.024
-2.430E-06,0.036
-2.420E-06,0.000
-2.410E-06,-0.016
-2.400E-06,-0.008
-2.390E-06,-0.028
-2.380E-06,-0.020
-2.370E-06,-0.012
-2.360E-06,-0.004
-2.350E-06,0.024
-2.340E-06,0.040
-2.330E-06,0.040
-2.320E-06,0.024
-2.310E-06,0.008
-2.300E-06,0.028
-2.290E-06,0.024
-2.280E-06,-0.004
-2.270E-06,-0.028
-2.260E-06,-0.064
-2.250E-06,-0.020
-2.240E-06,0.032
-2.230E-06,0.028
-2.220E-06,0.028
-2.210E-06,-0.040
-2.200E-06,-0.028
-2.190E-06,-0.036
-2.180E-06,-0.004
-2.170E-06,0.036
-2.160E-06,0.064
-2.150E-06,0.060
-2.140E-06,0.016
-2.130E-06,-0.036
-2.120E-06,-0.072
-2.110E-06,-0.052
-2.100E-06,-0.012
-2.090E-06,0.036
-2.080E-06,0.056
-2.070E-06,0.040
-2.060E-06,0.000
-2.050E-06,-0.032
-2.040E-06,-0.044
-2.030E-06,-0.032
-2.020E-06,-0.004
-2.010E-06,0.024
-2.000E-06,0.040
-1.990E-06,0.028
-1.980E-06,0.020
-1.970E-06,-0.004
-1.960E-06,-0.020
-1.950E-06,-0.028
-1.940E-06,-0.008
-1.930E-06,0.016
-1.920E-06,0.020
-1.910E-06,0.032
-1.900E-06,0.024
-1.890E-06,0.008
-1.880E-06,-0.008
-1.870E-06,-0.012
-1.860E-06,-0.024
-1.850E-06,-0.004
-1.840E-06,0.008
-1.830E-06,0.024
-1.820E-06,0.020
-1.810E-06,0.012
-1.800E-06,0.000
-1.790E-06,-0.008
-1.780E-06,-0.004
-1.770E-06,-0.004
-1.760E-06,0.008
-1.750E-06,0.012
-1.740E-06,0.016
-1.730E-06,0.008
-1.720E-06,0.000
-1.710E-06,-0.004
-1.700E-06,-0.012
-1.690E-06,0.000
-1.680E-06,0.012
-1.670E-06,0.016
-1.660E-06,0.020
-1.650E-06,0.012
-1.640E-06,0.008
-1.630E-06,0.000
-1.620E-06,0.000
-1.610E-06,-0.008
-1.600E-06,-0.004
-1.590E-06,0.008
-1.580E-06,0.016
-1.570E-06,0.024
-1.560E-06,0.016
-1.550E-06,0.004
-1.540E-06,-0.004
-1.530E-06,0.000
-1.520E-06,0.000
-1.510E-06,0.012
-1.500E-06,0.016
-1.490E-06,0.028
-1.480E-06,0.028
-1.470E-06,0.008
-1.460E-06,-0.004
-1.450E-06,0.000
-1.440E-06,-0.004
-1.430E-06,0.012
-1.420E-06,0.012
-1.410E-06,0.024
-1.400E-06,0.012
-1.390E-06,0.012
-1.380E-06,-0.008
-1.370E-06,-0.004
-1.360E-06,0.000
-1.350E-06,0.032
-1.340E-06,-0.004
-1.330E-06,0.012
-1.320E-06,-0.028
-1.310E-06,-0.032
-1.300E-06,0.008
-1.290E-06,-0.004
-1.280E-06,0.008
-1.270E-06,0.012
-1.260E-06,0.008
-1.250E-06,-0.008
-1.240E-06,-0.028
-1.230E-06,-0.020
-1.220E-06,-0.016
-1.210E-06,0.004
-1.200E-06,0.008
-1.190E-06,0.020
-1.180E-06,0.008
-1.170E-06,-0.004
-1.160E-06,-0.004
-1.150E-06,-0.012
-1.140E-06,0.000
-1.130E-06,0.000
-1.120E-06,0.008
-1.110E-06,0.012
-1.100E-06,0.008
-1.090E-06,0.004
-1.080E-06,0.000
-1.070E-06,0.000
-1.060E-06,0.000
-1.050E-06,0.008
-1.040E-06,0.008
-1.030E-06,0.012
-1.020E-06,0.004
-1.010E-06,0.008
-1.000E-06,0.012
-9.900E-07,0.024
-9.800E-07,0.016
-9.700E-07,0.020
-9.600E-07,0.016
-9.500E-07,0.016
-9.400E-07,0.016
-9.300E-07,0.008
-9.200E-07,0.008
-9.100E-07,0.008
-9.000E-07,0.008
-8.900E-07,0.008
-8.800E-07,0.012
-8.700E-07,0.012
-8.600E-07,0.020
-8.500E-07,0.028
-8.400E-07,0.024
-8.300E-07,0.016
-8.200E-07,0.016
-8.100E-07,0.020
-8.000E-07,0.016
-7.900E-07,0.024
-7.800E-07,0.028
-7.700E-07,0.024
-7.600E-07,0.020
-7.500E-07,0.008
-7.400E-07,0.008
-7.300E-07,0.032
-7.200E-07,0.016
-7.100E-07,0.040
-7.000E-07,0.024
-6.900E-07,0.036
-6.800E-07,0.024
-6.700E-07,0.008
-6.600E-07,0.028
-6.500E-07,0.028
-6.400E-07,0.044
-6.300E-07,0.028
-6.200E-07,0.040
-6.100E-07,0.012
-6.000E-07,0.000
-5.900E-07,0.048
-5.800E-07,-0.048
-5.700E-07,-0.044
-5.600E-07,-0.104
-5.500E-07,-0.108
-5.400E-07,-0.048
-5.300E-07,-0.012
-5.200E-07,0.036
-5.100E-07,0.032
-5.000E-07,0.040
-4.900E-07,0.000
-4.800E-07,-0.040
-4.700E-07,-0.060
-4.600E-07,-0.028
-4.500E-07,0.012
-4.400E-07,0.020
-4.300E-07,0.036
-4.200E-07,0.028
-4.100E-07,-0.008
-4.000E-07,-0.016
-3.900E-07,-0.020
-3.800E-07,-0.004
-3.700E-07,0.016
-3.600E-07,0.024
-3.500E-07,0.036
-3.400E-07,0.036
-3.300E-07,0.028
-3.200E-07,0.036
-3.100E-07,0.044
-3.000E-07,0.064
-2.900E-07,0.068
-2.800E-07,0.092
-2.700E-07,0.072
-2.600E-07,0.072
-2.500E-07,0.040
-2.400E-07,0.012
-2.300E-07,-0.020
-2.200E-07,-0.048
-2.100E-07,-0.048
-2.000E-07,-0.052
-1.900E-07,-0.044
-1.800E-07,-0.216
-1.700E-07,-0.128
-1.600E-07,-0.048
-1.500E-07,0.064
-1.400E-07,0.076
-1.300E-07,0.172
-1.200E-07,0.048
-1.100E-07,0.084
-1.000E-07,0.024
-9.000E-08,0.124
-8.000E-08,0.136
-7.000E-08,0.048
-6.000E-08,-0.200
-5.000E-08,-0.368
-4.000E-08,-0.264
-3.000E-08,-0.048
-2.000E-08,0.304
-1.000E-08,0.352
0.000E+00,0.296
1.000E-08,0.140
2.000E-08,-0.180
3.000E-08,-0.224
4.000E-08,-0.360
5.000E-08,-0.036
6.000E-08,0.160
7.000E-08,0.320
8.000E-08,0.056
9.000E-08,0.028
1.000E-07,-0.164
1.100E-07,-0.116
1.200E-07,-0.196
1.300E-07,-0.004
1.400E-07,0.092
1.500E-07,0.048
1.600E-07,0.124
1.700E-07,0.092
1.800E-07,0.120
1.900E-07,-0.020
2.000E-07,-0.040
2.100E-07,-0.052
2.200E-07,0.040
2.300E-07,0.124
2.400E-07,0.148
2.500E-07,0.132
2.600E-07,0.036
2.700E-07,-0.020
2.800E-07,-0.092
2.900E-07,-0.104
3.000E-07,-0.004
3.100E-07,-0.068
3.200E-07,-0.300
3.300E-07,-0.452
3.400E-07,-0.316
3.500E-07,0.276
3.600E-07,0.312
3.700E-07,0.096
3.800E-07,0.184
3.900E-07,0.120
4.000E-07,-0.060
4.100E-07,-0.320
4.200E-07,-0.072
4.300E-07,0.044
4.400E-07,0.264
4.500E-07,0.120
4.600E-07,-0.064
4.700E-07,-0.264
4.800E-07,-0.056
4.900E-07,0.092
5.000E-07,0.012
5.100E-07,0.028
5.200E-07,0.088
5.300E-07,0.072
5.400E-07,-0.040
5.500E-07,0.020
5.600E-07,0.024
5.700E-07,0.144
5.800E-07,0.124
5.900E-07,0.104
6.000E-07,-0.012
6.100E-07,0.020
6.200E-07,-0.104
6.300E-07,-0.084
6.400E-07,0.024
6.500E-07,0.028
6.600E-07,0.120
6.700E-07,0.060
6.800E-07,0.020
6.900E-07,-0.016
7.000E-07,-0.040
7.100E-07,-0.008
7.200E-07,-0.028
7.300E-07,-0.124
7.400E-07,-0.172
7.500E-07,-0.144
7.600E-07,-0.116
7.700E-07,0.024
7.800E-07,0.084
7.900E-07,0.144
8.000E-07,0.060
8.100E-07,-0.032
8.200E-07,-0.112
8.300E-07,-0.112
8.400E-07,0.088
8.500E-07,0.160
8.600E-07,0.168
8.700E-07,0.044
8.800E-07,0.088
8.900E-07,-0.204
9.000E-07,-0.228
9.100E-07,-0.168
9.200E-07,0.088
9.300E-07,0.156
9.400E-07,0.164
9.500E-07,0.192
9.600E-07,0.104
9.700E-07,-0.036
9.800E-07,-0.172
9.900E-07,-0.172
1.000E-06,-0.032
1.010E-06,0.200
1.020E-06,0.264
1.030E-06,0.228
1.040E-06,0.056
1.050E-06,-0.152
1.060E-06,-0.232
1.070E-06,-0.144
1.080E-06,-0.004
1.090E-06,0.100
1.100E-06,0.204
1.110E-06,0.176
1.120E-06,0.084
1.130E-06,-0.100
1.140E-06,-0.288
1.150E-06,-0.244
1.160E-06,-0.060
1.170E-06,0.152
1.180E-06,0.192
1.190E-06,0.176
1.200E-06,0.056
1.210E-06,-0.056
1.220E-06,-0.204
1.230E-06,-0.204
1.240E-06,-0.116
1.250E-06,0.028
1.260E-06,0.140
1.270E-06,0.164
1.280E-06,0.092
1.290E-06,-0.008
1.300E-06,-0.100
1.310E-06,-0.140
1.320E-06,-0.088
1.330E-06,0.004
1.340E-06,0.120
1.350E-06,0.164
1.360E-06,0.124
1.370E-06,0.024
1.380E-06,-0.064
1.390E-06,-0.100
1.400E-06,-0.064
1.410E-06,0.024
1.420E-06,0.108
1.430E-06,0.176
1.440E-06,0.164
1.450E-06,0.092
1.460E-06,0.000
1.470E-06,-0.072
1.480E-06,-0.068
1.490E-06,-0.020
1.500E-06,0.088
1.510E-06,0.148
1.520E-06,0.180
1.530E-06,0.128
1.540E-06,0.052
1.550E-06,-0.060
1.560E-06,-0.104
1.570E-06,-0.108
1.580E-06,-0.052
1.590E-06,-0.028
1.600E-06,-0.040
1.610E-06,-0.136
1.620E-06,-0.152
1.630E-06,-0.136
1.640E-06,-0.108
1.650E-06,-0.012
1.660E-06,0.088
1.670E-06,0.156
1.680E-06,0.044
1.690E-06,0.028
1.700E-06,-0.064
1.710E-06,-0.108
1.720E-06,-0.072
1.730E-06,0.056
1.740E-06,0.136
1.750E-06,0.152
1.760E-06,0.132
1.770E-06,0.048
1.780E-06,-0.008
1.790E-06,-0.060
1.800E-06,-0.060
1.810E-06,-0.036
1.820E-06,0.012
1.830E-06,0.096
1.840E-06,0.040
1.850E-06,-0.060
1.860E-06,-0.080
1.870E-06,-0.036
1.880E-06,-0.056
1.890E-06,-0.044
1.900E-06,-0.012
1.910E-06,0.088
1.920E-06,0.124
1.930E-06,0.048
1.940E-06,0.000
1.950E-06,-0.004
1.960E-06,-0.072
1.970E-06,-0.104
1.980E-06,-0.088
1.990E-06,-0.008
2.000E-06,0.076
2.010E-06,0.120
2.020E-06,0.092
2.030E-06,0.072
2.040E-06,0.012
2.050E-06,-0.004
2.060E-06,0.024
2.070E-06,0.060
2.080E-06,0.112
2.090E-06,0.128
2.100E-06,0.112
2.110E-06,0.060
2.120E-06,0.012
2.130E-06,0.000
2.140E-06,0.016
2.150E-06,0.072
2.160E-06,0.124
2.170E-06,0.156
2.180E-06,0.164
2.190E-06,0.112
2.200E-06,0.060
2.210E-06,-0.024
2.220E-06,-0.124
2.230E-06,-0.108
2.240E-06,-0.228
2.250E-06,-0.060
2.260E-06,0.236
2.270E-06,0.320
2.280E-06,0.092
2.290E-06,-0.036
2.300E-06,-0.300
2.310E-06,-0.328
2.320E-06,-0.104
2.330E-06,0.088
2.340E-06,0.400
2.350E-06,0.084
2.360E-06,-0.216
2.370E-06,-0.508
2.380E-06,-0.512
2.390E-06,-0.284
2.400E-06,0.160
2.410E-06,0.348
2.420E-06,0.540
2.430E-06,0.432
2.440E-06,-0.200
2.450E-06,-0.456
2.460E-06,-0.512
2.470E-06,-0.392
2.480E-06,-0.048
2.490E-06,0.336
2.500E-06,0.472
2.510E-06,0.356
2.520E-06,0.168
2.530E-06,-0.136
2.540E-06,-0.396
2.550E-06,-0.384
2.560E-06,-0.176
2.570E-06,0.072
2.580E-06,0.288
2.590E-06,0.312
2.600E-06,0.212
2.610E-06,0.000
2.620E-06,-0.176
2.630E-06,-0.280
2.640E-06,-0.176
2.650E-06,0.008
2.660E-06,0.164
2.670E-06,0.240
2.680E-06,0.216
2.690E-06,0.100
2.700E-06,-0.032
2.710E-06,-0.100
2.720E-06,-0.072
2.730E-06,0.064
2.740E-06,0.188
2.750E-06,0.316
2.760E-06,0.320
2.770E-06,0.280
2.780E-06,0.180
2.790E-06,0.076
2.800E-06,0.040
2.810E-06,0.072
2.820E-06,0.184
2.830E-06,0.264
2.840E-06,0.308
2.850E-06,0.284
2.860E-06,0.224
2.870E-06,0.140
2.880E-06,0.072
2.890E-06,0.052
2.900E-06,0.088
2.910E-06,0.152
2.920E-06,0.188
2.930E-06,0.164
2.940E-06,0.140
2.950E-06,0.044
2.960E-06,-0.024
2.970E-06,-0.024
2.980E-06,0.000
2.990E-06,0.076
3.000E-06,0.172
3.010E-06,0.216
3.020E-06,0.192
3.030E-06,0.152
3.040E-06,0.124
3.050E-06,0.076
3.060E-06,0.100
3.070E-06,0.128
3.080E-06,0.108
3.090E-06,0.028
3.100E-06,-0.056
3.110E-06,-0.112
3.120E-06,0.028
3.130E-06,0.128
3.140E-06,0.192
3.150E-06,0.216
3.160E-06,0.112
3.170E-06,-0.132
3.180E-06,-0.324
3.190E-06,-0.408
3.200E-06,-0.296
3.210E-06,-0.032
3.220E-06,0.176
3.230E-06,0.392
3.240E-06,0.508
3.250E-06,0.328
3.260E-06,0.100
3.270E-06,-0.052
3.280E-06,-0.136
3.290E-06,-0.136
3.300E-06,-0.104
3.310E-06,-0.028
3.320E-06,-0.100
3.330E-06,-0.076
3.340E-06,-0.068
3.350E-06,0.012
3.360E-06,-0.224
3.370E-06,-0.268
3.380E-06,-0.248
3.390E-06,-0.380
3.400E-06,-0.508
3.410E-06,-0.348
3.420E-06,0.068
3.430E-06,0.228
3.440E-06,0.156
3.450E-06,0.108
3.460E-06,-0.160
3.470E-06,-0.124
3.480E-06,0.000
3.490E-06,0.132
3.500E-06,0.220
3.510E-06,0.228
3.520E-06,0.124
3.530E-06,-0.008
3.540E-06,-0.088
3.550E-06,-0.156
3.560E-06,0.024
3.570E-06,0.248
3.580E-06,0.352
3.590E-06,0.368
3.600E-06,0.240
3.610E-06,0.144
3.620E-06,0.052
3.630E-06,0.068
3.640E-06,0.124
3.650E-06,0.232
3.660E-06,0.316
3.670E-06,0.336
3.680E-06,0.304
3.690E-06,0.212
3.700E-06,0.132
3.710E-06,0.096
3.720E-06,0.124
3.730E-06,0.184
3.740E-06,0.268
3.750E-06,0.296
3.760E-06,0.280
3.770E-06,0.212
3.780E-06,0.156
3.790E-06,0.108
3.800E-06,0.128
3.810E-06,0.172
3.820E-06,0.232
3.830E-06,0.272
3.840E-06,0.268
3.850E-06,0.228
3.860E-06,0.180
3.870E-06,0.140
3.880E-06,0.140
3.890E-06,0.176
3.900E-06,0.220
3.910E-06,0.240
3.920E-06,0.248
3.930E-06,0.228
3.940E-06,0.196
3.950E-06,0.164
3.960E-06,0.160
3.970E-06,0.160
3.980E-06,0.180
3.990E-06,0.204
4.000E-06,0.212
4.010E-06,0.204
4.020E-06,0.180
4.030E-06,0.164
4.040E-06,0.160
4.050E-06,0.180
4.060E-06,0.204
4.070E-06,0.216
4.080E-06,0.224
4.090E-06,0.220
4.100E-06,0.200
4.110E-06,0.176
4.120E-06,0.176
4.130E-06,0.188
4.140E-06,0.204
4.150E-06,0.220
4.160E-06,0.216
4.170E-06,0.212
4.180E-06,0.192
4.190E-06,0.180
4.200E-06,0.172
4.210E-06,0.164
4.220E-06,0.172
4.230E-06,0.184
4.240E-06,0.180
4.250E-06,0.180
4.260E-06,0.176
4.270E-06,0.176
4.280E-06,0.164
4.290E-06,0.160
4.300E-06,0.156
4.310E-06,0.160
4.320E-06,0.168
4.330E-06,0.176
4.340E-06,0.188
4.350E-06,0.200
4.360E-06,0.196
4.370E-06,0.200
4.380E-06,0.196
4.390E-06,0.188
4.400E-06,0.188
4.410E-06,0.196
4.420E-06,0.196
4.430E-06,0.196
4.440E-06,0.204
4.450E-06,0.200
4.460E-06,0.192
4.470E-06,0.192
4.480E-06,0.188
4.490E-06,0.188
4.500E-06,0.196
4.510E-06,0.192
4.520E-06,0.196
4.530E-06,0.196
4.540E-06,0.188
4.550E-06,0.192
4.560E-06,0.188
4.570E-06,0.184
4.580E-06,0.184
4.590E-06,0.192
4.600E-06,0.188
4.610E-06,0.188
4.620E-06,0.188
4.630E-06,0.192
4.640E-06,0.192
4.650E-06,0.188
4.660E-06,0.188
4.670E-06,0.180
4.680E-06,0.188
4.690E-06,0.188
4.700E-06,0.188
4.710E-06,0.188
4.720E-06,0.192
4.730E-06,0.196
4.740E-06,0.184
4.750E-06,0.184
4.760E-06,0.188
4.770E-06,0.192
4.780E-06,0.188
4.790E-06,0.188
4.800E-06,0.188
4.810E-06,0.180
4.820E-06,0.180
4.830E-06,0.184
4.840E-06,0.188
4.850E-06,0.184
4.860E-06,0.192
4.870E-06,0.188
4.880E-06,0.180
4.890E-06,0.180
4.900E-06,0.176
4.910E-06,0.176
4.920E-06,0.180
4.930E-06,0.188
4.940E-06,0.192
4.950E-06,0.184
4.960E-06,0.176
4.970E-06,0.176
4.980E-06,0.176
4.990E-06,0.180
5.000E-06,0.176
5.010E-06,0.180
5.020E-06,0.180
5.030E-06,0.180
5.040E-06,0.176
5.050E-06,0.172
5.060E-06,0.176
5.070E-06,0.172
5.080E-06,0.172
5.090E-06,0.180
5.100E-06,0.180
5.110E-06,0.176
5.120E-06,0.172
5.130E-06,0.172
5.140E-06,0.168
5.150E-06,0.168
5.160E-06,0.160
5.170E-06,0.164
5.180E-06,0.168
5.190E-06,0.164
5.200E-06,0.172
5.210E-06,0.164
5.220E-06,0.168
5.230E-06,0.168
5.240E-06,0.168
5.250E-06,0.160
5.260E-06,0.164
5.270E-06,0.168
5.280E-06,0.164
5.290E-06,0.164
5.300E-06,0.168
5.310E-06,0.164
5.320E-06,0.160
5.330E-06,0.160
5.340E-06,0.160
5.350E-06,0.164
5.360E-06,0.168
5.370E-06,0.164
5.380E-06,0.156
5.390E-06,0.160
5.400E-06,0.160
5.410E-06,0.164
5.420E-06,0.156
5.430E-06,0.160
5.440E-06,0.160
5.450E-06,0.160
5.460E-06,0.156
5.470E-06,0.160
5.480E-06,0.160
5.490E-06,0.156
5.500E-06,0.160
5.510E-06,0.168
5.520E-06,0.160
5.530E-06,0.160
5.540E-06,0.152
5.550E-06,0.152
5.560E-06,0.156
5.570E-06,0.160
5.580E-06,0.160
5.590E-06,0.160
5.600E-06,0.152
5.610E-06,0.156
5.620E-06,0.156
5.630E-06,0.160
5.640E-06,0.152
5.650E-06,0.152
5.660E-06,0.148
5.670E-06,0.152
5.680E-06,0.156
5.690E-06,0.144
5.700E-06,0.144
5.710E-06,0.148
5.720E-06,0.156
5.730E-06,0.144
5.740E-06,0.148
5.750E-06,0.148
5.760E-06,0.152
5.770E-06,0.144
5.780E-06,0.144
5.790E-06,0.144
5.800E-06,0.140
5.810E-06,0.140
5.820E-06,0.148
5.830E-06,0.148
5.840E-06,0.148
5.850E-06,0.140
5.860E-06,0.140
5.870E-06,0.140
5.880E-06,0.140
5.890E-06,0.144
5.900E-06,0.140
5.910E-06,0.144
5.920E-06,0.144
5.930E-06,0.144
5.940E-06,0.140
5.950E-06,0.140
5.960E-06,0.140
5.970E-06,0.140
5.980E-06,0.132
5.990E-06,0.132
6.000E-06,0.140
6.010E-06,0.140
6.020E-06,0.136
6.030E-06,0.136
6.040E-06,0.132
6.050E-06,0.132
6.060E-06,0.124
6.070E-06,0.132
6.080E-06,0.132
6.090E-06,0.132
6.100E-06,0.128
6.110E-06,0.128
6.120E-06,0.132
6.130E-06,0.128
6.140E-06,0.128
6.150E-06,0.128
6.160E-06,0.124
6.170E-06,0.128
6.180E-06,0.128
6.190E-06,0.128
6.200E-06,0.132
6.210E-06,0.132
6.220E-06,0.132
6.230E-06,0.128
6.240E-06,0.124
6.250E-06,0.124
6.260E-06,0.128
6.270E-06,0.128
6.280E-06,0.128
6.290E-06,0.128
6.300E-06,0.128
6.310E-06,0.128
6.320E-06,0.128
6.330E-06,0.124
6.340E-06,0.124
6.350E-06,0.124
6.360E-06,0.124
6.370E-06,0.128
6.380E-06,0.124
6.390E-06,0.124
6.400E-06,0.124
6.410E-06,0.124
6.420E-06,0.124
6.430E-06,0.120
6.440E-06,0.120
6.450E-06,0.120
6.460E-06,0.120
6.470E-06,0.120
6.480E-06,0.124
6.490E-06,0.124
6.500E-06,0.120
6.510E-06,0.120
6.520E-06,0.120
6.530E-06,0.112
6.540E-06,0.116
6.550E-06,0.120
6.560E-06,0.120
6.570E-06,0.120
6.580E-06,0.124
6.590E-06,0.120
6.600E-06,0.112
6.610E-06,0.112
6.620E-06,0.108
6.630E-06,0.112
6.640E-06,0.112
6.650E-06,0.112
6.660E-06,0.112
6.670E-06,0.112
6.680E-06,0.112
6.690E-06,0.108
6.700E-06,0.108
6.710E-06,0.104
6.720E-06,0.104
6.730E-06,0.100
6.740E-06,0.104
6.750E-06,0.100
6.760E-06,0.096
6.770E-06,0.104
6.780E-06,0.100
6.790E-06,0.100
6.800E-06,0.096
6.810E-06,0.100
6.820E-06,0.100
6.830E-06,0.100
6.840E-06,0.100
6.850E-06,0.104
6.860E-06,0.100
6.870E-06,0.104
6.880E-06,0.100
6.890E-06,0.100
6.900E-06,0.100
6.910E-06,0.100
6.920E-06,0.100
6.930E-06,0.096
6.940E-06,0.096
6.950E-06,0.100
6.960E-06,0.100
6.970E-06,0.096
6.980E-06,0.096
6.990E-06,0.092
7.000E-06,0.096
7.010E-06,0.096
7.020E-06,0.096
7.030E-06,0.100
7.040E-06,0.100
7.050E-06,0.092
7.060E-06,0.096
7.070E-06,0.088
7.080E-06,0.088
7.090E-06,0.092
7.100E-06,0.088
7.110E-06,0.096
7.120E-06,0.092
7.130E-06,0.096
7.140E-06,0.092
7.150E-06,0.092
7.160E-06,0.092
7.170E-06,0.092
7.180E-06,0.088
7.190E-06,0.092
7.200E-06,0.088
7.210E-06,0.092
7.220E-06,0.088
7.230E-06,0.092
7.240E-06,0.088
7.250E-06,0.088
7.260E-06,0.080
7.270E-06,0.084
7.280E-06,0.084
7.290E-06,0.092
7.300E-06,0.088
7.310E-06,0.084
7.320E-06,0.080
7.330E-06,0.084
7.340E-06,0.080
7.350E-06,0.084
7.360E-06,0.088
7.370E-06,0.088
7.380E-06,0.080
7.390E-06,0.076
7.400E-06,0.080
7.410E-06,0.072
7.420E-06,0.072
7.430E-06,0.076
7.440E-06,0.076
7.450E-06,0.084
7.460E-06,0.084
7.470E-06,0.080
7.480E-06,0.076
7.490E-06,0.076
7.500E-06,0.072
7.510E-06,0.072
7.520E-06,0.076
7.530E-06,0.072
7.540E-06,0.080
7.550E-06,0.084
7.560E-06,0.072
7.570E-06,0.072
7.580E-06,0.072
7.590E-06,0.072
7.600E-06,0.072
7.610E-06,0.076
7.620E-06,0.072
7.630E-06,0.072
7.640E-06,0.076
7.650E-06,0.072
7.660E-06,0.072
7.670E-06,0.076
7.680E-06,0.068
7.690E-06,0.068
7.700E-06,0.068
7.710E-06,0.068
7.720E-06,0.068
7.730E-06,0.068
7.740E-06,0.072
7.750E-06,0.072
7.760E-06,0.068
7.770E-06,0.068
7.780E-06,0.064
7.790E-06,0.064
7.800E-06,0.068
