mediciones/Mediciones filtradas (saque las feas)/6-10/46/WaveData55221.csv

#timebase=2000000(ps)
,#voltbase=100000(mv/100)
#size=4000
-4.250E-06,-0.020
-4.240E-06,0.000
-4.230E-06,0.020
-4.220E-06,0.028
-4.210E-06,0.020
-4.200E-06,0.012
-4.190E-06,-0.012
-4.180E-06,-0.012
-4.170E-06,-0.012
-4.160E-06,0.008
-4.150E-06,0.028
-4.140E-06,0.032
-4.130E-06,0.020
-4.120E-06,0.024
-4.110E-06,-0.004
-4.100E-06,-0.016
-4.090E-06,-0.008
-4.080E-06,-0.004
-4.070E-06,0.012
-4.060E-06,0.024
-4.050E-06,0.016
-4.040E-06,0.008
-4.030E-06,0.004
-4.020E-06,0.012
-4.010E-06,-0.004
-4.000E-06,-0.004
-3.990E-06,0.000
-3.980E-06,-0.008
-3.970E-06,-0.008
-3.960E-06,-0.004
-3.950E-06,-0.012
-3.940E-06,0.000
-3.930E-06,0.000
-3.920E-06,0.012
-3.910E-06,0.000
-3.900E-06,-0.004
-3.890E-06,-0.008
-3.880E-06,-0.012
-3.870E-06,0.004
-3.860E-06,0.016
-3.850E-06,0.016
-3.840E-06,0.012
-3.830E-06,0.004
-3.820E-06,0.004
-3.810E-06,0.008
-3.800E-06,0.008
-3.790E-06,0.020
-3.780E-06,0.020
-3.770E-06,0.012
-3.760E-06,0.028
-3.750E-06,0.008
-3.740E-06,0.044
-3.730E-06,-0.008
-3.720E-06,0.016
-3.710E-06,-0.036
-3.700E-06,-0.056
-3.690E-06,-0.032
-3.680E-06,-0.012
-3.670E-06,0.032
-3.660E-06,0.044
-3.650E-06,0.040
-3.640E-06,0.012
-3.630E-06,-0.040
-3.620E-06,-0.040
-3.610E-06,-0.024
-3.600E-06,0.016
-3.590E-06,0.044
-3.580E-06,0.040
-3.570E-06,0.024
-3.560E-06,0.016
-3.550E-06,-0.008
-3.540E-06,-0.028
-3.530E-06,-0.024
-3.520E-06,0.000
-3.510E-06,0.024
-3.500E-06,0.040
-3.490E-06,-0.008
-3.480E-06,0.016
-3.470E-06,-0.004
-3.460E-06,0.032
-3.450E-06,0.016
-3.440E-06,0.024
-3.430E-06,0.004
-3.420E-06,0.008
-3.410E-06,-0.008
-3.400E-06,-0.032
-3.390E-06,-0.024
-3.380E-06,-0.012
-3.370E-06,0.004
-3.360E-06,0.036
-3.350E-06,0.044
-3.340E-06,0.032
-3.330E-06,0.000
-3.320E-06,-0.024
-3.310E-06,-0.036
-3.300E-06,-0.032
-3.290E-06,0.008
-3.280E-06,0.024
-3.270E-06,0.056
-3.260E-06,0.028
-3.250E-06,0.020
-3.240E-06,-0.008
-3.230E-06,-0.040
-3.220E-06,-0.032
-3.210E-06,-0.020
-3.200E-06,0.060
-3.190E-06,0.048
-3.180E-06,0.072
-3.170E-06,0.024
-3.160E-06,0.000
-3.150E-06,-0.096
-3.140E-06,-0.040
-3.130E-06,-0.064
-3.120E-06,-0.004
-3.110E-06,0.036
-3.100E-06,0.052
-3.090E-06,0.044
-3.080E-06,-0.028
-3.070E-06,-0.052
-3.060E-06,-0.028
-3.050E-06,0.012
-3.040E-06,0.036
-3.030E-06,0.036
-3.020E-06,0.028
-3.010E-06,0.028
-3.000E-06,0.020
-2.990E-06,-0.004
-2.980E-06,-0.004
-2.970E-06,0.000
-2.960E-06,0.024
-2.950E-06,0.024
-2.940E-06,0.028
-2.930E-06,-0.012
-2.920E-06,-0.004
-2.910E-06,-0.020
-2.900E-06,-0.008
-2.890E-06,0.004
-2.880E-06,0.020
-2.870E-06,0.032
-2.860E-06,0.040
-2.850E-06,0.036
-2.840E-06,0.000
-2.830E-06,-0.004
-2.820E-06,-0.012
-2.810E-06,-0.004
-2.800E-06,0.056
-2.790E-06,0.040
-2.780E-06,0.072
-2.770E-06,0.040
-2.760E-06,-0.004
-2.750E-06,-0.020
-2.740E-06,-0.060
-2.730E-06,-0.036
-2.720E-06,-0.036
-2.710E-06,-0.008
-2.700E-06,0.008
-2.690E-06,0.000
-2.680E-06,-0.004
-2.670E-06,0.000
-2.660E-06,0.000
-2.650E-06,-0.028
-2.640E-06,-0.012
-2.630E-06,-0.004
-2.620E-06,-0.040
-2.610E-06,0.004
-2.600E-06,0.004
-2.590E-06,0.008
-2.580E-06,0.008
-2.570E-06,0.004
-2.560E-06,0.016
-2.550E-06,0.004
-2.540E-06,-0.032
-2.530E-06,-0.044
-2.520E-06,-0.012
-2.510E-06,0.008
-2.500E-06,0.040
-2.490E-06,0.024
-2.480E-06,0.008
-2.470E-06,-0.008
-2.460E-06,-0.020
-2.450E-06,-0.028
-2.440E-06,0.004
-2.430E-06,0.028
-2.420E-06,0.008
-2.410E-06,0.012
-2.400E-06,0.000
-2.390E-06,-0.012
-2.380E-06,-0.016
-2.370E-06,0.000
-2.360E-06,0.004
-2.350E-06,0.016
-2.340E-06,0.024
-2.330E-06,0.020
-2.320E-06,0.012
-2.310E-06,0.008
-2.300E-06,0.004
-2.290E-06,0.008
-2.280E-06,0.016
-2.270E-06,0.032
-2.260E-06,0.032
-2.250E-06,0.032
-2.240E-06,0.024
-2.230E-06,0.004
-2.220E-06,-0.004
-2.210E-06,-0.012
-2.200E-06,-0.008
-2.190E-06,0.008
-2.180E-06,0.028
-2.170E-06,0.028
-2.160E-06,0.004
-2.150E-06,0.000
-2.140E-06,-0.032
-2.130E-06,-0.016
-2.120E-06,0.000
-2.110E-06,0.028
-2.100E-06,0.048
-2.090E-06,0.056
-2.080E-06,0.024
-2.070E-06,0.000
-2.060E-06,-0.024
-2.050E-06,-0.008
-2.040E-06,0.008
-2.030E-06,0.020
-2.020E-06,0.040
-2.010E-06,0.012
-2.000E-06,0.004
-1.990E-06,-0.004
-1.980E-06,0.012
-1.970E-06,0.032
-1.960E-06,0.056
-1.950E-06,0.044
-1.940E-06,0.012
-1.930E-06,-0.020
-1.920E-06,-0.048
-1.910E-06,-0.028
-1.900E-06,-0.004
-1.890E-06,0.076
-1.880E-06,0.104
-1.870E-06,0.092
-1.860E-06,0.000
-1.850E-06,-0.084
-1.840E-06,-0.108
-1.830E-06,-0.076
-1.820E-06,-0.028
-1.810E-06,0.004
-1.800E-06,0.056
-1.790E-06,0.040
-1.780E-06,0.024
-1.770E-06,0.000
-1.760E-06,-0.008
-1.750E-06,-0.024
-1.740E-06,0.012
-1.730E-06,0.032
-1.720E-06,0.040
-1.710E-06,-0.008
-1.700E-06,-0.032
-1.690E-06,-0.072
-1.680E-06,-0.076
-1.670E-06,-0.056
-1.660E-06,-0.016
-1.650E-06,0.036
-1.640E-06,0.032
-1.630E-06,0.000
-1.620E-06,-0.004
-1.610E-06,-0.036
-1.600E-06,-0.008
-1.590E-06,-0.020
-1.580E-06,-0.028
-1.570E-06,0.004
-1.560E-06,0.024
-1.550E-06,0.036
-1.540E-06,0.032
-1.530E-06,0.004
-1.520E-06,-0.008
-1.510E-06,-0.008
-1.500E-06,0.000
-1.490E-06,0.008
-1.480E-06,0.032
-1.470E-06,0.036
-1.460E-06,0.032
-1.450E-06,0.020
-1.440E-06,0.008
-1.430E-06,0.000
-1.420E-06,-0.008
-1.410E-06,-0.004
-1.400E-06,0.004
-1.390E-06,0.012
-1.380E-06,0.016
-1.370E-06,0.028
-1.360E-06,0.020
-1.350E-06,0.020
-1.340E-06,0.020
-1.330E-06,0.028
-1.320E-06,0.032
-1.310E-06,0.040
-1.300E-06,0.048
-1.290E-06,0.040
-1.280E-06,0.020
-1.270E-06,0.008
-1.260E-06,0.004
-1.250E-06,0.000
-1.240E-06,0.004
-1.230E-06,0.012
-1.220E-06,0.016
-1.210E-06,0.028
-1.200E-06,0.036
-1.190E-06,0.028
-1.180E-06,0.032
-1.170E-06,0.020
-1.160E-06,0.028
-1.150E-06,0.048
-1.140E-06,0.060
-1.130E-06,0.068
-1.120E-06,0.056
-1.110E-06,0.056
-1.100E-06,0.040
-1.090E-06,0.028
-1.080E-06,0.024
-1.070E-06,-0.032
-1.060E-06,-0.020
-1.050E-06,-0.028
-1.040E-06,-0.016
-1.030E-06,-0.028
-1.020E-06,-0.064
-1.010E-06,-0.080
-1.000E-06,-0.088
-9.900E-07,-0.052
-9.800E-07,-0.036
-9.700E-07,-0.024
-9.600E-07,-0.008
-9.500E-07,0.000
-9.400E-07,-0.012
-9.300E-07,-0.004
-9.200E-07,-0.008
-9.100E-07,-0.020
-9.000E-07,-0.016
-8.900E-07,-0.008
-8.800E-07,0.024
-8.700E-07,0.020
-8.600E-07,0.024
-8.500E-07,0.008
-8.400E-07,0.004
-8.300E-07,0.016
-8.200E-07,0.004
-8.100E-07,0.024
-8.000E-07,0.024
-7.900E-07,0.024
-7.800E-07,0.012
-7.700E-07,0.024
-7.600E-07,0.028
-7.500E-07,0.040
-7.400E-07,0.056
-7.300E-07,0.068
-7.200E-07,0.104
-7.100E-07,0.096
-7.000E-07,0.056
-6.900E-07,0.008
-6.800E-07,-0.008
-6.700E-07,-0.028
-6.600E-07,0.000
-6.500E-07,0.028
-6.400E-07,0.028
-6.300E-07,0.020
-6.200E-07,0.000
-6.100E-07,-0.016
-6.000E-07,-0.044
-5.900E-07,-0.032
-5.800E-07,-0.032
-5.700E-07,0.000
-5.600E-07,0.016
-5.500E-07,0.036
-5.400E-07,0.024
-5.300E-07,0.016
-5.200E-07,0.020
-5.100E-07,-0.004
-5.000E-07,0.008
-4.900E-07,0.012
-4.800E-07,0.036
-4.700E-07,0.044
-4.600E-07,0.064
-4.500E-07,0.072
-4.400E-07,0.076
-4.300E-07,0.064
-4.200E-07,0.076
-4.100E-07,0.092
-4.000E-07,0.116
-3.900E-07,0.136
-3.800E-07,0.128
-3.700E-07,0.132
-3.600E-07,0.104
-3.500E-07,0.088
-3.400E-07,0.084
-3.300E-07,0.088
-3.200E-07,0.108
-3.100E-07,0.120
-3.000E-07,0.132
-2.900E-07,0.124
-2.800E-07,0.096
-2.700E-07,0.076
-2.600E-07,0.044
-2.500E-07,0.028
-2.400E-07,-0.032
-2.300E-07,-0.124
-2.200E-07,-0.140
-2.100E-07,-0.124
-2.000E-07,-0.016
-1.900E-07,0.124
-1.800E-07,0.264
-1.700E-07,0.276
-1.600E-07,0.144
-1.500E-07,-0.108
-1.400E-07,-0.492
-1.300E-07,-0.512
-1.200E-07,-0.508
-1.100E-07,-0.448
-1.000E-07,-0.080
-9.000E-08,0.212
-8.000E-08,0.268
-7.000E-08,0.164
-6.000E-08,-0.260
-5.000E-08,-0.380
-4.000E-08,-0.468
-3.000E-08,-0.152
-2.000E-08,0.152
-1.000E-08,0.356
0.000E+00,0.320
1.000E-08,0.124
2.000E-08,0.004
3.000E-08,-0.268
4.000E-08,-0.268
5.000E-08,-0.204
6.000E-08,0.012
7.000E-08,0.176
8.000E-08,0.240
9.000E-08,0.188
1.000E-07,0.012
1.100E-07,-0.124
1.200E-07,-0.204
1.300E-07,-0.136
1.400E-07,-0.040
1.500E-07,0.112
1.600E-07,0.164
1.700E-07,0.156
1.800E-07,0.052
1.900E-07,-0.060
2.000E-07,-0.120
2.100E-07,-0.108
2.200E-07,-0.028
2.300E-07,0.044
2.400E-07,0.120
2.500E-07,0.124
2.600E-07,0.068
2.700E-07,-0.040
2.800E-07,-0.084
2.900E-07,-0.100
3.000E-07,-0.036
3.100E-07,0.044
3.200E-07,0.104
3.300E-07,0.128
3.400E-07,0.088
3.500E-07,0.028
3.600E-07,-0.028
3.700E-07,-0.036
3.800E-07,-0.012
3.900E-07,0.040
4.000E-07,0.088
4.100E-07,0.112
4.200E-07,0.100
4.300E-07,0.072
4.400E-07,0.028
4.500E-07,0.024
4.600E-07,0.048
4.700E-07,0.088
4.800E-07,0.132
4.900E-07,0.144
5.000E-07,0.152
5.100E-07,0.128
5.200E-07,0.100
5.300E-07,0.088
5.400E-07,0.104
5.500E-07,0.136
5.600E-07,0.156
5.700E-07,0.172
5.800E-07,0.180
5.900E-07,0.164
6.000E-07,0.152
6.100E-07,0.120
6.200E-07,0.108
6.300E-07,0.116
6.400E-07,0.140
6.500E-07,0.152
6.600E-07,0.164
6.700E-07,0.148
6.800E-07,0.120
6.900E-07,0.108
7.000E-07,0.084
7.100E-07,0.068
7.200E-07,0.060
7.300E-07,0.060
7.400E-07,0.036
7.500E-07,0.028
7.600E-07,-0.032
7.700E-07,-0.068
7.800E-07,-0.036
7.900E-07,-0.056
8.000E-07,0.012
8.100E-07,-0.072
8.200E-07,-0.052
8.300E-07,0.004
8.400E-07,-0.104
8.500E-07,0.016
8.600E-07,-0.104
8.700E-07,0.012
8.800E-07,-0.008
8.900E-07,0.024
9.000E-07,0.036
9.100E-07,0.024
9.200E-07,0.104
9.300E-07,0.092
9.400E-07,0.112
9.500E-07,0.152
9.600E-07,0.160
9.700E-07,0.148
9.800E-07,0.152
9.900E-07,0.160
1.000E-06,0.136
1.010E-06,0.140
1.020E-06,0.140
1.030E-06,0.132
1.040E-06,0.152
1.050E-06,0.144
1.060E-06,0.140
1.070E-06,0.144
1.080E-06,0.136
1.090E-06,0.124
1.100E-06,0.136
1.110E-06,0.132
1.120E-06,0.124
1.130E-06,0.116
1.140E-06,0.132
1.150E-06,0.136
1.160E-06,0.132
1.170E-06,0.144
1.180E-06,0.128
1.190E-06,0.128
1.200E-06,0.120
1.210E-06,0.124
1.220E-06,0.128
1.230E-06,0.132
1.240E-06,0.168
1.250E-06,0.144
1.260E-06,0.124
1.270E-06,0.088
1.280E-06,0.044
1.290E-06,0.024
1.300E-06,-0.004
1.310E-06,0.008
1.320E-06,-0.020
1.330E-06,-0.004
1.340E-06,-0.004
1.350E-06,-0.044
1.360E-06,-0.148
1.370E-06,-0.172
1.380E-06,-0.104
1.390E-06,-0.084
1.400E-06,0.004
1.410E-06,0.156
1.420E-06,0.128
1.430E-06,0.116
1.440E-06,0.020
1.450E-06,-0.056
1.460E-06,-0.172
1.470E-06,-0.172
1.480E-06,0.072
1.490E-06,0.108
1.500E-06,0.220
1.510E-06,0.228
1.520E-06,0.288
1.530E-06,0.192
1.540E-06,0.104
1.550E-06,0.024
1.560E-06,0.020
1.570E-06,0.104
1.580E-06,0.132
1.590E-06,0.156
1.600E-06,0.132
1.610E-06,0.104
1.620E-06,0.076
1.630E-06,0.064
1.640E-06,0.068
1.650E-06,0.116
1.660E-06,0.120
1.670E-06,0.136
1.680E-06,0.152
1.690E-06,0.136
1.700E-06,0.124
1.710E-06,0.100
1.720E-06,0.096
1.730E-06,0.112
1.740E-06,0.164
1.750E-06,0.196
1.760E-06,0.212
1.770E-06,0.200
1.780E-06,0.184
1.790E-06,0.160
1.800E-06,0.152
1.810E-06,0.148
1.820E-06,0.152
1.830E-06,0.180
1.840E-06,0.196
1.850E-06,0.200
1.860E-06,0.188
1.870E-06,0.164
1.880E-06,0.152
1.890E-06,0.144
1.900E-06,0.156
1.910E-06,0.168
1.920E-06,0.184
1.930E-06,0.192
1.940E-06,0.180
1.950E-06,0.164
1.960E-06,0.160
1.970E-06,0.148
1.980E-06,0.156
1.990E-06,0.168
2.000E-06,0.176
2.010E-06,0.184
2.020E-06,0.176
2.030E-06,0.164
2.040E-06,0.156
2.050E-06,0.156
2.060E-06,0.160
2.070E-06,0.160
2.080E-06,0.176
2.090E-06,0.184
2.100E-06,0.180
2.110E-06,0.180
2.120E-06,0.168
2.130E-06,0.164
2.140E-06,0.156
2.150E-06,0.160
2.160E-06,0.172
2.170E-06,0.180
2.180E-06,0.176
2.190E-06,0.180
2.200E-06,0.160
2.210E-06,0.160
2.220E-06,0.156
2.230E-06,0.160
2.240E-06,0.164
2.250E-06,0.172
2.260E-06,0.172
2.270E-06,0.172
2.280E-06,0.164
2.290E-06,0.160
2.300E-06,0.152
2.310E-06,0.156
2.320E-06,0.160
2.330E-06,0.172
2.340E-06,0.168
2.350E-06,0.172
2.360E-06,0.168
2.370E-06,0.156
2.380E-06,0.148
2.390E-06,0.156
2.400E-06,0.164
2.410E-06,0.168
2.420E-06,0.164
2.430E-06,0.168
2.440E-06,0.164
2.450E-06,0.160
2.460E-06,0.156
2.470E-06,0.148
2.480E-06,0.144
2.490E-06,0.152
2.500E-06,0.160
2.510E-06,0.156
2.520E-06,0.148
2.530E-06,0.144
2.540E-06,0.144
2.550E-06,0.144
2.560E-06,0.144
2.570E-06,0.148
2.580E-06,0.156
2.590E-06,0.152
2.600E-06,0.148
2.610E-06,0.152
2.620E-06,0.140
2.630E-06,0.148
2.640E-06,0.148
2.650E-06,0.156
2.660E-06,0.160
2.670E-06,0.156
2.680E-06,0.148
2.690E-06,0.152
2.700E-06,0.148
2.710E-06,0.152
2.720E-06,0.148
2.730E-06,0.144
2.740E-06,0.152
2.750E-06,0.152
2.760E-06,0.156
2.770E-06,0.152
2.780E-06,0.156
2.790E-06,0.148
2.800E-06,0.148
2.810E-06,0.148
2.820E-06,0.152
2.830E-06,0.156
2.840E-06,0.160
2.850E-06,0.156
2.860E-06,0.156
2.870E-06,0.144
2.880E-06,0.144
2.890E-06,0.144
2.900E-06,0.140
2.910E-06,0.144
2.920E-06,0.152
2.930E-06,0.148
2.940E-06,0.148
2.950E-06,0.144
2.960E-06,0.148
2.970E-06,0.144
2.980E-06,0.144
2.990E-06,0.148
3.000E-06,0.148
3.010E-06,0.152
3.020E-06,0.156
3.030E-06,0.156
3.040E-06,0.140
3.050E-06,0.136
3.060E-06,0.140
3.070E-06,0.148
3.080E-06,0.148
3.090E-06,0.148
3.100E-06,0.152
3.110E-06,0.140
3.120E-06,0.140
3.130E-06,0.140
3.140E-06,0.136
3.150E-06,0.136
3.160E-06,0.140
3.170E-06,0.140
3.180E-06,0.144
3.190E-06,0.136
3.200E-06,0.136
3.210E-06,0.128
3.220E-06,0.128
3.230E-06,0.136
3.240E-06,0.140
3.250E-06,0.136
3.260E-06,0.132
3.270E-06,0.136
3.280E-06,0.140
3.290E-06,0.136
3.300E-06,0.132
3.310E-06,0.128
3.320E-06,0.128
3.330E-06,0.128
3.340E-06,0.136
3.350E-06,0.136
3.360E-06,0.136
3.370E-06,0.128
3.380E-06,0.128
3.390E-06,0.128
3.400E-06,0.132
3.410E-06,0.128
3.420E-06,0.132
3.430E-06,0.136
3.440E-06,0.140
3.450E-06,0.136
3.460E-06,0.132
3.470E-06,0.132
3.480E-06,0.128
3.490E-06,0.128
3.500E-06,0.132
3.510E-06,0.132
3.520E-06,0.132
3.530E-06,0.128
3.540E-06,0.124
3.550E-06,0.128
3.560E-06,0.128
3.570E-06,0.128
3.580E-06,0.124
3.590E-06,0.124
3.600E-06,0.128
3.610E-06,0.128
3.620E-06,0.132
3.630E-06,0.132
3.640E-06,0.124
3.650E-06,0.124
3.660E-06,0.120
3.670E-06,0.124
3.680E-06,0.120
3.690E-06,0.120
3.700E-06,0.120
3.710E-06,0.124
3.720E-06,0.124
3.730E-06,0.124
3.740E-06,0.120
3.750E-06,0.120
3.760E-06,0.124
3.770E-06,0.124
3.780E-06,0.124
3.790E-06,0.124
3.800E-06,0.120
3.810E-06,0.128
3.820E-06,0.124
3.830E-06,0.120
3.840E-06,0.120
3.850E-06,0.120
3.860E-06,0.124
3.870E-06,0.124
3.880E-06,0.124
3.890E-06,0.124
3.900E-06,0.120
3.910E-06,0.120
3.920E-06,0.120
3.930E-06,0.120
3.940E-06,0.112
3.950E-06,0.116
3.960E-06,0.116
3.970E-06,0.120
3.980E-06,0.112
3.990E-06,0.112
4.000E-06,0.108
4.010E-06,0.108
4.020E-06,0.112
4.030E-06,0.120
4.040E-06,0.120
4.050E-06,0.112
4.060E-06,0.112
4.070E-06,0.112
4.080E-06,0.108
4.090E-06,0.112
4.100E-06,0.108
4.110E-06,0.112
4.120E-06,0.112
4.130E-06,0.108
4.140E-06,0.108
4.150E-06,0.108
4.160E-06,0.100
4.170E-06,0.100
4.180E-06,0.104
4.190E-06,0.104
4.200E-06,0.112
4.210E-06,0.108
4.220E-06,0.104
4.230E-06,0.108
4.240E-06,0.108
4.250E-06,0.108
4.260E-06,0.108
4.270E-06,0.108
4.280E-06,0.104
4.290E-06,0.108
4.300E-06,0.112
4.310E-06,0.108
4.320E-06,0.112
4.330E-06,0.108
4.340E-06,0.104
4.350E-06,0.104
4.360E-06,0.108
4.370E-06,0.108
4.380E-06,0.104
4.390E-06,0.108
4.400E-06,0.104
4.410E-06,0.104
4.420E-06,0.104
4.430E-06,0.104
4.440E-06,0.100
4.450E-06,0.096
4.460E-06,0.104
4.470E-06,0.100
4.480E-06,0.100
4.490E-06,0.096
4.500E-06,0.100
4.510E-06,0.096
4.520E-06,0.096
4.530E-06,0.096
4.540E-06,0.092
4.550E-06,0.092
4.560E-06,0.092
4.570E-06,0.092
4.580E-06,0.096
4.590E-06,0.096
4.600E-06,0.096
4.610E-06,0.096
4.620E-06,0.100
4.630E-06,0.088
4.640E-06,0.092
4.650E-06,0.088
4.660E-06,0.092
4.670E-06,0.088
4.680E-06,0.088
4.690E-06,0.092
4.700E-06,0.092
4.710E-06,0.088
4.720E-06,0.092
4.730E-06,0.092
4.740E-06,0.092
4.750E-06,0.092
4.760E-06,0.088
4.770E-06,0.092
4.780E-06,0.084
4.790E-06,0.088
4.800E-06,0.084
4.810E-06,0.088
4.820E-06,0.084
4.830E-06,0.092
4.840E-06,0.088
4.850E-06,0.084
4.860E-06,0.084
4.870E-06,0.080
4.880E-06,0.080
4.890E-06,0.076
4.900E-06,0.080
4.910E-06,0.084
4.920E-06,0.088
4.930E-06,0.088
4.940E-06,0.076
4.950E-06,0.080
4.960E-06,0.080
4.970E-06,0.076
4.980E-06,0.080
4.990E-06,0.084
5.000E-06,0.088
5.010E-06,0.084
5.020E-06,0.076
5.030E-06,0.072
5.040E-06,0.076
5.050E-06,0.076
5.060E-06,0.076
5.070E-06,0.076
5.080E-06,0.084
5.090E-06,0.088
5.100E-06,0.076
5.110E-06,0.076
5.120E-06,0.076
5.130E-06,0.072
5.140E-06,0.072
5.150E-06,0.080
5.160E-06,0.080
5.170E-06,0.084
5.180E-06,0.076
5.190E-06,0.076
5.200E-06,0.072
5.210E-06,0.072
5.220E-06,0.072
5.230E-06,0.076
5.240E-06,0.076
5.250E-06,0.076
5.260E-06,0.080
5.270E-06,0.076
5.280E-06,0.072
5.290E-06,0.068
5.300E-06,0.068
5.310E-06,0.072
5.320E-06,0.080
5.330E-06,0.076
5.340E-06,0.072
5.350E-06,0.076
5.360E-06,0.068
5.370E-06,0.060
5.380E-06,0.068
5.390E-06,0.064
5.400E-06,0.068
5.410E-06,0.068
5.420E-06,0.072
5.430E-06,0.072
5.440E-06,0.068
5.450E-06,0.064
5.460E-06,0.060
5.470E-06,0.064
5.480E-06,0.064
5.490E-06,0.064
5.500E-06,0.068
5.510E-06,0.068
5.520E-06,0.068
5.530E-06,0.060
5.540E-06,0.056
5.550E-06,0.060
5.560E-06,0.060
5.570E-06,0.060
5.580E-06,0.064
5.590E-06,0.064
5.600E-06,0.064
5.610E-06,0.064
5.620E-06,0.060
5.630E-06,0.056
5.640E-06,0.056
5.650E-06,0.060
5.660E-06,0.064
5.670E-06,0.060
5.680E-06,0.060
5.690E-06,0.060
5.700E-06,0.056
5.710E-06,0.056
5.720E-06,0.060
5.730E-06,0.060
5.740E-06,0.056
5.750E-06,0.060
5.760E-06,0.056
5.770E-06,0.056
5.780E-06,0.060
5.790E-06,0.060
5.800E-06,0.056
5.810E-06,0.052
5.820E-06,0.060
5.830E-06,0.060
5.840E-06,0.056
5.850E-06,0.056
5.860E-06,0.056
5.870E-06,0.060
5.880E-06,0.056
5.890E-06,0.056
5.900E-06,0.060
5.910E-06,0.056
5.920E-06,0.056
5.930E-06,0.052
5.940E-06,0.052
5.950E-06,0.056
5.960E-06,0.052
5.970E-06,0.052
5.980E-06,0.052
5.990E-06,0.052
6.000E-06,0.056
6.010E-06,0.052
6.020E-06,0.048
6.030E-06,0.052
6.040E-06,0.052
6.050E-06,0.056
6.060E-06,0.048
6.070E-06,0.048
6.080E-06,0.048
6.090E-06,0.052
6.100E-06,0.048
6.110E-06,0.048
6.120E-06,0.056
6.130E-06,0.048
6.140E-06,0.048
6.150E-06,0.048
6.160E-06,0.040
6.170E-06,0.044
6.180E-06,0.048
6.190E-06,0.044
6.200E-06,0.044
6.210E-06,0.044
6.220E-06,0.044
6.230E-06,0.048
6.240E-06,0.044
6.250E-06,0.040
6.260E-06,0.040
6.270E-06,0.040
6.280E-06,0.044
6.290E-06,0.044
6.300E-06,0.036
6.310E-06,0.040
6.320E-06,0.036
6.330E-06,0.040
6.340E-06,0.036
6.350E-06,0.040
6.360E-06,0.036
6.370E-06,0.040
6.380E-06,0.044
6.390E-06,0.036
6.400E-06,0.040
6.410E-06,0.032
6.420E-06,0.036
6.430E-06,0.032
6.440E-06,0.028
6.450E-06,0.044
6.460E-06,0.044
6.470E-06,0.028
6.480E-06,0.028
6.490E-06,0.024
6.500E-06,0.024
6.510E-06,0.036
6.520E-06,0.048
6.530E-06,0.052
6.540E-06,0.052
6.550E-06,0.028
6.560E-06,0.024
6.570E-06,0.016
6.580E-06,0.020
6.590E-06,0.024
6.600E-06,0.040
6.610E-06,0.048
6.620E-06,0.048
6.630E-06,0.036
6.640E-06,0.028
6.650E-06,0.016
6.660E-06,0.012
6.670E-06,0.020
6.680E-06,0.032
6.690E-06,0.040
6.700E-06,0.040
6.710E-06,0.040
6.720E-06,0.024
6.730E-06,0.024
6.740E-06,0.016
6.750E-06,0.024
6.760E-06,0.032
6.770E-06,0.032
6.780E-06,0.040
6.790E-06,0.036
6.800E-06,0.024
6.810E-06,0.024
6.820E-06,0.028
6.830E-06,0.020
6.840E-06,0.024
6.850E-06,0.028
6.860E-06,0.028
6.870E-06,0.036
6.880E-06,0.028
6.890E-06,0.028
6.900E-06,0.016
6.910E-06,0.016
6.920E-06,0.024
6.930E-06,0.020
6.940E-06,0.024
6.950E-06,0.032
6.960E-06,0.024
6.970E-06,0.024
6.980E-06,0.020
6.990E-06,0.024
7.000E-06,0.024
7.010E-06,0.024
7.020E-06,0.028
7.030E-06,0.028
7.040E-06,0.024
7.050E-06,0.024
7.060E-06,0.028
7.070E-06,0.020
7.080E-06,0.012
7.090E-06,0.016
7.100E-06,0.020
7.110E-06,0.020
7.120E-06,0.024
7.130E-06,0.020
7.140E-06,0.024
7.150E-06,0.020
7.160E-06,0.016
7.170E-06,0.012
7.180E-06,0.020
7.190E-06,0.020
7.200E-06,0.016
7.210E-06,0.020
7.220E-06,0.016
7.230E-06,0.024
7.240E-06,0.016
7.250E-06,0.008
7.260E-06,0.012
7.270E-06,0.016
7.280E-06,0.024
7.290E-06,0.016
7.300E-06,0.016
7.310E-06,0.016
7.320E-06,0.008
7.330E-06,0.008
7.340E-06,0.012
7.350E-06,0.012
7.360E-06,0.020
7.370E-06,0.012
7.380E-06,0.012
7.390E-06,0.008
7.400E-06,0.012
7.410E-06,0.016
7.420E-06,0.016
7.430E-06,0.012
7.440E-06,0.016
7.450E-06,0.012
7.460E-06,0.008
7.470E-06,0.008
7.480E-06,0.012
7.490E-06,0.012
7.500E-06,0.012
7.510E-06,0.012
7.520E-06,0.012
7.530E-06,0.012
7.540E-06,0.008
7.550E-06,0.012
7.560E-06,0.012
7.570E-06,0.008
7.580E-06,0.012
7.590E-06,0.012
7.600E-06,0.008
7.610E-06,0.008
7.620E-06,0.004
7.630E-06,0.008
7.640E-06,0.008
7.650E-06,0.008
7.660E-06,0.012
7.670E-06,0.004
7.680E-06,0.004
7.690E-06,0.004
7.700E-06,0.004
7.710E-06,0.008
7.720E-06,0.008
7.730E-06,0.008
7.740E-06,0.008
7.750E-06,0.008
7.760E-06,0.008
7.770E-06,0.004
7.780E-06,0.004
7.790E-06,0.004
7.800E-06,0.008
7.810E-06,0.004
7.820E-06,0.004
