mediciones/Mediciones filtradas (saque las feas)/6-10/46/WaveData55223.csv

#timebase=2000000(ps)
,#voltbase=100000(mv/100)
#size=4000
-4.250E-06,-0.004
-4.240E-06,0.036
-4.230E-06,0.024
-4.220E-06,0.020
-4.210E-06,0.008
-4.200E-06,0.012
-4.190E-06,0.000
-4.180E-06,-0.008
-4.170E-06,0.040
-4.160E-06,0.072
-4.150E-06,0.056
-4.140E-06,0.020
-4.130E-06,-0.036
-4.120E-06,-0.060
-4.110E-06,-0.016
-4.100E-06,0.016
-4.090E-06,0.040
-4.080E-06,0.060
-4.070E-06,0.044
-4.060E-06,-0.024
-4.050E-06,-0.036
-4.040E-06,-0.072
-4.030E-06,0.004
-4.020E-06,0.008
-4.010E-06,0.088
-4.000E-06,0.100
-3.990E-06,0.060
-3.980E-06,-0.144
-3.970E-06,-0.200
-3.960E-06,-0.172
-3.950E-06,-0.088
-3.940E-06,0.064
-3.930E-06,0.184
-3.920E-06,0.192
-3.910E-06,0.028
-3.900E-06,-0.072
-3.890E-06,-0.144
-3.880E-06,-0.124
-3.870E-06,-0.036
-3.860E-06,0.084
-3.850E-06,0.112
-3.840E-06,0.084
-3.830E-06,0.036
-3.820E-06,-0.056
-3.810E-06,-0.064
-3.800E-06,-0.068
-3.790E-06,-0.024
-3.780E-06,0.004
-3.770E-06,0.056
-3.760E-06,0.056
-3.750E-06,0.040
-3.740E-06,0.016
-3.730E-06,-0.020
-3.720E-06,-0.040
-3.710E-06,-0.032
-3.700E-06,-0.004
-3.690E-06,0.020
-3.680E-06,0.056
-3.670E-06,0.060
-3.660E-06,0.056
-3.650E-06,0.024
-3.640E-06,-0.004
-3.630E-06,0.004
-3.620E-06,-0.012
-3.610E-06,0.008
-3.600E-06,-0.008
-3.590E-06,0.028
-3.580E-06,0.036
-3.570E-06,0.028
-3.560E-06,-0.036
-3.550E-06,-0.060
-3.540E-06,-0.028
-3.530E-06,-0.004
-3.520E-06,0.048
-3.510E-06,0.092
-3.500E-06,0.152
-3.490E-06,0.032
-3.480E-06,-0.144
-3.470E-06,-0.176
-3.460E-06,-0.188
-3.450E-06,-0.060
-3.440E-06,0.120
-3.430E-06,0.176
-3.420E-06,0.136
-3.410E-06,0.052
-3.400E-06,-0.040
-3.390E-06,-0.140
-3.380E-06,-0.160
-3.370E-06,-0.064
-3.360E-06,0.076
-3.350E-06,0.132
-3.340E-06,0.108
-3.330E-06,0.024
-3.320E-06,-0.048
-3.310E-06,-0.080
-3.300E-06,-0.068
-3.290E-06,-0.020
-3.280E-06,0.016
-3.270E-06,0.060
-3.260E-06,0.056
-3.250E-06,0.032
-3.240E-06,-0.004
-3.230E-06,-0.032
-3.220E-06,-0.044
-3.210E-06,-0.032
-3.200E-06,0.004
-3.190E-06,0.028
-3.180E-06,0.040
-3.170E-06,0.048
-3.160E-06,0.024
-3.150E-06,-0.020
-3.140E-06,-0.028
-3.130E-06,-0.024
-3.120E-06,-0.004
-3.110E-06,0.024
-3.100E-06,0.040
-3.090E-06,0.044
-3.080E-06,0.028
-3.070E-06,-0.004
-3.060E-06,-0.012
-3.050E-06,-0.008
-3.040E-06,0.008
-3.030E-06,0.040
-3.020E-06,0.076
-3.010E-06,0.116
-3.000E-06,0.096
-2.990E-06,0.068
-2.980E-06,0.012
-2.970E-06,-0.064
-2.960E-06,-0.164
-2.950E-06,-0.164
-2.940E-06,-0.068
-2.930E-06,0.024
-2.920E-06,0.128
-2.910E-06,0.116
-2.900E-06,0.028
-2.890E-06,-0.052
-2.880E-06,-0.092
-2.870E-06,-0.092
-2.860E-06,-0.028
-2.850E-06,0.044
-2.840E-06,0.072
-2.830E-06,0.068
-2.820E-06,0.028
-2.810E-06,-0.008
-2.800E-06,-0.040
-2.790E-06,-0.044
-2.780E-06,-0.016
-2.770E-06,0.008
-2.760E-06,0.048
-2.750E-06,0.036
-2.740E-06,0.032
-2.730E-06,0.008
-2.720E-06,0.008
-2.710E-06,0.016
-2.700E-06,0.032
-2.690E-06,0.060
-2.680E-06,0.056
-2.670E-06,0.040
-2.660E-06,0.000
-2.650E-06,-0.048
-2.640E-06,-0.072
-2.630E-06,-0.072
-2.620E-06,-0.008
-2.610E-06,0.032
-2.600E-06,0.068
-2.590E-06,0.048
-2.580E-06,0.020
-2.570E-06,-0.008
-2.560E-06,-0.040
-2.550E-06,-0.028
-2.540E-06,0.000
-2.530E-06,0.036
-2.520E-06,0.072
-2.510E-06,0.092
-2.500E-06,0.072
-2.490E-06,0.112
-2.480E-06,-0.012
-2.470E-06,0.008
-2.460E-06,-0.068
-2.450E-06,-0.072
-2.440E-06,-0.060
-2.430E-06,-0.008
-2.420E-06,0.040
-2.410E-06,0.016
-2.400E-06,-0.016
-2.390E-06,-0.068
-2.380E-06,-0.032
-2.370E-06,-0.040
-2.360E-06,0.048
-2.350E-06,0.036
-2.340E-06,0.032
-2.330E-06,0.020
-2.320E-06,-0.008
-2.310E-06,-0.028
-2.300E-06,0.060
-2.290E-06,0.108
-2.280E-06,0.044
-2.270E-06,0.020
-2.260E-06,-0.160
-2.250E-06,-0.168
-2.240E-06,-0.152
-2.230E-06,-0.008
-2.220E-06,0.084
-2.210E-06,0.128
-2.200E-06,0.088
-2.190E-06,0.016
-2.180E-06,-0.056
-2.170E-06,-0.132
-2.160E-06,-0.096
-2.150E-06,-0.040
-2.140E-06,0.080
-2.130E-06,0.100
-2.120E-06,0.088
-2.110E-06,0.004
-2.100E-06,-0.044
-2.090E-06,-0.068
-2.080E-06,-0.044
-2.070E-06,-0.004
-2.060E-06,0.028
-2.050E-06,0.064
-2.040E-06,0.048
-2.030E-06,0.040
-2.020E-06,-0.004
-2.010E-06,-0.024
-2.000E-06,-0.028
-1.990E-06,-0.012
-1.980E-06,0.008
-1.970E-06,0.032
-1.960E-06,0.028
-1.950E-06,0.024
-1.940E-06,0.016
-1.930E-06,-0.016
-1.920E-06,-0.016
-1.910E-06,-0.012
-1.900E-06,0.020
-1.890E-06,0.024
-1.880E-06,0.032
-1.870E-06,0.024
-1.860E-06,0.012
-1.850E-06,0.000
-1.840E-06,0.004
-1.830E-06,0.016
-1.820E-06,0.032
-1.810E-06,0.056
-1.800E-06,0.060
-1.790E-06,0.052
-1.780E-06,0.048
-1.770E-06,0.056
-1.760E-06,0.064
-1.750E-06,0.084
-1.740E-06,0.092
-1.730E-06,0.108
-1.720E-06,0.080
-1.710E-06,-0.020
-1.700E-06,-0.228
-1.690E-06,-0.276
-1.680E-06,-0.268
-1.670E-06,-0.084
-1.660E-06,0.160
-1.650E-06,0.264
-1.640E-06,0.244
-1.630E-06,0.156
-1.620E-06,0.032
-1.610E-06,-0.172
-1.600E-06,-0.376
-1.590E-06,-0.340
-1.580E-06,-0.204
-1.570E-06,0.088
-1.560E-06,0.264
-1.550E-06,0.284
-1.540E-06,0.128
-1.530E-06,-0.084
-1.520E-06,-0.248
-1.510E-06,-0.228
-1.500E-06,-0.120
-1.490E-06,0.072
-1.480E-06,0.204
-1.470E-06,0.180
-1.460E-06,0.120
-1.450E-06,-0.016
-1.440E-06,-0.116
-1.430E-06,-0.168
-1.420E-06,-0.100
-1.410E-06,-0.004
-1.400E-06,0.104
-1.390E-06,0.144
-1.380E-06,0.100
-1.370E-06,0.032
-1.360E-06,-0.060
-1.350E-06,-0.084
-1.340E-06,-0.072
-1.330E-06,-0.008
-1.320E-06,0.036
-1.310E-06,0.080
-1.300E-06,0.076
-1.290E-06,0.032
-1.280E-06,-0.008
-1.270E-06,-0.052
-1.260E-06,-0.048
-1.250E-06,-0.012
-1.240E-06,0.036
-1.230E-06,0.052
-1.220E-06,0.052
-1.210E-06,0.012
-1.200E-06,-0.016
-1.190E-06,-0.036
-1.180E-06,-0.020
-1.170E-06,0.008
-1.160E-06,0.036
-1.150E-06,0.056
-1.140E-06,0.056
-1.130E-06,0.056
-1.120E-06,0.040
-1.110E-06,0.028
-1.100E-06,0.036
-1.090E-06,0.068
-1.080E-06,0.092
-1.070E-06,0.080
-1.060E-06,0.100
-1.050E-06,0.056
-1.040E-06,0.012
-1.030E-06,-0.092
-1.020E-06,-0.192
-1.010E-06,-0.212
-1.000E-06,-0.168
-9.900E-07,-0.024
-9.800E-07,0.120
-9.700E-07,0.128
-9.600E-07,0.112
-9.500E-07,-0.012
-9.400E-07,-0.120
-9.300E-07,-0.140
-9.200E-07,-0.104
-9.100E-07,-0.008
-9.000E-07,0.096
-8.900E-07,0.108
-8.800E-07,0.064
-8.700E-07,-0.012
-8.600E-07,-0.056
-8.500E-07,-0.060
-8.400E-07,-0.044
-8.300E-07,-0.008
-8.200E-07,0.028
-8.100E-07,0.044
-8.000E-07,0.052
-7.900E-07,0.032
-7.800E-07,-0.008
-7.700E-07,-0.032
-7.600E-07,-0.032
-7.500E-07,-0.012
-7.400E-07,0.016
-7.300E-07,0.036
-7.200E-07,0.044
-7.100E-07,0.028
-7.000E-07,0.000
-6.900E-07,-0.024
-6.800E-07,-0.040
-6.700E-07,-0.024
-6.600E-07,0.000
-6.500E-07,0.024
-6.400E-07,0.028
-6.300E-07,0.028
-6.200E-07,0.016
-6.100E-07,-0.004
-6.000E-07,-0.028
-5.900E-07,-0.020
-5.800E-07,-0.004
-5.700E-07,0.024
-5.600E-07,0.032
-5.500E-07,0.028
-5.400E-07,0.016
-5.300E-07,0.004
-5.200E-07,-0.004
-5.100E-07,-0.012
-5.000E-07,0.008
-4.900E-07,0.012
-4.800E-07,0.024
-4.700E-07,0.040
-4.600E-07,0.036
-4.500E-07,0.024
-4.400E-07,0.008
-4.300E-07,0.004
-4.200E-07,0.008
-4.100E-07,0.032
-4.000E-07,0.040
-3.900E-07,0.052
-3.800E-07,0.056
-3.700E-07,0.056
-3.600E-07,0.040
-3.500E-07,0.028
-3.400E-07,0.036
-3.300E-07,0.048
-3.200E-07,0.060
-3.100E-07,0.088
-3.000E-07,0.080
-2.900E-07,0.064
-2.800E-07,0.052
-2.700E-07,0.040
-2.600E-07,0.048
-2.500E-07,0.068
-2.400E-07,0.084
-2.300E-07,0.088
-2.200E-07,0.056
-2.100E-07,0.088
-2.000E-07,0.044
-1.900E-07,0.052
-1.800E-07,0.028
-1.700E-07,0.072
-1.600E-07,0.084
-1.500E-07,0.124
-1.400E-07,0.000
-1.300E-07,-0.164
-1.200E-07,-0.148
-1.100E-07,-0.176
-1.000E-07,-0.004
-9.000E-08,0.196
-8.000E-08,0.216
-7.000E-08,-0.008
-6.000E-08,-0.048
-5.000E-08,-0.288
-4.000E-08,-0.392
-3.000E-08,-0.344
-2.000E-08,-0.060
-1.000E-08,0.176
0.000E+00,0.360
1.000E-08,0.312
2.000E-08,-0.012
3.000E-08,-0.308
4.000E-08,-0.408
5.000E-08,-0.272
6.000E-08,-0.112
7.000E-08,0.120
8.000E-08,0.260
9.000E-08,0.244
1.000E-07,0.072
1.100E-07,-0.096
1.200E-07,-0.244
1.300E-07,-0.244
1.400E-07,-0.108
1.500E-07,0.100
1.600E-07,0.188
1.700E-07,0.208
1.800E-07,0.140
1.900E-07,0.004
2.000E-07,-0.108
2.100E-07,-0.120
2.200E-07,-0.080
2.300E-07,0.024
2.400E-07,0.092
2.500E-07,0.092
2.600E-07,0.060
2.700E-07,-0.016
2.800E-07,-0.064
2.900E-07,-0.064
3.000E-07,-0.028
3.100E-07,0.016
3.200E-07,0.080
3.300E-07,0.088
3.400E-07,0.080
3.500E-07,0.036
3.600E-07,0.000
3.700E-07,-0.036
3.800E-07,-0.024
3.900E-07,0.040
4.000E-07,0.064
4.100E-07,0.088
4.200E-07,0.092
4.300E-07,0.084
4.400E-07,0.084
4.500E-07,0.084
4.600E-07,0.112
4.700E-07,0.136
4.800E-07,0.160
4.900E-07,0.164
5.000E-07,0.160
5.100E-07,0.144
5.200E-07,0.112
5.300E-07,0.076
5.400E-07,0.088
5.500E-07,0.096
5.600E-07,0.128
5.700E-07,0.092
5.800E-07,0.136
5.900E-07,0.152
6.000E-07,0.076
6.100E-07,-0.056
6.200E-07,-0.156
6.300E-07,-0.180
6.400E-07,-0.152
6.500E-07,0.024
6.600E-07,0.132
6.700E-07,0.232
6.800E-07,0.176
6.900E-07,0.048
7.000E-07,-0.040
7.100E-07,-0.024
7.200E-07,-0.076
7.300E-07,0.088
7.400E-07,0.264
7.500E-07,0.112
7.600E-07,0.104
7.700E-07,-0.116
7.800E-07,-0.152
7.900E-07,-0.208
8.000E-07,-0.272
8.100E-07,-0.236
8.200E-07,-0.192
8.300E-07,-0.128
8.400E-07,-0.040
8.500E-07,0.096
8.600E-07,0.040
8.700E-07,-0.040
8.800E-07,-0.156
8.900E-07,-0.040
9.000E-07,0.112
9.100E-07,0.200
9.200E-07,0.204
9.300E-07,0.236
9.400E-07,0.100
9.500E-07,-0.104
9.600E-07,-0.152
9.700E-07,-0.172
9.800E-07,-0.184
9.900E-07,-0.100
1.000E-06,-0.004
1.010E-06,0.020
1.020E-06,0.028
1.030E-06,-0.056
1.040E-06,-0.080
1.050E-06,-0.076
1.060E-06,0.000
1.070E-06,0.060
1.080E-06,0.104
1.090E-06,0.160
1.100E-06,0.132
1.110E-06,0.072
1.120E-06,0.060
1.130E-06,-0.024
1.140E-06,-0.036
1.150E-06,0.056
1.160E-06,0.100
1.170E-06,0.192
1.180E-06,0.240
1.190E-06,0.136
1.200E-06,0.056
1.210E-06,-0.024
1.220E-06,-0.052
1.230E-06,-0.076
1.240E-06,0.088
1.250E-06,0.172
1.260E-06,0.216
1.270E-06,0.248
1.280E-06,0.160
1.290E-06,0.076
1.300E-06,0.040
1.310E-06,0.124
1.320E-06,0.192
1.330E-06,0.288
1.340E-06,0.316
1.350E-06,0.256
1.360E-06,0.180
1.370E-06,0.128
1.380E-06,0.108
1.390E-06,0.136
1.400E-06,0.200
1.410E-06,0.256
1.420E-06,0.260
1.430E-06,0.236
1.440E-06,0.188
1.450E-06,0.132
1.460E-06,0.120
1.470E-06,0.124
1.480E-06,0.156
1.490E-06,0.192
1.500E-06,0.200
1.510E-06,0.156
1.520E-06,0.108
1.530E-06,0.028
1.540E-06,-0.068
1.550E-06,-0.152
1.560E-06,-0.160
1.570E-06,-0.076
1.580E-06,-0.040
1.590E-06,0.036
1.600E-06,-0.020
1.610E-06,-0.012
1.620E-06,-0.076
1.630E-06,-0.112
1.640E-06,-0.120
1.650E-06,-0.148
1.660E-06,0.004
1.670E-06,0.108
1.680E-06,0.188
1.690E-06,0.204
1.700E-06,0.140
1.710E-06,0.096
1.720E-06,0.000
1.730E-06,-0.008
1.740E-06,0.052
1.750E-06,0.124
1.760E-06,0.196
1.770E-06,0.192
1.780E-06,0.152
1.790E-06,0.080
1.800E-06,0.064
1.810E-06,0.044
1.820E-06,0.044
1.830E-06,0.104
1.840E-06,0.148
1.850E-06,0.240
1.860E-06,0.208
1.870E-06,0.180
1.880E-06,0.152
1.890E-06,0.108
1.900E-06,0.188
1.910E-06,0.232
1.920E-06,0.292
1.930E-06,0.288
1.940E-06,0.272
1.950E-06,0.248
1.960E-06,0.192
1.970E-06,0.192
1.980E-06,0.176
1.990E-06,0.200
2.000E-06,0.224
2.010E-06,0.264
2.020E-06,0.244
2.030E-06,0.220
2.040E-06,0.192
2.050E-06,0.176
2.060E-06,0.180
2.070E-06,0.188
2.080E-06,0.220
2.090E-06,0.228
2.100E-06,0.248
2.110E-06,0.224
2.120E-06,0.208
2.130E-06,0.188
2.140E-06,0.184
2.150E-06,0.192
2.160E-06,0.208
2.170E-06,0.212
2.180E-06,0.220
2.190E-06,0.224
2.200E-06,0.208
2.210E-06,0.196
2.220E-06,0.192
2.230E-06,0.196
2.240E-06,0.204
2.250E-06,0.220
2.260E-06,0.224
2.270E-06,0.220
2.280E-06,0.212
2.290E-06,0.200
2.300E-06,0.200
2.310E-06,0.200
2.320E-06,0.200
2.330E-06,0.204
2.340E-06,0.212
2.350E-06,0.216
2.360E-06,0.204
2.370E-06,0.204
2.380E-06,0.208
2.390E-06,0.204
2.400E-06,0.208
2.410E-06,0.212
2.420E-06,0.208
2.430E-06,0.208
2.440E-06,0.204
2.450E-06,0.208
2.460E-06,0.204
2.470E-06,0.200
2.480E-06,0.208
2.490E-06,0.204
2.500E-06,0.208
2.510E-06,0.204
2.520E-06,0.200
2.530E-06,0.204
2.540E-06,0.200
2.550E-06,0.200
2.560E-06,0.204
2.570E-06,0.200
2.580E-06,0.204
2.590E-06,0.204
2.600E-06,0.208
2.610E-06,0.200
2.620E-06,0.196
2.630E-06,0.192
2.640E-06,0.188
2.650E-06,0.196
2.660E-06,0.196
2.670E-06,0.204
2.680E-06,0.200
2.690E-06,0.192
2.700E-06,0.192
2.710E-06,0.192
2.720E-06,0.196
2.730E-06,0.196
2.740E-06,0.196
2.750E-06,0.196
2.760E-06,0.200
2.770E-06,0.196
2.780E-06,0.200
2.790E-06,0.192
2.800E-06,0.192
2.810E-06,0.188
2.820E-06,0.192
2.830E-06,0.192
2.840E-06,0.192
2.850E-06,0.196
2.860E-06,0.192
2.870E-06,0.192
2.880E-06,0.192
2.890E-06,0.192
2.900E-06,0.192
2.910E-06,0.196
2.920E-06,0.196
2.930E-06,0.192
2.940E-06,0.188
2.950E-06,0.192
2.960E-06,0.188
2.970E-06,0.192
2.980E-06,0.188
2.990E-06,0.192
3.000E-06,0.192
3.010E-06,0.188
3.020E-06,0.192
3.030E-06,0.192
3.040E-06,0.184
3.050E-06,0.184
3.060E-06,0.184
3.070E-06,0.188
3.080E-06,0.176
3.090E-06,0.180
3.100E-06,0.176
3.110E-06,0.176
3.120E-06,0.180
3.130E-06,0.188
3.140E-06,0.184
3.150E-06,0.184
3.160E-06,0.184
3.170E-06,0.180
3.180E-06,0.176
3.190E-06,0.172
3.200E-06,0.172
3.210E-06,0.180
3.220E-06,0.184
3.230E-06,0.176
3.240E-06,0.180
3.250E-06,0.172
3.260E-06,0.168
3.270E-06,0.176
3.280E-06,0.180
3.290E-06,0.180
3.300E-06,0.176
3.310E-06,0.184
3.320E-06,0.180
3.330E-06,0.176
3.340E-06,0.172
3.350E-06,0.172
3.360E-06,0.172
3.370E-06,0.180
3.380E-06,0.180
3.390E-06,0.176
3.400E-06,0.180
3.410E-06,0.180
3.420E-06,0.180
3.430E-06,0.168
3.440E-06,0.172
3.450E-06,0.176
3.460E-06,0.176
3.470E-06,0.176
3.480E-06,0.168
3.490E-06,0.172
3.500E-06,0.168
3.510E-06,0.168
3.520E-06,0.164
3.530E-06,0.164
3.540E-06,0.160
3.550E-06,0.168
3.560E-06,0.168
3.570E-06,0.172
3.580E-06,0.168
3.590E-06,0.160
3.600E-06,0.164
3.610E-06,0.164
3.620E-06,0.164
3.630E-06,0.164
3.640E-06,0.160
3.650E-06,0.160
3.660E-06,0.160
3.670E-06,0.164
3.680E-06,0.160
3.690E-06,0.160
3.700E-06,0.164
3.710E-06,0.160
3.720E-06,0.152
3.730E-06,0.156
3.740E-06,0.164
3.750E-06,0.152
3.760E-06,0.156
3.770E-06,0.156
3.780E-06,0.156
3.790E-06,0.156
3.800E-06,0.152
3.810E-06,0.152
3.820E-06,0.156
3.830E-06,0.156
3.840E-06,0.156
3.850E-06,0.156
3.860E-06,0.160
3.870E-06,0.156
3.880E-06,0.152
3.890E-06,0.152
3.900E-06,0.152
3.910E-06,0.148
3.920E-06,0.148
3.930E-06,0.152
3.940E-06,0.148
3.950E-06,0.148
3.960E-06,0.144
3.970E-06,0.148
3.980E-06,0.148
3.990E-06,0.152
4.000E-06,0.148
4.010E-06,0.148
4.020E-06,0.148
4.030E-06,0.144
4.040E-06,0.144
4.050E-06,0.148
4.060E-06,0.148
4.070E-06,0.148
4.080E-06,0.148
4.090E-06,0.148
4.100E-06,0.144
4.110E-06,0.136
4.120E-06,0.136
4.130E-06,0.136
4.140E-06,0.140
4.150E-06,0.136
4.160E-06,0.140
4.170E-06,0.140
4.180E-06,0.140
4.190E-06,0.136
4.200E-06,0.136
4.210E-06,0.136
4.220E-06,0.140
4.230E-06,0.136
4.240E-06,0.140
4.250E-06,0.140
4.260E-06,0.136
4.270E-06,0.128
4.280E-06,0.128
4.290E-06,0.132
4.300E-06,0.128
4.310E-06,0.132
4.320E-06,0.128
4.330E-06,0.128
4.340E-06,0.128
4.350E-06,0.128
4.360E-06,0.124
4.370E-06,0.124
4.380E-06,0.128
4.390E-06,0.128
4.400E-06,0.128
4.410E-06,0.132
4.420E-06,0.132
4.430E-06,0.128
4.440E-06,0.128
4.450E-06,0.128
4.460E-06,0.128
4.470E-06,0.124
4.480E-06,0.120
4.490E-06,0.128
4.500E-06,0.128
4.510E-06,0.128
4.520E-06,0.128
4.530E-06,0.128
4.540E-06,0.128
4.550E-06,0.132
4.560E-06,0.128
4.570E-06,0.128
4.580E-06,0.128
4.590E-06,0.128
4.600E-06,0.120
4.610E-06,0.120
4.620E-06,0.120
4.630E-06,0.124
4.640E-06,0.124
4.650E-06,0.124
4.660E-06,0.124
4.670E-06,0.124
4.680E-06,0.120
4.690E-06,0.120
4.700E-06,0.116
4.710E-06,0.116
4.720E-06,0.116
4.730E-06,0.124
4.740E-06,0.124
4.750E-06,0.124
4.760E-06,0.124
4.770E-06,0.112
4.780E-06,0.116
4.790E-06,0.116
4.800E-06,0.112
4.810E-06,0.112
4.820E-06,0.120
4.830E-06,0.120
4.840E-06,0.120
4.850E-06,0.112
4.860E-06,0.112
4.870E-06,0.112
4.880E-06,0.112
4.890E-06,0.108
4.900E-06,0.112
4.910E-06,0.108
4.920E-06,0.108
4.930E-06,0.108
4.940E-06,0.108
4.950E-06,0.108
4.960E-06,0.108
4.970E-06,0.108
4.980E-06,0.108
4.990E-06,0.104
5.000E-06,0.108
5.010E-06,0.112
5.020E-06,0.104
5.030E-06,0.104
5.040E-06,0.100
5.050E-06,0.104
5.060E-06,0.100
5.070E-06,0.104
5.080E-06,0.104
5.090E-06,0.104
5.100E-06,0.104
5.110E-06,0.096
5.120E-06,0.096
5.130E-06,0.092
5.140E-06,0.100
5.150E-06,0.100
5.160E-06,0.100
5.170E-06,0.096
5.180E-06,0.096
5.190E-06,0.096
5.200E-06,0.092
5.210E-06,0.096
5.220E-06,0.096
5.230E-06,0.096
5.240E-06,0.092
5.250E-06,0.092
5.260E-06,0.096
5.270E-06,0.096
5.280E-06,0.092
5.290E-06,0.088
5.300E-06,0.088
5.310E-06,0.092
5.320E-06,0.088
5.330E-06,0.092
5.340E-06,0.088
5.350E-06,0.092
5.360E-06,0.088
5.370E-06,0.092
5.380E-06,0.092
5.390E-06,0.092
5.400E-06,0.092
5.410E-06,0.092
5.420E-06,0.092
5.430E-06,0.088
5.440E-06,0.092
5.450E-06,0.088
5.460E-06,0.092
5.470E-06,0.088
5.480E-06,0.084
5.490E-06,0.084
5.500E-06,0.084
5.510E-06,0.084
5.520E-06,0.088
5.530E-06,0.088
5.540E-06,0.080
5.550E-06,0.080
5.560E-06,0.076
5.570E-06,0.084
5.580E-06,0.080
5.590E-06,0.080
5.600E-06,0.076
5.610E-06,0.080
5.620E-06,0.080
5.630E-06,0.076
5.640E-06,0.076
5.650E-06,0.080
5.660E-06,0.080
5.670E-06,0.076
5.680E-06,0.080
5.690E-06,0.080
5.700E-06,0.076
5.710E-06,0.072
5.720E-06,0.076
5.730E-06,0.072
5.740E-06,0.076
5.750E-06,0.072
5.760E-06,0.076
5.770E-06,0.076
5.780E-06,0.072
5.790E-06,0.068
5.800E-06,0.068
5.810E-06,0.076
5.820E-06,0.068
5.830E-06,0.072
5.840E-06,0.068
5.850E-06,0.068
5.860E-06,0.068
5.870E-06,0.064
5.880E-06,0.072
5.890E-06,0.068
5.900E-06,0.064
5.910E-06,0.068
5.920E-06,0.072
5.930E-06,0.064
5.940E-06,0.068
5.950E-06,0.064
5.960E-06,0.060
5.970E-06,0.064
5.980E-06,0.060
5.990E-06,0.060
6.000E-06,0.060
6.010E-06,0.064
6.020E-06,0.068
6.030E-06,0.060
6.040E-06,0.064
6.050E-06,0.064
6.060E-06,0.060
6.070E-06,0.060
6.080E-06,0.060
6.090E-06,0.060
6.100E-06,0.060
6.110E-06,0.060
6.120E-06,0.056
6.130E-06,0.056
6.140E-06,0.056
6.150E-06,0.056
6.160E-06,0.056
6.170E-06,0.056
6.180E-06,0.056
6.190E-06,0.056
6.200E-06,0.056
6.210E-06,0.056
6.220E-06,0.056
6.230E-06,0.056
6.240E-06,0.052
6.250E-06,0.052
6.260E-06,0.056
6.270E-06,0.052
6.280E-06,0.048
6.290E-06,0.056
6.300E-06,0.052
6.310E-06,0.056
6.320E-06,0.052
6.330E-06,0.052
6.340E-06,0.048
6.350E-06,0.052
6.360E-06,0.048
6.370E-06,0.052
6.380E-06,0.052
6.390E-06,0.052
6.400E-06,0.052
6.410E-06,0.048
6.420E-06,0.044
6.430E-06,0.048
6.440E-06,0.048
6.450E-06,0.044
6.460E-06,0.048
6.470E-06,0.052
6.480E-06,0.048
6.490E-06,0.044
6.500E-06,0.044
6.510E-06,0.048
6.520E-06,0.040
6.530E-06,0.040
6.540E-06,0.048
6.550E-06,0.044
6.560E-06,0.044
6.570E-06,0.044
6.580E-06,0.044
6.590E-06,0.044
6.600E-06,0.044
6.610E-06,0.044
6.620E-06,0.048
6.630E-06,0.040
6.640E-06,0.044
6.650E-06,0.044
6.660E-06,0.040
6.670E-06,0.040
6.680E-06,0.036
6.690E-06,0.040
6.700E-06,0.048
6.710E-06,0.044
6.720E-06,0.044
6.730E-06,0.036
6.740E-06,0.040
6.750E-06,0.040
6.760E-06,0.032
6.770E-06,0.040
6.780E-06,0.036
6.790E-06,0.044
6.800E-06,0.040
6.810E-06,0.036
6.820E-06,0.028
6.830E-06,0.032
6.840E-06,0.032
6.850E-06,0.032
6.860E-06,0.044
6.870E-06,0.052
6.880E-06,0.040
6.890E-06,0.032
6.900E-06,0.028
6.910E-06,0.020
6.920E-06,0.020
6.930E-06,0.028
6.940E-06,0.036
6.950E-06,0.040
6.960E-06,0.036
6.970E-06,0.028
6.980E-06,0.028
6.990E-06,0.028
7.000E-06,0.024
7.010E-06,0.024
7.020E-06,0.028
7.030E-06,0.036
7.040E-06,0.036
7.050E-06,0.032
7.060E-06,0.028
7.070E-06,0.020
7.080E-06,0.024
7.090E-06,0.028
7.100E-06,0.028
7.110E-06,0.024
7.120E-06,0.028
7.130E-06,0.032
7.140E-06,0.020
7.150E-06,0.016
7.160E-06,0.020
7.170E-06,0.016
7.180E-06,0.024
7.190E-06,0.032
7.200E-06,0.032
7.210E-06,0.028
7.220E-06,0.028
7.230E-06,0.016
7.240E-06,0.020
7.250E-06,0.024
7.260E-06,0.020
7.270E-06,0.020
7.280E-06,0.020
7.290E-06,0.024
7.300E-06,0.020
7.310E-06,0.020
7.320E-06,0.012
7.330E-06,0.020
7.340E-06,0.016
7.350E-06,0.020
7.360E-06,0.028
7.370E-06,0.016
7.380E-06,0.020
7.390E-06,0.024
7.400E-06,0.028
7.410E-06,0.020
7.420E-06,-0.012
7.430E-06,0.000
7.440E-06,0.024
7.450E-06,0.008
7.460E-06,0.028
7.470E-06,0.020
7.480E-06,0.012
7.490E-06,0.016
7.500E-06,0.008
7.510E-06,0.024
7.520E-06,0.008
7.530E-06,0.020
7.540E-06,0.016
7.550E-06,0.012
7.560E-06,0.012
7.570E-06,0.004
7.580E-06,0.012
7.590E-06,0.008
7.600E-06,0.008
7.610E-06,0.020
7.620E-06,0.008
7.630E-06,0.008
7.640E-06,0.008
7.650E-06,0.012
7.660E-06,0.004
7.670E-06,0.004
7.680E-06,0.012
7.690E-06,0.020
7.700E-06,0.016
7.710E-06,0.012
7.720E-06,0.012
7.730E-06,0.008
7.740E-06,0.008
7.750E-06,0.004
7.760E-06,0.008
7.770E-06,0.008
7.780E-06,0.016
7.790E-06,0.004
