mediciones/Mediciones filtradas (saque las feas)/6-10/46/WaveData55269.csv

#timebase=2000000(ps)
,#voltbase=100000(mv/100)
#size=4000
-4.200E-06,0.060
-4.190E-06,0.016
-4.180E-06,-0.052
-4.170E-06,-0.120
-4.160E-06,-0.108
-4.150E-06,-0.076
-4.140E-06,0.028
-4.130E-06,0.100
-4.120E-06,0.120
-4.110E-06,0.064
-4.100E-06,-0.004
-4.090E-06,-0.060
-4.080E-06,-0.068
-4.070E-06,-0.004
-4.060E-06,0.048
-4.050E-06,0.084
-4.040E-06,0.060
-4.030E-06,0.012
-4.020E-06,-0.052
-4.010E-06,-0.064
-4.000E-06,-0.060
-3.990E-06,-0.004
-3.980E-06,0.040
-3.970E-06,0.040
-3.960E-06,0.052
-3.950E-06,0.036
-3.940E-06,0.020
-3.930E-06,-0.020
-3.920E-06,-0.012
-3.910E-06,-0.008
-3.900E-06,-0.004
-3.890E-06,0.000
-3.880E-06,0.004
-3.870E-06,0.008
-3.860E-06,0.000
-3.850E-06,-0.008
-3.840E-06,-0.028
-3.830E-06,-0.032
-3.820E-06,-0.012
-3.810E-06,0.020
-3.800E-06,0.044
-3.790E-06,0.056
-3.780E-06,0.028
-3.770E-06,0.012
-3.760E-06,-0.008
-3.750E-06,-0.020
-3.740E-06,-0.020
-3.730E-06,-0.016
-3.720E-06,0.012
-3.710E-06,0.016
-3.700E-06,0.004
-3.690E-06,0.000
-3.680E-06,0.000
-3.670E-06,-0.004
-3.660E-06,-0.004
-3.650E-06,0.012
-3.640E-06,0.036
-3.630E-06,0.024
-3.620E-06,0.016
-3.610E-06,0.016
-3.600E-06,0.000
-3.590E-06,-0.008
-3.580E-06,-0.008
-3.570E-06,-0.004
-3.560E-06,-0.004
-3.550E-06,0.004
-3.540E-06,0.012
-3.530E-06,0.004
-3.520E-06,0.008
-3.510E-06,0.004
-3.500E-06,0.000
-3.490E-06,0.008
-3.480E-06,0.008
-3.470E-06,0.000
-3.460E-06,0.012
-3.450E-06,0.012
-3.440E-06,-0.008
-3.430E-06,-0.004
-3.420E-06,0.000
-3.410E-06,-0.008
-3.400E-06,-0.004
-3.390E-06,0.004
-3.380E-06,0.008
-3.370E-06,0.012
-3.360E-06,0.004
-3.350E-06,0.000
-3.340E-06,0.000
-3.330E-06,0.004
-3.320E-06,0.008
-3.310E-06,0.012
-3.300E-06,0.024
-3.290E-06,0.028
-3.280E-06,0.008
-3.270E-06,-0.004
-3.260E-06,-0.020
-3.250E-06,-0.016
-3.240E-06,0.000
-3.230E-06,0.024
-3.220E-06,0.012
-3.210E-06,0.008
-3.200E-06,0.000
-3.190E-06,-0.004
-3.180E-06,-0.008
-3.170E-06,-0.004
-3.160E-06,0.000
-3.150E-06,-0.004
-3.140E-06,0.024
-3.130E-06,0.012
-3.120E-06,0.008
-3.110E-06,-0.004
-3.100E-06,0.000
-3.090E-06,-0.004
-3.080E-06,-0.008
-3.070E-06,0.012
-3.060E-06,-0.036
-3.050E-06,0.080
-3.040E-06,-0.004
-3.030E-06,0.020
-3.020E-06,0.020
-3.010E-06,-0.020
-3.000E-06,-0.008
-2.990E-06,0.028
-2.980E-06,0.012
-2.970E-06,-0.004
-2.960E-06,0.008
-2.950E-06,0.028
-2.940E-06,0.012
-2.930E-06,0.004
-2.920E-06,0.004
-2.910E-06,-0.020
-2.900E-06,-0.008
-2.890E-06,0.004
-2.880E-06,0.016
-2.870E-06,0.012
-2.860E-06,0.012
-2.850E-06,0.008
-2.840E-06,-0.008
-2.830E-06,-0.008
-2.820E-06,-0.008
-2.810E-06,0.004
-2.800E-06,0.004
-2.790E-06,0.016
-2.780E-06,0.008
-2.770E-06,0.004
-2.760E-06,-0.004
-2.750E-06,0.000
-2.740E-06,0.000
-2.730E-06,-0.004
-2.720E-06,0.008
-2.710E-06,0.008
-2.700E-06,0.012
-2.690E-06,0.008
-2.680E-06,0.008
-2.670E-06,0.004
-2.660E-06,0.008
-2.650E-06,0.012
-2.640E-06,0.008
-2.630E-06,0.008
-2.620E-06,0.016
-2.610E-06,0.016
-2.600E-06,0.008
-2.590E-06,0.012
-2.580E-06,0.008
-2.570E-06,0.016
-2.560E-06,0.016
-2.550E-06,0.024
-2.540E-06,0.028
-2.530E-06,0.032
-2.520E-06,0.032
-2.510E-06,0.028
-2.500E-06,0.012
-2.490E-06,0.020
-2.480E-06,0.008
-2.470E-06,0.000
-2.460E-06,-0.012
-2.450E-06,-0.012
-2.440E-06,-0.012
-2.430E-06,0.008
-2.420E-06,0.016
-2.410E-06,0.020
-2.400E-06,0.024
-2.390E-06,0.024
-2.380E-06,0.008
-2.370E-06,-0.008
-2.360E-06,-0.012
-2.350E-06,-0.016
-2.340E-06,-0.008
-2.330E-06,0.008
-2.320E-06,0.012
-2.310E-06,0.020
-2.300E-06,0.032
-2.290E-06,0.024
-2.280E-06,0.000
-2.270E-06,-0.036
-2.260E-06,-0.056
-2.250E-06,-0.032
-2.240E-06,-0.008
-2.230E-06,0.024
-2.220E-06,0.044
-2.210E-06,0.036
-2.200E-06,0.024
-2.190E-06,0.016
-2.180E-06,0.000
-2.170E-06,0.024
-2.160E-06,0.032
-2.150E-06,0.048
-2.140E-06,0.036
-2.130E-06,0.000
-2.120E-06,-0.004
-2.110E-06,-0.028
-2.100E-06,-0.048
-2.090E-06,-0.044
-2.080E-06,-0.028
-2.070E-06,0.000
-2.060E-06,0.012
-2.050E-06,0.008
-2.040E-06,0.004
-2.030E-06,-0.008
-2.020E-06,-0.024
-2.010E-06,-0.020
-2.000E-06,-0.020
-1.990E-06,0.000
-1.980E-06,0.020
-1.970E-06,0.028
-1.960E-06,0.016
-1.950E-06,0.000
-1.940E-06,-0.020
-1.930E-06,-0.028
-1.920E-06,-0.020
-1.910E-06,-0.008
-1.900E-06,0.008
-1.890E-06,0.028
-1.880E-06,0.052
-1.870E-06,0.040
-1.860E-06,0.024
-1.850E-06,0.012
-1.840E-06,0.000
-1.830E-06,-0.004
-1.820E-06,-0.004
-1.810E-06,0.024
-1.800E-06,0.036
-1.790E-06,0.044
-1.780E-06,0.028
-1.770E-06,0.024
-1.760E-06,0.008
-1.750E-06,0.008
-1.740E-06,0.016
-1.730E-06,0.036
-1.720E-06,0.056
-1.710E-06,0.060
-1.700E-06,0.056
-1.690E-06,0.052
-1.680E-06,0.044
-1.670E-06,0.040
-1.660E-06,0.044
-1.650E-06,0.056
-1.640E-06,0.076
-1.630E-06,0.080
-1.620E-06,0.076
-1.610E-06,0.044
-1.600E-06,0.032
-1.590E-06,0.024
-1.580E-06,0.024
-1.570E-06,0.028
-1.560E-06,0.044
-1.550E-06,0.036
-1.540E-06,0.036
-1.530E-06,0.020
-1.520E-06,0.004
-1.510E-06,-0.004
-1.500E-06,-0.036
-1.490E-06,-0.176
-1.480E-06,-0.256
-1.470E-06,-0.320
-1.460E-06,-0.200
-1.450E-06,-0.036
-1.440E-06,0.112
-1.430E-06,0.136
-1.420E-06,0.056
-1.410E-06,-0.004
-1.400E-06,-0.100
-1.390E-06,-0.148
-1.380E-06,-0.124
-1.370E-06,-0.012
-1.360E-06,0.088
-1.350E-06,0.136
-1.340E-06,0.100
-1.330E-06,0.036
-1.320E-06,-0.056
-1.310E-06,-0.092
-1.300E-06,-0.084
-1.290E-06,-0.024
-1.280E-06,0.032
-1.270E-06,0.076
-1.260E-06,0.076
-1.250E-06,0.032
-1.240E-06,-0.008
-1.230E-06,-0.052
-1.220E-06,-0.056
-1.210E-06,-0.040
-1.200E-06,0.004
-1.190E-06,0.032
-1.180E-06,0.048
-1.170E-06,0.048
-1.160E-06,0.036
-1.150E-06,-0.012
-1.140E-06,-0.028
-1.130E-06,-0.040
-1.120E-06,-0.012
-1.110E-06,0.036
-1.100E-06,0.036
-1.090E-06,0.072
-1.080E-06,0.044
-1.070E-06,0.012
-1.060E-06,-0.024
-1.050E-06,-0.028
-1.040E-06,0.000
-1.030E-06,0.020
-1.020E-06,0.064
-1.010E-06,0.048
-1.000E-06,0.044
-9.900E-07,0.008
-9.800E-07,-0.024
-9.700E-07,-0.020
-9.600E-07,0.000
-9.500E-07,0.040
-9.400E-07,0.064
-9.300E-07,0.076
-9.200E-07,0.064
-9.100E-07,0.052
-9.000E-07,0.044
-8.900E-07,0.060
-8.800E-07,0.064
-8.700E-07,0.108
-8.600E-07,0.140
-8.500E-07,0.148
-8.400E-07,0.140
-8.300E-07,0.048
-8.200E-07,-0.120
-8.100E-07,-0.248
-8.000E-07,-0.340
-7.900E-07,-0.276
-7.800E-07,-0.068
-7.700E-07,0.172
-7.600E-07,0.252
-7.500E-07,0.240
-7.400E-07,0.052
-7.300E-07,-0.072
-7.200E-07,-0.144
-7.100E-07,-0.160
-7.000E-07,0.020
-6.900E-07,0.120
-6.800E-07,0.196
-6.700E-07,0.184
-6.600E-07,0.040
-6.500E-07,-0.104
-6.400E-07,-0.120
-6.300E-07,-0.088
-6.200E-07,0.048
-6.100E-07,0.096
-6.000E-07,0.160
-5.900E-07,0.148
-5.800E-07,-0.028
-5.700E-07,-0.132
-5.600E-07,-0.192
-5.500E-07,-0.144
-5.400E-07,-0.144
-5.300E-07,-0.068
-5.200E-07,-0.072
-5.100E-07,0.116
-5.000E-07,0.208
-4.900E-07,0.084
-4.800E-07,0.000
-4.700E-07,-0.136
-4.600E-07,-0.132
-4.500E-07,-0.072
-4.400E-07,-0.024
-4.300E-07,0.032
-4.200E-07,0.060
-4.100E-07,0.060
-4.000E-07,-0.012
-3.900E-07,0.028
-3.800E-07,0.000
-3.700E-07,0.000
-3.600E-07,-0.004
-3.500E-07,0.060
-3.400E-07,0.040
-3.300E-07,0.028
-3.200E-07,0.032
-3.100E-07,0.012
-3.000E-07,0.040
-2.900E-07,0.064
-2.800E-07,0.060
-2.700E-07,0.032
-2.600E-07,0.028
-2.500E-07,0.032
-2.400E-07,0.040
-2.300E-07,0.048
-2.200E-07,0.076
-2.100E-07,0.076
-2.000E-07,0.088
-1.900E-07,0.088
-1.800E-07,0.056
-1.700E-07,0.020
-1.600E-07,-0.004
-1.500E-07,0.012
-1.400E-07,0.040
-1.300E-07,0.068
-1.200E-07,0.068
-1.100E-07,0.060
-1.000E-07,0.052
-9.000E-08,0.064
-8.000E-08,0.032
-7.000E-08,0.028
-6.000E-08,0.036
-5.000E-08,-0.140
-4.000E-08,-0.252
-3.000E-08,-0.508
-2.000E-08,-0.508
-1.000E-08,-0.512
0.000E+00,0.536
1.000E-08,0.540
2.000E-08,0.540
3.000E-08,0.272
4.000E-08,-0.512
5.000E-08,-0.508
6.000E-08,-0.508
7.000E-08,-0.112
8.000E-08,0.024
9.000E-08,0.532
1.000E-07,0.536
1.100E-07,0.536
1.200E-07,-0.024
1.300E-07,-0.400
1.400E-07,-0.512
1.500E-07,-0.476
1.600E-07,-0.048
1.700E-07,0.312
1.800E-07,0.512
1.900E-07,0.416
2.000E-07,0.184
2.100E-07,-0.180
2.200E-07,-0.272
2.300E-07,-0.300
2.400E-07,-0.132
2.500E-07,0.100
2.600E-07,0.300
2.700E-07,0.344
2.800E-07,0.208
2.900E-07,0.016
3.000E-07,-0.200
3.100E-07,-0.212
3.200E-07,-0.108
3.300E-07,0.100
3.400E-07,0.256
3.500E-07,0.200
3.600E-07,0.204
3.700E-07,-0.096
3.800E-07,-0.272
3.900E-07,-0.384
4.000E-07,-0.320
4.100E-07,-0.040
4.200E-07,0.128
4.300E-07,0.160
4.400E-07,0.204
4.500E-07,0.164
4.600E-07,-0.084
4.700E-07,-0.172
4.800E-07,-0.272
4.900E-07,-0.164
5.000E-07,0.048
5.100E-07,0.220
5.200E-07,0.256
5.300E-07,0.024
5.400E-07,-0.136
5.500E-07,-0.232
5.600E-07,-0.204
5.700E-07,-0.084
5.800E-07,0.084
5.900E-07,0.192
6.000E-07,0.208
6.100E-07,0.124
6.200E-07,-0.012
6.300E-07,-0.152
6.400E-07,-0.176
6.500E-07,-0.104
6.600E-07,0.020
6.700E-07,0.136
6.800E-07,0.164
6.900E-07,0.056
7.000E-07,-0.036
7.100E-07,-0.204
7.200E-07,-0.200
7.300E-07,-0.104
7.400E-07,0.016
7.500E-07,0.136
7.600E-07,0.108
7.700E-07,0.068
7.800E-07,0.000
7.900E-07,-0.104
8.000E-07,-0.076
8.100E-07,-0.024
8.200E-07,0.020
8.300E-07,0.080
8.400E-07,0.100
8.500E-07,0.068
8.600E-07,0.004
8.700E-07,-0.040
8.800E-07,-0.084
8.900E-07,-0.044
9.000E-07,0.024
9.100E-07,0.060
9.200E-07,0.092
9.300E-07,0.084
9.400E-07,0.048
9.500E-07,0.016
9.600E-07,-0.004
9.700E-07,0.008
9.800E-07,0.028
9.900E-07,0.084
1.000E-06,0.124
1.010E-06,0.128
1.020E-06,0.112
1.030E-06,0.080
1.040E-06,0.048
1.050E-06,0.040
1.060E-06,0.032
1.070E-06,0.020
1.080E-06,-0.008
1.090E-06,-0.036
1.100E-06,-0.056
1.110E-06,-0.040
1.120E-06,-0.020
1.130E-06,0.024
1.140E-06,0.020
1.150E-06,0.044
1.160E-06,0.036
1.170E-06,-0.004
1.180E-06,-0.024
1.190E-06,-0.008
1.200E-06,0.012
1.210E-06,0.052
1.220E-06,0.084
1.230E-06,0.120
1.240E-06,0.144
1.250E-06,0.084
1.260E-06,-0.056
1.270E-06,-0.244
1.280E-06,-0.372
1.290E-06,-0.296
1.300E-06,-0.104
1.310E-06,0.092
1.320E-06,0.168
1.330E-06,0.236
1.340E-06,0.076
1.350E-06,-0.100
1.360E-06,-0.172
1.370E-06,-0.152
1.380E-06,0.012
1.390E-06,0.080
1.400E-06,0.156
1.410E-06,0.092
1.420E-06,0.044
1.430E-06,-0.072
1.440E-06,-0.116
1.450E-06,-0.088
1.460E-06,-0.016
1.470E-06,0.104
1.480E-06,0.144
1.490E-06,0.160
1.500E-06,0.076
1.510E-06,0.024
1.520E-06,-0.012
1.530E-06,0.036
1.540E-06,0.104
1.550E-06,0.152
1.560E-06,0.148
1.570E-06,0.088
1.580E-06,-0.004
1.590E-06,-0.108
1.600E-06,-0.164
1.610E-06,-0.104
1.620E-06,-0.008
1.630E-06,0.104
1.640E-06,0.104
1.650E-06,0.096
1.660E-06,-0.012
1.670E-06,-0.132
1.680E-06,-0.232
1.690E-06,-0.148
1.700E-06,-0.052
1.710E-06,0.048
1.720E-06,0.132
1.730E-06,0.176
1.740E-06,0.108
1.750E-06,0.008
1.760E-06,0.012
1.770E-06,0.004
1.780E-06,0.036
1.790E-06,0.052
1.800E-06,0.068
1.810E-06,0.076
1.820E-06,0.068
1.830E-06,0.084
1.840E-06,0.072
1.850E-06,0.104
1.860E-06,0.080
1.870E-06,0.100
1.880E-06,0.056
1.890E-06,0.044
1.900E-06,-0.020
1.910E-06,-0.036
1.920E-06,0.020
1.930E-06,0.060
1.940E-06,0.072
1.950E-06,-0.012
1.960E-06,-0.132
1.970E-06,-0.236
1.980E-06,-0.320
1.990E-06,-0.268
2.000E-06,-0.180
2.010E-06,-0.036
2.020E-06,0.128
2.030E-06,0.188
2.040E-06,0.060
2.050E-06,-0.036
2.060E-06,-0.112
2.070E-06,-0.156
2.080E-06,-0.084
2.090E-06,0.052
2.100E-06,0.132
2.110E-06,0.164
2.120E-06,0.120
2.130E-06,0.048
2.140E-06,-0.008
2.150E-06,-0.028
2.160E-06,0.024
2.170E-06,0.096
2.180E-06,0.168
2.190E-06,0.204
2.200E-06,0.192
2.210E-06,0.132
2.220E-06,0.076
2.230E-06,-0.008
2.240E-06,-0.028
2.250E-06,0.012
2.260E-06,0.072
2.270E-06,0.124
2.280E-06,0.124
2.290E-06,0.068
2.300E-06,-0.048
2.310E-06,-0.180
2.320E-06,-0.296
2.330E-06,-0.140
2.340E-06,-0.016
2.350E-06,0.232
2.360E-06,0.060
2.370E-06,0.020
2.380E-06,-0.284
2.390E-06,-0.432
2.400E-06,-0.352
2.410E-06,-0.248
2.420E-06,0.156
2.430E-06,0.272
2.440E-06,0.296
2.450E-06,0.108
2.460E-06,-0.100
2.470E-06,-0.244
2.480E-06,-0.272
2.490E-06,-0.096
2.500E-06,0.132
2.510E-06,0.280
2.520E-06,0.284
2.530E-06,0.188
2.540E-06,0.020
2.550E-06,-0.096
2.560E-06,-0.104
2.570E-06,-0.004
2.580E-06,0.144
2.590E-06,0.284
2.600E-06,0.320
2.610E-06,0.220
2.620E-06,0.028
2.630E-06,-0.156
2.640E-06,-0.216
2.650E-06,-0.168
2.660E-06,-0.032
2.670E-06,0.124
2.680E-06,0.160
2.690E-06,0.108
2.700E-06,-0.004
2.710E-06,-0.176
2.720E-06,-0.240
2.730E-06,-0.200
2.740E-06,-0.068
2.750E-06,0.076
2.760E-06,0.148
2.770E-06,0.188
2.780E-06,0.100
2.790E-06,0.008
2.800E-06,-0.044
2.810E-06,-0.024
2.820E-06,0.060
2.830E-06,0.168
2.840E-06,0.236
2.850E-06,0.256
2.860E-06,0.196
2.870E-06,0.124
2.880E-06,0.092
2.890E-06,0.108
2.900E-06,0.152
2.910E-06,0.236
2.920E-06,0.256
2.930E-06,0.228
2.940E-06,0.156
2.950E-06,0.108
2.960E-06,0.072
2.970E-06,0.024
2.980E-06,-0.012
2.990E-06,-0.104
3.000E-06,-0.160
3.010E-06,-0.176
3.020E-06,-0.184
3.030E-06,-0.192
3.040E-06,-0.164
3.050E-06,-0.140
3.060E-06,-0.032
3.070E-06,0.064
3.080E-06,0.120
3.090E-06,0.124
3.100E-06,0.068
3.110E-06,-0.116
3.120E-06,-0.164
3.130E-06,-0.020
3.140E-06,0.052
3.150E-06,0.232
3.160E-06,0.388
3.170E-06,0.364
3.180E-06,0.228
3.190E-06,-0.020
3.200E-06,-0.200
3.210E-06,-0.220
3.220E-06,-0.176
3.230E-06,-0.020
3.240E-06,0.180
3.250E-06,0.256
3.260E-06,0.340
3.270E-06,0.168
3.280E-06,-0.104
3.290E-06,-0.508
3.300E-06,-0.512
3.310E-06,-0.512
3.320E-06,-0.372
3.330E-06,0.044
3.340E-06,0.320
3.350E-06,0.388
3.360E-06,0.216
3.370E-06,-0.024
3.380E-06,-0.236
3.390E-06,-0.244
3.400E-06,-0.008
3.410E-06,0.204
3.420E-06,0.436
3.430E-06,0.504
3.440E-06,0.404
3.450E-06,0.124
3.460E-06,-0.152
3.470E-06,-0.248
3.480E-06,-0.160
3.490E-06,-0.012
3.500E-06,0.136
3.510E-06,0.156
3.520E-06,-0.028
3.530E-06,-0.232
3.540E-06,-0.452
3.550E-06,-0.444
3.560E-06,-0.380
3.570E-06,-0.052
3.580E-06,-0.076
3.590E-06,0.064
3.600E-06,0.008
3.610E-06,-0.104
3.620E-06,-0.148
3.630E-06,-0.196
3.640E-06,-0.096
3.650E-06,0.016
3.660E-06,0.084
3.670E-06,0.156
3.680E-06,0.200
3.690E-06,0.140
3.700E-06,0.092
3.710E-06,0.044
3.720E-06,0.112
3.730E-06,0.196
3.740E-06,0.256
3.750E-06,0.304
3.760E-06,0.260
3.770E-06,0.196
3.780E-06,0.148
3.790E-06,0.160
3.800E-06,0.144
3.810E-06,0.192
3.820E-06,0.232
3.830E-06,0.292
3.840E-06,0.260
3.850E-06,0.204
3.860E-06,0.152
3.870E-06,0.104
3.880E-06,0.104
3.890E-06,0.132
3.900E-06,0.192
3.910E-06,0.220
3.920E-06,0.236
3.930E-06,0.228
3.940E-06,0.204
3.950E-06,0.172
3.960E-06,0.144
3.970E-06,0.140
3.980E-06,0.124
3.990E-06,0.148
4.000E-06,0.188
4.010E-06,0.208
4.020E-06,0.236
4.030E-06,0.228
4.040E-06,0.228
4.050E-06,0.192
4.060E-06,0.156
4.070E-06,0.132
4.080E-06,0.128
4.090E-06,0.160
4.100E-06,0.228
4.110E-06,0.260
4.120E-06,0.232
4.130E-06,0.196
4.140E-06,0.124
4.150E-06,0.028
4.160E-06,-0.008
4.170E-06,-0.008
4.180E-06,0.076
4.190E-06,0.176
4.200E-06,0.208
4.210E-06,0.188
4.220E-06,0.084
4.230E-06,0.012
4.240E-06,-0.084
4.250E-06,-0.132
4.260E-06,-0.040
4.270E-06,0.164
4.280E-06,0.240
4.290E-06,0.308
4.300E-06,0.184
4.310E-06,0.012
4.320E-06,-0.192
4.330E-06,-0.260
4.340E-06,-0.040
4.350E-06,0.108
4.360E-06,0.156
4.370E-06,0.256
4.380E-06,0.104
4.390E-06,-0.136
4.400E-06,-0.300
4.410E-06,-0.232
4.420E-06,-0.108
4.430E-06,0.040
4.440E-06,0.132
4.450E-06,0.172
4.460E-06,0.044
4.470E-06,0.020
4.480E-06,0.052
4.490E-06,0.160
4.500E-06,0.200
4.510E-06,0.296
4.520E-06,0.336
4.530E-06,0.276
4.540E-06,0.224
4.550E-06,0.156
4.560E-06,0.124
4.570E-06,0.156
4.580E-06,0.200
4.590E-06,0.244
4.600E-06,0.272
4.610E-06,0.256
4.620E-06,0.224
4.630E-06,0.188
4.640E-06,0.172
4.650E-06,0.160
4.660E-06,0.184
4.670E-06,0.212
4.680E-06,0.224
4.690E-06,0.232
4.700E-06,0.220
4.710E-06,0.208
4.720E-06,0.188
4.730E-06,0.192
4.740E-06,0.200
4.750E-06,0.212
4.760E-06,0.220
4.770E-06,0.224
4.780E-06,0.208
4.790E-06,0.200
4.800E-06,0.188
4.810E-06,0.188
4.820E-06,0.196
4.830E-06,0.204
4.840E-06,0.212
4.850E-06,0.208
4.860E-06,0.212
4.870E-06,0.204
4.880E-06,0.192
4.890E-06,0.192
4.900E-06,0.196
4.910E-06,0.204
4.920E-06,0.196
4.930E-06,0.192
4.940E-06,0.188
4.950E-06,0.192
4.960E-06,0.192
4.970E-06,0.192
4.980E-06,0.192
4.990E-06,0.200
5.000E-06,0.200
5.010E-06,0.196
5.020E-06,0.196
5.030E-06,0.196
5.040E-06,0.192
5.050E-06,0.200
5.060E-06,0.204
5.070E-06,0.200
5.080E-06,0.200
5.090E-06,0.196
5.100E-06,0.200
5.110E-06,0.196
5.120E-06,0.192
5.130E-06,0.192
5.140E-06,0.196
5.150E-06,0.200
5.160E-06,0.196
5.170E-06,0.204
5.180E-06,0.200
5.190E-06,0.196
5.200E-06,0.192
5.210E-06,0.196
5.220E-06,0.196
5.230E-06,0.200
5.240E-06,0.196
5.250E-06,0.192
5.260E-06,0.196
5.270E-06,0.196
5.280E-06,0.188
5.290E-06,0.188
5.300E-06,0.196
5.310E-06,0.196
5.320E-06,0.192
5.330E-06,0.192
5.340E-06,0.196
5.350E-06,0.196
5.360E-06,0.188
5.370E-06,0.188
5.380E-06,0.196
5.390E-06,0.196
5.400E-06,0.192
5.410E-06,0.192
5.420E-06,0.188
5.430E-06,0.188
5.440E-06,0.188
5.450E-06,0.180
5.460E-06,0.188
5.470E-06,0.192
5.480E-06,0.188
5.490E-06,0.192
5.500E-06,0.188
5.510E-06,0.188
5.520E-06,0.184
5.530E-06,0.180
5.540E-06,0.188
5.550E-06,0.192
5.560E-06,0.188
5.570E-06,0.188
5.580E-06,0.188
5.590E-06,0.184
5.600E-06,0.180
5.610E-06,0.180
5.620E-06,0.184
5.630E-06,0.188
5.640E-06,0.184
5.650E-06,0.180
5.660E-06,0.184
5.670E-06,0.180
5.680E-06,0.184
5.690E-06,0.184
5.700E-06,0.180
5.710E-06,0.188
5.720E-06,0.184
5.730E-06,0.176
5.740E-06,0.176
5.750E-06,0.176
5.760E-06,0.172
5.770E-06,0.168
5.780E-06,0.176
5.790E-06,0.180
5.800E-06,0.176
5.810E-06,0.176
5.820E-06,0.172
5.830E-06,0.172
5.840E-06,0.176
5.850E-06,0.180
5.860E-06,0.176
5.870E-06,0.176
5.880E-06,0.172
5.890E-06,0.172
5.900E-06,0.172
5.910E-06,0.176
5.920E-06,0.168
5.930E-06,0.168
5.940E-06,0.172
5.950E-06,0.168
5.960E-06,0.164
5.970E-06,0.168
5.980E-06,0.164
5.990E-06,0.164
6.000E-06,0.160
6.010E-06,0.164
6.020E-06,0.160
6.030E-06,0.164
6.040E-06,0.156
6.050E-06,0.156
6.060E-06,0.160
6.070E-06,0.160
6.080E-06,0.160
6.090E-06,0.164
6.100E-06,0.160
6.110E-06,0.160
6.120E-06,0.160
6.130E-06,0.156
6.140E-06,0.160
6.150E-06,0.156
6.160E-06,0.152
6.170E-06,0.148
6.180E-06,0.156
6.190E-06,0.156
6.200E-06,0.164
6.210E-06,0.156
6.220E-06,0.160
6.230E-06,0.156
6.240E-06,0.152
6.250E-06,0.148
6.260E-06,0.160
6.270E-06,0.156
6.280E-06,0.160
6.290E-06,0.160
6.300E-06,0.148
6.310E-06,0.148
6.320E-06,0.144
6.330E-06,0.148
6.340E-06,0.152
6.350E-06,0.148
6.360E-06,0.148
6.370E-06,0.152
6.380E-06,0.144
6.390E-06,0.140
6.400E-06,0.144
6.410E-06,0.140
6.420E-06,0.148
6.430E-06,0.152
6.440E-06,0.152
6.450E-06,0.152
6.460E-06,0.144
6.470E-06,0.144
6.480E-06,0.144
6.490E-06,0.148
6.500E-06,0.148
6.510E-06,0.152
6.520E-06,0.152
6.530E-06,0.144
6.540E-06,0.144
6.550E-06,0.140
6.560E-06,0.140
6.570E-06,0.140
6.580E-06,0.144
6.590E-06,0.144
6.600E-06,0.140
6.610E-06,0.140
6.620E-06,0.144
6.630E-06,0.136
6.640E-06,0.132
6.650E-06,0.128
6.660E-06,0.136
6.670E-06,0.136
6.680E-06,0.136
6.690E-06,0.136
6.700E-06,0.128
6.710E-06,0.128
6.720E-06,0.128
6.730E-06,0.128
6.740E-06,0.128
6.750E-06,0.132
6.760E-06,0.132
6.770E-06,0.132
6.780E-06,0.128
6.790E-06,0.132
6.800E-06,0.128
6.810E-06,0.132
6.820E-06,0.128
6.830E-06,0.136
6.840E-06,0.128
6.850E-06,0.128
6.860E-06,0.136
6.870E-06,0.128
6.880E-06,0.128
6.890E-06,0.128
6.900E-06,0.128
6.910E-06,0.124
6.920E-06,0.124
6.930E-06,0.120
6.940E-06,0.124
6.950E-06,0.124
6.960E-06,0.124
6.970E-06,0.128
6.980E-06,0.128
6.990E-06,0.124
7.000E-06,0.128
7.010E-06,0.128
7.020E-06,0.128
7.030E-06,0.124
7.040E-06,0.128
7.050E-06,0.124
7.060E-06,0.124
7.070E-06,0.124
7.080E-06,0.128
7.090E-06,0.124
7.100E-06,0.124
7.110E-06,0.120
7.120E-06,0.120
7.130E-06,0.120
7.140E-06,0.120
7.150E-06,0.120
7.160E-06,0.112
7.170E-06,0.112
7.180E-06,0.112
7.190E-06,0.112
7.200E-06,0.108
7.210E-06,0.112
7.220E-06,0.108
7.230E-06,0.108
7.240E-06,0.112
7.250E-06,0.108
7.260E-06,0.112
7.270E-06,0.108
7.280E-06,0.104
7.290E-06,0.108
7.300E-06,0.112
7.310E-06,0.108
7.320E-06,0.112
7.330E-06,0.104
7.340E-06,0.104
7.350E-06,0.104
7.360E-06,0.108
7.370E-06,0.104
7.380E-06,0.104
7.390E-06,0.104
7.400E-06,0.104
7.410E-06,0.104
7.420E-06,0.108
7.430E-06,0.100
7.440E-06,0.096
7.450E-06,0.104
7.460E-06,0.104
7.470E-06,0.108
7.480E-06,0.104
7.490E-06,0.104
7.500E-06,0.104
7.510E-06,0.104
7.520E-06,0.096
7.530E-06,0.096
7.540E-06,0.100
7.550E-06,0.104
7.560E-06,0.104
7.570E-06,0.096
7.580E-06,0.096
7.590E-06,0.100
7.600E-06,0.100
7.610E-06,0.092
7.620E-06,0.100
7.630E-06,0.096
7.640E-06,0.096
7.650E-06,0.096
7.660E-06,0.096
7.670E-06,0.092
7.680E-06,0.092
7.690E-06,0.096
7.700E-06,0.092
7.710E-06,0.092
7.720E-06,0.092
7.730E-06,0.096
7.740E-06,0.096
7.750E-06,0.096
7.760E-06,0.092
7.770E-06,0.096
7.780E-06,0.088
7.790E-06,0.092
