mediciones/Mediciones filtradas (saque las feas)/6-10/46/WaveData55226.csv

#timebase=2000000(ps)
,#voltbase=500000(mv/100)
#size=4000
-4.250E-06,-1.660
-4.240E-06,-1.680
-4.230E-06,-1.480
-4.220E-06,-1.080
-4.210E-06,-1.140
-4.200E-06,-0.600
-4.190E-06,-0.260
-4.180E-06,-0.040
-4.170E-06,0.680
-4.160E-06,0.780
-4.150E-06,1.000
-4.140E-06,1.080
-4.130E-06,0.920
-4.120E-06,1.000
-4.110E-06,1.100
-4.100E-06,1.000
-4.090E-06,1.120
-4.080E-06,0.820
-4.070E-06,0.520
-4.060E-06,0.340
-4.050E-06,0.140
-4.040E-06,0.020
-4.030E-06,0.060
-4.020E-06,-0.040
-4.010E-06,-0.200
-4.000E-06,-0.340
-3.990E-06,-0.480
-3.980E-06,-0.580
-3.970E-06,-0.540
-3.960E-06,-0.520
-3.950E-06,-0.520
-3.940E-06,-0.500
-3.930E-06,-0.360
-3.920E-06,-0.260
-3.910E-06,-0.100
-3.900E-06,0.160
-3.890E-06,0.260
-3.880E-06,0.360
-3.870E-06,0.500
-3.860E-06,0.500
-3.850E-06,0.600
-3.840E-06,0.620
-3.830E-06,0.640
-3.820E-06,0.560
-3.810E-06,0.460
-3.800E-06,0.340
-3.790E-06,0.260
-3.780E-06,0.200
-3.770E-06,0.140
-3.760E-06,0.100
-3.750E-06,0.020
-3.740E-06,0.000
-3.730E-06,-0.100
-3.720E-06,-0.140
-3.710E-06,-0.120
-3.700E-06,-0.120
-3.690E-06,-0.160
-3.680E-06,-0.160
-3.670E-06,-0.180
-3.660E-06,-0.180
-3.650E-06,-0.180
-3.640E-06,-0.160
-3.630E-06,-0.060
-3.620E-06,-0.020
-3.610E-06,0.000
-3.600E-06,-0.020
-3.590E-06,0.020
-3.580E-06,0.100
-3.570E-06,0.180
-3.560E-06,0.280
-3.550E-06,0.360
-3.540E-06,0.400
-3.530E-06,0.360
-3.520E-06,0.320
-3.510E-06,0.340
-3.500E-06,0.320
-3.490E-06,0.340
-3.480E-06,0.360
-3.470E-06,0.300
-3.460E-06,0.280
-3.450E-06,0.220
-3.440E-06,0.220
-3.430E-06,0.220
-3.420E-06,0.200
-3.410E-06,0.200
-3.400E-06,0.220
-3.390E-06,0.180
-3.380E-06,0.160
-3.370E-06,0.120
-3.360E-06,0.100
-3.350E-06,0.040
-3.340E-06,0.020
-3.330E-06,0.000
-3.320E-06,0.000
-3.310E-06,0.360
-3.300E-06,0.080
-3.290E-06,0.180
-3.280E-06,0.220
-3.270E-06,-0.100
-3.260E-06,0.220
-3.250E-06,0.220
-3.240E-06,0.480
-3.230E-06,0.540
-3.220E-06,0.440
-3.210E-06,0.300
-3.200E-06,0.260
-3.190E-06,0.180
-3.180E-06,0.280
-3.170E-06,0.420
-3.160E-06,0.320
-3.150E-06,0.320
-3.140E-06,0.160
-3.130E-06,0.000
-3.120E-06,-0.060
-3.110E-06,0.000
-3.100E-06,-0.020
-3.090E-06,0.160
-3.080E-06,0.080
-3.070E-06,-0.080
-3.060E-06,-0.260
-3.050E-06,-0.520
-3.040E-06,-0.660
-3.030E-06,-0.480
-3.020E-06,-0.180
-3.010E-06,0.160
-3.000E-06,0.460
-2.990E-06,0.600
-2.980E-06,0.640
-2.970E-06,0.660
-2.960E-06,0.560
-2.950E-06,0.660
-2.940E-06,0.660
-2.930E-06,0.800
-2.920E-06,0.720
-2.910E-06,0.660
-2.900E-06,0.640
-2.890E-06,0.460
-2.880E-06,0.460
-2.870E-06,0.400
-2.860E-06,0.240
-2.850E-06,0.220
-2.840E-06,0.100
-2.830E-06,-0.020
-2.820E-06,-0.040
-2.810E-06,-0.060
-2.800E-06,0.000
-2.790E-06,-0.020
-2.780E-06,-0.020
-2.770E-06,0.000
-2.760E-06,0.020
-2.750E-06,0.060
-2.740E-06,0.160
-2.730E-06,0.260
-2.720E-06,0.320
-2.710E-06,0.360
-2.700E-06,0.360
-2.690E-06,0.400
-2.680E-06,0.460
-2.670E-06,0.520
-2.660E-06,0.520
-2.650E-06,0.460
-2.640E-06,0.340
-2.630E-06,0.260
-2.620E-06,0.140
-2.610E-06,0.040
-2.600E-06,0.000
-2.590E-06,-0.080
-2.580E-06,-0.120
-2.570E-06,-0.160
-2.560E-06,-0.200
-2.550E-06,-0.200
-2.540E-06,-0.180
-2.530E-06,-0.140
-2.520E-06,-0.120
-2.510E-06,-0.040
-2.500E-06,0.020
-2.490E-06,0.120
-2.480E-06,0.300
-2.470E-06,0.460
-2.460E-06,0.500
-2.450E-06,0.580
-2.440E-06,0.600
-2.430E-06,0.560
-2.420E-06,0.500
-2.410E-06,0.520
-2.400E-06,0.460
-2.390E-06,0.460
-2.380E-06,0.420
-2.370E-06,0.420
-2.360E-06,0.380
-2.350E-06,0.180
-2.340E-06,0.120
-2.330E-06,-0.060
-2.320E-06,-0.160
-2.310E-06,-0.100
-2.300E-06,0.000
-2.290E-06,0.100
-2.280E-06,0.220
-2.270E-06,0.220
-2.260E-06,0.200
-2.250E-06,0.340
-2.240E-06,0.520
-2.230E-06,0.580
-2.220E-06,0.840
-2.210E-06,0.880
-2.200E-06,0.660
-2.190E-06,0.400
-2.180E-06,0.080
-2.170E-06,0.100
-2.160E-06,0.260
-2.150E-06,0.560
-2.140E-06,0.800
-2.130E-06,0.820
-2.120E-06,0.780
-2.110E-06,0.680
-2.100E-06,0.640
-2.090E-06,0.680
-2.080E-06,0.880
-2.070E-06,0.960
-2.060E-06,1.020
-2.050E-06,0.980
-2.040E-06,0.840
-2.030E-06,0.720
-2.020E-06,0.680
-2.010E-06,0.560
-2.000E-06,0.580
-1.990E-06,0.380
-1.980E-06,0.280
-1.970E-06,0.280
-1.960E-06,0.100
-1.950E-06,0.200
-1.940E-06,0.060
-1.930E-06,0.020
-1.920E-06,0.060
-1.910E-06,-0.120
-1.900E-06,-0.120
-1.890E-06,-0.120
-1.880E-06,-0.160
-1.870E-06,-0.220
-1.860E-06,-0.260
-1.850E-06,-0.260
-1.840E-06,-0.220
-1.830E-06,-0.100
-1.820E-06,-0.060
-1.810E-06,0.060
-1.800E-06,0.160
-1.790E-06,0.240
-1.780E-06,0.160
-1.770E-06,0.180
-1.760E-06,0.000
-1.750E-06,0.000
-1.740E-06,0.000
-1.730E-06,-0.020
-1.720E-06,0.140
-1.710E-06,0.140
-1.700E-06,0.140
-1.690E-06,0.200
-1.680E-06,0.120
-1.670E-06,0.140
-1.660E-06,0.180
-1.650E-06,0.180
-1.640E-06,0.200
-1.630E-06,0.220
-1.620E-06,0.240
-1.610E-06,0.300
-1.600E-06,0.340
-1.590E-06,0.340
-1.580E-06,0.420
-1.570E-06,0.340
-1.560E-06,0.320
-1.550E-06,0.340
-1.540E-06,0.320
-1.530E-06,0.340
-1.520E-06,0.340
-1.510E-06,0.280
-1.500E-06,0.220
-1.490E-06,0.080
-1.480E-06,0.000
-1.470E-06,0.020
-1.460E-06,-0.020
-1.450E-06,-0.020
-1.440E-06,-0.040
-1.430E-06,-0.060
-1.420E-06,-0.080
-1.410E-06,-0.180
-1.400E-06,-0.120
-1.390E-06,-0.380
-1.380E-06,-0.260
-1.370E-06,-0.380
-1.360E-06,-0.500
-1.350E-06,-0.400
-1.340E-06,-0.660
-1.330E-06,-0.680
-1.320E-06,0.260
-1.310E-06,0.280
-1.300E-06,0.460
-1.290E-06,1.020
-1.280E-06,0.320
-1.270E-06,0.140
-1.260E-06,0.020
-1.250E-06,-0.200
-1.240E-06,0.440
-1.230E-06,0.620
-1.220E-06,0.520
-1.210E-06,0.680
-1.200E-06,0.260
-1.190E-06,0.060
-1.180E-06,0.180
-1.170E-06,0.180
-1.160E-06,0.180
-1.150E-06,0.320
-1.140E-06,0.020
-1.130E-06,-0.140
-1.120E-06,-0.060
-1.110E-06,-0.040
-1.100E-06,0.000
-1.090E-06,0.060
-1.080E-06,-0.040
-1.070E-06,-0.160
-1.060E-06,-0.080
-1.050E-06,-0.080
-1.040E-06,0.060
-1.030E-06,0.160
-1.020E-06,0.160
-1.010E-06,0.080
-1.000E-06,0.140
-9.900E-07,0.080
-9.800E-07,0.120
-9.700E-07,0.140
-9.600E-07,0.120
-9.500E-07,0.080
-9.400E-07,-0.020
-9.300E-07,-0.100
-9.200E-07,-0.160
-9.100E-07,-0.200
-9.000E-07,-0.160
-8.900E-07,-0.080
-8.800E-07,-0.020
-8.700E-07,0.000
-8.600E-07,-0.020
-8.500E-07,-0.020
-8.400E-07,0.000
-8.300E-07,0.000
-8.200E-07,0.040
-8.100E-07,0.080
-8.000E-07,0.100
-7.900E-07,0.160
-7.800E-07,0.240
-7.700E-07,0.260
-7.600E-07,0.320
-7.500E-07,0.380
-7.400E-07,0.380
-7.300E-07,0.440
-7.200E-07,0.460
-7.100E-07,0.520
-7.000E-07,0.500
-6.900E-07,0.480
-6.800E-07,0.420
-6.700E-07,0.400
-6.600E-07,0.420
-6.500E-07,0.280
-6.400E-07,0.180
-6.300E-07,0.000
-6.200E-07,-0.020
-6.100E-07,0.160
-6.000E-07,0.300
-5.900E-07,0.340
-5.800E-07,0.520
-5.700E-07,0.440
-5.600E-07,0.480
-5.500E-07,0.500
-5.400E-07,0.520
-5.300E-07,0.780
-5.200E-07,1.000
-5.100E-07,1.180
-5.000E-07,0.900
-4.900E-07,0.840
-4.800E-07,0.860
-4.700E-07,0.720
-4.600E-07,0.840
-4.500E-07,0.800
-4.400E-07,0.760
-4.300E-07,0.880
-4.200E-07,0.480
-4.100E-07,0.360
-4.000E-07,0.420
-3.900E-07,0.240
-3.800E-07,0.440
-3.700E-07,0.420
-3.600E-07,0.360
-3.500E-07,0.340
-3.400E-07,0.160
-3.300E-07,0.020
-3.200E-07,-0.060
-3.100E-07,0.140
-3.000E-07,0.160
-2.900E-07,0.080
-2.800E-07,0.380
-2.700E-07,0.160
-2.600E-07,0.320
-2.500E-07,0.380
-2.400E-07,0.380
-2.300E-07,0.400
-2.200E-07,0.380
-2.100E-07,0.160
-2.000E-07,0.120
-1.900E-07,0.020
-1.800E-07,-0.040
-1.700E-07,0.060
-1.600E-07,0.080
-1.500E-07,0.260
-1.400E-07,0.180
-1.300E-07,0.240
-1.200E-07,0.180
-1.100E-07,0.000
-1.000E-07,0.120
-9.000E-08,-0.020
-8.000E-08,-0.040
-7.000E-08,0.080
-6.000E-08,0.160
-5.000E-08,0.160
-4.000E-08,0.320
-3.000E-08,0.000
-2.000E-08,0.420
-1.000E-08,0.240
0.000E+00,-0.020
1.000E-08,1.040
2.000E-08,0.920
3.000E-08,-2.640
4.000E-08,-0.240
5.000E-08,-2.380
6.000E-08,-1.120
7.000E-08,2.640
8.000E-08,0.080
9.000E-08,2.500
1.000E-07,0.000
1.100E-07,-0.620
1.200E-07,-0.520
1.300E-07,-1.340
1.400E-07,-1.100
1.500E-07,-0.080
1.600E-07,0.360
1.700E-07,1.000
1.800E-07,1.880
1.900E-07,1.880
2.000E-07,1.260
2.100E-07,0.160
2.200E-07,-0.400
2.300E-07,-1.320
2.400E-07,-0.820
2.500E-07,-0.440
2.600E-07,-0.020
2.700E-07,0.020
2.800E-07,-0.180
2.900E-07,-0.860
3.000E-07,-0.920
3.100E-07,-0.760
3.200E-07,-0.900
3.300E-07,-0.600
3.400E-07,-0.740
3.500E-07,-0.680
3.600E-07,-0.620
3.700E-07,-0.440
3.800E-07,-0.700
3.900E-07,-0.860
4.000E-07,-1.280
4.100E-07,-1.440
4.200E-07,-1.560
4.300E-07,-1.660
4.400E-07,-1.900
4.500E-07,-2.220
4.600E-07,-2.380
4.700E-07,-2.620
4.800E-07,-2.660
4.900E-07,-2.660
5.000E-07,-2.660
5.100E-07,-2.660
5.200E-07,-2.660
5.300E-07,-2.460
5.400E-07,-2.380
5.500E-07,-2.400
5.600E-07,-2.360
5.700E-07,-2.320
5.800E-07,-2.120
5.900E-07,-1.840
6.000E-07,-1.580
6.100E-07,-1.320
6.200E-07,-1.060
6.300E-07,-0.900
6.400E-07,-0.840
6.500E-07,-0.660
6.600E-07,0.220
6.700E-07,-0.800
6.800E-07,-0.860
6.900E-07,-2.040
7.000E-07,-2.340
7.100E-07,-0.920
7.200E-07,-0.160
7.300E-07,0.880
7.400E-07,0.900
7.500E-07,-0.080
7.600E-07,-0.540
7.700E-07,-1.280
7.800E-07,-0.840
7.900E-07,-0.180
8.000E-07,-0.040
8.100E-07,0.440
8.200E-07,-0.340
8.300E-07,-0.320
8.400E-07,-0.560
8.500E-07,-1.540
8.600E-07,-0.220
8.700E-07,-0.380
8.800E-07,0.160
8.900E-07,1.000
9.000E-07,-0.180
9.100E-07,-0.440
9.200E-07,-1.080
9.300E-07,-1.760
9.400E-07,-1.260
9.500E-07,-0.740
9.600E-07,-0.480
9.700E-07,-0.100
9.800E-07,-0.240
9.900E-07,-0.740
1.000E-06,-0.800
1.010E-06,-0.760
1.020E-06,-0.640
1.030E-06,-0.200
1.040E-06,-0.260
1.050E-06,-0.320
1.060E-06,-0.420
1.070E-06,-0.500
1.080E-06,-0.560
1.090E-06,-0.540
1.100E-06,-0.580
1.110E-06,-0.580
1.120E-06,-0.560
1.130E-06,-0.400
1.140E-06,-0.320
1.150E-06,-0.280
1.160E-06,-0.180
1.170E-06,-0.160
1.180E-06,-0.060
1.190E-06,0.080
1.200E-06,0.240
1.210E-06,0.340
1.220E-06,0.380
1.230E-06,0.340
1.240E-06,0.360
1.250E-06,0.360
1.260E-06,0.340
1.270E-06,0.340
1.280E-06,0.360
1.290E-06,0.340
1.300E-06,0.320
1.310E-06,0.220
1.320E-06,0.160
1.330E-06,0.100
1.340E-06,0.060
1.350E-06,0.000
1.360E-06,-0.020
1.370E-06,-0.060
1.380E-06,-0.120
1.390E-06,-0.120
1.400E-06,-0.180
1.410E-06,-0.180
1.420E-06,-0.180
1.430E-06,-0.160
1.440E-06,-0.160
1.450E-06,-0.140
1.460E-06,-0.060
1.470E-06,-0.060
1.480E-06,-0.060
1.490E-06,-0.040
1.500E-06,-0.080
1.510E-06,-0.040
1.520E-06,-0.020
1.530E-06,-0.100
1.540E-06,0.000
1.550E-06,-0.060
1.560E-06,-0.080
1.570E-06,-0.080
1.580E-06,-0.160
1.590E-06,-0.180
1.600E-06,-0.220
1.610E-06,-0.220
1.620E-06,-0.220
1.630E-06,-0.220
1.640E-06,-0.220
1.650E-06,-0.160
1.660E-06,-0.140
1.670E-06,-0.140
1.680E-06,-0.100
1.690E-06,-0.080
1.700E-06,0.060
1.710E-06,0.000
1.720E-06,0.140
1.730E-06,0.040
1.740E-06,0.060
1.750E-06,0.080
1.760E-06,-0.060
1.770E-06,0.020
1.780E-06,-0.080
1.790E-06,0.040
1.800E-06,0.100
1.810E-06,0.420
1.820E-06,0.400
1.830E-06,0.540
1.840E-06,0.820
1.850E-06,0.760
1.860E-06,0.840
1.870E-06,0.600
1.880E-06,0.460
1.890E-06,0.340
1.900E-06,0.080
1.910E-06,0.140
1.920E-06,0.500
1.930E-06,0.600
1.940E-06,0.460
1.950E-06,0.760
1.960E-06,0.180
1.970E-06,0.340
1.980E-06,0.360
1.990E-06,0.420
2.000E-06,0.780
2.010E-06,0.620
2.020E-06,0.460
2.030E-06,0.320
2.040E-06,0.080
2.050E-06,0.060
2.060E-06,0.080
2.070E-06,0.080
2.080E-06,0.100
2.090E-06,0.280
2.100E-06,0.140
2.110E-06,0.040
2.120E-06,0.180
2.130E-06,0.600
2.140E-06,-0.140
2.150E-06,1.360
2.160E-06,-1.880
2.170E-06,-2.680
2.180E-06,1.920
2.190E-06,-2.680
2.200E-06,1.700
2.210E-06,0.320
2.220E-06,-1.640
2.230E-06,2.780
2.240E-06,-1.480
2.250E-06,-0.020
2.260E-06,-0.660
2.270E-06,-2.060
2.280E-06,0.360
2.290E-06,2.000
2.300E-06,2.020
2.310E-06,2.420
2.320E-06,1.200
2.330E-06,-0.340
2.340E-06,-0.180
2.350E-06,0.320
2.360E-06,0.940
2.370E-06,1.720
2.380E-06,1.460
2.390E-06,0.280
2.400E-06,-0.140
2.410E-06,-0.940
2.420E-06,-0.760
2.430E-06,-0.900
2.440E-06,-0.060
2.450E-06,-0.260
2.460E-06,-0.300
2.470E-06,-0.300
2.480E-06,-0.720
2.490E-06,-0.620
2.500E-06,-0.660
2.510E-06,-0.380
2.520E-06,-0.360
2.530E-06,0.220
2.540E-06,0.280
2.550E-06,0.420
2.560E-06,0.260
2.570E-06,0.040
2.580E-06,0.020
2.590E-06,0.160
2.600E-06,0.420
2.610E-06,0.500
2.620E-06,0.640
2.630E-06,0.420
2.640E-06,0.320
2.650E-06,0.120
2.660E-06,0.060
2.670E-06,0.020
2.680E-06,0.220
2.690E-06,0.380
2.700E-06,0.500
2.710E-06,0.480
2.720E-06,0.340
2.730E-06,0.160
2.740E-06,0.120
2.750E-06,0.240
2.760E-06,0.380
2.770E-06,0.520
2.780E-06,0.620
2.790E-06,0.520
2.800E-06,0.360
2.810E-06,0.320
2.820E-06,0.020
2.830E-06,-0.100
2.840E-06,0.100
2.850E-06,-0.080
2.860E-06,-0.020
2.870E-06,-0.140
2.880E-06,-0.520
2.890E-06,-0.260
2.900E-06,-0.160
2.910E-06,0.200
2.920E-06,0.740
2.930E-06,0.840
2.940E-06,0.780
2.950E-06,0.260
2.960E-06,-0.820
2.970E-06,-2.680
2.980E-06,-2.680
2.990E-06,-2.100
3.000E-06,-0.600
3.010E-06,2.260
3.020E-06,2.740
3.030E-06,2.760
3.040E-06,2.000
3.050E-06,-0.520
3.060E-06,-1.440
3.070E-06,-0.700
3.080E-06,0.000
3.090E-06,1.040
3.100E-06,1.700
3.110E-06,1.480
3.120E-06,1.220
3.130E-06,1.140
3.140E-06,-0.040
3.150E-06,0.040
3.160E-06,-0.340
3.170E-06,-0.660
3.180E-06,-0.200
3.190E-06,0.080
3.200E-06,0.420
3.210E-06,0.800
3.220E-06,0.700
3.230E-06,0.600
3.240E-06,0.460
3.250E-06,0.320
3.260E-06,0.420
3.270E-06,0.340
3.280E-06,0.440
3.290E-06,0.420
3.300E-06,0.480
3.310E-06,0.580
3.320E-06,0.700
3.330E-06,0.580
3.340E-06,0.440
3.350E-06,0.300
3.360E-06,0.000
3.370E-06,-0.020
3.380E-06,-0.120
3.390E-06,0.060
3.400E-06,0.100
3.410E-06,-0.100
3.420E-06,-0.520
3.430E-06,-1.020
3.440E-06,-0.680
3.450E-06,-0.660
3.460E-06,0.040
3.470E-06,0.620
3.480E-06,0.900
3.490E-06,0.820
3.500E-06,0.320
3.510E-06,0.340
3.520E-06,0.320
3.530E-06,0.660
3.540E-06,0.960
3.550E-06,1.100
3.560E-06,1.000
3.570E-06,0.760
3.580E-06,0.480
3.590E-06,0.260
3.600E-06,0.020
3.610E-06,-0.240
3.620E-06,0.120
3.630E-06,0.320
3.640E-06,0.340
3.650E-06,0.080
3.660E-06,-0.220
3.670E-06,-0.740
3.680E-06,-0.920
3.690E-06,-0.500
3.700E-06,0.260
3.710E-06,0.740
3.720E-06,0.640
3.730E-06,0.340
3.740E-06,-0.180
3.750E-06,-0.240
3.760E-06,0.020
3.770E-06,0.500
3.780E-06,0.960
3.790E-06,1.200
3.800E-06,1.180
3.810E-06,1.060
3.820E-06,0.900
3.830E-06,0.700
3.840E-06,0.580
3.850E-06,0.440
3.860E-06,0.260
3.870E-06,0.020
3.880E-06,-0.280
3.890E-06,-0.360
3.900E-06,-0.860
3.910E-06,-1.340
3.920E-06,-1.020
3.930E-06,-0.900
3.940E-06,-0.860
3.950E-06,-0.700
3.960E-06,-0.700
3.970E-06,-0.860
3.980E-06,-0.700
3.990E-06,-0.420
4.000E-06,0.020
4.010E-06,0.340
4.020E-06,0.580
4.030E-06,0.720
4.040E-06,0.820
4.050E-06,0.900
4.060E-06,0.780
4.070E-06,0.720
4.080E-06,0.520
4.090E-06,0.220
4.100E-06,0.120
4.110E-06,-0.040
4.120E-06,0.000
4.130E-06,0.080
4.140E-06,-0.040
4.150E-06,-0.040
4.160E-06,-0.160
4.170E-06,-0.340
4.180E-06,-0.120
4.190E-06,-0.120
4.200E-06,0.320
4.210E-06,0.720
4.220E-06,0.740
4.230E-06,0.940
4.240E-06,0.820
4.250E-06,0.720
4.260E-06,0.400
4.270E-06,-0.180
4.280E-06,-0.840
4.290E-06,-1.620
4.300E-06,-2.200
4.310E-06,-2.660
4.320E-06,-2.660
4.330E-06,-2.680
4.340E-06,-2.680
4.350E-06,-2.660
4.360E-06,-2.660
4.370E-06,-2.660
4.380E-06,-2.660
4.390E-06,-2.660
4.400E-06,-2.660
4.410E-06,-2.660
4.420E-06,-2.680
4.430E-06,-2.680
4.440E-06,-2.660
4.450E-06,-2.660
4.460E-06,-2.640
4.470E-06,-2.660
4.480E-06,-2.660
4.490E-06,-2.660
4.500E-06,-2.660
4.510E-06,-2.660
4.520E-06,-2.660
4.530E-06,-2.300
4.540E-06,-1.000
4.550E-06,-0.320
4.560E-06,0.740
4.570E-06,1.260
4.580E-06,0.820
4.590E-06,0.800
4.600E-06,0.180
4.610E-06,-0.200
4.620E-06,0.140
4.630E-06,0.220
4.640E-06,0.660
4.650E-06,1.000
4.660E-06,1.000
4.670E-06,1.060
4.680E-06,0.980
4.690E-06,0.840
4.700E-06,0.960
4.710E-06,0.980
4.720E-06,0.940
4.730E-06,1.020
4.740E-06,0.720
4.750E-06,0.420
4.760E-06,0.080
4.770E-06,-0.360
4.780E-06,-0.760
4.790E-06,-1.100
4.800E-06,-1.420
4.810E-06,-1.700
4.820E-06,-1.900
4.830E-06,-2.120
4.840E-06,-2.300
4.850E-06,-2.400
4.860E-06,-2.480
4.870E-06,-2.500
4.880E-06,-2.500
4.890E-06,-2.380
4.900E-06,-2.300
4.910E-06,-2.180
4.920E-06,-2.040
4.930E-06,-1.800
4.940E-06,-1.540
4.950E-06,-1.280
4.960E-06,-1.020
4.970E-06,-0.820
4.980E-06,-0.560
4.990E-06,-0.280
5.000E-06,0.020
5.010E-06,0.360
5.020E-06,0.640
5.030E-06,0.840
5.040E-06,0.940
5.050E-06,0.880
5.060E-06,0.840
5.070E-06,0.780
5.080E-06,0.740
5.090E-06,0.720
5.100E-06,0.660
5.110E-06,0.560
5.120E-06,0.480
5.130E-06,0.340
5.140E-06,0.200
5.150E-06,0.080
5.160E-06,0.020
5.170E-06,-0.080
5.180E-06,-0.080
5.190E-06,-0.040
5.200E-06,0.020
5.210E-06,-0.020
5.220E-06,0.000
5.230E-06,0.060
5.240E-06,0.100
5.250E-06,0.180
5.260E-06,0.280
5.270E-06,0.380
5.280E-06,0.440
5.290E-06,0.500
5.300E-06,0.520
5.310E-06,0.500
5.320E-06,0.480
5.330E-06,0.440
5.340E-06,0.320
5.350E-06,0.260
5.360E-06,0.160
5.370E-06,0.040
5.380E-06,-0.080
5.390E-06,-0.280
5.400E-06,-0.420
5.410E-06,-0.540
5.420E-06,-0.660
5.430E-06,-0.760
5.440E-06,-0.820
5.450E-06,-0.900
5.460E-06,-0.900
5.470E-06,-0.860
5.480E-06,-0.820
5.490E-06,-0.740
5.500E-06,-0.640
5.510E-06,-0.540
5.520E-06,-0.420
5.530E-06,-0.260
5.540E-06,-0.160
5.550E-06,-0.040
5.560E-06,0.040
5.570E-06,0.100
5.580E-06,0.180
5.590E-06,0.240
5.600E-06,0.260
5.610E-06,0.320
5.620E-06,0.340
5.630E-06,0.300
5.640E-06,0.240
5.650E-06,0.180
5.660E-06,0.100
5.670E-06,0.000
5.680E-06,-0.060
5.690E-06,-0.180
5.700E-06,-0.240
5.710E-06,-0.280
5.720E-06,-0.320
5.730E-06,-0.360
5.740E-06,-0.400
5.750E-06,-0.380
5.760E-06,-0.400
5.770E-06,-0.360
5.780E-06,-0.340
5.790E-06,-0.300
5.800E-06,-0.240
5.810E-06,-0.140
5.820E-06,-0.060
5.830E-06,-0.040
5.840E-06,0.000
5.850E-06,0.020
5.860E-06,0.040
5.870E-06,0.060
5.880E-06,0.100
5.890E-06,0.140
5.900E-06,0.100
5.910E-06,0.120
5.920E-06,0.100
5.930E-06,0.040
5.940E-06,0.000
5.950E-06,0.000
5.960E-06,-0.040
5.970E-06,-0.040
5.980E-06,-0.020
5.990E-06,0.000
6.000E-06,-0.020
6.010E-06,0.000
6.020E-06,-0.020
6.030E-06,-0.020
6.040E-06,0.000
6.050E-06,0.000
6.060E-06,0.000
6.070E-06,0.020
6.080E-06,0.040
6.090E-06,0.020
6.100E-06,0.060
6.110E-06,0.100
6.120E-06,0.120
6.130E-06,0.080
6.140E-06,0.080
6.150E-06,0.080
6.160E-06,0.080
6.170E-06,0.060
6.180E-06,0.020
6.190E-06,0.000
6.200E-06,-0.080
6.210E-06,-0.100
6.220E-06,-0.180
6.230E-06,-0.160
6.240E-06,-0.180
6.250E-06,-0.180
6.260E-06,-0.180
6.270E-06,-0.240
6.280E-06,-0.260
6.290E-06,-0.260
6.300E-06,-0.260
6.310E-06,-0.240
6.320E-06,-0.220
6.330E-06,-0.180
6.340E-06,-0.160
6.350E-06,-0.180
6.360E-06,-0.140
6.370E-06,-0.120
6.380E-06,-0.080
6.390E-06,-0.060
6.400E-06,-0.060
6.410E-06,-0.040
6.420E-06,-0.060
6.430E-06,-0.020
6.440E-06,0.000
6.450E-06,0.040
6.460E-06,0.060
6.470E-06,0.060
6.480E-06,0.060
6.490E-06,0.080
6.500E-06,0.080
6.510E-06,0.100
6.520E-06,0.060
6.530E-06,0.020
6.540E-06,0.000
6.550E-06,0.000
6.560E-06,-0.100
6.570E-06,-0.120
6.580E-06,-0.160
6.590E-06,-0.160
6.600E-06,-0.120
6.610E-06,-0.140
6.620E-06,-0.100
6.630E-06,-0.080
6.640E-06,-0.040
6.650E-06,-0.020
6.660E-06,0.040
6.670E-06,0.080
6.680E-06,0.160
6.690E-06,0.160
6.700E-06,0.180
6.710E-06,0.120
6.720E-06,0.040
6.730E-06,0.040
6.740E-06,0.020
6.750E-06,0.020
6.760E-06,0.020
6.770E-06,-0.040
6.780E-06,-0.060
6.790E-06,-0.080
6.800E-06,-0.120
6.810E-06,-0.100
6.820E-06,-0.040
6.830E-06,-0.080
6.840E-06,-0.040
6.850E-06,-0.080
6.860E-06,-0.060
6.870E-06,-0.080
6.880E-06,-0.060
6.890E-06,-0.020
6.900E-06,-0.060
6.910E-06,-0.040
6.920E-06,-0.020
6.930E-06,0.000
6.940E-06,0.100
6.950E-06,0.080
6.960E-06,0.160
6.970E-06,0.220
6.980E-06,0.280
6.990E-06,0.340
7.000E-06,0.380
7.010E-06,0.440
7.020E-06,0.460
7.030E-06,0.520
7.040E-06,0.540
7.050E-06,0.600
7.060E-06,0.620
7.070E-06,0.600
7.080E-06,0.580
7.090E-06,0.560
7.100E-06,0.540
7.110E-06,0.500
7.120E-06,0.420
7.130E-06,0.400
7.140E-06,0.340
7.150E-06,0.320
7.160E-06,0.280
7.170E-06,0.260
7.180E-06,0.220
7.190E-06,0.180
7.200E-06,0.160
7.210E-06,0.160
7.220E-06,0.140
7.230E-06,0.100
7.240E-06,0.100
7.250E-06,0.040
7.260E-06,0.020
7.270E-06,0.000
7.280E-06,-0.020
7.290E-06,-0.040
7.300E-06,-0.080
7.310E-06,-0.100
7.320E-06,-0.060
7.330E-06,-0.100
7.340E-06,-0.120
7.350E-06,-0.100
7.360E-06,-0.120
7.370E-06,-0.100
7.380E-06,-0.060
7.390E-06,-0.060
7.400E-06,0.000
7.410E-06,0.040
7.420E-06,0.080
7.430E-06,0.140
7.440E-06,0.180
7.450E-06,0.240
7.460E-06,0.320
7.470E-06,0.340
7.480E-06,0.400
7.490E-06,0.420
7.500E-06,0.400
7.510E-06,0.380
7.520E-06,0.380
7.530E-06,0.320
7.540E-06,0.360
7.550E-06,0.320
7.560E-06,0.340
7.570E-06,0.340
7.580E-06,0.280
7.590E-06,0.260
7.600E-06,0.240
7.610E-06,0.240
7.620E-06,0.240
7.630E-06,0.240
7.640E-06,0.260
