mediciones/Mediciones filtradas (saque las feas)/5-27/-37.5/WaveData5135.csv

#timebase=2000000(ps)
,#voltbase=1000000(mv/100)
#size=4000
-5.650E-06,-0.320
-5.640E-06,-0.040
-5.630E-06,0.120
-5.620E-06,0.600
-5.610E-06,1.040
-5.600E-06,1.480
-5.590E-06,1.680
-5.580E-06,1.680
-5.570E-06,1.600
-5.560E-06,1.440
-5.550E-06,1.280
-5.540E-06,1.240
-5.530E-06,1.160
-5.520E-06,0.920
-5.510E-06,0.600
-5.500E-06,0.320
-5.490E-06,0.080
-5.480E-06,0.000
-5.470E-06,-0.040
-5.460E-06,0.040
-5.450E-06,0.120
-5.440E-06,0.080
-5.430E-06,0.040
-5.420E-06,0.000
-5.410E-06,0.000
-5.400E-06,-0.040
-5.390E-06,-0.040
-5.380E-06,-0.120
-5.370E-06,-0.200
-5.360E-06,-0.120
-5.350E-06,-0.080
-5.340E-06,0.080
-5.330E-06,0.080
-5.320E-06,0.120
-5.310E-06,0.040
-5.300E-06,-0.040
-5.290E-06,-0.160
-5.280E-06,-0.200
-5.270E-06,-0.200
-5.260E-06,-0.320
-5.250E-06,-0.480
-5.240E-06,-0.640
-5.230E-06,-0.760
-5.220E-06,-0.840
-5.210E-06,-0.840
-5.200E-06,-0.800
-5.190E-06,-0.640
-5.180E-06,-0.600
-5.170E-06,-0.560
-5.160E-06,-0.440
-5.150E-06,-0.320
-5.140E-06,-0.160
-5.130E-06,0.040
-5.120E-06,0.160
-5.110E-06,0.200
-5.100E-06,0.160
-5.090E-06,0.240
-5.080E-06,0.360
-5.070E-06,0.400
-5.060E-06,0.400
-5.050E-06,0.400
-5.040E-06,0.320
-5.030E-06,0.200
-5.020E-06,0.080
-5.010E-06,0.000
-5.000E-06,-0.040
-4.990E-06,-0.040
-4.980E-06,-0.040
-4.970E-06,-0.120
-4.960E-06,-0.280
-4.950E-06,-0.320
-4.940E-06,-0.360
-4.930E-06,-0.360
-4.920E-06,-0.320
-4.910E-06,-0.320
-4.900E-06,-0.320
-4.890E-06,-0.320
-4.880E-06,-0.320
-4.870E-06,-0.360
-4.860E-06,-0.280
-4.850E-06,-0.160
-4.840E-06,-0.120
-4.830E-06,-0.080
-4.820E-06,-0.040
-4.810E-06,0.080
-4.800E-06,0.160
-4.790E-06,0.240
-4.780E-06,0.360
-4.770E-06,0.400
-4.760E-06,0.440
-4.750E-06,0.440
-4.740E-06,0.360
-4.730E-06,0.320
-4.720E-06,0.280
-4.710E-06,0.320
-4.700E-06,0.160
-4.690E-06,0.120
-4.680E-06,0.120
-4.670E-06,0.040
-4.660E-06,0.120
-4.650E-06,0.080
-4.640E-06,0.040
-4.630E-06,-0.080
-4.620E-06,-0.080
-4.610E-06,-0.120
-4.600E-06,-0.160
-4.590E-06,-0.200
-4.580E-06,-0.160
-4.570E-06,-0.160
-4.560E-06,-0.400
-4.550E-06,-0.400
-4.540E-06,-0.520
-4.530E-06,-0.520
-4.520E-06,-0.360
-4.510E-06,-0.320
-4.500E-06,-0.160
-4.490E-06,-0.200
-4.480E-06,-0.120
-4.470E-06,-0.200
-4.460E-06,-0.160
-4.450E-06,0.000
-4.440E-06,0.040
-4.430E-06,0.200
-4.420E-06,0.160
-4.410E-06,0.200
-4.400E-06,0.200
-4.390E-06,0.320
-4.380E-06,0.480
-4.370E-06,0.440
-4.360E-06,0.480
-4.350E-06,0.360
-4.340E-06,0.280
-4.330E-06,0.360
-4.320E-06,0.360
-4.310E-06,0.480
-4.300E-06,0.360
-4.290E-06,0.320
-4.280E-06,0.080
-4.270E-06,0.000
-4.260E-06,-0.040
-4.250E-06,0.040
-4.240E-06,0.120
-4.230E-06,0.000
-4.220E-06,0.000
-4.210E-06,-0.160
-4.200E-06,-0.120
-4.190E-06,-0.080
-4.180E-06,0.000
-4.170E-06,0.040
-4.160E-06,0.000
-4.150E-06,-0.160
-4.140E-06,-0.200
-4.130E-06,-0.160
-4.120E-06,-0.040
-4.110E-06,-0.040
-4.100E-06,0.040
-4.090E-06,-0.040
-4.080E-06,-0.120
-4.070E-06,-0.120
-4.060E-06,-0.080
-4.050E-06,0.120
-4.040E-06,0.120
-4.030E-06,0.120
-4.020E-06,0.080
-4.010E-06,0.080
-4.000E-06,0.120
-3.990E-06,0.200
-3.980E-06,0.280
-3.970E-06,0.360
-3.960E-06,0.280
-3.950E-06,0.240
-3.940E-06,0.120
-3.930E-06,0.240
-3.920E-06,0.320
-3.910E-06,0.400
-3.900E-06,0.400
-3.890E-06,0.400
-3.880E-06,0.360
-3.870E-06,0.360
-3.860E-06,0.400
-3.850E-06,0.360
-3.840E-06,0.280
-3.830E-06,0.200
-3.820E-06,0.120
-3.810E-06,0.120
-3.800E-06,0.080
-3.790E-06,0.080
-3.780E-06,0.040
-3.770E-06,0.000
-3.760E-06,-0.080
-3.750E-06,-0.200
-3.740E-06,-0.160
-3.730E-06,-0.120
-3.720E-06,-0.160
-3.710E-06,-0.080
-3.700E-06,-0.040
-3.690E-06,-0.040
-3.680E-06,-0.160
-3.670E-06,-0.200
-3.660E-06,-0.200
-3.650E-06,-0.160
-3.640E-06,-0.080
-3.630E-06,-0.040
-3.620E-06,0.000
-3.610E-06,-0.080
-3.600E-06,-0.080
-3.590E-06,-0.120
-3.580E-06,-0.040
-3.570E-06,0.040
-3.560E-06,0.120
-3.550E-06,0.320
-3.540E-06,0.240
-3.530E-06,0.080
-3.520E-06,-0.080
-3.510E-06,-0.280
-3.500E-06,-0.280
-3.490E-06,-0.080
-3.480E-06,0.040
-3.470E-06,0.080
-3.460E-06,0.160
-3.450E-06,0.200
-3.440E-06,0.080
-3.430E-06,0.120
-3.420E-06,0.200
-3.410E-06,0.360
-3.400E-06,0.360
-3.390E-06,0.400
-3.380E-06,0.480
-3.370E-06,0.440
-3.360E-06,0.360
-3.350E-06,0.360
-3.340E-06,0.320
-3.330E-06,0.320
-3.320E-06,0.280
-3.310E-06,0.240
-3.300E-06,0.200
-3.290E-06,0.160
-3.280E-06,0.160
-3.270E-06,0.080
-3.260E-06,0.040
-3.250E-06,-0.040
-3.240E-06,0.000
-3.230E-06,0.040
-3.220E-06,0.160
-3.210E-06,0.160
-3.200E-06,0.360
-3.190E-06,0.280
-3.180E-06,0.240
-3.170E-06,0.320
-3.160E-06,0.320
-3.150E-06,0.480
-3.140E-06,0.520
-3.130E-06,0.600
-3.120E-06,0.680
-3.110E-06,0.520
-3.100E-06,0.440
-3.090E-06,0.240
-3.080E-06,0.200
-3.070E-06,0.080
-3.060E-06,0.160
-3.050E-06,0.200
-3.040E-06,0.280
-3.030E-06,0.280
-3.020E-06,0.160
-3.010E-06,0.040
-3.000E-06,-0.120
-2.990E-06,-0.200
-2.980E-06,-0.200
-2.970E-06,-0.080
-2.960E-06,0.040
-2.950E-06,0.040
-2.940E-06,-0.040
-2.930E-06,-0.120
-2.920E-06,-0.280
-2.910E-06,-0.240
-2.900E-06,-0.200
-2.890E-06,-0.120
-2.880E-06,-0.160
-2.870E-06,-0.160
-2.860E-06,-0.120
-2.850E-06,-0.080
-2.840E-06,0.040
-2.830E-06,0.120
-2.820E-06,0.280
-2.810E-06,0.320
-2.800E-06,0.240
-2.790E-06,0.160
-2.780E-06,0.120
-2.770E-06,0.280
-2.760E-06,0.320
-2.750E-06,0.400
-2.740E-06,0.320
-2.730E-06,0.240
-2.720E-06,0.160
-2.710E-06,0.080
-2.700E-06,0.120
-2.690E-06,0.120
-2.680E-06,0.120
-2.670E-06,0.160
-2.660E-06,0.040
-2.650E-06,0.080
-2.640E-06,0.080
-2.630E-06,0.200
-2.620E-06,0.320
-2.610E-06,0.360
-2.600E-06,0.360
-2.590E-06,0.360
-2.580E-06,0.280
-2.570E-06,0.160
-2.560E-06,0.200
-2.550E-06,0.240
-2.540E-06,0.320
-2.530E-06,0.280
-2.520E-06,0.280
-2.510E-06,0.160
-2.500E-06,0.080
-2.490E-06,0.080
-2.480E-06,0.040
-2.470E-06,0.120
-2.460E-06,0.200
-2.450E-06,0.200
-2.440E-06,0.120
-2.430E-06,0.160
-2.420E-06,0.200
-2.410E-06,0.160
-2.400E-06,0.120
-2.390E-06,0.160
-2.380E-06,0.200
-2.370E-06,0.200
-2.360E-06,0.240
-2.350E-06,0.200
-2.340E-06,0.160
-2.330E-06,0.080
-2.320E-06,0.040
-2.310E-06,0.000
-2.300E-06,-0.040
-2.290E-06,0.000
-2.280E-06,0.040
-2.270E-06,0.120
-2.260E-06,0.160
-2.250E-06,0.200
-2.240E-06,0.240
-2.230E-06,0.200
-2.220E-06,0.200
-2.210E-06,0.200
-2.200E-06,0.200
-2.190E-06,0.160
-2.180E-06,0.200
-2.170E-06,0.160
-2.160E-06,0.200
-2.150E-06,0.160
-2.140E-06,0.280
-2.130E-06,0.240
-2.120E-06,0.320
-2.110E-06,0.200
-2.100E-06,0.120
-2.090E-06,0.120
-2.080E-06,0.080
-2.070E-06,0.160
-2.060E-06,0.280
-2.050E-06,0.360
-2.040E-06,0.440
-2.030E-06,0.440
-2.020E-06,0.400
-2.010E-06,0.400
-2.000E-06,0.440
-1.990E-06,0.560
-1.980E-06,0.720
-1.970E-06,0.760
-1.960E-06,0.800
-1.950E-06,0.480
-1.940E-06,0.360
-1.930E-06,0.120
-1.920E-06,0.200
-1.910E-06,0.440
-1.900E-06,0.640
-1.890E-06,0.760
-1.880E-06,0.560
-1.870E-06,0.320
-1.860E-06,0.000
-1.850E-06,0.000
-1.840E-06,0.200
-1.830E-06,0.400
-1.820E-06,0.480
-1.810E-06,0.440
-1.800E-06,0.200
-1.790E-06,0.120
-1.780E-06,0.040
-1.770E-06,0.080
-1.760E-06,0.160
-1.750E-06,0.280
-1.740E-06,0.200
-1.730E-06,0.080
-1.720E-06,0.040
-1.710E-06,0.000
-1.700E-06,0.000
-1.690E-06,0.000
-1.680E-06,-0.040
-1.670E-06,-0.040
-1.660E-06,-0.040
-1.650E-06,0.000
-1.640E-06,-0.080
-1.630E-06,0.000
-1.620E-06,-0.040
-1.610E-06,-0.040
-1.600E-06,-0.040
-1.590E-06,-0.040
-1.580E-06,-0.040
-1.570E-06,0.080
-1.560E-06,0.160
-1.550E-06,0.240
-1.540E-06,0.160
-1.530E-06,0.240
-1.520E-06,0.200
-1.510E-06,0.320
-1.500E-06,0.360
-1.490E-06,0.320
-1.480E-06,0.320
-1.470E-06,0.320
-1.460E-06,0.320
-1.450E-06,0.360
-1.440E-06,0.320
-1.430E-06,0.320
-1.420E-06,0.280
-1.410E-06,0.280
-1.400E-06,0.240
-1.390E-06,0.160
-1.380E-06,0.240
-1.370E-06,0.240
-1.360E-06,0.240
-1.350E-06,0.320
-1.340E-06,0.360
-1.330E-06,0.360
-1.320E-06,0.440
-1.310E-06,0.480
-1.300E-06,0.480
-1.290E-06,0.520
-1.280E-06,0.480
-1.270E-06,0.560
-1.260E-06,0.560
-1.250E-06,0.560
-1.240E-06,0.680
-1.230E-06,0.600
-1.220E-06,0.720
-1.210E-06,0.640
-1.200E-06,0.680
-1.190E-06,0.680
-1.180E-06,0.640
-1.170E-06,0.600
-1.160E-06,0.600
-1.150E-06,0.480
-1.140E-06,0.400
-1.130E-06,0.240
-1.120E-06,0.040
-1.110E-06,0.040
-1.100E-06,-0.080
-1.090E-06,-0.200
-1.080E-06,-0.040
-1.070E-06,0.000
-1.060E-06,0.160
-1.050E-06,0.200
-1.040E-06,0.160
-1.030E-06,0.120
-1.020E-06,-0.320
-1.010E-06,-0.040
-1.000E-06,-0.560
-9.900E-07,-0.320
-9.800E-07,0.040
-9.700E-07,0.160
-9.600E-07,0.920
-9.500E-07,1.000
-9.400E-07,1.080
-9.300E-07,0.880
-9.200E-07,0.560
-9.100E-07,0.400
-9.000E-07,0.280
-8.900E-07,0.720
-8.800E-07,1.200
-8.700E-07,1.480
-8.600E-07,1.400
-8.500E-07,1.080
-8.400E-07,0.840
-8.300E-07,0.680
-8.200E-07,0.760
-8.100E-07,0.880
-8.000E-07,1.000
-7.900E-07,0.920
-7.800E-07,0.760
-7.700E-07,0.560
-7.600E-07,0.240
-7.500E-07,0.080
-7.400E-07,0.000
-7.300E-07,0.000
-7.200E-07,0.000
-7.100E-07,0.000
-7.000E-07,0.000
-6.900E-07,0.040
-6.800E-07,0.120
-6.700E-07,0.200
-6.600E-07,0.240
-6.500E-07,0.360
-6.400E-07,0.240
-6.300E-07,0.280
-6.200E-07,0.200
-6.100E-07,0.160
-6.000E-07,0.280
-5.900E-07,0.240
-5.800E-07,0.320
-5.700E-07,0.120
-5.600E-07,0.080
-5.500E-07,0.160
-5.400E-07,0.040
-5.300E-07,0.200
-5.200E-07,0.240
-5.100E-07,0.320
-5.000E-07,0.360
-4.900E-07,0.400
-4.800E-07,0.440
-4.700E-07,0.480
-4.600E-07,0.600
-4.500E-07,0.680
-4.400E-07,0.680
-4.300E-07,0.800
-4.200E-07,0.800
-4.100E-07,0.920
-4.000E-07,0.960
-3.900E-07,1.040
-3.800E-07,1.080
-3.700E-07,1.160
-3.600E-07,1.160
-3.500E-07,1.160
-3.400E-07,1.160
-3.300E-07,1.120
-3.200E-07,0.920
-3.100E-07,0.920
-3.000E-07,0.840
-2.900E-07,0.680
-2.800E-07,0.680
-2.700E-07,0.600
-2.600E-07,0.480
-2.500E-07,0.320
-2.400E-07,0.040
-2.300E-07,0.000
-2.200E-07,-0.040
-2.100E-07,0.200
-2.000E-07,0.440
-1.900E-07,0.600
-1.800E-07,0.600
-1.700E-07,0.520
-1.600E-07,0.440
-1.500E-07,0.280
-1.400E-07,0.360
-1.300E-07,0.480
-1.200E-07,0.600
-1.100E-07,0.680
-1.000E-07,0.720
-9.000E-08,0.760
-8.000E-08,0.800
-7.000E-08,0.880
-6.000E-08,0.840
-5.000E-08,0.960
-4.000E-08,0.960
-3.000E-08,1.040
-2.000E-08,1.080
-1.000E-08,1.240
0.000E+00,1.560
1.000E-08,2.080
2.000E-08,2.760
3.000E-08,3.280
4.000E-08,2.960
5.000E-08,2.480
6.000E-08,1.760
7.000E-08,1.480
8.000E-08,1.840
9.000E-08,2.600
1.000E-07,3.560
1.100E-07,4.040
1.200E-07,3.640
1.300E-07,2.840
1.400E-07,2.040
1.500E-07,2.040
1.600E-07,2.240
1.700E-07,3.040
1.800E-07,3.720
1.900E-07,3.880
2.000E-07,3.640
2.100E-07,2.880
2.200E-07,2.520
2.300E-07,2.320
2.400E-07,2.320
2.500E-07,2.720
2.600E-07,2.800
2.700E-07,3.120
2.800E-07,2.680
2.900E-07,2.480
3.000E-07,2.000
3.100E-07,1.400
3.200E-07,1.040
3.300E-07,0.880
3.400E-07,1.160
3.500E-07,1.240
3.600E-07,1.200
3.700E-07,0.920
3.800E-07,0.480
3.900E-07,0.320
4.000E-07,0.240
4.100E-07,0.600
4.200E-07,0.800
4.300E-07,1.040
4.400E-07,0.920
4.500E-07,0.760
4.600E-07,0.600
4.700E-07,0.600
4.800E-07,0.680
4.900E-07,1.040
5.000E-07,1.120
5.100E-07,1.320
5.200E-07,1.240
5.300E-07,1.120
5.400E-07,0.920
5.500E-07,0.720
5.600E-07,0.680
5.700E-07,0.600
5.800E-07,0.600
5.900E-07,0.600
6.000E-07,0.680
6.100E-07,0.680
6.200E-07,0.840
6.300E-07,0.800
6.400E-07,0.720
6.500E-07,0.680
6.600E-07,0.560
6.700E-07,0.440
6.800E-07,0.520
6.900E-07,0.480
7.000E-07,0.440
7.100E-07,0.480
7.200E-07,0.320
7.300E-07,0.400
7.400E-07,0.320
7.500E-07,0.440
7.600E-07,0.440
7.700E-07,0.360
7.800E-07,0.400
7.900E-07,0.360
8.000E-07,0.280
8.100E-07,0.280
8.200E-07,0.160
8.300E-07,0.000
8.400E-07,0.040
8.500E-07,-0.080
8.600E-07,0.000
8.700E-07,0.040
8.800E-07,-0.080
8.900E-07,-0.040
9.000E-07,-0.160
9.100E-07,-0.120
9.200E-07,-0.080
9.300E-07,0.000
9.400E-07,0.000
9.500E-07,0.080
9.600E-07,0.080
9.700E-07,-0.040
9.800E-07,0.000
9.900E-07,-0.120
1.000E-06,-0.360
1.010E-06,-0.320
1.020E-06,-0.400
1.030E-06,-0.240
1.040E-06,0.080
1.050E-06,0.240
1.060E-06,0.360
1.070E-06,0.520
1.080E-06,0.360
1.090E-06,0.640
1.100E-06,0.880
1.110E-06,0.960
1.120E-06,1.000
1.130E-06,0.840
1.140E-06,0.240
1.150E-06,-0.400
1.160E-06,-0.360
1.170E-06,-0.960
1.180E-06,-0.360
1.190E-06,-0.880
1.200E-06,-0.360
1.210E-06,-0.240
1.220E-06,0.080
1.230E-06,0.840
1.240E-06,1.040
1.250E-06,1.400
1.260E-06,1.520
1.270E-06,1.560
1.280E-06,1.680
1.290E-06,1.480
1.300E-06,1.480
1.310E-06,1.280
1.320E-06,1.160
1.330E-06,0.880
1.340E-06,1.120
1.350E-06,1.000
1.360E-06,1.200
1.370E-06,1.200
1.380E-06,0.760
1.390E-06,0.520
1.400E-06,0.000
1.410E-06,-0.240
1.420E-06,-0.320
1.430E-06,-0.360
1.440E-06,-0.360
1.450E-06,-0.120
1.460E-06,-0.800
1.470E-06,-0.840
1.480E-06,-1.040
1.490E-06,-1.080
1.500E-06,-0.840
1.510E-06,-0.400
1.520E-06,-0.320
1.530E-06,0.120
1.540E-06,-0.040
1.550E-06,0.080
1.560E-06,0.120
1.570E-06,0.120
1.580E-06,0.560
1.590E-06,0.600
1.600E-06,0.840
1.610E-06,0.840
1.620E-06,0.480
1.630E-06,0.400
1.640E-06,-0.040
1.650E-06,-0.200
1.660E-06,-0.400
1.670E-06,-0.560
1.680E-06,-0.640
1.690E-06,-0.720
1.700E-06,-0.880
1.710E-06,-0.920
1.720E-06,-1.040
1.730E-06,-0.800
1.740E-06,-0.600
1.750E-06,-0.120
1.760E-06,0.360
1.770E-06,0.520
1.780E-06,0.560
1.790E-06,0.640
1.800E-06,0.400
1.810E-06,0.520
1.820E-06,0.600
1.830E-06,0.920
1.840E-06,0.960
1.850E-06,0.520
1.860E-06,0.480
1.870E-06,0.000
1.880E-06,0.040
1.890E-06,0.040
1.900E-06,-0.080
1.910E-06,0.040
1.920E-06,0.000
1.930E-06,0.000
1.940E-06,-0.080
1.950E-06,-0.240
1.960E-06,-0.160
1.970E-06,-0.120
1.980E-06,0.040
1.990E-06,0.280
2.000E-06,0.280
2.010E-06,0.440
2.020E-06,0.240
2.030E-06,0.320
2.040E-06,0.240
2.050E-06,0.240
2.060E-06,0.320
2.070E-06,0.320
2.080E-06,0.360
2.090E-06,0.440
2.100E-06,0.400
2.110E-06,0.240
2.120E-06,0.040
2.130E-06,-0.120
2.140E-06,-0.280
2.150E-06,-0.240
2.160E-06,-0.240
2.170E-06,-0.080
2.180E-06,0.000
2.190E-06,0.000
2.200E-06,-0.040
2.210E-06,-0.120
2.220E-06,-0.240
2.230E-06,-0.320
2.240E-06,-0.400
2.250E-06,-0.400
2.260E-06,-0.320
2.270E-06,-0.320
2.280E-06,-0.280
2.290E-06,-0.320
2.300E-06,-0.400
2.310E-06,-0.560
2.320E-06,-0.600
2.330E-06,-0.600
2.340E-06,-0.600
2.350E-06,-0.680
2.360E-06,-0.680
2.370E-06,-0.760
2.380E-06,-0.920
2.390E-06,-1.000
2.400E-06,-1.200
2.410E-06,-1.240
2.420E-06,-1.320
2.430E-06,-1.360
2.440E-06,-1.440
2.450E-06,-1.560
2.460E-06,-1.680
2.470E-06,-1.760
2.480E-06,-1.880
2.490E-06,-1.920
2.500E-06,-1.800
2.510E-06,-1.640
2.520E-06,-1.600
2.530E-06,-1.680
2.540E-06,-1.800
2.550E-06,-1.880
2.560E-06,-1.800
2.570E-06,-1.680
2.580E-06,-1.600
2.590E-06,-1.680
2.600E-06,-1.840
2.610E-06,-1.960
2.620E-06,-1.880
2.630E-06,-1.680
2.640E-06,-1.520
2.650E-06,-1.560
2.660E-06,-1.560
2.670E-06,-1.800
2.680E-06,-2.000
2.690E-06,-2.040
2.700E-06,-2.640
2.710E-06,-2.160
2.720E-06,-2.160
2.730E-06,-1.520
2.740E-06,-0.400
2.750E-06,0.160
2.760E-06,1.000
2.770E-06,1.320
2.780E-06,1.480
2.790E-06,1.720
2.800E-06,1.400
2.810E-06,1.360
2.820E-06,1.120
2.830E-06,1.160
2.840E-06,1.560
2.850E-06,1.680
2.860E-06,1.800
2.870E-06,1.520
2.880E-06,1.160
2.890E-06,0.960
2.900E-06,0.800
2.910E-06,0.600
2.920E-06,0.160
2.930E-06,-0.480
2.940E-06,-1.360
2.950E-06,-2.280
2.960E-06,-3.440
2.970E-06,-4.560
2.980E-06,-5.200
2.990E-06,-5.200
3.000E-06,-5.200
3.010E-06,-5.240
3.020E-06,-5.240
3.030E-06,-5.240
3.040E-06,-5.240
3.050E-06,-5.240
3.060E-06,-5.240
3.070E-06,-5.240
3.080E-06,-5.240
3.090E-06,-5.200
3.100E-06,-5.200
3.110E-06,-5.200
3.120E-06,-5.240
3.130E-06,-5.200
3.140E-06,-5.240
3.150E-06,-5.240
3.160E-06,-5.240
3.170E-06,-5.200
3.180E-06,-5.200
3.190E-06,-5.240
3.200E-06,-5.240
3.210E-06,-5.240
3.220E-06,-5.200
3.230E-06,-5.240
3.240E-06,-5.240
3.250E-06,-5.240
3.260E-06,-5.240
3.270E-06,-5.240
3.280E-06,-5.200
3.290E-06,-5.200
3.300E-06,-5.240
3.310E-06,-5.200
3.320E-06,-5.240
3.330E-06,-5.240
3.340E-06,-5.200
3.350E-06,-5.200
3.360E-06,-5.200
3.370E-06,-5.200
3.380E-06,-5.040
3.390E-06,-4.920
3.400E-06,-4.640
3.410E-06,-4.560
3.420E-06,-4.400
3.430E-06,-4.320
3.440E-06,-4.240
3.450E-06,-4.160
3.460E-06,-4.120
3.470E-06,-4.000
3.480E-06,-3.840
3.490E-06,-3.680
3.500E-06,-3.600
3.510E-06,-3.480
3.520E-06,-3.360
3.530E-06,-3.240
3.540E-06,-3.080
3.550E-06,-2.920
3.560E-06,-2.720
3.570E-06,-2.600
3.580E-06,-2.440
3.590E-06,-2.240
3.600E-06,-2.120
3.610E-06,-2.040
3.620E-06,-1.880
3.630E-06,-1.760
3.640E-06,-1.720
3.650E-06,-1.680
3.660E-06,-1.640
3.670E-06,-1.640
3.680E-06,-1.640
3.690E-06,-1.720
3.700E-06,-1.760
3.710E-06,-1.800
3.720E-06,-1.880
3.730E-06,-1.920
3.740E-06,-2.000
3.750E-06,-2.000
3.760E-06,-2.120
3.770E-06,-2.160
3.780E-06,-2.160
3.790E-06,-2.160
3.800E-06,-2.120
3.810E-06,-2.080
3.820E-06,-2.000
3.830E-06,-1.960
3.840E-06,-1.840
3.850E-06,-1.720
3.860E-06,-1.640
3.870E-06,-1.480
3.880E-06,-1.360
3.890E-06,-1.360
3.900E-06,-1.240
3.910E-06,-1.160
3.920E-06,-1.120
3.930E-06,-1.000
3.940E-06,-1.000
3.950E-06,-0.920
3.960E-06,-0.960
3.970E-06,-0.880
3.980E-06,-0.880
3.990E-06,-0.880
4.000E-06,-0.880
4.010E-06,-0.880
4.020E-06,-0.880
4.030E-06,-0.880
4.040E-06,-0.840
4.050E-06,-0.840
4.060E-06,-0.800
4.070E-06,-0.800
4.080E-06,-0.800
4.090E-06,-0.840
4.100E-06,-0.880
4.110E-06,-0.880
4.120E-06,-0.840
4.130E-06,-0.840
4.140E-06,-0.840
4.150E-06,-0.800
4.160E-06,-0.760
4.170E-06,-0.760
4.180E-06,-0.720
4.190E-06,-0.680
4.200E-06,-0.640
4.210E-06,-0.720
4.220E-06,-0.680
4.230E-06,-0.680
4.240E-06,-0.640
4.250E-06,-0.680
4.260E-06,-0.640
4.270E-06,-0.600
4.280E-06,-0.600
4.290E-06,-0.600
4.300E-06,-0.640
4.310E-06,-0.600
4.320E-06,-0.640
4.330E-06,-0.640
4.340E-06,-0.680
4.350E-06,-0.720
4.360E-06,-0.880
4.370E-06,-0.880
4.380E-06,-1.000
4.390E-06,-1.000
4.400E-06,-1.120
4.410E-06,-1.120
4.420E-06,-1.120
4.430E-06,-1.120
4.440E-06,-1.160
4.450E-06,-1.240
4.460E-06,-1.200
4.470E-06,-1.200
4.480E-06,-1.200
4.490E-06,-1.120
4.500E-06,-1.000
4.510E-06,-1.000
4.520E-06,-0.920
4.530E-06,-0.800
4.540E-06,-0.720
4.550E-06,-0.760
4.560E-06,-0.680
4.570E-06,-0.640
4.580E-06,-0.560
4.590E-06,-0.520
4.600E-06,-0.520
4.610E-06,-0.440
4.620E-06,-0.440
4.630E-06,-0.360
4.640E-06,-0.400
4.650E-06,-0.320
4.660E-06,-0.320
4.670E-06,-0.320
4.680E-06,-0.320
4.690E-06,-0.360
4.700E-06,-0.320
4.710E-06,-0.320
4.720E-06,-0.360
4.730E-06,-0.400
4.740E-06,-0.480
4.750E-06,-0.480
4.760E-06,-0.520
4.770E-06,-0.480
4.780E-06,-0.480
4.790E-06,-0.480
4.800E-06,-0.560
4.810E-06,-0.600
4.820E-06,-0.640
4.830E-06,-0.760
4.840E-06,-0.800
4.850E-06,-1.000
4.860E-06,-1.160
4.870E-06,-1.240
4.880E-06,-1.280
4.890E-06,-1.360
4.900E-06,-1.400
4.910E-06,-1.440
4.920E-06,-1.480
4.930E-06,-1.520
4.940E-06,-1.480
4.950E-06,-1.440
4.960E-06,-1.440
4.970E-06,-1.320
4.980E-06,-1.240
4.990E-06,-1.160
5.000E-06,-1.120
5.010E-06,-0.960
5.020E-06,-0.840
5.030E-06,-0.720
5.040E-06,-0.640
5.050E-06,-0.480
5.060E-06,-0.400
5.070E-06,-0.320
5.080E-06,-0.280
5.090E-06,-0.280
5.100E-06,-0.240
5.110E-06,-0.200
5.120E-06,-0.240
5.130E-06,-0.280
5.140E-06,-0.240
5.150E-06,-0.280
5.160E-06,-0.360
5.170E-06,-0.440
5.180E-06,-0.520
5.190E-06,-0.600
5.200E-06,-0.640
5.210E-06,-0.720
5.220E-06,-0.680
5.230E-06,-0.720
5.240E-06,-0.680
5.250E-06,-0.640
5.260E-06,-0.680
5.270E-06,-0.600
5.280E-06,-0.520
5.290E-06,-0.480
5.300E-06,-0.480
5.310E-06,-0.440
5.320E-06,-0.400
5.330E-06,-0.320
5.340E-06,-0.240
5.350E-06,-0.160
5.360E-06,-0.080
5.370E-06,0.000
5.380E-06,-0.040
5.390E-06,0.000
5.400E-06,-0.080
5.410E-06,-0.200
5.420E-06,-0.280
5.430E-06,-0.320
5.440E-06,-0.320
5.450E-06,-0.400
5.460E-06,-0.440
5.470E-06,-0.440
5.480E-06,-0.440
5.490E-06,-0.440
5.500E-06,-0.440
5.510E-06,-0.480
5.520E-06,-0.480
5.530E-06,-0.360
5.540E-06,-0.320
5.550E-06,-0.360
5.560E-06,-0.240
5.570E-06,-0.240
5.580E-06,-0.200
5.590E-06,-0.200
5.600E-06,-0.160
5.610E-06,-0.120
5.620E-06,-0.160
5.630E-06,-0.240
5.640E-06,-0.320
5.650E-06,-0.360
5.660E-06,-0.480
5.670E-06,-0.600
5.680E-06,-0.680
5.690E-06,-0.760
5.700E-06,-0.840
5.710E-06,-0.880
5.720E-06,-1.000
5.730E-06,-1.000
5.740E-06,-1.000
5.750E-06,-1.080
5.760E-06,-1.080
5.770E-06,-1.000
5.780E-06,-1.040
5.790E-06,-0.960
5.800E-06,-0.880
5.810E-06,-0.800
5.820E-06,-0.680
5.830E-06,-0.640
5.840E-06,-0.480
5.850E-06,-0.400
5.860E-06,-0.320
5.870E-06,-0.240
5.880E-06,-0.200
5.890E-06,-0.080
5.900E-06,0.000
5.910E-06,0.000
5.920E-06,0.040
5.930E-06,0.080
5.940E-06,0.120
5.950E-06,0.160
5.960E-06,0.160
5.970E-06,0.200
5.980E-06,0.160
5.990E-06,0.160
6.000E-06,0.200
6.010E-06,0.240
6.020E-06,0.320
6.030E-06,0.360
6.040E-06,0.320
6.050E-06,0.400
6.060E-06,0.360
6.070E-06,0.360
6.080E-06,0.320
6.090E-06,0.320
6.100E-06,0.320
6.110E-06,0.280
