mediciones/Mediciones filtradas (saque las feas)/5-27/-37.5/WaveData5139.csv

#timebase=2000000(ps)
,#voltbase=1000000(mv/100)
#size=4000
-5.650E-06,0.160
-5.640E-06,0.200
-5.630E-06,0.120
-5.620E-06,0.040
-5.610E-06,0.120
-5.600E-06,0.040
-5.590E-06,0.080
-5.580E-06,0.120
-5.570E-06,0.120
-5.560E-06,0.200
-5.550E-06,0.120
-5.540E-06,0.160
-5.530E-06,0.040
-5.520E-06,0.080
-5.510E-06,0.120
-5.500E-06,0.200
-5.490E-06,0.080
-5.480E-06,0.120
-5.470E-06,0.160
-5.460E-06,0.120
-5.450E-06,0.120
-5.440E-06,0.160
-5.430E-06,0.160
-5.420E-06,0.080
-5.410E-06,0.160
-5.400E-06,0.000
-5.390E-06,0.280
-5.380E-06,0.240
-5.370E-06,0.200
-5.360E-06,0.320
-5.350E-06,0.400
-5.340E-06,0.400
-5.330E-06,0.480
-5.320E-06,0.480
-5.310E-06,0.400
-5.300E-06,0.200
-5.290E-06,0.160
-5.280E-06,0.240
-5.270E-06,0.200
-5.260E-06,0.320
-5.250E-06,0.280
-5.240E-06,0.200
-5.230E-06,0.000
-5.220E-06,-0.080
-5.210E-06,0.000
-5.200E-06,-0.040
-5.190E-06,0.040
-5.180E-06,0.000
-5.170E-06,-0.040
-5.160E-06,-0.080
-5.150E-06,-0.120
-5.140E-06,-0.160
-5.130E-06,-0.080
-5.120E-06,-0.040
-5.110E-06,-0.040
-5.100E-06,-0.120
-5.090E-06,-0.240
-5.080E-06,-0.280
-5.070E-06,-0.120
-5.060E-06,-0.120
-5.050E-06,-0.120
-5.040E-06,-0.040
-5.030E-06,-0.040
-5.020E-06,-0.080
-5.010E-06,-0.080
-5.000E-06,0.000
-4.990E-06,0.000
-4.980E-06,0.040
-4.970E-06,0.000
-4.960E-06,0.040
-4.950E-06,0.120
-4.940E-06,0.080
-4.930E-06,0.080
-4.920E-06,0.080
-4.910E-06,0.000
-4.900E-06,0.080
-4.890E-06,0.120
-4.880E-06,0.240
-4.870E-06,0.280
-4.860E-06,0.120
-4.850E-06,0.120
-4.840E-06,0.000
-4.830E-06,0.040
-4.820E-06,0.080
-4.810E-06,0.120
-4.800E-06,0.080
-4.790E-06,0.000
-4.780E-06,-0.040
-4.770E-06,0.000
-4.760E-06,0.080
-4.750E-06,0.120
-4.740E-06,0.120
-4.730E-06,0.120
-4.720E-06,0.080
-4.710E-06,0.120
-4.700E-06,0.120
-4.690E-06,0.200
-4.680E-06,0.200
-4.670E-06,0.200
-4.660E-06,0.200
-4.650E-06,0.120
-4.640E-06,0.080
-4.630E-06,0.080
-4.620E-06,0.160
-4.610E-06,0.080
-4.600E-06,0.080
-4.590E-06,0.040
-4.580E-06,0.040
-4.570E-06,0.080
-4.560E-06,0.200
-4.550E-06,0.120
-4.540E-06,0.160
-4.530E-06,0.080
-4.520E-06,0.040
-4.510E-06,0.000
-4.500E-06,0.040
-4.490E-06,0.080
-4.480E-06,0.000
-4.470E-06,0.160
-4.460E-06,0.080
-4.450E-06,0.000
-4.440E-06,0.120
-4.430E-06,0.120
-4.420E-06,0.120
-4.410E-06,0.480
-4.400E-06,0.400
-4.390E-06,0.320
-4.380E-06,0.160
-4.370E-06,0.080
-4.360E-06,0.040
-4.350E-06,0.080
-4.340E-06,0.240
-4.330E-06,0.320
-4.320E-06,0.160
-4.310E-06,0.040
-4.300E-06,-0.040
-4.290E-06,-0.080
-4.280E-06,-0.040
-4.270E-06,0.080
-4.260E-06,0.080
-4.250E-06,0.000
-4.240E-06,-0.080
-4.230E-06,-0.080
-4.220E-06,-0.120
-4.210E-06,-0.160
-4.200E-06,-0.080
-4.190E-06,-0.040
-4.180E-06,-0.080
-4.170E-06,-0.160
-4.160E-06,-0.240
-4.150E-06,-0.080
-4.140E-06,-0.080
-4.130E-06,-0.080
-4.120E-06,-0.040
-4.110E-06,-0.040
-4.100E-06,-0.040
-4.090E-06,-0.040
-4.080E-06,0.040
-4.070E-06,0.080
-4.060E-06,0.080
-4.050E-06,0.080
-4.040E-06,0.120
-4.030E-06,0.160
-4.020E-06,0.120
-4.010E-06,0.160
-4.000E-06,0.160
-3.990E-06,0.200
-3.980E-06,0.160
-3.970E-06,0.160
-3.960E-06,0.040
-3.950E-06,0.120
-3.940E-06,0.160
-3.930E-06,0.120
-3.920E-06,0.120
-3.910E-06,0.080
-3.900E-06,0.040
-3.890E-06,0.000
-3.880E-06,0.000
-3.870E-06,0.040
-3.860E-06,0.080
-3.850E-06,0.080
-3.840E-06,0.160
-3.830E-06,0.160
-3.820E-06,0.160
-3.810E-06,0.080
-3.800E-06,0.040
-3.790E-06,0.000
-3.780E-06,-0.040
-3.770E-06,0.000
-3.760E-06,0.160
-3.750E-06,0.280
-3.740E-06,0.480
-3.730E-06,0.440
-3.720E-06,0.440
-3.710E-06,0.360
-3.700E-06,0.160
-3.690E-06,0.160
-3.680E-06,0.120
-3.670E-06,0.360
-3.660E-06,0.560
-3.650E-06,0.640
-3.640E-06,0.640
-3.630E-06,0.520
-3.620E-06,0.400
-3.610E-06,0.240
-3.600E-06,0.160
-3.590E-06,0.240
-3.580E-06,0.360
-3.570E-06,0.480
-3.560E-06,0.520
-3.550E-06,0.320
-3.540E-06,0.240
-3.530E-06,0.160
-3.520E-06,0.000
-3.510E-06,0.120
-3.500E-06,0.080
-3.490E-06,0.160
-3.480E-06,0.160
-3.470E-06,0.160
-3.460E-06,0.120
-3.450E-06,0.040
-3.440E-06,0.040
-3.430E-06,0.000
-3.420E-06,-0.040
-3.410E-06,0.000
-3.400E-06,0.200
-3.390E-06,0.240
-3.380E-06,0.240
-3.370E-06,0.240
-3.360E-06,0.160
-3.350E-06,0.160
-3.340E-06,0.320
-3.330E-06,0.440
-3.320E-06,0.480
-3.310E-06,0.640
-3.300E-06,0.480
-3.290E-06,0.520
-3.280E-06,0.360
-3.270E-06,0.400
-3.260E-06,0.200
-3.250E-06,0.240
-3.240E-06,0.160
-3.230E-06,0.040
-3.220E-06,0.120
-3.210E-06,0.160
-3.200E-06,0.200
-3.190E-06,0.200
-3.180E-06,0.040
-3.170E-06,0.160
-3.160E-06,-0.200
-3.150E-06,0.040
-3.140E-06,0.040
-3.130E-06,0.400
-3.120E-06,0.800
-3.110E-06,0.880
-3.100E-06,0.800
-3.090E-06,0.480
-3.080E-06,0.160
-3.070E-06,0.240
-3.060E-06,0.480
-3.050E-06,0.800
-3.040E-06,0.960
-3.030E-06,0.760
-3.020E-06,0.480
-3.010E-06,0.160
-3.000E-06,0.040
-2.990E-06,0.160
-2.980E-06,0.320
-2.970E-06,0.400
-2.960E-06,0.360
-2.950E-06,0.160
-2.940E-06,-0.040
-2.930E-06,-0.160
-2.920E-06,-0.280
-2.910E-06,-0.160
-2.900E-06,-0.160
-2.890E-06,-0.200
-2.880E-06,-0.320
-2.870E-06,-0.400
-2.860E-06,-0.440
-2.850E-06,-0.440
-2.840E-06,-0.480
-2.830E-06,-0.360
-2.820E-06,-0.320
-2.810E-06,-0.240
-2.800E-06,-0.160
-2.790E-06,-0.200
-2.780E-06,-0.080
-2.770E-06,-0.120
-2.760E-06,-0.120
-2.750E-06,0.000
-2.740E-06,-0.040
-2.730E-06,0.120
-2.720E-06,0.160
-2.710E-06,0.280
-2.700E-06,0.280
-2.690E-06,0.160
-2.680E-06,0.200
-2.670E-06,0.240
-2.660E-06,0.160
-2.650E-06,0.360
-2.640E-06,0.120
-2.630E-06,0.520
-2.620E-06,0.320
-2.610E-06,0.240
-2.600E-06,0.040
-2.590E-06,-0.320
-2.580E-06,-0.160
-2.570E-06,0.000
-2.560E-06,0.600
-2.550E-06,1.160
-2.540E-06,1.000
-2.530E-06,0.560
-2.520E-06,-0.080
-2.510E-06,-0.400
-2.500E-06,-0.120
-2.490E-06,0.480
-2.480E-06,1.000
-2.470E-06,0.880
-2.460E-06,0.440
-2.450E-06,-0.160
-2.440E-06,-0.360
-2.430E-06,-0.280
-2.420E-06,0.200
-2.410E-06,0.480
-2.400E-06,0.520
-2.390E-06,0.360
-2.380E-06,0.040
-2.370E-06,-0.160
-2.360E-06,0.040
-2.350E-06,0.040
-2.340E-06,0.280
-2.330E-06,0.200
-2.320E-06,0.000
-2.310E-06,0.000
-2.300E-06,-0.160
-2.290E-06,0.000
-2.280E-06,0.000
-2.270E-06,0.080
-2.260E-06,0.200
-2.250E-06,0.200
-2.240E-06,0.360
-2.230E-06,0.320
-2.220E-06,0.360
-2.210E-06,0.440
-2.200E-06,0.440
-2.190E-06,0.600
-2.180E-06,0.680
-2.170E-06,0.760
-2.160E-06,0.840
-2.150E-06,0.720
-2.140E-06,0.560
-2.130E-06,0.480
-2.120E-06,0.200
-2.110E-06,-0.040
-2.100E-06,-0.200
-2.090E-06,-0.200
-2.080E-06,-0.200
-2.070E-06,0.000
-2.060E-06,0.040
-2.050E-06,0.080
-2.040E-06,-0.040
-2.030E-06,-0.200
-2.020E-06,-0.240
-2.010E-06,-0.120
-2.000E-06,0.120
-1.990E-06,0.360
-1.980E-06,0.520
-1.970E-06,0.560
-1.960E-06,0.400
-1.950E-06,0.320
-1.940E-06,0.320
-1.930E-06,0.320
-1.920E-06,0.400
-1.910E-06,0.480
-1.900E-06,0.480
-1.890E-06,0.520
-1.880E-06,0.440
-1.870E-06,0.480
-1.860E-06,0.400
-1.850E-06,0.360
-1.840E-06,0.400
-1.830E-06,0.320
-1.820E-06,0.160
-1.810E-06,0.200
-1.800E-06,0.160
-1.790E-06,0.200
-1.780E-06,0.120
-1.770E-06,0.040
-1.760E-06,-0.160
-1.750E-06,-0.280
-1.740E-06,-0.200
-1.730E-06,0.040
-1.720E-06,0.520
-1.710E-06,0.600
-1.700E-06,0.560
-1.690E-06,0.320
-1.680E-06,0.040
-1.670E-06,0.080
-1.660E-06,0.320
-1.650E-06,0.680
-1.640E-06,0.840
-1.630E-06,0.840
-1.620E-06,0.720
-1.610E-06,0.360
-1.600E-06,0.120
-1.590E-06,-0.040
-1.580E-06,0.000
-1.570E-06,0.160
-1.560E-06,0.400
-1.550E-06,0.520
-1.540E-06,0.400
-1.530E-06,0.200
-1.520E-06,0.040
-1.510E-06,0.080
-1.500E-06,0.240
-1.490E-06,0.480
-1.480E-06,0.520
-1.470E-06,0.440
-1.460E-06,0.320
-1.450E-06,0.160
-1.440E-06,0.200
-1.430E-06,0.320
-1.420E-06,0.440
-1.410E-06,0.560
-1.400E-06,0.640
-1.390E-06,0.560
-1.380E-06,0.560
-1.370E-06,0.440
-1.360E-06,0.320
-1.350E-06,0.360
-1.340E-06,0.200
-1.330E-06,0.280
-1.320E-06,0.360
-1.310E-06,0.200
-1.300E-06,0.200
-1.290E-06,-0.040
-1.280E-06,-0.160
-1.270E-06,-0.160
-1.260E-06,-0.080
-1.250E-06,0.160
-1.240E-06,0.280
-1.230E-06,0.400
-1.220E-06,0.400
-1.210E-06,0.360
-1.200E-06,0.320
-1.190E-06,0.240
-1.180E-06,0.160
-1.170E-06,0.200
-1.160E-06,0.200
-1.150E-06,0.120
-1.140E-06,0.160
-1.130E-06,0.040
-1.120E-06,-0.080
-1.110E-06,-0.040
-1.100E-06,-0.040
-1.090E-06,0.080
-1.080E-06,0.280
-1.070E-06,0.400
-1.060E-06,0.360
-1.050E-06,0.240
-1.040E-06,0.200
-1.030E-06,0.040
-1.020E-06,0.120
-1.010E-06,0.120
-1.000E-06,0.200
-9.900E-07,0.120
-9.800E-07,-0.080
-9.700E-07,0.080
-9.600E-07,-0.280
-9.500E-07,-0.040
-9.400E-07,0.080
-9.300E-07,0.160
-9.200E-07,0.560
-9.100E-07,0.800
-9.000E-07,1.000
-8.900E-07,1.160
-8.800E-07,1.080
-8.700E-07,0.920
-8.600E-07,0.800
-8.500E-07,0.800
-8.400E-07,0.880
-8.300E-07,1.000
-8.200E-07,1.080
-8.100E-07,1.120
-8.000E-07,0.920
-7.900E-07,0.720
-7.800E-07,0.520
-7.700E-07,0.400
-7.600E-07,0.400
-7.500E-07,0.360
-7.400E-07,0.360
-7.300E-07,0.160
-7.200E-07,-0.040
-7.100E-07,-0.240
-7.000E-07,-0.400
-6.900E-07,-0.520
-6.800E-07,-0.560
-6.700E-07,-0.520
-6.600E-07,-0.600
-6.500E-07,-0.640
-6.400E-07,-0.720
-6.300E-07,-0.720
-6.200E-07,-0.640
-6.100E-07,-0.520
-6.000E-07,-0.440
-5.900E-07,-0.360
-5.800E-07,-0.280
-5.700E-07,-0.240
-5.600E-07,-0.120
-5.500E-07,-0.040
-5.400E-07,0.080
-5.300E-07,0.040
-5.200E-07,0.240
-5.100E-07,0.360
-5.000E-07,0.480
-4.900E-07,0.560
-4.800E-07,0.480
-4.700E-07,0.440
-4.600E-07,0.440
-4.500E-07,0.440
-4.400E-07,0.480
-4.300E-07,0.560
-4.200E-07,0.560
-4.100E-07,0.560
-4.000E-07,0.480
-3.900E-07,0.440
-3.800E-07,0.400
-3.700E-07,0.400
-3.600E-07,0.360
-3.500E-07,0.320
-3.400E-07,0.320
-3.300E-07,0.320
-3.200E-07,0.280
-3.100E-07,0.280
-3.000E-07,0.240
-2.900E-07,0.280
-2.800E-07,0.160
-2.700E-07,0.200
-2.600E-07,0.200
-2.500E-07,0.200
-2.400E-07,0.120
-2.300E-07,0.120
-2.200E-07,0.120
-2.100E-07,-0.040
-2.000E-07,0.000
-1.900E-07,-0.200
-1.800E-07,-0.280
-1.700E-07,-0.440
-1.600E-07,-0.560
-1.500E-07,-0.640
-1.400E-07,-0.600
-1.300E-07,-0.520
-1.200E-07,-0.440
-1.100E-07,-0.400
-1.000E-07,-0.200
-9.000E-08,-0.080
-8.000E-08,0.000
-7.000E-08,0.040
-6.000E-08,0.160
-5.000E-08,0.040
-4.000E-08,-0.040
-3.000E-08,-0.320
-2.000E-08,-0.600
-1.000E-08,-0.840
0.000E+00,-1.000
1.000E-08,-0.520
2.000E-08,0.760
3.000E-08,0.880
4.000E-08,1.440
5.000E-08,0.920
6.000E-08,-0.400
7.000E-08,-0.560
8.000E-08,-0.840
9.000E-08,0.400
1.000E-07,1.160
1.100E-07,1.760
1.200E-07,1.760
1.300E-07,0.600
1.400E-07,0.320
1.500E-07,-0.280
1.600E-07,0.200
1.700E-07,0.920
1.800E-07,1.680
1.900E-07,1.920
2.000E-07,1.680
2.100E-07,1.240
2.200E-07,0.760
2.300E-07,0.560
2.400E-07,0.600
2.500E-07,0.640
2.600E-07,0.880
2.700E-07,0.840
2.800E-07,0.680
2.900E-07,0.440
3.000E-07,0.240
3.100E-07,0.040
3.200E-07,-0.120
3.300E-07,-0.240
3.400E-07,-0.240
3.500E-07,-0.400
3.600E-07,-0.520
3.700E-07,-0.600
3.800E-07,-0.760
3.900E-07,-0.880
4.000E-07,-0.920
4.100E-07,-0.840
4.200E-07,-0.720
4.300E-07,-0.640
4.400E-07,-0.600
4.500E-07,-0.600
4.600E-07,-0.680
4.700E-07,-0.640
4.800E-07,-0.520
4.900E-07,-0.240
5.000E-07,-0.040
5.100E-07,0.040
5.200E-07,0.080
5.300E-07,0.000
5.400E-07,-0.040
5.500E-07,-0.080
5.600E-07,0.080
5.700E-07,0.200
5.800E-07,0.320
5.900E-07,0.440
6.000E-07,0.520
6.100E-07,0.560
6.200E-07,0.640
6.300E-07,0.680
6.400E-07,0.640
6.500E-07,0.720
6.600E-07,0.720
6.700E-07,0.720
6.800E-07,0.760
6.900E-07,0.600
7.000E-07,0.520
7.100E-07,0.480
7.200E-07,0.480
7.300E-07,0.560
7.400E-07,0.520
7.500E-07,0.480
7.600E-07,0.400
7.700E-07,0.400
7.800E-07,0.360
7.900E-07,0.040
8.000E-07,0.000
8.100E-07,-0.080
8.200E-07,0.000
8.300E-07,-0.040
8.400E-07,0.040
8.500E-07,0.200
8.600E-07,0.320
8.700E-07,0.360
8.800E-07,0.320
8.900E-07,0.320
9.000E-07,0.360
9.100E-07,0.440
9.200E-07,0.640
9.300E-07,0.680
9.400E-07,0.840
9.500E-07,0.880
9.600E-07,0.960
9.700E-07,0.960
9.800E-07,1.080
9.900E-07,1.160
1.000E-06,1.160
1.010E-06,1.320
1.020E-06,1.400
1.030E-06,1.360
1.040E-06,1.520
1.050E-06,1.400
1.060E-06,1.360
1.070E-06,1.320
1.080E-06,1.160
1.090E-06,1.200
1.100E-06,1.000
1.110E-06,0.960
1.120E-06,0.920
1.130E-06,0.840
1.140E-06,0.800
1.150E-06,0.720
1.160E-06,0.680
1.170E-06,0.600
1.180E-06,0.560
1.190E-06,0.480
1.200E-06,0.480
1.210E-06,0.440
1.220E-06,0.440
1.230E-06,0.400
1.240E-06,0.360
1.250E-06,0.360
1.260E-06,0.360
1.270E-06,0.320
1.280E-06,0.440
1.290E-06,0.480
1.300E-06,0.760
1.310E-06,0.800
1.320E-06,0.920
1.330E-06,0.840
1.340E-06,0.840
1.350E-06,0.800
1.360E-06,0.840
1.370E-06,0.800
1.380E-06,0.520
1.390E-06,0.480
1.400E-06,0.240
1.410E-06,0.280
1.420E-06,0.400
1.430E-06,0.480
1.440E-06,0.800
1.450E-06,0.800
1.460E-06,0.800
1.470E-06,0.720
1.480E-06,0.640
1.490E-06,0.840
1.500E-06,1.040
1.510E-06,1.160
1.520E-06,1.120
1.530E-06,1.040
1.540E-06,0.680
1.550E-06,0.600
1.560E-06,0.520
1.570E-06,0.720
1.580E-06,0.920
1.590E-06,0.880
1.600E-06,0.760
1.610E-06,0.560
1.620E-06,0.440
1.630E-06,0.560
1.640E-06,0.640
1.650E-06,0.840
1.660E-06,0.840
1.670E-06,0.640
1.680E-06,0.640
1.690E-06,0.640
1.700E-06,0.680
1.710E-06,0.800
1.720E-06,0.800
1.730E-06,0.840
1.740E-06,0.800
1.750E-06,0.840
1.760E-06,0.840
1.770E-06,0.800
1.780E-06,0.720
1.790E-06,0.520
1.800E-06,0.360
1.810E-06,0.280
1.820E-06,0.120
1.830E-06,-0.040
1.840E-06,-0.240
1.850E-06,-0.360
1.860E-06,-0.480
1.870E-06,-0.560
1.880E-06,-0.680
1.890E-06,-0.720
1.900E-06,-0.840
1.910E-06,-0.960
1.920E-06,-1.200
1.930E-06,-1.320
1.940E-06,-1.480
1.950E-06,-1.520
1.960E-06,-1.520
1.970E-06,-1.480
1.980E-06,-1.360
1.990E-06,-1.400
2.000E-06,-1.280
2.010E-06,-1.200
2.020E-06,-1.160
2.030E-06,-0.960
2.040E-06,-0.920
2.050E-06,-0.840
2.060E-06,-0.800
2.070E-06,-0.920
2.080E-06,-1.080
2.090E-06,-1.240
2.100E-06,-1.520
2.110E-06,-1.560
2.120E-06,-1.680
2.130E-06,-1.720
2.140E-06,-1.680
2.150E-06,-1.680
2.160E-06,-1.600
2.170E-06,-1.600
2.180E-06,-1.520
2.190E-06,-1.480
2.200E-06,-1.520
2.210E-06,-1.680
2.220E-06,-1.600
2.230E-06,-1.600
2.240E-06,-1.280
2.250E-06,-1.000
2.260E-06,-0.640
2.270E-06,-0.640
2.280E-06,-0.720
2.290E-06,-0.760
2.300E-06,-0.640
2.310E-06,-0.440
2.320E-06,0.040
2.330E-06,0.160
2.340E-06,0.240
2.350E-06,0.080
2.360E-06,-0.040
2.370E-06,0.080
2.380E-06,-0.040
2.390E-06,0.080
2.400E-06,0.000
2.410E-06,0.040
2.420E-06,0.240
2.430E-06,0.440
2.440E-06,0.600
2.450E-06,0.680
2.460E-06,0.680
2.470E-06,0.640
2.480E-06,0.560
2.490E-06,0.600
2.500E-06,0.720
2.510E-06,0.640
2.520E-06,0.640
2.530E-06,0.560
2.540E-06,0.360
2.550E-06,0.240
2.560E-06,0.120
2.570E-06,-0.080
2.580E-06,-0.320
2.590E-06,-0.600
2.600E-06,-0.840
2.610E-06,-1.120
2.620E-06,-1.360
2.630E-06,-1.600
2.640E-06,-1.840
2.650E-06,-2.000
2.660E-06,-2.160
2.670E-06,-2.280
2.680E-06,-2.320
2.690E-06,-2.400
2.700E-06,-2.480
2.710E-06,-2.400
2.720E-06,-2.320
2.730E-06,-2.240
2.740E-06,-2.200
2.750E-06,-2.080
2.760E-06,-1.960
2.770E-06,-1.840
2.780E-06,-1.800
2.790E-06,-1.720
2.800E-06,-1.680
2.810E-06,-1.560
2.820E-06,-1.480
2.830E-06,-1.440
2.840E-06,-1.400
2.850E-06,-1.320
2.860E-06,-1.320
2.870E-06,-1.360
2.880E-06,-1.440
2.890E-06,-1.400
2.900E-06,-1.440
2.910E-06,-1.480
2.920E-06,-1.480
2.930E-06,-1.480
2.940E-06,-1.480
2.950E-06,-1.520
2.960E-06,-1.600
2.970E-06,-1.680
2.980E-06,-1.680
2.990E-06,-1.720
3.000E-06,-1.760
3.010E-06,-1.840
3.020E-06,-1.920
3.030E-06,-2.160
3.040E-06,-2.320
3.050E-06,-2.600
3.060E-06,-2.920
3.070E-06,-3.240
3.080E-06,-3.560
3.090E-06,-3.800
3.100E-06,-3.960
3.110E-06,-3.960
3.120E-06,-3.960
3.130E-06,-3.840
3.140E-06,-3.880
3.150E-06,-4.000
3.160E-06,-4.080
3.170E-06,-4.240
3.180E-06,-4.480
3.190E-06,-4.520
3.200E-06,-4.800
3.210E-06,-4.960
3.220E-06,-5.200
3.230E-06,-5.200
3.240E-06,-5.200
3.250E-06,-5.200
3.260E-06,-5.240
3.270E-06,-5.240
3.280E-06,-5.200
3.290E-06,-5.200
3.300E-06,-5.240
3.310E-06,-5.240
3.320E-06,-5.240
3.330E-06,-5.240
3.340E-06,-5.240
3.350E-06,-5.240
3.360E-06,-5.200
3.370E-06,-5.240
3.380E-06,-5.240
3.390E-06,-5.240
3.400E-06,-5.200
3.410E-06,-5.200
3.420E-06,-5.200
3.430E-06,-5.240
3.440E-06,-5.240
3.450E-06,-5.240
3.460E-06,-5.120
3.470E-06,-4.960
3.480E-06,-4.800
3.490E-06,-4.640
3.500E-06,-4.600
3.510E-06,-4.520
3.520E-06,-4.480
3.530E-06,-4.400
3.540E-06,-4.360
3.550E-06,-4.320
3.560E-06,-4.240
3.570E-06,-4.240
3.580E-06,-4.240
3.590E-06,-4.160
3.600E-06,-4.120
3.610E-06,-4.080
3.620E-06,-4.080
3.630E-06,-4.040
3.640E-06,-4.000
3.650E-06,-3.920
3.660E-06,-3.840
3.670E-06,-3.680
3.680E-06,-3.560
3.690E-06,-3.440
3.700E-06,-3.280
3.710E-06,-3.160
3.720E-06,-3.000
3.730E-06,-2.920
3.740E-06,-2.720
3.750E-06,-2.600
3.760E-06,-2.480
3.770E-06,-2.360
3.780E-06,-2.240
3.790E-06,-2.120
3.800E-06,-2.080
3.810E-06,-2.040
3.820E-06,-1.960
3.830E-06,-2.000
3.840E-06,-2.000
3.850E-06,-1.960
3.860E-06,-1.880
3.870E-06,-1.920
3.880E-06,-1.880
3.890E-06,-1.960
3.900E-06,-1.960
3.910E-06,-1.920
3.920E-06,-1.960
3.930E-06,-1.880
3.940E-06,-1.800
3.950E-06,-1.800
3.960E-06,-1.800
3.970E-06,-1.800
3.980E-06,-1.680
3.990E-06,-1.680
4.000E-06,-1.640
4.010E-06,-1.520
4.020E-06,-1.480
4.030E-06,-1.480
4.040E-06,-1.480
4.050E-06,-1.520
4.060E-06,-1.480
4.070E-06,-1.520
4.080E-06,-1.520
4.090E-06,-1.560
4.100E-06,-1.520
4.110E-06,-1.440
4.120E-06,-1.440
4.130E-06,-1.440
4.140E-06,-1.480
4.150E-06,-1.440
4.160E-06,-1.480
4.170E-06,-1.360
4.180E-06,-1.280
4.190E-06,-1.160
4.200E-06,-1.160
4.210E-06,-1.160
4.220E-06,-1.120
4.230E-06,-1.200
4.240E-06,-1.280
4.250E-06,-1.320
4.260E-06,-1.320
4.270E-06,-1.480
4.280E-06,-1.480
4.290E-06,-1.560
4.300E-06,-1.600
4.310E-06,-1.600
4.320E-06,-1.520
4.330E-06,-1.480
4.340E-06,-1.520
4.350E-06,-1.480
4.360E-06,-1.480
4.370E-06,-1.400
4.380E-06,-1.320
4.390E-06,-1.240
4.400E-06,-1.160
4.410E-06,-1.000
4.420E-06,-0.880
4.430E-06,-0.840
4.440E-06,-0.840
4.450E-06,-0.840
4.460E-06,-0.680
4.470E-06,-0.640
4.480E-06,-0.600
4.490E-06,-0.560
4.500E-06,-0.640
4.510E-06,-0.560
4.520E-06,-0.640
4.530E-06,-0.640
4.540E-06,-0.640
4.550E-06,-0.720
4.560E-06,-0.720
4.570E-06,-0.800
4.580E-06,-0.800
4.590E-06,-0.840
4.600E-06,-0.840
4.610E-06,-0.880
4.620E-06,-0.840
4.630E-06,-0.880
4.640E-06,-0.840
4.650E-06,-0.880
4.660E-06,-0.880
4.670E-06,-0.920
4.680E-06,-0.960
4.690E-06,-1.040
4.700E-06,-1.040
4.710E-06,-1.040
4.720E-06,-1.080
4.730E-06,-1.120
4.740E-06,-1.120
4.750E-06,-1.040
4.760E-06,-1.120
4.770E-06,-1.120
4.780E-06,-1.080
4.790E-06,-1.160
4.800E-06,-1.160
4.810E-06,-1.080
4.820E-06,-1.000
4.830E-06,-1.000
4.840E-06,-0.960
4.850E-06,-0.920
4.860E-06,-0.920
4.870E-06,-0.960
4.880E-06,-0.920
4.890E-06,-0.920
4.900E-06,-0.880
4.910E-06,-0.840
4.920E-06,-0.840
4.930E-06,-0.720
4.940E-06,-0.720
4.950E-06,-0.720
4.960E-06,-0.680
4.970E-06,-0.600
4.980E-06,-0.560
4.990E-06,-0.560
5.000E-06,-0.600
5.010E-06,-0.640
5.020E-06,-0.680
5.030E-06,-0.680
5.040E-06,-0.640
5.050E-06,-0.680
5.060E-06,-0.640
5.070E-06,-0.680
5.080E-06,-0.680
5.090E-06,-0.720
5.100E-06,-0.800
5.110E-06,-0.840
5.120E-06,-0.920
5.130E-06,-0.960
5.140E-06,-1.000
5.150E-06,-1.000
5.160E-06,-1.080
5.170E-06,-1.160
5.180E-06,-1.200
5.190E-06,-1.200
5.200E-06,-1.200
5.210E-06,-1.240
5.220E-06,-1.240
5.230E-06,-1.280
5.240E-06,-1.320
5.250E-06,-1.360
5.260E-06,-1.360
5.270E-06,-1.320
5.280E-06,-1.320
5.290E-06,-1.360
5.300E-06,-1.320
5.310E-06,-1.240
5.320E-06,-1.160
5.330E-06,-1.120
5.340E-06,-1.120
5.350E-06,-1.040
5.360E-06,-0.960
5.370E-06,-0.960
5.380E-06,-0.960
5.390E-06,-0.920
5.400E-06,-0.920
5.410E-06,-0.840
5.420E-06,-0.840
5.430E-06,-0.760
5.440E-06,-0.640
5.450E-06,-0.560
5.460E-06,-0.520
5.470E-06,-0.360
5.480E-06,-0.320
5.490E-06,-0.200
5.500E-06,-0.080
5.510E-06,0.000
5.520E-06,0.000
5.530E-06,-0.040
5.540E-06,0.000
5.550E-06,-0.040
5.560E-06,0.000
5.570E-06,0.000
5.580E-06,0.000
5.590E-06,-0.040
5.600E-06,0.000
5.610E-06,0.000
5.620E-06,0.000
5.630E-06,0.080
5.640E-06,0.120
5.650E-06,0.160
5.660E-06,0.200
5.670E-06,0.240
5.680E-06,0.240
5.690E-06,0.320
5.700E-06,0.440
5.710E-06,0.440
5.720E-06,0.480
5.730E-06,0.600
5.740E-06,0.600
5.750E-06,0.640
5.760E-06,0.640
5.770E-06,0.680
5.780E-06,0.640
5.790E-06,0.600
5.800E-06,0.600
5.810E-06,0.560
5.820E-06,0.560
5.830E-06,0.480
5.840E-06,0.520
5.850E-06,0.480
5.860E-06,0.400
5.870E-06,0.400
5.880E-06,0.320
5.890E-06,0.360
5.900E-06,0.320
5.910E-06,0.280
5.920E-06,0.320
5.930E-06,0.280
5.940E-06,0.280
5.950E-06,0.240
5.960E-06,0.120
5.970E-06,0.120
5.980E-06,0.120
5.990E-06,0.000
6.000E-06,0.000
6.010E-06,-0.080
6.020E-06,-0.200
6.030E-06,-0.240
6.040E-06,-0.240
6.050E-06,-0.160
6.060E-06,-0.240
6.070E-06,-0.240
6.080E-06,-0.240
6.090E-06,-0.160
6.100E-06,-0.160
6.110E-06,-0.160
6.120E-06,-0.120
