mediciones/Mediciones filtradas (saque las feas)/5-27/-37.5/WaveData510.csv

#timebase=2000000(ps)
,#voltbase=100000(mv/100)
#size=4000
-5.650E-06,0.028
-5.640E-06,0.016
-5.630E-06,-0.004
-5.620E-06,-0.012
-5.610E-06,-0.028
-5.600E-06,-0.024
-5.590E-06,-0.004
-5.580E-06,0.016
-5.570E-06,0.020
-5.560E-06,0.020
-5.550E-06,0.008
-5.540E-06,-0.004
-5.530E-06,-0.008
-5.520E-06,-0.008
-5.510E-06,0.008
-5.500E-06,0.008
-5.490E-06,0.012
-5.480E-06,0.008
-5.470E-06,0.000
-5.460E-06,-0.004
-5.450E-06,0.000
-5.440E-06,0.004
-5.430E-06,0.012
-5.420E-06,0.016
-5.410E-06,0.004
-5.400E-06,0.004
-5.390E-06,0.008
-5.380E-06,0.008
-5.370E-06,0.008
-5.360E-06,0.016
-5.350E-06,0.036
-5.340E-06,0.032
-5.330E-06,0.020
-5.320E-06,-0.004
-5.310E-06,-0.036
-5.300E-06,-0.060
-5.290E-06,-0.052
-5.280E-06,-0.012
-5.270E-06,0.028
-5.260E-06,0.060
-5.250E-06,0.048
-5.240E-06,0.008
-5.230E-06,-0.024
-5.220E-06,-0.044
-5.210E-06,-0.016
-5.200E-06,0.008
-5.190E-06,0.024
-5.180E-06,0.024
-5.170E-06,0.004
-5.160E-06,-0.004
-5.150E-06,-0.008
-5.140E-06,-0.004
-5.130E-06,0.004
-5.120E-06,0.012
-5.110E-06,0.012
-5.100E-06,0.004
-5.090E-06,0.000
-5.080E-06,0.004
-5.070E-06,0.012
-5.060E-06,0.008
-5.050E-06,0.008
-5.040E-06,0.000
-5.030E-06,-0.008
-5.020E-06,-0.016
-5.010E-06,-0.008
-5.000E-06,0.008
-4.990E-06,0.008
-4.980E-06,0.012
-4.970E-06,0.012
-4.960E-06,0.000
-4.950E-06,-0.004
-4.940E-06,-0.004
-4.930E-06,0.000
-4.920E-06,-0.004
-4.910E-06,0.000
-4.900E-06,-0.004
-4.890E-06,0.000
-4.880E-06,0.008
-4.870E-06,0.012
-4.860E-06,0.008
-4.850E-06,0.008
-4.840E-06,0.000
-4.830E-06,0.000
-4.820E-06,0.008
-4.810E-06,0.020
-4.800E-06,0.032
-4.790E-06,0.032
-4.780E-06,0.032
-4.770E-06,0.024
-4.760E-06,-0.004
-4.750E-06,-0.024
-4.740E-06,-0.044
-4.730E-06,-0.044
-4.720E-06,-0.032
-4.710E-06,0.004
-4.700E-06,0.028
-4.690E-06,0.048
-4.680E-06,0.032
-4.670E-06,0.004
-4.660E-06,-0.024
-4.650E-06,-0.036
-4.640E-06,-0.028
-4.630E-06,0.000
-4.620E-06,0.024
-4.610E-06,0.036
-4.600E-06,0.016
-4.590E-06,0.000
-4.580E-06,-0.012
-4.570E-06,-0.004
-4.560E-06,0.004
-4.550E-06,0.008
-4.540E-06,0.024
-4.530E-06,0.008
-4.520E-06,-0.004
-4.510E-06,-0.004
-4.500E-06,-0.012
-4.490E-06,-0.004
-4.480E-06,0.012
-4.470E-06,0.032
-4.460E-06,0.020
-4.450E-06,0.000
-4.440E-06,-0.020
-4.430E-06,-0.020
-4.420E-06,-0.008
-4.410E-06,0.008
-4.400E-06,0.020
-4.390E-06,0.016
-4.380E-06,0.004
-4.370E-06,-0.012
-4.360E-06,-0.008
-4.350E-06,-0.004
-4.340E-06,0.012
-4.330E-06,0.028
-4.320E-06,0.008
-4.310E-06,-0.004
-4.300E-06,-0.008
-4.290E-06,-0.008
-4.280E-06,-0.004
-4.270E-06,0.004
-4.260E-06,0.008
-4.250E-06,0.008
-4.240E-06,0.000
-4.230E-06,-0.004
-4.220E-06,0.004
-4.210E-06,0.012
-4.200E-06,0.016
-4.190E-06,0.000
-4.180E-06,0.000
-4.170E-06,0.000
-4.160E-06,0.008
-4.150E-06,0.016
-4.140E-06,0.016
-4.130E-06,0.000
-4.120E-06,-0.004
-4.110E-06,-0.004
-4.100E-06,0.000
-4.090E-06,0.004
-4.080E-06,0.012
-4.070E-06,0.012
-4.060E-06,0.008
-4.050E-06,-0.004
-4.040E-06,0.000
-4.030E-06,-0.004
-4.020E-06,-0.004
-4.010E-06,0.000
-4.000E-06,0.000
-3.990E-06,0.000
-3.980E-06,-0.004
-3.970E-06,0.004
-3.960E-06,0.012
-3.950E-06,0.012
-3.940E-06,0.012
-3.930E-06,0.004
-3.920E-06,-0.008
-3.910E-06,-0.012
-3.900E-06,-0.008
-3.890E-06,0.004
-3.880E-06,0.012
-3.870E-06,0.016
-3.860E-06,0.008
-3.850E-06,0.004
-3.840E-06,-0.008
-3.830E-06,0.000
-3.820E-06,0.004
-3.810E-06,0.016
-3.800E-06,0.016
-3.790E-06,0.020
-3.780E-06,0.012
-3.770E-06,0.008
-3.760E-06,0.016
-3.750E-06,0.020
-3.740E-06,0.024
-3.730E-06,0.024
-3.720E-06,0.028
-3.710E-06,0.036
-3.700E-06,0.024
-3.690E-06,0.008
-3.680E-06,-0.008
-3.670E-06,-0.036
-3.660E-06,-0.032
-3.650E-06,-0.032
-3.640E-06,-0.008
-3.630E-06,0.012
-3.620E-06,0.024
-3.610E-06,0.000
-3.600E-06,-0.028
-3.590E-06,-0.028
-3.580E-06,-0.028
-3.570E-06,0.000
-3.560E-06,0.012
-3.550E-06,0.016
-3.540E-06,0.012
-3.530E-06,0.004
-3.520E-06,0.000
-3.510E-06,-0.008
-3.500E-06,-0.004
-3.490E-06,-0.004
-3.480E-06,0.024
-3.470E-06,0.024
-3.460E-06,0.024
-3.450E-06,-0.020
-3.440E-06,-0.040
-3.430E-06,-0.032
-3.420E-06,0.000
-3.410E-06,0.060
-3.400E-06,0.076
-3.390E-06,0.048
-3.380E-06,-0.032
-3.370E-06,-0.084
-3.360E-06,-0.060
-3.350E-06,0.008
-3.340E-06,0.080
-3.330E-06,0.092
-3.320E-06,0.044
-3.310E-06,-0.032
-3.300E-06,-0.080
-3.290E-06,-0.076
-3.280E-06,-0.008
-3.270E-06,0.052
-3.260E-06,0.076
-3.250E-06,0.032
-3.240E-06,-0.008
-3.230E-06,-0.052
-3.220E-06,-0.036
-3.210E-06,0.000
-3.200E-06,0.032
-3.190E-06,0.028
-3.180E-06,0.008
-3.170E-06,-0.016
-3.160E-06,-0.020
-3.150E-06,-0.008
-3.140E-06,0.016
-3.130E-06,0.028
-3.120E-06,0.020
-3.110E-06,0.008
-3.100E-06,-0.012
-3.090E-06,-0.008
-3.080E-06,0.000
-3.070E-06,0.008
-3.060E-06,0.012
-3.050E-06,0.016
-3.040E-06,0.012
-3.030E-06,0.020
-3.020E-06,0.012
-3.010E-06,0.008
-3.000E-06,-0.004
-2.990E-06,-0.012
-2.980E-06,-0.012
-2.970E-06,-0.004
-2.960E-06,0.008
-2.950E-06,0.024
-2.940E-06,0.028
-2.930E-06,0.008
-2.920E-06,-0.008
-2.910E-06,-0.004
-2.900E-06,-0.004
-2.890E-06,0.008
-2.880E-06,0.008
-2.870E-06,0.000
-2.860E-06,0.000
-2.850E-06,0.000
-2.840E-06,0.004
-2.830E-06,0.016
-2.820E-06,0.024
-2.810E-06,0.012
-2.800E-06,0.004
-2.790E-06,-0.004
-2.780E-06,-0.008
-2.770E-06,0.004
-2.760E-06,0.024
-2.750E-06,0.028
-2.740E-06,0.032
-2.730E-06,0.032
-2.720E-06,0.020
-2.710E-06,0.016
-2.700E-06,0.008
-2.690E-06,0.020
-2.680E-06,0.032
-2.670E-06,0.040
-2.660E-06,0.036
-2.650E-06,0.028
-2.640E-06,0.020
-2.630E-06,0.008
-2.620E-06,0.000
-2.610E-06,-0.008
-2.600E-06,-0.012
-2.590E-06,-0.016
-2.580E-06,-0.004
-2.570E-06,0.012
-2.560E-06,0.028
-2.550E-06,0.028
-2.540E-06,0.016
-2.530E-06,0.004
-2.520E-06,-0.020
-2.510E-06,-0.044
-2.500E-06,-0.032
-2.490E-06,-0.028
-2.480E-06,-0.024
-2.470E-06,-0.016
-2.460E-06,-0.016
-2.450E-06,-0.008
-2.440E-06,-0.004
-2.430E-06,0.008
-2.420E-06,0.008
-2.410E-06,0.004
-2.400E-06,-0.012
-2.390E-06,-0.024
-2.380E-06,-0.024
-2.370E-06,-0.004
-2.360E-06,0.012
-2.350E-06,0.028
-2.340E-06,0.036
-2.330E-06,0.024
-2.320E-06,0.008
-2.310E-06,0.004
-2.300E-06,0.020
-2.290E-06,0.036
-2.280E-06,0.056
-2.270E-06,0.064
-2.260E-06,0.052
-2.250E-06,0.028
-2.240E-06,0.024
-2.230E-06,0.024
-2.220E-06,0.040
-2.210E-06,0.056
-2.200E-06,0.060
-2.190E-06,0.052
-2.180E-06,0.036
-2.170E-06,0.012
-2.160E-06,0.012
-2.150E-06,0.020
-2.140E-06,0.020
-2.130E-06,0.044
-2.120E-06,0.036
-2.110E-06,0.040
-2.100E-06,0.028
-2.090E-06,0.028
-2.080E-06,0.032
-2.070E-06,0.032
-2.060E-06,0.048
-2.050E-06,0.056
-2.040E-06,0.064
-2.030E-06,0.072
-2.020E-06,0.076
-2.010E-06,0.060
-2.000E-06,0.048
-1.990E-06,0.056
-1.980E-06,0.060
-1.970E-06,0.072
-1.960E-06,0.028
-1.950E-06,-0.024
-1.940E-06,-0.168
-1.930E-06,-0.304
-1.920E-06,-0.324
-1.910E-06,-0.212
-1.900E-06,-0.076
-1.890E-06,0.096
-1.880E-06,0.136
-1.870E-06,0.076
-1.860E-06,0.036
-1.850E-06,-0.064
-1.840E-06,-0.072
-1.830E-06,-0.060
-1.820E-06,-0.008
-1.810E-06,0.092
-1.800E-06,0.076
-1.790E-06,0.076
-1.780E-06,0.012
-1.770E-06,0.052
-1.760E-06,-0.004
-1.750E-06,-0.168
-1.740E-06,-0.192
-1.730E-06,-0.220
-1.720E-06,-0.072
-1.710E-06,0.072
-1.700E-06,0.172
-1.690E-06,0.180
-1.680E-06,0.088
-1.670E-06,-0.044
-1.660E-06,-0.160
-1.650E-06,-0.180
-1.640E-06,-0.092
-1.630E-06,0.024
-1.620E-06,0.136
-1.610E-06,0.120
-1.600E-06,0.028
-1.590E-06,-0.044
-1.580E-06,-0.112
-1.570E-06,-0.076
-1.560E-06,0.000
-1.550E-06,0.084
-1.540E-06,0.104
-1.530E-06,0.048
-1.520E-06,-0.032
-1.510E-06,-0.056
-1.500E-06,-0.032
-1.490E-06,0.044
-1.480E-06,0.104
-1.470E-06,0.120
-1.460E-06,0.092
-1.450E-06,0.040
-1.440E-06,0.012
-1.430E-06,0.028
-1.420E-06,0.036
-1.410E-06,0.084
-1.400E-06,0.080
-1.390E-06,0.064
-1.380E-06,0.008
-1.370E-06,-0.028
-1.360E-06,-0.048
-1.350E-06,-0.060
-1.340E-06,-0.044
-1.330E-06,-0.012
-1.320E-06,0.012
-1.310E-06,0.040
-1.300E-06,0.028
-1.290E-06,0.000
-1.280E-06,-0.020
-1.270E-06,-0.028
-1.260E-06,0.000
-1.250E-06,0.028
-1.240E-06,0.064
-1.230E-06,0.060
-1.220E-06,0.056
-1.210E-06,0.044
-1.200E-06,0.032
-1.190E-06,0.036
-1.180E-06,0.056
-1.170E-06,0.068
-1.160E-06,0.088
-1.150E-06,0.088
-1.140E-06,0.072
-1.130E-06,0.036
-1.120E-06,-0.008
-1.110E-06,-0.016
-1.100E-06,-0.008
-1.090E-06,-0.004
-1.080E-06,0.012
-1.070E-06,0.040
-1.060E-06,0.052
-1.050E-06,0.116
-1.040E-06,0.120
-1.030E-06,0.100
-1.020E-06,0.000
-1.010E-06,-0.104
-1.000E-06,-0.172
-9.900E-07,-0.120
-9.800E-07,-0.004
-9.700E-07,0.152
-9.600E-07,0.152
-9.500E-07,0.072
-9.400E-07,-0.036
-9.300E-07,-0.112
-9.200E-07,-0.108
-9.100E-07,-0.040
-9.000E-07,0.056
-8.900E-07,-0.056
-8.800E-07,-0.088
-8.700E-07,-0.160
-8.600E-07,-0.192
-8.500E-07,-0.088
-8.400E-07,-0.008
-8.300E-07,-0.004
-8.200E-07,-0.092
-8.100E-07,-0.176
-8.000E-07,-0.096
-7.900E-07,-0.032
-7.800E-07,0.072
-7.700E-07,0.088
-7.600E-07,0.028
-7.500E-07,-0.044
-7.400E-07,-0.108
-7.300E-07,-0.068
-7.200E-07,0.012
-7.100E-07,0.076
-7.000E-07,0.072
-6.900E-07,0.028
-6.800E-07,-0.036
-6.700E-07,-0.044
-6.600E-07,-0.028
-6.500E-07,0.016
-6.400E-07,0.056
-6.300E-07,0.060
-6.200E-07,0.028
-6.100E-07,0.000
-6.000E-07,-0.016
-5.900E-07,0.000
-5.800E-07,0.020
-5.700E-07,0.036
-5.600E-07,0.044
-5.500E-07,0.020
-5.400E-07,0.004
-5.300E-07,-0.016
-5.200E-07,-0.024
-5.100E-07,-0.012
-5.000E-07,0.016
-4.900E-07,0.024
-4.800E-07,0.036
-4.700E-07,0.032
-4.600E-07,0.032
-4.500E-07,0.020
-4.400E-07,0.008
-4.300E-07,0.004
-4.200E-07,0.012
-4.100E-07,0.028
-4.000E-07,0.052
-3.900E-07,0.060
-3.800E-07,0.076
-3.700E-07,0.060
-3.600E-07,0.024
-3.500E-07,-0.008
-3.400E-07,-0.004
-3.300E-07,0.004
-3.200E-07,0.048
-3.100E-07,0.076
-3.000E-07,0.100
-2.900E-07,0.092
-2.800E-07,0.092
-2.700E-07,0.092
-2.600E-07,0.096
-2.500E-07,0.112
-2.400E-07,0.124
-2.300E-07,0.128
-2.200E-07,0.120
-2.100E-07,0.092
-2.000E-07,0.076
-1.900E-07,0.080
-1.800E-07,0.084
-1.700E-07,0.128
-1.600E-07,0.136
-1.500E-07,0.136
-1.400E-07,0.116
-1.300E-07,0.080
-1.200E-07,0.056
-1.100E-07,0.060
-1.000E-07,0.076
-9.000E-08,0.120
-8.000E-08,0.160
-7.000E-08,-0.008
-6.000E-08,-0.140
-5.000E-08,-0.452
-4.000E-08,-0.512
-3.000E-08,-0.512
-2.000E-08,-0.508
-1.000E-08,-0.052
0.000E+00,0.292
1.000E-08,0.536
2.000E-08,0.432
3.000E-08,0.084
4.000E-08,-0.188
5.000E-08,-0.404
6.000E-08,-0.416
7.000E-08,-0.244
8.000E-08,0.076
9.000E-08,0.252
1.000E-07,0.160
1.100E-07,0.000
1.200E-07,-0.132
1.300E-07,-0.144
1.400E-07,-0.040
1.500E-07,0.080
1.600E-07,0.160
1.700E-07,0.104
1.800E-07,-0.028
1.900E-07,-0.124
2.000E-07,-0.188
2.100E-07,-0.132
2.200E-07,-0.068
2.300E-07,0.064
2.400E-07,0.136
2.500E-07,0.116
2.600E-07,0.020
2.700E-07,-0.060
2.800E-07,-0.100
2.900E-07,-0.104
3.000E-07,-0.028
3.100E-07,0.056
3.200E-07,0.124
3.300E-07,0.104
3.400E-07,0.024
3.500E-07,-0.056
3.600E-07,-0.108
3.700E-07,-0.056
3.800E-07,0.024
3.900E-07,0.108
4.000E-07,0.144
4.100E-07,0.112
4.200E-07,0.060
4.300E-07,0.004
4.400E-07,-0.036
4.500E-07,-0.012
4.600E-07,0.016
4.700E-07,0.064
4.800E-07,0.100
4.900E-07,0.092
5.000E-07,0.068
5.100E-07,0.024
5.200E-07,0.008
5.300E-07,0.008
5.400E-07,0.052
5.500E-07,0.108
5.600E-07,0.132
5.700E-07,0.132
5.800E-07,0.096
5.900E-07,0.068
6.000E-07,0.024
6.100E-07,0.040
6.200E-07,0.060
6.300E-07,0.100
6.400E-07,0.128
6.500E-07,0.136
6.600E-07,0.140
6.700E-07,0.120
6.800E-07,0.104
6.900E-07,0.112
7.000E-07,0.132
7.100E-07,0.148
7.200E-07,0.160
7.300E-07,0.180
7.400E-07,0.136
7.500E-07,0.152
7.600E-07,0.124
7.700E-07,0.100
7.800E-07,0.112
7.900E-07,0.096
8.000E-07,0.128
8.100E-07,0.088
8.200E-07,0.044
8.300E-07,-0.028
8.400E-07,-0.124
8.500E-07,-0.084
8.600E-07,-0.056
8.700E-07,0.100
8.800E-07,0.092
8.900E-07,0.104
9.000E-07,0.004
9.100E-07,-0.064
9.200E-07,-0.124
9.300E-07,-0.056
9.400E-07,0.040
9.500E-07,0.044
9.600E-07,0.016
9.700E-07,-0.140
9.800E-07,-0.232
9.900E-07,-0.216
1.000E-06,-0.092
1.010E-06,-0.020
1.020E-06,0.032
1.030E-06,-0.128
1.040E-06,-0.184
1.050E-06,-0.248
1.060E-06,-0.096
1.070E-06,0.072
1.080E-06,0.224
1.090E-06,0.184
1.100E-06,-0.040
1.110E-06,-0.264
1.120E-06,-0.332
1.130E-06,-0.268
1.140E-06,-0.132
1.150E-06,0.036
1.160E-06,0.096
1.170E-06,0.056
1.180E-06,0.000
1.190E-06,-0.008
1.200E-06,-0.032
1.210E-06,0.008
1.220E-06,0.076
1.230E-06,0.092
1.240E-06,0.108
1.250E-06,0.056
1.260E-06,0.000
1.270E-06,-0.032
1.280E-06,-0.008
1.290E-06,0.028
1.300E-06,0.072
1.310E-06,0.084
1.320E-06,0.080
1.330E-06,0.044
1.340E-06,0.028
1.350E-06,0.028
1.360E-06,0.080
1.370E-06,0.140
1.380E-06,0.172
1.390E-06,0.192
1.400E-06,0.200
1.410E-06,0.172
1.420E-06,0.140
1.430E-06,0.108
1.440E-06,0.096
1.450E-06,0.104
1.460E-06,0.148
1.470E-06,0.200
1.480E-06,0.208
1.490E-06,0.188
1.500E-06,0.140
1.510E-06,0.104
1.520E-06,0.092
1.530E-06,0.128
1.540E-06,0.156
1.550E-06,0.172
1.560E-06,0.140
1.570E-06,0.096
1.580E-06,0.048
1.590E-06,-0.032
1.600E-06,-0.108
1.610E-06,-0.200
1.620E-06,-0.252
1.630E-06,-0.164
1.640E-06,-0.008
1.650E-06,0.236
1.660E-06,0.452
1.670E-06,0.464
1.680E-06,0.300
1.690E-06,0.016
1.700E-06,-0.196
1.710E-06,-0.220
1.720E-06,-0.044
1.730E-06,0.204
1.740E-06,0.332
1.750E-06,0.256
1.760E-06,0.072
1.770E-06,-0.120
1.780E-06,-0.152
1.790E-06,-0.108
1.800E-06,-0.016
1.810E-06,0.144
1.820E-06,0.128
1.830E-06,0.076
1.840E-06,0.032
1.850E-06,-0.100
1.860E-06,-0.168
1.870E-06,-0.200
1.880E-06,-0.192
1.890E-06,-0.068
1.900E-06,0.056
1.910E-06,0.108
1.920E-06,0.132
1.930E-06,0.060
1.940E-06,0.000
1.950E-06,-0.076
1.960E-06,-0.108
1.970E-06,-0.044
1.980E-06,-0.040
1.990E-06,0.104
2.000E-06,0.168
2.010E-06,0.220
2.020E-06,0.220
2.030E-06,0.144
2.040E-06,0.096
2.050E-06,0.060
2.060E-06,0.092
2.070E-06,0.152
2.080E-06,0.212
2.090E-06,0.228
2.100E-06,0.224
2.110E-06,0.176
2.120E-06,0.128
2.130E-06,0.096
2.140E-06,0.100
2.150E-06,0.140
2.160E-06,0.172
2.170E-06,0.192
2.180E-06,0.188
2.190E-06,0.168
2.200E-06,0.144
2.210E-06,0.132
2.220E-06,0.132
2.230E-06,0.152
2.240E-06,0.176
2.250E-06,0.188
2.260E-06,0.188
2.270E-06,0.180
2.280E-06,0.156
2.290E-06,0.148
2.300E-06,0.140
2.310E-06,0.152
2.320E-06,0.164
2.330E-06,0.172
2.340E-06,0.172
2.350E-06,0.164
2.360E-06,0.140
2.370E-06,0.112
2.380E-06,0.092
2.390E-06,0.096
2.400E-06,0.112
2.410E-06,0.120
2.420E-06,0.132
2.430E-06,0.088
2.440E-06,0.072
2.450E-06,0.044
2.460E-06,0.064
2.470E-06,0.124
2.480E-06,0.176
2.490E-06,0.196
2.500E-06,0.164
2.510E-06,0.112
2.520E-06,0.076
2.530E-06,0.088
2.540E-06,0.128
2.550E-06,0.184
2.560E-06,0.204
2.570E-06,0.196
2.580E-06,0.156
2.590E-06,0.128
2.600E-06,0.128
2.610E-06,0.140
2.620E-06,0.160
2.630E-06,0.164
2.640E-06,0.164
2.650E-06,0.164
2.660E-06,0.152
2.670E-06,0.144
2.680E-06,0.144
2.690E-06,0.140
2.700E-06,0.148
2.710E-06,0.160
2.720E-06,0.164
2.730E-06,0.172
2.740E-06,0.164
2.750E-06,0.152
2.760E-06,0.152
2.770E-06,0.144
2.780E-06,0.148
2.790E-06,0.160
2.800E-06,0.160
2.810E-06,0.156
2.820E-06,0.156
2.830E-06,0.156
2.840E-06,0.144
2.850E-06,0.144
2.860E-06,0.140
2.870E-06,0.156
2.880E-06,0.164
2.890E-06,0.160
2.900E-06,0.156
2.910E-06,0.156
2.920E-06,0.148
2.930E-06,0.144
2.940E-06,0.144
2.950E-06,0.148
2.960E-06,0.152
2.970E-06,0.156
2.980E-06,0.156
2.990E-06,0.144
3.000E-06,0.144
3.010E-06,0.140
3.020E-06,0.140
3.030E-06,0.140
3.040E-06,0.148
3.050E-06,0.156
3.060E-06,0.152
3.070E-06,0.152
3.080E-06,0.148
3.090E-06,0.140
3.100E-06,0.136
3.110E-06,0.144
3.120E-06,0.144
3.130E-06,0.144
3.140E-06,0.148
3.150E-06,0.144
3.160E-06,0.136
3.170E-06,0.132
3.180E-06,0.136
3.190E-06,0.132
3.200E-06,0.136
3.210E-06,0.144
3.220E-06,0.140
3.230E-06,0.140
3.240E-06,0.140
3.250E-06,0.132
3.260E-06,0.132
3.270E-06,0.132
3.280E-06,0.140
3.290E-06,0.144
3.300E-06,0.140
3.310E-06,0.140
3.320E-06,0.140
3.330E-06,0.136
3.340E-06,0.136
3.350E-06,0.136
3.360E-06,0.132
3.370E-06,0.136
3.380E-06,0.140
3.390E-06,0.140
3.400E-06,0.140
3.410E-06,0.136
3.420E-06,0.128
3.430E-06,0.128
3.440E-06,0.128
3.450E-06,0.132
3.460E-06,0.140
3.470E-06,0.140
3.480E-06,0.140
3.490E-06,0.132
3.500E-06,0.132
3.510E-06,0.132
3.520E-06,0.132
3.530E-06,0.140
3.540E-06,0.140
3.550E-06,0.140
3.560E-06,0.132
3.570E-06,0.128
3.580E-06,0.132
3.590E-06,0.128
3.600E-06,0.136
3.610E-06,0.132
3.620E-06,0.136
3.630E-06,0.140
3.640E-06,0.136
3.650E-06,0.128
3.660E-06,0.128
3.670E-06,0.132
3.680E-06,0.132
3.690E-06,0.136
3.700E-06,0.136
3.710E-06,0.128
3.720E-06,0.124
3.730E-06,0.124
3.740E-06,0.132
3.750E-06,0.136
3.760E-06,0.132
3.770E-06,0.132
3.780E-06,0.128
3.790E-06,0.124
3.800E-06,0.124
3.810E-06,0.124
3.820E-06,0.128
3.830E-06,0.136
3.840E-06,0.136
3.850E-06,0.136
3.860E-06,0.132
3.870E-06,0.128
3.880E-06,0.124
3.890E-06,0.124
3.900E-06,0.124
3.910E-06,0.124
3.920E-06,0.124
3.930E-06,0.124
3.940E-06,0.124
3.950E-06,0.128
3.960E-06,0.132
3.970E-06,0.128
3.980E-06,0.124
3.990E-06,0.124
4.000E-06,0.116
4.010E-06,0.116
4.020E-06,0.124
4.030E-06,0.124
4.040E-06,0.128
4.050E-06,0.124
4.060E-06,0.116
4.070E-06,0.120
4.080E-06,0.112
4.090E-06,0.112
4.100E-06,0.120
4.110E-06,0.124
4.120E-06,0.124
4.130E-06,0.124
4.140E-06,0.124
4.150E-06,0.124
4.160E-06,0.124
4.170E-06,0.120
4.180E-06,0.112
4.190E-06,0.108
4.200E-06,0.108
4.210E-06,0.116
4.220E-06,0.116
4.230E-06,0.116
4.240E-06,0.112
4.250E-06,0.108
4.260E-06,0.108
4.270E-06,0.112
4.280E-06,0.120
4.290E-06,0.124
4.300E-06,0.124
4.310E-06,0.116
4.320E-06,0.112
4.330E-06,0.108
4.340E-06,0.108
4.350E-06,0.108
4.360E-06,0.108
4.370E-06,0.108
4.380E-06,0.104
4.390E-06,0.112
4.400E-06,0.108
4.410E-06,0.112
4.420E-06,0.112
4.430E-06,0.108
4.440E-06,0.104
4.450E-06,0.104
4.460E-06,0.104
4.470E-06,0.108
4.480E-06,0.108
4.490E-06,0.108
4.500E-06,0.104
4.510E-06,0.104
4.520E-06,0.104
4.530E-06,0.104
4.540E-06,0.108
4.550E-06,0.108
4.560E-06,0.108
4.570E-06,0.104
4.580E-06,0.096
4.590E-06,0.104
4.600E-06,0.100
4.610E-06,0.104
4.620E-06,0.108
4.630E-06,0.104
4.640E-06,0.104
4.650E-06,0.104
4.660E-06,0.100
4.670E-06,0.100
4.680E-06,0.096
4.690E-06,0.100
4.700E-06,0.096
4.710E-06,0.100
4.720E-06,0.104
4.730E-06,0.104
4.740E-06,0.104
4.750E-06,0.100
4.760E-06,0.092
4.770E-06,0.088
4.780E-06,0.088
4.790E-06,0.088
4.800E-06,0.096
4.810E-06,0.104
4.820E-06,0.104
4.830E-06,0.096
4.840E-06,0.092
4.850E-06,0.084
4.860E-06,0.088
4.870E-06,0.092
4.880E-06,0.100
4.890E-06,0.100
4.900E-06,0.100
4.910E-06,0.100
4.920E-06,0.092
4.930E-06,0.096
4.940E-06,0.088
4.950E-06,0.092
4.960E-06,0.088
4.970E-06,0.092
4.980E-06,0.092
4.990E-06,0.088
5.000E-06,0.092
5.010E-06,0.092
5.020E-06,0.092
5.030E-06,0.088
5.040E-06,0.088
5.050E-06,0.084
5.060E-06,0.088
5.070E-06,0.092
5.080E-06,0.088
5.090E-06,0.084
5.100E-06,0.080
5.110E-06,0.076
5.120E-06,0.088
5.130E-06,0.092
5.140E-06,0.096
5.150E-06,0.088
5.160E-06,0.088
5.170E-06,0.084
5.180E-06,0.088
5.190E-06,0.080
5.200E-06,0.084
5.210E-06,0.080
5.220E-06,0.080
5.230E-06,0.076
5.240E-06,0.076
5.250E-06,0.080
5.260E-06,0.080
5.270E-06,0.076
5.280E-06,0.076
5.290E-06,0.076
5.300E-06,0.076
5.310E-06,0.072
5.320E-06,0.076
5.330E-06,0.080
5.340E-06,0.080
5.350E-06,0.080
5.360E-06,0.080
5.370E-06,0.080
5.380E-06,0.072
5.390E-06,0.076
5.400E-06,0.076
5.410E-06,0.080
5.420E-06,0.088
5.430E-06,0.092
5.440E-06,0.072
5.450E-06,0.064
5.460E-06,0.048
5.470E-06,0.048
5.480E-06,0.056
5.490E-06,0.072
5.500E-06,0.084
5.510E-06,0.092
5.520E-06,0.084
5.530E-06,0.080
5.540E-06,0.084
5.550E-06,0.076
5.560E-06,0.084
5.570E-06,0.080
5.580E-06,0.080
5.590E-06,0.076
5.600E-06,0.072
5.610E-06,0.068
5.620E-06,0.060
5.630E-06,0.060
5.640E-06,0.064
5.650E-06,0.072
5.660E-06,0.080
5.670E-06,0.076
5.680E-06,0.080
5.690E-06,0.076
5.700E-06,0.076
5.710E-06,0.072
5.720E-06,0.072
5.730E-06,0.072
5.740E-06,0.068
5.750E-06,0.068
5.760E-06,0.072
5.770E-06,0.072
5.780E-06,0.064
5.790E-06,0.064
5.800E-06,0.064
5.810E-06,0.060
5.820E-06,0.064
5.830E-06,0.068
5.840E-06,0.068
5.850E-06,0.072
5.860E-06,0.072
5.870E-06,0.072
5.880E-06,0.072
5.890E-06,0.068
5.900E-06,0.064
5.910E-06,0.064
5.920E-06,0.060
5.930E-06,0.060
5.940E-06,0.064
5.950E-06,0.064
5.960E-06,0.060
5.970E-06,0.060
5.980E-06,0.064
5.990E-06,0.068
6.000E-06,0.076
6.010E-06,0.076
6.020E-06,0.064
6.030E-06,0.060
6.040E-06,0.056
6.050E-06,0.064
6.060E-06,0.064
6.070E-06,0.064
6.080E-06,0.068
6.090E-06,0.064
6.100E-06,0.060
6.110E-06,0.052
6.120E-06,0.048
6.130E-06,0.052
6.140E-06,0.052
6.150E-06,0.060
6.160E-06,0.064
6.170E-06,0.060
6.180E-06,0.060
6.190E-06,0.056
6.200E-06,0.052
6.210E-06,0.056
6.220E-06,0.060
6.230E-06,0.056
6.240E-06,0.064
6.250E-06,0.064
6.260E-06,0.056
6.270E-06,0.056
6.280E-06,0.052
