mediciones/Mediciones filtradas (saque las feas)/5-27/-37.5/WaveData5129.csv

#timebase=2000000(ps)
,#voltbase=1000000(mv/100)
#size=4000
-5.650E-06,0.080
-5.640E-06,0.000
-5.630E-06,0.000
-5.620E-06,0.040
-5.610E-06,0.080
-5.600E-06,0.040
-5.590E-06,0.040
-5.580E-06,0.040
-5.570E-06,0.080
-5.560E-06,0.040
-5.550E-06,0.000
-5.540E-06,0.040
-5.530E-06,0.040
-5.520E-06,0.080
-5.510E-06,0.040
-5.500E-06,0.000
-5.490E-06,0.040
-5.480E-06,0.040
-5.470E-06,0.040
-5.460E-06,0.000
-5.450E-06,0.040
-5.440E-06,0.000
-5.430E-06,0.040
-5.420E-06,0.080
-5.410E-06,0.080
-5.400E-06,0.000
-5.390E-06,0.000
-5.380E-06,0.040
-5.370E-06,0.040
-5.360E-06,0.040
-5.350E-06,0.040
-5.340E-06,0.120
-5.330E-06,0.040
-5.320E-06,0.000
-5.310E-06,0.040
-5.300E-06,0.040
-5.290E-06,0.080
-5.280E-06,0.080
-5.270E-06,0.080
-5.260E-06,0.080
-5.250E-06,0.080
-5.240E-06,0.080
-5.230E-06,0.120
-5.220E-06,0.040
-5.210E-06,0.040
-5.200E-06,0.080
-5.190E-06,0.080
-5.180E-06,0.080
-5.170E-06,0.040
-5.160E-06,0.040
-5.150E-06,0.040
-5.140E-06,0.000
-5.130E-06,0.040
-5.120E-06,0.040
-5.110E-06,0.040
-5.100E-06,0.040
-5.090E-06,0.040
-5.080E-06,0.040
-5.070E-06,0.080
-5.060E-06,0.040
-5.050E-06,0.080
-5.040E-06,0.040
-5.030E-06,0.040
-5.020E-06,0.080
-5.010E-06,0.040
-5.000E-06,0.040
-4.990E-06,0.000
-4.980E-06,0.000
-4.970E-06,0.040
-4.960E-06,0.000
-4.950E-06,0.040
-4.940E-06,0.040
-4.930E-06,0.040
-4.920E-06,0.040
-4.910E-06,0.040
-4.900E-06,0.040
-4.890E-06,0.080
-4.880E-06,0.120
-4.870E-06,0.120
-4.860E-06,0.120
-4.850E-06,0.080
-4.840E-06,0.000
-4.830E-06,0.040
-4.820E-06,0.080
-4.810E-06,0.080
-4.800E-06,0.040
-4.790E-06,0.000
-4.780E-06,0.040
-4.770E-06,0.040
-4.760E-06,0.080
-4.750E-06,0.040
-4.740E-06,0.040
-4.730E-06,0.040
-4.720E-06,0.040
-4.710E-06,0.000
-4.700E-06,0.040
-4.690E-06,0.040
-4.680E-06,0.040
-4.670E-06,0.040
-4.660E-06,0.080
-4.650E-06,0.080
-4.640E-06,0.120
-4.630E-06,0.040
-4.620E-06,0.000
-4.610E-06,0.080
-4.600E-06,0.040
-4.590E-06,0.080
-4.580E-06,0.040
-4.570E-06,0.000
-4.560E-06,0.080
-4.550E-06,0.000
-4.540E-06,0.080
-4.530E-06,0.040
-4.520E-06,0.080
-4.510E-06,0.040
-4.500E-06,0.080
-4.490E-06,0.080
-4.480E-06,0.040
-4.470E-06,0.040
-4.460E-06,0.000
-4.450E-06,0.040
-4.440E-06,0.000
-4.430E-06,0.040
-4.420E-06,0.080
-4.410E-06,0.120
-4.400E-06,0.080
-4.390E-06,0.000
-4.380E-06,0.080
-4.370E-06,0.000
-4.360E-06,0.040
-4.350E-06,0.000
-4.340E-06,0.040
-4.330E-06,0.080
-4.320E-06,0.040
-4.310E-06,0.080
-4.300E-06,0.040
-4.290E-06,0.040
-4.280E-06,0.040
-4.270E-06,0.120
-4.260E-06,0.120
-4.250E-06,0.080
-4.240E-06,0.000
-4.230E-06,0.040
-4.220E-06,0.040
-4.210E-06,0.080
-4.200E-06,0.080
-4.190E-06,0.120
-4.180E-06,0.080
-4.170E-06,0.080
-4.160E-06,0.080
-4.150E-06,0.080
-4.140E-06,0.080
-4.130E-06,0.080
-4.120E-06,0.120
-4.110E-06,0.000
-4.100E-06,0.040
-4.090E-06,0.040
-4.080E-06,0.080
-4.070E-06,0.080
-4.060E-06,0.040
-4.050E-06,0.000
-4.040E-06,0.080
-4.030E-06,0.040
-4.020E-06,0.040
-4.010E-06,0.080
-4.000E-06,0.080
-3.990E-06,0.040
-3.980E-06,0.040
-3.970E-06,0.000
-3.960E-06,0.080
-3.950E-06,0.000
-3.940E-06,0.040
-3.930E-06,0.000
-3.920E-06,0.000
-3.910E-06,0.000
-3.900E-06,0.080
-3.890E-06,0.040
-3.880E-06,0.080
-3.870E-06,0.080
-3.860E-06,0.080
-3.850E-06,0.080
-3.840E-06,0.080
-3.830E-06,0.120
-3.820E-06,0.120
-3.810E-06,0.040
-3.800E-06,0.040
-3.790E-06,0.040
-3.780E-06,0.040
-3.770E-06,0.040
-3.760E-06,0.080
-3.750E-06,0.080
-3.740E-06,0.040
-3.730E-06,0.040
-3.720E-06,0.080
-3.710E-06,0.040
-3.700E-06,0.040
-3.690E-06,0.040
-3.680E-06,0.080
-3.670E-06,0.080
-3.660E-06,0.120
-3.650E-06,0.120
-3.640E-06,0.080
-3.630E-06,0.000
-3.620E-06,0.040
-3.610E-06,0.040
-3.600E-06,0.080
-3.590E-06,0.040
-3.580E-06,0.080
-3.570E-06,0.040
-3.560E-06,0.000
-3.550E-06,0.040
-3.540E-06,0.000
-3.530E-06,0.080
-3.520E-06,0.040
-3.510E-06,0.080
-3.500E-06,0.080
-3.490E-06,0.080
-3.480E-06,0.080
-3.470E-06,0.000
-3.460E-06,0.000
-3.450E-06,0.080
-3.440E-06,0.040
-3.430E-06,0.040
-3.420E-06,0.040
-3.410E-06,0.040
-3.400E-06,0.080
-3.390E-06,0.080
-3.380E-06,0.080
-3.370E-06,0.120
-3.360E-06,0.080
-3.350E-06,0.000
-3.340E-06,0.080
-3.330E-06,0.040
-3.320E-06,0.080
-3.310E-06,0.080
-3.300E-06,0.080
-3.290E-06,0.080
-3.280E-06,0.040
-3.270E-06,0.040
-3.260E-06,0.080
-3.250E-06,0.120
-3.240E-06,0.000
-3.230E-06,0.000
-3.220E-06,0.040
-3.210E-06,0.000
-3.200E-06,0.040
-3.190E-06,0.080
-3.180E-06,0.080
-3.170E-06,0.080
-3.160E-06,0.080
-3.150E-06,0.040
-3.140E-06,0.120
-3.130E-06,0.120
-3.120E-06,0.120
-3.110E-06,0.040
-3.100E-06,0.000
-3.090E-06,0.040
-3.080E-06,0.040
-3.070E-06,0.040
-3.060E-06,0.040
-3.050E-06,0.080
-3.040E-06,0.120
-3.030E-06,0.120
-3.020E-06,0.080
-3.010E-06,0.080
-3.000E-06,0.120
-2.990E-06,0.040
-2.980E-06,0.080
-2.970E-06,0.040
-2.960E-06,0.080
-2.950E-06,0.040
-2.940E-06,0.080
-2.930E-06,0.080
-2.920E-06,0.080
-2.910E-06,0.080
-2.900E-06,0.000
-2.890E-06,0.080
-2.880E-06,0.080
-2.870E-06,0.080
-2.860E-06,0.040
-2.850E-06,0.040
-2.840E-06,0.080
-2.830E-06,0.080
-2.820E-06,0.080
-2.810E-06,0.120
-2.800E-06,0.040
-2.790E-06,0.080
-2.780E-06,0.120
-2.770E-06,0.120
-2.760E-06,0.160
-2.750E-06,0.160
-2.740E-06,0.200
-2.730E-06,0.120
-2.720E-06,0.080
-2.710E-06,0.080
-2.700E-06,0.120
-2.690E-06,0.080
-2.680E-06,0.120
-2.670E-06,0.160
-2.660E-06,0.040
-2.650E-06,0.120
-2.640E-06,0.160
-2.630E-06,0.120
-2.620E-06,0.160
-2.610E-06,0.160
-2.600E-06,0.120
-2.590E-06,0.120
-2.580E-06,0.120
-2.570E-06,0.120
-2.560E-06,0.080
-2.550E-06,0.040
-2.540E-06,0.080
-2.530E-06,0.080
-2.520E-06,0.080
-2.510E-06,0.080
-2.500E-06,0.160
-2.490E-06,0.200
-2.480E-06,0.120
-2.470E-06,0.160
-2.460E-06,0.160
-2.450E-06,0.200
-2.440E-06,0.200
-2.430E-06,0.200
-2.420E-06,0.240
-2.410E-06,0.280
-2.400E-06,0.200
-2.390E-06,0.280
-2.380E-06,0.200
-2.370E-06,0.160
-2.360E-06,0.280
-2.350E-06,0.280
-2.340E-06,0.320
-2.330E-06,0.360
-2.320E-06,0.360
-2.310E-06,0.320
-2.300E-06,0.320
-2.290E-06,0.280
-2.280E-06,0.280
-2.270E-06,0.320
-2.260E-06,0.400
-2.250E-06,0.440
-2.240E-06,0.400
-2.230E-06,0.320
-2.220E-06,0.320
-2.210E-06,0.360
-2.200E-06,0.400
-2.190E-06,0.480
-2.180E-06,0.480
-2.170E-06,0.520
-2.160E-06,0.440
-2.150E-06,0.440
-2.140E-06,0.440
-2.130E-06,0.560
-2.120E-06,0.640
-2.110E-06,0.640
-2.100E-06,0.600
-2.090E-06,0.480
-2.080E-06,0.520
-2.070E-06,0.480
-2.060E-06,0.600
-2.050E-06,0.640
-2.040E-06,0.680
-2.030E-06,0.680
-2.020E-06,0.640
-2.010E-06,0.640
-2.000E-06,0.600
-1.990E-06,0.600
-1.980E-06,0.640
-1.970E-06,0.640
-1.960E-06,0.720
-1.950E-06,0.880
-1.940E-06,0.880
-1.930E-06,0.960
-1.920E-06,0.960
-1.910E-06,0.960
-1.900E-06,1.000
-1.890E-06,1.080
-1.880E-06,1.120
-1.870E-06,1.160
-1.860E-06,1.280
-1.850E-06,1.320
-1.840E-06,1.360
-1.830E-06,1.440
-1.820E-06,1.480
-1.810E-06,1.600
-1.800E-06,1.720
-1.790E-06,1.720
-1.780E-06,1.720
-1.770E-06,1.720
-1.760E-06,1.680
-1.750E-06,1.760
-1.740E-06,1.840
-1.730E-06,1.840
-1.720E-06,1.840
-1.710E-06,1.800
-1.700E-06,1.800
-1.690E-06,1.720
-1.680E-06,1.720
-1.670E-06,1.640
-1.660E-06,1.560
-1.650E-06,1.520
-1.640E-06,1.440
-1.630E-06,1.400
-1.620E-06,1.320
-1.610E-06,1.240
-1.600E-06,1.120
-1.590E-06,1.160
-1.580E-06,1.000
-1.570E-06,0.920
-1.560E-06,0.960
-1.550E-06,0.840
-1.540E-06,0.840
-1.530E-06,0.840
-1.520E-06,0.720
-1.510E-06,0.800
-1.500E-06,0.760
-1.490E-06,0.840
-1.480E-06,0.640
-1.470E-06,0.600
-1.460E-06,0.520
-1.450E-06,0.560
-1.440E-06,0.560
-1.430E-06,0.680
-1.420E-06,0.800
-1.410E-06,0.800
-1.400E-06,0.840
-1.390E-06,0.800
-1.380E-06,0.840
-1.370E-06,1.000
-1.360E-06,1.120
-1.350E-06,1.200
-1.340E-06,1.240
-1.330E-06,1.200
-1.320E-06,1.200
-1.310E-06,1.240
-1.300E-06,1.360
-1.290E-06,1.280
-1.280E-06,1.400
-1.270E-06,1.440
-1.260E-06,1.520
-1.250E-06,1.360
-1.240E-06,1.240
-1.230E-06,1.320
-1.220E-06,1.280
-1.210E-06,1.400
-1.200E-06,1.480
-1.190E-06,1.480
-1.180E-06,1.560
-1.170E-06,1.520
-1.160E-06,1.560
-1.150E-06,1.520
-1.140E-06,1.560
-1.130E-06,1.600
-1.120E-06,1.600
-1.110E-06,1.560
-1.100E-06,1.480
-1.090E-06,1.480
-1.080E-06,1.320
-1.070E-06,1.360
-1.060E-06,1.280
-1.050E-06,1.200
-1.040E-06,1.280
-1.030E-06,1.040
-1.020E-06,1.120
-1.010E-06,0.960
-1.000E-06,0.840
-9.900E-07,0.720
-9.800E-07,0.640
-9.700E-07,0.600
-9.600E-07,0.520
-9.500E-07,0.520
-9.400E-07,0.480
-9.300E-07,0.480
-9.200E-07,0.400
-9.100E-07,0.200
-9.000E-07,0.320
-8.900E-07,0.360
-8.800E-07,0.520
-8.700E-07,0.680
-8.600E-07,0.680
-8.500E-07,0.760
-8.400E-07,0.680
-8.300E-07,0.680
-8.200E-07,0.760
-8.100E-07,0.640
-8.000E-07,0.640
-7.900E-07,0.600
-7.800E-07,0.560
-7.700E-07,0.640
-7.600E-07,0.560
-7.500E-07,0.560
-7.400E-07,0.520
-7.300E-07,0.600
-7.200E-07,0.560
-7.100E-07,0.680
-7.000E-07,0.680
-6.900E-07,0.760
-6.800E-07,0.800
-6.700E-07,0.840
-6.600E-07,0.840
-6.500E-07,0.800
-6.400E-07,0.840
-6.300E-07,0.880
-6.200E-07,0.880
-6.100E-07,0.960
-6.000E-07,0.960
-5.900E-07,0.960
-5.800E-07,0.960
-5.700E-07,0.960
-5.600E-07,1.000
-5.500E-07,1.040
-5.400E-07,1.080
-5.300E-07,1.040
-5.200E-07,1.160
-5.100E-07,1.200
-5.000E-07,1.240
-4.900E-07,1.240
-4.800E-07,1.400
-4.700E-07,1.480
-4.600E-07,1.480
-4.500E-07,1.520
-4.400E-07,1.600
-4.300E-07,1.560
-4.200E-07,1.640
-4.100E-07,1.640
-4.000E-07,1.520
-3.900E-07,1.560
-3.800E-07,1.440
-3.700E-07,1.240
-3.600E-07,1.200
-3.500E-07,1.120
-3.400E-07,1.040
-3.300E-07,0.960
-3.200E-07,0.880
-3.100E-07,0.880
-3.000E-07,0.960
-2.900E-07,1.000
-2.800E-07,0.960
-2.700E-07,1.040
-2.600E-07,1.120
-2.500E-07,1.280
-2.400E-07,1.320
-2.300E-07,1.440
-2.200E-07,1.720
-2.100E-07,1.720
-2.000E-07,2.000
-1.900E-07,2.080
-1.800E-07,2.240
-1.700E-07,2.360
-1.600E-07,2.520
-1.500E-07,2.720
-1.400E-07,2.760
-1.300E-07,3.120
-1.200E-07,2.920
-1.100E-07,3.160
-1.000E-07,3.120
-9.000E-08,3.160
-8.000E-08,3.000
-7.000E-08,3.200
-6.000E-08,2.920
-5.000E-08,3.040
-4.000E-08,2.720
-3.000E-08,2.920
-2.000E-08,2.440
-1.000E-08,2.240
0.000E+00,2.080
1.000E-08,1.680
2.000E-08,1.600
3.000E-08,1.320
4.000E-08,1.040
5.000E-08,0.760
6.000E-08,0.400
7.000E-08,0.240
8.000E-08,0.200
9.000E-08,0.240
1.000E-07,0.200
1.100E-07,0.240
1.200E-07,0.240
1.300E-07,0.160
1.400E-07,0.240
1.500E-07,0.200
1.600E-07,0.320
1.700E-07,0.320
1.800E-07,0.480
1.900E-07,0.560
2.000E-07,0.680
2.100E-07,0.640
2.200E-07,0.360
2.300E-07,-0.040
2.400E-07,-0.520
2.500E-07,-0.880
2.600E-07,-1.200
2.700E-07,-1.520
2.800E-07,-1.800
2.900E-07,-2.200
3.000E-07,-2.520
3.100E-07,-2.880
3.200E-07,-3.120
3.300E-07,-3.320
3.400E-07,-3.760
3.500E-07,-4.440
3.600E-07,-5.240
3.700E-07,-5.200
3.800E-07,-5.200
3.900E-07,-5.200
4.000E-07,-5.200
4.100E-07,-5.240
4.200E-07,-5.240
4.300E-07,-5.240
4.400E-07,-5.240
4.500E-07,-5.240
4.600E-07,-5.240
4.700E-07,-5.200
4.800E-07,-5.200
4.900E-07,-5.240
5.000E-07,-5.240
5.100E-07,-5.200
5.200E-07,-5.200
5.300E-07,-5.240
5.400E-07,-5.240
5.500E-07,-5.240
5.600E-07,-5.240
5.700E-07,-5.240
5.800E-07,-5.240
5.900E-07,-5.240
6.000E-07,-5.240
6.100E-07,-5.200
6.200E-07,-5.200
6.300E-07,-5.200
6.400E-07,-5.200
6.500E-07,-5.240
6.600E-07,-5.240
6.700E-07,-5.200
6.800E-07,-5.240
6.900E-07,-5.200
7.000E-07,-5.240
7.100E-07,-5.240
7.200E-07,-5.240
7.300E-07,-5.200
7.400E-07,-5.240
7.500E-07,-5.240
7.600E-07,-5.200
7.700E-07,-5.240
7.800E-07,-5.240
7.900E-07,-5.240
8.000E-07,-5.240
8.100E-07,-5.200
8.200E-07,-5.240
8.300E-07,-5.240
8.400E-07,-5.200
8.500E-07,-5.200
8.600E-07,-5.200
8.700E-07,-5.240
8.800E-07,-5.240
8.900E-07,-5.200
9.000E-07,-5.200
9.100E-07,-5.200
9.200E-07,-5.200
9.300E-07,-5.200
9.400E-07,-5.240
9.500E-07,-5.240
9.600E-07,-5.240
9.700E-07,-5.160
9.800E-07,-4.840
9.900E-07,-4.560
1.000E-06,-4.280
1.010E-06,-4.000
1.020E-06,-3.800
1.030E-06,-3.600
1.040E-06,-3.400
1.050E-06,-3.240
1.060E-06,-3.080
1.070E-06,-2.960
1.080E-06,-2.840
1.090E-06,-2.760
1.100E-06,-2.760
1.110E-06,-2.680
1.120E-06,-2.680
1.130E-06,-2.720
1.140E-06,-2.760
1.150E-06,-2.760
1.160E-06,-2.760
1.170E-06,-2.760
1.180E-06,-2.840
1.190E-06,-2.920
1.200E-06,-2.920
1.210E-06,-3.040
1.220E-06,-3.000
1.230E-06,-2.960
1.240E-06,-3.000
1.250E-06,-3.040
1.260E-06,-3.040
1.270E-06,-3.000
1.280E-06,-2.960
1.290E-06,-2.920
1.300E-06,-2.920
1.310E-06,-2.960
1.320E-06,-3.040
1.330E-06,-3.000
1.340E-06,-3.080
1.350E-06,-3.120
1.360E-06,-3.120
1.370E-06,-3.160
1.380E-06,-3.160
1.390E-06,-3.160
1.400E-06,-3.160
1.410E-06,-3.200
1.420E-06,-3.160
1.430E-06,-3.080
1.440E-06,-3.040
1.450E-06,-3.040
1.460E-06,-2.960
1.470E-06,-2.920
1.480E-06,-2.880
1.490E-06,-2.760
1.500E-06,-2.760
1.510E-06,-2.800
1.520E-06,-2.760
1.530E-06,-2.760
1.540E-06,-2.840
1.550E-06,-2.800
1.560E-06,-2.840
1.570E-06,-2.800
1.580E-06,-2.840
1.590E-06,-2.760
1.600E-06,-2.680
1.610E-06,-2.680
1.620E-06,-2.560
1.630E-06,-2.520
1.640E-06,-2.440
1.650E-06,-2.360
1.660E-06,-2.280
1.670E-06,-2.160
1.680E-06,-2.040
1.690E-06,-2.000
1.700E-06,-1.800
1.710E-06,-1.760
1.720E-06,-1.720
1.730E-06,-1.600
1.740E-06,-1.560
1.750E-06,-1.480
1.760E-06,-1.520
1.770E-06,-1.600
1.780E-06,-1.680
1.790E-06,-1.720
1.800E-06,-1.760
1.810E-06,-1.840
1.820E-06,-1.800
1.830E-06,-1.840
1.840E-06,-1.840
1.850E-06,-1.880
1.860E-06,-1.840
1.870E-06,-1.840
1.880E-06,-1.840
1.890E-06,-1.840
1.900E-06,-1.800
1.910E-06,-1.800
1.920E-06,-1.800
1.930E-06,-1.800
1.940E-06,-1.760
1.950E-06,-1.800
1.960E-06,-1.880
1.970E-06,-2.000
1.980E-06,-2.120
1.990E-06,-2.240
2.000E-06,-2.320
2.010E-06,-2.480
2.020E-06,-2.600
2.030E-06,-2.680
2.040E-06,-2.680
2.050E-06,-2.760
2.060E-06,-2.800
2.070E-06,-2.720
2.080E-06,-2.760
2.090E-06,-2.760
2.100E-06,-2.680
2.110E-06,-2.600
2.120E-06,-2.480
2.130E-06,-2.360
2.140E-06,-2.280
2.150E-06,-2.160
2.160E-06,-2.000
2.170E-06,-1.880
2.180E-06,-1.800
2.190E-06,-1.680
2.200E-06,-1.600
2.210E-06,-1.520
2.220E-06,-1.400
2.230E-06,-1.320
2.240E-06,-1.240
2.250E-06,-1.200
2.260E-06,-1.160
2.270E-06,-1.080
2.280E-06,-1.080
2.290E-06,-1.080
2.300E-06,-1.000
2.310E-06,-1.040
2.320E-06,-0.920
2.330E-06,-0.840
2.340E-06,-0.800
2.350E-06,-0.800
2.360E-06,-0.800
2.370E-06,-0.840
2.380E-06,-0.840
2.390E-06,-0.800
2.400E-06,-0.840
2.410E-06,-0.920
2.420E-06,-0.920
2.430E-06,-1.080
2.440E-06,-1.200
2.450E-06,-1.200
2.460E-06,-1.320
2.470E-06,-1.360
2.480E-06,-1.440
2.490E-06,-1.600
2.500E-06,-1.720
2.510E-06,-1.840
2.520E-06,-1.880
2.530E-06,-1.960
2.540E-06,-2.000
2.550E-06,-2.000
2.560E-06,-2.040
2.570E-06,-2.040
2.580E-06,-2.040
2.590E-06,-1.920
2.600E-06,-1.920
2.610E-06,-1.880
2.620E-06,-1.800
2.630E-06,-1.760
2.640E-06,-1.720
2.650E-06,-1.680
2.660E-06,-1.680
2.670E-06,-1.680
2.680E-06,-1.720
2.690E-06,-1.720
2.700E-06,-1.720
2.710E-06,-1.680
2.720E-06,-1.680
2.730E-06,-1.680
2.740E-06,-1.680
2.750E-06,-1.720
2.760E-06,-1.720
2.770E-06,-1.760
2.780E-06,-1.760
2.790E-06,-1.840
2.800E-06,-1.880
2.810E-06,-1.880
2.820E-06,-1.840
2.830E-06,-1.720
2.840E-06,-1.480
2.850E-06,-1.280
2.860E-06,-1.000
2.870E-06,-0.640
2.880E-06,-0.320
2.890E-06,0.000
2.900E-06,0.280
2.910E-06,0.520
2.920E-06,0.640
2.930E-06,0.640
2.940E-06,0.760
2.950E-06,0.720
2.960E-06,0.680
2.970E-06,0.640
2.980E-06,0.520
2.990E-06,0.440
3.000E-06,0.360
3.010E-06,0.280
3.020E-06,0.200
3.030E-06,0.040
3.040E-06,0.040
3.050E-06,0.000
3.060E-06,-0.080
3.070E-06,-0.160
3.080E-06,-0.200
3.090E-06,-0.360
3.100E-06,-0.400
3.110E-06,-0.480
3.120E-06,-0.560
3.130E-06,-0.680
3.140E-06,-0.800
3.150E-06,-0.960
3.160E-06,-1.080
3.170E-06,-1.240
3.180E-06,-1.400
3.190E-06,-1.520
3.200E-06,-1.720
3.210E-06,-1.840
3.220E-06,-2.000
3.230E-06,-2.120
3.240E-06,-2.240
3.250E-06,-2.320
3.260E-06,-2.320
3.270E-06,-2.360
3.280E-06,-2.240
3.290E-06,-2.160
3.300E-06,-1.880
3.310E-06,-1.720
3.320E-06,-1.480
3.330E-06,-1.200
3.340E-06,-0.960
3.350E-06,-0.720
3.360E-06,-0.520
3.370E-06,-0.320
3.380E-06,-0.120
3.390E-06,0.000
3.400E-06,0.160
3.410E-06,0.240
3.420E-06,0.320
3.430E-06,0.360
3.440E-06,0.360
3.450E-06,0.320
3.460E-06,0.240
3.470E-06,0.200
3.480E-06,0.120
3.490E-06,0.120
3.500E-06,0.080
3.510E-06,0.080
3.520E-06,0.120
3.530E-06,0.120
3.540E-06,0.160
3.550E-06,0.120
3.560E-06,0.080
3.570E-06,0.120
3.580E-06,0.080
3.590E-06,-0.080
3.600E-06,-0.160
3.610E-06,-0.240
3.620E-06,-0.400
3.630E-06,-0.520
3.640E-06,-0.720
3.650E-06,-0.880
3.660E-06,-1.080
3.670E-06,-1.160
3.680E-06,-1.320
3.690E-06,-1.480
3.700E-06,-1.560
3.710E-06,-1.680
3.720E-06,-1.720
3.730E-06,-1.760
3.740E-06,-1.800
3.750E-06,-1.760
3.760E-06,-1.720
3.770E-06,-1.560
3.780E-06,-1.480
3.790E-06,-1.360
3.800E-06,-1.280
3.810E-06,-1.160
3.820E-06,-1.120
3.830E-06,-1.120
3.840E-06,-1.080
3.850E-06,-1.120
3.860E-06,-1.160
3.870E-06,-1.280
3.880E-06,-1.320
3.890E-06,-1.320
3.900E-06,-1.360
3.910E-06,-1.320
3.920E-06,-1.320
3.930E-06,-1.160
3.940E-06,-1.080
3.950E-06,-1.000
3.960E-06,-0.880
3.970E-06,-0.720
3.980E-06,-0.680
3.990E-06,-0.600
4.000E-06,-0.520
4.010E-06,-0.520
4.020E-06,-0.560
4.030E-06,-0.560
4.040E-06,-0.600
4.050E-06,-0.560
4.060E-06,-0.600
4.070E-06,-0.560
4.080E-06,-0.520
4.090E-06,-0.480
4.100E-06,-0.440
4.110E-06,-0.320
4.120E-06,-0.240
4.130E-06,-0.080
4.140E-06,-0.040
4.150E-06,0.120
4.160E-06,0.200
4.170E-06,0.320
4.180E-06,0.400
4.190E-06,0.480
4.200E-06,0.640
4.210E-06,0.760
4.220E-06,0.840
4.230E-06,0.880
4.240E-06,0.960
4.250E-06,1.040
4.260E-06,1.120
4.270E-06,1.080
4.280E-06,1.080
4.290E-06,1.080
4.300E-06,1.040
4.310E-06,0.960
4.320E-06,0.960
4.330E-06,0.880
4.340E-06,0.720
4.350E-06,0.640
4.360E-06,0.560
4.370E-06,0.440
4.380E-06,0.360
4.390E-06,0.240
4.400E-06,0.200
4.410E-06,0.120
4.420E-06,0.080
4.430E-06,0.120
4.440E-06,0.200
4.450E-06,0.160
4.460E-06,0.120
4.470E-06,0.120
4.480E-06,0.160
4.490E-06,0.160
4.500E-06,0.160
4.510E-06,0.200
4.520E-06,0.160
4.530E-06,0.120
4.540E-06,0.120
4.550E-06,0.160
4.560E-06,0.160
4.570E-06,0.160
4.580E-06,0.200
4.590E-06,0.160
4.600E-06,0.080
4.610E-06,0.080
4.620E-06,0.040
4.630E-06,0.000
4.640E-06,-0.040
4.650E-06,-0.080
4.660E-06,-0.040
4.670E-06,-0.120
4.680E-06,-0.160
4.690E-06,-0.160
4.700E-06,-0.120
4.710E-06,-0.120
4.720E-06,0.000
4.730E-06,0.000
4.740E-06,0.000
4.750E-06,0.000
4.760E-06,0.040
4.770E-06,-0.040
4.780E-06,-0.040
4.790E-06,-0.040
4.800E-06,-0.120
4.810E-06,-0.160
4.820E-06,-0.160
4.830E-06,-0.160
4.840E-06,-0.240
4.850E-06,-0.240
4.860E-06,-0.200
4.870E-06,-0.160
4.880E-06,-0.160
4.890E-06,-0.040
4.900E-06,-0.040
4.910E-06,0.000
4.920E-06,0.040
4.930E-06,0.080
4.940E-06,0.040
4.950E-06,0.120
4.960E-06,0.160
4.970E-06,0.200
4.980E-06,0.200
4.990E-06,0.200
5.000E-06,0.280
5.010E-06,0.360
5.020E-06,0.320
5.030E-06,0.280
5.040E-06,0.320
5.050E-06,0.320
5.060E-06,0.400
5.070E-06,0.360
5.080E-06,0.400
5.090E-06,0.440
5.100E-06,0.440
5.110E-06,0.480
5.120E-06,0.520
5.130E-06,0.480
5.140E-06,0.440
5.150E-06,0.400
5.160E-06,0.360
5.170E-06,0.320
5.180E-06,0.360
5.190E-06,0.320
5.200E-06,0.280
5.210E-06,0.280
5.220E-06,0.240
5.230E-06,0.280
5.240E-06,0.360
5.250E-06,0.400
5.260E-06,0.440
5.270E-06,0.520
5.280E-06,0.480
5.290E-06,0.520
5.300E-06,0.480
5.310E-06,0.480
5.320E-06,0.440
5.330E-06,0.400
5.340E-06,0.360
5.350E-06,0.280
5.360E-06,0.200
5.370E-06,0.200
5.380E-06,0.160
5.390E-06,0.200
5.400E-06,0.160
5.410E-06,0.160
5.420E-06,0.320
5.430E-06,0.360
5.440E-06,0.480
5.450E-06,0.480
5.460E-06,0.560
5.470E-06,0.600
5.480E-06,0.640
5.490E-06,0.680
5.500E-06,0.720
5.510E-06,0.720
5.520E-06,0.760
5.530E-06,0.760
5.540E-06,0.800
5.550E-06,0.840
5.560E-06,0.840
5.570E-06,0.840
5.580E-06,0.920
5.590E-06,0.960
5.600E-06,1.000
5.610E-06,1.080
5.620E-06,1.120
5.630E-06,1.160
5.640E-06,1.320
5.650E-06,1.440
5.660E-06,1.600
5.670E-06,1.760
5.680E-06,1.920
5.690E-06,2.160
5.700E-06,2.400
5.710E-06,2.720
5.720E-06,3.160
5.730E-06,3.560
5.740E-06,4.000
5.750E-06,4.480
5.760E-06,5.120
5.770E-06,5.480
5.780E-06,5.400
5.790E-06,5.400
5.800E-06,5.440
5.810E-06,5.400
5.820E-06,5.440
5.830E-06,5.480
5.840E-06,5.400
5.850E-06,5.440
5.860E-06,5.440
5.870E-06,5.440
5.880E-06,5.480
5.890E-06,5.480
5.900E-06,5.480
5.910E-06,5.400
5.920E-06,5.400
5.930E-06,5.440
5.940E-06,5.400
5.950E-06,5.400
5.960E-06,5.440
5.970E-06,5.400
5.980E-06,5.440
5.990E-06,5.400
6.000E-06,5.440
6.010E-06,5.480
6.020E-06,5.480
6.030E-06,5.400
6.040E-06,5.400
6.050E-06,5.440
6.060E-06,5.440
6.070E-06,5.400
6.080E-06,5.280
6.090E-06,5.160
6.100E-06,5.120
6.110E-06,5.000
6.120E-06,4.960
6.130E-06,4.800
6.140E-06,4.720
6.150E-06,4.680
6.160E-06,4.560
6.170E-06,4.480
6.180E-06,4.400
6.190E-06,4.320
6.200E-06,4.160
6.210E-06,4.080
