mediciones/Mediciones filtradas (saque las feas)/5-27/-37.5/WaveData5118.csv

#timebase=2000000(ps)
,#voltbase=100000(mv/100)
#size=4000
-5.650E-06,0.000
-5.640E-06,0.008
-5.630E-06,0.012
-5.620E-06,0.012
-5.610E-06,0.008
-5.600E-06,0.008
-5.590E-06,0.012
-5.580E-06,0.004
-5.570E-06,0.012
-5.560E-06,0.012
-5.550E-06,0.012
-5.540E-06,0.016
-5.530E-06,0.024
-5.520E-06,0.024
-5.510E-06,0.020
-5.500E-06,0.024
-5.490E-06,0.016
-5.480E-06,0.020
-5.470E-06,0.012
-5.460E-06,0.012
-5.450E-06,0.024
-5.440E-06,0.032
-5.430E-06,0.024
-5.420E-06,0.016
-5.410E-06,-0.004
-5.400E-06,-0.004
-5.390E-06,0.012
-5.380E-06,0.028
-5.370E-06,0.028
-5.360E-06,0.036
-5.350E-06,0.048
-5.340E-06,0.060
-5.330E-06,-0.024
-5.320E-06,-0.096
-5.310E-06,-0.164
-5.300E-06,-0.168
-5.290E-06,-0.080
-5.280E-06,0.020
-5.270E-06,0.088
-5.260E-06,0.088
-5.250E-06,0.032
-5.240E-06,-0.032
-5.230E-06,-0.060
-5.220E-06,-0.032
-5.210E-06,0.008
-5.200E-06,0.040
-5.190E-06,0.028
-5.180E-06,0.000
-5.170E-06,-0.032
-5.160E-06,-0.036
-5.150E-06,-0.012
-5.140E-06,0.024
-5.130E-06,0.032
-5.120E-06,0.004
-5.110E-06,-0.012
-5.100E-06,-0.036
-5.090E-06,-0.020
-5.080E-06,0.004
-5.070E-06,0.024
-5.060E-06,0.024
-5.050E-06,0.008
-5.040E-06,-0.008
-5.030E-06,-0.020
-5.020E-06,-0.012
-5.010E-06,0.012
-5.000E-06,0.028
-4.990E-06,0.028
-4.980E-06,0.008
-4.970E-06,-0.004
-4.960E-06,-0.008
-4.950E-06,-0.004
-4.940E-06,0.008
-4.930E-06,0.016
-4.920E-06,0.024
-4.910E-06,0.020
-4.900E-06,0.020
-4.890E-06,0.024
-4.880E-06,0.024
-4.870E-06,0.040
-4.860E-06,0.040
-4.850E-06,0.028
-4.840E-06,0.000
-4.830E-06,0.000
-4.820E-06,-0.012
-4.810E-06,-0.032
-4.800E-06,-0.016
-4.790E-06,-0.056
-4.780E-06,-0.036
-4.770E-06,-0.036
-4.760E-06,-0.008
-4.750E-06,0.008
-4.740E-06,0.036
-4.730E-06,0.028
-4.720E-06,0.004
-4.710E-06,-0.008
-4.700E-06,-0.012
-4.690E-06,0.004
-4.680E-06,0.020
-4.670E-06,0.024
-4.660E-06,0.008
-4.650E-06,-0.004
-4.640E-06,-0.012
-4.630E-06,-0.012
-4.620E-06,0.000
-4.610E-06,0.016
-4.600E-06,0.028
-4.590E-06,0.016
-4.580E-06,-0.008
-4.570E-06,-0.012
-4.560E-06,-0.020
-4.550E-06,-0.008
-4.540E-06,0.012
-4.530E-06,0.016
-4.520E-06,0.008
-4.510E-06,0.000
-4.500E-06,-0.008
-4.490E-06,-0.008
-4.480E-06,0.000
-4.470E-06,0.012
-4.460E-06,0.016
-4.450E-06,0.008
-4.440E-06,0.000
-4.430E-06,-0.008
-4.420E-06,0.000
-4.410E-06,0.012
-4.400E-06,0.016
-4.390E-06,0.020
-4.380E-06,0.012
-4.370E-06,-0.008
-4.360E-06,-0.012
-4.350E-06,0.004
-4.340E-06,0.020
-4.330E-06,0.028
-4.320E-06,0.020
-4.310E-06,0.008
-4.300E-06,-0.012
-4.290E-06,-0.016
-4.280E-06,-0.004
-4.270E-06,0.004
-4.260E-06,0.012
-4.250E-06,0.012
-4.240E-06,0.008
-4.230E-06,0.008
-4.220E-06,0.004
-4.210E-06,0.008
-4.200E-06,0.016
-4.190E-06,0.020
-4.180E-06,0.024
-4.170E-06,0.024
-4.160E-06,0.020
-4.150E-06,-0.004
-4.140E-06,-0.036
-4.130E-06,-0.060
-4.120E-06,-0.060
-4.110E-06,0.012
-4.100E-06,0.036
-4.090E-06,0.044
-4.080E-06,0.024
-4.070E-06,-0.032
-4.060E-06,-0.044
-4.050E-06,-0.056
-4.040E-06,0.008
-4.030E-06,0.040
-4.020E-06,0.048
-4.010E-06,0.012
-4.000E-06,-0.028
-3.990E-06,-0.040
-3.980E-06,-0.016
-3.970E-06,0.012
-3.960E-06,0.032
-3.950E-06,0.028
-3.940E-06,0.000
-3.930E-06,-0.024
-3.920E-06,-0.020
-3.910E-06,-0.008
-3.900E-06,0.016
-3.890E-06,0.028
-3.880E-06,0.012
-3.870E-06,0.000
-3.860E-06,-0.004
-3.850E-06,-0.012
-3.840E-06,-0.008
-3.830E-06,0.012
-3.820E-06,0.020
-3.810E-06,0.008
-3.800E-06,0.004
-3.790E-06,-0.004
-3.780E-06,-0.008
-3.770E-06,0.000
-3.760E-06,0.008
-3.750E-06,0.008
-3.740E-06,0.008
-3.730E-06,0.008
-3.720E-06,0.000
-3.710E-06,0.004
-3.700E-06,0.008
-3.690E-06,0.012
-3.680E-06,0.004
-3.670E-06,0.004
-3.660E-06,0.004
-3.650E-06,0.008
-3.640E-06,0.012
-3.630E-06,0.008
-3.620E-06,0.008
-3.610E-06,0.008
-3.600E-06,0.000
-3.590E-06,0.008
-3.580E-06,0.004
-3.570E-06,0.020
-3.560E-06,0.016
-3.550E-06,0.012
-3.540E-06,0.004
-3.530E-06,-0.004
-3.520E-06,-0.004
-3.510E-06,-0.004
-3.500E-06,0.012
-3.490E-06,0.008
-3.480E-06,0.012
-3.470E-06,0.012
-3.460E-06,0.008
-3.450E-06,0.012
-3.440E-06,0.008
-3.430E-06,0.012
-3.420E-06,0.012
-3.410E-06,-0.004
-3.400E-06,-0.004
-3.390E-06,-0.004
-3.380E-06,0.000
-3.370E-06,0.012
-3.360E-06,0.016
-3.350E-06,0.012
-3.340E-06,0.000
-3.330E-06,-0.008
-3.320E-06,-0.020
-3.310E-06,-0.020
-3.300E-06,-0.008
-3.290E-06,-0.004
-3.280E-06,-0.004
-3.270E-06,0.000
-3.260E-06,-0.004
-3.250E-06,0.000
-3.240E-06,0.016
-3.230E-06,0.008
-3.220E-06,0.004
-3.210E-06,-0.004
-3.200E-06,-0.008
-3.190E-06,-0.004
-3.180E-06,0.000
-3.170E-06,0.008
-3.160E-06,0.012
-3.150E-06,0.008
-3.140E-06,0.008
-3.130E-06,0.012
-3.120E-06,0.016
-3.110E-06,0.024
-3.100E-06,0.016
-3.090E-06,0.012
-3.080E-06,0.000
-3.070E-06,-0.008
-3.060E-06,-0.008
-3.050E-06,-0.004
-3.040E-06,0.008
-3.030E-06,0.008
-3.020E-06,0.004
-3.010E-06,0.000
-3.000E-06,-0.004
-2.990E-06,-0.008
-2.980E-06,0.004
-2.970E-06,0.012
-2.960E-06,0.008
-2.950E-06,0.008
-2.940E-06,0.012
-2.930E-06,0.016
-2.920E-06,0.016
-2.910E-06,0.028
-2.900E-06,0.020
-2.890E-06,0.020
-2.880E-06,0.024
-2.870E-06,0.020
-2.860E-06,0.012
-2.850E-06,0.008
-2.840E-06,0.000
-2.830E-06,0.008
-2.820E-06,0.016
-2.810E-06,0.012
-2.800E-06,0.008
-2.790E-06,0.008
-2.780E-06,0.004
-2.770E-06,0.000
-2.760E-06,0.000
-2.750E-06,0.008
-2.740E-06,0.008
-2.730E-06,0.012
-2.720E-06,0.020
-2.710E-06,0.012
-2.700E-06,0.024
-2.690E-06,0.028
-2.680E-06,0.040
-2.670E-06,0.052
-2.660E-06,0.040
-2.650E-06,0.036
-2.640E-06,0.024
-2.630E-06,0.020
-2.620E-06,0.032
-2.610E-06,0.040
-2.600E-06,0.036
-2.590E-06,0.016
-2.580E-06,-0.008
-2.570E-06,-0.036
-2.560E-06,-0.044
-2.550E-06,-0.016
-2.540E-06,-0.008
-2.530E-06,0.020
-2.520E-06,0.036
-2.510E-06,0.056
-2.500E-06,0.068
-2.490E-06,0.080
-2.480E-06,0.064
-2.470E-06,0.020
-2.460E-06,-0.064
-2.450E-06,-0.120
-2.440E-06,-0.108
-2.430E-06,-0.092
-2.420E-06,-0.020
-2.410E-06,0.032
-2.400E-06,0.036
-2.390E-06,0.004
-2.380E-06,-0.036
-2.370E-06,-0.056
-2.360E-06,-0.044
-2.350E-06,0.000
-2.340E-06,0.036
-2.330E-06,0.028
-2.320E-06,0.008
-2.310E-06,-0.012
-2.300E-06,-0.032
-2.290E-06,-0.024
-2.280E-06,0.000
-2.270E-06,0.032
-2.260E-06,0.020
-2.250E-06,0.008
-2.240E-06,0.000
-2.230E-06,0.008
-2.220E-06,0.016
-2.210E-06,0.012
-2.200E-06,0.008
-2.190E-06,0.000
-2.180E-06,-0.008
-2.170E-06,-0.008
-2.160E-06,0.004
-2.150E-06,0.000
-2.140E-06,-0.008
-2.130E-06,-0.016
-2.120E-06,-0.008
-2.110E-06,0.004
-2.100E-06,0.020
-2.090E-06,0.016
-2.080E-06,0.012
-2.070E-06,0.012
-2.060E-06,0.008
-2.050E-06,0.020
-2.040E-06,0.028
-2.030E-06,0.044
-2.020E-06,0.048
-2.010E-06,0.052
-2.000E-06,0.052
-1.990E-06,0.060
-1.980E-06,0.068
-1.970E-06,0.076
-1.960E-06,0.072
-1.950E-06,0.064
-1.940E-06,0.064
-1.930E-06,0.064
-1.920E-06,0.068
-1.910E-06,0.060
-1.900E-06,0.028
-1.890E-06,-0.056
-1.880E-06,-0.136
-1.870E-06,-0.204
-1.860E-06,-0.196
-1.850E-06,-0.124
-1.840E-06,-0.024
-1.830E-06,0.056
-1.820E-06,0.080
-1.810E-06,0.048
-1.800E-06,-0.024
-1.790E-06,-0.060
-1.780E-06,-0.056
-1.770E-06,-0.004
-1.760E-06,0.036
-1.750E-06,0.068
-1.740E-06,0.052
-1.730E-06,0.008
-1.720E-06,-0.008
-1.710E-06,-0.044
-1.700E-06,-0.004
-1.690E-06,0.016
-1.680E-06,0.028
-1.670E-06,0.072
-1.660E-06,0.072
-1.650E-06,0.064
-1.640E-06,0.072
-1.630E-06,0.044
-1.620E-06,0.000
-1.610E-06,-0.056
-1.600E-06,-0.084
-1.590E-06,-0.080
-1.580E-06,-0.040
-1.570E-06,0.016
-1.560E-06,0.024
-1.550E-06,0.020
-1.540E-06,-0.008
-1.530E-06,-0.032
-1.520E-06,-0.028
-1.510E-06,0.044
-1.500E-06,0.088
-1.490E-06,0.144
-1.480E-06,0.196
-1.470E-06,-0.020
-1.460E-06,-0.064
-1.450E-06,-0.236
-1.440E-06,-0.300
-1.430E-06,-0.204
-1.420E-06,0.008
-1.410E-06,0.188
-1.400E-06,0.188
-1.390E-06,0.080
-1.380E-06,-0.040
-1.370E-06,-0.084
-1.360E-06,-0.064
-1.350E-06,-0.036
-1.340E-06,0.016
-1.330E-06,0.028
-1.320E-06,0.024
-1.310E-06,0.000
-1.300E-06,-0.004
-1.290E-06,-0.008
-1.280E-06,0.008
-1.270E-06,0.008
-1.260E-06,-0.004
-1.250E-06,-0.004
-1.240E-06,-0.024
-1.230E-06,-0.020
-1.220E-06,-0.008
-1.210E-06,0.008
-1.200E-06,0.024
-1.190E-06,0.012
-1.180E-06,0.000
-1.170E-06,0.000
-1.160E-06,-0.016
-1.150E-06,-0.012
-1.140E-06,0.000
-1.130E-06,0.008
-1.120E-06,0.012
-1.110E-06,0.012
-1.100E-06,0.008
-1.090E-06,0.004
-1.080E-06,0.008
-1.070E-06,0.008
-1.060E-06,0.020
-1.050E-06,0.028
-1.040E-06,0.032
-1.030E-06,0.048
-1.020E-06,0.040
-1.010E-06,0.044
-1.000E-06,0.056
-9.900E-07,0.056
-9.800E-07,0.056
-9.700E-07,0.060
-9.600E-07,0.056
-9.500E-07,0.060
-9.400E-07,0.024
-9.300E-07,-0.012
-9.200E-07,-0.052
-9.100E-07,-0.084
-9.000E-07,-0.068
-8.900E-07,-0.056
-8.800E-07,-0.024
-8.700E-07,-0.004
-8.600E-07,0.004
-8.500E-07,0.004
-8.400E-07,-0.020
-8.300E-07,-0.020
-8.200E-07,-0.020
-8.100E-07,-0.008
-8.000E-07,0.000
-7.900E-07,0.008
-7.800E-07,0.008
-7.700E-07,0.012
-7.600E-07,0.024
-7.500E-07,0.020
-7.400E-07,0.040
-7.300E-07,0.040
-7.200E-07,0.036
-7.100E-07,0.024
-7.000E-07,0.012
-6.900E-07,0.008
-6.800E-07,0.004
-6.700E-07,0.016
-6.600E-07,0.036
-6.500E-07,0.020
-6.400E-07,-0.012
-6.300E-07,-0.056
-6.200E-07,-0.092
-6.100E-07,-0.072
-6.000E-07,-0.044
-5.900E-07,-0.032
-5.800E-07,-0.020
-5.700E-07,-0.012
-5.600E-07,0.012
-5.500E-07,0.028
-5.400E-07,0.036
-5.300E-07,0.056
-5.200E-07,0.024
-5.100E-07,0.000
-5.000E-07,-0.012
-4.900E-07,0.016
-4.800E-07,0.048
-4.700E-07,0.064
-4.600E-07,0.032
-4.500E-07,0.012
-4.400E-07,0.000
-4.300E-07,0.012
-4.200E-07,0.036
-4.100E-07,0.044
-4.000E-07,0.052
-3.900E-07,0.020
-3.800E-07,0.000
-3.700E-07,-0.012
-3.600E-07,0.000
-3.500E-07,0.016
-3.400E-07,0.048
-3.300E-07,0.040
-3.200E-07,0.032
-3.100E-07,0.012
-3.000E-07,-0.004
-2.900E-07,-0.012
-2.800E-07,-0.020
-2.700E-07,-0.008
-2.600E-07,0.004
-2.500E-07,0.024
-2.400E-07,0.036
-2.300E-07,0.044
-2.200E-07,0.052
-2.100E-07,0.048
-2.000E-07,0.068
-1.900E-07,0.088
-1.800E-07,0.100
-1.700E-07,0.108
-1.600E-07,0.104
-1.500E-07,0.080
-1.400E-07,0.060
-1.300E-07,0.020
-1.200E-07,0.000
-1.100E-07,0.008
-1.000E-07,0.016
-9.000E-08,0.048
-8.000E-08,0.076
-7.000E-08,0.128
-6.000E-08,-0.184
-5.000E-08,-0.216
-4.000E-08,-0.380
-3.000E-08,-0.204
-2.000E-08,0.196
-1.000E-08,0.244
0.000E+00,0.168
1.000E-08,-0.104
2.000E-08,-0.316
3.000E-08,-0.264
4.000E-08,-0.128
5.000E-08,0.208
6.000E-08,0.232
7.000E-08,0.256
8.000E-08,0.044
9.000E-08,-0.140
1.000E-07,-0.184
1.100E-07,-0.140
1.200E-07,-0.148
1.300E-07,-0.108
1.400E-07,0.048
1.500E-07,0.152
1.600E-07,0.200
1.700E-07,0.164
1.800E-07,0.044
1.900E-07,-0.064
2.000E-07,-0.024
2.100E-07,0.016
2.200E-07,-0.024
2.300E-07,-0.120
2.400E-07,-0.224
2.500E-07,-0.280
2.600E-07,-0.188
2.700E-07,0.020
2.800E-07,0.144
2.900E-07,0.216
3.000E-07,0.200
3.100E-07,0.104
3.200E-07,-0.120
3.300E-07,-0.248
3.400E-07,-0.272
3.500E-07,-0.180
3.600E-07,-0.004
3.700E-07,0.104
3.800E-07,0.168
3.900E-07,0.092
4.000E-07,0.012
4.100E-07,-0.024
4.200E-07,-0.008
4.300E-07,-0.096
4.400E-07,-0.044
4.500E-07,0.028
4.600E-07,0.040
4.700E-07,0.028
4.800E-07,0.036
4.900E-07,-0.004
5.000E-07,-0.032
5.100E-07,-0.040
5.200E-07,-0.028
5.300E-07,0.008
5.400E-07,0.028
5.500E-07,0.036
5.600E-07,0.016
5.700E-07,-0.004
5.800E-07,-0.016
5.900E-07,-0.008
6.000E-07,0.008
6.100E-07,0.024
6.200E-07,0.024
6.300E-07,0.024
6.400E-07,0.008
6.500E-07,-0.004
6.600E-07,0.008
6.700E-07,0.016
6.800E-07,0.024
6.900E-07,0.012
7.000E-07,0.012
7.100E-07,0.008
7.200E-07,0.004
7.300E-07,0.004
7.400E-07,0.012
7.500E-07,0.024
7.600E-07,0.024
7.700E-07,0.028
7.800E-07,0.032
7.900E-07,0.028
8.000E-07,0.024
8.100E-07,0.028
8.200E-07,0.028
8.300E-07,0.036
8.400E-07,0.040
8.500E-07,0.052
8.600E-07,0.056
8.700E-07,0.064
8.800E-07,0.072
8.900E-07,0.072
9.000E-07,0.064
9.100E-07,0.060
9.200E-07,0.064
9.300E-07,-0.004
9.400E-07,-0.172
9.500E-07,-0.324
9.600E-07,-0.308
9.700E-07,-0.152
9.800E-07,0.108
9.900E-07,0.256
1.000E-06,0.236
1.010E-06,0.088
1.020E-06,-0.108
1.030E-06,-0.172
1.040E-06,-0.108
1.050E-06,0.056
1.060E-06,0.180
1.070E-06,0.168
1.080E-06,0.108
1.090E-06,-0.012
1.100E-06,-0.108
1.110E-06,-0.104
1.120E-06,-0.128
1.130E-06,-0.092
1.140E-06,-0.008
1.150E-06,0.028
1.160E-06,0.044
1.170E-06,0.048
1.180E-06,0.048
1.190E-06,0.024
1.200E-06,0.016
1.210E-06,0.016
1.220E-06,0.008
1.230E-06,-0.016
1.240E-06,-0.088
1.250E-06,-0.124
1.260E-06,-0.096
1.270E-06,-0.032
1.280E-06,0.056
1.290E-06,0.096
1.300E-06,0.104
1.310E-06,0.048
1.320E-06,-0.024
1.330E-06,-0.044
1.340E-06,-0.020
1.350E-06,0.020
1.360E-06,0.076
1.370E-06,0.104
1.380E-06,0.092
1.390E-06,0.080
1.400E-06,0.072
1.410E-06,0.064
1.420E-06,0.080
1.430E-06,0.040
1.440E-06,0.008
1.450E-06,-0.040
1.460E-06,-0.088
1.470E-06,-0.096
1.480E-06,-0.108
1.490E-06,-0.052
1.500E-06,-0.004
1.510E-06,0.000
1.520E-06,0.000
1.530E-06,-0.004
1.540E-06,-0.020
1.550E-06,-0.036
1.560E-06,-0.020
1.570E-06,-0.008
1.580E-06,0.012
1.590E-06,0.004
1.600E-06,-0.012
1.610E-06,-0.020
1.620E-06,-0.004
1.630E-06,0.008
1.640E-06,0.020
1.650E-06,0.028
1.660E-06,0.032
1.670E-06,0.036
1.680E-06,0.020
1.690E-06,0.012
1.700E-06,0.020
1.710E-06,0.028
1.720E-06,0.044
1.730E-06,0.060
1.740E-06,0.072
1.750E-06,0.064
1.760E-06,0.064
1.770E-06,0.060
1.780E-06,0.044
1.790E-06,0.068
1.800E-06,0.092
1.810E-06,0.108
1.820E-06,0.120
1.830E-06,0.120
1.840E-06,0.108
1.850E-06,0.104
1.860E-06,0.108
1.870E-06,0.076
1.880E-06,-0.084
1.890E-06,-0.296
1.900E-06,-0.472
1.910E-06,-0.476
1.920E-06,-0.288
1.930E-06,-0.020
1.940E-06,0.224
1.950E-06,0.296
1.960E-06,0.212
1.970E-06,-0.008
1.980E-06,-0.144
1.990E-06,-0.176
2.000E-06,-0.060
2.010E-06,0.060
2.020E-06,0.124
2.030E-06,0.100
2.040E-06,0.008
2.050E-06,-0.048
2.060E-06,-0.060
2.070E-06,0.000
2.080E-06,0.060
2.090E-06,0.088
2.100E-06,0.072
2.110E-06,0.008
2.120E-06,-0.056
2.130E-06,-0.096
2.140E-06,-0.088
2.150E-06,-0.012
2.160E-06,0.056
2.170E-06,0.092
2.180E-06,0.072
2.190E-06,0.060
2.200E-06,0.020
2.210E-06,0.016
2.220E-06,0.052
2.230E-06,0.068
2.240E-06,0.120
2.250E-06,0.140
2.260E-06,0.148
2.270E-06,0.100
2.280E-06,0.024
2.290E-06,-0.076
2.300E-06,-0.184
2.310E-06,-0.236
2.320E-06,-0.204
2.330E-06,-0.104
2.340E-06,0.028
2.350E-06,0.080
2.360E-06,0.080
2.370E-06,0.024
2.380E-06,-0.032
2.390E-06,-0.056
2.400E-06,-0.028
2.410E-06,0.044
2.420E-06,0.096
2.430E-06,0.056
2.440E-06,-0.012
2.450E-06,-0.052
2.460E-06,-0.080
2.470E-06,-0.072
2.480E-06,-0.024
2.490E-06,0.032
2.500E-06,0.064
2.510E-06,0.056
2.520E-06,0.060
2.530E-06,0.044
2.540E-06,0.056
2.550E-06,0.056
2.560E-06,0.068
2.570E-06,0.100
2.580E-06,0.140
2.590E-06,0.168
2.600E-06,0.164
2.610E-06,0.148
2.620E-06,0.128
2.630E-06,0.128
2.640E-06,0.120
2.650E-06,0.120
2.660E-06,0.100
2.670E-06,0.088
2.680E-06,0.076
2.690E-06,0.112
2.700E-06,0.152
2.710E-06,0.156
2.720E-06,0.124
2.730E-06,0.048
2.740E-06,-0.040
2.750E-06,-0.056
2.760E-06,0.036
2.770E-06,0.180
2.780E-06,0.232
2.790E-06,0.108
2.800E-06,-0.200
2.810E-06,-0.508
2.820E-06,-0.508
2.830E-06,-0.512
2.840E-06,-0.248
2.850E-06,0.196
2.860E-06,0.452
2.870E-06,0.368
2.880E-06,0.036
2.890E-06,-0.360
2.900E-06,-0.512
2.910E-06,-0.484
2.920E-06,-0.200
2.930E-06,0.072
2.940E-06,0.204
2.950E-06,0.184
2.960E-06,0.028
2.970E-06,-0.108
2.980E-06,-0.208
2.990E-06,-0.132
3.000E-06,-0.004
3.010E-06,0.100
3.020E-06,0.120
3.030E-06,0.056
3.040E-06,-0.008
3.050E-06,-0.060
3.060E-06,-0.036
3.070E-06,-0.008
3.080E-06,0.048
3.090E-06,0.060
3.100E-06,0.060
3.110E-06,0.004
3.120E-06,-0.004
3.130E-06,-0.052
3.140E-06,-0.056
3.150E-06,-0.020
3.160E-06,0.024
3.170E-06,0.076
3.180E-06,0.076
3.190E-06,0.076
3.200E-06,0.040
3.210E-06,0.004
3.220E-06,0.000
3.230E-06,0.024
3.240E-06,0.064
3.250E-06,0.100
3.260E-06,0.116
3.270E-06,0.096
3.280E-06,0.064
3.290E-06,0.036
3.300E-06,0.008
3.310E-06,0.012
3.320E-06,0.048
3.330E-06,0.064
3.340E-06,0.080
3.350E-06,0.080
3.360E-06,0.092
3.370E-06,0.084
3.380E-06,0.092
3.390E-06,0.124
3.400E-06,0.152
3.410E-06,0.172
3.420E-06,0.184
3.430E-06,0.180
3.440E-06,0.160
3.450E-06,0.148
3.460E-06,0.148
3.470E-06,0.156
3.480E-06,0.164
3.490E-06,0.176
3.500E-06,0.164
3.510E-06,0.144
3.520E-06,0.120
3.530E-06,0.124
3.540E-06,0.104
3.550E-06,0.128
3.560E-06,0.092
3.570E-06,-0.072
3.580E-06,-0.320
3.590E-06,-0.484
3.600E-06,-0.508
3.610E-06,-0.512
3.620E-06,-0.348
3.630E-06,-0.172
3.640E-06,-0.132
3.650E-06,-0.056
3.660E-06,-0.052
3.670E-06,-0.056
3.680E-06,-0.004
3.690E-06,0.008
3.700E-06,0.000
3.710E-06,-0.028
3.720E-06,-0.048
3.730E-06,0.008
3.740E-06,0.064
3.750E-06,0.132
3.760E-06,0.104
3.770E-06,0.040
3.780E-06,0.028
3.790E-06,0.052
3.800E-06,0.092
3.810E-06,0.112
3.820E-06,0.076
3.830E-06,-0.012
3.840E-06,-0.072
3.850E-06,-0.108
3.860E-06,-0.060
3.870E-06,-0.004
3.880E-06,0.044
3.890E-06,0.036
3.900E-06,-0.024
3.910E-06,-0.072
3.920E-06,-0.088
3.930E-06,-0.072
3.940E-06,-0.040
3.950E-06,-0.008
3.960E-06,0.012
3.970E-06,-0.016
3.980E-06,-0.004
3.990E-06,-0.004
4.000E-06,0.004
4.010E-06,0.008
4.020E-06,0.028
4.030E-06,0.064
4.040E-06,0.096
4.050E-06,0.108
4.060E-06,0.108
4.070E-06,0.096
4.080E-06,0.100
4.090E-06,0.108
4.100E-06,0.132
4.110E-06,0.148
4.120E-06,0.152
4.130E-06,0.148
4.140E-06,0.136
4.150E-06,0.140
4.160E-06,0.152
4.170E-06,0.160
4.180E-06,0.180
4.190E-06,0.188
4.200E-06,0.188
4.210E-06,0.184
4.220E-06,0.176
4.230E-06,0.164
4.240E-06,0.160
4.250E-06,0.164
4.260E-06,0.164
4.270E-06,0.168
4.280E-06,0.172
4.290E-06,0.172
4.300E-06,0.156
4.310E-06,0.152
4.320E-06,0.136
4.330E-06,0.128
4.340E-06,0.092
4.350E-06,0.036
4.360E-06,-0.036
4.370E-06,-0.072
4.380E-06,-0.124
4.390E-06,-0.132
4.400E-06,-0.144
4.410E-06,-0.152
4.420E-06,-0.176
4.430E-06,-0.160
4.440E-06,-0.156
4.450E-06,-0.136
4.460E-06,-0.116
4.470E-06,-0.060
4.480E-06,-0.020
4.490E-06,0.056
4.500E-06,0.112
4.510E-06,0.124
4.520E-06,0.108
4.530E-06,0.064
4.540E-06,0.016
4.550E-06,0.004
4.560E-06,0.044
4.570E-06,0.104
4.580E-06,0.132
4.590E-06,0.128
4.600E-06,0.108
4.610E-06,0.096
4.620E-06,0.084
4.630E-06,0.096
4.640E-06,0.124
4.650E-06,0.156
4.660E-06,0.164
4.670E-06,0.152
4.680E-06,0.144
4.690E-06,0.144
4.700E-06,0.148
4.710E-06,0.160
4.720E-06,0.172
4.730E-06,0.184
4.740E-06,0.188
4.750E-06,0.176
4.760E-06,0.172
4.770E-06,0.164
4.780E-06,0.152
4.790E-06,0.156
4.800E-06,0.156
4.810E-06,0.160
4.820E-06,0.164
4.830E-06,0.156
4.840E-06,0.144
4.850E-06,0.136
4.860E-06,0.124
4.870E-06,0.112
4.880E-06,0.112
4.890E-06,0.112
4.900E-06,0.120
4.910E-06,0.120
4.920E-06,0.120
4.930E-06,0.120
4.940E-06,0.124
4.950E-06,0.124
4.960E-06,0.132
4.970E-06,0.140
4.980E-06,0.144
4.990E-06,0.156
5.000E-06,0.160
5.010E-06,0.152
5.020E-06,0.156
5.030E-06,0.160
5.040E-06,0.164
5.050E-06,0.172
5.060E-06,0.176
5.070E-06,0.168
5.080E-06,0.168
5.090E-06,0.160
5.100E-06,0.164
5.110E-06,0.168
5.120E-06,0.164
5.130E-06,0.168
5.140E-06,0.164
5.150E-06,0.168
5.160E-06,0.160
5.170E-06,0.168
5.180E-06,0.168
5.190E-06,0.160
5.200E-06,0.164
5.210E-06,0.164
5.220E-06,0.164
5.230E-06,0.160
5.240E-06,0.160
5.250E-06,0.156
5.260E-06,0.156
5.270E-06,0.152
5.280E-06,0.160
5.290E-06,0.160
5.300E-06,0.156
5.310E-06,0.152
5.320E-06,0.152
5.330E-06,0.152
5.340E-06,0.156
5.350E-06,0.160
5.360E-06,0.160
5.370E-06,0.156
5.380E-06,0.160
5.390E-06,0.164
5.400E-06,0.160
5.410E-06,0.156
5.420E-06,0.156
5.430E-06,0.164
5.440E-06,0.160
5.450E-06,0.156
5.460E-06,0.156
5.470E-06,0.156
5.480E-06,0.152
5.490E-06,0.156
5.500E-06,0.156
5.510E-06,0.160
5.520E-06,0.156
5.530E-06,0.152
5.540E-06,0.156
5.550E-06,0.156
5.560E-06,0.156
5.570E-06,0.156
5.580E-06,0.156
5.590E-06,0.160
5.600E-06,0.156
5.610E-06,0.152
5.620E-06,0.152
5.630E-06,0.156
5.640E-06,0.148
5.650E-06,0.156
5.660E-06,0.152
5.670E-06,0.156
5.680E-06,0.160
5.690E-06,0.152
5.700E-06,0.152
5.710E-06,0.156
5.720E-06,0.156
5.730E-06,0.152
5.740E-06,0.152
5.750E-06,0.152
5.760E-06,0.156
5.770E-06,0.148
5.780E-06,0.156
5.790E-06,0.148
5.800E-06,0.152
5.810E-06,0.148
5.820E-06,0.148
5.830E-06,0.148
5.840E-06,0.148
5.850E-06,0.144
5.860E-06,0.144
5.870E-06,0.144
5.880E-06,0.144
5.890E-06,0.144
5.900E-06,0.140
5.910E-06,0.140
5.920E-06,0.144
5.930E-06,0.144
5.940E-06,0.144
5.950E-06,0.144
5.960E-06,0.144
5.970E-06,0.144
5.980E-06,0.144
5.990E-06,0.144
6.000E-06,0.148
6.010E-06,0.148
6.020E-06,0.144
6.030E-06,0.144
6.040E-06,0.136
6.050E-06,0.144
6.060E-06,0.144
6.070E-06,0.144
6.080E-06,0.144
6.090E-06,0.144
6.100E-06,0.144
6.110E-06,0.144
6.120E-06,0.144
6.130E-06,0.140
6.140E-06,0.140
6.150E-06,0.136
6.160E-06,0.140
6.170E-06,0.144
6.180E-06,0.140
6.190E-06,0.140
6.200E-06,0.144
6.210E-06,0.144
6.220E-06,0.136
6.230E-06,0.136
6.240E-06,0.136
