mediciones/Mediciones filtradas (saque las feas)/5-27/-37.5/WaveData516.csv

#timebase=2000000(ps)
,#voltbase=100000(mv/100)
#size=4000
-5.650E-06,-0.024
-5.640E-06,-0.064
-5.630E-06,-0.076
-5.620E-06,-0.024
-5.610E-06,0.048
-5.600E-06,0.100
-5.590E-06,0.064
-5.580E-06,-0.004
-5.570E-06,-0.088
-5.560E-06,-0.108
-5.550E-06,-0.072
-5.540E-06,0.000
-5.530E-06,0.068
-5.520E-06,0.080
-5.510E-06,0.052
-5.500E-06,-0.004
-5.490E-06,-0.040
-5.480E-06,-0.052
-5.470E-06,-0.024
-5.460E-06,-0.004
-5.450E-06,0.040
-5.440E-06,0.036
-5.430E-06,0.020
-5.420E-06,-0.004
-5.410E-06,-0.024
-5.400E-06,-0.020
-5.390E-06,-0.004
-5.380E-06,0.012
-5.370E-06,0.012
-5.360E-06,0.008
-5.350E-06,0.000
-5.340E-06,-0.004
-5.330E-06,-0.008
-5.320E-06,-0.004
-5.310E-06,0.000
-5.300E-06,0.004
-5.290E-06,0.008
-5.280E-06,0.000
-5.270E-06,0.000
-5.260E-06,-0.004
-5.250E-06,0.000
-5.240E-06,0.000
-5.230E-06,0.000
-5.220E-06,0.004
-5.210E-06,0.008
-5.200E-06,0.012
-5.190E-06,0.004
-5.180E-06,0.004
-5.170E-06,0.000
-5.160E-06,0.000
-5.150E-06,-0.004
-5.140E-06,0.004
-5.130E-06,0.008
-5.120E-06,0.012
-5.110E-06,0.012
-5.100E-06,0.000
-5.090E-06,-0.004
-5.080E-06,-0.004
-5.070E-06,-0.004
-5.060E-06,0.004
-5.050E-06,0.000
-5.040E-06,0.008
-5.030E-06,-0.004
-5.020E-06,0.000
-5.010E-06,-0.004
-5.000E-06,0.000
-4.990E-06,0.000
-4.980E-06,0.008
-4.970E-06,0.000
-4.960E-06,0.004
-4.950E-06,-0.004
-4.940E-06,0.000
-4.930E-06,0.000
-4.920E-06,0.004
-4.910E-06,0.008
-4.900E-06,0.008
-4.890E-06,0.004
-4.880E-06,0.004
-4.870E-06,0.008
-4.860E-06,0.012
-4.850E-06,0.008
-4.840E-06,0.012
-4.830E-06,0.004
-4.820E-06,0.008
-4.810E-06,0.012
-4.800E-06,0.008
-4.790E-06,0.016
-4.780E-06,0.028
-4.770E-06,0.024
-4.760E-06,0.020
-4.750E-06,0.012
-4.740E-06,0.008
-4.730E-06,0.008
-4.720E-06,0.008
-4.710E-06,0.004
-4.700E-06,0.008
-4.690E-06,0.000
-4.680E-06,0.004
-4.670E-06,0.000
-4.660E-06,0.012
-4.650E-06,0.016
-4.640E-06,0.020
-4.630E-06,0.024
-4.620E-06,0.020
-4.610E-06,0.028
-4.600E-06,0.044
-4.590E-06,0.060
-4.580E-06,0.032
-4.570E-06,0.000
-4.560E-06,-0.040
-4.550E-06,-0.076
-4.540E-06,-0.072
-4.530E-06,-0.040
-4.520E-06,-0.008
-4.510E-06,0.008
-4.500E-06,0.000
-4.490E-06,-0.020
-4.480E-06,-0.032
-4.470E-06,-0.024
-4.460E-06,-0.008
-4.450E-06,0.012
-4.440E-06,0.024
-4.430E-06,0.008
-4.420E-06,-0.004
-4.410E-06,-0.012
-4.400E-06,-0.016
-4.390E-06,0.000
-4.380E-06,0.008
-4.370E-06,0.008
-4.360E-06,0.000
-4.350E-06,-0.008
-4.340E-06,-0.016
-4.330E-06,-0.004
-4.320E-06,-0.004
-4.310E-06,-0.004
-4.300E-06,0.000
-4.290E-06,-0.008
-4.280E-06,0.004
-4.270E-06,-0.004
-4.260E-06,0.000
-4.250E-06,0.000
-4.240E-06,0.000
-4.230E-06,0.000
-4.220E-06,0.004
-4.210E-06,0.008
-4.200E-06,0.004
-4.190E-06,0.004
-4.180E-06,-0.004
-4.170E-06,0.000
-4.160E-06,-0.004
-4.150E-06,0.004
-4.140E-06,0.008
-4.130E-06,0.004
-4.120E-06,0.008
-4.110E-06,0.000
-4.100E-06,0.000
-4.090E-06,0.000
-4.080E-06,0.004
-4.070E-06,0.008
-4.060E-06,0.008
-4.050E-06,0.008
-4.040E-06,0.008
-4.030E-06,0.004
-4.020E-06,0.004
-4.010E-06,0.008
-4.000E-06,0.008
-3.990E-06,0.012
-3.980E-06,0.004
-3.970E-06,0.008
-3.960E-06,0.012
-3.950E-06,0.008
-3.940E-06,0.012
-3.930E-06,0.016
-3.920E-06,0.008
-3.910E-06,0.012
-3.900E-06,0.012
-3.890E-06,0.012
-3.880E-06,0.024
-3.870E-06,0.024
-3.860E-06,0.020
-3.850E-06,0.024
-3.840E-06,0.024
-3.830E-06,0.020
-3.820E-06,0.016
-3.810E-06,0.020
-3.800E-06,0.032
-3.790E-06,0.036
-3.780E-06,0.036
-3.770E-06,0.028
-3.760E-06,0.020
-3.750E-06,0.016
-3.740E-06,0.016
-3.730E-06,0.028
-3.720E-06,0.040
-3.710E-06,0.052
-3.700E-06,0.064
-3.690E-06,0.064
-3.680E-06,0.060
-3.670E-06,0.056
-3.660E-06,0.032
-3.650E-06,-0.028
-3.640E-06,-0.092
-3.630E-06,-0.116
-3.620E-06,-0.060
-3.610E-06,0.036
-3.600E-06,0.048
-3.590E-06,0.000
-3.580E-06,-0.072
-3.570E-06,-0.136
-3.560E-06,-0.128
-3.550E-06,-0.036
-3.540E-06,0.076
-3.530E-06,0.128
-3.520E-06,0.128
-3.510E-06,0.004
-3.500E-06,-0.112
-3.490E-06,-0.176
-3.480E-06,-0.116
-3.470E-06,-0.032
-3.460E-06,0.056
-3.450E-06,0.092
-3.440E-06,0.040
-3.430E-06,0.000
-3.420E-06,-0.068
-3.410E-06,-0.068
-3.400E-06,-0.036
-3.390E-06,0.032
-3.380E-06,0.056
-3.370E-06,0.036
-3.360E-06,-0.004
-3.350E-06,-0.036
-3.340E-06,-0.040
-3.330E-06,-0.012
-3.320E-06,0.028
-3.310E-06,0.032
-3.300E-06,0.024
-3.290E-06,-0.004
-3.280E-06,-0.020
-3.270E-06,-0.024
-3.260E-06,-0.004
-3.250E-06,0.016
-3.240E-06,0.024
-3.230E-06,0.016
-3.220E-06,0.000
-3.210E-06,-0.012
-3.200E-06,-0.008
-3.190E-06,0.000
-3.180E-06,0.004
-3.170E-06,0.008
-3.160E-06,0.008
-3.150E-06,0.004
-3.140E-06,-0.008
-3.130E-06,-0.008
-3.120E-06,-0.004
-3.110E-06,0.008
-3.100E-06,0.008
-3.090E-06,0.008
-3.080E-06,0.008
-3.070E-06,0.008
-3.060E-06,0.000
-3.050E-06,0.004
-3.040E-06,-0.004
-3.030E-06,-0.004
-3.020E-06,-0.004
-3.010E-06,0.000
-3.000E-06,0.012
-2.990E-06,0.008
-2.980E-06,0.004
-2.970E-06,0.004
-2.960E-06,0.000
-2.950E-06,-0.004
-2.940E-06,-0.004
-2.930E-06,0.012
-2.920E-06,0.008
-2.910E-06,0.004
-2.900E-06,0.008
-2.890E-06,0.012
-2.880E-06,0.016
-2.870E-06,0.016
-2.860E-06,0.016
-2.850E-06,0.004
-2.840E-06,0.008
-2.830E-06,0.012
-2.820E-06,0.024
-2.810E-06,0.036
-2.800E-06,0.028
-2.790E-06,0.020
-2.780E-06,0.016
-2.770E-06,0.012
-2.760E-06,0.028
-2.750E-06,0.044
-2.740E-06,0.040
-2.730E-06,0.032
-2.720E-06,0.024
-2.710E-06,0.028
-2.700E-06,0.028
-2.690E-06,0.036
-2.680E-06,0.040
-2.670E-06,0.036
-2.660E-06,0.032
-2.650E-06,0.024
-2.640E-06,0.028
-2.630E-06,0.040
-2.620E-06,0.056
-2.610E-06,0.072
-2.600E-06,0.088
-2.590E-06,0.084
-2.580E-06,0.084
-2.570E-06,0.092
-2.560E-06,0.088
-2.550E-06,0.096
-2.540E-06,0.096
-2.530E-06,0.088
-2.520E-06,0.076
-2.510E-06,0.076
-2.500E-06,0.024
-2.490E-06,-0.008
-2.480E-06,-0.088
-2.470E-06,-0.104
-2.460E-06,-0.096
-2.450E-06,-0.028
-2.440E-06,0.020
-2.430E-06,0.056
-2.420E-06,-0.004
-2.410E-06,-0.064
-2.400E-06,-0.128
-2.390E-06,-0.208
-2.380E-06,-0.156
-2.370E-06,-0.132
-2.360E-06,-0.076
-2.350E-06,-0.040
-2.340E-06,0.108
-2.330E-06,0.076
-2.320E-06,0.088
-2.310E-06,-0.044
-2.300E-06,-0.072
-2.290E-06,-0.120
-2.280E-06,-0.116
-2.270E-06,-0.044
-2.260E-06,-0.080
-2.250E-06,0.020
-2.240E-06,0.020
-2.230E-06,0.060
-2.220E-06,0.052
-2.210E-06,0.012
-2.200E-06,0.000
-2.190E-06,-0.016
-2.180E-06,0.004
-2.170E-06,0.044
-2.160E-06,0.092
-2.150E-06,0.076
-2.140E-06,0.052
-2.130E-06,0.024
-2.120E-06,0.004
-2.110E-06,-0.024
-2.100E-06,-0.072
-2.090E-06,-0.100
-2.080E-06,-0.108
-2.070E-06,-0.076
-2.060E-06,-0.024
-2.050E-06,0.032
-2.040E-06,0.080
-2.030E-06,0.072
-2.020E-06,0.008
-2.010E-06,-0.040
-2.000E-06,-0.068
-1.990E-06,-0.020
-1.980E-06,0.020
-1.970E-06,0.080
-1.960E-06,0.072
-1.950E-06,0.040
-1.940E-06,0.012
-1.930E-06,0.008
-1.920E-06,0.008
-1.910E-06,-0.016
-1.900E-06,-0.020
-1.890E-06,-0.040
-1.880E-06,-0.040
-1.870E-06,-0.056
-1.860E-06,-0.024
-1.850E-06,-0.004
-1.840E-06,0.012
-1.830E-06,0.012
-1.820E-06,-0.008
-1.810E-06,-0.008
-1.800E-06,-0.016
-1.790E-06,-0.012
-1.780E-06,-0.012
-1.770E-06,0.000
-1.760E-06,-0.004
-1.750E-06,0.012
-1.740E-06,0.004
-1.730E-06,-0.004
-1.720E-06,-0.016
-1.710E-06,-0.016
-1.700E-06,0.004
-1.690E-06,0.008
-1.680E-06,0.020
-1.670E-06,0.020
-1.660E-06,0.008
-1.650E-06,0.008
-1.640E-06,0.016
-1.630E-06,0.016
-1.620E-06,0.024
-1.610E-06,0.024
-1.600E-06,0.020
-1.590E-06,0.020
-1.580E-06,0.028
-1.570E-06,0.028
-1.560E-06,0.040
-1.550E-06,0.044
-1.540E-06,0.040
-1.530E-06,0.032
-1.520E-06,0.036
-1.510E-06,0.048
-1.500E-06,0.048
-1.490E-06,0.060
-1.480E-06,0.052
-1.470E-06,0.048
-1.460E-06,0.040
-1.450E-06,0.040
-1.440E-06,0.040
-1.430E-06,0.032
-1.420E-06,0.040
-1.410E-06,0.052
-1.400E-06,0.016
-1.390E-06,-0.064
-1.380E-06,-0.160
-1.370E-06,-0.276
-1.360E-06,-0.300
-1.350E-06,-0.156
-1.340E-06,-0.020
-1.330E-06,0.124
-1.320E-06,0.156
-1.310E-06,0.120
-1.300E-06,0.016
-1.290E-06,-0.068
-1.280E-06,-0.072
-1.270E-06,0.008
-1.260E-06,0.096
-1.250E-06,0.172
-1.240E-06,0.156
-1.230E-06,0.096
-1.220E-06,-0.004
-1.210E-06,-0.120
-1.200E-06,-0.164
-1.190E-06,-0.160
-1.180E-06,-0.060
-1.170E-06,0.000
-1.160E-06,0.048
-1.150E-06,0.032
-1.140E-06,-0.024
-1.130E-06,-0.036
-1.120E-06,-0.048
-1.110E-06,0.008
-1.100E-06,0.024
-1.090E-06,0.040
-1.080E-06,0.004
-1.070E-06,-0.012
-1.060E-06,0.016
-1.050E-06,0.020
-1.040E-06,0.028
-1.030E-06,-0.008
-1.020E-06,-0.032
-1.010E-06,-0.036
-1.000E-06,-0.036
-9.900E-07,-0.008
-9.800E-07,0.020
-9.700E-07,0.028
-9.600E-07,0.012
-9.500E-07,-0.008
-9.400E-07,-0.020
-9.300E-07,0.000
-9.200E-07,0.008
-9.100E-07,0.024
-9.000E-07,0.012
-8.900E-07,0.000
-8.800E-07,-0.004
-8.700E-07,-0.004
-8.600E-07,-0.004
-8.500E-07,-0.004
-8.400E-07,-0.004
-8.300E-07,-0.012
-8.200E-07,-0.008
-8.100E-07,0.000
-8.000E-07,0.024
-7.900E-07,0.032
-7.800E-07,0.024
-7.700E-07,0.012
-7.600E-07,-0.004
-7.500E-07,-0.004
-7.400E-07,0.004
-7.300E-07,0.024
-7.200E-07,0.024
-7.100E-07,0.020
-7.000E-07,0.012
-6.900E-07,0.000
-6.800E-07,-0.004
-6.700E-07,0.008
-6.600E-07,0.016
-6.500E-07,0.032
-6.400E-07,0.044
-6.300E-07,0.028
-6.200E-07,0.012
-6.100E-07,0.004
-6.000E-07,0.008
-5.900E-07,0.024
-5.800E-07,0.040
-5.700E-07,0.040
-5.600E-07,0.028
-5.500E-07,0.012
-5.400E-07,0.012
-5.300E-07,0.004
-5.200E-07,0.024
-5.100E-07,0.028
-5.000E-07,0.032
-4.900E-07,0.024
-4.800E-07,0.032
-4.700E-07,0.044
-4.600E-07,0.052
-4.500E-07,0.068
-4.400E-07,0.068
-4.300E-07,0.072
-4.200E-07,0.080
-4.100E-07,0.088
-4.000E-07,0.096
-3.900E-07,0.092
-3.800E-07,0.080
-3.700E-07,0.056
-3.600E-07,0.004
-3.500E-07,-0.036
-3.400E-07,-0.108
-3.300E-07,-0.132
-3.200E-07,-0.100
-3.100E-07,-0.036
-3.000E-07,0.008
-2.900E-07,0.044
-2.800E-07,0.040
-2.700E-07,0.036
-2.600E-07,0.036
-2.500E-07,0.060
-2.400E-07,0.092
-2.300E-07,0.120
-2.200E-07,0.120
-2.100E-07,0.092
-2.000E-07,0.060
-1.900E-07,0.040
-1.800E-07,0.040
-1.700E-07,0.060
-1.600E-07,0.064
-1.500E-07,0.072
-1.400E-07,0.076
-1.300E-07,0.088
-1.200E-07,0.096
-1.100E-07,0.108
-1.000E-07,0.096
-9.000E-08,0.076
-8.000E-08,0.008
-7.000E-08,-0.088
-6.000E-08,-0.260
-5.000E-08,-0.496
-4.000E-08,-0.512
-3.000E-08,-0.512
-2.000E-08,-0.160
-1.000E-08,0.232
0.000E+00,0.496
1.000E-08,0.512
2.000E-08,0.200
3.000E-08,-0.184
4.000E-08,-0.492
5.000E-08,-0.464
6.000E-08,-0.288
7.000E-08,-0.112
8.000E-08,-0.004
9.000E-08,-0.008
1.000E-07,0.052
1.100E-07,0.020
1.200E-07,0.032
1.300E-07,0.020
1.400E-07,0.000
1.500E-07,-0.028
1.600E-07,-0.092
1.700E-07,-0.072
1.800E-07,-0.004
1.900E-07,0.076
2.000E-07,0.092
2.100E-07,0.088
2.200E-07,0.020
2.300E-07,-0.020
2.400E-07,-0.076
2.500E-07,-0.072
2.600E-07,-0.036
2.700E-07,0.012
2.800E-07,0.068
2.900E-07,0.072
3.000E-07,0.068
3.100E-07,0.032
3.200E-07,-0.016
3.300E-07,-0.040
3.400E-07,-0.032
3.500E-07,0.008
3.600E-07,0.040
3.700E-07,0.072
3.800E-07,0.068
3.900E-07,0.036
4.000E-07,-0.004
4.100E-07,-0.028
4.200E-07,-0.040
4.300E-07,-0.024
4.400E-07,0.012
4.500E-07,0.052
4.600E-07,0.060
4.700E-07,0.060
4.800E-07,0.044
4.900E-07,0.008
5.000E-07,-0.028
5.100E-07,-0.028
5.200E-07,0.008
5.300E-07,0.036
5.400E-07,0.060
5.500E-07,0.056
5.600E-07,0.020
5.700E-07,-0.024
5.800E-07,-0.072
5.900E-07,-0.100
6.000E-07,-0.084
6.100E-07,-0.004
6.200E-07,0.056
6.300E-07,0.100
6.400E-07,0.088
6.500E-07,0.048
6.600E-07,0.004
6.700E-07,-0.028
6.800E-07,-0.012
6.900E-07,0.052
7.000E-07,0.092
7.100E-07,0.096
7.200E-07,0.068
7.300E-07,0.028
7.400E-07,0.008
7.500E-07,0.008
7.600E-07,0.044
7.700E-07,0.080
7.800E-07,0.092
7.900E-07,0.084
8.000E-07,0.068
8.100E-07,0.048
8.200E-07,0.044
8.300E-07,0.056
8.400E-07,0.076
8.500E-07,0.104
8.600E-07,0.096
8.700E-07,0.072
8.800E-07,-0.068
8.900E-07,-0.268
9.000E-07,-0.512
9.100E-07,-0.512
9.200E-07,-0.500
9.300E-07,-0.164
9.400E-07,0.324
9.500E-07,0.540
9.600E-07,0.500
9.700E-07,0.012
9.800E-07,-0.400
9.900E-07,-0.508
1.000E-06,-0.228
1.010E-06,0.192
1.020E-06,0.440
1.030E-06,0.344
1.040E-06,0.060
1.050E-06,-0.200
1.060E-06,-0.272
1.070E-06,-0.172
1.080E-06,-0.012
1.090E-06,0.104
1.100E-06,0.108
1.110E-06,0.040
1.120E-06,-0.024
1.130E-06,-0.072
1.140E-06,-0.080
1.150E-06,-0.044
1.160E-06,0.012
1.170E-06,0.076
1.180E-06,0.100
1.190E-06,0.072
1.200E-06,0.008
1.210E-06,-0.056
1.220E-06,-0.080
1.230E-06,-0.044
1.240E-06,0.016
1.250E-06,0.076
1.260E-06,0.096
1.270E-06,0.052
1.280E-06,-0.012
1.290E-06,-0.072
1.300E-06,-0.076
1.310E-06,-0.040
1.320E-06,0.024
1.330E-06,0.084
1.340E-06,0.104
1.350E-06,0.076
1.360E-06,0.024
1.370E-06,-0.028
1.380E-06,-0.048
1.390E-06,-0.028
1.400E-06,0.016
1.410E-06,0.080
1.420E-06,0.096
1.430E-06,0.088
1.440E-06,0.040
1.450E-06,-0.004
1.460E-06,-0.024
1.470E-06,0.000
1.480E-06,0.024
1.490E-06,0.068
1.500E-06,0.092
1.510E-06,0.104
1.520E-06,0.080
1.530E-06,0.064
1.540E-06,0.052
1.550E-06,0.060
1.560E-06,0.092
1.570E-06,0.100
1.580E-06,0.064
1.590E-06,-0.024
1.600E-06,-0.148
1.610E-06,-0.268
1.620E-06,-0.292
1.630E-06,-0.276
1.640E-06,-0.124
1.650E-06,0.060
1.660E-06,0.176
1.670E-06,0.180
1.680E-06,0.088
1.690E-06,-0.076
1.700E-06,-0.168
1.710E-06,-0.140
1.720E-06,-0.008
1.730E-06,0.128
1.740E-06,0.180
1.750E-06,0.144
1.760E-06,0.004
1.770E-06,-0.124
1.780E-06,-0.140
1.790E-06,-0.076
1.800E-06,0.060
1.810E-06,0.120
1.820E-06,0.096
1.830E-06,0.016
1.840E-06,-0.056
1.850E-06,-0.080
1.860E-06,-0.068
1.870E-06,-0.008
1.880E-06,0.044
1.890E-06,0.076
1.900E-06,0.084
1.910E-06,0.060
1.920E-06,-0.004
1.930E-06,-0.028
1.940E-06,-0.048
1.950E-06,0.000
1.960E-06,0.048
1.970E-06,0.108
1.980E-06,0.096
1.990E-06,0.064
2.000E-06,0.024
2.010E-06,-0.008
2.020E-06,0.008
2.030E-06,0.048
2.040E-06,0.108
2.050E-06,0.152
2.060E-06,0.152
2.070E-06,0.124
2.080E-06,0.084
2.090E-06,0.052
2.100E-06,0.060
2.110E-06,0.080
2.120E-06,0.108
2.130E-06,0.024
2.140E-06,-0.172
2.150E-06,-0.508
2.160E-06,-0.508
2.170E-06,-0.484
2.180E-06,-0.096
2.190E-06,0.504
2.200E-06,0.540
2.210E-06,0.540
2.220E-06,-0.060
2.230E-06,-0.488
2.240E-06,-0.512
2.250E-06,-0.304
2.260E-06,0.208
2.270E-06,0.404
2.280E-06,0.316
2.290E-06,0.028
2.300E-06,-0.180
2.310E-06,-0.272
2.320E-06,-0.248
2.330E-06,-0.080
2.340E-06,0.028
2.350E-06,0.124
2.360E-06,0.100
2.370E-06,-0.056
2.380E-06,-0.092
2.390E-06,-0.104
2.400E-06,0.012
2.410E-06,0.076
2.420E-06,0.092
2.430E-06,0.048
2.440E-06,-0.012
2.450E-06,-0.036
2.460E-06,-0.044
2.470E-06,0.000
2.480E-06,0.036
2.490E-06,0.072
2.500E-06,0.056
2.510E-06,0.032
2.520E-06,-0.036
2.530E-06,-0.064
2.540E-06,-0.056
2.550E-06,-0.012
2.560E-06,0.060
2.570E-06,0.120
2.580E-06,0.104
2.590E-06,0.064
2.600E-06,-0.020
2.610E-06,-0.056
2.620E-06,-0.064
2.630E-06,-0.004
2.640E-06,0.044
2.650E-06,0.088
2.660E-06,0.092
2.670E-06,0.044
2.680E-06,-0.004
2.690E-06,-0.052
2.700E-06,-0.040
2.710E-06,-0.020
2.720E-06,0.020
2.730E-06,0.072
2.740E-06,0.100
2.750E-06,0.100
2.760E-06,0.064
2.770E-06,0.016
2.780E-06,0.016
2.790E-06,0.060
2.800E-06,0.100
2.810E-06,0.136
2.820E-06,0.144
2.830E-06,0.120
2.840E-06,0.092
2.850E-06,0.052
2.860E-06,-0.012
2.870E-06,-0.160
2.880E-06,-0.268
2.890E-06,-0.420
2.900E-06,-0.416
2.910E-06,-0.288
2.920E-06,-0.028
2.930E-06,0.244
2.940E-06,0.308
2.950E-06,0.212
2.960E-06,-0.048
2.970E-06,-0.236
2.980E-06,-0.240
2.990E-06,-0.036
3.000E-06,0.172
3.010E-06,0.304
3.020E-06,0.240
3.030E-06,0.080
3.040E-06,-0.064
3.050E-06,-0.084
3.060E-06,-0.080
3.070E-06,-0.024
3.080E-06,-0.008
3.090E-06,-0.076
3.100E-06,-0.104
3.110E-06,-0.108
3.120E-06,-0.076
3.130E-06,-0.040
3.140E-06,0.020
3.150E-06,0.024
3.160E-06,0.040
3.170E-06,0.036
3.180E-06,0.012
3.190E-06,-0.004
3.200E-06,-0.020
3.210E-06,-0.024
3.220E-06,-0.040
3.230E-06,-0.012
3.240E-06,0.012
3.250E-06,0.068
3.260E-06,0.084
3.270E-06,0.048
3.280E-06,0.000
3.290E-06,-0.048
3.300E-06,-0.040
3.310E-06,0.012
3.320E-06,0.092
3.330E-06,0.148
3.340E-06,0.108
3.350E-06,0.044
3.360E-06,-0.068
3.370E-06,-0.104
3.380E-06,-0.072
3.390E-06,0.032
3.400E-06,0.112
3.410E-06,0.120
3.420E-06,0.036
3.430E-06,-0.064
3.440E-06,-0.108
3.450E-06,-0.088
3.460E-06,0.004
3.470E-06,0.100
3.480E-06,0.140
3.490E-06,0.128
3.500E-06,0.064
3.510E-06,0.024
3.520E-06,0.016
3.530E-06,0.044
3.540E-06,0.068
3.550E-06,0.080
3.560E-06,0.092
3.570E-06,0.088
3.580E-06,0.044
3.590E-06,-0.048
3.600E-06,-0.116
3.610E-06,-0.140
3.620E-06,-0.164
3.630E-06,-0.072
3.640E-06,0.008
3.650E-06,0.100
3.660E-06,0.104
3.670E-06,0.096
3.680E-06,0.080
3.690E-06,0.104
3.700E-06,0.132
3.710E-06,0.140
3.720E-06,0.124
3.730E-06,0.068
3.740E-06,0.024
3.750E-06,-0.008
3.760E-06,-0.004
3.770E-06,0.004
3.780E-06,0.052
3.790E-06,0.092
3.800E-06,-0.088
3.810E-06,-0.240
3.820E-06,-0.448
3.830E-06,-0.508
3.840E-06,-0.396
3.850E-06,-0.040
3.860E-06,0.268
3.870E-06,0.356
3.880E-06,0.164
3.890E-06,-0.080
3.900E-06,-0.264
3.910E-06,-0.208
3.920E-06,-0.048
3.930E-06,0.096
3.940E-06,0.152
3.950E-06,0.104
3.960E-06,0.040
3.970E-06,-0.020
3.980E-06,-0.036
3.990E-06,-0.032
4.000E-06,-0.004
4.010E-06,0.016
4.020E-06,0.032
4.030E-06,0.036
4.040E-06,0.036
4.050E-06,0.032
4.060E-06,0.020
4.070E-06,0.044
4.080E-06,0.048
4.090E-06,0.040
4.100E-06,0.016
4.110E-06,-0.008
4.120E-06,-0.036
4.130E-06,-0.028
4.140E-06,-0.012
4.150E-06,0.020
4.160E-06,0.036
4.170E-06,0.028
4.180E-06,0.016
4.190E-06,-0.004
4.200E-06,0.012
4.210E-06,0.012
4.220E-06,0.020
4.230E-06,0.008
4.240E-06,0.032
4.250E-06,0.084
4.260E-06,0.112
4.270E-06,0.128
4.280E-06,0.084
4.290E-06,0.052
4.300E-06,-0.008
4.310E-06,0.016
4.320E-06,0.052
4.330E-06,0.120
4.340E-06,0.164
4.350E-06,0.140
4.360E-06,0.120
4.370E-06,0.080
4.380E-06,0.080
4.390E-06,0.100
4.400E-06,0.144
4.410E-06,0.176
4.420E-06,0.160
4.430E-06,0.108
4.440E-06,0.040
4.450E-06,0.004
4.460E-06,0.004
4.470E-06,0.032
4.480E-06,0.080
4.490E-06,0.148
4.500E-06,0.176
4.510E-06,0.180
4.520E-06,0.160
4.530E-06,0.116
4.540E-06,-0.032
4.550E-06,-0.188
4.560E-06,-0.392
4.570E-06,-0.512
4.580E-06,-0.508
4.590E-06,-0.512
4.600E-06,-0.156
4.610E-06,0.296
4.620E-06,0.224
4.630E-06,-0.116
4.640E-06,-0.416
4.650E-06,-0.304
4.660E-06,-0.072
4.670E-06,0.292
4.680E-06,0.312
4.690E-06,0.076
4.700E-06,-0.136
4.710E-06,-0.136
4.720E-06,-0.020
4.730E-06,0.064
4.740E-06,0.120
4.750E-06,0.036
4.760E-06,0.056
4.770E-06,0.028
4.780E-06,0.088
4.790E-06,0.068
4.800E-06,0.012
4.810E-06,-0.044
4.820E-06,-0.008
4.830E-06,0.056
4.840E-06,0.132
4.850E-06,0.140
4.860E-06,0.072
4.870E-06,0.040
4.880E-06,0.000
4.890E-06,0.024
4.900E-06,0.056
4.910E-06,0.092
4.920E-06,0.080
4.930E-06,0.096
4.940E-06,0.084
4.950E-06,0.080
4.960E-06,0.076
4.970E-06,0.068
4.980E-06,0.076
4.990E-06,0.112
5.000E-06,0.152
5.010E-06,0.168
5.020E-06,0.168
5.030E-06,0.140
5.040E-06,0.116
5.050E-06,0.108
5.060E-06,0.128
5.070E-06,0.140
5.080E-06,0.144
5.090E-06,0.140
5.100E-06,0.108
5.110E-06,0.084
5.120E-06,0.028
5.130E-06,-0.004
5.140E-06,-0.096
5.150E-06,-0.148
5.160E-06,-0.228
5.170E-06,-0.208
5.180E-06,-0.116
5.190E-06,-0.020
5.200E-06,0.092
5.210E-06,0.132
5.220E-06,0.164
5.230E-06,0.116
5.240E-06,0.096
5.250E-06,0.064
5.260E-06,0.092
5.270E-06,0.076
5.280E-06,0.024
5.290E-06,0.004
5.300E-06,-0.064
5.310E-06,-0.176
5.320E-06,-0.296
5.330E-06,-0.336
5.340E-06,-0.352
5.350E-06,-0.208
5.360E-06,-0.060
5.370E-06,-0.056
5.380E-06,-0.060
5.390E-06,-0.112
5.400E-06,-0.104
5.410E-06,-0.096
5.420E-06,0.060
5.430E-06,0.140
5.440E-06,0.112
5.450E-06,0.056
5.460E-06,-0.032
5.470E-06,-0.036
5.480E-06,-0.012
5.490E-06,0.084
5.500E-06,0.180
5.510E-06,0.156
5.520E-06,0.060
5.530E-06,-0.100
5.540E-06,-0.200
5.550E-06,-0.212
5.560E-06,-0.160
5.570E-06,-0.056
5.580E-06,0.012
5.590E-06,0.028
5.600E-06,0.004
5.610E-06,-0.004
5.620E-06,-0.012
5.630E-06,0.008
5.640E-06,0.032
5.650E-06,0.040
5.660E-06,0.056
5.670E-06,0.064
5.680E-06,0.068
5.690E-06,0.068
5.700E-06,0.072
5.710E-06,0.068
5.720E-06,0.060
5.730E-06,0.052
5.740E-06,0.056
5.750E-06,0.044
5.760E-06,0.064
5.770E-06,0.092
5.780E-06,0.112
5.790E-06,0.140
5.800E-06,0.148
5.810E-06,0.144
5.820E-06,0.140
5.830E-06,0.144
5.840E-06,0.144
5.850E-06,0.148
5.860E-06,0.148
5.870E-06,0.148
5.880E-06,0.148
5.890E-06,0.148
5.900E-06,0.148
5.910E-06,0.140
5.920E-06,0.140
5.930E-06,0.136
5.940E-06,0.148
5.950E-06,0.148
5.960E-06,0.140
5.970E-06,0.148
5.980E-06,0.128
5.990E-06,0.132
6.000E-06,0.088
6.010E-06,0.040
6.020E-06,0.028
6.030E-06,0.072
6.040E-06,0.136
6.050E-06,0.204
6.060E-06,0.252
6.070E-06,0.216
6.080E-06,0.140
6.090E-06,0.060
6.100E-06,0.036
6.110E-06,0.068
6.120E-06,0.144
6.130E-06,0.200
6.140E-06,0.192
6.150E-06,0.128
6.160E-06,0.064
6.170E-06,0.036
6.180E-06,0.040
6.190E-06,0.052
6.200E-06,0.056
