mediciones/Mediciones filtradas (saque las feas)/5-27/-37.5/WaveData5144.csv

#timebase=2000000(ps)
,#voltbase=100000(mv/100)
#size=4000
-5.650E-06,-0.004
-5.640E-06,0.000
-5.630E-06,0.004
-5.620E-06,0.000
-5.610E-06,-0.004
-5.600E-06,0.004
-5.590E-06,0.000
-5.580E-06,0.004
-5.570E-06,0.004
-5.560E-06,0.004
-5.550E-06,0.000
-5.540E-06,0.000
-5.530E-06,0.000
-5.520E-06,0.004
-5.510E-06,0.004
-5.500E-06,0.004
-5.490E-06,0.008
-5.480E-06,0.000
-5.470E-06,0.000
-5.460E-06,0.004
-5.450E-06,0.004
-5.440E-06,0.004
-5.430E-06,0.000
-5.420E-06,0.000
-5.410E-06,0.004
-5.400E-06,-0.004
-5.390E-06,0.000
-5.380E-06,0.004
-5.370E-06,0.000
-5.360E-06,0.000
-5.350E-06,0.004
-5.340E-06,0.008
-5.330E-06,0.000
-5.320E-06,0.000
-5.310E-06,0.004
-5.300E-06,0.004
-5.290E-06,0.004
-5.280E-06,0.004
-5.270E-06,0.004
-5.260E-06,0.004
-5.250E-06,0.000
-5.240E-06,0.000
-5.230E-06,0.004
-5.220E-06,0.004
-5.210E-06,0.000
-5.200E-06,0.000
-5.190E-06,0.004
-5.180E-06,0.004
-5.170E-06,0.000
-5.160E-06,0.008
-5.150E-06,-0.004
-5.140E-06,0.000
-5.130E-06,0.004
-5.120E-06,-0.004
-5.110E-06,0.004
-5.100E-06,0.008
-5.090E-06,0.000
-5.080E-06,0.000
-5.070E-06,0.004
-5.060E-06,0.000
-5.050E-06,0.000
-5.040E-06,0.000
-5.030E-06,0.000
-5.020E-06,0.008
-5.010E-06,0.004
-5.000E-06,0.004
-4.990E-06,0.000
-4.980E-06,-0.004
-4.970E-06,0.000
-4.960E-06,0.000
-4.950E-06,0.000
-4.940E-06,0.004
-4.930E-06,0.004
-4.920E-06,0.004
-4.910E-06,0.004
-4.900E-06,0.004
-4.890E-06,0.004
-4.880E-06,0.004
-4.870E-06,0.004
-4.860E-06,0.004
-4.850E-06,0.004
-4.840E-06,0.004
-4.830E-06,0.008
-4.820E-06,0.008
-4.810E-06,0.004
-4.800E-06,-0.004
-4.790E-06,0.000
-4.780E-06,0.000
-4.770E-06,0.004
-4.760E-06,0.008
-4.750E-06,0.004
-4.740E-06,0.008
-4.730E-06,0.008
-4.720E-06,0.000
-4.710E-06,0.004
-4.700E-06,0.000
-4.690E-06,0.004
-4.680E-06,0.000
-4.670E-06,0.004
-4.660E-06,0.004
-4.650E-06,0.004
-4.640E-06,0.000
-4.630E-06,0.000
-4.620E-06,0.000
-4.610E-06,0.000
-4.600E-06,0.000
-4.590E-06,0.004
-4.580E-06,0.004
-4.570E-06,0.012
-4.560E-06,0.008
-4.550E-06,0.004
-4.540E-06,0.004
-4.530E-06,0.000
-4.520E-06,0.004
-4.510E-06,0.004
-4.500E-06,0.004
-4.490E-06,0.004
-4.480E-06,0.000
-4.470E-06,0.000
-4.460E-06,0.000
-4.450E-06,0.000
-4.440E-06,0.000
-4.430E-06,0.004
-4.420E-06,0.004
-4.410E-06,0.004
-4.400E-06,0.008
-4.390E-06,-0.004
-4.380E-06,-0.004
-4.370E-06,0.004
-4.360E-06,0.004
-4.350E-06,0.008
-4.340E-06,0.004
-4.330E-06,0.004
-4.320E-06,0.004
-4.310E-06,0.000
-4.300E-06,0.000
-4.290E-06,0.004
-4.280E-06,0.008
-4.270E-06,0.004
-4.260E-06,0.000
-4.250E-06,0.000
-4.240E-06,0.000
-4.230E-06,0.004
-4.220E-06,0.004
-4.210E-06,0.004
-4.200E-06,0.008
-4.190E-06,-0.004
-4.180E-06,-0.004
-4.170E-06,0.008
-4.160E-06,0.008
-4.150E-06,0.008
-4.140E-06,0.000
-4.130E-06,0.000
-4.120E-06,0.004
-4.110E-06,0.004
-4.100E-06,0.004
-4.090E-06,0.004
-4.080E-06,0.000
-4.070E-06,0.004
-4.060E-06,0.004
-4.050E-06,0.004
-4.040E-06,0.000
-4.030E-06,0.004
-4.020E-06,0.004
-4.010E-06,0.004
-4.000E-06,0.000
-3.990E-06,0.004
-3.980E-06,0.004
-3.970E-06,0.004
-3.960E-06,0.004
-3.950E-06,0.000
-3.940E-06,0.000
-3.930E-06,0.000
-3.920E-06,0.004
-3.910E-06,0.008
-3.900E-06,0.000
-3.890E-06,0.004
-3.880E-06,-0.004
-3.870E-06,-0.004
-3.860E-06,0.000
-3.850E-06,-0.004
-3.840E-06,0.004
-3.830E-06,0.004
-3.820E-06,0.004
-3.810E-06,0.004
-3.800E-06,0.000
-3.790E-06,0.004
-3.780E-06,0.012
-3.770E-06,0.004
-3.760E-06,0.000
-3.750E-06,0.004
-3.740E-06,0.000
-3.730E-06,0.000
-3.720E-06,0.004
-3.710E-06,0.000
-3.700E-06,0.000
-3.690E-06,0.000
-3.680E-06,0.000
-3.670E-06,0.004
-3.660E-06,0.000
-3.650E-06,0.004
-3.640E-06,0.008
-3.630E-06,0.000
-3.620E-06,0.000
-3.610E-06,-0.004
-3.600E-06,0.000
-3.590E-06,0.000
-3.580E-06,0.004
-3.570E-06,0.008
-3.560E-06,0.012
-3.550E-06,0.000
-3.540E-06,0.000
-3.530E-06,0.004
-3.520E-06,0.004
-3.510E-06,0.000
-3.500E-06,0.000
-3.490E-06,0.000
-3.480E-06,0.000
-3.470E-06,0.004
-3.460E-06,0.004
-3.450E-06,0.000
-3.440E-06,0.004
-3.430E-06,0.008
-3.420E-06,-0.004
-3.410E-06,0.004
-3.400E-06,0.000
-3.390E-06,0.000
-3.380E-06,0.004
-3.370E-06,0.004
-3.360E-06,0.000
-3.350E-06,0.008
-3.340E-06,0.000
-3.330E-06,0.004
-3.320E-06,0.008
-3.310E-06,0.004
-3.300E-06,0.004
-3.290E-06,-0.004
-3.280E-06,0.000
-3.270E-06,0.000
-3.260E-06,0.000
-3.250E-06,0.004
-3.240E-06,0.004
-3.230E-06,0.000
-3.220E-06,0.004
-3.210E-06,0.000
-3.200E-06,0.004
-3.190E-06,0.000
-3.180E-06,0.000
-3.170E-06,-0.004
-3.160E-06,0.004
-3.150E-06,0.004
-3.140E-06,0.004
-3.130E-06,0.008
-3.120E-06,0.004
-3.110E-06,0.000
-3.100E-06,0.000
-3.090E-06,0.004
-3.080E-06,0.000
-3.070E-06,0.008
-3.060E-06,0.008
-3.050E-06,0.004
-3.040E-06,-0.004
-3.030E-06,0.000
-3.020E-06,0.004
-3.010E-06,0.000
-3.000E-06,0.004
-2.990E-06,0.000
-2.980E-06,-0.004
-2.970E-06,0.000
-2.960E-06,0.000
-2.950E-06,0.004
-2.940E-06,0.004
-2.930E-06,0.004
-2.920E-06,0.008
-2.910E-06,0.004
-2.900E-06,0.008
-2.890E-06,0.004
-2.880E-06,0.000
-2.870E-06,0.000
-2.860E-06,0.004
-2.850E-06,0.004
-2.840E-06,0.004
-2.830E-06,0.004
-2.820E-06,0.004
-2.810E-06,0.004
-2.800E-06,0.004
-2.790E-06,0.008
-2.780E-06,0.000
-2.770E-06,0.000
-2.760E-06,0.004
-2.750E-06,0.004
-2.740E-06,0.004
-2.730E-06,0.004
-2.720E-06,0.004
-2.710E-06,0.004
-2.700E-06,0.004
-2.690E-06,0.004
-2.680E-06,0.004
-2.670E-06,0.000
-2.660E-06,0.004
-2.650E-06,0.008
-2.640E-06,0.004
-2.630E-06,0.000
-2.620E-06,0.000
-2.610E-06,0.000
-2.600E-06,0.008
-2.590E-06,0.008
-2.580E-06,0.008
-2.570E-06,0.000
-2.560E-06,0.000
-2.550E-06,0.004
-2.540E-06,0.008
-2.530E-06,0.000
-2.520E-06,0.004
-2.510E-06,0.008
-2.500E-06,0.004
-2.490E-06,0.008
-2.480E-06,0.008
-2.470E-06,0.004
-2.460E-06,0.008
-2.450E-06,0.000
-2.440E-06,0.004
-2.430E-06,0.004
-2.420E-06,0.012
-2.410E-06,0.004
-2.400E-06,0.000
-2.390E-06,0.004
-2.380E-06,0.000
-2.370E-06,0.008
-2.360E-06,0.012
-2.350E-06,0.012
-2.340E-06,0.004
-2.330E-06,0.000
-2.320E-06,0.000
-2.310E-06,0.008
-2.300E-06,0.004
-2.290E-06,0.012
-2.280E-06,0.012
-2.270E-06,0.004
-2.260E-06,0.004
-2.250E-06,0.004
-2.240E-06,0.008
-2.230E-06,0.008
-2.220E-06,0.016
-2.210E-06,0.016
-2.200E-06,-0.004
-2.190E-06,-0.008
-2.180E-06,-0.016
-2.170E-06,-0.008
-2.160E-06,0.000
-2.150E-06,0.024
-2.140E-06,0.032
-2.130E-06,0.024
-2.120E-06,0.000
-2.110E-06,-0.028
-2.100E-06,-0.028
-2.090E-06,-0.016
-2.080E-06,0.000
-2.070E-06,0.012
-2.060E-06,0.016
-2.050E-06,0.012
-2.040E-06,-0.004
-2.030E-06,-0.012
-2.020E-06,-0.016
-2.010E-06,-0.008
-2.000E-06,0.008
-1.990E-06,0.012
-1.980E-06,0.008
-1.970E-06,0.004
-1.960E-06,-0.008
-1.950E-06,0.000
-1.940E-06,0.000
-1.930E-06,0.008
-1.920E-06,0.008
-1.910E-06,0.008
-1.900E-06,0.000
-1.890E-06,0.000
-1.880E-06,0.004
-1.870E-06,0.000
-1.860E-06,0.008
-1.850E-06,0.008
-1.840E-06,0.000
-1.830E-06,-0.004
-1.820E-06,0.000
-1.810E-06,-0.004
-1.800E-06,0.004
-1.790E-06,0.012
-1.780E-06,0.012
-1.770E-06,0.004
-1.760E-06,0.004
-1.750E-06,0.000
-1.740E-06,0.000
-1.730E-06,0.004
-1.720E-06,0.012
-1.710E-06,0.012
-1.700E-06,0.004
-1.690E-06,0.004
-1.680E-06,0.008
-1.670E-06,0.012
-1.660E-06,0.012
-1.650E-06,0.016
-1.640E-06,0.020
-1.630E-06,0.024
-1.620E-06,0.020
-1.610E-06,0.012
-1.600E-06,0.012
-1.590E-06,0.000
-1.580E-06,-0.020
-1.570E-06,-0.028
-1.560E-06,-0.036
-1.550E-06,-0.020
-1.540E-06,0.008
-1.530E-06,0.028
-1.520E-06,0.036
-1.510E-06,0.028
-1.500E-06,0.004
-1.490E-06,-0.012
-1.480E-06,-0.016
-1.470E-06,-0.008
-1.460E-06,0.008
-1.450E-06,0.012
-1.440E-06,0.008
-1.430E-06,0.004
-1.420E-06,-0.008
-1.410E-06,0.000
-1.400E-06,-0.004
-1.390E-06,0.008
-1.380E-06,0.008
-1.370E-06,0.012
-1.360E-06,0.008
-1.350E-06,0.008
-1.340E-06,0.004
-1.330E-06,0.004
-1.320E-06,0.004
-1.310E-06,0.004
-1.300E-06,0.008
-1.290E-06,0.012
-1.280E-06,0.004
-1.270E-06,0.008
-1.260E-06,0.012
-1.250E-06,0.008
-1.240E-06,0.008
-1.230E-06,0.000
-1.220E-06,0.004
-1.210E-06,0.000
-1.200E-06,0.008
-1.190E-06,0.004
-1.180E-06,0.004
-1.170E-06,0.004
-1.160E-06,0.004
-1.150E-06,-0.004
-1.140E-06,0.000
-1.130E-06,0.008
-1.120E-06,0.012
-1.110E-06,0.012
-1.100E-06,0.012
-1.090E-06,0.012
-1.080E-06,0.012
-1.070E-06,0.008
-1.060E-06,0.008
-1.050E-06,0.008
-1.040E-06,0.004
-1.030E-06,0.008
-1.020E-06,0.004
-1.010E-06,0.012
-1.000E-06,0.012
-9.900E-07,0.016
-9.800E-07,0.012
-9.700E-07,0.004
-9.600E-07,0.000
-9.500E-07,0.000
-9.400E-07,0.008
-9.300E-07,0.012
-9.200E-07,0.012
-9.100E-07,0.012
-9.000E-07,0.008
-8.900E-07,0.008
-8.800E-07,0.008
-8.700E-07,0.008
-8.600E-07,0.012
-8.500E-07,0.012
-8.400E-07,0.008
-8.300E-07,0.000
-8.200E-07,0.000
-8.100E-07,0.008
-8.000E-07,0.004
-7.900E-07,0.008
-7.800E-07,0.016
-7.700E-07,0.012
-7.600E-07,0.008
-7.500E-07,0.016
-7.400E-07,0.024
-7.300E-07,0.020
-7.200E-07,0.020
-7.100E-07,0.016
-7.000E-07,0.024
-6.900E-07,0.028
-6.800E-07,0.024
-6.700E-07,0.020
-6.600E-07,0.024
-6.500E-07,0.024
-6.400E-07,0.024
-6.300E-07,0.024
-6.200E-07,0.016
-6.100E-07,0.012
-6.000E-07,0.012
-5.900E-07,0.016
-5.800E-07,0.028
-5.700E-07,0.024
-5.600E-07,0.020
-5.500E-07,0.016
-5.400E-07,0.008
-5.300E-07,0.012
-5.200E-07,0.016
-5.100E-07,0.028
-5.000E-07,0.028
-4.900E-07,0.036
-4.800E-07,0.028
-4.700E-07,0.024
-4.600E-07,0.024
-4.500E-07,0.024
-4.400E-07,0.028
-4.300E-07,0.032
-4.200E-07,0.040
-4.100E-07,0.044
-4.000E-07,0.044
-3.900E-07,0.044
-3.800E-07,0.040
-3.700E-07,0.036
-3.600E-07,0.036
-3.500E-07,0.032
-3.400E-07,0.056
-3.300E-07,0.080
-3.200E-07,0.104
-3.100E-07,0.104
-3.000E-07,0.108
-2.900E-07,0.092
-2.800E-07,0.088
-2.700E-07,0.076
-2.600E-07,0.060
-2.500E-07,0.056
-2.400E-07,0.048
-2.300E-07,0.028
-2.200E-07,0.020
-2.100E-07,0.008
-2.000E-07,-0.008
-1.900E-07,-0.016
-1.800E-07,0.028
-1.700E-07,0.048
-1.600E-07,0.072
-1.500E-07,0.096
-1.400E-07,0.088
-1.300E-07,0.076
-1.200E-07,0.048
-1.100E-07,0.048
-1.000E-07,0.024
-9.000E-08,0.028
-8.000E-08,-0.032
-7.000E-08,-0.132
-6.000E-08,-0.296
-5.000E-08,-0.404
-4.000E-08,-0.448
-3.000E-08,-0.304
-2.000E-08,-0.052
-1.000E-08,0.188
0.000E+00,0.304
1.000E-08,0.264
2.000E-08,0.124
3.000E-08,-0.068
4.000E-08,-0.204
5.000E-08,-0.224
6.000E-08,-0.124
7.000E-08,0.004
8.000E-08,0.128
9.000E-08,0.192
1.000E-07,0.192
1.100E-07,0.124
1.200E-07,0.020
1.300E-07,-0.052
1.400E-07,-0.060
1.500E-07,-0.040
1.600E-07,0.040
1.700E-07,0.060
1.800E-07,0.040
1.900E-07,-0.016
2.000E-07,-0.028
2.100E-07,-0.044
2.200E-07,0.024
2.300E-07,0.100
2.400E-07,0.124
2.500E-07,0.096
2.600E-07,0.012
2.700E-07,-0.064
2.800E-07,-0.108
2.900E-07,-0.096
3.000E-07,-0.056
3.100E-07,0.000
3.200E-07,0.028
3.300E-07,0.028
3.400E-07,0.000
3.500E-07,-0.004
3.600E-07,-0.004
3.700E-07,0.028
3.800E-07,0.064
3.900E-07,0.088
4.000E-07,0.104
4.100E-07,0.108
4.200E-07,0.096
4.300E-07,0.092
4.400E-07,0.092
4.500E-07,0.096
4.600E-07,0.104
4.700E-07,0.104
4.800E-07,0.108
4.900E-07,0.108
5.000E-07,0.100
5.100E-07,0.096
5.200E-07,0.108
5.300E-07,0.108
5.400E-07,0.124
5.500E-07,0.108
5.600E-07,0.100
5.700E-07,0.096
5.800E-07,0.080
5.900E-07,0.080
6.000E-07,0.064
6.100E-07,0.064
6.200E-07,0.064
6.300E-07,0.056
6.400E-07,0.056
6.500E-07,0.068
6.600E-07,0.080
6.700E-07,0.076
6.800E-07,0.092
6.900E-07,0.100
7.000E-07,0.096
7.100E-07,0.124
7.200E-07,0.132
7.300E-07,0.076
7.400E-07,0.004
7.500E-07,-0.136
7.600E-07,-0.264
7.700E-07,-0.344
7.800E-07,-0.344
7.900E-07,-0.268
8.000E-07,-0.160
8.100E-07,-0.128
8.200E-07,-0.072
8.300E-07,-0.172
8.400E-07,-0.260
8.500E-07,-0.292
8.600E-07,-0.188
8.700E-07,-0.084
8.800E-07,-0.004
8.900E-07,0.048
9.000E-07,0.024
9.100E-07,-0.032
9.200E-07,-0.036
9.300E-07,-0.052
9.400E-07,-0.004
9.500E-07,0.032
9.600E-07,0.032
9.700E-07,0.008
9.800E-07,-0.044
9.900E-07,-0.044
1.000E-06,-0.028
1.010E-06,0.008
1.020E-06,0.020
1.030E-06,0.012
1.040E-06,0.008
1.050E-06,-0.020
1.060E-06,-0.044
1.070E-06,-0.052
1.080E-06,-0.036
1.090E-06,-0.008
1.100E-06,0.004
1.110E-06,0.004
1.120E-06,0.012
1.130E-06,0.008
1.140E-06,0.012
1.150E-06,0.012
1.160E-06,0.004
1.170E-06,0.024
1.180E-06,0.032
1.190E-06,0.056
1.200E-06,0.068
1.210E-06,0.072
1.220E-06,0.080
1.230E-06,0.080
1.240E-06,0.072
1.250E-06,0.084
1.260E-06,0.092
1.270E-06,0.124
1.280E-06,0.140
1.290E-06,0.156
1.300E-06,0.164
1.310E-06,0.160
1.320E-06,0.156
1.330E-06,0.148
1.340E-06,0.148
1.350E-06,0.160
1.360E-06,0.160
1.370E-06,0.160
1.380E-06,0.164
1.390E-06,0.164
1.400E-06,0.160
1.410E-06,0.164
1.420E-06,0.164
1.430E-06,0.168
1.440E-06,0.156
1.450E-06,0.164
1.460E-06,0.152
1.470E-06,0.152
1.480E-06,0.160
1.490E-06,0.168
1.500E-06,0.168
1.510E-06,0.164
1.520E-06,0.144
1.530E-06,0.132
1.540E-06,0.128
1.550E-06,0.140
1.560E-06,0.144
1.570E-06,0.140
1.580E-06,0.092
1.590E-06,0.056
1.600E-06,0.052
1.610E-06,0.096
1.620E-06,0.180
1.630E-06,0.220
1.640E-06,0.208
1.650E-06,0.136
1.660E-06,0.052
1.670E-06,0.012
1.680E-06,0.060
1.690E-06,0.156
1.700E-06,0.248
1.710E-06,0.264
1.720E-06,0.188
1.730E-06,0.092
1.740E-06,0.024
1.750E-06,0.028
1.760E-06,0.088
1.770E-06,0.156
1.780E-06,0.196
1.790E-06,0.200
1.800E-06,0.148
1.810E-06,0.088
1.820E-06,0.036
1.830E-06,0.004
1.840E-06,0.020
1.850E-06,0.056
1.860E-06,0.092
1.870E-06,0.080
1.880E-06,0.012
1.890E-06,-0.088
1.900E-06,-0.168
1.910E-06,-0.184
1.920E-06,-0.108
1.930E-06,0.060
1.940E-06,0.248
1.950E-06,0.324
1.960E-06,0.248
1.970E-06,0.096
1.980E-06,-0.040
1.990E-06,-0.104
2.000E-06,-0.068
2.010E-06,0.060
2.020E-06,0.188
2.030E-06,0.244
2.040E-06,0.196
2.050E-06,0.092
2.060E-06,0.004
2.070E-06,-0.024
2.080E-06,0.024
2.090E-06,0.096
2.100E-06,0.176
2.110E-06,0.192
2.120E-06,0.160
2.130E-06,0.100
2.140E-06,0.060
2.150E-06,0.060
2.160E-06,0.100
2.170E-06,0.156
2.180E-06,0.200
2.190E-06,0.216
2.200E-06,0.200
2.210E-06,0.164
2.220E-06,0.132
2.230E-06,0.124
2.240E-06,0.132
2.250E-06,0.156
2.260E-06,0.176
2.270E-06,0.184
2.280E-06,0.180
2.290E-06,0.156
2.300E-06,0.144
2.310E-06,0.136
2.320E-06,0.144
2.330E-06,0.152
2.340E-06,0.164
2.350E-06,0.176
2.360E-06,0.168
2.370E-06,0.160
2.380E-06,0.148
2.390E-06,0.144
2.400E-06,0.148
2.410E-06,0.152
2.420E-06,0.160
2.430E-06,0.172
2.440E-06,0.172
2.450E-06,0.156
2.460E-06,0.148
2.470E-06,0.144
2.480E-06,0.140
2.490E-06,0.152
2.500E-06,0.160
2.510E-06,0.168
2.520E-06,0.164
2.530E-06,0.156
2.540E-06,0.156
2.550E-06,0.156
2.560E-06,0.152
2.570E-06,0.156
2.580E-06,0.152
2.590E-06,0.156
2.600E-06,0.160
2.610E-06,0.152
2.620E-06,0.156
2.630E-06,0.148
2.640E-06,0.144
2.650E-06,0.148
2.660E-06,0.152
2.670E-06,0.156
2.680E-06,0.160
2.690E-06,0.156
2.700E-06,0.148
2.710E-06,0.148
2.720E-06,0.144
2.730E-06,0.144
2.740E-06,0.148
2.750E-06,0.148
2.760E-06,0.148
2.770E-06,0.152
2.780E-06,0.152
2.790E-06,0.144
2.800E-06,0.140
2.810E-06,0.140
2.820E-06,0.144
2.830E-06,0.152
2.840E-06,0.152
2.850E-06,0.152
2.860E-06,0.148
2.870E-06,0.140
2.880E-06,0.140
2.890E-06,0.140
2.900E-06,0.144
2.910E-06,0.144
2.920E-06,0.140
2.930E-06,0.148
2.940E-06,0.148
2.950E-06,0.136
2.960E-06,0.136
2.970E-06,0.140
2.980E-06,0.136
2.990E-06,0.136
3.000E-06,0.140
3.010E-06,0.144
3.020E-06,0.136
3.030E-06,0.136
3.040E-06,0.140
3.050E-06,0.140
3.060E-06,0.140
3.070E-06,0.140
3.080E-06,0.148
3.090E-06,0.140
3.100E-06,0.144
3.110E-06,0.140
3.120E-06,0.140
3.130E-06,0.140
3.140E-06,0.144
3.150E-06,0.136
3.160E-06,0.140
3.170E-06,0.136
3.180E-06,0.140
3.190E-06,0.144
3.200E-06,0.136
3.210E-06,0.136
3.220E-06,0.140
3.230E-06,0.140
3.240E-06,0.132
3.250E-06,0.132
3.260E-06,0.132
3.270E-06,0.140
3.280E-06,0.140
3.290E-06,0.140
3.300E-06,0.136
3.310E-06,0.132
3.320E-06,0.132
3.330E-06,0.128
3.340E-06,0.132
3.350E-06,0.128
3.360E-06,0.132
3.370E-06,0.132
3.380E-06,0.128
3.390E-06,0.128
3.400E-06,0.128
3.410E-06,0.128
3.420E-06,0.128
3.430E-06,0.132
3.440E-06,0.136
3.450E-06,0.136
3.460E-06,0.136
3.470E-06,0.136
3.480E-06,0.132
3.490E-06,0.132
3.500E-06,0.128
3.510E-06,0.132
3.520E-06,0.132
3.530E-06,0.132
3.540E-06,0.132
3.550E-06,0.132
3.560E-06,0.132
3.570E-06,0.128
3.580E-06,0.132
3.590E-06,0.128
3.600E-06,0.128
3.610E-06,0.124
3.620E-06,0.128
3.630E-06,0.132
3.640E-06,0.128
3.650E-06,0.128
3.660E-06,0.124
3.670E-06,0.120
3.680E-06,0.128
3.690E-06,0.124
3.700E-06,0.124
3.710E-06,0.124
3.720E-06,0.124
3.730E-06,0.124
3.740E-06,0.124
3.750E-06,0.124
3.760E-06,0.124
3.770E-06,0.132
3.780E-06,0.128
3.790E-06,0.128
3.800E-06,0.124
3.810E-06,0.128
3.820E-06,0.120
3.830E-06,0.120
3.840E-06,0.120
3.850E-06,0.116
3.860E-06,0.116
3.870E-06,0.116
3.880E-06,0.116
3.890E-06,0.120
3.900E-06,0.112
3.910E-06,0.108
3.920E-06,0.108
3.930E-06,0.112
3.940E-06,0.108
3.950E-06,0.116
3.960E-06,0.116
3.970E-06,0.124
3.980E-06,0.124
3.990E-06,0.124
4.000E-06,0.128
4.010E-06,0.128
4.020E-06,0.128
4.030E-06,0.128
4.040E-06,0.124
4.050E-06,0.108
4.060E-06,0.112
4.070E-06,0.116
4.080E-06,0.120
4.090E-06,0.124
4.100E-06,0.124
4.110E-06,0.124
4.120E-06,0.120
4.130E-06,0.116
4.140E-06,0.112
4.150E-06,0.112
4.160E-06,0.108
4.170E-06,0.112
4.180E-06,0.116
4.190E-06,0.120
4.200E-06,0.116
4.210E-06,0.116
4.220E-06,0.112
4.230E-06,0.112
4.240E-06,0.112
4.250E-06,0.108
4.260E-06,0.112
4.270E-06,0.112
4.280E-06,0.112
4.290E-06,0.112
4.300E-06,0.108
4.310E-06,0.104
4.320E-06,0.104
4.330E-06,0.100
4.340E-06,0.096
4.350E-06,0.100
4.360E-06,0.104
4.370E-06,0.104
4.380E-06,0.096
4.390E-06,0.092
4.400E-06,0.092
4.410E-06,0.096
4.420E-06,0.096
4.430E-06,0.100
4.440E-06,0.100
4.450E-06,0.100
4.460E-06,0.100
4.470E-06,0.100
4.480E-06,0.096
4.490E-06,0.096
4.500E-06,0.100
4.510E-06,0.096
4.520E-06,0.104
4.530E-06,0.096
4.540E-06,0.096
4.550E-06,0.096
4.560E-06,0.100
4.570E-06,0.096
4.580E-06,0.096
4.590E-06,0.096
4.600E-06,0.096
4.610E-06,0.092
4.620E-06,0.092
4.630E-06,0.092
4.640E-06,0.096
4.650E-06,0.092
4.660E-06,0.096
4.670E-06,0.092
4.680E-06,0.092
4.690E-06,0.092
4.700E-06,0.092
4.710E-06,0.096
4.720E-06,0.096
4.730E-06,0.096
4.740E-06,0.096
4.750E-06,0.096
4.760E-06,0.096
4.770E-06,0.096
4.780E-06,0.092
4.790E-06,0.092
4.800E-06,0.092
4.810E-06,0.088
4.820E-06,0.092
4.830E-06,0.092
4.840E-06,0.092
4.850E-06,0.092
4.860E-06,0.092
4.870E-06,0.088
4.880E-06,0.092
4.890E-06,0.092
4.900E-06,0.092
4.910E-06,0.092
4.920E-06,0.092
4.930E-06,0.088
4.940E-06,0.088
4.950E-06,0.088
4.960E-06,0.092
4.970E-06,0.088
4.980E-06,0.092
4.990E-06,0.088
5.000E-06,0.088
5.010E-06,0.088
5.020E-06,0.088
5.030E-06,0.084
5.040E-06,0.084
5.050E-06,0.080
5.060E-06,0.076
5.070E-06,0.084
5.080E-06,0.084
5.090E-06,0.092
5.100E-06,0.084
5.110E-06,0.080
5.120E-06,0.088
5.130E-06,0.084
5.140E-06,0.080
5.150E-06,0.076
5.160E-06,0.084
5.170E-06,0.080
5.180E-06,0.088
5.190E-06,0.088
5.200E-06,0.076
5.210E-06,0.076
5.220E-06,0.072
5.230E-06,0.076
5.240E-06,0.076
5.250E-06,0.076
5.260E-06,0.080
5.270E-06,0.080
5.280E-06,0.076
5.290E-06,0.076
5.300E-06,0.080
5.310E-06,0.072
5.320E-06,0.076
5.330E-06,0.076
5.340E-06,0.076
5.350E-06,0.076
5.360E-06,0.076
5.370E-06,0.072
5.380E-06,0.072
5.390E-06,0.076
5.400E-06,0.076
5.410E-06,0.072
5.420E-06,0.072
5.430E-06,0.076
5.440E-06,0.072
5.450E-06,0.072
5.460E-06,0.068
5.470E-06,0.076
5.480E-06,0.072
5.490E-06,0.068
5.500E-06,0.068
5.510E-06,0.072
5.520E-06,0.072
5.530E-06,0.072
5.540E-06,0.068
5.550E-06,0.072
5.560E-06,0.072
5.570E-06,0.068
5.580E-06,0.072
5.590E-06,0.064
5.600E-06,0.064
5.610E-06,0.064
5.620E-06,0.072
5.630E-06,0.068
5.640E-06,0.064
5.650E-06,0.064
5.660E-06,0.068
5.670E-06,0.068
5.680E-06,0.060
5.690E-06,0.064
5.700E-06,0.064
5.710E-06,0.060
5.720E-06,0.060
5.730E-06,0.060
5.740E-06,0.064
5.750E-06,0.064
5.760E-06,0.060
5.770E-06,0.064
5.780E-06,0.060
5.790E-06,0.060
5.800E-06,0.060
5.810E-06,0.060
5.820E-06,0.064
5.830E-06,0.060
5.840E-06,0.056
5.850E-06,0.064
5.860E-06,0.060
5.870E-06,0.060
5.880E-06,0.056
5.890E-06,0.060
5.900E-06,0.064
5.910E-06,0.056
5.920E-06,0.056
5.930E-06,0.060
5.940E-06,0.060
5.950E-06,0.056
5.960E-06,0.056
5.970E-06,0.056
5.980E-06,0.060
5.990E-06,0.060
6.000E-06,0.056
6.010E-06,0.056
6.020E-06,0.060
6.030E-06,0.056
6.040E-06,0.056
6.050E-06,0.052
6.060E-06,0.052
6.070E-06,0.048
6.080E-06,0.044
6.090E-06,0.052
6.100E-06,0.052
6.110E-06,0.048
6.120E-06,0.048
6.130E-06,0.040
6.140E-06,0.044
6.150E-06,0.048
6.160E-06,0.044
6.170E-06,0.048
6.180E-06,0.044
6.190E-06,0.052
6.200E-06,0.044
6.210E-06,0.044
6.220E-06,0.040
6.230E-06,0.044
6.240E-06,0.048
6.250E-06,0.044
6.260E-06,0.048
6.270E-06,0.044
6.280E-06,0.048
6.290E-06,0.044
6.300E-06,0.044
6.310E-06,0.044
6.320E-06,0.044
6.330E-06,0.040
6.340E-06,0.044
6.350E-06,0.048
6.360E-06,0.040
6.370E-06,0.044
6.380E-06,0.044
