mediciones/Mediciones filtradas (saque las feas)/5-27/-37.5/WaveData5114.csv

#timebase=2000000(ps)
,#voltbase=100000(mv/100)
#size=4000
-5.650E-06,0.024
-5.640E-06,0.016
-5.630E-06,0.020
-5.620E-06,0.032
-5.610E-06,0.036
-5.600E-06,0.024
-5.590E-06,0.016
-5.580E-06,0.016
-5.570E-06,0.016
-5.560E-06,0.024
-5.550E-06,0.020
-5.540E-06,0.008
-5.530E-06,-0.036
-5.520E-06,-0.052
-5.510E-06,-0.036
-5.500E-06,-0.040
-5.490E-06,0.020
-5.480E-06,0.036
-5.470E-06,0.036
-5.460E-06,0.028
-5.450E-06,-0.016
-5.440E-06,-0.008
-5.430E-06,-0.052
-5.420E-06,-0.088
-5.410E-06,-0.076
-5.400E-06,-0.056
-5.390E-06,0.020
-5.380E-06,0.052
-5.370E-06,0.072
-5.360E-06,0.036
-5.350E-06,-0.020
-5.340E-06,-0.056
-5.330E-06,-0.040
-5.320E-06,0.016
-5.310E-06,0.060
-5.300E-06,0.056
-5.290E-06,0.004
-5.280E-06,-0.056
-5.270E-06,-0.068
-5.260E-06,-0.060
-5.250E-06,0.004
-5.240E-06,0.052
-5.230E-06,0.056
-5.220E-06,0.016
-5.210E-06,-0.032
-5.200E-06,-0.052
-5.190E-06,-0.040
-5.180E-06,0.008
-5.170E-06,0.044
-5.160E-06,0.044
-5.150E-06,0.012
-5.140E-06,-0.020
-5.130E-06,-0.028
-5.120E-06,-0.004
-5.110E-06,0.008
-5.100E-06,0.024
-5.090E-06,0.016
-5.080E-06,0.004
-5.070E-06,-0.008
-5.060E-06,-0.008
-5.050E-06,0.016
-5.040E-06,0.024
-5.030E-06,0.032
-5.020E-06,0.024
-5.010E-06,0.024
-5.000E-06,0.036
-4.990E-06,0.040
-4.980E-06,0.024
-4.970E-06,0.008
-4.960E-06,-0.020
-4.950E-06,-0.048
-4.940E-06,-0.048
-4.930E-06,-0.012
-4.920E-06,0.020
-4.910E-06,0.032
-4.900E-06,0.036
-4.890E-06,0.020
-4.880E-06,0.004
-4.870E-06,0.004
-4.860E-06,0.020
-4.850E-06,0.028
-4.840E-06,0.020
-4.830E-06,-0.004
-4.820E-06,-0.008
-4.810E-06,0.000
-4.800E-06,0.020
-4.790E-06,0.028
-4.780E-06,0.040
-4.770E-06,0.024
-4.760E-06,-0.012
-4.750E-06,-0.032
-4.740E-06,-0.024
-4.730E-06,-0.004
-4.720E-06,-0.004
-4.710E-06,0.008
-4.700E-06,0.008
-4.690E-06,-0.004
-4.680E-06,-0.008
-4.670E-06,0.016
-4.660E-06,0.032
-4.650E-06,0.040
-4.640E-06,0.020
-4.630E-06,-0.108
-4.620E-06,-0.064
-4.610E-06,-0.108
-4.600E-06,-0.040
-4.590E-06,0.056
-4.580E-06,0.060
-4.570E-06,0.060
-4.560E-06,-0.040
-4.550E-06,-0.080
-4.540E-06,-0.056
-4.530E-06,0.000
-4.520E-06,0.096
-4.510E-06,0.076
-4.500E-06,0.020
-4.490E-06,-0.040
-4.480E-06,-0.056
-4.470E-06,-0.012
-4.460E-06,0.052
-4.450E-06,0.076
-4.440E-06,0.036
-4.430E-06,-0.040
-4.420E-06,-0.112
-4.410E-06,-0.096
-4.400E-06,-0.028
-4.390E-06,0.056
-4.380E-06,0.100
-4.370E-06,0.060
-4.360E-06,0.000
-4.350E-06,-0.056
-4.340E-06,-0.056
-4.330E-06,-0.008
-4.320E-06,0.036
-4.310E-06,0.052
-4.300E-06,0.028
-4.290E-06,0.004
-4.280E-06,-0.016
-4.270E-06,-0.008
-4.260E-06,0.008
-4.250E-06,0.016
-4.240E-06,0.020
-4.230E-06,0.008
-4.220E-06,0.000
-4.210E-06,0.012
-4.200E-06,0.040
-4.190E-06,0.060
-4.180E-06,0.068
-4.170E-06,0.036
-4.160E-06,0.008
-4.150E-06,0.000
-4.140E-06,-0.004
-4.130E-06,0.008
-4.120E-06,-0.004
-4.110E-06,-0.020
-4.100E-06,-0.040
-4.090E-06,-0.020
-4.080E-06,0.024
-4.070E-06,0.076
-4.060E-06,0.108
-4.050E-06,0.084
-4.040E-06,0.012
-4.030E-06,-0.044
-4.020E-06,-0.072
-4.010E-06,-0.012
-4.000E-06,0.060
-3.990E-06,0.136
-3.980E-06,0.132
-3.970E-06,0.088
-3.960E-06,-0.004
-3.950E-06,-0.052
-3.940E-06,-0.088
-3.930E-06,-0.052
-3.920E-06,-0.036
-3.910E-06,-0.096
-3.900E-06,-0.192
-3.890E-06,-0.172
-3.880E-06,-0.100
-3.870E-06,0.072
-3.860E-06,0.180
-3.850E-06,0.160
-3.840E-06,0.092
-3.830E-06,-0.080
-3.820E-06,-0.140
-3.810E-06,-0.088
-3.800E-06,0.056
-3.790E-06,0.172
-3.780E-06,0.072
-3.770E-06,-0.044
-3.760E-06,-0.196
-3.750E-06,-0.204
-3.740E-06,-0.056
-3.730E-06,0.108
-3.720E-06,0.176
-3.710E-06,0.108
-3.700E-06,-0.036
-3.690E-06,-0.140
-3.680E-06,-0.124
-3.670E-06,-0.004
-3.660E-06,0.100
-3.650E-06,0.112
-3.640E-06,0.048
-3.630E-06,-0.040
-3.620E-06,-0.088
-3.610E-06,-0.060
-3.600E-06,0.004
-3.590E-06,0.060
-3.580E-06,0.064
-3.570E-06,0.028
-3.560E-06,-0.024
-3.550E-06,-0.036
-3.540E-06,-0.024
-3.530E-06,0.008
-3.520E-06,0.032
-3.510E-06,0.036
-3.500E-06,0.024
-3.490E-06,0.004
-3.480E-06,0.000
-3.470E-06,0.008
-3.460E-06,0.008
-3.450E-06,0.004
-3.440E-06,0.000
-3.430E-06,0.000
-3.420E-06,0.000
-3.410E-06,0.008
-3.400E-06,0.012
-3.390E-06,0.024
-3.380E-06,0.020
-3.370E-06,0.012
-3.360E-06,0.012
-3.350E-06,0.004
-3.340E-06,0.012
-3.330E-06,0.028
-3.320E-06,0.032
-3.310E-06,0.036
-3.300E-06,0.052
-3.290E-06,0.052
-3.280E-06,-0.012
-3.270E-06,-0.032
-3.260E-06,-0.076
-3.250E-06,-0.024
-3.240E-06,0.036
-3.230E-06,0.068
-3.220E-06,0.088
-3.210E-06,0.016
-3.200E-06,-0.040
-3.190E-06,-0.164
-3.180E-06,-0.188
-3.170E-06,-0.108
-3.160E-06,-0.008
-3.150E-06,0.108
-3.140E-06,0.124
-3.130E-06,0.092
-3.120E-06,-0.004
-3.110E-06,-0.076
-3.100E-06,-0.100
-3.090E-06,-0.040
-3.080E-06,0.048
-3.070E-06,0.080
-3.060E-06,0.056
-3.050E-06,-0.012
-3.040E-06,-0.052
-3.030E-06,-0.052
-3.020E-06,-0.008
-3.010E-06,0.036
-3.000E-06,0.044
-2.990E-06,0.032
-2.980E-06,-0.004
-2.970E-06,-0.028
-2.960E-06,-0.036
-2.950E-06,-0.012
-2.940E-06,0.016
-2.930E-06,0.024
-2.920E-06,0.020
-2.910E-06,0.008
-2.900E-06,0.000
-2.890E-06,-0.008
-2.880E-06,-0.008
-2.870E-06,-0.004
-2.860E-06,-0.004
-2.850E-06,0.004
-2.840E-06,0.012
-2.830E-06,0.016
-2.820E-06,0.016
-2.810E-06,0.000
-2.800E-06,0.000
-2.790E-06,-0.008
-2.780E-06,0.000
-2.770E-06,0.008
-2.760E-06,0.020
-2.750E-06,0.020
-2.740E-06,0.020
-2.730E-06,0.008
-2.720E-06,-0.004
-2.710E-06,-0.004
-2.700E-06,0.004
-2.690E-06,0.012
-2.680E-06,0.024
-2.670E-06,0.032
-2.660E-06,0.028
-2.650E-06,0.032
-2.640E-06,0.024
-2.630E-06,0.024
-2.620E-06,0.032
-2.610E-06,0.044
-2.600E-06,0.052
-2.590E-06,0.060
-2.580E-06,0.048
-2.570E-06,0.008
-2.560E-06,-0.032
-2.550E-06,-0.056
-2.540E-06,-0.052
-2.530E-06,-0.024
-2.520E-06,0.012
-2.510E-06,0.028
-2.500E-06,0.024
-2.490E-06,-0.008
-2.480E-06,-0.044
-2.470E-06,-0.048
-2.460E-06,-0.024
-2.450E-06,0.016
-2.440E-06,0.056
-2.430E-06,0.068
-2.420E-06,0.044
-2.410E-06,0.016
-2.400E-06,0.008
-2.390E-06,0.040
-2.380E-06,0.044
-2.370E-06,0.096
-2.360E-06,0.100
-2.350E-06,0.040
-2.340E-06,-0.028
-2.330E-06,-0.096
-2.320E-06,-0.140
-2.310E-06,-0.068
-2.300E-06,0.008
-2.290E-06,0.048
-2.280E-06,0.064
-2.270E-06,0.024
-2.260E-06,-0.028
-2.250E-06,-0.076
-2.240E-06,-0.064
-2.230E-06,-0.008
-2.220E-06,0.052
-2.210E-06,0.092
-2.200E-06,0.076
-2.190E-06,0.036
-2.180E-06,-0.024
-2.170E-06,-0.028
-2.160E-06,0.004
-2.150E-06,0.044
-2.140E-06,0.060
-2.130E-06,0.084
-2.120E-06,-0.108
-2.110E-06,-0.200
-2.100E-06,-0.216
-2.090E-06,-0.120
-2.080E-06,0.060
-2.070E-06,0.160
-2.060E-06,0.172
-2.050E-06,0.068
-2.040E-06,-0.052
-2.030E-06,-0.140
-2.020E-06,-0.100
-2.010E-06,0.052
-2.000E-06,0.160
-1.990E-06,0.152
-1.980E-06,0.072
-1.970E-06,-0.032
-1.960E-06,-0.140
-1.950E-06,-0.132
-1.940E-06,-0.044
-1.930E-06,0.056
-1.920E-06,0.076
-1.910E-06,0.012
-1.900E-06,-0.044
-1.890E-06,-0.076
-1.880E-06,-0.036
-1.870E-06,0.016
-1.860E-06,0.040
-1.850E-06,0.024
-1.840E-06,-0.016
-1.830E-06,-0.044
-1.820E-06,-0.036
-1.810E-06,-0.004
-1.800E-06,0.020
-1.790E-06,0.036
-1.780E-06,0.024
-1.770E-06,0.000
-1.760E-06,-0.024
-1.750E-06,-0.024
-1.740E-06,0.000
-1.730E-06,0.012
-1.720E-06,0.020
-1.710E-06,0.016
-1.700E-06,0.000
-1.690E-06,0.000
-1.680E-06,-0.004
-1.670E-06,-0.004
-1.660E-06,0.012
-1.650E-06,0.016
-1.640E-06,0.020
-1.630E-06,0.012
-1.620E-06,0.012
-1.610E-06,0.016
-1.600E-06,0.016
-1.590E-06,0.024
-1.580E-06,0.028
-1.570E-06,0.040
-1.560E-06,0.056
-1.550E-06,0.068
-1.540E-06,0.064
-1.530E-06,0.020
-1.520E-06,-0.036
-1.510E-06,-0.072
-1.500E-06,-0.096
-1.490E-06,-0.036
-1.480E-06,0.028
-1.470E-06,0.108
-1.460E-06,0.124
-1.450E-06,0.104
-1.440E-06,0.064
-1.430E-06,0.008
-1.420E-06,-0.040
-1.410E-06,-0.040
-1.400E-06,-0.052
-1.390E-06,-0.040
-1.380E-06,-0.016
-1.370E-06,0.004
-1.360E-06,0.044
-1.350E-06,0.044
-1.340E-06,0.040
-1.330E-06,0.020
-1.320E-06,0.008
-1.310E-06,-0.036
-1.300E-06,-0.028
-1.290E-06,-0.060
-1.280E-06,-0.052
-1.270E-06,-0.040
-1.260E-06,-0.024
-1.250E-06,-0.004
-1.240E-06,0.000
-1.230E-06,0.028
-1.220E-06,0.016
-1.210E-06,0.012
-1.200E-06,0.012
-1.190E-06,-0.004
-1.180E-06,0.000
-1.170E-06,0.024
-1.160E-06,0.044
-1.150E-06,0.060
-1.140E-06,0.060
-1.130E-06,0.000
-1.120E-06,-0.012
-1.110E-06,-0.112
-1.100E-06,-0.124
-1.090E-06,-0.052
-1.080E-06,-0.004
-1.070E-06,0.032
-1.060E-06,0.020
-1.050E-06,-0.016
-1.040E-06,-0.040
-1.030E-06,-0.028
-1.020E-06,0.016
-1.010E-06,0.032
-1.000E-06,0.016
-9.900E-07,-0.020
-9.800E-07,-0.044
-9.700E-07,-0.044
-9.600E-07,-0.008
-9.500E-07,0.024
-9.400E-07,0.032
-9.300E-07,0.012
-9.200E-07,-0.020
-9.100E-07,-0.028
-9.000E-07,-0.024
-8.900E-07,0.008
-8.800E-07,0.024
-8.700E-07,0.024
-8.600E-07,0.012
-8.500E-07,0.000
-8.400E-07,-0.020
-8.300E-07,-0.008
-8.200E-07,0.000
-8.100E-07,0.004
-8.000E-07,0.012
-7.900E-07,0.004
-7.800E-07,0.000
-7.700E-07,-0.008
-7.600E-07,-0.008
-7.500E-07,-0.004
-7.400E-07,0.008
-7.300E-07,0.008
-7.200E-07,0.008
-7.100E-07,0.000
-7.000E-07,0.004
-6.900E-07,0.012
-6.800E-07,0.004
-6.700E-07,-0.004
-6.600E-07,0.000
-6.500E-07,-0.004
-6.400E-07,-0.004
-6.300E-07,0.004
-6.200E-07,0.008
-6.100E-07,0.016
-6.000E-07,0.016
-5.900E-07,0.000
-5.800E-07,0.000
-5.700E-07,0.000
-5.600E-07,0.000
-5.500E-07,0.004
-5.400E-07,0.016
-5.300E-07,0.020
-5.200E-07,0.028
-5.100E-07,0.020
-5.000E-07,0.012
-4.900E-07,0.016
-4.800E-07,0.024
-4.700E-07,0.024
-4.600E-07,0.036
-4.500E-07,0.040
-4.400E-07,0.052
-4.300E-07,0.056
-4.200E-07,0.060
-4.100E-07,0.048
-4.000E-07,0.044
-3.900E-07,0.044
-3.800E-07,0.036
-3.700E-07,0.040
-3.600E-07,0.032
-3.500E-07,0.012
-3.400E-07,-0.012
-3.300E-07,-0.032
-3.200E-07,-0.016
-3.100E-07,0.000
-3.000E-07,0.004
-2.900E-07,0.028
-2.800E-07,0.024
-2.700E-07,0.044
-2.600E-07,0.072
-2.500E-07,0.088
-2.400E-07,0.072
-2.300E-07,0.040
-2.200E-07,0.016
-2.100E-07,-0.060
-2.000E-07,-0.144
-1.900E-07,-0.208
-1.800E-07,-0.204
-1.700E-07,-0.088
-1.600E-07,0.048
-1.500E-07,0.160
-1.400E-07,0.200
-1.300E-07,0.132
-1.200E-07,0.048
-1.100E-07,0.004
-1.000E-07,0.004
-9.000E-08,0.096
-8.000E-08,0.144
-7.000E-08,0.024
-6.000E-08,-0.168
-5.000E-08,-0.392
-4.000E-08,-0.360
-3.000E-08,-0.152
-2.000E-08,0.124
-1.000E-08,0.220
0.000E+00,0.220
1.000E-08,0.028
2.000E-08,-0.140
3.000E-08,-0.168
4.000E-08,-0.068
5.000E-08,0.076
6.000E-08,0.092
7.000E-08,0.060
8.000E-08,-0.024
9.000E-08,-0.076
1.000E-07,-0.064
1.100E-07,-0.008
1.200E-07,0.040
1.300E-07,0.056
1.400E-07,0.028
1.500E-07,-0.004
1.600E-07,-0.024
1.700E-07,-0.008
1.800E-07,0.008
1.900E-07,0.036
2.000E-07,0.052
2.100E-07,0.056
2.200E-07,0.044
2.300E-07,0.044
2.400E-07,0.044
2.500E-07,0.048
2.600E-07,0.032
2.700E-07,0.020
2.800E-07,-0.008
2.900E-07,-0.072
3.000E-07,-0.092
3.100E-07,-0.080
3.200E-07,-0.016
3.300E-07,0.068
3.400E-07,0.128
3.500E-07,0.188
3.600E-07,0.188
3.700E-07,0.108
3.800E-07,-0.136
3.900E-07,-0.268
4.000E-07,-0.404
4.100E-07,-0.252
4.200E-07,-0.028
4.300E-07,0.196
4.400E-07,0.272
4.500E-07,0.232
4.600E-07,0.016
4.700E-07,-0.196
4.800E-07,-0.196
4.900E-07,-0.064
5.000E-07,0.140
5.100E-07,0.168
5.200E-07,0.076
5.300E-07,-0.072
5.400E-07,-0.164
5.500E-07,-0.108
5.600E-07,-0.004
5.700E-07,0.104
5.800E-07,0.124
5.900E-07,0.060
6.000E-07,-0.036
6.100E-07,-0.096
6.200E-07,-0.076
6.300E-07,-0.008
6.400E-07,0.048
6.500E-07,0.064
6.600E-07,0.052
6.700E-07,0.016
6.800E-07,-0.012
6.900E-07,-0.028
7.000E-07,-0.004
7.100E-07,0.000
7.200E-07,0.024
7.300E-07,0.032
7.400E-07,0.040
7.500E-07,0.016
7.600E-07,0.004
7.700E-07,0.000
7.800E-07,-0.008
7.900E-07,-0.004
8.000E-07,0.008
8.100E-07,0.024
8.200E-07,0.024
8.300E-07,0.016
8.400E-07,-0.004
8.500E-07,-0.020
8.600E-07,-0.020
8.700E-07,0.012
8.800E-07,0.040
8.900E-07,0.072
9.000E-07,0.064
9.100E-07,0.060
9.200E-07,0.036
9.300E-07,0.036
9.400E-07,0.072
9.500E-07,0.100
9.600E-07,0.084
9.700E-07,0.020
9.800E-07,-0.052
9.900E-07,-0.100
1.000E-06,-0.052
1.010E-06,0.028
1.020E-06,0.004
1.030E-06,-0.060
1.040E-06,-0.232
1.050E-06,-0.204
1.060E-06,-0.080
1.070E-06,0.056
1.080E-06,0.136
1.090E-06,0.128
1.100E-06,-0.004
1.110E-06,-0.080
1.120E-06,-0.104
1.130E-06,0.000
1.140E-06,0.096
1.150E-06,0.104
1.160E-06,0.040
1.170E-06,-0.016
1.180E-06,-0.028
1.190E-06,-0.008
1.200E-06,0.012
1.210E-06,-0.008
1.220E-06,-0.012
1.230E-06,-0.068
1.240E-06,-0.036
1.250E-06,0.000
1.260E-06,0.072
1.270E-06,0.120
1.280E-06,0.048
1.290E-06,0.008
1.300E-06,-0.104
1.310E-06,-0.112
1.320E-06,-0.088
1.330E-06,-0.016
1.340E-06,0.032
1.350E-06,0.044
1.360E-06,0.044
1.370E-06,0.016
1.380E-06,-0.012
1.390E-06,-0.028
1.400E-06,-0.004
1.410E-06,0.040
1.420E-06,0.048
1.430E-06,0.024
1.440E-06,-0.004
1.450E-06,-0.008
1.460E-06,0.004
1.470E-06,0.044
1.480E-06,0.064
1.490E-06,0.064
1.500E-06,0.024
1.510E-06,0.020
1.520E-06,0.024
1.530E-06,0.036
1.540E-06,0.052
1.550E-06,0.064
1.560E-06,0.064
1.570E-06,0.056
1.580E-06,0.036
1.590E-06,0.024
1.600E-06,0.012
1.610E-06,0.012
1.620E-06,0.016
1.630E-06,0.024
1.640E-06,0.024
1.650E-06,-0.004
1.660E-06,-0.016
1.670E-06,-0.032
1.680E-06,-0.028
1.690E-06,-0.008
1.700E-06,0.008
1.710E-06,0.012
1.720E-06,0.004
1.730E-06,-0.004
1.740E-06,-0.004
1.750E-06,-0.004
1.760E-06,0.000
1.770E-06,0.008
1.780E-06,0.012
1.790E-06,0.028
1.800E-06,0.024
1.810E-06,0.044
1.820E-06,0.056
1.830E-06,0.056
1.840E-06,0.060
1.850E-06,0.044
1.860E-06,0.048
1.870E-06,0.044
1.880E-06,0.060
1.890E-06,0.064
1.900E-06,0.072
1.910E-06,0.060
1.920E-06,0.052
1.930E-06,0.044
1.940E-06,0.044
1.950E-06,0.060
1.960E-06,0.084
1.970E-06,0.100
1.980E-06,0.100
1.990E-06,0.104
2.000E-06,0.072
2.010E-06,0.088
2.020E-06,0.064
2.030E-06,0.072
2.040E-06,0.068
2.050E-06,0.012
2.060E-06,-0.036
2.070E-06,-0.076
2.080E-06,-0.172
2.090E-06,-0.512
2.100E-06,-0.512
2.110E-06,-0.508
2.120E-06,-0.156
2.130E-06,0.492
2.140E-06,0.540
2.150E-06,0.540
2.160E-06,-0.072
2.170E-06,-0.500
2.180E-06,-0.512
2.190E-06,-0.312
2.200E-06,0.232
2.210E-06,0.384
2.220E-06,0.188
2.230E-06,-0.152
2.240E-06,-0.264
2.250E-06,-0.204
2.260E-06,0.040
2.270E-06,0.180
2.280E-06,0.164
2.290E-06,0.032
2.300E-06,-0.100
2.310E-06,-0.124
2.320E-06,-0.068
2.330E-06,0.020
2.340E-06,0.052
2.350E-06,0.056
2.360E-06,0.044
2.370E-06,0.044
2.380E-06,0.000
2.390E-06,-0.012
2.400E-06,-0.040
2.410E-06,-0.048
2.420E-06,-0.004
2.430E-06,0.032
2.440E-06,0.060
2.450E-06,0.060
2.460E-06,0.024
2.470E-06,-0.008
2.480E-06,-0.012
2.490E-06,-0.016
2.500E-06,0.024
2.510E-06,0.056
2.520E-06,0.072
2.530E-06,0.060
2.540E-06,0.048
2.550E-06,0.008
2.560E-06,-0.012
2.570E-06,-0.004
2.580E-06,0.016
2.590E-06,0.060
2.600E-06,0.084
2.610E-06,0.104
2.620E-06,0.088
2.630E-06,0.080
2.640E-06,0.068
2.650E-06,0.072
2.660E-06,0.072
2.670E-06,0.088
2.680E-06,0.092
2.690E-06,0.096
2.700E-06,0.116
2.710E-06,0.092
2.720E-06,0.124
2.730E-06,0.068
2.740E-06,0.012
2.750E-06,-0.060
2.760E-06,-0.512
2.770E-06,-0.512
2.780E-06,-0.512
2.790E-06,-0.272
2.800E-06,0.368
2.810E-06,0.540
2.820E-06,0.540
2.830E-06,-0.024
2.840E-06,-0.448
2.850E-06,-0.508
2.860E-06,-0.204
2.870E-06,0.392
2.880E-06,0.520
2.890E-06,0.288
2.900E-06,-0.196
2.910E-06,-0.408
2.920E-06,-0.308
2.930E-06,0.028
2.940E-06,0.264
2.950E-06,0.288
2.960E-06,0.112
2.970E-06,-0.076
2.980E-06,-0.188
2.990E-06,-0.140
3.000E-06,0.000
3.010E-06,0.112
3.020E-06,0.160
3.030E-06,0.132
3.040E-06,0.040
3.050E-06,-0.028
3.060E-06,-0.064
3.070E-06,-0.076
3.080E-06,-0.012
3.090E-06,0.032
3.100E-06,0.100
3.110E-06,0.084
3.120E-06,0.056
3.130E-06,0.024
3.140E-06,-0.016
3.150E-06,-0.004
3.160E-06,0.004
3.170E-06,0.088
3.180E-06,0.156
3.190E-06,0.192
3.200E-06,0.128
3.210E-06,0.000
3.220E-06,-0.176
3.230E-06,-0.292
3.240E-06,-0.288
3.250E-06,-0.148
3.260E-06,0.044
3.270E-06,0.096
3.280E-06,0.120
3.290E-06,0.000
3.300E-06,-0.100
3.310E-06,-0.096
3.320E-06,-0.044
3.330E-06,0.056
3.340E-06,0.120
3.350E-06,0.088
3.360E-06,-0.012
3.370E-06,-0.072
3.380E-06,-0.092
3.390E-06,-0.044
3.400E-06,0.024
3.410E-06,0.060
3.420E-06,0.052
3.430E-06,0.008
3.440E-06,-0.020
3.450E-06,-0.036
3.460E-06,-0.016
3.470E-06,0.020
3.480E-06,0.052
3.490E-06,0.060
3.500E-06,0.052
3.510E-06,0.040
3.520E-06,0.020
3.530E-06,0.036
3.540E-06,0.052
3.550E-06,0.072
3.560E-06,0.064
3.570E-06,0.080
3.580E-06,0.076
3.590E-06,0.088
3.600E-06,0.088
3.610E-06,0.076
3.620E-06,0.060
3.630E-06,0.048
3.640E-06,0.044
3.650E-06,0.024
3.660E-06,0.052
3.670E-06,0.032
3.680E-06,0.024
3.690E-06,0.000
3.700E-06,-0.012
3.710E-06,-0.004
3.720E-06,-0.024
3.730E-06,-0.020
3.740E-06,-0.060
3.750E-06,-0.120
3.760E-06,-0.136
3.770E-06,-0.160
3.780E-06,-0.108
3.790E-06,-0.064
3.800E-06,-0.004
3.810E-06,0.032
3.820E-06,0.008
3.830E-06,0.012
3.840E-06,0.008
3.850E-06,0.016
3.860E-06,0.016
3.870E-06,0.020
3.880E-06,0.024
3.890E-06,0.028
3.900E-06,0.036
3.910E-06,0.008
3.920E-06,0.036
3.930E-06,0.044
3.940E-06,0.084
3.950E-06,0.092
3.960E-06,0.076
3.970E-06,0.048
3.980E-06,0.036
3.990E-06,0.060
4.000E-06,0.088
4.010E-06,0.124
4.020E-06,0.132
4.030E-06,0.112
4.040E-06,0.080
4.050E-06,0.056
4.060E-06,0.060
4.070E-06,0.084
4.080E-06,0.108
4.090E-06,0.076
4.100E-06,0.024
4.110E-06,-0.044
4.120E-06,-0.104
4.130E-06,-0.124
4.140E-06,-0.080
4.150E-06,-0.040
4.160E-06,0.016
4.170E-06,0.060
4.180E-06,0.068
4.190E-06,0.060
4.200E-06,0.056
4.210E-06,0.052
4.220E-06,0.032
4.230E-06,0.016
4.240E-06,-0.024
4.250E-06,-0.040
4.260E-06,-0.052
4.270E-06,-0.004
4.280E-06,0.052
4.290E-06,0.116
4.300E-06,0.152
4.310E-06,0.160
4.320E-06,0.132
4.330E-06,0.084
4.340E-06,0.040
4.350E-06,0.008
4.360E-06,-0.004
4.370E-06,-0.048
4.380E-06,-0.068
4.390E-06,-0.080
4.400E-06,-0.068
4.410E-06,-0.020
4.420E-06,0.068
4.430E-06,0.124
4.440E-06,0.092
4.450E-06,-0.056
4.460E-06,-0.264
4.470E-06,-0.352
4.480E-06,-0.332
4.490E-06,-0.176
4.500E-06,0.104
4.510E-06,0.304
4.520E-06,0.204
4.530E-06,-0.008
4.540E-06,-0.332
4.550E-06,-0.396
4.560E-06,-0.196
4.570E-06,0.116
4.580E-06,0.356
4.590E-06,0.376
4.600E-06,0.200
4.610E-06,-0.060
4.620E-06,-0.240
4.630E-06,-0.236
4.640E-06,-0.132
4.650E-06,-0.144
4.660E-06,-0.120
4.670E-06,-0.148
4.680E-06,-0.180
4.690E-06,-0.120
4.700E-06,-0.036
4.710E-06,0.036
4.720E-06,0.048
4.730E-06,0.064
4.740E-06,0.068
4.750E-06,0.056
4.760E-06,0.028
4.770E-06,-0.020
4.780E-06,-0.056
4.790E-06,-0.040
4.800E-06,0.040
4.810E-06,0.104
4.820E-06,0.140
4.830E-06,0.140
4.840E-06,0.060
4.850E-06,0.000
4.860E-06,-0.036
4.870E-06,-0.004
4.880E-06,0.052
4.890E-06,0.104
4.900E-06,0.140
4.910E-06,0.144
4.920E-06,0.108
4.930E-06,0.088
4.940E-06,0.072
4.950E-06,0.072
4.960E-06,0.120
4.970E-06,0.176
4.980E-06,0.204
4.990E-06,0.196
5.000E-06,0.168
5.010E-06,0.132
5.020E-06,0.108
5.030E-06,0.112
5.040E-06,0.140
5.050E-06,0.156
5.060E-06,0.172
5.070E-06,0.160
5.080E-06,0.148
5.090E-06,0.128
5.100E-06,0.092
5.110E-06,0.060
5.120E-06,0.040
5.130E-06,0.056
5.140E-06,0.092
5.150E-06,0.124
5.160E-06,0.144
5.170E-06,0.136
5.180E-06,0.080
5.190E-06,-0.032
5.200E-06,-0.140
5.210E-06,-0.240
5.220E-06,-0.192
5.230E-06,-0.104
5.240E-06,0.128
5.250E-06,0.172
5.260E-06,0.268
5.270E-06,0.224
5.280E-06,0.060
5.290E-06,-0.136
5.300E-06,-0.336
5.310E-06,-0.436
5.320E-06,-0.364
5.330E-06,-0.192
5.340E-06,0.048
5.350E-06,0.136
5.360E-06,-0.008
5.370E-06,-0.368
5.380E-06,-0.508
5.390E-06,-0.512
5.400E-06,-0.372
5.410E-06,0.044
5.420E-06,0.260
5.430E-06,0.340
5.440E-06,0.088
5.450E-06,-0.096
5.460E-06,-0.152
5.470E-06,-0.064
5.480E-06,0.076
5.490E-06,0.144
5.500E-06,0.132
5.510E-06,0.060
5.520E-06,0.056
5.530E-06,0.012
5.540E-06,0.028
5.550E-06,0.020
5.560E-06,0.016
5.570E-06,0.016
5.580E-06,0.056
5.590E-06,0.120
5.600E-06,0.124
5.610E-06,0.124
5.620E-06,0.088
5.630E-06,0.096
5.640E-06,0.136
5.650E-06,0.160
5.660E-06,0.172
5.670E-06,0.172
5.680E-06,0.148
5.690E-06,0.128
5.700E-06,0.120
5.710E-06,0.124
5.720E-06,0.144
5.730E-06,0.160
5.740E-06,0.176
5.750E-06,0.176
5.760E-06,0.176
5.770E-06,0.156
5.780E-06,0.160
5.790E-06,0.156
5.800E-06,0.152
5.810E-06,0.156
5.820E-06,0.160
5.830E-06,0.156
5.840E-06,0.160
5.850E-06,0.156
5.860E-06,0.144
5.870E-06,0.140
5.880E-06,0.136
5.890E-06,0.140
5.900E-06,0.144
5.910E-06,0.152
5.920E-06,0.144
5.930E-06,0.144
5.940E-06,0.128
5.950E-06,0.132
5.960E-06,0.140
5.970E-06,0.156
5.980E-06,0.148
5.990E-06,0.100
6.000E-06,0.024
6.010E-06,-0.048
6.020E-06,-0.024
6.030E-06,0.064
6.040E-06,0.156
6.050E-06,0.220
6.060E-06,0.120
6.070E-06,-0.048
6.080E-06,-0.276
6.090E-06,-0.444
6.100E-06,-0.432
6.110E-06,-0.208
6.120E-06,0.136
6.130E-06,0.360
6.140E-06,0.332
6.150E-06,0.088
6.160E-06,-0.220
6.170E-06,-0.476
6.180E-06,-0.512
