mediciones/Mediciones filtradas (saque las feas)/5-27/-37.5/WaveData5145.csv

#timebase=2000000(ps)
,#voltbase=1000000(mv/100)
#size=4000
-5.650E-06,0.040
-5.640E-06,0.040
-5.630E-06,0.040
-5.620E-06,0.040
-5.610E-06,0.000
-5.600E-06,0.040
-5.590E-06,0.040
-5.580E-06,0.040
-5.570E-06,0.040
-5.560E-06,0.040
-5.550E-06,0.000
-5.540E-06,0.040
-5.530E-06,0.000
-5.520E-06,0.040
-5.510E-06,0.040
-5.500E-06,0.040
-5.490E-06,0.040
-5.480E-06,0.040
-5.470E-06,0.040
-5.460E-06,0.000
-5.450E-06,0.000
-5.440E-06,0.040
-5.430E-06,0.000
-5.420E-06,0.000
-5.410E-06,0.040
-5.400E-06,0.080
-5.390E-06,0.080
-5.380E-06,0.080
-5.370E-06,0.080
-5.360E-06,0.080
-5.350E-06,0.040
-5.340E-06,0.080
-5.330E-06,0.000
-5.320E-06,0.040
-5.310E-06,0.040
-5.300E-06,0.040
-5.290E-06,0.040
-5.280E-06,0.040
-5.270E-06,0.000
-5.260E-06,0.080
-5.250E-06,0.040
-5.240E-06,0.040
-5.230E-06,0.080
-5.220E-06,0.040
-5.210E-06,0.040
-5.200E-06,0.000
-5.190E-06,0.040
-5.180E-06,0.040
-5.170E-06,0.080
-5.160E-06,0.080
-5.150E-06,0.040
-5.140E-06,0.040
-5.130E-06,0.000
-5.120E-06,0.040
-5.110E-06,0.080
-5.100E-06,0.040
-5.090E-06,0.080
-5.080E-06,0.120
-5.070E-06,0.080
-5.060E-06,0.000
-5.050E-06,0.040
-5.040E-06,0.040
-5.030E-06,0.040
-5.020E-06,0.000
-5.010E-06,0.040
-5.000E-06,0.000
-4.990E-06,0.040
-4.980E-06,0.040
-4.970E-06,0.040
-4.960E-06,0.040
-4.950E-06,0.000
-4.940E-06,0.000
-4.930E-06,0.040
-4.920E-06,0.120
-4.910E-06,0.080
-4.900E-06,0.080
-4.890E-06,0.000
-4.880E-06,0.040
-4.870E-06,0.040
-4.860E-06,0.040
-4.850E-06,0.000
-4.840E-06,0.080
-4.830E-06,0.000
-4.820E-06,0.040
-4.810E-06,0.040
-4.800E-06,0.040
-4.790E-06,0.040
-4.780E-06,0.040
-4.770E-06,0.080
-4.760E-06,0.080
-4.750E-06,0.080
-4.740E-06,0.120
-4.730E-06,0.040
-4.720E-06,0.000
-4.710E-06,0.040
-4.700E-06,0.080
-4.690E-06,0.120
-4.680E-06,0.000
-4.670E-06,0.000
-4.660E-06,0.040
-4.650E-06,0.000
-4.640E-06,0.040
-4.630E-06,0.000
-4.620E-06,0.000
-4.610E-06,0.040
-4.600E-06,0.040
-4.590E-06,0.080
-4.580E-06,0.000
-4.570E-06,0.040
-4.560E-06,0.080
-4.550E-06,0.080
-4.540E-06,0.080
-4.530E-06,0.040
-4.520E-06,0.080
-4.510E-06,0.000
-4.500E-06,0.000
-4.490E-06,0.040
-4.480E-06,0.080
-4.470E-06,0.080
-4.460E-06,0.120
-4.450E-06,0.080
-4.440E-06,0.080
-4.430E-06,0.000
-4.420E-06,0.000
-4.410E-06,0.040
-4.400E-06,0.080
-4.390E-06,0.040
-4.380E-06,0.040
-4.370E-06,0.080
-4.360E-06,0.000
-4.350E-06,0.000
-4.340E-06,0.040
-4.330E-06,0.040
-4.320E-06,0.080
-4.310E-06,0.040
-4.300E-06,0.040
-4.290E-06,0.040
-4.280E-06,0.040
-4.270E-06,0.040
-4.260E-06,0.080
-4.250E-06,0.000
-4.240E-06,0.040
-4.230E-06,0.040
-4.220E-06,0.000
-4.210E-06,0.040
-4.200E-06,0.040
-4.190E-06,0.000
-4.180E-06,0.080
-4.170E-06,0.040
-4.160E-06,0.000
-4.150E-06,0.080
-4.140E-06,0.080
-4.130E-06,0.080
-4.120E-06,0.080
-4.110E-06,0.040
-4.100E-06,0.080
-4.090E-06,0.080
-4.080E-06,0.040
-4.070E-06,0.080
-4.060E-06,0.040
-4.050E-06,0.040
-4.040E-06,0.000
-4.030E-06,0.040
-4.020E-06,0.040
-4.010E-06,0.040
-4.000E-06,0.080
-3.990E-06,0.040
-3.980E-06,0.040
-3.970E-06,0.040
-3.960E-06,0.040
-3.950E-06,0.040
-3.940E-06,0.080
-3.930E-06,0.120
-3.920E-06,0.040
-3.910E-06,0.040
-3.900E-06,0.040
-3.890E-06,0.040
-3.880E-06,0.040
-3.870E-06,0.080
-3.860E-06,0.120
-3.850E-06,0.040
-3.840E-06,0.080
-3.830E-06,0.040
-3.820E-06,0.080
-3.810E-06,0.080
-3.800E-06,0.040
-3.790E-06,0.080
-3.780E-06,0.120
-3.770E-06,0.080
-3.760E-06,0.000
-3.750E-06,0.080
-3.740E-06,0.040
-3.730E-06,0.040
-3.720E-06,0.040
-3.710E-06,0.000
-3.700E-06,0.000
-3.690E-06,0.000
-3.680E-06,0.000
-3.670E-06,0.000
-3.660E-06,0.000
-3.650E-06,0.000
-3.640E-06,0.000
-3.630E-06,0.040
-3.620E-06,0.080
-3.610E-06,0.000
-3.600E-06,0.000
-3.590E-06,0.000
-3.580E-06,0.040
-3.570E-06,0.080
-3.560E-06,0.120
-3.550E-06,0.040
-3.540E-06,0.040
-3.530E-06,0.080
-3.520E-06,0.080
-3.510E-06,0.000
-3.500E-06,0.040
-3.490E-06,0.040
-3.480E-06,0.080
-3.470E-06,0.080
-3.460E-06,0.000
-3.450E-06,0.000
-3.440E-06,0.040
-3.430E-06,0.040
-3.420E-06,0.040
-3.410E-06,0.080
-3.400E-06,0.120
-3.390E-06,0.040
-3.380E-06,0.040
-3.370E-06,0.080
-3.360E-06,0.040
-3.350E-06,0.080
-3.340E-06,0.040
-3.330E-06,0.120
-3.320E-06,0.040
-3.310E-06,0.080
-3.300E-06,0.080
-3.290E-06,0.080
-3.280E-06,0.080
-3.270E-06,0.040
-3.260E-06,-0.040
-3.250E-06,0.000
-3.240E-06,0.000
-3.230E-06,0.040
-3.220E-06,0.040
-3.210E-06,0.000
-3.200E-06,0.080
-3.190E-06,0.080
-3.180E-06,0.040
-3.170E-06,0.080
-3.160E-06,0.080
-3.150E-06,0.080
-3.140E-06,0.040
-3.130E-06,0.040
-3.120E-06,0.040
-3.110E-06,0.040
-3.100E-06,0.080
-3.090E-06,0.040
-3.080E-06,0.080
-3.070E-06,-0.040
-3.060E-06,-0.040
-3.050E-06,0.040
-3.040E-06,0.040
-3.030E-06,0.040
-3.020E-06,0.040
-3.010E-06,0.040
-3.000E-06,0.000
-2.990E-06,-0.040
-2.980E-06,0.040
-2.970E-06,0.120
-2.960E-06,0.040
-2.950E-06,0.080
-2.940E-06,0.080
-2.930E-06,0.080
-2.920E-06,0.080
-2.910E-06,0.040
-2.900E-06,0.080
-2.890E-06,0.080
-2.880E-06,0.040
-2.870E-06,0.120
-2.860E-06,0.120
-2.850E-06,0.080
-2.840E-06,0.080
-2.830E-06,0.080
-2.820E-06,0.080
-2.810E-06,0.080
-2.800E-06,0.080
-2.790E-06,0.080
-2.780E-06,0.080
-2.770E-06,0.080
-2.760E-06,0.000
-2.750E-06,0.040
-2.740E-06,0.000
-2.730E-06,0.000
-2.720E-06,0.040
-2.710E-06,0.000
-2.700E-06,0.040
-2.690E-06,0.080
-2.680E-06,0.080
-2.670E-06,0.000
-2.660E-06,0.000
-2.650E-06,0.080
-2.640E-06,0.040
-2.630E-06,0.000
-2.620E-06,0.040
-2.610E-06,0.000
-2.600E-06,0.000
-2.590E-06,0.040
-2.580E-06,0.040
-2.570E-06,0.040
-2.560E-06,0.000
-2.550E-06,0.000
-2.540E-06,0.000
-2.530E-06,-0.040
-2.520E-06,0.040
-2.510E-06,0.040
-2.500E-06,0.080
-2.490E-06,0.120
-2.480E-06,0.160
-2.470E-06,0.120
-2.460E-06,0.200
-2.450E-06,0.200
-2.440E-06,0.120
-2.430E-06,0.080
-2.420E-06,0.120
-2.410E-06,0.120
-2.400E-06,0.160
-2.390E-06,0.200
-2.380E-06,0.200
-2.370E-06,0.200
-2.360E-06,0.200
-2.350E-06,0.120
-2.340E-06,0.160
-2.330E-06,0.280
-2.320E-06,0.240
-2.310E-06,0.240
-2.300E-06,0.240
-2.290E-06,0.160
-2.280E-06,0.160
-2.270E-06,0.200
-2.260E-06,0.240
-2.250E-06,0.280
-2.240E-06,0.240
-2.230E-06,0.200
-2.220E-06,0.200
-2.210E-06,0.160
-2.200E-06,0.200
-2.190E-06,0.240
-2.180E-06,0.200
-2.170E-06,0.240
-2.160E-06,0.160
-2.150E-06,0.160
-2.140E-06,0.160
-2.130E-06,0.160
-2.120E-06,0.240
-2.110E-06,0.240
-2.100E-06,0.240
-2.090E-06,0.200
-2.080E-06,0.160
-2.070E-06,0.120
-2.060E-06,0.120
-2.050E-06,0.240
-2.040E-06,0.240
-2.030E-06,0.320
-2.020E-06,0.240
-2.010E-06,0.160
-2.000E-06,0.040
-1.990E-06,-0.040
-1.980E-06,0.000
-1.970E-06,0.120
-1.960E-06,0.120
-1.950E-06,0.080
-1.940E-06,0.080
-1.930E-06,-0.080
-1.920E-06,0.000
-1.910E-06,-0.040
-1.900E-06,0.000
-1.890E-06,0.040
-1.880E-06,0.000
-1.870E-06,0.000
-1.860E-06,0.000
-1.850E-06,0.000
-1.840E-06,0.000
-1.830E-06,0.000
-1.820E-06,0.040
-1.810E-06,0.000
-1.800E-06,0.000
-1.790E-06,0.000
-1.780E-06,0.000
-1.770E-06,0.000
-1.760E-06,0.000
-1.750E-06,0.040
-1.740E-06,0.000
-1.730E-06,0.000
-1.720E-06,0.000
-1.710E-06,0.040
-1.700E-06,0.080
-1.690E-06,0.120
-1.680E-06,0.040
-1.670E-06,0.120
-1.660E-06,0.160
-1.650E-06,0.160
-1.640E-06,0.160
-1.630E-06,0.200
-1.620E-06,0.160
-1.610E-06,0.120
-1.600E-06,0.120
-1.590E-06,0.080
-1.580E-06,0.080
-1.570E-06,0.120
-1.560E-06,0.040
-1.550E-06,0.000
-1.540E-06,0.000
-1.530E-06,0.000
-1.520E-06,0.040
-1.510E-06,0.160
-1.500E-06,0.280
-1.490E-06,0.360
-1.480E-06,0.240
-1.470E-06,0.160
-1.460E-06,0.080
-1.450E-06,0.080
-1.440E-06,0.120
-1.430E-06,0.200
-1.420E-06,0.160
-1.410E-06,0.160
-1.400E-06,0.120
-1.390E-06,0.120
-1.380E-06,0.080
-1.370E-06,0.040
-1.360E-06,0.160
-1.350E-06,0.160
-1.340E-06,0.200
-1.330E-06,0.200
-1.320E-06,0.160
-1.310E-06,0.120
-1.300E-06,0.200
-1.290E-06,0.160
-1.280E-06,0.200
-1.270E-06,0.160
-1.260E-06,0.160
-1.250E-06,0.200
-1.240E-06,0.160
-1.230E-06,0.120
-1.220E-06,0.160
-1.210E-06,0.160
-1.200E-06,0.160
-1.190E-06,0.200
-1.180E-06,0.160
-1.170E-06,0.120
-1.160E-06,0.160
-1.150E-06,0.200
-1.140E-06,0.120
-1.130E-06,0.160
-1.120E-06,0.200
-1.110E-06,0.240
-1.100E-06,0.280
-1.090E-06,0.320
-1.080E-06,0.320
-1.070E-06,0.280
-1.060E-06,0.320
-1.050E-06,0.280
-1.040E-06,0.280
-1.030E-06,0.280
-1.020E-06,0.240
-1.010E-06,0.240
-1.000E-06,0.240
-9.900E-07,0.200
-9.800E-07,0.200
-9.700E-07,0.200
-9.600E-07,0.280
-9.500E-07,0.280
-9.400E-07,0.240
-9.300E-07,0.240
-9.200E-07,0.200
-9.100E-07,0.320
-9.000E-07,0.320
-8.900E-07,0.400
-8.800E-07,0.400
-8.700E-07,0.360
-8.600E-07,0.400
-8.500E-07,0.400
-8.400E-07,0.480
-8.300E-07,0.480
-8.200E-07,0.440
-8.100E-07,0.520
-8.000E-07,0.520
-7.900E-07,0.480
-7.800E-07,0.520
-7.700E-07,0.480
-7.600E-07,0.560
-7.500E-07,0.520
-7.400E-07,0.560
-7.300E-07,0.560
-7.200E-07,0.520
-7.100E-07,0.520
-7.000E-07,0.520
-6.900E-07,0.560
-6.800E-07,0.600
-6.700E-07,0.560
-6.600E-07,0.560
-6.500E-07,0.600
-6.400E-07,0.600
-6.300E-07,0.680
-6.200E-07,0.800
-6.100E-07,0.800
-6.000E-07,0.880
-5.900E-07,0.880
-5.800E-07,0.920
-5.700E-07,0.920
-5.600E-07,1.040
-5.500E-07,1.000
-5.400E-07,1.080
-5.300E-07,1.120
-5.200E-07,1.160
-5.100E-07,1.120
-5.000E-07,1.160
-4.900E-07,1.240
-4.800E-07,1.280
-4.700E-07,1.320
-4.600E-07,1.320
-4.500E-07,1.400
-4.400E-07,1.360
-4.300E-07,1.360
-4.200E-07,1.320
-4.100E-07,1.320
-4.000E-07,1.320
-3.900E-07,1.280
-3.800E-07,1.320
-3.700E-07,1.200
-3.600E-07,1.200
-3.500E-07,1.120
-3.400E-07,1.120
-3.300E-07,1.080
-3.200E-07,1.080
-3.100E-07,1.040
-3.000E-07,1.080
-2.900E-07,1.120
-2.800E-07,1.160
-2.700E-07,1.040
-2.600E-07,1.080
-2.500E-07,1.000
-2.400E-07,0.960
-2.300E-07,0.960
-2.200E-07,0.920
-2.100E-07,0.920
-2.000E-07,0.920
-1.900E-07,0.800
-1.800E-07,0.840
-1.700E-07,1.000
-1.600E-07,0.880
-1.500E-07,1.160
-1.400E-07,0.960
-1.300E-07,1.080
-1.200E-07,1.040
-1.100E-07,1.120
-1.000E-07,1.120
-9.000E-08,0.960
-8.000E-08,0.800
-7.000E-08,0.880
-6.000E-08,0.640
-5.000E-08,0.640
-4.000E-08,0.680
-3.000E-08,0.080
-2.000E-08,-0.200
-1.000E-08,-0.520
0.000E+00,-0.280
1.000E-08,0.440
2.000E-08,1.200
3.000E-08,1.680
4.000E-08,1.800
5.000E-08,1.280
6.000E-08,0.840
7.000E-08,0.480
8.000E-08,0.680
9.000E-08,0.960
1.000E-07,1.320
1.100E-07,1.720
1.200E-07,1.880
1.300E-07,1.840
1.400E-07,1.840
1.500E-07,1.600
1.600E-07,1.240
1.700E-07,1.080
1.800E-07,1.600
1.900E-07,1.480
2.000E-07,1.880
2.100E-07,1.680
2.200E-07,1.520
2.300E-07,1.160
2.400E-07,0.880
2.500E-07,1.000
2.600E-07,1.040
2.700E-07,1.160
2.800E-07,1.160
2.900E-07,1.160
3.000E-07,0.920
3.100E-07,0.880
3.200E-07,0.720
3.300E-07,1.200
3.400E-07,1.080
3.500E-07,1.240
3.600E-07,1.120
3.700E-07,1.120
3.800E-07,1.120
3.900E-07,1.040
4.000E-07,1.080
4.100E-07,1.080
4.200E-07,1.080
4.300E-07,0.960
4.400E-07,0.840
4.500E-07,0.760
4.600E-07,0.680
4.700E-07,0.640
4.800E-07,0.560
4.900E-07,0.560
5.000E-07,0.520
5.100E-07,0.560
5.200E-07,0.560
5.300E-07,0.560
5.400E-07,0.600
5.500E-07,0.680
5.600E-07,0.680
5.700E-07,0.840
5.800E-07,0.880
5.900E-07,0.920
6.000E-07,0.920
6.100E-07,0.880
6.200E-07,0.960
6.300E-07,0.920
6.400E-07,0.960
6.500E-07,0.920
6.600E-07,0.840
6.700E-07,0.880
6.800E-07,0.760
6.900E-07,0.800
7.000E-07,0.760
7.100E-07,0.680
7.200E-07,0.680
7.300E-07,0.400
7.400E-07,0.480
7.500E-07,0.440
7.600E-07,0.600
7.700E-07,0.760
7.800E-07,0.520
7.900E-07,0.640
8.000E-07,0.280
8.100E-07,0.680
8.200E-07,0.880
8.300E-07,0.880
8.400E-07,1.200
8.500E-07,0.840
8.600E-07,0.640
8.700E-07,0.240
8.800E-07,0.080
8.900E-07,0.160
9.000E-07,0.200
9.100E-07,0.600
9.200E-07,0.440
9.300E-07,0.600
9.400E-07,0.160
9.500E-07,0.200
9.600E-07,0.160
9.700E-07,0.320
9.800E-07,0.720
9.900E-07,0.760
1.000E-06,0.920
1.010E-06,0.880
1.020E-06,1.000
1.030E-06,1.280
1.040E-06,1.560
1.050E-06,1.720
1.060E-06,1.640
1.070E-06,1.600
1.080E-06,1.440
1.090E-06,1.240
1.100E-06,1.280
1.110E-06,1.040
1.120E-06,1.000
1.130E-06,0.760
1.140E-06,0.600
1.150E-06,0.480
1.160E-06,0.280
1.170E-06,0.120
1.180E-06,-0.080
1.190E-06,-0.240
1.200E-06,-0.280
1.210E-06,-0.280
1.220E-06,-0.160
1.230E-06,-0.080
1.240E-06,0.000
1.250E-06,0.040
1.260E-06,0.160
1.270E-06,0.200
1.280E-06,0.160
1.290E-06,0.240
1.300E-06,0.240
1.310E-06,0.280
1.320E-06,0.240
1.330E-06,0.080
1.340E-06,0.000
1.350E-06,-0.200
1.360E-06,-0.360
1.370E-06,-0.440
1.380E-06,-0.520
1.390E-06,-0.600
1.400E-06,-0.640
1.410E-06,-0.720
1.420E-06,-0.720
1.430E-06,-0.720
1.440E-06,-0.720
1.450E-06,-0.680
1.460E-06,-0.600
1.470E-06,-0.560
1.480E-06,-0.480
1.490E-06,-0.440
1.500E-06,-0.400
1.510E-06,-0.280
1.520E-06,-0.240
1.530E-06,-0.160
1.540E-06,-0.040
1.550E-06,-0.040
1.560E-06,-0.080
1.570E-06,-0.160
1.580E-06,-0.320
1.590E-06,-0.040
1.600E-06,0.040
1.610E-06,0.000
1.620E-06,-0.200
1.630E-06,-0.360
1.640E-06,-0.600
1.650E-06,-0.480
1.660E-06,-0.200
1.670E-06,0.000
1.680E-06,-0.240
1.690E-06,-0.680
1.700E-06,-1.120
1.710E-06,-1.120
1.720E-06,-0.800
1.730E-06,-0.400
1.740E-06,-0.280
1.750E-06,-0.520
1.760E-06,-0.880
1.770E-06,-1.080
1.780E-06,-1.200
1.790E-06,-0.960
1.800E-06,-0.760
1.810E-06,-0.560
1.820E-06,-0.640
1.830E-06,-0.760
1.840E-06,-0.960
1.850E-06,-0.960
1.860E-06,-1.040
1.870E-06,-1.120
1.880E-06,-1.120
1.890E-06,-0.880
1.900E-06,-0.840
1.910E-06,-0.680
1.920E-06,-0.880
1.930E-06,-0.840
1.940E-06,-1.120
1.950E-06,-0.960
1.960E-06,-0.680
1.970E-06,-0.080
1.980E-06,0.080
1.990E-06,0.040
2.000E-06,-0.360
2.010E-06,-0.560
2.020E-06,-1.080
2.030E-06,-0.960
2.040E-06,-0.760
2.050E-06,-0.400
2.060E-06,-0.160
2.070E-06,-0.360
2.080E-06,-0.600
2.090E-06,-0.920
2.100E-06,-0.960
2.110E-06,-0.920
2.120E-06,-0.760
2.130E-06,-0.520
2.140E-06,-0.480
2.150E-06,-0.600
2.160E-06,-0.760
2.170E-06,-0.920
2.180E-06,-0.960
2.190E-06,-0.840
2.200E-06,-0.720
2.210E-06,-0.560
2.220E-06,-0.600
2.230E-06,-0.680
2.240E-06,-0.840
2.250E-06,-0.960
2.260E-06,-1.040
2.270E-06,-0.960
2.280E-06,-0.960
2.290E-06,-1.000
2.300E-06,-1.000
2.310E-06,-1.080
2.320E-06,-1.080
2.330E-06,-1.120
2.340E-06,-1.080
2.350E-06,-1.120
2.360E-06,-1.080
2.370E-06,-1.000
2.380E-06,-0.960
2.390E-06,-1.000
2.400E-06,-0.960
2.410E-06,-1.080
2.420E-06,-1.240
2.430E-06,-1.360
2.440E-06,-1.400
2.450E-06,-1.440
2.460E-06,-1.560
2.470E-06,-1.640
2.480E-06,-1.720
2.490E-06,-1.760
2.500E-06,-1.880
2.510E-06,-1.920
2.520E-06,-2.000
2.530E-06,-2.040
2.540E-06,-1.960
2.550E-06,-2.000
2.560E-06,-1.960
2.570E-06,-1.920
2.580E-06,-1.960
2.590E-06,-1.880
2.600E-06,-1.880
2.610E-06,-1.800
2.620E-06,-1.760
2.630E-06,-1.680
2.640E-06,-1.640
2.650E-06,-1.560
2.660E-06,-1.560
2.670E-06,-1.600
2.680E-06,-1.680
2.690E-06,-1.680
2.700E-06,-1.680
2.710E-06,-1.720
2.720E-06,-1.720
2.730E-06,-1.760
2.740E-06,-1.840
2.750E-06,-1.960
2.760E-06,-2.040
2.770E-06,-2.160
2.780E-06,-2.280
2.790E-06,-2.400
2.800E-06,-2.480
2.810E-06,-2.600
2.820E-06,-2.800
2.830E-06,-3.040
2.840E-06,-3.160
2.850E-06,-3.320
2.860E-06,-3.560
2.870E-06,-3.720
2.880E-06,-3.920
2.890E-06,-4.160
2.900E-06,-4.360
2.910E-06,-4.560
2.920E-06,-4.760
2.930E-06,-4.920
2.940E-06,-5.080
2.950E-06,-5.200
2.960E-06,-5.200
2.970E-06,-5.200
2.980E-06,-5.240
2.990E-06,-5.240
3.000E-06,-5.200
3.010E-06,-5.240
3.020E-06,-5.240
3.030E-06,-5.240
3.040E-06,-5.200
3.050E-06,-5.240
3.060E-06,-5.240
3.070E-06,-5.240
3.080E-06,-5.120
3.090E-06,-5.080
3.100E-06,-4.960
3.110E-06,-4.840
3.120E-06,-4.760
3.130E-06,-4.720
3.140E-06,-4.600
3.150E-06,-4.560
3.160E-06,-4.520
3.170E-06,-4.400
3.180E-06,-4.400
3.190E-06,-4.360
3.200E-06,-4.360
3.210E-06,-4.280
3.220E-06,-4.240
3.230E-06,-4.160
3.240E-06,-4.120
3.250E-06,-4.040
3.260E-06,-3.960
3.270E-06,-3.880
3.280E-06,-3.880
3.290E-06,-3.760
3.300E-06,-3.640
3.310E-06,-3.560
3.320E-06,-3.520
3.330E-06,-3.440
3.340E-06,-3.360
3.350E-06,-3.360
3.360E-06,-3.240
3.370E-06,-3.200
3.380E-06,-3.120
3.390E-06,-3.080
3.400E-06,-3.040
3.410E-06,-3.080
3.420E-06,-3.120
3.430E-06,-3.080
3.440E-06,-3.080
3.450E-06,-3.080
3.460E-06,-3.120
3.470E-06,-3.080
3.480E-06,-3.080
3.490E-06,-3.040
3.500E-06,-3.040
3.510E-06,-3.040
3.520E-06,-2.960
3.530E-06,-2.960
3.540E-06,-2.840
3.550E-06,-2.840
3.560E-06,-2.760
3.570E-06,-2.760
3.580E-06,-2.640
3.590E-06,-2.680
3.600E-06,-2.640
3.610E-06,-2.600
3.620E-06,-2.440
3.630E-06,-2.360
3.640E-06,-2.320
3.650E-06,-2.200
3.660E-06,-2.160
3.670E-06,-2.120
3.680E-06,-2.080
3.690E-06,-2.040
3.700E-06,-2.040
3.710E-06,-2.000
3.720E-06,-2.040
3.730E-06,-2.000
3.740E-06,-1.880
3.750E-06,-1.920
3.760E-06,-1.840
3.770E-06,-1.800
3.780E-06,-1.720
3.790E-06,-1.720
3.800E-06,-1.560
3.810E-06,-1.480
3.820E-06,-1.400
3.830E-06,-1.360
3.840E-06,-1.320
3.850E-06,-1.200
3.860E-06,-1.120
3.870E-06,-1.160
3.880E-06,-1.200
3.890E-06,-1.240
3.900E-06,-1.280
3.910E-06,-1.360
3.920E-06,-1.440
3.930E-06,-1.440
3.940E-06,-1.600
3.950E-06,-1.720
3.960E-06,-1.840
3.970E-06,-2.080
3.980E-06,-2.160
3.990E-06,-2.240
4.000E-06,-2.240
4.010E-06,-2.240
4.020E-06,-2.280
4.030E-06,-2.280
4.040E-06,-2.160
4.050E-06,-2.160
4.060E-06,-2.200
4.070E-06,-2.160
4.080E-06,-2.120
4.090E-06,-2.080
4.100E-06,-1.960
4.110E-06,-1.920
4.120E-06,-1.880
4.130E-06,-1.760
4.140E-06,-1.680
4.150E-06,-1.520
4.160E-06,-1.520
4.170E-06,-1.400
4.180E-06,-1.400
4.190E-06,-1.360
4.200E-06,-1.320
4.210E-06,-1.320
4.220E-06,-1.280
4.230E-06,-1.200
4.240E-06,-1.120
4.250E-06,-1.000
4.260E-06,-1.000
4.270E-06,-0.840
4.280E-06,-0.800
4.290E-06,-0.720
4.300E-06,-0.560
4.310E-06,-0.480
4.320E-06,-0.320
4.330E-06,-0.280
4.340E-06,-0.240
4.350E-06,-0.160
4.360E-06,-0.120
4.370E-06,-0.120
4.380E-06,-0.120
4.390E-06,-0.080
4.400E-06,-0.120
4.410E-06,-0.160
4.420E-06,-0.200
4.430E-06,-0.360
4.440E-06,-0.520
4.450E-06,-0.600
4.460E-06,-0.720
4.470E-06,-0.960
4.480E-06,-1.240
4.490E-06,-1.360
4.500E-06,-1.600
4.510E-06,-1.800
4.520E-06,-1.920
4.530E-06,-2.080
4.540E-06,-2.240
4.550E-06,-2.280
4.560E-06,-2.360
4.570E-06,-2.400
4.580E-06,-2.360
4.590E-06,-2.320
4.600E-06,-2.200
4.610E-06,-2.160
4.620E-06,-2.040
4.630E-06,-1.880
4.640E-06,-1.800
4.650E-06,-1.720
4.660E-06,-1.720
4.670E-06,-1.520
4.680E-06,-1.440
4.690E-06,-1.440
4.700E-06,-1.360
4.710E-06,-1.400
4.720E-06,-1.440
4.730E-06,-1.560
4.740E-06,-1.600
4.750E-06,-1.680
4.760E-06,-1.680
4.770E-06,-1.680
4.780E-06,-1.640
4.790E-06,-1.480
4.800E-06,-1.320
4.810E-06,-1.120
4.820E-06,-0.960
4.830E-06,-0.840
4.840E-06,-0.680
4.850E-06,-0.560
4.860E-06,-0.480
4.870E-06,-0.320
4.880E-06,-0.280
4.890E-06,-0.120
4.900E-06,-0.120
4.910E-06,-0.120
4.920E-06,-0.160
4.930E-06,-0.200
4.940E-06,-0.280
4.950E-06,-0.200
4.960E-06,-0.160
4.970E-06,-0.200
4.980E-06,-0.080
4.990E-06,-0.040
5.000E-06,0.080
5.010E-06,0.160
5.020E-06,0.280
5.030E-06,0.440
5.040E-06,0.440
5.050E-06,0.520
5.060E-06,0.560
5.070E-06,0.600
5.080E-06,0.560
5.090E-06,0.480
5.100E-06,0.400
5.110E-06,0.280
5.120E-06,0.200
5.130E-06,0.080
5.140E-06,-0.040
5.150E-06,-0.080
5.160E-06,-0.200
5.170E-06,-0.160
5.180E-06,-0.200
5.190E-06,-0.240
5.200E-06,-0.280
5.210E-06,-0.360
5.220E-06,-0.400
5.230E-06,-0.400
5.240E-06,-0.480
5.250E-06,-0.600
5.260E-06,-0.720
5.270E-06,-0.760
5.280E-06,-0.840
5.290E-06,-0.840
5.300E-06,-0.880
5.310E-06,-0.880
5.320E-06,-0.880
5.330E-06,-0.840
5.340E-06,-0.800
5.350E-06,-0.760
5.360E-06,-0.680
5.370E-06,-0.560
5.380E-06,-0.440
5.390E-06,-0.440
5.400E-06,-0.400
5.410E-06,-0.320
5.420E-06,-0.360
5.430E-06,-0.400
5.440E-06,-0.520
5.450E-06,-0.600
5.460E-06,-0.640
5.470E-06,-0.840
5.480E-06,-0.840
5.490E-06,-0.920
5.500E-06,-0.800
5.510E-06,-0.800
5.520E-06,-0.760
5.530E-06,-0.720
5.540E-06,-0.640
5.550E-06,-0.520
5.560E-06,-0.480
5.570E-06,-0.360
5.580E-06,-0.240
5.590E-06,-0.200
5.600E-06,-0.040
5.610E-06,-0.040
5.620E-06,-0.040
5.630E-06,0.040
5.640E-06,0.120
5.650E-06,0.040
5.660E-06,0.120
5.670E-06,0.200
5.680E-06,0.200
5.690E-06,0.320
5.700E-06,0.360
5.710E-06,0.360
5.720E-06,0.360
5.730E-06,0.320
5.740E-06,0.400
5.750E-06,0.360
5.760E-06,0.320
5.770E-06,0.360
5.780E-06,0.320
5.790E-06,0.320
5.800E-06,0.360
5.810E-06,0.280
5.820E-06,0.200
5.830E-06,0.160
5.840E-06,0.080
5.850E-06,-0.040
5.860E-06,-0.120
5.870E-06,-0.280
5.880E-06,-0.320
5.890E-06,-0.440
5.900E-06,-0.520
5.910E-06,-0.520
5.920E-06,-0.600
5.930E-06,-0.600
5.940E-06,-0.640
5.950E-06,-0.640
5.960E-06,-0.720
5.970E-06,-0.760
5.980E-06,-0.720
5.990E-06,-0.720
6.000E-06,-0.720
6.010E-06,-0.720
6.020E-06,-0.720
6.030E-06,-0.720
6.040E-06,-0.680
6.050E-06,-0.640
6.060E-06,-0.560
6.070E-06,-0.520
6.080E-06,-0.480
6.090E-06,-0.440
6.100E-06,-0.360
6.110E-06,-0.360
6.120E-06,-0.160
6.130E-06,-0.080
6.140E-06,0.000
6.150E-06,0.120
6.160E-06,0.120
