mediciones/Mediciones filtradas (saque las feas)/5-27/-37.5/WaveData5113.csv

#timebase=2000000(ps)
,#voltbase=1000000(mv/100)
#size=4000
-5.650E-06,-0.040
-5.640E-06,0.000
-5.630E-06,-0.040
-5.620E-06,0.080
-5.610E-06,0.200
-5.600E-06,0.320
-5.590E-06,0.320
-5.580E-06,0.280
-5.570E-06,0.040
-5.560E-06,0.040
-5.550E-06,0.040
-5.540E-06,0.200
-5.530E-06,0.200
-5.520E-06,0.120
-5.510E-06,0.040
-5.500E-06,-0.040
-5.490E-06,0.040
-5.480E-06,0.160
-5.470E-06,0.240
-5.460E-06,0.240
-5.450E-06,0.080
-5.440E-06,0.040
-5.430E-06,-0.120
-5.420E-06,-0.040
-5.410E-06,0.000
-5.400E-06,0.000
-5.390E-06,0.000
-5.380E-06,-0.080
-5.370E-06,-0.120
-5.360E-06,-0.200
-5.350E-06,-0.120
-5.340E-06,-0.040
-5.330E-06,-0.080
-5.320E-06,-0.080
-5.310E-06,-0.120
-5.300E-06,-0.160
-5.290E-06,-0.160
-5.280E-06,-0.160
-5.270E-06,-0.120
-5.260E-06,-0.080
-5.250E-06,-0.120
-5.240E-06,-0.160
-5.230E-06,-0.040
-5.220E-06,-0.040
-5.210E-06,0.000
-5.200E-06,0.040
-5.190E-06,0.000
-5.180E-06,-0.080
-5.170E-06,-0.080
-5.160E-06,0.000
-5.150E-06,0.040
-5.140E-06,0.040
-5.130E-06,0.160
-5.120E-06,0.160
-5.110E-06,0.120
-5.100E-06,0.080
-5.090E-06,0.080
-5.080E-06,0.040
-5.070E-06,0.080
-5.060E-06,0.080
-5.050E-06,0.120
-5.040E-06,0.200
-5.030E-06,0.200
-5.020E-06,0.120
-5.010E-06,0.000
-5.000E-06,0.000
-4.990E-06,-0.040
-4.980E-06,0.080
-4.970E-06,0.080
-4.960E-06,0.080
-4.950E-06,0.000
-4.940E-06,-0.040
-4.930E-06,-0.040
-4.920E-06,-0.040
-4.910E-06,0.000
-4.900E-06,-0.040
-4.890E-06,-0.040
-4.880E-06,-0.080
-4.870E-06,-0.080
-4.860E-06,-0.200
-4.850E-06,-0.080
-4.840E-06,-0.120
-4.830E-06,0.000
-4.820E-06,-0.040
-4.810E-06,-0.040
-4.800E-06,0.000
-4.790E-06,-0.080
-4.780E-06,-0.120
-4.770E-06,-0.120
-4.760E-06,-0.120
-4.750E-06,-0.040
-4.740E-06,0.040
-4.730E-06,0.040
-4.720E-06,0.040
-4.710E-06,0.000
-4.700E-06,0.000
-4.690E-06,0.040
-4.680E-06,0.000
-4.670E-06,0.120
-4.660E-06,0.160
-4.650E-06,0.080
-4.640E-06,-0.040
-4.630E-06,0.000
-4.620E-06,-0.080
-4.610E-06,0.000
-4.600E-06,0.040
-4.590E-06,0.000
-4.580E-06,0.080
-4.570E-06,0.040
-4.560E-06,0.080
-4.550E-06,0.080
-4.540E-06,0.040
-4.530E-06,0.000
-4.520E-06,-0.040
-4.510E-06,0.040
-4.500E-06,0.120
-4.490E-06,0.200
-4.480E-06,0.160
-4.470E-06,0.080
-4.460E-06,-0.080
-4.450E-06,-0.120
-4.440E-06,-0.040
-4.430E-06,0.040
-4.420E-06,0.120
-4.410E-06,0.160
-4.400E-06,0.000
-4.390E-06,-0.040
-4.380E-06,-0.160
-4.370E-06,-0.040
-4.360E-06,0.080
-4.350E-06,0.240
-4.340E-06,0.280
-4.330E-06,0.120
-4.320E-06,0.160
-4.310E-06,0.000
-4.300E-06,0.040
-4.290E-06,0.200
-4.280E-06,0.120
-4.270E-06,0.000
-4.260E-06,-0.040
-4.250E-06,-0.080
-4.240E-06,-0.040
-4.230E-06,0.160
-4.220E-06,0.240
-4.210E-06,0.280
-4.200E-06,0.080
-4.190E-06,-0.080
-4.180E-06,-0.200
-4.170E-06,-0.120
-4.160E-06,0.040
-4.150E-06,0.200
-4.140E-06,0.080
-4.130E-06,-0.040
-4.120E-06,-0.160
-4.110E-06,-0.360
-4.100E-06,-0.160
-4.090E-06,-0.160
-4.080E-06,-0.080
-4.070E-06,0.000
-4.060E-06,-0.120
-4.050E-06,-0.160
-4.040E-06,-0.240
-4.030E-06,-0.360
-4.020E-06,-0.240
-4.010E-06,-0.160
-4.000E-06,-0.160
-3.990E-06,-0.080
-3.980E-06,-0.360
-3.970E-06,-0.120
-3.960E-06,-0.200
-3.950E-06,-0.120
-3.940E-06,0.120
-3.930E-06,0.080
-3.920E-06,0.160
-3.910E-06,0.040
-3.900E-06,-0.240
-3.890E-06,-0.040
-3.880E-06,-0.040
-3.870E-06,0.160
-3.860E-06,0.440
-3.850E-06,0.320
-3.840E-06,0.400
-3.830E-06,0.040
-3.820E-06,-0.080
-3.810E-06,0.200
-3.800E-06,0.040
-3.790E-06,0.240
-3.780E-06,0.320
-3.770E-06,0.120
-3.760E-06,0.000
-3.750E-06,0.120
-3.740E-06,0.160
-3.730E-06,0.400
-3.720E-06,0.200
-3.710E-06,0.040
-3.700E-06,0.040
-3.690E-06,-0.120
-3.680E-06,0.000
-3.670E-06,0.160
-3.660E-06,0.040
-3.650E-06,0.160
-3.640E-06,-0.200
-3.630E-06,-0.120
-3.620E-06,-0.480
-3.610E-06,-0.200
-3.600E-06,0.000
-3.590E-06,-0.080
-3.580E-06,0.000
-3.570E-06,-0.200
-3.560E-06,-0.240
-3.550E-06,-0.280
-3.540E-06,-0.160
-3.530E-06,-0.040
-3.520E-06,-0.080
-3.510E-06,-0.120
-3.500E-06,-0.120
-3.490E-06,-0.240
-3.480E-06,-0.160
-3.470E-06,-0.080
-3.460E-06,-0.160
-3.450E-06,-0.040
-3.440E-06,0.000
-3.430E-06,-0.200
-3.420E-06,-0.120
-3.410E-06,-0.240
-3.400E-06,-0.040
-3.390E-06,0.120
-3.380E-06,0.320
-3.370E-06,0.440
-3.360E-06,0.200
-3.350E-06,0.120
-3.340E-06,0.000
-3.330E-06,0.000
-3.320E-06,0.120
-3.310E-06,0.280
-3.300E-06,0.320
-3.290E-06,0.200
-3.280E-06,0.160
-3.270E-06,0.040
-3.260E-06,0.080
-3.250E-06,0.040
-3.240E-06,-0.040
-3.230E-06,0.080
-3.220E-06,0.080
-3.210E-06,-0.080
-3.200E-06,0.000
-3.190E-06,-0.200
-3.180E-06,-0.080
-3.170E-06,-0.240
-3.160E-06,-0.160
-3.150E-06,-0.120
-3.140E-06,-0.280
-3.130E-06,-0.120
-3.120E-06,-0.280
-3.110E-06,-0.280
-3.100E-06,-0.160
-3.090E-06,-0.320
-3.080E-06,-0.160
-3.070E-06,-0.320
-3.060E-06,-0.240
-3.050E-06,-0.080
-3.040E-06,-0.360
-3.030E-06,-0.080
-3.020E-06,-0.040
-3.010E-06,-0.120
-3.000E-06,0.480
-2.990E-06,0.320
-2.980E-06,0.400
-2.970E-06,0.280
-2.960E-06,-0.080
-2.950E-06,-0.040
-2.940E-06,-0.040
-2.930E-06,0.280
-2.920E-06,0.400
-2.910E-06,0.320
-2.900E-06,0.200
-2.890E-06,0.040
-2.880E-06,-0.040
-2.870E-06,0.000
-2.860E-06,0.080
-2.850E-06,0.080
-2.840E-06,0.080
-2.830E-06,0.000
-2.820E-06,-0.080
-2.810E-06,-0.120
-2.800E-06,-0.160
-2.790E-06,-0.200
-2.780E-06,-0.200
-2.770E-06,-0.200
-2.760E-06,-0.280
-2.750E-06,-0.280
-2.740E-06,-0.240
-2.730E-06,-0.320
-2.720E-06,-0.200
-2.710E-06,-0.400
-2.700E-06,-0.320
-2.690E-06,-0.360
-2.680E-06,-0.160
-2.670E-06,-0.240
-2.660E-06,-0.040
-2.650E-06,-0.120
-2.640E-06,-0.040
-2.630E-06,-0.120
-2.620E-06,0.200
-2.610E-06,0.240
-2.600E-06,0.320
-2.590E-06,0.360
-2.580E-06,0.160
-2.570E-06,0.160
-2.560E-06,0.200
-2.550E-06,0.280
-2.540E-06,0.320
-2.530E-06,0.360
-2.520E-06,0.320
-2.510E-06,0.200
-2.500E-06,0.120
-2.490E-06,0.160
-2.480E-06,0.120
-2.470E-06,0.120
-2.460E-06,0.120
-2.450E-06,0.080
-2.440E-06,-0.040
-2.430E-06,0.000
-2.420E-06,-0.240
-2.410E-06,0.040
-2.400E-06,-0.200
-2.390E-06,-0.200
-2.380E-06,-0.320
-2.370E-06,-0.320
-2.360E-06,-0.360
-2.350E-06,-0.360
-2.340E-06,-0.240
-2.330E-06,-0.120
-2.320E-06,-0.240
-2.310E-06,-0.360
-2.300E-06,-0.320
-2.290E-06,-0.440
-2.280E-06,-0.240
-2.270E-06,-0.120
-2.260E-06,0.120
-2.250E-06,0.120
-2.240E-06,0.120
-2.230E-06,0.080
-2.220E-06,0.000
-2.210E-06,0.160
-2.200E-06,0.360
-2.190E-06,0.440
-2.180E-06,0.400
-2.170E-06,0.320
-2.160E-06,0.240
-2.150E-06,0.240
-2.140E-06,0.360
-2.130E-06,0.400
-2.120E-06,0.440
-2.110E-06,0.440
-2.100E-06,0.320
-2.090E-06,0.360
-2.080E-06,0.320
-2.070E-06,0.360
-2.060E-06,0.320
-2.050E-06,0.200
-2.040E-06,0.080
-2.030E-06,0.080
-2.020E-06,0.120
-2.010E-06,0.280
-2.000E-06,0.360
-1.990E-06,0.200
-1.980E-06,0.080
-1.970E-06,0.000
-1.960E-06,-0.040
-1.950E-06,0.160
-1.940E-06,0.240
-1.930E-06,0.320
-1.920E-06,0.080
-1.910E-06,0.040
-1.900E-06,0.000
-1.890E-06,-0.080
-1.880E-06,0.280
-1.870E-06,0.440
-1.860E-06,0.480
-1.850E-06,0.480
-1.840E-06,0.280
-1.830E-06,0.160
-1.820E-06,0.160
-1.810E-06,0.280
-1.800E-06,0.360
-1.790E-06,0.320
-1.780E-06,0.280
-1.770E-06,0.120
-1.760E-06,0.080
-1.750E-06,0.000
-1.740E-06,0.080
-1.730E-06,0.080
-1.720E-06,0.000
-1.710E-06,0.080
-1.700E-06,-0.080
-1.690E-06,-0.160
-1.680E-06,-0.240
-1.670E-06,-0.280
-1.660E-06,-0.320
-1.650E-06,-0.360
-1.640E-06,-0.360
-1.630E-06,-0.440
-1.620E-06,-0.480
-1.610E-06,-0.480
-1.600E-06,-0.520
-1.590E-06,-0.320
-1.580E-06,-0.400
-1.570E-06,-0.400
-1.560E-06,-0.360
-1.550E-06,-0.280
-1.540E-06,-0.200
-1.530E-06,-0.160
-1.520E-06,-0.080
-1.510E-06,0.000
-1.500E-06,-0.040
-1.490E-06,0.120
-1.480E-06,0.120
-1.470E-06,0.280
-1.460E-06,0.360
-1.450E-06,0.120
-1.440E-06,0.400
-1.430E-06,0.040
-1.420E-06,0.360
-1.410E-06,0.240
-1.400E-06,0.480
-1.390E-06,0.320
-1.380E-06,0.160
-1.370E-06,0.160
-1.360E-06,0.040
-1.350E-06,0.400
-1.340E-06,0.640
-1.330E-06,0.960
-1.320E-06,0.840
-1.310E-06,0.440
-1.300E-06,0.080
-1.290E-06,-0.360
-1.280E-06,0.120
-1.270E-06,0.280
-1.260E-06,0.080
-1.250E-06,0.160
-1.240E-06,-0.320
-1.230E-06,-0.480
-1.220E-06,-0.280
-1.210E-06,0.040
-1.200E-06,0.720
-1.190E-06,-0.080
-1.180E-06,-0.120
-1.170E-06,-0.520
-1.160E-06,-0.840
-1.150E-06,0.000
-1.140E-06,0.360
-1.130E-06,0.560
-1.120E-06,0.360
-1.110E-06,-0.360
-1.100E-06,-0.640
-1.090E-06,-0.560
-1.080E-06,-0.080
-1.070E-06,0.360
-1.060E-06,0.400
-1.050E-06,0.120
-1.040E-06,-0.200
-1.030E-06,-0.480
-1.020E-06,-0.320
-1.010E-06,-0.040
-1.000E-06,0.080
-9.900E-07,0.120
-9.800E-07,-0.040
-9.700E-07,-0.160
-9.600E-07,-0.240
-9.500E-07,-0.200
-9.400E-07,-0.160
-9.300E-07,-0.200
-9.200E-07,-0.200
-9.100E-07,-0.360
-9.000E-07,-0.440
-8.900E-07,-0.560
-8.800E-07,-0.440
-8.700E-07,-0.520
-8.600E-07,-0.520
-8.500E-07,-0.480
-8.400E-07,-0.360
-8.300E-07,-0.440
-8.200E-07,-0.400
-8.100E-07,-0.480
-8.000E-07,-0.160
-7.900E-07,-0.240
-7.800E-07,0.360
-7.700E-07,0.440
-7.600E-07,0.480
-7.500E-07,0.440
-7.400E-07,0.080
-7.300E-07,0.200
-7.200E-07,0.240
-7.100E-07,0.440
-7.000E-07,0.640
-6.900E-07,0.520
-6.800E-07,0.360
-6.700E-07,0.160
-6.600E-07,0.080
-6.500E-07,0.120
-6.400E-07,0.200
-6.300E-07,0.120
-6.200E-07,0.120
-6.100E-07,0.000
-6.000E-07,-0.120
-5.900E-07,-0.160
-5.800E-07,-0.280
-5.700E-07,-0.320
-5.600E-07,-0.360
-5.500E-07,-0.440
-5.400E-07,-0.400
-5.300E-07,-0.480
-5.200E-07,-0.520
-5.100E-07,-0.480
-5.000E-07,-0.600
-4.900E-07,-0.600
-4.800E-07,-0.560
-4.700E-07,-0.520
-4.600E-07,-0.520
-4.500E-07,-0.480
-4.400E-07,-0.480
-4.300E-07,-0.520
-4.200E-07,-0.480
-4.100E-07,-0.440
-4.000E-07,-0.400
-3.900E-07,-0.320
-3.800E-07,-0.280
-3.700E-07,-0.240
-3.600E-07,-0.280
-3.500E-07,-0.280
-3.400E-07,-0.240
-3.300E-07,-0.240
-3.200E-07,-0.160
-3.100E-07,-0.160
-3.000E-07,-0.080
-2.900E-07,-0.040
-2.800E-07,-0.040
-2.700E-07,-0.120
-2.600E-07,-0.040
-2.500E-07,-0.040
-2.400E-07,0.000
-2.300E-07,0.040
-2.200E-07,0.080
-2.100E-07,0.000
-2.000E-07,0.040
-1.900E-07,0.040
-1.800E-07,0.040
-1.700E-07,0.040
-1.600E-07,0.080
-1.500E-07,0.040
-1.400E-07,0.080
-1.300E-07,0.000
-1.200E-07,0.080
-1.100E-07,0.080
-1.000E-07,0.160
-9.000E-08,0.160
-8.000E-08,0.080
-7.000E-08,0.120
-6.000E-08,-0.040
-5.000E-08,-0.040
-4.000E-08,-0.160
-3.000E-08,0.200
-2.000E-08,-0.640
-1.000E-08,-0.520
0.000E+00,-0.600
1.000E-08,-0.280
2.000E-08,-0.160
3.000E-08,1.000
4.000E-08,0.720
5.000E-08,0.520
6.000E-08,-0.120
7.000E-08,-0.680
8.000E-08,-0.480
9.000E-08,-0.080
1.000E-07,0.640
1.100E-07,0.680
1.200E-07,0.440
1.300E-07,-0.240
1.400E-07,-0.400
1.500E-07,-0.640
1.600E-07,-0.080
1.700E-07,0.000
1.800E-07,-0.080
1.900E-07,0.040
2.000E-07,-0.560
2.100E-07,-0.560
2.200E-07,-0.800
2.300E-07,-0.680
2.400E-07,-0.960
2.500E-07,-0.520
2.600E-07,-0.840
2.700E-07,-0.520
2.800E-07,-0.680
2.900E-07,-0.440
3.000E-07,-0.600
3.100E-07,-0.080
3.200E-07,-0.720
3.300E-07,-0.560
3.400E-07,-0.560
3.500E-07,-0.440
3.600E-07,0.080
3.700E-07,0.680
3.800E-07,0.720
3.900E-07,0.480
4.000E-07,0.360
4.100E-07,-0.040
4.200E-07,0.200
4.300E-07,0.280
4.400E-07,0.400
4.500E-07,0.520
4.600E-07,0.320
4.700E-07,0.560
4.800E-07,0.520
4.900E-07,0.600
5.000E-07,0.480
5.100E-07,0.320
5.200E-07,0.160
5.300E-07,0.120
5.400E-07,0.200
5.500E-07,0.200
5.600E-07,0.120
5.700E-07,-0.040
5.800E-07,-0.360
5.900E-07,-0.440
6.000E-07,-0.480
6.100E-07,-0.520
6.200E-07,-0.560
6.300E-07,-0.680
6.400E-07,-0.560
6.500E-07,-0.760
6.600E-07,-0.600
6.700E-07,-0.720
6.800E-07,-0.800
6.900E-07,-0.760
7.000E-07,-0.680
7.100E-07,-0.520
7.200E-07,-0.120
7.300E-07,-0.040
7.400E-07,0.040
7.500E-07,0.000
7.600E-07,-0.040
7.700E-07,-0.040
7.800E-07,-0.040
7.900E-07,0.080
8.000E-07,0.120
8.100E-07,0.000
8.200E-07,-0.080
8.300E-07,-0.200
8.400E-07,-0.200
8.500E-07,-0.120
8.600E-07,-0.040
8.700E-07,0.000
8.800E-07,0.000
8.900E-07,-0.040
9.000E-07,-0.200
9.100E-07,-0.200
9.200E-07,-0.120
9.300E-07,-0.040
9.400E-07,-0.080
9.500E-07,0.000
9.600E-07,-0.120
9.700E-07,-0.080
9.800E-07,-0.440
9.900E-07,-0.400
1.000E-06,-0.440
1.010E-06,-0.440
1.020E-06,-0.360
1.030E-06,-0.360
1.040E-06,-0.360
1.050E-06,-0.480
1.060E-06,-0.440
1.070E-06,-0.360
1.080E-06,-0.120
1.090E-06,-0.040
1.100E-06,0.120
1.110E-06,0.080
1.120E-06,0.000
1.130E-06,0.000
1.140E-06,-0.040
1.150E-06,0.040
1.160E-06,0.120
1.170E-06,0.120
1.180E-06,0.200
1.190E-06,0.160
1.200E-06,0.680
1.210E-06,0.000
1.220E-06,0.440
1.230E-06,0.280
1.240E-06,0.160
1.250E-06,0.880
1.260E-06,0.840
1.270E-06,1.040
1.280E-06,0.720
1.290E-06,0.040
1.300E-06,0.080
1.310E-06,0.000
1.320E-06,0.480
1.330E-06,0.760
1.340E-06,0.480
1.350E-06,0.080
1.360E-06,-0.320
1.370E-06,-0.520
1.380E-06,-0.400
1.390E-06,-0.200
1.400E-06,-0.080
1.410E-06,-0.080
1.420E-06,-0.320
1.430E-06,-0.600
1.440E-06,-0.800
1.450E-06,-0.960
1.460E-06,-0.960
1.470E-06,-0.880
1.480E-06,-0.880
1.490E-06,-0.840
1.500E-06,-0.840
1.510E-06,-0.920
1.520E-06,-0.840
1.530E-06,-0.920
1.540E-06,-0.880
1.550E-06,-0.840
1.560E-06,-0.680
1.570E-06,-0.680
1.580E-06,-0.600
1.590E-06,-0.560
1.600E-06,-0.480
1.610E-06,-0.400
1.620E-06,-0.360
1.630E-06,-0.240
1.640E-06,-0.160
1.650E-06,-0.040
1.660E-06,-0.040
1.670E-06,-0.040
1.680E-06,-0.080
1.690E-06,-0.160
1.700E-06,-0.160
1.710E-06,-0.080
1.720E-06,-0.080
1.730E-06,-0.040
1.740E-06,-0.040
1.750E-06,-0.040
1.760E-06,-0.080
1.770E-06,-0.080
1.780E-06,0.000
1.790E-06,-0.040
1.800E-06,-0.040
1.810E-06,0.040
1.820E-06,0.040
1.830E-06,0.120
1.840E-06,0.200
1.850E-06,0.160
1.860E-06,0.160
1.870E-06,0.200
1.880E-06,0.000
1.890E-06,0.160
1.900E-06,0.000
1.910E-06,-0.040
1.920E-06,-0.040
1.930E-06,-0.360
1.940E-06,-0.240
1.950E-06,-0.160
1.960E-06,0.120
1.970E-06,0.320
1.980E-06,0.600
1.990E-06,0.480
2.000E-06,-0.960
2.010E-06,-0.840
2.020E-06,-0.840
2.030E-06,-1.120
2.040E-06,0.920
2.050E-06,0.880
2.060E-06,1.440
2.070E-06,0.880
2.080E-06,-0.160
2.090E-06,-0.520
2.100E-06,-0.560
2.110E-06,0.160
2.120E-06,0.960
2.130E-06,0.920
2.140E-06,0.800
2.150E-06,0.240
2.160E-06,-0.360
2.170E-06,-0.400
2.180E-06,-0.280
2.190E-06,-0.120
2.200E-06,0.080
2.210E-06,-0.040
2.220E-06,-0.280
2.230E-06,-0.520
2.240E-06,-0.920
2.250E-06,-1.040
2.260E-06,-1.120
2.270E-06,-1.200
2.280E-06,-1.200
2.290E-06,-1.080
2.300E-06,-1.040
2.310E-06,-1.080
2.320E-06,-1.200
2.330E-06,-1.200
2.340E-06,-1.080
2.350E-06,-0.800
2.360E-06,-0.520
2.370E-06,-0.120
2.380E-06,0.120
2.390E-06,0.120
2.400E-06,0.200
2.410E-06,0.120
2.420E-06,0.120
2.430E-06,0.480
2.440E-06,0.560
2.450E-06,0.880
2.460E-06,0.840
2.470E-06,0.800
2.480E-06,0.800
2.490E-06,0.680
2.500E-06,0.640
2.510E-06,0.560
2.520E-06,0.720
2.530E-06,0.760
2.540E-06,0.920
2.550E-06,0.920
2.560E-06,0.960
2.570E-06,0.520
2.580E-06,1.360
2.590E-06,-0.680
2.600E-06,-0.400
2.610E-06,-0.360
2.620E-06,-1.480
2.630E-06,0.960
2.640E-06,0.680
2.650E-06,1.800
2.660E-06,1.160
2.670E-06,-0.360
2.680E-06,-0.480
2.690E-06,-0.840
2.700E-06,0.000
2.710E-06,0.760
2.720E-06,0.560
2.730E-06,0.320
2.740E-06,-0.320
2.750E-06,-0.800
2.760E-06,-0.880
2.770E-06,-0.600
2.780E-06,-0.600
2.790E-06,-0.360
2.800E-06,-0.600
2.810E-06,-0.760
2.820E-06,-0.760
2.830E-06,-0.840
2.840E-06,-0.760
2.850E-06,-0.640
2.860E-06,-0.680
2.870E-06,-0.520
2.880E-06,-0.440
2.890E-06,-0.400
2.900E-06,-0.160
2.910E-06,-0.080
2.920E-06,-0.080
2.930E-06,0.000
2.940E-06,0.040
2.950E-06,0.160
2.960E-06,0.400
2.970E-06,0.520
2.980E-06,0.800
2.990E-06,1.040
3.000E-06,1.080
3.010E-06,1.240
3.020E-06,1.360
3.030E-06,1.320
3.040E-06,1.440
3.050E-06,1.360
3.060E-06,1.160
3.070E-06,1.040
3.080E-06,1.160
3.090E-06,1.440
3.100E-06,1.720
3.110E-06,1.720
3.120E-06,1.520
3.130E-06,1.040
3.140E-06,0.680
3.150E-06,0.520
3.160E-06,0.120
3.170E-06,0.520
3.180E-06,-0.320
3.190E-06,-1.120
3.200E-06,-1.520
3.210E-06,-2.000
3.220E-06,-1.040
3.230E-06,0.040
3.240E-06,1.280
3.250E-06,1.760
3.260E-06,1.320
3.270E-06,0.560
3.280E-06,0.280
3.290E-06,0.480
3.300E-06,1.440
3.310E-06,1.920
3.320E-06,2.120
3.330E-06,1.720
3.340E-06,1.080
3.350E-06,0.640
3.360E-06,0.520
3.370E-06,0.520
3.380E-06,0.600
3.390E-06,0.400
3.400E-06,0.040
3.410E-06,-0.360
3.420E-06,-0.760
3.430E-06,-1.080
3.440E-06,-1.160
3.450E-06,-1.320
3.460E-06,-1.360
3.470E-06,-1.280
3.480E-06,-1.280
3.490E-06,-1.200
3.500E-06,-1.160
3.510E-06,-1.080
3.520E-06,-0.920
3.530E-06,-0.800
3.540E-06,-0.640
3.550E-06,-0.400
3.560E-06,-0.240
3.570E-06,-0.080
3.580E-06,0.000
3.590E-06,0.000
3.600E-06,0.120
3.610E-06,0.200
3.620E-06,0.200
3.630E-06,0.400
3.640E-06,0.480
3.650E-06,0.480
3.660E-06,0.360
3.670E-06,0.280
3.680E-06,0.200
3.690E-06,0.160
3.700E-06,0.160
3.710E-06,0.000
3.720E-06,-0.040
3.730E-06,-0.120
3.740E-06,-0.240
3.750E-06,-0.240
3.760E-06,-0.240
3.770E-06,-0.160
3.780E-06,-0.080
3.790E-06,-0.080
3.800E-06,0.000
3.810E-06,-0.080
3.820E-06,-0.120
3.830E-06,-0.040
3.840E-06,-0.120
3.850E-06,0.280
3.860E-06,-1.160
3.870E-06,1.040
3.880E-06,-0.960
3.890E-06,-3.120
3.900E-06,-2.640
3.910E-06,-5.200
3.920E-06,-3.560
3.930E-06,-0.960
3.940E-06,1.440
3.950E-06,3.160
3.960E-06,1.600
3.970E-06,-0.800
3.980E-06,-2.160
3.990E-06,-2.800
4.000E-06,-0.360
4.010E-06,1.040
4.020E-06,1.800
4.030E-06,2.000
4.040E-06,1.040
4.050E-06,0.320
4.060E-06,0.120
4.070E-06,-0.240
4.080E-06,0.040
4.090E-06,0.120
4.100E-06,-0.040
4.110E-06,-0.040
4.120E-06,-0.200
4.130E-06,-0.680
4.140E-06,-0.880
4.150E-06,-1.360
4.160E-06,-1.400
4.170E-06,-1.320
4.180E-06,-1.280
4.190E-06,-0.720
4.200E-06,-0.840
4.210E-06,-0.880
4.220E-06,-1.000
4.230E-06,-0.880
4.240E-06,-0.760
4.250E-06,-0.360
4.260E-06,0.000
4.270E-06,0.160
4.280E-06,0.440
4.290E-06,0.640
4.300E-06,0.520
4.310E-06,0.720
4.320E-06,0.720
4.330E-06,0.680
4.340E-06,0.680
4.350E-06,0.520
4.360E-06,0.400
4.370E-06,0.400
4.380E-06,0.080
4.390E-06,0.200
4.400E-06,0.120
4.410E-06,-0.400
4.420E-06,-0.200
4.430E-06,-0.400
4.440E-06,-0.800
4.450E-06,-0.840
4.460E-06,-0.920
4.470E-06,-0.480
4.480E-06,0.000
4.490E-06,0.440
4.500E-06,0.680
4.510E-06,0.400
4.520E-06,-0.360
4.530E-06,-0.760
4.540E-06,-1.000
4.550E-06,-0.480
4.560E-06,0.120
4.570E-06,0.560
4.580E-06,0.760
4.590E-06,0.480
4.600E-06,0.080
4.610E-06,-0.160
4.620E-06,-0.360
4.630E-06,-0.280
4.640E-06,-0.080
4.650E-06,-0.080
4.660E-06,0.000
4.670E-06,-0.160
4.680E-06,-0.480
4.690E-06,-0.640
4.700E-06,-0.920
4.710E-06,-1.040
4.720E-06,-1.000
4.730E-06,-1.000
4.740E-06,-1.040
4.750E-06,-1.000
4.760E-06,-1.120
4.770E-06,-1.120
4.780E-06,-1.160
4.790E-06,-1.160
4.800E-06,-1.080
4.810E-06,-1.040
4.820E-06,-1.000
4.830E-06,-0.960
4.840E-06,-1.040
4.850E-06,-1.000
4.860E-06,-1.000
4.870E-06,-1.080
4.880E-06,-0.960
4.890E-06,-0.880
4.900E-06,-0.840
4.910E-06,-0.800
4.920E-06,-0.840
4.930E-06,-0.840
4.940E-06,-0.960
4.950E-06,-0.880
4.960E-06,-0.880
4.970E-06,-0.800
4.980E-06,-0.800
4.990E-06,-0.760
5.000E-06,-0.720
5.010E-06,-0.680
5.020E-06,-0.600
5.030E-06,-0.560
5.040E-06,-0.560
5.050E-06,-0.680
5.060E-06,-0.760
5.070E-06,-0.880
5.080E-06,-1.000
5.090E-06,-1.200
5.100E-06,-1.320
5.110E-06,-1.400
5.120E-06,-1.520
5.130E-06,-1.600
5.140E-06,-1.720
5.150E-06,-1.760
5.160E-06,-1.880
5.170E-06,-1.960
5.180E-06,-2.000
5.190E-06,-2.120
5.200E-06,-2.160
5.210E-06,-2.320
5.220E-06,-2.360
5.230E-06,-2.480
5.240E-06,-2.400
5.250E-06,-2.480
5.260E-06,-2.480
5.270E-06,-2.600
5.280E-06,-2.760
5.290E-06,-3.040
5.300E-06,-3.280
5.310E-06,-3.320
5.320E-06,-3.160
5.330E-06,-2.920
5.340E-06,-2.720
5.350E-06,-2.760
5.360E-06,-3.160
5.370E-06,-3.920
5.380E-06,-4.880
5.390E-06,-5.200
5.400E-06,-5.240
5.410E-06,-5.240
5.420E-06,-5.240
5.430E-06,-4.640
5.440E-06,-4.240
5.450E-06,-3.840
5.460E-06,-4.200
5.470E-06,-4.280
5.480E-06,-4.520
5.490E-06,-4.200
5.500E-06,-3.560
5.510E-06,-2.880
5.520E-06,-2.200
5.530E-06,-1.880
5.540E-06,-1.880
5.550E-06,-1.760
5.560E-06,-1.840
5.570E-06,-1.760
5.580E-06,-1.680
5.590E-06,-1.520
5.600E-06,-1.480
5.610E-06,-1.560
5.620E-06,-1.760
5.630E-06,-2.120
5.640E-06,-2.680
5.650E-06,-3.160
5.660E-06,-3.640
5.670E-06,-4.080
5.680E-06,-4.440
5.690E-06,-4.720
5.700E-06,-5.040
5.710E-06,-5.200
5.720E-06,-5.200
5.730E-06,-5.240
5.740E-06,-5.240
5.750E-06,-5.200
5.760E-06,-5.200
5.770E-06,-5.200
5.780E-06,-5.200
5.790E-06,-5.200
5.800E-06,-5.200
5.810E-06,-5.000
5.820E-06,-4.680
5.830E-06,-4.400
5.840E-06,-4.000
5.850E-06,-3.720
5.860E-06,-3.560
5.870E-06,-3.400
5.880E-06,-3.400
5.890E-06,-3.400
5.900E-06,-3.440
5.910E-06,-3.480
5.920E-06,-3.600
5.930E-06,-3.680
5.940E-06,-3.640
5.950E-06,-3.760
5.960E-06,-3.760
5.970E-06,-3.800
5.980E-06,-3.840
5.990E-06,-3.920
6.000E-06,-3.960
6.010E-06,-3.960
6.020E-06,-3.880
6.030E-06,-3.840
