mediciones/Mediciones filtradas (saque las feas)/5-27/-37.5/WaveData5130.csv

#timebase=2000000(ps)
,#voltbase=100000(mv/100)
#size=4000
-5.650E-06,0.008
-5.640E-06,0.000
-5.630E-06,0.008
-5.620E-06,0.004
-5.610E-06,0.008
-5.600E-06,0.004
-5.590E-06,0.012
-5.580E-06,0.000
-5.570E-06,0.004
-5.560E-06,-0.004
-5.550E-06,-0.004
-5.540E-06,-0.004
-5.530E-06,0.000
-5.520E-06,0.012
-5.510E-06,0.004
-5.500E-06,0.008
-5.490E-06,0.004
-5.480E-06,0.000
-5.470E-06,0.000
-5.460E-06,0.000
-5.450E-06,0.004
-5.440E-06,0.000
-5.430E-06,0.004
-5.420E-06,0.004
-5.410E-06,0.008
-5.400E-06,-0.004
-5.390E-06,0.004
-5.380E-06,0.004
-5.370E-06,0.004
-5.360E-06,0.004
-5.350E-06,0.004
-5.340E-06,-0.004
-5.330E-06,-0.004
-5.320E-06,-0.004
-5.310E-06,-0.004
-5.300E-06,0.004
-5.290E-06,0.004
-5.280E-06,0.004
-5.270E-06,0.004
-5.260E-06,0.004
-5.250E-06,0.000
-5.240E-06,0.004
-5.230E-06,0.008
-5.220E-06,0.004
-5.210E-06,0.000
-5.200E-06,0.000
-5.190E-06,0.000
-5.180E-06,0.008
-5.170E-06,0.012
-5.160E-06,0.012
-5.150E-06,0.012
-5.140E-06,0.008
-5.130E-06,-0.004
-5.120E-06,-0.004
-5.110E-06,0.000
-5.100E-06,0.008
-5.090E-06,0.008
-5.080E-06,0.004
-5.070E-06,0.000
-5.060E-06,0.000
-5.050E-06,0.000
-5.040E-06,0.004
-5.030E-06,0.008
-5.020E-06,0.008
-5.010E-06,0.004
-5.000E-06,0.004
-4.990E-06,-0.008
-4.980E-06,0.000
-4.970E-06,0.000
-4.960E-06,0.008
-4.950E-06,0.000
-4.940E-06,0.000
-4.930E-06,-0.004
-4.920E-06,0.000
-4.910E-06,0.008
-4.900E-06,0.000
-4.890E-06,0.004
-4.880E-06,0.004
-4.870E-06,-0.004
-4.860E-06,0.000
-4.850E-06,0.004
-4.840E-06,0.008
-4.830E-06,0.008
-4.820E-06,0.008
-4.810E-06,-0.004
-4.800E-06,0.000
-4.790E-06,-0.004
-4.780E-06,0.004
-4.770E-06,0.004
-4.760E-06,0.004
-4.750E-06,0.008
-4.740E-06,0.000
-4.730E-06,-0.004
-4.720E-06,-0.004
-4.710E-06,-0.004
-4.700E-06,0.004
-4.690E-06,0.008
-4.680E-06,0.004
-4.670E-06,0.008
-4.660E-06,0.004
-4.650E-06,0.004
-4.640E-06,-0.004
-4.630E-06,0.012
-4.620E-06,0.004
-4.610E-06,-0.008
-4.600E-06,0.012
-4.590E-06,-0.008
-4.580E-06,0.000
-4.570E-06,0.016
-4.560E-06,0.008
-4.550E-06,0.012
-4.540E-06,0.008
-4.530E-06,-0.036
-4.520E-06,-0.040
-4.510E-06,0.008
-4.500E-06,0.020
-4.490E-06,0.032
-4.480E-06,0.024
-4.470E-06,-0.004
-4.460E-06,-0.020
-4.450E-06,-0.012
-4.440E-06,-0.004
-4.430E-06,0.016
-4.420E-06,0.024
-4.410E-06,0.020
-4.400E-06,0.000
-4.390E-06,-0.004
-4.380E-06,-0.008
-4.370E-06,0.000
-4.360E-06,0.016
-4.350E-06,0.016
-4.340E-06,0.012
-4.330E-06,0.000
-4.320E-06,-0.004
-4.310E-06,0.004
-4.300E-06,0.008
-4.290E-06,0.012
-4.280E-06,0.004
-4.270E-06,0.000
-4.260E-06,0.000
-4.250E-06,-0.004
-4.240E-06,0.008
-4.230E-06,0.012
-4.220E-06,0.008
-4.210E-06,0.004
-4.200E-06,-0.004
-4.190E-06,0.000
-4.180E-06,-0.004
-4.170E-06,0.008
-4.160E-06,0.012
-4.150E-06,0.004
-4.140E-06,-0.004
-4.130E-06,-0.004
-4.120E-06,0.000
-4.110E-06,0.000
-4.100E-06,0.008
-4.090E-06,0.004
-4.080E-06,0.004
-4.070E-06,0.000
-4.060E-06,0.000
-4.050E-06,-0.004
-4.040E-06,0.004
-4.030E-06,0.008
-4.020E-06,0.008
-4.010E-06,0.008
-4.000E-06,0.000
-3.990E-06,0.000
-3.980E-06,-0.008
-3.970E-06,0.004
-3.960E-06,0.004
-3.950E-06,0.012
-3.940E-06,0.008
-3.930E-06,0.004
-3.920E-06,0.004
-3.910E-06,0.004
-3.900E-06,0.000
-3.890E-06,0.004
-3.880E-06,0.000
-3.870E-06,0.000
-3.860E-06,0.000
-3.850E-06,0.004
-3.840E-06,0.004
-3.830E-06,0.004
-3.820E-06,0.000
-3.810E-06,0.004
-3.800E-06,0.008
-3.790E-06,0.004
-3.780E-06,0.000
-3.770E-06,0.004
-3.760E-06,-0.004
-3.750E-06,-0.004
-3.740E-06,0.000
-3.730E-06,0.000
-3.720E-06,0.008
-3.710E-06,0.008
-3.700E-06,0.004
-3.690E-06,0.004
-3.680E-06,0.004
-3.670E-06,0.004
-3.660E-06,0.008
-3.650E-06,0.004
-3.640E-06,0.004
-3.630E-06,0.000
-3.620E-06,0.000
-3.610E-06,0.000
-3.600E-06,0.000
-3.590E-06,0.008
-3.580E-06,0.016
-3.570E-06,0.000
-3.560E-06,-0.008
-3.550E-06,0.000
-3.540E-06,0.000
-3.530E-06,0.008
-3.520E-06,0.008
-3.510E-06,0.012
-3.500E-06,0.008
-3.490E-06,0.008
-3.480E-06,0.004
-3.470E-06,0.000
-3.460E-06,0.000
-3.450E-06,0.008
-3.440E-06,0.008
-3.430E-06,0.012
-3.420E-06,0.004
-3.410E-06,0.004
-3.400E-06,0.008
-3.390E-06,0.012
-3.380E-06,0.008
-3.370E-06,0.004
-3.360E-06,0.008
-3.350E-06,0.004
-3.340E-06,0.000
-3.330E-06,0.004
-3.320E-06,0.008
-3.310E-06,0.012
-3.300E-06,0.016
-3.290E-06,0.008
-3.280E-06,0.004
-3.270E-06,0.004
-3.260E-06,0.004
-3.250E-06,0.012
-3.240E-06,0.012
-3.230E-06,0.012
-3.220E-06,0.008
-3.210E-06,0.000
-3.200E-06,-0.004
-3.190E-06,0.000
-3.180E-06,0.008
-3.170E-06,0.012
-3.160E-06,0.012
-3.150E-06,0.008
-3.140E-06,-0.004
-3.130E-06,-0.004
-3.120E-06,0.004
-3.110E-06,0.004
-3.100E-06,0.020
-3.090E-06,0.016
-3.080E-06,0.012
-3.070E-06,0.004
-3.060E-06,0.000
-3.050E-06,0.028
-3.040E-06,-0.004
-3.030E-06,0.000
-3.020E-06,-0.016
-3.010E-06,-0.016
-3.000E-06,-0.008
-2.990E-06,-0.004
-2.980E-06,0.016
-2.970E-06,0.012
-2.960E-06,0.016
-2.950E-06,0.000
-2.940E-06,-0.008
-2.930E-06,-0.004
-2.920E-06,-0.004
-2.910E-06,0.004
-2.900E-06,0.016
-2.890E-06,0.008
-2.880E-06,0.008
-2.870E-06,0.004
-2.860E-06,-0.004
-2.850E-06,0.000
-2.840E-06,-0.004
-2.830E-06,0.004
-2.820E-06,0.008
-2.810E-06,0.008
-2.800E-06,0.004
-2.790E-06,0.000
-2.780E-06,0.000
-2.770E-06,0.000
-2.760E-06,0.004
-2.750E-06,0.008
-2.740E-06,0.012
-2.730E-06,0.008
-2.720E-06,0.008
-2.710E-06,-0.004
-2.700E-06,0.004
-2.690E-06,0.008
-2.680E-06,0.008
-2.670E-06,0.008
-2.660E-06,0.008
-2.650E-06,0.004
-2.640E-06,0.004
-2.630E-06,0.004
-2.620E-06,0.012
-2.610E-06,0.012
-2.600E-06,0.012
-2.590E-06,0.012
-2.580E-06,0.012
-2.570E-06,0.012
-2.560E-06,0.004
-2.550E-06,0.012
-2.540E-06,0.012
-2.530E-06,0.016
-2.520E-06,0.012
-2.510E-06,0.020
-2.500E-06,0.020
-2.490E-06,0.020
-2.480E-06,0.024
-2.470E-06,0.016
-2.460E-06,0.012
-2.450E-06,0.016
-2.440E-06,0.024
-2.430E-06,0.024
-2.420E-06,0.028
-2.410E-06,0.028
-2.400E-06,0.028
-2.390E-06,0.028
-2.380E-06,0.020
-2.370E-06,0.024
-2.360E-06,0.032
-2.350E-06,0.032
-2.340E-06,0.032
-2.330E-06,0.024
-2.320E-06,0.008
-2.310E-06,0.008
-2.300E-06,0.012
-2.290E-06,0.020
-2.280E-06,0.016
-2.270E-06,0.020
-2.260E-06,0.020
-2.250E-06,0.008
-2.240E-06,0.004
-2.230E-06,-0.004
-2.220E-06,0.000
-2.210E-06,0.012
-2.200E-06,0.028
-2.190E-06,0.040
-2.180E-06,0.052
-2.170E-06,0.056
-2.160E-06,0.056
-2.150E-06,0.060
-2.140E-06,0.060
-2.130E-06,0.036
-2.120E-06,0.028
-2.110E-06,-0.004
-2.100E-06,-0.008
-2.090E-06,-0.012
-2.080E-06,0.008
-2.070E-06,0.024
-2.060E-06,0.044
-2.050E-06,0.044
-2.040E-06,0.040
-2.030E-06,0.016
-2.020E-06,-0.004
-2.010E-06,0.016
-2.000E-06,0.020
-1.990E-06,0.024
-1.980E-06,0.016
-1.970E-06,-0.024
-1.960E-06,-0.036
-1.950E-06,-0.084
-1.940E-06,-0.100
-1.930E-06,-0.124
-1.920E-06,-0.084
-1.910E-06,-0.032
-1.900E-06,-0.004
-1.890E-06,0.020
-1.880E-06,0.020
-1.870E-06,0.012
-1.860E-06,-0.012
-1.850E-06,-0.024
-1.840E-06,-0.024
-1.830E-06,0.004
-1.820E-06,0.008
-1.810E-06,0.016
-1.800E-06,0.008
-1.790E-06,-0.004
-1.780E-06,0.000
-1.770E-06,-0.004
-1.760E-06,0.020
-1.750E-06,0.044
-1.740E-06,0.052
-1.730E-06,0.044
-1.720E-06,0.036
-1.710E-06,0.040
-1.700E-06,0.044
-1.690E-06,0.060
-1.680E-06,0.068
-1.670E-06,0.076
-1.660E-06,0.052
-1.650E-06,0.036
-1.640E-06,0.028
-1.630E-06,0.012
-1.620E-06,-0.004
-1.610E-06,-0.008
-1.600E-06,-0.036
-1.590E-06,-0.040
-1.580E-06,-0.028
-1.570E-06,0.004
-1.560E-06,0.024
-1.550E-06,-0.008
-1.540E-06,-0.032
-1.530E-06,-0.076
-1.520E-06,-0.088
-1.510E-06,-0.080
-1.500E-06,-0.040
-1.490E-06,0.004
-1.480E-06,0.024
-1.470E-06,0.028
-1.460E-06,0.020
-1.450E-06,0.024
-1.440E-06,0.036
-1.430E-06,0.068
-1.420E-06,0.108
-1.410E-06,0.144
-1.400E-06,0.152
-1.390E-06,0.124
-1.380E-06,0.100
-1.370E-06,0.076
-1.360E-06,0.064
-1.350E-06,0.084
-1.340E-06,0.108
-1.330E-06,0.112
-1.320E-06,0.112
-1.310E-06,0.088
-1.300E-06,0.064
-1.290E-06,0.044
-1.280E-06,0.032
-1.270E-06,0.044
-1.260E-06,0.052
-1.250E-06,0.060
-1.240E-06,0.060
-1.230E-06,0.056
-1.220E-06,0.052
-1.210E-06,0.048
-1.200E-06,0.056
-1.190E-06,0.060
-1.180E-06,0.072
-1.170E-06,0.064
-1.160E-06,0.060
-1.150E-06,0.044
-1.140E-06,0.040
-1.130E-06,0.020
-1.120E-06,0.000
-1.110E-06,0.012
-1.100E-06,0.024
-1.090E-06,0.032
-1.080E-06,0.028
-1.070E-06,0.040
-1.060E-06,0.028
-1.050E-06,0.044
-1.040E-06,0.056
-1.030E-06,0.088
-1.020E-06,0.112
-1.010E-06,0.132
-1.000E-06,0.124
-9.900E-07,0.112
-9.800E-07,0.092
-9.700E-07,0.072
-9.600E-07,0.088
-9.500E-07,0.092
-9.400E-07,0.104
-9.300E-07,0.108
-9.200E-07,0.104
-9.100E-07,0.084
-9.000E-07,0.060
-8.900E-07,0.008
-8.800E-07,-0.056
-8.700E-07,-0.100
-8.600E-07,-0.156
-8.500E-07,-0.208
-8.400E-07,-0.220
-8.300E-07,-0.208
-8.200E-07,-0.160
-8.100E-07,-0.144
-8.000E-07,-0.136
-7.900E-07,-0.136
-7.800E-07,-0.144
-7.700E-07,-0.140
-7.600E-07,-0.116
-7.500E-07,-0.040
-7.400E-07,0.012
-7.300E-07,0.040
-7.200E-07,0.036
-7.100E-07,0.036
-7.000E-07,0.016
-6.900E-07,0.016
-6.800E-07,0.036
-6.700E-07,0.056
-6.600E-07,0.080
-6.500E-07,0.100
-6.400E-07,0.096
-6.300E-07,0.076
-6.200E-07,0.044
-6.100E-07,0.032
-6.000E-07,0.048
-5.900E-07,0.076
-5.800E-07,0.124
-5.700E-07,0.148
-5.600E-07,0.168
-5.500E-07,0.152
-5.400E-07,0.140
-5.300E-07,0.124
-5.200E-07,0.112
-5.100E-07,0.112
-5.000E-07,0.104
-4.900E-07,0.108
-4.800E-07,0.100
-4.700E-07,0.092
-4.600E-07,0.092
-4.500E-07,0.092
-4.400E-07,0.092
-4.300E-07,0.104
-4.200E-07,0.120
-4.100E-07,0.128
-4.000E-07,0.136
-3.900E-07,0.152
-3.800E-07,0.168
-3.700E-07,0.176
-3.600E-07,0.172
-3.500E-07,0.164
-3.400E-07,0.156
-3.300E-07,0.144
-3.200E-07,0.144
-3.100E-07,0.148
-3.000E-07,0.160
-2.900E-07,0.160
-2.800E-07,0.156
-2.700E-07,0.160
-2.600E-07,0.160
-2.500E-07,0.160
-2.400E-07,0.160
-2.300E-07,0.156
-2.200E-07,0.148
-2.100E-07,0.144
-2.000E-07,0.140
-1.900E-07,0.136
-1.800E-07,0.128
-1.700E-07,0.100
-1.600E-07,0.044
-1.500E-07,-0.028
-1.400E-07,-0.104
-1.300E-07,-0.136
-1.200E-07,-0.100
-1.100E-07,-0.072
-1.000E-07,-0.108
-9.000E-08,-0.204
-8.000E-08,-0.312
-7.000E-08,-0.384
-6.000E-08,-0.336
-5.000E-08,-0.244
-4.000E-08,-0.084
-3.000E-08,0.044
-2.000E-08,0.212
-1.000E-08,0.212
0.000E+00,0.172
1.000E-08,0.108
2.000E-08,0.060
3.000E-08,0.040
4.000E-08,0.072
5.000E-08,0.132
6.000E-08,0.188
7.000E-08,0.236
8.000E-08,0.220
9.000E-08,0.168
1.000E-07,0.124
1.100E-07,0.096
1.200E-07,0.100
1.300E-07,0.124
1.400E-07,0.172
1.500E-07,0.180
1.600E-07,0.156
1.700E-07,0.120
1.800E-07,0.096
1.900E-07,0.104
2.000E-07,0.124
2.100E-07,0.152
2.200E-07,0.164
2.300E-07,0.168
2.400E-07,0.156
2.500E-07,0.136
2.600E-07,0.132
2.700E-07,0.144
2.800E-07,0.164
2.900E-07,0.176
3.000E-07,0.188
3.100E-07,0.188
3.200E-07,0.164
3.300E-07,0.144
3.400E-07,0.144
3.500E-07,0.148
3.600E-07,0.172
3.700E-07,0.192
3.800E-07,0.188
3.900E-07,0.176
4.000E-07,0.164
4.100E-07,0.148
4.200E-07,0.144
4.300E-07,0.144
4.400E-07,0.156
4.500E-07,0.156
4.600E-07,0.156
4.700E-07,0.152
4.800E-07,0.144
4.900E-07,0.136
5.000E-07,0.140
5.100E-07,0.144
5.200E-07,0.164
5.300E-07,0.180
5.400E-07,0.184
5.500E-07,0.172
5.600E-07,0.160
5.700E-07,0.156
5.800E-07,0.148
5.900E-07,0.136
6.000E-07,0.140
6.100E-07,0.148
6.200E-07,0.152
6.300E-07,0.156
6.400E-07,0.148
6.500E-07,0.140
6.600E-07,0.128
6.700E-07,0.124
6.800E-07,0.124
6.900E-07,0.124
7.000E-07,0.140
7.100E-07,0.144
7.200E-07,0.144
7.300E-07,0.136
7.400E-07,0.136
7.500E-07,0.140
7.600E-07,0.140
7.700E-07,0.156
7.800E-07,0.164
7.900E-07,0.164
8.000E-07,0.160
8.100E-07,0.164
8.200E-07,0.164
8.300E-07,0.160
8.400E-07,0.144
8.500E-07,0.144
8.600E-07,0.144
8.700E-07,0.148
8.800E-07,0.144
8.900E-07,0.136
9.000E-07,0.136
9.100E-07,0.128
9.200E-07,0.120
9.300E-07,0.112
9.400E-07,0.120
9.500E-07,0.128
9.600E-07,0.140
9.700E-07,0.144
9.800E-07,0.152
9.900E-07,0.152
1.000E-06,0.152
1.010E-06,0.156
1.020E-06,0.156
1.030E-06,0.164
1.040E-06,0.168
1.050E-06,0.164
1.060E-06,0.168
1.070E-06,0.156
1.080E-06,0.160
1.090E-06,0.164
1.100E-06,0.164
1.110E-06,0.168
1.120E-06,0.156
1.130E-06,0.152
1.140E-06,0.156
1.150E-06,0.152
1.160E-06,0.152
1.170E-06,0.160
1.180E-06,0.156
1.190E-06,0.156
1.200E-06,0.152
1.210E-06,0.148
1.220E-06,0.140
1.230E-06,0.140
1.240E-06,0.136
1.250E-06,0.144
1.260E-06,0.152
1.270E-06,0.156
1.280E-06,0.152
1.290E-06,0.152
1.300E-06,0.148
1.310E-06,0.140
1.320E-06,0.144
1.330E-06,0.148
1.340E-06,0.152
1.350E-06,0.148
1.360E-06,0.152
1.370E-06,0.152
1.380E-06,0.148
1.390E-06,0.140
1.400E-06,0.144
1.410E-06,0.144
1.420E-06,0.148
1.430E-06,0.148
1.440E-06,0.148
1.450E-06,0.148
1.460E-06,0.144
1.470E-06,0.140
1.480E-06,0.140
1.490E-06,0.144
1.500E-06,0.144
1.510E-06,0.148
1.520E-06,0.152
1.530E-06,0.140
1.540E-06,0.144
1.550E-06,0.140
1.560E-06,0.140
1.570E-06,0.140
1.580E-06,0.144
1.590E-06,0.140
1.600E-06,0.144
1.610E-06,0.144
1.620E-06,0.144
1.630E-06,0.136
1.640E-06,0.136
1.650E-06,0.136
1.660E-06,0.140
1.670E-06,0.136
1.680E-06,0.140
1.690E-06,0.136
1.700E-06,0.140
1.710E-06,0.136
1.720E-06,0.136
1.730E-06,0.132
1.740E-06,0.128
1.750E-06,0.136
1.760E-06,0.132
1.770E-06,0.136
1.780E-06,0.128
1.790E-06,0.128
1.800E-06,0.128
1.810E-06,0.128
1.820E-06,0.124
1.830E-06,0.132
1.840E-06,0.128
1.850E-06,0.132
1.860E-06,0.132
1.870E-06,0.128
1.880E-06,0.128
1.890E-06,0.124
1.900E-06,0.128
1.910E-06,0.128
1.920E-06,0.132
1.930E-06,0.132
1.940E-06,0.132
1.950E-06,0.128
1.960E-06,0.124
1.970E-06,0.128
1.980E-06,0.128
1.990E-06,0.128
2.000E-06,0.128
2.010E-06,0.132
2.020E-06,0.128
2.030E-06,0.128
2.040E-06,0.128
2.050E-06,0.124
2.060E-06,0.124
2.070E-06,0.124
2.080E-06,0.124
2.090E-06,0.120
2.100E-06,0.128
2.110E-06,0.124
2.120E-06,0.124
2.130E-06,0.124
2.140E-06,0.124
2.150E-06,0.124
2.160E-06,0.124
2.170E-06,0.120
2.180E-06,0.128
2.190E-06,0.128
2.200E-06,0.124
2.210E-06,0.124
2.220E-06,0.124
2.230E-06,0.124
2.240E-06,0.124
2.250E-06,0.124
2.260E-06,0.124
2.270E-06,0.124
2.280E-06,0.124
2.290E-06,0.124
2.300E-06,0.120
2.310E-06,0.116
2.320E-06,0.116
2.330E-06,0.116
2.340E-06,0.120
2.350E-06,0.120
2.360E-06,0.120
2.370E-06,0.112
2.380E-06,0.108
2.390E-06,0.104
2.400E-06,0.108
2.410E-06,0.108
2.420E-06,0.108
2.430E-06,0.108
2.440E-06,0.108
2.450E-06,0.116
2.460E-06,0.112
2.470E-06,0.112
2.480E-06,0.104
2.490E-06,0.104
2.500E-06,0.108
2.510E-06,0.104
2.520E-06,0.104
2.530E-06,0.104
2.540E-06,0.108
2.550E-06,0.108
2.560E-06,0.112
2.570E-06,0.108
2.580E-06,0.108
2.590E-06,0.104
2.600E-06,0.104
2.610E-06,0.108
2.620E-06,0.108
2.630E-06,0.108
2.640E-06,0.112
2.650E-06,0.112
2.660E-06,0.108
2.670E-06,0.104
2.680E-06,0.100
2.690E-06,0.108
2.700E-06,0.108
2.710E-06,0.108
2.720E-06,0.108
2.730E-06,0.104
2.740E-06,0.108
2.750E-06,0.108
2.760E-06,0.108
2.770E-06,0.108
2.780E-06,0.112
2.790E-06,0.108
2.800E-06,0.112
2.810E-06,0.104
2.820E-06,0.108
2.830E-06,0.112
2.840E-06,0.112
2.850E-06,0.108
2.860E-06,0.108
2.870E-06,0.104
2.880E-06,0.108
2.890E-06,0.104
2.900E-06,0.108
2.910E-06,0.104
2.920E-06,0.100
2.930E-06,0.100
2.940E-06,0.104
2.950E-06,0.100
2.960E-06,0.096
2.970E-06,0.096
2.980E-06,0.096
2.990E-06,0.100
3.000E-06,0.096
3.010E-06,0.100
3.020E-06,0.092
3.030E-06,0.096
3.040E-06,0.096
3.050E-06,0.096
3.060E-06,0.092
3.070E-06,0.092
3.080E-06,0.088
3.090E-06,0.092
3.100E-06,0.088
3.110E-06,0.088
3.120E-06,0.088
3.130E-06,0.092
3.140E-06,0.088
3.150E-06,0.088
3.160E-06,0.088
3.170E-06,0.092
3.180E-06,0.088
3.190E-06,0.084
3.200E-06,0.084
3.210E-06,0.092
3.220E-06,0.092
3.230E-06,0.092
3.240E-06,0.084
3.250E-06,0.088
3.260E-06,0.084
3.270E-06,0.084
3.280E-06,0.080
3.290E-06,0.080
3.300E-06,0.080
3.310E-06,0.072
3.320E-06,0.076
3.330E-06,0.076
3.340E-06,0.080
3.350E-06,0.084
3.360E-06,0.080
3.370E-06,0.080
3.380E-06,0.076
3.390E-06,0.076
3.400E-06,0.076
3.410E-06,0.088
3.420E-06,0.084
3.430E-06,0.084
3.440E-06,0.088
3.450E-06,0.076
3.460E-06,0.080
3.470E-06,0.080
3.480E-06,0.076
3.490E-06,0.080
3.500E-06,0.076
3.510E-06,0.076
3.520E-06,0.076
3.530E-06,0.076
3.540E-06,0.076
3.550E-06,0.076
3.560E-06,0.076
3.570E-06,0.076
3.580E-06,0.072
3.590E-06,0.076
3.600E-06,0.072
3.610E-06,0.072
3.620E-06,0.072
3.630E-06,0.076
3.640E-06,0.076
3.650E-06,0.072
3.660E-06,0.076
3.670E-06,0.076
3.680E-06,0.072
3.690E-06,0.076
3.700E-06,0.076
3.710E-06,0.072
3.720E-06,0.076
3.730E-06,0.072
3.740E-06,0.072
3.750E-06,0.068
3.760E-06,0.072
3.770E-06,0.072
3.780E-06,0.068
3.790E-06,0.068
3.800E-06,0.068
3.810E-06,0.068
3.820E-06,0.072
3.830E-06,0.068
3.840E-06,0.064
3.850E-06,0.064
3.860E-06,0.064
3.870E-06,0.068
3.880E-06,0.068
3.890E-06,0.072
3.900E-06,0.072
3.910E-06,0.068
3.920E-06,0.064
3.930E-06,0.068
3.940E-06,0.064
3.950E-06,0.064
3.960E-06,0.068
3.970E-06,0.068
3.980E-06,0.068
3.990E-06,0.068
4.000E-06,0.068
4.010E-06,0.064
4.020E-06,0.068
4.030E-06,0.064
4.040E-06,0.064
4.050E-06,0.064
4.060E-06,0.068
4.070E-06,0.064
4.080E-06,0.060
4.090E-06,0.064
4.100E-06,0.064
4.110E-06,0.060
4.120E-06,0.064
4.130E-06,0.064
4.140E-06,0.064
4.150E-06,0.064
4.160E-06,0.064
4.170E-06,0.060
4.180E-06,0.060
4.190E-06,0.060
4.200E-06,0.064
4.210E-06,0.060
4.220E-06,0.064
4.230E-06,0.060
4.240E-06,0.064
4.250E-06,0.056
4.260E-06,0.060
4.270E-06,0.056
4.280E-06,0.056
4.290E-06,0.056
4.300E-06,0.060
4.310E-06,0.060
4.320E-06,0.056
4.330E-06,0.060
4.340E-06,0.052
4.350E-06,0.052
4.360E-06,0.052
4.370E-06,0.056
4.380E-06,0.060
4.390E-06,0.052
4.400E-06,0.056
4.410E-06,0.052
4.420E-06,0.056
4.430E-06,0.048
4.440E-06,0.048
4.450E-06,0.044
4.460E-06,0.040
4.470E-06,0.044
4.480E-06,0.044
4.490E-06,0.044
4.500E-06,0.044
4.510E-06,0.048
4.520E-06,0.048
4.530E-06,0.044
4.540E-06,0.048
4.550E-06,0.044
4.560E-06,0.048
4.570E-06,0.044
4.580E-06,0.044
4.590E-06,0.040
4.600E-06,0.048
4.610E-06,0.044
4.620E-06,0.044
4.630E-06,0.040
4.640E-06,0.044
4.650E-06,0.048
4.660E-06,0.044
4.670E-06,0.044
4.680E-06,0.044
4.690E-06,0.044
4.700E-06,0.036
4.710E-06,0.040
4.720E-06,0.040
4.730E-06,0.040
4.740E-06,0.044
4.750E-06,0.036
4.760E-06,0.044
4.770E-06,0.044
4.780E-06,0.040
4.790E-06,0.040
4.800E-06,0.040
4.810E-06,0.040
4.820E-06,0.036
4.830E-06,0.040
4.840E-06,0.036
4.850E-06,0.032
4.860E-06,0.036
4.870E-06,0.036
4.880E-06,0.036
4.890E-06,0.040
4.900E-06,0.036
4.910E-06,0.032
4.920E-06,0.032
4.930E-06,0.036
4.940E-06,0.036
4.950E-06,0.036
4.960E-06,0.040
4.970E-06,0.036
4.980E-06,0.036
4.990E-06,0.036
5.000E-06,0.032
5.010E-06,0.028
5.020E-06,0.032
5.030E-06,0.028
5.040E-06,0.036
5.050E-06,0.032
5.060E-06,0.028
5.070E-06,0.032
5.080E-06,0.032
5.090E-06,0.032
5.100E-06,0.032
5.110E-06,0.036
5.120E-06,0.036
5.130E-06,0.036
5.140E-06,0.028
5.150E-06,0.032
5.160E-06,0.028
5.170E-06,0.028
5.180E-06,0.036
5.190E-06,0.032
5.200E-06,0.036
5.210E-06,0.036
5.220E-06,0.036
5.230E-06,0.036
5.240E-06,0.028
5.250E-06,0.032
5.260E-06,0.032
5.270E-06,0.032
5.280E-06,0.036
5.290E-06,0.032
5.300E-06,0.028
5.310E-06,0.032
5.320E-06,0.036
5.330E-06,0.036
5.340E-06,0.032
5.350E-06,0.036
5.360E-06,0.036
5.370E-06,0.032
5.380E-06,0.036
5.390E-06,0.040
5.400E-06,0.036
5.410E-06,0.036
5.420E-06,0.040
5.430E-06,0.032
5.440E-06,0.028
5.450E-06,0.028
5.460E-06,0.024
5.470E-06,0.028
5.480E-06,0.024
5.490E-06,0.024
5.500E-06,0.028
5.510E-06,0.024
5.520E-06,0.024
5.530E-06,0.028
5.540E-06,0.024
5.550E-06,0.020
5.560E-06,0.024
5.570E-06,0.028
5.580E-06,0.024
5.590E-06,0.024
5.600E-06,0.024
5.610E-06,0.016
5.620E-06,0.024
5.630E-06,0.024
5.640E-06,0.020
5.650E-06,0.016
5.660E-06,0.020
5.670E-06,0.020
5.680E-06,0.020
5.690E-06,0.020
5.700E-06,0.024
5.710E-06,0.020
5.720E-06,0.016
5.730E-06,0.012
5.740E-06,0.016
5.750E-06,0.016
5.760E-06,0.020
5.770E-06,0.020
5.780E-06,0.020
5.790E-06,0.008
5.800E-06,0.012
5.810E-06,0.016
5.820E-06,0.012
5.830E-06,0.012
5.840E-06,0.016
5.850E-06,0.008
5.860E-06,0.008
5.870E-06,0.012
5.880E-06,0.008
5.890E-06,0.012
5.900E-06,0.008
5.910E-06,0.012
5.920E-06,0.008
5.930E-06,0.012
5.940E-06,0.012
5.950E-06,0.012
5.960E-06,0.012
5.970E-06,0.012
5.980E-06,0.012
5.990E-06,0.008
6.000E-06,0.012
6.010E-06,0.012
6.020E-06,0.008
6.030E-06,0.012
6.040E-06,0.012
6.050E-06,0.016
6.060E-06,0.016
6.070E-06,0.012
6.080E-06,0.016
6.090E-06,0.004
6.100E-06,0.008
6.110E-06,0.008
6.120E-06,0.012
6.130E-06,0.012
6.140E-06,0.012
6.150E-06,0.012
6.160E-06,0.012
6.170E-06,0.012
6.180E-06,0.004
6.190E-06,0.008
6.200E-06,0.008
6.210E-06,0.004
6.220E-06,0.008
6.230E-06,0.004
6.240E-06,0.004
6.250E-06,0.008
6.260E-06,0.008
6.270E-06,0.004
6.280E-06,0.004
6.290E-06,0.008
6.300E-06,0.004
6.310E-06,0.008
6.320E-06,0.000
6.330E-06,0.000
6.340E-06,0.004
6.350E-06,0.000
6.360E-06,0.008
6.370E-06,0.008
6.380E-06,0.008
