mediciones/6-26/31.1/WaveData59209.csv

#timebase=2000000(ps)
,#voltbase=200000(mv/100)
#size=4000
-8.150E-06,0.056
-8.140E-06,0.000
-8.130E-06,-0.064
-8.120E-06,-0.072
-8.110E-06,-0.064
-8.100E-06,-0.040
-8.090E-06,-0.016
-8.080E-06,-0.040
-8.070E-06,-0.056
-8.060E-06,-0.088
-8.050E-06,-0.088
-8.040E-06,-0.088
-8.030E-06,-0.088
-8.020E-06,-0.024
-8.010E-06,-0.064
-8.000E-06,-0.120
-7.990E-06,-0.104
-7.980E-06,-0.112
-7.970E-06,-0.056
-7.960E-06,0.016
-7.950E-06,0.008
-7.940E-06,0.008
-7.930E-06,0.000
-7.920E-06,-0.032
-7.910E-06,0.040
-7.900E-06,0.120
-7.890E-06,0.208
-7.880E-06,0.328
-7.870E-06,0.336
-7.860E-06,0.256
-7.850E-06,0.160
-7.840E-06,0.072
-7.830E-06,0.040
-7.820E-06,0.096
-7.810E-06,0.128
-7.800E-06,0.144
-7.790E-06,0.120
-7.780E-06,0.056
-7.770E-06,-0.016
-7.760E-06,-0.056
-7.750E-06,-0.048
-7.740E-06,-0.024
-7.730E-06,-0.008
-7.720E-06,0.016
-7.710E-06,-0.016
-7.700E-06,-0.064
-7.690E-06,-0.104
-7.680E-06,-0.080
-7.670E-06,-0.072
-7.660E-06,-0.040
-7.650E-06,-0.024
-7.640E-06,-0.024
-7.630E-06,-0.064
-7.620E-06,-0.104
-7.610E-06,-0.088
-7.600E-06,-0.096
-7.590E-06,-0.064
-7.580E-06,-0.024
-7.570E-06,-0.032
-7.560E-06,-0.056
-7.550E-06,-0.072
-7.540E-06,-0.080
-7.530E-06,-0.064
-7.520E-06,-0.096
-7.510E-06,-0.072
-7.500E-06,-0.056
-7.490E-06,0.000
-7.480E-06,0.136
-7.470E-06,0.232
-7.460E-06,0.296
-7.450E-06,0.312
-7.440E-06,0.256
-7.430E-06,0.208
-7.420E-06,0.168
-7.410E-06,0.144
-7.400E-06,0.240
-7.390E-06,0.232
-7.380E-06,0.176
-7.370E-06,0.184
-7.360E-06,0.096
-7.350E-06,-0.008
-7.340E-06,0.064
-7.330E-06,0.048
-7.320E-06,0.056
-7.310E-06,0.024
-7.300E-06,-0.024
-7.290E-06,-0.072
-7.280E-06,-0.080
-7.270E-06,-0.104
-7.260E-06,-0.128
-7.250E-06,-0.064
-7.240E-06,-0.120
-7.230E-06,-0.184
-7.220E-06,-0.136
-7.210E-06,-0.168
-7.200E-06,-0.128
-7.190E-06,-0.072
-7.180E-06,-0.096
-7.170E-06,-0.064
-7.160E-06,-0.040
-7.150E-06,0.000
-7.140E-06,0.088
-7.130E-06,0.104
-7.120E-06,0.064
-7.110E-06,0.048
-7.100E-06,0.000
-7.090E-06,0.000
-7.080E-06,0.016
-7.070E-06,0.072
-7.060E-06,0.104
-7.050E-06,0.096
-7.040E-06,0.056
-7.030E-06,0.016
-7.020E-06,0.024
-7.010E-06,0.040
-7.000E-06,0.056
-6.990E-06,0.080
-6.980E-06,0.080
-6.970E-06,0.056
-6.960E-06,0.032
-6.950E-06,0.008
-6.940E-06,-0.008
-6.930E-06,0.000
-6.920E-06,0.000
-6.910E-06,-0.024
-6.900E-06,-0.040
-6.890E-06,-0.064
-6.880E-06,-0.064
-6.870E-06,-0.056
-6.860E-06,-0.048
-6.850E-06,-0.040
-6.840E-06,-0.056
-6.830E-06,-0.032
-6.820E-06,0.144
-6.810E-06,0.248
-6.800E-06,0.264
-6.790E-06,0.168
-6.780E-06,-0.064
-6.770E-06,-0.168
-6.760E-06,-0.144
-6.750E-06,-0.008
-6.740E-06,0.256
-6.730E-06,0.432
-6.720E-06,0.440
-6.710E-06,0.304
-6.700E-06,0.096
-6.690E-06,-0.048
-6.680E-06,-0.064
-6.670E-06,0.056
-6.660E-06,0.160
-6.650E-06,0.232
-6.640E-06,0.160
-6.630E-06,0.040
-6.620E-06,-0.064
-6.610E-06,-0.096
-6.600E-06,-0.104
-6.590E-06,-0.024
-6.580E-06,0.040
-6.570E-06,0.016
-6.560E-06,-0.048
-6.550E-06,-0.128
-6.540E-06,-0.200
-6.530E-06,-0.200
-6.520E-06,-0.176
-6.510E-06,-0.136
-6.500E-06,-0.120
-6.490E-06,-0.256
-6.480E-06,-0.344
-6.470E-06,-0.264
-6.460E-06,-0.168
-6.450E-06,0.000
-6.440E-06,0.136
-6.430E-06,0.128
-6.420E-06,0.088
-6.410E-06,0.136
-6.400E-06,0.192
-6.390E-06,0.280
-6.380E-06,0.264
-6.370E-06,0.208
-6.360E-06,0.144
-6.350E-06,0.096
-6.340E-06,0.096
-6.330E-06,0.136
-6.320E-06,0.176
-6.310E-06,0.176
-6.300E-06,0.128
-6.290E-06,0.040
-6.280E-06,0.016
-6.270E-06,0.016
-6.260E-06,0.032
-6.250E-06,0.056
-6.240E-06,0.072
-6.230E-06,0.024
-6.220E-06,-0.024
-6.210E-06,-0.048
-6.200E-06,-0.088
-6.190E-06,-0.096
-6.180E-06,-0.096
-6.170E-06,-0.128
-6.160E-06,-0.168
-6.150E-06,-0.184
-6.140E-06,-0.168
-6.130E-06,-0.152
-6.120E-06,-0.104
-6.110E-06,-0.120
-6.100E-06,-0.120
-6.090E-06,-0.096
-6.080E-06,-0.032
-6.070E-06,0.096
-6.060E-06,0.240
-6.050E-06,0.304
-6.040E-06,0.288
-6.030E-06,0.160
-6.020E-06,0.040
-6.010E-06,-0.008
-6.000E-06,0.048
-5.990E-06,0.144
-5.980E-06,0.224
-5.970E-06,0.224
-5.960E-06,0.104
-5.950E-06,-0.008
-5.940E-06,-0.056
-5.930E-06,-0.024
-5.920E-06,0.096
-5.910E-06,0.232
-5.900E-06,0.272
-5.890E-06,0.168
-5.880E-06,0.072
-5.870E-06,-0.096
-5.860E-06,-0.168
-5.850E-06,-0.184
-5.840E-06,-0.096
-5.830E-06,0.016
-5.820E-06,0.136
-5.810E-06,0.192
-5.800E-06,0.160
-5.790E-06,0.072
-5.780E-06,-0.072
-5.770E-06,-0.136
-5.760E-06,-0.128
-5.750E-06,-0.072
-5.740E-06,-0.016
-5.730E-06,0.040
-5.720E-06,0.040
-5.710E-06,-0.032
-5.700E-06,-0.096
-5.690E-06,-0.128
-5.680E-06,-0.072
-5.670E-06,-0.048
-5.660E-06,-0.024
-5.650E-06,-0.024
-5.640E-06,-0.048
-5.630E-06,-0.016
-5.620E-06,0.016
-5.610E-06,0.072
-5.600E-06,0.096
-5.590E-06,0.096
-5.580E-06,0.072
-5.570E-06,0.064
-5.560E-06,0.056
-5.550E-06,0.024
-5.540E-06,0.096
-5.530E-06,0.016
-5.520E-06,-0.032
-5.510E-06,-0.048
-5.500E-06,-0.072
-5.490E-06,0.016
-5.480E-06,0.152
-5.470E-06,0.240
-5.460E-06,0.224
-5.450E-06,0.128
-5.440E-06,-0.008
-5.430E-06,-0.064
-5.420E-06,-0.064
-5.410E-06,0.000
-5.400E-06,0.104
-5.390E-06,0.144
-5.380E-06,0.120
-5.370E-06,0.032
-5.360E-06,-0.040
-5.350E-06,-0.048
-5.340E-06,0.000
-5.330E-06,0.064
-5.320E-06,0.096
-5.310E-06,0.096
-5.300E-06,0.040
-5.290E-06,-0.008
-5.280E-06,-0.048
-5.270E-06,-0.056
-5.260E-06,-0.008
-5.250E-06,0.016
-5.240E-06,-0.008
-5.230E-06,-0.040
-5.220E-06,-0.088
-5.210E-06,-0.128
-5.200E-06,-0.144
-5.190E-06,-0.104
-5.180E-06,-0.096
-5.170E-06,-0.024
-5.160E-06,-0.080
-5.150E-06,0.024
-5.140E-06,-0.112
-5.130E-06,-0.040
-5.120E-06,-0.024
-5.110E-06,0.000
-5.100E-06,0.120
-5.090E-06,0.288
-5.080E-06,0.416
-5.070E-06,0.528
-5.060E-06,0.504
-5.050E-06,0.296
-5.040E-06,0.128
-5.030E-06,0.040
-5.020E-06,0.112
-5.010E-06,0.208
-5.000E-06,0.336
-4.990E-06,0.328
-4.980E-06,0.192
-4.970E-06,0.000
-4.960E-06,-0.104
-4.950E-06,-0.200
-4.940E-06,-0.112
-4.930E-06,-0.104
-4.920E-06,-0.040
-4.910E-06,0.016
-4.900E-06,0.032
-4.890E-06,0.048
-4.880E-06,0.064
-4.870E-06,0.000
-4.860E-06,-0.080
-4.850E-06,-0.152
-4.840E-06,-0.184
-4.830E-06,-0.128
-4.820E-06,-0.088
-4.810E-06,-0.080
-4.800E-06,-0.064
-4.790E-06,-0.120
-4.780E-06,-0.144
-4.770E-06,-0.144
-4.760E-06,-0.112
-4.750E-06,-0.072
-4.740E-06,-0.056
-4.730E-06,-0.072
-4.720E-06,-0.048
-4.710E-06,-0.032
-4.700E-06,-0.016
-4.690E-06,0.016
-4.680E-06,0.016
-4.670E-06,0.000
-4.660E-06,0.016
-4.650E-06,-0.024
-4.640E-06,0.000
-4.630E-06,-0.024
-4.620E-06,-0.080
-4.610E-06,-0.056
-4.600E-06,-0.048
-4.590E-06,0.032
-4.580E-06,0.224
-4.570E-06,0.352
-4.560E-06,0.360
-4.550E-06,0.288
-4.540E-06,0.136
-4.530E-06,0.096
-4.520E-06,0.104
-4.510E-06,0.168
-4.500E-06,0.208
-4.490E-06,0.224
-4.480E-06,0.088
-4.470E-06,0.008
-4.460E-06,-0.048
-4.450E-06,-0.088
-4.440E-06,0.056
-4.430E-06,0.240
-4.420E-06,0.368
-4.410E-06,0.352
-4.400E-06,0.192
-4.390E-06,-0.024
-4.380E-06,-0.120
-4.370E-06,-0.112
-4.360E-06,-0.016
-4.350E-06,0.096
-4.340E-06,0.136
-4.330E-06,0.048
-4.320E-06,-0.056
-4.310E-06,-0.160
-4.300E-06,-0.200
-4.290E-06,-0.192
-4.280E-06,-0.136
-4.270E-06,-0.096
-4.260E-06,-0.104
-4.250E-06,-0.136
-4.240E-06,-0.192
-4.230E-06,-0.200
-4.220E-06,-0.168
-4.210E-06,-0.152
-4.200E-06,0.048
-4.190E-06,-0.112
-4.180E-06,-0.104
-4.170E-06,-0.120
-4.160E-06,-0.112
-4.150E-06,0.064
-4.140E-06,0.384
-4.130E-06,0.496
-4.120E-06,0.504
-4.110E-06,0.280
-4.100E-06,-0.008
-4.090E-06,-0.096
-4.080E-06,-0.088
-4.070E-06,0.040
-4.060E-06,0.224
-4.050E-06,0.304
-4.040E-06,0.352
-4.030E-06,0.368
-4.020E-06,0.288
-4.010E-06,0.192
-4.000E-06,0.104
-3.990E-06,0.040
-3.980E-06,0.056
-3.970E-06,0.048
-3.960E-06,0.032
-3.950E-06,-0.032
-3.940E-06,-0.128
-3.930E-06,-0.200
-3.920E-06,-0.224
-3.910E-06,-0.160
-3.900E-06,-0.104
-3.890E-06,-0.072
-3.880E-06,-0.088
-3.870E-06,-0.152
-3.860E-06,-0.216
-3.850E-06,-0.184
-3.840E-06,-0.128
-3.830E-06,0.000
-3.820E-06,0.064
-3.810E-06,0.136
-3.800E-06,0.008
-3.790E-06,-0.080
-3.780E-06,0.096
-3.770E-06,0.080
-3.760E-06,0.136
-3.750E-06,0.216
-3.740E-06,0.296
-3.730E-06,0.456
-3.720E-06,0.800
-3.710E-06,1.080
-3.700E-06,1.080
-3.690E-06,1.048
-3.680E-06,0.552
-3.670E-06,0.224
-3.660E-06,0.120
-3.650E-06,0.224
-3.640E-06,0.360
-3.630E-06,0.472
-3.620E-06,0.312
-3.610E-06,0.064
-3.600E-06,-0.200
-3.590E-06,-0.352
-3.580E-06,-0.272
-3.570E-06,-0.088
-3.560E-06,0.040
-3.550E-06,0.056
-3.540E-06,-0.112
-3.530E-06,-0.376
-3.520E-06,-0.544
-3.510E-06,-0.600
-3.500E-06,-0.544
-3.490E-06,-0.440
-3.480E-06,-0.336
-3.470E-06,-0.336
-3.460E-06,-0.424
-3.450E-06,-0.544
-3.440E-06,-0.584
-3.430E-06,-0.536
-3.420E-06,-0.400
-3.410E-06,-0.264
-3.400E-06,-0.176
-3.390E-06,-0.144
-3.380E-06,-0.160
-3.370E-06,-0.152
-3.360E-06,-0.096
-3.350E-06,-0.008
-3.340E-06,0.096
-3.330E-06,0.264
-3.320E-06,0.328
-3.310E-06,0.544
-3.300E-06,0.064
-3.290E-06,0.136
-3.280E-06,0.328
-3.270E-06,0.672
-3.260E-06,1.080
-3.250E-06,1.072
-3.240E-06,1.080
-3.230E-06,1.080
-3.220E-06,0.952
-3.210E-06,0.504
-3.200E-06,0.400
-3.190E-06,0.400
-3.180E-06,0.560
-3.170E-06,0.664
-3.160E-06,0.520
-3.150E-06,0.184
-3.140E-06,-0.264
-3.130E-06,-0.592
-3.120E-06,-0.760
-3.110E-06,-0.608
-3.100E-06,-0.272
-3.090E-06,0.024
-3.080E-06,0.184
-3.070E-06,0.104
-3.060E-06,-0.184
-3.050E-06,-0.488
-3.040E-06,-0.592
-3.030E-06,-0.568
-3.020E-06,-0.384
-3.010E-06,-0.248
-3.000E-06,-0.256
-2.990E-06,-0.336
-2.980E-06,-0.424
-2.970E-06,-0.496
-2.960E-06,-0.480
-2.950E-06,-0.392
-2.940E-06,-0.304
-2.930E-06,-0.264
-2.920E-06,-0.224
-2.910E-06,-0.264
-2.900E-06,-0.368
-2.890E-06,-0.368
-2.880E-06,-0.336
-2.870E-06,-0.304
-2.860E-06,-0.072
-2.850E-06,0.080
-2.840E-06,0.240
-2.830E-06,0.448
-2.820E-06,0.504
-2.810E-06,0.608
-2.800E-06,0.656
-2.790E-06,0.560
-2.780E-06,0.528
-2.770E-06,0.432
-2.760E-06,0.280
-2.750E-06,0.312
-2.740E-06,0.328
-2.730E-06,0.296
-2.720E-06,0.320
-2.710E-06,0.272
-2.700E-06,0.176
-2.690E-06,0.176
-2.680E-06,0.096
-2.670E-06,0.064
-2.660E-06,0.032
-2.650E-06,-0.008
-2.640E-06,-0.064
-2.630E-06,-0.152
-2.620E-06,-0.200
-2.610E-06,-0.232
-2.600E-06,-0.320
-2.590E-06,-0.248
-2.580E-06,-0.216
-2.570E-06,-0.080
-2.560E-06,0.048
-2.550E-06,0.160
-2.540E-06,0.168
-2.530E-06,0.120
-2.520E-06,-0.016
-2.510E-06,-0.120
-2.500E-06,-0.160
-2.490E-06,-0.136
-2.480E-06,-0.040
-2.470E-06,0.016
-2.460E-06,0.072
-2.450E-06,0.064
-2.440E-06,0.000
-2.430E-06,-0.064
-2.420E-06,-0.112
-2.410E-06,-0.072
-2.400E-06,-0.016
-2.390E-06,-0.008
-2.380E-06,0.000
-2.370E-06,-0.032
-2.360E-06,-0.056
-2.350E-06,-0.072
-2.340E-06,-0.048
-2.330E-06,-0.008
-2.320E-06,-0.008
-2.310E-06,-0.056
-2.300E-06,-0.056
-2.290E-06,-0.104
-2.280E-06,-0.160
-2.270E-06,-0.152
-2.260E-06,-0.368
-2.250E-06,-0.352
-2.240E-06,-0.240
-2.230E-06,-0.024
-2.220E-06,0.424
-2.210E-06,0.768
-2.200E-06,0.768
-2.190E-06,0.568
-2.180E-06,0.248
-2.170E-06,-0.032
-2.160E-06,0.024
-2.150E-06,0.200
-2.140E-06,0.384
-2.130E-06,0.464
-2.120E-06,0.384
-2.110E-06,0.192
-2.100E-06,0.032
-2.090E-06,-0.048
-2.080E-06,-0.024
-2.070E-06,0.032
-2.060E-06,0.072
-2.050E-06,0.064
-2.040E-06,0.000
-2.030E-06,-0.088
-2.020E-06,-0.144
-2.010E-06,-0.152
-2.000E-06,-0.160
-1.990E-06,-0.152
-1.980E-06,-0.152
-1.970E-06,-0.192
-1.960E-06,-0.264
-1.950E-06,-0.352
-1.940E-06,-0.400
-1.930E-06,-0.352
-1.920E-06,-0.256
-1.910E-06,-0.184
-1.900E-06,-0.120
-1.890E-06,-0.152
-1.880E-06,-0.192
-1.870E-06,-0.208
-1.860E-06,-0.192
-1.850E-06,-0.120
-1.840E-06,-0.040
-1.830E-06,0.048
-1.820E-06,0.128
-1.810E-06,0.176
-1.800E-06,0.208
-1.790E-06,0.232
-1.780E-06,0.272
-1.770E-06,0.312
-1.760E-06,0.352
-1.750E-06,0.400
-1.740E-06,0.424
-1.730E-06,0.416
-1.720E-06,0.400
-1.710E-06,0.368
-1.700E-06,0.368
-1.690E-06,0.368
-1.680E-06,0.360
-1.670E-06,0.344
-1.660E-06,0.312
-1.650E-06,0.264
-1.640E-06,0.232
-1.630E-06,0.160
-1.620E-06,0.184
-1.610E-06,0.144
-1.600E-06,0.088
-1.590E-06,0.136
-1.580E-06,0.080
-1.570E-06,-0.368
-1.560E-06,-0.392
-1.550E-06,-0.224
-1.540E-06,0.288
-1.530E-06,1.080
-1.520E-06,1.080
-1.510E-06,1.080
-1.500E-06,1.080
-1.490E-06,0.496
-1.480E-06,0.072
-1.470E-06,0.120
-1.460E-06,0.144
-1.450E-06,0.256
-1.440E-06,0.056
-1.430E-06,-0.128
-1.420E-06,-0.400
-1.410E-06,-0.536
-1.400E-06,-0.432
-1.390E-06,-0.296
-1.380E-06,-0.200
-1.370E-06,-0.112
-1.360E-06,-0.128
-1.350E-06,-0.040
-1.340E-06,0.008
-1.330E-06,-0.032
-1.320E-06,-0.192
-1.310E-06,-0.400
-1.300E-06,-0.576
-1.290E-06,-0.600
-1.280E-06,-0.552
-1.270E-06,-0.552
-1.260E-06,-0.552
-1.250E-06,-0.512
-1.240E-06,-0.424
-1.230E-06,-0.344
-1.220E-06,-0.264
-1.210E-06,-0.280
-1.200E-06,-0.312
-1.190E-06,-0.328
-1.180E-06,-0.320
-1.170E-06,-0.280
-1.160E-06,-0.120
-1.150E-06,-0.144
-1.140E-06,0.088
-1.130E-06,0.096
-1.120E-06,0.096
-1.110E-06,0.176
-1.100E-06,0.248
-1.090E-06,0.480
-1.080E-06,0.800
-1.070E-06,0.936
-1.060E-06,0.896
-1.050E-06,0.864
-1.040E-06,0.792
-1.030E-06,0.848
-1.020E-06,1.040
-1.010E-06,1.072
-1.000E-06,1.080
-9.900E-07,1.088
-9.800E-07,0.800
-9.700E-07,0.496
-9.600E-07,0.184
-9.500E-07,0.040
-9.400E-07,0.000
-9.300E-07,-0.040
-9.200E-07,-0.192
-9.100E-07,-0.344
-9.000E-07,-0.512
-8.900E-07,-0.592
-8.800E-07,-0.552
-8.700E-07,-0.464
-8.600E-07,-0.440
-8.500E-07,-0.432
-8.400E-07,-0.464
-8.300E-07,-0.520
-8.200E-07,-0.480
-8.100E-07,-0.424
-8.000E-07,-0.336
-7.900E-07,-0.216
-7.800E-07,-0.128
-7.700E-07,-0.224
-7.600E-07,-0.408
-7.500E-07,-0.144
-7.400E-07,-0.608
-7.300E-07,-0.520
-7.200E-07,-0.240
-7.100E-07,-0.200
-7.000E-07,0.768
-6.900E-07,1.080
-6.800E-07,1.080
-6.700E-07,1.072
-6.600E-07,1.080
-6.500E-07,1.080
-6.400E-07,0.536
-6.300E-07,-0.096
-6.200E-07,-0.064
-6.100E-07,0.328
-6.000E-07,0.536
-5.900E-07,0.624
-5.800E-07,0.368
-5.700E-07,-0.040
-5.600E-07,-0.416
-5.500E-07,-0.632
-5.400E-07,-0.728
-5.300E-07,-0.544
-5.200E-07,-0.504
-5.100E-07,-0.496
-5.000E-07,-0.664
-4.900E-07,-0.696
-4.800E-07,-0.704
-4.700E-07,-0.512
-4.600E-07,-0.376
-4.500E-07,-0.448
-4.400E-07,-1.024
-4.300E-07,-1.040
-4.200E-07,-1.048
-4.100E-07,-1.040
-4.000E-07,-1.032
-3.900E-07,-1.040
-3.800E-07,-0.304
-3.700E-07,0.776
-3.600E-07,1.088
-3.500E-07,1.080
-3.400E-07,1.088
-3.300E-07,1.080
-3.200E-07,1.072
-3.100E-07,1.080
-3.000E-07,1.088
-2.900E-07,1.080
-2.800E-07,1.088
-2.700E-07,1.080
-2.600E-07,0.904
-2.500E-07,0.584
-2.400E-07,0.160
-2.300E-07,-0.056
-2.200E-07,-0.200
-2.100E-07,-0.368
-2.000E-07,-0.680
-1.900E-07,-1.040
-1.800E-07,-1.048
-1.700E-07,-1.032
-1.600E-07,-1.040
-1.500E-07,-1.040
-1.400E-07,-1.040
-1.300E-07,-1.048
-1.200E-07,-1.040
-1.100E-07,-0.808
-1.000E-07,0.136
-9.000E-08,1.080
-8.000E-08,1.080
-7.000E-08,1.072
-6.000E-08,1.080
-5.000E-08,0.768
-4.000E-08,0.536
-3.000E-08,1.048
-2.000E-08,1.088
-1.000E-08,1.080
0.000E+00,1.080
1.000E-08,1.080
2.000E-08,1.072
3.000E-08,1.080
4.000E-08,1.080
5.000E-08,1.080
6.000E-08,1.072
7.000E-08,1.080
8.000E-08,-0.168
9.000E-08,-0.808
1.000E-07,-1.032
1.100E-07,-1.040
1.200E-07,-1.040
1.300E-07,-1.048
1.400E-07,-1.040
1.500E-07,-1.048
1.600E-07,-1.048
1.700E-07,-1.048
1.800E-07,-1.032
1.900E-07,-1.032
2.000E-07,-1.040
2.100E-07,-1.048
2.200E-07,-1.048
2.300E-07,-1.048
2.400E-07,-1.048
2.500E-07,-1.048
2.600E-07,-1.048
2.700E-07,-1.048
2.800E-07,-1.048
2.900E-07,-1.048
3.000E-07,-1.032
3.100E-07,-1.032
3.200E-07,-1.040
3.300E-07,-1.032
3.400E-07,-1.032
3.500E-07,-1.040
3.600E-07,-1.040
3.700E-07,-1.040
3.800E-07,-1.040
3.900E-07,-1.040
4.000E-07,-1.040
4.100E-07,-1.048
4.200E-07,-1.040
4.300E-07,-0.688
4.400E-07,-0.304
4.500E-07,-0.056
4.600E-07,-0.472
4.700E-07,-1.024
4.800E-07,-1.040
4.900E-07,-1.040
5.000E-07,-1.048
5.100E-07,0.224
5.200E-07,1.080
5.300E-07,1.088
5.400E-07,1.080
5.500E-07,1.088
5.600E-07,1.080
5.700E-07,1.080
5.800E-07,1.072
5.900E-07,1.080
6.000E-07,1.088
6.100E-07,1.080
6.200E-07,1.080
6.300E-07,0.960
6.400E-07,-0.400
6.500E-07,-0.976
6.600E-07,-1.048
6.700E-07,-1.048
6.800E-07,-1.048
6.900E-07,-1.032
7.000E-07,-1.040
7.100E-07,-1.048
7.200E-07,-1.040
7.300E-07,-1.032
7.400E-07,-1.040
7.500E-07,-1.032
7.600E-07,-1.040
7.700E-07,-1.040
7.800E-07,1.072
7.900E-07,1.080
8.000E-07,1.080
8.100E-07,1.080
8.200E-07,1.080
8.300E-07,1.080
8.400E-07,1.080
8.500E-07,1.080
8.600E-07,0.080
8.700E-07,-0.744
8.800E-07,-1.040
8.900E-07,-1.032
9.000E-07,-1.040
9.100E-07,-1.048
9.200E-07,-1.048
9.300E-07,-1.032
9.400E-07,-1.032
9.500E-07,-1.040
9.600E-07,-1.040
9.700E-07,-1.048
9.800E-07,-1.040
9.900E-07,-0.568
1.000E-06,-0.264
1.010E-06,-0.168
1.020E-06,-0.320
1.030E-06,-0.440
1.040E-06,-0.584
1.050E-06,-0.480
1.060E-06,-0.368
1.070E-06,-0.176
1.080E-06,0.056
1.090E-06,0.184
1.100E-06,0.392
1.110E-06,0.800
1.120E-06,1.088
1.130E-06,1.088
1.140E-06,1.080
1.150E-06,1.088
1.160E-06,1.080
1.170E-06,1.080
1.180E-06,1.072
1.190E-06,1.080
1.200E-06,0.856
1.210E-06,0.672
1.220E-06,0.496
1.230E-06,0.480
1.240E-06,0.424
1.250E-06,0.472
1.260E-06,0.400
1.270E-06,0.704
1.280E-06,0.912
1.290E-06,1.072
1.300E-06,1.080
1.310E-06,1.088
1.320E-06,1.080
1.330E-06,1.080
1.340E-06,1.072
1.350E-06,1.080
1.360E-06,0.488
1.370E-06,-0.648
1.380E-06,-1.032
1.390E-06,-1.032
1.400E-06,0.104
1.410E-06,1.080
1.420E-06,1.088
1.430E-06,1.080
1.440E-06,1.080
1.450E-06,1.080
1.460E-06,1.080
1.470E-06,1.072
1.480E-06,1.080
1.490E-06,0.000
1.500E-06,-1.048
1.510E-06,-1.040
1.520E-06,-0.872
1.530E-06,-0.032
1.540E-06,0.560
1.550E-06,1.080
1.560E-06,1.080
1.570E-06,1.080
1.580E-06,1.080
1.590E-06,1.080
1.600E-06,1.072
1.610E-06,1.080
1.620E-06,1.080
1.630E-06,1.088
1.640E-06,1.080
1.650E-06,1.072
1.660E-06,0.936
1.670E-06,-0.320
1.680E-06,-1.032
1.690E-06,-1.040
1.700E-06,-1.040
1.710E-06,-1.048
1.720E-06,-1.040
1.730E-06,-1.032
1.740E-06,-1.040
1.750E-06,-1.040
1.760E-06,-0.208
1.770E-06,1.080
1.780E-06,1.080
1.790E-06,1.080
1.800E-06,1.072
1.810E-06,1.080
1.820E-06,1.080
1.830E-06,1.080
1.840E-06,1.072
1.850E-06,1.080
1.860E-06,1.088
1.870E-06,1.088
1.880E-06,1.080
1.890E-06,1.080
1.900E-06,1.088
1.910E-06,1.088
1.920E-06,1.080
1.930E-06,1.088
1.940E-06,0.896
1.950E-06,0.664
1.960E-06,0.560
1.970E-06,0.632
1.980E-06,0.856
1.990E-06,1.072
2.000E-06,1.080
2.010E-06,1.080
2.020E-06,1.080
2.030E-06,1.080
2.040E-06,1.072
2.050E-06,1.080
2.060E-06,1.080
2.070E-06,1.072
2.080E-06,1.080
2.090E-06,1.080
2.100E-06,1.072
2.110E-06,1.080
2.120E-06,1.080
2.130E-06,0.936
2.140E-06,0.688
2.150E-06,0.480
2.160E-06,0.336
2.170E-06,0.160
2.180E-06,0.136
2.190E-06,0.144
2.200E-06,0.184
2.210E-06,0.240
2.220E-06,0.304
2.230E-06,0.368
2.240E-06,0.408
2.250E-06,0.464
2.260E-06,0.512
2.270E-06,0.528
2.280E-06,0.528
2.290E-06,0.528
2.300E-06,0.512
2.310E-06,0.496
2.320E-06,0.496
2.330E-06,0.496
2.340E-06,0.528
2.350E-06,0.552
2.360E-06,0.608
2.370E-06,0.640
2.380E-06,0.728
2.390E-06,0.800
2.400E-06,0.872
2.410E-06,0.912
2.420E-06,0.904
2.430E-06,0.888
2.440E-06,0.824
2.450E-06,0.752
2.460E-06,0.712
2.470E-06,0.720
2.480E-06,0.768
2.490E-06,0.808
2.500E-06,0.872
2.510E-06,0.920
2.520E-06,0.976
2.530E-06,0.992
2.540E-06,0.992
2.550E-06,0.952
2.560E-06,0.888
2.570E-06,0.792
2.580E-06,0.664
2.590E-06,0.536
2.600E-06,0.400
2.610E-06,0.288
2.620E-06,0.168
2.630E-06,0.072
2.640E-06,0.024
2.650E-06,0.024
2.660E-06,0.072
2.670E-06,0.168
2.680E-06,0.256
2.690E-06,0.368
2.700E-06,0.464
2.710E-06,0.528
2.720E-06,0.600
2.730E-06,0.712
2.740E-06,0.752
2.750E-06,0.768
2.760E-06,0.704
2.770E-06,0.624
2.780E-06,0.536
2.790E-06,0.464
2.800E-06,0.432
2.810E-06,0.456
2.820E-06,0.432
2.830E-06,0.312
2.840E-06,0.112
2.850E-06,-0.112
2.860E-06,-0.304
2.870E-06,-0.416
2.880E-06,-0.480
2.890E-06,-0.512
2.900E-06,-0.552
2.910E-06,-0.560
2.920E-06,-0.536
2.930E-06,-0.464
2.940E-06,-0.400
2.950E-06,-0.328
2.960E-06,-0.232
2.970E-06,-0.104
2.980E-06,0.000
2.990E-06,0.064
3.000E-06,0.112
3.010E-06,0.128
3.020E-06,0.136
3.030E-06,0.104
3.040E-06,0.040
3.050E-06,-0.072
3.060E-06,-0.160
3.070E-06,-0.200
3.080E-06,-0.232
3.090E-06,-0.304
3.100E-06,-0.432
3.110E-06,-0.544
3.120E-06,-0.584
3.130E-06,-0.584
3.140E-06,-0.528
3.150E-06,-0.432
3.160E-06,-0.384
3.170E-06,-0.368
3.180E-06,-0.408
3.190E-06,-0.472
3.200E-06,-0.536
3.210E-06,-0.576
3.220E-06,-0.608
3.230E-06,-0.632
3.240E-06,-0.656
3.250E-06,-0.616
3.260E-06,-0.536
3.270E-06,-0.424
3.280E-06,-0.240
3.290E-06,-0.096
3.300E-06,-0.024
3.310E-06,0.072
3.320E-06,0.096
3.330E-06,0.072
3.340E-06,0.024
3.350E-06,-0.072
3.360E-06,-0.096
3.370E-06,-0.056
3.380E-06,-0.032
3.390E-06,-0.064
3.400E-06,-0.120
3.410E-06,-0.160
3.420E-06,-0.176
3.430E-06,-0.184
3.440E-06,-0.208
