mediciones/Mediciones filtradas (saque las feas)/6-10/1.3/WaveData5610.csv

#timebase=2000000(ps)
,#voltbase=500000(mv/100)
#size=4000
-4.200E-06,0.360
-4.190E-06,0.600
-4.180E-06,0.500
-4.170E-06,0.320
-4.160E-06,0.220
-4.150E-06,-0.040
-4.140E-06,-0.140
-4.130E-06,-0.320
-4.120E-06,-0.380
-4.110E-06,-0.080
-4.100E-06,0.180
-4.090E-06,0.300
-4.080E-06,0.360
-4.070E-06,0.000
-4.060E-06,-0.180
-4.050E-06,-0.240
-4.040E-06,-0.140
-4.030E-06,0.240
-4.020E-06,0.480
-4.010E-06,0.480
-4.000E-06,0.280
-3.990E-06,-0.060
-3.980E-06,-0.240
-3.970E-06,-0.220
-3.960E-06,-0.060
-3.950E-06,0.140
-3.940E-06,0.220
-3.930E-06,0.220
-3.920E-06,0.100
-3.910E-06,-0.020
-3.900E-06,-0.080
-3.890E-06,-0.060
-3.880E-06,-0.040
-3.870E-06,-0.020
-3.860E-06,0.040
-3.850E-06,0.020
-3.840E-06,-0.020
-3.830E-06,-0.100
-3.820E-06,-0.180
-3.810E-06,-0.120
-3.800E-06,-0.080
-3.790E-06,0.000
-3.780E-06,0.120
-3.770E-06,0.180
-3.760E-06,0.200
-3.750E-06,0.220
-3.740E-06,0.220
-3.730E-06,0.340
-3.720E-06,0.320
-3.710E-06,0.360
-3.700E-06,0.380
-3.690E-06,0.260
-3.680E-06,0.420
-3.670E-06,0.140
-3.660E-06,-0.080
-3.650E-06,-0.200
-3.640E-06,-0.200
-3.630E-06,-0.060
-3.620E-06,0.420
-3.610E-06,0.660
-3.600E-06,0.740
-3.590E-06,0.600
-3.580E-06,0.200
-3.570E-06,0.000
-3.560E-06,-0.040
-3.550E-06,0.100
-3.540E-06,0.460
-3.530E-06,0.600
-3.520E-06,0.520
-3.510E-06,0.420
-3.500E-06,0.200
-3.490E-06,0.120
-3.480E-06,0.180
-3.470E-06,0.320
-3.460E-06,0.320
-3.450E-06,0.280
-3.440E-06,0.160
-3.430E-06,-0.040
-3.420E-06,-0.020
-3.410E-06,-0.100
-3.400E-06,-0.080
-3.390E-06,0.020
-3.380E-06,-0.040
-3.370E-06,0.020
-3.360E-06,0.060
-3.350E-06,0.080
-3.340E-06,0.140
-3.330E-06,0.140
-3.320E-06,0.200
-3.310E-06,0.200
-3.300E-06,0.200
-3.290E-06,0.260
-3.280E-06,0.320
-3.270E-06,0.340
-3.260E-06,0.340
-3.250E-06,0.240
-3.240E-06,0.180
-3.230E-06,0.080
-3.220E-06,0.080
-3.210E-06,0.100
-3.200E-06,0.120
-3.190E-06,0.180
-3.180E-06,0.220
-3.170E-06,0.260
-3.160E-06,0.240
-3.150E-06,0.300
-3.140E-06,0.280
-3.130E-06,0.260
-3.120E-06,0.320
-3.110E-06,0.360
-3.100E-06,0.380
-3.090E-06,0.440
-3.080E-06,0.220
-3.070E-06,0.280
-3.060E-06,0.100
-3.050E-06,-0.020
-3.040E-06,-0.060
-3.030E-06,-0.360
-3.020E-06,-0.120
-3.010E-06,-0.100
-3.000E-06,0.500
-2.990E-06,0.860
-2.980E-06,0.940
-2.970E-06,0.860
-2.960E-06,0.380
-2.950E-06,-0.420
-2.940E-06,-0.720
-2.930E-06,-0.600
-2.920E-06,-0.160
-2.910E-06,0.820
-2.900E-06,1.020
-2.890E-06,0.940
-2.880E-06,0.340
-2.870E-06,-0.340
-2.860E-06,-0.700
-2.850E-06,-0.340
-2.840E-06,0.160
-2.830E-06,0.640
-2.820E-06,0.720
-2.810E-06,0.460
-2.800E-06,0.060
-2.790E-06,-0.240
-2.780E-06,-0.260
-2.770E-06,-0.040
-2.760E-06,0.200
-2.750E-06,0.340
-2.740E-06,0.320
-2.730E-06,0.080
-2.720E-06,-0.160
-2.710E-06,-0.340
-2.700E-06,-0.400
-2.690E-06,-0.360
-2.680E-06,-0.260
-2.670E-06,-0.160
-2.660E-06,-0.060
-2.650E-06,-0.080
-2.640E-06,-0.180
-2.630E-06,-0.240
-2.620E-06,-0.280
-2.610E-06,-0.180
-2.600E-06,-0.060
-2.590E-06,0.100
-2.580E-06,0.320
-2.570E-06,0.300
-2.560E-06,0.280
-2.550E-06,0.240
-2.540E-06,0.140
-2.530E-06,0.120
-2.520E-06,0.180
-2.510E-06,0.340
-2.500E-06,0.480
-2.490E-06,0.560
-2.480E-06,0.500
-2.470E-06,0.420
-2.460E-06,0.440
-2.450E-06,0.400
-2.440E-06,0.400
-2.430E-06,0.460
-2.420E-06,0.340
-2.410E-06,0.380
-2.400E-06,0.400
-2.390E-06,0.360
-2.380E-06,0.340
-2.370E-06,0.260
-2.360E-06,0.240
-2.350E-06,0.060
-2.340E-06,-0.500
-2.330E-06,-0.680
-2.320E-06,-0.420
-2.310E-06,-0.540
-2.300E-06,0.520
-2.290E-06,0.840
-2.280E-06,0.720
-2.270E-06,0.940
-2.260E-06,-0.080
-2.250E-06,-0.060
-2.240E-06,-0.100
-2.230E-06,0.100
-2.220E-06,0.500
-2.210E-06,0.480
-2.200E-06,0.080
-2.190E-06,-0.340
-2.180E-06,-0.160
-2.170E-06,0.140
-2.160E-06,0.480
-2.150E-06,0.920
-2.140E-06,0.980
-2.130E-06,0.080
-2.120E-06,0.200
-2.110E-06,-0.320
-2.100E-06,-0.360
-2.090E-06,0.280
-2.080E-06,0.080
-2.070E-06,0.680
-2.060E-06,0.620
-2.050E-06,0.200
-2.040E-06,0.280
-2.030E-06,-0.080
-2.020E-06,-0.240
-2.010E-06,0.160
-2.000E-06,0.320
-1.990E-06,0.480
-1.980E-06,0.620
-1.970E-06,0.440
-1.960E-06,0.200
-1.950E-06,0.160
-1.940E-06,0.080
-1.930E-06,0.260
-1.920E-06,0.380
-1.910E-06,0.300
-1.900E-06,0.300
-1.890E-06,0.220
-1.880E-06,0.120
-1.870E-06,0.040
-1.860E-06,0.120
-1.850E-06,0.380
-1.840E-06,0.380
-1.830E-06,0.320
-1.820E-06,0.580
-1.810E-06,-0.040
-1.800E-06,0.160
-1.790E-06,-0.260
-1.780E-06,-0.340
-1.770E-06,0.040
-1.760E-06,0.160
-1.750E-06,0.620
-1.740E-06,0.620
-1.730E-06,0.560
-1.720E-06,0.300
-1.710E-06,0.200
-1.700E-06,0.160
-1.690E-06,0.200
-1.680E-06,0.480
-1.670E-06,0.480
-1.660E-06,0.620
-1.650E-06,0.660
-1.640E-06,0.440
-1.630E-06,0.460
-1.620E-06,0.340
-1.610E-06,0.180
-1.600E-06,0.200
-1.590E-06,0.320
-1.580E-06,0.180
-1.570E-06,0.160
-1.560E-06,0.020
-1.550E-06,-0.020
-1.540E-06,0.060
-1.530E-06,0.060
-1.520E-06,0.060
-1.510E-06,0.060
-1.500E-06,-0.060
-1.490E-06,-0.100
-1.480E-06,-0.160
-1.470E-06,-0.040
-1.460E-06,0.000
-1.450E-06,0.040
-1.440E-06,0.120
-1.430E-06,0.260
-1.420E-06,0.340
-1.410E-06,0.380
-1.400E-06,0.320
-1.390E-06,0.260
-1.380E-06,0.040
-1.370E-06,0.000
-1.360E-06,-0.160
-1.350E-06,-0.140
-1.340E-06,0.020
-1.330E-06,0.060
-1.320E-06,0.140
-1.310E-06,0.100
-1.300E-06,-0.060
-1.290E-06,0.100
-1.280E-06,-0.120
-1.270E-06,-0.220
-1.260E-06,-0.080
-1.250E-06,-0.160
-1.240E-06,0.140
-1.230E-06,0.460
-1.220E-06,0.440
-1.210E-06,0.600
-1.200E-06,0.540
-1.190E-06,0.500
-1.180E-06,0.600
-1.170E-06,0.580
-1.160E-06,0.540
-1.150E-06,0.580
-1.140E-06,0.500
-1.130E-06,0.520
-1.120E-06,0.500
-1.110E-06,0.420
-1.100E-06,0.560
-1.090E-06,0.440
-1.080E-06,0.560
-1.070E-06,0.660
-1.060E-06,0.420
-1.050E-06,0.580
-1.040E-06,0.340
-1.030E-06,0.280
-1.020E-06,0.480
-1.010E-06,0.340
-1.000E-06,0.600
-9.900E-07,0.780
-9.800E-07,0.560
-9.700E-07,0.660
-9.600E-07,0.940
-9.500E-07,0.800
-9.400E-07,0.760
-9.300E-07,0.940
-9.200E-07,0.560
-9.100E-07,0.580
-9.000E-07,0.320
-8.900E-07,0.100
-8.800E-07,0.280
-8.700E-07,0.280
-8.600E-07,0.320
-8.500E-07,0.240
-8.400E-07,-0.060
-8.300E-07,-0.440
-8.200E-07,-0.500
-8.100E-07,-0.420
-8.000E-07,-0.160
-7.900E-07,0.340
-7.800E-07,1.020
-7.700E-07,0.980
-7.600E-07,0.760
-7.500E-07,0.760
-7.400E-07,0.360
-7.300E-07,0.080
-7.200E-07,0.320
-7.100E-07,-0.100
-7.000E-07,0.140
-6.900E-07,0.300
-6.800E-07,0.340
-6.700E-07,0.860
-6.600E-07,0.860
-6.500E-07,0.820
-6.400E-07,0.620
-6.300E-07,0.240
-6.200E-07,0.080
-6.100E-07,0.640
-6.000E-07,0.560
-5.900E-07,0.440
-5.800E-07,0.180
-5.700E-07,-0.480
-5.600E-07,-1.160
-5.500E-07,-1.300
-5.400E-07,-0.900
-5.300E-07,-1.340
-5.200E-07,-0.700
-5.100E-07,-1.200
-5.000E-07,-1.020
-4.900E-07,-0.660
-4.800E-07,-0.440
-4.700E-07,0.320
-4.600E-07,0.740
-4.500E-07,0.900
-4.400E-07,1.140
-4.300E-07,1.040
-4.200E-07,1.040
-4.100E-07,1.120
-4.000E-07,1.160
-3.900E-07,1.240
-3.800E-07,1.360
-3.700E-07,1.280
-3.600E-07,1.120
-3.500E-07,0.860
-3.400E-07,0.580
-3.300E-07,0.340
-3.200E-07,0.200
-3.100E-07,0.080
-3.000E-07,-0.100
-2.900E-07,-0.120
-2.800E-07,-0.240
-2.700E-07,-0.360
-2.600E-07,-0.400
-2.500E-07,-0.480
-2.400E-07,-0.580
-2.300E-07,-0.580
-2.200E-07,-0.660
-2.100E-07,-0.720
-2.000E-07,-0.780
-1.900E-07,-0.820
-1.800E-07,-0.860
-1.700E-07,-1.020
-1.600E-07,-1.120
-1.500E-07,-1.400
-1.400E-07,-1.700
-1.300E-07,-1.960
-1.200E-07,-2.360
-1.100E-07,-2.660
-1.000E-07,-2.660
-9.000E-08,-2.680
-8.000E-08,-2.660
-7.000E-08,-2.660
-6.000E-08,-2.660
-5.000E-08,-2.680
-4.000E-08,-2.680
-3.000E-08,-2.660
-2.000E-08,-2.660
-1.000E-08,-2.660
0.000E+00,-2.660
1.000E-08,-2.160
2.000E-08,-1.180
3.000E-08,-0.420
4.000E-08,-0.380
5.000E-08,-0.420
6.000E-08,-1.360
7.000E-08,-2.280
8.000E-08,-2.660
9.000E-08,-2.660
1.000E-07,-2.660
1.100E-07,-1.880
1.200E-07,-1.100
1.300E-07,0.100
1.400E-07,-0.080
1.500E-07,-1.120
1.600E-07,-1.480
1.700E-07,-1.780
1.800E-07,-1.240
1.900E-07,0.380
2.000E-07,1.300
2.100E-07,1.940
2.200E-07,1.700
2.300E-07,0.920
2.400E-07,0.000
2.500E-07,-0.680
2.600E-07,-0.760
2.700E-07,-0.660
2.800E-07,0.100
2.900E-07,0.460
3.000E-07,0.700
3.100E-07,0.720
3.200E-07,0.120
3.300E-07,-0.480
3.400E-07,-0.860
3.500E-07,-1.140
3.600E-07,-1.020
3.700E-07,-0.820
3.800E-07,-0.880
3.900E-07,-1.040
4.000E-07,-1.340
4.100E-07,-1.740
4.200E-07,-1.920
4.300E-07,-1.940
4.400E-07,-1.840
4.500E-07,-1.640
4.600E-07,-1.400
4.700E-07,-1.220
4.800E-07,-1.180
4.900E-07,-1.160
5.000E-07,-1.180
5.100E-07,-1.100
5.200E-07,-0.880
5.300E-07,-0.760
5.400E-07,-0.700
5.500E-07,-0.740
5.600E-07,-0.920
5.700E-07,-1.080
5.800E-07,-1.280
5.900E-07,-1.280
6.000E-07,-1.220
6.100E-07,-1.020
6.200E-07,-0.480
6.300E-07,-0.100
6.400E-07,0.120
6.500E-07,0.400
6.600E-07,0.720
6.700E-07,0.780
6.800E-07,1.100
6.900E-07,1.100
7.000E-07,0.900
7.100E-07,0.840
7.200E-07,0.640
7.300E-07,0.620
7.400E-07,0.600
7.500E-07,0.660
7.600E-07,0.680
7.700E-07,0.560
7.800E-07,0.440
7.900E-07,0.400
8.000E-07,0.340
8.100E-07,0.160
8.200E-07,0.480
8.300E-07,0.020
8.400E-07,0.160
8.500E-07,-0.020
8.600E-07,0.120
8.700E-07,0.540
8.800E-07,-0.200
8.900E-07,0.400
9.000E-07,-0.440
9.100E-07,-0.160
9.200E-07,0.140
9.300E-07,0.360
9.400E-07,0.960
9.500E-07,1.540
9.600E-07,1.180
9.700E-07,1.100
9.800E-07,0.640
9.900E-07,0.160
1.000E-06,0.540
1.010E-06,0.580
1.020E-06,0.740
1.030E-06,0.940
1.040E-06,0.980
1.050E-06,1.080
1.060E-06,1.160
1.070E-06,1.000
1.080E-06,0.900
1.090E-06,0.760
1.100E-06,0.480
1.110E-06,0.320
1.120E-06,0.120
1.130E-06,-0.060
1.140E-06,-0.300
1.150E-06,-0.580
1.160E-06,-0.880
1.170E-06,-1.120
1.180E-06,-1.340
1.190E-06,-1.480
1.200E-06,-1.580
1.210E-06,-1.600
1.220E-06,-1.640
1.230E-06,-1.620
1.240E-06,-1.600
1.250E-06,-1.580
1.260E-06,-1.540
1.270E-06,-1.460
1.280E-06,-1.300
1.290E-06,-1.160
1.300E-06,-1.020
1.310E-06,-0.900
1.320E-06,-0.860
1.330E-06,-0.780
1.340E-06,-0.700
1.350E-06,-0.580
1.360E-06,-0.400
1.370E-06,-0.260
1.380E-06,-0.100
1.390E-06,0.040
1.400E-06,0.180
1.410E-06,0.340
1.420E-06,0.420
1.430E-06,0.560
1.440E-06,0.620
1.450E-06,0.680
1.460E-06,0.720
1.470E-06,0.680
1.480E-06,0.620
1.490E-06,0.500
1.500E-06,0.340
1.510E-06,0.100
1.520E-06,-0.060
1.530E-06,-0.280
1.540E-06,-0.440
1.550E-06,-0.580
1.560E-06,-0.660
1.570E-06,-0.740
1.580E-06,-0.780
1.590E-06,-0.840
1.600E-06,-0.760
1.610E-06,-0.700
1.620E-06,-0.640
1.630E-06,-0.520
1.640E-06,-0.380
1.650E-06,-0.280
1.660E-06,-0.160
1.670E-06,-0.060
1.680E-06,0.060
1.690E-06,0.120
1.700E-06,0.160
1.710E-06,0.200
1.720E-06,0.160
1.730E-06,0.080
1.740E-06,-0.020
1.750E-06,-0.140
1.760E-06,-0.220
1.770E-06,-0.380
1.780E-06,-0.500
1.790E-06,-0.660
1.800E-06,-0.820
1.810E-06,-0.880
1.820E-06,-1.000
1.830E-06,-1.080
1.840E-06,-1.100
1.850E-06,-1.100
1.860E-06,-1.060
1.870E-06,-0.940
1.880E-06,-0.840
1.890E-06,-0.700
1.900E-06,-0.580
1.910E-06,-0.420
1.920E-06,-0.300
1.930E-06,-0.180
1.940E-06,0.000
1.950E-06,0.080
1.960E-06,0.180
1.970E-06,0.220
1.980E-06,0.260
1.990E-06,0.240
2.000E-06,0.220
2.010E-06,0.220
2.020E-06,0.120
2.030E-06,0.100
2.040E-06,0.040
2.050E-06,-0.040
2.060E-06,-0.140
2.070E-06,-0.200
2.080E-06,-0.240
2.090E-06,-0.320
2.100E-06,-0.360
2.110E-06,-0.320
2.120E-06,-0.320
2.130E-06,-0.300
2.140E-06,-0.220
2.150E-06,-0.200
2.160E-06,-0.160
2.170E-06,-0.100
2.180E-06,-0.060
2.190E-06,0.000
2.200E-06,0.000
2.210E-06,0.000
2.220E-06,0.020
2.230E-06,-0.020
2.240E-06,0.000
2.250E-06,-0.100
2.260E-06,-0.100
2.270E-06,-0.180
2.280E-06,-0.220
2.290E-06,-0.240
2.300E-06,-0.260
2.310E-06,-0.320
2.320E-06,-0.360
2.330E-06,-0.400
2.340E-06,-0.420
2.350E-06,-0.420
2.360E-06,-0.440
2.370E-06,-0.320
2.380E-06,-0.280
2.390E-06,-0.240
2.400E-06,-0.160
2.410E-06,-0.080
2.420E-06,0.000
2.430E-06,0.100
2.440E-06,0.200
2.450E-06,0.220
2.460E-06,0.200
2.470E-06,0.180
2.480E-06,0.160
2.490E-06,0.180
2.500E-06,0.180
2.510E-06,0.120
2.520E-06,0.080
2.530E-06,0.060
2.540E-06,0.020
2.550E-06,-0.020
2.560E-06,-0.140
2.570E-06,-0.260
2.580E-06,-0.340
2.590E-06,-0.420
2.600E-06,-0.480
2.610E-06,-0.480
2.620E-06,-0.500
2.630E-06,-0.520
2.640E-06,-0.540
2.650E-06,-0.560
2.660E-06,-0.580
2.670E-06,-0.580
2.680E-06,-0.540
2.690E-06,-0.500
2.700E-06,-0.500
2.710E-06,-0.400
2.720E-06,-0.400
2.730E-06,-0.320
2.740E-06,-0.200
2.750E-06,-0.120
2.760E-06,-0.060
2.770E-06,-0.020
2.780E-06,-0.020
2.790E-06,0.020
2.800E-06,0.000
2.810E-06,0.000
2.820E-06,-0.040
2.830E-06,0.000
2.840E-06,-0.040
2.850E-06,-0.080
2.860E-06,-0.080
2.870E-06,-0.120
2.880E-06,-0.160
2.890E-06,-0.120
2.900E-06,-0.080
2.910E-06,0.020
2.920E-06,0.080
2.930E-06,0.080
2.940E-06,0.120
2.950E-06,0.140
2.960E-06,0.180
2.970E-06,0.220
2.980E-06,0.260
2.990E-06,0.260
3.000E-06,0.300
3.010E-06,0.240
3.020E-06,0.240
3.030E-06,0.220
3.040E-06,0.180
3.050E-06,0.160
3.060E-06,0.140
3.070E-06,0.120
3.080E-06,0.080
3.090E-06,0.040
3.100E-06,0.060
3.110E-06,0.020
3.120E-06,0.000
3.130E-06,-0.040
3.140E-06,-0.060
3.150E-06,-0.080
3.160E-06,-0.100
3.170E-06,-0.140
3.180E-06,-0.220
3.190E-06,-0.240
3.200E-06,-0.260
3.210E-06,-0.300
3.220E-06,-0.280
3.230E-06,-0.260
3.240E-06,-0.240
3.250E-06,-0.240
3.260E-06,-0.240
3.270E-06,-0.200
3.280E-06,-0.240
3.290E-06,-0.200
3.300E-06,-0.220
3.310E-06,-0.180
3.320E-06,-0.160
3.330E-06,-0.140
3.340E-06,-0.080
3.350E-06,-0.040
3.360E-06,-0.020
3.370E-06,-0.020
3.380E-06,-0.020
3.390E-06,0.000
3.400E-06,0.060
3.410E-06,0.060
3.420E-06,0.080
3.430E-06,0.080
3.440E-06,0.040
3.450E-06,0.020
3.460E-06,0.040
3.470E-06,0.000
3.480E-06,0.000
3.490E-06,0.000
3.500E-06,0.000
3.510E-06,0.020
3.520E-06,0.020
3.530E-06,0.060
3.540E-06,0.060
3.550E-06,0.100
3.560E-06,0.120
3.570E-06,0.100
3.580E-06,0.100
3.590E-06,0.080
3.600E-06,0.040
3.610E-06,0.060
3.620E-06,0.040
3.630E-06,0.020
3.640E-06,0.040
3.650E-06,0.020
3.660E-06,0.060
3.670E-06,0.080
3.680E-06,0.060
3.690E-06,0.080
3.700E-06,0.040
3.710E-06,0.000
3.720E-06,-0.060
3.730E-06,-0.160
3.740E-06,-0.240
3.750E-06,-0.340
3.760E-06,-0.480
3.770E-06,-0.540
3.780E-06,-0.640
3.790E-06,-0.700
3.800E-06,-0.720
3.810E-06,-0.740
3.820E-06,-0.720
3.830E-06,-0.680
3.840E-06,-0.640
3.850E-06,-0.560
3.860E-06,-0.480
3.870E-06,-0.340
3.880E-06,-0.260
3.890E-06,-0.160
3.900E-06,-0.020
3.910E-06,0.080
3.920E-06,0.160
3.930E-06,0.260
3.940E-06,0.320
3.950E-06,0.400
3.960E-06,0.460
3.970E-06,0.520
3.980E-06,0.640
3.990E-06,0.700
4.000E-06,0.860
4.010E-06,1.000
4.020E-06,1.080
4.030E-06,1.220
4.040E-06,1.300
4.050E-06,1.380
4.060E-06,1.420
4.070E-06,1.500
4.080E-06,1.480
4.090E-06,1.400
4.100E-06,1.340
4.110E-06,1.240
4.120E-06,1.080
4.130E-06,0.940
4.140E-06,0.760
4.150E-06,0.560
4.160E-06,0.400
4.170E-06,0.320
4.180E-06,0.220
4.190E-06,0.100
4.200E-06,0.040
4.210E-06,-0.080
4.220E-06,-0.160
4.230E-06,-0.180
4.240E-06,-0.260
4.250E-06,-0.280
4.260E-06,-0.280
4.270E-06,-0.280
4.280E-06,-0.220
4.290E-06,-0.160
4.300E-06,-0.120
4.310E-06,-0.140
4.320E-06,-0.180
4.330E-06,-0.240
4.340E-06,-0.240
4.350E-06,-0.260
4.360E-06,-0.300
4.370E-06,-0.280
4.380E-06,-0.240
4.390E-06,-0.180
4.400E-06,-0.080
4.410E-06,0.000
4.420E-06,0.080
4.430E-06,0.160
4.440E-06,0.200
4.450E-06,0.240
4.460E-06,0.320
4.470E-06,0.340
4.480E-06,0.380
4.490E-06,0.420
4.500E-06,0.420
4.510E-06,0.380
4.520E-06,0.340
4.530E-06,0.320
4.540E-06,0.220
4.550E-06,0.200
4.560E-06,0.140
4.570E-06,0.180
4.580E-06,0.180
4.590E-06,0.180
4.600E-06,0.240
4.610E-06,0.300
4.620E-06,0.340
4.630E-06,0.400
4.640E-06,0.380
4.650E-06,0.380
4.660E-06,0.380
4.670E-06,0.320
4.680E-06,0.320
4.690E-06,0.240
4.700E-06,0.180
4.710E-06,0.180
4.720E-06,0.160
4.730E-06,0.160
4.740E-06,0.240
4.750E-06,0.300
4.760E-06,0.360
4.770E-06,0.420
4.780E-06,0.440
4.790E-06,0.460
4.800E-06,0.540
4.810E-06,0.580
4.820E-06,0.660
4.830E-06,0.700
4.840E-06,0.780
4.850E-06,0.760
4.860E-06,0.680
4.870E-06,0.600
4.880E-06,0.500
4.890E-06,0.420
4.900E-06,0.320
4.910E-06,0.280
4.920E-06,0.240
4.930E-06,0.260
4.940E-06,0.300
4.950E-06,0.320
4.960E-06,0.300
4.970E-06,0.340
4.980E-06,0.340
4.990E-06,0.360
5.000E-06,0.420
5.010E-06,0.500
5.020E-06,0.660
5.030E-06,0.900
5.040E-06,1.200
5.050E-06,1.620
5.060E-06,2.080
5.070E-06,2.600
5.080E-06,2.760
5.090E-06,2.740
5.100E-06,2.760
5.110E-06,2.780
5.120E-06,2.780
5.130E-06,2.760
5.140E-06,2.760
5.150E-06,2.760
5.160E-06,2.780
5.170E-06,2.760
5.180E-06,2.760
5.190E-06,2.760
5.200E-06,2.740
5.210E-06,2.760
5.220E-06,2.760
5.230E-06,2.620
5.240E-06,2.140
5.250E-06,1.760
5.260E-06,1.440
5.270E-06,1.180
5.280E-06,1.020
5.290E-06,0.920
5.300E-06,0.800
5.310E-06,0.720
5.320E-06,0.600
5.330E-06,0.520
5.340E-06,0.480
5.350E-06,0.420
5.360E-06,0.420
5.370E-06,0.400
5.380E-06,0.440
5.390E-06,0.440
5.400E-06,0.400
5.410E-06,0.360
5.420E-06,0.340
5.430E-06,0.360
5.440E-06,0.320
5.450E-06,0.340
5.460E-06,0.380
5.470E-06,0.400
5.480E-06,0.400
5.490E-06,0.440
5.500E-06,0.480
5.510E-06,0.480
5.520E-06,0.500
5.530E-06,0.500
5.540E-06,0.520
5.550E-06,0.500
5.560E-06,0.500
5.570E-06,0.440
5.580E-06,0.380
5.590E-06,0.300
5.600E-06,0.280
5.610E-06,0.260
5.620E-06,0.280
5.630E-06,0.260
5.640E-06,0.340
5.650E-06,0.320
5.660E-06,0.320
5.670E-06,0.320
5.680E-06,0.320
5.690E-06,0.280
5.700E-06,0.220
5.710E-06,0.160
5.720E-06,0.140
5.730E-06,0.060
5.740E-06,0.000
5.750E-06,0.000
5.760E-06,0.000
5.770E-06,-0.020
5.780E-06,-0.040
5.790E-06,-0.080
5.800E-06,-0.100
5.810E-06,-0.120
5.820E-06,-0.080
5.830E-06,-0.080
5.840E-06,-0.060
5.850E-06,0.040
5.860E-06,0.040
5.870E-06,0.100
5.880E-06,0.140
5.890E-06,0.140
5.900E-06,0.180
5.910E-06,0.160
5.920E-06,0.180
5.930E-06,0.160
5.940E-06,0.180
5.950E-06,0.200
5.960E-06,0.220
5.970E-06,0.300
5.980E-06,0.360
5.990E-06,0.420
6.000E-06,0.420
6.010E-06,0.400
6.020E-06,0.420
6.030E-06,0.420
6.040E-06,0.420
6.050E-06,0.400
6.060E-06,0.420
6.070E-06,0.320
6.080E-06,0.320
6.090E-06,0.340
6.100E-06,0.300
6.110E-06,0.300
6.120E-06,0.260
6.130E-06,0.260
6.140E-06,0.240
6.150E-06,0.240
6.160E-06,0.240
6.170E-06,0.240
6.180E-06,0.240
6.190E-06,0.260
6.200E-06,0.260
6.210E-06,0.220
6.220E-06,0.180
6.230E-06,0.140
6.240E-06,0.080
6.250E-06,0.020
6.260E-06,0.000
6.270E-06,-0.100
6.280E-06,-0.120
6.290E-06,-0.100
6.300E-06,-0.060
6.310E-06,-0.020
6.320E-06,0.040
6.330E-06,0.100
6.340E-06,0.160
6.350E-06,0.200
6.360E-06,0.260
6.370E-06,0.360
6.380E-06,0.340
6.390E-06,0.380
6.400E-06,0.420
6.410E-06,0.380
6.420E-06,0.340
6.430E-06,0.340
6.440E-06,0.320
6.450E-06,0.300
6.460E-06,0.260
6.470E-06,0.200
6.480E-06,0.160
6.490E-06,0.160
6.500E-06,0.100
6.510E-06,0.080
6.520E-06,0.040
6.530E-06,0.060
6.540E-06,0.060
6.550E-06,0.060
6.560E-06,0.080
6.570E-06,0.040
6.580E-06,0.060
6.590E-06,0.080
6.600E-06,0.060
6.610E-06,0.040
6.620E-06,0.060
6.630E-06,0.000
6.640E-06,0.000
6.650E-06,0.020
6.660E-06,0.060
6.670E-06,0.040
6.680E-06,0.040
6.690E-06,0.080
6.700E-06,0.100
6.710E-06,0.060
6.720E-06,0.040
6.730E-06,0.060
6.740E-06,0.040
6.750E-06,0.040
6.760E-06,0.060
6.770E-06,0.040
6.780E-06,0.020
6.790E-06,0.020
6.800E-06,0.060
6.810E-06,0.060
6.820E-06,0.100
6.830E-06,0.080
6.840E-06,0.120
6.850E-06,0.120
6.860E-06,0.120
6.870E-06,0.160
6.880E-06,0.180
6.890E-06,0.160
6.900E-06,0.160
6.910E-06,0.160
6.920E-06,0.180
6.930E-06,0.160
6.940E-06,0.200
6.950E-06,0.160
6.960E-06,0.160
6.970E-06,0.160
6.980E-06,0.140
6.990E-06,0.140
7.000E-06,0.120
7.010E-06,0.140
7.020E-06,0.120
7.030E-06,0.120
7.040E-06,0.140
7.050E-06,0.120
7.060E-06,0.120
7.070E-06,0.120
7.080E-06,0.120
7.090E-06,0.140
7.100E-06,0.120
7.110E-06,0.120
7.120E-06,0.100
7.130E-06,0.120
7.140E-06,0.100
7.150E-06,0.060
7.160E-06,0.080
7.170E-06,0.100
7.180E-06,0.040
7.190E-06,0.060
7.200E-06,0.040
7.210E-06,0.040
7.220E-06,0.020
7.230E-06,0.020
7.240E-06,0.040
7.250E-06,0.040
7.260E-06,0.040
7.270E-06,0.060
7.280E-06,0.080
7.290E-06,0.080
7.300E-06,0.080
7.310E-06,0.080
7.320E-06,0.080
7.330E-06,0.040
7.340E-06,0.040
7.350E-06,0.040
7.360E-06,0.020
7.370E-06,0.040
7.380E-06,0.000
7.390E-06,0.000
7.400E-06,-0.020
7.410E-06,-0.040
7.420E-06,-0.040
7.430E-06,-0.060
7.440E-06,-0.060
7.450E-06,-0.060
7.460E-06,-0.060
7.470E-06,0.000
7.480E-06,0.000
7.490E-06,0.000
7.500E-06,0.000
7.510E-06,-0.040
7.520E-06,0.000
7.530E-06,-0.020
7.540E-06,0.000
7.550E-06,-0.020
7.560E-06,-0.020
7.570E-06,0.000
7.580E-06,-0.020
7.590E-06,0.000
7.600E-06,-0.020
7.610E-06,0.000
7.620E-06,-0.020
7.630E-06,0.020
7.640E-06,0.020
7.650E-06,0.020
7.660E-06,0.020
7.670E-06,0.020
7.680E-06,-0.020
7.690E-06,0.020
7.700E-06,0.000
7.710E-06,0.020
7.720E-06,0.000
7.730E-06,0.040
