mediciones/Mediciones filtradas (saque las feas)/6-10/1.3/WaveData5613.csv

#timebase=2000000(ps)
,#voltbase=100000(mv/100)
#size=4000
-4.200E-06,0.000
-4.190E-06,0.004
-4.180E-06,0.004
-4.170E-06,-0.004
-4.160E-06,0.004
-4.150E-06,0.004
-4.140E-06,0.004
-4.130E-06,0.004
-4.120E-06,0.004
-4.110E-06,0.000
-4.100E-06,0.004
-4.090E-06,0.004
-4.080E-06,0.004
-4.070E-06,0.004
-4.060E-06,0.000
-4.050E-06,0.004
-4.040E-06,0.004
-4.030E-06,0.004
-4.020E-06,0.004
-4.010E-06,0.004
-4.000E-06,0.004
-3.990E-06,0.004
-3.980E-06,0.004
-3.970E-06,0.008
-3.960E-06,0.000
-3.950E-06,0.000
-3.940E-06,0.004
-3.930E-06,0.008
-3.920E-06,0.008
-3.910E-06,0.000
-3.900E-06,0.004
-3.890E-06,0.004
-3.880E-06,0.000
-3.870E-06,0.000
-3.860E-06,0.004
-3.850E-06,0.004
-3.840E-06,0.004
-3.830E-06,0.000
-3.820E-06,0.008
-3.810E-06,0.000
-3.800E-06,0.004
-3.790E-06,0.000
-3.780E-06,0.004
-3.770E-06,0.000
-3.760E-06,0.004
-3.750E-06,0.004
-3.740E-06,0.004
-3.730E-06,0.008
-3.720E-06,0.008
-3.710E-06,0.004
-3.700E-06,0.000
-3.690E-06,0.004
-3.680E-06,0.008
-3.670E-06,0.000
-3.660E-06,0.004
-3.650E-06,0.004
-3.640E-06,0.004
-3.630E-06,0.000
-3.620E-06,-0.004
-3.610E-06,0.004
-3.600E-06,0.012
-3.590E-06,0.000
-3.580E-06,0.000
-3.570E-06,0.008
-3.560E-06,0.020
-3.550E-06,0.056
-3.540E-06,0.072
-3.530E-06,0.056
-3.520E-06,0.020
-3.510E-06,-0.036
-3.500E-06,-0.088
-3.490E-06,-0.132
-3.480E-06,-0.072
-3.470E-06,0.008
-3.460E-06,0.072
-3.450E-06,0.100
-3.440E-06,0.064
-3.430E-06,0.016
-3.420E-06,-0.040
-3.410E-06,-0.040
-3.400E-06,-0.008
-3.390E-06,0.028
-3.380E-06,0.056
-3.370E-06,0.048
-3.360E-06,0.012
-3.350E-06,-0.020
-3.340E-06,-0.040
-3.330E-06,-0.060
-3.320E-06,-0.028
-3.310E-06,0.008
-3.300E-06,0.048
-3.290E-06,0.064
-3.280E-06,0.056
-3.270E-06,0.016
-3.260E-06,0.000
-3.250E-06,-0.024
-3.240E-06,-0.028
-3.230E-06,-0.004
-3.220E-06,0.004
-3.210E-06,0.004
-3.200E-06,-0.004
-3.190E-06,-0.004
-3.180E-06,-0.028
-3.170E-06,-0.032
-3.160E-06,-0.008
-3.150E-06,0.004
-3.140E-06,0.020
-3.130E-06,0.036
-3.120E-06,0.048
-3.110E-06,0.024
-3.100E-06,0.012
-3.090E-06,0.000
-3.080E-06,0.000
-3.070E-06,-0.012
-3.060E-06,-0.004
-3.050E-06,-0.008
-3.040E-06,-0.004
-3.030E-06,-0.008
-3.020E-06,-0.004
-3.010E-06,-0.008
-3.000E-06,-0.004
-2.990E-06,0.004
-2.980E-06,0.012
-2.970E-06,0.016
-2.960E-06,0.024
-2.950E-06,0.012
-2.940E-06,0.008
-2.930E-06,0.004
-2.920E-06,0.000
-2.910E-06,-0.004
-2.900E-06,0.004
-2.890E-06,-0.008
-2.880E-06,0.008
-2.870E-06,0.012
-2.860E-06,0.012
-2.850E-06,0.012
-2.840E-06,-0.004
-2.830E-06,-0.004
-2.820E-06,-0.004
-2.810E-06,0.008
-2.800E-06,0.000
-2.790E-06,0.008
-2.780E-06,0.004
-2.770E-06,0.000
-2.760E-06,0.020
-2.750E-06,0.004
-2.740E-06,0.008
-2.730E-06,-0.008
-2.720E-06,-0.028
-2.710E-06,-0.020
-2.700E-06,-0.008
-2.690E-06,-0.004
-2.680E-06,0.028
-2.670E-06,-0.008
-2.660E-06,0.032
-2.650E-06,0.028
-2.640E-06,-0.004
-2.630E-06,-0.024
-2.620E-06,-0.068
-2.610E-06,-0.008
-2.600E-06,-0.032
-2.590E-06,0.092
-2.580E-06,-0.024
-2.570E-06,0.020
-2.560E-06,0.024
-2.550E-06,-0.056
-2.540E-06,-0.028
-2.530E-06,0.044
-2.520E-06,-0.008
-2.510E-06,-0.056
-2.500E-06,0.056
-2.490E-06,0.008
-2.480E-06,0.004
-2.470E-06,0.000
-2.460E-06,0.008
-2.450E-06,-0.024
-2.440E-06,0.008
-2.430E-06,0.008
-2.420E-06,0.000
-2.410E-06,0.020
-2.400E-06,-0.008
-2.390E-06,0.008
-2.380E-06,-0.004
-2.370E-06,0.004
-2.360E-06,-0.004
-2.350E-06,0.012
-2.340E-06,0.012
-2.330E-06,0.008
-2.320E-06,0.016
-2.310E-06,0.016
-2.300E-06,0.008
-2.290E-06,0.000
-2.280E-06,0.004
-2.270E-06,0.004
-2.260E-06,0.016
-2.250E-06,0.004
-2.240E-06,0.008
-2.230E-06,0.008
-2.220E-06,0.004
-2.210E-06,-0.008
-2.200E-06,0.000
-2.190E-06,0.004
-2.180E-06,0.008
-2.170E-06,0.016
-2.160E-06,0.008
-2.150E-06,0.012
-2.140E-06,0.004
-2.130E-06,0.000
-2.120E-06,0.000
-2.110E-06,0.004
-2.100E-06,0.008
-2.090E-06,0.008
-2.080E-06,0.008
-2.070E-06,0.004
-2.060E-06,0.004
-2.050E-06,0.000
-2.040E-06,0.008
-2.030E-06,0.004
-2.020E-06,0.008
-2.010E-06,0.004
-2.000E-06,0.008
-1.990E-06,0.008
-1.980E-06,0.008
-1.970E-06,0.012
-1.960E-06,0.008
-1.950E-06,0.012
-1.940E-06,0.012
-1.930E-06,0.012
-1.920E-06,0.012
-1.910E-06,0.016
-1.900E-06,0.020
-1.890E-06,0.028
-1.880E-06,0.024
-1.870E-06,0.020
-1.860E-06,0.032
-1.850E-06,0.032
-1.840E-06,0.052
-1.830E-06,0.028
-1.820E-06,0.048
-1.810E-06,0.012
-1.800E-06,0.008
-1.790E-06,-0.020
-1.780E-06,-0.040
-1.770E-06,-0.060
-1.760E-06,-0.052
-1.750E-06,-0.004
-1.740E-06,0.024
-1.730E-06,-0.012
-1.720E-06,-0.008
-1.710E-06,0.004
-1.700E-06,0.028
-1.690E-06,0.032
-1.680E-06,0.016
-1.670E-06,0.020
-1.660E-06,-0.004
-1.650E-06,-0.040
-1.640E-06,-0.056
-1.630E-06,-0.060
-1.620E-06,0.028
-1.610E-06,0.048
-1.600E-06,0.044
-1.590E-06,0.028
-1.580E-06,-0.004
-1.570E-06,-0.028
-1.560E-06,-0.068
-1.550E-06,-0.024
-1.540E-06,0.000
-1.530E-06,0.060
-1.520E-06,0.068
-1.510E-06,0.024
-1.500E-06,-0.028
-1.490E-06,-0.056
-1.480E-06,-0.032
-1.470E-06,-0.032
-1.460E-06,0.012
-1.450E-06,0.040
-1.440E-06,0.060
-1.430E-06,0.024
-1.420E-06,-0.004
-1.410E-06,-0.024
-1.400E-06,-0.024
-1.390E-06,0.000
-1.380E-06,0.024
-1.370E-06,0.040
-1.360E-06,0.028
-1.350E-06,0.024
-1.340E-06,0.008
-1.330E-06,-0.004
-1.320E-06,-0.024
-1.310E-06,-0.012
-1.300E-06,0.008
-1.290E-06,0.024
-1.280E-06,0.028
-1.270E-06,0.028
-1.260E-06,0.012
-1.250E-06,0.008
-1.240E-06,0.000
-1.230E-06,0.000
-1.220E-06,0.004
-1.210E-06,0.012
-1.200E-06,0.020
-1.190E-06,0.020
-1.180E-06,0.016
-1.170E-06,0.012
-1.160E-06,0.004
-1.150E-06,0.004
-1.140E-06,0.004
-1.130E-06,0.020
-1.120E-06,0.020
-1.110E-06,0.032
-1.100E-06,0.048
-1.090E-06,0.060
-1.080E-06,0.064
-1.070E-06,0.080
-1.060E-06,0.076
-1.050E-06,0.068
-1.040E-06,0.056
-1.030E-06,0.052
-1.020E-06,0.044
-1.010E-06,0.052
-1.000E-06,0.076
-9.900E-07,0.104
-9.800E-07,0.112
-9.700E-07,0.096
-9.600E-07,0.024
-9.500E-07,-0.060
-9.400E-07,-0.168
-9.300E-07,-0.188
-9.200E-07,-0.132
-9.100E-07,-0.016
-9.000E-07,0.092
-8.900E-07,0.124
-8.800E-07,0.100
-8.700E-07,0.000
-8.600E-07,-0.076
-8.500E-07,-0.080
-8.400E-07,-0.024
-8.300E-07,0.028
-8.200E-07,0.028
-8.100E-07,-0.028
-8.000E-07,-0.200
-7.900E-07,-0.372
-7.800E-07,-0.272
-7.700E-07,0.020
-7.600E-07,0.164
-7.500E-07,0.192
-7.400E-07,0.168
-7.300E-07,0.024
-7.200E-07,-0.164
-7.100E-07,-0.208
-7.000E-07,-0.120
-6.900E-07,0.008
-6.800E-07,0.096
-6.700E-07,0.152
-6.600E-07,0.104
-6.500E-07,0.024
-6.400E-07,-0.068
-6.300E-07,-0.104
-6.200E-07,-0.096
-6.100E-07,-0.012
-6.000E-07,0.068
-5.900E-07,0.092
-5.800E-07,0.088
-5.700E-07,0.024
-5.600E-07,-0.040
-5.500E-07,-0.068
-5.400E-07,-0.056
-5.300E-07,-0.016
-5.200E-07,0.028
-5.100E-07,0.064
-5.000E-07,0.068
-4.900E-07,0.040
-4.800E-07,-0.004
-4.700E-07,-0.032
-4.600E-07,-0.040
-4.500E-07,-0.008
-4.400E-07,0.024
-4.300E-07,0.060
-4.200E-07,0.056
-4.100E-07,0.048
-4.000E-07,0.016
-3.900E-07,-0.016
-3.800E-07,-0.016
-3.700E-07,0.000
-3.600E-07,0.028
-3.500E-07,0.056
-3.400E-07,0.060
-3.300E-07,0.052
-3.200E-07,0.044
-3.100E-07,0.020
-3.000E-07,0.028
-2.900E-07,0.040
-2.800E-07,0.060
-2.700E-07,0.072
-2.600E-07,0.088
-2.500E-07,0.072
-2.400E-07,0.064
-2.300E-07,0.056
-2.200E-07,0.044
-2.100E-07,0.052
-2.000E-07,0.060
-1.900E-07,0.084
-1.800E-07,0.096
-1.700E-07,0.124
-1.600E-07,0.128
-1.500E-07,0.148
-1.400E-07,0.136
-1.300E-07,0.140
-1.200E-07,0.132
-1.100E-07,0.168
-1.000E-07,0.204
-9.000E-08,0.132
-8.000E-08,-0.028
-7.000E-08,-0.316
-6.000E-08,-0.512
-5.000E-08,-0.512
-4.000E-08,-0.512
-3.000E-08,-0.316
-2.000E-08,0.060
-1.000E-08,0.272
0.000E+00,0.288
1.000E-08,0.344
2.000E-08,-0.056
3.000E-08,-0.424
4.000E-08,-0.380
5.000E-08,0.012
6.000E-08,0.052
7.000E-08,0.228
8.000E-08,0.100
9.000E-08,0.016
1.000E-07,-0.032
1.100E-07,-0.068
1.200E-07,-0.124
1.300E-07,-0.132
1.400E-07,-0.016
1.500E-07,0.056
1.600E-07,0.140
1.700E-07,0.112
1.800E-07,0.068
1.900E-07,-0.052
2.000E-07,-0.104
2.100E-07,-0.120
2.200E-07,-0.040
2.300E-07,0.024
2.400E-07,0.064
2.500E-07,0.072
2.600E-07,0.044
2.700E-07,0.028
2.800E-07,-0.020
2.900E-07,-0.020
3.000E-07,-0.028
3.100E-07,0.016
3.200E-07,0.040
3.300E-07,0.056
3.400E-07,0.040
3.500E-07,0.016
3.600E-07,-0.024
3.700E-07,-0.028
3.800E-07,-0.008
3.900E-07,0.012
4.000E-07,0.048
4.100E-07,0.052
4.200E-07,0.052
4.300E-07,0.024
4.400E-07,0.008
4.500E-07,-0.008
4.600E-07,0.012
4.700E-07,0.036
4.800E-07,0.072
4.900E-07,0.076
5.000E-07,0.060
5.100E-07,0.052
5.200E-07,0.028
5.300E-07,0.040
5.400E-07,0.060
5.500E-07,0.080
5.600E-07,0.084
5.700E-07,0.092
5.800E-07,0.104
5.900E-07,0.112
6.000E-07,0.104
6.100E-07,0.104
6.200E-07,0.124
6.300E-07,0.124
6.400E-07,0.120
6.500E-07,0.132
6.600E-07,0.128
6.700E-07,0.104
6.800E-07,0.068
6.900E-07,0.024
7.000E-07,-0.024
7.100E-07,-0.008
7.200E-07,0.060
7.300E-07,0.016
7.400E-07,-0.072
7.500E-07,-0.056
7.600E-07,0.052
7.700E-07,0.064
7.800E-07,0.152
7.900E-07,0.236
8.000E-07,0.128
8.100E-07,-0.080
8.200E-07,-0.400
8.300E-07,-0.508
8.400E-07,-0.508
8.500E-07,-0.508
8.600E-07,-0.140
8.700E-07,0.204
8.800E-07,0.464
8.900E-07,0.448
9.000E-07,0.184
9.100E-07,-0.248
9.200E-07,-0.444
9.300E-07,-0.444
9.400E-07,-0.176
9.500E-07,0.100
9.600E-07,0.284
9.700E-07,0.352
9.800E-07,0.220
9.900E-07,-0.004
1.000E-06,-0.244
1.010E-06,-0.268
1.020E-06,-0.168
1.030E-06,0.056
1.040E-06,0.204
1.050E-06,0.240
1.060E-06,0.164
1.070E-06,0.044
1.080E-06,-0.084
1.090E-06,-0.136
1.100E-06,-0.112
1.110E-06,-0.044
1.120E-06,0.064
1.130E-06,0.124
1.140E-06,0.100
1.150E-06,0.016
1.160E-06,-0.052
1.170E-06,-0.112
1.180E-06,-0.076
1.190E-06,0.004
1.200E-06,0.088
1.210E-06,0.124
1.220E-06,0.088
1.230E-06,0.016
1.240E-06,-0.068
1.250E-06,-0.112
1.260E-06,-0.092
1.270E-06,-0.004
1.280E-06,0.076
1.290E-06,0.128
1.300E-06,0.124
1.310E-06,0.088
1.320E-06,0.004
1.330E-06,-0.020
1.340E-06,-0.008
1.350E-06,0.056
1.360E-06,0.136
1.370E-06,0.176
1.380E-06,0.172
1.390E-06,0.124
1.400E-06,0.088
1.410E-06,0.080
1.420E-06,0.108
1.430E-06,0.144
1.440E-06,0.188
1.450E-06,0.212
1.460E-06,0.200
1.470E-06,0.180
1.480E-06,0.096
1.490E-06,0.096
1.500E-06,0.100
1.510E-06,0.124
1.520E-06,0.160
1.530E-06,0.204
1.540E-06,0.188
1.550E-06,0.160
1.560E-06,-0.020
1.570E-06,-0.244
1.580E-06,-0.508
1.590E-06,-0.508
1.600E-06,-0.512
1.610E-06,-0.512
1.620E-06,0.540
1.630E-06,0.540
1.640E-06,0.540
1.650E-06,0.184
1.660E-06,-0.512
1.670E-06,-0.512
1.680E-06,-0.512
1.690E-06,0.128
1.700E-06,0.540
1.710E-06,0.540
1.720E-06,0.452
1.730E-06,-0.052
1.740E-06,-0.492
1.750E-06,-0.492
1.760E-06,-0.300
1.770E-06,-0.044
1.780E-06,0.272
1.790E-06,0.396
1.800E-06,0.420
1.810E-06,0.116
1.820E-06,-0.144
1.830E-06,-0.404
1.840E-06,-0.304
1.850E-06,-0.116
1.860E-06,0.176
1.870E-06,0.296
1.880E-06,0.316
1.890E-06,0.172
1.900E-06,-0.076
1.910E-06,-0.216
1.920E-06,-0.268
1.930E-06,-0.104
1.940E-06,0.040
1.950E-06,0.196
1.960E-06,0.196
1.970E-06,0.156
1.980E-06,0.008
1.990E-06,-0.108
2.000E-06,-0.160
2.010E-06,-0.104
2.020E-06,0.028
2.030E-06,0.144
2.040E-06,0.204
2.050E-06,0.160
2.060E-06,0.080
2.070E-06,-0.024
2.080E-06,-0.044
2.090E-06,-0.016
2.100E-06,0.080
2.110E-06,0.176
2.120E-06,0.224
2.130E-06,0.184
2.140E-06,0.128
2.150E-06,0.064
2.160E-06,0.028
2.170E-06,0.060
2.180E-06,0.116
2.190E-06,0.200
2.200E-06,0.240
2.210E-06,0.232
2.220E-06,0.200
2.230E-06,0.148
2.240E-06,0.032
2.250E-06,-0.080
2.260E-06,-0.216
2.270E-06,-0.292
2.280E-06,-0.304
2.290E-06,-0.508
2.300E-06,-0.508
2.310E-06,-0.508
2.320E-06,-0.132
2.330E-06,0.532
2.340E-06,0.480
2.350E-06,0.540
2.360E-06,-0.056
2.370E-06,-0.264
2.380E-06,-0.384
2.390E-06,-0.508
2.400E-06,-0.232
2.410E-06,0.112
2.420E-06,0.532
2.430E-06,0.348
2.440E-06,0.196
2.450E-06,-0.280
2.460E-06,-0.312
2.470E-06,-0.244
2.480E-06,0.008
2.490E-06,0.124
2.500E-06,0.156
2.510E-06,0.140
2.520E-06,0.000
2.530E-06,-0.040
2.540E-06,-0.164
2.550E-06,-0.120
2.560E-06,-0.056
2.570E-06,0.124
2.580E-06,0.172
2.590E-06,0.128
2.600E-06,-0.012
2.610E-06,-0.092
2.620E-06,-0.060
2.630E-06,-0.064
2.640E-06,0.020
2.650E-06,0.064
2.660E-06,0.096
2.670E-06,0.052
2.680E-06,0.056
2.690E-06,-0.004
2.700E-06,0.012
2.710E-06,-0.056
2.720E-06,0.032
2.730E-06,0.092
2.740E-06,0.124
2.750E-06,0.104
2.760E-06,-0.008
2.770E-06,-0.020
2.780E-06,-0.040
2.790E-06,-0.004
2.800E-06,0.052
2.810E-06,0.088
2.820E-06,0.112
2.830E-06,0.104
2.840E-06,0.084
2.850E-06,0.052
2.860E-06,0.004
2.870E-06,0.036
2.880E-06,0.060
2.890E-06,0.156
2.900E-06,0.208
2.910E-06,0.124
2.920E-06,0.168
2.930E-06,0.108
2.940E-06,0.092
2.950E-06,0.060
2.960E-06,-0.004
2.970E-06,-0.068
2.980E-06,-0.120
2.990E-06,-0.120
3.000E-06,-0.152
3.010E-06,-0.132
3.020E-06,0.012
3.030E-06,0.000
3.040E-06,0.044
3.050E-06,-0.004
3.060E-06,-0.040
3.070E-06,-0.040
3.080E-06,-0.052
3.090E-06,0.048
3.100E-06,0.108
3.110E-06,0.168
3.120E-06,0.188
3.130E-06,0.112
3.140E-06,0.064
3.150E-06,-0.040
3.160E-06,-0.056
3.170E-06,-0.040
3.180E-06,0.036
3.190E-06,0.124
3.200E-06,0.152
3.210E-06,0.160
3.220E-06,0.124
3.230E-06,0.136
3.240E-06,0.156
3.250E-06,0.128
3.260E-06,0.064
3.270E-06,0.048
3.280E-06,0.028
3.290E-06,-0.012
3.300E-06,-0.024
3.310E-06,-0.036
3.320E-06,-0.076
3.330E-06,-0.068
3.340E-06,-0.036
3.350E-06,-0.048
3.360E-06,-0.076
3.370E-06,-0.044
3.380E-06,-0.008
3.390E-06,0.072
3.400E-06,0.016
3.410E-06,0.024
3.420E-06,-0.040
3.430E-06,-0.100
3.440E-06,-0.140
3.450E-06,-0.084
3.460E-06,-0.052
3.470E-06,0.012
3.480E-06,0.132
3.490E-06,0.220
3.500E-06,0.236
3.510E-06,0.108
3.520E-06,-0.012
3.530E-06,-0.032
3.540E-06,-0.040
3.550E-06,0.060
3.560E-06,0.148
3.570E-06,0.252
3.580E-06,0.224
3.590E-06,0.192
3.600E-06,0.036
3.610E-06,-0.012
3.620E-06,-0.048
3.630E-06,0.020
3.640E-06,0.120
3.650E-06,0.104
3.660E-06,0.076
3.670E-06,-0.068
3.680E-06,-0.252
3.690E-06,-0.236
3.700E-06,-0.084
3.710E-06,0.128
3.720E-06,0.288
3.730E-06,0.284
3.740E-06,0.228
3.750E-06,0.020
3.760E-06,-0.108
3.770E-06,-0.188
3.780E-06,-0.112
3.790E-06,0.024
3.800E-06,0.152
3.810E-06,0.256
3.820E-06,0.228
3.830E-06,0.196
3.840E-06,0.084
3.850E-06,0.032
3.860E-06,0.024
3.870E-06,0.088
3.880E-06,0.176
3.890E-06,0.220
3.900E-06,0.224
3.910E-06,0.100
3.920E-06,-0.068
3.930E-06,-0.300
3.940E-06,-0.332
3.950E-06,-0.512
3.960E-06,-0.512
3.970E-06,-0.228
3.980E-06,-0.216
3.990E-06,0.368
4.000E-06,0.496
4.010E-06,0.544
4.020E-06,0.088
4.030E-06,-0.296
4.040E-06,-0.232
4.050E-06,-0.192
4.060E-06,0.068
4.070E-06,-0.320
4.080E-06,-0.512
4.090E-06,-0.512
4.100E-06,-0.512
4.110E-06,-0.512
4.120E-06,0.064
4.130E-06,0.276
4.140E-06,0.464
4.150E-06,0.340
4.160E-06,-0.064
4.170E-06,-0.200
4.180E-06,-0.444
4.190E-06,-0.192
4.200E-06,-0.080
4.210E-06,0.268
4.220E-06,0.356
4.230E-06,0.260
4.240E-06,0.104
4.250E-06,-0.140
4.260E-06,-0.136
4.270E-06,-0.140
4.280E-06,0.048
4.290E-06,0.108
4.300E-06,0.232
4.310E-06,0.244
4.320E-06,0.220
4.330E-06,0.076
4.340E-06,0.008
4.350E-06,-0.044
4.360E-06,-0.004
4.370E-06,0.132
4.380E-06,0.192
4.390E-06,0.256
4.400E-06,0.240
4.410E-06,0.228
4.420E-06,0.104
4.430E-06,0.088
4.440E-06,0.044
4.450E-06,0.076
4.460E-06,0.100
4.470E-06,0.176
4.480E-06,0.220
4.490E-06,0.204
4.500E-06,0.196
4.510E-06,0.124
4.520E-06,0.136
4.530E-06,0.144
4.540E-06,0.204
4.550E-06,0.220
4.560E-06,0.240
4.570E-06,0.188
4.580E-06,0.104
4.590E-06,0.032
4.600E-06,-0.076
4.610E-06,-0.112
4.620E-06,-0.256
4.630E-06,-0.312
4.640E-06,-0.484
4.650E-06,-0.416
4.660E-06,-0.320
4.670E-06,0.124
4.680E-06,0.356
4.690E-06,0.436
4.700E-06,0.116
4.710E-06,-0.372
4.720E-06,-0.508
4.730E-06,-0.512
4.740E-06,-0.512
4.750E-06,-0.044
4.760E-06,0.328
4.770E-06,0.440
4.780E-06,0.216
4.790E-06,-0.216
4.800E-06,-0.484
4.810E-06,-0.464
4.820E-06,-0.268
4.830E-06,0.040
4.840E-06,0.220
4.850E-06,0.336
4.860E-06,0.228
4.870E-06,-0.040
4.880E-06,-0.284
4.890E-06,-0.292
4.900E-06,-0.124
4.910E-06,0.140
4.920E-06,0.332
4.930E-06,0.408
4.940E-06,0.328
4.950E-06,0.192
4.960E-06,0.020
4.970E-06,-0.040
4.980E-06,0.020
4.990E-06,0.156
5.000E-06,0.332
5.010E-06,0.392
5.020E-06,0.396
5.030E-06,0.256
5.040E-06,0.128
5.050E-06,0.048
5.060E-06,0.076
5.070E-06,0.168
5.080E-06,0.280
5.090E-06,0.352
5.100E-06,0.336
5.110E-06,0.268
5.120E-06,0.160
5.130E-06,0.100
5.140E-06,0.080
5.150E-06,0.148
5.160E-06,0.224
5.170E-06,0.292
5.180E-06,0.300
5.190E-06,0.256
5.200E-06,0.176
5.210E-06,0.120
5.220E-06,0.108
5.230E-06,0.148
5.240E-06,0.224
5.250E-06,0.276
5.260E-06,0.288
5.270E-06,0.240
5.280E-06,0.168
5.290E-06,0.100
5.300E-06,0.072
5.310E-06,0.080
5.320E-06,0.124
5.330E-06,0.136
5.340E-06,0.124
5.350E-06,0.076
5.360E-06,0.036
5.370E-06,-0.020
5.380E-06,-0.136
5.390E-06,-0.136
5.400E-06,-0.176
5.410E-06,-0.284
5.420E-06,-0.316
5.430E-06,-0.268
5.440E-06,-0.328
5.450E-06,-0.360
5.460E-06,-0.404
5.470E-06,-0.252
5.480E-06,-0.128
5.490E-06,-0.080
5.500E-06,-0.120
5.510E-06,-0.088
5.520E-06,-0.088
5.530E-06,-0.068
5.540E-06,-0.056
5.550E-06,0.008
5.560E-06,0.056
5.570E-06,0.092
5.580E-06,0.152
5.590E-06,0.196
5.600E-06,0.220
5.610E-06,0.240
5.620E-06,0.264
5.630E-06,0.288
5.640E-06,0.236
5.650E-06,0.192
5.660E-06,0.148
5.670E-06,0.168
5.680E-06,0.212
5.690E-06,0.248
5.700E-06,0.264
5.710E-06,0.240
5.720E-06,0.224
5.730E-06,0.188
5.740E-06,0.176
5.750E-06,0.180
5.760E-06,0.200
5.770E-06,0.224
5.780E-06,0.244
5.790E-06,0.240
5.800E-06,0.220
5.810E-06,0.196
5.820E-06,0.176
5.830E-06,0.180
5.840E-06,0.200
5.850E-06,0.220
5.860E-06,0.232
5.870E-06,0.228
5.880E-06,0.212
5.890E-06,0.192
5.900E-06,0.172
5.910E-06,0.176
5.920E-06,0.180
5.930E-06,0.192
5.940E-06,0.212
5.950E-06,0.212
5.960E-06,0.208
5.970E-06,0.192
5.980E-06,0.188
5.990E-06,0.180
6.000E-06,0.180
6.010E-06,0.188
6.020E-06,0.196
6.030E-06,0.196
6.040E-06,0.196
6.050E-06,0.188
6.060E-06,0.164
6.070E-06,0.156
6.080E-06,0.144
6.090E-06,0.140
6.100E-06,0.144
6.110E-06,0.156
6.120E-06,0.164
6.130E-06,0.176
6.140E-06,0.184
6.150E-06,0.176
6.160E-06,0.184
6.170E-06,0.192
6.180E-06,0.200
6.190E-06,0.204
6.200E-06,0.212
6.210E-06,0.208
6.220E-06,0.204
6.230E-06,0.196
6.240E-06,0.196
6.250E-06,0.196
6.260E-06,0.204
6.270E-06,0.204
6.280E-06,0.204
6.290E-06,0.200
6.300E-06,0.200
6.310E-06,0.192
6.320E-06,0.196
6.330E-06,0.196
6.340E-06,0.192
6.350E-06,0.196
6.360E-06,0.200
6.370E-06,0.200
6.380E-06,0.196
6.390E-06,0.196
6.400E-06,0.196
6.410E-06,0.196
6.420E-06,0.192
6.430E-06,0.200
6.440E-06,0.200
6.450E-06,0.192
6.460E-06,0.196
6.470E-06,0.192
6.480E-06,0.196
6.490E-06,0.196
6.500E-06,0.196
6.510E-06,0.188
6.520E-06,0.188
6.530E-06,0.188
6.540E-06,0.196
6.550E-06,0.192
6.560E-06,0.196
6.570E-06,0.192
6.580E-06,0.188
6.590E-06,0.188
6.600E-06,0.184
6.610E-06,0.184
6.620E-06,0.188
6.630E-06,0.188
6.640E-06,0.192
6.650E-06,0.188
6.660E-06,0.184
6.670E-06,0.180
6.680E-06,0.180
6.690E-06,0.180
6.700E-06,0.180
6.710E-06,0.180
6.720E-06,0.180
6.730E-06,0.172
6.740E-06,0.180
6.750E-06,0.180
6.760E-06,0.180
6.770E-06,0.176
6.780E-06,0.176
6.790E-06,0.180
6.800E-06,0.180
6.810E-06,0.184
6.820E-06,0.184
6.830E-06,0.176
6.840E-06,0.180
6.850E-06,0.176
6.860E-06,0.176
6.870E-06,0.176
6.880E-06,0.172
6.890E-06,0.176
6.900E-06,0.176
6.910E-06,0.172
6.920E-06,0.176
6.930E-06,0.172
6.940E-06,0.164
6.950E-06,0.164
6.960E-06,0.172
6.970E-06,0.172
6.980E-06,0.172
6.990E-06,0.168
7.000E-06,0.172
7.010E-06,0.168
7.020E-06,0.176
7.030E-06,0.164
7.040E-06,0.172
7.050E-06,0.164
7.060E-06,0.164
7.070E-06,0.160
7.080E-06,0.164
7.090E-06,0.156
7.100E-06,0.160
7.110E-06,0.164
7.120E-06,0.164
7.130E-06,0.164
7.140E-06,0.164
7.150E-06,0.156
7.160E-06,0.156
7.170E-06,0.164
7.180E-06,0.156
7.190E-06,0.168
7.200E-06,0.164
7.210E-06,0.168
7.220E-06,0.156
7.230E-06,0.156
7.240E-06,0.156
7.250E-06,0.160
7.260E-06,0.168
7.270E-06,0.164
7.280E-06,0.160
7.290E-06,0.164
7.300E-06,0.156
7.310E-06,0.152
7.320E-06,0.156
7.330E-06,0.160
7.340E-06,0.160
7.350E-06,0.152
7.360E-06,0.156
7.370E-06,0.160
7.380E-06,0.156
7.390E-06,0.152
7.400E-06,0.156
7.410E-06,0.152
7.420E-06,0.152
7.430E-06,0.152
7.440E-06,0.160
7.450E-06,0.152
7.460E-06,0.152
7.470E-06,0.144
7.480E-06,0.144
7.490E-06,0.144
7.500E-06,0.144
7.510E-06,0.140
7.520E-06,0.144
7.530E-06,0.140
7.540E-06,0.132
7.550E-06,0.132
7.560E-06,0.136
7.570E-06,0.140
7.580E-06,0.140
7.590E-06,0.140
7.600E-06,0.136
7.610E-06,0.132
7.620E-06,0.136
7.630E-06,0.124
7.640E-06,0.132
7.650E-06,0.144
7.660E-06,0.144
7.670E-06,0.136
7.680E-06,0.132
7.690E-06,0.132
7.700E-06,0.140
7.710E-06,0.136
7.720E-06,0.148
7.730E-06,0.156
7.740E-06,0.144
7.750E-06,0.140
7.760E-06,0.128
7.770E-06,0.132
7.780E-06,0.132
