mediciones/5-15/32.5/WaveData4784.csv

#timebase=2000000(ps)
,#voltbase=100000(mv/100)
#size=4000
-8.400E-06,0.012
-8.390E-06,0.004
-8.380E-06,0.004
-8.370E-06,0.012
-8.360E-06,0.004
-8.350E-06,0.000
-8.340E-06,0.000
-8.330E-06,0.008
-8.320E-06,0.012
-8.310E-06,0.012
-8.300E-06,0.016
-8.290E-06,0.012
-8.280E-06,-0.004
-8.270E-06,-0.024
-8.260E-06,-0.024
-8.250E-06,-0.012
-8.240E-06,0.004
-8.230E-06,0.028
-8.220E-06,0.036
-8.210E-06,0.008
-8.200E-06,0.004
-8.190E-06,-0.004
-8.180E-06,-0.004
-8.170E-06,-0.004
-8.160E-06,0.008
-8.150E-06,0.020
-8.140E-06,0.020
-8.130E-06,0.016
-8.120E-06,0.012
-8.110E-06,0.008
-8.100E-06,0.008
-8.090E-06,0.008
-8.080E-06,0.024
-8.070E-06,0.012
-8.060E-06,-0.008
-8.050E-06,-0.024
-8.040E-06,-0.012
-8.030E-06,-0.004
-8.020E-06,-0.008
-8.010E-06,0.008
-8.000E-06,0.024
-7.990E-06,0.028
-7.980E-06,0.012
-7.970E-06,-0.004
-7.960E-06,-0.024
-7.950E-06,-0.028
-7.940E-06,-0.020
-7.930E-06,0.004
-7.920E-06,0.020
-7.910E-06,0.036
-7.900E-06,0.028
-7.890E-06,-0.008
-7.880E-06,-0.020
-7.870E-06,-0.028
-7.860E-06,-0.012
-7.850E-06,0.008
-7.840E-06,0.024
-7.830E-06,0.032
-7.820E-06,0.024
-7.810E-06,0.000
-7.800E-06,-0.016
-7.790E-06,-0.024
-7.780E-06,-0.008
-7.770E-06,0.012
-7.760E-06,0.028
-7.750E-06,0.028
-7.740E-06,0.020
-7.730E-06,0.008
-7.720E-06,-0.012
-7.710E-06,-0.012
-7.700E-06,0.000
-7.690E-06,0.012
-7.680E-06,0.020
-7.670E-06,0.024
-7.660E-06,0.024
-7.650E-06,0.008
-7.640E-06,0.000
-7.630E-06,-0.008
-7.620E-06,0.008
-7.610E-06,0.024
-7.600E-06,0.024
-7.590E-06,0.028
-7.580E-06,0.028
-7.570E-06,0.004
-7.560E-06,0.000
-7.550E-06,-0.004
-7.540E-06,0.008
-7.530E-06,0.024
-7.520E-06,0.028
-7.510E-06,0.024
-7.500E-06,0.008
-7.490E-06,0.000
-7.480E-06,-0.004
-7.470E-06,-0.004
-7.460E-06,0.008
-7.450E-06,0.020
-7.440E-06,0.028
-7.430E-06,0.028
-7.420E-06,0.024
-7.410E-06,0.020
-7.400E-06,0.012
-7.390E-06,0.012
-7.380E-06,0.008
-7.370E-06,0.012
-7.360E-06,0.028
-7.350E-06,0.024
-7.340E-06,0.036
-7.330E-06,0.064
-7.320E-06,0.024
-7.310E-06,-0.056
-7.300E-06,-0.176
-7.290E-06,-0.152
-7.280E-06,-0.128
-7.270E-06,0.032
-7.260E-06,0.216
-7.250E-06,0.228
-7.240E-06,0.068
-7.230E-06,-0.152
-7.220E-06,-0.224
-7.210E-06,-0.184
-7.200E-06,-0.004
-7.190E-06,0.128
-7.180E-06,0.192
-7.170E-06,0.128
-7.160E-06,-0.004
-7.150E-06,-0.136
-7.140E-06,-0.168
-7.130E-06,-0.088
-7.120E-06,0.036
-7.110E-06,0.124
-7.100E-06,0.120
-7.090E-06,0.064
-7.080E-06,-0.012
-7.070E-06,-0.048
-7.060E-06,-0.060
-7.050E-06,-0.020
-7.040E-06,0.008
-7.030E-06,0.036
-7.020E-06,0.060
-7.010E-06,0.056
-7.000E-06,0.040
-6.990E-06,-0.004
-6.980E-06,-0.024
-6.970E-06,-0.028
-6.960E-06,-0.008
-6.950E-06,0.008
-6.940E-06,0.024
-6.930E-06,0.028
-6.920E-06,0.008
-6.910E-06,-0.004
-6.900E-06,-0.012
-6.890E-06,0.000
-6.880E-06,0.012
-6.870E-06,0.036
-6.860E-06,0.040
-6.850E-06,0.012
-6.840E-06,-0.040
-6.830E-06,-0.064
-6.820E-06,-0.060
-6.810E-06,-0.032
-6.800E-06,0.020
-6.790E-06,0.068
-6.780E-06,0.072
-6.770E-06,0.028
-6.760E-06,-0.016
-6.750E-06,-0.040
-6.740E-06,-0.036
-6.730E-06,0.000
-6.720E-06,0.056
-6.710E-06,0.064
-6.700E-06,0.052
-6.690E-06,0.012
-6.680E-06,-0.016
-6.670E-06,-0.044
-6.660E-06,-0.032
-6.650E-06,0.000
-6.640E-06,0.032
-6.630E-06,0.068
-6.620E-06,0.064
-6.610E-06,0.048
-6.600E-06,0.008
-6.590E-06,-0.028
-6.580E-06,-0.024
-6.570E-06,0.012
-6.560E-06,0.064
-6.550E-06,0.084
-6.540E-06,0.080
-6.530E-06,0.060
-6.520E-06,0.040
-6.510E-06,0.016
-6.500E-06,0.008
-6.490E-06,0.024
-6.480E-06,0.040
-6.470E-06,0.068
-6.460E-06,0.092
-6.450E-06,0.088
-6.440E-06,0.052
-6.430E-06,-0.028
-6.420E-06,-0.144
-6.410E-06,-0.172
-6.400E-06,-0.136
-6.390E-06,-0.004
-6.380E-06,0.096
-6.370E-06,0.148
-6.360E-06,0.008
-6.350E-06,-0.152
-6.340E-06,-0.252
-6.330E-06,-0.152
-6.320E-06,0.012
-6.310E-06,0.188
-6.300E-06,0.120
-6.290E-06,-0.144
-6.280E-06,-0.236
-6.270E-06,-0.088
-6.260E-06,0.104
-6.250E-06,0.272
-6.240E-06,0.144
-6.230E-06,-0.112
-6.220E-06,-0.348
-6.210E-06,-0.372
-6.200E-06,-0.100
-6.190E-06,0.272
-6.180E-06,0.448
-6.170E-06,0.284
-6.160E-06,-0.024
-6.150E-06,-0.272
-6.140E-06,-0.344
-6.130E-06,-0.224
-6.120E-06,0.008
-6.110E-06,0.224
-6.100E-06,0.256
-6.090E-06,0.176
-6.080E-06,0.008
-6.070E-06,-0.152
-6.060E-06,-0.208
-6.050E-06,-0.136
-6.040E-06,0.008
-6.030E-06,0.144
-6.020E-06,0.188
-6.010E-06,0.156
-6.000E-06,0.056
-5.990E-06,-0.056
-5.980E-06,-0.132
-5.970E-06,-0.088
-5.960E-06,0.004
-5.950E-06,0.132
-5.940E-06,0.188
-5.930E-06,0.156
-5.920E-06,0.012
-5.910E-06,-0.152
-5.900E-06,-0.168
-5.890E-06,-0.124
-5.880E-06,-0.044
-5.870E-06,0.068
-5.860E-06,0.128
-5.850E-06,0.128
-5.840E-06,0.092
-5.830E-06,-0.024
-5.820E-06,-0.168
-5.810E-06,-0.208
-5.800E-06,-0.112
-5.790E-06,0.000
-5.780E-06,0.088
-5.770E-06,0.152
-5.760E-06,0.124
-5.750E-06,0.020
-5.740E-06,-0.104
-5.730E-06,-0.152
-5.720E-06,-0.084
-5.710E-06,0.028
-5.700E-06,0.120
-5.690E-06,0.112
-5.680E-06,0.040
-5.670E-06,-0.024
-5.660E-06,-0.056
-5.650E-06,-0.036
-5.640E-06,-0.008
-5.630E-06,0.024
-5.620E-06,0.044
-5.610E-06,0.060
-5.600E-06,0.052
-5.590E-06,0.044
-5.580E-06,0.024
-5.570E-06,-0.004
-5.560E-06,-0.016
-5.550E-06,-0.044
-5.540E-06,-0.044
-5.530E-06,0.008
-5.520E-06,0.092
-5.510E-06,0.084
-5.500E-06,0.008
-5.490E-06,-0.060
-5.480E-06,-0.076
-5.470E-06,-0.036
-5.460E-06,0.028
-5.450E-06,0.084
-5.440E-06,0.068
-5.430E-06,0.032
-5.420E-06,-0.016
-5.410E-06,-0.040
-5.400E-06,-0.032
-5.390E-06,0.012
-5.380E-06,0.036
-5.370E-06,0.076
-5.360E-06,0.084
-5.350E-06,0.040
-5.340E-06,0.000
-5.330E-06,-0.024
-5.320E-06,-0.028
-5.310E-06,0.000
-5.300E-06,0.024
-5.290E-06,-0.008
-5.280E-06,-0.016
-5.270E-06,-0.020
-5.260E-06,-0.008
-5.250E-06,-0.016
-5.240E-06,0.008
-5.230E-06,-0.004
-5.220E-06,-0.032
-5.210E-06,-0.028
-5.200E-06,-0.008
-5.190E-06,0.036
-5.180E-06,0.048
-5.170E-06,0.028
-5.160E-06,-0.024
-5.150E-06,-0.052
-5.140E-06,-0.056
-5.130E-06,-0.008
-5.120E-06,0.028
-5.110E-06,0.044
-5.100E-06,0.036
-5.090E-06,-0.008
-5.080E-06,-0.032
-5.070E-06,-0.028
-5.060E-06,0.004
-5.050E-06,0.044
-5.040E-06,0.072
-5.030E-06,0.060
-5.020E-06,0.028
-5.010E-06,-0.024
-5.000E-06,-0.048
-4.990E-06,-0.040
-4.980E-06,-0.008
-4.970E-06,0.028
-4.960E-06,0.048
-4.950E-06,0.044
-4.940E-06,0.016
-4.930E-06,-0.020
-4.920E-06,-0.040
-4.910E-06,-0.028
-4.900E-06,-0.004
-4.890E-06,0.044
-4.880E-06,0.064
-4.870E-06,0.044
-4.860E-06,0.020
-4.850E-06,-0.008
-4.840E-06,-0.028
-4.830E-06,-0.036
-4.820E-06,-0.008
-4.810E-06,0.020
-4.800E-06,0.048
-4.790E-06,0.068
-4.780E-06,0.056
-4.770E-06,0.020
-4.760E-06,-0.008
-4.750E-06,-0.032
-4.740E-06,-0.020
-4.730E-06,0.016
-4.720E-06,0.056
-4.710E-06,0.088
-4.700E-06,0.076
-4.690E-06,0.048
-4.680E-06,0.012
-4.670E-06,0.008
-4.660E-06,-0.084
-4.650E-06,-0.128
-4.640E-06,-0.140
-4.630E-06,-0.016
-4.620E-06,0.108
-4.610E-06,0.144
-4.600E-06,0.024
-4.590E-06,-0.224
-4.580E-06,-0.292
-4.570E-06,-0.184
-4.560E-06,0.024
-4.550E-06,0.212
-4.540E-06,0.232
-4.530E-06,0.112
-4.520E-06,-0.040
-4.510E-06,-0.100
-4.500E-06,-0.044
-4.490E-06,0.016
-4.480E-06,0.052
-4.470E-06,0.024
-4.460E-06,-0.012
-4.450E-06,0.000
-4.440E-06,0.028
-4.430E-06,0.052
-4.420E-06,-0.048
-4.410E-06,-0.088
-4.400E-06,-0.072
-4.390E-06,0.012
-4.380E-06,0.088
-4.370E-06,-0.036
-4.360E-06,-0.120
-4.350E-06,-0.180
-4.340E-06,-0.136
-4.330E-06,-0.004
-4.320E-06,0.204
-4.310E-06,0.220
-4.300E-06,0.060
-4.290E-06,-0.100
-4.280E-06,-0.188
-4.270E-06,-0.108
-4.260E-06,0.016
-4.250E-06,0.136
-4.240E-06,0.120
-4.230E-06,0.076
-4.220E-06,-0.008
-4.210E-06,-0.032
-4.200E-06,-0.028
-4.190E-06,-0.004
-4.180E-06,0.000
-4.170E-06,0.020
-4.160E-06,0.048
-4.150E-06,0.052
-4.140E-06,0.048
-4.130E-06,-0.020
-4.120E-06,-0.072
-4.110E-06,-0.092
-4.100E-06,-0.040
-4.090E-06,0.012
-4.080E-06,0.072
-4.070E-06,0.080
-4.060E-06,0.036
-4.050E-06,-0.016
-4.040E-06,-0.060
-4.030E-06,-0.040
-4.020E-06,-0.008
-4.010E-06,0.052
-4.000E-06,0.068
-3.990E-06,0.068
-3.980E-06,0.028
-3.970E-06,0.000
-3.960E-06,-0.008
-3.950E-06,-0.004
-3.940E-06,0.012
-3.930E-06,0.036
-3.920E-06,0.068
-3.910E-06,0.056
-3.900E-06,0.056
-3.890E-06,0.044
-3.880E-06,0.036
-3.870E-06,0.040
-3.860E-06,0.056
-3.850E-06,0.060
-3.840E-06,0.028
-3.830E-06,-0.024
-3.820E-06,-0.076
-3.810E-06,-0.080
-3.800E-06,-0.040
-3.790E-06,0.016
-3.780E-06,0.088
-3.770E-06,0.076
-3.760E-06,0.084
-3.750E-06,0.024
-3.740E-06,-0.072
-3.730E-06,-0.096
-3.720E-06,-0.028
-3.710E-06,0.056
-3.700E-06,0.056
-3.690E-06,0.000
-3.680E-06,-0.108
-3.670E-06,-0.068
-3.660E-06,0.016
-3.650E-06,0.104
-3.640E-06,0.084
-3.630E-06,0.040
-3.620E-06,-0.020
-3.610E-06,0.000
-3.600E-06,0.044
-3.590E-06,0.092
-3.580E-06,0.100
-3.570E-06,0.056
-3.560E-06,-0.004
-3.550E-06,-0.028
-3.540E-06,-0.292
-3.530E-06,-0.396
-3.520E-06,-0.432
-3.510E-06,-0.244
-3.500E-06,0.076
-3.490E-06,0.468
-3.480E-06,0.540
-3.470E-06,0.204
-3.460E-06,-0.228
-3.450E-06,-0.480
-3.440E-06,-0.372
-3.430E-06,-0.028
-3.420E-06,0.296
-3.410E-06,0.396
-3.400E-06,0.304
-3.390E-06,0.096
-3.380E-06,-0.096
-3.370E-06,-0.164
-3.360E-06,-0.220
-3.350E-06,-0.192
-3.340E-06,-0.124
-3.330E-06,0.024
-3.320E-06,0.120
-3.310E-06,0.204
-3.300E-06,0.092
-3.290E-06,-0.060
-3.280E-06,-0.160
-3.270E-06,-0.140
-3.260E-06,-0.020
-3.250E-06,0.092
-3.240E-06,0.156
-3.230E-06,0.120
-3.220E-06,0.068
-3.210E-06,-0.020
-3.200E-06,-0.052
-3.190E-06,-0.056
-3.180E-06,-0.024
-3.170E-06,0.012
-3.160E-06,0.036
-3.150E-06,0.068
-3.140E-06,0.056
-3.130E-06,0.072
-3.120E-06,0.056
-3.110E-06,0.028
-3.100E-06,0.044
-3.090E-06,0.072
-3.080E-06,0.072
-3.070E-06,0.080
-3.060E-06,0.116
-3.050E-06,0.100
-3.040E-06,0.032
-3.030E-06,0.012
-3.020E-06,-0.028
-3.010E-06,-0.072
-3.000E-06,-0.060
-2.990E-06,-0.024
-2.980E-06,0.040
-2.970E-06,0.004
-2.960E-06,-0.044
-2.950E-06,-0.120
-2.940E-06,-0.160
-2.930E-06,-0.088
-2.920E-06,0.072
-2.910E-06,0.136
-2.900E-06,0.084
-2.890E-06,0.024
-2.880E-06,-0.036
-2.870E-06,-0.024
-2.860E-06,0.028
-2.850E-06,0.068
-2.840E-06,0.064
-2.830E-06,0.028
-2.820E-06,0.028
-2.810E-06,0.024
-2.800E-06,0.060
-2.790E-06,0.076
-2.780E-06,0.108
-2.770E-06,0.120
-2.760E-06,0.060
-2.750E-06,-0.092
-2.740E-06,-0.228
-2.730E-06,-0.324
-2.720E-06,-0.292
-2.710E-06,-0.056
-2.700E-06,0.176
-2.690E-06,0.340
-2.680E-06,0.228
-2.670E-06,-0.032
-2.660E-06,-0.260
-2.650E-06,-0.236
-2.640E-06,-0.068
-2.630E-06,0.144
-2.620E-06,0.288
-2.610E-06,0.240
-2.600E-06,0.132
-2.590E-06,-0.004
-2.580E-06,-0.096
-2.570E-06,-0.088
-2.560E-06,-0.044
-2.550E-06,-0.028
-2.540E-06,-0.168
-2.530E-06,-0.444
-2.520E-06,-0.372
-2.510E-06,-0.008
-2.500E-06,0.160
-2.490E-06,0.360
-2.480E-06,0.192
-2.470E-06,0.024
-2.460E-06,-0.164
-2.450E-06,-0.156
-2.440E-06,-0.068
-2.430E-06,0.052
-2.420E-06,0.140
-2.410E-06,0.128
-2.400E-06,0.072
-2.390E-06,-0.036
-2.380E-06,-0.040
-2.370E-06,-0.064
-2.360E-06,-0.104
-2.350E-06,-0.136
-2.340E-06,-0.052
-2.330E-06,0.008
-2.320E-06,0.056
-2.310E-06,0.072
-2.300E-06,0.000
-2.290E-06,-0.060
-2.280E-06,-0.092
-2.270E-06,-0.032
-2.260E-06,0.016
-2.250E-06,0.072
-2.240E-06,0.056
-2.230E-06,0.036
-2.220E-06,-0.008
-2.210E-06,-0.028
-2.200E-06,-0.040
-2.190E-06,-0.028
-2.180E-06,0.008
-2.170E-06,0.008
-2.160E-06,0.036
-2.150E-06,0.024
-2.140E-06,0.016
-2.130E-06,0.004
-2.120E-06,0.000
-2.110E-06,-0.004
-2.100E-06,0.004
-2.090E-06,0.008
-2.080E-06,0.004
-2.070E-06,0.016
-2.060E-06,0.016
-2.050E-06,0.024
-2.040E-06,0.020
-2.030E-06,0.020
-2.020E-06,0.016
-2.010E-06,0.012
-2.000E-06,-0.024
-1.990E-06,-0.032
-1.980E-06,-0.024
-1.970E-06,-0.008
-1.960E-06,0.020
-1.950E-06,0.044
-1.940E-06,0.044
-1.930E-06,0.004
-1.920E-06,-0.032
-1.910E-06,-0.056
-1.900E-06,-0.032
-1.890E-06,0.004
-1.880E-06,0.044
-1.870E-06,0.056
-1.860E-06,0.036
-1.850E-06,0.008
-1.840E-06,-0.020
-1.830E-06,-0.032
-1.820E-06,-0.024
-1.810E-06,0.016
-1.800E-06,0.036
-1.790E-06,0.056
-1.780E-06,0.048
-1.770E-06,0.020
-1.760E-06,0.000
-1.750E-06,-0.024
-1.740E-06,-0.016
-1.730E-06,0.000
-1.720E-06,0.028
-1.710E-06,0.048
-1.700E-06,0.052
-1.690E-06,0.036
-1.680E-06,0.008
-1.670E-06,-0.012
-1.660E-06,-0.008
-1.650E-06,0.000
-1.640E-06,0.028
-1.630E-06,0.060
-1.620E-06,0.072
-1.610E-06,0.064
-1.600E-06,0.056
-1.590E-06,0.040
-1.580E-06,0.040
-1.570E-06,0.056
-1.560E-06,0.080
-1.550E-06,0.096
-1.540E-06,0.104
-1.530E-06,0.092
-1.520E-06,0.068
-1.510E-06,0.056
-1.500E-06,0.056
-1.490E-06,0.056
-1.480E-06,0.068
-1.470E-06,0.104
-1.460E-06,0.128
-1.450E-06,0.140
-1.440E-06,0.124
-1.430E-06,0.096
-1.420E-06,0.068
-1.410E-06,0.028
-1.400E-06,0.040
-1.390E-06,0.048
-1.380E-06,0.056
-1.370E-06,-0.068
-1.360E-06,-0.256
-1.350E-06,-0.432
-1.340E-06,-0.404
-1.330E-06,-0.204
-1.320E-06,0.144
-1.310E-06,0.408
-1.300E-06,0.480
-1.290E-06,0.216
-1.280E-06,-0.248
-1.270E-06,-0.496
-1.260E-06,-0.372
-1.250E-06,-0.036
-1.240E-06,0.040
-1.230E-06,0.036
-1.220E-06,-0.108
-1.210E-06,-0.276
-1.200E-06,-0.216
-1.190E-06,0.112
-1.180E-06,0.184
-1.170E-06,0.068
-1.160E-06,-0.056
-1.150E-06,-0.040
-1.140E-06,0.108
-1.130E-06,0.204
-1.120E-06,0.108
-1.110E-06,-0.080
-1.100E-06,-0.176
-1.090E-06,-0.164
-1.080E-06,0.048
-1.070E-06,0.296
-1.060E-06,0.432
-1.050E-06,0.276
-1.040E-06,0.024
-1.030E-06,-0.292
-1.020E-06,-0.476
-1.010E-06,-0.476
-1.000E-06,-0.280
-9.900E-07,0.012
-9.800E-07,0.288
-9.700E-07,0.348
-9.600E-07,0.204
-9.500E-07,-0.092
-9.400E-07,-0.344
-9.300E-07,-0.360
-9.200E-07,-0.144
-9.100E-07,0.176
-9.000E-07,0.360
-8.900E-07,0.312
-8.800E-07,0.100
-8.700E-07,-0.160
-8.600E-07,-0.288
-8.500E-07,-0.248
-8.400E-07,-0.020
-8.300E-07,0.228
-8.200E-07,0.360
-8.100E-07,0.308
-8.000E-07,0.124
-7.900E-07,-0.108
-7.800E-07,-0.252
-7.700E-07,-0.248
-7.600E-07,-0.108
-7.500E-07,0.100
-7.400E-07,0.248
-7.300E-07,0.272
-7.200E-07,0.132
-7.100E-07,-0.044
-7.000E-07,-0.148
-6.900E-07,-0.136
-6.800E-07,-0.012
-6.700E-07,0.176
-6.600E-07,0.288
-6.500E-07,0.292
-6.400E-07,0.200
-6.300E-07,0.072
-6.200E-07,-0.032
-6.100E-07,-0.076
-6.000E-07,-0.040
-5.900E-07,-0.012
-5.800E-07,0.052
-5.700E-07,0.040
-5.600E-07,-0.016
-5.500E-07,-0.084
-5.400E-07,-0.108
-5.300E-07,-0.100
-5.200E-07,-0.048
-5.100E-07,-0.020
-5.000E-07,0.000
-4.900E-07,0.028
-4.800E-07,0.040
-4.700E-07,0.040
-4.600E-07,0.020
-4.500E-07,0.012
-4.400E-07,0.020
-4.300E-07,0.060
-4.200E-07,0.048
-4.100E-07,0.024
-4.000E-07,0.028
-3.900E-07,0.020
-3.800E-07,0.024
-3.700E-07,0.048
-3.600E-07,0.064
-3.500E-07,0.068
-3.400E-07,0.100
-3.300E-07,0.088
-3.200E-07,0.096
-3.100E-07,0.112
-3.000E-07,0.120
-2.900E-07,0.108
-2.800E-07,0.124
-2.700E-07,0.128
-2.600E-07,0.136
-2.500E-07,0.160
-2.400E-07,0.160
-2.300E-07,0.140
-2.200E-07,0.108
-2.100E-07,0.100
-2.000E-07,0.108
-1.900E-07,0.104
-1.800E-07,0.108
-1.700E-07,0.128
-1.600E-07,0.124
-1.500E-07,0.120
-1.400E-07,0.112
-1.300E-07,0.092
-1.200E-07,0.084
-1.100E-07,-0.268
-1.000E-07,-0.496
-9.000E-08,-0.496
-8.000E-08,-0.172
-7.000E-08,-0.068
-6.000E-08,-0.156
-5.000E-08,-0.508
-4.000E-08,-0.512
-3.000E-08,-0.512
-2.000E-08,-0.492
-1.000E-08,0.316
0.000E+00,0.540
1.000E-08,0.540
2.000E-08,0.020
3.000E-08,-0.480
4.000E-08,-0.496
5.000E-08,-0.196
6.000E-08,0.176
7.000E-08,0.316
8.000E-08,0.244
9.000E-08,0.040
1.000E-07,-0.040
1.100E-07,-0.248
1.200E-07,-0.212
1.300E-07,-0.156
1.400E-07,0.068
1.500E-07,0.204
1.600E-07,0.276
1.700E-07,0.172
1.800E-07,-0.004
1.900E-07,-0.164
2.000E-07,-0.252
2.100E-07,-0.096
2.200E-07,0.096
2.300E-07,0.256
2.400E-07,0.204
2.500E-07,0.108
2.600E-07,-0.048
2.700E-07,-0.104
2.800E-07,-0.104
2.900E-07,-0.024
3.000E-07,0.048
3.100E-07,0.108
3.200E-07,0.164
3.300E-07,0.128
3.400E-07,0.076
3.500E-07,0.008
3.600E-07,0.024
3.700E-07,0.056
3.800E-07,0.124
3.900E-07,0.132
4.000E-07,0.136
4.100E-07,0.124
4.200E-07,0.132
4.300E-07,0.164
4.400E-07,0.144
4.500E-07,0.152
4.600E-07,0.128
4.700E-07,0.136
4.800E-07,0.128
4.900E-07,0.140
5.000E-07,0.144
5.100E-07,0.160
5.200E-07,0.136
5.300E-07,0.028
5.400E-07,-0.064
5.500E-07,-0.164
5.600E-07,-0.204
5.700E-07,-0.204
5.800E-07,-0.152
5.900E-07,-0.124
6.000E-07,-0.096
6.100E-07,-0.076
6.200E-07,-0.096
6.300E-07,-0.132
6.400E-07,-0.160
6.500E-07,-0.160
6.600E-07,-0.108
6.700E-07,0.016
6.800E-07,0.096
6.900E-07,0.124
7.000E-07,0.040
7.100E-07,-0.064
7.200E-07,-0.144
7.300E-07,-0.140
7.400E-07,-0.064
7.500E-07,0.036
7.600E-07,0.128
7.700E-07,0.132
7.800E-07,0.096
7.900E-07,-0.004
8.000E-07,-0.060
8.100E-07,-0.052
8.200E-07,0.028
8.300E-07,0.136
8.400E-07,0.232
8.500E-07,0.276
8.600E-07,0.212
8.700E-07,0.128
8.800E-07,0.048
8.900E-07,0.028
9.000E-07,0.064
9.100E-07,0.136
9.200E-07,0.192
9.300E-07,0.200
9.400E-07,0.160
9.500E-07,0.072
9.600E-07,-0.004
9.700E-07,-0.024
9.800E-07,-0.004
9.900E-07,0.072
1.000E-06,0.160
1.010E-06,0.208
1.020E-06,0.184
1.030E-06,0.132
1.040E-06,0.076
1.050E-06,0.040
1.060E-06,0.068
1.070E-06,0.092
1.080E-06,0.064
1.090E-06,-0.020
1.100E-06,-0.136
1.110E-06,-0.256
1.120E-06,-0.332
1.130E-06,-0.316
1.140E-06,-0.184
1.150E-06,-0.136
1.160E-06,-0.120
1.170E-06,-0.060
1.180E-06,-0.072
1.190E-06,-0.072
1.200E-06,0.004
1.210E-06,0.124
1.220E-06,0.132
1.230E-06,0.064
1.240E-06,0.012
1.250E-06,0.012
1.260E-06,0.084
1.270E-06,0.184
1.280E-06,0.240
1.290E-06,0.260
1.300E-06,0.160
1.310E-06,0.052
1.320E-06,-0.016
1.330E-06,-0.016
1.340E-06,0.036
1.350E-06,0.160
1.360E-06,0.284
1.370E-06,0.336
1.380E-06,0.296
1.390E-06,0.180
1.400E-06,0.076
1.410E-06,0.012
1.420E-06,0.008
1.430E-06,0.064
1.440E-06,0.112
1.450E-06,0.136
1.460E-06,0.104
1.470E-06,0.048
1.480E-06,-0.040
1.490E-06,-0.112
1.500E-06,-0.092
1.510E-06,-0.012
1.520E-06,0.092
1.530E-06,0.156
1.540E-06,0.240
1.550E-06,0.216
1.560E-06,0.140
1.570E-06,0.076
1.580E-06,0.040
1.590E-06,0.080
1.600E-06,0.152
1.610E-06,0.220
1.620E-06,0.232
1.630E-06,0.212
1.640E-06,0.140
1.650E-06,0.100
1.660E-06,0.092
1.670E-06,0.120
1.680E-06,0.152
1.690E-06,0.208
1.700E-06,0.228
1.710E-06,0.204
1.720E-06,0.144
1.730E-06,0.080
1.740E-06,0.056
1.750E-06,0.092
1.760E-06,0.144
1.770E-06,0.188
1.780E-06,0.176
1.790E-06,0.144
1.800E-06,0.108
1.810E-06,0.072
1.820E-06,0.064
1.830E-06,0.068
1.840E-06,0.060
1.850E-06,0.032
1.860E-06,0.004
1.870E-06,-0.024
1.880E-06,-0.012
1.890E-06,-0.256
1.900E-06,-0.432
1.910E-06,-0.508
1.920E-06,-0.512
1.930E-06,-0.512
1.940E-06,-0.512
1.950E-06,-0.512
1.960E-06,-0.512
1.970E-06,-0.512
1.980E-06,-0.392
1.990E-06,-0.292
2.000E-06,-0.188
2.010E-06,-0.032
2.020E-06,0.012
2.030E-06,0.124
2.040E-06,0.140
2.050E-06,0.232
2.060E-06,0.124
2.070E-06,-0.116
2.080E-06,-0.152
2.090E-06,0.000
2.100E-06,0.212
2.110E-06,0.344
2.120E-06,0.332
2.130E-06,0.104
2.140E-06,-0.044
2.150E-06,-0.172
2.160E-06,-0.084
2.170E-06,0.080
2.180E-06,0.304
2.190E-06,0.420
2.200E-06,0.408
2.210E-06,0.264
2.220E-06,0.024
2.230E-06,-0.104
2.240E-06,-0.112
2.250E-06,0.060
2.260E-06,0.260
2.270E-06,0.404
2.280E-06,0.368
2.290E-06,0.240
2.300E-06,0.044
2.310E-06,-0.064
2.320E-06,-0.024
2.330E-06,0.120
2.340E-06,0.308
2.350E-06,0.432
2.360E-06,0.440
2.370E-06,0.292
2.380E-06,0.124
2.390E-06,-0.024
2.400E-06,-0.020
2.410E-06,0.080
2.420E-06,0.244
2.430E-06,0.360
2.440E-06,0.376
2.450E-06,0.296
2.460E-06,0.156
2.470E-06,0.056
2.480E-06,0.016
2.490E-06,0.088
2.500E-06,0.208
2.510E-06,0.328
2.520E-06,0.364
2.530E-06,0.324
2.540E-06,0.220
2.550E-06,0.112
2.560E-06,0.056
2.570E-06,0.072
2.580E-06,0.152
2.590E-06,0.248
2.600E-06,0.308
2.610E-06,0.292
2.620E-06,0.204
2.630E-06,0.084
2.640E-06,-0.004
2.650E-06,-0.032
2.660E-06,0.008
2.670E-06,0.044
2.680E-06,0.080
2.690E-06,0.124
2.700E-06,0.152
2.710E-06,0.188
2.720E-06,0.208
2.730E-06,0.212
2.740E-06,0.180
2.750E-06,0.124
2.760E-06,0.092
2.770E-06,0.124
2.780E-06,0.184
2.790E-06,0.256
2.800E-06,0.272
2.810E-06,0.216
2.820E-06,0.100
2.830E-06,-0.016
2.840E-06,-0.092
2.850E-06,-0.052
2.860E-06,0.048
2.870E-06,0.164
2.880E-06,0.232
2.890E-06,0.240
2.900E-06,0.148
2.910E-06,0.028
2.920E-06,-0.012
2.930E-06,0.008
2.940E-06,0.072
2.950E-06,0.160
2.960E-06,0.228
2.970E-06,0.240
2.980E-06,0.196
2.990E-06,0.120
3.000E-06,0.076
3.010E-06,0.096
3.020E-06,0.140
3.030E-06,0.208
3.040E-06,0.260
3.050E-06,0.276
3.060E-06,0.244
3.070E-06,0.188
3.080E-06,0.128
3.090E-06,0.112
3.100E-06,0.128
3.110E-06,0.188
3.120E-06,0.244
3.130E-06,0.264
3.140E-06,0.252
3.150E-06,0.212
3.160E-06,0.168
3.170E-06,0.140
3.180E-06,0.152
3.190E-06,0.184
3.200E-06,0.224
3.210E-06,0.248
3.220E-06,0.244
3.230E-06,0.220
3.240E-06,0.176
3.250E-06,0.160
3.260E-06,0.148
