mediciones/5-15/32.5/WaveData47104.csv

#timebase=2000000(ps)
,#voltbase=100000(mv/100)
#size=4000
-8.400E-06,0.004
-8.390E-06,0.004
-8.380E-06,0.004
-8.370E-06,0.012
-8.360E-06,-0.008
-8.350E-06,-0.008
-8.340E-06,-0.008
-8.330E-06,0.004
-8.320E-06,0.016
-8.310E-06,0.028
-8.300E-06,0.024
-8.290E-06,0.020
-8.280E-06,0.008
-8.270E-06,-0.016
-8.260E-06,-0.020
-8.250E-06,-0.016
-8.240E-06,0.008
-8.230E-06,0.020
-8.220E-06,0.032
-8.210E-06,0.016
-8.200E-06,-0.008
-8.190E-06,-0.032
-8.180E-06,-0.024
-8.170E-06,-0.012
-8.160E-06,0.004
-8.150E-06,0.024
-8.140E-06,0.028
-8.130E-06,0.024
-8.120E-06,0.004
-8.110E-06,0.000
-8.100E-06,0.000
-8.090E-06,0.004
-8.080E-06,0.004
-8.070E-06,0.008
-8.060E-06,0.012
-8.050E-06,0.024
-8.040E-06,0.032
-8.030E-06,0.036
-8.020E-06,0.032
-8.010E-06,0.016
-8.000E-06,-0.012
-7.990E-06,-0.096
-7.980E-06,-0.104
-7.970E-06,-0.056
-7.960E-06,0.028
-7.950E-06,0.076
-7.940E-06,0.100
-7.930E-06,0.012
-7.920E-06,-0.064
-7.910E-06,-0.088
-7.900E-06,-0.064
-7.890E-06,0.008
-7.880E-06,0.068
-7.870E-06,0.080
-7.860E-06,0.024
-7.850E-06,-0.016
-7.840E-06,-0.052
-7.830E-06,-0.036
-7.820E-06,-0.008
-7.810E-06,0.028
-7.800E-06,0.036
-7.790E-06,0.028
-7.780E-06,0.004
-7.770E-06,-0.020
-7.760E-06,-0.008
-7.750E-06,0.000
-7.740E-06,0.016
-7.730E-06,0.016
-7.720E-06,0.020
-7.710E-06,0.012
-7.700E-06,0.012
-7.690E-06,-0.004
-7.680E-06,-0.016
-7.670E-06,-0.012
-7.660E-06,-0.004
-7.650E-06,0.008
-7.640E-06,0.020
-7.630E-06,0.004
-7.620E-06,-0.008
-7.610E-06,-0.008
-7.600E-06,0.000
-7.590E-06,0.008
-7.580E-06,0.020
-7.570E-06,0.016
-7.560E-06,0.008
-7.550E-06,0.000
-7.540E-06,-0.008
-7.530E-06,-0.008
-7.520E-06,0.004
-7.510E-06,0.004
-7.500E-06,0.004
-7.490E-06,0.004
-7.480E-06,0.004
-7.470E-06,0.008
-7.460E-06,0.004
-7.450E-06,0.008
-7.440E-06,-0.004
-7.430E-06,0.000
-7.420E-06,0.000
-7.410E-06,0.000
-7.400E-06,0.004
-7.390E-06,0.004
-7.380E-06,-0.004
-7.370E-06,-0.012
-7.360E-06,0.000
-7.350E-06,-0.004
-7.340E-06,0.004
-7.330E-06,0.004
-7.320E-06,0.004
-7.310E-06,0.004
-7.300E-06,-0.004
-7.290E-06,0.000
-7.280E-06,-0.004
-7.270E-06,0.000
-7.260E-06,0.000
-7.250E-06,0.000
-7.240E-06,0.004
-7.230E-06,0.008
-7.220E-06,0.004
-7.210E-06,0.008
-7.200E-06,0.004
-7.190E-06,-0.004
-7.180E-06,-0.008
-7.170E-06,-0.008
-7.160E-06,0.008
-7.150E-06,0.004
-7.140E-06,0.004
-7.130E-06,0.008
-7.120E-06,0.000
-7.110E-06,0.000
-7.100E-06,-0.004
-7.090E-06,-0.004
-7.080E-06,0.004
-7.070E-06,0.008
-7.060E-06,0.008
-7.050E-06,0.012
-7.040E-06,0.008
-7.030E-06,-0.004
-7.020E-06,-0.004
-7.010E-06,0.000
-7.000E-06,0.000
-6.990E-06,0.004
-6.980E-06,0.004
-6.970E-06,0.008
-6.960E-06,0.004
-6.950E-06,0.004
-6.940E-06,0.000
-6.930E-06,0.004
-6.920E-06,-0.004
-6.910E-06,0.004
-6.900E-06,0.008
-6.890E-06,0.008
-6.880E-06,0.008
-6.870E-06,0.008
-6.860E-06,0.004
-6.850E-06,-0.004
-6.840E-06,0.000
-6.830E-06,0.000
-6.820E-06,0.004
-6.810E-06,0.008
-6.800E-06,0.008
-6.790E-06,0.008
-6.780E-06,0.004
-6.770E-06,0.004
-6.760E-06,0.000
-6.750E-06,0.004
-6.740E-06,0.008
-6.730E-06,0.008
-6.720E-06,0.008
-6.710E-06,0.004
-6.700E-06,0.004
-6.690E-06,0.008
-6.680E-06,0.008
-6.670E-06,0.008
-6.660E-06,0.008
-6.650E-06,0.004
-6.640E-06,0.012
-6.630E-06,0.012
-6.620E-06,0.012
-6.610E-06,0.012
-6.600E-06,0.012
-6.590E-06,0.004
-6.580E-06,0.004
-6.570E-06,0.012
-6.560E-06,0.032
-6.550E-06,0.036
-6.540E-06,0.020
-6.530E-06,0.004
-6.520E-06,-0.056
-6.510E-06,-0.068
-6.500E-06,-0.052
-6.490E-06,-0.004
-6.480E-06,0.024
-6.470E-06,0.056
-6.460E-06,0.056
-6.450E-06,0.000
-6.440E-06,-0.044
-6.430E-06,-0.060
-6.420E-06,-0.032
-6.410E-06,0.000
-6.400E-06,0.044
-6.390E-06,0.044
-6.380E-06,0.028
-6.370E-06,-0.004
-6.360E-06,-0.020
-6.350E-06,-0.020
-6.340E-06,-0.016
-6.330E-06,0.000
-6.320E-06,0.012
-6.310E-06,0.024
-6.300E-06,0.016
-6.290E-06,0.008
-6.280E-06,-0.004
-6.270E-06,-0.008
-6.260E-06,-0.012
-6.250E-06,0.000
-6.240E-06,0.004
-6.230E-06,0.012
-6.220E-06,0.016
-6.210E-06,0.012
-6.200E-06,0.004
-6.190E-06,-0.008
-6.180E-06,-0.008
-6.170E-06,-0.004
-6.160E-06,0.004
-6.150E-06,0.008
-6.140E-06,0.012
-6.130E-06,0.008
-6.120E-06,0.000
-6.110E-06,-0.004
-6.100E-06,-0.004
-6.090E-06,0.000
-6.080E-06,0.008
-6.070E-06,0.012
-6.060E-06,0.004
-6.050E-06,0.004
-6.040E-06,0.000
-6.030E-06,-0.004
-6.020E-06,0.000
-6.010E-06,0.012
-6.000E-06,0.012
-5.990E-06,0.012
-5.980E-06,0.008
-5.970E-06,-0.004
-5.960E-06,0.000
-5.950E-06,0.000
-5.940E-06,0.004
-5.930E-06,0.004
-5.920E-06,0.008
-5.910E-06,0.008
-5.900E-06,0.008
-5.890E-06,0.004
-5.880E-06,0.004
-5.870E-06,0.000
-5.860E-06,-0.004
-5.850E-06,0.004
-5.840E-06,0.000
-5.830E-06,0.004
-5.820E-06,0.004
-5.810E-06,0.000
-5.800E-06,0.004
-5.790E-06,0.004
-5.780E-06,0.008
-5.770E-06,0.008
-5.760E-06,0.012
-5.750E-06,0.016
-5.740E-06,0.008
-5.730E-06,0.016
-5.720E-06,0.020
-5.710E-06,0.016
-5.700E-06,0.008
-5.690E-06,0.008
-5.680E-06,0.016
-5.670E-06,-0.004
-5.660E-06,-0.024
-5.650E-06,-0.040
-5.640E-06,-0.040
-5.630E-06,-0.008
-5.620E-06,0.020
-5.610E-06,0.060
-5.600E-06,0.044
-5.590E-06,0.016
-5.580E-06,-0.032
-5.570E-06,-0.052
-5.560E-06,-0.036
-5.550E-06,0.000
-5.540E-06,0.040
-5.530E-06,0.052
-5.520E-06,0.028
-5.510E-06,-0.004
-5.500E-06,-0.024
-5.490E-06,-0.032
-5.480E-06,-0.004
-5.470E-06,0.012
-5.460E-06,0.028
-5.450E-06,0.032
-5.440E-06,0.012
-5.430E-06,-0.004
-5.420E-06,-0.008
-5.410E-06,-0.008
-5.400E-06,0.004
-5.390E-06,0.020
-5.380E-06,0.024
-5.370E-06,0.028
-5.360E-06,0.032
-5.350E-06,0.024
-5.340E-06,0.008
-5.330E-06,0.024
-5.320E-06,0.040
-5.310E-06,0.028
-5.300E-06,0.004
-5.290E-06,-0.028
-5.280E-06,-0.044
-5.270E-06,-0.040
-5.260E-06,-0.020
-5.250E-06,0.000
-5.240E-06,0.020
-5.230E-06,0.028
-5.220E-06,0.016
-5.210E-06,0.000
-5.200E-06,-0.012
-5.190E-06,-0.028
-5.180E-06,-0.024
-5.170E-06,-0.004
-5.160E-06,0.008
-5.150E-06,0.016
-5.140E-06,0.016
-5.130E-06,0.008
-5.120E-06,0.000
-5.110E-06,0.000
-5.100E-06,-0.008
-5.090E-06,-0.004
-5.080E-06,0.004
-5.070E-06,0.016
-5.060E-06,0.032
-5.050E-06,0.028
-5.040E-06,0.028
-5.030E-06,0.000
-5.020E-06,-0.020
-5.010E-06,-0.028
-5.000E-06,-0.020
-4.990E-06,-0.004
-4.980E-06,0.028
-4.970E-06,0.044
-4.960E-06,0.040
-4.950E-06,0.024
-4.940E-06,-0.008
-4.930E-06,-0.036
-4.920E-06,-0.036
-4.910E-06,-0.008
-4.900E-06,0.008
-4.890E-06,0.036
-4.880E-06,0.048
-4.870E-06,0.028
-4.860E-06,0.000
-4.850E-06,-0.020
-4.840E-06,-0.036
-4.830E-06,-0.028
-4.820E-06,-0.004
-4.810E-06,0.024
-4.800E-06,0.040
-4.790E-06,0.044
-4.780E-06,0.028
-4.770E-06,-0.016
-4.760E-06,-0.036
-4.750E-06,-0.020
-4.740E-06,0.012
-4.730E-06,0.048
-4.720E-06,0.064
-4.710E-06,0.040
-4.700E-06,0.012
-4.690E-06,-0.004
-4.680E-06,-0.032
-4.670E-06,-0.016
-4.660E-06,-0.008
-4.650E-06,0.000
-4.640E-06,0.004
-4.630E-06,0.000
-4.620E-06,-0.016
-4.610E-06,-0.012
-4.600E-06,-0.008
-4.590E-06,0.008
-4.580E-06,0.008
-4.570E-06,0.000
-4.560E-06,-0.008
-4.550E-06,0.000
-4.540E-06,0.004
-4.530E-06,0.016
-4.520E-06,0.016
-4.510E-06,0.000
-4.500E-06,-0.012
-4.490E-06,-0.008
-4.480E-06,-0.008
-4.470E-06,0.012
-4.460E-06,0.024
-4.450E-06,0.008
-4.440E-06,0.004
-4.430E-06,-0.008
-4.420E-06,-0.012
-4.410E-06,-0.008
-4.400E-06,-0.016
-4.390E-06,-0.016
-4.380E-06,-0.012
-4.370E-06,0.004
-4.360E-06,-0.004
-4.350E-06,-0.008
-4.340E-06,-0.012
-4.330E-06,0.008
-4.320E-06,0.004
-4.310E-06,0.008
-4.300E-06,0.004
-4.290E-06,-0.004
-4.280E-06,-0.004
-4.270E-06,0.000
-4.260E-06,0.016
-4.250E-06,0.012
-4.240E-06,0.008
-4.230E-06,0.004
-4.220E-06,0.000
-4.210E-06,-0.008
-4.200E-06,-0.004
-4.190E-06,0.008
-4.180E-06,0.008
-4.170E-06,0.016
-4.160E-06,0.004
-4.150E-06,-0.004
-4.140E-06,-0.004
-4.130E-06,-0.004
-4.120E-06,0.004
-4.110E-06,0.004
-4.100E-06,0.004
-4.090E-06,0.004
-4.080E-06,0.000
-4.070E-06,0.004
-4.060E-06,0.008
-4.050E-06,0.004
-4.040E-06,0.008
-4.030E-06,0.008
-4.020E-06,0.012
-4.010E-06,0.016
-4.000E-06,0.012
-3.990E-06,0.012
-3.980E-06,0.020
-3.970E-06,0.024
-3.960E-06,0.024
-3.950E-06,0.020
-3.940E-06,0.024
-3.930E-06,0.028
-3.920E-06,0.028
-3.910E-06,0.024
-3.900E-06,0.008
-3.890E-06,-0.012
-3.880E-06,-0.020
-3.870E-06,-0.008
-3.860E-06,0.012
-3.850E-06,0.020
-3.840E-06,0.032
-3.830E-06,0.028
-3.820E-06,0.012
-3.810E-06,-0.008
-3.800E-06,-0.012
-3.790E-06,-0.004
-3.780E-06,0.020
-3.770E-06,0.036
-3.760E-06,0.036
-3.750E-06,0.012
-3.740E-06,-0.004
-3.730E-06,-0.020
-3.720E-06,-0.008
-3.710E-06,0.008
-3.700E-06,0.024
-3.690E-06,0.032
-3.680E-06,0.028
-3.670E-06,0.008
-3.660E-06,0.000
-3.650E-06,0.004
-3.640E-06,0.016
-3.630E-06,0.028
-3.620E-06,0.048
-3.610E-06,0.036
-3.600E-06,0.032
-3.590E-06,0.024
-3.580E-06,0.016
-3.570E-06,0.016
-3.560E-06,0.016
-3.550E-06,0.044
-3.540E-06,0.064
-3.530E-06,0.076
-3.520E-06,0.048
-3.510E-06,-0.052
-3.500E-06,-0.116
-3.490E-06,-0.140
-3.480E-06,-0.096
-3.470E-06,-0.004
-3.460E-06,0.072
-3.450E-06,0.088
-3.440E-06,0.044
-3.430E-06,-0.024
-3.420E-06,-0.064
-3.410E-06,-0.056
-3.400E-06,-0.008
-3.390E-06,0.056
-3.380E-06,0.112
-3.370E-06,0.108
-3.360E-06,0.076
-3.350E-06,0.028
-3.340E-06,0.004
-3.330E-06,0.020
-3.320E-06,0.080
-3.310E-06,0.128
-3.300E-06,0.144
-3.290E-06,0.088
-3.280E-06,0.016
-3.270E-06,-0.056
-3.260E-06,-0.124
-3.250E-06,-0.132
-3.240E-06,-0.092
-3.230E-06,-0.024
-3.220E-06,0.032
-3.210E-06,0.080
-3.200E-06,0.068
-3.190E-06,0.000
-3.180E-06,-0.052
-3.170E-06,-0.076
-3.160E-06,-0.092
-3.150E-06,-0.052
-3.140E-06,0.032
-3.130E-06,0.084
-3.120E-06,0.068
-3.110E-06,0.020
-3.100E-06,-0.024
-3.090E-06,-0.056
-3.080E-06,-0.064
-3.070E-06,-0.032
-3.060E-06,0.032
-3.050E-06,0.072
-3.040E-06,0.084
-3.030E-06,0.044
-3.020E-06,0.000
-3.010E-06,-0.040
-3.000E-06,-0.044
-2.990E-06,-0.012
-2.980E-06,0.056
-2.970E-06,0.088
-2.960E-06,0.088
-2.950E-06,0.048
-2.940E-06,0.012
-2.930E-06,-0.008
-2.920E-06,-0.012
-2.910E-06,0.024
-2.900E-06,0.068
-2.890E-06,0.112
-2.880E-06,0.128
-2.870E-06,0.092
-2.860E-06,0.064
-2.850E-06,0.008
-2.840E-06,-0.052
-2.830E-06,-0.096
-2.820E-06,-0.104
-2.810E-06,-0.156
-2.800E-06,-0.156
-2.790E-06,-0.124
-2.780E-06,-0.040
-2.770E-06,0.064
-2.760E-06,0.132
-2.750E-06,0.128
-2.740E-06,0.056
-2.730E-06,-0.016
-2.720E-06,-0.112
-2.710E-06,-0.108
-2.700E-06,-0.072
-2.690E-06,-0.032
-2.680E-06,-0.004
-2.670E-06,0.036
-2.660E-06,0.032
-2.650E-06,0.040
-2.640E-06,0.004
-2.630E-06,0.000
-2.620E-06,-0.008
-2.610E-06,-0.004
-2.600E-06,-0.052
-2.590E-06,-0.080
-2.580E-06,-0.060
-2.570E-06,-0.024
-2.560E-06,0.028
-2.550E-06,0.096
-2.540E-06,0.148
-2.530E-06,0.056
-2.520E-06,-0.048
-2.510E-06,-0.136
-2.500E-06,-0.124
-2.490E-06,-0.024
-2.480E-06,0.116
-2.470E-06,0.188
-2.460E-06,0.176
-2.450E-06,0.112
-2.440E-06,0.008
-2.430E-06,-0.060
-2.420E-06,-0.064
-2.410E-06,0.000
-2.400E-06,0.036
-2.390E-06,0.096
-2.380E-06,0.108
-2.370E-06,0.076
-2.360E-06,-0.008
-2.350E-06,-0.100
-2.340E-06,-0.132
-2.330E-06,-0.112
-2.320E-06,-0.056
-2.310E-06,0.012
-2.300E-06,0.052
-2.290E-06,0.044
-2.280E-06,0.008
-2.270E-06,-0.028
-2.260E-06,-0.044
-2.250E-06,-0.004
-2.240E-06,0.036
-2.230E-06,0.048
-2.220E-06,0.048
-2.210E-06,0.040
-2.200E-06,-0.036
-2.190E-06,-0.072
-2.180E-06,-0.076
-2.170E-06,-0.052
-2.160E-06,0.000
-2.150E-06,0.052
-2.140E-06,0.048
-2.130E-06,0.028
-2.120E-06,0.016
-2.110E-06,-0.004
-2.100E-06,0.000
-2.090E-06,0.012
-2.080E-06,0.024
-2.070E-06,0.060
-2.060E-06,0.108
-2.050E-06,0.088
-2.040E-06,0.068
-2.030E-06,0.044
-2.020E-06,0.008
-2.010E-06,0.024
-2.000E-06,0.108
-1.990E-06,0.140
-1.980E-06,0.092
-1.970E-06,0.060
-1.960E-06,0.028
-1.950E-06,0.012
-1.940E-06,0.036
-1.930E-06,0.076
-1.920E-06,0.104
-1.910E-06,0.108
-1.900E-06,0.088
-1.890E-06,0.088
-1.880E-06,0.092
-1.870E-06,0.076
-1.860E-06,0.072
-1.850E-06,0.076
-1.840E-06,0.084
-1.830E-06,0.028
-1.820E-06,-0.056
-1.810E-06,-0.136
-1.800E-06,-0.164
-1.790E-06,-0.136
-1.780E-06,-0.080
-1.770E-06,-0.012
-1.760E-06,0.016
-1.750E-06,-0.048
-1.740E-06,-0.132
-1.730E-06,-0.200
-1.720E-06,-0.188
-1.710E-06,-0.144
-1.700E-06,-0.048
-1.690E-06,0.028
-1.680E-06,0.060
-1.670E-06,-0.036
-1.660E-06,-0.092
-1.650E-06,-0.100
-1.640E-06,-0.052
-1.630E-06,0.000
-1.620E-06,0.008
-1.610E-06,0.004
-1.600E-06,-0.012
-1.590E-06,-0.016
-1.580E-06,-0.056
-1.570E-06,-0.036
-1.560E-06,-0.020
-1.550E-06,0.012
-1.540E-06,0.028
-1.530E-06,0.040
-1.520E-06,0.032
-1.510E-06,0.028
-1.500E-06,0.032
-1.490E-06,0.036
-1.480E-06,0.068
-1.470E-06,0.088
-1.460E-06,0.124
-1.450E-06,0.132
-1.440E-06,0.136
-1.430E-06,0.112
-1.420E-06,0.100
-1.410E-06,0.096
-1.400E-06,0.104
-1.390E-06,0.100
-1.380E-06,0.096
-1.370E-06,0.100
-1.360E-06,0.100
-1.350E-06,0.108
-1.340E-06,0.108
-1.330E-06,0.104
-1.320E-06,0.064
-1.310E-06,0.056
-1.300E-06,0.060
-1.290E-06,0.056
-1.280E-06,0.008
-1.270E-06,-0.052
-1.260E-06,-0.120
-1.250E-06,-0.176
-1.240E-06,-0.188
-1.230E-06,-0.156
-1.220E-06,-0.096
-1.210E-06,-0.104
-1.200E-06,-0.056
-1.190E-06,-0.048
-1.180E-06,0.000
-1.170E-06,0.008
-1.160E-06,0.056
-1.150E-06,0.080
-1.140E-06,0.036
-1.130E-06,0.104
-1.120E-06,0.132
-1.110E-06,0.208
-1.100E-06,0.236
-1.090E-06,0.232
-1.080E-06,0.180
-1.070E-06,0.136
-1.060E-06,0.120
-1.050E-06,0.124
-1.040E-06,0.160
-1.030E-06,0.188
-1.020E-06,0.232
-1.010E-06,0.212
-1.000E-06,0.152
-9.900E-07,0.088
-9.800E-07,0.084
-9.700E-07,0.080
-9.600E-07,0.092
-9.500E-07,0.112
-9.400E-07,0.136
-9.300E-07,0.112
-9.200E-07,0.092
-9.100E-07,0.104
-9.000E-07,0.136
-8.900E-07,0.180
-8.800E-07,0.188
-8.700E-07,0.204
-8.600E-07,0.192
-8.500E-07,0.176
-8.400E-07,0.160
-8.300E-07,0.168
-8.200E-07,0.168
-8.100E-07,0.196
-8.000E-07,0.224
-7.900E-07,0.228
-7.800E-07,0.240
-7.700E-07,0.216
-7.600E-07,0.192
-7.500E-07,0.176
-7.400E-07,0.176
-7.300E-07,0.188
-7.200E-07,0.220
-7.100E-07,0.228
-7.000E-07,0.204
-6.900E-07,0.188
-6.800E-07,0.168
-6.700E-07,0.176
-6.600E-07,0.200
-6.500E-07,0.224
-6.400E-07,0.228
-6.300E-07,0.232
-6.200E-07,0.212
-6.100E-07,0.200
-6.000E-07,0.176
-5.900E-07,0.160
-5.800E-07,0.120
-5.700E-07,0.104
-5.600E-07,0.112
-5.500E-07,0.156
-5.400E-07,0.208
-5.300E-07,0.240
-5.200E-07,0.224
-5.100E-07,0.172
-5.000E-07,0.156
-4.900E-07,0.136
-4.800E-07,0.136
-4.700E-07,0.152
-4.600E-07,0.180
-4.500E-07,0.148
-4.400E-07,0.136
-4.300E-07,0.112
-4.200E-07,0.092
-4.100E-07,0.064
-4.000E-07,0.076
-3.900E-07,0.060
-3.800E-07,0.016
-3.700E-07,-0.012
-3.600E-07,-0.060
-3.500E-07,-0.088
-3.400E-07,-0.152
-3.300E-07,-0.128
-3.200E-07,-0.108
-3.100E-07,-0.056
-3.000E-07,-0.064
-2.900E-07,-0.072
-2.800E-07,-0.140
-2.700E-07,-0.188
-2.600E-07,-0.136
-2.500E-07,-0.112
-2.400E-07,-0.208
-2.300E-07,-0.320
-2.200E-07,-0.360
-2.100E-07,-0.508
-2.000E-07,-0.496
-1.900E-07,-0.236
-1.800E-07,-0.068
-1.700E-07,0.020
-1.600E-07,0.056
-1.500E-07,-0.044
-1.400E-07,-0.272
-1.300E-07,-0.340
-1.200E-07,-0.228
-1.100E-07,0.088
-1.000E-07,0.304
-9.000E-08,0.468
-8.000E-08,0.412
-7.000E-08,0.224
-6.000E-08,-0.016
-5.000E-08,-0.072
-4.000E-08,0.048
-3.000E-08,0.260
-2.000E-08,0.488
-1.000E-08,0.540
0.000E+00,0.536
1.000E-08,0.324
2.000E-08,0.120
3.000E-08,-0.032
4.000E-08,0.024
5.000E-08,0.188
6.000E-08,0.416
7.000E-08,0.544
8.000E-08,0.516
9.000E-08,0.364
1.000E-07,0.168
1.100E-07,0.048
1.200E-07,0.032
1.300E-07,0.164
1.400E-07,0.316
1.500E-07,0.460
1.600E-07,0.472
1.700E-07,0.376
1.800E-07,0.224
1.900E-07,0.096
2.000E-07,0.064
2.100E-07,0.140
2.200E-07,0.276
2.300E-07,0.384
2.400E-07,0.424
2.500E-07,0.372
2.600E-07,0.260
2.700E-07,0.144
2.800E-07,0.092
2.900E-07,0.124
3.000E-07,0.220
3.100E-07,0.312
3.200E-07,0.360
3.300E-07,0.340
3.400E-07,0.272
3.500E-07,0.188
3.600E-07,0.132
3.700E-07,0.144
3.800E-07,0.192
3.900E-07,0.276
4.000E-07,0.316
4.100E-07,0.324
4.200E-07,0.284
4.300E-07,0.224
4.400E-07,0.176
4.500E-07,0.164
4.600E-07,0.188
4.700E-07,0.236
4.800E-07,0.280
4.900E-07,0.292
5.000E-07,0.276
5.100E-07,0.228
5.200E-07,0.192
5.300E-07,0.172
5.400E-07,0.176
5.500E-07,0.216
5.600E-07,0.256
5.700E-07,0.284
5.800E-07,0.284
5.900E-07,0.256
6.000E-07,0.224
6.100E-07,0.192
6.200E-07,0.192
6.300E-07,0.200
6.400E-07,0.220
6.500E-07,0.240
6.600E-07,0.256
6.700E-07,0.252
6.800E-07,0.224
6.900E-07,0.200
7.000E-07,0.188
7.100E-07,0.192
7.200E-07,0.212
7.300E-07,0.232
7.400E-07,0.252
7.500E-07,0.264
7.600E-07,0.252
7.700E-07,0.236
7.800E-07,0.216
7.900E-07,0.204
8.000E-07,0.208
8.100E-07,0.228
8.200E-07,0.252
8.300E-07,0.256
8.400E-07,0.248
8.500E-07,0.232
8.600E-07,0.220
8.700E-07,0.204
8.800E-07,0.208
8.900E-07,0.216
9.000E-07,0.224
9.100E-07,0.240
9.200E-07,0.244
9.300E-07,0.240
9.400E-07,0.228
9.500E-07,0.212
9.600E-07,0.204
9.700E-07,0.212
9.800E-07,0.224
9.900E-07,0.224
1.000E-06,0.232
1.010E-06,0.232
1.020E-06,0.228
1.030E-06,0.216
1.040E-06,0.204
1.050E-06,0.208
1.060E-06,0.208
1.070E-06,0.216
1.080E-06,0.220
1.090E-06,0.232
1.100E-06,0.228
1.110E-06,0.220
1.120E-06,0.208
1.130E-06,0.204
1.140E-06,0.204
1.150E-06,0.212
1.160E-06,0.224
1.170E-06,0.224
1.180E-06,0.228
1.190E-06,0.220
1.200E-06,0.212
1.210E-06,0.204
1.220E-06,0.196
1.230E-06,0.208
1.240E-06,0.212
1.250E-06,0.216
1.260E-06,0.220
1.270E-06,0.220
1.280E-06,0.208
1.290E-06,0.196
1.300E-06,0.196
1.310E-06,0.204
1.320E-06,0.208
1.330E-06,0.212
1.340E-06,0.212
1.350E-06,0.208
1.360E-06,0.208
1.370E-06,0.200
1.380E-06,0.192
1.390E-06,0.196
1.400E-06,0.204
1.410E-06,0.208
1.420E-06,0.208
1.430E-06,0.204
1.440E-06,0.200
1.450E-06,0.196
1.460E-06,0.196
1.470E-06,0.192
1.480E-06,0.192
1.490E-06,0.204
1.500E-06,0.208
1.510E-06,0.204
1.520E-06,0.200
1.530E-06,0.200
1.540E-06,0.192
1.550E-06,0.192
1.560E-06,0.188
1.570E-06,0.192
1.580E-06,0.192
1.590E-06,0.196
1.600E-06,0.196
1.610E-06,0.192
1.620E-06,0.192
1.630E-06,0.192
1.640E-06,0.188
1.650E-06,0.192
1.660E-06,0.192
1.670E-06,0.192
1.680E-06,0.192
1.690E-06,0.196
1.700E-06,0.192
1.710E-06,0.188
1.720E-06,0.192
1.730E-06,0.184
1.740E-06,0.184
1.750E-06,0.188
1.760E-06,0.192
1.770E-06,0.188
1.780E-06,0.188
1.790E-06,0.188
1.800E-06,0.172
1.810E-06,0.176
1.820E-06,0.184
1.830E-06,0.188
1.840E-06,0.192
1.850E-06,0.184
1.860E-06,0.188
1.870E-06,0.188
1.880E-06,0.180
1.890E-06,0.180
1.900E-06,0.176
1.910E-06,0.172
1.920E-06,0.176
1.930E-06,0.172
1.940E-06,0.180
1.950E-06,0.180
1.960E-06,0.180
1.970E-06,0.172
1.980E-06,0.176
1.990E-06,0.176
2.000E-06,0.172
2.010E-06,0.172
2.020E-06,0.172
2.030E-06,0.172
2.040E-06,0.164
2.050E-06,0.160
2.060E-06,0.164
2.070E-06,0.156
2.080E-06,0.164
2.090E-06,0.164
2.100E-06,0.168
2.110E-06,0.164
2.120E-06,0.164
2.130E-06,0.164
2.140E-06,0.164
2.150E-06,0.160
2.160E-06,0.164
2.170E-06,0.160
2.180E-06,0.160
2.190E-06,0.160
2.200E-06,0.164
2.210E-06,0.160
2.220E-06,0.164
2.230E-06,0.168
2.240E-06,0.160
2.250E-06,0.164
2.260E-06,0.156
2.270E-06,0.156
2.280E-06,0.160
2.290E-06,0.156
2.300E-06,0.156
2.310E-06,0.160
2.320E-06,0.160
2.330E-06,0.164
2.340E-06,0.156
2.350E-06,0.156
2.360E-06,0.160
2.370E-06,0.156
2.380E-06,0.152
2.390E-06,0.152
2.400E-06,0.148
2.410E-06,0.152
2.420E-06,0.148
2.430E-06,0.152
2.440E-06,0.152
2.450E-06,0.156
2.460E-06,0.156
2.470E-06,0.156
2.480E-06,0.152
2.490E-06,0.152
2.500E-06,0.152
2.510E-06,0.140
2.520E-06,0.144
2.530E-06,0.136
2.540E-06,0.140
2.550E-06,0.144
2.560E-06,0.148
2.570E-06,0.148
2.580E-06,0.140
2.590E-06,0.140
2.600E-06,0.140
2.610E-06,0.140
2.620E-06,0.144
2.630E-06,0.144
2.640E-06,0.148
2.650E-06,0.148
2.660E-06,0.144
2.670E-06,0.140
2.680E-06,0.136
2.690E-06,0.136
2.700E-06,0.136
2.710E-06,0.140
2.720E-06,0.140
2.730E-06,0.144
2.740E-06,0.140
2.750E-06,0.136
2.760E-06,0.140
2.770E-06,0.136
2.780E-06,0.140
2.790E-06,0.144
2.800E-06,0.140
2.810E-06,0.140
2.820E-06,0.132
2.830E-06,0.132
2.840E-06,0.132
2.850E-06,0.136
2.860E-06,0.140
2.870E-06,0.140
2.880E-06,0.144
2.890E-06,0.136
2.900E-06,0.132
2.910E-06,0.136
2.920E-06,0.136
2.930E-06,0.144
2.940E-06,0.152
2.950E-06,0.148
2.960E-06,0.140
2.970E-06,0.128
2.980E-06,0.120
2.990E-06,0.112
3.000E-06,0.124
3.010E-06,0.128
3.020E-06,0.136
3.030E-06,0.140
3.040E-06,0.136
3.050E-06,0.124
3.060E-06,0.112
3.070E-06,0.112
3.080E-06,0.116
3.090E-06,0.124
3.100E-06,0.132
3.110E-06,0.136
3.120E-06,0.132
3.130E-06,0.128
3.140E-06,0.120
3.150E-06,0.108
3.160E-06,0.108
3.170E-06,0.124
3.180E-06,0.128
3.190E-06,0.132
3.200E-06,0.124
3.210E-06,0.120
3.220E-06,0.112
3.230E-06,0.108
3.240E-06,0.104
3.250E-06,0.124
3.260E-06,0.128
3.270E-06,0.128
3.280E-06,0.124
3.290E-06,0.120
3.300E-06,0.112
3.310E-06,0.104
3.320E-06,0.104
3.330E-06,0.104
3.340E-06,0.108
3.350E-06,0.116
3.360E-06,0.112
