mediciones/5-15/32.5/WaveData47103.csv

#timebase=2000000(ps)
,#voltbase=2000000(mv/100)
#size=4000
-8.400E-06,0.000
-8.390E-06,0.000
-8.380E-06,0.000
-8.370E-06,0.000
-8.360E-06,0.000
-8.350E-06,0.080
-8.340E-06,0.000
-8.330E-06,0.080
-8.320E-06,0.080
-8.310E-06,-0.080
-8.300E-06,0.080
-8.290E-06,0.080
-8.280E-06,0.080
-8.270E-06,0.080
-8.260E-06,0.080
-8.250E-06,0.080
-8.240E-06,0.080
-8.230E-06,0.080
-8.220E-06,0.080
-8.210E-06,0.080
-8.200E-06,-0.080
-8.190E-06,0.000
-8.180E-06,0.000
-8.170E-06,0.000
-8.160E-06,0.000
-8.150E-06,0.000
-8.140E-06,0.080
-8.130E-06,0.160
-8.120E-06,0.160
-8.110E-06,0.000
-8.100E-06,0.080
-8.090E-06,0.080
-8.080E-06,0.080
-8.070E-06,0.080
-8.060E-06,0.160
-8.050E-06,-0.080
-8.040E-06,-0.080
-8.030E-06,0.080
-8.020E-06,0.080
-8.010E-06,0.000
-8.000E-06,0.080
-7.990E-06,0.080
-7.980E-06,0.080
-7.970E-06,0.000
-7.960E-06,0.000
-7.950E-06,0.080
-7.940E-06,0.000
-7.930E-06,0.000
-7.920E-06,0.000
-7.910E-06,0.080
-7.900E-06,0.000
-7.890E-06,0.080
-7.880E-06,0.080
-7.870E-06,0.000
-7.860E-06,0.080
-7.850E-06,0.160
-7.840E-06,0.000
-7.830E-06,0.000
-7.820E-06,0.000
-7.810E-06,0.080
-7.800E-06,0.080
-7.790E-06,0.160
-7.780E-06,0.000
-7.770E-06,0.080
-7.760E-06,0.080
-7.750E-06,0.000
-7.740E-06,0.000
-7.730E-06,0.080
-7.720E-06,0.080
-7.710E-06,0.080
-7.700E-06,0.080
-7.690E-06,0.000
-7.680E-06,0.080
-7.670E-06,0.000
-7.660E-06,-0.080
-7.650E-06,0.080
-7.640E-06,0.000
-7.630E-06,0.080
-7.620E-06,0.000
-7.610E-06,0.080
-7.600E-06,0.080
-7.590E-06,0.000
-7.580E-06,0.080
-7.570E-06,0.080
-7.560E-06,0.080
-7.550E-06,0.080
-7.540E-06,0.080
-7.530E-06,0.000
-7.520E-06,0.000
-7.510E-06,0.080
-7.500E-06,0.000
-7.490E-06,0.000
-7.480E-06,0.080
-7.470E-06,0.000
-7.460E-06,0.080
-7.450E-06,0.080
-7.440E-06,0.000
-7.430E-06,0.080
-7.420E-06,0.080
-7.410E-06,0.080
-7.400E-06,0.000
-7.390E-06,0.000
-7.380E-06,0.000
-7.370E-06,0.080
-7.360E-06,0.160
-7.350E-06,0.160
-7.340E-06,-0.080
-7.330E-06,-0.080
-7.320E-06,0.080
-7.310E-06,0.000
-7.300E-06,0.080
-7.290E-06,0.000
-7.280E-06,0.080
-7.270E-06,0.080
-7.260E-06,0.000
-7.250E-06,0.080
-7.240E-06,-0.080
-7.230E-06,0.080
-7.220E-06,0.000
-7.210E-06,0.000
-7.200E-06,0.080
-7.190E-06,0.080
-7.180E-06,0.000
-7.170E-06,0.000
-7.160E-06,0.000
-7.150E-06,-0.080
-7.140E-06,0.080
-7.130E-06,0.000
-7.120E-06,0.000
-7.110E-06,0.080
-7.100E-06,0.160
-7.090E-06,0.000
-7.080E-06,0.000
-7.070E-06,0.080
-7.060E-06,-0.080
-7.050E-06,0.000
-7.040E-06,0.080
-7.030E-06,0.080
-7.020E-06,0.080
-7.010E-06,0.080
-7.000E-06,0.080
-6.990E-06,0.080
-6.980E-06,0.000
-6.970E-06,0.160
-6.960E-06,0.160
-6.950E-06,0.000
-6.940E-06,0.080
-6.930E-06,0.080
-6.920E-06,0.080
-6.910E-06,0.080
-6.900E-06,0.000
-6.890E-06,0.000
-6.880E-06,0.080
-6.870E-06,0.160
-6.860E-06,0.000
-6.850E-06,0.000
-6.840E-06,0.080
-6.830E-06,0.000
-6.820E-06,0.080
-6.810E-06,0.160
-6.800E-06,0.000
-6.790E-06,0.000
-6.780E-06,0.080
-6.770E-06,0.000
-6.760E-06,0.080
-6.750E-06,0.080
-6.740E-06,0.080
-6.730E-06,0.080
-6.720E-06,0.000
-6.710E-06,0.080
-6.700E-06,0.000
-6.690E-06,0.000
-6.680E-06,0.080
-6.670E-06,0.160
-6.660E-06,0.000
-6.650E-06,0.000
-6.640E-06,0.080
-6.630E-06,-0.080
-6.620E-06,-0.080
-6.610E-06,0.080
-6.600E-06,0.080
-6.590E-06,0.080
-6.580E-06,0.080
-6.570E-06,0.080
-6.560E-06,0.080
-6.550E-06,0.080
-6.540E-06,0.080
-6.530E-06,0.160
-6.520E-06,0.000
-6.510E-06,0.080
-6.500E-06,0.000
-6.490E-06,0.080
-6.480E-06,-0.080
-6.470E-06,0.080
-6.460E-06,0.080
-6.450E-06,0.080
-6.440E-06,0.080
-6.430E-06,0.080
-6.420E-06,0.160
-6.410E-06,0.000
-6.400E-06,0.000
-6.390E-06,0.000
-6.380E-06,0.160
-6.370E-06,0.160
-6.360E-06,0.160
-6.350E-06,0.160
-6.340E-06,0.000
-6.330E-06,0.000
-6.320E-06,0.080
-6.310E-06,0.080
-6.300E-06,0.080
-6.290E-06,0.080
-6.280E-06,0.080
-6.270E-06,0.160
-6.260E-06,0.000
-6.250E-06,0.000
-6.240E-06,0.080
-6.230E-06,0.000
-6.220E-06,0.080
-6.210E-06,0.080
-6.200E-06,0.080
-6.190E-06,0.080
-6.180E-06,0.080
-6.170E-06,0.080
-6.160E-06,0.080
-6.150E-06,0.080
-6.140E-06,0.080
-6.130E-06,0.080
-6.120E-06,0.000
-6.110E-06,0.080
-6.100E-06,0.000
-6.090E-06,0.080
-6.080E-06,0.080
-6.070E-06,0.080
-6.060E-06,0.080
-6.050E-06,0.080
-6.040E-06,0.080
-6.030E-06,0.160
-6.020E-06,0.080
-6.010E-06,0.000
-6.000E-06,0.000
-5.990E-06,0.080
-5.980E-06,0.080
-5.970E-06,0.080
-5.960E-06,0.080
-5.950E-06,0.080
-5.940E-06,0.080
-5.930E-06,0.080
-5.920E-06,0.080
-5.910E-06,0.000
-5.900E-06,0.080
-5.890E-06,0.080
-5.880E-06,0.080
-5.870E-06,0.080
-5.860E-06,0.240
-5.850E-06,0.080
-5.840E-06,0.080
-5.830E-06,0.080
-5.820E-06,0.080
-5.810E-06,0.160
-5.800E-06,0.000
-5.790E-06,0.000
-5.780E-06,0.080
-5.770E-06,0.000
-5.760E-06,0.080
-5.750E-06,0.080
-5.740E-06,0.080
-5.730E-06,0.080
-5.720E-06,0.080
-5.710E-06,0.000
-5.700E-06,0.080
-5.690E-06,0.000
-5.680E-06,0.000
-5.670E-06,0.080
-5.660E-06,0.000
-5.650E-06,0.000
-5.640E-06,0.080
-5.630E-06,0.160
-5.620E-06,0.000
-5.610E-06,0.080
-5.600E-06,0.080
-5.590E-06,0.080
-5.580E-06,0.080
-5.570E-06,0.080
-5.560E-06,0.080
-5.550E-06,0.000
-5.540E-06,0.080
-5.530E-06,0.080
-5.520E-06,0.080
-5.510E-06,0.080
-5.500E-06,0.000
-5.490E-06,0.080
-5.480E-06,0.080
-5.470E-06,0.080
-5.460E-06,0.080
-5.450E-06,0.080
-5.440E-06,0.080
-5.430E-06,0.000
-5.420E-06,0.000
-5.410E-06,0.000
-5.400E-06,0.080
-5.390E-06,0.160
-5.380E-06,0.000
-5.370E-06,0.080
-5.360E-06,0.080
-5.350E-06,0.080
-5.340E-06,0.000
-5.330E-06,0.000
-5.320E-06,0.080
-5.310E-06,0.000
-5.300E-06,0.000
-5.290E-06,-0.080
-5.280E-06,0.000
-5.270E-06,0.000
-5.260E-06,0.080
-5.250E-06,0.000
-5.240E-06,0.080
-5.230E-06,-0.080
-5.220E-06,0.080
-5.210E-06,0.000
-5.200E-06,0.000
-5.190E-06,0.000
-5.180E-06,-0.080
-5.170E-06,0.000
-5.160E-06,0.000
-5.150E-06,0.080
-5.140E-06,0.080
-5.130E-06,0.080
-5.120E-06,0.000
-5.110E-06,0.080
-5.100E-06,0.000
-5.090E-06,0.080
-5.080E-06,0.080
-5.070E-06,0.080
-5.060E-06,0.080
-5.050E-06,0.000
-5.040E-06,0.080
-5.030E-06,0.080
-5.020E-06,0.000
-5.010E-06,0.000
-5.000E-06,0.000
-4.990E-06,0.000
-4.980E-06,0.000
-4.970E-06,0.080
-4.960E-06,0.160
-4.950E-06,0.000
-4.940E-06,0.000
-4.930E-06,0.080
-4.920E-06,0.160
-4.910E-06,0.000
-4.900E-06,0.000
-4.890E-06,0.080
-4.880E-06,0.160
-4.870E-06,0.160
-4.860E-06,0.160
-4.850E-06,0.000
-4.840E-06,-0.080
-4.830E-06,0.080
-4.820E-06,0.160
-4.810E-06,0.160
-4.800E-06,0.160
-4.790E-06,0.160
-4.780E-06,0.160
-4.770E-06,0.160
-4.760E-06,0.000
-4.750E-06,0.000
-4.740E-06,0.080
-4.730E-06,0.000
-4.720E-06,0.000
-4.710E-06,0.080
-4.700E-06,0.000
-4.690E-06,0.000
-4.680E-06,0.000
-4.670E-06,0.080
-4.660E-06,0.080
-4.650E-06,0.080
-4.640E-06,0.000
-4.630E-06,0.000
-4.620E-06,0.080
-4.610E-06,0.080
-4.600E-06,0.000
-4.590E-06,0.080
-4.580E-06,0.080
-4.570E-06,0.000
-4.560E-06,0.080
-4.550E-06,0.080
-4.540E-06,0.000
-4.530E-06,0.080
-4.520E-06,-0.080
-4.510E-06,-0.080
-4.500E-06,0.000
-4.490E-06,-0.080
-4.480E-06,0.080
-4.470E-06,0.000
-4.460E-06,0.000
-4.450E-06,0.000
-4.440E-06,-0.080
-4.430E-06,0.000
-4.420E-06,-0.080
-4.410E-06,0.000
-4.400E-06,0.000
-4.390E-06,0.000
-4.380E-06,0.080
-4.370E-06,0.000
-4.360E-06,0.080
-4.350E-06,0.080
-4.340E-06,0.080
-4.330E-06,0.080
-4.320E-06,0.080
-4.310E-06,0.160
-4.300E-06,0.000
-4.290E-06,0.080
-4.280E-06,0.080
-4.270E-06,0.080
-4.260E-06,0.080
-4.250E-06,0.000
-4.240E-06,0.080
-4.230E-06,0.080
-4.220E-06,0.080
-4.210E-06,-0.080
-4.200E-06,0.080
-4.190E-06,0.080
-4.180E-06,0.000
-4.170E-06,0.080
-4.160E-06,0.080
-4.150E-06,0.000
-4.140E-06,0.080
-4.130E-06,0.080
-4.120E-06,0.080
-4.110E-06,0.080
-4.100E-06,0.000
-4.090E-06,0.000
-4.080E-06,0.000
-4.070E-06,0.080
-4.060E-06,0.080
-4.050E-06,-0.080
-4.040E-06,0.080
-4.030E-06,0.000
-4.020E-06,0.080
-4.010E-06,-0.080
-4.000E-06,0.000
-3.990E-06,-0.080
-3.980E-06,-0.080
-3.970E-06,0.080
-3.960E-06,0.160
-3.950E-06,-0.080
-3.940E-06,0.000
-3.930E-06,0.000
-3.920E-06,0.000
-3.910E-06,0.000
-3.900E-06,0.080
-3.890E-06,-0.080
-3.880E-06,-0.080
-3.870E-06,0.000
-3.860E-06,0.080
-3.850E-06,0.000
-3.840E-06,0.080
-3.830E-06,-0.080
-3.820E-06,0.000
-3.810E-06,0.080
-3.800E-06,0.000
-3.790E-06,0.000
-3.780E-06,0.080
-3.770E-06,0.080
-3.760E-06,0.000
-3.750E-06,0.000
-3.740E-06,0.000
-3.730E-06,0.080
-3.720E-06,0.000
-3.710E-06,0.000
-3.700E-06,0.000
-3.690E-06,0.000
-3.680E-06,0.080
-3.670E-06,-0.080
-3.660E-06,-0.080
-3.650E-06,0.000
-3.640E-06,-0.080
-3.630E-06,0.000
-3.620E-06,-0.080
-3.610E-06,0.000
-3.600E-06,0.000
-3.590E-06,0.000
-3.580E-06,0.000
-3.570E-06,0.000
-3.560E-06,0.000
-3.550E-06,-0.080
-3.540E-06,-0.080
-3.530E-06,0.000
-3.520E-06,-0.080
-3.510E-06,-0.080
-3.500E-06,-0.080
-3.490E-06,-0.080
-3.480E-06,-0.080
-3.470E-06,-0.080
-3.460E-06,-0.080
-3.450E-06,0.000
-3.440E-06,-0.080
-3.430E-06,-0.080
-3.420E-06,-0.080
-3.410E-06,-0.080
-3.400E-06,-0.240
-3.390E-06,-0.160
-3.380E-06,-0.080
-3.370E-06,-0.160
-3.360E-06,-0.240
-3.350E-06,-0.160
-3.340E-06,-0.080
-3.330E-06,0.000
-3.320E-06,-0.160
-3.310E-06,-0.080
-3.300E-06,-0.160
-3.290E-06,-0.240
-3.280E-06,-0.240
-3.270E-06,-0.400
-3.260E-06,-0.240
-3.250E-06,-0.320
-3.240E-06,-0.320
-3.230E-06,-0.320
-3.220E-06,-0.240
-3.210E-06,-0.320
-3.200E-06,-0.240
-3.190E-06,-0.240
-3.180E-06,-0.240
-3.170E-06,-0.160
-3.160E-06,-0.080
-3.150E-06,-0.160
-3.140E-06,-0.160
-3.130E-06,-0.080
-3.120E-06,-0.080
-3.110E-06,0.000
-3.100E-06,-0.160
-3.090E-06,0.000
-3.080E-06,0.000
-3.070E-06,-0.080
-3.060E-06,0.000
-3.050E-06,-0.080
-3.040E-06,0.000
-3.030E-06,0.080
-3.020E-06,0.080
-3.010E-06,-0.080
-3.000E-06,-0.080
-2.990E-06,0.000
-2.980E-06,-0.080
-2.970E-06,0.000
-2.960E-06,-0.080
-2.950E-06,0.000
-2.940E-06,-0.080
-2.930E-06,0.000
-2.920E-06,0.080
-2.910E-06,0.080
-2.900E-06,-0.080
-2.890E-06,0.000
-2.880E-06,0.080
-2.870E-06,0.000
-2.860E-06,0.000
-2.850E-06,0.000
-2.840E-06,0.000
-2.830E-06,0.000
-2.820E-06,0.000
-2.810E-06,0.000
-2.800E-06,0.000
-2.790E-06,0.000
-2.780E-06,0.000
-2.770E-06,0.000
-2.760E-06,0.000
-2.750E-06,0.000
-2.740E-06,0.000
-2.730E-06,0.080
-2.720E-06,-0.080
-2.710E-06,0.000
-2.700E-06,0.000
-2.690E-06,0.000
-2.680E-06,-0.080
-2.670E-06,-0.160
-2.660E-06,-0.160
-2.650E-06,-0.160
-2.640E-06,0.000
-2.630E-06,0.000
-2.620E-06,-0.080
-2.610E-06,0.000
-2.600E-06,-0.080
-2.590E-06,-0.160
-2.580E-06,-0.160
-2.570E-06,-0.160
-2.560E-06,-0.160
-2.550E-06,-0.240
-2.540E-06,-0.160
-2.530E-06,-0.240
-2.520E-06,-0.080
-2.510E-06,-0.080
-2.500E-06,-0.160
-2.490E-06,-0.080
-2.480E-06,-0.240
-2.470E-06,-0.320
-2.460E-06,-0.320
-2.450E-06,-0.160
-2.440E-06,-0.320
-2.430E-06,-0.320
-2.420E-06,-0.400
-2.410E-06,-0.400
-2.400E-06,-0.480
-2.390E-06,-0.480
-2.380E-06,-0.480
-2.370E-06,-0.560
-2.360E-06,-0.480
-2.350E-06,-0.560
-2.340E-06,-0.560
-2.330E-06,-0.480
-2.320E-06,-0.640
-2.310E-06,-0.640
-2.300E-06,-0.560
-2.290E-06,-0.720
-2.280E-06,-0.560
-2.270E-06,-0.720
-2.260E-06,-0.640
-2.250E-06,-0.640
-2.240E-06,-0.720
-2.230E-06,-0.640
-2.220E-06,-0.720
-2.210E-06,-0.800
-2.200E-06,-0.880
-2.190E-06,-0.880
-2.180E-06,-1.040
-2.170E-06,-1.040
-2.160E-06,-1.040
-2.150E-06,-1.040
-2.140E-06,-1.040
-2.130E-06,-1.040
-2.120E-06,-1.120
-2.110E-06,-1.120
-2.100E-06,-1.200
-2.090E-06,-1.360
-2.080E-06,-1.280
-2.070E-06,-1.360
-2.060E-06,-1.440
-2.050E-06,-1.520
-2.040E-06,-1.520
-2.030E-06,-1.680
-2.020E-06,-1.680
-2.010E-06,-1.680
-2.000E-06,-1.680
-1.990E-06,-1.840
-1.980E-06,-1.840
-1.970E-06,-1.760
-1.960E-06,-1.680
-1.950E-06,-1.760
-1.940E-06,-1.760
-1.930E-06,-1.760
-1.920E-06,-1.760
-1.910E-06,-1.840
-1.900E-06,-1.760
-1.890E-06,-1.680
-1.880E-06,-1.760
-1.870E-06,-1.680
-1.860E-06,-1.600
-1.850E-06,-1.520
-1.840E-06,-1.600
-1.830E-06,-1.440
-1.820E-06,-1.280
-1.810E-06,-1.280
-1.800E-06,-1.200
-1.790E-06,-1.200
-1.780E-06,-1.120
-1.770E-06,-1.120
-1.760E-06,-1.120
-1.750E-06,-1.120
-1.740E-06,-1.200
-1.730E-06,-1.040
-1.720E-06,-1.040
-1.710E-06,-1.040
-1.700E-06,-1.120
-1.690E-06,-1.120
-1.680E-06,-1.200
-1.670E-06,-1.200
-1.660E-06,-1.200
-1.650E-06,-1.120
-1.640E-06,-1.040
-1.630E-06,-1.120
-1.620E-06,-0.960
-1.610E-06,-1.120
-1.600E-06,-1.120
-1.590E-06,-1.200
-1.580E-06,-1.040
-1.570E-06,-1.040
-1.560E-06,-1.120
-1.550E-06,-1.120
-1.540E-06,-1.200
-1.530E-06,-1.120
-1.520E-06,-1.200
-1.510E-06,-1.040
-1.500E-06,-1.200
-1.490E-06,-0.960
-1.480E-06,-0.960
-1.470E-06,-0.960
-1.460E-06,-1.120
-1.450E-06,-1.200
-1.440E-06,-1.360
-1.430E-06,-1.600
-1.420E-06,-1.920
-1.410E-06,-1.920
-1.400E-06,-2.080
-1.390E-06,-2.080
-1.380E-06,-2.160
-1.370E-06,-2.240
-1.360E-06,-2.320
-1.350E-06,-2.240
-1.340E-06,-2.080
-1.330E-06,-2.000
-1.320E-06,-2.080
-1.310E-06,-1.840
-1.300E-06,-1.680
-1.290E-06,-1.680
-1.280E-06,-1.680
-1.270E-06,-1.680
-1.260E-06,-1.600
-1.250E-06,-1.600
-1.240E-06,-1.520
-1.230E-06,-1.520
-1.220E-06,-1.520
-1.210E-06,-1.520
-1.200E-06,-1.360
-1.190E-06,-1.200
-1.180E-06,-1.200
-1.170E-06,-1.200
-1.160E-06,-0.960
-1.150E-06,-1.040
-1.140E-06,-0.800
-1.130E-06,-0.640
-1.120E-06,-0.640
-1.110E-06,-0.480
-1.100E-06,-0.400
-1.090E-06,-0.480
-1.080E-06,-0.480
-1.070E-06,-0.240
-1.060E-06,-0.320
-1.050E-06,-0.320
-1.040E-06,-0.240
-1.030E-06,-0.400
-1.020E-06,-0.320
-1.010E-06,-0.480
-1.000E-06,-0.480
-9.900E-07,-0.480
-9.800E-07,-0.480
-9.700E-07,-0.640
-9.600E-07,-0.640
-9.500E-07,-0.720
-9.400E-07,-0.640
-9.300E-07,-0.800
-9.200E-07,-0.880
-9.100E-07,-0.880
-9.000E-07,-0.960
-8.900E-07,-0.880
-8.800E-07,-0.960
-8.700E-07,-0.960
-8.600E-07,-1.120
-8.500E-07,-1.120
-8.400E-07,-1.200
-8.300E-07,-1.200
-8.200E-07,-1.360
-8.100E-07,-1.280
-8.000E-07,-1.360
-7.900E-07,-1.600
-7.800E-07,-1.680
-7.700E-07,-1.760
-7.600E-07,-1.680
-7.500E-07,-1.760
-7.400E-07,-1.760
-7.300E-07,-1.920
-7.200E-07,-1.680
-7.100E-07,-1.920
-7.000E-07,-2.080
-6.900E-07,-2.320
-6.800E-07,-2.400
-6.700E-07,-2.800
-6.600E-07,-3.040
-6.500E-07,-3.360
-6.400E-07,-3.600
-6.300E-07,-4.000
-6.200E-07,-4.080
-6.100E-07,-4.240
-6.000E-07,-4.160
-5.900E-07,-3.920
-5.800E-07,-3.840
-5.700E-07,-3.520
-5.600E-07,-3.840
-5.500E-07,-4.000
-5.400E-07,-4.080
-5.300E-07,-4.000
-5.200E-07,-3.760
-5.100E-07,-3.680
-5.000E-07,-3.600
-4.900E-07,-3.520
-4.800E-07,-3.360
-4.700E-07,-3.360
-4.600E-07,-3.360
-4.500E-07,-3.200
-4.400E-07,-3.200
-4.300E-07,-3.040
-4.200E-07,-3.120
-4.100E-07,-3.040
-4.000E-07,-2.880
-3.900E-07,-2.800
-3.800E-07,-2.560
-3.700E-07,-2.480
-3.600E-07,-2.480
-3.500E-07,-2.080
-3.400E-07,-2.080
-3.300E-07,-2.000
-3.200E-07,-1.840
-3.100E-07,-1.680
-3.000E-07,-1.520
-2.900E-07,-1.520
-2.800E-07,-1.440
-2.700E-07,-1.360
-2.600E-07,-1.360
-2.500E-07,-1.520
-2.400E-07,-1.360
-2.300E-07,-1.360
-2.200E-07,-1.440
-2.100E-07,-1.360
-2.000E-07,-1.520
-1.900E-07,-1.600
-1.800E-07,-1.680
-1.700E-07,-1.600
-1.600E-07,-1.680
-1.500E-07,-1.920
-1.400E-07,-2.000
-1.300E-07,-2.080
-1.200E-07,-1.760
-1.100E-07,-2.080
-1.000E-07,-1.200
-9.000E-08,-1.600
-8.000E-08,-1.040
-7.000E-08,-1.040
-6.000E-08,-0.720
-5.000E-08,-0.160
-4.000E-08,-0.080
-3.000E-08,0.000
-2.000E-08,0.000
-1.000E-08,-0.720
0.000E+00,-1.200
1.000E-08,-1.520
2.000E-08,-2.080
3.000E-08,-2.080
4.000E-08,-2.240
5.000E-08,-2.480
6.000E-08,-2.480
7.000E-08,-2.320
8.000E-08,-2.400
9.000E-08,-2.560
1.000E-07,-2.640
1.100E-07,-2.720
1.200E-07,-2.800
1.300E-07,-2.880
1.400E-07,-3.120
1.500E-07,-3.280
1.600E-07,-3.440
1.700E-07,-3.520
1.800E-07,-3.520
1.900E-07,-3.520
2.000E-07,-3.360
2.100E-07,-3.360
2.200E-07,-3.200
2.300E-07,-3.200
2.400E-07,-2.800
2.500E-07,-2.960
2.600E-07,-2.800
2.700E-07,-2.880
2.800E-07,-2.880
2.900E-07,-2.960
3.000E-07,-3.040
3.100E-07,-2.880
3.200E-07,-2.880
3.300E-07,-3.200
3.400E-07,-3.280
3.500E-07,-3.520
3.600E-07,-3.520
3.700E-07,-3.440
3.800E-07,-3.520
3.900E-07,-3.280
4.000E-07,-3.200
4.100E-07,-3.040
4.200E-07,-2.800
4.300E-07,-2.640
4.400E-07,-2.480
4.500E-07,-2.400
4.600E-07,-2.400
4.700E-07,-2.160
4.800E-07,-2.080
4.900E-07,-2.080
5.000E-07,-2.080
5.100E-07,-1.920
5.200E-07,-1.760
5.300E-07,-1.680
5.400E-07,-1.680
5.500E-07,-1.760
5.600E-07,-1.760
5.700E-07,-1.600
5.800E-07,-1.600
5.900E-07,-1.440
6.000E-07,-1.360
6.100E-07,-1.360
6.200E-07,-1.360
6.300E-07,-1.280
6.400E-07,-1.360
6.500E-07,-1.520
6.600E-07,-1.520
6.700E-07,-1.680
6.800E-07,-1.760
6.900E-07,-1.680
7.000E-07,-2.080
7.100E-07,-2.480
7.200E-07,-2.800
7.300E-07,-3.200
7.400E-07,-3.120
7.500E-07,-2.880
7.600E-07,-3.120
7.700E-07,-3.360
7.800E-07,-4.320
7.900E-07,-4.800
8.000E-07,-5.280
8.100E-07,-5.520
8.200E-07,-5.680
8.300E-07,-6.240
8.400E-07,-6.400
8.500E-07,-6.640
8.600E-07,-6.640
8.700E-07,-6.800
8.800E-07,-7.040
8.900E-07,-7.520
9.000E-07,-7.760
9.100E-07,-7.920
9.200E-07,-8.080
9.300E-07,-8.160
9.400E-07,-8.320
9.500E-07,-8.400
9.600E-07,-8.080
9.700E-07,-8.000
9.800E-07,-7.760
9.900E-07,-7.600
1.000E-06,-7.520
1.010E-06,-7.600
1.020E-06,-7.440
1.030E-06,-7.280
1.040E-06,-7.040
1.050E-06,-6.720
1.060E-06,-6.400
1.070E-06,-6.080
1.080E-06,-5.840
1.090E-06,-5.520
1.100E-06,-5.360
1.110E-06,-5.120
1.120E-06,-4.800
1.130E-06,-4.640
1.140E-06,-4.400
1.150E-06,-4.160
1.160E-06,-3.760
1.170E-06,-3.520
1.180E-06,-3.440
1.190E-06,-3.120
1.200E-06,-3.040
1.210E-06,-2.880
1.220E-06,-2.720
1.230E-06,-2.640
1.240E-06,-2.480
1.250E-06,-2.160
1.260E-06,-1.920
1.270E-06,-1.680
1.280E-06,-1.440
1.290E-06,-1.200
1.300E-06,-0.880
1.310E-06,-0.640
1.320E-06,-0.640
1.330E-06,-0.400
1.340E-06,-0.240
1.350E-06,-0.080
1.360E-06,0.000
1.370E-06,0.000
1.380E-06,0.000
1.390E-06,0.080
1.400E-06,0.080
1.410E-06,0.000
1.420E-06,0.160
1.430E-06,0.080
1.440E-06,0.080
1.450E-06,0.000
1.460E-06,0.000
1.470E-06,0.080
1.480E-06,0.080
1.490E-06,-0.080
1.500E-06,0.000
1.510E-06,0.000
1.520E-06,0.000
1.530E-06,0.000
1.540E-06,-0.160
1.550E-06,-0.160
1.560E-06,-0.320
1.570E-06,-0.400
1.580E-06,-0.320
1.590E-06,-0.480
1.600E-06,-0.480
1.610E-06,-0.320
1.620E-06,-0.320
1.630E-06,-0.320
1.640E-06,-0.320
1.650E-06,-0.320
1.660E-06,-0.400
1.670E-06,-0.400
1.680E-06,-0.400
1.690E-06,-0.480
1.700E-06,-0.560
1.710E-06,-0.640
1.720E-06,-0.720
1.730E-06,-0.880
1.740E-06,-1.040
1.750E-06,-1.280
1.760E-06,-1.360
1.770E-06,-1.440
1.780E-06,-1.360
1.790E-06,-1.440
1.800E-06,-1.280
1.810E-06,-1.200
1.820E-06,-1.200
1.830E-06,-1.200
1.840E-06,-1.120
1.850E-06,-1.040
1.860E-06,-0.960
1.870E-06,-0.800
1.880E-06,-0.640
1.890E-06,-0.640
1.900E-06,-0.560
1.910E-06,-0.480
1.920E-06,-0.480
1.930E-06,-0.160
1.940E-06,-0.240
1.950E-06,-0.080
1.960E-06,-0.080
1.970E-06,-0.160
1.980E-06,-0.160
1.990E-06,0.080
2.000E-06,0.080
2.010E-06,0.160
2.020E-06,0.000
2.030E-06,0.160
2.040E-06,0.240
2.050E-06,0.240
2.060E-06,0.320
2.070E-06,0.240
2.080E-06,0.320
2.090E-06,0.400
2.100E-06,0.400
2.110E-06,0.320
2.120E-06,0.400
2.130E-06,0.160
2.140E-06,0.240
2.150E-06,0.320
2.160E-06,0.160
2.170E-06,0.160
2.180E-06,0.240
2.190E-06,0.320
2.200E-06,0.400
2.210E-06,0.320
2.220E-06,0.320
2.230E-06,0.400
2.240E-06,0.400
2.250E-06,0.320
2.260E-06,0.400
2.270E-06,0.160
2.280E-06,0.240
2.290E-06,0.080
2.300E-06,0.080
2.310E-06,0.080
2.320E-06,0.000
2.330E-06,0.080
2.340E-06,0.080
2.350E-06,-0.080
2.360E-06,-0.080
2.370E-06,-0.080
2.380E-06,0.000
2.390E-06,0.000
2.400E-06,0.080
2.410E-06,0.080
2.420E-06,-0.080
2.430E-06,0.080
2.440E-06,0.080
2.450E-06,0.080
2.460E-06,0.080
2.470E-06,0.080
2.480E-06,0.160
2.490E-06,0.240
2.500E-06,0.240
2.510E-06,0.240
2.520E-06,0.400
2.530E-06,0.400
2.540E-06,0.320
2.550E-06,0.320
2.560E-06,0.240
2.570E-06,0.400
2.580E-06,0.560
2.590E-06,0.640
2.600E-06,0.560
2.610E-06,0.720
2.620E-06,0.640
2.630E-06,0.800
2.640E-06,0.800
2.650E-06,0.880
2.660E-06,0.880
2.670E-06,0.960
2.680E-06,0.960
2.690E-06,0.960
2.700E-06,0.880
2.710E-06,0.720
2.720E-06,0.720
2.730E-06,0.800
2.740E-06,0.720
2.750E-06,0.640
2.760E-06,0.640
2.770E-06,0.560
2.780E-06,0.720
2.790E-06,0.640
2.800E-06,0.640
2.810E-06,0.640
2.820E-06,0.640
2.830E-06,0.720
2.840E-06,0.640
2.850E-06,0.560
2.860E-06,0.720
2.870E-06,0.720
2.880E-06,0.560
2.890E-06,0.640
2.900E-06,0.640
2.910E-06,0.640
2.920E-06,0.640
2.930E-06,0.640
2.940E-06,0.720
2.950E-06,0.640
2.960E-06,0.720
2.970E-06,0.800
2.980E-06,0.880
2.990E-06,0.880
3.000E-06,0.960
3.010E-06,0.960
3.020E-06,1.040
3.030E-06,1.040
3.040E-06,1.040
3.050E-06,1.040
3.060E-06,1.120
3.070E-06,1.200
3.080E-06,1.040
3.090E-06,1.040
3.100E-06,1.120
3.110E-06,1.040
3.120E-06,1.040
3.130E-06,0.960
3.140E-06,0.960
3.150E-06,0.880
3.160E-06,0.800
3.170E-06,0.800
3.180E-06,0.800
3.190E-06,0.880
