mediciones/5-15/32.5/WaveData4770.csv

#timebase=2000000(ps)
,#voltbase=100000(mv/100)
#size=4000
-8.400E-06,0.008
-8.390E-06,0.012
-8.380E-06,0.012
-8.370E-06,0.012
-8.360E-06,0.008
-8.350E-06,0.008
-8.340E-06,0.012
-8.330E-06,0.012
-8.320E-06,0.012
-8.310E-06,0.008
-8.300E-06,0.008
-8.290E-06,0.000
-8.280E-06,-0.012
-8.270E-06,-0.012
-8.260E-06,-0.004
-8.250E-06,0.016
-8.240E-06,0.032
-8.230E-06,0.028
-8.220E-06,0.016
-8.210E-06,0.004
-8.200E-06,-0.016
-8.190E-06,0.000
-8.180E-06,-0.004
-8.170E-06,0.008
-8.160E-06,0.020
-8.150E-06,0.024
-8.140E-06,0.012
-8.130E-06,-0.012
-8.120E-06,-0.008
-8.110E-06,-0.004
-8.100E-06,0.020
-8.090E-06,0.032
-8.080E-06,0.032
-8.070E-06,0.004
-8.060E-06,-0.036
-8.050E-06,-0.044
-8.040E-06,-0.056
-8.030E-06,-0.036
-8.020E-06,0.016
-8.010E-06,0.060
-8.000E-06,0.056
-7.990E-06,0.012
-7.980E-06,-0.040
-7.970E-06,-0.072
-7.960E-06,-0.052
-7.950E-06,0.000
-7.940E-06,0.060
-7.930E-06,0.056
-7.920E-06,0.036
-7.910E-06,-0.004
-7.900E-06,-0.036
-7.890E-06,-0.044
-7.880E-06,-0.028
-7.870E-06,0.008
-7.860E-06,0.036
-7.850E-06,0.036
-7.840E-06,0.024
-7.830E-06,-0.004
-7.820E-06,-0.016
-7.810E-06,-0.020
-7.800E-06,-0.008
-7.790E-06,0.000
-7.780E-06,0.020
-7.770E-06,0.028
-7.760E-06,0.012
-7.750E-06,-0.008
-7.740E-06,-0.032
-7.730E-06,-0.024
-7.720E-06,-0.004
-7.710E-06,0.024
-7.700E-06,0.028
-7.690E-06,0.016
-7.680E-06,0.012
-7.670E-06,-0.004
-7.660E-06,-0.008
-7.650E-06,-0.004
-7.640E-06,-0.004
-7.630E-06,0.008
-7.620E-06,0.012
-7.610E-06,0.012
-7.600E-06,0.012
-7.590E-06,0.000
-7.580E-06,-0.004
-7.570E-06,-0.008
-7.560E-06,-0.004
-7.550E-06,0.004
-7.540E-06,0.012
-7.530E-06,0.024
-7.520E-06,0.020
-7.510E-06,0.012
-7.500E-06,0.004
-7.490E-06,0.000
-7.480E-06,0.000
-7.470E-06,0.016
-7.460E-06,0.012
-7.450E-06,0.004
-7.440E-06,-0.012
-7.430E-06,-0.008
-7.420E-06,0.008
-7.410E-06,0.028
-7.400E-06,0.044
-7.390E-06,0.024
-7.380E-06,-0.004
-7.370E-06,-0.024
-7.360E-06,-0.024
-7.350E-06,0.000
-7.340E-06,0.032
-7.330E-06,0.036
-7.320E-06,0.044
-7.310E-06,0.016
-7.300E-06,-0.008
-7.290E-06,-0.028
-7.280E-06,-0.032
-7.270E-06,-0.012
-7.260E-06,0.012
-7.250E-06,0.020
-7.240E-06,0.016
-7.230E-06,0.012
-7.220E-06,-0.004
-7.210E-06,-0.024
-7.200E-06,-0.032
-7.190E-06,-0.008
-7.180E-06,0.004
-7.170E-06,0.028
-7.160E-06,0.048
-7.150E-06,0.016
-7.140E-06,-0.008
-7.130E-06,-0.028
-7.120E-06,-0.040
-7.110E-06,-0.016
-7.100E-06,0.012
-7.090E-06,0.036
-7.080E-06,0.032
-7.070E-06,0.008
-7.060E-06,-0.012
-7.050E-06,-0.036
-7.040E-06,-0.028
-7.030E-06,0.000
-7.020E-06,0.016
-7.010E-06,0.028
-7.000E-06,0.028
-6.990E-06,0.012
-6.980E-06,-0.008
-6.970E-06,-0.016
-6.960E-06,-0.016
-6.950E-06,0.004
-6.940E-06,0.020
-6.930E-06,0.020
-6.920E-06,0.024
-6.910E-06,0.008
-6.900E-06,-0.008
-6.890E-06,-0.016
-6.880E-06,-0.020
-6.870E-06,-0.008
-6.860E-06,0.004
-6.850E-06,0.012
-6.840E-06,0.024
-6.830E-06,0.020
-6.820E-06,0.004
-6.810E-06,-0.012
-6.800E-06,-0.020
-6.790E-06,-0.020
-6.780E-06,0.004
-6.770E-06,0.028
-6.760E-06,0.036
-6.750E-06,0.020
-6.740E-06,0.004
-6.730E-06,-0.012
-6.720E-06,-0.020
-6.710E-06,-0.008
-6.700E-06,0.008
-6.690E-06,0.024
-6.680E-06,0.024
-6.670E-06,0.016
-6.660E-06,0.004
-6.650E-06,-0.004
-6.640E-06,-0.008
-6.630E-06,-0.008
-6.620E-06,0.008
-6.610E-06,0.016
-6.600E-06,0.016
-6.590E-06,0.016
-6.580E-06,0.012
-6.570E-06,0.008
-6.560E-06,0.000
-6.550E-06,0.000
-6.540E-06,0.000
-6.530E-06,0.012
-6.520E-06,0.020
-6.510E-06,0.036
-6.500E-06,0.032
-6.490E-06,0.016
-6.480E-06,-0.008
-6.470E-06,-0.032
-6.460E-06,-0.036
-6.450E-06,-0.016
-6.440E-06,0.020
-6.430E-06,0.036
-6.420E-06,0.036
-6.410E-06,0.024
-6.400E-06,0.000
-6.390E-06,-0.024
-6.380E-06,-0.032
-6.370E-06,-0.012
-6.360E-06,0.004
-6.350E-06,0.028
-6.340E-06,0.032
-6.330E-06,0.028
-6.320E-06,0.008
-6.310E-06,-0.004
-6.300E-06,-0.004
-6.290E-06,0.000
-6.280E-06,0.004
-6.270E-06,0.016
-6.260E-06,0.020
-6.250E-06,0.012
-6.240E-06,0.008
-6.230E-06,0.004
-6.220E-06,0.000
-6.210E-06,0.008
-6.200E-06,0.020
-6.190E-06,0.028
-6.180E-06,0.024
-6.170E-06,0.020
-6.160E-06,0.012
-6.150E-06,0.008
-6.140E-06,0.012
-6.130E-06,0.024
-6.120E-06,0.028
-6.110E-06,0.016
-6.100E-06,-0.004
-6.090E-06,-0.084
-6.080E-06,-0.092
-6.070E-06,-0.076
-6.060E-06,-0.016
-6.050E-06,0.040
-6.040E-06,0.092
-6.030E-06,0.076
-6.020E-06,-0.008
-6.010E-06,-0.076
-6.000E-06,-0.096
-5.990E-06,-0.052
-5.980E-06,0.020
-5.970E-06,0.072
-5.960E-06,0.084
-5.950E-06,0.036
-5.940E-06,-0.016
-5.930E-06,-0.060
-5.920E-06,-0.052
-5.910E-06,-0.008
-5.900E-06,0.024
-5.890E-06,0.040
-5.880E-06,0.044
-5.870E-06,0.020
-5.860E-06,-0.004
-5.850E-06,-0.028
-5.840E-06,-0.044
-5.830E-06,-0.032
-5.820E-06,0.000
-5.810E-06,0.024
-5.800E-06,0.028
-5.790E-06,0.028
-5.780E-06,0.000
-5.770E-06,-0.008
-5.760E-06,-0.024
-5.750E-06,-0.004
-5.740E-06,0.000
-5.730E-06,0.012
-5.720E-06,0.028
-5.710E-06,0.012
-5.700E-06,0.008
-5.690E-06,-0.008
-5.680E-06,-0.008
-5.670E-06,-0.004
-5.660E-06,0.004
-5.650E-06,0.004
-5.640E-06,0.004
-5.630E-06,0.008
-5.620E-06,0.008
-5.610E-06,0.004
-5.600E-06,0.000
-5.590E-06,0.000
-5.580E-06,0.000
-5.570E-06,0.008
-5.560E-06,0.016
-5.550E-06,0.008
-5.540E-06,0.012
-5.530E-06,0.016
-5.520E-06,0.004
-5.510E-06,0.000
-5.500E-06,-0.004
-5.490E-06,-0.008
-5.480E-06,-0.004
-5.470E-06,0.008
-5.460E-06,0.012
-5.450E-06,0.004
-5.440E-06,0.008
-5.430E-06,0.008
-5.420E-06,0.012
-5.410E-06,0.012
-5.400E-06,0.008
-5.390E-06,0.000
-5.380E-06,-0.004
-5.370E-06,0.000
-5.360E-06,0.004
-5.350E-06,0.012
-5.340E-06,0.012
-5.330E-06,0.012
-5.320E-06,0.004
-5.310E-06,-0.004
-5.300E-06,-0.004
-5.290E-06,-0.004
-5.280E-06,0.008
-5.270E-06,0.008
-5.260E-06,0.016
-5.250E-06,0.012
-5.240E-06,0.008
-5.230E-06,0.004
-5.220E-06,0.000
-5.210E-06,0.004
-5.200E-06,0.004
-5.190E-06,0.012
-5.180E-06,0.012
-5.170E-06,0.012
-5.160E-06,0.004
-5.150E-06,0.008
-5.140E-06,0.000
-5.130E-06,0.000
-5.120E-06,-0.004
-5.110E-06,0.004
-5.100E-06,0.016
-5.090E-06,0.020
-5.080E-06,0.024
-5.070E-06,0.020
-5.060E-06,0.020
-5.050E-06,0.008
-5.040E-06,0.008
-5.030E-06,0.004
-5.020E-06,0.004
-5.010E-06,0.028
-5.000E-06,0.056
-4.990E-06,0.024
-4.980E-06,-0.028
-4.970E-06,-0.080
-4.960E-06,-0.100
-4.950E-06,-0.068
-4.940E-06,0.012
-4.930E-06,0.092
-4.920E-06,0.104
-4.910E-06,0.060
-4.900E-06,-0.028
-4.890E-06,-0.108
-4.880E-06,-0.128
-4.870E-06,-0.068
-4.860E-06,0.008
-4.850E-06,0.092
-4.840E-06,0.092
-4.830E-06,0.048
-4.820E-06,-0.020
-4.810E-06,-0.068
-4.800E-06,-0.080
-4.790E-06,-0.040
-4.780E-06,0.020
-4.770E-06,0.056
-4.760E-06,0.064
-4.750E-06,0.044
-4.740E-06,0.000
-4.730E-06,-0.040
-4.720E-06,-0.048
-4.710E-06,-0.036
-4.700E-06,0.004
-4.690E-06,0.028
-4.680E-06,0.048
-4.670E-06,0.044
-4.660E-06,0.012
-4.650E-06,-0.012
-4.640E-06,-0.040
-4.630E-06,-0.036
-4.620E-06,-0.008
-4.610E-06,0.016
-4.600E-06,0.036
-4.590E-06,0.036
-4.580E-06,0.016
-4.570E-06,0.000
-4.560E-06,-0.024
-4.550E-06,-0.024
-4.540E-06,-0.008
-4.530E-06,0.016
-4.520E-06,0.040
-4.510E-06,0.028
-4.500E-06,0.024
-4.490E-06,0.000
-4.480E-06,-0.016
-4.470E-06,-0.020
-4.460E-06,0.000
-4.450E-06,0.024
-4.440E-06,0.040
-4.430E-06,0.044
-4.420E-06,0.036
-4.410E-06,0.004
-4.400E-06,-0.016
-4.390E-06,-0.024
-4.380E-06,-0.016
-4.370E-06,0.008
-4.360E-06,0.032
-4.350E-06,0.040
-4.340E-06,0.032
-4.330E-06,0.008
-4.320E-06,-0.008
-4.310E-06,-0.012
-4.300E-06,0.000
-4.290E-06,0.020
-4.280E-06,0.040
-4.270E-06,0.044
-4.260E-06,0.032
-4.250E-06,0.024
-4.240E-06,0.000
-4.230E-06,-0.016
-4.220E-06,-0.024
-4.210E-06,-0.008
-4.200E-06,0.024
-4.190E-06,0.056
-4.180E-06,0.068
-4.170E-06,0.044
-4.160E-06,0.012
-4.150E-06,-0.024
-4.140E-06,-0.028
-4.130E-06,-0.004
-4.120E-06,0.020
-4.110E-06,0.048
-4.100E-06,0.060
-4.090E-06,0.056
-4.080E-06,0.028
-4.070E-06,0.000
-4.060E-06,-0.012
-4.050E-06,-0.028
-4.040E-06,-0.016
-4.030E-06,0.000
-4.020E-06,0.036
-4.010E-06,0.056
-4.000E-06,0.060
-3.990E-06,0.044
-3.980E-06,0.008
-3.970E-06,-0.012
-3.960E-06,-0.016
-3.950E-06,0.004
-3.940E-06,0.036
-3.930E-06,0.068
-3.920E-06,0.076
-3.910E-06,0.060
-3.900E-06,0.044
-3.890E-06,0.032
-3.880E-06,0.056
-3.870E-06,0.104
-3.860E-06,0.124
-3.850E-06,0.140
-3.840E-06,0.108
-3.830E-06,0.076
-3.820E-06,0.044
-3.810E-06,0.044
-3.800E-06,0.016
-3.790E-06,-0.036
-3.780E-06,-0.056
-3.770E-06,-0.252
-3.760E-06,-0.332
-3.750E-06,-0.368
-3.740E-06,-0.172
-3.730E-06,0.048
-3.720E-06,0.152
-3.710E-06,0.208
-3.700E-06,0.080
-3.690E-06,-0.128
-3.680E-06,-0.256
-3.670E-06,-0.204
-3.660E-06,0.004
-3.650E-06,0.204
-3.640E-06,0.252
-3.630E-06,0.160
-3.620E-06,-0.024
-3.610E-06,-0.168
-3.600E-06,-0.200
-3.590E-06,-0.124
-3.580E-06,0.000
-3.570E-06,0.096
-3.560E-06,0.124
-3.550E-06,0.072
-3.540E-06,-0.004
-3.530E-06,-0.072
-3.520E-06,-0.060
-3.510E-06,0.012
-3.500E-06,0.096
-3.490E-06,0.120
-3.480E-06,0.084
-3.470E-06,0.012
-3.460E-06,-0.044
-3.450E-06,-0.040
-3.440E-06,-0.004
-3.430E-06,0.064
-3.420E-06,0.076
-3.410E-06,0.072
-3.400E-06,0.056
-3.390E-06,0.032
-3.380E-06,-0.024
-3.370E-06,-0.076
-3.360E-06,-0.088
-3.350E-06,-0.052
-3.340E-06,-0.004
-3.330E-06,0.032
-3.320E-06,0.060
-3.310E-06,0.028
-3.300E-06,0.016
-3.290E-06,0.000
-3.280E-06,0.012
-3.270E-06,0.032
-3.260E-06,0.064
-3.250E-06,0.104
-3.240E-06,0.120
-3.230E-06,0.144
-3.220E-06,0.104
-3.210E-06,0.056
-3.200E-06,0.016
-3.190E-06,0.012
-3.180E-06,-0.108
-3.170E-06,-0.164
-3.160E-06,-0.204
-3.150E-06,-0.216
-3.140E-06,-0.164
-3.130E-06,0.040
-3.120E-06,0.204
-3.110E-06,0.200
-3.100E-06,0.068
-3.090E-06,-0.084
-3.080E-06,-0.184
-3.070E-06,-0.136
-3.060E-06,-0.008
-3.050E-06,0.076
-3.040E-06,0.128
-3.030E-06,0.088
-3.020E-06,0.008
-3.010E-06,-0.056
-3.000E-06,-0.080
-2.990E-06,-0.084
-2.980E-06,-0.068
-2.970E-06,-0.012
-2.960E-06,0.020
-2.950E-06,0.060
-2.940E-06,0.036
-2.930E-06,-0.012
-2.920E-06,-0.068
-2.910E-06,-0.072
-2.900E-06,-0.060
-2.890E-06,0.004
-2.880E-06,0.056
-2.870E-06,0.080
-2.860E-06,0.076
-2.850E-06,0.040
-2.840E-06,0.012
-2.830E-06,-0.020
-2.820E-06,0.000
-2.810E-06,0.020
-2.800E-06,0.056
-2.790E-06,0.092
-2.780E-06,0.092
-2.770E-06,0.064
-2.760E-06,0.048
-2.750E-06,0.032
-2.740E-06,0.052
-2.730E-06,0.092
-2.720E-06,0.112
-2.710E-06,0.128
-2.700E-06,0.132
-2.690E-06,0.120
-2.680E-06,0.108
-2.670E-06,0.100
-2.660E-06,0.096
-2.650E-06,0.072
-2.640E-06,0.064
-2.630E-06,0.056
-2.620E-06,0.068
-2.610E-06,0.076
-2.600E-06,0.096
-2.590E-06,0.084
-2.580E-06,0.032
-2.570E-06,-0.032
-2.560E-06,-0.052
-2.550E-06,-0.040
-2.540E-06,-0.008
-2.530E-06,0.012
-2.520E-06,-0.012
-2.510E-06,0.000
-2.500E-06,0.000
-2.490E-06,0.020
-2.480E-06,0.024
-2.470E-06,0.040
-2.460E-06,0.060
-2.450E-06,-0.056
-2.440E-06,-0.120
-2.430E-06,-0.344
-2.420E-06,-0.512
-2.410E-06,-0.512
-2.400E-06,-0.056
-2.390E-06,0.300
-2.380E-06,0.328
-2.370E-06,0.152
-2.360E-06,-0.188
-2.350E-06,-0.448
-2.340E-06,-0.384
-2.330E-06,0.020
-2.320E-06,0.204
-2.310E-06,0.272
-2.300E-06,0.124
-2.290E-06,0.028
-2.280E-06,-0.036
-2.270E-06,-0.060
-2.260E-06,-0.040
-2.250E-06,0.012
-2.240E-06,0.084
-2.230E-06,0.072
-2.220E-06,0.100
-2.210E-06,0.060
-2.200E-06,0.092
-2.190E-06,-0.004
-2.180E-06,-0.032
-2.170E-06,-0.056
-2.160E-06,0.000
-2.150E-06,0.048
-2.140E-06,0.064
-2.130E-06,0.032
-2.120E-06,0.024
-2.110E-06,0.060
-2.100E-06,0.072
-2.090E-06,0.100
-2.080E-06,0.036
-2.070E-06,0.008
-2.060E-06,-0.016
-2.050E-06,0.040
-2.040E-06,0.060
-2.030E-06,0.092
-2.020E-06,0.092
-2.010E-06,0.092
-2.000E-06,0.080
-1.990E-06,0.052
-1.980E-06,0.024
-1.970E-06,-0.004
-1.960E-06,0.064
-1.950E-06,0.144
-1.940E-06,0.220
-1.930E-06,0.260
-1.920E-06,0.232
-1.910E-06,0.152
-1.900E-06,0.064
-1.890E-06,0.024
-1.880E-06,-0.004
-1.870E-06,0.036
-1.860E-06,0.068
-1.850E-06,0.088
-1.840E-06,0.044
-1.830E-06,0.044
-1.820E-06,0.004
-1.810E-06,0.012
-1.800E-06,0.128
-1.790E-06,0.128
-1.780E-06,-0.212
-1.770E-06,-0.512
-1.760E-06,-0.508
-1.750E-06,-0.512
-1.740E-06,-0.504
-1.730E-06,-0.420
-1.720E-06,0.072
-1.710E-06,0.380
-1.700E-06,0.296
-1.690E-06,0.000
-1.680E-06,-0.288
-1.670E-06,-0.492
-1.660E-06,-0.448
-1.650E-06,0.108
-1.640E-06,0.520
-1.630E-06,0.540
-1.620E-06,0.152
-1.610E-06,-0.200
-1.600E-06,-0.400
-1.590E-06,-0.316
-1.580E-06,-0.008
-1.570E-06,0.284
-1.560E-06,0.444
-1.550E-06,0.352
-1.540E-06,0.136
-1.530E-06,-0.168
-1.520E-06,-0.256
-1.510E-06,-0.232
-1.500E-06,-0.016
-1.490E-06,0.204
-1.480E-06,0.308
-1.470E-06,0.240
-1.460E-06,0.060
-1.450E-06,-0.132
-1.440E-06,-0.264
-1.430E-06,-0.188
-1.420E-06,-0.036
-1.410E-06,0.176
-1.400E-06,0.244
-1.390E-06,0.196
-1.380E-06,0.016
-1.370E-06,-0.132
-1.360E-06,-0.184
-1.350E-06,-0.108
-1.340E-06,0.052
-1.330E-06,0.192
-1.320E-06,0.272
-1.310E-06,0.204
-1.300E-06,0.060
-1.290E-06,-0.120
-1.280E-06,-0.212
-1.270E-06,-0.160
-1.260E-06,-0.004
-1.250E-06,0.140
-1.240E-06,0.208
-1.230E-06,0.184
-1.220E-06,0.092
-1.210E-06,-0.040
-1.200E-06,-0.080
-1.190E-06,-0.036
-1.180E-06,0.084
-1.170E-06,0.216
-1.160E-06,0.296
-1.150E-06,0.316
-1.140E-06,0.248
-1.130E-06,0.144
-1.120E-06,0.088
-1.110E-06,0.088
-1.100E-06,0.156
-1.090E-06,0.256
-1.080E-06,0.320
-1.070E-06,0.324
-1.060E-06,0.252
-1.050E-06,0.176
-1.040E-06,0.052
-1.030E-06,0.012
-1.020E-06,0.104
-1.010E-06,0.124
-1.000E-06,0.060
-9.900E-07,-0.256
-9.800E-07,-0.508
-9.700E-07,-0.508
-9.600E-07,-0.348
-9.500E-07,-0.076
-9.400E-07,0.288
-9.300E-07,0.200
-9.200E-07,-0.336
-9.100E-07,-0.512
-9.000E-07,-0.508
-8.900E-07,-0.508
-8.800E-07,-0.436
-8.700E-07,0.144
-8.600E-07,0.540
-8.500E-07,0.420
-8.400E-07,0.160
-8.300E-07,-0.320
-8.200E-07,-0.484
-8.100E-07,-0.344
-8.000E-07,-0.040
-7.900E-07,0.176
-7.800E-07,0.228
-7.700E-07,0.176
-7.600E-07,0.056
-7.500E-07,0.024
-7.400E-07,-0.076
-7.300E-07,-0.052
-7.200E-07,-0.084
-7.100E-07,0.020
-7.000E-07,0.084
-6.900E-07,0.140
-6.800E-07,0.096
-6.700E-07,0.072
-6.600E-07,0.040
-6.500E-07,0.000
-6.400E-07,0.004
-6.300E-07,-0.032
-6.200E-07,0.000
-6.100E-07,-0.004
-6.000E-07,0.056
-5.900E-07,0.052
-5.800E-07,0.056
-5.700E-07,0.000
-5.600E-07,-0.036
-5.500E-07,-0.060
-5.400E-07,-0.040
-5.300E-07,0.024
-5.200E-07,0.048
-5.100E-07,0.096
-5.000E-07,0.060
-4.900E-07,0.068
-4.800E-07,-0.004
-4.700E-07,-0.016
-4.600E-07,-0.028
-4.500E-07,-0.004
-4.400E-07,0.044
-4.300E-07,0.108
-4.200E-07,0.180
-4.100E-07,0.160
-4.000E-07,0.152
-3.900E-07,0.104
-3.800E-07,0.080
-3.700E-07,0.072
-3.600E-07,0.132
-3.500E-07,0.196
-3.400E-07,0.256
-3.300E-07,0.272
-3.200E-07,0.232
-3.100E-07,0.180
-3.000E-07,0.128
-2.900E-07,0.140
-2.800E-07,0.164
-2.700E-07,0.236
-2.600E-07,0.268
-2.500E-07,0.296
-2.400E-07,0.264
-2.300E-07,0.224
-2.200E-07,0.180
-2.100E-07,0.160
-2.000E-07,0.180
-1.900E-07,0.204
-1.800E-07,0.248
-1.700E-07,0.240
-1.600E-07,0.204
-1.500E-07,0.056
-1.400E-07,-0.208
-1.300E-07,-0.508
-1.200E-07,-0.512
-1.100E-07,-0.468
-1.000E-07,-0.216
-9.000E-08,0.152
-8.000E-08,0.340
-7.000E-08,0.152
-6.000E-08,-0.356
-5.000E-08,-0.512
-4.000E-08,-0.512
-3.000E-08,-0.512
-2.000E-08,-0.512
-1.000E-08,0.128
0.000E+00,0.540
1.000E-08,0.540
2.000E-08,0.228
3.000E-08,-0.424
4.000E-08,-0.512
5.000E-08,-0.512
6.000E-08,-0.340
7.000E-08,0.096
8.000E-08,0.360
9.000E-08,0.484
1.000E-07,0.320
1.100E-07,0.104
1.200E-07,-0.220
1.300E-07,-0.340
1.400E-07,-0.312
1.500E-07,-0.024
1.600E-07,0.228
1.700E-07,0.388
1.800E-07,0.388
1.900E-07,0.224
2.000E-07,0.024
2.100E-07,-0.132
2.200E-07,-0.156
2.300E-07,-0.084
2.400E-07,0.104
2.500E-07,0.232
2.600E-07,0.308
2.700E-07,0.240
2.800E-07,0.112
2.900E-07,-0.048
3.000E-07,-0.108
3.100E-07,-0.092
3.200E-07,0.004
3.300E-07,0.148
3.400E-07,0.212
3.500E-07,0.224
3.600E-07,0.152
3.700E-07,0.028
3.800E-07,-0.056
3.900E-07,-0.072
4.000E-07,-0.036
4.100E-07,0.076
4.200E-07,0.168
4.300E-07,0.204
4.400E-07,0.204
4.500E-07,0.116
4.600E-07,0.068
4.700E-07,0.044
4.800E-07,0.076
4.900E-07,0.152
5.000E-07,0.260
5.100E-07,0.320
5.200E-07,0.332
5.300E-07,0.276
5.400E-07,0.200
5.500E-07,0.148
5.600E-07,0.136
5.700E-07,0.176
5.800E-07,0.232
5.900E-07,0.284
6.000E-07,0.304
6.100E-07,0.284
6.200E-07,0.236
6.300E-07,0.192
6.400E-07,0.160
6.500E-07,0.136
6.600E-07,0.148
6.700E-07,0.192
6.800E-07,0.260
6.900E-07,0.264
7.000E-07,0.204
7.100E-07,0.088
7.200E-07,-0.056
7.300E-07,-0.192
7.400E-07,-0.320
7.500E-07,-0.368
7.600E-07,-0.328
7.700E-07,-0.248
7.800E-07,-0.084
7.900E-07,0.084
8.000E-07,0.168
8.100E-07,0.076
8.200E-07,-0.196
8.300E-07,-0.336
8.400E-07,-0.256
8.500E-07,-0.044
8.600E-07,0.224
8.700E-07,0.344
8.800E-07,0.340
8.900E-07,0.112
9.000E-07,-0.224
9.100E-07,-0.460
9.200E-07,-0.484
9.300E-07,-0.388
9.400E-07,-0.228
9.500E-07,-0.028
9.600E-07,0.024
9.700E-07,-0.088
9.800E-07,-0.208
9.900E-07,-0.168
1.000E-06,-0.116
1.010E-06,-0.032
1.020E-06,0.064
1.030E-06,0.160
1.040E-06,0.156
1.050E-06,0.100
1.060E-06,0.028
1.070E-06,0.012
1.080E-06,0.044
1.090E-06,0.108
1.100E-06,0.204
1.110E-06,0.256
1.120E-06,0.284
1.130E-06,0.248
1.140E-06,0.208
1.150E-06,0.164
1.160E-06,0.172
1.170E-06,0.208
1.180E-06,0.284
1.190E-06,0.320
1.200E-06,0.312
1.210E-06,0.280
1.220E-06,0.224
1.230E-06,0.200
1.240E-06,0.192
1.250E-06,0.212
1.260E-06,0.248
1.270E-06,0.284
1.280E-06,0.288
1.290E-06,0.284
1.300E-06,0.256
1.310E-06,0.224
1.320E-06,0.212
1.330E-06,0.216
1.340E-06,0.244
1.350E-06,0.272
1.360E-06,0.280
1.370E-06,0.268
1.380E-06,0.244
1.390E-06,0.208
1.400E-06,0.180
1.410E-06,0.172
1.420E-06,0.192
1.430E-06,0.236
1.440E-06,0.264
1.450E-06,0.276
1.460E-06,0.252
1.470E-06,0.212
1.480E-06,0.164
1.490E-06,0.160
1.500E-06,0.180
1.510E-06,0.224
1.520E-06,0.256
1.530E-06,0.260
1.540E-06,0.228
1.550E-06,0.180
1.560E-06,0.144
1.570E-06,0.120
1.580E-06,0.128
1.590E-06,0.160
1.600E-06,0.180
1.610E-06,0.192
1.620E-06,0.200
1.630E-06,0.176
1.640E-06,0.160
1.650E-06,0.156
1.660E-06,0.152
1.670E-06,0.156
1.680E-06,0.164
1.690E-06,0.188
1.700E-06,0.212
1.710E-06,0.224
1.720E-06,0.220
1.730E-06,0.192
1.740E-06,0.176
1.750E-06,0.168
1.760E-06,0.192
1.770E-06,0.224
1.780E-06,0.260
1.790E-06,0.272
1.800E-06,0.264
1.810E-06,0.240
1.820E-06,0.208
1.830E-06,0.200
1.840E-06,0.200
1.850E-06,0.228
1.860E-06,0.252
1.870E-06,0.268
1.880E-06,0.264
1.890E-06,0.252
1.900E-06,0.224
1.910E-06,0.208
1.920E-06,0.208
1.930E-06,0.224
1.940E-06,0.240
1.950E-06,0.256
1.960E-06,0.260
1.970E-06,0.252
1.980E-06,0.232
1.990E-06,0.216
2.000E-06,0.208
2.010E-06,0.216
2.020E-06,0.224
2.030E-06,0.240
2.040E-06,0.244
2.050E-06,0.240
2.060E-06,0.228
2.070E-06,0.220
2.080E-06,0.208
2.090E-06,0.204
2.100E-06,0.212
2.110E-06,0.220
2.120E-06,0.228
2.130E-06,0.228
2.140E-06,0.224
2.150E-06,0.216
2.160E-06,0.208
2.170E-06,0.204
2.180E-06,0.204
2.190E-06,0.208
2.200E-06,0.220
2.210E-06,0.228
2.220E-06,0.224
2.230E-06,0.216
2.240E-06,0.204
2.250E-06,0.200
2.260E-06,0.204
2.270E-06,0.208
2.280E-06,0.220
2.290E-06,0.224
2.300E-06,0.228
2.310E-06,0.220
2.320E-06,0.212
2.330E-06,0.204
2.340E-06,0.204
2.350E-06,0.208
2.360E-06,0.208
2.370E-06,0.220
2.380E-06,0.216
2.390E-06,0.220
2.400E-06,0.208
2.410E-06,0.208
2.420E-06,0.200
2.430E-06,0.204
2.440E-06,0.204
2.450E-06,0.208
2.460E-06,0.208
2.470E-06,0.208
2.480E-06,0.204
2.490E-06,0.208
2.500E-06,0.204
2.510E-06,0.200
2.520E-06,0.204
2.530E-06,0.200
2.540E-06,0.204
2.550E-06,0.204
2.560E-06,0.196
2.570E-06,0.196
2.580E-06,0.196
2.590E-06,0.196
2.600E-06,0.192
2.610E-06,0.196
2.620E-06,0.196
2.630E-06,0.208
2.640E-06,0.204
2.650E-06,0.204
2.660E-06,0.204
2.670E-06,0.200
2.680E-06,0.192
2.690E-06,0.196
2.700E-06,0.192
2.710E-06,0.192
2.720E-06,0.196
2.730E-06,0.196
2.740E-06,0.192
2.750E-06,0.192
2.760E-06,0.188
2.770E-06,0.192
2.780E-06,0.188
2.790E-06,0.192
2.800E-06,0.188
2.810E-06,0.184
2.820E-06,0.192
2.830E-06,0.188
2.840E-06,0.188
2.850E-06,0.192
2.860E-06,0.188
2.870E-06,0.180
2.880E-06,0.184
2.890E-06,0.188
2.900E-06,0.192
2.910E-06,0.184
2.920E-06,0.180
2.930E-06,0.176
2.940E-06,0.172
2.950E-06,0.176
2.960E-06,0.184
2.970E-06,0.192
2.980E-06,0.192
2.990E-06,0.180
3.000E-06,0.180
3.010E-06,0.176
3.020E-06,0.172
3.030E-06,0.176
3.040E-06,0.176
3.050E-06,0.176
3.060E-06,0.180
3.070E-06,0.180
3.080E-06,0.180
3.090E-06,0.180
3.100E-06,0.176
3.110E-06,0.172
3.120E-06,0.164
3.130E-06,0.172
3.140E-06,0.172
3.150E-06,0.176
3.160E-06,0.180
3.170E-06,0.176
3.180E-06,0.180
3.190E-06,0.176
3.200E-06,0.176
3.210E-06,0.164
3.220E-06,0.160
3.230E-06,0.168
3.240E-06,0.164
3.250E-06,0.180
3.260E-06,0.180
3.270E-06,0.176
3.280E-06,0.172
3.290E-06,0.168
3.300E-06,0.152
3.310E-06,0.156
3.320E-06,0.164
