mediciones/5-15/32.5/WaveData4778.csv

#timebase=2000000(ps)
,#voltbase=100000(mv/100)
#size=4000
-8.400E-06,0.012
-8.390E-06,0.016
-8.380E-06,0.004
-8.370E-06,-0.004
-8.360E-06,-0.004
-8.350E-06,-0.008
-8.340E-06,-0.004
-8.330E-06,0.008
-8.320E-06,0.012
-8.310E-06,0.012
-8.300E-06,0.004
-8.290E-06,0.000
-8.280E-06,-0.004
-8.270E-06,0.000
-8.260E-06,0.004
-8.250E-06,0.008
-8.240E-06,0.008
-8.230E-06,0.008
-8.220E-06,0.008
-8.210E-06,0.000
-8.200E-06,0.000
-8.190E-06,0.000
-8.180E-06,0.000
-8.170E-06,0.004
-8.160E-06,0.000
-8.150E-06,0.004
-8.140E-06,0.004
-8.130E-06,0.004
-8.120E-06,0.000
-8.110E-06,0.000
-8.100E-06,0.000
-8.090E-06,0.004
-8.080E-06,0.008
-8.070E-06,0.008
-8.060E-06,0.004
-8.050E-06,0.000
-8.040E-06,-0.004
-8.030E-06,0.000
-8.020E-06,-0.004
-8.010E-06,0.000
-8.000E-06,0.008
-7.990E-06,0.008
-7.980E-06,0.008
-7.970E-06,0.000
-7.960E-06,0.000
-7.950E-06,-0.004
-7.940E-06,-0.004
-7.930E-06,0.004
-7.920E-06,0.008
-7.910E-06,0.008
-7.900E-06,0.008
-7.890E-06,0.000
-7.880E-06,0.000
-7.870E-06,-0.004
-7.860E-06,-0.004
-7.850E-06,0.004
-7.840E-06,0.008
-7.830E-06,0.012
-7.820E-06,0.000
-7.810E-06,-0.004
-7.800E-06,-0.004
-7.790E-06,0.000
-7.780E-06,0.000
-7.770E-06,0.000
-7.760E-06,0.008
-7.750E-06,0.004
-7.740E-06,0.004
-7.730E-06,0.004
-7.720E-06,0.000
-7.710E-06,0.000
-7.700E-06,0.000
-7.690E-06,0.004
-7.680E-06,0.000
-7.670E-06,0.008
-7.660E-06,0.008
-7.650E-06,0.008
-7.640E-06,0.004
-7.630E-06,0.000
-7.620E-06,0.000
-7.610E-06,0.000
-7.600E-06,0.004
-7.590E-06,0.008
-7.580E-06,0.008
-7.570E-06,0.008
-7.560E-06,0.004
-7.550E-06,0.004
-7.540E-06,-0.004
-7.530E-06,0.000
-7.520E-06,0.000
-7.510E-06,0.004
-7.500E-06,0.000
-7.490E-06,0.004
-7.480E-06,0.008
-7.470E-06,0.000
-7.460E-06,-0.004
-7.450E-06,0.000
-7.440E-06,0.004
-7.430E-06,0.008
-7.420E-06,0.004
-7.410E-06,0.008
-7.400E-06,0.004
-7.390E-06,0.000
-7.380E-06,0.000
-7.370E-06,0.000
-7.360E-06,0.000
-7.350E-06,0.004
-7.340E-06,0.008
-7.330E-06,0.008
-7.320E-06,0.004
-7.310E-06,0.004
-7.300E-06,0.000
-7.290E-06,0.000
-7.280E-06,-0.004
-7.270E-06,0.000
-7.260E-06,0.004
-7.250E-06,0.008
-7.240E-06,0.008
-7.230E-06,0.000
-7.220E-06,0.004
-7.210E-06,0.000
-7.200E-06,0.004
-7.190E-06,0.004
-7.180E-06,0.008
-7.170E-06,0.004
-7.160E-06,0.000
-7.150E-06,-0.008
-7.140E-06,-0.008
-7.130E-06,0.004
-7.120E-06,0.004
-7.110E-06,0.012
-7.100E-06,0.008
-7.090E-06,0.000
-7.080E-06,0.000
-7.070E-06,-0.004
-7.060E-06,-0.004
-7.050E-06,0.000
-7.040E-06,0.008
-7.030E-06,0.012
-7.020E-06,0.008
-7.010E-06,0.008
-7.000E-06,0.008
-6.990E-06,0.004
-6.980E-06,-0.008
-6.970E-06,-0.008
-6.960E-06,-0.004
-6.950E-06,0.000
-6.940E-06,0.008
-6.930E-06,0.008
-6.920E-06,0.004
-6.910E-06,0.000
-6.900E-06,0.000
-6.890E-06,-0.004
-6.880E-06,0.000
-6.870E-06,0.008
-6.860E-06,0.008
-6.850E-06,0.008
-6.840E-06,0.004
-6.830E-06,0.000
-6.820E-06,0.000
-6.810E-06,0.000
-6.800E-06,0.004
-6.790E-06,0.004
-6.780E-06,0.004
-6.770E-06,0.008
-6.760E-06,-0.004
-6.750E-06,0.000
-6.740E-06,0.000
-6.730E-06,0.000
-6.720E-06,0.004
-6.710E-06,0.008
-6.700E-06,0.008
-6.690E-06,0.008
-6.680E-06,-0.004
-6.670E-06,0.000
-6.660E-06,0.004
-6.650E-06,0.000
-6.640E-06,0.004
-6.630E-06,0.008
-6.620E-06,0.008
-6.610E-06,0.004
-6.600E-06,-0.004
-6.590E-06,0.000
-6.580E-06,-0.004
-6.570E-06,0.004
-6.560E-06,0.000
-6.550E-06,0.008
-6.540E-06,0.004
-6.530E-06,0.008
-6.520E-06,0.000
-6.510E-06,-0.004
-6.500E-06,0.000
-6.490E-06,0.000
-6.480E-06,0.000
-6.470E-06,0.004
-6.460E-06,0.008
-6.450E-06,0.008
-6.440E-06,0.004
-6.430E-06,0.000
-6.420E-06,0.004
-6.410E-06,-0.008
-6.400E-06,-0.004
-6.390E-06,0.000
-6.380E-06,-0.008
-6.370E-06,0.020
-6.360E-06,0.016
-6.350E-06,0.008
-6.340E-06,-0.012
-6.330E-06,0.000
-6.320E-06,0.012
-6.310E-06,-0.008
-6.300E-06,0.000
-6.290E-06,0.020
-6.280E-06,0.016
-6.270E-06,0.000
-6.260E-06,0.000
-6.250E-06,-0.004
-6.240E-06,0.000
-6.230E-06,0.000
-6.220E-06,0.008
-6.210E-06,0.016
-6.200E-06,0.016
-6.190E-06,0.004
-6.180E-06,0.000
-6.170E-06,0.000
-6.160E-06,0.008
-6.150E-06,0.004
-6.140E-06,0.008
-6.130E-06,0.008
-6.120E-06,0.012
-6.110E-06,0.008
-6.100E-06,0.004
-6.090E-06,0.012
-6.080E-06,0.000
-6.070E-06,0.000
-6.060E-06,-0.012
-6.050E-06,0.000
-6.040E-06,0.000
-6.030E-06,0.008
-6.020E-06,0.016
-6.010E-06,0.020
-6.000E-06,0.008
-5.990E-06,-0.008
-5.980E-06,-0.012
-5.970E-06,-0.004
-5.960E-06,0.008
-5.950E-06,0.008
-5.940E-06,0.012
-5.930E-06,0.008
-5.920E-06,0.000
-5.910E-06,-0.008
-5.900E-06,-0.008
-5.890E-06,0.000
-5.880E-06,0.004
-5.870E-06,0.004
-5.860E-06,0.008
-5.850E-06,0.012
-5.840E-06,0.000
-5.830E-06,-0.004
-5.820E-06,-0.008
-5.810E-06,-0.004
-5.800E-06,0.000
-5.790E-06,0.008
-5.780E-06,0.012
-5.770E-06,0.016
-5.760E-06,0.012
-5.750E-06,0.000
-5.740E-06,0.000
-5.730E-06,-0.008
-5.720E-06,0.000
-5.710E-06,0.004
-5.700E-06,0.012
-5.690E-06,0.016
-5.680E-06,0.012
-5.670E-06,0.004
-5.660E-06,-0.004
-5.650E-06,0.000
-5.640E-06,0.004
-5.630E-06,0.008
-5.620E-06,0.012
-5.610E-06,0.012
-5.600E-06,0.008
-5.590E-06,0.000
-5.580E-06,0.000
-5.570E-06,0.000
-5.560E-06,-0.004
-5.550E-06,0.000
-5.540E-06,-0.004
-5.530E-06,-0.004
-5.520E-06,0.000
-5.510E-06,0.008
-5.500E-06,0.004
-5.490E-06,0.008
-5.480E-06,0.012
-5.470E-06,-0.008
-5.460E-06,-0.020
-5.450E-06,-0.016
-5.440E-06,0.000
-5.430E-06,0.024
-5.420E-06,0.020
-5.410E-06,0.016
-5.400E-06,0.000
-5.390E-06,-0.012
-5.380E-06,-0.016
-5.370E-06,-0.004
-5.360E-06,0.012
-5.350E-06,0.024
-5.340E-06,0.016
-5.330E-06,0.004
-5.320E-06,-0.004
-5.310E-06,-0.012
-5.300E-06,-0.008
-5.290E-06,0.000
-5.280E-06,0.008
-5.270E-06,0.012
-5.260E-06,0.016
-5.250E-06,0.004
-5.240E-06,0.000
-5.230E-06,-0.004
-5.220E-06,-0.004
-5.210E-06,0.004
-5.200E-06,0.004
-5.190E-06,0.004
-5.180E-06,0.008
-5.170E-06,0.000
-5.160E-06,-0.004
-5.150E-06,-0.004
-5.140E-06,-0.004
-5.130E-06,0.000
-5.120E-06,0.008
-5.110E-06,0.012
-5.100E-06,0.012
-5.090E-06,0.008
-5.080E-06,-0.004
-5.070E-06,-0.012
-5.060E-06,-0.012
-5.050E-06,-0.004
-5.040E-06,0.008
-5.030E-06,0.020
-5.020E-06,0.012
-5.010E-06,0.008
-5.000E-06,-0.004
-4.990E-06,-0.008
-4.980E-06,-0.008
-4.970E-06,0.000
-4.960E-06,0.008
-4.950E-06,0.012
-4.940E-06,0.012
-4.930E-06,0.008
-4.920E-06,0.000
-4.910E-06,-0.004
-4.900E-06,-0.004
-4.890E-06,-0.004
-4.880E-06,-0.004
-4.870E-06,0.008
-4.860E-06,0.016
-4.850E-06,0.012
-4.840E-06,0.012
-4.830E-06,-0.004
-4.820E-06,-0.008
-4.810E-06,-0.008
-4.800E-06,0.000
-4.790E-06,0.000
-4.780E-06,0.008
-4.770E-06,0.008
-4.760E-06,0.012
-4.750E-06,0.008
-4.740E-06,0.004
-4.730E-06,0.000
-4.720E-06,0.000
-4.710E-06,0.000
-4.700E-06,0.004
-4.690E-06,0.008
-4.680E-06,0.008
-4.670E-06,0.000
-4.660E-06,-0.008
-4.650E-06,-0.008
-4.640E-06,-0.020
-4.630E-06,0.000
-4.620E-06,0.008
-4.610E-06,0.024
-4.600E-06,0.032
-4.590E-06,0.024
-4.580E-06,-0.004
-4.570E-06,-0.024
-4.560E-06,-0.024
-4.550E-06,-0.016
-4.540E-06,0.008
-4.530E-06,0.028
-4.520E-06,0.028
-4.510E-06,0.016
-4.500E-06,0.000
-4.490E-06,-0.020
-4.480E-06,-0.032
-4.470E-06,-0.012
-4.460E-06,0.012
-4.450E-06,0.020
-4.440E-06,0.024
-4.430E-06,0.020
-4.420E-06,-0.004
-4.410E-06,-0.012
-4.400E-06,-0.020
-4.390E-06,-0.012
-4.380E-06,0.004
-4.370E-06,0.016
-4.360E-06,0.024
-4.350E-06,0.016
-4.340E-06,0.000
-4.330E-06,-0.004
-4.320E-06,-0.008
-4.310E-06,0.000
-4.300E-06,0.004
-4.290E-06,0.004
-4.280E-06,0.016
-4.270E-06,0.012
-4.260E-06,0.008
-4.250E-06,0.000
-4.240E-06,-0.004
-4.230E-06,-0.008
-4.220E-06,0.008
-4.210E-06,0.004
-4.200E-06,0.008
-4.190E-06,0.008
-4.180E-06,0.004
-4.170E-06,0.004
-4.160E-06,-0.008
-4.150E-06,0.004
-4.140E-06,0.000
-4.130E-06,0.004
-4.120E-06,0.008
-4.110E-06,-0.004
-4.100E-06,0.004
-4.090E-06,0.004
-4.080E-06,0.008
-4.070E-06,0.008
-4.060E-06,0.000
-4.050E-06,0.000
-4.040E-06,0.004
-4.030E-06,-0.004
-4.020E-06,0.004
-4.010E-06,0.004
-4.000E-06,0.004
-3.990E-06,0.000
-3.980E-06,-0.004
-3.970E-06,0.004
-3.960E-06,0.012
-3.950E-06,0.004
-3.940E-06,0.000
-3.930E-06,0.000
-3.920E-06,-0.008
-3.910E-06,-0.004
-3.900E-06,0.000
-3.890E-06,0.008
-3.880E-06,0.004
-3.870E-06,0.000
-3.860E-06,-0.008
-3.850E-06,-0.008
-3.840E-06,0.000
-3.830E-06,0.008
-3.820E-06,0.016
-3.810E-06,0.012
-3.800E-06,-0.008
-3.790E-06,-0.012
-3.780E-06,-0.012
-3.770E-06,-0.004
-3.760E-06,0.008
-3.750E-06,0.012
-3.740E-06,0.008
-3.730E-06,0.000
-3.720E-06,-0.004
-3.710E-06,-0.008
-3.700E-06,0.004
-3.690E-06,0.012
-3.680E-06,0.004
-3.670E-06,0.008
-3.660E-06,0.004
-3.650E-06,0.000
-3.640E-06,0.004
-3.630E-06,0.004
-3.620E-06,0.004
-3.610E-06,-0.004
-3.600E-06,0.004
-3.590E-06,0.004
-3.580E-06,0.004
-3.570E-06,0.004
-3.560E-06,0.004
-3.550E-06,0.008
-3.540E-06,0.004
-3.530E-06,-0.004
-3.520E-06,0.000
-3.510E-06,0.008
-3.500E-06,0.016
-3.490E-06,0.008
-3.480E-06,0.000
-3.470E-06,0.000
-3.460E-06,0.004
-3.450E-06,0.000
-3.440E-06,0.004
-3.430E-06,0.008
-3.420E-06,0.008
-3.410E-06,0.008
-3.400E-06,0.000
-3.390E-06,-0.004
-3.380E-06,-0.004
-3.370E-06,0.004
-3.360E-06,0.004
-3.350E-06,-0.004
-3.340E-06,0.004
-3.330E-06,0.012
-3.320E-06,0.008
-3.310E-06,-0.004
-3.300E-06,0.000
-3.290E-06,0.000
-3.280E-06,0.008
-3.270E-06,0.000
-3.260E-06,0.004
-3.250E-06,0.004
-3.240E-06,0.012
-3.230E-06,0.016
-3.220E-06,-0.004
-3.210E-06,0.000
-3.200E-06,0.000
-3.190E-06,0.012
-3.180E-06,0.008
-3.170E-06,0.012
-3.160E-06,0.008
-3.150E-06,0.012
-3.140E-06,0.008
-3.130E-06,-0.004
-3.120E-06,-0.012
-3.110E-06,-0.012
-3.100E-06,-0.008
-3.090E-06,0.004
-3.080E-06,0.028
-3.070E-06,0.036
-3.060E-06,0.020
-3.050E-06,0.004
-3.040E-06,-0.004
-3.030E-06,-0.012
-3.020E-06,0.000
-3.010E-06,0.012
-3.000E-06,0.020
-2.990E-06,0.012
-2.980E-06,0.004
-2.970E-06,0.000
-2.960E-06,-0.008
-2.950E-06,0.000
-2.940E-06,0.004
-2.930E-06,0.012
-2.920E-06,0.012
-2.910E-06,-0.008
-2.900E-06,-0.012
-2.890E-06,-0.004
-2.880E-06,0.000
-2.870E-06,-0.008
-2.860E-06,-0.008
-2.850E-06,0.004
-2.840E-06,0.012
-2.830E-06,0.012
-2.820E-06,0.016
-2.810E-06,0.012
-2.800E-06,-0.008
-2.790E-06,-0.020
-2.780E-06,-0.016
-2.770E-06,-0.004
-2.760E-06,0.020
-2.750E-06,0.024
-2.740E-06,0.020
-2.730E-06,0.000
-2.720E-06,-0.008
-2.710E-06,-0.020
-2.700E-06,-0.008
-2.690E-06,0.008
-2.680E-06,0.020
-2.670E-06,0.024
-2.660E-06,0.012
-2.650E-06,0.004
-2.640E-06,-0.004
-2.630E-06,-0.008
-2.620E-06,-0.004
-2.610E-06,0.008
-2.600E-06,0.016
-2.590E-06,0.024
-2.580E-06,0.012
-2.570E-06,0.000
-2.560E-06,-0.004
-2.550E-06,-0.004
-2.540E-06,-0.004
-2.530E-06,0.000
-2.520E-06,0.012
-2.510E-06,0.016
-2.500E-06,0.016
-2.490E-06,0.008
-2.480E-06,0.004
-2.470E-06,0.000
-2.460E-06,-0.004
-2.450E-06,-0.004
-2.440E-06,0.000
-2.430E-06,0.012
-2.420E-06,0.024
-2.410E-06,0.020
-2.400E-06,0.004
-2.390E-06,-0.004
-2.380E-06,-0.012
-2.370E-06,-0.008
-2.360E-06,0.000
-2.350E-06,0.020
-2.340E-06,0.024
-2.330E-06,0.024
-2.320E-06,0.008
-2.310E-06,-0.004
-2.300E-06,-0.012
-2.290E-06,-0.008
-2.280E-06,0.004
-2.270E-06,0.012
-2.260E-06,0.024
-2.250E-06,0.012
-2.240E-06,0.004
-2.230E-06,-0.012
-2.220E-06,-0.008
-2.210E-06,0.000
-2.200E-06,0.008
-2.190E-06,0.008
-2.180E-06,0.016
-2.170E-06,0.012
-2.160E-06,-0.004
-2.150E-06,-0.008
-2.140E-06,-0.004
-2.130E-06,0.000
-2.120E-06,0.008
-2.110E-06,0.020
-2.100E-06,0.016
-2.090E-06,0.008
-2.080E-06,0.000
-2.070E-06,-0.004
-2.060E-06,-0.004
-2.050E-06,0.004
-2.040E-06,0.008
-2.030E-06,0.012
-2.020E-06,0.012
-2.010E-06,0.008
-2.000E-06,0.004
-1.990E-06,0.000
-1.980E-06,0.008
-1.970E-06,0.004
-1.960E-06,0.008
-1.950E-06,0.000
-1.940E-06,0.000
-1.930E-06,0.004
-1.920E-06,0.004
-1.910E-06,0.004
-1.900E-06,0.000
-1.890E-06,-0.004
-1.880E-06,0.012
-1.870E-06,0.008
-1.860E-06,0.008
-1.850E-06,0.008
-1.840E-06,0.000
-1.830E-06,0.000
-1.820E-06,-0.004
-1.810E-06,-0.004
-1.800E-06,0.000
-1.790E-06,-0.004
-1.780E-06,-0.008
-1.770E-06,-0.016
-1.760E-06,-0.004
-1.750E-06,0.012
-1.740E-06,0.016
-1.730E-06,0.016
-1.720E-06,0.012
-1.710E-06,-0.004
-1.700E-06,-0.032
-1.690E-06,-0.024
-1.680E-06,-0.004
-1.670E-06,0.024
-1.660E-06,0.028
-1.650E-06,0.024
-1.640E-06,0.000
-1.630E-06,-0.020
-1.620E-06,-0.028
-1.610E-06,-0.020
-1.600E-06,0.008
-1.590E-06,0.016
-1.580E-06,0.020
-1.570E-06,0.012
-1.560E-06,0.004
-1.550E-06,-0.004
-1.540E-06,-0.008
-1.530E-06,-0.004
-1.520E-06,0.000
-1.510E-06,0.012
-1.500E-06,0.016
-1.490E-06,0.008
-1.480E-06,0.004
-1.470E-06,0.000
-1.460E-06,0.000
-1.450E-06,-0.004
-1.440E-06,0.000
-1.430E-06,0.012
-1.420E-06,0.008
-1.410E-06,0.008
-1.400E-06,0.000
-1.390E-06,-0.004
-1.380E-06,0.000
-1.370E-06,0.000
-1.360E-06,0.008
-1.350E-06,0.012
-1.340E-06,0.008
-1.330E-06,-0.004
-1.320E-06,-0.008
-1.310E-06,-0.012
-1.300E-06,-0.008
-1.290E-06,0.016
-1.280E-06,0.020
-1.270E-06,0.016
-1.260E-06,0.008
-1.250E-06,-0.008
-1.240E-06,-0.016
-1.230E-06,-0.008
-1.220E-06,0.008
-1.210E-06,0.012
-1.200E-06,0.016
-1.190E-06,0.012
-1.180E-06,0.012
-1.170E-06,0.000
-1.160E-06,0.004
-1.150E-06,0.008
-1.140E-06,0.004
-1.130E-06,0.000
-1.120E-06,0.000
-1.110E-06,0.008
-1.100E-06,0.008
-1.090E-06,0.012
-1.080E-06,0.004
-1.070E-06,0.000
-1.060E-06,-0.008
-1.050E-06,0.000
-1.040E-06,0.004
-1.030E-06,0.020
-1.020E-06,0.024
-1.010E-06,0.016
-1.000E-06,0.008
-9.900E-07,-0.012
-9.800E-07,-0.004
-9.700E-07,0.000
-9.600E-07,0.012
-9.500E-07,0.028
-9.400E-07,0.024
-9.300E-07,0.024
-9.200E-07,0.008
-9.100E-07,0.000
-9.000E-07,-0.004
-8.900E-07,0.000
-8.800E-07,0.016
-8.700E-07,0.020
-8.600E-07,0.020
-8.500E-07,0.016
-8.400E-07,0.008
-8.300E-07,0.008
-8.200E-07,-0.004
-8.100E-07,-0.004
-8.000E-07,0.008
-7.900E-07,0.008
-7.800E-07,0.024
-7.700E-07,0.012
-7.600E-07,0.008
-7.500E-07,0.000
-7.400E-07,0.000
-7.300E-07,0.008
-7.200E-07,0.008
-7.100E-07,0.020
-7.000E-07,0.016
-6.900E-07,0.024
-6.800E-07,0.008
-6.700E-07,0.008
-6.600E-07,0.008
-6.500E-07,0.008
-6.400E-07,0.016
-6.300E-07,0.016
-6.200E-07,0.012
-6.100E-07,0.012
-6.000E-07,0.008
-5.900E-07,0.008
-5.800E-07,0.008
-5.700E-07,0.020
-5.600E-07,0.020
-5.500E-07,0.020
-5.400E-07,0.020
-5.300E-07,0.012
-5.200E-07,0.016
-5.100E-07,0.024
-5.000E-07,0.020
-4.900E-07,0.024
-4.800E-07,0.020
-4.700E-07,0.024
-4.600E-07,0.020
-4.500E-07,0.024
-4.400E-07,0.020
-4.300E-07,0.016
-4.200E-07,0.012
-4.100E-07,0.012
-4.000E-07,0.024
-3.900E-07,0.020
-3.800E-07,0.020
-3.700E-07,0.028
-3.600E-07,0.028
-3.500E-07,0.020
-3.400E-07,0.024
-3.300E-07,0.028
-3.200E-07,0.032
-3.100E-07,0.028
-3.000E-07,0.020
-2.900E-07,0.020
-2.800E-07,0.024
-2.700E-07,0.028
-2.600E-07,0.020
-2.500E-07,0.028
-2.400E-07,0.032
-2.300E-07,0.032
-2.200E-07,0.028
-2.100E-07,0.028
-2.000E-07,0.024
-1.900E-07,0.040
-1.800E-07,0.060
-1.700E-07,0.064
-1.600E-07,0.056
-1.500E-07,0.028
-1.400E-07,-0.004
-1.300E-07,-0.064
-1.200E-07,-0.084
-1.100E-07,-0.036
-1.000E-07,0.076
-9.000E-08,0.196
-8.000E-08,0.212
-7.000E-08,0.120
-6.000E-08,-0.004
-5.000E-08,-0.380
-4.000E-08,-0.508
-3.000E-08,-0.512
-2.000E-08,-0.512
-1.000E-08,0.112
0.000E+00,0.540
1.000E-08,0.540
2.000E-08,0.540
3.000E-08,-0.096
4.000E-08,-0.512
5.000E-08,-0.512
6.000E-08,-0.472
7.000E-08,0.288
8.000E-08,0.540
9.000E-08,0.540
1.000E-07,0.416
1.100E-07,-0.136
1.200E-07,-0.512
1.300E-07,-0.508
1.400E-07,-0.268
1.500E-07,0.216
1.600E-07,0.540
1.700E-07,0.540
1.800E-07,0.340
1.900E-07,-0.032
2.000E-07,-0.328
2.100E-07,-0.428
2.200E-07,-0.288
2.300E-07,0.028
2.400E-07,0.300
2.500E-07,0.400
2.600E-07,0.224
2.700E-07,-0.116
2.800E-07,-0.420
2.900E-07,-0.512
3.000E-07,-0.372
3.100E-07,0.020
3.200E-07,0.316
3.300E-07,0.396
3.400E-07,0.248
3.500E-07,-0.056
3.600E-07,-0.288
3.700E-07,-0.336
3.800E-07,-0.172
3.900E-07,0.056
4.000E-07,0.272
4.100E-07,0.312
4.200E-07,0.172
4.300E-07,-0.096
4.400E-07,-0.284
4.500E-07,-0.368
4.600E-07,-0.272
4.700E-07,-0.044
4.800E-07,0.160
4.900E-07,0.292
5.000E-07,0.256
5.100E-07,0.076
5.200E-07,-0.136
5.300E-07,-0.252
5.400E-07,-0.224
5.500E-07,-0.064
5.600E-07,0.140
5.700E-07,0.244
5.800E-07,0.212
5.900E-07,0.076
6.000E-07,-0.072
6.100E-07,-0.176
6.200E-07,-0.164
6.300E-07,-0.060
6.400E-07,0.076
6.500E-07,0.164
6.600E-07,0.180
6.700E-07,0.104
6.800E-07,-0.004
6.900E-07,-0.096
7.000E-07,-0.116
7.100E-07,-0.052
7.200E-07,0.056
7.300E-07,0.136
7.400E-07,0.164
7.500E-07,0.124
7.600E-07,0.044
7.700E-07,-0.028
7.800E-07,-0.056
7.900E-07,-0.032
8.000E-07,0.048
8.100E-07,0.128
8.200E-07,0.140
8.300E-07,0.112
8.400E-07,-0.008
8.500E-07,-0.240
8.600E-07,-0.376
8.700E-07,-0.472
8.800E-07,-0.320
8.900E-07,0.036
9.000E-07,0.348
9.100E-07,0.408
9.200E-07,0.216
9.300E-07,-0.032
9.400E-07,-0.264
9.500E-07,-0.336
9.600E-07,-0.196
9.700E-07,0.028
9.800E-07,0.224
9.900E-07,0.320
1.000E-06,0.220
1.010E-06,0.004
1.020E-06,-0.168
1.030E-06,-0.228
1.040E-06,-0.164
1.050E-06,-0.032
1.060E-06,0.112
1.070E-06,0.184
1.080E-06,0.160
1.090E-06,0.060
1.100E-06,-0.072
1.110E-06,-0.148
1.120E-06,-0.136
1.130E-06,-0.048
1.140E-06,0.060
1.150E-06,0.132
1.160E-06,0.120
1.170E-06,0.052
1.180E-06,-0.032
1.190E-06,-0.080
1.200E-06,-0.088
1.210E-06,-0.040
1.220E-06,0.032
1.230E-06,0.088
1.240E-06,0.096
1.250E-06,0.060
1.260E-06,0.004
1.270E-06,-0.036
1.280E-06,-0.048
1.290E-06,-0.024
1.300E-06,0.020
1.310E-06,0.056
1.320E-06,0.064
1.330E-06,0.044
1.340E-06,0.028
1.350E-06,-0.008
1.360E-06,-0.008
1.370E-06,-0.016
1.380E-06,0.000
1.390E-06,0.028
1.400E-06,0.032
1.410E-06,0.028
1.420E-06,0.016
1.430E-06,0.000
1.440E-06,-0.008
1.450E-06,-0.008
1.460E-06,-0.008
1.470E-06,-0.008
1.480E-06,0.008
1.490E-06,0.000
1.500E-06,0.000
1.510E-06,0.000
1.520E-06,0.016
1.530E-06,0.004
1.540E-06,0.000
1.550E-06,0.024
1.560E-06,0.036
1.570E-06,0.016
1.580E-06,0.016
1.590E-06,0.016
1.600E-06,0.020
1.610E-06,0.028
1.620E-06,0.024
1.630E-06,0.032
1.640E-06,0.040
1.650E-06,0.024
1.660E-06,0.016
1.670E-06,0.020
1.680E-06,0.032
1.690E-06,0.032
1.700E-06,0.036
1.710E-06,0.036
1.720E-06,0.036
1.730E-06,0.044
1.740E-06,0.036
1.750E-06,0.044
1.760E-06,0.052
1.770E-06,0.064
1.780E-06,0.064
1.790E-06,0.060
1.800E-06,0.064
1.810E-06,0.064
1.820E-06,0.064
1.830E-06,0.068
1.840E-06,0.068
1.850E-06,0.072
1.860E-06,0.084
1.870E-06,0.080
1.880E-06,0.072
1.890E-06,0.056
1.900E-06,0.052
1.910E-06,0.040
1.920E-06,0.040
1.930E-06,0.008
1.940E-06,-0.052
1.950E-06,-0.136
1.960E-06,-0.188
1.970E-06,-0.232
1.980E-06,-0.212
1.990E-06,-0.084
2.000E-06,0.056
2.010E-06,0.104
2.020E-06,0.064
2.030E-06,-0.004
2.040E-06,-0.056
2.050E-06,-0.084
2.060E-06,-0.068
2.070E-06,-0.032
2.080E-06,0.024
2.090E-06,0.088
2.100E-06,0.120
2.110E-06,0.104
2.120E-06,0.056
2.130E-06,0.000
2.140E-06,-0.056
2.150E-06,-0.132
2.160E-06,-0.164
2.170E-06,-0.188
2.180E-06,-0.140
2.190E-06,-0.080
2.200E-06,-0.004
2.210E-06,0.060
2.220E-06,0.072
2.230E-06,0.032
2.240E-06,-0.032
2.250E-06,-0.068
2.260E-06,-0.064
2.270E-06,0.004
2.280E-06,0.096
2.290E-06,0.152
2.300E-06,0.148
2.310E-06,0.088
2.320E-06,0.012
2.330E-06,-0.032
2.340E-06,-0.004
2.350E-06,0.044
2.360E-06,0.108
2.370E-06,0.128
2.380E-06,0.120
2.390E-06,0.052
2.400E-06,-0.076
2.410E-06,-0.160
2.420E-06,-0.212
2.430E-06,-0.180
2.440E-06,-0.104
2.450E-06,0.012
2.460E-06,0.064
2.470E-06,0.028
2.480E-06,-0.048
2.490E-06,-0.116
2.500E-06,-0.112
2.510E-06,-0.056
2.520E-06,0.008
2.530E-06,0.056
2.540E-06,0.068
2.550E-06,0.024
2.560E-06,-0.004
2.570E-06,-0.020
2.580E-06,-0.020
2.590E-06,-0.004
2.600E-06,0.032
2.610E-06,0.056
2.620E-06,0.056
2.630E-06,0.020
2.640E-06,-0.004
2.650E-06,-0.032
2.660E-06,-0.036
2.670E-06,-0.032
2.680E-06,-0.004
2.690E-06,0.016
2.700E-06,0.016
2.710E-06,0.016
2.720E-06,0.012
2.730E-06,0.000
2.740E-06,-0.012
2.750E-06,-0.020
2.760E-06,-0.008
2.770E-06,0.004
2.780E-06,0.008
2.790E-06,0.024
2.800E-06,0.032
2.810E-06,0.028
2.820E-06,0.004
2.830E-06,0.004
2.840E-06,0.008
2.850E-06,0.008
2.860E-06,0.024
2.870E-06,0.028
2.880E-06,0.032
2.890E-06,0.028
2.900E-06,0.024
2.910E-06,0.020
2.920E-06,0.024
2.930E-06,0.028
2.940E-06,0.040
2.950E-06,0.044
2.960E-06,0.044
2.970E-06,0.044
2.980E-06,0.032
2.990E-06,0.040
3.000E-06,0.044
3.010E-06,0.056
3.020E-06,0.060
3.030E-06,0.060
3.040E-06,0.064
3.050E-06,0.072
3.060E-06,0.092
3.070E-06,0.092
3.080E-06,0.092
3.090E-06,0.088
3.100E-06,0.084
3.110E-06,0.088
3.120E-06,0.092
3.130E-06,0.088
3.140E-06,0.092
3.150E-06,0.088
3.160E-06,0.076
3.170E-06,0.060
3.180E-06,0.036
3.190E-06,0.028
3.200E-06,0.024
3.210E-06,0.032
3.220E-06,0.044
3.230E-06,0.060
3.240E-06,0.060
3.250E-06,0.068
3.260E-06,0.080
3.270E-06,0.104
3.280E-06,0.132
3.290E-06,0.136
3.300E-06,0.136
3.310E-06,0.100
3.320E-06,0.048
3.330E-06,-0.004
