mediciones/5-15/32.5/WaveData47101.csv

#timebase=2000000(ps)
,#voltbase=2000000(mv/100)
#size=4000
-8.400E-06,-0.240
-8.390E-06,-0.480
-8.380E-06,-0.560
-8.370E-06,-0.720
-8.360E-06,-0.720
-8.350E-06,-0.240
-8.340E-06,-0.400
-8.330E-06,-0.560
-8.320E-06,-0.480
-8.310E-06,-0.560
-8.300E-06,-0.400
-8.290E-06,-0.320
-8.280E-06,-0.320
-8.270E-06,-0.400
-8.260E-06,-0.320
-8.250E-06,-0.320
-8.240E-06,-0.240
-8.230E-06,-0.080
-8.220E-06,-0.160
-8.210E-06,0.000
-8.200E-06,-0.080
-8.190E-06,0.000
-8.180E-06,-0.160
-8.170E-06,-0.080
-8.160E-06,0.000
-8.150E-06,0.000
-8.140E-06,-0.080
-8.130E-06,0.000
-8.120E-06,0.000
-8.110E-06,0.000
-8.100E-06,-0.080
-8.090E-06,-0.080
-8.080E-06,0.000
-8.070E-06,0.080
-8.060E-06,0.080
-8.050E-06,0.000
-8.040E-06,-0.080
-8.030E-06,-0.080
-8.020E-06,-0.160
-8.010E-06,-0.240
-8.000E-06,-0.320
-7.990E-06,-0.320
-7.980E-06,-0.400
-7.970E-06,-0.400
-7.960E-06,-0.320
-7.950E-06,-0.480
-7.940E-06,-0.400
-7.930E-06,-0.480
-7.920E-06,-0.480
-7.910E-06,-0.400
-7.900E-06,-0.480
-7.890E-06,-0.480
-7.880E-06,-0.560
-7.870E-06,-0.560
-7.860E-06,-0.560
-7.850E-06,-0.480
-7.840E-06,-0.640
-7.830E-06,-0.640
-7.820E-06,-0.480
-7.810E-06,-0.480
-7.800E-06,-0.400
-7.790E-06,-0.400
-7.780E-06,-0.320
-7.770E-06,-0.400
-7.760E-06,-0.320
-7.750E-06,-0.320
-7.740E-06,-0.320
-7.730E-06,-0.320
-7.720E-06,-0.320
-7.710E-06,-0.240
-7.700E-06,-0.160
-7.690E-06,-0.320
-7.680E-06,-0.320
-7.670E-06,-0.160
-7.660E-06,-0.240
-7.650E-06,-0.160
-7.640E-06,-0.080
-7.630E-06,-0.080
-7.620E-06,-0.240
-7.610E-06,-0.160
-7.600E-06,0.000
-7.590E-06,-0.080
-7.580E-06,-0.080
-7.570E-06,-0.080
-7.560E-06,-0.080
-7.550E-06,-0.160
-7.540E-06,-0.160
-7.530E-06,-0.240
-7.520E-06,-0.160
-7.510E-06,-0.320
-7.500E-06,-0.320
-7.490E-06,-0.320
-7.480E-06,-0.160
-7.470E-06,-0.160
-7.460E-06,-0.240
-7.450E-06,-0.160
-7.440E-06,-0.240
-7.430E-06,-0.320
-7.420E-06,-0.240
-7.410E-06,-0.160
-7.400E-06,-0.240
-7.390E-06,-0.320
-7.380E-06,-0.320
-7.370E-06,-0.320
-7.360E-06,-0.240
-7.350E-06,-0.160
-7.340E-06,-0.400
-7.330E-06,-0.320
-7.320E-06,-0.400
-7.310E-06,-0.320
-7.300E-06,-0.320
-7.290E-06,-0.400
-7.280E-06,-0.400
-7.270E-06,-0.400
-7.260E-06,-0.560
-7.250E-06,-0.560
-7.240E-06,-0.560
-7.230E-06,-0.560
-7.220E-06,-0.720
-7.210E-06,-0.720
-7.200E-06,-0.720
-7.190E-06,-0.720
-7.180E-06,-0.720
-7.170E-06,-0.640
-7.160E-06,-0.560
-7.150E-06,-0.560
-7.140E-06,-0.720
-7.130E-06,-0.720
-7.120E-06,-0.720
-7.110E-06,-0.720
-7.100E-06,-0.640
-7.090E-06,-0.720
-7.080E-06,-0.720
-7.070E-06,-0.720
-7.060E-06,-0.720
-7.050E-06,-0.640
-7.040E-06,-0.640
-7.030E-06,-0.640
-7.020E-06,-0.720
-7.010E-06,-0.640
-7.000E-06,-0.640
-6.990E-06,-0.720
-6.980E-06,-0.560
-6.970E-06,-0.560
-6.960E-06,-0.480
-6.950E-06,-0.560
-6.940E-06,-0.480
-6.930E-06,-0.400
-6.920E-06,-0.400
-6.910E-06,-0.480
-6.900E-06,-0.320
-6.890E-06,-0.400
-6.880E-06,-0.240
-6.870E-06,-0.240
-6.860E-06,-0.240
-6.850E-06,-0.080
-6.840E-06,-0.160
-6.830E-06,-0.160
-6.820E-06,-0.240
-6.810E-06,-0.240
-6.800E-06,0.000
-6.790E-06,0.000
-6.780E-06,-0.160
-6.770E-06,-0.240
-6.760E-06,-0.320
-6.750E-06,-0.320
-6.740E-06,-0.240
-6.730E-06,-0.400
-6.720E-06,-0.480
-6.710E-06,-0.480
-6.700E-06,-0.400
-6.690E-06,-0.480
-6.680E-06,-0.560
-6.670E-06,-0.560
-6.660E-06,-0.560
-6.650E-06,-0.640
-6.640E-06,-0.640
-6.630E-06,-0.640
-6.620E-06,-0.640
-6.610E-06,-0.800
-6.600E-06,-0.720
-6.590E-06,-0.800
-6.580E-06,-0.720
-6.570E-06,-0.720
-6.560E-06,-0.800
-6.550E-06,-0.800
-6.540E-06,-0.880
-6.530E-06,-0.880
-6.520E-06,-0.880
-6.510E-06,-0.960
-6.500E-06,-1.040
-6.490E-06,-1.040
-6.480E-06,-1.040
-6.470E-06,-0.960
-6.460E-06,-0.960
-6.450E-06,-0.800
-6.440E-06,-0.480
-6.430E-06,-0.560
-6.420E-06,-0.480
-6.410E-06,-0.640
-6.400E-06,-0.720
-6.390E-06,-0.640
-6.380E-06,-0.640
-6.370E-06,-0.960
-6.360E-06,-0.880
-6.350E-06,-0.640
-6.340E-06,-0.720
-6.330E-06,-0.240
-6.320E-06,-0.160
-6.310E-06,-0.400
-6.300E-06,-0.240
-6.290E-06,-0.560
-6.280E-06,-0.480
-6.270E-06,-0.160
-6.260E-06,-0.320
-6.250E-06,-0.480
-6.240E-06,-0.640
-6.230E-06,-0.720
-6.220E-06,-0.640
-6.210E-06,-0.720
-6.200E-06,-0.640
-6.190E-06,-0.640
-6.180E-06,-0.720
-6.170E-06,-0.640
-6.160E-06,-0.560
-6.150E-06,-0.480
-6.140E-06,-0.480
-6.130E-06,-0.240
-6.120E-06,-0.160
-6.110E-06,-0.240
-6.100E-06,-0.160
-6.090E-06,-0.160
-6.080E-06,-0.160
-6.070E-06,-0.240
-6.060E-06,-0.240
-6.050E-06,-0.160
-6.040E-06,-0.320
-6.030E-06,-0.320
-6.020E-06,-0.320
-6.010E-06,-0.320
-6.000E-06,-0.240
-5.990E-06,-0.320
-5.980E-06,-0.480
-5.970E-06,-0.400
-5.960E-06,-0.320
-5.950E-06,-0.160
-5.940E-06,-0.080
-5.930E-06,-0.080
-5.920E-06,-0.080
-5.910E-06,-0.080
-5.900E-06,-0.240
-5.890E-06,-0.480
-5.880E-06,-0.400
-5.870E-06,-0.720
-5.860E-06,-0.640
-5.850E-06,-0.800
-5.840E-06,-0.720
-5.830E-06,-0.640
-5.820E-06,-0.640
-5.810E-06,-0.640
-5.800E-06,-0.720
-5.790E-06,-0.800
-5.780E-06,-0.800
-5.770E-06,-0.800
-5.760E-06,-0.720
-5.750E-06,-0.960
-5.740E-06,-1.040
-5.730E-06,-1.200
-5.720E-06,-1.120
-5.710E-06,-1.200
-5.700E-06,-1.120
-5.690E-06,-1.200
-5.680E-06,-1.200
-5.670E-06,-1.200
-5.660E-06,-1.120
-5.650E-06,-1.120
-5.640E-06,-1.200
-5.630E-06,-1.200
-5.620E-06,-1.040
-5.610E-06,-0.960
-5.600E-06,-0.880
-5.590E-06,-0.800
-5.580E-06,-0.640
-5.570E-06,-0.640
-5.560E-06,-0.560
-5.550E-06,-0.560
-5.540E-06,-0.560
-5.530E-06,-0.560
-5.520E-06,-0.480
-5.510E-06,-0.480
-5.500E-06,-0.480
-5.490E-06,-0.480
-5.480E-06,-0.560
-5.470E-06,-0.480
-5.460E-06,-0.640
-5.450E-06,-0.720
-5.440E-06,-0.640
-5.430E-06,-0.800
-5.420E-06,-1.040
-5.410E-06,-0.720
-5.400E-06,-0.480
-5.390E-06,-0.560
-5.380E-06,-0.480
-5.370E-06,-0.880
-5.360E-06,-1.040
-5.350E-06,-0.720
-5.340E-06,-0.560
-5.330E-06,-0.160
-5.320E-06,-0.160
-5.310E-06,-0.560
-5.300E-06,-0.880
-5.290E-06,-1.040
-5.280E-06,-1.040
-5.270E-06,-0.720
-5.260E-06,-0.800
-5.250E-06,-0.960
-5.240E-06,-1.040
-5.230E-06,-0.960
-5.220E-06,-0.720
-5.210E-06,-0.720
-5.200E-06,-0.800
-5.190E-06,-0.640
-5.180E-06,-0.720
-5.170E-06,-0.640
-5.160E-06,-0.720
-5.150E-06,-0.560
-5.140E-06,-0.560
-5.130E-06,-0.560
-5.120E-06,-0.560
-5.110E-06,-0.480
-5.100E-06,-0.480
-5.090E-06,-0.560
-5.080E-06,-0.480
-5.070E-06,-0.400
-5.060E-06,-0.320
-5.050E-06,-0.080
-5.040E-06,0.000
-5.030E-06,0.160
-5.020E-06,0.400
-5.010E-06,0.080
-5.000E-06,0.080
-4.990E-06,0.000
-4.980E-06,-0.080
-4.970E-06,-0.240
-4.960E-06,-0.400
-4.950E-06,-0.480
-4.940E-06,-0.640
-4.930E-06,-0.720
-4.920E-06,-0.640
-4.910E-06,-0.720
-4.900E-06,-0.800
-4.890E-06,-0.800
-4.880E-06,-0.960
-4.870E-06,-0.800
-4.860E-06,-0.640
-4.850E-06,-0.720
-4.840E-06,-0.560
-4.830E-06,-0.480
-4.820E-06,-0.480
-4.810E-06,-0.560
-4.800E-06,-0.640
-4.790E-06,-0.480
-4.780E-06,-0.480
-4.770E-06,-0.480
-4.760E-06,-0.240
-4.750E-06,-0.160
-4.740E-06,-0.160
-4.730E-06,-0.080
-4.720E-06,-0.080
-4.710E-06,-0.080
-4.700E-06,-0.080
-4.690E-06,-0.160
-4.680E-06,-0.080
-4.670E-06,-0.160
-4.660E-06,-0.400
-4.650E-06,-0.400
-4.640E-06,-0.480
-4.630E-06,-0.640
-4.620E-06,-0.720
-4.610E-06,-0.720
-4.600E-06,-0.800
-4.590E-06,-0.880
-4.580E-06,-0.800
-4.570E-06,-0.800
-4.560E-06,-0.640
-4.550E-06,-0.080
-4.540E-06,0.000
-4.530E-06,0.000
-4.520E-06,-0.320
-4.510E-06,-0.800
-4.500E-06,-1.040
-4.490E-06,-1.120
-4.480E-06,-1.120
-4.470E-06,-1.040
-4.460E-06,-1.520
-4.450E-06,-1.920
-4.440E-06,-1.920
-4.430E-06,-1.840
-4.420E-06,-1.520
-4.410E-06,-1.360
-4.400E-06,-1.280
-4.390E-06,-1.280
-4.380E-06,-1.120
-4.370E-06,-0.800
-4.360E-06,-0.640
-4.350E-06,-0.640
-4.340E-06,-0.640
-4.330E-06,-0.400
-4.320E-06,-0.400
-4.310E-06,-0.320
-4.300E-06,-0.320
-4.290E-06,-0.240
-4.280E-06,0.400
-4.270E-06,0.480
-4.260E-06,1.280
-4.250E-06,1.040
-4.240E-06,1.040
-4.230E-06,0.640
-4.220E-06,0.640
-4.210E-06,0.720
-4.200E-06,0.800
-4.190E-06,0.560
-4.180E-06,0.080
-4.170E-06,-0.160
-4.160E-06,-0.400
-4.150E-06,-0.480
-4.140E-06,-0.640
-4.130E-06,-0.720
-4.120E-06,-0.960
-4.110E-06,-1.040
-4.100E-06,-1.040
-4.090E-06,-1.120
-4.080E-06,-0.800
-4.070E-06,-0.800
-4.060E-06,-0.720
-4.050E-06,-0.720
-4.040E-06,-0.720
-4.030E-06,-0.640
-4.020E-06,-0.720
-4.010E-06,-0.480
-4.000E-06,-0.480
-3.990E-06,-0.320
-3.980E-06,-0.240
-3.970E-06,-0.080
-3.960E-06,0.160
-3.950E-06,0.240
-3.940E-06,0.320
-3.930E-06,0.240
-3.920E-06,0.400
-3.910E-06,0.320
-3.900E-06,0.240
-3.890E-06,0.240
-3.880E-06,0.160
-3.870E-06,0.000
-3.860E-06,-0.080
-3.850E-06,-0.240
-3.840E-06,-0.320
-3.830E-06,-0.400
-3.820E-06,-0.560
-3.810E-06,-0.800
-3.800E-06,-0.800
-3.790E-06,-0.880
-3.780E-06,-0.880
-3.770E-06,-0.960
-3.760E-06,-1.040
-3.750E-06,-1.200
-3.740E-06,-1.120
-3.730E-06,-1.040
-3.720E-06,-0.960
-3.710E-06,-0.960
-3.700E-06,-0.720
-3.690E-06,-0.720
-3.680E-06,-0.720
-3.670E-06,-0.480
-3.660E-06,-0.400
-3.650E-06,-0.400
-3.640E-06,-0.240
-3.630E-06,-0.160
-3.620E-06,-0.080
-3.610E-06,-0.160
-3.600E-06,-0.160
-3.590E-06,-0.080
-3.580E-06,-0.080
-3.570E-06,0.080
-3.560E-06,0.160
-3.550E-06,0.160
-3.540E-06,0.240
-3.530E-06,0.240
-3.520E-06,0.160
-3.510E-06,0.160
-3.500E-06,0.240
-3.490E-06,0.240
-3.480E-06,0.160
-3.470E-06,0.160
-3.460E-06,0.240
-3.450E-06,0.160
-3.440E-06,0.000
-3.430E-06,0.000
-3.420E-06,0.000
-3.410E-06,-0.080
-3.400E-06,-0.160
-3.390E-06,-0.080
-3.380E-06,-0.320
-3.370E-06,-0.320
-3.360E-06,-0.400
-3.350E-06,-0.400
-3.340E-06,-0.560
-3.330E-06,-0.400
-3.320E-06,-0.480
-3.310E-06,-0.480
-3.300E-06,-0.640
-3.290E-06,-0.640
-3.280E-06,-0.640
-3.270E-06,-0.640
-3.260E-06,-0.880
-3.250E-06,-0.800
-3.240E-06,-0.880
-3.230E-06,-0.960
-3.220E-06,-1.120
-3.210E-06,-1.200
-3.200E-06,-1.120
-3.190E-06,-1.280
-3.180E-06,-1.200
-3.170E-06,-1.280
-3.160E-06,-1.120
-3.150E-06,-1.120
-3.140E-06,-1.040
-3.130E-06,-0.960
-3.120E-06,-0.960
-3.110E-06,-1.040
-3.100E-06,-1.040
-3.090E-06,-1.040
-3.080E-06,-1.040
-3.070E-06,-1.040
-3.060E-06,-0.960
-3.050E-06,-0.960
-3.040E-06,-0.880
-3.030E-06,-0.720
-3.020E-06,-0.720
-3.010E-06,-0.640
-3.000E-06,-0.640
-2.990E-06,-0.720
-2.980E-06,-0.640
-2.970E-06,-0.640
-2.960E-06,-0.720
-2.950E-06,-0.720
-2.940E-06,-0.720
-2.930E-06,-0.720
-2.920E-06,-0.640
-2.910E-06,-0.640
-2.900E-06,-0.640
-2.890E-06,-0.560
-2.880E-06,-0.480
-2.870E-06,-0.400
-2.860E-06,-0.320
-2.850E-06,-0.240
-2.840E-06,-0.160
-2.830E-06,0.000
-2.820E-06,0.000
-2.810E-06,0.080
-2.800E-06,0.080
-2.790E-06,0.080
-2.780E-06,0.080
-2.770E-06,0.080
-2.760E-06,0.000
-2.750E-06,0.000
-2.740E-06,-0.240
-2.730E-06,-0.320
-2.720E-06,-0.320
-2.710E-06,-0.320
-2.700E-06,-0.320
-2.690E-06,-0.320
-2.680E-06,-0.400
-2.670E-06,-0.400
-2.660E-06,-0.400
-2.650E-06,-0.560
-2.640E-06,-0.640
-2.630E-06,-0.720
-2.620E-06,-0.720
-2.610E-06,-0.880
-2.600E-06,-1.200
-2.590E-06,-1.360
-2.580E-06,-1.520
-2.570E-06,-1.520
-2.560E-06,-1.680
-2.550E-06,-1.680
-2.540E-06,-1.840
-2.530E-06,-1.840
-2.520E-06,-1.600
-2.510E-06,-1.360
-2.500E-06,-1.280
-2.490E-06,-1.040
-2.480E-06,-1.360
-2.470E-06,-1.280
-2.460E-06,-1.520
-2.450E-06,-1.600
-2.440E-06,-1.600
-2.430E-06,-1.440
-2.420E-06,-1.840
-2.410E-06,-1.760
-2.400E-06,-1.920
-2.390E-06,-1.680
-2.380E-06,-1.520
-2.370E-06,-1.440
-2.360E-06,-1.440
-2.350E-06,-1.280
-2.340E-06,-1.040
-2.330E-06,-0.960
-2.320E-06,-0.800
-2.310E-06,-0.560
-2.300E-06,-0.480
-2.290E-06,-0.400
-2.280E-06,-0.400
-2.270E-06,-0.320
-2.260E-06,-0.320
-2.250E-06,-0.240
-2.240E-06,-0.320
-2.230E-06,-0.240
-2.220E-06,-0.320
-2.210E-06,-0.240
-2.200E-06,0.000
-2.190E-06,-0.080
-2.180E-06,-0.080
-2.170E-06,-0.160
-2.160E-06,-0.080
-2.150E-06,-0.160
-2.140E-06,-0.240
-2.130E-06,-0.240
-2.120E-06,-0.400
-2.110E-06,-0.640
-2.100E-06,-0.880
-2.090E-06,-1.200
-2.080E-06,-1.520
-2.070E-06,-1.600
-2.060E-06,-1.600
-2.050E-06,-1.360
-2.040E-06,-1.200
-2.030E-06,-0.800
-2.020E-06,-0.480
-2.010E-06,-0.720
-2.000E-06,-0.480
-1.990E-06,-0.560
-1.980E-06,-0.560
-1.970E-06,-0.560
-1.960E-06,-0.720
-1.950E-06,-0.880
-1.940E-06,-1.200
-1.930E-06,-1.360
-1.920E-06,-1.680
-1.910E-06,-1.680
-1.900E-06,-1.760
-1.890E-06,-1.760
-1.880E-06,-1.600
-1.870E-06,-1.680
-1.860E-06,-1.440
-1.850E-06,-1.520
-1.840E-06,-1.360
-1.830E-06,-1.280
-1.820E-06,-1.360
-1.810E-06,-1.280
-1.800E-06,-1.200
-1.790E-06,-1.360
-1.780E-06,-0.960
-1.770E-06,-1.040
-1.760E-06,-0.720
-1.750E-06,-0.480
-1.740E-06,-0.480
-1.730E-06,-0.400
-1.720E-06,-0.560
-1.710E-06,-0.640
-1.700E-06,-0.640
-1.690E-06,-0.720
-1.680E-06,-0.720
-1.670E-06,-0.800
-1.660E-06,-1.040
-1.650E-06,-0.960
-1.640E-06,-0.960
-1.630E-06,-0.960
-1.620E-06,-1.040
-1.610E-06,-0.960
-1.600E-06,-0.960
-1.590E-06,-0.880
-1.580E-06,-0.720
-1.570E-06,-0.560
-1.560E-06,-0.560
-1.550E-06,-0.480
-1.540E-06,-0.480
-1.530E-06,-0.560
-1.520E-06,-0.480
-1.510E-06,-0.400
-1.500E-06,-0.320
-1.490E-06,-0.320
-1.480E-06,-0.320
-1.470E-06,-0.080
-1.460E-06,-0.080
-1.450E-06,-0.080
-1.440E-06,0.000
-1.430E-06,0.080
-1.420E-06,0.000
-1.410E-06,-0.080
-1.400E-06,-0.080
-1.390E-06,-0.160
-1.380E-06,-0.240
-1.370E-06,-0.320
-1.360E-06,-0.480
-1.350E-06,-0.640
-1.340E-06,-0.720
-1.330E-06,-0.720
-1.320E-06,-0.720
-1.310E-06,-0.800
-1.300E-06,-0.800
-1.290E-06,-0.720
-1.280E-06,-0.720
-1.270E-06,-0.640
-1.260E-06,-0.560
-1.250E-06,-0.560
-1.240E-06,-0.480
-1.230E-06,-0.640
-1.220E-06,-0.720
-1.210E-06,-0.640
-1.200E-06,-0.720
-1.190E-06,-0.800
-1.180E-06,-0.960
-1.170E-06,-0.960
-1.160E-06,-0.960
-1.150E-06,-1.040
-1.140E-06,-0.960
-1.130E-06,-0.960
-1.120E-06,-0.880
-1.110E-06,-0.720
-1.100E-06,-0.560
-1.090E-06,-0.400
-1.080E-06,-0.160
-1.070E-06,-0.080
-1.060E-06,-0.320
-1.050E-06,-0.160
-1.040E-06,-0.480
-1.030E-06,-0.640
-1.020E-06,-0.880
-1.010E-06,-1.120
-1.000E-06,-1.360
-9.900E-07,-1.680
-9.800E-07,-2.000
-9.700E-07,-2.160
-9.600E-07,-2.480
-9.500E-07,-2.640
-9.400E-07,-2.880
-9.300E-07,-2.800
-9.200E-07,-2.720
-9.100E-07,-2.720
-9.000E-07,-2.560
-8.900E-07,-2.320
-8.800E-07,-2.080
-8.700E-07,-1.760
-8.600E-07,-1.520
-8.500E-07,-1.600
-8.400E-07,-1.600
-8.300E-07,-2.000
-8.200E-07,-2.080
-8.100E-07,-2.160
-8.000E-07,-2.240
-7.900E-07,-1.920
-7.800E-07,-1.440
-7.700E-07,-0.720
-7.600E-07,-0.160
-7.500E-07,0.320
-7.400E-07,0.000
-7.300E-07,-0.320
-7.200E-07,-1.040
-7.100E-07,-1.200
-7.000E-07,-1.200
-6.900E-07,-1.440
-6.800E-07,-2.080
-6.700E-07,-2.720
-6.600E-07,-2.880
-6.500E-07,-3.120
-6.400E-07,-2.960
-6.300E-07,-2.800
-6.200E-07,-2.560
-6.100E-07,-2.080
-6.000E-07,-1.680
-5.900E-07,-1.280
-5.800E-07,-0.800
-5.700E-07,-0.640
-5.600E-07,-0.400
-5.500E-07,-0.240
-5.400E-07,-0.080
-5.300E-07,0.000
-5.200E-07,-0.080
-5.100E-07,0.000
-5.000E-07,-0.080
-4.900E-07,0.160
-4.800E-07,0.240
-4.700E-07,0.240
-4.600E-07,0.400
-4.500E-07,0.480
-4.400E-07,0.720
-4.300E-07,0.720
-4.200E-07,0.720
-4.100E-07,0.720
-4.000E-07,0.640
-3.900E-07,0.720
-3.800E-07,0.560
-3.700E-07,0.480
-3.600E-07,0.160
-3.500E-07,-0.080
-3.400E-07,-0.400
-3.300E-07,-0.640
-3.200E-07,-0.880
-3.100E-07,-1.040
-3.000E-07,-1.120
-2.900E-07,-1.360
-2.800E-07,-1.200
-2.700E-07,-1.280
-2.600E-07,-1.200
-2.500E-07,-1.040
-2.400E-07,-1.040
-2.300E-07,-0.960
-2.200E-07,-0.960
-2.100E-07,-1.040
-2.000E-07,-0.960
-1.900E-07,-1.120
-1.800E-07,-1.280
-1.700E-07,-1.360
-1.600E-07,-1.680
-1.500E-07,-1.760
-1.400E-07,-2.080
-1.300E-07,-2.240
-1.200E-07,-2.480
-1.100E-07,-2.720
-1.000E-07,-2.800
-9.000E-08,-3.120
-8.000E-08,-3.520
-7.000E-08,-3.440
-6.000E-08,-3.360
-5.000E-08,-2.560
-4.000E-08,-2.480
-3.000E-08,-1.760
-2.000E-08,-2.080
-1.000E-08,-2.160
0.000E+00,-2.720
1.000E-08,-2.880
2.000E-08,-2.480
3.000E-08,-1.760
4.000E-08,-1.120
5.000E-08,-0.320
6.000E-08,-0.160
7.000E-08,-0.320
8.000E-08,-0.640
9.000E-08,-0.960
1.000E-07,-1.200
1.100E-07,-1.680
1.200E-07,-1.840
1.300E-07,-2.160
1.400E-07,-2.400
1.500E-07,-2.640
1.600E-07,-2.720
1.700E-07,-2.720
1.800E-07,-2.400
1.900E-07,-1.680
2.000E-07,-1.440
2.100E-07,-0.960
2.200E-07,-1.200
2.300E-07,-1.360
2.400E-07,-1.440
2.500E-07,-1.840
2.600E-07,-2.160
2.700E-07,-2.720
2.800E-07,-2.880
2.900E-07,-3.120
3.000E-07,-3.120
3.100E-07,-3.200
3.200E-07,-3.120
3.300E-07,-2.720
3.400E-07,-2.320
3.500E-07,-1.600
3.600E-07,-1.200
3.700E-07,-0.800
3.800E-07,-0.560
3.900E-07,-0.560
4.000E-07,-0.400
4.100E-07,-0.320
4.200E-07,-0.400
4.300E-07,-0.240
4.400E-07,-0.320
4.500E-07,-0.160
4.600E-07,-0.320
4.700E-07,-0.320
4.800E-07,-0.480
4.900E-07,-0.560
5.000E-07,-0.480
5.100E-07,-0.480
5.200E-07,-0.240
5.300E-07,-0.240
5.400E-07,-0.160
5.500E-07,-0.160
5.600E-07,-0.240
5.700E-07,-0.400
5.800E-07,-0.560
5.900E-07,-0.640
6.000E-07,-1.120
6.100E-07,-1.360
6.200E-07,-1.600
6.300E-07,-1.920
6.400E-07,-2.240
6.500E-07,-2.400
6.600E-07,-2.080
6.700E-07,-1.680
6.800E-07,-0.800
6.900E-07,-0.080
7.000E-07,0.240
7.100E-07,0.240
7.200E-07,-0.080
7.300E-07,-0.400
7.400E-07,-0.800
7.500E-07,-1.200
7.600E-07,-1.360
7.700E-07,-1.840
7.800E-07,-1.920
7.900E-07,-2.240
8.000E-07,-2.080
8.100E-07,-2.240
8.200E-07,-2.400
8.300E-07,-2.560
8.400E-07,-2.560
8.500E-07,-2.400
8.600E-07,-2.480
8.700E-07,-2.240
8.800E-07,-2.320
8.900E-07,-2.320
9.000E-07,-2.400
9.100E-07,-2.320
9.200E-07,-2.160
9.300E-07,-2.160
9.400E-07,-2.320
9.500E-07,-2.240
9.600E-07,-2.080
9.700E-07,-2.080
9.800E-07,-2.080
9.900E-07,-1.920
1.000E-06,-1.840
1.010E-06,-1.600
1.020E-06,-1.360
1.030E-06,-1.280
1.040E-06,-1.120
1.050E-06,-0.800
1.060E-06,-0.720
1.070E-06,-0.640
1.080E-06,-0.560
1.090E-06,-0.480
1.100E-06,-0.480
1.110E-06,-0.720
1.120E-06,-0.880
1.130E-06,-1.040
1.140E-06,-1.360
1.150E-06,-1.680
1.160E-06,-2.080
1.170E-06,-2.480
1.180E-06,-2.720
1.190E-06,-3.120
1.200E-06,-3.360
1.210E-06,-3.760
1.220E-06,-3.840
1.230E-06,-4.000
1.240E-06,-4.160
1.250E-06,-4.320
1.260E-06,-4.240
1.270E-06,-4.400
1.280E-06,-4.400
1.290E-06,-4.480
1.300E-06,-4.480
1.310E-06,-4.640
1.320E-06,-4.560
1.330E-06,-4.640
1.340E-06,-4.720
1.350E-06,-4.800
1.360E-06,-4.960
1.370E-06,-5.200
1.380E-06,-5.440
1.390E-06,-5.520
1.400E-06,-5.920
1.410E-06,-6.240
1.420E-06,-6.320
1.430E-06,-6.720
1.440E-06,-6.960
1.450E-06,-6.880
1.460E-06,-7.120
1.470E-06,-7.040
1.480E-06,-7.200
1.490E-06,-7.440
1.500E-06,-7.600
1.510E-06,-7.600
1.520E-06,-7.680
1.530E-06,-7.920
1.540E-06,-7.840
1.550E-06,-7.840
1.560E-06,-7.600
1.570E-06,-7.600
1.580E-06,-7.360
1.590E-06,-7.280
1.600E-06,-7.040
1.610E-06,-6.640
1.620E-06,-6.560
1.630E-06,-6.240
1.640E-06,-6.080
1.650E-06,-5.920
1.660E-06,-5.840
1.670E-06,-5.680
1.680E-06,-5.680
1.690E-06,-5.600
1.700E-06,-5.360
1.710E-06,-5.360
1.720E-06,-5.360
1.730E-06,-5.200
1.740E-06,-5.040
1.750E-06,-4.800
1.760E-06,-4.640
1.770E-06,-4.560
1.780E-06,-4.320
1.790E-06,-4.160
1.800E-06,-3.840
1.810E-06,-3.680
1.820E-06,-3.520
1.830E-06,-3.360
1.840E-06,-3.040
1.850E-06,-2.880
1.860E-06,-2.720
1.870E-06,-2.640
1.880E-06,-2.400
1.890E-06,-2.160
1.900E-06,-2.000
1.910E-06,-1.680
1.920E-06,-1.600
1.930E-06,-1.440
1.940E-06,-1.360
1.950E-06,-1.360
1.960E-06,-1.040
1.970E-06,-1.040
1.980E-06,-0.960
1.990E-06,-0.800
2.000E-06,-0.560
2.010E-06,-0.400
2.020E-06,-0.240
2.030E-06,-0.240
2.040E-06,0.000
2.050E-06,0.080
2.060E-06,0.080
2.070E-06,0.080
2.080E-06,-0.080
2.090E-06,0.000
2.100E-06,-0.240
2.110E-06,-0.240
2.120E-06,-0.320
2.130E-06,-0.480
2.140E-06,-0.480
2.150E-06,-0.560
2.160E-06,-0.560
2.170E-06,-0.480
2.180E-06,-0.560
2.190E-06,-0.400
2.200E-06,-0.400
2.210E-06,-0.320
2.220E-06,-0.240
2.230E-06,-0.160
2.240E-06,-0.080
2.250E-06,0.000
2.260E-06,0.080
2.270E-06,0.240
2.280E-06,0.160
2.290E-06,0.480
2.300E-06,0.560
2.310E-06,0.720
2.320E-06,0.960
2.330E-06,1.040
2.340E-06,1.280
2.350E-06,1.440
2.360E-06,1.520
2.370E-06,1.440
2.380E-06,1.360
2.390E-06,1.200
2.400E-06,1.200
2.410E-06,1.120
2.420E-06,1.120
2.430E-06,1.200
2.440E-06,1.200
2.450E-06,1.360
2.460E-06,1.360
2.470E-06,1.520
2.480E-06,1.600
2.490E-06,1.520
2.500E-06,1.600
2.510E-06,1.680
2.520E-06,1.600
2.530E-06,1.520
2.540E-06,1.600
2.550E-06,1.600
2.560E-06,1.600
2.570E-06,1.520
2.580E-06,1.600
2.590E-06,1.600
2.600E-06,1.680
2.610E-06,1.600
2.620E-06,1.520
2.630E-06,1.440
2.640E-06,1.440
2.650E-06,1.440
2.660E-06,1.200
2.670E-06,1.200
2.680E-06,1.200
2.690E-06,1.280
2.700E-06,1.200
2.710E-06,1.360
2.720E-06,1.360
2.730E-06,1.360
2.740E-06,1.200
2.750E-06,1.280
2.760E-06,1.200
2.770E-06,1.280
2.780E-06,1.280
2.790E-06,1.200
2.800E-06,1.280
2.810E-06,1.200
2.820E-06,1.200
2.830E-06,1.120
2.840E-06,1.120
2.850E-06,1.200
2.860E-06,1.360
2.870E-06,1.360
2.880E-06,1.280
2.890E-06,1.440
2.900E-06,1.440
2.910E-06,1.440
2.920E-06,1.440
