mediciones/5-15/32.5/WaveData4790.csv

#timebase=2000000(ps)
,#voltbase=100000(mv/100)
#size=4000
-8.400E-06,0.000
-8.390E-06,0.004
-8.380E-06,0.004
-8.370E-06,0.000
-8.360E-06,-0.004
-8.350E-06,0.000
-8.340E-06,0.000
-8.330E-06,0.004
-8.320E-06,0.000
-8.310E-06,-0.004
-8.300E-06,0.004
-8.290E-06,0.000
-8.280E-06,0.004
-8.270E-06,0.004
-8.260E-06,0.004
-8.250E-06,0.004
-8.240E-06,0.000
-8.230E-06,0.000
-8.220E-06,0.004
-8.210E-06,0.008
-8.200E-06,0.000
-8.190E-06,0.004
-8.180E-06,0.004
-8.170E-06,0.004
-8.160E-06,0.004
-8.150E-06,0.004
-8.140E-06,0.004
-8.130E-06,0.004
-8.120E-06,0.000
-8.110E-06,0.004
-8.100E-06,0.008
-8.090E-06,0.008
-8.080E-06,0.000
-8.070E-06,0.004
-8.060E-06,0.004
-8.050E-06,0.004
-8.040E-06,0.004
-8.030E-06,0.000
-8.020E-06,0.004
-8.010E-06,0.000
-8.000E-06,0.004
-7.990E-06,0.004
-7.980E-06,0.004
-7.970E-06,0.004
-7.960E-06,0.004
-7.950E-06,0.004
-7.940E-06,0.004
-7.930E-06,0.004
-7.920E-06,0.004
-7.910E-06,0.004
-7.900E-06,0.004
-7.890E-06,0.004
-7.880E-06,0.004
-7.870E-06,0.000
-7.860E-06,0.004
-7.850E-06,0.004
-7.840E-06,0.004
-7.830E-06,0.000
-7.820E-06,0.004
-7.810E-06,0.008
-7.800E-06,0.008
-7.790E-06,0.008
-7.780E-06,0.000
-7.770E-06,0.004
-7.760E-06,0.004
-7.750E-06,0.000
-7.740E-06,0.008
-7.730E-06,0.000
-7.720E-06,-0.004
-7.710E-06,0.004
-7.700E-06,0.004
-7.690E-06,0.004
-7.680E-06,0.004
-7.670E-06,0.008
-7.660E-06,0.008
-7.650E-06,0.004
-7.640E-06,-0.004
-7.630E-06,0.000
-7.620E-06,0.000
-7.610E-06,0.000
-7.600E-06,0.000
-7.590E-06,0.004
-7.580E-06,0.004
-7.570E-06,0.004
-7.560E-06,0.004
-7.550E-06,0.008
-7.540E-06,0.008
-7.530E-06,0.008
-7.520E-06,0.000
-7.510E-06,0.004
-7.500E-06,0.004
-7.490E-06,0.004
-7.480E-06,0.000
-7.470E-06,0.004
-7.460E-06,0.008
-7.450E-06,0.008
-7.440E-06,0.008
-7.430E-06,0.004
-7.420E-06,0.000
-7.410E-06,0.000
-7.400E-06,0.004
-7.390E-06,0.004
-7.380E-06,0.008
-7.370E-06,0.008
-7.360E-06,0.000
-7.350E-06,0.000
-7.340E-06,0.004
-7.330E-06,0.004
-7.320E-06,0.004
-7.310E-06,0.000
-7.300E-06,0.000
-7.290E-06,0.000
-7.280E-06,0.004
-7.270E-06,0.000
-7.260E-06,0.000
-7.250E-06,0.004
-7.240E-06,0.008
-7.230E-06,-0.004
-7.220E-06,0.004
-7.210E-06,0.004
-7.200E-06,0.004
-7.190E-06,0.000
-7.180E-06,0.000
-7.170E-06,0.000
-7.160E-06,0.004
-7.150E-06,0.000
-7.140E-06,0.004
-7.130E-06,0.000
-7.120E-06,0.004
-7.110E-06,-0.004
-7.100E-06,-0.004
-7.090E-06,0.000
-7.080E-06,0.008
-7.070E-06,0.004
-7.060E-06,0.000
-7.050E-06,0.000
-7.040E-06,0.000
-7.030E-06,0.004
-7.020E-06,0.000
-7.010E-06,0.000
-7.000E-06,0.004
-6.990E-06,0.004
-6.980E-06,0.004
-6.970E-06,0.000
-6.960E-06,0.004
-6.950E-06,0.000
-6.940E-06,0.004
-6.930E-06,0.004
-6.920E-06,0.004
-6.910E-06,0.008
-6.900E-06,0.000
-6.890E-06,0.004
-6.880E-06,0.004
-6.870E-06,0.004
-6.860E-06,0.004
-6.850E-06,0.000
-6.840E-06,0.000
-6.830E-06,0.000
-6.820E-06,0.000
-6.810E-06,0.004
-6.800E-06,0.004
-6.790E-06,0.000
-6.780E-06,0.004
-6.770E-06,0.004
-6.760E-06,0.004
-6.750E-06,0.000
-6.740E-06,0.004
-6.730E-06,0.004
-6.720E-06,0.000
-6.710E-06,0.000
-6.700E-06,0.000
-6.690E-06,0.004
-6.680E-06,0.004
-6.670E-06,0.004
-6.660E-06,0.004
-6.650E-06,0.004
-6.640E-06,0.000
-6.630E-06,0.004
-6.620E-06,0.000
-6.610E-06,0.004
-6.600E-06,0.004
-6.590E-06,0.004
-6.580E-06,0.004
-6.570E-06,0.008
-6.560E-06,0.000
-6.550E-06,-0.004
-6.540E-06,0.004
-6.530E-06,0.000
-6.520E-06,0.000
-6.510E-06,0.004
-6.500E-06,0.004
-6.490E-06,0.004
-6.480E-06,0.004
-6.470E-06,0.004
-6.460E-06,0.008
-6.450E-06,0.000
-6.440E-06,0.000
-6.430E-06,0.004
-6.420E-06,0.000
-6.410E-06,0.004
-6.400E-06,0.004
-6.390E-06,0.004
-6.380E-06,-0.004
-6.370E-06,0.004
-6.360E-06,0.004
-6.350E-06,0.008
-6.340E-06,0.000
-6.330E-06,0.000
-6.320E-06,0.004
-6.310E-06,0.024
-6.300E-06,0.076
-6.290E-06,0.120
-6.280E-06,0.120
-6.270E-06,0.036
-6.260E-06,-0.108
-6.250E-06,-0.224
-6.240E-06,-0.220
-6.230E-06,-0.092
-6.220E-06,0.140
-6.210E-06,0.264
-6.200E-06,0.208
-6.190E-06,0.088
-6.180E-06,-0.100
-6.170E-06,-0.220
-6.160E-06,-0.152
-6.150E-06,-0.040
-6.140E-06,0.096
-6.130E-06,0.172
-6.120E-06,0.156
-6.110E-06,0.036
-6.100E-06,-0.056
-6.090E-06,-0.120
-6.080E-06,-0.124
-6.070E-06,-0.072
-6.060E-06,0.008
-6.050E-06,0.072
-6.040E-06,0.108
-6.030E-06,0.108
-6.020E-06,0.052
-6.010E-06,-0.020
-6.000E-06,-0.084
-5.990E-06,-0.088
-5.980E-06,-0.048
-5.970E-06,0.028
-5.960E-06,0.092
-5.950E-06,0.096
-5.940E-06,0.052
-5.930E-06,-0.028
-5.920E-06,-0.084
-5.910E-06,-0.108
-5.900E-06,-0.068
-5.890E-06,-0.004
-5.880E-06,0.060
-5.870E-06,0.096
-5.860E-06,0.076
-5.850E-06,0.028
-5.840E-06,-0.020
-5.830E-06,-0.056
-5.820E-06,-0.044
-5.810E-06,-0.008
-5.800E-06,0.024
-5.790E-06,0.040
-5.780E-06,0.044
-5.770E-06,0.028
-5.760E-06,-0.004
-5.750E-06,-0.036
-5.740E-06,-0.048
-5.730E-06,-0.032
-5.720E-06,0.004
-5.710E-06,0.032
-5.700E-06,0.044
-5.690E-06,0.044
-5.680E-06,0.028
-5.670E-06,0.000
-5.660E-06,-0.016
-5.650E-06,-0.020
-5.640E-06,-0.008
-5.630E-06,0.012
-5.620E-06,0.012
-5.610E-06,0.024
-5.600E-06,0.012
-5.590E-06,0.000
-5.580E-06,-0.016
-5.570E-06,-0.020
-5.560E-06,-0.008
-5.550E-06,-0.004
-5.540E-06,0.012
-5.530E-06,0.020
-5.520E-06,0.012
-5.510E-06,0.008
-5.500E-06,0.008
-5.490E-06,-0.012
-5.480E-06,-0.004
-5.470E-06,-0.004
-5.460E-06,0.008
-5.450E-06,0.004
-5.440E-06,0.000
-5.430E-06,0.000
-5.420E-06,-0.004
-5.410E-06,-0.008
-5.400E-06,-0.004
-5.390E-06,0.008
-5.380E-06,0.004
-5.370E-06,0.012
-5.360E-06,0.016
-5.350E-06,0.016
-5.340E-06,0.000
-5.330E-06,0.000
-5.320E-06,0.004
-5.310E-06,0.000
-5.300E-06,0.004
-5.290E-06,0.004
-5.280E-06,0.004
-5.270E-06,0.000
-5.260E-06,0.000
-5.250E-06,0.000
-5.240E-06,-0.004
-5.230E-06,-0.004
-5.220E-06,0.008
-5.210E-06,0.008
-5.200E-06,0.008
-5.190E-06,0.004
-5.180E-06,0.004
-5.170E-06,0.000
-5.160E-06,0.008
-5.150E-06,0.008
-5.140E-06,0.008
-5.130E-06,0.008
-5.120E-06,0.016
-5.110E-06,0.008
-5.100E-06,0.004
-5.090E-06,-0.004
-5.080E-06,0.008
-5.070E-06,0.008
-5.060E-06,0.008
-5.050E-06,0.012
-5.040E-06,0.004
-5.030E-06,0.004
-5.020E-06,0.000
-5.010E-06,0.000
-5.000E-06,-0.012
-4.990E-06,0.004
-4.980E-06,0.004
-4.970E-06,0.012
-4.960E-06,0.004
-4.950E-06,0.016
-4.940E-06,0.012
-4.930E-06,0.000
-4.920E-06,-0.012
-4.910E-06,-0.032
-4.900E-06,-0.020
-4.890E-06,0.000
-4.880E-06,0.024
-4.870E-06,0.036
-4.860E-06,0.024
-4.850E-06,0.000
-4.840E-06,-0.028
-4.830E-06,-0.028
-4.820E-06,-0.012
-4.810E-06,0.016
-4.800E-06,0.032
-4.790E-06,0.032
-4.780E-06,0.016
-4.770E-06,0.000
-4.760E-06,-0.020
-4.750E-06,-0.016
-4.740E-06,-0.004
-4.730E-06,0.012
-4.720E-06,0.012
-4.710E-06,0.012
-4.700E-06,0.008
-4.690E-06,0.008
-4.680E-06,0.000
-4.670E-06,-0.004
-4.660E-06,0.000
-4.650E-06,0.000
-4.640E-06,0.012
-4.630E-06,0.016
-4.620E-06,0.020
-4.610E-06,0.012
-4.600E-06,0.008
-4.590E-06,0.016
-4.580E-06,0.004
-4.570E-06,0.000
-4.560E-06,-0.008
-4.550E-06,-0.004
-4.540E-06,-0.004
-4.530E-06,0.004
-4.520E-06,0.004
-4.510E-06,0.024
-4.500E-06,0.008
-4.490E-06,-0.008
-4.480E-06,-0.028
-4.470E-06,-0.020
-4.460E-06,0.012
-4.450E-06,0.020
-4.440E-06,0.020
-4.430E-06,0.008
-4.420E-06,-0.008
-4.410E-06,-0.032
-4.400E-06,-0.008
-4.390E-06,0.004
-4.380E-06,0.008
-4.370E-06,0.012
-4.360E-06,0.004
-4.350E-06,-0.004
-4.340E-06,-0.004
-4.330E-06,0.004
-4.320E-06,0.008
-4.310E-06,0.000
-4.300E-06,-0.004
-4.290E-06,-0.004
-4.280E-06,0.004
-4.270E-06,0.012
-4.260E-06,0.012
-4.250E-06,0.008
-4.240E-06,0.000
-4.230E-06,-0.004
-4.220E-06,0.000
-4.210E-06,0.004
-4.200E-06,0.012
-4.190E-06,0.016
-4.180E-06,0.008
-4.170E-06,0.004
-4.160E-06,-0.008
-4.150E-06,0.000
-4.140E-06,0.004
-4.130E-06,0.012
-4.120E-06,0.012
-4.110E-06,0.008
-4.100E-06,0.004
-4.090E-06,0.004
-4.080E-06,0.000
-4.070E-06,0.004
-4.060E-06,0.004
-4.050E-06,0.012
-4.040E-06,0.012
-4.030E-06,0.024
-4.020E-06,0.028
-4.010E-06,0.028
-4.000E-06,-0.024
-3.990E-06,-0.024
-3.980E-06,-0.028
-3.970E-06,-0.012
-3.960E-06,0.008
-3.950E-06,0.036
-3.940E-06,0.032
-3.930E-06,-0.004
-3.920E-06,-0.008
-3.910E-06,-0.024
-3.900E-06,-0.028
-3.890E-06,-0.004
-3.880E-06,0.004
-3.870E-06,0.028
-3.860E-06,0.032
-3.850E-06,0.004
-3.840E-06,-0.004
-3.830E-06,-0.044
-3.820E-06,-0.028
-3.810E-06,-0.004
-3.800E-06,0.024
-3.790E-06,0.048
-3.780E-06,0.036
-3.770E-06,0.008
-3.760E-06,-0.020
-3.750E-06,-0.040
-3.740E-06,-0.032
-3.730E-06,0.004
-3.720E-06,0.028
-3.710E-06,0.036
-3.700E-06,0.024
-3.690E-06,0.008
-3.680E-06,-0.012
-3.670E-06,-0.012
-3.660E-06,-0.008
-3.650E-06,0.000
-3.640E-06,0.012
-3.630E-06,0.020
-3.620E-06,0.020
-3.610E-06,0.012
-3.600E-06,0.012
-3.590E-06,-0.004
-3.580E-06,-0.004
-3.570E-06,0.004
-3.560E-06,0.012
-3.550E-06,0.008
-3.540E-06,0.012
-3.530E-06,0.012
-3.520E-06,0.012
-3.510E-06,0.008
-3.500E-06,0.008
-3.490E-06,0.004
-3.480E-06,0.008
-3.470E-06,0.012
-3.460E-06,0.008
-3.450E-06,0.008
-3.440E-06,0.004
-3.430E-06,0.004
-3.420E-06,0.012
-3.410E-06,0.024
-3.400E-06,0.036
-3.390E-06,0.040
-3.380E-06,0.036
-3.370E-06,0.036
-3.360E-06,0.008
-3.350E-06,-0.024
-3.340E-06,-0.056
-3.330E-06,-0.068
-3.320E-06,-0.040
-3.310E-06,0.016
-3.300E-06,0.064
-3.290E-06,0.084
-3.280E-06,0.060
-3.270E-06,0.004
-3.260E-06,-0.028
-3.250E-06,-0.052
-3.240E-06,-0.056
-3.230E-06,-0.056
-3.220E-06,0.016
-3.210E-06,0.056
-3.200E-06,0.024
-3.190E-06,0.032
-3.180E-06,-0.036
-3.170E-06,-0.052
-3.160E-06,-0.052
-3.150E-06,-0.008
-3.140E-06,0.016
-3.130E-06,0.024
-3.120E-06,0.028
-3.110E-06,0.000
-3.100E-06,-0.012
-3.090E-06,-0.036
-3.080E-06,-0.008
-3.070E-06,0.004
-3.060E-06,0.024
-3.050E-06,0.008
-3.040E-06,0.008
-3.030E-06,-0.004
-3.020E-06,-0.004
-3.010E-06,0.000
-3.000E-06,0.000
-2.990E-06,0.012
-2.980E-06,0.008
-2.970E-06,0.012
-2.960E-06,0.008
-2.950E-06,0.008
-2.940E-06,0.000
-2.930E-06,0.008
-2.920E-06,0.004
-2.910E-06,0.008
-2.900E-06,0.012
-2.890E-06,0.020
-2.880E-06,0.016
-2.870E-06,0.016
-2.860E-06,0.028
-2.850E-06,0.028
-2.840E-06,0.056
-2.830E-06,0.084
-2.820E-06,0.088
-2.810E-06,0.056
-2.800E-06,-0.012
-2.790E-06,-0.088
-2.780E-06,-0.104
-2.770E-06,-0.044
-2.760E-06,0.032
-2.750E-06,0.096
-2.740E-06,0.100
-2.730E-06,0.052
-2.720E-06,-0.044
-2.710E-06,-0.132
-2.700E-06,-0.164
-2.690E-06,-0.128
-2.680E-06,-0.052
-2.670E-06,0.084
-2.660E-06,0.160
-2.650E-06,0.108
-2.640E-06,0.016
-2.630E-06,-0.088
-2.620E-06,-0.128
-2.610E-06,-0.124
-2.600E-06,-0.028
-2.590E-06,0.072
-2.580E-06,0.124
-2.570E-06,0.112
-2.560E-06,0.032
-2.550E-06,-0.064
-2.540E-06,-0.124
-2.530E-06,-0.088
-2.520E-06,-0.024
-2.510E-06,0.064
-2.500E-06,0.088
-2.490E-06,0.076
-2.480E-06,0.020
-2.470E-06,-0.020
-2.460E-06,-0.052
-2.450E-06,-0.052
-2.440E-06,-0.012
-2.430E-06,0.024
-2.420E-06,0.052
-2.410E-06,0.056
-2.400E-06,0.044
-2.390E-06,0.008
-2.380E-06,-0.008
-2.370E-06,-0.024
-2.360E-06,-0.004
-2.350E-06,0.016
-2.340E-06,0.056
-2.330E-06,0.084
-2.320E-06,0.080
-2.310E-06,0.080
-2.300E-06,0.056
-2.290E-06,-0.036
-2.280E-06,-0.104
-2.270E-06,-0.128
-2.260E-06,-0.100
-2.250E-06,-0.016
-2.240E-06,0.076
-2.230E-06,0.116
-2.220E-06,0.088
-2.210E-06,0.024
-2.200E-06,-0.056
-2.190E-06,-0.088
-2.180E-06,-0.072
-2.170E-06,0.004
-2.160E-06,0.052
-2.150E-06,0.060
-2.140E-06,0.044
-2.130E-06,0.004
-2.120E-06,-0.020
-2.110E-06,-0.040
-2.100E-06,-0.032
-2.090E-06,-0.008
-2.080E-06,0.008
-2.070E-06,0.020
-2.060E-06,0.024
-2.050E-06,0.032
-2.040E-06,0.032
-2.030E-06,0.012
-2.020E-06,0.000
-2.010E-06,-0.004
-2.000E-06,0.024
-1.990E-06,-0.016
-1.980E-06,-0.008
-1.970E-06,-0.040
-1.960E-06,-0.020
-1.950E-06,-0.028
-1.940E-06,-0.032
-1.930E-06,0.004
-1.920E-06,0.044
-1.910E-06,0.060
-1.900E-06,0.036
-1.890E-06,0.008
-1.880E-06,-0.024
-1.870E-06,-0.024
-1.860E-06,0.004
-1.850E-06,0.056
-1.840E-06,0.056
-1.830E-06,0.036
-1.820E-06,-0.040
-1.810E-06,-0.100
-1.800E-06,-0.088
-1.790E-06,-0.028
-1.780E-06,0.084
-1.770E-06,0.100
-1.760E-06,0.072
-1.750E-06,0.012
-1.740E-06,-0.032
-1.730E-06,-0.040
-1.720E-06,-0.012
-1.710E-06,0.032
-1.700E-06,0.060
-1.690E-06,0.076
-1.680E-06,0.056
-1.670E-06,0.036
-1.660E-06,0.048
-1.650E-06,0.072
-1.640E-06,0.016
-1.630E-06,-0.048
-1.620E-06,-0.112
-1.610E-06,-0.132
-1.600E-06,-0.076
-1.590E-06,0.008
-1.580E-06,0.116
-1.570E-06,0.120
-1.560E-06,0.052
-1.550E-06,-0.056
-1.540E-06,-0.096
-1.530E-06,-0.112
-1.520E-06,-0.048
-1.510E-06,0.044
-1.500E-06,0.100
-1.490E-06,0.132
-1.480E-06,0.104
-1.470E-06,0.048
-1.460E-06,-0.032
-1.450E-06,-0.068
-1.440E-06,-0.072
-1.430E-06,-0.036
-1.420E-06,0.000
-1.410E-06,0.048
-1.400E-06,0.084
-1.390E-06,0.068
-1.380E-06,0.020
-1.370E-06,-0.012
-1.360E-06,-0.016
-1.350E-06,-0.052
-1.340E-06,0.000
-1.330E-06,0.040
-1.320E-06,0.072
-1.310E-06,0.040
-1.300E-06,0.000
-1.290E-06,-0.020
-1.280E-06,-0.036
-1.270E-06,0.000
-1.260E-06,-0.028
-1.250E-06,-0.056
-1.240E-06,-0.056
-1.230E-06,0.032
-1.220E-06,0.056
-1.210E-06,-0.020
-1.200E-06,-0.072
-1.190E-06,-0.084
-1.180E-06,-0.016
-1.170E-06,0.028
-1.160E-06,0.044
-1.150E-06,0.000
-1.140E-06,-0.016
-1.130E-06,-0.032
-1.120E-06,-0.008
-1.110E-06,0.008
-1.100E-06,0.008
-1.090E-06,0.024
-1.080E-06,0.008
-1.070E-06,0.012
-1.060E-06,-0.008
-1.050E-06,0.012
-1.040E-06,-0.008
-1.030E-06,0.004
-1.020E-06,0.004
-1.010E-06,0.012
-1.000E-06,0.008
-9.900E-07,0.012
-9.800E-07,0.004
-9.700E-07,0.008
-9.600E-07,0.032
-9.500E-07,0.028
-9.400E-07,0.040
-9.300E-07,0.024
-9.200E-07,0.004
-9.100E-07,-0.024
-9.000E-07,-0.028
-8.900E-07,-0.008
-8.800E-07,0.024
-8.700E-07,0.064
-8.600E-07,0.096
-8.500E-07,0.096
-8.400E-07,0.060
-8.300E-07,0.040
-8.200E-07,-0.004
-8.100E-07,-0.008
-8.000E-07,0.000
-7.900E-07,0.028
-7.800E-07,0.028
-7.700E-07,0.024
-7.600E-07,0.000
-7.500E-07,0.000
-7.400E-07,0.012
-7.300E-07,0.024
-7.200E-07,0.036
-7.100E-07,0.008
-7.000E-07,-0.016
-6.900E-07,-0.040
-6.800E-07,-0.048
-6.700E-07,-0.012
-6.600E-07,0.056
-6.500E-07,0.116
-6.400E-07,0.088
-6.300E-07,0.032
-6.200E-07,-0.040
-6.100E-07,-0.056
-6.000E-07,-0.012
-5.900E-07,0.016
-5.800E-07,0.016
-5.700E-07,-0.004
-5.600E-07,-0.036
-5.500E-07,-0.040
-5.400E-07,-0.024
-5.300E-07,-0.004
-5.200E-07,0.028
-5.100E-07,0.012
-5.000E-07,0.016
-4.900E-07,-0.036
-4.800E-07,-0.060
-4.700E-07,-0.064
-4.600E-07,-0.040
-4.500E-07,0.024
-4.400E-07,0.060
-4.300E-07,0.092
-4.200E-07,0.072
-4.100E-07,0.068
-4.000E-07,-0.004
-3.900E-07,-0.048
-3.800E-07,-0.064
-3.700E-07,-0.032
-3.600E-07,0.024
-3.500E-07,0.080
-3.400E-07,0.108
-3.300E-07,0.096
-3.200E-07,0.056
-3.100E-07,-0.012
-3.000E-07,-0.044
-2.900E-07,-0.028
-2.800E-07,0.048
-2.700E-07,0.128
-2.600E-07,0.176
-2.500E-07,0.156
-2.400E-07,0.096
-2.300E-07,0.024
-2.200E-07,-0.004
-2.100E-07,0.012
-2.000E-07,0.032
-1.900E-07,0.092
-1.800E-07,0.088
-1.700E-07,0.084
-1.600E-07,0.024
-1.500E-07,-0.012
-1.400E-07,-0.084
-1.300E-07,-0.176
-1.200E-07,-0.196
-1.100E-07,-0.240
-1.000E-07,-0.116
-9.000E-08,0.032
-8.000E-08,0.296
-7.000E-08,0.272
-6.000E-08,-0.076
-5.000E-08,-0.512
-4.000E-08,-0.508
-3.000E-08,-0.268
-2.000E-08,0.060
-1.000E-08,0.496
0.000E+00,0.436
1.000E-08,0.248
2.000E-08,-0.088
3.000E-08,-0.352
4.000E-08,-0.304
5.000E-08,-0.160
6.000E-08,0.096
7.000E-08,0.156
8.000E-08,0.244
9.000E-08,0.048
1.000E-07,-0.008
1.100E-07,-0.124
1.200E-07,-0.088
1.300E-07,-0.088
1.400E-07,-0.036
1.500E-07,0.028
1.600E-07,0.080
1.700E-07,0.160
1.800E-07,0.108
1.900E-07,0.096
2.000E-07,-0.012
2.100E-07,0.004
2.200E-07,0.000
2.300E-07,0.084
2.400E-07,0.072
2.500E-07,0.092
2.600E-07,0.076
2.700E-07,0.052
2.800E-07,0.036
2.900E-07,0.024
3.000E-07,-0.056
3.100E-07,-0.216
3.200E-07,-0.236
3.300E-07,-0.216
3.400E-07,-0.028
3.500E-07,0.088
3.600E-07,0.224
3.700E-07,0.196
3.800E-07,0.028
3.900E-07,-0.156
4.000E-07,-0.236
4.100E-07,-0.168
4.200E-07,-0.036
4.300E-07,0.140
4.400E-07,0.176
4.500E-07,0.152
4.600E-07,0.004
4.700E-07,-0.092
4.800E-07,-0.176
4.900E-07,-0.132
5.000E-07,-0.016
5.100E-07,0.108
5.200E-07,0.188
5.300E-07,0.168
5.400E-07,0.076
5.500E-07,-0.004
5.600E-07,-0.024
5.700E-07,-0.004
5.800E-07,0.088
5.900E-07,0.136
6.000E-07,0.168
6.100E-07,0.100
6.200E-07,-0.004
6.300E-07,-0.056
6.400E-07,-0.200
6.500E-07,-0.424
6.600E-07,-0.336
6.700E-07,-0.024
6.800E-07,0.108
6.900E-07,0.196
7.000E-07,0.184
7.100E-07,0.024
7.200E-07,-0.112
7.300E-07,-0.172
7.400E-07,-0.112
7.500E-07,-0.016
7.600E-07,0.088
7.700E-07,0.132
7.800E-07,0.092
7.900E-07,-0.044
8.000E-07,-0.128
8.100E-07,-0.120
8.200E-07,-0.040
8.300E-07,0.040
8.400E-07,0.084
8.500E-07,0.068
8.600E-07,0.024
8.700E-07,-0.016
8.800E-07,-0.056
8.900E-07,-0.036
9.000E-07,0.008
9.100E-07,0.060
9.200E-07,0.076
9.300E-07,0.052
9.400E-07,0.008
9.500E-07,-0.024
9.600E-07,-0.024
9.700E-07,0.012
9.800E-07,0.060
9.900E-07,0.092
1.000E-06,0.100
1.010E-06,0.076
1.020E-06,0.060
1.030E-06,0.072
1.040E-06,0.100
1.050E-06,0.112
1.060E-06,0.116
1.070E-06,0.088
1.080E-06,-0.028
1.090E-06,-0.072
1.100E-06,-0.040
1.110E-06,0.028
1.120E-06,0.108
1.130E-06,0.144
1.140E-06,0.100
1.150E-06,-0.032
1.160E-06,-0.240
1.170E-06,-0.468
1.180E-06,-0.396
1.190E-06,-0.092
1.200E-06,0.168
1.210E-06,0.320
1.220E-06,0.228
1.230E-06,0.040
1.240E-06,-0.192
1.250E-06,-0.272
1.260E-06,-0.180
1.270E-06,-0.004
1.280E-06,0.136
1.290E-06,0.200
1.300E-06,0.128
1.310E-06,-0.004
1.320E-06,-0.100
1.330E-06,-0.124
1.340E-06,-0.068
1.350E-06,0.020
1.360E-06,0.100
1.370E-06,0.120
1.380E-06,0.144
1.390E-06,0.100
1.400E-06,0.028
1.410E-06,0.024
1.420E-06,0.092
1.430E-06,0.136
1.440E-06,0.160
1.450E-06,0.192
1.460E-06,0.176
1.470E-06,0.076
1.480E-06,-0.056
1.490E-06,-0.116
1.500E-06,-0.124
1.510E-06,-0.048
1.520E-06,0.072
1.530E-06,0.124
1.540E-06,0.112
1.550E-06,0.044
1.560E-06,-0.024
1.570E-06,-0.132
1.580E-06,-0.112
1.590E-06,0.016
1.600E-06,0.152
1.610E-06,0.208
1.620E-06,0.264
1.630E-06,0.176
1.640E-06,0.016
1.650E-06,-0.184
1.660E-06,-0.400
1.670E-06,-0.484
1.680E-06,-0.344
1.690E-06,-0.044
1.700E-06,0.208
1.710E-06,0.448
1.720E-06,0.332
1.730E-06,0.088
1.740E-06,-0.104
1.750E-06,-0.192
1.760E-06,0.036
1.770E-06,0.172
1.780E-06,0.128
1.790E-06,-0.256
1.800E-06,-0.460
1.810E-06,-0.380
1.820E-06,-0.124
1.830E-06,0.196
1.840E-06,0.360
1.850E-06,0.188
1.860E-06,-0.112
1.870E-06,-0.296
1.880E-06,-0.292
1.890E-06,-0.192
1.900E-06,-0.012
1.910E-06,0.128
1.920E-06,0.184
1.930E-06,0.152
1.940E-06,0.064
1.950E-06,0.036
1.960E-06,0.028
1.970E-06,-0.012
1.980E-06,0.004
1.990E-06,0.036
2.000E-06,0.112
2.010E-06,0.172
2.020E-06,0.220
2.030E-06,0.160
2.040E-06,-0.044
2.050E-06,-0.236
2.060E-06,-0.368
2.070E-06,-0.352
2.080E-06,-0.168
2.090E-06,0.100
2.100E-06,0.328
2.110E-06,0.320
2.120E-06,0.136
2.130E-06,-0.108
2.140E-06,-0.280
2.150E-06,-0.216
2.160E-06,-0.104
2.170E-06,0.104
2.180E-06,0.256
2.190E-06,0.288
2.200E-06,0.096
2.210E-06,-0.084
2.220E-06,-0.220
2.230E-06,-0.192
2.240E-06,-0.096
2.250E-06,0.012
2.260E-06,0.112
2.270E-06,0.152
2.280E-06,0.132
2.290E-06,0.036
2.300E-06,-0.064
2.310E-06,-0.188
2.320E-06,-0.160
2.330E-06,-0.028
2.340E-06,0.128
2.350E-06,0.156
2.360E-06,0.152
2.370E-06,0.068
2.380E-06,-0.072
2.390E-06,-0.136
2.400E-06,-0.076
2.410E-06,0.040
2.420E-06,0.092
2.430E-06,0.156
2.440E-06,0.160
2.450E-06,0.144
2.460E-06,0.060
2.470E-06,0.016
2.480E-06,0.016
2.490E-06,0.056
2.500E-06,0.092
2.510E-06,0.164
2.520E-06,0.204
2.530E-06,0.200
2.540E-06,0.172
2.550E-06,0.100
2.560E-06,0.060
2.570E-06,0.004
2.580E-06,-0.044
2.590E-06,-0.036
2.600E-06,0.016
2.610E-06,0.068
2.620E-06,0.108
2.630E-06,0.124
2.640E-06,0.092
2.650E-06,0.024
2.660E-06,-0.056
2.670E-06,-0.064
2.680E-06,-0.028
2.690E-06,0.092
2.700E-06,0.172
2.710E-06,0.256
2.720E-06,0.244
2.730E-06,0.192
2.740E-06,0.132
2.750E-06,0.156
2.760E-06,0.112
2.770E-06,0.120
2.780E-06,0.040
2.790E-06,-0.452
2.800E-06,-0.512
2.810E-06,-0.512
2.820E-06,-0.160
2.830E-06,0.536
2.840E-06,0.540
2.850E-06,0.540
2.860E-06,-0.300
2.870E-06,-0.512
2.880E-06,-0.512
2.890E-06,-0.512
2.900E-06,-0.076
2.910E-06,0.540
2.920E-06,0.540
2.930E-06,0.484
2.940E-06,-0.284
2.950E-06,-0.508
2.960E-06,-0.508
2.970E-06,-0.472
2.980E-06,0.052
2.990E-06,0.328
3.000E-06,0.536
3.010E-06,0.504
3.020E-06,0.340
3.030E-06,-0.092
3.040E-06,-0.308
3.050E-06,-0.368
3.060E-06,-0.104
3.070E-06,0.244
3.080E-06,0.532
3.090E-06,0.540
3.100E-06,0.376
3.110E-06,0.108
3.120E-06,-0.156
3.130E-06,-0.200
3.140E-06,-0.120
3.150E-06,0.108
3.160E-06,0.272
3.170E-06,0.412
3.180E-06,0.388
3.190E-06,0.256
3.200E-06,0.048
3.210E-06,-0.096
3.220E-06,-0.072
3.230E-06,0.060
3.240E-06,0.260
3.250E-06,0.368
3.260E-06,0.412
3.270E-06,0.304
3.280E-06,0.160
3.290E-06,0.032
