mediciones/5-15/32.5/WaveData47102.csv

#timebase=2000000(ps)
,#voltbase=100000(mv/100)
#size=4000
-8.400E-06,-0.004
-8.390E-06,0.000
-8.380E-06,0.004
-8.370E-06,0.004
-8.360E-06,0.004
-8.350E-06,0.004
-8.340E-06,0.008
-8.330E-06,0.008
-8.320E-06,0.008
-8.310E-06,0.000
-8.300E-06,0.000
-8.290E-06,0.004
-8.280E-06,-0.004
-8.270E-06,0.000
-8.260E-06,0.004
-8.250E-06,0.004
-8.240E-06,0.008
-8.230E-06,0.008
-8.220E-06,0.004
-8.210E-06,0.004
-8.200E-06,0.004
-8.190E-06,-0.004
-8.180E-06,0.008
-8.170E-06,0.008
-8.160E-06,0.004
-8.150E-06,-0.004
-8.140E-06,0.000
-8.130E-06,0.008
-8.120E-06,0.008
-8.110E-06,0.008
-8.100E-06,0.008
-8.090E-06,0.000
-8.080E-06,0.000
-8.070E-06,0.004
-8.060E-06,0.008
-8.050E-06,0.008
-8.040E-06,0.004
-8.030E-06,-0.004
-8.020E-06,0.000
-8.010E-06,0.004
-8.000E-06,0.008
-7.990E-06,0.004
-7.980E-06,0.000
-7.970E-06,0.004
-7.960E-06,-0.004
-7.950E-06,0.000
-7.940E-06,0.000
-7.930E-06,0.000
-7.920E-06,0.004
-7.910E-06,0.008
-7.900E-06,0.000
-7.890E-06,0.004
-7.880E-06,0.000
-7.870E-06,0.000
-7.860E-06,0.000
-7.850E-06,0.004
-7.840E-06,0.000
-7.830E-06,0.004
-7.820E-06,-0.004
-7.810E-06,0.004
-7.800E-06,0.000
-7.790E-06,0.000
-7.780E-06,-0.004
-7.770E-06,0.000
-7.760E-06,0.004
-7.750E-06,0.008
-7.740E-06,0.008
-7.730E-06,0.000
-7.720E-06,0.000
-7.710E-06,0.000
-7.700E-06,0.004
-7.690E-06,-0.004
-7.680E-06,0.004
-7.670E-06,0.008
-7.660E-06,0.004
-7.650E-06,0.000
-7.640E-06,-0.004
-7.630E-06,0.000
-7.620E-06,0.004
-7.610E-06,0.004
-7.600E-06,0.004
-7.590E-06,0.004
-7.580E-06,0.008
-7.570E-06,0.000
-7.560E-06,0.000
-7.550E-06,0.000
-7.540E-06,-0.004
-7.530E-06,0.000
-7.520E-06,0.000
-7.510E-06,0.004
-7.500E-06,0.000
-7.490E-06,-0.004
-7.480E-06,0.000
-7.470E-06,0.000
-7.460E-06,0.000
-7.450E-06,0.004
-7.440E-06,0.004
-7.430E-06,0.000
-7.420E-06,0.000
-7.410E-06,0.004
-7.400E-06,0.004
-7.390E-06,0.004
-7.380E-06,0.004
-7.370E-06,0.000
-7.360E-06,0.000
-7.350E-06,0.000
-7.340E-06,0.000
-7.330E-06,0.004
-7.320E-06,0.008
-7.310E-06,0.000
-7.300E-06,0.004
-7.290E-06,-0.004
-7.280E-06,0.004
-7.270E-06,0.000
-7.260E-06,0.000
-7.250E-06,0.004
-7.240E-06,0.008
-7.230E-06,0.004
-7.220E-06,0.000
-7.210E-06,0.000
-7.200E-06,-0.004
-7.190E-06,-0.004
-7.180E-06,0.000
-7.170E-06,0.004
-7.160E-06,0.004
-7.150E-06,0.008
-7.140E-06,0.008
-7.130E-06,0.008
-7.120E-06,0.000
-7.110E-06,-0.004
-7.100E-06,0.004
-7.090E-06,0.000
-7.080E-06,0.004
-7.070E-06,0.004
-7.060E-06,0.008
-7.050E-06,-0.004
-7.040E-06,0.000
-7.030E-06,0.004
-7.020E-06,0.004
-7.010E-06,-0.004
-7.000E-06,0.000
-6.990E-06,0.004
-6.980E-06,0.004
-6.970E-06,0.004
-6.960E-06,0.000
-6.950E-06,0.000
-6.940E-06,0.000
-6.930E-06,-0.004
-6.920E-06,0.000
-6.910E-06,0.004
-6.900E-06,0.004
-6.890E-06,0.004
-6.880E-06,0.008
-6.870E-06,0.008
-6.860E-06,0.008
-6.850E-06,0.004
-6.840E-06,-0.004
-6.830E-06,-0.004
-6.820E-06,0.004
-6.810E-06,0.012
-6.800E-06,0.008
-6.790E-06,0.012
-6.780E-06,0.000
-6.770E-06,0.000
-6.760E-06,-0.004
-6.750E-06,-0.004
-6.740E-06,0.000
-6.730E-06,0.012
-6.720E-06,0.004
-6.710E-06,0.004
-6.700E-06,0.000
-6.690E-06,-0.004
-6.680E-06,0.000
-6.670E-06,0.000
-6.660E-06,0.004
-6.650E-06,0.004
-6.640E-06,0.008
-6.630E-06,0.000
-6.620E-06,0.000
-6.610E-06,-0.004
-6.600E-06,0.000
-6.590E-06,0.004
-6.580E-06,0.000
-6.570E-06,0.008
-6.560E-06,0.004
-6.550E-06,0.004
-6.540E-06,0.000
-6.530E-06,0.000
-6.520E-06,0.000
-6.510E-06,0.008
-6.500E-06,0.000
-6.490E-06,0.004
-6.480E-06,0.000
-6.470E-06,0.004
-6.460E-06,0.000
-6.450E-06,0.004
-6.440E-06,0.000
-6.430E-06,-0.004
-6.420E-06,0.004
-6.410E-06,0.000
-6.400E-06,0.008
-6.390E-06,0.012
-6.380E-06,0.008
-6.370E-06,-0.004
-6.360E-06,0.000
-6.350E-06,0.000
-6.340E-06,0.004
-6.330E-06,0.004
-6.320E-06,0.000
-6.310E-06,0.004
-6.300E-06,0.000
-6.290E-06,0.004
-6.280E-06,0.000
-6.270E-06,0.008
-6.260E-06,0.000
-6.250E-06,-0.004
-6.240E-06,0.004
-6.230E-06,0.000
-6.220E-06,0.004
-6.210E-06,0.004
-6.200E-06,0.004
-6.190E-06,0.004
-6.180E-06,-0.004
-6.170E-06,0.004
-6.160E-06,0.004
-6.150E-06,0.000
-6.140E-06,0.000
-6.130E-06,0.000
-6.120E-06,-0.004
-6.110E-06,-0.004
-6.100E-06,0.000
-6.090E-06,0.004
-6.080E-06,0.004
-6.070E-06,0.000
-6.060E-06,0.004
-6.050E-06,0.000
-6.040E-06,0.004
-6.030E-06,0.008
-6.020E-06,0.008
-6.010E-06,0.000
-6.000E-06,0.004
-5.990E-06,0.000
-5.980E-06,0.004
-5.970E-06,0.000
-5.960E-06,0.000
-5.950E-06,0.008
-5.940E-06,0.000
-5.930E-06,0.000
-5.920E-06,0.000
-5.910E-06,0.004
-5.900E-06,0.004
-5.890E-06,0.004
-5.880E-06,0.004
-5.870E-06,0.008
-5.860E-06,0.000
-5.850E-06,-0.004
-5.840E-06,0.004
-5.830E-06,0.004
-5.820E-06,0.004
-5.810E-06,0.008
-5.800E-06,0.008
-5.790E-06,-0.008
-5.780E-06,0.004
-5.770E-06,0.004
-5.760E-06,-0.004
-5.750E-06,0.004
-5.740E-06,0.008
-5.730E-06,0.004
-5.720E-06,0.000
-5.710E-06,-0.004
-5.700E-06,0.000
-5.690E-06,0.000
-5.680E-06,0.008
-5.670E-06,0.008
-5.660E-06,0.008
-5.650E-06,0.008
-5.640E-06,0.008
-5.630E-06,-0.004
-5.620E-06,0.004
-5.610E-06,0.004
-5.600E-06,0.000
-5.590E-06,0.008
-5.580E-06,0.004
-5.570E-06,-0.004
-5.560E-06,0.000
-5.550E-06,0.004
-5.540E-06,0.008
-5.530E-06,0.000
-5.520E-06,0.004
-5.510E-06,0.000
-5.500E-06,-0.004
-5.490E-06,0.000
-5.480E-06,0.004
-5.470E-06,0.004
-5.460E-06,0.008
-5.450E-06,0.012
-5.440E-06,-0.004
-5.430E-06,0.004
-5.420E-06,0.000
-5.410E-06,0.004
-5.400E-06,0.004
-5.390E-06,0.004
-5.380E-06,0.000
-5.370E-06,0.004
-5.360E-06,0.008
-5.350E-06,0.004
-5.340E-06,0.000
-5.330E-06,-0.004
-5.320E-06,-0.004
-5.310E-06,0.000
-5.300E-06,0.004
-5.290E-06,0.008
-5.280E-06,0.004
-5.270E-06,0.008
-5.260E-06,0.008
-5.250E-06,-0.004
-5.240E-06,-0.004
-5.230E-06,0.004
-5.220E-06,0.000
-5.210E-06,0.004
-5.200E-06,0.008
-5.190E-06,0.000
-5.180E-06,0.004
-5.170E-06,0.000
-5.160E-06,0.000
-5.150E-06,0.004
-5.140E-06,0.008
-5.130E-06,0.004
-5.120E-06,0.004
-5.110E-06,0.004
-5.100E-06,0.000
-5.090E-06,0.000
-5.080E-06,0.000
-5.070E-06,0.004
-5.060E-06,0.004
-5.050E-06,0.000
-5.040E-06,0.004
-5.030E-06,-0.004
-5.020E-06,0.004
-5.010E-06,0.000
-5.000E-06,-0.004
-4.990E-06,0.000
-4.980E-06,0.000
-4.970E-06,0.000
-4.960E-06,0.000
-4.950E-06,0.004
-4.940E-06,0.004
-4.930E-06,0.000
-4.920E-06,0.000
-4.910E-06,0.000
-4.900E-06,0.004
-4.890E-06,0.000
-4.880E-06,0.000
-4.870E-06,0.000
-4.860E-06,0.004
-4.850E-06,0.008
-4.840E-06,0.004
-4.830E-06,0.008
-4.820E-06,0.000
-4.810E-06,0.000
-4.800E-06,0.004
-4.790E-06,0.004
-4.780E-06,-0.004
-4.770E-06,-0.004
-4.760E-06,0.000
-4.750E-06,0.008
-4.740E-06,0.012
-4.730E-06,0.004
-4.720E-06,-0.004
-4.710E-06,0.000
-4.700E-06,0.000
-4.690E-06,0.000
-4.680E-06,0.000
-4.670E-06,0.008
-4.660E-06,0.012
-4.650E-06,0.004
-4.640E-06,0.000
-4.630E-06,0.000
-4.620E-06,0.000
-4.610E-06,0.000
-4.600E-06,0.000
-4.590E-06,0.008
-4.580E-06,0.004
-4.570E-06,0.000
-4.560E-06,-0.004
-4.550E-06,0.000
-4.540E-06,0.004
-4.530E-06,0.004
-4.520E-06,-0.004
-4.510E-06,0.000
-4.500E-06,0.008
-4.490E-06,0.008
-4.480E-06,0.004
-4.470E-06,0.004
-4.460E-06,0.000
-4.450E-06,0.000
-4.440E-06,0.000
-4.430E-06,0.004
-4.420E-06,0.004
-4.410E-06,0.004
-4.400E-06,0.004
-4.390E-06,0.000
-4.380E-06,0.000
-4.370E-06,0.008
-4.360E-06,0.004
-4.350E-06,0.004
-4.340E-06,0.004
-4.330E-06,0.000
-4.320E-06,0.000
-4.310E-06,0.008
-4.300E-06,0.008
-4.290E-06,0.000
-4.280E-06,0.000
-4.270E-06,0.000
-4.260E-06,-0.004
-4.250E-06,-0.004
-4.240E-06,0.004
-4.230E-06,0.008
-4.220E-06,0.000
-4.210E-06,0.008
-4.200E-06,0.004
-4.190E-06,0.004
-4.180E-06,0.004
-4.170E-06,0.008
-4.160E-06,0.000
-4.150E-06,0.008
-4.140E-06,0.008
-4.130E-06,0.008
-4.120E-06,0.004
-4.110E-06,0.000
-4.100E-06,-0.004
-4.090E-06,-0.004
-4.080E-06,0.000
-4.070E-06,-0.004
-4.060E-06,0.004
-4.050E-06,0.000
-4.040E-06,0.004
-4.030E-06,0.008
-4.020E-06,0.004
-4.010E-06,0.000
-4.000E-06,-0.004
-3.990E-06,0.000
-3.980E-06,0.004
-3.970E-06,0.012
-3.960E-06,0.016
-3.950E-06,0.012
-3.940E-06,0.008
-3.930E-06,0.000
-3.920E-06,0.000
-3.910E-06,0.000
-3.900E-06,0.004
-3.890E-06,0.012
-3.880E-06,0.008
-3.870E-06,0.004
-3.860E-06,0.004
-3.850E-06,-0.004
-3.840E-06,0.000
-3.830E-06,0.008
-3.820E-06,0.008
-3.810E-06,0.008
-3.800E-06,0.000
-3.790E-06,0.004
-3.780E-06,-0.004
-3.770E-06,0.000
-3.760E-06,0.000
-3.750E-06,0.004
-3.740E-06,0.004
-3.730E-06,0.004
-3.720E-06,0.004
-3.710E-06,0.004
-3.700E-06,0.004
-3.690E-06,0.004
-3.680E-06,0.004
-3.670E-06,0.000
-3.660E-06,0.004
-3.650E-06,0.004
-3.640E-06,0.008
-3.630E-06,0.008
-3.620E-06,0.004
-3.610E-06,0.004
-3.600E-06,0.000
-3.590E-06,0.000
-3.580E-06,-0.004
-3.570E-06,0.008
-3.560E-06,0.016
-3.550E-06,0.012
-3.540E-06,0.004
-3.530E-06,0.000
-3.520E-06,0.000
-3.510E-06,-0.004
-3.500E-06,0.000
-3.490E-06,0.008
-3.480E-06,0.016
-3.470E-06,0.012
-3.460E-06,0.004
-3.450E-06,-0.004
-3.440E-06,-0.004
-3.430E-06,0.000
-3.420E-06,0.012
-3.410E-06,0.012
-3.400E-06,0.016
-3.390E-06,0.016
-3.380E-06,0.004
-3.370E-06,-0.004
-3.360E-06,-0.020
-3.350E-06,-0.020
-3.340E-06,-0.004
-3.330E-06,0.008
-3.320E-06,0.028
-3.310E-06,0.028
-3.300E-06,0.008
-3.290E-06,0.000
-3.280E-06,-0.016
-3.270E-06,-0.012
-3.260E-06,-0.004
-3.250E-06,0.012
-3.240E-06,0.024
-3.230E-06,0.024
-3.220E-06,0.008
-3.210E-06,-0.004
-3.200E-06,-0.016
-3.190E-06,-0.012
-3.180E-06,0.004
-3.170E-06,0.008
-3.160E-06,0.012
-3.150E-06,0.004
-3.140E-06,0.008
-3.130E-06,0.000
-3.120E-06,-0.004
-3.110E-06,-0.004
-3.100E-06,-0.008
-3.090E-06,0.004
-3.080E-06,0.008
-3.070E-06,0.012
-3.060E-06,0.008
-3.050E-06,0.008
-3.040E-06,0.000
-3.030E-06,-0.004
-3.020E-06,0.000
-3.010E-06,-0.004
-3.000E-06,0.004
-2.990E-06,0.004
-2.980E-06,0.004
-2.970E-06,0.008
-2.960E-06,0.000
-2.950E-06,0.000
-2.940E-06,0.000
-2.930E-06,-0.008
-2.920E-06,-0.004
-2.910E-06,0.004
-2.900E-06,0.008
-2.890E-06,0.004
-2.880E-06,0.004
-2.870E-06,0.004
-2.860E-06,0.004
-2.850E-06,0.008
-2.840E-06,0.008
-2.830E-06,-0.004
-2.820E-06,-0.004
-2.810E-06,0.000
-2.800E-06,0.004
-2.790E-06,0.008
-2.780E-06,0.012
-2.770E-06,0.008
-2.760E-06,0.008
-2.750E-06,0.000
-2.740E-06,-0.004
-2.730E-06,-0.004
-2.720E-06,0.008
-2.710E-06,0.016
-2.700E-06,0.016
-2.690E-06,0.008
-2.680E-06,0.004
-2.670E-06,0.008
-2.660E-06,0.012
-2.650E-06,0.004
-2.640E-06,0.004
-2.630E-06,0.008
-2.620E-06,0.016
-2.610E-06,0.008
-2.600E-06,0.012
-2.590E-06,0.020
-2.580E-06,0.020
-2.570E-06,0.020
-2.560E-06,0.012
-2.550E-06,0.008
-2.540E-06,-0.008
-2.530E-06,-0.008
-2.520E-06,0.004
-2.510E-06,0.020
-2.500E-06,0.028
-2.490E-06,0.024
-2.480E-06,0.004
-2.470E-06,-0.004
-2.460E-06,-0.008
-2.450E-06,-0.004
-2.440E-06,0.012
-2.430E-06,0.024
-2.420E-06,0.028
-2.410E-06,0.008
-2.400E-06,-0.004
-2.390E-06,-0.016
-2.380E-06,-0.004
-2.370E-06,0.008
-2.360E-06,0.024
-2.350E-06,0.020
-2.340E-06,0.020
-2.330E-06,0.008
-2.320E-06,0.004
-2.310E-06,0.004
-2.300E-06,0.008
-2.290E-06,0.012
-2.280E-06,0.004
-2.270E-06,-0.004
-2.260E-06,-0.004
-2.250E-06,0.008
-2.240E-06,0.012
-2.230E-06,0.012
-2.220E-06,0.008
-2.210E-06,0.000
-2.200E-06,0.004
-2.190E-06,0.012
-2.180E-06,0.020
-2.170E-06,0.016
-2.160E-06,0.004
-2.150E-06,-0.004
-2.140E-06,0.000
-2.130E-06,0.004
-2.120E-06,0.024
-2.110E-06,0.032
-2.100E-06,0.028
-2.090E-06,0.008
-2.080E-06,-0.004
-2.070E-06,-0.012
-2.060E-06,-0.004
-2.050E-06,0.020
-2.040E-06,0.040
-2.030E-06,0.040
-2.020E-06,0.028
-2.010E-06,0.016
-2.000E-06,0.008
-1.990E-06,0.008
-1.980E-06,0.004
-1.970E-06,0.008
-1.960E-06,0.012
-1.950E-06,0.016
-1.940E-06,0.024
-1.930E-06,0.036
-1.920E-06,0.032
-1.910E-06,0.024
-1.900E-06,0.012
-1.890E-06,0.000
-1.880E-06,0.000
-1.870E-06,0.008
-1.860E-06,0.024
-1.850E-06,0.032
-1.840E-06,0.036
-1.830E-06,0.036
-1.820E-06,0.024
-1.810E-06,0.020
-1.800E-06,0.028
-1.790E-06,0.040
-1.780E-06,0.056
-1.770E-06,0.064
-1.760E-06,0.064
-1.750E-06,0.040
-1.740E-06,0.008
-1.730E-06,-0.004
-1.720E-06,0.000
-1.710E-06,0.036
-1.700E-06,0.064
-1.690E-06,0.092
-1.680E-06,0.092
-1.670E-06,0.064
-1.660E-06,0.032
-1.650E-06,0.016
-1.640E-06,0.036
-1.630E-06,0.056
-1.620E-06,0.064
-1.610E-06,0.060
-1.600E-06,0.040
-1.590E-06,0.000
-1.580E-06,-0.008
-1.570E-06,-0.012
-1.560E-06,0.004
-1.550E-06,0.024
-1.540E-06,0.032
-1.530E-06,0.056
-1.520E-06,0.000
-1.510E-06,-0.036
-1.500E-06,-0.132
-1.490E-06,-0.192
-1.480E-06,-0.216
-1.470E-06,-0.208
-1.460E-06,-0.120
-1.450E-06,-0.040
-1.440E-06,0.052
-1.430E-06,0.072
-1.420E-06,0.016
-1.410E-06,-0.072
-1.400E-06,-0.120
-1.390E-06,-0.088
-1.380E-06,-0.008
-1.370E-06,0.072
-1.360E-06,0.112
-1.350E-06,0.096
-1.340E-06,0.016
-1.330E-06,-0.032
-1.320E-06,-0.064
-1.310E-06,-0.044
-1.300E-06,-0.004
-1.290E-06,0.044
-1.280E-06,0.076
-1.270E-06,0.068
-1.260E-06,0.060
-1.250E-06,0.052
-1.240E-06,0.044
-1.230E-06,0.028
-1.220E-06,0.028
-1.210E-06,0.040
-1.200E-06,0.056
-1.190E-06,0.068
-1.180E-06,0.076
-1.170E-06,0.052
-1.160E-06,0.004
-1.150E-06,-0.076
-1.140E-06,-0.120
-1.130E-06,-0.104
-1.120E-06,-0.040
-1.110E-06,0.048
-1.100E-06,0.120
-1.090E-06,0.140
-1.080E-06,0.104
-1.070E-06,0.028
-1.060E-06,-0.048
-1.050E-06,-0.076
-1.040E-06,-0.036
-1.030E-06,0.020
-1.020E-06,0.072
-1.010E-06,0.096
-1.000E-06,0.092
-9.900E-07,0.056
-9.800E-07,0.020
-9.700E-07,0.004
-9.600E-07,0.008
-9.500E-07,0.044
-9.400E-07,0.092
-9.300E-07,0.144
-9.200E-07,0.148
-9.100E-07,0.132
-9.000E-07,0.092
-8.900E-07,0.036
-8.800E-07,-0.016
-8.700E-07,-0.016
-8.600E-07,-0.008
-8.500E-07,0.016
-8.400E-07,0.044
-8.300E-07,0.044
-8.200E-07,0.040
-8.100E-07,0.032
-8.000E-07,0.016
-7.900E-07,0.004
-7.800E-07,0.024
-7.700E-07,0.072
-7.600E-07,0.120
-7.500E-07,0.096
-7.400E-07,0.016
-7.300E-07,-0.064
-7.200E-07,-0.120
-7.100E-07,-0.124
-7.000E-07,-0.104
-6.900E-07,-0.024
-6.800E-07,0.012
-6.700E-07,0.016
-6.600E-07,-0.008
-6.500E-07,-0.056
-6.400E-07,-0.072
-6.300E-07,-0.048
-6.200E-07,-0.012
-6.100E-07,0.032
-6.000E-07,0.072
-5.900E-07,0.112
-5.800E-07,0.104
-5.700E-07,0.068
-5.600E-07,0.028
-5.500E-07,0.008
-5.400E-07,0.020
-5.300E-07,0.044
-5.200E-07,0.088
-5.100E-07,0.128
-5.000E-07,0.160
-4.900E-07,0.160
-4.800E-07,0.136
-4.700E-07,0.096
-4.600E-07,0.076
-4.500E-07,0.072
-4.400E-07,0.112
-4.300E-07,0.192
-4.200E-07,0.248
-4.100E-07,0.260
-4.000E-07,0.224
-3.900E-07,0.168
-3.800E-07,0.120
-3.700E-07,0.116
-3.600E-07,0.132
-3.500E-07,0.168
-3.400E-07,0.200
-3.300E-07,0.204
-3.200E-07,0.184
-3.100E-07,0.132
-3.000E-07,0.096
-2.900E-07,0.080
-2.800E-07,0.104
-2.700E-07,0.144
-2.600E-07,0.180
-2.500E-07,0.164
-2.400E-07,0.136
-2.300E-07,0.088
-2.200E-07,0.068
-2.100E-07,0.068
-2.000E-07,0.092
-1.900E-07,0.132
-1.800E-07,0.164
-1.700E-07,0.152
-1.600E-07,0.092
-1.500E-07,-0.136
-1.400E-07,-0.512
-1.300E-07,-0.512
-1.200E-07,-0.508
-1.100E-07,-0.512
-1.000E-07,-0.204
-9.000E-08,0.268
-8.000E-08,0.360
-7.000E-08,0.088
-6.000E-08,-0.464
-5.000E-08,-0.512
-4.000E-08,-0.512
-3.000E-08,-0.512
-2.000E-08,-0.104
-1.000E-08,0.424
0.000E+00,0.540
1.000E-08,0.540
2.000E-08,0.108
3.000E-08,-0.308
4.000E-08,-0.512
5.000E-08,-0.364
6.000E-08,0.080
7.000E-08,0.540
8.000E-08,0.536
9.000E-08,0.528
1.000E-07,0.164
1.100E-07,-0.252
1.200E-07,-0.432
1.300E-07,-0.380
1.400E-07,-0.072
1.500E-07,0.272
1.600E-07,0.496
1.700E-07,0.416
1.800E-07,0.148
1.900E-07,-0.212
2.000E-07,-0.440
2.100E-07,-0.452
2.200E-07,-0.244
2.300E-07,0.052
2.400E-07,0.264
2.500E-07,0.312
2.600E-07,0.140
2.700E-07,-0.064
2.800E-07,-0.228
2.900E-07,-0.228
3.000E-07,-0.104
3.100E-07,0.116
3.200E-07,0.304
3.300E-07,0.360
3.400E-07,0.292
3.500E-07,0.092
3.600E-07,-0.060
3.700E-07,-0.088
3.800E-07,0.016
3.900E-07,0.208
4.000E-07,0.364
4.100E-07,0.424
4.200E-07,0.400
4.300E-07,0.296
4.400E-07,0.200
4.500E-07,0.132
4.600E-07,0.140
4.700E-07,0.208
4.800E-07,0.296
4.900E-07,0.336
5.000E-07,0.316
5.100E-07,0.260
5.200E-07,0.200
5.300E-07,0.168
5.400E-07,0.160
5.500E-07,0.204
5.600E-07,0.240
5.700E-07,0.292
5.800E-07,0.292
5.900E-07,0.264
6.000E-07,0.212
6.100E-07,0.156
6.200E-07,0.120
6.300E-07,0.052
6.400E-07,-0.036
6.500E-07,-0.188
6.600E-07,-0.380
6.700E-07,-0.508
6.800E-07,-0.508
6.900E-07,-0.320
7.000E-07,0.068
7.100E-07,0.340
7.200E-07,0.224
7.300E-07,-0.180
7.400E-07,-0.512
7.500E-07,-0.512
7.600E-07,-0.512
7.700E-07,-0.440
7.800E-07,0.140
7.900E-07,0.540
8.000E-07,0.540
8.100E-07,0.096
8.200E-07,-0.468
8.300E-07,-0.508
8.400E-07,-0.512
8.500E-07,-0.468
8.600E-07,0.004
8.700E-07,0.412
8.800E-07,0.540
8.900E-07,0.320
9.000E-07,-0.100
9.100E-07,-0.480
9.200E-07,-0.512
9.300E-07,-0.416
9.400E-07,0.024
9.500E-07,0.500
9.600E-07,0.540
9.700E-07,0.520
9.800E-07,0.112
9.900E-07,-0.260
1.000E-06,-0.404
1.010E-06,-0.276
1.020E-06,0.044
1.030E-06,0.392
1.040E-06,0.540
1.050E-06,0.540
1.060E-06,0.356
1.070E-06,0.032
1.080E-06,-0.184
1.090E-06,-0.196
1.100E-06,0.036
1.110E-06,0.332
1.120E-06,0.540
1.130E-06,0.540
1.140E-06,0.448
1.150E-06,0.212
1.160E-06,0.004
1.170E-06,-0.048
1.180E-06,0.048
1.190E-06,0.264
1.200E-06,0.456
1.210E-06,0.532
1.220E-06,0.460
1.230E-06,0.280
1.240E-06,0.108
1.250E-06,0.020
1.260E-06,0.064
1.270E-06,0.204
1.280E-06,0.356
1.290E-06,0.444
1.300E-06,0.432
1.310E-06,0.312
1.320E-06,0.176
1.330E-06,0.080
1.340E-06,0.080
1.350E-06,0.164
1.360E-06,0.292
1.370E-06,0.372
1.380E-06,0.396
1.390E-06,0.328
1.400E-06,0.224
1.410E-06,0.140
1.420E-06,0.108
1.430E-06,0.148
1.440E-06,0.228
1.450E-06,0.308
1.460E-06,0.332
1.470E-06,0.284
1.480E-06,0.196
1.490E-06,0.096
1.500E-06,0.040
1.510E-06,0.056
1.520E-06,0.124
1.530E-06,0.200
1.540E-06,0.264
1.550E-06,0.280
1.560E-06,0.208
1.570E-06,0.124
1.580E-06,0.044
1.590E-06,0.008
1.600E-06,0.032
1.610E-06,0.112
1.620E-06,0.216
1.630E-06,0.292
1.640E-06,0.304
1.650E-06,0.224
1.660E-06,0.116
1.670E-06,0.032
1.680E-06,0.020
1.690E-06,0.112
1.700E-06,0.236
1.710E-06,0.344
1.720E-06,0.388
1.730E-06,0.360
1.740E-06,0.268
1.750E-06,0.156
1.760E-06,0.088
1.770E-06,0.104
1.780E-06,0.176
1.790E-06,0.276
1.800E-06,0.348
1.810E-06,0.352
1.820E-06,0.284
1.830E-06,0.188
1.840E-06,0.120
1.850E-06,0.112
1.860E-06,0.172
1.870E-06,0.268
1.880E-06,0.332
1.890E-06,0.352
1.900E-06,0.316
1.910E-06,0.232
1.920E-06,0.168
1.930E-06,0.144
1.940E-06,0.176
1.950E-06,0.232
1.960E-06,0.284
1.970E-06,0.320
1.980E-06,0.304
1.990E-06,0.248
2.000E-06,0.192
2.010E-06,0.156
2.020E-06,0.168
2.030E-06,0.208
2.040E-06,0.260
2.050E-06,0.292
2.060E-06,0.292
2.070E-06,0.256
2.080E-06,0.208
2.090E-06,0.180
2.100E-06,0.180
2.110E-06,0.204
2.120E-06,0.240
2.130E-06,0.276
2.140E-06,0.276
2.150E-06,0.256
2.160E-06,0.220
2.170E-06,0.196
2.180E-06,0.184
2.190E-06,0.196
2.200E-06,0.228
2.210E-06,0.252
2.220E-06,0.256
2.230E-06,0.240
2.240E-06,0.220
2.250E-06,0.200
2.260E-06,0.188
2.270E-06,0.196
2.280E-06,0.208
2.290E-06,0.228
2.300E-06,0.244
2.310E-06,0.244
2.320E-06,0.228
2.330E-06,0.204
2.340E-06,0.192
2.350E-06,0.192
2.360E-06,0.208
2.370E-06,0.220
2.380E-06,0.232
2.390E-06,0.232
2.400E-06,0.224
2.410E-06,0.212
2.420E-06,0.196
2.430E-06,0.192
2.440E-06,0.200
2.450E-06,0.208
2.460E-06,0.224
2.470E-06,0.232
2.480E-06,0.224
2.490E-06,0.208
2.500E-06,0.204
2.510E-06,0.196
2.520E-06,0.200
2.530E-06,0.212
2.540E-06,0.216
2.550E-06,0.224
2.560E-06,0.220
2.570E-06,0.208
2.580E-06,0.196
2.590E-06,0.192
2.600E-06,0.192
2.610E-06,0.200
2.620E-06,0.208
2.630E-06,0.212
2.640E-06,0.212
2.650E-06,0.204
2.660E-06,0.204
2.670E-06,0.196
2.680E-06,0.196
2.690E-06,0.200
2.700E-06,0.208
2.710E-06,0.204
2.720E-06,0.200
2.730E-06,0.196
2.740E-06,0.200
2.750E-06,0.204
2.760E-06,0.200
2.770E-06,0.196
2.780E-06,0.188
2.790E-06,0.192
2.800E-06,0.196
2.810E-06,0.196
2.820E-06,0.196
2.830E-06,0.204
2.840E-06,0.200
2.850E-06,0.196
2.860E-06,0.192
2.870E-06,0.196
2.880E-06,0.196
2.890E-06,0.192
2.900E-06,0.200
2.910E-06,0.196
2.920E-06,0.200
2.930E-06,0.192
2.940E-06,0.192
2.950E-06,0.188
2.960E-06,0.184
2.970E-06,0.180
2.980E-06,0.176
2.990E-06,0.180
3.000E-06,0.180
3.010E-06,0.188
3.020E-06,0.192
3.030E-06,0.188
3.040E-06,0.188
3.050E-06,0.176
3.060E-06,0.168
3.070E-06,0.172
3.080E-06,0.180
3.090E-06,0.188
3.100E-06,0.192
3.110E-06,0.188
3.120E-06,0.180
3.130E-06,0.168
3.140E-06,0.160
3.150E-06,0.168
3.160E-06,0.180
3.170E-06,0.188
3.180E-06,0.188
3.190E-06,0.184
3.200E-06,0.168
3.210E-06,0.160
3.220E-06,0.156
3.230E-06,0.156
3.240E-06,0.180
3.250E-06,0.188
3.260E-06,0.196
3.270E-06,0.184
3.280E-06,0.160
3.290E-06,0.148
3.300E-06,0.148
3.310E-06,0.168
3.320E-06,0.172
3.330E-06,0.192
3.340E-06,0.196
3.350E-06,0.184
3.360E-06,0.172
3.370E-06,0.160
3.380E-06,0.160
3.390E-06,0.156
3.400E-06,0.172
3.410E-06,0.192
