mediciones/5-15/32.5/WaveData47106.csv

#timebase=2000000(ps)
,#voltbase=100000(mv/100)
#size=4000
-8.400E-06,0.020
-8.390E-06,0.024
-8.380E-06,0.012
-8.370E-06,-0.004
-8.360E-06,-0.008
-8.350E-06,-0.004
-8.340E-06,-0.004
-8.330E-06,0.008
-8.320E-06,0.012
-8.310E-06,0.020
-8.300E-06,0.016
-8.290E-06,0.008
-8.280E-06,-0.008
-8.270E-06,-0.004
-8.260E-06,-0.004
-8.250E-06,0.000
-8.240E-06,0.008
-8.230E-06,0.012
-8.220E-06,0.016
-8.210E-06,0.008
-8.200E-06,0.004
-8.190E-06,-0.004
-8.180E-06,-0.004
-8.170E-06,0.000
-8.160E-06,0.012
-8.150E-06,0.004
-8.140E-06,0.008
-8.130E-06,0.004
-8.120E-06,-0.028
-8.110E-06,-0.028
-8.100E-06,-0.024
-8.090E-06,-0.004
-8.080E-06,0.016
-8.070E-06,0.040
-8.060E-06,0.052
-8.050E-06,0.024
-8.040E-06,-0.008
-8.030E-06,-0.040
-8.020E-06,-0.036
-8.010E-06,-0.008
-8.000E-06,0.020
-7.990E-06,0.040
-7.980E-06,0.032
-7.970E-06,0.004
-7.960E-06,-0.016
-7.950E-06,-0.028
-7.940E-06,-0.024
-7.930E-06,0.004
-7.920E-06,0.024
-7.910E-06,0.036
-7.900E-06,0.012
-7.890E-06,-0.004
-7.880E-06,-0.016
-7.870E-06,-0.012
-7.860E-06,-0.008
-7.850E-06,0.008
-7.840E-06,0.028
-7.830E-06,0.024
-7.820E-06,0.012
-7.810E-06,0.000
-7.800E-06,-0.004
-7.790E-06,-0.012
-7.780E-06,-0.008
-7.770E-06,0.000
-7.760E-06,0.008
-7.750E-06,0.020
-7.740E-06,0.016
-7.730E-06,0.008
-7.720E-06,0.000
-7.710E-06,-0.004
-7.700E-06,-0.008
-7.690E-06,-0.004
-7.680E-06,0.012
-7.670E-06,0.016
-7.660E-06,0.016
-7.650E-06,0.012
-7.640E-06,-0.004
-7.630E-06,-0.008
-7.620E-06,-0.008
-7.610E-06,-0.004
-7.600E-06,0.008
-7.590E-06,0.012
-7.580E-06,0.020
-7.570E-06,0.016
-7.560E-06,0.008
-7.550E-06,-0.008
-7.540E-06,-0.008
-7.530E-06,-0.008
-7.520E-06,0.008
-7.510E-06,0.004
-7.500E-06,0.008
-7.490E-06,0.008
-7.480E-06,0.008
-7.470E-06,-0.004
-7.460E-06,-0.004
-7.450E-06,-0.004
-7.440E-06,0.000
-7.430E-06,0.004
-7.420E-06,0.008
-7.410E-06,0.012
-7.400E-06,0.008
-7.390E-06,0.004
-7.380E-06,-0.008
-7.370E-06,-0.004
-7.360E-06,-0.008
-7.350E-06,0.000
-7.340E-06,0.008
-7.330E-06,0.016
-7.320E-06,0.016
-7.310E-06,0.012
-7.300E-06,0.004
-7.290E-06,0.000
-7.280E-06,-0.004
-7.270E-06,-0.004
-7.260E-06,0.004
-7.250E-06,0.016
-7.240E-06,0.024
-7.230E-06,0.012
-7.220E-06,0.004
-7.210E-06,-0.016
-7.200E-06,-0.024
-7.190E-06,-0.012
-7.180E-06,0.000
-7.170E-06,0.008
-7.160E-06,0.028
-7.150E-06,0.024
-7.140E-06,0.004
-7.130E-06,-0.012
-7.120E-06,-0.024
-7.110E-06,-0.008
-7.100E-06,0.004
-7.090E-06,0.024
-7.080E-06,0.024
-7.070E-06,0.008
-7.060E-06,-0.008
-7.050E-06,-0.020
-7.040E-06,-0.008
-7.030E-06,0.000
-7.020E-06,0.012
-7.010E-06,0.024
-7.000E-06,0.016
-6.990E-06,0.000
-6.980E-06,-0.008
-6.970E-06,-0.008
-6.960E-06,-0.008
-6.950E-06,0.004
-6.940E-06,0.012
-6.930E-06,0.020
-6.920E-06,0.008
-6.910E-06,0.008
-6.900E-06,-0.004
-6.890E-06,-0.008
-6.880E-06,-0.004
-6.870E-06,0.000
-6.860E-06,0.008
-6.850E-06,0.016
-6.840E-06,0.012
-6.830E-06,0.004
-6.820E-06,0.000
-6.810E-06,-0.004
-6.800E-06,-0.008
-6.790E-06,-0.004
-6.780E-06,0.008
-6.770E-06,0.008
-6.760E-06,0.016
-6.750E-06,0.012
-6.740E-06,0.000
-6.730E-06,0.000
-6.720E-06,-0.008
-6.710E-06,-0.004
-6.700E-06,0.008
-6.690E-06,0.012
-6.680E-06,0.012
-6.670E-06,0.008
-6.660E-06,0.004
-6.650E-06,0.000
-6.640E-06,0.000
-6.630E-06,-0.004
-6.620E-06,0.008
-6.610E-06,0.016
-6.600E-06,0.016
-6.590E-06,0.008
-6.580E-06,0.000
-6.570E-06,-0.004
-6.560E-06,-0.004
-6.550E-06,-0.008
-6.540E-06,0.000
-6.530E-06,0.004
-6.520E-06,0.012
-6.510E-06,0.020
-6.500E-06,0.012
-6.490E-06,0.004
-6.480E-06,-0.004
-6.470E-06,-0.008
-6.460E-06,-0.004
-6.450E-06,0.008
-6.440E-06,0.012
-6.430E-06,0.016
-6.420E-06,0.016
-6.410E-06,0.008
-6.400E-06,0.004
-6.390E-06,-0.004
-6.380E-06,0.000
-6.370E-06,0.004
-6.360E-06,0.008
-6.350E-06,0.004
-6.340E-06,0.008
-6.330E-06,0.008
-6.320E-06,0.008
-6.310E-06,0.000
-6.300E-06,0.000
-6.290E-06,0.004
-6.280E-06,0.000
-6.270E-06,0.004
-6.260E-06,-0.008
-6.250E-06,0.000
-6.240E-06,0.000
-6.230E-06,0.004
-6.220E-06,0.012
-6.210E-06,0.012
-6.200E-06,0.004
-6.190E-06,0.000
-6.180E-06,0.000
-6.170E-06,0.000
-6.160E-06,0.008
-6.150E-06,0.012
-6.140E-06,0.012
-6.130E-06,0.004
-6.120E-06,0.004
-6.110E-06,0.000
-6.100E-06,-0.004
-6.090E-06,-0.004
-6.080E-06,0.008
-6.070E-06,0.016
-6.060E-06,0.016
-6.050E-06,0.004
-6.040E-06,0.000
-6.030E-06,-0.004
-6.020E-06,-0.004
-6.010E-06,0.004
-6.000E-06,0.012
-5.990E-06,0.024
-5.980E-06,0.020
-5.970E-06,0.008
-5.960E-06,0.004
-5.950E-06,0.000
-5.940E-06,-0.004
-5.930E-06,0.008
-5.920E-06,-0.008
-5.910E-06,-0.008
-5.900E-06,-0.004
-5.890E-06,0.012
-5.880E-06,0.020
-5.870E-06,0.024
-5.860E-06,0.008
-5.850E-06,-0.012
-5.840E-06,-0.012
-5.830E-06,-0.008
-5.820E-06,0.016
-5.810E-06,0.032
-5.800E-06,0.028
-5.790E-06,0.016
-5.780E-06,-0.004
-5.770E-06,-0.032
-5.760E-06,-0.024
-5.750E-06,0.000
-5.740E-06,0.000
-5.730E-06,-0.020
-5.720E-06,-0.020
-5.710E-06,-0.008
-5.700E-06,0.000
-5.690E-06,0.040
-5.680E-06,0.084
-5.670E-06,0.056
-5.660E-06,-0.020
-5.650E-06,-0.076
-5.640E-06,-0.076
-5.630E-06,0.000
-5.620E-06,0.068
-5.610E-06,0.092
-5.600E-06,0.056
-5.590E-06,-0.012
-5.580E-06,-0.072
-5.570E-06,-0.052
-5.560E-06,-0.004
-5.550E-06,0.040
-5.540E-06,0.064
-5.530E-06,0.056
-5.520E-06,0.020
-5.510E-06,0.008
-5.500E-06,-0.072
-5.490E-06,-0.068
-5.480E-06,-0.040
-5.470E-06,0.012
-5.460E-06,0.048
-5.450E-06,0.064
-5.440E-06,0.056
-5.430E-06,-0.024
-5.420E-06,-0.036
-5.410E-06,-0.056
-5.400E-06,0.000
-5.390E-06,0.024
-5.380E-06,0.056
-5.370E-06,0.024
-5.360E-06,0.000
-5.350E-06,-0.004
-5.340E-06,-0.036
-5.330E-06,0.008
-5.320E-06,0.028
-5.310E-06,-0.044
-5.300E-06,-0.020
-5.290E-06,-0.004
-5.280E-06,0.044
-5.270E-06,0.060
-5.260E-06,-0.008
-5.250E-06,-0.052
-5.240E-06,-0.004
-5.230E-06,0.080
-5.220E-06,0.044
-5.210E-06,-0.036
-5.200E-06,-0.056
-5.190E-06,0.024
-5.180E-06,0.032
-5.170E-06,0.020
-5.160E-06,0.000
-5.150E-06,0.012
-5.140E-06,0.016
-5.130E-06,0.024
-5.120E-06,0.028
-5.110E-06,0.000
-5.100E-06,0.028
-5.090E-06,0.020
-5.080E-06,0.032
-5.070E-06,0.032
-5.060E-06,0.032
-5.050E-06,-0.040
-5.040E-06,-0.060
-5.030E-06,-0.168
-5.020E-06,-0.140
-5.010E-06,0.024
-5.000E-06,0.144
-4.990E-06,0.192
-4.980E-06,0.088
-4.970E-06,-0.040
-4.960E-06,-0.144
-4.950E-06,-0.120
-4.940E-06,-0.016
-4.930E-06,0.068
-4.920E-06,0.120
-4.910E-06,0.096
-4.900E-06,0.028
-4.890E-06,-0.048
-4.880E-06,-0.052
-4.870E-06,-0.028
-4.860E-06,0.024
-4.850E-06,0.048
-4.840E-06,0.048
-4.830E-06,0.016
-4.820E-06,-0.024
-4.810E-06,-0.060
-4.800E-06,-0.056
-4.790E-06,0.012
-4.780E-06,0.056
-4.770E-06,0.080
-4.760E-06,0.044
-4.750E-06,0.016
-4.740E-06,-0.040
-4.730E-06,-0.044
-4.720E-06,-0.016
-4.710E-06,0.036
-4.700E-06,0.060
-4.690E-06,0.056
-4.680E-06,0.032
-4.670E-06,0.008
-4.660E-06,-0.004
-4.650E-06,-0.004
-4.640E-06,0.004
-4.630E-06,0.000
-4.620E-06,-0.004
-4.610E-06,-0.004
-4.600E-06,0.012
-4.590E-06,-0.020
-4.580E-06,-0.028
-4.570E-06,-0.080
-4.560E-06,-0.068
-4.550E-06,-0.004
-4.540E-06,0.052
-4.530E-06,0.080
-4.520E-06,0.016
-4.510E-06,-0.004
-4.500E-06,-0.036
-4.490E-06,-0.024
-4.480E-06,-0.004
-4.470E-06,0.004
-4.460E-06,0.012
-4.450E-06,0.016
-4.440E-06,0.008
-4.430E-06,0.000
-4.420E-06,0.004
-4.410E-06,-0.004
-4.400E-06,0.008
-4.390E-06,0.004
-4.380E-06,0.004
-4.370E-06,-0.004
-4.360E-06,0.000
-4.350E-06,0.008
-4.340E-06,0.016
-4.330E-06,0.020
-4.320E-06,0.016
-4.310E-06,0.012
-4.300E-06,0.000
-4.290E-06,0.000
-4.280E-06,0.000
-4.270E-06,0.012
-4.260E-06,0.028
-4.250E-06,0.040
-4.240E-06,0.044
-4.230E-06,0.044
-4.220E-06,0.028
-4.210E-06,0.020
-4.200E-06,0.016
-4.190E-06,0.020
-4.180E-06,0.048
-4.170E-06,0.060
-4.160E-06,0.072
-4.150E-06,0.060
-4.140E-06,0.044
-4.130E-06,0.008
-4.120E-06,-0.016
-4.110E-06,-0.032
-4.100E-06,-0.036
-4.090E-06,-0.076
-4.080E-06,-0.084
-4.070E-06,-0.028
-4.060E-06,0.044
-4.050E-06,0.108
-4.040E-06,0.056
-4.030E-06,-0.044
-4.020E-06,-0.116
-4.010E-06,-0.116
-4.000E-06,-0.276
-3.990E-06,-0.188
-3.980E-06,-0.004
-3.970E-06,0.096
-3.960E-06,0.164
-3.950E-06,0.168
-3.940E-06,0.096
-3.930E-06,-0.096
-3.920E-06,-0.124
-3.910E-06,-0.128
-3.900E-06,-0.044
-3.890E-06,0.032
-3.880E-06,0.096
-3.870E-06,0.084
-3.860E-06,0.060
-3.850E-06,0.020
-3.840E-06,-0.048
-3.830E-06,-0.060
-3.820E-06,-0.072
-3.810E-06,-0.004
-3.800E-06,0.032
-3.790E-06,0.084
-3.780E-06,0.064
-3.770E-06,0.048
-3.760E-06,0.000
-3.750E-06,-0.028
-3.740E-06,-0.028
-3.730E-06,-0.024
-3.720E-06,0.016
-3.710E-06,0.024
-3.700E-06,0.052
-3.690E-06,0.036
-3.680E-06,0.036
-3.670E-06,0.000
-3.660E-06,-0.008
-3.650E-06,-0.020
-3.640E-06,0.000
-3.630E-06,0.024
-3.620E-06,0.044
-3.610E-06,0.060
-3.600E-06,0.056
-3.590E-06,0.044
-3.580E-06,0.032
-3.570E-06,0.032
-3.560E-06,0.032
-3.550E-06,0.044
-3.540E-06,0.056
-3.530E-06,0.076
-3.520E-06,0.076
-3.510E-06,0.028
-3.500E-06,-0.024
-3.490E-06,-0.036
-3.480E-06,-0.140
-3.470E-06,-0.296
-3.460E-06,-0.268
-3.450E-06,-0.156
-3.440E-06,0.088
-3.430E-06,0.288
-3.420E-06,0.436
-3.410E-06,0.244
-3.400E-06,-0.120
-3.390E-06,-0.356
-3.380E-06,-0.332
-3.370E-06,-0.052
-3.360E-06,0.248
-3.350E-06,0.376
-3.340E-06,0.288
-3.330E-06,0.084
-3.320E-06,-0.172
-3.310E-06,-0.284
-3.300E-06,-0.256
-3.290E-06,-0.104
-3.280E-06,0.060
-3.270E-06,0.208
-3.260E-06,0.276
-3.250E-06,0.168
-3.240E-06,0.024
-3.230E-06,-0.160
-3.220E-06,-0.212
-3.210E-06,-0.136
-3.200E-06,0.036
-3.190E-06,0.196
-3.180E-06,0.256
-3.170E-06,0.160
-3.160E-06,-0.008
-3.150E-06,-0.152
-3.140E-06,-0.180
-3.130E-06,-0.068
-3.120E-06,0.040
-3.110E-06,0.132
-3.100E-06,0.056
-3.090E-06,-0.072
-3.080E-06,-0.188
-3.070E-06,-0.200
-3.060E-06,-0.104
-3.050E-06,0.044
-3.040E-06,0.184
-3.030E-06,0.160
-3.020E-06,0.084
-3.010E-06,-0.036
-3.000E-06,-0.084
-2.990E-06,-0.092
-2.980E-06,-0.044
-2.970E-06,0.024
-2.960E-06,0.092
-2.950E-06,0.104
-2.940E-06,0.096
-2.930E-06,0.044
-2.920E-06,-0.032
-2.910E-06,-0.056
-2.900E-06,-0.056
-2.890E-06,-0.004
-2.880E-06,0.060
-2.870E-06,0.128
-2.860E-06,0.108
-2.850E-06,0.016
-2.840E-06,-0.068
-2.830E-06,-0.112
-2.820E-06,-0.084
-2.810E-06,-0.008
-2.800E-06,0.092
-2.790E-06,0.072
-2.780E-06,-0.124
-2.770E-06,-0.436
-2.760E-06,-0.340
-2.750E-06,0.128
-2.740E-06,0.320
-2.730E-06,0.372
-2.720E-06,0.172
-2.710E-06,0.048
-2.700E-06,-0.144
-2.690E-06,-0.136
-2.680E-06,-0.124
-2.670E-06,-0.140
-2.660E-06,-0.084
-2.650E-06,-0.032
-2.640E-06,0.004
-2.630E-06,0.000
-2.620E-06,0.124
-2.610E-06,0.028
-2.600E-06,-0.004
-2.590E-06,-0.072
-2.580E-06,-0.056
-2.570E-06,0.000
-2.560E-06,0.092
-2.550E-06,0.108
-2.540E-06,0.056
-2.530E-06,0.044
-2.520E-06,0.024
-2.510E-06,0.076
-2.500E-06,0.084
-2.490E-06,0.068
-2.480E-06,-0.104
-2.470E-06,-0.184
-2.460E-06,-0.244
-2.450E-06,-0.136
-2.440E-06,0.044
-2.430E-06,0.228
-2.420E-06,0.284
-2.410E-06,0.088
-2.400E-06,-0.144
-2.390E-06,-0.324
-2.380E-06,-0.252
-2.370E-06,-0.048
-2.360E-06,0.168
-2.350E-06,0.268
-2.340E-06,0.196
-2.330E-06,0.024
-2.320E-06,-0.136
-2.310E-06,-0.204
-2.300E-06,-0.152
-2.290E-06,-0.008
-2.280E-06,0.124
-2.270E-06,0.200
-2.260E-06,0.152
-2.250E-06,0.044
-2.240E-06,-0.084
-2.230E-06,-0.152
-2.220E-06,-0.136
-2.210E-06,-0.036
-2.200E-06,0.072
-2.190E-06,0.144
-2.180E-06,0.128
-2.170E-06,0.044
-2.160E-06,-0.052
-2.150E-06,-0.116
-2.140E-06,-0.104
-2.130E-06,-0.048
-2.120E-06,0.044
-2.110E-06,0.096
-2.100E-06,0.108
-2.090E-06,0.052
-2.080E-06,-0.028
-2.070E-06,-0.084
-2.060E-06,-0.088
-2.050E-06,-0.036
-2.040E-06,0.024
-2.030E-06,0.096
-2.020E-06,0.096
-2.010E-06,0.056
-2.000E-06,-0.008
-1.990E-06,-0.060
-1.980E-06,-0.072
-1.970E-06,-0.036
-1.960E-06,0.028
-1.950E-06,0.068
-1.940E-06,0.076
-1.930E-06,0.044
-1.920E-06,0.000
-1.910E-06,-0.040
-1.900E-06,-0.044
-1.890E-06,-0.024
-1.880E-06,0.008
-1.870E-06,0.056
-1.860E-06,0.068
-1.850E-06,0.056
-1.840E-06,0.020
-1.830E-06,-0.024
-1.820E-06,-0.032
-1.810E-06,-0.016
-1.800E-06,0.008
-1.790E-06,0.040
-1.780E-06,0.056
-1.770E-06,0.044
-1.760E-06,0.020
-1.750E-06,-0.012
-1.740E-06,-0.032
-1.730E-06,-0.020
-1.720E-06,-0.004
-1.710E-06,0.024
-1.700E-06,0.044
-1.690E-06,0.044
-1.680E-06,0.024
-1.670E-06,-0.004
-1.660E-06,-0.008
-1.650E-06,-0.012
-1.640E-06,0.004
-1.630E-06,0.024
-1.620E-06,0.040
-1.610E-06,0.036
-1.600E-06,0.028
-1.590E-06,0.012
-1.580E-06,0.000
-1.570E-06,0.008
-1.560E-06,0.016
-1.550E-06,0.044
-1.540E-06,0.036
-1.530E-06,0.008
-1.520E-06,-0.192
-1.510E-06,-0.248
-1.500E-06,-0.284
-1.490E-06,-0.180
-1.480E-06,0.076
-1.470E-06,0.324
-1.460E-06,0.364
-1.450E-06,0.084
-1.440E-06,-0.168
-1.430E-06,-0.304
-1.420E-06,-0.200
-1.410E-06,-0.012
-1.400E-06,0.168
-1.390E-06,0.192
-1.380E-06,0.116
-1.370E-06,0.020
-1.360E-06,-0.088
-1.350E-06,-0.112
-1.340E-06,-0.084
-1.330E-06,0.020
-1.320E-06,0.072
-1.310E-06,0.124
-1.300E-06,0.064
-1.290E-06,0.012
-1.280E-06,-0.044
-1.270E-06,-0.064
-1.260E-06,-0.040
-1.250E-06,0.000
-1.240E-06,0.064
-1.230E-06,0.092
-1.220E-06,0.084
-1.210E-06,0.024
-1.200E-06,-0.008
-1.190E-06,-0.060
-1.180E-06,-0.020
-1.170E-06,0.036
-1.160E-06,0.072
-1.150E-06,0.084
-1.140E-06,0.052
-1.130E-06,0.012
-1.120E-06,-0.044
-1.110E-06,-0.060
-1.100E-06,-0.056
-1.090E-06,-0.016
-1.080E-06,-0.004
-1.070E-06,0.028
-1.060E-06,0.024
-1.050E-06,0.036
-1.040E-06,0.032
-1.030E-06,0.008
-1.020E-06,0.000
-1.010E-06,0.012
-1.000E-06,0.060
-9.900E-07,0.060
-9.800E-07,0.060
-9.700E-07,0.040
-9.600E-07,0.052
-9.500E-07,0.016
-9.400E-07,0.016
-9.300E-07,0.032
-9.200E-07,0.052
-9.100E-07,0.052
-9.000E-07,0.060
-8.900E-07,0.056
-8.800E-07,0.032
-8.700E-07,0.028
-8.600E-07,0.036
-8.500E-07,0.056
-8.400E-07,0.056
-8.300E-07,0.028
-8.200E-07,-0.088
-8.100E-07,-0.228
-8.000E-07,-0.244
-7.900E-07,-0.136
-7.800E-07,-0.044
-7.700E-07,0.092
-7.600E-07,0.216
-7.500E-07,0.196
-7.400E-07,0.000
-7.300E-07,-0.140
-7.200E-07,-0.164
-7.100E-07,-0.060
-7.000E-07,0.044
-6.900E-07,0.120
-6.800E-07,0.124
-6.700E-07,0.096
-6.600E-07,0.068
-6.500E-07,0.024
-6.400E-07,0.020
-6.300E-07,-0.004
-6.200E-07,0.000
-6.100E-07,0.012
-6.000E-07,0.036
-5.900E-07,0.064
-5.800E-07,0.108
-5.700E-07,0.108
-5.600E-07,0.056
-5.500E-07,0.000
-5.400E-07,-0.136
-5.300E-07,-0.276
-5.200E-07,-0.344
-5.100E-07,-0.236
-5.000E-07,-0.040
-4.900E-07,0.152
-4.800E-07,0.320
-4.700E-07,0.300
-4.600E-07,0.068
-4.500E-07,-0.172
-4.400E-07,-0.260
-4.300E-07,-0.180
-4.200E-07,0.016
-4.100E-07,0.168
-4.000E-07,0.244
-3.900E-07,0.208
-3.800E-07,0.040
-3.700E-07,-0.108
-3.600E-07,-0.200
-3.500E-07,-0.160
-3.400E-07,-0.032
-3.300E-07,0.136
-3.200E-07,0.188
-3.100E-07,0.156
-3.000E-07,0.060
-2.900E-07,-0.036
-2.800E-07,-0.072
-2.700E-07,-0.056
-2.600E-07,0.008
-2.500E-07,0.084
-2.400E-07,0.136
-2.300E-07,0.120
-2.200E-07,0.076
-2.100E-07,0.032
-2.000E-07,0.012
-1.900E-07,0.012
-1.800E-07,0.044
-1.700E-07,0.092
-1.600E-07,0.128
-1.500E-07,0.132
-1.400E-07,0.108
-1.300E-07,0.092
-1.200E-07,0.076
-1.100E-07,0.096
-1.000E-07,0.100
-9.000E-08,0.104
-8.000E-08,0.064
-7.000E-08,0.004
-6.000E-08,-0.304
-5.000E-08,-0.512
-4.000E-08,-0.508
-3.000E-08,-0.508
-2.000E-08,-0.112
-1.000E-08,0.544
0.000E+00,0.544
1.000E-08,0.540
2.000E-08,0.056
3.000E-08,-0.512
4.000E-08,-0.508
5.000E-08,-0.512
6.000E-08,0.012
7.000E-08,0.368
8.000E-08,0.504
9.000E-08,0.400
1.000E-07,0.076
1.100E-07,-0.184
1.200E-07,-0.324
1.300E-07,-0.232
1.400E-07,-0.012
1.500E-07,0.272
1.600E-07,0.324
1.700E-07,0.340
1.800E-07,0.188
1.900E-07,-0.040
2.000E-07,-0.180
2.100E-07,-0.128
2.200E-07,0.044
2.300E-07,0.164
2.400E-07,0.216
2.500E-07,0.132
2.600E-07,0.036
2.700E-07,-0.076
2.800E-07,-0.068
2.900E-07,-0.052
3.000E-07,0.028
3.100E-07,0.092
3.200E-07,0.152
3.300E-07,0.096
3.400E-07,-0.068
3.500E-07,-0.304
3.600E-07,-0.496
3.700E-07,-0.456
3.800E-07,-0.384
3.900E-07,-0.052
4.000E-07,0.296
4.100E-07,0.388
4.200E-07,0.220
4.300E-07,-0.100
4.400E-07,-0.256
4.500E-07,-0.216
4.600E-07,-0.068
4.700E-07,-0.012
4.800E-07,0.088
4.900E-07,0.144
5.000E-07,0.160
5.100E-07,0.168
5.200E-07,0.084
5.300E-07,-0.088
5.400E-07,-0.216
5.500E-07,-0.240
5.600E-07,-0.180
5.700E-07,0.016
5.800E-07,0.128
5.900E-07,0.172
6.000E-07,0.128
6.100E-07,0.084
6.200E-07,0.004
6.300E-07,-0.060
6.400E-07,-0.080
6.500E-07,-0.064
6.600E-07,0.040
6.700E-07,0.144
6.800E-07,0.216
6.900E-07,0.200
7.000E-07,0.148
7.100E-07,0.004
7.200E-07,-0.104
7.300E-07,-0.164
7.400E-07,-0.164
7.500E-07,-0.112
7.600E-07,-0.024
7.700E-07,0.060
7.800E-07,0.080
7.900E-07,0.060
8.000E-07,-0.012
8.100E-07,-0.072
8.200E-07,-0.104
8.300E-07,-0.060
8.400E-07,0.040
8.500E-07,0.164
8.600E-07,0.196
8.700E-07,0.112
8.800E-07,0.000
8.900E-07,-0.080
9.000E-07,-0.092
9.100E-07,-0.036
9.200E-07,0.056
9.300E-07,0.140
9.400E-07,0.192
9.500E-07,0.180
9.600E-07,0.092
9.700E-07,-0.004
9.800E-07,-0.044
9.900E-07,-0.028
1.000E-06,0.052
1.010E-06,0.156
1.020E-06,0.204
1.030E-06,0.172
1.040E-06,0.072
1.050E-06,-0.052
1.060E-06,-0.156
1.070E-06,-0.176
1.080E-06,-0.076
1.090E-06,0.060
1.100E-06,0.192
1.110E-06,0.252
1.120E-06,0.192
1.130E-06,-0.004
1.140E-06,-0.196
1.150E-06,-0.320
1.160E-06,-0.344
1.170E-06,-0.184
1.180E-06,0.032
1.190E-06,0.176
1.200E-06,0.200
1.210E-06,0.104
1.220E-06,-0.024
1.230E-06,-0.120
1.240E-06,-0.092
1.250E-06,-0.024
1.260E-06,0.108
1.270E-06,0.188
1.280E-06,0.212
1.290E-06,0.168
1.300E-06,0.096
1.310E-06,0.004
1.320E-06,-0.064
1.330E-06,-0.096
1.340E-06,-0.060
1.350E-06,-0.008
1.360E-06,0.044
1.370E-06,0.040
1.380E-06,-0.020
1.390E-06,-0.080
1.400E-06,-0.108
1.410E-06,-0.088
1.420E-06,-0.012
1.430E-06,0.040
1.440E-06,0.072
1.450E-06,0.056
1.460E-06,0.000
1.470E-06,-0.040
1.480E-06,-0.064
1.490E-06,-0.056
1.500E-06,-0.032
1.510E-06,0.012
1.520E-06,0.048
1.530E-06,0.080
1.540E-06,0.092
1.550E-06,0.092
1.560E-06,0.072
1.570E-06,0.048
1.580E-06,0.040
1.590E-06,0.056
1.600E-06,0.112
1.610E-06,0.140
1.620E-06,0.152
1.630E-06,0.128
1.640E-06,0.056
1.650E-06,-0.032
1.660E-06,-0.120
1.670E-06,-0.140
1.680E-06,-0.096
1.690E-06,-0.020
1.700E-06,0.056
1.710E-06,0.080
1.720E-06,0.016
1.730E-06,-0.072
1.740E-06,-0.132
1.750E-06,-0.140
1.760E-06,-0.068
1.770E-06,0.024
1.780E-06,0.096
1.790E-06,0.108
1.800E-06,0.088
1.810E-06,0.028
1.820E-06,-0.008
1.830E-06,-0.008
1.840E-06,0.016
1.850E-06,0.084
1.860E-06,0.140
1.870E-06,0.176
1.880E-06,0.168
1.890E-06,0.116
1.900E-06,0.044
1.910E-06,-0.020
1.920E-06,-0.056
1.930E-06,-0.072
1.940E-06,-0.068
1.950E-06,-0.044
1.960E-06,-0.012
1.970E-06,-0.020
1.980E-06,-0.064
1.990E-06,-0.100
2.000E-06,-0.124
2.010E-06,-0.108
2.020E-06,-0.068
2.030E-06,-0.020
2.040E-06,0.016
2.050E-06,0.024
2.060E-06,0.012
2.070E-06,-0.012
2.080E-06,-0.036
2.090E-06,-0.044
2.100E-06,-0.024
2.110E-06,0.016
2.120E-06,0.044
2.130E-06,0.084
2.140E-06,0.092
2.150E-06,0.092
2.160E-06,0.072
2.170E-06,0.056
2.180E-06,0.060
2.190E-06,0.084
2.200E-06,0.108
2.210E-06,0.144
2.220E-06,0.156
2.230E-06,0.152
2.240E-06,0.128
2.250E-06,0.100
2.260E-06,0.072
2.270E-06,0.060
2.280E-06,0.052
2.290E-06,0.056
2.300E-06,0.072
2.310E-06,0.064
2.320E-06,0.068
2.330E-06,0.056
2.340E-06,0.040
2.350E-06,0.028
2.360E-06,0.024
2.370E-06,0.020
2.380E-06,0.044
2.390E-06,0.064
2.400E-06,0.084
2.410E-06,0.092
2.420E-06,0.092
2.430E-06,0.088
2.440E-06,0.080
2.450E-06,0.076
2.460E-06,0.088
2.470E-06,0.108
2.480E-06,0.128
2.490E-06,0.152
2.500E-06,0.160
2.510E-06,0.148
2.520E-06,0.136
2.530E-06,0.132
2.540E-06,0.128
2.550E-06,0.128
2.560E-06,0.144
2.570E-06,0.152
2.580E-06,0.160
2.590E-06,0.148
2.600E-06,0.128
2.610E-06,0.092
2.620E-06,0.052
2.630E-06,0.008
2.640E-06,-0.020
2.650E-06,-0.028
2.660E-06,-0.008
2.670E-06,0.032
2.680E-06,0.084
2.690E-06,0.116
2.700E-06,0.120
2.710E-06,0.076
2.720E-06,0.020
2.730E-06,-0.016
2.740E-06,-0.012
2.750E-06,0.044
2.760E-06,0.132
2.770E-06,0.208
2.780E-06,0.240
2.790E-06,0.208
2.800E-06,0.144
2.810E-06,0.088
2.820E-06,0.060
2.830E-06,0.072
2.840E-06,0.128
2.850E-06,0.176
2.860E-06,0.204
2.870E-06,0.196
2.880E-06,0.140
2.890E-06,0.072
2.900E-06,0.012
2.910E-06,-0.024
2.920E-06,-0.024
2.930E-06,-0.012
2.940E-06,-0.012
2.950E-06,-0.020
2.960E-06,-0.028
2.970E-06,-0.052
2.980E-06,-0.104
2.990E-06,-0.076
3.000E-06,-0.076
3.010E-06,-0.108
3.020E-06,-0.072
3.030E-06,0.000
3.040E-06,0.088
3.050E-06,0.160
3.060E-06,0.192
3.070E-06,0.176
3.080E-06,0.124
3.090E-06,0.036
3.100E-06,-0.024
3.110E-06,0.008
3.120E-06,0.108
3.130E-06,0.204
3.140E-06,0.260
3.150E-06,0.224
3.160E-06,0.108
3.170E-06,-0.016
3.180E-06,-0.096
3.190E-06,-0.092
3.200E-06,-0.004
3.210E-06,0.108
3.220E-06,0.192
3.230E-06,0.196
3.240E-06,0.104
3.250E-06,-0.024
