mediciones/5-15/32.5/WaveData4776.csv

#timebase=2000000(ps)
,#voltbase=100000(mv/100)
#size=4000
-8.400E-06,0.000
-8.390E-06,0.004
-8.380E-06,0.004
-8.370E-06,0.004
-8.360E-06,0.004
-8.350E-06,0.008
-8.340E-06,0.008
-8.330E-06,0.000
-8.320E-06,-0.004
-8.310E-06,0.000
-8.300E-06,-0.004
-8.290E-06,0.000
-8.280E-06,0.004
-8.270E-06,0.008
-8.260E-06,0.012
-8.250E-06,0.008
-8.240E-06,0.004
-8.230E-06,-0.004
-8.220E-06,-0.012
-8.210E-06,-0.036
-8.200E-06,-0.024
-8.190E-06,-0.004
-8.180E-06,0.020
-8.170E-06,0.032
-8.160E-06,0.032
-8.150E-06,0.012
-8.140E-06,-0.024
-8.130E-06,-0.036
-8.120E-06,-0.020
-8.110E-06,0.008
-8.100E-06,0.040
-8.090E-06,0.044
-8.080E-06,0.016
-8.070E-06,-0.008
-8.060E-06,-0.020
-8.050E-06,-0.024
-8.040E-06,-0.004
-8.030E-06,0.012
-8.020E-06,0.028
-8.010E-06,0.024
-8.000E-06,0.012
-7.990E-06,0.000
-7.980E-06,-0.008
-7.970E-06,-0.008
-7.960E-06,-0.004
-7.950E-06,0.000
-7.940E-06,0.008
-7.930E-06,0.012
-7.920E-06,0.012
-7.910E-06,0.008
-7.900E-06,0.000
-7.890E-06,-0.008
-7.880E-06,-0.004
-7.870E-06,-0.004
-7.860E-06,0.004
-7.850E-06,0.012
-7.840E-06,0.012
-7.830E-06,0.012
-7.820E-06,0.004
-7.810E-06,-0.004
-7.800E-06,-0.004
-7.790E-06,0.000
-7.780E-06,0.008
-7.770E-06,0.012
-7.760E-06,0.008
-7.750E-06,0.008
-7.740E-06,0.000
-7.730E-06,-0.004
-7.720E-06,-0.004
-7.710E-06,0.004
-7.700E-06,0.008
-7.690E-06,0.008
-7.680E-06,0.004
-7.670E-06,-0.004
-7.660E-06,0.000
-7.650E-06,0.000
-7.640E-06,0.004
-7.630E-06,0.008
-7.620E-06,0.008
-7.610E-06,0.008
-7.600E-06,0.004
-7.590E-06,0.000
-7.580E-06,0.000
-7.570E-06,-0.004
-7.560E-06,0.004
-7.550E-06,0.000
-7.540E-06,0.004
-7.530E-06,0.000
-7.520E-06,0.004
-7.510E-06,0.000
-7.500E-06,0.004
-7.490E-06,0.000
-7.480E-06,0.000
-7.470E-06,0.000
-7.460E-06,0.000
-7.450E-06,0.004
-7.440E-06,0.000
-7.430E-06,0.000
-7.420E-06,0.004
-7.410E-06,0.008
-7.400E-06,0.004
-7.390E-06,0.008
-7.380E-06,0.000
-7.370E-06,0.004
-7.360E-06,0.004
-7.350E-06,0.008
-7.340E-06,0.000
-7.330E-06,0.008
-7.320E-06,0.004
-7.310E-06,0.008
-7.300E-06,0.004
-7.290E-06,0.000
-7.280E-06,0.000
-7.270E-06,-0.008
-7.260E-06,-0.008
-7.250E-06,0.012
-7.240E-06,0.016
-7.230E-06,0.016
-7.220E-06,0.012
-7.210E-06,0.000
-7.200E-06,-0.008
-7.190E-06,-0.004
-7.180E-06,0.004
-7.170E-06,0.012
-7.160E-06,0.012
-7.150E-06,0.008
-7.140E-06,0.000
-7.130E-06,-0.004
-7.120E-06,0.000
-7.110E-06,0.004
-7.100E-06,0.008
-7.090E-06,0.008
-7.080E-06,0.004
-7.070E-06,0.000
-7.060E-06,-0.004
-7.050E-06,-0.008
-7.040E-06,0.000
-7.030E-06,-0.004
-7.020E-06,0.004
-7.010E-06,0.008
-7.000E-06,0.012
-6.990E-06,0.008
-6.980E-06,0.004
-6.970E-06,-0.004
-6.960E-06,0.000
-6.950E-06,-0.004
-6.940E-06,0.004
-6.930E-06,0.012
-6.920E-06,0.016
-6.910E-06,0.004
-6.900E-06,0.000
-6.890E-06,-0.004
-6.880E-06,-0.004
-6.870E-06,0.000
-6.860E-06,0.004
-6.850E-06,0.004
-6.840E-06,0.008
-6.830E-06,0.008
-6.820E-06,0.000
-6.810E-06,0.000
-6.800E-06,0.000
-6.790E-06,-0.004
-6.780E-06,0.000
-6.770E-06,0.008
-6.760E-06,0.012
-6.750E-06,0.008
-6.740E-06,0.004
-6.730E-06,-0.004
-6.720E-06,-0.004
-6.710E-06,-0.004
-6.700E-06,0.004
-6.690E-06,0.012
-6.680E-06,0.012
-6.670E-06,0.012
-6.660E-06,0.008
-6.650E-06,-0.008
-6.640E-06,-0.004
-6.630E-06,0.004
-6.620E-06,0.008
-6.610E-06,0.012
-6.600E-06,0.008
-6.590E-06,0.004
-6.580E-06,-0.008
-6.570E-06,-0.008
-6.560E-06,-0.008
-6.550E-06,0.000
-6.540E-06,0.008
-6.530E-06,0.008
-6.520E-06,0.008
-6.510E-06,0.004
-6.500E-06,-0.004
-6.490E-06,-0.004
-6.480E-06,0.000
-6.470E-06,0.016
-6.460E-06,0.008
-6.450E-06,0.004
-6.440E-06,0.000
-6.430E-06,-0.012
-6.420E-06,-0.008
-6.410E-06,0.000
-6.400E-06,0.008
-6.390E-06,0.012
-6.380E-06,0.004
-6.370E-06,-0.004
-6.360E-06,-0.004
-6.350E-06,-0.004
-6.340E-06,0.004
-6.330E-06,0.008
-6.320E-06,0.012
-6.310E-06,0.000
-6.300E-06,0.000
-6.290E-06,0.000
-6.280E-06,0.004
-6.270E-06,0.008
-6.260E-06,0.008
-6.250E-06,0.004
-6.240E-06,0.004
-6.230E-06,-0.004
-6.220E-06,0.004
-6.210E-06,0.008
-6.200E-06,0.000
-6.190E-06,0.008
-6.180E-06,0.008
-6.170E-06,0.004
-6.160E-06,0.000
-6.150E-06,0.000
-6.140E-06,0.000
-6.130E-06,0.000
-6.120E-06,0.004
-6.110E-06,0.004
-6.100E-06,0.008
-6.090E-06,0.004
-6.080E-06,0.004
-6.070E-06,0.000
-6.060E-06,0.004
-6.050E-06,0.004
-6.040E-06,-0.004
-6.030E-06,0.000
-6.020E-06,0.000
-6.010E-06,0.004
-6.000E-06,0.008
-5.990E-06,0.008
-5.980E-06,0.008
-5.970E-06,0.004
-5.960E-06,0.000
-5.950E-06,0.000
-5.940E-06,0.000
-5.930E-06,0.004
-5.920E-06,0.004
-5.910E-06,0.000
-5.900E-06,0.004
-5.890E-06,0.000
-5.880E-06,0.000
-5.870E-06,0.008
-5.860E-06,0.000
-5.850E-06,0.004
-5.840E-06,0.004
-5.830E-06,0.004
-5.820E-06,-0.004
-5.810E-06,0.000
-5.800E-06,0.004
-5.790E-06,0.008
-5.780E-06,0.012
-5.770E-06,0.012
-5.760E-06,0.004
-5.750E-06,0.004
-5.740E-06,0.000
-5.730E-06,-0.008
-5.720E-06,-0.004
-5.710E-06,0.000
-5.700E-06,0.008
-5.690E-06,0.012
-5.680E-06,0.012
-5.670E-06,0.004
-5.660E-06,0.004
-5.650E-06,-0.004
-5.640E-06,-0.004
-5.630E-06,-0.004
-5.620E-06,-0.004
-5.610E-06,0.008
-5.600E-06,0.012
-5.590E-06,0.016
-5.580E-06,0.012
-5.570E-06,0.000
-5.560E-06,0.000
-5.550E-06,-0.004
-5.540E-06,0.000
-5.530E-06,0.004
-5.520E-06,0.008
-5.510E-06,0.012
-5.500E-06,0.008
-5.490E-06,0.000
-5.480E-06,-0.012
-5.470E-06,-0.004
-5.460E-06,-0.004
-5.450E-06,0.008
-5.440E-06,0.008
-5.430E-06,0.012
-5.420E-06,0.008
-5.410E-06,0.000
-5.400E-06,-0.004
-5.390E-06,-0.004
-5.380E-06,0.000
-5.370E-06,0.008
-5.360E-06,0.012
-5.350E-06,0.008
-5.340E-06,0.008
-5.330E-06,-0.004
-5.320E-06,0.000
-5.310E-06,-0.004
-5.300E-06,-0.004
-5.290E-06,0.000
-5.280E-06,0.008
-5.270E-06,0.012
-5.260E-06,0.012
-5.250E-06,0.008
-5.240E-06,-0.004
-5.230E-06,0.000
-5.220E-06,-0.004
-5.210E-06,0.000
-5.200E-06,0.008
-5.190E-06,0.008
-5.180E-06,0.008
-5.170E-06,0.008
-5.160E-06,0.000
-5.150E-06,-0.004
-5.140E-06,0.000
-5.130E-06,0.000
-5.120E-06,0.012
-5.110E-06,0.012
-5.100E-06,0.016
-5.090E-06,0.004
-5.080E-06,0.004
-5.070E-06,0.004
-5.060E-06,0.000
-5.050E-06,0.004
-5.040E-06,0.000
-5.030E-06,0.000
-5.020E-06,0.000
-5.010E-06,0.000
-5.000E-06,0.000
-4.990E-06,0.000
-4.980E-06,0.004
-4.970E-06,0.004
-4.960E-06,0.008
-4.950E-06,0.004
-4.940E-06,0.000
-4.930E-06,0.004
-4.920E-06,0.004
-4.910E-06,0.008
-4.900E-06,0.012
-4.890E-06,0.016
-4.880E-06,0.012
-4.870E-06,0.004
-4.860E-06,-0.008
-4.850E-06,-0.004
-4.840E-06,0.000
-4.830E-06,0.008
-4.820E-06,0.012
-4.810E-06,0.012
-4.800E-06,0.008
-4.790E-06,-0.004
-4.780E-06,0.000
-4.770E-06,0.004
-4.760E-06,0.008
-4.750E-06,0.008
-4.740E-06,0.004
-4.730E-06,-0.004
-4.720E-06,0.000
-4.710E-06,0.000
-4.700E-06,0.008
-4.690E-06,0.012
-4.680E-06,0.012
-4.670E-06,0.008
-4.660E-06,0.000
-4.650E-06,-0.004
-4.640E-06,-0.004
-4.630E-06,0.008
-4.620E-06,0.012
-4.610E-06,0.016
-4.600E-06,0.008
-4.590E-06,0.004
-4.580E-06,0.004
-4.570E-06,-0.008
-4.560E-06,0.000
-4.550E-06,0.000
-4.540E-06,0.004
-4.530E-06,0.008
-4.520E-06,0.008
-4.510E-06,0.008
-4.500E-06,0.004
-4.490E-06,0.004
-4.480E-06,0.000
-4.470E-06,0.000
-4.460E-06,0.008
-4.450E-06,0.016
-4.440E-06,0.016
-4.430E-06,0.016
-4.420E-06,0.012
-4.410E-06,0.004
-4.400E-06,0.000
-4.390E-06,-0.004
-4.380E-06,-0.004
-4.370E-06,0.008
-4.360E-06,0.016
-4.350E-06,0.020
-4.340E-06,0.016
-4.330E-06,0.008
-4.320E-06,0.004
-4.310E-06,0.000
-4.300E-06,0.000
-4.290E-06,0.008
-4.280E-06,0.012
-4.270E-06,0.008
-4.260E-06,0.012
-4.250E-06,0.008
-4.240E-06,0.004
-4.230E-06,0.000
-4.220E-06,0.000
-4.210E-06,0.008
-4.200E-06,0.012
-4.190E-06,0.020
-4.180E-06,0.028
-4.170E-06,0.028
-4.160E-06,0.016
-4.150E-06,0.008
-4.140E-06,0.004
-4.130E-06,0.004
-4.120E-06,0.004
-4.110E-06,0.012
-4.100E-06,0.016
-4.090E-06,0.008
-4.080E-06,0.004
-4.070E-06,-0.004
-4.060E-06,-0.012
-4.050E-06,-0.012
-4.040E-06,-0.004
-4.030E-06,0.020
-4.020E-06,0.028
-4.010E-06,0.016
-4.000E-06,-0.004
-3.990E-06,-0.024
-3.980E-06,-0.036
-3.970E-06,-0.024
-3.960E-06,0.004
-3.950E-06,0.028
-3.940E-06,0.020
-3.930E-06,0.012
-3.920E-06,-0.008
-3.910E-06,-0.028
-3.900E-06,-0.024
-3.890E-06,-0.008
-3.880E-06,0.012
-3.870E-06,0.016
-3.860E-06,0.008
-3.850E-06,-0.008
-3.840E-06,-0.008
-3.830E-06,-0.004
-3.820E-06,0.008
-3.810E-06,0.016
-3.800E-06,0.012
-3.790E-06,0.004
-3.780E-06,0.004
-3.770E-06,0.000
-3.760E-06,0.000
-3.750E-06,0.000
-3.740E-06,0.008
-3.730E-06,0.012
-3.720E-06,0.012
-3.710E-06,0.016
-3.700E-06,0.008
-3.690E-06,0.008
-3.680E-06,0.004
-3.670E-06,0.008
-3.660E-06,0.008
-3.650E-06,0.000
-3.640E-06,0.008
-3.630E-06,0.020
-3.620E-06,0.016
-3.610E-06,0.008
-3.600E-06,0.008
-3.590E-06,0.008
-3.580E-06,-0.004
-3.570E-06,-0.004
-3.560E-06,-0.004
-3.550E-06,0.008
-3.540E-06,0.004
-3.530E-06,0.008
-3.520E-06,0.008
-3.510E-06,0.012
-3.500E-06,0.008
-3.490E-06,0.008
-3.480E-06,0.004
-3.470E-06,-0.008
-3.460E-06,0.008
-3.450E-06,0.024
-3.440E-06,0.036
-3.430E-06,0.020
-3.420E-06,0.000
-3.410E-06,-0.016
-3.400E-06,-0.020
-3.390E-06,0.000
-3.380E-06,0.024
-3.370E-06,0.036
-3.360E-06,0.036
-3.350E-06,0.028
-3.340E-06,0.008
-3.330E-06,-0.012
-3.320E-06,-0.008
-3.310E-06,-0.004
-3.300E-06,0.008
-3.290E-06,0.016
-3.280E-06,0.012
-3.270E-06,0.012
-3.260E-06,0.012
-3.250E-06,0.016
-3.240E-06,0.000
-3.230E-06,-0.016
-3.220E-06,-0.028
-3.210E-06,-0.028
-3.200E-06,-0.020
-3.190E-06,-0.008
-3.180E-06,0.004
-3.170E-06,0.008
-3.160E-06,0.020
-3.150E-06,0.016
-3.140E-06,0.000
-3.130E-06,-0.016
-3.120E-06,-0.024
-3.110E-06,-0.012
-3.100E-06,0.016
-3.090E-06,0.020
-3.080E-06,0.020
-3.070E-06,0.012
-3.060E-06,-0.004
-3.050E-06,-0.008
-3.040E-06,-0.008
-3.030E-06,0.004
-3.020E-06,0.012
-3.010E-06,0.016
-3.000E-06,0.016
-2.990E-06,0.008
-2.980E-06,0.008
-2.970E-06,0.004
-2.960E-06,0.004
-2.950E-06,0.000
-2.940E-06,0.004
-2.930E-06,0.008
-2.920E-06,0.008
-2.910E-06,0.012
-2.900E-06,0.012
-2.890E-06,0.012
-2.880E-06,0.000
-2.870E-06,0.000
-2.860E-06,0.004
-2.850E-06,0.012
-2.840E-06,0.008
-2.830E-06,0.016
-2.820E-06,0.016
-2.810E-06,0.008
-2.800E-06,0.000
-2.790E-06,0.000
-2.780E-06,0.000
-2.770E-06,0.008
-2.760E-06,0.020
-2.750E-06,0.028
-2.740E-06,0.028
-2.730E-06,0.020
-2.720E-06,0.008
-2.710E-06,0.000
-2.700E-06,0.004
-2.690E-06,0.012
-2.680E-06,0.024
-2.670E-06,0.024
-2.660E-06,0.028
-2.650E-06,0.032
-2.640E-06,0.024
-2.630E-06,0.028
-2.620E-06,0.024
-2.610E-06,0.024
-2.600E-06,0.044
-2.590E-06,0.052
-2.580E-06,0.060
-2.570E-06,0.052
-2.560E-06,0.052
-2.550E-06,0.032
-2.540E-06,0.024
-2.530E-06,0.032
-2.520E-06,0.052
-2.510E-06,0.048
-2.500E-06,0.020
-2.490E-06,0.008
-2.480E-06,-0.008
-2.470E-06,-0.084
-2.460E-06,-0.120
-2.450E-06,-0.104
-2.440E-06,-0.048
-2.430E-06,0.024
-2.420E-06,0.088
-2.410E-06,0.108
-2.400E-06,0.040
-2.390E-06,-0.024
-2.380E-06,-0.088
-2.370E-06,-0.084
-2.360E-06,-0.016
-2.350E-06,0.044
-2.340E-06,0.060
-2.330E-06,0.044
-2.320E-06,0.008
-2.310E-06,-0.004
-2.300E-06,0.008
-2.290E-06,0.024
-2.280E-06,0.032
-2.270E-06,0.040
-2.260E-06,0.028
-2.250E-06,-0.008
-2.240E-06,-0.040
-2.230E-06,-0.040
-2.220E-06,-0.020
-2.210E-06,0.016
-2.200E-06,0.028
-2.190E-06,0.036
-2.180E-06,0.016
-2.170E-06,0.016
-2.160E-06,-0.004
-2.150E-06,0.008
-2.140E-06,0.012
-2.130E-06,0.032
-2.120E-06,0.040
-2.110E-06,0.044
-2.100E-06,0.036
-2.090E-06,0.028
-2.080E-06,0.028
-2.070E-06,0.024
-2.060E-06,0.040
-2.050E-06,0.044
-2.040E-06,0.060
-2.030E-06,0.068
-2.020E-06,0.072
-2.010E-06,0.068
-2.000E-06,0.052
-1.990E-06,0.036
-1.980E-06,0.032
-1.970E-06,0.044
-1.960E-06,0.044
-1.950E-06,0.060
-1.940E-06,0.060
-1.930E-06,0.048
-1.920E-06,0.036
-1.910E-06,0.020
-1.900E-06,0.000
-1.890E-06,-0.008
-1.880E-06,0.000
-1.870E-06,0.020
-1.860E-06,0.056
-1.850E-06,0.096
-1.840E-06,0.112
-1.830E-06,0.096
-1.820E-06,0.056
-1.810E-06,0.008
-1.800E-06,-0.008
-1.790E-06,-0.008
-1.780E-06,0.024
-1.770E-06,0.080
-1.760E-06,0.116
-1.750E-06,0.108
-1.740E-06,0.072
-1.730E-06,0.028
-1.720E-06,0.004
-1.710E-06,0.012
-1.700E-06,0.036
-1.690E-06,0.068
-1.680E-06,0.084
-1.670E-06,0.088
-1.660E-06,0.056
-1.650E-06,0.036
-1.640E-06,0.024
-1.630E-06,0.020
-1.620E-06,0.020
-1.610E-06,-0.032
-1.600E-06,-0.068
-1.590E-06,-0.080
-1.580E-06,-0.168
-1.570E-06,-0.196
-1.560E-06,-0.200
-1.550E-06,-0.076
-1.540E-06,0.092
-1.530E-06,-0.028
-1.520E-06,-0.152
-1.510E-06,-0.408
-1.500E-06,-0.480
-1.490E-06,-0.416
-1.480E-06,-0.204
-1.470E-06,0.092
-1.460E-06,0.328
-1.450E-06,0.464
-1.440E-06,0.288
-1.430E-06,-0.064
-1.420E-06,-0.408
-1.410E-06,-0.464
-1.400E-06,-0.284
-1.390E-06,0.084
-1.380E-06,0.292
-1.370E-06,0.304
-1.360E-06,0.092
-1.350E-06,-0.140
-1.340E-06,-0.316
-1.330E-06,-0.280
-1.320E-06,-0.108
-1.310E-06,0.100
-1.300E-06,0.212
-1.290E-06,0.224
-1.280E-06,0.096
-1.270E-06,-0.084
-1.260E-06,-0.188
-1.250E-06,-0.188
-1.240E-06,-0.064
-1.230E-06,0.072
-1.220E-06,0.192
-1.210E-06,0.220
-1.200E-06,0.192
-1.190E-06,0.096
-1.180E-06,0.024
-1.170E-06,-0.004
-1.160E-06,0.028
-1.150E-06,0.084
-1.140E-06,0.140
-1.130E-06,0.156
-1.120E-06,0.128
-1.110E-06,0.072
-1.100E-06,-0.012
-1.090E-06,-0.096
-1.080E-06,-0.164
-1.070E-06,-0.160
-1.060E-06,-0.108
-1.050E-06,0.016
-1.040E-06,0.156
-1.030E-06,0.240
-1.020E-06,0.236
-1.010E-06,0.152
-1.000E-06,0.056
-9.900E-07,-0.040
-9.800E-07,-0.044
-9.700E-07,0.004
-9.600E-07,0.072
-9.500E-07,0.088
-9.400E-07,-0.008
-9.300E-07,-0.164
-9.200E-07,-0.292
-9.100E-07,-0.396
-9.000E-07,-0.360
-8.900E-07,-0.200
-8.800E-07,0.012
-8.700E-07,0.116
-8.600E-07,0.096
-8.500E-07,0.024
-8.400E-07,-0.040
-8.300E-07,-0.052
-8.200E-07,-0.064
-8.100E-07,-0.036
-8.000E-07,0.024
-7.900E-07,0.076
-7.800E-07,0.120
-7.700E-07,0.100
-7.600E-07,0.036
-7.500E-07,-0.024
-7.400E-07,-0.048
-7.300E-07,-0.024
-7.200E-07,0.056
-7.100E-07,0.128
-7.000E-07,0.156
-6.900E-07,0.120
-6.800E-07,0.024
-6.700E-07,-0.080
-6.600E-07,-0.124
-6.500E-07,-0.072
-6.400E-07,0.012
-6.300E-07,0.084
-6.200E-07,0.108
-6.100E-07,0.096
-6.000E-07,0.032
-5.900E-07,-0.028
-5.800E-07,-0.060
-5.700E-07,-0.048
-5.600E-07,-0.024
-5.500E-07,0.028
-5.400E-07,0.092
-5.300E-07,0.108
-5.200E-07,0.100
-5.100E-07,0.060
-5.000E-07,0.028
-4.900E-07,-0.008
-4.800E-07,-0.004
-4.700E-07,0.012
-4.600E-07,0.040
-4.500E-07,0.060
-4.400E-07,0.044
-4.300E-07,0.004
-4.200E-07,-0.028
-4.100E-07,-0.068
-4.000E-07,-0.076
-3.900E-07,-0.040
-3.800E-07,0.004
-3.700E-07,0.048
-3.600E-07,0.044
-3.500E-07,0.036
-3.400E-07,0.008
-3.300E-07,-0.004
-3.200E-07,-0.016
-3.100E-07,0.000
-3.000E-07,0.040
-2.900E-07,0.076
-2.800E-07,0.096
-2.700E-07,0.088
-2.600E-07,0.064
-2.500E-07,0.036
-2.400E-07,0.024
-2.300E-07,0.040
-2.200E-07,0.068
-2.100E-07,0.096
-2.000E-07,0.112
-1.900E-07,0.104
-1.800E-07,0.084
-1.700E-07,0.060
-1.600E-07,0.040
-1.500E-07,0.060
-1.400E-07,0.108
-1.300E-07,0.140
-1.200E-07,0.160
-1.100E-07,0.144
-1.000E-07,0.112
-9.000E-08,0.072
-8.000E-08,0.004
-7.000E-08,-0.052
-6.000E-08,-0.296
-5.000E-08,-0.512
-4.000E-08,-0.512
-3.000E-08,-0.512
-2.000E-08,-0.512
-1.000E-08,-0.048
0.000E+00,0.540
1.000E-08,0.540
2.000E-08,0.524
3.000E-08,-0.132
4.000E-08,-0.460
5.000E-08,-0.484
6.000E-08,-0.224
7.000E-08,0.096
8.000E-08,0.372
9.000E-08,0.472
1.000E-07,0.404
1.100E-07,0.212
1.200E-07,-0.168
1.300E-07,-0.360
1.400E-07,-0.364
1.500E-07,-0.060
1.600E-07,0.276
1.700E-07,0.540
1.800E-07,0.496
1.900E-07,0.264
2.000E-07,-0.064
2.100E-07,-0.352
2.200E-07,-0.428
2.300E-07,-0.332
2.400E-07,-0.140
2.500E-07,0.020
2.600E-07,0.128
2.700E-07,0.028
2.800E-07,-0.088
2.900E-07,-0.256
3.000E-07,-0.308
3.100E-07,-0.208
3.200E-07,-0.092
3.300E-07,0.088
3.400E-07,0.156
3.500E-07,0.172
3.600E-07,0.044
3.700E-07,-0.032
3.800E-07,-0.104
3.900E-07,-0.076
4.000E-07,-0.040
4.100E-07,0.016
4.200E-07,0.068
4.300E-07,0.076
4.400E-07,0.088
4.500E-07,0.036
4.600E-07,0.020
4.700E-07,-0.032
4.800E-07,-0.024
4.900E-07,-0.012
5.000E-07,0.028
5.100E-07,0.060
5.200E-07,0.076
5.300E-07,0.084
5.400E-07,0.072
5.500E-07,0.072
5.600E-07,0.060
5.700E-07,0.064
5.800E-07,0.056
5.900E-07,0.084
6.000E-07,0.096
6.100E-07,0.124
6.200E-07,0.120
6.300E-07,0.108
6.400E-07,0.092
6.500E-07,0.080
6.600E-07,0.088
6.700E-07,0.080
6.800E-07,0.092
6.900E-07,0.080
7.000E-07,0.068
7.100E-07,0.032
7.200E-07,-0.004
7.300E-07,-0.044
7.400E-07,-0.072
7.500E-07,-0.064
7.600E-07,-0.040
7.700E-07,-0.004
7.800E-07,0.016
7.900E-07,0.008
8.000E-07,-0.008
8.100E-07,-0.024
8.200E-07,-0.008
8.300E-07,0.008
8.400E-07,0.024
8.500E-07,0.036
8.600E-07,0.032
8.700E-07,0.028
8.800E-07,0.016
8.900E-07,-0.004
9.000E-07,0.012
9.100E-07,0.024
9.200E-07,0.060
9.300E-07,0.080
9.400E-07,0.076
9.500E-07,0.068
9.600E-07,0.056
9.700E-07,0.048
9.800E-07,0.064
9.900E-07,0.092
1.000E-06,0.104
1.010E-06,0.112
1.020E-06,0.104
1.030E-06,0.092
1.040E-06,0.084
1.050E-06,0.088
1.060E-06,0.080
1.070E-06,0.088
1.080E-06,0.080
1.090E-06,0.068
1.100E-06,0.024
1.110E-06,-0.032
1.120E-06,-0.068
1.130E-06,-0.080
1.140E-06,-0.024
1.150E-06,0.024
1.160E-06,0.056
1.170E-06,-0.064
1.180E-06,-0.320
1.190E-06,-0.512
1.200E-06,-0.512
1.210E-06,-0.360
1.220E-06,-0.016
1.230E-06,0.392
1.240E-06,0.516
1.250E-06,0.408
1.260E-06,0.036
1.270E-06,-0.320
1.280E-06,-0.436
1.290E-06,-0.272
1.300E-06,0.088
1.310E-06,0.376
1.320E-06,0.480
1.330E-06,0.340
1.340E-06,0.124
1.350E-06,-0.164
1.360E-06,-0.292
1.370E-06,-0.276
1.380E-06,-0.052
1.390E-06,0.196
1.400E-06,0.360
1.410E-06,0.320
1.420E-06,0.088
1.430E-06,-0.184
1.440E-06,-0.476
1.450E-06,-0.508
1.460E-06,-0.512
1.470E-06,-0.344
1.480E-06,-0.008
1.490E-06,0.264
1.500E-06,0.288
1.510E-06,0.104
1.520E-06,-0.128
1.530E-06,-0.220
1.540E-06,-0.152
1.550E-06,0.008
1.560E-06,0.200
1.570E-06,0.280
1.580E-06,0.268
1.590E-06,0.148
1.600E-06,0.000
1.610E-06,-0.128
1.620E-06,-0.160
1.630E-06,-0.116
1.640E-06,-0.004
1.650E-06,0.132
1.660E-06,0.196
1.670E-06,0.176
1.680E-06,0.064
1.690E-06,-0.040
1.700E-06,-0.104
1.710E-06,-0.072
1.720E-06,-0.004
1.730E-06,0.092
1.740E-06,0.144
1.750E-06,0.156
1.760E-06,0.132
1.770E-06,0.084
1.780E-06,0.052
1.790E-06,0.028
1.800E-06,0.040
1.810E-06,0.084
1.820E-06,0.144
1.830E-06,0.188
1.840E-06,0.196
1.850E-06,0.164
1.860E-06,0.108
1.870E-06,0.056
1.880E-06,0.032
1.890E-06,0.048
1.900E-06,0.064
1.910E-06,0.096
1.920E-06,0.108
1.930E-06,0.088
1.940E-06,0.036
1.950E-06,-0.004
1.960E-06,-0.048
1.970E-06,-0.056
1.980E-06,-0.036
1.990E-06,-0.024
2.000E-06,-0.008
2.010E-06,-0.032
2.020E-06,-0.028
2.030E-06,-0.020
2.040E-06,0.004
2.050E-06,0.044
2.060E-06,0.092
2.070E-06,0.136
2.080E-06,0.160
2.090E-06,0.160
2.100E-06,0.124
2.110E-06,0.084
2.120E-06,0.040
2.130E-06,0.028
2.140E-06,0.000
2.150E-06,-0.024
2.160E-06,-0.056
2.170E-06,-0.096
2.180E-06,-0.112
2.190E-06,-0.092
2.200E-06,-0.092
2.210E-06,-0.096
2.220E-06,-0.068
2.230E-06,-0.032
2.240E-06,0.028
2.250E-06,0.092
2.260E-06,0.128
2.270E-06,0.128
2.280E-06,0.108
2.290E-06,0.100
2.300E-06,0.092
2.310E-06,0.088
2.320E-06,0.044
2.330E-06,0.012
2.340E-06,0.004
2.350E-06,-0.004
2.360E-06,-0.008
2.370E-06,-0.052
2.380E-06,-0.116
2.390E-06,-0.168
2.400E-06,-0.192
2.410E-06,-0.200
2.420E-06,-0.124
2.430E-06,-0.028
2.440E-06,0.092
2.450E-06,0.136
2.460E-06,0.156
2.470E-06,0.108
2.480E-06,0.060
2.490E-06,-0.016
2.500E-06,-0.084
2.510E-06,-0.044
2.520E-06,0.064
2.530E-06,0.208
2.540E-06,0.244
2.550E-06,0.184
2.560E-06,0.040
2.570E-06,-0.072
2.580E-06,-0.112
2.590E-06,-0.080
2.600E-06,-0.012
2.610E-06,0.052
2.620E-06,0.088
2.630E-06,0.048
2.640E-06,-0.004
2.650E-06,-0.060
2.660E-06,-0.068
2.670E-06,-0.072
2.680E-06,-0.040
2.690E-06,0.012
2.700E-06,0.068
2.710E-06,0.076
2.720E-06,0.056
2.730E-06,0.028
2.740E-06,0.012
2.750E-06,0.056
2.760E-06,0.104
2.770E-06,0.152
2.780E-06,0.180
2.790E-06,0.164
2.800E-06,0.124
2.810E-06,0.072
2.820E-06,0.024
2.830E-06,0.008
2.840E-06,0.012
2.850E-06,0.024
2.860E-06,0.028
2.870E-06,0.008
2.880E-06,-0.024
2.890E-06,-0.052
2.900E-06,-0.056
2.910E-06,-0.028
2.920E-06,0.020
2.930E-06,0.056
2.940E-06,0.096
2.950E-06,0.112
2.960E-06,0.100
2.970E-06,0.076
2.980E-06,0.056
2.990E-06,0.060
3.000E-06,0.092
3.010E-06,0.120
3.020E-06,0.144
3.030E-06,0.156
3.040E-06,0.140
3.050E-06,0.108
3.060E-06,0.076
3.070E-06,0.056
3.080E-06,0.072
3.090E-06,0.104
3.100E-06,0.128
3.110E-06,0.136
3.120E-06,0.124
3.130E-06,0.096
3.140E-06,0.088
3.150E-06,0.080
3.160E-06,0.096
3.170E-06,0.124
3.180E-06,0.144
3.190E-06,0.144
3.200E-06,0.132
3.210E-06,0.112
3.220E-06,0.088
3.230E-06,0.084
3.240E-06,0.092
3.250E-06,0.108
3.260E-06,0.136
3.270E-06,0.136
3.280E-06,0.128
3.290E-06,0.112
3.300E-06,0.096
3.310E-06,0.088
3.320E-06,0.092
3.330E-06,0.104
