mediciones/Mediciones filtradas (saque las feas)/5-15/1.2/WaveData47585.csv

#timebase=2000000(ps)
,#voltbase=200000(mv/100)
#size=4000
-8.400E-06,0.008
-8.390E-06,0.016
-8.380E-06,-0.008
-8.370E-06,0.000
-8.360E-06,-0.016
-8.350E-06,0.000
-8.340E-06,-0.016
-8.330E-06,-0.008
-8.320E-06,0.000
-8.310E-06,0.000
-8.300E-06,-0.008
-8.290E-06,0.000
-8.280E-06,-0.008
-8.270E-06,0.008
-8.260E-06,0.008
-8.250E-06,0.008
-8.240E-06,0.000
-8.230E-06,0.000
-8.220E-06,-0.008
-8.210E-06,-0.008
-8.200E-06,0.000
-8.190E-06,0.000
-8.180E-06,0.000
-8.170E-06,0.000
-8.160E-06,0.008
-8.150E-06,0.008
-8.140E-06,0.016
-8.130E-06,0.016
-8.120E-06,0.008
-8.110E-06,0.008
-8.100E-06,0.008
-8.090E-06,0.008
-8.080E-06,-0.008
-8.070E-06,0.008
-8.060E-06,0.016
-8.050E-06,0.016
-8.040E-06,0.008
-8.030E-06,0.016
-8.020E-06,0.000
-8.010E-06,0.000
-8.000E-06,0.008
-7.990E-06,0.024
-7.980E-06,0.024
-7.970E-06,0.024
-7.960E-06,0.008
-7.950E-06,0.016
-7.940E-06,0.008
-7.930E-06,0.000
-7.920E-06,0.000
-7.910E-06,0.000
-7.900E-06,0.008
-7.890E-06,-0.008
-7.880E-06,0.008
-7.870E-06,0.000
-7.860E-06,0.000
-7.850E-06,0.000
-7.840E-06,0.008
-7.830E-06,-0.008
-7.820E-06,0.000
-7.810E-06,0.000
-7.800E-06,0.000
-7.790E-06,0.000
-7.780E-06,-0.016
-7.770E-06,-0.008
-7.760E-06,-0.016
-7.750E-06,-0.008
-7.740E-06,-0.008
-7.730E-06,0.000
-7.720E-06,-0.008
-7.710E-06,-0.008
-7.700E-06,-0.008
-7.690E-06,0.016
-7.680E-06,0.024
-7.670E-06,0.016
-7.660E-06,0.000
-7.650E-06,0.008
-7.640E-06,0.008
-7.630E-06,0.024
-7.620E-06,0.008
-7.610E-06,0.016
-7.600E-06,0.008
-7.590E-06,0.008
-7.580E-06,0.000
-7.570E-06,-0.008
-7.560E-06,0.000
-7.550E-06,0.000
-7.540E-06,0.000
-7.530E-06,0.000
-7.520E-06,0.008
-7.510E-06,0.016
-7.500E-06,0.000
-7.490E-06,0.008
-7.480E-06,0.016
-7.470E-06,0.016
-7.460E-06,0.016
-7.450E-06,0.008
-7.440E-06,0.008
-7.430E-06,-0.008
-7.420E-06,0.000
-7.410E-06,0.000
-7.400E-06,0.000
-7.390E-06,0.000
-7.380E-06,0.008
-7.370E-06,0.000
-7.360E-06,0.000
-7.350E-06,0.000
-7.340E-06,0.000
-7.330E-06,-0.008
-7.320E-06,0.000
-7.310E-06,-0.008
-7.300E-06,0.000
-7.290E-06,-0.008
-7.280E-06,0.000
-7.270E-06,0.000
-7.260E-06,0.000
-7.250E-06,0.000
-7.240E-06,-0.008
-7.230E-06,0.008
-7.220E-06,0.000
-7.210E-06,0.016
-7.200E-06,0.016
-7.190E-06,0.000
-7.180E-06,0.000
-7.170E-06,-0.016
-7.160E-06,-0.008
-7.150E-06,-0.008
-7.140E-06,0.000
-7.130E-06,-0.008
-7.120E-06,-0.008
-7.110E-06,-0.016
-7.100E-06,0.000
-7.090E-06,0.000
-7.080E-06,0.000
-7.070E-06,0.008
-7.060E-06,0.008
-7.050E-06,-0.008
-7.040E-06,-0.008
-7.030E-06,0.000
-7.020E-06,0.000
-7.010E-06,0.000
-7.000E-06,0.000
-6.990E-06,0.008
-6.980E-06,0.000
-6.970E-06,0.016
-6.960E-06,0.024
-6.950E-06,0.024
-6.940E-06,0.000
-6.930E-06,0.008
-6.920E-06,0.008
-6.910E-06,0.008
-6.900E-06,0.000
-6.890E-06,0.016
-6.880E-06,0.000
-6.870E-06,0.000
-6.860E-06,-0.008
-6.850E-06,0.000
-6.840E-06,0.000
-6.830E-06,-0.016
-6.820E-06,-0.008
-6.810E-06,-0.008
-6.800E-06,0.008
-6.790E-06,0.016
-6.780E-06,0.016
-6.770E-06,0.000
-6.760E-06,0.008
-6.750E-06,0.008
-6.740E-06,0.016
-6.730E-06,0.016
-6.720E-06,0.016
-6.710E-06,0.000
-6.700E-06,0.000
-6.690E-06,0.016
-6.680E-06,0.008
-6.670E-06,0.008
-6.660E-06,0.024
-6.650E-06,0.000
-6.640E-06,0.008
-6.630E-06,0.008
-6.620E-06,0.000
-6.610E-06,0.000
-6.600E-06,0.016
-6.590E-06,0.008
-6.580E-06,0.024
-6.570E-06,0.016
-6.560E-06,0.016
-6.550E-06,0.000
-6.540E-06,-0.008
-6.530E-06,0.016
-6.520E-06,0.024
-6.510E-06,0.008
-6.500E-06,0.008
-6.490E-06,0.000
-6.480E-06,0.000
-6.470E-06,0.000
-6.460E-06,0.000
-6.450E-06,0.000
-6.440E-06,-0.008
-6.430E-06,-0.008
-6.420E-06,-0.016
-6.410E-06,-0.008
-6.400E-06,-0.008
-6.390E-06,-0.008
-6.380E-06,0.000
-6.370E-06,-0.008
-6.360E-06,-0.016
-6.350E-06,-0.008
-6.340E-06,-0.008
-6.330E-06,0.000
-6.320E-06,0.008
-6.310E-06,0.008
-6.300E-06,0.000
-6.290E-06,-0.008
-6.280E-06,-0.008
-6.270E-06,0.000
-6.260E-06,-0.008
-6.250E-06,-0.008
-6.240E-06,0.000
-6.230E-06,0.000
-6.220E-06,0.008
-6.210E-06,0.016
-6.200E-06,0.024
-6.190E-06,0.008
-6.180E-06,0.016
-6.170E-06,0.008
-6.160E-06,0.008
-6.150E-06,0.000
-6.140E-06,0.000
-6.130E-06,-0.008
-6.120E-06,-0.008
-6.110E-06,-0.008
-6.100E-06,0.008
-6.090E-06,0.016
-6.080E-06,0.016
-6.070E-06,0.000
-6.060E-06,0.016
-6.050E-06,0.016
-6.040E-06,0.008
-6.030E-06,0.016
-6.020E-06,-0.008
-6.010E-06,-0.032
-6.000E-06,-0.056
-5.990E-06,-0.072
-5.980E-06,-0.032
-5.970E-06,-0.032
-5.960E-06,-0.032
-5.950E-06,-0.040
-5.940E-06,-0.032
-5.930E-06,-0.040
-5.920E-06,-0.040
-5.910E-06,-0.024
-5.900E-06,-0.008
-5.890E-06,-0.008
-5.880E-06,-0.008
-5.870E-06,0.000
-5.860E-06,0.000
-5.850E-06,0.024
-5.840E-06,0.032
-5.830E-06,0.048
-5.820E-06,0.056
-5.810E-06,0.048
-5.800E-06,0.056
-5.790E-06,0.040
-5.780E-06,0.048
-5.770E-06,0.064
-5.760E-06,0.072
-5.750E-06,0.048
-5.740E-06,0.064
-5.730E-06,0.040
-5.720E-06,0.048
-5.710E-06,0.056
-5.700E-06,0.040
-5.690E-06,0.016
-5.680E-06,0.032
-5.670E-06,0.016
-5.660E-06,0.016
-5.650E-06,0.016
-5.640E-06,0.008
-5.630E-06,0.000
-5.620E-06,0.000
-5.610E-06,-0.008
-5.600E-06,-0.024
-5.590E-06,-0.032
-5.580E-06,-0.024
-5.570E-06,-0.016
-5.560E-06,-0.008
-5.550E-06,-0.024
-5.540E-06,-0.040
-5.530E-06,-0.024
-5.520E-06,-0.032
-5.510E-06,-0.016
-5.500E-06,-0.008
-5.490E-06,-0.008
-5.480E-06,-0.016
-5.470E-06,-0.032
-5.460E-06,-0.008
-5.450E-06,-0.008
-5.440E-06,0.000
-5.430E-06,-0.008
-5.420E-06,0.000
-5.410E-06,0.000
-5.400E-06,0.000
-5.390E-06,0.024
-5.380E-06,0.032
-5.370E-06,0.016
-5.360E-06,0.032
-5.350E-06,0.024
-5.340E-06,0.016
-5.330E-06,0.016
-5.320E-06,0.000
-5.310E-06,0.008
-5.300E-06,0.016
-5.290E-06,0.016
-5.280E-06,0.008
-5.270E-06,0.016
-5.260E-06,-0.008
-5.250E-06,-0.008
-5.240E-06,0.000
-5.230E-06,0.000
-5.220E-06,0.000
-5.210E-06,-0.008
-5.200E-06,-0.016
-5.190E-06,-0.024
-5.180E-06,-0.016
-5.170E-06,-0.008
-5.160E-06,-0.008
-5.150E-06,-0.008
-5.140E-06,0.000
-5.130E-06,0.000
-5.120E-06,0.008
-5.110E-06,0.000
-5.100E-06,0.000
-5.090E-06,0.000
-5.080E-06,0.000
-5.070E-06,0.000
-5.060E-06,0.008
-5.050E-06,-0.008
-5.040E-06,-0.008
-5.030E-06,-0.008
-5.020E-06,0.000
-5.010E-06,0.008
-5.000E-06,0.024
-4.990E-06,0.032
-4.980E-06,0.024
-4.970E-06,0.024
-4.960E-06,0.016
-4.950E-06,0.016
-4.940E-06,0.008
-4.930E-06,0.000
-4.920E-06,0.000
-4.910E-06,-0.008
-4.900E-06,0.000
-4.890E-06,-0.008
-4.880E-06,0.000
-4.870E-06,0.008
-4.860E-06,0.000
-4.850E-06,0.000
-4.840E-06,-0.008
-4.830E-06,-0.016
-4.820E-06,0.000
-4.810E-06,-0.008
-4.800E-06,0.000
-4.790E-06,0.008
-4.780E-06,-0.016
-4.770E-06,-0.016
-4.760E-06,-0.024
-4.750E-06,0.000
-4.740E-06,-0.008
-4.730E-06,0.000
-4.720E-06,-0.008
-4.710E-06,-0.008
-4.700E-06,-0.016
-4.690E-06,-0.008
-4.680E-06,0.000
-4.670E-06,0.000
-4.660E-06,0.000
-4.650E-06,0.016
-4.640E-06,0.008
-4.630E-06,0.032
-4.620E-06,0.024
-4.610E-06,0.016
-4.600E-06,0.008
-4.590E-06,0.000
-4.580E-06,0.000
-4.570E-06,0.008
-4.560E-06,0.000
-4.550E-06,0.008
-4.540E-06,0.000
-4.530E-06,-0.008
-4.520E-06,0.016
-4.510E-06,0.016
-4.500E-06,0.024
-4.490E-06,0.024
-4.480E-06,0.016
-4.470E-06,0.024
-4.460E-06,0.008
-4.450E-06,0.008
-4.440E-06,0.016
-4.430E-06,0.008
-4.420E-06,0.000
-4.410E-06,-0.008
-4.400E-06,0.000
-4.390E-06,0.000
-4.380E-06,0.000
-4.370E-06,0.008
-4.360E-06,0.008
-4.350E-06,0.008
-4.340E-06,0.000
-4.330E-06,0.000
-4.320E-06,0.000
-4.310E-06,0.008
-4.300E-06,0.016
-4.290E-06,0.016
-4.280E-06,0.000
-4.270E-06,0.000
-4.260E-06,0.000
-4.250E-06,0.008
-4.240E-06,0.008
-4.230E-06,0.016
-4.220E-06,0.008
-4.210E-06,0.000
-4.200E-06,0.008
-4.190E-06,0.000
-4.180E-06,0.000
-4.170E-06,-0.016
-4.160E-06,-0.024
-4.150E-06,0.000
-4.140E-06,-0.016
-4.130E-06,-0.016
-4.120E-06,-0.024
-4.110E-06,-0.032
-4.100E-06,-0.032
-4.090E-06,-0.008
-4.080E-06,-0.016
-4.070E-06,-0.016
-4.060E-06,-0.016
-4.050E-06,-0.016
-4.040E-06,0.000
-4.030E-06,0.000
-4.020E-06,0.008
-4.010E-06,0.024
-4.000E-06,0.008
-3.990E-06,0.024
-3.980E-06,0.024
-3.970E-06,0.024
-3.960E-06,0.032
-3.950E-06,0.016
-3.940E-06,0.016
-3.930E-06,-0.008
-3.920E-06,-0.008
-3.910E-06,0.008
-3.900E-06,0.008
-3.890E-06,0.008
-3.880E-06,0.008
-3.870E-06,-0.024
-3.860E-06,-0.008
-3.850E-06,-0.008
-3.840E-06,-0.016
-3.830E-06,-0.008
-3.820E-06,-0.016
-3.810E-06,-0.008
-3.800E-06,-0.008
-3.790E-06,-0.016
-3.780E-06,-0.008
-3.770E-06,0.000
-3.760E-06,0.000
-3.750E-06,0.008
-3.740E-06,0.008
-3.730E-06,0.008
-3.720E-06,0.016
-3.710E-06,0.000
-3.700E-06,0.008
-3.690E-06,0.008
-3.680E-06,0.024
-3.670E-06,0.024
-3.660E-06,0.024
-3.650E-06,0.000
-3.640E-06,0.000
-3.630E-06,-0.008
-3.620E-06,-0.016
-3.610E-06,-0.008
-3.600E-06,-0.008
-3.590E-06,-0.024
-3.580E-06,-0.040
-3.570E-06,-0.040
-3.560E-06,-0.048
-3.550E-06,-0.040
-3.540E-06,-0.040
-3.530E-06,-0.064
-3.520E-06,-0.064
-3.510E-06,-0.064
-3.500E-06,-0.064
-3.490E-06,-0.056
-3.480E-06,-0.040
-3.470E-06,-0.032
-3.460E-06,-0.040
-3.450E-06,-0.032
-3.440E-06,-0.032
-3.430E-06,-0.024
-3.420E-06,-0.016
-3.410E-06,-0.008
-3.400E-06,-0.024
-3.390E-06,0.000
-3.380E-06,0.000
-3.370E-06,0.008
-3.360E-06,0.024
-3.350E-06,0.032
-3.340E-06,0.024
-3.330E-06,0.016
-3.320E-06,0.032
-3.310E-06,0.032
-3.300E-06,0.048
-3.290E-06,0.064
-3.280E-06,0.064
-3.270E-06,0.056
-3.260E-06,0.048
-3.250E-06,0.056
-3.240E-06,0.064
-3.230E-06,0.048
-3.220E-06,0.040
-3.210E-06,0.040
-3.200E-06,0.024
-3.190E-06,0.024
-3.180E-06,0.016
-3.170E-06,0.016
-3.160E-06,0.016
-3.150E-06,0.008
-3.140E-06,0.000
-3.130E-06,-0.016
-3.120E-06,-0.016
-3.110E-06,-0.032
-3.100E-06,-0.040
-3.090E-06,-0.048
-3.080E-06,-0.040
-3.070E-06,-0.040
-3.060E-06,-0.032
-3.050E-06,-0.048
-3.040E-06,-0.040
-3.030E-06,-0.056
-3.020E-06,-0.056
-3.010E-06,-0.056
-3.000E-06,-0.056
-2.990E-06,-0.032
-2.980E-06,-0.056
-2.970E-06,-0.088
-2.960E-06,-0.096
-2.950E-06,-0.112
-2.940E-06,-0.112
-2.930E-06,-0.128
-2.920E-06,-0.128
-2.910E-06,-0.144
-2.900E-06,-0.168
-2.890E-06,-0.168
-2.880E-06,-0.200
-2.870E-06,-0.200
-2.860E-06,-0.216
-2.850E-06,-0.216
-2.840E-06,-0.248
-2.830E-06,-0.272
-2.820E-06,-0.312
-2.810E-06,-0.304
-2.800E-06,-0.304
-2.790E-06,-0.328
-2.780E-06,-0.336
-2.770E-06,-0.392
-2.760E-06,-0.304
-2.750E-06,-0.328
-2.740E-06,-0.304
-2.730E-06,-0.312
-2.720E-06,-0.368
-2.710E-06,-0.384
-2.700E-06,-0.424
-2.690E-06,-0.424
-2.680E-06,-0.424
-2.670E-06,-0.432
-2.660E-06,-0.464
-2.650E-06,-0.464
-2.640E-06,-0.480
-2.630E-06,-0.456
-2.620E-06,-0.424
-2.610E-06,-0.400
-2.600E-06,-0.384
-2.590E-06,-0.392
-2.580E-06,-0.400
-2.570E-06,-0.400
-2.560E-06,-0.368
-2.550E-06,-0.392
-2.540E-06,-0.360
-2.530E-06,-0.400
-2.520E-06,-0.432
-2.510E-06,-0.480
-2.500E-06,-0.496
-2.490E-06,-0.512
-2.480E-06,-0.496
-2.470E-06,-0.464
-2.460E-06,-0.456
-2.450E-06,-0.448
-2.440E-06,-0.416
-2.430E-06,-0.360
-2.420E-06,-0.328
-2.410E-06,-0.312
-2.400E-06,-0.304
-2.390E-06,-0.296
-2.380E-06,-0.312
-2.370E-06,-0.296
-2.360E-06,-0.264
-2.350E-06,-0.264
-2.340E-06,-0.240
-2.330E-06,-0.232
-2.320E-06,-0.240
-2.310E-06,-0.232
-2.300E-06,-0.224
-2.290E-06,-0.200
-2.280E-06,-0.192
-2.270E-06,-0.168
-2.260E-06,-0.160
-2.250E-06,-0.152
-2.240E-06,-0.144
-2.230E-06,-0.160
-2.220E-06,-0.160
-2.210E-06,-0.168
-2.200E-06,-0.168
-2.190E-06,-0.168
-2.180E-06,-0.152
-2.170E-06,-0.136
-2.160E-06,-0.136
-2.150E-06,-0.136
-2.140E-06,-0.128
-2.130E-06,-0.136
-2.120E-06,-0.152
-2.110E-06,-0.152
-2.100E-06,-0.152
-2.090E-06,-0.184
-2.080E-06,-0.208
-2.070E-06,-0.256
-2.060E-06,-0.280
-2.050E-06,-0.320
-2.040E-06,-0.352
-2.030E-06,-0.408
-2.020E-06,-0.448
-2.010E-06,-0.504
-2.000E-06,-0.560
-1.990E-06,-0.600
-1.980E-06,-0.648
-1.970E-06,-0.672
-1.960E-06,-0.704
-1.950E-06,-0.728
-1.940E-06,-0.744
-1.930E-06,-0.752
-1.920E-06,-0.752
-1.910E-06,-0.728
-1.900E-06,-0.720
-1.890E-06,-0.704
-1.880E-06,-0.688
-1.870E-06,-0.696
-1.860E-06,-0.704
-1.850E-06,-0.720
-1.840E-06,-0.752
-1.830E-06,-0.784
-1.820E-06,-0.808
-1.810E-06,-0.856
-1.800E-06,-0.888
-1.790E-06,-0.904
-1.780E-06,-0.928
-1.770E-06,-0.952
-1.760E-06,-1.008
-1.750E-06,-1.016
-1.740E-06,-1.032
-1.730E-06,-1.040
-1.720E-06,-1.032
-1.710E-06,-1.040
-1.700E-06,-1.040
-1.690E-06,-1.048
-1.680E-06,-1.008
-1.670E-06,-1.040
-1.660E-06,-0.936
-1.650E-06,-0.952
-1.640E-06,-0.832
-1.630E-06,-0.760
-1.620E-06,-0.800
-1.610E-06,-0.800
-1.600E-06,-0.808
-1.590E-06,-0.912
-1.580E-06,-0.944
-1.570E-06,-0.896
-1.560E-06,-0.960
-1.550E-06,-0.904
-1.540E-06,-0.944
-1.530E-06,-1.024
-1.520E-06,-1.024
-1.510E-06,-1.032
-1.500E-06,-1.040
-1.490E-06,-1.032
-1.480E-06,-1.040
-1.470E-06,-1.048
-1.460E-06,-1.032
-1.450E-06,-1.040
-1.440E-06,-1.040
-1.430E-06,-1.040
-1.420E-06,-1.040
-1.410E-06,-1.040
-1.400E-06,-1.040
-1.390E-06,-1.048
-1.380E-06,-1.040
-1.370E-06,-1.048
-1.360E-06,-1.032
-1.350E-06,-1.032
-1.340E-06,-1.040
-1.330E-06,-1.040
-1.320E-06,-1.048
-1.310E-06,-1.040
-1.300E-06,-1.032
-1.290E-06,-1.040
-1.280E-06,-1.048
-1.270E-06,-1.040
-1.260E-06,-1.032
-1.250E-06,-1.040
-1.240E-06,-1.048
-1.230E-06,-1.040
-1.220E-06,-1.040
-1.210E-06,-1.048
-1.200E-06,-1.040
-1.190E-06,-1.032
-1.180E-06,-1.040
-1.170E-06,-1.040
-1.160E-06,-1.040
-1.150E-06,-1.040
-1.140E-06,-1.040
-1.130E-06,-1.040
-1.120E-06,-1.048
-1.110E-06,-1.040
-1.100E-06,-1.040
-1.090E-06,-1.048
-1.080E-06,-1.040
-1.070E-06,-1.040
-1.060E-06,-1.048
-1.050E-06,-1.040
-1.040E-06,-1.048
-1.030E-06,-1.032
-1.020E-06,-1.040
-1.010E-06,-1.048
-1.000E-06,-1.040
-9.900E-07,-1.032
-9.800E-07,-1.040
-9.700E-07,-1.040
-9.600E-07,-1.040
-9.500E-07,-1.040
-9.400E-07,-1.048
-9.300E-07,-1.040
-9.200E-07,-1.032
-9.100E-07,-1.040
-9.000E-07,-1.048
-8.900E-07,-1.040
-8.800E-07,-1.048
-8.700E-07,-1.048
-8.600E-07,-1.048
-8.500E-07,-1.032
-8.400E-07,-1.040
-8.300E-07,-1.040
-8.200E-07,-1.048
-8.100E-07,-1.040
-8.000E-07,-1.032
-7.900E-07,-1.040
-7.800E-07,-1.040
-7.700E-07,-1.048
-7.600E-07,-1.040
-7.500E-07,-1.048
-7.400E-07,-1.048
-7.300E-07,-1.048
-7.200E-07,-1.032
-7.100E-07,-1.040
-7.000E-07,-1.040
-6.900E-07,-1.048
-6.800E-07,-1.040
-6.700E-07,-1.032
-6.600E-07,-1.040
-6.500E-07,-1.032
-6.400E-07,-1.016
-6.300E-07,-0.976
-6.200E-07,-1.040
-6.100E-07,-1.048
-6.000E-07,-1.048
-5.900E-07,-1.032
-5.800E-07,-1.040
-5.700E-07,-1.048
-5.600E-07,-1.040
-5.500E-07,-1.032
-5.400E-07,-1.040
-5.300E-07,-1.032
-5.200E-07,-1.032
-5.100E-07,-1.040
-5.000E-07,-1.040
-4.900E-07,-1.048
-4.800E-07,-1.040
-4.700E-07,-1.032
-4.600E-07,-1.040
-4.500E-07,-1.048
-4.400E-07,-1.048
-4.300E-07,-1.032
-4.200E-07,-1.032
-4.100E-07,-1.040
-4.000E-07,-1.032
-3.900E-07,-1.040
-3.800E-07,-1.032
-3.700E-07,-1.040
-3.600E-07,-1.032
-3.500E-07,-1.040
-3.400E-07,-1.040
-3.300E-07,-1.040
-3.200E-07,-1.040
-3.100E-07,-1.040
-3.000E-07,-1.040
-2.900E-07,-1.048
-2.800E-07,-1.040
-2.700E-07,-1.040
-2.600E-07,-1.040
-2.500E-07,-1.040
-2.400E-07,-1.040
-2.300E-07,-1.048
-2.200E-07,-1.040
-2.100E-07,-1.040
-2.000E-07,-1.048
-1.900E-07,-1.040
-1.800E-07,-1.032
-1.700E-07,-1.040
-1.600E-07,-1.032
-1.500E-07,-1.040
-1.400E-07,-1.032
-1.300E-07,-1.032
-1.200E-07,-1.040
-1.100E-07,-1.032
-1.000E-07,-1.032
-9.000E-08,-1.040
-8.000E-08,-1.040
-7.000E-08,-1.048
-6.000E-08,-1.040
-5.000E-08,-1.032
-4.000E-08,-0.464
-3.000E-08,1.080
-2.000E-08,1.072
-1.000E-08,1.080
0.000E+00,1.080
1.000E-08,0.248
2.000E-08,-0.928
3.000E-08,-0.072
4.000E-08,-0.040
5.000E-08,-0.136
6.000E-08,-1.032
7.000E-08,-1.032
8.000E-08,-1.040
9.000E-08,-1.040
1.000E-07,-1.048
1.100E-07,-1.040
1.200E-07,-1.048
1.300E-07,-1.032
1.400E-07,-1.040
1.500E-07,-1.040
1.600E-07,-1.040
1.700E-07,-1.048
1.800E-07,-1.040
1.900E-07,-1.032
2.000E-07,-0.992
2.100E-07,-0.952
2.200E-07,-0.968
2.300E-07,-1.000
2.400E-07,-0.768
2.500E-07,-0.576
2.600E-07,-0.312
2.700E-07,-0.360
2.800E-07,-0.424
2.900E-07,-0.464
3.000E-07,-0.624
3.100E-07,-0.752
3.200E-07,-0.736
3.300E-07,-0.912
3.400E-07,-0.872
3.500E-07,-1.000
3.600E-07,-1.040
3.700E-07,-1.040
3.800E-07,-1.040
3.900E-07,-1.048
4.000E-07,-1.040
4.100E-07,-1.048
4.200E-07,-1.048
4.300E-07,-1.048
4.400E-07,-1.032
4.500E-07,-1.032
4.600E-07,-1.040
4.700E-07,-1.040
4.800E-07,-1.048
4.900E-07,-1.040
5.000E-07,-1.032
5.100E-07,-1.040
5.200E-07,-1.040
5.300E-07,-1.048
5.400E-07,-1.040
5.500E-07,-1.048
5.600E-07,-1.032
5.700E-07,-1.040
5.800E-07,-1.040
5.900E-07,-1.048
6.000E-07,-1.040
6.100E-07,-1.032
6.200E-07,-1.040
6.300E-07,-1.048
6.400E-07,-1.048
6.500E-07,-1.048
6.600E-07,-1.048
6.700E-07,-1.032
6.800E-07,-0.976
6.900E-07,-1.040
7.000E-07,-1.040
7.100E-07,-1.048
7.200E-07,-1.040
7.300E-07,-1.040
7.400E-07,-1.040
7.500E-07,-1.040
7.600E-07,-1.048
7.700E-07,-1.040
7.800E-07,-1.032
7.900E-07,-1.040
8.000E-07,-1.032
8.100E-07,-1.032
8.200E-07,-1.040
8.300E-07,-1.040
8.400E-07,-1.048
8.500E-07,-1.040
8.600E-07,-1.032
8.700E-07,-1.040
8.800E-07,-1.040
8.900E-07,-1.040
9.000E-07,-1.040
9.100E-07,-1.048
9.200E-07,-1.040
9.300E-07,-1.032
9.400E-07,-1.040
9.500E-07,-1.032
9.600E-07,-1.040
9.700E-07,-1.032
9.800E-07,-1.040
9.900E-07,-1.048
1.000E-06,-1.040
1.010E-06,-1.048
1.020E-06,-1.048
1.030E-06,-1.032
1.040E-06,-1.040
1.050E-06,-1.048
1.060E-06,-1.040
1.070E-06,-1.032
1.080E-06,-1.040
1.090E-06,-1.048
1.100E-06,-1.032
1.110E-06,-1.040
1.120E-06,-1.048
1.130E-06,-1.040
1.140E-06,-1.032
1.150E-06,-1.032
1.160E-06,-1.040
1.170E-06,-1.048
1.180E-06,-1.048
1.190E-06,-1.032
1.200E-06,-1.040
1.210E-06,-1.048
1.220E-06,-1.040
1.230E-06,-1.032
1.240E-06,-1.040
1.250E-06,-1.040
1.260E-06,-1.048
1.270E-06,-1.040
1.280E-06,-1.032
1.290E-06,-1.040
1.300E-06,-1.040
1.310E-06,-1.048
1.320E-06,-1.040
1.330E-06,-1.048
1.340E-06,-1.048
1.350E-06,-1.048
1.360E-06,-1.048
1.370E-06,-1.048
1.380E-06,-1.032
1.390E-06,-1.032
1.400E-06,-1.040
1.410E-06,-1.048
1.420E-06,-1.048
1.430E-06,-1.048
1.440E-06,-0.888
1.450E-06,-0.760
1.460E-06,-0.608
1.470E-06,0.040
1.480E-06,-0.600
1.490E-06,-0.096
1.500E-06,-0.120
1.510E-06,-0.528
1.520E-06,0.680
1.530E-06,-0.344
1.540E-06,-0.160
1.550E-06,0.240
1.560E-06,-0.200
1.570E-06,0.264
1.580E-06,0.416
1.590E-06,-0.304
1.600E-06,-0.368
1.610E-06,-1.048
1.620E-06,-1.048
1.630E-06,-1.032
1.640E-06,-1.032
1.650E-06,-1.040
1.660E-06,-1.032
1.670E-06,-1.040
1.680E-06,-1.040
1.690E-06,-1.048
1.700E-06,-1.040
1.710E-06,-1.040
1.720E-06,-1.048
1.730E-06,-1.040
1.740E-06,-1.048
1.750E-06,-1.032
1.760E-06,-1.040
1.770E-06,-1.048
1.780E-06,-1.040
1.790E-06,-1.032
1.800E-06,-1.040
1.810E-06,-1.032
1.820E-06,-0.880
1.830E-06,-0.592
1.840E-06,-0.048
1.850E-06,0.048
1.860E-06,0.264
1.870E-06,0.312
1.880E-06,0.368
1.890E-06,0.136
1.900E-06,-0.120
1.910E-06,-0.432
1.920E-06,-0.712
1.930E-06,-0.904
1.940E-06,-1.048
1.950E-06,-1.032
1.960E-06,-1.040
1.970E-06,-1.048
1.980E-06,-1.040
1.990E-06,-1.040
2.000E-06,-1.040
2.010E-06,-1.048
2.020E-06,-1.040
2.030E-06,-1.032
2.040E-06,-1.040
2.050E-06,-1.048
2.060E-06,-1.048
2.070E-06,-1.032
2.080E-06,-1.032
2.090E-06,-1.040
2.100E-06,-1.008
2.110E-06,-0.928
2.120E-06,-0.872
2.130E-06,-0.928
2.140E-06,-0.952
2.150E-06,-1.040
2.160E-06,-1.040
2.170E-06,-1.040
2.180E-06,-1.040
2.190E-06,-1.040
2.200E-06,-1.048
2.210E-06,-1.040
2.220E-06,-1.040
2.230E-06,-1.040
2.240E-06,-1.048
2.250E-06,-1.040
2.260E-06,-1.032
2.270E-06,-1.040
2.280E-06,-1.048
2.290E-06,-1.040
2.300E-06,-1.032
2.310E-06,-1.032
2.320E-06,-1.040
2.330E-06,-1.032
2.340E-06,-1.040
2.350E-06,-1.048
2.360E-06,-1.032
2.370E-06,-1.032
2.380E-06,-1.040
2.390E-06,-1.040
2.400E-06,-1.040
2.410E-06,-1.040
2.420E-06,-1.048
2.430E-06,-1.040
2.440E-06,-1.048
2.450E-06,-1.048
2.460E-06,-1.032
2.470E-06,-1.032
2.480E-06,-1.040
2.490E-06,-1.032
2.500E-06,-1.040
2.510E-06,-1.040
2.520E-06,-1.040
2.530E-06,-1.040
2.540E-06,-1.048
2.550E-06,-1.040
2.560E-06,-1.032
2.570E-06,-1.040
2.580E-06,-1.040
2.590E-06,-1.048
2.600E-06,-1.040
2.610E-06,-1.032
2.620E-06,-1.040
2.630E-06,-1.048
2.640E-06,-1.048
2.650E-06,-1.048
2.660E-06,-1.032
2.670E-06,-1.040
2.680E-06,-1.048
2.690E-06,-1.040
2.700E-06,-1.048
2.710E-06,-1.032
2.720E-06,-1.032
2.730E-06,-1.040
2.740E-06,-1.040
2.750E-06,-1.040
2.760E-06,-1.048
2.770E-06,-1.040
2.780E-06,-1.048
2.790E-06,-1.048
2.800E-06,-1.032
2.810E-06,-0.952
2.820E-06,-0.648
2.830E-06,-0.400
2.840E-06,-0.280
2.850E-06,-0.208
2.860E-06,-0.176
2.870E-06,-0.200
2.880E-06,-0.248
2.890E-06,-0.304
2.900E-06,-0.336
2.910E-06,-0.376
2.920E-06,-0.376
2.930E-06,-0.376
2.940E-06,-0.384
2.950E-06,-0.392
2.960E-06,-0.368
2.970E-06,-0.336
2.980E-06,-0.280
2.990E-06,-0.248
3.000E-06,-0.224
3.010E-06,-0.192
3.020E-06,-0.184
3.030E-06,-0.160
3.040E-06,-0.184
