mediciones/Mediciones filtradas (saque las feas)/5-15/1.2/WaveData47606.csv

#timebase=2000000(ps)
,#voltbase=100000(mv/100)
#size=4000
-8.400E-06,-0.004
-8.390E-06,0.000
-8.380E-06,0.004
-8.370E-06,0.000
-8.360E-06,0.000
-8.350E-06,0.004
-8.340E-06,0.000
-8.330E-06,0.004
-8.320E-06,0.000
-8.310E-06,0.000
-8.300E-06,0.000
-8.290E-06,0.004
-8.280E-06,0.004
-8.270E-06,0.004
-8.260E-06,0.000
-8.250E-06,0.004
-8.240E-06,0.000
-8.230E-06,0.004
-8.220E-06,0.000
-8.210E-06,0.000
-8.200E-06,0.000
-8.190E-06,0.000
-8.180E-06,0.000
-8.170E-06,0.008
-8.160E-06,0.004
-8.150E-06,0.004
-8.140E-06,0.004
-8.130E-06,-0.004
-8.120E-06,0.004
-8.110E-06,0.004
-8.100E-06,0.004
-8.090E-06,0.012
-8.080E-06,0.000
-8.070E-06,-0.004
-8.060E-06,0.004
-8.050E-06,-0.004
-8.040E-06,-0.004
-8.030E-06,0.000
-8.020E-06,0.000
-8.010E-06,0.004
-8.000E-06,0.004
-7.990E-06,0.004
-7.980E-06,0.000
-7.970E-06,0.000
-7.960E-06,0.000
-7.950E-06,0.004
-7.940E-06,-0.004
-7.930E-06,0.000
-7.920E-06,0.008
-7.910E-06,0.004
-7.900E-06,0.004
-7.890E-06,0.004
-7.880E-06,0.008
-7.870E-06,0.000
-7.860E-06,0.004
-7.850E-06,0.000
-7.840E-06,0.000
-7.830E-06,0.004
-7.820E-06,0.004
-7.810E-06,0.012
-7.800E-06,0.008
-7.790E-06,-0.004
-7.780E-06,-0.004
-7.770E-06,0.000
-7.760E-06,0.000
-7.750E-06,0.004
-7.740E-06,0.008
-7.730E-06,0.008
-7.720E-06,0.004
-7.710E-06,-0.004
-7.700E-06,0.000
-7.690E-06,-0.004
-7.680E-06,0.000
-7.670E-06,0.004
-7.660E-06,0.004
-7.650E-06,0.008
-7.640E-06,0.004
-7.630E-06,0.000
-7.620E-06,0.004
-7.610E-06,0.004
-7.600E-06,0.004
-7.590E-06,0.004
-7.580E-06,0.004
-7.570E-06,0.000
-7.560E-06,0.004
-7.550E-06,0.004
-7.540E-06,0.004
-7.530E-06,0.000
-7.520E-06,0.004
-7.510E-06,0.004
-7.500E-06,0.004
-7.490E-06,0.004
-7.480E-06,0.004
-7.470E-06,0.004
-7.460E-06,0.000
-7.450E-06,0.004
-7.440E-06,0.000
-7.430E-06,0.000
-7.420E-06,0.004
-7.410E-06,0.004
-7.400E-06,0.004
-7.390E-06,0.008
-7.380E-06,0.004
-7.370E-06,0.000
-7.360E-06,0.004
-7.350E-06,0.000
-7.340E-06,0.000
-7.330E-06,0.004
-7.320E-06,0.000
-7.310E-06,0.004
-7.300E-06,0.000
-7.290E-06,0.004
-7.280E-06,0.000
-7.270E-06,0.000
-7.260E-06,-0.004
-7.250E-06,0.000
-7.240E-06,-0.004
-7.230E-06,0.004
-7.220E-06,0.004
-7.210E-06,0.008
-7.200E-06,0.000
-7.190E-06,0.004
-7.180E-06,0.000
-7.170E-06,0.000
-7.160E-06,0.008
-7.150E-06,0.000
-7.140E-06,0.004
-7.130E-06,0.008
-7.120E-06,0.008
-7.110E-06,0.000
-7.100E-06,0.000
-7.090E-06,0.004
-7.080E-06,0.000
-7.070E-06,0.004
-7.060E-06,0.008
-7.050E-06,0.004
-7.040E-06,0.004
-7.030E-06,-0.004
-7.020E-06,0.000
-7.010E-06,0.004
-7.000E-06,0.008
-6.990E-06,0.000
-6.980E-06,0.004
-6.970E-06,0.004
-6.960E-06,0.000
-6.950E-06,0.000
-6.940E-06,0.004
-6.930E-06,0.000
-6.920E-06,0.004
-6.910E-06,0.000
-6.900E-06,-0.004
-6.890E-06,0.004
-6.880E-06,0.004
-6.870E-06,0.004
-6.860E-06,0.008
-6.850E-06,0.004
-6.840E-06,0.000
-6.830E-06,0.000
-6.820E-06,0.004
-6.810E-06,0.000
-6.800E-06,0.004
-6.790E-06,0.004
-6.780E-06,0.004
-6.770E-06,0.000
-6.760E-06,0.000
-6.750E-06,0.004
-6.740E-06,0.008
-6.730E-06,0.000
-6.720E-06,0.004
-6.710E-06,0.004
-6.700E-06,0.004
-6.690E-06,0.004
-6.680E-06,0.004
-6.670E-06,0.004
-6.660E-06,0.000
-6.650E-06,0.000
-6.640E-06,0.000
-6.630E-06,0.000
-6.620E-06,0.004
-6.610E-06,0.008
-6.600E-06,0.004
-6.590E-06,0.004
-6.580E-06,0.000
-6.570E-06,0.004
-6.560E-06,-0.004
-6.550E-06,0.004
-6.540E-06,0.008
-6.530E-06,0.004
-6.520E-06,0.000
-6.510E-06,-0.004
-6.500E-06,0.000
-6.490E-06,0.008
-6.480E-06,0.000
-6.470E-06,0.000
-6.460E-06,0.004
-6.450E-06,0.000
-6.440E-06,0.004
-6.430E-06,0.004
-6.420E-06,0.000
-6.410E-06,0.004
-6.400E-06,0.004
-6.390E-06,0.000
-6.380E-06,-0.004
-6.370E-06,0.004
-6.360E-06,0.008
-6.350E-06,0.012
-6.340E-06,0.000
-6.330E-06,-0.004
-6.320E-06,0.000
-6.310E-06,0.000
-6.300E-06,0.000
-6.290E-06,0.000
-6.280E-06,0.008
-6.270E-06,0.004
-6.260E-06,0.000
-6.250E-06,0.004
-6.240E-06,0.004
-6.230E-06,0.000
-6.220E-06,0.004
-6.210E-06,0.000
-6.200E-06,0.000
-6.190E-06,0.004
-6.180E-06,0.000
-6.170E-06,0.000
-6.160E-06,0.000
-6.150E-06,0.000
-6.140E-06,0.008
-6.130E-06,0.004
-6.120E-06,0.000
-6.110E-06,-0.004
-6.100E-06,0.000
-6.090E-06,0.000
-6.080E-06,0.004
-6.070E-06,0.004
-6.060E-06,0.000
-6.050E-06,0.004
-6.040E-06,0.000
-6.030E-06,0.004
-6.020E-06,0.000
-6.010E-06,0.004
-6.000E-06,0.004
-5.990E-06,0.004
-5.980E-06,0.004
-5.970E-06,0.000
-5.960E-06,0.000
-5.950E-06,0.004
-5.940E-06,0.000
-5.930E-06,0.000
-5.920E-06,0.004
-5.910E-06,0.008
-5.900E-06,0.000
-5.890E-06,0.004
-5.880E-06,0.000
-5.870E-06,0.000
-5.860E-06,-0.004
-5.850E-06,0.000
-5.840E-06,0.004
-5.830E-06,0.004
-5.820E-06,0.000
-5.810E-06,0.004
-5.800E-06,0.004
-5.790E-06,0.004
-5.780E-06,0.000
-5.770E-06,0.000
-5.760E-06,0.000
-5.750E-06,0.004
-5.740E-06,0.004
-5.730E-06,0.000
-5.720E-06,0.004
-5.710E-06,-0.004
-5.700E-06,0.000
-5.690E-06,0.000
-5.680E-06,0.000
-5.670E-06,0.000
-5.660E-06,0.000
-5.650E-06,0.004
-5.640E-06,0.000
-5.630E-06,0.000
-5.620E-06,-0.004
-5.610E-06,0.000
-5.600E-06,-0.004
-5.590E-06,0.004
-5.580E-06,0.004
-5.570E-06,0.004
-5.560E-06,0.000
-5.550E-06,0.000
-5.540E-06,0.004
-5.530E-06,0.004
-5.520E-06,0.008
-5.510E-06,-0.004
-5.500E-06,0.004
-5.490E-06,0.008
-5.480E-06,0.004
-5.470E-06,0.000
-5.460E-06,0.000
-5.450E-06,0.004
-5.440E-06,-0.004
-5.430E-06,0.000
-5.420E-06,0.004
-5.410E-06,0.004
-5.400E-06,0.004
-5.390E-06,0.008
-5.380E-06,0.000
-5.370E-06,0.000
-5.360E-06,0.000
-5.350E-06,0.004
-5.340E-06,0.008
-5.330E-06,0.012
-5.320E-06,0.000
-5.310E-06,0.000
-5.300E-06,0.004
-5.290E-06,0.000
-5.280E-06,0.000
-5.270E-06,0.004
-5.260E-06,0.004
-5.250E-06,0.004
-5.240E-06,0.008
-5.230E-06,0.000
-5.220E-06,0.000
-5.210E-06,0.000
-5.200E-06,-0.004
-5.190E-06,0.000
-5.180E-06,0.004
-5.170E-06,0.004
-5.160E-06,0.008
-5.150E-06,0.008
-5.140E-06,0.000
-5.130E-06,0.000
-5.120E-06,0.000
-5.110E-06,0.004
-5.100E-06,0.004
-5.090E-06,-0.004
-5.080E-06,0.000
-5.070E-06,0.008
-5.060E-06,0.008
-5.050E-06,0.004
-5.040E-06,0.000
-5.030E-06,0.000
-5.020E-06,0.004
-5.010E-06,-0.004
-5.000E-06,0.004
-4.990E-06,-0.004
-4.980E-06,0.000
-4.970E-06,0.004
-4.960E-06,0.004
-4.950E-06,0.000
-4.940E-06,0.004
-4.930E-06,0.008
-4.920E-06,0.000
-4.910E-06,0.000
-4.900E-06,0.004
-4.890E-06,0.004
-4.880E-06,0.004
-4.870E-06,0.004
-4.860E-06,0.000
-4.850E-06,0.004
-4.840E-06,0.004
-4.830E-06,0.004
-4.820E-06,0.004
-4.810E-06,0.004
-4.800E-06,0.004
-4.790E-06,0.004
-4.780E-06,0.000
-4.770E-06,0.000
-4.760E-06,0.004
-4.750E-06,0.000
-4.740E-06,0.000
-4.730E-06,0.000
-4.720E-06,0.004
-4.710E-06,0.008
-4.700E-06,0.004
-4.690E-06,-0.004
-4.680E-06,0.004
-4.670E-06,0.000
-4.660E-06,0.004
-4.650E-06,0.004
-4.640E-06,0.000
-4.630E-06,0.004
-4.620E-06,0.008
-4.610E-06,0.004
-4.600E-06,0.000
-4.590E-06,0.004
-4.580E-06,0.000
-4.570E-06,0.000
-4.560E-06,0.000
-4.550E-06,0.004
-4.540E-06,0.004
-4.530E-06,0.008
-4.520E-06,0.000
-4.510E-06,0.004
-4.500E-06,0.000
-4.490E-06,0.000
-4.480E-06,0.004
-4.470E-06,0.008
-4.460E-06,0.004
-4.450E-06,0.000
-4.440E-06,0.000
-4.430E-06,0.004
-4.420E-06,0.008
-4.410E-06,0.000
-4.400E-06,0.004
-4.390E-06,0.004
-4.380E-06,0.000
-4.370E-06,0.004
-4.360E-06,0.004
-4.350E-06,0.000
-4.340E-06,0.004
-4.330E-06,0.000
-4.320E-06,0.000
-4.310E-06,0.004
-4.300E-06,0.004
-4.290E-06,0.004
-4.280E-06,0.000
-4.270E-06,0.000
-4.260E-06,0.004
-4.250E-06,0.008
-4.240E-06,0.008
-4.230E-06,0.004
-4.220E-06,0.000
-4.210E-06,0.000
-4.200E-06,0.004
-4.190E-06,0.008
-4.180E-06,0.000
-4.170E-06,0.004
-4.160E-06,-0.004
-4.150E-06,-0.004
-4.140E-06,0.008
-4.130E-06,0.012
-4.120E-06,0.004
-4.110E-06,0.008
-4.100E-06,0.004
-4.090E-06,-0.004
-4.080E-06,-0.004
-4.070E-06,0.004
-4.060E-06,0.008
-4.050E-06,0.008
-4.040E-06,0.012
-4.030E-06,0.004
-4.020E-06,0.000
-4.010E-06,-0.008
-4.000E-06,0.000
-3.990E-06,0.004
-3.980E-06,0.012
-3.970E-06,0.012
-3.960E-06,0.008
-3.950E-06,0.004
-3.940E-06,-0.004
-3.930E-06,-0.004
-3.920E-06,-0.004
-3.910E-06,0.008
-3.900E-06,0.008
-3.890E-06,0.008
-3.880E-06,0.004
-3.870E-06,0.000
-3.860E-06,0.004
-3.850E-06,0.004
-3.840E-06,-0.004
-3.830E-06,0.000
-3.820E-06,0.008
-3.810E-06,0.008
-3.800E-06,0.000
-3.790E-06,-0.004
-3.780E-06,0.004
-3.770E-06,0.000
-3.760E-06,0.000
-3.750E-06,0.004
-3.740E-06,0.000
-3.730E-06,0.004
-3.720E-06,0.000
-3.710E-06,0.000
-3.700E-06,0.004
-3.690E-06,0.008
-3.680E-06,0.008
-3.670E-06,0.012
-3.660E-06,0.000
-3.650E-06,0.004
-3.640E-06,0.000
-3.630E-06,0.000
-3.620E-06,-0.004
-3.610E-06,0.000
-3.600E-06,0.008
-3.590E-06,0.008
-3.580E-06,0.012
-3.570E-06,0.008
-3.560E-06,0.004
-3.550E-06,0.004
-3.540E-06,0.008
-3.530E-06,0.008
-3.520E-06,0.004
-3.510E-06,0.008
-3.500E-06,0.004
-3.490E-06,0.004
-3.480E-06,0.000
-3.470E-06,0.004
-3.460E-06,0.000
-3.450E-06,0.008
-3.440E-06,0.008
-3.430E-06,0.008
-3.420E-06,0.004
-3.410E-06,0.000
-3.400E-06,0.000
-3.390E-06,0.012
-3.380E-06,0.012
-3.370E-06,0.012
-3.360E-06,0.012
-3.350E-06,0.004
-3.340E-06,0.000
-3.330E-06,-0.004
-3.320E-06,-0.004
-3.310E-06,-0.004
-3.300E-06,0.004
-3.290E-06,0.012
-3.280E-06,0.012
-3.270E-06,0.000
-3.260E-06,-0.004
-3.250E-06,0.000
-3.240E-06,-0.004
-3.230E-06,0.004
-3.220E-06,0.012
-3.210E-06,0.012
-3.200E-06,0.000
-3.190E-06,-0.004
-3.180E-06,0.000
-3.170E-06,0.004
-3.160E-06,0.000
-3.150E-06,0.004
-3.140E-06,0.004
-3.130E-06,0.004
-3.120E-06,0.000
-3.110E-06,0.004
-3.100E-06,0.004
-3.090E-06,0.008
-3.080E-06,0.008
-3.070E-06,0.004
-3.060E-06,0.000
-3.050E-06,0.004
-3.040E-06,0.000
-3.030E-06,0.004
-3.020E-06,0.008
-3.010E-06,0.000
-3.000E-06,0.004
-2.990E-06,0.004
-2.980E-06,0.004
-2.970E-06,0.004
-2.960E-06,0.004
-2.950E-06,0.000
-2.940E-06,0.008
-2.930E-06,0.008
-2.920E-06,0.008
-2.910E-06,0.008
-2.900E-06,0.004
-2.890E-06,0.000
-2.880E-06,0.000
-2.870E-06,0.004
-2.860E-06,0.004
-2.850E-06,0.004
-2.840E-06,0.012
-2.830E-06,0.008
-2.820E-06,0.008
-2.810E-06,0.008
-2.800E-06,0.004
-2.790E-06,0.004
-2.780E-06,0.008
-2.770E-06,0.008
-2.760E-06,0.008
-2.750E-06,0.012
-2.740E-06,0.012
-2.730E-06,0.012
-2.720E-06,0.000
-2.710E-06,0.008
-2.700E-06,0.008
-2.690E-06,0.008
-2.680E-06,0.004
-2.670E-06,0.016
-2.660E-06,0.008
-2.650E-06,0.012
-2.640E-06,0.012
-2.630E-06,0.004
-2.620E-06,0.008
-2.610E-06,-0.004
-2.600E-06,0.000
-2.590E-06,0.012
-2.580E-06,0.028
-2.570E-06,0.032
-2.560E-06,0.016
-2.550E-06,0.008
-2.540E-06,0.008
-2.530E-06,0.004
-2.520E-06,0.012
-2.510E-06,0.004
-2.500E-06,0.008
-2.490E-06,-0.004
-2.480E-06,-0.008
-2.470E-06,-0.012
-2.460E-06,0.020
-2.450E-06,0.020
-2.440E-06,0.008
-2.430E-06,-0.012
-2.420E-06,-0.048
-2.410E-06,-0.040
-2.400E-06,-0.024
-2.390E-06,0.012
-2.380E-06,0.028
-2.370E-06,0.036
-2.360E-06,0.024
-2.350E-06,0.000
-2.340E-06,-0.024
-2.330E-06,-0.028
-2.320E-06,-0.016
-2.310E-06,0.012
-2.300E-06,0.040
-2.290E-06,0.028
-2.280E-06,0.012
-2.270E-06,0.000
-2.260E-06,-0.008
-2.250E-06,-0.004
-2.240E-06,-0.012
-2.230E-06,0.000
-2.220E-06,0.012
-2.210E-06,0.052
-2.200E-06,0.028
-2.190E-06,-0.004
-2.180E-06,-0.024
-2.170E-06,-0.056
-2.160E-06,-0.036
-2.150E-06,-0.012
-2.140E-06,0.028
-2.130E-06,0.032
-2.120E-06,0.036
-2.110E-06,0.020
-2.100E-06,0.000
-2.090E-06,-0.024
-2.080E-06,-0.020
-2.070E-06,-0.008
-2.060E-06,0.016
-2.050E-06,0.048
-2.040E-06,0.040
-2.030E-06,0.032
-2.020E-06,0.008
-2.010E-06,-0.004
-2.000E-06,-0.008
-1.990E-06,0.000
-1.980E-06,0.020
-1.970E-06,0.040
-1.960E-06,0.048
-1.950E-06,0.036
-1.940E-06,0.028
-1.930E-06,0.000
-1.920E-06,-0.008
-1.910E-06,0.012
-1.900E-06,0.024
-1.890E-06,0.028
-1.880E-06,0.016
-1.870E-06,0.008
-1.860E-06,0.000
-1.850E-06,-0.004
-1.840E-06,0.000
-1.830E-06,0.008
-1.820E-06,0.012
-1.810E-06,0.012
-1.800E-06,0.008
-1.790E-06,0.012
-1.780E-06,0.004
-1.770E-06,0.020
-1.760E-06,0.028
-1.750E-06,0.028
-1.740E-06,0.028
-1.730E-06,0.016
-1.720E-06,0.008
-1.710E-06,0.004
-1.700E-06,0.008
-1.690E-06,0.020
-1.680E-06,0.032
-1.670E-06,0.032
-1.660E-06,0.032
-1.650E-06,0.032
-1.640E-06,0.024
-1.630E-06,0.016
-1.620E-06,0.016
-1.610E-06,0.012
-1.600E-06,0.016
-1.590E-06,0.024
-1.580E-06,0.024
-1.570E-06,0.024
-1.560E-06,0.032
-1.550E-06,0.024
-1.540E-06,0.024
-1.530E-06,0.016
-1.520E-06,0.016
-1.510E-06,0.028
-1.500E-06,0.036
-1.490E-06,0.044
-1.480E-06,0.052
-1.470E-06,0.064
-1.460E-06,0.056
-1.450E-06,0.056
-1.440E-06,0.056
-1.430E-06,0.064
-1.420E-06,0.056
-1.410E-06,0.088
-1.400E-06,0.092
-1.390E-06,0.084
-1.380E-06,0.104
-1.370E-06,0.092
-1.360E-06,0.020
-1.350E-06,-0.108
-1.340E-06,-0.216
-1.330E-06,-0.296
-1.320E-06,-0.216
-1.310E-06,-0.068
-1.300E-06,0.068
-1.290E-06,0.152
-1.280E-06,0.140
-1.270E-06,-0.008
-1.260E-06,-0.196
-1.250E-06,-0.272
-1.240E-06,-0.200
-1.230E-06,-0.036
-1.220E-06,0.128
-1.210E-06,0.208
-1.200E-06,0.152
-1.190E-06,0.028
-1.180E-06,-0.120
-1.170E-06,-0.184
-1.160E-06,-0.120
-1.150E-06,-0.004
-1.140E-06,0.108
-1.130E-06,0.148
-1.120E-06,0.128
-1.110E-06,0.028
-1.100E-06,-0.072
-1.090E-06,-0.140
-1.080E-06,-0.136
-1.070E-06,-0.076
-1.060E-06,0.004
-1.050E-06,0.080
-1.040E-06,0.092
-1.030E-06,0.048
-1.020E-06,-0.008
-1.010E-06,-0.064
-1.000E-06,-0.060
-9.900E-07,-0.008
-9.800E-07,0.036
-9.700E-07,0.080
-9.600E-07,0.092
-9.500E-07,0.052
-9.400E-07,0.008
-9.300E-07,-0.028
-9.200E-07,-0.028
-9.100E-07,0.004
-9.000E-07,0.056
-8.900E-07,0.080
-8.800E-07,0.092
-8.700E-07,0.080
-8.600E-07,0.064
-8.500E-07,0.060
-8.400E-07,0.056
-8.300E-07,0.052
-8.200E-07,0.056
-8.100E-07,0.096
-8.000E-07,0.100
-7.900E-07,0.084
-7.800E-07,0.036
-7.700E-07,0.004
-7.600E-07,-0.008
-7.500E-07,-0.040
-7.400E-07,-0.032
-7.300E-07,0.000
-7.200E-07,0.028
-7.100E-07,0.024
-7.000E-07,-0.008
-6.900E-07,-0.052
-6.800E-07,-0.076
-6.700E-07,-0.056
-6.600E-07,0.004
-6.500E-07,0.036
-6.400E-07,0.072
-6.300E-07,0.052
-6.200E-07,-0.004
-6.100E-07,-0.048
-6.000E-07,-0.060
-5.900E-07,-0.032
-5.800E-07,0.036
-5.700E-07,0.076
-5.600E-07,0.092
-5.500E-07,0.060
-5.400E-07,-0.008
-5.300E-07,-0.032
-5.200E-07,-0.044
-5.100E-07,0.004
-5.000E-07,0.080
-4.900E-07,0.136
-4.800E-07,0.120
-4.700E-07,0.080
-4.600E-07,0.028
-4.500E-07,0.032
-4.400E-07,0.068
-4.300E-07,0.100
-4.200E-07,0.112
-4.100E-07,0.100
-4.000E-07,0.092
-3.900E-07,0.060
-3.800E-07,0.060
-3.700E-07,0.072
-3.600E-07,0.104
-3.500E-07,0.108
-3.400E-07,0.104
-3.300E-07,0.080
-3.200E-07,0.072
-3.100E-07,0.088
-3.000E-07,0.112
-2.900E-07,0.124
-2.800E-07,0.132
-2.700E-07,0.128
-2.600E-07,0.108
-2.500E-07,0.104
-2.400E-07,0.084
-2.300E-07,0.076
-2.200E-07,-0.008
-2.100E-07,-0.024
-2.000E-07,0.032
-1.900E-07,0.148
-1.800E-07,0.156
-1.700E-07,0.168
-1.600E-07,0.204
-1.500E-07,-0.160
-1.400E-07,-0.508
-1.300E-07,-0.512
-1.200E-07,-0.512
-1.100E-07,-0.508
-1.000E-07,-0.252
-9.000E-08,0.264
-8.000E-08,0.420
-7.000E-08,0.180
-6.000E-08,-0.204
-5.000E-08,-0.408
-4.000E-08,-0.512
-3.000E-08,-0.308
-2.000E-08,0.088
-1.000E-08,0.336
0.000E+00,0.540
1.000E-08,0.332
2.000E-08,-0.024
3.000E-08,-0.452
4.000E-08,-0.496
5.000E-08,-0.300
6.000E-08,0.188
7.000E-08,0.504
8.000E-08,0.540
9.000E-08,0.292
1.000E-07,-0.096
1.100E-07,-0.368
1.200E-07,-0.456
1.300E-07,-0.224
1.400E-07,0.096
1.500E-07,0.412
1.600E-07,0.452
1.700E-07,0.296
1.800E-07,-0.052
1.900E-07,-0.320
2.000E-07,-0.400
2.100E-07,-0.272
2.200E-07,0.032
2.300E-07,0.288
2.400E-07,0.400
2.500E-07,0.272
2.600E-07,0.040
2.700E-07,-0.244
2.800E-07,-0.316
2.900E-07,-0.244
3.000E-07,0.000
3.100E-07,0.252
3.200E-07,0.372
3.300E-07,0.292
3.400E-07,0.064
3.500E-07,-0.156
3.600E-07,-0.268
3.700E-07,-0.176
3.800E-07,-0.008
3.900E-07,0.208
4.000E-07,0.308
4.100E-07,0.284
4.200E-07,0.128
4.300E-07,-0.056
4.400E-07,-0.164
4.500E-07,-0.100
4.600E-07,0.068
4.700E-07,0.228
4.800E-07,0.324
4.900E-07,0.296
5.000E-07,0.188
5.100E-07,0.068
5.200E-07,0.012
5.300E-07,0.012
5.400E-07,0.112
5.500E-07,0.244
5.600E-07,0.320
5.700E-07,0.312
5.800E-07,0.216
5.900E-07,0.080
6.000E-07,-0.020
6.100E-07,-0.032
6.200E-07,0.024
6.300E-07,0.132
6.400E-07,0.216
6.500E-07,0.228
6.600E-07,0.156
6.700E-07,0.068
6.800E-07,-0.040
6.900E-07,-0.072
7.000E-07,-0.044
7.100E-07,0.020
7.200E-07,0.100
7.300E-07,0.176
7.400E-07,0.208
7.500E-07,0.188
7.600E-07,0.124
7.700E-07,-0.044
7.800E-07,-0.212
7.900E-07,-0.432
8.000E-07,-0.416
8.100E-07,-0.308
8.200E-07,0.180
8.300E-07,0.312
8.400E-07,0.276
8.500E-07,-0.280
8.600E-07,-0.512
8.700E-07,-0.512
8.800E-07,-0.512
8.900E-07,-0.480
9.000E-07,-0.036
9.100E-07,0.244
9.200E-07,0.124
9.300E-07,0.060
9.400E-07,-0.152
9.500E-07,-0.192
9.600E-07,-0.236
9.700E-07,-0.104
9.800E-07,0.012
9.900E-07,0.140
1.000E-06,0.216
1.010E-06,0.160
1.020E-06,0.084
1.030E-06,-0.056
1.040E-06,-0.100
1.050E-06,-0.088
1.060E-06,0.020
1.070E-06,0.132
1.080E-06,0.212
1.090E-06,0.192
1.100E-06,0.092
1.110E-06,-0.016
1.120E-06,-0.096
1.130E-06,-0.076
1.140E-06,-0.036
1.150E-06,0.044
1.160E-06,0.072
1.170E-06,0.080
1.180E-06,0.056
1.190E-06,0.028
1.200E-06,-0.040
1.210E-06,-0.096
1.220E-06,-0.068
1.230E-06,0.020
1.240E-06,0.132
1.250E-06,0.136
1.260E-06,0.108
1.270E-06,0.092
1.280E-06,0.092
1.290E-06,0.100
1.300E-06,0.108
1.310E-06,0.152
1.320E-06,0.216
1.330E-06,0.256
1.340E-06,0.276
1.350E-06,0.272
1.360E-06,0.208
1.370E-06,0.156
1.380E-06,0.132
1.390E-06,0.140
1.400E-06,0.188
1.410E-06,0.248
1.420E-06,0.272
1.430E-06,0.264
1.440E-06,0.228
1.450E-06,0.180
1.460E-06,0.140
1.470E-06,0.136
1.480E-06,0.156
1.490E-06,0.184
1.500E-06,0.188
1.510E-06,0.172
1.520E-06,0.140
1.530E-06,0.100
1.540E-06,0.072
1.550E-06,0.068
1.560E-06,0.072
1.570E-06,0.092
1.580E-06,0.112
1.590E-06,0.108
1.600E-06,0.072
1.610E-06,0.056
1.620E-06,0.044
1.630E-06,0.056
1.640E-06,0.100
1.650E-06,0.148
1.660E-06,0.184
1.670E-06,0.208
1.680E-06,0.204
1.690E-06,0.196
1.700E-06,0.188
1.710E-06,0.196
1.720E-06,0.204
1.730E-06,0.220
1.740E-06,0.212
1.750E-06,0.208
1.760E-06,0.204
1.770E-06,0.204
1.780E-06,0.196
1.790E-06,0.196
1.800E-06,0.196
1.810E-06,0.200
1.820E-06,0.216
1.830E-06,0.220
1.840E-06,0.224
1.850E-06,0.220
1.860E-06,0.196
1.870E-06,0.176
1.880E-06,0.140
1.890E-06,0.096
1.900E-06,0.044
1.910E-06,-0.012
1.920E-06,-0.028
1.930E-06,0.008
1.940E-06,0.044
1.950E-06,0.092
1.960E-06,0.152
1.970E-06,0.196
1.980E-06,0.208
1.990E-06,0.176
2.000E-06,0.084
2.010E-06,-0.020
2.020E-06,-0.108
2.030E-06,-0.112
2.040E-06,-0.020
2.050E-06,0.140
2.060E-06,0.272
2.070E-06,0.256
2.080E-06,0.136
2.090E-06,-0.024
2.100E-06,-0.124
2.110E-06,-0.132
2.120E-06,-0.032
2.130E-06,0.100
2.140E-06,0.188
2.150E-06,0.180
2.160E-06,0.072
2.170E-06,-0.072
2.180E-06,-0.204
2.190E-06,-0.176
2.200E-06,-0.068
2.210E-06,0.124
2.220E-06,0.212
2.230E-06,0.300
2.240E-06,0.280
2.250E-06,0.200
2.260E-06,0.104
2.270E-06,0.056
2.280E-06,0.076
2.290E-06,0.136
2.300E-06,0.256
2.310E-06,0.308
2.320E-06,0.308
2.330E-06,0.232
2.340E-06,0.168
2.350E-06,0.112
2.360E-06,0.128
2.370E-06,0.176
2.380E-06,0.232
2.390E-06,0.292
2.400E-06,0.292
2.410E-06,0.272
2.420E-06,0.208
2.430E-06,0.160
2.440E-06,0.136
2.450E-06,0.180
2.460E-06,0.220
2.470E-06,0.272
2.480E-06,0.292
2.490E-06,0.272
2.500E-06,0.220
2.510E-06,0.176
2.520E-06,0.152
2.530E-06,0.156
2.540E-06,0.200
2.550E-06,0.232
2.560E-06,0.264
2.570E-06,0.260
2.580E-06,0.228
2.590E-06,0.192
2.600E-06,0.172
2.610E-06,0.172
2.620E-06,0.188
2.630E-06,0.216
2.640E-06,0.240
2.650E-06,0.248
2.660E-06,0.232
2.670E-06,0.220
2.680E-06,0.188
2.690E-06,0.184
2.700E-06,0.188
2.710E-06,0.204
2.720E-06,0.228
2.730E-06,0.240
2.740E-06,0.232
2.750E-06,0.220
2.760E-06,0.204
2.770E-06,0.196
2.780E-06,0.196
2.790E-06,0.208
2.800E-06,0.220
2.810E-06,0.228
2.820E-06,0.228
2.830E-06,0.216
2.840E-06,0.204
2.850E-06,0.188
2.860E-06,0.188
2.870E-06,0.192
2.880E-06,0.200
2.890E-06,0.208
2.900E-06,0.212
2.910E-06,0.200
2.920E-06,0.188
2.930E-06,0.176
2.940E-06,0.176
2.950E-06,0.192
2.960E-06,0.200
2.970E-06,0.212
2.980E-06,0.208
2.990E-06,0.208
3.000E-06,0.196
3.010E-06,0.192
3.020E-06,0.192
3.030E-06,0.204
3.040E-06,0.212
3.050E-06,0.212
3.060E-06,0.208
3.070E-06,0.204
3.080E-06,0.204
3.090E-06,0.200
3.100E-06,0.196
3.110E-06,0.200
3.120E-06,0.204
3.130E-06,0.200
3.140E-06,0.200
3.150E-06,0.192
3.160E-06,0.192
3.170E-06,0.188
3.180E-06,0.192
3.190E-06,0.200
3.200E-06,0.204
3.210E-06,0.200
3.220E-06,0.196
3.230E-06,0.188
3.240E-06,0.180
3.250E-06,0.188
3.260E-06,0.196
3.270E-06,0.196
3.280E-06,0.196
3.290E-06,0.196
3.300E-06,0.192
3.310E-06,0.188
3.320E-06,0.188
3.330E-06,0.188
3.340E-06,0.188
3.350E-06,0.196
3.360E-06,0.196
3.370E-06,0.188
3.380E-06,0.180
3.390E-06,0.180
3.400E-06,0.176
3.410E-06,0.180
