mediciones/Mediciones filtradas (saque las feas)/5-15/1.2/WaveData47605.csv

#timebase=2000000(ps)
,#voltbase=200000(mv/100)
#size=4000
-8.400E-06,0.000
-8.390E-06,0.000
-8.380E-06,0.008
-8.370E-06,0.000
-8.360E-06,0.008
-8.350E-06,0.008
-8.340E-06,0.008
-8.330E-06,0.016
-8.320E-06,0.016
-8.310E-06,0.000
-8.300E-06,0.000
-8.290E-06,0.008
-8.280E-06,0.016
-8.270E-06,0.016
-8.260E-06,0.016
-8.250E-06,0.016
-8.240E-06,0.016
-8.230E-06,0.016
-8.220E-06,0.008
-8.210E-06,0.008
-8.200E-06,0.000
-8.190E-06,0.008
-8.180E-06,0.008
-8.170E-06,0.008
-8.160E-06,0.000
-8.150E-06,0.000
-8.140E-06,0.000
-8.130E-06,0.000
-8.120E-06,0.008
-8.110E-06,0.008
-8.100E-06,-0.008
-8.090E-06,0.000
-8.080E-06,0.008
-8.070E-06,0.008
-8.060E-06,0.000
-8.050E-06,0.024
-8.040E-06,-0.008
-8.030E-06,0.000
-8.020E-06,0.000
-8.010E-06,0.008
-8.000E-06,0.000
-7.990E-06,0.008
-7.980E-06,0.000
-7.970E-06,0.008
-7.960E-06,0.016
-7.950E-06,0.016
-7.940E-06,0.016
-7.930E-06,0.000
-7.920E-06,0.008
-7.910E-06,0.008
-7.900E-06,0.000
-7.890E-06,0.000
-7.880E-06,0.000
-7.870E-06,-0.008
-7.860E-06,0.000
-7.850E-06,0.008
-7.840E-06,0.016
-7.830E-06,0.016
-7.820E-06,0.024
-7.810E-06,0.016
-7.800E-06,0.008
-7.790E-06,0.008
-7.780E-06,0.008
-7.770E-06,0.000
-7.760E-06,0.016
-7.750E-06,0.016
-7.740E-06,0.000
-7.730E-06,0.000
-7.720E-06,0.008
-7.710E-06,0.000
-7.700E-06,0.008
-7.690E-06,0.000
-7.680E-06,0.008
-7.670E-06,0.008
-7.660E-06,0.000
-7.650E-06,0.008
-7.640E-06,-0.008
-7.630E-06,-0.008
-7.620E-06,0.000
-7.610E-06,-0.008
-7.600E-06,-0.008
-7.590E-06,0.000
-7.580E-06,0.000
-7.570E-06,0.000
-7.560E-06,0.000
-7.550E-06,0.008
-7.540E-06,0.016
-7.530E-06,0.008
-7.520E-06,0.000
-7.510E-06,0.008
-7.500E-06,0.008
-7.490E-06,0.008
-7.480E-06,0.008
-7.470E-06,0.008
-7.460E-06,0.000
-7.450E-06,0.000
-7.440E-06,0.000
-7.430E-06,0.000
-7.420E-06,0.008
-7.410E-06,0.008
-7.400E-06,0.000
-7.390E-06,0.000
-7.380E-06,0.000
-7.370E-06,0.000
-7.360E-06,0.000
-7.350E-06,0.008
-7.340E-06,-0.008
-7.330E-06,0.000
-7.320E-06,0.008
-7.310E-06,0.008
-7.300E-06,0.008
-7.290E-06,0.016
-7.280E-06,0.024
-7.270E-06,0.024
-7.260E-06,0.024
-7.250E-06,0.008
-7.240E-06,0.016
-7.230E-06,0.008
-7.220E-06,0.008
-7.210E-06,0.008
-7.200E-06,0.008
-7.190E-06,0.008
-7.180E-06,0.008
-7.170E-06,0.008
-7.160E-06,0.008
-7.150E-06,0.000
-7.140E-06,0.000
-7.130E-06,0.008
-7.120E-06,0.000
-7.110E-06,0.000
-7.100E-06,0.008
-7.090E-06,0.000
-7.080E-06,0.008
-7.070E-06,0.008
-7.060E-06,0.008
-7.050E-06,0.016
-7.040E-06,0.024
-7.030E-06,0.024
-7.020E-06,0.008
-7.010E-06,0.016
-7.000E-06,0.008
-6.990E-06,0.016
-6.980E-06,0.016
-6.970E-06,0.016
-6.960E-06,0.016
-6.950E-06,0.008
-6.940E-06,0.016
-6.930E-06,0.016
-6.920E-06,0.008
-6.910E-06,0.008
-6.900E-06,0.000
-6.890E-06,0.000
-6.880E-06,-0.008
-6.870E-06,0.000
-6.860E-06,0.008
-6.850E-06,0.008
-6.840E-06,0.008
-6.830E-06,-0.008
-6.820E-06,0.000
-6.810E-06,0.008
-6.800E-06,-0.008
-6.790E-06,0.000
-6.780E-06,-0.008
-6.770E-06,0.000
-6.760E-06,0.000
-6.750E-06,0.008
-6.740E-06,0.008
-6.730E-06,0.008
-6.720E-06,0.008
-6.710E-06,0.000
-6.700E-06,0.016
-6.690E-06,0.016
-6.680E-06,0.016
-6.670E-06,0.016
-6.660E-06,0.008
-6.650E-06,0.016
-6.640E-06,0.016
-6.630E-06,0.016
-6.620E-06,0.016
-6.610E-06,0.032
-6.600E-06,0.008
-6.590E-06,0.016
-6.580E-06,0.016
-6.570E-06,0.016
-6.560E-06,0.016
-6.550E-06,0.000
-6.540E-06,0.008
-6.530E-06,0.000
-6.520E-06,0.000
-6.510E-06,0.016
-6.500E-06,0.000
-6.490E-06,0.008
-6.480E-06,0.000
-6.470E-06,0.000
-6.460E-06,0.000
-6.450E-06,0.000
-6.440E-06,0.008
-6.430E-06,0.008
-6.420E-06,0.016
-6.410E-06,0.008
-6.400E-06,0.016
-6.390E-06,0.008
-6.380E-06,0.016
-6.370E-06,0.016
-6.360E-06,0.016
-6.350E-06,0.016
-6.340E-06,0.016
-6.330E-06,0.008
-6.320E-06,0.016
-6.310E-06,0.008
-6.300E-06,0.016
-6.290E-06,0.008
-6.280E-06,0.008
-6.270E-06,0.008
-6.260E-06,0.016
-6.250E-06,0.008
-6.240E-06,0.016
-6.230E-06,0.008
-6.220E-06,-0.008
-6.210E-06,0.000
-6.200E-06,0.000
-6.190E-06,0.008
-6.180E-06,0.008
-6.170E-06,-0.008
-6.160E-06,0.008
-6.150E-06,0.008
-6.140E-06,0.008
-6.130E-06,0.016
-6.120E-06,0.000
-6.110E-06,0.000
-6.100E-06,-0.008
-6.090E-06,0.000
-6.080E-06,-0.008
-6.070E-06,0.008
-6.060E-06,0.008
-6.050E-06,0.000
-6.040E-06,-0.008
-6.030E-06,-0.008
-6.020E-06,0.000
-6.010E-06,0.000
-6.000E-06,0.016
-5.990E-06,0.000
-5.980E-06,0.000
-5.970E-06,0.008
-5.960E-06,0.008
-5.950E-06,0.000
-5.940E-06,0.016
-5.930E-06,0.016
-5.920E-06,0.016
-5.910E-06,0.008
-5.900E-06,0.024
-5.890E-06,0.016
-5.880E-06,0.016
-5.870E-06,0.008
-5.860E-06,0.008
-5.850E-06,0.016
-5.840E-06,0.016
-5.830E-06,0.000
-5.820E-06,0.008
-5.810E-06,0.008
-5.800E-06,0.008
-5.790E-06,0.016
-5.780E-06,0.016
-5.770E-06,0.016
-5.760E-06,0.024
-5.750E-06,0.024
-5.740E-06,0.024
-5.730E-06,0.008
-5.720E-06,0.016
-5.710E-06,0.008
-5.700E-06,0.008
-5.690E-06,0.008
-5.680E-06,0.008
-5.670E-06,0.016
-5.660E-06,0.008
-5.650E-06,-0.008
-5.640E-06,0.000
-5.630E-06,0.000
-5.620E-06,0.016
-5.610E-06,0.008
-5.600E-06,-0.008
-5.590E-06,0.008
-5.580E-06,0.000
-5.570E-06,0.008
-5.560E-06,0.008
-5.550E-06,0.008
-5.540E-06,0.016
-5.530E-06,0.008
-5.520E-06,0.008
-5.510E-06,0.016
-5.500E-06,0.008
-5.490E-06,0.008
-5.480E-06,0.008
-5.470E-06,0.000
-5.460E-06,0.000
-5.450E-06,0.008
-5.440E-06,0.000
-5.430E-06,0.008
-5.420E-06,0.008
-5.410E-06,0.008
-5.400E-06,0.016
-5.390E-06,0.008
-5.380E-06,0.016
-5.370E-06,0.024
-5.360E-06,0.008
-5.350E-06,0.016
-5.340E-06,0.024
-5.330E-06,0.016
-5.320E-06,0.016
-5.310E-06,0.008
-5.300E-06,0.008
-5.290E-06,0.008
-5.280E-06,0.000
-5.270E-06,-0.008
-5.260E-06,0.008
-5.250E-06,0.016
-5.240E-06,0.008
-5.230E-06,0.000
-5.220E-06,0.000
-5.210E-06,0.008
-5.200E-06,-0.008
-5.190E-06,0.000
-5.180E-06,-0.008
-5.170E-06,0.000
-5.160E-06,0.000
-5.150E-06,0.000
-5.140E-06,0.016
-5.130E-06,-0.008
-5.120E-06,0.008
-5.110E-06,0.016
-5.100E-06,0.024
-5.090E-06,0.016
-5.080E-06,0.016
-5.070E-06,0.008
-5.060E-06,0.008
-5.050E-06,0.000
-5.040E-06,0.000
-5.030E-06,0.000
-5.020E-06,-0.008
-5.010E-06,0.000
-5.000E-06,0.000
-4.990E-06,0.000
-4.980E-06,0.000
-4.970E-06,0.000
-4.960E-06,0.000
-4.950E-06,0.000
-4.940E-06,-0.008
-4.930E-06,0.000
-4.920E-06,0.000
-4.910E-06,0.000
-4.900E-06,-0.008
-4.890E-06,0.000
-4.880E-06,0.008
-4.870E-06,-0.008
-4.860E-06,0.000
-4.850E-06,0.000
-4.840E-06,0.000
-4.830E-06,0.000
-4.820E-06,0.000
-4.810E-06,0.000
-4.800E-06,0.000
-4.790E-06,0.000
-4.780E-06,0.000
-4.770E-06,-0.008
-4.760E-06,-0.008
-4.750E-06,-0.008
-4.740E-06,-0.008
-4.730E-06,-0.008
-4.720E-06,-0.016
-4.710E-06,-0.016
-4.700E-06,0.000
-4.690E-06,-0.008
-4.680E-06,-0.016
-4.670E-06,0.000
-4.660E-06,-0.016
-4.650E-06,0.000
-4.640E-06,-0.016
-4.630E-06,-0.008
-4.620E-06,-0.008
-4.610E-06,-0.008
-4.600E-06,0.008
-4.590E-06,0.008
-4.580E-06,0.008
-4.570E-06,0.016
-4.560E-06,0.016
-4.550E-06,0.024
-4.540E-06,0.024
-4.530E-06,0.024
-4.520E-06,0.016
-4.510E-06,-0.008
-4.500E-06,0.000
-4.490E-06,0.000
-4.480E-06,0.000
-4.470E-06,0.000
-4.460E-06,-0.008
-4.450E-06,0.000
-4.440E-06,0.000
-4.430E-06,0.000
-4.420E-06,0.000
-4.410E-06,0.000
-4.400E-06,0.000
-4.390E-06,0.000
-4.380E-06,0.000
-4.370E-06,0.000
-4.360E-06,-0.008
-4.350E-06,0.000
-4.340E-06,0.000
-4.330E-06,-0.008
-4.320E-06,0.000
-4.310E-06,-0.016
-4.300E-06,0.000
-4.290E-06,0.000
-4.280E-06,0.000
-4.270E-06,0.016
-4.260E-06,0.000
-4.250E-06,0.008
-4.240E-06,0.016
-4.230E-06,0.016
-4.220E-06,0.024
-4.210E-06,0.032
-4.200E-06,0.032
-4.190E-06,0.040
-4.180E-06,0.032
-4.170E-06,0.048
-4.160E-06,0.040
-4.150E-06,0.048
-4.140E-06,0.048
-4.130E-06,0.032
-4.120E-06,0.032
-4.110E-06,0.040
-4.100E-06,0.024
-4.090E-06,0.032
-4.080E-06,0.024
-4.070E-06,0.032
-4.060E-06,0.032
-4.050E-06,0.024
-4.040E-06,0.024
-4.030E-06,0.008
-4.020E-06,0.008
-4.010E-06,0.008
-4.000E-06,0.016
-3.990E-06,0.016
-3.980E-06,0.024
-3.970E-06,0.024
-3.960E-06,0.024
-3.950E-06,0.016
-3.940E-06,0.016
-3.930E-06,0.024
-3.920E-06,0.016
-3.910E-06,0.008
-3.900E-06,0.016
-3.890E-06,0.008
-3.880E-06,0.008
-3.870E-06,0.008
-3.860E-06,0.016
-3.850E-06,0.016
-3.840E-06,0.016
-3.830E-06,0.000
-3.820E-06,0.008
-3.810E-06,0.000
-3.800E-06,0.000
-3.790E-06,0.008
-3.780E-06,0.000
-3.770E-06,0.000
-3.760E-06,0.008
-3.750E-06,0.008
-3.740E-06,0.000
-3.730E-06,0.016
-3.720E-06,0.000
-3.710E-06,0.016
-3.700E-06,0.016
-3.690E-06,0.008
-3.680E-06,0.008
-3.670E-06,0.008
-3.660E-06,0.008
-3.650E-06,0.016
-3.640E-06,0.008
-3.630E-06,0.008
-3.620E-06,0.000
-3.610E-06,0.000
-3.600E-06,0.008
-3.590E-06,0.000
-3.580E-06,0.000
-3.570E-06,0.008
-3.560E-06,0.008
-3.550E-06,0.016
-3.540E-06,0.008
-3.530E-06,0.008
-3.520E-06,0.016
-3.510E-06,0.016
-3.500E-06,0.000
-3.490E-06,0.016
-3.480E-06,0.016
-3.470E-06,0.016
-3.460E-06,0.016
-3.450E-06,0.008
-3.440E-06,0.008
-3.430E-06,0.016
-3.420E-06,0.016
-3.410E-06,0.016
-3.400E-06,0.016
-3.390E-06,0.024
-3.380E-06,0.016
-3.370E-06,0.016
-3.360E-06,0.016
-3.350E-06,0.016
-3.340E-06,0.032
-3.330E-06,0.032
-3.320E-06,0.024
-3.310E-06,0.016
-3.300E-06,-0.008
-3.290E-06,-0.008
-3.280E-06,0.000
-3.270E-06,0.000
-3.260E-06,0.000
-3.250E-06,-0.008
-3.240E-06,-0.016
-3.230E-06,-0.008
-3.220E-06,-0.008
-3.210E-06,-0.008
-3.200E-06,-0.008
-3.190E-06,-0.008
-3.180E-06,0.000
-3.170E-06,-0.016
-3.160E-06,-0.016
-3.150E-06,0.000
-3.140E-06,0.000
-3.130E-06,0.008
-3.120E-06,0.008
-3.110E-06,0.000
-3.100E-06,0.000
-3.090E-06,0.000
-3.080E-06,-0.008
-3.070E-06,-0.016
-3.060E-06,-0.016
-3.050E-06,-0.032
-3.040E-06,-0.040
-3.030E-06,-0.048
-3.020E-06,-0.032
-3.010E-06,-0.048
-3.000E-06,-0.064
-2.990E-06,-0.072
-2.980E-06,-0.072
-2.970E-06,-0.080
-2.960E-06,-0.072
-2.950E-06,-0.072
-2.940E-06,-0.088
-2.930E-06,-0.096
-2.920E-06,-0.096
-2.910E-06,-0.104
-2.900E-06,-0.088
-2.890E-06,-0.096
-2.880E-06,-0.072
-2.870E-06,-0.080
-2.860E-06,-0.064
-2.850E-06,-0.056
-2.840E-06,-0.040
-2.830E-06,-0.024
-2.820E-06,-0.024
-2.810E-06,-0.024
-2.800E-06,-0.024
-2.790E-06,-0.040
-2.780E-06,-0.024
-2.770E-06,-0.024
-2.760E-06,-0.024
-2.750E-06,-0.024
-2.740E-06,-0.056
-2.730E-06,-0.048
-2.720E-06,-0.072
-2.710E-06,-0.112
-2.700E-06,-0.144
-2.690E-06,-0.184
-2.680E-06,-0.240
-2.670E-06,-0.232
-2.660E-06,-0.272
-2.650E-06,-0.256
-2.640E-06,-0.232
-2.630E-06,-0.232
-2.620E-06,-0.208
-2.610E-06,-0.256
-2.600E-06,-0.240
-2.590E-06,-0.272
-2.580E-06,-0.248
-2.570E-06,-0.208
-2.560E-06,-0.160
-2.550E-06,-0.128
-2.540E-06,-0.152
-2.530E-06,-0.136
-2.520E-06,-0.136
-2.510E-06,-0.120
-2.500E-06,-0.096
-2.490E-06,-0.072
-2.480E-06,-0.032
-2.470E-06,-0.064
-2.460E-06,-0.024
-2.450E-06,-0.040
-2.440E-06,-0.016
-2.430E-06,0.008
-2.420E-06,0.024
-2.410E-06,0.064
-2.400E-06,0.024
-2.390E-06,-0.016
-2.380E-06,-0.040
-2.370E-06,-0.096
-2.360E-06,-0.104
-2.350E-06,-0.088
-2.340E-06,-0.088
-2.330E-06,-0.088
-2.320E-06,-0.112
-2.310E-06,-0.128
-2.300E-06,-0.128
-2.290E-06,-0.128
-2.280E-06,-0.104
-2.270E-06,-0.120
-2.260E-06,-0.136
-2.250E-06,-0.152
-2.240E-06,-0.184
-2.230E-06,-0.184
-2.220E-06,-0.192
-2.210E-06,-0.192
-2.200E-06,-0.208
-2.190E-06,-0.208
-2.180E-06,-0.216
-2.170E-06,-0.232
-2.160E-06,-0.224
-2.150E-06,-0.192
-2.140E-06,-0.184
-2.130E-06,-0.168
-2.120E-06,-0.160
-2.110E-06,-0.144
-2.100E-06,-0.128
-2.090E-06,-0.104
-2.080E-06,-0.096
-2.070E-06,-0.064
-2.060E-06,-0.072
-2.050E-06,-0.072
-2.040E-06,-0.064
-2.030E-06,-0.072
-2.020E-06,-0.048
-2.010E-06,-0.048
-2.000E-06,-0.064
-1.990E-06,-0.072
-1.980E-06,-0.080
-1.970E-06,-0.088
-1.960E-06,-0.112
-1.950E-06,-0.120
-1.940E-06,-0.152
-1.930E-06,-0.160
-1.920E-06,-0.200
-1.910E-06,-0.224
-1.900E-06,-0.248
-1.890E-06,-0.280
-1.880E-06,-0.304
-1.870E-06,-0.328
-1.860E-06,-0.352
-1.850E-06,-0.376
-1.840E-06,-0.400
-1.830E-06,-0.424
-1.820E-06,-0.440
-1.810E-06,-0.456
-1.800E-06,-0.472
-1.790E-06,-0.472
-1.780E-06,-0.464
-1.770E-06,-0.488
-1.760E-06,-0.464
-1.750E-06,-0.488
-1.740E-06,-0.496
-1.730E-06,-0.488
-1.720E-06,-0.488
-1.710E-06,-0.440
-1.700E-06,-0.432
-1.690E-06,-0.344
-1.680E-06,-0.304
-1.670E-06,-0.216
-1.660E-06,-0.224
-1.650E-06,-0.224
-1.640E-06,-0.184
-1.630E-06,-0.216
-1.620E-06,-0.168
-1.610E-06,-0.192
-1.600E-06,-0.232
-1.590E-06,-0.232
-1.580E-06,-0.296
-1.570E-06,-0.320
-1.560E-06,-0.312
-1.550E-06,-0.320
-1.540E-06,-0.312
-1.530E-06,-0.288
-1.520E-06,-0.328
-1.510E-06,-0.280
-1.500E-06,-0.296
-1.490E-06,-0.264
-1.480E-06,-0.240
-1.470E-06,-0.224
-1.460E-06,-0.208
-1.450E-06,-0.200
-1.440E-06,-0.200
-1.430E-06,-0.200
-1.420E-06,-0.216
-1.410E-06,-0.224
-1.400E-06,-0.264
-1.390E-06,-0.288
-1.380E-06,-0.288
-1.370E-06,-0.256
-1.360E-06,-0.272
-1.350E-06,-0.224
-1.340E-06,-0.296
-1.330E-06,-0.296
-1.320E-06,-0.376
-1.310E-06,-0.336
-1.300E-06,-0.392
-1.290E-06,-0.384
-1.280E-06,-0.400
-1.270E-06,-0.440
-1.260E-06,-0.488
-1.250E-06,-0.504
-1.240E-06,-0.504
-1.230E-06,-0.520
-1.220E-06,-0.512
-1.210E-06,-0.544
-1.200E-06,-0.544
-1.190E-06,-0.600
-1.180E-06,-0.568
-1.170E-06,-0.568
-1.160E-06,-0.544
-1.150E-06,-0.528
-1.140E-06,-0.528
-1.130E-06,-0.536
-1.120E-06,-0.536
-1.110E-06,-0.488
-1.100E-06,-0.464
-1.090E-06,-0.416
-1.080E-06,-0.464
-1.070E-06,-0.464
-1.060E-06,-0.504
-1.050E-06,-0.496
-1.040E-06,-0.480
-1.030E-06,-0.488
-1.020E-06,-0.480
-1.010E-06,-0.512
-1.000E-06,-0.528
-9.900E-07,-0.568
-9.800E-07,-0.576
-9.700E-07,-0.632
-9.600E-07,-0.616
-9.500E-07,-0.704
-9.400E-07,-0.736
-9.300E-07,-0.800
-9.200E-07,-0.816
-9.100E-07,-0.864
-9.000E-07,-0.872
-8.900E-07,-0.928
-8.800E-07,-0.928
-8.700E-07,-0.968
-8.600E-07,-0.912
-8.500E-07,-0.920
-8.400E-07,-0.840
-8.300E-07,-0.720
-8.200E-07,-0.624
-8.100E-07,-0.552
-8.000E-07,-0.328
-7.900E-07,-0.368
-7.800E-07,-0.168
-7.700E-07,-0.168
-7.600E-07,-0.136
-7.500E-07,-0.096
-7.400E-07,-0.160
-7.300E-07,-0.192
-7.200E-07,-0.248
-7.100E-07,-0.336
-7.000E-07,-0.448
-6.900E-07,-0.512
-6.800E-07,-0.576
-6.700E-07,-0.616
-6.600E-07,-0.696
-6.500E-07,-0.840
-6.400E-07,-0.952
-6.300E-07,-1.032
-6.200E-07,-1.032
-6.100E-07,-1.040
-6.000E-07,-1.048
-5.900E-07,-1.032
-5.800E-07,-1.040
-5.700E-07,-1.048
-5.600E-07,-1.040
-5.500E-07,-1.040
-5.400E-07,-1.040
-5.300E-07,-1.040
-5.200E-07,-1.040
-5.100E-07,-1.048
-5.000E-07,-1.040
-4.900E-07,-1.048
-4.800E-07,-1.048
-4.700E-07,-1.032
-4.600E-07,-1.032
-4.500E-07,-1.040
-4.400E-07,-1.032
-4.300E-07,-1.032
-4.200E-07,-1.040
-4.100E-07,-1.032
-4.000E-07,-1.040
-3.900E-07,-1.048
-3.800E-07,-1.032
-3.700E-07,-1.032
-3.600E-07,-1.040
-3.500E-07,-1.040
-3.400E-07,-1.048
-3.300E-07,-1.040
-3.200E-07,-1.040
-3.100E-07,-1.048
-3.000E-07,-1.040
-2.900E-07,-1.048
-2.800E-07,-1.032
-2.700E-07,-1.032
-2.600E-07,-1.040
-2.500E-07,-1.032
-2.400E-07,-1.040
-2.300E-07,-1.048
-2.200E-07,-1.040
-2.100E-07,-1.040
-2.000E-07,-1.040
-1.900E-07,-1.048
-1.800E-07,-1.040
-1.700E-07,-1.032
-1.600E-07,-1.032
-1.500E-07,-1.040
-1.400E-07,-1.032
-1.300E-07,-1.032
-1.200E-07,-1.040
-1.100E-07,-1.032
-1.000E-07,-1.040
-9.000E-08,-1.032
-8.000E-08,-1.040
-7.000E-08,-1.032
-6.000E-08,-1.032
-5.000E-08,-1.040
-4.000E-08,-1.032
-3.000E-08,-1.040
-2.000E-08,-1.040
-1.000E-08,-1.048
0.000E+00,-1.040
1.000E-08,-0.608
2.000E-08,-0.408
3.000E-08,0.056
4.000E-08,-0.584
5.000E-08,-0.264
6.000E-08,-1.040
7.000E-08,-1.000
8.000E-08,-1.048
9.000E-08,-1.040
1.000E-07,-1.032
1.100E-07,-1.040
1.200E-07,-1.048
1.300E-07,-1.040
1.400E-07,-1.040
1.500E-07,-1.040
1.600E-07,-1.040
1.700E-07,-1.040
1.800E-07,-1.048
1.900E-07,-1.040
2.000E-07,-1.040
2.100E-07,-1.048
2.200E-07,-1.040
2.300E-07,-1.040
2.400E-07,-1.048
2.500E-07,-1.040
2.600E-07,-1.032
2.700E-07,-1.040
2.800E-07,-1.032
2.900E-07,-1.040
3.000E-07,-1.032
3.100E-07,-1.032
3.200E-07,-1.040
3.300E-07,-1.040
3.400E-07,-1.040
3.500E-07,-1.040
3.600E-07,-1.040
3.700E-07,-1.048
3.800E-07,-1.040
3.900E-07,-1.032
4.000E-07,-1.032
4.100E-07,-1.040
4.200E-07,-1.032
4.300E-07,-1.032
4.400E-07,-1.040
4.500E-07,-1.040
4.600E-07,-1.040
4.700E-07,-1.048
4.800E-07,-1.040
4.900E-07,-1.048
5.000E-07,-1.048
5.100E-07,-0.976
5.200E-07,-0.872
5.300E-07,-0.808
5.400E-07,-0.728
5.500E-07,-0.712
5.600E-07,-0.680
5.700E-07,-0.680
5.800E-07,-0.704
5.900E-07,-0.720
6.000E-07,-0.744
6.100E-07,-0.768
6.200E-07,-0.800
6.300E-07,-0.840
6.400E-07,-0.864
6.500E-07,-0.896
6.600E-07,-0.912
6.700E-07,-0.952
6.800E-07,-0.952
6.900E-07,-0.960
7.000E-07,-0.944
7.100E-07,-0.920
7.200E-07,-0.864
7.300E-07,-0.816
7.400E-07,-0.744
7.500E-07,-0.664
7.600E-07,-0.552
7.700E-07,-0.464
7.800E-07,-0.384
7.900E-07,-0.296
8.000E-07,-0.224
8.100E-07,-0.160
8.200E-07,-0.128
8.300E-07,-0.096
8.400E-07,-0.064
8.500E-07,-0.056
8.600E-07,-0.048
8.700E-07,-0.040
8.800E-07,-0.048
8.900E-07,-0.032
9.000E-07,-0.024
9.100E-07,-0.016
9.200E-07,-0.024
9.300E-07,-0.008
9.400E-07,-0.024
9.500E-07,-0.024
9.600E-07,-0.024
9.700E-07,-0.048
9.800E-07,-0.032
9.900E-07,-0.032
1.000E-06,-0.032
1.010E-06,-0.024
1.020E-06,-0.008
1.030E-06,0.000
1.040E-06,0.016
1.050E-06,0.040
1.060E-06,0.040
1.070E-06,0.064
1.080E-06,0.080
1.090E-06,0.096
1.100E-06,0.088
1.110E-06,0.096
1.120E-06,0.088
1.130E-06,0.080
1.140E-06,0.088
1.150E-06,0.088
1.160E-06,0.080
1.170E-06,0.088
1.180E-06,0.080
1.190E-06,0.080
1.200E-06,0.080
1.210E-06,0.096
1.220E-06,0.104
1.230E-06,0.096
1.240E-06,0.104
1.250E-06,0.080
1.260E-06,0.080
1.270E-06,0.048
1.280E-06,0.048
1.290E-06,0.032
1.300E-06,-0.008
1.310E-06,-0.016
1.320E-06,-0.040
1.330E-06,-0.048
1.340E-06,-0.064
1.350E-06,-0.064
1.360E-06,-0.072
1.370E-06,-0.072
1.380E-06,-0.064
1.390E-06,-0.064
1.400E-06,-0.064
1.410E-06,-0.056
1.420E-06,-0.072
1.430E-06,-0.072
1.440E-06,-0.056
1.450E-06,-0.040
1.460E-06,-0.024
1.470E-06,-0.008
1.480E-06,-0.008
1.490E-06,0.000
1.500E-06,0.024
1.510E-06,0.048
1.520E-06,0.064
1.530E-06,0.080
1.540E-06,0.096
1.550E-06,0.104
1.560E-06,0.120
1.570E-06,0.112
1.580E-06,0.112
1.590E-06,0.104
1.600E-06,0.104
1.610E-06,0.104
1.620E-06,0.104
1.630E-06,0.120
1.640E-06,0.120
1.650E-06,0.128
1.660E-06,0.128
1.670E-06,0.112
1.680E-06,0.112
1.690E-06,0.120
1.700E-06,0.104
1.710E-06,0.096
1.720E-06,0.088
1.730E-06,0.064
1.740E-06,0.064
1.750E-06,0.048
1.760E-06,0.032
1.770E-06,0.032
1.780E-06,0.016
1.790E-06,0.016
1.800E-06,0.016
1.810E-06,0.016
1.820E-06,0.024
1.830E-06,0.032
1.840E-06,0.040
1.850E-06,0.072
1.860E-06,0.072
1.870E-06,0.088
1.880E-06,0.096
1.890E-06,0.096
1.900E-06,0.096
1.910E-06,0.096
1.920E-06,0.096
1.930E-06,0.096
1.940E-06,0.120
1.950E-06,0.128
1.960E-06,0.128
1.970E-06,0.128
1.980E-06,0.136
1.990E-06,0.128
2.000E-06,0.144
2.010E-06,0.136
2.020E-06,0.128
2.030E-06,0.104
2.040E-06,0.112
2.050E-06,0.080
2.060E-06,0.056
2.070E-06,0.032
2.080E-06,0.032
2.090E-06,0.016
2.100E-06,0.008
2.110E-06,-0.024
2.120E-06,-0.048
2.130E-06,-0.064
2.140E-06,-0.104
2.150E-06,-0.136
2.160E-06,-0.184
2.170E-06,-0.240
2.180E-06,-0.272
2.190E-06,-0.336
2.200E-06,-0.408
2.210E-06,-0.456
2.220E-06,-0.528
2.230E-06,-0.600
2.240E-06,-0.648
2.250E-06,-0.696
2.260E-06,-0.752
2.270E-06,-0.784
2.280E-06,-0.824
2.290E-06,-0.832
2.300E-06,-0.848
2.310E-06,-0.856
2.320E-06,-0.856
2.330E-06,-0.864
2.340E-06,-0.864
2.350E-06,-0.864
2.360E-06,-0.872
2.370E-06,-0.880
2.380E-06,-0.896
2.390E-06,-0.872
2.400E-06,-0.864
2.410E-06,-0.848
2.420E-06,-0.816
2.430E-06,-0.776
2.440E-06,-0.752
2.450E-06,-0.712
2.460E-06,-0.688
2.470E-06,-0.664
2.480E-06,-0.656
2.490E-06,-0.640
2.500E-06,-0.664
2.510E-06,-0.696
2.520E-06,-0.712
2.530E-06,-0.744
2.540E-06,-0.752
2.550E-06,-0.776
2.560E-06,-0.768
2.570E-06,-0.776
2.580E-06,-0.776
2.590E-06,-0.784
2.600E-06,-0.776
2.610E-06,-0.712
2.620E-06,-0.640
2.630E-06,-0.560
2.640E-06,-0.480
2.650E-06,-0.408
2.660E-06,-0.320
2.670E-06,-0.232
2.680E-06,-0.160
2.690E-06,-0.072
2.700E-06,0.016
2.710E-06,0.104
2.720E-06,0.208
2.730E-06,0.280
2.740E-06,0.352
2.750E-06,0.408
2.760E-06,0.464
2.770E-06,0.496
2.780E-06,0.536
2.790E-06,0.528
2.800E-06,0.528
2.810E-06,0.536
2.820E-06,0.512
2.830E-06,0.488
2.840E-06,0.408
2.850E-06,0.328
2.860E-06,0.208
2.870E-06,0.064
2.880E-06,-0.056
2.890E-06,-0.200
2.900E-06,-0.280
2.910E-06,-0.344
2.920E-06,-0.344
2.930E-06,-0.344
2.940E-06,-0.312
2.950E-06,-0.240
2.960E-06,-0.160
2.970E-06,-0.072
2.980E-06,0.000
2.990E-06,0.080
3.000E-06,0.136
3.010E-06,0.184
3.020E-06,0.208
3.030E-06,0.208
3.040E-06,0.176
3.050E-06,0.128
3.060E-06,0.088
3.070E-06,0.064
3.080E-06,0.048
3.090E-06,0.056
3.100E-06,0.048
3.110E-06,0.048
3.120E-06,0.024
3.130E-06,0.032
3.140E-06,0.024
3.150E-06,0.024
3.160E-06,0.032
3.170E-06,0.048
3.180E-06,0.048
