mediciones/Mediciones filtradas (saque las feas)/5-15/1.2/WaveData47584.csv

#timebase=2000000(ps)
,#voltbase=100000(mv/100)
#size=4000
-8.400E-06,0.000
-8.390E-06,0.000
-8.380E-06,0.000
-8.370E-06,0.004
-8.360E-06,0.008
-8.350E-06,0.004
-8.340E-06,0.000
-8.330E-06,0.000
-8.320E-06,-0.004
-8.310E-06,0.000
-8.300E-06,0.000
-8.290E-06,0.004
-8.280E-06,0.004
-8.270E-06,0.008
-8.260E-06,0.000
-8.250E-06,0.000
-8.240E-06,0.004
-8.230E-06,0.004
-8.220E-06,0.004
-8.210E-06,0.000
-8.200E-06,0.004
-8.190E-06,0.004
-8.180E-06,0.000
-8.170E-06,0.000
-8.160E-06,0.000
-8.150E-06,0.004
-8.140E-06,0.000
-8.130E-06,0.000
-8.120E-06,0.000
-8.110E-06,0.004
-8.100E-06,0.000
-8.090E-06,0.000
-8.080E-06,0.004
-8.070E-06,0.004
-8.060E-06,0.004
-8.050E-06,0.000
-8.040E-06,0.000
-8.030E-06,0.004
-8.020E-06,0.012
-8.010E-06,0.004
-8.000E-06,0.000
-7.990E-06,0.000
-7.980E-06,0.000
-7.970E-06,0.004
-7.960E-06,0.004
-7.950E-06,0.004
-7.940E-06,0.004
-7.930E-06,0.004
-7.920E-06,0.004
-7.910E-06,-0.004
-7.900E-06,-0.004
-7.890E-06,0.004
-7.880E-06,0.004
-7.870E-06,0.008
-7.860E-06,0.012
-7.850E-06,0.004
-7.840E-06,0.000
-7.830E-06,0.000
-7.820E-06,-0.004
-7.810E-06,0.000
-7.800E-06,0.000
-7.790E-06,0.008
-7.780E-06,0.012
-7.770E-06,0.012
-7.760E-06,0.008
-7.750E-06,0.004
-7.740E-06,0.000
-7.730E-06,-0.004
-7.720E-06,0.000
-7.710E-06,0.004
-7.700E-06,0.008
-7.690E-06,0.012
-7.680E-06,0.004
-7.670E-06,0.000
-7.660E-06,0.000
-7.650E-06,-0.004
-7.640E-06,0.000
-7.630E-06,0.004
-7.620E-06,0.000
-7.610E-06,0.008
-7.600E-06,0.008
-7.590E-06,0.004
-7.580E-06,0.004
-7.570E-06,0.000
-7.560E-06,0.000
-7.550E-06,-0.004
-7.540E-06,0.004
-7.530E-06,0.008
-7.520E-06,0.008
-7.510E-06,0.004
-7.500E-06,0.004
-7.490E-06,0.000
-7.480E-06,0.000
-7.470E-06,0.000
-7.460E-06,0.004
-7.450E-06,0.012
-7.440E-06,0.012
-7.430E-06,0.004
-7.420E-06,0.000
-7.410E-06,0.004
-7.400E-06,-0.004
-7.390E-06,0.000
-7.380E-06,0.000
-7.370E-06,0.004
-7.360E-06,0.004
-7.350E-06,0.004
-7.340E-06,0.012
-7.330E-06,0.008
-7.320E-06,0.004
-7.310E-06,-0.004
-7.300E-06,0.000
-7.290E-06,0.000
-7.280E-06,-0.004
-7.270E-06,0.008
-7.260E-06,0.008
-7.250E-06,0.008
-7.240E-06,0.000
-7.230E-06,0.000
-7.220E-06,-0.004
-7.210E-06,-0.004
-7.200E-06,0.004
-7.190E-06,0.004
-7.180E-06,0.008
-7.170E-06,0.012
-7.160E-06,0.004
-7.150E-06,-0.004
-7.140E-06,-0.004
-7.130E-06,0.000
-7.120E-06,0.008
-7.110E-06,0.012
-7.100E-06,0.008
-7.090E-06,0.004
-7.080E-06,0.000
-7.070E-06,0.000
-7.060E-06,0.000
-7.050E-06,0.000
-7.040E-06,0.004
-7.030E-06,0.004
-7.020E-06,0.008
-7.010E-06,0.008
-7.000E-06,0.008
-6.990E-06,-0.004
-6.980E-06,0.000
-6.970E-06,0.000
-6.960E-06,0.008
-6.950E-06,0.004
-6.940E-06,0.008
-6.930E-06,0.008
-6.920E-06,0.000
-6.910E-06,-0.004
-6.900E-06,-0.004
-6.890E-06,0.000
-6.880E-06,0.004
-6.870E-06,0.004
-6.860E-06,0.008
-6.850E-06,0.012
-6.840E-06,0.008
-6.830E-06,0.000
-6.820E-06,0.000
-6.810E-06,-0.004
-6.800E-06,-0.004
-6.790E-06,0.008
-6.780E-06,0.012
-6.770E-06,0.016
-6.760E-06,0.012
-6.750E-06,0.000
-6.740E-06,0.000
-6.730E-06,-0.004
-6.720E-06,-0.004
-6.710E-06,0.000
-6.700E-06,0.004
-6.690E-06,0.004
-6.680E-06,0.004
-6.670E-06,0.008
-6.660E-06,0.004
-6.650E-06,0.000
-6.640E-06,-0.004
-6.630E-06,0.000
-6.620E-06,0.000
-6.610E-06,0.008
-6.600E-06,0.008
-6.590E-06,0.004
-6.580E-06,0.000
-6.570E-06,-0.004
-6.560E-06,-0.004
-6.550E-06,-0.004
-6.540E-06,0.004
-6.530E-06,0.004
-6.520E-06,0.000
-6.510E-06,0.004
-6.500E-06,0.008
-6.490E-06,0.008
-6.480E-06,0.004
-6.470E-06,0.000
-6.460E-06,0.004
-6.450E-06,0.004
-6.440E-06,0.004
-6.430E-06,0.008
-6.420E-06,0.004
-6.410E-06,0.004
-6.400E-06,0.008
-6.390E-06,0.000
-6.380E-06,0.000
-6.370E-06,0.004
-6.360E-06,0.000
-6.350E-06,0.000
-6.340E-06,0.000
-6.330E-06,0.000
-6.320E-06,0.004
-6.310E-06,0.004
-6.300E-06,0.004
-6.290E-06,0.004
-6.280E-06,0.004
-6.270E-06,0.000
-6.260E-06,0.000
-6.250E-06,0.004
-6.240E-06,0.012
-6.230E-06,0.012
-6.220E-06,0.008
-6.210E-06,0.004
-6.200E-06,0.000
-6.190E-06,0.000
-6.180E-06,0.000
-6.170E-06,0.000
-6.160E-06,0.008
-6.150E-06,0.004
-6.140E-06,0.004
-6.130E-06,0.008
-6.120E-06,-0.004
-6.110E-06,-0.004
-6.100E-06,0.000
-6.090E-06,0.000
-6.080E-06,0.000
-6.070E-06,0.008
-6.060E-06,0.000
-6.050E-06,0.004
-6.040E-06,0.000
-6.030E-06,0.000
-6.020E-06,0.000
-6.010E-06,0.008
-6.000E-06,0.004
-5.990E-06,0.004
-5.980E-06,-0.004
-5.970E-06,-0.008
-5.960E-06,0.004
-5.950E-06,0.000
-5.940E-06,0.008
-5.930E-06,0.012
-5.920E-06,0.004
-5.910E-06,-0.004
-5.900E-06,0.000
-5.890E-06,0.000
-5.880E-06,0.000
-5.870E-06,0.008
-5.860E-06,0.012
-5.850E-06,0.008
-5.840E-06,0.000
-5.830E-06,0.000
-5.820E-06,-0.004
-5.810E-06,-0.004
-5.800E-06,0.008
-5.790E-06,0.008
-5.780E-06,0.004
-5.770E-06,0.004
-5.760E-06,0.000
-5.750E-06,-0.004
-5.740E-06,0.000
-5.730E-06,0.004
-5.720E-06,0.000
-5.710E-06,0.004
-5.700E-06,0.008
-5.690E-06,0.000
-5.680E-06,0.000
-5.670E-06,-0.004
-5.660E-06,0.000
-5.650E-06,0.000
-5.640E-06,0.004
-5.630E-06,0.008
-5.620E-06,0.008
-5.610E-06,0.000
-5.600E-06,-0.004
-5.590E-06,0.000
-5.580E-06,-0.008
-5.570E-06,0.000
-5.560E-06,0.000
-5.550E-06,0.008
-5.540E-06,0.008
-5.530E-06,0.016
-5.520E-06,0.000
-5.510E-06,-0.004
-5.500E-06,-0.004
-5.490E-06,0.000
-5.480E-06,0.008
-5.470E-06,0.008
-5.460E-06,0.012
-5.450E-06,0.000
-5.440E-06,0.000
-5.430E-06,-0.004
-5.420E-06,0.000
-5.410E-06,0.004
-5.400E-06,0.008
-5.390E-06,0.012
-5.380E-06,0.008
-5.370E-06,0.004
-5.360E-06,0.000
-5.350E-06,0.000
-5.340E-06,0.000
-5.330E-06,0.000
-5.320E-06,-0.004
-5.310E-06,0.000
-5.300E-06,0.000
-5.290E-06,0.000
-5.280E-06,0.004
-5.270E-06,0.004
-5.260E-06,0.008
-5.250E-06,0.004
-5.240E-06,0.000
-5.230E-06,0.004
-5.220E-06,0.008
-5.210E-06,0.004
-5.200E-06,0.008
-5.190E-06,0.008
-5.180E-06,0.004
-5.170E-06,0.000
-5.160E-06,0.000
-5.150E-06,-0.004
-5.140E-06,0.000
-5.130E-06,0.004
-5.120E-06,0.008
-5.110E-06,0.008
-5.100E-06,0.008
-5.090E-06,0.008
-5.080E-06,0.000
-5.070E-06,-0.004
-5.060E-06,-0.004
-5.050E-06,0.004
-5.040E-06,0.008
-5.030E-06,0.012
-5.020E-06,0.004
-5.010E-06,0.000
-5.000E-06,-0.004
-4.990E-06,0.000
-4.980E-06,0.000
-4.970E-06,0.008
-4.960E-06,0.008
-4.950E-06,0.012
-4.940E-06,0.008
-4.930E-06,0.000
-4.920E-06,-0.004
-4.910E-06,0.000
-4.900E-06,0.000
-4.890E-06,0.008
-4.880E-06,0.008
-4.870E-06,0.000
-4.860E-06,0.004
-4.850E-06,0.008
-4.840E-06,-0.004
-4.830E-06,0.000
-4.820E-06,0.004
-4.810E-06,-0.004
-4.800E-06,0.000
-4.790E-06,0.008
-4.780E-06,0.004
-4.770E-06,0.008
-4.760E-06,0.008
-4.750E-06,0.004
-4.740E-06,-0.004
-4.730E-06,-0.004
-4.720E-06,0.000
-4.710E-06,0.000
-4.700E-06,0.004
-4.690E-06,0.008
-4.680E-06,0.000
-4.670E-06,-0.004
-4.660E-06,0.000
-4.650E-06,-0.004
-4.640E-06,0.000
-4.630E-06,0.000
-4.620E-06,0.000
-4.610E-06,0.004
-4.600E-06,0.008
-4.590E-06,0.000
-4.580E-06,0.004
-4.570E-06,0.004
-4.560E-06,0.000
-4.550E-06,0.000
-4.540E-06,0.008
-4.530E-06,0.012
-4.520E-06,0.008
-4.510E-06,0.004
-4.500E-06,-0.004
-4.490E-06,-0.004
-4.480E-06,0.004
-4.470E-06,0.012
-4.460E-06,0.012
-4.450E-06,0.000
-4.440E-06,-0.004
-4.430E-06,-0.004
-4.420E-06,0.000
-4.410E-06,0.004
-4.400E-06,0.012
-4.390E-06,0.016
-4.380E-06,0.000
-4.370E-06,0.000
-4.360E-06,-0.004
-4.350E-06,0.000
-4.340E-06,0.004
-4.330E-06,0.008
-4.320E-06,0.008
-4.310E-06,0.008
-4.300E-06,0.000
-4.290E-06,0.004
-4.280E-06,0.008
-4.270E-06,0.000
-4.260E-06,0.004
-4.250E-06,0.008
-4.240E-06,0.004
-4.230E-06,0.004
-4.220E-06,0.008
-4.210E-06,0.008
-4.200E-06,0.004
-4.190E-06,-0.008
-4.180E-06,0.004
-4.170E-06,-0.004
-4.160E-06,0.000
-4.150E-06,0.008
-4.140E-06,0.008
-4.130E-06,0.004
-4.120E-06,0.008
-4.110E-06,0.008
-4.100E-06,-0.004
-4.090E-06,-0.004
-4.080E-06,0.000
-4.070E-06,0.008
-4.060E-06,0.004
-4.050E-06,0.008
-4.040E-06,0.008
-4.030E-06,-0.004
-4.020E-06,-0.004
-4.010E-06,0.000
-4.000E-06,0.004
-3.990E-06,0.004
-3.980E-06,0.004
-3.970E-06,0.004
-3.960E-06,0.004
-3.950E-06,0.004
-3.940E-06,0.000
-3.930E-06,0.004
-3.920E-06,-0.004
-3.910E-06,-0.004
-3.900E-06,-0.004
-3.890E-06,0.004
-3.880E-06,0.008
-3.870E-06,0.008
-3.860E-06,0.004
-3.850E-06,0.004
-3.840E-06,-0.004
-3.830E-06,-0.004
-3.820E-06,0.000
-3.810E-06,0.004
-3.800E-06,0.008
-3.790E-06,0.008
-3.780E-06,0.008
-3.770E-06,-0.004
-3.760E-06,-0.004
-3.750E-06,0.000
-3.740E-06,0.000
-3.730E-06,0.004
-3.720E-06,0.004
-3.710E-06,0.012
-3.700E-06,0.008
-3.690E-06,0.000
-3.680E-06,0.000
-3.670E-06,-0.004
-3.660E-06,0.000
-3.650E-06,0.008
-3.640E-06,0.016
-3.630E-06,0.008
-3.620E-06,0.004
-3.610E-06,-0.004
-3.600E-06,-0.004
-3.590E-06,0.000
-3.580E-06,0.004
-3.570E-06,0.012
-3.560E-06,0.016
-3.550E-06,0.012
-3.540E-06,-0.004
-3.530E-06,0.000
-3.520E-06,-0.004
-3.510E-06,0.004
-3.500E-06,0.012
-3.490E-06,0.016
-3.480E-06,0.012
-3.470E-06,0.000
-3.460E-06,0.000
-3.450E-06,0.000
-3.440E-06,-0.004
-3.430E-06,0.000
-3.420E-06,0.004
-3.410E-06,0.008
-3.400E-06,0.012
-3.390E-06,0.004
-3.380E-06,0.000
-3.370E-06,0.000
-3.360E-06,0.000
-3.350E-06,0.000
-3.340E-06,0.004
-3.330E-06,0.004
-3.320E-06,0.012
-3.310E-06,0.004
-3.300E-06,0.000
-3.290E-06,0.000
-3.280E-06,0.008
-3.270E-06,0.008
-3.260E-06,0.012
-3.250E-06,0.012
-3.240E-06,0.008
-3.230E-06,0.004
-3.220E-06,-0.004
-3.210E-06,0.000
-3.200E-06,0.004
-3.190E-06,0.008
-3.180E-06,0.000
-3.170E-06,0.000
-3.160E-06,0.000
-3.150E-06,0.000
-3.140E-06,0.008
-3.130E-06,0.008
-3.120E-06,0.008
-3.110E-06,0.008
-3.100E-06,0.000
-3.090E-06,-0.004
-3.080E-06,0.000
-3.070E-06,0.000
-3.060E-06,0.008
-3.050E-06,0.004
-3.040E-06,0.012
-3.030E-06,0.008
-3.020E-06,0.008
-3.010E-06,0.000
-3.000E-06,0.000
-2.990E-06,-0.004
-2.980E-06,0.000
-2.970E-06,0.012
-2.960E-06,0.016
-2.950E-06,0.016
-2.940E-06,0.012
-2.930E-06,-0.004
-2.920E-06,-0.004
-2.910E-06,-0.008
-2.900E-06,0.000
-2.890E-06,0.012
-2.880E-06,0.020
-2.870E-06,0.020
-2.860E-06,0.012
-2.850E-06,0.004
-2.840E-06,0.000
-2.830E-06,0.012
-2.820E-06,0.008
-2.810E-06,0.012
-2.800E-06,0.012
-2.790E-06,0.012
-2.780E-06,0.008
-2.770E-06,0.000
-2.760E-06,-0.008
-2.750E-06,-0.016
-2.740E-06,-0.024
-2.730E-06,-0.012
-2.720E-06,0.016
-2.710E-06,0.020
-2.700E-06,0.008
-2.690E-06,0.000
-2.680E-06,-0.016
-2.670E-06,-0.020
-2.660E-06,-0.004
-2.650E-06,0.016
-2.640E-06,0.024
-2.630E-06,0.032
-2.620E-06,0.012
-2.610E-06,-0.004
-2.600E-06,-0.012
-2.590E-06,-0.012
-2.580E-06,-0.004
-2.570E-06,0.000
-2.560E-06,0.012
-2.550E-06,0.008
-2.540E-06,0.008
-2.530E-06,0.004
-2.520E-06,0.004
-2.510E-06,0.004
-2.500E-06,-0.004
-2.490E-06,0.000
-2.480E-06,0.000
-2.470E-06,0.008
-2.460E-06,0.012
-2.450E-06,0.020
-2.440E-06,0.008
-2.430E-06,0.008
-2.420E-06,-0.004
-2.410E-06,0.000
-2.400E-06,0.008
-2.390E-06,0.016
-2.380E-06,0.024
-2.370E-06,0.024
-2.360E-06,0.008
-2.350E-06,0.000
-2.340E-06,-0.004
-2.330E-06,-0.004
-2.320E-06,0.012
-2.310E-06,0.024
-2.300E-06,0.020
-2.290E-06,0.008
-2.280E-06,0.000
-2.270E-06,-0.004
-2.260E-06,0.000
-2.250E-06,0.008
-2.240E-06,0.012
-2.230E-06,0.024
-2.220E-06,0.020
-2.210E-06,0.020
-2.200E-06,0.000
-2.190E-06,-0.008
-2.180E-06,-0.020
-2.170E-06,-0.012
-2.160E-06,0.000
-2.150E-06,0.012
-2.140E-06,0.024
-2.130E-06,0.016
-2.120E-06,0.008
-2.110E-06,-0.004
-2.100E-06,-0.012
-2.090E-06,-0.008
-2.080E-06,0.004
-2.070E-06,0.024
-2.060E-06,0.024
-2.050E-06,0.028
-2.040E-06,0.024
-2.030E-06,0.008
-2.020E-06,0.000
-2.010E-06,0.004
-2.000E-06,0.016
-1.990E-06,0.024
-1.980E-06,0.032
-1.970E-06,0.032
-1.960E-06,0.024
-1.950E-06,0.016
-1.940E-06,0.012
-1.930E-06,0.016
-1.920E-06,0.016
-1.910E-06,0.012
-1.900E-06,0.012
-1.890E-06,0.016
-1.880E-06,0.012
-1.870E-06,0.016
-1.860E-06,0.020
-1.850E-06,0.028
-1.840E-06,0.024
-1.830E-06,0.016
-1.820E-06,0.012
-1.810E-06,0.004
-1.800E-06,0.012
-1.790E-06,0.008
-1.780E-06,0.016
-1.770E-06,0.028
-1.760E-06,0.040
-1.750E-06,0.056
-1.740E-06,0.064
-1.730E-06,0.064
-1.720E-06,0.060
-1.710E-06,0.048
-1.700E-06,0.040
-1.690E-06,0.028
-1.680E-06,0.036
-1.670E-06,0.004
-1.660E-06,-0.008
-1.650E-06,-0.060
-1.640E-06,-0.108
-1.630E-06,-0.104
-1.620E-06,-0.060
-1.610E-06,0.020
-1.600E-06,0.084
-1.590E-06,0.104
-1.580E-06,0.060
-1.570E-06,-0.024
-1.560E-06,-0.100
-1.550E-06,-0.092
-1.540E-06,-0.052
-1.530E-06,0.028
-1.520E-06,0.092
-1.510E-06,0.128
-1.500E-06,0.092
-1.490E-06,0.024
-1.480E-06,-0.040
-1.470E-06,-0.056
-1.460E-06,-0.016
-1.450E-06,0.020
-1.440E-06,0.076
-1.430E-06,0.096
-1.420E-06,0.092
-1.410E-06,0.056
-1.400E-06,0.012
-1.390E-06,-0.020
-1.380E-06,-0.012
-1.370E-06,0.024
-1.360E-06,0.064
-1.350E-06,0.096
-1.340E-06,0.108
-1.330E-06,0.096
-1.320E-06,0.044
-1.310E-06,0.024
-1.300E-06,0.024
-1.290E-06,0.000
-1.280E-06,-0.036
-1.270E-06,-0.040
-1.260E-06,-0.060
-1.250E-06,-0.020
-1.240E-06,0.028
-1.230E-06,0.068
-1.220E-06,0.044
-1.210E-06,0.000
-1.200E-06,-0.076
-1.190E-06,-0.116
-1.180E-06,-0.056
-1.170E-06,0.040
-1.160E-06,0.092
-1.150E-06,0.080
-1.140E-06,0.000
-1.130E-06,-0.088
-1.120E-06,-0.128
-1.110E-06,-0.088
-1.100E-06,0.000
-1.090E-06,0.080
-1.080E-06,0.124
-1.070E-06,0.096
-1.060E-06,0.060
-1.050E-06,0.032
-1.040E-06,0.008
-1.030E-06,0.008
-1.020E-06,0.028
-1.010E-06,0.080
-1.000E-06,0.120
-9.900E-07,0.144
-9.800E-07,0.140
-9.700E-07,0.124
-9.600E-07,0.100
-9.500E-07,0.068
-9.400E-07,0.064
-9.300E-07,0.076
-9.200E-07,0.128
-9.100E-07,0.168
-9.000E-07,0.176
-8.900E-07,0.128
-8.800E-07,0.020
-8.700E-07,-0.124
-8.600E-07,-0.236
-8.500E-07,-0.300
-8.400E-07,-0.284
-8.300E-07,-0.188
-8.200E-07,-0.012
-8.100E-07,0.104
-8.000E-07,0.100
-7.900E-07,0.060
-7.800E-07,-0.060
-7.700E-07,-0.216
-7.600E-07,-0.228
-7.500E-07,-0.156
-7.400E-07,-0.004
-7.300E-07,0.148
-7.200E-07,0.200
-7.100E-07,0.160
-7.000E-07,0.036
-6.900E-07,-0.100
-6.800E-07,-0.160
-6.700E-07,-0.144
-6.600E-07,-0.076
-6.500E-07,0.008
-6.400E-07,0.084
-6.300E-07,0.132
-6.200E-07,0.120
-6.100E-07,0.048
-6.000E-07,-0.040
-5.900E-07,-0.112
-5.800E-07,-0.088
-5.700E-07,-0.056
-5.600E-07,0.060
-5.500E-07,0.132
-5.400E-07,0.144
-5.300E-07,0.096
-5.200E-07,0.020
-5.100E-07,0.004
-5.000E-07,0.024
-4.900E-07,0.100
-4.800E-07,0.132
-4.700E-07,0.124
-4.600E-07,0.048
-4.500E-07,0.000
-4.400E-07,-0.044
-4.300E-07,0.036
-4.200E-07,0.088
-4.100E-07,0.152
-4.000E-07,0.132
-3.900E-07,0.060
-3.800E-07,-0.036
-3.700E-07,-0.064
-3.600E-07,-0.004
-3.500E-07,0.088
-3.400E-07,0.192
-3.300E-07,0.188
-3.200E-07,0.164
-3.100E-07,0.056
-3.000E-07,-0.016
-2.900E-07,-0.040
-2.800E-07,0.020
-2.700E-07,0.112
-2.600E-07,0.200
-2.500E-07,0.240
-2.400E-07,0.204
-2.300E-07,0.144
-2.200E-07,0.068
-2.100E-07,0.056
-2.000E-07,0.052
-1.900E-07,0.124
-1.800E-07,0.160
-1.700E-07,0.212
-1.600E-07,0.208
-1.500E-07,0.188
-1.400E-07,0.128
-1.300E-07,0.076
-1.200E-07,0.056
-1.100E-07,0.096
-1.000E-07,0.124
-9.000E-08,0.200
-8.000E-08,0.148
-7.000E-08,-0.072
-6.000E-08,-0.184
-5.000E-08,-0.508
-4.000E-08,-0.512
-3.000E-08,-0.512
-2.000E-08,-0.508
-1.000E-08,-0.508
0.000E+00,0.540
1.000E-08,0.536
2.000E-08,0.540
3.000E-08,-0.088
4.000E-08,-0.508
5.000E-08,-0.508
6.000E-08,-0.508
7.000E-08,0.372
8.000E-08,0.544
9.000E-08,0.544
1.000E-07,0.308
1.100E-07,-0.264
1.200E-07,-0.512
1.300E-07,-0.504
1.400E-07,-0.368
1.500E-07,-0.052
1.600E-07,0.264
1.700E-07,0.464
1.800E-07,0.344
1.900E-07,0.092
2.000E-07,-0.256
2.100E-07,-0.400
2.200E-07,-0.332
2.300E-07,-0.016
2.400E-07,0.228
2.500E-07,0.296
2.600E-07,0.196
2.700E-07,0.032
2.800E-07,-0.060
2.900E-07,-0.084
3.000E-07,-0.056
3.100E-07,-0.040
3.200E-07,0.044
3.300E-07,0.076
3.400E-07,0.124
3.500E-07,0.112
3.600E-07,0.112
3.700E-07,0.088
3.800E-07,0.068
3.900E-07,0.052
4.000E-07,-0.004
4.100E-07,-0.020
4.200E-07,-0.052
4.300E-07,0.008
4.400E-07,0.120
4.500E-07,0.244
4.600E-07,0.248
4.700E-07,0.224
4.800E-07,0.136
4.900E-07,0.036
5.000E-07,0.012
5.100E-07,0.064
5.200E-07,0.212
5.300E-07,0.348
5.400E-07,0.440
5.500E-07,0.404
5.600E-07,0.284
5.700E-07,0.100
5.800E-07,-0.080
5.900E-07,-0.208
6.000E-07,-0.192
6.100E-07,-0.276
6.200E-07,-0.380
6.300E-07,-0.448
6.400E-07,-0.508
6.500E-07,-0.508
6.600E-07,-0.508
6.700E-07,-0.200
6.800E-07,0.164
6.900E-07,0.300
7.000E-07,0.332
7.100E-07,0.092
7.200E-07,-0.132
7.300E-07,-0.196
7.400E-07,-0.068
7.500E-07,0.136
7.600E-07,0.328
7.700E-07,0.372
7.800E-07,0.296
7.900E-07,0.152
8.000E-07,-0.020
8.100E-07,-0.064
8.200E-07,-0.008
8.300E-07,0.136
8.400E-07,0.236
8.500E-07,0.300
8.600E-07,0.256
8.700E-07,0.176
8.800E-07,0.064
8.900E-07,-0.004
9.000E-07,0.016
9.100E-07,0.092
9.200E-07,0.176
9.300E-07,0.208
9.400E-07,0.164
9.500E-07,0.052
9.600E-07,-0.012
9.700E-07,-0.040
9.800E-07,0.004
9.900E-07,0.048
1.000E-06,0.032
1.010E-06,-0.060
1.020E-06,-0.144
1.030E-06,-0.232
1.040E-06,-0.188
1.050E-06,-0.004
1.060E-06,0.188
1.070E-06,0.272
1.080E-06,0.260
1.090E-06,0.124
1.100E-06,-0.024
1.110E-06,-0.024
1.120E-06,0.032
1.130E-06,0.176
1.140E-06,0.264
1.150E-06,0.320
1.160E-06,0.312
1.170E-06,0.204
1.180E-06,0.092
1.190E-06,0.056
1.200E-06,0.092
1.210E-06,0.188
1.220E-06,0.292
1.230E-06,0.336
1.240E-06,0.308
1.250E-06,0.224
1.260E-06,0.152
1.270E-06,0.124
1.280E-06,0.152
1.290E-06,0.224
1.300E-06,0.292
1.310E-06,0.320
1.320E-06,0.264
1.330E-06,0.160
1.340E-06,0.060
1.350E-06,0.024
1.360E-06,0.076
1.370E-06,0.212
1.380E-06,0.352
1.390E-06,0.360
1.400E-06,0.204
1.410E-06,-0.056
1.420E-06,-0.352
1.430E-06,-0.512
1.440E-06,-0.512
1.450E-06,-0.512
1.460E-06,-0.336
1.470E-06,0.216
1.480E-06,0.472
1.490E-06,0.396
1.500E-06,-0.072
1.510E-06,-0.512
1.520E-06,-0.508
1.530E-06,-0.508
1.540E-06,-0.408
1.550E-06,0.052
1.560E-06,0.128
1.570E-06,0.000
1.580E-06,-0.472
1.590E-06,-0.512
1.600E-06,-0.512
1.610E-06,-0.404
1.620E-06,-0.092
1.630E-06,0.248
1.640E-06,0.444
1.650E-06,0.368
1.660E-06,0.136
1.670E-06,-0.304
1.680E-06,-0.460
1.690E-06,-0.400
1.700E-06,-0.020
1.710E-06,0.308
1.720E-06,0.540
1.730E-06,0.504
1.740E-06,0.276
1.750E-06,-0.052
1.760E-06,-0.308
1.770E-06,-0.276
1.780E-06,-0.040
1.790E-06,0.268
1.800E-06,0.452
1.810E-06,0.468
1.820E-06,0.252
1.830E-06,-0.008
1.840E-06,-0.208
1.850E-06,-0.244
1.860E-06,-0.124
1.870E-06,0.124
1.880E-06,0.360
1.890E-06,0.468
1.900E-06,0.420
1.910E-06,0.236
1.920E-06,0.060
1.930E-06,-0.012
1.940E-06,0.048
1.950E-06,0.200
1.960E-06,0.364
1.970E-06,0.464
1.980E-06,0.448
1.990E-06,0.340
2.000E-06,0.168
2.010E-06,0.040
2.020E-06,0.024
2.030E-06,0.120
2.040E-06,0.252
2.050E-06,0.364
2.060E-06,0.372
2.070E-06,0.308
2.080E-06,0.192
2.090E-06,0.080
2.100E-06,0.036
2.110E-06,0.080
2.120E-06,0.204
2.130E-06,0.328
2.140E-06,0.388
2.150E-06,0.336
2.160E-06,0.220
2.170E-06,0.092
2.180E-06,0.020
2.190E-06,0.024
2.200E-06,0.096
2.210E-06,0.196
2.220E-06,0.268
2.230E-06,0.276
2.240E-06,0.224
2.250E-06,0.168
2.260E-06,0.128
2.270E-06,0.112
2.280E-06,0.136
2.290E-06,0.180
2.300E-06,0.216
2.310E-06,0.212
2.320E-06,0.188
2.330E-06,0.112
2.340E-06,0.008
2.350E-06,-0.112
2.360E-06,-0.192
2.370E-06,-0.232
2.380E-06,-0.200
2.390E-06,-0.168
2.400E-06,-0.124
2.410E-06,-0.140
2.420E-06,-0.152
2.430E-06,-0.192
2.440E-06,-0.076
2.450E-06,0.072
2.460E-06,0.112
2.470E-06,0.132
2.480E-06,0.248
2.490E-06,0.240
2.500E-06,0.204
2.510E-06,0.196
2.520E-06,0.188
2.530E-06,0.200
2.540E-06,0.160
2.550E-06,0.180
2.560E-06,0.224
2.570E-06,0.268
2.580E-06,0.272
2.590E-06,0.268
2.600E-06,0.220
2.610E-06,0.168
2.620E-06,0.164
2.630E-06,0.192
2.640E-06,0.232
2.650E-06,0.264
2.660E-06,0.272
2.670E-06,0.248
2.680E-06,0.240
2.690E-06,0.212
2.700E-06,0.208
2.710E-06,0.220
2.720E-06,0.244
2.730E-06,0.260
2.740E-06,0.268
2.750E-06,0.260
2.760E-06,0.240
2.770E-06,0.216
2.780E-06,0.196
2.790E-06,0.204
2.800E-06,0.224
2.810E-06,0.240
2.820E-06,0.244
2.830E-06,0.244
2.840E-06,0.228
2.850E-06,0.208
2.860E-06,0.196
2.870E-06,0.196
2.880E-06,0.212
2.890E-06,0.224
2.900E-06,0.224
2.910E-06,0.224
2.920E-06,0.212
2.930E-06,0.196
2.940E-06,0.196
2.950E-06,0.208
2.960E-06,0.208
2.970E-06,0.216
2.980E-06,0.220
2.990E-06,0.224
3.000E-06,0.220
3.010E-06,0.212
3.020E-06,0.216
3.030E-06,0.212
3.040E-06,0.216
3.050E-06,0.220
3.060E-06,0.216
3.070E-06,0.216
3.080E-06,0.224
3.090E-06,0.212
3.100E-06,0.212
3.110E-06,0.212
3.120E-06,0.216
3.130E-06,0.208
3.140E-06,0.220
3.150E-06,0.224
3.160E-06,0.228
3.170E-06,0.228
3.180E-06,0.220
3.190E-06,0.208
3.200E-06,0.200
3.210E-06,0.196
3.220E-06,0.196
3.230E-06,0.196
3.240E-06,0.200
3.250E-06,0.208
3.260E-06,0.212
3.270E-06,0.204
3.280E-06,0.196
3.290E-06,0.184
3.300E-06,0.168
3.310E-06,0.172
3.320E-06,0.192
3.330E-06,0.212
3.340E-06,0.220
3.350E-06,0.216
3.360E-06,0.208
3.370E-06,0.188
