mediciones/Mediciones filtradas (saque las feas)/5-15/1.2/WaveData47583.csv

#timebase=2000000(ps)
,#voltbase=200000(mv/100)
#size=4000
-8.400E-06,0.024
-8.390E-06,0.024
-8.380E-06,0.008
-8.370E-06,0.000
-8.360E-06,0.016
-8.350E-06,0.008
-8.340E-06,0.008
-8.330E-06,0.000
-8.320E-06,0.008
-8.310E-06,-0.008
-8.300E-06,-0.008
-8.290E-06,0.008
-8.280E-06,0.024
-8.270E-06,0.016
-8.260E-06,0.008
-8.250E-06,0.008
-8.240E-06,0.008
-8.230E-06,0.016
-8.220E-06,0.008
-8.210E-06,-0.008
-8.200E-06,0.000
-8.190E-06,0.008
-8.180E-06,0.000
-8.170E-06,0.000
-8.160E-06,0.016
-8.150E-06,-0.008
-8.140E-06,0.000
-8.130E-06,0.008
-8.120E-06,0.008
-8.110E-06,0.008
-8.100E-06,0.008
-8.090E-06,0.008
-8.080E-06,0.000
-8.070E-06,0.000
-8.060E-06,0.008
-8.050E-06,0.016
-8.040E-06,-0.008
-8.030E-06,0.000
-8.020E-06,0.024
-8.010E-06,0.000
-8.000E-06,0.000
-7.990E-06,0.016
-7.980E-06,0.016
-7.970E-06,0.008
-7.960E-06,0.000
-7.950E-06,0.008
-7.940E-06,0.008
-7.930E-06,0.008
-7.920E-06,0.000
-7.910E-06,0.000
-7.900E-06,0.016
-7.890E-06,0.000
-7.880E-06,-0.016
-7.870E-06,0.016
-7.860E-06,0.016
-7.850E-06,-0.008
-7.840E-06,0.000
-7.830E-06,0.008
-7.820E-06,0.008
-7.810E-06,-0.008
-7.800E-06,0.008
-7.790E-06,0.016
-7.780E-06,0.000
-7.770E-06,-0.016
-7.760E-06,-0.008
-7.750E-06,0.000
-7.740E-06,0.008
-7.730E-06,0.008
-7.720E-06,-0.008
-7.710E-06,0.008
-7.700E-06,0.000
-7.690E-06,-0.008
-7.680E-06,0.008
-7.670E-06,0.032
-7.660E-06,0.008
-7.650E-06,-0.008
-7.640E-06,0.016
-7.630E-06,0.000
-7.620E-06,-0.008
-7.610E-06,0.032
-7.600E-06,0.016
-7.590E-06,-0.008
-7.580E-06,0.000
-7.570E-06,0.008
-7.560E-06,-0.008
-7.550E-06,0.000
-7.540E-06,0.024
-7.530E-06,0.000
-7.520E-06,0.000
-7.510E-06,0.008
-7.500E-06,0.000
-7.490E-06,-0.008
-7.480E-06,0.000
-7.470E-06,0.008
-7.460E-06,0.008
-7.450E-06,0.008
-7.440E-06,0.008
-7.430E-06,-0.008
-7.420E-06,0.008
-7.410E-06,0.008
-7.400E-06,0.000
-7.390E-06,0.016
-7.380E-06,0.008
-7.370E-06,0.008
-7.360E-06,0.000
-7.350E-06,0.000
-7.340E-06,0.008
-7.330E-06,-0.008
-7.320E-06,0.008
-7.310E-06,0.008
-7.300E-06,-0.008
-7.290E-06,0.000
-7.280E-06,0.016
-7.270E-06,-0.008
-7.260E-06,0.000
-7.250E-06,0.000
-7.240E-06,0.008
-7.230E-06,0.000
-7.220E-06,0.000
-7.210E-06,0.024
-7.200E-06,0.008
-7.190E-06,-0.008
-7.180E-06,0.000
-7.170E-06,-0.008
-7.160E-06,-0.008
-7.150E-06,0.008
-7.140E-06,-0.008
-7.130E-06,0.000
-7.120E-06,-0.008
-7.110E-06,-0.008
-7.100E-06,0.008
-7.090E-06,0.000
-7.080E-06,0.016
-7.070E-06,0.008
-7.060E-06,0.008
-7.050E-06,0.000
-7.040E-06,-0.008
-7.030E-06,0.000
-7.020E-06,0.024
-7.010E-06,0.008
-7.000E-06,-0.008
-6.990E-06,-0.008
-6.980E-06,0.000
-6.970E-06,0.000
-6.960E-06,0.000
-6.950E-06,0.008
-6.940E-06,0.016
-6.930E-06,0.000
-6.920E-06,-0.008
-6.910E-06,0.000
-6.900E-06,-0.008
-6.890E-06,-0.008
-6.880E-06,0.000
-6.870E-06,0.016
-6.860E-06,0.000
-6.850E-06,0.000
-6.840E-06,0.024
-6.830E-06,0.016
-6.820E-06,0.000
-6.810E-06,0.016
-6.800E-06,0.016
-6.790E-06,0.000
-6.780E-06,0.000
-6.770E-06,0.032
-6.760E-06,0.008
-6.750E-06,0.000
-6.740E-06,0.024
-6.730E-06,0.008
-6.720E-06,-0.016
-6.710E-06,0.008
-6.700E-06,0.024
-6.690E-06,0.000
-6.680E-06,-0.008
-6.670E-06,0.000
-6.660E-06,-0.008
-6.650E-06,0.000
-6.640E-06,0.024
-6.630E-06,0.008
-6.620E-06,-0.008
-6.610E-06,0.000
-6.600E-06,0.024
-6.590E-06,-0.008
-6.580E-06,-0.008
-6.570E-06,0.016
-6.560E-06,0.016
-6.550E-06,0.000
-6.540E-06,0.000
-6.530E-06,0.000
-6.520E-06,0.000
-6.510E-06,0.016
-6.500E-06,0.000
-6.490E-06,0.000
-6.480E-06,0.000
-6.470E-06,0.016
-6.460E-06,0.016
-6.450E-06,-0.008
-6.440E-06,-0.008
-6.430E-06,0.016
-6.420E-06,-0.008
-6.410E-06,-0.008
-6.400E-06,0.000
-6.390E-06,0.000
-6.380E-06,-0.008
-6.370E-06,0.000
-6.360E-06,0.008
-6.350E-06,0.000
-6.340E-06,-0.008
-6.330E-06,0.000
-6.320E-06,0.008
-6.310E-06,-0.016
-6.300E-06,-0.008
-6.290E-06,-0.008
-6.280E-06,0.000
-6.270E-06,-0.008
-6.260E-06,0.000
-6.250E-06,0.000
-6.240E-06,0.000
-6.230E-06,0.008
-6.220E-06,0.008
-6.210E-06,0.008
-6.200E-06,0.000
-6.190E-06,0.016
-6.180E-06,0.000
-6.170E-06,-0.008
-6.160E-06,0.000
-6.150E-06,0.008
-6.140E-06,0.008
-6.130E-06,-0.008
-6.120E-06,0.000
-6.110E-06,0.000
-6.100E-06,0.000
-6.090E-06,0.000
-6.080E-06,0.008
-6.070E-06,0.024
-6.060E-06,0.008
-6.050E-06,-0.008
-6.040E-06,-0.008
-6.030E-06,0.000
-6.020E-06,-0.008
-6.010E-06,0.016
-6.000E-06,0.024
-5.990E-06,0.000
-5.980E-06,-0.008
-5.970E-06,0.008
-5.960E-06,0.000
-5.950E-06,-0.008
-5.940E-06,0.000
-5.930E-06,-0.016
-5.920E-06,-0.040
-5.910E-06,-0.040
-5.900E-06,-0.008
-5.890E-06,-0.016
-5.880E-06,-0.024
-5.870E-06,-0.024
-5.860E-06,-0.024
-5.850E-06,-0.040
-5.840E-06,-0.040
-5.830E-06,0.000
-5.820E-06,0.000
-5.810E-06,-0.024
-5.800E-06,-0.008
-5.790E-06,-0.008
-5.780E-06,-0.024
-5.770E-06,-0.008
-5.760E-06,0.000
-5.750E-06,0.008
-5.740E-06,-0.008
-5.730E-06,0.000
-5.720E-06,0.000
-5.710E-06,0.008
-5.700E-06,-0.008
-5.690E-06,0.000
-5.680E-06,0.016
-5.670E-06,0.000
-5.660E-06,0.000
-5.650E-06,-0.016
-5.640E-06,0.008
-5.630E-06,0.000
-5.620E-06,0.000
-5.610E-06,0.008
-5.600E-06,0.016
-5.590E-06,0.000
-5.580E-06,0.000
-5.570E-06,0.000
-5.560E-06,-0.008
-5.550E-06,0.000
-5.540E-06,0.000
-5.530E-06,0.008
-5.520E-06,-0.008
-5.510E-06,0.000
-5.500E-06,0.000
-5.490E-06,0.000
-5.480E-06,0.008
-5.470E-06,0.008
-5.460E-06,0.000
-5.450E-06,-0.008
-5.440E-06,-0.024
-5.430E-06,-0.024
-5.420E-06,-0.016
-5.410E-06,-0.024
-5.400E-06,-0.032
-5.390E-06,-0.024
-5.380E-06,-0.024
-5.370E-06,-0.032
-5.360E-06,-0.024
-5.350E-06,-0.032
-5.340E-06,-0.024
-5.330E-06,-0.024
-5.320E-06,-0.040
-5.310E-06,-0.024
-5.300E-06,-0.008
-5.290E-06,-0.024
-5.280E-06,-0.016
-5.270E-06,-0.008
-5.260E-06,-0.008
-5.250E-06,-0.024
-5.240E-06,-0.024
-5.230E-06,-0.016
-5.220E-06,-0.016
-5.210E-06,-0.032
-5.200E-06,-0.016
-5.190E-06,-0.008
-5.180E-06,-0.024
-5.170E-06,-0.032
-5.160E-06,-0.016
-5.150E-06,-0.016
-5.140E-06,-0.016
-5.130E-06,0.000
-5.120E-06,0.000
-5.110E-06,-0.008
-5.100E-06,-0.016
-5.090E-06,-0.008
-5.080E-06,-0.016
-5.070E-06,-0.024
-5.060E-06,-0.024
-5.050E-06,-0.032
-5.040E-06,-0.040
-5.030E-06,-0.040
-5.020E-06,-0.024
-5.010E-06,-0.032
-5.000E-06,-0.024
-4.990E-06,-0.040
-4.980E-06,-0.032
-4.970E-06,-0.032
-4.960E-06,-0.032
-4.950E-06,-0.048
-4.940E-06,-0.040
-4.930E-06,-0.024
-4.920E-06,-0.040
-4.910E-06,-0.048
-4.900E-06,-0.024
-4.890E-06,-0.032
-4.880E-06,-0.040
-4.870E-06,-0.040
-4.860E-06,-0.016
-4.850E-06,-0.040
-4.840E-06,-0.032
-4.830E-06,-0.024
-4.820E-06,-0.024
-4.810E-06,-0.032
-4.800E-06,-0.040
-4.790E-06,-0.016
-4.780E-06,-0.024
-4.770E-06,-0.024
-4.760E-06,-0.032
-4.750E-06,-0.032
-4.740E-06,-0.032
-4.730E-06,-0.024
-4.720E-06,-0.024
-4.710E-06,-0.016
-4.700E-06,-0.024
-4.690E-06,-0.040
-4.680E-06,-0.024
-4.670E-06,-0.024
-4.660E-06,-0.024
-4.650E-06,-0.016
-4.640E-06,0.000
-4.630E-06,-0.016
-4.620E-06,-0.032
-4.610E-06,-0.032
-4.600E-06,-0.008
-4.590E-06,-0.016
-4.580E-06,-0.024
-4.570E-06,-0.016
-4.560E-06,-0.016
-4.550E-06,-0.024
-4.540E-06,-0.008
-4.530E-06,-0.008
-4.520E-06,0.000
-4.510E-06,-0.024
-4.500E-06,-0.016
-4.490E-06,-0.016
-4.480E-06,-0.024
-4.470E-06,-0.008
-4.460E-06,0.000
-4.450E-06,0.000
-4.440E-06,0.000
-4.430E-06,0.000
-4.420E-06,-0.016
-4.410E-06,-0.016
-4.400E-06,-0.024
-4.390E-06,-0.040
-4.380E-06,-0.048
-4.370E-06,-0.040
-4.360E-06,-0.040
-4.350E-06,-0.072
-4.340E-06,-0.064
-4.330E-06,-0.064
-4.320E-06,-0.056
-4.310E-06,-0.048
-4.300E-06,-0.040
-4.290E-06,-0.032
-4.280E-06,-0.048
-4.270E-06,-0.032
-4.260E-06,-0.032
-4.250E-06,-0.040
-4.240E-06,-0.056
-4.230E-06,-0.064
-4.220E-06,-0.056
-4.210E-06,-0.072
-4.200E-06,-0.080
-4.190E-06,-0.064
-4.180E-06,-0.056
-4.170E-06,-0.056
-4.160E-06,-0.056
-4.150E-06,-0.048
-4.140E-06,-0.040
-4.130E-06,-0.040
-4.120E-06,-0.048
-4.110E-06,-0.040
-4.100E-06,-0.032
-4.090E-06,-0.032
-4.080E-06,-0.048
-4.070E-06,-0.048
-4.060E-06,-0.048
-4.050E-06,-0.064
-4.040E-06,-0.072
-4.030E-06,-0.040
-4.020E-06,-0.072
-4.010E-06,-0.064
-4.000E-06,-0.088
-3.990E-06,-0.088
-3.980E-06,-0.088
-3.970E-06,-0.096
-3.960E-06,-0.088
-3.950E-06,-0.112
-3.940E-06,-0.112
-3.930E-06,-0.112
-3.920E-06,-0.120
-3.910E-06,-0.128
-3.900E-06,-0.104
-3.890E-06,-0.104
-3.880E-06,-0.104
-3.870E-06,-0.104
-3.860E-06,-0.112
-3.850E-06,-0.088
-3.840E-06,-0.088
-3.830E-06,-0.080
-3.820E-06,-0.064
-3.810E-06,-0.072
-3.800E-06,-0.056
-3.790E-06,-0.056
-3.780E-06,-0.040
-3.770E-06,-0.040
-3.760E-06,-0.040
-3.750E-06,-0.032
-3.740E-06,-0.032
-3.730E-06,-0.056
-3.720E-06,-0.056
-3.710E-06,-0.056
-3.700E-06,-0.048
-3.690E-06,-0.040
-3.680E-06,-0.032
-3.670E-06,-0.024
-3.660E-06,-0.040
-3.650E-06,-0.024
-3.640E-06,-0.024
-3.630E-06,-0.008
-3.620E-06,-0.024
-3.610E-06,-0.048
-3.600E-06,-0.024
-3.590E-06,-0.032
-3.580E-06,-0.048
-3.570E-06,-0.024
-3.560E-06,-0.008
-3.550E-06,-0.032
-3.540E-06,-0.048
-3.530E-06,-0.040
-3.520E-06,-0.064
-3.510E-06,-0.072
-3.500E-06,-0.072
-3.490E-06,-0.040
-3.480E-06,-0.072
-3.470E-06,-0.072
-3.460E-06,-0.064
-3.450E-06,-0.072
-3.440E-06,-0.080
-3.430E-06,-0.080
-3.420E-06,-0.088
-3.410E-06,-0.096
-3.400E-06,-0.104
-3.390E-06,-0.112
-3.380E-06,-0.120
-3.370E-06,-0.136
-3.360E-06,-0.128
-3.350E-06,-0.128
-3.340E-06,-0.120
-3.330E-06,-0.112
-3.320E-06,-0.112
-3.310E-06,-0.120
-3.300E-06,-0.128
-3.290E-06,-0.112
-3.280E-06,-0.136
-3.270E-06,-0.152
-3.260E-06,-0.128
-3.250E-06,-0.160
-3.240E-06,-0.200
-3.230E-06,-0.200
-3.220E-06,-0.176
-3.210E-06,-0.208
-3.200E-06,-0.200
-3.190E-06,-0.192
-3.180E-06,-0.216
-3.170E-06,-0.240
-3.160E-06,-0.248
-3.150E-06,-0.232
-3.140E-06,-0.264
-3.130E-06,-0.264
-3.120E-06,-0.256
-3.110E-06,-0.296
-3.100E-06,-0.320
-3.090E-06,-0.312
-3.080E-06,-0.296
-3.070E-06,-0.320
-3.060E-06,-0.328
-3.050E-06,-0.320
-3.040E-06,-0.312
-3.030E-06,-0.328
-3.020E-06,-0.312
-3.010E-06,-0.336
-3.000E-06,-0.336
-2.990E-06,-0.352
-2.980E-06,-0.368
-2.970E-06,-0.376
-2.960E-06,-0.344
-2.950E-06,-0.376
-2.940E-06,-0.416
-2.930E-06,-0.448
-2.920E-06,-0.488
-2.910E-06,-0.512
-2.900E-06,-0.528
-2.890E-06,-0.520
-2.880E-06,-0.512
-2.870E-06,-0.520
-2.860E-06,-0.496
-2.850E-06,-0.472
-2.840E-06,-0.432
-2.830E-06,-0.384
-2.820E-06,-0.336
-2.810E-06,-0.320
-2.800E-06,-0.288
-2.790E-06,-0.272
-2.780E-06,-0.272
-2.770E-06,-0.272
-2.760E-06,-0.264
-2.750E-06,-0.248
-2.740E-06,-0.232
-2.730E-06,-0.200
-2.720E-06,-0.216
-2.710E-06,-0.192
-2.700E-06,-0.168
-2.690E-06,-0.144
-2.680E-06,-0.160
-2.670E-06,-0.128
-2.660E-06,-0.112
-2.650E-06,-0.128
-2.640E-06,-0.128
-2.630E-06,-0.112
-2.620E-06,-0.096
-2.610E-06,-0.096
-2.600E-06,-0.096
-2.590E-06,-0.104
-2.580E-06,-0.096
-2.570E-06,-0.088
-2.560E-06,-0.072
-2.550E-06,-0.072
-2.540E-06,-0.064
-2.530E-06,-0.064
-2.520E-06,-0.088
-2.510E-06,-0.096
-2.500E-06,-0.088
-2.490E-06,-0.112
-2.480E-06,-0.192
-2.470E-06,-0.232
-2.460E-06,-0.224
-2.450E-06,-0.240
-2.440E-06,-0.248
-2.430E-06,-0.240
-2.420E-06,-0.264
-2.410E-06,-0.312
-2.400E-06,-0.328
-2.390E-06,-0.344
-2.380E-06,-0.344
-2.370E-06,-0.304
-2.360E-06,-0.304
-2.350E-06,-0.336
-2.340E-06,-0.352
-2.330E-06,-0.368
-2.320E-06,-0.392
-2.310E-06,-0.416
-2.300E-06,-0.400
-2.290E-06,-0.416
-2.280E-06,-0.448
-2.270E-06,-0.448
-2.260E-06,-0.472
-2.250E-06,-0.504
-2.240E-06,-0.512
-2.230E-06,-0.520
-2.220E-06,-0.560
-2.210E-06,-0.568
-2.200E-06,-0.568
-2.190E-06,-0.552
-2.180E-06,-0.560
-2.170E-06,-0.528
-2.160E-06,-0.504
-2.150E-06,-0.504
-2.140E-06,-0.512
-2.130E-06,-0.520
-2.120E-06,-0.512
-2.110E-06,-0.488
-2.100E-06,-0.472
-2.090E-06,-0.496
-2.080E-06,-0.520
-2.070E-06,-0.544
-2.060E-06,-0.512
-2.050E-06,-0.528
-2.040E-06,-0.488
-2.030E-06,-0.448
-2.020E-06,-0.424
-2.010E-06,-0.432
-2.000E-06,-0.424
-1.990E-06,-0.384
-1.980E-06,-0.360
-1.970E-06,-0.360
-1.960E-06,-0.352
-1.950E-06,-0.328
-1.940E-06,-0.336
-1.930E-06,-0.320
-1.920E-06,-0.296
-1.910E-06,-0.288
-1.900E-06,-0.280
-1.890E-06,-0.296
-1.880E-06,-0.280
-1.870E-06,-0.328
-1.860E-06,-0.368
-1.850E-06,-0.400
-1.840E-06,-0.416
-1.830E-06,-0.416
-1.820E-06,-0.440
-1.810E-06,-0.480
-1.800E-06,-0.536
-1.790E-06,-0.608
-1.780E-06,-0.624
-1.770E-06,-0.632
-1.760E-06,-0.688
-1.750E-06,-0.696
-1.740E-06,-0.736
-1.730E-06,-0.752
-1.720E-06,-0.784
-1.710E-06,-0.768
-1.700E-06,-0.744
-1.690E-06,-0.752
-1.680E-06,-0.792
-1.670E-06,-0.864
-1.660E-06,-0.912
-1.650E-06,-0.952
-1.640E-06,-0.984
-1.630E-06,-1.000
-1.620E-06,-1.024
-1.610E-06,-1.048
-1.600E-06,-1.040
-1.590E-06,-1.048
-1.580E-06,-1.048
-1.570E-06,-1.048
-1.560E-06,-1.048
-1.550E-06,-1.032
-1.540E-06,-1.032
-1.530E-06,-1.040
-1.520E-06,-1.048
-1.510E-06,-1.032
-1.500E-06,-1.040
-1.490E-06,-1.040
-1.480E-06,-1.048
-1.470E-06,-1.040
-1.460E-06,-1.048
-1.450E-06,-1.032
-1.440E-06,-1.016
-1.430E-06,-1.008
-1.420E-06,-1.000
-1.410E-06,-0.992
-1.400E-06,-0.976
-1.390E-06,-0.968
-1.380E-06,-0.968
-1.370E-06,-0.992
-1.360E-06,-1.032
-1.350E-06,-1.016
-1.340E-06,-1.024
-1.330E-06,-1.032
-1.320E-06,-1.008
-1.310E-06,-0.936
-1.300E-06,-0.936
-1.290E-06,-0.976
-1.280E-06,-0.984
-1.270E-06,-1.000
-1.260E-06,-1.000
-1.250E-06,-0.992
-1.240E-06,-1.016
-1.230E-06,-0.968
-1.220E-06,-1.008
-1.210E-06,-1.040
-1.200E-06,-1.032
-1.190E-06,-1.040
-1.180E-06,-1.048
-1.170E-06,-1.040
-1.160E-06,-1.032
-1.150E-06,-1.040
-1.140E-06,-1.032
-1.130E-06,-1.040
-1.120E-06,-1.032
-1.110E-06,-1.032
-1.100E-06,-1.040
-1.090E-06,-1.032
-1.080E-06,-1.040
-1.070E-06,-1.048
-1.060E-06,-1.040
-1.050E-06,-1.032
-1.040E-06,-1.032
-1.030E-06,-1.040
-1.020E-06,-1.032
-1.010E-06,-1.040
-1.000E-06,-1.032
-9.900E-07,-1.040
-9.800E-07,-1.040
-9.700E-07,-1.048
-9.600E-07,-1.040
-9.500E-07,-1.040
-9.400E-07,-1.040
-9.300E-07,-1.048
-9.200E-07,-1.040
-9.100E-07,-1.048
-9.000E-07,-1.048
-8.900E-07,-1.048
-8.800E-07,-1.048
-8.700E-07,-1.048
-8.600E-07,-1.032
-8.500E-07,-1.032
-8.400E-07,-1.040
-8.300E-07,-1.048
-8.200E-07,-1.048
-8.100E-07,-1.032
-8.000E-07,-1.040
-7.900E-07,-1.048
-7.800E-07,-1.040
-7.700E-07,-1.032
-7.600E-07,-1.040
-7.500E-07,-1.048
-7.400E-07,-1.040
-7.300E-07,-1.032
-7.200E-07,-1.040
-7.100E-07,-1.032
-7.000E-07,-1.040
-6.900E-07,-1.048
-6.800E-07,-1.040
-6.700E-07,-1.032
-6.600E-07,-1.040
-6.500E-07,-1.040
-6.400E-07,-1.040
-6.300E-07,-1.048
-6.200E-07,-1.040
-6.100E-07,-1.032
-6.000E-07,-1.032
-5.900E-07,-1.040
-5.800E-07,-1.032
-5.700E-07,-1.040
-5.600E-07,-1.040
-5.500E-07,-1.040
-5.400E-07,-1.048
-5.300E-07,-1.040
-5.200E-07,-1.032
-5.100E-07,-1.032
-5.000E-07,-1.040
-4.900E-07,-1.048
-4.800E-07,-1.032
-4.700E-07,-1.040
-4.600E-07,-1.048
-4.500E-07,-1.040
-4.400E-07,-1.048
-4.300E-07,-1.032
-4.200E-07,-1.032
-4.100E-07,-1.040
-4.000E-07,-1.048
-3.900E-07,-1.032
-3.800E-07,-1.032
-3.700E-07,-1.040
-3.600E-07,-1.032
-3.500E-07,-1.032
-3.400E-07,-1.040
-3.300E-07,-1.032
-3.200E-07,-1.040
-3.100E-07,-1.032
-3.000E-07,-1.040
-2.900E-07,-1.048
-2.800E-07,-1.048
-2.700E-07,-1.048
-2.600E-07,-1.048
-2.500E-07,-1.032
-2.400E-07,-1.040
-2.300E-07,-1.048
-2.200E-07,-1.040
-2.100E-07,-1.032
-2.000E-07,-1.040
-1.900E-07,-1.048
-1.800E-07,-1.040
-1.700E-07,-1.040
-1.600E-07,-1.048
-1.500E-07,-1.040
-1.400E-07,-1.032
-1.300E-07,-1.040
-1.200E-07,-1.048
-1.100E-07,-1.032
-1.000E-07,-1.040
-9.000E-08,-1.040
-8.000E-08,-1.040
-7.000E-08,-1.048
-6.000E-08,-1.040
-5.000E-08,-1.040
-4.000E-08,-1.040
-3.000E-08,-1.048
-2.000E-08,0.144
-1.000E-08,0.776
0.000E+00,0.016
1.000E-08,-1.040
2.000E-08,-1.000
3.000E-08,0.152
4.000E-08,-0.904
5.000E-08,-0.792
6.000E-08,-0.384
7.000E-08,-1.040
8.000E-08,-1.048
9.000E-08,-1.048
1.000E-07,-1.048
1.100E-07,-1.032
1.200E-07,-1.040
1.300E-07,-1.040
1.400E-07,-1.040
1.500E-07,-1.040
1.600E-07,-1.040
1.700E-07,-1.040
1.800E-07,-1.048
1.900E-07,-1.040
2.000E-07,-1.048
2.100E-07,-1.048
2.200E-07,-1.048
2.300E-07,-1.048
2.400E-07,-1.032
2.500E-07,-1.032
2.600E-07,-1.040
2.700E-07,-1.032
2.800E-07,-0.728
2.900E-07,-0.648
3.000E-07,-0.736
3.100E-07,-0.608
3.200E-07,-0.752
3.300E-07,-0.816
3.400E-07,-0.608
3.500E-07,-0.456
3.600E-07,-0.640
3.700E-07,-0.800
3.800E-07,-0.760
3.900E-07,-1.032
4.000E-07,-1.040
4.100E-07,-1.040
4.200E-07,-1.040
4.300E-07,-1.048
4.400E-07,-1.040
4.500E-07,-1.040
4.600E-07,-1.040
4.700E-07,-1.048
4.800E-07,-1.040
4.900E-07,-0.976
5.000E-07,-0.832
5.100E-07,-0.744
5.200E-07,-0.704
5.300E-07,-0.696
5.400E-07,-0.824
5.500E-07,-0.976
5.600E-07,-1.048
5.700E-07,-1.048
5.800E-07,-1.048
5.900E-07,-1.032
6.000E-07,-1.032
6.100E-07,-1.040
6.200E-07,-1.032
6.300E-07,-1.040
6.400E-07,-1.032
6.500E-07,-1.040
6.600E-07,-1.040
6.700E-07,1.080
6.800E-07,1.080
6.900E-07,1.088
7.000E-07,0.936
7.100E-07,1.072
7.200E-07,0.184
7.300E-07,-1.048
7.400E-07,-0.336
7.500E-07,0.320
7.600E-07,-1.040
7.700E-07,-1.048
7.800E-07,-1.040
7.900E-07,-1.040
8.000E-07,-1.040
8.100E-07,-1.048
8.200E-07,-1.040
8.300E-07,-1.032
8.400E-07,-1.040
8.500E-07,-1.048
8.600E-07,-1.040
8.700E-07,-1.032
8.800E-07,-1.040
8.900E-07,-1.048
9.000E-07,-1.048
9.100E-07,-1.048
9.200E-07,-1.048
9.300E-07,-1.032
9.400E-07,-1.032
9.500E-07,-1.040
9.600E-07,-1.040
9.700E-07,-1.048
9.800E-07,-1.040
9.900E-07,-1.032
1.000E-06,-1.040
1.010E-06,-1.040
1.020E-06,-1.048
1.030E-06,-1.040
1.040E-06,-1.032
1.050E-06,-1.040
1.060E-06,-1.040
1.070E-06,-1.040
1.080E-06,-1.048
1.090E-06,-1.040
1.100E-06,-1.032
1.110E-06,-1.040
1.120E-06,-1.048
1.130E-06,-1.040
1.140E-06,-1.032
1.150E-06,-1.040
1.160E-06,-1.032
1.170E-06,-1.040
1.180E-06,-1.032
1.190E-06,-1.032
1.200E-06,-1.040
1.210E-06,-1.032
1.220E-06,-1.040
1.230E-06,-1.040
1.240E-06,-1.048
1.250E-06,-1.040
1.260E-06,-1.048
1.270E-06,-1.032
1.280E-06,-1.032
1.290E-06,-1.040
1.300E-06,-1.032
1.310E-06,-0.984
1.320E-06,-0.520
1.330E-06,-0.896
1.340E-06,-0.008
1.350E-06,0.792
1.360E-06,-0.112
1.370E-06,-0.728
1.380E-06,-0.624
1.390E-06,-0.840
1.400E-06,-1.040
1.410E-06,-1.032
1.420E-06,-1.040
1.430E-06,-1.040
1.440E-06,-1.040
1.450E-06,-1.040
1.460E-06,-1.040
1.470E-06,-1.048
1.480E-06,-1.040
1.490E-06,-1.040
1.500E-06,-1.040
1.510E-06,-1.048
1.520E-06,-1.040
1.530E-06,-1.032
1.540E-06,-1.040
1.550E-06,-1.048
1.560E-06,-1.048
1.570E-06,-1.032
1.580E-06,-1.032
1.590E-06,-1.040
1.600E-06,-1.032
1.610E-06,-1.040
1.620E-06,-1.016
1.630E-06,-0.456
1.640E-06,0.160
1.650E-06,0.448
1.660E-06,0.752
1.670E-06,0.880
1.680E-06,0.848
1.690E-06,0.728
1.700E-06,0.848
1.710E-06,0.968
1.720E-06,0.872
1.730E-06,0.728
1.740E-06,0.616
1.750E-06,0.248
1.760E-06,-0.248
1.770E-06,-0.536
1.780E-06,-0.712
1.790E-06,-0.896
1.800E-06,-1.000
1.810E-06,-1.032
1.820E-06,-1.048
1.830E-06,-1.040
1.840E-06,-1.048
1.850E-06,-1.032
1.860E-06,-0.952
1.870E-06,-0.768
1.880E-06,-0.544
1.890E-06,-0.408
1.900E-06,-0.392
1.910E-06,-0.352
1.920E-06,-0.256
1.930E-06,-0.160
1.940E-06,-0.064
1.950E-06,0.136
1.960E-06,0.224
1.970E-06,0.200
1.980E-06,0.208
1.990E-06,0.232
2.000E-06,0.128
2.010E-06,-0.064
2.020E-06,-0.128
2.030E-06,-0.144
2.040E-06,-0.112
2.050E-06,0.096
2.060E-06,0.552
2.070E-06,0.928
2.080E-06,1.064
2.090E-06,1.008
2.100E-06,0.696
2.110E-06,0.368
2.120E-06,0.152
2.130E-06,-0.248
2.140E-06,-0.608
2.150E-06,-0.776
2.160E-06,-0.584
2.170E-06,-0.768
2.180E-06,-0.848
2.190E-06,-0.768
2.200E-06,-0.832
2.210E-06,-0.952
2.220E-06,-1.024
2.230E-06,-0.960
2.240E-06,-0.920
2.250E-06,-0.536
2.260E-06,-0.176
2.270E-06,0.240
2.280E-06,0.608
2.290E-06,1.072
2.300E-06,1.080
2.310E-06,1.088
2.320E-06,1.088
2.330E-06,0.648
2.340E-06,0.512
2.350E-06,0.344
2.360E-06,-0.168
2.370E-06,-0.512
2.380E-06,-0.800
2.390E-06,-1.040
2.400E-06,-1.048
2.410E-06,-1.040
2.420E-06,-1.032
2.430E-06,-1.032
2.440E-06,-1.040
2.450E-06,-1.032
2.460E-06,-1.040
2.470E-06,-1.040
2.480E-06,-1.040
2.490E-06,-1.048
2.500E-06,-1.040
2.510E-06,-1.048
2.520E-06,-1.032
2.530E-06,-1.032
2.540E-06,-1.040
2.550E-06,-1.048
2.560E-06,-1.048
2.570E-06,-1.032
2.580E-06,-1.032
2.590E-06,-1.040
2.600E-06,-1.032
2.610E-06,-1.040
2.620E-06,-1.040
2.630E-06,-1.040
2.640E-06,-1.048
2.650E-06,-0.944
2.660E-06,-0.632
2.670E-06,-0.360
2.680E-06,-0.176
2.690E-06,0.016
2.700E-06,0.160
2.710E-06,0.192
2.720E-06,0.168
2.730E-06,0.144
2.740E-06,0.088
2.750E-06,-0.032
2.760E-06,-0.120
2.770E-06,-0.168
2.780E-06,-0.240
2.790E-06,-0.304
2.800E-06,-0.328
2.810E-06,-0.344
2.820E-06,-0.360
2.830E-06,-0.344
2.840E-06,-0.288
2.850E-06,-0.272
2.860E-06,-0.272
2.870E-06,-0.272
2.880E-06,-0.272
2.890E-06,-0.272
2.900E-06,-0.264
2.910E-06,-0.248
2.920E-06,-0.216
2.930E-06,-0.200
2.940E-06,-0.168
2.950E-06,-0.128
2.960E-06,-0.104
2.970E-06,-0.096
2.980E-06,-0.088
2.990E-06,-0.080
