mediciones/Mediciones filtradas (saque las feas)/5-15/0/WaveData4639.csv

#timebase=2000000(ps)
,#voltbase=1000000(mv/100)
#size=4000
-8.400E-06,0.000
-8.390E-06,-0.040
-8.380E-06,-0.080
-8.370E-06,-0.040
-8.360E-06,0.000
-8.350E-06,0.000
-8.340E-06,-0.040
-8.330E-06,0.000
-8.320E-06,0.000
-8.310E-06,0.040
-8.300E-06,0.040
-8.290E-06,0.080
-8.280E-06,0.040
-8.270E-06,0.120
-8.260E-06,0.120
-8.250E-06,0.200
-8.240E-06,0.160
-8.230E-06,0.160
-8.220E-06,0.160
-8.210E-06,0.200
-8.200E-06,0.160
-8.190E-06,0.160
-8.180E-06,0.160
-8.170E-06,0.160
-8.160E-06,0.200
-8.150E-06,0.200
-8.140E-06,0.160
-8.130E-06,0.080
-8.120E-06,0.080
-8.110E-06,0.080
-8.100E-06,0.080
-8.090E-06,0.080
-8.080E-06,0.040
-8.070E-06,0.080
-8.060E-06,0.080
-8.050E-06,0.120
-8.040E-06,0.040
-8.030E-06,0.000
-8.020E-06,0.040
-8.010E-06,-0.040
-8.000E-06,0.000
-7.990E-06,-0.040
-7.980E-06,-0.040
-7.970E-06,-0.080
-7.960E-06,-0.120
-7.950E-06,-0.160
-7.940E-06,-0.040
-7.930E-06,-0.080
-7.920E-06,-0.080
-7.910E-06,-0.080
-7.900E-06,-0.080
-7.890E-06,-0.040
-7.880E-06,-0.080
-7.870E-06,0.000
-7.860E-06,-0.040
-7.850E-06,0.000
-7.840E-06,0.000
-7.830E-06,0.000
-7.820E-06,-0.040
-7.810E-06,0.000
-7.800E-06,0.040
-7.790E-06,0.000
-7.780E-06,0.040
-7.770E-06,0.040
-7.760E-06,0.040
-7.750E-06,0.040
-7.740E-06,0.040
-7.730E-06,0.000
-7.720E-06,0.000
-7.710E-06,0.080
-7.700E-06,0.080
-7.690E-06,0.120
-7.680E-06,0.080
-7.670E-06,0.120
-7.660E-06,0.040
-7.650E-06,0.080
-7.640E-06,0.080
-7.630E-06,0.080
-7.620E-06,0.120
-7.610E-06,0.080
-7.600E-06,0.080
-7.590E-06,0.080
-7.580E-06,0.000
-7.570E-06,0.040
-7.560E-06,0.080
-7.550E-06,0.040
-7.540E-06,0.080
-7.530E-06,0.080
-7.520E-06,0.080
-7.510E-06,0.120
-7.500E-06,0.040
-7.490E-06,0.080
-7.480E-06,0.080
-7.470E-06,0.080
-7.460E-06,0.040
-7.450E-06,0.000
-7.440E-06,-0.040
-7.430E-06,-0.040
-7.420E-06,-0.040
-7.410E-06,-0.040
-7.400E-06,-0.080
-7.390E-06,-0.040
-7.380E-06,-0.080
-7.370E-06,-0.080
-7.360E-06,-0.160
-7.350E-06,-0.080
-7.340E-06,-0.080
-7.330E-06,-0.200
-7.320E-06,-0.240
-7.310E-06,-0.240
-7.300E-06,-0.240
-7.290E-06,-0.320
-7.280E-06,-0.360
-7.270E-06,-0.440
-7.260E-06,-0.520
-7.250E-06,-0.520
-7.240E-06,-0.520
-7.230E-06,-0.400
-7.220E-06,-0.440
-7.210E-06,-0.440
-7.200E-06,-0.440
-7.190E-06,-0.400
-7.180E-06,-0.360
-7.170E-06,-0.320
-7.160E-06,-0.320
-7.150E-06,-0.360
-7.140E-06,-0.360
-7.130E-06,-0.320
-7.120E-06,-0.320
-7.110E-06,-0.320
-7.100E-06,-0.320
-7.090E-06,-0.360
-7.080E-06,-0.400
-7.070E-06,-0.320
-7.060E-06,-0.160
-7.050E-06,-0.120
-7.040E-06,-0.040
-7.030E-06,-0.040
-7.020E-06,-0.120
-7.010E-06,-0.120
-7.000E-06,-0.120
-6.990E-06,-0.080
-6.980E-06,-0.080
-6.970E-06,-0.120
-6.960E-06,-0.200
-6.950E-06,-0.200
-6.940E-06,-0.120
-6.930E-06,-0.120
-6.920E-06,-0.120
-6.910E-06,-0.080
-6.900E-06,-0.080
-6.890E-06,-0.040
-6.880E-06,-0.040
-6.870E-06,-0.080
-6.860E-06,-0.040
-6.850E-06,-0.040
-6.840E-06,0.000
-6.830E-06,-0.040
-6.820E-06,-0.080
-6.810E-06,-0.120
-6.800E-06,-0.200
-6.790E-06,-0.120
-6.780E-06,-0.120
-6.770E-06,-0.200
-6.760E-06,-0.080
-6.750E-06,0.040
-6.740E-06,0.120
-6.730E-06,0.200
-6.720E-06,0.200
-6.710E-06,0.200
-6.700E-06,0.080
-6.690E-06,0.080
-6.680E-06,-0.040
-6.670E-06,-0.040
-6.660E-06,-0.120
-6.650E-06,-0.240
-6.640E-06,-0.440
-6.630E-06,-0.520
-6.620E-06,-0.560
-6.610E-06,-0.640
-6.600E-06,-0.600
-6.590E-06,-0.640
-6.580E-06,-0.680
-6.570E-06,-0.720
-6.560E-06,-0.800
-6.550E-06,-0.800
-6.540E-06,-0.840
-6.530E-06,-0.920
-6.520E-06,-1.000
-6.510E-06,-1.080
-6.500E-06,-1.200
-6.490E-06,-1.360
-6.480E-06,-1.520
-6.470E-06,-1.480
-6.460E-06,-1.400
-6.450E-06,-1.000
-6.440E-06,-0.840
-6.430E-06,-0.800
-6.420E-06,-0.840
-6.410E-06,-0.960
-6.400E-06,-0.800
-6.390E-06,-0.520
-6.380E-06,-0.480
-6.370E-06,-0.400
-6.360E-06,-0.520
-6.350E-06,-0.680
-6.340E-06,-0.720
-6.330E-06,-0.680
-6.320E-06,-0.520
-6.310E-06,-0.440
-6.300E-06,-0.440
-6.290E-06,-0.440
-6.280E-06,-0.320
-6.270E-06,-0.360
-6.260E-06,-0.280
-6.250E-06,-0.120
-6.240E-06,-0.040
-6.230E-06,0.040
-6.220E-06,0.080
-6.210E-06,-0.040
-6.200E-06,0.000
-6.190E-06,-0.080
-6.180E-06,-0.080
-6.170E-06,0.000
-6.160E-06,-0.080
-6.150E-06,-0.160
-6.140E-06,-0.120
-6.130E-06,-0.080
-6.120E-06,-0.160
-6.110E-06,-0.080
-6.100E-06,-0.280
-6.090E-06,-0.240
-6.080E-06,-0.320
-6.070E-06,-0.320
-6.060E-06,-0.400
-6.050E-06,-0.440
-6.040E-06,-0.640
-6.030E-06,-0.760
-6.020E-06,-0.880
-6.010E-06,-0.880
-6.000E-06,-0.880
-5.990E-06,-0.840
-5.980E-06,-0.880
-5.970E-06,-0.760
-5.960E-06,-0.720
-5.950E-06,-0.680
-5.940E-06,-0.400
-5.930E-06,-0.200
-5.920E-06,0.120
-5.910E-06,0.240
-5.900E-06,0.120
-5.890E-06,0.160
-5.880E-06,0.040
-5.870E-06,0.000
-5.860E-06,0.040
-5.850E-06,0.040
-5.840E-06,0.000
-5.830E-06,0.000
-5.820E-06,-0.080
-5.810E-06,-0.080
-5.800E-06,-0.080
-5.790E-06,-0.040
-5.780E-06,-0.040
-5.770E-06,-0.080
-5.760E-06,-0.160
-5.750E-06,-0.200
-5.740E-06,-0.200
-5.730E-06,-0.240
-5.720E-06,-0.240
-5.710E-06,-0.320
-5.700E-06,-0.400
-5.690E-06,-0.400
-5.680E-06,-0.440
-5.670E-06,-0.440
-5.660E-06,-0.360
-5.650E-06,-0.360
-5.640E-06,-0.360
-5.630E-06,-0.360
-5.620E-06,-0.320
-5.610E-06,-0.320
-5.600E-06,-0.320
-5.590E-06,-0.120
-5.580E-06,0.240
-5.570E-06,0.320
-5.560E-06,0.600
-5.550E-06,0.440
-5.540E-06,0.320
-5.530E-06,0.320
-5.520E-06,0.240
-5.510E-06,0.280
-5.500E-06,0.240
-5.490E-06,0.160
-5.480E-06,-0.080
-5.470E-06,-0.320
-5.460E-06,-0.440
-5.450E-06,-0.480
-5.440E-06,-0.440
-5.430E-06,0.360
-5.420E-06,-0.320
-5.410E-06,0.600
-5.400E-06,-0.640
-5.390E-06,-0.640
-5.380E-06,-1.040
-5.370E-06,-1.160
-5.360E-06,-1.240
-5.350E-06,-1.240
-5.340E-06,-1.640
-5.330E-06,-1.800
-5.320E-06,-1.920
-5.310E-06,-1.880
-5.300E-06,-1.400
-5.290E-06,-1.080
-5.280E-06,-0.720
-5.270E-06,-0.520
-5.260E-06,-0.480
-5.250E-06,-0.480
-5.240E-06,-0.320
-5.230E-06,-0.200
-5.220E-06,-0.040
-5.210E-06,-0.120
-5.200E-06,-0.200
-5.190E-06,-0.240
-5.180E-06,-0.200
-5.170E-06,0.040
-5.160E-06,0.160
-5.150E-06,0.240
-5.140E-06,0.320
-5.130E-06,0.440
-5.120E-06,0.600
-5.110E-06,0.720
-5.100E-06,0.800
-5.090E-06,0.840
-5.080E-06,0.800
-5.070E-06,0.680
-5.060E-06,0.640
-5.050E-06,0.480
-5.040E-06,0.360
-5.030E-06,0.320
-5.020E-06,0.200
-5.010E-06,0.120
-5.000E-06,0.160
-4.990E-06,0.240
-4.980E-06,0.200
-4.970E-06,0.240
-4.960E-06,0.200
-4.950E-06,0.360
-4.940E-06,0.440
-4.930E-06,0.320
-4.920E-06,0.240
-4.910E-06,0.080
-4.900E-06,0.040
-4.890E-06,0.000
-4.880E-06,-0.080
-4.870E-06,-0.120
-4.860E-06,-0.320
-4.850E-06,-0.360
-4.840E-06,-0.240
-4.830E-06,-0.320
-4.820E-06,-0.120
-4.810E-06,-0.240
-4.800E-06,0.040
-4.790E-06,-0.040
-4.780E-06,0.160
-4.770E-06,-0.160
-4.760E-06,-0.480
-4.750E-06,-0.760
-4.740E-06,-1.080
-4.730E-06,-1.240
-4.720E-06,-1.120
-4.710E-06,-1.240
-4.700E-06,-1.240
-4.690E-06,-1.440
-4.680E-06,-1.520
-4.670E-06,-1.440
-4.660E-06,-1.360
-4.650E-06,-1.120
-4.640E-06,-0.880
-4.630E-06,-0.760
-4.620E-06,-0.680
-4.610E-06,-0.560
-4.600E-06,-0.400
-4.590E-06,-0.280
-4.580E-06,-0.200
-4.570E-06,-0.040
-4.560E-06,0.000
-4.550E-06,0.040
-4.540E-06,0.160
-4.530E-06,0.160
-4.520E-06,0.440
-4.510E-06,0.520
-4.500E-06,0.680
-4.490E-06,0.720
-4.480E-06,0.840
-4.470E-06,0.920
-4.460E-06,1.080
-4.450E-06,1.200
-4.440E-06,1.360
-4.430E-06,1.320
-4.420E-06,1.400
-4.410E-06,1.280
-4.400E-06,1.080
-4.390E-06,0.880
-4.380E-06,0.720
-4.370E-06,0.440
-4.360E-06,0.240
-4.350E-06,0.080
-4.340E-06,-0.120
-4.330E-06,-0.200
-4.320E-06,-0.200
-4.310E-06,-0.320
-4.300E-06,-0.440
-4.290E-06,-0.480
-4.280E-06,-0.480
-4.270E-06,-0.120
-4.260E-06,-0.120
-4.250E-06,0.040
-4.240E-06,-0.320
-4.230E-06,-0.480
-4.220E-06,-0.600
-4.210E-06,-0.680
-4.200E-06,-0.640
-4.190E-06,-0.760
-4.180E-06,-0.920
-4.170E-06,-1.080
-4.160E-06,-1.120
-4.150E-06,-1.080
-4.140E-06,-0.920
-4.130E-06,-0.720
-4.120E-06,-0.720
-4.110E-06,-0.560
-4.100E-06,-0.440
-4.090E-06,-0.320
-4.080E-06,-0.240
-4.070E-06,-0.160
-4.060E-06,0.000
-4.050E-06,0.080
-4.040E-06,0.120
-4.030E-06,0.200
-4.020E-06,0.160
-4.010E-06,0.200
-4.000E-06,0.280
-3.990E-06,0.360
-3.980E-06,0.320
-3.970E-06,0.440
-3.960E-06,0.440
-3.950E-06,0.480
-3.940E-06,0.600
-3.930E-06,0.880
-3.920E-06,1.000
-3.910E-06,1.080
-3.900E-06,1.080
-3.890E-06,0.840
-3.880E-06,0.800
-3.870E-06,0.800
-3.860E-06,0.680
-3.850E-06,0.480
-3.840E-06,0.360
-3.830E-06,0.080
-3.820E-06,0.000
-3.810E-06,0.000
-3.800E-06,-0.040
-3.790E-06,0.080
-3.780E-06,-0.040
-3.770E-06,0.000
-3.760E-06,-0.080
-3.750E-06,0.200
-3.740E-06,0.160
-3.730E-06,0.200
-3.720E-06,-0.080
-3.710E-06,-0.280
-3.700E-06,-0.360
-3.690E-06,-0.520
-3.680E-06,-0.640
-3.670E-06,-0.680
-3.660E-06,-0.880
-3.650E-06,-1.000
-3.640E-06,-1.120
-3.630E-06,-1.120
-3.620E-06,-1.000
-3.610E-06,-0.840
-3.600E-06,-0.720
-3.590E-06,-0.680
-3.580E-06,-0.560
-3.570E-06,-0.400
-3.560E-06,-0.280
-3.550E-06,-0.120
-3.540E-06,0.000
-3.530E-06,0.080
-3.520E-06,0.120
-3.510E-06,0.160
-3.500E-06,0.200
-3.490E-06,0.280
-3.480E-06,0.280
-3.470E-06,0.320
-3.460E-06,0.360
-3.450E-06,0.440
-3.440E-06,0.560
-3.430E-06,0.640
-3.420E-06,0.640
-3.410E-06,0.680
-3.400E-06,0.680
-3.390E-06,0.640
-3.380E-06,0.680
-3.370E-06,0.680
-3.360E-06,0.640
-3.350E-06,0.520
-3.340E-06,0.400
-3.330E-06,0.200
-3.320E-06,0.160
-3.310E-06,0.040
-3.300E-06,-0.160
-3.290E-06,-0.240
-3.280E-06,-0.320
-3.270E-06,-0.320
-3.260E-06,-0.040
-3.250E-06,0.000
-3.240E-06,0.000
-3.230E-06,0.120
-3.220E-06,-0.160
-3.210E-06,0.040
-3.200E-06,-0.160
-3.190E-06,-0.360
-3.180E-06,-0.440
-3.170E-06,-0.600
-3.160E-06,-0.720
-3.150E-06,-0.720
-3.140E-06,-0.800
-3.130E-06,-0.880
-3.120E-06,-0.800
-3.110E-06,-0.760
-3.100E-06,-0.600
-3.090E-06,-0.440
-3.080E-06,-0.160
-3.070E-06,-0.160
-3.060E-06,-0.080
-3.050E-06,-0.040
-3.040E-06,0.000
-3.030E-06,0.000
-3.020E-06,0.080
-3.010E-06,0.000
-3.000E-06,0.080
-2.990E-06,0.080
-2.980E-06,0.080
-2.970E-06,0.120
-2.960E-06,0.160
-2.950E-06,0.400
-2.940E-06,0.520
-2.930E-06,0.640
-2.920E-06,0.720
-2.910E-06,0.760
-2.900E-06,0.760
-2.890E-06,0.760
-2.880E-06,0.680
-2.870E-06,0.680
-2.860E-06,0.600
-2.850E-06,0.480
-2.840E-06,0.320
-2.830E-06,0.160
-2.820E-06,0.080
-2.810E-06,0.280
-2.800E-06,0.240
-2.790E-06,0.320
-2.780E-06,0.280
-2.770E-06,0.000
-2.760E-06,0.000
-2.750E-06,-0.280
-2.740E-06,-0.320
-2.730E-06,-0.320
-2.720E-06,-0.200
-2.710E-06,-0.320
-2.700E-06,-0.360
-2.690E-06,-0.560
-2.680E-06,-0.560
-2.670E-06,-0.600
-2.660E-06,-0.560
-2.650E-06,-0.520
-2.640E-06,-0.480
-2.630E-06,-0.520
-2.620E-06,-0.560
-2.610E-06,-0.560
-2.600E-06,-0.440
-2.590E-06,-0.360
-2.580E-06,-0.320
-2.570E-06,-0.320
-2.560E-06,-0.280
-2.550E-06,-0.120
-2.540E-06,0.000
-2.530E-06,0.000
-2.520E-06,0.080
-2.510E-06,0.080
-2.500E-06,0.080
-2.490E-06,0.200
-2.480E-06,0.320
-2.470E-06,0.400
-2.460E-06,0.480
-2.450E-06,0.320
-2.440E-06,0.560
-2.430E-06,0.360
-2.420E-06,0.480
-2.410E-06,0.280
-2.400E-06,0.200
-2.390E-06,0.040
-2.380E-06,0.040
-2.370E-06,-0.080
-2.360E-06,0.000
-2.350E-06,0.000
-2.340E-06,0.120
-2.330E-06,0.400
-2.320E-06,0.680
-2.310E-06,0.920
-2.300E-06,1.120
-2.290E-06,1.160
-2.280E-06,1.160
-2.270E-06,0.960
-2.260E-06,0.880
-2.250E-06,0.800
-2.240E-06,0.640
-2.230E-06,0.520
-2.220E-06,0.440
-2.210E-06,0.360
-2.200E-06,0.280
-2.190E-06,0.240
-2.180E-06,0.040
-2.170E-06,0.000
-2.160E-06,-0.160
-2.150E-06,-0.240
-2.140E-06,-0.360
-2.130E-06,-0.480
-2.120E-06,-0.560
-2.110E-06,-0.720
-2.100E-06,-0.960
-2.090E-06,-1.160
-2.080E-06,-1.280
-2.070E-06,-1.320
-2.060E-06,-1.160
-2.050E-06,-0.560
-2.040E-06,-0.560
-2.030E-06,-0.320
-2.020E-06,-0.720
-2.010E-06,-0.600
-2.000E-06,-0.520
-1.990E-06,-0.240
-1.980E-06,-0.160
-1.970E-06,-0.160
-1.960E-06,-0.240
-1.950E-06,-0.360
-1.940E-06,-0.240
-1.930E-06,-0.240
-1.920E-06,-0.200
-1.910E-06,-0.200
-1.900E-06,-0.240
-1.890E-06,-0.280
-1.880E-06,-0.200
-1.870E-06,-0.120
-1.860E-06,0.000
-1.850E-06,0.080
-1.840E-06,0.240
-1.830E-06,0.440
-1.820E-06,0.440
-1.810E-06,0.480
-1.800E-06,0.400
-1.790E-06,0.440
-1.780E-06,0.360
-1.770E-06,0.400
-1.760E-06,0.360
-1.750E-06,0.440
-1.740E-06,0.480
-1.730E-06,0.440
-1.720E-06,0.560
-1.710E-06,0.680
-1.700E-06,0.640
-1.690E-06,0.720
-1.680E-06,0.800
-1.670E-06,0.800
-1.660E-06,0.720
-1.650E-06,0.640
-1.640E-06,0.480
-1.630E-06,0.320
-1.620E-06,0.120
-1.610E-06,-0.040
-1.600E-06,-0.080
-1.590E-06,-0.200
-1.580E-06,-0.200
-1.570E-06,-0.240
-1.560E-06,-0.240
-1.550E-06,-0.280
-1.540E-06,-0.200
-1.530E-06,-0.200
-1.520E-06,-0.200
-1.510E-06,-0.200
-1.500E-06,-0.160
-1.490E-06,-0.160
-1.480E-06,-0.160
-1.470E-06,-0.160
-1.460E-06,-0.120
-1.450E-06,-0.120
-1.440E-06,-0.160
-1.430E-06,-0.120
-1.420E-06,-0.120
-1.410E-06,-0.200
-1.400E-06,-0.240
-1.390E-06,-0.240
-1.380E-06,-0.200
-1.370E-06,-0.200
-1.360E-06,-0.160
-1.350E-06,-0.160
-1.340E-06,-0.280
-1.330E-06,-0.240
-1.320E-06,-0.280
-1.310E-06,-0.280
-1.300E-06,-0.320
-1.290E-06,-0.400
-1.280E-06,-0.520
-1.270E-06,-0.600
-1.260E-06,-0.600
-1.250E-06,-0.640
-1.240E-06,-0.680
-1.230E-06,-0.640
-1.220E-06,-0.560
-1.210E-06,-0.600
-1.200E-06,-0.520
-1.190E-06,-0.520
-1.180E-06,-0.520
-1.170E-06,-0.480
-1.160E-06,-0.520
-1.150E-06,-0.520
-1.140E-06,-0.560
-1.130E-06,-0.600
-1.120E-06,-0.600
-1.110E-06,-0.600
-1.100E-06,-0.640
-1.090E-06,-0.640
-1.080E-06,-0.600
-1.070E-06,-0.640
-1.060E-06,-0.600
-1.050E-06,-0.680
-1.040E-06,-0.680
-1.030E-06,-0.680
-1.020E-06,-0.840
-1.010E-06,-0.840
-1.000E-06,-0.920
-9.900E-07,-1.000
-9.800E-07,-1.120
-9.700E-07,-1.160
-9.600E-07,-1.200
-9.500E-07,-1.280
-9.400E-07,-1.280
-9.300E-07,-1.280
-9.200E-07,-1.320
-9.100E-07,-1.360
-9.000E-07,-1.400
-8.900E-07,-1.360
-8.800E-07,-1.440
-8.700E-07,-1.400
-8.600E-07,-1.480
-8.500E-07,-1.480
-8.400E-07,-1.480
-8.300E-07,-1.480
-8.200E-07,-1.560
-8.100E-07,-1.600
-8.000E-07,-1.680
-7.900E-07,-1.680
-7.800E-07,-1.760
-7.700E-07,-1.840
-7.600E-07,-1.880
-7.500E-07,-2.000
-7.400E-07,-1.920
-7.300E-07,-2.000
-7.200E-07,-2.040
-7.100E-07,-2.200
-7.000E-07,-2.160
-6.900E-07,-2.200
-6.800E-07,-2.200
-6.700E-07,-2.160
-6.600E-07,-2.200
-6.500E-07,-2.320
-6.400E-07,-2.360
-6.300E-07,-2.400
-6.200E-07,-2.440
-6.100E-07,-2.400
-6.000E-07,-2.400
-5.900E-07,-2.520
-5.800E-07,-2.520
-5.700E-07,-2.520
-5.600E-07,-2.520
-5.500E-07,-2.520
-5.400E-07,-2.600
-5.300E-07,-2.680
-5.200E-07,-2.800
-5.100E-07,-2.880
-5.000E-07,-2.960
-4.900E-07,-3.080
-4.800E-07,-3.040
-4.700E-07,-3.000
-4.600E-07,-2.880
-4.500E-07,-2.600
-4.400E-07,-2.520
-4.300E-07,-2.160
-4.200E-07,-2.240
-4.100E-07,-2.200
-4.000E-07,-2.400
-3.900E-07,-2.400
-3.800E-07,-2.520
-3.700E-07,-2.720
-3.600E-07,-2.920
-3.500E-07,-3.120
-3.400E-07,-3.360
-3.300E-07,-3.520
-3.200E-07,-3.640
-3.100E-07,-3.720
-3.000E-07,-3.880
-2.900E-07,-3.920
-2.800E-07,-3.800
-2.700E-07,-3.840
-2.600E-07,-3.560
-2.500E-07,-3.520
-2.400E-07,-3.280
-2.300E-07,-3.160
-2.200E-07,-2.800
-2.100E-07,-2.840
-2.000E-07,-2.440
-1.900E-07,-2.040
-1.800E-07,-1.680
-1.700E-07,-1.560
-1.600E-07,-1.680
-1.500E-07,-1.520
-1.400E-07,-1.320
-1.300E-07,-0.920
-1.200E-07,-0.360
-1.100E-07,-0.400
-1.000E-07,-0.240
-9.000E-08,-0.800
-8.000E-08,-1.280
-7.000E-08,-1.840
-6.000E-08,-2.600
-5.000E-08,-3.120
-4.000E-08,-3.760
-3.000E-08,-4.200
-2.000E-08,-4.360
-1.000E-08,-4.560
0.000E+00,-4.440
1.000E-08,-4.560
2.000E-08,-4.360
3.000E-08,-4.320
4.000E-08,-4.040
5.000E-08,-3.680
6.000E-08,-3.520
7.000E-08,-3.160
8.000E-08,-2.800
9.000E-08,-2.480
1.000E-07,-2.000
1.100E-07,-1.480
1.200E-07,-0.880
1.300E-07,-0.080
1.400E-07,0.400
1.500E-07,1.040
1.600E-07,1.600
1.700E-07,1.920
1.800E-07,2.080
1.900E-07,1.800
2.000E-07,1.240
2.100E-07,0.520
2.200E-07,-0.520
2.300E-07,-1.400
2.400E-07,-2.320
2.500E-07,-3.080
2.600E-07,-3.760
2.700E-07,-4.200
2.800E-07,-4.560
2.900E-07,-4.880
3.000E-07,-5.160
3.100E-07,-5.200
3.200E-07,-5.240
3.300E-07,-5.160
3.400E-07,-4.880
3.500E-07,-4.560
3.600E-07,-4.080
3.700E-07,-3.600
3.800E-07,-3.200
3.900E-07,-2.720
4.000E-07,-2.280
4.100E-07,-1.840
4.200E-07,-1.560
4.300E-07,-1.200
4.400E-07,-1.000
4.500E-07,-0.640
4.600E-07,-0.600
4.700E-07,-0.560
4.800E-07,-0.640
4.900E-07,-0.760
5.000E-07,-0.880
5.100E-07,-1.160
5.200E-07,-1.400
5.300E-07,-1.680
5.400E-07,-2.040
5.500E-07,-2.360
5.600E-07,-2.680
5.700E-07,-3.080
5.800E-07,-3.440
5.900E-07,-3.760
6.000E-07,-4.160
6.100E-07,-4.480
6.200E-07,-4.720
6.300E-07,-4.880
6.400E-07,-4.960
6.500E-07,-4.920
6.600E-07,-4.880
6.700E-07,-4.800
6.800E-07,-4.760
6.900E-07,-4.760
7.000E-07,-4.640
7.100E-07,-4.440
7.200E-07,-4.320
7.300E-07,-4.120
7.400E-07,-3.920
7.500E-07,-3.640
7.600E-07,-3.400
7.700E-07,-3.000
7.800E-07,-2.680
7.900E-07,-2.280
8.000E-07,-1.920
8.100E-07,-1.680
8.200E-07,-1.560
8.300E-07,-1.560
8.400E-07,-1.680
8.500E-07,-1.720
8.600E-07,-1.800
8.700E-07,-1.840
8.800E-07,-1.800
8.900E-07,-1.840
9.000E-07,-1.800
9.100E-07,-1.760
9.200E-07,-1.720
9.300E-07,-1.680
9.400E-07,-1.520
9.500E-07,-1.440
9.600E-07,-1.200
9.700E-07,-0.880
9.800E-07,-0.480
9.900E-07,0.200
1.000E-06,1.120
1.010E-06,2.280
1.020E-06,3.040
1.030E-06,3.320
1.040E-06,2.880
1.050E-06,1.720
1.060E-06,0.240
1.070E-06,-2.200
1.080E-06,-4.600
1.090E-06,-5.200
1.100E-06,-5.240
1.110E-06,-5.240
1.120E-06,-5.200
1.130E-06,-5.240
1.140E-06,-5.240
1.150E-06,-5.240
1.160E-06,-5.200
1.170E-06,-5.240
1.180E-06,-5.240
1.190E-06,-5.200
1.200E-06,-5.200
1.210E-06,-5.200
1.220E-06,-5.200
1.230E-06,-5.240
1.240E-06,-5.240
1.250E-06,-5.200
1.260E-06,-5.200
1.270E-06,-5.240
1.280E-06,-5.240
1.290E-06,-5.240
1.300E-06,-5.240
1.310E-06,-5.240
1.320E-06,-5.240
1.330E-06,-5.200
1.340E-06,-5.200
1.350E-06,-5.240
1.360E-06,-5.240
1.370E-06,-5.200
1.380E-06,-5.080
1.390E-06,-4.800
1.400E-06,-4.520
1.410E-06,-4.080
1.420E-06,-3.720
1.430E-06,-3.320
1.440E-06,-2.840
1.450E-06,-2.320
1.460E-06,-1.840
1.470E-06,-1.480
1.480E-06,-1.120
1.490E-06,-0.880
1.500E-06,-0.640
1.510E-06,-0.600
1.520E-06,-0.640
1.530E-06,-0.680
1.540E-06,-0.640
1.550E-06,-0.600
1.560E-06,-0.440
1.570E-06,-0.320
1.580E-06,-0.080
1.590E-06,0.120
1.600E-06,0.360
1.610E-06,0.480
1.620E-06,0.680
1.630E-06,0.680
1.640E-06,0.680
1.650E-06,0.480
1.660E-06,0.280
1.670E-06,0.000
1.680E-06,-0.240
1.690E-06,-0.480
1.700E-06,-0.640
1.710E-06,-0.840
1.720E-06,-1.000
1.730E-06,-1.040
1.740E-06,-1.000
1.750E-06,-0.920
1.760E-06,-0.760
1.770E-06,-0.600
1.780E-06,-0.440
1.790E-06,-0.280
1.800E-06,-0.160
1.810E-06,-0.040
1.820E-06,0.040
1.830E-06,0.040
1.840E-06,-0.040
1.850E-06,-0.040
1.860E-06,-0.080
1.870E-06,-0.120
1.880E-06,-0.160
1.890E-06,-0.200
1.900E-06,-0.160
1.910E-06,-0.200
1.920E-06,-0.040
1.930E-06,0.000
1.940E-06,0.080
1.950E-06,0.160
1.960E-06,0.240
1.970E-06,0.360
1.980E-06,0.320
1.990E-06,0.400
2.000E-06,0.360
2.010E-06,0.400
2.020E-06,0.440
2.030E-06,0.440
2.040E-06,0.520
2.050E-06,0.680
2.060E-06,0.760
2.070E-06,0.960
2.080E-06,1.120
2.090E-06,1.240
2.100E-06,1.440
2.110E-06,1.600
2.120E-06,1.720
2.130E-06,1.720
2.140E-06,1.720
2.150E-06,1.640
2.160E-06,1.480
2.170E-06,1.240
2.180E-06,1.000
2.190E-06,0.800
2.200E-06,0.600
2.210E-06,0.360
2.220E-06,0.240
2.230E-06,0.160
2.240E-06,0.080
2.250E-06,0.040
2.260E-06,0.040
2.270E-06,0.120
2.280E-06,0.160
2.290E-06,0.120
2.300E-06,0.200
2.310E-06,0.280
2.320E-06,0.400
2.330E-06,0.480
2.340E-06,0.480
2.350E-06,0.520
2.360E-06,0.600
2.370E-06,0.560
2.380E-06,0.560
2.390E-06,0.560
2.400E-06,0.640
2.410E-06,0.680
2.420E-06,0.720
2.430E-06,0.800
2.440E-06,0.840
2.450E-06,0.960
2.460E-06,1.040
2.470E-06,1.080
2.480E-06,1.240
2.490E-06,1.360
2.500E-06,1.440
2.510E-06,1.520
2.520E-06,1.680
2.530E-06,1.760
2.540E-06,1.760
2.550E-06,1.840
2.560E-06,1.800
2.570E-06,1.880
2.580E-06,1.800
2.590E-06,1.840
2.600E-06,1.720
2.610E-06,1.680
2.620E-06,1.520
2.630E-06,1.400
2.640E-06,1.280
2.650E-06,1.160
2.660E-06,1.040
2.670E-06,0.960
2.680E-06,0.800
2.690E-06,0.720
2.700E-06,0.680
2.710E-06,0.640
2.720E-06,0.520
2.730E-06,0.480
2.740E-06,0.520
2.750E-06,0.480
2.760E-06,0.480
2.770E-06,0.480
2.780E-06,0.520
2.790E-06,0.600
2.800E-06,0.640
2.810E-06,0.760
2.820E-06,0.840
2.830E-06,0.880
2.840E-06,0.920
2.850E-06,0.920
2.860E-06,0.920
2.870E-06,0.880
2.880E-06,0.840
2.890E-06,0.800
2.900E-06,0.760
2.910E-06,0.800
2.920E-06,0.840
2.930E-06,0.960
2.940E-06,1.040
2.950E-06,1.040
2.960E-06,1.000
2.970E-06,1.040
2.980E-06,1.080
2.990E-06,1.120
3.000E-06,1.120
3.010E-06,1.120
3.020E-06,1.120
3.030E-06,1.080
3.040E-06,1.160
3.050E-06,1.240
3.060E-06,1.320
3.070E-06,1.320
3.080E-06,1.400
3.090E-06,1.520
