mediciones/Mediciones filtradas (saque las feas)/5-15/0/WaveData4634.csv

#timebase=2000000(ps)
,#voltbase=100000(mv/100)
#size=4000
-8.400E-06,-0.008
-8.390E-06,-0.004
-8.380E-06,-0.004
-8.370E-06,0.012
-8.360E-06,-0.004
-8.350E-06,0.004
-8.340E-06,0.024
-8.330E-06,0.008
-8.320E-06,0.000
-8.310E-06,0.000
-8.300E-06,-0.008
-8.290E-06,-0.016
-8.280E-06,0.000
-8.270E-06,0.012
-8.260E-06,0.016
-8.250E-06,0.008
-8.240E-06,0.008
-8.230E-06,-0.012
-8.220E-06,-0.004
-8.210E-06,-0.004
-8.200E-06,0.008
-8.190E-06,0.012
-8.180E-06,0.012
-8.170E-06,0.008
-8.160E-06,-0.004
-8.150E-06,0.000
-8.140E-06,0.000
-8.130E-06,0.000
-8.120E-06,0.000
-8.110E-06,0.008
-8.100E-06,0.000
-8.090E-06,0.000
-8.080E-06,0.004
-8.070E-06,0.000
-8.060E-06,0.004
-8.050E-06,0.004
-8.040E-06,0.004
-8.030E-06,0.000
-8.020E-06,0.000
-8.010E-06,0.000
-8.000E-06,-0.008
-7.990E-06,-0.004
-7.980E-06,0.012
-7.970E-06,0.008
-7.960E-06,0.000
-7.950E-06,0.000
-7.940E-06,-0.004
-7.930E-06,-0.004
-7.920E-06,0.004
-7.910E-06,0.004
-7.900E-06,-0.004
-7.890E-06,0.004
-7.880E-06,0.000
-7.870E-06,0.008
-7.860E-06,0.008
-7.850E-06,0.008
-7.840E-06,-0.004
-7.830E-06,0.000
-7.820E-06,0.004
-7.810E-06,0.004
-7.800E-06,0.004
-7.790E-06,0.012
-7.780E-06,0.012
-7.770E-06,0.008
-7.760E-06,0.008
-7.750E-06,-0.004
-7.740E-06,-0.004
-7.730E-06,0.000
-7.720E-06,0.000
-7.710E-06,0.004
-7.700E-06,0.008
-7.690E-06,0.004
-7.680E-06,-0.012
-7.670E-06,-0.012
-7.660E-06,0.004
-7.650E-06,0.012
-7.640E-06,0.016
-7.630E-06,0.012
-7.620E-06,-0.004
-7.610E-06,-0.008
-7.600E-06,-0.004
-7.590E-06,0.008
-7.580E-06,0.000
-7.570E-06,0.004
-7.560E-06,0.004
-7.550E-06,-0.008
-7.540E-06,0.000
-7.530E-06,0.008
-7.520E-06,0.008
-7.510E-06,0.000
-7.500E-06,0.000
-7.490E-06,-0.004
-7.480E-06,-0.004
-7.470E-06,0.008
-7.460E-06,0.004
-7.450E-06,0.008
-7.440E-06,0.004
-7.430E-06,0.000
-7.420E-06,0.000
-7.410E-06,0.000
-7.400E-06,0.004
-7.390E-06,0.008
-7.380E-06,0.012
-7.370E-06,0.008
-7.360E-06,0.004
-7.350E-06,0.000
-7.340E-06,0.000
-7.330E-06,-0.004
-7.320E-06,0.004
-7.310E-06,0.004
-7.300E-06,-0.004
-7.290E-06,-0.004
-7.280E-06,0.008
-7.270E-06,0.020
-7.260E-06,0.004
-7.250E-06,0.004
-7.240E-06,-0.008
-7.230E-06,-0.028
-7.220E-06,-0.008
-7.210E-06,0.008
-7.200E-06,0.020
-7.190E-06,0.024
-7.180E-06,0.016
-7.170E-06,-0.016
-7.160E-06,-0.020
-7.150E-06,-0.012
-7.140E-06,0.008
-7.130E-06,0.020
-7.120E-06,0.028
-7.110E-06,0.016
-7.100E-06,-0.004
-7.090E-06,-0.004
-7.080E-06,-0.008
-7.070E-06,-0.004
-7.060E-06,0.008
-7.050E-06,0.012
-7.040E-06,0.004
-7.030E-06,0.004
-7.020E-06,0.000
-7.010E-06,0.000
-7.000E-06,0.008
-6.990E-06,-0.004
-6.980E-06,0.000
-6.970E-06,0.000
-6.960E-06,0.004
-6.950E-06,0.008
-6.940E-06,0.004
-6.930E-06,0.008
-6.920E-06,0.008
-6.910E-06,0.000
-6.900E-06,0.000
-6.890E-06,0.000
-6.880E-06,0.008
-6.870E-06,0.008
-6.860E-06,0.012
-6.850E-06,0.012
-6.840E-06,0.016
-6.830E-06,0.016
-6.820E-06,-0.004
-6.810E-06,-0.020
-6.800E-06,-0.024
-6.790E-06,-0.004
-6.780E-06,0.000
-6.770E-06,0.008
-6.760E-06,0.008
-6.750E-06,0.004
-6.740E-06,0.004
-6.730E-06,0.004
-6.720E-06,0.000
-6.710E-06,-0.004
-6.700E-06,-0.012
-6.690E-06,0.000
-6.680E-06,0.012
-6.670E-06,0.016
-6.660E-06,0.016
-6.650E-06,0.004
-6.640E-06,-0.012
-6.630E-06,-0.016
-6.620E-06,-0.008
-6.610E-06,0.008
-6.600E-06,0.020
-6.590E-06,0.024
-6.580E-06,0.012
-6.570E-06,0.000
-6.560E-06,-0.008
-6.550E-06,-0.012
-6.540E-06,0.008
-6.530E-06,0.008
-6.520E-06,0.012
-6.510E-06,0.008
-6.500E-06,0.004
-6.490E-06,-0.004
-6.480E-06,0.000
-6.470E-06,0.000
-6.460E-06,0.008
-6.450E-06,0.008
-6.440E-06,0.012
-6.430E-06,0.012
-6.420E-06,-0.004
-6.410E-06,-0.004
-6.400E-06,-0.004
-6.390E-06,0.000
-6.380E-06,-0.004
-6.370E-06,0.012
-6.360E-06,0.008
-6.350E-06,0.004
-6.340E-06,-0.004
-6.330E-06,-0.008
-6.320E-06,-0.012
-6.310E-06,-0.004
-6.300E-06,0.008
-6.290E-06,0.012
-6.280E-06,0.008
-6.270E-06,0.004
-6.260E-06,-0.004
-6.250E-06,-0.008
-6.240E-06,0.000
-6.230E-06,0.004
-6.220E-06,0.004
-6.210E-06,0.008
-6.200E-06,0.012
-6.190E-06,0.008
-6.180E-06,0.008
-6.170E-06,-0.004
-6.160E-06,0.000
-6.150E-06,0.000
-6.140E-06,0.004
-6.130E-06,0.008
-6.120E-06,0.004
-6.110E-06,0.004
-6.100E-06,0.004
-6.090E-06,0.000
-6.080E-06,0.004
-6.070E-06,0.008
-6.060E-06,0.008
-6.050E-06,0.008
-6.040E-06,0.008
-6.030E-06,0.008
-6.020E-06,-0.004
-6.010E-06,-0.004
-6.000E-06,0.004
-5.990E-06,0.024
-5.980E-06,0.024
-5.970E-06,0.020
-5.960E-06,-0.008
-5.950E-06,-0.048
-5.940E-06,-0.028
-5.930E-06,0.020
-5.920E-06,0.056
-5.910E-06,0.048
-5.900E-06,0.024
-5.890E-06,-0.016
-5.880E-06,-0.040
-5.870E-06,-0.036
-5.860E-06,-0.004
-5.850E-06,0.032
-5.840E-06,0.044
-5.830E-06,0.012
-5.820E-06,-0.020
-5.810E-06,-0.028
-5.800E-06,-0.012
-5.790E-06,0.012
-5.780E-06,0.028
-5.770E-06,0.020
-5.760E-06,0.008
-5.750E-06,0.000
-5.740E-06,0.004
-5.730E-06,0.004
-5.720E-06,0.008
-5.710E-06,-0.004
-5.700E-06,-0.004
-5.690E-06,-0.008
-5.680E-06,-0.004
-5.670E-06,0.012
-5.660E-06,0.020
-5.650E-06,0.020
-5.640E-06,0.004
-5.630E-06,-0.016
-5.620E-06,-0.056
-5.610E-06,-0.044
-5.600E-06,0.000
-5.590E-06,0.044
-5.580E-06,0.064
-5.570E-06,0.044
-5.560E-06,-0.024
-5.550E-06,-0.052
-5.540E-06,-0.036
-5.530E-06,-0.004
-5.520E-06,0.028
-5.510E-06,0.052
-5.500E-06,0.028
-5.490E-06,-0.004
-5.480E-06,-0.020
-5.470E-06,-0.012
-5.460E-06,-0.004
-5.450E-06,0.008
-5.440E-06,0.012
-5.430E-06,-0.008
-5.420E-06,0.000
-5.410E-06,-0.004
-5.400E-06,0.012
-5.390E-06,0.020
-5.380E-06,0.012
-5.370E-06,0.004
-5.360E-06,-0.004
-5.350E-06,0.000
-5.340E-06,0.000
-5.330E-06,0.012
-5.320E-06,0.012
-5.310E-06,0.012
-5.300E-06,0.004
-5.290E-06,0.000
-5.280E-06,0.000
-5.270E-06,0.000
-5.260E-06,0.012
-5.250E-06,0.004
-5.240E-06,-0.004
-5.230E-06,-0.004
-5.220E-06,0.000
-5.210E-06,0.008
-5.200E-06,0.008
-5.190E-06,0.016
-5.180E-06,0.008
-5.170E-06,0.000
-5.160E-06,-0.008
-5.150E-06,-0.012
-5.140E-06,-0.008
-5.130E-06,0.004
-5.120E-06,0.020
-5.110E-06,0.024
-5.100E-06,0.016
-5.090E-06,0.004
-5.080E-06,0.000
-5.070E-06,0.000
-5.060E-06,0.012
-5.050E-06,0.012
-5.040E-06,0.000
-5.030E-06,0.000
-5.020E-06,-0.008
-5.010E-06,-0.004
-5.000E-06,0.012
-4.990E-06,0.020
-4.980E-06,0.000
-4.970E-06,-0.008
-4.960E-06,-0.008
-4.950E-06,0.000
-4.940E-06,0.012
-4.930E-06,0.024
-4.920E-06,0.008
-4.910E-06,-0.004
-4.900E-06,-0.012
-4.890E-06,-0.004
-4.880E-06,0.012
-4.870E-06,0.012
-4.860E-06,0.016
-4.850E-06,0.012
-4.840E-06,0.004
-4.830E-06,-0.012
-4.820E-06,-0.024
-4.810E-06,-0.012
-4.800E-06,-0.004
-4.790E-06,0.008
-4.780E-06,0.024
-4.770E-06,0.016
-4.760E-06,0.004
-4.750E-06,-0.004
-4.740E-06,-0.004
-4.730E-06,0.000
-4.720E-06,0.004
-4.710E-06,0.016
-4.700E-06,0.016
-4.690E-06,0.012
-4.680E-06,0.000
-4.670E-06,-0.004
-4.660E-06,0.000
-4.650E-06,0.008
-4.640E-06,0.004
-4.630E-06,0.004
-4.620E-06,0.004
-4.610E-06,0.008
-4.600E-06,0.008
-4.590E-06,0.000
-4.580E-06,-0.004
-4.570E-06,-0.012
-4.560E-06,-0.008
-4.550E-06,0.000
-4.540E-06,0.008
-4.530E-06,0.012
-4.520E-06,0.012
-4.510E-06,0.008
-4.500E-06,0.004
-4.490E-06,0.004
-4.480E-06,0.012
-4.470E-06,0.000
-4.460E-06,0.000
-4.450E-06,0.004
-4.440E-06,0.012
-4.430E-06,0.012
-4.420E-06,0.012
-4.410E-06,0.008
-4.400E-06,0.012
-4.390E-06,0.008
-4.380E-06,0.004
-4.370E-06,-0.008
-4.360E-06,-0.012
-4.350E-06,0.000
-4.340E-06,0.004
-4.330E-06,0.020
-4.320E-06,0.020
-4.310E-06,0.024
-4.300E-06,0.008
-4.290E-06,-0.008
-4.280E-06,-0.024
-4.270E-06,-0.008
-4.260E-06,0.028
-4.250E-06,0.040
-4.240E-06,0.036
-4.230E-06,0.008
-4.220E-06,-0.020
-4.210E-06,-0.040
-4.200E-06,-0.016
-4.190E-06,0.016
-4.180E-06,0.044
-4.170E-06,0.052
-4.160E-06,0.028
-4.150E-06,-0.008
-4.140E-06,-0.040
-4.130E-06,-0.040
-4.120E-06,-0.024
-4.110E-06,0.020
-4.100E-06,0.048
-4.090E-06,0.028
-4.080E-06,-0.008
-4.070E-06,-0.036
-4.060E-06,-0.024
-4.050E-06,-0.012
-4.040E-06,-0.004
-4.030E-06,0.008
-4.020E-06,0.012
-4.010E-06,0.016
-4.000E-06,0.020
-3.990E-06,0.008
-3.980E-06,-0.004
-3.970E-06,-0.024
-3.960E-06,-0.024
-3.950E-06,-0.004
-3.940E-06,0.004
-3.930E-06,0.024
-3.920E-06,0.028
-3.910E-06,0.012
-3.900E-06,-0.004
-3.890E-06,-0.032
-3.880E-06,-0.028
-3.870E-06,-0.004
-3.860E-06,0.024
-3.850E-06,0.040
-3.840E-06,0.032
-3.830E-06,0.004
-3.820E-06,-0.020
-3.810E-06,-0.040
-3.800E-06,-0.024
-3.790E-06,0.008
-3.780E-06,0.024
-3.770E-06,0.036
-3.760E-06,0.024
-3.750E-06,0.016
-3.740E-06,0.000
-3.730E-06,-0.008
-3.720E-06,-0.016
-3.710E-06,-0.004
-3.700E-06,0.004
-3.690E-06,0.012
-3.680E-06,0.020
-3.670E-06,0.020
-3.660E-06,0.012
-3.650E-06,-0.004
-3.640E-06,-0.008
-3.630E-06,-0.008
-3.620E-06,0.008
-3.610E-06,0.028
-3.600E-06,0.032
-3.590E-06,0.020
-3.580E-06,0.004
-3.570E-06,-0.012
-3.560E-06,-0.020
-3.550E-06,-0.012
-3.540E-06,0.008
-3.530E-06,0.032
-3.520E-06,0.028
-3.510E-06,0.016
-3.500E-06,-0.008
-3.490E-06,-0.028
-3.480E-06,-0.016
-3.470E-06,-0.004
-3.460E-06,0.024
-3.450E-06,0.032
-3.440E-06,0.020
-3.430E-06,0.000
-3.420E-06,-0.016
-3.410E-06,-0.004
-3.400E-06,-0.004
-3.390E-06,0.012
-3.380E-06,0.024
-3.370E-06,0.028
-3.360E-06,0.028
-3.350E-06,0.028
-3.340E-06,0.032
-3.330E-06,0.032
-3.320E-06,0.036
-3.310E-06,0.044
-3.300E-06,0.036
-3.290E-06,-0.004
-3.280E-06,-0.052
-3.270E-06,-0.084
-3.260E-06,-0.056
-3.250E-06,-0.008
-3.240E-06,0.048
-3.230E-06,0.080
-3.220E-06,0.060
-3.210E-06,-0.008
-3.200E-06,-0.076
-3.190E-06,-0.088
-3.180E-06,-0.040
-3.170E-06,0.016
-3.160E-06,0.064
-3.150E-06,0.080
-3.140E-06,0.048
-3.130E-06,-0.016
-3.120E-06,-0.052
-3.110E-06,-0.060
-3.100E-06,-0.044
-3.090E-06,-0.012
-3.080E-06,0.028
-3.070E-06,0.056
-3.060E-06,0.044
-3.050E-06,0.012
-3.040E-06,-0.012
-3.030E-06,-0.044
-3.020E-06,-0.044
-3.010E-06,-0.016
-3.000E-06,0.020
-2.990E-06,0.048
-2.980E-06,0.060
-2.970E-06,0.040
-2.960E-06,0.012
-2.950E-06,-0.016
-2.940E-06,-0.036
-2.930E-06,-0.028
-2.920E-06,-0.004
-2.910E-06,0.020
-2.900E-06,0.040
-2.890E-06,0.048
-2.880E-06,0.036
-2.870E-06,0.004
-2.860E-06,-0.040
-2.850E-06,-0.052
-2.840E-06,-0.032
-2.830E-06,0.000
-2.820E-06,0.032
-2.810E-06,0.040
-2.800E-06,0.032
-2.790E-06,0.008
-2.780E-06,-0.024
-2.770E-06,-0.040
-2.760E-06,-0.028
-2.750E-06,0.000
-2.740E-06,0.040
-2.730E-06,0.060
-2.720E-06,0.040
-2.710E-06,0.004
-2.700E-06,-0.020
-2.690E-06,-0.024
-2.680E-06,-0.012
-2.670E-06,0.004
-2.660E-06,0.028
-2.650E-06,0.044
-2.640E-06,0.024
-2.630E-06,0.020
-2.620E-06,0.024
-2.610E-06,0.016
-2.600E-06,0.024
-2.590E-06,0.032
-2.580E-06,0.020
-2.570E-06,0.004
-2.560E-06,-0.012
-2.550E-06,-0.004
-2.540E-06,0.008
-2.530E-06,0.064
-2.520E-06,0.092
-2.510E-06,0.084
-2.500E-06,0.020
-2.490E-06,-0.044
-2.480E-06,-0.084
-2.470E-06,-0.088
-2.460E-06,-0.044
-2.450E-06,0.024
-2.440E-06,0.088
-2.430E-06,0.096
-2.420E-06,0.052
-2.410E-06,-0.004
-2.400E-06,-0.056
-2.390E-06,-0.056
-2.380E-06,-0.036
-2.370E-06,0.008
-2.360E-06,0.036
-2.350E-06,0.052
-2.340E-06,0.032
-2.330E-06,0.008
-2.320E-06,-0.024
-2.310E-06,-0.032
-2.300E-06,-0.028
-2.290E-06,-0.004
-2.280E-06,0.028
-2.270E-06,0.048
-2.260E-06,0.064
-2.250E-06,0.040
-2.240E-06,0.008
-2.230E-06,0.000
-2.220E-06,0.040
-2.210E-06,0.032
-2.200E-06,0.044
-2.190E-06,0.064
-2.180E-06,0.072
-2.170E-06,0.052
-2.160E-06,-0.012
-2.150E-06,-0.084
-2.140E-06,-0.120
-2.130E-06,-0.076
-2.120E-06,-0.008
-2.110E-06,0.044
-2.100E-06,0.040
-2.090E-06,0.020
-2.080E-06,-0.004
-2.070E-06,-0.040
-2.060E-06,-0.072
-2.050E-06,-0.080
-2.040E-06,-0.044
-2.030E-06,0.028
-2.020E-06,0.084
-2.010E-06,0.056
-2.000E-06,-0.028
-1.990E-06,-0.096
-1.980E-06,-0.128
-1.970E-06,-0.072
-1.960E-06,0.004
-1.950E-06,0.064
-1.940E-06,0.072
-1.930E-06,0.040
-1.920E-06,-0.024
-1.910E-06,-0.056
-1.900E-06,-0.052
-1.890E-06,-0.016
-1.880E-06,0.032
-1.870E-06,0.056
-1.860E-06,0.052
-1.850E-06,0.020
-1.840E-06,-0.004
-1.830E-06,-0.008
-1.820E-06,-0.008
-1.810E-06,-0.008
-1.800E-06,0.000
-1.790E-06,0.000
-1.780E-06,0.000
-1.770E-06,0.000
-1.760E-06,0.004
-1.750E-06,-0.004
-1.740E-06,0.008
-1.730E-06,0.028
-1.720E-06,0.056
-1.710E-06,0.068
-1.700E-06,0.064
-1.690E-06,0.060
-1.680E-06,0.048
-1.670E-06,0.052
-1.660E-06,0.064
-1.650E-06,0.076
-1.640E-06,0.080
-1.630E-06,0.060
-1.620E-06,0.028
-1.610E-06,-0.016
-1.600E-06,-0.032
-1.590E-06,-0.016
-1.580E-06,0.020
-1.570E-06,0.060
-1.560E-06,0.076
-1.550E-06,0.056
-1.540E-06,-0.004
-1.530E-06,-0.048
-1.520E-06,-0.060
-1.510E-06,-0.008
-1.500E-06,0.076
-1.490E-06,0.180
-1.480E-06,0.176
-1.470E-06,0.124
-1.460E-06,0.024
-1.450E-06,-0.112
-1.440E-06,-0.220
-1.430E-06,-0.260
-1.420E-06,-0.216
-1.410E-06,-0.124
-1.400E-06,0.020
-1.390E-06,0.136
-1.380E-06,0.196
-1.370E-06,0.124
-1.360E-06,-0.012
-1.350E-06,-0.112
-1.340E-06,-0.136
-1.330E-06,-0.036
-1.320E-06,0.112
-1.310E-06,0.224
-1.300E-06,0.236
-1.290E-06,0.164
-1.280E-06,0.044
-1.270E-06,-0.056
-1.260E-06,-0.100
-1.250E-06,-0.060
-1.240E-06,0.032
-1.230E-06,0.124
-1.220E-06,0.144
-1.210E-06,0.128
-1.200E-06,0.096
-1.190E-06,0.044
-1.180E-06,0.016
-1.170E-06,0.016
-1.160E-06,0.052
-1.150E-06,0.100
-1.140E-06,0.176
-1.130E-06,0.204
-1.120E-06,0.164
-1.110E-06,0.048
-1.100E-06,-0.144
-1.090E-06,-0.372
-1.080E-06,-0.472
-1.070E-06,-0.372
-1.060E-06,-0.116
-1.050E-06,0.180
-1.040E-06,0.396
-1.030E-06,0.408
-1.020E-06,0.180
-1.010E-06,-0.124
-1.000E-06,-0.444
-9.900E-07,-0.416
-9.800E-07,-0.088
-9.700E-07,0.260
-9.600E-07,0.436
-9.500E-07,0.356
-9.400E-07,0.128
-9.300E-07,-0.072
-9.200E-07,-0.160
-9.100E-07,-0.060
-9.000E-07,0.128
-8.900E-07,0.272
-8.800E-07,0.312
-8.700E-07,0.220
-8.600E-07,0.044
-8.500E-07,-0.188
-8.400E-07,-0.356
-8.300E-07,-0.512
-8.200E-07,-0.440
-8.100E-07,-0.236
-8.000E-07,0.024
-7.900E-07,0.268
-7.800E-07,0.392
-7.700E-07,0.228
-7.600E-07,-0.200
-7.500E-07,-0.440
-7.400E-07,-0.392
-7.300E-07,-0.064
-7.200E-07,0.232
-7.100E-07,0.452
-7.000E-07,0.316
-6.900E-07,0.124
-6.800E-07,-0.108
-6.700E-07,-0.136
-6.600E-07,0.004
-6.500E-07,0.228
-6.400E-07,0.356
-6.300E-07,0.296
-6.200E-07,0.124
-6.100E-07,-0.144
-6.000E-07,-0.360
-5.900E-07,-0.512
-5.800E-07,-0.412
-5.700E-07,-0.136
-5.600E-07,0.136
-5.500E-07,0.256
-5.400E-07,0.356
-5.300E-07,0.228
-5.200E-07,-0.152
-5.100E-07,-0.468
-5.000E-07,-0.436
-4.900E-07,-0.156
-4.800E-07,0.156
-4.700E-07,0.384
-4.600E-07,0.356
-4.500E-07,0.216
-4.400E-07,-0.048
-4.300E-07,-0.212
-4.200E-07,-0.240
-4.100E-07,-0.052
-4.000E-07,0.164
-3.900E-07,0.328
-3.800E-07,0.368
-3.700E-07,0.188
-3.600E-07,-0.056
-3.500E-07,-0.232
-3.400E-07,-0.256
-3.300E-07,-0.112
-3.200E-07,0.108
-3.100E-07,0.308
-3.000E-07,0.368
-2.900E-07,0.276
-2.800E-07,0.100
-2.700E-07,-0.044
-2.600E-07,-0.076
-2.500E-07,0.032
-2.400E-07,0.228
-2.300E-07,0.376
-2.200E-07,0.420
-2.100E-07,0.328
-2.000E-07,0.196
-1.900E-07,0.076
-1.800E-07,0.016
-1.700E-07,0.064
-1.600E-07,0.192
-1.500E-07,0.308
-1.400E-07,0.356
-1.300E-07,0.332
-1.200E-07,0.220
-1.100E-07,0.108
-1.000E-07,0.016
-9.000E-08,0.040
-8.000E-08,0.144
-7.000E-08,0.288
-6.000E-08,0.156
-5.000E-08,-0.512
-4.000E-08,-0.512
-3.000E-08,-0.512
-2.000E-08,-0.508
-1.000E-08,0.076
0.000E+00,0.540
1.000E-08,0.540
2.000E-08,0.544
3.000E-08,-0.132
4.000E-08,-0.512
5.000E-08,-0.512
6.000E-08,-0.432
7.000E-08,0.536
8.000E-08,0.540
9.000E-08,0.536
1.000E-07,0.536
1.100E-07,0.040
1.200E-07,-0.512
1.300E-07,-0.508
1.400E-07,-0.308
1.500E-07,0.256
1.600E-07,0.540
1.700E-07,0.540
1.800E-07,0.540
1.900E-07,0.076
2.000E-07,-0.424
2.100E-07,-0.512
2.200E-07,-0.512
2.300E-07,-0.276
2.400E-07,0.124
2.500E-07,0.212
2.600E-07,0.212
2.700E-07,0.056
2.800E-07,-0.224
2.900E-07,-0.512
3.000E-07,-0.508
3.100E-07,-0.240
3.200E-07,0.132
3.300E-07,0.540
3.400E-07,0.544
3.500E-07,0.516
3.600E-07,0.060
3.700E-07,-0.296
3.800E-07,-0.380
3.900E-07,-0.228
4.000E-07,0.124
4.100E-07,0.512
4.200E-07,0.540
4.300E-07,0.536
4.400E-07,0.320
4.500E-07,0.048
4.600E-07,-0.100
4.700E-07,-0.024
4.800E-07,0.192
4.900E-07,0.440
5.000E-07,0.540
5.100E-07,0.532
5.200E-07,0.340
5.300E-07,0.136
5.400E-07,-0.008
5.500E-07,0.016
5.600E-07,0.148
5.700E-07,0.336
5.800E-07,0.456
5.900E-07,0.460
6.000E-07,0.356
6.100E-07,0.196
6.200E-07,0.056
6.300E-07,0.016
6.400E-07,0.088
6.500E-07,0.232
6.600E-07,0.360
6.700E-07,0.400
6.800E-07,0.340
6.900E-07,0.228
7.000E-07,0.124
7.100E-07,0.088
7.200E-07,0.128
7.300E-07,0.232
7.400E-07,0.332
7.500E-07,0.388
7.600E-07,0.360
7.700E-07,0.276
7.800E-07,0.192
7.900E-07,0.144
8.000E-07,0.168
8.100E-07,0.228
8.200E-07,0.300
8.300E-07,0.336
8.400E-07,0.336
8.500E-07,0.292
8.600E-07,0.236
8.700E-07,0.196
8.800E-07,0.188
8.900E-07,0.208
9.000E-07,0.268
9.100E-07,0.312
9.200E-07,0.320
9.300E-07,0.296
9.400E-07,0.248
9.500E-07,0.212
9.600E-07,0.192
9.700E-07,0.200
9.800E-07,0.236
9.900E-07,0.276
1.000E-06,0.296
1.010E-06,0.288
1.020E-06,0.264
1.030E-06,0.228
1.040E-06,0.212
1.050E-06,0.208
1.060E-06,0.228
1.070E-06,0.252
1.080E-06,0.276
1.090E-06,0.288
1.100E-06,0.276
1.110E-06,0.256
1.120E-06,0.232
1.130E-06,0.220
1.140E-06,0.224
1.150E-06,0.244
1.160E-06,0.264
1.170E-06,0.272
1.180E-06,0.276
1.190E-06,0.264
1.200E-06,0.244
1.210E-06,0.236
1.220E-06,0.228
1.230E-06,0.236
1.240E-06,0.256
1.250E-06,0.268
1.260E-06,0.272
1.270E-06,0.272
1.280E-06,0.256
1.290E-06,0.244
1.300E-06,0.236
1.310E-06,0.232
1.320E-06,0.244
1.330E-06,0.256
1.340E-06,0.260
1.350E-06,0.256
1.360E-06,0.252
1.370E-06,0.240
1.380E-06,0.240
1.390E-06,0.240
1.400E-06,0.244
1.410E-06,0.252
1.420E-06,0.260
1.430E-06,0.260
1.440E-06,0.256
1.450E-06,0.244
1.460E-06,0.240
1.470E-06,0.240
1.480E-06,0.236
1.490E-06,0.248
1.500E-06,0.252
1.510E-06,0.252
1.520E-06,0.240
1.530E-06,0.236
1.540E-06,0.236
1.550E-06,0.232
1.560E-06,0.240
1.570E-06,0.240
1.580E-06,0.240
1.590E-06,0.244
1.600E-06,0.244
1.610E-06,0.240
1.620E-06,0.228
1.630E-06,0.228
1.640E-06,0.228
1.650E-06,0.232
1.660E-06,0.236
1.670E-06,0.232
1.680E-06,0.232
1.690E-06,0.220
1.700E-06,0.216
1.710E-06,0.216
1.720E-06,0.216
1.730E-06,0.220
1.740E-06,0.224
1.750E-06,0.232
1.760E-06,0.232
1.770E-06,0.224
1.780E-06,0.220
1.790E-06,0.212
1.800E-06,0.216
1.810E-06,0.228
1.820E-06,0.232
1.830E-06,0.236
1.840E-06,0.236
1.850E-06,0.232
1.860E-06,0.224
1.870E-06,0.220
1.880E-06,0.228
1.890E-06,0.224
1.900E-06,0.228
1.910E-06,0.224
1.920E-06,0.228
1.930E-06,0.228
1.940E-06,0.224
1.950E-06,0.216
1.960E-06,0.216
1.970E-06,0.220
1.980E-06,0.216
1.990E-06,0.224
2.000E-06,0.224
2.010E-06,0.224
2.020E-06,0.212
2.030E-06,0.208
2.040E-06,0.200
2.050E-06,0.192
2.060E-06,0.208
2.070E-06,0.224
2.080E-06,0.244
2.090E-06,0.256
2.100E-06,0.240
2.110E-06,0.212
2.120E-06,0.188
2.130E-06,0.180
2.140E-06,0.188
2.150E-06,0.208
2.160E-06,0.232
2.170E-06,0.240
2.180E-06,0.240
2.190E-06,0.224
2.200E-06,0.204
2.210E-06,0.188
2.220E-06,0.184
2.230E-06,0.192
2.240E-06,0.212
2.250E-06,0.224
2.260E-06,0.236
2.270E-06,0.228
2.280E-06,0.220
2.290E-06,0.192
2.300E-06,0.184
2.310E-06,0.180
2.320E-06,0.192
2.330E-06,0.208
2.340E-06,0.216
2.350E-06,0.224
2.360E-06,0.208
2.370E-06,0.204
2.380E-06,0.192
2.390E-06,0.180
2.400E-06,0.192
2.410E-06,0.196
2.420E-06,0.212
2.430E-06,0.220
2.440E-06,0.212
2.450E-06,0.212
2.460E-06,0.200
2.470E-06,0.188
2.480E-06,0.180
2.490E-06,0.176
2.500E-06,0.188
2.510E-06,0.200
2.520E-06,0.200
2.530E-06,0.200
2.540E-06,0.196
2.550E-06,0.196
2.560E-06,0.184
2.570E-06,0.176
2.580E-06,0.184
2.590E-06,0.188
2.600E-06,0.192
2.610E-06,0.196
2.620E-06,0.188
2.630E-06,0.188
2.640E-06,0.176
2.650E-06,0.160
2.660E-06,0.156
2.670E-06,0.164
2.680E-06,0.176
2.690E-06,0.184
2.700E-06,0.192
2.710E-06,0.192
2.720E-06,0.180
2.730E-06,0.168
2.740E-06,0.152
2.750E-06,0.156
2.760E-06,0.168
2.770E-06,0.184
2.780E-06,0.192
2.790E-06,0.188
2.800E-06,0.184
2.810E-06,0.176
2.820E-06,0.168
2.830E-06,0.160
2.840E-06,0.168
2.850E-06,0.176
2.860E-06,0.180
2.870E-06,0.172
2.880E-06,0.172
2.890E-06,0.172
2.900E-06,0.168
2.910E-06,0.168
2.920E-06,0.160
2.930E-06,0.168
2.940E-06,0.172
2.950E-06,0.176
2.960E-06,0.172
2.970E-06,0.168
2.980E-06,0.160
2.990E-06,0.148
3.000E-06,0.156
3.010E-06,0.164
3.020E-06,0.176
3.030E-06,0.180
3.040E-06,0.176
3.050E-06,0.168
3.060E-06,0.156
3.070E-06,0.156
3.080E-06,0.160
3.090E-06,0.164
3.100E-06,0.168
3.110E-06,0.164
3.120E-06,0.164
3.130E-06,0.168
3.140E-06,0.164
3.150E-06,0.160
3.160E-06,0.156
3.170E-06,0.152
3.180E-06,0.156
3.190E-06,0.160
3.200E-06,0.156
3.210E-06,0.152
3.220E-06,0.156
3.230E-06,0.152
3.240E-06,0.156
3.250E-06,0.156
3.260E-06,0.156
3.270E-06,0.160
3.280E-06,0.156
3.290E-06,0.160
3.300E-06,0.156
3.310E-06,0.152
3.320E-06,0.148
3.330E-06,0.148
