mediciones/Mediciones filtradas (saque las feas)/5-15/0/WaveData4644.csv

#timebase=2000000(ps)
,#voltbase=100000(mv/100)
#size=4000
-8.400E-06,-0.004
-8.390E-06,-0.004
-8.380E-06,0.004
-8.370E-06,0.004
-8.360E-06,0.004
-8.350E-06,0.008
-8.340E-06,0.000
-8.330E-06,0.008
-8.320E-06,0.000
-8.310E-06,0.004
-8.300E-06,0.000
-8.290E-06,0.000
-8.280E-06,0.000
-8.270E-06,0.004
-8.260E-06,0.004
-8.250E-06,0.004
-8.240E-06,0.000
-8.230E-06,-0.004
-8.220E-06,0.000
-8.210E-06,0.000
-8.200E-06,0.008
-8.190E-06,0.000
-8.180E-06,0.008
-8.170E-06,0.004
-8.160E-06,0.000
-8.150E-06,0.004
-8.140E-06,0.000
-8.130E-06,0.000
-8.120E-06,0.004
-8.110E-06,0.004
-8.100E-06,0.004
-8.090E-06,-0.004
-8.080E-06,0.000
-8.070E-06,0.000
-8.060E-06,0.004
-8.050E-06,0.004
-8.040E-06,0.008
-8.030E-06,0.000
-8.020E-06,0.004
-8.010E-06,0.000
-8.000E-06,0.004
-7.990E-06,-0.004
-7.980E-06,0.004
-7.970E-06,0.004
-7.960E-06,0.004
-7.950E-06,0.008
-7.940E-06,0.008
-7.930E-06,-0.008
-7.920E-06,0.000
-7.910E-06,0.000
-7.900E-06,0.004
-7.890E-06,0.012
-7.880E-06,0.012
-7.870E-06,0.000
-7.860E-06,-0.004
-7.850E-06,0.000
-7.840E-06,-0.004
-7.830E-06,0.000
-7.820E-06,0.004
-7.810E-06,0.008
-7.800E-06,0.008
-7.790E-06,0.008
-7.780E-06,0.000
-7.770E-06,-0.004
-7.760E-06,0.000
-7.750E-06,-0.004
-7.740E-06,0.004
-7.730E-06,0.004
-7.720E-06,0.004
-7.710E-06,0.008
-7.700E-06,0.008
-7.690E-06,0.004
-7.680E-06,0.000
-7.670E-06,0.000
-7.660E-06,-0.004
-7.650E-06,-0.004
-7.640E-06,0.008
-7.630E-06,0.004
-7.620E-06,0.004
-7.610E-06,0.008
-7.600E-06,0.000
-7.590E-06,0.000
-7.580E-06,-0.004
-7.570E-06,0.004
-7.560E-06,0.008
-7.550E-06,0.004
-7.540E-06,0.008
-7.530E-06,0.004
-7.520E-06,0.000
-7.510E-06,-0.004
-7.500E-06,-0.008
-7.490E-06,-0.004
-7.480E-06,0.004
-7.470E-06,0.012
-7.460E-06,0.004
-7.450E-06,-0.004
-7.440E-06,0.000
-7.430E-06,-0.004
-7.420E-06,-0.004
-7.410E-06,0.004
-7.400E-06,0.004
-7.390E-06,0.008
-7.380E-06,0.004
-7.370E-06,0.004
-7.360E-06,0.000
-7.350E-06,0.000
-7.340E-06,0.004
-7.330E-06,0.004
-7.320E-06,0.004
-7.310E-06,0.000
-7.300E-06,0.008
-7.290E-06,0.000
-7.280E-06,0.004
-7.270E-06,0.004
-7.260E-06,0.000
-7.250E-06,0.008
-7.240E-06,0.004
-7.230E-06,0.000
-7.220E-06,-0.004
-7.210E-06,0.000
-7.200E-06,0.000
-7.190E-06,0.008
-7.180E-06,0.008
-7.170E-06,0.008
-7.160E-06,0.008
-7.150E-06,0.008
-7.140E-06,-0.004
-7.130E-06,-0.004
-7.120E-06,0.000
-7.110E-06,0.008
-7.100E-06,-0.004
-7.090E-06,-0.004
-7.080E-06,0.004
-7.070E-06,0.008
-7.060E-06,0.012
-7.050E-06,0.000
-7.040E-06,-0.004
-7.030E-06,0.000
-7.020E-06,0.000
-7.010E-06,0.004
-7.000E-06,0.004
-6.990E-06,0.012
-6.980E-06,0.000
-6.970E-06,0.000
-6.960E-06,0.000
-6.950E-06,-0.004
-6.940E-06,0.004
-6.930E-06,0.000
-6.920E-06,0.008
-6.910E-06,0.004
-6.900E-06,-0.004
-6.890E-06,-0.004
-6.880E-06,0.004
-6.870E-06,0.000
-6.860E-06,0.004
-6.850E-06,0.008
-6.840E-06,0.000
-6.830E-06,0.004
-6.820E-06,0.004
-6.810E-06,0.004
-6.800E-06,0.004
-6.790E-06,0.008
-6.780E-06,0.004
-6.770E-06,0.016
-6.760E-06,0.000
-6.750E-06,0.000
-6.740E-06,0.004
-6.730E-06,-0.004
-6.720E-06,0.012
-6.710E-06,0.012
-6.700E-06,0.008
-6.690E-06,-0.004
-6.680E-06,-0.004
-6.670E-06,-0.004
-6.660E-06,0.008
-6.650E-06,0.012
-6.640E-06,0.008
-6.630E-06,0.000
-6.620E-06,0.000
-6.610E-06,-0.004
-6.600E-06,-0.004
-6.590E-06,0.008
-6.580E-06,0.008
-6.570E-06,0.012
-6.560E-06,0.008
-6.550E-06,0.004
-6.540E-06,0.000
-6.530E-06,0.004
-6.520E-06,0.004
-6.510E-06,0.008
-6.500E-06,0.008
-6.490E-06,0.004
-6.480E-06,0.012
-6.470E-06,0.004
-6.460E-06,0.004
-6.450E-06,-0.004
-6.440E-06,-0.008
-6.430E-06,-0.008
-6.420E-06,0.000
-6.410E-06,0.008
-6.400E-06,0.008
-6.390E-06,0.008
-6.380E-06,0.004
-6.370E-06,0.004
-6.360E-06,0.004
-6.350E-06,-0.004
-6.340E-06,0.000
-6.330E-06,0.008
-6.320E-06,0.004
-6.310E-06,0.008
-6.300E-06,0.000
-6.290E-06,0.000
-6.280E-06,-0.004
-6.270E-06,0.000
-6.260E-06,0.004
-6.250E-06,0.004
-6.240E-06,0.004
-6.230E-06,0.008
-6.220E-06,0.004
-6.210E-06,0.004
-6.200E-06,-0.004
-6.190E-06,0.000
-6.180E-06,-0.004
-6.170E-06,0.004
-6.160E-06,0.004
-6.150E-06,0.004
-6.140E-06,0.008
-6.130E-06,0.000
-6.120E-06,-0.004
-6.110E-06,-0.004
-6.100E-06,0.000
-6.090E-06,0.008
-6.080E-06,0.008
-6.070E-06,0.004
-6.060E-06,0.000
-6.050E-06,0.000
-6.040E-06,0.000
-6.030E-06,0.000
-6.020E-06,0.004
-6.010E-06,0.004
-6.000E-06,0.008
-5.990E-06,0.008
-5.980E-06,-0.004
-5.970E-06,0.000
-5.960E-06,0.004
-5.950E-06,0.004
-5.940E-06,0.008
-5.930E-06,0.008
-5.920E-06,0.004
-5.910E-06,0.000
-5.900E-06,0.000
-5.890E-06,0.004
-5.880E-06,0.000
-5.870E-06,0.004
-5.860E-06,0.004
-5.850E-06,0.000
-5.840E-06,0.004
-5.830E-06,0.004
-5.820E-06,0.004
-5.810E-06,0.000
-5.800E-06,0.000
-5.790E-06,0.004
-5.780E-06,0.004
-5.770E-06,0.004
-5.760E-06,0.004
-5.750E-06,0.008
-5.740E-06,0.008
-5.730E-06,0.004
-5.720E-06,0.008
-5.710E-06,0.004
-5.700E-06,0.000
-5.690E-06,0.000
-5.680E-06,0.000
-5.670E-06,0.004
-5.660E-06,0.008
-5.650E-06,0.004
-5.640E-06,0.004
-5.630E-06,-0.004
-5.620E-06,0.000
-5.610E-06,0.004
-5.600E-06,0.000
-5.590E-06,0.000
-5.580E-06,-0.004
-5.570E-06,-0.004
-5.560E-06,0.000
-5.550E-06,0.008
-5.540E-06,0.008
-5.530E-06,0.000
-5.520E-06,0.000
-5.510E-06,0.000
-5.500E-06,0.000
-5.490E-06,0.000
-5.480E-06,0.008
-5.470E-06,0.004
-5.460E-06,0.004
-5.450E-06,0.004
-5.440E-06,0.000
-5.430E-06,0.000
-5.420E-06,-0.004
-5.410E-06,0.004
-5.400E-06,0.004
-5.390E-06,0.004
-5.380E-06,0.004
-5.370E-06,0.004
-5.360E-06,0.000
-5.350E-06,0.004
-5.340E-06,-0.004
-5.330E-06,0.004
-5.320E-06,0.004
-5.310E-06,0.004
-5.300E-06,0.000
-5.290E-06,0.000
-5.280E-06,0.004
-5.270E-06,0.004
-5.260E-06,0.004
-5.250E-06,0.000
-5.240E-06,0.000
-5.230E-06,0.004
-5.220E-06,-0.004
-5.210E-06,0.000
-5.200E-06,0.004
-5.190E-06,0.004
-5.180E-06,0.008
-5.170E-06,0.000
-5.160E-06,0.000
-5.150E-06,0.004
-5.140E-06,0.000
-5.130E-06,0.004
-5.120E-06,0.008
-5.110E-06,0.004
-5.100E-06,0.004
-5.090E-06,0.004
-5.080E-06,0.004
-5.070E-06,0.008
-5.060E-06,0.004
-5.050E-06,0.008
-5.040E-06,0.000
-5.030E-06,-0.004
-5.020E-06,-0.004
-5.010E-06,-0.004
-5.000E-06,-0.004
-4.990E-06,0.008
-4.980E-06,0.008
-4.970E-06,0.012
-4.960E-06,0.004
-4.950E-06,0.000
-4.940E-06,-0.008
-4.930E-06,-0.008
-4.920E-06,-0.004
-4.910E-06,0.000
-4.900E-06,0.012
-4.890E-06,0.012
-4.880E-06,0.016
-4.870E-06,0.004
-4.860E-06,0.000
-4.850E-06,-0.008
-4.840E-06,-0.012
-4.830E-06,-0.008
-4.820E-06,-0.004
-4.810E-06,0.012
-4.800E-06,0.016
-4.790E-06,0.012
-4.780E-06,0.000
-4.770E-06,0.000
-4.760E-06,-0.008
-4.750E-06,-0.008
-4.740E-06,0.004
-4.730E-06,0.012
-4.720E-06,0.008
-4.710E-06,0.012
-4.700E-06,0.008
-4.690E-06,0.000
-4.680E-06,-0.004
-4.670E-06,-0.004
-4.660E-06,0.004
-4.650E-06,0.008
-4.640E-06,0.004
-4.630E-06,0.004
-4.620E-06,-0.004
-4.610E-06,0.000
-4.600E-06,-0.008
-4.590E-06,0.008
-4.580E-06,0.004
-4.570E-06,0.008
-4.560E-06,0.008
-4.550E-06,0.004
-4.540E-06,0.004
-4.530E-06,0.000
-4.520E-06,0.008
-4.510E-06,0.000
-4.500E-06,0.004
-4.490E-06,0.004
-4.480E-06,0.004
-4.470E-06,0.000
-4.460E-06,0.004
-4.450E-06,0.004
-4.440E-06,0.000
-4.430E-06,0.000
-4.420E-06,-0.004
-4.410E-06,0.004
-4.400E-06,0.004
-4.390E-06,0.004
-4.380E-06,0.000
-4.370E-06,0.000
-4.360E-06,0.008
-4.350E-06,0.008
-4.340E-06,0.004
-4.330E-06,0.000
-4.320E-06,0.000
-4.310E-06,0.004
-4.300E-06,0.004
-4.290E-06,0.000
-4.280E-06,0.004
-4.270E-06,0.000
-4.260E-06,0.008
-4.250E-06,0.008
-4.240E-06,0.008
-4.230E-06,0.000
-4.220E-06,0.000
-4.210E-06,0.000
-4.200E-06,0.004
-4.190E-06,0.000
-4.180E-06,0.004
-4.170E-06,0.008
-4.160E-06,0.008
-4.150E-06,0.008
-4.140E-06,0.000
-4.130E-06,-0.004
-4.120E-06,-0.004
-4.110E-06,0.000
-4.100E-06,0.008
-4.090E-06,0.008
-4.080E-06,0.012
-4.070E-06,0.012
-4.060E-06,0.004
-4.050E-06,0.000
-4.040E-06,0.000
-4.030E-06,-0.004
-4.020E-06,-0.008
-4.010E-06,0.012
-4.000E-06,0.012
-3.990E-06,0.004
-3.980E-06,0.004
-3.970E-06,-0.004
-3.960E-06,-0.004
-3.950E-06,-0.004
-3.940E-06,0.000
-3.930E-06,0.008
-3.920E-06,0.008
-3.910E-06,0.008
-3.900E-06,0.000
-3.890E-06,-0.004
-3.880E-06,0.000
-3.870E-06,0.004
-3.860E-06,0.000
-3.850E-06,0.000
-3.840E-06,0.004
-3.830E-06,0.000
-3.820E-06,0.004
-3.810E-06,0.004
-3.800E-06,0.004
-3.790E-06,0.008
-3.780E-06,0.008
-3.770E-06,0.000
-3.760E-06,0.000
-3.750E-06,0.000
-3.740E-06,0.008
-3.730E-06,0.008
-3.720E-06,0.004
-3.710E-06,0.004
-3.700E-06,0.004
-3.690E-06,0.000
-3.680E-06,-0.004
-3.670E-06,0.000
-3.660E-06,0.000
-3.650E-06,0.008
-3.640E-06,0.012
-3.630E-06,0.012
-3.620E-06,0.000
-3.610E-06,-0.004
-3.600E-06,-0.004
-3.590E-06,-0.004
-3.580E-06,0.004
-3.570E-06,0.004
-3.560E-06,0.008
-3.550E-06,0.004
-3.540E-06,0.004
-3.530E-06,0.004
-3.520E-06,0.004
-3.510E-06,0.008
-3.500E-06,0.008
-3.490E-06,0.008
-3.480E-06,0.004
-3.470E-06,0.008
-3.460E-06,0.004
-3.450E-06,0.004
-3.440E-06,0.012
-3.430E-06,0.004
-3.420E-06,0.008
-3.410E-06,0.012
-3.400E-06,0.012
-3.390E-06,0.000
-3.380E-06,-0.004
-3.370E-06,0.000
-3.360E-06,0.000
-3.350E-06,0.004
-3.340E-06,0.012
-3.330E-06,0.004
-3.320E-06,0.004
-3.310E-06,0.004
-3.300E-06,0.000
-3.290E-06,0.004
-3.280E-06,0.012
-3.270E-06,0.008
-3.260E-06,0.016
-3.250E-06,0.008
-3.240E-06,0.012
-3.230E-06,0.008
-3.220E-06,0.000
-3.210E-06,-0.004
-3.200E-06,0.004
-3.190E-06,0.012
-3.180E-06,0.024
-3.170E-06,0.016
-3.160E-06,0.008
-3.150E-06,-0.004
-3.140E-06,-0.008
-3.130E-06,-0.008
-3.120E-06,0.004
-3.110E-06,0.024
-3.100E-06,0.040
-3.090E-06,0.036
-3.080E-06,0.016
-3.070E-06,-0.004
-3.060E-06,-0.020
-3.050E-06,-0.008
-3.040E-06,0.016
-3.030E-06,0.044
-3.020E-06,0.044
-3.010E-06,0.024
-3.000E-06,-0.016
-2.990E-06,-0.064
-2.980E-06,-0.064
-2.970E-06,-0.032
-2.960E-06,0.004
-2.950E-06,0.036
-2.940E-06,0.040
-2.930E-06,0.016
-2.920E-06,-0.004
-2.910E-06,-0.020
-2.900E-06,-0.020
-2.890E-06,-0.012
-2.880E-06,-0.004
-2.870E-06,0.012
-2.860E-06,0.012
-2.850E-06,0.016
-2.840E-06,0.008
-2.830E-06,0.008
-2.820E-06,-0.004
-2.810E-06,-0.008
-2.800E-06,-0.016
-2.790E-06,-0.008
-2.780E-06,0.004
-2.770E-06,0.020
-2.760E-06,0.028
-2.750E-06,0.024
-2.740E-06,0.008
-2.730E-06,-0.012
-2.720E-06,-0.024
-2.710E-06,-0.012
-2.700E-06,0.012
-2.690E-06,0.032
-2.680E-06,0.032
-2.670E-06,0.028
-2.660E-06,0.008
-2.650E-06,-0.012
-2.640E-06,-0.016
-2.630E-06,-0.008
-2.620E-06,0.016
-2.610E-06,0.028
-2.600E-06,0.032
-2.590E-06,0.016
-2.580E-06,0.004
-2.570E-06,-0.008
-2.560E-06,-0.004
-2.550E-06,0.004
-2.540E-06,0.024
-2.530E-06,0.024
-2.520E-06,0.004
-2.510E-06,-0.008
-2.500E-06,-0.008
-2.490E-06,-0.004
-2.480E-06,0.020
-2.470E-06,0.028
-2.460E-06,0.028
-2.450E-06,0.024
-2.440E-06,0.004
-2.430E-06,-0.004
-2.420E-06,0.008
-2.410E-06,0.016
-2.400E-06,0.028
-2.390E-06,0.020
-2.380E-06,0.012
-2.370E-06,0.008
-2.360E-06,0.016
-2.350E-06,0.028
-2.340E-06,0.044
-2.330E-06,0.040
-2.320E-06,0.024
-2.310E-06,0.012
-2.300E-06,0.004
-2.290E-06,0.020
-2.280E-06,0.044
-2.270E-06,0.080
-2.260E-06,0.088
-2.250E-06,0.088
-2.240E-06,0.064
-2.230E-06,0.056
-2.220E-06,0.008
-2.210E-06,-0.064
-2.200E-06,-0.108
-2.190E-06,-0.112
-2.180E-06,-0.104
-2.170E-06,-0.052
-2.160E-06,0.004
-2.150E-06,0.044
-2.140E-06,0.044
-2.130E-06,0.008
-2.120E-06,-0.024
-2.110E-06,-0.072
-2.100E-06,-0.032
-2.090E-06,-0.020
-2.080E-06,-0.004
-2.070E-06,-0.012
-2.060E-06,0.000
-2.050E-06,0.008
-2.040E-06,0.016
-2.030E-06,0.020
-2.020E-06,-0.016
-2.010E-06,-0.024
-2.000E-06,-0.028
-1.990E-06,-0.004
-1.980E-06,0.028
-1.970E-06,0.060
-1.960E-06,0.040
-1.950E-06,0.004
-1.940E-06,-0.028
-1.930E-06,-0.056
-1.920E-06,-0.028
-1.910E-06,0.012
-1.900E-06,0.060
-1.890E-06,0.056
-1.880E-06,0.036
-1.870E-06,0.000
-1.860E-06,-0.028
-1.850E-06,-0.024
-1.840E-06,-0.004
-1.830E-06,0.036
-1.820E-06,0.068
-1.810E-06,0.060
-1.800E-06,0.028
-1.790E-06,-0.008
-1.780E-06,-0.032
-1.770E-06,-0.032
-1.760E-06,0.004
-1.750E-06,0.052
-1.740E-06,0.076
-1.730E-06,0.072
-1.720E-06,0.028
-1.710E-06,-0.012
-1.700E-06,-0.040
-1.690E-06,-0.052
-1.680E-06,-0.028
-1.670E-06,0.008
-1.660E-06,0.036
-1.650E-06,0.048
-1.640E-06,0.036
-1.630E-06,0.012
-1.620E-06,-0.020
-1.610E-06,-0.044
-1.600E-06,-0.024
-1.590E-06,0.024
-1.580E-06,0.080
-1.570E-06,0.108
-1.560E-06,0.092
-1.550E-06,0.040
-1.540E-06,-0.012
-1.530E-06,-0.040
-1.520E-06,-0.044
-1.510E-06,0.008
-1.500E-06,0.072
-1.490E-06,0.096
-1.480E-06,0.088
-1.470E-06,0.056
-1.460E-06,0.024
-1.450E-06,-0.020
-1.440E-06,-0.024
-1.430E-06,-0.004
-1.420E-06,0.024
-1.410E-06,0.068
-1.400E-06,0.076
-1.390E-06,0.056
-1.380E-06,0.008
-1.370E-06,-0.008
-1.360E-06,-0.004
-1.350E-06,0.036
-1.340E-06,0.088
-1.330E-06,0.124
-1.320E-06,0.120
-1.310E-06,0.092
-1.300E-06,0.028
-1.290E-06,-0.004
-1.280E-06,-0.012
-1.270E-06,0.028
-1.260E-06,0.080
-1.250E-06,0.124
-1.240E-06,0.152
-1.230E-06,0.160
-1.220E-06,0.136
-1.210E-06,0.128
-1.200E-06,0.100
-1.190E-06,0.048
-1.180E-06,0.032
-1.170E-06,-0.004
-1.160E-06,-0.040
-1.150E-06,-0.056
-1.140E-06,-0.112
-1.130E-06,-0.148
-1.120E-06,-0.200
-1.110E-06,-0.200
-1.100E-06,-0.144
-1.090E-06,-0.068
-1.080E-06,0.012
-1.070E-06,0.060
-1.060E-06,0.072
-1.050E-06,-0.004
-1.040E-06,-0.076
-1.030E-06,-0.160
-1.020E-06,-0.184
-1.010E-06,-0.136
-1.000E-06,-0.112
-9.900E-07,-0.056
-9.800E-07,0.008
-9.700E-07,0.060
-9.600E-07,0.048
-9.500E-07,0.012
-9.400E-07,-0.008
-9.300E-07,-0.004
-9.200E-07,0.004
-9.100E-07,0.036
-9.000E-07,0.096
-8.900E-07,0.128
-8.800E-07,0.164
-8.700E-07,0.140
-8.600E-07,0.132
-8.500E-07,0.140
-8.400E-07,0.164
-8.300E-07,0.132
-8.200E-07,0.088
-8.100E-07,-0.004
-8.000E-07,-0.104
-7.900E-07,-0.188
-7.800E-07,-0.228
-7.700E-07,-0.192
-7.600E-07,-0.088
-7.500E-07,0.008
-7.400E-07,0.100
-7.300E-07,0.116
-7.200E-07,0.056
-7.100E-07,-0.060
-7.000E-07,-0.180
-6.900E-07,-0.156
-6.800E-07,-0.032
-6.700E-07,0.148
-6.600E-07,0.200
-6.500E-07,0.140
-6.400E-07,0.036
-6.300E-07,-0.040
-6.200E-07,-0.092
-6.100E-07,-0.056
-6.000E-07,0.044
-5.900E-07,0.192
-5.800E-07,0.260
-5.700E-07,0.228
-5.600E-07,0.108
-5.500E-07,-0.052
-5.400E-07,-0.136
-5.300E-07,-0.080
-5.200E-07,0.064
-5.100E-07,0.192
-5.000E-07,0.220
-4.900E-07,0.148
-4.800E-07,0.008
-4.700E-07,-0.080
-4.600E-07,-0.120
-4.500E-07,-0.056
-4.400E-07,0.064
-4.300E-07,0.192
-4.200E-07,0.256
-4.100E-07,0.220
-4.000E-07,0.128
-3.900E-07,0.048
-3.800E-07,0.008
-3.700E-07,0.032
-3.600E-07,0.128
-3.500E-07,0.196
-3.400E-07,0.244
-3.300E-07,0.244
-3.200E-07,0.188
-3.100E-07,0.116
-3.000E-07,0.080
-2.900E-07,0.096
-2.800E-07,0.156
-2.700E-07,0.220
-2.600E-07,0.244
-2.500E-07,0.236
-2.400E-07,0.188
-2.300E-07,0.140
-2.200E-07,0.116
-2.100E-07,0.112
-2.000E-07,0.148
-1.900E-07,0.192
-1.800E-07,0.236
-1.700E-07,0.244
-1.600E-07,0.220
-1.500E-07,0.184
-1.400E-07,0.132
-1.300E-07,0.156
-1.200E-07,0.156
-1.100E-07,0.160
-1.000E-07,0.076
-9.000E-08,0.040
-8.000E-08,0.028
-7.000E-08,-0.040
-6.000E-08,-0.252
-5.000E-08,-0.512
-4.000E-08,-0.512
-3.000E-08,-0.512
-2.000E-08,-0.464
-1.000E-08,0.064
0.000E+00,0.540
1.000E-08,0.540
2.000E-08,0.296
3.000E-08,-0.372
4.000E-08,-0.508
5.000E-08,-0.508
6.000E-08,-0.196
7.000E-08,0.464
8.000E-08,0.540
9.000E-08,0.540
1.000E-07,0.152
1.100E-07,-0.204
1.200E-07,-0.508
1.300E-07,-0.508
1.400E-07,-0.400
1.500E-07,-0.068
1.600E-07,0.220
1.700E-07,0.320
1.800E-07,0.244
1.900E-07,-0.020
2.000E-07,-0.192
2.100E-07,-0.264
2.200E-07,-0.152
2.300E-07,0.096
2.400E-07,0.388
2.500E-07,0.376
2.600E-07,0.244
2.700E-07,0.008
2.800E-07,-0.072
2.900E-07,-0.084
3.000E-07,-0.004
3.100E-07,0.136
3.200E-07,0.212
3.300E-07,0.292
3.400E-07,0.244
3.500E-07,0.192
3.600E-07,0.048
3.700E-07,0.020
3.800E-07,0.060
3.900E-07,0.172
4.000E-07,0.300
4.100E-07,0.384
4.200E-07,0.348
4.300E-07,0.240
4.400E-07,0.156
4.500E-07,0.104
4.600E-07,0.156
4.700E-07,0.224
4.800E-07,0.292
4.900E-07,0.312
5.000E-07,0.296
5.100E-07,0.248
5.200E-07,0.212
5.300E-07,0.196
5.400E-07,0.208
5.500E-07,0.256
5.600E-07,0.280
5.700E-07,0.304
5.800E-07,0.280
5.900E-07,0.260
6.000E-07,0.224
6.100E-07,0.204
6.200E-07,0.200
6.300E-07,0.216
6.400E-07,0.240
6.500E-07,0.256
6.600E-07,0.256
6.700E-07,0.252
6.800E-07,0.244
6.900E-07,0.248
7.000E-07,0.252
7.100E-07,0.248
7.200E-07,0.244
7.300E-07,0.240
7.400E-07,0.224
7.500E-07,0.220
7.600E-07,0.224
7.700E-07,0.240
7.800E-07,0.240
7.900E-07,0.236
8.000E-07,0.228
8.100E-07,0.220
8.200E-07,0.220
8.300E-07,0.216
8.400E-07,0.220
8.500E-07,0.212
8.600E-07,0.208
8.700E-07,0.208
8.800E-07,0.232
8.900E-07,0.252
9.000E-07,0.272
9.100E-07,0.288
9.200E-07,0.280
9.300E-07,0.240
9.400E-07,0.208
9.500E-07,0.204
9.600E-07,0.224
9.700E-07,0.260
9.800E-07,0.284
9.900E-07,0.280
1.000E-06,0.256
1.010E-06,0.224
1.020E-06,0.196
1.030E-06,0.196
1.040E-06,0.220
1.050E-06,0.244
1.060E-06,0.260
1.070E-06,0.260
1.080E-06,0.256
1.090E-06,0.228
1.100E-06,0.216
1.110E-06,0.204
1.120E-06,0.212
1.130E-06,0.236
1.140E-06,0.260
1.150E-06,0.276
1.160E-06,0.276
1.170E-06,0.260
1.180E-06,0.232
1.190E-06,0.220
1.200E-06,0.220
1.210E-06,0.228
1.220E-06,0.256
1.230E-06,0.272
1.240E-06,0.280
1.250E-06,0.272
1.260E-06,0.260
1.270E-06,0.240
1.280E-06,0.228
1.290E-06,0.232
1.300E-06,0.252
1.310E-06,0.272
1.320E-06,0.284
1.330E-06,0.280
1.340E-06,0.268
1.350E-06,0.256
1.360E-06,0.244
1.370E-06,0.236
1.380E-06,0.240
1.390E-06,0.264
1.400E-06,0.280
1.410E-06,0.280
1.420E-06,0.280
1.430E-06,0.260
1.440E-06,0.248
1.450E-06,0.236
1.460E-06,0.240
1.470E-06,0.252
1.480E-06,0.260
1.490E-06,0.268
1.500E-06,0.268
1.510E-06,0.260
1.520E-06,0.248
1.530E-06,0.236
1.540E-06,0.236
1.550E-06,0.240
1.560E-06,0.240
1.570E-06,0.256
1.580E-06,0.256
1.590E-06,0.252
1.600E-06,0.244
1.610E-06,0.236
1.620E-06,0.236
1.630E-06,0.236
1.640E-06,0.240
1.650E-06,0.240
1.660E-06,0.240
1.670E-06,0.240
1.680E-06,0.232
1.690E-06,0.228
1.700E-06,0.224
1.710E-06,0.224
1.720E-06,0.228
1.730E-06,0.240
1.740E-06,0.240
1.750E-06,0.240
1.760E-06,0.232
1.770E-06,0.224
1.780E-06,0.224
1.790E-06,0.220
1.800E-06,0.228
1.810E-06,0.232
1.820E-06,0.240
1.830E-06,0.240
1.840E-06,0.236
1.850E-06,0.228
1.860E-06,0.220
1.870E-06,0.220
1.880E-06,0.220
1.890E-06,0.220
1.900E-06,0.224
1.910E-06,0.228
1.920E-06,0.228
1.930E-06,0.228
1.940E-06,0.220
1.950E-06,0.216
1.960E-06,0.212
1.970E-06,0.216
1.980E-06,0.216
1.990E-06,0.212
2.000E-06,0.216
2.010E-06,0.216
2.020E-06,0.220
2.030E-06,0.224
2.040E-06,0.220
2.050E-06,0.208
2.060E-06,0.204
2.070E-06,0.204
2.080E-06,0.196
2.090E-06,0.192
2.100E-06,0.200
2.110E-06,0.208
2.120E-06,0.212
2.130E-06,0.220
2.140E-06,0.216
2.150E-06,0.208
2.160E-06,0.204
2.170E-06,0.200
2.180E-06,0.200
2.190E-06,0.204
2.200E-06,0.212
2.210E-06,0.208
2.220E-06,0.204
2.230E-06,0.208
2.240E-06,0.208
2.250E-06,0.204
2.260E-06,0.208
2.270E-06,0.204
2.280E-06,0.204
2.290E-06,0.212
2.300E-06,0.220
2.310E-06,0.208
2.320E-06,0.204
2.330E-06,0.204
2.340E-06,0.204
2.350E-06,0.204
2.360E-06,0.204
2.370E-06,0.208
2.380E-06,0.212
2.390E-06,0.216
2.400E-06,0.208
2.410E-06,0.204
2.420E-06,0.200
2.430E-06,0.196
2.440E-06,0.196
2.450E-06,0.200
2.460E-06,0.208
2.470E-06,0.208
2.480E-06,0.208
2.490E-06,0.200
2.500E-06,0.188
2.510E-06,0.188
2.520E-06,0.180
2.530E-06,0.188
2.540E-06,0.188
2.550E-06,0.196
2.560E-06,0.196
2.570E-06,0.196
2.580E-06,0.196
2.590E-06,0.192
2.600E-06,0.192
2.610E-06,0.184
2.620E-06,0.180
2.630E-06,0.192
2.640E-06,0.192
2.650E-06,0.200
2.660E-06,0.200
2.670E-06,0.192
2.680E-06,0.188
2.690E-06,0.192
2.700E-06,0.192
2.710E-06,0.188
2.720E-06,0.192
2.730E-06,0.192
2.740E-06,0.192
2.750E-06,0.192
2.760E-06,0.184
2.770E-06,0.180
2.780E-06,0.180
2.790E-06,0.188
2.800E-06,0.188
2.810E-06,0.192
2.820E-06,0.192
2.830E-06,0.188
2.840E-06,0.192
2.850E-06,0.188
2.860E-06,0.192
2.870E-06,0.188
2.880E-06,0.180
2.890E-06,0.180
2.900E-06,0.172
2.910E-06,0.176
2.920E-06,0.172
2.930E-06,0.180
2.940E-06,0.184
2.950E-06,0.184
2.960E-06,0.184
2.970E-06,0.184
2.980E-06,0.176
2.990E-06,0.176
3.000E-06,0.172
3.010E-06,0.164
3.020E-06,0.168
3.030E-06,0.172
3.040E-06,0.172
3.050E-06,0.168
3.060E-06,0.172
3.070E-06,0.168
3.080E-06,0.168
3.090E-06,0.168
3.100E-06,0.168
3.110E-06,0.172
3.120E-06,0.164
3.130E-06,0.164
3.140E-06,0.164
3.150E-06,0.160
3.160E-06,0.160
3.170E-06,0.164
3.180E-06,0.164
3.190E-06,0.160
3.200E-06,0.156
3.210E-06,0.160
3.220E-06,0.160
3.230E-06,0.152
3.240E-06,0.152
3.250E-06,0.156
3.260E-06,0.156
3.270E-06,0.156
3.280E-06,0.160
3.290E-06,0.156
3.300E-06,0.152
3.310E-06,0.156
3.320E-06,0.152
3.330E-06,0.148
3.340E-06,0.144
3.350E-06,0.152
3.360E-06,0.144
3.370E-06,0.156
3.380E-06,0.156
3.390E-06,0.160
