mediciones/6-10/20/WaveData5550.csv

#timebase=2000000(ps)
,#voltbase=100000(mv/100)
#size=4000
-4.250E-06,0.008
-4.240E-06,0.008
-4.230E-06,0.008
-4.220E-06,0.008
-4.210E-06,0.000
-4.200E-06,0.000
-4.190E-06,0.000
-4.180E-06,0.008
-4.170E-06,0.012
-4.160E-06,0.008
-4.150E-06,0.000
-4.140E-06,0.000
-4.130E-06,0.004
-4.120E-06,0.008
-4.110E-06,-0.004
-4.100E-06,0.000
-4.090E-06,0.004
-4.080E-06,0.000
-4.070E-06,0.004
-4.060E-06,0.000
-4.050E-06,0.000
-4.040E-06,0.004
-4.030E-06,0.000
-4.020E-06,0.000
-4.010E-06,0.004
-4.000E-06,0.004
-3.990E-06,0.008
-3.980E-06,0.000
-3.970E-06,0.000
-3.960E-06,0.004
-3.950E-06,0.008
-3.940E-06,0.000
-3.930E-06,0.004
-3.920E-06,0.004
-3.910E-06,0.004
-3.900E-06,0.000
-3.890E-06,0.004
-3.880E-06,0.000
-3.870E-06,0.004
-3.860E-06,0.000
-3.850E-06,0.004
-3.840E-06,0.004
-3.830E-06,0.004
-3.820E-06,0.000
-3.810E-06,0.004
-3.800E-06,0.004
-3.790E-06,0.004
-3.780E-06,0.008
-3.770E-06,0.000
-3.760E-06,0.000
-3.750E-06,0.000
-3.740E-06,0.008
-3.730E-06,0.000
-3.720E-06,0.004
-3.710E-06,0.004
-3.700E-06,0.004
-3.690E-06,0.004
-3.680E-06,0.004
-3.670E-06,0.000
-3.660E-06,0.004
-3.650E-06,0.000
-3.640E-06,0.004
-3.630E-06,0.004
-3.620E-06,0.008
-3.610E-06,-0.004
-3.600E-06,0.004
-3.590E-06,0.004
-3.580E-06,0.004
-3.570E-06,0.000
-3.560E-06,0.000
-3.550E-06,0.004
-3.540E-06,0.004
-3.530E-06,-0.004
-3.520E-06,0.000
-3.510E-06,0.004
-3.500E-06,0.004
-3.490E-06,0.004
-3.480E-06,0.004
-3.470E-06,0.008
-3.460E-06,0.000
-3.450E-06,0.000
-3.440E-06,0.004
-3.430E-06,0.004
-3.420E-06,0.000
-3.410E-06,-0.004
-3.400E-06,0.004
-3.390E-06,0.000
-3.380E-06,0.000
-3.370E-06,0.004
-3.360E-06,0.004
-3.350E-06,0.000
-3.340E-06,0.004
-3.330E-06,0.004
-3.320E-06,0.008
-3.310E-06,0.008
-3.300E-06,0.008
-3.290E-06,0.004
-3.280E-06,-0.004
-3.270E-06,0.004
-3.260E-06,0.004
-3.250E-06,0.004
-3.240E-06,0.008
-3.230E-06,0.032
-3.220E-06,0.060
-3.210E-06,0.060
-3.200E-06,0.056
-3.190E-06,0.016
-3.180E-06,-0.028
-3.170E-06,-0.140
-3.160E-06,-0.156
-3.150E-06,-0.008
-3.140E-06,0.100
-3.130E-06,-0.024
-3.120E-06,0.160
-3.110E-06,0.056
-3.100E-06,-0.040
-3.090E-06,-0.068
-3.080E-06,0.044
-3.070E-06,-0.008
-3.060E-06,0.000
-3.050E-06,0.100
-3.040E-06,0.060
-3.030E-06,-0.008
-3.020E-06,-0.052
-3.010E-06,-0.060
-3.000E-06,-0.080
-2.990E-06,0.016
-2.980E-06,0.048
-2.970E-06,0.064
-2.960E-06,0.020
-2.950E-06,0.028
-2.940E-06,0.004
-2.930E-06,0.004
-2.920E-06,0.000
-2.910E-06,-0.024
-2.900E-06,-0.004
-2.890E-06,-0.008
-2.880E-06,0.004
-2.870E-06,0.000
-2.860E-06,0.008
-2.850E-06,-0.008
-2.840E-06,-0.020
-2.830E-06,-0.012
-2.820E-06,-0.004
-2.810E-06,0.020
-2.800E-06,0.040
-2.790E-06,0.052
-2.780E-06,0.028
-2.770E-06,0.016
-2.760E-06,-0.004
-2.750E-06,-0.008
-2.740E-06,-0.008
-2.730E-06,-0.004
-2.720E-06,-0.004
-2.710E-06,0.004
-2.700E-06,0.000
-2.690E-06,-0.004
-2.680E-06,-0.004
-2.670E-06,0.000
-2.660E-06,0.012
-2.650E-06,0.020
-2.640E-06,0.020
-2.630E-06,0.016
-2.620E-06,0.012
-2.610E-06,0.012
-2.600E-06,0.004
-2.590E-06,0.008
-2.580E-06,0.008
-2.570E-06,0.004
-2.560E-06,0.000
-2.550E-06,-0.004
-2.540E-06,-0.008
-2.530E-06,-0.004
-2.520E-06,0.008
-2.510E-06,0.020
-2.500E-06,0.024
-2.490E-06,0.024
-2.480E-06,0.020
-2.470E-06,0.004
-2.460E-06,-0.004
-2.450E-06,-0.004
-2.440E-06,-0.004
-2.430E-06,0.000
-2.420E-06,0.012
-2.410E-06,0.004
-2.400E-06,0.008
-2.390E-06,0.004
-2.380E-06,0.000
-2.370E-06,-0.012
-2.360E-06,-0.008
-2.350E-06,0.012
-2.340E-06,0.020
-2.330E-06,0.020
-2.320E-06,0.024
-2.310E-06,0.008
-2.300E-06,0.004
-2.290E-06,0.008
-2.280E-06,0.004
-2.270E-06,0.012
-2.260E-06,0.020
-2.250E-06,0.016
-2.240E-06,0.016
-2.230E-06,0.012
-2.220E-06,-0.004
-2.210E-06,-0.004
-2.200E-06,0.004
-2.190E-06,0.016
-2.180E-06,0.024
-2.170E-06,0.036
-2.160E-06,0.032
-2.150E-06,0.056
-2.140E-06,0.052
-2.130E-06,-0.008
-2.120E-06,-0.072
-2.110E-06,-0.064
-2.100E-06,-0.016
-2.090E-06,0.004
-2.080E-06,0.028
-2.070E-06,0.008
-2.060E-06,0.020
-2.050E-06,-0.004
-2.040E-06,-0.008
-2.030E-06,-0.020
-2.020E-06,-0.032
-2.010E-06,-0.004
-2.000E-06,0.008
-1.990E-06,0.040
-1.980E-06,0.040
-1.970E-06,0.032
-1.960E-06,-0.004
-1.950E-06,-0.024
-1.940E-06,-0.008
-1.930E-06,0.004
-1.920E-06,0.000
-1.910E-06,0.000
-1.900E-06,0.188
-1.890E-06,-0.040
-1.880E-06,0.180
-1.870E-06,-0.136
-1.860E-06,0.260
-1.850E-06,-0.004
-1.840E-06,0.100
-1.830E-06,0.092
-1.820E-06,-0.156
-1.810E-06,0.084
-1.800E-06,-0.040
-1.790E-06,0.012
-1.780E-06,0.028
-1.770E-06,0.020
-1.760E-06,0.008
-1.750E-06,-0.088
-1.740E-06,-0.084
-1.730E-06,-0.040
-1.720E-06,-0.004
-1.710E-06,0.052
-1.700E-06,0.032
-1.690E-06,0.040
-1.680E-06,0.008
-1.670E-06,-0.004
-1.660E-06,0.008
-1.650E-06,-0.008
-1.640E-06,0.024
-1.630E-06,0.024
-1.620E-06,0.044
-1.610E-06,0.024
-1.600E-06,0.056
-1.590E-06,0.044
-1.580E-06,-0.008
-1.570E-06,-0.040
-1.560E-06,-0.060
-1.550E-06,-0.028
-1.540E-06,-0.016
-1.530E-06,0.028
-1.520E-06,0.056
-1.510E-06,0.040
-1.500E-06,0.012
-1.490E-06,-0.016
-1.480E-06,-0.040
-1.470E-06,-0.060
-1.460E-06,-0.020
-1.450E-06,-0.004
-1.440E-06,0.020
-1.430E-06,0.016
-1.420E-06,0.020
-1.410E-06,0.024
-1.400E-06,-0.004
-1.390E-06,-0.024
-1.380E-06,-0.028
-1.370E-06,-0.012
-1.360E-06,0.012
-1.350E-06,0.028
-1.340E-06,0.028
-1.330E-06,0.020
-1.320E-06,0.008
-1.310E-06,-0.012
-1.300E-06,-0.024
-1.290E-06,-0.032
-1.280E-06,-0.004
-1.270E-06,0.016
-1.260E-06,0.040
-1.250E-06,0.036
-1.240E-06,0.024
-1.230E-06,0.000
-1.220E-06,-0.004
-1.210E-06,-0.004
-1.200E-06,0.012
-1.190E-06,0.032
-1.180E-06,0.036
-1.170E-06,0.012
-1.160E-06,-0.024
-1.150E-06,-0.040
-1.140E-06,-0.036
-1.130E-06,-0.004
-1.120E-06,0.020
-1.110E-06,0.040
-1.100E-06,0.032
-1.090E-06,0.024
-1.080E-06,0.000
-1.070E-06,-0.012
-1.060E-06,-0.004
-1.050E-06,-0.004
-1.040E-06,0.024
-1.030E-06,0.028
-1.020E-06,0.060
-1.010E-06,0.068
-1.000E-06,0.052
-9.900E-07,0.028
-9.800E-07,0.024
-9.700E-07,0.024
-9.600E-07,0.032
-9.500E-07,0.056
-9.400E-07,0.072
-9.300E-07,0.072
-9.200E-07,0.060
-9.100E-07,0.032
-9.000E-07,-0.008
-8.900E-07,-0.020
-8.800E-07,0.000
-8.700E-07,0.032
-8.600E-07,0.088
-8.500E-07,0.092
-8.400E-07,0.060
-8.300E-07,0.052
-8.200E-07,-0.004
-8.100E-07,-0.056
-8.000E-07,-0.040
-7.900E-07,-0.044
-7.800E-07,-0.032
-7.700E-07,-0.032
-7.600E-07,0.000
-7.500E-07,0.004
-7.400E-07,0.008
-7.300E-07,0.024
-7.200E-07,0.044
-7.100E-07,0.064
-7.000E-07,0.076
-6.900E-07,0.088
-6.800E-07,0.092
-6.700E-07,0.088
-6.600E-07,0.092
-6.500E-07,0.092
-6.400E-07,0.092
-6.300E-07,0.096
-6.200E-07,0.108
-6.100E-07,0.108
-6.000E-07,0.096
-5.900E-07,0.076
-5.800E-07,0.076
-5.700E-07,0.060
-5.600E-07,0.068
-5.500E-07,0.036
-5.400E-07,0.044
-5.300E-07,0.028
-5.200E-07,0.028
-5.100E-07,-0.008
-5.000E-07,-0.056
-4.900E-07,-0.040
-4.800E-07,-0.068
-4.700E-07,-0.036
-4.600E-07,-0.040
-4.500E-07,0.008
-4.400E-07,0.060
-4.300E-07,0.064
-4.200E-07,0.088
-4.100E-07,0.024
-4.000E-07,0.028
-3.900E-07,0.024
-3.800E-07,0.044
-3.700E-07,0.064
-3.600E-07,0.100
-3.500E-07,0.124
-3.400E-07,0.112
-3.300E-07,0.100
-3.200E-07,0.100
-3.100E-07,0.044
-3.000E-07,0.044
-2.900E-07,0.040
-2.800E-07,0.052
-2.700E-07,0.076
-2.600E-07,0.056
-2.500E-07,0.072
-2.400E-07,0.056
-2.300E-07,0.036
-2.200E-07,0.044
-2.100E-07,0.044
-2.000E-07,0.068
-1.900E-07,0.060
-1.800E-07,0.084
-1.700E-07,0.060
-1.600E-07,0.048
-1.500E-07,0.056
-1.400E-07,0.032
-1.300E-07,0.040
-1.200E-07,0.032
-1.100E-07,-0.040
-1.000E-07,-0.084
-9.000E-08,-0.004
-8.000E-08,-0.248
-7.000E-08,-0.288
-6.000E-08,-0.296
-5.000E-08,-0.440
-4.000E-08,-0.508
-3.000E-08,-0.512
-2.000E-08,-0.512
-1.000E-08,-0.120
0.000E+00,0.228
1.000E-08,0.416
2.000E-08,0.448
3.000E-08,0.124
4.000E-08,-0.268
5.000E-08,-0.160
6.000E-08,-0.032
7.000E-08,0.204
8.000E-08,0.392
9.000E-08,0.332
1.000E-07,0.076
1.100E-07,-0.204
1.200E-07,-0.316
1.300E-07,-0.484
1.400E-07,-0.216
1.500E-07,-0.152
1.600E-07,0.128
1.700E-07,0.308
1.800E-07,0.236
1.900E-07,0.000
2.000E-07,-0.108
2.100E-07,-0.156
2.200E-07,-0.048
2.300E-07,0.096
2.400E-07,0.192
2.500E-07,0.336
2.600E-07,0.284
2.700E-07,0.184
2.800E-07,-0.096
2.900E-07,-0.188
3.000E-07,-0.340
3.100E-07,-0.352
3.200E-07,-0.136
3.300E-07,0.080
3.400E-07,0.176
3.500E-07,0.124
3.600E-07,0.096
3.700E-07,-0.020
3.800E-07,-0.084
3.900E-07,-0.008
4.000E-07,0.076
4.100E-07,0.288
4.200E-07,0.372
4.300E-07,0.304
4.400E-07,0.172
4.500E-07,0.044
4.600E-07,-0.056
4.700E-07,-0.044
4.800E-07,0.056
4.900E-07,0.208
5.000E-07,0.292
5.100E-07,0.324
5.200E-07,0.176
5.300E-07,0.092
5.400E-07,-0.120
5.500E-07,-0.316
5.600E-07,-0.412
5.700E-07,-0.284
5.800E-07,-0.280
5.900E-07,-0.324
6.000E-07,-0.044
6.100E-07,-0.004
6.200E-07,-0.180
6.300E-07,-0.072
6.400E-07,0.092
6.500E-07,-0.032
6.600E-07,0.028
6.700E-07,0.108
6.800E-07,0.100
6.900E-07,0.128
7.000E-07,0.076
7.100E-07,0.056
7.200E-07,-0.040
7.300E-07,0.000
7.400E-07,0.148
7.500E-07,0.168
7.600E-07,0.288
7.700E-07,0.176
7.800E-07,0.132
7.900E-07,0.012
8.000E-07,0.012
8.100E-07,0.068
8.200E-07,0.068
8.300E-07,0.044
8.400E-07,0.024
8.500E-07,-0.100
8.600E-07,-0.148
8.700E-07,-0.172
8.800E-07,-0.180
8.900E-07,-0.052
9.000E-07,0.088
9.100E-07,0.056
9.200E-07,0.152
9.300E-07,0.084
9.400E-07,-0.020
9.500E-07,-0.076
9.600E-07,-0.080
9.700E-07,0.044
9.800E-07,0.060
9.900E-07,0.060
1.000E-06,0.032
1.010E-06,0.120
1.020E-06,0.092
1.030E-06,0.092
1.040E-06,0.072
1.050E-06,0.120
1.060E-06,0.180
1.070E-06,0.256
1.080E-06,0.296
1.090E-06,0.276
1.100E-06,0.228
1.110E-06,0.132
1.120E-06,0.124
1.130E-06,0.136
1.140E-06,0.172
1.150E-06,0.200
1.160E-06,0.256
1.170E-06,0.260
1.180E-06,0.204
1.190E-06,0.164
1.200E-06,0.124
1.210E-06,0.124
1.220E-06,0.144
1.230E-06,0.216
1.240E-06,0.240
1.250E-06,0.244
1.260E-06,0.196
1.270E-06,0.156
1.280E-06,0.128
1.290E-06,0.112
1.300E-06,0.144
1.310E-06,0.196
1.320E-06,0.260
1.330E-06,0.256
1.340E-06,0.244
1.350E-06,0.196
1.360E-06,0.156
1.370E-06,0.116
1.380E-06,0.084
1.390E-06,0.088
1.400E-06,0.100
1.410E-06,0.116
1.420E-06,0.136
1.430E-06,-0.016
1.440E-06,0.088
1.450E-06,0.196
1.460E-06,0.196
1.470E-06,0.336
1.480E-06,0.292
1.490E-06,0.188
1.500E-06,0.088
1.510E-06,0.048
1.520E-06,0.108
1.530E-06,0.152
1.540E-06,0.268
1.550E-06,0.260
1.560E-06,0.180
1.570E-06,0.060
1.580E-06,-0.048
1.590E-06,-0.060
1.600E-06,0.036
1.610E-06,0.068
1.620E-06,0.136
1.630E-06,0.044
1.640E-06,-0.220
1.650E-06,-0.020
1.660E-06,-0.092
1.670E-06,0.132
1.680E-06,0.176
1.690E-06,0.288
1.700E-06,0.380
1.710E-06,0.228
1.720E-06,0.200
1.730E-06,0.088
1.740E-06,0.080
1.750E-06,0.136
1.760E-06,0.224
1.770E-06,0.304
1.780E-06,0.304
1.790E-06,0.256
1.800E-06,0.176
1.810E-06,0.108
1.820E-06,0.088
1.830E-06,0.100
1.840E-06,0.172
1.850E-06,0.248
1.860E-06,0.300
1.870E-06,0.284
1.880E-06,0.208
1.890E-06,0.152
1.900E-06,0.108
1.910E-06,0.128
1.920E-06,0.176
1.930E-06,0.240
1.940E-06,0.272
1.950E-06,0.268
1.960E-06,0.236
1.970E-06,0.188
1.980E-06,0.148
1.990E-06,0.132
2.000E-06,0.172
2.010E-06,0.212
2.020E-06,0.248
2.030E-06,0.248
2.040E-06,0.236
2.050E-06,0.200
2.060E-06,0.172
2.070E-06,0.156
2.080E-06,0.172
2.090E-06,0.204
2.100E-06,0.220
2.110E-06,0.240
2.120E-06,0.228
2.130E-06,0.212
2.140E-06,0.176
2.150E-06,0.160
2.160E-06,0.160
2.170E-06,0.184
2.180E-06,0.204
2.190E-06,0.220
2.200E-06,0.220
2.210E-06,0.208
2.220E-06,0.192
2.230E-06,0.172
2.240E-06,0.172
2.250E-06,0.176
2.260E-06,0.192
2.270E-06,0.208
2.280E-06,0.212
2.290E-06,0.204
2.300E-06,0.192
2.310E-06,0.176
2.320E-06,0.176
2.330E-06,0.176
2.340E-06,0.188
2.350E-06,0.200
2.360E-06,0.208
2.370E-06,0.204
2.380E-06,0.196
2.390E-06,0.184
2.400E-06,0.184
2.410E-06,0.180
2.420E-06,0.188
2.430E-06,0.196
2.440E-06,0.200
2.450E-06,0.204
2.460E-06,0.196
2.470E-06,0.192
2.480E-06,0.184
2.490E-06,0.188
2.500E-06,0.192
2.510E-06,0.192
2.520E-06,0.192
2.530E-06,0.200
2.540E-06,0.192
2.550E-06,0.192
2.560E-06,0.192
2.570E-06,0.184
2.580E-06,0.180
2.590E-06,0.188
2.600E-06,0.192
2.610E-06,0.192
2.620E-06,0.188
2.630E-06,0.188
2.640E-06,0.184
2.650E-06,0.180
2.660E-06,0.180
2.670E-06,0.188
2.680E-06,0.192
2.690E-06,0.188
2.700E-06,0.192
2.710E-06,0.188
2.720E-06,0.184
2.730E-06,0.180
2.740E-06,0.184
2.750E-06,0.180
2.760E-06,0.180
2.770E-06,0.188
2.780E-06,0.188
2.790E-06,0.180
2.800E-06,0.176
2.810E-06,0.176
2.820E-06,0.176
2.830E-06,0.172
2.840E-06,0.176
2.850E-06,0.176
2.860E-06,0.176
2.870E-06,0.180
2.880E-06,0.180
2.890E-06,0.172
2.900E-06,0.176
2.910E-06,0.176
2.920E-06,0.176
2.930E-06,0.176
2.940E-06,0.176
2.950E-06,0.180
2.960E-06,0.180
2.970E-06,0.176
2.980E-06,0.176
2.990E-06,0.172
3.000E-06,0.176
3.010E-06,0.176
3.020E-06,0.172
3.030E-06,0.172
3.040E-06,0.176
3.050E-06,0.168
3.060E-06,0.168
3.070E-06,0.168
3.080E-06,0.164
3.090E-06,0.168
3.100E-06,0.164
3.110E-06,0.168
3.120E-06,0.160
3.130E-06,0.164
3.140E-06,0.164
3.150E-06,0.160
3.160E-06,0.168
3.170E-06,0.168
3.180E-06,0.168
3.190E-06,0.160
3.200E-06,0.160
3.210E-06,0.164
3.220E-06,0.160
3.230E-06,0.164
3.240E-06,0.164
3.250E-06,0.168
3.260E-06,0.164
3.270E-06,0.156
3.280E-06,0.160
3.290E-06,0.164
3.300E-06,0.160
3.310E-06,0.164
3.320E-06,0.164
3.330E-06,0.164
3.340E-06,0.152
3.350E-06,0.152
3.360E-06,0.156
3.370E-06,0.160
3.380E-06,0.152
3.390E-06,0.160
3.400E-06,0.156
3.410E-06,0.156
3.420E-06,0.160
3.430E-06,0.156
3.440E-06,0.156
3.450E-06,0.160
3.460E-06,0.152
3.470E-06,0.148
3.480E-06,0.152
3.490E-06,0.156
3.500E-06,0.152
3.510E-06,0.152
3.520E-06,0.152
3.530E-06,0.148
3.540E-06,0.148
3.550E-06,0.152
3.560E-06,0.152
3.570E-06,0.152
3.580E-06,0.152
3.590E-06,0.152
3.600E-06,0.148
3.610E-06,0.148
3.620E-06,0.144
3.630E-06,0.140
3.640E-06,0.144
3.650E-06,0.144
3.660E-06,0.144
3.670E-06,0.144
3.680E-06,0.144
3.690E-06,0.144
3.700E-06,0.144
3.710E-06,0.140
3.720E-06,0.140
3.730E-06,0.144
3.740E-06,0.140
3.750E-06,0.140
3.760E-06,0.136
3.770E-06,0.144
3.780E-06,0.144
3.790E-06,0.144
3.800E-06,0.144
3.810E-06,0.136
3.820E-06,0.140
3.830E-06,0.140
3.840E-06,0.140
3.850E-06,0.136
3.860E-06,0.136
3.870E-06,0.136
3.880E-06,0.132
3.890E-06,0.128
3.900E-06,0.132
3.910E-06,0.136
3.920E-06,0.136
3.930E-06,0.136
3.940E-06,0.132
3.950E-06,0.132
3.960E-06,0.128
3.970E-06,0.128
3.980E-06,0.128
3.990E-06,0.132
4.000E-06,0.128
4.010E-06,0.128
4.020E-06,0.128
4.030E-06,0.132
4.040E-06,0.128
4.050E-06,0.128
4.060E-06,0.128
4.070E-06,0.128
4.080E-06,0.128
4.090E-06,0.128
4.100E-06,0.128
4.110E-06,0.128
4.120E-06,0.128
4.130E-06,0.124
4.140E-06,0.124
4.150E-06,0.120
4.160E-06,0.124
4.170E-06,0.120
4.180E-06,0.124
4.190E-06,0.124
4.200E-06,0.124
4.210E-06,0.120
4.220E-06,0.116
4.230E-06,0.116
4.240E-06,0.116
4.250E-06,0.112
4.260E-06,0.124
4.270E-06,0.112
4.280E-06,0.120
4.290E-06,0.112
4.300E-06,0.108
4.310E-06,0.112
4.320E-06,0.108
4.330E-06,0.112
4.340E-06,0.112
4.350E-06,0.108
4.360E-06,0.116
4.370E-06,0.112
4.380E-06,0.116
4.390E-06,0.108
4.400E-06,0.104
4.410E-06,0.104
4.420E-06,0.108
4.430E-06,0.112
4.440E-06,0.112
4.450E-06,0.112
4.460E-06,0.112
4.470E-06,0.108
4.480E-06,0.104
4.490E-06,0.104
4.500E-06,0.108
4.510E-06,0.104
4.520E-06,0.104
4.530E-06,0.104
4.540E-06,0.108
4.550E-06,0.104
4.560E-06,0.100
4.570E-06,0.100
4.580E-06,0.100
4.590E-06,0.100
4.600E-06,0.092
4.610E-06,0.100
4.620E-06,0.096
4.630E-06,0.096
4.640E-06,0.100
4.650E-06,0.092
4.660E-06,0.092
4.670E-06,0.092
4.680E-06,0.092
4.690E-06,0.096
4.700E-06,0.092
4.710E-06,0.096
4.720E-06,0.096
4.730E-06,0.096
4.740E-06,0.096
4.750E-06,0.092
4.760E-06,0.088
4.770E-06,0.092
4.780E-06,0.096
4.790E-06,0.092
4.800E-06,0.092
4.810E-06,0.092
4.820E-06,0.092
4.830E-06,0.096
4.840E-06,0.088
4.850E-06,0.088
4.860E-06,0.088
4.870E-06,0.092
4.880E-06,0.088
4.890E-06,0.088
4.900E-06,0.092
4.910E-06,0.092
4.920E-06,0.092
4.930E-06,0.092
4.940E-06,0.092
4.950E-06,0.092
4.960E-06,0.088
4.970E-06,0.088
4.980E-06,0.088
4.990E-06,0.088
5.000E-06,0.088
5.010E-06,0.088
5.020E-06,0.084
5.030E-06,0.092
5.040E-06,0.088
5.050E-06,0.092
5.060E-06,0.088
5.070E-06,0.088
5.080E-06,0.080
5.090E-06,0.084
5.100E-06,0.084
5.110E-06,0.092
5.120E-06,0.088
5.130E-06,0.088
5.140E-06,0.084
5.150E-06,0.088
5.160E-06,0.080
5.170E-06,0.084
5.180E-06,0.076
5.190E-06,0.084
5.200E-06,0.084
5.210E-06,0.084
5.220E-06,0.076
5.230E-06,0.080
5.240E-06,0.076
5.250E-06,0.076
5.260E-06,0.072
5.270E-06,0.072
5.280E-06,0.076
5.290E-06,0.080
5.300E-06,0.080
5.310E-06,0.076
5.320E-06,0.076
5.330E-06,0.072
5.340E-06,0.076
5.350E-06,0.072
5.360E-06,0.076
5.370E-06,0.076
5.380E-06,0.076
5.390E-06,0.072
5.400E-06,0.072
5.410E-06,0.068
5.420E-06,0.068
5.430E-06,0.072
5.440E-06,0.068
5.450E-06,0.076
5.460E-06,0.072
5.470E-06,0.076
5.480E-06,0.068
5.490E-06,0.072
5.500E-06,0.072
5.510E-06,0.068
5.520E-06,0.068
5.530E-06,0.068
5.540E-06,0.068
5.550E-06,0.072
5.560E-06,0.068
5.570E-06,0.064
5.580E-06,0.064
5.590E-06,0.068
5.600E-06,0.068
5.610E-06,0.068
5.620E-06,0.064
5.630E-06,0.064
5.640E-06,0.064
5.650E-06,0.064
5.660E-06,0.068
5.670E-06,0.064
5.680E-06,0.060
5.690E-06,0.068
5.700E-06,0.060
5.710E-06,0.056
5.720E-06,0.056
5.730E-06,0.064
5.740E-06,0.056
5.750E-06,0.064
5.760E-06,0.064
5.770E-06,0.060
5.780E-06,0.056
5.790E-06,0.060
5.800E-06,0.056
5.810E-06,0.060
5.820E-06,0.060
5.830E-06,0.056
5.840E-06,0.060
5.850E-06,0.060
5.860E-06,0.064
5.870E-06,0.064
5.880E-06,0.060
5.890E-06,0.056
5.900E-06,0.060
5.910E-06,0.052
5.920E-06,0.048
5.930E-06,0.056
5.940E-06,0.052
5.950E-06,0.052
5.960E-06,0.052
5.970E-06,0.056
5.980E-06,0.052
5.990E-06,0.044
6.000E-06,0.048
6.010E-06,0.044
6.020E-06,0.044
6.030E-06,0.044
6.040E-06,0.048
6.050E-06,0.056
6.060E-06,0.044
6.070E-06,0.040
6.080E-06,0.044
6.090E-06,0.044
6.100E-06,0.036
6.110E-06,0.044
6.120E-06,0.044
6.130E-06,0.044
6.140E-06,0.048
6.150E-06,0.044
6.160E-06,0.036
6.170E-06,0.040
6.180E-06,0.036
6.190E-06,0.040
6.200E-06,0.040
6.210E-06,0.044
6.220E-06,0.044
6.230E-06,0.036
6.240E-06,0.036
6.250E-06,0.032
6.260E-06,0.036
6.270E-06,0.040
6.280E-06,0.040
6.290E-06,0.040
6.300E-06,0.040
6.310E-06,0.032
6.320E-06,0.036
6.330E-06,0.040
6.340E-06,0.040
6.350E-06,0.036
6.360E-06,0.040
6.370E-06,0.032
6.380E-06,0.040
6.390E-06,0.036
6.400E-06,0.036
6.410E-06,0.028
6.420E-06,0.028
6.430E-06,0.032
6.440E-06,0.028
6.450E-06,0.036
6.460E-06,0.032
6.470E-06,0.036
6.480E-06,0.036
6.490E-06,0.036
6.500E-06,0.036
6.510E-06,0.036
6.520E-06,0.028
6.530E-06,0.028
6.540E-06,0.028
6.550E-06,0.024
6.560E-06,0.032
6.570E-06,0.032
6.580E-06,0.032
6.590E-06,0.028
6.600E-06,0.024
6.610E-06,0.028
6.620E-06,0.028
6.630E-06,0.032
6.640E-06,0.028
6.650E-06,0.024
6.660E-06,0.024
6.670E-06,0.020
6.680E-06,0.024
6.690E-06,0.020
6.700E-06,0.020
6.710E-06,0.024
6.720E-06,0.020
6.730E-06,0.024
6.740E-06,0.028
6.750E-06,0.020
6.760E-06,0.020
6.770E-06,0.024
6.780E-06,0.020
6.790E-06,0.020
6.800E-06,0.024
6.810E-06,0.020
6.820E-06,0.016
6.830E-06,0.020
6.840E-06,0.028
6.850E-06,0.016
6.860E-06,0.020
6.870E-06,0.024
6.880E-06,0.024
6.890E-06,0.016
6.900E-06,0.020
6.910E-06,0.020
6.920E-06,0.020
6.930E-06,0.024
6.940E-06,0.020
6.950E-06,0.024
6.960E-06,0.020
6.970E-06,0.024
6.980E-06,0.020
6.990E-06,0.024
7.000E-06,0.020
7.010E-06,0.016
7.020E-06,0.016
7.030E-06,0.024
7.040E-06,0.016
7.050E-06,0.012
7.060E-06,0.008
7.070E-06,0.016
7.080E-06,0.016
7.090E-06,0.012
7.100E-06,0.012
7.110E-06,0.012
7.120E-06,0.012
7.130E-06,0.012
7.140E-06,0.016
7.150E-06,0.008
7.160E-06,0.012
7.170E-06,0.012
7.180E-06,0.012
7.190E-06,0.012
7.200E-06,0.012
7.210E-06,0.012
7.220E-06,0.012
7.230E-06,0.012
7.240E-06,0.012
7.250E-06,0.012
7.260E-06,0.012
7.270E-06,0.004
7.280E-06,0.004
7.290E-06,0.012
7.300E-06,0.004
7.310E-06,0.008
7.320E-06,0.008
7.330E-06,0.004
7.340E-06,0.008
7.350E-06,0.008
7.360E-06,0.008
7.370E-06,0.008
7.380E-06,0.012
7.390E-06,0.012
7.400E-06,0.004
7.410E-06,0.008
7.420E-06,0.008
7.430E-06,0.008
7.440E-06,0.008
7.450E-06,0.004
7.460E-06,0.004
7.470E-06,0.004
7.480E-06,0.012
7.490E-06,0.012
7.500E-06,0.008
7.510E-06,0.004
7.520E-06,0.004
7.530E-06,0.008
7.540E-06,0.004
7.550E-06,0.004
7.560E-06,0.004
7.570E-06,0.004
7.580E-06,0.000
7.590E-06,-0.004
7.600E-06,0.004
7.610E-06,0.004
7.620E-06,0.004
7.630E-06,-0.004
7.640E-06,0.000
7.650E-06,0.000
7.660E-06,0.000
7.670E-06,0.000
7.680E-06,0.000
7.690E-06,0.000
7.700E-06,0.000
7.710E-06,0.004
7.720E-06,0.004
7.730E-06,-0.008
7.740E-06,-0.008
7.750E-06,-0.008
7.760E-06,0.004
7.770E-06,0.008
7.780E-06,-0.004
7.790E-06,0.000
7.800E-06,0.000
7.810E-06,0.000
7.820E-06,-0.004
7.830E-06,-0.004
