mediciones/6-10/20/WaveData5549.csv

#timebase=2000000(ps)
,#voltbase=500000(mv/100)
#size=4000
-4.250E-06,0.340
-4.240E-06,0.320
-4.230E-06,-0.060
-4.220E-06,-0.120
-4.210E-06,-0.560
-4.200E-06,-0.520
-4.190E-06,-0.180
-4.180E-06,-0.100
-4.170E-06,0.160
-4.160E-06,0.320
-4.150E-06,0.080
-4.140E-06,-0.020
-4.130E-06,-0.180
-4.120E-06,-0.260
-4.110E-06,-0.100
-4.100E-06,-0.100
-4.090E-06,0.100
-4.080E-06,0.100
-4.070E-06,-0.040
-4.060E-06,-0.080
-4.050E-06,-0.120
-4.040E-06,0.020
-4.030E-06,0.140
-4.020E-06,0.240
-4.010E-06,0.220
-4.000E-06,0.140
-3.990E-06,0.020
-3.980E-06,0.020
-3.970E-06,0.060
-3.960E-06,0.120
-3.950E-06,0.200
-3.940E-06,0.160
-3.930E-06,0.060
-3.920E-06,-0.080
-3.910E-06,-0.040
-3.900E-06,0.080
-3.890E-06,0.240
-3.880E-06,0.380
-3.870E-06,0.300
-3.860E-06,0.200
-3.850E-06,0.060
-3.840E-06,-0.040
-3.830E-06,-0.020
-3.820E-06,0.180
-3.810E-06,0.240
-3.800E-06,0.300
-3.790E-06,0.180
-3.780E-06,0.020
-3.770E-06,0.000
-3.760E-06,0.000
-3.750E-06,0.080
-3.740E-06,0.160
-3.730E-06,0.120
-3.720E-06,0.060
-3.710E-06,0.000
-3.700E-06,-0.060
-3.690E-06,0.000
-3.680E-06,0.020
-3.670E-06,0.000
-3.660E-06,0.020
-3.650E-06,0.040
-3.640E-06,0.060
-3.630E-06,0.040
-3.620E-06,0.080
-3.610E-06,0.100
-3.600E-06,0.040
-3.590E-06,0.060
-3.580E-06,0.160
-3.570E-06,0.020
-3.560E-06,-0.040
-3.550E-06,-0.140
-3.540E-06,-0.180
-3.530E-06,-0.040
-3.520E-06,0.240
-3.510E-06,0.440
-3.500E-06,0.520
-3.490E-06,0.480
-3.480E-06,0.140
-3.470E-06,-0.160
-3.460E-06,-0.020
-3.450E-06,0.160
-3.440E-06,0.320
-3.430E-06,0.680
-3.420E-06,0.480
-3.410E-06,0.600
-3.400E-06,0.200
-3.390E-06,0.000
-3.380E-06,0.180
-3.370E-06,0.100
-3.360E-06,0.300
-3.350E-06,0.420
-3.340E-06,0.220
-3.330E-06,0.140
-3.320E-06,0.020
-3.310E-06,-0.120
-3.300E-06,0.000
-3.290E-06,-0.100
-3.280E-06,0.020
-3.270E-06,0.200
-3.260E-06,-0.100
-3.250E-06,-0.060
-3.240E-06,-0.320
-3.230E-06,-0.160
-3.220E-06,0.000
-3.210E-06,0.060
-3.200E-06,0.200
-3.190E-06,0.000
-3.180E-06,-0.260
-3.170E-06,-0.300
-3.160E-06,-0.180
-3.150E-06,-0.020
-3.140E-06,0.120
-3.130E-06,0.340
-3.120E-06,0.080
-3.110E-06,0.080
-3.100E-06,0.120
-3.090E-06,0.220
-3.080E-06,0.480
-3.070E-06,0.560
-3.060E-06,0.500
-3.050E-06,0.460
-3.040E-06,0.300
-3.030E-06,0.420
-3.020E-06,0.460
-3.010E-06,0.560
-3.000E-06,0.500
-2.990E-06,0.460
-2.980E-06,0.260
-2.970E-06,0.260
-2.960E-06,0.300
-2.950E-06,0.320
-2.940E-06,0.320
-2.930E-06,0.260
-2.920E-06,0.120
-2.910E-06,0.140
-2.900E-06,0.220
-2.890E-06,0.240
-2.880E-06,0.240
-2.870E-06,0.280
-2.860E-06,0.220
-2.850E-06,0.180
-2.840E-06,0.260
-2.830E-06,0.080
-2.820E-06,0.220
-2.810E-06,0.200
-2.800E-06,0.020
-2.790E-06,0.180
-2.780E-06,-0.240
-2.770E-06,0.020
-2.760E-06,0.020
-2.750E-06,0.060
-2.740E-06,0.600
-2.730E-06,0.620
-2.720E-06,0.240
-2.710E-06,0.000
-2.700E-06,-0.340
-2.690E-06,-0.580
-2.680E-06,-0.040
-2.670E-06,0.200
-2.660E-06,0.740
-2.650E-06,0.740
-2.640E-06,0.360
-2.630E-06,0.180
-2.620E-06,0.020
-2.610E-06,-0.080
-2.600E-06,0.260
-2.590E-06,0.320
-2.580E-06,0.300
-2.570E-06,0.200
-2.560E-06,-0.160
-2.550E-06,-0.100
-2.540E-06,-0.140
-2.530E-06,-0.360
-2.520E-06,-0.440
-2.510E-06,-0.240
-2.500E-06,-0.240
-2.490E-06,-0.120
-2.480E-06,0.300
-2.470E-06,0.000
-2.460E-06,-0.020
-2.450E-06,-0.200
-2.440E-06,-0.360
-2.430E-06,0.000
-2.420E-06,0.160
-2.410E-06,0.360
-2.400E-06,0.400
-2.390E-06,0.100
-2.380E-06,-0.020
-2.370E-06,-0.020
-2.360E-06,0.120
-2.350E-06,0.280
-2.340E-06,0.400
-2.330E-06,0.320
-2.320E-06,0.220
-2.310E-06,0.100
-2.300E-06,0.080
-2.290E-06,0.100
-2.280E-06,0.140
-2.270E-06,0.100
-2.260E-06,0.000
-2.250E-06,-0.060
-2.240E-06,-0.160
-2.230E-06,-0.140
-2.220E-06,-0.100
-2.210E-06,-0.100
-2.200E-06,-0.100
-2.190E-06,-0.080
-2.180E-06,0.100
-2.170E-06,-0.340
-2.160E-06,-0.240
-2.150E-06,-0.340
-2.140E-06,-0.500
-2.130E-06,0.020
-2.120E-06,0.000
-2.110E-06,0.240
-2.100E-06,0.340
-2.090E-06,0.040
-2.080E-06,-0.040
-2.070E-06,0.140
-2.060E-06,0.200
-2.050E-06,0.420
-2.040E-06,0.660
-2.030E-06,0.460
-2.020E-06,0.360
-2.010E-06,0.240
-2.000E-06,0.160
-1.990E-06,0.320
-1.980E-06,0.420
-1.970E-06,0.400
-1.960E-06,0.400
-1.950E-06,0.200
-1.940E-06,0.140
-1.930E-06,0.200
-1.920E-06,0.220
-1.910E-06,0.260
-1.900E-06,0.260
-1.890E-06,0.140
-1.880E-06,0.080
-1.870E-06,0.100
-1.860E-06,0.020
-1.850E-06,0.060
-1.840E-06,-0.020
-1.830E-06,-0.180
-1.820E-06,-0.360
-1.810E-06,-0.400
-1.800E-06,-0.400
-1.790E-06,-0.260
-1.780E-06,0.000
-1.770E-06,-0.020
-1.760E-06,0.060
-1.750E-06,-0.100
-1.740E-06,-0.120
-1.730E-06,-0.080
-1.720E-06,0.120
-1.710E-06,0.300
-1.700E-06,0.340
-1.690E-06,0.400
-1.680E-06,0.160
-1.670E-06,0.240
-1.660E-06,-0.020
-1.650E-06,0.180
-1.640E-06,0.260
-1.630E-06,0.340
-1.620E-06,0.580
-1.610E-06,0.520
-1.600E-06,0.520
-1.590E-06,0.360
-1.580E-06,0.340
-1.570E-06,0.320
-1.560E-06,0.340
-1.550E-06,0.420
-1.540E-06,0.340
-1.530E-06,0.200
-1.520E-06,0.100
-1.510E-06,0.060
-1.500E-06,0.020
-1.490E-06,0.120
-1.480E-06,0.120
-1.470E-06,0.140
-1.460E-06,0.060
-1.450E-06,0.000
-1.440E-06,0.000
-1.430E-06,0.020
-1.420E-06,0.120
-1.410E-06,0.120
-1.400E-06,0.260
-1.390E-06,0.220
-1.380E-06,-0.060
-1.370E-06,0.020
-1.360E-06,-0.020
-1.350E-06,0.060
-1.340E-06,0.220
-1.330E-06,0.260
-1.320E-06,0.260
-1.310E-06,0.340
-1.300E-06,0.100
-1.290E-06,0.040
-1.280E-06,0.180
-1.270E-06,0.000
-1.260E-06,0.240
-1.250E-06,0.280
-1.240E-06,0.300
-1.230E-06,0.420
-1.220E-06,0.420
-1.210E-06,0.480
-1.200E-06,0.400
-1.190E-06,0.380
-1.180E-06,0.280
-1.170E-06,0.140
-1.160E-06,0.200
-1.150E-06,0.100
-1.140E-06,0.080
-1.130E-06,0.080
-1.120E-06,-0.100
-1.110E-06,-0.120
-1.100E-06,-0.240
-1.090E-06,-0.260
-1.080E-06,-0.200
-1.070E-06,-0.240
-1.060E-06,-0.180
-1.050E-06,-0.100
-1.040E-06,-0.040
-1.030E-06,-0.260
-1.020E-06,-0.340
-1.010E-06,-0.380
-1.000E-06,-0.560
-9.900E-07,-0.100
-9.800E-07,0.020
-9.700E-07,0.320
-9.600E-07,0.440
-9.500E-07,0.060
-9.400E-07,-0.020
-9.300E-07,-0.100
-9.200E-07,0.040
-9.100E-07,0.420
-9.000E-07,0.560
-8.900E-07,0.620
-8.800E-07,0.340
-8.700E-07,0.160
-8.600E-07,0.260
-8.500E-07,0.220
-8.400E-07,0.340
-8.300E-07,0.280
-8.200E-07,0.780
-8.100E-07,0.760
-8.000E-07,0.640
-7.900E-07,0.860
-7.800E-07,0.540
-7.700E-07,0.460
-7.600E-07,0.300
-7.500E-07,0.360
-7.400E-07,0.260
-7.300E-07,0.500
-7.200E-07,0.280
-7.100E-07,0.260
-7.000E-07,-0.040
-6.900E-07,-0.280
-6.800E-07,-0.360
-6.700E-07,-0.420
-6.600E-07,-0.340
-6.500E-07,-0.260
-6.400E-07,-0.320
-6.300E-07,-0.420
-6.200E-07,-0.600
-6.100E-07,-0.380
-6.000E-07,-0.420
-5.900E-07,-0.640
-5.800E-07,-0.220
-5.700E-07,-0.380
-5.600E-07,-0.340
-5.500E-07,-0.120
-5.400E-07,-0.240
-5.300E-07,0.120
-5.200E-07,0.140
-5.100E-07,0.080
-5.000E-07,0.160
-4.900E-07,0.080
-4.800E-07,0.200
-4.700E-07,0.360
-4.600E-07,0.480
-4.500E-07,0.460
-4.400E-07,0.640
-4.300E-07,0.460
-4.200E-07,0.680
-4.100E-07,0.680
-4.000E-07,0.740
-3.900E-07,0.640
-3.800E-07,0.500
-3.700E-07,0.380
-3.600E-07,0.320
-3.500E-07,0.260
-3.400E-07,0.200
-3.300E-07,0.140
-3.200E-07,0.000
-3.100E-07,-0.120
-3.000E-07,-0.260
-2.900E-07,-0.360
-2.800E-07,-0.500
-2.700E-07,-0.500
-2.600E-07,-0.580
-2.500E-07,-0.600
-2.400E-07,-0.540
-2.300E-07,-0.420
-2.200E-07,-0.380
-2.100E-07,-0.380
-2.000E-07,-0.600
-1.900E-07,-0.600
-1.800E-07,-0.680
-1.700E-07,-0.380
-1.600E-07,-0.020
-1.500E-07,0.100
-1.400E-07,0.240
-1.300E-07,0.140
-1.200E-07,0.000
-1.100E-07,0.060
-1.000E-07,0.240
-9.000E-08,0.440
-8.000E-08,0.640
-7.000E-08,0.660
-6.000E-08,0.500
-5.000E-08,0.580
-4.000E-08,1.180
-3.000E-08,0.820
-2.000E-08,-0.940
-1.000E-08,0.560
0.000E+00,-0.060
1.000E-08,0.940
2.000E-08,2.780
3.000E-08,1.620
4.000E-08,2.220
5.000E-08,0.660
6.000E-08,-0.920
7.000E-08,0.220
8.000E-08,-0.120
9.000E-08,0.320
1.000E-07,1.080
1.100E-07,-0.020
1.200E-07,-0.380
1.300E-07,-0.760
1.400E-07,-1.100
1.500E-07,-0.840
1.600E-07,-0.720
1.700E-07,-1.020
1.800E-07,-1.140
1.900E-07,-1.340
2.000E-07,-1.200
2.100E-07,-1.180
2.200E-07,-0.960
2.300E-07,-1.340
2.400E-07,-1.600
2.500E-07,-1.540
2.600E-07,-1.380
2.700E-07,-0.680
2.800E-07,-0.180
2.900E-07,-0.040
3.000E-07,0.080
3.100E-07,0.180
3.200E-07,0.220
3.300E-07,0.380
3.400E-07,0.620
3.500E-07,0.600
3.600E-07,0.860
3.700E-07,0.840
3.800E-07,0.760
3.900E-07,0.680
4.000E-07,0.540
4.100E-07,0.460
4.200E-07,0.440
4.300E-07,0.440
4.400E-07,0.480
4.500E-07,0.420
4.600E-07,0.380
4.700E-07,0.300
4.800E-07,0.220
4.900E-07,0.080
5.000E-07,0.060
5.100E-07,-0.080
5.200E-07,-0.160
5.300E-07,-0.200
5.400E-07,-0.660
5.500E-07,-0.600
5.600E-07,-0.800
5.700E-07,-0.700
5.800E-07,-0.340
5.900E-07,-0.400
6.000E-07,-0.240
6.100E-07,-0.200
6.200E-07,-0.700
6.300E-07,-0.560
6.400E-07,-0.520
6.500E-07,-0.680
6.600E-07,0.100
6.700E-07,0.120
6.800E-07,0.000
6.900E-07,0.440
7.000E-07,-0.040
7.100E-07,0.740
7.200E-07,0.060
7.300E-07,-0.680
7.400E-07,0.780
7.500E-07,0.400
7.600E-07,1.440
7.700E-07,2.480
7.800E-07,1.660
7.900E-07,1.820
8.000E-07,0.760
8.100E-07,-0.060
8.200E-07,0.500
8.300E-07,0.520
8.400E-07,0.940
8.500E-07,0.760
8.600E-07,0.000
8.700E-07,-0.560
8.800E-07,-0.980
8.900E-07,-1.160
9.000E-07,-1.000
9.100E-07,-1.000
9.200E-07,-1.140
9.300E-07,-1.340
9.400E-07,-1.640
9.500E-07,-1.760
9.600E-07,-1.820
9.700E-07,-1.820
9.800E-07,-1.540
9.900E-07,-1.780
1.000E-06,-1.440
1.010E-06,-1.400
1.020E-06,-1.080
1.030E-06,-0.920
1.040E-06,-0.680
1.050E-06,-0.420
1.060E-06,-0.060
1.070E-06,0.300
1.080E-06,0.500
1.090E-06,0.820
1.100E-06,0.760
1.110E-06,0.900
1.120E-06,0.940
1.130E-06,0.940
1.140E-06,1.080
1.150E-06,1.020
1.160E-06,1.040
1.170E-06,0.980
1.180E-06,0.840
1.190E-06,0.620
1.200E-06,0.500
1.210E-06,0.380
1.220E-06,0.380
1.230E-06,0.300
1.240E-06,0.180
1.250E-06,-0.020
1.260E-06,-0.260
1.270E-06,-0.380
1.280E-06,-0.500
1.290E-06,-0.580
1.300E-06,-0.660
1.310E-06,-0.740
1.320E-06,-0.760
1.330E-06,-0.680
1.340E-06,-0.740
1.350E-06,-0.700
1.360E-06,-0.740
1.370E-06,-0.760
1.380E-06,-1.040
1.390E-06,-1.100
1.400E-06,-1.280
1.410E-06,-1.380
1.420E-06,-0.980
1.430E-06,-0.620
1.440E-06,0.600
1.450E-06,-2.000
1.460E-06,0.000
1.470E-06,-0.500
1.480E-06,0.080
1.490E-06,2.760
1.500E-06,1.900
1.510E-06,1.720
1.520E-06,0.880
1.530E-06,-0.600
1.540E-06,-0.220
1.550E-06,0.340
1.560E-06,0.580
1.570E-06,1.100
1.580E-06,0.420
1.590E-06,-0.160
1.600E-06,-0.360
1.610E-06,-0.580
1.620E-06,-0.680
1.630E-06,-0.520
1.640E-06,-0.600
1.650E-06,-0.760
1.660E-06,-1.200
1.670E-06,-0.960
1.680E-06,-1.180
1.690E-06,-1.220
1.700E-06,-1.020
1.710E-06,-1.620
1.720E-06,-1.420
1.730E-06,-1.460
1.740E-06,-1.480
1.750E-06,-1.300
1.760E-06,-1.180
1.770E-06,-1.300
1.780E-06,-1.140
1.790E-06,-1.140
1.800E-06,-1.200
1.810E-06,-1.020
1.820E-06,-1.000
1.830E-06,-0.820
1.840E-06,-0.620
1.850E-06,-0.520
1.860E-06,-0.540
1.870E-06,-0.520
1.880E-06,-0.520
1.890E-06,-0.500
1.900E-06,-0.400
1.910E-06,-0.500
1.920E-06,-0.720
1.930E-06,-0.560
1.940E-06,0.080
1.950E-06,-0.260
1.960E-06,-1.380
1.970E-06,-0.700
1.980E-06,-0.480
1.990E-06,0.100
2.000E-06,2.240
2.010E-06,1.720
2.020E-06,2.020
2.030E-06,1.060
2.040E-06,-0.220
2.050E-06,0.340
2.060E-06,0.440
2.070E-06,1.000
2.080E-06,1.440
2.090E-06,0.860
2.100E-06,0.240
2.110E-06,-0.120
2.120E-06,-0.520
2.130E-06,-0.400
2.140E-06,-0.160
2.150E-06,-0.180
2.160E-06,-0.240
2.170E-06,-0.500
2.180E-06,-0.940
2.190E-06,-1.100
2.200E-06,-1.040
2.210E-06,-1.500
2.220E-06,-1.040
2.230E-06,-1.360
2.240E-06,-1.280
2.250E-06,-0.820
2.260E-06,-1.060
2.270E-06,-0.700
2.280E-06,-0.720
2.290E-06,-1.040
2.300E-06,-0.580
2.310E-06,-0.700
2.320E-06,-0.660
2.330E-06,-0.400
2.340E-06,-0.580
2.350E-06,-0.500
2.360E-06,-0.360
2.370E-06,-0.260
2.380E-06,0.000
2.390E-06,0.160
2.400E-06,0.300
2.410E-06,0.320
2.420E-06,0.160
2.430E-06,0.560
2.440E-06,-0.260
2.450E-06,-0.560
2.460E-06,1.160
2.470E-06,0.460
2.480E-06,2.180
2.490E-06,2.400
2.500E-06,1.760
2.510E-06,1.980
2.520E-06,0.900
2.530E-06,0.480
2.540E-06,0.820
2.550E-06,0.580
2.560E-06,0.500
2.570E-06,0.400
2.580E-06,-0.260
2.590E-06,-0.680
2.600E-06,-0.640
2.610E-06,-1.660
2.620E-06,-1.860
2.630E-06,-1.160
2.640E-06,-1.520
2.650E-06,-0.120
2.660E-06,0.220
2.670E-06,-0.180
2.680E-06,0.200
2.690E-06,-1.240
2.700E-06,-1.520
2.710E-06,-1.440
2.720E-06,-0.720
2.730E-06,-0.340
2.740E-06,0.460
2.750E-06,0.000
2.760E-06,0.200
2.770E-06,0.100
2.780E-06,0.100
2.790E-06,0.520
2.800E-06,0.500
2.810E-06,0.560
2.820E-06,0.480
2.830E-06,0.500
2.840E-06,0.340
2.850E-06,0.400
2.860E-06,0.040
2.870E-06,-0.220
2.880E-06,-0.440
2.890E-06,-0.800
2.900E-06,-1.000
2.910E-06,-0.920
2.920E-06,-1.040
2.930E-06,-0.840
2.940E-06,-0.780
2.950E-06,-0.880
2.960E-06,-1.020
2.970E-06,-1.260
2.980E-06,-1.380
2.990E-06,-1.300
3.000E-06,-1.040
3.010E-06,-0.760
3.020E-06,-0.420
3.030E-06,-0.260
3.040E-06,-0.040
3.050E-06,0.020
3.060E-06,0.260
3.070E-06,0.320
3.080E-06,0.680
3.090E-06,1.080
3.100E-06,1.060
3.110E-06,1.100
3.120E-06,0.800
3.130E-06,0.600
3.140E-06,0.880
3.150E-06,1.080
3.160E-06,1.420
3.170E-06,1.640
3.180E-06,1.420
3.190E-06,1.360
3.200E-06,1.020
3.210E-06,0.880
3.220E-06,0.900
3.230E-06,0.840
3.240E-06,0.860
3.250E-06,0.900
3.260E-06,0.620
3.270E-06,0.500
3.280E-06,0.180
3.290E-06,0.020
3.300E-06,-0.180
3.310E-06,0.200
3.320E-06,1.040
3.330E-06,-0.540
3.340E-06,-1.860
3.350E-06,-0.100
3.360E-06,-1.740
3.370E-06,0.640
3.380E-06,2.040
3.390E-06,0.060
3.400E-06,0.380
3.410E-06,-1.240
3.420E-06,-1.300
3.430E-06,-0.380
3.440E-06,0.540
3.450E-06,-0.440
3.460E-06,-0.880
3.470E-06,-1.280
3.480E-06,-2.100
3.490E-06,-0.040
3.500E-06,-0.280
3.510E-06,0.000
3.520E-06,0.660
3.530E-06,-1.160
3.540E-06,-0.540
3.550E-06,0.360
3.560E-06,0.120
3.570E-06,1.540
3.580E-06,0.800
3.590E-06,0.140
3.600E-06,0.160
3.610E-06,0.000
3.620E-06,0.420
3.630E-06,1.020
3.640E-06,1.060
3.650E-06,0.940
3.660E-06,0.940
3.670E-06,0.720
3.680E-06,0.800
3.690E-06,0.620
3.700E-06,0.340
3.710E-06,0.200
3.720E-06,-0.040
3.730E-06,-0.280
3.740E-06,-0.280
3.750E-06,-0.780
3.760E-06,-1.340
3.770E-06,-1.340
3.780E-06,-1.920
3.790E-06,-2.200
3.800E-06,-2.680
3.810E-06,-2.660
3.820E-06,-2.400
3.830E-06,-1.800
3.840E-06,-0.400
3.850E-06,0.280
3.860E-06,0.500
3.870E-06,0.140
3.880E-06,-0.320
3.890E-06,-0.600
3.900E-06,-0.080
3.910E-06,0.740
3.920E-06,1.740
3.930E-06,2.380
3.940E-06,2.600
3.950E-06,2.460
3.960E-06,2.120
3.970E-06,1.920
3.980E-06,1.840
3.990E-06,1.740
4.000E-06,1.560
4.010E-06,1.500
4.020E-06,1.900
4.030E-06,0.920
4.040E-06,-0.100
4.050E-06,0.640
4.060E-06,-0.900
4.070E-06,1.020
4.080E-06,0.500
4.090E-06,-0.080
4.100E-06,0.660
4.110E-06,-1.380
4.120E-06,-1.460
4.130E-06,-0.860
4.140E-06,-0.900
4.150E-06,0.520
4.160E-06,0.180
4.170E-06,-0.620
4.180E-06,-0.320
4.190E-06,-0.880
4.200E-06,-0.740
4.210E-06,-0.440
4.220E-06,-0.600
4.230E-06,-0.540
4.240E-06,-0.720
4.250E-06,-0.940
4.260E-06,-0.860
4.270E-06,-1.020
4.280E-06,-1.000
4.290E-06,-1.200
4.300E-06,-1.120
4.310E-06,-1.040
4.320E-06,-1.500
4.330E-06,-1.080
4.340E-06,-0.900
4.350E-06,-0.320
4.360E-06,0.680
4.370E-06,0.680
4.380E-06,0.880
4.390E-06,0.380
4.400E-06,-0.200
4.410E-06,-0.080
4.420E-06,0.340
4.430E-06,0.680
4.440E-06,1.240
4.450E-06,1.040
4.460E-06,0.760
4.470E-06,0.660
4.480E-06,0.420
4.490E-06,0.240
4.500E-06,0.500
4.510E-06,0.060
4.520E-06,0.060
4.530E-06,0.620
4.540E-06,0.320
4.550E-06,0.760
4.560E-06,0.420
4.570E-06,0.000
4.580E-06,-0.140
4.590E-06,-0.480
4.600E-06,-0.440
4.610E-06,-0.300
4.620E-06,-0.300
4.630E-06,-0.080
4.640E-06,0.000
4.650E-06,0.140
4.660E-06,0.260
4.670E-06,0.400
4.680E-06,0.320
4.690E-06,0.340
4.700E-06,0.360
4.710E-06,-0.140
4.720E-06,-0.220
4.730E-06,-0.640
4.740E-06,-0.700
4.750E-06,0.000
4.760E-06,0.220
4.770E-06,1.020
4.780E-06,1.020
4.790E-06,0.300
4.800E-06,-0.040
4.810E-06,-0.660
4.820E-06,-0.660
4.830E-06,-0.260
4.840E-06,0.240
4.850E-06,0.340
4.860E-06,0.280
4.870E-06,-0.200
4.880E-06,-0.420
4.890E-06,-0.320
4.900E-06,-0.180
4.910E-06,0.080
4.920E-06,0.300
4.930E-06,0.160
4.940E-06,0.000
4.950E-06,-0.140
4.960E-06,-0.300
4.970E-06,-0.220
4.980E-06,-0.280
4.990E-06,-0.380
5.000E-06,-0.420
5.010E-06,-0.600
5.020E-06,-0.640
5.030E-06,-0.500
5.040E-06,-0.480
5.050E-06,-0.420
5.060E-06,-0.500
5.070E-06,-0.420
5.080E-06,-0.120
5.090E-06,-0.640
5.100E-06,-0.020
5.110E-06,0.320
5.120E-06,0.540
5.130E-06,1.320
5.140E-06,1.040
5.150E-06,1.100
5.160E-06,0.620
5.170E-06,0.080
5.180E-06,0.340
5.190E-06,0.420
5.200E-06,0.760
5.210E-06,0.860
5.220E-06,0.760
5.230E-06,0.460
5.240E-06,0.380
5.250E-06,0.360
5.260E-06,0.300
5.270E-06,0.520
5.280E-06,0.380
5.290E-06,0.380
5.300E-06,0.220
5.310E-06,0.000
5.320E-06,0.040
5.330E-06,-0.160
5.340E-06,-0.220
5.350E-06,-0.420
5.360E-06,-0.480
5.370E-06,-0.680
5.380E-06,-0.920
5.390E-06,-1.100
5.400E-06,-1.260
5.410E-06,-1.280
5.420E-06,-1.420
5.430E-06,-0.660
5.440E-06,-0.340
5.450E-06,-0.040
5.460E-06,0.440
5.470E-06,0.100
5.480E-06,0.380
5.490E-06,-0.100
5.500E-06,-0.440
5.510E-06,-0.040
5.520E-06,0.080
5.530E-06,0.600
5.540E-06,0.740
5.550E-06,0.480
5.560E-06,0.280
5.570E-06,0.000
5.580E-06,0.000
5.590E-06,0.420
5.600E-06,0.920
5.610E-06,1.360
5.620E-06,1.400
5.630E-06,1.080
5.640E-06,0.760
5.650E-06,0.620
5.660E-06,0.580
5.670E-06,0.740
5.680E-06,0.900
5.690E-06,0.860
5.700E-06,0.620
5.710E-06,0.520
5.720E-06,-0.020
5.730E-06,-0.700
5.740E-06,-0.120
5.750E-06,-0.960
5.760E-06,-0.660
5.770E-06,-0.560
5.780E-06,0.580
5.790E-06,-0.760
5.800E-06,-0.060
5.810E-06,-2.660
5.820E-06,0.600
5.830E-06,-1.020
5.840E-06,-0.360
5.850E-06,2.760
5.860E-06,0.380
5.870E-06,1.800
5.880E-06,1.300
5.890E-06,-1.580
5.900E-06,1.800
5.910E-06,2.540
5.920E-06,1.940
5.930E-06,2.760
5.940E-06,0.160
5.950E-06,-0.160
5.960E-06,-0.300
5.970E-06,-0.740
5.980E-06,-0.560
5.990E-06,0.380
6.000E-06,-0.540
6.010E-06,-0.500
6.020E-06,-0.820
6.030E-06,-1.280
6.040E-06,-1.880
6.050E-06,-2.140
6.060E-06,-2.360
6.070E-06,-2.340
6.080E-06,-1.360
6.090E-06,-0.920
6.100E-06,-0.700
6.110E-06,-0.560
6.120E-06,-0.400
6.130E-06,-0.700
6.140E-06,0.120
6.150E-06,0.340
6.160E-06,0.640
6.170E-06,1.060
6.180E-06,1.100
6.190E-06,1.160
6.200E-06,1.100
6.210E-06,0.760
6.220E-06,0.460
6.230E-06,0.460
6.240E-06,0.300
6.250E-06,0.300
6.260E-06,0.180
6.270E-06,-0.100
6.280E-06,-0.460
6.290E-06,-0.560
6.300E-06,-0.420
6.310E-06,-0.400
6.320E-06,-0.160
6.330E-06,0.060
6.340E-06,0.260
6.350E-06,0.660
6.360E-06,-0.520
6.370E-06,-1.220
6.380E-06,-0.640
6.390E-06,-2.140
6.400E-06,0.260
6.410E-06,0.380
6.420E-06,1.280
6.430E-06,1.220
6.440E-06,0.360
6.450E-06,0.940
6.460E-06,1.020
6.470E-06,1.580
6.480E-06,1.740
6.490E-06,2.320
6.500E-06,1.560
6.510E-06,1.740
6.520E-06,0.880
6.530E-06,0.260
6.540E-06,-0.120
6.550E-06,-0.420
6.560E-06,-0.620
6.570E-06,-0.420
6.580E-06,-0.820
6.590E-06,-1.020
6.600E-06,-1.620
6.610E-06,-2.300
6.620E-06,-2.160
6.630E-06,-2.020
6.640E-06,-1.200
6.650E-06,-0.880
6.660E-06,-1.200
6.670E-06,-2.020
6.680E-06,-2.500
6.690E-06,-1.820
6.700E-06,-0.780
6.710E-06,0.740
6.720E-06,1.620
6.730E-06,1.300
6.740E-06,0.640
6.750E-06,0.180
6.760E-06,0.100
6.770E-06,0.660
6.780E-06,1.140
6.790E-06,1.380
6.800E-06,1.700
6.810E-06,1.140
6.820E-06,1.000
6.830E-06,0.720
6.840E-06,0.320
6.850E-06,0.260
6.860E-06,0.480
6.870E-06,0.380
6.880E-06,0.340
6.890E-06,0.360
6.900E-06,-0.160
6.910E-06,-0.260
6.920E-06,-0.660
6.930E-06,-0.820
6.940E-06,-0.760
6.950E-06,-0.740
6.960E-06,-0.580
6.970E-06,-0.400
6.980E-06,-0.460
6.990E-06,-0.500
7.000E-06,-0.340
7.010E-06,-0.240
7.020E-06,0.000
7.030E-06,0.260
7.040E-06,0.420
7.050E-06,0.360
7.060E-06,0.400
7.070E-06,0.360
7.080E-06,0.320
7.090E-06,0.260
7.100E-06,0.160
7.110E-06,0.180
7.120E-06,0.080
7.130E-06,-0.120
7.140E-06,-0.100
7.150E-06,-0.380
7.160E-06,-0.360
7.170E-06,-0.180
7.180E-06,-0.180
7.190E-06,0.040
7.200E-06,0.040
7.210E-06,-0.020
7.220E-06,0.200
7.230E-06,0.140
7.240E-06,0.040
7.250E-06,0.260
7.260E-06,0.100
7.270E-06,0.340
7.280E-06,0.420
7.290E-06,0.420
7.300E-06,0.360
7.310E-06,0.280
7.320E-06,0.300
7.330E-06,0.240
7.340E-06,0.200
7.350E-06,0.180
7.360E-06,0.140
7.370E-06,0.080
7.380E-06,0.020
7.390E-06,0.000
7.400E-06,0.060
7.410E-06,0.060
7.420E-06,0.080
7.430E-06,0.080
7.440E-06,0.120
7.450E-06,0.220
7.460E-06,0.060
7.470E-06,-0.180
7.480E-06,0.000
7.490E-06,-0.320
7.500E-06,-0.500
7.510E-06,-0.160
7.520E-06,0.500
7.530E-06,-0.980
7.540E-06,0.240
7.550E-06,-2.660
7.560E-06,-2.660
7.570E-06,-2.640
7.580E-06,-2.660
7.590E-06,1.060
7.600E-06,1.320
7.610E-06,2.760
7.620E-06,2.780
