mediciones/6-10/20/WaveData5522.csv

#timebase=2000000(ps)
,#voltbase=100000(mv/100)
#size=4000
-4.250E-06,-0.020
-4.240E-06,0.044
-4.230E-06,0.104
-4.220E-06,0.108
-4.210E-06,0.060
-4.200E-06,0.008
-4.190E-06,-0.064
-4.180E-06,-0.056
-4.170E-06,-0.068
-4.160E-06,-0.008
-4.150E-06,0.048
-4.140E-06,0.088
-4.130E-06,0.096
-4.120E-06,0.084
-4.110E-06,0.008
-4.100E-06,-0.084
-4.090E-06,-0.116
-4.080E-06,-0.120
-4.070E-06,-0.060
-4.060E-06,0.036
-4.050E-06,0.092
-4.040E-06,0.088
-4.030E-06,0.036
-4.020E-06,-0.044
-4.010E-06,-0.088
-4.000E-06,-0.076
-3.990E-06,-0.024
-3.980E-06,0.020
-3.970E-06,0.052
-3.960E-06,0.052
-3.950E-06,0.032
-3.940E-06,-0.004
-3.930E-06,-0.044
-3.920E-06,-0.036
-3.910E-06,-0.020
-3.900E-06,0.024
-3.890E-06,0.048
-3.880E-06,0.040
-3.870E-06,0.020
-3.860E-06,0.020
-3.850E-06,-0.016
-3.840E-06,-0.040
-3.830E-06,-0.036
-3.820E-06,-0.012
-3.810E-06,0.000
-3.800E-06,0.012
-3.790E-06,0.024
-3.780E-06,-0.004
-3.770E-06,-0.004
-3.760E-06,-0.008
-3.750E-06,-0.008
-3.740E-06,-0.008
-3.730E-06,-0.012
-3.720E-06,-0.008
-3.710E-06,0.012
-3.700E-06,0.028
-3.690E-06,0.028
-3.680E-06,0.008
-3.670E-06,-0.024
-3.660E-06,-0.024
-3.650E-06,-0.016
-3.640E-06,0.000
-3.630E-06,0.024
-3.620E-06,0.024
-3.610E-06,0.016
-3.600E-06,0.000
-3.590E-06,0.000
-3.580E-06,-0.012
-3.570E-06,-0.004
-3.560E-06,-0.004
-3.550E-06,0.012
-3.540E-06,0.016
-3.530E-06,0.008
-3.520E-06,0.008
-3.510E-06,0.000
-3.500E-06,-0.004
-3.490E-06,-0.004
-3.480E-06,0.000
-3.470E-06,0.008
-3.460E-06,0.012
-3.450E-06,0.008
-3.440E-06,0.008
-3.430E-06,-0.004
-3.420E-06,0.000
-3.410E-06,-0.004
-3.400E-06,0.000
-3.390E-06,0.008
-3.380E-06,0.012
-3.370E-06,0.012
-3.360E-06,0.012
-3.350E-06,0.008
-3.340E-06,0.008
-3.330E-06,0.012
-3.320E-06,0.036
-3.310E-06,0.004
-3.300E-06,0.056
-3.290E-06,0.044
-3.280E-06,0.048
-3.270E-06,-0.084
-3.260E-06,-0.076
-3.250E-06,-0.060
-3.240E-06,0.040
-3.230E-06,0.028
-3.220E-06,0.012
-3.210E-06,0.008
-3.200E-06,-0.016
-3.190E-06,-0.020
-3.180E-06,-0.040
-3.170E-06,-0.040
-3.160E-06,0.008
-3.150E-06,0.040
-3.140E-06,0.024
-3.130E-06,0.024
-3.120E-06,0.008
-3.110E-06,-0.004
-3.100E-06,-0.008
-3.090E-06,0.000
-3.080E-06,0.000
-3.070E-06,0.008
-3.060E-06,0.020
-3.050E-06,0.024
-3.040E-06,0.036
-3.030E-06,0.004
-3.020E-06,-0.008
-3.010E-06,-0.040
-3.000E-06,-0.020
-2.990E-06,0.000
-2.980E-06,0.028
-2.970E-06,0.044
-2.960E-06,0.036
-2.950E-06,0.016
-2.940E-06,-0.008
-2.930E-06,-0.020
-2.920E-06,-0.016
-2.910E-06,0.004
-2.900E-06,0.024
-2.890E-06,0.028
-2.880E-06,0.020
-2.870E-06,0.004
-2.860E-06,-0.012
-2.850E-06,-0.008
-2.840E-06,-0.004
-2.830E-06,-0.004
-2.820E-06,0.008
-2.810E-06,0.004
-2.800E-06,0.008
-2.790E-06,0.020
-2.780E-06,0.024
-2.770E-06,0.024
-2.760E-06,0.016
-2.750E-06,0.000
-2.740E-06,-0.008
-2.730E-06,-0.012
-2.720E-06,-0.004
-2.710E-06,0.008
-2.700E-06,0.024
-2.690E-06,0.036
-2.680E-06,0.032
-2.670E-06,0.032
-2.660E-06,-0.004
-2.650E-06,-0.020
-2.640E-06,-0.036
-2.630E-06,-0.036
-2.620E-06,-0.004
-2.610E-06,0.024
-2.600E-06,0.012
-2.590E-06,-0.028
-2.580E-06,-0.032
-2.570E-06,-0.020
-2.560E-06,0.024
-2.550E-06,0.060
-2.540E-06,0.092
-2.530E-06,0.104
-2.520E-06,0.076
-2.510E-06,-0.008
-2.500E-06,-0.072
-2.490E-06,-0.076
-2.480E-06,-0.036
-2.470E-06,0.044
-2.460E-06,0.076
-2.450E-06,0.084
-2.440E-06,0.044
-2.430E-06,-0.012
-2.420E-06,-0.020
-2.410E-06,-0.036
-2.400E-06,0.036
-2.390E-06,0.068
-2.380E-06,0.128
-2.370E-06,0.104
-2.360E-06,0.088
-2.350E-06,0.004
-2.340E-06,-0.072
-2.330E-06,-0.072
-2.320E-06,-0.048
-2.310E-06,-0.032
-2.300E-06,-0.072
-2.290E-06,0.044
-2.280E-06,-0.060
-2.270E-06,0.008
-2.260E-06,0.048
-2.250E-06,0.060
-2.240E-06,0.056
-2.230E-06,0.004
-2.220E-06,-0.064
-2.210E-06,-0.080
-2.200E-06,0.044
-2.190E-06,0.120
-2.180E-06,0.180
-2.170E-06,0.144
-2.160E-06,0.056
-2.150E-06,-0.088
-2.140E-06,-0.056
-2.130E-06,-0.088
-2.120E-06,0.012
-2.110E-06,0.044
-2.100E-06,-0.024
-2.090E-06,0.112
-2.080E-06,-0.072
-2.070E-06,-0.096
-2.060E-06,-0.096
-2.050E-06,-0.152
-2.040E-06,0.104
-2.030E-06,0.080
-2.020E-06,0.016
-2.010E-06,-0.088
-2.000E-06,-0.140
-1.990E-06,-0.132
-1.980E-06,-0.048
-1.970E-06,-0.004
-1.960E-06,0.020
-1.950E-06,0.064
-1.940E-06,0.044
-1.930E-06,-0.028
-1.920E-06,-0.036
-1.910E-06,-0.068
-1.900E-06,-0.028
-1.890E-06,0.012
-1.880E-06,0.004
-1.870E-06,0.012
-1.860E-06,0.000
-1.850E-06,0.024
-1.840E-06,0.012
-1.830E-06,0.000
-1.820E-06,-0.024
-1.810E-06,-0.016
-1.800E-06,-0.008
-1.790E-06,0.008
-1.780E-06,0.028
-1.770E-06,0.024
-1.760E-06,0.004
-1.750E-06,-0.008
-1.740E-06,-0.020
-1.730E-06,-0.012
-1.720E-06,0.004
-1.710E-06,0.016
-1.700E-06,0.024
-1.690E-06,0.020
-1.680E-06,0.004
-1.670E-06,-0.008
-1.660E-06,-0.012
-1.650E-06,-0.008
-1.640E-06,0.000
-1.630E-06,0.016
-1.620E-06,0.024
-1.610E-06,0.012
-1.600E-06,0.008
-1.590E-06,0.000
-1.580E-06,-0.008
-1.570E-06,-0.004
-1.560E-06,0.000
-1.550E-06,0.008
-1.540E-06,0.016
-1.530E-06,0.008
-1.520E-06,0.008
-1.510E-06,0.008
-1.500E-06,0.000
-1.490E-06,-0.004
-1.480E-06,-0.004
-1.470E-06,0.008
-1.460E-06,0.016
-1.450E-06,0.016
-1.440E-06,0.036
-1.430E-06,0.032
-1.420E-06,0.044
-1.410E-06,0.056
-1.400E-06,0.068
-1.390E-06,0.076
-1.380E-06,0.096
-1.370E-06,0.088
-1.360E-06,0.004
-1.350E-06,-0.056
-1.340E-06,-0.148
-1.330E-06,-0.056
-1.320E-06,-0.056
-1.310E-06,0.024
-1.300E-06,0.012
-1.290E-06,-0.040
-1.280E-06,0.008
-1.270E-06,0.032
-1.260E-06,0.028
-1.250E-06,0.000
-1.240E-06,-0.068
-1.230E-06,-0.056
-1.220E-06,-0.008
-1.210E-06,0.020
-1.200E-06,0.012
-1.190E-06,-0.024
-1.180E-06,-0.024
-1.170E-06,0.012
-1.160E-06,0.040
-1.150E-06,0.024
-1.140E-06,0.020
-1.130E-06,0.000
-1.120E-06,0.012
-1.110E-06,0.016
-1.100E-06,0.020
-1.090E-06,0.028
-1.080E-06,0.020
-1.070E-06,0.024
-1.060E-06,0.028
-1.050E-06,0.024
-1.040E-06,0.020
-1.030E-06,0.028
-1.020E-06,0.044
-1.010E-06,0.048
-1.000E-06,0.064
-9.900E-07,0.052
-9.800E-07,0.036
-9.700E-07,0.028
-9.600E-07,0.028
-9.500E-07,0.020
-9.400E-07,0.036
-9.300E-07,0.012
-9.200E-07,0.012
-9.100E-07,0.016
-9.000E-07,0.052
-8.900E-07,0.096
-8.800E-07,0.092
-8.700E-07,0.084
-8.600E-07,0.000
-8.500E-07,-0.148
-8.400E-07,-0.168
-8.300E-07,-0.120
-8.200E-07,0.008
-8.100E-07,0.136
-8.000E-07,0.188
-7.900E-07,0.084
-7.800E-07,0.036
-7.700E-07,-0.064
-7.600E-07,-0.072
-7.500E-07,-0.056
-7.400E-07,-0.004
-7.300E-07,0.072
-7.200E-07,0.120
-7.100E-07,0.184
-7.000E-07,0.056
-6.900E-07,0.008
-6.800E-07,-0.068
-6.700E-07,-0.060
-6.600E-07,0.020
-6.500E-07,0.064
-6.400E-07,0.136
-6.300E-07,0.100
-6.200E-07,0.044
-6.100E-07,-0.048
-6.000E-07,-0.052
-5.900E-07,-0.112
-5.800E-07,-0.036
-5.700E-07,0.072
-5.600E-07,0.128
-5.500E-07,0.124
-5.400E-07,0.060
-5.300E-07,0.016
-5.200E-07,-0.020
-5.100E-07,-0.004
-5.000E-07,0.052
-4.900E-07,0.048
-4.800E-07,0.140
-4.700E-07,0.180
-4.600E-07,0.140
-4.500E-07,0.096
-4.400E-07,0.028
-4.300E-07,0.020
-4.200E-07,0.004
-4.100E-07,0.056
-4.000E-07,0.108
-3.900E-07,0.172
-3.800E-07,0.220
-3.700E-07,0.208
-3.600E-07,0.148
-3.500E-07,0.076
-3.400E-07,-0.016
-3.300E-07,0.000
-3.200E-07,-0.016
-3.100E-07,-0.004
-3.000E-07,0.032
-2.900E-07,-0.056
-2.800E-07,-0.072
-2.700E-07,-0.092
-2.600E-07,0.072
-2.500E-07,0.044
-2.400E-07,0.188
-2.300E-07,0.024
-2.200E-07,0.000
-2.100E-07,-0.272
-2.000E-07,-0.380
-1.900E-07,-0.284
-1.800E-07,-0.060
-1.700E-07,0.188
-1.600E-07,0.128
-1.500E-07,0.224
-1.400E-07,0.092
-1.300E-07,-0.028
-1.200E-07,-0.140
-1.100E-07,-0.088
-1.000E-07,0.052
-9.000E-08,0.172
-8.000E-08,0.248
-7.000E-08,0.120
-6.000E-08,-0.116
-5.000E-08,-0.340
-4.000E-08,-0.428
-3.000E-08,-0.344
-2.000E-08,-0.096
-1.000E-08,0.156
0.000E+00,0.340
1.000E-08,0.240
2.000E-08,-0.144
3.000E-08,-0.364
4.000E-08,-0.448
5.000E-08,-0.376
6.000E-08,-0.004
7.000E-08,0.152
8.000E-08,0.288
9.000E-08,0.128
1.000E-07,-0.020
1.100E-07,-0.276
1.200E-07,-0.352
1.300E-07,-0.136
1.400E-07,0.012
1.500E-07,0.192
1.600E-07,0.244
1.700E-07,0.152
1.800E-07,0.004
1.900E-07,-0.108
2.000E-07,-0.180
2.100E-07,-0.124
2.200E-07,0.020
2.300E-07,0.148
2.400E-07,0.184
2.500E-07,0.152
2.600E-07,0.004
2.700E-07,-0.080
2.800E-07,-0.140
2.900E-07,-0.080
3.000E-07,-0.004
3.100E-07,0.096
3.200E-07,0.144
3.300E-07,0.128
3.400E-07,0.064
3.500E-07,-0.004
3.600E-07,-0.044
3.700E-07,-0.020
3.800E-07,0.052
3.900E-07,0.124
4.000E-07,0.180
4.100E-07,0.164
4.200E-07,0.132
4.300E-07,0.112
4.400E-07,0.092
4.500E-07,0.096
4.600E-07,0.116
4.700E-07,0.156
4.800E-07,0.176
4.900E-07,0.180
5.000E-07,0.144
5.100E-07,0.136
5.200E-07,0.112
5.300E-07,0.108
5.400E-07,0.128
5.500E-07,0.156
5.600E-07,0.176
5.700E-07,0.188
5.800E-07,0.192
5.900E-07,0.164
6.000E-07,0.156
6.100E-07,0.160
6.200E-07,0.160
6.300E-07,0.168
6.400E-07,0.192
6.500E-07,0.216
6.600E-07,0.228
6.700E-07,0.220
6.800E-07,0.200
6.900E-07,0.184
7.000E-07,0.168
7.100E-07,0.180
7.200E-07,0.192
7.300E-07,0.216
7.400E-07,0.236
7.500E-07,0.236
7.600E-07,0.224
7.700E-07,0.188
7.800E-07,0.172
7.900E-07,0.180
8.000E-07,0.196
8.100E-07,0.220
8.200E-07,0.236
8.300E-07,0.236
8.400E-07,0.212
8.500E-07,0.188
8.600E-07,0.176
8.700E-07,0.168
8.800E-07,0.188
8.900E-07,0.196
9.000E-07,0.204
9.100E-07,0.192
9.200E-07,0.164
9.300E-07,0.132
9.400E-07,0.104
9.500E-07,0.104
9.600E-07,0.132
9.700E-07,0.144
9.800E-07,0.144
9.900E-07,0.136
1.000E-06,0.100
1.010E-06,0.112
1.020E-06,0.120
1.030E-06,0.132
1.040E-06,0.120
1.050E-06,-0.008
1.060E-06,0.020
1.070E-06,-0.124
1.080E-06,-0.196
1.090E-06,-0.244
1.100E-06,-0.216
1.110E-06,-0.188
1.120E-06,-0.304
1.130E-06,-0.072
1.140E-06,-0.196
1.150E-06,-0.064
1.160E-06,-0.020
1.170E-06,0.040
1.180E-06,0.148
1.190E-06,0.156
1.200E-06,0.208
1.210E-06,0.052
1.220E-06,0.108
1.230E-06,0.056
1.240E-06,0.000
1.250E-06,0.028
1.260E-06,0.076
1.270E-06,0.104
1.280E-06,0.096
1.290E-06,0.120
1.300E-06,0.104
1.310E-06,0.160
1.320E-06,0.128
1.330E-06,0.160
1.340E-06,0.180
1.350E-06,0.188
1.360E-06,0.176
1.370E-06,0.188
1.380E-06,0.208
1.390E-06,0.220
1.400E-06,0.228
1.410E-06,0.216
1.420E-06,0.220
1.430E-06,0.200
1.440E-06,0.208
1.450E-06,0.196
1.460E-06,0.212
1.470E-06,0.196
1.480E-06,0.216
1.490E-06,0.216
1.500E-06,0.228
1.510E-06,0.224
1.520E-06,0.212
1.530E-06,0.204
1.540E-06,0.200
1.550E-06,0.216
1.560E-06,0.216
1.570E-06,0.224
1.580E-06,0.216
1.590E-06,0.220
1.600E-06,0.204
1.610E-06,0.196
1.620E-06,0.196
1.630E-06,0.200
1.640E-06,0.208
1.650E-06,0.212
1.660E-06,0.216
1.670E-06,0.208
1.680E-06,0.216
1.690E-06,0.208
1.700E-06,0.216
1.710E-06,0.224
1.720E-06,0.228
1.730E-06,0.228
1.740E-06,0.220
1.750E-06,0.212
1.760E-06,0.204
1.770E-06,0.196
1.780E-06,0.196
1.790E-06,0.204
1.800E-06,0.204
1.810E-06,0.212
1.820E-06,0.212
1.830E-06,0.204
1.840E-06,0.204
1.850E-06,0.196
1.860E-06,0.196
1.870E-06,0.196
1.880E-06,0.204
1.890E-06,0.208
1.900E-06,0.204
1.910E-06,0.200
1.920E-06,0.200
1.930E-06,0.196
1.940E-06,0.188
1.950E-06,0.192
1.960E-06,0.196
1.970E-06,0.196
1.980E-06,0.196
1.990E-06,0.192
2.000E-06,0.188
2.010E-06,0.184
2.020E-06,0.188
2.030E-06,0.192
2.040E-06,0.196
2.050E-06,0.196
2.060E-06,0.192
2.070E-06,0.196
2.080E-06,0.188
2.090E-06,0.184
2.100E-06,0.188
2.110E-06,0.192
2.120E-06,0.192
2.130E-06,0.192
2.140E-06,0.196
2.150E-06,0.196
2.160E-06,0.188
2.170E-06,0.188
2.180E-06,0.188
2.190E-06,0.188
2.200E-06,0.192
2.210E-06,0.196
2.220E-06,0.192
2.230E-06,0.196
2.240E-06,0.188
2.250E-06,0.180
2.260E-06,0.172
2.270E-06,0.184
2.280E-06,0.188
2.290E-06,0.192
2.300E-06,0.184
2.310E-06,0.184
2.320E-06,0.180
2.330E-06,0.176
2.340E-06,0.176
2.350E-06,0.172
2.360E-06,0.180
2.370E-06,0.180
2.380E-06,0.180
2.390E-06,0.172
2.400E-06,0.176
2.410E-06,0.176
2.420E-06,0.172
2.430E-06,0.176
2.440E-06,0.176
2.450E-06,0.180
2.460E-06,0.180
2.470E-06,0.176
2.480E-06,0.184
2.490E-06,0.184
2.500E-06,0.184
2.510E-06,0.184
2.520E-06,0.176
2.530E-06,0.172
2.540E-06,0.172
2.550E-06,0.176
2.560E-06,0.164
2.570E-06,0.172
2.580E-06,0.176
2.590E-06,0.168
2.600E-06,0.164
2.610E-06,0.164
2.620E-06,0.168
2.630E-06,0.164
2.640E-06,0.176
2.650E-06,0.164
2.660E-06,0.160
2.670E-06,0.164
2.680E-06,0.160
2.690E-06,0.160
2.700E-06,0.164
2.710E-06,0.164
2.720E-06,0.172
2.730E-06,0.164
2.740E-06,0.172
2.750E-06,0.168
2.760E-06,0.168
2.770E-06,0.164
2.780E-06,0.160
2.790E-06,0.164
2.800E-06,0.160
2.810E-06,0.160
2.820E-06,0.164
2.830E-06,0.160
2.840E-06,0.164
2.850E-06,0.160
2.860E-06,0.168
2.870E-06,0.164
2.880E-06,0.168
2.890E-06,0.156
2.900E-06,0.156
2.910E-06,0.160
2.920E-06,0.160
2.930E-06,0.164
2.940E-06,0.160
2.950E-06,0.152
2.960E-06,0.156
2.970E-06,0.160
2.980E-06,0.160
2.990E-06,0.160
3.000E-06,0.152
3.010E-06,0.152
3.020E-06,0.156
3.030E-06,0.156
3.040E-06,0.160
3.050E-06,0.156
3.060E-06,0.152
3.070E-06,0.152
3.080E-06,0.156
3.090E-06,0.148
3.100E-06,0.148
3.110E-06,0.148
3.120E-06,0.152
3.130E-06,0.152
3.140E-06,0.152
3.150E-06,0.148
3.160E-06,0.140
3.170E-06,0.140
3.180E-06,0.140
3.190E-06,0.152
3.200E-06,0.160
3.210E-06,0.148
3.220E-06,0.148
3.230E-06,0.144
3.240E-06,0.140
3.250E-06,0.144
3.260E-06,0.148
3.270E-06,0.156
3.280E-06,0.160
3.290E-06,0.160
3.300E-06,0.144
3.310E-06,0.144
3.320E-06,0.140
3.330E-06,0.148
3.340E-06,0.132
3.350E-06,0.152
3.360E-06,0.140
3.370E-06,0.144
3.380E-06,0.156
3.390E-06,0.144
3.400E-06,0.148
3.410E-06,0.144
3.420E-06,0.136
3.430E-06,0.140
3.440E-06,0.140
3.450E-06,0.148
3.460E-06,0.136
3.470E-06,0.136
3.480E-06,0.140
3.490E-06,0.136
3.500E-06,0.140
3.510E-06,0.144
3.520E-06,0.136
3.530E-06,0.136
3.540E-06,0.132
3.550E-06,0.132
3.560E-06,0.132
3.570E-06,0.136
3.580E-06,0.136
3.590E-06,0.132
3.600E-06,0.132
3.610E-06,0.132
3.620E-06,0.132
3.630E-06,0.132
3.640E-06,0.128
3.650E-06,0.132
3.660E-06,0.128
3.670E-06,0.132
3.680E-06,0.132
3.690E-06,0.128
3.700E-06,0.128
3.710E-06,0.124
3.720E-06,0.128
3.730E-06,0.128
3.740E-06,0.132
3.750E-06,0.124
3.760E-06,0.124
3.770E-06,0.124
3.780E-06,0.124
3.790E-06,0.124
3.800E-06,0.124
3.810E-06,0.124
3.820E-06,0.128
3.830E-06,0.128
3.840E-06,0.124
3.850E-06,0.124
3.860E-06,0.124
3.870E-06,0.124
3.880E-06,0.124
3.890E-06,0.124
3.900E-06,0.120
3.910E-06,0.124
3.920E-06,0.124
3.930E-06,0.120
3.940E-06,0.120
3.950E-06,0.116
3.960E-06,0.120
3.970E-06,0.112
3.980E-06,0.112
3.990E-06,0.112
4.000E-06,0.112
4.010E-06,0.108
4.020E-06,0.112
4.030E-06,0.116
4.040E-06,0.108
4.050E-06,0.108
4.060E-06,0.108
4.070E-06,0.108
4.080E-06,0.108
4.090E-06,0.108
4.100E-06,0.108
4.110E-06,0.116
4.120E-06,0.112
4.130E-06,0.112
4.140E-06,0.108
4.150E-06,0.108
4.160E-06,0.104
4.170E-06,0.100
4.180E-06,0.104
4.190E-06,0.108
4.200E-06,0.104
4.210E-06,0.108
4.220E-06,0.104
4.230E-06,0.104
4.240E-06,0.100
4.250E-06,0.096
4.260E-06,0.096
4.270E-06,0.104
4.280E-06,0.100
4.290E-06,0.104
4.300E-06,0.104
4.310E-06,0.104
4.320E-06,0.100
4.330E-06,0.092
4.340E-06,0.096
4.350E-06,0.092
4.360E-06,0.092
4.370E-06,0.096
4.380E-06,0.100
4.390E-06,0.096
4.400E-06,0.096
4.410E-06,0.104
4.420E-06,0.104
4.430E-06,0.096
4.440E-06,0.096
4.450E-06,0.096
4.460E-06,0.092
4.470E-06,0.092
4.480E-06,0.088
4.490E-06,0.096
4.500E-06,0.100
4.510E-06,0.096
4.520E-06,0.096
4.530E-06,0.088
4.540E-06,0.092
4.550E-06,0.088
4.560E-06,0.092
4.570E-06,0.096
4.580E-06,0.096
4.590E-06,0.092
4.600E-06,0.092
4.610E-06,0.088
4.620E-06,0.088
4.630E-06,0.088
4.640E-06,0.092
4.650E-06,0.088
4.660E-06,0.092
4.670E-06,0.088
4.680E-06,0.088
4.690E-06,0.088
4.700E-06,0.092
4.710E-06,0.088
4.720E-06,0.088
4.730E-06,0.088
4.740E-06,0.088
4.750E-06,0.080
4.760E-06,0.084
4.770E-06,0.088
4.780E-06,0.084
4.790E-06,0.088
4.800E-06,0.088
4.810E-06,0.084
4.820E-06,0.084
4.830E-06,0.080
4.840E-06,0.084
4.850E-06,0.080
4.860E-06,0.084
4.870E-06,0.092
4.880E-06,0.088
4.890E-06,0.088
4.900E-06,0.076
4.910E-06,0.076
4.920E-06,0.076
4.930E-06,0.080
4.940E-06,0.080
4.950E-06,0.084
4.960E-06,0.088
4.970E-06,0.076
4.980E-06,0.080
4.990E-06,0.080
5.000E-06,0.072
5.010E-06,0.072
5.020E-06,0.076
5.030E-06,0.080
5.040E-06,0.076
5.050E-06,0.076
5.060E-06,0.072
5.070E-06,0.072
5.080E-06,0.068
5.090E-06,0.068
5.100E-06,0.072
5.110E-06,0.072
5.120E-06,0.076
5.130E-06,0.076
5.140E-06,0.072
5.150E-06,0.072
5.160E-06,0.064
5.170E-06,0.064
5.180E-06,0.064
5.190E-06,0.068
5.200E-06,0.064
5.210E-06,0.068
5.220E-06,0.064
5.230E-06,0.068
5.240E-06,0.068
5.250E-06,0.060
5.260E-06,0.060
5.270E-06,0.060
5.280E-06,0.068
5.290E-06,0.064
5.300E-06,0.060
5.310E-06,0.060
5.320E-06,0.064
5.330E-06,0.060
5.340E-06,0.060
5.350E-06,0.060
5.360E-06,0.056
5.370E-06,0.064
5.380E-06,0.064
5.390E-06,0.060
5.400E-06,0.064
5.410E-06,0.060
5.420E-06,0.056
5.430E-06,0.056
5.440E-06,0.056
5.450E-06,0.052
5.460E-06,0.056
5.470E-06,0.056
5.480E-06,0.056
5.490E-06,0.056
5.500E-06,0.060
5.510E-06,0.056
5.520E-06,0.056
5.530E-06,0.048
5.540E-06,0.048
5.550E-06,0.052
5.560E-06,0.052
5.570E-06,0.052
5.580E-06,0.052
5.590E-06,0.052
5.600E-06,0.048
5.610E-06,0.044
5.620E-06,0.044
5.630E-06,0.052
5.640E-06,0.048
5.650E-06,0.048
5.660E-06,0.048
5.670E-06,0.040
5.680E-06,0.044
5.690E-06,0.044
5.700E-06,0.044
5.710E-06,0.048
5.720E-06,0.048
5.730E-06,0.048
5.740E-06,0.044
5.750E-06,0.040
5.760E-06,0.040
5.770E-06,0.040
5.780E-06,0.044
5.790E-06,0.044
5.800E-06,0.048
5.810E-06,0.048
5.820E-06,0.052
5.830E-06,0.044
5.840E-06,0.036
5.850E-06,0.036
5.860E-06,0.032
5.870E-06,0.040
5.880E-06,0.044
5.890E-06,0.044
5.900E-06,0.040
5.910E-06,0.040
5.920E-06,0.040
5.930E-06,0.032
5.940E-06,0.036
5.950E-06,0.040
5.960E-06,0.040
5.970E-06,0.044
5.980E-06,0.040
5.990E-06,0.044
6.000E-06,0.036
6.010E-06,0.036
6.020E-06,0.036
6.030E-06,0.028
6.040E-06,0.036
6.050E-06,0.044
6.060E-06,0.044
6.070E-06,0.040
6.080E-06,0.032
6.090E-06,0.032
6.100E-06,0.032
6.110E-06,0.032
6.120E-06,0.036
6.130E-06,0.036
6.140E-06,0.032
6.150E-06,0.008
6.160E-06,0.012
6.170E-06,0.036
6.180E-06,0.032
6.190E-06,0.040
6.200E-06,0.044
6.210E-06,0.032
6.220E-06,0.048
6.230E-06,0.040
6.240E-06,0.028
6.250E-06,0.028
6.260E-06,0.024
6.270E-06,0.024
6.280E-06,0.028
6.290E-06,0.028
6.300E-06,0.032
6.310E-06,0.036
6.320E-06,0.028
6.330E-06,0.024
6.340E-06,0.028
6.350E-06,0.020
6.360E-06,0.016
6.370E-06,0.024
6.380E-06,0.032
6.390E-06,0.028
6.400E-06,0.020
6.410E-06,0.024
6.420E-06,0.020
6.430E-06,0.020
6.440E-06,0.020
6.450E-06,0.024
6.460E-06,0.028
6.470E-06,0.024
6.480E-06,0.024
6.490E-06,0.024
6.500E-06,0.024
6.510E-06,0.020
6.520E-06,0.016
6.530E-06,0.016
6.540E-06,0.024
6.550E-06,0.020
6.560E-06,0.024
6.570E-06,0.016
6.580E-06,0.020
6.590E-06,0.016
6.600E-06,0.016
6.610E-06,0.016
6.620E-06,0.016
6.630E-06,0.016
6.640E-06,0.020
6.650E-06,0.024
6.660E-06,0.020
6.670E-06,0.012
6.680E-06,0.012
6.690E-06,0.012
6.700E-06,0.012
6.710E-06,0.016
6.720E-06,0.020
6.730E-06,0.016
6.740E-06,0.016
6.750E-06,0.020
6.760E-06,0.012
6.770E-06,0.012
6.780E-06,0.012
6.790E-06,0.012
6.800E-06,0.012
6.810E-06,0.012
6.820E-06,0.012
6.830E-06,0.012
6.840E-06,0.012
6.850E-06,0.012
6.860E-06,0.012
6.870E-06,0.004
6.880E-06,0.012
6.890E-06,0.008
6.900E-06,0.012
6.910E-06,0.008
6.920E-06,0.012
6.930E-06,0.012
6.940E-06,0.012
6.950E-06,0.008
6.960E-06,0.012
6.970E-06,0.004
6.980E-06,0.008
6.990E-06,0.012
7.000E-06,0.008
7.010E-06,0.004
7.020E-06,0.008
7.030E-06,0.012
7.040E-06,0.004
7.050E-06,0.004
7.060E-06,0.008
7.070E-06,0.008
7.080E-06,0.004
7.090E-06,0.008
7.100E-06,0.004
7.110E-06,0.004
7.120E-06,0.004
7.130E-06,0.000
7.140E-06,0.004
7.150E-06,0.008
7.160E-06,0.008
7.170E-06,0.012
7.180E-06,0.004
7.190E-06,0.004
7.200E-06,0.004
7.210E-06,0.004
7.220E-06,0.004
7.230E-06,0.004
7.240E-06,0.004
7.250E-06,0.004
7.260E-06,0.004
7.270E-06,0.000
7.280E-06,0.004
7.290E-06,0.000
7.300E-06,0.000
7.310E-06,0.004
7.320E-06,0.000
7.330E-06,0.000
7.340E-06,-0.004
7.350E-06,0.000
7.360E-06,0.000
7.370E-06,0.000
7.380E-06,0.000
7.390E-06,0.000
7.400E-06,0.000
7.410E-06,0.000
7.420E-06,0.000
7.430E-06,0.000
7.440E-06,0.000
7.450E-06,0.000
7.460E-06,0.000
7.470E-06,0.000
7.480E-06,-0.004
7.490E-06,-0.004
7.500E-06,-0.008
7.510E-06,0.004
7.520E-06,0.000
7.530E-06,0.000
7.540E-06,-0.004
7.550E-06,0.000
7.560E-06,-0.004
7.570E-06,-0.008
7.580E-06,0.000
7.590E-06,0.000
7.600E-06,-0.004
7.610E-06,-0.008
7.620E-06,-0.008
7.630E-06,0.000
7.640E-06,-0.008
7.650E-06,-0.008
7.660E-06,-0.004
7.670E-06,-0.004
7.680E-06,0.000
7.690E-06,-0.004
7.700E-06,-0.004
7.710E-06,-0.008
7.720E-06,-0.008
7.730E-06,-0.004
7.740E-06,-0.008
7.750E-06,-0.008
7.760E-06,-0.008
7.770E-06,-0.008
7.780E-06,-0.008
7.790E-06,-0.008
7.800E-06,-0.008
