mediciones/Mediciones filtradas (saque las feas)/5-15/-40/WaveData47636.csv

#timebase=2000000(ps)
,#voltbase=1000000(mv/100)
#size=4000
-8.400E-06,0.080
-8.390E-06,0.080
-8.380E-06,0.080
-8.370E-06,0.040
-8.360E-06,0.040
-8.350E-06,0.000
-8.340E-06,0.040
-8.330E-06,0.040
-8.320E-06,0.000
-8.310E-06,-0.040
-8.300E-06,-0.080
-8.290E-06,-0.080
-8.280E-06,-0.080
-8.270E-06,-0.080
-8.260E-06,-0.040
-8.250E-06,-0.080
-8.240E-06,-0.160
-8.230E-06,-0.080
-8.220E-06,-0.080
-8.210E-06,-0.120
-8.200E-06,-0.120
-8.190E-06,-0.080
-8.180E-06,0.000
-8.170E-06,0.000
-8.160E-06,-0.040
-8.150E-06,-0.040
-8.140E-06,-0.040
-8.130E-06,-0.080
-8.120E-06,-0.160
-8.110E-06,-0.080
-8.100E-06,-0.120
-8.090E-06,-0.040
-8.080E-06,-0.120
-8.070E-06,-0.160
-8.060E-06,-0.120
-8.050E-06,-0.080
-8.040E-06,-0.080
-8.030E-06,-0.160
-8.020E-06,-0.240
-8.010E-06,-0.040
-8.000E-06,-0.040
-7.990E-06,0.160
-7.980E-06,0.040
-7.970E-06,0.000
-7.960E-06,-0.160
-7.950E-06,-0.200
-7.940E-06,-0.200
-7.930E-06,-0.160
-7.920E-06,-0.080
-7.910E-06,-0.040
-7.900E-06,-0.200
-7.890E-06,-0.240
-7.880E-06,-0.280
-7.870E-06,-0.080
-7.860E-06,0.000
-7.850E-06,0.000
-7.840E-06,-0.080
-7.830E-06,-0.120
-7.820E-06,-0.120
-7.810E-06,0.000
-7.800E-06,0.040
-7.790E-06,0.000
-7.780E-06,0.000
-7.770E-06,0.000
-7.760E-06,0.000
-7.750E-06,0.040
-7.740E-06,0.040
-7.730E-06,0.040
-7.720E-06,0.080
-7.710E-06,0.080
-7.700E-06,0.080
-7.690E-06,0.000
-7.680E-06,0.040
-7.670E-06,0.120
-7.660E-06,0.160
-7.650E-06,0.080
-7.640E-06,0.040
-7.630E-06,0.080
-7.620E-06,0.040
-7.610E-06,0.080
-7.600E-06,0.120
-7.590E-06,0.040
-7.580E-06,0.000
-7.570E-06,-0.040
-7.560E-06,-0.040
-7.550E-06,-0.040
-7.540E-06,-0.040
-7.530E-06,-0.040
-7.520E-06,-0.080
-7.510E-06,-0.080
-7.500E-06,-0.080
-7.490E-06,0.000
-7.480E-06,-0.080
-7.470E-06,-0.120
-7.460E-06,-0.040
-7.450E-06,-0.080
-7.440E-06,-0.160
-7.430E-06,-0.080
-7.420E-06,-0.120
-7.410E-06,0.000
-7.400E-06,0.000
-7.390E-06,-0.040
-7.380E-06,-0.040
-7.370E-06,-0.080
-7.360E-06,-0.040
-7.350E-06,-0.040
-7.340E-06,0.000
-7.330E-06,-0.040
-7.320E-06,0.000
-7.310E-06,-0.040
-7.300E-06,0.000
-7.290E-06,0.000
-7.280E-06,0.000
-7.270E-06,0.000
-7.260E-06,-0.040
-7.250E-06,-0.080
-7.240E-06,-0.040
-7.230E-06,0.000
-7.220E-06,0.000
-7.210E-06,0.000
-7.200E-06,-0.040
-7.190E-06,-0.080
-7.180E-06,-0.120
-7.170E-06,-0.120
-7.160E-06,-0.160
-7.150E-06,-0.120
-7.140E-06,-0.160
-7.130E-06,-0.200
-7.120E-06,-0.200
-7.110E-06,-0.160
-7.100E-06,-0.200
-7.090E-06,-0.160
-7.080E-06,-0.080
-7.070E-06,-0.160
-7.060E-06,-0.120
-7.050E-06,-0.120
-7.040E-06,-0.120
-7.030E-06,-0.080
-7.020E-06,-0.080
-7.010E-06,-0.080
-7.000E-06,-0.080
-6.990E-06,-0.080
-6.980E-06,-0.040
-6.970E-06,-0.080
-6.960E-06,-0.040
-6.950E-06,0.000
-6.940E-06,-0.040
-6.930E-06,0.040
-6.920E-06,-0.040
-6.910E-06,-0.040
-6.900E-06,0.040
-6.890E-06,0.080
-6.880E-06,0.000
-6.870E-06,-0.040
-6.860E-06,0.000
-6.850E-06,-0.040
-6.840E-06,0.040
-6.830E-06,0.000
-6.820E-06,0.000
-6.810E-06,0.000
-6.800E-06,0.000
-6.790E-06,0.040
-6.780E-06,-0.080
-6.770E-06,-0.120
-6.760E-06,-0.160
-6.750E-06,-0.240
-6.740E-06,-0.160
-6.730E-06,-0.120
-6.720E-06,0.000
-6.710E-06,-0.240
-6.700E-06,-0.040
-6.690E-06,-0.280
-6.680E-06,-0.360
-6.670E-06,-0.400
-6.660E-06,-0.480
-6.650E-06,-0.400
-6.640E-06,-0.400
-6.630E-06,-0.560
-6.620E-06,-0.520
-6.610E-06,-0.480
-6.600E-06,-0.440
-6.590E-06,-0.280
-6.580E-06,-0.320
-6.570E-06,-0.320
-6.560E-06,-0.320
-6.550E-06,-0.280
-6.540E-06,-0.240
-6.530E-06,-0.160
-6.520E-06,-0.040
-6.510E-06,-0.040
-6.500E-06,-0.080
-6.490E-06,-0.040
-6.480E-06,0.000
-6.470E-06,0.080
-6.460E-06,0.080
-6.450E-06,0.080
-6.440E-06,0.080
-6.430E-06,0.120
-6.420E-06,0.120
-6.410E-06,0.160
-6.400E-06,0.160
-6.390E-06,0.200
-6.380E-06,0.160
-6.370E-06,0.120
-6.360E-06,0.160
-6.350E-06,0.200
-6.340E-06,0.160
-6.330E-06,0.160
-6.320E-06,0.120
-6.310E-06,0.080
-6.300E-06,-0.040
-6.290E-06,0.000
-6.280E-06,-0.080
-6.270E-06,-0.040
-6.260E-06,-0.120
-6.250E-06,-0.160
-6.240E-06,-0.160
-6.230E-06,-0.160
-6.220E-06,-0.200
-6.210E-06,-0.120
-6.200E-06,-0.120
-6.190E-06,-0.160
-6.180E-06,-0.120
-6.170E-06,-0.120
-6.160E-06,-0.080
-6.150E-06,-0.120
-6.140E-06,-0.120
-6.130E-06,-0.280
-6.120E-06,-0.200
-6.110E-06,-0.080
-6.100E-06,-0.040
-6.090E-06,-0.160
-6.080E-06,-0.040
-6.070E-06,-0.200
-6.060E-06,-0.320
-6.050E-06,-0.280
-6.040E-06,-0.280
-6.030E-06,-0.240
-6.020E-06,-0.200
-6.010E-06,-0.320
-6.000E-06,-0.320
-5.990E-06,-0.320
-5.980E-06,-0.280
-5.970E-06,-0.200
-5.960E-06,-0.280
-5.950E-06,-0.240
-5.940E-06,-0.240
-5.930E-06,-0.280
-5.920E-06,-0.200
-5.910E-06,-0.200
-5.900E-06,-0.080
-5.890E-06,-0.120
-5.880E-06,-0.120
-5.870E-06,-0.080
-5.860E-06,-0.040
-5.850E-06,0.000
-5.840E-06,-0.040
-5.830E-06,0.040
-5.820E-06,0.080
-5.810E-06,0.000
-5.800E-06,0.000
-5.790E-06,0.080
-5.780E-06,0.080
-5.770E-06,0.120
-5.760E-06,0.160
-5.750E-06,0.120
-5.740E-06,0.120
-5.730E-06,0.080
-5.720E-06,0.120
-5.710E-06,0.120
-5.700E-06,0.080
-5.690E-06,0.040
-5.680E-06,0.040
-5.670E-06,-0.040
-5.660E-06,-0.040
-5.650E-06,0.040
-5.640E-06,-0.040
-5.630E-06,0.000
-5.620E-06,-0.040
-5.610E-06,-0.080
-5.600E-06,-0.080
-5.590E-06,-0.120
-5.580E-06,-0.160
-5.570E-06,-0.080
-5.560E-06,-0.080
-5.550E-06,-0.160
-5.540E-06,-0.120
-5.530E-06,-0.120
-5.520E-06,-0.200
-5.510E-06,-0.160
-5.500E-06,-0.120
-5.490E-06,-0.200
-5.480E-06,-0.200
-5.470E-06,-0.320
-5.460E-06,-0.160
-5.450E-06,-0.320
-5.440E-06,-0.240
-5.430E-06,-0.240
-5.420E-06,-0.280
-5.410E-06,-0.320
-5.400E-06,-0.440
-5.390E-06,-0.440
-5.380E-06,-0.680
-5.370E-06,-0.560
-5.360E-06,-0.560
-5.350E-06,-0.520
-5.340E-06,-0.560
-5.330E-06,-0.520
-5.320E-06,-0.480
-5.310E-06,-0.480
-5.300E-06,-0.360
-5.290E-06,-0.360
-5.280E-06,-0.240
-5.270E-06,-0.240
-5.260E-06,-0.200
-5.250E-06,-0.160
-5.240E-06,-0.160
-5.230E-06,-0.120
-5.220E-06,0.000
-5.210E-06,-0.040
-5.200E-06,-0.040
-5.190E-06,0.000
-5.180E-06,0.080
-5.170E-06,0.120
-5.160E-06,0.160
-5.150E-06,0.040
-5.140E-06,0.080
-5.130E-06,0.120
-5.120E-06,0.120
-5.110E-06,0.080
-5.100E-06,-0.040
-5.090E-06,-0.040
-5.080E-06,0.080
-5.070E-06,0.000
-5.060E-06,0.080
-5.050E-06,0.120
-5.040E-06,0.120
-5.030E-06,0.000
-5.020E-06,-0.040
-5.010E-06,-0.040
-5.000E-06,-0.040
-4.990E-06,-0.160
-4.980E-06,-0.160
-4.970E-06,-0.200
-4.960E-06,-0.240
-4.950E-06,-0.200
-4.940E-06,-0.160
-4.930E-06,-0.160
-4.920E-06,-0.120
-4.910E-06,-0.120
-4.900E-06,-0.240
-4.890E-06,-0.320
-4.880E-06,-0.320
-4.870E-06,-0.400
-4.860E-06,-0.440
-4.850E-06,-0.480
-4.840E-06,-0.680
-4.830E-06,-0.680
-4.820E-06,-0.720
-4.810E-06,-0.600
-4.800E-06,-0.480
-4.790E-06,-0.400
-4.780E-06,-0.320
-4.770E-06,-0.320
-4.760E-06,-0.440
-4.750E-06,-0.440
-4.740E-06,-0.520
-4.730E-06,-0.480
-4.720E-06,-0.440
-4.710E-06,-0.480
-4.700E-06,-0.480
-4.690E-06,-0.440
-4.680E-06,-0.360
-4.670E-06,-0.360
-4.660E-06,-0.240
-4.650E-06,-0.240
-4.640E-06,-0.240
-4.630E-06,-0.240
-4.620E-06,-0.240
-4.610E-06,-0.080
-4.600E-06,-0.080
-4.590E-06,-0.080
-4.580E-06,0.000
-4.570E-06,0.000
-4.560E-06,0.040
-4.550E-06,0.000
-4.540E-06,0.120
-4.530E-06,0.080
-4.520E-06,0.160
-4.510E-06,0.120
-4.500E-06,0.120
-4.490E-06,0.160
-4.480E-06,0.120
-4.470E-06,0.120
-4.460E-06,0.160
-4.450E-06,0.160
-4.440E-06,0.120
-4.430E-06,0.160
-4.420E-06,0.160
-4.410E-06,0.080
-4.400E-06,0.120
-4.390E-06,0.000
-4.380E-06,0.000
-4.370E-06,-0.080
-4.360E-06,-0.160
-4.350E-06,-0.240
-4.340E-06,-0.280
-4.330E-06,-0.280
-4.320E-06,-0.360
-4.310E-06,-0.360
-4.300E-06,-0.320
-4.290E-06,-0.360
-4.280E-06,-0.440
-4.270E-06,-0.400
-4.260E-06,-0.400
-4.250E-06,-0.360
-4.240E-06,-0.360
-4.230E-06,-0.320
-4.220E-06,-0.360
-4.210E-06,-0.440
-4.200E-06,-0.360
-4.190E-06,-0.520
-4.180E-06,-0.600
-4.170E-06,-0.320
-4.160E-06,-0.040
-4.150E-06,-0.440
-4.140E-06,0.120
-4.130E-06,-0.840
-4.120E-06,-0.520
-4.110E-06,-1.000
-4.100E-06,-0.960
-4.090E-06,-0.680
-4.080E-06,-0.840
-4.070E-06,-1.040
-4.060E-06,-0.960
-4.050E-06,-1.120
-4.040E-06,-0.920
-4.030E-06,-0.680
-4.020E-06,-0.640
-4.010E-06,-0.640
-4.000E-06,-0.680
-3.990E-06,-0.680
-3.980E-06,-0.520
-3.970E-06,-0.320
-3.960E-06,-0.280
-3.950E-06,-0.160
-3.940E-06,-0.160
-3.930E-06,-0.080
-3.920E-06,0.000
-3.910E-06,0.080
-3.900E-06,0.120
-3.890E-06,0.160
-3.880E-06,0.240
-3.870E-06,0.280
-3.860E-06,0.320
-3.850E-06,0.360
-3.840E-06,0.320
-3.830E-06,0.360
-3.820E-06,0.400
-3.810E-06,0.400
-3.800E-06,0.400
-3.790E-06,0.320
-3.780E-06,0.320
-3.770E-06,0.240
-3.760E-06,0.120
-3.750E-06,0.080
-3.740E-06,-0.040
-3.730E-06,-0.160
-3.720E-06,-0.240
-3.710E-06,-0.320
-3.700E-06,-0.320
-3.690E-06,-0.320
-3.680E-06,-0.320
-3.670E-06,-0.200
-3.660E-06,-0.240
-3.650E-06,-0.320
-3.640E-06,-0.440
-3.630E-06,-0.440
-3.620E-06,-0.560
-3.610E-06,-0.600
-3.600E-06,-0.800
-3.590E-06,-0.720
-3.580E-06,-0.880
-3.570E-06,-0.600
-3.560E-06,-0.480
-3.550E-06,-0.720
-3.540E-06,-0.480
-3.530E-06,-1.240
-3.520E-06,-1.120
-3.510E-06,-1.240
-3.500E-06,-1.120
-3.490E-06,-0.960
-3.480E-06,-1.080
-3.470E-06,-1.240
-3.460E-06,-1.160
-3.450E-06,-1.120
-3.440E-06,-0.840
-3.430E-06,-0.720
-3.420E-06,-0.720
-3.410E-06,-0.760
-3.400E-06,-0.760
-3.390E-06,-0.560
-3.380E-06,-0.440
-3.370E-06,-0.240
-3.360E-06,-0.240
-3.350E-06,-0.200
-3.340E-06,-0.080
-3.330E-06,0.040
-3.320E-06,0.200
-3.310E-06,0.280
-3.300E-06,0.320
-3.290E-06,0.320
-3.280E-06,0.440
-3.270E-06,0.480
-3.260E-06,0.520
-3.250E-06,0.480
-3.240E-06,0.480
-3.230E-06,0.440
-3.220E-06,0.480
-3.210E-06,0.440
-3.200E-06,0.360
-3.190E-06,0.320
-3.180E-06,0.360
-3.170E-06,0.200
-3.160E-06,0.160
-3.150E-06,0.040
-3.140E-06,0.000
-3.130E-06,-0.040
-3.120E-06,0.040
-3.110E-06,0.040
-3.100E-06,0.080
-3.090E-06,0.040
-3.080E-06,-0.040
-3.070E-06,0.000
-3.060E-06,-0.120
-3.050E-06,-0.160
-3.040E-06,-0.280
-3.030E-06,-0.400
-3.020E-06,-0.520
-3.010E-06,-0.560
-3.000E-06,-0.560
-2.990E-06,-0.680
-2.980E-06,-0.600
-2.970E-06,-0.720
-2.960E-06,-0.720
-2.950E-06,-0.920
-2.940E-06,-0.920
-2.930E-06,-1.080
-2.920E-06,-1.200
-2.910E-06,-0.840
-2.900E-06,-1.120
-2.890E-06,-0.640
-2.880E-06,-0.800
-2.870E-06,-0.800
-2.860E-06,-0.680
-2.850E-06,-0.720
-2.840E-06,-0.560
-2.830E-06,-0.440
-2.820E-06,-0.480
-2.810E-06,-0.480
-2.800E-06,-0.480
-2.790E-06,-0.440
-2.780E-06,-0.400
-2.770E-06,-0.320
-2.760E-06,-0.360
-2.750E-06,-0.400
-2.740E-06,-0.360
-2.730E-06,-0.280
-2.720E-06,-0.240
-2.710E-06,-0.160
-2.700E-06,-0.120
-2.690E-06,-0.160
-2.680E-06,-0.160
-2.670E-06,-0.040
-2.660E-06,0.000
-2.650E-06,0.040
-2.640E-06,0.040
-2.630E-06,0.080
-2.620E-06,0.120
-2.610E-06,0.240
-2.600E-06,0.360
-2.590E-06,0.320
-2.580E-06,0.360
-2.570E-06,0.360
-2.560E-06,0.440
-2.550E-06,0.400
-2.540E-06,0.480
-2.530E-06,0.400
-2.520E-06,0.400
-2.510E-06,0.320
-2.500E-06,0.320
-2.490E-06,0.280
-2.480E-06,0.200
-2.470E-06,0.200
-2.460E-06,0.080
-2.450E-06,0.040
-2.440E-06,0.000
-2.430E-06,-0.080
-2.420E-06,-0.160
-2.410E-06,-0.200
-2.400E-06,-0.240
-2.390E-06,-0.280
-2.380E-06,-0.360
-2.370E-06,-0.400
-2.360E-06,-0.520
-2.350E-06,-0.520
-2.340E-06,-0.520
-2.330E-06,-0.640
-2.320E-06,-0.600
-2.310E-06,-0.680
-2.300E-06,-0.480
-2.290E-06,-0.240
-2.280E-06,-0.200
-2.270E-06,-0.040
-2.260E-06,-0.040
-2.250E-06,-0.520
-2.240E-06,-0.480
-2.230E-06,-0.760
-2.220E-06,-0.680
-2.210E-06,-0.440
-2.200E-06,-0.640
-2.190E-06,-0.680
-2.180E-06,-0.920
-2.170E-06,-1.040
-2.160E-06,-0.840
-2.150E-06,-0.800
-2.140E-06,-0.760
-2.130E-06,-0.800
-2.120E-06,-0.840
-2.110E-06,-0.800
-2.100E-06,-0.680
-2.090E-06,-0.600
-2.080E-06,-0.520
-2.070E-06,-0.360
-2.060E-06,-0.360
-2.050E-06,-0.240
-2.040E-06,-0.160
-2.030E-06,0.040
-2.020E-06,0.120
-2.010E-06,0.120
-2.000E-06,0.160
-1.990E-06,0.280
-1.980E-06,0.320
-1.970E-06,0.360
-1.960E-06,0.480
-1.950E-06,0.520
-1.940E-06,0.560
-1.930E-06,0.640
-1.920E-06,0.640
-1.910E-06,0.600
-1.900E-06,0.600
-1.890E-06,0.520
-1.880E-06,0.440
-1.870E-06,0.320
-1.860E-06,0.160
-1.850E-06,0.000
-1.840E-06,-0.160
-1.830E-06,-0.240
-1.820E-06,-0.280
-1.810E-06,-0.240
-1.800E-06,-0.200
-1.790E-06,-0.080
-1.780E-06,-0.080
-1.770E-06,-0.200
-1.760E-06,-0.240
-1.750E-06,-0.400
-1.740E-06,-0.640
-1.730E-06,-0.560
-1.720E-06,-0.680
-1.710E-06,-0.640
-1.700E-06,-0.680
-1.690E-06,-0.760
-1.680E-06,-0.800
-1.670E-06,-0.840
-1.660E-06,-1.000
-1.650E-06,-1.000
-1.640E-06,-1.200
-1.630E-06,-1.200
-1.620E-06,-1.240
-1.610E-06,-1.080
-1.600E-06,-1.160
-1.590E-06,-0.920
-1.580E-06,-0.880
-1.570E-06,-0.840
-1.560E-06,-0.800
-1.550E-06,-1.040
-1.540E-06,-0.960
-1.530E-06,-0.840
-1.520E-06,-0.800
-1.510E-06,-0.800
-1.500E-06,-0.800
-1.490E-06,-0.840
-1.480E-06,-0.720
-1.470E-06,-0.600
-1.460E-06,-0.400
-1.450E-06,-0.360
-1.440E-06,-0.280
-1.430E-06,-0.200
-1.420E-06,-0.160
-1.410E-06,-0.040
-1.400E-06,0.000
-1.390E-06,0.040
-1.380E-06,0.000
-1.370E-06,-0.080
-1.360E-06,0.000
-1.350E-06,-0.040
-1.340E-06,0.000
-1.330E-06,0.000
-1.320E-06,0.040
-1.310E-06,0.080
-1.300E-06,0.120
-1.290E-06,0.160
-1.280E-06,0.200
-1.270E-06,0.160
-1.260E-06,0.160
-1.250E-06,0.200
-1.240E-06,0.240
-1.230E-06,0.240
-1.220E-06,0.160
-1.210E-06,0.160
-1.200E-06,0.040
-1.190E-06,-0.120
-1.180E-06,-0.160
-1.170E-06,-0.320
-1.160E-06,-0.440
-1.150E-06,-0.440
-1.140E-06,-0.480
-1.130E-06,-0.560
-1.120E-06,-0.600
-1.110E-06,-0.600
-1.100E-06,-0.600
-1.090E-06,-0.600
-1.080E-06,-0.640
-1.070E-06,-0.640
-1.060E-06,-0.640
-1.050E-06,-0.680
-1.040E-06,-0.640
-1.030E-06,-0.560
-1.020E-06,-0.600
-1.010E-06,-0.600
-1.000E-06,-0.680
-9.900E-07,-0.720
-9.800E-07,-0.760
-9.700E-07,-0.800
-9.600E-07,-0.880
-9.500E-07,-0.920
-9.400E-07,-1.120
-9.300E-07,-1.240
-9.200E-07,-1.320
-9.100E-07,-1.520
-9.000E-07,-1.680
-8.900E-07,-1.800
-8.800E-07,-1.760
-8.700E-07,-1.800
-8.600E-07,-1.480
-8.500E-07,-1.600
-8.400E-07,-1.200
-8.300E-07,-1.360
-8.200E-07,-1.320
-8.100E-07,-1.560
-8.000E-07,-1.320
-7.900E-07,-1.000
-7.800E-07,-0.920
-7.700E-07,-0.880
-7.600E-07,-0.840
-7.500E-07,-1.240
-7.400E-07,-0.880
-7.300E-07,-0.800
-7.200E-07,-0.560
-7.100E-07,-0.440
-7.000E-07,-0.800
-6.900E-07,-1.160
-6.800E-07,-1.280
-6.700E-07,-1.280
-6.600E-07,-1.080
-6.500E-07,-1.040
-6.400E-07,-1.240
-6.300E-07,-1.440
-6.200E-07,-1.320
-6.100E-07,-1.080
-6.000E-07,-0.720
-5.900E-07,-0.600
-5.800E-07,-0.720
-5.700E-07,-0.600
-5.600E-07,-0.400
-5.500E-07,-0.280
-5.400E-07,-0.080
-5.300E-07,-0.040
-5.200E-07,-0.120
-5.100E-07,-0.120
-5.000E-07,-0.040
-4.900E-07,0.120
-4.800E-07,0.040
-4.700E-07,0.120
-4.600E-07,0.080
-4.500E-07,0.040
-4.400E-07,0.120
-4.300E-07,0.000
-4.200E-07,-0.120
-4.100E-07,-0.240
-4.000E-07,-0.440
-3.900E-07,-0.520
-3.800E-07,-0.520
-3.700E-07,-0.760
-3.600E-07,-0.840
-3.500E-07,-0.960
-3.400E-07,-1.120
-3.300E-07,-1.240
-3.200E-07,-1.400
-3.100E-07,-1.560
-3.000E-07,-1.640
-2.900E-07,-1.640
-2.800E-07,-1.640
-2.700E-07,-1.680
-2.600E-07,-1.640
-2.500E-07,-1.680
-2.400E-07,-1.680
-2.300E-07,-1.640
-2.200E-07,-1.400
-2.100E-07,-1.200
-2.000E-07,-0.960
-1.900E-07,-0.680
-1.800E-07,-0.680
-1.700E-07,-0.760
-1.600E-07,-1.080
-1.500E-07,-1.160
-1.400E-07,-1.440
-1.300E-07,-1.160
-1.200E-07,-1.480
-1.100E-07,-1.520
-1.000E-07,-1.720
-9.000E-08,-1.720
-8.000E-08,-1.600
-7.000E-08,-1.640
-6.000E-08,-1.720
-5.000E-08,-1.840
-4.000E-08,-1.920
-3.000E-08,-2.080
-2.000E-08,-2.280
-1.000E-08,-2.480
0.000E+00,-2.800
1.000E-08,-2.960
2.000E-08,-3.040
3.000E-08,-3.000
4.000E-08,-2.920
5.000E-08,-2.840
6.000E-08,-2.600
7.000E-08,-2.280
8.000E-08,-2.040
9.000E-08,-1.800
1.000E-07,-1.680
1.100E-07,-1.680
1.200E-07,-1.640
1.300E-07,-1.440
1.400E-07,-1.280
1.500E-07,-1.000
1.600E-07,-0.760
1.700E-07,-0.800
1.800E-07,-0.560
1.900E-07,-0.680
2.000E-07,-0.800
2.100E-07,-0.960
2.200E-07,-1.120
2.300E-07,-1.200
2.400E-07,-1.320
2.500E-07,-1.760
2.600E-07,-1.920
2.700E-07,-2.240
2.800E-07,-2.200
2.900E-07,-2.240
3.000E-07,-2.200
3.100E-07,-2.240
3.200E-07,-2.320
3.300E-07,-2.280
3.400E-07,-2.280
3.500E-07,-2.240
3.600E-07,-2.280
3.700E-07,-2.160
3.800E-07,-2.080
3.900E-07,-1.760
4.000E-07,-1.440
4.100E-07,-1.280
4.200E-07,-0.920
4.300E-07,-0.800
4.400E-07,-0.560
4.500E-07,-0.400
4.600E-07,-0.480
4.700E-07,-0.440
4.800E-07,-0.520
4.900E-07,-0.560
5.000E-07,-0.960
5.100E-07,-1.000
5.200E-07,-1.560
5.300E-07,-1.960
5.400E-07,-2.400
5.500E-07,-2.880
5.600E-07,-3.080
5.700E-07,-3.240
5.800E-07,-3.480
5.900E-07,-3.520
6.000E-07,-3.600
6.100E-07,-3.560
6.200E-07,-3.480
6.300E-07,-3.320
6.400E-07,-3.280
6.500E-07,-3.160
6.600E-07,-3.120
6.700E-07,-3.160
6.800E-07,-2.680
6.900E-07,-2.360
7.000E-07,-1.720
7.100E-07,-1.120
7.200E-07,-0.320
7.300E-07,-0.080
7.400E-07,-0.040
7.500E-07,-0.240
7.600E-07,-0.680
7.700E-07,-0.760
7.800E-07,-1.280
7.900E-07,-1.440
8.000E-07,-2.040
8.100E-07,-2.520
8.200E-07,-2.800
8.300E-07,-2.920
8.400E-07,-2.840
8.500E-07,-2.680
8.600E-07,-2.400
8.700E-07,-2.360
8.800E-07,-2.120
8.900E-07,-2.160
9.000E-07,-1.840
9.100E-07,-1.840
9.200E-07,-1.840
9.300E-07,-2.160
9.400E-07,-2.320
9.500E-07,-2.520
9.600E-07,-2.680
9.700E-07,-2.840
9.800E-07,-3.120
9.900E-07,-3.480
1.000E-06,-3.800
1.010E-06,-4.120
1.020E-06,-4.360
1.030E-06,-4.680
1.040E-06,-5.040
1.050E-06,-5.240
1.060E-06,-5.240
1.070E-06,-5.240
1.080E-06,-5.200
1.090E-06,-5.160
1.100E-06,-4.840
1.110E-06,-4.480
1.120E-06,-4.000
1.130E-06,-3.360
1.140E-06,-2.680
1.150E-06,-2.160
1.160E-06,-1.360
1.170E-06,-0.800
1.180E-06,-0.120
1.190E-06,0.280
1.200E-06,0.480
1.210E-06,0.520
1.220E-06,0.120
1.230E-06,-0.440
1.240E-06,-1.320
1.250E-06,-2.080
1.260E-06,-2.800
1.270E-06,-3.280
1.280E-06,-3.600
1.290E-06,-3.880
1.300E-06,-3.960
1.310E-06,-3.840
1.320E-06,-3.760
1.330E-06,-3.480
1.340E-06,-3.360
1.350E-06,-3.160
1.360E-06,-3.040
1.370E-06,-2.760
1.380E-06,-2.600
1.390E-06,-2.440
1.400E-06,-2.200
1.410E-06,-2.120
1.420E-06,-1.920
1.430E-06,-1.800
1.440E-06,-1.600
1.450E-06,-1.560
1.460E-06,-1.560
1.470E-06,-1.600
1.480E-06,-1.480
1.490E-06,-1.240
1.500E-06,-1.000
1.510E-06,-0.680
1.520E-06,-0.560
1.530E-06,-0.560
1.540E-06,-0.440
1.550E-06,-0.720
1.560E-06,-0.880
1.570E-06,-1.160
1.580E-06,-1.520
1.590E-06,-1.800
1.600E-06,-2.280
1.610E-06,-2.800
1.620E-06,-3.320
1.630E-06,-3.840
1.640E-06,-4.200
1.650E-06,-4.520
1.660E-06,-4.760
1.670E-06,-4.880
1.680E-06,-4.920
1.690E-06,-4.920
1.700E-06,-4.800
1.710E-06,-4.680
1.720E-06,-4.520
1.730E-06,-4.280
1.740E-06,-4.040
1.750E-06,-3.880
1.760E-06,-3.600
1.770E-06,-3.400
1.780E-06,-3.160
1.790E-06,-3.000
1.800E-06,-2.840
1.810E-06,-2.720
1.820E-06,-2.560
1.830E-06,-2.560
1.840E-06,-2.640
1.850E-06,-2.880
1.860E-06,-3.120
1.870E-06,-3.360
1.880E-06,-3.520
1.890E-06,-3.640
1.900E-06,-3.840
1.910E-06,-3.880
1.920E-06,-3.920
1.930E-06,-3.840
1.940E-06,-3.760
1.950E-06,-3.720
1.960E-06,-3.640
1.970E-06,-3.560
1.980E-06,-3.560
1.990E-06,-3.520
2.000E-06,-3.560
2.010E-06,-3.560
2.020E-06,-3.560
2.030E-06,-3.560
2.040E-06,-3.560
2.050E-06,-3.480
2.060E-06,-3.360
2.070E-06,-3.280
2.080E-06,-3.160
2.090E-06,-2.960
2.100E-06,-2.800
2.110E-06,-2.600
2.120E-06,-2.440
2.130E-06,-2.280
2.140E-06,-2.040
2.150E-06,-1.840
2.160E-06,-1.640
2.170E-06,-1.400
2.180E-06,-1.240
2.190E-06,-1.040
2.200E-06,-0.960
2.210E-06,-0.720
2.220E-06,-0.680
2.230E-06,-0.640
2.240E-06,-0.720
2.250E-06,-0.800
2.260E-06,-1.000
2.270E-06,-1.160
2.280E-06,-1.320
2.290E-06,-1.400
2.300E-06,-1.600
2.310E-06,-1.760
2.320E-06,-1.880
2.330E-06,-2.000
2.340E-06,-2.160
2.350E-06,-2.240
2.360E-06,-2.360
2.370E-06,-2.480
2.380E-06,-2.600
2.390E-06,-2.760
2.400E-06,-2.960
2.410E-06,-3.080
2.420E-06,-3.320
2.430E-06,-3.520
2.440E-06,-3.760
2.450E-06,-4.000
2.460E-06,-4.240
2.470E-06,-4.520
2.480E-06,-4.720
2.490E-06,-4.880
2.500E-06,-5.040
2.510E-06,-5.240
2.520E-06,-5.240
2.530E-06,-5.200
2.540E-06,-5.200
2.550E-06,-5.200
2.560E-06,-5.240
2.570E-06,-5.240
2.580E-06,-5.240
2.590E-06,-5.200
2.600E-06,-5.200
2.610E-06,-5.240
2.620E-06,-5.240
2.630E-06,-5.240
2.640E-06,-5.160
2.650E-06,-5.080
2.660E-06,-5.040
2.670E-06,-4.880
2.680E-06,-4.720
2.690E-06,-4.560
2.700E-06,-4.440
2.710E-06,-4.280
2.720E-06,-4.080
2.730E-06,-3.920
2.740E-06,-3.680
2.750E-06,-3.560
2.760E-06,-3.360
2.770E-06,-3.200
2.780E-06,-3.120
2.790E-06,-3.000
2.800E-06,-2.840
2.810E-06,-2.760
2.820E-06,-2.640
2.830E-06,-2.520
2.840E-06,-2.480
2.850E-06,-2.440
2.860E-06,-2.320
2.870E-06,-2.280
2.880E-06,-2.120
2.890E-06,-2.000
2.900E-06,-1.800
2.910E-06,-1.720
2.920E-06,-1.520
2.930E-06,-1.480
2.940E-06,-1.440
2.950E-06,-1.480
2.960E-06,-1.600
2.970E-06,-1.800
