mediciones/Mediciones filtradas (saque las feas)/5-15/-40/WaveData47637.csv

#timebase=2000000(ps)
,#voltbase=100000(mv/100)
#size=4000
-8.400E-06,0.008
-8.390E-06,0.008
-8.380E-06,0.008
-8.370E-06,0.000
-8.360E-06,0.000
-8.350E-06,0.000
-8.340E-06,0.000
-8.330E-06,0.000
-8.320E-06,0.008
-8.310E-06,0.008
-8.300E-06,0.008
-8.290E-06,0.000
-8.280E-06,-0.004
-8.270E-06,0.000
-8.260E-06,0.000
-8.250E-06,0.004
-8.240E-06,0.004
-8.230E-06,0.008
-8.220E-06,0.004
-8.210E-06,0.008
-8.200E-06,-0.004
-8.190E-06,-0.004
-8.180E-06,0.000
-8.170E-06,0.008
-8.160E-06,0.008
-8.150E-06,0.012
-8.140E-06,0.004
-8.130E-06,0.000
-8.120E-06,0.000
-8.110E-06,0.000
-8.100E-06,0.000
-8.090E-06,0.000
-8.080E-06,0.008
-8.070E-06,0.004
-8.060E-06,0.008
-8.050E-06,-0.004
-8.040E-06,0.000
-8.030E-06,-0.004
-8.020E-06,0.004
-8.010E-06,0.004
-8.000E-06,0.008
-7.990E-06,0.004
-7.980E-06,0.000
-7.970E-06,0.000
-7.960E-06,0.000
-7.950E-06,0.004
-7.940E-06,0.008
-7.930E-06,0.008
-7.920E-06,0.008
-7.910E-06,0.004
-7.900E-06,0.004
-7.890E-06,-0.004
-7.880E-06,0.000
-7.870E-06,0.004
-7.860E-06,0.004
-7.850E-06,0.004
-7.840E-06,0.008
-7.830E-06,0.004
-7.820E-06,0.004
-7.810E-06,0.000
-7.800E-06,-0.008
-7.790E-06,-0.004
-7.780E-06,-0.004
-7.770E-06,0.008
-7.760E-06,0.012
-7.750E-06,0.012
-7.740E-06,0.016
-7.730E-06,0.000
-7.720E-06,-0.004
-7.710E-06,-0.008
-7.700E-06,-0.004
-7.690E-06,0.008
-7.680E-06,0.012
-7.670E-06,0.008
-7.660E-06,0.008
-7.650E-06,-0.004
-7.640E-06,-0.008
-7.630E-06,-0.004
-7.620E-06,0.000
-7.610E-06,0.008
-7.600E-06,0.012
-7.590E-06,0.008
-7.580E-06,0.004
-7.570E-06,0.000
-7.560E-06,0.000
-7.550E-06,0.000
-7.540E-06,0.004
-7.530E-06,0.004
-7.520E-06,0.012
-7.510E-06,0.000
-7.500E-06,0.000
-7.490E-06,0.004
-7.480E-06,-0.004
-7.470E-06,0.000
-7.460E-06,0.000
-7.450E-06,0.004
-7.440E-06,0.004
-7.430E-06,0.008
-7.420E-06,0.004
-7.410E-06,0.004
-7.400E-06,0.004
-7.390E-06,0.000
-7.380E-06,0.000
-7.370E-06,-0.004
-7.360E-06,0.004
-7.350E-06,0.004
-7.340E-06,0.008
-7.330E-06,0.004
-7.320E-06,0.004
-7.310E-06,0.000
-7.300E-06,0.004
-7.290E-06,0.008
-7.280E-06,0.004
-7.270E-06,0.008
-7.260E-06,0.004
-7.250E-06,0.004
-7.240E-06,0.000
-7.230E-06,0.004
-7.220E-06,0.004
-7.210E-06,0.008
-7.200E-06,0.012
-7.190E-06,0.012
-7.180E-06,0.000
-7.170E-06,0.000
-7.160E-06,0.008
-7.150E-06,0.000
-7.140E-06,-0.004
-7.130E-06,-0.004
-7.120E-06,0.000
-7.110E-06,0.004
-7.100E-06,0.008
-7.090E-06,0.008
-7.080E-06,0.008
-7.070E-06,0.004
-7.060E-06,0.004
-7.050E-06,0.012
-7.040E-06,0.008
-7.030E-06,0.004
-7.020E-06,0.004
-7.010E-06,0.000
-7.000E-06,0.000
-6.990E-06,0.008
-6.980E-06,0.008
-6.970E-06,0.008
-6.960E-06,0.004
-6.950E-06,0.000
-6.940E-06,0.008
-6.930E-06,0.004
-6.920E-06,0.004
-6.910E-06,0.008
-6.900E-06,0.000
-6.890E-06,-0.004
-6.880E-06,-0.004
-6.870E-06,0.012
-6.860E-06,0.020
-6.850E-06,0.008
-6.840E-06,0.004
-6.830E-06,0.000
-6.820E-06,-0.004
-6.810E-06,0.008
-6.800E-06,0.016
-6.790E-06,0.000
-6.780E-06,-0.012
-6.770E-06,-0.024
-6.760E-06,-0.016
-6.750E-06,0.016
-6.740E-06,0.028
-6.730E-06,0.040
-6.720E-06,0.012
-6.710E-06,-0.028
-6.700E-06,-0.032
-6.690E-06,-0.040
-6.680E-06,-0.008
-6.670E-06,0.032
-6.660E-06,0.056
-6.650E-06,0.032
-6.640E-06,-0.012
-6.630E-06,-0.020
-6.620E-06,-0.028
-6.610E-06,0.004
-6.600E-06,0.024
-6.590E-06,0.032
-6.580E-06,0.008
-6.570E-06,-0.012
-6.560E-06,-0.008
-6.550E-06,-0.008
-6.540E-06,0.004
-6.530E-06,0.012
-6.520E-06,0.012
-6.510E-06,0.012
-6.500E-06,0.004
-6.490E-06,0.012
-6.480E-06,0.008
-6.470E-06,0.012
-6.460E-06,0.008
-6.450E-06,0.000
-6.440E-06,-0.012
-6.430E-06,-0.012
-6.420E-06,0.008
-6.410E-06,0.024
-6.400E-06,0.028
-6.390E-06,0.016
-6.380E-06,-0.004
-6.370E-06,-0.016
-6.360E-06,-0.012
-6.350E-06,-0.004
-6.340E-06,0.008
-6.330E-06,0.020
-6.320E-06,0.024
-6.310E-06,0.016
-6.300E-06,0.004
-6.290E-06,0.000
-6.280E-06,-0.004
-6.270E-06,-0.004
-6.260E-06,-0.004
-6.250E-06,0.012
-6.240E-06,0.032
-6.230E-06,0.040
-6.220E-06,0.040
-6.210E-06,0.012
-6.200E-06,-0.020
-6.190E-06,-0.044
-6.180E-06,-0.040
-6.170E-06,-0.028
-6.160E-06,0.024
-6.150E-06,0.028
-6.140E-06,0.016
-6.130E-06,0.004
-6.120E-06,-0.004
-6.110E-06,0.004
-6.100E-06,-0.004
-6.090E-06,0.000
-6.080E-06,-0.008
-6.070E-06,-0.024
-6.060E-06,-0.008
-6.050E-06,0.016
-6.040E-06,0.024
-6.030E-06,0.024
-6.020E-06,-0.004
-6.010E-06,-0.020
-6.000E-06,-0.020
-5.990E-06,-0.012
-5.980E-06,0.000
-5.970E-06,0.016
-5.960E-06,0.032
-5.950E-06,0.024
-5.940E-06,0.020
-5.930E-06,-0.004
-5.920E-06,-0.012
-5.910E-06,-0.020
-5.900E-06,-0.008
-5.890E-06,0.008
-5.880E-06,0.024
-5.870E-06,0.028
-5.860E-06,0.024
-5.850E-06,0.004
-5.840E-06,-0.008
-5.830E-06,-0.020
-5.820E-06,-0.016
-5.810E-06,0.000
-5.800E-06,0.024
-5.790E-06,0.032
-5.780E-06,0.024
-5.770E-06,0.012
-5.760E-06,-0.004
-5.750E-06,-0.012
-5.740E-06,-0.004
-5.730E-06,0.012
-5.720E-06,0.008
-5.710E-06,0.004
-5.700E-06,-0.008
-5.690E-06,-0.012
-5.680E-06,-0.008
-5.670E-06,-0.004
-5.660E-06,0.008
-5.650E-06,0.008
-5.640E-06,0.012
-5.630E-06,0.012
-5.620E-06,0.008
-5.610E-06,0.004
-5.600E-06,0.000
-5.590E-06,-0.004
-5.580E-06,-0.012
-5.570E-06,0.000
-5.560E-06,0.008
-5.550E-06,0.020
-5.540E-06,0.020
-5.530E-06,0.024
-5.520E-06,0.004
-5.510E-06,-0.008
-5.500E-06,-0.008
-5.490E-06,0.008
-5.480E-06,0.004
-5.470E-06,0.016
-5.460E-06,0.024
-5.450E-06,0.028
-5.440E-06,0.020
-5.430E-06,-0.012
-5.420E-06,-0.024
-5.410E-06,-0.036
-5.400E-06,-0.004
-5.390E-06,0.028
-5.380E-06,0.056
-5.370E-06,0.052
-5.360E-06,0.024
-5.350E-06,0.000
-5.340E-06,-0.032
-5.330E-06,-0.028
-5.320E-06,-0.008
-5.310E-06,0.012
-5.300E-06,0.032
-5.290E-06,0.032
-5.280E-06,0.016
-5.270E-06,-0.004
-5.260E-06,-0.004
-5.250E-06,0.000
-5.240E-06,0.012
-5.230E-06,0.044
-5.220E-06,0.056
-5.210E-06,0.044
-5.200E-06,0.036
-5.190E-06,0.024
-5.180E-06,0.004
-5.170E-06,-0.004
-5.160E-06,-0.040
-5.150E-06,-0.052
-5.140E-06,-0.032
-5.130E-06,0.016
-5.120E-06,0.052
-5.110E-06,0.060
-5.100E-06,0.004
-5.090E-06,-0.048
-5.080E-06,-0.096
-5.070E-06,-0.076
-5.060E-06,-0.032
-5.050E-06,0.012
-5.040E-06,0.060
-5.030E-06,0.044
-5.020E-06,0.024
-5.010E-06,-0.012
-5.000E-06,-0.036
-4.990E-06,-0.040
-4.980E-06,-0.024
-4.970E-06,0.000
-4.960E-06,0.020
-4.950E-06,0.028
-4.940E-06,0.024
-4.930E-06,0.028
-4.920E-06,0.012
-4.910E-06,-0.004
-4.900E-06,-0.012
-4.890E-06,-0.012
-4.880E-06,-0.004
-4.870E-06,0.008
-4.860E-06,0.028
-4.850E-06,0.036
-4.840E-06,0.020
-4.830E-06,0.000
-4.820E-06,-0.016
-4.810E-06,-0.028
-4.800E-06,-0.020
-4.790E-06,-0.008
-4.780E-06,0.012
-4.770E-06,0.040
-4.760E-06,0.044
-4.750E-06,0.024
-4.740E-06,-0.004
-4.730E-06,-0.020
-4.720E-06,-0.028
-4.710E-06,-0.004
-4.700E-06,0.024
-4.690E-06,0.044
-4.680E-06,0.056
-4.670E-06,0.052
-4.660E-06,0.020
-4.650E-06,-0.036
-4.640E-06,-0.076
-4.630E-06,-0.076
-4.620E-06,-0.036
-4.610E-06,0.020
-4.600E-06,0.080
-4.590E-06,0.092
-4.580E-06,0.032
-4.570E-06,-0.040
-4.560E-06,-0.084
-4.550E-06,-0.072
-4.540E-06,-0.024
-4.530E-06,0.044
-4.520E-06,0.076
-4.510E-06,0.064
-4.500E-06,0.024
-4.490E-06,-0.024
-4.480E-06,-0.052
-4.470E-06,-0.040
-4.460E-06,0.000
-4.450E-06,0.032
-4.440E-06,0.052
-4.430E-06,0.052
-4.420E-06,0.024
-4.410E-06,-0.008
-4.400E-06,-0.032
-4.390E-06,-0.024
-4.380E-06,-0.004
-4.370E-06,0.024
-4.360E-06,0.052
-4.350E-06,0.064
-4.340E-06,0.080
-4.330E-06,0.072
-4.320E-06,0.056
-4.310E-06,0.092
-4.300E-06,0.020
-4.290E-06,-0.084
-4.280E-06,-0.132
-4.270E-06,-0.120
-4.260E-06,-0.096
-4.250E-06,-0.008
-4.240E-06,0.084
-4.230E-06,0.108
-4.220E-06,0.076
-4.210E-06,-0.012
-4.200E-06,-0.072
-4.190E-06,-0.140
-4.180E-06,-0.108
-4.170E-06,0.000
-4.160E-06,0.108
-4.150E-06,0.152
-4.140E-06,0.096
-4.130E-06,0.008
-4.120E-06,-0.088
-4.110E-06,-0.100
-4.100E-06,-0.056
-4.090E-06,0.040
-4.080E-06,0.104
-4.070E-06,0.132
-4.060E-06,0.076
-4.050E-06,0.000
-4.040E-06,-0.072
-4.030E-06,-0.124
-4.020E-06,-0.108
-4.010E-06,-0.052
-4.000E-06,0.036
-3.990E-06,0.096
-3.980E-06,0.116
-3.970E-06,0.048
-3.960E-06,-0.032
-3.950E-06,-0.092
-3.940E-06,-0.100
-3.930E-06,-0.040
-3.920E-06,0.044
-3.910E-06,0.092
-3.900E-06,0.108
-3.890E-06,0.060
-3.880E-06,-0.032
-3.870E-06,-0.100
-3.860E-06,-0.112
-3.850E-06,-0.056
-3.840E-06,0.032
-3.830E-06,0.144
-3.820E-06,0.144
-3.810E-06,0.072
-3.800E-06,-0.008
-3.790E-06,-0.036
-3.780E-06,-0.144
-3.770E-06,-0.108
-3.760E-06,-0.008
-3.750E-06,0.028
-3.740E-06,0.048
-3.730E-06,0.080
-3.720E-06,0.076
-3.710E-06,-0.068
-3.700E-06,-0.100
-3.690E-06,-0.104
-3.680E-06,0.000
-3.670E-06,0.072
-3.660E-06,0.096
-3.650E-06,0.048
-3.640E-06,-0.028
-3.630E-06,-0.068
-3.620E-06,-0.064
-3.610E-06,0.008
-3.600E-06,0.036
-3.590E-06,0.072
-3.580E-06,0.064
-3.570E-06,0.048
-3.560E-06,-0.004
-3.550E-06,-0.024
-3.540E-06,-0.020
-3.530E-06,-0.012
-3.520E-06,0.000
-3.510E-06,0.000
-3.500E-06,0.000
-3.490E-06,0.008
-3.480E-06,0.016
-3.470E-06,0.004
-3.460E-06,0.012
-3.450E-06,-0.004
-3.440E-06,-0.004
-3.430E-06,-0.008
-3.420E-06,0.008
-3.410E-06,0.008
-3.400E-06,0.008
-3.390E-06,0.004
-3.380E-06,0.008
-3.370E-06,0.008
-3.360E-06,0.016
-3.350E-06,0.028
-3.340E-06,0.020
-3.330E-06,0.012
-3.320E-06,-0.012
-3.310E-06,-0.008
-3.300E-06,-0.008
-3.290E-06,0.024
-3.280E-06,0.048
-3.270E-06,0.036
-3.260E-06,0.004
-3.250E-06,-0.032
-3.240E-06,-0.036
-3.230E-06,-0.024
-3.220E-06,0.020
-3.210E-06,0.044
-3.200E-06,0.088
-3.190E-06,0.100
-3.180E-06,0.096
-3.170E-06,0.068
-3.160E-06,0.032
-3.150E-06,-0.004
-3.140E-06,-0.032
-3.130E-06,-0.068
-3.120E-06,-0.092
-3.110E-06,-0.088
-3.100E-06,-0.060
-3.090E-06,-0.016
-3.080E-06,0.052
-3.070E-06,0.088
-3.060E-06,0.056
-3.050E-06,-0.004
-3.040E-06,-0.068
-3.030E-06,-0.088
-3.020E-06,-0.028
-3.010E-06,0.040
-3.000E-06,0.092
-2.990E-06,0.088
-2.980E-06,0.024
-2.970E-06,-0.056
-2.960E-06,-0.100
-2.950E-06,-0.072
-2.940E-06,-0.012
-2.930E-06,0.072
-2.920E-06,0.104
-2.910E-06,0.092
-2.900E-06,0.040
-2.890E-06,-0.020
-2.880E-06,-0.056
-2.870E-06,-0.044
-2.860E-06,0.000
-2.850E-06,0.060
-2.840E-06,0.108
-2.830E-06,0.124
-2.820E-06,0.104
-2.810E-06,0.056
-2.800E-06,0.012
-2.790E-06,-0.036
-2.780E-06,-0.048
-2.770E-06,-0.040
-2.760E-06,0.000
-2.750E-06,0.052
-2.740E-06,0.060
-2.730E-06,0.012
-2.720E-06,-0.044
-2.710E-06,-0.124
-2.700E-06,-0.140
-2.690E-06,-0.104
-2.680E-06,-0.032
-2.670E-06,0.056
-2.660E-06,0.120
-2.650E-06,0.092
-2.640E-06,0.032
-2.630E-06,-0.076
-2.620E-06,-0.116
-2.610E-06,-0.084
-2.600E-06,-0.016
-2.590E-06,0.076
-2.580E-06,0.096
-2.570E-06,0.092
-2.560E-06,0.040
-2.550E-06,-0.020
-2.540E-06,-0.060
-2.530E-06,-0.044
-2.520E-06,0.000
-2.510E-06,0.068
-2.500E-06,0.104
-2.490E-06,0.104
-2.480E-06,0.088
-2.470E-06,0.040
-2.460E-06,0.000
-2.450E-06,-0.004
-2.440E-06,0.012
-2.430E-06,0.056
-2.420E-06,0.108
-2.410E-06,0.128
-2.400E-06,0.096
-2.390E-06,0.040
-2.380E-06,-0.020
-2.370E-06,-0.036
-2.360E-06,0.004
-2.350E-06,0.084
-2.340E-06,0.068
-2.330E-06,0.004
-2.320E-06,-0.144
-2.310E-06,-0.240
-2.300E-06,-0.264
-2.290E-06,-0.156
-2.280E-06,0.048
-2.270E-06,0.192
-2.260E-06,0.224
-2.250E-06,0.104
-2.240E-06,-0.056
-2.230E-06,-0.188
-2.220E-06,-0.204
-2.210E-06,-0.108
-2.200E-06,0.040
-2.190E-06,0.160
-2.180E-06,0.192
-2.170E-06,0.128
-2.160E-06,0.016
-2.150E-06,-0.068
-2.140E-06,-0.092
-2.130E-06,-0.036
-2.120E-06,0.052
-2.110E-06,0.164
-2.100E-06,0.200
-2.090E-06,0.180
-2.080E-06,0.104
-2.070E-06,0.008
-2.060E-06,-0.040
-2.050E-06,-0.064
-2.040E-06,-0.008
-2.030E-06,0.016
-2.020E-06,0.000
-2.010E-06,-0.080
-2.000E-06,-0.148
-1.990E-06,-0.208
-1.980E-06,-0.144
-1.970E-06,-0.036
-1.960E-06,0.076
-1.950E-06,0.156
-1.940E-06,0.136
-1.930E-06,0.028
-1.920E-06,-0.112
-1.910E-06,-0.148
-1.900E-06,-0.140
-1.890E-06,-0.008
-1.880E-06,0.108
-1.870E-06,0.164
-1.860E-06,0.128
-1.850E-06,0.016
-1.840E-06,-0.068
-1.830E-06,-0.092
-1.820E-06,-0.028
-1.810E-06,0.064
-1.800E-06,0.152
-1.790E-06,0.164
-1.780E-06,0.140
-1.770E-06,0.068
-1.760E-06,0.024
-1.750E-06,0.040
-1.740E-06,0.020
-1.730E-06,-0.036
-1.720E-06,-0.124
-1.710E-06,-0.204
-1.700E-06,-0.236
-1.690E-06,-0.184
-1.680E-06,-0.060
-1.670E-06,0.120
-1.660E-06,0.156
-1.650E-06,0.132
-1.640E-06,-0.004
-1.630E-06,-0.112
-1.620E-06,-0.172
-1.610E-06,-0.108
-1.600E-06,0.028
-1.590E-06,0.128
-1.580E-06,0.168
-1.570E-06,0.072
-1.560E-06,-0.020
-1.550E-06,-0.072
-1.540E-06,-0.040
-1.530E-06,-0.028
-1.520E-06,0.100
-1.510E-06,0.148
-1.500E-06,0.148
-1.490E-06,0.096
-1.480E-06,0.076
-1.470E-06,0.068
-1.460E-06,0.108
-1.450E-06,0.144
-1.440E-06,0.160
-1.430E-06,0.132
-1.420E-06,0.032
-1.410E-06,-0.028
-1.400E-06,-0.120
-1.390E-06,-0.124
-1.380E-06,-0.052
-1.370E-06,0.064
-1.360E-06,0.128
-1.350E-06,0.164
-1.340E-06,0.196
-1.330E-06,0.144
-1.320E-06,0.104
-1.310E-06,-0.020
-1.300E-06,-0.144
-1.290E-06,-0.272
-1.280E-06,-0.232
-1.270E-06,-0.100
-1.260E-06,0.120
-1.250E-06,0.292
-1.240E-06,0.200
-1.230E-06,-0.060
-1.220E-06,-0.400
-1.210E-06,-0.480
-1.200E-06,-0.436
-1.190E-06,-0.112
-1.180E-06,0.160
-1.170E-06,0.264
-1.160E-06,0.132
-1.150E-06,-0.152
-1.140E-06,-0.296
-1.130E-06,-0.332
-1.120E-06,-0.056
-1.110E-06,0.100
-1.100E-06,0.288
-1.090E-06,0.228
-1.080E-06,0.096
-1.070E-06,-0.088
-1.060E-06,-0.152
-1.050E-06,-0.144
-1.040E-06,-0.100
-1.030E-06,0.056
-1.020E-06,0.132
-1.010E-06,0.172
-1.000E-06,0.088
-9.900E-07,0.016
-9.800E-07,-0.092
-9.700E-07,-0.072
-9.600E-07,-0.040
-9.500E-07,0.056
-9.400E-07,0.140
-9.300E-07,0.132
-9.200E-07,0.072
-9.100E-07,-0.028
-9.000E-07,-0.020
-8.900E-07,-0.004
-8.800E-07,0.112
-8.700E-07,0.140
-8.600E-07,0.148
-8.500E-07,0.140
-8.400E-07,0.076
-8.300E-07,0.000
-8.200E-07,-0.032
-8.100E-07,0.040
-8.000E-07,0.096
-7.900E-07,0.164
-7.800E-07,0.160
-7.700E-07,0.112
-7.600E-07,0.068
-7.500E-07,0.040
-7.400E-07,0.072
-7.300E-07,0.124
-7.200E-07,0.200
-7.100E-07,0.196
-7.000E-07,0.188
-6.900E-07,0.160
-6.800E-07,0.148
-6.700E-07,0.124
-6.600E-07,0.084
-6.500E-07,-0.004
-6.400E-07,-0.132
-6.300E-07,-0.256
-6.200E-07,-0.324
-6.100E-07,-0.272
-6.000E-07,-0.136
-5.900E-07,-0.016
-5.800E-07,-0.012
-5.700E-07,-0.056
-5.600E-07,-0.152
-5.500E-07,-0.232
-5.400E-07,-0.156
-5.300E-07,-0.076
-5.200E-07,0.044
-5.100E-07,0.056
-5.000E-07,0.012
-4.900E-07,-0.028
-4.800E-07,-0.140
-4.700E-07,-0.128
-4.600E-07,-0.056
-4.500E-07,0.016
-4.400E-07,0.008
-4.300E-07,0.048
-4.200E-07,0.056
-4.100E-07,0.096
-4.000E-07,0.072
-3.900E-07,0.044
-3.800E-07,0.044
-3.700E-07,0.060
-3.600E-07,0.156
-3.500E-07,0.204
-3.400E-07,0.208
-3.300E-07,0.160
-3.200E-07,0.120
-3.100E-07,0.000
-3.000E-07,-0.160
-2.900E-07,-0.284
-2.800E-07,-0.352
-2.700E-07,-0.304
-2.600E-07,-0.136
-2.500E-07,0.084
-2.400E-07,0.160
-2.300E-07,0.140
-2.200E-07,0.056
-2.100E-07,-0.160
-2.000E-07,-0.300
-1.900E-07,-0.272
-1.800E-07,-0.088
-1.700E-07,0.192
-1.600E-07,0.336
-1.500E-07,0.272
-1.400E-07,0.100
-1.300E-07,-0.096
-1.200E-07,-0.224
-1.100E-07,-0.172
-1.000E-07,-0.008
-9.000E-08,0.196
-8.000E-08,0.352
-7.000E-08,0.344
-6.000E-08,0.224
-5.000E-08,0.060
-4.000E-08,-0.008
-3.000E-08,0.024
-2.000E-08,0.180
-1.000E-08,0.344
0.000E+00,0.452
1.000E-08,0.436
2.000E-08,0.316
3.000E-08,0.176
4.000E-08,0.068
5.000E-08,0.072
6.000E-08,0.156
7.000E-08,0.276
8.000E-08,0.340
9.000E-08,0.344
1.000E-07,0.256
1.100E-07,0.152
1.200E-07,0.088
1.300E-07,0.084
1.400E-07,0.148
1.500E-07,0.236
1.600E-07,0.320
1.700E-07,0.328
1.800E-07,0.272
1.900E-07,0.188
2.000E-07,0.124
2.100E-07,0.112
2.200E-07,0.160
2.300E-07,0.260
2.400E-07,0.276
2.500E-07,0.176
2.600E-07,-0.004
2.700E-07,-0.368
2.800E-07,-0.512
2.900E-07,-0.508
3.000E-07,-0.512
3.100E-07,-0.500
3.200E-07,-0.156
3.300E-07,0.176
3.400E-07,0.164
3.500E-07,-0.056
3.600E-07,-0.448
3.700E-07,-0.512
3.800E-07,-0.512
3.900E-07,-0.504
4.000E-07,-0.104
4.100E-07,0.236
4.200E-07,0.336
4.300E-07,0.184
4.400E-07,-0.100
4.500E-07,-0.400
4.600E-07,-0.472
4.700E-07,-0.276
4.800E-07,0.104
4.900E-07,0.424
5.000E-07,0.540
5.100E-07,0.428
5.200E-07,0.140
5.300E-07,-0.164
5.400E-07,-0.384
5.500E-07,-0.340
5.600E-07,-0.104
5.700E-07,0.208
5.800E-07,0.400
5.900E-07,0.420
6.000E-07,0.236
6.100E-07,-0.024
6.200E-07,-0.216
6.300E-07,-0.220
6.400E-07,0.008
6.500E-07,0.264
6.600E-07,0.456
6.700E-07,0.484
6.800E-07,0.396
6.900E-07,0.196
7.000E-07,0.024
7.100E-07,-0.020
7.200E-07,0.076
7.300E-07,0.284
7.400E-07,0.456
7.500E-07,0.520
7.600E-07,0.428
7.700E-07,0.272
7.800E-07,0.120
7.900E-07,0.068
8.000E-07,0.112
8.100E-07,0.240
8.200E-07,0.364
8.300E-07,0.436
8.400E-07,0.404
8.500E-07,0.292
8.600E-07,0.164
8.700E-07,0.100
8.800E-07,0.120
8.900E-07,0.216
9.000E-07,0.320
9.100E-07,0.360
9.200E-07,0.300
9.300E-07,0.144
9.400E-07,-0.036
9.500E-07,-0.172
9.600E-07,-0.240
9.700E-07,-0.216
9.800E-07,-0.148
9.900E-07,-0.136
1.000E-06,-0.176
1.010E-06,-0.272
1.020E-06,-0.404
1.030E-06,-0.440
1.040E-06,-0.392
1.050E-06,-0.208
1.060E-06,-0.012
1.070E-06,0.144
1.080E-06,0.200
1.090E-06,0.192
1.100E-06,0.192
1.110E-06,0.200
1.120E-06,0.224
1.130E-06,0.240
1.140E-06,0.260
1.150E-06,0.240
1.160E-06,0.204
1.170E-06,0.172
1.180E-06,0.136
1.190E-06,0.164
1.200E-06,0.196
1.210E-06,0.236
1.220E-06,0.264
1.230E-06,0.264
1.240E-06,0.244
1.250E-06,0.212
1.260E-06,0.204
1.270E-06,0.208
1.280E-06,0.240
1.290E-06,0.284
1.300E-06,0.308
1.310E-06,0.316
1.320E-06,0.292
1.330E-06,0.264
1.340E-06,0.232
1.350E-06,0.224
1.360E-06,0.240
1.370E-06,0.280
1.380E-06,0.308
1.390E-06,0.316
1.400E-06,0.292
1.410E-06,0.256
1.420E-06,0.224
1.430E-06,0.212
1.440E-06,0.224
1.450E-06,0.256
1.460E-06,0.288
1.470E-06,0.304
1.480E-06,0.296
1.490E-06,0.272
1.500E-06,0.244
1.510E-06,0.224
1.520E-06,0.228
1.530E-06,0.244
1.540E-06,0.272
1.550E-06,0.288
1.560E-06,0.280
1.570E-06,0.268
1.580E-06,0.244
1.590E-06,0.220
1.600E-06,0.212
1.610E-06,0.228
1.620E-06,0.252
1.630E-06,0.272
1.640E-06,0.268
1.650E-06,0.256
1.660E-06,0.232
1.670E-06,0.208
1.680E-06,0.212
1.690E-06,0.224
1.700E-06,0.244
1.710E-06,0.256
1.720E-06,0.264
1.730E-06,0.248
1.740E-06,0.232
1.750E-06,0.224
1.760E-06,0.224
1.770E-06,0.228
1.780E-06,0.244
1.790E-06,0.256
1.800E-06,0.256
1.810E-06,0.256
1.820E-06,0.240
1.830E-06,0.232
1.840E-06,0.224
1.850E-06,0.224
1.860E-06,0.224
1.870E-06,0.224
1.880E-06,0.212
1.890E-06,0.208
1.900E-06,0.208
1.910E-06,0.224
1.920E-06,0.228
1.930E-06,0.224
1.940E-06,0.216
1.950E-06,0.196
1.960E-06,0.188
1.970E-06,0.188
1.980E-06,0.212
1.990E-06,0.240
2.000E-06,0.260
2.010E-06,0.248
2.020E-06,0.232
2.030E-06,0.216
2.040E-06,0.200
2.050E-06,0.200
2.060E-06,0.216
2.070E-06,0.232
2.080E-06,0.248
2.090E-06,0.256
2.100E-06,0.252
2.110E-06,0.232
2.120E-06,0.216
2.130E-06,0.208
2.140E-06,0.204
2.150E-06,0.208
2.160E-06,0.224
2.170E-06,0.244
2.180E-06,0.252
2.190E-06,0.240
2.200E-06,0.220
2.210E-06,0.208
2.220E-06,0.192
2.230E-06,0.192
2.240E-06,0.204
2.250E-06,0.224
2.260E-06,0.244
2.270E-06,0.252
2.280E-06,0.240
2.290E-06,0.224
2.300E-06,0.204
2.310E-06,0.192
2.320E-06,0.208
2.330E-06,0.224
2.340E-06,0.236
2.350E-06,0.240
2.360E-06,0.232
2.370E-06,0.220
2.380E-06,0.208
2.390E-06,0.196
2.400E-06,0.200
2.410E-06,0.208
2.420E-06,0.228
2.430E-06,0.228
2.440E-06,0.228
2.450E-06,0.220
2.460E-06,0.208
2.470E-06,0.200
2.480E-06,0.204
2.490E-06,0.208
2.500E-06,0.220
2.510E-06,0.224
2.520E-06,0.220
2.530E-06,0.216
2.540E-06,0.208
2.550E-06,0.196
2.560E-06,0.192
2.570E-06,0.196
2.580E-06,0.204
2.590E-06,0.208
2.600E-06,0.208
2.610E-06,0.216
2.620E-06,0.200
2.630E-06,0.192
2.640E-06,0.192
2.650E-06,0.192
2.660E-06,0.192
2.670E-06,0.200
2.680E-06,0.208
2.690E-06,0.204
2.700E-06,0.196
2.710E-06,0.188
2.720E-06,0.192
2.730E-06,0.192
2.740E-06,0.192
2.750E-06,0.204
2.760E-06,0.212
2.770E-06,0.216
2.780E-06,0.216
2.790E-06,0.200
2.800E-06,0.188
2.810E-06,0.168
2.820E-06,0.160
2.830E-06,0.180
2.840E-06,0.192
2.850E-06,0.204
2.860E-06,0.208
2.870E-06,0.196
2.880E-06,0.192
2.890E-06,0.180
2.900E-06,0.168
2.910E-06,0.176
2.920E-06,0.188
2.930E-06,0.200
2.940E-06,0.212
2.950E-06,0.204
2.960E-06,0.188
2.970E-06,0.168
2.980E-06,0.168
2.990E-06,0.172
3.000E-06,0.192
3.010E-06,0.200
3.020E-06,0.196
3.030E-06,0.176
3.040E-06,0.172
3.050E-06,0.176
3.060E-06,0.180
3.070E-06,0.192
3.080E-06,0.192
3.090E-06,0.196
3.100E-06,0.196
3.110E-06,0.192
3.120E-06,0.184
3.130E-06,0.188
3.140E-06,0.184
3.150E-06,0.192
3.160E-06,0.192
3.170E-06,0.188
3.180E-06,0.188
3.190E-06,0.180
3.200E-06,0.176
3.210E-06,0.172
3.220E-06,0.180
3.230E-06,0.180
3.240E-06,0.184
3.250E-06,0.180
3.260E-06,0.180
3.270E-06,0.172
3.280E-06,0.176
3.290E-06,0.176
3.300E-06,0.188
3.310E-06,0.192
