mediciones/Mediciones filtradas (saque las feas)/5-15/-40/WaveData47639.csv

#timebase=2000000(ps)
,#voltbase=100000(mv/100)
#size=4000
-8.400E-06,-0.004
-8.390E-06,-0.004
-8.380E-06,0.004
-8.370E-06,0.004
-8.360E-06,0.008
-8.350E-06,0.000
-8.340E-06,0.000
-8.330E-06,0.000
-8.320E-06,-0.004
-8.310E-06,-0.004
-8.300E-06,0.000
-8.290E-06,0.004
-8.280E-06,0.004
-8.270E-06,0.004
-8.260E-06,0.004
-8.250E-06,0.000
-8.240E-06,0.004
-8.230E-06,0.008
-8.220E-06,0.004
-8.210E-06,0.000
-8.200E-06,0.000
-8.190E-06,0.004
-8.180E-06,0.000
-8.170E-06,0.004
-8.160E-06,0.004
-8.150E-06,0.004
-8.140E-06,0.004
-8.130E-06,-0.004
-8.120E-06,0.004
-8.110E-06,0.000
-8.100E-06,0.004
-8.090E-06,0.004
-8.080E-06,0.004
-8.070E-06,0.004
-8.060E-06,0.004
-8.050E-06,0.004
-8.040E-06,-0.004
-8.030E-06,-0.004
-8.020E-06,0.004
-8.010E-06,0.000
-8.000E-06,0.004
-7.990E-06,0.004
-7.980E-06,-0.004
-7.970E-06,0.000
-7.960E-06,0.004
-7.950E-06,0.004
-7.940E-06,0.004
-7.930E-06,0.000
-7.920E-06,-0.004
-7.910E-06,0.000
-7.900E-06,0.000
-7.890E-06,0.000
-7.880E-06,0.000
-7.870E-06,0.000
-7.860E-06,0.000
-7.850E-06,0.004
-7.840E-06,0.004
-7.830E-06,0.004
-7.820E-06,0.000
-7.810E-06,0.000
-7.800E-06,0.004
-7.790E-06,0.008
-7.780E-06,0.008
-7.770E-06,0.008
-7.760E-06,0.000
-7.750E-06,-0.004
-7.740E-06,0.004
-7.730E-06,0.000
-7.720E-06,0.004
-7.710E-06,0.004
-7.700E-06,0.004
-7.690E-06,0.004
-7.680E-06,0.000
-7.670E-06,0.000
-7.660E-06,-0.004
-7.650E-06,0.000
-7.640E-06,0.004
-7.630E-06,0.004
-7.620E-06,0.008
-7.610E-06,0.004
-7.600E-06,0.000
-7.590E-06,0.000
-7.580E-06,0.004
-7.570E-06,0.000
-7.560E-06,0.004
-7.550E-06,0.004
-7.540E-06,0.004
-7.530E-06,0.000
-7.520E-06,0.004
-7.510E-06,0.004
-7.500E-06,0.004
-7.490E-06,0.000
-7.480E-06,0.004
-7.470E-06,0.000
-7.460E-06,0.004
-7.450E-06,0.004
-7.440E-06,0.004
-7.430E-06,0.008
-7.420E-06,0.004
-7.410E-06,0.000
-7.400E-06,0.000
-7.390E-06,0.000
-7.380E-06,0.000
-7.370E-06,0.004
-7.360E-06,0.008
-7.350E-06,0.008
-7.340E-06,-0.004
-7.330E-06,0.000
-7.320E-06,0.000
-7.310E-06,0.004
-7.300E-06,0.008
-7.290E-06,0.000
-7.280E-06,0.000
-7.270E-06,0.000
-7.260E-06,0.004
-7.250E-06,-0.004
-7.240E-06,0.004
-7.230E-06,0.004
-7.220E-06,0.000
-7.210E-06,0.004
-7.200E-06,0.004
-7.190E-06,0.000
-7.180E-06,0.000
-7.170E-06,-0.004
-7.160E-06,0.004
-7.150E-06,0.004
-7.140E-06,0.000
-7.130E-06,0.000
-7.120E-06,0.004
-7.110E-06,0.008
-7.100E-06,0.000
-7.090E-06,0.004
-7.080E-06,0.004
-7.070E-06,0.000
-7.060E-06,0.000
-7.050E-06,0.004
-7.040E-06,0.008
-7.030E-06,0.000
-7.020E-06,0.004
-7.010E-06,0.004
-7.000E-06,0.004
-6.990E-06,0.004
-6.980E-06,0.000
-6.970E-06,0.000
-6.960E-06,0.008
-6.950E-06,0.000
-6.940E-06,0.000
-6.930E-06,0.000
-6.920E-06,0.004
-6.910E-06,0.000
-6.900E-06,0.004
-6.890E-06,0.004
-6.880E-06,0.004
-6.870E-06,0.004
-6.860E-06,0.000
-6.850E-06,0.000
-6.840E-06,0.004
-6.830E-06,0.004
-6.820E-06,0.004
-6.810E-06,0.000
-6.800E-06,0.004
-6.790E-06,0.004
-6.780E-06,0.000
-6.770E-06,0.000
-6.760E-06,0.000
-6.750E-06,0.004
-6.740E-06,0.008
-6.730E-06,-0.004
-6.720E-06,-0.004
-6.710E-06,0.000
-6.700E-06,0.000
-6.690E-06,0.004
-6.680E-06,0.004
-6.670E-06,0.004
-6.660E-06,0.008
-6.650E-06,0.000
-6.640E-06,0.000
-6.630E-06,0.004
-6.620E-06,0.000
-6.610E-06,0.004
-6.600E-06,0.000
-6.590E-06,0.000
-6.580E-06,0.000
-6.570E-06,0.000
-6.560E-06,0.004
-6.550E-06,0.004
-6.540E-06,0.004
-6.530E-06,0.008
-6.520E-06,-0.004
-6.510E-06,0.004
-6.500E-06,0.004
-6.490E-06,0.004
-6.480E-06,0.004
-6.470E-06,0.000
-6.460E-06,0.000
-6.450E-06,0.000
-6.440E-06,0.004
-6.430E-06,0.000
-6.420E-06,0.000
-6.410E-06,0.000
-6.400E-06,0.000
-6.390E-06,0.000
-6.380E-06,0.004
-6.370E-06,0.004
-6.360E-06,0.004
-6.350E-06,0.000
-6.340E-06,0.004
-6.330E-06,0.004
-6.320E-06,0.000
-6.310E-06,0.004
-6.300E-06,0.008
-6.290E-06,0.004
-6.280E-06,0.004
-6.270E-06,0.004
-6.260E-06,-0.004
-6.250E-06,0.000
-6.240E-06,0.004
-6.230E-06,0.000
-6.220E-06,0.008
-6.210E-06,0.004
-6.200E-06,0.004
-6.190E-06,0.004
-6.180E-06,0.004
-6.170E-06,0.004
-6.160E-06,0.004
-6.150E-06,0.004
-6.140E-06,0.004
-6.130E-06,0.004
-6.120E-06,0.004
-6.110E-06,-0.004
-6.100E-06,0.004
-6.090E-06,0.004
-6.080E-06,0.004
-6.070E-06,0.000
-6.060E-06,0.008
-6.050E-06,0.008
-6.040E-06,0.000
-6.030E-06,-0.004
-6.020E-06,-0.004
-6.010E-06,-0.004
-6.000E-06,0.004
-5.990E-06,0.008
-5.980E-06,0.008
-5.970E-06,0.008
-5.960E-06,0.004
-5.950E-06,0.004
-5.940E-06,0.004
-5.930E-06,-0.004
-5.920E-06,0.004
-5.910E-06,0.008
-5.900E-06,0.004
-5.890E-06,0.000
-5.880E-06,0.004
-5.870E-06,0.000
-5.860E-06,0.000
-5.850E-06,0.004
-5.840E-06,0.008
-5.830E-06,0.000
-5.820E-06,0.000
-5.810E-06,0.004
-5.800E-06,0.008
-5.790E-06,0.008
-5.780E-06,0.008
-5.770E-06,0.004
-5.760E-06,0.004
-5.750E-06,0.008
-5.740E-06,0.004
-5.730E-06,0.008
-5.720E-06,0.000
-5.710E-06,0.000
-5.700E-06,0.000
-5.690E-06,0.004
-5.680E-06,-0.004
-5.670E-06,-0.004
-5.660E-06,0.004
-5.650E-06,0.004
-5.640E-06,0.004
-5.630E-06,0.004
-5.620E-06,0.004
-5.610E-06,0.000
-5.600E-06,0.004
-5.590E-06,0.000
-5.580E-06,0.000
-5.570E-06,0.004
-5.560E-06,0.004
-5.550E-06,-0.004
-5.540E-06,0.000
-5.530E-06,0.000
-5.520E-06,0.004
-5.510E-06,0.008
-5.500E-06,0.004
-5.490E-06,0.000
-5.480E-06,0.004
-5.470E-06,0.000
-5.460E-06,-0.004
-5.450E-06,0.004
-5.440E-06,0.008
-5.430E-06,0.008
-5.420E-06,0.004
-5.410E-06,0.000
-5.400E-06,0.000
-5.390E-06,0.000
-5.380E-06,0.000
-5.370E-06,0.000
-5.360E-06,0.000
-5.350E-06,0.004
-5.340E-06,0.008
-5.330E-06,-0.004
-5.320E-06,-0.004
-5.310E-06,0.000
-5.300E-06,0.004
-5.290E-06,0.004
-5.280E-06,0.004
-5.270E-06,0.000
-5.260E-06,0.000
-5.250E-06,-0.004
-5.240E-06,0.004
-5.230E-06,0.008
-5.220E-06,0.004
-5.210E-06,0.008
-5.200E-06,0.000
-5.190E-06,0.000
-5.180E-06,0.000
-5.170E-06,0.004
-5.160E-06,0.000
-5.150E-06,0.008
-5.140E-06,0.000
-5.130E-06,0.000
-5.120E-06,-0.004
-5.110E-06,-0.004
-5.100E-06,0.000
-5.090E-06,0.004
-5.080E-06,0.004
-5.070E-06,0.008
-5.060E-06,0.008
-5.050E-06,0.008
-5.040E-06,0.004
-5.030E-06,-0.004
-5.020E-06,-0.004
-5.010E-06,0.004
-5.000E-06,0.008
-4.990E-06,0.000
-4.980E-06,0.000
-4.970E-06,0.004
-4.960E-06,0.000
-4.950E-06,0.000
-4.940E-06,0.000
-4.930E-06,0.012
-4.920E-06,0.000
-4.910E-06,0.004
-4.900E-06,0.000
-4.890E-06,0.008
-4.880E-06,0.008
-4.870E-06,0.004
-4.860E-06,-0.004
-4.850E-06,0.004
-4.840E-06,0.004
-4.830E-06,0.004
-4.820E-06,0.008
-4.810E-06,0.000
-4.800E-06,0.004
-4.790E-06,0.004
-4.780E-06,0.004
-4.770E-06,-0.004
-4.760E-06,0.000
-4.750E-06,-0.004
-4.740E-06,-0.004
-4.730E-06,0.004
-4.720E-06,0.000
-4.710E-06,0.000
-4.700E-06,0.008
-4.690E-06,0.004
-4.680E-06,0.000
-4.670E-06,-0.004
-4.660E-06,0.004
-4.650E-06,0.004
-4.640E-06,0.000
-4.630E-06,0.008
-4.620E-06,0.004
-4.610E-06,0.000
-4.600E-06,0.004
-4.590E-06,0.000
-4.580E-06,0.000
-4.570E-06,-0.004
-4.560E-06,0.004
-4.550E-06,0.012
-4.540E-06,0.004
-4.530E-06,0.000
-4.520E-06,0.004
-4.510E-06,0.000
-4.500E-06,0.000
-4.490E-06,0.000
-4.480E-06,0.000
-4.470E-06,0.008
-4.460E-06,0.008
-4.450E-06,0.004
-4.440E-06,0.004
-4.430E-06,0.000
-4.420E-06,0.000
-4.410E-06,-0.004
-4.400E-06,0.004
-4.390E-06,0.008
-4.380E-06,0.004
-4.370E-06,0.004
-4.360E-06,0.004
-4.350E-06,0.004
-4.340E-06,0.000
-4.330E-06,0.000
-4.320E-06,0.000
-4.310E-06,0.000
-4.300E-06,0.008
-4.290E-06,0.004
-4.280E-06,0.000
-4.270E-06,0.004
-4.260E-06,-0.004
-4.250E-06,-0.004
-4.240E-06,-0.004
-4.230E-06,0.004
-4.220E-06,0.004
-4.210E-06,0.008
-4.200E-06,0.008
-4.190E-06,0.004
-4.180E-06,0.000
-4.170E-06,0.000
-4.160E-06,0.000
-4.150E-06,-0.004
-4.140E-06,0.004
-4.130E-06,0.004
-4.120E-06,0.004
-4.110E-06,0.008
-4.100E-06,0.004
-4.090E-06,0.000
-4.080E-06,0.004
-4.070E-06,0.000
-4.060E-06,0.004
-4.050E-06,0.004
-4.040E-06,0.008
-4.030E-06,0.000
-4.020E-06,0.004
-4.010E-06,-0.004
-4.000E-06,0.000
-3.990E-06,0.000
-3.980E-06,0.004
-3.970E-06,0.008
-3.960E-06,0.004
-3.950E-06,0.004
-3.940E-06,0.004
-3.930E-06,0.000
-3.920E-06,0.000
-3.910E-06,0.004
-3.900E-06,0.004
-3.890E-06,0.008
-3.880E-06,0.012
-3.870E-06,0.000
-3.860E-06,0.008
-3.850E-06,0.004
-3.840E-06,0.000
-3.830E-06,0.004
-3.820E-06,-0.004
-3.810E-06,0.000
-3.800E-06,0.004
-3.790E-06,-0.004
-3.780E-06,0.004
-3.770E-06,0.000
-3.760E-06,0.004
-3.750E-06,0.004
-3.740E-06,0.000
-3.730E-06,0.004
-3.720E-06,0.000
-3.710E-06,0.008
-3.700E-06,0.000
-3.690E-06,0.008
-3.680E-06,-0.004
-3.670E-06,0.000
-3.660E-06,-0.004
-3.650E-06,0.004
-3.640E-06,0.000
-3.630E-06,0.004
-3.620E-06,0.008
-3.610E-06,0.004
-3.600E-06,0.004
-3.590E-06,0.000
-3.580E-06,-0.004
-3.570E-06,-0.004
-3.560E-06,0.004
-3.550E-06,0.008
-3.540E-06,0.008
-3.530E-06,0.004
-3.520E-06,-0.004
-3.510E-06,-0.004
-3.500E-06,0.000
-3.490E-06,0.004
-3.480E-06,0.008
-3.470E-06,0.012
-3.460E-06,0.012
-3.450E-06,0.004
-3.440E-06,0.000
-3.430E-06,-0.004
-3.420E-06,-0.004
-3.410E-06,0.008
-3.400E-06,0.004
-3.390E-06,0.008
-3.380E-06,0.008
-3.370E-06,0.004
-3.360E-06,-0.004
-3.350E-06,0.000
-3.340E-06,0.000
-3.330E-06,0.000
-3.320E-06,0.008
-3.310E-06,0.000
-3.300E-06,0.000
-3.290E-06,0.004
-3.280E-06,-0.004
-3.270E-06,-0.004
-3.260E-06,-0.004
-3.250E-06,0.000
-3.240E-06,0.008
-3.230E-06,0.008
-3.220E-06,0.000
-3.210E-06,0.004
-3.200E-06,0.000
-3.190E-06,-0.004
-3.180E-06,-0.004
-3.170E-06,0.004
-3.160E-06,0.000
-3.150E-06,0.004
-3.140E-06,0.008
-3.130E-06,-0.004
-3.120E-06,0.000
-3.110E-06,0.000
-3.100E-06,0.000
-3.090E-06,0.004
-3.080E-06,0.008
-3.070E-06,0.004
-3.060E-06,0.004
-3.050E-06,0.004
-3.040E-06,0.000
-3.030E-06,-0.004
-3.020E-06,0.000
-3.010E-06,-0.004
-3.000E-06,0.000
-2.990E-06,0.008
-2.980E-06,0.012
-2.970E-06,0.008
-2.960E-06,0.008
-2.950E-06,-0.004
-2.940E-06,0.000
-2.930E-06,-0.004
-2.920E-06,0.004
-2.910E-06,0.012
-2.900E-06,0.016
-2.890E-06,0.016
-2.880E-06,0.008
-2.870E-06,-0.004
-2.860E-06,-0.004
-2.850E-06,0.000
-2.840E-06,0.004
-2.830E-06,0.008
-2.820E-06,0.008
-2.810E-06,0.008
-2.800E-06,0.000
-2.790E-06,-0.004
-2.780E-06,0.000
-2.770E-06,0.004
-2.760E-06,0.004
-2.750E-06,0.004
-2.740E-06,0.000
-2.730E-06,0.000
-2.720E-06,0.004
-2.710E-06,0.000
-2.700E-06,0.008
-2.690E-06,0.004
-2.680E-06,0.000
-2.670E-06,-0.004
-2.660E-06,0.000
-2.650E-06,0.004
-2.640E-06,0.008
-2.630E-06,0.008
-2.620E-06,0.004
-2.610E-06,0.004
-2.600E-06,0.004
-2.590E-06,0.000
-2.580E-06,-0.004
-2.570E-06,0.004
-2.560E-06,0.004
-2.550E-06,0.012
-2.540E-06,0.008
-2.530E-06,0.004
-2.520E-06,0.000
-2.510E-06,0.004
-2.500E-06,0.008
-2.490E-06,0.000
-2.480E-06,0.008
-2.470E-06,0.012
-2.460E-06,0.004
-2.450E-06,0.000
-2.440E-06,0.000
-2.430E-06,0.008
-2.420E-06,0.016
-2.410E-06,0.008
-2.400E-06,-0.008
-2.390E-06,-0.004
-2.380E-06,0.000
-2.370E-06,0.000
-2.360E-06,0.008
-2.350E-06,0.008
-2.340E-06,0.008
-2.330E-06,0.000
-2.320E-06,0.000
-2.310E-06,0.000
-2.300E-06,0.008
-2.290E-06,0.008
-2.280E-06,0.008
-2.270E-06,0.004
-2.260E-06,0.004
-2.250E-06,0.008
-2.240E-06,0.012
-2.230E-06,0.008
-2.220E-06,0.004
-2.210E-06,0.000
-2.200E-06,0.008
-2.190E-06,0.004
-2.180E-06,0.012
-2.170E-06,0.008
-2.160E-06,0.012
-2.150E-06,0.008
-2.140E-06,0.004
-2.130E-06,0.004
-2.120E-06,0.004
-2.110E-06,0.012
-2.100E-06,0.024
-2.090E-06,0.016
-2.080E-06,0.012
-2.070E-06,0.004
-2.060E-06,0.000
-2.050E-06,0.000
-2.040E-06,0.008
-2.030E-06,0.016
-2.020E-06,0.012
-2.010E-06,0.008
-2.000E-06,0.008
-1.990E-06,-0.004
-1.980E-06,0.000
-1.970E-06,-0.004
-1.960E-06,-0.004
-1.950E-06,-0.004
-1.940E-06,-0.004
-1.930E-06,0.004
-1.920E-06,0.008
-1.910E-06,0.004
-1.900E-06,-0.008
-1.890E-06,-0.012
-1.880E-06,-0.008
-1.870E-06,0.008
-1.860E-06,0.024
-1.850E-06,0.028
-1.840E-06,0.016
-1.830E-06,0.000
-1.820E-06,-0.012
-1.810E-06,-0.012
-1.800E-06,0.004
-1.790E-06,0.016
-1.780E-06,0.024
-1.770E-06,0.024
-1.760E-06,0.016
-1.750E-06,0.000
-1.740E-06,-0.004
-1.730E-06,-0.004
-1.720E-06,0.008
-1.710E-06,0.016
-1.700E-06,0.024
-1.690E-06,0.020
-1.680E-06,0.012
-1.670E-06,0.008
-1.660E-06,0.000
-1.650E-06,0.008
-1.640E-06,0.012
-1.630E-06,0.024
-1.620E-06,0.032
-1.610E-06,0.024
-1.600E-06,0.024
-1.590E-06,0.024
-1.580E-06,0.024
-1.570E-06,0.012
-1.560E-06,0.012
-1.550E-06,0.004
-1.540E-06,-0.004
-1.530E-06,-0.004
-1.520E-06,0.008
-1.510E-06,0.024
-1.500E-06,0.036
-1.490E-06,0.028
-1.480E-06,-0.016
-1.470E-06,-0.056
-1.460E-06,-0.056
-1.450E-06,-0.016
-1.440E-06,0.012
-1.430E-06,0.040
-1.420E-06,-0.048
-1.410E-06,-0.052
-1.400E-06,-0.072
-1.390E-06,-0.040
-1.380E-06,-0.024
-1.370E-06,0.028
-1.360E-06,0.092
-1.350E-06,0.052
-1.340E-06,0.016
-1.330E-06,-0.064
-1.320E-06,-0.052
-1.310E-06,-0.008
-1.300E-06,0.080
-1.290E-06,0.104
-1.280E-06,0.092
-1.270E-06,0.040
-1.260E-06,-0.012
-1.250E-06,-0.056
-1.240E-06,-0.060
-1.230E-06,-0.024
-1.220E-06,0.012
-1.210E-06,0.068
-1.200E-06,0.056
-1.190E-06,0.056
-1.180E-06,0.016
-1.170E-06,-0.004
-1.160E-06,-0.028
-1.150E-06,-0.028
-1.140E-06,-0.004
-1.130E-06,0.020
-1.120E-06,0.092
-1.110E-06,0.132
-1.100E-06,0.156
-1.090E-06,0.124
-1.080E-06,0.012
-1.070E-06,-0.168
-1.060E-06,-0.288
-1.050E-06,-0.280
-1.040E-06,-0.120
-1.030E-06,0.028
-1.020E-06,0.172
-1.010E-06,0.212
-1.000E-06,0.088
-9.900E-07,-0.084
-9.800E-07,-0.216
-9.700E-07,-0.172
-9.600E-07,-0.036
-9.500E-07,0.136
-9.400E-07,0.192
-9.300E-07,0.160
-9.200E-07,0.040
-9.100E-07,-0.056
-9.000E-07,-0.108
-8.900E-07,-0.072
-8.800E-07,0.004
-8.700E-07,0.072
-8.600E-07,0.124
-8.500E-07,0.112
-8.400E-07,0.080
-8.300E-07,0.008
-8.200E-07,-0.020
-8.100E-07,-0.056
-8.000E-07,-0.056
-7.900E-07,-0.008
-7.800E-07,0.020
-7.700E-07,0.056
-7.600E-07,0.052
-7.500E-07,0.024
-7.400E-07,-0.028
-7.300E-07,-0.060
-7.200E-07,-0.044
-7.100E-07,-0.004
-7.000E-07,0.044
-6.900E-07,0.076
-6.800E-07,0.056
-6.700E-07,0.012
-6.600E-07,-0.024
-6.500E-07,-0.024
-6.400E-07,0.000
-6.300E-07,0.044
-6.200E-07,0.080
-6.100E-07,0.072
-6.000E-07,0.024
-5.900E-07,-0.008
-5.800E-07,-0.020
-5.700E-07,0.008
-5.600E-07,0.068
-5.500E-07,0.128
-5.400E-07,0.148
-5.300E-07,0.136
-5.200E-07,0.092
-5.100E-07,0.028
-5.000E-07,0.000
-4.900E-07,0.020
-4.800E-07,0.048
-4.700E-07,0.072
-4.600E-07,0.052
-4.500E-07,-0.004
-4.400E-07,-0.076
-4.300E-07,-0.128
-4.200E-07,-0.072
-4.100E-07,-0.004
-4.000E-07,0.092
-3.900E-07,0.080
-3.800E-07,0.036
-3.700E-07,-0.064
-3.600E-07,-0.140
-3.500E-07,-0.136
-3.400E-07,-0.076
-3.300E-07,0.044
-3.200E-07,0.092
-3.100E-07,0.132
-3.000E-07,0.096
-2.900E-07,0.052
-2.800E-07,0.000
-2.700E-07,-0.012
-2.600E-07,0.024
-2.500E-07,0.080
-2.400E-07,0.152
-2.300E-07,0.176
-2.200E-07,0.168
-2.100E-07,0.132
-2.000E-07,0.088
-1.900E-07,0.060
-1.800E-07,0.060
-1.700E-07,0.072
-1.600E-07,0.044
-1.500E-07,-0.068
-1.400E-07,-0.240
-1.300E-07,-0.360
-1.200E-07,-0.412
-1.100E-07,-0.180
-1.000E-07,0.060
-9.000E-08,0.276
-8.000E-08,0.236
-7.000E-08,0.064
-6.000E-08,-0.088
-5.000E-08,-0.140
-4.000E-08,-0.076
-3.000E-08,0.040
-2.000E-08,0.192
-1.000E-08,0.296
0.000E+00,0.372
1.000E-08,0.260
2.000E-08,0.152
3.000E-08,0.024
4.000E-08,0.004
5.000E-08,-0.040
6.000E-08,-0.028
7.000E-08,-0.248
8.000E-08,-0.300
9.000E-08,-0.184
1.000E-07,0.016
1.100E-07,0.012
1.200E-07,0.112
1.300E-07,-0.072
1.400E-07,0.124
1.500E-07,0.284
1.600E-07,-0.040
1.700E-07,-0.336
1.800E-07,-0.184
1.900E-07,-0.072
2.000E-07,0.088
2.100E-07,0.136
2.200E-07,0.176
2.300E-07,-0.044
2.400E-07,-0.060
2.500E-07,-0.068
2.600E-07,-0.072
2.700E-07,0.124
2.800E-07,0.272
2.900E-07,0.224
3.000E-07,0.072
3.100E-07,-0.004
3.200E-07,0.012
3.300E-07,0.144
3.400E-07,0.260
3.500E-07,0.272
3.600E-07,0.224
3.700E-07,0.128
3.800E-07,0.020
3.900E-07,-0.160
4.000E-07,-0.212
4.100E-07,-0.224
4.200E-07,-0.160
4.300E-07,-0.152
4.400E-07,-0.036
4.500E-07,0.032
4.600E-07,0.092
4.700E-07,0.072
4.800E-07,-0.004
4.900E-07,0.016
5.000E-07,0.008
5.100E-07,0.104
5.200E-07,0.076
5.300E-07,0.132
5.400E-07,0.096
5.500E-07,0.124
5.600E-07,0.132
5.700E-07,0.144
5.800E-07,0.200
5.900E-07,0.192
6.000E-07,0.204
6.100E-07,0.192
6.200E-07,0.248
6.300E-07,0.232
6.400E-07,0.252
6.500E-07,0.196
6.600E-07,0.212
6.700E-07,0.204
6.800E-07,0.232
6.900E-07,0.264
7.000E-07,0.256
7.100E-07,0.252
7.200E-07,0.208
7.300E-07,0.208
7.400E-07,0.212
7.500E-07,0.248
7.600E-07,0.236
7.700E-07,0.248
7.800E-07,0.220
7.900E-07,0.200
8.000E-07,0.172
8.100E-07,0.192
8.200E-07,0.140
8.300E-07,0.160
8.400E-07,0.224
8.500E-07,0.204
8.600E-07,0.192
8.700E-07,0.100
8.800E-07,0.088
8.900E-07,0.136
9.000E-07,0.160
9.100E-07,0.220
9.200E-07,0.096
9.300E-07,0.188
9.400E-07,0.004
9.500E-07,0.052
9.600E-07,0.080
9.700E-07,0.240
9.800E-07,0.320
9.900E-07,0.372
1.000E-06,0.356
1.010E-06,0.176
1.020E-06,-0.244
1.030E-06,-0.480
1.040E-06,-0.512
1.050E-06,-0.400
1.060E-06,0.256
1.070E-06,0.540
1.080E-06,0.536
1.090E-06,0.404
1.100E-06,-0.048
1.110E-06,-0.512
1.120E-06,-0.512
1.130E-06,-0.124
1.140E-06,0.540
1.150E-06,0.540
1.160E-06,0.540
1.170E-06,0.036
1.180E-06,-0.508
1.190E-06,-0.512
1.200E-06,-0.512
1.210E-06,-0.268
1.220E-06,0.288
1.230E-06,0.532
1.240E-06,0.540
1.250E-06,0.388
1.260E-06,0.140
1.270E-06,-0.028
1.280E-06,0.032
1.290E-06,0.168
1.300E-06,0.352
1.310E-06,0.420
1.320E-06,0.444
1.330E-06,0.372
1.340E-06,0.260
1.350E-06,0.132
1.360E-06,0.056
1.370E-06,0.096
1.380E-06,0.224
1.390E-06,0.352
1.400E-06,0.404
1.410E-06,0.380
1.420E-06,0.268
1.430E-06,0.160
1.440E-06,0.112
1.450E-06,0.140
1.460E-06,0.216
1.470E-06,0.300
1.480E-06,0.360
1.490E-06,0.352
1.500E-06,0.300
1.510E-06,0.212
1.520E-06,0.156
1.530E-06,0.148
1.540E-06,0.204
1.550E-06,0.260
1.560E-06,0.308
1.570E-06,0.312
1.580E-06,0.284
1.590E-06,0.240
1.600E-06,0.192
1.610E-06,0.188
1.620E-06,0.208
1.630E-06,0.252
1.640E-06,0.280
1.650E-06,0.296
1.660E-06,0.284
1.670E-06,0.252
1.680E-06,0.224
1.690E-06,0.208
1.700E-06,0.208
1.710E-06,0.228
1.720E-06,0.256
1.730E-06,0.272
1.740E-06,0.272
1.750E-06,0.252
1.760E-06,0.228
1.770E-06,0.212
1.780E-06,0.208
1.790E-06,0.220
1.800E-06,0.244
1.810E-06,0.268
1.820E-06,0.268
1.830E-06,0.264
1.840E-06,0.244
1.850E-06,0.224
1.860E-06,0.208
1.870E-06,0.212
1.880E-06,0.228
1.890E-06,0.244
1.900E-06,0.252
1.910E-06,0.252
1.920E-06,0.240
1.930E-06,0.220
1.940E-06,0.208
1.950E-06,0.212
1.960E-06,0.220
1.970E-06,0.236
1.980E-06,0.248
1.990E-06,0.252
2.000E-06,0.240
2.010E-06,0.228
2.020E-06,0.216
2.030E-06,0.212
2.040E-06,0.216
2.050E-06,0.228
2.060E-06,0.232
2.070E-06,0.240
2.080E-06,0.236
2.090E-06,0.228
2.100E-06,0.216
2.110E-06,0.208
2.120E-06,0.216
2.130E-06,0.224
2.140E-06,0.232
2.150E-06,0.236
2.160E-06,0.236
2.170E-06,0.228
2.180E-06,0.228
2.190E-06,0.220
2.200E-06,0.220
2.210E-06,0.220
2.220E-06,0.224
2.230E-06,0.232
2.240E-06,0.228
2.250E-06,0.220
2.260E-06,0.220
2.270E-06,0.216
2.280E-06,0.220
2.290E-06,0.216
2.300E-06,0.224
2.310E-06,0.220
2.320E-06,0.224
2.330E-06,0.220
2.340E-06,0.220
2.350E-06,0.220
2.360E-06,0.212
2.370E-06,0.216
2.380E-06,0.220
2.390E-06,0.224
2.400E-06,0.220
2.410E-06,0.220
2.420E-06,0.208
2.430E-06,0.208
2.440E-06,0.200
2.450E-06,0.196
2.460E-06,0.204
2.470E-06,0.208
2.480E-06,0.220
2.490E-06,0.220
2.500E-06,0.212
2.510E-06,0.212
2.520E-06,0.196
2.530E-06,0.192
2.540E-06,0.196
2.550E-06,0.204
2.560E-06,0.212
2.570E-06,0.216
2.580E-06,0.220
2.590E-06,0.212
2.600E-06,0.200
2.610E-06,0.200
2.620E-06,0.200
2.630E-06,0.204
2.640E-06,0.208
2.650E-06,0.220
2.660E-06,0.220
2.670E-06,0.216
2.680E-06,0.212
2.690E-06,0.204
2.700E-06,0.200
2.710E-06,0.204
2.720E-06,0.204
2.730E-06,0.208
2.740E-06,0.208
2.750E-06,0.204
2.760E-06,0.200
2.770E-06,0.196
2.780E-06,0.196
2.790E-06,0.192
2.800E-06,0.192
2.810E-06,0.192
2.820E-06,0.200
2.830E-06,0.200
2.840E-06,0.196
2.850E-06,0.200
2.860E-06,0.196
2.870E-06,0.192
2.880E-06,0.192
2.890E-06,0.200
2.900E-06,0.196
2.910E-06,0.196
2.920E-06,0.192
2.930E-06,0.192
2.940E-06,0.192
2.950E-06,0.188
2.960E-06,0.192
2.970E-06,0.188
2.980E-06,0.192
2.990E-06,0.188
3.000E-06,0.192
3.010E-06,0.184
3.020E-06,0.184
3.030E-06,0.176
3.040E-06,0.188
3.050E-06,0.192
3.060E-06,0.208
3.070E-06,0.204
3.080E-06,0.196
3.090E-06,0.180
3.100E-06,0.160
3.110E-06,0.156
3.120E-06,0.168
3.130E-06,0.176
3.140E-06,0.188
3.150E-06,0.192
3.160E-06,0.192
3.170E-06,0.192
3.180E-06,0.172
3.190E-06,0.156
3.200E-06,0.152
3.210E-06,0.160
3.220E-06,0.176
3.230E-06,0.184
3.240E-06,0.196
3.250E-06,0.192
3.260E-06,0.176
3.270E-06,0.168
3.280E-06,0.156
3.290E-06,0.160
3.300E-06,0.168
3.310E-06,0.184
3.320E-06,0.192
3.330E-06,0.188
3.340E-06,0.164
3.350E-06,0.136
3.360E-06,0.112
3.370E-06,0.104
3.380E-06,0.136
3.390E-06,0.180
3.400E-06,0.216
3.410E-06,0.208
