mediciones/Mediciones filtradas (saque las feas)/5-15/40/WaveData47511.csv

#timebase=2000000(ps)
,#voltbase=100000(mv/100)
#size=4000
-8.400E-06,0.008
-8.390E-06,-0.004
-8.380E-06,0.004
-8.370E-06,0.004
-8.360E-06,0.004
-8.350E-06,0.004
-8.340E-06,0.004
-8.330E-06,0.004
-8.320E-06,0.000
-8.310E-06,-0.004
-8.300E-06,0.000
-8.290E-06,-0.004
-8.280E-06,0.004
-8.270E-06,0.008
-8.260E-06,0.008
-8.250E-06,0.004
-8.240E-06,0.004
-8.230E-06,0.000
-8.220E-06,-0.004
-8.210E-06,0.004
-8.200E-06,0.004
-8.190E-06,0.004
-8.180E-06,0.004
-8.170E-06,0.004
-8.160E-06,-0.004
-8.150E-06,0.000
-8.140E-06,0.000
-8.130E-06,0.000
-8.120E-06,0.000
-8.110E-06,0.008
-8.100E-06,0.004
-8.090E-06,0.004
-8.080E-06,0.004
-8.070E-06,0.000
-8.060E-06,-0.004
-8.050E-06,-0.004
-8.040E-06,0.004
-8.030E-06,0.000
-8.020E-06,0.008
-8.010E-06,0.000
-8.000E-06,0.004
-7.990E-06,0.004
-7.980E-06,0.004
-7.970E-06,0.000
-7.960E-06,-0.004
-7.950E-06,0.000
-7.940E-06,0.004
-7.930E-06,0.012
-7.920E-06,0.012
-7.910E-06,0.000
-7.900E-06,0.000
-7.890E-06,0.000
-7.880E-06,0.000
-7.870E-06,0.004
-7.860E-06,0.008
-7.850E-06,0.004
-7.840E-06,0.004
-7.830E-06,0.004
-7.820E-06,0.000
-7.810E-06,0.000
-7.800E-06,0.000
-7.790E-06,0.004
-7.780E-06,0.004
-7.770E-06,0.004
-7.760E-06,0.004
-7.750E-06,0.000
-7.740E-06,0.004
-7.730E-06,0.000
-7.720E-06,0.004
-7.710E-06,0.000
-7.700E-06,0.004
-7.690E-06,0.000
-7.680E-06,0.004
-7.670E-06,0.000
-7.660E-06,0.000
-7.650E-06,0.004
-7.640E-06,0.000
-7.630E-06,0.000
-7.620E-06,0.004
-7.610E-06,0.000
-7.600E-06,0.008
-7.590E-06,0.004
-7.580E-06,0.004
-7.570E-06,-0.004
-7.560E-06,0.000
-7.550E-06,0.008
-7.540E-06,0.000
-7.530E-06,0.000
-7.520E-06,0.004
-7.510E-06,0.000
-7.500E-06,-0.004
-7.490E-06,0.000
-7.480E-06,0.000
-7.470E-06,0.000
-7.460E-06,0.004
-7.450E-06,0.000
-7.440E-06,0.008
-7.430E-06,0.004
-7.420E-06,0.004
-7.410E-06,0.008
-7.400E-06,0.000
-7.390E-06,0.000
-7.380E-06,0.004
-7.370E-06,0.004
-7.360E-06,0.004
-7.350E-06,0.000
-7.340E-06,0.004
-7.330E-06,0.004
-7.320E-06,0.004
-7.310E-06,0.004
-7.300E-06,0.004
-7.290E-06,0.000
-7.280E-06,0.000
-7.270E-06,0.004
-7.260E-06,0.004
-7.250E-06,0.004
-7.240E-06,-0.004
-7.230E-06,0.004
-7.220E-06,0.004
-7.210E-06,0.004
-7.200E-06,0.000
-7.190E-06,0.004
-7.180E-06,0.004
-7.170E-06,0.000
-7.160E-06,0.004
-7.150E-06,0.004
-7.140E-06,-0.004
-7.130E-06,-0.004
-7.120E-06,0.004
-7.110E-06,0.004
-7.100E-06,0.004
-7.090E-06,0.004
-7.080E-06,0.008
-7.070E-06,0.004
-7.060E-06,-0.004
-7.050E-06,-0.004
-7.040E-06,0.000
-7.030E-06,0.000
-7.020E-06,0.004
-7.010E-06,0.004
-7.000E-06,0.000
-6.990E-06,0.000
-6.980E-06,0.004
-6.970E-06,0.004
-6.960E-06,0.008
-6.950E-06,0.000
-6.940E-06,0.004
-6.930E-06,0.004
-6.920E-06,0.000
-6.910E-06,0.000
-6.900E-06,0.000
-6.890E-06,0.000
-6.880E-06,0.004
-6.870E-06,0.008
-6.860E-06,0.004
-6.850E-06,0.000
-6.840E-06,0.004
-6.830E-06,0.004
-6.820E-06,0.004
-6.810E-06,0.004
-6.800E-06,0.000
-6.790E-06,0.000
-6.780E-06,0.004
-6.770E-06,0.000
-6.760E-06,0.000
-6.750E-06,0.004
-6.740E-06,0.004
-6.730E-06,0.000
-6.720E-06,0.000
-6.710E-06,0.008
-6.700E-06,0.000
-6.690E-06,0.000
-6.680E-06,0.004
-6.670E-06,0.000
-6.660E-06,0.000
-6.650E-06,0.000
-6.640E-06,0.008
-6.630E-06,0.000
-6.620E-06,-0.004
-6.610E-06,0.000
-6.600E-06,0.012
-6.590E-06,0.000
-6.580E-06,0.004
-6.570E-06,0.008
-6.560E-06,0.000
-6.550E-06,0.000
-6.540E-06,0.000
-6.530E-06,0.004
-6.520E-06,0.004
-6.510E-06,0.008
-6.500E-06,0.012
-6.490E-06,0.008
-6.480E-06,0.008
-6.470E-06,0.004
-6.460E-06,0.004
-6.450E-06,-0.004
-6.440E-06,0.000
-6.430E-06,0.008
-6.420E-06,0.000
-6.410E-06,0.004
-6.400E-06,0.000
-6.390E-06,0.000
-6.380E-06,0.000
-6.370E-06,-0.004
-6.360E-06,0.004
-6.350E-06,0.004
-6.340E-06,0.004
-6.330E-06,0.004
-6.320E-06,0.000
-6.310E-06,0.000
-6.300E-06,0.000
-6.290E-06,0.000
-6.280E-06,-0.004
-6.270E-06,0.008
-6.260E-06,0.008
-6.250E-06,0.008
-6.240E-06,0.000
-6.230E-06,0.004
-6.220E-06,-0.004
-6.210E-06,0.000
-6.200E-06,0.000
-6.190E-06,0.004
-6.180E-06,0.000
-6.170E-06,0.004
-6.160E-06,0.008
-6.150E-06,-0.004
-6.140E-06,-0.004
-6.130E-06,0.000
-6.120E-06,0.008
-6.110E-06,0.000
-6.100E-06,0.008
-6.090E-06,0.004
-6.080E-06,0.004
-6.070E-06,0.004
-6.060E-06,0.000
-6.050E-06,0.004
-6.040E-06,0.000
-6.030E-06,0.004
-6.020E-06,0.012
-6.010E-06,0.008
-6.000E-06,0.004
-5.990E-06,-0.004
-5.980E-06,0.000
-5.970E-06,0.004
-5.960E-06,0.004
-5.950E-06,0.008
-5.940E-06,-0.004
-5.930E-06,0.004
-5.920E-06,0.000
-5.910E-06,0.004
-5.900E-06,-0.004
-5.890E-06,0.000
-5.880E-06,0.004
-5.870E-06,0.008
-5.860E-06,0.008
-5.850E-06,0.000
-5.840E-06,-0.004
-5.830E-06,0.000
-5.820E-06,0.000
-5.810E-06,0.000
-5.800E-06,0.004
-5.790E-06,0.004
-5.780E-06,0.012
-5.770E-06,0.008
-5.760E-06,0.000
-5.750E-06,-0.004
-5.740E-06,0.004
-5.730E-06,0.000
-5.720E-06,0.004
-5.710E-06,0.004
-5.700E-06,0.004
-5.690E-06,0.004
-5.680E-06,0.000
-5.670E-06,0.000
-5.660E-06,-0.004
-5.650E-06,0.000
-5.640E-06,0.000
-5.630E-06,0.008
-5.620E-06,0.008
-5.610E-06,0.004
-5.600E-06,0.000
-5.590E-06,0.000
-5.580E-06,0.000
-5.570E-06,-0.004
-5.560E-06,0.000
-5.550E-06,0.004
-5.540E-06,0.004
-5.530E-06,0.004
-5.520E-06,0.004
-5.510E-06,0.004
-5.500E-06,-0.004
-5.490E-06,0.004
-5.480E-06,-0.004
-5.470E-06,0.004
-5.460E-06,0.004
-5.450E-06,0.008
-5.440E-06,0.008
-5.430E-06,0.000
-5.420E-06,0.004
-5.410E-06,0.000
-5.400E-06,0.000
-5.390E-06,-0.004
-5.380E-06,0.000
-5.370E-06,0.000
-5.360E-06,-0.004
-5.350E-06,0.004
-5.340E-06,0.000
-5.330E-06,0.004
-5.320E-06,0.004
-5.310E-06,0.012
-5.300E-06,0.004
-5.290E-06,-0.004
-5.280E-06,0.004
-5.270E-06,0.004
-5.260E-06,0.004
-5.250E-06,0.008
-5.240E-06,0.004
-5.230E-06,0.000
-5.220E-06,0.004
-5.210E-06,0.008
-5.200E-06,0.004
-5.190E-06,0.004
-5.180E-06,0.000
-5.170E-06,-0.004
-5.160E-06,0.004
-5.150E-06,0.000
-5.140E-06,0.000
-5.130E-06,0.000
-5.120E-06,0.000
-5.110E-06,0.000
-5.100E-06,0.008
-5.090E-06,0.000
-5.080E-06,0.004
-5.070E-06,0.004
-5.060E-06,-0.004
-5.050E-06,0.000
-5.040E-06,0.004
-5.030E-06,0.004
-5.020E-06,0.004
-5.010E-06,0.004
-5.000E-06,0.004
-4.990E-06,-0.004
-4.980E-06,-0.004
-4.970E-06,0.000
-4.960E-06,0.008
-4.950E-06,0.000
-4.940E-06,0.004
-4.930E-06,0.000
-4.920E-06,0.004
-4.910E-06,0.000
-4.900E-06,0.004
-4.890E-06,0.008
-4.880E-06,0.000
-4.870E-06,0.000
-4.860E-06,0.004
-4.850E-06,0.008
-4.840E-06,0.004
-4.830E-06,0.000
-4.820E-06,0.000
-4.810E-06,0.004
-4.800E-06,0.008
-4.790E-06,0.000
-4.780E-06,0.004
-4.770E-06,0.004
-4.760E-06,0.004
-4.750E-06,0.008
-4.740E-06,0.008
-4.730E-06,0.000
-4.720E-06,0.004
-4.710E-06,0.004
-4.700E-06,0.004
-4.690E-06,0.004
-4.680E-06,0.008
-4.670E-06,0.000
-4.660E-06,0.000
-4.650E-06,0.004
-4.640E-06,-0.004
-4.630E-06,0.000
-4.620E-06,-0.004
-4.610E-06,-0.004
-4.600E-06,0.004
-4.590E-06,0.004
-4.580E-06,0.008
-4.570E-06,0.008
-4.560E-06,0.000
-4.550E-06,-0.004
-4.540E-06,0.004
-4.530E-06,0.000
-4.520E-06,0.004
-4.510E-06,0.012
-4.500E-06,0.004
-4.490E-06,-0.004
-4.480E-06,0.000
-4.470E-06,0.000
-4.460E-06,0.004
-4.450E-06,0.004
-4.440E-06,0.004
-4.430E-06,0.000
-4.420E-06,0.004
-4.410E-06,0.004
-4.400E-06,0.004
-4.390E-06,0.004
-4.380E-06,0.004
-4.370E-06,-0.004
-4.360E-06,0.004
-4.350E-06,0.004
-4.340E-06,0.000
-4.330E-06,0.004
-4.320E-06,0.000
-4.310E-06,0.004
-4.300E-06,0.000
-4.290E-06,0.000
-4.280E-06,-0.004
-4.270E-06,-0.004
-4.260E-06,0.004
-4.250E-06,0.000
-4.240E-06,0.000
-4.230E-06,0.004
-4.220E-06,0.000
-4.210E-06,0.000
-4.200E-06,-0.004
-4.190E-06,0.000
-4.180E-06,0.000
-4.170E-06,0.000
-4.160E-06,-0.004
-4.150E-06,0.004
-4.140E-06,0.004
-4.130E-06,0.004
-4.120E-06,0.000
-4.110E-06,0.004
-4.100E-06,-0.004
-4.090E-06,0.004
-4.080E-06,0.008
-4.070E-06,0.004
-4.060E-06,0.004
-4.050E-06,0.000
-4.040E-06,0.004
-4.030E-06,0.008
-4.020E-06,0.008
-4.010E-06,0.000
-4.000E-06,-0.004
-3.990E-06,0.004
-3.980E-06,0.000
-3.970E-06,0.000
-3.960E-06,0.004
-3.950E-06,0.000
-3.940E-06,0.000
-3.930E-06,0.008
-3.920E-06,0.000
-3.910E-06,0.000
-3.900E-06,0.008
-3.890E-06,0.000
-3.880E-06,0.000
-3.870E-06,0.004
-3.860E-06,0.004
-3.850E-06,0.000
-3.840E-06,0.004
-3.830E-06,0.008
-3.820E-06,0.004
-3.810E-06,0.004
-3.800E-06,0.008
-3.790E-06,-0.004
-3.780E-06,0.000
-3.770E-06,0.004
-3.760E-06,0.000
-3.750E-06,0.004
-3.740E-06,0.004
-3.730E-06,0.000
-3.720E-06,0.004
-3.710E-06,0.004
-3.700E-06,0.008
-3.690E-06,0.000
-3.680E-06,0.004
-3.670E-06,0.004
-3.660E-06,0.004
-3.650E-06,0.000
-3.640E-06,-0.004
-3.630E-06,0.004
-3.620E-06,0.012
-3.610E-06,0.000
-3.600E-06,0.000
-3.590E-06,0.008
-3.580E-06,0.004
-3.570E-06,0.000
-3.560E-06,0.004
-3.550E-06,0.004
-3.540E-06,0.008
-3.530E-06,0.004
-3.520E-06,0.000
-3.510E-06,-0.004
-3.500E-06,0.000
-3.490E-06,0.012
-3.480E-06,0.004
-3.470E-06,0.008
-3.460E-06,0.004
-3.450E-06,0.000
-3.440E-06,0.000
-3.430E-06,0.008
-3.420E-06,0.000
-3.410E-06,0.008
-3.400E-06,0.004
-3.390E-06,0.004
-3.380E-06,0.000
-3.370E-06,-0.004
-3.360E-06,0.000
-3.350E-06,0.004
-3.340E-06,0.008
-3.330E-06,0.008
-3.320E-06,0.008
-3.310E-06,0.004
-3.300E-06,0.000
-3.290E-06,0.000
-3.280E-06,0.004
-3.270E-06,0.000
-3.260E-06,0.004
-3.250E-06,0.004
-3.240E-06,0.004
-3.230E-06,0.008
-3.220E-06,0.004
-3.210E-06,0.000
-3.200E-06,0.000
-3.190E-06,0.000
-3.180E-06,0.008
-3.170E-06,0.008
-3.160E-06,0.012
-3.150E-06,0.000
-3.140E-06,-0.004
-3.130E-06,0.004
-3.120E-06,-0.004
-3.110E-06,0.004
-3.100E-06,0.004
-3.090E-06,0.004
-3.080E-06,0.004
-3.070E-06,0.008
-3.060E-06,-0.008
-3.050E-06,-0.008
-3.040E-06,-0.004
-3.030E-06,-0.004
-3.020E-06,0.000
-3.010E-06,-0.004
-3.000E-06,-0.004
-2.990E-06,0.004
-2.980E-06,0.008
-2.970E-06,0.012
-2.960E-06,0.004
-2.950E-06,-0.008
-2.940E-06,-0.012
-2.930E-06,-0.012
-2.920E-06,0.000
-2.910E-06,0.012
-2.900E-06,0.024
-2.890E-06,0.012
-2.880E-06,-0.004
-2.870E-06,-0.012
-2.860E-06,-0.012
-2.850E-06,-0.004
-2.840E-06,0.008
-2.830E-06,0.008
-2.820E-06,0.000
-2.810E-06,0.000
-2.800E-06,-0.004
-2.790E-06,0.004
-2.780E-06,0.016
-2.770E-06,0.012
-2.760E-06,0.008
-2.750E-06,0.004
-2.740E-06,-0.004
-2.730E-06,-0.004
-2.720E-06,0.000
-2.710E-06,0.008
-2.700E-06,0.012
-2.690E-06,0.004
-2.680E-06,0.000
-2.670E-06,0.000
-2.660E-06,0.000
-2.650E-06,0.004
-2.640E-06,0.004
-2.630E-06,0.008
-2.620E-06,0.004
-2.610E-06,-0.008
-2.600E-06,0.004
-2.590E-06,0.000
-2.580E-06,0.008
-2.570E-06,0.012
-2.560E-06,0.008
-2.550E-06,0.000
-2.540E-06,-0.004
-2.530E-06,0.000
-2.520E-06,0.004
-2.510E-06,0.004
-2.500E-06,0.008
-2.490E-06,0.000
-2.480E-06,0.004
-2.470E-06,0.008
-2.460E-06,0.012
-2.450E-06,0.012
-2.440E-06,0.004
-2.430E-06,0.004
-2.420E-06,0.004
-2.410E-06,0.008
-2.400E-06,0.000
-2.390E-06,0.004
-2.380E-06,-0.004
-2.370E-06,-0.004
-2.360E-06,0.004
-2.350E-06,0.008
-2.340E-06,0.012
-2.330E-06,0.024
-2.320E-06,0.020
-2.310E-06,0.008
-2.300E-06,-0.004
-2.290E-06,-0.024
-2.280E-06,-0.016
-2.270E-06,0.008
-2.260E-06,0.036
-2.250E-06,0.048
-2.240E-06,0.024
-2.230E-06,0.000
-2.220E-06,-0.032
-2.210E-06,-0.040
-2.200E-06,-0.028
-2.190E-06,-0.004
-2.180E-06,0.020
-2.170E-06,0.044
-2.160E-06,0.024
-2.150E-06,-0.004
-2.140E-06,-0.028
-2.130E-06,-0.040
-2.120E-06,-0.020
-2.110E-06,0.004
-2.100E-06,0.024
-2.090E-06,0.032
-2.080E-06,0.020
-2.070E-06,0.008
-2.060E-06,-0.012
-2.050E-06,-0.024
-2.040E-06,-0.032
-2.030E-06,-0.020
-2.020E-06,0.004
-2.010E-06,0.032
-2.000E-06,0.040
-1.990E-06,0.036
-1.980E-06,0.004
-1.970E-06,-0.012
-1.960E-06,-0.028
-1.950E-06,-0.028
-1.940E-06,0.000
-1.930E-06,0.028
-1.920E-06,0.044
-1.910E-06,0.040
-1.900E-06,0.012
-1.890E-06,-0.012
-1.880E-06,-0.024
-1.870E-06,-0.020
-1.860E-06,0.004
-1.850E-06,0.024
-1.840E-06,0.028
-1.830E-06,0.024
-1.820E-06,0.012
-1.810E-06,-0.004
-1.800E-06,-0.012
-1.790E-06,-0.008
-1.780E-06,0.000
-1.770E-06,0.008
-1.760E-06,0.020
-1.750E-06,0.024
-1.740E-06,0.024
-1.730E-06,0.012
-1.720E-06,0.004
-1.710E-06,0.004
-1.700E-06,0.000
-1.690E-06,0.008
-1.680E-06,0.008
-1.670E-06,0.012
-1.660E-06,0.000
-1.650E-06,-0.012
-1.640E-06,0.004
-1.630E-06,0.004
-1.620E-06,0.028
-1.610E-06,0.032
-1.600E-06,0.044
-1.590E-06,0.008
-1.580E-06,-0.008
-1.570E-06,-0.020
-1.560E-06,-0.032
-1.550E-06,0.000
-1.540E-06,0.036
-1.530E-06,0.044
-1.520E-06,0.028
-1.510E-06,0.020
-1.500E-06,0.024
-1.490E-06,0.020
-1.480E-06,0.028
-1.470E-06,0.028
-1.460E-06,0.000
-1.450E-06,-0.016
-1.440E-06,0.012
-1.430E-06,0.040
-1.420E-06,0.056
-1.410E-06,0.032
-1.400E-06,0.016
-1.390E-06,-0.036
-1.380E-06,-0.064
-1.370E-06,-0.036
-1.360E-06,0.000
-1.350E-06,0.052
-1.340E-06,0.060
-1.330E-06,0.048
-1.320E-06,0.008
-1.310E-06,-0.004
-1.300E-06,-0.012
-1.290E-06,-0.008
-1.280E-06,0.004
-1.270E-06,0.024
-1.260E-06,0.040
-1.250E-06,0.040
-1.240E-06,0.044
-1.230E-06,0.052
-1.220E-06,0.040
-1.210E-06,0.016
-1.200E-06,-0.004
-1.190E-06,-0.024
-1.180E-06,-0.028
-1.170E-06,-0.020
-1.160E-06,-0.032
-1.150E-06,-0.080
-1.140E-06,-0.120
-1.130E-06,-0.100
-1.120E-06,-0.068
-1.110E-06,0.008
-1.100E-06,0.072
-1.090E-06,0.096
-1.080E-06,0.024
-1.070E-06,0.016
-1.060E-06,-0.032
-1.050E-06,-0.108
-1.040E-06,-0.044
-1.030E-06,0.064
-1.020E-06,0.128
-1.010E-06,0.084
-1.000E-06,0.072
-9.900E-07,-0.004
-9.800E-07,-0.024
-9.700E-07,-0.020
-9.600E-07,0.012
-9.500E-07,0.008
-9.400E-07,0.008
-9.300E-07,0.020
-9.200E-07,0.012
-9.100E-07,0.012
-9.000E-07,0.044
-8.900E-07,0.060
-8.800E-07,-0.040
-8.700E-07,-0.112
-8.600E-07,-0.168
-8.500E-07,-0.120
-8.400E-07,-0.088
-8.300E-07,0.036
-8.200E-07,0.108
-8.100E-07,0.132
-8.000E-07,0.084
-7.900E-07,-0.036
-7.800E-07,-0.124
-7.700E-07,-0.144
-7.600E-07,-0.048
-7.500E-07,0.060
-7.400E-07,0.136
-7.300E-07,0.100
-7.200E-07,0.048
-7.100E-07,-0.032
-7.000E-07,-0.060
-6.900E-07,-0.068
-6.800E-07,-0.032
-6.700E-07,0.024
-6.600E-07,0.064
-6.500E-07,0.084
-6.400E-07,0.044
-6.300E-07,-0.004
-6.200E-07,-0.068
-6.100E-07,-0.064
-6.000E-07,-0.048
-5.900E-07,0.020
-5.800E-07,0.064
-5.700E-07,0.092
-5.600E-07,0.100
-5.500E-07,0.064
-5.400E-07,0.012
-5.300E-07,-0.044
-5.200E-07,-0.056
-5.100E-07,-0.036
-5.000E-07,0.032
-4.900E-07,0.068
-4.800E-07,0.084
-4.700E-07,0.056
-4.600E-07,0.016
-4.500E-07,-0.024
-4.400E-07,-0.028
-4.300E-07,-0.008
-4.200E-07,0.012
-4.100E-07,0.036
-4.000E-07,0.052
-3.900E-07,0.052
-3.800E-07,0.044
-3.700E-07,0.024
-3.600E-07,0.012
-3.500E-07,0.004
-3.400E-07,0.000
-3.300E-07,0.012
-3.200E-07,0.032
-3.100E-07,0.040
-3.000E-07,0.040
-2.900E-07,0.024
-2.800E-07,0.016
-2.700E-07,0.024
-2.600E-07,0.036
-2.500E-07,0.044
-2.400E-07,0.048
-2.300E-07,0.044
-2.200E-07,0.052
-2.100E-07,0.064
-2.000E-07,0.068
-1.900E-07,0.048
-1.800E-07,0.024
-1.700E-07,0.016
-1.600E-07,0.024
-1.500E-07,0.008
-1.400E-07,-0.012
-1.300E-07,-0.024
-1.200E-07,-0.020
-1.100E-07,0.060
-1.000E-07,0.176
-9.000E-08,0.332
-8.000E-08,0.160
-7.000E-08,0.024
-6.000E-08,-0.420
-5.000E-08,-0.512
-4.000E-08,-0.168
-3.000E-08,0.008
-2.000E-08,0.460
-1.000E-08,0.496
0.000E+00,-0.004
1.000E-08,-0.368
2.000E-08,-0.388
3.000E-08,-0.144
4.000E-08,-0.068
5.000E-08,0.152
6.000E-08,0.232
7.000E-08,0.172
8.000E-08,0.076
9.000E-08,-0.128
1.000E-07,-0.272
1.100E-07,-0.200
1.200E-07,-0.068
1.300E-07,0.008
1.400E-07,0.092
1.500E-07,0.212
1.600E-07,0.208
1.700E-07,0.072
1.800E-07,-0.072
1.900E-07,-0.172
2.000E-07,-0.148
2.100E-07,0.008
2.200E-07,0.176
2.300E-07,0.272
2.400E-07,0.220
2.500E-07,0.104
2.600E-07,-0.084
2.700E-07,-0.184
2.800E-07,-0.044
2.900E-07,0.060
3.000E-07,0.148
3.100E-07,0.076
3.200E-07,-0.060
3.300E-07,-0.168
3.400E-07,-0.152
3.500E-07,-0.004
3.600E-07,0.144
3.700E-07,0.196
3.800E-07,0.092
3.900E-07,-0.100
4.000E-07,-0.172
4.100E-07,0.044
4.200E-07,0.300
4.300E-07,0.304
4.400E-07,0.084
4.500E-07,-0.204
4.600E-07,-0.452
4.700E-07,-0.420
4.800E-07,-0.152
4.900E-07,0.160
5.000E-07,0.308
5.100E-07,0.292
5.200E-07,0.036
5.300E-07,-0.236
5.400E-07,-0.324
5.500E-07,-0.156
5.600E-07,0.084
5.700E-07,0.272
5.800E-07,0.248
5.900E-07,0.140
6.000E-07,-0.056
6.100E-07,-0.112
6.200E-07,-0.004
6.300E-07,0.052
6.400E-07,0.068
6.500E-07,-0.112
6.600E-07,-0.116
6.700E-07,-0.124
6.800E-07,-0.004
6.900E-07,0.072
7.000E-07,0.108
7.100E-07,0.028
7.200E-07,-0.020
7.300E-07,-0.060
7.400E-07,-0.036
7.500E-07,0.092
7.600E-07,0.132
7.700E-07,0.172
7.800E-07,0.088
7.900E-07,0.036
8.000E-07,-0.020
8.100E-07,-0.004
8.200E-07,0.084
8.300E-07,0.128
8.400E-07,0.188
8.500E-07,0.164
8.600E-07,0.144
8.700E-07,0.024
8.800E-07,-0.136
8.900E-07,-0.220
9.000E-07,-0.208
9.100E-07,-0.044
9.200E-07,0.028
9.300E-07,0.168
9.400E-07,0.104
9.500E-07,0.044
9.600E-07,-0.036
9.700E-07,-0.036
9.800E-07,-0.024
9.900E-07,0.016
1.000E-06,0.104
1.010E-06,0.160
1.020E-06,0.192
1.030E-06,0.164
1.040E-06,0.176
1.050E-06,0.176
1.060E-06,0.176
1.070E-06,-0.008
1.080E-06,-0.176
1.090E-06,-0.432
1.100E-06,-0.368
1.110E-06,-0.308
1.120E-06,0.072
1.130E-06,0.240
1.140E-06,0.304
1.150E-06,0.100
1.160E-06,-0.300
1.170E-06,-0.512
1.180E-06,-0.312
1.190E-06,0.044
1.200E-06,0.256
1.210E-06,0.408
1.220E-06,0.244
1.230E-06,0.028
1.240E-06,-0.148
1.250E-06,-0.228
1.260E-06,-0.176
1.270E-06,0.012
1.280E-06,0.172
1.290E-06,0.248
1.300E-06,0.192
1.310E-06,0.036
1.320E-06,-0.076
1.330E-06,-0.096
1.340E-06,0.004
1.350E-06,0.148
1.360E-06,0.392
1.370E-06,0.472
1.380E-06,0.320
1.390E-06,-0.104
1.400E-06,-0.456
1.410E-06,-0.512
1.420E-06,-0.512
1.430E-06,-0.112
1.440E-06,0.296
1.450E-06,0.496
1.460E-06,0.288
1.470E-06,0.000
1.480E-06,-0.268
1.490E-06,-0.396
1.500E-06,-0.368
1.510E-06,-0.104
1.520E-06,0.256
1.530E-06,0.444
1.540E-06,0.400
1.550E-06,0.108
1.560E-06,-0.152
1.570E-06,-0.340
1.580E-06,-0.212
1.590E-06,0.144
1.600E-06,0.432
1.610E-06,0.464
1.620E-06,0.128
1.630E-06,-0.268
1.640E-06,-0.508
1.650E-06,-0.476
1.660E-06,-0.136
1.670E-06,0.268
1.680E-06,0.468
1.690E-06,0.416
1.700E-06,0.136
1.710E-06,-0.212
1.720E-06,-0.384
1.730E-06,-0.288
1.740E-06,0.000
1.750E-06,0.292
1.760E-06,0.404
1.770E-06,0.328
1.780E-06,0.188
1.790E-06,0.028
1.800E-06,-0.044
1.810E-06,-0.012
1.820E-06,0.128
1.830E-06,0.188
1.840E-06,0.152
1.850E-06,0.064
1.860E-06,-0.120
1.870E-06,-0.184
1.880E-06,-0.168
1.890E-06,-0.024
1.900E-06,0.096
1.910E-06,0.116
1.920E-06,0.148
1.930E-06,0.164
1.940E-06,-0.040
1.950E-06,-0.172
1.960E-06,-0.236
1.970E-06,-0.248
1.980E-06,-0.096
1.990E-06,0.064
2.000E-06,0.324
2.010E-06,0.240
2.020E-06,0.028
2.030E-06,-0.168
2.040E-06,-0.220
2.050E-06,-0.136
2.060E-06,0.036
2.070E-06,0.172
2.080E-06,0.208
2.090E-06,0.156
2.100E-06,0.024
2.110E-06,-0.028
2.120E-06,-0.032
2.130E-06,0.008
2.140E-06,-0.012
2.150E-06,0.080
2.160E-06,0.188
2.170E-06,0.208
2.180E-06,0.296
2.190E-06,0.240
2.200E-06,0.108
2.210E-06,-0.016
2.220E-06,-0.008
2.230E-06,0.060
2.240E-06,0.104
2.250E-06,0.052
2.260E-06,0.028
2.270E-06,0.000
2.280E-06,-0.020
2.290E-06,0.056
2.300E-06,0.092
2.310E-06,0.204
2.320E-06,0.156
2.330E-06,0.092
2.340E-06,0.072
2.350E-06,0.124
2.360E-06,0.296
2.370E-06,0.388
2.380E-06,0.388
2.390E-06,0.276
2.400E-06,0.196
2.410E-06,0.140
2.420E-06,0.192
2.430E-06,0.220
2.440E-06,0.268
2.450E-06,0.308
2.460E-06,0.320
2.470E-06,0.292
2.480E-06,0.232
2.490E-06,0.172
2.500E-06,0.120
2.510E-06,0.144
2.520E-06,0.188
2.530E-06,0.312
2.540E-06,0.348
2.550E-06,0.328
2.560E-06,0.264
2.570E-06,0.124
2.580E-06,0.052
2.590E-06,0.032
2.600E-06,0.164
2.610E-06,0.308
2.620E-06,0.408
2.630E-06,0.408
2.640E-06,0.308
2.650E-06,0.172
2.660E-06,0.060
2.670E-06,0.064
2.680E-06,0.144
2.690E-06,0.296
2.700E-06,0.380
2.710E-06,0.388
2.720E-06,0.300
2.730E-06,0.204
2.740E-06,0.144
2.750E-06,0.148
2.760E-06,0.196
2.770E-06,0.256
2.780E-06,0.324
2.790E-06,0.328
2.800E-06,0.304
2.810E-06,0.236
2.820E-06,0.192
2.830E-06,0.164
2.840E-06,0.188
2.850E-06,0.228
2.860E-06,0.272
2.870E-06,0.304
2.880E-06,0.288
2.890E-06,0.256
2.900E-06,0.208
2.910E-06,0.192
2.920E-06,0.192
2.930E-06,0.224
2.940E-06,0.256
2.950E-06,0.276
2.960E-06,0.272
2.970E-06,0.256
2.980E-06,0.224
2.990E-06,0.204
3.000E-06,0.204
3.010E-06,0.216
3.020E-06,0.236
3.030E-06,0.256
3.040E-06,0.260
3.050E-06,0.244
3.060E-06,0.228
3.070E-06,0.212
3.080E-06,0.208
3.090E-06,0.216
3.100E-06,0.228
3.110E-06,0.240
3.120E-06,0.252
3.130E-06,0.244
3.140E-06,0.232
3.150E-06,0.220
3.160E-06,0.212
3.170E-06,0.216
3.180E-06,0.220
3.190E-06,0.228
3.200E-06,0.236
3.210E-06,0.240
3.220E-06,0.228
3.230E-06,0.220
3.240E-06,0.208
3.250E-06,0.200
3.260E-06,0.200
3.270E-06,0.208
3.280E-06,0.224
3.290E-06,0.232
3.300E-06,0.232
3.310E-06,0.224
3.320E-06,0.212
3.330E-06,0.204
3.340E-06,0.208
3.350E-06,0.220
3.360E-06,0.228
