mediciones/Mediciones filtradas (saque las feas)/5-15/40/WaveData47502.csv

#timebase=2000000(ps)
,#voltbase=100000(mv/100)
#size=4000
-8.400E-06,0.008
-8.390E-06,0.008
-8.380E-06,0.000
-8.370E-06,0.004
-8.360E-06,0.004
-8.350E-06,0.000
-8.340E-06,0.004
-8.330E-06,0.000
-8.320E-06,0.000
-8.310E-06,0.004
-8.300E-06,0.004
-8.290E-06,0.004
-8.280E-06,0.000
-8.270E-06,0.000
-8.260E-06,0.004
-8.250E-06,0.004
-8.240E-06,0.000
-8.230E-06,0.000
-8.220E-06,0.004
-8.210E-06,0.004
-8.200E-06,0.004
-8.190E-06,0.000
-8.180E-06,0.004
-8.170E-06,0.004
-8.160E-06,0.000
-8.150E-06,0.008
-8.140E-06,0.004
-8.130E-06,0.000
-8.120E-06,0.004
-8.110E-06,0.004
-8.100E-06,0.000
-8.090E-06,0.000
-8.080E-06,0.004
-8.070E-06,0.008
-8.060E-06,0.008
-8.050E-06,-0.004
-8.040E-06,0.000
-8.030E-06,0.004
-8.020E-06,0.004
-8.010E-06,0.000
-8.000E-06,-0.004
-7.990E-06,0.004
-7.980E-06,0.008
-7.970E-06,0.004
-7.960E-06,0.000
-7.950E-06,0.000
-7.940E-06,0.000
-7.930E-06,0.000
-7.920E-06,0.000
-7.910E-06,0.004
-7.900E-06,0.008
-7.890E-06,0.012
-7.880E-06,0.000
-7.870E-06,0.000
-7.860E-06,0.000
-7.850E-06,0.000
-7.840E-06,0.000
-7.830E-06,0.004
-7.820E-06,0.008
-7.810E-06,0.008
-7.800E-06,0.004
-7.790E-06,0.008
-7.780E-06,0.004
-7.770E-06,-0.004
-7.760E-06,-0.004
-7.750E-06,0.004
-7.740E-06,0.008
-7.730E-06,0.008
-7.720E-06,0.000
-7.710E-06,0.000
-7.700E-06,0.004
-7.690E-06,0.004
-7.680E-06,0.004
-7.670E-06,0.000
-7.660E-06,0.004
-7.650E-06,0.004
-7.640E-06,0.004
-7.630E-06,0.000
-7.620E-06,0.000
-7.610E-06,0.004
-7.600E-06,0.000
-7.590E-06,0.000
-7.580E-06,0.000
-7.570E-06,0.004
-7.560E-06,0.004
-7.550E-06,0.004
-7.540E-06,0.004
-7.530E-06,0.000
-7.520E-06,0.000
-7.510E-06,-0.004
-7.500E-06,0.004
-7.490E-06,0.000
-7.480E-06,0.000
-7.470E-06,0.000
-7.460E-06,0.000
-7.450E-06,0.004
-7.440E-06,0.000
-7.430E-06,0.000
-7.420E-06,0.004
-7.410E-06,0.004
-7.400E-06,0.004
-7.390E-06,0.000
-7.380E-06,0.000
-7.370E-06,0.000
-7.360E-06,0.000
-7.350E-06,0.004
-7.340E-06,-0.004
-7.330E-06,0.000
-7.320E-06,0.004
-7.310E-06,0.004
-7.300E-06,0.008
-7.290E-06,0.000
-7.280E-06,-0.004
-7.270E-06,0.000
-7.260E-06,0.004
-7.250E-06,0.004
-7.240E-06,-0.004
-7.230E-06,0.008
-7.220E-06,0.008
-7.210E-06,0.000
-7.200E-06,0.000
-7.190E-06,0.004
-7.180E-06,-0.004
-7.170E-06,0.004
-7.160E-06,0.004
-7.150E-06,0.000
-7.140E-06,0.000
-7.130E-06,0.004
-7.120E-06,-0.004
-7.110E-06,0.000
-7.100E-06,0.000
-7.090E-06,0.008
-7.080E-06,0.004
-7.070E-06,0.004
-7.060E-06,0.000
-7.050E-06,0.000
-7.040E-06,-0.004
-7.030E-06,0.000
-7.020E-06,-0.004
-7.010E-06,0.004
-7.000E-06,0.000
-6.990E-06,0.004
-6.980E-06,0.000
-6.970E-06,0.000
-6.960E-06,-0.004
-6.950E-06,0.004
-6.940E-06,-0.004
-6.930E-06,0.004
-6.920E-06,0.000
-6.910E-06,0.004
-6.900E-06,0.000
-6.890E-06,0.004
-6.880E-06,0.008
-6.870E-06,-0.004
-6.860E-06,0.000
-6.850E-06,0.000
-6.840E-06,0.000
-6.830E-06,-0.004
-6.820E-06,0.000
-6.810E-06,0.004
-6.800E-06,0.004
-6.790E-06,0.004
-6.780E-06,-0.004
-6.770E-06,0.000
-6.760E-06,-0.004
-6.750E-06,-0.004
-6.740E-06,0.008
-6.730E-06,0.004
-6.720E-06,0.008
-6.710E-06,0.004
-6.700E-06,-0.004
-6.690E-06,-0.004
-6.680E-06,-0.004
-6.670E-06,0.000
-6.660E-06,0.008
-6.650E-06,0.008
-6.640E-06,0.008
-6.630E-06,0.004
-6.620E-06,0.000
-6.610E-06,0.000
-6.600E-06,0.000
-6.590E-06,0.000
-6.580E-06,0.004
-6.570E-06,0.000
-6.560E-06,0.004
-6.550E-06,0.004
-6.540E-06,0.004
-6.530E-06,0.000
-6.520E-06,0.000
-6.510E-06,0.000
-6.500E-06,0.004
-6.490E-06,0.004
-6.480E-06,0.004
-6.470E-06,0.000
-6.460E-06,-0.004
-6.450E-06,0.004
-6.440E-06,0.004
-6.430E-06,0.004
-6.420E-06,0.000
-6.410E-06,0.004
-6.400E-06,0.008
-6.390E-06,0.004
-6.380E-06,0.004
-6.370E-06,0.008
-6.360E-06,0.000
-6.350E-06,0.004
-6.340E-06,0.004
-6.330E-06,0.000
-6.320E-06,-0.004
-6.310E-06,0.000
-6.300E-06,0.012
-6.290E-06,0.012
-6.280E-06,-0.004
-6.270E-06,0.004
-6.260E-06,0.004
-6.250E-06,0.000
-6.240E-06,0.000
-6.230E-06,0.000
-6.220E-06,0.000
-6.210E-06,0.000
-6.200E-06,0.004
-6.190E-06,0.004
-6.180E-06,0.000
-6.170E-06,0.004
-6.160E-06,0.008
-6.150E-06,0.012
-6.140E-06,0.004
-6.130E-06,-0.004
-6.120E-06,-0.004
-6.110E-06,-0.004
-6.100E-06,-0.004
-6.090E-06,0.004
-6.080E-06,0.008
-6.070E-06,0.008
-6.060E-06,0.008
-6.050E-06,0.000
-6.040E-06,0.004
-6.030E-06,0.000
-6.020E-06,-0.004
-6.010E-06,0.008
-6.000E-06,0.004
-5.990E-06,0.004
-5.980E-06,0.004
-5.970E-06,-0.008
-5.960E-06,0.000
-5.950E-06,-0.004
-5.940E-06,0.004
-5.930E-06,0.012
-5.920E-06,0.004
-5.910E-06,0.004
-5.900E-06,0.004
-5.890E-06,0.000
-5.880E-06,-0.004
-5.870E-06,0.000
-5.860E-06,0.000
-5.850E-06,0.000
-5.840E-06,0.008
-5.830E-06,0.012
-5.820E-06,0.008
-5.810E-06,0.008
-5.800E-06,0.004
-5.790E-06,0.004
-5.780E-06,-0.004
-5.770E-06,0.000
-5.760E-06,0.008
-5.750E-06,0.004
-5.740E-06,0.004
-5.730E-06,0.000
-5.720E-06,-0.004
-5.710E-06,0.000
-5.700E-06,0.000
-5.690E-06,0.004
-5.680E-06,0.004
-5.670E-06,0.004
-5.660E-06,0.000
-5.650E-06,-0.004
-5.640E-06,0.004
-5.630E-06,0.000
-5.620E-06,0.000
-5.610E-06,-0.004
-5.600E-06,0.000
-5.590E-06,0.000
-5.580E-06,0.008
-5.570E-06,0.000
-5.560E-06,0.004
-5.550E-06,-0.004
-5.540E-06,-0.004
-5.530E-06,-0.004
-5.520E-06,0.004
-5.510E-06,0.004
-5.500E-06,0.004
-5.490E-06,0.012
-5.480E-06,0.000
-5.470E-06,-0.004
-5.460E-06,-0.004
-5.450E-06,0.008
-5.440E-06,0.004
-5.430E-06,0.008
-5.420E-06,0.008
-5.410E-06,0.004
-5.400E-06,0.000
-5.390E-06,0.000
-5.380E-06,0.000
-5.370E-06,-0.004
-5.360E-06,0.000
-5.350E-06,0.012
-5.340E-06,0.012
-5.330E-06,0.008
-5.320E-06,0.000
-5.310E-06,-0.004
-5.300E-06,-0.004
-5.290E-06,0.000
-5.280E-06,0.004
-5.270E-06,0.004
-5.260E-06,0.008
-5.250E-06,0.004
-5.240E-06,0.000
-5.230E-06,0.000
-5.220E-06,-0.004
-5.210E-06,0.000
-5.200E-06,0.012
-5.190E-06,0.016
-5.180E-06,0.004
-5.170E-06,0.000
-5.160E-06,-0.004
-5.150E-06,-0.008
-5.140E-06,-0.004
-5.130E-06,0.008
-5.120E-06,0.012
-5.110E-06,0.012
-5.100E-06,0.008
-5.090E-06,0.000
-5.080E-06,-0.004
-5.070E-06,0.004
-5.060E-06,0.004
-5.050E-06,0.008
-5.040E-06,0.000
-5.030E-06,0.000
-5.020E-06,0.000
-5.010E-06,0.000
-5.000E-06,0.008
-4.990E-06,0.008
-4.980E-06,0.008
-4.970E-06,0.004
-4.960E-06,-0.004
-4.950E-06,-0.004
-4.940E-06,0.004
-4.930E-06,0.008
-4.920E-06,0.008
-4.910E-06,0.008
-4.900E-06,0.004
-4.890E-06,-0.004
-4.880E-06,-0.004
-4.870E-06,-0.004
-4.860E-06,0.000
-4.850E-06,0.008
-4.840E-06,0.008
-4.830E-06,0.004
-4.820E-06,0.004
-4.810E-06,-0.004
-4.800E-06,-0.004
-4.790E-06,-0.008
-4.780E-06,-0.008
-4.770E-06,0.008
-4.760E-06,0.004
-4.750E-06,0.008
-4.740E-06,0.012
-4.730E-06,0.008
-4.720E-06,0.000
-4.710E-06,-0.004
-4.700E-06,-0.004
-4.690E-06,0.000
-4.680E-06,0.008
-4.670E-06,0.012
-4.660E-06,0.008
-4.650E-06,0.004
-4.640E-06,0.004
-4.630E-06,-0.012
-4.620E-06,0.000
-4.610E-06,0.008
-4.600E-06,0.012
-4.590E-06,0.008
-4.580E-06,0.008
-4.570E-06,-0.004
-4.560E-06,-0.004
-4.550E-06,0.000
-4.540E-06,0.008
-4.530E-06,0.008
-4.520E-06,0.012
-4.510E-06,0.000
-4.500E-06,0.004
-4.490E-06,0.008
-4.480E-06,-0.004
-4.470E-06,0.000
-4.460E-06,0.000
-4.450E-06,0.000
-4.440E-06,0.004
-4.430E-06,0.012
-4.420E-06,0.008
-4.410E-06,0.000
-4.400E-06,-0.004
-4.390E-06,-0.004
-4.380E-06,0.000
-4.370E-06,0.000
-4.360E-06,0.008
-4.350E-06,0.012
-4.340E-06,0.008
-4.330E-06,0.008
-4.320E-06,0.000
-4.310E-06,0.000
-4.300E-06,-0.004
-4.290E-06,0.004
-4.280E-06,0.004
-4.270E-06,0.008
-4.260E-06,0.008
-4.250E-06,0.008
-4.240E-06,-0.004
-4.230E-06,-0.004
-4.220E-06,-0.008
-4.210E-06,-0.004
-4.200E-06,-0.004
-4.190E-06,0.004
-4.180E-06,0.012
-4.170E-06,0.012
-4.160E-06,0.000
-4.150E-06,0.000
-4.140E-06,-0.004
-4.130E-06,-0.008
-4.120E-06,0.000
-4.110E-06,0.008
-4.100E-06,0.008
-4.090E-06,0.008
-4.080E-06,0.008
-4.070E-06,0.008
-4.060E-06,0.000
-4.050E-06,0.000
-4.040E-06,0.000
-4.030E-06,0.004
-4.020E-06,0.004
-4.010E-06,0.008
-4.000E-06,0.000
-3.990E-06,-0.004
-3.980E-06,0.000
-3.970E-06,-0.004
-3.960E-06,0.004
-3.950E-06,0.000
-3.940E-06,0.004
-3.930E-06,0.008
-3.920E-06,0.004
-3.910E-06,0.000
-3.900E-06,0.004
-3.890E-06,0.000
-3.880E-06,0.004
-3.870E-06,0.008
-3.860E-06,0.000
-3.850E-06,0.004
-3.840E-06,0.008
-3.830E-06,0.004
-3.820E-06,0.004
-3.810E-06,0.000
-3.800E-06,0.000
-3.790E-06,0.000
-3.780E-06,0.004
-3.770E-06,0.004
-3.760E-06,0.004
-3.750E-06,0.004
-3.740E-06,0.004
-3.730E-06,0.008
-3.720E-06,0.000
-3.710E-06,0.004
-3.700E-06,0.000
-3.690E-06,0.004
-3.680E-06,0.004
-3.670E-06,0.000
-3.660E-06,-0.004
-3.650E-06,0.000
-3.640E-06,0.004
-3.630E-06,0.000
-3.620E-06,0.008
-3.610E-06,0.004
-3.600E-06,0.000
-3.590E-06,0.000
-3.580E-06,-0.004
-3.570E-06,0.000
-3.560E-06,0.008
-3.550E-06,0.004
-3.540E-06,0.004
-3.530E-06,-0.004
-3.520E-06,0.000
-3.510E-06,-0.004
-3.500E-06,0.000
-3.490E-06,0.000
-3.480E-06,0.004
-3.470E-06,0.008
-3.460E-06,0.004
-3.450E-06,0.000
-3.440E-06,0.000
-3.430E-06,-0.004
-3.420E-06,0.008
-3.410E-06,0.008
-3.400E-06,0.004
-3.390E-06,0.004
-3.380E-06,0.000
-3.370E-06,0.004
-3.360E-06,-0.008
-3.350E-06,0.004
-3.340E-06,0.000
-3.330E-06,0.000
-3.320E-06,0.008
-3.310E-06,0.004
-3.300E-06,0.000
-3.290E-06,0.000
-3.280E-06,0.000
-3.270E-06,0.000
-3.260E-06,0.000
-3.250E-06,0.004
-3.240E-06,0.012
-3.230E-06,0.016
-3.220E-06,0.004
-3.210E-06,-0.004
-3.200E-06,-0.008
-3.190E-06,-0.008
-3.180E-06,-0.008
-3.170E-06,0.004
-3.160E-06,0.008
-3.150E-06,0.016
-3.140E-06,0.012
-3.130E-06,0.012
-3.120E-06,0.000
-3.110E-06,-0.004
-3.100E-06,-0.004
-3.090E-06,0.000
-3.080E-06,0.004
-3.070E-06,0.008
-3.060E-06,0.012
-3.050E-06,0.012
-3.040E-06,0.004
-3.030E-06,-0.008
-3.020E-06,-0.004
-3.010E-06,-0.004
-3.000E-06,0.000
-2.990E-06,0.008
-2.980E-06,0.008
-2.970E-06,0.008
-2.960E-06,0.004
-2.950E-06,-0.008
-2.940E-06,0.000
-2.930E-06,-0.004
-2.920E-06,0.000
-2.910E-06,0.008
-2.900E-06,0.012
-2.890E-06,0.012
-2.880E-06,0.012
-2.870E-06,0.004
-2.860E-06,0.000
-2.850E-06,0.000
-2.840E-06,-0.004
-2.830E-06,-0.004
-2.820E-06,0.008
-2.810E-06,0.004
-2.800E-06,0.008
-2.790E-06,0.012
-2.780E-06,0.008
-2.770E-06,0.000
-2.760E-06,-0.012
-2.750E-06,0.000
-2.740E-06,0.000
-2.730E-06,0.008
-2.720E-06,0.012
-2.710E-06,0.012
-2.700E-06,0.008
-2.690E-06,0.000
-2.680E-06,-0.008
-2.670E-06,-0.008
-2.660E-06,0.000
-2.650E-06,0.012
-2.640E-06,0.016
-2.630E-06,0.020
-2.620E-06,0.008
-2.610E-06,-0.008
-2.600E-06,-0.004
-2.590E-06,-0.004
-2.580E-06,0.008
-2.570E-06,0.020
-2.560E-06,0.024
-2.550E-06,0.008
-2.540E-06,0.000
-2.530E-06,-0.004
-2.520E-06,-0.004
-2.510E-06,0.008
-2.500E-06,0.016
-2.490E-06,0.024
-2.480E-06,0.012
-2.470E-06,0.004
-2.460E-06,-0.004
-2.450E-06,0.000
-2.440E-06,-0.004
-2.430E-06,0.008
-2.420E-06,0.012
-2.410E-06,0.008
-2.400E-06,0.016
-2.390E-06,0.008
-2.380E-06,-0.008
-2.370E-06,-0.004
-2.360E-06,-0.004
-2.350E-06,0.008
-2.340E-06,0.016
-2.330E-06,0.020
-2.320E-06,0.008
-2.310E-06,0.000
-2.300E-06,-0.024
-2.290E-06,-0.032
-2.280E-06,-0.008
-2.270E-06,0.012
-2.260E-06,0.024
-2.250E-06,0.020
-2.240E-06,0.008
-2.230E-06,-0.008
-2.220E-06,-0.012
-2.210E-06,-0.012
-2.200E-06,-0.004
-2.190E-06,0.008
-2.180E-06,0.020
-2.170E-06,0.016
-2.160E-06,0.008
-2.150E-06,0.000
-2.140E-06,-0.004
-2.130E-06,-0.008
-2.120E-06,0.000
-2.110E-06,0.004
-2.100E-06,0.008
-2.090E-06,0.012
-2.080E-06,0.012
-2.070E-06,0.008
-2.060E-06,0.008
-2.050E-06,0.000
-2.040E-06,0.000
-2.030E-06,0.004
-2.020E-06,0.004
-2.010E-06,0.008
-2.000E-06,0.008
-1.990E-06,0.008
-1.980E-06,0.008
-1.970E-06,0.004
-1.960E-06,0.004
-1.950E-06,0.004
-1.940E-06,0.008
-1.930E-06,0.008
-1.920E-06,0.004
-1.910E-06,0.008
-1.900E-06,0.008
-1.890E-06,0.004
-1.880E-06,0.004
-1.870E-06,0.000
-1.860E-06,-0.004
-1.850E-06,0.000
-1.840E-06,0.004
-1.830E-06,0.024
-1.820E-06,0.024
-1.810E-06,0.028
-1.800E-06,0.024
-1.790E-06,0.020
-1.780E-06,0.016
-1.770E-06,0.004
-1.760E-06,0.008
-1.750E-06,-0.008
-1.740E-06,-0.080
-1.730E-06,-0.120
-1.720E-06,-0.080
-1.710E-06,-0.004
-1.700E-06,0.064
-1.690E-06,0.112
-1.680E-06,0.088
-1.670E-06,0.008
-1.660E-06,-0.064
-1.650E-06,-0.100
-1.640E-06,-0.084
-1.630E-06,-0.016
-1.620E-06,0.064
-1.610E-06,0.092
-1.600E-06,0.064
-1.590E-06,-0.004
-1.580E-06,-0.056
-1.570E-06,-0.068
-1.560E-06,-0.044
-1.550E-06,-0.008
-1.540E-06,0.036
-1.530E-06,0.060
-1.520E-06,0.048
-1.510E-06,0.016
-1.500E-06,-0.012
-1.490E-06,-0.032
-1.480E-06,-0.036
-1.470E-06,-0.016
-1.460E-06,0.012
-1.450E-06,0.036
-1.440E-06,0.044
-1.430E-06,0.036
-1.420E-06,0.012
-1.410E-06,-0.008
-1.400E-06,-0.016
-1.390E-06,-0.012
-1.380E-06,0.000
-1.370E-06,0.008
-1.360E-06,0.012
-1.350E-06,0.020
-1.340E-06,0.024
-1.330E-06,0.020
-1.320E-06,0.008
-1.310E-06,-0.004
-1.300E-06,-0.012
-1.290E-06,-0.004
-1.280E-06,0.012
-1.270E-06,0.028
-1.260E-06,0.024
-1.250E-06,0.008
-1.240E-06,-0.004
-1.230E-06,-0.008
-1.220E-06,-0.012
-1.210E-06,-0.004
-1.200E-06,0.016
-1.190E-06,0.028
-1.180E-06,0.028
-1.170E-06,0.012
-1.160E-06,-0.004
-1.150E-06,-0.008
-1.140E-06,-0.004
-1.130E-06,0.012
-1.120E-06,0.020
-1.110E-06,0.016
-1.100E-06,0.016
-1.090E-06,0.012
-1.080E-06,0.000
-1.070E-06,0.000
-1.060E-06,0.012
-1.050E-06,0.028
-1.040E-06,0.036
-1.030E-06,0.024
-1.020E-06,0.004
-1.010E-06,0.000
-1.000E-06,-0.008
-9.900E-07,0.012
-9.800E-07,0.044
-9.700E-07,0.056
-9.600E-07,0.048
-9.500E-07,0.024
-9.400E-07,0.020
-9.300E-07,0.024
-9.200E-07,0.028
-9.100E-07,0.032
-9.000E-07,0.024
-8.900E-07,0.012
-8.800E-07,-0.008
-8.700E-07,-0.020
-8.600E-07,0.004
-8.500E-07,0.056
-8.400E-07,0.076
-8.300E-07,0.064
-8.200E-07,0.020
-8.100E-07,-0.148
-8.000E-07,-0.316
-7.900E-07,-0.300
-7.800E-07,-0.172
-7.700E-07,0.048
-7.600E-07,0.240
-7.500E-07,0.352
-7.400E-07,0.192
-7.300E-07,-0.016
-7.200E-07,-0.220
-7.100E-07,-0.272
-7.000E-07,-0.108
-6.900E-07,0.124
-6.800E-07,0.256
-6.700E-07,0.220
-6.600E-07,0.104
-6.500E-07,-0.084
-6.400E-07,-0.172
-6.300E-07,-0.136
-6.200E-07,0.012
-6.100E-07,0.100
-6.000E-07,0.172
-5.900E-07,0.132
-5.800E-07,0.096
-5.700E-07,0.056
-5.600E-07,0.064
-5.500E-07,0.048
-5.400E-07,0.032
-5.300E-07,-0.028
-5.200E-07,-0.108
-5.100E-07,-0.120
-5.000E-07,-0.048
-4.900E-07,0.000
-4.800E-07,0.060
-4.700E-07,0.136
-4.600E-07,0.108
-4.500E-07,0.004
-4.400E-07,-0.104
-4.300E-07,-0.132
-4.200E-07,-0.076
-4.100E-07,0.044
-4.000E-07,0.136
-3.900E-07,0.128
-3.800E-07,0.068
-3.700E-07,-0.004
-3.600E-07,-0.044
-3.500E-07,-0.040
-3.400E-07,-0.016
-3.300E-07,0.016
-3.200E-07,0.092
-3.100E-07,0.128
-3.000E-07,0.116
-2.900E-07,0.040
-2.800E-07,-0.068
-2.700E-07,-0.176
-2.600E-07,-0.252
-2.500E-07,-0.248
-2.400E-07,-0.128
-2.300E-07,0.056
-2.200E-07,0.228
-2.100E-07,0.288
-2.000E-07,0.212
-1.900E-07,0.088
-1.800E-07,-0.044
-1.700E-07,-0.080
-1.600E-07,-0.040
-1.500E-07,0.036
-1.400E-07,0.144
-1.300E-07,0.148
-1.200E-07,0.076
-1.100E-07,-0.008
-1.000E-07,-0.060
-9.000E-08,0.012
-8.000E-08,0.072
-7.000E-08,0.020
-6.000E-08,-0.184
-5.000E-08,-0.388
-4.000E-08,-0.512
-3.000E-08,-0.424
-2.000E-08,0.044
-1.000E-08,0.436
0.000E+00,0.540
1.000E-08,0.340
2.000E-08,-0.052
3.000E-08,-0.324
4.000E-08,-0.332
5.000E-08,-0.088
6.000E-08,0.204
7.000E-08,0.360
8.000E-08,0.348
9.000E-08,0.140
1.000E-07,-0.108
1.100E-07,-0.268
1.200E-07,-0.248
1.300E-07,-0.040
1.400E-07,0.196
1.500E-07,0.336
1.600E-07,0.248
1.700E-07,0.092
1.800E-07,-0.080
1.900E-07,-0.184
2.000E-07,-0.168
2.100E-07,-0.084
2.200E-07,0.028
2.300E-07,0.124
2.400E-07,0.204
2.500E-07,0.180
2.600E-07,0.140
2.700E-07,0.052
2.800E-07,-0.132
2.900E-07,-0.512
3.000E-07,-0.508
3.100E-07,-0.512
3.200E-07,-0.100
3.300E-07,0.520
3.400E-07,0.540
3.500E-07,0.540
3.600E-07,0.164
3.700E-07,-0.436
3.800E-07,-0.512
3.900E-07,-0.512
4.000E-07,-0.260
4.100E-07,0.184
4.200E-07,0.536
4.300E-07,0.496
4.400E-07,0.408
4.500E-07,-0.160
4.600E-07,-0.512
4.700E-07,-0.512
4.800E-07,-0.340
4.900E-07,0.012
5.000E-07,0.404
5.100E-07,0.476
5.200E-07,0.248
5.300E-07,-0.028
5.400E-07,-0.300
5.500E-07,-0.320
5.600E-07,-0.220
5.700E-07,0.040
5.800E-07,0.192
5.900E-07,0.320
6.000E-07,0.208
6.100E-07,0.064
6.200E-07,-0.092
6.300E-07,-0.128
6.400E-07,-0.084
6.500E-07,0.028
6.600E-07,0.120
6.700E-07,0.140
6.800E-07,0.096
6.900E-07,-0.020
7.000E-07,-0.028
7.100E-07,0.028
7.200E-07,0.092
7.300E-07,-0.076
7.400E-07,-0.196
7.500E-07,-0.300
7.600E-07,-0.200
7.700E-07,0.008
7.800E-07,0.228
7.900E-07,0.344
8.000E-07,0.196
8.100E-07,0.036
8.200E-07,-0.208
8.300E-07,-0.296
8.400E-07,-0.180
8.500E-07,0.076
8.600E-07,0.272
8.700E-07,0.340
8.800E-07,0.228
8.900E-07,-0.028
9.000E-07,-0.184
9.100E-07,-0.244
9.200E-07,-0.188
9.300E-07,-0.104
9.400E-07,0.080
9.500E-07,0.156
9.600E-07,0.212
9.700E-07,0.172
9.800E-07,0.020
9.900E-07,-0.108
1.000E-06,-0.160
1.010E-06,-0.116
1.020E-06,-0.052
1.030E-06,0.084
1.040E-06,0.136
1.050E-06,0.180
1.060E-06,0.124
1.070E-06,0.028
1.080E-06,-0.068
1.090E-06,-0.104
1.100E-06,-0.044
1.110E-06,0.064
1.120E-06,0.172
1.130E-06,0.188
1.140E-06,0.132
1.150E-06,0.044
1.160E-06,-0.008
1.170E-06,-0.052
1.180E-06,-0.040
1.190E-06,0.024
1.200E-06,0.084
1.210E-06,0.100
1.220E-06,0.056
1.230E-06,0.040
1.240E-06,0.012
1.250E-06,0.024
1.260E-06,0.012
1.270E-06,0.012
1.280E-06,-0.032
1.290E-06,-0.124
1.300E-06,-0.140
1.310E-06,-0.088
1.320E-06,0.008
1.330E-06,0.128
1.340E-06,0.172
1.350E-06,0.136
1.360E-06,0.016
1.370E-06,-0.096
1.380E-06,-0.096
1.390E-06,0.004
1.400E-06,0.164
1.410E-06,0.244
1.420E-06,0.180
1.430E-06,0.024
1.440E-06,-0.128
1.450E-06,-0.164
1.460E-06,-0.092
1.470E-06,0.056
1.480E-06,0.120
1.490E-06,0.112
1.500E-06,0.036
1.510E-06,-0.040
1.520E-06,-0.068
1.530E-06,-0.012
1.540E-06,0.052
1.550E-06,0.096
1.560E-06,0.124
1.570E-06,0.080
1.580E-06,0.016
1.590E-06,-0.028
1.600E-06,-0.040
1.610E-06,-0.028
1.620E-06,0.024
1.630E-06,0.060
1.640E-06,0.152
1.650E-06,0.068
1.660E-06,-0.056
1.670E-06,-0.140
1.680E-06,-0.112
1.690E-06,-0.008
1.700E-06,0.100
1.710E-06,0.192
1.720E-06,0.184
1.730E-06,0.120
1.740E-06,0.008
1.750E-06,-0.040
1.760E-06,-0.052
1.770E-06,0.012
1.780E-06,0.100
1.790E-06,0.152
1.800E-06,0.136
1.810E-06,0.084
1.820E-06,0.024
1.830E-06,-0.028
1.840E-06,-0.012
1.850E-06,0.028
1.860E-06,0.112
1.870E-06,0.144
1.880E-06,0.164
1.890E-06,0.140
1.900E-06,0.056
1.910E-06,-0.016
1.920E-06,-0.036
1.930E-06,-0.512
1.940E-06,-0.512
1.950E-06,-0.508
1.960E-06,0.072
1.970E-06,0.540
1.980E-06,0.540
1.990E-06,0.540
2.000E-06,0.120
2.010E-06,-0.512
2.020E-06,-0.512
2.030E-06,-0.340
2.040E-06,0.148
2.050E-06,0.540
2.060E-06,0.536
2.070E-06,0.540
2.080E-06,0.380
2.090E-06,-0.304
2.100E-06,-0.512
2.110E-06,-0.512
2.120E-06,0.092
2.130E-06,0.540
2.140E-06,0.540
2.150E-06,0.540
2.160E-06,0.264
2.170E-06,-0.140
2.180E-06,-0.396
2.190E-06,-0.408
2.200E-06,-0.084
2.210E-06,0.264
2.220E-06,0.540
2.230E-06,0.536
2.240E-06,0.288
2.250E-06,-0.100
2.260E-06,-0.364
2.270E-06,-0.312
2.280E-06,-0.132
2.290E-06,0.156
2.300E-06,0.292
2.310E-06,0.324
2.320E-06,0.196
2.330E-06,-0.008
2.340E-06,-0.168
2.350E-06,-0.188
2.360E-06,-0.056
2.370E-06,0.156
2.380E-06,0.352
2.390E-06,0.384
2.400E-06,0.300
2.410E-06,0.132
2.420E-06,0.044
2.430E-06,0.016
2.440E-06,0.120
2.450E-06,0.268
2.460E-06,0.424
2.470E-06,0.476
2.480E-06,0.352
2.490E-06,0.176
2.500E-06,0.020
2.510E-06,0.000
2.520E-06,0.100
2.530E-06,0.252
2.540E-06,0.348
2.550E-06,0.368
2.560E-06,0.292
2.570E-06,0.180
2.580E-06,0.108
2.590E-06,0.108
2.600E-06,0.180
2.610E-06,0.268
2.620E-06,0.336
2.630E-06,0.332
2.640E-06,0.284
2.650E-06,0.204
2.660E-06,0.168
2.670E-06,0.172
2.680E-06,0.204
2.690E-06,0.236
2.700E-06,0.272
2.710E-06,0.300
2.720E-06,0.276
2.730E-06,0.248
2.740E-06,0.208
2.750E-06,0.188
2.760E-06,0.188
2.770E-06,0.228
2.780E-06,0.272
2.790E-06,0.296
2.800E-06,0.296
2.810E-06,0.252
2.820E-06,0.192
2.830E-06,0.128
2.840E-06,0.116
2.850E-06,0.132
2.860E-06,0.172
2.870E-06,0.216
2.880E-06,0.236
2.890E-06,0.260
2.900E-06,0.212
2.910E-06,0.192
2.920E-06,0.192
2.930E-06,0.224
2.940E-06,0.252
2.950E-06,0.256
2.960E-06,0.228
2.970E-06,0.232
2.980E-06,0.220
2.990E-06,0.196
3.000E-06,0.148
3.010E-06,0.100
3.020E-06,0.100
3.030E-06,0.144
3.040E-06,0.240
3.050E-06,0.324
3.060E-06,0.340
3.070E-06,0.288
3.080E-06,0.200
3.090E-06,0.144
3.100E-06,0.132
3.110E-06,0.168
3.120E-06,0.260
3.130E-06,0.340
3.140E-06,0.336
3.150E-06,0.284
3.160E-06,0.208
3.170E-06,0.164
3.180E-06,0.152
3.190E-06,0.180
3.200E-06,0.252
3.210E-06,0.296
3.220E-06,0.320
3.230E-06,0.292
3.240E-06,0.236
3.250E-06,0.184
3.260E-06,0.164
3.270E-06,0.184
3.280E-06,0.232
3.290E-06,0.272
3.300E-06,0.296
3.310E-06,0.288
3.320E-06,0.256
3.330E-06,0.212
3.340E-06,0.192
