mediciones/Mediciones filtradas (saque las feas)/6-10/23.7/WaveData55117.csv

#timebase=2000000(ps)
,#voltbase=500000(mv/100)
#size=4000
-4.250E-06,0.060
-4.240E-06,0.040
-4.230E-06,0.060
-4.220E-06,0.080
-4.210E-06,0.060
-4.200E-06,0.060
-4.190E-06,0.060
-4.180E-06,-0.020
-4.170E-06,0.000
-4.160E-06,0.240
-4.150E-06,0.660
-4.140E-06,1.380
-4.130E-06,2.080
-4.120E-06,2.120
-4.110E-06,1.740
-4.100E-06,0.900
-4.090E-06,-0.260
-4.080E-06,-1.060
-4.070E-06,-1.540
-4.060E-06,-1.620
-4.050E-06,-1.620
-4.040E-06,-1.760
-4.030E-06,-1.840
-4.020E-06,-1.740
-4.010E-06,-1.500
-4.000E-06,-0.960
-3.990E-06,-0.400
-3.980E-06,-0.060
-3.970E-06,0.140
-3.960E-06,0.180
-3.950E-06,0.160
-3.940E-06,0.220
-3.930E-06,0.320
-3.920E-06,0.440
-3.910E-06,0.420
-3.900E-06,0.400
-3.890E-06,0.380
-3.880E-06,0.580
-3.870E-06,0.760
-3.860E-06,0.900
-3.850E-06,0.920
-3.840E-06,0.800
-3.830E-06,0.620
-3.820E-06,0.400
-3.810E-06,0.260
-3.800E-06,0.180
-3.790E-06,0.080
-3.780E-06,-0.040
-3.770E-06,-0.240
-3.760E-06,-0.380
-3.750E-06,-0.480
-3.740E-06,-0.420
-3.730E-06,-0.280
-3.720E-06,-0.060
-3.710E-06,0.120
-3.700E-06,0.300
-3.690E-06,0.360
-3.680E-06,0.460
-3.670E-06,0.500
-3.660E-06,0.560
-3.650E-06,0.540
-3.640E-06,0.440
-3.630E-06,0.380
-3.620E-06,0.320
-3.610E-06,0.220
-3.600E-06,0.160
-3.590E-06,0.080
-3.580E-06,-0.080
-3.570E-06,-0.260
-3.560E-06,-0.420
-3.550E-06,-0.580
-3.540E-06,-0.680
-3.530E-06,-0.700
-3.520E-06,-0.720
-3.510E-06,-0.800
-3.500E-06,-0.760
-3.490E-06,-0.680
-3.480E-06,-0.640
-3.470E-06,-0.480
-3.460E-06,-0.300
-3.450E-06,-0.120
-3.440E-06,0.040
-3.430E-06,0.160
-3.420E-06,0.320
-3.410E-06,0.440
-3.400E-06,0.500
-3.390E-06,0.600
-3.380E-06,0.640
-3.370E-06,0.580
-3.360E-06,0.540
-3.350E-06,0.480
-3.340E-06,0.340
-3.330E-06,0.200
-3.320E-06,0.160
-3.310E-06,0.080
-3.300E-06,0.060
-3.290E-06,0.060
-3.280E-06,0.000
-3.270E-06,-0.020
-3.260E-06,-0.060
-3.250E-06,-0.140
-3.240E-06,-0.200
-3.230E-06,-0.180
-3.220E-06,-0.160
-3.210E-06,-0.160
-3.200E-06,-0.140
-3.190E-06,-0.140
-3.180E-06,-0.060
-3.170E-06,0.060
-3.160E-06,-0.120
-3.150E-06,0.140
-3.140E-06,0.120
-3.130E-06,0.100
-3.120E-06,0.440
-3.110E-06,0.400
-3.100E-06,0.440
-3.090E-06,0.420
-3.080E-06,0.220
-3.070E-06,0.260
-3.060E-06,0.200
-3.050E-06,0.200
-3.040E-06,0.240
-3.030E-06,0.120
-3.020E-06,0.000
-3.010E-06,-0.020
-3.000E-06,-0.100
-2.990E-06,-0.080
-2.980E-06,-0.040
-2.970E-06,-0.080
-2.960E-06,-0.160
-2.950E-06,-0.180
-2.940E-06,-0.180
-2.930E-06,-0.160
-2.920E-06,-0.120
-2.910E-06,-0.140
-2.900E-06,-0.160
-2.890E-06,-0.120
-2.880E-06,-0.160
-2.870E-06,-0.140
-2.860E-06,-0.100
-2.850E-06,-0.040
-2.840E-06,-0.020
-2.830E-06,0.040
-2.820E-06,0.040
-2.810E-06,0.080
-2.800E-06,0.120
-2.790E-06,0.160
-2.780E-06,0.160
-2.770E-06,0.200
-2.760E-06,0.220
-2.750E-06,0.220
-2.740E-06,0.200
-2.730E-06,0.220
-2.720E-06,0.240
-2.710E-06,0.200
-2.700E-06,0.200
-2.690E-06,0.160
-2.680E-06,0.160
-2.670E-06,0.140
-2.660E-06,0.140
-2.650E-06,0.120
-2.640E-06,0.140
-2.630E-06,0.100
-2.620E-06,0.120
-2.610E-06,0.080
-2.600E-06,0.080
-2.590E-06,0.000
-2.580E-06,0.060
-2.570E-06,-0.040
-2.560E-06,0.000
-2.550E-06,0.060
-2.540E-06,0.140
-2.530E-06,0.160
-2.520E-06,0.080
-2.510E-06,0.220
-2.500E-06,0.160
-2.490E-06,0.140
-2.480E-06,0.240
-2.470E-06,0.200
-2.460E-06,0.200
-2.450E-06,0.240
-2.440E-06,0.160
-2.430E-06,0.200
-2.420E-06,0.160
-2.410E-06,0.080
-2.400E-06,0.100
-2.390E-06,0.120
-2.380E-06,0.080
-2.370E-06,0.240
-2.360E-06,0.080
-2.350E-06,-0.060
-2.340E-06,0.000
-2.330E-06,-0.160
-2.320E-06,0.100
-2.310E-06,0.240
-2.300E-06,0.320
-2.290E-06,0.300
-2.280E-06,0.100
-2.270E-06,0.080
-2.260E-06,-0.040
-2.250E-06,0.020
-2.240E-06,0.240
-2.230E-06,0.260
-2.220E-06,0.360
-2.210E-06,0.320
-2.200E-06,0.200
-2.190E-06,0.180
-2.180E-06,0.160
-2.170E-06,0.180
-2.160E-06,0.160
-2.150E-06,0.120
-2.140E-06,0.140
-2.130E-06,0.160
-2.120E-06,0.140
-2.110E-06,0.080
-2.100E-06,0.020
-2.090E-06,-0.020
-2.080E-06,-0.040
-2.070E-06,-0.060
-2.060E-06,-0.020
-2.050E-06,0.000
-2.040E-06,0.000
-2.030E-06,-0.020
-2.020E-06,0.040
-2.010E-06,0.040
-2.000E-06,0.060
-1.990E-06,0.100
-1.980E-06,0.060
-1.970E-06,0.080
-1.960E-06,0.080
-1.950E-06,0.100
-1.940E-06,0.080
-1.930E-06,0.100
-1.920E-06,0.080
-1.910E-06,0.080
-1.900E-06,0.080
-1.890E-06,0.180
-1.880E-06,0.140
-1.870E-06,0.100
-1.860E-06,0.240
-1.850E-06,0.040
-1.840E-06,0.060
-1.830E-06,0.060
-1.820E-06,-0.020
-1.810E-06,0.220
-1.800E-06,0.280
-1.790E-06,0.260
-1.780E-06,0.340
-1.770E-06,0.020
-1.760E-06,0.100
-1.750E-06,0.220
-1.740E-06,0.160
-1.730E-06,0.260
-1.720E-06,0.100
-1.710E-06,0.080
-1.700E-06,0.180
-1.690E-06,0.100
-1.680E-06,0.220
-1.670E-06,0.260
-1.660E-06,0.180
-1.650E-06,0.120
-1.640E-06,0.060
-1.630E-06,0.000
-1.620E-06,0.100
-1.610E-06,0.060
-1.600E-06,0.080
-1.590E-06,0.000
-1.580E-06,-0.060
-1.570E-06,-0.020
-1.560E-06,-0.080
-1.550E-06,-0.100
-1.540E-06,-0.020
-1.530E-06,-0.040
-1.520E-06,-0.040
-1.510E-06,-0.020
-1.500E-06,-0.020
-1.490E-06,-0.020
-1.480E-06,-0.040
-1.470E-06,-0.120
-1.460E-06,-0.100
-1.450E-06,-0.060
-1.440E-06,-0.020
-1.430E-06,-0.020
-1.420E-06,0.000
-1.410E-06,-0.040
-1.400E-06,0.000
-1.390E-06,0.000
-1.380E-06,0.040
-1.370E-06,0.120
-1.360E-06,0.160
-1.350E-06,0.160
-1.340E-06,0.200
-1.330E-06,0.240
-1.320E-06,0.160
-1.310E-06,0.200
-1.300E-06,0.160
-1.290E-06,0.180
-1.280E-06,0.200
-1.270E-06,0.240
-1.260E-06,0.280
-1.250E-06,0.300
-1.240E-06,0.480
-1.230E-06,0.340
-1.220E-06,0.260
-1.210E-06,0.200
-1.200E-06,0.000
-1.190E-06,0.060
-1.180E-06,0.160
-1.170E-06,0.080
-1.160E-06,0.340
-1.150E-06,0.180
-1.140E-06,0.020
-1.130E-06,0.420
-1.120E-06,0.060
-1.110E-06,-0.060
-1.100E-06,0.240
-1.090E-06,-0.320
-1.080E-06,0.060
-1.070E-06,0.300
-1.060E-06,0.120
-1.050E-06,0.240
-1.040E-06,0.100
-1.030E-06,-0.280
-1.020E-06,-0.080
-1.010E-06,-0.220
-1.000E-06,0.020
-9.900E-07,0.360
-9.800E-07,0.180
-9.700E-07,0.160
-9.600E-07,-0.020
-9.500E-07,-0.200
-9.400E-07,-0.160
-9.300E-07,-0.020
-9.200E-07,0.080
-9.100E-07,-0.020
-9.000E-07,0.040
-8.900E-07,-0.120
-8.800E-07,-0.180
-8.700E-07,-0.080
-8.600E-07,-0.080
-8.500E-07,-0.060
-8.400E-07,0.040
-8.300E-07,0.000
-8.200E-07,0.040
-8.100E-07,0.080
-8.000E-07,0.060
-7.900E-07,0.060
-7.800E-07,0.160
-7.700E-07,0.180
-7.600E-07,0.220
-7.500E-07,0.320
-7.400E-07,0.180
-7.300E-07,0.260
-7.200E-07,0.200
-7.100E-07,0.140
-7.000E-07,0.220
-6.900E-07,0.100
-6.800E-07,0.260
-6.700E-07,-0.020
-6.600E-07,0.480
-6.500E-07,0.020
-6.400E-07,-0.080
-6.300E-07,0.440
-6.200E-07,-0.480
-6.100E-07,0.020
-6.000E-07,0.180
-5.900E-07,0.060
-5.800E-07,0.420
-5.700E-07,0.760
-5.600E-07,0.000
-5.500E-07,0.080
-5.400E-07,-0.200
-5.300E-07,-0.560
-5.200E-07,0.100
-5.100E-07,0.120
-5.000E-07,0.140
-4.900E-07,0.080
-4.800E-07,-0.040
-4.700E-07,-0.500
-4.600E-07,0.220
-4.500E-07,0.000
-4.400E-07,0.220
-4.300E-07,0.380
-4.200E-07,-0.060
-4.100E-07,-0.020
-4.000E-07,0.040
-3.900E-07,-0.040
-3.800E-07,0.140
-3.700E-07,0.080
-3.600E-07,-0.200
-3.500E-07,-0.160
-3.400E-07,-0.180
-3.300E-07,-0.180
-3.200E-07,0.000
-3.100E-07,0.060
-3.000E-07,0.020
-2.900E-07,0.020
-2.800E-07,0.040
-2.700E-07,0.060
-2.600E-07,0.120
-2.500E-07,0.160
-2.400E-07,0.180
-2.300E-07,0.160
-2.200E-07,0.080
-2.100E-07,0.080
-2.000E-07,0.020
-1.900E-07,-0.020
-1.800E-07,0.020
-1.700E-07,-0.040
-1.600E-07,0.040
-1.500E-07,0.080
-1.400E-07,-0.020
-1.300E-07,0.000
-1.200E-07,0.220
-1.100E-07,0.200
-1.000E-07,-0.060
-9.000E-08,-0.020
-8.000E-08,-0.060
-7.000E-08,0.160
-6.000E-08,0.640
-5.000E-08,0.760
-4.000E-08,-0.700
-3.000E-08,0.240
-2.000E-08,-0.480
-1.000E-08,-0.200
0.000E+00,1.780
1.000E-08,0.460
2.000E-08,0.860
3.000E-08,0.460
4.000E-08,-2.080
5.000E-08,0.080
6.000E-08,-0.240
7.000E-08,0.340
8.000E-08,2.040
9.000E-08,0.280
1.000E-07,0.140
1.100E-07,-0.320
1.200E-07,-1.260
1.300E-07,-0.080
1.400E-07,0.340
1.500E-07,0.560
1.600E-07,0.680
1.700E-07,0.060
1.800E-07,-0.380
1.900E-07,-0.340
2.000E-07,-0.320
2.100E-07,-0.080
2.200E-07,0.180
2.300E-07,-0.420
2.400E-07,-0.220
2.500E-07,-0.600
2.600E-07,-0.380
2.700E-07,-0.020
2.800E-07,-0.020
2.900E-07,0.220
3.000E-07,0.000
3.100E-07,-0.240
3.200E-07,-0.180
3.300E-07,-0.060
3.400E-07,0.080
3.500E-07,0.320
3.600E-07,0.180
3.700E-07,0.080
3.800E-07,0.060
3.900E-07,0.060
4.000E-07,0.100
4.100E-07,0.160
4.200E-07,0.100
4.300E-07,-0.060
4.400E-07,0.160
4.500E-07,0.120
4.600E-07,0.500
4.700E-07,0.420
4.800E-07,0.400
4.900E-07,0.300
5.000E-07,-0.020
5.100E-07,-0.100
5.200E-07,0.120
5.300E-07,0.140
5.400E-07,0.180
5.500E-07,0.020
5.600E-07,0.560
5.700E-07,-0.560
5.800E-07,-0.300
5.900E-07,0.580
6.000E-07,-0.320
6.100E-07,1.240
6.200E-07,0.840
6.300E-07,0.180
6.400E-07,0.440
6.500E-07,-0.380
6.600E-07,-0.320
6.700E-07,0.420
6.800E-07,0.260
6.900E-07,0.580
7.000E-07,0.440
7.100E-07,-0.200
7.200E-07,-0.200
7.300E-07,-0.280
7.400E-07,-0.200
7.500E-07,0.080
7.600E-07,0.160
7.700E-07,0.000
7.800E-07,-0.080
7.900E-07,-0.280
8.000E-07,-0.360
8.100E-07,-0.320
8.200E-07,-0.300
8.300E-07,-0.360
8.400E-07,-0.360
8.500E-07,-0.360
8.600E-07,-0.340
8.700E-07,-0.320
8.800E-07,-0.240
8.900E-07,-0.220
9.000E-07,-0.160
9.100E-07,-0.100
9.200E-07,-0.040
9.300E-07,0.060
9.400E-07,0.120
9.500E-07,0.060
9.600E-07,0.240
9.700E-07,0.120
9.800E-07,0.220
9.900E-07,0.280
1.000E-06,-0.020
1.010E-06,0.380
1.020E-06,0.440
1.030E-06,0.020
1.040E-06,0.180
1.050E-06,-0.080
1.060E-06,-0.280
1.070E-06,0.400
1.080E-06,0.480
1.090E-06,0.460
1.100E-06,1.340
1.110E-06,-0.620
1.120E-06,-0.240
1.130E-06,0.320
1.140E-06,-0.400
1.150E-06,1.360
1.160E-06,1.140
1.170E-06,0.500
1.180E-06,0.560
1.190E-06,-0.260
1.200E-06,-0.500
1.210E-06,0.320
1.220E-06,0.440
1.230E-06,0.660
1.240E-06,0.700
1.250E-06,-0.040
1.260E-06,-0.160
1.270E-06,-0.160
1.280E-06,-0.060
1.290E-06,0.140
1.300E-06,0.200
1.310E-06,-0.040
1.320E-06,-0.160
1.330E-06,-0.300
1.340E-06,-0.380
1.350E-06,-0.360
1.360E-06,-0.320
1.370E-06,-0.440
1.380E-06,-0.420
1.390E-06,-0.380
1.400E-06,-0.420
1.410E-06,-0.340
1.420E-06,-0.320
1.430E-06,-0.320
1.440E-06,-0.360
1.450E-06,-0.240
1.460E-06,-0.160
1.470E-06,-0.100
1.480E-06,0.000
1.490E-06,0.060
1.500E-06,0.080
1.510E-06,0.120
1.520E-06,0.040
1.530E-06,0.080
1.540E-06,0.160
1.550E-06,0.240
1.560E-06,0.340
1.570E-06,0.260
1.580E-06,0.280
1.590E-06,0.320
1.600E-06,0.340
1.610E-06,0.160
1.620E-06,0.420
1.630E-06,-0.320
1.640E-06,-0.040
1.650E-06,1.180
1.660E-06,-1.120
1.670E-06,0.540
1.680E-06,1.240
1.690E-06,-0.420
1.700E-06,2.060
1.710E-06,0.180
1.720E-06,0.040
1.730E-06,0.340
1.740E-06,-0.540
1.750E-06,0.080
1.760E-06,0.920
1.770E-06,0.360
1.780E-06,0.680
1.790E-06,0.320
1.800E-06,-0.560
1.810E-06,-0.240
1.820E-06,-0.120
1.830E-06,-0.120
1.840E-06,0.260
1.850E-06,0.140
1.860E-06,-0.160
1.870E-06,-0.260
1.880E-06,-0.400
1.890E-06,-0.560
1.900E-06,-0.420
1.910E-06,-0.440
1.920E-06,-0.660
1.930E-06,-0.760
1.940E-06,-1.080
1.950E-06,0.040
1.960E-06,-0.240
1.970E-06,-0.640
1.980E-06,0.080
1.990E-06,-1.280
2.000E-06,-0.220
2.010E-06,0.240
2.020E-06,0.440
2.030E-06,0.980
2.040E-06,0.680
2.050E-06,0.000
2.060E-06,-0.060
2.070E-06,-0.140
2.080E-06,0.080
2.090E-06,0.720
2.100E-06,1.180
2.110E-06,0.220
2.120E-06,0.180
2.130E-06,-0.100
2.140E-06,-0.820
2.150E-06,0.460
2.160E-06,0.640
2.170E-06,0.980
2.180E-06,1.200
2.190E-06,0.540
2.200E-06,0.300
2.210E-06,0.380
2.220E-06,0.300
2.230E-06,0.560
2.240E-06,0.500
2.250E-06,-0.120
2.260E-06,-0.160
2.270E-06,-0.300
2.280E-06,-0.300
2.290E-06,0.160
2.300E-06,0.180
2.310E-06,0.100
2.320E-06,-0.160
2.330E-06,-0.360
2.340E-06,-0.360
2.350E-06,-0.160
2.360E-06,0.060
2.370E-06,-0.020
2.380E-06,-0.100
2.390E-06,-0.280
2.400E-06,-0.460
2.410E-06,-0.380
2.420E-06,-0.200
2.430E-06,-0.120
2.440E-06,-0.040
2.450E-06,-0.020
2.460E-06,-0.020
2.470E-06,-0.020
2.480E-06,0.180
2.490E-06,0.320
2.500E-06,0.260
2.510E-06,0.060
2.520E-06,-0.140
2.530E-06,-0.440
2.540E-06,-0.480
2.550E-06,-0.580
2.560E-06,-0.380
2.570E-06,-0.200
2.580E-06,-0.120
2.590E-06,0.000
2.600E-06,0.080
2.610E-06,0.220
2.620E-06,0.420
2.630E-06,0.560
2.640E-06,0.720
2.650E-06,0.600
2.660E-06,0.500
2.670E-06,0.480
2.680E-06,0.420
2.690E-06,0.460
2.700E-06,0.520
2.710E-06,0.480
2.720E-06,0.440
2.730E-06,0.380
2.740E-06,0.320
2.750E-06,0.300
2.760E-06,0.260
2.770E-06,0.180
2.780E-06,0.120
2.790E-06,0.040
2.800E-06,0.060
2.810E-06,-0.040
2.820E-06,-0.140
2.830E-06,-0.180
2.840E-06,-0.300
2.850E-06,-0.340
2.860E-06,-0.420
2.870E-06,-0.360
2.880E-06,-0.320
2.890E-06,-0.300
2.900E-06,-0.220
2.910E-06,-0.320
2.920E-06,0.260
2.930E-06,0.040
2.940E-06,0.320
2.950E-06,0.240
2.960E-06,-0.580
2.970E-06,0.400
2.980E-06,-0.480
2.990E-06,-1.000
3.000E-06,-0.380
3.010E-06,-0.780
3.020E-06,0.100
3.030E-06,0.900
3.040E-06,0.980
3.050E-06,0.700
3.060E-06,0.500
3.070E-06,-0.320
3.080E-06,0.060
3.090E-06,0.420
3.100E-06,0.840
3.110E-06,1.360
3.120E-06,0.800
3.130E-06,0.460
3.140E-06,0.220
3.150E-06,-0.100
3.160E-06,0.240
3.170E-06,0.420
3.180E-06,0.500
3.190E-06,0.500
3.200E-06,0.280
3.210E-06,-0.120
3.220E-06,-0.100
3.230E-06,-0.280
3.240E-06,-0.380
3.250E-06,-0.240
3.260E-06,-0.400
3.270E-06,-0.340
3.280E-06,-0.280
3.290E-06,-0.480
3.300E-06,-0.420
3.310E-06,-0.380
3.320E-06,-0.300
3.330E-06,-0.100
3.340E-06,-0.060
3.350E-06,-0.020
3.360E-06,0.040
3.370E-06,0.160
3.380E-06,0.180
3.390E-06,0.340
3.400E-06,0.280
3.410E-06,0.180
3.420E-06,0.140
3.430E-06,0.120
3.440E-06,0.120
3.450E-06,-0.100
3.460E-06,0.240
3.470E-06,0.080
3.480E-06,-0.060
3.490E-06,-0.140
3.500E-06,-0.760
3.510E-06,-0.760
3.520E-06,-0.660
3.530E-06,0.080
3.540E-06,0.840
3.550E-06,1.000
3.560E-06,1.000
3.570E-06,0.540
3.580E-06,0.100
3.590E-06,-0.020
3.600E-06,0.260
3.610E-06,0.680
3.620E-06,0.820
3.630E-06,1.140
3.640E-06,0.900
3.650E-06,0.880
3.660E-06,0.020
3.670E-06,-0.340
3.680E-06,-0.880
3.690E-06,-0.720
3.700E-06,-0.140
3.710E-06,0.320
3.720E-06,0.720
3.730E-06,0.940
3.740E-06,0.420
3.750E-06,-0.360
3.760E-06,-0.340
3.770E-06,-0.400
3.780E-06,-0.060
3.790E-06,0.500
3.800E-06,0.520
3.810E-06,0.360
3.820E-06,0.100
3.830E-06,-0.220
3.840E-06,-0.080
3.850E-06,0.120
3.860E-06,0.260
3.870E-06,0.440
3.880E-06,0.460
3.890E-06,0.420
3.900E-06,0.340
3.910E-06,0.460
3.920E-06,0.160
3.930E-06,0.260
3.940E-06,0.180
3.950E-06,0.040
3.960E-06,0.180
3.970E-06,-0.100
3.980E-06,-0.240
3.990E-06,-0.300
4.000E-06,-0.500
4.010E-06,-0.320
4.020E-06,-0.240
4.030E-06,0.100
4.040E-06,0.400
4.050E-06,0.700
4.060E-06,0.880
4.070E-06,0.680
4.080E-06,0.740
4.090E-06,0.700
4.100E-06,0.620
4.110E-06,0.840
4.120E-06,0.740
4.130E-06,0.640
4.140E-06,0.500
4.150E-06,0.180
4.160E-06,0.140
4.170E-06,0.020
4.180E-06,0.120
4.190E-06,0.160
4.200E-06,0.220
4.210E-06,0.280
4.220E-06,0.620
4.230E-06,0.620
4.240E-06,0.720
4.250E-06,0.500
4.260E-06,0.440
4.270E-06,0.200
4.280E-06,-0.160
4.290E-06,0.420
4.300E-06,0.020
4.310E-06,0.420
4.320E-06,0.660
4.330E-06,0.280
4.340E-06,0.400
4.350E-06,0.200
4.360E-06,0.180
4.370E-06,0.500
4.380E-06,0.360
4.390E-06,0.700
4.400E-06,0.500
4.410E-06,0.040
4.420E-06,0.180
4.430E-06,-0.360
4.440E-06,-0.720
4.450E-06,0.320
4.460E-06,-0.380
4.470E-06,0.840
4.480E-06,1.740
4.490E-06,1.240
4.500E-06,1.700
4.510E-06,0.460
4.520E-06,-0.220
4.530E-06,-0.440
4.540E-06,-0.220
4.550E-06,-0.320
4.560E-06,0.300
4.570E-06,-0.860
4.580E-06,-0.800
4.590E-06,-1.540
4.600E-06,-1.980
4.610E-06,-0.260
4.620E-06,-0.240
4.630E-06,0.460
4.640E-06,1.000
4.650E-06,0.660
4.660E-06,1.560
4.670E-06,1.820
4.680E-06,2.380
4.690E-06,2.760
4.700E-06,2.760
4.710E-06,2.780
4.720E-06,2.760
4.730E-06,2.580
4.740E-06,2.200
4.750E-06,1.740
4.760E-06,0.900
4.770E-06,0.460
4.780E-06,0.020
4.790E-06,-0.440
4.800E-06,-0.420
4.810E-06,-0.680
4.820E-06,-0.840
4.830E-06,-1.000
4.840E-06,-1.300
4.850E-06,-1.420
4.860E-06,-1.480
4.870E-06,-0.880
4.880E-06,-1.060
4.890E-06,-1.180
4.900E-06,-0.840
4.910E-06,-0.560
4.920E-06,-0.220
4.930E-06,0.020
4.940E-06,0.060
4.950E-06,0.080
4.960E-06,0.080
4.970E-06,-0.060
4.980E-06,0.180
4.990E-06,0.080
5.000E-06,0.160
5.010E-06,-0.180
5.020E-06,-0.500
5.030E-06,-0.600
5.040E-06,-0.860
5.050E-06,-0.900
5.060E-06,-0.840
5.070E-06,-0.760
5.080E-06,-0.780
5.090E-06,-0.840
5.100E-06,-0.940
5.110E-06,-0.860
5.120E-06,-0.600
5.130E-06,-0.380
5.140E-06,0.100
5.150E-06,0.440
5.160E-06,1.000
5.170E-06,1.220
5.180E-06,1.160
5.190E-06,1.160
5.200E-06,1.080
5.210E-06,1.040
5.220E-06,0.940
5.230E-06,0.600
5.240E-06,-0.040
5.250E-06,-0.960
5.260E-06,-1.960
5.270E-06,-2.640
5.280E-06,-2.660
5.290E-06,-2.660
5.300E-06,-2.660
5.310E-06,-2.660
5.320E-06,-2.660
5.330E-06,-2.660
5.340E-06,-2.640
5.350E-06,-2.640
5.360E-06,-2.640
5.370E-06,-2.660
5.380E-06,-2.660
5.390E-06,-2.660
5.400E-06,-2.660
5.410E-06,-2.660
5.420E-06,-2.680
5.430E-06,-2.260
5.440E-06,-1.680
5.450E-06,-1.420
5.460E-06,-0.920
5.470E-06,-0.480
5.480E-06,-0.100
5.490E-06,0.200
5.500E-06,0.160
5.510E-06,0.260
5.520E-06,-0.220
5.530E-06,-0.400
5.540E-06,-0.360
5.550E-06,-0.260
5.560E-06,0.080
5.570E-06,0.100
5.580E-06,-0.260
5.590E-06,-0.520
5.600E-06,-1.040
5.610E-06,-1.200
5.620E-06,-1.120
5.630E-06,-0.860
5.640E-06,-0.540
5.650E-06,-0.260
5.660E-06,-0.120
5.670E-06,-0.100
5.680E-06,-0.020
5.690E-06,-0.020
5.700E-06,0.000
5.710E-06,0.220
5.720E-06,0.240
5.730E-06,0.320
5.740E-06,0.400
5.750E-06,0.220
5.760E-06,0.140
5.770E-06,0.040
5.780E-06,-0.020
5.790E-06,0.040
5.800E-06,0.080
5.810E-06,0.100
5.820E-06,0.060
5.830E-06,0.020
5.840E-06,-0.020
5.850E-06,-0.060
5.860E-06,-0.120
5.870E-06,-0.140
5.880E-06,-0.180
5.890E-06,-0.180
5.900E-06,-0.240
5.910E-06,-0.260
5.920E-06,-0.280
5.930E-06,-0.360
5.940E-06,-0.340
5.950E-06,-0.380
5.960E-06,-0.340
5.970E-06,-0.300
5.980E-06,-0.280
5.990E-06,-0.260
6.000E-06,-0.280
6.010E-06,-0.300
6.020E-06,-0.300
6.030E-06,-0.340
6.040E-06,-0.320
6.050E-06,-0.300
6.060E-06,-0.300
6.070E-06,-0.320
6.080E-06,-0.280
6.090E-06,-0.260
6.100E-06,-0.240
6.110E-06,-0.220
6.120E-06,-0.180
6.130E-06,-0.140
6.140E-06,-0.080
6.150E-06,-0.060
6.160E-06,0.000
6.170E-06,0.040
6.180E-06,0.080
6.190E-06,0.140
6.200E-06,0.140
6.210E-06,0.160
6.220E-06,0.160
6.230E-06,0.180
6.240E-06,0.180
6.250E-06,0.160
6.260E-06,0.160
6.270E-06,0.140
6.280E-06,0.120
6.290E-06,0.120
6.300E-06,0.080
6.310E-06,0.080
6.320E-06,0.060
6.330E-06,0.060
6.340E-06,0.080
6.350E-06,0.040
6.360E-06,0.060
6.370E-06,0.020
6.380E-06,0.000
6.390E-06,-0.020
6.400E-06,-0.020
6.410E-06,-0.020
6.420E-06,-0.020
6.430E-06,-0.020
6.440E-06,-0.020
6.450E-06,-0.020
6.460E-06,-0.020
6.470E-06,0.000
6.480E-06,-0.020
6.490E-06,0.020
6.500E-06,0.060
6.510E-06,0.040
6.520E-06,0.080
6.530E-06,0.080
6.540E-06,0.100
6.550E-06,0.080
6.560E-06,0.080
6.570E-06,0.080
6.580E-06,0.120
6.590E-06,0.100
6.600E-06,0.080
6.610E-06,0.080
6.620E-06,0.060
6.630E-06,0.060
6.640E-06,0.000
6.650E-06,0.040
6.660E-06,0.020
6.670E-06,-0.080
6.680E-06,-0.120
6.690E-06,-0.160
6.700E-06,-0.160
6.710E-06,-0.180
6.720E-06,-0.180
6.730E-06,-0.120
6.740E-06,-0.140
6.750E-06,-0.140
6.760E-06,-0.140
6.770E-06,-0.180
6.780E-06,-0.140
6.790E-06,-0.120
6.800E-06,-0.120
6.810E-06,-0.060
6.820E-06,-0.080
6.830E-06,-0.060
6.840E-06,0.000
6.850E-06,0.000
6.860E-06,0.080
6.870E-06,0.160
6.880E-06,0.160
6.890E-06,0.220
6.900E-06,0.220
6.910E-06,0.180
6.920E-06,0.140
6.930E-06,0.040
6.940E-06,0.000
6.950E-06,-0.060
6.960E-06,-0.100
6.970E-06,-0.140
6.980E-06,-0.160
6.990E-06,-0.220
7.000E-06,-0.200
7.010E-06,-0.180
7.020E-06,-0.160
7.030E-06,-0.160
7.040E-06,-0.120
7.050E-06,-0.040
7.060E-06,-0.020
7.070E-06,0.000
7.080E-06,0.060
7.090E-06,0.080
7.100E-06,0.080
7.110E-06,0.120
7.120E-06,0.140
7.130E-06,0.120
7.140E-06,0.160
7.150E-06,0.100
7.160E-06,0.080
7.170E-06,0.100
7.180E-06,0.140
7.190E-06,0.160
7.200E-06,0.200
7.210E-06,0.220
7.220E-06,0.200
7.230E-06,0.240
7.240E-06,0.260
7.250E-06,0.320
7.260E-06,0.320
7.270E-06,0.360
7.280E-06,0.340
7.290E-06,0.240
7.300E-06,0.140
7.310E-06,0.060
7.320E-06,0.060
7.330E-06,0.060
7.340E-06,0.100
7.350E-06,0.140
7.360E-06,0.140
7.370E-06,0.160
7.380E-06,0.140
7.390E-06,0.160
7.400E-06,0.120
7.410E-06,0.140
7.420E-06,0.100
7.430E-06,0.040
7.440E-06,0.020
7.450E-06,0.020
7.460E-06,0.020
7.470E-06,0.020
7.480E-06,-0.040
7.490E-06,-0.120
7.500E-06,-0.180
7.510E-06,-0.240
7.520E-06,-0.260
7.530E-06,-0.300
7.540E-06,-0.360
7.550E-06,-0.340
7.560E-06,-0.260
7.570E-06,-0.260
7.580E-06,-0.180
7.590E-06,-0.020
7.600E-06,0.020
7.610E-06,0.100
7.620E-06,0.100
7.630E-06,0.100
7.640E-06,0.160
