mediciones/Mediciones filtradas (saque las feas)/6-10/23.7/WaveData55114.csv

#timebase=2000000(ps)
,#voltbase=100000(mv/100)
#size=4000
-4.250E-06,0.096
-4.240E-06,-0.004
-4.230E-06,-0.076
-4.220E-06,-0.108
-4.210E-06,-0.056
-4.200E-06,0.012
-4.190E-06,0.088
-4.180E-06,0.104
-4.170E-06,0.088
-4.160E-06,0.028
-4.150E-06,0.000
-4.140E-06,-0.028
-4.130E-06,-0.124
-4.120E-06,-0.060
-4.110E-06,-0.056
-4.100E-06,0.012
-4.090E-06,0.092
-4.080E-06,0.096
-4.070E-06,0.084
-4.060E-06,0.044
-4.050E-06,-0.088
-4.040E-06,-0.156
-4.030E-06,-0.140
-4.020E-06,-0.056
-4.010E-06,0.136
-4.000E-06,0.136
-3.990E-06,0.108
-3.980E-06,-0.004
-3.970E-06,-0.088
-3.960E-06,-0.104
-3.950E-06,-0.080
-3.940E-06,0.016
-3.930E-06,0.080
-3.920E-06,0.112
-3.910E-06,0.040
-3.900E-06,0.000
-3.890E-06,-0.048
-3.880E-06,-0.056
-3.870E-06,-0.032
-3.860E-06,0.000
-3.850E-06,0.044
-3.840E-06,0.048
-3.830E-06,0.040
-3.820E-06,-0.004
-3.810E-06,0.000
-3.800E-06,-0.024
-3.790E-06,0.000
-3.780E-06,0.004
-3.770E-06,0.016
-3.760E-06,0.032
-3.750E-06,0.024
-3.740E-06,0.064
-3.730E-06,-0.060
-3.720E-06,-0.068
-3.710E-06,-0.052
-3.700E-06,0.072
-3.690E-06,0.060
-3.680E-06,0.056
-3.670E-06,0.016
-3.660E-06,-0.012
-3.650E-06,-0.044
-3.640E-06,-0.084
-3.630E-06,-0.060
-3.620E-06,0.004
-3.610E-06,0.088
-3.600E-06,0.072
-3.590E-06,0.064
-3.580E-06,0.000
-3.570E-06,-0.064
-3.560E-06,-0.084
-3.550E-06,-0.052
-3.540E-06,0.020
-3.530E-06,0.068
-3.520E-06,0.084
-3.510E-06,0.024
-3.500E-06,-0.012
-3.490E-06,-0.044
-3.480E-06,-0.040
-3.470E-06,-0.004
-3.460E-06,0.012
-3.450E-06,0.040
-3.440E-06,0.048
-3.430E-06,0.036
-3.420E-06,0.008
-3.410E-06,0.000
-3.400E-06,-0.008
-3.390E-06,-0.008
-3.380E-06,-0.028
-3.370E-06,-0.012
-3.360E-06,0.008
-3.350E-06,0.032
-3.340E-06,0.040
-3.330E-06,0.028
-3.320E-06,0.016
-3.310E-06,0.004
-3.300E-06,-0.004
-3.290E-06,-0.020
-3.280E-06,0.004
-3.270E-06,-0.024
-3.260E-06,-0.004
-3.250E-06,0.008
-3.240E-06,0.044
-3.230E-06,0.044
-3.220E-06,0.008
-3.210E-06,-0.020
-3.200E-06,-0.032
-3.190E-06,-0.012
-3.180E-06,-0.020
-3.170E-06,0.000
-3.160E-06,0.012
-3.150E-06,0.020
-3.140E-06,0.024
-3.130E-06,0.024
-3.120E-06,-0.040
-3.110E-06,-0.032
-3.100E-06,-0.008
-3.090E-06,-0.004
-3.080E-06,0.024
-3.070E-06,0.032
-3.060E-06,0.032
-3.050E-06,0.016
-3.040E-06,-0.004
-3.030E-06,-0.044
-3.020E-06,-0.024
-3.010E-06,0.000
-3.000E-06,0.032
-2.990E-06,0.044
-2.980E-06,0.040
-2.970E-06,0.024
-2.960E-06,-0.004
-2.950E-06,-0.008
-2.940E-06,-0.008
-2.930E-06,0.016
-2.920E-06,0.032
-2.910E-06,0.024
-2.900E-06,0.024
-2.890E-06,0.016
-2.880E-06,0.012
-2.870E-06,-0.068
-2.860E-06,-0.040
-2.850E-06,-0.040
-2.840E-06,0.000
-2.830E-06,0.044
-2.820E-06,0.040
-2.810E-06,0.032
-2.800E-06,0.008
-2.790E-06,-0.004
-2.780E-06,-0.040
-2.770E-06,-0.048
-2.760E-06,-0.004
-2.750E-06,0.044
-2.740E-06,0.056
-2.730E-06,0.040
-2.720E-06,0.008
-2.710E-06,-0.008
-2.700E-06,-0.012
-2.690E-06,0.008
-2.680E-06,0.036
-2.670E-06,0.056
-2.660E-06,0.080
-2.650E-06,0.064
-2.640E-06,0.024
-2.630E-06,-0.044
-2.620E-06,-0.088
-2.610E-06,-0.088
-2.600E-06,-0.036
-2.590E-06,0.020
-2.580E-06,0.076
-2.570E-06,0.084
-2.560E-06,0.048
-2.550E-06,0.000
-2.540E-06,-0.040
-2.530E-06,-0.036
-2.520E-06,-0.012
-2.510E-06,0.044
-2.500E-06,0.092
-2.490E-06,0.124
-2.480E-06,0.104
-2.470E-06,0.056
-2.460E-06,-0.012
-2.450E-06,-0.072
-2.440E-06,-0.104
-2.430E-06,-0.108
-2.420E-06,-0.036
-2.410E-06,0.028
-2.400E-06,0.104
-2.390E-06,0.072
-2.380E-06,0.044
-2.370E-06,-0.008
-2.360E-06,0.000
-2.350E-06,-0.004
-2.340E-06,0.012
-2.330E-06,0.056
-2.320E-06,-0.044
-2.310E-06,-0.092
-2.300E-06,-0.144
-2.290E-06,-0.096
-2.280E-06,-0.016
-2.270E-06,0.092
-2.260E-06,0.088
-2.250E-06,0.012
-2.240E-06,-0.016
-2.230E-06,-0.064
-2.220E-06,-0.064
-2.210E-06,-0.028
-2.200E-06,0.028
-2.190E-06,0.040
-2.180E-06,0.044
-2.170E-06,0.032
-2.160E-06,-0.008
-2.150E-06,-0.040
-2.140E-06,-0.052
-2.130E-06,-0.024
-2.120E-06,0.012
-2.110E-06,0.052
-2.100E-06,0.056
-2.090E-06,0.032
-2.080E-06,0.008
-2.070E-06,-0.020
-2.060E-06,-0.016
-2.050E-06,0.004
-2.040E-06,0.020
-2.030E-06,0.052
-2.020E-06,0.076
-2.010E-06,0.072
-2.000E-06,0.068
-1.990E-06,0.040
-1.980E-06,0.052
-1.970E-06,0.000
-1.960E-06,-0.028
-1.950E-06,-0.072
-1.940E-06,-0.100
-1.930E-06,-0.056
-1.920E-06,0.004
-1.910E-06,0.048
-1.900E-06,0.060
-1.890E-06,0.044
-1.880E-06,-0.004
-1.870E-06,-0.024
-1.860E-06,-0.036
-1.850E-06,-0.012
-1.840E-06,0.012
-1.830E-06,0.044
-1.820E-06,0.068
-1.810E-06,0.060
-1.800E-06,0.064
-1.790E-06,0.056
-1.780E-06,0.068
-1.770E-06,0.080
-1.760E-06,0.088
-1.750E-06,0.072
-1.740E-06,0.028
-1.730E-06,-0.016
-1.720E-06,-0.060
-1.710E-06,-0.060
-1.700E-06,-0.044
-1.690E-06,0.004
-1.680E-06,0.008
-1.670E-06,0.008
-1.660E-06,0.000
-1.650E-06,-0.004
-1.640E-06,-0.028
-1.630E-06,-0.020
-1.620E-06,-0.020
-1.610E-06,-0.008
-1.600E-06,0.004
-1.590E-06,0.008
-1.580E-06,0.012
-1.570E-06,0.008
-1.560E-06,0.008
-1.550E-06,0.004
-1.540E-06,0.024
-1.530E-06,0.024
-1.520E-06,0.052
-1.510E-06,0.080
-1.500E-06,0.108
-1.490E-06,0.152
-1.480E-06,0.140
-1.470E-06,0.092
-1.460E-06,-0.004
-1.450E-06,-0.100
-1.440E-06,-0.148
-1.430E-06,-0.116
-1.420E-06,-0.064
-1.410E-06,0.024
-1.400E-06,0.052
-1.390E-06,0.032
-1.380E-06,-0.008
-1.370E-06,-0.060
-1.360E-06,-0.072
-1.350E-06,-0.068
-1.340E-06,-0.024
-1.330E-06,0.024
-1.320E-06,0.056
-1.310E-06,0.056
-1.300E-06,0.032
-1.290E-06,0.004
-1.280E-06,-0.012
-1.270E-06,-0.012
-1.260E-06,0.012
-1.250E-06,0.052
-1.240E-06,0.080
-1.230E-06,0.108
-1.220E-06,0.096
-1.210E-06,0.076
-1.200E-06,0.028
-1.190E-06,0.032
-1.180E-06,0.008
-1.170E-06,-0.008
-1.160E-06,0.068
-1.150E-06,0.024
-1.140E-06,-0.076
-1.130E-06,-0.192
-1.120E-06,-0.184
-1.110E-06,-0.188
-1.100E-06,-0.140
-1.090E-06,0.000
-1.080E-06,0.112
-1.070E-06,0.184
-1.060E-06,0.036
-1.050E-06,-0.096
-1.040E-06,-0.172
-1.030E-06,-0.180
-1.020E-06,-0.088
-1.010E-06,-0.008
-1.000E-06,0.096
-9.900E-07,0.120
-9.800E-07,0.084
-9.700E-07,0.000
-9.600E-07,-0.076
-9.500E-07,-0.104
-9.400E-07,-0.076
-9.300E-07,-0.008
-9.200E-07,0.060
-9.100E-07,0.108
-9.000E-07,0.092
-8.900E-07,0.036
-8.800E-07,-0.024
-8.700E-07,-0.072
-8.600E-07,-0.064
-8.500E-07,-0.004
-8.400E-07,0.048
-8.300E-07,0.088
-8.200E-07,0.100
-8.100E-07,0.068
-8.000E-07,0.024
-7.900E-07,-0.024
-7.800E-07,-0.040
-7.700E-07,-0.008
-7.600E-07,0.040
-7.500E-07,0.092
-7.400E-07,0.116
-7.300E-07,0.108
-7.200E-07,0.072
-7.100E-07,0.036
-7.000E-07,0.024
-6.900E-07,0.028
-6.800E-07,0.072
-6.700E-07,0.124
-6.600E-07,0.144
-6.500E-07,0.132
-6.400E-07,0.076
-6.300E-07,0.020
-6.200E-07,-0.064
-6.100E-07,-0.120
-6.000E-07,-0.140
-5.900E-07,-0.088
-5.800E-07,-0.032
-5.700E-07,0.008
-5.600E-07,0.060
-5.500E-07,-0.032
-5.400E-07,-0.100
-5.300E-07,-0.160
-5.200E-07,-0.176
-5.100E-07,-0.116
-5.000E-07,-0.020
-4.900E-07,0.068
-4.800E-07,0.120
-4.700E-07,0.056
-4.600E-07,-0.036
-4.500E-07,-0.100
-4.400E-07,-0.100
-4.300E-07,-0.052
-4.200E-07,0.008
-4.100E-07,0.064
-4.000E-07,0.092
-3.900E-07,0.080
-3.800E-07,0.036
-3.700E-07,-0.012
-3.600E-07,-0.036
-3.500E-07,-0.036
-3.400E-07,0.008
-3.300E-07,0.068
-3.200E-07,0.104
-3.100E-07,0.096
-3.000E-07,0.060
-2.900E-07,0.028
-2.800E-07,0.004
-2.700E-07,0.004
-2.600E-07,0.024
-2.500E-07,0.060
-2.400E-07,0.084
-2.300E-07,0.096
-2.200E-07,0.084
-2.100E-07,0.052
-2.000E-07,0.036
-1.900E-07,0.028
-1.800E-07,0.048
-1.700E-07,0.092
-1.600E-07,0.128
-1.500E-07,0.144
-1.400E-07,0.132
-1.300E-07,0.128
-1.200E-07,0.136
-1.100E-07,0.116
-1.000E-07,0.104
-9.000E-08,-0.028
-8.000E-08,-0.104
-7.000E-08,-0.036
-6.000E-08,-0.196
-5.000E-08,-0.308
-4.000E-08,-0.492
-3.000E-08,-0.508
-2.000E-08,-0.512
-1.000E-08,0.232
0.000E+00,0.544
1.000E-08,0.488
2.000E-08,0.236
3.000E-08,-0.008
4.000E-08,-0.284
5.000E-08,-0.512
6.000E-08,-0.340
7.000E-08,-0.108
8.000E-08,0.320
9.000E-08,0.436
1.000E-07,0.436
1.100E-07,0.024
1.200E-07,-0.268
1.300E-07,-0.252
1.400E-07,-0.324
1.500E-07,-0.072
1.600E-07,0.028
1.700E-07,0.220
1.800E-07,0.160
1.900E-07,0.152
2.000E-07,-0.004
2.100E-07,-0.124
2.200E-07,-0.156
2.300E-07,-0.100
2.400E-07,0.028
2.500E-07,0.088
2.600E-07,0.180
2.700E-07,0.080
2.800E-07,0.040
2.900E-07,-0.084
3.000E-07,-0.080
3.100E-07,-0.084
3.200E-07,0.012
3.300E-07,0.076
3.400E-07,0.128
3.500E-07,0.132
3.600E-07,0.072
3.700E-07,0.036
3.800E-07,-0.024
3.900E-07,-0.004
4.000E-07,0.008
4.100E-07,0.096
4.200E-07,0.140
4.300E-07,0.164
4.400E-07,0.152
4.500E-07,0.124
4.600E-07,0.136
4.700E-07,0.096
4.800E-07,0.104
4.900E-07,0.088
5.000E-07,0.072
5.100E-07,0.056
5.200E-07,0.060
5.300E-07,-0.024
5.400E-07,-0.112
5.500E-07,-0.236
5.600E-07,-0.252
5.700E-07,0.032
5.800E-07,0.260
5.900E-07,0.332
6.000E-07,0.348
6.100E-07,-0.008
6.200E-07,-0.196
6.300E-07,-0.508
6.400E-07,-0.496
6.500E-07,-0.284
6.600E-07,0.320
6.700E-07,0.540
6.800E-07,0.480
6.900E-07,0.072
7.000E-07,-0.448
7.100E-07,-0.508
7.200E-07,-0.512
7.300E-07,-0.296
7.400E-07,0.244
7.500E-07,0.540
7.600E-07,0.544
7.700E-07,0.248
7.800E-07,-0.260
7.900E-07,-0.468
8.000E-07,-0.440
8.100E-07,-0.072
8.200E-07,0.288
8.300E-07,0.540
8.400E-07,0.432
8.500E-07,0.020
8.600E-07,-0.364
8.700E-07,-0.508
8.800E-07,-0.500
8.900E-07,-0.156
9.000E-07,0.176
9.100E-07,0.368
9.200E-07,0.480
9.300E-07,0.260
9.400E-07,-0.076
9.500E-07,-0.420
9.600E-07,-0.420
9.700E-07,-0.240
9.800E-07,0.112
9.900E-07,0.312
1.000E-06,0.356
1.010E-06,0.240
1.020E-06,0.004
1.030E-06,-0.156
1.040E-06,-0.260
1.050E-06,-0.152
1.060E-06,-0.016
1.070E-06,0.228
1.080E-06,0.320
1.090E-06,0.304
1.100E-06,0.164
1.110E-06,0.036
1.120E-06,-0.048
1.130E-06,-0.032
1.140E-06,0.032
1.150E-06,0.028
1.160E-06,0.136
1.170E-06,0.128
1.180E-06,0.144
1.190E-06,0.076
1.200E-06,0.072
1.210E-06,0.080
1.220E-06,0.104
1.230E-06,0.148
1.240E-06,0.120
1.250E-06,0.096
1.260E-06,0.048
1.270E-06,0.024
1.280E-06,-0.004
1.290E-06,-0.040
1.300E-06,-0.136
1.310E-06,-0.136
1.320E-06,-0.172
1.330E-06,-0.140
1.340E-06,-0.140
1.350E-06,-0.088
1.360E-06,-0.028
1.370E-06,0.020
1.380E-06,0.076
1.390E-06,0.028
1.400E-06,0.004
1.410E-06,-0.060
1.420E-06,0.004
1.430E-06,0.040
1.440E-06,0.040
1.450E-06,0.056
1.460E-06,0.124
1.470E-06,0.096
1.480E-06,0.092
1.490E-06,0.096
1.500E-06,0.064
1.510E-06,0.076
1.520E-06,0.064
1.530E-06,0.092
1.540E-06,0.104
1.550E-06,0.108
1.560E-06,0.104
1.570E-06,0.100
1.580E-06,0.072
1.590E-06,0.052
1.600E-06,0.056
1.610E-06,0.036
1.620E-06,0.052
1.630E-06,0.056
1.640E-06,0.044
1.650E-06,0.048
1.660E-06,0.060
1.670E-06,0.060
1.680E-06,0.060
1.690E-06,0.056
1.700E-06,0.044
1.710E-06,0.016
1.720E-06,0.040
1.730E-06,0.064
1.740E-06,0.136
1.750E-06,0.232
1.760E-06,0.260
1.770E-06,0.240
1.780E-06,0.168
1.790E-06,0.108
1.800E-06,0.024
1.810E-06,-0.004
1.820E-06,-0.060
1.830E-06,-0.092
1.840E-06,-0.160
1.850E-06,-0.212
1.860E-06,-0.296
1.870E-06,-0.256
1.880E-06,-0.108
1.890E-06,0.036
1.900E-06,0.212
1.910E-06,0.288
1.920E-06,0.168
1.930E-06,-0.136
1.940E-06,-0.456
1.950E-06,-0.512
1.960E-06,-0.424
1.970E-06,-0.064
1.980E-06,0.200
1.990E-06,0.392
2.000E-06,0.136
2.010E-06,0.244
2.020E-06,-0.096
2.030E-06,-0.164
2.040E-06,-0.148
2.050E-06,0.000
2.060E-06,0.236
2.070E-06,0.364
2.080E-06,0.436
2.090E-06,0.212
2.100E-06,0.032
2.110E-06,-0.084
2.120E-06,-0.088
2.130E-06,0.016
2.140E-06,0.216
2.150E-06,0.320
2.160E-06,0.344
2.170E-06,0.256
2.180E-06,0.132
2.190E-06,0.044
2.200E-06,0.044
2.210E-06,0.096
2.220E-06,0.196
2.230E-06,0.288
2.240E-06,0.300
2.250E-06,0.268
2.260E-06,0.164
2.270E-06,0.096
2.280E-06,0.072
2.290E-06,0.108
2.300E-06,0.176
2.310E-06,0.220
2.320E-06,0.240
2.330E-06,0.164
2.340E-06,0.032
2.350E-06,-0.104
2.360E-06,-0.044
2.370E-06,0.068
2.380E-06,0.228
2.390E-06,0.352
2.400E-06,0.276
2.410E-06,0.024
2.420E-06,-0.236
2.430E-06,-0.408
2.440E-06,-0.424
2.450E-06,-0.256
2.460E-06,0.024
2.470E-06,0.532
2.480E-06,0.540
2.490E-06,0.248
2.500E-06,-0.240
2.510E-06,-0.512
2.520E-06,-0.512
2.530E-06,-0.512
2.540E-06,-0.512
2.550E-06,-0.384
2.560E-06,0.088
2.570E-06,0.312
2.580E-06,0.012
2.590E-06,-0.220
2.600E-06,-0.460
2.610E-06,-0.312
2.620E-06,-0.192
2.630E-06,0.112
2.640E-06,0.280
2.650E-06,0.436
2.660E-06,0.348
2.670E-06,0.188
2.680E-06,0.088
2.690E-06,-0.024
2.700E-06,0.052
2.710E-06,0.148
2.720E-06,0.316
2.730E-06,0.376
2.740E-06,0.368
2.750E-06,0.224
2.760E-06,0.128
2.770E-06,0.048
2.780E-06,0.088
2.790E-06,0.164
2.800E-06,0.276
2.810E-06,0.336
2.820E-06,0.324
2.830E-06,0.260
2.840E-06,0.172
2.850E-06,0.120
2.860E-06,0.104
2.870E-06,0.164
2.880E-06,0.232
2.890E-06,0.288
2.900E-06,0.264
2.910E-06,0.204
2.920E-06,0.068
2.930E-06,-0.036
2.940E-06,-0.092
2.950E-06,-0.040
2.960E-06,0.128
2.970E-06,0.244
2.980E-06,0.380
2.990E-06,0.304
3.000E-06,0.272
3.010E-06,0.040
3.020E-06,-0.108
3.030E-06,-0.112
3.040E-06,-0.092
3.050E-06,-0.012
3.060E-06,-0.088
3.070E-06,-0.212
3.080E-06,-0.396
3.090E-06,-0.512
3.100E-06,-0.512
3.110E-06,-0.296
3.120E-06,-0.020
3.130E-06,0.264
3.140E-06,0.536
3.150E-06,0.384
3.160E-06,0.088
3.170E-06,-0.196
3.180E-06,-0.284
3.190E-06,-0.080
3.200E-06,0.132
3.210E-06,0.468
3.220E-06,0.540
3.230E-06,0.540
3.240E-06,0.316
3.250E-06,0.012
3.260E-06,-0.144
3.270E-06,-0.104
3.280E-06,0.092
3.290E-06,0.336
3.300E-06,0.504
3.310E-06,0.464
3.320E-06,0.320
3.330E-06,0.124
3.340E-06,-0.024
3.350E-06,-0.024
3.360E-06,0.092
3.370E-06,0.276
3.380E-06,0.412
3.390E-06,0.428
3.400E-06,0.332
3.410E-06,0.172
3.420E-06,0.044
3.430E-06,0.000
3.440E-06,0.072
3.450E-06,0.208
3.460E-06,0.328
3.470E-06,0.364
3.480E-06,0.328
3.490E-06,0.208
3.500E-06,0.108
3.510E-06,0.068
3.520E-06,0.100
3.530E-06,0.180
3.540E-06,0.276
3.550E-06,0.320
3.560E-06,0.292
3.570E-06,0.228
3.580E-06,0.144
3.590E-06,0.092
3.600E-06,0.100
3.610E-06,0.152
3.620E-06,0.224
3.630E-06,0.276
3.640E-06,0.276
3.650E-06,0.240
3.660E-06,0.184
3.670E-06,0.140
3.680E-06,0.124
3.690E-06,0.156
3.700E-06,0.200
3.710E-06,0.240
3.720E-06,0.260
3.730E-06,0.236
3.740E-06,0.192
3.750E-06,0.152
3.760E-06,0.136
3.770E-06,0.148
3.780E-06,0.180
3.790E-06,0.224
3.800E-06,0.236
3.810E-06,0.240
3.820E-06,0.212
3.830E-06,0.180
3.840E-06,0.156
3.850E-06,0.160
3.860E-06,0.188
3.870E-06,0.212
3.880E-06,0.228
3.890E-06,0.224
3.900E-06,0.204
3.910E-06,0.176
3.920E-06,0.152
3.930E-06,0.152
3.940E-06,0.168
3.950E-06,0.188
3.960E-06,0.212
3.970E-06,0.208
3.980E-06,0.200
3.990E-06,0.188
4.000E-06,0.172
4.010E-06,0.168
4.020E-06,0.176
4.030E-06,0.188
4.040E-06,0.200
4.050E-06,0.204
4.060E-06,0.192
4.070E-06,0.192
4.080E-06,0.172
4.090E-06,0.156
4.100E-06,0.168
4.110E-06,0.176
4.120E-06,0.188
4.130E-06,0.192
4.140E-06,0.200
4.150E-06,0.196
4.160E-06,0.180
4.170E-06,0.172
4.180E-06,0.176
4.190E-06,0.180
4.200E-06,0.180
4.210E-06,0.184
4.220E-06,0.192
4.230E-06,0.188
4.240E-06,0.180
4.250E-06,0.176
4.260E-06,0.180
4.270E-06,0.168
4.280E-06,0.176
4.290E-06,0.180
4.300E-06,0.180
4.310E-06,0.188
4.320E-06,0.184
4.330E-06,0.176
4.340E-06,0.172
4.350E-06,0.172
4.360E-06,0.176
4.370E-06,0.176
4.380E-06,0.176
4.390E-06,0.176
4.400E-06,0.180
4.410E-06,0.180
4.420E-06,0.180
4.430E-06,0.172
4.440E-06,0.176
4.450E-06,0.176
4.460E-06,0.180
4.470E-06,0.188
4.480E-06,0.180
4.490E-06,0.168
4.500E-06,0.164
4.510E-06,0.164
4.520E-06,0.164
4.530E-06,0.164
4.540E-06,0.164
4.550E-06,0.172
4.560E-06,0.168
4.570E-06,0.164
4.580E-06,0.164
4.590E-06,0.164
4.600E-06,0.168
4.610E-06,0.168
4.620E-06,0.156
4.630E-06,0.164
4.640E-06,0.152
4.650E-06,0.152
4.660E-06,0.160
4.670E-06,0.156
4.680E-06,0.164
4.690E-06,0.156
4.700E-06,0.164
4.710E-06,0.156
4.720E-06,0.156
4.730E-06,0.156
4.740E-06,0.160
4.750E-06,0.156
4.760E-06,0.156
4.770E-06,0.164
4.780E-06,0.156
4.790E-06,0.148
4.800E-06,0.152
4.810E-06,0.156
4.820E-06,0.152
4.830E-06,0.156
4.840E-06,0.164
4.850E-06,0.156
4.860E-06,0.152
4.870E-06,0.144
4.880E-06,0.140
4.890E-06,0.140
4.900E-06,0.148
4.910E-06,0.156
4.920E-06,0.168
4.930E-06,0.156
4.940E-06,0.156
4.950E-06,0.144
4.960E-06,0.144
4.970E-06,0.140
4.980E-06,0.144
4.990E-06,0.152
5.000E-06,0.160
5.010E-06,0.156
5.020E-06,0.152
5.030E-06,0.152
5.040E-06,0.144
5.050E-06,0.144
5.060E-06,0.152
5.070E-06,0.156
5.080E-06,0.160
5.090E-06,0.164
5.100E-06,0.156
5.110E-06,0.148
5.120E-06,0.152
5.130E-06,0.144
5.140E-06,0.144
5.150E-06,0.148
5.160E-06,0.152
5.170E-06,0.152
5.180E-06,0.152
5.190E-06,0.148
5.200E-06,0.140
5.210E-06,0.140
5.220E-06,0.144
5.230E-06,0.140
5.240E-06,0.140
5.250E-06,0.144
5.260E-06,0.140
5.270E-06,0.144
5.280E-06,0.148
5.290E-06,0.144
5.300E-06,0.144
5.310E-06,0.136
5.320E-06,0.140
5.330E-06,0.140
5.340E-06,0.140
5.350E-06,0.140
5.360E-06,0.136
5.370E-06,0.136
5.380E-06,0.136
5.390E-06,0.136
5.400E-06,0.140
5.410E-06,0.140
5.420E-06,0.140
5.430E-06,0.144
5.440E-06,0.136
5.450E-06,0.132
5.460E-06,0.132
5.470E-06,0.132
5.480E-06,0.128
5.490E-06,0.128
5.500E-06,0.136
5.510E-06,0.128
5.520E-06,0.132
5.530E-06,0.128
5.540E-06,0.128
5.550E-06,0.124
5.560E-06,0.128
5.570E-06,0.120
5.580E-06,0.124
5.590E-06,0.128
5.600E-06,0.128
5.610E-06,0.128
5.620E-06,0.124
5.630E-06,0.124
5.640E-06,0.124
5.650E-06,0.124
5.660E-06,0.120
5.670E-06,0.124
5.680E-06,0.128
5.690E-06,0.124
5.700E-06,0.128
5.710E-06,0.124
5.720E-06,0.124
5.730E-06,0.120
5.740E-06,0.120
5.750E-06,0.124
5.760E-06,0.120
5.770E-06,0.124
5.780E-06,0.124
5.790E-06,0.124
5.800E-06,0.116
5.810E-06,0.112
5.820E-06,0.108
5.830E-06,0.112
5.840E-06,0.112
5.850E-06,0.116
5.860E-06,0.116
5.870E-06,0.116
5.880E-06,0.112
5.890E-06,0.108
5.900E-06,0.104
5.910E-06,0.104
5.920E-06,0.108
5.930E-06,0.112
5.940E-06,0.112
5.950E-06,0.108
5.960E-06,0.108
5.970E-06,0.104
5.980E-06,0.100
5.990E-06,0.100
6.000E-06,0.100
6.010E-06,0.104
6.020E-06,0.108
6.030E-06,0.104
6.040E-06,0.108
6.050E-06,0.100
6.060E-06,0.096
6.070E-06,0.092
6.080E-06,0.100
6.090E-06,0.100
6.100E-06,0.104
6.110E-06,0.108
6.120E-06,0.100
6.130E-06,0.096
6.140E-06,0.092
6.150E-06,0.096
6.160E-06,0.092
6.170E-06,0.092
6.180E-06,0.096
6.190E-06,0.100
6.200E-06,0.096
6.210E-06,0.092
6.220E-06,0.088
6.230E-06,0.088
6.240E-06,0.092
6.250E-06,0.092
6.260E-06,0.096
6.270E-06,0.096
6.280E-06,0.092
6.290E-06,0.088
6.300E-06,0.092
6.310E-06,0.096
6.320E-06,0.096
6.330E-06,0.096
6.340E-06,0.096
6.350E-06,0.100
6.360E-06,0.096
6.370E-06,0.088
6.380E-06,0.092
6.390E-06,0.088
6.400E-06,0.088
6.410E-06,0.088
6.420E-06,0.096
6.430E-06,0.092
6.440E-06,0.092
6.450E-06,0.096
6.460E-06,0.092
6.470E-06,0.088
6.480E-06,0.092
6.490E-06,0.088
6.500E-06,0.088
6.510E-06,0.092
6.520E-06,0.088
6.530E-06,0.092
6.540E-06,0.088
6.550E-06,0.084
6.560E-06,0.088
6.570E-06,0.088
6.580E-06,0.088
6.590E-06,0.088
6.600E-06,0.084
6.610E-06,0.088
6.620E-06,0.080
6.630E-06,0.084
6.640E-06,0.084
6.650E-06,0.088
6.660E-06,0.088
6.670E-06,0.088
6.680E-06,0.088
6.690E-06,0.080
6.700E-06,0.080
6.710E-06,0.080
6.720E-06,0.080
6.730E-06,0.088
6.740E-06,0.084
6.750E-06,0.080
6.760E-06,0.084
6.770E-06,0.076
6.780E-06,0.080
6.790E-06,0.076
6.800E-06,0.072
6.810E-06,0.076
6.820E-06,0.076
6.830E-06,0.084
6.840E-06,0.076
6.850E-06,0.076
6.860E-06,0.076
6.870E-06,0.072
6.880E-06,0.072
6.890E-06,0.076
6.900E-06,0.076
6.910E-06,0.072
6.920E-06,0.076
6.930E-06,0.072
6.940E-06,0.068
6.950E-06,0.068
6.960E-06,0.064
6.970E-06,0.068
6.980E-06,0.068
6.990E-06,0.076
7.000E-06,0.072
7.010E-06,0.072
7.020E-06,0.072
7.030E-06,0.064
7.040E-06,0.060
7.050E-06,0.064
7.060E-06,0.068
7.070E-06,0.068
7.080E-06,0.064
7.090E-06,0.064
7.100E-06,0.064
7.110E-06,0.064
7.120E-06,0.068
7.130E-06,0.064
7.140E-06,0.060
7.150E-06,0.064
7.160E-06,0.064
7.170E-06,0.068
7.180E-06,0.068
7.190E-06,0.064
7.200E-06,0.068
7.210E-06,0.060
7.220E-06,0.064
7.230E-06,0.064
7.240E-06,0.060
7.250E-06,0.056
7.260E-06,0.060
7.270E-06,0.056
7.280E-06,0.060
7.290E-06,0.064
7.300E-06,0.056
7.310E-06,0.056
7.320E-06,0.056
7.330E-06,0.056
7.340E-06,0.052
7.350E-06,0.056
7.360E-06,0.052
7.370E-06,0.056
7.380E-06,0.056
7.390E-06,0.056
7.400E-06,0.056
7.410E-06,0.056
7.420E-06,0.056
7.430E-06,0.056
7.440E-06,0.056
7.450E-06,0.044
7.460E-06,0.048
7.470E-06,0.048
7.480E-06,0.052
7.490E-06,0.056
7.500E-06,0.052
7.510E-06,0.056
7.520E-06,0.052
7.530E-06,0.048
7.540E-06,0.044
7.550E-06,0.040
7.560E-06,0.052
7.570E-06,0.052
7.580E-06,0.052
7.590E-06,0.048
7.600E-06,0.044
7.610E-06,0.040
7.620E-06,0.044
7.630E-06,0.044
7.640E-06,0.052
7.650E-06,0.056
7.660E-06,0.052
7.670E-06,0.044
7.680E-06,0.044
7.690E-06,0.036
7.700E-06,0.036
7.710E-06,0.040
7.720E-06,0.048
7.730E-06,0.044
7.740E-06,0.040
7.750E-06,0.044
