mediciones/Mediciones filtradas (saque las feas)/6-10/23.7/WaveData55112.csv

#timebase=2000000(ps)
,#voltbase=100000(mv/100)
#size=4000
-4.250E-06,0.000
-4.240E-06,0.004
-4.230E-06,0.004
-4.220E-06,0.004
-4.210E-06,0.004
-4.200E-06,0.004
-4.190E-06,0.004
-4.180E-06,0.000
-4.170E-06,0.000
-4.160E-06,0.000
-4.150E-06,0.000
-4.140E-06,0.004
-4.130E-06,0.000
-4.120E-06,0.004
-4.110E-06,0.000
-4.100E-06,0.004
-4.090E-06,0.000
-4.080E-06,0.000
-4.070E-06,0.008
-4.060E-06,0.008
-4.050E-06,0.008
-4.040E-06,0.004
-4.030E-06,-0.004
-4.020E-06,0.004
-4.010E-06,0.004
-4.000E-06,0.000
-3.990E-06,0.004
-3.980E-06,0.000
-3.970E-06,0.004
-3.960E-06,0.004
-3.950E-06,0.004
-3.940E-06,0.004
-3.930E-06,-0.004
-3.920E-06,-0.004
-3.910E-06,0.004
-3.900E-06,0.000
-3.890E-06,0.004
-3.880E-06,0.000
-3.870E-06,0.004
-3.860E-06,0.000
-3.850E-06,0.004
-3.840E-06,0.008
-3.830E-06,0.004
-3.820E-06,0.000
-3.810E-06,-0.004
-3.800E-06,0.000
-3.790E-06,0.000
-3.780E-06,0.004
-3.770E-06,0.004
-3.760E-06,-0.004
-3.750E-06,0.000
-3.740E-06,0.000
-3.730E-06,0.004
-3.720E-06,0.004
-3.710E-06,0.004
-3.700E-06,0.004
-3.690E-06,0.004
-3.680E-06,0.004
-3.670E-06,0.004
-3.660E-06,0.004
-3.650E-06,0.000
-3.640E-06,0.000
-3.630E-06,0.000
-3.620E-06,0.004
-3.610E-06,0.004
-3.600E-06,0.004
-3.590E-06,0.004
-3.580E-06,-0.004
-3.570E-06,0.004
-3.560E-06,0.000
-3.550E-06,0.004
-3.540E-06,0.004
-3.530E-06,0.004
-3.520E-06,0.004
-3.510E-06,0.000
-3.500E-06,0.004
-3.490E-06,0.004
-3.480E-06,0.004
-3.470E-06,0.004
-3.460E-06,0.008
-3.450E-06,0.008
-3.440E-06,0.008
-3.430E-06,0.000
-3.420E-06,0.004
-3.410E-06,0.004
-3.400E-06,0.000
-3.390E-06,0.004
-3.380E-06,0.008
-3.370E-06,0.008
-3.360E-06,0.008
-3.350E-06,0.004
-3.340E-06,0.004
-3.330E-06,0.008
-3.320E-06,0.008
-3.310E-06,0.004
-3.300E-06,0.000
-3.290E-06,0.004
-3.280E-06,0.000
-3.270E-06,0.000
-3.260E-06,0.004
-3.250E-06,0.004
-3.240E-06,0.000
-3.230E-06,0.004
-3.220E-06,0.004
-3.210E-06,0.004
-3.200E-06,0.004
-3.190E-06,0.004
-3.180E-06,0.004
-3.170E-06,0.000
-3.160E-06,0.000
-3.150E-06,0.004
-3.140E-06,0.000
-3.130E-06,0.004
-3.120E-06,-0.004
-3.110E-06,0.000
-3.100E-06,0.004
-3.090E-06,0.008
-3.080E-06,0.008
-3.070E-06,0.008
-3.060E-06,0.008
-3.050E-06,0.008
-3.040E-06,0.004
-3.030E-06,0.004
-3.020E-06,0.008
-3.010E-06,0.004
-3.000E-06,0.000
-2.990E-06,0.000
-2.980E-06,0.004
-2.970E-06,0.004
-2.960E-06,0.000
-2.950E-06,0.004
-2.940E-06,0.004
-2.930E-06,0.004
-2.920E-06,0.004
-2.910E-06,0.004
-2.900E-06,0.004
-2.890E-06,0.004
-2.880E-06,0.000
-2.870E-06,0.008
-2.860E-06,0.008
-2.850E-06,0.008
-2.840E-06,0.008
-2.830E-06,0.008
-2.820E-06,0.000
-2.810E-06,0.004
-2.800E-06,0.000
-2.790E-06,0.004
-2.780E-06,0.000
-2.770E-06,0.004
-2.760E-06,0.000
-2.750E-06,-0.004
-2.740E-06,0.004
-2.730E-06,0.000
-2.720E-06,0.004
-2.710E-06,0.004
-2.700E-06,0.004
-2.690E-06,0.008
-2.680E-06,0.008
-2.670E-06,0.008
-2.660E-06,0.000
-2.650E-06,-0.004
-2.640E-06,0.000
-2.630E-06,0.008
-2.620E-06,0.000
-2.610E-06,0.000
-2.600E-06,0.004
-2.590E-06,0.004
-2.580E-06,0.000
-2.570E-06,0.004
-2.560E-06,0.008
-2.550E-06,0.008
-2.540E-06,0.000
-2.530E-06,0.004
-2.520E-06,0.004
-2.510E-06,0.004
-2.500E-06,0.004
-2.490E-06,0.004
-2.480E-06,0.008
-2.470E-06,0.000
-2.460E-06,0.000
-2.450E-06,0.004
-2.440E-06,0.004
-2.430E-06,0.000
-2.420E-06,0.000
-2.410E-06,0.004
-2.400E-06,0.000
-2.390E-06,0.000
-2.380E-06,0.000
-2.370E-06,0.004
-2.360E-06,0.004
-2.350E-06,0.004
-2.340E-06,0.004
-2.330E-06,0.008
-2.320E-06,0.008
-2.310E-06,0.008
-2.300E-06,0.000
-2.290E-06,0.000
-2.280E-06,0.004
-2.270E-06,0.004
-2.260E-06,0.004
-2.250E-06,0.004
-2.240E-06,0.000
-2.230E-06,0.008
-2.220E-06,0.008
-2.210E-06,0.008
-2.200E-06,0.004
-2.190E-06,0.012
-2.180E-06,0.012
-2.170E-06,0.044
-2.160E-06,0.064
-2.150E-06,0.056
-2.140E-06,0.024
-2.130E-06,-0.024
-2.120E-06,-0.088
-2.110E-06,-0.104
-2.100E-06,-0.088
-2.090E-06,0.008
-2.080E-06,0.056
-2.070E-06,0.100
-2.060E-06,0.080
-2.050E-06,0.008
-2.040E-06,-0.028
-2.030E-06,-0.052
-2.020E-06,-0.020
-2.010E-06,0.028
-2.000E-06,0.068
-1.990E-06,0.056
-1.980E-06,0.024
-1.970E-06,-0.024
-1.960E-06,-0.052
-1.950E-06,-0.056
-1.940E-06,-0.024
-1.930E-06,0.028
-1.920E-06,0.032
-1.910E-06,0.052
-1.900E-06,0.040
-1.890E-06,0.028
-1.880E-06,-0.004
-1.870E-06,-0.020
-1.860E-06,-0.020
-1.850E-06,-0.004
-1.840E-06,-0.004
-1.830E-06,0.028
-1.820E-06,0.016
-1.810E-06,-0.012
-1.800E-06,-0.016
-1.790E-06,-0.036
-1.780E-06,-0.028
-1.770E-06,-0.012
-1.760E-06,0.020
-1.750E-06,0.028
-1.740E-06,0.052
-1.730E-06,0.044
-1.720E-06,0.008
-1.710E-06,-0.004
-1.700E-06,-0.016
-1.690E-06,-0.024
-1.680E-06,-0.012
-1.670E-06,0.012
-1.660E-06,0.008
-1.650E-06,0.004
-1.640E-06,-0.004
-1.630E-06,-0.004
-1.620E-06,-0.008
-1.610E-06,-0.004
-1.600E-06,0.016
-1.590E-06,0.024
-1.580E-06,0.016
-1.570E-06,0.020
-1.560E-06,0.016
-1.550E-06,-0.004
-1.540E-06,-0.008
-1.530E-06,-0.008
-1.520E-06,0.000
-1.510E-06,-0.004
-1.500E-06,0.004
-1.490E-06,0.020
-1.480E-06,0.008
-1.470E-06,0.004
-1.460E-06,0.008
-1.450E-06,0.000
-1.440E-06,-0.004
-1.430E-06,0.016
-1.420E-06,0.012
-1.410E-06,0.004
-1.400E-06,0.012
-1.390E-06,0.004
-1.380E-06,-0.004
-1.370E-06,-0.004
-1.360E-06,-0.008
-1.350E-06,-0.012
-1.340E-06,0.012
-1.330E-06,0.016
-1.320E-06,-0.004
-1.310E-06,0.004
-1.300E-06,0.000
-1.290E-06,-0.004
-1.280E-06,-0.004
-1.270E-06,0.008
-1.260E-06,0.012
-1.250E-06,0.012
-1.240E-06,0.016
-1.230E-06,0.004
-1.220E-06,0.000
-1.210E-06,0.000
-1.200E-06,0.004
-1.190E-06,0.008
-1.180E-06,0.008
-1.170E-06,0.016
-1.160E-06,0.012
-1.150E-06,0.012
-1.140E-06,0.012
-1.130E-06,0.000
-1.120E-06,0.008
-1.110E-06,0.008
-1.100E-06,0.012
-1.090E-06,0.012
-1.080E-06,0.012
-1.070E-06,0.012
-1.060E-06,0.000
-1.050E-06,0.008
-1.040E-06,0.004
-1.030E-06,0.008
-1.020E-06,0.012
-1.010E-06,0.008
-1.000E-06,0.008
-9.900E-07,0.012
-9.800E-07,0.012
-9.700E-07,0.012
-9.600E-07,0.028
-9.500E-07,0.024
-9.400E-07,0.024
-9.300E-07,0.032
-9.200E-07,0.020
-9.100E-07,0.012
-9.000E-07,0.020
-8.900E-07,0.024
-8.800E-07,0.008
-8.700E-07,-0.004
-8.600E-07,-0.004
-8.500E-07,0.008
-8.400E-07,0.056
-8.300E-07,0.132
-8.200E-07,0.040
-8.100E-07,-0.124
-8.000E-07,-0.192
-7.900E-07,-0.112
-7.800E-07,-0.056
-7.700E-07,0.012
-7.600E-07,0.144
-7.500E-07,0.076
-7.400E-07,0.016
-7.300E-07,-0.056
-7.200E-07,-0.024
-7.100E-07,-0.084
-7.000E-07,-0.044
-6.900E-07,0.044
-6.800E-07,0.056
-6.700E-07,0.056
-6.600E-07,0.020
-6.500E-07,0.000
-6.400E-07,-0.088
-6.300E-07,-0.052
-6.200E-07,-0.052
-6.100E-07,0.016
-6.000E-07,0.060
-5.900E-07,0.072
-5.800E-07,0.040
-5.700E-07,-0.004
-5.600E-07,-0.044
-5.500E-07,-0.068
-5.400E-07,-0.032
-5.300E-07,-0.004
-5.200E-07,0.048
-5.100E-07,0.064
-5.000E-07,0.044
-4.900E-07,0.000
-4.800E-07,-0.020
-4.700E-07,-0.024
-4.600E-07,-0.028
-4.500E-07,-0.004
-4.400E-07,0.020
-4.300E-07,0.044
-4.200E-07,0.032
-4.100E-07,0.024
-4.000E-07,0.000
-3.900E-07,-0.008
-3.800E-07,-0.008
-3.700E-07,0.004
-3.600E-07,0.024
-3.500E-07,0.032
-3.400E-07,0.044
-3.300E-07,0.032
-3.200E-07,0.024
-3.100E-07,0.020
-3.000E-07,0.024
-2.900E-07,0.036
-2.800E-07,0.056
-2.700E-07,0.080
-2.600E-07,0.096
-2.500E-07,0.104
-2.400E-07,0.124
-2.300E-07,0.104
-2.200E-07,0.140
-2.100E-07,0.124
-2.000E-07,0.156
-1.900E-07,0.156
-1.800E-07,0.120
-1.700E-07,0.096
-1.600E-07,-0.044
-1.500E-07,-0.092
-1.400E-07,-0.236
-1.300E-07,-0.280
-1.200E-07,-0.136
-1.100E-07,-0.008
-1.000E-07,0.196
-9.000E-08,0.204
-8.000E-08,0.236
-7.000E-08,0.096
-6.000E-08,-0.256
-5.000E-08,-0.440
-4.000E-08,-0.392
-3.000E-08,-0.224
-2.000E-08,-0.020
-1.000E-08,0.108
0.000E+00,0.288
1.000E-08,0.288
2.000E-08,0.072
3.000E-08,-0.184
4.000E-08,-0.308
5.000E-08,-0.276
6.000E-08,-0.060
7.000E-08,0.132
8.000E-08,0.256
9.000E-08,0.200
1.000E-07,0.056
1.100E-07,-0.072
1.200E-07,-0.152
1.300E-07,-0.124
1.400E-07,-0.068
1.500E-07,0.064
1.600E-07,0.120
1.700E-07,0.172
1.800E-07,0.108
1.900E-07,0.004
2.000E-07,-0.064
2.100E-07,-0.100
2.200E-07,-0.052
2.300E-07,0.008
2.400E-07,0.092
2.500E-07,0.116
2.600E-07,0.120
2.700E-07,0.076
2.800E-07,0.020
2.900E-07,0.028
3.000E-07,0.048
3.100E-07,0.104
3.200E-07,0.148
3.300E-07,0.176
3.400E-07,0.172
3.500E-07,0.140
3.600E-07,0.124
3.700E-07,0.112
3.800E-07,0.112
3.900E-07,0.112
4.000E-07,0.120
4.100E-07,-0.188
4.200E-07,-0.500
4.300E-07,-0.512
4.400E-07,-0.512
4.500E-07,-0.228
4.600E-07,0.328
4.700E-07,0.540
4.800E-07,0.540
4.900E-07,0.240
5.000E-07,-0.268
5.100E-07,-0.508
5.200E-07,-0.500
5.300E-07,-0.180
5.400E-07,0.136
5.500E-07,0.444
5.600E-07,0.440
5.700E-07,0.248
5.800E-07,-0.072
5.900E-07,-0.312
6.000E-07,-0.376
6.100E-07,-0.244
6.200E-07,0.020
6.300E-07,0.228
6.400E-07,0.304
6.500E-07,0.208
6.600E-07,0.012
6.700E-07,-0.160
6.800E-07,-0.264
6.900E-07,-0.212
7.000E-07,-0.040
7.100E-07,0.144
7.200E-07,0.224
7.300E-07,0.184
7.400E-07,0.056
7.500E-07,-0.096
7.600E-07,-0.160
7.700E-07,-0.152
7.800E-07,-0.040
7.900E-07,0.088
8.000E-07,0.168
8.100E-07,0.180
8.200E-07,0.112
8.300E-07,0.016
8.400E-07,-0.056
8.500E-07,-0.072
8.600E-07,0.012
8.700E-07,0.160
8.800E-07,0.272
8.900E-07,0.288
9.000E-07,0.196
9.100E-07,0.020
9.200E-07,-0.164
9.300E-07,-0.260
9.400E-07,-0.256
9.500E-07,-0.108
9.600E-07,0.072
9.700E-07,0.300
9.800E-07,0.132
9.900E-07,-0.036
1.000E-06,-0.244
1.010E-06,-0.340
1.020E-06,-0.304
1.030E-06,-0.272
1.040E-06,0.144
1.050E-06,0.304
1.060E-06,0.300
1.070E-06,0.088
1.080E-06,-0.104
1.090E-06,-0.212
1.100E-06,-0.236
1.110E-06,-0.136
1.120E-06,0.012
1.130E-06,0.228
1.140E-06,0.240
1.150E-06,0.208
1.160E-06,-0.036
1.170E-06,-0.192
1.180E-06,-0.248
1.190E-06,-0.172
1.200E-06,-0.036
1.210E-06,0.084
1.220E-06,0.164
1.230E-06,0.140
1.240E-06,0.052
1.250E-06,-0.100
1.260E-06,-0.192
1.270E-06,-0.168
1.280E-06,-0.016
1.290E-06,0.128
1.300E-06,0.200
1.310E-06,0.140
1.320E-06,0.040
1.330E-06,-0.072
1.340E-06,-0.164
1.350E-06,-0.136
1.360E-06,-0.060
1.370E-06,0.068
1.380E-06,0.144
1.390E-06,0.160
1.400E-06,0.084
1.410E-06,-0.020
1.420E-06,-0.092
1.430E-06,-0.100
1.440E-06,-0.036
1.450E-06,0.056
1.460E-06,0.108
1.470E-06,0.096
1.480E-06,0.052
1.490E-06,-0.032
1.500E-06,-0.076
1.510E-06,-0.100
1.520E-06,-0.060
1.530E-06,0.016
1.540E-06,0.084
1.550E-06,0.116
1.560E-06,0.092
1.570E-06,0.020
1.580E-06,-0.040
1.590E-06,-0.056
1.600E-06,-0.020
1.610E-06,0.044
1.620E-06,0.100
1.630E-06,0.132
1.640E-06,0.120
1.650E-06,0.068
1.660E-06,0.016
1.670E-06,-0.008
1.680E-06,0.000
1.690E-06,0.056
1.700E-06,0.112
1.710E-06,0.148
1.720E-06,0.140
1.730E-06,0.096
1.740E-06,0.052
1.750E-06,0.020
1.760E-06,0.024
1.770E-06,0.056
1.780E-06,0.104
1.790E-06,0.108
1.800E-06,0.112
1.810E-06,0.088
1.820E-06,0.076
1.830E-06,0.064
1.840E-06,0.088
1.850E-06,0.108
1.860E-06,0.100
1.870E-06,0.040
1.880E-06,-0.076
1.890E-06,-0.268
1.900E-06,-0.416
1.910E-06,-0.492
1.920E-06,-0.280
1.930E-06,-0.096
1.940E-06,0.028
1.950E-06,0.156
1.960E-06,0.152
1.970E-06,0.056
1.980E-06,-0.112
1.990E-06,-0.164
2.000E-06,-0.164
2.010E-06,-0.052
2.020E-06,0.144
2.030E-06,0.156
2.040E-06,0.184
2.050E-06,0.132
2.060E-06,0.100
2.070E-06,-0.004
2.080E-06,-0.024
2.090E-06,0.060
2.100E-06,0.148
2.110E-06,0.228
2.120E-06,0.188
2.130E-06,0.108
2.140E-06,-0.060
2.150E-06,-0.216
2.160E-06,-0.240
2.170E-06,-0.112
2.180E-06,-0.084
2.190E-06,0.180
2.200E-06,0.168
2.210E-06,0.140
2.220E-06,0.036
2.230E-06,-0.088
2.240E-06,-0.080
2.250E-06,-0.112
2.260E-06,0.044
2.270E-06,0.124
2.280E-06,0.156
2.290E-06,0.164
2.300E-06,0.060
2.310E-06,-0.036
2.320E-06,-0.076
2.330E-06,-0.008
2.340E-06,0.056
2.350E-06,0.136
2.360E-06,0.192
2.370E-06,0.212
2.380E-06,0.240
2.390E-06,0.204
2.400E-06,0.128
2.410E-06,0.084
2.420E-06,0.032
2.430E-06,0.012
2.440E-06,0.164
2.450E-06,-0.144
2.460E-06,-0.512
2.470E-06,-0.512
2.480E-06,-0.508
2.490E-06,-0.508
2.500E-06,-0.228
2.510E-06,0.120
2.520E-06,0.540
2.530E-06,0.540
2.540E-06,0.060
2.550E-06,-0.488
2.560E-06,-0.508
2.570E-06,-0.268
2.580E-06,0.200
2.590E-06,0.472
2.600E-06,0.540
2.610E-06,0.520
2.620E-06,0.272
2.630E-06,-0.216
2.640E-06,-0.452
2.650E-06,-0.512
2.660E-06,-0.432
2.670E-06,-0.084
2.680E-06,0.276
2.690E-06,0.420
2.700E-06,0.320
2.710E-06,0.008
2.720E-06,-0.280
2.730E-06,-0.392
2.740E-06,-0.284
2.750E-06,-0.036
2.760E-06,0.152
2.770E-06,0.264
2.780E-06,0.224
2.790E-06,0.052
2.800E-06,-0.144
2.810E-06,-0.264
2.820E-06,-0.208
2.830E-06,-0.028
2.840E-06,0.164
2.850E-06,0.224
2.860E-06,0.164
2.870E-06,0.020
2.880E-06,-0.088
2.890E-06,-0.144
2.900E-06,-0.104
2.910E-06,0.000
2.920E-06,0.132
2.930E-06,0.192
2.940E-06,0.152
2.950E-06,0.048
2.960E-06,-0.068
2.970E-06,-0.120
2.980E-06,-0.092
2.990E-06,0.008
3.000E-06,0.112
3.010E-06,0.176
3.020E-06,0.172
3.030E-06,0.112
3.040E-06,0.044
3.050E-06,0.000
3.060E-06,0.028
3.070E-06,0.100
3.080E-06,0.188
3.090E-06,0.228
3.100E-06,0.204
3.110E-06,0.108
3.120E-06,-0.004
3.130E-06,-0.088
3.140E-06,-0.152
3.150E-06,-0.096
3.160E-06,0.060
3.170E-06,0.208
3.180E-06,0.232
3.190E-06,0.108
3.200E-06,-0.008
3.210E-06,-0.180
3.220E-06,-0.028
3.230E-06,-0.080
3.240E-06,0.048
3.250E-06,-0.076
3.260E-06,-0.272
3.270E-06,-0.304
3.280E-06,-0.508
3.290E-06,-0.348
3.300E-06,0.028
3.310E-06,0.076
3.320E-06,0.312
3.330E-06,0.220
3.340E-06,-0.056
3.350E-06,-0.148
3.360E-06,-0.188
3.370E-06,0.072
3.380E-06,0.168
3.390E-06,0.008
3.400E-06,-0.008
3.410E-06,0.040
3.420E-06,0.060
3.430E-06,-0.028
3.440E-06,-0.096
3.450E-06,-0.056
3.460E-06,-0.036
3.470E-06,0.052
3.480E-06,0.088
3.490E-06,0.104
3.500E-06,0.040
3.510E-06,0.052
3.520E-06,-0.004
3.530E-06,0.004
3.540E-06,-0.040
3.550E-06,0.020
3.560E-06,0.000
3.570E-06,0.044
3.580E-06,0.060
3.590E-06,0.016
3.600E-06,0.088
3.610E-06,0.032
3.620E-06,0.012
3.630E-06,-0.016
3.640E-06,-0.036
3.650E-06,0.020
3.660E-06,0.096
3.670E-06,0.132
3.680E-06,0.160
3.690E-06,0.104
3.700E-06,0.028
3.710E-06,-0.044
3.720E-06,-0.044
3.730E-06,0.092
3.740E-06,0.164
3.750E-06,0.216
3.760E-06,0.176
3.770E-06,0.136
3.780E-06,0.116
3.790E-06,0.064
3.800E-06,0.048
3.810E-06,0.040
3.820E-06,0.092
3.830E-06,0.104
3.840E-06,0.152
3.850E-06,0.124
3.860E-06,0.060
3.870E-06,0.004
3.880E-06,0.000
3.890E-06,-0.004
3.900E-06,-0.092
3.910E-06,-0.224
3.920E-06,-0.404
3.930E-06,-0.336
3.940E-06,-0.088
3.950E-06,0.104
3.960E-06,0.304
3.970E-06,0.388
3.980E-06,0.148
3.990E-06,-0.076
4.000E-06,-0.340
4.010E-06,-0.316
4.020E-06,-0.020
4.030E-06,0.128
4.040E-06,0.512
4.050E-06,0.412
4.060E-06,0.248
4.070E-06,-0.092
4.080E-06,-0.380
4.090E-06,-0.512
4.100E-06,-0.340
4.110E-06,0.132
4.120E-06,0.292
4.130E-06,0.372
4.140E-06,0.056
4.150E-06,-0.316
4.160E-06,-0.512
4.170E-06,-0.476
4.180E-06,-0.172
4.190E-06,0.172
4.200E-06,0.484
4.210E-06,0.460
4.220E-06,0.276
4.230E-06,-0.068
4.240E-06,-0.224
4.250E-06,-0.264
4.260E-06,-0.068
4.270E-06,0.196
4.280E-06,0.392
4.290E-06,0.452
4.300E-06,0.344
4.310E-06,0.156
4.320E-06,-0.016
4.330E-06,-0.072
4.340E-06,-0.028
4.350E-06,0.108
4.360E-06,0.240
4.370E-06,0.324
4.380E-06,0.292
4.390E-06,0.180
4.400E-06,0.032
4.410E-06,-0.080
4.420E-06,-0.100
4.430E-06,-0.040
4.440E-06,0.000
4.450E-06,0.008
4.460E-06,-0.036
4.470E-06,-0.156
4.480E-06,-0.168
4.490E-06,-0.128
4.500E-06,-0.076
4.510E-06,0.032
4.520E-06,0.116
4.530E-06,0.228
4.540E-06,0.272
4.550E-06,0.200
4.560E-06,0.148
4.570E-06,0.112
4.580E-06,0.104
4.590E-06,0.164
4.600E-06,0.160
4.610E-06,0.224
4.620E-06,0.228
4.630E-06,0.224
4.640E-06,0.112
4.650E-06,0.060
4.660E-06,-0.080
4.670E-06,-0.072
4.680E-06,-0.140
4.690E-06,-0.076
4.700E-06,-0.056
4.710E-06,-0.072
4.720E-06,-0.128
4.730E-06,-0.160
4.740E-06,-0.240
4.750E-06,-0.240
4.760E-06,-0.144
4.770E-06,0.160
4.780E-06,0.496
4.790E-06,0.540
4.800E-06,0.316
4.810E-06,0.128
4.820E-06,-0.084
4.830E-06,-0.176
4.840E-06,-0.120
4.850E-06,0.092
4.860E-06,0.268
4.870E-06,0.308
4.880E-06,0.128
4.890E-06,-0.084
4.900E-06,-0.448
4.910E-06,-0.508
4.920E-06,-0.512
4.930E-06,-0.512
4.940E-06,-0.220
4.950E-06,0.324
4.960E-06,0.540
4.970E-06,0.504
4.980E-06,0.176
4.990E-06,-0.076
5.000E-06,-0.336
5.010E-06,-0.240
5.020E-06,0.008
5.030E-06,0.228
5.040E-06,0.388
5.050E-06,0.396
5.060E-06,0.288
5.070E-06,-0.060
5.080E-06,-0.224
5.090E-06,-0.216
5.100E-06,0.056
5.110E-06,0.328
5.120E-06,0.484
5.130E-06,0.504
5.140E-06,0.308
5.150E-06,0.080
5.160E-06,-0.100
5.170E-06,-0.104
5.180E-06,0.008
5.190E-06,0.228
5.200E-06,0.388
5.210E-06,0.440
5.220E-06,0.352
5.230E-06,0.156
5.240E-06,-0.004
5.250E-06,-0.076
5.260E-06,0.016
5.270E-06,0.192
5.280E-06,0.356
5.290E-06,0.436
5.300E-06,0.388
5.310E-06,0.248
5.320E-06,0.088
5.330E-06,0.004
5.340E-06,0.000
5.350E-06,0.108
5.360E-06,0.232
5.370E-06,0.332
5.380E-06,0.324
5.390E-06,0.268
5.400E-06,0.160
5.410E-06,0.088
5.420E-06,0.068
5.430E-06,0.124
5.440E-06,0.224
5.450E-06,0.276
5.460E-06,0.316
5.470E-06,0.268
5.480E-06,0.200
5.490E-06,0.100
5.500E-06,0.060
5.510E-06,0.064
5.520E-06,0.128
5.530E-06,0.180
5.540E-06,0.224
5.550E-06,0.148
5.560E-06,0.088
5.570E-06,-0.124
5.580E-06,-0.228
5.590E-06,-0.204
5.600E-06,-0.180
5.610E-06,-0.012
5.620E-06,0.272
5.630E-06,0.340
5.640E-06,0.360
5.650E-06,0.240
5.660E-06,0.160
5.670E-06,0.100
5.680E-06,0.056
5.690E-06,0.220
5.700E-06,0.272
5.710E-06,0.312
5.720E-06,0.280
5.730E-06,0.260
5.740E-06,0.180
5.750E-06,0.132
5.760E-06,0.092
5.770E-06,0.128
5.780E-06,0.224
5.790E-06,0.284
5.800E-06,0.312
5.810E-06,0.260
5.820E-06,0.212
5.830E-06,0.136
5.840E-06,0.136
5.850E-06,0.140
5.860E-06,0.200
5.870E-06,0.260
5.880E-06,0.276
5.890E-06,0.268
5.900E-06,0.216
5.910E-06,0.176
5.920E-06,0.136
5.930E-06,0.148
5.940E-06,0.172
5.950E-06,0.212
5.960E-06,0.240
5.970E-06,0.248
5.980E-06,0.228
5.990E-06,0.188
6.000E-06,0.164
6.010E-06,0.152
6.020E-06,0.180
6.030E-06,0.204
6.040E-06,0.232
6.050E-06,0.236
6.060E-06,0.220
6.070E-06,0.188
6.080E-06,0.168
6.090E-06,0.168
6.100E-06,0.172
6.110E-06,0.192
6.120E-06,0.204
6.130E-06,0.220
6.140E-06,0.208
6.150E-06,0.200
6.160E-06,0.184
6.170E-06,0.172
6.180E-06,0.176
6.190E-06,0.192
6.200E-06,0.208
6.210E-06,0.212
6.220E-06,0.208
6.230E-06,0.200
6.240E-06,0.188
6.250E-06,0.184
6.260E-06,0.184
6.270E-06,0.188
6.280E-06,0.192
6.290E-06,0.200
6.300E-06,0.208
6.310E-06,0.204
6.320E-06,0.192
6.330E-06,0.188
6.340E-06,0.176
6.350E-06,0.180
6.360E-06,0.188
6.370E-06,0.192
6.380E-06,0.196
6.390E-06,0.188
6.400E-06,0.188
6.410E-06,0.176
6.420E-06,0.176
6.430E-06,0.176
6.440E-06,0.176
6.450E-06,0.188
6.460E-06,0.196
6.470E-06,0.196
6.480E-06,0.188
6.490E-06,0.184
6.500E-06,0.176
6.510E-06,0.172
6.520E-06,0.172
6.530E-06,0.176
6.540E-06,0.184
6.550E-06,0.180
6.560E-06,0.188
6.570E-06,0.184
6.580E-06,0.172
6.590E-06,0.160
6.600E-06,0.164
6.610E-06,0.180
6.620E-06,0.176
6.630E-06,0.176
6.640E-06,0.180
6.650E-06,0.180
6.660E-06,0.176
6.670E-06,0.176
6.680E-06,0.168
6.690E-06,0.172
6.700E-06,0.180
6.710E-06,0.184
6.720E-06,0.180
6.730E-06,0.176
6.740E-06,0.176
6.750E-06,0.172
6.760E-06,0.176
6.770E-06,0.184
6.780E-06,0.176
6.790E-06,0.180
6.800E-06,0.180
6.810E-06,0.176
6.820E-06,0.176
6.830E-06,0.176
6.840E-06,0.172
6.850E-06,0.172
6.860E-06,0.180
6.870E-06,0.176
6.880E-06,0.180
6.890E-06,0.172
6.900E-06,0.164
6.910E-06,0.172
6.920E-06,0.176
6.930E-06,0.168
6.940E-06,0.168
6.950E-06,0.168
6.960E-06,0.168
6.970E-06,0.164
6.980E-06,0.164
6.990E-06,0.168
7.000E-06,0.168
7.010E-06,0.160
7.020E-06,0.164
7.030E-06,0.164
7.040E-06,0.168
7.050E-06,0.168
7.060E-06,0.160
7.070E-06,0.164
7.080E-06,0.160
7.090E-06,0.164
7.100E-06,0.160
7.110E-06,0.164
7.120E-06,0.168
7.130E-06,0.156
7.140E-06,0.156
7.150E-06,0.156
7.160E-06,0.156
7.170E-06,0.156
7.180E-06,0.152
7.190E-06,0.160
7.200E-06,0.156
7.210E-06,0.152
7.220E-06,0.152
7.230E-06,0.152
7.240E-06,0.152
7.250E-06,0.156
7.260E-06,0.152
7.270E-06,0.152
7.280E-06,0.152
7.290E-06,0.152
7.300E-06,0.152
7.310E-06,0.152
7.320E-06,0.152
7.330E-06,0.148
7.340E-06,0.156
7.350E-06,0.152
7.360E-06,0.152
7.370E-06,0.152
7.380E-06,0.152
7.390E-06,0.152
7.400E-06,0.152
7.410E-06,0.152
7.420E-06,0.160
7.430E-06,0.152
7.440E-06,0.144
7.450E-06,0.148
7.460E-06,0.144
7.470E-06,0.144
7.480E-06,0.140
7.490E-06,0.140
7.500E-06,0.144
7.510E-06,0.148
7.520E-06,0.148
7.530E-06,0.144
7.540E-06,0.144
7.550E-06,0.136
7.560E-06,0.140
7.570E-06,0.140
7.580E-06,0.140
7.590E-06,0.140
7.600E-06,0.144
7.610E-06,0.140
7.620E-06,0.136
7.630E-06,0.136
7.640E-06,0.132
7.650E-06,0.136
7.660E-06,0.136
7.670E-06,0.140
7.680E-06,0.136
7.690E-06,0.136
7.700E-06,0.136
7.710E-06,0.136
7.720E-06,0.132
7.730E-06,0.132
7.740E-06,0.136
