mediciones/Mediciones filtradas (saque las feas)/6-10/23.7/WaveData55116.csv

#timebase=2000000(ps)
,#voltbase=100000(mv/100)
#size=4000
-4.250E-06,0.008
-4.240E-06,0.004
-4.230E-06,0.000
-4.220E-06,0.000
-4.210E-06,0.000
-4.200E-06,0.008
-4.190E-06,0.004
-4.180E-06,0.024
-4.170E-06,0.056
-4.160E-06,0.056
-4.150E-06,0.044
-4.140E-06,-0.032
-4.130E-06,-0.068
-4.120E-06,-0.088
-4.110E-06,-0.076
-4.100E-06,0.000
-4.090E-06,0.084
-4.080E-06,0.088
-4.070E-06,0.060
-4.060E-06,0.020
-4.050E-06,-0.036
-4.040E-06,-0.064
-4.030E-06,-0.008
-4.020E-06,0.024
-4.010E-06,0.056
-4.000E-06,0.060
-3.990E-06,0.028
-3.980E-06,-0.024
-3.970E-06,-0.052
-3.960E-06,-0.044
-3.950E-06,-0.028
-3.940E-06,0.008
-3.930E-06,0.040
-3.920E-06,0.044
-3.910E-06,0.024
-3.900E-06,0.020
-3.890E-06,0.004
-3.880E-06,-0.024
-3.870E-06,-0.020
-3.860E-06,-0.008
-3.850E-06,-0.004
-3.840E-06,0.000
-3.830E-06,0.016
-3.820E-06,0.012
-3.810E-06,-0.004
-3.800E-06,-0.024
-3.790E-06,-0.028
-3.780E-06,-0.008
-3.770E-06,-0.004
-3.760E-06,0.024
-3.750E-06,0.056
-3.740E-06,0.044
-3.730E-06,0.000
-3.720E-06,-0.004
-3.710E-06,-0.016
-3.700E-06,-0.032
-3.690E-06,-0.004
-3.680E-06,0.016
-3.670E-06,0.008
-3.660E-06,0.004
-3.650E-06,0.008
-3.640E-06,-0.008
-3.630E-06,-0.012
-3.620E-06,0.004
-3.610E-06,0.000
-3.600E-06,0.008
-3.590E-06,0.024
-3.580E-06,0.024
-3.570E-06,0.004
-3.560E-06,0.012
-3.550E-06,0.000
-3.540E-06,-0.020
-3.530E-06,-0.004
-3.520E-06,-0.004
-3.510E-06,-0.004
-3.500E-06,0.016
-3.490E-06,0.024
-3.480E-06,0.008
-3.470E-06,-0.008
-3.460E-06,0.012
-3.450E-06,-0.008
-3.440E-06,0.004
-3.430E-06,0.008
-3.420E-06,0.016
-3.410E-06,0.020
-3.400E-06,0.016
-3.390E-06,0.008
-3.380E-06,0.000
-3.370E-06,0.000
-3.360E-06,0.000
-3.350E-06,-0.012
-3.340E-06,-0.012
-3.330E-06,-0.008
-3.320E-06,0.008
-3.310E-06,0.016
-3.300E-06,0.008
-3.290E-06,0.008
-3.280E-06,0.000
-3.270E-06,0.004
-3.260E-06,0.004
-3.250E-06,0.004
-3.240E-06,0.012
-3.230E-06,0.032
-3.220E-06,0.012
-3.210E-06,0.060
-3.200E-06,0.016
-3.190E-06,-0.008
-3.180E-06,-0.008
-3.170E-06,-0.060
-3.160E-06,-0.068
-3.150E-06,-0.032
-3.140E-06,0.012
-3.130E-06,0.068
-3.120E-06,0.056
-3.110E-06,0.016
-3.100E-06,-0.016
-3.090E-06,-0.020
-3.080E-06,-0.028
-3.070E-06,-0.004
-3.060E-06,0.004
-3.050E-06,0.000
-3.040E-06,0.012
-3.030E-06,0.020
-3.020E-06,0.012
-3.010E-06,-0.008
-3.000E-06,-0.008
-2.990E-06,-0.008
-2.980E-06,0.000
-2.970E-06,0.016
-2.960E-06,0.020
-2.950E-06,0.020
-2.940E-06,0.016
-2.930E-06,-0.004
-2.920E-06,-0.004
-2.910E-06,-0.008
-2.900E-06,-0.004
-2.890E-06,0.004
-2.880E-06,0.012
-2.870E-06,0.024
-2.860E-06,0.012
-2.850E-06,0.000
-2.840E-06,-0.004
-2.830E-06,-0.008
-2.820E-06,-0.004
-2.810E-06,0.004
-2.800E-06,0.012
-2.790E-06,0.008
-2.780E-06,0.012
-2.770E-06,0.012
-2.760E-06,0.004
-2.750E-06,-0.004
-2.740E-06,0.000
-2.730E-06,0.008
-2.720E-06,0.008
-2.710E-06,0.016
-2.700E-06,0.016
-2.690E-06,0.004
-2.680E-06,0.008
-2.670E-06,0.008
-2.660E-06,0.012
-2.650E-06,0.020
-2.640E-06,0.024
-2.630E-06,0.032
-2.620E-06,0.028
-2.610E-06,0.008
-2.600E-06,0.000
-2.590E-06,0.004
-2.580E-06,0.000
-2.570E-06,0.020
-2.560E-06,0.044
-2.550E-06,-0.004
-2.540E-06,-0.008
-2.530E-06,-0.040
-2.520E-06,-0.032
-2.510E-06,-0.028
-2.500E-06,0.008
-2.490E-06,0.040
-2.480E-06,0.032
-2.470E-06,0.024
-2.460E-06,0.000
-2.450E-06,-0.020
-2.440E-06,-0.024
-2.430E-06,0.016
-2.420E-06,0.020
-2.410E-06,0.064
-2.400E-06,0.084
-2.390E-06,0.072
-2.380E-06,0.000
-2.370E-06,-0.064
-2.360E-06,-0.140
-2.350E-06,-0.080
-2.340E-06,-0.008
-2.330E-06,0.064
-2.320E-06,0.060
-2.310E-06,0.024
-2.300E-06,0.004
-2.290E-06,-0.048
-2.280E-06,-0.072
-2.270E-06,-0.052
-2.260E-06,-0.020
-2.250E-06,0.024
-2.240E-06,0.060
-2.230E-06,0.060
-2.220E-06,0.020
-2.210E-06,-0.024
-2.200E-06,-0.040
-2.190E-06,-0.040
-2.180E-06,-0.008
-2.170E-06,0.016
-2.160E-06,0.040
-2.150E-06,0.044
-2.140E-06,0.024
-2.130E-06,0.008
-2.120E-06,-0.024
-2.110E-06,-0.036
-2.100E-06,-0.020
-2.090E-06,0.004
-2.080E-06,0.028
-2.070E-06,0.036
-2.060E-06,0.032
-2.050E-06,0.008
-2.040E-06,0.000
-2.030E-06,-0.008
-2.020E-06,-0.004
-2.010E-06,0.004
-2.000E-06,0.028
-1.990E-06,0.024
-1.980E-06,0.016
-1.970E-06,0.004
-1.960E-06,-0.004
-1.950E-06,-0.004
-1.940E-06,0.008
-1.930E-06,0.020
-1.920E-06,0.028
-1.910E-06,0.048
-1.900E-06,0.060
-1.890E-06,0.056
-1.880E-06,-0.012
-1.870E-06,-0.016
-1.860E-06,-0.088
-1.850E-06,-0.076
-1.840E-06,-0.048
-1.830E-06,0.032
-1.820E-06,0.076
-1.810E-06,0.104
-1.800E-06,0.060
-1.790E-06,0.000
-1.780E-06,-0.080
-1.770E-06,-0.064
-1.760E-06,0.008
-1.750E-06,-0.024
-1.740E-06,-0.008
-1.730E-06,0.000
-1.720E-06,0.024
-1.710E-06,0.020
-1.700E-06,0.004
-1.690E-06,-0.020
-1.680E-06,-0.076
-1.670E-06,-0.020
-1.660E-06,0.024
-1.650E-06,0.060
-1.640E-06,0.024
-1.630E-06,-0.024
-1.620E-06,-0.040
-1.610E-06,-0.024
-1.600E-06,-0.004
-1.590E-06,-0.004
-1.580E-06,0.008
-1.570E-06,0.016
-1.560E-06,0.028
-1.550E-06,0.024
-1.540E-06,0.008
-1.530E-06,-0.028
-1.520E-06,-0.028
-1.510E-06,-0.004
-1.500E-06,0.012
-1.490E-06,0.028
-1.480E-06,0.020
-1.470E-06,0.020
-1.460E-06,0.008
-1.450E-06,-0.004
-1.440E-06,-0.008
-1.430E-06,-0.004
-1.420E-06,0.000
-1.410E-06,0.024
-1.400E-06,0.024
-1.390E-06,0.028
-1.380E-06,0.024
-1.370E-06,0.004
-1.360E-06,0.004
-1.350E-06,0.004
-1.340E-06,0.016
-1.330E-06,0.020
-1.320E-06,0.012
-1.310E-06,0.004
-1.300E-06,0.000
-1.290E-06,0.020
-1.280E-06,0.060
-1.270E-06,0.084
-1.260E-06,0.112
-1.250E-06,0.048
-1.240E-06,-0.016
-1.230E-06,-0.040
-1.220E-06,-0.044
-1.210E-06,-0.036
-1.200E-06,-0.016
-1.190E-06,0.024
-1.180E-06,0.040
-1.170E-06,-0.004
-1.160E-06,-0.016
-1.150E-06,-0.008
-1.140E-06,-0.060
-1.130E-06,-0.100
-1.120E-06,-0.064
-1.110E-06,-0.004
-1.100E-06,0.044
-1.090E-06,0.056
-1.080E-06,0.016
-1.070E-06,0.000
-1.060E-06,0.008
-1.050E-06,-0.020
-1.040E-06,-0.068
-1.030E-06,-0.012
-1.020E-06,0.024
-1.010E-06,0.016
-1.000E-06,0.052
-9.900E-07,0.028
-9.800E-07,-0.020
-9.700E-07,-0.012
-9.600E-07,-0.008
-9.500E-07,0.008
-9.400E-07,0.008
-9.300E-07,0.024
-9.200E-07,-0.008
-9.100E-07,0.000
-9.000E-07,0.000
-8.900E-07,0.000
-8.800E-07,0.016
-8.700E-07,0.024
-8.600E-07,0.004
-8.500E-07,0.004
-8.400E-07,0.000
-8.300E-07,-0.012
-8.200E-07,0.000
-8.100E-07,0.012
-8.000E-07,0.024
-7.900E-07,0.032
-7.800E-07,0.024
-7.700E-07,0.028
-7.600E-07,-0.008
-7.500E-07,-0.008
-7.400E-07,0.000
-7.300E-07,0.024
-7.200E-07,0.008
-7.100E-07,0.068
-7.000E-07,0.032
-6.900E-07,0.032
-6.800E-07,0.088
-6.700E-07,-0.076
-6.600E-07,-0.072
-6.500E-07,-0.188
-6.400E-07,-0.132
-6.300E-07,-0.036
-6.200E-07,-0.012
-6.100E-07,0.132
-6.000E-07,0.152
-5.900E-07,0.080
-5.800E-07,-0.008
-5.700E-07,-0.068
-5.600E-07,-0.104
-5.500E-07,-0.040
-5.400E-07,0.024
-5.300E-07,0.100
-5.200E-07,0.040
-5.100E-07,0.020
-5.000E-07,-0.044
-4.900E-07,-0.068
-4.800E-07,-0.100
-4.700E-07,-0.012
-4.600E-07,0.056
-4.500E-07,0.052
-4.400E-07,0.056
-4.300E-07,0.004
-4.200E-07,-0.004
-4.100E-07,-0.012
-4.000E-07,-0.020
-3.900E-07,-0.052
-3.800E-07,-0.004
-3.700E-07,0.028
-3.600E-07,0.044
-3.500E-07,0.052
-3.400E-07,0.024
-3.300E-07,0.000
-3.200E-07,-0.020
-3.100E-07,-0.012
-3.000E-07,0.004
-2.900E-07,0.032
-2.800E-07,0.040
-2.700E-07,0.052
-2.600E-07,0.032
-2.500E-07,0.020
-2.400E-07,-0.004
-2.300E-07,-0.028
-2.200E-07,-0.016
-2.100E-07,0.000
-2.000E-07,0.032
-1.900E-07,0.048
-1.800E-07,0.064
-1.700E-07,0.048
-1.600E-07,0.000
-1.500E-07,0.012
-1.400E-07,-0.020
-1.300E-07,-0.036
-1.200E-07,-0.072
-1.100E-07,-0.088
-1.000E-07,0.092
-9.000E-08,0.200
-8.000E-08,0.140
-7.000E-08,-0.140
-6.000E-08,-0.132
-5.000E-08,-0.420
-4.000E-08,-0.168
-3.000E-08,0.128
-2.000E-08,0.264
-1.000E-08,0.320
0.000E+00,0.124
1.000E-08,-0.124
2.000E-08,-0.196
3.000E-08,-0.288
4.000E-08,-0.096
5.000E-08,0.120
6.000E-08,0.104
7.000E-08,0.168
8.000E-08,0.044
9.000E-08,-0.036
1.000E-07,-0.068
1.100E-07,-0.096
1.200E-07,-0.040
1.300E-07,0.000
1.400E-07,0.024
1.500E-07,0.048
1.600E-07,0.096
1.700E-07,0.064
1.800E-07,0.040
1.900E-07,0.000
2.000E-07,-0.012
2.100E-07,-0.004
2.200E-07,-0.076
2.300E-07,-0.024
2.400E-07,-0.012
2.500E-07,0.040
2.600E-07,0.092
2.700E-07,0.044
2.800E-07,0.020
2.900E-07,-0.016
3.000E-07,-0.052
3.100E-07,-0.092
3.200E-07,-0.012
3.300E-07,0.028
3.400E-07,0.060
3.500E-07,0.080
3.600E-07,0.064
3.700E-07,0.016
3.800E-07,0.024
3.900E-07,-0.004
4.000E-07,-0.052
4.100E-07,-0.084
4.200E-07,-0.056
4.300E-07,0.028
4.400E-07,0.076
4.500E-07,0.136
4.600E-07,0.080
4.700E-07,0.012
4.800E-07,-0.068
4.900E-07,-0.076
5.000E-07,-0.048
5.100E-07,0.016
5.200E-07,0.104
5.300E-07,0.036
5.400E-07,0.008
5.500E-07,-0.104
5.600E-07,-0.128
5.700E-07,-0.092
5.800E-07,0.028
5.900E-07,0.024
6.000E-07,0.004
6.100E-07,0.064
6.200E-07,-0.036
6.300E-07,-0.052
6.400E-07,-0.032
6.500E-07,-0.032
6.600E-07,0.036
6.700E-07,0.056
6.800E-07,0.012
6.900E-07,-0.008
7.000E-07,-0.020
7.100E-07,-0.004
7.200E-07,0.000
7.300E-07,0.012
7.400E-07,-0.008
7.500E-07,-0.004
7.600E-07,-0.004
7.700E-07,-0.004
7.800E-07,0.024
7.900E-07,0.024
8.000E-07,0.028
8.100E-07,0.012
8.200E-07,0.000
8.300E-07,-0.008
8.400E-07,-0.012
8.500E-07,0.000
8.600E-07,0.004
8.700E-07,0.028
8.800E-07,0.024
8.900E-07,0.024
9.000E-07,0.020
9.100E-07,0.024
9.200E-07,0.012
9.300E-07,0.008
9.400E-07,0.048
9.500E-07,0.048
9.600E-07,0.036
9.700E-07,0.104
9.800E-07,0.052
9.900E-07,0.096
1.000E-06,-0.044
1.010E-06,-0.012
1.020E-06,-0.104
1.030E-06,-0.108
1.040E-06,0.028
1.050E-06,0.060
1.060E-06,0.100
1.070E-06,0.132
1.080E-06,0.048
1.090E-06,-0.192
1.100E-06,-0.312
1.110E-06,-0.236
1.120E-06,0.076
1.130E-06,0.092
1.140E-06,0.148
1.150E-06,0.096
1.160E-06,-0.028
1.170E-06,-0.128
1.180E-06,-0.120
1.190E-06,-0.088
1.200E-06,0.044
1.210E-06,0.124
1.220E-06,0.056
1.230E-06,0.056
1.240E-06,-0.008
1.250E-06,-0.044
1.260E-06,-0.064
1.270E-06,-0.028
1.280E-06,-0.016
1.290E-06,0.028
1.300E-06,0.052
1.310E-06,0.036
1.320E-06,0.024
1.330E-06,-0.004
1.340E-06,-0.028
1.350E-06,-0.032
1.360E-06,-0.012
1.370E-06,0.004
1.380E-06,0.032
1.390E-06,0.040
1.400E-06,0.028
1.410E-06,0.024
1.420E-06,0.008
1.430E-06,0.000
1.440E-06,0.012
1.450E-06,0.020
1.460E-06,0.028
1.470E-06,0.048
1.480E-06,0.044
1.490E-06,0.024
1.500E-06,0.040
1.510E-06,0.048
1.520E-06,0.064
1.530E-06,0.060
1.540E-06,0.072
1.550E-06,0.048
1.560E-06,0.072
1.570E-06,0.016
1.580E-06,-0.004
1.590E-06,0.024
1.600E-06,-0.212
1.610E-06,-0.240
1.620E-06,-0.156
1.630E-06,0.024
1.640E-06,-0.132
1.650E-06,0.044
1.660E-06,0.184
1.670E-06,0.176
1.680E-06,-0.088
1.690E-06,-0.136
1.700E-06,-0.088
1.710E-06,-0.020
1.720E-06,0.160
1.730E-06,0.056
1.740E-06,0.008
1.750E-06,0.016
1.760E-06,0.028
1.770E-06,-0.128
1.780E-06,-0.060
1.790E-06,-0.032
1.800E-06,0.004
1.810E-06,0.112
1.820E-06,0.088
1.830E-06,0.036
1.840E-06,-0.024
1.850E-06,-0.040
1.860E-06,-0.064
1.870E-06,0.020
1.880E-06,0.072
1.890E-06,0.108
1.900E-06,0.100
1.910E-06,0.072
1.920E-06,0.028
1.930E-06,0.056
1.940E-06,-0.048
1.950E-06,-0.160
1.960E-06,-0.212
1.970E-06,-0.056
1.980E-06,0.160
1.990E-06,0.244
2.000E-06,0.236
2.010E-06,0.072
2.020E-06,-0.072
2.030E-06,-0.140
2.040E-06,-0.140
2.050E-06,-0.020
2.060E-06,0.100
2.070E-06,0.112
2.080E-06,0.028
2.090E-06,-0.032
2.100E-06,-0.136
2.110E-06,-0.224
2.120E-06,-0.112
2.130E-06,-0.032
2.140E-06,0.124
2.150E-06,0.216
2.160E-06,0.136
2.170E-06,0.012
2.180E-06,-0.088
2.190E-06,-0.080
2.200E-06,-0.056
2.210E-06,0.088
2.220E-06,0.076
2.230E-06,0.072
2.240E-06,-0.104
2.250E-06,-0.152
2.260E-06,-0.144
2.270E-06,-0.112
2.280E-06,0.064
2.290E-06,0.092
2.300E-06,0.068
2.310E-06,0.040
2.320E-06,0.036
2.330E-06,-0.008
2.340E-06,-0.040
2.350E-06,-0.056
2.360E-06,-0.048
2.370E-06,0.024
2.380E-06,0.068
2.390E-06,0.100
2.400E-06,0.056
2.410E-06,0.012
2.420E-06,-0.028
2.430E-06,-0.020
2.440E-06,0.028
2.450E-06,0.100
2.460E-06,0.176
2.470E-06,0.224
2.480E-06,0.112
2.490E-06,-0.044
2.500E-06,-0.176
2.510E-06,-0.252
2.520E-06,-0.188
2.530E-06,-0.076
2.540E-06,0.060
2.550E-06,0.128
2.560E-06,0.136
2.570E-06,0.052
2.580E-06,-0.048
2.590E-06,-0.116
2.600E-06,-0.132
2.610E-06,-0.072
2.620E-06,0.016
2.630E-06,0.096
2.640E-06,0.108
2.650E-06,0.064
2.660E-06,-0.004
2.670E-06,-0.064
2.680E-06,-0.080
2.690E-06,-0.052
2.700E-06,-0.004
2.710E-06,0.060
2.720E-06,0.096
2.730E-06,0.092
2.740E-06,0.076
2.750E-06,0.040
2.760E-06,0.036
2.770E-06,0.064
2.780E-06,0.112
2.790E-06,0.152
2.800E-06,0.164
2.810E-06,0.116
2.820E-06,0.044
2.830E-06,-0.012
2.840E-06,-0.028
2.850E-06,0.016
2.860E-06,-0.008
2.870E-06,0.040
2.880E-06,0.092
2.890E-06,0.204
2.900E-06,0.196
2.910E-06,0.140
2.920E-06,0.020
2.930E-06,-0.136
2.940E-06,-0.168
2.950E-06,-0.260
2.960E-06,-0.392
2.970E-06,-0.316
2.980E-06,-0.416
2.990E-06,0.032
3.000E-06,0.140
3.010E-06,0.216
3.020E-06,0.020
3.030E-06,0.020
3.040E-06,-0.160
3.050E-06,-0.248
3.060E-06,-0.100
3.070E-06,0.048
3.080E-06,0.220
3.090E-06,0.152
3.100E-06,0.088
3.110E-06,-0.072
3.120E-06,-0.140
3.130E-06,-0.148
3.140E-06,-0.088
3.150E-06,0.024
3.160E-06,0.128
3.170E-06,0.156
3.180E-06,0.092
3.190E-06,-0.008
3.200E-06,-0.080
3.210E-06,-0.080
3.220E-06,-0.036
3.230E-06,0.008
3.240E-06,0.056
3.250E-06,0.064
3.260E-06,0.024
3.270E-06,-0.020
3.280E-06,-0.068
3.290E-06,-0.032
3.300E-06,0.008
3.310E-06,0.032
3.320E-06,0.044
3.330E-06,0.072
3.340E-06,0.072
3.350E-06,0.072
3.360E-06,0.052
3.370E-06,0.036
3.380E-06,0.076
3.390E-06,0.108
3.400E-06,0.144
3.410E-06,0.180
3.420E-06,0.192
3.430E-06,0.240
3.440E-06,0.176
3.450E-06,0.048
3.460E-06,-0.156
3.470E-06,-0.352
3.480E-06,-0.480
3.490E-06,-0.376
3.500E-06,-0.064
3.510E-06,0.228
3.520E-06,0.332
3.530E-06,0.272
3.540E-06,0.124
3.550E-06,-0.136
3.560E-06,-0.292
3.570E-06,-0.240
3.580E-06,-0.008
3.590E-06,0.268
3.600E-06,0.360
3.610E-06,0.360
3.620E-06,0.204
3.630E-06,-0.104
3.640E-06,-0.480
3.650E-06,-0.504
3.660E-06,-0.384
3.670E-06,-0.104
3.680E-06,0.148
3.690E-06,0.324
3.700E-06,0.312
3.710E-06,0.108
3.720E-06,-0.172
3.730E-06,-0.344
3.740E-06,-0.308
3.750E-06,-0.132
3.760E-06,0.140
3.770E-06,0.228
3.780E-06,0.236
3.790E-06,0.084
3.800E-06,-0.068
3.810E-06,-0.164
3.820E-06,-0.152
3.830E-06,-0.048
3.840E-06,0.132
3.850E-06,0.260
3.860E-06,0.288
3.870E-06,0.240
3.880E-06,0.156
3.890E-06,0.068
3.900E-06,0.056
3.910E-06,0.084
3.920E-06,0.124
3.930E-06,0.152
3.940E-06,0.132
3.950E-06,0.056
3.960E-06,-0.072
3.970E-06,-0.168
3.980E-06,-0.204
3.990E-06,-0.172
4.000E-06,-0.072
4.010E-06,0.016
4.020E-06,0.108
4.030E-06,0.104
4.040E-06,0.084
4.050E-06,0.012
4.060E-06,0.024
4.070E-06,0.056
4.080E-06,0.152
4.090E-06,0.204
4.100E-06,0.224
4.110E-06,0.180
4.120E-06,0.060
4.130E-06,-0.016
4.140E-06,-0.084
4.150E-06,-0.076
4.160E-06,0.004
4.170E-06,0.064
4.180E-06,0.124
4.190E-06,0.172
4.200E-06,0.180
4.210E-06,0.116
4.220E-06,0.088
4.230E-06,0.076
4.240E-06,-0.032
4.250E-06,-0.056
4.260E-06,0.124
4.270E-06,0.116
4.280E-06,0.156
4.290E-06,0.108
4.300E-06,0.092
4.310E-06,0.092
4.320E-06,0.052
4.330E-06,0.112
4.340E-06,0.160
4.350E-06,0.208
4.360E-06,0.168
4.370E-06,0.152
4.380E-06,-0.128
4.390E-06,-0.284
4.400E-06,-0.512
4.410E-06,-0.512
4.420E-06,-0.368
4.430E-06,-0.212
4.440E-06,0.496
4.450E-06,0.488
4.460E-06,0.512
4.470E-06,0.284
4.480E-06,-0.072
4.490E-06,-0.512
4.500E-06,-0.488
4.510E-06,-0.240
4.520E-06,-0.076
4.530E-06,0.208
4.540E-06,0.204
4.550E-06,0.044
4.560E-06,-0.068
4.570E-06,-0.348
4.580E-06,-0.288
4.590E-06,-0.188
4.600E-06,0.092
4.610E-06,0.072
4.620E-06,0.132
4.630E-06,0.136
4.640E-06,-0.060
4.650E-06,-0.196
4.660E-06,-0.184
4.670E-06,-0.072
4.680E-06,-0.036
4.690E-06,0.040
4.700E-06,0.148
4.710E-06,0.148
4.720E-06,0.096
4.730E-06,-0.004
4.740E-06,-0.008
4.750E-06,0.044
4.760E-06,0.072
4.770E-06,0.120
4.780E-06,0.200
4.790E-06,0.192
4.800E-06,0.112
4.810E-06,0.044
4.820E-06,0.048
4.830E-06,0.044
4.840E-06,0.012
4.850E-06,0.044
4.860E-06,0.096
4.870E-06,0.100
4.880E-06,0.128
4.890E-06,0.132
4.900E-06,0.088
4.910E-06,0.048
4.920E-06,0.024
4.930E-06,0.040
4.940E-06,0.036
4.950E-06,0.100
4.960E-06,0.112
4.970E-06,0.104
4.980E-06,0.056
4.990E-06,0.008
5.000E-06,-0.004
5.010E-06,-0.020
5.020E-06,0.040
5.030E-06,0.092
5.040E-06,0.148
5.050E-06,0.152
5.060E-06,0.172
5.070E-06,0.092
5.080E-06,0.040
5.090E-06,0.048
5.100E-06,0.080
5.110E-06,0.112
5.120E-06,0.140
5.130E-06,0.160
5.140E-06,0.156
5.150E-06,0.116
5.160E-06,0.080
5.170E-06,0.084
5.180E-06,0.124
5.190E-06,0.204
5.200E-06,0.240
5.210E-06,0.264
5.220E-06,0.228
5.230E-06,0.188
5.240E-06,0.148
5.250E-06,0.140
5.260E-06,0.156
5.270E-06,0.188
5.280E-06,0.224
5.290E-06,0.216
5.300E-06,0.176
5.310E-06,0.120
5.320E-06,0.064
5.330E-06,0.032
5.340E-06,0.028
5.350E-06,0.056
5.360E-06,0.076
5.370E-06,0.096
5.380E-06,0.096
5.390E-06,0.088
5.400E-06,0.064
5.410E-06,0.040
5.420E-06,0.044
5.430E-06,0.068
5.440E-06,0.152
5.450E-06,0.200
5.460E-06,0.200
5.470E-06,0.140
5.480E-06,0.068
5.490E-06,0.052
5.500E-06,-0.004
5.510E-06,0.068
5.520E-06,0.196
5.530E-06,0.332
5.540E-06,0.292
5.550E-06,0.192
5.560E-06,0.068
5.570E-06,-0.036
5.580E-06,-0.048
5.590E-06,-0.004
5.600E-06,0.108
5.610E-06,0.200
5.620E-06,0.236
5.630E-06,0.204
5.640E-06,0.088
5.650E-06,0.052
5.660E-06,0.060
5.670E-06,0.104
5.680E-06,0.208
5.690E-06,0.284
5.700E-06,0.312
5.710E-06,0.284
5.720E-06,0.204
5.730E-06,0.144
5.740E-06,0.120
5.750E-06,0.136
5.760E-06,0.200
5.770E-06,0.264
5.780E-06,0.284
5.790E-06,0.268
5.800E-06,0.216
5.810E-06,0.160
5.820E-06,0.140
5.830E-06,0.144
5.840E-06,0.180
5.850E-06,0.232
5.860E-06,0.264
5.870E-06,0.264
5.880E-06,0.232
5.890E-06,0.196
5.900E-06,0.156
5.910E-06,0.156
5.920E-06,0.188
5.930E-06,0.224
5.940E-06,0.244
5.950E-06,0.248
5.960E-06,0.228
5.970E-06,0.196
5.980E-06,0.168
5.990E-06,0.160
6.000E-06,0.180
6.010E-06,0.204
6.020E-06,0.224
6.030E-06,0.236
6.040E-06,0.236
6.050E-06,0.212
6.060E-06,0.192
6.070E-06,0.172
6.080E-06,0.180
6.090E-06,0.196
6.100E-06,0.216
6.110E-06,0.224
6.120E-06,0.220
6.130E-06,0.208
6.140E-06,0.196
6.150E-06,0.180
6.160E-06,0.180
6.170E-06,0.192
6.180E-06,0.204
6.190E-06,0.220
6.200E-06,0.224
6.210E-06,0.208
6.220E-06,0.200
6.230E-06,0.192
6.240E-06,0.188
6.250E-06,0.192
6.260E-06,0.196
6.270E-06,0.204
6.280E-06,0.212
6.290E-06,0.208
6.300E-06,0.200
6.310E-06,0.196
6.320E-06,0.188
6.330E-06,0.188
6.340E-06,0.196
6.350E-06,0.200
6.360E-06,0.208
6.370E-06,0.204
6.380E-06,0.200
6.390E-06,0.196
6.400E-06,0.192
6.410E-06,0.184
6.420E-06,0.188
6.430E-06,0.196
6.440E-06,0.196
6.450E-06,0.192
6.460E-06,0.196
6.470E-06,0.196
6.480E-06,0.188
6.490E-06,0.192
6.500E-06,0.192
6.510E-06,0.192
6.520E-06,0.200
6.530E-06,0.196
6.540E-06,0.196
6.550E-06,0.188
6.560E-06,0.192
6.570E-06,0.188
6.580E-06,0.188
6.590E-06,0.188
6.600E-06,0.192
6.610E-06,0.192
6.620E-06,0.196
6.630E-06,0.188
6.640E-06,0.184
6.650E-06,0.188
6.660E-06,0.180
6.670E-06,0.188
6.680E-06,0.188
6.690E-06,0.188
6.700E-06,0.188
6.710E-06,0.188
6.720E-06,0.184
6.730E-06,0.180
6.740E-06,0.172
6.750E-06,0.172
6.760E-06,0.184
6.770E-06,0.192
6.780E-06,0.176
6.790E-06,0.172
6.800E-06,0.180
6.810E-06,0.176
6.820E-06,0.180
6.830E-06,0.180
6.840E-06,0.180
6.850E-06,0.176
6.860E-06,0.180
6.870E-06,0.180
6.880E-06,0.168
6.890E-06,0.164
6.900E-06,0.164
6.910E-06,0.176
6.920E-06,0.180
6.930E-06,0.176
6.940E-06,0.180
6.950E-06,0.176
6.960E-06,0.176
6.970E-06,0.172
6.980E-06,0.172
6.990E-06,0.172
7.000E-06,0.176
7.010E-06,0.176
7.020E-06,0.176
7.030E-06,0.172
7.040E-06,0.168
7.050E-06,0.160
7.060E-06,0.164
7.070E-06,0.168
7.080E-06,0.176
7.090E-06,0.176
7.100E-06,0.172
7.110E-06,0.172
7.120E-06,0.164
7.130E-06,0.168
7.140E-06,0.156
7.150E-06,0.164
7.160E-06,0.176
7.170E-06,0.176
7.180E-06,0.172
7.190E-06,0.168
7.200E-06,0.156
7.210E-06,0.160
7.220E-06,0.160
7.230E-06,0.160
7.240E-06,0.160
7.250E-06,0.160
7.260E-06,0.160
7.270E-06,0.156
7.280E-06,0.152
7.290E-06,0.160
7.300E-06,0.164
7.310E-06,0.160
7.320E-06,0.160
7.330E-06,0.156
7.340E-06,0.160
7.350E-06,0.144
7.360E-06,0.152
7.370E-06,0.156
7.380E-06,0.160
7.390E-06,0.152
7.400E-06,0.156
7.410E-06,0.156
7.420E-06,0.160
7.430E-06,0.152
7.440E-06,0.156
7.450E-06,0.152
7.460E-06,0.152
7.470E-06,0.156
7.480E-06,0.156
7.490E-06,0.160
7.500E-06,0.160
7.510E-06,0.152
7.520E-06,0.152
7.530E-06,0.148
7.540E-06,0.144
7.550E-06,0.148
7.560E-06,0.148
7.570E-06,0.148
7.580E-06,0.144
7.590E-06,0.144
7.600E-06,0.144
7.610E-06,0.144
7.620E-06,0.140
7.630E-06,0.140
7.640E-06,0.144
7.650E-06,0.140
7.660E-06,0.144
7.670E-06,0.144
7.680E-06,0.148
7.690E-06,0.144
7.700E-06,0.136
7.710E-06,0.140
