mediciones/6-26/36.0/WaveData59181.csv

#timebase=2000000(ps)
,#voltbase=500000(mv/100)
#size=4000
-8.150E-06,0.100
-8.140E-06,0.040
-8.130E-06,0.060
-8.120E-06,0.040
-8.110E-06,0.060
-8.100E-06,0.060
-8.090E-06,0.080
-8.080E-06,0.060
-8.070E-06,0.080
-8.060E-06,0.060
-8.050E-06,0.080
-8.040E-06,0.060
-8.030E-06,0.020
-8.020E-06,0.060
-8.010E-06,0.080
-8.000E-06,0.080
-7.990E-06,0.080
-7.980E-06,0.040
-7.970E-06,0.020
-7.960E-06,0.060
-7.950E-06,0.080
-7.940E-06,0.080
-7.930E-06,0.080
-7.920E-06,0.040
-7.910E-06,0.060
-7.900E-06,0.060
-7.890E-06,0.060
-7.880E-06,0.080
-7.870E-06,0.060
-7.860E-06,0.020
-7.850E-06,0.040
-7.840E-06,0.060
-7.830E-06,0.040
-7.820E-06,0.040
-7.810E-06,0.060
-7.800E-06,0.060
-7.790E-06,0.040
-7.780E-06,0.020
-7.770E-06,0.060
-7.760E-06,0.040
-7.750E-06,0.060
-7.740E-06,0.080
-7.730E-06,0.040
-7.720E-06,0.060
-7.710E-06,0.060
-7.700E-06,0.060
-7.690E-06,0.060
-7.680E-06,0.060
-7.670E-06,0.080
-7.660E-06,0.040
-7.650E-06,0.040
-7.640E-06,0.060
-7.630E-06,0.020
-7.620E-06,0.020
-7.610E-06,0.060
-7.600E-06,0.040
-7.590E-06,0.100
-7.580E-06,0.040
-7.570E-06,0.040
-7.560E-06,0.060
-7.550E-06,0.060
-7.540E-06,0.060
-7.530E-06,0.060
-7.520E-06,0.040
-7.510E-06,0.060
-7.500E-06,0.100
-7.490E-06,0.100
-7.480E-06,0.040
-7.470E-06,0.100
-7.460E-06,0.040
-7.450E-06,0.080
-7.440E-06,0.060
-7.430E-06,0.080
-7.420E-06,0.080
-7.410E-06,0.040
-7.400E-06,0.060
-7.390E-06,0.060
-7.380E-06,0.080
-7.370E-06,0.060
-7.360E-06,0.060
-7.350E-06,0.020
-7.340E-06,0.040
-7.330E-06,0.100
-7.320E-06,0.060
-7.310E-06,0.080
-7.300E-06,0.040
-7.290E-06,0.080
-7.280E-06,0.040
-7.270E-06,0.060
-7.260E-06,0.060
-7.250E-06,0.040
-7.240E-06,0.040
-7.230E-06,0.100
-7.220E-06,0.060
-7.210E-06,0.060
-7.200E-06,0.100
-7.190E-06,0.060
-7.180E-06,0.080
-7.170E-06,0.040
-7.160E-06,0.060
-7.150E-06,0.080
-7.140E-06,0.080
-7.130E-06,0.060
-7.120E-06,0.060
-7.110E-06,0.040
-7.100E-06,0.080
-7.090E-06,0.060
-7.080E-06,0.080
-7.070E-06,0.060
-7.060E-06,0.040
-7.050E-06,0.060
-7.040E-06,0.060
-7.030E-06,0.060
-7.020E-06,0.060
-7.010E-06,0.060
-7.000E-06,0.060
-6.990E-06,0.100
-6.980E-06,0.060
-6.970E-06,0.080
-6.960E-06,0.080
-6.950E-06,0.080
-6.940E-06,0.080
-6.930E-06,0.080
-6.920E-06,0.080
-6.910E-06,0.080
-6.900E-06,0.040
-6.890E-06,0.060
-6.880E-06,0.080
-6.870E-06,0.060
-6.860E-06,0.060
-6.850E-06,0.060
-6.840E-06,0.060
-6.830E-06,0.060
-6.820E-06,0.080
-6.810E-06,0.040
-6.800E-06,0.060
-6.790E-06,0.060
-6.780E-06,0.080
-6.770E-06,0.080
-6.760E-06,0.080
-6.750E-06,0.040
-6.740E-06,0.040
-6.730E-06,0.100
-6.720E-06,0.080
-6.710E-06,0.060
-6.700E-06,0.040
-6.690E-06,0.040
-6.680E-06,0.060
-6.670E-06,0.040
-6.660E-06,0.060
-6.650E-06,0.080
-6.640E-06,0.040
-6.630E-06,0.060
-6.620E-06,0.060
-6.610E-06,0.080
-6.600E-06,0.060
-6.590E-06,0.080
-6.580E-06,0.020
-6.570E-06,0.040
-6.560E-06,0.080
-6.550E-06,0.080
-6.540E-06,0.040
-6.530E-06,0.040
-6.520E-06,0.060
-6.510E-06,0.060
-6.500E-06,0.060
-6.490E-06,0.060
-6.480E-06,0.060
-6.470E-06,0.060
-6.460E-06,0.080
-6.450E-06,0.040
-6.440E-06,0.080
-6.430E-06,0.080
-6.420E-06,0.080
-6.410E-06,0.040
-6.400E-06,0.060
-6.390E-06,0.080
-6.380E-06,0.040
-6.370E-06,0.080
-6.360E-06,0.060
-6.350E-06,0.020
-6.340E-06,0.020
-6.330E-06,0.040
-6.320E-06,0.040
-6.310E-06,0.040
-6.300E-06,0.080
-6.290E-06,0.080
-6.280E-06,0.020
-6.270E-06,0.040
-6.260E-06,0.040
-6.250E-06,0.060
-6.240E-06,0.060
-6.230E-06,0.060
-6.220E-06,0.080
-6.210E-06,0.040
-6.200E-06,0.060
-6.190E-06,0.080
-6.180E-06,0.100
-6.170E-06,0.060
-6.160E-06,0.060
-6.150E-06,0.060
-6.140E-06,0.060
-6.130E-06,0.060
-6.120E-06,0.060
-6.110E-06,0.060
-6.100E-06,0.060
-6.090E-06,0.060
-6.080E-06,0.060
-6.070E-06,0.080
-6.060E-06,0.060
-6.050E-06,0.080
-6.040E-06,0.060
-6.030E-06,0.040
-6.020E-06,0.060
-6.010E-06,0.060
-6.000E-06,0.060
-5.990E-06,0.060
-5.980E-06,0.080
-5.970E-06,0.060
-5.960E-06,0.020
-5.950E-06,0.060
-5.940E-06,0.080
-5.930E-06,0.060
-5.920E-06,0.040
-5.910E-06,0.020
-5.900E-06,0.080
-5.890E-06,0.040
-5.880E-06,0.060
-5.870E-06,0.060
-5.860E-06,0.060
-5.850E-06,0.060
-5.840E-06,0.060
-5.830E-06,0.060
-5.820E-06,0.060
-5.810E-06,0.060
-5.800E-06,0.060
-5.790E-06,0.100
-5.780E-06,0.060
-5.770E-06,0.040
-5.760E-06,0.080
-5.750E-06,0.080
-5.740E-06,0.060
-5.730E-06,0.020
-5.720E-06,0.060
-5.710E-06,0.040
-5.700E-06,0.060
-5.690E-06,0.060
-5.680E-06,0.100
-5.670E-06,0.040
-5.660E-06,0.040
-5.650E-06,0.060
-5.640E-06,0.060
-5.630E-06,0.060
-5.620E-06,0.060
-5.610E-06,0.080
-5.600E-06,0.040
-5.590E-06,0.080
-5.580E-06,0.060
-5.570E-06,0.060
-5.560E-06,0.040
-5.550E-06,0.040
-5.540E-06,0.060
-5.530E-06,0.040
-5.520E-06,0.040
-5.510E-06,0.040
-5.500E-06,0.020
-5.490E-06,0.060
-5.480E-06,0.080
-5.470E-06,0.060
-5.460E-06,0.060
-5.450E-06,0.080
-5.440E-06,0.060
-5.430E-06,0.080
-5.420E-06,0.040
-5.410E-06,0.060
-5.400E-06,0.060
-5.390E-06,0.060
-5.380E-06,0.040
-5.370E-06,0.040
-5.360E-06,0.040
-5.350E-06,0.060
-5.340E-06,0.060
-5.330E-06,0.080
-5.320E-06,0.060
-5.310E-06,0.060
-5.300E-06,0.040
-5.290E-06,0.080
-5.280E-06,0.060
-5.270E-06,0.060
-5.260E-06,0.080
-5.250E-06,0.060
-5.240E-06,0.040
-5.230E-06,0.060
-5.220E-06,0.080
-5.210E-06,0.060
-5.200E-06,0.080
-5.190E-06,0.080
-5.180E-06,0.080
-5.170E-06,0.080
-5.160E-06,0.080
-5.150E-06,0.040
-5.140E-06,0.040
-5.130E-06,0.060
-5.120E-06,0.060
-5.110E-06,0.060
-5.100E-06,0.040
-5.090E-06,0.000
-5.080E-06,0.000
-5.070E-06,0.080
-5.060E-06,0.400
-5.050E-06,1.200
-5.040E-06,2.040
-5.030E-06,2.300
-5.020E-06,1.980
-5.010E-06,1.080
-5.000E-06,0.260
-4.990E-06,-1.160
-4.980E-06,-1.160
-4.970E-06,-1.540
-4.960E-06,-1.920
-4.950E-06,-2.040
-4.940E-06,-2.280
-4.930E-06,-2.220
-4.920E-06,-1.860
-4.910E-06,-1.320
-4.900E-06,-0.660
-4.890E-06,-0.120
-4.880E-06,0.080
-4.870E-06,0.240
-4.860E-06,0.320
-4.850E-06,0.400
-4.840E-06,0.560
-4.830E-06,0.580
-4.820E-06,0.700
-4.810E-06,0.560
-4.800E-06,0.500
-4.790E-06,0.480
-4.780E-06,0.500
-4.770E-06,0.600
-4.760E-06,0.640
-4.750E-06,0.680
-4.740E-06,0.620
-4.730E-06,0.460
-4.720E-06,0.300
-4.710E-06,0.140
-4.700E-06,0.000
-4.690E-06,-0.160
-4.680E-06,-0.160
-4.670E-06,-0.180
-4.660E-06,-0.160
-4.650E-06,-0.120
-4.640E-06,0.000
-4.630E-06,0.120
-4.620E-06,0.300
-4.610E-06,0.500
-4.600E-06,0.640
-4.590E-06,0.760
-4.580E-06,0.840
-4.570E-06,0.800
-4.560E-06,0.740
-4.550E-06,0.560
-4.540E-06,0.400
-4.530E-06,0.200
-4.520E-06,0.040
-4.510E-06,-0.160
-4.500E-06,-0.340
-4.490E-06,-0.540
-4.480E-06,-0.720
-4.470E-06,-0.900
-4.460E-06,-1.040
-4.450E-06,-1.160
-4.440E-06,-1.100
-4.430E-06,-1.000
-4.420E-06,-0.840
-4.410E-06,-0.600
-4.400E-06,-0.420
-4.390E-06,-0.260
-4.380E-06,0.000
-4.370E-06,0.160
-4.360E-06,0.400
-4.350E-06,0.560
-4.340E-06,0.740
-4.330E-06,0.700
-4.320E-06,0.700
-4.310E-06,0.620
-4.300E-06,0.560
-4.290E-06,0.440
-4.280E-06,0.380
-4.270E-06,0.260
-4.260E-06,0.120
-4.250E-06,0.020
-4.240E-06,-0.060
-4.230E-06,-0.100
-4.220E-06,-0.080
-4.210E-06,-0.100
-4.200E-06,-0.080
-4.190E-06,-0.120
-4.180E-06,-0.140
-4.170E-06,-0.200
-4.160E-06,-0.180
-4.150E-06,-0.160
-4.140E-06,-0.100
-4.130E-06,-0.040
-4.120E-06,0.020
-4.110E-06,0.080
-4.100E-06,0.120
-4.090E-06,0.180
-4.080E-06,0.160
-4.070E-06,0.220
-4.060E-06,0.220
-4.050E-06,0.220
-4.040E-06,0.280
-4.030E-06,0.340
-4.020E-06,0.340
-4.010E-06,0.320
-4.000E-06,0.180
-3.990E-06,0.000
-3.980E-06,-0.060
-3.970E-06,-0.080
-3.960E-06,0.020
-3.950E-06,0.080
-3.940E-06,0.100
-3.930E-06,0.080
-3.920E-06,0.020
-3.910E-06,-0.020
-3.900E-06,0.000
-3.890E-06,0.020
-3.880E-06,0.100
-3.870E-06,0.080
-3.860E-06,0.060
-3.850E-06,0.020
-3.840E-06,-0.020
-3.830E-06,-0.040
-3.820E-06,-0.100
-3.810E-06,-0.100
-3.800E-06,-0.120
-3.790E-06,-0.100
-3.780E-06,-0.040
-3.770E-06,0.000
-3.760E-06,0.080
-3.750E-06,0.180
-3.740E-06,0.040
-3.730E-06,0.080
-3.720E-06,-0.080
-3.710E-06,-0.060
-3.700E-06,0.080
-3.690E-06,0.240
-3.680E-06,0.300
-3.670E-06,0.320
-3.660E-06,0.160
-3.650E-06,-0.020
-3.640E-06,-0.020
-3.630E-06,0.000
-3.620E-06,0.100
-3.610E-06,0.240
-3.600E-06,0.260
-3.590E-06,0.180
-3.580E-06,0.100
-3.570E-06,0.060
-3.560E-06,0.040
-3.550E-06,0.100
-3.540E-06,0.200
-3.530E-06,0.220
-3.520E-06,0.200
-3.510E-06,0.120
-3.500E-06,0.020
-3.490E-06,0.040
-3.480E-06,0.060
-3.470E-06,0.020
-3.460E-06,0.080
-3.450E-06,0.060
-3.440E-06,0.000
-3.430E-06,0.060
-3.420E-06,0.080
-3.410E-06,0.080
-3.400E-06,0.080
-3.390E-06,-0.020
-3.380E-06,-0.060
-3.370E-06,-0.080
-3.360E-06,-0.080
-3.350E-06,-0.040
-3.340E-06,0.000
-3.330E-06,0.000
-3.320E-06,0.000
-3.310E-06,-0.020
-3.300E-06,-0.040
-3.290E-06,0.040
-3.280E-06,0.120
-3.270E-06,0.180
-3.260E-06,0.240
-3.250E-06,0.240
-3.240E-06,0.200
-3.230E-06,0.160
-3.220E-06,0.220
-3.210E-06,0.220
-3.200E-06,0.220
-3.190E-06,0.220
-3.180E-06,0.160
-3.170E-06,0.120
-3.160E-06,0.080
-3.150E-06,0.080
-3.140E-06,0.020
-3.130E-06,0.080
-3.120E-06,0.060
-3.110E-06,-0.040
-3.100E-06,-0.580
-3.090E-06,-0.140
-3.080E-06,-0.380
-3.070E-06,0.020
-3.060E-06,0.580
-3.050E-06,0.500
-3.040E-06,0.400
-3.030E-06,0.140
-3.020E-06,-0.160
-3.010E-06,-0.100
-3.000E-06,0.040
-2.990E-06,0.340
-2.980E-06,0.580
-2.970E-06,0.340
-2.960E-06,0.180
-2.950E-06,-0.020
-2.940E-06,-0.140
-2.930E-06,-0.020
-2.920E-06,0.120
-2.910E-06,0.280
-2.900E-06,0.280
-2.890E-06,0.160
-2.880E-06,0.020
-2.870E-06,-0.120
-2.860E-06,-0.100
-2.850E-06,-0.020
-2.840E-06,-0.020
-2.830E-06,0.040
-2.820E-06,0.000
-2.810E-06,-0.040
-2.800E-06,-0.160
-2.790E-06,-0.340
-2.780E-06,-0.340
-2.770E-06,-0.360
-2.760E-06,-0.220
-2.750E-06,0.020
-2.740E-06,0.100
-2.730E-06,0.080
-2.720E-06,-0.140
-2.710E-06,-0.400
-2.700E-06,-0.420
-2.690E-06,-0.240
-2.680E-06,0.120
-2.670E-06,0.440
-2.660E-06,0.700
-2.650E-06,0.740
-2.640E-06,0.580
-2.630E-06,0.500
-2.620E-06,0.460
-2.610E-06,0.520
-2.600E-06,0.520
-2.590E-06,0.600
-2.580E-06,0.520
-2.570E-06,0.360
-2.560E-06,0.120
-2.550E-06,-0.020
-2.540E-06,-0.180
-2.530E-06,-0.260
-2.520E-06,-0.260
-2.510E-06,-0.260
-2.500E-06,-0.260
-2.490E-06,-0.360
-2.480E-06,-0.420
-2.470E-06,-0.440
-2.460E-06,-0.360
-2.450E-06,-0.300
-2.440E-06,-0.180
-2.430E-06,-0.080
-2.420E-06,0.000
-2.410E-06,0.020
-2.400E-06,0.100
-2.390E-06,0.080
-2.380E-06,0.100
-2.370E-06,0.180
-2.360E-06,0.220
-2.350E-06,0.180
-2.340E-06,0.160
-2.330E-06,0.000
-2.320E-06,0.020
-2.310E-06,-0.020
-2.300E-06,-0.380
-2.290E-06,-0.340
-2.280E-06,-0.320
-2.270E-06,-0.200
-2.260E-06,0.280
-2.250E-06,0.560
-2.240E-06,0.540
-2.230E-06,0.280
-2.220E-06,-0.220
-2.210E-06,-0.240
-2.200E-06,-0.060
-2.190E-06,0.240
-2.180E-06,0.620
-2.170E-06,0.700
-2.160E-06,0.580
-2.150E-06,0.340
-2.140E-06,-0.040
-2.130E-06,0.000
-2.120E-06,-0.020
-2.110E-06,-0.040
-2.100E-06,0.200
-2.090E-06,0.020
-2.080E-06,0.000
-2.070E-06,0.300
-2.060E-06,0.560
-2.050E-06,0.500
-2.040E-06,0.300
-2.030E-06,-0.220
-2.020E-06,-0.360
-2.010E-06,-0.600
-2.000E-06,-0.400
-1.990E-06,-0.120
-1.980E-06,0.080
-1.970E-06,0.140
-1.960E-06,0.060
-1.950E-06,-0.160
-1.940E-06,-0.260
-1.930E-06,-0.220
-1.920E-06,-0.100
-1.910E-06,0.100
-1.900E-06,0.200
-1.890E-06,0.240
-1.880E-06,0.200
-1.870E-06,0.100
-1.860E-06,0.020
-1.850E-06,0.060
-1.840E-06,0.100
-1.830E-06,0.160
-1.820E-06,0.140
-1.810E-06,0.060
-1.800E-06,0.000
-1.790E-06,-0.080
-1.780E-06,-0.080
-1.770E-06,-0.020
-1.760E-06,-0.020
-1.750E-06,-0.040
-1.740E-06,-0.060
-1.730E-06,-0.180
-1.720E-06,-0.320
-1.710E-06,-0.620
-1.700E-06,-0.260
-1.690E-06,-0.460
-1.680E-06,-0.320
-1.670E-06,0.020
-1.660E-06,-0.160
-1.650E-06,0.080
-1.640E-06,0.540
-1.630E-06,1.000
-1.620E-06,1.120
-1.610E-06,0.780
-1.600E-06,0.200
-1.590E-06,-0.020
-1.580E-06,-0.240
-1.570E-06,0.040
-1.560E-06,0.420
-1.550E-06,0.580
-1.540E-06,0.500
-1.530E-06,0.220
-1.520E-06,-0.140
-1.510E-06,-0.380
-1.500E-06,-0.120
-1.490E-06,-0.180
-1.480E-06,-0.260
-1.470E-06,-0.320
-1.460E-06,-0.600
-1.450E-06,0.000
-1.440E-06,0.660
-1.430E-06,1.160
-1.420E-06,1.000
-1.410E-06,0.320
-1.400E-06,-0.580
-1.390E-06,-0.760
-1.380E-06,-0.580
-1.370E-06,0.060
-1.360E-06,0.680
-1.350E-06,0.920
-1.340E-06,0.680
-1.330E-06,0.160
-1.320E-06,-0.500
-1.310E-06,-0.680
-1.300E-06,-0.400
-1.290E-06,0.000
-1.280E-06,0.340
-1.270E-06,0.420
-1.260E-06,0.160
-1.250E-06,-0.120
-1.240E-06,-0.320
-1.230E-06,-0.340
-1.220E-06,-0.140
-1.210E-06,0.160
-1.200E-06,0.260
-1.190E-06,0.240
-1.180E-06,0.020
-1.170E-06,-0.120
-1.160E-06,-0.160
-1.150E-06,-0.220
-1.140E-06,0.040
-1.130E-06,-0.200
-1.120E-06,-0.460
-1.110E-06,-0.480
-1.100E-06,-0.500
-1.090E-06,-0.120
-1.080E-06,0.600
-1.070E-06,1.080
-1.060E-06,1.020
-1.050E-06,0.580
-1.040E-06,-0.060
-1.030E-06,-0.320
-1.020E-06,-0.260
-1.010E-06,0.080
-1.000E-06,0.460
-9.900E-07,0.580
-9.800E-07,0.400
-9.700E-07,0.120
-9.600E-07,-0.160
-9.500E-07,-0.240
-9.400E-07,-0.160
-9.300E-07,0.000
-9.200E-07,0.100
-9.100E-07,0.120
-9.000E-07,0.000
-8.900E-07,-0.160
-8.800E-07,-0.260
-8.700E-07,-0.320
-8.600E-07,-0.280
-8.500E-07,-0.060
-8.400E-07,-0.020
-8.300E-07,0.020
-8.200E-07,0.060
-8.100E-07,0.120
-8.000E-07,0.540
-7.900E-07,0.120
-7.800E-07,0.160
-7.700E-07,0.360
-7.600E-07,0.100
-7.500E-07,0.660
-7.400E-07,1.300
-7.300E-07,1.520
-7.200E-07,1.080
-7.100E-07,0.380
-7.000E-07,-0.160
-6.900E-07,-0.420
-6.800E-07,-0.340
-6.700E-07,0.040
-6.600E-07,0.420
-6.500E-07,0.700
-6.400E-07,0.800
-6.300E-07,0.480
-6.200E-07,-0.040
-6.100E-07,-0.420
-6.000E-07,-0.680
-5.900E-07,-0.120
-5.800E-07,-0.220
-5.700E-07,0.000
-5.600E-07,0.320
-5.500E-07,0.380
-5.400E-07,0.100
-5.300E-07,0.320
-5.200E-07,0.180
-5.100E-07,0.180
-5.000E-07,0.360
-4.900E-07,0.620
-4.800E-07,1.360
-4.700E-07,1.740
-4.600E-07,1.420
-4.500E-07,0.780
-4.400E-07,0.060
-4.300E-07,-0.640
-4.200E-07,-0.900
-4.100E-07,-1.020
-4.000E-07,-1.100
-3.900E-07,-0.940
-3.800E-07,-0.480
-3.700E-07,-0.380
-3.600E-07,-0.080
-3.500E-07,-0.080
-3.400E-07,-0.200
-3.300E-07,0.000
-3.200E-07,-0.120
-3.100E-07,0.160
-3.000E-07,0.460
-2.900E-07,0.620
-2.800E-07,0.760
-2.700E-07,0.840
-2.600E-07,1.000
-2.500E-07,1.120
-2.400E-07,1.060
-2.300E-07,1.180
-2.200E-07,1.460
-2.100E-07,1.700
-2.000E-07,1.860
-1.900E-07,1.860
-1.800E-07,1.760
-1.700E-07,1.620
-1.600E-07,1.600
-1.500E-07,1.560
-1.400E-07,1.560
-1.300E-07,1.600
-1.200E-07,1.600
-1.100E-07,1.600
-1.000E-07,1.820
-9.000E-08,1.800
-8.000E-08,1.040
-7.000E-08,1.920
-6.000E-08,1.000
-5.000E-08,0.380
-4.000E-08,1.420
-3.000E-08,0.480
-2.000E-08,0.760
-1.000E-08,0.800
0.000E+00,0.780
1.000E-08,0.860
2.000E-08,0.280
3.000E-08,0.180
4.000E-08,0.340
5.000E-08,0.020
6.000E-08,0.700
7.000E-08,0.920
8.000E-08,1.480
9.000E-08,2.120
1.000E-07,2.560
1.100E-07,2.760
1.200E-07,2.760
1.300E-07,2.780
1.400E-07,2.760
1.500E-07,2.380
1.600E-07,1.940
1.700E-07,1.580
1.800E-07,1.860
1.900E-07,2.280
2.000E-07,2.560
2.100E-07,2.440
2.200E-07,2.240
2.300E-07,1.680
2.400E-07,1.600
2.500E-07,1.420
2.600E-07,1.460
2.700E-07,1.500
2.800E-07,1.440
2.900E-07,1.060
3.000E-07,0.780
3.100E-07,0.320
3.200E-07,-0.060
3.300E-07,-0.180
3.400E-07,-0.280
3.500E-07,-0.320
3.600E-07,-0.380
3.700E-07,-0.420
3.800E-07,-0.400
3.900E-07,-0.260
4.000E-07,-0.060
4.100E-07,0.220
4.200E-07,0.480
4.300E-07,0.700
4.400E-07,0.840
4.500E-07,0.960
4.600E-07,1.040
4.700E-07,1.140
4.800E-07,1.160
4.900E-07,1.180
5.000E-07,1.060
5.100E-07,0.900
5.200E-07,0.760
5.300E-07,0.620
5.400E-07,0.540
5.500E-07,0.480
5.600E-07,0.400
5.700E-07,0.340
5.800E-07,0.260
5.900E-07,0.180
6.000E-07,0.180
6.100E-07,0.180
6.200E-07,0.180
6.300E-07,0.300
6.400E-07,0.340
6.500E-07,0.440
6.600E-07,0.520
6.700E-07,0.640
6.800E-07,0.780
6.900E-07,0.900
7.000E-07,1.000
7.100E-07,1.100
7.200E-07,1.140
7.300E-07,1.220
7.400E-07,1.240
7.500E-07,1.220
7.600E-07,1.200
7.700E-07,1.140
7.800E-07,1.080
7.900E-07,1.000
8.000E-07,0.940
8.100E-07,0.860
8.200E-07,0.800
8.300E-07,0.740
8.400E-07,0.740
8.500E-07,0.720
8.600E-07,0.740
8.700E-07,0.780
8.800E-07,0.860
8.900E-07,0.900
9.000E-07,0.960
9.100E-07,1.020
9.200E-07,1.100
9.300E-07,1.140
9.400E-07,1.120
9.500E-07,1.160
9.600E-07,1.160
9.700E-07,1.120
9.800E-07,1.120
9.900E-07,1.120
1.000E-06,1.100
1.010E-06,1.080
1.020E-06,1.060
1.030E-06,1.100
1.040E-06,1.060
1.050E-06,1.040
1.060E-06,1.040
1.070E-06,1.080
1.080E-06,1.160
1.090E-06,1.220
1.100E-06,1.200
1.110E-06,1.240
1.120E-06,1.440
1.130E-06,1.560
1.140E-06,1.620
1.150E-06,1.460
1.160E-06,1.280
1.170E-06,1.180
1.180E-06,1.180
1.190E-06,1.120
1.200E-06,1.060
1.210E-06,1.000
1.220E-06,1.020
1.230E-06,0.920
1.240E-06,0.840
1.250E-06,0.720
1.260E-06,0.580
1.270E-06,0.500
1.280E-06,0.360
1.290E-06,0.200
1.300E-06,0.080
1.310E-06,0.020
1.320E-06,-0.120
1.330E-06,-0.160
1.340E-06,-0.220
1.350E-06,-0.260
1.360E-06,-0.280
1.370E-06,-0.320
1.380E-06,-0.320
1.390E-06,-0.320
1.400E-06,-0.340
1.410E-06,-0.320
1.420E-06,-0.380
1.430E-06,-0.320
1.440E-06,-0.240
1.450E-06,-0.140
1.460E-06,0.000
1.470E-06,0.020
1.480E-06,0.080
1.490E-06,0.080
1.500E-06,0.080
1.510E-06,0.020
1.520E-06,0.080
1.530E-06,0.080
1.540E-06,-0.060
1.550E-06,-0.220
1.560E-06,-0.320
1.570E-06,-0.420
1.580E-06,-0.440
1.590E-06,-0.500
1.600E-06,-0.580
1.610E-06,-0.600
1.620E-06,-0.600
1.630E-06,-0.580
1.640E-06,-0.580
1.650E-06,-0.520
1.660E-06,-0.500
1.670E-06,-0.420
1.680E-06,-0.380
1.690E-06,-0.340
1.700E-06,-0.300
1.710E-06,-0.280
1.720E-06,-0.280
1.730E-06,-0.320
1.740E-06,-0.320
1.750E-06,-0.380
1.760E-06,-0.420
1.770E-06,-0.420
1.780E-06,-0.400
1.790E-06,-0.360
1.800E-06,-0.340
1.810E-06,-0.320
1.820E-06,-0.380
1.830E-06,-0.400
1.840E-06,-0.420
1.850E-06,-0.460
1.860E-06,-0.500
1.870E-06,-0.520
1.880E-06,-0.500
1.890E-06,-0.520
1.900E-06,-0.560
1.910E-06,-0.560
1.920E-06,-0.560
1.930E-06,-0.540
1.940E-06,-0.520
1.950E-06,-0.520
1.960E-06,-0.500
1.970E-06,-0.480
1.980E-06,-0.420
1.990E-06,-0.460
2.000E-06,-0.400
2.010E-06,-0.360
2.020E-06,-0.340
2.030E-06,-0.280
2.040E-06,-0.240
2.050E-06,-0.260
2.060E-06,-0.240
2.070E-06,-0.180
2.080E-06,-0.200
2.090E-06,-0.220
2.100E-06,-0.220
2.110E-06,-0.260
2.120E-06,-0.300
2.130E-06,-0.340
2.140E-06,-0.320
2.150E-06,-0.320
2.160E-06,-0.360
2.170E-06,-0.380
2.180E-06,-0.320
2.190E-06,-0.320
2.200E-06,-0.280
2.210E-06,-0.260
2.220E-06,-0.200
2.230E-06,-0.180
2.240E-06,-0.100
2.250E-06,-0.100
2.260E-06,-0.080
2.270E-06,-0.020
2.280E-06,-0.020
2.290E-06,-0.060
2.300E-06,-0.060
2.310E-06,-0.100
2.320E-06,-0.140
2.330E-06,-0.160
2.340E-06,-0.100
2.350E-06,-0.040
2.360E-06,0.020
2.370E-06,0.060
2.380E-06,0.140
2.390E-06,0.200
2.400E-06,0.360
2.410E-06,0.400
2.420E-06,0.520
2.430E-06,0.560
2.440E-06,0.600
2.450E-06,0.640
2.460E-06,0.660
2.470E-06,0.700
2.480E-06,0.660
2.490E-06,0.620
2.500E-06,0.520
2.510E-06,0.420
2.520E-06,0.380
2.530E-06,0.320
2.540E-06,0.280
2.550E-06,0.220
2.560E-06,0.180
2.570E-06,0.040
2.580E-06,-0.060
2.590E-06,-0.120
2.600E-06,-0.180
2.610E-06,-0.240
2.620E-06,-0.260
2.630E-06,-0.300
2.640E-06,-0.320
2.650E-06,-0.360
2.660E-06,-0.420
2.670E-06,-0.420
2.680E-06,-0.420
2.690E-06,-0.340
2.700E-06,-0.320
2.710E-06,-0.280
2.720E-06,-0.220
2.730E-06,-0.200
2.740E-06,-0.180
2.750E-06,-0.160
2.760E-06,-0.140
2.770E-06,-0.140
2.780E-06,-0.120
2.790E-06,-0.140
2.800E-06,-0.160
2.810E-06,-0.140
2.820E-06,-0.160
2.830E-06,-0.160
2.840E-06,-0.160
2.850E-06,-0.100
2.860E-06,-0.040
2.870E-06,-0.020
2.880E-06,-0.060
2.890E-06,-0.020
2.900E-06,-0.040
2.910E-06,-0.060
2.920E-06,-0.060
2.930E-06,-0.060
2.940E-06,-0.080
2.950E-06,-0.040
2.960E-06,-0.040
2.970E-06,0.020
2.980E-06,-0.040
2.990E-06,-0.120
3.000E-06,-0.140
3.010E-06,-0.020
3.020E-06,0.080
3.030E-06,0.120
3.040E-06,0.140
3.050E-06,0.160
3.060E-06,0.220
3.070E-06,0.260
3.080E-06,0.180
3.090E-06,0.080
3.100E-06,0.000
3.110E-06,-0.060
3.120E-06,-0.100
3.130E-06,-0.140
3.140E-06,-0.140
3.150E-06,-0.160
3.160E-06,-0.180
3.170E-06,-0.160
3.180E-06,-0.180
3.190E-06,-0.160
3.200E-06,-0.100
3.210E-06,-0.100
3.220E-06,-0.080
3.230E-06,-0.060
3.240E-06,-0.020
3.250E-06,0.000
3.260E-06,-0.020
3.270E-06,0.000
3.280E-06,0.040
3.290E-06,0.020
3.300E-06,0.040
3.310E-06,0.020
3.320E-06,0.020
3.330E-06,0.000
3.340E-06,0.000
3.350E-06,-0.020
3.360E-06,-0.080
3.370E-06,-0.040
3.380E-06,-0.060
3.390E-06,-0.060
3.400E-06,-0.040
3.410E-06,-0.060
3.420E-06,-0.040
3.430E-06,-0.040
3.440E-06,0.020
3.450E-06,0.020
3.460E-06,0.060
3.470E-06,0.040
3.480E-06,0.040
3.490E-06,0.100
3.500E-06,0.100
3.510E-06,0.100
3.520E-06,0.100
3.530E-06,0.080
3.540E-06,0.060
3.550E-06,0.000
3.560E-06,0.020
