mediciones/6-26/36.0/WaveData59191.csv

#timebase=2000000(ps)
,#voltbase=200000(mv/100)
#size=4000
-8.150E-06,0.000
-8.140E-06,0.000
-8.130E-06,0.000
-8.120E-06,0.000
-8.110E-06,0.000
-8.100E-06,0.000
-8.090E-06,0.000
-8.080E-06,0.000
-8.070E-06,0.008
-8.060E-06,0.008
-8.050E-06,-0.008
-8.040E-06,-0.008
-8.030E-06,0.000
-8.020E-06,-0.008
-8.010E-06,0.000
-8.000E-06,-0.008
-7.990E-06,-0.008
-7.980E-06,0.000
-7.970E-06,-0.008
-7.960E-06,0.000
-7.950E-06,0.008
-7.940E-06,-0.008
-7.930E-06,0.000
-7.920E-06,0.000
-7.910E-06,0.000
-7.900E-06,0.000
-7.890E-06,0.008
-7.880E-06,-0.008
-7.870E-06,-0.008
-7.860E-06,0.000
-7.850E-06,0.008
-7.840E-06,-0.008
-7.830E-06,-0.008
-7.820E-06,0.000
-7.810E-06,0.000
-7.800E-06,0.000
-7.790E-06,0.000
-7.780E-06,0.000
-7.770E-06,0.000
-7.760E-06,0.000
-7.750E-06,0.000
-7.740E-06,0.008
-7.730E-06,0.008
-7.720E-06,0.008
-7.710E-06,-0.008
-7.700E-06,0.000
-7.690E-06,0.000
-7.680E-06,0.000
-7.670E-06,0.000
-7.660E-06,0.000
-7.650E-06,-0.008
-7.640E-06,0.000
-7.630E-06,-0.008
-7.620E-06,-0.008
-7.610E-06,0.000
-7.600E-06,0.008
-7.590E-06,0.008
-7.580E-06,-0.008
-7.570E-06,-0.008
-7.560E-06,0.000
-7.550E-06,0.000
-7.540E-06,0.008
-7.530E-06,0.000
-7.520E-06,0.000
-7.510E-06,0.000
-7.500E-06,0.000
-7.490E-06,0.000
-7.480E-06,0.000
-7.470E-06,0.000
-7.460E-06,0.008
-7.450E-06,0.000
-7.440E-06,0.000
-7.430E-06,0.000
-7.420E-06,0.000
-7.410E-06,0.000
-7.400E-06,0.000
-7.390E-06,0.000
-7.380E-06,0.000
-7.370E-06,0.000
-7.360E-06,0.000
-7.350E-06,0.000
-7.340E-06,0.000
-7.330E-06,-0.008
-7.320E-06,0.000
-7.310E-06,0.000
-7.300E-06,0.000
-7.290E-06,0.000
-7.280E-06,0.000
-7.270E-06,0.000
-7.260E-06,-0.008
-7.250E-06,0.000
-7.240E-06,0.008
-7.230E-06,0.008
-7.220E-06,-0.008
-7.210E-06,-0.008
-7.200E-06,0.000
-7.190E-06,-0.008
-7.180E-06,0.000
-7.170E-06,0.000
-7.160E-06,0.000
-7.150E-06,0.000
-7.140E-06,0.000
-7.130E-06,0.000
-7.120E-06,0.000
-7.110E-06,0.000
-7.100E-06,0.000
-7.090E-06,0.000
-7.080E-06,0.000
-7.070E-06,-0.008
-7.060E-06,0.000
-7.050E-06,0.008
-7.040E-06,0.008
-7.030E-06,-0.008
-7.020E-06,0.000
-7.010E-06,0.000
-7.000E-06,0.000
-6.990E-06,0.000
-6.980E-06,0.000
-6.970E-06,0.000
-6.960E-06,0.000
-6.950E-06,0.000
-6.940E-06,0.000
-6.930E-06,0.000
-6.920E-06,0.000
-6.910E-06,0.000
-6.900E-06,0.000
-6.890E-06,0.000
-6.880E-06,0.000
-6.870E-06,0.008
-6.860E-06,-0.008
-6.850E-06,-0.008
-6.840E-06,0.000
-6.830E-06,-0.008
-6.820E-06,-0.008
-6.810E-06,0.000
-6.800E-06,-0.008
-6.790E-06,0.000
-6.780E-06,0.000
-6.770E-06,0.000
-6.760E-06,0.000
-6.750E-06,0.000
-6.740E-06,0.000
-6.730E-06,0.008
-6.720E-06,-0.008
-6.710E-06,0.000
-6.700E-06,0.000
-6.690E-06,0.000
-6.680E-06,-0.008
-6.670E-06,-0.008
-6.660E-06,0.000
-6.650E-06,0.000
-6.640E-06,0.000
-6.630E-06,0.000
-6.620E-06,0.000
-6.610E-06,0.000
-6.600E-06,0.000
-6.590E-06,0.000
-6.580E-06,0.000
-6.570E-06,0.000
-6.560E-06,0.000
-6.550E-06,0.000
-6.540E-06,-0.008
-6.530E-06,0.000
-6.520E-06,0.000
-6.510E-06,0.000
-6.500E-06,0.008
-6.490E-06,0.008
-6.480E-06,0.008
-6.470E-06,0.008
-6.460E-06,0.008
-6.450E-06,-0.008
-6.440E-06,-0.008
-6.430E-06,0.000
-6.420E-06,0.000
-6.410E-06,0.000
-6.400E-06,0.000
-6.390E-06,0.000
-6.380E-06,0.000
-6.370E-06,0.008
-6.360E-06,-0.008
-6.350E-06,0.000
-6.340E-06,0.000
-6.330E-06,0.000
-6.320E-06,0.000
-6.310E-06,0.000
-6.300E-06,0.000
-6.290E-06,0.000
-6.280E-06,0.000
-6.270E-06,0.000
-6.260E-06,0.000
-6.250E-06,0.000
-6.240E-06,0.000
-6.230E-06,0.000
-6.220E-06,0.008
-6.210E-06,-0.008
-6.200E-06,-0.008
-6.190E-06,0.000
-6.180E-06,-0.008
-6.170E-06,0.000
-6.160E-06,-0.008
-6.150E-06,0.000
-6.140E-06,-0.008
-6.130E-06,0.000
-6.120E-06,0.008
-6.110E-06,-0.008
-6.100E-06,-0.008
-6.090E-06,0.000
-6.080E-06,0.008
-6.070E-06,0.008
-6.060E-06,-0.008
-6.050E-06,0.000
-6.040E-06,0.000
-6.030E-06,0.000
-6.020E-06,0.000
-6.010E-06,0.000
-6.000E-06,-0.008
-5.990E-06,0.000
-5.980E-06,0.008
-5.970E-06,0.008
-5.960E-06,-0.008
-5.950E-06,0.000
-5.940E-06,0.000
-5.930E-06,0.000
-5.920E-06,-0.008
-5.910E-06,0.000
-5.900E-06,0.000
-5.890E-06,0.008
-5.880E-06,0.000
-5.870E-06,0.000
-5.860E-06,0.000
-5.850E-06,0.000
-5.840E-06,0.000
-5.830E-06,0.000
-5.820E-06,0.008
-5.810E-06,0.008
-5.800E-06,0.008
-5.790E-06,0.008
-5.780E-06,-0.008
-5.770E-06,0.000
-5.760E-06,0.000
-5.750E-06,0.000
-5.740E-06,0.000
-5.730E-06,0.000
-5.720E-06,0.000
-5.710E-06,-0.008
-5.700E-06,-0.008
-5.690E-06,0.000
-5.680E-06,-0.008
-5.670E-06,-0.008
-5.660E-06,0.000
-5.650E-06,0.008
-5.640E-06,0.008
-5.630E-06,-0.008
-5.620E-06,0.000
-5.610E-06,0.000
-5.600E-06,0.000
-5.590E-06,-0.008
-5.580E-06,0.000
-5.570E-06,0.000
-5.560E-06,0.000
-5.550E-06,0.000
-5.540E-06,0.000
-5.530E-06,0.000
-5.520E-06,0.000
-5.510E-06,0.000
-5.500E-06,0.000
-5.490E-06,0.008
-5.480E-06,0.008
-5.470E-06,0.008
-5.460E-06,0.008
-5.450E-06,-0.008
-5.440E-06,0.000
-5.430E-06,0.000
-5.420E-06,0.000
-5.410E-06,0.000
-5.400E-06,0.000
-5.390E-06,-0.008
-5.380E-06,0.000
-5.370E-06,0.008
-5.360E-06,0.016
-5.350E-06,-0.008
-5.340E-06,-0.008
-5.330E-06,0.008
-5.320E-06,-0.008
-5.310E-06,-0.008
-5.300E-06,0.000
-5.290E-06,0.000
-5.280E-06,0.000
-5.270E-06,0.000
-5.260E-06,0.000
-5.250E-06,0.000
-5.240E-06,0.000
-5.230E-06,0.000
-5.220E-06,0.000
-5.210E-06,0.000
-5.200E-06,0.000
-5.190E-06,0.000
-5.180E-06,0.000
-5.170E-06,0.000
-5.160E-06,0.000
-5.150E-06,0.008
-5.140E-06,0.000
-5.130E-06,0.000
-5.120E-06,0.000
-5.110E-06,0.000
-5.100E-06,0.000
-5.090E-06,0.000
-5.080E-06,0.000
-5.070E-06,0.000
-5.060E-06,0.000
-5.050E-06,0.000
-5.040E-06,0.000
-5.030E-06,0.008
-5.020E-06,0.008
-5.010E-06,0.008
-5.000E-06,0.008
-4.990E-06,0.008
-4.980E-06,-0.008
-4.970E-06,-0.008
-4.960E-06,0.000
-4.950E-06,-0.008
-4.940E-06,-0.008
-4.930E-06,0.000
-4.920E-06,0.000
-4.910E-06,0.000
-4.900E-06,-0.016
-4.890E-06,-0.024
-4.880E-06,0.008
-4.870E-06,0.200
-4.860E-06,0.792
-4.850E-06,1.080
-4.840E-06,1.088
-4.830E-06,1.080
-4.820E-06,1.088
-4.810E-06,0.952
-4.800E-06,-0.440
-4.790E-06,-1.040
-4.780E-06,-1.032
-4.770E-06,-1.040
-4.760E-06,-1.040
-4.750E-06,-1.048
-4.740E-06,-1.040
-4.730E-06,-1.048
-4.720E-06,-1.048
-4.710E-06,-1.048
-4.700E-06,-0.768
-4.690E-06,-0.440
-4.680E-06,-0.080
-4.670E-06,0.192
-4.660E-06,0.336
-4.650E-06,0.512
-4.640E-06,0.600
-4.630E-06,0.640
-4.620E-06,0.592
-4.610E-06,0.536
-4.600E-06,0.496
-4.590E-06,0.504
-4.580E-06,0.552
-4.570E-06,0.624
-4.560E-06,0.704
-4.550E-06,0.680
-4.540E-06,0.568
-4.530E-06,0.392
-4.520E-06,0.192
-4.510E-06,0.008
-4.500E-06,-0.128
-4.490E-06,-0.192
-4.480E-06,-0.232
-4.470E-06,-0.232
-4.460E-06,-0.216
-4.450E-06,-0.144
-4.440E-06,-0.024
-4.430E-06,0.152
-4.420E-06,0.376
-4.410E-06,0.576
-4.400E-06,0.744
-4.390E-06,0.848
-4.380E-06,0.880
-4.370E-06,0.824
-4.360E-06,0.704
-4.350E-06,0.520
-4.340E-06,0.336
-4.330E-06,0.120
-4.320E-06,-0.096
-4.310E-06,-0.320
-4.300E-06,-0.528
-4.290E-06,-0.760
-4.280E-06,-0.984
-4.270E-06,-1.048
-4.260E-06,-1.040
-4.250E-06,-1.032
-4.240E-06,-1.040
-4.230E-06,-1.032
-4.220E-06,-1.032
-4.210E-06,-0.808
-4.200E-06,-0.552
-4.190E-06,-0.280
-4.180E-06,-0.024
-4.170E-06,0.200
-4.160E-06,0.432
-4.150E-06,0.576
-4.140E-06,0.664
-4.130E-06,0.704
-4.120E-06,0.664
-4.110E-06,0.608
-4.100E-06,0.512
-4.090E-06,0.408
-4.080E-06,0.288
-4.070E-06,0.152
-4.060E-06,0.040
-4.050E-06,-0.040
-4.040E-06,-0.080
-4.030E-06,-0.104
-4.020E-06,-0.104
-4.010E-06,-0.104
-4.000E-06,-0.128
-3.990E-06,-0.168
-3.980E-06,-0.224
-3.970E-06,-0.240
-3.960E-06,-0.248
-3.950E-06,-0.224
-3.940E-06,-0.160
-3.930E-06,-0.096
-3.920E-06,-0.024
-3.910E-06,0.064
-3.900E-06,0.144
-3.890E-06,0.216
-3.880E-06,0.288
-3.870E-06,0.312
-3.860E-06,0.336
-3.850E-06,0.304
-3.840E-06,0.264
-3.830E-06,0.208
-3.820E-06,0.144
-3.810E-06,0.064
-3.800E-06,-0.008
-3.790E-06,-0.056
-3.780E-06,-0.104
-3.770E-06,-0.120
-3.760E-06,-0.120
-3.750E-06,-0.112
-3.740E-06,-0.104
-3.730E-06,-0.080
-3.720E-06,-0.056
-3.710E-06,-0.056
-3.700E-06,-0.064
-3.690E-06,-0.064
-3.680E-06,-0.072
-3.670E-06,-0.080
-3.660E-06,-0.072
-3.650E-06,-0.056
-3.640E-06,-0.040
-3.630E-06,-0.016
-3.620E-06,0.000
-3.610E-06,0.000
-3.600E-06,-0.008
-3.590E-06,-0.016
-3.580E-06,0.000
-3.570E-06,0.024
-3.560E-06,0.072
-3.550E-06,0.104
-3.540E-06,0.112
-3.530E-06,0.136
-3.520E-06,0.112
-3.510E-06,0.088
-3.500E-06,0.080
-3.490E-06,0.056
-3.480E-06,0.024
-3.470E-06,0.000
-3.460E-06,0.000
-3.450E-06,0.008
-3.440E-06,0.024
-3.430E-06,0.032
-3.420E-06,0.032
-3.410E-06,0.040
-3.400E-06,0.024
-3.390E-06,0.064
-3.380E-06,0.088
-3.370E-06,0.128
-3.360E-06,0.176
-3.350E-06,0.200
-3.340E-06,0.176
-3.330E-06,0.184
-3.320E-06,0.128
-3.310E-06,0.112
-3.300E-06,0.160
-3.290E-06,0.184
-3.280E-06,0.224
-3.270E-06,0.208
-3.260E-06,0.184
-3.250E-06,0.160
-3.240E-06,0.112
-3.230E-06,0.136
-3.220E-06,0.176
-3.210E-06,0.216
-3.200E-06,0.224
-3.190E-06,0.184
-3.180E-06,0.136
-3.170E-06,0.080
-3.160E-06,0.016
-3.150E-06,0.024
-3.140E-06,0.000
-3.130E-06,0.240
-3.120E-06,0.224
-3.110E-06,0.288
-3.100E-06,0.184
-3.090E-06,0.200
-3.080E-06,0.288
-3.070E-06,0.384
-3.060E-06,0.496
-3.050E-06,-0.024
-3.040E-06,-0.144
-3.030E-06,-0.312
-3.020E-06,0.024
-3.010E-06,0.368
-3.000E-06,0.776
-2.990E-06,0.768
-2.980E-06,0.464
-2.970E-06,0.016
-2.960E-06,-0.240
-2.950E-06,-0.096
-2.940E-06,0.184
-2.930E-06,0.456
-2.920E-06,0.504
-2.910E-06,0.312
-2.900E-06,-0.064
-2.890E-06,-0.288
-2.880E-06,-0.424
-2.870E-06,-0.344
-2.860E-06,-0.464
-2.850E-06,-0.448
-2.840E-06,-0.456
-2.830E-06,-0.304
-2.820E-06,-0.104
-2.810E-06,0.080
-2.800E-06,0.056
-2.790E-06,-0.088
-2.780E-06,-0.264
-2.770E-06,-0.200
-2.760E-06,-0.040
-2.750E-06,0.120
-2.740E-06,0.208
-2.730E-06,0.176
-2.720E-06,0.016
-2.710E-06,-0.168
-2.700E-06,-0.248
-2.690E-06,-0.200
-2.680E-06,-0.008
-2.670E-06,0.096
-2.660E-06,0.120
-2.650E-06,0.032
-2.640E-06,-0.096
-2.630E-06,-0.160
-2.620E-06,-0.144
-2.610E-06,-0.032
-2.600E-06,0.088
-2.590E-06,0.536
-2.580E-06,0.008
-2.570E-06,0.008
-2.560E-06,0.056
-2.550E-06,0.400
-2.540E-06,1.088
-2.530E-06,1.088
-2.520E-06,0.928
-2.510E-06,0.408
-2.500E-06,-0.272
-2.490E-06,-0.200
-2.480E-06,0.208
-2.470E-06,0.552
-2.460E-06,0.832
-2.450E-06,0.712
-2.440E-06,0.232
-2.430E-06,-0.040
-2.420E-06,-0.504
-2.410E-06,-0.752
-2.400E-06,-0.608
-2.390E-06,-0.408
-2.380E-06,-0.080
-2.370E-06,0.272
-2.360E-06,0.424
-2.350E-06,0.200
-2.340E-06,-0.168
-2.330E-06,-0.504
-2.320E-06,-0.560
-2.310E-06,-0.328
-2.300E-06,0.016
-2.290E-06,0.152
-2.280E-06,0.072
-2.270E-06,-0.144
-2.260E-06,-0.368
-2.250E-06,-0.456
-2.240E-06,-0.424
-2.230E-06,-0.304
-2.220E-06,-0.168
-2.210E-06,-0.160
-2.200E-06,-0.240
-2.190E-06,-0.248
-2.180E-06,-0.280
-2.170E-06,-0.240
-2.160E-06,-0.176
-2.150E-06,-0.136
-2.140E-06,-0.136
-2.130E-06,-0.152
-2.120E-06,-0.240
-2.110E-06,-0.344
-2.100E-06,-0.400
-2.090E-06,-0.368
-2.080E-06,0.032
-2.070E-06,0.536
-2.060E-06,0.104
-2.050E-06,0.360
-2.040E-06,0.632
-2.030E-06,1.088
-2.020E-06,1.080
-2.010E-06,1.080
-2.000E-06,1.072
-1.990E-06,1.056
-1.980E-06,0.256
-1.970E-06,0.368
-1.960E-06,0.776
-1.950E-06,1.056
-1.940E-06,1.080
-1.930E-06,0.808
-1.920E-06,0.256
-1.910E-06,-0.248
-1.900E-06,-0.632
-1.890E-06,-0.680
-1.880E-06,-0.496
-1.870E-06,-0.528
-1.860E-06,-0.800
-1.850E-06,-1.032
-1.840E-06,-1.040
-1.830E-06,-1.032
-1.820E-06,-1.040
-1.810E-06,-0.856
-1.800E-06,-0.096
-1.790E-06,0.544
-1.780E-06,0.976
-1.770E-06,0.816
-1.760E-06,0.208
-1.750E-06,-0.416
-1.740E-06,-0.712
-1.730E-06,-0.504
-1.720E-06,-0.096
-1.710E-06,0.280
-1.700E-06,0.344
-1.690E-06,0.072
-1.680E-06,-0.400
-1.670E-06,-0.824
-1.660E-06,-1.040
-1.650E-06,-1.040
-1.640E-06,-1.040
-1.630E-06,-1.048
-1.620E-06,-0.648
-1.610E-06,-0.144
-1.600E-06,0.568
-1.590E-06,0.904
-1.580E-06,0.800
-1.570E-06,0.400
-1.560E-06,0.008
-1.550E-06,-0.192
-1.540E-06,0.048
-1.530E-06,0.296
-1.520E-06,0.528
-1.510E-06,0.544
-1.500E-06,0.456
-1.490E-06,0.416
-1.480E-06,0.464
-1.470E-06,0.560
-1.460E-06,0.696
-1.450E-06,0.608
-1.440E-06,0.464
-1.430E-06,0.296
-1.420E-06,0.224
-1.410E-06,0.168
-1.400E-06,0.288
-1.390E-06,0.472
-1.380E-06,0.720
-1.370E-06,0.896
-1.360E-06,1.056
-1.350E-06,0.928
-1.340E-06,0.376
-1.330E-06,0.248
-1.320E-06,0.208
-1.310E-06,0.832
-1.300E-06,1.080
-1.290E-06,1.080
-1.280E-06,1.080
-1.270E-06,1.080
-1.260E-06,1.088
-1.250E-06,1.080
-1.240E-06,1.080
-1.230E-06,1.072
-1.220E-06,1.080
-1.210E-06,0.472
-1.200E-06,-0.200
-1.190E-06,-0.304
-1.180E-06,-0.864
-1.170E-06,-0.856
-1.160E-06,-0.904
-1.150E-06,-1.048
-1.140E-06,-1.048
-1.130E-06,-1.032
-1.120E-06,-1.040
-1.110E-06,-1.040
-1.100E-06,-1.048
-1.090E-06,-1.040
-1.080E-06,-1.032
-1.070E-06,-1.032
-1.060E-06,-1.040
-1.050E-06,-1.032
-1.040E-06,-1.040
-1.030E-06,-1.048
-1.020E-06,-1.040
-1.010E-06,-1.032
-1.000E-06,-1.040
-9.900E-07,-0.568
-9.800E-07,1.080
-9.700E-07,1.088
-9.600E-07,1.080
-9.500E-07,1.072
-9.400E-07,1.080
-9.300E-07,1.088
-9.200E-07,1.088
-9.100E-07,1.080
-9.000E-07,1.080
-8.900E-07,1.080
-8.800E-07,1.080
-8.700E-07,1.072
-8.600E-07,1.080
-8.500E-07,0.344
-8.400E-07,-0.216
-8.300E-07,-0.960
-8.200E-07,-1.040
-8.100E-07,-1.048
-8.000E-07,-1.040
-7.900E-07,-1.032
-7.800E-07,-1.040
-7.700E-07,-1.040
-7.600E-07,-1.040
-7.500E-07,-1.040
-7.400E-07,-1.040
-7.300E-07,-1.048
-7.200E-07,-1.040
-7.100E-07,-1.032
-7.000E-07,-1.040
-6.900E-07,-1.048
-6.800E-07,-1.032
-6.700E-07,-1.040
-6.600E-07,-1.048
-6.500E-07,0.328
-6.400E-07,1.080
-6.300E-07,1.072
-6.200E-07,1.080
-6.100E-07,1.088
-6.000E-07,1.080
-5.900E-07,1.080
-5.800E-07,1.080
-5.700E-07,1.088
-5.600E-07,1.088
-5.500E-07,1.080
-5.400E-07,1.088
-5.300E-07,1.080
-5.200E-07,1.088
-5.100E-07,1.024
-5.000E-07,0.832
-4.900E-07,0.816
-4.800E-07,0.832
-4.700E-07,0.768
-4.600E-07,0.416
-4.500E-07,-0.176
-4.400E-07,-0.744
-4.300E-07,-0.952
-4.200E-07,-0.936
-4.100E-07,-0.760
-4.000E-07,-0.648
-3.900E-07,-0.600
-3.800E-07,-0.592
-3.700E-07,-0.776
-3.600E-07,-0.992
-3.500E-07,-1.000
-3.400E-07,-0.896
-3.300E-07,-0.800
-3.200E-07,-0.704
-3.100E-07,-0.696
-3.000E-07,-0.568
-2.900E-07,-0.376
-2.800E-07,-0.200
-2.700E-07,0.288
-2.600E-07,0.792
-2.500E-07,1.088
-2.400E-07,1.088
-2.300E-07,1.080
-2.200E-07,1.080
-2.100E-07,1.080
-2.000E-07,1.080
-1.900E-07,1.088
-1.800E-07,1.088
-1.700E-07,0.512
-1.600E-07,-0.440
-1.500E-07,-1.048
-1.400E-07,-1.032
-1.300E-07,-0.688
-1.200E-07,-0.352
-1.100E-07,0.272
-1.000E-07,0.024
-9.000E-08,-0.640
-8.000E-08,-1.040
-7.000E-08,-0.816
-6.000E-08,-0.048
-5.000E-08,1.080
-4.000E-08,1.080
-3.000E-08,1.088
-2.000E-08,1.080
-1.000E-08,1.080
0.000E+00,1.080
1.000E-08,1.080
2.000E-08,1.080
3.000E-08,1.080
4.000E-08,1.072
5.000E-08,1.080
6.000E-08,0.104
7.000E-08,-0.648
8.000E-08,-1.032
9.000E-08,-1.032
1.000E-07,-1.040
1.100E-07,-1.032
1.200E-07,-1.040
1.300E-07,-1.032
1.400E-07,-1.040
1.500E-07,-1.048
1.600E-07,-1.040
1.700E-07,-0.880
1.800E-07,0.304
1.900E-07,1.080
2.000E-07,1.080
2.100E-07,1.072
2.200E-07,1.080
2.300E-07,0.880
2.400E-07,0.152
2.500E-07,-0.216
2.600E-07,-0.416
2.700E-07,-0.032
2.800E-07,0.336
2.900E-07,0.256
3.000E-07,-0.200
3.100E-07,-0.392
3.200E-07,-0.280
3.300E-07,0.360
3.400E-07,1.088
3.500E-07,1.080
3.600E-07,1.072
3.700E-07,1.080
3.800E-07,1.080
3.900E-07,1.088
4.000E-07,1.088
4.100E-07,1.080
4.200E-07,1.080
4.300E-07,1.080
4.400E-07,1.080
4.500E-07,1.080
4.600E-07,1.080
4.700E-07,0.624
4.800E-07,0.192
4.900E-07,-0.024
5.000E-07,-0.064
5.100E-07,0.200
5.200E-07,0.552
5.300E-07,1.080
5.400E-07,1.080
5.500E-07,1.080
5.600E-07,1.088
5.700E-07,1.088
5.800E-07,1.080
5.900E-07,1.088
6.000E-07,1.088
6.100E-07,1.080
6.200E-07,1.088
6.300E-07,1.088
6.400E-07,1.080
6.500E-07,0.832
6.600E-07,0.560
6.700E-07,0.392
6.800E-07,0.328
6.900E-07,0.248
7.000E-07,0.368
7.100E-07,0.552
7.200E-07,0.752
7.300E-07,0.976
7.400E-07,1.080
7.500E-07,1.088
7.600E-07,1.080
7.700E-07,1.080
7.800E-07,1.072
7.900E-07,1.064
8.000E-07,0.880
8.100E-07,0.680
8.200E-07,0.472
8.300E-07,0.288
8.400E-07,0.120
8.500E-07,-0.008
8.600E-07,-0.096
8.700E-07,-0.128
8.800E-07,-0.112
8.900E-07,-0.048
9.000E-07,0.056
9.100E-07,0.184
9.200E-07,0.336
9.300E-07,0.480
9.400E-07,0.616
9.500E-07,0.768
9.600E-07,0.888
9.700E-07,1.000
9.800E-07,1.064
9.900E-07,1.080
1.000E-06,1.072
1.010E-06,1.080
1.020E-06,1.032
1.030E-06,0.952
1.040E-06,0.832
1.050E-06,0.704
1.060E-06,0.616
1.070E-06,0.528
1.080E-06,0.512
1.090E-06,0.528
1.100E-06,0.560
1.110E-06,0.624
1.120E-06,0.704
1.130E-06,0.800
1.140E-06,0.896
1.150E-06,0.976
1.160E-06,1.008
1.170E-06,1.008
1.180E-06,0.968
1.190E-06,0.920
1.200E-06,0.864
1.210E-06,0.808
1.220E-06,0.744
1.230E-06,0.672
1.240E-06,0.592
1.250E-06,0.488
1.260E-06,0.400
1.270E-06,0.336
1.280E-06,0.304
1.290E-06,0.320
1.300E-06,0.360
1.310E-06,0.392
1.320E-06,0.392
1.330E-06,0.360
1.340E-06,0.312
1.350E-06,0.296
1.360E-06,0.296
1.370E-06,0.296
1.380E-06,0.296
1.390E-06,0.280
1.400E-06,0.240
1.410E-06,0.240
1.420E-06,0.288
1.430E-06,0.304
1.440E-06,0.360
1.450E-06,0.392
1.460E-06,0.392
1.470E-06,0.312
1.480E-06,0.136
1.490E-06,-0.064
1.500E-06,-0.160
1.510E-06,-0.256
1.520E-06,-0.344
1.530E-06,-0.464
1.540E-06,-0.568
1.550E-06,-0.576
1.560E-06,-0.528
1.570E-06,-0.456
1.580E-06,-0.368
1.590E-06,-0.288
1.600E-06,-0.216
1.610E-06,-0.136
1.620E-06,-0.120
1.630E-06,-0.112
1.640E-06,-0.144
1.650E-06,-0.200
1.660E-06,-0.264
1.670E-06,-0.328
1.680E-06,-0.400
1.690E-06,-0.440
1.700E-06,-0.496
1.710E-06,-0.496
1.720E-06,-0.504
1.730E-06,-0.464
1.740E-06,-0.448
1.750E-06,-0.400
1.760E-06,-0.360
1.770E-06,-0.336
1.780E-06,-0.312
1.790E-06,-0.272
1.800E-06,-0.232
1.810E-06,-0.192
1.820E-06,-0.176
1.830E-06,-0.184
1.840E-06,-0.168
1.850E-06,-0.160
1.860E-06,-0.112
1.870E-06,-0.064
1.880E-06,0.024
1.890E-06,0.120
1.900E-06,0.184
1.910E-06,0.224
1.920E-06,0.232
1.930E-06,0.200
1.940E-06,0.168
1.950E-06,0.096
1.960E-06,-0.008
1.970E-06,-0.088
1.980E-06,-0.176
1.990E-06,-0.232
2.000E-06,-0.280
2.010E-06,-0.320
2.020E-06,-0.336
2.030E-06,-0.352
2.040E-06,-0.368
2.050E-06,-0.360
2.060E-06,-0.336
2.070E-06,-0.312
2.080E-06,-0.272
2.090E-06,-0.232
2.100E-06,-0.176
2.110E-06,-0.144
2.120E-06,-0.104
2.130E-06,-0.064
2.140E-06,-0.056
2.150E-06,-0.048
2.160E-06,-0.048
2.170E-06,-0.040
2.180E-06,-0.064
2.190E-06,-0.088
2.200E-06,-0.112
2.210E-06,-0.136
2.220E-06,-0.160
2.230E-06,-0.184
2.240E-06,-0.208
2.250E-06,-0.224
2.260E-06,-0.264
2.270E-06,-0.296
2.280E-06,-0.328
2.290E-06,-0.368
2.300E-06,-0.392
2.310E-06,-0.400
2.320E-06,-0.408
2.330E-06,-0.408
2.340E-06,-0.392
2.350E-06,-0.376
2.360E-06,-0.336
2.370E-06,-0.296
2.380E-06,-0.264
2.390E-06,-0.232
2.400E-06,-0.232
2.410E-06,-0.224
2.420E-06,-0.224
2.430E-06,-0.208
2.440E-06,-0.192
2.450E-06,-0.168
2.460E-06,-0.136
2.470E-06,-0.088
2.480E-06,-0.032
2.490E-06,-0.008
2.500E-06,0.024
2.510E-06,0.048
2.520E-06,0.064
2.530E-06,0.056
2.540E-06,0.040
2.550E-06,0.024
2.560E-06,-0.008
2.570E-06,-0.048
2.580E-06,-0.088
2.590E-06,-0.136
2.600E-06,-0.160
2.610E-06,-0.160
2.620E-06,-0.144
2.630E-06,-0.136
2.640E-06,-0.104
2.650E-06,-0.088
2.660E-06,-0.096
2.670E-06,-0.112
2.680E-06,-0.112
2.690E-06,-0.112
2.700E-06,-0.096
2.710E-06,-0.088
2.720E-06,-0.080
2.730E-06,-0.088
2.740E-06,-0.088
2.750E-06,-0.096
2.760E-06,-0.104
2.770E-06,-0.104
2.780E-06,-0.120
2.790E-06,-0.128
2.800E-06,-0.136
2.810E-06,-0.096
2.820E-06,-0.072
2.830E-06,-0.008
2.840E-06,0.016
2.850E-06,0.048
2.860E-06,0.080
2.870E-06,0.096
2.880E-06,0.088
2.890E-06,0.080
2.900E-06,0.072
2.910E-06,0.032
2.920E-06,-0.008
2.930E-06,-0.032
2.940E-06,-0.016
2.950E-06,0.024
2.960E-06,0.104
2.970E-06,0.168
2.980E-06,0.256
2.990E-06,0.320
3.000E-06,0.352
3.010E-06,0.336
3.020E-06,0.304
3.030E-06,0.296
3.040E-06,0.312
3.050E-06,0.352
3.060E-06,0.352
3.070E-06,0.336
3.080E-06,0.320
3.090E-06,0.296
3.100E-06,0.256
3.110E-06,0.200
3.120E-06,0.120
3.130E-06,0.064
3.140E-06,-0.008
3.150E-06,-0.072
3.160E-06,-0.136
3.170E-06,-0.184
3.180E-06,-0.216
3.190E-06,-0.232
3.200E-06,-0.232
3.210E-06,-0.248
3.220E-06,-0.256
3.230E-06,-0.256
3.240E-06,-0.256
3.250E-06,-0.232
3.260E-06,-0.224
3.270E-06,-0.216
3.280E-06,-0.200
3.290E-06,-0.176
3.300E-06,-0.152
3.310E-06,-0.120
3.320E-06,-0.088
3.330E-06,-0.056
3.340E-06,-0.024
3.350E-06,-0.008
3.360E-06,0.016
3.370E-06,0.000
3.380E-06,0.000
3.390E-06,-0.024
3.400E-06,-0.056
3.410E-06,-0.088
3.420E-06,-0.112
3.430E-06,-0.128
3.440E-06,-0.128
3.450E-06,-0.104
3.460E-06,-0.056
3.470E-06,0.040
3.480E-06,0.160
3.490E-06,0.248
3.500E-06,0.328
