mediciones/6-26/36.0/WaveData59186.csv

#timebase=2000000(ps)
,#voltbase=200000(mv/100)
#size=4000
-8.150E-06,0.000
-8.140E-06,0.000
-8.130E-06,0.024
-8.120E-06,0.040
-8.110E-06,0.064
-8.100E-06,0.056
-8.090E-06,0.040
-8.080E-06,0.032
-8.070E-06,-0.008
-8.060E-06,-0.144
-8.050E-06,-0.136
-8.040E-06,-0.096
-8.030E-06,-0.128
-8.020E-06,0.128
-8.010E-06,0.216
-8.000E-06,0.120
-7.990E-06,0.016
-7.980E-06,-0.136
-7.970E-06,-0.128
-7.960E-06,-0.088
-7.950E-06,-0.008
-7.940E-06,0.104
-7.930E-06,0.112
-7.920E-06,0.112
-7.910E-06,0.040
-7.900E-06,-0.064
-7.890E-06,-0.120
-7.880E-06,-0.096
-7.870E-06,0.008
-7.860E-06,0.072
-7.850E-06,0.128
-7.840E-06,0.080
-7.830E-06,0.024
-7.820E-06,-0.016
-7.810E-06,-0.056
-7.800E-06,-0.064
-7.790E-06,-0.008
-7.780E-06,0.064
-7.770E-06,0.088
-7.760E-06,0.080
-7.750E-06,0.056
-7.740E-06,0.000
-7.730E-06,-0.040
-7.720E-06,0.016
-7.710E-06,-0.144
-7.700E-06,-0.128
-7.690E-06,0.032
-7.680E-06,0.048
-7.670E-06,0.096
-7.660E-06,0.024
-7.650E-06,0.064
-7.640E-06,0.000
-7.630E-06,-0.048
-7.620E-06,-0.104
-7.610E-06,-0.056
-7.600E-06,0.048
-7.590E-06,0.088
-7.580E-06,0.080
-7.570E-06,0.024
-7.560E-06,-0.056
-7.550E-06,-0.048
-7.540E-06,-0.024
-7.530E-06,0.000
-7.520E-06,0.008
-7.510E-06,0.048
-7.500E-06,0.040
-7.490E-06,0.032
-7.480E-06,0.008
-7.470E-06,-0.016
-7.460E-06,-0.016
-7.450E-06,-0.016
-7.440E-06,0.008
-7.430E-06,0.008
-7.420E-06,0.024
-7.410E-06,0.032
-7.400E-06,0.016
-7.390E-06,0.016
-7.380E-06,-0.008
-7.370E-06,-0.016
-7.360E-06,-0.056
-7.350E-06,-0.024
-7.340E-06,-0.016
-7.330E-06,0.016
-7.320E-06,0.032
-7.310E-06,0.008
-7.300E-06,-0.008
-7.290E-06,-0.016
-7.280E-06,-0.008
-7.270E-06,-0.008
-7.260E-06,0.024
-7.250E-06,0.008
-7.240E-06,0.016
-7.230E-06,0.008
-7.220E-06,0.000
-7.210E-06,-0.024
-7.200E-06,-0.008
-7.190E-06,0.016
-7.180E-06,0.008
-7.170E-06,0.016
-7.160E-06,0.008
-7.150E-06,0.000
-7.140E-06,0.000
-7.130E-06,0.008
-7.120E-06,0.000
-7.110E-06,0.008
-7.100E-06,0.008
-7.090E-06,0.008
-7.080E-06,0.008
-7.070E-06,0.000
-7.060E-06,0.008
-7.050E-06,0.008
-7.040E-06,0.008
-7.030E-06,0.016
-7.020E-06,0.024
-7.010E-06,0.000
-7.000E-06,0.008
-6.990E-06,0.016
-6.980E-06,0.016
-6.970E-06,0.024
-6.960E-06,0.032
-6.950E-06,0.032
-6.940E-06,0.008
-6.930E-06,0.000
-6.920E-06,0.016
-6.910E-06,0.000
-6.900E-06,0.016
-6.890E-06,0.024
-6.880E-06,-0.040
-6.870E-06,-0.144
-6.860E-06,-0.096
-6.850E-06,-0.008
-6.840E-06,0.104
-6.830E-06,0.080
-6.820E-06,0.088
-6.810E-06,0.008
-6.800E-06,-0.104
-6.790E-06,-0.056
-6.780E-06,-0.024
-6.770E-06,-0.008
-6.760E-06,0.064
-6.750E-06,0.088
-6.740E-06,0.056
-6.730E-06,0.000
-6.720E-06,-0.040
-6.710E-06,-0.048
-6.700E-06,-0.040
-6.690E-06,0.008
-6.680E-06,0.048
-6.670E-06,0.064
-6.660E-06,0.040
-6.650E-06,0.016
-6.640E-06,0.008
-6.630E-06,0.000
-6.620E-06,-0.016
-6.610E-06,-0.016
-6.600E-06,0.016
-6.590E-06,0.016
-6.580E-06,0.048
-6.570E-06,-0.016
-6.560E-06,-0.080
-6.550E-06,-0.032
-6.540E-06,-0.056
-6.530E-06,-0.016
-6.520E-06,0.024
-6.510E-06,0.104
-6.500E-06,0.048
-6.490E-06,-0.056
-6.480E-06,-0.056
-6.470E-06,-0.032
-6.460E-06,-0.008
-6.450E-06,0.040
-6.440E-06,0.048
-6.430E-06,0.016
-6.420E-06,0.000
-6.410E-06,0.008
-6.400E-06,-0.016
-6.390E-06,-0.024
-6.380E-06,-0.016
-6.370E-06,0.016
-6.360E-06,0.048
-6.350E-06,0.056
-6.340E-06,0.040
-6.330E-06,0.000
-6.320E-06,-0.016
-6.310E-06,-0.040
-6.300E-06,-0.016
-6.290E-06,-0.008
-6.280E-06,0.024
-6.270E-06,0.048
-6.260E-06,0.016
-6.250E-06,0.000
-6.240E-06,-0.016
-6.230E-06,-0.008
-6.220E-06,0.008
-6.210E-06,0.040
-6.200E-06,0.016
-6.190E-06,-0.008
-6.180E-06,-0.016
-6.170E-06,-0.016
-6.160E-06,0.000
-6.150E-06,0.000
-6.140E-06,0.024
-6.130E-06,0.008
-6.120E-06,0.008
-6.110E-06,-0.008
-6.100E-06,-0.008
-6.090E-06,0.008
-6.080E-06,0.024
-6.070E-06,0.016
-6.060E-06,0.008
-6.050E-06,0.008
-6.040E-06,0.000
-6.030E-06,0.008
-6.020E-06,0.008
-6.010E-06,0.016
-6.000E-06,0.016
-5.990E-06,0.008
-5.980E-06,0.016
-5.970E-06,0.016
-5.960E-06,0.016
-5.950E-06,0.016
-5.940E-06,0.016
-5.930E-06,0.024
-5.920E-06,0.048
-5.910E-06,0.000
-5.900E-06,0.056
-5.890E-06,0.016
-5.880E-06,-0.016
-5.870E-06,-0.080
-5.860E-06,-0.136
-5.850E-06,-0.048
-5.840E-06,-0.024
-5.830E-06,0.112
-5.820E-06,0.056
-5.810E-06,-0.048
-5.800E-06,-0.080
-5.790E-06,-0.048
-5.780E-06,-0.016
-5.770E-06,0.008
-5.760E-06,0.072
-5.750E-06,0.024
-5.740E-06,0.024
-5.730E-06,-0.008
-5.720E-06,-0.040
-5.710E-06,-0.032
-5.700E-06,0.008
-5.690E-06,0.048
-5.680E-06,0.040
-5.670E-06,0.024
-5.660E-06,-0.008
-5.650E-06,-0.016
-5.640E-06,0.000
-5.630E-06,0.008
-5.620E-06,0.016
-5.610E-06,0.024
-5.600E-06,0.016
-5.590E-06,0.016
-5.580E-06,0.000
-5.570E-06,0.000
-5.560E-06,-0.008
-5.550E-06,0.016
-5.540E-06,0.024
-5.530E-06,0.032
-5.520E-06,0.024
-5.510E-06,0.008
-5.500E-06,0.000
-5.490E-06,0.008
-5.480E-06,0.024
-5.470E-06,0.040
-5.460E-06,0.056
-5.450E-06,0.064
-5.440E-06,0.048
-5.430E-06,-0.008
-5.420E-06,-0.008
-5.410E-06,-0.056
-5.400E-06,0.008
-5.390E-06,0.032
-5.380E-06,0.016
-5.370E-06,-0.024
-5.360E-06,-0.072
-5.350E-06,-0.128
-5.340E-06,-0.048
-5.330E-06,0.080
-5.320E-06,0.104
-5.310E-06,0.064
-5.300E-06,0.016
-5.290E-06,-0.032
-5.280E-06,-0.040
-5.270E-06,-0.056
-5.260E-06,-0.032
-5.250E-06,0.032
-5.240E-06,0.088
-5.230E-06,0.096
-5.220E-06,0.056
-5.210E-06,-0.008
-5.200E-06,-0.088
-5.190E-06,-0.096
-5.180E-06,-0.048
-5.170E-06,0.032
-5.160E-06,0.096
-5.150E-06,0.152
-5.140E-06,0.080
-5.130E-06,-0.024
-5.120E-06,-0.112
-5.110E-06,-0.144
-5.100E-06,-0.104
-5.090E-06,-0.032
-5.080E-06,0.128
-5.070E-06,0.152
-5.060E-06,0.120
-5.050E-06,0.008
-5.040E-06,-0.128
-5.030E-06,-0.128
-5.020E-06,-0.080
-5.010E-06,0.032
-5.000E-06,0.088
-4.990E-06,0.112
-4.980E-06,0.056
-4.970E-06,0.000
-4.960E-06,-0.056
-4.950E-06,-0.080
-4.940E-06,-0.040
-4.930E-06,0.008
-4.920E-06,0.080
-4.910E-06,0.080
-4.900E-06,0.056
-4.890E-06,-0.016
-4.880E-06,-0.056
-4.870E-06,-0.040
-4.860E-06,-0.008
-4.850E-06,0.048
-4.840E-06,0.088
-4.830E-06,0.080
-4.820E-06,0.056
-4.810E-06,0.048
-4.800E-06,-0.016
-4.790E-06,-0.080
-4.780E-06,-0.288
-4.770E-06,-0.144
-4.760E-06,-0.008
-4.750E-06,0.000
-4.740E-06,0.224
-4.730E-06,0.168
-4.720E-06,0.088
-4.710E-06,-0.064
-4.700E-06,-0.112
-4.690E-06,-0.136
-4.680E-06,-0.056
-4.670E-06,0.080
-4.660E-06,0.136
-4.650E-06,0.104
-4.640E-06,0.048
-4.630E-06,-0.024
-4.620E-06,-0.080
-4.610E-06,-0.056
-4.600E-06,-0.008
-4.590E-06,0.024
-4.580E-06,0.064
-4.570E-06,0.080
-4.560E-06,0.056
-4.550E-06,0.032
-4.540E-06,-0.024
-4.530E-06,-0.032
-4.520E-06,-0.048
-4.510E-06,-0.008
-4.500E-06,0.032
-4.490E-06,0.056
-4.480E-06,0.008
-4.470E-06,-0.008
-4.460E-06,-0.008
-4.450E-06,-0.040
-4.440E-06,-0.008
-4.430E-06,-0.024
-4.420E-06,0.016
-4.410E-06,0.016
-4.400E-06,0.016
-4.390E-06,0.008
-4.380E-06,0.016
-4.370E-06,0.016
-4.360E-06,0.000
-4.350E-06,-0.008
-4.340E-06,-0.016
-4.330E-06,-0.008
-4.320E-06,0.000
-4.310E-06,0.024
-4.300E-06,0.024
-4.290E-06,0.024
-4.280E-06,0.008
-4.270E-06,-0.016
-4.260E-06,0.000
-4.250E-06,0.000
-4.240E-06,0.032
-4.230E-06,0.040
-4.220E-06,0.032
-4.210E-06,0.008
-4.200E-06,-0.008
-4.190E-06,-0.016
-4.180E-06,-0.008
-4.170E-06,0.032
-4.160E-06,0.032
-4.150E-06,0.024
-4.140E-06,0.024
-4.130E-06,0.024
-4.120E-06,0.032
-4.110E-06,-0.072
-4.100E-06,-0.120
-4.090E-06,-0.080
-4.080E-06,-0.032
-4.070E-06,0.072
-4.060E-06,0.088
-4.050E-06,0.056
-4.040E-06,-0.016
-4.030E-06,-0.056
-4.020E-06,-0.024
-4.010E-06,-0.032
-4.000E-06,0.008
-3.990E-06,0.040
-3.980E-06,0.056
-3.970E-06,0.040
-3.960E-06,0.016
-3.950E-06,-0.008
-3.940E-06,-0.016
-3.930E-06,-0.008
-3.920E-06,-0.008
-3.910E-06,0.000
-3.900E-06,0.016
-3.890E-06,0.000
-3.880E-06,0.024
-3.870E-06,0.024
-3.860E-06,-0.008
-3.850E-06,-0.008
-3.840E-06,0.000
-3.830E-06,0.008
-3.820E-06,0.008
-3.810E-06,0.016
-3.800E-06,0.024
-3.790E-06,0.024
-3.780E-06,0.024
-3.770E-06,0.016
-3.760E-06,-0.008
-3.750E-06,0.000
-3.740E-06,0.016
-3.730E-06,0.016
-3.720E-06,0.040
-3.710E-06,0.024
-3.700E-06,0.032
-3.690E-06,0.008
-3.680E-06,0.032
-3.670E-06,0.016
-3.660E-06,0.056
-3.650E-06,-0.088
-3.640E-06,-0.136
-3.630E-06,-0.152
-3.620E-06,0.000
-3.610E-06,0.112
-3.600E-06,0.080
-3.590E-06,0.136
-3.580E-06,-0.016
-3.570E-06,-0.072
-3.560E-06,-0.072
-3.550E-06,-0.048
-3.540E-06,0.000
-3.530E-06,0.064
-3.520E-06,0.088
-3.510E-06,0.048
-3.500E-06,-0.008
-3.490E-06,-0.048
-3.480E-06,-0.048
-3.470E-06,0.000
-3.460E-06,0.024
-3.450E-06,0.048
-3.440E-06,0.048
-3.430E-06,0.016
-3.420E-06,0.008
-3.410E-06,-0.008
-3.400E-06,-0.008
-3.390E-06,0.008
-3.380E-06,0.032
-3.370E-06,0.032
-3.360E-06,0.040
-3.350E-06,0.024
-3.340E-06,0.008
-3.330E-06,0.000
-3.320E-06,-0.008
-3.310E-06,0.000
-3.300E-06,0.000
-3.290E-06,0.032
-3.280E-06,0.024
-3.270E-06,-0.008
-3.260E-06,0.016
-3.250E-06,-0.024
-3.240E-06,-0.048
-3.230E-06,-0.056
-3.220E-06,0.040
-3.210E-06,-0.008
-3.200E-06,0.016
-3.190E-06,0.000
-3.180E-06,-0.080
-3.170E-06,-0.032
-3.160E-06,-0.016
-3.150E-06,0.080
-3.140E-06,0.088
-3.130E-06,0.024
-3.120E-06,-0.024
-3.110E-06,-0.032
-3.100E-06,-0.016
-3.090E-06,0.008
-3.080E-06,0.016
-3.070E-06,0.016
-3.060E-06,0.024
-3.050E-06,0.016
-3.040E-06,0.000
-3.030E-06,-0.016
-3.020E-06,-0.008
-3.010E-06,-0.008
-3.000E-06,0.016
-2.990E-06,0.016
-2.980E-06,0.016
-2.970E-06,0.008
-2.960E-06,0.024
-2.950E-06,0.024
-2.940E-06,-0.008
-2.930E-06,0.000
-2.920E-06,0.000
-2.910E-06,0.016
-2.900E-06,0.008
-2.890E-06,0.024
-2.880E-06,0.024
-2.870E-06,0.016
-2.860E-06,0.016
-2.850E-06,0.016
-2.840E-06,0.016
-2.830E-06,0.008
-2.820E-06,0.016
-2.810E-06,0.040
-2.800E-06,0.064
-2.790E-06,0.056
-2.780E-06,0.032
-2.770E-06,0.040
-2.760E-06,0.000
-2.750E-06,0.024
-2.740E-06,0.024
-2.730E-06,0.016
-2.720E-06,-0.112
-2.710E-06,-0.072
-2.700E-06,-0.024
-2.690E-06,-0.200
-2.680E-06,0.024
-2.670E-06,0.072
-2.660E-06,0.144
-2.650E-06,0.032
-2.640E-06,-0.048
-2.630E-06,-0.136
-2.620E-06,-0.128
-2.610E-06,0.040
-2.600E-06,0.104
-2.590E-06,0.096
-2.580E-06,0.040
-2.570E-06,-0.040
-2.560E-06,-0.056
-2.550E-06,-0.024
-2.540E-06,0.000
-2.530E-06,0.000
-2.520E-06,0.032
-2.510E-06,0.040
-2.500E-06,0.032
-2.490E-06,0.016
-2.480E-06,-0.008
-2.470E-06,-0.008
-2.460E-06,0.000
-2.450E-06,0.024
-2.440E-06,0.040
-2.430E-06,0.032
-2.420E-06,0.032
-2.410E-06,0.024
-2.400E-06,0.024
-2.390E-06,0.016
-2.380E-06,0.016
-2.370E-06,0.016
-2.360E-06,0.008
-2.350E-06,0.016
-2.340E-06,0.024
-2.330E-06,0.016
-2.320E-06,0.024
-2.310E-06,0.032
-2.300E-06,0.032
-2.290E-06,0.032
-2.280E-06,0.056
-2.270E-06,0.024
-2.260E-06,0.016
-2.250E-06,-0.008
-2.240E-06,-0.072
-2.230E-06,-0.136
-2.220E-06,-0.128
-2.210E-06,-0.120
-2.200E-06,-0.040
-2.190E-06,0.056
-2.180E-06,0.216
-2.170E-06,0.160
-2.160E-06,0.056
-2.150E-06,-0.120
-2.140E-06,-0.208
-2.130E-06,-0.120
-2.120E-06,0.024
-2.110E-06,0.120
-2.100E-06,0.160
-2.090E-06,0.136
-2.080E-06,-0.008
-2.070E-06,-0.056
-2.060E-06,-0.168
-2.050E-06,-0.152
-2.040E-06,0.000
-2.030E-06,0.048
-2.020E-06,0.144
-2.010E-06,0.136
-2.000E-06,0.048
-1.990E-06,-0.048
-1.980E-06,-0.064
-1.970E-06,-0.064
-1.960E-06,-0.016
-1.950E-06,0.064
-1.940E-06,0.024
-1.930E-06,0.024
-1.920E-06,0.008
-1.910E-06,0.008
-1.900E-06,0.016
-1.890E-06,0.008
-1.880E-06,-0.008
-1.870E-06,-0.016
-1.860E-06,0.000
-1.850E-06,0.008
-1.840E-06,0.000
-1.830E-06,0.024
-1.820E-06,0.016
-1.810E-06,0.008
-1.800E-06,0.016
-1.790E-06,0.016
-1.780E-06,0.016
-1.770E-06,0.048
-1.760E-06,0.040
-1.750E-06,-0.016
-1.740E-06,-0.056
-1.730E-06,-0.040
-1.720E-06,-0.056
-1.710E-06,0.040
-1.700E-06,0.040
-1.690E-06,0.048
-1.680E-06,0.016
-1.670E-06,-0.016
-1.660E-06,-0.064
-1.650E-06,-0.048
-1.640E-06,0.024
-1.630E-06,0.088
-1.620E-06,0.152
-1.610E-06,0.016
-1.600E-06,-0.008
-1.590E-06,-0.032
-1.580E-06,-0.096
-1.570E-06,-0.048
-1.560E-06,-0.080
-1.550E-06,0.016
-1.540E-06,0.056
-1.530E-06,0.064
-1.520E-06,0.048
-1.510E-06,0.000
-1.500E-06,-0.032
-1.490E-06,-0.016
-1.480E-06,0.024
-1.470E-06,0.016
-1.460E-06,0.040
-1.450E-06,0.144
-1.440E-06,0.040
-1.430E-06,0.008
-1.420E-06,-0.040
-1.410E-06,-0.088
-1.400E-06,-0.048
-1.390E-06,-0.064
-1.380E-06,0.040
-1.370E-06,0.032
-1.360E-06,0.056
-1.350E-06,0.016
-1.340E-06,0.032
-1.330E-06,0.000
-1.320E-06,-0.080
-1.310E-06,-0.016
-1.300E-06,-0.024
-1.290E-06,0.088
-1.280E-06,0.112
-1.270E-06,0.048
-1.260E-06,-0.056
-1.250E-06,-0.088
-1.240E-06,-0.072
-1.230E-06,0.008
-1.220E-06,0.072
-1.210E-06,0.112
-1.200E-06,0.152
-1.190E-06,0.136
-1.180E-06,0.008
-1.170E-06,-0.096
-1.160E-06,-0.152
-1.150E-06,-0.104
-1.140E-06,-0.080
-1.130E-06,0.024
-1.120E-06,0.040
-1.110E-06,-0.040
-1.100E-06,-0.016
-1.090E-06,-0.104
-1.080E-06,-0.040
-1.070E-06,-0.024
-1.060E-06,0.024
-1.050E-06,0.056
-1.040E-06,0.016
-1.030E-06,0.024
-1.020E-06,-0.032
-1.010E-06,-0.016
-1.000E-06,-0.016
-9.900E-07,0.024
-9.800E-07,0.024
-9.700E-07,0.008
-9.600E-07,0.024
-9.500E-07,0.016
-9.400E-07,0.016
-9.300E-07,0.008
-9.200E-07,0.008
-9.100E-07,0.000
-9.000E-07,0.008
-8.900E-07,0.016
-8.800E-07,0.040
-8.700E-07,0.040
-8.600E-07,0.040
-8.500E-07,0.040
-8.400E-07,0.016
-8.300E-07,0.000
-8.200E-07,0.000
-8.100E-07,0.016
-8.000E-07,0.040
-7.900E-07,0.064
-7.800E-07,0.048
-7.700E-07,0.040
-7.600E-07,0.016
-7.500E-07,0.024
-7.400E-07,0.040
-7.300E-07,0.056
-7.200E-07,0.056
-7.100E-07,0.048
-7.000E-07,0.056
-6.900E-07,0.064
-6.800E-07,0.048
-6.700E-07,0.016
-6.600E-07,-0.008
-6.500E-07,0.032
-6.400E-07,0.000
-6.300E-07,0.016
-6.200E-07,-0.008
-6.100E-07,-0.032
-6.000E-07,-0.104
-5.900E-07,-0.104
-5.800E-07,-0.024
-5.700E-07,0.056
-5.600E-07,0.048
-5.500E-07,-0.040
-5.400E-07,-0.048
-5.300E-07,-0.032
-5.200E-07,0.040
-5.100E-07,0.056
-5.000E-07,0.008
-4.900E-07,-0.008
-4.800E-07,0.016
-4.700E-07,0.000
-4.600E-07,-0.008
-4.500E-07,0.032
-4.400E-07,0.048
-4.300E-07,0.056
-4.200E-07,0.064
-4.100E-07,0.024
-4.000E-07,0.000
-3.900E-07,0.032
-3.800E-07,0.080
-3.700E-07,0.136
-3.600E-07,0.120
-3.500E-07,0.056
-3.400E-07,0.000
-3.300E-07,-0.048
-3.200E-07,-0.072
-3.100E-07,-0.056
-3.000E-07,-0.008
-2.900E-07,0.064
-2.800E-07,0.104
-2.700E-07,0.112
-2.600E-07,0.056
-2.500E-07,0.000
-2.400E-07,0.000
-2.300E-07,0.040
-2.200E-07,0.088
-2.100E-07,0.200
-2.000E-07,0.176
-1.900E-07,0.192
-1.800E-07,0.120
-1.700E-07,0.112
-1.600E-07,0.192
-1.500E-07,0.072
-1.400E-07,0.016
-1.300E-07,-0.336
-1.200E-07,-0.432
-1.100E-07,-0.328
-1.000E-07,0.088
-9.000E-08,0.336
-8.000E-08,0.160
-7.000E-08,0.400
-6.000E-08,-0.112
-5.000E-08,-0.128
-4.000E-08,-0.504
-3.000E-08,-0.480
-2.000E-08,0.112
-1.000E-08,0.472
0.000E+00,0.712
1.000E-08,0.592
2.000E-08,0.032
3.000E-08,-0.344
4.000E-08,-0.416
5.000E-08,-0.280
6.000E-08,-0.040
7.000E-08,0.136
8.000E-08,0.344
9.000E-08,0.192
1.000E-07,0.136
1.100E-07,-0.112
1.200E-07,-0.336
1.300E-07,-0.312
1.400E-07,-0.080
1.500E-07,0.200
1.600E-07,0.392
1.700E-07,0.456
1.800E-07,0.256
1.900E-07,0.096
2.000E-07,-0.080
2.100E-07,-0.064
2.200E-07,-0.120
2.300E-07,0.176
2.400E-07,0.256
2.500E-07,0.304
2.600E-07,0.328
2.700E-07,0.176
2.800E-07,0.032
2.900E-07,0.016
3.000E-07,0.040
3.100E-07,0.160
3.200E-07,0.288
3.300E-07,0.320
3.400E-07,0.424
3.500E-07,0.384
3.600E-07,0.176
3.700E-07,0.168
3.800E-07,0.040
3.900E-07,0.248
4.000E-07,0.288
4.100E-07,0.248
4.200E-07,0.280
4.300E-07,0.232
4.400E-07,0.000
4.500E-07,-0.280
4.600E-07,-0.464
4.700E-07,-0.136
4.800E-07,-0.408
4.900E-07,-0.376
5.000E-07,-0.024
5.100E-07,-0.152
5.200E-07,0.600
5.300E-07,0.088
5.400E-07,-0.672
5.500E-07,-0.736
5.600E-07,-0.336
5.700E-07,-0.128
5.800E-07,0.240
5.900E-07,0.528
6.000E-07,0.584
6.100E-07,0.480
6.200E-07,0.520
6.300E-07,-0.064
6.400E-07,-0.688
6.500E-07,-0.712
6.600E-07,-0.808
6.700E-07,-0.120
6.800E-07,0.120
6.900E-07,0.328
7.000E-07,0.256
7.100E-07,-0.328
7.200E-07,-0.280
7.300E-07,-0.312
7.400E-07,-0.384
7.500E-07,-0.040
7.600E-07,0.208
7.700E-07,0.648
7.800E-07,0.552
7.900E-07,0.416
8.000E-07,0.240
8.100E-07,0.104
8.200E-07,0.192
8.300E-07,0.192
8.400E-07,0.272
8.500E-07,0.288
8.600E-07,0.344
8.700E-07,0.352
8.800E-07,0.248
8.900E-07,0.184
9.000E-07,0.128
9.100E-07,0.152
9.200E-07,0.248
9.300E-07,0.344
9.400E-07,0.344
9.500E-07,0.352
9.600E-07,0.280
9.700E-07,0.200
9.800E-07,0.136
9.900E-07,0.112
1.000E-06,0.136
1.010E-06,0.200
1.020E-06,0.256
1.030E-06,0.288
1.040E-06,0.280
1.050E-06,0.264
1.060E-06,0.264
1.070E-06,0.264
1.080E-06,0.272
1.090E-06,0.272
1.100E-06,0.296
1.110E-06,0.320
1.120E-06,0.304
1.130E-06,0.272
1.140E-06,0.256
1.150E-06,0.256
1.160E-06,0.256
1.170E-06,0.280
1.180E-06,0.280
1.190E-06,0.296
1.200E-06,0.280
1.210E-06,0.288
1.220E-06,0.264
1.230E-06,0.264
1.240E-06,0.256
1.250E-06,0.264
1.260E-06,0.280
1.270E-06,0.280
1.280E-06,0.280
1.290E-06,0.264
1.300E-06,0.256
1.310E-06,0.224
1.320E-06,0.248
1.330E-06,0.248
1.340E-06,0.256
1.350E-06,0.296
1.360E-06,0.304
1.370E-06,0.296
1.380E-06,0.288
1.390E-06,0.280
1.400E-06,0.280
1.410E-06,0.272
1.420E-06,0.272
1.430E-06,0.296
1.440E-06,0.296
1.450E-06,0.296
1.460E-06,0.296
1.470E-06,0.288
1.480E-06,0.288
1.490E-06,0.288
1.500E-06,0.312
1.510E-06,0.320
1.520E-06,0.328
1.530E-06,0.312
1.540E-06,0.304
1.550E-06,0.288
1.560E-06,0.272
1.570E-06,0.272
1.580E-06,0.288
1.590E-06,0.312
1.600E-06,0.320
1.610E-06,0.328
1.620E-06,0.320
1.630E-06,0.304
1.640E-06,0.288
1.650E-06,0.288
1.660E-06,0.296
1.670E-06,0.320
1.680E-06,0.320
1.690E-06,0.312
1.700E-06,0.312
1.710E-06,0.296
1.720E-06,0.288
1.730E-06,0.288
1.740E-06,0.288
1.750E-06,0.296
1.760E-06,0.312
1.770E-06,0.312
1.780E-06,0.320
1.790E-06,0.312
1.800E-06,0.304
1.810E-06,0.288
1.820E-06,0.288
1.830E-06,0.288
1.840E-06,0.312
1.850E-06,0.304
1.860E-06,0.296
1.870E-06,0.304
1.880E-06,0.296
1.890E-06,0.296
1.900E-06,0.296
1.910E-06,0.288
1.920E-06,0.296
1.930E-06,0.296
1.940E-06,0.288
1.950E-06,0.304
1.960E-06,0.280
1.970E-06,0.288
1.980E-06,0.280
1.990E-06,0.296
2.000E-06,0.280
2.010E-06,0.280
2.020E-06,0.288
2.030E-06,0.288
2.040E-06,0.296
2.050E-06,0.280
2.060E-06,0.280
2.070E-06,0.272
2.080E-06,0.280
2.090E-06,0.288
2.100E-06,0.280
2.110E-06,0.288
2.120E-06,0.264
2.130E-06,0.280
2.140E-06,0.280
2.150E-06,0.264
2.160E-06,0.280
2.170E-06,0.272
2.180E-06,0.272
2.190E-06,0.272
2.200E-06,0.272
2.210E-06,0.264
2.220E-06,0.272
2.230E-06,0.272
2.240E-06,0.264
2.250E-06,0.264
2.260E-06,0.272
2.270E-06,0.272
2.280E-06,0.288
2.290E-06,0.272
2.300E-06,0.272
2.310E-06,0.264
2.320E-06,0.264
2.330E-06,0.264
2.340E-06,0.272
2.350E-06,0.264
2.360E-06,0.256
2.370E-06,0.264
2.380E-06,0.256
2.390E-06,0.256
2.400E-06,0.256
2.410E-06,0.248
2.420E-06,0.248
2.430E-06,0.264
2.440E-06,0.264
2.450E-06,0.264
2.460E-06,0.256
2.470E-06,0.248
2.480E-06,0.248
2.490E-06,0.248
2.500E-06,0.256
2.510E-06,0.272
2.520E-06,0.272
2.530E-06,0.264
2.540E-06,0.264
2.550E-06,0.240
2.560E-06,0.232
2.570E-06,0.248
2.580E-06,0.256
2.590E-06,0.256
2.600E-06,0.256
2.610E-06,0.256
2.620E-06,0.248
2.630E-06,0.240
2.640E-06,0.216
2.650E-06,0.240
2.660E-06,0.240
2.670E-06,0.248
2.680E-06,0.256
2.690E-06,0.248
2.700E-06,0.248
2.710E-06,0.240
2.720E-06,0.256
2.730E-06,0.256
2.740E-06,0.256
2.750E-06,0.256
2.760E-06,0.256
2.770E-06,0.248
2.780E-06,0.248
2.790E-06,0.232
2.800E-06,0.224
2.810E-06,0.224
2.820E-06,0.224
2.830E-06,0.240
2.840E-06,0.248
2.850E-06,0.248
2.860E-06,0.240
2.870E-06,0.224
2.880E-06,0.224
2.890E-06,0.224
2.900E-06,0.216
2.910E-06,0.240
2.920E-06,0.240
2.930E-06,0.240
2.940E-06,0.248
2.950E-06,0.240
2.960E-06,0.216
2.970E-06,0.240
2.980E-06,0.216
2.990E-06,0.224
3.000E-06,0.248
3.010E-06,0.240
3.020E-06,0.240
3.030E-06,0.232
3.040E-06,0.224
3.050E-06,0.216
3.060E-06,0.208
3.070E-06,0.216
3.080E-06,0.224
3.090E-06,0.224
3.100E-06,0.216
3.110E-06,0.224
3.120E-06,0.216
3.130E-06,0.208
3.140E-06,0.216
3.150E-06,0.208
3.160E-06,0.224
3.170E-06,0.224
3.180E-06,0.224
3.190E-06,0.224
3.200E-06,0.208
3.210E-06,0.192
3.220E-06,0.192
3.230E-06,0.192
3.240E-06,0.216
3.250E-06,0.224
3.260E-06,0.232
3.270E-06,0.216
3.280E-06,0.216
3.290E-06,0.208
3.300E-06,0.200
3.310E-06,0.200
3.320E-06,0.200
3.330E-06,0.216
3.340E-06,0.208
3.350E-06,0.192
3.360E-06,0.184
3.370E-06,0.176
3.380E-06,0.184
3.390E-06,0.200
3.400E-06,0.216
3.410E-06,0.208
3.420E-06,0.216
3.430E-06,0.192
3.440E-06,0.192
3.450E-06,0.192
3.460E-06,0.192
3.470E-06,0.184
3.480E-06,0.208
3.490E-06,0.216
3.500E-06,0.208
3.510E-06,0.192
3.520E-06,0.192
3.530E-06,0.184
3.540E-06,0.192
3.550E-06,0.192
3.560E-06,0.192
3.570E-06,0.200
3.580E-06,0.192
3.590E-06,0.208
