mediciones/Mediciones filtradas (saque las feas)/5-15/-19.9/WaveData47672.csv

#timebase=2000000(ps)
,#voltbase=500000(mv/100)
#size=4000
-8.400E-06,0.060
-8.390E-06,0.100
-8.380E-06,0.060
-8.370E-06,0.060
-8.360E-06,0.020
-8.350E-06,0.060
-8.340E-06,0.080
-8.330E-06,0.060
-8.320E-06,0.060
-8.310E-06,0.040
-8.300E-06,0.060
-8.290E-06,0.040
-8.280E-06,0.040
-8.270E-06,0.040
-8.260E-06,0.060
-8.250E-06,0.040
-8.240E-06,0.040
-8.230E-06,0.020
-8.220E-06,0.020
-8.210E-06,0.020
-8.200E-06,0.020
-8.190E-06,0.060
-8.180E-06,0.080
-8.170E-06,0.040
-8.160E-06,0.060
-8.150E-06,0.080
-8.140E-06,0.080
-8.130E-06,0.100
-8.120E-06,0.080
-8.110E-06,0.060
-8.100E-06,0.040
-8.090E-06,0.080
-8.080E-06,0.060
-8.070E-06,0.040
-8.060E-06,0.040
-8.050E-06,0.020
-8.040E-06,0.040
-8.030E-06,0.040
-8.020E-06,0.060
-8.010E-06,0.040
-8.000E-06,0.020
-7.990E-06,0.040
-7.980E-06,0.060
-7.970E-06,0.020
-7.960E-06,0.020
-7.950E-06,0.040
-7.940E-06,0.020
-7.930E-06,0.040
-7.920E-06,0.040
-7.910E-06,0.020
-7.900E-06,0.020
-7.890E-06,0.040
-7.880E-06,0.040
-7.870E-06,0.060
-7.860E-06,0.060
-7.850E-06,0.040
-7.840E-06,0.040
-7.830E-06,0.040
-7.820E-06,0.060
-7.810E-06,0.020
-7.800E-06,0.040
-7.790E-06,0.060
-7.780E-06,0.040
-7.770E-06,0.060
-7.760E-06,0.060
-7.750E-06,0.080
-7.740E-06,0.060
-7.730E-06,0.040
-7.720E-06,0.060
-7.710E-06,0.040
-7.700E-06,0.060
-7.690E-06,0.060
-7.680E-06,0.060
-7.670E-06,0.060
-7.660E-06,0.080
-7.650E-06,0.040
-7.640E-06,0.020
-7.630E-06,0.020
-7.620E-06,0.040
-7.610E-06,0.040
-7.600E-06,0.060
-7.590E-06,0.040
-7.580E-06,0.060
-7.570E-06,0.060
-7.560E-06,0.060
-7.550E-06,0.060
-7.540E-06,0.060
-7.530E-06,0.060
-7.520E-06,0.060
-7.510E-06,0.060
-7.500E-06,0.040
-7.490E-06,0.040
-7.480E-06,0.060
-7.470E-06,0.080
-7.460E-06,0.080
-7.450E-06,0.080
-7.440E-06,0.040
-7.430E-06,0.060
-7.420E-06,0.060
-7.410E-06,0.060
-7.400E-06,0.060
-7.390E-06,0.080
-7.380E-06,0.040
-7.370E-06,0.020
-7.360E-06,0.060
-7.350E-06,0.020
-7.340E-06,0.020
-7.330E-06,0.040
-7.320E-06,0.060
-7.310E-06,0.020
-7.300E-06,0.020
-7.290E-06,0.020
-7.280E-06,0.060
-7.270E-06,0.020
-7.260E-06,0.040
-7.250E-06,0.060
-7.240E-06,0.080
-7.230E-06,0.060
-7.220E-06,0.060
-7.210E-06,0.060
-7.200E-06,0.060
-7.190E-06,0.080
-7.180E-06,0.080
-7.170E-06,0.080
-7.160E-06,0.080
-7.150E-06,0.040
-7.140E-06,0.060
-7.130E-06,0.060
-7.120E-06,0.080
-7.110E-06,0.040
-7.100E-06,0.020
-7.090E-06,0.040
-7.080E-06,0.060
-7.070E-06,0.080
-7.060E-06,0.080
-7.050E-06,0.040
-7.040E-06,0.040
-7.030E-06,0.060
-7.020E-06,0.040
-7.010E-06,0.040
-7.000E-06,0.040
-6.990E-06,0.080
-6.980E-06,0.060
-6.970E-06,0.040
-6.960E-06,0.020
-6.950E-06,0.040
-6.940E-06,0.040
-6.930E-06,0.060
-6.920E-06,0.080
-6.910E-06,0.060
-6.900E-06,0.020
-6.890E-06,0.040
-6.880E-06,0.020
-6.870E-06,0.040
-6.860E-06,0.060
-6.850E-06,0.040
-6.840E-06,0.060
-6.830E-06,0.020
-6.820E-06,0.040
-6.810E-06,0.060
-6.800E-06,0.040
-6.790E-06,0.020
-6.780E-06,0.060
-6.770E-06,0.080
-6.760E-06,0.040
-6.750E-06,0.020
-6.740E-06,0.060
-6.730E-06,0.080
-6.720E-06,0.060
-6.710E-06,0.060
-6.700E-06,0.080
-6.690E-06,0.060
-6.680E-06,0.060
-6.670E-06,0.060
-6.660E-06,0.060
-6.650E-06,0.060
-6.640E-06,0.060
-6.630E-06,0.060
-6.620E-06,0.060
-6.610E-06,0.060
-6.600E-06,0.060
-6.590E-06,0.060
-6.580E-06,0.060
-6.570E-06,0.060
-6.560E-06,0.060
-6.550E-06,0.060
-6.540E-06,0.040
-6.530E-06,0.040
-6.520E-06,0.040
-6.510E-06,0.040
-6.500E-06,0.060
-6.490E-06,0.040
-6.480E-06,0.040
-6.470E-06,0.040
-6.460E-06,0.040
-6.450E-06,0.060
-6.440E-06,0.040
-6.430E-06,0.040
-6.420E-06,0.060
-6.410E-06,0.060
-6.400E-06,0.040
-6.390E-06,0.020
-6.380E-06,0.060
-6.370E-06,0.020
-6.360E-06,0.040
-6.350E-06,0.080
-6.340E-06,0.040
-6.330E-06,0.060
-6.320E-06,0.060
-6.310E-06,0.020
-6.300E-06,0.040
-6.290E-06,0.060
-6.280E-06,0.060
-6.270E-06,0.020
-6.260E-06,0.040
-6.250E-06,0.080
-6.240E-06,0.040
-6.230E-06,0.040
-6.220E-06,0.080
-6.210E-06,0.060
-6.200E-06,0.040
-6.190E-06,0.040
-6.180E-06,0.060
-6.170E-06,0.040
-6.160E-06,0.060
-6.150E-06,0.020
-6.140E-06,0.020
-6.130E-06,0.040
-6.120E-06,0.020
-6.110E-06,0.040
-6.100E-06,0.060
-6.090E-06,0.040
-6.080E-06,0.040
-6.070E-06,0.040
-6.060E-06,0.040
-6.050E-06,0.060
-6.040E-06,0.040
-6.030E-06,0.020
-6.020E-06,0.060
-6.010E-06,0.020
-6.000E-06,0.040
-5.990E-06,0.060
-5.980E-06,0.020
-5.970E-06,0.060
-5.960E-06,0.020
-5.950E-06,0.040
-5.940E-06,0.040
-5.930E-06,0.040
-5.920E-06,0.060
-5.910E-06,0.060
-5.900E-06,0.080
-5.890E-06,0.060
-5.880E-06,0.040
-5.870E-06,0.040
-5.860E-06,0.040
-5.850E-06,0.040
-5.840E-06,0.040
-5.830E-06,0.080
-5.820E-06,0.060
-5.810E-06,0.060
-5.800E-06,0.080
-5.790E-06,0.060
-5.780E-06,0.040
-5.770E-06,0.060
-5.760E-06,0.060
-5.750E-06,0.060
-5.740E-06,0.040
-5.730E-06,0.080
-5.720E-06,0.020
-5.710E-06,0.020
-5.700E-06,0.060
-5.690E-06,0.020
-5.680E-06,0.040
-5.670E-06,0.040
-5.660E-06,0.040
-5.650E-06,0.060
-5.640E-06,0.060
-5.630E-06,0.060
-5.620E-06,0.060
-5.610E-06,0.060
-5.600E-06,0.080
-5.590E-06,0.060
-5.580E-06,0.020
-5.570E-06,0.040
-5.560E-06,0.080
-5.550E-06,0.040
-5.540E-06,0.040
-5.530E-06,0.060
-5.520E-06,0.060
-5.510E-06,0.080
-5.500E-06,0.060
-5.490E-06,0.060
-5.480E-06,0.060
-5.470E-06,0.060
-5.460E-06,0.040
-5.450E-06,0.040
-5.440E-06,0.080
-5.430E-06,0.060
-5.420E-06,0.080
-5.410E-06,0.080
-5.400E-06,0.080
-5.390E-06,0.040
-5.380E-06,0.040
-5.370E-06,0.040
-5.360E-06,0.060
-5.350E-06,0.060
-5.340E-06,0.060
-5.330E-06,0.060
-5.320E-06,0.040
-5.310E-06,0.060
-5.300E-06,0.060
-5.290E-06,0.080
-5.280E-06,0.080
-5.270E-06,0.080
-5.260E-06,0.040
-5.250E-06,0.060
-5.240E-06,0.060
-5.230E-06,0.060
-5.220E-06,0.080
-5.210E-06,0.020
-5.200E-06,0.060
-5.190E-06,0.060
-5.180E-06,0.040
-5.170E-06,0.020
-5.160E-06,0.060
-5.150E-06,0.080
-5.140E-06,0.080
-5.130E-06,0.080
-5.120E-06,0.020
-5.110E-06,0.040
-5.100E-06,0.060
-5.090E-06,0.060
-5.080E-06,0.080
-5.070E-06,0.040
-5.060E-06,0.060
-5.050E-06,0.040
-5.040E-06,0.040
-5.030E-06,0.060
-5.020E-06,0.080
-5.010E-06,0.040
-5.000E-06,0.040
-4.990E-06,0.040
-4.980E-06,0.060
-4.970E-06,0.060
-4.960E-06,0.060
-4.950E-06,0.080
-4.940E-06,0.040
-4.930E-06,0.060
-4.920E-06,0.040
-4.910E-06,0.060
-4.900E-06,0.060
-4.890E-06,0.080
-4.880E-06,0.060
-4.870E-06,0.040
-4.860E-06,0.060
-4.850E-06,0.040
-4.840E-06,0.040
-4.830E-06,0.060
-4.820E-06,0.040
-4.810E-06,0.060
-4.800E-06,0.080
-4.790E-06,0.060
-4.780E-06,0.080
-4.770E-06,0.020
-4.760E-06,0.060
-4.750E-06,0.080
-4.740E-06,0.040
-4.730E-06,0.020
-4.720E-06,0.060
-4.710E-06,0.080
-4.700E-06,0.040
-4.690E-06,0.020
-4.680E-06,0.060
-4.670E-06,0.020
-4.660E-06,0.040
-4.650E-06,0.060
-4.640E-06,0.080
-4.630E-06,0.060
-4.620E-06,0.060
-4.610E-06,0.060
-4.600E-06,0.060
-4.590E-06,0.080
-4.580E-06,0.060
-4.570E-06,0.040
-4.560E-06,0.040
-4.550E-06,0.060
-4.540E-06,0.080
-4.530E-06,0.040
-4.520E-06,0.020
-4.510E-06,0.060
-4.500E-06,0.060
-4.490E-06,0.020
-4.480E-06,0.040
-4.470E-06,0.060
-4.460E-06,0.060
-4.450E-06,0.080
-4.440E-06,0.040
-4.430E-06,0.020
-4.420E-06,0.060
-4.410E-06,0.080
-4.400E-06,0.060
-4.390E-06,0.060
-4.380E-06,0.080
-4.370E-06,0.020
-4.360E-06,0.040
-4.350E-06,0.040
-4.340E-06,0.040
-4.330E-06,0.060
-4.320E-06,0.020
-4.310E-06,0.040
-4.300E-06,0.060
-4.290E-06,0.020
-4.280E-06,0.040
-4.270E-06,0.060
-4.260E-06,0.040
-4.250E-06,0.040
-4.240E-06,0.040
-4.230E-06,0.080
-4.220E-06,0.040
-4.210E-06,0.040
-4.200E-06,0.060
-4.190E-06,0.040
-4.180E-06,0.020
-4.170E-06,0.060
-4.160E-06,0.040
-4.150E-06,0.020
-4.140E-06,0.040
-4.130E-06,0.020
-4.120E-06,0.040
-4.110E-06,0.040
-4.100E-06,0.060
-4.090E-06,0.040
-4.080E-06,0.040
-4.070E-06,0.060
-4.060E-06,0.060
-4.050E-06,0.040
-4.040E-06,0.060
-4.030E-06,0.020
-4.020E-06,0.060
-4.010E-06,0.060
-4.000E-06,0.060
-3.990E-06,0.080
-3.980E-06,0.080
-3.970E-06,0.080
-3.960E-06,0.040
-3.950E-06,0.040
-3.940E-06,0.060
-3.930E-06,0.060
-3.920E-06,0.060
-3.910E-06,0.040
-3.900E-06,0.040
-3.890E-06,0.040
-3.880E-06,0.060
-3.870E-06,0.040
-3.860E-06,0.040
-3.850E-06,0.060
-3.840E-06,0.040
-3.830E-06,0.040
-3.820E-06,0.040
-3.810E-06,0.060
-3.800E-06,0.040
-3.790E-06,0.040
-3.780E-06,0.060
-3.770E-06,0.060
-3.760E-06,0.020
-3.750E-06,0.060
-3.740E-06,0.040
-3.730E-06,0.080
-3.720E-06,0.040
-3.710E-06,0.060
-3.700E-06,0.040
-3.690E-06,0.080
-3.680E-06,0.060
-3.670E-06,0.020
-3.660E-06,0.060
-3.650E-06,0.060
-3.640E-06,0.060
-3.630E-06,0.060
-3.620E-06,0.040
-3.610E-06,0.060
-3.600E-06,0.040
-3.590E-06,0.080
-3.580E-06,0.080
-3.570E-06,0.020
-3.560E-06,0.040
-3.550E-06,0.060
-3.540E-06,0.040
-3.530E-06,0.080
-3.520E-06,0.060
-3.510E-06,0.040
-3.500E-06,0.060
-3.490E-06,0.040
-3.480E-06,0.060
-3.470E-06,0.060
-3.460E-06,0.060
-3.450E-06,0.060
-3.440E-06,0.040
-3.430E-06,0.040
-3.420E-06,0.080
-3.410E-06,0.040
-3.400E-06,0.020
-3.390E-06,0.040
-3.380E-06,0.020
-3.370E-06,0.040
-3.360E-06,0.040
-3.350E-06,0.040
-3.340E-06,0.060
-3.330E-06,0.040
-3.320E-06,0.060
-3.310E-06,0.040
-3.300E-06,0.060
-3.290E-06,0.060
-3.280E-06,0.080
-3.270E-06,0.040
-3.260E-06,0.040
-3.250E-06,0.040
-3.240E-06,0.020
-3.230E-06,0.020
-3.220E-06,0.060
-3.210E-06,0.020
-3.200E-06,0.040
-3.190E-06,0.060
-3.180E-06,0.060
-3.170E-06,0.040
-3.160E-06,0.060
-3.150E-06,0.060
-3.140E-06,0.060
-3.130E-06,0.080
-3.120E-06,0.060
-3.110E-06,0.060
-3.100E-06,0.040
-3.090E-06,0.040
-3.080E-06,0.080
-3.070E-06,0.040
-3.060E-06,0.060
-3.050E-06,0.040
-3.040E-06,0.060
-3.030E-06,0.040
-3.020E-06,0.040
-3.010E-06,0.060
-3.000E-06,0.040
-2.990E-06,0.060
-2.980E-06,0.040
-2.970E-06,0.060
-2.960E-06,0.060
-2.950E-06,0.080
-2.940E-06,0.060
-2.930E-06,0.080
-2.920E-06,0.080
-2.910E-06,0.040
-2.900E-06,0.040
-2.890E-06,0.060
-2.880E-06,0.040
-2.870E-06,0.060
-2.860E-06,0.060
-2.850E-06,0.080
-2.840E-06,0.040
-2.830E-06,0.040
-2.820E-06,0.060
-2.810E-06,0.060
-2.800E-06,0.040
-2.790E-06,0.040
-2.780E-06,0.040
-2.770E-06,0.060
-2.760E-06,0.040
-2.750E-06,0.020
-2.740E-06,0.060
-2.730E-06,0.060
-2.720E-06,0.080
-2.710E-06,0.060
-2.700E-06,0.060
-2.690E-06,0.080
-2.680E-06,0.040
-2.670E-06,0.060
-2.660E-06,0.080
-2.650E-06,0.020
-2.640E-06,0.020
-2.630E-06,0.060
-2.620E-06,0.080
-2.610E-06,0.120
-2.600E-06,0.160
-2.590E-06,0.240
-2.580E-06,0.160
-2.570E-06,0.160
-2.560E-06,0.060
-2.550E-06,-0.040
-2.540E-06,-0.040
-2.530E-06,0.000
-2.520E-06,0.020
-2.510E-06,-0.020
-2.500E-06,-0.020
-2.490E-06,-0.060
-2.480E-06,-0.100
-2.470E-06,-0.080
-2.460E-06,0.000
-2.450E-06,0.000
-2.440E-06,-0.060
-2.430E-06,-0.060
-2.420E-06,-0.040
-2.410E-06,-0.060
-2.400E-06,-0.020
-2.390E-06,0.060
-2.380E-06,0.060
-2.370E-06,0.040
-2.360E-06,0.000
-2.350E-06,0.060
-2.340E-06,0.080
-2.330E-06,0.080
-2.320E-06,0.120
-2.310E-06,0.120
-2.300E-06,0.100
-2.290E-06,0.120
-2.280E-06,0.100
-2.270E-06,0.080
-2.260E-06,0.100
-2.250E-06,0.080
-2.240E-06,0.080
-2.230E-06,0.040
-2.220E-06,0.060
-2.210E-06,0.060
-2.200E-06,0.080
-2.190E-06,0.060
-2.180E-06,0.080
-2.170E-06,0.060
-2.160E-06,0.040
-2.150E-06,0.060
-2.140E-06,0.040
-2.130E-06,0.080
-2.120E-06,0.040
-2.110E-06,0.060
-2.100E-06,0.040
-2.090E-06,0.020
-2.080E-06,0.000
-2.070E-06,-0.020
-2.060E-06,0.000
-2.050E-06,-0.040
-2.040E-06,-0.080
-2.030E-06,-0.100
-2.020E-06,-0.140
-2.010E-06,-0.160
-2.000E-06,-0.140
-1.990E-06,-0.140
-1.980E-06,-0.160
-1.970E-06,-0.160
-1.960E-06,-0.160
-1.950E-06,-0.160
-1.940E-06,-0.180
-1.930E-06,-0.140
-1.920E-06,-0.120
-1.910E-06,-0.140
-1.900E-06,-0.160
-1.890E-06,-0.180
-1.880E-06,-0.240
-1.870E-06,-0.240
-1.860E-06,-0.240
-1.850E-06,-0.260
-1.840E-06,-0.320
-1.830E-06,-0.260
-1.820E-06,-0.240
-1.810E-06,-0.200
-1.800E-06,-0.160
-1.790E-06,-0.160
-1.780E-06,-0.160
-1.770E-06,-0.220
-1.760E-06,-0.280
-1.750E-06,-0.180
-1.740E-06,-0.220
-1.730E-06,-0.200
-1.720E-06,-0.220
-1.710E-06,-0.260
-1.700E-06,-0.220
-1.690E-06,-0.160
-1.680E-06,-0.120
-1.670E-06,-0.140
-1.660E-06,-0.200
-1.650E-06,-0.300
-1.640E-06,-0.240
-1.630E-06,-0.320
-1.620E-06,-0.300
-1.610E-06,-0.340
-1.600E-06,-0.340
-1.590E-06,-0.460
-1.580E-06,-0.480
-1.570E-06,-0.500
-1.560E-06,-0.600
-1.550E-06,-0.500
-1.540E-06,-0.580
-1.530E-06,-0.500
-1.520E-06,-0.500
-1.510E-06,-0.380
-1.500E-06,-0.260
-1.490E-06,-0.220
-1.480E-06,-0.180
-1.470E-06,-0.220
-1.460E-06,-0.220
-1.450E-06,-0.260
-1.440E-06,-0.280
-1.430E-06,-0.300
-1.420E-06,-0.300
-1.410E-06,-0.240
-1.400E-06,-0.420
-1.390E-06,-0.320
-1.380E-06,-0.460
-1.370E-06,-0.380
-1.360E-06,-0.540
-1.350E-06,-0.560
-1.340E-06,-0.600
-1.330E-06,-0.560
-1.320E-06,-0.620
-1.310E-06,-0.620
-1.300E-06,-0.740
-1.290E-06,-0.680
-1.280E-06,-0.660
-1.270E-06,-0.600
-1.260E-06,-0.600
-1.250E-06,-0.640
-1.240E-06,-0.700
-1.230E-06,-0.640
-1.220E-06,-0.580
-1.210E-06,-0.540
-1.200E-06,-0.560
-1.190E-06,-0.660
-1.180E-06,-0.660
-1.170E-06,-0.600
-1.160E-06,-0.540
-1.150E-06,-0.500
-1.140E-06,-0.520
-1.130E-06,-0.560
-1.120E-06,-0.600
-1.110E-06,-0.580
-1.100E-06,-0.540
-1.090E-06,-0.560
-1.080E-06,-0.520
-1.070E-06,-0.520
-1.060E-06,-0.500
-1.050E-06,-0.540
-1.040E-06,-0.560
-1.030E-06,-0.540
-1.020E-06,-0.560
-1.010E-06,-0.500
-1.000E-06,-0.540
-9.900E-07,-0.580
-9.800E-07,-0.600
-9.700E-07,-0.600
-9.600E-07,-0.580
-9.500E-07,-0.540
-9.400E-07,-0.500
-9.300E-07,-0.520
-9.200E-07,-0.560
-9.100E-07,-0.560
-9.000E-07,-0.560
-8.900E-07,-0.520
-8.800E-07,-0.480
-8.700E-07,-0.460
-8.600E-07,-0.480
-8.500E-07,-0.500
-8.400E-07,-0.480
-8.300E-07,-0.480
-8.200E-07,-0.460
-8.100E-07,-0.440
-8.000E-07,-0.500
-7.900E-07,-0.520
-7.800E-07,-0.480
-7.700E-07,-0.440
-7.600E-07,-0.440
-7.500E-07,-0.380
-7.400E-07,-0.320
-7.300E-07,-0.340
-7.200E-07,-0.320
-7.100E-07,-0.320
-7.000E-07,-0.280
-6.900E-07,-0.280
-6.800E-07,-0.300
-6.700E-07,-0.300
-6.600E-07,-0.340
-6.500E-07,-0.360
-6.400E-07,-0.400
-6.300E-07,-0.400
-6.200E-07,-0.400
-6.100E-07,-0.400
-6.000E-07,-0.400
-5.900E-07,-0.500
-5.800E-07,-0.480
-5.700E-07,-0.560
-5.600E-07,-0.560
-5.500E-07,-0.620
-5.400E-07,-0.660
-5.300E-07,-0.720
-5.200E-07,-0.780
-5.100E-07,-0.880
-5.000E-07,-0.860
-4.900E-07,-0.920
-4.800E-07,-0.920
-4.700E-07,-0.940
-4.600E-07,-0.940
-4.500E-07,-0.940
-4.400E-07,-0.900
-4.300E-07,-0.940
-4.200E-07,-0.920
-4.100E-07,-0.960
-4.000E-07,-1.020
-3.900E-07,-1.180
-3.800E-07,-1.300
-3.700E-07,-1.480
-3.600E-07,-1.480
-3.500E-07,-1.620
-3.400E-07,-1.660
-3.300E-07,-1.940
-3.200E-07,-1.860
-3.100E-07,-2.200
-3.000E-07,-2.180
-2.900E-07,-2.520
-2.800E-07,-2.540
-2.700E-07,-2.540
-2.600E-07,-2.540
-2.500E-07,-2.400
-2.400E-07,-2.400
-2.300E-07,-2.380
-2.200E-07,-2.360
-2.100E-07,-2.380
-2.000E-07,-2.300
-1.900E-07,-2.320
-1.800E-07,-2.260
-1.700E-07,-2.280
-1.600E-07,-2.260
-1.500E-07,-2.160
-1.400E-07,-2.200
-1.300E-07,-2.120
-1.200E-07,-2.160
-1.100E-07,-2.180
-1.000E-07,-2.220
-9.000E-08,-2.260
-8.000E-08,-2.040
-7.000E-08,-2.080
-6.000E-08,-1.780
-5.000E-08,-1.100
-4.000E-08,0.920
-3.000E-08,2.760
-2.000E-08,2.360
-1.000E-08,-0.020
0.000E+00,-0.260
1.000E-08,-0.100
2.000E-08,-0.040
3.000E-08,-0.700
4.000E-08,0.340
5.000E-08,-0.680
6.000E-08,-2.340
7.000E-08,-2.660
8.000E-08,-1.660
9.000E-08,-0.920
1.000E-07,-0.360
1.100E-07,-0.460
1.200E-07,-1.260
1.300E-07,-2.260
1.400E-07,-2.160
1.500E-07,-1.700
1.600E-07,-1.660
1.700E-07,-1.520
1.800E-07,-1.260
1.900E-07,-1.420
2.000E-07,-1.960
2.100E-07,-2.020
2.200E-07,-1.720
2.300E-07,-1.740
2.400E-07,-1.700
2.500E-07,-1.640
2.600E-07,-1.680
2.700E-07,-2.100
2.800E-07,-2.360
2.900E-07,-2.360
3.000E-07,-2.560
3.100E-07,-2.660
3.200E-07,-2.660
3.300E-07,-2.500
3.400E-07,-2.660
3.500E-07,-2.660
3.600E-07,-2.660
3.700E-07,-2.660
3.800E-07,-2.660
3.900E-07,-2.640
4.000E-07,-2.640
4.100E-07,-2.640
4.200E-07,-2.640
4.300E-07,-2.660
4.400E-07,-2.660
4.500E-07,-2.660
4.600E-07,-2.660
4.700E-07,-2.660
4.800E-07,-2.660
4.900E-07,-2.660
5.000E-07,-2.660
5.100E-07,-2.660
5.200E-07,-2.660
5.300E-07,-2.660
5.400E-07,-2.660
5.500E-07,-2.660
5.600E-07,-2.660
5.700E-07,-2.640
5.800E-07,-2.660
5.900E-07,-2.660
6.000E-07,-2.660
6.100E-07,-2.660
6.200E-07,-2.660
6.300E-07,-2.660
6.400E-07,-2.640
6.500E-07,-2.660
6.600E-07,-2.660
6.700E-07,-2.680
6.800E-07,-2.660
6.900E-07,-2.660
7.000E-07,-2.660
7.100E-07,-2.660
7.200E-07,-2.660
7.300E-07,-2.680
7.400E-07,-2.660
7.500E-07,-2.660
7.600E-07,-2.660
7.700E-07,-2.660
7.800E-07,-2.660
7.900E-07,-2.640
8.000E-07,-2.660
8.100E-07,-2.660
8.200E-07,-2.660
8.300E-07,-2.660
8.400E-07,-2.660
8.500E-07,-2.660
8.600E-07,-2.660
8.700E-07,-2.360
8.800E-07,-2.100
8.900E-07,-2.220
9.000E-07,-2.300
9.100E-07,-2.520
9.200E-07,-2.680
9.300E-07,-2.660
9.400E-07,-2.660
9.500E-07,-2.660
9.600E-07,-2.660
9.700E-07,-2.660
9.800E-07,-2.660
9.900E-07,-2.680
1.000E-06,-2.680
1.010E-06,-2.660
1.020E-06,-2.660
1.030E-06,-2.660
1.040E-06,-2.660
1.050E-06,-2.660
1.060E-06,-2.660
1.070E-06,-2.660
1.080E-06,-2.680
1.090E-06,-2.660
1.100E-06,-2.660
1.110E-06,-2.640
1.120E-06,-2.640
1.130E-06,-2.660
1.140E-06,-2.660
1.150E-06,-2.660
1.160E-06,-2.660
1.170E-06,-2.660
1.180E-06,-2.660
1.190E-06,-2.660
1.200E-06,-2.660
1.210E-06,-2.660
1.220E-06,-2.660
1.230E-06,-2.660
1.240E-06,-2.660
1.250E-06,-2.660
1.260E-06,-2.660
1.270E-06,-2.660
1.280E-06,-2.660
1.290E-06,-2.660
1.300E-06,-2.660
1.310E-06,-2.660
1.320E-06,-2.660
1.330E-06,-2.560
1.340E-06,-2.360
1.350E-06,-2.220
1.360E-06,-2.100
1.370E-06,-2.000
1.380E-06,-1.980
1.390E-06,-1.940
1.400E-06,-1.760
1.410E-06,-1.640
1.420E-06,-1.500
1.430E-06,-1.360
1.440E-06,-1.280
1.450E-06,-1.180
1.460E-06,-1.160
1.470E-06,-1.080
1.480E-06,-0.980
1.490E-06,-0.920
1.500E-06,-0.900
1.510E-06,-0.880
1.520E-06,-0.960
1.530E-06,-1.060
1.540E-06,-1.180
1.550E-06,-1.200
1.560E-06,-1.280
1.570E-06,-1.400
1.580E-06,-1.500
1.590E-06,-1.600
1.600E-06,-1.780
1.610E-06,-1.940
1.620E-06,-1.980
1.630E-06,-1.980
1.640E-06,-1.960
1.650E-06,-2.000
1.660E-06,-1.900
1.670E-06,-1.800
1.680E-06,-1.720
1.690E-06,-1.780
1.700E-06,-1.800
1.710E-06,-1.820
1.720E-06,-1.960
1.730E-06,-2.100
1.740E-06,-2.120
1.750E-06,-2.160
1.760E-06,-2.260
1.770E-06,-2.380
1.780E-06,-2.460
1.790E-06,-2.520
1.800E-06,-2.660
1.810E-06,-2.660
1.820E-06,-2.680
1.830E-06,-2.660
1.840E-06,-2.660
1.850E-06,-2.640
1.860E-06,-2.660
1.870E-06,-2.660
1.880E-06,-2.660
1.890E-06,-2.660
1.900E-06,-2.640
1.910E-06,-2.640
1.920E-06,-2.660
1.930E-06,-2.660
1.940E-06,-2.660
1.950E-06,-2.660
1.960E-06,-2.640
1.970E-06,-2.640
1.980E-06,-2.640
1.990E-06,-2.660
2.000E-06,-2.660
2.010E-06,-2.660
2.020E-06,-2.660
2.030E-06,-2.660
2.040E-06,-2.660
2.050E-06,-2.660
2.060E-06,-2.660
2.070E-06,-2.660
2.080E-06,-2.660
2.090E-06,-2.680
2.100E-06,-2.680
2.110E-06,-2.660
2.120E-06,-2.660
2.130E-06,-2.640
2.140E-06,-2.660
2.150E-06,-2.660
2.160E-06,-2.660
2.170E-06,-2.640
2.180E-06,-2.640
2.190E-06,-2.640
2.200E-06,-2.660
2.210E-06,-2.660
2.220E-06,-2.660
2.230E-06,-2.660
2.240E-06,-2.660
2.250E-06,-2.660
2.260E-06,-2.660
2.270E-06,-2.660
2.280E-06,-2.680
2.290E-06,-2.660
2.300E-06,-2.660
2.310E-06,-2.660
2.320E-06,-2.660
2.330E-06,-2.660
2.340E-06,-2.660
2.350E-06,-2.660
2.360E-06,-2.640
2.370E-06,-2.640
2.380E-06,-2.660
2.390E-06,-2.660
2.400E-06,-2.660
2.410E-06,-2.660
2.420E-06,-2.660
2.430E-06,-2.660
2.440E-06,-2.660
2.450E-06,-2.560
2.460E-06,-2.220
2.470E-06,-1.900
2.480E-06,-1.560
2.490E-06,-1.280
2.500E-06,-1.080
2.510E-06,-0.860
2.520E-06,-0.600
2.530E-06,-0.460
2.540E-06,-0.380
2.550E-06,-0.320
2.560E-06,-0.260
2.570E-06,-0.180
2.580E-06,-0.160
2.590E-06,-0.080
2.600E-06,-0.100
2.610E-06,-0.080
2.620E-06,-0.080
2.630E-06,-0.100
2.640E-06,-0.080
2.650E-06,-0.060
2.660E-06,-0.060
2.670E-06,-0.080
2.680E-06,-0.120
2.690E-06,-0.160
2.700E-06,-0.240
2.710E-06,-0.280
2.720E-06,-0.300
2.730E-06,-0.340
2.740E-06,-0.360
2.750E-06,-0.440
2.760E-06,-0.520
2.770E-06,-0.600
2.780E-06,-0.660
2.790E-06,-0.720
2.800E-06,-0.780
2.810E-06,-0.820
2.820E-06,-0.840
2.830E-06,-0.860
2.840E-06,-0.860
2.850E-06,-0.840
2.860E-06,-0.840
2.870E-06,-0.780
2.880E-06,-0.740
2.890E-06,-0.640
2.900E-06,-0.580
2.910E-06,-0.500
2.920E-06,-0.440
2.930E-06,-0.380
2.940E-06,-0.300
2.950E-06,-0.220
2.960E-06,-0.140
2.970E-06,-0.060
2.980E-06,0.020
2.990E-06,0.080
3.000E-06,0.060
3.010E-06,0.120
3.020E-06,0.160
3.030E-06,0.220
3.040E-06,0.240
3.050E-06,0.240
3.060E-06,0.260
3.070E-06,0.260
3.080E-06,0.300
3.090E-06,0.300
3.100E-06,0.320
3.110E-06,0.340
3.120E-06,0.420
3.130E-06,0.500
3.140E-06,0.680
3.150E-06,0.840
3.160E-06,0.940
3.170E-06,1.020
3.180E-06,1.020
3.190E-06,0.960
3.200E-06,0.800
