mediciones/Mediciones filtradas (saque las feas)/5-15/-19.9/WaveData47670.csv

#timebase=2000000(ps)
,#voltbase=500000(mv/100)
#size=4000
-8.400E-06,0.040
-8.390E-06,0.040
-8.380E-06,0.060
-8.370E-06,0.040
-8.360E-06,0.020
-8.350E-06,0.020
-8.340E-06,0.040
-8.330E-06,0.040
-8.320E-06,0.040
-8.310E-06,0.080
-8.300E-06,0.060
-8.290E-06,0.060
-8.280E-06,0.020
-8.270E-06,0.020
-8.260E-06,0.060
-8.250E-06,0.040
-8.240E-06,0.040
-8.230E-06,0.020
-8.220E-06,0.040
-8.210E-06,0.060
-8.200E-06,0.040
-8.190E-06,0.060
-8.180E-06,0.060
-8.170E-06,0.060
-8.160E-06,0.020
-8.150E-06,0.060
-8.140E-06,0.020
-8.130E-06,0.060
-8.120E-06,0.080
-8.110E-06,0.080
-8.100E-06,0.040
-8.090E-06,0.040
-8.080E-06,0.060
-8.070E-06,0.060
-8.060E-06,0.040
-8.050E-06,0.080
-8.040E-06,0.060
-8.030E-06,0.040
-8.020E-06,0.040
-8.010E-06,0.040
-8.000E-06,0.060
-7.990E-06,0.040
-7.980E-06,0.040
-7.970E-06,0.060
-7.960E-06,0.060
-7.950E-06,0.060
-7.940E-06,0.080
-7.930E-06,0.060
-7.920E-06,0.020
-7.910E-06,0.060
-7.900E-06,0.080
-7.890E-06,0.020
-7.880E-06,0.060
-7.870E-06,0.060
-7.860E-06,0.060
-7.850E-06,0.040
-7.840E-06,0.060
-7.830E-06,0.060
-7.820E-06,0.060
-7.810E-06,0.060
-7.800E-06,0.060
-7.790E-06,0.060
-7.780E-06,0.080
-7.770E-06,0.040
-7.760E-06,0.060
-7.750E-06,0.060
-7.740E-06,0.080
-7.730E-06,0.040
-7.720E-06,0.040
-7.710E-06,0.040
-7.700E-06,0.060
-7.690E-06,0.080
-7.680E-06,0.060
-7.670E-06,0.060
-7.660E-06,0.060
-7.650E-06,0.060
-7.640E-06,0.040
-7.630E-06,0.080
-7.620E-06,0.020
-7.610E-06,0.020
-7.600E-06,0.040
-7.590E-06,0.040
-7.580E-06,0.060
-7.570E-06,0.020
-7.560E-06,0.040
-7.550E-06,0.060
-7.540E-06,0.060
-7.530E-06,0.020
-7.520E-06,0.040
-7.510E-06,0.040
-7.500E-06,0.080
-7.490E-06,0.040
-7.480E-06,0.040
-7.470E-06,0.040
-7.460E-06,0.040
-7.450E-06,0.060
-7.440E-06,0.040
-7.430E-06,0.040
-7.420E-06,0.060
-7.410E-06,0.060
-7.400E-06,0.060
-7.390E-06,0.060
-7.380E-06,0.080
-7.370E-06,0.060
-7.360E-06,0.040
-7.350E-06,0.060
-7.340E-06,0.080
-7.330E-06,0.040
-7.320E-06,0.060
-7.310E-06,0.080
-7.300E-06,0.040
-7.290E-06,0.080
-7.280E-06,0.080
-7.270E-06,0.020
-7.260E-06,0.060
-7.250E-06,0.080
-7.240E-06,0.060
-7.230E-06,0.040
-7.220E-06,0.080
-7.210E-06,0.060
-7.200E-06,0.020
-7.190E-06,0.060
-7.180E-06,0.020
-7.170E-06,0.060
-7.160E-06,0.020
-7.150E-06,0.020
-7.140E-06,0.060
-7.130E-06,0.080
-7.120E-06,0.040
-7.110E-06,0.060
-7.100E-06,0.040
-7.090E-06,0.060
-7.080E-06,0.060
-7.070E-06,0.020
-7.060E-06,0.040
-7.050E-06,0.040
-7.040E-06,0.040
-7.030E-06,0.040
-7.020E-06,0.080
-7.010E-06,0.040
-7.000E-06,0.040
-6.990E-06,0.060
-6.980E-06,0.060
-6.970E-06,0.040
-6.960E-06,0.080
-6.950E-06,0.080
-6.940E-06,0.040
-6.930E-06,0.060
-6.920E-06,0.060
-6.910E-06,0.060
-6.900E-06,0.060
-6.890E-06,0.060
-6.880E-06,0.040
-6.870E-06,0.060
-6.860E-06,0.040
-6.850E-06,0.020
-6.840E-06,0.020
-6.830E-06,0.040
-6.820E-06,0.040
-6.810E-06,0.040
-6.800E-06,0.080
-6.790E-06,0.040
-6.780E-06,0.020
-6.770E-06,0.040
-6.760E-06,0.040
-6.750E-06,0.080
-6.740E-06,0.060
-6.730E-06,0.060
-6.720E-06,0.040
-6.710E-06,0.040
-6.700E-06,0.060
-6.690E-06,0.060
-6.680E-06,0.040
-6.670E-06,0.060
-6.660E-06,0.080
-6.650E-06,0.080
-6.640E-06,0.060
-6.630E-06,0.080
-6.620E-06,0.060
-6.610E-06,0.020
-6.600E-06,0.060
-6.590E-06,0.060
-6.580E-06,0.040
-6.570E-06,0.080
-6.560E-06,0.040
-6.550E-06,0.060
-6.540E-06,0.060
-6.530E-06,0.080
-6.520E-06,0.060
-6.510E-06,0.040
-6.500E-06,0.060
-6.490E-06,0.040
-6.480E-06,0.060
-6.470E-06,0.020
-6.460E-06,0.040
-6.450E-06,0.040
-6.440E-06,0.060
-6.430E-06,0.060
-6.420E-06,0.040
-6.410E-06,0.060
-6.400E-06,0.060
-6.390E-06,0.020
-6.380E-06,0.040
-6.370E-06,0.060
-6.360E-06,0.020
-6.350E-06,0.040
-6.340E-06,0.060
-6.330E-06,0.060
-6.320E-06,0.060
-6.310E-06,0.060
-6.300E-06,0.060
-6.290E-06,0.080
-6.280E-06,0.060
-6.270E-06,0.080
-6.260E-06,0.020
-6.250E-06,0.040
-6.240E-06,0.060
-6.230E-06,0.080
-6.220E-06,0.060
-6.210E-06,0.060
-6.200E-06,0.060
-6.190E-06,0.080
-6.180E-06,0.060
-6.170E-06,0.080
-6.160E-06,0.040
-6.150E-06,0.060
-6.140E-06,0.040
-6.130E-06,0.060
-6.120E-06,0.060
-6.110E-06,0.080
-6.100E-06,0.060
-6.090E-06,0.080
-6.080E-06,0.060
-6.070E-06,0.020
-6.060E-06,0.040
-6.050E-06,0.040
-6.040E-06,0.060
-6.030E-06,0.060
-6.020E-06,0.060
-6.010E-06,0.060
-6.000E-06,0.060
-5.990E-06,0.080
-5.980E-06,0.040
-5.970E-06,0.040
-5.960E-06,0.060
-5.950E-06,0.040
-5.940E-06,0.040
-5.930E-06,0.020
-5.920E-06,0.040
-5.910E-06,0.080
-5.900E-06,0.080
-5.890E-06,0.020
-5.880E-06,0.040
-5.870E-06,0.060
-5.860E-06,0.040
-5.850E-06,0.060
-5.840E-06,0.060
-5.830E-06,0.040
-5.820E-06,0.060
-5.810E-06,0.080
-5.800E-06,0.060
-5.790E-06,0.060
-5.780E-06,0.040
-5.770E-06,0.060
-5.760E-06,0.060
-5.750E-06,0.060
-5.740E-06,0.040
-5.730E-06,0.080
-5.720E-06,0.060
-5.710E-06,0.080
-5.700E-06,0.040
-5.690E-06,0.060
-5.680E-06,0.040
-5.670E-06,0.060
-5.660E-06,0.060
-5.650E-06,0.040
-5.640E-06,0.060
-5.630E-06,0.080
-5.620E-06,0.100
-5.610E-06,0.060
-5.600E-06,0.020
-5.590E-06,0.020
-5.580E-06,0.020
-5.570E-06,0.040
-5.560E-06,0.040
-5.550E-06,0.020
-5.540E-06,0.020
-5.530E-06,0.000
-5.520E-06,0.020
-5.510E-06,0.060
-5.500E-06,0.060
-5.490E-06,0.020
-5.480E-06,0.040
-5.470E-06,0.060
-5.460E-06,0.040
-5.450E-06,0.080
-5.440E-06,0.080
-5.430E-06,0.040
-5.420E-06,0.060
-5.410E-06,0.060
-5.400E-06,0.060
-5.390E-06,0.060
-5.380E-06,0.060
-5.370E-06,0.100
-5.360E-06,0.080
-5.350E-06,0.060
-5.340E-06,0.080
-5.330E-06,0.060
-5.320E-06,0.060
-5.310E-06,0.040
-5.300E-06,0.100
-5.290E-06,0.040
-5.280E-06,0.060
-5.270E-06,0.040
-5.260E-06,0.040
-5.250E-06,0.060
-5.240E-06,0.080
-5.230E-06,0.080
-5.220E-06,0.040
-5.210E-06,0.040
-5.200E-06,0.040
-5.190E-06,0.060
-5.180E-06,0.040
-5.170E-06,0.060
-5.160E-06,0.060
-5.150E-06,0.020
-5.140E-06,0.040
-5.130E-06,0.020
-5.120E-06,0.040
-5.110E-06,0.060
-5.100E-06,0.060
-5.090E-06,0.040
-5.080E-06,0.040
-5.070E-06,0.060
-5.060E-06,0.040
-5.050E-06,0.080
-5.040E-06,0.060
-5.030E-06,0.040
-5.020E-06,0.060
-5.010E-06,0.080
-5.000E-06,0.040
-4.990E-06,0.080
-4.980E-06,0.080
-4.970E-06,0.080
-4.960E-06,0.100
-4.950E-06,0.100
-4.940E-06,0.060
-4.930E-06,0.080
-4.920E-06,0.080
-4.910E-06,0.080
-4.900E-06,0.080
-4.890E-06,0.080
-4.880E-06,0.060
-4.870E-06,0.060
-4.860E-06,0.060
-4.850E-06,0.060
-4.840E-06,0.060
-4.830E-06,0.080
-4.820E-06,0.060
-4.810E-06,0.040
-4.800E-06,0.080
-4.790E-06,0.060
-4.780E-06,0.020
-4.770E-06,0.040
-4.760E-06,0.000
-4.750E-06,0.000
-4.740E-06,0.020
-4.730E-06,0.000
-4.720E-06,0.040
-4.710E-06,0.060
-4.700E-06,0.040
-4.690E-06,0.020
-4.680E-06,0.000
-4.670E-06,-0.060
-4.660E-06,-0.040
-4.650E-06,-0.080
-4.640E-06,-0.080
-4.630E-06,-0.100
-4.620E-06,-0.100
-4.610E-06,-0.100
-4.600E-06,-0.100
-4.590E-06,-0.080
-4.580E-06,-0.040
-4.570E-06,-0.040
-4.560E-06,-0.040
-4.550E-06,-0.060
-4.540E-06,-0.020
-4.530E-06,0.000
-4.520E-06,0.020
-4.510E-06,0.060
-4.500E-06,0.060
-4.490E-06,0.080
-4.480E-06,0.060
-4.470E-06,0.120
-4.460E-06,0.140
-4.450E-06,0.120
-4.440E-06,0.120
-4.430E-06,0.100
-4.420E-06,0.100
-4.410E-06,0.100
-4.400E-06,0.100
-4.390E-06,0.060
-4.380E-06,0.060
-4.370E-06,0.060
-4.360E-06,0.080
-4.350E-06,0.100
-4.340E-06,0.080
-4.330E-06,0.100
-4.320E-06,0.100
-4.310E-06,0.040
-4.300E-06,0.060
-4.290E-06,0.060
-4.280E-06,0.060
-4.270E-06,0.040
-4.260E-06,0.020
-4.250E-06,0.020
-4.240E-06,0.020
-4.230E-06,0.020
-4.220E-06,0.000
-4.210E-06,0.020
-4.200E-06,0.020
-4.190E-06,0.040
-4.180E-06,0.040
-4.170E-06,0.040
-4.160E-06,0.000
-4.150E-06,0.040
-4.140E-06,0.080
-4.130E-06,0.060
-4.120E-06,0.040
-4.110E-06,0.020
-4.100E-06,0.040
-4.090E-06,0.060
-4.080E-06,0.060
-4.070E-06,0.080
-4.060E-06,0.040
-4.050E-06,0.020
-4.040E-06,0.020
-4.030E-06,0.060
-4.020E-06,0.040
-4.010E-06,0.080
-4.000E-06,0.080
-3.990E-06,0.040
-3.980E-06,0.020
-3.970E-06,0.020
-3.960E-06,0.060
-3.950E-06,0.040
-3.940E-06,0.020
-3.930E-06,0.040
-3.920E-06,0.020
-3.910E-06,0.040
-3.900E-06,0.060
-3.890E-06,0.040
-3.880E-06,0.060
-3.870E-06,0.060
-3.860E-06,0.040
-3.850E-06,0.040
-3.840E-06,0.020
-3.830E-06,0.040
-3.820E-06,0.000
-3.810E-06,0.000
-3.800E-06,0.020
-3.790E-06,0.000
-3.780E-06,-0.020
-3.770E-06,0.000
-3.760E-06,-0.020
-3.750E-06,0.000
-3.740E-06,-0.020
-3.730E-06,0.000
-3.720E-06,0.020
-3.710E-06,0.020
-3.700E-06,0.020
-3.690E-06,-0.020
-3.680E-06,0.000
-3.670E-06,0.000
-3.660E-06,0.000
-3.650E-06,0.000
-3.640E-06,-0.020
-3.630E-06,0.000
-3.620E-06,0.000
-3.610E-06,-0.020
-3.600E-06,0.000
-3.590E-06,0.000
-3.580E-06,0.000
-3.570E-06,-0.040
-3.560E-06,0.000
-3.550E-06,-0.020
-3.540E-06,-0.020
-3.530E-06,-0.060
-3.520E-06,-0.040
-3.510E-06,-0.060
-3.500E-06,-0.100
-3.490E-06,-0.120
-3.480E-06,-0.080
-3.470E-06,-0.120
-3.460E-06,-0.080
-3.450E-06,-0.080
-3.440E-06,-0.080
-3.430E-06,-0.040
-3.420E-06,-0.040
-3.410E-06,-0.020
-3.400E-06,-0.040
-3.390E-06,-0.040
-3.380E-06,-0.140
-3.370E-06,-0.100
-3.360E-06,-0.140
-3.350E-06,-0.120
-3.340E-06,-0.120
-3.330E-06,-0.120
-3.320E-06,-0.120
-3.310E-06,-0.100
-3.300E-06,-0.060
-3.290E-06,-0.020
-3.280E-06,-0.020
-3.270E-06,-0.020
-3.260E-06,-0.040
-3.250E-06,-0.040
-3.240E-06,-0.020
-3.230E-06,-0.100
-3.220E-06,-0.140
-3.210E-06,-0.160
-3.200E-06,-0.160
-3.190E-06,-0.160
-3.180E-06,-0.140
-3.170E-06,-0.100
-3.160E-06,-0.060
-3.150E-06,-0.020
-3.140E-06,0.000
-3.130E-06,0.040
-3.120E-06,0.100
-3.110E-06,0.100
-3.100E-06,0.100
-3.090E-06,0.140
-3.080E-06,0.100
-3.070E-06,0.120
-3.060E-06,0.120
-3.050E-06,0.160
-3.040E-06,0.180
-3.030E-06,0.180
-3.020E-06,0.200
-3.010E-06,0.180
-3.000E-06,0.160
-2.990E-06,0.120
-2.980E-06,0.120
-2.970E-06,0.100
-2.960E-06,0.100
-2.950E-06,0.060
-2.940E-06,0.020
-2.930E-06,0.020
-2.920E-06,0.000
-2.910E-06,0.000
-2.900E-06,0.000
-2.890E-06,-0.020
-2.880E-06,-0.020
-2.870E-06,-0.060
-2.860E-06,-0.060
-2.850E-06,-0.060
-2.840E-06,-0.120
-2.830E-06,-0.140
-2.820E-06,-0.160
-2.810E-06,-0.180
-2.800E-06,-0.220
-2.790E-06,-0.220
-2.780E-06,-0.260
-2.770E-06,-0.280
-2.760E-06,-0.260
-2.750E-06,-0.280
-2.740E-06,-0.280
-2.730E-06,-0.260
-2.720E-06,-0.300
-2.710E-06,-0.300
-2.700E-06,-0.320
-2.690E-06,-0.300
-2.680E-06,-0.380
-2.670E-06,-0.220
-2.660E-06,-0.180
-2.650E-06,-0.120
-2.640E-06,-0.100
-2.630E-06,-0.160
-2.620E-06,-0.260
-2.610E-06,-0.240
-2.600E-06,-0.260
-2.590E-06,-0.180
-2.580E-06,-0.140
-2.570E-06,-0.180
-2.560E-06,-0.180
-2.550E-06,-0.200
-2.540E-06,-0.140
-2.530E-06,-0.040
-2.520E-06,0.000
-2.510E-06,0.000
-2.500E-06,-0.020
-2.490E-06,-0.060
-2.480E-06,-0.020
-2.470E-06,0.020
-2.460E-06,0.040
-2.450E-06,0.100
-2.440E-06,0.060
-2.430E-06,0.060
-2.420E-06,0.040
-2.410E-06,0.080
-2.400E-06,0.120
-2.390E-06,0.120
-2.380E-06,0.080
-2.370E-06,0.060
-2.360E-06,0.080
-2.350E-06,0.080
-2.340E-06,0.100
-2.330E-06,0.120
-2.320E-06,0.120
-2.310E-06,0.140
-2.300E-06,0.120
-2.290E-06,0.100
-2.280E-06,0.100
-2.270E-06,0.140
-2.260E-06,0.120
-2.250E-06,0.040
-2.240E-06,0.000
-2.230E-06,-0.020
-2.220E-06,-0.040
-2.210E-06,-0.020
-2.200E-06,-0.020
-2.190E-06,-0.060
-2.180E-06,-0.080
-2.170E-06,-0.100
-2.160E-06,-0.060
-2.150E-06,-0.040
-2.140E-06,-0.060
-2.130E-06,-0.020
-2.120E-06,-0.040
-2.110E-06,-0.020
-2.100E-06,-0.020
-2.090E-06,0.020
-2.080E-06,0.020
-2.070E-06,0.040
-2.060E-06,0.060
-2.050E-06,0.000
-2.040E-06,0.040
-2.030E-06,0.060
-2.020E-06,0.040
-2.010E-06,0.020
-2.000E-06,0.040
-1.990E-06,0.060
-1.980E-06,0.020
-1.970E-06,0.000
-1.960E-06,0.000
-1.950E-06,-0.020
-1.940E-06,-0.020
-1.930E-06,0.000
-1.920E-06,-0.020
-1.910E-06,-0.040
-1.900E-06,-0.060
-1.890E-06,-0.080
-1.880E-06,-0.100
-1.870E-06,-0.140
-1.860E-06,-0.160
-1.850E-06,-0.160
-1.840E-06,-0.220
-1.830E-06,-0.240
-1.820E-06,-0.300
-1.810E-06,-0.260
-1.800E-06,-0.220
-1.790E-06,-0.220
-1.780E-06,-0.220
-1.770E-06,-0.240
-1.760E-06,-0.200
-1.750E-06,0.120
-1.740E-06,-0.380
-1.730E-06,0.060
-1.720E-06,-0.380
-1.710E-06,-0.420
-1.700E-06,-0.420
-1.690E-06,-0.420
-1.680E-06,-0.300
-1.670E-06,-0.160
-1.660E-06,-0.340
-1.650E-06,-0.340
-1.640E-06,-0.340
-1.630E-06,-0.240
-1.620E-06,-0.040
-1.610E-06,-0.060
-1.600E-06,-0.100
-1.590E-06,-0.160
-1.580E-06,-0.160
-1.570E-06,-0.100
-1.560E-06,0.040
-1.550E-06,0.080
-1.540E-06,0.040
-1.530E-06,0.000
-1.520E-06,0.000
-1.510E-06,0.060
-1.500E-06,0.100
-1.490E-06,0.180
-1.480E-06,0.160
-1.470E-06,0.120
-1.460E-06,0.120
-1.450E-06,0.140
-1.440E-06,0.180
-1.430E-06,0.160
-1.420E-06,0.180
-1.410E-06,0.180
-1.400E-06,0.160
-1.390E-06,0.160
-1.380E-06,0.160
-1.370E-06,0.120
-1.360E-06,0.100
-1.350E-06,0.080
-1.340E-06,0.040
-1.330E-06,-0.080
-1.320E-06,-0.120
-1.310E-06,-0.160
-1.300E-06,-0.140
-1.290E-06,-0.140
-1.280E-06,-0.140
-1.270E-06,-0.140
-1.260E-06,-0.120
-1.250E-06,-0.100
-1.240E-06,-0.080
-1.230E-06,-0.040
-1.220E-06,-0.040
-1.210E-06,-0.020
-1.200E-06,-0.020
-1.190E-06,-0.020
-1.180E-06,0.000
-1.170E-06,0.060
-1.160E-06,0.080
-1.150E-06,0.120
-1.140E-06,0.080
-1.130E-06,0.060
-1.120E-06,0.100
-1.110E-06,0.120
-1.100E-06,0.100
-1.090E-06,0.140
-1.080E-06,0.120
-1.070E-06,0.120
-1.060E-06,0.100
-1.050E-06,0.060
-1.040E-06,0.080
-1.030E-06,0.060
-1.020E-06,0.020
-1.010E-06,0.000
-1.000E-06,0.000
-9.900E-07,-0.040
-9.800E-07,0.020
-9.700E-07,0.000
-9.600E-07,-0.020
-9.500E-07,0.000
-9.400E-07,-0.100
-9.300E-07,-0.140
-9.200E-07,-0.200
-9.100E-07,-0.320
-9.000E-07,-0.360
-8.900E-07,-0.400
-8.800E-07,-0.400
-8.700E-07,-0.400
-8.600E-07,-0.340
-8.500E-07,-0.400
-8.400E-07,-0.340
-8.300E-07,-0.320
-8.200E-07,-0.380
-8.100E-07,-0.320
-8.000E-07,-0.400
-7.900E-07,-0.400
-7.800E-07,-0.460
-7.700E-07,-0.500
-7.600E-07,-0.240
-7.500E-07,-0.420
-7.400E-07,-0.220
-7.300E-07,-0.320
-7.200E-07,-0.400
-7.100E-07,-0.380
-7.000E-07,-0.280
-6.900E-07,-0.260
-6.800E-07,-0.160
-6.700E-07,-0.300
-6.600E-07,-0.340
-6.500E-07,-0.360
-6.400E-07,-0.340
-6.300E-07,-0.220
-6.200E-07,-0.160
-6.100E-07,-0.200
-6.000E-07,-0.220
-5.900E-07,-0.160
-5.800E-07,-0.120
-5.700E-07,-0.020
-5.600E-07,0.000
-5.500E-07,0.000
-5.400E-07,-0.040
-5.300E-07,-0.020
-5.200E-07,0.000
-5.100E-07,0.040
-5.000E-07,0.080
-4.900E-07,0.060
-4.800E-07,0.040
-4.700E-07,0.080
-4.600E-07,0.080
-4.500E-07,0.080
-4.400E-07,0.100
-4.300E-07,0.060
-4.200E-07,0.080
-4.100E-07,0.100
-4.000E-07,0.100
-3.900E-07,0.060
-3.800E-07,0.080
-3.700E-07,0.100
-3.600E-07,0.040
-3.500E-07,0.060
-3.400E-07,-0.020
-3.300E-07,-0.060
-3.200E-07,-0.140
-3.100E-07,-0.160
-3.000E-07,-0.180
-2.900E-07,-0.200
-2.800E-07,-0.240
-2.700E-07,-0.260
-2.600E-07,-0.280
-2.500E-07,-0.280
-2.400E-07,-0.300
-2.300E-07,-0.320
-2.200E-07,-0.320
-2.100E-07,-0.320
-2.000E-07,-0.380
-1.900E-07,-0.400
-1.800E-07,-0.420
-1.700E-07,-0.500
-1.600E-07,-0.500
-1.500E-07,-0.580
-1.400E-07,-0.620
-1.300E-07,-0.620
-1.200E-07,-0.720
-1.100E-07,-0.700
-1.000E-07,-0.740
-9.000E-08,-0.720
-8.000E-08,-0.840
-7.000E-08,-0.780
-6.000E-08,-0.920
-5.000E-08,-0.620
-4.000E-08,-0.080
-3.000E-08,-0.160
-2.000E-08,0.080
-1.000E-08,-0.200
0.000E+00,-0.620
1.000E-08,-0.680
2.000E-08,-0.760
3.000E-08,-0.480
4.000E-08,-0.180
5.000E-08,-0.360
6.000E-08,-0.500
7.000E-08,-0.680
8.000E-08,-0.600
9.000E-08,-0.260
1.000E-07,-0.120
1.100E-07,-0.200
1.200E-07,-0.260
1.300E-07,-0.400
1.400E-07,-0.200
1.500E-07,-0.080
1.600E-07,0.020
1.700E-07,0.020
1.800E-07,0.020
1.900E-07,0.080
2.000E-07,0.240
2.100E-07,0.600
2.200E-07,0.540
2.300E-07,0.740
2.400E-07,0.460
2.500E-07,0.420
2.600E-07,0.340
2.700E-07,0.240
2.800E-07,0.160
2.900E-07,0.080
3.000E-07,-0.020
3.100E-07,-0.100
3.200E-07,-0.180
3.300E-07,-0.220
3.400E-07,-0.120
3.500E-07,-0.040
3.600E-07,0.000
3.700E-07,-0.260
3.800E-07,-0.300
3.900E-07,-0.600
4.000E-07,-0.660
4.100E-07,-0.680
4.200E-07,-0.580
4.300E-07,-0.520
4.400E-07,-0.520
4.500E-07,-0.640
4.600E-07,-0.580
4.700E-07,-0.420
4.800E-07,-0.240
4.900E-07,-0.140
5.000E-07,-0.140
5.100E-07,-0.160
5.200E-07,-0.120
5.300E-07,0.000
5.400E-07,0.100
5.500E-07,0.180
5.600E-07,0.180
5.700E-07,0.120
5.800E-07,0.160
5.900E-07,0.200
6.000E-07,0.220
6.100E-07,0.220
6.200E-07,0.200
6.300E-07,0.160
6.400E-07,0.160
6.500E-07,0.160
6.600E-07,0.080
6.700E-07,0.120
6.800E-07,0.100
6.900E-07,0.120
7.000E-07,0.100
7.100E-07,0.160
7.200E-07,0.120
7.300E-07,0.140
7.400E-07,0.080
7.500E-07,0.100
7.600E-07,0.080
7.700E-07,0.200
7.800E-07,0.180
7.900E-07,0.360
8.000E-07,0.260
8.100E-07,0.260
8.200E-07,0.200
8.300E-07,0.140
8.400E-07,0.160
8.500E-07,0.200
8.600E-07,0.160
8.700E-07,0.060
8.800E-07,0.000
8.900E-07,-0.060
9.000E-07,-0.140
9.100E-07,-0.120
9.200E-07,0.000
9.300E-07,-0.020
9.400E-07,0.380
9.500E-07,-0.040
9.600E-07,0.300
9.700E-07,-0.160
9.800E-07,-0.180
9.900E-07,-0.280
1.000E-06,-0.260
1.010E-06,-0.260
1.020E-06,-0.240
1.030E-06,-0.560
1.040E-06,-0.600
1.050E-06,-0.620
1.060E-06,-0.540
1.070E-06,-0.360
1.080E-06,-0.440
1.090E-06,-0.540
1.100E-06,-0.600
1.110E-06,-0.560
1.120E-06,-0.380
1.130E-06,-0.300
1.140E-06,-0.180
1.150E-06,-0.220
1.160E-06,-0.160
1.170E-06,-0.160
1.180E-06,0.000
1.190E-06,-0.020
1.200E-06,0.120
1.210E-06,0.180
1.220E-06,0.180
1.230E-06,0.380
1.240E-06,0.380
1.250E-06,0.500
1.260E-06,0.560
1.270E-06,0.580
1.280E-06,0.720
1.290E-06,0.680
1.300E-06,0.680
1.310E-06,0.660
1.320E-06,0.540
1.330E-06,0.520
1.340E-06,0.500
1.350E-06,0.380
1.360E-06,0.220
1.370E-06,0.080
1.380E-06,0.040
1.390E-06,0.020
1.400E-06,0.000
1.410E-06,0.000
1.420E-06,-0.040
1.430E-06,-0.100
1.440E-06,-0.100
1.450E-06,-0.040
1.460E-06,-0.060
1.470E-06,-0.040
1.480E-06,-0.080
1.490E-06,-0.060
1.500E-06,-0.120
1.510E-06,-0.100
1.520E-06,-0.080
1.530E-06,-0.080
1.540E-06,-0.060
1.550E-06,-0.120
1.560E-06,-0.120
1.570E-06,-0.120
1.580E-06,-0.140
1.590E-06,-0.100
1.600E-06,-0.060
1.610E-06,-0.040
1.620E-06,-0.060
1.630E-06,-0.040
1.640E-06,-0.020
1.650E-06,0.000
1.660E-06,0.000
1.670E-06,0.080
1.680E-06,0.080
1.690E-06,0.180
1.700E-06,0.120
1.710E-06,0.200
1.720E-06,0.160
1.730E-06,0.200
1.740E-06,0.200
1.750E-06,0.220
1.760E-06,0.180
1.770E-06,0.180
1.780E-06,0.140
1.790E-06,0.120
1.800E-06,0.060
1.810E-06,0.080
1.820E-06,0.000
1.830E-06,0.000
1.840E-06,-0.020
1.850E-06,0.000
1.860E-06,0.100
1.870E-06,0.160
1.880E-06,0.240
1.890E-06,0.040
1.900E-06,0.100
1.910E-06,-0.160
1.920E-06,-0.140
1.930E-06,-0.180
1.940E-06,-0.120
1.950E-06,-0.120
1.960E-06,-0.240
1.970E-06,-0.340
1.980E-06,-0.280
1.990E-06,-0.240
2.000E-06,-0.120
2.010E-06,-0.100
2.020E-06,-0.140
2.030E-06,-0.180
2.040E-06,-0.140
2.050E-06,-0.100
2.060E-06,0.020
2.070E-06,0.020
2.080E-06,0.020
2.090E-06,0.000
2.100E-06,0.000
2.110E-06,0.080
2.120E-06,0.120
2.130E-06,0.140
2.140E-06,0.140
2.150E-06,0.100
2.160E-06,0.140
2.170E-06,0.160
2.180E-06,0.180
2.190E-06,0.220
2.200E-06,0.220
2.210E-06,0.220
2.220E-06,0.240
2.230E-06,0.280
2.240E-06,0.240
2.250E-06,0.240
2.260E-06,0.240
2.270E-06,0.260
2.280E-06,0.220
2.290E-06,0.220
2.300E-06,0.100
2.310E-06,0.040
2.320E-06,0.000
2.330E-06,0.000
2.340E-06,-0.020
2.350E-06,-0.060
2.360E-06,-0.140
2.370E-06,-0.180
2.380E-06,-0.220
2.390E-06,-0.240
2.400E-06,-0.260
2.410E-06,-0.300
2.420E-06,-0.360
2.430E-06,-0.420
2.440E-06,-0.440
2.450E-06,-0.460
2.460E-06,-0.460
2.470E-06,-0.480
2.480E-06,-0.500
2.490E-06,-0.500
2.500E-06,-0.520
2.510E-06,-0.560
2.520E-06,-0.500
2.530E-06,-0.520
2.540E-06,-0.520
2.550E-06,-0.500
2.560E-06,-0.540
2.570E-06,-0.540
2.580E-06,-0.560
2.590E-06,-0.540
2.600E-06,-0.500
2.610E-06,-0.580
2.620E-06,-0.580
2.630E-06,-0.660
2.640E-06,-0.720
2.650E-06,-0.720
2.660E-06,-0.720
2.670E-06,-0.640
2.680E-06,-0.560
2.690E-06,1.180
2.700E-06,1.360
2.710E-06,1.600
2.720E-06,-1.280
2.730E-06,-0.680
2.740E-06,-1.040
2.750E-06,0.160
2.760E-06,0.260
2.770E-06,-0.160
2.780E-06,-0.660
2.790E-06,-2.120
2.800E-06,-1.860
2.810E-06,-1.420
2.820E-06,-0.120
2.830E-06,0.220
2.840E-06,-0.700
2.850E-06,-2.080
2.860E-06,-2.360
2.870E-06,-1.520
2.880E-06,-0.680
2.890E-06,-0.240
2.900E-06,-0.140
2.910E-06,-0.540
2.920E-06,-0.940
2.930E-06,-1.120
2.940E-06,-0.920
2.950E-06,-0.860
2.960E-06,-0.680
2.970E-06,-0.380
2.980E-06,-0.400
2.990E-06,-0.280
3.000E-06,0.160
3.010E-06,0.400
3.020E-06,0.080
3.030E-06,-0.380
3.040E-06,-0.340
3.050E-06,-0.140
3.060E-06,-0.180
3.070E-06,-0.200
3.080E-06,-0.220
3.090E-06,-0.720
3.100E-06,-0.980
3.110E-06,-1.020
3.120E-06,-0.780
3.130E-06,-0.580
3.140E-06,-0.660
3.150E-06,-0.900
3.160E-06,-1.260
3.170E-06,-1.520
3.180E-06,-1.700
3.190E-06,-1.560
3.200E-06,0.340
3.210E-06,0.780
3.220E-06,-0.380
3.230E-06,-0.980
3.240E-06,-1.020
3.250E-06,-1.060
3.260E-06,-1.120
