mediciones/Mediciones filtradas (saque las feas)/5-15/-19.9/WaveData47668.csv

#timebase=2000000(ps)
,#voltbase=500000(mv/100)
#size=4000
-8.400E-06,0.060
-8.390E-06,0.040
-8.380E-06,0.060
-8.370E-06,0.020
-8.360E-06,0.060
-8.350E-06,0.040
-8.340E-06,0.060
-8.330E-06,0.060
-8.320E-06,0.060
-8.310E-06,0.040
-8.300E-06,0.060
-8.290E-06,0.040
-8.280E-06,0.040
-8.270E-06,0.060
-8.260E-06,0.040
-8.250E-06,0.020
-8.240E-06,0.040
-8.230E-06,0.060
-8.220E-06,0.060
-8.210E-06,0.060
-8.200E-06,0.060
-8.190E-06,0.040
-8.180E-06,0.060
-8.170E-06,0.060
-8.160E-06,0.060
-8.150E-06,0.060
-8.140E-06,0.060
-8.130E-06,0.040
-8.120E-06,0.060
-8.110E-06,0.040
-8.100E-06,0.080
-8.090E-06,0.040
-8.080E-06,0.020
-8.070E-06,0.060
-8.060E-06,0.020
-8.050E-06,0.040
-8.040E-06,0.060
-8.030E-06,0.040
-8.020E-06,0.060
-8.010E-06,0.020
-8.000E-06,0.020
-7.990E-06,0.040
-7.980E-06,0.020
-7.970E-06,0.040
-7.960E-06,0.040
-7.950E-06,0.060
-7.940E-06,0.040
-7.930E-06,0.040
-7.920E-06,0.040
-7.910E-06,0.080
-7.900E-06,0.040
-7.890E-06,0.040
-7.880E-06,0.040
-7.870E-06,0.040
-7.860E-06,0.040
-7.850E-06,0.060
-7.840E-06,0.040
-7.830E-06,0.040
-7.820E-06,0.080
-7.810E-06,0.040
-7.800E-06,0.060
-7.790E-06,0.060
-7.780E-06,0.040
-7.770E-06,0.020
-7.760E-06,0.020
-7.750E-06,0.040
-7.740E-06,0.040
-7.730E-06,0.040
-7.720E-06,0.060
-7.710E-06,0.040
-7.700E-06,0.020
-7.690E-06,0.040
-7.680E-06,0.040
-7.670E-06,0.060
-7.660E-06,0.060
-7.650E-06,0.020
-7.640E-06,0.040
-7.630E-06,0.040
-7.620E-06,0.040
-7.610E-06,0.060
-7.600E-06,0.040
-7.590E-06,0.020
-7.580E-06,0.020
-7.570E-06,0.040
-7.560E-06,0.060
-7.550E-06,0.040
-7.540E-06,0.020
-7.530E-06,0.040
-7.520E-06,0.020
-7.510E-06,0.040
-7.500E-06,0.020
-7.490E-06,0.040
-7.480E-06,0.060
-7.470E-06,0.080
-7.460E-06,0.040
-7.450E-06,0.040
-7.440E-06,0.040
-7.430E-06,0.080
-7.420E-06,0.040
-7.410E-06,0.020
-7.400E-06,0.060
-7.390E-06,0.060
-7.380E-06,0.080
-7.370E-06,0.080
-7.360E-06,0.040
-7.350E-06,0.040
-7.340E-06,0.060
-7.330E-06,0.040
-7.320E-06,0.040
-7.310E-06,0.080
-7.300E-06,0.060
-7.290E-06,0.060
-7.280E-06,0.060
-7.270E-06,0.020
-7.260E-06,0.020
-7.250E-06,0.040
-7.240E-06,0.040
-7.230E-06,0.040
-7.220E-06,0.040
-7.210E-06,0.040
-7.200E-06,0.060
-7.190E-06,0.060
-7.180E-06,0.040
-7.170E-06,0.060
-7.160E-06,0.060
-7.150E-06,0.040
-7.140E-06,0.080
-7.130E-06,0.040
-7.120E-06,0.020
-7.110E-06,0.040
-7.100E-06,0.060
-7.090E-06,0.040
-7.080E-06,0.040
-7.070E-06,0.060
-7.060E-06,0.040
-7.050E-06,0.040
-7.040E-06,0.040
-7.030E-06,0.060
-7.020E-06,0.060
-7.010E-06,0.060
-7.000E-06,0.060
-6.990E-06,0.040
-6.980E-06,0.080
-6.970E-06,0.060
-6.960E-06,0.040
-6.950E-06,0.060
-6.940E-06,0.020
-6.930E-06,0.040
-6.920E-06,0.060
-6.910E-06,0.020
-6.900E-06,0.060
-6.890E-06,0.040
-6.880E-06,0.040
-6.870E-06,0.040
-6.860E-06,0.040
-6.850E-06,0.060
-6.840E-06,0.040
-6.830E-06,0.040
-6.820E-06,0.060
-6.810E-06,0.020
-6.800E-06,0.060
-6.790E-06,0.060
-6.780E-06,0.080
-6.770E-06,0.040
-6.760E-06,0.020
-6.750E-06,0.060
-6.740E-06,0.020
-6.730E-06,0.060
-6.720E-06,0.020
-6.710E-06,0.060
-6.700E-06,0.020
-6.690E-06,0.020
-6.680E-06,0.060
-6.670E-06,0.040
-6.660E-06,0.060
-6.650E-06,0.060
-6.640E-06,0.040
-6.630E-06,0.080
-6.620E-06,0.060
-6.610E-06,0.040
-6.600E-06,0.080
-6.590E-06,0.040
-6.580E-06,0.020
-6.570E-06,0.020
-6.560E-06,0.040
-6.550E-06,0.040
-6.540E-06,0.060
-6.530E-06,0.060
-6.520E-06,0.040
-6.510E-06,0.020
-6.500E-06,0.020
-6.490E-06,0.040
-6.480E-06,0.040
-6.470E-06,0.040
-6.460E-06,0.020
-6.450E-06,0.040
-6.440E-06,0.020
-6.430E-06,0.040
-6.420E-06,0.060
-6.410E-06,0.040
-6.400E-06,0.020
-6.390E-06,0.040
-6.380E-06,0.060
-6.370E-06,0.060
-6.360E-06,0.020
-6.350E-06,0.040
-6.340E-06,0.060
-6.330E-06,0.040
-6.320E-06,0.060
-6.310E-06,0.020
-6.300E-06,0.020
-6.290E-06,0.040
-6.280E-06,0.020
-6.270E-06,0.040
-6.260E-06,0.040
-6.250E-06,0.040
-6.240E-06,0.060
-6.230E-06,0.040
-6.220E-06,0.020
-6.210E-06,0.020
-6.200E-06,0.040
-6.190E-06,0.020
-6.180E-06,0.040
-6.170E-06,0.020
-6.160E-06,0.020
-6.150E-06,0.040
-6.140E-06,0.060
-6.130E-06,0.020
-6.120E-06,0.020
-6.110E-06,0.040
-6.100E-06,0.060
-6.090E-06,0.060
-6.080E-06,0.060
-6.070E-06,0.060
-6.060E-06,0.060
-6.050E-06,0.020
-6.040E-06,0.040
-6.030E-06,0.080
-6.020E-06,0.040
-6.010E-06,0.060
-6.000E-06,0.060
-5.990E-06,0.060
-5.980E-06,0.020
-5.970E-06,0.020
-5.960E-06,0.040
-5.950E-06,0.040
-5.940E-06,0.060
-5.930E-06,0.040
-5.920E-06,0.060
-5.910E-06,0.020
-5.900E-06,0.020
-5.890E-06,0.040
-5.880E-06,0.060
-5.870E-06,0.060
-5.860E-06,0.020
-5.850E-06,0.040
-5.840E-06,0.040
-5.830E-06,0.060
-5.820E-06,0.040
-5.810E-06,0.060
-5.800E-06,0.000
-5.790E-06,0.000
-5.780E-06,0.040
-5.770E-06,0.060
-5.760E-06,0.000
-5.750E-06,0.020
-5.740E-06,0.020
-5.730E-06,0.040
-5.720E-06,0.040
-5.710E-06,0.040
-5.700E-06,0.040
-5.690E-06,0.020
-5.680E-06,0.020
-5.670E-06,0.020
-5.660E-06,0.060
-5.650E-06,0.060
-5.640E-06,0.000
-5.630E-06,0.000
-5.620E-06,0.020
-5.610E-06,0.000
-5.600E-06,0.000
-5.590E-06,0.020
-5.580E-06,0.000
-5.570E-06,0.020
-5.560E-06,0.040
-5.550E-06,0.020
-5.540E-06,0.000
-5.530E-06,0.020
-5.520E-06,0.020
-5.510E-06,0.020
-5.500E-06,0.020
-5.490E-06,0.020
-5.480E-06,0.020
-5.470E-06,0.020
-5.460E-06,0.040
-5.450E-06,0.000
-5.440E-06,-0.020
-5.430E-06,0.020
-5.420E-06,-0.020
-5.410E-06,0.020
-5.400E-06,0.020
-5.390E-06,0.020
-5.380E-06,0.020
-5.370E-06,0.020
-5.360E-06,0.020
-5.350E-06,0.020
-5.340E-06,0.000
-5.330E-06,0.000
-5.320E-06,0.020
-5.310E-06,0.000
-5.300E-06,0.000
-5.290E-06,0.020
-5.280E-06,0.000
-5.270E-06,0.020
-5.260E-06,0.000
-5.250E-06,0.020
-5.240E-06,0.000
-5.230E-06,-0.020
-5.220E-06,0.020
-5.210E-06,0.000
-5.200E-06,0.020
-5.190E-06,0.040
-5.180E-06,0.020
-5.170E-06,0.020
-5.160E-06,0.020
-5.150E-06,0.040
-5.140E-06,0.060
-5.130E-06,0.040
-5.120E-06,0.000
-5.110E-06,0.020
-5.100E-06,0.020
-5.090E-06,0.020
-5.080E-06,0.000
-5.070E-06,-0.020
-5.060E-06,0.000
-5.050E-06,0.000
-5.040E-06,-0.040
-5.030E-06,-0.040
-5.020E-06,-0.060
-5.010E-06,-0.060
-5.000E-06,-0.060
-4.990E-06,-0.080
-4.980E-06,-0.060
-4.970E-06,-0.060
-4.960E-06,-0.080
-4.950E-06,-0.100
-4.940E-06,-0.080
-4.930E-06,-0.080
-4.920E-06,-0.040
-4.910E-06,-0.020
-4.900E-06,-0.040
-4.890E-06,-0.040
-4.880E-06,-0.080
-4.870E-06,-0.060
-4.860E-06,-0.040
-4.850E-06,-0.060
-4.840E-06,-0.060
-4.830E-06,-0.060
-4.820E-06,-0.060
-4.810E-06,-0.060
-4.800E-06,-0.060
-4.790E-06,-0.040
-4.780E-06,-0.020
-4.770E-06,-0.020
-4.760E-06,-0.060
-4.750E-06,-0.020
-4.740E-06,-0.020
-4.730E-06,-0.020
-4.720E-06,-0.020
-4.710E-06,-0.040
-4.700E-06,-0.020
-4.690E-06,0.000
-4.680E-06,0.020
-4.670E-06,0.020
-4.660E-06,0.020
-4.650E-06,-0.020
-4.640E-06,0.000
-4.630E-06,0.000
-4.620E-06,0.000
-4.610E-06,0.000
-4.600E-06,0.000
-4.590E-06,0.000
-4.580E-06,-0.020
-4.570E-06,0.000
-4.560E-06,-0.020
-4.550E-06,-0.040
-4.540E-06,-0.060
-4.530E-06,-0.040
-4.520E-06,-0.020
-4.510E-06,-0.040
-4.500E-06,-0.080
-4.490E-06,-0.040
-4.480E-06,-0.020
-4.470E-06,-0.060
-4.460E-06,-0.040
-4.450E-06,-0.040
-4.440E-06,-0.060
-4.430E-06,0.000
-4.420E-06,-0.040
-4.410E-06,-0.020
-4.400E-06,-0.020
-4.390E-06,-0.040
-4.380E-06,-0.020
-4.370E-06,-0.020
-4.360E-06,0.000
-4.350E-06,-0.020
-4.340E-06,-0.020
-4.330E-06,-0.020
-4.320E-06,0.000
-4.310E-06,-0.040
-4.300E-06,-0.040
-4.290E-06,-0.100
-4.280E-06,-0.100
-4.270E-06,-0.120
-4.260E-06,-0.120
-4.250E-06,-0.100
-4.240E-06,-0.060
-4.230E-06,-0.080
-4.220E-06,-0.100
-4.210E-06,-0.080
-4.200E-06,-0.080
-4.190E-06,-0.080
-4.180E-06,-0.120
-4.170E-06,-0.160
-4.160E-06,-0.160
-4.150E-06,-0.160
-4.140E-06,-0.200
-4.130E-06,-0.220
-4.120E-06,-0.220
-4.110E-06,-0.220
-4.100E-06,-0.220
-4.090E-06,-0.220
-4.080E-06,-0.240
-4.070E-06,-0.220
-4.060E-06,-0.220
-4.050E-06,-0.180
-4.040E-06,-0.160
-4.030E-06,-0.180
-4.020E-06,-0.180
-4.010E-06,-0.180
-4.000E-06,-0.180
-3.990E-06,-0.140
-3.980E-06,-0.140
-3.970E-06,-0.120
-3.960E-06,-0.160
-3.950E-06,-0.180
-3.940E-06,-0.160
-3.930E-06,-0.180
-3.920E-06,-0.180
-3.910E-06,-0.160
-3.900E-06,-0.180
-3.890E-06,-0.200
-3.880E-06,-0.200
-3.870E-06,-0.200
-3.860E-06,-0.220
-3.850E-06,-0.220
-3.840E-06,-0.240
-3.830E-06,-0.240
-3.820E-06,-0.260
-3.810E-06,-0.280
-3.800E-06,-0.300
-3.790E-06,-0.320
-3.780E-06,-0.360
-3.770E-06,-0.400
-3.760E-06,-0.440
-3.750E-06,-0.480
-3.740E-06,-0.500
-3.730E-06,-0.500
-3.720E-06,-0.520
-3.710E-06,-0.540
-3.700E-06,-0.560
-3.690E-06,-0.580
-3.680E-06,-0.540
-3.670E-06,-0.540
-3.660E-06,-0.500
-3.650E-06,-0.500
-3.640E-06,-0.500
-3.630E-06,-0.500
-3.620E-06,-0.480
-3.610E-06,-0.480
-3.600E-06,-0.440
-3.590E-06,-0.440
-3.580E-06,-0.440
-3.570E-06,-0.420
-3.560E-06,-0.400
-3.550E-06,-0.440
-3.540E-06,-0.460
-3.530E-06,-0.440
-3.520E-06,-0.480
-3.510E-06,-0.440
-3.500E-06,-0.380
-3.490E-06,-0.340
-3.480E-06,-0.280
-3.470E-06,-0.340
-3.460E-06,-0.280
-3.450E-06,-0.340
-3.440E-06,-0.260
-3.430E-06,-0.260
-3.420E-06,-0.200
-3.410E-06,-0.200
-3.400E-06,-0.240
-3.390E-06,-0.320
-3.380E-06,-0.320
-3.370E-06,-0.280
-3.360E-06,-0.240
-3.350E-06,-0.220
-3.340E-06,-0.240
-3.330E-06,-0.300
-3.320E-06,-0.320
-3.310E-06,-0.300
-3.300E-06,-0.240
-3.290E-06,-0.200
-3.280E-06,-0.180
-3.270E-06,-0.220
-3.260E-06,-0.240
-3.250E-06,-0.240
-3.240E-06,-0.220
-3.230E-06,-0.180
-3.220E-06,-0.160
-3.210E-06,-0.140
-3.200E-06,-0.160
-3.190E-06,-0.140
-3.180E-06,-0.140
-3.170E-06,-0.120
-3.160E-06,-0.140
-3.150E-06,-0.140
-3.140E-06,-0.140
-3.130E-06,-0.180
-3.120E-06,-0.160
-3.110E-06,-0.180
-3.100E-06,-0.180
-3.090E-06,-0.220
-3.080E-06,-0.200
-3.070E-06,-0.260
-3.060E-06,-0.360
-3.050E-06,-0.380
-3.040E-06,-0.400
-3.030E-06,-0.420
-3.020E-06,-0.400
-3.010E-06,-0.420
-3.000E-06,-0.520
-2.990E-06,-0.380
-2.980E-06,-0.460
-2.970E-06,-0.440
-2.960E-06,-0.500
-2.950E-06,-0.440
-2.940E-06,-0.400
-2.930E-06,-0.360
-2.920E-06,-0.260
-2.910E-06,-0.340
-2.900E-06,-0.340
-2.890E-06,-0.500
-2.880E-06,-0.420
-2.870E-06,-0.380
-2.860E-06,-0.300
-2.850E-06,-0.300
-2.840E-06,-0.360
-2.830E-06,-0.380
-2.820E-06,-0.440
-2.810E-06,-0.340
-2.800E-06,-0.320
-2.790E-06,-0.300
-2.780E-06,-0.300
-2.770E-06,-0.440
-2.760E-06,-0.360
-2.750E-06,-0.420
-2.740E-06,-0.400
-2.730E-06,-0.360
-2.720E-06,-0.500
-2.710E-06,-0.420
-2.700E-06,-0.400
-2.690E-06,-0.420
-2.680E-06,-0.300
-2.670E-06,-0.320
-2.660E-06,-0.340
-2.650E-06,-0.260
-2.640E-06,-0.320
-2.630E-06,-0.260
-2.620E-06,-0.280
-2.610E-06,-0.300
-2.600E-06,-0.280
-2.590E-06,-0.280
-2.580E-06,-0.220
-2.570E-06,-0.240
-2.560E-06,-0.200
-2.550E-06,-0.260
-2.540E-06,-0.240
-2.530E-06,-0.240
-2.520E-06,-0.240
-2.510E-06,-0.240
-2.500E-06,-0.240
-2.490E-06,-0.280
-2.480E-06,-0.240
-2.470E-06,-0.180
-2.460E-06,-0.120
-2.450E-06,-0.080
-2.440E-06,-0.060
-2.430E-06,-0.080
-2.420E-06,-0.140
-2.410E-06,-0.140
-2.400E-06,-0.160
-2.390E-06,-0.160
-2.380E-06,-0.140
-2.370E-06,-0.180
-2.360E-06,-0.200
-2.350E-06,-0.220
-2.340E-06,-0.240
-2.330E-06,-0.180
-2.320E-06,-0.220
-2.310E-06,-0.260
-2.300E-06,-0.360
-2.290E-06,-0.400
-2.280E-06,-0.460
-2.270E-06,-0.480
-2.260E-06,-0.500
-2.250E-06,-0.560
-2.240E-06,-0.580
-2.230E-06,-0.660
-2.220E-06,-0.680
-2.210E-06,-0.720
-2.200E-06,-0.720
-2.190E-06,-0.740
-2.180E-06,-0.700
-2.170E-06,-0.700
-2.160E-06,-0.760
-2.150E-06,-0.780
-2.140E-06,-0.760
-2.130E-06,-0.780
-2.120E-06,-0.780
-2.110E-06,-0.740
-2.100E-06,-0.720
-2.090E-06,-0.680
-2.080E-06,-0.720
-2.070E-06,-0.700
-2.060E-06,-0.680
-2.050E-06,-0.660
-2.040E-06,-0.680
-2.030E-06,-0.680
-2.020E-06,-0.780
-2.010E-06,-0.840
-2.000E-06,-0.920
-1.990E-06,-1.000
-1.980E-06,-1.040
-1.970E-06,-1.100
-1.960E-06,-1.080
-1.950E-06,-1.140
-1.940E-06,-1.160
-1.930E-06,-1.140
-1.920E-06,-1.000
-1.910E-06,-0.940
-1.900E-06,-0.760
-1.890E-06,-0.760
-1.880E-06,-0.820
-1.870E-06,-0.840
-1.860E-06,-0.860
-1.850E-06,-0.980
-1.840E-06,-0.960
-1.830E-06,-0.960
-1.820E-06,-0.940
-1.810E-06,-0.920
-1.800E-06,-0.940
-1.790E-06,-0.980
-1.780E-06,-1.020
-1.770E-06,-1.100
-1.760E-06,-1.060
-1.750E-06,-1.060
-1.740E-06,-1.020
-1.730E-06,-1.100
-1.720E-06,-1.160
-1.710E-06,-1.300
-1.700E-06,-1.280
-1.690E-06,-1.300
-1.680E-06,-1.280
-1.670E-06,-1.320
-1.660E-06,-1.360
-1.650E-06,-1.340
-1.640E-06,-1.240
-1.630E-06,-1.140
-1.620E-06,-0.960
-1.610E-06,-0.900
-1.600E-06,-0.880
-1.590E-06,-0.840
-1.580E-06,-0.800
-1.570E-06,-0.820
-1.560E-06,-0.820
-1.550E-06,-0.920
-1.540E-06,-1.060
-1.530E-06,-1.080
-1.520E-06,-1.180
-1.510E-06,-1.320
-1.500E-06,-1.360
-1.490E-06,-1.420
-1.480E-06,-1.360
-1.470E-06,-1.360
-1.460E-06,-1.520
-1.450E-06,-1.620
-1.440E-06,-1.780
-1.430E-06,-1.820
-1.420E-06,-1.920
-1.410E-06,-1.940
-1.400E-06,-2.100
-1.390E-06,-2.180
-1.380E-06,-2.240
-1.370E-06,-2.380
-1.360E-06,-2.380
-1.350E-06,-2.380
-1.340E-06,-2.440
-1.330E-06,-2.400
-1.320E-06,-2.440
-1.310E-06,-2.400
-1.300E-06,-2.360
-1.290E-06,-2.400
-1.280E-06,-2.460
-1.270E-06,-2.500
-1.260E-06,-2.540
-1.250E-06,-2.600
-1.240E-06,-2.580
-1.230E-06,-2.640
-1.220E-06,-2.640
-1.210E-06,-2.660
-1.200E-06,-2.660
-1.190E-06,-2.660
-1.180E-06,-2.660
-1.170E-06,-2.660
-1.160E-06,-2.660
-1.150E-06,-2.640
-1.140E-06,-2.660
-1.130E-06,-2.660
-1.120E-06,-2.660
-1.110E-06,-2.660
-1.100E-06,-2.680
-1.090E-06,-2.680
-1.080E-06,-2.680
-1.070E-06,-2.680
-1.060E-06,-2.680
-1.050E-06,-2.660
-1.040E-06,-2.660
-1.030E-06,-2.660
-1.020E-06,-2.660
-1.010E-06,-2.660
-1.000E-06,-2.660
-9.900E-07,-2.640
-9.800E-07,-2.640
-9.700E-07,-2.660
-9.600E-07,-2.660
-9.500E-07,-2.660
-9.400E-07,-2.660
-9.300E-07,-2.660
-9.200E-07,-2.680
-9.100E-07,-2.660
-9.000E-07,-2.660
-8.900E-07,-2.640
-8.800E-07,-2.660
-8.700E-07,-2.660
-8.600E-07,-2.660
-8.500E-07,-2.660
-8.400E-07,-2.660
-8.300E-07,-2.660
-8.200E-07,-2.660
-8.100E-07,-2.660
-8.000E-07,-2.660
-7.900E-07,-2.660
-7.800E-07,-2.640
-7.700E-07,-2.640
-7.600E-07,-2.640
-7.500E-07,-2.660
-7.400E-07,-2.660
-7.300E-07,-2.660
-7.200E-07,-2.660
-7.100E-07,-2.660
-7.000E-07,-2.660
-6.900E-07,-2.660
-6.800E-07,-2.660
-6.700E-07,-2.680
-6.600E-07,-2.600
-6.500E-07,-2.460
-6.400E-07,-2.340
-6.300E-07,-2.180
-6.200E-07,-2.040
-6.100E-07,-2.240
-6.000E-07,-2.280
-5.900E-07,-2.460
-5.800E-07,-2.580
-5.700E-07,-2.660
-5.600E-07,-2.660
-5.500E-07,-2.660
-5.400E-07,-2.660
-5.300E-07,-2.660
-5.200E-07,-2.660
-5.100E-07,-2.660
-5.000E-07,-2.660
-4.900E-07,-2.660
-4.800E-07,-2.660
-4.700E-07,-2.660
-4.600E-07,-2.640
-4.500E-07,-2.640
-4.400E-07,-2.640
-4.300E-07,-2.640
-4.200E-07,-2.640
-4.100E-07,-2.640
-4.000E-07,-2.640
-3.900E-07,-2.660
-3.800E-07,-2.660
-3.700E-07,-2.660
-3.600E-07,-2.660
-3.500E-07,-2.660
-3.400E-07,-2.660
-3.300E-07,-2.660
-3.200E-07,-2.660
-3.100E-07,-2.660
-3.000E-07,-2.640
-2.900E-07,-2.640
-2.800E-07,-2.660
-2.700E-07,-2.660
-2.600E-07,-2.680
-2.500E-07,-2.660
-2.400E-07,-2.660
-2.300E-07,-2.660
-2.200E-07,-2.660
-2.100E-07,-2.680
-2.000E-07,-2.680
-1.900E-07,-2.660
-1.800E-07,-2.660
-1.700E-07,-2.640
-1.600E-07,-2.660
-1.500E-07,-2.660
-1.400E-07,-2.660
-1.300E-07,-2.640
-1.200E-07,-2.640
-1.100E-07,-2.420
-1.000E-07,-2.180
-9.000E-08,-2.080
-8.000E-08,-1.940
-7.000E-08,-1.960
-6.000E-08,-1.960
-5.000E-08,-1.940
-4.000E-08,-1.880
-3.000E-08,-1.820
-2.000E-08,-1.740
-1.000E-08,-1.660
0.000E+00,-1.600
1.000E-08,-1.460
2.000E-08,-1.380
3.000E-08,-1.220
4.000E-08,-1.240
5.000E-08,-1.280
6.000E-08,-1.480
7.000E-08,-1.620
8.000E-08,-1.780
9.000E-08,-1.940
1.000E-07,-2.100
1.100E-07,-2.280
1.200E-07,-2.280
1.300E-07,-2.460
1.400E-07,-2.420
1.500E-07,-2.280
1.600E-07,-2.440
1.700E-07,-2.240
1.800E-07,-2.100
1.900E-07,-2.140
2.000E-07,-1.960
2.100E-07,-2.180
2.200E-07,-2.180
2.300E-07,-2.120
2.400E-07,-2.040
2.500E-07,-1.820
2.600E-07,-1.760
2.700E-07,-1.820
2.800E-07,-1.880
2.900E-07,-2.040
3.000E-07,-2.060
3.100E-07,-2.080
3.200E-07,-2.080
3.300E-07,-2.180
3.400E-07,-2.220
3.500E-07,-2.180
3.600E-07,-2.180
3.700E-07,-2.120
3.800E-07,-2.160
3.900E-07,-2.220
4.000E-07,-2.280
4.100E-07,-2.180
4.200E-07,-2.020
4.300E-07,-1.880
4.400E-07,-1.820
4.500E-07,-1.720
4.600E-07,-1.600
4.700E-07,-1.340
4.800E-07,-1.140
4.900E-07,-0.900
5.000E-07,-0.680
5.100E-07,-0.520
5.200E-07,-0.300
5.300E-07,-0.160
5.400E-07,0.080
5.500E-07,0.220
5.600E-07,0.380
5.700E-07,0.400
5.800E-07,0.260
5.900E-07,-0.080
6.000E-07,-0.440
6.100E-07,-0.880
6.200E-07,-1.200
6.300E-07,-1.540
6.400E-07,-1.820
6.500E-07,-2.040
6.600E-07,-2.300
6.700E-07,-2.500
6.800E-07,-2.620
6.900E-07,-2.660
7.000E-07,-2.660
7.100E-07,-2.680
7.200E-07,-2.660
7.300E-07,-2.660
7.400E-07,-2.660
7.500E-07,-2.660
7.600E-07,-2.660
7.700E-07,-2.660
7.800E-07,-2.660
7.900E-07,-2.660
8.000E-07,-2.660
8.100E-07,-2.660
8.200E-07,-2.660
8.300E-07,-2.660
8.400E-07,-2.680
8.500E-07,-2.660
8.600E-07,-2.660
8.700E-07,-2.660
8.800E-07,-2.660
8.900E-07,-2.660
9.000E-07,-2.640
9.100E-07,-2.640
9.200E-07,-2.640
9.300E-07,-2.640
9.400E-07,-2.660
9.500E-07,-2.660
9.600E-07,-2.660
9.700E-07,-2.660
9.800E-07,-2.660
9.900E-07,-2.660
1.000E-06,-2.660
1.010E-06,-2.660
1.020E-06,-2.660
1.030E-06,-2.660
1.040E-06,-2.660
1.050E-06,-2.500
1.060E-06,-2.260
1.070E-06,-2.040
1.080E-06,-1.740
1.090E-06,-1.560
1.100E-06,-1.380
1.110E-06,-1.220
1.120E-06,-1.120
1.130E-06,-1.020
1.140E-06,-0.920
1.150E-06,-0.880
1.160E-06,-0.840
1.170E-06,-0.860
1.180E-06,-0.820
1.190E-06,-0.800
1.200E-06,-0.740
1.210E-06,-0.680
1.220E-06,-0.600
1.230E-06,-0.560
1.240E-06,-0.480
1.250E-06,-0.480
1.260E-06,-0.400
1.270E-06,-0.340
1.280E-06,-0.300
1.290E-06,-0.260
1.300E-06,-0.200
1.310E-06,-0.180
1.320E-06,-0.180
1.330E-06,-0.200
1.340E-06,-0.220
1.350E-06,-0.220
1.360E-06,-0.260
1.370E-06,-0.240
1.380E-06,-0.240
1.390E-06,-0.300
1.400E-06,-0.320
1.410E-06,-0.400
1.420E-06,-0.500
1.430E-06,-0.580
1.440E-06,-0.660
1.450E-06,-0.720
1.460E-06,-0.860
1.470E-06,-0.960
1.480E-06,-1.020
1.490E-06,-1.060
1.500E-06,-1.060
1.510E-06,-1.040
1.520E-06,-1.060
1.530E-06,-1.080
1.540E-06,-1.020
1.550E-06,-1.000
1.560E-06,-0.940
1.570E-06,-0.880
1.580E-06,-0.760
1.590E-06,-0.700
1.600E-06,-0.560
1.610E-06,-0.440
1.620E-06,-0.340
1.630E-06,-0.280
1.640E-06,-0.200
1.650E-06,-0.140
1.660E-06,-0.100
1.670E-06,-0.080
1.680E-06,-0.020
1.690E-06,0.000
1.700E-06,0.000
1.710E-06,0.020
1.720E-06,0.060
1.730E-06,0.100
1.740E-06,0.100
1.750E-06,0.140
1.760E-06,0.200
1.770E-06,0.240
1.780E-06,0.280
1.790E-06,0.320
1.800E-06,0.340
1.810E-06,0.380
1.820E-06,0.420
1.830E-06,0.420
1.840E-06,0.400
1.850E-06,0.440
1.860E-06,0.480
1.870E-06,0.520
1.880E-06,0.500
1.890E-06,0.520
1.900E-06,0.540
1.910E-06,0.560
1.920E-06,0.600
1.930E-06,0.600
1.940E-06,0.660
1.950E-06,0.700
1.960E-06,0.720
1.970E-06,0.740
1.980E-06,0.720
1.990E-06,0.760
2.000E-06,0.820
2.010E-06,0.840
2.020E-06,0.840
2.030E-06,0.900
2.040E-06,0.900
2.050E-06,0.880
2.060E-06,0.900
2.070E-06,0.920
2.080E-06,0.900
2.090E-06,0.900
2.100E-06,0.860
2.110E-06,0.820
2.120E-06,0.780
2.130E-06,0.720
2.140E-06,0.700
2.150E-06,0.640
2.160E-06,0.600
2.170E-06,0.580
2.180E-06,0.560
2.190E-06,0.500
2.200E-06,0.480
2.210E-06,0.480
2.220E-06,0.440
2.230E-06,0.420
2.240E-06,0.380
2.250E-06,0.360
2.260E-06,0.340
2.270E-06,0.320
2.280E-06,0.300
2.290E-06,0.280
2.300E-06,0.260
2.310E-06,0.240
2.320E-06,0.200
2.330E-06,0.160
2.340E-06,0.160
2.350E-06,0.160
2.360E-06,0.120
2.370E-06,0.120
2.380E-06,0.120
2.390E-06,0.100
2.400E-06,0.120
2.410E-06,0.080
2.420E-06,0.120
2.430E-06,0.180
2.440E-06,0.160
2.450E-06,0.240
2.460E-06,0.300
2.470E-06,0.360
2.480E-06,0.440
2.490E-06,0.520
2.500E-06,0.600
2.510E-06,0.660
2.520E-06,0.760
2.530E-06,0.840
2.540E-06,0.880
2.550E-06,0.960
2.560E-06,1.000
2.570E-06,1.040
2.580E-06,1.080
2.590E-06,1.080
2.600E-06,1.080
2.610E-06,1.120
2.620E-06,1.080
2.630E-06,1.080
2.640E-06,1.040
2.650E-06,1.020
2.660E-06,0.980
2.670E-06,0.960
2.680E-06,0.900
2.690E-06,0.880
2.700E-06,0.840
2.710E-06,0.820
2.720E-06,0.760
2.730E-06,0.740
2.740E-06,0.680
2.750E-06,0.660
2.760E-06,0.600
2.770E-06,0.580
2.780E-06,0.560
2.790E-06,0.560
2.800E-06,0.560
2.810E-06,0.580
2.820E-06,0.600
2.830E-06,0.620
2.840E-06,0.620
2.850E-06,0.700
2.860E-06,0.780
2.870E-06,0.800
2.880E-06,0.860
2.890E-06,0.940
2.900E-06,0.980
2.910E-06,1.040
2.920E-06,1.100
2.930E-06,1.160
2.940E-06,1.180
2.950E-06,1.240
2.960E-06,1.280
2.970E-06,1.280
2.980E-06,1.280
2.990E-06,1.300
3.000E-06,1.280
3.010E-06,1.240
3.020E-06,1.220
3.030E-06,1.200
3.040E-06,1.180
3.050E-06,1.140
3.060E-06,1.080
3.070E-06,1.020
3.080E-06,0.980
3.090E-06,0.940
3.100E-06,0.880
3.110E-06,0.820
