mediciones/Mediciones filtradas (saque las feas)/5-15/-19.9/WaveData47661.csv

#timebase=2000000(ps)
,#voltbase=100000(mv/100)
#size=4000
-8.400E-06,0.008
-8.390E-06,0.000
-8.380E-06,0.004
-8.370E-06,0.004
-8.360E-06,0.000
-8.350E-06,0.000
-8.340E-06,0.000
-8.330E-06,0.000
-8.320E-06,0.004
-8.310E-06,0.000
-8.300E-06,0.000
-8.290E-06,0.004
-8.280E-06,0.008
-8.270E-06,0.008
-8.260E-06,0.000
-8.250E-06,0.004
-8.240E-06,0.004
-8.230E-06,0.004
-8.220E-06,0.004
-8.210E-06,0.000
-8.200E-06,0.004
-8.190E-06,0.004
-8.180E-06,0.000
-8.170E-06,0.004
-8.160E-06,0.004
-8.150E-06,0.004
-8.140E-06,0.004
-8.130E-06,0.004
-8.120E-06,0.004
-8.110E-06,0.000
-8.100E-06,0.004
-8.090E-06,0.004
-8.080E-06,0.000
-8.070E-06,0.004
-8.060E-06,-0.004
-8.050E-06,0.000
-8.040E-06,0.004
-8.030E-06,0.004
-8.020E-06,0.004
-8.010E-06,0.004
-8.000E-06,0.004
-7.990E-06,0.004
-7.980E-06,0.008
-7.970E-06,0.000
-7.960E-06,0.004
-7.950E-06,0.004
-7.940E-06,0.004
-7.930E-06,0.000
-7.920E-06,0.000
-7.910E-06,0.004
-7.900E-06,-0.004
-7.890E-06,0.004
-7.880E-06,0.000
-7.870E-06,0.004
-7.860E-06,0.004
-7.850E-06,0.004
-7.840E-06,0.004
-7.830E-06,0.004
-7.820E-06,0.000
-7.810E-06,0.004
-7.800E-06,0.000
-7.790E-06,0.008
-7.780E-06,0.004
-7.770E-06,0.004
-7.760E-06,0.008
-7.750E-06,0.008
-7.740E-06,0.008
-7.730E-06,0.000
-7.720E-06,0.000
-7.710E-06,0.000
-7.700E-06,0.004
-7.690E-06,0.000
-7.680E-06,0.004
-7.670E-06,0.004
-7.660E-06,0.008
-7.650E-06,-0.004
-7.640E-06,0.000
-7.630E-06,0.004
-7.620E-06,0.004
-7.610E-06,0.000
-7.600E-06,0.004
-7.590E-06,0.008
-7.580E-06,0.008
-7.570E-06,0.000
-7.560E-06,0.004
-7.550E-06,0.004
-7.540E-06,0.004
-7.530E-06,0.004
-7.520E-06,0.004
-7.510E-06,0.000
-7.500E-06,0.004
-7.490E-06,0.004
-7.480E-06,0.000
-7.470E-06,0.004
-7.460E-06,0.008
-7.450E-06,0.008
-7.440E-06,-0.004
-7.430E-06,0.000
-7.420E-06,0.004
-7.410E-06,0.004
-7.400E-06,0.000
-7.390E-06,0.004
-7.380E-06,0.000
-7.370E-06,0.000
-7.360E-06,0.004
-7.350E-06,0.004
-7.340E-06,0.000
-7.330E-06,0.004
-7.320E-06,0.004
-7.310E-06,0.004
-7.300E-06,0.004
-7.290E-06,0.004
-7.280E-06,0.004
-7.270E-06,0.000
-7.260E-06,0.004
-7.250E-06,0.004
-7.240E-06,0.004
-7.230E-06,0.004
-7.220E-06,0.008
-7.210E-06,0.008
-7.200E-06,0.000
-7.190E-06,0.004
-7.180E-06,0.004
-7.170E-06,0.004
-7.160E-06,0.004
-7.150E-06,0.000
-7.140E-06,0.000
-7.130E-06,0.000
-7.120E-06,0.004
-7.110E-06,0.000
-7.100E-06,0.004
-7.090E-06,0.004
-7.080E-06,0.000
-7.070E-06,0.004
-7.060E-06,0.004
-7.050E-06,0.004
-7.040E-06,0.004
-7.030E-06,0.004
-7.020E-06,0.008
-7.010E-06,0.000
-7.000E-06,0.000
-6.990E-06,0.004
-6.980E-06,0.004
-6.970E-06,0.000
-6.960E-06,-0.004
-6.950E-06,0.004
-6.940E-06,0.000
-6.930E-06,0.000
-6.920E-06,0.004
-6.910E-06,0.004
-6.900E-06,0.004
-6.890E-06,0.004
-6.880E-06,0.000
-6.870E-06,0.004
-6.860E-06,0.004
-6.850E-06,0.004
-6.840E-06,0.004
-6.830E-06,0.004
-6.820E-06,0.004
-6.810E-06,0.004
-6.800E-06,0.004
-6.790E-06,0.004
-6.780E-06,0.000
-6.770E-06,0.000
-6.760E-06,0.004
-6.750E-06,0.004
-6.740E-06,0.000
-6.730E-06,0.004
-6.720E-06,0.004
-6.710E-06,0.000
-6.700E-06,0.004
-6.690E-06,0.008
-6.680E-06,0.008
-6.670E-06,0.008
-6.660E-06,0.000
-6.650E-06,-0.004
-6.640E-06,0.004
-6.630E-06,0.000
-6.620E-06,0.000
-6.610E-06,0.004
-6.600E-06,0.008
-6.590E-06,0.000
-6.580E-06,0.004
-6.570E-06,0.000
-6.560E-06,0.004
-6.550E-06,0.008
-6.540E-06,0.000
-6.530E-06,0.000
-6.520E-06,0.004
-6.510E-06,0.004
-6.500E-06,0.004
-6.490E-06,0.004
-6.480E-06,0.004
-6.470E-06,0.000
-6.460E-06,-0.004
-6.450E-06,0.004
-6.440E-06,0.000
-6.430E-06,0.000
-6.420E-06,-0.004
-6.410E-06,0.004
-6.400E-06,0.004
-6.390E-06,0.004
-6.380E-06,0.000
-6.370E-06,0.004
-6.360E-06,0.000
-6.350E-06,0.000
-6.340E-06,0.008
-6.330E-06,0.008
-6.320E-06,0.000
-6.310E-06,0.004
-6.300E-06,0.004
-6.290E-06,0.004
-6.280E-06,0.004
-6.270E-06,0.000
-6.260E-06,0.004
-6.250E-06,0.000
-6.240E-06,0.004
-6.230E-06,0.004
-6.220E-06,0.004
-6.210E-06,0.004
-6.200E-06,0.004
-6.190E-06,0.004
-6.180E-06,0.004
-6.170E-06,0.004
-6.160E-06,0.000
-6.150E-06,0.004
-6.140E-06,0.004
-6.130E-06,0.000
-6.120E-06,0.008
-6.110E-06,0.008
-6.100E-06,0.008
-6.090E-06,0.004
-6.080E-06,0.000
-6.070E-06,0.000
-6.060E-06,0.004
-6.050E-06,0.000
-6.040E-06,0.004
-6.030E-06,0.004
-6.020E-06,0.000
-6.010E-06,0.004
-6.000E-06,0.008
-5.990E-06,0.008
-5.980E-06,0.000
-5.970E-06,-0.004
-5.960E-06,0.004
-5.950E-06,0.004
-5.940E-06,0.004
-5.930E-06,0.004
-5.920E-06,0.004
-5.910E-06,0.004
-5.900E-06,0.000
-5.890E-06,0.004
-5.880E-06,-0.004
-5.870E-06,0.004
-5.860E-06,0.004
-5.850E-06,0.004
-5.840E-06,0.004
-5.830E-06,0.004
-5.820E-06,0.004
-5.810E-06,0.000
-5.800E-06,0.004
-5.790E-06,0.000
-5.780E-06,0.004
-5.770E-06,0.004
-5.760E-06,0.004
-5.750E-06,0.000
-5.740E-06,-0.004
-5.730E-06,0.004
-5.720E-06,0.004
-5.710E-06,0.000
-5.700E-06,0.000
-5.690E-06,0.004
-5.680E-06,0.004
-5.670E-06,0.004
-5.660E-06,0.000
-5.650E-06,0.008
-5.640E-06,0.004
-5.630E-06,0.000
-5.620E-06,0.004
-5.610E-06,0.004
-5.600E-06,0.004
-5.590E-06,0.004
-5.580E-06,0.004
-5.570E-06,0.008
-5.560E-06,0.008
-5.550E-06,0.008
-5.540E-06,0.008
-5.530E-06,0.008
-5.520E-06,0.000
-5.510E-06,0.000
-5.500E-06,0.004
-5.490E-06,0.004
-5.480E-06,0.000
-5.470E-06,0.004
-5.460E-06,0.004
-5.450E-06,0.004
-5.440E-06,0.000
-5.430E-06,0.004
-5.420E-06,0.000
-5.410E-06,0.000
-5.400E-06,0.000
-5.390E-06,0.000
-5.380E-06,0.004
-5.370E-06,0.004
-5.360E-06,0.004
-5.350E-06,0.000
-5.340E-06,0.004
-5.330E-06,0.004
-5.320E-06,0.000
-5.310E-06,0.000
-5.300E-06,0.004
-5.290E-06,0.000
-5.280E-06,0.004
-5.270E-06,0.008
-5.260E-06,0.000
-5.250E-06,-0.004
-5.240E-06,0.000
-5.230E-06,0.000
-5.220E-06,0.000
-5.210E-06,0.008
-5.200E-06,0.008
-5.190E-06,0.004
-5.180E-06,0.008
-5.170E-06,0.008
-5.160E-06,0.000
-5.150E-06,0.000
-5.140E-06,0.004
-5.130E-06,0.000
-5.120E-06,0.000
-5.110E-06,0.004
-5.100E-06,0.000
-5.090E-06,0.004
-5.080E-06,0.004
-5.070E-06,0.000
-5.060E-06,0.004
-5.050E-06,0.000
-5.040E-06,0.004
-5.030E-06,0.000
-5.020E-06,0.004
-5.010E-06,0.004
-5.000E-06,0.004
-4.990E-06,0.004
-4.980E-06,0.004
-4.970E-06,0.004
-4.960E-06,0.000
-4.950E-06,0.004
-4.940E-06,0.004
-4.930E-06,0.004
-4.920E-06,0.000
-4.910E-06,0.004
-4.900E-06,0.004
-4.890E-06,0.000
-4.880E-06,0.000
-4.870E-06,0.004
-4.860E-06,0.004
-4.850E-06,0.004
-4.840E-06,0.004
-4.830E-06,0.000
-4.820E-06,0.000
-4.810E-06,0.000
-4.800E-06,0.000
-4.790E-06,0.004
-4.780E-06,0.004
-4.770E-06,0.004
-4.760E-06,0.004
-4.750E-06,0.004
-4.740E-06,0.004
-4.730E-06,0.008
-4.720E-06,0.008
-4.710E-06,0.008
-4.700E-06,0.004
-4.690E-06,0.008
-4.680E-06,0.000
-4.670E-06,0.004
-4.660E-06,0.008
-4.650E-06,0.004
-4.640E-06,0.004
-4.630E-06,0.008
-4.620E-06,0.000
-4.610E-06,0.000
-4.600E-06,0.004
-4.590E-06,-0.004
-4.580E-06,0.004
-4.570E-06,0.000
-4.560E-06,0.000
-4.550E-06,0.000
-4.540E-06,0.004
-4.530E-06,0.004
-4.520E-06,0.004
-4.510E-06,0.004
-4.500E-06,0.004
-4.490E-06,0.000
-4.480E-06,0.000
-4.470E-06,0.000
-4.460E-06,0.004
-4.450E-06,0.004
-4.440E-06,0.004
-4.430E-06,0.004
-4.420E-06,0.004
-4.410E-06,0.000
-4.400E-06,0.008
-4.390E-06,0.008
-4.380E-06,0.008
-4.370E-06,0.004
-4.360E-06,0.008
-4.350E-06,0.008
-4.340E-06,0.000
-4.330E-06,0.004
-4.320E-06,0.000
-4.310E-06,0.004
-4.300E-06,0.004
-4.290E-06,0.004
-4.280E-06,0.000
-4.270E-06,0.000
-4.260E-06,0.000
-4.250E-06,0.004
-4.240E-06,0.004
-4.230E-06,0.000
-4.220E-06,0.000
-4.210E-06,0.000
-4.200E-06,0.000
-4.190E-06,0.004
-4.180E-06,0.004
-4.170E-06,0.004
-4.160E-06,0.004
-4.150E-06,0.004
-4.140E-06,0.004
-4.130E-06,0.004
-4.120E-06,0.000
-4.110E-06,0.004
-4.100E-06,0.000
-4.090E-06,0.004
-4.080E-06,0.004
-4.070E-06,0.000
-4.060E-06,0.004
-4.050E-06,0.000
-4.040E-06,0.000
-4.030E-06,0.004
-4.020E-06,0.004
-4.010E-06,0.004
-4.000E-06,0.004
-3.990E-06,0.004
-3.980E-06,0.004
-3.970E-06,0.000
-3.960E-06,0.004
-3.950E-06,0.004
-3.940E-06,0.004
-3.930E-06,0.004
-3.920E-06,0.004
-3.910E-06,0.004
-3.900E-06,0.000
-3.890E-06,0.004
-3.880E-06,0.008
-3.870E-06,0.008
-3.860E-06,0.000
-3.850E-06,0.000
-3.840E-06,0.004
-3.830E-06,0.000
-3.820E-06,-0.004
-3.810E-06,0.000
-3.800E-06,0.004
-3.790E-06,0.000
-3.780E-06,0.000
-3.770E-06,0.004
-3.760E-06,0.008
-3.750E-06,-0.004
-3.740E-06,0.000
-3.730E-06,0.004
-3.720E-06,0.012
-3.710E-06,0.052
-3.700E-06,0.108
-3.690E-06,0.152
-3.680E-06,0.144
-3.670E-06,0.040
-3.660E-06,-0.140
-3.650E-06,-0.272
-3.640E-06,-0.276
-3.630E-06,-0.112
-3.620E-06,0.112
-3.610E-06,0.276
-3.600E-06,0.280
-3.590E-06,0.136
-3.580E-06,-0.076
-3.570E-06,-0.228
-3.560E-06,-0.240
-3.550E-06,-0.104
-3.540E-06,0.092
-3.530E-06,0.220
-3.520E-06,0.232
-3.510E-06,0.120
-3.500E-06,-0.040
-3.490E-06,-0.176
-3.480E-06,-0.204
-3.470E-06,-0.152
-3.460E-06,-0.024
-3.450E-06,0.096
-3.440E-06,0.176
-3.430E-06,0.176
-3.420E-06,0.088
-3.410E-06,-0.024
-3.400E-06,-0.116
-3.390E-06,-0.148
-3.380E-06,-0.104
-3.370E-06,0.004
-3.360E-06,0.120
-3.350E-06,0.160
-3.340E-06,0.108
-3.330E-06,-0.004
-3.320E-06,-0.120
-3.310E-06,-0.172
-3.300E-06,-0.144
-3.290E-06,-0.036
-3.280E-06,0.068
-3.270E-06,0.140
-3.260E-06,0.136
-3.250E-06,0.072
-3.240E-06,-0.012
-3.230E-06,-0.076
-3.220E-06,-0.080
-3.210E-06,-0.036
-3.200E-06,0.028
-3.190E-06,0.072
-3.180E-06,0.080
-3.170E-06,0.056
-3.160E-06,0.008
-3.150E-06,-0.040
-3.140E-06,-0.076
-3.130E-06,-0.072
-3.120E-06,-0.032
-3.110E-06,0.024
-3.100E-06,0.068
-3.090E-06,0.084
-3.080E-06,0.060
-3.070E-06,0.008
-3.060E-06,-0.028
-3.050E-06,-0.052
-3.040E-06,-0.040
-3.030E-06,-0.008
-3.020E-06,0.036
-3.010E-06,0.052
-3.000E-06,0.036
-2.990E-06,0.012
-2.980E-06,-0.020
-2.970E-06,-0.052
-2.960E-06,-0.052
-2.950E-06,-0.024
-2.940E-06,0.008
-2.930E-06,0.036
-2.920E-06,0.048
-2.910E-06,0.044
-2.900E-06,0.008
-2.890E-06,-0.016
-2.880E-06,-0.024
-2.870E-06,-0.016
-2.860E-06,0.008
-2.850E-06,0.024
-2.840E-06,0.032
-2.830E-06,0.024
-2.820E-06,0.008
-2.810E-06,-0.016
-2.800E-06,-0.020
-2.790E-06,-0.020
-2.780E-06,-0.008
-2.770E-06,0.020
-2.760E-06,0.032
-2.750E-06,0.020
-2.740E-06,0.012
-2.730E-06,0.004
-2.720E-06,-0.004
-2.710E-06,-0.008
-2.700E-06,-0.004
-2.690E-06,0.008
-2.680E-06,0.012
-2.670E-06,0.024
-2.660E-06,0.008
-2.650E-06,0.000
-2.640E-06,-0.012
-2.630E-06,-0.028
-2.620E-06,-0.016
-2.610E-06,-0.008
-2.600E-06,0.008
-2.590E-06,0.020
-2.580E-06,0.024
-2.570E-06,0.004
-2.560E-06,-0.008
-2.550E-06,-0.012
-2.540E-06,-0.008
-2.530E-06,0.008
-2.520E-06,0.028
-2.510E-06,0.020
-2.500E-06,0.008
-2.490E-06,-0.004
-2.480E-06,-0.012
-2.470E-06,-0.004
-2.460E-06,0.000
-2.450E-06,0.004
-2.440E-06,0.016
-2.430E-06,0.008
-2.420E-06,0.008
-2.410E-06,0.000
-2.400E-06,-0.008
-2.390E-06,-0.004
-2.380E-06,0.000
-2.370E-06,0.004
-2.360E-06,0.016
-2.350E-06,0.016
-2.340E-06,0.012
-2.330E-06,0.004
-2.320E-06,0.004
-2.310E-06,-0.008
-2.300E-06,-0.012
-2.290E-06,-0.008
-2.280E-06,0.004
-2.270E-06,0.012
-2.260E-06,0.020
-2.250E-06,0.008
-2.240E-06,0.000
-2.230E-06,-0.004
-2.220E-06,-0.008
-2.210E-06,0.000
-2.200E-06,0.016
-2.190E-06,0.016
-2.180E-06,0.020
-2.170E-06,0.012
-2.160E-06,0.004
-2.150E-06,0.000
-2.140E-06,0.000
-2.130E-06,0.000
-2.120E-06,0.012
-2.110E-06,0.012
-2.100E-06,0.020
-2.090E-06,0.016
-2.080E-06,0.012
-2.070E-06,0.008
-2.060E-06,0.008
-2.050E-06,0.012
-2.040E-06,0.028
-2.030E-06,0.032
-2.020E-06,0.012
-2.010E-06,0.020
-2.000E-06,-0.060
-1.990E-06,-0.068
-1.980E-06,-0.056
-1.970E-06,-0.016
-1.960E-06,0.036
-1.950E-06,0.060
-1.940E-06,0.052
-1.930E-06,-0.008
-1.920E-06,-0.044
-1.910E-06,-0.060
-1.900E-06,-0.020
-1.890E-06,0.032
-1.880E-06,0.064
-1.870E-06,0.028
-1.860E-06,-0.004
-1.850E-06,-0.032
-1.840E-06,-0.036
-1.830E-06,-0.008
-1.820E-06,0.008
-1.810E-06,0.020
-1.800E-06,0.004
-1.790E-06,-0.008
-1.780E-06,-0.024
-1.770E-06,-0.004
-1.760E-06,0.012
-1.750E-06,0.024
-1.740E-06,0.020
-1.730E-06,-0.004
-1.720E-06,-0.024
-1.710E-06,-0.032
-1.700E-06,-0.008
-1.690E-06,0.024
-1.680E-06,0.036
-1.670E-06,0.032
-1.660E-06,0.008
-1.650E-06,-0.004
-1.640E-06,-0.020
-1.630E-06,-0.020
-1.620E-06,-0.008
-1.610E-06,0.004
-1.600E-06,0.016
-1.590E-06,0.024
-1.580E-06,0.024
-1.570E-06,0.012
-1.560E-06,-0.008
-1.550E-06,-0.012
-1.540E-06,-0.020
-1.530E-06,-0.012
-1.520E-06,-0.004
-1.510E-06,0.016
-1.500E-06,0.028
-1.490E-06,0.024
-1.480E-06,0.012
-1.470E-06,-0.012
-1.460E-06,-0.032
-1.450E-06,-0.024
-1.440E-06,-0.008
-1.430E-06,0.020
-1.420E-06,0.036
-1.410E-06,0.036
-1.400E-06,0.024
-1.390E-06,-0.004
-1.380E-06,-0.020
-1.370E-06,-0.020
-1.360E-06,0.000
-1.350E-06,0.012
-1.340E-06,0.028
-1.330E-06,0.028
-1.320E-06,0.016
-1.310E-06,0.008
-1.300E-06,0.000
-1.290E-06,-0.004
-1.280E-06,-0.004
-1.270E-06,0.008
-1.260E-06,0.020
-1.250E-06,0.028
-1.240E-06,0.020
-1.230E-06,0.020
-1.220E-06,0.008
-1.210E-06,-0.004
-1.200E-06,-0.004
-1.190E-06,-0.004
-1.180E-06,0.008
-1.170E-06,0.024
-1.160E-06,0.024
-1.150E-06,0.028
-1.140E-06,0.012
-1.130E-06,0.012
-1.120E-06,0.008
-1.110E-06,0.016
-1.100E-06,0.028
-1.090E-06,0.036
-1.080E-06,0.040
-1.070E-06,0.032
-1.060E-06,0.028
-1.050E-06,0.024
-1.040E-06,0.012
-1.030E-06,0.004
-1.020E-06,0.004
-1.010E-06,0.012
-1.000E-06,0.032
-9.900E-07,0.044
-9.800E-07,0.036
-9.700E-07,0.024
-9.600E-07,-0.004
-9.500E-07,-0.024
-9.400E-07,-0.016
-9.300E-07,-0.004
-9.200E-07,0.024
-9.100E-07,0.044
-9.000E-07,0.052
-8.900E-07,0.048
-8.800E-07,0.040
-8.700E-07,0.044
-8.600E-07,0.064
-8.500E-07,0.064
-8.400E-07,0.040
-8.300E-07,-0.032
-8.200E-07,-0.124
-8.100E-07,-0.164
-8.000E-07,-0.136
-7.900E-07,-0.052
-7.800E-07,0.044
-7.700E-07,0.092
-7.600E-07,0.064
-7.500E-07,-0.016
-7.400E-07,-0.084
-7.300E-07,-0.108
-7.200E-07,-0.068
-7.100E-07,0.004
-7.000E-07,0.060
-6.900E-07,0.072
-6.800E-07,0.036
-6.700E-07,-0.008
-6.600E-07,-0.056
-6.500E-07,-0.056
-6.400E-07,-0.024
-6.300E-07,0.008
-6.200E-07,0.048
-6.100E-07,0.060
-6.000E-07,0.040
-5.900E-07,0.008
-5.800E-07,-0.024
-5.700E-07,-0.036
-5.600E-07,-0.028
-5.500E-07,0.000
-5.400E-07,0.044
-5.300E-07,0.048
-5.200E-07,0.028
-5.100E-07,-0.004
-5.000E-07,-0.040
-4.900E-07,-0.056
-4.800E-07,-0.036
-4.700E-07,0.016
-4.600E-07,0.056
-4.500E-07,0.060
-4.400E-07,0.044
-4.300E-07,0.000
-4.200E-07,-0.032
-4.100E-07,-0.040
-4.000E-07,-0.008
-3.900E-07,0.028
-3.800E-07,0.052
-3.700E-07,0.052
-3.600E-07,0.024
-3.500E-07,0.004
-3.400E-07,-0.024
-3.300E-07,-0.024
-3.200E-07,-0.008
-3.100E-07,0.012
-3.000E-07,0.040
-2.900E-07,0.052
-2.800E-07,0.052
-2.700E-07,0.032
-2.600E-07,0.028
-2.500E-07,0.016
-2.400E-07,0.032
-2.300E-07,0.052
-2.200E-07,0.088
-2.100E-07,0.112
-2.000E-07,0.124
-1.900E-07,0.112
-1.800E-07,0.100
-1.700E-07,0.092
-1.600E-07,0.092
-1.500E-07,0.092
-1.400E-07,0.124
-1.300E-07,0.148
-1.200E-07,0.164
-1.100E-07,0.164
-1.000E-07,0.156
-9.000E-08,0.124
-8.000E-08,0.112
-7.000E-08,0.156
-6.000E-08,-0.488
-5.000E-08,-0.508
-4.000E-08,-0.508
-3.000E-08,-0.508
-2.000E-08,-0.180
-1.000E-08,0.372
0.000E+00,0.540
1.000E-08,0.428
2.000E-08,-0.076
3.000E-08,-0.512
4.000E-08,-0.484
5.000E-08,-0.356
6.000E-08,0.096
7.000E-08,0.444
8.000E-08,0.460
9.000E-08,0.336
1.000E-07,0.008
1.100E-07,-0.220
1.200E-07,-0.460
1.300E-07,-0.288
1.400E-07,-0.060
1.500E-07,0.280
1.600E-07,0.352
1.700E-07,0.348
1.800E-07,0.136
1.900E-07,-0.140
2.000E-07,-0.280
2.100E-07,-0.292
2.200E-07,-0.100
2.300E-07,0.112
2.400E-07,0.372
2.500E-07,0.416
2.600E-07,0.332
2.700E-07,0.112
2.800E-07,-0.068
2.900E-07,-0.168
3.000E-07,-0.108
3.100E-07,0.016
3.200E-07,0.020
3.300E-07,-0.272
3.400E-07,-0.316
3.500E-07,-0.312
3.600E-07,-0.268
3.700E-07,0.000
3.800E-07,0.328
3.900E-07,0.352
4.000E-07,0.096
4.100E-07,-0.176
4.200E-07,-0.368
4.300E-07,-0.232
4.400E-07,0.024
4.500E-07,0.284
4.600E-07,0.300
4.700E-07,0.144
4.800E-07,-0.072
4.900E-07,-0.224
5.000E-07,-0.224
5.100E-07,-0.120
5.200E-07,0.080
5.300E-07,0.200
5.400E-07,0.244
5.500E-07,0.140
5.600E-07,0.024
5.700E-07,-0.124
5.800E-07,-0.156
5.900E-07,-0.136
6.000E-07,-0.080
6.100E-07,0.036
6.200E-07,0.124
6.300E-07,0.176
6.400E-07,0.132
6.500E-07,-0.012
6.600E-07,-0.164
6.700E-07,-0.216
6.800E-07,-0.136
6.900E-07,0.056
7.000E-07,0.236
7.100E-07,0.248
7.200E-07,0.108
7.300E-07,-0.104
7.400E-07,-0.236
7.500E-07,-0.204
7.600E-07,-0.044
7.700E-07,0.148
7.800E-07,0.236
7.900E-07,0.192
8.000E-07,0.056
8.100E-07,-0.096
8.200E-07,-0.164
8.300E-07,-0.108
8.400E-07,0.036
8.500E-07,0.168
8.600E-07,0.200
8.700E-07,0.124
8.800E-07,-0.004
8.900E-07,-0.120
9.000E-07,-0.144
9.100E-07,-0.076
9.200E-07,0.044
9.300E-07,0.140
9.400E-07,0.196
9.500E-07,0.160
9.600E-07,0.048
9.700E-07,-0.112
9.800E-07,-0.172
9.900E-07,-0.188
1.000E-06,-0.084
1.010E-06,0.088
1.020E-06,0.204
1.030E-06,0.224
1.040E-06,0.136
1.050E-06,-0.008
1.060E-06,-0.176
1.070E-06,-0.196
1.080E-06,-0.100
1.090E-06,0.104
1.100E-06,0.232
1.110E-06,0.228
1.120E-06,0.096
1.130E-06,-0.072
1.140E-06,-0.180
1.150E-06,-0.188
1.160E-06,-0.080
1.170E-06,0.032
1.180E-06,0.132
1.190E-06,0.128
1.200E-06,0.072
1.210E-06,-0.024
1.220E-06,-0.096
1.230E-06,-0.132
1.240E-06,-0.096
1.250E-06,-0.008
1.260E-06,0.088
1.270E-06,0.144
1.280E-06,0.112
1.290E-06,0.028
1.300E-06,-0.052
1.310E-06,-0.084
1.320E-06,-0.060
1.330E-06,0.036
1.340E-06,0.144
1.350E-06,0.188
1.360E-06,0.172
1.370E-06,0.092
1.380E-06,0.020
1.390E-06,-0.020
1.400E-06,0.012
1.410E-06,0.096
1.420E-06,0.172
1.430E-06,0.220
1.440E-06,0.224
1.450E-06,0.100
1.460E-06,-0.232
1.470E-06,-0.512
1.480E-06,-0.508
1.490E-06,-0.508
1.500E-06,-0.180
1.510E-06,0.320
1.520E-06,0.540
1.530E-06,0.520
1.540E-06,0.140
1.550E-06,-0.352
1.560E-06,-0.512
1.570E-06,-0.476
1.580E-06,-0.040
1.590E-06,0.424
1.600E-06,0.540
1.610E-06,0.408
1.620E-06,0.012
1.630E-06,-0.316
1.640E-06,-0.488
1.650E-06,-0.356
1.660E-06,-0.040
1.670E-06,0.268
1.680E-06,0.448
1.690E-06,0.392
1.700E-06,0.156
1.710E-06,-0.168
1.720E-06,-0.340
1.730E-06,-0.316
1.740E-06,-0.068
1.750E-06,0.216
1.760E-06,0.384
1.770E-06,0.404
1.780E-06,0.256
1.790E-06,-0.024
1.800E-06,-0.292
1.810E-06,-0.344
1.820E-06,-0.284
1.830E-06,-0.064
1.840E-06,0.220
1.850E-06,0.376
1.860E-06,0.336
1.870E-06,0.136
1.880E-06,-0.140
1.890E-06,-0.332
1.900E-06,-0.368
1.910E-06,-0.184
1.920E-06,0.072
1.930E-06,0.256
1.940E-06,0.272
1.950E-06,0.136
1.960E-06,-0.100
1.970E-06,-0.280
1.980E-06,-0.340
1.990E-06,-0.228
2.000E-06,-0.016
2.010E-06,0.184
2.020E-06,0.240
2.030E-06,0.172
2.040E-06,0.000
2.050E-06,-0.172
2.060E-06,-0.220
2.070E-06,-0.148
2.080E-06,0.008
2.090E-06,0.152
2.100E-06,0.236
2.110E-06,0.196
2.120E-06,0.072
2.130E-06,-0.072
2.140E-06,-0.144
2.150E-06,-0.124
2.160E-06,-0.004
2.170E-06,0.128
2.180E-06,0.208
2.190E-06,0.204
2.200E-06,0.108
2.210E-06,-0.008
2.220E-06,-0.072
2.230E-06,-0.056
2.240E-06,0.016
2.250E-06,0.140
2.260E-06,0.220
2.270E-06,0.228
2.280E-06,0.164
2.290E-06,0.084
2.300E-06,0.016
2.310E-06,-0.016
2.320E-06,0.008
2.330E-06,0.056
2.340E-06,0.100
2.350E-06,0.092
2.360E-06,0.056
2.370E-06,0.012
2.380E-06,-0.028
2.390E-06,-0.040
2.400E-06,-0.080
2.410E-06,-0.096
2.420E-06,0.000
2.430E-06,0.044
2.440E-06,0.096
2.450E-06,0.144
2.460E-06,0.100
2.470E-06,-0.024
2.480E-06,-0.088
2.490E-06,-0.052
2.500E-06,0.008
2.510E-06,0.068
2.520E-06,0.112
2.530E-06,0.084
2.540E-06,-0.024
2.550E-06,-0.076
2.560E-06,-0.092
2.570E-06,-0.064
2.580E-06,-0.040
2.590E-06,-0.012
2.600E-06,-0.020
2.610E-06,-0.048
2.620E-06,-0.056
2.630E-06,-0.064
2.640E-06,-0.044
2.650E-06,0.016
2.660E-06,0.060
2.670E-06,0.072
2.680E-06,0.068
2.690E-06,0.072
2.700E-06,0.108
2.710E-06,0.120
2.720E-06,0.060
2.730E-06,0.052
2.740E-06,0.084
2.750E-06,0.120
2.760E-06,0.188
2.770E-06,0.252
2.780E-06,0.232
2.790E-06,0.148
2.800E-06,0.100
2.810E-06,0.088
2.820E-06,0.104
2.830E-06,0.148
2.840E-06,0.176
2.850E-06,0.156
2.860E-06,0.120
2.870E-06,0.060
2.880E-06,0.048
2.890E-06,-0.048
2.900E-06,-0.224
2.910E-06,-0.480
2.920E-06,-0.508
2.930E-06,-0.508
2.940E-06,-0.500
2.950E-06,-0.096
2.960E-06,0.304
2.970E-06,0.380
2.980E-06,0.192
2.990E-06,-0.084
3.000E-06,-0.352
3.010E-06,-0.424
3.020E-06,-0.208
3.030E-06,0.108
3.040E-06,0.348
3.050E-06,0.376
3.060E-06,0.240
3.070E-06,-0.028
3.080E-06,-0.172
3.090E-06,-0.244
3.100E-06,-0.124
3.110E-06,0.100
3.120E-06,0.364
3.130E-06,0.492
3.140E-06,0.412
3.150E-06,0.144
3.160E-06,-0.228
3.170E-06,-0.480
3.180E-06,-0.512
3.190E-06,-0.456
3.200E-06,-0.264
3.210E-06,-0.008
3.220E-06,0.080
3.230E-06,0.076
3.240E-06,0.008
3.250E-06,-0.132
3.260E-06,-0.296
3.270E-06,-0.264
3.280E-06,-0.120
3.290E-06,0.000
3.300E-06,0.076
3.310E-06,0.144
3.320E-06,0.128
3.330E-06,-0.016
