mediciones/Mediciones filtradas (saque las feas)/5-15/-19.9/WaveData47667.csv

#timebase=2000000(ps)
,#voltbase=100000(mv/100)
#size=4000
-8.400E-06,0.000
-8.390E-06,-0.004
-8.380E-06,0.004
-8.370E-06,0.004
-8.360E-06,0.004
-8.350E-06,0.004
-8.340E-06,0.000
-8.330E-06,0.000
-8.320E-06,-0.004
-8.310E-06,-0.004
-8.300E-06,0.004
-8.290E-06,0.012
-8.280E-06,0.004
-8.270E-06,0.004
-8.260E-06,0.004
-8.250E-06,0.000
-8.240E-06,-0.004
-8.230E-06,0.000
-8.220E-06,0.004
-8.210E-06,0.008
-8.200E-06,0.004
-8.190E-06,0.004
-8.180E-06,0.000
-8.170E-06,0.000
-8.160E-06,-0.004
-8.150E-06,0.000
-8.140E-06,0.000
-8.130E-06,0.000
-8.120E-06,0.000
-8.110E-06,0.004
-8.100E-06,0.004
-8.090E-06,0.000
-8.080E-06,0.000
-8.070E-06,0.004
-8.060E-06,-0.004
-8.050E-06,0.004
-8.040E-06,0.004
-8.030E-06,0.004
-8.020E-06,0.004
-8.010E-06,0.004
-8.000E-06,0.008
-7.990E-06,0.000
-7.980E-06,0.004
-7.970E-06,0.004
-7.960E-06,0.004
-7.950E-06,0.004
-7.940E-06,0.008
-7.930E-06,0.008
-7.920E-06,0.008
-7.910E-06,0.000
-7.900E-06,-0.004
-7.890E-06,0.000
-7.880E-06,0.000
-7.870E-06,0.004
-7.860E-06,0.004
-7.850E-06,0.004
-7.840E-06,0.004
-7.830E-06,0.004
-7.820E-06,0.000
-7.810E-06,0.000
-7.800E-06,0.008
-7.790E-06,0.000
-7.780E-06,0.004
-7.770E-06,0.004
-7.760E-06,0.004
-7.750E-06,0.000
-7.740E-06,0.000
-7.730E-06,0.004
-7.720E-06,0.004
-7.710E-06,0.004
-7.700E-06,0.000
-7.690E-06,-0.004
-7.680E-06,0.004
-7.670E-06,0.000
-7.660E-06,0.004
-7.650E-06,0.008
-7.640E-06,0.004
-7.630E-06,0.008
-7.620E-06,0.000
-7.610E-06,-0.004
-7.600E-06,0.004
-7.590E-06,0.004
-7.580E-06,0.004
-7.570E-06,0.004
-7.560E-06,0.004
-7.550E-06,0.004
-7.540E-06,0.000
-7.530E-06,0.000
-7.520E-06,0.004
-7.510E-06,0.004
-7.500E-06,0.000
-7.490E-06,0.000
-7.480E-06,0.000
-7.470E-06,0.000
-7.460E-06,-0.004
-7.450E-06,0.004
-7.440E-06,0.008
-7.430E-06,-0.004
-7.420E-06,-0.004
-7.410E-06,0.000
-7.400E-06,0.000
-7.390E-06,0.000
-7.380E-06,0.000
-7.370E-06,0.000
-7.360E-06,0.000
-7.350E-06,-0.004
-7.340E-06,0.000
-7.330E-06,0.004
-7.320E-06,0.000
-7.310E-06,0.004
-7.300E-06,0.004
-7.290E-06,-0.004
-7.280E-06,0.000
-7.270E-06,0.008
-7.260E-06,0.004
-7.250E-06,0.008
-7.240E-06,0.008
-7.230E-06,0.000
-7.220E-06,0.000
-7.210E-06,0.004
-7.200E-06,0.008
-7.190E-06,0.000
-7.180E-06,0.000
-7.170E-06,0.004
-7.160E-06,-0.004
-7.150E-06,0.000
-7.140E-06,0.000
-7.130E-06,0.000
-7.120E-06,-0.004
-7.110E-06,0.004
-7.100E-06,0.004
-7.090E-06,0.004
-7.080E-06,0.004
-7.070E-06,0.008
-7.060E-06,0.000
-7.050E-06,0.000
-7.040E-06,0.004
-7.030E-06,0.004
-7.020E-06,0.004
-7.010E-06,0.004
-7.000E-06,0.008
-6.990E-06,0.000
-6.980E-06,0.008
-6.970E-06,0.000
-6.960E-06,0.000
-6.950E-06,-0.004
-6.940E-06,0.004
-6.930E-06,0.004
-6.920E-06,0.004
-6.910E-06,0.004
-6.900E-06,0.004
-6.890E-06,0.008
-6.880E-06,0.000
-6.870E-06,0.000
-6.860E-06,0.000
-6.850E-06,0.004
-6.840E-06,0.004
-6.830E-06,0.004
-6.820E-06,0.000
-6.810E-06,0.000
-6.800E-06,0.000
-6.790E-06,0.000
-6.780E-06,0.004
-6.770E-06,0.000
-6.760E-06,0.000
-6.750E-06,0.004
-6.740E-06,0.004
-6.730E-06,0.000
-6.720E-06,0.000
-6.710E-06,0.004
-6.700E-06,-0.004
-6.690E-06,-0.004
-6.680E-06,0.004
-6.670E-06,0.008
-6.660E-06,0.000
-6.650E-06,0.004
-6.640E-06,0.004
-6.630E-06,0.004
-6.620E-06,-0.004
-6.610E-06,0.004
-6.600E-06,-0.004
-6.590E-06,0.000
-6.580E-06,0.004
-6.570E-06,0.004
-6.560E-06,0.004
-6.550E-06,0.000
-6.540E-06,-0.004
-6.530E-06,0.000
-6.520E-06,0.004
-6.510E-06,0.008
-6.500E-06,0.000
-6.490E-06,-0.004
-6.480E-06,0.004
-6.470E-06,0.008
-6.460E-06,0.008
-6.450E-06,0.000
-6.440E-06,0.000
-6.430E-06,0.004
-6.420E-06,0.008
-6.410E-06,-0.004
-6.400E-06,-0.004
-6.390E-06,0.004
-6.380E-06,0.008
-6.370E-06,0.008
-6.360E-06,0.008
-6.350E-06,-0.004
-6.340E-06,0.000
-6.330E-06,0.000
-6.320E-06,0.004
-6.310E-06,0.000
-6.300E-06,0.008
-6.290E-06,0.008
-6.280E-06,0.008
-6.270E-06,0.004
-6.260E-06,-0.004
-6.250E-06,0.000
-6.240E-06,0.004
-6.230E-06,0.004
-6.220E-06,0.000
-6.210E-06,0.004
-6.200E-06,0.004
-6.190E-06,0.004
-6.180E-06,0.000
-6.170E-06,0.004
-6.160E-06,-0.004
-6.150E-06,-0.004
-6.140E-06,0.000
-6.130E-06,0.000
-6.120E-06,0.008
-6.110E-06,0.008
-6.100E-06,0.000
-6.090E-06,0.004
-6.080E-06,0.000
-6.070E-06,0.000
-6.060E-06,0.000
-6.050E-06,0.004
-6.040E-06,0.008
-6.030E-06,0.008
-6.020E-06,0.008
-6.010E-06,0.008
-6.000E-06,-0.004
-5.990E-06,-0.004
-5.980E-06,0.004
-5.970E-06,0.000
-5.960E-06,0.008
-5.950E-06,0.008
-5.940E-06,0.000
-5.930E-06,0.000
-5.920E-06,0.000
-5.910E-06,0.004
-5.900E-06,0.004
-5.890E-06,0.000
-5.880E-06,0.008
-5.870E-06,0.008
-5.860E-06,0.000
-5.850E-06,0.000
-5.840E-06,-0.004
-5.830E-06,0.000
-5.820E-06,0.008
-5.810E-06,0.008
-5.800E-06,0.004
-5.790E-06,0.000
-5.780E-06,0.000
-5.770E-06,0.000
-5.760E-06,0.004
-5.750E-06,0.008
-5.740E-06,0.008
-5.730E-06,0.000
-5.720E-06,-0.004
-5.710E-06,0.000
-5.700E-06,-0.004
-5.690E-06,0.004
-5.680E-06,0.008
-5.670E-06,0.004
-5.660E-06,-0.004
-5.650E-06,0.000
-5.640E-06,0.004
-5.630E-06,0.004
-5.620E-06,0.004
-5.610E-06,0.004
-5.600E-06,0.004
-5.590E-06,0.004
-5.580E-06,0.000
-5.570E-06,0.004
-5.560E-06,0.004
-5.550E-06,0.004
-5.540E-06,0.004
-5.530E-06,0.000
-5.520E-06,0.000
-5.510E-06,0.008
-5.500E-06,0.000
-5.490E-06,0.004
-5.480E-06,0.008
-5.470E-06,0.004
-5.460E-06,0.004
-5.450E-06,0.000
-5.440E-06,-0.004
-5.430E-06,0.000
-5.420E-06,0.000
-5.410E-06,0.004
-5.400E-06,0.008
-5.390E-06,0.004
-5.380E-06,0.008
-5.370E-06,0.004
-5.360E-06,0.000
-5.350E-06,0.000
-5.340E-06,0.000
-5.330E-06,0.004
-5.320E-06,0.008
-5.310E-06,0.008
-5.300E-06,0.004
-5.290E-06,0.000
-5.280E-06,0.000
-5.270E-06,-0.004
-5.260E-06,0.004
-5.250E-06,0.008
-5.240E-06,0.008
-5.230E-06,0.012
-5.220E-06,0.008
-5.210E-06,0.000
-5.200E-06,0.000
-5.190E-06,0.000
-5.180E-06,0.004
-5.170E-06,0.008
-5.160E-06,0.008
-5.150E-06,0.008
-5.140E-06,0.008
-5.130E-06,0.004
-5.120E-06,-0.004
-5.110E-06,0.000
-5.100E-06,0.004
-5.090E-06,0.008
-5.080E-06,0.016
-5.070E-06,0.004
-5.060E-06,0.004
-5.050E-06,0.004
-5.040E-06,0.000
-5.030E-06,0.004
-5.020E-06,0.012
-5.010E-06,0.012
-5.000E-06,0.008
-4.990E-06,0.004
-4.980E-06,0.000
-4.970E-06,0.000
-4.960E-06,0.000
-4.950E-06,0.004
-4.940E-06,0.020
-4.930E-06,0.008
-4.920E-06,0.004
-4.910E-06,-0.004
-4.900E-06,-0.008
-4.890E-06,0.000
-4.880E-06,0.004
-4.870E-06,0.004
-4.860E-06,-0.004
-4.850E-06,0.000
-4.840E-06,-0.008
-4.830E-06,-0.008
-4.820E-06,0.008
-4.810E-06,0.008
-4.800E-06,0.004
-4.790E-06,-0.004
-4.780E-06,0.000
-4.770E-06,-0.004
-4.760E-06,0.000
-4.750E-06,0.000
-4.740E-06,0.000
-4.730E-06,0.004
-4.720E-06,0.008
-4.710E-06,0.004
-4.700E-06,0.004
-4.690E-06,-0.004
-4.680E-06,0.000
-4.670E-06,-0.004
-4.660E-06,0.004
-4.650E-06,0.008
-4.640E-06,0.012
-4.630E-06,0.008
-4.620E-06,0.000
-4.610E-06,0.000
-4.600E-06,-0.004
-4.590E-06,-0.004
-4.580E-06,0.000
-4.570E-06,0.008
-4.560E-06,0.012
-4.550E-06,0.012
-4.540E-06,0.012
-4.530E-06,0.012
-4.520E-06,0.000
-4.510E-06,-0.004
-4.500E-06,0.000
-4.490E-06,0.000
-4.480E-06,0.000
-4.470E-06,0.008
-4.460E-06,0.020
-4.450E-06,0.024
-4.440E-06,0.024
-4.430E-06,0.004
-4.420E-06,0.000
-4.410E-06,-0.004
-4.400E-06,0.004
-4.390E-06,-0.004
-4.380E-06,-0.008
-4.370E-06,-0.004
-4.360E-06,0.004
-4.350E-06,0.008
-4.340E-06,0.004
-4.330E-06,0.000
-4.320E-06,0.000
-4.310E-06,-0.004
-4.300E-06,0.000
-4.290E-06,0.004
-4.280E-06,0.012
-4.270E-06,0.012
-4.260E-06,0.008
-4.250E-06,-0.004
-4.240E-06,-0.012
-4.230E-06,-0.008
-4.220E-06,0.004
-4.210E-06,0.012
-4.200E-06,0.016
-4.190E-06,0.012
-4.180E-06,0.008
-4.170E-06,-0.004
-4.160E-06,0.000
-4.150E-06,0.000
-4.140E-06,0.004
-4.130E-06,0.012
-4.120E-06,0.004
-4.110E-06,-0.004
-4.100E-06,-0.004
-4.090E-06,0.004
-4.080E-06,0.008
-4.070E-06,0.012
-4.060E-06,0.012
-4.050E-06,0.000
-4.040E-06,0.000
-4.030E-06,0.000
-4.020E-06,0.000
-4.010E-06,0.008
-4.000E-06,0.008
-3.990E-06,0.008
-3.980E-06,0.008
-3.970E-06,0.004
-3.960E-06,0.008
-3.950E-06,0.012
-3.940E-06,0.008
-3.930E-06,0.004
-3.920E-06,0.004
-3.910E-06,-0.004
-3.900E-06,-0.004
-3.890E-06,0.000
-3.880E-06,0.004
-3.870E-06,0.016
-3.860E-06,0.020
-3.850E-06,0.016
-3.840E-06,0.004
-3.830E-06,-0.004
-3.820E-06,-0.008
-3.810E-06,-0.012
-3.800E-06,0.000
-3.790E-06,0.008
-3.780E-06,0.028
-3.770E-06,0.024
-3.760E-06,0.024
-3.750E-06,0.008
-3.740E-06,-0.008
-3.730E-06,-0.012
-3.720E-06,0.000
-3.710E-06,0.020
-3.700E-06,0.044
-3.690E-06,0.040
-3.680E-06,0.016
-3.670E-06,0.000
-3.660E-06,-0.020
-3.650E-06,-0.004
-3.640E-06,0.000
-3.630E-06,0.028
-3.620E-06,0.040
-3.610E-06,0.036
-3.600E-06,0.024
-3.590E-06,0.012
-3.580E-06,-0.004
-3.570E-06,-0.008
-3.560E-06,0.016
-3.550E-06,0.040
-3.540E-06,0.056
-3.530E-06,0.048
-3.520E-06,0.032
-3.510E-06,-0.008
-3.500E-06,-0.044
-3.490E-06,-0.084
-3.480E-06,-0.064
-3.470E-06,-0.020
-3.460E-06,0.028
-3.450E-06,0.052
-3.440E-06,0.024
-3.430E-06,-0.032
-3.420E-06,-0.072
-3.410E-06,-0.060
-3.400E-06,-0.012
-3.390E-06,0.028
-3.380E-06,0.044
-3.370E-06,0.028
-3.360E-06,0.000
-3.350E-06,-0.024
-3.340E-06,-0.028
-3.330E-06,-0.016
-3.320E-06,0.004
-3.310E-06,0.020
-3.300E-06,0.016
-3.290E-06,0.008
-3.280E-06,0.004
-3.270E-06,-0.004
-3.260E-06,0.004
-3.250E-06,0.008
-3.240E-06,0.008
-3.230E-06,-0.008
-3.220E-06,-0.008
-3.210E-06,-0.004
-3.200E-06,0.012
-3.190E-06,0.028
-3.180E-06,0.028
-3.170E-06,0.012
-3.160E-06,0.000
-3.150E-06,0.004
-3.140E-06,0.012
-3.130E-06,0.028
-3.120E-06,0.032
-3.110E-06,0.036
-3.100E-06,0.032
-3.090E-06,0.028
-3.080E-06,0.020
-3.070E-06,0.016
-3.060E-06,0.020
-3.050E-06,0.024
-3.040E-06,0.028
-3.030E-06,0.020
-3.020E-06,0.024
-3.010E-06,0.028
-3.000E-06,-0.008
-2.990E-06,-0.020
-2.980E-06,0.012
-2.970E-06,0.008
-2.960E-06,0.032
-2.950E-06,0.024
-2.940E-06,-0.052
-2.930E-06,-0.156
-2.920E-06,-0.108
-2.910E-06,-0.024
-2.900E-06,0.080
-2.890E-06,0.124
-2.880E-06,0.088
-2.870E-06,-0.016
-2.860E-06,-0.068
-2.850E-06,-0.052
-2.840E-06,-0.008
-2.830E-06,0.036
-2.820E-06,0.052
-2.810E-06,0.060
-2.800E-06,0.036
-2.790E-06,0.012
-2.780E-06,-0.016
-2.770E-06,-0.056
-2.760E-06,-0.036
-2.750E-06,-0.008
-2.740E-06,0.012
-2.730E-06,0.040
-2.720E-06,0.032
-2.710E-06,0.008
-2.700E-06,-0.032
-2.690E-06,-0.072
-2.680E-06,-0.052
-2.670E-06,-0.020
-2.660E-06,0.032
-2.650E-06,0.060
-2.640E-06,0.060
-2.630E-06,0.044
-2.620E-06,0.004
-2.610E-06,-0.036
-2.600E-06,-0.052
-2.590E-06,-0.028
-2.580E-06,0.008
-2.570E-06,0.040
-2.560E-06,0.048
-2.550E-06,0.036
-2.540E-06,0.012
-2.530E-06,-0.012
-2.520E-06,-0.028
-2.510E-06,-0.028
-2.500E-06,-0.004
-2.490E-06,0.016
-2.480E-06,0.012
-2.470E-06,-0.004
-2.460E-06,-0.012
-2.450E-06,-0.020
-2.440E-06,-0.012
-2.430E-06,0.004
-2.420E-06,0.040
-2.410E-06,0.040
-2.400E-06,0.024
-2.390E-06,0.020
-2.380E-06,0.012
-2.370E-06,0.008
-2.360E-06,0.012
-2.350E-06,0.008
-2.340E-06,0.000
-2.330E-06,0.000
-2.320E-06,0.016
-2.310E-06,0.044
-2.300E-06,0.060
-2.290E-06,0.064
-2.280E-06,0.032
-2.270E-06,0.000
-2.260E-06,-0.024
-2.250E-06,-0.032
-2.240E-06,0.000
-2.230E-06,0.044
-2.220E-06,0.072
-2.210E-06,0.068
-2.200E-06,0.032
-2.190E-06,-0.012
-2.180E-06,-0.056
-2.170E-06,-0.056
-2.160E-06,-0.016
-2.150E-06,0.028
-2.140E-06,0.068
-2.130E-06,0.076
-2.120E-06,0.040
-2.110E-06,0.000
-2.100E-06,-0.036
-2.090E-06,-0.036
-2.080E-06,-0.024
-2.070E-06,0.008
-2.060E-06,0.028
-2.050E-06,0.036
-2.040E-06,0.020
-2.030E-06,0.000
-2.020E-06,-0.004
-2.010E-06,0.020
-2.000E-06,0.060
-1.990E-06,0.120
-1.980E-06,0.160
-1.970E-06,0.152
-1.960E-06,0.128
-1.950E-06,0.072
-1.940E-06,-0.004
-1.930E-06,-0.080
-1.920E-06,-0.120
-1.910E-06,-0.136
-1.900E-06,-0.104
-1.890E-06,-0.024
-1.880E-06,0.036
-1.870E-06,0.076
-1.860E-06,0.064
-1.850E-06,0.008
-1.840E-06,-0.040
-1.830E-06,-0.040
-1.820E-06,0.012
-1.810E-06,0.108
-1.800E-06,0.196
-1.790E-06,0.248
-1.780E-06,0.252
-1.770E-06,0.172
-1.760E-06,0.060
-1.750E-06,0.000
-1.740E-06,0.028
-1.730E-06,0.116
-1.720E-06,0.204
-1.710E-06,0.232
-1.700E-06,0.176
-1.690E-06,0.076
-1.680E-06,-0.016
-1.670E-06,-0.068
-1.660E-06,-0.064
-1.650E-06,-0.020
-1.640E-06,0.004
-1.630E-06,-0.020
-1.620E-06,-0.084
-1.610E-06,-0.168
-1.600E-06,-0.192
-1.590E-06,-0.160
-1.580E-06,-0.072
-1.570E-06,0.004
-1.560E-06,0.056
-1.550E-06,0.120
-1.540E-06,0.108
-1.530E-06,0.096
-1.520E-06,0.092
-1.510E-06,0.072
-1.500E-06,-0.008
-1.490E-06,-0.044
-1.480E-06,-0.056
-1.470E-06,-0.008
-1.460E-06,0.052
-1.450E-06,0.088
-1.440E-06,0.076
-1.430E-06,0.012
-1.420E-06,-0.024
-1.410E-06,-0.036
-1.400E-06,0.012
-1.390E-06,0.088
-1.380E-06,0.188
-1.370E-06,0.244
-1.360E-06,0.240
-1.350E-06,0.176
-1.340E-06,0.108
-1.330E-06,0.088
-1.320E-06,0.068
-1.310E-06,0.104
-1.300E-06,0.128
-1.290E-06,0.160
-1.280E-06,0.152
-1.270E-06,0.136
-1.260E-06,0.116
-1.250E-06,0.096
-1.240E-06,0.092
-1.230E-06,0.096
-1.220E-06,0.088
-1.210E-06,0.072
-1.200E-06,0.040
-1.190E-06,0.052
-1.180E-06,0.088
-1.170E-06,0.108
-1.160E-06,0.128
-1.150E-06,0.032
-1.140E-06,-0.128
-1.130E-06,-0.296
-1.120E-06,-0.368
-1.110E-06,-0.352
-1.100E-06,-0.228
-1.090E-06,-0.004
-1.080E-06,0.140
-1.070E-06,0.156
-1.060E-06,0.048
-1.050E-06,-0.072
-1.040E-06,-0.184
-1.030E-06,-0.236
-1.020E-06,-0.136
-1.010E-06,-0.024
-1.000E-06,0.104
-9.900E-07,0.188
-9.800E-07,0.212
-9.700E-07,0.168
-9.600E-07,0.152
-9.500E-07,0.112
-9.400E-07,0.092
-9.300E-07,0.144
-9.200E-07,0.184
-9.100E-07,0.220
-9.000E-07,0.188
-8.900E-07,0.148
-8.800E-07,0.072
-8.700E-07,0.036
-8.600E-07,0.036
-8.500E-07,0.088
-8.400E-07,0.172
-8.300E-07,0.224
-8.200E-07,0.188
-8.100E-07,0.096
-8.000E-07,-0.008
-7.900E-07,-0.128
-7.800E-07,-0.200
-7.700E-07,-0.248
-7.600E-07,-0.372
-7.500E-07,-0.488
-7.400E-07,-0.452
-7.300E-07,-0.400
-7.200E-07,-0.300
-7.100E-07,-0.136
-7.000E-07,0.068
-6.900E-07,0.068
-6.800E-07,-0.108
-6.700E-07,-0.176
-6.600E-07,-0.248
-6.500E-07,-0.152
-6.400E-07,-0.020
-6.300E-07,0.204
-6.200E-07,0.348
-6.100E-07,0.348
-6.000E-07,0.220
-5.900E-07,0.064
-5.800E-07,0.004
-5.700E-07,0.028
-5.600E-07,0.152
-5.500E-07,0.272
-5.400E-07,0.360
-5.300E-07,0.320
-5.200E-07,0.220
-5.100E-07,0.060
-5.000E-07,-0.040
-4.900E-07,-0.068
-4.800E-07,-0.004
-4.700E-07,0.120
-4.600E-07,0.224
-4.500E-07,0.260
-4.400E-07,0.192
-4.300E-07,0.064
-4.200E-07,-0.120
-4.100E-07,-0.284
-4.000E-07,-0.404
-3.900E-07,-0.380
-3.800E-07,-0.228
-3.700E-07,-0.136
-3.600E-07,-0.004
-3.500E-07,0.056
-3.400E-07,0.132
-3.300E-07,0.100
-3.200E-07,0.088
-3.100E-07,0.052
-3.000E-07,0.084
-2.900E-07,0.216
-2.800E-07,0.292
-2.700E-07,0.404
-2.600E-07,0.368
-2.500E-07,0.280
-2.400E-07,0.136
-2.300E-07,0.040
-2.200E-07,0.024
-2.100E-07,0.132
-2.000E-07,0.268
-1.900E-07,0.340
-1.800E-07,0.348
-1.700E-07,0.256
-1.600E-07,0.160
-1.500E-07,0.060
-1.400E-07,0.036
-1.300E-07,0.012
-1.200E-07,0.028
-1.100E-07,0.016
-1.000E-07,0.024
-9.000E-08,0.044
-8.000E-08,0.056
-7.000E-08,0.036
-6.000E-08,-0.024
-5.000E-08,-0.032
-4.000E-08,-0.016
-3.000E-08,0.100
-2.000E-08,0.280
-1.000E-08,0.432
0.000E+00,0.440
1.000E-08,0.328
2.000E-08,0.132
3.000E-08,-0.008
4.000E-08,-0.032
5.000E-08,0.060
6.000E-08,0.240
7.000E-08,0.368
8.000E-08,0.384
9.000E-08,0.252
1.000E-07,0.040
1.100E-07,-0.144
1.200E-07,-0.220
1.300E-07,-0.204
1.400E-07,-0.148
1.500E-07,-0.028
1.600E-07,0.032
1.700E-07,0.048
1.800E-07,-0.020
1.900E-07,0.020
2.000E-07,0.196
2.100E-07,0.288
2.200E-07,0.324
2.300E-07,0.284
2.400E-07,0.196
2.500E-07,0.132
2.600E-07,0.136
2.700E-07,0.212
2.800E-07,0.288
2.900E-07,0.312
3.000E-07,0.260
3.100E-07,0.208
3.200E-07,0.132
3.300E-07,0.120
3.400E-07,0.128
3.500E-07,0.184
3.600E-07,0.236
3.700E-07,0.272
3.800E-07,0.252
3.900E-07,0.188
4.000E-07,0.124
4.100E-07,0.052
4.200E-07,0.060
4.300E-07,0.092
4.400E-07,0.160
4.500E-07,0.196
4.600E-07,0.196
4.700E-07,0.128
4.800E-07,0.044
4.900E-07,0.012
5.000E-07,0.060
5.100E-07,0.128
5.200E-07,0.176
5.300E-07,0.160
5.400E-07,0.096
5.500E-07,0.028
5.600E-07,0.028
5.700E-07,0.144
5.800E-07,0.304
5.900E-07,0.428
6.000E-07,0.432
6.100E-07,0.332
6.200E-07,0.176
6.300E-07,0.056
6.400E-07,0.024
6.500E-07,0.124
6.600E-07,0.248
6.700E-07,0.348
6.800E-07,0.356
6.900E-07,0.260
7.000E-07,0.132
7.100E-07,0.032
7.200E-07,0.020
7.300E-07,0.092
7.400E-07,0.216
7.500E-07,0.308
7.600E-07,0.336
7.700E-07,0.280
7.800E-07,0.192
7.900E-07,0.112
8.000E-07,0.092
8.100E-07,0.152
8.200E-07,0.244
8.300E-07,0.320
8.400E-07,0.336
8.500E-07,0.304
8.600E-07,0.220
8.700E-07,0.156
8.800E-07,0.124
8.900E-07,0.144
9.000E-07,0.204
9.100E-07,0.256
9.200E-07,0.288
9.300E-07,0.272
9.400E-07,0.220
9.500E-07,0.176
9.600E-07,0.140
9.700E-07,0.152
9.800E-07,0.192
9.900E-07,0.236
1.000E-06,0.260
1.010E-06,0.260
1.020E-06,0.232
1.030E-06,0.204
1.040E-06,0.176
1.050E-06,0.172
1.060E-06,0.192
1.070E-06,0.220
1.080E-06,0.244
1.090E-06,0.256
1.100E-06,0.244
1.110E-06,0.224
1.120E-06,0.204
1.130E-06,0.188
1.140E-06,0.200
1.150E-06,0.208
1.160E-06,0.232
1.170E-06,0.244
1.180E-06,0.240
1.190E-06,0.220
1.200E-06,0.196
1.210E-06,0.184
1.220E-06,0.176
1.230E-06,0.188
1.240E-06,0.204
1.250E-06,0.224
1.260E-06,0.220
1.270E-06,0.208
1.280E-06,0.192
1.290E-06,0.172
1.300E-06,0.176
1.310E-06,0.188
1.320E-06,0.200
1.330E-06,0.220
1.340E-06,0.216
1.350E-06,0.196
1.360E-06,0.180
1.370E-06,0.160
1.380E-06,0.160
1.390E-06,0.180
1.400E-06,0.208
1.410E-06,0.224
1.420E-06,0.240
1.430E-06,0.224
1.440E-06,0.212
1.450E-06,0.192
1.460E-06,0.184
1.470E-06,0.192
1.480E-06,0.208
1.490E-06,0.228
1.500E-06,0.232
1.510E-06,0.232
1.520E-06,0.216
1.530E-06,0.200
1.540E-06,0.188
1.550E-06,0.184
1.560E-06,0.192
1.570E-06,0.212
1.580E-06,0.224
1.590E-06,0.228
1.600E-06,0.220
1.610E-06,0.204
1.620E-06,0.188
1.630E-06,0.184
1.640E-06,0.188
1.650E-06,0.196
1.660E-06,0.208
1.670E-06,0.216
1.680E-06,0.212
1.690E-06,0.196
1.700E-06,0.188
1.710E-06,0.180
1.720E-06,0.184
1.730E-06,0.192
1.740E-06,0.200
1.750E-06,0.200
1.760E-06,0.196
1.770E-06,0.192
1.780E-06,0.188
1.790E-06,0.188
1.800E-06,0.184
1.810E-06,0.188
1.820E-06,0.192
1.830E-06,0.200
1.840E-06,0.200
1.850E-06,0.192
1.860E-06,0.192
1.870E-06,0.188
1.880E-06,0.192
1.890E-06,0.188
1.900E-06,0.196
1.910E-06,0.192
1.920E-06,0.192
1.930E-06,0.192
1.940E-06,0.188
1.950E-06,0.188
1.960E-06,0.188
1.970E-06,0.188
1.980E-06,0.184
1.990E-06,0.192
2.000E-06,0.188
2.010E-06,0.192
2.020E-06,0.188
2.030E-06,0.184
2.040E-06,0.184
2.050E-06,0.188
2.060E-06,0.188
2.070E-06,0.180
2.080E-06,0.188
2.090E-06,0.188
2.100E-06,0.184
2.110E-06,0.188
2.120E-06,0.184
2.130E-06,0.180
2.140E-06,0.176
2.150E-06,0.176
2.160E-06,0.172
2.170E-06,0.176
2.180E-06,0.176
2.190E-06,0.172
2.200E-06,0.176
2.210E-06,0.180
2.220E-06,0.176
2.230E-06,0.172
2.240E-06,0.172
2.250E-06,0.176
2.260E-06,0.172
2.270E-06,0.176
2.280E-06,0.176
2.290E-06,0.176
2.300E-06,0.176
2.310E-06,0.172
2.320E-06,0.176
2.330E-06,0.172
2.340E-06,0.168
2.350E-06,0.172
2.360E-06,0.168
2.370E-06,0.160
2.380E-06,0.168
2.390E-06,0.168
2.400E-06,0.168
2.410E-06,0.164
2.420E-06,0.164
2.430E-06,0.168
2.440E-06,0.164
2.450E-06,0.160
2.460E-06,0.164
2.470E-06,0.168
2.480E-06,0.160
2.490E-06,0.164
2.500E-06,0.156
2.510E-06,0.160
2.520E-06,0.164
2.530E-06,0.160
2.540E-06,0.160
2.550E-06,0.164
2.560E-06,0.164
2.570E-06,0.164
2.580E-06,0.164
2.590E-06,0.164
2.600E-06,0.156
2.610E-06,0.160
2.620E-06,0.164
2.630E-06,0.160
2.640E-06,0.156
2.650E-06,0.160
2.660E-06,0.164
2.670E-06,0.160
2.680E-06,0.152
2.690E-06,0.152
2.700E-06,0.156
2.710E-06,0.152
2.720E-06,0.156
2.730E-06,0.156
2.740E-06,0.156
2.750E-06,0.156
2.760E-06,0.148
2.770E-06,0.152
2.780E-06,0.152
2.790E-06,0.148
2.800E-06,0.152
2.810E-06,0.152
2.820E-06,0.152
2.830E-06,0.148
2.840E-06,0.144
2.850E-06,0.148
2.860E-06,0.144
2.870E-06,0.148
2.880E-06,0.152
2.890E-06,0.148
2.900E-06,0.144
2.910E-06,0.144
2.920E-06,0.140
2.930E-06,0.144
2.940E-06,0.144
2.950E-06,0.148
2.960E-06,0.140
2.970E-06,0.144
2.980E-06,0.144
2.990E-06,0.144
3.000E-06,0.144
3.010E-06,0.136
3.020E-06,0.140
3.030E-06,0.140
3.040E-06,0.144
3.050E-06,0.140
3.060E-06,0.144
3.070E-06,0.140
3.080E-06,0.136
3.090E-06,0.136
3.100E-06,0.140
3.110E-06,0.132
3.120E-06,0.136
3.130E-06,0.136
3.140E-06,0.140
3.150E-06,0.136
3.160E-06,0.140
3.170E-06,0.136
3.180E-06,0.132
3.190E-06,0.132
3.200E-06,0.132
3.210E-06,0.132
3.220E-06,0.136
3.230E-06,0.136
3.240E-06,0.132
3.250E-06,0.132
3.260E-06,0.128
3.270E-06,0.128
3.280E-06,0.128
3.290E-06,0.128
3.300E-06,0.132
3.310E-06,0.128
3.320E-06,0.132
3.330E-06,0.132
3.340E-06,0.128
3.350E-06,0.128
3.360E-06,0.124
3.370E-06,0.128
3.380E-06,0.128
3.390E-06,0.124
3.400E-06,0.124
