mediciones/Mediciones filtradas (saque las feas)/5-22/-10/WaveData4967.csv

#timebase=2000000(ps)
,#voltbase=1000000(mv/100)
#size=4000
-8.400E-06,-0.120
-8.390E-06,0.080
-8.380E-06,0.280
-8.370E-06,0.360
-8.360E-06,0.360
-8.350E-06,0.240
-8.340E-06,0.000
-8.330E-06,-0.080
-8.320E-06,-0.200
-8.310E-06,-0.280
-8.300E-06,-0.040
-8.290E-06,0.120
-8.280E-06,0.160
-8.270E-06,0.160
-8.260E-06,0.160
-8.250E-06,-0.040
-8.240E-06,-0.040
-8.230E-06,0.040
-8.220E-06,0.120
-8.210E-06,0.240
-8.200E-06,0.440
-8.190E-06,0.440
-8.180E-06,0.520
-8.170E-06,0.520
-8.160E-06,0.560
-8.150E-06,0.520
-8.140E-06,0.520
-8.130E-06,0.600
-8.120E-06,0.680
-8.110E-06,0.760
-8.100E-06,0.800
-8.090E-06,0.840
-8.080E-06,0.840
-8.070E-06,0.800
-8.060E-06,0.840
-8.050E-06,0.880
-8.040E-06,0.880
-8.030E-06,0.960
-8.020E-06,1.000
-8.010E-06,1.080
-8.000E-06,1.080
-7.990E-06,1.000
-7.980E-06,0.960
-7.970E-06,0.800
-7.960E-06,0.760
-7.950E-06,0.760
-7.940E-06,0.800
-7.930E-06,0.960
-7.920E-06,0.960
-7.910E-06,0.960
-7.900E-06,0.920
-7.890E-06,0.880
-7.880E-06,0.800
-7.870E-06,0.840
-7.860E-06,0.840
-7.850E-06,0.880
-7.840E-06,0.880
-7.830E-06,0.880
-7.820E-06,0.840
-7.810E-06,0.840
-7.800E-06,0.840
-7.790E-06,0.840
-7.780E-06,0.920
-7.770E-06,0.880
-7.760E-06,0.880
-7.750E-06,0.880
-7.740E-06,0.840
-7.730E-06,0.880
-7.720E-06,0.960
-7.710E-06,1.000
-7.700E-06,1.000
-7.690E-06,1.000
-7.680E-06,1.160
-7.670E-06,1.080
-7.660E-06,1.040
-7.650E-06,1.080
-7.640E-06,1.120
-7.630E-06,1.040
-7.620E-06,1.120
-7.610E-06,1.160
-7.600E-06,1.160
-7.590E-06,1.120
-7.580E-06,1.040
-7.570E-06,1.040
-7.560E-06,1.080
-7.550E-06,1.040
-7.540E-06,0.880
-7.530E-06,0.880
-7.520E-06,0.840
-7.510E-06,0.800
-7.500E-06,0.760
-7.490E-06,0.680
-7.480E-06,0.640
-7.470E-06,0.760
-7.460E-06,0.800
-7.450E-06,0.840
-7.440E-06,0.840
-7.430E-06,0.720
-7.420E-06,0.840
-7.410E-06,0.720
-7.400E-06,0.680
-7.390E-06,0.840
-7.380E-06,0.800
-7.370E-06,0.760
-7.360E-06,0.880
-7.350E-06,0.760
-7.340E-06,0.640
-7.330E-06,0.720
-7.320E-06,0.720
-7.310E-06,0.800
-7.300E-06,1.080
-7.290E-06,1.200
-7.280E-06,1.160
-7.270E-06,1.320
-7.260E-06,1.320
-7.250E-06,1.240
-7.240E-06,1.280
-7.230E-06,1.360
-7.220E-06,1.200
-7.210E-06,1.120
-7.200E-06,1.040
-7.190E-06,0.800
-7.180E-06,0.720
-7.170E-06,0.600
-7.160E-06,0.440
-7.150E-06,0.240
-7.140E-06,0.080
-7.130E-06,-0.080
-7.120E-06,-0.240
-7.110E-06,-0.360
-7.100E-06,-0.440
-7.090E-06,-0.600
-7.080E-06,-0.760
-7.070E-06,-0.760
-7.060E-06,-0.800
-7.050E-06,-0.760
-7.040E-06,-0.440
-7.030E-06,-0.240
-7.020E-06,-0.120
-7.010E-06,-0.040
-7.000E-06,0.000
-6.990E-06,0.040
-6.980E-06,0.320
-6.970E-06,0.520
-6.960E-06,0.520
-6.950E-06,0.520
-6.940E-06,0.480
-6.930E-06,0.400
-6.920E-06,0.440
-6.910E-06,0.440
-6.900E-06,0.400
-6.890E-06,0.440
-6.880E-06,0.440
-6.870E-06,0.360
-6.860E-06,0.400
-6.850E-06,0.520
-6.840E-06,0.600
-6.830E-06,0.640
-6.820E-06,0.680
-6.810E-06,0.520
-6.800E-06,0.520
-6.790E-06,0.520
-6.780E-06,0.480
-6.770E-06,0.520
-6.760E-06,0.680
-6.750E-06,0.680
-6.740E-06,0.800
-6.730E-06,0.840
-6.720E-06,0.680
-6.710E-06,0.640
-6.700E-06,0.520
-6.690E-06,0.360
-6.680E-06,0.240
-6.670E-06,0.240
-6.660E-06,0.200
-6.650E-06,0.160
-6.640E-06,0.000
-6.630E-06,-0.040
-6.620E-06,-0.200
-6.610E-06,-0.280
-6.600E-06,-0.360
-6.590E-06,-0.480
-6.580E-06,-0.480
-6.570E-06,-0.440
-6.560E-06,-0.440
-6.550E-06,-0.440
-6.540E-06,-0.440
-6.530E-06,-0.520
-6.520E-06,-0.480
-6.510E-06,-0.400
-6.500E-06,-0.320
-6.490E-06,-0.200
-6.480E-06,-0.280
-6.470E-06,-0.280
-6.460E-06,-0.320
-6.450E-06,-0.320
-6.440E-06,-0.040
-6.430E-06,0.480
-6.420E-06,0.840
-6.410E-06,1.120
-6.400E-06,1.200
-6.390E-06,0.880
-6.380E-06,0.720
-6.370E-06,0.800
-6.360E-06,0.760
-6.350E-06,0.840
-6.340E-06,0.840
-6.330E-06,0.720
-6.320E-06,0.480
-6.310E-06,0.360
-6.300E-06,0.200
-6.290E-06,0.120
-6.280E-06,0.040
-6.270E-06,0.040
-6.260E-06,-0.080
-6.250E-06,-0.120
-6.240E-06,-0.040
-6.230E-06,0.120
-6.220E-06,0.400
-6.210E-06,0.880
-6.200E-06,1.000
-6.190E-06,0.960
-6.180E-06,1.000
-6.170E-06,0.840
-6.160E-06,0.760
-6.150E-06,0.800
-6.140E-06,0.720
-6.130E-06,0.720
-6.120E-06,0.720
-6.110E-06,0.640
-6.100E-06,0.560
-6.090E-06,0.520
-6.080E-06,0.400
-6.070E-06,0.240
-6.060E-06,0.120
-6.050E-06,0.040
-6.040E-06,-0.040
-6.030E-06,-0.040
-6.020E-06,-0.080
-6.010E-06,-0.080
-6.000E-06,-0.160
-5.990E-06,-0.240
-5.980E-06,-0.320
-5.970E-06,-0.240
-5.960E-06,-0.120
-5.950E-06,-0.080
-5.940E-06,-0.080
-5.930E-06,-0.080
-5.920E-06,0.000
-5.910E-06,-0.120
-5.900E-06,-0.160
-5.890E-06,-0.080
-5.880E-06,-0.040
-5.870E-06,-0.080
-5.860E-06,-0.080
-5.850E-06,0.000
-5.840E-06,-0.040
-5.830E-06,-0.080
-5.820E-06,-0.080
-5.810E-06,-0.120
-5.800E-06,-0.080
-5.790E-06,-0.080
-5.780E-06,-0.120
-5.770E-06,-0.160
-5.760E-06,-0.080
-5.750E-06,-0.120
-5.740E-06,-0.160
-5.730E-06,-0.120
-5.720E-06,-0.040
-5.710E-06,-0.040
-5.700E-06,0.080
-5.690E-06,0.240
-5.680E-06,0.360
-5.670E-06,0.520
-5.660E-06,0.720
-5.650E-06,0.840
-5.640E-06,0.800
-5.630E-06,0.760
-5.620E-06,0.760
-5.610E-06,0.720
-5.600E-06,0.680
-5.590E-06,0.800
-5.580E-06,0.760
-5.570E-06,0.680
-5.560E-06,0.560
-5.550E-06,0.480
-5.540E-06,0.360
-5.530E-06,0.320
-5.520E-06,0.360
-5.510E-06,0.360
-5.500E-06,0.320
-5.490E-06,0.320
-5.480E-06,0.320
-5.470E-06,0.160
-5.460E-06,0.280
-5.450E-06,0.160
-5.440E-06,0.280
-5.430E-06,0.320
-5.420E-06,0.320
-5.410E-06,0.240
-5.400E-06,0.200
-5.390E-06,0.160
-5.380E-06,0.080
-5.370E-06,0.200
-5.360E-06,0.240
-5.350E-06,0.160
-5.340E-06,0.320
-5.330E-06,0.320
-5.320E-06,0.320
-5.310E-06,0.200
-5.300E-06,0.200
-5.290E-06,0.080
-5.280E-06,0.160
-5.270E-06,0.400
-5.260E-06,0.320
-5.250E-06,0.360
-5.240E-06,0.960
-5.230E-06,1.080
-5.220E-06,1.760
-5.210E-06,2.320
-5.200E-06,2.040
-5.190E-06,1.600
-5.180E-06,1.480
-5.170E-06,1.080
-5.160E-06,0.960
-5.150E-06,1.120
-5.140E-06,1.240
-5.130E-06,1.080
-5.120E-06,0.960
-5.110E-06,0.560
-5.100E-06,0.120
-5.090E-06,-0.040
-5.080E-06,-0.240
-5.070E-06,-0.480
-5.060E-06,-0.520
-5.050E-06,-0.520
-5.040E-06,-0.640
-5.030E-06,-0.600
-5.020E-06,-0.680
-5.010E-06,-0.840
-5.000E-06,-0.880
-4.990E-06,-0.920
-4.980E-06,-1.000
-4.970E-06,-1.120
-4.960E-06,-1.120
-4.950E-06,-1.000
-4.940E-06,-0.800
-4.930E-06,-0.520
-4.920E-06,-0.280
-4.910E-06,-0.080
-4.900E-06,-0.040
-4.890E-06,0.120
-4.880E-06,0.160
-4.870E-06,0.320
-4.860E-06,0.560
-4.850E-06,0.760
-4.840E-06,0.960
-4.830E-06,1.200
-4.820E-06,1.200
-4.810E-06,1.280
-4.800E-06,1.480
-4.790E-06,1.480
-4.780E-06,1.600
-4.770E-06,1.720
-4.760E-06,1.520
-4.750E-06,1.360
-4.740E-06,1.400
-4.730E-06,1.160
-4.720E-06,1.200
-4.710E-06,1.520
-4.700E-06,1.120
-4.690E-06,1.280
-4.680E-06,1.440
-4.670E-06,1.200
-4.660E-06,1.480
-4.650E-06,1.800
-4.640E-06,1.360
-4.630E-06,1.160
-4.620E-06,1.120
-4.610E-06,0.560
-4.600E-06,0.240
-4.590E-06,0.240
-4.580E-06,0.040
-4.570E-06,-0.160
-4.560E-06,-0.160
-4.550E-06,-0.440
-4.540E-06,-0.680
-4.530E-06,-0.720
-4.520E-06,-0.960
-4.510E-06,-1.160
-4.500E-06,-1.160
-4.490E-06,-1.280
-4.480E-06,-1.360
-4.470E-06,-1.280
-4.460E-06,-1.280
-4.450E-06,-1.240
-4.440E-06,-1.280
-4.430E-06,-1.160
-4.420E-06,-1.160
-4.410E-06,-1.080
-4.400E-06,-0.960
-4.390E-06,-0.880
-4.380E-06,-0.760
-4.370E-06,-0.560
-4.360E-06,-0.400
-4.350E-06,-0.200
-4.340E-06,-0.080
-4.330E-06,0.000
-4.320E-06,0.160
-4.310E-06,0.280
-4.300E-06,0.240
-4.290E-06,0.440
-4.280E-06,0.600
-4.270E-06,0.800
-4.260E-06,1.160
-4.250E-06,1.520
-4.240E-06,1.680
-4.230E-06,1.760
-4.220E-06,1.760
-4.210E-06,1.680
-4.200E-06,1.640
-4.190E-06,1.600
-4.180E-06,1.480
-4.170E-06,1.280
-4.160E-06,1.200
-4.150E-06,1.040
-4.140E-06,0.920
-4.130E-06,0.840
-4.120E-06,0.840
-4.110E-06,0.400
-4.100E-06,0.640
-4.090E-06,0.920
-4.080E-06,1.200
-4.070E-06,1.720
-4.060E-06,1.920
-4.050E-06,1.520
-4.040E-06,1.040
-4.030E-06,0.960
-4.020E-06,0.600
-4.010E-06,0.520
-4.000E-06,0.720
-3.990E-06,0.640
-3.980E-06,0.440
-3.970E-06,0.200
-3.960E-06,-0.160
-3.950E-06,-0.560
-3.940E-06,-0.680
-3.930E-06,-0.840
-3.920E-06,-1.040
-3.910E-06,-1.120
-3.900E-06,-1.160
-3.890E-06,-1.320
-3.880E-06,-1.320
-3.870E-06,-1.400
-3.860E-06,-1.400
-3.850E-06,-1.240
-3.840E-06,-1.080
-3.830E-06,-0.840
-3.820E-06,-0.680
-3.810E-06,-0.600
-3.800E-06,-0.600
-3.790E-06,-0.560
-3.780E-06,-0.520
-3.770E-06,-0.440
-3.760E-06,-0.440
-3.750E-06,-0.360
-3.740E-06,-0.400
-3.730E-06,-0.520
-3.720E-06,-0.520
-3.710E-06,-0.440
-3.700E-06,-0.480
-3.690E-06,-0.360
-3.680E-06,-0.240
-3.670E-06,-0.240
-3.660E-06,0.040
-3.650E-06,0.560
-3.640E-06,1.120
-3.630E-06,1.600
-3.620E-06,1.880
-3.610E-06,1.800
-3.600E-06,1.600
-3.590E-06,1.560
-3.580E-06,1.360
-3.570E-06,1.400
-3.560E-06,1.520
-3.550E-06,1.480
-3.540E-06,1.360
-3.530E-06,1.120
-3.520E-06,0.960
-3.510E-06,0.640
-3.500E-06,0.520
-3.490E-06,0.240
-3.480E-06,-0.040
-3.470E-06,-0.240
-3.460E-06,-0.560
-3.450E-06,-0.920
-3.440E-06,-1.120
-3.430E-06,-1.320
-3.420E-06,-1.440
-3.410E-06,-1.400
-3.400E-06,-1.600
-3.390E-06,-1.600
-3.380E-06,-1.600
-3.370E-06,-1.520
-3.360E-06,-1.400
-3.350E-06,-1.160
-3.340E-06,-1.000
-3.330E-06,-0.960
-3.320E-06,-0.720
-3.310E-06,-0.640
-3.300E-06,-0.360
-3.290E-06,0.040
-3.280E-06,0.320
-3.270E-06,0.400
-3.260E-06,0.480
-3.250E-06,0.480
-3.240E-06,0.480
-3.230E-06,0.600
-3.220E-06,0.760
-3.210E-06,0.840
-3.200E-06,0.960
-3.190E-06,1.000
-3.180E-06,1.040
-3.170E-06,1.120
-3.160E-06,1.160
-3.150E-06,1.120
-3.140E-06,1.120
-3.130E-06,1.120
-3.120E-06,1.040
-3.110E-06,1.000
-3.100E-06,1.040
-3.090E-06,1.000
-3.080E-06,0.920
-3.070E-06,0.720
-3.060E-06,0.680
-3.050E-06,0.560
-3.040E-06,0.440
-3.030E-06,0.480
-3.020E-06,0.440
-3.010E-06,0.320
-3.000E-06,0.200
-2.990E-06,0.160
-2.980E-06,0.080
-2.970E-06,0.000
-2.960E-06,0.000
-2.950E-06,-0.040
-2.940E-06,-0.080
-2.930E-06,-0.080
-2.920E-06,0.000
-2.910E-06,-0.040
-2.900E-06,-0.040
-2.890E-06,-0.040
-2.880E-06,0.000
-2.870E-06,0.120
-2.860E-06,0.280
-2.850E-06,0.320
-2.840E-06,0.360
-2.830E-06,0.480
-2.820E-06,0.480
-2.810E-06,0.600
-2.800E-06,0.640
-2.790E-06,0.640
-2.780E-06,0.680
-2.770E-06,0.760
-2.760E-06,0.800
-2.750E-06,0.880
-2.740E-06,0.960
-2.730E-06,1.000
-2.720E-06,1.000
-2.710E-06,1.080
-2.700E-06,1.080
-2.690E-06,1.160
-2.680E-06,1.120
-2.670E-06,1.080
-2.660E-06,1.120
-2.650E-06,1.080
-2.640E-06,1.040
-2.630E-06,1.080
-2.620E-06,1.040
-2.610E-06,1.080
-2.600E-06,1.040
-2.590E-06,0.960
-2.580E-06,0.920
-2.570E-06,0.920
-2.560E-06,0.480
-2.550E-06,0.440
-2.540E-06,-0.080
-2.530E-06,-0.440
-2.520E-06,-0.600
-2.510E-06,-0.640
-2.500E-06,-0.080
-2.490E-06,0.520
-2.480E-06,0.800
-2.470E-06,1.240
-2.460E-06,0.960
-2.450E-06,0.640
-2.440E-06,0.480
-2.430E-06,0.320
-2.420E-06,0.360
-2.410E-06,0.960
-2.400E-06,1.280
-2.390E-06,1.280
-2.380E-06,1.520
-2.370E-06,1.480
-2.360E-06,1.320
-2.350E-06,1.480
-2.340E-06,1.440
-2.330E-06,1.680
-2.320E-06,1.480
-2.310E-06,1.040
-2.300E-06,0.240
-2.290E-06,0.080
-2.280E-06,-0.160
-2.270E-06,0.200
-2.260E-06,0.360
-2.250E-06,0.400
-2.240E-06,0.640
-2.230E-06,0.800
-2.220E-06,0.880
-2.210E-06,1.320
-2.200E-06,1.520
-2.190E-06,1.480
-2.180E-06,1.680
-2.170E-06,1.600
-2.160E-06,1.360
-2.150E-06,1.520
-2.140E-06,1.640
-2.130E-06,1.760
-2.120E-06,2.000
-2.110E-06,2.120
-2.100E-06,1.960
-2.090E-06,2.000
-2.080E-06,1.880
-2.070E-06,1.640
-2.060E-06,1.480
-2.050E-06,1.320
-2.040E-06,1.040
-2.030E-06,0.920
-2.020E-06,0.760
-2.010E-06,0.520
-2.000E-06,0.320
-1.990E-06,0.040
-1.980E-06,-0.240
-1.970E-06,-0.440
-1.960E-06,-0.640
-1.950E-06,-0.800
-1.940E-06,-1.040
-1.930E-06,-1.120
-1.920E-06,-1.240
-1.910E-06,-1.400
-1.900E-06,-1.600
-1.890E-06,-1.680
-1.880E-06,-1.800
-1.870E-06,-1.840
-1.860E-06,-1.840
-1.850E-06,-1.840
-1.840E-06,-1.920
-1.830E-06,-1.920
-1.820E-06,-2.000
-1.810E-06,-1.960
-1.800E-06,-2.000
-1.790E-06,-2.040
-1.780E-06,-1.920
-1.770E-06,-1.800
-1.760E-06,-1.680
-1.750E-06,-1.560
-1.740E-06,-1.400
-1.730E-06,-1.200
-1.720E-06,-1.000
-1.710E-06,-0.880
-1.700E-06,-0.760
-1.690E-06,-0.600
-1.680E-06,-0.520
-1.670E-06,-0.440
-1.660E-06,-0.400
-1.650E-06,-0.320
-1.640E-06,-0.160
-1.630E-06,0.040
-1.620E-06,0.200
-1.610E-06,0.360
-1.600E-06,0.600
-1.590E-06,0.600
-1.580E-06,0.680
-1.570E-06,0.760
-1.560E-06,0.720
-1.550E-06,0.800
-1.540E-06,0.920
-1.530E-06,1.000
-1.520E-06,1.040
-1.510E-06,1.000
-1.500E-06,0.920
-1.490E-06,0.800
-1.480E-06,0.600
-1.470E-06,0.280
-1.460E-06,-0.160
-1.450E-06,-0.320
-1.440E-06,-0.800
-1.430E-06,-1.240
-1.420E-06,-1.640
-1.410E-06,-2.000
-1.400E-06,-2.080
-1.390E-06,-1.840
-1.380E-06,-1.520
-1.370E-06,-1.120
-1.360E-06,-0.880
-1.350E-06,-0.800
-1.340E-06,-0.600
-1.330E-06,-0.600
-1.320E-06,-0.480
-1.310E-06,-0.320
-1.300E-06,-0.040
-1.290E-06,0.160
-1.280E-06,0.360
-1.270E-06,0.640
-1.260E-06,0.920
-1.250E-06,1.040
-1.240E-06,1.200
-1.230E-06,1.360
-1.220E-06,1.320
-1.210E-06,1.120
-1.200E-06,0.960
-1.190E-06,0.800
-1.180E-06,0.440
-1.170E-06,0.240
-1.160E-06,-0.240
-1.150E-06,-0.520
-1.140E-06,-0.480
-1.130E-06,-0.480
-1.120E-06,-0.360
-1.110E-06,-0.400
-1.100E-06,-0.600
-1.090E-06,-0.440
-1.080E-06,-0.040
-1.070E-06,0.280
-1.060E-06,0.680
-1.050E-06,1.160
-1.040E-06,1.440
-1.030E-06,1.880
-1.020E-06,2.120
-1.010E-06,2.280
-1.000E-06,2.400
-9.900E-07,2.520
-9.800E-07,2.440
-9.700E-07,2.360
-9.600E-07,2.320
-9.500E-07,1.800
-9.400E-07,1.120
-9.300E-07,0.360
-9.200E-07,-0.320
-9.100E-07,-0.960
-9.000E-07,-1.080
-8.900E-07,-0.960
-8.800E-07,-0.440
-8.700E-07,0.160
-8.600E-07,0.760
-8.500E-07,1.480
-8.400E-07,1.400
-8.300E-07,1.360
-8.200E-07,1.280
-8.100E-07,0.960
-8.000E-07,1.160
-7.900E-07,1.720
-7.800E-07,2.000
-7.700E-07,2.160
-7.600E-07,2.640
-7.500E-07,2.520
-7.400E-07,2.200
-7.300E-07,2.080
-7.200E-07,1.720
-7.100E-07,1.200
-7.000E-07,1.040
-6.900E-07,0.840
-6.800E-07,0.480
-6.700E-07,0.360
-6.600E-07,0.080
-6.500E-07,-0.320
-6.400E-07,-0.760
-6.300E-07,-1.080
-6.200E-07,-1.400
-6.100E-07,-1.600
-6.000E-07,-1.720
-5.900E-07,-1.760
-5.800E-07,-1.920
-5.700E-07,-2.000
-5.600E-07,-2.160
-5.500E-07,-2.480
-5.400E-07,-2.680
-5.300E-07,-2.760
-5.200E-07,-2.920
-5.100E-07,-2.960
-5.000E-07,-2.960
-4.900E-07,-3.120
-4.800E-07,-3.160
-4.700E-07,-3.160
-4.600E-07,-3.200
-4.500E-07,-3.200
-4.400E-07,-3.120
-4.300E-07,-3.080
-4.200E-07,-2.920
-4.100E-07,-2.760
-4.000E-07,-2.520
-3.900E-07,-2.320
-3.800E-07,-2.080
-3.700E-07,-1.840
-3.600E-07,-1.720
-3.500E-07,-1.480
-3.400E-07,-1.360
-3.300E-07,-1.200
-3.200E-07,-1.000
-3.100E-07,-0.880
-3.000E-07,-0.800
-2.900E-07,-0.880
-2.800E-07,-0.880
-2.700E-07,-1.000
-2.600E-07,-1.120
-2.500E-07,-1.240
-2.400E-07,-1.200
-2.300E-07,-1.320
-2.200E-07,-1.520
-2.100E-07,-1.720
-2.000E-07,-1.840
-1.900E-07,-1.840
-1.800E-07,-1.800
-1.700E-07,-1.680
-1.600E-07,-1.520
-1.500E-07,-1.400
-1.400E-07,-1.480
-1.300E-07,-1.680
-1.200E-07,-1.960
-1.100E-07,-2.000
-1.000E-07,-1.960
-9.000E-08,-1.720
-8.000E-08,-1.680
-7.000E-08,-1.960
-6.000E-08,-2.320
-5.000E-08,-3.880
-4.000E-08,-4.520
-3.000E-08,-5.080
-2.000E-08,-5.200
-1.000E-08,-5.200
0.000E+00,-4.080
1.000E-08,-3.960
2.000E-08,-3.200
3.000E-08,-1.680
4.000E-08,-0.920
5.000E-08,-0.320
6.000E-08,1.160
7.000E-08,1.280
8.000E-08,0.880
9.000E-08,0.400
1.000E-07,-1.160
1.100E-07,-2.680
1.200E-07,-3.040
1.300E-07,-2.760
1.400E-07,-1.920
1.500E-07,-0.480
1.600E-07,0.360
1.700E-07,0.640
1.800E-07,0.560
1.900E-07,0.280
2.000E-07,0.040
2.100E-07,0.040
2.200E-07,0.360
2.300E-07,0.840
2.400E-07,1.240
2.500E-07,1.120
2.600E-07,0.880
2.700E-07,0.440
2.800E-07,-0.040
2.900E-07,-0.640
3.000E-07,-1.040
3.100E-07,-1.320
3.200E-07,-1.600
3.300E-07,-1.880
3.400E-07,-2.200
3.500E-07,-2.520
3.600E-07,-2.920
3.700E-07,-3.160
3.800E-07,-3.400
3.900E-07,-3.560
4.000E-07,-3.680
4.100E-07,-3.840
4.200E-07,-3.800
4.300E-07,-3.680
4.400E-07,-3.680
4.500E-07,-3.600
4.600E-07,-3.480
4.700E-07,-3.320
4.800E-07,-3.360
4.900E-07,-3.160
5.000E-07,-3.000
5.100E-07,-2.920
5.200E-07,-2.680
5.300E-07,-2.480
5.400E-07,-2.400
5.500E-07,-2.240
5.600E-07,-2.240
5.700E-07,-2.280
5.800E-07,-2.280
5.900E-07,-2.120
6.000E-07,-1.920
6.100E-07,-1.680
6.200E-07,-1.400
6.300E-07,-1.200
6.400E-07,-1.040
6.500E-07,-0.920
6.600E-07,-0.880
6.700E-07,-0.880
6.800E-07,-0.720
6.900E-07,-0.680
7.000E-07,-0.400
7.100E-07,-0.280
7.200E-07,-0.400
7.300E-07,-0.640
7.400E-07,-0.960
7.500E-07,-1.240
7.600E-07,-1.280
7.700E-07,-1.080
7.800E-07,-1.000
7.900E-07,-0.840
8.000E-07,-1.120
8.100E-07,-1.640
8.200E-07,-2.520
8.300E-07,-3.200
8.400E-07,-3.840
8.500E-07,-3.760
8.600E-07,-2.840
8.700E-07,-1.680
8.800E-07,0.000
8.900E-07,1.320
9.000E-07,1.560
9.100E-07,1.520
9.200E-07,0.560
9.300E-07,-1.480
9.400E-07,-3.160
9.500E-07,-4.640
9.600E-07,-5.200
9.700E-07,-5.240
9.800E-07,-4.520
9.900E-07,-3.400
1.000E-06,-0.920
1.010E-06,1.560
1.020E-06,3.440
1.030E-06,4.680
1.040E-06,5.480
1.050E-06,5.400
1.060E-06,5.160
1.070E-06,5.040
1.080E-06,4.560
1.090E-06,4.640
1.100E-06,4.960
1.110E-06,4.680
1.120E-06,4.160
1.130E-06,3.680
1.140E-06,2.640
1.150E-06,1.760
1.160E-06,1.080
1.170E-06,0.520
1.180E-06,0.160
1.190E-06,-0.080
1.200E-06,-0.400
1.210E-06,-0.840
1.220E-06,-1.240
1.230E-06,-1.720
1.240E-06,-2.120
1.250E-06,-2.480
1.260E-06,-2.600
1.270E-06,-2.640
1.280E-06,-2.640
1.290E-06,-2.600
1.300E-06,-2.600
1.310E-06,-2.720
1.320E-06,-2.920
1.330E-06,-3.120
1.340E-06,-3.200
1.350E-06,-3.280
1.360E-06,-3.120
1.370E-06,-3.080
1.380E-06,-2.840
1.390E-06,-2.720
1.400E-06,-2.440
1.410E-06,-2.360
1.420E-06,-2.240
1.430E-06,-2.160
1.440E-06,-1.960
1.450E-06,-1.840
1.460E-06,-1.600
1.470E-06,-1.360
1.480E-06,-1.080
1.490E-06,-0.680
1.500E-06,-0.440
1.510E-06,-0.280
1.520E-06,-0.160
1.530E-06,-0.080
1.540E-06,-0.120
1.550E-06,-0.240
1.560E-06,-0.280
1.570E-06,-0.320
1.580E-06,-0.480
1.590E-06,-0.480
1.600E-06,-0.480
1.610E-06,-0.400
1.620E-06,-0.440
1.630E-06,-0.600
1.640E-06,-0.760
1.650E-06,-0.880
1.660E-06,-1.040
1.670E-06,-1.120
1.680E-06,-1.120
1.690E-06,-1.240
1.700E-06,-1.200
1.710E-06,-1.280
1.720E-06,-1.480
1.730E-06,-1.840
1.740E-06,-2.240
1.750E-06,-2.800
1.760E-06,-3.280
1.770E-06,-3.520
1.780E-06,-3.640
1.790E-06,-3.840
1.800E-06,-3.560
1.810E-06,-3.480
1.820E-06,-3.280
1.830E-06,-2.480
1.840E-06,-2.160
1.850E-06,-2.280
1.860E-06,-1.960
1.870E-06,-2.600
1.880E-06,-2.640
1.890E-06,-2.720
1.900E-06,-1.920
1.910E-06,-1.400
1.920E-06,-0.200
1.930E-06,0.040
1.940E-06,0.000
1.950E-06,-0.320
1.960E-06,-1.440
1.970E-06,-2.080
1.980E-06,-1.720
1.990E-06,-1.120
2.000E-06,-0.320
2.010E-06,1.040
2.020E-06,1.320
2.030E-06,1.680
2.040E-06,2.160
2.050E-06,2.400
2.060E-06,2.920
2.070E-06,3.480
2.080E-06,3.800
2.090E-06,4.000
2.100E-06,3.760
2.110E-06,3.360
2.120E-06,3.040
2.130E-06,2.720
2.140E-06,2.280
2.150E-06,2.040
2.160E-06,1.680
2.170E-06,1.240
2.180E-06,0.880
2.190E-06,0.440
2.200E-06,0.000
2.210E-06,-0.240
2.220E-06,-0.560
2.230E-06,-0.800
2.240E-06,-1.000
2.250E-06,-1.280
2.260E-06,-1.480
2.270E-06,-1.640
2.280E-06,-1.800
2.290E-06,-1.880
2.300E-06,-1.960
2.310E-06,-1.960
2.320E-06,-2.040
2.330E-06,-2.160
2.340E-06,-2.440
2.350E-06,-2.680
2.360E-06,-3.040
2.370E-06,-3.200
2.380E-06,-3.320
2.390E-06,-3.240
2.400E-06,-3.120
2.410E-06,-3.000
2.420E-06,-2.800
2.430E-06,-2.640
2.440E-06,-2.560
2.450E-06,-2.520
2.460E-06,-2.560
2.470E-06,-2.560
2.480E-06,-2.600
2.490E-06,-2.640
2.500E-06,-2.680
2.510E-06,-2.680
2.520E-06,-2.600
2.530E-06,-2.560
2.540E-06,-2.360
2.550E-06,-2.240
2.560E-06,-2.160
2.570E-06,-1.960
2.580E-06,-1.920
2.590E-06,-1.960
2.600E-06,-1.920
2.610E-06,-1.960
2.620E-06,-2.200
2.630E-06,-2.360
2.640E-06,-2.560
2.650E-06,-2.760
2.660E-06,-2.920
2.670E-06,-3.040
2.680E-06,-3.200
2.690E-06,-3.320
2.700E-06,-3.360
2.710E-06,-3.400
2.720E-06,-3.360
2.730E-06,-3.200
2.740E-06,-3.120
2.750E-06,-3.040
2.760E-06,-2.800
2.770E-06,-2.640
2.780E-06,-2.320
2.790E-06,-2.120
2.800E-06,-1.960
2.810E-06,-1.880
2.820E-06,-1.560
2.830E-06,-1.360
2.840E-06,-1.080
2.850E-06,-0.720
2.860E-06,-0.400
2.870E-06,-0.040
2.880E-06,0.200
2.890E-06,0.240
2.900E-06,0.200
2.910E-06,0.000
2.920E-06,-0.280
2.930E-06,-0.600
2.940E-06,-0.880
2.950E-06,-1.200
2.960E-06,-1.480
2.970E-06,-1.800
2.980E-06,-2.040
2.990E-06,-2.240
3.000E-06,-2.320
3.010E-06,-2.360
3.020E-06,-2.280
3.030E-06,-2.160
3.040E-06,-2.040
3.050E-06,-1.880
3.060E-06,-1.760
3.070E-06,-1.720
3.080E-06,-1.680
3.090E-06,-1.680
3.100E-06,-1.640
3.110E-06,-1.640
3.120E-06,-1.720
3.130E-06,-1.800
3.140E-06,-1.880
3.150E-06,-2.040
3.160E-06,-2.200
3.170E-06,-2.240
