mediciones/Mediciones filtradas (saque las feas)/5-15/0.01/WaveData4720.csv

#timebase=2000000(ps)
,#voltbase=100000(mv/100)
#size=4000
-8.400E-06,0.004
-8.390E-06,-0.004
-8.380E-06,0.000
-8.370E-06,0.004
-8.360E-06,-0.004
-8.350E-06,0.000
-8.340E-06,-0.004
-8.330E-06,0.000
-8.320E-06,0.000
-8.310E-06,0.000
-8.300E-06,0.004
-8.290E-06,0.004
-8.280E-06,0.004
-8.270E-06,0.000
-8.260E-06,0.004
-8.250E-06,0.004
-8.240E-06,0.004
-8.230E-06,0.004
-8.220E-06,-0.004
-8.210E-06,0.000
-8.200E-06,0.004
-8.190E-06,0.004
-8.180E-06,0.000
-8.170E-06,0.004
-8.160E-06,0.000
-8.150E-06,-0.004
-8.140E-06,0.004
-8.130E-06,-0.004
-8.120E-06,0.004
-8.110E-06,0.004
-8.100E-06,0.004
-8.090E-06,0.000
-8.080E-06,0.000
-8.070E-06,0.004
-8.060E-06,0.004
-8.050E-06,0.004
-8.040E-06,0.004
-8.030E-06,0.004
-8.020E-06,-0.004
-8.010E-06,0.000
-8.000E-06,-0.004
-7.990E-06,0.000
-7.980E-06,0.000
-7.970E-06,0.000
-7.960E-06,0.000
-7.950E-06,-0.004
-7.940E-06,0.004
-7.930E-06,0.004
-7.920E-06,0.000
-7.910E-06,0.000
-7.900E-06,0.000
-7.890E-06,0.004
-7.880E-06,0.004
-7.870E-06,0.004
-7.860E-06,-0.004
-7.850E-06,0.000
-7.840E-06,0.004
-7.830E-06,0.000
-7.820E-06,0.000
-7.810E-06,0.004
-7.800E-06,0.000
-7.790E-06,0.004
-7.780E-06,0.000
-7.770E-06,0.000
-7.760E-06,0.004
-7.750E-06,0.000
-7.740E-06,0.000
-7.730E-06,0.004
-7.720E-06,0.000
-7.710E-06,0.000
-7.700E-06,0.000
-7.690E-06,0.004
-7.680E-06,0.004
-7.670E-06,0.008
-7.660E-06,0.000
-7.650E-06,-0.004
-7.640E-06,0.000
-7.630E-06,-0.004
-7.620E-06,0.000
-7.610E-06,-0.004
-7.600E-06,0.004
-7.590E-06,0.004
-7.580E-06,-0.004
-7.570E-06,0.000
-7.560E-06,0.004
-7.550E-06,0.000
-7.540E-06,0.000
-7.530E-06,0.004
-7.520E-06,0.000
-7.510E-06,0.000
-7.500E-06,0.000
-7.490E-06,0.000
-7.480E-06,0.000
-7.470E-06,0.000
-7.460E-06,0.000
-7.450E-06,0.000
-7.440E-06,0.000
-7.430E-06,-0.004
-7.420E-06,-0.004
-7.410E-06,0.000
-7.400E-06,0.004
-7.390E-06,0.008
-7.380E-06,0.000
-7.370E-06,0.000
-7.360E-06,0.004
-7.350E-06,0.000
-7.340E-06,-0.004
-7.330E-06,0.000
-7.320E-06,0.004
-7.310E-06,-0.004
-7.300E-06,0.000
-7.290E-06,0.000
-7.280E-06,0.000
-7.270E-06,0.000
-7.260E-06,0.000
-7.250E-06,0.004
-7.240E-06,-0.004
-7.230E-06,0.004
-7.220E-06,0.000
-7.210E-06,0.004
-7.200E-06,0.004
-7.190E-06,0.000
-7.180E-06,0.004
-7.170E-06,0.000
-7.160E-06,0.000
-7.150E-06,0.004
-7.140E-06,0.004
-7.130E-06,0.004
-7.120E-06,0.000
-7.110E-06,0.000
-7.100E-06,0.004
-7.090E-06,0.000
-7.080E-06,0.000
-7.070E-06,0.000
-7.060E-06,0.004
-7.050E-06,0.004
-7.040E-06,0.008
-7.030E-06,0.004
-7.020E-06,-0.004
-7.010E-06,0.000
-7.000E-06,0.000
-6.990E-06,0.004
-6.980E-06,0.008
-6.970E-06,0.008
-6.960E-06,0.004
-6.950E-06,0.004
-6.940E-06,-0.004
-6.930E-06,0.004
-6.920E-06,0.000
-6.910E-06,0.004
-6.900E-06,0.000
-6.890E-06,0.000
-6.880E-06,0.000
-6.870E-06,0.000
-6.860E-06,0.004
-6.850E-06,0.004
-6.840E-06,-0.004
-6.830E-06,-0.004
-6.820E-06,0.004
-6.810E-06,0.008
-6.800E-06,0.008
-6.790E-06,0.008
-6.780E-06,-0.004
-6.770E-06,-0.004
-6.760E-06,0.000
-6.750E-06,0.000
-6.740E-06,0.000
-6.730E-06,0.000
-6.720E-06,0.004
-6.710E-06,0.004
-6.700E-06,0.008
-6.690E-06,-0.004
-6.680E-06,0.000
-6.670E-06,0.000
-6.660E-06,0.000
-6.650E-06,0.000
-6.640E-06,0.004
-6.630E-06,0.004
-6.620E-06,0.004
-6.610E-06,0.008
-6.600E-06,0.004
-6.590E-06,0.004
-6.580E-06,0.004
-6.570E-06,0.000
-6.560E-06,0.000
-6.550E-06,0.004
-6.540E-06,-0.004
-6.530E-06,0.000
-6.520E-06,0.000
-6.510E-06,0.000
-6.500E-06,0.000
-6.490E-06,0.000
-6.480E-06,0.000
-6.470E-06,0.000
-6.460E-06,0.000
-6.450E-06,0.000
-6.440E-06,0.004
-6.430E-06,0.000
-6.420E-06,0.000
-6.410E-06,0.008
-6.400E-06,0.004
-6.390E-06,0.004
-6.380E-06,-0.004
-6.370E-06,0.000
-6.360E-06,0.004
-6.350E-06,0.000
-6.340E-06,0.004
-6.330E-06,-0.004
-6.320E-06,0.000
-6.310E-06,0.004
-6.300E-06,0.008
-6.290E-06,0.008
-6.280E-06,0.008
-6.270E-06,0.008
-6.260E-06,0.004
-6.250E-06,0.004
-6.240E-06,0.000
-6.230E-06,-0.004
-6.220E-06,0.004
-6.210E-06,-0.004
-6.200E-06,0.004
-6.190E-06,0.008
-6.180E-06,0.000
-6.170E-06,0.000
-6.160E-06,0.004
-6.150E-06,0.004
-6.140E-06,0.004
-6.130E-06,0.000
-6.120E-06,0.000
-6.110E-06,0.000
-6.100E-06,0.000
-6.090E-06,0.000
-6.080E-06,-0.004
-6.070E-06,-0.004
-6.060E-06,0.000
-6.050E-06,-0.004
-6.040E-06,0.000
-6.030E-06,0.000
-6.020E-06,0.000
-6.010E-06,0.000
-6.000E-06,0.004
-5.990E-06,0.000
-5.980E-06,0.000
-5.970E-06,0.004
-5.960E-06,0.000
-5.950E-06,0.000
-5.940E-06,0.004
-5.930E-06,0.004
-5.920E-06,0.004
-5.910E-06,0.000
-5.900E-06,0.004
-5.890E-06,0.004
-5.880E-06,0.004
-5.870E-06,0.004
-5.860E-06,0.004
-5.850E-06,-0.004
-5.840E-06,0.000
-5.830E-06,-0.004
-5.820E-06,0.004
-5.810E-06,0.004
-5.800E-06,-0.004
-5.790E-06,0.000
-5.780E-06,0.000
-5.770E-06,0.000
-5.760E-06,0.000
-5.750E-06,0.004
-5.740E-06,0.004
-5.730E-06,0.000
-5.720E-06,0.000
-5.710E-06,-0.004
-5.700E-06,0.004
-5.690E-06,-0.004
-5.680E-06,0.004
-5.670E-06,-0.004
-5.660E-06,0.000
-5.650E-06,0.004
-5.640E-06,0.000
-5.630E-06,0.004
-5.620E-06,0.000
-5.610E-06,-0.004
-5.600E-06,0.000
-5.590E-06,0.000
-5.580E-06,0.000
-5.570E-06,0.004
-5.560E-06,0.004
-5.550E-06,0.000
-5.540E-06,0.004
-5.530E-06,0.000
-5.520E-06,-0.004
-5.510E-06,0.000
-5.500E-06,-0.004
-5.490E-06,0.000
-5.480E-06,0.004
-5.470E-06,0.004
-5.460E-06,0.004
-5.450E-06,0.004
-5.440E-06,0.000
-5.430E-06,0.008
-5.420E-06,0.052
-5.410E-06,0.108
-5.400E-06,0.156
-5.390E-06,0.148
-5.380E-06,0.028
-5.370E-06,-0.140
-5.360E-06,-0.284
-5.350E-06,-0.276
-5.340E-06,-0.108
-5.330E-06,0.140
-5.320E-06,0.320
-5.310E-06,0.312
-5.300E-06,0.124
-5.290E-06,-0.136
-5.280E-06,-0.284
-5.270E-06,-0.260
-5.260E-06,-0.060
-5.250E-06,0.160
-5.240E-06,0.276
-5.230E-06,0.244
-5.220E-06,0.080
-5.210E-06,-0.112
-5.200E-06,-0.232
-5.190E-06,-0.220
-5.180E-06,-0.120
-5.170E-06,0.032
-5.160E-06,0.156
-5.150E-06,0.208
-5.140E-06,0.156
-5.130E-06,0.044
-5.120E-06,-0.076
-5.110E-06,-0.168
-5.100E-06,-0.164
-5.090E-06,-0.072
-5.080E-06,0.064
-5.070E-06,0.160
-5.060E-06,0.176
-5.050E-06,0.100
-5.040E-06,-0.056
-5.030E-06,-0.172
-5.020E-06,-0.204
-5.010E-06,-0.140
-5.000E-06,0.000
-4.990E-06,0.128
-4.980E-06,0.176
-4.970E-06,0.136
-4.960E-06,0.028
-4.950E-06,-0.068
-4.940E-06,-0.108
-4.930E-06,-0.080
-4.920E-06,-0.012
-4.910E-06,0.064
-4.900E-06,0.104
-4.890E-06,0.092
-4.880E-06,0.036
-4.870E-06,-0.020
-4.860E-06,-0.080
-4.850E-06,-0.100
-4.840E-06,-0.064
-4.830E-06,-0.016
-4.820E-06,0.056
-4.810E-06,0.096
-4.800E-06,0.092
-4.790E-06,0.044
-4.780E-06,-0.008
-4.770E-06,-0.060
-4.760E-06,-0.068
-4.750E-06,-0.032
-4.740E-06,0.020
-4.730E-06,0.056
-4.720E-06,0.068
-4.710E-06,0.040
-4.700E-06,-0.008
-4.690E-06,-0.048
-4.680E-06,-0.068
-4.670E-06,-0.056
-4.660E-06,-0.020
-4.650E-06,0.020
-4.640E-06,0.044
-4.630E-06,0.060
-4.620E-06,0.048
-4.610E-06,0.004
-4.600E-06,-0.028
-4.590E-06,-0.044
-4.580E-06,-0.024
-4.570E-06,0.012
-4.560E-06,0.028
-4.550E-06,0.044
-4.540E-06,0.028
-4.530E-06,0.004
-4.520E-06,-0.016
-4.510E-06,-0.028
-4.500E-06,-0.020
-4.490E-06,0.000
-4.480E-06,-0.004
-4.470E-06,0.024
-4.460E-06,0.020
-4.450E-06,0.008
-4.440E-06,0.012
-4.430E-06,-0.004
-4.420E-06,0.004
-4.410E-06,0.004
-4.400E-06,0.000
-4.390E-06,-0.004
-4.380E-06,0.000
-4.370E-06,0.004
-4.360E-06,0.000
-4.350E-06,0.000
-4.340E-06,0.000
-4.330E-06,-0.004
-4.320E-06,-0.004
-4.310E-06,0.000
-4.300E-06,0.004
-4.290E-06,0.000
-4.280E-06,-0.004
-4.270E-06,0.008
-4.260E-06,0.004
-4.250E-06,0.012
-4.240E-06,0.008
-4.230E-06,0.000
-4.220E-06,0.000
-4.210E-06,-0.008
-4.200E-06,-0.004
-4.190E-06,0.000
-4.180E-06,0.012
-4.170E-06,0.012
-4.160E-06,0.012
-4.150E-06,0.008
-4.140E-06,-0.012
-4.130E-06,-0.016
-4.120E-06,-0.012
-4.110E-06,-0.004
-4.100E-06,0.004
-4.090E-06,0.024
-4.080E-06,0.016
-4.070E-06,0.012
-4.060E-06,-0.008
-4.050E-06,-0.004
-4.040E-06,-0.012
-4.030E-06,-0.004
-4.020E-06,0.004
-4.010E-06,0.016
-4.000E-06,0.024
-3.990E-06,0.012
-3.980E-06,0.008
-3.970E-06,-0.008
-3.960E-06,-0.008
-3.950E-06,-0.004
-3.940E-06,-0.004
-3.930E-06,0.012
-3.920E-06,0.020
-3.910E-06,0.024
-3.900E-06,0.012
-3.890E-06,0.000
-3.880E-06,-0.008
-3.870E-06,-0.008
-3.860E-06,-0.008
-3.850E-06,0.004
-3.840E-06,0.016
-3.830E-06,0.028
-3.820E-06,0.012
-3.810E-06,0.004
-3.800E-06,0.000
-3.790E-06,-0.012
-3.780E-06,-0.004
-3.770E-06,-0.004
-3.760E-06,0.008
-3.750E-06,0.020
-3.740E-06,0.024
-3.730E-06,0.024
-3.720E-06,0.004
-3.710E-06,0.004
-3.700E-06,0.008
-3.690E-06,0.016
-3.680E-06,0.024
-3.670E-06,0.032
-3.660E-06,0.028
-3.650E-06,0.024
-3.640E-06,0.000
-3.630E-06,-0.012
-3.620E-06,-0.012
-3.610E-06,-0.004
-3.600E-06,0.012
-3.590E-06,0.016
-3.580E-06,0.008
-3.570E-06,-0.016
-3.560E-06,-0.028
-3.550E-06,-0.040
-3.540E-06,-0.028
-3.530E-06,-0.008
-3.520E-06,0.036
-3.510E-06,0.068
-3.500E-06,0.072
-3.490E-06,0.040
-3.480E-06,-0.020
-3.470E-06,-0.060
-3.460E-06,-0.056
-3.450E-06,-0.012
-3.440E-06,0.004
-3.430E-06,0.020
-3.420E-06,0.016
-3.410E-06,0.000
-3.400E-06,-0.016
-3.390E-06,-0.032
-3.380E-06,-0.044
-3.370E-06,-0.060
-3.360E-06,-0.008
-3.350E-06,0.040
-3.340E-06,0.072
-3.330E-06,0.060
-3.320E-06,0.008
-3.310E-06,-0.056
-3.300E-06,-0.084
-3.290E-06,-0.064
-3.280E-06,-0.012
-3.270E-06,0.052
-3.260E-06,0.076
-3.250E-06,0.060
-3.240E-06,0.000
-3.230E-06,-0.048
-3.220E-06,-0.068
-3.210E-06,-0.040
-3.200E-06,0.008
-3.190E-06,0.044
-3.180E-06,0.060
-3.170E-06,0.032
-3.160E-06,0.012
-3.150E-06,-0.012
-3.140E-06,-0.024
-3.130E-06,-0.028
-3.120E-06,-0.004
-3.110E-06,0.004
-3.100E-06,0.024
-3.090E-06,0.028
-3.080E-06,0.020
-3.070E-06,0.008
-3.060E-06,-0.008
-3.050E-06,-0.016
-3.040E-06,-0.012
-3.030E-06,-0.004
-3.020E-06,0.008
-3.010E-06,0.024
-3.000E-06,0.016
-2.990E-06,0.012
-2.980E-06,0.000
-2.970E-06,-0.004
-2.960E-06,-0.008
-2.950E-06,0.000
-2.940E-06,0.008
-2.930E-06,0.012
-2.920E-06,0.012
-2.910E-06,0.008
-2.900E-06,0.000
-2.890E-06,0.000
-2.880E-06,0.012
-2.870E-06,0.016
-2.860E-06,0.016
-2.850E-06,0.020
-2.840E-06,0.012
-2.830E-06,0.000
-2.820E-06,-0.012
-2.810E-06,-0.008
-2.800E-06,0.004
-2.790E-06,0.020
-2.780E-06,0.024
-2.770E-06,0.016
-2.760E-06,0.004
-2.750E-06,0.000
-2.740E-06,-0.004
-2.730E-06,0.000
-2.720E-06,0.008
-2.710E-06,0.020
-2.700E-06,0.024
-2.690E-06,0.016
-2.680E-06,0.004
-2.670E-06,-0.004
-2.660E-06,0.000
-2.650E-06,0.004
-2.640E-06,0.012
-2.630E-06,0.020
-2.620E-06,0.024
-2.610E-06,0.028
-2.600E-06,0.024
-2.590E-06,0.012
-2.580E-06,0.004
-2.570E-06,0.004
-2.560E-06,0.008
-2.550E-06,0.012
-2.540E-06,0.024
-2.530E-06,0.036
-2.520E-06,0.028
-2.510E-06,0.020
-2.500E-06,0.020
-2.490E-06,0.012
-2.480E-06,0.024
-2.470E-06,0.036
-2.460E-06,0.052
-2.450E-06,0.056
-2.440E-06,0.048
-2.430E-06,0.024
-2.420E-06,0.000
-2.410E-06,-0.012
-2.400E-06,-0.012
-2.390E-06,-0.008
-2.380E-06,-0.016
-2.370E-06,-0.040
-2.360E-06,-0.096
-2.350E-06,-0.088
-2.340E-06,-0.080
-2.330E-06,-0.032
-2.320E-06,0.012
-2.310E-06,0.056
-2.300E-06,0.056
-2.290E-06,0.008
-2.280E-06,-0.028
-2.270E-06,-0.052
-2.260E-06,-0.040
-2.250E-06,-0.008
-2.240E-06,0.036
-2.230E-06,0.044
-2.220E-06,0.028
-2.210E-06,0.004
-2.200E-06,-0.004
-2.190E-06,-0.008
-2.180E-06,0.012
-2.170E-06,0.020
-2.160E-06,0.016
-2.150E-06,0.012
-2.140E-06,0.004
-2.130E-06,0.004
-2.120E-06,0.016
-2.110E-06,0.040
-2.100E-06,0.044
-2.090E-06,0.008
-2.080E-06,-0.016
-2.070E-06,-0.044
-2.060E-06,-0.040
-2.050E-06,-0.012
-2.040E-06,0.036
-2.030E-06,0.056
-2.020E-06,0.060
-2.010E-06,0.028
-2.000E-06,0.000
-1.990E-06,-0.016
-1.980E-06,-0.012
-1.970E-06,-0.004
-1.960E-06,0.012
-1.950E-06,0.016
-1.940E-06,-0.004
-1.930E-06,-0.028
-1.920E-06,-0.048
-1.910E-06,-0.048
-1.900E-06,-0.036
-1.890E-06,-0.012
-1.880E-06,-0.016
-1.870E-06,0.008
-1.860E-06,0.024
-1.850E-06,0.036
-1.840E-06,0.024
-1.830E-06,0.016
-1.820E-06,-0.016
-1.810E-06,-0.024
-1.800E-06,-0.008
-1.790E-06,0.016
-1.780E-06,0.044
-1.770E-06,0.040
-1.760E-06,0.016
-1.750E-06,-0.016
-1.740E-06,-0.028
-1.730E-06,-0.008
-1.720E-06,0.032
-1.710E-06,0.056
-1.700E-06,0.052
-1.690E-06,0.028
-1.680E-06,0.004
-1.670E-06,-0.012
-1.660E-06,0.000
-1.650E-06,0.044
-1.640E-06,0.068
-1.630E-06,0.060
-1.620E-06,0.056
-1.610E-06,0.020
-1.600E-06,0.000
-1.590E-06,-0.016
-1.580E-06,-0.024
-1.570E-06,-0.032
-1.560E-06,-0.016
-1.550E-06,-0.008
-1.540E-06,-0.008
-1.530E-06,-0.008
-1.520E-06,-0.024
-1.510E-06,-0.028
-1.500E-06,-0.032
-1.490E-06,-0.024
-1.480E-06,0.000
-1.470E-06,0.024
-1.460E-06,0.040
-1.450E-06,0.024
-1.440E-06,-0.008
-1.430E-06,-0.020
-1.420E-06,-0.012
-1.410E-06,0.008
-1.400E-06,0.032
-1.390E-06,0.052
-1.380E-06,0.060
-1.370E-06,0.044
-1.360E-06,0.024
-1.350E-06,0.012
-1.340E-06,0.008
-1.330E-06,0.016
-1.320E-06,0.028
-1.310E-06,0.060
-1.300E-06,0.068
-1.290E-06,0.080
-1.280E-06,0.076
-1.270E-06,0.068
-1.260E-06,0.048
-1.250E-06,0.032
-1.240E-06,0.036
-1.230E-06,0.024
-1.220E-06,0.012
-1.210E-06,-0.028
-1.200E-06,-0.044
-1.190E-06,-0.056
-1.180E-06,-0.016
-1.170E-06,0.040
-1.160E-06,0.104
-1.150E-06,0.156
-1.140E-06,0.128
-1.130E-06,0.076
-1.120E-06,-0.056
-1.110E-06,-0.124
-1.100E-06,-0.108
-1.090E-06,-0.068
-1.080E-06,0.028
-1.070E-06,0.064
-1.060E-06,0.036
-1.050E-06,-0.152
-1.040E-06,-0.296
-1.030E-06,-0.364
-1.020E-06,-0.248
-1.010E-06,0.000
-1.000E-06,0.228
-9.900E-07,0.320
-9.800E-07,0.160
-9.700E-07,-0.076
-9.600E-07,-0.312
-9.500E-07,-0.320
-9.400E-07,-0.152
-9.300E-07,0.104
-9.200E-07,0.256
-9.100E-07,0.256
-9.000E-07,0.116
-8.900E-07,-0.076
-8.800E-07,-0.208
-8.700E-07,-0.220
-8.600E-07,-0.104
-8.500E-07,0.036
-8.400E-07,0.164
-8.300E-07,0.192
-8.200E-07,0.128
-8.100E-07,-0.008
-8.000E-07,-0.132
-7.900E-07,-0.188
-7.800E-07,-0.132
-7.700E-07,-0.004
-7.600E-07,0.124
-7.500E-07,0.172
-7.400E-07,0.124
-7.300E-07,0.012
-7.200E-07,-0.108
-7.100E-07,-0.148
-7.000E-07,-0.104
-6.900E-07,-0.008
-6.800E-07,0.092
-6.700E-07,0.144
-6.600E-07,0.108
-6.500E-07,0.024
-6.400E-07,-0.052
-6.300E-07,-0.096
-6.200E-07,-0.072
-6.100E-07,-0.008
-6.000E-07,0.072
-5.900E-07,0.096
-5.800E-07,0.088
-5.700E-07,0.024
-5.600E-07,-0.028
-5.500E-07,-0.060
-5.400E-07,-0.056
-5.300E-07,-0.004
-5.200E-07,0.052
-5.100E-07,0.092
-5.000E-07,0.092
-4.900E-07,0.048
-4.800E-07,0.004
-4.700E-07,-0.020
-4.600E-07,-0.008
-4.500E-07,0.024
-4.400E-07,0.060
-4.300E-07,0.084
-4.200E-07,0.080
-4.100E-07,0.064
-4.000E-07,0.036
-3.900E-07,0.024
-3.800E-07,0.016
-3.700E-07,0.036
-3.600E-07,0.052
-3.500E-07,0.044
-3.400E-07,0.028
-3.300E-07,0.012
-3.200E-07,-0.004
-3.100E-07,-0.004
-3.000E-07,0.024
-2.900E-07,0.052
-2.800E-07,0.060
-2.700E-07,0.060
-2.600E-07,0.044
-2.500E-07,0.032
-2.400E-07,0.040
-2.300E-07,0.068
-2.200E-07,0.088
-2.100E-07,0.100
-2.000E-07,0.104
-1.900E-07,0.068
-1.800E-07,0.040
-1.700E-07,0.044
-1.600E-07,0.028
-1.500E-07,0.064
-1.400E-07,0.144
-1.300E-07,0.120
-1.200E-07,0.040
-1.100E-07,0.060
-1.000E-07,0.060
-9.000E-08,0.072
-8.000E-08,0.208
-7.000E-08,-0.432
-6.000E-08,-0.124
-5.000E-08,-0.512
-4.000E-08,-0.512
-3.000E-08,-0.508
-2.000E-08,-0.512
-1.000E-08,0.032
0.000E+00,0.540
1.000E-08,0.540
2.000E-08,0.540
3.000E-08,0.112
4.000E-08,-0.508
5.000E-08,-0.508
6.000E-08,-0.512
7.000E-08,0.176
8.000E-08,0.544
9.000E-08,0.540
1.000E-07,0.532
1.100E-07,-0.140
1.200E-07,-0.508
1.300E-07,-0.512
1.400E-07,-0.372
1.500E-07,0.160
1.600E-07,0.540
1.700E-07,0.540
1.800E-07,0.384
1.900E-07,-0.148
2.000E-07,-0.464
2.100E-07,-0.508
2.200E-07,-0.332
2.300E-07,0.108
2.400E-07,0.448
2.500E-07,0.540
2.600E-07,0.400
2.700E-07,0.068
2.800E-07,-0.344
2.900E-07,-0.404
3.000E-07,-0.348
3.100E-07,-0.064
3.200E-07,0.224
3.300E-07,0.400
3.400E-07,0.324
3.500E-07,0.120
3.600E-07,-0.064
3.700E-07,-0.280
3.800E-07,-0.328
3.900E-07,-0.168
4.000E-07,0.184
4.100E-07,0.320
4.200E-07,0.328
4.300E-07,0.136
4.400E-07,-0.080
4.500E-07,-0.316
4.600E-07,-0.332
4.700E-07,-0.232
4.800E-07,-0.012
4.900E-07,0.208
5.000E-07,0.204
5.100E-07,0.104
5.200E-07,-0.128
5.300E-07,-0.232
5.400E-07,-0.236
5.500E-07,-0.072
5.600E-07,0.092
5.700E-07,0.188
5.800E-07,0.180
5.900E-07,0.084
6.000E-07,-0.032
6.100E-07,-0.132
6.200E-07,-0.112
6.300E-07,-0.004
6.400E-07,0.124
6.500E-07,0.196
6.600E-07,0.172
6.700E-07,0.072
6.800E-07,-0.004
6.900E-07,-0.072
7.000E-07,-0.028
7.100E-07,0.076
7.200E-07,0.140
7.300E-07,0.164
7.400E-07,0.112
7.500E-07,0.044
7.600E-07,-0.052
7.700E-07,-0.096
7.800E-07,-0.076
7.900E-07,0.000
8.000E-07,0.024
8.100E-07,0.040
8.200E-07,-0.012
8.300E-07,-0.104
8.400E-07,-0.112
8.500E-07,-0.056
8.600E-07,-0.024
8.700E-07,0.016
8.800E-07,0.012
8.900E-07,-0.060
9.000E-07,-0.148
9.100E-07,-0.164
9.200E-07,-0.080
9.300E-07,0.032
9.400E-07,0.088
9.500E-07,0.060
9.600E-07,0.024
9.700E-07,-0.048
9.800E-07,-0.064
9.900E-07,-0.040
1.000E-06,0.012
1.010E-06,0.060
1.020E-06,0.064
1.030E-06,0.044
1.040E-06,0.016
1.050E-06,-0.004
1.060E-06,0.004
1.070E-06,0.044
1.080E-06,0.088
1.090E-06,0.124
1.100E-06,0.108
1.110E-06,0.060
1.120E-06,0.020
1.130E-06,0.024
1.140E-06,0.056
1.150E-06,0.108
1.160E-06,0.144
1.170E-06,0.140
1.180E-06,0.100
1.190E-06,0.052
1.200E-06,0.016
1.210E-06,0.000
1.220E-06,0.024
1.230E-06,0.072
1.240E-06,0.108
1.250E-06,0.112
1.260E-06,0.080
1.270E-06,0.036
1.280E-06,0.004
1.290E-06,0.008
1.300E-06,0.076
1.310E-06,0.152
1.320E-06,0.176
1.330E-06,0.180
1.340E-06,-0.104
1.350E-06,-0.512
1.360E-06,-0.508
1.370E-06,-0.512
1.380E-06,0.460
1.390E-06,0.540
1.400E-06,0.540
1.410E-06,0.540
1.420E-06,-0.512
1.430E-06,-0.512
1.440E-06,-0.512
1.450E-06,-0.512
1.460E-06,0.432
1.470E-06,0.544
1.480E-06,0.540
1.490E-06,0.540
1.500E-06,-0.512
1.510E-06,-0.512
1.520E-06,-0.512
1.530E-06,-0.488
1.540E-06,0.540
1.550E-06,0.540
1.560E-06,0.540
1.570E-06,0.420
1.580E-06,-0.452
1.590E-06,-0.512
1.600E-06,-0.512
1.610E-06,-0.508
1.620E-06,0.352
1.630E-06,0.540
1.640E-06,0.540
1.650E-06,0.540
1.660E-06,-0.196
1.670E-06,-0.512
1.680E-06,-0.512
1.690E-06,-0.512
1.700E-06,0.084
1.710E-06,0.540
1.720E-06,0.536
1.730E-06,0.536
1.740E-06,-0.032
1.750E-06,-0.508
1.760E-06,-0.508
1.770E-06,-0.472
1.780E-06,0.020
1.790E-06,0.460
1.800E-06,0.540
1.810E-06,0.528
1.820E-06,0.172
1.830E-06,-0.260
1.840E-06,-0.416
1.850E-06,-0.356
1.860E-06,-0.116
1.870E-06,0.132
1.880E-06,0.300
1.890E-06,0.272
1.900E-06,0.148
1.910E-06,-0.040
1.920E-06,-0.260
1.930E-06,-0.272
1.940E-06,-0.156
1.950E-06,0.004
1.960E-06,0.160
1.970E-06,0.272
1.980E-06,0.220
1.990E-06,0.044
2.000E-06,-0.156
2.010E-06,-0.240
2.020E-06,-0.188
2.030E-06,0.016
2.040E-06,0.192
2.050E-06,0.272
2.060E-06,0.228
2.070E-06,0.084
2.080E-06,-0.080
2.090E-06,-0.164
2.100E-06,-0.132
2.110E-06,0.008
2.120E-06,0.156
2.130E-06,0.244
2.140E-06,0.236
2.150E-06,0.144
2.160E-06,0.048
2.170E-06,-0.036
2.180E-06,-0.084
2.190E-06,-0.064
2.200E-06,0.016
2.210E-06,0.072
2.220E-06,0.096
2.230E-06,0.112
2.240E-06,0.048
2.250E-06,-0.052
2.260E-06,-0.104
2.270E-06,-0.136
2.280E-06,-0.160
2.290E-06,-0.068
2.300E-06,0.024
2.310E-06,0.016
2.320E-06,-0.056
2.330E-06,-0.140
2.340E-06,-0.176
2.350E-06,-0.168
2.360E-06,-0.104
2.370E-06,-0.040
2.380E-06,0.088
2.390E-06,0.136
2.400E-06,0.080
2.410E-06,-0.036
2.420E-06,-0.112
2.430E-06,-0.112
2.440E-06,-0.068
2.450E-06,0.036
2.460E-06,0.088
2.470E-06,0.124
2.480E-06,0.140
2.490E-06,0.104
2.500E-06,0.028
2.510E-06,-0.020
2.520E-06,-0.004
2.530E-06,0.064
2.540E-06,0.136
2.550E-06,0.152
2.560E-06,0.188
2.570E-06,0.168
2.580E-06,0.136
2.590E-06,0.108
2.600E-06,0.116
2.610E-06,0.144
2.620E-06,0.188
2.630E-06,0.212
2.640E-06,0.224
2.650E-06,0.192
2.660E-06,0.148
2.670E-06,0.128
2.680E-06,0.108
2.690E-06,0.120
2.700E-06,0.144
2.710E-06,0.176
2.720E-06,0.168
2.730E-06,0.156
2.740E-06,0.128
2.750E-06,0.104
2.760E-06,0.088
2.770E-06,0.068
2.780E-06,0.080
2.790E-06,0.108
2.800E-06,0.124
2.810E-06,0.144
2.820E-06,0.160
2.830E-06,0.140
2.840E-06,0.096
2.850E-06,0.004
2.860E-06,-0.104
2.870E-06,-0.200
2.880E-06,-0.240
2.890E-06,-0.244
2.900E-06,-0.252
2.910E-06,-0.172
2.920E-06,-0.124
2.930E-06,-0.140
2.940E-06,-0.108
2.950E-06,-0.140
2.960E-06,-0.088
2.970E-06,-0.032
2.980E-06,-0.032
2.990E-06,-0.056
3.000E-06,-0.028
3.010E-06,0.052
3.020E-06,0.156
3.030E-06,0.224
3.040E-06,0.192
3.050E-06,0.164
3.060E-06,0.104
3.070E-06,0.080
3.080E-06,0.112
3.090E-06,0.184
3.100E-06,0.248
3.110E-06,0.248
3.120E-06,0.196
3.130E-06,0.120
3.140E-06,0.048
3.150E-06,0.020
3.160E-06,0.076
3.170E-06,0.160
3.180E-06,0.220
3.190E-06,0.236
3.200E-06,0.208
3.210E-06,0.140
3.220E-06,0.068
3.230E-06,0.032
3.240E-06,0.020
3.250E-06,0.088
3.260E-06,0.192
3.270E-06,0.144
3.280E-06,-0.028
3.290E-06,-0.512
