mediciones/Mediciones filtradas (saque las feas)/5-15/0.01/WaveData4707.csv

#timebase=2000000(ps)
,#voltbase=1000000(mv/100)
#size=4000
-8.400E-06,-0.240
-8.390E-06,-0.160
-8.380E-06,-0.120
-8.370E-06,0.000
-8.360E-06,0.000
-8.350E-06,0.080
-8.340E-06,0.080
-8.330E-06,0.120
-8.320E-06,0.080
-8.310E-06,0.160
-8.300E-06,0.120
-8.290E-06,0.200
-8.280E-06,0.120
-8.270E-06,-0.040
-8.260E-06,-0.080
-8.250E-06,-0.200
-8.240E-06,-0.200
-8.230E-06,-0.240
-8.220E-06,-0.240
-8.210E-06,-0.200
-8.200E-06,-0.240
-8.190E-06,-0.360
-8.180E-06,-0.320
-8.170E-06,-0.360
-8.160E-06,-0.520
-8.150E-06,-0.400
-8.140E-06,-0.520
-8.130E-06,-0.400
-8.120E-06,-0.320
-8.110E-06,-0.560
-8.100E-06,-0.480
-8.090E-06,-0.880
-8.080E-06,-0.880
-8.070E-06,-1.000
-8.060E-06,-0.920
-8.050E-06,-0.920
-8.040E-06,-0.960
-8.030E-06,-1.120
-8.020E-06,-1.120
-8.010E-06,-1.120
-8.000E-06,-0.960
-7.990E-06,-0.840
-7.980E-06,-0.800
-7.970E-06,-0.840
-7.960E-06,-0.760
-7.950E-06,-0.640
-7.940E-06,-0.560
-7.930E-06,-0.520
-7.920E-06,-0.440
-7.910E-06,-0.360
-7.900E-06,-0.320
-7.890E-06,-0.280
-7.880E-06,-0.280
-7.870E-06,-0.200
-7.860E-06,-0.120
-7.850E-06,-0.040
-7.840E-06,0.000
-7.830E-06,0.120
-7.820E-06,0.200
-7.810E-06,0.160
-7.800E-06,0.120
-7.790E-06,0.160
-7.780E-06,0.120
-7.770E-06,0.160
-7.760E-06,0.200
-7.750E-06,0.120
-7.740E-06,0.040
-7.730E-06,-0.040
-7.720E-06,-0.040
-7.710E-06,-0.080
-7.700E-06,-0.160
-7.690E-06,-0.240
-7.680E-06,-0.320
-7.670E-06,-0.360
-7.660E-06,-0.360
-7.650E-06,-0.320
-7.640E-06,-0.320
-7.630E-06,-0.360
-7.620E-06,-0.400
-7.610E-06,-0.400
-7.600E-06,-0.320
-7.590E-06,-0.360
-7.580E-06,-0.280
-7.570E-06,-0.360
-7.560E-06,-0.440
-7.550E-06,-0.520
-7.540E-06,-0.640
-7.530E-06,-0.640
-7.520E-06,-0.760
-7.510E-06,-0.840
-7.500E-06,-0.880
-7.490E-06,-1.000
-7.480E-06,-0.920
-7.470E-06,-0.920
-7.460E-06,-0.960
-7.450E-06,-0.920
-7.440E-06,-0.920
-7.430E-06,-0.880
-7.420E-06,-0.840
-7.410E-06,-0.800
-7.400E-06,-0.680
-7.390E-06,-0.680
-7.380E-06,-0.640
-7.370E-06,-0.680
-7.360E-06,-0.840
-7.350E-06,-0.840
-7.340E-06,-0.840
-7.330E-06,-0.840
-7.320E-06,-0.800
-7.310E-06,-0.800
-7.300E-06,-0.800
-7.290E-06,-0.760
-7.280E-06,-0.680
-7.270E-06,-0.680
-7.260E-06,-0.520
-7.250E-06,-0.480
-7.240E-06,-0.360
-7.230E-06,-0.320
-7.220E-06,-0.280
-7.210E-06,-0.280
-7.200E-06,-0.240
-7.190E-06,-0.320
-7.180E-06,-0.360
-7.170E-06,-0.400
-7.160E-06,-0.400
-7.150E-06,-0.360
-7.140E-06,-0.360
-7.130E-06,-0.400
-7.120E-06,-0.360
-7.110E-06,-0.280
-7.100E-06,-0.240
-7.090E-06,-0.200
-7.080E-06,-0.120
-7.070E-06,-0.080
-7.060E-06,-0.160
-7.050E-06,-0.120
-7.040E-06,-0.200
-7.030E-06,-0.240
-7.020E-06,-0.280
-7.010E-06,-0.400
-7.000E-06,-0.440
-6.990E-06,-0.440
-6.980E-06,-0.480
-6.970E-06,-0.480
-6.960E-06,-0.480
-6.950E-06,-0.480
-6.940E-06,-0.520
-6.930E-06,-0.440
-6.920E-06,-0.440
-6.910E-06,-0.360
-6.900E-06,-0.360
-6.890E-06,-0.400
-6.880E-06,-0.400
-6.870E-06,-0.400
-6.860E-06,-0.320
-6.850E-06,-0.400
-6.840E-06,-0.400
-6.830E-06,-0.520
-6.820E-06,-0.520
-6.810E-06,-0.560
-6.800E-06,-0.640
-6.790E-06,-0.720
-6.780E-06,-0.760
-6.770E-06,-0.840
-6.760E-06,-0.880
-6.750E-06,-0.960
-6.740E-06,-1.000
-6.730E-06,-0.960
-6.720E-06,-0.960
-6.710E-06,-1.080
-6.700E-06,-1.080
-6.690E-06,-0.400
-6.680E-06,-0.680
-6.670E-06,-0.320
-6.660E-06,-0.800
-6.650E-06,-1.160
-6.640E-06,-1.120
-6.630E-06,-1.240
-6.620E-06,-1.160
-6.610E-06,-1.000
-6.600E-06,-1.320
-6.590E-06,-1.480
-6.580E-06,-1.600
-6.570E-06,-1.560
-6.560E-06,-1.280
-6.550E-06,-1.160
-6.540E-06,-1.040
-6.530E-06,-1.040
-6.520E-06,-0.880
-6.510E-06,-0.800
-6.500E-06,-0.680
-6.490E-06,-0.480
-6.480E-06,-0.360
-6.470E-06,-0.280
-6.460E-06,-0.240
-6.450E-06,-0.320
-6.440E-06,-0.240
-6.430E-06,-0.120
-6.420E-06,0.000
-6.410E-06,0.040
-6.400E-06,0.080
-6.390E-06,0.200
-6.380E-06,0.200
-6.370E-06,0.280
-6.360E-06,0.360
-6.350E-06,0.400
-6.340E-06,0.360
-6.330E-06,0.320
-6.320E-06,0.360
-6.310E-06,0.280
-6.300E-06,0.240
-6.290E-06,0.040
-6.280E-06,0.000
-6.270E-06,-0.280
-6.260E-06,-0.280
-6.250E-06,-0.440
-6.240E-06,-0.280
-6.230E-06,-0.400
-6.220E-06,-0.320
-6.210E-06,-0.400
-6.200E-06,-0.360
-6.190E-06,-0.480
-6.180E-06,-0.400
-6.170E-06,-0.560
-6.160E-06,-0.600
-6.150E-06,-0.600
-6.140E-06,-0.680
-6.130E-06,-0.720
-6.120E-06,-0.880
-6.110E-06,-0.960
-6.100E-06,-1.120
-6.090E-06,-1.160
-6.080E-06,-0.880
-6.070E-06,-0.680
-6.060E-06,-0.680
-6.050E-06,-0.600
-6.040E-06,-1.000
-6.030E-06,-1.120
-6.020E-06,-1.040
-6.010E-06,-1.160
-6.000E-06,-0.960
-5.990E-06,-1.160
-5.980E-06,-1.280
-5.970E-06,-1.400
-5.960E-06,-1.320
-5.950E-06,-1.200
-5.940E-06,-1.040
-5.930E-06,-0.960
-5.920E-06,-0.840
-5.910E-06,-0.800
-5.900E-06,-0.600
-5.890E-06,-0.440
-5.880E-06,-0.280
-5.870E-06,-0.240
-5.860E-06,-0.080
-5.850E-06,0.000
-5.840E-06,0.040
-5.830E-06,0.040
-5.820E-06,0.080
-5.810E-06,0.080
-5.800E-06,0.120
-5.790E-06,0.200
-5.780E-06,0.160
-5.770E-06,0.160
-5.760E-06,0.280
-5.750E-06,0.360
-5.740E-06,0.320
-5.730E-06,0.320
-5.720E-06,0.320
-5.710E-06,0.320
-5.700E-06,0.360
-5.690E-06,0.320
-5.680E-06,0.200
-5.670E-06,0.200
-5.660E-06,0.040
-5.650E-06,-0.080
-5.640E-06,-0.120
-5.630E-06,-0.160
-5.620E-06,-0.280
-5.610E-06,-0.240
-5.600E-06,-0.320
-5.590E-06,-0.320
-5.580E-06,-0.440
-5.570E-06,-0.480
-5.560E-06,-0.440
-5.550E-06,-0.320
-5.540E-06,-0.240
-5.530E-06,-0.240
-5.520E-06,-0.320
-5.510E-06,-0.440
-5.500E-06,-0.520
-5.490E-06,-0.560
-5.480E-06,-0.520
-5.470E-06,-0.400
-5.460E-06,-0.160
-5.450E-06,-0.520
-5.440E-06,-0.400
-5.430E-06,-0.960
-5.420E-06,-0.960
-5.410E-06,-1.200
-5.400E-06,-1.040
-5.390E-06,-1.160
-5.380E-06,-1.160
-5.370E-06,-1.480
-5.360E-06,-1.560
-5.350E-06,-1.560
-5.340E-06,-1.400
-5.330E-06,-1.160
-5.320E-06,-1.080
-5.310E-06,-1.040
-5.300E-06,-0.960
-5.290E-06,-0.800
-5.280E-06,-0.640
-5.270E-06,-0.480
-5.260E-06,-0.400
-5.250E-06,-0.320
-5.240E-06,-0.240
-5.230E-06,-0.120
-5.220E-06,-0.040
-5.210E-06,0.000
-5.200E-06,0.080
-5.190E-06,0.160
-5.180E-06,0.280
-5.170E-06,0.440
-5.160E-06,0.480
-5.150E-06,0.600
-5.140E-06,0.640
-5.130E-06,0.640
-5.120E-06,0.640
-5.110E-06,0.560
-5.100E-06,0.440
-5.090E-06,0.440
-5.080E-06,0.360
-5.070E-06,0.120
-5.060E-06,-0.040
-5.050E-06,-0.120
-5.040E-06,-0.280
-5.030E-06,-0.400
-5.020E-06,-0.440
-5.010E-06,-0.520
-5.000E-06,-0.480
-4.990E-06,-0.480
-4.980E-06,-0.520
-4.970E-06,-0.520
-4.960E-06,-0.600
-4.950E-06,-0.720
-4.940E-06,-0.800
-4.930E-06,-0.920
-4.920E-06,-0.960
-4.910E-06,-0.880
-4.900E-06,-0.160
-4.890E-06,-0.520
-4.880E-06,0.040
-4.870E-06,-0.560
-4.860E-06,-0.840
-4.850E-06,-0.920
-4.840E-06,-0.960
-4.830E-06,-0.800
-4.820E-06,-0.600
-4.810E-06,-0.920
-4.800E-06,-1.200
-4.790E-06,-1.360
-4.780E-06,-1.360
-4.770E-06,-1.120
-4.760E-06,-1.040
-4.750E-06,-0.920
-4.740E-06,-1.000
-4.730E-06,-0.960
-4.720E-06,-0.800
-4.710E-06,-0.680
-4.700E-06,-0.600
-4.690E-06,-0.440
-4.680E-06,-0.400
-4.670E-06,-0.320
-4.660E-06,-0.360
-4.650E-06,-0.240
-4.640E-06,-0.080
-4.630E-06,0.000
-4.620E-06,0.040
-4.610E-06,0.160
-4.600E-06,0.240
-4.590E-06,0.200
-4.580E-06,0.320
-4.570E-06,0.360
-4.560E-06,0.360
-4.550E-06,0.280
-4.540E-06,0.280
-4.530E-06,0.200
-4.520E-06,0.160
-4.510E-06,0.160
-4.500E-06,0.000
-4.490E-06,-0.040
-4.480E-06,-0.240
-4.470E-06,-0.360
-4.460E-06,-0.520
-4.450E-06,-0.480
-4.440E-06,-0.560
-4.430E-06,-0.520
-4.420E-06,-0.440
-4.410E-06,-0.480
-4.400E-06,-0.440
-4.390E-06,-0.520
-4.380E-06,-0.440
-4.370E-06,-0.400
-4.360E-06,-0.320
-4.350E-06,-0.360
-4.340E-06,-0.440
-4.330E-06,-0.360
-4.320E-06,-0.560
-4.310E-06,-0.480
-4.300E-06,-0.400
-4.290E-06,-0.400
-4.280E-06,-0.440
-4.270E-06,-0.440
-4.260E-06,-0.720
-4.250E-06,-0.520
-4.240E-06,-0.760
-4.230E-06,-0.720
-4.220E-06,-0.800
-4.210E-06,-0.960
-4.200E-06,-1.120
-4.190E-06,-1.240
-4.180E-06,-1.240
-4.170E-06,-1.200
-4.160E-06,-1.080
-4.150E-06,-1.040
-4.140E-06,-1.000
-4.130E-06,-1.200
-4.120E-06,-1.160
-4.110E-06,-1.240
-4.100E-06,-1.120
-4.090E-06,-0.880
-4.080E-06,-0.880
-4.070E-06,-0.840
-4.060E-06,-0.880
-4.050E-06,-0.800
-4.040E-06,-0.800
-4.030E-06,-0.600
-4.020E-06,-0.520
-4.010E-06,-0.440
-4.000E-06,-0.480
-3.990E-06,-0.520
-3.980E-06,-0.400
-3.970E-06,-0.400
-3.960E-06,-0.360
-3.950E-06,-0.400
-3.940E-06,-0.400
-3.930E-06,-0.440
-3.920E-06,-0.280
-3.910E-06,-0.120
-3.900E-06,-0.040
-3.890E-06,-0.080
-3.880E-06,-0.040
-3.870E-06,0.000
-3.860E-06,0.040
-3.850E-06,0.080
-3.840E-06,0.040
-3.830E-06,0.040
-3.820E-06,0.040
-3.810E-06,0.040
-3.800E-06,0.040
-3.790E-06,0.040
-3.780E-06,0.040
-3.770E-06,0.040
-3.760E-06,-0.080
-3.750E-06,-0.040
-3.740E-06,-0.120
-3.730E-06,-0.200
-3.720E-06,-0.280
-3.710E-06,-0.320
-3.700E-06,-0.320
-3.690E-06,-0.400
-3.680E-06,-0.400
-3.670E-06,-0.480
-3.660E-06,-0.560
-3.650E-06,-0.760
-3.640E-06,-0.800
-3.630E-06,-0.960
-3.620E-06,-0.880
-3.610E-06,-0.840
-3.600E-06,-0.600
-3.590E-06,-0.600
-3.580E-06,-0.520
-3.570E-06,-0.680
-3.560E-06,-0.600
-3.550E-06,-0.520
-3.540E-06,-0.520
-3.530E-06,-0.560
-3.520E-06,-0.680
-3.510E-06,-0.880
-3.500E-06,-0.920
-3.490E-06,-1.000
-3.480E-06,-1.000
-3.470E-06,-1.080
-3.460E-06,-1.080
-3.450E-06,-1.160
-3.440E-06,-1.040
-3.430E-06,-1.040
-3.420E-06,-0.960
-3.410E-06,-0.960
-3.400E-06,-0.880
-3.390E-06,-0.920
-3.380E-06,-0.960
-3.370E-06,-0.880
-3.360E-06,-0.920
-3.350E-06,-0.880
-3.340E-06,-0.840
-3.330E-06,-0.720
-3.320E-06,-0.800
-3.310E-06,-0.680
-3.300E-06,-0.760
-3.290E-06,-0.360
-3.280E-06,0.400
-3.270E-06,0.120
-3.260E-06,0.920
-3.250E-06,0.120
-3.240E-06,0.160
-3.230E-06,0.000
-3.220E-06,0.080
-3.210E-06,0.160
-3.200E-06,0.080
-3.190E-06,-0.320
-3.180E-06,-0.680
-3.170E-06,-0.920
-3.160E-06,-0.920
-3.150E-06,-0.800
-3.140E-06,-0.800
-3.130E-06,-0.840
-3.120E-06,-0.760
-3.110E-06,-0.600
-3.100E-06,-0.520
-3.090E-06,-0.440
-3.080E-06,-0.400
-3.070E-06,-0.320
-3.060E-06,-0.280
-3.050E-06,-0.160
-3.040E-06,-0.240
-3.030E-06,-0.320
-3.020E-06,-0.360
-3.010E-06,-0.240
-3.000E-06,-0.280
-2.990E-06,-0.200
-2.980E-06,-0.240
-2.970E-06,-0.080
-2.960E-06,-0.120
-2.950E-06,-0.080
-2.940E-06,-0.200
-2.930E-06,-0.200
-2.920E-06,-0.280
-2.910E-06,-0.320
-2.900E-06,-0.320
-2.890E-06,-0.360
-2.880E-06,-0.480
-2.870E-06,-0.680
-2.860E-06,-0.920
-2.850E-06,-1.040
-2.840E-06,-1.240
-2.830E-06,-1.320
-2.820E-06,-1.360
-2.810E-06,-1.400
-2.800E-06,-1.440
-2.790E-06,-1.400
-2.780E-06,-1.320
-2.770E-06,-1.360
-2.760E-06,-1.360
-2.750E-06,-1.360
-2.740E-06,-1.360
-2.730E-06,-1.200
-2.720E-06,-1.320
-2.710E-06,-1.240
-2.700E-06,-1.320
-2.690E-06,-1.360
-2.680E-06,-1.440
-2.670E-06,-1.440
-2.660E-06,-1.480
-2.650E-06,-1.560
-2.640E-06,-1.600
-2.630E-06,-1.800
-2.620E-06,-1.880
-2.610E-06,-1.720
-2.600E-06,-1.480
-2.590E-06,-1.360
-2.580E-06,-1.160
-2.570E-06,-1.200
-2.560E-06,-1.280
-2.550E-06,-1.080
-2.540E-06,-1.080
-2.530E-06,-0.680
-2.520E-06,-0.760
-2.510E-06,-1.000
-2.500E-06,-1.200
-2.490E-06,-1.360
-2.480E-06,-1.360
-2.470E-06,-1.320
-2.460E-06,-1.360
-2.450E-06,-1.440
-2.440E-06,-1.520
-2.430E-06,-1.520
-2.420E-06,-1.400
-2.410E-06,-1.320
-2.400E-06,-1.280
-2.390E-06,-1.120
-2.380E-06,-1.120
-2.370E-06,-1.000
-2.360E-06,-0.920
-2.350E-06,-0.800
-2.340E-06,-0.760
-2.330E-06,-0.600
-2.320E-06,-0.520
-2.310E-06,-0.400
-2.300E-06,-0.400
-2.290E-06,-0.320
-2.280E-06,-0.400
-2.270E-06,-0.360
-2.260E-06,-0.320
-2.250E-06,-0.360
-2.240E-06,-0.440
-2.230E-06,-0.480
-2.220E-06,-0.560
-2.210E-06,-0.680
-2.200E-06,-0.760
-2.190E-06,-0.880
-2.180E-06,-1.040
-2.170E-06,-1.120
-2.160E-06,-1.240
-2.150E-06,-1.320
-2.140E-06,-1.480
-2.130E-06,-1.480
-2.120E-06,-1.680
-2.110E-06,-1.680
-2.100E-06,-1.840
-2.090E-06,-1.880
-2.080E-06,-2.000
-2.070E-06,-2.000
-2.060E-06,-2.080
-2.050E-06,-2.000
-2.040E-06,-1.880
-2.030E-06,-1.760
-2.020E-06,-1.560
-2.010E-06,-1.600
-2.000E-06,-1.560
-1.990E-06,-1.560
-1.980E-06,-1.680
-1.970E-06,-1.760
-1.960E-06,-1.840
-1.950E-06,-1.880
-1.940E-06,-2.080
-1.930E-06,-2.080
-1.920E-06,-2.040
-1.910E-06,-2.040
-1.900E-06,-2.080
-1.890E-06,-2.280
-1.880E-06,-2.440
-1.870E-06,-2.720
-1.860E-06,-2.880
-1.850E-06,-3.080
-1.840E-06,-3.360
-1.830E-06,-3.520
-1.820E-06,-3.640
-1.810E-06,-3.640
-1.800E-06,-3.760
-1.790E-06,-3.680
-1.780E-06,-3.760
-1.770E-06,-3.720
-1.760E-06,-3.440
-1.750E-06,-3.160
-1.740E-06,-2.680
-1.730E-06,-2.600
-1.720E-06,-2.240
-1.710E-06,-2.400
-1.700E-06,-2.080
-1.690E-06,-1.800
-1.680E-06,-1.560
-1.670E-06,-1.320
-1.660E-06,-1.360
-1.650E-06,-1.560
-1.640E-06,-1.600
-1.630E-06,-1.480
-1.620E-06,-1.360
-1.610E-06,-1.560
-1.600E-06,-1.720
-1.590E-06,-2.120
-1.580E-06,-2.360
-1.570E-06,-2.520
-1.560E-06,-2.680
-1.550E-06,-2.720
-1.540E-06,-2.880
-1.530E-06,-2.800
-1.520E-06,-2.920
-1.510E-06,-2.720
-1.500E-06,-2.800
-1.490E-06,-2.640
-1.480E-06,-2.600
-1.470E-06,-2.480
-1.460E-06,-2.360
-1.450E-06,-1.960
-1.440E-06,-1.600
-1.430E-06,-1.160
-1.420E-06,-0.880
-1.410E-06,-0.640
-1.400E-06,-0.640
-1.390E-06,-0.800
-1.380E-06,-0.800
-1.370E-06,-1.000
-1.360E-06,-0.880
-1.350E-06,-1.160
-1.340E-06,-0.920
-1.330E-06,-1.000
-1.320E-06,-0.680
-1.310E-06,-0.480
-1.300E-06,-0.320
-1.290E-06,-0.400
-1.280E-06,-0.680
-1.270E-06,-1.040
-1.260E-06,-1.320
-1.250E-06,-1.440
-1.240E-06,-1.680
-1.230E-06,-1.960
-1.220E-06,-2.200
-1.210E-06,-2.520
-1.200E-06,-2.480
-1.190E-06,-2.640
-1.180E-06,-2.600
-1.170E-06,-2.640
-1.160E-06,-2.720
-1.150E-06,-2.680
-1.140E-06,-2.720
-1.130E-06,-2.520
-1.120E-06,-2.520
-1.110E-06,-2.240
-1.100E-06,-2.080
-1.090E-06,-1.840
-1.080E-06,-1.480
-1.070E-06,-1.400
-1.060E-06,-0.880
-1.050E-06,-0.840
-1.040E-06,-0.560
-1.030E-06,-0.560
-1.020E-06,-0.760
-1.010E-06,-0.880
-1.000E-06,-1.160
-9.900E-07,-1.400
-9.800E-07,-1.680
-9.700E-07,-2.000
-9.600E-07,-2.240
-9.500E-07,-2.520
-9.400E-07,-2.720
-9.300E-07,-3.000
-9.200E-07,-3.160
-9.100E-07,-3.160
-9.000E-07,-3.320
-8.900E-07,-3.240
-8.800E-07,-3.280
-8.700E-07,-3.200
-8.600E-07,-3.080
-8.500E-07,-2.960
-8.400E-07,-2.680
-8.300E-07,-2.600
-8.200E-07,-2.280
-8.100E-07,-2.040
-8.000E-07,-1.760
-7.900E-07,-1.520
-7.800E-07,-1.400
-7.700E-07,-1.120
-7.600E-07,-0.960
-7.500E-07,-1.000
-7.400E-07,-0.920
-7.300E-07,-0.960
-7.200E-07,-1.000
-7.100E-07,-1.160
-7.000E-07,-1.360
-6.900E-07,-1.600
-6.800E-07,-1.840
-6.700E-07,-2.160
-6.600E-07,-2.360
-6.500E-07,-2.320
-6.400E-07,-2.200
-6.300E-07,-1.920
-6.200E-07,-1.520
-6.100E-07,-1.560
-6.000E-07,-1.600
-5.900E-07,-1.920
-5.800E-07,-2.440
-5.700E-07,-2.880
-5.600E-07,-3.400
-5.500E-07,-3.800
-5.400E-07,-4.240
-5.300E-07,-4.680
-5.200E-07,-4.960
-5.100E-07,-5.200
-5.000E-07,-5.240
-4.900E-07,-5.240
-4.800E-07,-5.240
-4.700E-07,-5.240
-4.600E-07,-5.240
-4.500E-07,-5.200
-4.400E-07,-5.240
-4.300E-07,-5.240
-4.200E-07,-5.200
-4.100E-07,-5.240
-4.000E-07,-5.240
-3.900E-07,-5.240
-3.800E-07,-5.240
-3.700E-07,-5.240
-3.600E-07,-5.240
-3.500E-07,-5.240
-3.400E-07,-5.240
-3.300E-07,-5.240
-3.200E-07,-5.240
-3.100E-07,-5.240
-3.000E-07,-5.240
-2.900E-07,-5.200
-2.800E-07,-5.200
-2.700E-07,-5.200
-2.600E-07,-5.240
-2.500E-07,-5.200
-2.400E-07,-5.200
-2.300E-07,-5.200
-2.200E-07,-5.200
-2.100E-07,-5.200
-2.000E-07,-5.200
-1.900E-07,-5.240
-1.800E-07,-5.240
-1.700E-07,-5.240
-1.600E-07,-5.200
-1.500E-07,-5.240
-1.400E-07,-5.240
-1.300E-07,-5.240
-1.200E-07,-5.240
-1.100E-07,-5.200
-1.000E-07,-5.240
-9.000E-08,-5.200
-8.000E-08,-5.240
-7.000E-08,-5.240
-6.000E-08,-5.240
-5.000E-08,-5.240
-4.000E-08,-5.200
-3.000E-08,-5.200
-2.000E-08,-4.560
-1.000E-08,-4.000
0.000E+00,-4.760
1.000E-08,-4.480
2.000E-08,-5.000
3.000E-08,-5.000
4.000E-08,-5.240
5.000E-08,-5.240
6.000E-08,-5.240
7.000E-08,-5.200
8.000E-08,-5.200
9.000E-08,-5.200
1.000E-07,-5.240
1.100E-07,-5.240
1.200E-07,-5.200
1.300E-07,-5.240
1.400E-07,-5.240
1.500E-07,-5.240
1.600E-07,-5.240
1.700E-07,-5.240
1.800E-07,-5.200
1.900E-07,-5.200
2.000E-07,-5.240
2.100E-07,-5.120
2.200E-07,-4.840
2.300E-07,-4.680
2.400E-07,-4.520
2.500E-07,-4.560
2.600E-07,-4.280
2.700E-07,-4.280
2.800E-07,-4.120
2.900E-07,-4.200
3.000E-07,-4.080
3.100E-07,-4.040
3.200E-07,-3.920
3.300E-07,-3.840
3.400E-07,-3.560
3.500E-07,-3.440
3.600E-07,-3.320
3.700E-07,-3.360
3.800E-07,-3.440
3.900E-07,-3.640
4.000E-07,-3.920
4.100E-07,-4.200
4.200E-07,-4.520
4.300E-07,-4.800
4.400E-07,-5.000
4.500E-07,-5.120
4.600E-07,-5.240
4.700E-07,-5.240
4.800E-07,-5.240
4.900E-07,-5.120
5.000E-07,-4.960
5.100E-07,-4.840
5.200E-07,-4.480
5.300E-07,-4.280
5.400E-07,-4.000
5.500E-07,-3.800
5.600E-07,-3.520
5.700E-07,-3.280
5.800E-07,-3.080
5.900E-07,-2.880
6.000E-07,-2.680
6.100E-07,-2.480
6.200E-07,-2.320
6.300E-07,-2.160
6.400E-07,-2.120
6.500E-07,-2.040
6.600E-07,-2.000
6.700E-07,-2.000
6.800E-07,-1.920
6.900E-07,-2.000
7.000E-07,-2.040
7.100E-07,-2.000
7.200E-07,-1.960
7.300E-07,-2.080
7.400E-07,-2.200
7.500E-07,-2.360
7.600E-07,-2.480
7.700E-07,-2.560
7.800E-07,-2.720
7.900E-07,-2.800
8.000E-07,-2.840
8.100E-07,-2.960
8.200E-07,-3.040
8.300E-07,-3.040
8.400E-07,-3.080
8.500E-07,-3.080
8.600E-07,-3.000
8.700E-07,-3.000
8.800E-07,-2.920
8.900E-07,-2.920
9.000E-07,-2.840
9.100E-07,-2.680
9.200E-07,-2.640
9.300E-07,-2.560
9.400E-07,-2.480
9.500E-07,-2.480
9.600E-07,-2.440
9.700E-07,-2.360
9.800E-07,-2.320
9.900E-07,-2.360
1.000E-06,-2.280
1.010E-06,-2.280
1.020E-06,-2.160
1.030E-06,-2.160
1.040E-06,-2.080
1.050E-06,-2.000
1.060E-06,-1.920
1.070E-06,-1.800
1.080E-06,-1.760
1.090E-06,-1.720
1.100E-06,-1.600
1.110E-06,-1.520
1.120E-06,-1.480
1.130E-06,-1.400
1.140E-06,-1.400
1.150E-06,-1.320
1.160E-06,-1.240
1.170E-06,-1.200
1.180E-06,-1.080
1.190E-06,-1.040
1.200E-06,-1.000
1.210E-06,-0.920
1.220E-06,-0.840
1.230E-06,-0.760
1.240E-06,-0.640
1.250E-06,-0.560
1.260E-06,-0.520
1.270E-06,-0.440
1.280E-06,-0.400
1.290E-06,-0.320
1.300E-06,-0.320
1.310E-06,-0.320
1.320E-06,-0.200
1.330E-06,-0.160
1.340E-06,-0.160
1.350E-06,-0.040
1.360E-06,0.000
1.370E-06,0.000
1.380E-06,0.000
1.390E-06,0.080
1.400E-06,0.040
1.410E-06,0.160
1.420E-06,0.080
1.430E-06,0.080
1.440E-06,0.080
1.450E-06,0.080
1.460E-06,0.080
1.470E-06,0.080
1.480E-06,0.080
1.490E-06,0.120
1.500E-06,0.160
1.510E-06,0.120
1.520E-06,0.080
1.530E-06,0.120
1.540E-06,0.080
1.550E-06,0.080
1.560E-06,0.040
1.570E-06,0.080
1.580E-06,0.040
1.590E-06,0.040
1.600E-06,0.120
1.610E-06,0.120
1.620E-06,0.040
1.630E-06,0.080
1.640E-06,0.160
1.650E-06,0.240
1.660E-06,0.320
1.670E-06,0.400
1.680E-06,0.400
1.690E-06,0.440
1.700E-06,0.440
1.710E-06,0.520
1.720E-06,0.440
1.730E-06,0.440
1.740E-06,0.400
1.750E-06,0.320
1.760E-06,0.320
1.770E-06,0.320
1.780E-06,0.240
1.790E-06,0.240
1.800E-06,0.160
1.810E-06,0.120
1.820E-06,0.160
1.830E-06,0.120
1.840E-06,0.080
1.850E-06,0.040
1.860E-06,0.040
1.870E-06,0.040
1.880E-06,0.000
1.890E-06,0.040
1.900E-06,0.000
1.910E-06,0.080
1.920E-06,0.160
1.930E-06,0.160
1.940E-06,0.200
1.950E-06,0.240
1.960E-06,0.320
1.970E-06,0.360
1.980E-06,0.400
1.990E-06,0.440
2.000E-06,0.480
2.010E-06,0.600
2.020E-06,0.600
2.030E-06,0.640
2.040E-06,0.720
2.050E-06,0.840
2.060E-06,0.880
2.070E-06,0.960
2.080E-06,0.920
2.090E-06,0.920
2.100E-06,0.800
2.110E-06,0.640
2.120E-06,0.560
2.130E-06,0.400
2.140E-06,0.280
2.150E-06,0.240
2.160E-06,0.240
2.170E-06,0.320
2.180E-06,0.320
2.190E-06,0.400
2.200E-06,0.480
2.210E-06,0.560
2.220E-06,0.600
2.230E-06,0.560
2.240E-06,0.600
2.250E-06,0.520
2.260E-06,0.560
2.270E-06,0.520
2.280E-06,0.440
2.290E-06,0.400
2.300E-06,0.440
2.310E-06,0.400
2.320E-06,0.440
2.330E-06,0.520
2.340E-06,0.560
2.350E-06,0.600
2.360E-06,0.680
2.370E-06,0.640
2.380E-06,0.640
2.390E-06,0.640
2.400E-06,0.680
2.410E-06,0.640
2.420E-06,0.600
2.430E-06,0.520
2.440E-06,0.480
2.450E-06,0.400
2.460E-06,0.440
2.470E-06,0.400
2.480E-06,0.440
2.490E-06,0.480
2.500E-06,0.600
2.510E-06,0.600
2.520E-06,0.600
2.530E-06,0.560
2.540E-06,0.480
2.550E-06,0.360
2.560E-06,0.080
2.570E-06,0.000
2.580E-06,-0.040
2.590E-06,-0.120
2.600E-06,-0.120
2.610E-06,-0.080
2.620E-06,0.120
2.630E-06,0.160
2.640E-06,0.360
2.650E-06,0.560
2.660E-06,0.640
2.670E-06,0.760
2.680E-06,0.800
2.690E-06,0.840
2.700E-06,0.800
2.710E-06,0.800
2.720E-06,0.760
2.730E-06,0.760
2.740E-06,0.680
2.750E-06,0.640
2.760E-06,0.560
2.770E-06,0.480
2.780E-06,0.400
2.790E-06,0.320
2.800E-06,0.240
2.810E-06,0.240
2.820E-06,0.160
2.830E-06,0.160
2.840E-06,0.120
2.850E-06,0.080
2.860E-06,0.040
2.870E-06,0.040
2.880E-06,-0.080
2.890E-06,-0.080
2.900E-06,0.040
2.910E-06,0.000
2.920E-06,-0.040
2.930E-06,-0.040
2.940E-06,-0.040
2.950E-06,-0.040
2.960E-06,-0.040
2.970E-06,-0.040
