mediciones/Mediciones filtradas (saque las feas)/5-15/0.01/WaveData4708.csv

#timebase=2000000(ps)
,#voltbase=100000(mv/100)
#size=4000
-8.400E-06,0.000
-8.390E-06,-0.004
-8.380E-06,-0.004
-8.370E-06,0.000
-8.360E-06,0.008
-8.350E-06,0.008
-8.340E-06,0.008
-8.330E-06,-0.008
-8.320E-06,0.000
-8.310E-06,-0.004
-8.300E-06,0.004
-8.290E-06,0.012
-8.280E-06,0.004
-8.270E-06,0.008
-8.260E-06,0.000
-8.250E-06,-0.004
-8.240E-06,0.008
-8.230E-06,0.004
-8.220E-06,0.004
-8.210E-06,0.000
-8.200E-06,0.000
-8.190E-06,0.000
-8.180E-06,0.008
-8.170E-06,0.012
-8.160E-06,0.012
-8.150E-06,0.004
-8.140E-06,0.000
-8.130E-06,-0.004
-8.120E-06,0.000
-8.110E-06,0.004
-8.100E-06,0.008
-8.090E-06,0.000
-8.080E-06,0.004
-8.070E-06,0.004
-8.060E-06,0.004
-8.050E-06,0.008
-8.040E-06,0.008
-8.030E-06,0.008
-8.020E-06,0.000
-8.010E-06,0.000
-8.000E-06,-0.008
-7.990E-06,0.000
-7.980E-06,0.004
-7.970E-06,0.008
-7.960E-06,0.004
-7.950E-06,0.000
-7.940E-06,-0.004
-7.930E-06,0.000
-7.920E-06,-0.004
-7.910E-06,0.000
-7.900E-06,0.004
-7.890E-06,0.004
-7.880E-06,0.000
-7.870E-06,0.000
-7.860E-06,0.000
-7.850E-06,-0.008
-7.840E-06,-0.008
-7.830E-06,-0.008
-7.820E-06,0.012
-7.810E-06,0.020
-7.800E-06,0.016
-7.790E-06,0.000
-7.780E-06,-0.004
-7.770E-06,-0.008
-7.760E-06,0.000
-7.750E-06,0.000
-7.740E-06,0.012
-7.730E-06,0.012
-7.720E-06,0.008
-7.710E-06,0.008
-7.700E-06,0.004
-7.690E-06,-0.004
-7.680E-06,-0.004
-7.670E-06,0.004
-7.660E-06,0.000
-7.650E-06,0.004
-7.640E-06,0.008
-7.630E-06,0.004
-7.620E-06,0.000
-7.610E-06,0.000
-7.600E-06,-0.004
-7.590E-06,0.004
-7.580E-06,0.004
-7.570E-06,0.004
-7.560E-06,-0.004
-7.550E-06,0.000
-7.540E-06,0.000
-7.530E-06,0.000
-7.520E-06,0.004
-7.510E-06,-0.004
-7.500E-06,0.000
-7.490E-06,0.000
-7.480E-06,-0.004
-7.470E-06,0.008
-7.460E-06,0.008
-7.450E-06,0.000
-7.440E-06,-0.004
-7.430E-06,0.000
-7.420E-06,-0.004
-7.410E-06,0.008
-7.400E-06,0.008
-7.390E-06,-0.004
-7.380E-06,-0.004
-7.370E-06,-0.004
-7.360E-06,-0.004
-7.350E-06,0.008
-7.340E-06,0.008
-7.330E-06,0.008
-7.320E-06,0.000
-7.310E-06,0.000
-7.300E-06,-0.004
-7.290E-06,0.004
-7.280E-06,0.008
-7.270E-06,0.008
-7.260E-06,0.000
-7.250E-06,0.000
-7.240E-06,-0.004
-7.230E-06,0.000
-7.220E-06,0.012
-7.210E-06,0.012
-7.200E-06,-0.004
-7.190E-06,0.000
-7.180E-06,0.000
-7.170E-06,0.004
-7.160E-06,0.012
-7.150E-06,0.012
-7.140E-06,0.004
-7.130E-06,0.000
-7.120E-06,-0.004
-7.110E-06,-0.004
-7.100E-06,0.004
-7.090E-06,0.008
-7.080E-06,0.004
-7.070E-06,0.000
-7.060E-06,-0.004
-7.050E-06,0.000
-7.040E-06,0.004
-7.030E-06,0.008
-7.020E-06,0.004
-7.010E-06,0.004
-7.000E-06,0.004
-6.990E-06,0.004
-6.980E-06,0.000
-6.970E-06,0.004
-6.960E-06,0.004
-6.950E-06,0.000
-6.940E-06,0.004
-6.930E-06,0.008
-6.920E-06,0.012
-6.910E-06,0.004
-6.900E-06,0.000
-6.890E-06,-0.008
-6.880E-06,-0.004
-6.870E-06,0.000
-6.860E-06,0.012
-6.850E-06,0.016
-6.840E-06,0.008
-6.830E-06,0.008
-6.820E-06,0.000
-6.810E-06,-0.004
-6.800E-06,-0.008
-6.790E-06,-0.004
-6.780E-06,0.000
-6.770E-06,0.012
-6.760E-06,0.012
-6.750E-06,0.008
-6.740E-06,0.004
-6.730E-06,0.000
-6.720E-06,-0.008
-6.710E-06,-0.004
-6.700E-06,0.004
-6.690E-06,0.012
-6.680E-06,0.020
-6.670E-06,0.008
-6.660E-06,0.004
-6.650E-06,-0.004
-6.640E-06,0.000
-6.630E-06,-0.008
-6.620E-06,-0.004
-6.610E-06,-0.004
-6.600E-06,-0.004
-6.590E-06,0.008
-6.580E-06,0.008
-6.570E-06,-0.004
-6.560E-06,-0.012
-6.550E-06,-0.008
-6.540E-06,0.000
-6.530E-06,0.008
-6.520E-06,0.024
-6.510E-06,0.012
-6.500E-06,-0.004
-6.490E-06,-0.020
-6.480E-06,-0.008
-6.470E-06,0.004
-6.460E-06,0.012
-6.450E-06,0.020
-6.440E-06,0.012
-6.430E-06,0.000
-6.420E-06,-0.008
-6.410E-06,-0.004
-6.400E-06,0.000
-6.390E-06,0.008
-6.380E-06,0.008
-6.370E-06,0.012
-6.360E-06,0.000
-6.350E-06,0.004
-6.340E-06,0.004
-6.330E-06,0.004
-6.320E-06,0.004
-6.310E-06,0.004
-6.300E-06,0.012
-6.290E-06,-0.004
-6.280E-06,0.000
-6.270E-06,-0.004
-6.260E-06,0.000
-6.250E-06,0.000
-6.240E-06,0.000
-6.230E-06,0.004
-6.220E-06,0.004
-6.210E-06,0.004
-6.200E-06,0.000
-6.190E-06,0.004
-6.180E-06,0.000
-6.170E-06,0.004
-6.160E-06,0.000
-6.150E-06,0.000
-6.140E-06,0.000
-6.130E-06,0.004
-6.120E-06,0.000
-6.110E-06,-0.004
-6.100E-06,0.000
-6.090E-06,-0.004
-6.080E-06,-0.004
-6.070E-06,0.000
-6.060E-06,0.004
-6.050E-06,0.004
-6.040E-06,0.000
-6.030E-06,0.000
-6.020E-06,-0.004
-6.010E-06,0.000
-6.000E-06,0.000
-5.990E-06,-0.004
-5.980E-06,0.000
-5.970E-06,0.004
-5.960E-06,0.008
-5.950E-06,0.008
-5.940E-06,0.004
-5.930E-06,0.000
-5.920E-06,0.000
-5.910E-06,-0.004
-5.900E-06,0.000
-5.890E-06,0.004
-5.880E-06,0.008
-5.870E-06,0.008
-5.860E-06,0.004
-5.850E-06,-0.004
-5.840E-06,-0.004
-5.830E-06,0.000
-5.820E-06,0.000
-5.810E-06,0.012
-5.800E-06,0.012
-5.790E-06,0.012
-5.780E-06,0.000
-5.770E-06,-0.004
-5.760E-06,0.000
-5.750E-06,-0.004
-5.740E-06,0.000
-5.730E-06,0.004
-5.720E-06,0.004
-5.710E-06,0.000
-5.700E-06,0.004
-5.690E-06,0.004
-5.680E-06,0.004
-5.670E-06,0.000
-5.660E-06,-0.004
-5.650E-06,-0.004
-5.640E-06,0.000
-5.630E-06,-0.004
-5.620E-06,0.004
-5.610E-06,0.004
-5.600E-06,0.008
-5.590E-06,0.004
-5.580E-06,0.004
-5.570E-06,0.004
-5.560E-06,0.004
-5.550E-06,-0.004
-5.540E-06,0.000
-5.530E-06,0.008
-5.520E-06,0.012
-5.510E-06,0.000
-5.500E-06,0.000
-5.490E-06,-0.004
-5.480E-06,0.000
-5.470E-06,0.000
-5.460E-06,0.004
-5.450E-06,0.004
-5.440E-06,0.004
-5.430E-06,0.008
-5.420E-06,0.000
-5.410E-06,0.000
-5.400E-06,0.004
-5.390E-06,-0.004
-5.380E-06,-0.004
-5.370E-06,0.004
-5.360E-06,0.000
-5.350E-06,0.008
-5.340E-06,0.008
-5.330E-06,0.008
-5.320E-06,0.000
-5.310E-06,0.000
-5.300E-06,0.000
-5.290E-06,0.000
-5.280E-06,0.004
-5.270E-06,0.008
-5.260E-06,0.012
-5.250E-06,0.000
-5.240E-06,-0.004
-5.230E-06,-0.004
-5.220E-06,0.000
-5.210E-06,0.004
-5.200E-06,0.012
-5.190E-06,0.008
-5.180E-06,0.012
-5.170E-06,0.004
-5.160E-06,-0.008
-5.150E-06,0.000
-5.140E-06,-0.004
-5.130E-06,0.008
-5.120E-06,0.016
-5.110E-06,0.004
-5.100E-06,0.004
-5.090E-06,0.000
-5.080E-06,-0.004
-5.070E-06,0.000
-5.060E-06,0.004
-5.050E-06,0.008
-5.040E-06,0.012
-5.030E-06,0.004
-5.020E-06,0.000
-5.010E-06,-0.004
-5.000E-06,-0.008
-4.990E-06,-0.008
-4.980E-06,-0.004
-4.970E-06,0.004
-4.960E-06,0.008
-4.950E-06,0.008
-4.940E-06,0.012
-4.930E-06,0.008
-4.920E-06,-0.004
-4.910E-06,-0.004
-4.900E-06,-0.004
-4.890E-06,0.000
-4.880E-06,0.004
-4.870E-06,0.012
-4.860E-06,0.008
-4.850E-06,0.004
-4.840E-06,0.000
-4.830E-06,0.000
-4.820E-06,-0.004
-4.810E-06,-0.004
-4.800E-06,0.000
-4.790E-06,0.008
-4.780E-06,0.008
-4.770E-06,0.008
-4.760E-06,0.008
-4.750E-06,0.004
-4.740E-06,-0.004
-4.730E-06,-0.008
-4.720E-06,-0.004
-4.710E-06,0.004
-4.700E-06,0.008
-4.690E-06,0.012
-4.680E-06,0.016
-4.670E-06,0.012
-4.660E-06,0.000
-4.650E-06,-0.008
-4.640E-06,-0.012
-4.630E-06,-0.008
-4.620E-06,0.000
-4.610E-06,0.008
-4.600E-06,0.012
-4.590E-06,0.004
-4.580E-06,0.004
-4.570E-06,-0.004
-4.560E-06,0.000
-4.550E-06,0.004
-4.540E-06,0.008
-4.530E-06,0.000
-4.520E-06,0.004
-4.510E-06,0.004
-4.500E-06,-0.004
-4.490E-06,-0.004
-4.480E-06,0.000
-4.470E-06,0.000
-4.460E-06,0.012
-4.450E-06,0.004
-4.440E-06,0.008
-4.430E-06,0.000
-4.420E-06,0.000
-4.410E-06,-0.008
-4.400E-06,0.000
-4.390E-06,0.004
-4.380E-06,0.008
-4.370E-06,0.012
-4.360E-06,0.008
-4.350E-06,0.004
-4.340E-06,-0.004
-4.330E-06,-0.004
-4.320E-06,-0.004
-4.310E-06,0.008
-4.300E-06,0.008
-4.290E-06,0.016
-4.280E-06,0.016
-4.270E-06,0.008
-4.260E-06,-0.004
-4.250E-06,-0.004
-4.240E-06,-0.004
-4.230E-06,0.008
-4.220E-06,0.008
-4.210E-06,0.012
-4.200E-06,0.012
-4.190E-06,-0.004
-4.180E-06,-0.008
-4.170E-06,-0.008
-4.160E-06,0.000
-4.150E-06,-0.004
-4.140E-06,-0.004
-4.130E-06,0.008
-4.120E-06,0.008
-4.110E-06,0.008
-4.100E-06,0.000
-4.090E-06,-0.008
-4.080E-06,-0.012
-4.070E-06,-0.008
-4.060E-06,0.000
-4.050E-06,0.008
-4.040E-06,0.012
-4.030E-06,0.016
-4.020E-06,0.008
-4.010E-06,-0.004
-4.000E-06,-0.008
-3.990E-06,-0.016
-3.980E-06,0.000
-3.970E-06,0.008
-3.960E-06,0.024
-3.950E-06,0.016
-3.940E-06,0.012
-3.930E-06,-0.004
-3.920E-06,-0.008
-3.910E-06,-0.004
-3.900E-06,0.000
-3.890E-06,0.008
-3.880E-06,0.008
-3.870E-06,0.004
-3.860E-06,0.008
-3.850E-06,0.000
-3.840E-06,0.000
-3.830E-06,0.000
-3.820E-06,0.012
-3.810E-06,0.000
-3.800E-06,0.004
-3.790E-06,0.000
-3.780E-06,0.000
-3.770E-06,0.000
-3.760E-06,0.000
-3.750E-06,0.000
-3.740E-06,0.008
-3.730E-06,0.008
-3.720E-06,0.008
-3.710E-06,0.008
-3.700E-06,0.000
-3.690E-06,-0.004
-3.680E-06,-0.004
-3.670E-06,0.004
-3.660E-06,0.012
-3.650E-06,0.008
-3.640E-06,0.012
-3.630E-06,0.000
-3.620E-06,0.000
-3.610E-06,0.000
-3.600E-06,0.004
-3.590E-06,0.008
-3.580E-06,0.012
-3.570E-06,0.008
-3.560E-06,0.004
-3.550E-06,0.000
-3.540E-06,0.004
-3.530E-06,0.008
-3.520E-06,0.008
-3.510E-06,0.008
-3.500E-06,0.004
-3.490E-06,0.000
-3.480E-06,0.000
-3.470E-06,0.000
-3.460E-06,0.012
-3.450E-06,0.004
-3.440E-06,0.008
-3.430E-06,0.004
-3.420E-06,0.004
-3.410E-06,0.004
-3.400E-06,0.000
-3.390E-06,0.000
-3.380E-06,-0.004
-3.370E-06,-0.004
-3.360E-06,0.004
-3.350E-06,0.012
-3.340E-06,0.016
-3.330E-06,0.004
-3.320E-06,0.008
-3.310E-06,0.000
-3.300E-06,0.000
-3.290E-06,0.004
-3.280E-06,0.008
-3.270E-06,0.016
-3.260E-06,0.012
-3.250E-06,0.008
-3.240E-06,0.000
-3.230E-06,-0.004
-3.220E-06,-0.004
-3.210E-06,0.004
-3.200E-06,0.012
-3.190E-06,0.012
-3.180E-06,0.008
-3.170E-06,0.008
-3.160E-06,0.000
-3.150E-06,0.000
-3.140E-06,0.004
-3.130E-06,0.012
-3.120E-06,0.016
-3.110E-06,0.012
-3.100E-06,0.008
-3.090E-06,0.004
-3.080E-06,0.004
-3.070E-06,0.008
-3.060E-06,0.012
-3.050E-06,0.020
-3.040E-06,0.020
-3.030E-06,0.008
-3.020E-06,-0.008
-3.010E-06,-0.020
-3.000E-06,-0.004
-2.990E-06,0.004
-2.980E-06,0.024
-2.970E-06,0.040
-2.960E-06,0.032
-2.950E-06,0.008
-2.940E-06,-0.008
-2.930E-06,-0.016
-2.920E-06,-0.008
-2.910E-06,0.008
-2.900E-06,0.028
-2.890E-06,0.028
-2.880E-06,0.012
-2.870E-06,-0.004
-2.860E-06,-0.028
-2.850E-06,-0.016
-2.840E-06,0.012
-2.830E-06,0.024
-2.820E-06,0.040
-2.810E-06,0.032
-2.800E-06,0.008
-2.790E-06,-0.016
-2.780E-06,-0.020
-2.770E-06,-0.008
-2.760E-06,0.016
-2.750E-06,0.020
-2.740E-06,0.024
-2.730E-06,0.008
-2.720E-06,-0.004
-2.710E-06,-0.008
-2.700E-06,-0.004
-2.690E-06,0.012
-2.680E-06,0.032
-2.670E-06,0.032
-2.660E-06,0.032
-2.650E-06,0.024
-2.640E-06,-0.004
-2.630E-06,-0.008
-2.620E-06,-0.012
-2.610E-06,0.000
-2.600E-06,0.008
-2.590E-06,0.028
-2.580E-06,0.028
-2.570E-06,0.020
-2.560E-06,0.012
-2.550E-06,0.008
-2.540E-06,0.004
-2.530E-06,0.008
-2.520E-06,0.028
-2.510E-06,0.032
-2.500E-06,0.032
-2.490E-06,0.012
-2.480E-06,0.000
-2.470E-06,-0.004
-2.460E-06,0.008
-2.450E-06,0.028
-2.440E-06,0.040
-2.430E-06,0.044
-2.420E-06,0.040
-2.410E-06,0.008
-2.400E-06,-0.024
-2.390E-06,-0.008
-2.380E-06,-0.016
-2.370E-06,-0.020
-2.360E-06,-0.024
-2.350E-06,-0.052
-2.340E-06,-0.080
-2.330E-06,-0.076
-2.320E-06,-0.024
-2.310E-06,0.000
-2.300E-06,0.024
-2.290E-06,0.032
-2.280E-06,0.012
-2.270E-06,-0.028
-2.260E-06,-0.076
-2.250E-06,-0.060
-2.240E-06,-0.004
-2.230E-06,0.044
-2.220E-06,0.056
-2.210E-06,0.020
-2.200E-06,-0.012
-2.190E-06,-0.028
-2.180E-06,-0.024
-2.170E-06,-0.016
-2.160E-06,0.004
-2.150E-06,0.012
-2.140E-06,0.016
-2.130E-06,0.008
-2.120E-06,0.000
-2.110E-06,0.000
-2.100E-06,-0.008
-2.090E-06,-0.012
-2.080E-06,-0.012
-2.070E-06,0.004
-2.060E-06,0.028
-2.050E-06,0.036
-2.040E-06,0.024
-2.030E-06,0.004
-2.020E-06,-0.008
-2.010E-06,-0.004
-2.000E-06,0.012
-1.990E-06,0.036
-1.980E-06,0.052
-1.970E-06,0.052
-1.960E-06,0.036
-1.950E-06,0.008
-1.940E-06,-0.008
-1.930E-06,-0.012
-1.920E-06,0.004
-1.910E-06,0.032
-1.900E-06,0.060
-1.890E-06,0.072
-1.880E-06,0.060
-1.870E-06,0.028
-1.860E-06,0.004
-1.850E-06,0.000
-1.840E-06,0.012
-1.830E-06,0.048
-1.820E-06,0.064
-1.810E-06,0.064
-1.800E-06,0.052
-1.790E-06,0.020
-1.780E-06,-0.004
-1.770E-06,-0.008
-1.760E-06,-0.008
-1.750E-06,0.008
-1.740E-06,0.040
-1.730E-06,0.044
-1.720E-06,0.044
-1.710E-06,0.012
-1.700E-06,-0.016
-1.690E-06,-0.036
-1.680E-06,-0.028
-1.670E-06,-0.008
-1.660E-06,0.024
-1.650E-06,0.052
-1.640E-06,0.060
-1.630E-06,0.048
-1.620E-06,0.044
-1.610E-06,0.032
-1.600E-06,0.012
-1.590E-06,-0.036
-1.580E-06,-0.028
-1.570E-06,-0.004
-1.560E-06,-0.032
-1.550E-06,-0.140
-1.540E-06,-0.216
-1.530E-06,-0.264
-1.520E-06,-0.096
-1.510E-06,0.064
-1.500E-06,0.148
-1.490E-06,0.136
-1.480E-06,-0.004
-1.470E-06,-0.112
-1.460E-06,-0.180
-1.450E-06,-0.116
-1.440E-06,-0.004
-1.430E-06,0.096
-1.420E-06,0.124
-1.410E-06,0.072
-1.400E-06,-0.020
-1.390E-06,-0.092
-1.380E-06,-0.072
-1.370E-06,-0.016
-1.360E-06,0.048
-1.350E-06,0.060
-1.340E-06,0.044
-1.330E-06,0.008
-1.320E-06,0.012
-1.310E-06,-0.008
-1.300E-06,-0.008
-1.290E-06,0.024
-1.280E-06,0.040
-1.270E-06,0.036
-1.260E-06,0.024
-1.250E-06,0.016
-1.240E-06,-0.004
-1.230E-06,0.012
-1.220E-06,0.024
-1.210E-06,0.044
-1.200E-06,0.060
-1.190E-06,0.064
-1.180E-06,0.088
-1.170E-06,0.080
-1.160E-06,0.020
-1.150E-06,-0.104
-1.140E-06,-0.244
-1.130E-06,-0.232
-1.120E-06,-0.160
-1.110E-06,-0.020
-1.100E-06,0.176
-1.090E-06,0.268
-1.080E-06,0.188
-1.070E-06,-0.032
-1.060E-06,-0.204
-1.050E-06,-0.236
-1.040E-06,-0.100
-1.030E-06,0.088
-1.020E-06,0.220
-1.010E-06,0.224
-1.000E-06,0.112
-9.900E-07,-0.012
-9.800E-07,-0.120
-9.700E-07,-0.104
-9.600E-07,-0.028
-9.500E-07,0.100
-9.400E-07,0.184
-9.300E-07,0.200
-9.200E-07,0.144
-9.100E-07,0.060
-9.000E-07,-0.008
-8.900E-07,-0.016
-8.800E-07,0.024
-8.700E-07,0.092
-8.600E-07,0.160
-8.500E-07,0.152
-8.400E-07,0.096
-8.300E-07,0.008
-8.200E-07,-0.056
-8.100E-07,-0.072
-8.000E-07,-0.024
-7.900E-07,0.060
-7.800E-07,0.076
-7.700E-07,0.064
-7.600E-07,-0.076
-7.500E-07,-0.220
-7.400E-07,-0.300
-7.300E-07,-0.256
-7.200E-07,-0.136
-7.100E-07,0.044
-7.000E-07,0.192
-6.900E-07,0.176
-6.800E-07,0.060
-6.700E-07,-0.100
-6.600E-07,-0.192
-6.500E-07,-0.192
-6.400E-07,-0.068
-6.300E-07,0.080
-6.200E-07,0.184
-6.100E-07,0.188
-6.000E-07,0.068
-5.900E-07,-0.056
-5.800E-07,-0.124
-5.700E-07,-0.108
-5.600E-07,-0.020
-5.500E-07,0.104
-5.400E-07,0.168
-5.300E-07,0.176
-5.200E-07,0.132
-5.100E-07,0.084
-5.000E-07,0.040
-4.900E-07,0.044
-4.800E-07,0.060
-4.700E-07,0.104
-4.600E-07,0.092
-4.500E-07,0.052
-4.400E-07,0.000
-4.300E-07,-0.040
-4.200E-07,-0.064
-4.100E-07,-0.084
-4.000E-07,-0.068
-3.900E-07,-0.052
-3.800E-07,-0.036
-3.700E-07,-0.024
-3.600E-07,-0.016
-3.500E-07,-0.016
-3.400E-07,0.012
-3.300E-07,0.024
-3.200E-07,0.056
-3.100E-07,0.124
-3.000E-07,0.148
-2.900E-07,0.164
-2.800E-07,0.140
-2.700E-07,0.100
-2.600E-07,0.060
-2.500E-07,0.072
-2.400E-07,0.112
-2.300E-07,0.144
-2.200E-07,0.160
-2.100E-07,0.152
-2.000E-07,0.116
-1.900E-07,-0.028
-1.800E-07,-0.112
-1.700E-07,-0.112
-1.600E-07,-0.068
-1.500E-07,0.004
-1.400E-07,0.064
-1.300E-07,0.032
-1.200E-07,-0.024
-1.100E-07,-0.132
-1.000E-07,-0.204
-9.000E-08,-0.192
-8.000E-08,-0.052
-7.000E-08,0.112
-6.000E-08,0.156
-5.000E-08,-0.044
-4.000E-08,-0.216
-3.000E-08,-0.316
-2.000E-08,-0.220
-1.000E-08,0.260
0.000E+00,0.464
1.000E-08,0.128
2.000E-08,-0.512
3.000E-08,-0.512
4.000E-08,-0.508
5.000E-08,-0.172
6.000E-08,0.544
7.000E-08,0.540
8.000E-08,0.540
9.000E-08,-0.112
1.000E-07,-0.512
1.100E-07,-0.512
1.200E-07,-0.372
1.300E-07,0.092
1.400E-07,0.408
1.500E-07,0.540
1.600E-07,0.400
1.700E-07,0.112
1.800E-07,-0.268
1.900E-07,-0.344
2.000E-07,-0.436
2.100E-07,-0.396
2.200E-07,-0.124
2.300E-07,0.184
2.400E-07,0.368
2.500E-07,0.356
2.600E-07,0.136
2.700E-07,-0.200
2.800E-07,-0.360
2.900E-07,-0.332
3.000E-07,-0.064
3.100E-07,0.180
3.200E-07,0.340
3.300E-07,0.268
3.400E-07,0.104
3.500E-07,-0.140
3.600E-07,-0.284
3.700E-07,-0.248
3.800E-07,-0.092
3.900E-07,0.128
4.000E-07,0.240
4.100E-07,0.240
4.200E-07,0.116
4.300E-07,-0.020
4.400E-07,-0.136
4.500E-07,-0.152
4.600E-07,-0.080
4.700E-07,0.044
4.800E-07,0.168
4.900E-07,0.208
5.000E-07,0.164
5.100E-07,0.044
5.200E-07,-0.036
5.300E-07,-0.068
5.400E-07,-0.012
5.500E-07,0.064
5.600E-07,0.156
5.700E-07,0.188
5.800E-07,0.204
5.900E-07,0.172
6.000E-07,0.108
6.100E-07,0.060
6.200E-07,0.052
6.300E-07,0.076
6.400E-07,0.108
6.500E-07,0.104
6.600E-07,0.056
6.700E-07,0.012
6.800E-07,-0.008
6.900E-07,0.000
7.000E-07,0.032
7.100E-07,0.072
7.200E-07,0.076
7.300E-07,0.036
7.400E-07,-0.076
7.500E-07,-0.336
7.600E-07,-0.512
7.700E-07,-0.508
7.800E-07,-0.388
7.900E-07,-0.044
8.000E-07,0.296
8.100E-07,0.432
8.200E-07,0.284
8.300E-07,-0.104
8.400E-07,-0.364
8.500E-07,-0.420
8.600E-07,-0.224
8.700E-07,0.124
8.800E-07,0.312
8.900E-07,0.328
9.000E-07,0.160
9.100E-07,-0.072
9.200E-07,-0.300
9.300E-07,-0.284
9.400E-07,-0.148
9.500E-07,0.044
9.600E-07,0.228
9.700E-07,0.272
9.800E-07,0.160
9.900E-07,-0.016
1.000E-06,-0.156
1.010E-06,-0.192
1.020E-06,-0.072
1.030E-06,0.088
1.040E-06,0.256
1.050E-06,0.328
1.060E-06,0.268
1.070E-06,0.120
1.080E-06,0.016
1.090E-06,-0.024
1.100E-06,-0.036
1.110E-06,-0.004
1.120E-06,-0.012
1.130E-06,0.004
1.140E-06,-0.012
1.150E-06,-0.036
1.160E-06,-0.060
1.170E-06,-0.048
1.180E-06,-0.020
1.190E-06,-0.036
1.200E-06,-0.076
1.210E-06,-0.108
1.220E-06,-0.028
1.230E-06,0.000
1.240E-06,0.016
1.250E-06,-0.008
1.260E-06,-0.004
1.270E-06,-0.024
1.280E-06,-0.024
1.290E-06,0.024
1.300E-06,0.036
1.310E-06,0.056
1.320E-06,0.056
1.330E-06,0.044
1.340E-06,0.040
1.350E-06,0.068
1.360E-06,0.084
1.370E-06,0.124
1.380E-06,0.124
1.390E-06,0.120
1.400E-06,0.108
1.410E-06,0.080
1.420E-06,0.060
1.430E-06,0.060
1.440E-06,0.072
1.450E-06,0.088
1.460E-06,0.096
1.470E-06,0.100
1.480E-06,0.120
1.490E-06,0.124
1.500E-06,0.120
1.510E-06,0.100
1.520E-06,0.084
1.530E-06,0.072
1.540E-06,0.036
1.550E-06,-0.008
1.560E-06,-0.068
1.570E-06,-0.120
1.580E-06,-0.132
1.590E-06,-0.084
1.600E-06,-0.028
1.610E-06,-0.020
1.620E-06,-0.016
1.630E-06,-0.064
1.640E-06,-0.024
1.650E-06,0.040
1.660E-06,0.072
1.670E-06,0.124
1.680E-06,0.128
1.690E-06,0.096
1.700E-06,0.104
1.710E-06,0.144
1.720E-06,0.156
1.730E-06,0.160
1.740E-06,0.168
1.750E-06,0.188
1.760E-06,0.188
1.770E-06,0.192
1.780E-06,0.156
1.790E-06,0.100
1.800E-06,0.044
1.810E-06,0.008
1.820E-06,0.044
1.830E-06,0.140
1.840E-06,0.236
1.850E-06,0.308
1.860E-06,0.304
1.870E-06,0.208
1.880E-06,0.008
1.890E-06,-0.236
1.900E-06,-0.512
1.910E-06,-0.512
1.920E-06,-0.432
1.930E-06,0.000
1.940E-06,0.492
1.950E-06,0.540
1.960E-06,-0.124
1.970E-06,-0.512
1.980E-06,-0.508
1.990E-06,-0.512
2.000E-06,-0.512
2.010E-06,0.072
2.020E-06,0.540
2.030E-06,0.540
2.040E-06,0.456
2.050E-06,-0.336
2.060E-06,-0.512
2.070E-06,-0.508
2.080E-06,-0.228
2.090E-06,0.504
2.100E-06,0.540
2.110E-06,0.540
2.120E-06,0.272
2.130E-06,-0.452
2.140E-06,-0.512
2.150E-06,-0.512
2.160E-06,-0.164
2.170E-06,0.384
2.180E-06,0.544
2.190E-06,0.544
2.200E-06,0.224
2.210E-06,-0.260
2.220E-06,-0.508
2.230E-06,-0.508
2.240E-06,-0.224
2.250E-06,0.332
2.260E-06,0.540
2.270E-06,0.536
2.280E-06,0.244
2.290E-06,-0.168
2.300E-06,-0.440
2.310E-06,-0.436
2.320E-06,-0.176
2.330E-06,0.136
2.340E-06,0.392
2.350E-06,0.364
2.360E-06,0.204
2.370E-06,-0.088
2.380E-06,-0.244
2.390E-06,-0.260
2.400E-06,-0.060
2.410E-06,0.164
2.420E-06,0.352
2.430E-06,0.364
2.440E-06,0.224
2.450E-06,0.056
2.460E-06,-0.076
2.470E-06,-0.032
2.480E-06,0.080
2.490E-06,0.268
2.500E-06,0.360
2.510E-06,0.404
2.520E-06,0.324
2.530E-06,0.208
2.540E-06,0.104
2.550E-06,0.080
2.560E-06,0.156
2.570E-06,0.244
2.580E-06,0.340
2.590E-06,0.348
2.600E-06,0.300
2.610E-06,0.208
2.620E-06,0.144
2.630E-06,0.108
2.640E-06,0.132
2.650E-06,0.180
2.660E-06,0.236
2.670E-06,0.252
2.680E-06,0.212
2.690E-06,0.152
2.700E-06,0.076
2.710E-06,0.012
2.720E-06,-0.032
2.730E-06,-0.036
2.740E-06,-0.008
2.750E-06,0.052
2.760E-06,0.104
2.770E-06,0.144
2.780E-06,0.124
2.790E-06,0.108
2.800E-06,0.108
2.810E-06,0.100
2.820E-06,0.136
2.830E-06,0.196
2.840E-06,0.228
2.850E-06,0.184
2.860E-06,0.100
2.870E-06,0.032
2.880E-06,0.040
2.890E-06,0.116
2.900E-06,0.200
2.910E-06,0.236
2.920E-06,0.204
2.930E-06,0.092
2.940E-06,0.000
2.950E-06,-0.032
2.960E-06,0.008
2.970E-06,0.064
2.980E-06,0.004
2.990E-06,-0.136
3.000E-06,-0.316
3.010E-06,-0.380
3.020E-06,-0.196
3.030E-06,0.168
3.040E-06,0.464
3.050E-06,0.516
3.060E-06,0.212
3.070E-06,-0.312
3.080E-06,-0.512
3.090E-06,-0.512
3.100E-06,-0.508
3.110E-06,-0.256
3.120E-06,-0.080
3.130E-06,-0.196
3.140E-06,-0.496
3.150E-06,-0.512
3.160E-06,-0.512
3.170E-06,-0.512
3.180E-06,-0.384
3.190E-06,0.052
3.200E-06,0.416
3.210E-06,0.536
3.220E-06,0.364
3.230E-06,-0.096
3.240E-06,-0.408
3.250E-06,-0.508
3.260E-06,-0.204
3.270E-06,0.236
3.280E-06,0.540
3.290E-06,0.540
