mediciones/Mediciones filtradas (saque las feas)/5-15/0.01/WaveData4710.csv

#timebase=2000000(ps)
,#voltbase=100000(mv/100)
#size=4000
-8.400E-06,0.036
-8.390E-06,0.036
-8.380E-06,0.016
-8.370E-06,-0.004
-8.360E-06,0.000
-8.350E-06,0.008
-8.340E-06,0.036
-8.330E-06,0.000
-8.320E-06,-0.044
-8.310E-06,-0.096
-8.300E-06,-0.072
-8.290E-06,-0.036
-8.280E-06,0.032
-8.270E-06,0.116
-8.260E-06,0.064
-8.250E-06,0.032
-8.240E-06,-0.044
-8.230E-06,-0.048
-8.220E-06,-0.056
-8.210E-06,-0.004
-8.200E-06,0.036
-8.190E-06,0.040
-8.180E-06,0.020
-8.170E-06,0.012
-8.160E-06,0.016
-8.150E-06,-0.020
-8.140E-06,-0.016
-8.130E-06,-0.028
-8.120E-06,0.004
-8.110E-06,0.012
-8.100E-06,0.040
-8.090E-06,0.024
-8.080E-06,0.016
-8.070E-06,-0.008
-8.060E-06,-0.028
-8.050E-06,-0.024
-8.040E-06,-0.008
-8.030E-06,0.020
-8.020E-06,0.020
-8.010E-06,0.028
-8.000E-06,0.012
-7.990E-06,-0.004
-7.980E-06,-0.020
-7.970E-06,-0.012
-7.960E-06,-0.004
-7.950E-06,0.008
-7.940E-06,0.024
-7.930E-06,0.024
-7.920E-06,0.016
-7.910E-06,0.000
-7.900E-06,-0.008
-7.890E-06,-0.004
-7.880E-06,0.004
-7.870E-06,0.008
-7.860E-06,0.036
-7.850E-06,-0.040
-7.840E-06,-0.060
-7.830E-06,-0.044
-7.820E-06,-0.020
-7.810E-06,0.016
-7.800E-06,0.068
-7.790E-06,0.108
-7.780E-06,0.036
-7.770E-06,-0.016
-7.760E-06,-0.112
-7.750E-06,-0.092
-7.740E-06,-0.032
-7.730E-06,0.060
-7.720E-06,0.096
-7.710E-06,0.084
-7.700E-06,0.020
-7.690E-06,-0.052
-7.680E-06,-0.076
-7.670E-06,-0.060
-7.660E-06,0.004
-7.650E-06,0.040
-7.640E-06,0.068
-7.630E-06,0.040
-7.620E-06,0.016
-7.610E-06,-0.020
-7.600E-06,-0.032
-7.590E-06,-0.028
-7.580E-06,-0.004
-7.570E-06,0.020
-7.560E-06,0.028
-7.550E-06,0.032
-7.540E-06,0.020
-7.530E-06,0.008
-7.520E-06,-0.008
-7.510E-06,0.000
-7.500E-06,-0.008
-7.490E-06,-0.004
-7.480E-06,0.004
-7.470E-06,0.028
-7.460E-06,0.008
-7.450E-06,-0.028
-7.440E-06,-0.020
-7.430E-06,-0.040
-7.420E-06,-0.012
-7.410E-06,0.020
-7.400E-06,0.076
-7.390E-06,0.064
-7.380E-06,0.016
-7.370E-06,-0.040
-7.360E-06,-0.072
-7.350E-06,-0.040
-7.340E-06,0.008
-7.330E-06,0.060
-7.320E-06,0.068
-7.310E-06,0.056
-7.300E-06,-0.004
-7.290E-06,-0.032
-7.280E-06,-0.060
-7.270E-06,-0.040
-7.260E-06,0.008
-7.250E-06,0.044
-7.240E-06,0.060
-7.230E-06,0.036
-7.220E-06,0.004
-7.210E-06,-0.036
-7.200E-06,-0.052
-7.190E-06,-0.040
-7.180E-06,-0.008
-7.170E-06,0.028
-7.160E-06,0.044
-7.150E-06,0.032
-7.140E-06,0.012
-7.130E-06,-0.012
-7.120E-06,-0.032
-7.110E-06,-0.036
-7.100E-06,-0.032
-7.090E-06,-0.012
-7.080E-06,0.016
-7.070E-06,0.044
-7.060E-06,0.060
-7.050E-06,0.060
-7.040E-06,0.032
-7.030E-06,-0.008
-7.020E-06,-0.036
-7.010E-06,-0.040
-7.000E-06,-0.020
-6.990E-06,0.008
-6.980E-06,0.040
-6.970E-06,0.044
-6.960E-06,0.040
-6.950E-06,-0.008
-6.940E-06,-0.048
-6.930E-06,-0.056
-6.920E-06,-0.056
-6.910E-06,-0.032
-6.900E-06,0.012
-6.890E-06,0.052
-6.880E-06,0.064
-6.870E-06,0.028
-6.860E-06,0.008
-6.850E-06,-0.024
-6.840E-06,-0.036
-6.830E-06,-0.036
-6.820E-06,-0.008
-6.810E-06,0.020
-6.800E-06,0.028
-6.790E-06,0.028
-6.780E-06,0.024
-6.770E-06,-0.012
-6.760E-06,-0.040
-6.750E-06,-0.032
-6.740E-06,-0.008
-6.730E-06,0.020
-6.720E-06,0.052
-6.710E-06,0.056
-6.700E-06,0.044
-6.690E-06,0.004
-6.680E-06,-0.036
-6.670E-06,-0.040
-6.660E-06,-0.020
-6.650E-06,0.000
-6.640E-06,0.028
-6.630E-06,0.024
-6.620E-06,0.020
-6.610E-06,0.000
-6.600E-06,-0.012
-6.590E-06,-0.028
-6.580E-06,-0.020
-6.570E-06,-0.004
-6.560E-06,0.012
-6.550E-06,0.028
-6.540E-06,0.024
-6.530E-06,0.016
-6.520E-06,0.000
-6.510E-06,-0.008
-6.500E-06,-0.012
-6.490E-06,-0.012
-6.480E-06,0.000
-6.470E-06,0.012
-6.460E-06,0.016
-6.450E-06,0.012
-6.440E-06,0.008
-6.430E-06,-0.008
-6.420E-06,-0.012
-6.410E-06,-0.004
-6.400E-06,-0.004
-6.390E-06,0.008
-6.380E-06,0.016
-6.370E-06,0.016
-6.360E-06,0.012
-6.350E-06,0.000
-6.340E-06,-0.004
-6.330E-06,-0.004
-6.320E-06,-0.004
-6.310E-06,0.008
-6.300E-06,0.000
-6.290E-06,0.004
-6.280E-06,0.000
-6.270E-06,-0.004
-6.260E-06,-0.004
-6.250E-06,-0.004
-6.240E-06,0.000
-6.230E-06,0.012
-6.220E-06,0.004
-6.210E-06,0.008
-6.200E-06,0.008
-6.190E-06,0.000
-6.180E-06,-0.004
-6.170E-06,0.000
-6.160E-06,0.000
-6.150E-06,0.004
-6.140E-06,0.012
-6.130E-06,0.008
-6.120E-06,0.000
-6.110E-06,0.004
-6.100E-06,0.000
-6.090E-06,-0.004
-6.080E-06,0.000
-6.070E-06,0.000
-6.060E-06,0.004
-6.050E-06,0.004
-6.040E-06,0.004
-6.030E-06,0.004
-6.020E-06,0.000
-6.010E-06,0.000
-6.000E-06,-0.004
-5.990E-06,0.000
-5.980E-06,0.000
-5.970E-06,0.004
-5.960E-06,0.004
-5.950E-06,0.000
-5.940E-06,-0.004
-5.930E-06,-0.004
-5.920E-06,0.000
-5.910E-06,-0.004
-5.900E-06,0.000
-5.890E-06,0.008
-5.880E-06,0.008
-5.870E-06,0.004
-5.860E-06,0.000
-5.850E-06,-0.004
-5.840E-06,-0.004
-5.830E-06,0.004
-5.820E-06,0.004
-5.810E-06,0.004
-5.800E-06,0.004
-5.790E-06,-0.004
-5.780E-06,0.000
-5.770E-06,-0.004
-5.760E-06,-0.004
-5.750E-06,0.000
-5.740E-06,0.000
-5.730E-06,0.000
-5.720E-06,0.008
-5.710E-06,0.000
-5.700E-06,-0.004
-5.690E-06,0.000
-5.680E-06,-0.004
-5.670E-06,0.000
-5.660E-06,0.000
-5.650E-06,0.004
-5.640E-06,0.004
-5.630E-06,0.004
-5.620E-06,0.004
-5.610E-06,0.000
-5.600E-06,0.000
-5.590E-06,0.000
-5.580E-06,0.000
-5.570E-06,0.004
-5.560E-06,0.004
-5.550E-06,0.008
-5.540E-06,0.004
-5.530E-06,0.000
-5.520E-06,0.000
-5.510E-06,0.000
-5.500E-06,0.000
-5.490E-06,0.000
-5.480E-06,0.004
-5.470E-06,0.004
-5.460E-06,0.004
-5.450E-06,0.004
-5.440E-06,-0.004
-5.430E-06,-0.004
-5.420E-06,0.000
-5.410E-06,-0.004
-5.400E-06,0.004
-5.390E-06,0.000
-5.380E-06,0.004
-5.370E-06,0.004
-5.360E-06,0.000
-5.350E-06,0.000
-5.340E-06,0.000
-5.330E-06,-0.004
-5.320E-06,0.000
-5.310E-06,0.004
-5.300E-06,0.000
-5.290E-06,0.004
-5.280E-06,0.008
-5.270E-06,0.004
-5.260E-06,0.004
-5.250E-06,0.004
-5.240E-06,0.000
-5.230E-06,0.008
-5.220E-06,0.028
-5.210E-06,0.048
-5.200E-06,0.064
-5.190E-06,0.052
-5.180E-06,0.024
-5.170E-06,-0.084
-5.160E-06,-0.152
-5.150E-06,-0.132
-5.140E-06,-0.112
-5.130E-06,0.048
-5.120E-06,0.164
-5.110E-06,0.152
-5.100E-06,0.128
-5.090E-06,0.020
-5.080E-06,-0.148
-5.070E-06,-0.184
-5.060E-06,-0.064
-5.050E-06,0.008
-5.040E-06,0.088
-5.030E-06,0.148
-5.020E-06,0.124
-5.010E-06,-0.020
-5.000E-06,-0.084
-4.990E-06,-0.104
-4.980E-06,-0.096
-4.970E-06,-0.020
-4.960E-06,0.060
-4.950E-06,0.112
-4.940E-06,0.088
-4.930E-06,0.040
-4.920E-06,-0.020
-4.910E-06,-0.068
-4.900E-06,-0.080
-4.890E-06,-0.040
-4.880E-06,0.020
-4.870E-06,0.064
-4.860E-06,0.076
-4.850E-06,0.044
-4.840E-06,-0.004
-4.830E-06,-0.060
-4.820E-06,-0.076
-4.810E-06,-0.056
-4.800E-06,0.000
-4.790E-06,0.036
-4.780E-06,0.064
-4.770E-06,0.060
-4.760E-06,0.024
-4.750E-06,-0.008
-4.740E-06,-0.040
-4.730E-06,-0.040
-4.720E-06,-0.012
-4.710E-06,0.012
-4.700E-06,0.036
-4.690E-06,0.044
-4.680E-06,0.020
-4.670E-06,-0.004
-4.660E-06,-0.024
-4.650E-06,-0.028
-4.640E-06,-0.024
-4.630E-06,0.004
-4.620E-06,0.032
-4.610E-06,0.040
-4.600E-06,0.036
-4.590E-06,0.020
-4.580E-06,-0.004
-4.570E-06,-0.012
-4.560E-06,-0.016
-4.550E-06,-0.004
-4.540E-06,0.004
-4.530E-06,0.016
-4.520E-06,0.024
-4.510E-06,0.028
-4.500E-06,0.012
-4.490E-06,-0.012
-4.480E-06,-0.016
-4.470E-06,-0.004
-4.460E-06,0.004
-4.450E-06,0.024
-4.440E-06,0.036
-4.430E-06,0.036
-4.420E-06,-0.016
-4.410E-06,-0.064
-4.400E-06,-0.060
-4.390E-06,-0.048
-4.380E-06,-0.024
-4.370E-06,0.048
-4.360E-06,0.060
-4.350E-06,0.080
-4.340E-06,0.040
-4.330E-06,-0.016
-4.320E-06,-0.080
-4.310E-06,-0.100
-4.300E-06,-0.036
-4.290E-06,0.024
-4.280E-06,0.076
-4.270E-06,0.072
-4.260E-06,0.044
-4.250E-06,-0.024
-4.240E-06,-0.064
-4.230E-06,-0.068
-4.220E-06,-0.020
-4.210E-06,0.024
-4.200E-06,0.064
-4.190E-06,0.056
-4.180E-06,0.024
-4.170E-06,-0.008
-4.160E-06,-0.044
-4.150E-06,-0.040
-4.140E-06,-0.016
-4.130E-06,0.012
-4.120E-06,0.036
-4.110E-06,0.044
-4.100E-06,0.024
-4.090E-06,0.004
-4.080E-06,-0.016
-4.070E-06,-0.024
-4.060E-06,-0.012
-4.050E-06,0.004
-4.040E-06,0.020
-4.030E-06,0.024
-4.020E-06,0.012
-4.010E-06,0.000
-4.000E-06,-0.012
-3.990E-06,-0.012
-3.980E-06,-0.004
-3.970E-06,0.008
-3.960E-06,0.016
-3.950E-06,0.020
-3.940E-06,0.008
-3.930E-06,-0.004
-3.920E-06,-0.024
-3.910E-06,-0.036
-3.900E-06,-0.028
-3.890E-06,0.004
-3.880E-06,0.028
-3.870E-06,0.040
-3.860E-06,0.032
-3.850E-06,0.012
-3.840E-06,-0.012
-3.830E-06,-0.040
-3.820E-06,-0.032
-3.810E-06,-0.012
-3.800E-06,0.028
-3.790E-06,0.044
-3.780E-06,0.036
-3.770E-06,0.012
-3.760E-06,-0.016
-3.750E-06,-0.032
-3.740E-06,-0.020
-3.730E-06,-0.004
-3.720E-06,0.024
-3.710E-06,0.028
-3.700E-06,0.028
-3.690E-06,0.016
-3.680E-06,-0.004
-3.670E-06,-0.024
-3.660E-06,-0.028
-3.650E-06,-0.012
-3.640E-06,0.012
-3.630E-06,0.028
-3.620E-06,0.020
-3.610E-06,0.016
-3.600E-06,0.004
-3.590E-06,-0.008
-3.580E-06,-0.012
-3.570E-06,-0.008
-3.560E-06,0.000
-3.550E-06,0.016
-3.540E-06,0.028
-3.530E-06,0.016
-3.520E-06,0.012
-3.510E-06,-0.004
-3.500E-06,-0.008
-3.490E-06,-0.012
-3.480E-06,0.004
-3.470E-06,0.016
-3.460E-06,0.028
-3.450E-06,0.020
-3.440E-06,0.020
-3.430E-06,0.004
-3.420E-06,0.000
-3.410E-06,-0.004
-3.400E-06,0.012
-3.390E-06,0.024
-3.380E-06,-0.020
-3.370E-06,-0.020
-3.360E-06,-0.068
-3.350E-06,-0.100
-3.340E-06,0.004
-3.330E-06,0.096
-3.320E-06,0.140
-3.310E-06,0.060
-3.300E-06,-0.024
-3.290E-06,-0.108
-3.280E-06,-0.104
-3.270E-06,-0.028
-3.260E-06,0.064
-3.250E-06,0.104
-3.240E-06,0.084
-3.230E-06,0.040
-3.220E-06,-0.040
-3.210E-06,-0.088
-3.200E-06,-0.072
-3.190E-06,0.012
-3.180E-06,0.056
-3.170E-06,0.088
-3.160E-06,0.056
-3.150E-06,0.016
-3.140E-06,-0.012
-3.130E-06,-0.020
-3.120E-06,-0.020
-3.110E-06,-0.004
-3.100E-06,0.024
-3.090E-06,0.032
-3.080E-06,0.056
-3.070E-06,-0.004
-3.060E-06,-0.064
-3.050E-06,-0.068
-3.040E-06,-0.052
-3.030E-06,-0.004
-3.020E-06,0.048
-3.010E-06,0.080
-3.000E-06,0.068
-2.990E-06,0.016
-2.980E-06,-0.048
-2.970E-06,-0.096
-2.960E-06,-0.072
-2.950E-06,0.000
-2.940E-06,0.056
-2.930E-06,0.060
-2.920E-06,0.024
-2.910E-06,-0.012
-2.900E-06,-0.040
-2.890E-06,-0.040
-2.880E-06,-0.008
-2.870E-06,0.028
-2.860E-06,0.048
-2.850E-06,0.032
-2.840E-06,0.004
-2.830E-06,-0.020
-2.820E-06,-0.024
-2.810E-06,-0.016
-2.800E-06,0.008
-2.790E-06,0.020
-2.780E-06,0.024
-2.770E-06,0.016
-2.760E-06,0.008
-2.750E-06,0.000
-2.740E-06,-0.004
-2.730E-06,-0.008
-2.720E-06,-0.004
-2.710E-06,0.004
-2.700E-06,0.012
-2.690E-06,0.020
-2.680E-06,0.016
-2.670E-06,0.008
-2.660E-06,-0.004
-2.650E-06,-0.012
-2.640E-06,0.000
-2.630E-06,0.000
-2.620E-06,0.008
-2.610E-06,0.016
-2.600E-06,0.020
-2.590E-06,0.016
-2.580E-06,0.012
-2.570E-06,0.012
-2.560E-06,0.016
-2.550E-06,-0.004
-2.540E-06,-0.008
-2.530E-06,-0.008
-2.520E-06,-0.004
-2.510E-06,-0.008
-2.500E-06,0.012
-2.490E-06,0.000
-2.480E-06,-0.024
-2.470E-06,-0.032
-2.460E-06,-0.004
-2.450E-06,0.012
-2.440E-06,0.028
-2.430E-06,0.028
-2.420E-06,0.016
-2.410E-06,0.008
-2.400E-06,-0.008
-2.390E-06,-0.004
-2.380E-06,-0.012
-2.370E-06,0.008
-2.360E-06,-0.004
-2.350E-06,0.000
-2.340E-06,0.004
-2.330E-06,0.004
-2.320E-06,-0.004
-2.310E-06,0.004
-2.300E-06,0.004
-2.290E-06,-0.004
-2.280E-06,0.008
-2.270E-06,0.008
-2.260E-06,0.008
-2.250E-06,0.000
-2.240E-06,-0.020
-2.230E-06,-0.032
-2.220E-06,-0.004
-2.210E-06,0.012
-2.200E-06,0.028
-2.190E-06,0.024
-2.180E-06,0.020
-2.170E-06,0.000
-2.160E-06,-0.020
-2.150E-06,-0.028
-2.140E-06,-0.012
-2.130E-06,0.008
-2.120E-06,0.032
-2.110E-06,0.044
-2.100E-06,0.024
-2.090E-06,0.004
-2.080E-06,-0.024
-2.070E-06,-0.012
-2.060E-06,-0.004
-2.050E-06,0.020
-2.040E-06,0.044
-2.030E-06,0.064
-2.020E-06,0.016
-2.010E-06,-0.040
-2.000E-06,-0.068
-1.990E-06,-0.052
-1.980E-06,-0.032
-1.970E-06,0.036
-1.960E-06,0.092
-1.950E-06,0.084
-1.940E-06,0.024
-1.930E-06,-0.036
-1.920E-06,-0.072
-1.910E-06,-0.044
-1.900E-06,0.016
-1.890E-06,0.088
-1.880E-06,0.112
-1.870E-06,-0.008
-1.860E-06,-0.136
-1.850E-06,-0.168
-1.840E-06,-0.088
-1.830E-06,0.028
-1.820E-06,0.124
-1.810E-06,0.192
-1.800E-06,0.096
-1.790E-06,-0.036
-1.780E-06,-0.164
-1.770E-06,-0.148
-1.760E-06,-0.056
-1.750E-06,0.080
-1.740E-06,0.140
-1.730E-06,0.124
-1.720E-06,0.028
-1.710E-06,-0.068
-1.700E-06,-0.092
-1.690E-06,-0.068
-1.680E-06,0.016
-1.670E-06,0.044
-1.660E-06,0.072
-1.650E-06,0.052
-1.640E-06,0.016
-1.630E-06,-0.044
-1.620E-06,-0.072
-1.610E-06,-0.060
-1.600E-06,-0.016
-1.590E-06,0.028
-1.580E-06,0.064
-1.570E-06,0.076
-1.560E-06,0.028
-1.550E-06,-0.004
-1.540E-06,-0.036
-1.530E-06,-0.032
-1.520E-06,-0.036
-1.510E-06,-0.024
-1.500E-06,0.000
-1.490E-06,0.020
-1.480E-06,0.012
-1.470E-06,0.020
-1.460E-06,0.044
-1.450E-06,0.024
-1.440E-06,0.000
-1.430E-06,-0.040
-1.420E-06,-0.056
-1.410E-06,-0.028
-1.400E-06,0.032
-1.390E-06,0.044
-1.380E-06,0.048
-1.370E-06,0.020
-1.360E-06,-0.024
-1.350E-06,-0.044
-1.340E-06,-0.028
-1.330E-06,0.004
-1.320E-06,0.028
-1.310E-06,0.048
-1.300E-06,0.024
-1.290E-06,0.000
-1.280E-06,-0.036
-1.270E-06,-0.036
-1.260E-06,-0.012
-1.250E-06,0.020
-1.240E-06,0.040
-1.230E-06,0.040
-1.220E-06,0.028
-1.210E-06,0.008
-1.200E-06,-0.008
-1.190E-06,-0.020
-1.180E-06,0.000
-1.170E-06,0.016
-1.160E-06,0.036
-1.150E-06,0.036
-1.140E-06,0.032
-1.130E-06,0.008
-1.120E-06,0.000
-1.110E-06,0.004
-1.100E-06,0.020
-1.090E-06,0.040
-1.080E-06,0.064
-1.070E-06,0.060
-1.060E-06,-0.012
-1.050E-06,-0.036
-1.040E-06,-0.108
-1.030E-06,-0.116
-1.020E-06,0.016
-1.010E-06,0.072
-1.000E-06,0.076
-9.900E-07,0.024
-9.800E-07,-0.016
-9.700E-07,-0.084
-9.600E-07,-0.048
-9.500E-07,-0.044
-9.400E-07,0.008
-9.300E-07,0.012
-9.200E-07,0.004
-9.100E-07,0.020
-9.000E-07,0.036
-8.900E-07,0.044
-8.800E-07,0.012
-8.700E-07,0.000
-8.600E-07,-0.044
-8.500E-07,-0.036
-8.400E-07,-0.016
-8.300E-07,0.016
-8.200E-07,0.024
-8.100E-07,0.000
-8.000E-07,-0.084
-7.900E-07,-0.068
-7.800E-07,0.000
-7.700E-07,0.096
-7.600E-07,0.112
-7.500E-07,0.076
-7.400E-07,-0.024
-7.300E-07,-0.108
-7.200E-07,-0.088
-7.100E-07,-0.036
-7.000E-07,0.040
-6.900E-07,0.076
-6.800E-07,0.088
-6.700E-07,0.032
-6.600E-07,-0.008
-6.500E-07,-0.040
-6.400E-07,-0.060
-6.300E-07,-0.036
-6.200E-07,0.028
-6.100E-07,0.056
-6.000E-07,0.056
-5.900E-07,0.060
-5.800E-07,0.024
-5.700E-07,-0.016
-5.600E-07,-0.036
-5.500E-07,-0.024
-5.400E-07,0.012
-5.300E-07,0.036
-5.200E-07,0.060
-5.100E-07,0.044
-5.000E-07,0.036
-4.900E-07,0.000
-4.800E-07,0.012
-4.700E-07,0.040
-4.600E-07,0.056
-4.500E-07,0.012
-4.400E-07,-0.056
-4.300E-07,-0.128
-4.200E-07,-0.160
-4.100E-07,-0.040
-4.000E-07,0.124
-3.900E-07,0.176
-3.800E-07,0.092
-3.700E-07,0.008
-3.600E-07,-0.064
-3.500E-07,-0.084
-3.400E-07,-0.052
-3.300E-07,0.012
-3.200E-07,0.072
-3.100E-07,0.064
-3.000E-07,0.032
-2.900E-07,-0.028
-2.800E-07,-0.040
-2.700E-07,-0.052
-2.600E-07,0.004
-2.500E-07,0.016
-2.400E-07,0.040
-2.300E-07,0.048
-2.200E-07,0.056
-2.100E-07,0.044
-2.000E-07,0.036
-1.900E-07,0.020
-1.800E-07,0.016
-1.700E-07,0.016
-1.600E-07,0.036
-1.500E-07,0.060
-1.400E-07,0.056
-1.300E-07,0.048
-1.200E-07,0.060
-1.100E-07,0.052
-1.000E-07,0.072
-9.000E-08,0.088
-8.000E-08,0.072
-7.000E-08,0.092
-6.000E-08,-0.004
-5.000E-08,-0.164
-4.000E-08,-0.484
-3.000E-08,-0.512
-2.000E-08,-0.276
-1.000E-08,0.244
0.000E+00,0.536
1.000E-08,0.536
2.000E-08,0.296
3.000E-08,-0.060
4.000E-08,-0.368
5.000E-08,-0.480
6.000E-08,-0.320
7.000E-08,-0.060
8.000E-08,0.212
9.000E-08,0.324
1.000E-07,0.312
1.100E-07,0.092
1.200E-07,-0.064
1.300E-07,-0.192
1.400E-07,-0.260
1.500E-07,-0.268
1.600E-07,-0.040
1.700E-07,0.180
1.800E-07,0.320
1.900E-07,0.304
2.000E-07,0.124
2.100E-07,-0.068
2.200E-07,-0.156
2.300E-07,-0.068
2.400E-07,0.024
2.500E-07,0.152
2.600E-07,0.108
2.700E-07,-0.024
2.800E-07,-0.172
2.900E-07,-0.192
3.000E-07,-0.184
3.100E-07,-0.044
3.200E-07,0.192
3.300E-07,0.288
3.400E-07,0.180
3.500E-07,-0.040
3.600E-07,-0.068
3.700E-07,-0.004
3.800E-07,0.028
3.900E-07,0.080
4.000E-07,0.128
4.100E-07,0.124
4.200E-07,0.132
4.300E-07,0.152
4.400E-07,0.152
4.500E-07,-0.048
4.600E-07,-0.472
4.700E-07,-0.512
4.800E-07,-0.512
4.900E-07,-0.332
5.000E-07,0.300
5.100E-07,0.544
5.200E-07,0.540
5.300E-07,0.356
5.400E-07,-0.328
5.500E-07,-0.512
5.600E-07,-0.508
5.700E-07,-0.204
5.800E-07,0.152
5.900E-07,0.272
6.000E-07,0.236
6.100E-07,0.220
6.200E-07,0.124
6.300E-07,-0.200
6.400E-07,-0.272
6.500E-07,-0.268
6.600E-07,-0.032
6.700E-07,0.124
6.800E-07,0.276
6.900E-07,0.240
7.000E-07,0.156
7.100E-07,0.000
7.200E-07,-0.100
7.300E-07,-0.080
7.400E-07,-0.028
7.500E-07,0.076
7.600E-07,0.080
7.700E-07,0.124
7.800E-07,0.008
7.900E-07,-0.084
8.000E-07,-0.212
8.100E-07,-0.236
8.200E-07,-0.172
8.300E-07,0.036
8.400E-07,0.184
8.500E-07,0.176
8.600E-07,0.120
8.700E-07,0.012
8.800E-07,-0.052
8.900E-07,-0.080
9.000E-07,0.024
9.100E-07,0.072
9.200E-07,0.200
9.300E-07,0.220
9.400E-07,0.200
9.500E-07,0.136
9.600E-07,0.064
9.700E-07,-0.024
9.800E-07,-0.032
9.900E-07,0.000
1.000E-06,-0.044
1.010E-06,-0.088
1.020E-06,-0.180
1.030E-06,-0.208
1.040E-06,-0.176
1.050E-06,0.044
1.060E-06,0.168
1.070E-06,0.204
1.080E-06,0.124
1.090E-06,0.036
1.100E-06,-0.028
1.110E-06,-0.016
1.120E-06,0.016
1.130E-06,0.080
1.140E-06,0.160
1.150E-06,0.152
1.160E-06,0.156
1.170E-06,0.104
1.180E-06,0.052
1.190E-06,0.008
1.200E-06,0.080
1.210E-06,0.136
1.220E-06,0.196
1.230E-06,0.216
1.240E-06,0.132
1.250E-06,0.024
1.260E-06,-0.028
1.270E-06,-0.068
1.280E-06,-0.012
1.290E-06,0.128
1.300E-06,0.236
1.310E-06,0.244
1.320E-06,0.136
1.330E-06,-0.012
1.340E-06,-0.092
1.350E-06,-0.080
1.360E-06,-0.028
1.370E-06,0.064
1.380E-06,0.192
1.390E-06,0.192
1.400E-06,0.116
1.410E-06,0.052
1.420E-06,0.040
1.430E-06,0.064
1.440E-06,0.076
1.450E-06,0.064
1.460E-06,0.040
1.470E-06,0.040
1.480E-06,0.024
1.490E-06,0.036
1.500E-06,0.092
1.510E-06,0.188
1.520E-06,0.260
1.530E-06,0.304
1.540E-06,0.240
1.550E-06,0.176
1.560E-06,0.144
1.570E-06,0.136
1.580E-06,0.156
1.590E-06,0.172
1.600E-06,0.204
1.610E-06,0.212
1.620E-06,0.208
1.630E-06,0.180
1.640E-06,0.160
1.650E-06,0.132
1.660E-06,0.136
1.670E-06,0.160
1.680E-06,0.196
1.690E-06,0.216
1.700E-06,0.208
1.710E-06,0.192
1.720E-06,0.160
1.730E-06,0.148
1.740E-06,0.128
1.750E-06,0.144
1.760E-06,0.156
1.770E-06,0.188
1.780E-06,0.212
1.790E-06,0.196
1.800E-06,0.156
1.810E-06,0.140
1.820E-06,0.096
1.830E-06,0.088
1.840E-06,0.080
1.850E-06,-0.016
1.860E-06,0.012
1.870E-06,-0.136
1.880E-06,-0.216
1.890E-06,-0.168
1.900E-06,-0.460
1.910E-06,-0.512
1.920E-06,-0.092
1.930E-06,0.456
1.940E-06,0.484
1.950E-06,0.108
1.960E-06,-0.240
1.970E-06,-0.512
1.980E-06,-0.512
1.990E-06,-0.512
2.000E-06,0.100
2.010E-06,0.544
2.020E-06,0.540
2.030E-06,0.540
2.040E-06,0.140
2.050E-06,-0.432
2.060E-06,-0.512
2.070E-06,-0.344
2.080E-06,0.124
2.090E-06,0.540
2.100E-06,0.540
2.110E-06,0.540
2.120E-06,0.200
2.130E-06,-0.424
2.140E-06,-0.512
2.150E-06,-0.412
2.160E-06,0.196
2.170E-06,0.540
2.180E-06,0.544
2.190E-06,0.540
2.200E-06,0.272
2.210E-06,-0.208
2.220E-06,-0.468
2.230E-06,-0.364
2.240E-06,-0.004
2.250E-06,0.452
2.260E-06,0.540
2.270E-06,0.536
2.280E-06,0.368
2.290E-06,0.012
2.300E-06,-0.284
2.310E-06,-0.304
2.320E-06,-0.080
2.330E-06,0.276
2.340E-06,0.544
2.350E-06,0.544
2.360E-06,0.432
2.370E-06,0.120
2.380E-06,-0.124
2.390E-06,-0.212
2.400E-06,-0.072
2.410E-06,0.176
2.420E-06,0.412
2.430E-06,0.496
2.440E-06,0.408
2.450E-06,0.196
2.460E-06,-0.020
2.470E-06,-0.108
2.480E-06,-0.052
2.490E-06,0.124
2.500E-06,0.296
2.510E-06,0.408
2.520E-06,0.364
2.530E-06,0.228
2.540E-06,0.056
2.550E-06,-0.044
2.560E-06,-0.032
2.570E-06,0.080
2.580E-06,0.236
2.590E-06,0.344
2.600E-06,0.348
2.610E-06,0.256
2.620E-06,0.132
2.630E-06,0.028
2.640E-06,0.000
2.650E-06,0.056
2.660E-06,0.172
2.670E-06,0.264
2.680E-06,0.312
2.690E-06,0.268
2.700E-06,0.176
2.710E-06,0.084
2.720E-06,0.036
2.730E-06,0.060
2.740E-06,0.128
2.750E-06,0.212
2.760E-06,0.260
2.770E-06,0.252
2.780E-06,0.196
2.790E-06,0.124
2.800E-06,0.076
2.810E-06,0.068
2.820E-06,0.112
2.830E-06,0.172
2.840E-06,0.220
2.850E-06,0.232
2.860E-06,0.208
2.870E-06,0.156
2.880E-06,0.108
2.890E-06,0.092
2.900E-06,0.104
2.910E-06,0.148
2.920E-06,0.192
2.930E-06,0.212
2.940E-06,0.204
2.950E-06,0.172
2.960E-06,0.128
2.970E-06,0.108
2.980E-06,0.108
2.990E-06,0.136
3.000E-06,0.160
3.010E-06,0.196
3.020E-06,0.192
3.030E-06,0.176
3.040E-06,0.140
3.050E-06,0.124
3.060E-06,0.108
3.070E-06,0.124
3.080E-06,0.152
3.090E-06,0.176
3.100E-06,0.180
3.110E-06,0.168
3.120E-06,0.152
3.130E-06,0.128
3.140E-06,0.120
3.150E-06,0.120
3.160E-06,0.140
3.170E-06,0.156
3.180E-06,0.160
3.190E-06,0.164
3.200E-06,0.156
3.210E-06,0.136
3.220E-06,0.128
3.230E-06,0.128
3.240E-06,0.132
3.250E-06,0.140
3.260E-06,0.156
