mediciones/Mediciones filtradas (saque las feas)/5-15/0.01/WaveData4715.csv

#timebase=2000000(ps)
,#voltbase=1000000(mv/100)
#size=4000
-8.400E-06,0.040
-8.390E-06,0.000
-8.380E-06,0.040
-8.370E-06,0.040
-8.360E-06,0.040
-8.350E-06,0.080
-8.340E-06,0.000
-8.330E-06,0.040
-8.320E-06,0.040
-8.310E-06,0.040
-8.300E-06,0.040
-8.290E-06,0.040
-8.280E-06,0.040
-8.270E-06,0.040
-8.260E-06,0.040
-8.250E-06,-0.080
-8.240E-06,-0.480
-8.230E-06,-1.160
-8.220E-06,-2.120
-8.210E-06,-3.280
-8.200E-06,-4.200
-8.190E-06,-4.520
-8.180E-06,-4.440
-8.170E-06,-3.840
-8.160E-06,-2.880
-8.150E-06,-1.680
-8.140E-06,-0.280
-8.130E-06,1.120
-8.120E-06,2.520
-8.110E-06,3.560
-8.100E-06,4.040
-8.090E-06,4.120
-8.080E-06,3.800
-8.070E-06,3.520
-8.060E-06,3.000
-8.050E-06,2.600
-8.040E-06,2.200
-8.030E-06,1.800
-8.020E-06,1.600
-8.010E-06,1.520
-8.000E-06,1.480
-7.990E-06,1.480
-7.980E-06,1.440
-7.970E-06,1.160
-7.960E-06,0.680
-7.950E-06,0.040
-7.940E-06,-0.640
-7.930E-06,-1.280
-7.920E-06,-1.880
-7.910E-06,-2.400
-7.900E-06,-2.720
-7.890E-06,-3.040
-7.880E-06,-3.000
-7.870E-06,-2.760
-7.860E-06,-2.320
-7.850E-06,-1.840
-7.840E-06,-1.200
-7.830E-06,-0.560
-7.820E-06,0.000
-7.810E-06,0.560
-7.800E-06,0.960
-7.790E-06,1.280
-7.780E-06,1.240
-7.770E-06,1.120
-7.760E-06,0.880
-7.750E-06,0.520
-7.740E-06,0.240
-7.730E-06,-0.040
-7.720E-06,-0.240
-7.710E-06,-0.400
-7.700E-06,-0.400
-7.690E-06,-0.400
-7.680E-06,-0.320
-7.670E-06,-0.280
-7.660E-06,-0.120
-7.650E-06,-0.040
-7.640E-06,0.040
-7.630E-06,0.040
-7.620E-06,0.080
-7.610E-06,0.040
-7.600E-06,-0.040
-7.590E-06,-0.080
-7.580E-06,-0.080
-7.570E-06,-0.040
-7.560E-06,0.000
-7.550E-06,0.080
-7.540E-06,0.240
-7.530E-06,0.480
-7.520E-06,0.680
-7.510E-06,0.920
-7.500E-06,1.080
-7.490E-06,1.120
-7.480E-06,1.240
-7.470E-06,1.280
-7.460E-06,1.160
-7.450E-06,1.040
-7.440E-06,0.840
-7.430E-06,0.600
-7.420E-06,0.360
-7.410E-06,0.040
-7.400E-06,-0.160
-7.390E-06,-0.400
-7.380E-06,-0.520
-7.370E-06,-0.600
-7.360E-06,-0.520
-7.350E-06,-0.520
-7.340E-06,-0.400
-7.330E-06,-0.240
-7.320E-06,-0.120
-7.310E-06,0.000
-7.300E-06,0.120
-7.290E-06,0.160
-7.280E-06,0.240
-7.270E-06,0.160
-7.260E-06,0.160
-7.250E-06,0.200
-7.240E-06,0.240
-7.230E-06,0.200
-7.220E-06,0.200
-7.210E-06,0.240
-7.200E-06,0.280
-7.190E-06,0.280
-7.180E-06,0.320
-7.170E-06,0.240
-7.160E-06,0.240
-7.150E-06,0.280
-7.140E-06,0.160
-7.130E-06,0.120
-7.120E-06,0.080
-7.110E-06,0.000
-7.100E-06,-0.080
-7.090E-06,-0.160
-7.080E-06,-0.240
-7.070E-06,-0.280
-7.060E-06,-0.280
-7.050E-06,-0.320
-7.040E-06,-0.320
-7.030E-06,-0.280
-7.020E-06,-0.240
-7.010E-06,-0.160
-7.000E-06,-0.160
-6.990E-06,-0.080
-6.980E-06,-0.040
-6.970E-06,0.040
-6.960E-06,0.080
-6.950E-06,0.200
-6.940E-06,0.200
-6.930E-06,0.360
-6.920E-06,0.360
-6.910E-06,0.400
-6.900E-06,0.440
-6.890E-06,0.440
-6.880E-06,0.440
-6.870E-06,0.440
-6.860E-06,0.440
-6.850E-06,0.480
-6.840E-06,0.440
-6.830E-06,0.360
-6.820E-06,0.360
-6.810E-06,0.320
-6.800E-06,0.320
-6.790E-06,0.280
-6.780E-06,0.200
-6.770E-06,0.120
-6.760E-06,0.080
-6.750E-06,-0.040
-6.740E-06,-0.080
-6.730E-06,-0.160
-6.720E-06,-0.240
-6.710E-06,-0.360
-6.700E-06,-0.440
-6.690E-06,-0.480
-6.680E-06,-0.480
-6.670E-06,-0.520
-6.660E-06,-0.440
-6.650E-06,-0.400
-6.640E-06,-0.360
-6.630E-06,-0.240
-6.620E-06,-0.240
-6.610E-06,-0.160
-6.600E-06,-0.040
-6.590E-06,-0.040
-6.580E-06,0.000
-6.570E-06,0.080
-6.560E-06,0.040
-6.550E-06,0.080
-6.540E-06,0.120
-6.530E-06,0.160
-6.520E-06,0.160
-6.510E-06,0.120
-6.500E-06,0.160
-6.490E-06,0.120
-6.480E-06,0.160
-6.470E-06,0.120
-6.460E-06,0.120
-6.450E-06,0.160
-6.440E-06,0.160
-6.430E-06,0.160
-6.420E-06,0.080
-6.410E-06,0.000
-6.400E-06,0.040
-6.390E-06,-0.040
-6.380E-06,-0.040
-6.370E-06,0.000
-6.360E-06,-0.040
-6.350E-06,-0.040
-6.340E-06,-0.080
-6.330E-06,-0.080
-6.320E-06,-0.080
-6.310E-06,-0.040
-6.300E-06,-0.040
-6.290E-06,-0.040
-6.280E-06,-0.040
-6.270E-06,-0.040
-6.260E-06,-0.080
-6.250E-06,-0.040
-6.240E-06,-0.080
-6.230E-06,-0.120
-6.220E-06,-0.080
-6.210E-06,-0.120
-6.200E-06,-0.160
-6.190E-06,-0.120
-6.180E-06,-0.160
-6.170E-06,-0.120
-6.160E-06,-0.120
-6.150E-06,-0.160
-6.140E-06,-0.080
-6.130E-06,-0.040
-6.120E-06,-0.040
-6.110E-06,0.000
-6.100E-06,-0.040
-6.090E-06,-0.040
-6.080E-06,-0.040
-6.070E-06,0.040
-6.060E-06,0.040
-6.050E-06,0.080
-6.040E-06,0.080
-6.030E-06,0.160
-6.020E-06,0.120
-6.010E-06,0.160
-6.000E-06,0.200
-5.990E-06,0.160
-5.980E-06,0.120
-5.970E-06,0.200
-5.960E-06,0.320
-5.950E-06,0.440
-5.940E-06,0.600
-5.930E-06,0.760
-5.920E-06,0.960
-5.910E-06,1.040
-5.900E-06,1.080
-5.890E-06,0.880
-5.880E-06,0.760
-5.870E-06,0.560
-5.860E-06,0.320
-5.850E-06,0.040
-5.840E-06,-0.160
-5.830E-06,-0.320
-5.820E-06,-0.440
-5.810E-06,-0.560
-5.800E-06,-0.680
-5.790E-06,-0.800
-5.780E-06,-0.840
-5.770E-06,-0.920
-5.760E-06,-1.000
-5.750E-06,-0.960
-5.740E-06,-1.000
-5.730E-06,-0.920
-5.720E-06,-0.880
-5.710E-06,-0.800
-5.700E-06,-0.720
-5.690E-06,-0.560
-5.680E-06,-0.440
-5.670E-06,-0.320
-5.660E-06,-0.240
-5.650E-06,0.000
-5.640E-06,0.040
-5.630E-06,0.160
-5.620E-06,0.360
-5.610E-06,0.400
-5.600E-06,0.400
-5.590E-06,0.480
-5.580E-06,0.400
-5.570E-06,0.320
-5.560E-06,0.240
-5.550E-06,0.120
-5.540E-06,0.040
-5.530E-06,-0.200
-5.520E-06,-0.240
-5.510E-06,-0.360
-5.500E-06,-0.480
-5.490E-06,-0.520
-5.480E-06,-0.520
-5.470E-06,-0.520
-5.460E-06,-0.520
-5.450E-06,-0.480
-5.440E-06,-0.360
-5.430E-06,-0.320
-5.420E-06,-0.240
-5.410E-06,-0.200
-5.400E-06,-0.200
-5.390E-06,-0.160
-5.380E-06,-0.120
-5.370E-06,-0.120
-5.360E-06,-0.160
-5.350E-06,-0.160
-5.340E-06,-0.160
-5.330E-06,-0.200
-5.320E-06,-0.160
-5.310E-06,-0.160
-5.300E-06,-0.240
-5.290E-06,-0.360
-5.280E-06,-0.360
-5.270E-06,-0.440
-5.260E-06,-0.520
-5.250E-06,-0.680
-5.240E-06,-0.720
-5.230E-06,-0.840
-5.220E-06,-0.920
-5.210E-06,-1.000
-5.200E-06,-1.040
-5.190E-06,-1.040
-5.180E-06,-1.000
-5.170E-06,-1.000
-5.160E-06,-1.160
-5.150E-06,-1.000
-5.140E-06,-1.000
-5.130E-06,-0.800
-5.120E-06,-0.680
-5.110E-06,-0.680
-5.100E-06,-0.480
-5.090E-06,-0.480
-5.080E-06,-0.320
-5.070E-06,-0.200
-5.060E-06,-0.160
-5.050E-06,-0.160
-5.040E-06,-0.160
-5.030E-06,-0.360
-5.020E-06,-0.280
-5.010E-06,-0.360
-5.000E-06,-0.200
-4.990E-06,-0.320
-4.980E-06,-0.360
-4.970E-06,-0.440
-4.960E-06,-0.400
-4.950E-06,-0.360
-4.940E-06,-0.400
-4.930E-06,-0.400
-4.920E-06,-0.320
-4.910E-06,-0.360
-4.900E-06,-0.360
-4.890E-06,-0.400
-4.880E-06,-0.360
-4.870E-06,-0.240
-4.860E-06,-0.240
-4.850E-06,-0.200
-4.840E-06,-0.200
-4.830E-06,-0.120
-4.820E-06,-0.120
-4.810E-06,0.040
-4.800E-06,0.040
-4.790E-06,0.040
-4.780E-06,0.120
-4.770E-06,0.160
-4.760E-06,0.160
-4.750E-06,0.080
-4.740E-06,0.080
-4.730E-06,0.080
-4.720E-06,0.040
-4.710E-06,0.000
-4.700E-06,0.000
-4.690E-06,-0.080
-4.680E-06,-0.160
-4.670E-06,-0.200
-4.660E-06,-0.240
-4.650E-06,-0.160
-4.640E-06,-0.200
-4.630E-06,-0.280
-4.620E-06,-0.240
-4.610E-06,-0.200
-4.600E-06,-0.200
-4.590E-06,-0.200
-4.580E-06,-0.160
-4.570E-06,-0.120
-4.560E-06,-0.080
-4.550E-06,-0.120
-4.540E-06,-0.120
-4.530E-06,-0.120
-4.520E-06,-0.080
-4.510E-06,-0.040
-4.500E-06,0.000
-4.490E-06,0.000
-4.480E-06,0.080
-4.470E-06,0.080
-4.460E-06,0.080
-4.450E-06,0.080
-4.440E-06,0.040
-4.430E-06,0.000
-4.420E-06,0.080
-4.410E-06,0.120
-4.400E-06,0.120
-4.390E-06,0.080
-4.380E-06,0.000
-4.370E-06,-0.040
-4.360E-06,0.000
-4.350E-06,0.000
-4.340E-06,-0.040
-4.330E-06,-0.120
-4.320E-06,-0.080
-4.310E-06,-0.120
-4.300E-06,-0.120
-4.290E-06,-0.160
-4.280E-06,-0.080
-4.270E-06,-0.120
-4.260E-06,-0.160
-4.250E-06,-0.120
-4.240E-06,-0.120
-4.230E-06,-0.160
-4.220E-06,-0.080
-4.210E-06,-0.080
-4.200E-06,-0.120
-4.190E-06,-0.120
-4.180E-06,-0.080
-4.170E-06,-0.080
-4.160E-06,-0.120
-4.150E-06,-0.080
-4.140E-06,-0.160
-4.130E-06,-0.120
-4.120E-06,-0.240
-4.110E-06,-0.200
-4.100E-06,-0.240
-4.090E-06,-0.280
-4.080E-06,-0.120
-4.070E-06,0.040
-4.060E-06,0.120
-4.050E-06,0.360
-4.040E-06,0.080
-4.030E-06,0.000
-4.020E-06,0.000
-4.010E-06,0.000
-4.000E-06,0.160
-3.990E-06,0.200
-3.980E-06,0.160
-3.970E-06,0.000
-3.960E-06,0.000
-3.950E-06,0.080
-3.940E-06,0.120
-3.930E-06,0.040
-3.920E-06,0.040
-3.910E-06,0.000
-3.900E-06,0.040
-3.890E-06,-0.040
-3.880E-06,0.000
-3.870E-06,0.000
-3.860E-06,0.000
-3.850E-06,-0.040
-3.840E-06,0.000
-3.830E-06,-0.120
-3.820E-06,-0.120
-3.810E-06,-0.080
-3.800E-06,0.000
-3.790E-06,0.000
-3.780E-06,0.000
-3.770E-06,-0.080
-3.760E-06,-0.040
-3.750E-06,0.000
-3.740E-06,0.080
-3.730E-06,0.040
-3.720E-06,0.120
-3.710E-06,0.040
-3.700E-06,0.080
-3.690E-06,0.040
-3.680E-06,-0.040
-3.670E-06,-0.040
-3.660E-06,-0.040
-3.650E-06,-0.160
-3.640E-06,-0.200
-3.630E-06,-0.240
-3.620E-06,-0.200
-3.610E-06,-0.160
-3.600E-06,-0.160
-3.590E-06,-0.120
-3.580E-06,-0.120
-3.570E-06,-0.160
-3.560E-06,-0.080
-3.550E-06,0.000
-3.540E-06,-0.040
-3.530E-06,0.040
-3.520E-06,0.040
-3.510E-06,0.080
-3.500E-06,0.080
-3.490E-06,0.120
-3.480E-06,0.120
-3.470E-06,0.120
-3.460E-06,0.120
-3.450E-06,0.120
-3.440E-06,0.120
-3.430E-06,0.160
-3.420E-06,0.080
-3.410E-06,0.160
-3.400E-06,0.120
-3.390E-06,0.120
-3.380E-06,0.040
-3.370E-06,-0.040
-3.360E-06,0.000
-3.350E-06,-0.040
-3.340E-06,0.000
-3.330E-06,-0.040
-3.320E-06,0.000
-3.310E-06,-0.080
-3.300E-06,-0.080
-3.290E-06,-0.080
-3.280E-06,-0.120
-3.270E-06,-0.120
-3.260E-06,-0.040
-3.250E-06,-0.040
-3.240E-06,-0.040
-3.230E-06,0.000
-3.220E-06,-0.040
-3.210E-06,0.000
-3.200E-06,-0.040
-3.190E-06,0.000
-3.180E-06,0.040
-3.170E-06,0.040
-3.160E-06,0.120
-3.150E-06,-0.040
-3.140E-06,0.000
-3.130E-06,0.040
-3.120E-06,0.000
-3.110E-06,0.000
-3.100E-06,0.000
-3.090E-06,-0.040
-3.080E-06,-0.040
-3.070E-06,0.000
-3.060E-06,-0.040
-3.050E-06,0.000
-3.040E-06,0.000
-3.030E-06,0.000
-3.020E-06,0.000
-3.010E-06,0.000
-3.000E-06,0.000
-2.990E-06,0.000
-2.980E-06,0.000
-2.970E-06,0.000
-2.960E-06,-0.080
-2.950E-06,-0.080
-2.940E-06,0.000
-2.930E-06,-0.040
-2.920E-06,-0.160
-2.910E-06,-0.200
-2.900E-06,-0.200
-2.890E-06,-0.120
-2.880E-06,-0.240
-2.870E-06,-0.240
-2.860E-06,-0.320
-2.850E-06,-0.320
-2.840E-06,-0.360
-2.830E-06,-0.360
-2.820E-06,-0.320
-2.810E-06,-0.400
-2.800E-06,-0.440
-2.790E-06,-0.480
-2.780E-06,-0.560
-2.770E-06,-0.480
-2.760E-06,-0.520
-2.750E-06,-0.520
-2.740E-06,-0.520
-2.730E-06,-0.480
-2.720E-06,-0.480
-2.710E-06,-0.520
-2.700E-06,-0.440
-2.690E-06,-0.400
-2.680E-06,-0.360
-2.670E-06,-0.360
-2.660E-06,-0.320
-2.650E-06,-0.280
-2.640E-06,-0.280
-2.630E-06,-0.200
-2.620E-06,-0.160
-2.610E-06,-0.200
-2.600E-06,-0.160
-2.590E-06,-0.200
-2.580E-06,-0.240
-2.570E-06,-0.320
-2.560E-06,-0.320
-2.550E-06,-0.360
-2.540E-06,-0.440
-2.530E-06,-0.400
-2.520E-06,-0.400
-2.510E-06,-0.440
-2.500E-06,-0.360
-2.490E-06,-0.400
-2.480E-06,-0.400
-2.470E-06,-0.400
-2.460E-06,-0.440
-2.450E-06,-0.480
-2.440E-06,-0.480
-2.430E-06,-0.520
-2.420E-06,-0.560
-2.410E-06,-0.600
-2.400E-06,-0.600
-2.390E-06,-0.640
-2.380E-06,-0.720
-2.370E-06,-0.760
-2.360E-06,-0.800
-2.350E-06,-0.840
-2.340E-06,-0.920
-2.330E-06,-0.920
-2.320E-06,-0.880
-2.310E-06,-0.880
-2.300E-06,-0.960
-2.290E-06,-0.960
-2.280E-06,-0.920
-2.270E-06,-0.320
-2.260E-06,-0.200
-2.250E-06,-0.120
-2.240E-06,0.000
-2.230E-06,-0.720
-2.220E-06,-0.520
-2.210E-06,-0.440
-2.200E-06,-0.320
-2.190E-06,0.200
-2.180E-06,-0.160
-2.170E-06,-0.480
-2.160E-06,-0.760
-2.150E-06,-0.840
-2.140E-06,-0.680
-2.130E-06,-0.600
-2.120E-06,-0.600
-2.110E-06,-0.640
-2.100E-06,-0.600
-2.090E-06,-0.520
-2.080E-06,-0.520
-2.070E-06,-0.440
-2.060E-06,-0.480
-2.050E-06,-0.360
-2.040E-06,-0.280
-2.030E-06,-0.360
-2.020E-06,-0.320
-2.010E-06,-0.360
-2.000E-06,-0.280
-1.990E-06,-0.360
-1.980E-06,-0.160
-1.970E-06,-0.080
-1.960E-06,0.040
-1.950E-06,0.200
-1.940E-06,0.320
-1.930E-06,0.520
-1.920E-06,0.600
-1.910E-06,0.600
-1.900E-06,0.560
-1.890E-06,0.400
-1.880E-06,0.360
-1.870E-06,0.160
-1.860E-06,0.040
-1.850E-06,-0.120
-1.840E-06,-0.360
-1.830E-06,-0.600
-1.820E-06,-0.760
-1.810E-06,-0.800
-1.800E-06,-0.720
-1.790E-06,-0.640
-1.780E-06,-0.600
-1.770E-06,-0.600
-1.760E-06,-0.480
-1.750E-06,-0.480
-1.740E-06,-0.400
-1.730E-06,-0.240
-1.720E-06,-0.080
-1.710E-06,-0.040
-1.700E-06,-0.080
-1.690E-06,-0.080
-1.680E-06,-0.120
-1.670E-06,-0.160
-1.660E-06,-0.200
-1.650E-06,-0.200
-1.640E-06,-0.160
-1.630E-06,-0.200
-1.620E-06,-0.120
-1.610E-06,-0.080
-1.600E-06,0.000
-1.590E-06,0.000
-1.580E-06,0.000
-1.570E-06,0.080
-1.560E-06,0.080
-1.550E-06,0.200
-1.540E-06,0.240
-1.530E-06,0.120
-1.520E-06,0.120
-1.510E-06,0.040
-1.500E-06,-0.040
-1.490E-06,-0.080
-1.480E-06,-0.120
-1.470E-06,-0.080
-1.460E-06,-0.080
-1.450E-06,-0.160
-1.440E-06,-0.160
-1.430E-06,-0.240
-1.420E-06,-0.280
-1.410E-06,-0.280
-1.400E-06,-0.240
-1.390E-06,-0.280
-1.380E-06,-0.360
-1.370E-06,-0.360
-1.360E-06,-0.440
-1.350E-06,-0.480
-1.340E-06,-0.520
-1.330E-06,-0.560
-1.320E-06,-0.680
-1.310E-06,-0.800
-1.300E-06,-0.840
-1.290E-06,-0.960
-1.280E-06,-1.120
-1.270E-06,-1.000
-1.260E-06,-1.000
-1.250E-06,-0.800
-1.240E-06,-0.760
-1.230E-06,-0.800
-1.220E-06,-0.720
-1.210E-06,-0.920
-1.200E-06,-0.560
-1.190E-06,-0.880
-1.180E-06,-0.640
-1.170E-06,-0.520
-1.160E-06,-0.520
-1.150E-06,-0.240
-1.140E-06,-0.280
-1.130E-06,-0.480
-1.120E-06,-0.520
-1.110E-06,-0.720
-1.100E-06,-0.680
-1.090E-06,-0.600
-1.080E-06,-0.400
-1.070E-06,-0.440
-1.060E-06,-0.320
-1.050E-06,-0.440
-1.040E-06,-0.400
-1.030E-06,-0.560
-1.020E-06,-0.680
-1.010E-06,-0.840
-1.000E-06,-0.800
-9.900E-07,-0.720
-9.800E-07,-0.720
-9.700E-07,-0.680
-9.600E-07,-0.640
-9.500E-07,-0.520
-9.400E-07,-0.400
-9.300E-07,-0.320
-9.200E-07,-0.320
-9.100E-07,-0.200
-9.000E-07,-0.160
-8.900E-07,-0.160
-8.800E-07,-0.200
-8.700E-07,-0.280
-8.600E-07,-0.240
-8.500E-07,-0.320
-8.400E-07,-0.240
-8.300E-07,-0.320
-8.200E-07,-0.040
-8.100E-07,0.160
-8.000E-07,0.360
-7.900E-07,0.520
-7.800E-07,0.400
-7.700E-07,0.400
-7.600E-07,0.200
-7.500E-07,0.160
-7.400E-07,0.120
-7.300E-07,0.040
-7.200E-07,-0.120
-7.100E-07,-0.320
-7.000E-07,-0.480
-6.900E-07,-0.640
-6.800E-07,-0.720
-6.700E-07,-0.880
-6.600E-07,-0.880
-6.500E-07,-0.960
-6.400E-07,-0.880
-6.300E-07,-0.920
-6.200E-07,-0.800
-6.100E-07,-0.680
-6.000E-07,-0.560
-5.900E-07,-0.480
-5.800E-07,-0.400
-5.700E-07,-0.320
-5.600E-07,-0.280
-5.500E-07,-0.200
-5.400E-07,-0.200
-5.300E-07,-0.160
-5.200E-07,-0.200
-5.100E-07,-0.120
-5.000E-07,-0.120
-4.900E-07,0.040
-4.800E-07,-0.040
-4.700E-07,0.000
-4.600E-07,0.120
-4.500E-07,0.160
-4.400E-07,0.320
-4.300E-07,0.280
-4.200E-07,0.320
-4.100E-07,0.240
-4.000E-07,0.120
-3.900E-07,0.040
-3.800E-07,0.080
-3.700E-07,-0.200
-3.600E-07,-0.200
-3.500E-07,-0.360
-3.400E-07,-0.480
-3.300E-07,-0.640
-3.200E-07,-0.760
-3.100E-07,-0.920
-3.000E-07,-1.000
-2.900E-07,-0.960
-2.800E-07,-0.960
-2.700E-07,-1.040
-2.600E-07,-1.120
-2.500E-07,-1.120
-2.400E-07,-1.320
-2.300E-07,-0.760
-2.200E-07,-0.760
-2.100E-07,-0.320
-2.000E-07,-0.320
-1.900E-07,-0.520
-1.800E-07,-0.680
-1.700E-07,-0.960
-1.600E-07,-1.120
-1.500E-07,-1.040
-1.400E-07,-1.240
-1.300E-07,-1.400
-1.200E-07,-1.600
-1.100E-07,-1.760
-1.000E-07,-1.800
-9.000E-08,-1.840
-8.000E-08,-1.760
-7.000E-08,-1.720
-6.000E-08,-1.080
-5.000E-08,-0.200
-4.000E-08,0.320
-3.000E-08,0.600
-2.000E-08,0.320
-1.000E-08,-0.200
0.000E+00,-0.160
1.000E-08,-0.480
2.000E-08,-0.200
3.000E-08,-0.320
4.000E-08,-0.560
5.000E-08,-1.080
6.000E-08,-1.200
7.000E-08,-1.280
8.000E-08,-1.200
9.000E-08,-1.080
1.000E-07,-1.200
1.100E-07,-1.160
1.200E-07,-0.960
1.300E-07,-0.920
1.400E-07,-0.720
1.500E-07,-0.760
1.600E-07,-0.680
1.700E-07,-0.600
1.800E-07,-0.520
1.900E-07,-0.680
2.000E-07,-0.760
2.100E-07,-0.840
2.200E-07,-0.800
2.300E-07,-0.800
2.400E-07,-0.600
2.500E-07,-0.520
2.600E-07,-0.360
2.700E-07,-0.160
2.800E-07,0.040
2.900E-07,0.320
3.000E-07,0.600
3.100E-07,0.760
3.200E-07,0.840
3.300E-07,0.920
3.400E-07,0.840
3.500E-07,0.840
3.600E-07,0.640
3.700E-07,0.440
3.800E-07,0.120
3.900E-07,0.000
4.000E-07,-0.160
4.100E-07,-0.320
4.200E-07,-0.280
4.300E-07,-0.280
4.400E-07,-0.120
4.500E-07,-0.160
4.600E-07,-0.040
4.700E-07,-0.040
4.800E-07,0.000
4.900E-07,0.120
5.000E-07,0.160
5.100E-07,0.120
5.200E-07,-0.040
5.300E-07,-0.160
5.400E-07,-0.240
5.500E-07,-0.400
5.600E-07,-0.520
5.700E-07,-0.560
5.800E-07,-0.600
5.900E-07,-0.480
6.000E-07,-0.360
6.100E-07,-0.080
6.200E-07,0.000
6.300E-07,0.160
6.400E-07,0.240
6.500E-07,0.320
6.600E-07,0.320
6.700E-07,0.320
6.800E-07,0.280
6.900E-07,0.160
7.000E-07,0.000
7.100E-07,-0.120
7.200E-07,-0.160
7.300E-07,-0.360
7.400E-07,-0.320
7.500E-07,-0.520
7.600E-07,-0.480
7.700E-07,-0.520
7.800E-07,-0.520
7.900E-07,-0.560
8.000E-07,-0.400
8.100E-07,-0.480
8.200E-07,-0.400
8.300E-07,-0.440
8.400E-07,-0.520
8.500E-07,-0.600
8.600E-07,-0.720
8.700E-07,-0.800
8.800E-07,-0.880
8.900E-07,-0.960
9.000E-07,-0.960
9.100E-07,-0.840
9.200E-07,-0.640
9.300E-07,-0.160
9.400E-07,-0.080
9.500E-07,0.080
9.600E-07,-0.080
9.700E-07,-0.240
9.800E-07,-0.240
9.900E-07,-0.320
1.000E-06,-0.520
1.010E-06,-0.640
1.020E-06,-1.040
1.030E-06,-1.360
1.040E-06,-1.560
1.050E-06,-1.840
1.060E-06,-1.960
1.070E-06,-2.120
1.080E-06,-2.240
1.090E-06,-2.240
1.100E-06,-2.280
1.110E-06,-2.360
1.120E-06,-2.480
1.130E-06,-2.600
1.140E-06,-2.720
1.150E-06,-2.760
1.160E-06,-2.760
1.170E-06,-2.960
1.180E-06,-3.080
1.190E-06,-3.160
1.200E-06,-3.280
1.210E-06,-3.360
1.220E-06,-3.440
1.230E-06,-3.440
1.240E-06,-3.400
1.250E-06,-3.360
1.260E-06,-3.240
1.270E-06,-3.200
1.280E-06,-3.160
1.290E-06,-3.040
1.300E-06,-2.960
1.310E-06,-2.880
1.320E-06,-2.600
1.330E-06,-2.280
1.340E-06,-2.080
1.350E-06,-2.000
1.360E-06,-2.160
1.370E-06,-2.600
1.380E-06,-2.760
1.390E-06,-3.160
1.400E-06,-3.160
1.410E-06,-3.280
1.420E-06,-3.320
1.430E-06,-3.360
1.440E-06,-2.360
1.450E-06,-1.400
1.460E-06,-0.120
1.470E-06,1.800
1.480E-06,1.680
1.490E-06,1.200
1.500E-06,0.320
1.510E-06,-1.680
1.520E-06,-1.720
1.530E-06,-2.200
1.540E-06,-2.160
1.550E-06,-1.840
1.560E-06,-2.320
1.570E-06,-2.720
1.580E-06,-3.320
1.590E-06,-3.560
1.600E-06,-3.960
1.610E-06,-3.560
1.620E-06,-3.520
1.630E-06,-3.200
1.640E-06,-2.760
1.650E-06,-2.400
1.660E-06,-2.000
1.670E-06,-1.760
1.680E-06,-1.600
1.690E-06,-1.040
1.700E-06,-0.520
1.710E-06,-0.200
1.720E-06,0.040
1.730E-06,-0.040
1.740E-06,0.000
1.750E-06,0.040
1.760E-06,0.440
1.770E-06,0.880
1.780E-06,1.360
1.790E-06,1.400
1.800E-06,1.320
1.810E-06,0.880
1.820E-06,0.760
1.830E-06,0.560
1.840E-06,0.440
1.850E-06,0.000
1.860E-06,-0.640
1.870E-06,-1.360
1.880E-06,-1.920
1.890E-06,-2.240
1.900E-06,-2.520
1.910E-06,-2.480
1.920E-06,-2.080
1.930E-06,-1.520
1.940E-06,-0.960
1.950E-06,-0.600
1.960E-06,-0.640
1.970E-06,-0.640
1.980E-06,-1.040
1.990E-06,-1.160
2.000E-06,-1.400
2.010E-06,-1.400
2.020E-06,-1.720
2.030E-06,-1.880
2.040E-06,-2.160
2.050E-06,-2.480
2.060E-06,-2.440
2.070E-06,-2.560
2.080E-06,-2.480
2.090E-06,-2.360
2.100E-06,-2.200
2.110E-06,-1.880
2.120E-06,-1.680
2.130E-06,-1.600
2.140E-06,-1.560
2.150E-06,-1.400
2.160E-06,-1.200
2.170E-06,-1.120
2.180E-06,-1.000
2.190E-06,-1.120
2.200E-06,-1.240
2.210E-06,-1.200
2.220E-06,-1.320
2.230E-06,-1.320
2.240E-06,-1.320
2.250E-06,-1.200
2.260E-06,-1.080
2.270E-06,-0.920
2.280E-06,-0.720
2.290E-06,-0.600
2.300E-06,-0.520
2.310E-06,-0.440
2.320E-06,-0.520
2.330E-06,-0.720
2.340E-06,-1.000
2.350E-06,-1.320
2.360E-06,-1.640
2.370E-06,-2.080
2.380E-06,-2.360
2.390E-06,-2.560
2.400E-06,-2.720
2.410E-06,-2.880
2.420E-06,-2.920
2.430E-06,-3.000
2.440E-06,-2.920
2.450E-06,-3.000
2.460E-06,-3.080
2.470E-06,-3.160
2.480E-06,-3.080
2.490E-06,-3.200
2.500E-06,-3.200
2.510E-06,-3.320
2.520E-06,-3.440
2.530E-06,-3.640
2.540E-06,-3.840
2.550E-06,-4.040
2.560E-06,-4.160
2.570E-06,-4.400
2.580E-06,-4.440
2.590E-06,-4.480
2.600E-06,-4.520
2.610E-06,-4.520
2.620E-06,-4.480
2.630E-06,-4.400
2.640E-06,-4.320
2.650E-06,-4.160
2.660E-06,-4.080
2.670E-06,-4.000
2.680E-06,-4.000
2.690E-06,-4.080
2.700E-06,-4.160
2.710E-06,-4.160
2.720E-06,-4.240
2.730E-06,-4.200
2.740E-06,-4.280
2.750E-06,-4.160
2.760E-06,-4.040
2.770E-06,-3.960
2.780E-06,-3.840
2.790E-06,-3.680
2.800E-06,-3.640
2.810E-06,-3.640
2.820E-06,-3.680
2.830E-06,-3.800
2.840E-06,-3.880
2.850E-06,-4.080
2.860E-06,-4.240
2.870E-06,-4.720
2.880E-06,-5.120
2.890E-06,-5.240
2.900E-06,-5.200
2.910E-06,-5.240
2.920E-06,-5.240
2.930E-06,-5.240
2.940E-06,-5.240
2.950E-06,-5.240
2.960E-06,-5.240
2.970E-06,-5.200
2.980E-06,-5.200
2.990E-06,-5.200
3.000E-06,-5.200
3.010E-06,-5.240
3.020E-06,-5.240
3.030E-06,-5.240
