mediciones/Mediciones filtradas (saque las feas)/5-15/0.01/WaveData470.csv

#timebase=2000000(ps)
,#voltbase=100000(mv/100)
#size=4000
-8.400E-06,0.120
-8.390E-06,0.116
-8.380E-06,0.024
-8.370E-06,-0.052
-8.360E-06,-0.100
-8.350E-06,-0.056
-8.340E-06,-0.004
-8.330E-06,0.060
-8.320E-06,0.068
-8.310E-06,0.052
-8.300E-06,0.012
-8.290E-06,-0.016
-8.280E-06,-0.016
-8.270E-06,-0.020
-8.260E-06,-0.008
-8.250E-06,-0.004
-8.240E-06,0.024
-8.230E-06,0.020
-8.220E-06,0.028
-8.210E-06,0.020
-8.200E-06,-0.004
-8.190E-06,-0.004
-8.180E-06,0.004
-8.170E-06,-0.012
-8.160E-06,-0.016
-8.150E-06,-0.004
-8.140E-06,-0.008
-8.130E-06,0.004
-8.120E-06,0.008
-8.110E-06,0.000
-8.100E-06,-0.008
-8.090E-06,-0.004
-8.080E-06,0.000
-8.070E-06,0.012
-8.060E-06,0.008
-8.050E-06,0.008
-8.040E-06,0.012
-8.030E-06,0.024
-8.020E-06,0.016
-8.010E-06,0.008
-8.000E-06,-0.004
-7.990E-06,-0.012
-7.980E-06,-0.020
-7.970E-06,0.012
-7.960E-06,0.028
-7.950E-06,0.040
-7.940E-06,0.036
-7.930E-06,0.012
-7.920E-06,-0.004
-7.910E-06,-0.012
-7.900E-06,-0.008
-7.890E-06,0.008
-7.880E-06,0.016
-7.870E-06,0.012
-7.860E-06,0.000
-7.850E-06,-0.016
-7.840E-06,-0.016
-7.830E-06,0.004
-7.820E-06,0.032
-7.810E-06,0.056
-7.800E-06,0.060
-7.790E-06,0.036
-7.780E-06,-0.012
-7.770E-06,-0.028
-7.760E-06,-0.016
-7.750E-06,0.020
-7.740E-06,0.036
-7.730E-06,0.032
-7.720E-06,0.024
-7.710E-06,-0.004
-7.700E-06,-0.012
-7.690E-06,0.000
-7.680E-06,0.028
-7.670E-06,0.048
-7.660E-06,0.048
-7.650E-06,0.024
-7.640E-06,0.024
-7.630E-06,0.024
-7.620E-06,0.020
-7.610E-06,0.020
-7.600E-06,0.032
-7.590E-06,0.012
-7.580E-06,-0.024
-7.570E-06,-0.036
-7.560E-06,-0.080
-7.550E-06,-0.272
-7.540E-06,-0.336
-7.530E-06,-0.140
-7.520E-06,0.132
-7.510E-06,0.284
-7.500E-06,0.336
-7.490E-06,0.124
-7.480E-06,-0.144
-7.470E-06,-0.276
-7.460E-06,-0.308
-7.450E-06,-0.084
-7.440E-06,0.188
-7.430E-06,0.304
-7.420E-06,0.200
-7.410E-06,0.012
-7.400E-06,-0.188
-7.390E-06,-0.220
-7.380E-06,-0.104
-7.370E-06,0.040
-7.360E-06,0.140
-7.350E-06,0.156
-7.340E-06,0.128
-7.330E-06,0.012
-7.320E-06,-0.048
-7.310E-06,-0.108
-7.300E-06,-0.076
-7.290E-06,-0.020
-7.280E-06,0.092
-7.270E-06,0.144
-7.260E-06,0.140
-7.250E-06,0.084
-7.240E-06,-0.004
-7.230E-06,-0.064
-7.220E-06,-0.088
-7.210E-06,-0.020
-7.200E-06,0.024
-7.190E-06,0.132
-7.180E-06,-0.004
-7.170E-06,-0.028
-7.160E-06,-0.192
-7.150E-06,-0.228
-7.140E-06,-0.184
-7.130E-06,-0.088
-7.120E-06,0.072
-7.110E-06,0.196
-7.100E-06,0.216
-7.090E-06,0.032
-7.080E-06,-0.176
-7.070E-06,-0.220
-7.060E-06,-0.068
-7.050E-06,0.060
-7.040E-06,0.164
-7.030E-06,0.128
-7.020E-06,-0.004
-7.010E-06,-0.104
-7.000E-06,-0.080
-6.990E-06,-0.024
-6.980E-06,0.040
-6.970E-06,0.088
-6.960E-06,0.072
-6.950E-06,0.032
-6.940E-06,0.008
-6.930E-06,-0.024
-6.920E-06,-0.044
-6.910E-06,-0.056
-6.900E-06,-0.016
-6.890E-06,0.044
-6.880E-06,0.084
-6.870E-06,0.064
-6.860E-06,0.020
-6.850E-06,-0.012
-6.840E-06,-0.028
-6.830E-06,-0.004
-6.820E-06,0.036
-6.810E-06,0.060
-6.800E-06,0.060
-6.790E-06,0.000
-6.780E-06,-0.076
-6.770E-06,-0.072
-6.760E-06,-0.004
-6.750E-06,0.092
-6.740E-06,0.132
-6.730E-06,-0.004
-6.720E-06,-0.104
-6.710E-06,-0.168
-6.700E-06,-0.224
-6.690E-06,-0.132
-6.680E-06,0.112
-6.670E-06,0.264
-6.660E-06,0.180
-6.650E-06,0.032
-6.640E-06,-0.140
-6.630E-06,-0.192
-6.620E-06,-0.136
-6.610E-06,-0.008
-6.600E-06,0.100
-6.590E-06,0.136
-6.580E-06,0.108
-6.570E-06,0.020
-6.560E-06,-0.056
-6.550E-06,-0.108
-6.540E-06,-0.080
-6.530E-06,-0.020
-6.520E-06,0.056
-6.510E-06,0.080
-6.500E-06,0.060
-6.490E-06,0.016
-6.480E-06,-0.012
-6.470E-06,-0.052
-6.460E-06,-0.064
-6.450E-06,-0.040
-6.440E-06,0.000
-6.430E-06,0.048
-6.420E-06,0.068
-6.410E-06,0.076
-6.400E-06,0.016
-6.390E-06,-0.016
-6.380E-06,-0.028
-6.370E-06,-0.008
-6.360E-06,0.008
-6.350E-06,0.024
-6.340E-06,0.012
-6.330E-06,0.000
-6.320E-06,0.012
-6.310E-06,-0.008
-6.300E-06,-0.012
-6.290E-06,-0.012
-6.280E-06,-0.008
-6.270E-06,-0.004
-6.260E-06,0.016
-6.250E-06,0.024
-6.240E-06,0.012
-6.230E-06,0.008
-6.220E-06,0.008
-6.210E-06,0.004
-6.200E-06,0.008
-6.190E-06,0.012
-6.180E-06,0.000
-6.170E-06,-0.004
-6.160E-06,-0.004
-6.150E-06,0.000
-6.140E-06,0.024
-6.130E-06,0.040
-6.120E-06,0.048
-6.110E-06,0.024
-6.100E-06,-0.004
-6.090E-06,-0.020
-6.080E-06,-0.008
-6.070E-06,0.012
-6.060E-06,0.040
-6.050E-06,0.068
-6.040E-06,-0.096
-6.030E-06,-0.152
-6.020E-06,-0.140
-6.010E-06,-0.068
-6.000E-06,0.000
-5.990E-06,0.152
-5.980E-06,0.176
-5.970E-06,0.072
-5.960E-06,-0.036
-5.950E-06,-0.132
-5.940E-06,-0.084
-5.930E-06,-0.040
-5.920E-06,0.060
-5.910E-06,0.064
-5.900E-06,0.064
-5.890E-06,0.008
-5.880E-06,-0.004
-5.870E-06,-0.028
-5.860E-06,-0.024
-5.850E-06,-0.024
-5.840E-06,-0.040
-5.830E-06,-0.008
-5.820E-06,0.024
-5.810E-06,0.064
-5.800E-06,0.040
-5.790E-06,0.036
-5.780E-06,-0.040
-5.770E-06,-0.044
-5.760E-06,-0.020
-5.750E-06,0.024
-5.740E-06,0.036
-5.730E-06,0.028
-5.720E-06,0.008
-5.710E-06,-0.028
-5.700E-06,-0.048
-5.690E-06,-0.056
-5.680E-06,-0.004
-5.670E-06,0.016
-5.660E-06,0.028
-5.650E-06,0.020
-5.640E-06,0.008
-5.630E-06,0.012
-5.620E-06,0.012
-5.610E-06,-0.008
-5.600E-06,-0.036
-5.590E-06,-0.016
-5.580E-06,-0.004
-5.570E-06,0.032
-5.560E-06,0.036
-5.550E-06,0.020
-5.540E-06,0.004
-5.530E-06,-0.012
-5.520E-06,-0.004
-5.510E-06,-0.016
-5.500E-06,-0.008
-5.490E-06,0.000
-5.480E-06,0.012
-5.470E-06,0.016
-5.460E-06,0.020
-5.450E-06,0.012
-5.440E-06,-0.016
-5.430E-06,-0.028
-5.420E-06,-0.032
-5.410E-06,-0.016
-5.400E-06,0.012
-5.390E-06,0.040
-5.380E-06,0.036
-5.370E-06,0.008
-5.360E-06,-0.008
-5.350E-06,-0.012
-5.340E-06,-0.008
-5.330E-06,0.000
-5.320E-06,0.012
-5.310E-06,0.016
-5.300E-06,0.016
-5.290E-06,0.016
-5.280E-06,0.012
-5.270E-06,0.000
-5.260E-06,-0.008
-5.250E-06,-0.012
-5.240E-06,0.000
-5.230E-06,0.016
-5.220E-06,0.028
-5.210E-06,0.024
-5.200E-06,0.016
-5.190E-06,-0.004
-5.180E-06,-0.016
-5.170E-06,-0.020
-5.160E-06,0.000
-5.150E-06,0.024
-5.140E-06,0.032
-5.130E-06,0.040
-5.120E-06,0.024
-5.110E-06,0.016
-5.100E-06,0.020
-5.090E-06,-0.056
-5.080E-06,-0.080
-5.070E-06,-0.028
-5.060E-06,0.000
-5.050E-06,-0.004
-5.040E-06,0.092
-5.030E-06,0.084
-5.020E-06,0.000
-5.010E-06,-0.060
-5.000E-06,-0.104
-4.990E-06,-0.044
-4.980E-06,0.024
-4.970E-06,0.100
-4.960E-06,0.068
-4.950E-06,0.024
-4.940E-06,-0.048
-4.930E-06,-0.048
-4.920E-06,-0.020
-4.910E-06,-0.004
-4.900E-06,0.008
-4.890E-06,0.012
-4.880E-06,0.016
-4.870E-06,-0.004
-4.860E-06,0.020
-4.850E-06,0.024
-4.840E-06,0.000
-4.830E-06,-0.028
-4.820E-06,-0.008
-4.810E-06,0.016
-4.800E-06,0.040
-4.790E-06,0.040
-4.780E-06,0.012
-4.770E-06,-0.004
-4.760E-06,-0.036
-4.750E-06,-0.040
-4.740E-06,-0.028
-4.730E-06,0.004
-4.720E-06,0.020
-4.710E-06,0.048
-4.700E-06,0.036
-4.690E-06,-0.004
-4.680E-06,-0.020
-4.670E-06,-0.028
-4.660E-06,0.000
-4.650E-06,0.032
-4.640E-06,0.040
-4.630E-06,0.020
-4.620E-06,-0.004
-4.610E-06,-0.024
-4.600E-06,-0.020
-4.590E-06,0.008
-4.580E-06,0.036
-4.570E-06,0.064
-4.560E-06,-0.004
-4.550E-06,-0.064
-4.540E-06,-0.060
-4.530E-06,-0.020
-4.520E-06,-0.028
-4.510E-06,0.028
-4.500E-06,0.036
-4.490E-06,0.036
-4.480E-06,0.020
-4.470E-06,-0.016
-4.460E-06,-0.044
-4.450E-06,-0.024
-4.440E-06,0.016
-4.430E-06,0.024
-4.420E-06,0.028
-4.410E-06,0.008
-4.400E-06,0.008
-4.390E-06,-0.008
-4.380E-06,0.008
-4.370E-06,-0.016
-4.360E-06,-0.012
-4.350E-06,0.000
-4.340E-06,0.008
-4.330E-06,0.028
-4.320E-06,0.024
-4.310E-06,0.024
-4.300E-06,-0.004
-4.290E-06,-0.008
-4.280E-06,-0.020
-4.270E-06,-0.004
-4.260E-06,0.008
-4.250E-06,0.028
-4.240E-06,0.020
-4.230E-06,0.024
-4.220E-06,0.008
-4.210E-06,-0.020
-4.200E-06,-0.012
-4.190E-06,-0.036
-4.180E-06,0.000
-4.170E-06,0.008
-4.160E-06,0.004
-4.150E-06,0.040
-4.140E-06,0.052
-4.130E-06,-0.012
-4.120E-06,-0.060
-4.110E-06,-0.040
-4.100E-06,-0.028
-4.090E-06,0.032
-4.080E-06,0.052
-4.070E-06,0.056
-4.060E-06,0.008
-4.050E-06,-0.024
-4.040E-06,-0.032
-4.030E-06,-0.008
-4.020E-06,0.012
-4.010E-06,0.008
-4.000E-06,0.016
-3.990E-06,0.020
-3.980E-06,0.020
-3.970E-06,0.008
-3.960E-06,0.004
-3.950E-06,-0.004
-3.940E-06,-0.008
-3.930E-06,-0.008
-3.920E-06,-0.064
-3.910E-06,-0.044
-3.900E-06,-0.036
-3.890E-06,-0.044
-3.880E-06,-0.012
-3.870E-06,0.080
-3.860E-06,0.096
-3.850E-06,0.028
-3.840E-06,-0.024
-3.830E-06,-0.088
-3.820E-06,-0.056
-3.810E-06,0.000
-3.800E-06,0.060
-3.790E-06,0.052
-3.780E-06,0.028
-3.770E-06,-0.004
-3.760E-06,-0.036
-3.750E-06,-0.028
-3.740E-06,-0.012
-3.730E-06,0.020
-3.720E-06,0.028
-3.710E-06,0.032
-3.700E-06,-0.004
-3.690E-06,-0.008
-3.680E-06,-0.020
-3.670E-06,-0.008
-3.660E-06,0.004
-3.650E-06,0.020
-3.640E-06,0.016
-3.630E-06,0.020
-3.620E-06,0.020
-3.610E-06,-0.008
-3.600E-06,-0.008
-3.590E-06,-0.024
-3.580E-06,-0.008
-3.570E-06,0.000
-3.560E-06,-0.012
-3.550E-06,0.000
-3.540E-06,0.008
-3.530E-06,-0.020
-3.520E-06,-0.008
-3.510E-06,0.024
-3.500E-06,0.016
-3.490E-06,-0.008
-3.480E-06,0.004
-3.470E-06,0.016
-3.460E-06,0.004
-3.450E-06,-0.004
-3.440E-06,-0.004
-3.430E-06,-0.004
-3.420E-06,0.000
-3.410E-06,0.012
-3.400E-06,0.020
-3.390E-06,0.020
-3.380E-06,0.008
-3.370E-06,-0.008
-3.360E-06,-0.012
-3.350E-06,-0.008
-3.340E-06,0.000
-3.330E-06,0.016
-3.320E-06,0.020
-3.310E-06,0.020
-3.300E-06,0.008
-3.290E-06,-0.004
-3.280E-06,-0.012
-3.270E-06,-0.004
-3.260E-06,0.000
-3.250E-06,0.008
-3.240E-06,0.016
-3.230E-06,0.024
-3.220E-06,0.016
-3.210E-06,0.000
-3.200E-06,0.000
-3.190E-06,-0.012
-3.180E-06,-0.024
-3.170E-06,-0.016
-3.160E-06,0.000
-3.150E-06,0.024
-3.140E-06,0.024
-3.130E-06,0.012
-3.120E-06,-0.004
-3.110E-06,-0.016
-3.100E-06,-0.012
-3.090E-06,-0.004
-3.080E-06,0.012
-3.070E-06,0.024
-3.060E-06,0.020
-3.050E-06,0.012
-3.040E-06,0.004
-3.030E-06,0.000
-3.020E-06,-0.004
-3.010E-06,0.008
-3.000E-06,0.016
-2.990E-06,0.008
-2.980E-06,0.004
-2.970E-06,0.000
-2.960E-06,-0.004
-2.950E-06,-0.004
-2.940E-06,0.000
-2.930E-06,0.000
-2.920E-06,0.012
-2.910E-06,0.016
-2.900E-06,0.020
-2.890E-06,0.020
-2.880E-06,0.004
-2.870E-06,0.004
-2.860E-06,0.000
-2.850E-06,0.000
-2.840E-06,0.004
-2.830E-06,0.016
-2.820E-06,0.012
-2.810E-06,0.012
-2.800E-06,0.008
-2.790E-06,0.012
-2.780E-06,0.000
-2.770E-06,-0.012
-2.760E-06,-0.008
-2.750E-06,-0.004
-2.740E-06,0.004
-2.730E-06,0.024
-2.720E-06,0.060
-2.710E-06,0.036
-2.700E-06,0.000
-2.690E-06,-0.028
-2.680E-06,-0.024
-2.670E-06,0.008
-2.660E-06,0.032
-2.650E-06,0.028
-2.640E-06,0.000
-2.630E-06,-0.008
-2.620E-06,-0.004
-2.610E-06,0.004
-2.600E-06,-0.020
-2.590E-06,-0.072
-2.580E-06,-0.068
-2.570E-06,-0.004
-2.560E-06,0.024
-2.550E-06,0.088
-2.540E-06,0.088
-2.530E-06,0.000
-2.520E-06,-0.088
-2.510E-06,-0.108
-2.500E-06,-0.036
-2.490E-06,0.052
-2.480E-06,0.100
-2.470E-06,0.060
-2.460E-06,-0.004
-2.450E-06,-0.060
-2.440E-06,-0.060
-2.430E-06,-0.012
-2.420E-06,0.032
-2.410E-06,0.052
-2.400E-06,0.044
-2.390E-06,0.020
-2.380E-06,-0.004
-2.370E-06,-0.016
-2.360E-06,-0.024
-2.350E-06,-0.020
-2.340E-06,0.008
-2.330E-06,0.032
-2.320E-06,0.040
-2.310E-06,0.028
-2.300E-06,0.004
-2.290E-06,-0.024
-2.280E-06,-0.036
-2.270E-06,-0.028
-2.260E-06,-0.008
-2.250E-06,0.012
-2.240E-06,0.024
-2.230E-06,0.028
-2.220E-06,0.008
-2.210E-06,-0.020
-2.200E-06,-0.036
-2.190E-06,-0.024
-2.180E-06,0.008
-2.170E-06,0.036
-2.160E-06,0.044
-2.150E-06,0.012
-2.140E-06,-0.012
-2.130E-06,-0.040
-2.120E-06,-0.036
-2.110E-06,-0.008
-2.100E-06,0.024
-2.090E-06,0.044
-2.080E-06,0.040
-2.070E-06,0.012
-2.060E-06,-0.012
-2.050E-06,-0.040
-2.040E-06,-0.028
-2.030E-06,0.000
-2.020E-06,0.024
-2.010E-06,0.044
-2.000E-06,0.052
-1.990E-06,0.028
-1.980E-06,0.004
-1.970E-06,-0.024
-1.960E-06,-0.028
-1.950E-06,-0.012
-1.940E-06,0.020
-1.930E-06,0.048
-1.920E-06,0.044
-1.910E-06,0.016
-1.900E-06,-0.008
-1.890E-06,-0.040
-1.880E-06,-0.040
-1.870E-06,-0.012
-1.860E-06,0.012
-1.850E-06,0.032
-1.840E-06,0.028
-1.830E-06,0.024
-1.820E-06,0.004
-1.810E-06,-0.008
-1.800E-06,-0.024
-1.790E-06,-0.004
-1.780E-06,0.012
-1.770E-06,0.028
-1.760E-06,0.028
-1.750E-06,0.024
-1.740E-06,0.020
-1.730E-06,0.004
-1.720E-06,-0.008
-1.710E-06,-0.004
-1.700E-06,0.000
-1.690E-06,0.016
-1.680E-06,0.028
-1.670E-06,0.032
-1.660E-06,0.008
-1.650E-06,-0.008
-1.640E-06,-0.028
-1.630E-06,-0.020
-1.620E-06,0.000
-1.610E-06,0.028
-1.600E-06,0.052
-1.590E-06,0.056
-1.580E-06,0.036
-1.570E-06,0.016
-1.560E-06,0.000
-1.550E-06,0.000
-1.540E-06,-0.004
-1.530E-06,0.000
-1.520E-06,0.000
-1.510E-06,0.000
-1.500E-06,-0.012
-1.490E-06,-0.012
-1.480E-06,-0.020
-1.470E-06,0.012
-1.460E-06,0.020
-1.450E-06,0.016
-1.440E-06,0.000
-1.430E-06,-0.004
-1.420E-06,-0.004
-1.410E-06,0.008
-1.400E-06,0.012
-1.390E-06,0.004
-1.380E-06,-0.004
-1.370E-06,-0.020
-1.360E-06,-0.016
-1.350E-06,-0.004
-1.340E-06,-0.004
-1.330E-06,0.000
-1.320E-06,0.016
-1.310E-06,0.024
-1.300E-06,0.012
-1.290E-06,0.000
-1.280E-06,-0.008
-1.270E-06,-0.008
-1.260E-06,0.004
-1.250E-06,0.012
-1.240E-06,0.012
-1.230E-06,0.012
-1.220E-06,0.008
-1.210E-06,0.004
-1.200E-06,0.000
-1.190E-06,0.000
-1.180E-06,-0.004
-1.170E-06,0.000
-1.160E-06,0.008
-1.150E-06,0.016
-1.140E-06,0.012
-1.130E-06,0.016
-1.120E-06,0.008
-1.110E-06,-0.008
-1.100E-06,-0.008
-1.090E-06,0.004
-1.080E-06,0.008
-1.070E-06,0.024
-1.060E-06,0.032
-1.050E-06,0.024
-1.040E-06,0.012
-1.030E-06,0.012
-1.020E-06,0.008
-1.010E-06,0.016
-1.000E-06,0.032
-9.900E-07,0.028
-9.800E-07,0.040
-9.700E-07,0.040
-9.600E-07,0.024
-9.500E-07,0.028
-9.400E-07,0.020
-9.300E-07,0.020
-9.200E-07,0.008
-9.100E-07,-0.064
-9.000E-07,-0.096
-8.900E-07,-0.080
-8.800E-07,-0.044
-8.700E-07,-0.008
-8.600E-07,0.080
-8.500E-07,0.100
-8.400E-07,0.016
-8.300E-07,-0.064
-8.200E-07,-0.080
-8.100E-07,-0.024
-8.000E-07,0.048
-7.900E-07,0.092
-7.800E-07,0.080
-7.700E-07,0.020
-7.600E-07,-0.024
-7.500E-07,-0.024
-7.400E-07,-0.008
-7.300E-07,-0.012
-7.200E-07,0.020
-7.100E-07,0.044
-7.000E-07,0.056
-6.900E-07,0.012
-6.800E-07,0.008
-6.700E-07,-0.032
-6.600E-07,-0.068
-6.500E-07,-0.056
-6.400E-07,0.008
-6.300E-07,0.052
-6.200E-07,0.048
-6.100E-07,0.036
-6.000E-07,0.012
-5.900E-07,-0.016
-5.800E-07,-0.040
-5.700E-07,-0.020
-5.600E-07,-0.004
-5.500E-07,0.000
-5.400E-07,0.024
-5.300E-07,0.028
-5.200E-07,0.036
-5.100E-07,0.012
-5.000E-07,0.004
-4.900E-07,-0.008
-4.800E-07,0.000
-4.700E-07,0.008
-4.600E-07,0.040
-4.500E-07,0.048
-4.400E-07,0.044
-4.300E-07,0.016
-4.200E-07,0.000
-4.100E-07,0.000
-4.000E-07,0.020
-3.900E-07,0.056
-3.800E-07,0.072
-3.700E-07,0.068
-3.600E-07,0.044
-3.500E-07,0.028
-3.400E-07,0.012
-3.300E-07,0.004
-3.200E-07,0.012
-3.100E-07,0.028
-3.000E-07,0.060
-2.900E-07,0.080
-2.800E-07,0.084
-2.700E-07,0.064
-2.600E-07,0.020
-2.500E-07,0.000
-2.400E-07,-0.004
-2.300E-07,0.024
-2.200E-07,0.032
-2.100E-07,0.028
-2.000E-07,-0.100
-1.900E-07,-0.112
-1.800E-07,-0.172
-1.700E-07,-0.172
-1.600E-07,-0.052
-1.500E-07,0.136
-1.400E-07,0.196
-1.300E-07,0.140
-1.200E-07,0.108
-1.100E-07,0.072
-1.000E-07,0.072
-9.000E-08,0.088
-8.000E-08,0.096
-7.000E-08,0.064
-6.000E-08,-0.068
-5.000E-08,-0.404
-4.000E-08,-0.508
-3.000E-08,-0.508
-2.000E-08,-0.148
-1.000E-08,0.268
0.000E+00,0.540
1.000E-08,0.540
2.000E-08,0.316
3.000E-08,-0.124
4.000E-08,-0.396
5.000E-08,-0.512
6.000E-08,-0.512
7.000E-08,-0.512
8.000E-08,-0.364
9.000E-08,0.120
1.000E-07,0.500
1.100E-07,0.544
1.200E-07,0.424
1.300E-07,-0.096
1.400E-07,-0.512
1.500E-07,-0.508
1.600E-07,-0.252
1.700E-07,0.208
1.800E-07,0.452
1.900E-07,0.360
2.000E-07,0.096
2.100E-07,-0.188
2.200E-07,-0.268
2.300E-07,-0.192
2.400E-07,0.004
2.500E-07,0.128
2.600E-07,0.228
2.700E-07,0.092
2.800E-07,0.036
2.900E-07,-0.036
3.000E-07,-0.140
3.100E-07,-0.060
3.200E-07,0.176
3.300E-07,0.216
3.400E-07,0.164
3.500E-07,0.124
3.600E-07,-0.044
3.700E-07,-0.124
3.800E-07,-0.172
3.900E-07,-0.100
4.000E-07,-0.072
4.100E-07,0.028
4.200E-07,0.056
4.300E-07,0.116
4.400E-07,0.056
4.500E-07,-0.008
4.600E-07,-0.036
4.700E-07,-0.048
4.800E-07,0.024
4.900E-07,0.040
5.000E-07,0.100
5.100E-07,0.028
5.200E-07,0.040
5.300E-07,0.000
5.400E-07,0.040
5.500E-07,0.096
5.600E-07,0.108
5.700E-07,0.136
5.800E-07,-0.040
5.900E-07,-0.288
6.000E-07,-0.476
6.100E-07,-0.352
6.200E-07,-0.136
6.300E-07,0.224
6.400E-07,0.396
6.500E-07,0.312
6.600E-07,0.044
6.700E-07,-0.240
6.800E-07,-0.292
6.900E-07,-0.172
7.000E-07,0.060
7.100E-07,0.192
7.200E-07,0.236
7.300E-07,0.112
7.400E-07,-0.004
7.500E-07,-0.100
7.600E-07,-0.132
7.700E-07,-0.072
7.800E-07,0.028
7.900E-07,0.152
8.000E-07,0.136
8.100E-07,0.060
8.200E-07,-0.116
8.300E-07,-0.192
8.400E-07,-0.176
8.500E-07,-0.028
8.600E-07,0.108
8.700E-07,0.152
8.800E-07,0.124
8.900E-07,-0.012
9.000E-07,-0.076
9.100E-07,-0.112
9.200E-07,-0.040
9.300E-07,0.012
9.400E-07,0.068
9.500E-07,0.068
9.600E-07,0.040
9.700E-07,0.012
9.800E-07,-0.028
9.900E-07,-0.012
1.000E-06,-0.012
1.010E-06,0.036
1.020E-06,0.064
1.030E-06,0.080
1.040E-06,0.052
1.050E-06,0.000
1.060E-06,-0.036
1.070E-06,-0.028
1.080E-06,0.012
1.090E-06,0.060
1.100E-06,0.084
1.110E-06,0.072
1.120E-06,0.048
1.130E-06,0.012
1.140E-06,-0.012
1.150E-06,-0.032
1.160E-06,0.000
1.170E-06,0.060
1.180E-06,0.088
1.190E-06,0.072
1.200E-06,-0.036
1.210E-06,-0.144
1.220E-06,-0.172
1.230E-06,-0.056
1.240E-06,0.072
1.250E-06,0.152
1.260E-06,0.112
1.270E-06,0.016
1.280E-06,-0.044
1.290E-06,-0.064
1.300E-06,0.004
1.310E-06,0.040
1.320E-06,0.068
1.330E-06,0.072
1.340E-06,0.056
1.350E-06,0.028
1.360E-06,0.056
1.370E-06,0.040
1.380E-06,0.048
1.390E-06,0.052
1.400E-06,0.044
1.410E-06,0.056
1.420E-06,0.072
1.430E-06,0.064
1.440E-06,0.048
1.450E-06,0.076
1.460E-06,0.108
1.470E-06,0.152
1.480E-06,0.172
1.490E-06,0.148
1.500E-06,0.120
1.510E-06,0.080
1.520E-06,0.044
1.530E-06,0.048
1.540E-06,-0.124
1.550E-06,-0.512
1.560E-06,-0.512
1.570E-06,-0.508
1.580E-06,-0.148
1.590E-06,0.540
1.600E-06,0.536
1.610E-06,0.536
1.620E-06,0.084
1.630E-06,-0.512
1.640E-06,-0.508
1.650E-06,-0.512
1.660E-06,-0.400
1.670E-06,0.364
1.680E-06,0.544
1.690E-06,0.540
1.700E-06,0.248
1.710E-06,-0.316
1.720E-06,-0.512
1.730E-06,-0.440
1.740E-06,-0.120
1.750E-06,0.240
1.760E-06,0.324
1.770E-06,0.176
1.780E-06,0.108
1.790E-06,-0.104
1.800E-06,-0.104
1.810E-06,-0.128
1.820E-06,-0.004
1.830E-06,0.024
1.840E-06,0.120
1.850E-06,0.076
1.860E-06,0.028
1.870E-06,0.000
1.880E-06,-0.016
1.890E-06,0.044
1.900E-06,0.000
1.910E-06,0.108
1.920E-06,0.064
1.930E-06,0.080
1.940E-06,-0.008
1.950E-06,0.112
1.960E-06,0.140
1.970E-06,0.128
1.980E-06,0.056
1.990E-06,-0.040
2.000E-06,-0.160
2.010E-06,-0.216
2.020E-06,-0.072
2.030E-06,0.032
2.040E-06,0.256
2.050E-06,0.232
2.060E-06,0.176
2.070E-06,-0.012
2.080E-06,-0.108
2.090E-06,-0.116
2.100E-06,-0.024
2.110E-06,-0.016
2.120E-06,-0.076
2.130E-06,-0.084
2.140E-06,-0.104
2.150E-06,-0.028
2.160E-06,-0.008
2.170E-06,0.008
2.180E-06,-0.044
2.190E-06,-0.020
2.200E-06,0.036
2.210E-06,0.140
2.220E-06,0.176
2.230E-06,0.100
2.240E-06,0.008
2.250E-06,-0.084
2.260E-06,-0.068
2.270E-06,0.000
2.280E-06,0.092
2.290E-06,0.120
2.300E-06,0.112
2.310E-06,0.064
2.320E-06,0.016
2.330E-06,-0.056
2.340E-06,-0.156
2.350E-06,-0.340
2.360E-06,-0.392
2.370E-06,-0.248
2.380E-06,0.036
2.390E-06,0.316
2.400E-06,0.420
2.410E-06,0.168
2.420E-06,-0.152
2.430E-06,-0.264
2.440E-06,-0.144
2.450E-06,0.096
2.460E-06,0.236
2.470E-06,0.208
2.480E-06,0.068
2.490E-06,-0.072
2.500E-06,-0.176
2.510E-06,-0.140
2.520E-06,-0.072
2.530E-06,0.040
2.540E-06,0.096
2.550E-06,0.096
2.560E-06,0.040
2.570E-06,-0.012
2.580E-06,-0.012
2.590E-06,0.012
2.600E-06,0.072
2.610E-06,0.124
2.620E-06,0.160
2.630E-06,0.108
2.640E-06,0.068
2.650E-06,0.012
2.660E-06,0.032
2.670E-06,0.080
2.680E-06,0.144
2.690E-06,0.188
2.700E-06,0.152
2.710E-06,-0.280
2.720E-06,-0.512
2.730E-06,-0.508
2.740E-06,-0.508
2.750E-06,-0.056
2.760E-06,0.540
2.770E-06,0.540
2.780E-06,0.352
2.790E-06,-0.080
2.800E-06,-0.380
2.810E-06,-0.308
2.820E-06,-0.008
2.830E-06,0.224
2.840E-06,0.248
2.850E-06,0.124
2.860E-06,0.076
2.870E-06,-0.064
2.880E-06,-0.028
2.890E-06,-0.044
2.900E-06,0.004
2.910E-06,0.016
2.920E-06,0.020
2.930E-06,0.024
2.940E-06,0.092
2.950E-06,0.140
2.960E-06,0.096
2.970E-06,0.092
2.980E-06,0.088
2.990E-06,0.128
3.000E-06,0.132
3.010E-06,0.124
3.020E-06,0.052
3.030E-06,0.008
3.040E-06,-0.008
3.050E-06,0.012
3.060E-06,0.068
3.070E-06,0.040
3.080E-06,-0.508
3.090E-06,-0.512
3.100E-06,-0.512
3.110E-06,-0.260
3.120E-06,0.436
3.130E-06,0.540
3.140E-06,0.540
3.150E-06,-0.204
3.160E-06,-0.508
3.170E-06,-0.512
3.180E-06,-0.356
3.190E-06,0.088
3.200E-06,0.284
3.210E-06,0.256
3.220E-06,0.408
3.230E-06,0.240
