mediciones/Mediciones filtradas (saque las feas)/5-15/45/WaveData47522.csv

#timebase=2000000(ps)
,#voltbase=1000000(mv/100)
#size=4000
-8.400E-06,0.080
-8.390E-06,0.040
-8.380E-06,0.080
-8.370E-06,0.080
-8.360E-06,0.080
-8.350E-06,0.040
-8.340E-06,0.080
-8.330E-06,0.080
-8.320E-06,0.080
-8.310E-06,0.040
-8.300E-06,0.040
-8.290E-06,0.040
-8.280E-06,0.040
-8.270E-06,0.040
-8.260E-06,0.040
-8.250E-06,0.040
-8.240E-06,0.040
-8.230E-06,0.080
-8.220E-06,0.040
-8.210E-06,0.080
-8.200E-06,0.120
-8.190E-06,0.000
-8.180E-06,0.000
-8.170E-06,0.040
-8.160E-06,0.000
-8.150E-06,0.080
-8.140E-06,0.000
-8.130E-06,0.040
-8.120E-06,0.040
-8.110E-06,0.040
-8.100E-06,0.040
-8.090E-06,0.040
-8.080E-06,0.040
-8.070E-06,0.040
-8.060E-06,0.080
-8.050E-06,0.040
-8.040E-06,0.040
-8.030E-06,0.080
-8.020E-06,0.080
-8.010E-06,0.000
-8.000E-06,0.000
-7.990E-06,0.040
-7.980E-06,0.000
-7.970E-06,0.040
-7.960E-06,0.040
-7.950E-06,0.000
-7.940E-06,0.080
-7.930E-06,0.080
-7.920E-06,0.000
-7.910E-06,0.080
-7.900E-06,0.040
-7.890E-06,0.080
-7.880E-06,0.080
-7.870E-06,0.040
-7.860E-06,0.080
-7.850E-06,0.080
-7.840E-06,0.080
-7.830E-06,0.120
-7.820E-06,0.000
-7.810E-06,0.000
-7.800E-06,0.080
-7.790E-06,0.040
-7.780E-06,0.080
-7.770E-06,0.080
-7.760E-06,0.040
-7.750E-06,0.080
-7.740E-06,0.080
-7.730E-06,0.000
-7.720E-06,0.080
-7.710E-06,0.000
-7.700E-06,0.000
-7.690E-06,0.080
-7.680E-06,0.040
-7.670E-06,0.080
-7.660E-06,0.040
-7.650E-06,0.040
-7.640E-06,0.040
-7.630E-06,0.080
-7.620E-06,0.040
-7.610E-06,0.040
-7.600E-06,0.040
-7.590E-06,0.080
-7.580E-06,0.040
-7.570E-06,0.080
-7.560E-06,0.000
-7.550E-06,0.080
-7.540E-06,0.040
-7.530E-06,0.080
-7.520E-06,0.040
-7.510E-06,0.040
-7.500E-06,0.040
-7.490E-06,0.080
-7.480E-06,0.080
-7.470E-06,0.040
-7.460E-06,0.080
-7.450E-06,0.040
-7.440E-06,0.040
-7.430E-06,0.080
-7.420E-06,0.040
-7.410E-06,0.000
-7.400E-06,0.080
-7.390E-06,0.080
-7.380E-06,0.040
-7.370E-06,0.040
-7.360E-06,0.040
-7.350E-06,0.040
-7.340E-06,0.080
-7.330E-06,0.000
-7.320E-06,0.080
-7.310E-06,0.080
-7.300E-06,0.080
-7.290E-06,0.040
-7.280E-06,0.040
-7.270E-06,0.040
-7.260E-06,0.080
-7.250E-06,0.000
-7.240E-06,0.080
-7.230E-06,0.040
-7.220E-06,0.000
-7.210E-06,0.040
-7.200E-06,0.080
-7.190E-06,0.040
-7.180E-06,0.080
-7.170E-06,0.040
-7.160E-06,0.080
-7.150E-06,0.040
-7.140E-06,0.080
-7.130E-06,0.000
-7.120E-06,0.040
-7.110E-06,0.080
-7.100E-06,0.040
-7.090E-06,0.040
-7.080E-06,0.080
-7.070E-06,0.040
-7.060E-06,0.080
-7.050E-06,0.040
-7.040E-06,0.040
-7.030E-06,0.040
-7.020E-06,0.120
-7.010E-06,0.120
-7.000E-06,0.120
-6.990E-06,0.120
-6.980E-06,0.000
-6.970E-06,0.000
-6.960E-06,0.040
-6.950E-06,0.000
-6.940E-06,0.040
-6.930E-06,0.000
-6.920E-06,0.080
-6.910E-06,0.080
-6.900E-06,0.040
-6.890E-06,0.040
-6.880E-06,0.040
-6.870E-06,0.000
-6.860E-06,0.040
-6.850E-06,0.080
-6.840E-06,0.040
-6.830E-06,0.040
-6.820E-06,0.120
-6.810E-06,0.080
-6.800E-06,0.080
-6.790E-06,0.080
-6.780E-06,0.000
-6.770E-06,0.080
-6.760E-06,0.040
-6.750E-06,0.080
-6.740E-06,0.080
-6.730E-06,0.120
-6.720E-06,0.120
-6.710E-06,0.080
-6.700E-06,0.080
-6.690E-06,0.080
-6.680E-06,0.040
-6.670E-06,0.040
-6.660E-06,0.080
-6.650E-06,0.000
-6.640E-06,0.040
-6.630E-06,0.040
-6.620E-06,0.040
-6.610E-06,0.080
-6.600E-06,0.040
-6.590E-06,0.000
-6.580E-06,0.080
-6.570E-06,0.040
-6.560E-06,0.080
-6.550E-06,0.040
-6.540E-06,0.040
-6.530E-06,0.000
-6.520E-06,0.080
-6.510E-06,0.080
-6.500E-06,0.000
-6.490E-06,0.000
-6.480E-06,0.080
-6.470E-06,0.040
-6.460E-06,0.040
-6.450E-06,0.080
-6.440E-06,0.080
-6.430E-06,0.120
-6.420E-06,0.000
-6.410E-06,0.040
-6.400E-06,0.040
-6.390E-06,0.040
-6.380E-06,0.040
-6.370E-06,0.120
-6.360E-06,0.040
-6.350E-06,0.000
-6.340E-06,0.040
-6.330E-06,0.080
-6.320E-06,0.080
-6.310E-06,0.080
-6.300E-06,0.040
-6.290E-06,0.080
-6.280E-06,0.040
-6.270E-06,0.040
-6.260E-06,0.040
-6.250E-06,0.000
-6.240E-06,0.040
-6.230E-06,0.000
-6.220E-06,0.040
-6.210E-06,0.080
-6.200E-06,0.040
-6.190E-06,0.040
-6.180E-06,0.040
-6.170E-06,0.000
-6.160E-06,0.000
-6.150E-06,0.040
-6.140E-06,0.040
-6.130E-06,0.080
-6.120E-06,0.040
-6.110E-06,0.080
-6.100E-06,0.040
-6.090E-06,0.040
-6.080E-06,0.080
-6.070E-06,0.000
-6.060E-06,0.040
-6.050E-06,0.040
-6.040E-06,0.040
-6.030E-06,0.040
-6.020E-06,0.080
-6.010E-06,0.040
-6.000E-06,0.000
-5.990E-06,0.000
-5.980E-06,0.040
-5.970E-06,0.040
-5.960E-06,0.040
-5.950E-06,0.040
-5.940E-06,0.040
-5.930E-06,0.040
-5.920E-06,0.080
-5.910E-06,0.040
-5.900E-06,0.080
-5.890E-06,0.000
-5.880E-06,0.080
-5.870E-06,0.120
-5.860E-06,0.040
-5.850E-06,0.040
-5.840E-06,0.040
-5.830E-06,0.040
-5.820E-06,0.040
-5.810E-06,0.120
-5.800E-06,0.120
-5.790E-06,0.040
-5.780E-06,0.000
-5.770E-06,0.040
-5.760E-06,0.080
-5.750E-06,0.040
-5.740E-06,0.040
-5.730E-06,0.000
-5.720E-06,0.000
-5.710E-06,0.040
-5.700E-06,0.040
-5.690E-06,0.040
-5.680E-06,0.040
-5.670E-06,0.040
-5.660E-06,0.040
-5.650E-06,0.040
-5.640E-06,0.040
-5.630E-06,0.040
-5.620E-06,0.000
-5.610E-06,0.040
-5.600E-06,0.040
-5.590E-06,0.080
-5.580E-06,0.080
-5.570E-06,0.080
-5.560E-06,0.120
-5.550E-06,0.120
-5.540E-06,0.040
-5.530E-06,0.040
-5.520E-06,0.080
-5.510E-06,0.120
-5.500E-06,0.120
-5.490E-06,0.080
-5.480E-06,0.040
-5.470E-06,0.000
-5.460E-06,0.080
-5.450E-06,0.080
-5.440E-06,0.120
-5.430E-06,0.040
-5.420E-06,0.080
-5.410E-06,0.080
-5.400E-06,0.080
-5.390E-06,0.000
-5.380E-06,0.000
-5.370E-06,0.040
-5.360E-06,0.000
-5.350E-06,0.000
-5.340E-06,0.080
-5.330E-06,0.040
-5.320E-06,0.040
-5.310E-06,0.040
-5.300E-06,0.040
-5.290E-06,0.000
-5.280E-06,0.040
-5.270E-06,0.040
-5.260E-06,0.080
-5.250E-06,0.080
-5.240E-06,0.040
-5.230E-06,0.040
-5.220E-06,0.080
-5.210E-06,0.040
-5.200E-06,0.080
-5.190E-06,0.040
-5.180E-06,0.080
-5.170E-06,0.040
-5.160E-06,0.040
-5.150E-06,0.040
-5.140E-06,0.040
-5.130E-06,0.040
-5.120E-06,0.040
-5.110E-06,0.000
-5.100E-06,0.040
-5.090E-06,0.040
-5.080E-06,0.040
-5.070E-06,0.080
-5.060E-06,0.040
-5.050E-06,0.000
-5.040E-06,0.040
-5.030E-06,0.040
-5.020E-06,0.040
-5.010E-06,0.080
-5.000E-06,0.080
-4.990E-06,0.000
-4.980E-06,0.080
-4.970E-06,0.000
-4.960E-06,0.080
-4.950E-06,0.080
-4.940E-06,0.080
-4.930E-06,0.040
-4.920E-06,0.040
-4.910E-06,0.040
-4.900E-06,0.040
-4.890E-06,0.000
-4.880E-06,0.040
-4.870E-06,0.000
-4.860E-06,0.000
-4.850E-06,0.040
-4.840E-06,0.080
-4.830E-06,0.080
-4.820E-06,0.120
-4.810E-06,0.040
-4.800E-06,0.040
-4.790E-06,0.040
-4.780E-06,0.040
-4.770E-06,0.080
-4.760E-06,0.080
-4.750E-06,0.040
-4.740E-06,0.040
-4.730E-06,0.040
-4.720E-06,0.040
-4.710E-06,0.000
-4.700E-06,0.080
-4.690E-06,0.040
-4.680E-06,0.080
-4.670E-06,0.040
-4.660E-06,0.040
-4.650E-06,0.080
-4.640E-06,0.040
-4.630E-06,0.120
-4.620E-06,0.000
-4.610E-06,0.080
-4.600E-06,0.040
-4.590E-06,0.080
-4.580E-06,0.000
-4.570E-06,0.040
-4.560E-06,0.080
-4.550E-06,0.120
-4.540E-06,0.000
-4.530E-06,0.040
-4.520E-06,0.080
-4.510E-06,0.040
-4.500E-06,0.040
-4.490E-06,0.080
-4.480E-06,0.040
-4.470E-06,0.080
-4.460E-06,0.000
-4.450E-06,0.040
-4.440E-06,0.040
-4.430E-06,0.080
-4.420E-06,0.040
-4.410E-06,0.080
-4.400E-06,0.040
-4.390E-06,0.040
-4.380E-06,0.080
-4.370E-06,0.040
-4.360E-06,0.040
-4.350E-06,0.080
-4.340E-06,0.080
-4.330E-06,0.080
-4.320E-06,0.040
-4.310E-06,0.040
-4.300E-06,0.000
-4.290E-06,0.080
-4.280E-06,0.080
-4.270E-06,0.080
-4.260E-06,0.080
-4.250E-06,0.040
-4.240E-06,0.080
-4.230E-06,0.040
-4.220E-06,0.000
-4.210E-06,0.040
-4.200E-06,0.120
-4.190E-06,0.120
-4.180E-06,0.040
-4.170E-06,0.000
-4.160E-06,0.040
-4.150E-06,0.000
-4.140E-06,0.040
-4.130E-06,0.080
-4.120E-06,0.040
-4.110E-06,0.040
-4.100E-06,0.040
-4.090E-06,0.040
-4.080E-06,0.040
-4.070E-06,0.040
-4.060E-06,0.040
-4.050E-06,0.080
-4.040E-06,0.040
-4.030E-06,0.040
-4.020E-06,0.000
-4.010E-06,0.080
-4.000E-06,0.000
-3.990E-06,0.080
-3.980E-06,0.080
-3.970E-06,0.080
-3.960E-06,0.040
-3.950E-06,0.080
-3.940E-06,0.080
-3.930E-06,0.080
-3.920E-06,0.040
-3.910E-06,0.040
-3.900E-06,0.040
-3.890E-06,0.040
-3.880E-06,0.040
-3.870E-06,0.120
-3.860E-06,0.080
-3.850E-06,0.120
-3.840E-06,0.080
-3.830E-06,0.040
-3.820E-06,0.000
-3.810E-06,0.080
-3.800E-06,0.000
-3.790E-06,0.000
-3.780E-06,0.040
-3.770E-06,0.080
-3.760E-06,0.040
-3.750E-06,0.000
-3.740E-06,0.040
-3.730E-06,0.000
-3.720E-06,0.000
-3.710E-06,0.080
-3.700E-06,0.000
-3.690E-06,0.080
-3.680E-06,0.080
-3.670E-06,0.080
-3.660E-06,0.040
-3.650E-06,0.080
-3.640E-06,0.080
-3.630E-06,0.080
-3.620E-06,0.000
-3.610E-06,0.080
-3.600E-06,0.040
-3.590E-06,0.080
-3.580E-06,0.000
-3.570E-06,0.000
-3.560E-06,0.040
-3.550E-06,0.000
-3.540E-06,0.080
-3.530E-06,0.040
-3.520E-06,0.080
-3.510E-06,0.040
-3.500E-06,0.040
-3.490E-06,0.080
-3.480E-06,0.040
-3.470E-06,0.040
-3.460E-06,0.080
-3.450E-06,0.040
-3.440E-06,0.080
-3.430E-06,0.000
-3.420E-06,0.040
-3.410E-06,0.040
-3.400E-06,0.000
-3.390E-06,0.000
-3.380E-06,0.040
-3.370E-06,0.000
-3.360E-06,0.040
-3.350E-06,0.040
-3.340E-06,0.040
-3.330E-06,0.040
-3.320E-06,0.040
-3.310E-06,0.040
-3.300E-06,0.040
-3.290E-06,0.040
-3.280E-06,0.080
-3.270E-06,0.080
-3.260E-06,0.080
-3.250E-06,0.080
-3.240E-06,0.080
-3.230E-06,0.080
-3.220E-06,0.040
-3.210E-06,0.040
-3.200E-06,0.040
-3.190E-06,0.000
-3.180E-06,0.040
-3.170E-06,0.040
-3.160E-06,0.000
-3.150E-06,0.080
-3.140E-06,0.040
-3.130E-06,0.040
-3.120E-06,0.120
-3.110E-06,0.080
-3.100E-06,0.000
-3.090E-06,0.000
-3.080E-06,0.040
-3.070E-06,0.080
-3.060E-06,0.040
-3.050E-06,0.040
-3.040E-06,0.080
-3.030E-06,0.040
-3.020E-06,0.040
-3.010E-06,0.080
-3.000E-06,0.080
-2.990E-06,0.040
-2.980E-06,0.200
-2.970E-06,0.280
-2.960E-06,0.320
-2.950E-06,0.320
-2.940E-06,0.240
-2.930E-06,0.120
-2.920E-06,0.040
-2.910E-06,0.000
-2.900E-06,0.040
-2.890E-06,-0.040
-2.880E-06,-0.080
-2.870E-06,-0.160
-2.860E-06,-0.200
-2.850E-06,-0.160
-2.840E-06,-0.160
-2.830E-06,-0.040
-2.820E-06,-0.040
-2.810E-06,-0.040
-2.800E-06,-0.080
-2.790E-06,-0.080
-2.780E-06,0.000
-2.770E-06,0.000
-2.760E-06,0.000
-2.750E-06,0.080
-2.740E-06,0.080
-2.730E-06,0.120
-2.720E-06,0.040
-2.710E-06,0.160
-2.700E-06,0.160
-2.690E-06,0.160
-2.680E-06,0.240
-2.670E-06,0.160
-2.660E-06,0.120
-2.650E-06,0.120
-2.640E-06,0.160
-2.630E-06,0.200
-2.620E-06,0.160
-2.610E-06,0.120
-2.600E-06,0.120
-2.590E-06,0.040
-2.580E-06,0.080
-2.570E-06,0.080
-2.560E-06,0.040
-2.550E-06,0.080
-2.540E-06,0.080
-2.530E-06,0.000
-2.520E-06,0.000
-2.510E-06,0.040
-2.500E-06,0.000
-2.490E-06,0.000
-2.480E-06,-0.040
-2.470E-06,-0.040
-2.460E-06,-0.040
-2.450E-06,-0.080
-2.440E-06,-0.080
-2.430E-06,-0.080
-2.420E-06,-0.120
-2.410E-06,-0.240
-2.400E-06,-0.200
-2.390E-06,-0.320
-2.380E-06,-0.320
-2.370E-06,-0.320
-2.360E-06,-0.320
-2.350E-06,-0.360
-2.340E-06,-0.360
-2.330E-06,-0.320
-2.320E-06,-0.320
-2.310E-06,-0.320
-2.300E-06,-0.360
-2.290E-06,-0.320
-2.280E-06,-0.320
-2.270E-06,-0.360
-2.260E-06,-0.320
-2.250E-06,-0.240
-2.240E-06,-0.200
-2.230E-06,-0.160
-2.220E-06,-0.120
-2.210E-06,-0.160
-2.200E-06,-0.240
-2.190E-06,-0.280
-2.180E-06,-0.280
-2.170E-06,-0.320
-2.160E-06,-0.360
-2.150E-06,-0.440
-2.140E-06,-0.440
-2.130E-06,-0.480
-2.120E-06,-0.480
-2.110E-06,-0.520
-2.100E-06,-0.600
-2.090E-06,-0.640
-2.080E-06,-0.640
-2.070E-06,-0.720
-2.060E-06,-0.840
-2.050E-06,-0.880
-2.040E-06,-0.880
-2.030E-06,-0.880
-2.020E-06,-0.920
-2.010E-06,-0.840
-2.000E-06,-0.920
-1.990E-06,-0.840
-1.980E-06,-0.840
-1.970E-06,-0.920
-1.960E-06,-0.840
-1.950E-06,-0.880
-1.940E-06,-0.880
-1.930E-06,-0.880
-1.920E-06,-0.840
-1.910E-06,-0.840
-1.900E-06,-0.840
-1.890E-06,-0.800
-1.880E-06,-0.720
-1.870E-06,-0.720
-1.860E-06,-0.640
-1.850E-06,-0.680
-1.840E-06,-0.640
-1.830E-06,-0.640
-1.820E-06,-0.600
-1.810E-06,-0.640
-1.800E-06,-0.680
-1.790E-06,-0.640
-1.780E-06,-0.680
-1.770E-06,-0.760
-1.760E-06,-0.880
-1.750E-06,-1.000
-1.740E-06,-1.080
-1.730E-06,-1.240
-1.720E-06,-1.400
-1.710E-06,-1.560
-1.700E-06,-1.680
-1.690E-06,-1.760
-1.680E-06,-1.720
-1.670E-06,-1.760
-1.660E-06,-1.680
-1.650E-06,-1.760
-1.640E-06,-1.600
-1.630E-06,-1.600
-1.620E-06,-1.560
-1.610E-06,-1.520
-1.600E-06,-1.520
-1.590E-06,-1.600
-1.580E-06,-1.560
-1.570E-06,-1.520
-1.560E-06,-1.600
-1.550E-06,-1.600
-1.540E-06,-1.680
-1.530E-06,-1.800
-1.520E-06,-1.880
-1.510E-06,-2.080
-1.500E-06,-2.280
-1.490E-06,-2.560
-1.480E-06,-2.760
-1.470E-06,-3.000
-1.460E-06,-3.160
-1.450E-06,-3.360
-1.440E-06,-3.600
-1.430E-06,-3.760
-1.420E-06,-4.040
-1.410E-06,-4.160
-1.400E-06,-4.280
-1.390E-06,-4.360
-1.380E-06,-4.360
-1.370E-06,-4.480
-1.360E-06,-4.440
-1.350E-06,-4.360
-1.340E-06,-4.360
-1.330E-06,-4.160
-1.320E-06,-4.000
-1.310E-06,-3.840
-1.300E-06,-3.800
-1.290E-06,-3.560
-1.280E-06,-3.520
-1.270E-06,-3.320
-1.260E-06,-3.280
-1.250E-06,-3.200
-1.240E-06,-3.240
-1.230E-06,-3.240
-1.220E-06,-3.160
-1.210E-06,-3.160
-1.200E-06,-3.000
-1.190E-06,-2.880
-1.180E-06,-2.920
-1.170E-06,-2.800
-1.160E-06,-2.760
-1.150E-06,-2.680
-1.140E-06,-2.560
-1.130E-06,-2.480
-1.120E-06,-2.400
-1.110E-06,-2.360
-1.100E-06,-2.240
-1.090E-06,-2.160
-1.080E-06,-2.000
-1.070E-06,-1.880
-1.060E-06,-1.840
-1.050E-06,-1.840
-1.040E-06,-1.800
-1.030E-06,-1.880
-1.020E-06,-1.880
-1.010E-06,-1.800
-1.000E-06,-1.880
-9.900E-07,-1.880
-9.800E-07,-2.000
-9.700E-07,-1.920
-9.600E-07,-2.000
-9.500E-07,-2.040
-9.400E-07,-2.040
-9.300E-07,-2.120
-9.200E-07,-2.200
-9.100E-07,-2.240
-9.000E-07,-2.240
-8.900E-07,-2.320
-8.800E-07,-2.320
-8.700E-07,-2.400
-8.600E-07,-2.520
-8.500E-07,-2.680
-8.400E-07,-2.760
-8.300E-07,-2.840
-8.200E-07,-3.000
-8.100E-07,-3.040
-8.000E-07,-3.040
-7.900E-07,-3.160
-7.800E-07,-3.120
-7.700E-07,-3.240
-7.600E-07,-3.280
-7.500E-07,-3.360
-7.400E-07,-3.480
-7.300E-07,-3.640
-7.200E-07,-3.640
-7.100E-07,-3.720
-7.000E-07,-3.680
-6.900E-07,-3.720
-6.800E-07,-3.720
-6.700E-07,-3.680
-6.600E-07,-3.520
-6.500E-07,-3.520
-6.400E-07,-3.520
-6.300E-07,-3.440
-6.200E-07,-3.480
-6.100E-07,-3.440
-6.000E-07,-3.400
-5.900E-07,-3.320
-5.800E-07,-3.280
-5.700E-07,-3.200
-5.600E-07,-3.080
-5.500E-07,-2.960
-5.400E-07,-2.920
-5.300E-07,-2.880
-5.200E-07,-2.800
-5.100E-07,-2.760
-5.000E-07,-2.720
-4.900E-07,-2.680
-4.800E-07,-2.600
-4.700E-07,-2.640
-4.600E-07,-2.680
-4.500E-07,-2.680
-4.400E-07,-2.640
-4.300E-07,-2.640
-4.200E-07,-2.760
-4.100E-07,-2.840
-4.000E-07,-2.920
-3.900E-07,-2.880
-3.800E-07,-2.960
-3.700E-07,-3.000
-3.600E-07,-3.000
-3.500E-07,-3.080
-3.400E-07,-3.080
-3.300E-07,-3.040
-3.200E-07,-3.040
-3.100E-07,-3.040
-3.000E-07,-3.040
-2.900E-07,-3.000
-2.800E-07,-3.000
-2.700E-07,-3.080
-2.600E-07,-3.080
-2.500E-07,-3.080
-2.400E-07,-3.120
-2.300E-07,-3.080
-2.200E-07,-3.080
-2.100E-07,-3.040
-2.000E-07,-3.040
-1.900E-07,-3.040
-1.800E-07,-3.000
-1.700E-07,-2.960
-1.600E-07,-2.960
-1.500E-07,-2.920
-1.400E-07,-2.880
-1.300E-07,-2.920
-1.200E-07,-2.880
-1.100E-07,-2.920
-1.000E-07,-3.040
-9.000E-08,-3.040
-8.000E-08,-3.160
-7.000E-08,-3.320
-6.000E-08,-3.520
-5.000E-08,-3.640
-4.000E-08,-3.760
-3.000E-08,-3.880
-2.000E-08,-3.960
-1.000E-08,-4.160
0.000E+00,-4.280
1.000E-08,-4.320
2.000E-08,-4.280
3.000E-08,-4.120
4.000E-08,-3.960
5.000E-08,-3.840
6.000E-08,-3.680
7.000E-08,-3.640
8.000E-08,-3.520
9.000E-08,-3.640
1.000E-07,-3.640
1.100E-07,-3.760
1.200E-07,-3.960
1.300E-07,-4.320
1.400E-07,-4.680
1.500E-07,-4.960
1.600E-07,-5.200
1.700E-07,-5.240
1.800E-07,-5.240
1.900E-07,-5.240
2.000E-07,-5.240
2.100E-07,-5.240
2.200E-07,-5.240
2.300E-07,-5.240
2.400E-07,-5.240
2.500E-07,-5.240
2.600E-07,-5.240
2.700E-07,-5.200
2.800E-07,-5.240
2.900E-07,-5.200
3.000E-07,-5.200
3.100E-07,-5.240
3.200E-07,-5.240
3.300E-07,-5.200
3.400E-07,-5.200
3.500E-07,-5.240
3.600E-07,-5.200
3.700E-07,-5.200
3.800E-07,-5.200
3.900E-07,-5.240
4.000E-07,-5.240
4.100E-07,-5.240
4.200E-07,-5.200
4.300E-07,-5.240
4.400E-07,-5.240
4.500E-07,-5.240
4.600E-07,-5.200
4.700E-07,-5.080
4.800E-07,-4.840
4.900E-07,-4.520
5.000E-07,-4.200
5.100E-07,-3.720
5.200E-07,-3.360
5.300E-07,-2.880
5.400E-07,-2.520
5.500E-07,-2.160
5.600E-07,-1.760
5.700E-07,-1.480
5.800E-07,-1.240
5.900E-07,-1.120
6.000E-07,-1.000
6.100E-07,-0.960
6.200E-07,-0.840
6.300E-07,-0.640
6.400E-07,-0.480
6.500E-07,-0.360
6.600E-07,-0.240
6.700E-07,-0.240
6.800E-07,-0.240
6.900E-07,-0.240
7.000E-07,-0.120
7.100E-07,-0.120
7.200E-07,0.000
7.300E-07,0.000
7.400E-07,0.040
7.500E-07,-0.040
7.600E-07,-0.080
7.700E-07,-0.200
7.800E-07,-0.360
7.900E-07,-0.560
8.000E-07,-0.720
8.100E-07,-1.080
8.200E-07,-1.360
8.300E-07,-1.680
8.400E-07,-2.040
8.500E-07,-2.480
8.600E-07,-3.000
8.700E-07,-3.440
8.800E-07,-3.880
8.900E-07,-4.400
9.000E-07,-4.840
9.100E-07,-5.200
9.200E-07,-5.240
9.300E-07,-5.240
9.400E-07,-5.200
9.500E-07,-5.200
9.600E-07,-5.240
9.700E-07,-5.240
9.800E-07,-5.240
9.900E-07,-5.240
1.000E-06,-5.240
1.010E-06,-5.200
1.020E-06,-5.240
1.030E-06,-5.240
1.040E-06,-5.200
1.050E-06,-5.200
1.060E-06,-5.200
1.070E-06,-5.200
1.080E-06,-5.200
1.090E-06,-5.240
1.100E-06,-5.240
1.110E-06,-5.240
1.120E-06,-5.000
1.130E-06,-4.440
1.140E-06,-4.040
1.150E-06,-3.520
1.160E-06,-3.080
1.170E-06,-2.560
1.180E-06,-2.000
1.190E-06,-1.600
1.200E-06,-1.160
1.210E-06,-0.680
1.220E-06,-0.240
1.230E-06,0.160
1.240E-06,0.520
1.250E-06,0.920
1.260E-06,1.280
1.270E-06,1.520
1.280E-06,1.840
1.290E-06,1.960
1.300E-06,2.200
1.310E-06,2.360
1.320E-06,2.400
1.330E-06,2.520
1.340E-06,2.520
1.350E-06,2.520
1.360E-06,2.480
1.370E-06,2.440
1.380E-06,2.320
1.390E-06,2.240
1.400E-06,2.200
1.410E-06,2.200
1.420E-06,2.080
1.430E-06,2.000
1.440E-06,2.000
1.450E-06,1.960
1.460E-06,1.880
1.470E-06,1.800
1.480E-06,1.800
1.490E-06,1.720
1.500E-06,1.680
1.510E-06,1.560
1.520E-06,1.480
1.530E-06,1.320
1.540E-06,1.320
1.550E-06,1.280
1.560E-06,1.200
1.570E-06,1.240
1.580E-06,1.160
1.590E-06,1.120
1.600E-06,1.160
1.610E-06,1.160
1.620E-06,1.080
1.630E-06,1.120
1.640E-06,1.080
1.650E-06,1.000
1.660E-06,1.000
1.670E-06,1.000
1.680E-06,1.000
1.690E-06,1.040
1.700E-06,1.040
1.710E-06,1.000
1.720E-06,1.040
1.730E-06,1.040
1.740E-06,1.040
1.750E-06,1.040
1.760E-06,1.000
1.770E-06,0.960
1.780E-06,0.960
1.790E-06,0.960
1.800E-06,1.000
1.810E-06,1.040
1.820E-06,1.160
1.830E-06,1.280
1.840E-06,1.400
1.850E-06,1.440
1.860E-06,1.520
1.870E-06,1.600
1.880E-06,1.720
1.890E-06,1.760
1.900E-06,1.720
1.910E-06,1.680
1.920E-06,1.640
1.930E-06,1.600
1.940E-06,1.520
1.950E-06,1.480
1.960E-06,1.480
1.970E-06,1.480
1.980E-06,1.520
1.990E-06,1.480
2.000E-06,1.520
2.010E-06,1.440
2.020E-06,1.440
2.030E-06,1.400
2.040E-06,1.320
2.050E-06,1.320
2.060E-06,1.280
2.070E-06,1.240
2.080E-06,1.200
2.090E-06,1.120
2.100E-06,1.040
2.110E-06,1.040
2.120E-06,0.960
2.130E-06,0.880
2.140E-06,0.880
2.150E-06,0.880
2.160E-06,0.880
2.170E-06,0.840
2.180E-06,0.840
2.190E-06,0.800
2.200E-06,0.840
2.210E-06,0.800
2.220E-06,0.880
2.230E-06,0.920
2.240E-06,0.960
2.250E-06,1.000
2.260E-06,1.080
2.270E-06,1.160
2.280E-06,1.280
2.290E-06,1.400
2.300E-06,1.440
2.310E-06,1.520
2.320E-06,1.440
2.330E-06,1.520
2.340E-06,1.520
2.350E-06,1.480
2.360E-06,1.440
2.370E-06,1.440
2.380E-06,1.400
2.390E-06,1.400
2.400E-06,1.320
2.410E-06,1.240
2.420E-06,1.160
2.430E-06,1.080
2.440E-06,1.000
2.450E-06,0.920
2.460E-06,0.920
2.470E-06,0.920
2.480E-06,0.960
2.490E-06,0.960
2.500E-06,1.080
2.510E-06,1.080
2.520E-06,1.200
2.530E-06,1.320
2.540E-06,1.360
2.550E-06,1.400
2.560E-06,1.480
2.570E-06,1.520
2.580E-06,1.560
2.590E-06,1.600
2.600E-06,1.600
2.610E-06,1.600
2.620E-06,1.600
2.630E-06,1.560
2.640E-06,1.520
2.650E-06,1.440
2.660E-06,1.360
2.670E-06,1.280
2.680E-06,1.160
2.690E-06,1.080
2.700E-06,1.080
2.710E-06,1.120
2.720E-06,1.160
2.730E-06,1.200
2.740E-06,1.280
2.750E-06,1.280
2.760E-06,1.320
2.770E-06,1.440
2.780E-06,1.480
2.790E-06,1.400
2.800E-06,1.440
2.810E-06,1.520
2.820E-06,1.480
2.830E-06,1.520
2.840E-06,1.520
2.850E-06,1.560
2.860E-06,1.600
2.870E-06,1.560
2.880E-06,1.560
2.890E-06,1.560
2.900E-06,1.480
2.910E-06,1.480
2.920E-06,1.440
2.930E-06,1.320
2.940E-06,1.280
2.950E-06,1.160
2.960E-06,1.080
2.970E-06,1.000
2.980E-06,1.000
2.990E-06,1.040
3.000E-06,1.080
3.010E-06,1.080
3.020E-06,1.040
3.030E-06,1.040
3.040E-06,1.160
3.050E-06,1.160
3.060E-06,1.200
3.070E-06,1.280
3.080E-06,1.320
3.090E-06,1.360
3.100E-06,1.440
3.110E-06,1.480
3.120E-06,1.520
3.130E-06,1.640
3.140E-06,1.680
3.150E-06,1.760
3.160E-06,1.720
3.170E-06,1.800
3.180E-06,1.800
3.190E-06,1.800
3.200E-06,1.800
3.210E-06,1.760
3.220E-06,1.760
3.230E-06,1.720
3.240E-06,1.720
3.250E-06,1.720
3.260E-06,1.720
3.270E-06,1.720
3.280E-06,1.760
3.290E-06,1.680
