mediciones/5-15/45/WaveData47517.csv

#timebase=2000000(ps)
,#voltbase=100000(mv/100)
#size=4000
-8.400E-06,0.004
-8.390E-06,0.004
-8.380E-06,-0.004
-8.370E-06,0.000
-8.360E-06,0.000
-8.350E-06,0.004
-8.340E-06,0.000
-8.330E-06,0.004
-8.320E-06,0.004
-8.310E-06,0.000
-8.300E-06,0.000
-8.290E-06,0.000
-8.280E-06,-0.004
-8.270E-06,0.004
-8.260E-06,0.008
-8.250E-06,0.004
-8.240E-06,0.008
-8.230E-06,0.000
-8.220E-06,0.000
-8.210E-06,0.000
-8.200E-06,0.000
-8.190E-06,0.000
-8.180E-06,0.004
-8.170E-06,0.004
-8.160E-06,0.008
-8.150E-06,-0.004
-8.140E-06,0.000
-8.130E-06,0.000
-8.120E-06,-0.004
-8.110E-06,0.008
-8.100E-06,0.012
-8.090E-06,0.004
-8.080E-06,-0.004
-8.070E-06,0.004
-8.060E-06,0.000
-8.050E-06,0.000
-8.040E-06,0.008
-8.030E-06,0.008
-8.020E-06,-0.004
-8.010E-06,0.000
-8.000E-06,0.008
-7.990E-06,0.000
-7.980E-06,0.000
-7.970E-06,0.008
-7.960E-06,0.008
-7.950E-06,0.000
-7.940E-06,0.008
-7.930E-06,0.004
-7.920E-06,-0.008
-7.910E-06,0.000
-7.900E-06,-0.004
-7.890E-06,0.004
-7.880E-06,0.016
-7.870E-06,0.016
-7.860E-06,0.008
-7.850E-06,-0.008
-7.840E-06,-0.008
-7.830E-06,-0.004
-7.820E-06,0.004
-7.810E-06,0.012
-7.800E-06,0.016
-7.790E-06,0.008
-7.780E-06,0.000
-7.770E-06,-0.004
-7.760E-06,-0.008
-7.750E-06,0.000
-7.740E-06,0.008
-7.730E-06,0.012
-7.720E-06,0.008
-7.710E-06,0.008
-7.700E-06,0.000
-7.690E-06,-0.004
-7.680E-06,-0.004
-7.670E-06,0.000
-7.660E-06,0.000
-7.650E-06,0.000
-7.640E-06,0.008
-7.630E-06,0.004
-7.620E-06,0.008
-7.610E-06,0.004
-7.600E-06,-0.004
-7.590E-06,-0.004
-7.580E-06,-0.004
-7.570E-06,0.004
-7.560E-06,0.012
-7.550E-06,0.016
-7.540E-06,0.012
-7.530E-06,0.000
-7.520E-06,-0.004
-7.510E-06,-0.004
-7.500E-06,0.004
-7.490E-06,0.004
-7.480E-06,0.000
-7.470E-06,0.008
-7.460E-06,0.008
-7.450E-06,0.000
-7.440E-06,0.000
-7.430E-06,-0.004
-7.420E-06,-0.004
-7.410E-06,0.000
-7.400E-06,0.000
-7.390E-06,0.008
-7.380E-06,0.008
-7.370E-06,0.004
-7.360E-06,0.000
-7.350E-06,0.000
-7.340E-06,0.004
-7.330E-06,0.008
-7.320E-06,0.000
-7.310E-06,0.000
-7.300E-06,0.004
-7.290E-06,0.000
-7.280E-06,0.000
-7.270E-06,0.000
-7.260E-06,-0.004
-7.250E-06,0.004
-7.240E-06,0.000
-7.230E-06,0.004
-7.220E-06,0.000
-7.210E-06,0.000
-7.200E-06,0.004
-7.190E-06,0.004
-7.180E-06,0.004
-7.170E-06,0.004
-7.160E-06,0.000
-7.150E-06,-0.004
-7.140E-06,0.000
-7.130E-06,0.000
-7.120E-06,0.008
-7.110E-06,0.008
-7.100E-06,0.008
-7.090E-06,0.004
-7.080E-06,-0.004
-7.070E-06,0.000
-7.060E-06,0.000
-7.050E-06,0.004
-7.040E-06,0.004
-7.030E-06,0.008
-7.020E-06,0.000
-7.010E-06,0.004
-7.000E-06,-0.004
-6.990E-06,0.000
-6.980E-06,0.000
-6.970E-06,0.004
-6.960E-06,0.012
-6.950E-06,0.012
-6.940E-06,0.012
-6.930E-06,-0.004
-6.920E-06,-0.004
-6.910E-06,-0.004
-6.900E-06,0.004
-6.890E-06,0.004
-6.880E-06,0.016
-6.870E-06,0.012
-6.860E-06,0.012
-6.850E-06,0.004
-6.840E-06,0.004
-6.830E-06,-0.008
-6.820E-06,0.004
-6.810E-06,0.012
-6.800E-06,0.004
-6.790E-06,0.008
-6.780E-06,0.000
-6.770E-06,0.000
-6.760E-06,-0.004
-6.750E-06,0.004
-6.740E-06,-0.004
-6.730E-06,0.004
-6.720E-06,0.008
-6.710E-06,0.008
-6.700E-06,0.004
-6.690E-06,0.000
-6.680E-06,-0.004
-6.670E-06,0.000
-6.660E-06,0.000
-6.650E-06,0.004
-6.640E-06,0.008
-6.630E-06,0.012
-6.620E-06,0.000
-6.610E-06,0.000
-6.600E-06,-0.004
-6.590E-06,-0.012
-6.580E-06,0.004
-6.570E-06,0.016
-6.560E-06,0.016
-6.550E-06,0.016
-6.540E-06,0.012
-6.530E-06,-0.008
-6.520E-06,-0.008
-6.510E-06,-0.008
-6.500E-06,0.000
-6.490E-06,0.008
-6.480E-06,0.008
-6.470E-06,0.008
-6.460E-06,-0.004
-6.450E-06,-0.004
-6.440E-06,0.004
-6.430E-06,0.000
-6.420E-06,0.004
-6.410E-06,0.004
-6.400E-06,0.004
-6.390E-06,0.004
-6.380E-06,0.000
-6.370E-06,0.004
-6.360E-06,0.012
-6.350E-06,0.016
-6.340E-06,0.012
-6.330E-06,0.004
-6.320E-06,-0.004
-6.310E-06,-0.004
-6.300E-06,0.000
-6.290E-06,0.012
-6.280E-06,0.008
-6.270E-06,0.008
-6.260E-06,-0.004
-6.250E-06,-0.004
-6.240E-06,0.000
-6.230E-06,-0.004
-6.220E-06,0.000
-6.210E-06,0.008
-6.200E-06,0.008
-6.190E-06,0.012
-6.180E-06,-0.008
-6.170E-06,0.004
-6.160E-06,0.000
-6.150E-06,0.000
-6.140E-06,0.000
-6.130E-06,0.004
-6.120E-06,0.004
-6.110E-06,0.008
-6.100E-06,0.012
-6.090E-06,-0.004
-6.080E-06,-0.004
-6.070E-06,0.000
-6.060E-06,0.004
-6.050E-06,0.008
-6.040E-06,0.004
-6.030E-06,0.012
-6.020E-06,0.000
-6.010E-06,0.000
-6.000E-06,-0.004
-5.990E-06,-0.004
-5.980E-06,0.008
-5.970E-06,0.004
-5.960E-06,0.004
-5.950E-06,0.008
-5.940E-06,0.008
-5.930E-06,0.000
-5.920E-06,-0.004
-5.910E-06,0.000
-5.900E-06,-0.004
-5.890E-06,0.004
-5.880E-06,0.004
-5.870E-06,0.008
-5.860E-06,0.000
-5.850E-06,0.004
-5.840E-06,0.000
-5.830E-06,0.004
-5.820E-06,0.008
-5.810E-06,0.008
-5.800E-06,-0.004
-5.790E-06,0.000
-5.780E-06,0.004
-5.770E-06,0.000
-5.760E-06,0.004
-5.750E-06,0.008
-5.740E-06,0.004
-5.730E-06,0.004
-5.720E-06,0.004
-5.710E-06,-0.008
-5.700E-06,0.012
-5.690E-06,0.008
-5.680E-06,0.004
-5.670E-06,0.004
-5.660E-06,0.000
-5.650E-06,0.000
-5.640E-06,0.000
-5.630E-06,0.000
-5.620E-06,0.008
-5.610E-06,0.008
-5.600E-06,0.004
-5.590E-06,-0.004
-5.580E-06,0.000
-5.570E-06,0.004
-5.560E-06,0.000
-5.550E-06,0.000
-5.540E-06,0.000
-5.530E-06,0.004
-5.520E-06,0.008
-5.510E-06,0.004
-5.500E-06,0.000
-5.490E-06,-0.004
-5.480E-06,0.004
-5.470E-06,0.004
-5.460E-06,0.000
-5.450E-06,0.004
-5.440E-06,0.004
-5.430E-06,0.004
-5.420E-06,0.000
-5.410E-06,-0.004
-5.400E-06,0.000
-5.390E-06,0.004
-5.380E-06,-0.004
-5.370E-06,0.004
-5.360E-06,0.012
-5.350E-06,0.000
-5.340E-06,-0.004
-5.330E-06,0.004
-5.320E-06,0.004
-5.310E-06,-0.008
-5.300E-06,0.012
-5.290E-06,0.008
-5.280E-06,0.008
-5.270E-06,0.008
-5.260E-06,0.004
-5.250E-06,-0.004
-5.240E-06,0.000
-5.230E-06,0.008
-5.220E-06,0.000
-5.210E-06,0.004
-5.200E-06,0.000
-5.190E-06,0.000
-5.180E-06,0.008
-5.170E-06,0.000
-5.160E-06,0.000
-5.150E-06,0.004
-5.140E-06,0.004
-5.130E-06,0.004
-5.120E-06,0.004
-5.110E-06,0.004
-5.100E-06,0.004
-5.090E-06,0.000
-5.080E-06,0.000
-5.070E-06,0.000
-5.060E-06,0.000
-5.050E-06,0.004
-5.040E-06,0.008
-5.030E-06,0.004
-5.020E-06,0.004
-5.010E-06,0.000
-5.000E-06,0.000
-4.990E-06,0.000
-4.980E-06,0.004
-4.970E-06,0.008
-4.960E-06,0.004
-4.950E-06,0.004
-4.940E-06,0.000
-4.930E-06,0.004
-4.920E-06,0.000
-4.910E-06,0.000
-4.900E-06,0.004
-4.890E-06,0.000
-4.880E-06,0.004
-4.870E-06,-0.004
-4.860E-06,0.000
-4.850E-06,0.004
-4.840E-06,0.008
-4.830E-06,0.008
-4.820E-06,0.000
-4.810E-06,0.000
-4.800E-06,0.004
-4.790E-06,0.004
-4.780E-06,0.004
-4.770E-06,0.004
-4.760E-06,0.000
-4.750E-06,0.000
-4.740E-06,0.000
-4.730E-06,0.004
-4.720E-06,0.008
-4.710E-06,0.008
-4.700E-06,0.008
-4.690E-06,0.004
-4.680E-06,0.004
-4.670E-06,-0.008
-4.660E-06,0.004
-4.650E-06,0.012
-4.640E-06,0.016
-4.630E-06,0.004
-4.620E-06,0.000
-4.610E-06,-0.004
-4.600E-06,-0.004
-4.590E-06,0.000
-4.580E-06,0.004
-4.570E-06,0.012
-4.560E-06,0.008
-4.550E-06,0.008
-4.540E-06,0.004
-4.530E-06,-0.004
-4.520E-06,-0.004
-4.510E-06,-0.004
-4.500E-06,-0.004
-4.490E-06,0.004
-4.480E-06,0.008
-4.470E-06,0.012
-4.460E-06,0.012
-4.450E-06,0.000
-4.440E-06,0.000
-4.430E-06,-0.004
-4.420E-06,-0.004
-4.410E-06,0.008
-4.400E-06,0.008
-4.390E-06,0.012
-4.380E-06,0.004
-4.370E-06,0.000
-4.360E-06,-0.004
-4.350E-06,-0.004
-4.340E-06,0.000
-4.330E-06,0.012
-4.320E-06,0.008
-4.310E-06,0.000
-4.300E-06,0.000
-4.290E-06,0.008
-4.280E-06,0.004
-4.270E-06,-0.004
-4.260E-06,-0.004
-4.250E-06,0.000
-4.240E-06,0.004
-4.230E-06,0.008
-4.220E-06,0.008
-4.210E-06,0.004
-4.200E-06,0.000
-4.190E-06,0.000
-4.180E-06,-0.008
-4.170E-06,0.004
-4.160E-06,0.000
-4.150E-06,-0.004
-4.140E-06,0.004
-4.130E-06,0.008
-4.120E-06,0.004
-4.110E-06,0.004
-4.100E-06,0.008
-4.090E-06,-0.016
-4.080E-06,0.024
-4.070E-06,0.012
-4.060E-06,-0.020
-4.050E-06,-0.008
-4.040E-06,-0.036
-4.030E-06,-0.004
-4.020E-06,0.092
-4.010E-06,0.044
-4.000E-06,-0.044
-3.990E-06,-0.024
-3.980E-06,0.008
-3.970E-06,-0.004
-3.960E-06,0.000
-3.950E-06,0.044
-3.940E-06,0.000
-3.930E-06,0.004
-3.920E-06,0.008
-3.910E-06,-0.004
-3.900E-06,-0.024
-3.890E-06,-0.004
-3.880E-06,0.008
-3.870E-06,0.012
-3.860E-06,0.028
-3.850E-06,0.008
-3.840E-06,0.004
-3.830E-06,-0.004
-3.820E-06,-0.004
-3.810E-06,-0.004
-3.800E-06,-0.008
-3.790E-06,0.008
-3.780E-06,0.008
-3.770E-06,0.012
-3.760E-06,0.012
-3.750E-06,0.004
-3.740E-06,-0.004
-3.730E-06,0.000
-3.720E-06,-0.008
-3.710E-06,0.000
-3.700E-06,0.012
-3.690E-06,0.028
-3.680E-06,0.004
-3.670E-06,-0.004
-3.660E-06,-0.012
-3.650E-06,-0.008
-3.640E-06,0.004
-3.630E-06,0.004
-3.620E-06,0.008
-3.610E-06,0.004
-3.600E-06,0.012
-3.590E-06,0.012
-3.580E-06,-0.004
-3.570E-06,-0.004
-3.560E-06,-0.008
-3.550E-06,-0.004
-3.540E-06,0.012
-3.530E-06,0.008
-3.520E-06,0.008
-3.510E-06,-0.008
-3.500E-06,0.020
-3.490E-06,0.036
-3.480E-06,-0.020
-3.470E-06,-0.028
-3.460E-06,-0.020
-3.450E-06,-0.040
-3.440E-06,0.060
-3.430E-06,0.016
-3.420E-06,0.004
-3.410E-06,0.012
-3.400E-06,0.032
-3.390E-06,-0.052
-3.380E-06,-0.024
-3.370E-06,0.008
-3.360E-06,0.008
-3.350E-06,0.032
-3.340E-06,0.024
-3.330E-06,0.016
-3.320E-06,-0.040
-3.310E-06,0.000
-3.300E-06,-0.008
-3.290E-06,-0.008
-3.280E-06,0.008
-3.270E-06,0.020
-3.260E-06,0.040
-3.250E-06,0.008
-3.240E-06,-0.024
-3.230E-06,-0.032
-3.220E-06,0.044
-3.210E-06,0.012
-3.200E-06,-0.028
-3.190E-06,-0.008
-3.180E-06,0.028
-3.170E-06,0.016
-3.160E-06,0.000
-3.150E-06,0.024
-3.140E-06,-0.004
-3.130E-06,-0.012
-3.120E-06,-0.004
-3.110E-06,0.020
-3.100E-06,0.008
-3.090E-06,0.008
-3.080E-06,0.008
-3.070E-06,0.008
-3.060E-06,0.000
-3.050E-06,-0.008
-3.040E-06,-0.008
-3.030E-06,0.012
-3.020E-06,0.024
-3.010E-06,0.008
-3.000E-06,-0.004
-2.990E-06,-0.012
-2.980E-06,0.012
-2.970E-06,0.000
-2.960E-06,0.008
-2.950E-06,-0.004
-2.940E-06,0.000
-2.930E-06,0.012
-2.920E-06,0.012
-2.910E-06,0.012
-2.900E-06,-0.004
-2.890E-06,-0.004
-2.880E-06,0.004
-2.870E-06,0.016
-2.860E-06,0.004
-2.850E-06,0.004
-2.840E-06,-0.004
-2.830E-06,0.000
-2.820E-06,0.008
-2.810E-06,0.008
-2.800E-06,-0.008
-2.790E-06,-0.008
-2.780E-06,-0.004
-2.770E-06,0.004
-2.760E-06,0.024
-2.750E-06,-0.012
-2.740E-06,0.008
-2.730E-06,-0.008
-2.720E-06,0.004
-2.710E-06,-0.004
-2.700E-06,0.008
-2.690E-06,0.008
-2.680E-06,0.012
-2.670E-06,0.000
-2.660E-06,-0.004
-2.650E-06,0.004
-2.640E-06,0.004
-2.630E-06,0.016
-2.620E-06,0.008
-2.610E-06,0.028
-2.600E-06,-0.024
-2.590E-06,0.000
-2.580E-06,-0.004
-2.570E-06,0.008
-2.560E-06,0.040
-2.550E-06,-0.040
-2.540E-06,0.024
-2.530E-06,0.000
-2.520E-06,0.056
-2.510E-06,0.008
-2.500E-06,-0.028
-2.490E-06,-0.056
-2.480E-06,0.024
-2.470E-06,0.072
-2.460E-06,0.004
-2.450E-06,0.000
-2.440E-06,0.000
-2.430E-06,-0.012
-2.420E-06,-0.012
-2.410E-06,0.028
-2.400E-06,0.028
-2.390E-06,0.004
-2.380E-06,-0.004
-2.370E-06,0.004
-2.360E-06,0.004
-2.350E-06,-0.004
-2.340E-06,0.004
-2.330E-06,0.004
-2.320E-06,0.016
-2.310E-06,0.012
-2.300E-06,0.016
-2.290E-06,0.004
-2.280E-06,0.004
-2.270E-06,0.000
-2.260E-06,-0.004
-2.250E-06,0.000
-2.240E-06,0.000
-2.230E-06,0.012
-2.220E-06,0.028
-2.210E-06,0.020
-2.200E-06,0.000
-2.190E-06,-0.004
-2.180E-06,-0.012
-2.170E-06,0.000
-2.160E-06,0.008
-2.150E-06,0.016
-2.140E-06,0.012
-2.130E-06,0.004
-2.120E-06,-0.004
-2.110E-06,-0.004
-2.100E-06,0.000
-2.090E-06,0.008
-2.080E-06,0.012
-2.070E-06,0.012
-2.060E-06,0.008
-2.050E-06,0.000
-2.040E-06,0.000
-2.030E-06,0.000
-2.020E-06,0.004
-2.010E-06,0.012
-2.000E-06,0.012
-1.990E-06,0.008
-1.980E-06,-0.004
-1.970E-06,-0.004
-1.960E-06,-0.004
-1.950E-06,0.004
-1.940E-06,0.008
-1.930E-06,0.004
-1.920E-06,0.008
-1.910E-06,0.024
-1.900E-06,0.020
-1.890E-06,0.020
-1.880E-06,0.008
-1.870E-06,0.004
-1.860E-06,0.012
-1.850E-06,0.016
-1.840E-06,0.024
-1.830E-06,0.024
-1.820E-06,0.040
-1.810E-06,0.048
-1.800E-06,0.036
-1.790E-06,0.012
-1.780E-06,-0.016
-1.770E-06,-0.036
-1.760E-06,-0.024
-1.750E-06,-0.012
-1.740E-06,0.008
-1.730E-06,0.024
-1.720E-06,0.032
-1.710E-06,0.024
-1.700E-06,0.004
-1.690E-06,-0.008
-1.680E-06,-0.004
-1.670E-06,0.000
-1.660E-06,0.008
-1.650E-06,0.028
-1.640E-06,0.040
-1.630E-06,0.024
-1.620E-06,-0.016
-1.610E-06,-0.032
-1.600E-06,-0.040
-1.590E-06,-0.016
-1.580E-06,0.020
-1.570E-06,0.040
-1.560E-06,0.032
-1.550E-06,0.008
-1.540E-06,-0.020
-1.530E-06,-0.028
-1.520E-06,-0.016
-1.510E-06,0.012
-1.500E-06,0.028
-1.490E-06,0.012
-1.480E-06,-0.032
-1.470E-06,-0.060
-1.460E-06,-0.040
-1.450E-06,-0.024
-1.440E-06,0.012
-1.430E-06,0.048
-1.420E-06,0.056
-1.410E-06,0.020
-1.400E-06,-0.012
-1.390E-06,-0.028
-1.380E-06,-0.028
-1.370E-06,-0.012
-1.360E-06,0.024
-1.350E-06,0.052
-1.340E-06,0.036
-1.330E-06,0.016
-1.320E-06,-0.012
-1.310E-06,-0.004
-1.300E-06,-0.008
-1.290E-06,0.020
-1.280E-06,0.032
-1.270E-06,0.044
-1.260E-06,0.040
-1.250E-06,0.032
-1.240E-06,0.012
-1.230E-06,-0.004
-1.220E-06,-0.016
-1.210E-06,-0.012
-1.200E-06,0.004
-1.190E-06,0.020
-1.180E-06,0.040
-1.170E-06,0.028
-1.160E-06,0.024
-1.150E-06,0.000
-1.140E-06,-0.008
-1.130E-06,-0.008
-1.120E-06,0.012
-1.110E-06,0.044
-1.100E-06,0.044
-1.090E-06,0.024
-1.080E-06,0.000
-1.070E-06,-0.004
-1.060E-06,0.004
-1.050E-06,0.044
-1.040E-06,0.080
-1.030E-06,0.096
-1.020E-06,0.064
-1.010E-06,0.036
-1.000E-06,0.020
-9.900E-07,0.008
-9.800E-07,0.024
-9.700E-07,0.048
-9.600E-07,0.056
-9.500E-07,0.032
-9.400E-07,-0.044
-9.300E-07,-0.208
-9.200E-07,-0.284
-9.100E-07,-0.248
-9.000E-07,-0.112
-8.900E-07,0.076
-8.800E-07,0.196
-8.700E-07,0.196
-8.600E-07,0.060
-8.500E-07,-0.076
-8.400E-07,-0.164
-8.300E-07,-0.148
-8.200E-07,-0.036
-8.100E-07,0.092
-8.000E-07,0.152
-7.900E-07,0.136
-7.800E-07,0.068
-7.700E-07,-0.040
-7.600E-07,-0.104
-7.500E-07,-0.096
-7.400E-07,-0.020
-7.300E-07,0.048
-7.200E-07,0.080
-7.100E-07,0.076
-7.000E-07,0.032
-6.900E-07,-0.012
-6.800E-07,-0.040
-6.700E-07,-0.056
-6.600E-07,-0.024
-6.500E-07,0.016
-6.400E-07,0.064
-6.300E-07,0.088
-6.200E-07,0.076
-6.100E-07,0.036
-6.000E-07,-0.024
-5.900E-07,-0.056
-5.800E-07,-0.044
-5.700E-07,0.020
-5.600E-07,0.080
-5.500E-07,0.120
-5.400E-07,0.052
-5.300E-07,-0.024
-5.200E-07,-0.100
-5.100E-07,-0.084
-5.000E-07,-0.028
-4.900E-07,0.052
-4.800E-07,0.084
-4.700E-07,0.068
-4.600E-07,0.008
-4.500E-07,-0.044
-4.400E-07,-0.048
-4.300E-07,0.000
-4.200E-07,0.040
-4.100E-07,0.036
-4.000E-07,0.004
-3.900E-07,-0.028
-3.800E-07,-0.044
-3.700E-07,-0.012
-3.600E-07,0.024
-3.500E-07,0.044
-3.400E-07,0.040
-3.300E-07,0.012
-3.200E-07,-0.004
-3.100E-07,0.008
-3.000E-07,0.048
-2.900E-07,0.052
-2.800E-07,0.036
-2.700E-07,0.024
-2.600E-07,0.024
-2.500E-07,0.036
-2.400E-07,0.060
-2.300E-07,0.056
-2.200E-07,0.060
-2.100E-07,0.048
-2.000E-07,0.036
-1.900E-07,0.032
-1.800E-07,0.040
-1.700E-07,0.056
-1.600E-07,0.060
-1.500E-07,0.072
-1.400E-07,0.072
-1.300E-07,0.076
-1.200E-07,0.064
-1.100E-07,0.060
-1.000E-07,0.036
-9.000E-08,0.012
-8.000E-08,-0.008
-7.000E-08,-0.004
-6.000E-08,0.044
-5.000E-08,-0.184
-4.000E-08,-0.428
-3.000E-08,-0.508
-2.000E-08,-0.016
-1.000E-08,0.516
0.000E+00,0.492
1.000E-08,0.544
2.000E-08,0.364
3.000E-08,0.152
4.000E-08,-0.112
5.000E-08,-0.452
6.000E-08,-0.240
7.000E-08,0.076
8.000E-08,0.540
9.000E-08,0.540
1.000E-07,0.364
1.100E-07,-0.136
1.200E-07,-0.344
1.300E-07,-0.204
1.400E-07,0.036
1.500E-07,0.188
1.600E-07,0.268
1.700E-07,0.300
1.800E-07,0.204
1.900E-07,0.080
2.000E-07,-0.104
2.100E-07,-0.192
2.200E-07,-0.168
2.300E-07,-0.048
2.400E-07,0.032
2.500E-07,0.028
2.600E-07,-0.104
2.700E-07,-0.264
2.800E-07,-0.332
2.900E-07,-0.280
3.000E-07,-0.156
3.100E-07,0.008
3.200E-07,0.160
3.300E-07,0.200
3.400E-07,0.176
3.500E-07,0.096
3.600E-07,0.024
3.700E-07,0.008
3.800E-07,0.084
3.900E-07,0.164
4.000E-07,0.256
4.100E-07,0.296
4.200E-07,0.292
4.300E-07,0.268
4.400E-07,0.196
4.500E-07,0.136
4.600E-07,0.104
4.700E-07,0.128
4.800E-07,0.188
4.900E-07,0.256
5.000E-07,0.264
5.100E-07,0.220
5.200E-07,0.164
5.300E-07,0.136
5.400E-07,0.144
5.500E-07,0.176
5.600E-07,0.208
5.700E-07,0.224
5.800E-07,0.224
5.900E-07,0.196
6.000E-07,0.188
6.100E-07,0.172
6.200E-07,0.176
6.300E-07,0.184
6.400E-07,0.200
6.500E-07,0.212
6.600E-07,0.220
6.700E-07,0.228
6.800E-07,0.216
6.900E-07,0.200
7.000E-07,0.192
7.100E-07,0.180
7.200E-07,0.172
7.300E-07,0.172
7.400E-07,0.184
7.500E-07,0.192
7.600E-07,0.180
7.700E-07,0.172
7.800E-07,0.156
7.900E-07,0.136
8.000E-07,0.136
8.100E-07,0.136
8.200E-07,0.144
8.300E-07,0.164
8.400E-07,0.188
8.500E-07,0.184
8.600E-07,0.172
8.700E-07,0.156
8.800E-07,0.160
8.900E-07,0.164
9.000E-07,0.168
9.100E-07,0.192
9.200E-07,0.220
9.300E-07,0.224
9.400E-07,0.208
9.500E-07,0.176
9.600E-07,0.140
9.700E-07,0.156
9.800E-07,0.176
9.900E-07,0.224
1.000E-06,0.240
1.010E-06,0.232
1.020E-06,0.208
1.030E-06,0.196
1.040E-06,0.188
1.050E-06,0.192
1.060E-06,0.192
1.070E-06,0.216
1.080E-06,0.216
1.090E-06,0.228
1.100E-06,0.232
1.110E-06,0.212
1.120E-06,0.196
1.130E-06,0.192
1.140E-06,0.216
1.150E-06,0.260
1.160E-06,0.276
1.170E-06,0.276
1.180E-06,0.264
1.190E-06,0.244
1.200E-06,0.220
1.210E-06,0.220
1.220E-06,0.232
1.230E-06,0.244
1.240E-06,0.260
1.250E-06,0.264
1.260E-06,0.236
1.270E-06,0.208
1.280E-06,0.220
1.290E-06,0.216
1.300E-06,0.240
1.310E-06,0.276
1.320E-06,0.296
1.330E-06,0.284
1.340E-06,0.252
1.350E-06,0.224
1.360E-06,0.208
1.370E-06,0.228
1.380E-06,0.244
1.390E-06,0.272
1.400E-06,0.276
1.410E-06,0.260
1.420E-06,0.244
1.430E-06,0.232
1.440E-06,0.220
1.450E-06,0.224
1.460E-06,0.240
1.470E-06,0.252
1.480E-06,0.252
1.490E-06,0.252
1.500E-06,0.244
1.510E-06,0.236
1.520E-06,0.224
1.530E-06,0.220
1.540E-06,0.228
1.550E-06,0.244
1.560E-06,0.252
1.570E-06,0.252
1.580E-06,0.244
1.590E-06,0.236
1.600E-06,0.224
1.610E-06,0.228
1.620E-06,0.228
1.630E-06,0.228
1.640E-06,0.232
1.650E-06,0.236
1.660E-06,0.232
1.670E-06,0.228
1.680E-06,0.220
1.690E-06,0.224
1.700E-06,0.224
1.710E-06,0.224
1.720E-06,0.228
1.730E-06,0.224
1.740E-06,0.228
1.750E-06,0.224
1.760E-06,0.224
1.770E-06,0.216
1.780E-06,0.216
1.790E-06,0.216
1.800E-06,0.216
1.810E-06,0.220
1.820E-06,0.224
1.830E-06,0.220
1.840E-06,0.212
1.850E-06,0.208
1.860E-06,0.204
1.870E-06,0.208
1.880E-06,0.208
1.890E-06,0.212
1.900E-06,0.212
1.910E-06,0.216
1.920E-06,0.208
1.930E-06,0.212
1.940E-06,0.212
1.950E-06,0.208
1.960E-06,0.212
1.970E-06,0.208
1.980E-06,0.212
1.990E-06,0.208
2.000E-06,0.204
2.010E-06,0.204
2.020E-06,0.208
2.030E-06,0.208
2.040E-06,0.208
2.050E-06,0.208
2.060E-06,0.208
2.070E-06,0.200
2.080E-06,0.200
2.090E-06,0.200
2.100E-06,0.204
2.110E-06,0.204
2.120E-06,0.208
2.130E-06,0.208
2.140E-06,0.204
2.150E-06,0.204
2.160E-06,0.200
2.170E-06,0.196
2.180E-06,0.200
2.190E-06,0.204
2.200E-06,0.200
2.210E-06,0.204
2.220E-06,0.196
2.230E-06,0.196
2.240E-06,0.196
2.250E-06,0.188
2.260E-06,0.192
2.270E-06,0.192
2.280E-06,0.200
2.290E-06,0.204
2.300E-06,0.200
2.310E-06,0.196
2.320E-06,0.192
2.330E-06,0.184
2.340E-06,0.176
2.350E-06,0.172
2.360E-06,0.184
2.370E-06,0.192
2.380E-06,0.188
2.390E-06,0.192
2.400E-06,0.188
2.410E-06,0.188
2.420E-06,0.184
2.430E-06,0.184
2.440E-06,0.184
2.450E-06,0.188
2.460E-06,0.188
2.470E-06,0.188
2.480E-06,0.184
2.490E-06,0.188
2.500E-06,0.188
2.510E-06,0.184
2.520E-06,0.184
2.530E-06,0.176
2.540E-06,0.180
2.550E-06,0.176
2.560E-06,0.172
2.570E-06,0.176
2.580E-06,0.176
2.590E-06,0.176
2.600E-06,0.176
2.610E-06,0.180
2.620E-06,0.180
2.630E-06,0.180
2.640E-06,0.188
2.650E-06,0.188
2.660E-06,0.180
2.670E-06,0.176
2.680E-06,0.176
2.690E-06,0.180
2.700E-06,0.188
2.710E-06,0.188
2.720E-06,0.184
2.730E-06,0.184
2.740E-06,0.176
2.750E-06,0.176
2.760E-06,0.172
2.770E-06,0.172
2.780E-06,0.172
2.790E-06,0.172
2.800E-06,0.176
2.810E-06,0.172
2.820E-06,0.164
2.830E-06,0.168
2.840E-06,0.168
2.850E-06,0.164
2.860E-06,0.164
2.870E-06,0.172
2.880E-06,0.168
2.890E-06,0.168
2.900E-06,0.168
2.910E-06,0.164
2.920E-06,0.168
2.930E-06,0.164
2.940E-06,0.160
2.950E-06,0.164
2.960E-06,0.172
2.970E-06,0.176
2.980E-06,0.168
2.990E-06,0.160
3.000E-06,0.156
3.010E-06,0.152
3.020E-06,0.152
3.030E-06,0.152
3.040E-06,0.160
3.050E-06,0.152
3.060E-06,0.156
3.070E-06,0.156
3.080E-06,0.160
3.090E-06,0.152
3.100E-06,0.148
3.110E-06,0.148
3.120E-06,0.140
3.130E-06,0.140
3.140E-06,0.144
3.150E-06,0.140
3.160E-06,0.152
3.170E-06,0.160
3.180E-06,0.160
3.190E-06,0.160
3.200E-06,0.144
3.210E-06,0.132
3.220E-06,0.124
3.230E-06,0.132
3.240E-06,0.148
3.250E-06,0.160
3.260E-06,0.172
3.270E-06,0.164
3.280E-06,0.148
3.290E-06,0.140
3.300E-06,0.136
3.310E-06,0.140
3.320E-06,0.156
3.330E-06,0.164
3.340E-06,0.160
3.350E-06,0.160
3.360E-06,0.160
3.370E-06,0.152
3.380E-06,0.144
