mediciones/6-26/30.0/WaveData5964.csv

#timebase=2000000(ps)
,#voltbase=200000(mv/100)
#size=4000
-8.150E-06,0.016
-8.140E-06,0.024
-8.130E-06,0.000
-8.120E-06,0.000
-8.110E-06,0.000
-8.100E-06,-0.008
-8.090E-06,0.000
-8.080E-06,0.008
-8.070E-06,0.008
-8.060E-06,0.016
-8.050E-06,0.000
-8.040E-06,0.000
-8.030E-06,0.008
-8.020E-06,0.000
-8.010E-06,-0.008
-8.000E-06,-0.008
-7.990E-06,-0.008
-7.980E-06,0.008
-7.970E-06,0.016
-7.960E-06,0.008
-7.950E-06,0.008
-7.940E-06,0.008
-7.930E-06,0.000
-7.920E-06,0.008
-7.910E-06,0.000
-7.900E-06,0.008
-7.890E-06,0.016
-7.880E-06,0.008
-7.870E-06,-0.008
-7.860E-06,0.000
-7.850E-06,0.000
-7.840E-06,0.000
-7.830E-06,0.008
-7.820E-06,0.000
-7.810E-06,0.008
-7.800E-06,0.016
-7.790E-06,0.016
-7.780E-06,0.016
-7.770E-06,-0.008
-7.760E-06,0.008
-7.750E-06,-0.048
-7.740E-06,-0.008
-7.730E-06,0.000
-7.720E-06,-0.008
-7.710E-06,0.040
-7.700E-06,0.056
-7.690E-06,0.048
-7.680E-06,-0.008
-7.670E-06,-0.048
-7.660E-06,-0.040
-7.650E-06,-0.016
-7.640E-06,0.016
-7.630E-06,0.048
-7.620E-06,0.056
-7.610E-06,0.032
-7.600E-06,-0.024
-7.590E-06,-0.048
-7.580E-06,-0.056
-7.570E-06,-0.016
-7.560E-06,0.032
-7.550E-06,0.072
-7.540E-06,0.064
-7.530E-06,0.024
-7.520E-06,-0.016
-7.510E-06,-0.040
-7.500E-06,-0.048
-7.490E-06,-0.008
-7.480E-06,0.024
-7.470E-06,0.064
-7.460E-06,0.048
-7.450E-06,0.016
-7.440E-06,0.000
-7.430E-06,-0.008
-7.420E-06,-0.016
-7.410E-06,-0.008
-7.400E-06,0.016
-7.390E-06,0.032
-7.380E-06,0.048
-7.370E-06,0.040
-7.360E-06,0.016
-7.350E-06,0.000
-7.340E-06,-0.016
-7.330E-06,-0.008
-7.320E-06,0.000
-7.310E-06,0.048
-7.300E-06,0.056
-7.290E-06,0.048
-7.280E-06,0.008
-7.270E-06,-0.016
-7.260E-06,-0.040
-7.250E-06,-0.040
-7.240E-06,0.000
-7.230E-06,0.048
-7.220E-06,0.056
-7.210E-06,0.064
-7.200E-06,0.024
-7.190E-06,0.016
-7.180E-06,-0.008
-7.170E-06,-0.016
-7.160E-06,0.000
-7.150E-06,0.032
-7.140E-06,0.040
-7.130E-06,0.040
-7.120E-06,0.016
-7.110E-06,-0.144
-7.100E-06,-0.256
-7.090E-06,-0.224
-7.080E-06,-0.112
-7.070E-06,0.096
-7.060E-06,0.296
-7.050E-06,0.224
-7.040E-06,0.144
-7.030E-06,-0.056
-7.020E-06,-0.232
-7.010E-06,-0.280
-7.000E-06,-0.168
-6.990E-06,0.048
-6.980E-06,0.216
-6.970E-06,0.264
-6.960E-06,0.152
-6.950E-06,-0.016
-6.940E-06,-0.160
-6.930E-06,-0.200
-6.920E-06,-0.128
-6.910E-06,0.008
-6.900E-06,0.144
-6.890E-06,0.224
-6.880E-06,0.120
-6.870E-06,0.024
-6.860E-06,-0.112
-6.850E-06,-0.200
-6.840E-06,-0.104
-6.830E-06,0.008
-6.820E-06,0.144
-6.810E-06,0.144
-6.800E-06,0.096
-6.790E-06,-0.024
-6.780E-06,-0.072
-6.770E-06,-0.104
-6.760E-06,-0.080
-6.750E-06,0.008
-6.740E-06,0.040
-6.730E-06,0.088
-6.720E-06,0.096
-6.710E-06,0.032
-6.700E-06,-0.032
-6.690E-06,-0.064
-6.680E-06,-0.040
-6.670E-06,-0.024
-6.660E-06,0.016
-6.650E-06,0.056
-6.640E-06,0.056
-6.630E-06,0.056
-6.620E-06,0.008
-6.610E-06,-0.040
-6.600E-06,-0.040
-6.590E-06,-0.024
-6.580E-06,0.000
-6.570E-06,0.032
-6.560E-06,0.048
-6.550E-06,0.040
-6.540E-06,0.008
-6.530E-06,-0.016
-6.520E-06,-0.024
-6.510E-06,-0.024
-6.500E-06,0.000
-6.490E-06,0.024
-6.480E-06,0.048
-6.470E-06,0.024
-6.460E-06,0.000
-6.450E-06,-0.008
-6.440E-06,-0.032
-6.430E-06,-0.016
-6.420E-06,0.024
-6.410E-06,0.048
-6.400E-06,0.024
-6.390E-06,0.000
-6.380E-06,0.000
-6.370E-06,-0.016
-6.360E-06,0.000
-6.350E-06,0.000
-6.340E-06,0.008
-6.330E-06,0.008
-6.320E-06,0.016
-6.310E-06,0.016
-6.300E-06,0.000
-6.290E-06,0.000
-6.280E-06,-0.008
-6.270E-06,-0.008
-6.260E-06,0.000
-6.250E-06,0.016
-6.240E-06,0.024
-6.230E-06,0.024
-6.220E-06,0.016
-6.210E-06,0.008
-6.200E-06,0.000
-6.190E-06,-0.008
-6.180E-06,-0.016
-6.170E-06,0.008
-6.160E-06,0.000
-6.150E-06,0.016
-6.140E-06,0.016
-6.130E-06,0.008
-6.120E-06,0.000
-6.110E-06,0.000
-6.100E-06,0.008
-6.090E-06,0.008
-6.080E-06,0.000
-6.070E-06,0.008
-6.060E-06,0.016
-6.050E-06,0.016
-6.040E-06,0.008
-6.030E-06,0.008
-6.020E-06,-0.016
-6.010E-06,-0.032
-6.000E-06,-0.008
-5.990E-06,0.000
-5.980E-06,0.016
-5.970E-06,0.024
-5.960E-06,0.024
-5.950E-06,0.000
-5.940E-06,-0.008
-5.930E-06,-0.008
-5.920E-06,0.000
-5.910E-06,0.016
-5.900E-06,0.024
-5.890E-06,0.024
-5.880E-06,0.016
-5.870E-06,0.008
-5.860E-06,0.000
-5.850E-06,0.000
-5.840E-06,0.016
-5.830E-06,0.008
-5.820E-06,0.000
-5.810E-06,0.008
-5.800E-06,0.016
-5.790E-06,0.024
-5.780E-06,0.032
-5.770E-06,0.016
-5.760E-06,0.000
-5.750E-06,0.000
-5.740E-06,0.016
-5.730E-06,-0.008
-5.720E-06,0.008
-5.710E-06,-0.040
-5.700E-06,-0.048
-5.690E-06,0.008
-5.680E-06,-0.016
-5.670E-06,0.000
-5.660E-06,-0.016
-5.650E-06,0.056
-5.640E-06,0.064
-5.630E-06,-0.016
-5.620E-06,-0.032
-5.610E-06,-0.048
-5.600E-06,-0.008
-5.590E-06,0.024
-5.580E-06,0.048
-5.570E-06,0.032
-5.560E-06,0.008
-5.550E-06,-0.016
-5.540E-06,-0.040
-5.530E-06,-0.016
-5.520E-06,-0.008
-5.510E-06,0.040
-5.500E-06,0.056
-5.490E-06,0.048
-5.480E-06,0.000
-5.470E-06,-0.008
-5.460E-06,-0.024
-5.450E-06,-0.016
-5.440E-06,0.000
-5.430E-06,0.032
-5.420E-06,0.024
-5.410E-06,0.024
-5.400E-06,-0.024
-5.390E-06,-0.056
-5.380E-06,-0.040
-5.370E-06,0.024
-5.360E-06,0.040
-5.350E-06,0.048
-5.340E-06,0.040
-5.330E-06,0.024
-5.320E-06,-0.008
-5.310E-06,-0.048
-5.300E-06,-0.048
-5.290E-06,-0.016
-5.280E-06,0.048
-5.270E-06,0.056
-5.260E-06,0.056
-5.250E-06,0.008
-5.240E-06,-0.016
-5.230E-06,-0.024
-5.220E-06,-0.024
-5.210E-06,0.000
-5.200E-06,0.000
-5.190E-06,0.032
-5.180E-06,0.032
-5.170E-06,0.024
-5.160E-06,0.000
-5.150E-06,-0.016
-5.140E-06,-0.016
-5.130E-06,-0.008
-5.120E-06,0.000
-5.110E-06,0.016
-5.100E-06,0.032
-5.090E-06,0.024
-5.080E-06,0.008
-5.070E-06,-0.008
-5.060E-06,-0.016
-5.050E-06,-0.008
-5.040E-06,0.000
-5.030E-06,0.016
-5.020E-06,0.016
-5.010E-06,0.024
-5.000E-06,0.024
-4.990E-06,0.008
-4.980E-06,-0.008
-4.970E-06,-0.016
-4.960E-06,0.000
-4.950E-06,0.008
-4.940E-06,0.016
-4.930E-06,0.016
-4.920E-06,0.016
-4.910E-06,-0.008
-4.900E-06,0.000
-4.890E-06,-0.008
-4.880E-06,-0.008
-4.870E-06,0.008
-4.860E-06,0.016
-4.850E-06,0.024
-4.840E-06,0.008
-4.830E-06,0.016
-4.820E-06,0.016
-4.810E-06,-0.016
-4.800E-06,-0.016
-4.790E-06,-0.016
-4.780E-06,0.008
-4.770E-06,-0.008
-4.760E-06,0.024
-4.750E-06,0.024
-4.740E-06,0.016
-4.730E-06,0.000
-4.720E-06,-0.016
-4.710E-06,-0.008
-4.700E-06,0.008
-4.690E-06,0.024
-4.680E-06,0.024
-4.670E-06,0.024
-4.660E-06,0.000
-4.650E-06,-0.008
-4.640E-06,0.008
-4.630E-06,0.000
-4.620E-06,0.008
-4.610E-06,0.016
-4.600E-06,0.016
-4.590E-06,0.016
-4.580E-06,0.008
-4.570E-06,0.000
-4.560E-06,0.000
-4.550E-06,0.000
-4.540E-06,0.000
-4.530E-06,0.016
-4.520E-06,0.008
-4.510E-06,0.016
-4.500E-06,0.008
-4.490E-06,0.000
-4.480E-06,0.000
-4.470E-06,0.000
-4.460E-06,0.008
-4.450E-06,0.008
-4.440E-06,0.008
-4.430E-06,0.016
-4.420E-06,0.000
-4.410E-06,0.000
-4.400E-06,0.008
-4.390E-06,0.016
-4.380E-06,0.024
-4.370E-06,0.024
-4.360E-06,0.016
-4.350E-06,-0.008
-4.340E-06,-0.008
-4.330E-06,0.000
-4.320E-06,0.000
-4.310E-06,0.016
-4.300E-06,0.008
-4.290E-06,0.016
-4.280E-06,0.000
-4.270E-06,0.000
-4.260E-06,0.000
-4.250E-06,0.008
-4.240E-06,0.008
-4.230E-06,0.008
-4.220E-06,0.000
-4.210E-06,0.008
-4.200E-06,0.000
-4.190E-06,0.008
-4.180E-06,0.008
-4.170E-06,0.008
-4.160E-06,0.000
-4.150E-06,-0.008
-4.140E-06,-0.016
-4.130E-06,0.008
-4.120E-06,0.024
-4.110E-06,0.024
-4.100E-06,0.016
-4.090E-06,-0.008
-4.080E-06,-0.016
-4.070E-06,-0.016
-4.060E-06,0.008
-4.050E-06,0.008
-4.040E-06,0.024
-4.030E-06,0.016
-4.020E-06,0.008
-4.010E-06,-0.008
-4.000E-06,-0.008
-3.990E-06,0.000
-3.980E-06,0.016
-3.970E-06,0.016
-3.960E-06,0.024
-3.950E-06,0.024
-3.940E-06,0.008
-3.930E-06,-0.016
-3.920E-06,-0.016
-3.910E-06,0.000
-3.900E-06,0.024
-3.890E-06,0.024
-3.880E-06,0.016
-3.870E-06,0.016
-3.860E-06,0.000
-3.850E-06,-0.008
-3.840E-06,-0.008
-3.830E-06,0.000
-3.820E-06,0.008
-3.810E-06,0.016
-3.800E-06,0.016
-3.790E-06,0.000
-3.780E-06,-0.008
-3.770E-06,0.000
-3.760E-06,0.016
-3.750E-06,0.032
-3.740E-06,0.032
-3.730E-06,0.008
-3.720E-06,-0.064
-3.710E-06,-0.136
-3.700E-06,-0.112
-3.690E-06,-0.048
-3.680E-06,0.016
-3.670E-06,0.136
-3.660E-06,0.120
-3.650E-06,0.080
-3.640E-06,-0.056
-3.630E-06,-0.192
-3.620E-06,-0.136
-3.610E-06,-0.040
-3.600E-06,0.080
-3.590E-06,0.160
-3.580E-06,0.128
-3.570E-06,0.056
-3.560E-06,-0.056
-3.550E-06,-0.112
-3.540E-06,-0.112
-3.530E-06,-0.032
-3.520E-06,0.056
-3.510E-06,0.112
-3.500E-06,0.112
-3.490E-06,0.040
-3.480E-06,-0.032
-3.470E-06,-0.072
-3.460E-06,-0.064
-3.450E-06,-0.024
-3.440E-06,0.032
-3.430E-06,0.072
-3.420E-06,0.080
-3.410E-06,0.040
-3.400E-06,-0.008
-3.390E-06,-0.048
-3.380E-06,-0.048
-3.370E-06,-0.016
-3.360E-06,0.016
-3.350E-06,0.048
-3.340E-06,0.040
-3.330E-06,0.032
-3.320E-06,0.000
-3.310E-06,-0.024
-3.300E-06,-0.032
-3.290E-06,-0.016
-3.280E-06,0.008
-3.270E-06,0.032
-3.260E-06,0.048
-3.250E-06,0.032
-3.240E-06,0.024
-3.230E-06,-0.008
-3.220E-06,-0.016
-3.210E-06,-0.008
-3.200E-06,-0.008
-3.190E-06,0.016
-3.180E-06,0.048
-3.170E-06,0.040
-3.160E-06,0.024
-3.150E-06,-0.008
-3.140E-06,-0.040
-3.130E-06,-0.040
-3.120E-06,-0.016
-3.110E-06,0.008
-3.100E-06,0.040
-3.090E-06,0.040
-3.080E-06,0.008
-3.070E-06,-0.016
-3.060E-06,-0.024
-3.050E-06,-0.016
-3.040E-06,0.000
-3.030E-06,0.016
-3.020E-06,0.032
-3.010E-06,0.032
-3.000E-06,0.000
-2.990E-06,-0.008
-2.980E-06,-0.008
-2.970E-06,0.000
-2.960E-06,0.008
-2.950E-06,0.008
-2.940E-06,0.000
-2.930E-06,-0.008
-2.920E-06,0.008
-2.910E-06,0.008
-2.900E-06,0.024
-2.890E-06,0.016
-2.880E-06,0.016
-2.870E-06,0.000
-2.860E-06,-0.008
-2.850E-06,0.000
-2.840E-06,0.008
-2.830E-06,0.016
-2.820E-06,0.016
-2.810E-06,0.016
-2.800E-06,0.000
-2.790E-06,-0.008
-2.780E-06,-0.008
-2.770E-06,-0.008
-2.760E-06,0.000
-2.750E-06,0.016
-2.740E-06,0.016
-2.730E-06,0.016
-2.720E-06,-0.008
-2.710E-06,0.000
-2.700E-06,-0.016
-2.690E-06,-0.008
-2.680E-06,0.000
-2.670E-06,0.016
-2.660E-06,0.032
-2.650E-06,0.024
-2.640E-06,-0.008
-2.630E-06,-0.008
-2.620E-06,-0.008
-2.610E-06,0.000
-2.600E-06,0.016
-2.590E-06,0.016
-2.580E-06,0.024
-2.570E-06,0.000
-2.560E-06,-0.008
-2.550E-06,-0.008
-2.540E-06,-0.008
-2.530E-06,-0.008
-2.520E-06,0.008
-2.510E-06,0.016
-2.500E-06,0.016
-2.490E-06,0.008
-2.480E-06,-0.008
-2.470E-06,0.000
-2.460E-06,-0.008
-2.450E-06,0.008
-2.440E-06,0.016
-2.430E-06,0.016
-2.420E-06,0.024
-2.410E-06,0.016
-2.400E-06,0.016
-2.390E-06,0.008
-2.380E-06,-0.008
-2.370E-06,0.000
-2.360E-06,0.016
-2.350E-06,0.024
-2.340E-06,0.008
-2.330E-06,0.000
-2.320E-06,0.008
-2.310E-06,0.000
-2.300E-06,0.000
-2.290E-06,0.016
-2.280E-06,-0.008
-2.270E-06,-0.032
-2.260E-06,-0.016
-2.250E-06,0.008
-2.240E-06,0.032
-2.230E-06,0.024
-2.220E-06,0.032
-2.210E-06,0.000
-2.200E-06,-0.016
-2.190E-06,-0.048
-2.180E-06,-0.024
-2.170E-06,-0.008
-2.160E-06,0.040
-2.150E-06,0.048
-2.140E-06,0.032
-2.130E-06,-0.016
-2.120E-06,-0.008
-2.110E-06,-0.016
-2.100E-06,-0.008
-2.090E-06,0.016
-2.080E-06,0.024
-2.070E-06,0.016
-2.060E-06,0.016
-2.050E-06,0.000
-2.040E-06,-0.008
-2.030E-06,0.000
-2.020E-06,0.008
-2.010E-06,0.024
-2.000E-06,0.024
-1.990E-06,0.016
-1.980E-06,0.008
-1.970E-06,0.000
-1.960E-06,0.000
-1.950E-06,0.000
-1.940E-06,0.008
-1.930E-06,0.016
-1.920E-06,0.016
-1.910E-06,0.024
-1.900E-06,0.024
-1.890E-06,0.024
-1.880E-06,0.000
-1.870E-06,0.000
-1.860E-06,-0.008
-1.850E-06,-0.008
-1.840E-06,0.008
-1.830E-06,0.024
-1.820E-06,0.016
-1.810E-06,0.016
-1.800E-06,0.008
-1.790E-06,-0.016
-1.780E-06,-0.024
-1.770E-06,-0.024
-1.760E-06,0.016
-1.750E-06,0.048
-1.740E-06,0.040
-1.730E-06,0.016
-1.720E-06,-0.008
-1.710E-06,-0.008
-1.700E-06,-0.008
-1.690E-06,0.008
-1.680E-06,0.032
-1.670E-06,0.032
-1.660E-06,0.008
-1.650E-06,0.000
-1.640E-06,-0.016
-1.630E-06,-0.024
-1.620E-06,-0.008
-1.610E-06,0.024
-1.600E-06,-0.016
-1.590E-06,0.008
-1.580E-06,0.000
-1.570E-06,-0.008
-1.560E-06,0.000
-1.550E-06,0.016
-1.540E-06,0.040
-1.530E-06,-0.016
-1.520E-06,-0.024
-1.510E-06,-0.056
-1.500E-06,0.000
-1.490E-06,0.056
-1.480E-06,0.048
-1.470E-06,0.040
-1.460E-06,0.000
-1.450E-06,-0.040
-1.440E-06,-0.032
-1.430E-06,-0.024
-1.420E-06,0.008
-1.410E-06,0.048
-1.400E-06,0.064
-1.390E-06,0.048
-1.380E-06,0.008
-1.370E-06,-0.032
-1.360E-06,-0.048
-1.350E-06,-0.008
-1.340E-06,0.008
-1.330E-06,0.048
-1.320E-06,0.056
-1.310E-06,0.024
-1.300E-06,0.000
-1.290E-06,-0.024
-1.280E-06,-0.040
-1.270E-06,-0.016
-1.260E-06,-0.008
-1.250E-06,0.032
-1.240E-06,0.056
-1.230E-06,0.048
-1.220E-06,0.016
-1.210E-06,-0.008
-1.200E-06,-0.048
-1.190E-06,-0.032
-1.180E-06,0.000
-1.170E-06,0.016
-1.160E-06,0.048
-1.150E-06,0.040
-1.140E-06,0.024
-1.130E-06,0.008
-1.120E-06,-0.008
-1.110E-06,-0.016
-1.100E-06,-0.016
-1.090E-06,0.000
-1.080E-06,0.024
-1.070E-06,0.040
-1.060E-06,0.048
-1.050E-06,0.024
-1.040E-06,0.008
-1.030E-06,-0.008
-1.020E-06,-0.008
-1.010E-06,-0.008
-1.000E-06,0.016
-9.900E-07,0.032
-9.800E-07,0.048
-9.700E-07,0.032
-9.600E-07,0.008
-9.500E-07,-0.008
-9.400E-07,0.000
-9.300E-07,0.000
-9.200E-07,0.008
-9.100E-07,0.024
-9.000E-07,0.024
-8.900E-07,0.024
-8.800E-07,0.024
-8.700E-07,0.016
-8.600E-07,0.016
-8.500E-07,0.008
-8.400E-07,0.024
-8.300E-07,0.016
-8.200E-07,0.016
-8.100E-07,0.008
-8.000E-07,0.016
-7.900E-07,0.016
-7.800E-07,0.024
-7.700E-07,0.032
-7.600E-07,0.048
-7.500E-07,0.056
-7.400E-07,0.040
-7.300E-07,0.032
-7.200E-07,-0.016
-7.100E-07,-0.032
-7.000E-07,-0.048
-6.900E-07,-0.064
-6.800E-07,-0.016
-6.700E-07,0.040
-6.600E-07,0.080
-6.500E-07,0.072
-6.400E-07,0.024
-6.300E-07,-0.008
-6.200E-07,-0.032
-6.100E-07,-0.024
-6.000E-07,-0.024
-5.900E-07,0.040
-5.800E-07,0.024
-5.700E-07,0.048
-5.600E-07,0.048
-5.500E-07,0.016
-5.400E-07,0.008
-5.300E-07,-0.008
-5.200E-07,0.016
-5.100E-07,0.024
-5.000E-07,0.064
-4.900E-07,0.048
-4.800E-07,0.056
-4.700E-07,0.008
-4.600E-07,0.008
-4.500E-07,-0.016
-4.400E-07,-0.032
-4.300E-07,0.000
-4.200E-07,0.000
-4.100E-07,0.040
-4.000E-07,0.072
-3.900E-07,0.088
-3.800E-07,0.056
-3.700E-07,0.032
-3.600E-07,-0.016
-3.500E-07,0.016
-3.400E-07,0.096
-3.300E-07,0.128
-3.200E-07,0.128
-3.100E-07,0.104
-3.000E-07,0.056
-2.900E-07,0.024
-2.800E-07,-0.024
-2.700E-07,-0.024
-2.600E-07,-0.016
-2.500E-07,-0.016
-2.400E-07,-0.008
-2.300E-07,0.000
-2.200E-07,0.016
-2.100E-07,0.048
-2.000E-07,0.056
-1.900E-07,0.104
-1.800E-07,0.080
-1.700E-07,0.096
-1.600E-07,0.112
-1.500E-07,0.096
-1.400E-07,0.064
-1.300E-07,0.024
-1.200E-07,0.032
-1.100E-07,0.064
-1.000E-07,0.048
-9.000E-08,-0.064
-8.000E-08,-0.072
-7.000E-08,-0.432
-6.000E-08,-0.520
-5.000E-08,-0.672
-4.000E-08,-0.400
-3.000E-08,0.104
-2.000E-08,0.376
-1.000E-08,0.496
0.000E+00,0.312
1.000E-08,0.144
2.000E-08,-0.264
3.000E-08,-0.312
4.000E-08,-0.168
5.000E-08,0.016
6.000E-08,0.216
7.000E-08,0.400
8.000E-08,0.248
9.000E-08,0.088
1.000E-07,-0.048
1.100E-07,-0.048
1.200E-07,-0.048
1.300E-07,0.016
1.400E-07,0.176
1.500E-07,0.240
1.600E-07,0.320
1.700E-07,0.080
1.800E-07,-0.048
1.900E-07,-0.208
2.000E-07,-0.280
2.100E-07,-0.072
2.200E-07,0.128
2.300E-07,0.344
2.400E-07,0.392
2.500E-07,0.352
2.600E-07,0.168
2.700E-07,-0.024
2.800E-07,-0.144
2.900E-07,-0.120
3.000E-07,0.008
3.100E-07,0.184
3.200E-07,0.288
3.300E-07,0.272
3.400E-07,0.120
3.500E-07,0.032
3.600E-07,-1.016
3.700E-07,-1.024
3.800E-07,-1.024
3.900E-07,-0.592
4.000E-07,0.576
4.100E-07,1.080
4.200E-07,1.080
4.300E-07,0.976
4.400E-07,-0.144
4.500E-07,-1.024
4.600E-07,-1.016
4.700E-07,-0.752
4.800E-07,0.408
4.900E-07,1.072
5.000E-07,1.080
5.100E-07,0.800
5.200E-07,0.072
5.300E-07,-0.624
5.400E-07,-0.688
5.500E-07,-0.432
5.600E-07,0.216
5.700E-07,0.792
5.800E-07,1.008
5.900E-07,0.800
6.000E-07,0.248
6.100E-07,-0.272
6.200E-07,-0.568
6.300E-07,-0.376
6.400E-07,0.032
6.500E-07,0.528
6.600E-07,0.744
6.700E-07,0.672
6.800E-07,0.360
6.900E-07,0.024
7.000E-07,-0.256
7.100E-07,-0.288
7.200E-07,-0.080
7.300E-07,0.192
7.400E-07,0.392
7.500E-07,0.344
7.600E-07,0.048
7.700E-07,-0.416
7.800E-07,-0.592
7.900E-07,-0.496
8.000E-07,-0.336
8.100E-07,0.224
8.200E-07,0.640
8.300E-07,0.664
8.400E-07,0.744
8.500E-07,0.056
8.600E-07,-0.128
8.700E-07,-0.400
8.800E-07,-0.280
8.900E-07,-0.040
9.000E-07,0.224
9.100E-07,0.352
9.200E-07,0.248
9.300E-07,0.096
9.400E-07,-0.112
9.500E-07,-0.096
9.600E-07,-0.024
9.700E-07,0.224
9.800E-07,0.360
9.900E-07,0.456
1.000E-06,0.336
1.010E-06,0.240
1.020E-06,0.064
1.030E-06,-0.032
1.040E-06,-0.008
1.050E-06,0.056
1.060E-06,0.160
1.070E-06,0.200
1.080E-06,0.176
1.090E-06,0.048
1.100E-06,0.008
1.110E-06,-0.016
1.120E-06,0.112
1.130E-06,0.216
1.140E-06,0.344
1.150E-06,0.352
1.160E-06,0.224
1.170E-06,0.128
1.180E-06,-0.040
1.190E-06,-0.104
1.200E-06,-0.112
1.210E-06,-0.064
1.220E-06,0.000
1.230E-06,-0.008
1.240E-06,0.032
1.250E-06,0.216
1.260E-06,0.320
1.270E-06,0.320
1.280E-06,0.304
1.290E-06,0.184
1.300E-06,0.120
1.310E-06,0.024
1.320E-06,0.048
1.330E-06,0.136
1.340E-06,0.232
1.350E-06,0.312
1.360E-06,0.280
1.370E-06,0.208
1.380E-06,0.096
1.390E-06,0.048
1.400E-06,0.056
1.410E-06,0.152
1.420E-06,0.208
1.430E-06,0.200
1.440E-06,0.176
1.450E-06,0.064
1.460E-06,0.064
1.470E-06,0.104
1.480E-06,0.176
1.490E-06,0.288
1.500E-06,0.312
1.510E-06,0.312
1.520E-06,0.192
1.530E-06,0.080
1.540E-06,0.032
1.550E-06,-0.008
1.560E-06,0.088
1.570E-06,0.184
1.580E-06,0.280
1.590E-06,0.320
1.600E-06,0.264
1.610E-06,0.192
1.620E-06,0.048
1.630E-06,-0.016
1.640E-06,-0.064
1.650E-06,-0.016
1.660E-06,0.064
1.670E-06,0.248
1.680E-06,0.352
1.690E-06,0.384
1.700E-06,0.232
1.710E-06,0.104
1.720E-06,-0.072
1.730E-06,-0.216
1.740E-06,-0.224
1.750E-06,-0.352
1.760E-06,-0.256
1.770E-06,-0.256
1.780E-06,-0.280
1.790E-06,-0.616
1.800E-06,-0.288
1.810E-06,-0.208
1.820E-06,-0.008
1.830E-06,0.448
1.840E-06,0.256
1.850E-06,0.392
1.860E-06,0.088
1.870E-06,-0.056
1.880E-06,-0.136
1.890E-06,-0.128
1.900E-06,0.048
1.910E-06,0.248
1.920E-06,0.376
1.930E-06,0.368
1.940E-06,0.216
1.950E-06,-0.008
1.960E-06,-0.080
1.970E-06,-0.040
1.980E-06,0.112
1.990E-06,0.224
2.000E-06,0.384
2.010E-06,0.384
2.020E-06,0.320
2.030E-06,0.192
2.040E-06,0.064
2.050E-06,0.032
2.060E-06,0.088
2.070E-06,0.208
2.080E-06,0.296
2.090E-06,0.312
2.100E-06,0.272
2.110E-06,0.184
2.120E-06,0.080
2.130E-06,0.048
2.140E-06,0.088
2.150E-06,0.176
2.160E-06,0.264
2.170E-06,0.296
2.180E-06,0.280
2.190E-06,0.216
2.200E-06,0.152
2.210E-06,0.104
2.220E-06,0.120
2.230E-06,0.160
2.240E-06,0.216
2.250E-06,0.248
2.260E-06,0.208
2.270E-06,0.184
2.280E-06,0.136
2.290E-06,0.128
2.300E-06,0.128
2.310E-06,0.168
2.320E-06,0.192
2.330E-06,0.216
2.340E-06,0.192
2.350E-06,0.168
2.360E-06,0.152
2.370E-06,0.136
2.380E-06,0.152
2.390E-06,0.168
2.400E-06,0.200
2.410E-06,0.208
2.420E-06,0.208
2.430E-06,0.176
2.440E-06,0.160
2.450E-06,0.144
2.460E-06,0.152
2.470E-06,0.176
2.480E-06,0.184
2.490E-06,0.184
2.500E-06,0.200
2.510E-06,0.184
2.520E-06,0.168
2.530E-06,0.160
2.540E-06,0.152
2.550E-06,0.160
2.560E-06,0.176
2.570E-06,0.176
2.580E-06,0.176
2.590E-06,0.176
2.600E-06,0.176
2.610E-06,0.160
2.620E-06,0.160
2.630E-06,0.160
2.640E-06,0.160
2.650E-06,0.168
2.660E-06,0.176
2.670E-06,0.184
2.680E-06,0.176
2.690E-06,0.184
2.700E-06,0.160
2.710E-06,0.152
2.720E-06,0.160
2.730E-06,0.160
2.740E-06,0.160
2.750E-06,0.176
2.760E-06,0.176
2.770E-06,0.184
2.780E-06,0.176
2.790E-06,0.168
2.800E-06,0.168
2.810E-06,0.176
2.820E-06,0.168
2.830E-06,0.176
2.840E-06,0.184
2.850E-06,0.176
2.860E-06,0.184
2.870E-06,0.176
2.880E-06,0.152
2.890E-06,0.160
2.900E-06,0.160
2.910E-06,0.160
2.920E-06,0.176
2.930E-06,0.160
2.940E-06,0.168
2.950E-06,0.152
2.960E-06,0.152
2.970E-06,0.152
2.980E-06,0.160
2.990E-06,0.152
3.000E-06,0.168
3.010E-06,0.176
3.020E-06,0.152
3.030E-06,0.168
3.040E-06,0.176
3.050E-06,0.168
3.060E-06,0.160
3.070E-06,0.152
3.080E-06,0.168
3.090E-06,0.152
3.100E-06,0.160
3.110E-06,0.168
3.120E-06,0.168
3.130E-06,0.168
3.140E-06,0.168
3.150E-06,0.152
3.160E-06,0.136
3.170E-06,0.136
3.180E-06,0.152
3.190E-06,0.160
3.200E-06,0.152
3.210E-06,0.144
3.220E-06,0.136
3.230E-06,0.136
3.240E-06,0.128
3.250E-06,0.128
3.260E-06,0.152
3.270E-06,0.144
3.280E-06,0.168
3.290E-06,0.168
3.300E-06,0.168
3.310E-06,0.144
3.320E-06,0.144
3.330E-06,0.144
3.340E-06,0.144
3.350E-06,0.136
3.360E-06,0.152
3.370E-06,0.152
3.380E-06,0.152
3.390E-06,0.152
3.400E-06,0.144
3.410E-06,0.136
3.420E-06,0.136
3.430E-06,0.136
3.440E-06,0.152
3.450E-06,0.160
3.460E-06,0.152
3.470E-06,0.144
3.480E-06,0.152
3.490E-06,0.136
3.500E-06,0.136
3.510E-06,0.144
3.520E-06,0.136
3.530E-06,0.144
3.540E-06,0.144
3.550E-06,0.160
3.560E-06,0.144
3.570E-06,0.160
3.580E-06,0.160
