mediciones/6-26/30.0/WaveData5965.csv

#timebase=2000000(ps)
,#voltbase=500000(mv/100)
#size=4000
-8.150E-06,0.020
-8.140E-06,0.040
-8.130E-06,0.020
-8.120E-06,0.020
-8.110E-06,0.000
-8.100E-06,0.000
-8.090E-06,0.000
-8.080E-06,0.000
-8.070E-06,0.020
-8.060E-06,0.020
-8.050E-06,0.000
-8.040E-06,0.020
-8.030E-06,0.060
-8.020E-06,0.060
-8.010E-06,0.080
-8.000E-06,0.080
-7.990E-06,0.060
-7.980E-06,0.020
-7.970E-06,0.020
-7.960E-06,0.060
-7.950E-06,0.100
-7.940E-06,0.080
-7.930E-06,0.080
-7.920E-06,0.020
-7.910E-06,0.020
-7.900E-06,0.080
-7.890E-06,0.100
-7.880E-06,0.120
-7.870E-06,0.140
-7.860E-06,0.100
-7.850E-06,0.060
-7.840E-06,0.080
-7.830E-06,0.080
-7.820E-06,0.080
-7.810E-06,0.100
-7.800E-06,0.080
-7.790E-06,0.120
-7.780E-06,0.080
-7.770E-06,0.040
-7.760E-06,0.080
-7.750E-06,0.120
-7.740E-06,0.120
-7.730E-06,0.060
-7.720E-06,-0.020
-7.710E-06,0.000
-7.700E-06,-0.060
-7.690E-06,0.060
-7.680E-06,0.200
-7.670E-06,0.260
-7.660E-06,0.180
-7.650E-06,0.020
-7.640E-06,-0.060
-7.630E-06,0.000
-7.620E-06,0.040
-7.610E-06,0.240
-7.600E-06,0.340
-7.590E-06,0.340
-7.580E-06,0.200
-7.570E-06,0.040
-7.560E-06,-0.040
-7.550E-06,-0.040
-7.540E-06,0.080
-7.530E-06,0.160
-7.520E-06,0.160
-7.510E-06,0.100
-7.500E-06,0.020
-7.490E-06,-0.020
-7.480E-06,-0.060
-7.470E-06,-0.020
-7.460E-06,0.020
-7.450E-06,0.060
-7.440E-06,0.040
-7.430E-06,0.040
-7.420E-06,0.000
-7.410E-06,-0.040
-7.400E-06,-0.020
-7.390E-06,-0.020
-7.380E-06,-0.020
-7.370E-06,0.000
-7.360E-06,0.000
-7.350E-06,0.020
-7.340E-06,0.060
-7.330E-06,0.000
-7.320E-06,0.040
-7.310E-06,0.000
-7.300E-06,0.000
-7.290E-06,0.000
-7.280E-06,0.040
-7.270E-06,0.040
-7.260E-06,0.080
-7.250E-06,0.060
-7.240E-06,0.020
-7.230E-06,0.020
-7.220E-06,0.020
-7.210E-06,0.060
-7.200E-06,0.100
-7.190E-06,0.140
-7.180E-06,0.120
-7.170E-06,0.120
-7.160E-06,0.140
-7.150E-06,0.160
-7.140E-06,0.200
-7.130E-06,0.260
-7.120E-06,0.240
-7.110E-06,0.280
-7.100E-06,0.260
-7.090E-06,0.280
-7.080E-06,0.060
-7.070E-06,-0.060
-7.060E-06,-0.080
-7.050E-06,-0.140
-7.040E-06,0.360
-7.030E-06,0.800
-7.020E-06,1.100
-7.010E-06,1.160
-7.000E-06,0.880
-6.990E-06,0.460
-6.980E-06,0.260
-6.970E-06,0.220
-6.960E-06,0.400
-6.950E-06,0.480
-6.940E-06,0.400
-6.930E-06,0.300
-6.920E-06,0.100
-6.910E-06,-0.100
-6.900E-06,-0.180
-6.890E-06,-0.180
-6.880E-06,-0.120
-6.870E-06,-0.040
-6.860E-06,-0.200
-6.850E-06,-0.340
-6.840E-06,-0.380
-6.830E-06,-0.500
-6.820E-06,-0.440
-6.810E-06,-0.300
-6.800E-06,-0.200
-6.790E-06,-0.300
-6.780E-06,-0.340
-6.770E-06,-0.420
-6.760E-06,-0.420
-6.750E-06,-0.340
-6.740E-06,-0.180
-6.730E-06,-0.140
-6.720E-06,-0.120
-6.710E-06,-0.120
-6.700E-06,-0.100
-6.690E-06,-0.100
-6.680E-06,-0.060
-6.670E-06,0.000
-6.660E-06,0.040
-6.650E-06,0.060
-6.640E-06,0.060
-6.630E-06,0.100
-6.620E-06,0.180
-6.610E-06,0.220
-6.600E-06,0.240
-6.590E-06,0.280
-6.580E-06,0.320
-6.570E-06,0.300
-6.560E-06,0.320
-6.550E-06,0.360
-6.540E-06,0.340
-6.530E-06,0.340
-6.520E-06,0.320
-6.510E-06,0.300
-6.500E-06,0.260
-6.490E-06,0.240
-6.480E-06,0.260
-6.470E-06,0.240
-6.460E-06,0.200
-6.450E-06,0.160
-6.440E-06,0.080
-6.430E-06,0.080
-6.420E-06,0.060
-6.410E-06,0.040
-6.400E-06,0.040
-6.390E-06,0.060
-6.380E-06,0.000
-6.370E-06,-0.060
-6.360E-06,-0.080
-6.350E-06,-0.040
-6.340E-06,-0.060
-6.330E-06,0.000
-6.320E-06,-0.040
-6.310E-06,-0.080
-6.300E-06,-0.100
-6.290E-06,-0.100
-6.280E-06,-0.060
-6.270E-06,-0.020
-6.260E-06,-0.020
-6.250E-06,0.000
-6.240E-06,0.000
-6.230E-06,-0.020
-6.220E-06,-0.040
-6.210E-06,-0.020
-6.200E-06,0.000
-6.190E-06,0.020
-6.180E-06,0.040
-6.170E-06,0.020
-6.160E-06,0.000
-6.150E-06,0.020
-6.140E-06,-0.020
-6.130E-06,0.040
-6.120E-06,0.040
-6.110E-06,0.040
-6.100E-06,0.100
-6.090E-06,0.040
-6.080E-06,0.060
-6.070E-06,0.060
-6.060E-06,0.060
-6.050E-06,0.080
-6.040E-06,0.100
-6.030E-06,0.080
-6.020E-06,0.080
-6.010E-06,0.100
-6.000E-06,0.020
-5.990E-06,0.080
-5.980E-06,0.060
-5.970E-06,0.080
-5.960E-06,0.160
-5.950E-06,0.180
-5.940E-06,0.140
-5.930E-06,0.100
-5.920E-06,0.060
-5.910E-06,0.040
-5.900E-06,0.080
-5.890E-06,0.120
-5.880E-06,0.100
-5.870E-06,0.100
-5.860E-06,0.040
-5.850E-06,0.020
-5.840E-06,0.000
-5.830E-06,0.000
-5.820E-06,0.020
-5.810E-06,-0.040
-5.800E-06,-0.060
-5.790E-06,-0.040
-5.780E-06,-0.020
-5.770E-06,0.060
-5.760E-06,0.120
-5.750E-06,0.080
-5.740E-06,0.000
-5.730E-06,-0.080
-5.720E-06,-0.100
-5.710E-06,-0.080
-5.700E-06,-0.040
-5.690E-06,-0.060
-5.680E-06,-0.220
-5.670E-06,-0.160
-5.660E-06,-0.200
-5.650E-06,-0.120
-5.640E-06,0.100
-5.630E-06,0.380
-5.620E-06,0.420
-5.610E-06,0.480
-5.600E-06,0.340
-5.590E-06,0.240
-5.580E-06,0.240
-5.570E-06,0.340
-5.560E-06,0.480
-5.550E-06,0.500
-5.540E-06,0.420
-5.530E-06,0.320
-5.520E-06,0.200
-5.510E-06,0.140
-5.500E-06,0.180
-5.490E-06,0.180
-5.480E-06,0.220
-5.470E-06,0.180
-5.460E-06,0.100
-5.450E-06,-0.020
-5.440E-06,-0.040
-5.430E-06,-0.060
-5.420E-06,-0.080
-5.410E-06,-0.040
-5.400E-06,-0.140
-5.390E-06,-0.120
-5.380E-06,-0.240
-5.370E-06,-0.320
-5.360E-06,-0.340
-5.350E-06,-0.360
-5.340E-06,-0.260
-5.330E-06,-0.120
-5.320E-06,-0.040
-5.310E-06,0.020
-5.300E-06,-0.020
-5.290E-06,-0.140
-5.280E-06,-0.160
-5.270E-06,-0.120
-5.260E-06,-0.100
-5.250E-06,0.000
-5.240E-06,0.040
-5.230E-06,0.080
-5.220E-06,0.080
-5.210E-06,0.060
-5.200E-06,0.040
-5.190E-06,0.100
-5.180E-06,0.100
-5.170E-06,0.160
-5.160E-06,0.200
-5.150E-06,0.200
-5.140E-06,0.220
-5.130E-06,0.260
-5.120E-06,0.220
-5.110E-06,0.240
-5.100E-06,0.220
-5.090E-06,0.200
-5.080E-06,0.220
-5.070E-06,0.180
-5.060E-06,0.160
-5.050E-06,0.160
-5.040E-06,0.120
-5.030E-06,0.100
-5.020E-06,0.080
-5.010E-06,0.040
-5.000E-06,0.040
-4.990E-06,0.020
-4.980E-06,0.000
-4.970E-06,-0.020
-4.960E-06,-0.020
-4.950E-06,-0.040
-4.940E-06,-0.020
-4.930E-06,-0.040
-4.920E-06,-0.060
-4.910E-06,-0.040
-4.900E-06,-0.060
-4.890E-06,-0.020
-4.880E-06,-0.040
-4.870E-06,-0.040
-4.860E-06,0.000
-4.850E-06,-0.020
-4.840E-06,0.000
-4.830E-06,0.000
-4.820E-06,0.020
-4.810E-06,0.000
-4.800E-06,0.020
-4.790E-06,0.040
-4.780E-06,0.060
-4.770E-06,0.060
-4.760E-06,0.080
-4.750E-06,0.080
-4.740E-06,0.120
-4.730E-06,0.160
-4.720E-06,0.140
-4.710E-06,0.060
-4.700E-06,0.060
-4.690E-06,0.060
-4.680E-06,0.100
-4.670E-06,0.100
-4.660E-06,0.080
-4.650E-06,0.080
-4.640E-06,0.040
-4.630E-06,0.040
-4.620E-06,0.040
-4.610E-06,0.060
-4.600E-06,0.060
-4.590E-06,0.080
-4.580E-06,0.080
-4.570E-06,0.060
-4.560E-06,0.080
-4.550E-06,0.060
-4.540E-06,0.040
-4.530E-06,0.060
-4.520E-06,0.080
-4.510E-06,0.060
-4.500E-06,0.040
-4.490E-06,0.040
-4.480E-06,0.040
-4.470E-06,0.020
-4.460E-06,0.040
-4.450E-06,0.060
-4.440E-06,0.040
-4.430E-06,0.020
-4.420E-06,0.040
-4.410E-06,0.040
-4.400E-06,0.020
-4.390E-06,0.000
-4.380E-06,0.040
-4.370E-06,0.020
-4.360E-06,0.040
-4.350E-06,0.060
-4.340E-06,0.040
-4.330E-06,0.000
-4.320E-06,0.000
-4.310E-06,0.020
-4.300E-06,0.040
-4.290E-06,0.080
-4.280E-06,0.080
-4.270E-06,0.060
-4.260E-06,0.080
-4.250E-06,0.060
-4.240E-06,0.040
-4.230E-06,0.040
-4.220E-06,0.060
-4.210E-06,0.080
-4.200E-06,0.040
-4.190E-06,0.080
-4.180E-06,0.140
-4.170E-06,0.200
-4.160E-06,0.260
-4.150E-06,0.180
-4.140E-06,0.080
-4.130E-06,0.000
-4.120E-06,-0.060
-4.110E-06,0.040
-4.100E-06,0.140
-4.090E-06,0.180
-4.080E-06,0.220
-4.070E-06,0.180
-4.060E-06,0.100
-4.050E-06,0.000
-4.040E-06,0.040
-4.030E-06,0.020
-4.020E-06,0.100
-4.010E-06,0.080
-4.000E-06,0.040
-3.990E-06,0.000
-3.980E-06,-0.020
-3.970E-06,-0.040
-3.960E-06,-0.060
-3.950E-06,-0.020
-3.940E-06,-0.060
-3.930E-06,-0.040
-3.920E-06,-0.060
-3.910E-06,-0.080
-3.900E-06,-0.120
-3.890E-06,-0.100
-3.880E-06,-0.120
-3.870E-06,-0.080
-3.860E-06,-0.100
-3.850E-06,-0.120
-3.840E-06,-0.140
-3.830E-06,-0.140
-3.820E-06,-0.060
-3.810E-06,0.140
-3.800E-06,0.240
-3.790E-06,0.320
-3.780E-06,0.320
-3.770E-06,0.280
-3.760E-06,0.220
-3.750E-06,0.180
-3.740E-06,0.220
-3.730E-06,0.280
-3.720E-06,0.280
-3.710E-06,0.260
-3.700E-06,0.180
-3.690E-06,0.020
-3.680E-06,-0.220
-3.670E-06,0.000
-3.660E-06,0.080
-3.650E-06,0.520
-3.640E-06,0.800
-3.630E-06,0.860
-3.620E-06,0.620
-3.610E-06,0.220
-3.600E-06,-0.020
-3.590E-06,0.040
-3.580E-06,0.180
-3.570E-06,0.320
-3.560E-06,0.420
-3.550E-06,0.240
-3.540E-06,0.020
-3.530E-06,-0.180
-3.520E-06,-0.240
-3.510E-06,-0.180
-3.500E-06,-0.040
-3.490E-06,-0.020
-3.480E-06,-0.080
-3.470E-06,-0.180
-3.460E-06,-0.300
-3.450E-06,-0.340
-3.440E-06,-0.260
-3.430E-06,-0.240
-3.420E-06,-0.160
-3.410E-06,-0.140
-3.400E-06,-0.140
-3.390E-06,-0.160
-3.380E-06,-0.200
-3.370E-06,-0.180
-3.360E-06,-0.120
-3.350E-06,-0.080
-3.340E-06,-0.020
-3.330E-06,-0.020
-3.320E-06,0.020
-3.310E-06,0.020
-3.300E-06,0.000
-3.290E-06,0.020
-3.280E-06,0.060
-3.270E-06,0.080
-3.260E-06,0.120
-3.250E-06,0.140
-3.240E-06,0.160
-3.230E-06,0.180
-3.220E-06,0.180
-3.210E-06,0.220
-3.200E-06,0.180
-3.190E-06,0.220
-3.180E-06,0.240
-3.170E-06,0.260
-3.160E-06,0.260
-3.150E-06,0.240
-3.140E-06,0.200
-3.130E-06,0.160
-3.120E-06,0.140
-3.110E-06,0.140
-3.100E-06,0.160
-3.090E-06,0.180
-3.080E-06,0.160
-3.070E-06,0.140
-3.060E-06,0.060
-3.050E-06,0.000
-3.040E-06,-0.020
-3.030E-06,0.060
-3.020E-06,0.120
-3.010E-06,0.120
-3.000E-06,0.120
-2.990E-06,0.000
-2.980E-06,-0.040
-2.970E-06,-0.080
-2.960E-06,-0.040
-2.950E-06,0.020
-2.940E-06,0.040
-2.930E-06,-0.020
-2.920E-06,-0.040
-2.910E-06,-0.060
-2.900E-06,-0.080
-2.890E-06,-0.020
-2.880E-06,0.040
-2.870E-06,0.040
-2.860E-06,0.040
-2.850E-06,-0.020
-2.840E-06,-0.040
-2.830E-06,0.000
-2.820E-06,0.000
-2.810E-06,0.040
-2.800E-06,0.080
-2.790E-06,0.080
-2.780E-06,0.040
-2.770E-06,0.020
-2.760E-06,0.000
-2.750E-06,0.020
-2.740E-06,0.040
-2.730E-06,0.080
-2.720E-06,0.120
-2.710E-06,0.140
-2.700E-06,0.080
-2.690E-06,0.040
-2.680E-06,0.020
-2.670E-06,0.020
-2.660E-06,0.080
-2.650E-06,0.100
-2.640E-06,0.140
-2.630E-06,0.120
-2.620E-06,0.080
-2.610E-06,0.000
-2.600E-06,0.000
-2.590E-06,0.040
-2.580E-06,0.080
-2.570E-06,0.080
-2.560E-06,0.100
-2.550E-06,0.080
-2.540E-06,0.040
-2.530E-06,0.040
-2.520E-06,0.060
-2.510E-06,0.080
-2.500E-06,0.060
-2.490E-06,0.100
-2.480E-06,0.080
-2.470E-06,0.060
-2.460E-06,0.060
-2.450E-06,0.000
-2.440E-06,0.020
-2.430E-06,0.020
-2.420E-06,0.040
-2.410E-06,0.060
-2.400E-06,0.040
-2.390E-06,0.040
-2.380E-06,0.000
-2.370E-06,0.020
-2.360E-06,0.060
-2.350E-06,0.040
-2.340E-06,0.100
-2.330E-06,0.060
-2.320E-06,0.040
-2.310E-06,0.020
-2.300E-06,0.020
-2.290E-06,0.020
-2.280E-06,0.040
-2.270E-06,0.120
-2.260E-06,0.060
-2.250E-06,0.000
-2.240E-06,-0.020
-2.230E-06,0.040
-2.220E-06,0.160
-2.210E-06,0.280
-2.200E-06,0.300
-2.190E-06,0.220
-2.180E-06,0.040
-2.170E-06,0.000
-2.160E-06,0.000
-2.150E-06,0.060
-2.140E-06,0.080
-2.130E-06,0.160
-2.120E-06,0.140
-2.110E-06,0.020
-2.100E-06,0.000
-2.090E-06,-0.040
-2.080E-06,0.000
-2.070E-06,0.040
-2.060E-06,0.040
-2.050E-06,0.040
-2.040E-06,0.060
-2.030E-06,0.000
-2.020E-06,-0.040
-2.010E-06,-0.040
-2.000E-06,-0.020
-1.990E-06,-0.020
-1.980E-06,0.020
-1.970E-06,0.000
-1.960E-06,0.000
-1.950E-06,0.000
-1.940E-06,0.000
-1.930E-06,0.020
-1.920E-06,0.060
-1.910E-06,0.080
-1.900E-06,0.020
-1.890E-06,0.000
-1.880E-06,0.020
-1.870E-06,0.060
-1.860E-06,0.100
-1.850E-06,0.080
-1.840E-06,0.060
-1.830E-06,0.000
-1.820E-06,0.000
-1.810E-06,0.000
-1.800E-06,0.100
-1.790E-06,0.120
-1.780E-06,0.100
-1.770E-06,0.040
-1.760E-06,-0.020
-1.750E-06,0.000
-1.740E-06,0.080
-1.730E-06,0.240
-1.720E-06,0.320
-1.710E-06,0.280
-1.700E-06,0.080
-1.690E-06,-0.060
-1.680E-06,-0.060
-1.670E-06,-0.020
-1.660E-06,0.120
-1.650E-06,0.200
-1.640E-06,0.140
-1.630E-06,0.040
-1.620E-06,-0.080
-1.610E-06,-0.060
-1.600E-06,-0.060
-1.590E-06,0.040
-1.580E-06,-0.100
-1.570E-06,-0.120
-1.560E-06,-0.140
-1.550E-06,-0.020
-1.540E-06,0.260
-1.530E-06,0.500
-1.520E-06,0.560
-1.510E-06,0.400
-1.500E-06,0.140
-1.490E-06,-0.020
-1.480E-06,0.000
-1.470E-06,0.100
-1.460E-06,0.260
-1.450E-06,0.340
-1.440E-06,0.220
-1.430E-06,0.080
-1.420E-06,0.000
-1.410E-06,-0.080
-1.400E-06,-0.060
-1.390E-06,-0.020
-1.380E-06,0.040
-1.370E-06,0.040
-1.360E-06,-0.020
-1.350E-06,-0.100
-1.340E-06,-0.100
-1.330E-06,-0.080
-1.320E-06,-0.060
-1.310E-06,-0.040
-1.300E-06,-0.060
-1.290E-06,-0.060
-1.280E-06,-0.080
-1.270E-06,-0.040
-1.260E-06,-0.100
-1.250E-06,-0.060
-1.240E-06,-0.060
-1.230E-06,-0.020
-1.220E-06,0.000
-1.210E-06,0.040
-1.200E-06,0.000
-1.190E-06,0.000
-1.180E-06,-0.020
-1.170E-06,-0.020
-1.160E-06,0.040
-1.150E-06,0.100
-1.140E-06,0.120
-1.130E-06,0.180
-1.120E-06,0.180
-1.110E-06,0.120
-1.100E-06,0.060
-1.090E-06,0.040
-1.080E-06,0.060
-1.070E-06,0.100
-1.060E-06,0.100
-1.050E-06,0.120
-1.040E-06,0.140
-1.030E-06,0.160
-1.020E-06,0.180
-1.010E-06,0.160
-1.000E-06,0.160
-9.900E-07,0.160
-9.800E-07,0.160
-9.700E-07,0.120
-9.600E-07,0.080
-9.500E-07,0.060
-9.400E-07,0.020
-9.300E-07,0.000
-9.200E-07,0.040
-9.100E-07,0.020
-9.000E-07,0.000
-8.900E-07,-0.020
-8.800E-07,-0.080
-8.700E-07,-0.100
-8.600E-07,-0.100
-8.500E-07,-0.140
-8.400E-07,-0.100
-8.300E-07,-0.100
-8.200E-07,-0.080
-8.100E-07,-0.080
-8.000E-07,-0.080
-7.900E-07,-0.100
-7.800E-07,-0.040
-7.700E-07,0.000
-7.600E-07,0.060
-7.500E-07,0.140
-7.400E-07,0.160
-7.300E-07,0.200
-7.200E-07,0.280
-7.100E-07,0.320
-7.000E-07,0.200
-6.900E-07,0.220
-6.800E-07,0.040
-6.700E-07,0.000
-6.600E-07,0.000
-6.500E-07,0.120
-6.400E-07,0.180
-6.300E-07,0.240
-6.200E-07,0.180
-6.100E-07,0.240
-6.000E-07,0.240
-5.900E-07,0.180
-5.800E-07,0.200
-5.700E-07,0.260
-5.600E-07,0.260
-5.500E-07,0.220
-5.400E-07,0.240
-5.300E-07,0.220
-5.200E-07,0.160
-5.100E-07,0.180
-5.000E-07,0.240
-4.900E-07,0.240
-4.800E-07,0.220
-4.700E-07,0.080
-4.600E-07,0.080
-4.500E-07,0.140
-4.400E-07,0.160
-4.300E-07,0.220
-4.200E-07,0.120
-4.100E-07,-0.020
-4.000E-07,-0.140
-3.900E-07,-0.120
-3.800E-07,0.000
-3.700E-07,0.220
-3.600E-07,0.200
-3.500E-07,0.160
-3.400E-07,0.100
-3.300E-07,0.000
-3.200E-07,0.120
-3.100E-07,0.260
-3.000E-07,0.400
-2.900E-07,0.540
-2.800E-07,0.480
-2.700E-07,0.220
-2.600E-07,0.300
-2.500E-07,0.220
-2.400E-07,0.200
-2.300E-07,0.080
-2.200E-07,-0.140
-2.100E-07,-0.200
-2.000E-07,-0.140
-1.900E-07,-0.040
-1.800E-07,0.080
-1.700E-07,0.100
-1.600E-07,0.100
-1.500E-07,0.220
-1.400E-07,0.320
-1.300E-07,0.580
-1.200E-07,0.740
-1.100E-07,0.660
-1.000E-07,0.560
-9.000E-08,0.520
-8.000E-08,0.800
-7.000E-08,0.240
-6.000E-08,0.440
-5.000E-08,0.040
-4.000E-08,-0.480
-3.000E-08,0.160
-2.000E-08,0.820
-1.000E-08,2.020
0.000E+00,2.760
1.000E-08,2.760
2.000E-08,2.660
3.000E-08,1.780
4.000E-08,0.440
5.000E-08,-0.080
6.000E-08,-0.540
7.000E-08,-0.680
8.000E-08,-0.540
9.000E-08,-0.500
1.000E-07,-0.480
1.100E-07,-0.580
1.200E-07,-0.840
1.300E-07,-1.240
1.400E-07,-1.860
1.500E-07,-2.240
1.600E-07,-2.340
1.700E-07,-2.200
1.800E-07,-1.600
1.900E-07,-1.180
2.000E-07,-0.980
2.100E-07,-1.000
2.200E-07,-1.240
2.300E-07,-1.280
2.400E-07,-0.900
2.500E-07,-0.360
2.600E-07,0.380
2.700E-07,1.040
2.800E-07,1.460
2.900E-07,1.680
3.000E-07,1.720
3.100E-07,1.740
3.200E-07,1.660
3.300E-07,1.520
3.400E-07,1.440
3.500E-07,1.400
3.600E-07,1.480
3.700E-07,1.420
3.800E-07,0.140
3.900E-07,-0.640
4.000E-07,0.000
4.100E-07,0.360
4.200E-07,2.740
4.300E-07,2.760
4.400E-07,2.760
4.500E-07,2.760
4.600E-07,2.760
4.700E-07,1.040
4.800E-07,0.000
4.900E-07,-0.780
5.000E-07,-0.440
5.100E-07,-0.400
5.200E-07,-0.380
5.300E-07,-0.780
5.400E-07,-1.160
5.500E-07,-1.660
5.600E-07,-1.560
5.700E-07,-1.340
5.800E-07,-0.840
5.900E-07,-0.340
6.000E-07,-0.040
6.100E-07,0.100
6.200E-07,0.020
6.300E-07,0.020
6.400E-07,-0.040
6.500E-07,0.120
6.600E-07,0.240
6.700E-07,0.420
6.800E-07,0.340
6.900E-07,0.320
7.000E-07,0.320
7.100E-07,0.540
7.200E-07,0.840
7.300E-07,1.080
7.400E-07,1.200
7.500E-07,1.120
7.600E-07,0.680
7.700E-07,-0.020
7.800E-07,-0.760
7.900E-07,-1.600
8.000E-07,-2.460
8.100E-07,-2.480
8.200E-07,-2.420
8.300E-07,-1.680
8.400E-07,-0.720
8.500E-07,0.560
8.600E-07,1.600
8.700E-07,2.580
8.800E-07,2.740
8.900E-07,2.760
9.000E-07,2.780
9.100E-07,2.780
9.200E-07,2.160
9.300E-07,1.440
9.400E-07,0.460
9.500E-07,-0.260
9.600E-07,-0.560
9.700E-07,-0.340
9.800E-07,0.360
9.900E-07,1.180
1.000E-06,1.960
1.010E-06,2.520
1.020E-06,2.760
1.030E-06,2.740
1.040E-06,2.760
1.050E-06,2.760
1.060E-06,2.640
1.070E-06,2.160
1.080E-06,1.520
1.090E-06,0.640
1.100E-06,-0.240
1.110E-06,-1.000
1.120E-06,-1.560
1.130E-06,-1.740
1.140E-06,-1.320
1.150E-06,-0.660
1.160E-06,0.200
1.170E-06,0.940
1.180E-06,1.360
1.190E-06,1.520
1.200E-06,1.400
1.210E-06,1.100
1.220E-06,0.640
1.230E-06,-0.060
1.240E-06,-0.840
1.250E-06,-1.580
1.260E-06,-2.080
1.270E-06,-2.060
1.280E-06,-1.400
1.290E-06,-0.280
1.300E-06,1.020
1.310E-06,2.140
1.320E-06,2.700
1.330E-06,2.780
1.340E-06,2.760
1.350E-06,2.780
1.360E-06,2.720
1.370E-06,2.480
1.380E-06,2.080
1.390E-06,1.600
1.400E-06,1.100
1.410E-06,0.640
1.420E-06,0.260
1.430E-06,0.020
1.440E-06,-0.280
1.450E-06,-0.640
1.460E-06,-1.060
1.470E-06,-1.360
1.480E-06,-1.540
1.490E-06,-1.360
1.500E-06,-0.920
1.510E-06,-0.160
1.520E-06,0.560
1.530E-06,1.160
1.540E-06,1.520
1.550E-06,1.620
1.560E-06,1.460
1.570E-06,1.200
1.580E-06,0.860
1.590E-06,0.600
1.600E-06,0.400
1.610E-06,0.320
1.620E-06,0.320
1.630E-06,0.280
1.640E-06,0.000
1.650E-06,-0.560
1.660E-06,-1.360
1.670E-06,-1.860
1.680E-06,-2.140
1.690E-06,-2.080
1.700E-06,-1.600
1.710E-06,-0.740
1.720E-06,0.220
1.730E-06,0.920
1.740E-06,1.180
1.750E-06,0.820
1.760E-06,-0.260
1.770E-06,-1.700
1.780E-06,-2.660
1.790E-06,-2.660
1.800E-06,-2.660
1.810E-06,-2.660
1.820E-06,-2.680
1.830E-06,-2.660
1.840E-06,-2.660
1.850E-06,-2.240
1.860E-06,0.400
1.870E-06,2.780
1.880E-06,2.780
1.890E-06,2.760
1.900E-06,2.780
1.910E-06,2.760
1.920E-06,2.740
1.930E-06,2.760
1.940E-06,2.780
1.950E-06,2.760
1.960E-06,2.740
1.970E-06,2.760
1.980E-06,1.900
1.990E-06,0.820
2.000E-06,-0.140
2.010E-06,-0.760
2.020E-06,-0.880
2.030E-06,-0.820
2.040E-06,-0.640
2.050E-06,-0.340
2.060E-06,0.020
2.070E-06,0.360
2.080E-06,0.700
2.090E-06,0.880
2.100E-06,1.020
2.110E-06,0.940
2.120E-06,0.660
2.130E-06,0.360
2.140E-06,0.020
2.150E-06,-0.360
2.160E-06,-0.720
2.170E-06,-0.940
2.180E-06,-1.100
2.190E-06,-1.160
2.200E-06,-1.200
2.210E-06,-1.200
2.220E-06,-1.200
2.230E-06,-1.060
2.240E-06,-0.920
2.250E-06,-0.760
2.260E-06,-0.600
2.270E-06,-0.520
2.280E-06,-0.440
2.290E-06,-0.360
2.300E-06,-0.340
2.310E-06,-0.160
2.320E-06,0.020
2.330E-06,0.280
2.340E-06,0.420
2.350E-06,0.540
2.360E-06,0.600
2.370E-06,0.540
2.380E-06,0.520
2.390E-06,0.420
2.400E-06,0.420
2.410E-06,0.400
2.420E-06,0.440
2.430E-06,0.500
2.440E-06,0.540
2.450E-06,0.620
2.460E-06,0.660
2.470E-06,0.680
2.480E-06,0.660
2.490E-06,0.600
2.500E-06,0.480
2.510E-06,0.340
2.520E-06,0.200
2.530E-06,0.040
2.540E-06,-0.120
2.550E-06,-0.260
2.560E-06,-0.360
2.570E-06,-0.460
2.580E-06,-0.520
2.590E-06,-0.560
2.600E-06,-0.540
2.610E-06,-0.520
2.620E-06,-0.360
2.630E-06,-0.240
2.640E-06,-0.080
2.650E-06,0.060
2.660E-06,0.200
2.670E-06,0.380
2.680E-06,0.540
2.690E-06,0.680
2.700E-06,0.860
2.710E-06,0.940
2.720E-06,0.920
2.730E-06,0.880
2.740E-06,0.720
2.750E-06,0.500
2.760E-06,0.240
2.770E-06,0.000
2.780E-06,-0.240
2.790E-06,-0.400
2.800E-06,-0.520
2.810E-06,-0.560
2.820E-06,-0.600
2.830E-06,-0.500
2.840E-06,-0.440
2.850E-06,-0.300
2.860E-06,-0.160
2.870E-06,-0.060
2.880E-06,0.040
2.890E-06,0.100
2.900E-06,0.200
2.910E-06,0.240
2.920E-06,0.220
2.930E-06,0.200
2.940E-06,0.140
2.950E-06,0.080
2.960E-06,0.000
2.970E-06,-0.100
2.980E-06,-0.240
2.990E-06,-0.340
3.000E-06,-0.460
3.010E-06,-0.520
3.020E-06,-0.560
3.030E-06,-0.500
3.040E-06,-0.400
3.050E-06,-0.320
3.060E-06,-0.260
3.070E-06,-0.180
3.080E-06,-0.080
3.090E-06,0.000
3.100E-06,0.120
3.110E-06,0.200
3.120E-06,0.260
3.130E-06,0.280
3.140E-06,0.300
3.150E-06,0.260
3.160E-06,0.220
3.170E-06,0.200
3.180E-06,0.140
3.190E-06,0.080
3.200E-06,0.080
3.210E-06,0.120
3.220E-06,0.160
3.230E-06,0.200
3.240E-06,0.160
3.250E-06,0.140
3.260E-06,0.100
3.270E-06,0.060
3.280E-06,0.080
3.290E-06,0.060
3.300E-06,0.100
3.310E-06,0.180
3.320E-06,0.240
3.330E-06,0.380
3.340E-06,0.500
3.350E-06,0.600
3.360E-06,0.740
3.370E-06,0.800
3.380E-06,0.860
3.390E-06,0.820
3.400E-06,0.760
3.410E-06,0.680
3.420E-06,0.580
3.430E-06,0.500
3.440E-06,0.380
3.450E-06,0.220
3.460E-06,0.100
3.470E-06,0.080
3.480E-06,0.000
3.490E-06,-0.020
3.500E-06,-0.160
3.510E-06,-0.260
3.520E-06,-0.260
3.530E-06,-0.160
3.540E-06,-0.080
3.550E-06,-0.060
3.560E-06,-0.060
3.570E-06,0.000
