mediciones/Mediciones filtradas (saque las feas)/5-15/12.6/WaveData4758.csv

#timebase=2000000(ps)
,#voltbase=100000(mv/100)
#size=4000
-8.400E-06,0.040
-8.390E-06,0.032
-8.380E-06,0.012
-8.370E-06,-0.008
-8.360E-06,-0.024
-8.350E-06,-0.020
-8.340E-06,-0.004
-8.330E-06,0.020
-8.320E-06,0.044
-8.310E-06,0.044
-8.300E-06,0.016
-8.290E-06,-0.020
-8.280E-06,-0.040
-8.270E-06,-0.048
-8.260E-06,-0.016
-8.250E-06,0.024
-8.240E-06,0.048
-8.230E-06,0.024
-8.220E-06,-0.004
-8.210E-06,-0.020
-8.200E-06,-0.028
-8.190E-06,-0.008
-8.180E-06,0.016
-8.170E-06,0.020
-8.160E-06,0.020
-8.150E-06,0.008
-8.140E-06,-0.004
-8.130E-06,-0.004
-8.120E-06,-0.004
-8.110E-06,0.000
-8.100E-06,0.004
-8.090E-06,0.012
-8.080E-06,0.012
-8.070E-06,0.008
-8.060E-06,0.000
-8.050E-06,-0.004
-8.040E-06,-0.004
-8.030E-06,0.000
-8.020E-06,0.008
-8.010E-06,0.012
-8.000E-06,0.012
-7.990E-06,0.004
-7.980E-06,0.000
-7.970E-06,-0.008
-7.960E-06,-0.008
-7.950E-06,0.000
-7.940E-06,0.004
-7.930E-06,0.016
-7.920E-06,0.016
-7.910E-06,0.012
-7.900E-06,0.000
-7.890E-06,-0.012
-7.880E-06,-0.004
-7.870E-06,0.000
-7.860E-06,0.008
-7.850E-06,0.020
-7.840E-06,0.020
-7.830E-06,0.012
-7.820E-06,0.000
-7.810E-06,-0.004
-7.800E-06,-0.004
-7.790E-06,-0.004
-7.780E-06,0.008
-7.770E-06,0.012
-7.760E-06,0.012
-7.750E-06,0.012
-7.740E-06,0.008
-7.730E-06,0.000
-7.720E-06,-0.004
-7.710E-06,-0.004
-7.700E-06,0.004
-7.690E-06,0.008
-7.680E-06,0.012
-7.670E-06,0.016
-7.660E-06,0.008
-7.650E-06,0.000
-7.640E-06,-0.004
-7.630E-06,0.004
-7.620E-06,0.008
-7.610E-06,0.012
-7.600E-06,0.020
-7.590E-06,0.004
-7.580E-06,-0.004
-7.570E-06,-0.016
-7.560E-06,-0.016
-7.550E-06,-0.008
-7.540E-06,-0.012
-7.530E-06,-0.012
-7.520E-06,-0.028
-7.510E-06,-0.016
-7.500E-06,0.008
-7.490E-06,0.028
-7.480E-06,0.032
-7.470E-06,0.028
-7.460E-06,0.004
-7.450E-06,-0.024
-7.440E-06,-0.040
-7.430E-06,-0.028
-7.420E-06,0.008
-7.410E-06,0.032
-7.400E-06,0.044
-7.390E-06,0.016
-7.380E-06,-0.032
-7.370E-06,-0.056
-7.360E-06,-0.024
-7.350E-06,0.000
-7.340E-06,0.036
-7.330E-06,0.036
-7.320E-06,0.020
-7.310E-06,0.000
-7.300E-06,-0.020
-7.290E-06,-0.028
-7.280E-06,-0.012
-7.270E-06,0.012
-7.260E-06,0.024
-7.250E-06,0.032
-7.240E-06,0.020
-7.230E-06,0.000
-7.220E-06,-0.012
-7.210E-06,-0.016
-7.200E-06,-0.012
-7.190E-06,0.004
-7.180E-06,0.020
-7.170E-06,0.028
-7.160E-06,0.028
-7.150E-06,0.036
-7.140E-06,0.000
-7.130E-06,-0.036
-7.120E-06,-0.040
-7.110E-06,-0.024
-7.100E-06,0.008
-7.090E-06,0.056
-7.080E-06,0.060
-7.070E-06,0.020
-7.060E-06,-0.016
-7.050E-06,-0.036
-7.040E-06,-0.028
-7.030E-06,0.000
-7.020E-06,0.020
-7.010E-06,0.032
-7.000E-06,0.024
-6.990E-06,0.008
-6.980E-06,-0.012
-6.970E-06,-0.020
-6.960E-06,0.000
-6.950E-06,0.004
-6.940E-06,0.020
-6.930E-06,0.016
-6.920E-06,0.016
-6.910E-06,0.008
-6.900E-06,0.000
-6.890E-06,0.000
-6.880E-06,-0.008
-6.870E-06,-0.008
-6.860E-06,-0.004
-6.850E-06,0.004
-6.840E-06,0.020
-6.830E-06,0.004
-6.820E-06,0.012
-6.810E-06,0.008
-6.800E-06,-0.012
-6.790E-06,-0.004
-6.780E-06,-0.028
-6.770E-06,0.004
-6.760E-06,0.008
-6.750E-06,0.020
-6.740E-06,0.020
-6.730E-06,0.028
-6.720E-06,0.008
-6.710E-06,-0.028
-6.700E-06,-0.032
-6.690E-06,-0.012
-6.680E-06,0.020
-6.670E-06,0.044
-6.660E-06,0.044
-6.650E-06,0.028
-6.640E-06,-0.060
-6.630E-06,-0.064
-6.620E-06,-0.044
-6.610E-06,-0.008
-6.600E-06,0.032
-6.590E-06,0.092
-6.580E-06,0.080
-6.570E-06,-0.008
-6.560E-06,-0.076
-6.550E-06,-0.092
-6.540E-06,-0.036
-6.530E-06,0.032
-6.520E-06,0.092
-6.510E-06,0.068
-6.500E-06,0.016
-6.490E-06,-0.036
-6.480E-06,-0.052
-6.470E-06,-0.036
-6.460E-06,0.008
-6.450E-06,0.048
-6.440E-06,0.060
-6.430E-06,0.028
-6.420E-06,-0.024
-6.410E-06,-0.044
-6.400E-06,-0.040
-6.390E-06,-0.020
-6.380E-06,0.020
-6.370E-06,0.056
-6.360E-06,0.048
-6.350E-06,0.032
-6.340E-06,-0.008
-6.330E-06,-0.024
-6.320E-06,-0.024
-6.310E-06,0.000
-6.300E-06,0.024
-6.290E-06,0.024
-6.280E-06,0.020
-6.270E-06,0.004
-6.260E-06,-0.008
-6.250E-06,-0.008
-6.240E-06,0.000
-6.230E-06,0.012
-6.220E-06,0.008
-6.210E-06,0.016
-6.200E-06,0.024
-6.190E-06,0.028
-6.180E-06,0.012
-6.170E-06,-0.012
-6.160E-06,-0.032
-6.150E-06,-0.028
-6.140E-06,0.004
-6.130E-06,0.040
-6.120E-06,0.052
-6.110E-06,0.024
-6.100E-06,-0.004
-6.090E-06,-0.008
-6.080E-06,-0.008
-6.070E-06,0.020
-6.060E-06,0.040
-6.050E-06,0.024
-6.040E-06,-0.008
-6.030E-06,-0.020
-6.020E-06,-0.036
-6.010E-06,-0.004
-6.000E-06,0.032
-5.990E-06,0.048
-5.980E-06,0.032
-5.970E-06,0.004
-5.960E-06,-0.016
-5.950E-06,-0.028
-5.940E-06,0.008
-5.930E-06,0.028
-5.920E-06,0.044
-5.910E-06,0.028
-5.900E-06,-0.024
-5.890E-06,-0.092
-5.880E-06,-0.060
-5.870E-06,0.008
-5.860E-06,0.064
-5.850E-06,0.088
-5.840E-06,0.064
-5.830E-06,0.012
-5.820E-06,-0.048
-5.810E-06,-0.044
-5.800E-06,-0.016
-5.790E-06,0.008
-5.780E-06,0.052
-5.770E-06,0.048
-5.760E-06,0.000
-5.750E-06,-0.040
-5.740E-06,-0.092
-5.730E-06,-0.080
-5.720E-06,-0.028
-5.710E-06,0.044
-5.700E-06,0.104
-5.690E-06,0.096
-5.680E-06,0.036
-5.670E-06,-0.028
-5.660E-06,-0.064
-5.650E-06,-0.072
-5.640E-06,-0.012
-5.630E-06,0.056
-5.620E-06,0.096
-5.610E-06,0.088
-5.600E-06,0.040
-5.590E-06,-0.060
-5.580E-06,-0.140
-5.570E-06,-0.140
-5.560E-06,-0.040
-5.550E-06,0.080
-5.540E-06,0.140
-5.530E-06,0.136
-5.520E-06,0.056
-5.510E-06,-0.020
-5.500E-06,-0.104
-5.490E-06,-0.096
-5.480E-06,-0.036
-5.470E-06,0.056
-5.460E-06,0.124
-5.450E-06,0.124
-5.440E-06,0.048
-5.430E-06,-0.032
-5.420E-06,-0.076
-5.410E-06,-0.084
-5.400E-06,-0.012
-5.390E-06,0.020
-5.380E-06,0.064
-5.370E-06,0.020
-5.360E-06,0.004
-5.350E-06,-0.016
-5.340E-06,0.004
-5.330E-06,-0.016
-5.320E-06,0.052
-5.310E-06,0.032
-5.300E-06,-0.028
-5.290E-06,0.012
-5.280E-06,-0.020
-5.270E-06,0.032
-5.260E-06,0.104
-5.250E-06,0.072
-5.240E-06,-0.060
-5.230E-06,-0.028
-5.220E-06,0.020
-5.210E-06,0.040
-5.200E-06,0.028
-5.190E-06,0.060
-5.180E-06,0.028
-5.170E-06,0.012
-5.160E-06,0.028
-5.150E-06,0.012
-5.140E-06,-0.056
-5.130E-06,-0.188
-5.120E-06,-0.216
-5.110E-06,-0.212
-5.100E-06,-0.064
-5.090E-06,0.088
-5.080E-06,0.244
-5.070E-06,0.296
-5.060E-06,0.192
-5.050E-06,-0.016
-5.040E-06,-0.176
-5.030E-06,-0.184
-5.020E-06,-0.104
-5.010E-06,0.020
-5.000E-06,0.108
-4.990E-06,0.140
-4.980E-06,0.056
-4.970E-06,-0.036
-4.960E-06,-0.088
-4.950E-06,-0.052
-4.940E-06,0.036
-4.930E-06,0.124
-4.920E-06,0.144
-4.910E-06,0.104
-4.900E-06,0.044
-4.890E-06,-0.060
-4.880E-06,-0.128
-4.870E-06,-0.160
-4.860E-06,-0.092
-4.850E-06,0.016
-4.840E-06,0.140
-4.830E-06,0.112
-4.820E-06,0.024
-4.810E-06,-0.068
-4.800E-06,-0.128
-4.790E-06,-0.068
-4.780E-06,0.016
-4.770E-06,0.124
-4.760E-06,0.140
-4.750E-06,0.024
-4.740E-06,-0.144
-4.730E-06,-0.196
-4.720E-06,-0.112
-4.710E-06,0.000
-4.700E-06,0.148
-4.690E-06,0.180
-4.680E-06,0.160
-4.670E-06,0.056
-4.660E-06,-0.036
-4.650E-06,-0.136
-4.640E-06,-0.240
-4.630E-06,-0.220
-4.620E-06,-0.168
-4.610E-06,-0.008
-4.600E-06,0.240
-4.590E-06,0.372
-4.580E-06,0.288
-4.570E-06,0.056
-4.560E-06,-0.156
-4.550E-06,-0.284
-4.540E-06,-0.220
-4.530E-06,-0.224
-4.520E-06,-0.124
-4.510E-06,0.084
-4.500E-06,0.256
-4.490E-06,0.176
-4.480E-06,0.124
-4.470E-06,-0.012
-4.460E-06,-0.128
-4.450E-06,-0.164
-4.440E-06,-0.140
-4.430E-06,0.012
-4.420E-06,0.152
-4.410E-06,0.204
-4.400E-06,0.108
-4.390E-06,-0.020
-4.380E-06,-0.168
-4.370E-06,-0.172
-4.360E-06,-0.076
-4.350E-06,0.068
-4.340E-06,0.156
-4.330E-06,0.152
-4.320E-06,0.072
-4.310E-06,-0.032
-4.300E-06,-0.104
-4.290E-06,-0.128
-4.280E-06,-0.064
-4.270E-06,0.028
-4.260E-06,0.120
-4.250E-06,0.132
-4.240E-06,0.092
-4.230E-06,0.008
-4.220E-06,-0.064
-4.210E-06,-0.092
-4.200E-06,-0.064
-4.190E-06,0.004
-4.180E-06,0.072
-4.170E-06,0.108
-4.160E-06,0.084
-4.150E-06,0.028
-4.140E-06,-0.036
-4.130E-06,-0.068
-4.120E-06,-0.036
-4.110E-06,0.024
-4.100E-06,0.060
-4.090E-06,0.084
-4.080E-06,0.076
-4.070E-06,0.028
-4.060E-06,-0.008
-4.050E-06,-0.040
-4.040E-06,-0.036
-4.030E-06,0.008
-4.020E-06,0.056
-4.010E-06,0.088
-4.000E-06,0.092
-3.990E-06,0.060
-3.980E-06,0.016
-3.970E-06,-0.004
-3.960E-06,-0.004
-3.950E-06,0.012
-3.940E-06,0.044
-3.930E-06,0.064
-3.920E-06,0.056
-3.910E-06,0.016
-3.900E-06,-0.008
-3.890E-06,-0.028
-3.880E-06,-0.160
-3.870E-06,-0.372
-3.860E-06,-0.352
-3.850E-06,-0.136
-3.840E-06,0.168
-3.830E-06,0.296
-3.820E-06,0.416
-3.810E-06,0.236
-3.800E-06,-0.048
-3.790E-06,-0.272
-3.780E-06,-0.304
-3.770E-06,-0.096
-3.760E-06,0.148
-3.750E-06,0.292
-3.740E-06,0.228
-3.730E-06,0.024
-3.720E-06,-0.280
-3.710E-06,-0.328
-3.700E-06,-0.204
-3.690E-06,0.040
-3.680E-06,0.220
-3.670E-06,0.292
-3.660E-06,0.196
-3.650E-06,0.032
-3.640E-06,-0.100
-3.630E-06,-0.172
-3.620E-06,-0.080
-3.610E-06,0.020
-3.600E-06,0.152
-3.590E-06,0.144
-3.580E-06,0.028
-3.570E-06,-0.168
-3.560E-06,-0.216
-3.550E-06,-0.156
-3.540E-06,-0.024
-3.530E-06,0.120
-3.520E-06,0.188
-3.510E-06,0.156
-3.500E-06,0.040
-3.490E-06,-0.072
-3.480E-06,-0.144
-3.470E-06,-0.112
-3.460E-06,-0.004
-3.450E-06,0.124
-3.440E-06,0.192
-3.430E-06,0.136
-3.420E-06,0.044
-3.410E-06,-0.088
-3.400E-06,-0.096
-3.390E-06,-0.072
-3.380E-06,0.032
-3.370E-06,0.080
-3.360E-06,0.064
-3.350E-06,0.036
-3.340E-06,0.000
-3.330E-06,-0.100
-3.320E-06,-0.200
-3.310E-06,-0.176
-3.300E-06,-0.108
-3.290E-06,-0.056
-3.280E-06,-0.068
-3.270E-06,0.004
-3.260E-06,0.156
-3.250E-06,0.220
-3.240E-06,0.152
-3.230E-06,-0.052
-3.220E-06,-0.156
-3.210E-06,-0.088
-3.200E-06,0.068
-3.190E-06,0.212
-3.180E-06,0.188
-3.170E-06,0.028
-3.160E-06,-0.132
-3.150E-06,-0.160
-3.140E-06,-0.092
-3.130E-06,0.032
-3.120E-06,0.100
-3.110E-06,0.060
-3.100E-06,-0.096
-3.090E-06,-0.180
-3.080E-06,-0.124
-3.070E-06,-0.020
-3.060E-06,0.128
-3.050E-06,0.148
-3.040E-06,0.132
-3.030E-06,0.088
-3.020E-06,0.024
-3.010E-06,-0.048
-3.000E-06,-0.152
-2.990E-06,-0.188
-2.980E-06,-0.132
-2.970E-06,0.028
-2.960E-06,0.140
-2.950E-06,0.232
-2.940E-06,0.168
-2.930E-06,0.044
-2.920E-06,-0.128
-2.910E-06,-0.188
-2.900E-06,-0.144
-2.890E-06,-0.004
-2.880E-06,0.124
-2.870E-06,0.204
-2.860E-06,0.196
-2.850E-06,0.020
-2.840E-06,-0.144
-2.830E-06,-0.200
-2.820E-06,-0.124
-2.810E-06,-0.012
-2.800E-06,0.108
-2.790E-06,0.140
-2.780E-06,0.120
-2.770E-06,0.048
-2.760E-06,-0.040
-2.750E-06,-0.092
-2.740E-06,-0.108
-2.730E-06,-0.092
-2.720E-06,-0.032
-2.710E-06,0.068
-2.700E-06,0.128
-2.690E-06,0.132
-2.680E-06,0.064
-2.670E-06,0.000
-2.660E-06,-0.060
-2.650E-06,-0.060
-2.640E-06,-0.004
-2.630E-06,0.048
-2.620E-06,0.072
-2.610E-06,0.044
-2.600E-06,0.028
-2.590E-06,-0.008
-2.580E-06,-0.024
-2.570E-06,-0.028
-2.560E-06,0.008
-2.550E-06,0.052
-2.540E-06,0.060
-2.530E-06,0.052
-2.520E-06,0.044
-2.510E-06,0.020
-2.500E-06,-0.016
-2.490E-06,-0.028
-2.480E-06,-0.036
-2.470E-06,-0.024
-2.460E-06,0.020
-2.450E-06,0.044
-2.440E-06,0.068
-2.430E-06,0.064
-2.420E-06,0.032
-2.410E-06,-0.016
-2.400E-06,-0.036
-2.390E-06,-0.124
-2.380E-06,-0.216
-2.370E-06,-0.300
-2.360E-06,-0.176
-2.350E-06,0.096
-2.340E-06,0.284
-2.330E-06,0.332
-2.320E-06,0.104
-2.310E-06,-0.128
-2.300E-06,-0.236
-2.290E-06,-0.156
-2.280E-06,0.044
-2.270E-06,0.192
-2.260E-06,0.208
-2.250E-06,0.128
-2.240E-06,0.020
-2.230E-06,-0.088
-2.220E-06,-0.084
-2.210E-06,-0.012
-2.200E-06,0.088
-2.190E-06,0.124
-2.180E-06,0.096
-2.170E-06,0.020
-2.160E-06,-0.032
-2.150E-06,-0.060
-2.140E-06,-0.032
-2.130E-06,0.044
-2.120E-06,0.124
-2.110E-06,0.160
-2.100E-06,0.112
-2.090E-06,-0.004
-2.080E-06,-0.156
-2.070E-06,-0.204
-2.060E-06,-0.152
-2.050E-06,-0.036
-2.040E-06,0.096
-2.030E-06,0.168
-2.020E-06,0.148
-2.010E-06,0.048
-2.000E-06,-0.140
-1.990E-06,-0.260
-1.980E-06,-0.256
-1.970E-06,-0.156
-1.960E-06,0.020
-1.950E-06,0.204
-1.940E-06,0.252
-1.930E-06,0.084
-1.920E-06,-0.088
-1.910E-06,-0.232
-1.900E-06,-0.232
-1.890E-06,-0.140
-1.880E-06,0.020
-1.870E-06,0.124
-1.860E-06,0.112
-1.850E-06,0.044
-1.840E-06,-0.052
-1.830E-06,-0.092
-1.820E-06,-0.096
-1.810E-06,-0.024
-1.800E-06,0.032
-1.790E-06,0.072
-1.780E-06,0.076
-1.770E-06,0.060
-1.760E-06,0.024
-1.750E-06,-0.016
-1.740E-06,-0.040
-1.730E-06,-0.028
-1.720E-06,-0.008
-1.710E-06,-0.036
-1.700E-06,-0.048
-1.690E-06,-0.036
-1.680E-06,0.000
-1.670E-06,0.024
-1.660E-06,0.048
-1.650E-06,0.040
-1.640E-06,0.008
-1.630E-06,-0.020
-1.620E-06,-0.040
-1.610E-06,-0.036
-1.600E-06,0.008
-1.590E-06,0.052
-1.580E-06,0.072
-1.570E-06,0.060
-1.560E-06,0.012
-1.550E-06,-0.036
-1.540E-06,-0.056
-1.530E-06,-0.040
-1.520E-06,0.004
-1.510E-06,0.064
-1.500E-06,0.092
-1.490E-06,0.076
-1.480E-06,0.028
-1.470E-06,-0.028
-1.460E-06,-0.056
-1.450E-06,-0.048
-1.440E-06,0.004
-1.430E-06,0.056
-1.420E-06,0.100
-1.410E-06,0.084
-1.400E-06,0.036
-1.390E-06,-0.020
-1.380E-06,-0.064
-1.370E-06,-0.076
-1.360E-06,-0.020
-1.350E-06,0.028
-1.340E-06,0.072
-1.330E-06,0.088
-1.320E-06,0.052
-1.310E-06,0.000
-1.300E-06,-0.040
-1.290E-06,-0.060
-1.280E-06,-0.024
-1.270E-06,0.040
-1.260E-06,0.088
-1.250E-06,0.092
-1.240E-06,0.052
-1.230E-06,0.000
-1.220E-06,-0.032
-1.210E-06,-0.024
-1.200E-06,0.012
-1.190E-06,0.048
-1.180E-06,0.092
-1.170E-06,0.100
-1.160E-06,0.076
-1.150E-06,0.032
-1.140E-06,0.000
-1.130E-06,-0.004
-1.120E-06,0.024
-1.110E-06,0.076
-1.100E-06,0.124
-1.090E-06,0.124
-1.080E-06,0.080
-1.070E-06,0.036
-1.060E-06,0.012
-1.050E-06,0.008
-1.040E-06,0.020
-1.030E-06,0.044
-1.020E-06,0.044
-1.010E-06,0.024
-1.000E-06,-0.012
-9.900E-07,-0.064
-9.800E-07,-0.124
-9.700E-07,-0.164
-9.600E-07,-0.144
-9.500E-07,-0.036
-9.400E-07,0.108
-9.300E-07,0.140
-9.200E-07,-0.076
-9.100E-07,-0.408
-9.000E-07,-0.512
-8.900E-07,-0.336
-8.800E-07,-0.008
-8.700E-07,0.340
-8.600E-07,0.472
-8.500E-07,0.236
-8.400E-07,-0.072
-8.300E-07,-0.324
-8.200E-07,-0.280
-8.100E-07,-0.092
-8.000E-07,0.128
-7.900E-07,0.200
-7.800E-07,0.176
-7.700E-07,0.048
-7.600E-07,-0.044
-7.500E-07,-0.080
-7.400E-07,-0.068
-7.300E-07,-0.020
-7.200E-07,0.008
-7.100E-07,0.068
-7.000E-07,0.076
-6.900E-07,0.076
-6.800E-07,0.024
-6.700E-07,-0.008
-6.600E-07,-0.028
-6.500E-07,0.012
-6.400E-07,0.048
-6.300E-07,0.064
-6.200E-07,0.028
-6.100E-07,-0.004
-6.000E-07,-0.016
-5.900E-07,0.004
-5.800E-07,0.044
-5.700E-07,0.048
-5.600E-07,0.040
-5.500E-07,0.008
-5.400E-07,-0.004
-5.300E-07,-0.008
-5.200E-07,0.000
-5.100E-07,0.040
-5.000E-07,0.068
-4.900E-07,0.088
-4.800E-07,0.052
-4.700E-07,0.008
-4.600E-07,-0.028
-4.500E-07,-0.028
-4.400E-07,0.012
-4.300E-07,0.068
-4.200E-07,0.104
-4.100E-07,0.104
-4.000E-07,0.056
-3.900E-07,-0.064
-3.800E-07,-0.232
-3.700E-07,-0.332
-3.600E-07,-0.316
-3.500E-07,-0.164
-3.400E-07,0.088
-3.300E-07,0.276
-3.200E-07,0.220
-3.100E-07,0.008
-3.000E-07,-0.136
-2.900E-07,-0.184
-2.800E-07,-0.060
-2.700E-07,0.088
-2.600E-07,0.204
-2.500E-07,0.176
-2.400E-07,0.072
-2.300E-07,-0.064
-2.200E-07,-0.124
-2.100E-07,-0.072
-2.000E-07,0.008
-1.900E-07,0.120
-1.800E-07,0.172
-1.700E-07,0.176
-1.600E-07,0.104
-1.500E-07,0.040
-1.400E-07,-0.028
-1.300E-07,-0.036
-1.200E-07,-0.004
-1.100E-07,0.076
-1.000E-07,0.148
-9.000E-08,0.156
-8.000E-08,0.112
-7.000E-08,-0.184
-6.000E-08,-0.432
-5.000E-08,-0.508
-4.000E-08,-0.508
-3.000E-08,-0.064
-2.000E-08,0.384
-1.000E-08,0.540
0.000E+00,0.388
1.000E-08,0.080
2.000E-08,-0.192
3.000E-08,-0.340
4.000E-08,-0.208
5.000E-08,0.020
6.000E-08,0.192
7.000E-08,0.268
8.000E-08,0.248
9.000E-08,0.076
1.000E-07,-0.076
1.100E-07,-0.164
1.200E-07,-0.156
1.300E-07,-0.080
1.400E-07,0.024
1.500E-07,0.060
1.600E-07,0.068
1.700E-07,0.048
1.800E-07,-0.048
1.900E-07,-0.104
2.000E-07,-0.108
2.100E-07,-0.164
2.200E-07,-0.120
2.300E-07,0.008
2.400E-07,0.080
2.500E-07,0.076
2.600E-07,0.012
2.700E-07,-0.108
2.800E-07,-0.188
2.900E-07,-0.164
3.000E-07,-0.016
3.100E-07,0.108
3.200E-07,0.108
3.300E-07,0.048
3.400E-07,0.004
3.500E-07,0.012
3.600E-07,0.012
3.700E-07,0.004
3.800E-07,-0.040
3.900E-07,-0.064
4.000E-07,-0.040
4.100E-07,0.032
4.200E-07,0.100
4.300E-07,0.120
4.400E-07,0.072
4.500E-07,-0.008
4.600E-07,-0.076
4.700E-07,-0.100
4.800E-07,-0.052
4.900E-07,0.016
5.000E-07,0.084
5.100E-07,0.112
5.200E-07,0.104
5.300E-07,0.048
5.400E-07,-0.024
5.500E-07,-0.080
5.600E-07,-0.076
5.700E-07,-0.016
5.800E-07,0.072
5.900E-07,0.128
6.000E-07,0.124
6.100E-07,0.064
6.200E-07,-0.008
6.300E-07,-0.068
6.400E-07,-0.068
6.500E-07,-0.016
6.600E-07,0.056
6.700E-07,0.120
6.800E-07,0.132
6.900E-07,0.088
7.000E-07,0.016
7.100E-07,-0.056
7.200E-07,-0.068
7.300E-07,-0.032
7.400E-07,0.024
7.500E-07,0.096
7.600E-07,0.124
7.700E-07,0.088
7.800E-07,0.016
7.900E-07,-0.048
8.000E-07,-0.072
8.100E-07,-0.040
8.200E-07,0.028
8.300E-07,0.108
8.400E-07,0.136
8.500E-07,0.104
8.600E-07,0.044
8.700E-07,-0.004
8.800E-07,-0.024
8.900E-07,0.004
9.000E-07,0.056
9.100E-07,0.108
9.200E-07,0.132
9.300E-07,0.124
9.400E-07,0.080
9.500E-07,0.024
9.600E-07,-0.004
9.700E-07,0.000
9.800E-07,0.040
9.900E-07,0.088
1.000E-06,0.128
1.010E-06,0.124
1.020E-06,0.088
1.030E-06,0.028
1.040E-06,0.004
1.050E-06,0.000
1.060E-06,0.016
1.070E-06,0.040
1.080E-06,0.028
1.090E-06,0.000
1.100E-06,-0.056
1.110E-06,-0.096
1.120E-06,-0.068
1.130E-06,0.024
1.140E-06,0.100
1.150E-06,0.160
1.160E-06,0.152
1.170E-06,0.096
1.180E-06,0.012
1.190E-06,-0.036
1.200E-06,-0.020
1.210E-06,0.020
1.220E-06,0.092
1.230E-06,0.128
1.240E-06,0.128
1.250E-06,0.072
1.260E-06,0.004
1.270E-06,-0.124
1.280E-06,-0.292
1.290E-06,-0.400
1.300E-06,-0.512
1.310E-06,-0.488
1.320E-06,-0.244
1.330E-06,-0.184
1.340E-06,0.060
1.350E-06,0.312
1.360E-06,0.132
1.370E-06,-0.176
1.380E-06,-0.200
1.390E-06,-0.172
1.400E-06,-0.108
1.410E-06,0.072
1.420E-06,0.164
1.430E-06,0.192
1.440E-06,0.088
1.450E-06,-0.100
1.460E-06,-0.212
1.470E-06,-0.144
1.480E-06,-0.004
1.490E-06,0.160
1.500E-06,0.256
1.510E-06,0.180
1.520E-06,0.000
1.530E-06,-0.136
1.540E-06,-0.180
1.550E-06,-0.120
1.560E-06,0.040
1.570E-06,0.188
1.580E-06,0.224
1.590E-06,0.140
1.600E-06,0.012
1.610E-06,-0.100
1.620E-06,-0.132
1.630E-06,-0.076
1.640E-06,0.024
1.650E-06,0.132
1.660E-06,0.176
1.670E-06,0.124
1.680E-06,0.008
1.690E-06,-0.092
1.700E-06,-0.124
1.710E-06,-0.056
1.720E-06,0.060
1.730E-06,0.144
1.740E-06,0.152
1.750E-06,0.084
1.760E-06,-0.012
1.770E-06,-0.072
1.780E-06,-0.072
1.790E-06,-0.016
1.800E-06,0.072
1.810E-06,0.144
1.820E-06,0.148
1.830E-06,0.096
1.840E-06,0.016
1.850E-06,-0.036
1.860E-06,-0.028
1.870E-06,0.048
1.880E-06,0.132
1.890E-06,0.192
1.900E-06,0.192
1.910E-06,0.136
1.920E-06,0.056
1.930E-06,0.000
1.940E-06,-0.004
1.950E-06,0.048
1.960E-06,0.132
1.970E-06,0.180
1.980E-06,0.180
1.990E-06,0.128
2.000E-06,0.052
2.010E-06,0.000
2.020E-06,-0.008
2.030E-06,0.040
2.040E-06,0.096
2.050E-06,0.148
2.060E-06,0.160
2.070E-06,0.120
2.080E-06,0.060
2.090E-06,0.004
2.100E-06,-0.056
2.110E-06,-0.172
2.120E-06,-0.336
2.130E-06,-0.424
2.140E-06,-0.324
2.150E-06,-0.120
2.160E-06,0.160
2.170E-06,0.384
2.180E-06,0.372
2.190E-06,0.212
2.200E-06,-0.040
2.210E-06,-0.236
2.220E-06,-0.260
2.230E-06,-0.112
2.240E-06,0.072
2.250E-06,0.160
2.260E-06,-0.060
2.270E-06,-0.464
2.280E-06,-0.512
2.290E-06,-0.512
2.300E-06,-0.428
2.310E-06,0.128
2.320E-06,0.536
2.330E-06,0.540
2.340E-06,0.304
2.350E-06,-0.136
2.360E-06,-0.388
2.370E-06,-0.384
2.380E-06,-0.168
2.390E-06,0.132
2.400E-06,0.376
2.410E-06,0.424
2.420E-06,0.288
2.430E-06,0.024
2.440E-06,-0.272
2.450E-06,-0.408
2.460E-06,-0.372
2.470E-06,-0.148
2.480E-06,0.124
2.490E-06,0.324
2.500E-06,0.296
2.510E-06,0.096
2.520E-06,-0.136
2.530E-06,-0.300
2.540E-06,-0.280
2.550E-06,-0.124
2.560E-06,0.088
2.570E-06,0.220
2.580E-06,0.236
2.590E-06,0.132
2.600E-06,-0.008
2.610E-06,-0.136
2.620E-06,-0.188
2.630E-06,-0.148
2.640E-06,-0.016
2.650E-06,0.128
2.660E-06,0.212
2.670E-06,0.204
2.680E-06,0.100
2.690E-06,-0.028
2.700E-06,-0.124
2.710E-06,-0.136
2.720E-06,-0.064
2.730E-06,0.056
2.740E-06,0.160
2.750E-06,0.200
2.760E-06,0.156
2.770E-06,0.052
2.780E-06,-0.056
2.790E-06,-0.124
2.800E-06,-0.092
2.810E-06,-0.008
2.820E-06,0.104
2.830E-06,0.188
2.840E-06,0.188
2.850E-06,0.108
2.860E-06,0.000
2.870E-06,-0.080
2.880E-06,-0.088
2.890E-06,-0.036
2.900E-06,0.060
2.910E-06,0.144
2.920E-06,0.164
2.930E-06,0.120
2.940E-06,0.024
2.950E-06,-0.056
2.960E-06,-0.092
2.970E-06,-0.060
2.980E-06,0.024
2.990E-06,0.124
3.000E-06,0.156
3.010E-06,0.140
3.020E-06,0.084
3.030E-06,0.012
3.040E-06,-0.028
3.050E-06,-0.016
3.060E-06,0.036
3.070E-06,0.096
3.080E-06,0.140
3.090E-06,0.128
3.100E-06,0.040
3.110E-06,-0.064
3.120E-06,-0.168
3.130E-06,-0.216
3.140E-06,-0.172
3.150E-06,-0.040
3.160E-06,0.076
3.170E-06,0.124
3.180E-06,0.096
3.190E-06,0.012
3.200E-06,-0.084
3.210E-06,-0.124
3.220E-06,-0.052
