mediciones/Mediciones filtradas (saque las feas)/5-15/12.6/WaveData4754.csv

#timebase=2000000(ps)
,#voltbase=100000(mv/100)
#size=4000
-8.400E-06,-0.008
-8.390E-06,0.004
-8.380E-06,0.008
-8.370E-06,0.012
-8.360E-06,0.008
-8.350E-06,0.008
-8.340E-06,-0.004
-8.330E-06,-0.004
-8.320E-06,0.004
-8.310E-06,0.008
-8.300E-06,0.004
-8.290E-06,0.000
-8.280E-06,0.000
-8.270E-06,0.004
-8.260E-06,0.008
-8.250E-06,0.008
-8.240E-06,0.012
-8.230E-06,-0.004
-8.220E-06,0.000
-8.210E-06,-0.004
-8.200E-06,0.000
-8.190E-06,0.012
-8.180E-06,0.008
-8.170E-06,0.008
-8.160E-06,0.000
-8.150E-06,-0.004
-8.140E-06,0.000
-8.130E-06,0.008
-8.120E-06,0.008
-8.110E-06,0.008
-8.100E-06,0.008
-8.090E-06,-0.004
-8.080E-06,-0.004
-8.070E-06,-0.008
-8.060E-06,0.008
-8.050E-06,0.004
-8.040E-06,0.004
-8.030E-06,0.000
-8.020E-06,0.000
-8.010E-06,0.000
-8.000E-06,0.000
-7.990E-06,0.000
-7.980E-06,0.008
-7.970E-06,0.012
-7.960E-06,-0.004
-7.950E-06,0.004
-7.940E-06,0.008
-7.930E-06,0.008
-7.920E-06,0.004
-7.910E-06,0.000
-7.900E-06,0.000
-7.890E-06,0.000
-7.880E-06,0.004
-7.870E-06,0.012
-7.860E-06,0.004
-7.850E-06,0.008
-7.840E-06,0.008
-7.830E-06,0.000
-7.820E-06,-0.004
-7.810E-06,0.004
-7.800E-06,0.008
-7.790E-06,0.008
-7.780E-06,0.000
-7.770E-06,-0.004
-7.760E-06,-0.004
-7.750E-06,-0.004
-7.740E-06,0.004
-7.730E-06,0.012
-7.720E-06,0.012
-7.710E-06,0.004
-7.700E-06,-0.004
-7.690E-06,-0.004
-7.680E-06,-0.004
-7.670E-06,0.004
-7.660E-06,0.008
-7.650E-06,0.012
-7.640E-06,0.008
-7.630E-06,0.008
-7.620E-06,0.004
-7.610E-06,0.004
-7.600E-06,0.000
-7.590E-06,-0.004
-7.580E-06,0.000
-7.570E-06,0.004
-7.560E-06,0.012
-7.550E-06,0.012
-7.540E-06,0.012
-7.530E-06,0.004
-7.520E-06,-0.004
-7.510E-06,-0.004
-7.500E-06,0.000
-7.490E-06,0.000
-7.480E-06,0.008
-7.470E-06,0.008
-7.460E-06,0.004
-7.450E-06,0.000
-7.440E-06,0.004
-7.430E-06,0.000
-7.420E-06,0.000
-7.410E-06,0.004
-7.400E-06,0.000
-7.390E-06,0.004
-7.380E-06,0.008
-7.370E-06,0.004
-7.360E-06,0.004
-7.350E-06,0.000
-7.340E-06,0.000
-7.330E-06,0.000
-7.320E-06,-0.004
-7.310E-06,0.004
-7.300E-06,0.008
-7.290E-06,0.008
-7.280E-06,0.008
-7.270E-06,-0.004
-7.260E-06,0.000
-7.250E-06,-0.008
-7.240E-06,-0.004
-7.230E-06,0.004
-7.220E-06,0.008
-7.210E-06,0.012
-7.200E-06,0.004
-7.190E-06,0.000
-7.180E-06,-0.004
-7.170E-06,-0.004
-7.160E-06,0.000
-7.150E-06,0.008
-7.140E-06,0.008
-7.130E-06,0.012
-7.120E-06,0.012
-7.110E-06,0.008
-7.100E-06,0.004
-7.090E-06,-0.004
-7.080E-06,0.000
-7.070E-06,0.000
-7.060E-06,0.012
-7.050E-06,0.016
-7.040E-06,0.020
-7.030E-06,0.012
-7.020E-06,0.000
-7.010E-06,-0.004
-7.000E-06,0.004
-6.990E-06,0.012
-6.980E-06,0.024
-6.970E-06,0.020
-6.960E-06,0.020
-6.950E-06,0.008
-6.940E-06,0.000
-6.930E-06,0.000
-6.920E-06,0.004
-6.910E-06,0.008
-6.900E-06,0.028
-6.890E-06,0.032
-6.880E-06,0.032
-6.870E-06,0.012
-6.860E-06,-0.008
-6.850E-06,-0.024
-6.840E-06,-0.036
-6.830E-06,-0.024
-6.820E-06,0.000
-6.810E-06,0.028
-6.800E-06,0.040
-6.790E-06,0.044
-6.780E-06,0.008
-6.770E-06,-0.020
-6.760E-06,-0.016
-6.750E-06,-0.040
-6.740E-06,-0.028
-6.730E-06,-0.012
-6.720E-06,-0.004
-6.710E-06,-0.004
-6.700E-06,0.012
-6.690E-06,0.000
-6.680E-06,-0.028
-6.670E-06,-0.016
-6.660E-06,0.000
-6.650E-06,0.012
-6.640E-06,0.016
-6.630E-06,0.004
-6.620E-06,-0.016
-6.610E-06,-0.024
-6.600E-06,-0.008
-6.590E-06,0.008
-6.580E-06,0.016
-6.570E-06,0.008
-6.560E-06,0.004
-6.550E-06,-0.008
-6.540E-06,-0.004
-6.530E-06,0.000
-6.520E-06,0.008
-6.510E-06,0.008
-6.500E-06,0.020
-6.490E-06,0.012
-6.480E-06,0.008
-6.470E-06,0.004
-6.460E-06,0.000
-6.450E-06,-0.004
-6.440E-06,0.008
-6.430E-06,0.008
-6.420E-06,0.012
-6.410E-06,0.024
-6.400E-06,0.012
-6.390E-06,0.008
-6.380E-06,0.012
-6.370E-06,0.020
-6.360E-06,0.024
-6.350E-06,0.020
-6.340E-06,0.016
-6.330E-06,0.012
-6.320E-06,0.004
-6.310E-06,0.008
-6.300E-06,0.012
-6.290E-06,0.020
-6.280E-06,0.024
-6.270E-06,0.004
-6.260E-06,-0.020
-6.250E-06,-0.040
-6.240E-06,-0.028
-6.230E-06,-0.004
-6.220E-06,0.036
-6.210E-06,0.052
-6.200E-06,0.044
-6.190E-06,0.012
-6.180E-06,-0.084
-6.170E-06,-0.088
-6.160E-06,-0.056
-6.150E-06,0.012
-6.140E-06,0.064
-6.130E-06,0.060
-6.120E-06,0.024
-6.110E-06,-0.060
-6.100E-06,-0.072
-6.090E-06,-0.060
-6.080E-06,0.012
-6.070E-06,0.056
-6.060E-06,0.068
-6.050E-06,0.024
-6.040E-06,-0.016
-6.030E-06,-0.040
-6.020E-06,-0.040
-6.010E-06,-0.004
-6.000E-06,0.028
-5.990E-06,0.040
-5.980E-06,0.008
-5.970E-06,0.000
-5.960E-06,-0.016
-5.950E-06,-0.008
-5.940E-06,-0.004
-5.930E-06,0.008
-5.920E-06,0.016
-5.910E-06,0.016
-5.900E-06,0.008
-5.890E-06,0.000
-5.880E-06,-0.004
-5.870E-06,-0.004
-5.860E-06,-0.004
-5.850E-06,0.004
-5.840E-06,0.012
-5.830E-06,0.008
-5.820E-06,0.012
-5.810E-06,0.016
-5.800E-06,0.008
-5.790E-06,0.004
-5.780E-06,0.000
-5.770E-06,0.004
-5.760E-06,0.020
-5.750E-06,0.036
-5.740E-06,0.036
-5.730E-06,0.036
-5.720E-06,0.024
-5.710E-06,0.008
-5.700E-06,-0.008
-5.690E-06,-0.008
-5.680E-06,0.008
-5.670E-06,0.020
-5.660E-06,0.024
-5.650E-06,0.020
-5.640E-06,0.020
-5.630E-06,0.000
-5.620E-06,-0.004
-5.610E-06,0.008
-5.600E-06,-0.036
-5.590E-06,-0.040
-5.580E-06,-0.072
-5.570E-06,-0.080
-5.560E-06,0.036
-5.550E-06,0.128
-5.540E-06,0.072
-5.530E-06,-0.008
-5.520E-06,-0.104
-5.510E-06,-0.124
-5.500E-06,-0.084
-5.490E-06,0.012
-5.480E-06,0.108
-5.470E-06,0.120
-5.460E-06,0.044
-5.450E-06,-0.076
-5.440E-06,-0.136
-5.430E-06,-0.108
-5.420E-06,0.000
-5.410E-06,0.096
-5.400E-06,0.124
-5.390E-06,0.060
-5.380E-06,-0.028
-5.370E-06,-0.084
-5.360E-06,-0.088
-5.350E-06,-0.036
-5.340E-06,0.028
-5.330E-06,0.076
-5.320E-06,0.076
-5.310E-06,0.044
-5.300E-06,-0.020
-5.290E-06,-0.056
-5.280E-06,-0.064
-5.270E-06,-0.028
-5.260E-06,0.020
-5.250E-06,0.064
-5.240E-06,0.072
-5.230E-06,0.044
-5.220E-06,0.000
-5.210E-06,-0.040
-5.200E-06,-0.048
-5.190E-06,-0.032
-5.180E-06,0.024
-5.170E-06,0.072
-5.160E-06,0.092
-5.150E-06,0.056
-5.140E-06,0.000
-5.130E-06,-0.052
-5.120E-06,-0.076
-5.110E-06,-0.056
-5.100E-06,-0.004
-5.090E-06,0.044
-5.080E-06,0.076
-5.070E-06,0.072
-5.060E-06,0.024
-5.050E-06,-0.024
-5.040E-06,-0.060
-5.030E-06,-0.076
-5.020E-06,-0.036
-5.010E-06,0.028
-5.000E-06,0.092
-4.990E-06,0.100
-4.980E-06,0.068
-4.970E-06,0.000
-4.960E-06,-0.048
-4.950E-06,-0.028
-4.940E-06,-0.088
-4.930E-06,-0.120
-4.920E-06,-0.036
-4.910E-06,0.064
-4.900E-06,0.044
-4.890E-06,-0.040
-4.880E-06,0.012
-4.870E-06,0.036
-4.860E-06,0.032
-4.850E-06,-0.020
-4.840E-06,-0.056
-4.830E-06,-0.052
-4.820E-06,0.024
-4.810E-06,0.076
-4.800E-06,0.068
-4.790E-06,0.012
-4.780E-06,-0.040
-4.770E-06,-0.060
-4.760E-06,-0.048
-4.750E-06,-0.004
-4.740E-06,0.036
-4.730E-06,0.064
-4.720E-06,0.056
-4.710E-06,0.020
-4.700E-06,-0.032
-4.690E-06,-0.060
-4.680E-06,-0.040
-4.670E-06,0.004
-4.660E-06,0.044
-4.650E-06,0.060
-4.640E-06,0.056
-4.630E-06,0.012
-4.620E-06,-0.016
-4.610E-06,-0.040
-4.600E-06,-0.036
-4.590E-06,-0.008
-4.580E-06,0.028
-4.570E-06,0.056
-4.560E-06,0.060
-4.550E-06,0.032
-4.540E-06,-0.008
-4.530E-06,-0.036
-4.520E-06,-0.036
-4.510E-06,-0.012
-4.500E-06,0.020
-4.490E-06,0.056
-4.480E-06,0.072
-4.470E-06,0.056
-4.460E-06,0.012
-4.450E-06,-0.040
-4.440E-06,-0.068
-4.430E-06,-0.084
-4.420E-06,-0.036
-4.410E-06,0.032
-4.400E-06,0.096
-4.390E-06,0.084
-4.380E-06,0.012
-4.370E-06,-0.060
-4.360E-06,-0.100
-4.350E-06,-0.084
-4.340E-06,-0.032
-4.330E-06,0.036
-4.320E-06,0.080
-4.310E-06,0.084
-4.300E-06,0.020
-4.290E-06,-0.040
-4.280E-06,-0.080
-4.270E-06,-0.056
-4.260E-06,-0.004
-4.250E-06,0.036
-4.240E-06,0.060
-4.230E-06,0.052
-4.220E-06,0.016
-4.210E-06,-0.016
-4.200E-06,-0.044
-4.190E-06,-0.040
-4.180E-06,-0.012
-4.170E-06,0.024
-4.160E-06,0.056
-4.150E-06,0.056
-4.140E-06,0.028
-4.130E-06,-0.004
-4.120E-06,-0.028
-4.110E-06,-0.036
-4.100E-06,-0.020
-4.090E-06,0.012
-4.080E-06,0.040
-4.070E-06,0.048
-4.060E-06,0.028
-4.050E-06,0.008
-4.040E-06,-0.016
-4.030E-06,-0.024
-4.020E-06,-0.012
-4.010E-06,0.008
-4.000E-06,0.032
-3.990E-06,0.048
-3.980E-06,0.040
-3.970E-06,0.020
-3.960E-06,-0.004
-3.950E-06,-0.020
-3.940E-06,-0.008
-3.930E-06,0.016
-3.920E-06,0.040
-3.910E-06,0.048
-3.900E-06,0.040
-3.890E-06,0.028
-3.880E-06,0.008
-3.870E-06,-0.004
-3.860E-06,-0.004
-3.850E-06,0.008
-3.840E-06,0.020
-3.830E-06,0.024
-3.820E-06,0.028
-3.810E-06,0.028
-3.800E-06,0.008
-3.790E-06,0.004
-3.780E-06,0.000
-3.770E-06,0.016
-3.760E-06,0.028
-3.750E-06,0.060
-3.740E-06,0.064
-3.730E-06,0.060
-3.720E-06,0.008
-3.710E-06,-0.100
-3.700E-06,-0.176
-3.690E-06,-0.204
-3.680E-06,-0.104
-3.670E-06,0.036
-3.660E-06,0.180
-3.650E-06,0.240
-3.640E-06,0.164
-3.630E-06,-0.040
-3.620E-06,-0.224
-3.610E-06,-0.216
-3.600E-06,-0.108
-3.590E-06,0.084
-3.580E-06,0.224
-3.570E-06,0.236
-3.560E-06,0.088
-3.550E-06,-0.108
-3.540E-06,-0.232
-3.530E-06,-0.208
-3.520E-06,-0.068
-3.510E-06,0.092
-3.500E-06,0.172
-3.490E-06,0.140
-3.480E-06,0.032
-3.470E-06,-0.088
-3.460E-06,-0.128
-3.450E-06,-0.088
-3.440E-06,0.020
-3.430E-06,0.112
-3.420E-06,0.128
-3.410E-06,0.088
-3.400E-06,0.024
-3.390E-06,-0.032
-3.380E-06,-0.036
-3.370E-06,-0.048
-3.360E-06,-0.044
-3.350E-06,-0.004
-3.340E-06,0.008
-3.330E-06,-0.004
-3.320E-06,0.032
-3.310E-06,0.036
-3.300E-06,0.020
-3.290E-06,-0.012
-3.280E-06,-0.028
-3.270E-06,-0.012
-3.260E-06,0.016
-3.250E-06,0.024
-3.240E-06,0.008
-3.230E-06,-0.004
-3.220E-06,-0.008
-3.210E-06,0.028
-3.200E-06,0.028
-3.190E-06,-0.008
-3.180E-06,-0.132
-3.170E-06,-0.152
-3.160E-06,-0.068
-3.150E-06,0.028
-3.140E-06,0.136
-3.130E-06,0.068
-3.120E-06,-0.008
-3.110E-06,-0.064
-3.100E-06,-0.056
-3.090E-06,-0.028
-3.080E-06,0.008
-3.070E-06,0.044
-3.060E-06,0.028
-3.050E-06,0.012
-3.040E-06,-0.032
-3.030E-06,-0.016
-3.020E-06,-0.004
-3.010E-06,0.036
-3.000E-06,0.024
-2.990E-06,0.004
-2.980E-06,-0.028
-2.970E-06,-0.032
-2.960E-06,-0.004
-2.950E-06,0.024
-2.940E-06,0.044
-2.930E-06,0.020
-2.920E-06,0.012
-2.910E-06,-0.020
-2.900E-06,-0.028
-2.890E-06,-0.028
-2.880E-06,-0.008
-2.870E-06,0.020
-2.860E-06,0.052
-2.850E-06,0.048
-2.840E-06,0.024
-2.830E-06,-0.020
-2.820E-06,-0.048
-2.810E-06,-0.040
-2.800E-06,-0.008
-2.790E-06,0.032
-2.780E-06,0.052
-2.770E-06,0.056
-2.760E-06,0.032
-2.750E-06,0.004
-2.740E-06,-0.028
-2.730E-06,-0.040
-2.720E-06,-0.024
-2.710E-06,0.008
-2.700E-06,0.040
-2.690E-06,0.068
-2.680E-06,0.072
-2.670E-06,0.040
-2.660E-06,-0.008
-2.650E-06,-0.040
-2.640E-06,-0.056
-2.630E-06,-0.016
-2.620E-06,0.036
-2.610E-06,0.080
-2.600E-06,0.060
-2.590E-06,0.008
-2.580E-06,-0.072
-2.570E-06,-0.104
-2.560E-06,-0.068
-2.550E-06,-0.008
-2.540E-06,0.068
-2.530E-06,0.092
-2.520E-06,0.068
-2.510E-06,0.008
-2.500E-06,-0.044
-2.490E-06,-0.072
-2.480E-06,-0.056
-2.470E-06,0.000
-2.460E-06,0.052
-2.450E-06,0.076
-2.440E-06,0.036
-2.430E-06,-0.004
-2.420E-06,-0.056
-2.410E-06,-0.044
-2.400E-06,-0.020
-2.390E-06,0.028
-2.380E-06,0.044
-2.370E-06,0.036
-2.360E-06,0.008
-2.350E-06,-0.004
-2.340E-06,-0.020
-2.330E-06,-0.008
-2.320E-06,0.012
-2.310E-06,0.036
-2.300E-06,0.044
-2.290E-06,0.024
-2.280E-06,0.012
-2.270E-06,0.004
-2.260E-06,0.004
-2.250E-06,0.016
-2.240E-06,0.036
-2.230E-06,0.048
-2.220E-06,0.044
-2.210E-06,0.036
-2.200E-06,0.024
-2.190E-06,0.012
-2.180E-06,0.008
-2.170E-06,0.000
-2.160E-06,0.008
-2.150E-06,0.020
-2.140E-06,0.032
-2.130E-06,0.028
-2.120E-06,0.032
-2.110E-06,0.024
-2.100E-06,0.012
-2.090E-06,0.012
-2.080E-06,0.036
-2.070E-06,0.072
-2.060E-06,0.104
-2.050E-06,0.100
-2.040E-06,0.008
-2.030E-06,-0.084
-2.020E-06,-0.180
-2.010E-06,-0.188
-2.000E-06,-0.116
-1.990E-06,0.004
-1.980E-06,0.124
-1.970E-06,0.152
-1.960E-06,0.100
-1.950E-06,-0.028
-1.940E-06,-0.132
-1.930E-06,-0.156
-1.920E-06,-0.084
-1.910E-06,0.016
-1.900E-06,0.088
-1.890E-06,0.100
-1.880E-06,0.044
-1.870E-06,-0.032
-1.860E-06,-0.072
-1.850E-06,-0.056
-1.840E-06,-0.028
-1.830E-06,0.020
-1.820E-06,0.044
-1.810E-06,0.072
-1.800E-06,0.060
-1.790E-06,0.016
-1.780E-06,-0.012
-1.770E-06,-0.036
-1.760E-06,-0.024
-1.750E-06,-0.004
-1.740E-06,0.028
-1.730E-06,0.052
-1.720E-06,0.064
-1.710E-06,0.040
-1.700E-06,0.008
-1.690E-06,-0.028
-1.680E-06,-0.032
-1.670E-06,-0.008
-1.660E-06,0.028
-1.650E-06,0.072
-1.640E-06,0.100
-1.630E-06,0.108
-1.620E-06,0.092
-1.610E-06,0.048
-1.600E-06,0.008
-1.590E-06,-0.028
-1.580E-06,-0.056
-1.570E-06,-0.036
-1.560E-06,-0.008
-1.550E-06,0.012
-1.540E-06,0.004
-1.530E-06,-0.004
-1.520E-06,-0.008
-1.510E-06,0.012
-1.500E-06,0.032
-1.490E-06,0.064
-1.480E-06,0.044
-1.470E-06,0.068
-1.460E-06,-0.136
-1.450E-06,-0.232
-1.440E-06,-0.228
-1.430E-06,-0.268
-1.420E-06,-0.004
-1.410E-06,0.072
-1.400E-06,0.044
-1.390E-06,0.024
-1.380E-06,0.244
-1.370E-06,0.252
-1.360E-06,0.048
-1.350E-06,-0.056
-1.340E-06,-0.172
-1.330E-06,-0.136
-1.320E-06,-0.036
-1.310E-06,0.084
-1.300E-06,0.016
-1.290E-06,0.140
-1.280E-06,0.012
-1.270E-06,-0.168
-1.260E-06,-0.200
-1.250E-06,-0.144
-1.240E-06,0.044
-1.230E-06,0.128
-1.220E-06,0.188
-1.210E-06,0.068
-1.200E-06,0.016
-1.190E-06,-0.072
-1.180E-06,-0.032
-1.170E-06,-0.032
-1.160E-06,0.008
-1.150E-06,0.016
-1.140E-06,-0.004
-1.130E-06,0.004
-1.120E-06,-0.004
-1.110E-06,0.004
-1.100E-06,-0.068
-1.090E-06,-0.060
-1.080E-06,-0.036
-1.070E-06,0.060
-1.060E-06,0.092
-1.050E-06,0.104
-1.040E-06,0.012
-1.030E-06,-0.072
-1.020E-06,-0.104
-1.010E-06,-0.072
-1.000E-06,0.016
-9.900E-07,0.092
-9.800E-07,0.124
-9.700E-07,0.048
-9.600E-07,-0.032
-9.500E-07,-0.120
-9.400E-07,-0.128
-9.300E-07,-0.064
-9.200E-07,0.028
-9.100E-07,0.100
-9.000E-07,0.116
-8.900E-07,0.072
-8.800E-07,-0.012
-8.700E-07,-0.068
-8.600E-07,-0.080
-8.500E-07,-0.032
-8.400E-07,0.044
-8.300E-07,0.112
-8.200E-07,0.124
-8.100E-07,0.084
-8.000E-07,0.012
-7.900E-07,-0.040
-7.800E-07,-0.032
-7.700E-07,0.012
-7.600E-07,0.100
-7.500E-07,0.164
-7.400E-07,0.156
-7.300E-07,0.072
-7.200E-07,-0.016
-7.100E-07,-0.088
-7.000E-07,-0.084
-6.900E-07,-0.040
-6.800E-07,-0.028
-6.700E-07,-0.024
-6.600E-07,-0.004
-6.500E-07,-0.012
-6.400E-07,-0.064
-6.300E-07,-0.016
-6.200E-07,0.020
-6.100E-07,0.032
-6.000E-07,0.028
-5.900E-07,-0.020
-5.800E-07,-0.008
-5.700E-07,0.016
-5.600E-07,0.008
-5.500E-07,0.020
-5.400E-07,0.060
-5.300E-07,0.052
-5.200E-07,0.008
-5.100E-07,-0.048
-5.000E-07,-0.060
-4.900E-07,-0.036
-4.800E-07,0.004
-4.700E-07,0.044
-4.600E-07,0.044
-4.500E-07,0.036
-4.400E-07,0.016
-4.300E-07,0.004
-4.200E-07,0.000
-4.100E-07,0.004
-4.000E-07,-0.008
-3.900E-07,-0.008
-3.800E-07,-0.020
-3.700E-07,-0.036
-3.600E-07,-0.004
-3.500E-07,0.008
-3.400E-07,0.008
-3.300E-07,-0.004
-3.200E-07,-0.004
-3.100E-07,-0.004
-3.000E-07,-0.004
-2.900E-07,0.000
-2.800E-07,0.004
-2.700E-07,0.012
-2.600E-07,0.024
-2.500E-07,0.036
-2.400E-07,0.048
-2.300E-07,0.044
-2.200E-07,0.040
-2.100E-07,0.052
-2.000E-07,0.060
-1.900E-07,0.072
-1.800E-07,0.092
-1.700E-07,0.092
-1.600E-07,0.088
-1.500E-07,0.072
-1.400E-07,0.048
-1.300E-07,0.036
-1.200E-07,0.044
-1.100E-07,0.052
-1.000E-07,0.060
-9.000E-08,0.064
-8.000E-08,0.044
-7.000E-08,0.052
-6.000E-08,-0.216
-5.000E-08,-0.448
-4.000E-08,-0.512
-3.000E-08,-0.512
-2.000E-08,-0.288
-1.000E-08,0.344
0.000E+00,0.540
1.000E-08,0.540
2.000E-08,-0.060
3.000E-08,-0.488
4.000E-08,-0.508
5.000E-08,-0.168
6.000E-08,0.252
7.000E-08,0.448
8.000E-08,0.340
9.000E-08,0.068
1.000E-07,-0.152
1.100E-07,-0.300
1.200E-07,-0.220
1.300E-07,-0.056
1.400E-07,0.124
1.500E-07,0.204
1.600E-07,0.200
1.700E-07,0.092
1.800E-07,-0.052
1.900E-07,-0.104
2.000E-07,-0.104
2.100E-07,-0.024
2.200E-07,0.124
2.300E-07,0.236
2.400E-07,0.256
2.500E-07,0.192
2.600E-07,-0.064
2.700E-07,-0.328
2.800E-07,-0.436
2.900E-07,-0.340
3.000E-07,-0.068
3.100E-07,0.224
3.200E-07,0.308
3.300E-07,0.160
3.400E-07,-0.080
3.500E-07,-0.276
3.600E-07,-0.212
3.700E-07,-0.032
3.800E-07,0.144
3.900E-07,0.196
4.000E-07,0.100
4.100E-07,-0.044
4.200E-07,-0.152
4.300E-07,-0.144
4.400E-07,-0.060
4.500E-07,0.060
4.600E-07,0.120
4.700E-07,0.112
4.800E-07,0.036
4.900E-07,-0.052
5.000E-07,-0.108
5.100E-07,-0.092
5.200E-07,-0.004
5.300E-07,0.092
5.400E-07,0.148
5.500E-07,0.116
5.600E-07,0.028
5.700E-07,-0.068
5.800E-07,-0.104
5.900E-07,-0.068
6.000E-07,0.020
6.100E-07,0.084
6.200E-07,0.104
6.300E-07,0.064
6.400E-07,-0.012
6.500E-07,-0.072
6.600E-07,-0.108
6.700E-07,-0.076
6.800E-07,-0.004
6.900E-07,0.088
7.000E-07,0.124
7.100E-07,0.104
7.200E-07,0.032
7.300E-07,-0.048
7.400E-07,-0.092
7.500E-07,-0.076
7.600E-07,-0.004
7.700E-07,0.084
7.800E-07,0.132
7.900E-07,0.108
8.000E-07,0.044
8.100E-07,-0.028
8.200E-07,-0.072
8.300E-07,-0.056
8.400E-07,0.008
8.500E-07,0.088
8.600E-07,0.128
8.700E-07,0.108
8.800E-07,0.068
8.900E-07,0.008
9.000E-07,-0.036
9.100E-07,-0.020
9.200E-07,0.020
9.300E-07,0.096
9.400E-07,0.128
9.500E-07,0.124
9.600E-07,0.080
9.700E-07,0.032
9.800E-07,-0.036
9.900E-07,-0.048
1.000E-06,-0.016
1.010E-06,0.040
1.020E-06,0.152
1.030E-06,0.092
1.040E-06,0.000
1.050E-06,-0.108
1.060E-06,-0.196
1.070E-06,-0.200
1.080E-06,-0.088
1.090E-06,0.008
1.100E-06,0.056
1.110E-06,0.076
1.120E-06,0.072
1.130E-06,0.024
1.140E-06,-0.052
1.150E-06,-0.076
1.160E-06,-0.100
1.170E-06,-0.072
1.180E-06,-0.028
1.190E-06,0.048
1.200E-06,0.096
1.210E-06,0.072
1.220E-06,0.008
1.230E-06,-0.036
1.240E-06,-0.040
1.250E-06,-0.040
1.260E-06,-0.004
1.270E-06,0.060
1.280E-06,0.084
1.290E-06,0.076
1.300E-06,0.092
1.310E-06,0.092
1.320E-06,0.088
1.330E-06,0.036
1.340E-06,-0.004
1.350E-06,0.000
1.360E-06,0.000
1.370E-06,0.004
1.380E-06,0.028
1.390E-06,0.016
1.400E-06,-0.024
1.410E-06,-0.060
1.420E-06,-0.092
1.430E-06,-0.048
1.440E-06,0.020
1.450E-06,0.104
1.460E-06,0.156
1.470E-06,0.176
1.480E-06,0.144
1.490E-06,0.092
1.500E-06,0.044
1.510E-06,0.028
1.520E-06,0.068
1.530E-06,0.132
1.540E-06,0.196
1.550E-06,0.172
1.560E-06,0.128
1.570E-06,0.056
1.580E-06,-0.012
1.590E-06,-0.052
1.600E-06,-0.040
1.610E-06,0.040
1.620E-06,0.116
1.630E-06,0.152
1.640E-06,0.152
1.650E-06,0.092
1.660E-06,0.020
1.670E-06,0.024
1.680E-06,0.044
1.690E-06,0.056
1.700E-06,-0.036
1.710E-06,-0.168
1.720E-06,-0.396
1.730E-06,-0.512
1.740E-06,-0.508
1.750E-06,-0.340
1.760E-06,0.024
1.770E-06,0.200
1.780E-06,0.056
1.790E-06,-0.124
1.800E-06,-0.064
1.810E-06,0.024
1.820E-06,0.084
1.830E-06,0.120
1.840E-06,0.004
1.850E-06,-0.064
1.860E-06,-0.068
1.870E-06,-0.068
1.880E-06,-0.008
1.890E-06,0.064
1.900E-06,0.072
1.910E-06,0.048
1.920E-06,-0.012
1.930E-06,-0.084
1.940E-06,-0.108
1.950E-06,-0.016
1.960E-06,0.076
1.970E-06,0.088
1.980E-06,0.044
1.990E-06,-0.028
2.000E-06,-0.108
2.010E-06,-0.156
2.020E-06,-0.108
2.030E-06,-0.028
2.040E-06,0.056
2.050E-06,0.108
2.060E-06,0.092
2.070E-06,0.032
2.080E-06,-0.064
2.090E-06,-0.108
2.100E-06,-0.088
2.110E-06,-0.008
2.120E-06,0.084
2.130E-06,0.164
2.140E-06,0.164
2.150E-06,0.100
2.160E-06,0.012
2.170E-06,-0.052
2.180E-06,-0.048
2.190E-06,0.004
2.200E-06,0.092
2.210E-06,0.156
2.220E-06,0.188
2.230E-06,0.176
2.240E-06,0.132
2.250E-06,0.084
2.260E-06,0.052
2.270E-06,0.092
2.280E-06,0.176
2.290E-06,0.244
2.300E-06,0.236
2.310E-06,0.168
2.320E-06,0.056
2.330E-06,-0.056
2.340E-06,-0.124
2.350E-06,-0.144
2.360E-06,-0.076
2.370E-06,0.044
2.380E-06,0.116
2.390E-06,0.152
2.400E-06,0.148
2.410E-06,0.120
2.420E-06,0.060
2.430E-06,0.124
2.440E-06,0.028
2.450E-06,-0.052
2.460E-06,-0.164
2.470E-06,-0.176
2.480E-06,0.064
2.490E-06,0.364
2.500E-06,0.448
2.510E-06,0.256
2.520E-06,-0.236
2.530E-06,-0.512
2.540E-06,-0.512
2.550E-06,-0.408
2.560E-06,0.124
2.570E-06,0.520
2.580E-06,0.540
2.590E-06,0.460
2.600E-06,0.140
2.610E-06,-0.168
2.620E-06,-0.244
2.630E-06,-0.144
2.640E-06,0.096
2.650E-06,0.200
2.660E-06,0.136
2.670E-06,-0.188
2.680E-06,-0.512
2.690E-06,-0.512
2.700E-06,-0.512
2.710E-06,-0.196
2.720E-06,0.128
2.730E-06,0.352
2.740E-06,0.392
2.750E-06,0.284
2.760E-06,0.144
2.770E-06,-0.008
2.780E-06,-0.092
2.790E-06,-0.180
2.800E-06,-0.188
2.810E-06,-0.112
2.820E-06,0.000
2.830E-06,0.036
2.840E-06,0.068
2.850E-06,0.040
2.860E-06,-0.160
2.870E-06,-0.300
2.880E-06,-0.300
2.890E-06,-0.240
2.900E-06,-0.120
2.910E-06,0.112
2.920E-06,0.272
2.930E-06,0.272
2.940E-06,0.116
2.950E-06,-0.140
2.960E-06,-0.272
2.970E-06,-0.260
2.980E-06,-0.068
2.990E-06,0.156
3.000E-06,0.340
3.010E-06,0.332
3.020E-06,0.176
3.030E-06,-0.032
3.040E-06,-0.184
3.050E-06,-0.196
3.060E-06,-0.096
3.070E-06,0.088
3.080E-06,0.272
3.090E-06,0.352
3.100E-06,0.264
3.110E-06,0.088
3.120E-06,-0.104
3.130E-06,-0.200
3.140E-06,-0.136
3.150E-06,0.056
3.160E-06,0.252
3.170E-06,0.352
3.180E-06,0.320
3.190E-06,0.160
3.200E-06,0.024
3.210E-06,-0.088
3.220E-06,-0.060
3.230E-06,0.080
3.240E-06,0.268
