mediciones/Mediciones filtradas (saque las feas)/5-15/12.6/WaveData4742.csv

#timebase=2000000(ps)
,#voltbase=100000(mv/100)
#size=4000
-8.400E-06,-0.008
-8.390E-06,-0.028
-8.380E-06,-0.028
-8.370E-06,-0.004
-8.360E-06,0.016
-8.350E-06,0.028
-8.340E-06,0.028
-8.330E-06,0.008
-8.320E-06,0.000
-8.310E-06,-0.008
-8.300E-06,-0.012
-8.290E-06,-0.008
-8.280E-06,0.012
-8.270E-06,0.028
-8.260E-06,0.024
-8.250E-06,0.028
-8.240E-06,0.004
-8.230E-06,-0.008
-8.220E-06,-0.012
-8.210E-06,-0.008
-8.200E-06,0.004
-8.190E-06,0.020
-8.180E-06,0.020
-8.170E-06,0.020
-8.160E-06,0.012
-8.150E-06,0.008
-8.140E-06,-0.004
-8.130E-06,-0.004
-8.120E-06,0.012
-8.110E-06,0.024
-8.100E-06,0.008
-8.090E-06,-0.016
-8.080E-06,-0.040
-8.070E-06,-0.036
-8.060E-06,-0.004
-8.050E-06,0.036
-8.040E-06,0.044
-8.030E-06,0.016
-8.020E-06,-0.004
-8.010E-06,-0.012
-8.000E-06,-0.004
-7.990E-06,0.008
-7.980E-06,0.020
-7.970E-06,0.016
-7.960E-06,0.004
-7.950E-06,-0.036
-7.940E-06,-0.060
-7.930E-06,-0.080
-7.920E-06,-0.028
-7.910E-06,0.028
-7.900E-06,0.048
-7.890E-06,0.028
-7.880E-06,-0.004
-7.870E-06,-0.016
-7.860E-06,-0.024
-7.850E-06,0.004
-7.840E-06,0.004
-7.830E-06,0.024
-7.820E-06,0.008
-7.810E-06,0.000
-7.800E-06,0.000
-7.790E-06,0.000
-7.780E-06,0.000
-7.770E-06,0.000
-7.760E-06,0.008
-7.750E-06,0.004
-7.740E-06,0.008
-7.730E-06,0.004
-7.720E-06,0.012
-7.710E-06,0.004
-7.700E-06,0.000
-7.690E-06,-0.004
-7.680E-06,-0.004
-7.670E-06,-0.004
-7.660E-06,0.012
-7.650E-06,0.024
-7.640E-06,0.008
-7.630E-06,0.004
-7.620E-06,-0.008
-7.610E-06,-0.004
-7.600E-06,-0.004
-7.590E-06,0.008
-7.580E-06,0.012
-7.570E-06,0.012
-7.560E-06,0.004
-7.550E-06,0.000
-7.540E-06,-0.004
-7.530E-06,0.000
-7.520E-06,0.004
-7.510E-06,0.008
-7.500E-06,0.020
-7.490E-06,0.012
-7.480E-06,0.008
-7.470E-06,-0.008
-7.460E-06,-0.004
-7.450E-06,-0.004
-7.440E-06,0.012
-7.430E-06,0.028
-7.420E-06,0.008
-7.410E-06,-0.012
-7.400E-06,-0.016
-7.390E-06,0.000
-7.380E-06,0.012
-7.370E-06,0.028
-7.360E-06,0.012
-7.350E-06,0.004
-7.340E-06,-0.024
-7.330E-06,-0.016
-7.320E-06,0.000
-7.310E-06,0.008
-7.300E-06,0.012
-7.290E-06,0.024
-7.280E-06,0.012
-7.270E-06,-0.008
-7.260E-06,-0.008
-7.250E-06,-0.008
-7.240E-06,0.008
-7.230E-06,0.012
-7.220E-06,0.016
-7.210E-06,0.000
-7.200E-06,-0.008
-7.190E-06,-0.012
-7.180E-06,-0.004
-7.170E-06,0.008
-7.160E-06,0.012
-7.150E-06,0.012
-7.140E-06,0.004
-7.130E-06,0.004
-7.120E-06,0.000
-7.110E-06,-0.004
-7.100E-06,-0.008
-7.090E-06,0.008
-7.080E-06,0.012
-7.070E-06,0.016
-7.060E-06,0.012
-7.050E-06,0.008
-7.040E-06,0.000
-7.030E-06,-0.008
-7.020E-06,-0.008
-7.010E-06,-0.004
-7.000E-06,0.004
-6.990E-06,0.012
-6.980E-06,0.012
-6.970E-06,0.012
-6.960E-06,0.008
-6.950E-06,0.000
-6.940E-06,-0.008
-6.930E-06,-0.004
-6.920E-06,0.000
-6.910E-06,0.008
-6.900E-06,0.016
-6.890E-06,0.020
-6.880E-06,0.012
-6.870E-06,-0.004
-6.860E-06,-0.016
-6.850E-06,-0.008
-6.840E-06,-0.004
-6.830E-06,0.020
-6.820E-06,0.020
-6.810E-06,0.012
-6.800E-06,0.000
-6.790E-06,-0.008
-6.780E-06,-0.008
-6.770E-06,-0.004
-6.760E-06,0.000
-6.750E-06,0.008
-6.740E-06,0.016
-6.730E-06,0.024
-6.720E-06,0.008
-6.710E-06,0.000
-6.700E-06,-0.008
-6.690E-06,-0.008
-6.680E-06,0.004
-6.670E-06,0.012
-6.660E-06,0.012
-6.650E-06,0.008
-6.640E-06,0.008
-6.630E-06,0.000
-6.620E-06,0.000
-6.610E-06,-0.008
-6.600E-06,0.000
-6.590E-06,-0.004
-6.580E-06,0.004
-6.570E-06,0.004
-6.560E-06,0.008
-6.550E-06,0.008
-6.540E-06,0.000
-6.530E-06,-0.004
-6.520E-06,0.000
-6.510E-06,0.000
-6.500E-06,0.012
-6.490E-06,0.012
-6.480E-06,0.004
-6.470E-06,0.004
-6.460E-06,-0.004
-6.450E-06,-0.008
-6.440E-06,-0.008
-6.430E-06,0.000
-6.420E-06,0.004
-6.410E-06,0.008
-6.400E-06,0.012
-6.390E-06,0.008
-6.380E-06,0.000
-6.370E-06,-0.004
-6.360E-06,-0.016
-6.350E-06,-0.024
-6.340E-06,-0.004
-6.330E-06,0.008
-6.320E-06,0.024
-6.310E-06,0.024
-6.300E-06,0.016
-6.290E-06,0.008
-6.280E-06,-0.016
-6.270E-06,-0.024
-6.260E-06,-0.016
-6.250E-06,0.008
-6.240E-06,0.008
-6.230E-06,0.020
-6.220E-06,0.012
-6.210E-06,0.000
-6.200E-06,-0.008
-6.190E-06,-0.008
-6.180E-06,0.000
-6.170E-06,0.008
-6.160E-06,0.024
-6.150E-06,0.020
-6.140E-06,0.008
-6.130E-06,-0.004
-6.120E-06,-0.008
-6.110E-06,-0.008
-6.100E-06,0.000
-6.090E-06,0.012
-6.080E-06,0.016
-6.070E-06,0.012
-6.060E-06,0.004
-6.050E-06,0.004
-6.040E-06,0.000
-6.030E-06,-0.004
-6.020E-06,0.004
-6.010E-06,0.004
-6.000E-06,0.004
-5.990E-06,0.004
-5.980E-06,0.008
-5.970E-06,0.016
-5.960E-06,0.020
-5.950E-06,0.024
-5.940E-06,0.012
-5.930E-06,-0.012
-5.920E-06,-0.024
-5.910E-06,-0.024
-5.900E-06,-0.004
-5.890E-06,0.020
-5.880E-06,0.032
-5.870E-06,0.020
-5.860E-06,-0.004
-5.850E-06,-0.016
-5.840E-06,-0.012
-5.830E-06,0.000
-5.820E-06,0.012
-5.810E-06,0.024
-5.800E-06,0.016
-5.790E-06,0.000
-5.780E-06,-0.008
-5.770E-06,-0.008
-5.760E-06,0.000
-5.750E-06,0.004
-5.740E-06,0.012
-5.730E-06,-0.040
-5.720E-06,-0.028
-5.710E-06,-0.004
-5.700E-06,0.012
-5.690E-06,0.016
-5.680E-06,0.056
-5.670E-06,0.032
-5.660E-06,-0.024
-5.650E-06,-0.056
-5.640E-06,-0.040
-5.630E-06,0.012
-5.620E-06,0.032
-5.610E-06,0.052
-5.600E-06,0.008
-5.590E-06,-0.028
-5.580E-06,-0.032
-5.570E-06,0.004
-5.560E-06,0.028
-5.550E-06,0.028
-5.540E-06,0.008
-5.530E-06,-0.024
-5.520E-06,-0.020
-5.510E-06,-0.020
-5.500E-06,0.008
-5.490E-06,0.028
-5.480E-06,0.040
-5.470E-06,0.028
-5.460E-06,0.012
-5.450E-06,-0.020
-5.440E-06,-0.024
-5.430E-06,-0.020
-5.420E-06,0.004
-5.410E-06,0.028
-5.400E-06,0.028
-5.390E-06,0.020
-5.380E-06,0.008
-5.370E-06,-0.004
-5.360E-06,-0.016
-5.350E-06,-0.012
-5.340E-06,0.004
-5.330E-06,0.028
-5.320E-06,0.044
-5.310E-06,0.020
-5.300E-06,-0.012
-5.290E-06,-0.040
-5.280E-06,-0.032
-5.270E-06,-0.004
-5.260E-06,0.036
-5.250E-06,0.060
-5.240E-06,0.036
-5.230E-06,-0.004
-5.220E-06,-0.052
-5.210E-06,-0.068
-5.200E-06,-0.040
-5.190E-06,-0.004
-5.180E-06,0.056
-5.170E-06,0.076
-5.160E-06,0.048
-5.150E-06,-0.024
-5.140E-06,-0.052
-5.130E-06,-0.044
-5.120E-06,-0.024
-5.110E-06,0.024
-5.100E-06,0.044
-5.090E-06,0.044
-5.080E-06,0.008
-5.070E-06,-0.004
-5.060E-06,-0.024
-5.050E-06,-0.024
-5.040E-06,-0.008
-5.030E-06,0.016
-5.020E-06,0.040
-5.010E-06,0.028
-5.000E-06,0.008
-4.990E-06,-0.020
-4.980E-06,-0.036
-4.970E-06,-0.036
-4.960E-06,0.008
-4.950E-06,0.028
-4.940E-06,0.024
-4.930E-06,0.004
-4.920E-06,0.000
-4.910E-06,-0.004
-4.900E-06,-0.004
-4.890E-06,0.004
-4.880E-06,-0.008
-4.870E-06,-0.008
-4.860E-06,0.000
-4.850E-06,0.020
-4.840E-06,0.032
-4.830E-06,0.020
-4.820E-06,-0.004
-4.810E-06,-0.024
-4.800E-06,-0.020
-4.790E-06,-0.008
-4.780E-06,0.016
-4.770E-06,0.032
-4.760E-06,0.032
-4.750E-06,0.008
-4.740E-06,-0.008
-4.730E-06,-0.016
-4.720E-06,-0.008
-4.710E-06,0.004
-4.700E-06,0.016
-4.690E-06,0.020
-4.680E-06,0.012
-4.670E-06,0.008
-4.660E-06,0.000
-4.650E-06,0.000
-4.640E-06,-0.012
-4.630E-06,-0.008
-4.620E-06,0.004
-4.610E-06,0.024
-4.600E-06,0.032
-4.590E-06,0.028
-4.580E-06,0.012
-4.570E-06,-0.008
-4.560E-06,-0.024
-4.550E-06,-0.032
-4.540E-06,-0.008
-4.530E-06,0.016
-4.520E-06,0.036
-4.510E-06,0.040
-4.500E-06,0.016
-4.490E-06,-0.004
-4.480E-06,-0.024
-4.470E-06,-0.016
-4.460E-06,-0.004
-4.450E-06,0.016
-4.440E-06,0.028
-4.430E-06,0.036
-4.420E-06,0.020
-4.410E-06,0.000
-4.400E-06,-0.012
-4.390E-06,-0.012
-4.380E-06,0.000
-4.370E-06,0.008
-4.360E-06,0.016
-4.350E-06,0.008
-4.340E-06,-0.004
-4.330E-06,-0.008
-4.320E-06,-0.008
-4.310E-06,0.000
-4.300E-06,0.008
-4.290E-06,0.008
-4.280E-06,0.012
-4.270E-06,0.008
-4.260E-06,0.012
-4.250E-06,0.012
-4.240E-06,0.012
-4.230E-06,0.012
-4.220E-06,0.008
-4.210E-06,0.008
-4.200E-06,0.008
-4.190E-06,0.012
-4.180E-06,0.012
-4.170E-06,0.008
-4.160E-06,0.008
-4.150E-06,0.012
-4.140E-06,0.012
-4.130E-06,0.012
-4.120E-06,0.000
-4.110E-06,0.000
-4.100E-06,0.004
-4.090E-06,0.008
-4.080E-06,0.004
-4.070E-06,0.004
-4.060E-06,-0.004
-4.050E-06,0.000
-4.040E-06,0.008
-4.030E-06,0.024
-4.020E-06,0.024
-4.010E-06,0.020
-4.000E-06,0.016
-3.990E-06,-0.076
-3.980E-06,-0.076
-3.970E-06,-0.052
-3.960E-06,-0.020
-3.950E-06,0.004
-3.940E-06,0.072
-3.930E-06,0.060
-3.920E-06,-0.012
-3.910E-06,-0.056
-3.900E-06,-0.068
-3.890E-06,-0.020
-3.880E-06,0.020
-3.870E-06,0.060
-3.860E-06,0.028
-3.850E-06,0.012
-3.840E-06,-0.016
-3.830E-06,-0.012
-3.820E-06,0.000
-3.810E-06,0.004
-3.800E-06,0.016
-3.790E-06,0.024
-3.780E-06,0.024
-3.770E-06,0.004
-3.760E-06,0.008
-3.750E-06,-0.008
-3.740E-06,0.000
-3.730E-06,0.000
-3.720E-06,0.008
-3.710E-06,0.008
-3.700E-06,-0.004
-3.690E-06,-0.008
-3.680E-06,-0.004
-3.670E-06,0.004
-3.660E-06,0.016
-3.650E-06,0.024
-3.640E-06,0.020
-3.630E-06,0.012
-3.620E-06,-0.008
-3.610E-06,-0.016
-3.600E-06,-0.008
-3.590E-06,0.020
-3.580E-06,0.048
-3.570E-06,0.064
-3.560E-06,-0.028
-3.550E-06,-0.048
-3.540E-06,-0.068
-3.530E-06,-0.088
-3.520E-06,-0.028
-3.510E-06,0.100
-3.500E-06,0.140
-3.490E-06,0.028
-3.480E-06,-0.040
-3.470E-06,-0.096
-3.460E-06,-0.060
-3.450E-06,0.008
-3.440E-06,0.068
-3.430E-06,0.060
-3.420E-06,0.024
-3.410E-06,-0.008
-3.400E-06,-0.008
-3.390E-06,0.004
-3.380E-06,0.008
-3.370E-06,0.020
-3.360E-06,0.020
-3.350E-06,0.028
-3.340E-06,0.012
-3.330E-06,0.020
-3.320E-06,0.020
-3.310E-06,0.028
-3.300E-06,0.020
-3.290E-06,0.004
-3.280E-06,-0.012
-3.270E-06,-0.036
-3.260E-06,-0.024
-3.250E-06,0.004
-3.240E-06,0.020
-3.230E-06,0.016
-3.220E-06,-0.008
-3.210E-06,-0.036
-3.200E-06,-0.064
-3.190E-06,-0.020
-3.180E-06,0.028
-3.170E-06,0.064
-3.160E-06,0.060
-3.150E-06,0.012
-3.140E-06,-0.024
-3.130E-06,-0.056
-3.120E-06,-0.036
-3.110E-06,-0.004
-3.100E-06,0.028
-3.090E-06,0.044
-3.080E-06,0.036
-3.070E-06,0.004
-3.060E-06,-0.020
-3.050E-06,-0.020
-3.040E-06,-0.008
-3.030E-06,0.012
-3.020E-06,0.028
-3.010E-06,0.020
-3.000E-06,0.004
-2.990E-06,-0.004
-2.980E-06,-0.004
-2.970E-06,0.004
-2.960E-06,0.020
-2.950E-06,0.028
-2.940E-06,0.016
-2.930E-06,0.008
-2.920E-06,-0.004
-2.910E-06,0.000
-2.900E-06,0.008
-2.890E-06,0.024
-2.880E-06,0.020
-2.870E-06,0.024
-2.860E-06,0.016
-2.850E-06,0.012
-2.840E-06,0.012
-2.830E-06,0.012
-2.820E-06,0.016
-2.810E-06,0.024
-2.800E-06,0.036
-2.790E-06,0.028
-2.780E-06,0.024
-2.770E-06,0.016
-2.760E-06,0.004
-2.750E-06,0.012
-2.740E-06,0.024
-2.730E-06,0.048
-2.720E-06,0.052
-2.710E-06,0.040
-2.700E-06,0.016
-2.690E-06,-0.040
-2.680E-06,-0.100
-2.670E-06,-0.136
-2.660E-06,-0.076
-2.650E-06,-0.004
-2.640E-06,0.084
-2.630E-06,0.120
-2.620E-06,0.096
-2.610E-06,0.012
-2.600E-06,-0.092
-2.590E-06,-0.120
-2.580E-06,-0.060
-2.570E-06,0.056
-2.560E-06,0.124
-2.550E-06,0.124
-2.540E-06,0.036
-2.530E-06,-0.044
-2.520E-06,-0.096
-2.510E-06,-0.076
-2.500E-06,-0.004
-2.490E-06,0.064
-2.480E-06,0.080
-2.470E-06,0.052
-2.460E-06,0.008
-2.450E-06,-0.020
-2.440E-06,-0.024
-2.430E-06,-0.008
-2.420E-06,0.044
-2.410E-06,0.064
-2.400E-06,0.076
-2.390E-06,0.032
-2.380E-06,0.012
-2.370E-06,-0.028
-2.360E-06,-0.028
-2.350E-06,-0.008
-2.340E-06,0.036
-2.330E-06,0.036
-2.320E-06,0.024
-2.310E-06,0.024
-2.300E-06,0.028
-2.290E-06,0.056
-2.280E-06,0.040
-2.270E-06,0.020
-2.260E-06,-0.060
-2.250E-06,-0.088
-2.240E-06,-0.080
-2.230E-06,-0.040
-2.220E-06,0.040
-2.210E-06,0.120
-2.200E-06,0.124
-2.190E-06,0.044
-2.180E-06,-0.036
-2.170E-06,-0.064
-2.160E-06,-0.012
-2.150E-06,0.040
-2.140E-06,0.076
-2.130E-06,0.028
-2.120E-06,0.012
-2.110E-06,-0.008
-2.100E-06,0.024
-2.090E-06,0.044
-2.080E-06,0.044
-2.070E-06,0.024
-2.060E-06,-0.024
-2.050E-06,-0.104
-2.040E-06,-0.164
-2.030E-06,-0.156
-2.020E-06,-0.092
-2.010E-06,0.012
-2.000E-06,0.092
-1.990E-06,0.148
-1.980E-06,0.084
-1.970E-06,-0.016
-1.960E-06,-0.128
-1.950E-06,-0.128
-1.940E-06,-0.052
-1.930E-06,0.060
-1.920E-06,0.140
-1.910E-06,0.140
-1.900E-06,0.064
-1.890E-06,-0.044
-1.880E-06,-0.092
-1.870E-06,-0.088
-1.860E-06,-0.016
-1.850E-06,0.068
-1.840E-06,0.136
-1.830E-06,0.132
-1.820E-06,0.080
-1.810E-06,0.008
-1.800E-06,-0.052
-1.790E-06,-0.048
-1.780E-06,0.000
-1.770E-06,0.064
-1.760E-06,0.108
-1.750E-06,0.120
-1.740E-06,0.088
-1.730E-06,0.040
-1.720E-06,0.008
-1.710E-06,0.032
-1.700E-06,0.092
-1.690E-06,0.132
-1.680E-06,0.128
-1.670E-06,0.084
-1.660E-06,-0.064
-1.650E-06,-0.260
-1.640E-06,-0.352
-1.630E-06,-0.272
-1.620E-06,-0.036
-1.610E-06,0.220
-1.600E-06,0.408
-1.590E-06,0.372
-1.580E-06,0.132
-1.570E-06,-0.236
-1.560E-06,-0.400
-1.550E-06,-0.360
-1.540E-06,-0.108
-1.530E-06,0.156
-1.520E-06,0.104
-1.510E-06,0.036
-1.500E-06,-0.292
-1.490E-06,-0.468
-1.480E-06,-0.364
-1.470E-06,0.144
-1.460E-06,0.396
-1.450E-06,0.232
-1.440E-06,0.060
-1.430E-06,-0.092
-1.420E-06,-0.060
-1.410E-06,-0.024
-1.400E-06,0.020
-1.390E-06,-0.052
-1.380E-06,-0.040
-1.370E-06,0.056
-1.360E-06,0.084
-1.350E-06,0.020
-1.340E-06,-0.052
-1.330E-06,-0.096
-1.320E-06,-0.140
-1.310E-06,-0.040
-1.300E-06,0.000
-1.290E-06,0.072
-1.280E-06,0.104
-1.270E-06,0.100
-1.260E-06,0.036
-1.250E-06,-0.004
-1.240E-06,-0.068
-1.230E-06,-0.084
-1.220E-06,-0.020
-1.210E-06,0.016
-1.200E-06,0.072
-1.190E-06,0.080
-1.180E-06,0.068
-1.170E-06,0.000
-1.160E-06,-0.040
-1.150E-06,-0.060
-1.140E-06,-0.044
-1.130E-06,0.012
-1.120E-06,0.072
-1.110E-06,0.112
-1.100E-06,0.112
-1.090E-06,0.096
-1.080E-06,0.036
-1.070E-06,-0.008
-1.060E-06,-0.040
-1.050E-06,-0.004
-1.040E-06,0.044
-1.030E-06,0.128
-1.020E-06,0.156
-1.010E-06,0.140
-1.000E-06,0.076
-9.900E-07,0.024
-9.800E-07,-0.008
-9.700E-07,-0.004
-9.600E-07,0.056
-9.500E-07,0.076
-9.400E-07,0.096
-9.300E-07,0.044
-9.200E-07,0.016
-9.100E-07,-0.016
-9.000E-07,-0.012
-8.900E-07,-0.008
-8.800E-07,-0.044
-8.700E-07,-0.164
-8.600E-07,-0.212
-8.500E-07,-0.180
-8.400E-07,-0.196
-8.300E-07,-0.148
-8.200E-07,-0.076
-8.100E-07,0.024
-8.000E-07,0.060
-7.900E-07,0.084
-7.800E-07,0.068
-7.700E-07,-0.032
-7.600E-07,-0.136
-7.500E-07,-0.132
-7.400E-07,-0.020
-7.300E-07,0.108
-7.200E-07,0.168
-7.100E-07,0.112
-7.000E-07,0.004
-6.900E-07,-0.104
-6.800E-07,-0.140
-6.700E-07,-0.080
-6.600E-07,0.036
-6.500E-07,0.140
-6.400E-07,0.160
-6.300E-07,0.132
-6.200E-07,0.052
-6.100E-07,0.000
-6.000E-07,-0.012
-5.900E-07,0.008
-5.800E-07,0.020
-5.700E-07,0.004
-5.600E-07,-0.028
-5.500E-07,-0.096
-5.400E-07,-0.136
-5.300E-07,-0.088
-5.200E-07,0.012
-5.100E-07,0.076
-5.000E-07,0.092
-4.900E-07,0.100
-4.800E-07,0.028
-4.700E-07,-0.072
-4.600E-07,-0.076
-4.500E-07,-0.024
-4.400E-07,0.036
-4.300E-07,0.080
-4.200E-07,0.120
-4.100E-07,0.084
-4.000E-07,0.040
-3.900E-07,-0.016
-3.800E-07,-0.040
-3.700E-07,-0.004
-3.600E-07,0.020
-3.500E-07,0.044
-3.400E-07,0.064
-3.300E-07,0.104
-3.200E-07,0.088
-3.100E-07,0.072
-3.000E-07,0.064
-2.900E-07,0.068
-2.800E-07,0.068
-2.700E-07,0.088
-2.600E-07,0.124
-2.500E-07,0.156
-2.400E-07,0.160
-2.300E-07,0.136
-2.200E-07,0.100
-2.100E-07,0.072
-2.000E-07,0.060
-1.900E-07,0.072
-1.800E-07,0.092
-1.700E-07,0.100
-1.600E-07,0.092
-1.500E-07,0.080
-1.400E-07,0.068
-1.300E-07,0.048
-1.200E-07,0.044
-1.100E-07,0.036
-1.000E-07,0.044
-9.000E-08,0.072
-8.000E-08,0.084
-7.000E-08,-0.156
-6.000E-08,-0.492
-5.000E-08,-0.512
-4.000E-08,-0.512
-3.000E-08,-0.384
-2.000E-08,-0.164
-1.000E-08,0.300
0.000E+00,0.484
1.000E-08,0.480
2.000E-08,0.032
3.000E-08,-0.384
4.000E-08,-0.488
5.000E-08,-0.316
6.000E-08,-0.012
7.000E-08,0.288
8.000E-08,0.428
9.000E-08,0.144
1.000E-07,-0.056
1.100E-07,-0.172
1.200E-07,-0.148
1.300E-07,-0.112
1.400E-07,-0.016
1.500E-07,0.060
1.600E-07,0.136
1.700E-07,0.140
1.800E-07,0.064
1.900E-07,0.024
2.000E-07,-0.044
2.100E-07,-0.068
2.200E-07,-0.064
2.300E-07,0.000
2.400E-07,0.024
2.500E-07,0.056
2.600E-07,0.060
2.700E-07,0.044
2.800E-07,0.028
2.900E-07,-0.008
3.000E-07,-0.056
3.100E-07,-0.068
3.200E-07,-0.036
3.300E-07,0.008
3.400E-07,0.064
3.500E-07,0.120
3.600E-07,0.128
3.700E-07,0.068
3.800E-07,-0.008
3.900E-07,-0.056
4.000E-07,-0.064
4.100E-07,-0.008
4.200E-07,0.076
4.300E-07,0.168
4.400E-07,0.200
4.500E-07,0.176
4.600E-07,0.088
4.700E-07,0.024
4.800E-07,-0.040
4.900E-07,-0.060
5.000E-07,-0.068
5.100E-07,-0.104
5.200E-07,-0.144
5.300E-07,-0.172
5.400E-07,-0.180
5.500E-07,-0.136
5.600E-07,-0.028
5.700E-07,0.044
5.800E-07,0.072
5.900E-07,0.032
6.000E-07,0.000
6.100E-07,-0.016
6.200E-07,-0.008
6.300E-07,0.008
6.400E-07,0.020
6.500E-07,0.020
6.600E-07,-0.004
6.700E-07,0.000
6.800E-07,-0.008
6.900E-07,-0.004
7.000E-07,-0.004
7.100E-07,-0.004
7.200E-07,-0.004
7.300E-07,0.000
7.400E-07,-0.004
7.500E-07,-0.004
7.600E-07,0.020
7.700E-07,0.040
7.800E-07,0.040
7.900E-07,0.024
8.000E-07,0.028
8.100E-07,0.024
8.200E-07,-0.008
8.300E-07,0.012
8.400E-07,0.028
8.500E-07,0.032
8.600E-07,0.060
8.700E-07,0.076
8.800E-07,0.072
8.900E-07,0.068
9.000E-07,0.052
9.100E-07,0.056
9.200E-07,0.064
9.300E-07,0.080
9.400E-07,0.080
9.500E-07,0.064
9.600E-07,0.028
9.700E-07,0.028
9.800E-07,0.036
9.900E-07,0.028
1.000E-06,0.044
1.010E-06,0.060
1.020E-06,0.108
1.030E-06,0.136
1.040E-06,0.140
1.050E-06,0.120
1.060E-06,0.080
1.070E-06,0.016
1.080E-06,-0.024
1.090E-06,0.028
1.100E-06,0.080
1.110E-06,0.120
1.120E-06,0.092
1.130E-06,0.056
1.140E-06,0.020
1.150E-06,-0.004
1.160E-06,0.008
1.170E-06,0.048
1.180E-06,0.076
1.190E-06,0.092
1.200E-06,0.092
1.210E-06,0.068
1.220E-06,0.044
1.230E-06,0.028
1.240E-06,0.044
1.250E-06,0.068
1.260E-06,0.088
1.270E-06,-0.020
1.280E-06,-0.172
1.290E-06,-0.420
1.300E-06,-0.512
1.310E-06,-0.392
1.320E-06,-0.124
1.330E-06,0.208
1.340E-06,0.356
1.350E-06,0.328
1.360E-06,0.124
1.370E-06,-0.068
1.380E-06,-0.228
1.390E-06,-0.212
1.400E-06,-0.120
1.410E-06,0.032
1.420E-06,0.120
1.430E-06,0.124
1.440E-06,0.104
1.450E-06,0.012
1.460E-06,-0.060
1.470E-06,-0.084
1.480E-06,-0.020
1.490E-06,0.044
1.500E-06,0.116
1.510E-06,0.056
1.520E-06,-0.048
1.530E-06,-0.152
1.540E-06,-0.168
1.550E-06,-0.084
1.560E-06,0.040
1.570E-06,0.108
1.580E-06,0.088
1.590E-06,0.032
1.600E-06,-0.032
1.610E-06,-0.080
1.620E-06,-0.088
1.630E-06,-0.040
1.640E-06,0.024
1.650E-06,0.092
1.660E-06,0.076
1.670E-06,0.092
1.680E-06,0.072
1.690E-06,0.032
1.700E-06,0.016
1.710E-06,0.020
1.720E-06,0.064
1.730E-06,0.080
1.740E-06,0.088
1.750E-06,0.052
1.760E-06,0.016
1.770E-06,0.008
1.780E-06,0.036
1.790E-06,0.136
1.800E-06,0.216
1.810E-06,0.236
1.820E-06,0.196
1.830E-06,0.124
1.840E-06,0.060
1.850E-06,0.040
1.860E-06,0.048
1.870E-06,0.088
1.880E-06,0.124
1.890E-06,0.148
1.900E-06,0.128
1.910E-06,0.068
1.920E-06,0.004
1.930E-06,-0.032
1.940E-06,-0.024
1.950E-06,0.016
1.960E-06,0.076
1.970E-06,0.116
1.980E-06,0.124
1.990E-06,0.088
2.000E-06,0.032
2.010E-06,-0.004
2.020E-06,0.000
2.030E-06,0.056
2.040E-06,0.128
2.050E-06,0.188
2.060E-06,0.224
2.070E-06,0.200
2.080E-06,0.136
2.090E-06,0.032
2.100E-06,-0.056
2.110E-06,-0.104
2.120E-06,-0.072
2.130E-06,-0.008
2.140E-06,0.088
2.150E-06,0.180
2.160E-06,0.188
2.170E-06,0.140
2.180E-06,0.076
2.190E-06,-0.004
2.200E-06,-0.048
2.210E-06,-0.008
2.220E-06,0.052
2.230E-06,0.092
2.240E-06,0.076
2.250E-06,-0.028
2.260E-06,-0.132
2.270E-06,-0.176
2.280E-06,-0.196
2.290E-06,-0.168
2.300E-06,-0.108
2.310E-06,-0.128
2.320E-06,-0.068
2.330E-06,-0.032
2.340E-06,-0.032
2.350E-06,0.028
2.360E-06,0.060
2.370E-06,0.040
2.380E-06,0.032
2.390E-06,-0.072
2.400E-06,-0.180
2.410E-06,-0.196
2.420E-06,-0.144
2.430E-06,-0.008
2.440E-06,0.128
2.450E-06,0.180
2.460E-06,0.100
2.470E-06,-0.060
2.480E-06,-0.236
2.490E-06,-0.308
2.500E-06,-0.256
2.510E-06,-0.088
2.520E-06,0.100
2.530E-06,0.196
2.540E-06,0.124
2.550E-06,-0.088
2.560E-06,-0.264
2.570E-06,-0.328
2.580E-06,-0.196
2.590E-06,0.012
2.600E-06,0.212
2.610E-06,0.272
2.620E-06,0.208
2.630E-06,0.056
2.640E-06,-0.100
2.650E-06,-0.180
2.660E-06,-0.156
2.670E-06,-0.028
2.680E-06,0.148
2.690E-06,0.248
2.700E-06,0.240
2.710E-06,0.152
2.720E-06,0.024
2.730E-06,-0.072
2.740E-06,-0.064
2.750E-06,0.036
2.760E-06,0.188
2.770E-06,0.300
2.780E-06,0.328
2.790E-06,0.240
2.800E-06,0.104
2.810E-06,-0.008
2.820E-06,-0.032
2.830E-06,0.044
2.840E-06,0.172
2.850E-06,0.284
2.860E-06,0.316
2.870E-06,0.272
2.880E-06,0.164
2.890E-06,0.072
2.900E-06,0.028
2.910E-06,0.064
2.920E-06,0.160
2.930E-06,0.248
2.940E-06,0.288
2.950E-06,0.260
2.960E-06,0.184
2.970E-06,0.100
2.980E-06,0.060
2.990E-06,0.072
3.000E-06,0.140
3.010E-06,0.212
3.020E-06,0.256
3.030E-06,0.252
3.040E-06,0.204
3.050E-06,0.140
3.060E-06,0.104
3.070E-06,0.108
3.080E-06,0.160
3.090E-06,0.212
3.100E-06,0.244
3.110E-06,0.236
3.120E-06,0.200
3.130E-06,0.148
3.140E-06,0.124
3.150E-06,0.108
3.160E-06,0.128
3.170E-06,0.144
3.180E-06,0.152
3.190E-06,0.140
3.200E-06,0.104
3.210E-06,0.068
3.220E-06,0.032
3.230E-06,0.008
3.240E-06,0.004
3.250E-06,0.012
3.260E-06,0.012
3.270E-06,0.024
