mediciones/Mediciones filtradas (saque las feas)/5-15/12.6/WaveData4752.csv

#timebase=2000000(ps)
,#voltbase=100000(mv/100)
#size=4000
-8.400E-06,0.044
-8.390E-06,0.016
-8.380E-06,0.000
-8.370E-06,-0.020
-8.360E-06,-0.028
-8.350E-06,-0.004
-8.340E-06,0.000
-8.330E-06,0.024
-8.320E-06,0.012
-8.310E-06,0.016
-8.300E-06,-0.004
-8.290E-06,-0.008
-8.280E-06,-0.004
-8.270E-06,0.008
-8.260E-06,0.024
-8.250E-06,0.024
-8.240E-06,0.016
-8.230E-06,-0.008
-8.220E-06,-0.012
-8.210E-06,-0.004
-8.200E-06,0.004
-8.190E-06,0.020
-8.180E-06,0.024
-8.170E-06,0.024
-8.160E-06,0.008
-8.150E-06,0.000
-8.140E-06,-0.004
-8.130E-06,0.008
-8.120E-06,0.024
-8.110E-06,0.040
-8.100E-06,0.048
-8.090E-06,0.040
-8.080E-06,0.024
-8.070E-06,-0.008
-8.060E-06,-0.036
-8.050E-06,-0.048
-8.040E-06,-0.040
-8.030E-06,-0.012
-8.020E-06,0.044
-8.010E-06,0.076
-8.000E-06,0.060
-7.990E-06,0.004
-7.980E-06,-0.032
-7.970E-06,-0.028
-7.960E-06,-0.004
-7.950E-06,-0.120
-7.940E-06,-0.108
-7.930E-06,-0.028
-7.920E-06,0.072
-7.910E-06,0.032
-7.900E-06,0.056
-7.890E-06,0.036
-7.880E-06,-0.012
-7.870E-06,-0.044
-7.860E-06,-0.092
-7.850E-06,-0.012
-7.840E-06,0.032
-7.830E-06,0.092
-7.820E-06,0.056
-7.810E-06,0.004
-7.800E-06,-0.068
-7.790E-06,-0.036
-7.780E-06,0.000
-7.770E-06,0.036
-7.760E-06,0.036
-7.750E-06,0.012
-7.740E-06,0.000
-7.730E-06,-0.004
-7.720E-06,0.004
-7.710E-06,-0.004
-7.700E-06,0.004
-7.690E-06,0.004
-7.680E-06,0.016
-7.670E-06,0.008
-7.660E-06,0.012
-7.650E-06,-0.004
-7.640E-06,-0.008
-7.630E-06,-0.004
-7.620E-06,-0.004
-7.610E-06,0.008
-7.600E-06,0.004
-7.590E-06,0.008
-7.580E-06,0.000
-7.570E-06,0.008
-7.560E-06,0.000
-7.550E-06,0.004
-7.540E-06,0.012
-7.530E-06,0.008
-7.520E-06,0.012
-7.510E-06,0.008
-7.500E-06,-0.004
-7.490E-06,-0.008
-7.480E-06,-0.004
-7.470E-06,0.008
-7.460E-06,0.024
-7.450E-06,0.040
-7.440E-06,0.040
-7.430E-06,0.012
-7.420E-06,-0.024
-7.410E-06,-0.040
-7.400E-06,-0.032
-7.390E-06,0.008
-7.380E-06,0.048
-7.370E-06,0.084
-7.360E-06,0.064
-7.350E-06,0.028
-7.340E-06,-0.024
-7.330E-06,-0.040
-7.320E-06,-0.028
-7.310E-06,0.016
-7.300E-06,0.056
-7.290E-06,0.064
-7.280E-06,0.052
-7.270E-06,0.020
-7.260E-06,0.008
-7.250E-06,-0.076
-7.240E-06,-0.132
-7.230E-06,-0.204
-7.220E-06,-0.144
-7.210E-06,0.108
-7.200E-06,0.204
-7.190E-06,0.232
-7.180E-06,0.004
-7.170E-06,-0.128
-7.160E-06,-0.188
-7.150E-06,-0.132
-7.140E-06,-0.044
-7.130E-06,0.076
-7.120E-06,0.180
-7.110E-06,0.096
-7.100E-06,0.000
-7.090E-06,-0.104
-7.080E-06,-0.072
-7.070E-06,-0.044
-7.060E-06,0.040
-7.050E-06,0.044
-7.040E-06,0.040
-7.030E-06,0.004
-7.020E-06,-0.008
-7.010E-06,0.008
-7.000E-06,0.008
-6.990E-06,0.016
-6.980E-06,-0.008
-6.970E-06,0.008
-6.960E-06,-0.008
-6.950E-06,0.004
-6.940E-06,0.008
-6.930E-06,0.016
-6.920E-06,0.012
-6.910E-06,0.008
-6.900E-06,0.000
-6.890E-06,-0.004
-6.880E-06,-0.012
-6.870E-06,-0.016
-6.860E-06,0.000
-6.850E-06,0.016
-6.840E-06,0.040
-6.830E-06,0.028
-6.820E-06,0.024
-6.810E-06,-0.008
-6.800E-06,-0.024
-6.790E-06,-0.028
-6.780E-06,-0.008
-6.770E-06,0.012
-6.760E-06,0.044
-6.750E-06,0.064
-6.740E-06,0.052
-6.730E-06,0.024
-6.720E-06,-0.004
-6.710E-06,-0.028
-6.700E-06,-0.052
-6.690E-06,-0.052
-6.680E-06,-0.028
-6.670E-06,0.028
-6.660E-06,0.080
-6.650E-06,0.096
-6.640E-06,0.056
-6.630E-06,-0.012
-6.620E-06,-0.068
-6.610E-06,-0.076
-6.600E-06,-0.016
-6.590E-06,0.060
-6.580E-06,0.120
-6.570E-06,0.112
-6.560E-06,0.052
-6.550E-06,-0.016
-6.540E-06,-0.048
-6.530E-06,-0.040
-6.520E-06,-0.020
-6.510E-06,0.064
-6.500E-06,-0.064
-6.490E-06,-0.112
-6.480E-06,-0.016
-6.470E-06,0.108
-6.460E-06,0.088
-6.450E-06,0.044
-6.440E-06,0.032
-6.430E-06,0.012
-6.420E-06,-0.260
-6.410E-06,-0.364
-6.400E-06,-0.124
-6.390E-06,0.176
-6.380E-06,0.164
-6.370E-06,0.260
-6.360E-06,0.112
-6.350E-06,-0.096
-6.340E-06,-0.216
-6.330E-06,-0.240
-6.320E-06,-0.040
-6.310E-06,0.104
-6.300E-06,0.212
-6.290E-06,0.132
-6.280E-06,0.052
-6.270E-06,-0.124
-6.260E-06,-0.124
-6.250E-06,-0.072
-6.240E-06,0.028
-6.230E-06,0.060
-6.220E-06,0.064
-6.210E-06,0.056
-6.200E-06,0.004
-6.190E-06,-0.004
-6.180E-06,-0.048
-6.170E-06,-0.020
-6.160E-06,-0.024
-6.150E-06,0.032
-6.140E-06,0.036
-6.130E-06,0.044
-6.120E-06,0.012
-6.110E-06,-0.012
-6.100E-06,-0.020
-6.090E-06,-0.008
-6.080E-06,0.024
-6.070E-06,0.036
-6.060E-06,0.060
-6.050E-06,0.016
-6.040E-06,-0.004
-6.030E-06,-0.056
-6.020E-06,-0.060
-6.010E-06,-0.020
-6.000E-06,0.036
-5.990E-06,0.088
-5.980E-06,0.076
-5.970E-06,0.028
-5.960E-06,-0.036
-5.950E-06,-0.056
-5.940E-06,-0.044
-5.930E-06,0.012
-5.920E-06,0.060
-5.910E-06,0.088
-5.900E-06,0.064
-5.890E-06,0.008
-5.880E-06,-0.036
-5.870E-06,-0.060
-5.860E-06,-0.024
-5.850E-06,0.024
-5.840E-06,0.076
-5.830E-06,0.088
-5.820E-06,0.060
-5.810E-06,0.012
-5.800E-06,-0.004
-5.790E-06,-0.088
-5.780E-06,-0.152
-5.770E-06,-0.100
-5.760E-06,-0.080
-5.750E-06,0.048
-5.740E-06,0.168
-5.730E-06,0.276
-5.720E-06,0.076
-5.710E-06,-0.144
-5.700E-06,-0.196
-5.690E-06,-0.108
-5.680E-06,0.088
-5.670E-06,0.128
-5.660E-06,0.072
-5.650E-06,-0.136
-5.640E-06,-0.240
-5.630E-06,-0.156
-5.620E-06,0.060
-5.610E-06,0.200
-5.600E-06,0.140
-5.590E-06,0.028
-5.580E-06,-0.068
-5.570E-06,-0.100
-5.560E-06,-0.068
-5.550E-06,0.008
-5.540E-06,0.048
-5.530E-06,0.040
-5.520E-06,0.020
-5.510E-06,0.008
-5.500E-06,0.008
-5.490E-06,-0.004
-5.480E-06,-0.008
-5.470E-06,-0.028
-5.460E-06,-0.024
-5.450E-06,-0.004
-5.440E-06,0.028
-5.430E-06,0.044
-5.420E-06,0.032
-5.410E-06,-0.004
-5.400E-06,-0.032
-5.390E-06,-0.032
-5.380E-06,-0.008
-5.370E-06,0.016
-5.360E-06,0.032
-5.350E-06,0.040
-5.340E-06,0.028
-5.330E-06,-0.004
-5.320E-06,-0.024
-5.310E-06,-0.032
-5.300E-06,-0.020
-5.290E-06,-0.004
-5.280E-06,0.020
-5.270E-06,0.036
-5.260E-06,0.040
-5.250E-06,0.016
-5.240E-06,-0.004
-5.230E-06,-0.020
-5.220E-06,-0.024
-5.210E-06,-0.008
-5.200E-06,0.012
-5.190E-06,0.036
-5.180E-06,0.052
-5.170E-06,0.044
-5.160E-06,0.024
-5.150E-06,0.000
-5.140E-06,-0.008
-5.130E-06,-0.008
-5.120E-06,-0.008
-5.110E-06,-0.012
-5.100E-06,0.008
-5.090E-06,0.044
-5.080E-06,0.080
-5.070E-06,0.092
-5.060E-06,0.056
-5.050E-06,-0.004
-5.040E-06,-0.036
-5.030E-06,-0.028
-5.020E-06,0.000
-5.010E-06,0.052
-5.000E-06,0.068
-4.990E-06,0.044
-4.980E-06,0.028
-4.970E-06,-0.004
-4.960E-06,-0.028
-4.950E-06,0.048
-4.940E-06,0.080
-4.930E-06,0.048
-4.920E-06,0.040
-4.910E-06,0.024
-4.900E-06,-0.004
-4.890E-06,-0.400
-4.880E-06,-0.396
-4.870E-06,-0.296
-4.860E-06,-0.056
-4.850E-06,0.368
-4.840E-06,0.480
-4.830E-06,0.268
-4.820E-06,-0.204
-4.810E-06,-0.312
-4.800E-06,-0.336
-4.790E-06,-0.060
-4.780E-06,0.116
-4.770E-06,0.244
-4.760E-06,0.196
-4.750E-06,0.084
-4.740E-06,-0.036
-4.730E-06,-0.172
-4.720E-06,-0.136
-4.710E-06,-0.100
-4.700E-06,0.060
-4.690E-06,0.100
-4.680E-06,0.168
-4.670E-06,0.076
-4.660E-06,0.024
-4.650E-06,-0.068
-4.640E-06,-0.096
-4.630E-06,-0.056
-4.620E-06,-0.008
-4.610E-06,0.076
-4.600E-06,0.072
-4.590E-06,0.064
-4.580E-06,-0.016
-4.570E-06,-0.024
-4.560E-06,-0.052
-4.550E-06,-0.008
-4.540E-06,0.016
-4.530E-06,0.044
-4.520E-06,0.056
-4.510E-06,0.028
-4.500E-06,0.012
-4.490E-06,-0.020
-4.480E-06,-0.008
-4.470E-06,-0.004
-4.460E-06,0.032
-4.450E-06,0.048
-4.440E-06,0.060
-4.430E-06,0.040
-4.420E-06,0.024
-4.410E-06,0.008
-4.400E-06,0.016
-4.390E-06,0.028
-4.380E-06,0.044
-4.370E-06,0.040
-4.360E-06,-0.004
-4.350E-06,-0.020
-4.340E-06,-0.200
-4.330E-06,-0.148
-4.320E-06,-0.196
-4.310E-06,-0.092
-4.300E-06,0.108
-4.290E-06,0.328
-4.280E-06,0.268
-4.270E-06,-0.052
-4.260E-06,-0.116
-4.250E-06,-0.208
-4.240E-06,-0.140
-4.230E-06,-0.084
-4.220E-06,0.072
-4.210E-06,0.056
-4.200E-06,0.088
-4.190E-06,0.064
-4.180E-06,-0.020
-4.170E-06,-0.052
-4.160E-06,-0.076
-4.150E-06,-0.036
-4.140E-06,-0.032
-4.130E-06,0.036
-4.120E-06,0.036
-4.110E-06,0.072
-4.100E-06,0.040
-4.090E-06,0.008
-4.080E-06,-0.040
-4.070E-06,-0.056
-4.060E-06,-0.028
-4.050E-06,0.004
-4.040E-06,0.064
-4.030E-06,0.056
-4.020E-06,0.048
-4.010E-06,-0.004
-4.000E-06,-0.032
-3.990E-06,-0.056
-3.980E-06,-0.024
-3.970E-06,-0.008
-3.960E-06,0.020
-3.950E-06,0.044
-3.940E-06,0.048
-3.930E-06,0.028
-3.920E-06,-0.004
-3.910E-06,-0.012
-3.900E-06,-0.024
-3.890E-06,0.000
-3.880E-06,0.008
-3.870E-06,0.024
-3.860E-06,0.036
-3.850E-06,0.028
-3.840E-06,0.020
-3.830E-06,-0.004
-3.820E-06,-0.020
-3.810E-06,-0.032
-3.800E-06,0.000
-3.790E-06,0.024
-3.780E-06,0.052
-3.770E-06,0.040
-3.760E-06,0.020
-3.750E-06,0.000
-3.740E-06,-0.020
-3.730E-06,-0.008
-3.720E-06,0.012
-3.710E-06,0.028
-3.700E-06,0.036
-3.690E-06,0.024
-3.680E-06,0.028
-3.670E-06,0.028
-3.660E-06,0.012
-3.650E-06,0.012
-3.640E-06,0.012
-3.630E-06,0.020
-3.620E-06,0.040
-3.610E-06,0.056
-3.600E-06,0.052
-3.590E-06,0.036
-3.580E-06,0.008
-3.570E-06,-0.008
-3.560E-06,-0.028
-3.550E-06,-0.032
-3.540E-06,-0.024
-3.530E-06,-0.008
-3.520E-06,0.016
-3.510E-06,0.036
-3.500E-06,0.032
-3.490E-06,0.020
-3.480E-06,0.024
-3.470E-06,0.020
-3.460E-06,0.048
-3.450E-06,0.084
-3.440E-06,0.140
-3.430E-06,0.012
-3.420E-06,-0.320
-3.410E-06,-0.452
-3.400E-06,-0.308
-3.390E-06,0.056
-3.380E-06,0.276
-3.370E-06,0.492
-3.360E-06,0.260
-3.350E-06,-0.004
-3.340E-06,-0.232
-3.330E-06,-0.296
-3.320E-06,-0.172
-3.310E-06,-0.052
-3.300E-06,-0.012
-3.290E-06,0.028
-3.280E-06,0.164
-3.270E-06,0.080
-3.260E-06,0.060
-3.250E-06,-0.080
-3.240E-06,-0.052
-3.230E-06,-0.108
-3.220E-06,-0.040
-3.210E-06,0.016
-3.200E-06,0.092
-3.190E-06,0.128
-3.180E-06,0.044
-3.170E-06,-0.016
-3.160E-06,-0.124
-3.150E-06,-0.080
-3.140E-06,-0.060
-3.130E-06,0.048
-3.120E-06,0.060
-3.110E-06,0.080
-3.100E-06,0.040
-3.090E-06,0.008
-3.080E-06,-0.024
-3.070E-06,-0.056
-3.060E-06,-0.028
-3.050E-06,-0.020
-3.040E-06,0.028
-3.030E-06,0.028
-3.020E-06,0.064
-3.010E-06,0.032
-3.000E-06,0.020
-2.990E-06,-0.012
-2.980E-06,-0.028
-2.970E-06,-0.036
-2.960E-06,-0.028
-2.950E-06,0.016
-2.940E-06,0.048
-2.930E-06,0.072
-2.920E-06,0.040
-2.910E-06,0.024
-2.900E-06,-0.008
-2.890E-06,-0.004
-2.880E-06,0.004
-2.870E-06,0.008
-2.860E-06,0.020
-2.850E-06,0.020
-2.840E-06,0.016
-2.830E-06,0.004
-2.820E-06,0.016
-2.810E-06,0.012
-2.800E-06,0.012
-2.790E-06,0.000
-2.780E-06,-0.008
-2.770E-06,-0.008
-2.760E-06,-0.008
-2.750E-06,0.008
-2.740E-06,0.024
-2.730E-06,0.032
-2.720E-06,0.020
-2.710E-06,0.004
-2.700E-06,-0.004
-2.690E-06,-0.008
-2.680E-06,-0.004
-2.670E-06,0.020
-2.660E-06,0.048
-2.650E-06,0.060
-2.640E-06,0.060
-2.630E-06,0.060
-2.620E-06,0.032
-2.610E-06,-0.008
-2.600E-06,-0.176
-2.590E-06,-0.172
-2.580E-06,-0.216
-2.570E-06,-0.092
-2.560E-06,0.136
-2.550E-06,0.228
-2.540E-06,0.156
-2.530E-06,-0.072
-2.520E-06,-0.136
-2.510E-06,-0.140
-2.500E-06,-0.036
-2.490E-06,0.024
-2.480E-06,0.124
-2.470E-06,0.100
-2.460E-06,0.048
-2.450E-06,-0.036
-2.440E-06,-0.096
-2.430E-06,-0.080
-2.420E-06,-0.032
-2.410E-06,0.040
-2.400E-06,0.064
-2.390E-06,0.088
-2.380E-06,0.028
-2.370E-06,0.004
-2.360E-06,-0.040
-2.350E-06,-0.036
-2.340E-06,-0.008
-2.330E-06,0.044
-2.320E-06,0.088
-2.310E-06,0.068
-2.300E-06,0.020
-2.290E-06,-0.032
-2.280E-06,-0.052
-2.270E-06,-0.032
-2.260E-06,-0.032
-2.250E-06,-0.036
-2.240E-06,-0.036
-2.230E-06,-0.028
-2.220E-06,0.008
-2.210E-06,0.032
-2.200E-06,0.060
-2.190E-06,0.016
-2.180E-06,-0.024
-2.170E-06,-0.052
-2.160E-06,-0.024
-2.150E-06,0.016
-2.140E-06,0.060
-2.130E-06,0.044
-2.120E-06,0.012
-2.110E-06,-0.028
-2.100E-06,-0.044
-2.090E-06,-0.020
-2.080E-06,0.016
-2.070E-06,0.056
-2.060E-06,0.044
-2.050E-06,0.020
-2.040E-06,-0.012
-2.030E-06,-0.024
-2.020E-06,-0.016
-2.010E-06,0.008
-2.000E-06,0.044
-1.990E-06,0.060
-1.980E-06,0.060
-1.970E-06,0.032
-1.960E-06,0.004
-1.950E-06,-0.008
-1.940E-06,-0.004
-1.930E-06,0.016
-1.920E-06,0.040
-1.910E-06,0.036
-1.900E-06,0.032
-1.890E-06,0.012
-1.880E-06,0.000
-1.870E-06,-0.008
-1.860E-06,-0.060
-1.850E-06,-0.084
-1.840E-06,-0.064
-1.830E-06,0.000
-1.820E-06,0.072
-1.810E-06,0.076
-1.800E-06,0.012
-1.790E-06,-0.056
-1.780E-06,-0.072
-1.770E-06,-0.056
-1.760E-06,-0.004
-1.750E-06,0.044
-1.740E-06,0.056
-1.730E-06,0.036
-1.720E-06,-0.008
-1.710E-06,-0.028
-1.700E-06,-0.036
-1.690E-06,-0.020
-1.680E-06,0.004
-1.670E-06,0.024
-1.660E-06,0.040
-1.650E-06,0.048
-1.640E-06,0.020
-1.630E-06,-0.004
-1.620E-06,-0.024
-1.610E-06,-0.024
-1.600E-06,0.004
-1.590E-06,0.032
-1.580E-06,0.056
-1.570E-06,0.056
-1.560E-06,0.040
-1.550E-06,0.012
-1.540E-06,-0.004
-1.530E-06,0.004
-1.520E-06,0.020
-1.510E-06,0.056
-1.500E-06,0.072
-1.490E-06,0.076
-1.480E-06,0.060
-1.470E-06,0.044
-1.460E-06,0.024
-1.450E-06,0.028
-1.440E-06,0.024
-1.430E-06,0.032
-1.420E-06,0.056
-1.410E-06,0.096
-1.400E-06,0.044
-1.390E-06,-0.288
-1.380E-06,-0.348
-1.370E-06,-0.296
-1.360E-06,-0.040
-1.350E-06,0.112
-1.340E-06,0.372
-1.330E-06,0.272
-1.320E-06,0.000
-1.310E-06,-0.148
-1.300E-06,-0.264
-1.290E-06,-0.084
-1.280E-06,0.012
-1.270E-06,0.156
-1.260E-06,0.072
-1.250E-06,0.044
-1.240E-06,-0.032
-1.230E-06,-0.084
-1.220E-06,-0.156
-1.210E-06,-0.084
-1.200E-06,-0.032
-1.190E-06,0.024
-1.180E-06,0.120
-1.170E-06,0.076
-1.160E-06,0.088
-1.150E-06,-0.024
-1.140E-06,-0.064
-1.130E-06,-0.112
-1.120E-06,-0.020
-1.110E-06,0.012
-1.100E-06,0.072
-1.090E-06,0.124
-1.080E-06,0.092
-1.070E-06,0.068
-1.060E-06,0.012
-1.050E-06,-0.108
-1.040E-06,-0.232
-1.030E-06,-0.100
-1.020E-06,0.016
-1.010E-06,0.120
-1.000E-06,0.108
-9.900E-07,0.068
-9.800E-07,-0.008
-9.700E-07,-0.060
-9.600E-07,-0.036
-9.500E-07,-0.024
-9.400E-07,0.008
-9.300E-07,0.000
-9.200E-07,0.036
-9.100E-07,0.052
-9.000E-07,0.064
-8.900E-07,0.044
-8.800E-07,0.020
-8.700E-07,-0.028
-8.600E-07,-0.056
-8.500E-07,-0.036
-8.400E-07,-0.004
-8.300E-07,0.080
-8.200E-07,0.104
-8.100E-07,0.100
-8.000E-07,0.060
-7.900E-07,0.040
-7.800E-07,0.016
-7.700E-07,0.004
-7.600E-07,-0.040
-7.500E-07,-0.088
-7.400E-07,-0.120
-7.300E-07,-0.088
-7.200E-07,0.008
-7.100E-07,0.080
-7.000E-07,0.104
-6.900E-07,0.044
-6.800E-07,-0.036
-6.700E-07,-0.100
-6.600E-07,-0.076
-6.500E-07,-0.008
-6.400E-07,0.068
-6.300E-07,0.088
-6.200E-07,0.060
-6.100E-07,-0.008
-6.000E-07,-0.052
-5.900E-07,-0.044
-5.800E-07,-0.004
-5.700E-07,0.052
-5.600E-07,0.072
-5.500E-07,0.060
-5.400E-07,0.020
-5.300E-07,-0.008
-5.200E-07,-0.036
-5.100E-07,-0.020
-5.000E-07,0.004
-4.900E-07,0.056
-4.800E-07,0.088
-4.700E-07,0.092
-4.600E-07,0.056
-4.500E-07,0.008
-4.400E-07,-0.036
-4.300E-07,-0.040
-4.200E-07,0.028
-4.100E-07,0.128
-4.000E-07,0.204
-3.900E-07,0.192
-3.800E-07,0.076
-3.700E-07,-0.076
-3.600E-07,-0.188
-3.500E-07,-0.200
-3.400E-07,-0.100
-3.300E-07,0.072
-3.200E-07,0.208
-3.100E-07,0.216
-3.000E-07,0.084
-2.900E-07,-0.080
-2.800E-07,-0.196
-2.700E-07,-0.212
-2.600E-07,-0.100
-2.500E-07,0.056
-2.400E-07,0.156
-2.300E-07,0.140
-2.200E-07,0.004
-2.100E-07,-0.124
-2.000E-07,-0.192
-1.900E-07,-0.124
-1.800E-07,0.048
-1.700E-07,0.184
-1.600E-07,0.256
-1.500E-07,0.240
-1.400E-07,0.160
-1.300E-07,0.076
-1.200E-07,-0.032
-1.100E-07,-0.084
-1.000E-07,-0.068
-9.000E-08,0.028
-8.000E-08,0.188
-7.000E-08,0.272
-6.000E-08,0.156
-5.000E-08,-0.464
-4.000E-08,-0.512
-3.000E-08,-0.508
-2.000E-08,-0.420
-1.000E-08,0.160
0.000E+00,0.540
1.000E-08,0.544
2.000E-08,0.316
3.000E-08,-0.156
4.000E-08,-0.412
5.000E-08,-0.408
6.000E-08,-0.360
7.000E-08,-0.128
8.000E-08,-0.024
9.000E-08,0.100
1.000E-07,0.280
1.100E-07,0.352
1.200E-07,0.180
1.300E-07,-0.136
1.400E-07,-0.372
1.500E-07,-0.336
1.600E-07,-0.088
1.700E-07,0.172
1.800E-07,0.332
1.900E-07,0.264
2.000E-07,0.064
2.100E-07,-0.120
2.200E-07,-0.192
2.300E-07,-0.176
2.400E-07,-0.084
2.500E-07,0.052
2.600E-07,0.168
2.700E-07,0.208
2.800E-07,0.144
2.900E-07,0.008
3.000E-07,-0.136
3.100E-07,-0.180
3.200E-07,-0.120
3.300E-07,0.024
3.400E-07,0.160
3.500E-07,0.216
3.600E-07,0.176
3.700E-07,0.084
3.800E-07,-0.008
3.900E-07,-0.076
4.000E-07,-0.052
4.100E-07,0.020
4.200E-07,0.116
4.300E-07,0.164
4.400E-07,0.112
4.500E-07,0.008
4.600E-07,-0.072
4.700E-07,-0.096
4.800E-07,-0.060
4.900E-07,0.048
5.000E-07,0.140
5.100E-07,0.164
5.200E-07,0.056
5.300E-07,-0.072
5.400E-07,-0.196
5.500E-07,-0.224
5.600E-07,-0.160
5.700E-07,0.016
5.800E-07,0.156
5.900E-07,0.156
6.000E-07,0.080
6.100E-07,-0.016
6.200E-07,-0.080
6.300E-07,-0.116
6.400E-07,-0.072
6.500E-07,-0.036
6.600E-07,0.004
6.700E-07,0.024
6.800E-07,0.040
6.900E-07,0.056
7.000E-07,0.012
7.100E-07,-0.024
7.200E-07,-0.056
7.300E-07,-0.060
7.400E-07,-0.040
7.500E-07,0.020
7.600E-07,0.080
7.700E-07,0.096
7.800E-07,0.064
7.900E-07,0.016
8.000E-07,-0.020
8.100E-07,-0.044
8.200E-07,-0.008
8.300E-07,0.040
8.400E-07,0.096
8.500E-07,0.120
8.600E-07,0.116
8.700E-07,0.072
8.800E-07,0.032
8.900E-07,0.012
9.000E-07,0.020
9.100E-07,0.072
9.200E-07,0.144
9.300E-07,0.180
9.400E-07,0.192
9.500E-07,0.156
9.600E-07,0.124
9.700E-07,0.096
9.800E-07,0.092
9.900E-07,0.032
1.000E-06,-0.056
1.010E-06,-0.092
1.020E-06,-0.164
1.030E-06,-0.160
1.040E-06,-0.092
1.050E-06,0.020
1.060E-06,0.092
1.070E-06,0.068
1.080E-06,0.028
1.090E-06,-0.044
1.100E-06,-0.120
1.110E-06,-0.108
1.120E-06,-0.012
1.130E-06,0.040
1.140E-06,0.100
1.150E-06,0.056
1.160E-06,-0.004
1.170E-06,-0.060
1.180E-06,-0.072
1.190E-06,-0.032
1.200E-06,0.012
1.210E-06,0.056
1.220E-06,0.076
1.230E-06,0.076
1.240E-06,0.064
1.250E-06,0.080
1.260E-06,0.080
1.270E-06,0.060
1.280E-06,0.036
1.290E-06,0.072
1.300E-06,0.136
1.310E-06,0.196
1.320E-06,0.228
1.330E-06,0.220
1.340E-06,0.156
1.350E-06,0.092
1.360E-06,-0.004
1.370E-06,-0.128
1.380E-06,-0.188
1.390E-06,-0.164
1.400E-06,-0.036
1.410E-06,0.104
1.420E-06,0.228
1.430E-06,0.256
1.440E-06,0.176
1.450E-06,0.028
1.460E-06,-0.096
1.470E-06,-0.124
1.480E-06,-0.036
1.490E-06,0.092
1.500E-06,0.132
1.510E-06,0.132
1.520E-06,0.064
1.530E-06,-0.020
1.540E-06,-0.040
1.550E-06,0.008
1.560E-06,0.108
1.570E-06,0.204
1.580E-06,0.276
1.590E-06,0.284
1.600E-06,0.268
1.610E-06,0.176
1.620E-06,0.096
1.630E-06,0.068
1.640E-06,0.052
1.650E-06,0.136
1.660E-06,0.220
1.670E-06,0.244
1.680E-06,0.120
1.690E-06,-0.088
1.700E-06,-0.308
1.710E-06,-0.432
1.720E-06,-0.268
1.730E-06,-0.172
1.740E-06,0.008
1.750E-06,-0.316
1.760E-06,-0.512
1.770E-06,-0.512
1.780E-06,-0.404
1.790E-06,-0.128
1.800E-06,0.244
1.810E-06,0.524
1.820E-06,0.388
1.830E-06,0.092
1.840E-06,-0.196
1.850E-06,-0.100
1.860E-06,0.012
1.870E-06,0.224
1.880E-06,0.300
1.890E-06,0.224
1.900E-06,-0.040
1.910E-06,-0.416
1.920E-06,-0.512
1.930E-06,-0.508
1.940E-06,-0.508
1.950E-06,-0.304
1.960E-06,0.156
1.970E-06,0.320
1.980E-06,0.264
1.990E-06,-0.048
2.000E-06,-0.324
2.010E-06,-0.448
2.020E-06,-0.232
2.030E-06,0.080
2.040E-06,0.300
2.050E-06,0.332
2.060E-06,0.140
2.070E-06,-0.048
2.080E-06,-0.224
2.090E-06,-0.196
2.100E-06,-0.052
2.110E-06,0.176
2.120E-06,0.280
2.130E-06,0.328
2.140E-06,0.244
2.150E-06,0.072
2.160E-06,-0.064
2.170E-06,-0.140
2.180E-06,-0.028
2.190E-06,0.080
2.200E-06,0.148
2.210E-06,0.092
2.220E-06,0.004
2.230E-06,-0.116
2.240E-06,-0.144
2.250E-06,-0.096
2.260E-06,0.028
2.270E-06,0.132
2.280E-06,0.144
2.290E-06,0.100
2.300E-06,0.024
2.310E-06,-0.036
2.320E-06,-0.036
2.330E-06,0.068
2.340E-06,0.180
2.350E-06,0.236
2.360E-06,0.208
2.370E-06,0.104
2.380E-06,-0.012
2.390E-06,-0.028
2.400E-06,0.028
2.410E-06,0.132
2.420E-06,0.268
2.430E-06,0.328
2.440E-06,0.320
2.450E-06,0.220
2.460E-06,0.132
2.470E-06,0.052
2.480E-06,0.080
2.490E-06,0.160
2.500E-06,0.256
2.510E-06,0.312
2.520E-06,0.308
2.530E-06,0.228
2.540E-06,0.132
2.550E-06,0.068
2.560E-06,0.072
2.570E-06,0.160
2.580E-06,0.176
2.590E-06,0.264
2.600E-06,0.216
2.610E-06,-0.156
2.620E-06,-0.512
2.630E-06,-0.512
2.640E-06,-0.512
2.650E-06,-0.512
2.660E-06,-0.512
2.670E-06,0.192
2.680E-06,0.544
2.690E-06,0.544
2.700E-06,0.432
2.710E-06,-0.260
2.720E-06,-0.508
2.730E-06,-0.508
2.740E-06,-0.368
2.750E-06,0.028
2.760E-06,0.540
2.770E-06,0.536
2.780E-06,0.540
2.790E-06,0.336
2.800E-06,-0.156
2.810E-06,-0.480
2.820E-06,-0.512
2.830E-06,-0.240
2.840E-06,0.208
2.850E-06,0.540
2.860E-06,0.540
2.870E-06,0.404
2.880E-06,0.028
2.890E-06,-0.320
2.900E-06,-0.472
2.910E-06,-0.348
2.920E-06,-0.036
2.930E-06,0.312
2.940E-06,0.536
2.950E-06,0.536
2.960E-06,0.276
2.970E-06,-0.080
2.980E-06,-0.260
2.990E-06,-0.252
3.000E-06,-0.012
3.010E-06,0.260
3.020E-06,0.504
3.030E-06,0.540
3.040E-06,0.400
3.050E-06,0.132
3.060E-06,-0.136
3.070E-06,-0.240
3.080E-06,-0.164
3.090E-06,0.080
3.100E-06,0.312
3.110E-06,0.452
3.120E-06,0.408
3.130E-06,0.244
3.140E-06,0.040
3.150E-06,-0.100
3.160E-06,-0.076
3.170E-06,0.072
3.180E-06,0.304
3.190E-06,0.468
3.200E-06,0.512
3.210E-06,0.420
3.220E-06,0.260
