mediciones/Mediciones filtradas (saque las feas)/5-15/12.6/WaveData4738.csv

#timebase=2000000(ps)
,#voltbase=100000(mv/100)
#size=4000
-8.400E-06,-0.004
-8.390E-06,0.000
-8.380E-06,0.004
-8.370E-06,0.008
-8.360E-06,0.004
-8.350E-06,0.004
-8.340E-06,0.008
-8.330E-06,0.000
-8.320E-06,0.000
-8.310E-06,-0.008
-8.300E-06,0.004
-8.290E-06,0.008
-8.280E-06,0.004
-8.270E-06,0.004
-8.260E-06,0.000
-8.250E-06,0.000
-8.240E-06,-0.004
-8.230E-06,0.004
-8.220E-06,0.004
-8.210E-06,0.008
-8.200E-06,-0.004
-8.190E-06,0.000
-8.180E-06,0.000
-8.170E-06,0.004
-8.160E-06,0.012
-8.150E-06,0.000
-8.140E-06,0.000
-8.130E-06,-0.004
-8.120E-06,-0.004
-8.110E-06,0.000
-8.100E-06,0.008
-8.090E-06,0.012
-8.080E-06,0.012
-8.070E-06,0.008
-8.060E-06,0.000
-8.050E-06,-0.004
-8.040E-06,0.000
-8.030E-06,0.004
-8.020E-06,0.008
-8.010E-06,0.008
-8.000E-06,0.004
-7.990E-06,0.000
-7.980E-06,0.000
-7.970E-06,-0.004
-7.960E-06,0.004
-7.950E-06,0.008
-7.940E-06,0.000
-7.930E-06,0.004
-7.920E-06,0.004
-7.910E-06,0.004
-7.900E-06,0.008
-7.890E-06,0.008
-7.880E-06,0.000
-7.870E-06,0.000
-7.860E-06,0.004
-7.850E-06,0.000
-7.840E-06,0.008
-7.830E-06,0.000
-7.820E-06,0.000
-7.810E-06,0.000
-7.800E-06,0.000
-7.790E-06,0.000
-7.780E-06,0.000
-7.770E-06,0.008
-7.760E-06,0.012
-7.750E-06,0.008
-7.740E-06,0.004
-7.730E-06,0.000
-7.720E-06,0.000
-7.710E-06,0.004
-7.700E-06,0.008
-7.690E-06,0.008
-7.680E-06,0.000
-7.670E-06,0.000
-7.660E-06,0.000
-7.650E-06,0.000
-7.640E-06,0.000
-7.630E-06,0.004
-7.620E-06,0.008
-7.610E-06,0.012
-7.600E-06,0.004
-7.590E-06,0.008
-7.580E-06,0.004
-7.570E-06,0.000
-7.560E-06,-0.004
-7.550E-06,0.004
-7.540E-06,0.000
-7.530E-06,0.008
-7.520E-06,0.012
-7.510E-06,0.012
-7.500E-06,0.008
-7.490E-06,0.004
-7.480E-06,-0.004
-7.470E-06,-0.004
-7.460E-06,0.000
-7.450E-06,0.008
-7.440E-06,0.012
-7.430E-06,0.012
-7.420E-06,0.012
-7.410E-06,0.004
-7.400E-06,-0.004
-7.390E-06,0.000
-7.380E-06,-0.004
-7.370E-06,0.008
-7.360E-06,0.008
-7.350E-06,0.012
-7.340E-06,0.012
-7.330E-06,0.004
-7.320E-06,0.000
-7.310E-06,-0.004
-7.300E-06,-0.004
-7.290E-06,-0.008
-7.280E-06,0.012
-7.270E-06,-0.016
-7.260E-06,-0.012
-7.250E-06,-0.012
-7.240E-06,0.004
-7.230E-06,0.020
-7.220E-06,0.024
-7.210E-06,0.012
-7.200E-06,-0.024
-7.190E-06,-0.024
-7.180E-06,-0.028
-7.170E-06,-0.004
-7.160E-06,0.028
-7.150E-06,0.040
-7.140E-06,0.016
-7.130E-06,0.000
-7.120E-06,-0.024
-7.110E-06,-0.028
-7.100E-06,-0.008
-7.090E-06,0.024
-7.080E-06,0.032
-7.070E-06,0.028
-7.060E-06,0.004
-7.050E-06,-0.008
-7.040E-06,-0.012
-7.030E-06,-0.004
-7.020E-06,0.008
-7.010E-06,0.012
-7.000E-06,0.016
-6.990E-06,0.008
-6.980E-06,0.004
-6.970E-06,-0.004
-6.960E-06,-0.004
-6.950E-06,0.000
-6.940E-06,0.004
-6.930E-06,0.012
-6.920E-06,0.008
-6.910E-06,0.004
-6.900E-06,0.004
-6.890E-06,-0.004
-6.880E-06,0.000
-6.870E-06,0.000
-6.860E-06,0.008
-6.850E-06,0.012
-6.840E-06,0.016
-6.830E-06,0.012
-6.820E-06,-0.004
-6.810E-06,-0.004
-6.800E-06,-0.008
-6.790E-06,-0.008
-6.780E-06,0.012
-6.770E-06,0.016
-6.760E-06,0.016
-6.750E-06,0.012
-6.740E-06,0.000
-6.730E-06,-0.004
-6.720E-06,-0.004
-6.710E-06,0.000
-6.700E-06,0.008
-6.690E-06,0.008
-6.680E-06,0.008
-6.670E-06,0.016
-6.660E-06,0.012
-6.650E-06,0.004
-6.640E-06,-0.004
-6.630E-06,-0.008
-6.620E-06,-0.004
-6.610E-06,0.000
-6.600E-06,0.012
-6.590E-06,0.024
-6.580E-06,0.024
-6.570E-06,0.008
-6.560E-06,-0.004
-6.550E-06,-0.012
-6.540E-06,-0.004
-6.530E-06,0.008
-6.520E-06,0.024
-6.510E-06,0.020
-6.500E-06,0.008
-6.490E-06,0.000
-6.480E-06,-0.008
-6.470E-06,-0.012
-6.460E-06,-0.008
-6.450E-06,0.016
-6.440E-06,0.012
-6.430E-06,-0.008
-6.420E-06,-0.008
-6.410E-06,-0.020
-6.400E-06,-0.008
-6.390E-06,0.008
-6.380E-06,0.024
-6.370E-06,0.016
-6.360E-06,-0.004
-6.350E-06,-0.008
-6.340E-06,-0.008
-6.330E-06,0.008
-6.320E-06,0.012
-6.310E-06,0.004
-6.300E-06,-0.004
-6.290E-06,-0.008
-6.280E-06,-0.004
-6.270E-06,0.004
-6.260E-06,0.020
-6.250E-06,0.024
-6.240E-06,0.012
-6.230E-06,-0.008
-6.220E-06,-0.024
-6.210E-06,-0.008
-6.200E-06,0.000
-6.190E-06,0.012
-6.180E-06,0.016
-6.170E-06,0.012
-6.160E-06,-0.004
-6.150E-06,-0.008
-6.140E-06,-0.004
-6.130E-06,0.000
-6.120E-06,0.008
-6.110E-06,0.004
-6.100E-06,0.004
-6.090E-06,0.000
-6.080E-06,0.000
-6.070E-06,0.000
-6.060E-06,0.004
-6.050E-06,0.000
-6.040E-06,-0.004
-6.030E-06,-0.004
-6.020E-06,0.004
-6.010E-06,0.004
-6.000E-06,0.012
-5.990E-06,0.008
-5.980E-06,0.000
-5.970E-06,-0.012
-5.960E-06,0.000
-5.950E-06,-0.004
-5.940E-06,0.008
-5.930E-06,0.008
-5.920E-06,0.008
-5.910E-06,0.004
-5.900E-06,0.000
-5.890E-06,-0.004
-5.880E-06,0.000
-5.870E-06,0.008
-5.860E-06,0.012
-5.850E-06,0.008
-5.840E-06,-0.004
-5.830E-06,-0.004
-5.820E-06,0.000
-5.810E-06,0.000
-5.800E-06,0.012
-5.790E-06,0.016
-5.780E-06,0.004
-5.770E-06,0.000
-5.760E-06,-0.008
-5.750E-06,-0.004
-5.740E-06,0.000
-5.730E-06,0.008
-5.720E-06,0.020
-5.710E-06,0.012
-5.700E-06,0.000
-5.690E-06,-0.004
-5.680E-06,-0.008
-5.670E-06,0.000
-5.660E-06,0.008
-5.650E-06,0.012
-5.640E-06,0.012
-5.630E-06,0.012
-5.620E-06,-0.008
-5.610E-06,0.008
-5.600E-06,0.000
-5.590E-06,0.004
-5.580E-06,0.004
-5.570E-06,0.004
-5.560E-06,0.008
-5.550E-06,0.016
-5.540E-06,0.008
-5.530E-06,-0.004
-5.520E-06,-0.004
-5.510E-06,0.004
-5.500E-06,0.004
-5.490E-06,0.004
-5.480E-06,0.012
-5.470E-06,0.008
-5.460E-06,0.000
-5.450E-06,0.000
-5.440E-06,-0.004
-5.430E-06,0.004
-5.420E-06,0.012
-5.410E-06,0.024
-5.400E-06,0.008
-5.390E-06,-0.004
-5.380E-06,-0.020
-5.370E-06,-0.016
-5.360E-06,-0.008
-5.350E-06,0.008
-5.340E-06,0.032
-5.330E-06,0.028
-5.320E-06,0.020
-5.310E-06,0.012
-5.300E-06,0.004
-5.290E-06,-0.008
-5.280E-06,-0.004
-5.270E-06,0.004
-5.260E-06,0.016
-5.250E-06,0.012
-5.240E-06,0.012
-5.230E-06,0.004
-5.220E-06,-0.004
-5.210E-06,-0.004
-5.200E-06,0.004
-5.190E-06,0.008
-5.180E-06,0.016
-5.170E-06,0.016
-5.160E-06,0.016
-5.150E-06,0.008
-5.140E-06,0.004
-5.130E-06,0.000
-5.120E-06,0.004
-5.110E-06,0.008
-5.100E-06,0.008
-5.090E-06,0.012
-5.080E-06,0.012
-5.070E-06,0.024
-5.060E-06,0.020
-5.050E-06,0.012
-5.040E-06,0.000
-5.030E-06,-0.008
-5.020E-06,-0.008
-5.010E-06,0.000
-5.000E-06,0.012
-4.990E-06,0.024
-4.980E-06,0.020
-4.970E-06,0.020
-4.960E-06,0.012
-4.950E-06,0.004
-4.940E-06,0.000
-4.930E-06,0.008
-4.920E-06,0.012
-4.910E-06,0.008
-4.900E-06,0.020
-4.890E-06,0.016
-4.880E-06,0.004
-4.870E-06,0.008
-4.860E-06,0.012
-4.850E-06,0.008
-4.840E-06,0.020
-4.830E-06,0.024
-4.820E-06,0.024
-4.810E-06,0.012
-4.800E-06,0.004
-4.790E-06,0.000
-4.780E-06,0.000
-4.770E-06,0.012
-4.760E-06,0.020
-4.750E-06,0.012
-4.740E-06,0.000
-4.730E-06,-0.020
-4.720E-06,-0.060
-4.710E-06,-0.100
-4.700E-06,-0.100
-4.690E-06,-0.044
-4.680E-06,0.016
-4.670E-06,0.080
-4.660E-06,0.088
-4.650E-06,0.036
-4.640E-06,-0.040
-4.630E-06,-0.092
-4.620E-06,-0.080
-4.610E-06,-0.032
-4.600E-06,0.032
-4.590E-06,0.072
-4.580E-06,0.072
-4.570E-06,0.012
-4.560E-06,-0.048
-4.550E-06,-0.072
-4.540E-06,-0.044
-4.530E-06,0.012
-4.520E-06,0.064
-4.510E-06,0.076
-4.500E-06,0.040
-4.490E-06,0.008
-4.480E-06,-0.028
-4.470E-06,-0.024
-4.460E-06,-0.004
-4.450E-06,0.032
-4.440E-06,0.060
-4.430E-06,0.056
-4.420E-06,0.028
-4.410E-06,0.004
-4.400E-06,-0.024
-4.390E-06,-0.044
-4.380E-06,-0.044
-4.370E-06,-0.008
-4.360E-06,0.016
-4.350E-06,0.024
-4.340E-06,0.032
-4.330E-06,0.028
-4.320E-06,0.004
-4.310E-06,0.000
-4.300E-06,-0.008
-4.290E-06,0.004
-4.280E-06,0.024
-4.270E-06,0.052
-4.260E-06,0.040
-4.250E-06,0.012
-4.240E-06,-0.004
-4.230E-06,-0.008
-4.220E-06,-0.012
-4.210E-06,-0.024
-4.200E-06,-0.008
-4.190E-06,-0.020
-4.180E-06,-0.020
-4.170E-06,-0.016
-4.160E-06,0.000
-4.150E-06,0.016
-4.140E-06,0.032
-4.130E-06,0.044
-4.120E-06,0.028
-4.110E-06,-0.004
-4.100E-06,-0.032
-4.090E-06,-0.024
-4.080E-06,-0.004
-4.070E-06,0.024
-4.060E-06,0.048
-4.050E-06,0.064
-4.040E-06,0.040
-4.030E-06,0.024
-4.020E-06,-0.012
-4.010E-06,-0.016
-4.000E-06,-0.004
-3.990E-06,0.020
-3.980E-06,0.036
-3.970E-06,0.056
-3.960E-06,0.056
-3.950E-06,0.032
-3.940E-06,0.012
-3.930E-06,-0.008
-3.920E-06,-0.008
-3.910E-06,0.000
-3.900E-06,0.012
-3.890E-06,0.028
-3.880E-06,0.024
-3.870E-06,0.008
-3.860E-06,-0.004
-3.850E-06,-0.004
-3.840E-06,0.000
-3.830E-06,0.000
-3.820E-06,-0.004
-3.810E-06,0.008
-3.800E-06,0.020
-3.790E-06,0.028
-3.780E-06,0.044
-3.770E-06,0.048
-3.760E-06,0.044
-3.750E-06,0.020
-3.740E-06,0.016
-3.730E-06,0.008
-3.720E-06,0.000
-3.710E-06,0.016
-3.700E-06,0.028
-3.690E-06,0.040
-3.680E-06,0.048
-3.670E-06,0.040
-3.660E-06,0.012
-3.650E-06,-0.004
-3.640E-06,-0.020
-3.630E-06,-0.004
-3.620E-06,0.000
-3.610E-06,0.020
-3.600E-06,0.032
-3.590E-06,0.028
-3.580E-06,0.012
-3.570E-06,0.008
-3.560E-06,0.016
-3.550E-06,0.032
-3.540E-06,0.036
-3.530E-06,0.024
-3.520E-06,0.008
-3.510E-06,0.004
-3.500E-06,0.004
-3.490E-06,0.016
-3.480E-06,0.020
-3.470E-06,0.048
-3.460E-06,0.056
-3.450E-06,0.012
-3.440E-06,-0.052
-3.430E-06,-0.176
-3.420E-06,-0.208
-3.410E-06,-0.192
-3.400E-06,-0.044
-3.390E-06,0.084
-3.380E-06,0.164
-3.370E-06,0.128
-3.360E-06,-0.008
-3.350E-06,-0.136
-3.340E-06,-0.204
-3.330E-06,-0.136
-3.320E-06,-0.008
-3.310E-06,0.108
-3.300E-06,0.140
-3.290E-06,0.096
-3.280E-06,-0.008
-3.270E-06,-0.084
-3.260E-06,-0.108
-3.250E-06,-0.060
-3.240E-06,0.016
-3.230E-06,0.076
-3.220E-06,0.092
-3.210E-06,0.056
-3.200E-06,0.008
-3.190E-06,-0.040
-3.180E-06,-0.052
-3.170E-06,-0.036
-3.160E-06,0.008
-3.150E-06,0.044
-3.140E-06,0.076
-3.130E-06,0.060
-3.120E-06,0.020
-3.110E-06,-0.012
-3.100E-06,-0.020
-3.090E-06,-0.004
-3.080E-06,0.036
-3.070E-06,0.068
-3.060E-06,0.064
-3.050E-06,0.060
-3.040E-06,0.020
-3.030E-06,-0.004
-3.020E-06,-0.096
-3.010E-06,-0.148
-3.000E-06,-0.304
-2.990E-06,-0.304
-2.980E-06,-0.284
-2.970E-06,-0.104
-2.960E-06,0.212
-2.950E-06,0.400
-2.940E-06,0.344
-2.930E-06,0.004
-2.920E-06,-0.232
-2.910E-06,-0.344
-2.900E-06,-0.208
-2.890E-06,0.020
-2.880E-06,0.244
-2.870E-06,0.288
-2.860E-06,0.180
-2.850E-06,-0.020
-2.840E-06,-0.196
-2.830E-06,-0.208
-2.820E-06,-0.108
-2.810E-06,0.060
-2.800E-06,0.168
-2.790E-06,0.200
-2.780E-06,0.096
-2.770E-06,-0.024
-2.760E-06,-0.124
-2.750E-06,-0.140
-2.740E-06,-0.068
-2.730E-06,0.040
-2.720E-06,0.140
-2.710E-06,0.144
-2.700E-06,0.096
-2.690E-06,-0.024
-2.680E-06,-0.100
-2.670E-06,-0.120
-2.660E-06,-0.036
-2.650E-06,0.056
-2.640E-06,0.112
-2.630E-06,0.096
-2.620E-06,0.032
-2.610E-06,-0.024
-2.600E-06,-0.068
-2.590E-06,-0.064
-2.580E-06,-0.012
-2.570E-06,0.060
-2.560E-06,0.092
-2.550E-06,0.076
-2.540E-06,0.008
-2.530E-06,-0.044
-2.520E-06,-0.072
-2.510E-06,-0.036
-2.500E-06,0.008
-2.490E-06,0.064
-2.480E-06,0.092
-2.470E-06,0.064
-2.460E-06,0.024
-2.450E-06,-0.020
-2.440E-06,-0.040
-2.430E-06,-0.012
-2.420E-06,0.036
-2.410E-06,0.064
-2.400E-06,0.068
-2.390E-06,0.044
-2.380E-06,0.008
-2.370E-06,-0.032
-2.360E-06,-0.040
-2.350E-06,-0.012
-2.340E-06,0.024
-2.330E-06,0.064
-2.320E-06,0.080
-2.310E-06,0.056
-2.300E-06,0.004
-2.290E-06,-0.008
-2.280E-06,-0.016
-2.270E-06,0.012
-2.260E-06,0.060
-2.250E-06,0.088
-2.240E-06,0.088
-2.230E-06,0.068
-2.220E-06,0.044
-2.210E-06,0.012
-2.200E-06,0.008
-2.190E-06,0.024
-2.180E-06,0.040
-2.170E-06,0.056
-2.160E-06,0.076
-2.150E-06,0.068
-2.140E-06,0.044
-2.130E-06,0.024
-2.120E-06,0.008
-2.110E-06,0.024
-2.100E-06,0.060
-2.090E-06,0.096
-2.080E-06,0.112
-2.070E-06,0.104
-2.060E-06,0.068
-2.050E-06,-0.228
-2.040E-06,-0.480
-2.030E-06,-0.512
-2.020E-06,-0.492
-2.010E-06,-0.080
-2.000E-06,0.320
-1.990E-06,0.540
-1.980E-06,0.540
-1.970E-06,0.256
-1.960E-06,-0.272
-1.950E-06,-0.480
-1.940E-06,-0.364
-1.930E-06,-0.076
-1.920E-06,0.144
-1.910E-06,0.212
-1.900E-06,0.088
-1.890E-06,-0.100
-1.880E-06,-0.136
-1.870E-06,-0.108
-1.860E-06,0.028
-1.850E-06,0.108
-1.840E-06,0.196
-1.830E-06,0.168
-1.820E-06,0.160
-1.810E-06,0.032
-1.800E-06,-0.116
-1.790E-06,-0.176
-1.780E-06,-0.128
-1.770E-06,-0.004
-1.760E-06,0.144
-1.750E-06,0.220
-1.740E-06,0.112
-1.730E-06,-0.100
-1.720E-06,-0.252
-1.710E-06,-0.248
-1.700E-06,-0.140
-1.690E-06,0.056
-1.680E-06,0.192
-1.670E-06,0.204
-1.660E-06,0.072
-1.650E-06,-0.092
-1.640E-06,-0.196
-1.630E-06,-0.168
-1.620E-06,-0.092
-1.610E-06,-0.012
-1.600E-06,0.068
-1.590E-06,0.108
-1.580E-06,0.092
-1.570E-06,0.000
-1.560E-06,-0.088
-1.550E-06,-0.128
-1.540E-06,-0.056
-1.530E-06,0.040
-1.520E-06,0.124
-1.510E-06,0.148
-1.500E-06,0.088
-1.490E-06,0.000
-1.480E-06,-0.044
-1.470E-06,-0.040
-1.460E-06,0.012
-1.450E-06,0.076
-1.440E-06,0.112
-1.430E-06,0.108
-1.420E-06,0.072
-1.410E-06,0.036
-1.400E-06,0.000
-1.390E-06,-0.016
-1.380E-06,-0.032
-1.370E-06,-0.040
-1.360E-06,0.004
-1.350E-06,0.040
-1.340E-06,0.092
-1.330E-06,0.080
-1.320E-06,0.064
-1.310E-06,-0.112
-1.300E-06,-0.184
-1.290E-06,-0.180
-1.280E-06,-0.196
-1.270E-06,-0.116
-1.260E-06,0.068
-1.250E-06,0.196
-1.240E-06,0.172
-1.230E-06,0.112
-1.220E-06,-0.036
-1.210E-06,-0.068
-1.200E-06,-0.064
-1.190E-06,0.004
-1.180E-06,0.064
-1.170E-06,0.128
-1.160E-06,0.116
-1.150E-06,0.028
-1.140E-06,-0.020
-1.130E-06,-0.068
-1.120E-06,-0.040
-1.110E-06,-0.056
-1.100E-06,-0.116
-1.090E-06,-0.168
-1.080E-06,-0.128
-1.070E-06,-0.100
-1.060E-06,-0.032
-1.050E-06,-0.004
-1.040E-06,0.024
-1.030E-06,0.044
-1.020E-06,0.056
-1.010E-06,0.040
-1.000E-06,-0.012
-9.900E-07,-0.024
-9.800E-07,0.008
-9.700E-07,0.064
-9.600E-07,0.096
-9.500E-07,0.104
-9.400E-07,0.096
-9.300E-07,0.068
-9.200E-07,0.036
-9.100E-07,-0.032
-9.000E-07,-0.072
-8.900E-07,-0.120
-8.800E-07,-0.120
-8.700E-07,-0.052
-8.600E-07,0.032
-8.500E-07,0.092
-8.400E-07,0.120
-8.300E-07,0.084
-8.200E-07,-0.004
-8.100E-07,-0.048
-8.000E-07,-0.052
-7.900E-07,-0.008
-7.800E-07,-0.008
-7.700E-07,-0.052
-7.600E-07,-0.088
-7.500E-07,-0.132
-7.400E-07,-0.108
-7.300E-07,-0.036
-7.200E-07,0.052
-7.100E-07,0.088
-7.000E-07,0.060
-6.900E-07,0.008
-6.800E-07,-0.024
-6.700E-07,-0.040
-6.600E-07,-0.036
-6.500E-07,0.000
-6.400E-07,0.040
-6.300E-07,0.076
-6.200E-07,0.072
-6.100E-07,0.028
-6.000E-07,-0.020
-5.900E-07,-0.052
-5.800E-07,-0.036
-5.700E-07,-0.004
-5.600E-07,0.044
-5.500E-07,0.080
-5.400E-07,0.072
-5.300E-07,0.040
-5.200E-07,0.000
-5.100E-07,-0.040
-5.000E-07,-0.032
-4.900E-07,0.012
-4.800E-07,0.056
-4.700E-07,0.092
-4.600E-07,0.088
-4.500E-07,0.052
-4.400E-07,0.016
-4.300E-07,-0.016
-4.200E-07,-0.024
-4.100E-07,0.004
-4.000E-07,0.052
-3.900E-07,0.092
-3.800E-07,0.100
-3.700E-07,0.072
-3.600E-07,0.044
-3.500E-07,0.016
-3.400E-07,0.024
-3.300E-07,0.048
-3.200E-07,0.072
-3.100E-07,0.092
-3.000E-07,0.084
-2.900E-07,0.076
-2.800E-07,0.060
-2.700E-07,0.044
-2.600E-07,0.044
-2.500E-07,0.064
-2.400E-07,0.088
-2.300E-07,0.104
-2.200E-07,0.112
-2.100E-07,0.096
-2.000E-07,0.068
-1.900E-07,0.052
-1.800E-07,0.056
-1.700E-07,0.076
-1.600E-07,0.088
-1.500E-07,0.092
-1.400E-07,0.084
-1.300E-07,0.072
-1.200E-07,0.060
-1.100E-07,0.048
-1.000E-07,0.024
-9.000E-08,0.024
-8.000E-08,0.024
-7.000E-08,0.028
-6.000E-08,-0.088
-5.000E-08,-0.508
-4.000E-08,-0.508
-3.000E-08,-0.512
-2.000E-08,-0.444
-1.000E-08,0.492
0.000E+00,0.544
1.000E-08,0.544
2.000E-08,0.380
3.000E-08,-0.512
4.000E-08,-0.508
5.000E-08,-0.512
6.000E-08,-0.060
7.000E-08,0.540
8.000E-08,0.540
9.000E-08,0.544
1.000E-07,0.124
1.100E-07,-0.240
1.200E-07,-0.500
1.300E-07,-0.432
1.400E-07,-0.216
1.500E-07,0.152
1.600E-07,0.440
1.700E-07,0.488
1.800E-07,0.312
1.900E-07,-0.052
2.000E-07,-0.292
2.100E-07,-0.372
2.200E-07,-0.160
2.300E-07,0.088
2.400E-07,0.272
2.500E-07,0.280
2.600E-07,0.184
2.700E-07,0.052
2.800E-07,-0.052
2.900E-07,-0.100
3.000E-07,-0.136
3.100E-07,-0.048
3.200E-07,0.076
3.300E-07,0.208
3.400E-07,0.224
3.500E-07,0.168
3.600E-07,0.052
3.700E-07,-0.036
3.800E-07,-0.060
3.900E-07,-0.048
4.000E-07,-0.008
4.100E-07,0.044
4.200E-07,0.132
4.300E-07,0.156
4.400E-07,0.140
4.500E-07,0.068
4.600E-07,0.008
4.700E-07,-0.044
4.800E-07,-0.052
4.900E-07,0.000
5.000E-07,0.056
5.100E-07,0.124
5.200E-07,0.156
5.300E-07,0.164
5.400E-07,0.068
5.500E-07,-0.100
5.600E-07,-0.332
5.700E-07,-0.508
5.800E-07,-0.508
5.900E-07,-0.424
6.000E-07,-0.172
6.100E-07,0.172
6.200E-07,0.408
6.300E-07,0.260
6.400E-07,-0.028
6.500E-07,-0.296
6.600E-07,-0.300
6.700E-07,-0.128
6.800E-07,0.060
6.900E-07,0.148
7.000E-07,0.104
7.100E-07,0.100
7.200E-07,0.048
7.300E-07,0.052
7.400E-07,0.004
7.500E-07,-0.016
7.600E-07,-0.068
7.700E-07,-0.036
7.800E-07,-0.040
7.900E-07,-0.032
8.000E-07,-0.008
8.100E-07,-0.008
8.200E-07,-0.008
8.300E-07,-0.036
8.400E-07,-0.008
8.500E-07,-0.016
8.600E-07,0.044
8.700E-07,0.056
8.800E-07,0.068
8.900E-07,0.036
9.000E-07,0.004
9.100E-07,-0.008
9.200E-07,-0.020
9.300E-07,0.000
9.400E-07,0.000
9.500E-07,0.044
9.600E-07,0.060
9.700E-07,0.076
9.800E-07,0.040
9.900E-07,0.040
1.000E-06,0.016
1.010E-06,0.024
1.020E-06,0.032
1.030E-06,0.028
1.040E-06,0.028
1.050E-06,0.004
1.060E-06,-0.004
1.070E-06,-0.028
1.080E-06,-0.008
1.090E-06,0.000
1.100E-06,0.016
1.110E-06,0.012
1.120E-06,0.000
1.130E-06,0.000
1.140E-06,-0.012
1.150E-06,-0.012
1.160E-06,-0.012
1.170E-06,0.016
1.180E-06,0.020
1.190E-06,0.028
1.200E-06,0.020
1.210E-06,-0.008
1.220E-06,-0.040
1.230E-06,-0.036
1.240E-06,-0.004
1.250E-06,0.028
1.260E-06,0.048
1.270E-06,0.036
1.280E-06,0.024
1.290E-06,0.008
1.300E-06,0.008
1.310E-06,0.008
1.320E-06,0.036
1.330E-06,0.056
1.340E-06,0.076
1.350E-06,0.084
1.360E-06,0.072
1.370E-06,0.044
1.380E-06,0.036
1.390E-06,0.040
1.400E-06,0.052
1.410E-06,0.076
1.420E-06,0.080
1.430E-06,0.076
1.440E-06,0.068
1.450E-06,0.064
1.460E-06,0.044
1.470E-06,0.044
1.480E-06,0.052
1.490E-06,0.072
1.500E-06,0.088
1.510E-06,0.096
1.520E-06,0.104
1.530E-06,-0.164
1.540E-06,-0.400
1.550E-06,-0.364
1.560E-06,-0.332
1.570E-06,0.020
1.580E-06,0.408
1.590E-06,0.488
1.600E-06,0.068
1.610E-06,-0.088
1.620E-06,-0.300
1.630E-06,-0.380
1.640E-06,-0.416
1.650E-06,-0.232
1.660E-06,-0.060
1.670E-06,0.004
1.680E-06,0.044
1.690E-06,0.028
1.700E-06,-0.008
1.710E-06,-0.040
1.720E-06,0.036
1.730E-06,-0.060
1.740E-06,-0.036
1.750E-06,-0.036
1.760E-06,0.020
1.770E-06,0.020
1.780E-06,-0.064
1.790E-06,-0.056
1.800E-06,0.000
1.810E-06,0.140
1.820E-06,0.176
1.830E-06,0.164
1.840E-06,0.036
1.850E-06,-0.056
1.860E-06,-0.112
1.870E-06,-0.072
1.880E-06,0.016
1.890E-06,0.120
1.900E-06,0.168
1.910E-06,0.160
1.920E-06,0.100
1.930E-06,0.004
1.940E-06,-0.024
1.950E-06,-0.020
1.960E-06,0.052
1.970E-06,0.116
1.980E-06,0.164
1.990E-06,0.144
2.000E-06,0.056
2.010E-06,-0.104
2.020E-06,-0.224
2.030E-06,-0.260
2.040E-06,-0.188
2.050E-06,-0.032
2.060E-06,0.096
2.070E-06,0.128
2.080E-06,0.040
2.090E-06,-0.088
2.100E-06,-0.216
2.110E-06,-0.188
2.120E-06,-0.124
2.130E-06,-0.008
2.140E-06,0.088
2.150E-06,0.104
2.160E-06,0.064
2.170E-06,-0.028
2.180E-06,-0.092
2.190E-06,-0.104
2.200E-06,-0.028
2.210E-06,0.064
2.220E-06,0.132
2.230E-06,0.128
2.240E-06,0.084
2.250E-06,0.020
2.260E-06,-0.036
2.270E-06,-0.024
2.280E-06,0.020
2.290E-06,0.080
2.300E-06,0.120
2.310E-06,0.124
2.320E-06,0.068
2.330E-06,-0.008
2.340E-06,-0.056
2.350E-06,-0.064
2.360E-06,-0.040
2.370E-06,0.008
2.380E-06,0.068
2.390E-06,0.088
2.400E-06,0.052
2.410E-06,-0.008
2.420E-06,-0.036
2.430E-06,-0.040
2.440E-06,-0.004
2.450E-06,0.044
2.460E-06,0.100
2.470E-06,0.116
2.480E-06,0.092
2.490E-06,0.040
2.500E-06,0.000
2.510E-06,-0.004
2.520E-06,-0.004
2.530E-06,-0.016
2.540E-06,-0.036
2.550E-06,-0.024
2.560E-06,-0.048
2.570E-06,-0.044
2.580E-06,0.004
2.590E-06,0.008
2.600E-06,-0.004
2.610E-06,0.036
2.620E-06,0.072
2.630E-06,0.104
2.640E-06,0.092
2.650E-06,0.028
2.660E-06,-0.012
2.670E-06,0.008
2.680E-06,0.040
2.690E-06,0.064
2.700E-06,0.068
2.710E-06,0.020
2.720E-06,-0.072
2.730E-06,-0.120
2.740E-06,-0.120
2.750E-06,-0.060
2.760E-06,0.028
2.770E-06,0.080
2.780E-06,0.128
2.790E-06,0.132
2.800E-06,0.092
2.810E-06,0.012
2.820E-06,-0.060
2.830E-06,-0.080
2.840E-06,-0.040
2.850E-06,0.056
2.860E-06,0.136
2.870E-06,0.132
2.880E-06,0.036
2.890E-06,-0.056
2.900E-06,-0.088
2.910E-06,-0.040
2.920E-06,0.028
2.930E-06,0.088
2.940E-06,0.088
2.950E-06,0.068
2.960E-06,0.020
2.970E-06,-0.004
2.980E-06,-0.008
2.990E-06,-0.040
3.000E-06,-0.108
3.010E-06,-0.080
3.020E-06,0.032
3.030E-06,0.096
3.040E-06,0.132
3.050E-06,0.128
3.060E-06,0.108
3.070E-06,0.064
3.080E-06,0.004
3.090E-06,-0.052
3.100E-06,-0.080
3.110E-06,-0.004
3.120E-06,0.080
3.130E-06,0.164
3.140E-06,0.152
3.150E-06,0.092
3.160E-06,-0.044
3.170E-06,-0.272
3.180E-06,-0.508
3.190E-06,-0.496
3.200E-06,-0.460
3.210E-06,-0.448
3.220E-06,-0.164
3.230E-06,0.076
3.240E-06,0.256
3.250E-06,0.148
3.260E-06,0.044
3.270E-06,-0.116
