mediciones/Mediciones filtradas (saque las feas)/5-15/12.6/WaveData4753.csv

#timebase=2000000(ps)
,#voltbase=2000000(mv/100)
#size=4000
-8.400E-06,0.320
-8.390E-06,0.240
-8.380E-06,0.160
-8.370E-06,0.400
-8.360E-06,0.320
-8.350E-06,0.320
-8.340E-06,0.240
-8.330E-06,0.320
-8.320E-06,0.320
-8.310E-06,0.240
-8.300E-06,0.160
-8.290E-06,0.160
-8.280E-06,0.080
-8.270E-06,0.000
-8.260E-06,0.000
-8.250E-06,-0.080
-8.240E-06,-0.080
-8.230E-06,-0.160
-8.220E-06,-0.240
-8.210E-06,0.000
-8.200E-06,0.000
-8.190E-06,-0.080
-8.180E-06,-0.080
-8.170E-06,0.000
-8.160E-06,-0.080
-8.150E-06,-0.080
-8.140E-06,-0.080
-8.130E-06,0.000
-8.120E-06,-0.080
-8.110E-06,0.000
-8.100E-06,0.000
-8.090E-06,0.000
-8.080E-06,0.080
-8.070E-06,-0.080
-8.060E-06,0.160
-8.050E-06,0.160
-8.040E-06,0.240
-8.030E-06,0.240
-8.020E-06,0.240
-8.010E-06,0.160
-8.000E-06,0.080
-7.990E-06,0.080
-7.980E-06,0.080
-7.970E-06,0.000
-7.960E-06,0.000
-7.950E-06,0.160
-7.940E-06,0.160
-7.930E-06,0.240
-7.920E-06,0.320
-7.910E-06,0.000
-7.900E-06,0.000
-7.890E-06,-0.320
-7.880E-06,-0.080
-7.870E-06,-0.080
-7.860E-06,-0.080
-7.850E-06,-0.240
-7.840E-06,-0.320
-7.830E-06,-0.400
-7.820E-06,-0.240
-7.810E-06,-0.080
-7.800E-06,-0.080
-7.790E-06,-0.160
-7.780E-06,-0.160
-7.770E-06,-0.080
-7.760E-06,0.000
-7.750E-06,0.080
-7.740E-06,0.160
-7.730E-06,0.080
-7.720E-06,0.080
-7.710E-06,0.160
-7.700E-06,0.080
-7.690E-06,0.240
-7.680E-06,0.320
-7.670E-06,0.240
-7.660E-06,0.320
-7.650E-06,0.320
-7.640E-06,0.320
-7.630E-06,0.320
-7.620E-06,0.240
-7.610E-06,0.240
-7.600E-06,0.240
-7.590E-06,0.320
-7.580E-06,0.240
-7.570E-06,0.160
-7.560E-06,0.080
-7.550E-06,0.160
-7.540E-06,0.160
-7.530E-06,0.160
-7.520E-06,-0.080
-7.510E-06,-0.080
-7.500E-06,-0.080
-7.490E-06,-0.080
-7.480E-06,-0.080
-7.470E-06,0.000
-7.460E-06,0.000
-7.450E-06,-0.080
-7.440E-06,-0.080
-7.430E-06,0.000
-7.420E-06,0.000
-7.410E-06,0.000
-7.400E-06,0.080
-7.390E-06,0.080
-7.380E-06,0.240
-7.370E-06,0.080
-7.360E-06,0.000
-7.350E-06,0.080
-7.340E-06,0.080
-7.330E-06,0.080
-7.320E-06,0.080
-7.310E-06,0.160
-7.300E-06,-0.080
-7.290E-06,-0.080
-7.280E-06,-0.080
-7.270E-06,0.080
-7.260E-06,0.000
-7.250E-06,0.000
-7.240E-06,0.480
-7.230E-06,-0.080
-7.220E-06,0.480
-7.210E-06,0.080
-7.200E-06,-0.080
-7.190E-06,-0.240
-7.180E-06,-0.320
-7.170E-06,-0.240
-7.160E-06,-0.160
-7.150E-06,-0.320
-7.140E-06,-0.400
-7.130E-06,-0.640
-7.120E-06,-0.640
-7.110E-06,-0.480
-7.100E-06,-0.320
-7.090E-06,-0.160
-7.080E-06,-0.160
-7.070E-06,-0.240
-7.060E-06,-0.240
-7.050E-06,-0.160
-7.040E-06,-0.080
-7.030E-06,0.000
-7.020E-06,0.080
-7.010E-06,0.000
-7.000E-06,0.080
-6.990E-06,0.080
-6.980E-06,0.160
-6.970E-06,0.160
-6.960E-06,0.240
-6.950E-06,0.160
-6.940E-06,0.240
-6.930E-06,0.400
-6.920E-06,0.400
-6.910E-06,0.320
-6.900E-06,0.400
-6.890E-06,0.400
-6.880E-06,0.480
-6.870E-06,0.400
-6.860E-06,0.400
-6.850E-06,0.400
-6.840E-06,0.320
-6.830E-06,0.320
-6.820E-06,0.000
-6.810E-06,0.000
-6.800E-06,0.000
-6.790E-06,-0.160
-6.780E-06,0.000
-6.770E-06,-0.080
-6.760E-06,-0.080
-6.750E-06,-0.080
-6.740E-06,-0.160
-6.730E-06,-0.240
-6.720E-06,-0.160
-6.710E-06,-0.160
-6.700E-06,-0.080
-6.690E-06,0.080
-6.680E-06,0.240
-6.670E-06,0.320
-6.660E-06,0.080
-6.650E-06,0.240
-6.640E-06,0.240
-6.630E-06,0.080
-6.620E-06,0.240
-6.610E-06,0.080
-6.600E-06,0.080
-6.590E-06,0.000
-6.580E-06,-0.080
-6.570E-06,-0.080
-6.560E-06,-0.080
-6.550E-06,-0.080
-6.540E-06,-0.240
-6.530E-06,-0.240
-6.520E-06,-0.160
-6.510E-06,-0.080
-6.500E-06,0.000
-6.490E-06,0.240
-6.480E-06,0.080
-6.470E-06,0.080
-6.460E-06,-0.080
-6.450E-06,-0.240
-6.440E-06,-0.240
-6.430E-06,-0.240
-6.420E-06,0.320
-6.410E-06,0.080
-6.400E-06,0.320
-6.390E-06,0.320
-6.380E-06,-0.160
-6.370E-06,-0.080
-6.360E-06,-0.240
-6.350E-06,-0.240
-6.340E-06,0.160
-6.330E-06,0.000
-6.320E-06,-0.080
-6.310E-06,-0.160
-6.300E-06,-0.320
-6.290E-06,-0.160
-6.280E-06,0.000
-6.270E-06,0.000
-6.260E-06,-0.080
-6.250E-06,-0.080
-6.240E-06,-0.080
-6.230E-06,-0.080
-6.220E-06,0.160
-6.210E-06,0.080
-6.200E-06,0.160
-6.190E-06,0.320
-6.180E-06,0.240
-6.170E-06,0.160
-6.160E-06,0.240
-6.150E-06,0.320
-6.140E-06,0.320
-6.130E-06,0.320
-6.120E-06,0.320
-6.110E-06,0.320
-6.100E-06,0.240
-6.090E-06,0.320
-6.080E-06,0.240
-6.070E-06,0.160
-6.060E-06,0.000
-6.050E-06,-0.080
-6.040E-06,0.080
-6.030E-06,0.000
-6.020E-06,0.160
-6.010E-06,0.160
-6.000E-06,0.080
-5.990E-06,0.000
-5.980E-06,0.080
-5.970E-06,-0.240
-5.960E-06,0.000
-5.950E-06,-0.080
-5.940E-06,-0.080
-5.930E-06,-0.080
-5.920E-06,-0.160
-5.910E-06,0.000
-5.900E-06,-0.080
-5.890E-06,-0.080
-5.880E-06,-0.160
-5.870E-06,-0.160
-5.860E-06,0.080
-5.850E-06,-0.080
-5.840E-06,-0.080
-5.830E-06,0.000
-5.820E-06,-0.080
-5.810E-06,-0.080
-5.800E-06,0.000
-5.790E-06,-0.080
-5.780E-06,0.320
-5.770E-06,0.400
-5.760E-06,0.160
-5.750E-06,0.640
-5.740E-06,-0.160
-5.730E-06,-0.080
-5.720E-06,-0.320
-5.710E-06,-0.160
-5.700E-06,-0.080
-5.690E-06,-0.080
-5.680E-06,-0.720
-5.670E-06,-0.640
-5.660E-06,-0.480
-5.650E-06,-0.160
-5.640E-06,0.080
-5.630E-06,0.080
-5.620E-06,-0.240
-5.610E-06,-0.240
-5.600E-06,-0.320
-5.590E-06,-0.080
-5.580E-06,0.000
-5.570E-06,0.000
-5.560E-06,-0.240
-5.550E-06,-0.080
-5.540E-06,0.000
-5.530E-06,0.000
-5.520E-06,0.160
-5.510E-06,0.240
-5.500E-06,0.000
-5.490E-06,0.080
-5.480E-06,0.240
-5.470E-06,0.320
-5.460E-06,0.400
-5.450E-06,0.400
-5.440E-06,0.480
-5.430E-06,0.480
-5.420E-06,0.400
-5.410E-06,0.320
-5.400E-06,0.240
-5.390E-06,0.320
-5.380E-06,0.240
-5.370E-06,0.240
-5.360E-06,0.080
-5.350E-06,0.080
-5.340E-06,-0.080
-5.330E-06,-0.080
-5.320E-06,-0.080
-5.310E-06,0.000
-5.300E-06,0.000
-5.290E-06,-0.080
-5.280E-06,-0.080
-5.270E-06,0.000
-5.260E-06,0.000
-5.250E-06,0.000
-5.240E-06,-0.080
-5.230E-06,-0.080
-5.220E-06,-0.240
-5.210E-06,-0.160
-5.200E-06,-0.080
-5.190E-06,-0.160
-5.180E-06,-0.240
-5.170E-06,-0.080
-5.160E-06,-0.080
-5.150E-06,-0.160
-5.140E-06,-0.160
-5.130E-06,-0.160
-5.120E-06,-0.080
-5.110E-06,0.000
-5.100E-06,0.000
-5.090E-06,0.080
-5.080E-06,0.080
-5.070E-06,0.000
-5.060E-06,0.000
-5.050E-06,0.000
-5.040E-06,0.080
-5.030E-06,0.080
-5.020E-06,0.080
-5.010E-06,0.000
-5.000E-06,0.000
-4.990E-06,0.000
-4.980E-06,0.000
-4.970E-06,-0.080
-4.960E-06,0.160
-4.950E-06,0.080
-4.940E-06,0.000
-4.930E-06,0.160
-4.920E-06,-0.080
-4.910E-06,0.000
-4.900E-06,-0.160
-4.890E-06,0.000
-4.880E-06,0.960
-4.870E-06,-0.080
-4.860E-06,0.800
-4.850E-06,-0.560
-4.840E-06,-0.160
-4.830E-06,-0.560
-4.820E-06,-0.160
-4.810E-06,-0.240
-4.800E-06,-0.080
-4.790E-06,-0.560
-4.780E-06,-0.560
-4.770E-06,-0.480
-4.760E-06,-0.400
-4.750E-06,-0.240
-4.740E-06,-0.160
-4.730E-06,-0.320
-4.720E-06,-0.080
-4.710E-06,0.080
-4.700E-06,0.080
-4.690E-06,0.080
-4.680E-06,0.000
-4.670E-06,0.000
-4.660E-06,0.080
-4.650E-06,0.080
-4.640E-06,0.080
-4.630E-06,0.160
-4.620E-06,0.160
-4.610E-06,0.160
-4.600E-06,0.400
-4.590E-06,0.320
-4.580E-06,0.320
-4.570E-06,0.320
-4.560E-06,0.240
-4.550E-06,0.320
-4.540E-06,0.240
-4.530E-06,0.240
-4.520E-06,0.160
-4.510E-06,0.080
-4.500E-06,0.000
-4.490E-06,0.000
-4.480E-06,0.000
-4.470E-06,0.080
-4.460E-06,0.000
-4.450E-06,-0.080
-4.440E-06,-0.160
-4.430E-06,-0.080
-4.420E-06,-0.240
-4.410E-06,-0.160
-4.400E-06,-0.160
-4.390E-06,-0.080
-4.380E-06,0.000
-4.370E-06,0.080
-4.360E-06,0.080
-4.350E-06,0.160
-4.340E-06,0.320
-4.330E-06,1.040
-4.320E-06,0.160
-4.310E-06,1.120
-4.300E-06,0.160
-4.290E-06,0.320
-4.280E-06,-0.080
-4.270E-06,0.000
-4.260E-06,-0.240
-4.250E-06,0.000
-4.240E-06,-0.320
-4.230E-06,-0.560
-4.220E-06,-0.480
-4.210E-06,-0.480
-4.200E-06,-0.400
-4.190E-06,-0.240
-4.180E-06,-0.320
-4.170E-06,-0.240
-4.160E-06,-0.320
-4.150E-06,-0.160
-4.140E-06,-0.160
-4.130E-06,-0.080
-4.120E-06,-0.080
-4.110E-06,-0.160
-4.100E-06,-0.240
-4.090E-06,-0.080
-4.080E-06,-0.080
-4.070E-06,0.000
-4.060E-06,0.160
-4.050E-06,0.240
-4.040E-06,0.400
-4.030E-06,0.400
-4.020E-06,0.400
-4.010E-06,0.480
-4.000E-06,0.480
-3.990E-06,0.480
-3.980E-06,0.400
-3.970E-06,0.480
-3.960E-06,0.480
-3.950E-06,0.320
-3.940E-06,0.240
-3.930E-06,0.160
-3.920E-06,0.160
-3.910E-06,0.000
-3.900E-06,0.000
-3.890E-06,-0.080
-3.880E-06,0.000
-3.870E-06,-0.080
-3.860E-06,-0.080
-3.850E-06,0.000
-3.840E-06,0.000
-3.830E-06,0.080
-3.820E-06,-0.080
-3.810E-06,0.000
-3.800E-06,0.080
-3.790E-06,-0.080
-3.780E-06,0.000
-3.770E-06,0.000
-3.760E-06,0.000
-3.750E-06,0.000
-3.740E-06,0.080
-3.730E-06,0.080
-3.720E-06,0.080
-3.710E-06,0.000
-3.700E-06,-0.080
-3.690E-06,0.000
-3.680E-06,-0.080
-3.670E-06,-0.080
-3.660E-06,0.000
-3.650E-06,-0.080
-3.640E-06,0.000
-3.630E-06,0.000
-3.620E-06,0.000
-3.610E-06,0.000
-3.600E-06,0.080
-3.590E-06,-0.080
-3.580E-06,-0.080
-3.570E-06,0.000
-3.560E-06,0.080
-3.550E-06,0.080
-3.540E-06,0.000
-3.530E-06,0.080
-3.520E-06,0.000
-3.510E-06,0.000
-3.500E-06,0.000
-3.490E-06,0.080
-3.480E-06,0.000
-3.470E-06,0.000
-3.460E-06,-0.080
-3.450E-06,-0.080
-3.440E-06,-0.160
-3.430E-06,-0.320
-3.420E-06,0.400
-3.410E-06,0.400
-3.400E-06,0.720
-3.390E-06,0.400
-3.380E-06,0.000
-3.370E-06,-0.160
-3.360E-06,-0.400
-3.350E-06,-0.400
-3.340E-06,-0.080
-3.330E-06,-0.480
-3.320E-06,-0.640
-3.310E-06,-0.400
-3.300E-06,-0.720
-3.290E-06,0.080
-3.280E-06,0.080
-3.270E-06,-0.160
-3.260E-06,0.000
-3.250E-06,-0.080
-3.240E-06,0.080
-3.230E-06,0.160
-3.220E-06,0.240
-3.210E-06,0.080
-3.200E-06,0.000
-3.190E-06,0.000
-3.180E-06,-0.080
-3.170E-06,0.000
-3.160E-06,-0.080
-3.150E-06,0.080
-3.140E-06,0.240
-3.130E-06,0.320
-3.120E-06,0.320
-3.110E-06,0.240
-3.100E-06,0.320
-3.090E-06,0.480
-3.080E-06,0.400
-3.070E-06,0.240
-3.060E-06,0.320
-3.050E-06,0.400
-3.040E-06,0.160
-3.030E-06,0.240
-3.020E-06,0.160
-3.010E-06,0.080
-3.000E-06,0.000
-2.990E-06,0.000
-2.980E-06,-0.080
-2.970E-06,-0.160
-2.960E-06,-0.240
-2.950E-06,-0.240
-2.940E-06,0.000
-2.930E-06,0.000
-2.920E-06,-0.080
-2.910E-06,-0.080
-2.900E-06,0.000
-2.890E-06,0.080
-2.880E-06,-0.080
-2.870E-06,-0.080
-2.860E-06,0.000
-2.850E-06,-0.080
-2.840E-06,0.000
-2.830E-06,0.000
-2.820E-06,0.080
-2.810E-06,0.160
-2.800E-06,0.240
-2.790E-06,0.160
-2.780E-06,0.080
-2.770E-06,0.080
-2.760E-06,0.160
-2.750E-06,0.080
-2.740E-06,0.080
-2.730E-06,0.160
-2.720E-06,-0.080
-2.710E-06,0.000
-2.700E-06,0.000
-2.690E-06,0.000
-2.680E-06,0.000
-2.670E-06,0.000
-2.660E-06,-0.160
-2.650E-06,0.000
-2.640E-06,0.000
-2.630E-06,-0.160
-2.620E-06,-0.240
-2.610E-06,-0.240
-2.600E-06,-0.080
-2.590E-06,0.320
-2.580E-06,0.000
-2.570E-06,0.640
-2.560E-06,-0.080
-2.550E-06,0.320
-2.540E-06,-0.320
-2.530E-06,0.080
-2.520E-06,-0.160
-2.510E-06,0.000
-2.500E-06,-0.160
-2.490E-06,-0.400
-2.480E-06,-0.320
-2.470E-06,-0.320
-2.460E-06,-0.320
-2.450E-06,-0.160
-2.440E-06,-0.160
-2.430E-06,-0.160
-2.420E-06,-0.080
-2.410E-06,0.000
-2.400E-06,0.000
-2.390E-06,0.000
-2.380E-06,0.000
-2.370E-06,0.000
-2.360E-06,-0.080
-2.350E-06,0.000
-2.340E-06,0.000
-2.330E-06,0.080
-2.320E-06,0.080
-2.310E-06,0.160
-2.300E-06,0.320
-2.290E-06,0.400
-2.280E-06,0.320
-2.270E-06,0.320
-2.260E-06,0.320
-2.250E-06,0.640
-2.240E-06,0.480
-2.230E-06,0.880
-2.220E-06,0.640
-2.210E-06,0.560
-2.200E-06,0.400
-2.190E-06,0.320
-2.180E-06,0.240
-2.170E-06,0.400
-2.160E-06,0.160
-2.150E-06,-0.160
-2.140E-06,-0.240
-2.130E-06,-0.160
-2.120E-06,-0.320
-2.110E-06,-0.320
-2.100E-06,-0.160
-2.090E-06,-0.320
-2.080E-06,-0.240
-2.070E-06,-0.240
-2.060E-06,-0.240
-2.050E-06,-0.240
-2.040E-06,-0.080
-2.030E-06,-0.080
-2.020E-06,-0.080
-2.010E-06,0.000
-2.000E-06,-0.080
-1.990E-06,0.000
-1.980E-06,0.000
-1.970E-06,-0.080
-1.960E-06,-0.160
-1.950E-06,0.000
-1.940E-06,-0.080
-1.930E-06,0.000
-1.920E-06,0.080
-1.910E-06,0.160
-1.900E-06,0.320
-1.890E-06,0.160
-1.880E-06,0.240
-1.870E-06,0.160
-1.860E-06,0.240
-1.850E-06,0.480
-1.840E-06,0.640
-1.830E-06,0.400
-1.820E-06,0.320
-1.810E-06,0.240
-1.800E-06,0.080
-1.790E-06,0.160
-1.780E-06,0.240
-1.770E-06,0.080
-1.760E-06,-0.080
-1.750E-06,0.000
-1.740E-06,0.000
-1.730E-06,0.000
-1.720E-06,-0.080
-1.710E-06,-0.080
-1.700E-06,-0.080
-1.690E-06,-0.080
-1.680E-06,-0.080
-1.670E-06,-0.080
-1.660E-06,-0.080
-1.650E-06,-0.160
-1.640E-06,-0.080
-1.630E-06,-0.160
-1.620E-06,-0.080
-1.610E-06,-0.080
-1.600E-06,-0.080
-1.590E-06,0.000
-1.580E-06,0.000
-1.570E-06,0.000
-1.560E-06,0.000
-1.550E-06,0.160
-1.540E-06,0.240
-1.530E-06,0.240
-1.520E-06,0.160
-1.510E-06,0.240
-1.500E-06,0.160
-1.490E-06,0.080
-1.480E-06,0.160
-1.470E-06,0.000
-1.460E-06,0.000
-1.450E-06,0.000
-1.440E-06,-0.080
-1.430E-06,-0.240
-1.420E-06,-0.160
-1.410E-06,-0.240
-1.400E-06,-0.400
-1.390E-06,0.000
-1.380E-06,0.480
-1.370E-06,0.240
-1.360E-06,0.720
-1.350E-06,0.000
-1.340E-06,0.320
-1.330E-06,0.000
-1.320E-06,0.160
-1.310E-06,0.400
-1.300E-06,0.160
-1.290E-06,-0.320
-1.280E-06,-0.480
-1.270E-06,-0.480
-1.260E-06,-0.240
-1.250E-06,0.080
-1.240E-06,-0.080
-1.230E-06,0.160
-1.220E-06,-0.240
-1.210E-06,0.320
-1.200E-06,0.240
-1.190E-06,0.160
-1.180E-06,0.240
-1.170E-06,0.160
-1.160E-06,0.160
-1.150E-06,0.160
-1.140E-06,-0.160
-1.130E-06,-0.320
-1.120E-06,-0.320
-1.110E-06,-0.080
-1.100E-06,-0.080
-1.090E-06,-0.160
-1.080E-06,-0.080
-1.070E-06,-0.160
-1.060E-06,-0.080
-1.050E-06,0.240
-1.040E-06,0.240
-1.030E-06,0.320
-1.020E-06,0.320
-1.010E-06,0.240
-1.000E-06,0.320
-9.900E-07,0.240
-9.800E-07,0.240
-9.700E-07,0.240
-9.600E-07,-0.160
-9.500E-07,-0.240
-9.400E-07,-0.400
-9.300E-07,-0.240
-9.200E-07,-0.160
-9.100E-07,-0.160
-9.000E-07,0.080
-8.900E-07,-0.080
-8.800E-07,0.000
-8.700E-07,0.320
-8.600E-07,0.400
-8.500E-07,0.400
-8.400E-07,0.400
-8.300E-07,0.320
-8.200E-07,0.320
-8.100E-07,0.160
-8.000E-07,0.160
-7.900E-07,0.080
-7.800E-07,0.080
-7.700E-07,0.080
-7.600E-07,0.080
-7.500E-07,0.320
-7.400E-07,0.240
-7.300E-07,0.640
-7.200E-07,0.480
-7.100E-07,0.480
-7.000E-07,0.400
-6.900E-07,0.400
-6.800E-07,0.320
-6.700E-07,0.320
-6.600E-07,0.160
-6.500E-07,0.000
-6.400E-07,-0.240
-6.300E-07,-0.400
-6.200E-07,-0.480
-6.100E-07,-0.400
-6.000E-07,-0.480
-5.900E-07,-0.560
-5.800E-07,-0.560
-5.700E-07,-0.320
-5.600E-07,-0.240
-5.500E-07,-0.160
-5.400E-07,-0.160
-5.300E-07,-0.240
-5.200E-07,0.000
-5.100E-07,0.000
-5.000E-07,-0.080
-4.900E-07,-0.160
-4.800E-07,-0.240
-4.700E-07,-0.160
-4.600E-07,0.000
-4.500E-07,-0.080
-4.400E-07,0.000
-4.300E-07,0.080
-4.200E-07,0.160
-4.100E-07,0.160
-4.000E-07,0.160
-3.900E-07,0.240
-3.800E-07,0.160
-3.700E-07,0.080
-3.600E-07,0.080
-3.500E-07,0.320
-3.400E-07,0.080
-3.300E-07,0.160
-3.200E-07,-0.240
-3.100E-07,-0.400
-3.000E-07,-0.480
-2.900E-07,-0.560
-2.800E-07,-0.560
-2.700E-07,-0.400
-2.600E-07,-0.480
-2.500E-07,-0.400
-2.400E-07,-0.800
-2.300E-07,-0.640
-2.200E-07,-0.720
-2.100E-07,-0.640
-2.000E-07,-0.640
-1.900E-07,-0.720
-1.800E-07,-0.720
-1.700E-07,-0.640
-1.600E-07,-0.640
-1.500E-07,-0.720
-1.400E-07,-0.720
-1.300E-07,-0.720
-1.200E-07,-0.640
-1.100E-07,-0.640
-1.000E-07,-0.720
-9.000E-08,-0.800
-8.000E-08,-0.960
-7.000E-08,-1.120
-6.000E-08,-0.800
-5.000E-08,-0.160
-4.000E-08,0.960
-3.000E-08,0.720
-2.000E-08,1.200
-1.000E-08,0.000
0.000E+00,-0.080
1.000E-08,-0.560
2.000E-08,-0.400
3.000E-08,-0.400
4.000E-08,-0.720
5.000E-08,-0.960
6.000E-08,-1.200
7.000E-08,-0.640
8.000E-08,-0.080
9.000E-08,0.000
1.000E-07,0.000
1.100E-07,-0.320
1.200E-07,-0.160
1.300E-07,0.080
1.400E-07,0.400
1.500E-07,0.160
1.600E-07,0.160
1.700E-07,-0.160
1.800E-07,0.080
1.900E-07,0.240
2.000E-07,0.080
2.100E-07,0.000
2.200E-07,0.000
2.300E-07,-0.080
2.400E-07,-0.080
2.500E-07,0.000
2.600E-07,0.080
2.700E-07,0.080
2.800E-07,-0.080
2.900E-07,0.000
3.000E-07,0.000
3.100E-07,-0.080
3.200E-07,0.000
3.300E-07,-0.080
3.400E-07,-0.080
3.500E-07,-0.240
3.600E-07,-0.240
3.700E-07,-0.240
3.800E-07,-0.400
3.900E-07,-0.480
4.000E-07,-0.560
4.100E-07,-0.480
4.200E-07,-0.320
4.300E-07,0.080
4.400E-07,0.320
4.500E-07,0.400
4.600E-07,0.720
4.700E-07,0.560
4.800E-07,0.640
4.900E-07,0.400
5.000E-07,0.400
5.100E-07,0.240
5.200E-07,0.240
5.300E-07,0.320
5.400E-07,0.480
5.500E-07,0.560
5.600E-07,0.240
5.700E-07,0.080
5.800E-07,-0.080
5.900E-07,-0.240
6.000E-07,-0.320
6.100E-07,-0.320
6.200E-07,-0.640
6.300E-07,-0.720
6.400E-07,-0.960
6.500E-07,-1.040
6.600E-07,-0.960
6.700E-07,-0.880
6.800E-07,-0.880
6.900E-07,-0.720
7.000E-07,-0.880
7.100E-07,-0.800
7.200E-07,-0.640
7.300E-07,-0.640
7.400E-07,-0.640
7.500E-07,-0.400
7.600E-07,-0.480
7.700E-07,-0.400
7.800E-07,-0.240
7.900E-07,-0.080
8.000E-07,0.000
8.100E-07,0.080
8.200E-07,0.160
8.300E-07,0.400
8.400E-07,0.480
8.500E-07,0.560
8.600E-07,0.560
8.700E-07,0.560
8.800E-07,0.560
8.900E-07,0.480
9.000E-07,0.400
9.100E-07,0.400
9.200E-07,0.160
9.300E-07,-0.080
9.400E-07,-0.240
9.500E-07,-0.400
9.600E-07,-0.640
9.700E-07,-0.800
9.800E-07,-1.040
9.900E-07,-1.200
1.000E-06,-1.120
1.010E-06,-0.960
1.020E-06,-0.880
1.030E-06,-0.400
1.040E-06,-0.400
1.050E-06,-0.240
1.060E-06,-0.320
1.070E-06,-0.320
1.080E-06,-0.480
1.090E-06,-0.240
1.100E-06,-0.400
1.110E-06,-0.320
1.120E-06,-0.560
1.130E-06,-0.640
1.140E-06,-0.720
1.150E-06,-0.720
1.160E-06,-0.720
1.170E-06,-0.560
1.180E-06,-0.720
1.190E-06,-0.720
1.200E-06,-0.720
1.210E-06,-0.640
1.220E-06,-0.640
1.230E-06,-0.640
1.240E-06,-0.640
1.250E-06,-0.720
1.260E-06,-0.800
1.270E-06,-0.960
1.280E-06,-0.960
1.290E-06,-1.040
1.300E-06,-1.200
1.310E-06,-1.200
1.320E-06,-1.360
1.330E-06,-1.440
1.340E-06,-1.440
1.350E-06,-1.360
1.360E-06,-1.520
1.370E-06,-1.440
1.380E-06,-1.200
1.390E-06,-1.120
1.400E-06,-1.040
1.410E-06,-1.120
1.420E-06,-1.120
1.430E-06,-1.360
1.440E-06,-1.520
1.450E-06,-1.600
1.460E-06,-1.600
1.470E-06,-1.600
1.480E-06,-1.760
1.490E-06,-1.840
1.500E-06,-2.000
1.510E-06,-1.840
1.520E-06,-1.840
1.530E-06,-1.680
1.540E-06,-1.760
1.550E-06,-1.760
1.560E-06,-1.760
1.570E-06,-1.920
1.580E-06,-2.080
1.590E-06,-2.160
1.600E-06,-2.240
1.610E-06,-2.400
1.620E-06,-2.480
1.630E-06,-2.560
1.640E-06,-2.640
1.650E-06,-2.640
1.660E-06,-2.800
1.670E-06,-2.720
1.680E-06,-2.960
1.690E-06,-2.960
1.700E-06,-2.720
1.710E-06,-2.480
1.720E-06,-2.240
1.730E-06,-1.680
1.740E-06,-1.040
1.750E-06,-0.720
1.760E-06,0.560
1.770E-06,1.280
1.780E-06,1.680
1.790E-06,1.760
1.800E-06,1.360
1.810E-06,0.800
1.820E-06,0.560
1.830E-06,0.240
1.840E-06,-0.720
1.850E-06,-1.200
1.860E-06,-2.400
1.870E-06,-3.200
1.880E-06,-3.520
1.890E-06,-3.760
1.900E-06,-3.520
1.910E-06,-3.040
1.920E-06,-2.560
1.930E-06,-1.040
1.940E-06,-0.240
1.950E-06,0.480
1.960E-06,0.400
1.970E-06,0.320
1.980E-06,0.000
1.990E-06,-0.080
2.000E-06,0.000
2.010E-06,-0.160
2.020E-06,-0.720
2.030E-06,-1.040
2.040E-06,-1.680
2.050E-06,-2.000
2.060E-06,-2.400
2.070E-06,-2.400
2.080E-06,-2.560
2.090E-06,-2.400
2.100E-06,-2.320
2.110E-06,-2.080
2.120E-06,-1.920
2.130E-06,-1.840
2.140E-06,-1.680
2.150E-06,-1.520
2.160E-06,-1.360
2.170E-06,-1.440
2.180E-06,-1.360
2.190E-06,-1.280
2.200E-06,-1.360
2.210E-06,-1.360
2.220E-06,-0.960
2.230E-06,-0.400
2.240E-06,0.080
2.250E-06,0.560
2.260E-06,0.960
2.270E-06,1.120
2.280E-06,1.360
2.290E-06,1.520
2.300E-06,1.680
2.310E-06,1.600
2.320E-06,1.520
2.330E-06,1.360
2.340E-06,0.880
2.350E-06,0.320
2.360E-06,-0.080
2.370E-06,-0.480
2.380E-06,-0.880
2.390E-06,-1.120
2.400E-06,-1.360
2.410E-06,-1.440
2.420E-06,-1.520
2.430E-06,-1.440
2.440E-06,-1.360
2.450E-06,-1.360
2.460E-06,-1.120
2.470E-06,-0.880
2.480E-06,-0.640
2.490E-06,-0.400
2.500E-06,-0.320
2.510E-06,-0.240
2.520E-06,-0.320
2.530E-06,-0.480
2.540E-06,-0.560
2.550E-06,-0.640
2.560E-06,-0.720
2.570E-06,-0.960
2.580E-06,-1.200
2.590E-06,-1.200
2.600E-06,-1.360
2.610E-06,-1.040
2.620E-06,0.480
2.630E-06,1.440
2.640E-06,1.440
2.650E-06,2.960
2.660E-06,1.040
2.670E-06,2.000
2.680E-06,1.280
2.690E-06,0.800
2.700E-06,0.320
2.710E-06,-0.720
2.720E-06,-2.480
2.730E-06,-2.720
2.740E-06,-3.120
2.750E-06,-3.120
2.760E-06,-2.720
2.770E-06,-2.800
2.780E-06,-2.480
2.790E-06,-1.840
2.800E-06,-1.360
2.810E-06,-1.120
2.820E-06,-1.040
2.830E-06,-0.880
2.840E-06,-0.480
2.850E-06,0.000
2.860E-06,0.080
2.870E-06,0.000
2.880E-06,0.160
2.890E-06,0.320
2.900E-06,0.480
2.910E-06,0.640
2.920E-06,0.800
2.930E-06,1.040
2.940E-06,1.280
2.950E-06,1.360
2.960E-06,1.360
2.970E-06,1.280
2.980E-06,1.040
2.990E-06,0.720
3.000E-06,0.240
3.010E-06,-0.320
3.020E-06,-0.960
3.030E-06,-1.520
3.040E-06,-2.320
3.050E-06,-2.880
3.060E-06,-3.360
3.070E-06,-3.760
3.080E-06,-3.840
3.090E-06,-3.840
3.100E-06,-3.520
3.110E-06,-3.360
3.120E-06,-2.800
3.130E-06,-2.560
3.140E-06,-2.400
3.150E-06,-2.320
3.160E-06,-2.080
3.170E-06,-2.000
