mediciones/Mediciones filtradas (saque las feas)/5-22/-0.01/WaveData4921.csv

#timebase=2000000(ps)
,#voltbase=1000000(mv/100)
#size=4000
-8.400E-06,0.080
-8.390E-06,0.000
-8.380E-06,-0.040
-8.370E-06,0.040
-8.360E-06,0.160
-8.350E-06,0.160
-8.340E-06,0.120
-8.330E-06,0.080
-8.320E-06,0.040
-8.310E-06,-0.040
-8.300E-06,0.000
-8.290E-06,0.120
-8.280E-06,0.120
-8.270E-06,0.160
-8.260E-06,0.080
-8.250E-06,0.000
-8.240E-06,0.040
-8.230E-06,0.080
-8.220E-06,0.120
-8.210E-06,0.080
-8.200E-06,0.120
-8.190E-06,0.080
-8.180E-06,0.040
-8.170E-06,0.080
-8.160E-06,0.080
-8.150E-06,0.080
-8.140E-06,0.080
-8.130E-06,0.120
-8.120E-06,0.120
-8.110E-06,0.040
-8.100E-06,0.080
-8.090E-06,0.120
-8.080E-06,0.120
-8.070E-06,0.120
-8.060E-06,0.080
-8.050E-06,0.080
-8.040E-06,0.120
-8.030E-06,0.160
-8.020E-06,0.080
-8.010E-06,0.160
-8.000E-06,0.080
-7.990E-06,0.080
-7.980E-06,0.080
-7.970E-06,0.080
-7.960E-06,0.120
-7.950E-06,0.160
-7.940E-06,0.200
-7.930E-06,0.040
-7.920E-06,0.040
-7.910E-06,0.040
-7.900E-06,0.000
-7.890E-06,0.080
-7.880E-06,0.120
-7.870E-06,0.120
-7.860E-06,0.120
-7.850E-06,0.120
-7.840E-06,0.000
-7.830E-06,0.040
-7.820E-06,0.120
-7.810E-06,0.120
-7.800E-06,0.080
-7.790E-06,0.080
-7.780E-06,0.040
-7.770E-06,0.040
-7.760E-06,0.080
-7.750E-06,0.120
-7.740E-06,0.080
-7.730E-06,0.080
-7.720E-06,0.080
-7.710E-06,0.040
-7.700E-06,0.040
-7.690E-06,0.080
-7.680E-06,0.080
-7.670E-06,0.080
-7.660E-06,0.160
-7.650E-06,0.040
-7.640E-06,0.080
-7.630E-06,0.080
-7.620E-06,0.080
-7.610E-06,0.080
-7.600E-06,0.040
-7.590E-06,0.080
-7.580E-06,0.080
-7.570E-06,0.080
-7.560E-06,0.080
-7.550E-06,0.000
-7.540E-06,0.080
-7.530E-06,0.080
-7.520E-06,0.080
-7.510E-06,0.080
-7.500E-06,0.080
-7.490E-06,0.080
-7.480E-06,0.040
-7.470E-06,0.040
-7.460E-06,0.120
-7.450E-06,0.120
-7.440E-06,0.040
-7.430E-06,0.080
-7.420E-06,0.080
-7.410E-06,0.040
-7.400E-06,0.120
-7.390E-06,0.160
-7.380E-06,0.040
-7.370E-06,0.080
-7.360E-06,0.080
-7.350E-06,0.080
-7.340E-06,0.080
-7.330E-06,0.080
-7.320E-06,0.080
-7.310E-06,0.080
-7.300E-06,0.040
-7.290E-06,0.040
-7.280E-06,0.080
-7.270E-06,0.040
-7.260E-06,0.040
-7.250E-06,0.080
-7.240E-06,0.040
-7.230E-06,0.080
-7.220E-06,0.040
-7.210E-06,0.040
-7.200E-06,0.080
-7.190E-06,0.160
-7.180E-06,0.120
-7.170E-06,0.040
-7.160E-06,0.080
-7.150E-06,0.080
-7.140E-06,0.080
-7.130E-06,0.080
-7.120E-06,0.160
-7.110E-06,0.120
-7.100E-06,0.040
-7.090E-06,0.080
-7.080E-06,0.080
-7.070E-06,0.080
-7.060E-06,0.080
-7.050E-06,0.080
-7.040E-06,0.080
-7.030E-06,0.080
-7.020E-06,0.040
-7.010E-06,0.040
-7.000E-06,0.040
-6.990E-06,0.040
-6.980E-06,-0.040
-6.970E-06,0.040
-6.960E-06,0.120
-6.950E-06,0.040
-6.940E-06,0.080
-6.930E-06,0.080
-6.920E-06,0.040
-6.910E-06,0.040
-6.900E-06,0.080
-6.890E-06,0.080
-6.880E-06,0.080
-6.870E-06,0.080
-6.860E-06,0.080
-6.850E-06,0.080
-6.840E-06,0.080
-6.830E-06,0.080
-6.820E-06,0.080
-6.810E-06,0.080
-6.800E-06,0.080
-6.790E-06,0.120
-6.780E-06,0.080
-6.770E-06,0.120
-6.760E-06,0.080
-6.750E-06,0.040
-6.740E-06,0.080
-6.730E-06,0.040
-6.720E-06,0.080
-6.710E-06,0.080
-6.700E-06,0.160
-6.690E-06,0.160
-6.680E-06,0.120
-6.670E-06,0.120
-6.660E-06,0.160
-6.650E-06,0.120
-6.640E-06,0.080
-6.630E-06,0.120
-6.620E-06,0.120
-6.610E-06,0.040
-6.600E-06,0.080
-6.590E-06,0.080
-6.580E-06,0.080
-6.570E-06,0.080
-6.560E-06,0.080
-6.550E-06,0.080
-6.540E-06,0.160
-6.530E-06,0.160
-6.520E-06,0.160
-6.510E-06,0.160
-6.500E-06,0.200
-6.490E-06,0.120
-6.480E-06,0.160
-6.470E-06,0.160
-6.460E-06,0.200
-6.450E-06,0.240
-6.440E-06,0.240
-6.430E-06,0.160
-6.420E-06,0.160
-6.410E-06,0.160
-6.400E-06,0.160
-6.390E-06,0.240
-6.380E-06,0.200
-6.370E-06,0.160
-6.360E-06,0.200
-6.350E-06,0.240
-6.340E-06,0.120
-6.330E-06,0.160
-6.320E-06,0.200
-6.310E-06,0.200
-6.300E-06,0.160
-6.290E-06,0.160
-6.280E-06,0.160
-6.270E-06,0.120
-6.260E-06,0.080
-6.250E-06,0.120
-6.240E-06,0.080
-6.230E-06,0.080
-6.220E-06,0.080
-6.210E-06,0.040
-6.200E-06,0.040
-6.190E-06,0.040
-6.180E-06,0.040
-6.170E-06,0.040
-6.160E-06,0.040
-6.150E-06,0.040
-6.140E-06,0.040
-6.130E-06,0.080
-6.120E-06,0.120
-6.110E-06,0.000
-6.100E-06,0.080
-6.090E-06,0.080
-6.080E-06,0.120
-6.070E-06,0.080
-6.060E-06,0.080
-6.050E-06,0.120
-6.040E-06,0.120
-6.030E-06,0.120
-6.020E-06,0.160
-6.010E-06,0.120
-6.000E-06,0.080
-5.990E-06,0.080
-5.980E-06,0.080
-5.970E-06,0.080
-5.960E-06,0.160
-5.950E-06,0.240
-5.940E-06,0.200
-5.930E-06,0.160
-5.920E-06,0.160
-5.910E-06,0.240
-5.900E-06,0.200
-5.890E-06,0.160
-5.880E-06,0.240
-5.870E-06,0.200
-5.860E-06,0.240
-5.850E-06,0.280
-5.840E-06,0.280
-5.830E-06,0.200
-5.820E-06,0.240
-5.810E-06,0.320
-5.800E-06,0.320
-5.790E-06,0.360
-5.780E-06,0.360
-5.770E-06,0.240
-5.760E-06,0.320
-5.750E-06,0.400
-5.740E-06,0.320
-5.730E-06,0.280
-5.720E-06,0.320
-5.710E-06,0.280
-5.700E-06,0.360
-5.690E-06,0.320
-5.680E-06,0.360
-5.670E-06,0.320
-5.660E-06,0.320
-5.650E-06,0.280
-5.640E-06,0.200
-5.630E-06,0.240
-5.620E-06,0.280
-5.610E-06,0.320
-5.600E-06,0.280
-5.590E-06,0.240
-5.580E-06,0.240
-5.570E-06,0.240
-5.560E-06,0.280
-5.550E-06,0.200
-5.540E-06,0.240
-5.530E-06,0.200
-5.520E-06,0.240
-5.510E-06,0.160
-5.500E-06,0.200
-5.490E-06,0.200
-5.480E-06,0.240
-5.470E-06,0.200
-5.460E-06,0.160
-5.450E-06,0.240
-5.440E-06,0.200
-5.430E-06,0.200
-5.420E-06,0.240
-5.410E-06,0.200
-5.400E-06,0.200
-5.390E-06,0.280
-5.380E-06,0.320
-5.370E-06,0.360
-5.360E-06,0.400
-5.350E-06,0.400
-5.340E-06,0.360
-5.330E-06,0.400
-5.320E-06,0.440
-5.310E-06,0.480
-5.300E-06,0.560
-5.290E-06,0.600
-5.280E-06,0.600
-5.270E-06,0.560
-5.260E-06,0.560
-5.250E-06,0.480
-5.240E-06,0.400
-5.230E-06,0.480
-5.220E-06,0.480
-5.210E-06,0.480
-5.200E-06,0.520
-5.190E-06,0.480
-5.180E-06,0.440
-5.170E-06,0.440
-5.160E-06,0.480
-5.150E-06,0.440
-5.140E-06,0.440
-5.130E-06,0.440
-5.120E-06,0.440
-5.110E-06,0.360
-5.100E-06,0.360
-5.090E-06,0.360
-5.080E-06,0.320
-5.070E-06,0.400
-5.060E-06,0.400
-5.050E-06,0.320
-5.040E-06,0.360
-5.030E-06,0.320
-5.020E-06,0.320
-5.010E-06,0.320
-5.000E-06,0.360
-4.990E-06,0.360
-4.980E-06,0.280
-4.970E-06,0.320
-4.960E-06,0.240
-4.950E-06,0.200
-4.940E-06,0.240
-4.930E-06,0.200
-4.920E-06,0.200
-4.910E-06,0.200
-4.900E-06,0.160
-4.890E-06,0.080
-4.880E-06,0.120
-4.870E-06,0.120
-4.860E-06,0.160
-4.850E-06,0.200
-4.840E-06,0.160
-4.830E-06,0.160
-4.820E-06,0.200
-4.810E-06,0.160
-4.800E-06,0.120
-4.790E-06,0.160
-4.780E-06,0.160
-4.770E-06,0.160
-4.760E-06,0.200
-4.750E-06,0.160
-4.740E-06,0.160
-4.730E-06,0.120
-4.720E-06,0.160
-4.710E-06,0.160
-4.700E-06,0.200
-4.690E-06,0.200
-4.680E-06,0.200
-4.670E-06,0.280
-4.660E-06,0.280
-4.650E-06,0.320
-4.640E-06,0.320
-4.630E-06,0.400
-4.620E-06,0.400
-4.610E-06,0.360
-4.600E-06,0.360
-4.590E-06,0.280
-4.580E-06,0.400
-4.570E-06,0.480
-4.560E-06,0.560
-4.550E-06,0.680
-4.540E-06,0.720
-4.530E-06,0.480
-4.520E-06,0.440
-4.510E-06,0.440
-4.500E-06,0.520
-4.490E-06,0.600
-4.480E-06,0.640
-4.470E-06,0.600
-4.460E-06,0.520
-4.450E-06,0.480
-4.440E-06,0.400
-4.430E-06,0.360
-4.420E-06,0.400
-4.410E-06,0.320
-4.400E-06,0.320
-4.390E-06,0.200
-4.380E-06,0.160
-4.370E-06,0.000
-4.360E-06,0.000
-4.350E-06,-0.040
-4.340E-06,-0.080
-4.330E-06,-0.080
-4.320E-06,-0.160
-4.310E-06,-0.200
-4.300E-06,-0.200
-4.290E-06,-0.200
-4.280E-06,-0.120
-4.270E-06,-0.120
-4.260E-06,-0.200
-4.250E-06,-0.160
-4.240E-06,-0.120
-4.230E-06,-0.120
-4.220E-06,-0.040
-4.210E-06,-0.040
-4.200E-06,0.000
-4.190E-06,0.000
-4.180E-06,0.000
-4.170E-06,0.000
-4.160E-06,0.000
-4.150E-06,0.040
-4.140E-06,0.040
-4.130E-06,0.080
-4.120E-06,0.160
-4.110E-06,0.160
-4.100E-06,0.240
-4.090E-06,0.360
-4.080E-06,0.400
-4.070E-06,0.480
-4.060E-06,0.600
-4.050E-06,0.680
-4.040E-06,0.760
-4.030E-06,0.800
-4.020E-06,0.760
-4.010E-06,0.720
-4.000E-06,0.800
-3.990E-06,0.800
-3.980E-06,0.840
-3.970E-06,0.920
-3.960E-06,0.880
-3.950E-06,0.840
-3.940E-06,0.880
-3.930E-06,0.840
-3.920E-06,0.800
-3.910E-06,0.760
-3.900E-06,0.800
-3.890E-06,0.760
-3.880E-06,0.720
-3.870E-06,0.720
-3.860E-06,0.680
-3.850E-06,0.680
-3.840E-06,0.600
-3.830E-06,0.560
-3.820E-06,0.600
-3.810E-06,0.600
-3.800E-06,0.640
-3.790E-06,0.680
-3.780E-06,0.680
-3.770E-06,0.600
-3.760E-06,0.600
-3.750E-06,0.400
-3.740E-06,0.400
-3.730E-06,0.400
-3.720E-06,0.320
-3.710E-06,0.360
-3.700E-06,0.480
-3.690E-06,0.480
-3.680E-06,0.520
-3.670E-06,0.600
-3.660E-06,0.600
-3.650E-06,0.640
-3.640E-06,0.560
-3.630E-06,0.480
-3.620E-06,0.440
-3.610E-06,0.440
-3.600E-06,0.440
-3.590E-06,0.600
-3.580E-06,0.640
-3.570E-06,0.640
-3.560E-06,0.680
-3.550E-06,0.680
-3.540E-06,0.640
-3.530E-06,0.680
-3.520E-06,0.720
-3.510E-06,0.760
-3.500E-06,0.840
-3.490E-06,0.840
-3.480E-06,0.840
-3.470E-06,0.840
-3.460E-06,0.880
-3.450E-06,0.800
-3.440E-06,0.920
-3.430E-06,1.000
-3.420E-06,1.080
-3.410E-06,1.080
-3.400E-06,1.040
-3.390E-06,1.200
-3.380E-06,0.960
-3.370E-06,0.840
-3.360E-06,0.960
-3.350E-06,0.840
-3.340E-06,0.840
-3.330E-06,1.120
-3.320E-06,1.040
-3.310E-06,1.200
-3.300E-06,1.360
-3.290E-06,1.320
-3.280E-06,1.280
-3.270E-06,1.160
-3.260E-06,1.160
-3.250E-06,1.240
-3.240E-06,1.400
-3.230E-06,1.560
-3.220E-06,1.440
-3.210E-06,1.240
-3.200E-06,0.840
-3.190E-06,0.680
-3.180E-06,0.680
-3.170E-06,1.000
-3.160E-06,1.080
-3.150E-06,1.320
-3.140E-06,1.280
-3.130E-06,0.920
-3.120E-06,1.000
-3.110E-06,0.880
-3.100E-06,0.560
-3.090E-06,0.680
-3.080E-06,0.800
-3.070E-06,0.720
-3.060E-06,0.800
-3.050E-06,0.920
-3.040E-06,0.640
-3.030E-06,0.480
-3.020E-06,0.720
-3.010E-06,0.560
-3.000E-06,0.400
-2.990E-06,0.440
-2.980E-06,0.600
-2.970E-06,0.440
-2.960E-06,0.840
-2.950E-06,0.840
-2.940E-06,0.440
-2.930E-06,0.080
-2.920E-06,-0.040
-2.910E-06,0.080
-2.900E-06,0.440
-2.890E-06,0.800
-2.880E-06,0.880
-2.870E-06,0.520
-2.860E-06,0.520
-2.850E-06,0.400
-2.840E-06,0.360
-2.830E-06,0.640
-2.820E-06,0.640
-2.810E-06,0.200
-2.800E-06,0.880
-2.790E-06,0.680
-2.780E-06,1.240
-2.770E-06,1.680
-2.760E-06,1.440
-2.750E-06,0.720
-2.740E-06,0.640
-2.730E-06,0.120
-2.720E-06,0.040
-2.710E-06,0.520
-2.700E-06,0.640
-2.690E-06,0.640
-2.680E-06,0.760
-2.670E-06,0.600
-2.660E-06,0.320
-2.650E-06,0.360
-2.640E-06,0.360
-2.630E-06,0.320
-2.620E-06,0.360
-2.610E-06,0.280
-2.600E-06,0.120
-2.590E-06,0.040
-2.580E-06,-0.080
-2.570E-06,-0.280
-2.560E-06,-0.400
-2.550E-06,-0.520
-2.540E-06,-0.680
-2.530E-06,-0.800
-2.520E-06,-0.960
-2.510E-06,-1.080
-2.500E-06,-1.240
-2.490E-06,-1.240
-2.480E-06,-1.320
-2.470E-06,-1.160
-2.460E-06,-0.800
-2.450E-06,-0.560
-2.440E-06,-0.440
-2.430E-06,-0.200
-2.420E-06,-0.240
-2.410E-06,-0.240
-2.400E-06,-0.040
-2.390E-06,0.160
-2.380E-06,0.400
-2.370E-06,0.600
-2.360E-06,0.720
-2.350E-06,0.880
-2.340E-06,0.960
-2.330E-06,1.040
-2.320E-06,1.040
-2.310E-06,1.360
-2.300E-06,0.880
-2.290E-06,0.880
-2.280E-06,0.600
-2.270E-06,0.240
-2.260E-06,0.760
-2.250E-06,1.040
-2.240E-06,1.400
-2.230E-06,1.880
-2.220E-06,1.800
-2.210E-06,1.680
-2.200E-06,1.800
-2.190E-06,1.680
-2.180E-06,1.560
-2.170E-06,1.720
-2.160E-06,1.680
-2.150E-06,1.480
-2.140E-06,1.360
-2.130E-06,1.240
-2.120E-06,0.920
-2.110E-06,0.760
-2.100E-06,0.520
-2.090E-06,0.120
-2.080E-06,-0.120
-2.070E-06,-0.320
-2.060E-06,-0.520
-2.050E-06,-0.800
-2.040E-06,-0.960
-2.030E-06,-1.240
-2.020E-06,-1.480
-2.010E-06,-1.520
-2.000E-06,-1.440
-1.990E-06,-1.400
-1.980E-06,-1.360
-1.970E-06,-1.320
-1.960E-06,-1.440
-1.950E-06,-1.480
-1.940E-06,-1.600
-1.930E-06,-1.600
-1.920E-06,-1.560
-1.910E-06,-1.560
-1.900E-06,-1.480
-1.890E-06,-1.520
-1.880E-06,-1.480
-1.870E-06,-1.400
-1.860E-06,-1.360
-1.850E-06,-1.160
-1.840E-06,-0.920
-1.830E-06,-0.720
-1.820E-06,-0.600
-1.810E-06,-0.480
-1.800E-06,-0.400
-1.790E-06,-0.320
-1.780E-06,-0.040
-1.770E-06,0.160
-1.760E-06,0.320
-1.750E-06,0.600
-1.740E-06,0.680
-1.730E-06,0.920
-1.720E-06,1.120
-1.710E-06,1.120
-1.700E-06,1.240
-1.690E-06,1.440
-1.680E-06,1.320
-1.670E-06,1.320
-1.660E-06,1.400
-1.650E-06,1.360
-1.640E-06,1.440
-1.630E-06,1.440
-1.620E-06,1.320
-1.610E-06,1.200
-1.600E-06,1.120
-1.590E-06,1.080
-1.580E-06,1.080
-1.570E-06,1.000
-1.560E-06,0.920
-1.550E-06,0.880
-1.540E-06,0.760
-1.530E-06,0.680
-1.520E-06,0.640
-1.510E-06,0.520
-1.500E-06,0.480
-1.490E-06,0.480
-1.480E-06,0.360
-1.470E-06,0.280
-1.460E-06,0.200
-1.450E-06,0.200
-1.440E-06,0.160
-1.430E-06,0.160
-1.420E-06,0.080
-1.410E-06,0.040
-1.400E-06,-0.080
-1.390E-06,-0.200
-1.380E-06,-0.400
-1.370E-06,-0.400
-1.360E-06,-0.480
-1.350E-06,-0.080
-1.340E-06,0.400
-1.330E-06,0.480
-1.320E-06,0.840
-1.310E-06,0.840
-1.300E-06,0.600
-1.290E-06,0.720
-1.280E-06,0.880
-1.270E-06,0.800
-1.260E-06,0.880
-1.250E-06,0.920
-1.240E-06,0.640
-1.230E-06,0.560
-1.220E-06,0.480
-1.210E-06,0.200
-1.200E-06,0.080
-1.190E-06,0.000
-1.180E-06,-0.280
-1.170E-06,-0.360
-1.160E-06,-0.480
-1.150E-06,-0.600
-1.140E-06,-0.720
-1.130E-06,-0.880
-1.120E-06,-0.960
-1.110E-06,-1.040
-1.100E-06,-1.160
-1.090E-06,-1.240
-1.080E-06,-1.360
-1.070E-06,-1.440
-1.060E-06,-1.520
-1.050E-06,-1.720
-1.040E-06,-1.720
-1.030E-06,-1.840
-1.020E-06,-1.760
-1.010E-06,-1.600
-1.000E-06,-1.320
-9.900E-07,-1.200
-9.800E-07,-1.120
-9.700E-07,-1.120
-9.600E-07,-1.000
-9.500E-07,-0.840
-9.400E-07,-0.600
-9.300E-07,-0.360
-9.200E-07,-0.080
-9.100E-07,0.040
-9.000E-07,0.240
-8.900E-07,0.480
-8.800E-07,0.640
-8.700E-07,0.880
-8.600E-07,1.040
-8.500E-07,1.200
-8.400E-07,1.400
-8.300E-07,1.560
-8.200E-07,1.720
-8.100E-07,1.840
-8.000E-07,1.840
-7.900E-07,1.840
-7.800E-07,1.760
-7.700E-07,1.760
-7.600E-07,1.680
-7.500E-07,1.760
-7.400E-07,1.760
-7.300E-07,1.680
-7.200E-07,1.440
-7.100E-07,1.200
-7.000E-07,0.800
-6.900E-07,0.600
-6.800E-07,0.480
-6.700E-07,0.440
-6.600E-07,0.600
-6.500E-07,0.600
-6.400E-07,0.320
-6.300E-07,0.200
-6.200E-07,0.000
-6.100E-07,-0.280
-6.000E-07,-0.360
-5.900E-07,-0.240
-5.800E-07,-0.160
-5.700E-07,-0.160
-5.600E-07,-0.240
-5.500E-07,-0.360
-5.400E-07,-0.440
-5.300E-07,-0.520
-5.200E-07,-0.600
-5.100E-07,-0.600
-5.000E-07,-0.600
-4.900E-07,-0.480
-4.800E-07,-0.480
-4.700E-07,-0.400
-4.600E-07,-0.400
-4.500E-07,-0.320
-4.400E-07,-0.360
-4.300E-07,-0.280
-4.200E-07,-0.200
-4.100E-07,-0.240
-4.000E-07,-0.160
-3.900E-07,0.000
-3.800E-07,0.120
-3.700E-07,0.280
-3.600E-07,0.360
-3.500E-07,0.240
-3.400E-07,0.320
-3.300E-07,0.440
-3.200E-07,0.440
-3.100E-07,0.560
-3.000E-07,0.640
-2.900E-07,0.640
-2.800E-07,0.640
-2.700E-07,0.640
-2.600E-07,0.600
-2.500E-07,0.480
-2.400E-07,0.480
-2.300E-07,0.400
-2.200E-07,0.400
-2.100E-07,0.320
-2.000E-07,0.360
-1.900E-07,0.320
-1.800E-07,0.280
-1.700E-07,0.040
-1.600E-07,-0.120
-1.500E-07,-0.400
-1.400E-07,-0.640
-1.300E-07,-0.720
-1.200E-07,-0.720
-1.100E-07,-0.680
-1.000E-07,-0.560
-9.000E-08,-0.440
-8.000E-08,-0.560
-7.000E-08,-0.320
-6.000E-08,-0.480
-5.000E-08,-0.440
-4.000E-08,-0.320
-3.000E-08,-0.520
-2.000E-08,-1.400
-1.000E-08,-1.800
0.000E+00,-0.040
1.000E-08,1.520
2.000E-08,4.080
3.000E-08,5.440
4.000E-08,5.120
5.000E-08,3.240
6.000E-08,2.240
7.000E-08,1.080
8.000E-08,0.760
9.000E-08,1.720
1.000E-07,2.120
1.100E-07,1.960
1.200E-07,1.560
1.300E-07,0.440
1.400E-07,-0.520
1.500E-07,-0.720
1.600E-07,-1.040
1.700E-07,-1.400
1.800E-07,-1.320
1.900E-07,-1.680
2.000E-07,-2.000
2.100E-07,-2.160
2.200E-07,-2.320
2.300E-07,-2.680
2.400E-07,-2.920
2.500E-07,-3.200
2.600E-07,-3.560
2.700E-07,-3.800
2.800E-07,-4.000
2.900E-07,-3.920
3.000E-07,-3.680
3.100E-07,-3.440
3.200E-07,-3.120
3.300E-07,-2.680
3.400E-07,-2.400
3.500E-07,-2.000
3.600E-07,-1.680
3.700E-07,-1.400
3.800E-07,-1.080
3.900E-07,-0.520
4.000E-07,0.000
4.100E-07,0.680
4.200E-07,1.280
4.300E-07,1.520
4.400E-07,1.680
4.500E-07,1.760
4.600E-07,1.760
4.700E-07,1.760
4.800E-07,1.800
4.900E-07,1.840
5.000E-07,1.720
5.100E-07,1.680
5.200E-07,1.680
5.300E-07,1.720
5.400E-07,1.640
5.500E-07,1.680
5.600E-07,1.520
5.700E-07,1.280
5.800E-07,1.240
5.900E-07,0.960
6.000E-07,0.600
6.100E-07,0.400
6.200E-07,0.200
6.300E-07,-0.200
6.400E-07,-0.240
6.500E-07,-0.240
6.600E-07,-0.240
6.700E-07,-0.160
6.800E-07,0.000
6.900E-07,0.240
7.000E-07,0.440
7.100E-07,0.600
7.200E-07,0.600
7.300E-07,0.280
7.400E-07,-0.080
7.500E-07,-0.320
7.600E-07,-0.640
7.700E-07,-0.640
7.800E-07,-1.360
7.900E-07,-2.240
8.000E-07,-3.280
8.100E-07,-4.000
8.200E-07,-3.640
8.300E-07,-2.000
8.400E-07,-0.520
8.500E-07,0.040
8.600E-07,0.120
8.700E-07,-0.920
8.800E-07,-1.600
8.900E-07,-0.880
9.000E-07,0.480
9.100E-07,1.760
9.200E-07,3.360
9.300E-07,4.040
9.400E-07,3.720
9.500E-07,2.880
9.600E-07,2.080
9.700E-07,1.360
9.800E-07,1.120
9.900E-07,1.360
1.000E-06,1.680
1.010E-06,1.880
1.020E-06,1.880
1.030E-06,1.520
1.040E-06,0.920
1.050E-06,0.440
1.060E-06,0.040
1.070E-06,-0.120
1.080E-06,0.000
1.090E-06,0.040
1.100E-06,0.120
1.110E-06,0.200
1.120E-06,0.160
1.130E-06,0.000
1.140E-06,-0.040
1.150E-06,-0.120
1.160E-06,-0.080
1.170E-06,-0.080
1.180E-06,0.000
1.190E-06,0.040
1.200E-06,0.080
1.210E-06,0.160
1.220E-06,0.080
1.230E-06,-0.080
1.240E-06,-0.160
1.250E-06,-0.240
1.260E-06,-0.240
1.270E-06,-0.160
1.280E-06,-0.120
1.290E-06,-0.200
1.300E-06,-0.120
1.310E-06,-0.120
1.320E-06,0.040
1.330E-06,0.120
1.340E-06,0.360
1.350E-06,0.520
1.360E-06,0.520
1.370E-06,0.480
1.380E-06,0.320
1.390E-06,0.120
1.400E-06,-0.080
1.410E-06,-0.400
1.420E-06,-0.560
1.430E-06,-0.640
1.440E-06,-0.880
1.450E-06,-1.000
1.460E-06,-1.160
1.470E-06,-1.360
1.480E-06,-1.520
1.490E-06,-1.600
1.500E-06,-2.080
1.510E-06,-2.520
1.520E-06,-2.960
1.530E-06,-3.840
1.540E-06,-4.600
1.550E-06,-5.240
1.560E-06,-5.200
1.570E-06,-5.200
1.580E-06,-5.240
1.590E-06,-5.200
1.600E-06,-4.000
1.610E-06,-1.960
1.620E-06,0.160
1.630E-06,2.160
1.640E-06,3.280
1.650E-06,2.840
1.660E-06,1.040
1.670E-06,-1.120
1.680E-06,-3.000
1.690E-06,-4.160
1.700E-06,-4.440
1.710E-06,-3.840
1.720E-06,-3.080
1.730E-06,-2.080
1.740E-06,-1.080
1.750E-06,-0.040
1.760E-06,1.320
1.770E-06,2.480
1.780E-06,3.640
1.790E-06,4.360
1.800E-06,4.520
1.810E-06,4.360
1.820E-06,4.000
1.830E-06,3.520
1.840E-06,3.240
1.850E-06,3.000
1.860E-06,2.680
1.870E-06,2.000
1.880E-06,1.120
1.890E-06,-0.080
1.900E-06,-1.600
1.910E-06,-3.040
1.920E-06,-4.440
1.930E-06,-5.200
1.940E-06,-5.200
1.950E-06,-5.200
1.960E-06,-5.200
1.970E-06,-5.240
1.980E-06,-5.240
1.990E-06,-5.240
2.000E-06,-5.240
2.010E-06,-5.240
2.020E-06,-5.200
2.030E-06,-5.200
2.040E-06,-5.240
2.050E-06,-5.240
2.060E-06,-5.120
2.070E-06,-4.680
2.080E-06,-4.400
2.090E-06,-4.400
2.100E-06,-4.400
2.110E-06,-4.520
2.120E-06,-4.560
2.130E-06,-4.720
2.140E-06,-4.840
2.150E-06,-4.920
2.160E-06,-5.000
2.170E-06,-5.120
2.180E-06,-5.200
2.190E-06,-5.200
2.200E-06,-5.240
2.210E-06,-5.160
2.220E-06,-5.000
2.230E-06,-4.640
2.240E-06,-4.240
2.250E-06,-3.960
2.260E-06,-3.720
2.270E-06,-3.640
2.280E-06,-3.560
2.290E-06,-3.600
2.300E-06,-3.640
2.310E-06,-3.560
2.320E-06,-3.560
2.330E-06,-3.680
2.340E-06,-3.680
2.350E-06,-3.480
2.360E-06,-3.120
2.370E-06,-2.440
2.380E-06,-1.720
2.390E-06,-1.320
2.400E-06,-1.200
2.410E-06,-1.360
2.420E-06,-1.720
2.430E-06,-1.760
2.440E-06,-1.760
2.450E-06,-1.600
2.460E-06,-1.360
2.470E-06,-1.280
2.480E-06,-1.160
2.490E-06,-1.120
2.500E-06,-0.960
2.510E-06,-0.640
2.520E-06,-0.320
2.530E-06,-0.080
2.540E-06,0.000
2.550E-06,-0.040
2.560E-06,-0.280
2.570E-06,-0.520
2.580E-06,-0.640
2.590E-06,-0.640
2.600E-06,-0.600
2.610E-06,-0.440
2.620E-06,-0.360
2.630E-06,-0.360
2.640E-06,-0.600
2.650E-06,-0.960
2.660E-06,-1.480
2.670E-06,-2.080
2.680E-06,-2.400
2.690E-06,-2.520
2.700E-06,-2.200
2.710E-06,-1.480
2.720E-06,-0.880
2.730E-06,-0.520
2.740E-06,-0.520
2.750E-06,-0.920
2.760E-06,-1.440
2.770E-06,-1.760
2.780E-06,-2.000
2.790E-06,-1.960
2.800E-06,-1.760
2.810E-06,-1.520
2.820E-06,-1.200
2.830E-06,-0.840
2.840E-06,-0.560
2.850E-06,-0.520
2.860E-06,-0.400
2.870E-06,-0.360
2.880E-06,-0.400
2.890E-06,-0.400
2.900E-06,-0.400
2.910E-06,-0.520
2.920E-06,-0.600
2.930E-06,-0.680
2.940E-06,-0.880
2.950E-06,-1.080
2.960E-06,-1.120
2.970E-06,-1.200
2.980E-06,-1.240
2.990E-06,-1.280
3.000E-06,-1.320
3.010E-06,-1.280
3.020E-06,-1.280
3.030E-06,-1.240
3.040E-06,-1.240
3.050E-06,-1.280
3.060E-06,-1.200
3.070E-06,-1.120
3.080E-06,-1.160
3.090E-06,-1.200
3.100E-06,-1.240
3.110E-06,-1.240
3.120E-06,-1.360
3.130E-06,-1.320
3.140E-06,-1.360
3.150E-06,-1.400
3.160E-06,-1.480
3.170E-06,-1.520
3.180E-06,-1.480
3.190E-06,-1.480
3.200E-06,-1.480
3.210E-06,-1.480
3.220E-06,-1.400
3.230E-06,-1.360
3.240E-06,-1.320
3.250E-06,-1.320
3.260E-06,-1.240
3.270E-06,-1.120
3.280E-06,-1.160
3.290E-06,-1.120
