mediciones/Mediciones filtradas (saque las feas)/5-27/-47.5/WaveData50179.csv

#timebase=2000000(ps)
,#voltbase=1000000(mv/100)
#size=4000
-8.400E-06,0.200
-8.390E-06,0.480
-8.380E-06,1.000
-8.370E-06,1.800
-8.360E-06,2.800
-8.350E-06,3.720
-8.340E-06,3.800
-8.330E-06,3.320
-8.320E-06,2.280
-8.310E-06,0.600
-8.300E-06,-0.480
-8.290E-06,-1.280
-8.280E-06,-1.760
-8.270E-06,-2.200
-8.260E-06,-2.720
-8.250E-06,-3.120
-8.240E-06,-3.480
-8.230E-06,-3.400
-8.220E-06,-2.920
-8.210E-06,-2.520
-8.200E-06,-2.000
-8.190E-06,-1.760
-8.180E-06,-1.680
-8.170E-06,-1.600
-8.160E-06,-1.400
-8.150E-06,-1.160
-8.140E-06,-0.880
-8.130E-06,-0.560
-8.120E-06,-0.200
-8.110E-06,0.160
-8.100E-06,0.600
-8.090E-06,1.080
-8.080E-06,1.520
-8.070E-06,1.760
-8.060E-06,1.840
-8.050E-06,1.840
-8.040E-06,1.600
-8.030E-06,1.480
-8.020E-06,1.280
-8.010E-06,1.120
-8.000E-06,0.840
-7.990E-06,0.520
-7.980E-06,0.240
-7.970E-06,0.000
-7.960E-06,-0.120
-7.950E-06,-0.120
-7.940E-06,0.000
-7.930E-06,0.080
-7.920E-06,0.120
-7.910E-06,0.120
-7.900E-06,0.120
-7.890E-06,0.040
-7.880E-06,0.000
-7.870E-06,-0.040
-7.860E-06,-0.040
-7.850E-06,-0.080
-7.840E-06,-0.080
-7.830E-06,-0.040
-7.820E-06,0.040
-7.810E-06,0.120
-7.800E-06,0.120
-7.790E-06,0.160
-7.780E-06,0.080
-7.770E-06,0.080
-7.760E-06,0.000
-7.750E-06,-0.120
-7.740E-06,-0.200
-7.730E-06,-0.320
-7.720E-06,-0.560
-7.710E-06,-0.760
-7.700E-06,-0.840
-7.690E-06,-0.880
-7.680E-06,-0.840
-7.670E-06,-0.840
-7.660E-06,-0.720
-7.650E-06,-0.640
-7.640E-06,-0.600
-7.630E-06,-0.520
-7.620E-06,-0.400
-7.610E-06,-0.160
-7.600E-06,-0.080
-7.590E-06,0.080
-7.580E-06,0.160
-7.570E-06,0.120
-7.560E-06,0.240
-7.550E-06,0.360
-7.540E-06,0.320
-7.530E-06,0.440
-7.520E-06,0.320
-7.510E-06,0.360
-7.500E-06,0.320
-7.490E-06,0.120
-7.480E-06,0.160
-7.470E-06,0.040
-7.460E-06,0.120
-7.450E-06,0.000
-7.440E-06,-0.080
-7.430E-06,-0.040
-7.420E-06,-0.160
-7.410E-06,-0.120
-7.400E-06,-0.080
-7.390E-06,-0.120
-7.380E-06,-0.040
-7.370E-06,-0.160
-7.360E-06,-0.080
-7.350E-06,-0.080
-7.340E-06,-0.120
-7.330E-06,0.040
-7.320E-06,-0.040
-7.310E-06,0.000
-7.300E-06,0.040
-7.290E-06,0.080
-7.280E-06,0.200
-7.270E-06,0.200
-7.260E-06,0.240
-7.250E-06,0.280
-7.240E-06,0.320
-7.230E-06,0.240
-7.220E-06,0.280
-7.210E-06,0.320
-7.200E-06,0.280
-7.190E-06,0.280
-7.180E-06,0.120
-7.170E-06,0.080
-7.160E-06,0.040
-7.150E-06,-0.040
-7.140E-06,-0.040
-7.130E-06,-0.040
-7.120E-06,-0.080
-7.110E-06,-0.040
-7.100E-06,-0.080
-7.090E-06,-0.080
-7.080E-06,-0.160
-7.070E-06,-0.080
-7.060E-06,-0.040
-7.050E-06,-0.040
-7.040E-06,-0.040
-7.030E-06,0.040
-7.020E-06,0.040
-7.010E-06,0.040
-7.000E-06,0.000
-6.990E-06,0.040
-6.980E-06,0.120
-6.970E-06,0.240
-6.960E-06,0.280
-6.950E-06,0.320
-6.940E-06,0.400
-6.930E-06,0.440
-6.920E-06,0.480
-6.910E-06,0.480
-6.900E-06,0.520
-6.890E-06,0.600
-6.880E-06,0.640
-6.870E-06,0.680
-6.860E-06,0.600
-6.850E-06,0.640
-6.840E-06,0.600
-6.830E-06,0.560
-6.820E-06,0.520
-6.810E-06,0.480
-6.800E-06,0.400
-6.790E-06,0.320
-6.780E-06,0.320
-6.770E-06,0.280
-6.760E-06,0.240
-6.750E-06,0.200
-6.740E-06,0.160
-6.730E-06,0.200
-6.720E-06,0.240
-6.710E-06,0.240
-6.700E-06,0.160
-6.690E-06,0.240
-6.680E-06,0.240
-6.670E-06,0.280
-6.660E-06,0.280
-6.650E-06,0.320
-6.640E-06,0.320
-6.630E-06,0.360
-6.620E-06,0.320
-6.610E-06,0.360
-6.600E-06,0.320
-6.590E-06,0.320
-6.580E-06,0.360
-6.570E-06,0.400
-6.560E-06,0.360
-6.550E-06,0.360
-6.540E-06,0.360
-6.530E-06,0.360
-6.520E-06,0.400
-6.510E-06,0.400
-6.500E-06,0.360
-6.490E-06,0.440
-6.480E-06,0.400
-6.470E-06,0.360
-6.460E-06,0.400
-6.450E-06,0.360
-6.440E-06,0.440
-6.430E-06,0.440
-6.420E-06,0.400
-6.410E-06,0.360
-6.400E-06,0.320
-6.390E-06,0.360
-6.380E-06,0.400
-6.370E-06,0.400
-6.360E-06,0.400
-6.350E-06,0.440
-6.340E-06,0.440
-6.330E-06,0.440
-6.320E-06,0.440
-6.310E-06,0.440
-6.300E-06,0.440
-6.290E-06,0.440
-6.280E-06,0.440
-6.270E-06,0.360
-6.260E-06,0.280
-6.250E-06,0.120
-6.240E-06,-0.200
-6.230E-06,-0.520
-6.220E-06,-0.800
-6.210E-06,-1.040
-6.200E-06,-0.880
-6.190E-06,-0.640
-6.180E-06,-0.160
-6.170E-06,0.160
-6.160E-06,0.480
-6.150E-06,0.680
-6.140E-06,0.760
-6.130E-06,0.960
-6.120E-06,1.080
-6.110E-06,1.360
-6.100E-06,1.680
-6.090E-06,1.800
-6.080E-06,2.040
-6.070E-06,2.040
-6.060E-06,2.120
-6.050E-06,2.080
-6.040E-06,2.120
-6.030E-06,2.160
-6.020E-06,2.240
-6.010E-06,2.240
-6.000E-06,2.080
-5.990E-06,1.960
-5.980E-06,1.760
-5.970E-06,1.440
-5.960E-06,1.080
-5.950E-06,0.760
-5.940E-06,0.520
-5.930E-06,0.360
-5.920E-06,0.360
-5.910E-06,0.480
-5.900E-06,0.480
-5.890E-06,0.360
-5.880E-06,0.120
-5.870E-06,-0.080
-5.860E-06,0.080
-5.850E-06,0.480
-5.840E-06,1.080
-5.830E-06,1.240
-5.820E-06,1.560
-5.810E-06,1.240
-5.800E-06,1.040
-5.790E-06,1.240
-5.780E-06,1.960
-5.770E-06,1.960
-5.760E-06,1.800
-5.750E-06,1.560
-5.740E-06,1.000
-5.730E-06,0.800
-5.720E-06,1.200
-5.710E-06,1.520
-5.700E-06,1.880
-5.690E-06,1.800
-5.680E-06,1.520
-5.670E-06,1.120
-5.660E-06,0.960
-5.650E-06,1.400
-5.640E-06,1.320
-5.630E-06,1.440
-5.620E-06,1.400
-5.610E-06,1.080
-5.600E-06,1.120
-5.590E-06,0.960
-5.580E-06,1.080
-5.570E-06,1.280
-5.560E-06,1.280
-5.550E-06,1.320
-5.540E-06,1.200
-5.530E-06,1.080
-5.520E-06,1.120
-5.510E-06,1.080
-5.500E-06,1.080
-5.490E-06,1.000
-5.480E-06,0.880
-5.470E-06,0.760
-5.460E-06,0.640
-5.450E-06,0.520
-5.440E-06,0.440
-5.430E-06,0.360
-5.420E-06,0.200
-5.410E-06,0.040
-5.400E-06,-0.080
-5.390E-06,-0.040
-5.380E-06,0.000
-5.370E-06,0.000
-5.360E-06,0.080
-5.350E-06,0.040
-5.340E-06,0.040
-5.330E-06,0.080
-5.320E-06,0.080
-5.310E-06,0.200
-5.300E-06,0.280
-5.290E-06,0.320
-5.280E-06,0.320
-5.270E-06,0.320
-5.260E-06,0.360
-5.250E-06,0.440
-5.240E-06,0.400
-5.230E-06,0.320
-5.220E-06,0.280
-5.210E-06,0.080
-5.200E-06,0.040
-5.190E-06,0.040
-5.180E-06,0.160
-5.170E-06,0.120
-5.160E-06,0.040
-5.150E-06,0.040
-5.140E-06,-0.040
-5.130E-06,-0.080
-5.120E-06,0.000
-5.110E-06,-0.080
-5.100E-06,-0.160
-5.090E-06,-0.040
-5.080E-06,-0.200
-5.070E-06,-0.120
-5.060E-06,0.000
-5.050E-06,0.040
-5.040E-06,0.240
-5.030E-06,0.520
-5.020E-06,0.640
-5.010E-06,0.600
-5.000E-06,0.800
-4.990E-06,0.680
-4.980E-06,0.800
-4.970E-06,1.240
-4.960E-06,1.400
-4.950E-06,1.880
-4.940E-06,2.000
-4.930E-06,1.960
-4.920E-06,2.080
-4.910E-06,2.000
-4.900E-06,2.120
-4.890E-06,2.160
-4.880E-06,2.280
-4.870E-06,2.360
-4.860E-06,2.240
-4.850E-06,2.120
-4.840E-06,1.880
-4.830E-06,2.040
-4.820E-06,1.680
-4.810E-06,1.840
-4.800E-06,1.800
-4.790E-06,1.760
-4.780E-06,1.880
-4.770E-06,1.640
-4.760E-06,1.600
-4.750E-06,1.640
-4.740E-06,1.640
-4.730E-06,1.800
-4.720E-06,1.800
-4.710E-06,1.640
-4.700E-06,1.600
-4.690E-06,1.320
-4.680E-06,1.400
-4.670E-06,1.480
-4.660E-06,1.480
-4.650E-06,1.600
-4.640E-06,1.600
-4.630E-06,1.520
-4.620E-06,1.520
-4.610E-06,1.400
-4.600E-06,1.360
-4.590E-06,1.400
-4.580E-06,1.280
-4.570E-06,1.280
-4.560E-06,1.200
-4.550E-06,1.080
-4.540E-06,1.040
-4.530E-06,0.920
-4.520E-06,0.840
-4.510E-06,0.920
-4.500E-06,0.920
-4.490E-06,0.800
-4.480E-06,0.880
-4.470E-06,0.640
-4.460E-06,0.680
-4.450E-06,0.480
-4.440E-06,0.400
-4.430E-06,0.360
-4.420E-06,0.120
-4.410E-06,-0.120
-4.400E-06,-0.040
-4.390E-06,-0.160
-4.380E-06,-0.080
-4.370E-06,0.320
-4.360E-06,0.320
-4.350E-06,0.480
-4.340E-06,0.160
-4.330E-06,-0.200
-4.320E-06,-0.520
-4.310E-06,-0.600
-4.300E-06,-0.480
-4.290E-06,-0.440
-4.280E-06,-0.120
-4.270E-06,-0.120
-4.260E-06,-0.080
-4.250E-06,-0.040
-4.240E-06,0.000
-4.230E-06,0.200
-4.220E-06,0.600
-4.210E-06,0.760
-4.200E-06,0.960
-4.190E-06,1.040
-4.180E-06,0.720
-4.170E-06,0.720
-4.160E-06,0.400
-4.150E-06,0.320
-4.140E-06,0.320
-4.130E-06,0.360
-4.120E-06,0.480
-4.110E-06,0.480
-4.100E-06,0.040
-4.090E-06,-0.200
-4.080E-06,-0.600
-4.070E-06,-0.840
-4.060E-06,-0.520
-4.050E-06,-0.280
-4.040E-06,-0.080
-4.030E-06,0.120
-4.020E-06,0.120
-4.010E-06,0.160
-4.000E-06,0.000
-3.990E-06,-0.320
-3.980E-06,-0.520
-3.970E-06,-0.400
-3.960E-06,-0.200
-3.950E-06,0.000
-3.940E-06,0.440
-3.930E-06,0.400
-3.920E-06,-0.320
-3.910E-06,-0.800
-3.900E-06,-1.440
-3.890E-06,-1.720
-3.880E-06,-1.160
-3.870E-06,-1.000
-3.860E-06,-0.600
-3.850E-06,-0.640
-3.840E-06,-1.520
-3.830E-06,-1.760
-3.820E-06,-1.920
-3.810E-06,-1.680
-3.800E-06,-1.120
-3.790E-06,-0.920
-3.780E-06,-0.680
-3.770E-06,-0.720
-3.760E-06,-0.640
-3.750E-06,-1.000
-3.740E-06,-0.840
-3.730E-06,-0.960
-3.720E-06,-1.280
-3.710E-06,-1.240
-3.700E-06,-1.200
-3.690E-06,-1.120
-3.680E-06,-0.880
-3.670E-06,-0.720
-3.660E-06,-0.680
-3.650E-06,-0.440
-3.640E-06,-0.400
-3.630E-06,-0.280
-3.620E-06,-0.400
-3.610E-06,-0.360
-3.600E-06,-0.440
-3.590E-06,-0.640
-3.580E-06,-0.600
-3.570E-06,-0.680
-3.560E-06,-0.680
-3.550E-06,-0.560
-3.540E-06,-0.680
-3.530E-06,-0.920
-3.520E-06,-1.200
-3.510E-06,-1.640
-3.500E-06,-1.840
-3.490E-06,-1.800
-3.480E-06,-1.920
-3.470E-06,-1.640
-3.460E-06,-1.800
-3.450E-06,-2.360
-3.440E-06,-2.800
-3.430E-06,-3.680
-3.420E-06,-4.320
-3.410E-06,-4.360
-3.400E-06,-4.600
-3.390E-06,-4.400
-3.380E-06,-4.320
-3.370E-06,-4.600
-3.360E-06,-4.560
-3.350E-06,-4.840
-3.340E-06,-4.840
-3.330E-06,-4.600
-3.320E-06,-4.480
-3.310E-06,-4.040
-3.300E-06,-3.720
-3.290E-06,-3.680
-3.280E-06,-3.600
-3.270E-06,-3.720
-3.260E-06,-3.800
-3.250E-06,-3.840
-3.240E-06,-3.920
-3.230E-06,-3.880
-3.220E-06,-4.080
-3.210E-06,-4.280
-3.200E-06,-4.560
-3.190E-06,-4.640
-3.180E-06,-4.840
-3.170E-06,-5.040
-3.160E-06,-5.160
-3.150E-06,-5.240
-3.140E-06,-5.240
-3.130E-06,-5.240
-3.120E-06,-5.200
-3.110E-06,-5.240
-3.100E-06,-5.240
-3.090E-06,-5.240
-3.080E-06,-5.200
-3.070E-06,-5.240
-3.060E-06,-5.240
-3.050E-06,-5.240
-3.040E-06,-5.240
-3.030E-06,-5.120
-3.020E-06,-5.040
-3.010E-06,-4.880
-3.000E-06,-4.720
-2.990E-06,-4.560
-2.980E-06,-4.520
-2.970E-06,-4.400
-2.960E-06,-4.360
-2.950E-06,-4.280
-2.940E-06,-4.160
-2.930E-06,-4.040
-2.920E-06,-3.920
-2.910E-06,-3.840
-2.900E-06,-3.800
-2.890E-06,-3.760
-2.880E-06,-3.640
-2.870E-06,-3.600
-2.860E-06,-3.480
-2.850E-06,-3.320
-2.840E-06,-3.200
-2.830E-06,-3.160
-2.820E-06,-3.120
-2.810E-06,-3.120
-2.800E-06,-3.040
-2.790E-06,-2.920
-2.780E-06,-2.680
-2.770E-06,-2.560
-2.760E-06,-2.440
-2.750E-06,-2.360
-2.740E-06,-2.320
-2.730E-06,-2.240
-2.720E-06,-2.120
-2.710E-06,-2.000
-2.700E-06,-1.800
-2.690E-06,-1.680
-2.680E-06,-1.560
-2.670E-06,-1.400
-2.660E-06,-1.320
-2.650E-06,-1.360
-2.640E-06,-1.200
-2.630E-06,-1.160
-2.620E-06,-1.160
-2.610E-06,-1.120
-2.600E-06,-1.160
-2.590E-06,-1.160
-2.580E-06,-1.120
-2.570E-06,-1.120
-2.560E-06,-1.000
-2.550E-06,-0.800
-2.540E-06,-0.840
-2.530E-06,-0.920
-2.520E-06,-1.040
-2.510E-06,-1.160
-2.500E-06,-1.160
-2.490E-06,-1.000
-2.480E-06,-0.720
-2.470E-06,-0.440
-2.460E-06,-0.600
-2.450E-06,-0.520
-2.440E-06,-0.320
-2.430E-06,-0.880
-2.420E-06,-0.800
-2.410E-06,-0.960
-2.400E-06,-1.080
-2.390E-06,-0.600
-2.380E-06,-0.480
-2.370E-06,-0.080
-2.360E-06,-0.080
-2.350E-06,-0.320
-2.340E-06,-0.560
-2.330E-06,-0.680
-2.320E-06,-0.880
-2.310E-06,-0.520
-2.300E-06,-1.320
-2.290E-06,-1.640
-2.280E-06,-1.520
-2.270E-06,-1.640
-2.260E-06,-0.560
-2.250E-06,0.000
-2.240E-06,0.160
-2.230E-06,0.080
-2.220E-06,-0.640
-2.210E-06,-0.720
-2.200E-06,-0.360
-2.190E-06,0.200
-2.180E-06,0.840
-2.170E-06,0.800
-2.160E-06,0.520
-2.150E-06,0.160
-2.140E-06,-0.200
-2.130E-06,-0.200
-2.120E-06,-0.320
-2.110E-06,-0.440
-2.100E-06,-0.240
-2.090E-06,-0.720
-2.080E-06,-0.960
-2.070E-06,-1.480
-2.060E-06,-2.240
-2.050E-06,-2.520
-2.040E-06,-2.600
-2.030E-06,-2.320
-2.020E-06,-2.120
-2.010E-06,-1.800
-2.000E-06,-1.760
-1.990E-06,-1.640
-1.980E-06,-1.520
-1.970E-06,-1.280
-1.960E-06,-0.840
-1.950E-06,-0.480
-1.940E-06,-0.280
-1.930E-06,-0.200
-1.920E-06,-0.240
-1.910E-06,-0.120
-1.900E-06,-0.040
-1.890E-06,0.200
-1.880E-06,0.440
-1.870E-06,0.560
-1.860E-06,0.600
-1.850E-06,0.480
-1.840E-06,0.240
-1.830E-06,0.080
-1.820E-06,-0.240
-1.810E-06,-0.360
-1.800E-06,-0.560
-1.790E-06,-0.720
-1.780E-06,-0.840
-1.770E-06,-1.080
-1.760E-06,-1.280
-1.750E-06,-1.480
-1.740E-06,-1.680
-1.730E-06,-1.800
-1.720E-06,-1.760
-1.710E-06,-1.760
-1.700E-06,-1.760
-1.690E-06,-1.880
-1.680E-06,-1.880
-1.670E-06,-2.000
-1.660E-06,-1.800
-1.650E-06,-1.600
-1.640E-06,-1.360
-1.630E-06,-0.880
-1.620E-06,-0.920
-1.610E-06,-0.640
-1.600E-06,-0.480
-1.590E-06,-0.400
-1.580E-06,-0.040
-1.570E-06,0.000
-1.560E-06,0.120
-1.550E-06,-0.040
-1.540E-06,-0.080
-1.530E-06,-0.080
-1.520E-06,-0.160
-1.510E-06,-0.040
-1.500E-06,0.000
-1.490E-06,-0.040
-1.480E-06,0.040
-1.470E-06,0.000
-1.460E-06,-0.040
-1.450E-06,-0.160
-1.440E-06,-0.360
-1.430E-06,-0.600
-1.420E-06,-0.640
-1.410E-06,-0.680
-1.400E-06,-1.000
-1.390E-06,-1.120
-1.380E-06,-1.320
-1.370E-06,-1.000
-1.360E-06,-0.600
-1.350E-06,0.040
-1.340E-06,0.160
-1.330E-06,-0.240
-1.320E-06,-0.720
-1.310E-06,-1.520
-1.300E-06,-1.480
-1.290E-06,-1.240
-1.280E-06,-1.000
-1.270E-06,-0.520
-1.260E-06,-0.840
-1.250E-06,-1.120
-1.240E-06,-1.480
-1.230E-06,-1.840
-1.220E-06,-1.600
-1.210E-06,-1.320
-1.200E-06,-0.840
-1.190E-06,-0.320
-1.180E-06,-0.120
-1.170E-06,-0.200
-1.160E-06,-0.080
-1.150E-06,-0.360
-1.140E-06,-0.240
-1.130E-06,-0.320
-1.120E-06,-0.600
-1.110E-06,-0.640
-1.100E-06,-0.920
-1.090E-06,-1.160
-1.080E-06,-1.400
-1.070E-06,-1.560
-1.060E-06,-1.680
-1.050E-06,-1.600
-1.040E-06,-1.480
-1.030E-06,-1.400
-1.020E-06,-1.240
-1.010E-06,-1.360
-1.000E-06,-1.280
-9.900E-07,-1.080
-9.800E-07,-1.040
-9.700E-07,-0.640
-9.600E-07,-0.520
-9.500E-07,-0.320
-9.400E-07,-0.320
-9.300E-07,-0.240
-9.200E-07,-0.280
-9.100E-07,-0.080
-9.000E-07,0.000
-8.900E-07,0.000
-8.800E-07,0.200
-8.700E-07,0.280
-8.600E-07,0.480
-8.500E-07,0.560
-8.400E-07,0.480
-8.300E-07,0.400
-8.200E-07,0.120
-8.100E-07,-0.200
-8.000E-07,-0.360
-7.900E-07,-0.520
-7.800E-07,-0.680
-7.700E-07,-0.800
-7.600E-07,-0.840
-7.500E-07,-1.000
-7.400E-07,-0.800
-7.300E-07,-0.720
-7.200E-07,-0.600
-7.100E-07,-0.400
-7.000E-07,-0.320
-6.900E-07,-0.400
-6.800E-07,-0.560
-6.700E-07,-0.800
-6.600E-07,-1.040
-6.500E-07,-1.080
-6.400E-07,-1.280
-6.300E-07,-1.400
-6.200E-07,-1.320
-6.100E-07,-1.480
-6.000E-07,-1.520
-5.900E-07,-1.560
-5.800E-07,-1.600
-5.700E-07,-1.520
-5.600E-07,-1.440
-5.500E-07,-1.320
-5.400E-07,-1.320
-5.300E-07,-1.120
-5.200E-07,-1.040
-5.100E-07,-1.040
-5.000E-07,-0.720
-4.900E-07,-0.440
-4.800E-07,-0.200
-4.700E-07,-0.040
-4.600E-07,0.000
-4.500E-07,0.040
-4.400E-07,0.000
-4.300E-07,0.040
-4.200E-07,0.200
-4.100E-07,0.320
-4.000E-07,0.400
-3.900E-07,0.440
-3.800E-07,0.440
-3.700E-07,0.360
-3.600E-07,0.160
-3.500E-07,0.000
-3.400E-07,-0.120
-3.300E-07,-0.240
-3.200E-07,-0.360
-3.100E-07,-0.480
-3.000E-07,-0.680
-2.900E-07,-0.920
-2.800E-07,-1.200
-2.700E-07,-1.480
-2.600E-07,-1.720
-2.500E-07,-1.920
-2.400E-07,-2.000
-2.300E-07,-2.160
-2.200E-07,-2.320
-2.100E-07,-2.320
-2.000E-07,-2.400
-1.900E-07,-2.440
-1.800E-07,-2.320
-1.700E-07,-2.200
-1.600E-07,-2.280
-1.500E-07,-2.360
-1.400E-07,-2.320
-1.300E-07,-2.600
-1.200E-07,-2.560
-1.100E-07,-2.800
-1.000E-07,-3.360
-9.000E-08,-3.200
-8.000E-08,-3.360
-7.000E-08,-3.520
-6.000E-08,-3.240
-5.000E-08,-2.840
-4.000E-08,-3.840
-3.000E-08,-4.360
-2.000E-08,-5.200
-1.000E-08,-5.200
0.000E+00,-5.200
1.000E-08,-5.240
2.000E-08,-4.440
3.000E-08,-0.920
4.000E-08,0.920
5.000E-08,2.080
6.000E-08,1.680
7.000E-08,1.120
8.000E-08,1.440
9.000E-08,2.000
1.000E-07,3.160
1.100E-07,4.160
1.200E-07,4.440
1.300E-07,4.240
1.400E-07,3.640
1.500E-07,3.160
1.600E-07,2.880
1.700E-07,2.400
1.800E-07,1.880
1.900E-07,1.360
2.000E-07,0.320
2.100E-07,-0.680
2.200E-07,-1.760
2.300E-07,-3.000
2.400E-07,-3.840
2.500E-07,-4.760
2.600E-07,-5.240
2.700E-07,-5.240
2.800E-07,-5.240
2.900E-07,-5.200
3.000E-07,-5.200
3.100E-07,-5.200
3.200E-07,-5.200
3.300E-07,-5.200
3.400E-07,-5.240
3.500E-07,-5.240
3.600E-07,-5.080
3.700E-07,-4.800
3.800E-07,-4.520
3.900E-07,-4.200
4.000E-07,-4.040
4.100E-07,-3.680
4.200E-07,-3.520
4.300E-07,-3.440
4.400E-07,-3.440
4.500E-07,-3.600
4.600E-07,-3.800
4.700E-07,-4.000
4.800E-07,-4.160
4.900E-07,-4.240
5.000E-07,-4.360
5.100E-07,-4.440
5.200E-07,-4.440
5.300E-07,-4.520
5.400E-07,-4.520
5.500E-07,-4.480
5.600E-07,-4.400
5.700E-07,-4.360
5.800E-07,-4.400
5.900E-07,-4.480
6.000E-07,-4.520
6.100E-07,-4.560
6.200E-07,-4.560
6.300E-07,-4.480
6.400E-07,-4.400
6.500E-07,-4.280
6.600E-07,-4.120
6.700E-07,-4.200
6.800E-07,-4.200
6.900E-07,-4.520
7.000E-07,-4.720
7.100E-07,-4.920
7.200E-07,-4.680
7.300E-07,-4.360
7.400E-07,-4.120
7.500E-07,-3.880
7.600E-07,-4.000
7.700E-07,-4.040
7.800E-07,-3.920
7.900E-07,-3.440
8.000E-07,-2.760
8.100E-07,-2.040
8.200E-07,-1.280
8.300E-07,-0.920
8.400E-07,-0.520
8.500E-07,-0.400
8.600E-07,-0.320
8.700E-07,0.040
8.800E-07,0.240
8.900E-07,0.720
9.000E-07,1.080
9.100E-07,1.480
9.200E-07,1.680
9.300E-07,1.560
9.400E-07,1.480
9.500E-07,1.320
9.600E-07,1.120
9.700E-07,0.960
9.800E-07,0.680
9.900E-07,0.280
1.000E-06,-0.120
1.010E-06,-0.640
1.020E-06,-1.080
1.030E-06,-1.400
1.040E-06,-1.720
1.050E-06,-1.880
1.060E-06,-2.200
1.070E-06,-2.400
1.080E-06,-2.640
1.090E-06,-2.840
1.100E-06,-3.040
1.110E-06,-3.120
1.120E-06,-3.160
1.130E-06,-3.160
1.140E-06,-3.120
1.150E-06,-3.000
1.160E-06,-2.960
1.170E-06,-2.840
1.180E-06,-2.800
1.190E-06,-2.720
1.200E-06,-2.600
1.210E-06,-2.560
1.220E-06,-2.520
1.230E-06,-2.520
1.240E-06,-2.480
1.250E-06,-2.480
1.260E-06,-2.600
1.270E-06,-2.640
1.280E-06,-2.680
1.290E-06,-2.720
1.300E-06,-2.800
1.310E-06,-2.760
1.320E-06,-2.800
1.330E-06,-2.840
1.340E-06,-2.840
1.350E-06,-2.720
1.360E-06,-2.680
1.370E-06,-2.680
1.380E-06,-2.560
1.390E-06,-2.440
1.400E-06,-2.360
1.410E-06,-2.320
1.420E-06,-2.200
1.430E-06,-2.160
1.440E-06,-2.080
1.450E-06,-2.040
1.460E-06,-1.920
1.470E-06,-1.880
1.480E-06,-1.760
1.490E-06,-1.720
1.500E-06,-1.680
1.510E-06,-1.680
1.520E-06,-1.720
1.530E-06,-1.720
1.540E-06,-1.720
1.550E-06,-1.800
1.560E-06,-1.840
1.570E-06,-1.880
1.580E-06,-2.000
1.590E-06,-2.120
1.600E-06,-2.160
1.610E-06,-2.200
1.620E-06,-2.240
1.630E-06,-2.280
1.640E-06,-2.280
1.650E-06,-2.240
1.660E-06,-2.320
1.670E-06,-2.360
1.680E-06,-2.320
1.690E-06,-2.320
1.700E-06,-2.360
1.710E-06,-2.320
1.720E-06,-2.280
1.730E-06,-2.240
1.740E-06,-2.240
1.750E-06,-2.280
1.760E-06,-2.280
1.770E-06,-2.240
1.780E-06,-2.200
1.790E-06,-2.200
1.800E-06,-2.200
1.810E-06,-2.160
1.820E-06,-2.040
1.830E-06,-2.000
1.840E-06,-1.920
1.850E-06,-1.880
1.860E-06,-1.920
1.870E-06,-1.840
1.880E-06,-1.880
1.890E-06,-1.880
1.900E-06,-1.800
1.910E-06,-1.840
1.920E-06,-1.840
1.930E-06,-1.840
1.940E-06,-1.880
1.950E-06,-1.960
1.960E-06,-1.880
1.970E-06,-1.880
1.980E-06,-1.960
1.990E-06,-1.960
2.000E-06,-1.880
2.010E-06,-1.840
2.020E-06,-1.840
2.030E-06,-1.800
2.040E-06,-1.760
2.050E-06,-1.680
2.060E-06,-1.600
2.070E-06,-1.520
2.080E-06,-1.480
2.090E-06,-1.360
2.100E-06,-1.320
2.110E-06,-1.360
2.120E-06,-1.320
2.130E-06,-1.240
2.140E-06,-1.160
2.150E-06,-1.200
2.160E-06,-1.080
2.170E-06,-1.120
2.180E-06,-1.000
2.190E-06,-1.080
2.200E-06,-1.040
2.210E-06,-1.080
2.220E-06,-1.000
2.230E-06,-0.960
2.240E-06,-1.000
2.250E-06,-0.960
2.260E-06,-0.960
2.270E-06,-0.920
2.280E-06,-0.880
2.290E-06,-0.880
2.300E-06,-0.840
2.310E-06,-0.800
2.320E-06,-0.800
2.330E-06,-0.840
2.340E-06,-0.880
2.350E-06,-0.880
2.360E-06,-0.880
2.370E-06,-0.920
2.380E-06,-1.040
2.390E-06,-1.000
2.400E-06,-1.040
2.410E-06,-1.160
2.420E-06,-1.240
2.430E-06,-1.280
2.440E-06,-1.360
2.450E-06,-1.440
2.460E-06,-1.520
2.470E-06,-1.600
2.480E-06,-1.640
2.490E-06,-1.680
2.500E-06,-1.680
2.510E-06,-1.680
2.520E-06,-1.720
2.530E-06,-1.760
2.540E-06,-1.720
2.550E-06,-1.680
2.560E-06,-1.640
2.570E-06,-1.560
2.580E-06,-1.560
2.590E-06,-1.520
2.600E-06,-1.480
2.610E-06,-1.440
2.620E-06,-1.440
2.630E-06,-1.360
2.640E-06,-1.360
2.650E-06,-1.320
2.660E-06,-1.160
2.670E-06,-1.160
2.680E-06,-1.040
2.690E-06,-1.000
2.700E-06,-0.920
2.710E-06,-0.840
2.720E-06,-0.680
2.730E-06,-0.680
2.740E-06,-0.480
2.750E-06,-0.400
2.760E-06,-0.320
2.770E-06,-0.240
2.780E-06,-0.120
2.790E-06,-0.040
2.800E-06,0.080
2.810E-06,0.200
2.820E-06,0.360
2.830E-06,0.360
2.840E-06,0.320
2.850E-06,0.280
2.860E-06,0.160
2.870E-06,0.160
2.880E-06,-0.040
2.890E-06,-0.120
2.900E-06,-0.280
2.910E-06,-0.400
2.920E-06,-0.520
2.930E-06,-0.680
2.940E-06,-0.760
2.950E-06,-0.880
2.960E-06,-0.920
2.970E-06,-0.960
2.980E-06,-1.000
2.990E-06,-0.960
3.000E-06,-0.960
3.010E-06,-0.840
3.020E-06,-0.840
3.030E-06,-0.880
3.040E-06,-0.880
3.050E-06,-0.880
3.060E-06,-0.840
3.070E-06,-0.840
