mediciones/Mediciones filtradas (saque las feas)/5-27/-47.5/WaveData50158.csv

#timebase=2000000(ps)
,#voltbase=100000(mv/100)
#size=4000
-8.400E-06,0.004
-8.390E-06,0.008
-8.380E-06,0.008
-8.370E-06,0.008
-8.360E-06,0.008
-8.350E-06,0.012
-8.340E-06,0.004
-8.330E-06,0.004
-8.320E-06,0.004
-8.310E-06,0.004
-8.300E-06,0.004
-8.290E-06,0.012
-8.280E-06,0.008
-8.270E-06,0.012
-8.260E-06,0.016
-8.250E-06,0.008
-8.240E-06,0.008
-8.230E-06,0.012
-8.220E-06,0.012
-8.210E-06,0.008
-8.200E-06,0.020
-8.190E-06,0.024
-8.180E-06,0.032
-8.170E-06,0.024
-8.160E-06,0.028
-8.150E-06,0.032
-8.140E-06,0.036
-8.130E-06,0.012
-8.120E-06,-0.056
-8.110E-06,-0.136
-8.100E-06,-0.152
-8.090E-06,-0.088
-8.080E-06,0.040
-8.070E-06,0.096
-8.060E-06,0.104
-8.050E-06,0.036
-8.040E-06,-0.028
-8.030E-06,-0.076
-8.020E-06,-0.060
-8.010E-06,-0.004
-8.000E-06,0.056
-7.990E-06,0.072
-7.980E-06,0.028
-7.970E-06,-0.008
-7.960E-06,-0.024
-7.950E-06,0.004
-7.940E-06,0.016
-7.930E-06,0.000
-7.920E-06,-0.012
-7.910E-06,-0.056
-7.900E-06,-0.020
-7.890E-06,0.004
-7.880E-06,0.036
-7.870E-06,0.052
-7.860E-06,0.024
-7.850E-06,-0.008
-7.840E-06,-0.036
-7.830E-06,-0.028
-7.820E-06,0.008
-7.810E-06,0.036
-7.800E-06,0.032
-7.790E-06,0.020
-7.780E-06,-0.004
-7.770E-06,-0.008
-7.760E-06,0.000
-7.750E-06,0.028
-7.740E-06,0.024
-7.730E-06,0.000
-7.720E-06,-0.028
-7.710E-06,-0.060
-7.700E-06,-0.028
-7.690E-06,0.020
-7.680E-06,0.044
-7.670E-06,0.048
-7.660E-06,0.008
-7.650E-06,-0.036
-7.640E-06,-0.040
-7.630E-06,-0.020
-7.620E-06,0.020
-7.610E-06,0.040
-7.600E-06,0.028
-7.590E-06,-0.004
-7.580E-06,-0.024
-7.570E-06,-0.024
-7.560E-06,0.000
-7.550E-06,0.020
-7.540E-06,0.032
-7.530E-06,0.016
-7.520E-06,0.000
-7.510E-06,-0.008
-7.500E-06,-0.004
-7.490E-06,0.020
-7.480E-06,0.040
-7.470E-06,0.040
-7.460E-06,0.024
-7.450E-06,-0.008
-7.440E-06,-0.024
-7.430E-06,-0.024
-7.420E-06,-0.016
-7.410E-06,0.008
-7.400E-06,0.024
-7.390E-06,0.020
-7.380E-06,0.008
-7.370E-06,-0.004
-7.360E-06,-0.020
-7.350E-06,-0.008
-7.340E-06,0.004
-7.330E-06,0.024
-7.320E-06,0.020
-7.310E-06,0.016
-7.300E-06,0.008
-7.290E-06,-0.004
-7.280E-06,-0.004
-7.270E-06,-0.008
-7.260E-06,0.012
-7.250E-06,0.016
-7.240E-06,0.020
-7.230E-06,0.012
-7.220E-06,0.012
-7.210E-06,0.020
-7.200E-06,0.020
-7.190E-06,0.024
-7.180E-06,0.020
-7.170E-06,0.012
-7.160E-06,0.004
-7.150E-06,-0.008
-7.140E-06,-0.020
-7.130E-06,-0.024
-7.120E-06,-0.020
-7.110E-06,-0.004
-7.100E-06,0.008
-7.090E-06,0.020
-7.080E-06,0.020
-7.070E-06,0.012
-7.060E-06,0.012
-7.050E-06,0.016
-7.040E-06,0.016
-7.030E-06,0.024
-7.020E-06,0.020
-7.010E-06,0.004
-7.000E-06,-0.016
-6.990E-06,-0.008
-6.980E-06,-0.004
-6.970E-06,0.020
-6.960E-06,0.040
-6.950E-06,0.032
-6.940E-06,0.012
-6.930E-06,0.000
-6.920E-06,-0.004
-6.910E-06,0.012
-6.900E-06,0.040
-6.890E-06,0.076
-6.880E-06,0.064
-6.870E-06,0.028
-6.860E-06,-0.024
-6.850E-06,-0.064
-6.840E-06,-0.064
-6.830E-06,-0.024
-6.820E-06,0.040
-6.810E-06,0.056
-6.800E-06,0.044
-6.790E-06,-0.008
-6.780E-06,-0.040
-6.770E-06,-0.052
-6.760E-06,-0.024
-6.750E-06,0.000
-6.740E-06,0.024
-6.730E-06,0.012
-6.720E-06,-0.008
-6.710E-06,-0.036
-6.700E-06,-0.032
-6.690E-06,-0.012
-6.680E-06,0.012
-6.670E-06,0.016
-6.660E-06,0.016
-6.650E-06,-0.004
-6.640E-06,-0.016
-6.630E-06,-0.004
-6.620E-06,0.008
-6.610E-06,0.024
-6.600E-06,0.028
-6.590E-06,0.008
-6.580E-06,0.000
-6.570E-06,-0.008
-6.560E-06,-0.004
-6.550E-06,0.024
-6.540E-06,0.032
-6.530E-06,0.020
-6.520E-06,-0.028
-6.510E-06,-0.044
-6.500E-06,-0.020
-6.490E-06,0.016
-6.480E-06,0.028
-6.470E-06,0.020
-6.460E-06,-0.008
-6.450E-06,-0.016
-6.440E-06,-0.004
-6.430E-06,0.016
-6.420E-06,0.056
-6.410E-06,0.020
-6.400E-06,-0.008
-6.390E-06,-0.056
-6.380E-06,-0.056
-6.370E-06,-0.036
-6.360E-06,0.012
-6.350E-06,0.032
-6.340E-06,0.028
-6.330E-06,0.016
-6.320E-06,-0.008
-6.310E-06,-0.024
-6.300E-06,-0.016
-6.290E-06,0.000
-6.280E-06,0.016
-6.270E-06,0.028
-6.260E-06,0.020
-6.250E-06,0.016
-6.240E-06,0.004
-6.230E-06,0.020
-6.220E-06,0.032
-6.210E-06,0.052
-6.200E-06,0.060
-6.190E-06,0.052
-6.180E-06,0.024
-6.170E-06,0.004
-6.160E-06,-0.052
-6.150E-06,-0.072
-6.140E-06,-0.076
-6.130E-06,-0.040
-6.120E-06,0.016
-6.110E-06,0.036
-6.100E-06,0.040
-6.090E-06,0.012
-6.080E-06,-0.020
-6.070E-06,-0.044
-6.060E-06,-0.048
-6.050E-06,-0.008
-6.040E-06,0.008
-6.030E-06,0.036
-6.020E-06,0.032
-6.010E-06,0.016
-6.000E-06,-0.004
-5.990E-06,-0.016
-5.980E-06,-0.016
-5.970E-06,-0.004
-5.960E-06,0.020
-5.950E-06,0.032
-5.940E-06,0.028
-5.930E-06,0.008
-5.920E-06,0.000
-5.910E-06,0.004
-5.900E-06,0.008
-5.890E-06,0.028
-5.880E-06,0.048
-5.870E-06,0.044
-5.860E-06,0.044
-5.850E-06,0.040
-5.840E-06,0.044
-5.830E-06,0.056
-5.820E-06,0.068
-5.810E-06,0.068
-5.800E-06,0.044
-5.790E-06,0.008
-5.780E-06,-0.040
-5.770E-06,-0.060
-5.760E-06,-0.068
-5.750E-06,-0.048
-5.740E-06,-0.024
-5.730E-06,0.012
-5.720E-06,0.032
-5.710E-06,0.052
-5.700E-06,0.060
-5.690E-06,0.052
-5.680E-06,0.052
-5.670E-06,0.056
-5.660E-06,0.064
-5.650E-06,0.068
-5.640E-06,0.080
-5.630E-06,0.068
-5.620E-06,0.048
-5.610E-06,0.016
-5.600E-06,-0.004
-5.590E-06,-0.012
-5.580E-06,-0.004
-5.570E-06,-0.028
-5.560E-06,-0.076
-5.550E-06,-0.156
-5.540E-06,-0.224
-5.530E-06,-0.232
-5.520E-06,-0.108
-5.510E-06,0.016
-5.500E-06,0.160
-5.490E-06,0.152
-5.480E-06,0.060
-5.470E-06,-0.056
-5.460E-06,-0.112
-5.450E-06,-0.104
-5.440E-06,-0.008
-5.430E-06,0.080
-5.420E-06,0.092
-5.410E-06,0.044
-5.400E-06,-0.032
-5.390E-06,-0.068
-5.380E-06,-0.040
-5.370E-06,0.028
-5.360E-06,0.072
-5.350E-06,0.080
-5.340E-06,0.056
-5.330E-06,0.020
-5.320E-06,0.004
-5.310E-06,0.028
-5.300E-06,0.056
-5.290E-06,0.064
-5.280E-06,0.012
-5.270E-06,-0.064
-5.260E-06,-0.100
-5.250E-06,-0.084
-5.240E-06,-0.056
-5.230E-06,0.000
-5.220E-06,0.032
-5.210E-06,0.012
-5.200E-06,0.012
-5.190E-06,0.004
-5.180E-06,-0.016
-5.170E-06,0.000
-5.160E-06,0.016
-5.150E-06,0.008
-5.140E-06,0.000
-5.130E-06,-0.012
-5.120E-06,-0.004
-5.110E-06,0.012
-5.100E-06,0.024
-5.090E-06,0.024
-5.080E-06,0.012
-5.070E-06,-0.004
-5.060E-06,-0.024
-5.050E-06,-0.024
-5.040E-06,0.004
-5.030E-06,0.028
-5.020E-06,0.056
-5.010E-06,0.016
-5.000E-06,-0.004
-4.990E-06,-0.068
-4.980E-06,-0.068
-4.970E-06,-0.040
-4.960E-06,0.000
-4.950E-06,0.020
-4.940E-06,0.040
-4.930E-06,0.024
-4.920E-06,-0.008
-4.910E-06,-0.028
-4.900E-06,-0.024
-4.890E-06,0.000
-4.880E-06,0.000
-4.870E-06,0.008
-4.860E-06,0.000
-4.850E-06,-0.004
-4.840E-06,-0.004
-4.830E-06,0.004
-4.820E-06,0.008
-4.810E-06,0.000
-4.800E-06,-0.004
-4.790E-06,-0.004
-4.780E-06,-0.004
-4.770E-06,-0.004
-4.760E-06,0.000
-4.750E-06,0.008
-4.740E-06,0.004
-4.730E-06,0.000
-4.720E-06,0.000
-4.710E-06,-0.004
-4.700E-06,0.000
-4.690E-06,0.000
-4.680E-06,0.008
-4.670E-06,0.008
-4.660E-06,0.004
-4.650E-06,0.004
-4.640E-06,0.000
-4.630E-06,0.012
-4.620E-06,0.012
-4.610E-06,0.016
-4.600E-06,0.016
-4.590E-06,0.008
-4.580E-06,0.004
-4.570E-06,0.008
-4.560E-06,0.004
-4.550E-06,0.008
-4.540E-06,0.012
-4.530E-06,0.012
-4.520E-06,0.012
-4.510E-06,0.012
-4.500E-06,0.016
-4.490E-06,0.016
-4.480E-06,0.020
-4.470E-06,0.024
-4.460E-06,0.024
-4.450E-06,0.012
-4.440E-06,0.008
-4.430E-06,0.004
-4.420E-06,0.012
-4.410E-06,0.020
-4.400E-06,0.024
-4.390E-06,0.044
-4.380E-06,0.040
-4.370E-06,0.032
-4.360E-06,0.016
-4.350E-06,0.012
-4.340E-06,0.004
-4.330E-06,0.020
-4.320E-06,0.004
-4.310E-06,-0.024
-4.300E-06,-0.104
-4.290E-06,-0.120
-4.280E-06,-0.092
-4.270E-06,0.000
-4.260E-06,0.080
-4.250E-06,0.108
-4.240E-06,0.088
-4.230E-06,0.036
-4.220E-06,-0.008
-4.210E-06,-0.024
-4.200E-06,0.008
-4.190E-06,0.056
-4.180E-06,0.088
-4.170E-06,0.084
-4.160E-06,0.072
-4.150E-06,0.060
-4.140E-06,0.048
-4.130E-06,0.048
-4.120E-06,0.044
-4.110E-06,0.028
-4.100E-06,0.012
-4.090E-06,-0.004
-4.080E-06,-0.040
-4.070E-06,-0.076
-4.060E-06,-0.104
-4.050E-06,-0.108
-4.040E-06,-0.088
-4.030E-06,-0.032
-4.020E-06,0.000
-4.010E-06,0.020
-4.000E-06,0.028
-3.990E-06,0.020
-3.980E-06,0.004
-3.970E-06,0.000
-3.960E-06,-0.004
-3.950E-06,0.008
-3.940E-06,0.028
-3.930E-06,0.044
-3.920E-06,0.056
-3.910E-06,0.060
-3.900E-06,0.052
-3.890E-06,0.048
-3.880E-06,0.056
-3.870E-06,0.076
-3.860E-06,0.080
-3.850E-06,0.068
-3.840E-06,0.032
-3.830E-06,-0.004
-3.820E-06,-0.028
-3.810E-06,-0.024
-3.800E-06,0.020
-3.790E-06,0.036
-3.780E-06,-0.004
-3.770E-06,-0.084
-3.760E-06,-0.184
-3.750E-06,-0.184
-3.740E-06,-0.096
-3.730E-06,0.028
-3.720E-06,0.132
-3.710E-06,0.160
-3.700E-06,0.104
-3.690E-06,-0.012
-3.680E-06,-0.100
-3.670E-06,-0.108
-3.660E-06,-0.028
-3.650E-06,0.076
-3.640E-06,0.112
-3.630E-06,0.128
-3.620E-06,0.068
-3.610E-06,-0.012
-3.600E-06,-0.084
-3.590E-06,-0.120
-3.580E-06,-0.108
-3.570E-06,-0.052
-3.560E-06,0.008
-3.550E-06,0.080
-3.540E-06,0.112
-3.530E-06,0.080
-3.520E-06,0.044
-3.510E-06,-0.024
-3.500E-06,-0.068
-3.490E-06,-0.048
-3.480E-06,-0.132
-3.470E-06,-0.140
-3.460E-06,-0.136
-3.450E-06,-0.092
-3.440E-06,0.008
-3.430E-06,0.060
-3.420E-06,0.092
-3.410E-06,0.060
-3.400E-06,0.028
-3.390E-06,-0.040
-3.380E-06,-0.044
-3.370E-06,-0.036
-3.360E-06,0.004
-3.350E-06,0.028
-3.340E-06,0.020
-3.330E-06,0.008
-3.320E-06,-0.008
-3.310E-06,-0.024
-3.300E-06,-0.008
-3.290E-06,0.004
-3.280E-06,0.012
-3.270E-06,0.012
-3.260E-06,0.008
-3.250E-06,-0.004
-3.240E-06,0.000
-3.230E-06,0.008
-3.220E-06,0.004
-3.210E-06,0.016
-3.200E-06,0.020
-3.190E-06,0.012
-3.180E-06,0.008
-3.170E-06,0.008
-3.160E-06,0.016
-3.150E-06,0.028
-3.140E-06,0.044
-3.130E-06,0.060
-3.120E-06,0.068
-3.110E-06,0.064
-3.100E-06,0.052
-3.090E-06,0.044
-3.080E-06,0.032
-3.070E-06,0.036
-3.060E-06,0.040
-3.050E-06,0.024
-3.040E-06,-0.008
-3.030E-06,-0.036
-3.020E-06,-0.056
-3.010E-06,-0.056
-3.000E-06,-0.036
-2.990E-06,-0.008
-2.980E-06,0.008
-2.970E-06,0.012
-2.960E-06,0.000
-2.950E-06,-0.020
-2.940E-06,-0.024
-2.930E-06,-0.004
-2.920E-06,0.024
-2.910E-06,0.048
-2.900E-06,0.060
-2.890E-06,0.060
-2.880E-06,0.056
-2.870E-06,0.056
-2.860E-06,0.060
-2.850E-06,0.088
-2.840E-06,0.100
-2.830E-06,0.120
-2.820E-06,0.112
-2.810E-06,0.112
-2.800E-06,0.108
-2.790E-06,0.112
-2.780E-06,0.104
-2.770E-06,0.108
-2.760E-06,0.092
-2.750E-06,0.064
-2.740E-06,0.024
-2.730E-06,-0.040
-2.720E-06,-0.068
-2.710E-06,-0.084
-2.700E-06,-0.076
-2.690E-06,-0.048
-2.680E-06,-0.016
-2.670E-06,0.000
-2.660E-06,0.004
-2.650E-06,0.008
-2.640E-06,-0.016
-2.630E-06,-0.016
-2.620E-06,-0.004
-2.610E-06,0.008
-2.600E-06,0.036
-2.590E-06,0.060
-2.580E-06,0.064
-2.570E-06,0.052
-2.560E-06,0.032
-2.550E-06,0.012
-2.540E-06,0.012
-2.530E-06,0.020
-2.520E-06,0.028
-2.510E-06,-0.004
-2.500E-06,-0.124
-2.490E-06,-0.240
-2.480E-06,-0.344
-2.470E-06,-0.348
-2.460E-06,-0.200
-2.450E-06,-0.056
-2.440E-06,0.076
-2.430E-06,0.136
-2.420E-06,0.096
-2.410E-06,-0.012
-2.400E-06,-0.076
-2.390E-06,-0.096
-2.380E-06,-0.056
-2.370E-06,0.028
-2.360E-06,0.056
-2.350E-06,0.060
-2.340E-06,0.028
-2.330E-06,-0.016
-2.320E-06,-0.052
-2.310E-06,-0.040
-2.300E-06,-0.028
-2.290E-06,0.008
-2.280E-06,0.028
-2.270E-06,0.036
-2.260E-06,0.008
-2.250E-06,-0.008
-2.240E-06,-0.032
-2.230E-06,-0.020
-2.220E-06,0.008
-2.210E-06,0.036
-2.200E-06,0.056
-2.190E-06,0.052
-2.180E-06,0.020
-2.170E-06,0.000
-2.160E-06,-0.040
-2.150E-06,-0.024
-2.140E-06,-0.004
-2.130E-06,0.032
-2.120E-06,0.048
-2.110E-06,0.048
-2.100E-06,0.004
-2.090E-06,-0.016
-2.080E-06,-0.028
-2.070E-06,-0.012
-2.060E-06,0.020
-2.050E-06,0.036
-2.040E-06,0.048
-2.030E-06,0.044
-2.020E-06,0.036
-2.010E-06,0.028
-2.000E-06,0.040
-1.990E-06,0.060
-1.980E-06,0.080
-1.970E-06,0.096
-1.960E-06,0.096
-1.950E-06,0.092
-1.940E-06,0.088
-1.930E-06,0.072
-1.920E-06,0.072
-1.910E-06,0.096
-1.900E-06,0.116
-1.890E-06,0.136
-1.880E-06,0.140
-1.870E-06,0.132
-1.860E-06,0.120
-1.850E-06,0.100
-1.840E-06,0.096
-1.830E-06,0.096
-1.820E-06,0.100
-1.810E-06,0.088
-1.800E-06,0.072
-1.790E-06,0.036
-1.780E-06,0.004
-1.770E-06,-0.008
-1.760E-06,-0.012
-1.750E-06,-0.008
-1.740E-06,0.024
-1.730E-06,0.012
-1.720E-06,-0.028
-1.710E-06,-0.068
-1.700E-06,-0.136
-1.690E-06,-0.156
-1.680E-06,-0.136
-1.670E-06,-0.092
-1.660E-06,-0.012
-1.650E-06,0.008
-1.640E-06,0.044
-1.630E-06,0.012
-1.620E-06,0.024
-1.610E-06,0.020
-1.600E-06,0.044
-1.590E-06,0.088
-1.580E-06,0.108
-1.570E-06,0.124
-1.560E-06,0.132
-1.550E-06,0.132
-1.540E-06,0.140
-1.530E-06,0.136
-1.520E-06,0.140
-1.510E-06,0.128
-1.500E-06,0.124
-1.490E-06,0.108
-1.480E-06,0.088
-1.470E-06,0.068
-1.460E-06,0.060
-1.450E-06,0.024
-1.440E-06,-0.004
-1.430E-06,-0.040
-1.420E-06,-0.060
-1.410E-06,-0.044
-1.400E-06,-0.004
-1.390E-06,0.020
-1.380E-06,0.040
-1.370E-06,0.048
-1.360E-06,0.012
-1.350E-06,-0.008
-1.340E-06,-0.032
-1.330E-06,-0.024
-1.320E-06,-0.028
-1.310E-06,0.004
-1.300E-06,0.008
-1.290E-06,0.028
-1.280E-06,0.092
-1.270E-06,0.136
-1.260E-06,0.152
-1.250E-06,0.068
-1.240E-06,-0.096
-1.230E-06,-0.272
-1.220E-06,-0.396
-1.210E-06,-0.380
-1.200E-06,-0.280
-1.190E-06,-0.188
-1.180E-06,-0.024
-1.170E-06,0.000
-1.160E-06,-0.044
-1.150E-06,-0.176
-1.140E-06,-0.248
-1.130E-06,-0.232
-1.120E-06,-0.188
-1.110E-06,-0.072
-1.100E-06,-0.012
-1.090E-06,0.056
-1.080E-06,0.032
-1.070E-06,0.008
-1.060E-06,-0.028
-1.050E-06,0.004
-1.040E-06,0.000
-1.030E-06,0.020
-1.020E-06,0.012
-1.010E-06,0.024
-1.000E-06,0.020
-9.900E-07,0.020
-9.800E-07,0.032
-9.700E-07,0.036
-9.600E-07,0.044
-9.500E-07,0.044
-9.400E-07,0.072
-9.300E-07,0.084
-9.200E-07,0.092
-9.100E-07,0.092
-9.000E-07,0.076
-8.900E-07,0.076
-8.800E-07,0.076
-8.700E-07,0.088
-8.600E-07,0.072
-8.500E-07,0.076
-8.400E-07,0.064
-8.300E-07,0.080
-8.200E-07,0.096
-8.100E-07,0.124
-8.000E-07,0.152
-7.900E-07,0.168
-7.800E-07,0.164
-7.700E-07,0.140
-7.600E-07,0.136
-7.500E-07,0.136
-7.400E-07,0.148
-7.300E-07,0.148
-7.200E-07,0.156
-7.100E-07,0.148
-7.000E-07,0.144
-6.900E-07,0.132
-6.800E-07,0.136
-6.700E-07,0.144
-6.600E-07,0.156
-6.500E-07,0.164
-6.400E-07,0.172
-6.300E-07,0.168
-6.200E-07,0.164
-6.100E-07,0.152
-6.000E-07,0.140
-5.900E-07,0.144
-5.800E-07,0.152
-5.700E-07,0.152
-5.600E-07,0.152
-5.500E-07,0.136
-5.400E-07,0.072
-5.300E-07,-0.008
-5.200E-07,-0.124
-5.100E-07,-0.240
-5.000E-07,-0.244
-4.900E-07,-0.224
-4.800E-07,-0.172
-4.700E-07,-0.184
-4.600E-07,-0.276
-4.500E-07,-0.296
-4.400E-07,-0.404
-4.300E-07,-0.332
-4.200E-07,-0.220
-4.100E-07,-0.196
-4.000E-07,-0.040
-3.900E-07,-0.048
-3.800E-07,-0.056
-3.700E-07,-0.036
-3.600E-07,-0.024
-3.500E-07,0.012
-3.400E-07,0.100
-3.300E-07,0.140
-3.200E-07,0.136
-3.100E-07,0.144
-3.000E-07,0.108
-2.900E-07,0.076
-2.800E-07,0.072
-2.700E-07,0.068
-2.600E-07,0.056
-2.500E-07,0.092
-2.400E-07,0.100
-2.300E-07,0.108
-2.200E-07,0.124
-2.100E-07,0.108
-2.000E-07,0.076
-1.900E-07,0.044
-1.800E-07,0.024
-1.700E-07,0.020
-1.600E-07,0.040
-1.500E-07,0.052
-1.400E-07,0.044
-1.300E-07,0.044
-1.200E-07,0.048
-1.100E-07,0.044
-1.000E-07,0.072
-9.000E-08,0.108
-8.000E-08,0.140
-7.000E-08,0.184
-6.000E-08,0.176
-5.000E-08,0.176
-4.000E-08,0.156
-3.000E-08,0.148
-2.000E-08,0.156
-1.000E-08,0.172
0.000E+00,0.192
1.000E-08,0.200
2.000E-08,0.188
3.000E-08,0.172
4.000E-08,0.160
5.000E-08,0.152
6.000E-08,0.156
7.000E-08,0.164
8.000E-08,0.168
9.000E-08,0.148
1.000E-07,0.128
1.100E-07,0.100
1.200E-07,0.080
1.300E-07,0.064
1.400E-07,0.072
1.500E-07,0.080
1.600E-07,0.092
1.700E-07,0.100
1.800E-07,0.108
1.900E-07,0.104
2.000E-07,0.088
2.100E-07,0.088
2.200E-07,0.092
2.300E-07,0.112
2.400E-07,0.136
2.500E-07,0.152
2.600E-07,0.160
2.700E-07,0.160
2.800E-07,0.160
2.900E-07,0.164
3.000E-07,0.152
3.100E-07,0.152
3.200E-07,0.136
3.300E-07,0.124
3.400E-07,0.104
3.500E-07,0.088
3.600E-07,0.076
3.700E-07,0.060
3.800E-07,0.044
3.900E-07,0.024
4.000E-07,0.016
4.100E-07,0.016
4.200E-07,0.020
4.300E-07,0.044
4.400E-07,0.072
4.500E-07,0.108
4.600E-07,0.128
4.700E-07,0.152
4.800E-07,0.164
4.900E-07,0.172
5.000E-07,0.164
5.100E-07,0.164
5.200E-07,0.160
5.300E-07,0.164
5.400E-07,0.172
5.500E-07,0.176
5.600E-07,0.180
5.700E-07,0.164
5.800E-07,0.160
5.900E-07,0.156
6.000E-07,0.156
6.100E-07,0.160
6.200E-07,0.164
6.300E-07,0.168
6.400E-07,0.172
6.500E-07,0.172
6.600E-07,0.176
6.700E-07,0.176
6.800E-07,0.168
6.900E-07,0.160
7.000E-07,0.160
7.100E-07,0.160
7.200E-07,0.152
7.300E-07,0.156
7.400E-07,0.152
7.500E-07,0.156
7.600E-07,0.160
7.700E-07,0.152
7.800E-07,0.160
7.900E-07,0.160
8.000E-07,0.156
8.100E-07,0.152
8.200E-07,0.160
8.300E-07,0.164
8.400E-07,0.164
8.500E-07,0.164
8.600E-07,0.164
8.700E-07,0.160
8.800E-07,0.152
8.900E-07,0.152
9.000E-07,0.152
9.100E-07,0.156
9.200E-07,0.152
9.300E-07,0.156
9.400E-07,0.156
9.500E-07,0.160
9.600E-07,0.152
9.700E-07,0.148
9.800E-07,0.156
9.900E-07,0.156
1.000E-06,0.156
1.010E-06,0.156
1.020E-06,0.164
1.030E-06,0.156
1.040E-06,0.152
1.050E-06,0.152
1.060E-06,0.148
1.070E-06,0.144
1.080E-06,0.144
1.090E-06,0.144
1.100E-06,0.148
1.110E-06,0.144
1.120E-06,0.148
1.130E-06,0.148
1.140E-06,0.148
1.150E-06,0.144
1.160E-06,0.144
1.170E-06,0.144
1.180E-06,0.144
1.190E-06,0.148
1.200E-06,0.148
1.210E-06,0.148
1.220E-06,0.144
1.230E-06,0.140
1.240E-06,0.136
1.250E-06,0.140
1.260E-06,0.144
1.270E-06,0.144
1.280E-06,0.144
1.290E-06,0.144
1.300E-06,0.136
1.310E-06,0.136
1.320E-06,0.140
1.330E-06,0.144
1.340E-06,0.144
1.350E-06,0.144
1.360E-06,0.140
1.370E-06,0.140
1.380E-06,0.144
1.390E-06,0.140
1.400E-06,0.140
1.410E-06,0.140
1.420E-06,0.144
1.430E-06,0.144
1.440E-06,0.144
1.450E-06,0.144
1.460E-06,0.140
1.470E-06,0.136
1.480E-06,0.136
1.490E-06,0.140
1.500E-06,0.144
1.510E-06,0.136
1.520E-06,0.140
1.530E-06,0.140
1.540E-06,0.140
1.550E-06,0.136
1.560E-06,0.136
1.570E-06,0.136
1.580E-06,0.136
1.590E-06,0.140
1.600E-06,0.136
1.610E-06,0.136
1.620E-06,0.136
1.630E-06,0.132
1.640E-06,0.136
1.650E-06,0.128
1.660E-06,0.136
1.670E-06,0.136
1.680E-06,0.136
1.690E-06,0.132
1.700E-06,0.136
1.710E-06,0.132
1.720E-06,0.132
1.730E-06,0.132
1.740E-06,0.128
1.750E-06,0.132
1.760E-06,0.128
1.770E-06,0.128
1.780E-06,0.128
1.790E-06,0.128
1.800E-06,0.128
1.810E-06,0.132
1.820E-06,0.132
1.830E-06,0.132
1.840E-06,0.136
1.850E-06,0.132
1.860E-06,0.128
1.870E-06,0.124
1.880E-06,0.124
1.890E-06,0.124
1.900E-06,0.128
1.910E-06,0.132
1.920E-06,0.128
1.930E-06,0.128
1.940E-06,0.128
1.950E-06,0.124
1.960E-06,0.120
1.970E-06,0.120
1.980E-06,0.128
1.990E-06,0.128
2.000E-06,0.132
2.010E-06,0.128
2.020E-06,0.124
2.030E-06,0.124
2.040E-06,0.124
2.050E-06,0.124
2.060E-06,0.132
2.070E-06,0.128
2.080E-06,0.128
2.090E-06,0.132
2.100E-06,0.128
2.110E-06,0.124
2.120E-06,0.120
2.130E-06,0.120
2.140E-06,0.120
2.150E-06,0.120
2.160E-06,0.116
2.170E-06,0.120
2.180E-06,0.112
2.190E-06,0.108
2.200E-06,0.108
2.210E-06,0.112
2.220E-06,0.116
2.230E-06,0.116
2.240E-06,0.116
2.250E-06,0.112
2.260E-06,0.108
2.270E-06,0.104
2.280E-06,0.108
2.290E-06,0.120
2.300E-06,0.124
2.310E-06,0.120
2.320E-06,0.120
2.330E-06,0.116
2.340E-06,0.116
2.350E-06,0.120
2.360E-06,0.120
2.370E-06,0.124
2.380E-06,0.124
2.390E-06,0.120
2.400E-06,0.120
2.410E-06,0.120
2.420E-06,0.120
2.430E-06,0.120
2.440E-06,0.120
2.450E-06,0.108
2.460E-06,0.108
2.470E-06,0.112
2.480E-06,0.112
2.490E-06,0.116
2.500E-06,0.116
2.510E-06,0.112
2.520E-06,0.108
2.530E-06,0.112
2.540E-06,0.112
2.550E-06,0.108
2.560E-06,0.108
2.570E-06,0.112
2.580E-06,0.112
2.590E-06,0.108
2.600E-06,0.104
2.610E-06,0.104
2.620E-06,0.104
2.630E-06,0.100
2.640E-06,0.104
2.650E-06,0.104
2.660E-06,0.104
2.670E-06,0.108
2.680E-06,0.100
2.690E-06,0.104
2.700E-06,0.104
2.710E-06,0.100
2.720E-06,0.100
2.730E-06,0.100
2.740E-06,0.100
2.750E-06,0.096
2.760E-06,0.096
2.770E-06,0.100
2.780E-06,0.100
2.790E-06,0.100
2.800E-06,0.100
2.810E-06,0.096
2.820E-06,0.096
2.830E-06,0.100
2.840E-06,0.096
2.850E-06,0.096
2.860E-06,0.096
2.870E-06,0.100
2.880E-06,0.096
2.890E-06,0.092
2.900E-06,0.092
2.910E-06,0.088
2.920E-06,0.088
2.930E-06,0.096
2.940E-06,0.100
2.950E-06,0.092
2.960E-06,0.096
2.970E-06,0.096
2.980E-06,0.096
2.990E-06,0.092
3.000E-06,0.096
3.010E-06,0.100
3.020E-06,0.100
3.030E-06,0.092
3.040E-06,0.096
3.050E-06,0.088
3.060E-06,0.088
3.070E-06,0.080
3.080E-06,0.076
3.090E-06,0.068
3.100E-06,0.052
3.110E-06,0.020
3.120E-06,0.024
3.130E-06,0.020
3.140E-06,0.028
3.150E-06,0.072
3.160E-06,0.112
3.170E-06,0.112
3.180E-06,0.136
3.190E-06,0.124
3.200E-06,0.120
3.210E-06,0.120
3.220E-06,0.128
3.230E-06,0.116
3.240E-06,0.104
3.250E-06,0.084
3.260E-06,0.072
3.270E-06,0.068
3.280E-06,0.084
3.290E-06,0.096
3.300E-06,0.100
3.310E-06,0.112
3.320E-06,0.096
3.330E-06,0.088
3.340E-06,0.084
3.350E-06,0.080
