mediciones/Mediciones filtradas (saque las feas)/5-27/-47.5/WaveData50173.csv

#timebase=2000000(ps)
,#voltbase=1000000(mv/100)
#size=4000
-8.400E-06,0.080
-8.390E-06,0.000
-8.380E-06,0.000
-8.370E-06,0.040
-8.360E-06,0.040
-8.350E-06,0.040
-8.340E-06,0.040
-8.330E-06,0.080
-8.320E-06,0.040
-8.310E-06,0.040
-8.300E-06,0.040
-8.290E-06,0.000
-8.280E-06,0.040
-8.270E-06,0.000
-8.260E-06,0.040
-8.250E-06,0.040
-8.240E-06,0.040
-8.230E-06,0.040
-8.220E-06,0.040
-8.210E-06,0.040
-8.200E-06,0.000
-8.190E-06,0.040
-8.180E-06,0.040
-8.170E-06,0.040
-8.160E-06,0.040
-8.150E-06,0.040
-8.140E-06,0.040
-8.130E-06,0.040
-8.120E-06,0.040
-8.110E-06,0.040
-8.100E-06,0.040
-8.090E-06,0.080
-8.080E-06,0.040
-8.070E-06,0.040
-8.060E-06,0.080
-8.050E-06,0.040
-8.040E-06,0.040
-8.030E-06,0.080
-8.020E-06,0.040
-8.010E-06,0.040
-8.000E-06,0.040
-7.990E-06,0.040
-7.980E-06,0.000
-7.970E-06,0.040
-7.960E-06,0.080
-7.950E-06,0.000
-7.940E-06,0.080
-7.930E-06,0.040
-7.920E-06,0.040
-7.910E-06,0.040
-7.900E-06,0.040
-7.890E-06,0.080
-7.880E-06,0.000
-7.870E-06,0.040
-7.860E-06,0.040
-7.850E-06,0.040
-7.840E-06,0.040
-7.830E-06,0.040
-7.820E-06,0.040
-7.810E-06,0.080
-7.800E-06,0.040
-7.790E-06,0.000
-7.780E-06,0.040
-7.770E-06,0.040
-7.760E-06,0.040
-7.750E-06,0.040
-7.740E-06,0.040
-7.730E-06,0.040
-7.720E-06,0.040
-7.710E-06,0.040
-7.700E-06,0.040
-7.690E-06,0.040
-7.680E-06,0.080
-7.670E-06,0.040
-7.660E-06,0.080
-7.650E-06,0.040
-7.640E-06,0.080
-7.630E-06,0.040
-7.620E-06,0.040
-7.610E-06,0.040
-7.600E-06,0.040
-7.590E-06,0.080
-7.580E-06,0.040
-7.570E-06,0.040
-7.560E-06,0.040
-7.550E-06,0.040
-7.540E-06,0.000
-7.530E-06,0.040
-7.520E-06,0.040
-7.510E-06,0.040
-7.500E-06,0.040
-7.490E-06,0.040
-7.480E-06,0.040
-7.470E-06,0.040
-7.460E-06,0.040
-7.450E-06,0.080
-7.440E-06,0.040
-7.430E-06,0.040
-7.420E-06,0.000
-7.410E-06,0.040
-7.400E-06,0.040
-7.390E-06,0.040
-7.380E-06,0.080
-7.370E-06,0.000
-7.360E-06,0.000
-7.350E-06,0.040
-7.340E-06,0.040
-7.330E-06,0.040
-7.320E-06,0.040
-7.310E-06,0.080
-7.300E-06,0.080
-7.290E-06,0.040
-7.280E-06,0.080
-7.270E-06,0.080
-7.260E-06,0.080
-7.250E-06,0.000
-7.240E-06,0.000
-7.230E-06,0.080
-7.220E-06,0.040
-7.210E-06,0.040
-7.200E-06,0.040
-7.190E-06,0.040
-7.180E-06,0.080
-7.170E-06,0.000
-7.160E-06,0.040
-7.150E-06,0.080
-7.140E-06,0.240
-7.130E-06,0.400
-7.120E-06,0.840
-7.110E-06,1.600
-7.100E-06,2.360
-7.090E-06,2.960
-7.080E-06,3.120
-7.070E-06,2.520
-7.060E-06,1.480
-7.050E-06,0.320
-7.040E-06,-0.600
-7.030E-06,-1.160
-7.020E-06,-1.480
-7.010E-06,-1.760
-7.000E-06,-2.080
-6.990E-06,-2.520
-6.980E-06,-2.760
-6.970E-06,-2.680
-6.960E-06,-2.360
-6.950E-06,-1.840
-6.940E-06,-1.360
-6.930E-06,-1.080
-6.920E-06,-1.120
-6.910E-06,-1.200
-6.900E-06,-1.160
-6.890E-06,-0.880
-6.880E-06,-0.600
-6.870E-06,-0.240
-6.860E-06,0.000
-6.850E-06,0.320
-6.840E-06,0.600
-6.830E-06,0.840
-6.820E-06,1.040
-6.810E-06,1.320
-6.800E-06,1.440
-6.790E-06,1.400
-6.780E-06,1.240
-6.770E-06,1.000
-6.760E-06,0.920
-6.750E-06,0.800
-6.740E-06,0.600
-6.730E-06,0.400
-6.720E-06,0.200
-6.710E-06,0.000
-6.700E-06,-0.040
-6.690E-06,-0.040
-6.680E-06,0.000
-6.670E-06,0.040
-6.660E-06,0.080
-6.650E-06,0.080
-6.640E-06,0.040
-6.630E-06,0.000
-6.620E-06,0.040
-6.610E-06,-0.080
-6.600E-06,-0.080
-6.590E-06,-0.040
-6.580E-06,-0.040
-6.570E-06,0.000
-6.560E-06,0.040
-6.550E-06,0.040
-6.540E-06,0.080
-6.530E-06,0.120
-6.520E-06,0.040
-6.510E-06,0.000
-6.500E-06,-0.080
-6.490E-06,-0.120
-6.480E-06,-0.240
-6.470E-06,-0.280
-6.460E-06,-0.400
-6.450E-06,-0.520
-6.440E-06,-0.640
-6.430E-06,-0.680
-6.420E-06,-0.640
-6.410E-06,-0.520
-6.400E-06,-0.480
-6.390E-06,-0.480
-6.380E-06,-0.400
-6.370E-06,-0.360
-6.360E-06,-0.280
-6.350E-06,-0.160
-6.340E-06,0.000
-6.330E-06,0.080
-6.320E-06,0.160
-6.310E-06,0.120
-6.300E-06,0.120
-6.290E-06,0.200
-6.280E-06,0.200
-6.270E-06,0.280
-6.260E-06,0.240
-6.250E-06,0.240
-6.240E-06,0.080
-6.230E-06,0.080
-6.220E-06,0.040
-6.210E-06,0.000
-6.200E-06,0.000
-6.190E-06,0.000
-6.180E-06,-0.040
-6.170E-06,-0.040
-6.160E-06,-0.120
-6.150E-06,-0.120
-6.140E-06,-0.200
-6.130E-06,-0.160
-6.120E-06,-0.080
-6.110E-06,-0.080
-6.100E-06,-0.080
-6.090E-06,-0.080
-6.080E-06,-0.080
-6.070E-06,-0.040
-6.060E-06,-0.040
-6.050E-06,0.000
-6.040E-06,0.040
-6.030E-06,0.040
-6.020E-06,0.120
-6.010E-06,0.200
-6.000E-06,0.160
-5.990E-06,0.200
-5.980E-06,0.120
-5.970E-06,0.160
-5.960E-06,0.160
-5.950E-06,0.120
-5.940E-06,0.040
-5.930E-06,0.000
-5.920E-06,0.000
-5.910E-06,0.000
-5.900E-06,0.040
-5.890E-06,0.080
-5.880E-06,-0.040
-5.870E-06,-0.080
-5.860E-06,-0.120
-5.850E-06,-0.200
-5.840E-06,-0.120
-5.830E-06,-0.120
-5.820E-06,-0.160
-5.810E-06,-0.080
-5.800E-06,-0.160
-5.790E-06,-0.160
-5.780E-06,-0.080
-5.770E-06,-0.120
-5.760E-06,-0.040
-5.750E-06,-0.080
-5.740E-06,0.000
-5.730E-06,0.000
-5.720E-06,-0.040
-5.710E-06,0.040
-5.700E-06,0.080
-5.690E-06,0.120
-5.680E-06,0.160
-5.670E-06,0.200
-5.660E-06,0.160
-5.650E-06,0.200
-5.640E-06,0.280
-5.630E-06,0.320
-5.620E-06,0.280
-5.610E-06,0.360
-5.600E-06,0.240
-5.590E-06,0.240
-5.580E-06,0.160
-5.570E-06,0.120
-5.560E-06,0.120
-5.550E-06,0.040
-5.540E-06,0.000
-5.530E-06,-0.040
-5.520E-06,0.000
-5.510E-06,0.000
-5.500E-06,-0.040
-5.490E-06,-0.040
-5.480E-06,-0.040
-5.470E-06,-0.040
-5.460E-06,-0.040
-5.450E-06,0.000
-5.440E-06,0.000
-5.430E-06,0.040
-5.420E-06,0.080
-5.410E-06,0.080
-5.400E-06,0.120
-5.390E-06,0.040
-5.380E-06,0.080
-5.370E-06,0.120
-5.360E-06,0.200
-5.350E-06,0.120
-5.340E-06,0.120
-5.330E-06,0.160
-5.320E-06,0.240
-5.310E-06,0.120
-5.300E-06,0.160
-5.290E-06,0.200
-5.280E-06,0.200
-5.270E-06,0.160
-5.260E-06,0.120
-5.250E-06,0.160
-5.240E-06,0.200
-5.230E-06,0.200
-5.220E-06,0.200
-5.210E-06,0.200
-5.200E-06,0.200
-5.190E-06,0.200
-5.180E-06,0.160
-5.170E-06,0.200
-5.160E-06,0.200
-5.150E-06,0.200
-5.140E-06,0.120
-5.130E-06,0.160
-5.120E-06,0.000
-5.110E-06,0.000
-5.100E-06,0.080
-5.090E-06,0.080
-5.080E-06,0.120
-5.070E-06,0.280
-5.060E-06,0.280
-5.050E-06,0.240
-5.040E-06,0.160
-5.030E-06,0.080
-5.020E-06,0.040
-5.010E-06,0.040
-5.000E-06,0.120
-4.990E-06,0.160
-4.980E-06,0.160
-4.970E-06,0.160
-4.960E-06,0.080
-4.950E-06,0.000
-4.940E-06,0.000
-4.930E-06,0.000
-4.920E-06,0.080
-4.910E-06,0.120
-4.900E-06,0.080
-4.890E-06,0.040
-4.880E-06,-0.040
-4.870E-06,0.000
-4.860E-06,-0.040
-4.850E-06,0.000
-4.840E-06,0.040
-4.830E-06,0.000
-4.820E-06,-0.040
-4.810E-06,0.000
-4.800E-06,-0.040
-4.790E-06,0.000
-4.780E-06,0.040
-4.770E-06,0.040
-4.760E-06,0.040
-4.750E-06,0.040
-4.740E-06,0.080
-4.730E-06,0.120
-4.720E-06,0.160
-4.710E-06,0.240
-4.700E-06,0.200
-4.690E-06,0.280
-4.680E-06,0.240
-4.670E-06,0.280
-4.660E-06,0.280
-4.650E-06,0.320
-4.640E-06,0.360
-4.630E-06,0.360
-4.620E-06,0.400
-4.610E-06,0.280
-4.600E-06,0.360
-4.590E-06,0.400
-4.580E-06,0.360
-4.570E-06,0.480
-4.560E-06,0.480
-4.550E-06,0.360
-4.540E-06,0.320
-4.530E-06,0.280
-4.520E-06,0.240
-4.510E-06,0.560
-4.500E-06,0.240
-4.490E-06,0.480
-4.480E-06,0.480
-4.470E-06,0.200
-4.460E-06,0.600
-4.450E-06,0.400
-4.440E-06,0.240
-4.430E-06,0.240
-4.420E-06,0.000
-4.410E-06,0.160
-4.400E-06,0.240
-4.390E-06,0.320
-4.380E-06,0.400
-4.370E-06,0.160
-4.360E-06,0.000
-4.350E-06,-0.080
-4.340E-06,-0.160
-4.330E-06,-0.080
-4.320E-06,0.040
-4.310E-06,0.080
-4.300E-06,0.080
-4.290E-06,-0.040
-4.280E-06,-0.080
-4.270E-06,-0.160
-4.260E-06,-0.080
-4.250E-06,-0.040
-4.240E-06,0.000
-4.230E-06,0.000
-4.220E-06,-0.080
-4.210E-06,-0.040
-4.200E-06,-0.080
-4.190E-06,-0.040
-4.180E-06,-0.040
-4.170E-06,0.000
-4.160E-06,0.000
-4.150E-06,0.000
-4.140E-06,-0.040
-4.130E-06,0.040
-4.120E-06,0.040
-4.110E-06,0.120
-4.100E-06,0.040
-4.090E-06,0.080
-4.080E-06,0.040
-4.070E-06,0.080
-4.060E-06,0.120
-4.050E-06,0.160
-4.040E-06,0.160
-4.030E-06,0.160
-4.020E-06,0.120
-4.010E-06,0.040
-4.000E-06,0.080
-3.990E-06,0.120
-3.980E-06,0.080
-3.970E-06,0.080
-3.960E-06,0.040
-3.950E-06,0.000
-3.940E-06,0.080
-3.930E-06,0.120
-3.920E-06,0.400
-3.910E-06,0.080
-3.900E-06,0.160
-3.890E-06,0.280
-3.880E-06,-0.040
-3.870E-06,0.320
-3.860E-06,0.320
-3.850E-06,0.280
-3.840E-06,0.200
-3.830E-06,0.040
-3.820E-06,0.000
-3.810E-06,0.040
-3.800E-06,0.200
-3.790E-06,0.320
-3.780E-06,0.200
-3.770E-06,0.000
-3.760E-06,-0.080
-3.750E-06,-0.160
-3.740E-06,-0.080
-3.730E-06,0.080
-3.720E-06,0.120
-3.710E-06,-0.040
-3.700E-06,0.000
-3.690E-06,-0.200
-3.680E-06,-0.280
-3.670E-06,-0.240
-3.660E-06,-0.240
-3.650E-06,-0.240
-3.640E-06,-0.160
-3.630E-06,-0.240
-3.620E-06,-0.280
-3.610E-06,-0.240
-3.600E-06,-0.240
-3.590E-06,-0.240
-3.580E-06,-0.200
-3.570E-06,-0.240
-3.560E-06,-0.160
-3.550E-06,-0.120
-3.540E-06,-0.120
-3.530E-06,0.000
-3.520E-06,-0.040
-3.510E-06,0.000
-3.500E-06,0.000
-3.490E-06,0.000
-3.480E-06,0.080
-3.470E-06,0.080
-3.460E-06,0.120
-3.450E-06,0.160
-3.440E-06,0.160
-3.430E-06,0.120
-3.420E-06,0.080
-3.410E-06,0.120
-3.400E-06,0.120
-3.390E-06,0.200
-3.380E-06,0.120
-3.370E-06,0.080
-3.360E-06,0.120
-3.350E-06,0.040
-3.340E-06,0.120
-3.330E-06,0.080
-3.320E-06,0.120
-3.310E-06,0.200
-3.300E-06,0.120
-3.290E-06,0.160
-3.280E-06,0.160
-3.270E-06,0.040
-3.260E-06,0.080
-3.250E-06,0.120
-3.240E-06,-0.040
-3.230E-06,0.000
-3.220E-06,0.040
-3.210E-06,0.040
-3.200E-06,0.040
-3.190E-06,0.160
-3.180E-06,0.080
-3.170E-06,0.000
-3.160E-06,-0.040
-3.150E-06,-0.040
-3.140E-06,0.000
-3.130E-06,0.120
-3.120E-06,0.240
-3.110E-06,0.240
-3.100E-06,0.200
-3.090E-06,0.080
-3.080E-06,0.040
-3.070E-06,0.320
-3.060E-06,0.000
-3.050E-06,0.240
-3.040E-06,0.200
-3.030E-06,-0.040
-3.020E-06,0.360
-3.010E-06,0.200
-3.000E-06,0.160
-2.990E-06,0.200
-2.980E-06,-0.040
-2.970E-06,0.000
-2.960E-06,0.080
-2.950E-06,0.160
-2.940E-06,0.160
-2.930E-06,0.080
-2.920E-06,0.000
-2.910E-06,-0.080
-2.900E-06,-0.120
-2.890E-06,-0.040
-2.880E-06,0.000
-2.870E-06,0.000
-2.860E-06,0.000
-2.850E-06,-0.080
-2.840E-06,-0.160
-2.830E-06,-0.080
-2.820E-06,-0.080
-2.810E-06,-0.120
-2.800E-06,-0.160
-2.790E-06,-0.120
-2.780E-06,-0.120
-2.770E-06,-0.160
-2.760E-06,-0.200
-2.750E-06,-0.160
-2.740E-06,-0.080
-2.730E-06,-0.120
-2.720E-06,-0.080
-2.710E-06,-0.080
-2.700E-06,-0.120
-2.690E-06,-0.040
-2.680E-06,0.000
-2.670E-06,-0.040
-2.660E-06,0.040
-2.650E-06,0.040
-2.640E-06,0.160
-2.630E-06,0.160
-2.620E-06,0.160
-2.610E-06,0.120
-2.600E-06,0.160
-2.590E-06,0.200
-2.580E-06,0.160
-2.570E-06,0.120
-2.560E-06,0.160
-2.550E-06,0.080
-2.540E-06,0.080
-2.530E-06,0.040
-2.520E-06,0.040
-2.510E-06,0.000
-2.500E-06,0.000
-2.490E-06,0.000
-2.480E-06,0.040
-2.470E-06,0.040
-2.460E-06,0.000
-2.450E-06,0.040
-2.440E-06,0.040
-2.430E-06,0.000
-2.420E-06,0.000
-2.410E-06,0.000
-2.400E-06,0.000
-2.390E-06,0.040
-2.380E-06,0.160
-2.370E-06,0.160
-2.360E-06,0.280
-2.350E-06,0.280
-2.340E-06,0.200
-2.330E-06,0.240
-2.320E-06,0.400
-2.310E-06,0.400
-2.300E-06,0.200
-2.290E-06,0.400
-2.280E-06,0.120
-2.270E-06,0.200
-2.260E-06,0.480
-2.250E-06,0.320
-2.240E-06,0.360
-2.230E-06,0.200
-2.220E-06,0.000
-2.210E-06,-0.120
-2.200E-06,0.040
-2.190E-06,-0.120
-2.180E-06,0.000
-2.170E-06,0.080
-2.160E-06,0.000
-2.150E-06,0.280
-2.140E-06,0.120
-2.130E-06,0.040
-2.120E-06,-0.040
-2.110E-06,-0.200
-2.100E-06,-0.040
-2.090E-06,0.000
-2.080E-06,0.000
-2.070E-06,-0.040
-2.060E-06,-0.160
-2.050E-06,-0.400
-2.040E-06,-0.360
-2.030E-06,-0.360
-2.020E-06,-0.320
-2.010E-06,-0.200
-2.000E-06,-0.160
-1.990E-06,-0.240
-1.980E-06,-0.240
-1.970E-06,-0.240
-1.960E-06,-0.200
-1.950E-06,-0.120
-1.940E-06,-0.160
-1.930E-06,0.000
-1.920E-06,0.000
-1.910E-06,0.000
-1.900E-06,0.080
-1.890E-06,0.080
-1.880E-06,0.120
-1.870E-06,0.120
-1.860E-06,0.120
-1.850E-06,0.120
-1.840E-06,0.120
-1.830E-06,0.080
-1.820E-06,0.080
-1.810E-06,0.040
-1.800E-06,0.040
-1.790E-06,-0.040
-1.780E-06,0.000
-1.770E-06,0.000
-1.760E-06,0.000
-1.750E-06,0.000
-1.740E-06,0.000
-1.730E-06,-0.040
-1.720E-06,-0.080
-1.710E-06,-0.080
-1.700E-06,-0.120
-1.690E-06,-0.080
-1.680E-06,-0.040
-1.670E-06,0.000
-1.660E-06,0.000
-1.650E-06,0.000
-1.640E-06,0.000
-1.630E-06,0.000
-1.620E-06,0.040
-1.610E-06,0.000
-1.600E-06,0.000
-1.590E-06,0.080
-1.580E-06,0.120
-1.570E-06,0.080
-1.560E-06,0.080
-1.550E-06,0.120
-1.540E-06,0.160
-1.530E-06,0.160
-1.520E-06,0.160
-1.510E-06,0.160
-1.500E-06,0.320
-1.490E-06,0.400
-1.480E-06,0.440
-1.470E-06,0.400
-1.460E-06,0.400
-1.450E-06,0.400
-1.440E-06,0.440
-1.430E-06,0.360
-1.420E-06,0.440
-1.410E-06,0.360
-1.400E-06,0.200
-1.390E-06,0.320
-1.380E-06,0.160
-1.370E-06,0.200
-1.360E-06,0.160
-1.350E-06,0.120
-1.340E-06,0.160
-1.330E-06,0.120
-1.320E-06,0.040
-1.310E-06,0.000
-1.300E-06,-0.040
-1.290E-06,-0.040
-1.280E-06,-0.040
-1.270E-06,-0.080
-1.260E-06,-0.080
-1.250E-06,-0.040
-1.240E-06,-0.120
-1.230E-06,-0.080
-1.220E-06,-0.200
-1.210E-06,-0.240
-1.200E-06,-0.280
-1.190E-06,-0.280
-1.180E-06,-0.160
-1.170E-06,-0.200
-1.160E-06,-0.120
-1.150E-06,-0.160
-1.140E-06,-0.160
-1.130E-06,-0.080
-1.120E-06,-0.040
-1.110E-06,0.000
-1.100E-06,0.080
-1.090E-06,0.080
-1.080E-06,0.040
-1.070E-06,0.120
-1.060E-06,0.080
-1.050E-06,0.160
-1.040E-06,0.200
-1.030E-06,0.240
-1.020E-06,0.280
-1.010E-06,0.320
-1.000E-06,0.360
-9.900E-07,0.320
-9.800E-07,0.320
-9.700E-07,0.360
-9.600E-07,0.360
-9.500E-07,0.400
-9.400E-07,0.440
-9.300E-07,0.440
-9.200E-07,0.440
-9.100E-07,0.360
-9.000E-07,0.280
-8.900E-07,0.280
-8.800E-07,0.240
-8.700E-07,0.200
-8.600E-07,0.320
-8.500E-07,0.280
-8.400E-07,0.240
-8.300E-07,0.320
-8.200E-07,0.360
-8.100E-07,0.320
-8.000E-07,0.440
-7.900E-07,0.360
-7.800E-07,0.400
-7.700E-07,0.400
-7.600E-07,0.440
-7.500E-07,0.400
-7.400E-07,0.360
-7.300E-07,0.400
-7.200E-07,0.400
-7.100E-07,0.440
-7.000E-07,0.440
-6.900E-07,0.360
-6.800E-07,0.360
-6.700E-07,0.320
-6.600E-07,0.320
-6.500E-07,0.320
-6.400E-07,0.400
-6.300E-07,0.400
-6.200E-07,0.400
-6.100E-07,0.320
-6.000E-07,0.360
-5.900E-07,0.320
-5.800E-07,0.280
-5.700E-07,0.360
-5.600E-07,0.280
-5.500E-07,0.360
-5.400E-07,0.400
-5.300E-07,0.400
-5.200E-07,0.440
-5.100E-07,0.440
-5.000E-07,0.480
-4.900E-07,0.480
-4.800E-07,0.440
-4.700E-07,0.480
-4.600E-07,0.520
-4.500E-07,0.520
-4.400E-07,0.480
-4.300E-07,0.400
-4.200E-07,0.360
-4.100E-07,0.320
-4.000E-07,0.240
-3.900E-07,0.320
-3.800E-07,0.320
-3.700E-07,0.320
-3.600E-07,0.360
-3.500E-07,0.360
-3.400E-07,0.360
-3.300E-07,0.400
-3.200E-07,0.440
-3.100E-07,0.520
-3.000E-07,0.520
-2.900E-07,0.480
-2.800E-07,0.560
-2.700E-07,0.520
-2.600E-07,0.520
-2.500E-07,0.560
-2.400E-07,0.520
-2.300E-07,0.480
-2.200E-07,0.480
-2.100E-07,0.400
-2.000E-07,0.400
-1.900E-07,0.360
-1.800E-07,0.360
-1.700E-07,0.400
-1.600E-07,0.400
-1.500E-07,0.240
-1.400E-07,0.280
-1.300E-07,0.360
-1.200E-07,0.280
-1.100E-07,0.320
-1.000E-07,0.320
-9.000E-08,0.320
-8.000E-08,0.360
-7.000E-08,0.320
-6.000E-08,0.400
-5.000E-08,0.160
-4.000E-08,0.840
-3.000E-08,0.040
-2.000E-08,0.200
-1.000E-08,-0.280
0.000E+00,-0.360
1.000E-08,-0.040
2.000E-08,0.560
3.000E-08,1.280
4.000E-08,1.080
5.000E-08,0.960
6.000E-08,0.960
7.000E-08,-0.600
8.000E-08,-0.880
9.000E-08,-0.320
1.000E-07,-0.800
1.100E-07,0.800
1.200E-07,1.520
1.300E-07,1.720
1.400E-07,1.760
1.500E-07,0.160
1.600E-07,-0.440
1.700E-07,-0.240
1.800E-07,0.240
1.900E-07,1.400
2.000E-07,1.600
2.100E-07,1.000
2.200E-07,0.320
2.300E-07,-0.120
2.400E-07,-0.840
2.500E-07,-0.560
2.600E-07,-0.400
2.700E-07,-0.400
2.800E-07,-0.040
2.900E-07,-0.200
3.000E-07,-0.040
3.100E-07,-0.240
3.200E-07,-0.520
3.300E-07,-0.800
3.400E-07,-1.080
3.500E-07,-1.000
3.600E-07,-0.680
3.700E-07,-0.400
3.800E-07,-0.120
3.900E-07,-0.280
4.000E-07,-0.520
4.100E-07,-0.640
4.200E-07,-0.600
4.300E-07,-0.480
4.400E-07,-0.200
4.500E-07,-0.160
4.600E-07,-0.080
4.700E-07,-0.160
4.800E-07,-0.240
4.900E-07,-0.360
5.000E-07,-0.400
5.100E-07,-0.360
5.200E-07,-0.200
5.300E-07,-0.080
5.400E-07,0.080
5.500E-07,0.200
5.600E-07,0.120
5.700E-07,-0.200
5.800E-07,-0.040
5.900E-07,-0.040
6.000E-07,-0.160
6.100E-07,0.080
6.200E-07,0.040
6.300E-07,-0.200
6.400E-07,-0.040
6.500E-07,-0.240
6.600E-07,-0.160
6.700E-07,0.040
6.800E-07,0.000
6.900E-07,0.240
7.000E-07,0.160
7.100E-07,0.120
7.200E-07,-0.120
7.300E-07,-1.040
7.400E-07,-0.960
7.500E-07,-1.240
7.600E-07,-0.720
7.700E-07,-0.200
7.800E-07,-0.040
7.900E-07,-0.040
8.000E-07,-0.600
8.100E-07,-0.600
8.200E-07,-0.280
8.300E-07,0.320
8.400E-07,0.640
8.500E-07,0.520
8.600E-07,0.080
8.700E-07,-0.360
8.800E-07,-0.440
8.900E-07,-0.280
9.000E-07,0.040
9.100E-07,-0.040
9.200E-07,-0.240
9.300E-07,-0.600
9.400E-07,-1.160
9.500E-07,-1.120
9.600E-07,-1.480
9.700E-07,-1.400
9.800E-07,-1.440
9.900E-07,-1.800
1.000E-06,-1.320
1.010E-06,-1.360
1.020E-06,-1.160
1.030E-06,-0.960
1.040E-06,-1.360
1.050E-06,-1.320
1.060E-06,-1.400
1.070E-06,-1.200
1.080E-06,-0.760
1.090E-06,-0.480
1.100E-06,-0.360
1.110E-06,-0.320
1.120E-06,-0.360
1.130E-06,-0.360
1.140E-06,-0.280
1.150E-06,-0.080
1.160E-06,0.000
1.170E-06,-0.040
1.180E-06,-0.040
1.190E-06,-0.200
1.200E-06,-0.400
1.210E-06,-0.480
1.220E-06,-0.640
1.230E-06,-0.760
1.240E-06,-0.800
1.250E-06,-0.880
1.260E-06,-1.000
1.270E-06,-1.040
1.280E-06,-1.160
1.290E-06,-1.240
1.300E-06,-1.160
1.310E-06,-1.160
1.320E-06,-1.200
1.330E-06,-1.200
1.340E-06,-1.160
1.350E-06,-1.200
1.360E-06,-1.240
1.370E-06,-1.200
1.380E-06,-1.080
1.390E-06,-1.000
1.400E-06,-0.880
1.410E-06,-1.000
1.420E-06,-0.960
1.430E-06,-0.920
1.440E-06,-1.040
1.450E-06,-0.920
1.460E-06,-0.880
1.470E-06,-0.680
1.480E-06,-0.640
1.490E-06,-0.600
1.500E-06,-0.600
1.510E-06,-0.680
1.520E-06,-0.680
1.530E-06,-0.680
1.540E-06,-0.640
1.550E-06,-0.840
1.560E-06,-0.720
1.570E-06,-0.680
1.580E-06,-0.960
1.590E-06,-1.040
1.600E-06,-1.160
1.610E-06,-1.280
1.620E-06,-1.240
1.630E-06,-1.160
1.640E-06,-1.080
1.650E-06,-1.040
1.660E-06,-1.200
1.670E-06,-1.280
1.680E-06,-1.480
1.690E-06,-1.440
1.700E-06,-1.600
1.710E-06,-1.640
1.720E-06,-1.480
1.730E-06,-1.320
1.740E-06,-1.280
1.750E-06,-1.240
1.760E-06,-1.360
1.770E-06,-1.440
1.780E-06,-1.360
1.790E-06,-1.240
1.800E-06,-1.160
1.810E-06,-1.000
1.820E-06,-0.880
1.830E-06,-0.960
1.840E-06,-1.080
1.850E-06,-1.080
1.860E-06,-1.240
1.870E-06,-1.320
1.880E-06,-1.320
1.890E-06,-1.400
1.900E-06,-1.320
1.910E-06,-1.400
1.920E-06,-1.400
1.930E-06,-1.400
1.940E-06,-1.520
1.950E-06,-1.480
1.960E-06,-1.600
1.970E-06,-1.560
1.980E-06,-1.640
1.990E-06,-1.640
2.000E-06,-1.560
2.010E-06,-1.520
2.020E-06,-1.520
2.030E-06,-1.480
2.040E-06,-1.440
2.050E-06,-1.440
2.060E-06,-1.360
2.070E-06,-1.400
2.080E-06,-1.320
2.090E-06,-1.360
2.100E-06,-1.400
2.110E-06,-1.440
2.120E-06,-1.480
2.130E-06,-1.400
2.140E-06,-1.360
2.150E-06,-1.480
2.160E-06,-1.480
2.170E-06,-1.480
2.180E-06,-1.480
2.190E-06,-1.480
2.200E-06,-1.880
2.210E-06,-1.760
2.220E-06,-2.200
2.230E-06,-2.080
2.240E-06,-1.840
2.250E-06,-1.680
2.260E-06,-1.440
2.270E-06,-1.280
2.280E-06,-1.200
2.290E-06,-1.240
2.300E-06,-1.120
2.310E-06,-1.240
2.320E-06,-1.000
2.330E-06,-1.000
2.340E-06,-1.000
2.350E-06,-0.960
2.360E-06,-1.280
2.370E-06,-1.240
2.380E-06,-1.480
2.390E-06,-1.440
2.400E-06,-1.400
2.410E-06,-1.440
2.420E-06,-1.320
2.430E-06,-1.360
2.440E-06,-1.480
2.450E-06,-1.640
2.460E-06,-1.760
2.470E-06,-1.840
2.480E-06,-1.880
2.490E-06,-1.800
2.500E-06,-1.760
2.510E-06,-1.600
2.520E-06,-1.520
2.530E-06,-1.600
2.540E-06,-1.520
2.550E-06,-1.640
2.560E-06,-1.680
2.570E-06,-1.720
2.580E-06,-1.840
2.590E-06,-1.800
2.600E-06,-1.800
2.610E-06,-1.480
2.620E-06,-1.360
2.630E-06,-1.120
2.640E-06,-1.120
2.650E-06,-1.120
2.660E-06,-1.120
2.670E-06,-1.360
2.680E-06,-1.520
2.690E-06,-1.400
2.700E-06,-1.400
2.710E-06,-1.320
2.720E-06,-1.160
2.730E-06,-1.240
2.740E-06,-1.040
2.750E-06,-1.080
2.760E-06,-1.160
2.770E-06,-1.040
2.780E-06,-1.040
2.790E-06,-0.880
2.800E-06,-0.760
2.810E-06,-0.680
2.820E-06,-0.600
2.830E-06,-0.640
2.840E-06,-0.680
2.850E-06,-0.920
2.860E-06,-1.160
2.870E-06,-1.240
2.880E-06,-1.560
2.890E-06,-1.680
2.900E-06,-2.040
2.910E-06,-2.200
2.920E-06,-2.520
2.930E-06,-2.760
2.940E-06,-2.800
2.950E-06,-2.880
2.960E-06,-2.760
2.970E-06,-2.680
2.980E-06,-2.480
2.990E-06,-2.520
3.000E-06,-2.760
3.010E-06,-2.960
3.020E-06,-2.760
3.030E-06,-3.400
3.040E-06,-2.680
3.050E-06,-3.760
3.060E-06,-4.640
3.070E-06,-4.080
3.080E-06,-4.360
3.090E-06,-2.320
3.100E-06,-0.560
3.110E-06,-0.120
3.120E-06,-0.200
3.130E-06,-1.320
3.140E-06,-2.680
3.150E-06,-2.880
3.160E-06,-1.160
3.170E-06,-0.160
3.180E-06,0.920
3.190E-06,1.320
3.200E-06,0.360
3.210E-06,0.120
3.220E-06,-0.040
3.230E-06,0.040
