mediciones/5-15/-0.01/WaveData47657.csv

#timebase=2000000(ps)
,#voltbase=100000(mv/100)
#size=4000
-8.400E-06,0.040
-8.390E-06,0.088
-8.380E-06,0.100
-8.370E-06,0.096
-8.360E-06,0.048
-8.350E-06,-0.004
-8.340E-06,-0.064
-8.330E-06,-0.072
-8.320E-06,-0.060
-8.310E-06,0.004
-8.300E-06,0.036
-8.290E-06,0.040
-8.280E-06,0.028
-8.270E-06,0.012
-8.260E-06,-0.028
-8.250E-06,-0.168
-8.240E-06,-0.128
-8.230E-06,-0.024
-8.220E-06,0.056
-8.210E-06,0.128
-8.200E-06,0.152
-8.190E-06,0.032
-8.180E-06,-0.124
-8.170E-06,-0.168
-8.160E-06,-0.136
-8.150E-06,-0.008
-8.140E-06,0.148
-8.130E-06,0.188
-8.120E-06,0.084
-8.110E-06,-0.040
-8.100E-06,-0.156
-8.090E-06,-0.216
-8.080E-06,-0.076
-8.070E-06,0.068
-8.060E-06,0.160
-8.050E-06,0.176
-8.040E-06,0.076
-8.030E-06,-0.088
-8.020E-06,-0.184
-8.010E-06,-0.152
-8.000E-06,-0.020
-7.990E-06,0.124
-7.980E-06,0.160
-7.970E-06,0.092
-7.960E-06,-0.016
-7.950E-06,-0.100
-7.940E-06,-0.104
-7.930E-06,-0.052
-7.920E-06,0.004
-7.910E-06,0.060
-7.900E-06,0.072
-7.890E-06,0.060
-7.880E-06,0.024
-7.870E-06,-0.024
-7.860E-06,-0.060
-7.850E-06,-0.056
-7.840E-06,-0.024
-7.830E-06,0.016
-7.820E-06,0.064
-7.810E-06,0.072
-7.800E-06,0.040
-7.790E-06,-0.004
-7.780E-06,-0.060
-7.770E-06,-0.068
-7.760E-06,-0.040
-7.750E-06,0.008
-7.740E-06,0.060
-7.730E-06,0.076
-7.720E-06,0.032
-7.710E-06,-0.004
-7.700E-06,-0.048
-7.690E-06,-0.040
-7.680E-06,-0.020
-7.670E-06,0.020
-7.660E-06,0.048
-7.650E-06,0.048
-7.640E-06,0.020
-7.630E-06,-0.008
-7.620E-06,-0.032
-7.610E-06,-0.032
-7.600E-06,-0.008
-7.590E-06,0.024
-7.580E-06,0.032
-7.570E-06,0.032
-7.560E-06,0.016
-7.550E-06,0.000
-7.540E-06,-0.016
-7.530E-06,-0.024
-7.520E-06,-0.004
-7.510E-06,0.008
-7.500E-06,0.024
-7.490E-06,0.032
-7.480E-06,0.024
-7.470E-06,0.004
-7.460E-06,-0.004
-7.450E-06,-0.004
-7.440E-06,0.004
-7.430E-06,0.020
-7.420E-06,0.048
-7.410E-06,0.076
-7.400E-06,0.092
-7.390E-06,0.084
-7.380E-06,0.072
-7.370E-06,0.052
-7.360E-06,0.008
-7.350E-06,-0.032
-7.340E-06,-0.064
-7.330E-06,-0.044
-7.320E-06,0.012
-7.310E-06,0.072
-7.300E-06,0.100
-7.290E-06,0.092
-7.280E-06,0.036
-7.270E-06,-0.040
-7.260E-06,-0.084
-7.250E-06,-0.076
-7.240E-06,-0.040
-7.230E-06,-0.024
-7.220E-06,-0.016
-7.210E-06,-0.060
-7.200E-06,-0.072
-7.190E-06,-0.004
-7.180E-06,0.056
-7.170E-06,0.060
-7.160E-06,0.000
-7.150E-06,-0.028
-7.140E-06,-0.032
-7.130E-06,-0.036
-7.120E-06,0.012
-7.110E-06,0.052
-7.100E-06,0.036
-7.090E-06,-0.012
-7.080E-06,-0.012
-7.070E-06,-0.008
-7.060E-06,-0.004
-7.050E-06,0.028
-7.040E-06,0.036
-7.030E-06,0.024
-7.020E-06,0.032
-7.010E-06,0.040
-7.000E-06,0.008
-6.990E-06,-0.008
-6.980E-06,0.024
-6.970E-06,0.028
-6.960E-06,0.044
-6.950E-06,0.032
-6.940E-06,0.004
-6.930E-06,-0.012
-6.920E-06,-0.052
-6.910E-06,-0.064
-6.900E-06,-0.088
-6.890E-06,-0.032
-6.880E-06,0.072
-6.870E-06,0.140
-6.860E-06,0.092
-6.850E-06,-0.060
-6.840E-06,-0.140
-6.830E-06,-0.140
-6.820E-06,-0.032
-6.810E-06,0.080
-6.800E-06,0.156
-6.790E-06,0.092
-6.780E-06,-0.064
-6.770E-06,-0.140
-6.760E-06,-0.108
-6.750E-06,-0.008
-6.740E-06,0.064
-6.730E-06,0.128
-6.720E-06,0.108
-6.710E-06,0.016
-6.700E-06,-0.052
-6.690E-06,-0.052
-6.680E-06,-0.020
-6.670E-06,0.028
-6.660E-06,0.068
-6.650E-06,0.036
-6.640E-06,0.000
-6.630E-06,-0.036
-6.620E-06,-0.076
-6.610E-06,-0.040
-6.600E-06,0.012
-6.590E-06,0.020
-6.580E-06,0.008
-6.570E-06,0.008
-6.560E-06,0.008
-6.550E-06,0.020
-6.540E-06,0.068
-6.530E-06,0.088
-6.520E-06,0.032
-6.510E-06,-0.056
-6.500E-06,-0.132
-6.490E-06,-0.136
-6.480E-06,-0.056
-6.470E-06,0.072
-6.460E-06,0.128
-6.450E-06,0.108
-6.440E-06,0.032
-6.430E-06,-0.040
-6.420E-06,-0.068
-6.410E-06,-0.024
-6.400E-06,0.024
-6.390E-06,0.064
-6.380E-06,0.036
-6.370E-06,-0.008
-6.360E-06,-0.032
-6.350E-06,-0.016
-6.340E-06,-0.004
-6.330E-06,0.020
-6.320E-06,0.028
-6.310E-06,0.012
-6.300E-06,0.000
-6.290E-06,0.016
-6.280E-06,0.036
-6.270E-06,0.012
-6.260E-06,-0.040
-6.250E-06,-0.076
-6.240E-06,-0.076
-6.230E-06,-0.040
-6.220E-06,0.032
-6.210E-06,0.092
-6.200E-06,0.100
-6.190E-06,0.048
-6.180E-06,-0.008
-6.170E-06,-0.056
-6.160E-06,-0.036
-6.150E-06,0.016
-6.140E-06,0.060
-6.130E-06,0.064
-6.120E-06,0.024
-6.110E-06,-0.072
-6.100E-06,-0.180
-6.090E-06,-0.192
-6.080E-06,-0.052
-6.070E-06,0.120
-6.060E-06,0.192
-6.050E-06,0.140
-6.040E-06,-0.004
-6.030E-06,-0.124
-6.020E-06,-0.152
-6.010E-06,-0.068
-6.000E-06,0.028
-5.990E-06,0.100
-5.980E-06,0.112
-5.970E-06,0.044
-5.960E-06,-0.020
-5.950E-06,-0.056
-5.940E-06,-0.052
-5.930E-06,-0.052
-5.920E-06,-0.020
-5.910E-06,0.008
-5.900E-06,0.032
-5.890E-06,0.032
-5.880E-06,0.044
-5.870E-06,0.028
-5.860E-06,-0.032
-5.850E-06,-0.064
-5.840E-06,-0.052
-5.830E-06,-0.004
-5.820E-06,0.036
-5.810E-06,0.068
-5.800E-06,0.056
-5.790E-06,0.008
-5.780E-06,-0.040
-5.770E-06,-0.056
-5.760E-06,-0.036
-5.750E-06,-0.004
-5.740E-06,0.024
-5.730E-06,0.052
-5.720E-06,0.048
-5.710E-06,0.020
-5.700E-06,-0.004
-5.690E-06,-0.028
-5.680E-06,-0.028
-5.670E-06,-0.012
-5.660E-06,0.016
-5.650E-06,0.036
-5.640E-06,0.036
-5.630E-06,0.024
-5.620E-06,0.004
-5.610E-06,-0.012
-5.600E-06,-0.020
-5.590E-06,-0.008
-5.580E-06,0.008
-5.570E-06,0.020
-5.560E-06,0.028
-5.550E-06,0.024
-5.540E-06,0.012
-5.530E-06,-0.004
-5.520E-06,-0.012
-5.510E-06,-0.004
-5.500E-06,-0.004
-5.490E-06,0.012
-5.480E-06,0.020
-5.470E-06,0.024
-5.460E-06,0.024
-5.450E-06,0.004
-5.440E-06,0.000
-5.430E-06,0.000
-5.420E-06,0.012
-5.410E-06,0.036
-5.400E-06,0.076
-5.390E-06,0.128
-5.380E-06,0.140
-5.370E-06,0.092
-5.360E-06,-0.008
-5.350E-06,-0.104
-5.340E-06,-0.156
-5.330E-06,-0.120
-5.320E-06,0.012
-5.310E-06,0.192
-5.300E-06,0.216
-5.290E-06,0.140
-5.280E-06,-0.028
-5.270E-06,-0.224
-5.260E-06,-0.268
-5.250E-06,-0.136
-5.240E-06,0.084
-5.230E-06,0.240
-5.220E-06,0.224
-5.210E-06,0.076
-5.200E-06,-0.112
-5.190E-06,-0.188
-5.180E-06,-0.132
-5.170E-06,0.020
-5.160E-06,0.152
-5.150E-06,0.196
-5.140E-06,0.144
-5.130E-06,0.032
-5.120E-06,-0.048
-5.110E-06,-0.076
-5.100E-06,-0.040
-5.090E-06,0.004
-5.080E-06,0.028
-5.070E-06,0.052
-5.060E-06,0.012
-5.050E-06,-0.140
-5.040E-06,-0.152
-5.030E-06,-0.184
-5.020E-06,-0.168
-5.010E-06,0.060
-5.000E-06,0.252
-4.990E-06,0.220
-4.980E-06,0.008
-4.970E-06,-0.152
-4.960E-06,-0.204
-4.950E-06,-0.136
-4.940E-06,0.028
-4.930E-06,0.156
-4.920E-06,0.176
-4.910E-06,0.100
-4.900E-06,0.012
-4.890E-06,-0.100
-4.880E-06,-0.176
-4.870E-06,-0.208
-4.860E-06,-0.088
-4.850E-06,0.124
-4.840E-06,0.224
-4.830E-06,0.156
-4.820E-06,-0.008
-4.810E-06,-0.136
-4.800E-06,-0.152
-4.790E-06,-0.088
-4.780E-06,0.012
-4.770E-06,0.120
-4.760E-06,0.160
-4.750E-06,0.108
-4.740E-06,0.012
-4.730E-06,-0.096
-4.720E-06,-0.136
-4.710E-06,-0.104
-4.700E-06,-0.004
-4.690E-06,0.092
-4.680E-06,0.112
-4.670E-06,0.064
-4.660E-06,0.008
-4.650E-06,-0.048
-4.640E-06,-0.072
-4.630E-06,-0.064
-4.620E-06,-0.004
-4.610E-06,0.056
-4.600E-06,0.076
-4.590E-06,0.056
-4.580E-06,0.012
-4.570E-06,-0.040
-4.560E-06,-0.060
-4.550E-06,-0.040
-4.540E-06,0.004
-4.530E-06,0.044
-4.520E-06,0.056
-4.510E-06,0.040
-4.500E-06,0.004
-4.490E-06,-0.032
-4.480E-06,-0.036
-4.470E-06,-0.016
-4.460E-06,0.016
-4.450E-06,0.052
-4.440E-06,0.060
-4.430E-06,0.036
-4.420E-06,-0.004
-4.410E-06,-0.020
-4.400E-06,-0.024
-4.390E-06,-0.004
-4.380E-06,0.040
-4.370E-06,0.072
-4.360E-06,0.072
-4.350E-06,0.064
-4.340E-06,0.048
-4.330E-06,0.036
-4.320E-06,0.056
-4.310E-06,0.096
-4.300E-06,0.132
-4.290E-06,0.156
-4.280E-06,0.156
-4.270E-06,0.112
-4.260E-06,0.008
-4.250E-06,-0.124
-4.240E-06,-0.184
-4.230E-06,-0.140
-4.220E-06,-0.012
-4.210E-06,0.084
-4.200E-06,0.080
-4.190E-06,-0.016
-4.180E-06,-0.100
-4.170E-06,-0.176
-4.160E-06,-0.144
-4.150E-06,-0.008
-4.140E-06,0.108
-4.130E-06,0.104
-4.120E-06,0.016
-4.110E-06,-0.064
-4.100E-06,-0.088
-4.090E-06,-0.064
-4.080E-06,0.004
-4.070E-06,0.052
-4.060E-06,0.036
-4.050E-06,0.000
-4.040E-06,-0.024
-4.030E-06,-0.024
-4.020E-06,0.000
-4.010E-06,0.044
-4.000E-06,0.056
-3.990E-06,0.060
-3.980E-06,0.044
-3.970E-06,0.044
-3.960E-06,0.048
-3.950E-06,-0.040
-3.940E-06,-0.160
-3.930E-06,-0.172
-3.920E-06,-0.104
-3.910E-06,0.012
-3.900E-06,0.132
-3.890E-06,0.160
-3.880E-06,0.100
-3.870E-06,-0.012
-3.860E-06,-0.120
-3.850E-06,-0.136
-3.840E-06,-0.052
-3.830E-06,0.040
-3.820E-06,0.128
-3.810E-06,0.136
-3.800E-06,0.092
-3.790E-06,0.040
-3.780E-06,-0.004
-3.770E-06,-0.004
-3.760E-06,0.028
-3.750E-06,0.036
-3.740E-06,-0.040
-3.730E-06,-0.108
-3.720E-06,-0.072
-3.710E-06,0.000
-3.700E-06,0.092
-3.690E-06,0.156
-3.680E-06,0.132
-3.670E-06,0.032
-3.660E-06,-0.064
-3.650E-06,-0.108
-3.640E-06,-0.088
-3.630E-06,-0.036
-3.620E-06,0.008
-3.610E-06,0.036
-3.600E-06,0.032
-3.590E-06,0.040
-3.580E-06,0.028
-3.570E-06,-0.020
-3.560E-06,-0.072
-3.550E-06,-0.100
-3.540E-06,-0.076
-3.530E-06,0.016
-3.520E-06,0.124
-3.510E-06,0.148
-3.500E-06,0.096
-3.490E-06,0.016
-3.480E-06,-0.040
-3.470E-06,-0.056
-3.460E-06,-0.004
-3.450E-06,0.092
-3.440E-06,0.160
-3.430E-06,0.160
-3.420E-06,0.120
-3.410E-06,0.052
-3.400E-06,0.000
-3.390E-06,-0.040
-3.380E-06,-0.008
-3.370E-06,-0.176
-3.360E-06,-0.108
-3.350E-06,-0.056
-3.340E-06,-0.076
-3.330E-06,0.000
-3.320E-06,0.060
-3.310E-06,0.104
-3.300E-06,-0.004
-3.290E-06,-0.108
-3.280E-06,-0.200
-3.270E-06,-0.164
-3.260E-06,-0.020
-3.250E-06,0.116
-3.240E-06,0.192
-3.230E-06,0.112
-3.220E-06,-0.040
-3.210E-06,-0.132
-3.200E-06,-0.132
-3.190E-06,-0.076
-3.180E-06,0.048
-3.170E-06,0.152
-3.160E-06,0.192
-3.150E-06,0.132
-3.140E-06,0.008
-3.130E-06,-0.076
-3.120E-06,-0.140
-3.110E-06,-0.120
-3.100E-06,-0.024
-3.090E-06,0.072
-3.080E-06,0.120
-3.070E-06,0.100
-3.060E-06,0.036
-3.050E-06,-0.024
-3.040E-06,-0.084
-3.030E-06,-0.132
-3.020E-06,-0.092
-3.010E-06,-0.012
-3.000E-06,0.084
-2.990E-06,0.124
-2.980E-06,0.072
-2.970E-06,-0.016
-2.960E-06,-0.040
-2.950E-06,-0.056
-2.940E-06,-0.020
-2.930E-06,0.064
-2.920E-06,0.136
-2.910E-06,0.148
-2.900E-06,0.108
-2.890E-06,0.060
-2.880E-06,0.000
-2.870E-06,-0.056
-2.860E-06,-0.096
-2.850E-06,-0.060
-2.840E-06,0.016
-2.830E-06,0.072
-2.820E-06,0.052
-2.810E-06,0.056
-2.800E-06,-0.064
-2.790E-06,-0.164
-2.780E-06,-0.140
-2.770E-06,-0.044
-2.760E-06,0.060
-2.750E-06,0.192
-2.740E-06,0.224
-2.730E-06,0.120
-2.720E-06,-0.044
-2.710E-06,-0.196
-2.700E-06,-0.252
-2.690E-06,-0.168
-2.680E-06,-0.008
-2.670E-06,0.064
-2.660E-06,0.108
-2.650E-06,0.116
-2.640E-06,0.016
-2.630E-06,-0.060
-2.620E-06,-0.088
-2.610E-06,-0.088
-2.600E-06,-0.044
-2.590E-06,0.036
-2.580E-06,0.076
-2.570E-06,0.100
-2.560E-06,0.052
-2.550E-06,0.004
-2.540E-06,-0.056
-2.530E-06,-0.092
-2.520E-06,-0.036
-2.510E-06,0.072
-2.500E-06,0.136
-2.490E-06,0.072
-2.480E-06,-0.020
-2.470E-06,-0.072
-2.460E-06,-0.068
-2.450E-06,-0.044
-2.440E-06,-0.028
-2.430E-06,-0.024
-2.420E-06,0.012
-2.410E-06,0.044
-2.400E-06,0.040
-2.390E-06,0.028
-2.380E-06,0.004
-2.370E-06,-0.032
-2.360E-06,-0.056
-2.350E-06,-0.020
-2.340E-06,0.028
-2.330E-06,0.096
-2.320E-06,0.124
-2.310E-06,0.104
-2.300E-06,0.056
-2.290E-06,0.004
-2.280E-06,-0.016
-2.270E-06,-0.076
-2.260E-06,-0.088
-2.250E-06,-0.056
-2.240E-06,-0.016
-2.230E-06,0.048
-2.220E-06,0.140
-2.210E-06,0.144
-2.200E-06,0.024
-2.190E-06,-0.068
-2.180E-06,-0.116
-2.170E-06,-0.104
-2.160E-06,-0.024
-2.150E-06,0.088
-2.140E-06,0.140
-2.130E-06,0.084
-2.120E-06,0.000
-2.110E-06,-0.040
-2.100E-06,-0.068
-2.090E-06,-0.076
-2.080E-06,-0.008
-2.070E-06,0.056
-2.060E-06,0.072
-2.050E-06,0.056
-2.040E-06,0.004
-2.030E-06,-0.052
-2.020E-06,-0.116
-2.010E-06,-0.108
-2.000E-06,-0.004
-1.990E-06,0.064
-1.980E-06,0.076
-1.970E-06,0.028
-1.960E-06,0.008
-1.950E-06,0.024
-1.940E-06,-0.012
-1.930E-06,-0.020
-1.920E-06,-0.008
-1.910E-06,-0.020
-1.900E-06,-0.020
-1.890E-06,0.008
-1.880E-06,0.008
-1.870E-06,-0.004
-1.860E-06,0.028
-1.850E-06,0.048
-1.840E-06,0.012
-1.830E-06,-0.024
-1.820E-06,-0.036
-1.810E-06,-0.008
-1.800E-06,0.028
-1.790E-06,0.076
-1.780E-06,0.120
-1.770E-06,0.040
-1.760E-06,-0.028
-1.750E-06,-0.068
-1.740E-06,-0.092
-1.730E-06,-0.036
-1.720E-06,0.080
-1.710E-06,0.148
-1.700E-06,0.160
-1.690E-06,0.100
-1.680E-06,0.004
-1.670E-06,-0.060
-1.660E-06,-0.064
-1.650E-06,0.008
-1.640E-06,0.080
-1.630E-06,0.140
-1.620E-06,0.128
-1.610E-06,0.076
-1.600E-06,0.024
-1.590E-06,-0.024
-1.580E-06,-0.048
-1.570E-06,-0.020
-1.560E-06,0.040
-1.550E-06,0.100
-1.540E-06,0.108
-1.530E-06,-0.004
-1.520E-06,-0.132
-1.510E-06,-0.156
-1.500E-06,-0.156
-1.490E-06,-0.028
-1.480E-06,0.144
-1.470E-06,0.188
-1.460E-06,0.172
-1.450E-06,0.020
-1.440E-06,-0.136
-1.430E-06,-0.208
-1.420E-06,-0.152
-1.410E-06,-0.004
-1.400E-06,0.044
-1.390E-06,-0.020
-1.380E-06,-0.056
-1.370E-06,-0.144
-1.360E-06,-0.140
-1.350E-06,-0.056
-1.340E-06,0.004
-1.330E-06,0.064
-1.320E-06,0.084
-1.310E-06,0.076
-1.300E-06,0.052
-1.290E-06,0.020
-1.280E-06,-0.032
-1.270E-06,-0.072
-1.260E-06,-0.072
-1.250E-06,-0.024
-1.240E-06,0.064
-1.230E-06,0.124
-1.220E-06,0.108
-1.210E-06,0.056
-1.200E-06,-0.004
-1.190E-06,-0.028
-1.180E-06,0.004
-1.170E-06,0.064
-1.160E-06,0.036
-1.150E-06,0.004
-1.140E-06,-0.120
-1.130E-06,-0.208
-1.120E-06,-0.180
-1.110E-06,-0.032
-1.100E-06,0.088
-1.090E-06,0.112
-1.080E-06,0.100
-1.070E-06,0.044
-1.060E-06,-0.016
-1.050E-06,-0.084
-1.040E-06,-0.080
-1.030E-06,-0.056
-1.020E-06,0.000
-1.010E-06,0.064
-1.000E-06,0.108
-9.900E-07,0.100
-9.800E-07,0.040
-9.700E-07,0.008
-9.600E-07,0.000
-9.500E-07,0.040
-9.400E-07,0.080
-9.300E-07,0.132
-9.200E-07,0.144
-9.100E-07,0.088
-9.000E-07,0.004
-8.900E-07,-0.084
-8.800E-07,-0.204
-8.700E-07,-0.232
-8.600E-07,-0.192
-8.500E-07,-0.068
-8.400E-07,0.104
-8.300E-07,0.188
-8.200E-07,0.128
-8.100E-07,0.024
-8.000E-07,-0.072
-7.900E-07,-0.108
-7.800E-07,-0.052
-7.700E-07,0.080
-7.600E-07,0.192
-7.500E-07,0.220
-7.400E-07,0.136
-7.300E-07,0.000
-7.200E-07,-0.132
-7.100E-07,-0.172
-7.000E-07,-0.072
-6.900E-07,0.072
-6.800E-07,0.192
-6.700E-07,0.228
-6.600E-07,0.148
-6.500E-07,-0.048
-6.400E-07,-0.204
-6.300E-07,-0.272
-6.200E-07,-0.192
-6.100E-07,-0.024
-6.000E-07,0.140
-5.900E-07,0.220
-5.800E-07,0.176
-5.700E-07,0.032
-5.600E-07,-0.140
-5.500E-07,-0.236
-5.400E-07,-0.208
-5.300E-07,-0.064
-5.200E-07,0.120
-5.100E-07,0.224
-5.000E-07,0.200
-4.900E-07,0.068
-4.800E-07,-0.104
-4.700E-07,-0.192
-4.600E-07,-0.168
-4.500E-07,-0.048
-4.400E-07,0.108
-4.300E-07,0.228
-4.200E-07,0.224
-4.100E-07,0.112
-4.000E-07,-0.020
-3.900E-07,-0.104
-3.800E-07,-0.104
-3.700E-07,-0.024
-3.600E-07,0.080
-3.500E-07,0.160
-3.400E-07,0.188
-3.300E-07,0.136
-3.200E-07,0.032
-3.100E-07,-0.044
-3.000E-07,-0.084
-2.900E-07,-0.040
-2.800E-07,0.040
-2.700E-07,0.136
-2.600E-07,0.192
-2.500E-07,0.168
-2.400E-07,0.104
-2.300E-07,0.028
-2.200E-07,-0.012
-2.100E-07,0.024
-2.000E-07,0.092
-1.900E-07,0.168
-1.800E-07,0.228
-1.700E-07,0.224
-1.600E-07,0.168
-1.500E-07,0.116
-1.400E-07,0.044
-1.300E-07,0.012
-1.200E-07,0.056
-1.100E-07,0.096
-1.000E-07,0.096
-9.000E-08,0.096
-8.000E-08,0.092
-7.000E-08,0.112
-6.000E-08,0.108
-5.000E-08,-0.512
-4.000E-08,-0.512
-3.000E-08,-0.512
-2.000E-08,-0.508
-1.000E-08,0.344
0.000E+00,0.540
1.000E-08,0.536
2.000E-08,0.308
3.000E-08,-0.304
4.000E-08,-0.508
5.000E-08,-0.512
6.000E-08,-0.512
7.000E-08,0.288
8.000E-08,0.540
9.000E-08,0.392
1.000E-07,0.520
1.100E-07,0.360
1.200E-07,0.036
1.300E-07,-0.512
1.400E-07,-0.512
1.500E-07,-0.400
1.600E-07,0.036
1.700E-07,0.388
1.800E-07,0.540
1.900E-07,0.500
2.000E-07,0.032
2.100E-07,-0.232
2.200E-07,-0.312
2.300E-07,-0.260
2.400E-07,-0.208
2.500E-07,0.056
2.600E-07,0.260
2.700E-07,0.352
2.800E-07,0.280
2.900E-07,0.108
3.000E-07,-0.136
3.100E-07,-0.360
3.200E-07,-0.320
3.300E-07,-0.104
3.400E-07,0.184
3.500E-07,0.372
3.600E-07,0.452
3.700E-07,0.312
3.800E-07,0.048
3.900E-07,-0.204
4.000E-07,-0.276
4.100E-07,-0.220
4.200E-07,0.000
4.300E-07,0.304
4.400E-07,0.508
4.500E-07,0.512
4.600E-07,0.284
4.700E-07,0.028
4.800E-07,-0.172
4.900E-07,-0.216
5.000E-07,-0.132
5.100E-07,0.088
5.200E-07,0.264
5.300E-07,0.320
5.400E-07,0.276
5.500E-07,0.144
5.600E-07,-0.044
5.700E-07,-0.164
5.800E-07,-0.140
5.900E-07,0.028
6.000E-07,0.228
6.100E-07,0.352
6.200E-07,0.376
6.300E-07,0.232
6.400E-07,0.004
6.500E-07,-0.164
6.600E-07,-0.188
6.700E-07,-0.076
6.800E-07,0.116
6.900E-07,0.300
7.000E-07,0.340
7.100E-07,0.264
7.200E-07,0.120
7.300E-07,-0.004
7.400E-07,-0.076
7.500E-07,-0.052
7.600E-07,0.092
7.700E-07,0.260
7.800E-07,0.316
7.900E-07,0.236
8.000E-07,0.100
8.100E-07,-0.012
8.200E-07,-0.012
8.300E-07,0.120
8.400E-07,0.224
8.500E-07,0.140
8.600E-07,-0.144
8.700E-07,-0.512
8.800E-07,-0.512
8.900E-07,-0.512
9.000E-07,-0.324
9.100E-07,0.276
9.200E-07,0.540
9.300E-07,0.540
9.400E-07,0.444
9.500E-07,-0.020
9.600E-07,-0.428
9.700E-07,-0.512
9.800E-07,-0.512
9.900E-07,-0.456
1.000E-06,-0.272
1.010E-06,-0.028
1.020E-06,0.072
1.030E-06,0.036
1.040E-06,-0.140
1.050E-06,-0.296
1.060E-06,-0.368
1.070E-06,-0.232
1.080E-06,0.124
1.090E-06,0.380
1.100E-06,0.480
1.110E-06,0.356
1.120E-06,0.164
1.130E-06,0.008
1.140E-06,0.004
1.150E-06,0.132
1.160E-06,0.264
1.170E-06,0.352
1.180E-06,0.336
1.190E-06,0.232
1.200E-06,0.036
1.210E-06,-0.152
1.220E-06,-0.252
1.230E-06,-0.224
1.240E-06,-0.132
1.250E-06,-0.044
1.260E-06,-0.036
1.270E-06,-0.104
1.280E-06,-0.232
1.290E-06,-0.340
1.300E-06,-0.308
1.310E-06,-0.228
1.320E-06,-0.016
1.330E-06,0.184
1.340E-06,0.188
1.350E-06,0.096
1.360E-06,0.000
1.370E-06,-0.068
1.380E-06,-0.016
1.390E-06,0.112
1.400E-06,0.272
1.410E-06,0.368
1.420E-06,0.392
1.430E-06,0.344
1.440E-06,0.220
1.450E-06,0.096
1.460E-06,0.064
1.470E-06,0.136
1.480E-06,0.240
1.490E-06,0.344
1.500E-06,0.396
1.510E-06,0.352
1.520E-06,0.264
1.530E-06,0.180
1.540E-06,0.152
1.550E-06,0.184
1.560E-06,0.240
1.570E-06,0.312
1.580E-06,0.348
1.590E-06,0.324
1.600E-06,0.264
1.610E-06,0.188
1.620E-06,0.148
1.630E-06,0.152
1.640E-06,0.200
1.650E-06,0.268
1.660E-06,0.312
1.670E-06,0.320
1.680E-06,0.292
1.690E-06,0.240
1.700E-06,0.188
1.710E-06,0.176
1.720E-06,0.196
1.730E-06,0.244
1.740E-06,0.284
1.750E-06,0.296
1.760E-06,0.280
1.770E-06,0.232
1.780E-06,0.188
1.790E-06,0.160
1.800E-06,0.152
1.810E-06,0.168
1.820E-06,0.188
1.830E-06,0.200
1.840E-06,0.192
1.850E-06,0.168
1.860E-06,0.136
1.870E-06,0.108
1.880E-06,0.096
1.890E-06,0.120
1.900E-06,0.160
1.910E-06,0.208
1.920E-06,0.252
1.930E-06,0.256
1.940E-06,0.232
1.950E-06,0.192
1.960E-06,0.156
1.970E-06,0.128
1.980E-06,0.120
1.990E-06,0.136
2.000E-06,0.172
2.010E-06,0.220
2.020E-06,0.264
2.030E-06,0.276
2.040E-06,0.256
2.050E-06,0.208
2.060E-06,0.160
2.070E-06,0.156
2.080E-06,0.188
2.090E-06,0.256
2.100E-06,0.300
2.110E-06,0.320
2.120E-06,0.308
2.130E-06,0.260
2.140E-06,0.200
2.150E-06,0.172
2.160E-06,0.176
2.170E-06,0.228
2.180E-06,0.284
2.190E-06,0.324
2.200E-06,0.320
2.210E-06,0.284
2.220E-06,0.232
2.230E-06,0.192
2.240E-06,0.176
2.250E-06,0.208
2.260E-06,0.252
2.270E-06,0.284
2.280E-06,0.296
2.290E-06,0.280
2.300E-06,0.236
2.310E-06,0.204
2.320E-06,0.188
2.330E-06,0.200
2.340E-06,0.232
2.350E-06,0.272
2.360E-06,0.284
2.370E-06,0.284
2.380E-06,0.256
2.390E-06,0.228
2.400E-06,0.196
2.410E-06,0.200
2.420E-06,0.220
2.430E-06,0.244
2.440E-06,0.268
2.450E-06,0.264
2.460E-06,0.248
2.470E-06,0.224
2.480E-06,0.208
2.490E-06,0.204
2.500E-06,0.208
2.510E-06,0.228
2.520E-06,0.252
2.530E-06,0.256
2.540E-06,0.252
2.550E-06,0.232
2.560E-06,0.220
2.570E-06,0.208
2.580E-06,0.212
2.590E-06,0.228
2.600E-06,0.236
2.610E-06,0.248
2.620E-06,0.244
2.630E-06,0.232
2.640E-06,0.224
2.650E-06,0.208
2.660E-06,0.212
2.670E-06,0.220
2.680E-06,0.232
2.690E-06,0.236
2.700E-06,0.240
2.710E-06,0.232
2.720E-06,0.224
2.730E-06,0.212
2.740E-06,0.212
2.750E-06,0.212
2.760E-06,0.224
2.770E-06,0.224
2.780E-06,0.228
2.790E-06,0.220
2.800E-06,0.216
2.810E-06,0.208
2.820E-06,0.204
2.830E-06,0.208
2.840E-06,0.208
2.850E-06,0.216
2.860E-06,0.220
2.870E-06,0.216
2.880E-06,0.208
2.890E-06,0.204
2.900E-06,0.204
2.910E-06,0.200
2.920E-06,0.204
2.930E-06,0.208
2.940E-06,0.212
2.950E-06,0.212
2.960E-06,0.208
2.970E-06,0.212
2.980E-06,0.208
2.990E-06,0.208
3.000E-06,0.212
3.010E-06,0.216
3.020E-06,0.216
3.030E-06,0.216
3.040E-06,0.212
3.050E-06,0.208
3.060E-06,0.208
3.070E-06,0.208
3.080E-06,0.212
3.090E-06,0.212
3.100E-06,0.208
3.110E-06,0.204
3.120E-06,0.208
3.130E-06,0.204
3.140E-06,0.204
3.150E-06,0.200
3.160E-06,0.208
3.170E-06,0.204
3.180E-06,0.208
3.190E-06,0.208
3.200E-06,0.208
3.210E-06,0.204
3.220E-06,0.204
3.230E-06,0.200
3.240E-06,0.200
3.250E-06,0.204
