mediciones/5-15/-0.01/WaveData47645.csv

#timebase=2000000(ps)
,#voltbase=100000(mv/100)
#size=4000
-8.400E-06,0.000
-8.390E-06,0.004
-8.380E-06,0.004
-8.370E-06,0.004
-8.360E-06,0.004
-8.350E-06,0.004
-8.340E-06,0.004
-8.330E-06,0.008
-8.320E-06,-0.004
-8.310E-06,0.000
-8.300E-06,0.004
-8.290E-06,0.004
-8.280E-06,0.000
-8.270E-06,0.000
-8.260E-06,0.004
-8.250E-06,0.008
-8.240E-06,0.008
-8.230E-06,0.008
-8.220E-06,0.000
-8.210E-06,0.000
-8.200E-06,0.000
-8.190E-06,0.000
-8.180E-06,0.004
-8.170E-06,0.008
-8.160E-06,0.012
-8.150E-06,0.012
-8.140E-06,0.004
-8.130E-06,0.004
-8.120E-06,0.004
-8.110E-06,0.000
-8.100E-06,0.000
-8.090E-06,0.008
-8.080E-06,0.012
-8.070E-06,0.008
-8.060E-06,-0.004
-8.050E-06,-0.008
-8.040E-06,-0.004
-8.030E-06,0.004
-8.020E-06,0.008
-8.010E-06,0.020
-8.000E-06,0.012
-7.990E-06,0.000
-7.980E-06,0.000
-7.970E-06,-0.004
-7.960E-06,-0.012
-7.950E-06,-0.004
-7.940E-06,0.008
-7.930E-06,0.024
-7.920E-06,0.028
-7.910E-06,0.012
-7.900E-06,-0.004
-7.890E-06,-0.020
-7.880E-06,-0.020
-7.870E-06,-0.004
-7.860E-06,0.012
-7.850E-06,0.024
-7.840E-06,0.024
-7.830E-06,0.012
-7.820E-06,0.004
-7.810E-06,-0.024
-7.800E-06,-0.028
-7.790E-06,-0.032
-7.780E-06,-0.004
-7.770E-06,0.016
-7.760E-06,0.060
-7.750E-06,0.044
-7.740E-06,0.008
-7.730E-06,-0.012
-7.720E-06,-0.056
-7.710E-06,-0.044
-7.700E-06,-0.004
-7.690E-06,0.040
-7.680E-06,0.052
-7.670E-06,0.052
-7.660E-06,0.012
-7.650E-06,-0.044
-7.640E-06,-0.060
-7.630E-06,-0.044
-7.620E-06,0.000
-7.610E-06,0.048
-7.600E-06,0.080
-7.590E-06,0.044
-7.580E-06,-0.012
-7.570E-06,-0.132
-7.560E-06,-0.104
-7.550E-06,0.008
-7.540E-06,0.100
-7.530E-06,0.100
-7.520E-06,0.072
-7.510E-06,0.004
-7.500E-06,-0.072
-7.490E-06,-0.072
-7.480E-06,-0.044
-7.470E-06,0.004
-7.460E-06,0.040
-7.450E-06,0.068
-7.440E-06,0.024
-7.430E-06,0.020
-7.420E-06,-0.012
-7.410E-06,-0.044
-7.400E-06,-0.036
-7.390E-06,-0.016
-7.380E-06,0.004
-7.370E-06,0.024
-7.360E-06,0.060
-7.350E-06,0.044
-7.340E-06,0.016
-7.330E-06,-0.020
-7.320E-06,-0.048
-7.310E-06,-0.052
-7.300E-06,-0.016
-7.290E-06,0.032
-7.280E-06,0.064
-7.270E-06,0.064
-7.260E-06,0.016
-7.250E-06,-0.020
-7.240E-06,-0.040
-7.230E-06,-0.040
-7.220E-06,-0.012
-7.210E-06,0.028
-7.200E-06,0.040
-7.190E-06,0.040
-7.180E-06,0.020
-7.170E-06,-0.008
-7.160E-06,-0.024
-7.150E-06,-0.024
-7.140E-06,-0.008
-7.130E-06,0.008
-7.120E-06,0.016
-7.110E-06,0.020
-7.100E-06,0.020
-7.090E-06,0.008
-7.080E-06,0.004
-7.070E-06,-0.004
-7.060E-06,-0.012
-7.050E-06,-0.008
-7.040E-06,0.000
-7.030E-06,0.008
-7.020E-06,0.024
-7.010E-06,0.016
-7.000E-06,0.004
-6.990E-06,-0.008
-6.980E-06,-0.024
-6.970E-06,-0.016
-6.960E-06,0.000
-6.950E-06,0.016
-6.940E-06,0.024
-6.930E-06,0.012
-6.920E-06,0.000
-6.910E-06,-0.004
-6.900E-06,-0.008
-6.890E-06,0.000
-6.880E-06,0.012
-6.870E-06,0.016
-6.860E-06,0.012
-6.850E-06,0.004
-6.840E-06,-0.008
-6.830E-06,-0.008
-6.820E-06,0.000
-6.810E-06,0.008
-6.800E-06,0.008
-6.790E-06,0.008
-6.780E-06,-0.004
-6.770E-06,0.000
-6.760E-06,0.000
-6.750E-06,0.004
-6.740E-06,0.004
-6.730E-06,0.000
-6.720E-06,0.004
-6.710E-06,0.000
-6.700E-06,0.000
-6.690E-06,0.004
-6.680E-06,0.008
-6.670E-06,0.000
-6.660E-06,0.004
-6.650E-06,0.004
-6.640E-06,0.000
-6.630E-06,-0.004
-6.620E-06,-0.004
-6.610E-06,0.004
-6.600E-06,0.000
-6.590E-06,0.004
-6.580E-06,-0.004
-6.570E-06,0.004
-6.560E-06,0.000
-6.550E-06,0.004
-6.540E-06,0.008
-6.530E-06,0.004
-6.520E-06,0.000
-6.510E-06,0.000
-6.500E-06,0.000
-6.490E-06,0.004
-6.480E-06,0.012
-6.470E-06,0.016
-6.460E-06,0.012
-6.450E-06,0.008
-6.440E-06,0.004
-6.430E-06,-0.004
-6.420E-06,0.004
-6.410E-06,0.008
-6.400E-06,0.012
-6.390E-06,0.008
-6.380E-06,0.008
-6.370E-06,0.004
-6.360E-06,0.004
-6.350E-06,-0.004
-6.340E-06,0.004
-6.330E-06,0.004
-6.320E-06,0.004
-6.310E-06,0.000
-6.300E-06,0.004
-6.290E-06,0.008
-6.280E-06,0.008
-6.270E-06,-0.004
-6.260E-06,-0.004
-6.250E-06,0.000
-6.240E-06,0.004
-6.230E-06,0.008
-6.220E-06,0.012
-6.210E-06,0.008
-6.200E-06,0.000
-6.190E-06,-0.008
-6.180E-06,-0.008
-6.170E-06,0.000
-6.160E-06,0.020
-6.150E-06,0.024
-6.140E-06,0.008
-6.130E-06,0.000
-6.120E-06,-0.004
-6.110E-06,-0.008
-6.100E-06,0.000
-6.090E-06,0.008
-6.080E-06,0.008
-6.070E-06,0.012
-6.060E-06,0.016
-6.050E-06,0.008
-6.040E-06,-0.004
-6.030E-06,-0.008
-6.020E-06,-0.012
-6.010E-06,-0.008
-6.000E-06,-0.004
-5.990E-06,0.012
-5.980E-06,0.020
-5.970E-06,0.008
-5.960E-06,-0.004
-5.950E-06,-0.012
-5.940E-06,-0.008
-5.930E-06,0.004
-5.920E-06,0.028
-5.910E-06,0.032
-5.900E-06,0.016
-5.890E-06,-0.004
-5.880E-06,-0.028
-5.870E-06,-0.036
-5.860E-06,-0.012
-5.850E-06,0.008
-5.840E-06,0.028
-5.830E-06,0.028
-5.820E-06,0.012
-5.810E-06,-0.008
-5.800E-06,-0.028
-5.790E-06,-0.020
-5.780E-06,0.000
-5.770E-06,0.012
-5.760E-06,0.020
-5.750E-06,0.020
-5.740E-06,0.004
-5.730E-06,-0.004
-5.720E-06,-0.012
-5.710E-06,-0.004
-5.700E-06,-0.004
-5.690E-06,0.004
-5.680E-06,0.008
-5.670E-06,0.008
-5.660E-06,0.012
-5.650E-06,0.008
-5.640E-06,-0.004
-5.630E-06,-0.004
-5.620E-06,-0.012
-5.610E-06,-0.004
-5.600E-06,0.012
-5.590E-06,0.020
-5.580E-06,0.024
-5.570E-06,0.008
-5.560E-06,-0.004
-5.550E-06,-0.008
-5.540E-06,-0.004
-5.530E-06,0.008
-5.520E-06,0.012
-5.510E-06,0.016
-5.500E-06,0.008
-5.490E-06,-0.004
-5.480E-06,-0.004
-5.470E-06,0.000
-5.460E-06,0.004
-5.450E-06,0.008
-5.440E-06,0.008
-5.430E-06,0.004
-5.420E-06,0.008
-5.410E-06,0.008
-5.400E-06,0.004
-5.390E-06,0.004
-5.380E-06,0.004
-5.370E-06,0.004
-5.360E-06,-0.004
-5.350E-06,0.004
-5.340E-06,0.012
-5.330E-06,0.008
-5.320E-06,0.000
-5.310E-06,0.000
-5.300E-06,-0.008
-5.290E-06,0.000
-5.280E-06,-0.004
-5.270E-06,0.000
-5.260E-06,0.008
-5.250E-06,0.016
-5.240E-06,0.008
-5.230E-06,0.004
-5.220E-06,0.004
-5.210E-06,-0.004
-5.200E-06,-0.008
-5.190E-06,-0.004
-5.180E-06,0.004
-5.170E-06,0.008
-5.160E-06,0.012
-5.150E-06,0.012
-5.140E-06,0.000
-5.130E-06,-0.004
-5.120E-06,-0.004
-5.110E-06,-0.004
-5.100E-06,0.004
-5.090E-06,0.008
-5.080E-06,0.012
-5.070E-06,0.012
-5.060E-06,0.004
-5.050E-06,-0.004
-5.040E-06,-0.008
-5.030E-06,-0.008
-5.020E-06,0.000
-5.010E-06,0.008
-5.000E-06,0.012
-4.990E-06,0.012
-4.980E-06,0.008
-4.970E-06,0.004
-4.960E-06,0.000
-4.950E-06,0.000
-4.940E-06,-0.004
-4.930E-06,0.004
-4.920E-06,0.008
-4.910E-06,0.016
-4.900E-06,0.016
-4.890E-06,0.012
-4.880E-06,0.004
-4.870E-06,0.000
-4.860E-06,-0.004
-4.850E-06,-0.004
-4.840E-06,0.000
-4.830E-06,0.008
-4.820E-06,0.020
-4.810E-06,0.020
-4.800E-06,0.016
-4.790E-06,0.008
-4.780E-06,0.000
-4.770E-06,0.000
-4.760E-06,0.008
-4.750E-06,0.012
-4.740E-06,0.012
-4.730E-06,0.008
-4.720E-06,0.008
-4.710E-06,0.012
-4.700E-06,0.008
-4.690E-06,0.012
-4.680E-06,0.004
-4.670E-06,-0.004
-4.660E-06,-0.004
-4.650E-06,-0.004
-4.640E-06,0.004
-4.630E-06,0.016
-4.620E-06,0.032
-4.610E-06,0.028
-4.600E-06,0.012
-4.590E-06,-0.008
-4.580E-06,-0.016
-4.570E-06,-0.012
-4.560E-06,0.016
-4.550E-06,0.048
-4.540E-06,0.056
-4.530E-06,0.032
-4.520E-06,-0.024
-4.510E-06,-0.064
-4.500E-06,-0.076
-4.490E-06,-0.028
-4.480E-06,0.000
-4.470E-06,0.024
-4.460E-06,0.048
-4.450E-06,0.044
-4.440E-06,0.020
-4.430E-06,-0.020
-4.420E-06,-0.044
-4.410E-06,-0.052
-4.400E-06,-0.024
-4.390E-06,0.008
-4.380E-06,0.040
-4.370E-06,0.060
-4.360E-06,0.040
-4.350E-06,-0.008
-4.340E-06,-0.052
-4.330E-06,-0.068
-4.320E-06,-0.040
-4.310E-06,0.012
-4.300E-06,0.064
-4.290E-06,0.072
-4.280E-06,0.036
-4.270E-06,-0.016
-4.260E-06,-0.052
-4.250E-06,-0.056
-4.240E-06,-0.028
-4.230E-06,0.016
-4.220E-06,0.040
-4.210E-06,0.044
-4.200E-06,0.024
-4.190E-06,-0.004
-4.180E-06,-0.024
-4.170E-06,-0.028
-4.160E-06,-0.012
-4.150E-06,0.008
-4.140E-06,0.020
-4.130E-06,0.028
-4.120E-06,0.024
-4.110E-06,0.012
-4.100E-06,-0.008
-4.090E-06,-0.020
-4.080E-06,-0.020
-4.070E-06,-0.004
-4.060E-06,0.020
-4.050E-06,0.036
-4.040E-06,0.040
-4.030E-06,0.024
-4.020E-06,0.000
-4.010E-06,-0.004
-4.000E-06,-0.020
-3.990E-06,-0.004
-3.980E-06,0.012
-3.970E-06,0.032
-3.960E-06,0.032
-3.950E-06,0.024
-3.940E-06,0.012
-3.930E-06,-0.004
-3.920E-06,-0.016
-3.910E-06,-0.012
-3.900E-06,0.012
-3.890E-06,0.028
-3.880E-06,0.036
-3.870E-06,0.028
-3.860E-06,0.004
-3.850E-06,-0.004
-3.840E-06,-0.020
-3.830E-06,-0.008
-3.820E-06,-0.004
-3.810E-06,0.024
-3.800E-06,0.036
-3.790E-06,0.032
-3.780E-06,0.024
-3.770E-06,0.004
-3.760E-06,-0.008
-3.750E-06,-0.004
-3.740E-06,0.004
-3.730E-06,0.004
-3.720E-06,0.012
-3.710E-06,-0.032
-3.700E-06,-0.072
-3.690E-06,-0.096
-3.680E-06,-0.060
-3.670E-06,0.012
-3.660E-06,0.064
-3.650E-06,0.068
-3.640E-06,0.012
-3.630E-06,-0.024
-3.620E-06,-0.048
-3.610E-06,-0.036
-3.600E-06,-0.008
-3.590E-06,0.032
-3.580E-06,0.044
-3.570E-06,0.024
-3.560E-06,-0.008
-3.550E-06,-0.028
-3.540E-06,-0.028
-3.530E-06,0.000
-3.520E-06,0.020
-3.510E-06,0.020
-3.500E-06,0.016
-3.490E-06,0.004
-3.480E-06,-0.004
-3.470E-06,0.000
-3.460E-06,0.000
-3.450E-06,0.000
-3.440E-06,0.004
-3.430E-06,0.012
-3.420E-06,0.012
-3.410E-06,0.012
-3.400E-06,0.008
-3.390E-06,0.004
-3.380E-06,0.000
-3.370E-06,-0.004
-3.360E-06,-0.004
-3.350E-06,0.008
-3.340E-06,0.012
-3.330E-06,0.016
-3.320E-06,0.004
-3.310E-06,-0.004
-3.300E-06,-0.004
-3.290E-06,-0.004
-3.280E-06,0.008
-3.270E-06,0.012
-3.260E-06,0.016
-3.250E-06,0.004
-3.240E-06,0.004
-3.230E-06,0.000
-3.220E-06,0.008
-3.210E-06,0.016
-3.200E-06,0.028
-3.190E-06,0.024
-3.180E-06,0.012
-3.170E-06,0.004
-3.160E-06,-0.004
-3.150E-06,-0.004
-3.140E-06,0.008
-3.130E-06,0.012
-3.120E-06,0.012
-3.110E-06,0.004
-3.100E-06,-0.008
-3.090E-06,-0.012
-3.080E-06,-0.016
-3.070E-06,-0.012
-3.060E-06,0.008
-3.050E-06,0.024
-3.040E-06,0.020
-3.030E-06,0.012
-3.020E-06,0.004
-3.010E-06,-0.008
-3.000E-06,-0.008
-2.990E-06,-0.008
-2.980E-06,0.000
-2.970E-06,0.004
-2.960E-06,0.016
-2.950E-06,0.020
-2.940E-06,0.016
-2.930E-06,0.000
-2.920E-06,-0.012
-2.910E-06,-0.016
-2.900E-06,-0.004
-2.890E-06,0.000
-2.880E-06,0.020
-2.870E-06,0.028
-2.860E-06,0.028
-2.850E-06,0.028
-2.840E-06,0.008
-2.830E-06,0.008
-2.820E-06,0.012
-2.810E-06,0.028
-2.800E-06,0.052
-2.790E-06,0.032
-2.780E-06,0.016
-2.770E-06,-0.004
-2.760E-06,-0.012
-2.750E-06,-0.024
-2.740E-06,-0.020
-2.730E-06,-0.024
-2.720E-06,-0.040
-2.710E-06,-0.024
-2.700E-06,-0.012
-2.690E-06,0.016
-2.680E-06,0.024
-2.670E-06,0.016
-2.660E-06,-0.008
-2.650E-06,-0.052
-2.640E-06,-0.040
-2.630E-06,-0.012
-2.620E-06,0.032
-2.610E-06,0.056
-2.600E-06,0.048
-2.590E-06,0.008
-2.580E-06,-0.032
-2.570E-06,-0.044
-2.560E-06,-0.024
-2.550E-06,0.012
-2.540E-06,0.044
-2.530E-06,0.032
-2.520E-06,0.012
-2.510E-06,-0.004
-2.500E-06,-0.028
-2.490E-06,-0.032
-2.480E-06,-0.016
-2.470E-06,-0.004
-2.460E-06,0.012
-2.450E-06,0.020
-2.440E-06,0.024
-2.430E-06,0.016
-2.420E-06,-0.004
-2.410E-06,-0.024
-2.400E-06,-0.036
-2.390E-06,-0.032
-2.380E-06,0.000
-2.370E-06,0.036
-2.360E-06,0.044
-2.350E-06,0.036
-2.340E-06,0.008
-2.330E-06,-0.020
-2.320E-06,-0.040
-2.310E-06,-0.028
-2.300E-06,0.000
-2.290E-06,0.028
-2.280E-06,0.040
-2.270E-06,0.024
-2.260E-06,0.004
-2.250E-06,-0.024
-2.240E-06,-0.028
-2.230E-06,-0.016
-2.220E-06,0.000
-2.210E-06,0.024
-2.200E-06,0.028
-2.190E-06,0.024
-2.180E-06,0.008
-2.170E-06,-0.012
-2.160E-06,-0.024
-2.150E-06,-0.012
-2.140E-06,0.004
-2.130E-06,0.024
-2.120E-06,0.028
-2.110E-06,0.028
-2.100E-06,0.008
-2.090E-06,-0.012
-2.080E-06,-0.008
-2.070E-06,0.000
-2.060E-06,0.008
-2.050E-06,0.020
-2.040E-06,0.024
-2.030E-06,0.024
-2.020E-06,0.012
-2.010E-06,0.000
-2.000E-06,-0.008
-1.990E-06,0.000
-1.980E-06,0.008
-1.970E-06,0.020
-1.960E-06,0.032
-1.950E-06,0.028
-1.940E-06,0.020
-1.930E-06,0.004
-1.920E-06,-0.004
-1.910E-06,0.000
-1.900E-06,0.012
-1.890E-06,0.028
-1.880E-06,0.040
-1.870E-06,0.032
-1.860E-06,0.012
-1.850E-06,-0.008
-1.840E-06,-0.024
-1.830E-06,-0.012
-1.820E-06,0.008
-1.810E-06,0.020
-1.800E-06,0.028
-1.790E-06,0.032
-1.780E-06,0.012
-1.770E-06,0.000
-1.760E-06,0.000
-1.750E-06,0.004
-1.740E-06,0.012
-1.730E-06,0.024
-1.720E-06,0.036
-1.710E-06,0.016
-1.700E-06,0.016
-1.690E-06,0.024
-1.680E-06,0.028
-1.670E-06,0.028
-1.660E-06,0.036
-1.650E-06,0.012
-1.640E-06,-0.068
-1.630E-06,-0.156
-1.620E-06,-0.192
-1.610E-06,-0.120
-1.600E-06,0.012
-1.590E-06,0.088
-1.580E-06,0.156
-1.570E-06,0.064
-1.560E-06,-0.052
-1.550E-06,-0.144
-1.540E-06,-0.132
-1.530E-06,-0.032
-1.520E-06,0.068
-1.510E-06,0.124
-1.500E-06,0.092
-1.490E-06,0.028
-1.480E-06,-0.060
-1.470E-06,-0.076
-1.460E-06,-0.068
-1.450E-06,-0.004
-1.440E-06,0.036
-1.430E-06,0.084
-1.420E-06,0.076
-1.410E-06,0.036
-1.400E-06,-0.012
-1.390E-06,-0.056
-1.380E-06,-0.056
-1.370E-06,-0.036
-1.360E-06,0.020
-1.350E-06,0.056
-1.340E-06,0.076
-1.330E-06,0.044
-1.320E-06,0.004
-1.310E-06,-0.040
-1.300E-06,-0.052
-1.290E-06,-0.036
-1.280E-06,0.008
-1.270E-06,0.040
-1.260E-06,0.056
-1.250E-06,0.044
-1.240E-06,0.008
-1.230E-06,-0.024
-1.220E-06,-0.036
-1.210E-06,-0.008
-1.200E-06,0.012
-1.190E-06,0.044
-1.180E-06,0.052
-1.170E-06,0.040
-1.160E-06,0.024
-1.150E-06,0.000
-1.140E-06,-0.008
-1.130E-06,-0.004
-1.120E-06,0.000
-1.110E-06,0.012
-1.100E-06,0.036
-1.090E-06,0.056
-1.080E-06,0.060
-1.070E-06,0.044
-1.060E-06,0.020
-1.050E-06,-0.024
-1.040E-06,-0.040
-1.030E-06,-0.036
-1.020E-06,0.012
-1.010E-06,0.044
-1.000E-06,0.056
-9.900E-07,0.052
-9.800E-07,0.008
-9.700E-07,-0.004
-9.600E-07,-0.036
-9.500E-07,-0.028
-9.400E-07,-0.012
-9.300E-07,0.008
-9.200E-07,0.036
-9.100E-07,0.032
-9.000E-07,0.032
-8.900E-07,0.016
-8.800E-07,0.008
-8.700E-07,0.000
-8.600E-07,0.016
-8.500E-07,0.008
-8.400E-07,0.016
-8.300E-07,0.008
-8.200E-07,0.004
-8.100E-07,-0.004
-8.000E-07,0.008
-7.900E-07,0.020
-7.800E-07,0.044
-7.700E-07,0.072
-7.600E-07,0.088
-7.500E-07,0.068
-7.400E-07,0.044
-7.300E-07,0.024
-7.200E-07,0.000
-7.100E-07,0.000
-7.000E-07,0.020
-6.900E-07,0.052
-6.800E-07,0.084
-6.700E-07,0.092
-6.600E-07,0.088
-6.500E-07,0.072
-6.400E-07,0.036
-6.300E-07,-0.004
-6.200E-07,-0.020
-6.100E-07,-0.044
-6.000E-07,-0.040
-5.900E-07,-0.016
-5.800E-07,0.012
-5.700E-07,0.024
-5.600E-07,0.004
-5.500E-07,0.024
-5.400E-07,0.024
-5.300E-07,0.020
-5.200E-07,0.048
-5.100E-07,0.052
-5.000E-07,-0.008
-4.900E-07,-0.120
-4.800E-07,-0.208
-4.700E-07,-0.228
-4.600E-07,-0.144
-4.500E-07,-0.020
-4.400E-07,0.144
-4.300E-07,0.208
-4.200E-07,0.216
-4.100E-07,0.060
-4.000E-07,-0.132
-3.900E-07,-0.260
-3.800E-07,-0.192
-3.700E-07,-0.012
-3.600E-07,0.152
-3.500E-07,0.228
-3.400E-07,0.160
-3.300E-07,0.056
-3.200E-07,-0.100
-3.100E-07,-0.144
-3.000E-07,-0.112
-2.900E-07,0.028
-2.800E-07,0.180
-2.700E-07,0.272
-2.600E-07,0.240
-2.500E-07,0.128
-2.400E-07,-0.056
-2.300E-07,-0.204
-2.200E-07,-0.220
-2.100E-07,-0.132
-2.000E-07,0.056
-1.900E-07,0.192
-1.800E-07,0.256
-1.700E-07,0.180
-1.600E-07,-0.012
-1.500E-07,-0.220
-1.400E-07,-0.292
-1.300E-07,-0.236
-1.200E-07,-0.116
-1.100E-07,0.044
-1.000E-07,0.192
-9.000E-08,0.272
-8.000E-08,0.204
-7.000E-08,0.020
-6.000E-08,-0.276
-5.000E-08,-0.512
-4.000E-08,-0.500
-3.000E-08,-0.236
-2.000E-08,0.148
-1.000E-08,0.400
0.000E+00,0.404
1.000E-08,0.184
2.000E-08,-0.168
3.000E-08,-0.416
4.000E-08,-0.428
5.000E-08,-0.172
6.000E-08,0.160
7.000E-08,0.408
8.000E-08,0.388
9.000E-08,0.164
1.000E-07,-0.160
1.100E-07,-0.368
1.200E-07,-0.344
1.300E-07,-0.132
1.400E-07,0.148
1.500E-07,0.336
1.600E-07,0.324
1.700E-07,0.144
1.800E-07,-0.092
1.900E-07,-0.268
2.000E-07,-0.272
2.100E-07,-0.112
2.200E-07,0.108
2.300E-07,0.272
2.400E-07,0.296
2.500E-07,0.172
2.600E-07,-0.020
2.700E-07,-0.164
2.800E-07,-0.188
2.900E-07,-0.080
3.000E-07,0.080
3.100E-07,0.220
3.200E-07,0.244
3.300E-07,0.172
3.400E-07,0.024
3.500E-07,-0.072
3.600E-07,-0.076
3.700E-07,-0.004
3.800E-07,0.120
3.900E-07,0.212
4.000E-07,0.228
4.100E-07,0.148
4.200E-07,0.024
4.300E-07,-0.096
4.400E-07,-0.144
4.500E-07,-0.076
4.600E-07,0.056
4.700E-07,0.168
4.800E-07,0.196
4.900E-07,0.140
5.000E-07,0.008
5.100E-07,-0.108
5.200E-07,-0.148
5.300E-07,-0.072
5.400E-07,0.060
5.500E-07,0.160
5.600E-07,0.172
5.700E-07,0.096
5.800E-07,-0.040
5.900E-07,-0.188
6.000E-07,-0.484
6.100E-07,-0.508
6.200E-07,-0.340
6.300E-07,0.008
6.400E-07,0.368
6.500E-07,0.544
6.600E-07,0.488
6.700E-07,0.140
6.800E-07,-0.212
6.900E-07,-0.412
7.000E-07,-0.404
7.100E-07,-0.232
7.200E-07,0.008
7.300E-07,0.188
7.400E-07,0.288
7.500E-07,0.316
7.600E-07,0.200
7.700E-07,-0.072
7.800E-07,-0.252
7.900E-07,-0.288
8.000E-07,-0.100
8.100E-07,0.180
8.200E-07,0.372
8.300E-07,0.412
8.400E-07,0.188
8.500E-07,-0.044
8.600E-07,-0.220
8.700E-07,-0.264
8.800E-07,-0.160
8.900E-07,0.048
9.000E-07,0.156
9.100E-07,0.228
9.200E-07,0.220
9.300E-07,0.108
9.400E-07,-0.056
9.500E-07,-0.188
9.600E-07,-0.156
9.700E-07,-0.104
9.800E-07,0.044
9.900E-07,0.192
1.000E-06,0.280
1.010E-06,0.108
1.020E-06,-0.024
1.030E-06,-0.132
1.040E-06,-0.128
1.050E-06,-0.064
1.060E-06,-0.012
1.070E-06,0.064
1.080E-06,0.096
1.090E-06,0.140
1.100E-06,0.092
1.110E-06,0.064
1.120E-06,0.016
1.130E-06,0.000
1.140E-06,0.000
1.150E-06,0.036
1.160E-06,0.088
1.170E-06,0.128
1.180E-06,0.148
1.190E-06,0.136
1.200E-06,0.092
1.210E-06,-0.008
1.220E-06,-0.252
1.230E-06,-0.452
1.240E-06,-0.512
1.250E-06,-0.428
1.260E-06,-0.124
1.270E-06,0.392
1.280E-06,0.408
1.290E-06,-0.032
1.300E-06,-0.380
1.310E-06,-0.512
1.320E-06,-0.324
1.330E-06,0.164
1.340E-06,0.540
1.350E-06,0.504
1.360E-06,0.052
1.370E-06,-0.452
1.380E-06,-0.508
1.390E-06,-0.508
1.400E-06,-0.040
1.410E-06,0.392
1.420E-06,0.540
1.430E-06,0.440
1.440E-06,0.048
1.450E-06,-0.292
1.460E-06,-0.464
1.470E-06,-0.384
1.480E-06,-0.136
1.490E-06,0.192
1.500E-06,0.444
1.510E-06,0.544
1.520E-06,0.428
1.530E-06,0.140
1.540E-06,-0.100
1.550E-06,-0.408
1.560E-06,-0.512
1.570E-06,-0.476
1.580E-06,-0.296
1.590E-06,0.004
1.600E-06,0.336
1.610E-06,0.388
1.620E-06,0.260
1.630E-06,-0.024
1.640E-06,-0.320
1.650E-06,-0.360
1.660E-06,-0.128
1.670E-06,0.120
1.680E-06,0.332
1.690E-06,0.440
1.700E-06,0.232
1.710E-06,-0.108
1.720E-06,-0.304
1.730E-06,-0.240
1.740E-06,-0.052
1.750E-06,0.204
1.760E-06,0.392
1.770E-06,0.368
1.780E-06,0.200
1.790E-06,0.032
1.800E-06,-0.104
1.810E-06,-0.176
1.820E-06,-0.120
1.830E-06,0.044
1.840E-06,0.152
1.850E-06,0.192
1.860E-06,0.208
1.870E-06,0.140
1.880E-06,0.000
1.890E-06,-0.064
1.900E-06,-0.116
1.910E-06,-0.160
1.920E-06,-0.172
1.930E-06,-0.112
1.940E-06,-0.056
1.950E-06,0.020
1.960E-06,0.056
1.970E-06,0.020
1.980E-06,-0.040
1.990E-06,-0.084
2.000E-06,-0.040
2.010E-06,0.020
2.020E-06,0.108
2.030E-06,0.180
2.040E-06,0.188
2.050E-06,0.104
2.060E-06,0.040
2.070E-06,-0.072
2.080E-06,-0.172
2.090E-06,-0.240
2.100E-06,-0.156
2.110E-06,-0.040
2.120E-06,0.128
2.130E-06,0.244
2.140E-06,0.204
2.150E-06,0.080
2.160E-06,-0.028
2.170E-06,-0.056
2.180E-06,-0.028
2.190E-06,0.076
2.200E-06,0.192
2.210E-06,0.224
2.220E-06,0.156
2.230E-06,0.040
2.240E-06,-0.088
2.250E-06,-0.168
2.260E-06,-0.184
2.270E-06,-0.104
2.280E-06,0.024
2.290E-06,0.060
2.300E-06,0.048
2.310E-06,0.004
2.320E-06,-0.088
2.330E-06,-0.176
2.340E-06,-0.132
2.350E-06,-0.040
2.360E-06,0.104
2.370E-06,0.220
2.380E-06,0.240
2.390E-06,0.152
2.400E-06,0.044
2.410E-06,-0.032
2.420E-06,-0.024
2.430E-06,0.048
2.440E-06,0.152
2.450E-06,0.224
2.460E-06,0.256
2.470E-06,0.212
2.480E-06,0.108
2.490E-06,0.036
2.500E-06,0.016
2.510E-06,0.064
2.520E-06,0.152
2.530E-06,0.236
2.540E-06,0.280
2.550E-06,0.260
2.560E-06,0.176
2.570E-06,0.092
2.580E-06,0.032
2.590E-06,0.040
2.600E-06,-0.004
2.610E-06,-0.096
2.620E-06,-0.136
2.630E-06,-0.328
2.640E-06,-0.508
2.650E-06,-0.508
2.660E-06,-0.180
2.670E-06,0.256
2.680E-06,0.368
2.690E-06,0.296
2.700E-06,-0.024
2.710E-06,-0.280
2.720E-06,-0.372
2.730E-06,-0.468
2.740E-06,-0.488
2.750E-06,-0.508
2.760E-06,-0.512
2.770E-06,-0.488
2.780E-06,0.052
2.790E-06,0.440
2.800E-06,0.368
2.810E-06,0.084
2.820E-06,-0.220
2.830E-06,-0.224
2.840E-06,-0.024
2.850E-06,0.240
2.860E-06,0.284
2.870E-06,0.148
2.880E-06,-0.104
2.890E-06,-0.188
2.900E-06,-0.144
2.910E-06,-0.008
2.920E-06,0.148
2.930E-06,0.260
2.940E-06,0.240
2.950E-06,0.104
2.960E-06,-0.028
2.970E-06,-0.152
2.980E-06,-0.184
2.990E-06,-0.096
3.000E-06,0.108
3.010E-06,0.252
3.020E-06,0.260
3.030E-06,0.132
3.040E-06,-0.056
3.050E-06,-0.200
3.060E-06,-0.228
3.070E-06,-0.096
3.080E-06,0.088
3.090E-06,0.208
3.100E-06,0.184
3.110E-06,0.076
3.120E-06,-0.036
3.130E-06,-0.112
3.140E-06,-0.100
3.150E-06,0.008
3.160E-06,0.148
3.170E-06,0.236
3.180E-06,0.240
3.190E-06,0.168
3.200E-06,0.052
3.210E-06,-0.076
3.220E-06,-0.060
3.230E-06,0.040
3.240E-06,0.176
3.250E-06,0.288
