mediciones/5-15/-0.01/WaveData47658.csv

#timebase=2000000(ps)
,#voltbase=500000(mv/100)
#size=4000
-8.400E-06,-0.320
-8.390E-06,-0.280
-8.380E-06,-0.340
-8.370E-06,-0.400
-8.360E-06,-0.500
-8.350E-06,-0.580
-8.340E-06,-0.640
-8.330E-06,-0.620
-8.320E-06,-0.660
-8.310E-06,-0.640
-8.300E-06,-0.500
-8.290E-06,-0.580
-8.280E-06,-0.620
-8.270E-06,-0.520
-8.260E-06,-0.500
-8.250E-06,-0.420
-8.240E-06,-0.140
-8.230E-06,-0.260
-8.220E-06,-0.760
-8.210E-06,-0.580
-8.200E-06,-0.500
-8.190E-06,-0.600
-8.180E-06,-0.740
-8.170E-06,-0.360
-8.160E-06,-0.260
-8.150E-06,-0.740
-8.140E-06,-0.700
-8.130E-06,-0.420
-8.120E-06,-0.300
-8.110E-06,-0.300
-8.100E-06,0.040
-8.090E-06,0.340
-8.080E-06,0.080
-8.070E-06,-0.260
-8.060E-06,-0.360
-8.050E-06,-0.200
-8.040E-06,-0.200
-8.030E-06,-0.180
-8.020E-06,-0.160
-8.010E-06,-0.280
-8.000E-06,-0.560
-7.990E-06,-0.620
-7.980E-06,-0.480
-7.970E-06,-0.200
-7.960E-06,-0.040
-7.950E-06,-0.080
-7.940E-06,-0.180
-7.930E-06,-0.260
-7.920E-06,-0.160
-7.910E-06,0.000
-7.900E-06,0.100
-7.890E-06,0.160
-7.880E-06,0.080
-7.870E-06,0.000
-7.860E-06,-0.100
-7.850E-06,-0.100
-7.840E-06,-0.040
-7.830E-06,0.020
-7.820E-06,-0.020
-7.810E-06,0.020
-7.800E-06,0.100
-7.790E-06,0.140
-7.780E-06,0.180
-7.770E-06,0.240
-7.760E-06,0.280
-7.750E-06,0.260
-7.740E-06,0.260
-7.730E-06,0.280
-7.720E-06,0.280
-7.710E-06,0.240
-7.700E-06,0.180
-7.690E-06,0.160
-7.680E-06,0.060
-7.670E-06,0.000
-7.660E-06,0.000
-7.650E-06,0.000
-7.640E-06,0.000
-7.630E-06,0.000
-7.620E-06,-0.020
-7.610E-06,-0.040
-7.600E-06,0.000
-7.590E-06,0.000
-7.580E-06,0.060
-7.570E-06,0.080
-7.560E-06,0.060
-7.550E-06,0.020
-7.540E-06,-0.020
-7.530E-06,-0.080
-7.520E-06,-0.060
-7.510E-06,-0.060
-7.500E-06,-0.020
-7.490E-06,-0.040
-7.480E-06,-0.080
-7.470E-06,-0.120
-7.460E-06,-0.100
-7.450E-06,-0.100
-7.440E-06,-0.060
-7.430E-06,-0.020
-7.420E-06,-0.020
-7.410E-06,-0.040
-7.400E-06,-0.120
-7.390E-06,-0.160
-7.380E-06,-0.140
-7.370E-06,-0.160
-7.360E-06,-0.140
-7.350E-06,-0.160
-7.340E-06,-0.080
-7.330E-06,-0.040
-7.320E-06,0.040
-7.310E-06,-0.020
-7.300E-06,-0.180
-7.290E-06,-0.180
-7.280E-06,-0.060
-7.270E-06,-0.100
-7.260E-06,-0.140
-7.250E-06,-0.060
-7.240E-06,-0.080
-7.230E-06,-0.140
-7.220E-06,-0.020
-7.210E-06,0.260
-7.200E-06,0.000
-7.190E-06,-0.120
-7.180E-06,-0.180
-7.170E-06,-0.240
-7.160E-06,-0.220
-7.150E-06,-0.160
-7.140E-06,-0.220
-7.130E-06,-0.380
-7.120E-06,-0.500
-7.110E-06,-0.500
-7.100E-06,-0.540
-7.090E-06,-0.500
-7.080E-06,-0.400
-7.070E-06,-0.480
-7.060E-06,-0.520
-7.050E-06,-0.300
-7.040E-06,-0.180
-7.030E-06,-0.320
-7.020E-06,-0.340
-7.010E-06,-0.280
-7.000E-06,-0.320
-6.990E-06,-0.360
-6.980E-06,-0.300
-6.970E-06,-0.260
-6.960E-06,-0.340
-6.950E-06,-0.220
-6.940E-06,-0.240
-6.930E-06,-0.300
-6.920E-06,-0.180
-6.910E-06,0.200
-6.900E-06,0.400
-6.890E-06,-0.020
-6.880E-06,-0.280
-6.870E-06,-0.260
-6.860E-06,-0.040
-6.850E-06,-0.060
-6.840E-06,0.000
-6.830E-06,0.240
-6.820E-06,-0.140
-6.810E-06,-0.740
-6.800E-06,-0.800
-6.790E-06,-0.420
-6.780E-06,-0.240
-6.770E-06,-0.320
-6.760E-06,-0.260
-6.750E-06,-0.360
-6.740E-06,-0.600
-6.730E-06,-0.580
-6.720E-06,-0.260
-6.710E-06,-0.140
-6.700E-06,-0.160
-6.690E-06,-0.220
-6.680E-06,-0.220
-6.670E-06,-0.260
-6.660E-06,-0.260
-6.650E-06,-0.040
-6.640E-06,0.240
-6.630E-06,0.480
-6.620E-06,0.420
-6.610E-06,0.320
-6.600E-06,0.140
-6.590E-06,0.080
-6.580E-06,0.160
-6.570E-06,0.200
-6.560E-06,0.140
-6.550E-06,0.100
-6.540E-06,-0.140
-6.530E-06,-0.260
-6.520E-06,-0.260
-6.510E-06,0.100
-6.500E-06,0.300
-6.490E-06,0.220
-6.480E-06,0.060
-6.470E-06,0.020
-6.460E-06,0.020
-6.450E-06,-0.060
-6.440E-06,-0.040
-6.430E-06,0.000
-6.420E-06,-0.180
-6.410E-06,-0.400
-6.400E-06,-0.460
-6.390E-06,-0.380
-6.380E-06,-0.400
-6.370E-06,-0.360
-6.360E-06,-0.200
-6.350E-06,-0.140
-6.340E-06,-0.100
-6.330E-06,-0.120
-6.320E-06,0.040
-6.310E-06,0.180
-6.300E-06,0.320
-6.290E-06,0.340
-6.280E-06,0.300
-6.270E-06,0.260
-6.260E-06,0.220
-6.250E-06,0.400
-6.240E-06,0.360
-6.230E-06,0.320
-6.220E-06,0.240
-6.210E-06,0.060
-6.200E-06,-0.180
-6.190E-06,-0.260
-6.180E-06,-0.220
-6.170E-06,-0.240
-6.160E-06,-0.360
-6.150E-06,-0.520
-6.140E-06,-0.460
-6.130E-06,-0.500
-6.120E-06,-0.420
-6.110E-06,-0.340
-6.100E-06,-0.100
-6.090E-06,0.380
-6.080E-06,-0.040
-6.070E-06,-0.420
-6.060E-06,-0.420
-6.050E-06,-0.260
-6.040E-06,-0.260
-6.030E-06,-0.480
-6.020E-06,-0.340
-6.010E-06,-0.460
-6.000E-06,-0.780
-5.990E-06,-0.780
-5.980E-06,-0.300
-5.970E-06,-0.020
-5.960E-06,-0.040
-5.950E-06,-0.060
-5.940E-06,0.040
-5.930E-06,-0.020
-5.920E-06,0.020
-5.910E-06,0.300
-5.900E-06,0.380
-5.890E-06,0.200
-5.880E-06,0.100
-5.870E-06,0.100
-5.860E-06,0.040
-5.850E-06,0.000
-5.840E-06,0.000
-5.830E-06,0.020
-5.820E-06,0.000
-5.810E-06,-0.020
-5.800E-06,0.020
-5.790E-06,0.060
-5.780E-06,0.080
-5.770E-06,0.140
-5.760E-06,0.200
-5.750E-06,0.180
-5.740E-06,0.220
-5.730E-06,0.240
-5.720E-06,0.320
-5.710E-06,0.240
-5.700E-06,0.240
-5.690E-06,0.220
-5.680E-06,0.180
-5.670E-06,0.100
-5.660E-06,0.120
-5.650E-06,0.140
-5.640E-06,0.100
-5.630E-06,0.080
-5.620E-06,0.100
-5.610E-06,0.120
-5.600E-06,0.140
-5.590E-06,0.180
-5.580E-06,0.200
-5.570E-06,0.160
-5.560E-06,0.120
-5.550E-06,0.120
-5.540E-06,0.080
-5.530E-06,0.040
-5.520E-06,0.000
-5.510E-06,0.000
-5.500E-06,0.020
-5.490E-06,0.020
-5.480E-06,-0.020
-5.470E-06,-0.020
-5.460E-06,0.000
-5.450E-06,-0.060
-5.440E-06,-0.080
-5.430E-06,-0.040
-5.420E-06,0.060
-5.410E-06,0.040
-5.400E-06,-0.040
-5.390E-06,-0.120
-5.380E-06,-0.080
-5.370E-06,-0.100
-5.360E-06,0.020
-5.350E-06,-0.100
-5.340E-06,0.100
-5.330E-06,0.320
-5.320E-06,0.260
-5.310E-06,0.040
-5.300E-06,-0.140
-5.290E-06,-0.180
-5.280E-06,0.080
-5.270E-06,0.220
-5.260E-06,0.260
-5.250E-06,0.260
-5.240E-06,-0.040
-5.230E-06,-0.160
-5.220E-06,-0.200
-5.210E-06,0.000
-5.200E-06,0.240
-5.190E-06,0.140
-5.180E-06,-0.100
-5.170E-06,-0.400
-5.160E-06,-0.540
-5.150E-06,-0.500
-5.140E-06,-0.340
-5.130E-06,-0.360
-5.120E-06,-0.500
-5.110E-06,-0.660
-5.100E-06,-0.800
-5.090E-06,-0.840
-5.080E-06,-0.860
-5.070E-06,-0.680
-5.060E-06,-0.580
-5.050E-06,-0.380
-5.040E-06,-0.140
-5.030E-06,0.220
-5.020E-06,-0.180
-5.010E-06,-0.540
-5.000E-06,-0.480
-4.990E-06,-0.460
-4.980E-06,-0.600
-4.970E-06,-0.640
-4.960E-06,-0.360
-4.950E-06,-0.660
-4.940E-06,-0.980
-4.930E-06,-1.040
-4.920E-06,-0.840
-4.910E-06,-0.700
-4.900E-06,-0.500
-4.890E-06,-0.320
-4.880E-06,-0.060
-4.870E-06,0.180
-4.860E-06,0.160
-4.850E-06,0.000
-4.840E-06,0.160
-4.830E-06,0.260
-4.820E-06,0.240
-4.810E-06,0.100
-4.800E-06,0.140
-4.790E-06,-0.020
-4.780E-06,-0.380
-4.770E-06,-0.380
-4.760E-06,-0.180
-4.750E-06,-0.020
-4.740E-06,-0.020
-4.730E-06,0.060
-4.720E-06,0.100
-4.710E-06,0.000
-4.700E-06,-0.040
-4.690E-06,0.060
-4.680E-06,0.280
-4.670E-06,0.280
-4.660E-06,0.240
-4.650E-06,0.220
-4.640E-06,0.140
-4.630E-06,-0.080
-4.620E-06,-0.200
-4.610E-06,-0.180
-4.600E-06,-0.180
-4.590E-06,-0.160
-4.580E-06,-0.120
-4.570E-06,-0.100
-4.560E-06,-0.080
-4.550E-06,-0.060
-4.540E-06,0.000
-4.530E-06,0.080
-4.520E-06,0.180
-4.510E-06,0.240
-4.500E-06,0.300
-4.490E-06,0.300
-4.480E-06,0.260
-4.470E-06,0.240
-4.460E-06,0.240
-4.450E-06,0.220
-4.440E-06,0.260
-4.430E-06,0.280
-4.420E-06,0.220
-4.410E-06,0.180
-4.400E-06,0.180
-4.390E-06,0.140
-4.380E-06,0.120
-4.370E-06,0.160
-4.360E-06,0.180
-4.350E-06,0.180
-4.340E-06,0.120
-4.330E-06,0.040
-4.320E-06,0.000
-4.310E-06,-0.080
-4.300E-06,-0.140
-4.290E-06,-0.140
-4.280E-06,-0.180
-4.270E-06,-0.180
-4.260E-06,-0.260
-4.250E-06,-0.340
-4.240E-06,-0.320
-4.230E-06,-0.180
-4.220E-06,-0.040
-4.210E-06,0.040
-4.200E-06,-0.020
-4.190E-06,0.080
-4.180E-06,0.580
-4.170E-06,0.600
-4.160E-06,0.240
-4.150E-06,0.060
-4.140E-06,0.100
-4.130E-06,-0.080
-4.120E-06,-0.160
-4.110E-06,-0.180
-4.100E-06,-0.200
-4.090E-06,-0.640
-4.080E-06,-0.980
-4.070E-06,-1.000
-4.060E-06,-0.900
-4.050E-06,-0.800
-4.040E-06,-0.720
-4.030E-06,-0.760
-4.020E-06,-0.920
-4.010E-06,-1.000
-4.000E-06,-0.840
-3.990E-06,-0.660
-3.980E-06,-0.560
-3.970E-06,-0.520
-3.960E-06,-0.380
-3.950E-06,-0.280
-3.940E-06,-0.120
-3.930E-06,0.180
-3.920E-06,0.160
-3.910E-06,0.220
-3.900E-06,0.200
-3.890E-06,0.160
-3.880E-06,0.160
-3.870E-06,0.120
-3.860E-06,0.120
-3.850E-06,0.020
-3.840E-06,-0.040
-3.830E-06,-0.040
-3.820E-06,-0.020
-3.810E-06,-0.080
-3.800E-06,-0.040
-3.790E-06,0.000
-3.780E-06,-0.260
-3.770E-06,-0.440
-3.760E-06,-0.400
-3.750E-06,-0.340
-3.740E-06,-0.060
-3.730E-06,0.260
-3.720E-06,0.300
-3.710E-06,0.080
-3.700E-06,-0.100
-3.690E-06,-0.260
-3.680E-06,-0.180
-3.670E-06,-0.020
-3.660E-06,0.180
-3.650E-06,0.100
-3.640E-06,-0.060
-3.630E-06,-0.040
-3.620E-06,0.080
-3.610E-06,0.080
-3.600E-06,0.180
-3.590E-06,0.240
-3.580E-06,0.220
-3.570E-06,-0.060
-3.560E-06,-0.020
-3.550E-06,0.180
-3.540E-06,0.080
-3.530E-06,-0.120
-3.520E-06,-0.200
-3.510E-06,-0.200
-3.500E-06,-0.360
-3.490E-06,-0.620
-3.480E-06,-0.620
-3.470E-06,-0.620
-3.460E-06,-0.720
-3.450E-06,-0.780
-3.440E-06,-0.700
-3.430E-06,-0.660
-3.420E-06,-0.660
-3.410E-06,-0.640
-3.400E-06,-0.520
-3.390E-06,-0.500
-3.380E-06,-0.440
-3.370E-06,-0.240
-3.360E-06,0.160
-3.350E-06,0.560
-3.340E-06,0.400
-3.330E-06,0.240
-3.320E-06,0.260
-3.310E-06,0.280
-3.300E-06,0.340
-3.290E-06,0.160
-3.280E-06,0.940
-3.270E-06,0.980
-3.260E-06,0.660
-3.250E-06,0.400
-3.240E-06,0.520
-3.230E-06,0.380
-3.220E-06,-0.020
-3.210E-06,0.020
-3.200E-06,0.000
-3.190E-06,-0.260
-3.180E-06,-0.720
-3.170E-06,-0.740
-3.160E-06,-0.780
-3.150E-06,-0.860
-3.140E-06,-0.840
-3.130E-06,-0.580
-3.120E-06,-0.620
-3.110E-06,-0.780
-3.100E-06,-0.520
-3.090E-06,-0.180
-3.080E-06,0.000
-3.070E-06,0.040
-3.060E-06,0.260
-3.050E-06,0.340
-3.040E-06,0.280
-3.030E-06,0.180
-3.020E-06,0.220
-3.010E-06,0.120
-3.000E-06,0.120
-2.990E-06,0.100
-2.980E-06,-0.020
-2.970E-06,-0.020
-2.960E-06,0.000
-2.950E-06,-0.140
-2.940E-06,-0.340
-2.930E-06,-0.340
-2.920E-06,-0.340
-2.910E-06,-0.300
-2.900E-06,-0.320
-2.890E-06,-0.180
-2.880E-06,-0.040
-2.870E-06,-0.100
-2.860E-06,-0.080
-2.850E-06,0.040
-2.840E-06,0.180
-2.830E-06,0.120
-2.820E-06,0.340
-2.810E-06,0.480
-2.800E-06,0.580
-2.790E-06,0.560
-2.780E-06,0.620
-2.770E-06,0.440
-2.760E-06,0.160
-2.750E-06,0.000
-2.740E-06,-0.040
-2.730E-06,0.020
-2.720E-06,-0.040
-2.710E-06,-0.140
-2.700E-06,-0.040
-2.690E-06,0.080
-2.680E-06,0.020
-2.670E-06,0.000
-2.660E-06,0.220
-2.650E-06,0.220
-2.640E-06,-0.080
-2.630E-06,-0.260
-2.620E-06,-0.260
-2.610E-06,-0.500
-2.600E-06,-0.560
-2.590E-06,-0.560
-2.580E-06,-0.600
-2.570E-06,-0.860
-2.560E-06,-0.840
-2.550E-06,-0.560
-2.540E-06,-0.360
-2.530E-06,-0.460
-2.520E-06,-0.500
-2.510E-06,-0.320
-2.500E-06,-0.120
-2.490E-06,0.100
-2.480E-06,0.340
-2.470E-06,0.420
-2.460E-06,0.160
-2.450E-06,0.200
-2.440E-06,0.300
-2.430E-06,0.420
-2.420E-06,0.420
-2.410E-06,0.420
-2.400E-06,0.080
-2.390E-06,-0.180
-2.380E-06,-0.320
-2.370E-06,-0.140
-2.360E-06,-0.080
-2.350E-06,-0.180
-2.340E-06,-0.220
-2.330E-06,-0.240
-2.320E-06,-0.260
-2.310E-06,-0.220
-2.300E-06,-0.160
-2.290E-06,-0.020
-2.280E-06,0.040
-2.270E-06,0.040
-2.260E-06,0.320
-2.250E-06,0.560
-2.240E-06,0.320
-2.230E-06,0.220
-2.220E-06,0.320
-2.210E-06,0.340
-2.200E-06,0.180
-2.190E-06,0.360
-2.180E-06,0.760
-2.170E-06,0.480
-2.160E-06,0.080
-2.150E-06,0.240
-2.140E-06,0.520
-2.130E-06,0.400
-2.120E-06,0.340
-2.110E-06,0.480
-2.100E-06,0.560
-2.090E-06,0.240
-2.080E-06,0.000
-2.070E-06,0.100
-2.060E-06,0.080
-2.050E-06,-0.080
-2.040E-06,0.060
-2.030E-06,0.120
-2.020E-06,-0.200
-2.010E-06,-0.360
-2.000E-06,-0.240
-1.990E-06,-0.020
-1.980E-06,-0.140
-1.970E-06,-0.080
-1.960E-06,0.180
-1.950E-06,0.120
-1.940E-06,-0.340
-1.930E-06,-0.320
-1.920E-06,-0.160
-1.910E-06,-0.220
-1.900E-06,-0.300
-1.890E-06,-0.080
-1.880E-06,0.020
-1.870E-06,-0.220
-1.860E-06,-0.360
-1.850E-06,-0.260
-1.840E-06,-0.260
-1.830E-06,-0.300
-1.820E-06,-0.280
-1.810E-06,-0.240
-1.800E-06,-0.400
-1.790E-06,-0.400
-1.780E-06,-0.400
-1.770E-06,-0.440
-1.760E-06,-0.300
-1.750E-06,-0.040
-1.740E-06,0.040
-1.730E-06,0.020
-1.720E-06,-0.040
-1.710E-06,0.000
-1.700E-06,-0.040
-1.690E-06,-0.020
-1.680E-06,0.000
-1.670E-06,0.080
-1.660E-06,0.020
-1.650E-06,0.040
-1.640E-06,0.060
-1.630E-06,0.040
-1.620E-06,0.040
-1.610E-06,-0.040
-1.600E-06,0.080
-1.590E-06,0.180
-1.580E-06,0.180
-1.570E-06,0.100
-1.560E-06,0.040
-1.550E-06,0.000
-1.540E-06,0.000
-1.530E-06,-0.140
-1.520E-06,0.000
-1.510E-06,0.340
-1.500E-06,0.180
-1.490E-06,0.040
-1.480E-06,-0.080
-1.470E-06,-0.260
-1.460E-06,-0.320
-1.450E-06,-0.160
-1.440E-06,-0.340
-1.430E-06,-0.420
-1.420E-06,-0.500
-1.410E-06,-0.600
-1.400E-06,-0.740
-1.390E-06,-0.620
-1.380E-06,-0.340
-1.370E-06,-0.400
-1.360E-06,-0.680
-1.350E-06,-0.840
-1.340E-06,-0.900
-1.330E-06,-0.880
-1.320E-06,-1.100
-1.310E-06,-1.100
-1.300E-06,-1.280
-1.290E-06,-1.600
-1.280E-06,-1.540
-1.270E-06,-1.360
-1.260E-06,-1.180
-1.250E-06,-1.100
-1.240E-06,-1.040
-1.230E-06,-1.020
-1.220E-06,-1.000
-1.210E-06,-0.800
-1.200E-06,-0.540
-1.190E-06,-0.380
-1.180E-06,-0.280
-1.170E-06,-0.080
-1.160E-06,0.160
-1.150E-06,0.620
-1.140E-06,1.280
-1.130E-06,1.700
-1.120E-06,1.800
-1.110E-06,2.180
-1.100E-06,2.400
-1.090E-06,2.380
-1.080E-06,2.200
-1.070E-06,2.160
-1.060E-06,1.880
-1.050E-06,1.200
-1.040E-06,0.560
-1.030E-06,0.140
-1.020E-06,-0.320
-1.010E-06,-0.880
-1.000E-06,-1.180
-9.900E-07,-1.380
-9.800E-07,-1.540
-9.700E-07,-1.680
-9.600E-07,-1.600
-9.500E-07,-1.600
-9.400E-07,-1.620
-9.300E-07,-1.480
-9.200E-07,-1.280
-9.100E-07,-1.200
-9.000E-07,-1.120
-8.900E-07,-1.100
-8.800E-07,-0.580
-8.700E-07,0.140
-8.600E-07,0.760
-8.500E-07,1.300
-8.400E-07,1.460
-8.300E-07,1.620
-8.200E-07,1.560
-8.100E-07,1.640
-8.000E-07,1.580
-7.900E-07,1.780
-7.800E-07,1.720
-7.700E-07,1.360
-7.600E-07,0.840
-7.500E-07,0.420
-7.400E-07,-0.040
-7.300E-07,-0.560
-7.200E-07,-0.940
-7.100E-07,-1.120
-7.000E-07,-1.320
-6.900E-07,-1.760
-6.800E-07,-2.080
-6.700E-07,-2.060
-6.600E-07,-1.980
-6.500E-07,-1.780
-6.400E-07,-1.360
-6.300E-07,-0.900
-6.200E-07,-0.540
-6.100E-07,-0.320
-6.000E-07,-0.060
-5.900E-07,0.140
-5.800E-07,0.280
-5.700E-07,0.340
-5.600E-07,0.600
-5.500E-07,0.920
-5.400E-07,1.000
-5.300E-07,0.940
-5.200E-07,0.900
-5.100E-07,0.760
-5.000E-07,0.740
-4.900E-07,0.760
-4.800E-07,0.860
-4.700E-07,0.700
-4.600E-07,0.420
-4.500E-07,0.100
-4.400E-07,-0.200
-4.300E-07,-0.480
-4.200E-07,-0.680
-4.100E-07,-0.760
-4.000E-07,-0.880
-3.900E-07,-1.080
-3.800E-07,-1.240
-3.700E-07,-1.280
-3.600E-07,-1.280
-3.500E-07,-1.180
-3.400E-07,-1.020
-3.300E-07,-0.800
-3.200E-07,-0.660
-3.100E-07,-0.440
-3.000E-07,-0.220
-2.900E-07,-0.060
-2.800E-07,0.060
-2.700E-07,0.220
-2.600E-07,0.360
-2.500E-07,0.400
-2.400E-07,0.420
-2.300E-07,0.440
-2.200E-07,0.380
-2.100E-07,0.220
-2.000E-07,0.100
-1.900E-07,0.000
-1.800E-07,-0.120
-1.700E-07,-0.200
-1.600E-07,-0.320
-1.500E-07,-0.380
-1.400E-07,-0.600
-1.300E-07,-0.780
-1.200E-07,-0.840
-1.100E-07,-0.880
-1.000E-07,-0.940
-9.000E-08,-0.920
-8.000E-08,-1.020
-7.000E-08,-0.820
-6.000E-08,-0.980
-5.000E-08,-0.580
-4.000E-08,2.760
-3.000E-08,2.760
-2.000E-08,1.520
-1.000E-08,-1.700
0.000E+00,1.740
1.000E-08,2.760
2.000E-08,1.520
3.000E-08,-0.300
4.000E-08,1.960
5.000E-08,-0.800
6.000E-08,-2.660
7.000E-08,-2.660
8.000E-08,-1.380
9.000E-08,-1.480
1.000E-07,-2.660
1.100E-07,-2.660
1.200E-07,-2.320
1.300E-07,-2.660
1.400E-07,-2.660
1.500E-07,-1.280
1.600E-07,-0.700
1.700E-07,-1.240
1.800E-07,-0.760
1.900E-07,0.160
2.000E-07,-0.120
2.100E-07,-0.800
2.200E-07,-0.560
2.300E-07,0.020
2.400E-07,0.360
2.500E-07,1.060
2.600E-07,1.780
2.700E-07,1.520
2.800E-07,1.000
2.900E-07,1.160
3.000E-07,1.460
3.100E-07,1.360
3.200E-07,1.360
3.300E-07,1.660
3.400E-07,1.300
3.500E-07,0.380
3.600E-07,-0.400
3.700E-07,-1.100
3.800E-07,-1.860
3.900E-07,-2.140
4.000E-07,-1.760
4.100E-07,-1.360
4.200E-07,-1.420
4.300E-07,-1.240
4.400E-07,-0.780
4.500E-07,-0.480
4.600E-07,-0.260
4.700E-07,0.360
4.800E-07,1.060
4.900E-07,1.160
5.000E-07,1.000
5.100E-07,1.200
5.200E-07,1.360
5.300E-07,1.100
5.400E-07,0.820
5.500E-07,0.720
5.600E-07,0.720
5.700E-07,0.240
5.800E-07,0.000
5.900E-07,-0.340
6.000E-07,-0.860
6.100E-07,-1.360
6.200E-07,-1.380
6.300E-07,-1.380
6.400E-07,-1.540
6.500E-07,-1.760
6.600E-07,-2.040
6.700E-07,-2.540
6.800E-07,-2.660
6.900E-07,-2.660
7.000E-07,-2.660
7.100E-07,-2.660
7.200E-07,-2.660
7.300E-07,-2.660
7.400E-07,-2.680
7.500E-07,-2.680
7.600E-07,-2.680
7.700E-07,-2.680
7.800E-07,-2.600
7.900E-07,-2.380
8.000E-07,-1.780
8.100E-07,-1.340
8.200E-07,-1.120
8.300E-07,-1.180
8.400E-07,-1.480
8.500E-07,-1.800
8.600E-07,-1.620
8.700E-07,-0.900
8.800E-07,-0.180
8.900E-07,0.160
9.000E-07,-0.120
9.100E-07,-0.540
9.200E-07,-0.920
9.300E-07,-1.380
9.400E-07,-1.760
9.500E-07,-2.180
9.600E-07,-2.580
9.700E-07,-2.640
9.800E-07,-2.660
9.900E-07,-2.060
1.000E-06,-0.820
1.010E-06,0.120
1.020E-06,0.360
1.030E-06,0.260
1.040E-06,0.260
1.050E-06,0.080
1.060E-06,-0.600
1.070E-06,-1.280
1.080E-06,-1.740
1.090E-06,-2.240
1.100E-06,-2.680
1.110E-06,-2.680
1.120E-06,-2.660
1.130E-06,-2.660
1.140E-06,-2.660
1.150E-06,-2.660
1.160E-06,-2.660
1.170E-06,-2.660
1.180E-06,-2.640
1.190E-06,-2.660
1.200E-06,-2.660
1.210E-06,-2.660
1.220E-06,-2.580
1.230E-06,-2.100
1.240E-06,-1.700
1.250E-06,-1.340
1.260E-06,-0.760
1.270E-06,-0.180
1.280E-06,0.340
1.290E-06,0.580
1.300E-06,0.540
1.310E-06,0.360
1.320E-06,0.260
1.330E-06,0.060
1.340E-06,-0.160
1.350E-06,-0.360
1.360E-06,-0.420
1.370E-06,-0.800
1.380E-06,-1.440
1.390E-06,-1.960
1.400E-06,-2.160
1.410E-06,-2.560
1.420E-06,-2.660
1.430E-06,-2.660
1.440E-06,-2.660
1.450E-06,-2.660
1.460E-06,-2.660
1.470E-06,-2.380
1.480E-06,-1.960
1.490E-06,-1.580
1.500E-06,-1.180
1.510E-06,-0.820
1.520E-06,-0.600
1.530E-06,-0.560
1.540E-06,-0.460
1.550E-06,-0.340
1.560E-06,-0.280
1.570E-06,-0.180
1.580E-06,-0.080
1.590E-06,0.000
1.600E-06,0.000
1.610E-06,-0.020
1.620E-06,0.040
1.630E-06,0.100
1.640E-06,0.180
1.650E-06,0.240
1.660E-06,0.280
1.670E-06,0.180
1.680E-06,-0.080
1.690E-06,-0.380
1.700E-06,-0.680
1.710E-06,-0.980
1.720E-06,-1.180
1.730E-06,-1.360
1.740E-06,-1.520
1.750E-06,-1.600
1.760E-06,-1.680
1.770E-06,-1.680
1.780E-06,-1.640
1.790E-06,-1.500
1.800E-06,-1.320
1.810E-06,-1.060
1.820E-06,-0.880
1.830E-06,-0.700
1.840E-06,-0.620
1.850E-06,-0.600
1.860E-06,-0.600
1.870E-06,-0.600
1.880E-06,-0.600
1.890E-06,-0.680
1.900E-06,-0.880
1.910E-06,-1.100
1.920E-06,-1.380
1.930E-06,-1.620
1.940E-06,-1.820
1.950E-06,-1.920
1.960E-06,-2.020
1.970E-06,-1.940
1.980E-06,-1.920
1.990E-06,-1.860
2.000E-06,-1.860
2.010E-06,-1.900
2.020E-06,-1.920
2.030E-06,-1.980
2.040E-06,-2.040
2.050E-06,-2.120
2.060E-06,-2.140
2.070E-06,-2.220
2.080E-06,-2.260
2.090E-06,-2.220
2.100E-06,-2.140
2.110E-06,-2.040
2.120E-06,-1.880
2.130E-06,-1.760
2.140E-06,-1.660
2.150E-06,-1.520
2.160E-06,-1.420
2.170E-06,-1.320
2.180E-06,-1.240
2.190E-06,-1.160
2.200E-06,-1.040
2.210E-06,-1.000
2.220E-06,-0.940
2.230E-06,-0.900
2.240E-06,-0.880
2.250E-06,-0.840
2.260E-06,-0.780
2.270E-06,-0.720
2.280E-06,-0.640
2.290E-06,-0.580
2.300E-06,-0.500
2.310E-06,-0.440
2.320E-06,-0.440
2.330E-06,-0.400
2.340E-06,-0.380
2.350E-06,-0.380
2.360E-06,-0.380
2.370E-06,-0.420
2.380E-06,-0.400
2.390E-06,-0.420
2.400E-06,-0.420
2.410E-06,-0.460
2.420E-06,-0.440
2.430E-06,-0.420
2.440E-06,-0.420
2.450E-06,-0.360
2.460E-06,-0.360
2.470E-06,-0.320
2.480E-06,-0.240
2.490E-06,-0.220
2.500E-06,-0.160
2.510E-06,-0.140
2.520E-06,-0.080
2.530E-06,-0.080
2.540E-06,-0.080
2.550E-06,-0.060
2.560E-06,-0.080
2.570E-06,-0.080
2.580E-06,-0.080
2.590E-06,-0.080
2.600E-06,-0.080
2.610E-06,-0.060
2.620E-06,0.020
2.630E-06,-0.020
2.640E-06,0.000
2.650E-06,0.060
2.660E-06,0.060
2.670E-06,0.100
2.680E-06,0.140
2.690E-06,0.160
2.700E-06,0.160
2.710E-06,0.160
2.720E-06,0.160
2.730E-06,0.120
2.740E-06,0.140
2.750E-06,0.140
2.760E-06,0.120
2.770E-06,0.120
2.780E-06,0.100
2.790E-06,0.100
2.800E-06,0.080
2.810E-06,0.080
2.820E-06,0.100
2.830E-06,0.100
2.840E-06,0.080
2.850E-06,0.080
2.860E-06,0.120
2.870E-06,0.120
2.880E-06,0.140
2.890E-06,0.080
2.900E-06,0.100
2.910E-06,0.120
2.920E-06,0.120
2.930E-06,0.080
2.940E-06,0.060
2.950E-06,-0.020
2.960E-06,-0.080
2.970E-06,-0.160
2.980E-06,-0.240
2.990E-06,-0.380
3.000E-06,-0.500
3.010E-06,-0.580
3.020E-06,-0.720
3.030E-06,-0.860
3.040E-06,-0.980
3.050E-06,-1.080
3.060E-06,-1.080
3.070E-06,-1.140
3.080E-06,-1.200
