mediciones/5-15 mala escala/27.77/WaveData46104.csv

#timebase=2000000(ps)
,#voltbase=100000(mv/100)
#size=4000
-8.400E-06,0.004
-8.390E-06,0.008
-8.380E-06,0.008
-8.370E-06,0.008
-8.360E-06,0.000
-8.350E-06,0.000
-8.340E-06,0.004
-8.330E-06,0.004
-8.320E-06,0.000
-8.310E-06,0.004
-8.300E-06,0.004
-8.290E-06,0.000
-8.280E-06,0.000
-8.270E-06,0.004
-8.260E-06,-0.004
-8.250E-06,0.004
-8.240E-06,0.000
-8.230E-06,0.004
-8.220E-06,0.004
-8.210E-06,0.004
-8.200E-06,0.004
-8.190E-06,0.004
-8.180E-06,0.000
-8.170E-06,0.004
-8.160E-06,0.008
-8.150E-06,0.008
-8.140E-06,0.004
-8.130E-06,0.008
-8.120E-06,0.008
-8.110E-06,0.008
-8.100E-06,0.008
-8.090E-06,-0.004
-8.080E-06,0.004
-8.070E-06,0.004
-8.060E-06,0.004
-8.050E-06,0.004
-8.040E-06,0.004
-8.030E-06,0.000
-8.020E-06,0.004
-8.010E-06,0.004
-8.000E-06,0.004
-7.990E-06,0.004
-7.980E-06,0.004
-7.970E-06,0.004
-7.960E-06,0.000
-7.950E-06,0.000
-7.940E-06,0.004
-7.930E-06,0.000
-7.920E-06,0.000
-7.910E-06,0.000
-7.900E-06,0.000
-7.890E-06,0.000
-7.880E-06,0.000
-7.870E-06,0.004
-7.860E-06,0.000
-7.850E-06,0.004
-7.840E-06,0.008
-7.830E-06,0.000
-7.820E-06,0.004
-7.810E-06,0.004
-7.800E-06,0.004
-7.790E-06,0.000
-7.780E-06,0.008
-7.770E-06,0.004
-7.760E-06,0.008
-7.750E-06,0.000
-7.740E-06,0.004
-7.730E-06,0.004
-7.720E-06,0.000
-7.710E-06,0.004
-7.700E-06,0.004
-7.690E-06,0.004
-7.680E-06,0.024
-7.670E-06,0.076
-7.660E-06,0.112
-7.650E-06,0.120
-7.640E-06,0.008
-7.630E-06,-0.124
-7.620E-06,-0.212
-7.610E-06,-0.204
-7.600E-06,-0.008
-7.590E-06,0.144
-7.580E-06,0.228
-7.570E-06,0.188
-7.560E-06,0.060
-7.550E-06,-0.124
-7.540E-06,-0.200
-7.530E-06,-0.160
-7.520E-06,-0.012
-7.510E-06,0.124
-7.500E-06,0.172
-7.490E-06,0.152
-7.480E-06,0.040
-7.470E-06,-0.072
-7.460E-06,-0.152
-7.450E-06,-0.140
-7.440E-06,-0.064
-7.430E-06,0.036
-7.420E-06,0.108
-7.410E-06,0.136
-7.400E-06,0.096
-7.390E-06,0.012
-7.380E-06,-0.064
-7.370E-06,-0.112
-7.360E-06,-0.092
-7.350E-06,-0.016
-7.340E-06,0.064
-7.330E-06,0.112
-7.320E-06,0.096
-7.310E-06,0.032
-7.300E-06,-0.056
-7.290E-06,-0.116
-7.280E-06,-0.108
-7.270E-06,-0.048
-7.260E-06,0.024
-7.250E-06,0.092
-7.240E-06,0.088
-7.230E-06,0.064
-7.220E-06,0.004
-7.210E-06,-0.036
-7.200E-06,-0.056
-7.190E-06,-0.036
-7.180E-06,0.004
-7.170E-06,0.032
-7.160E-06,0.056
-7.150E-06,0.048
-7.140E-06,0.020
-7.130E-06,-0.024
-7.120E-06,-0.048
-7.110E-06,-0.048
-7.100E-06,-0.028
-7.090E-06,0.012
-7.080E-06,0.040
-7.070E-06,0.060
-7.060E-06,0.044
-7.050E-06,0.016
-7.040E-06,-0.016
-7.030E-06,-0.032
-7.020E-06,-0.028
-7.010E-06,0.000
-7.000E-06,0.024
-6.990E-06,0.032
-6.980E-06,0.032
-6.970E-06,0.008
-6.960E-06,-0.004
-6.950E-06,-0.024
-6.940E-06,-0.020
-6.930E-06,-0.012
-6.920E-06,0.000
-6.910E-06,0.020
-6.900E-06,0.028
-6.890E-06,0.020
-6.880E-06,0.004
-6.870E-06,-0.004
-6.860E-06,-0.012
-6.850E-06,0.000
-6.840E-06,0.004
-6.830E-06,0.016
-6.820E-06,0.012
-6.810E-06,0.012
-6.800E-06,-0.004
-6.790E-06,-0.008
-6.780E-06,-0.008
-6.770E-06,-0.008
-6.760E-06,0.000
-6.750E-06,0.008
-6.740E-06,0.012
-6.730E-06,0.024
-6.720E-06,0.016
-6.710E-06,0.004
-6.700E-06,-0.004
-6.690E-06,-0.012
-6.680E-06,-0.008
-6.670E-06,0.008
-6.660E-06,0.016
-6.650E-06,0.020
-6.640E-06,0.016
-6.630E-06,0.008
-6.620E-06,-0.004
-6.610E-06,-0.004
-6.600E-06,-0.004
-6.590E-06,0.008
-6.580E-06,0.016
-6.570E-06,0.008
-6.560E-06,0.000
-6.550E-06,0.004
-6.540E-06,0.008
-6.530E-06,0.000
-6.520E-06,0.008
-6.510E-06,0.008
-6.500E-06,0.008
-6.490E-06,-0.008
-6.480E-06,0.000
-6.470E-06,0.000
-6.460E-06,0.004
-6.450E-06,0.004
-6.440E-06,0.012
-6.430E-06,0.004
-6.420E-06,-0.004
-6.410E-06,-0.004
-6.400E-06,0.004
-6.390E-06,0.012
-6.380E-06,0.012
-6.370E-06,0.004
-6.360E-06,-0.008
-6.350E-06,-0.008
-6.340E-06,0.000
-6.330E-06,0.020
-6.320E-06,0.012
-6.310E-06,0.012
-6.300E-06,0.000
-6.290E-06,-0.012
-6.280E-06,-0.012
-6.270E-06,0.000
-6.260E-06,0.012
-6.250E-06,0.028
-6.240E-06,0.016
-6.230E-06,-0.004
-6.220E-06,-0.012
-6.210E-06,-0.004
-6.200E-06,0.000
-6.190E-06,0.016
-6.180E-06,0.028
-6.170E-06,0.028
-6.160E-06,0.008
-6.150E-06,-0.004
-6.140E-06,-0.004
-6.130E-06,0.000
-6.120E-06,0.000
-6.110E-06,0.016
-6.100E-06,0.020
-6.090E-06,-0.004
-6.080E-06,-0.020
-6.070E-06,-0.024
-6.060E-06,-0.012
-6.050E-06,0.004
-6.040E-06,0.036
-6.030E-06,0.044
-6.020E-06,0.004
-6.010E-06,-0.020
-6.000E-06,-0.044
-5.990E-06,-0.036
-5.980E-06,0.008
-5.970E-06,0.044
-5.960E-06,0.040
-5.950E-06,0.008
-5.940E-06,-0.020
-5.930E-06,-0.028
-5.920E-06,-0.016
-5.910E-06,0.000
-5.900E-06,0.016
-5.890E-06,0.020
-5.880E-06,0.016
-5.870E-06,0.004
-5.860E-06,0.000
-5.850E-06,0.008
-5.840E-06,0.008
-5.830E-06,0.008
-5.820E-06,0.000
-5.810E-06,-0.004
-5.800E-06,0.004
-5.790E-06,0.008
-5.780E-06,0.020
-5.770E-06,0.008
-5.760E-06,0.004
-5.750E-06,-0.012
-5.740E-06,-0.012
-5.730E-06,0.000
-5.720E-06,0.020
-5.710E-06,0.024
-5.700E-06,0.020
-5.690E-06,0.000
-5.680E-06,-0.012
-5.670E-06,-0.004
-5.660E-06,0.008
-5.650E-06,0.012
-5.640E-06,0.012
-5.630E-06,0.012
-5.620E-06,-0.004
-5.610E-06,-0.004
-5.600E-06,0.008
-5.590E-06,0.016
-5.580E-06,0.020
-5.570E-06,0.012
-5.560E-06,0.004
-5.550E-06,0.000
-5.540E-06,0.008
-5.530E-06,0.020
-5.520E-06,0.020
-5.510E-06,0.028
-5.500E-06,0.024
-5.490E-06,0.008
-5.480E-06,-0.004
-5.470E-06,-0.008
-5.460E-06,0.000
-5.450E-06,0.020
-5.440E-06,0.024
-5.430E-06,0.024
-5.420E-06,0.044
-5.410E-06,0.028
-5.400E-06,-0.036
-5.390E-06,-0.056
-5.380E-06,-0.060
-5.370E-06,-0.012
-5.360E-06,0.008
-5.350E-06,0.044
-5.340E-06,0.024
-5.330E-06,0.004
-5.320E-06,-0.028
-5.310E-06,-0.036
-5.300E-06,-0.008
-5.290E-06,0.020
-5.280E-06,0.036
-5.270E-06,0.016
-5.260E-06,0.008
-5.250E-06,-0.020
-5.240E-06,-0.024
-5.230E-06,-0.004
-5.220E-06,0.012
-5.210E-06,0.024
-5.200E-06,0.020
-5.190E-06,-0.004
-5.180E-06,-0.020
-5.170E-06,-0.020
-5.160E-06,-0.008
-5.150E-06,0.020
-5.140E-06,0.036
-5.130E-06,0.040
-5.120E-06,0.020
-5.110E-06,-0.004
-5.100E-06,-0.020
-5.090E-06,-0.016
-5.080E-06,0.008
-5.070E-06,0.024
-5.060E-06,0.044
-5.050E-06,0.036
-5.040E-06,0.020
-5.030E-06,0.000
-5.020E-06,0.000
-5.010E-06,-0.004
-5.000E-06,0.004
-4.990E-06,0.012
-4.980E-06,0.028
-4.970E-06,0.004
-4.960E-06,-0.016
-4.950E-06,-0.044
-4.940E-06,-0.100
-4.930E-06,-0.060
-4.920E-06,-0.044
-4.910E-06,0.040
-4.900E-06,0.132
-4.890E-06,0.108
-4.880E-06,0.004
-4.870E-06,-0.156
-4.860E-06,-0.132
-4.850E-06,-0.076
-4.840E-06,0.056
-4.830E-06,0.132
-4.820E-06,0.124
-4.810E-06,0.016
-4.800E-06,-0.096
-4.790E-06,-0.120
-4.780E-06,-0.100
-4.770E-06,0.048
-4.760E-06,0.108
-4.750E-06,0.124
-4.740E-06,0.024
-4.730E-06,-0.024
-4.720E-06,-0.080
-4.710E-06,-0.040
-4.700E-06,0.008
-4.690E-06,0.028
-4.680E-06,0.044
-4.670E-06,0.052
-4.660E-06,0.036
-4.650E-06,-0.012
-4.640E-06,0.000
-4.630E-06,-0.008
-4.620E-06,0.008
-4.610E-06,0.024
-4.600E-06,0.064
-4.590E-06,0.000
-4.580E-06,-0.044
-4.570E-06,-0.032
-4.560E-06,0.000
-4.550E-06,-0.016
-4.540E-06,0.012
-4.530E-06,0.000
-4.520E-06,-0.016
-4.510E-06,-0.012
-4.500E-06,0.012
-4.490E-06,0.032
-4.480E-06,0.032
-4.470E-06,0.008
-4.460E-06,-0.020
-4.450E-06,-0.040
-4.440E-06,-0.028
-4.430E-06,0.032
-4.420E-06,0.044
-4.410E-06,0.036
-4.400E-06,0.000
-4.390E-06,-0.020
-4.380E-06,-0.032
-4.370E-06,-0.008
-4.360E-06,0.024
-4.350E-06,0.048
-4.340E-06,0.040
-4.330E-06,0.008
-4.320E-06,-0.008
-4.310E-06,-0.020
-4.300E-06,0.000
-4.290E-06,0.024
-4.280E-06,0.064
-4.270E-06,0.068
-4.260E-06,0.052
-4.250E-06,0.028
-4.240E-06,-0.020
-4.230E-06,-0.076
-4.220E-06,-0.072
-4.210E-06,-0.044
-4.200E-06,0.028
-4.190E-06,0.132
-4.180E-06,0.188
-4.170E-06,0.108
-4.160E-06,0.004
-4.150E-06,-0.112
-4.140E-06,-0.184
-4.130E-06,-0.160
-4.120E-06,-0.124
-4.110E-06,0.080
-4.100E-06,0.132
-4.090E-06,0.168
-4.080E-06,0.120
-4.070E-06,0.040
-4.060E-06,-0.136
-4.050E-06,-0.296
-4.040E-06,-0.208
-4.030E-06,-0.020
-4.020E-06,0.220
-4.010E-06,0.284
-4.000E-06,0.208
-3.990E-06,-0.032
-3.980E-06,-0.212
-3.970E-06,-0.272
-3.960E-06,-0.144
-3.950E-06,0.068
-3.940E-06,0.220
-3.930E-06,0.256
-3.920E-06,0.144
-3.910E-06,-0.040
-3.900E-06,-0.192
-3.890E-06,-0.204
-3.880E-06,-0.136
-3.870E-06,0.024
-3.860E-06,0.152
-3.850E-06,0.204
-3.840E-06,0.144
-3.830E-06,0.016
-3.820E-06,-0.100
-3.810E-06,-0.172
-3.800E-06,-0.120
-3.790E-06,-0.004
-3.780E-06,0.132
-3.770E-06,0.196
-3.760E-06,0.192
-3.750E-06,0.104
-3.740E-06,-0.024
-3.730E-06,-0.184
-3.720E-06,-0.236
-3.710E-06,-0.164
-3.700E-06,-0.044
-3.690E-06,0.124
-3.680E-06,0.228
-3.670E-06,0.196
-3.660E-06,0.036
-3.650E-06,-0.176
-3.640E-06,-0.256
-3.630E-06,-0.192
-3.620E-06,0.008
-3.610E-06,0.188
-3.600E-06,0.260
-3.590E-06,0.172
-3.580E-06,-0.004
-3.570E-06,-0.164
-3.560E-06,-0.220
-3.550E-06,-0.128
-3.540E-06,0.036
-3.530E-06,0.152
-3.520E-06,0.152
-3.510E-06,0.124
-3.500E-06,-0.008
-3.490E-06,-0.120
-3.480E-06,-0.144
-3.470E-06,-0.044
-3.460E-06,0.000
-3.450E-06,0.020
-3.440E-06,0.076
-3.430E-06,0.092
-3.420E-06,0.096
-3.410E-06,0.016
-3.400E-06,-0.084
-3.390E-06,-0.176
-3.380E-06,-0.144
-3.370E-06,-0.040
-3.360E-06,0.108
-3.350E-06,0.192
-3.340E-06,0.168
-3.330E-06,0.040
-3.320E-06,-0.104
-3.310E-06,-0.172
-3.300E-06,-0.140
-3.290E-06,-0.008
-3.280E-06,0.124
-3.270E-06,0.188
-3.260E-06,0.144
-3.250E-06,0.040
-3.240E-06,-0.084
-3.230E-06,-0.120
-3.220E-06,-0.096
-3.210E-06,0.008
-3.200E-06,0.108
-3.190E-06,0.200
-3.180E-06,0.224
-3.170E-06,0.140
-3.160E-06,-0.036
-3.150E-06,-0.196
-3.140E-06,-0.276
-3.130E-06,-0.236
-3.120E-06,-0.064
-3.110E-06,0.136
-3.100E-06,0.256
-3.090E-06,0.192
-3.080E-06,0.040
-3.070E-06,-0.148
-3.060E-06,-0.236
-3.050E-06,-0.172
-3.040E-06,-0.024
-3.030E-06,0.124
-3.020E-06,0.192
-3.010E-06,0.160
-3.000E-06,0.036
-2.990E-06,-0.084
-2.980E-06,-0.160
-2.970E-06,-0.124
-2.960E-06,-0.020
-2.950E-06,0.100
-2.940E-06,0.184
-2.930E-06,0.208
-2.920E-06,0.156
-2.910E-06,0.008
-2.900E-06,-0.140
-2.890E-06,-0.220
-2.880E-06,-0.176
-2.870E-06,-0.024
-2.860E-06,0.124
-2.850E-06,0.196
-2.840E-06,0.196
-2.830E-06,0.056
-2.820E-06,-0.072
-2.810E-06,-0.152
-2.800E-06,-0.176
-2.790E-06,-0.128
-2.780E-06,0.024
-2.770E-06,0.136
-2.760E-06,0.152
-2.750E-06,0.108
-2.740E-06,0.024
-2.730E-06,-0.040
-2.720E-06,-0.132
-2.710E-06,-0.156
-2.700E-06,-0.076
-2.690E-06,0.020
-2.680E-06,0.120
-2.670E-06,0.136
-2.660E-06,0.088
-2.650E-06,-0.044
-2.640E-06,-0.112
-2.630E-06,-0.092
-2.620E-06,0.000
-2.610E-06,0.080
-2.600E-06,0.136
-2.590E-06,0.076
-2.580E-06,-0.028
-2.570E-06,-0.100
-2.560E-06,-0.100
-2.550E-06,-0.064
-2.540E-06,-0.024
-2.530E-06,0.028
-2.520E-06,0.072
-2.510E-06,0.100
-2.500E-06,0.068
-2.490E-06,0.012
-2.480E-06,-0.040
-2.470E-06,-0.068
-2.460E-06,-0.044
-2.450E-06,0.024
-2.440E-06,0.096
-2.430E-06,0.128
-2.420E-06,0.112
-2.410E-06,0.040
-2.400E-06,-0.036
-2.390E-06,-0.116
-2.380E-06,-0.128
-2.370E-06,-0.056
-2.360E-06,0.036
-2.350E-06,0.108
-2.340E-06,0.108
-2.330E-06,0.060
-2.320E-06,-0.016
-2.310E-06,-0.072
-2.300E-06,-0.076
-2.290E-06,-0.016
-2.280E-06,0.044
-2.270E-06,0.100
-2.260E-06,0.096
-2.250E-06,0.060
-2.240E-06,-0.016
-2.230E-06,-0.064
-2.220E-06,-0.040
-2.210E-06,0.024
-2.200E-06,0.056
-2.190E-06,-0.092
-2.180E-06,-0.172
-2.170E-06,-0.108
-2.160E-06,0.064
-2.150E-06,0.036
-2.140E-06,0.092
-2.130E-06,0.028
-2.120E-06,-0.008
-2.110E-06,-0.008
-2.100E-06,0.004
-2.090E-06,0.104
-2.080E-06,0.040
-2.070E-06,-0.052
-2.060E-06,-0.168
-2.050E-06,-0.156
-2.040E-06,-0.128
-2.030E-06,0.084
-2.020E-06,0.196
-2.010E-06,0.192
-2.000E-06,0.040
-1.990E-06,-0.112
-1.980E-06,-0.176
-1.970E-06,-0.116
-1.960E-06,0.028
-1.950E-06,0.128
-1.940E-06,0.172
-1.930E-06,0.096
-1.920E-06,0.040
-1.910E-06,-0.008
-1.900E-06,-0.008
-1.890E-06,0.012
-1.880E-06,0.016
-1.870E-06,-0.180
-1.860E-06,-0.072
-1.850E-06,-0.004
-1.840E-06,0.040
-1.830E-06,0.032
-1.820E-06,0.088
-1.810E-06,-0.072
-1.800E-06,-0.256
-1.790E-06,-0.144
-1.780E-06,0.012
-1.770E-06,0.248
-1.760E-06,0.188
-1.750E-06,0.104
-1.740E-06,-0.124
-1.730E-06,-0.208
-1.720E-06,-0.160
-1.710E-06,0.024
-1.700E-06,0.196
-1.690E-06,0.200
-1.680E-06,0.128
-1.670E-06,-0.064
-1.660E-06,-0.124
-1.650E-06,-0.144
-1.640E-06,-0.016
-1.630E-06,0.048
-1.620E-06,0.124
-1.610E-06,0.080
-1.600E-06,0.028
-1.590E-06,-0.004
-1.580E-06,-0.036
-1.570E-06,-0.008
-1.560E-06,-0.004
-1.550E-06,0.008
-1.540E-06,-0.040
-1.530E-06,-0.012
-1.520E-06,0.008
-1.510E-06,0.028
-1.500E-06,0.056
-1.490E-06,0.028
-1.480E-06,-0.012
-1.470E-06,-0.072
-1.460E-06,-0.052
-1.450E-06,0.016
-1.440E-06,0.072
-1.430E-06,0.076
-1.420E-06,0.032
-1.410E-06,-0.024
-1.400E-06,-0.032
-1.390E-06,-0.024
-1.380E-06,-0.016
-1.370E-06,-0.044
-1.360E-06,0.008
-1.350E-06,0.044
-1.340E-06,0.020
-1.330E-06,0.024
-1.320E-06,-0.040
-1.310E-06,-0.040
-1.300E-06,-0.016
-1.290E-06,0.068
-1.280E-06,0.108
-1.270E-06,0.084
-1.260E-06,-0.004
-1.250E-06,-0.108
-1.240E-06,-0.148
-1.230E-06,-0.112
-1.220E-06,0.040
-1.210E-06,0.140
-1.200E-06,0.136
-1.190E-06,0.032
-1.180E-06,-0.064
-1.170E-06,-0.108
-1.160E-06,-0.068
-1.150E-06,0.000
-1.140E-06,0.060
-1.130E-06,0.088
-1.120E-06,0.092
-1.110E-06,0.076
-1.100E-06,0.044
-1.090E-06,0.008
-1.080E-06,-0.020
-1.070E-06,-0.020
-1.060E-06,-0.012
-1.050E-06,-0.004
-1.040E-06,-0.012
-1.030E-06,-0.008
-1.020E-06,0.024
-1.010E-06,0.044
-1.000E-06,0.048
-9.900E-07,0.012
-9.800E-07,-0.020
-9.700E-07,-0.056
-9.600E-07,-0.036
-9.500E-07,0.024
-9.400E-07,0.056
-9.300E-07,0.072
-9.200E-07,0.084
-9.100E-07,0.060
-9.000E-07,0.008
-8.900E-07,-0.020
-8.800E-07,-0.032
-8.700E-07,-0.040
-8.600E-07,-0.008
-8.500E-07,0.008
-8.400E-07,0.008
-8.300E-07,0.008
-8.200E-07,0.044
-8.100E-07,0.036
-8.000E-07,0.060
-7.900E-07,0.028
-7.800E-07,0.000
-7.700E-07,-0.024
-7.600E-07,-0.064
-7.500E-07,-0.044
-7.400E-07,-0.004
-7.300E-07,0.092
-7.200E-07,0.124
-7.100E-07,0.040
-7.000E-07,-0.100
-6.900E-07,-0.168
-6.800E-07,-0.144
-6.700E-07,-0.060
-6.600E-07,0.100
-6.500E-07,0.200
-6.400E-07,0.160
-6.300E-07,0.004
-6.200E-07,-0.156
-6.100E-07,-0.160
-6.000E-07,-0.064
-5.900E-07,0.068
-5.800E-07,0.144
-5.700E-07,0.108
-5.600E-07,0.036
-5.500E-07,-0.048
-5.400E-07,-0.052
-5.300E-07,-0.136
-5.200E-07,-0.156
-5.100E-07,-0.192
-5.000E-07,-0.136
-4.900E-07,0.068
-4.800E-07,0.292
-4.700E-07,0.248
-4.600E-07,-0.012
-4.500E-07,-0.180
-4.400E-07,-0.240
-4.300E-07,-0.060
-4.200E-07,0.076
-4.100E-07,0.196
-4.000E-07,0.140
-3.900E-07,0.052
-3.800E-07,-0.056
-3.700E-07,-0.100
-3.600E-07,-0.044
-3.500E-07,0.036
-3.400E-07,0.112
-3.300E-07,0.104
-3.200E-07,0.080
-3.100E-07,0.024
-3.000E-07,0.036
-2.900E-07,0.012
-2.800E-07,0.016
-2.700E-07,-0.028
-2.600E-07,-0.012
-2.500E-07,-0.060
-2.400E-07,-0.100
-2.300E-07,-0.072
-2.200E-07,-0.008
-2.100E-07,0.040
-2.000E-07,0.064
-1.900E-07,0.096
-1.800E-07,0.044
-1.700E-07,0.012
-1.600E-07,-0.016
-1.500E-07,-0.024
-1.400E-07,0.036
-1.300E-07,0.080
-1.200E-07,-0.052
-1.100E-07,-0.208
-1.000E-07,-0.128
-9.000E-08,0.032
-8.000E-08,0.140
-7.000E-08,0.332
-6.000E-08,0.052
-5.000E-08,-0.120
-4.000E-08,-0.400
-3.000E-08,-0.436
-2.000E-08,-0.132
-1.000E-08,0.288
0.000E+00,0.500
1.000E-08,0.276
2.000E-08,0.060
3.000E-08,-0.248
4.000E-08,-0.296
5.000E-08,-0.124
6.000E-08,0.080
7.000E-08,0.044
8.000E-08,0.088
9.000E-08,0.144
1.000E-07,0.088
1.100E-07,-0.068
1.200E-07,-0.188
1.300E-07,-0.160
1.400E-07,-0.008
1.500E-07,0.164
1.600E-07,0.172
1.700E-07,0.124
1.800E-07,-0.040
1.900E-07,-0.140
2.000E-07,-0.132
2.100E-07,-0.016
2.200E-07,0.116
2.300E-07,0.176
2.400E-07,0.164
2.500E-07,0.012
2.600E-07,-0.136
2.700E-07,-0.220
2.800E-07,-0.136
2.900E-07,0.024
3.000E-07,0.140
3.100E-07,0.112
3.200E-07,0.044
3.300E-07,-0.028
3.400E-07,-0.072
3.500E-07,-0.052
3.600E-07,-0.032
3.700E-07,0.008
3.800E-07,0.064
3.900E-07,0.108
4.000E-07,0.096
4.100E-07,0.056
4.200E-07,-0.020
4.300E-07,-0.076
4.400E-07,-0.072
4.500E-07,-0.012
4.600E-07,0.084
4.700E-07,0.172
4.800E-07,0.184
4.900E-07,0.128
5.000E-07,0.008
5.100E-07,-0.104
5.200E-07,-0.180
5.300E-07,-0.156
5.400E-07,-0.076
5.500E-07,0.040
5.600E-07,0.136
5.700E-07,0.152
5.800E-07,0.076
5.900E-07,-0.008
6.000E-07,-0.076
6.100E-07,-0.104
6.200E-07,-0.040
6.300E-07,0.036
6.400E-07,0.120
6.500E-07,0.100
6.600E-07,0.056
6.700E-07,0.008
6.800E-07,-0.004
6.900E-07,-0.144
7.000E-07,-0.296
7.100E-07,-0.360
7.200E-07,-0.144
7.300E-07,0.180
7.400E-07,0.456
7.500E-07,0.348
7.600E-07,-0.040
7.700E-07,-0.324
7.800E-07,-0.424
7.900E-07,-0.192
8.000E-07,0.092
8.100E-07,0.344
8.200E-07,0.296
8.300E-07,0.104
8.400E-07,-0.140
8.500E-07,-0.240
8.600E-07,-0.160
8.700E-07,0.008
8.800E-07,0.144
8.900E-07,0.176
9.000E-07,0.124
9.100E-07,0.012
9.200E-07,-0.032
9.300E-07,-0.040
9.400E-07,0.004
9.500E-07,0.044
9.600E-07,0.132
9.700E-07,0.120
9.800E-07,0.032
9.900E-07,-0.100
1.000E-06,-0.180
1.010E-06,-0.132
1.020E-06,-0.024
1.030E-06,0.124
1.040E-06,0.164
1.050E-06,0.120
1.060E-06,0.000
1.070E-06,-0.084
1.080E-06,-0.124
1.090E-06,-0.076
1.100E-06,0.000
1.110E-06,0.096
1.120E-06,0.156
1.130E-06,0.144
1.140E-06,0.088
1.150E-06,-0.008
1.160E-06,-0.008
1.170E-06,-0.008
1.180E-06,0.056
1.190E-06,0.148
1.200E-06,0.208
1.210E-06,0.136
1.220E-06,0.012
1.230E-06,-0.136
1.240E-06,-0.284
1.250E-06,-0.304
1.260E-06,-0.148
1.270E-06,0.092
1.280E-06,0.292
1.290E-06,0.256
1.300E-06,-0.004
1.310E-06,-0.212
1.320E-06,-0.212
1.330E-06,-0.068
1.340E-06,0.052
1.350E-06,0.144
1.360E-06,0.128
1.370E-06,0.036
1.380E-06,-0.008
1.390E-06,-0.052
1.400E-06,-0.144
1.410E-06,-0.160
1.420E-06,-0.088
1.430E-06,-0.024
1.440E-06,0.100
1.450E-06,0.052
1.460E-06,-0.036
1.470E-06,-0.096
1.480E-06,-0.064
1.490E-06,-0.008
1.500E-06,0.096
1.510E-06,0.128
1.520E-06,0.052
1.530E-06,-0.036
1.540E-06,-0.072
1.550E-06,-0.016
1.560E-06,0.060
1.570E-06,0.172
1.580E-06,0.196
1.590E-06,0.152
1.600E-06,0.012
1.610E-06,-0.124
1.620E-06,-0.212
1.630E-06,-0.172
1.640E-06,-0.032
1.650E-06,0.092
1.660E-06,0.176
1.670E-06,0.176
1.680E-06,0.124
1.690E-06,0.020
1.700E-06,-0.020
1.710E-06,-0.004
1.720E-06,0.056
1.730E-06,0.108
1.740E-06,0.092
1.750E-06,-0.024
1.760E-06,-0.172
1.770E-06,-0.204
1.780E-06,-0.140
1.790E-06,0.012
1.800E-06,0.100
1.810E-06,0.128
1.820E-06,0.076
1.830E-06,-0.004
1.840E-06,-0.056
1.850E-06,-0.060
1.860E-06,-0.004
1.870E-06,0.028
1.880E-06,0.044
1.890E-06,0.044
1.900E-06,0.036
1.910E-06,-0.004
1.920E-06,0.000
1.930E-06,0.028
1.940E-06,0.036
1.950E-06,0.072
1.960E-06,0.124
1.970E-06,0.140
1.980E-06,0.136
1.990E-06,0.192
2.000E-06,0.124
2.010E-06,0.012
2.020E-06,-0.156
2.030E-06,-0.244
2.040E-06,-0.268
2.050E-06,-0.168
2.060E-06,0.020
2.070E-06,0.184
2.080E-06,0.188
2.090E-06,0.056
2.100E-06,-0.044
2.110E-06,-0.136
2.120E-06,-0.084
2.130E-06,0.020
2.140E-06,0.152
2.150E-06,0.192
2.160E-06,0.124
2.170E-06,0.048
2.180E-06,-0.020
2.190E-06,0.020
2.200E-06,0.060
2.210E-06,0.164
2.220E-06,0.236
2.230E-06,0.252
2.240E-06,0.144
2.250E-06,-0.044
2.260E-06,-0.192
2.270E-06,-0.248
2.280E-06,-0.112
2.290E-06,0.096
2.300E-06,0.236
2.310E-06,0.288
2.320E-06,0.172
2.330E-06,0.048
2.340E-06,-0.352
2.350E-06,-0.508
2.360E-06,-0.512
2.370E-06,-0.140
2.380E-06,0.288
2.390E-06,0.540
2.400E-06,0.540
2.410E-06,0.240
2.420E-06,-0.072
2.430E-06,-0.444
2.440E-06,-0.508
2.450E-06,-0.512
2.460E-06,-0.512
2.470E-06,-0.188
2.480E-06,0.420
2.490E-06,0.540
2.500E-06,0.540
2.510E-06,0.104
2.520E-06,-0.480
2.530E-06,-0.512
2.540E-06,-0.468
2.550E-06,0.040
2.560E-06,0.512
2.570E-06,0.544
2.580E-06,0.408
2.590E-06,-0.032
2.600E-06,-0.368
2.610E-06,-0.404
2.620E-06,-0.140
2.630E-06,0.188
2.640E-06,0.460
2.650E-06,0.496
2.660E-06,0.248
2.670E-06,-0.120
2.680E-06,-0.400
2.690E-06,-0.488
2.700E-06,-0.332
2.710E-06,0.044
2.720E-06,0.292
2.730E-06,0.308
2.740E-06,0.140
2.750E-06,-0.088
2.760E-06,-0.176
2.770E-06,-0.156
2.780E-06,-0.068
2.790E-06,0.056
2.800E-06,0.132
2.810E-06,0.160
2.820E-06,0.132
2.830E-06,0.044
2.840E-06,-0.008
2.850E-06,-0.008
2.860E-06,0.060
2.870E-06,0.160
2.880E-06,0.232
2.890E-06,0.284
2.900E-06,0.256
2.910E-06,0.192
2.920E-06,0.136
2.930E-06,0.096
2.940E-06,0.096
2.950E-06,0.068
2.960E-06,0.044
2.970E-06,0.000
2.980E-06,-0.032
2.990E-06,-0.032
3.000E-06,-0.004
3.010E-06,0.024
3.020E-06,0.056
3.030E-06,0.100
3.040E-06,0.076
3.050E-06,0.032
3.060E-06,-0.012
3.070E-06,0.016
3.080E-06,0.056
3.090E-06,0.128
3.100E-06,0.128
3.110E-06,0.036
3.120E-06,-0.084
3.130E-06,-0.264
3.140E-06,-0.336
3.150E-06,-0.256
3.160E-06,-0.020
3.170E-06,0.256
3.180E-06,0.420
3.190E-06,0.300
3.200E-06,0.064
3.210E-06,-0.104
3.220E-06,-0.088
3.230E-06,0.112
