mediciones/5-15 mala escala/27.77/WaveData4692.csv

#timebase=2000000(ps)
,#voltbase=100000(mv/100)
#size=4000
-8.400E-06,0.000
-8.390E-06,0.004
-8.380E-06,0.000
-8.370E-06,0.000
-8.360E-06,0.004
-8.350E-06,-0.004
-8.340E-06,0.004
-8.330E-06,0.008
-8.320E-06,0.000
-8.310E-06,0.000
-8.300E-06,0.004
-8.290E-06,0.000
-8.280E-06,-0.004
-8.270E-06,0.000
-8.260E-06,0.000
-8.250E-06,0.004
-8.240E-06,0.004
-8.230E-06,0.008
-8.220E-06,-0.004
-8.210E-06,-0.004
-8.200E-06,0.004
-8.190E-06,0.004
-8.180E-06,0.000
-8.170E-06,0.000
-8.160E-06,0.000
-8.150E-06,0.000
-8.140E-06,0.000
-8.130E-06,0.008
-8.120E-06,0.012
-8.110E-06,0.000
-8.100E-06,-0.004
-8.090E-06,0.000
-8.080E-06,0.004
-8.070E-06,0.004
-8.060E-06,0.000
-8.050E-06,0.004
-8.040E-06,0.004
-8.030E-06,0.008
-8.020E-06,-0.004
-8.010E-06,0.000
-8.000E-06,0.000
-7.990E-06,0.000
-7.980E-06,0.004
-7.970E-06,0.008
-7.960E-06,0.000
-7.950E-06,0.004
-7.940E-06,0.000
-7.930E-06,0.004
-7.920E-06,0.000
-7.910E-06,0.004
-7.900E-06,-0.004
-7.890E-06,-0.004
-7.880E-06,0.004
-7.870E-06,0.000
-7.860E-06,0.004
-7.850E-06,-0.004
-7.840E-06,-0.004
-7.830E-06,0.004
-7.820E-06,0.000
-7.810E-06,0.004
-7.800E-06,0.004
-7.790E-06,0.004
-7.780E-06,0.004
-7.770E-06,0.004
-7.760E-06,-0.004
-7.750E-06,0.004
-7.740E-06,0.004
-7.730E-06,-0.004
-7.720E-06,0.000
-7.710E-06,0.004
-7.700E-06,0.000
-7.690E-06,0.004
-7.680E-06,0.004
-7.670E-06,0.000
-7.660E-06,0.000
-7.650E-06,0.004
-7.640E-06,0.004
-7.630E-06,0.004
-7.620E-06,0.004
-7.610E-06,0.000
-7.600E-06,0.000
-7.590E-06,0.004
-7.580E-06,0.004
-7.570E-06,0.000
-7.560E-06,0.000
-7.550E-06,0.000
-7.540E-06,0.000
-7.530E-06,-0.004
-7.520E-06,0.004
-7.510E-06,-0.004
-7.500E-06,0.000
-7.490E-06,0.000
-7.480E-06,-0.004
-7.470E-06,0.000
-7.460E-06,0.008
-7.450E-06,0.000
-7.440E-06,0.004
-7.430E-06,-0.004
-7.420E-06,0.000
-7.410E-06,-0.004
-7.400E-06,0.004
-7.390E-06,0.000
-7.380E-06,0.004
-7.370E-06,0.004
-7.360E-06,0.000
-7.350E-06,0.004
-7.340E-06,0.000
-7.330E-06,0.000
-7.320E-06,0.004
-7.310E-06,0.004
-7.300E-06,0.004
-7.290E-06,0.000
-7.280E-06,0.004
-7.270E-06,0.004
-7.260E-06,0.008
-7.250E-06,0.004
-7.240E-06,-0.004
-7.230E-06,0.000
-7.220E-06,0.004
-7.210E-06,0.000
-7.200E-06,0.000
-7.190E-06,0.004
-7.180E-06,0.000
-7.170E-06,0.000
-7.160E-06,0.000
-7.150E-06,0.000
-7.140E-06,0.004
-7.130E-06,0.008
-7.120E-06,0.000
-7.110E-06,0.000
-7.100E-06,0.004
-7.090E-06,0.004
-7.080E-06,0.000
-7.070E-06,0.000
-7.060E-06,0.004
-7.050E-06,0.004
-7.040E-06,0.000
-7.030E-06,0.004
-7.020E-06,0.000
-7.010E-06,0.000
-7.000E-06,0.004
-6.990E-06,0.000
-6.980E-06,0.000
-6.970E-06,0.000
-6.960E-06,0.000
-6.950E-06,0.004
-6.940E-06,0.004
-6.930E-06,0.012
-6.920E-06,0.000
-6.910E-06,0.000
-6.900E-06,0.000
-6.890E-06,0.004
-6.880E-06,0.000
-6.870E-06,0.000
-6.860E-06,0.004
-6.850E-06,0.008
-6.840E-06,-0.004
-6.830E-06,0.000
-6.820E-06,0.004
-6.810E-06,0.004
-6.800E-06,0.004
-6.790E-06,0.004
-6.780E-06,0.004
-6.770E-06,0.000
-6.760E-06,-0.004
-6.750E-06,0.004
-6.740E-06,-0.004
-6.730E-06,0.004
-6.720E-06,0.012
-6.710E-06,0.000
-6.700E-06,0.004
-6.690E-06,0.000
-6.680E-06,0.000
-6.670E-06,0.000
-6.660E-06,0.008
-6.650E-06,0.000
-6.640E-06,0.004
-6.630E-06,0.004
-6.620E-06,0.004
-6.610E-06,0.004
-6.600E-06,0.000
-6.590E-06,0.000
-6.580E-06,0.000
-6.570E-06,0.004
-6.560E-06,0.008
-6.550E-06,0.004
-6.540E-06,0.004
-6.530E-06,0.004
-6.520E-06,0.000
-6.510E-06,0.000
-6.500E-06,0.000
-6.490E-06,0.004
-6.480E-06,0.004
-6.470E-06,0.004
-6.460E-06,0.004
-6.450E-06,0.000
-6.440E-06,-0.004
-6.430E-06,0.000
-6.420E-06,0.004
-6.410E-06,0.008
-6.400E-06,0.004
-6.390E-06,0.004
-6.380E-06,0.000
-6.370E-06,0.000
-6.360E-06,0.000
-6.350E-06,0.000
-6.340E-06,0.004
-6.330E-06,0.004
-6.320E-06,0.004
-6.310E-06,0.000
-6.300E-06,0.004
-6.290E-06,0.008
-6.280E-06,0.012
-6.270E-06,0.000
-6.260E-06,0.000
-6.250E-06,0.004
-6.240E-06,-0.004
-6.230E-06,-0.004
-6.220E-06,0.008
-6.210E-06,0.000
-6.200E-06,0.004
-6.190E-06,0.000
-6.180E-06,0.000
-6.170E-06,0.004
-6.160E-06,0.008
-6.150E-06,0.000
-6.140E-06,-0.004
-6.130E-06,0.000
-6.120E-06,0.004
-6.110E-06,0.004
-6.100E-06,0.008
-6.090E-06,0.004
-6.080E-06,0.000
-6.070E-06,-0.004
-6.060E-06,0.000
-6.050E-06,0.000
-6.040E-06,0.008
-6.030E-06,0.008
-6.020E-06,0.008
-6.010E-06,0.000
-6.000E-06,0.000
-5.990E-06,0.000
-5.980E-06,0.004
-5.970E-06,0.004
-5.960E-06,0.004
-5.950E-06,0.000
-5.940E-06,-0.004
-5.930E-06,0.004
-5.920E-06,-0.004
-5.910E-06,0.000
-5.900E-06,0.004
-5.890E-06,0.004
-5.880E-06,-0.004
-5.870E-06,-0.004
-5.860E-06,0.008
-5.850E-06,0.012
-5.840E-06,0.008
-5.830E-06,0.008
-5.820E-06,-0.004
-5.810E-06,0.000
-5.800E-06,0.004
-5.790E-06,0.008
-5.780E-06,0.004
-5.770E-06,0.000
-5.760E-06,0.004
-5.750E-06,0.004
-5.740E-06,0.000
-5.730E-06,0.004
-5.720E-06,0.000
-5.710E-06,0.004
-5.700E-06,0.012
-5.690E-06,0.008
-5.680E-06,0.004
-5.670E-06,-0.004
-5.660E-06,0.000
-5.650E-06,0.004
-5.640E-06,0.008
-5.630E-06,0.000
-5.620E-06,0.000
-5.610E-06,0.004
-5.600E-06,0.000
-5.590E-06,0.000
-5.580E-06,0.000
-5.570E-06,0.004
-5.560E-06,0.004
-5.550E-06,0.000
-5.540E-06,0.000
-5.530E-06,0.004
-5.520E-06,0.004
-5.510E-06,0.008
-5.500E-06,0.000
-5.490E-06,0.000
-5.480E-06,0.004
-5.470E-06,0.000
-5.460E-06,0.000
-5.450E-06,0.004
-5.440E-06,0.000
-5.430E-06,0.000
-5.420E-06,0.004
-5.410E-06,0.000
-5.400E-06,0.004
-5.390E-06,0.004
-5.380E-06,0.000
-5.370E-06,0.000
-5.360E-06,0.000
-5.350E-06,0.004
-5.340E-06,-0.004
-5.330E-06,0.000
-5.320E-06,0.004
-5.310E-06,0.000
-5.300E-06,0.000
-5.290E-06,0.004
-5.280E-06,-0.004
-5.270E-06,0.000
-5.260E-06,0.000
-5.250E-06,0.000
-5.240E-06,0.004
-5.230E-06,0.004
-5.220E-06,0.008
-5.210E-06,0.004
-5.200E-06,0.004
-5.190E-06,0.000
-5.180E-06,-0.004
-5.170E-06,0.000
-5.160E-06,0.000
-5.150E-06,0.004
-5.140E-06,0.008
-5.130E-06,0.000
-5.120E-06,0.004
-5.110E-06,0.000
-5.100E-06,0.000
-5.090E-06,0.004
-5.080E-06,0.004
-5.070E-06,0.004
-5.060E-06,0.008
-5.050E-06,0.008
-5.040E-06,0.004
-5.030E-06,0.004
-5.020E-06,0.008
-5.010E-06,0.000
-5.000E-06,0.000
-4.990E-06,0.004
-4.980E-06,0.004
-4.970E-06,0.004
-4.960E-06,0.004
-4.950E-06,0.004
-4.940E-06,0.000
-4.930E-06,0.004
-4.920E-06,-0.004
-4.910E-06,-0.004
-4.900E-06,0.000
-4.890E-06,0.004
-4.880E-06,0.004
-4.870E-06,0.004
-4.860E-06,0.004
-4.850E-06,0.000
-4.840E-06,0.000
-4.830E-06,0.000
-4.820E-06,0.004
-4.810E-06,0.008
-4.800E-06,0.004
-4.790E-06,0.004
-4.780E-06,-0.004
-4.770E-06,0.000
-4.760E-06,0.000
-4.750E-06,0.008
-4.740E-06,0.008
-4.730E-06,0.008
-4.720E-06,0.004
-4.710E-06,0.004
-4.700E-06,0.004
-4.690E-06,0.000
-4.680E-06,0.004
-4.670E-06,0.004
-4.660E-06,0.004
-4.650E-06,0.008
-4.640E-06,0.008
-4.630E-06,0.008
-4.620E-06,0.004
-4.610E-06,0.004
-4.600E-06,0.000
-4.590E-06,-0.004
-4.580E-06,0.004
-4.570E-06,-0.004
-4.560E-06,0.012
-4.550E-06,0.004
-4.540E-06,-0.004
-4.530E-06,0.000
-4.520E-06,-0.008
-4.510E-06,0.000
-4.500E-06,0.008
-4.490E-06,0.008
-4.480E-06,0.008
-4.470E-06,0.004
-4.460E-06,0.000
-4.450E-06,-0.004
-4.440E-06,-0.012
-4.430E-06,0.004
-4.420E-06,0.012
-4.410E-06,0.008
-4.400E-06,0.000
-4.390E-06,0.000
-4.380E-06,0.000
-4.370E-06,-0.004
-4.360E-06,0.000
-4.350E-06,0.004
-4.340E-06,0.008
-4.330E-06,0.004
-4.320E-06,0.004
-4.310E-06,0.000
-4.300E-06,-0.004
-4.290E-06,0.000
-4.280E-06,0.000
-4.270E-06,0.004
-4.260E-06,0.008
-4.250E-06,0.004
-4.240E-06,0.000
-4.230E-06,0.004
-4.220E-06,0.004
-4.210E-06,0.004
-4.200E-06,0.004
-4.190E-06,0.000
-4.180E-06,0.004
-4.170E-06,0.000
-4.160E-06,0.004
-4.150E-06,0.004
-4.140E-06,0.008
-4.130E-06,0.000
-4.120E-06,0.004
-4.110E-06,0.000
-4.100E-06,0.004
-4.090E-06,0.004
-4.080E-06,0.004
-4.070E-06,0.008
-4.060E-06,-0.004
-4.050E-06,0.000
-4.040E-06,0.004
-4.030E-06,0.000
-4.020E-06,-0.004
-4.010E-06,0.004
-4.000E-06,0.008
-3.990E-06,0.004
-3.980E-06,0.000
-3.970E-06,-0.004
-3.960E-06,0.004
-3.950E-06,0.004
-3.940E-06,0.004
-3.930E-06,0.004
-3.920E-06,0.004
-3.910E-06,0.000
-3.900E-06,0.004
-3.890E-06,0.004
-3.880E-06,-0.004
-3.870E-06,0.004
-3.860E-06,0.000
-3.850E-06,0.004
-3.840E-06,0.004
-3.830E-06,0.012
-3.820E-06,0.008
-3.810E-06,0.004
-3.800E-06,-0.004
-3.790E-06,0.000
-3.780E-06,0.004
-3.770E-06,0.004
-3.760E-06,0.008
-3.750E-06,0.008
-3.740E-06,0.008
-3.730E-06,0.004
-3.720E-06,0.008
-3.710E-06,0.008
-3.700E-06,0.008
-3.690E-06,0.008
-3.680E-06,0.012
-3.670E-06,0.004
-3.660E-06,0.000
-3.650E-06,0.000
-3.640E-06,0.000
-3.630E-06,0.004
-3.620E-06,0.000
-3.610E-06,0.008
-3.600E-06,0.004
-3.590E-06,0.004
-3.580E-06,0.000
-3.570E-06,0.004
-3.560E-06,0.004
-3.550E-06,0.004
-3.540E-06,0.004
-3.530E-06,0.004
-3.520E-06,0.004
-3.510E-06,0.004
-3.500E-06,0.008
-3.490E-06,0.004
-3.480E-06,0.008
-3.470E-06,0.008
-3.460E-06,0.004
-3.450E-06,-0.004
-3.440E-06,0.004
-3.430E-06,0.008
-3.420E-06,0.008
-3.410E-06,0.004
-3.400E-06,0.004
-3.390E-06,0.000
-3.380E-06,0.000
-3.370E-06,0.000
-3.360E-06,0.008
-3.350E-06,0.012
-3.340E-06,0.008
-3.330E-06,0.012
-3.320E-06,0.004
-3.310E-06,0.008
-3.300E-06,0.000
-3.290E-06,0.000
-3.280E-06,0.004
-3.270E-06,0.008
-3.260E-06,0.008
-3.250E-06,0.008
-3.240E-06,0.004
-3.230E-06,0.004
-3.220E-06,0.000
-3.210E-06,0.000
-3.200E-06,0.004
-3.190E-06,0.004
-3.180E-06,0.004
-3.170E-06,0.008
-3.160E-06,0.008
-3.150E-06,0.004
-3.140E-06,0.004
-3.130E-06,0.000
-3.120E-06,0.004
-3.110E-06,0.000
-3.100E-06,0.004
-3.090E-06,0.012
-3.080E-06,0.008
-3.070E-06,0.004
-3.060E-06,0.004
-3.050E-06,0.004
-3.040E-06,-0.008
-3.030E-06,-0.008
-3.020E-06,0.000
-3.010E-06,0.004
-3.000E-06,0.008
-2.990E-06,0.000
-2.980E-06,0.008
-2.970E-06,-0.004
-2.960E-06,0.004
-2.950E-06,0.012
-2.940E-06,0.008
-2.930E-06,-0.004
-2.920E-06,-0.004
-2.910E-06,0.004
-2.900E-06,0.004
-2.890E-06,0.008
-2.880E-06,0.004
-2.870E-06,0.000
-2.860E-06,-0.004
-2.850E-06,0.000
-2.840E-06,0.008
-2.830E-06,0.012
-2.820E-06,0.012
-2.810E-06,0.012
-2.800E-06,0.004
-2.790E-06,0.000
-2.780E-06,0.000
-2.770E-06,0.000
-2.760E-06,0.000
-2.750E-06,0.012
-2.740E-06,0.020
-2.730E-06,0.016
-2.720E-06,0.008
-2.710E-06,0.000
-2.700E-06,-0.004
-2.690E-06,-0.008
-2.680E-06,-0.004
-2.670E-06,0.008
-2.660E-06,0.012
-2.650E-06,0.016
-2.640E-06,0.012
-2.630E-06,0.004
-2.620E-06,-0.004
-2.610E-06,-0.008
-2.600E-06,-0.004
-2.590E-06,0.000
-2.580E-06,0.008
-2.570E-06,0.012
-2.560E-06,0.008
-2.550E-06,0.008
-2.540E-06,0.000
-2.530E-06,-0.004
-2.520E-06,-0.004
-2.510E-06,0.000
-2.500E-06,0.008
-2.490E-06,0.012
-2.480E-06,0.012
-2.470E-06,0.008
-2.460E-06,0.000
-2.450E-06,-0.004
-2.440E-06,0.000
-2.430E-06,0.000
-2.420E-06,0.008
-2.410E-06,0.008
-2.400E-06,0.012
-2.390E-06,0.012
-2.380E-06,0.008
-2.370E-06,0.008
-2.360E-06,0.008
-2.350E-06,0.004
-2.340E-06,0.004
-2.330E-06,0.012
-2.320E-06,0.004
-2.310E-06,0.008
-2.300E-06,0.012
-2.290E-06,0.012
-2.280E-06,0.004
-2.270E-06,0.008
-2.260E-06,0.008
-2.250E-06,0.004
-2.240E-06,0.004
-2.230E-06,0.008
-2.220E-06,0.008
-2.210E-06,0.008
-2.200E-06,0.008
-2.190E-06,0.000
-2.180E-06,0.008
-2.170E-06,0.012
-2.160E-06,0.012
-2.150E-06,0.012
-2.140E-06,0.012
-2.130E-06,0.012
-2.120E-06,0.004
-2.110E-06,0.004
-2.100E-06,0.004
-2.090E-06,0.012
-2.080E-06,0.008
-2.070E-06,0.012
-2.060E-06,0.012
-2.050E-06,0.012
-2.040E-06,0.012
-2.030E-06,0.008
-2.020E-06,0.008
-2.010E-06,0.008
-2.000E-06,0.008
-1.990E-06,0.016
-1.980E-06,0.020
-1.970E-06,0.024
-1.960E-06,0.012
-1.950E-06,0.008
-1.940E-06,0.004
-1.930E-06,-0.004
-1.920E-06,0.004
-1.910E-06,0.020
-1.900E-06,0.024
-1.890E-06,0.028
-1.880E-06,0.024
-1.870E-06,0.012
-1.860E-06,0.008
-1.850E-06,0.000
-1.840E-06,0.008
-1.830E-06,0.012
-1.820E-06,0.028
-1.810E-06,0.036
-1.800E-06,0.040
-1.790E-06,0.020
-1.780E-06,0.000
-1.770E-06,-0.024
-1.760E-06,-0.016
-1.750E-06,0.004
-1.740E-06,0.028
-1.730E-06,0.048
-1.720E-06,0.044
-1.710E-06,0.040
-1.700E-06,0.028
-1.690E-06,0.004
-1.680E-06,0.008
-1.670E-06,0.028
-1.660E-06,0.036
-1.650E-06,0.056
-1.640E-06,0.056
-1.630E-06,0.060
-1.620E-06,0.028
-1.610E-06,0.036
-1.600E-06,-0.008
-1.590E-06,-0.064
-1.580E-06,-0.108
-1.570E-06,-0.088
-1.560E-06,-0.028
-1.550E-06,0.012
-1.540E-06,0.044
-1.530E-06,0.008
-1.520E-06,-0.024
-1.510E-06,-0.052
-1.500E-06,-0.052
-1.490E-06,-0.056
-1.480E-06,-0.020
-1.470E-06,0.032
-1.460E-06,0.056
-1.450E-06,0.024
-1.440E-06,-0.032
-1.430E-06,-0.064
-1.420E-06,-0.064
-1.410E-06,-0.024
-1.400E-06,0.024
-1.390E-06,0.052
-1.380E-06,0.048
-1.370E-06,0.024
-1.360E-06,-0.004
-1.350E-06,-0.016
-1.340E-06,-0.008
-1.330E-06,0.012
-1.320E-06,0.032
-1.310E-06,0.052
-1.300E-06,0.056
-1.290E-06,0.032
-1.280E-06,0.028
-1.270E-06,0.040
-1.260E-06,0.072
-1.250E-06,0.092
-1.240E-06,0.128
-1.230E-06,0.108
-1.220E-06,0.056
-1.210E-06,0.000
-1.200E-06,-0.020
-1.190E-06,-0.004
-1.180E-06,0.016
-1.170E-06,0.036
-1.160E-06,0.036
-1.150E-06,0.048
-1.140E-06,0.008
-1.130E-06,-0.012
-1.120E-06,-0.040
-1.110E-06,-0.040
-1.100E-06,-0.068
-1.090E-06,-0.072
-1.080E-06,-0.052
-1.070E-06,-0.024
-1.060E-06,-0.008
-1.050E-06,-0.012
-1.040E-06,0.024
-1.030E-06,-0.012
-1.020E-06,0.012
-1.010E-06,0.012
-1.000E-06,0.020
-9.900E-07,0.008
-9.800E-07,0.040
-9.700E-07,0.092
-9.600E-07,0.104
-9.500E-07,0.092
-9.400E-07,0.032
-9.300E-07,-0.028
-9.200E-07,-0.072
-9.100E-07,-0.028
-9.000E-07,0.024
-8.900E-07,0.104
-8.800E-07,0.100
-8.700E-07,0.060
-8.600E-07,-0.060
-8.500E-07,-0.136
-8.400E-07,-0.144
-8.300E-07,-0.096
-8.200E-07,-0.004
-8.100E-07,0.068
-8.000E-07,0.108
-7.900E-07,0.076
-7.800E-07,0.048
-7.700E-07,0.008
-7.600E-07,-0.004
-7.500E-07,0.000
-7.400E-07,0.036
-7.300E-07,0.080
-7.200E-07,0.116
-7.100E-07,0.148
-7.000E-07,0.156
-6.900E-07,0.132
-6.800E-07,0.092
-6.700E-07,0.052
-6.600E-07,0.040
-6.500E-07,0.088
-6.400E-07,0.136
-6.300E-07,0.172
-6.200E-07,0.168
-6.100E-07,0.124
-6.000E-07,0.056
-5.900E-07,-0.004
-5.800E-07,-0.004
-5.700E-07,-0.040
-5.600E-07,-0.048
-5.500E-07,-0.080
-5.400E-07,-0.112
-5.300E-07,-0.140
-5.200E-07,-0.156
-5.100E-07,-0.140
-5.000E-07,-0.100
-4.900E-07,-0.036
-4.800E-07,-0.020
-4.700E-07,0.024
-4.600E-07,0.044
-4.500E-07,0.032
-4.400E-07,-0.024
-4.300E-07,-0.072
-4.200E-07,-0.072
-4.100E-07,-0.064
-4.000E-07,-0.008
-3.900E-07,0.064
-3.800E-07,0.108
-3.700E-07,0.076
-3.600E-07,0.040
-3.500E-07,-0.004
-3.400E-07,-0.056
-3.300E-07,-0.064
-3.200E-07,-0.024
-3.100E-07,0.048
-3.000E-07,0.100
-2.900E-07,0.120
-2.800E-07,0.092
-2.700E-07,0.052
-2.600E-07,0.048
-2.500E-07,0.088
-2.400E-07,0.152
-2.300E-07,0.208
-2.200E-07,0.220
-2.100E-07,0.168
-2.000E-07,0.068
-1.900E-07,-0.012
-1.800E-07,-0.036
-1.700E-07,0.012
-1.600E-07,0.112
-1.500E-07,0.200
-1.400E-07,0.264
-1.300E-07,0.208
-1.200E-07,0.136
-1.100E-07,0.060
-1.000E-07,0.024
-9.000E-08,0.024
-8.000E-08,0.088
-7.000E-08,-0.072
-6.000E-08,-0.256
-5.000E-08,-0.508
-4.000E-08,-0.508
-3.000E-08,-0.512
-2.000E-08,-0.512
-1.000E-08,-0.424
0.000E+00,0.540
1.000E-08,0.540
2.000E-08,0.452
3.000E-08,-0.492
4.000E-08,-0.508
5.000E-08,-0.512
6.000E-08,-0.160
7.000E-08,0.540
8.000E-08,0.540
9.000E-08,0.540
1.000E-07,-0.016
1.100E-07,-0.336
1.200E-07,-0.508
1.300E-07,-0.300
1.400E-07,0.084
1.500E-07,0.432
1.600E-07,0.496
1.700E-07,0.316
1.800E-07,0.036
1.900E-07,-0.200
2.000E-07,-0.232
2.100E-07,-0.180
2.200E-07,0.020
2.300E-07,0.160
2.400E-07,0.256
2.500E-07,0.180
2.600E-07,0.056
2.700E-07,-0.108
2.800E-07,-0.140
2.900E-07,-0.048
3.000E-07,0.092
3.100E-07,0.224
3.200E-07,0.256
3.300E-07,0.204
3.400E-07,0.056
3.500E-07,-0.040
3.600E-07,-0.100
3.700E-07,-0.040
3.800E-07,0.048
3.900E-07,0.132
4.000E-07,0.136
4.100E-07,0.048
4.200E-07,-0.096
4.300E-07,-0.196
4.400E-07,-0.140
4.500E-07,-0.044
4.600E-07,0.128
4.700E-07,0.248
4.800E-07,0.272
4.900E-07,0.172
5.000E-07,0.040
5.100E-07,-0.040
5.200E-07,-0.016
5.300E-07,0.104
5.400E-07,0.236
5.500E-07,0.336
5.600E-07,0.316
5.700E-07,0.244
5.800E-07,0.080
5.900E-07,-0.100
6.000E-07,-0.160
6.100E-07,-0.048
6.200E-07,0.188
6.300E-07,0.204
6.400E-07,-0.100
6.500E-07,-0.512
6.600E-07,-0.512
6.700E-07,-0.508
6.800E-07,-0.468
6.900E-07,0.540
7.000E-07,0.540
7.100E-07,0.544
7.200E-07,0.336
7.300E-07,-0.508
7.400E-07,-0.512
7.500E-07,-0.512
7.600E-07,-0.512
7.700E-07,0.540
7.800E-07,0.540
7.900E-07,0.544
8.000E-07,0.188
8.100E-07,-0.512
8.200E-07,-0.512
8.300E-07,-0.512
8.400E-07,-0.260
8.500E-07,0.352
8.600E-07,0.536
8.700E-07,0.536
8.800E-07,0.324
8.900E-07,-0.152
9.000E-07,-0.500
9.100E-07,-0.508
9.200E-07,-0.264
9.300E-07,0.160
9.400E-07,0.508
9.500E-07,0.540
9.600E-07,0.344
9.700E-07,-0.024
9.800E-07,-0.296
9.900E-07,-0.404
1.000E-06,-0.264
1.010E-06,0.020
1.020E-06,0.296
1.030E-06,0.420
1.040E-06,0.356
1.050E-06,0.156
1.060E-06,-0.128
1.070E-06,-0.240
1.080E-06,-0.164
1.090E-06,0.028
1.100E-06,0.180
1.110E-06,0.276
1.120E-06,0.204
1.130E-06,0.092
1.140E-06,-0.112
1.150E-06,-0.188
1.160E-06,-0.188
1.170E-06,-0.108
1.180E-06,-0.024
1.190E-06,-0.004
1.200E-06,-0.016
1.210E-06,-0.052
1.220E-06,-0.012
1.230E-06,0.012
1.240E-06,0.124
1.250E-06,0.076
1.260E-06,0.060
1.270E-06,0.056
1.280E-06,0.128
1.290E-06,0.172
1.300E-06,0.228
1.310E-06,0.240
1.320E-06,0.208
1.330E-06,0.188
1.340E-06,0.140
1.350E-06,0.140
1.360E-06,0.140
1.370E-06,0.204
1.380E-06,0.248
1.390E-06,0.308
1.400E-06,0.260
1.410E-06,0.208
1.420E-06,0.144
1.430E-06,0.100
1.440E-06,0.108
1.450E-06,0.180
1.460E-06,0.268
1.470E-06,0.308
1.480E-06,0.288
1.490E-06,0.236
1.500E-06,0.176
1.510E-06,0.136
1.520E-06,0.164
1.530E-06,0.204
1.540E-06,0.188
1.550E-06,0.208
1.560E-06,0.136
1.570E-06,0.148
1.580E-06,0.172
1.590E-06,0.016
1.600E-06,-0.076
1.610E-06,-0.124
1.620E-06,-0.512
1.630E-06,-0.508
1.640E-06,-0.512
1.650E-06,-0.512
1.660E-06,-0.512
1.670E-06,0.196
1.680E-06,0.544
1.690E-06,0.540
1.700E-06,0.540
1.710E-06,-0.368
1.720E-06,-0.512
1.730E-06,-0.512
1.740E-06,-0.016
1.750E-06,0.544
1.760E-06,0.544
1.770E-06,0.544
1.780E-06,0.500
1.790E-06,0.020
1.800E-06,-0.400
1.810E-06,-0.456
1.820E-06,-0.408
1.830E-06,0.080
1.840E-06,0.372
1.850E-06,0.540
1.860E-06,0.384
1.870E-06,0.020
1.880E-06,-0.404
1.890E-06,-0.512
1.900E-06,-0.496
1.910E-06,-0.092
1.920E-06,0.264
1.930E-06,0.312
1.940E-06,0.300
1.950E-06,0.020
1.960E-06,-0.164
1.970E-06,-0.372
1.980E-06,-0.300
1.990E-06,-0.200
2.000E-06,0.068
2.010E-06,0.204
2.020E-06,0.200
2.030E-06,0.140
2.040E-06,0.052
2.050E-06,0.104
2.060E-06,0.092
2.070E-06,0.180
2.080E-06,0.176
2.090E-06,0.208
2.100E-06,0.164
2.110E-06,0.220
2.120E-06,0.296
2.130E-06,0.364
2.140E-06,0.388
2.150E-06,0.300
2.160E-06,0.236
2.170E-06,0.176
2.180E-06,0.232
2.190E-06,0.260
2.200E-06,0.328
2.210E-06,0.312
2.220E-06,0.312
2.230E-06,0.260
2.240E-06,0.208
2.250E-06,0.176
2.260E-06,0.164
2.270E-06,0.196
2.280E-06,0.228
2.290E-06,0.272
2.300E-06,0.256
2.310E-06,0.252
2.320E-06,0.204
2.330E-06,0.192
2.340E-06,0.192
2.350E-06,0.208
2.360E-06,0.240
2.370E-06,0.260
2.380E-06,0.276
2.390E-06,0.260
2.400E-06,0.240
2.410E-06,0.212
2.420E-06,0.212
2.430E-06,0.216
2.440E-06,0.244
2.450E-06,0.260
2.460E-06,0.268
2.470E-06,0.272
2.480E-06,0.260
2.490E-06,0.244
2.500E-06,0.228
2.510E-06,0.240
2.520E-06,0.248
2.530E-06,0.264
2.540E-06,0.264
2.550E-06,0.264
2.560E-06,0.260
2.570E-06,0.256
2.580E-06,0.244
2.590E-06,0.236
2.600E-06,0.244
2.610E-06,0.244
2.620E-06,0.248
2.630E-06,0.256
2.640E-06,0.256
2.650E-06,0.248
2.660E-06,0.248
2.670E-06,0.240
2.680E-06,0.240
2.690E-06,0.244
2.700E-06,0.248
2.710E-06,0.260
2.720E-06,0.256
2.730E-06,0.256
2.740E-06,0.252
2.750E-06,0.244
2.760E-06,0.244
2.770E-06,0.244
2.780E-06,0.244
2.790E-06,0.252
2.800E-06,0.252
2.810E-06,0.248
2.820E-06,0.244
2.830E-06,0.244
2.840E-06,0.244
2.850E-06,0.240
2.860E-06,0.240
2.870E-06,0.248
2.880E-06,0.244
2.890E-06,0.244
2.900E-06,0.244
2.910E-06,0.244
2.920E-06,0.236
2.930E-06,0.240
2.940E-06,0.240
2.950E-06,0.236
2.960E-06,0.236
2.970E-06,0.236
2.980E-06,0.236
2.990E-06,0.232
3.000E-06,0.232
3.010E-06,0.232
3.020E-06,0.232
3.030E-06,0.232
3.040E-06,0.236
3.050E-06,0.240
3.060E-06,0.236
3.070E-06,0.232
3.080E-06,0.228
3.090E-06,0.232
3.100E-06,0.228
3.110E-06,0.232
3.120E-06,0.232
3.130E-06,0.244
3.140E-06,0.252
3.150E-06,0.260
3.160E-06,0.256
3.170E-06,0.244
3.180E-06,0.228
3.190E-06,0.208
3.200E-06,0.212
3.210E-06,0.220
3.220E-06,0.240
3.230E-06,0.248
3.240E-06,0.252
3.250E-06,0.256
3.260E-06,0.236
3.270E-06,0.220
3.280E-06,0.204
3.290E-06,0.212
3.300E-06,0.220
3.310E-06,0.240
3.320E-06,0.252
3.330E-06,0.260
3.340E-06,0.240
3.350E-06,0.224
3.360E-06,0.208
3.370E-06,0.204
3.380E-06,0.212
3.390E-06,0.224
