mediciones/5-15 mala escala/27.77/WaveData46114.csv

#timebase=2000000(ps)
,#voltbase=100000(mv/100)
#size=4000
-8.400E-06,-0.008
-8.390E-06,0.008
-8.380E-06,0.024
-8.370E-06,0.024
-8.360E-06,0.016
-8.350E-06,0.000
-8.340E-06,-0.008
-8.330E-06,-0.012
-8.320E-06,-0.008
-8.310E-06,0.004
-8.300E-06,0.016
-8.290E-06,0.024
-8.280E-06,0.028
-8.270E-06,0.016
-8.260E-06,0.000
-8.250E-06,-0.004
-8.240E-06,0.000
-8.230E-06,-0.004
-8.220E-06,0.000
-8.210E-06,0.020
-8.200E-06,0.020
-8.190E-06,0.020
-8.180E-06,0.008
-8.170E-06,-0.004
-8.160E-06,-0.012
-8.150E-06,0.000
-8.140E-06,0.020
-8.130E-06,0.028
-8.120E-06,0.024
-8.110E-06,0.004
-8.100E-06,-0.012
-8.090E-06,-0.004
-8.080E-06,0.000
-8.070E-06,0.012
-8.060E-06,0.016
-8.050E-06,0.016
-8.040E-06,0.000
-8.030E-06,-0.008
-8.020E-06,-0.004
-8.010E-06,-0.008
-8.000E-06,0.004
-7.990E-06,0.020
-7.980E-06,0.028
-7.970E-06,0.000
-7.960E-06,-0.004
-7.950E-06,-0.004
-7.940E-06,-0.012
-7.930E-06,-0.008
-7.920E-06,0.012
-7.910E-06,0.024
-7.900E-06,0.016
-7.890E-06,0.020
-7.880E-06,0.008
-7.870E-06,0.000
-7.860E-06,-0.008
-7.850E-06,-0.008
-7.840E-06,0.008
-7.830E-06,0.024
-7.820E-06,0.020
-7.810E-06,0.024
-7.800E-06,0.008
-7.790E-06,0.008
-7.780E-06,0.008
-7.770E-06,0.012
-7.760E-06,-0.036
-7.750E-06,-0.056
-7.740E-06,-0.040
-7.730E-06,-0.004
-7.720E-06,0.004
-7.710E-06,0.016
-7.700E-06,0.028
-7.690E-06,-0.028
-7.680E-06,-0.044
-7.670E-06,-0.032
-7.660E-06,0.016
-7.650E-06,0.036
-7.640E-06,0.036
-7.630E-06,0.012
-7.620E-06,-0.020
-7.610E-06,-0.020
-7.600E-06,-0.004
-7.590E-06,0.016
-7.580E-06,0.028
-7.570E-06,0.024
-7.560E-06,-0.004
-7.550E-06,-0.012
-7.540E-06,-0.016
-7.530E-06,0.004
-7.520E-06,0.016
-7.510E-06,0.024
-7.500E-06,0.012
-7.490E-06,0.000
-7.480E-06,-0.008
-7.470E-06,-0.008
-7.460E-06,0.008
-7.450E-06,0.012
-7.440E-06,0.012
-7.430E-06,0.008
-7.420E-06,0.004
-7.410E-06,0.000
-7.400E-06,0.000
-7.390E-06,0.004
-7.380E-06,0.004
-7.370E-06,0.008
-7.360E-06,-0.004
-7.350E-06,0.004
-7.340E-06,0.008
-7.330E-06,0.008
-7.320E-06,0.012
-7.310E-06,0.012
-7.300E-06,-0.008
-7.290E-06,-0.004
-7.280E-06,0.000
-7.270E-06,0.008
-7.260E-06,0.012
-7.250E-06,0.008
-7.240E-06,0.016
-7.230E-06,0.012
-7.220E-06,0.000
-7.210E-06,-0.008
-7.200E-06,-0.008
-7.190E-06,-0.028
-7.180E-06,-0.020
-7.170E-06,-0.004
-7.160E-06,0.024
-7.150E-06,0.036
-7.140E-06,0.036
-7.130E-06,0.004
-7.120E-06,-0.036
-7.110E-06,-0.052
-7.100E-06,-0.024
-7.090E-06,0.004
-7.080E-06,0.036
-7.070E-06,0.048
-7.060E-06,0.032
-7.050E-06,0.000
-7.040E-06,-0.016
-7.030E-06,-0.036
-7.020E-06,-0.024
-7.010E-06,0.008
-7.000E-06,0.032
-6.990E-06,0.040
-6.980E-06,0.020
-6.970E-06,-0.004
-6.960E-06,-0.020
-6.950E-06,-0.028
-6.940E-06,-0.016
-6.930E-06,0.012
-6.920E-06,0.020
-6.910E-06,0.024
-6.900E-06,0.024
-6.890E-06,0.020
-6.880E-06,-0.004
-6.870E-06,-0.012
-6.860E-06,-0.024
-6.850E-06,-0.016
-6.840E-06,0.004
-6.830E-06,0.008
-6.820E-06,0.024
-6.810E-06,0.016
-6.800E-06,0.000
-6.790E-06,-0.008
-6.780E-06,-0.020
-6.770E-06,-0.008
-6.760E-06,0.004
-6.750E-06,0.020
-6.740E-06,0.016
-6.730E-06,0.004
-6.720E-06,0.000
-6.710E-06,-0.004
-6.700E-06,0.000
-6.690E-06,-0.004
-6.680E-06,0.000
-6.670E-06,-0.004
-6.660E-06,0.016
-6.650E-06,0.004
-6.640E-06,0.012
-6.630E-06,-0.004
-6.620E-06,0.000
-6.610E-06,-0.008
-6.600E-06,0.000
-6.590E-06,0.016
-6.580E-06,0.016
-6.570E-06,0.016
-6.560E-06,-0.008
-6.550E-06,0.000
-6.540E-06,-0.008
-6.530E-06,0.000
-6.520E-06,0.004
-6.510E-06,0.012
-6.500E-06,0.008
-6.490E-06,0.008
-6.480E-06,0.004
-6.470E-06,-0.004
-6.460E-06,-0.008
-6.450E-06,-0.008
-6.440E-06,0.004
-6.430E-06,0.000
-6.420E-06,0.000
-6.410E-06,-0.004
-6.400E-06,0.008
-6.390E-06,0.008
-6.380E-06,0.008
-6.370E-06,0.004
-6.360E-06,0.000
-6.350E-06,-0.004
-6.340E-06,-0.008
-6.330E-06,0.000
-6.320E-06,0.008
-6.310E-06,0.008
-6.300E-06,0.008
-6.290E-06,0.004
-6.280E-06,-0.004
-6.270E-06,0.000
-6.260E-06,0.000
-6.250E-06,0.000
-6.240E-06,0.008
-6.230E-06,0.004
-6.220E-06,0.000
-6.210E-06,0.000
-6.200E-06,0.008
-6.190E-06,0.012
-6.180E-06,0.008
-6.170E-06,0.008
-6.160E-06,0.000
-6.150E-06,0.004
-6.140E-06,0.008
-6.130E-06,0.000
-6.120E-06,0.000
-6.110E-06,0.000
-6.100E-06,-0.004
-6.090E-06,0.000
-6.080E-06,0.008
-6.070E-06,0.016
-6.060E-06,0.020
-6.050E-06,0.012
-6.040E-06,-0.004
-6.030E-06,-0.012
-6.020E-06,-0.008
-6.010E-06,0.004
-6.000E-06,0.012
-5.990E-06,0.020
-5.980E-06,0.012
-5.970E-06,0.000
-5.960E-06,-0.012
-5.950E-06,-0.012
-5.940E-06,-0.008
-5.930E-06,0.008
-5.920E-06,0.016
-5.910E-06,0.020
-5.900E-06,0.008
-5.890E-06,-0.004
-5.880E-06,-0.008
-5.870E-06,-0.012
-5.860E-06,-0.004
-5.850E-06,0.008
-5.840E-06,0.016
-5.830E-06,0.024
-5.820E-06,0.016
-5.810E-06,-0.004
-5.800E-06,-0.004
-5.790E-06,-0.008
-5.780E-06,-0.004
-5.770E-06,-0.008
-5.760E-06,-0.036
-5.750E-06,-0.012
-5.740E-06,0.012
-5.730E-06,0.032
-5.720E-06,0.028
-5.710E-06,0.016
-5.700E-06,-0.016
-5.690E-06,-0.032
-5.680E-06,-0.020
-5.670E-06,-0.012
-5.660E-06,0.008
-5.650E-06,0.028
-5.640E-06,0.036
-5.630E-06,0.012
-5.620E-06,-0.004
-5.610E-06,-0.020
-5.600E-06,-0.020
-5.590E-06,-0.004
-5.580E-06,0.020
-5.570E-06,0.024
-5.560E-06,0.024
-5.550E-06,0.008
-5.540E-06,0.000
-5.530E-06,-0.008
-5.520E-06,-0.008
-5.510E-06,0.000
-5.500E-06,0.008
-5.490E-06,0.016
-5.480E-06,0.016
-5.470E-06,0.008
-5.460E-06,0.008
-5.450E-06,0.000
-5.440E-06,0.000
-5.430E-06,-0.004
-5.420E-06,0.008
-5.410E-06,0.012
-5.400E-06,0.020
-5.390E-06,0.024
-5.380E-06,0.016
-5.370E-06,0.016
-5.360E-06,0.008
-5.350E-06,0.000
-5.340E-06,-0.008
-5.330E-06,-0.028
-5.320E-06,-0.032
-5.310E-06,-0.016
-5.300E-06,0.020
-5.290E-06,0.024
-5.280E-06,0.048
-5.270E-06,0.024
-5.260E-06,-0.016
-5.250E-06,-0.040
-5.240E-06,-0.032
-5.230E-06,-0.016
-5.220E-06,0.024
-5.210E-06,0.056
-5.200E-06,0.028
-5.190E-06,0.004
-5.180E-06,-0.020
-5.170E-06,-0.032
-5.160E-06,-0.036
-5.150E-06,0.004
-5.140E-06,0.028
-5.130E-06,0.040
-5.120E-06,0.028
-5.110E-06,0.004
-5.100E-06,-0.012
-5.090E-06,-0.016
-5.080E-06,-0.012
-5.070E-06,-0.004
-5.060E-06,0.016
-5.050E-06,0.020
-5.040E-06,0.024
-5.030E-06,0.012
-5.020E-06,0.000
-5.010E-06,-0.008
-5.000E-06,-0.008
-4.990E-06,0.000
-4.980E-06,0.008
-4.970E-06,0.020
-4.960E-06,0.016
-4.950E-06,0.016
-4.940E-06,0.004
-4.930E-06,-0.004
-4.920E-06,-0.004
-4.910E-06,0.000
-4.900E-06,0.008
-4.890E-06,0.012
-4.880E-06,0.012
-4.870E-06,0.008
-4.860E-06,0.004
-4.850E-06,0.000
-4.840E-06,0.008
-4.830E-06,0.008
-4.820E-06,0.012
-4.810E-06,0.012
-4.800E-06,-0.008
-4.790E-06,-0.004
-4.780E-06,-0.004
-4.770E-06,-0.020
-4.760E-06,-0.016
-4.750E-06,0.032
-4.740E-06,0.040
-4.730E-06,0.032
-4.720E-06,-0.004
-4.710E-06,-0.028
-4.700E-06,-0.044
-4.690E-06,-0.016
-4.680E-06,0.016
-4.670E-06,0.048
-4.660E-06,0.044
-4.650E-06,0.012
-4.640E-06,-0.016
-4.630E-06,-0.028
-4.620E-06,-0.012
-4.610E-06,0.008
-4.600E-06,0.020
-4.590E-06,0.024
-4.580E-06,-0.020
-4.570E-06,-0.028
-4.560E-06,-0.024
-4.550E-06,-0.020
-4.540E-06,0.008
-4.530E-06,0.048
-4.520E-06,0.056
-4.510E-06,0.008
-4.500E-06,-0.012
-4.490E-06,-0.060
-4.480E-06,-0.044
-4.470E-06,-0.008
-4.460E-06,0.052
-4.450E-06,0.072
-4.440E-06,0.048
-4.430E-06,0.000
-4.420E-06,-0.052
-4.410E-06,-0.060
-4.400E-06,-0.028
-4.390E-06,0.036
-4.380E-06,0.072
-4.370E-06,0.076
-4.360E-06,0.032
-4.350E-06,-0.004
-4.340E-06,-0.036
-4.330E-06,-0.056
-4.320E-06,-0.040
-4.310E-06,-0.004
-4.300E-06,0.020
-4.290E-06,0.036
-4.280E-06,0.044
-4.270E-06,0.024
-4.260E-06,-0.004
-4.250E-06,-0.032
-4.240E-06,-0.036
-4.230E-06,-0.024
-4.220E-06,0.008
-4.210E-06,0.044
-4.200E-06,0.056
-4.190E-06,0.036
-4.180E-06,0.012
-4.170E-06,-0.020
-4.160E-06,-0.032
-4.150E-06,-0.004
-4.140E-06,0.020
-4.130E-06,0.032
-4.120E-06,0.052
-4.110E-06,0.044
-4.100E-06,0.036
-4.090E-06,0.016
-4.080E-06,0.020
-4.070E-06,0.024
-4.060E-06,0.040
-4.050E-06,0.036
-4.040E-06,0.004
-4.030E-06,-0.012
-4.020E-06,-0.028
-4.010E-06,-0.004
-4.000E-06,-0.004
-3.990E-06,0.000
-3.980E-06,-0.124
-3.970E-06,-0.232
-3.960E-06,-0.120
-3.950E-06,-0.044
-3.940E-06,0.140
-3.930E-06,0.232
-3.920E-06,0.224
-3.910E-06,0.016
-3.900E-06,-0.104
-3.890E-06,-0.168
-3.880E-06,-0.140
-3.870E-06,-0.032
-3.860E-06,0.064
-3.850E-06,0.100
-3.840E-06,0.096
-3.830E-06,0.056
-3.820E-06,0.000
-3.810E-06,-0.060
-3.800E-06,-0.120
-3.790E-06,-0.052
-3.780E-06,-0.004
-3.770E-06,0.084
-3.760E-06,0.112
-3.750E-06,0.104
-3.740E-06,0.032
-3.730E-06,-0.044
-3.720E-06,-0.092
-3.710E-06,-0.040
-3.700E-06,0.012
-3.690E-06,0.056
-3.680E-06,0.088
-3.670E-06,0.028
-3.660E-06,-0.044
-3.650E-06,-0.060
-3.640E-06,-0.004
-3.630E-06,-0.008
-3.620E-06,0.032
-3.610E-06,-0.036
-3.600E-06,-0.024
-3.590E-06,-0.004
-3.580E-06,0.036
-3.570E-06,0.044
-3.560E-06,0.024
-3.550E-06,0.028
-3.540E-06,-0.008
-3.530E-06,-0.008
-3.520E-06,-0.092
-3.510E-06,-0.076
-3.500E-06,-0.016
-3.490E-06,0.044
-3.480E-06,0.064
-3.470E-06,0.108
-3.460E-06,0.056
-3.450E-06,-0.044
-3.440E-06,-0.108
-3.430E-06,-0.104
-3.420E-06,-0.032
-3.410E-06,0.060
-3.400E-06,0.128
-3.390E-06,0.092
-3.380E-06,0.020
-3.370E-06,-0.076
-3.360E-06,-0.084
-3.350E-06,-0.056
-3.340E-06,0.024
-3.330E-06,0.072
-3.320E-06,0.064
-3.310E-06,0.024
-3.300E-06,-0.012
-3.290E-06,-0.008
-3.280E-06,-0.004
-3.270E-06,0.008
-3.260E-06,0.012
-3.250E-06,-0.028
-3.240E-06,-0.064
-3.230E-06,-0.032
-3.220E-06,0.036
-3.210E-06,0.072
-3.200E-06,0.104
-3.190E-06,0.008
-3.180E-06,-0.068
-3.170E-06,-0.092
-3.160E-06,-0.056
-3.150E-06,0.044
-3.140E-06,0.072
-3.130E-06,0.044
-3.120E-06,-0.036
-3.110E-06,-0.068
-3.100E-06,-0.088
-3.090E-06,0.016
-3.080E-06,0.128
-3.070E-06,0.128
-3.060E-06,0.016
-3.050E-06,-0.108
-3.040E-06,-0.152
-3.030E-06,-0.088
-3.020E-06,0.056
-3.010E-06,0.152
-3.000E-06,0.148
-2.990E-06,0.040
-2.980E-06,-0.056
-2.970E-06,-0.108
-2.960E-06,-0.084
-2.950E-06,-0.032
-2.940E-06,0.032
-2.930E-06,0.072
-2.920E-06,0.072
-2.910E-06,0.044
-2.900E-06,0.000
-2.890E-06,-0.040
-2.880E-06,-0.064
-2.870E-06,-0.040
-2.860E-06,-0.008
-2.850E-06,0.040
-2.840E-06,0.068
-2.830E-06,0.080
-2.820E-06,0.044
-2.810E-06,-0.008
-2.800E-06,-0.060
-2.790E-06,-0.064
-2.780E-06,-0.032
-2.770E-06,0.036
-2.760E-06,0.084
-2.750E-06,0.092
-2.740E-06,0.064
-2.730E-06,0.036
-2.720E-06,-0.040
-2.710E-06,-0.076
-2.700E-06,-0.072
-2.690E-06,-0.024
-2.680E-06,0.024
-2.670E-06,0.072
-2.660E-06,0.096
-2.650E-06,0.064
-2.640E-06,-0.008
-2.630E-06,-0.072
-2.620E-06,-0.104
-2.610E-06,-0.072
-2.600E-06,0.012
-2.590E-06,0.060
-2.580E-06,0.104
-2.570E-06,0.104
-2.560E-06,0.032
-2.550E-06,-0.052
-2.540E-06,-0.152
-2.530E-06,-0.120
-2.520E-06,-0.084
-2.510E-06,0.040
-2.500E-06,0.048
-2.490E-06,0.032
-2.480E-06,0.068
-2.470E-06,0.048
-2.460E-06,0.004
-2.450E-06,-0.076
-2.440E-06,-0.056
-2.430E-06,-0.040
-2.420E-06,0.016
-2.410E-06,0.056
-2.400E-06,0.076
-2.390E-06,0.044
-2.380E-06,0.000
-2.370E-06,-0.036
-2.360E-06,-0.072
-2.350E-06,-0.040
-2.340E-06,0.004
-2.330E-06,0.076
-2.320E-06,0.088
-2.310E-06,0.060
-2.300E-06,-0.008
-2.290E-06,-0.048
-2.280E-06,-0.060
-2.270E-06,-0.028
-2.260E-06,0.016
-2.250E-06,0.056
-2.240E-06,0.068
-2.230E-06,0.044
-2.220E-06,0.016
-2.210E-06,-0.012
-2.200E-06,-0.012
-2.190E-06,-0.004
-2.180E-06,0.032
-2.170E-06,0.060
-2.160E-06,0.072
-2.150E-06,0.040
-2.140E-06,-0.020
-2.130E-06,-0.088
-2.120E-06,-0.104
-2.110E-06,-0.056
-2.100E-06,0.008
-2.090E-06,0.072
-2.080E-06,0.096
-2.070E-06,0.068
-2.060E-06,0.004
-2.050E-06,-0.068
-2.040E-06,-0.100
-2.030E-06,-0.056
-2.020E-06,0.024
-2.010E-06,0.092
-2.000E-06,0.096
-1.990E-06,0.060
-1.980E-06,-0.008
-1.970E-06,-0.068
-1.960E-06,-0.072
-1.950E-06,-0.032
-1.940E-06,0.024
-1.930E-06,0.072
-1.920E-06,0.088
-1.910E-06,0.056
-1.900E-06,0.016
-1.890E-06,-0.028
-1.880E-06,-0.028
-1.870E-06,0.016
-1.860E-06,0.076
-1.850E-06,0.132
-1.840E-06,0.132
-1.830E-06,0.036
-1.820E-06,-0.068
-1.810E-06,-0.136
-1.800E-06,-0.176
-1.790E-06,-0.088
-1.780E-06,0.000
-1.770E-06,0.128
-1.760E-06,0.184
-1.750E-06,0.120
-1.740E-06,-0.004
-1.730E-06,-0.160
-1.720E-06,-0.144
-1.710E-06,-0.020
-1.700E-06,0.104
-1.690E-06,0.084
-1.680E-06,-0.028
-1.670E-06,-0.176
-1.660E-06,-0.096
-1.650E-06,0.012
-1.640E-06,0.184
-1.630E-06,0.188
-1.620E-06,0.076
-1.610E-06,-0.104
-1.600E-06,-0.236
-1.590E-06,-0.172
-1.580E-06,-0.020
-1.570E-06,0.168
-1.560E-06,0.204
-1.550E-06,0.160
-1.540E-06,-0.004
-1.530E-06,-0.068
-1.520E-06,-0.072
-1.510E-06,-0.080
-1.500E-06,-0.040
-1.490E-06,-0.028
-1.480E-06,0.012
-1.470E-06,0.040
-1.460E-06,0.100
-1.450E-06,0.060
-1.440E-06,-0.036
-1.430E-06,-0.112
-1.420E-06,-0.100
-1.410E-06,0.000
-1.400E-06,0.112
-1.390E-06,0.148
-1.380E-06,0.104
-1.370E-06,0.000
-1.360E-06,-0.060
-1.350E-06,-0.064
-1.340E-06,-0.052
-1.330E-06,-0.068
-1.320E-06,-0.036
-1.310E-06,0.032
-1.300E-06,0.076
-1.290E-06,0.092
-1.280E-06,0.000
-1.270E-06,-0.056
-1.260E-06,-0.084
-1.250E-06,-0.044
-1.240E-06,0.000
-1.230E-06,0.060
-1.220E-06,0.068
-1.210E-06,0.048
-1.200E-06,-0.004
-1.190E-06,-0.048
-1.180E-06,-0.044
-1.170E-06,-0.004
-1.160E-06,0.056
-1.150E-06,0.068
-1.140E-06,0.052
-1.130E-06,0.020
-1.120E-06,0.024
-1.110E-06,0.024
-1.100E-06,0.008
-1.090E-06,-0.012
-1.080E-06,-0.076
-1.070E-06,-0.120
-1.060E-06,-0.108
-1.050E-06,-0.004
-1.040E-06,0.056
-1.030E-06,0.156
-1.020E-06,0.156
-1.010E-06,0.080
-1.000E-06,-0.064
-9.900E-07,-0.140
-9.800E-07,-0.160
-9.700E-07,-0.084
-9.600E-07,0.080
-9.500E-07,0.180
-9.400E-07,0.080
-9.300E-07,-0.084
-9.200E-07,-0.236
-9.100E-07,-0.272
-9.000E-07,-0.048
-8.900E-07,0.240
-8.800E-07,0.292
-8.700E-07,0.128
-8.600E-07,-0.056
-8.500E-07,-0.200
-8.400E-07,-0.180
-8.300E-07,-0.036
-8.200E-07,0.092
-8.100E-07,0.156
-8.000E-07,0.124
-7.900E-07,0.036
-7.800E-07,-0.076
-7.700E-07,-0.124
-7.600E-07,-0.084
-7.500E-07,-0.004
-7.400E-07,0.072
-7.300E-07,0.096
-7.200E-07,0.060
-7.100E-07,0.012
-7.000E-07,-0.036
-6.900E-07,-0.064
-6.800E-07,-0.060
-6.700E-07,-0.028
-6.600E-07,0.036
-6.500E-07,0.068
-6.400E-07,0.084
-6.300E-07,0.048
-6.200E-07,-0.020
-6.100E-07,-0.076
-6.000E-07,-0.080
-5.900E-07,-0.036
-5.800E-07,0.028
-5.700E-07,0.088
-5.600E-07,0.092
-5.500E-07,0.048
-5.400E-07,-0.012
-5.300E-07,-0.064
-5.200E-07,-0.064
-5.100E-07,-0.024
-5.000E-07,0.028
-4.900E-07,0.072
-4.800E-07,0.076
-4.700E-07,0.040
-4.600E-07,-0.012
-4.500E-07,-0.052
-4.400E-07,-0.052
-4.300E-07,-0.028
-4.200E-07,0.020
-4.100E-07,0.052
-4.000E-07,0.060
-3.900E-07,0.028
-3.800E-07,0.004
-3.700E-07,-0.020
-3.600E-07,-0.032
-3.500E-07,-0.012
-3.400E-07,0.012
-3.300E-07,0.040
-3.200E-07,0.052
-3.100E-07,0.048
-3.000E-07,0.024
-2.900E-07,0.004
-2.800E-07,0.000
-2.700E-07,0.008
-2.600E-07,0.020
-2.500E-07,0.040
-2.400E-07,0.052
-2.300E-07,0.044
-2.200E-07,0.032
-2.100E-07,0.024
-2.000E-07,0.012
-1.900E-07,0.016
-1.800E-07,0.040
-1.700E-07,0.060
-1.600E-07,0.076
-1.500E-07,0.104
-1.400E-07,0.084
-1.300E-07,0.024
-1.200E-07,-0.016
-1.100E-07,-0.052
-1.000E-07,-0.044
-9.000E-08,0.052
-8.000E-08,0.156
-7.000E-08,0.024
-6.000E-08,-0.148
-5.000E-08,-0.312
-4.000E-08,-0.316
-3.000E-08,-0.124
-2.000E-08,0.180
-1.000E-08,0.436
0.000E+00,0.436
1.000E-08,0.240
2.000E-08,-0.132
3.000E-08,-0.408
4.000E-08,-0.496
5.000E-08,-0.268
6.000E-08,0.068
7.000E-08,0.348
8.000E-08,0.436
9.000E-08,0.000
1.000E-07,-0.380
1.100E-07,-0.512
1.200E-07,-0.404
1.300E-07,-0.004
1.400E-07,0.492
1.500E-07,0.540
1.600E-07,0.296
1.700E-07,-0.140
1.800E-07,-0.488
1.900E-07,-0.484
2.000E-07,-0.176
2.100E-07,0.224
2.200E-07,0.420
2.300E-07,0.360
2.400E-07,0.084
2.500E-07,-0.216
2.600E-07,-0.284
2.700E-07,-0.184
2.800E-07,0.020
2.900E-07,0.164
3.000E-07,0.232
3.100E-07,0.172
3.200E-07,0.076
3.300E-07,-0.064
3.400E-07,-0.172
3.500E-07,-0.196
3.600E-07,-0.080
3.700E-07,0.084
3.800E-07,0.216
3.900E-07,0.236
4.000E-07,0.124
4.100E-07,-0.044
4.200E-07,-0.172
4.300E-07,-0.160
4.400E-07,-0.004
4.500E-07,0.176
4.600E-07,0.268
4.700E-07,0.152
4.800E-07,-0.112
4.900E-07,-0.468
5.000E-07,-0.496
5.100E-07,-0.156
5.200E-07,0.236
5.300E-07,0.468
5.400E-07,0.356
5.500E-07,0.064
5.600E-07,-0.248
5.700E-07,-0.328
5.800E-07,-0.228
5.900E-07,-0.008
6.000E-07,0.180
6.100E-07,0.244
6.200E-07,0.192
6.300E-07,0.028
6.400E-07,-0.096
6.500E-07,-0.172
6.600E-07,-0.116
6.700E-07,-0.020
6.800E-07,0.100
6.900E-07,0.164
7.000E-07,0.164
7.100E-07,0.092
7.200E-07,-0.008
7.300E-07,-0.084
7.400E-07,-0.108
7.500E-07,-0.020
7.600E-07,0.088
7.700E-07,0.128
7.800E-07,0.068
7.900E-07,0.004
8.000E-07,-0.048
8.100E-07,-0.052
8.200E-07,0.004
8.300E-07,0.040
8.400E-07,0.068
8.500E-07,0.068
8.600E-07,-0.016
8.700E-07,-0.072
8.800E-07,-0.112
8.900E-07,-0.120
9.000E-07,-0.064
9.100E-07,-0.008
9.200E-07,0.072
9.300E-07,0.088
9.400E-07,0.056
9.500E-07,-0.016
9.600E-07,-0.060
9.700E-07,-0.052
9.800E-07,-0.024
9.900E-07,0.040
1.000E-06,0.076
1.010E-06,0.072
1.020E-06,0.016
1.030E-06,-0.012
1.040E-06,-0.024
1.050E-06,0.008
1.060E-06,0.052
1.070E-06,0.092
1.080E-06,0.092
1.090E-06,0.080
1.100E-06,0.056
1.110E-06,0.040
1.120E-06,0.044
1.130E-06,0.060
1.140E-06,0.096
1.150E-06,0.112
1.160E-06,0.140
1.170E-06,0.136
1.180E-06,0.128
1.190E-06,0.104
1.200E-06,0.092
1.210E-06,0.024
1.220E-06,-0.080
1.230E-06,-0.512
1.240E-06,-0.512
1.250E-06,-0.464
1.260E-06,0.356
1.270E-06,0.540
1.280E-06,0.540
1.290E-06,0.172
1.300E-06,-0.508
1.310E-06,-0.512
1.320E-06,-0.512
1.330E-06,0.392
1.340E-06,0.540
1.350E-06,0.536
1.360E-06,-0.032
1.370E-06,-0.380
1.380E-06,-0.512
1.390E-06,-0.232
1.400E-06,0.124
1.410E-06,0.256
1.420E-06,0.328
1.430E-06,0.156
1.440E-06,0.136
1.450E-06,-0.088
1.460E-06,-0.020
1.470E-06,-0.168
1.480E-06,-0.004
1.490E-06,0.060
1.500E-06,0.284
1.510E-06,0.076
1.520E-06,-0.368
1.530E-06,-0.396
1.540E-06,-0.144
1.550E-06,0.140
1.560E-06,0.320
1.570E-06,0.300
1.580E-06,0.016
1.590E-06,-0.152
1.600E-06,-0.268
1.610E-06,-0.128
1.620E-06,0.024
1.630E-06,0.208
1.640E-06,0.220
1.650E-06,0.120
1.660E-06,-0.048
1.670E-06,-0.128
1.680E-06,-0.088
1.690E-06,-0.024
1.700E-06,0.060
1.710E-06,0.092
1.720E-06,0.132
1.730E-06,0.008
1.740E-06,-0.132
1.750E-06,-0.188
1.760E-06,-0.156
1.770E-06,-0.120
1.780E-06,0.076
1.790E-06,0.220
1.800E-06,0.200
1.810E-06,0.056
1.820E-06,-0.104
1.830E-06,-0.156
1.840E-06,-0.132
1.850E-06,0.004
1.860E-06,0.084
1.870E-06,0.124
1.880E-06,0.064
1.890E-06,0.016
1.900E-06,-0.040
1.910E-06,-0.072
1.920E-06,-0.056
1.930E-06,-0.004
1.940E-06,0.076
1.950E-06,0.108
1.960E-06,0.104
1.970E-06,0.032
1.980E-06,-0.008
1.990E-06,-0.036
2.000E-06,0.008
2.010E-06,0.064
2.020E-06,0.140
2.030E-06,0.128
2.040E-06,0.060
2.050E-06,-0.060
2.060E-06,-0.156
2.070E-06,-0.140
2.080E-06,-0.040
2.090E-06,0.128
2.100E-06,0.220
2.110E-06,0.204
2.120E-06,0.044
2.130E-06,-0.104
2.140E-06,-0.276
2.150E-06,-0.264
2.160E-06,-0.088
2.170E-06,0.044
2.180E-06,0.156
2.190E-06,0.128
2.200E-06,0.048
2.210E-06,-0.076
2.220E-06,-0.108
2.230E-06,-0.064
2.240E-06,-0.020
2.250E-06,0.028
2.260E-06,0.060
2.270E-06,0.072
2.280E-06,0.032
2.290E-06,0.004
2.300E-06,-0.032
2.310E-06,-0.024
2.320E-06,-0.012
2.330E-06,0.028
2.340E-06,0.060
2.350E-06,0.096
2.360E-06,0.088
2.370E-06,0.064
2.380E-06,0.064
2.390E-06,0.056
2.400E-06,0.080
2.410E-06,0.124
2.420E-06,0.132
2.430E-06,0.056
2.440E-06,-0.036
2.450E-06,-0.152
2.460E-06,-0.180
2.470E-06,-0.108
2.480E-06,0.060
2.490E-06,0.092
2.500E-06,0.028
2.510E-06,-0.096
2.520E-06,-0.200
2.530E-06,-0.236
2.540E-06,-0.132
2.550E-06,0.132
2.560E-06,0.296
2.570E-06,0.240
2.580E-06,0.060
2.590E-06,-0.060
2.600E-06,-0.040
2.610E-06,0.064
2.620E-06,0.168
2.630E-06,0.200
2.640E-06,0.160
2.650E-06,0.028
2.660E-06,-0.336
2.670E-06,-0.512
2.680E-06,-0.428
2.690E-06,-0.156
2.700E-06,0.100
2.710E-06,0.448
2.720E-06,0.448
2.730E-06,0.180
2.740E-06,-0.204
2.750E-06,-0.420
2.760E-06,-0.340
2.770E-06,-0.076
2.780E-06,0.240
2.790E-06,0.336
2.800E-06,0.264
2.810E-06,0.004
2.820E-06,-0.160
2.830E-06,-0.232
2.840E-06,-0.136
2.850E-06,0.004
2.860E-06,0.156
2.870E-06,0.252
2.880E-06,0.240
2.890E-06,0.168
2.900E-06,0.028
2.910E-06,-0.008
2.920E-06,0.012
2.930E-06,0.084
2.940E-06,0.132
2.950E-06,0.136
2.960E-06,0.020
2.970E-06,-0.108
2.980E-06,-0.204
2.990E-06,-0.160
3.000E-06,-0.056
3.010E-06,0.052
3.020E-06,0.176
3.030E-06,0.192
3.040E-06,0.116
3.050E-06,-0.028
3.060E-06,-0.048
3.070E-06,0.028
3.080E-06,0.152
3.090E-06,0.196
3.100E-06,0.192
3.110E-06,0.128
3.120E-06,0.024
3.130E-06,-0.016
3.140E-06,-0.044
3.150E-06,-0.084
3.160E-06,-0.112
3.170E-06,-0.052
3.180E-06,0.008
3.190E-06,0.096
3.200E-06,0.164
3.210E-06,0.152
3.220E-06,0.024
