mediciones/5-15 mala escala/27.77/WaveData46108.csv

#timebase=2000000(ps)
,#voltbase=100000(mv/100)
#size=4000
-8.400E-06,0.036
-8.390E-06,0.040
-8.380E-06,0.012
-8.370E-06,-0.008
-8.360E-06,-0.024
-8.350E-06,-0.028
-8.340E-06,-0.004
-8.330E-06,0.016
-8.320E-06,0.028
-8.310E-06,0.020
-8.300E-06,0.008
-8.290E-06,-0.008
-8.280E-06,-0.020
-8.270E-06,-0.008
-8.260E-06,0.004
-8.250E-06,0.004
-8.240E-06,0.012
-8.230E-06,0.012
-8.220E-06,0.012
-8.210E-06,0.000
-8.200E-06,-0.004
-8.190E-06,-0.008
-8.180E-06,0.000
-8.170E-06,-0.004
-8.160E-06,0.008
-8.150E-06,0.008
-8.140E-06,0.008
-8.130E-06,0.008
-8.120E-06,0.004
-8.110E-06,-0.008
-8.100E-06,-0.008
-8.090E-06,0.004
-8.080E-06,0.012
-8.070E-06,0.016
-8.060E-06,0.016
-8.050E-06,0.000
-8.040E-06,-0.004
-8.030E-06,-0.004
-8.020E-06,-0.004
-8.010E-06,0.004
-8.000E-06,0.008
-7.990E-06,0.008
-7.980E-06,0.008
-7.970E-06,0.000
-7.960E-06,0.000
-7.950E-06,0.000
-7.940E-06,0.000
-7.930E-06,0.004
-7.920E-06,0.004
-7.910E-06,0.000
-7.900E-06,0.004
-7.890E-06,0.008
-7.880E-06,0.004
-7.870E-06,0.000
-7.860E-06,0.000
-7.850E-06,-0.004
-7.840E-06,0.000
-7.830E-06,0.004
-7.820E-06,0.008
-7.810E-06,0.008
-7.800E-06,0.012
-7.790E-06,0.008
-7.780E-06,0.000
-7.770E-06,-0.004
-7.760E-06,0.000
-7.750E-06,0.008
-7.740E-06,0.004
-7.730E-06,0.012
-7.720E-06,0.000
-7.710E-06,-0.004
-7.700E-06,-0.004
-7.690E-06,-0.004
-7.680E-06,0.000
-7.670E-06,0.008
-7.660E-06,0.008
-7.650E-06,0.012
-7.640E-06,0.008
-7.630E-06,0.004
-7.620E-06,0.004
-7.610E-06,-0.004
-7.600E-06,0.004
-7.590E-06,0.008
-7.580E-06,0.008
-7.570E-06,0.004
-7.560E-06,0.008
-7.550E-06,0.000
-7.540E-06,0.004
-7.530E-06,0.004
-7.520E-06,0.008
-7.510E-06,0.008
-7.500E-06,0.008
-7.490E-06,0.012
-7.480E-06,0.012
-7.470E-06,0.008
-7.460E-06,0.004
-7.450E-06,0.000
-7.440E-06,0.000
-7.430E-06,-0.020
-7.420E-06,-0.016
-7.410E-06,-0.012
-7.400E-06,0.008
-7.390E-06,0.028
-7.380E-06,0.040
-7.370E-06,0.004
-7.360E-06,-0.020
-7.350E-06,-0.040
-7.340E-06,-0.044
-7.330E-06,-0.008
-7.320E-06,0.024
-7.310E-06,0.056
-7.300E-06,0.040
-7.290E-06,0.012
-7.280E-06,-0.024
-7.270E-06,-0.036
-7.260E-06,-0.036
-7.250E-06,-0.008
-7.240E-06,0.028
-7.230E-06,0.024
-7.220E-06,0.020
-7.210E-06,0.016
-7.200E-06,0.004
-7.190E-06,-0.016
-7.180E-06,-0.012
-7.170E-06,0.004
-7.160E-06,-0.008
-7.150E-06,0.008
-7.140E-06,0.008
-7.130E-06,0.004
-7.120E-06,0.008
-7.110E-06,0.000
-7.100E-06,-0.008
-7.090E-06,-0.020
-7.080E-06,-0.008
-7.070E-06,0.000
-7.060E-06,0.020
-7.050E-06,0.028
-7.040E-06,0.024
-7.030E-06,0.004
-7.020E-06,-0.008
-7.010E-06,-0.012
-7.000E-06,-0.008
-6.990E-06,0.008
-6.980E-06,0.024
-6.970E-06,0.008
-6.960E-06,0.000
-6.950E-06,-0.004
-6.940E-06,-0.008
-6.930E-06,-0.004
-6.920E-06,0.008
-6.910E-06,0.008
-6.900E-06,0.012
-6.890E-06,0.004
-6.880E-06,-0.004
-6.870E-06,-0.004
-6.860E-06,-0.004
-6.850E-06,0.004
-6.840E-06,0.008
-6.830E-06,0.008
-6.820E-06,0.008
-6.810E-06,0.004
-6.800E-06,0.000
-6.790E-06,0.000
-6.780E-06,0.000
-6.770E-06,0.004
-6.760E-06,0.004
-6.750E-06,0.008
-6.740E-06,0.008
-6.730E-06,0.004
-6.720E-06,0.004
-6.710E-06,-0.004
-6.700E-06,0.000
-6.690E-06,-0.004
-6.680E-06,0.000
-6.670E-06,0.008
-6.660E-06,0.016
-6.650E-06,0.016
-6.640E-06,0.004
-6.630E-06,0.000
-6.620E-06,-0.004
-6.610E-06,-0.004
-6.600E-06,-0.004
-6.590E-06,0.004
-6.580E-06,0.012
-6.570E-06,0.008
-6.560E-06,0.008
-6.550E-06,0.004
-6.540E-06,-0.004
-6.530E-06,-0.004
-6.520E-06,0.000
-6.510E-06,0.000
-6.500E-06,0.012
-6.490E-06,0.012
-6.480E-06,0.004
-6.470E-06,0.008
-6.460E-06,0.000
-6.450E-06,-0.004
-6.440E-06,-0.004
-6.430E-06,0.000
-6.420E-06,0.008
-6.410E-06,0.012
-6.400E-06,0.012
-6.390E-06,0.012
-6.380E-06,0.004
-6.370E-06,0.000
-6.360E-06,0.000
-6.350E-06,0.004
-6.340E-06,0.016
-6.330E-06,0.008
-6.320E-06,0.000
-6.310E-06,0.000
-6.300E-06,0.004
-6.290E-06,0.004
-6.280E-06,0.012
-6.270E-06,0.004
-6.260E-06,0.008
-6.250E-06,0.012
-6.240E-06,0.020
-6.230E-06,0.008
-6.220E-06,0.012
-6.210E-06,0.008
-6.200E-06,0.000
-6.190E-06,-0.008
-6.180E-06,-0.016
-6.170E-06,-0.004
-6.160E-06,-0.008
-6.150E-06,0.008
-6.140E-06,0.020
-6.130E-06,0.024
-6.120E-06,-0.016
-6.110E-06,-0.040
-6.100E-06,-0.024
-6.090E-06,0.012
-6.080E-06,0.048
-6.070E-06,0.048
-6.060E-06,0.016
-6.050E-06,-0.020
-6.040E-06,-0.032
-6.030E-06,-0.024
-6.020E-06,0.008
-6.010E-06,0.024
-6.000E-06,0.020
-5.990E-06,0.008
-5.980E-06,-0.016
-5.970E-06,-0.004
-5.960E-06,0.008
-5.950E-06,0.012
-5.940E-06,-0.008
-5.930E-06,-0.020
-5.920E-06,-0.012
-5.910E-06,0.012
-5.900E-06,0.024
-5.890E-06,0.040
-5.880E-06,0.020
-5.870E-06,-0.008
-5.860E-06,-0.032
-5.850E-06,-0.024
-5.840E-06,-0.004
-5.830E-06,0.028
-5.820E-06,0.040
-5.810E-06,0.028
-5.800E-06,0.008
-5.790E-06,-0.008
-5.780E-06,-0.040
-5.770E-06,-0.032
-5.760E-06,-0.008
-5.750E-06,-0.008
-5.740E-06,0.024
-5.730E-06,0.056
-5.720E-06,0.040
-5.710E-06,-0.020
-5.700E-06,-0.056
-5.690E-06,-0.048
-5.680E-06,0.000
-5.670E-06,0.036
-5.660E-06,0.056
-5.650E-06,0.036
-5.640E-06,-0.004
-5.630E-06,-0.036
-5.620E-06,-0.040
-5.610E-06,-0.008
-5.600E-06,0.016
-5.590E-06,0.040
-5.580E-06,0.032
-5.570E-06,0.012
-5.560E-06,-0.008
-5.550E-06,-0.020
-5.540E-06,-0.012
-5.530E-06,-0.004
-5.520E-06,0.008
-5.510E-06,0.012
-5.500E-06,0.016
-5.490E-06,0.012
-5.480E-06,0.004
-5.470E-06,-0.004
-5.460E-06,0.000
-5.450E-06,-0.008
-5.440E-06,-0.004
-5.430E-06,0.008
-5.420E-06,0.016
-5.410E-06,0.024
-5.400E-06,0.016
-5.390E-06,0.000
-5.380E-06,-0.008
-5.370E-06,-0.008
-5.360E-06,0.000
-5.350E-06,0.008
-5.340E-06,0.020
-5.330E-06,0.016
-5.320E-06,0.008
-5.310E-06,-0.012
-5.300E-06,-0.012
-5.290E-06,-0.012
-5.280E-06,0.000
-5.270E-06,0.008
-5.260E-06,0.020
-5.250E-06,0.012
-5.240E-06,0.008
-5.230E-06,-0.004
-5.220E-06,-0.008
-5.210E-06,-0.008
-5.200E-06,0.000
-5.190E-06,0.012
-5.180E-06,0.020
-5.170E-06,0.016
-5.160E-06,0.004
-5.150E-06,-0.004
-5.140E-06,-0.004
-5.130E-06,-0.004
-5.120E-06,-0.004
-5.110E-06,0.008
-5.100E-06,0.016
-5.090E-06,0.020
-5.080E-06,0.016
-5.070E-06,0.004
-5.060E-06,0.000
-5.050E-06,-0.008
-5.040E-06,-0.004
-5.030E-06,0.004
-5.020E-06,0.012
-5.010E-06,0.020
-5.000E-06,0.020
-4.990E-06,0.016
-4.980E-06,0.000
-4.970E-06,-0.008
-4.960E-06,-0.004
-4.950E-06,0.000
-4.940E-06,0.008
-4.930E-06,0.016
-4.920E-06,0.020
-4.910E-06,0.012
-4.900E-06,0.004
-4.890E-06,-0.004
-4.880E-06,0.000
-4.870E-06,0.004
-4.860E-06,0.012
-4.850E-06,0.024
-4.840E-06,0.032
-4.830E-06,0.028
-4.820E-06,0.004
-4.810E-06,-0.004
-4.800E-06,-0.012
-4.790E-06,-0.008
-4.780E-06,0.004
-4.770E-06,0.024
-4.760E-06,0.028
-4.750E-06,0.036
-4.740E-06,0.032
-4.730E-06,0.012
-4.720E-06,0.004
-4.710E-06,-0.024
-4.700E-06,-0.020
-4.690E-06,-0.020
-4.680E-06,-0.016
-4.670E-06,0.004
-4.660E-06,0.028
-4.650E-06,0.032
-4.640E-06,0.008
-4.630E-06,-0.028
-4.620E-06,-0.020
-4.610E-06,-0.020
-4.600E-06,-0.004
-4.590E-06,0.028
-4.580E-06,0.024
-4.570E-06,0.004
-4.560E-06,-0.008
-4.550E-06,0.000
-4.540E-06,-0.008
-4.530E-06,0.008
-4.520E-06,0.008
-4.510E-06,0.016
-4.500E-06,0.016
-4.490E-06,0.024
-4.480E-06,0.016
-4.470E-06,0.016
-4.460E-06,0.016
-4.450E-06,-0.004
-4.440E-06,-0.052
-4.430E-06,-0.072
-4.420E-06,-0.072
-4.410E-06,-0.016
-4.400E-06,0.068
-4.390E-06,0.104
-4.380E-06,0.068
-4.370E-06,-0.040
-4.360E-06,-0.076
-4.350E-06,-0.088
-4.340E-06,-0.032
-4.330E-06,0.044
-4.320E-06,0.088
-4.310E-06,0.072
-4.300E-06,0.012
-4.290E-06,-0.044
-4.280E-06,-0.076
-4.270E-06,-0.040
-4.260E-06,0.012
-4.250E-06,0.060
-4.240E-06,0.056
-4.230E-06,0.024
-4.220E-06,-0.016
-4.210E-06,-0.044
-4.200E-06,-0.040
-4.190E-06,-0.012
-4.180E-06,0.028
-4.170E-06,0.020
-4.160E-06,0.016
-4.150E-06,-0.012
-4.140E-06,-0.004
-4.130E-06,-0.004
-4.120E-06,0.004
-4.110E-06,0.012
-4.100E-06,0.016
-4.090E-06,0.004
-4.080E-06,-0.004
-4.070E-06,-0.008
-4.060E-06,-0.004
-4.050E-06,0.008
-4.040E-06,0.008
-4.030E-06,0.008
-4.020E-06,0.008
-4.010E-06,0.004
-4.000E-06,0.004
-3.990E-06,0.000
-3.980E-06,-0.004
-3.970E-06,-0.004
-3.960E-06,-0.004
-3.950E-06,-0.004
-3.940E-06,0.012
-3.930E-06,0.020
-3.920E-06,0.016
-3.910E-06,0.004
-3.900E-06,-0.008
-3.890E-06,-0.008
-3.880E-06,-0.008
-3.870E-06,0.008
-3.860E-06,0.012
-3.850E-06,0.020
-3.840E-06,0.020
-3.830E-06,0.012
-3.820E-06,-0.012
-3.810E-06,-0.008
-3.800E-06,-0.004
-3.790E-06,0.004
-3.780E-06,0.008
-3.770E-06,0.020
-3.760E-06,0.016
-3.750E-06,0.008
-3.740E-06,-0.004
-3.730E-06,-0.012
-3.720E-06,-0.008
-3.710E-06,-0.004
-3.700E-06,0.012
-3.690E-06,0.020
-3.680E-06,0.016
-3.670E-06,0.012
-3.660E-06,0.000
-3.650E-06,-0.008
-3.640E-06,-0.004
-3.630E-06,-0.008
-3.620E-06,0.004
-3.610E-06,0.012
-3.600E-06,0.024
-3.590E-06,0.016
-3.580E-06,0.008
-3.570E-06,-0.008
-3.560E-06,-0.016
-3.550E-06,-0.008
-3.540E-06,0.008
-3.530E-06,0.028
-3.520E-06,0.024
-3.510E-06,0.020
-3.500E-06,0.000
-3.490E-06,-0.004
-3.480E-06,-0.004
-3.470E-06,-0.004
-3.460E-06,0.008
-3.450E-06,0.020
-3.440E-06,0.016
-3.430E-06,0.020
-3.420E-06,0.012
-3.410E-06,0.012
-3.400E-06,0.016
-3.390E-06,0.016
-3.380E-06,0.020
-3.370E-06,0.016
-3.360E-06,0.008
-3.350E-06,0.008
-3.340E-06,0.008
-3.330E-06,0.016
-3.320E-06,0.024
-3.310E-06,0.036
-3.300E-06,0.012
-3.290E-06,-0.024
-3.280E-06,-0.032
-3.270E-06,-0.040
-3.260E-06,-0.024
-3.250E-06,-0.012
-3.240E-06,0.012
-3.230E-06,0.016
-3.220E-06,0.020
-3.210E-06,0.008
-3.200E-06,-0.012
-3.190E-06,-0.024
-3.180E-06,-0.020
-3.170E-06,0.008
-3.160E-06,0.028
-3.150E-06,0.040
-3.140E-06,0.016
-3.130E-06,0.004
-3.120E-06,-0.004
-3.110E-06,-0.016
-3.100E-06,-0.008
-3.090E-06,0.004
-3.080E-06,0.016
-3.070E-06,0.024
-3.060E-06,0.036
-3.050E-06,0.032
-3.040E-06,0.024
-3.030E-06,0.012
-3.020E-06,-0.008
-3.010E-06,-0.024
-3.000E-06,-0.068
-2.990E-06,-0.040
-2.980E-06,0.004
-2.970E-06,0.032
-2.960E-06,0.020
-2.950E-06,0.052
-2.940E-06,-0.032
-2.930E-06,-0.072
-2.920E-06,-0.064
-2.910E-06,-0.004
-2.900E-06,0.092
-2.890E-06,0.092
-2.880E-06,0.048
-2.870E-06,-0.048
-2.860E-06,-0.084
-2.850E-06,-0.072
-2.840E-06,0.008
-2.830E-06,0.064
-2.820E-06,0.076
-2.810E-06,0.032
-2.800E-06,-0.004
-2.790E-06,-0.036
-2.780E-06,-0.036
-2.770E-06,-0.004
-2.760E-06,0.040
-2.750E-06,0.064
-2.740E-06,0.060
-2.730E-06,0.036
-2.720E-06,-0.008
-2.710E-06,-0.080
-2.700E-06,-0.112
-2.690E-06,-0.068
-2.680E-06,0.032
-2.670E-06,0.068
-2.660E-06,0.024
-2.650E-06,-0.008
-2.640E-06,-0.024
-2.630E-06,-0.008
-2.620E-06,0.000
-2.610E-06,0.004
-2.600E-06,-0.004
-2.590E-06,0.000
-2.580E-06,0.024
-2.570E-06,0.028
-2.560E-06,0.024
-2.550E-06,0.008
-2.540E-06,-0.008
-2.530E-06,-0.024
-2.520E-06,-0.008
-2.510E-06,0.008
-2.500E-06,0.036
-2.490E-06,0.040
-2.480E-06,0.028
-2.470E-06,-0.004
-2.460E-06,-0.032
-2.450E-06,-0.032
-2.440E-06,0.000
-2.430E-06,0.024
-2.420E-06,0.044
-2.410E-06,0.032
-2.400E-06,0.000
-2.390E-06,-0.032
-2.380E-06,-0.052
-2.370E-06,-0.024
-2.360E-06,0.008
-2.350E-06,0.024
-2.340E-06,-0.008
-2.330E-06,-0.044
-2.320E-06,-0.036
-2.310E-06,0.000
-2.300E-06,0.056
-2.290E-06,0.056
-2.280E-06,0.016
-2.270E-06,-0.044
-2.260E-06,-0.064
-2.250E-06,-0.052
-2.240E-06,0.008
-2.230E-06,0.060
-2.220E-06,0.072
-2.210E-06,0.032
-2.200E-06,-0.020
-2.190E-06,-0.052
-2.180E-06,-0.052
-2.170E-06,-0.020
-2.160E-06,0.020
-2.150E-06,0.060
-2.140E-06,0.052
-2.130E-06,0.028
-2.120E-06,-0.016
-2.110E-06,-0.028
-2.100E-06,-0.036
-2.090E-06,-0.008
-2.080E-06,0.016
-2.070E-06,0.036
-2.060E-06,0.036
-2.050E-06,0.020
-2.040E-06,-0.004
-2.030E-06,-0.020
-2.020E-06,-0.036
-2.010E-06,-0.028
-2.000E-06,0.004
-1.990E-06,0.036
-1.980E-06,0.040
-1.970E-06,0.040
-1.960E-06,0.012
-1.950E-06,-0.024
-1.940E-06,-0.036
-1.930E-06,-0.028
-1.920E-06,-0.008
-1.910E-06,0.036
-1.900E-06,0.060
-1.890E-06,0.056
-1.880E-06,0.032
-1.870E-06,-0.016
-1.860E-06,-0.056
-1.850E-06,-0.064
-1.840E-06,-0.028
-1.830E-06,0.024
-1.820E-06,0.072
-1.810E-06,0.076
-1.800E-06,0.032
-1.790E-06,-0.008
-1.780E-06,-0.052
-1.770E-06,-0.044
-1.760E-06,-0.008
-1.750E-06,0.036
-1.740E-06,0.072
-1.730E-06,0.076
-1.720E-06,0.048
-1.710E-06,0.012
-1.700E-06,-0.012
-1.690E-06,-0.016
-1.680E-06,0.004
-1.670E-06,0.028
-1.660E-06,0.048
-1.650E-06,0.056
-1.640E-06,0.044
-1.630E-06,-0.004
-1.620E-06,-0.036
-1.610E-06,-0.052
-1.600E-06,-0.052
-1.590E-06,-0.004
-1.580E-06,0.064
-1.570E-06,0.112
-1.560E-06,0.100
-1.550E-06,0.056
-1.540E-06,0.004
-1.530E-06,-0.036
-1.520E-06,-0.036
-1.510E-06,0.016
-1.500E-06,0.020
-1.490E-06,0.000
-1.480E-06,-0.028
-1.470E-06,-0.092
-1.460E-06,-0.072
-1.450E-06,-0.044
-1.440E-06,0.048
-1.430E-06,0.084
-1.420E-06,0.072
-1.410E-06,0.020
-1.400E-06,-0.040
-1.390E-06,-0.068
-1.380E-06,-0.056
-1.370E-06,-0.024
-1.360E-06,0.012
-1.350E-06,0.044
-1.340E-06,0.032
-1.330E-06,0.020
-1.320E-06,-0.004
-1.310E-06,-0.008
-1.300E-06,-0.012
-1.290E-06,0.004
-1.280E-06,0.020
-1.270E-06,0.032
-1.260E-06,0.040
-1.250E-06,0.036
-1.240E-06,0.032
-1.230E-06,0.012
-1.220E-06,0.020
-1.210E-06,0.012
-1.200E-06,0.016
-1.190E-06,0.004
-1.180E-06,-0.008
-1.170E-06,-0.016
-1.160E-06,-0.004
-1.150E-06,0.028
-1.140E-06,0.036
-1.130E-06,0.060
-1.120E-06,0.068
-1.110E-06,0.056
-1.100E-06,0.044
-1.090E-06,0.020
-1.080E-06,0.000
-1.070E-06,-0.008
-1.060E-06,0.008
-1.050E-06,0.036
-1.040E-06,0.072
-1.030E-06,0.084
-1.020E-06,0.080
-1.010E-06,0.056
-1.000E-06,0.024
-9.900E-07,-0.004
-9.800E-07,0.012
-9.700E-07,0.028
-9.600E-07,0.028
-9.500E-07,0.020
-9.400E-07,0.008
-9.300E-07,-0.004
-9.200E-07,-0.004
-9.100E-07,0.024
-9.000E-07,0.040
-8.900E-07,0.052
-8.800E-07,0.064
-8.700E-07,0.072
-8.600E-07,0.104
-8.500E-07,0.136
-8.400E-07,0.128
-8.300E-07,0.024
-8.200E-07,-0.096
-8.100E-07,-0.240
-8.000E-07,-0.340
-7.900E-07,-0.260
-7.800E-07,-0.072
-7.700E-07,0.048
-7.600E-07,0.048
-7.500E-07,0.120
-7.400E-07,-0.056
-7.300E-07,-0.220
-7.200E-07,-0.172
-7.100E-07,0.020
-7.000E-07,0.228
-6.900E-07,0.172
-6.800E-07,-0.004
-6.700E-07,-0.204
-6.600E-07,-0.236
-6.500E-07,-0.124
-6.400E-07,0.108
-6.300E-07,0.240
-6.200E-07,0.204
-6.100E-07,0.048
-6.000E-07,-0.124
-5.900E-07,-0.156
-5.800E-07,-0.076
-5.700E-07,0.072
-5.600E-07,0.164
-5.500E-07,0.192
-5.400E-07,0.120
-5.300E-07,0.040
-5.200E-07,-0.040
-5.100E-07,-0.088
-5.000E-07,-0.068
-4.900E-07,-0.004
-4.800E-07,0.108
-4.700E-07,0.196
-4.600E-07,0.224
-4.500E-07,0.152
-4.400E-07,0.072
-4.300E-07,-0.108
-4.200E-07,-0.244
-4.100E-07,-0.312
-4.000E-07,-0.264
-3.900E-07,-0.052
-3.800E-07,0.156
-3.700E-07,0.260
-3.600E-07,0.176
-3.500E-07,-0.040
-3.400E-07,-0.224
-3.300E-07,-0.248
-3.200E-07,-0.136
-3.100E-07,0.068
-3.000E-07,0.204
-2.900E-07,0.252
-2.800E-07,0.168
-2.700E-07,0.016
-2.600E-07,-0.124
-2.500E-07,-0.196
-2.400E-07,-0.140
-2.300E-07,-0.028
-2.200E-07,0.088
-2.100E-07,0.120
-2.000E-07,0.096
-1.900E-07,0.024
-1.800E-07,-0.036
-1.700E-07,-0.080
-1.600E-07,-0.056
-1.500E-07,0.024
-1.400E-07,0.124
-1.300E-07,0.184
-1.200E-07,0.172
-1.100E-07,0.136
-1.000E-07,0.088
-9.000E-08,0.092
-8.000E-08,0.124
-7.000E-08,0.180
-6.000E-08,-0.040
-5.000E-08,-0.244
-4.000E-08,-0.512
-3.000E-08,-0.512
-2.000E-08,-0.312
-1.000E-08,0.224
0.000E+00,0.540
1.000E-08,0.540
2.000E-08,0.244
3.000E-08,-0.304
4.000E-08,-0.508
5.000E-08,-0.448
6.000E-08,-0.084
7.000E-08,0.288
8.000E-08,0.480
9.000E-08,0.404
1.000E-07,0.144
1.100E-07,-0.144
1.200E-07,-0.356
1.300E-07,-0.316
1.400E-07,-0.168
1.500E-07,0.044
1.600E-07,0.184
1.700E-07,0.284
1.800E-07,0.192
1.900E-07,0.044
2.000E-07,-0.172
2.100E-07,-0.252
2.200E-07,-0.144
2.300E-07,0.060
2.400E-07,0.188
2.500E-07,0.088
2.600E-07,-0.016
2.700E-07,-0.124
2.800E-07,-0.108
2.900E-07,-0.036
3.000E-07,0.112
3.100E-07,0.112
3.200E-07,0.032
3.300E-07,-0.024
3.400E-07,-0.048
3.500E-07,-0.020
3.600E-07,0.048
3.700E-07,0.064
3.800E-07,0.004
3.900E-07,-0.056
4.000E-07,-0.136
4.100E-07,-0.072
4.200E-07,0.044
4.300E-07,0.144
4.400E-07,0.092
4.500E-07,0.052
4.600E-07,-0.060
4.700E-07,-0.132
4.800E-07,-0.100
4.900E-07,-0.060
5.000E-07,0.024
5.100E-07,0.064
5.200E-07,0.124
5.300E-07,0.104
5.400E-07,0.068
5.500E-07,-0.024
5.600E-07,-0.076
5.700E-07,-0.096
5.800E-07,-0.040
5.900E-07,0.004
6.000E-07,0.060
6.100E-07,0.076
6.200E-07,0.044
6.300E-07,0.000
6.400E-07,-0.048
6.500E-07,-0.040
6.600E-07,-0.032
6.700E-07,0.020
6.800E-07,0.048
6.900E-07,0.064
7.000E-07,0.044
7.100E-07,0.012
7.200E-07,-0.016
7.300E-07,-0.040
7.400E-07,-0.028
7.500E-07,-0.004
7.600E-07,0.032
7.700E-07,0.044
7.800E-07,0.052
7.900E-07,0.024
8.000E-07,-0.004
8.100E-07,-0.012
8.200E-07,-0.004
8.300E-07,0.008
8.400E-07,0.020
8.500E-07,0.044
8.600E-07,0.040
8.700E-07,0.052
8.800E-07,0.044
8.900E-07,0.064
9.000E-07,0.068
9.100E-07,0.080
9.200E-07,0.076
9.300E-07,0.056
9.400E-07,0.052
9.500E-07,0.056
9.600E-07,0.072
9.700E-07,0.084
9.800E-07,0.084
9.900E-07,0.064
1.000E-06,0.048
1.010E-06,0.048
1.020E-06,0.084
1.030E-06,0.064
1.040E-06,-0.028
1.050E-06,-0.180
1.060E-06,-0.300
1.070E-06,-0.268
1.080E-06,-0.104
1.090E-06,0.136
1.100E-06,0.212
1.110E-06,0.092
1.120E-06,-0.012
1.130E-06,-0.144
1.140E-06,-0.136
1.150E-06,-0.052
1.160E-06,0.056
1.170E-06,0.060
1.180E-06,0.052
1.190E-06,-0.004
1.200E-06,-0.020
1.210E-06,0.008
1.220E-06,0.072
1.230E-06,0.140
1.240E-06,0.152
1.250E-06,0.144
1.260E-06,0.088
1.270E-06,0.072
1.280E-06,-0.072
1.290E-06,-0.232
1.300E-06,-0.344
1.310E-06,-0.336
1.320E-06,-0.224
1.330E-06,0.144
1.340E-06,0.472
1.350E-06,0.372
1.360E-06,0.088
1.370E-06,-0.220
1.380E-06,-0.472
1.390E-06,-0.432
1.400E-06,-0.164
1.410E-06,0.092
1.420E-06,0.212
1.430E-06,0.220
1.440E-06,0.148
1.450E-06,0.004
1.460E-06,-0.112
1.470E-06,-0.176
1.480E-06,-0.100
1.490E-06,-0.008
1.500E-06,0.048
1.510E-06,0.024
1.520E-06,0.012
1.530E-06,-0.036
1.540E-06,-0.048
1.550E-06,-0.036
1.560E-06,-0.028
1.570E-06,0.012
1.580E-06,0.036
1.590E-06,0.064
1.600E-06,0.028
1.610E-06,0.000
1.620E-06,-0.028
1.630E-06,0.012
1.640E-06,0.012
1.650E-06,0.008
1.660E-06,0.004
1.670E-06,-0.020
1.680E-06,-0.028
1.690E-06,0.008
1.700E-06,0.060
1.710E-06,0.068
1.720E-06,0.060
1.730E-06,-0.008
1.740E-06,-0.008
1.750E-06,-0.020
1.760E-06,0.012
1.770E-06,0.028
1.780E-06,0.048
1.790E-06,0.036
1.800E-06,0.024
1.810E-06,0.012
1.820E-06,-0.028
1.830E-06,0.000
1.840E-06,0.008
1.850E-06,0.056
1.860E-06,0.096
1.870E-06,0.156
1.880E-06,0.160
1.890E-06,0.144
1.900E-06,0.080
1.910E-06,0.004
1.920E-06,-0.028
1.930E-06,-0.068
1.940E-06,-0.040
1.950E-06,0.000
1.960E-06,0.080
1.970E-06,0.132
1.980E-06,0.148
1.990E-06,0.024
2.000E-06,-0.140
2.010E-06,-0.284
2.020E-06,-0.292
2.030E-06,-0.184
2.040E-06,0.008
2.050E-06,0.196
2.060E-06,0.260
2.070E-06,0.160
2.080E-06,-0.028
2.090E-06,-0.152
2.100E-06,-0.208
2.110E-06,-0.112
2.120E-06,0.040
2.130E-06,0.224
2.140E-06,0.292
2.150E-06,0.200
2.160E-06,0.024
2.170E-06,-0.132
2.180E-06,-0.216
2.190E-06,-0.176
2.200E-06,-0.028
2.210E-06,0.116
2.220E-06,0.200
2.230E-06,0.168
2.240E-06,0.040
2.250E-06,-0.136
2.260E-06,-0.224
2.270E-06,-0.160
2.280E-06,-0.020
2.290E-06,0.144
2.300E-06,0.220
2.310E-06,0.184
2.320E-06,0.068
2.330E-06,-0.036
2.340E-06,-0.088
2.350E-06,-0.040
2.360E-06,0.096
2.370E-06,0.220
2.380E-06,0.324
2.390E-06,0.304
2.400E-06,0.224
2.410E-06,0.096
2.420E-06,-0.028
2.430E-06,-0.176
2.440E-06,-0.236
2.450E-06,-0.136
2.460E-06,0.028
2.470E-06,0.020
2.480E-06,-0.048
2.490E-06,-0.168
2.500E-06,-0.336
2.510E-06,-0.352
2.520E-06,-0.208
2.530E-06,0.036
2.540E-06,0.156
2.550E-06,0.112
2.560E-06,0.004
2.570E-06,-0.048
2.580E-06,-0.008
2.590E-06,0.064
2.600E-06,0.100
2.610E-06,0.040
2.620E-06,-0.012
2.630E-06,-0.108
2.640E-06,-0.092
2.650E-06,0.012
2.660E-06,0.160
2.670E-06,0.196
2.680E-06,0.124
2.690E-06,0.076
2.700E-06,0.028
2.710E-06,0.076
2.720E-06,0.104
2.730E-06,0.092
2.740E-06,-0.068
2.750E-06,-0.160
2.760E-06,-0.188
2.770E-06,-0.152
2.780E-06,-0.108
2.790E-06,0.008
2.800E-06,0.072
2.810E-06,0.032
2.820E-06,0.024
2.830E-06,-0.028
2.840E-06,0.008
2.850E-06,0.024
2.860E-06,0.096
2.870E-06,0.072
2.880E-06,0.052
2.890E-06,0.044
2.900E-06,0.056
2.910E-06,0.096
2.920E-06,0.112
2.930E-06,0.128
2.940E-06,0.124
2.950E-06,0.132
2.960E-06,0.088
2.970E-06,0.076
2.980E-06,0.024
2.990E-06,-0.032
3.000E-06,-0.164
3.010E-06,-0.116
3.020E-06,-0.068
3.030E-06,-0.020
3.040E-06,0.076
3.050E-06,0.148
3.060E-06,0.140
3.070E-06,0.044
3.080E-06,-0.008
3.090E-06,-0.040
3.100E-06,0.016
3.110E-06,0.052
3.120E-06,0.080
3.130E-06,0.000
3.140E-06,-0.076
3.150E-06,-0.120
3.160E-06,-0.080
3.170E-06,-0.024
3.180E-06,0.028
3.190E-06,0.056
3.200E-06,0.076
3.210E-06,0.144
3.220E-06,0.144
3.230E-06,0.144
3.240E-06,0.136
3.250E-06,0.172
