mediciones/5-15 mala escala/27.77/WaveData46125.csv

#timebase=2000000(ps)
,#voltbase=1000000(mv/100)
#size=4000
-8.400E-06,-0.120
-8.390E-06,-0.080
-8.380E-06,-0.080
-8.370E-06,-0.080
-8.360E-06,0.000
-8.350E-06,0.000
-8.340E-06,0.000
-8.330E-06,0.000
-8.320E-06,0.080
-8.310E-06,0.080
-8.300E-06,0.160
-8.290E-06,0.120
-8.280E-06,0.120
-8.270E-06,0.120
-8.260E-06,0.200
-8.250E-06,0.120
-8.240E-06,0.200
-8.230E-06,0.240
-8.220E-06,0.120
-8.210E-06,0.160
-8.200E-06,0.200
-8.190E-06,0.240
-8.180E-06,0.280
-8.170E-06,0.360
-8.160E-06,0.320
-8.150E-06,0.240
-8.140E-06,0.240
-8.130E-06,0.160
-8.120E-06,0.080
-8.110E-06,0.080
-8.100E-06,0.080
-8.090E-06,0.000
-8.080E-06,0.000
-8.070E-06,0.000
-8.060E-06,-0.040
-8.050E-06,0.000
-8.040E-06,-0.040
-8.030E-06,0.000
-8.020E-06,0.000
-8.010E-06,0.000
-8.000E-06,-0.040
-7.990E-06,0.000
-7.980E-06,0.000
-7.970E-06,0.000
-7.960E-06,0.000
-7.950E-06,0.000
-7.940E-06,0.000
-7.930E-06,-0.040
-7.920E-06,-0.040
-7.910E-06,0.000
-7.900E-06,-0.040
-7.890E-06,-0.040
-7.880E-06,0.040
-7.870E-06,0.080
-7.860E-06,0.160
-7.850E-06,0.160
-7.840E-06,0.080
-7.830E-06,0.080
-7.820E-06,0.160
-7.810E-06,0.040
-7.800E-06,0.000
-7.790E-06,0.000
-7.780E-06,-0.080
-7.770E-06,-0.040
-7.760E-06,-0.120
-7.750E-06,-0.040
-7.740E-06,-0.160
-7.730E-06,-0.160
-7.720E-06,-0.240
-7.710E-06,-0.200
-7.700E-06,-0.240
-7.690E-06,-0.160
-7.680E-06,-0.120
-7.670E-06,-0.160
-7.660E-06,-0.160
-7.650E-06,-0.120
-7.640E-06,-0.080
-7.630E-06,-0.040
-7.620E-06,-0.040
-7.610E-06,-0.040
-7.600E-06,-0.120
-7.590E-06,-0.040
-7.580E-06,-0.040
-7.570E-06,0.000
-7.560E-06,-0.040
-7.550E-06,0.000
-7.540E-06,-0.040
-7.530E-06,0.000
-7.520E-06,0.040
-7.510E-06,0.120
-7.500E-06,0.200
-7.490E-06,0.160
-7.480E-06,0.200
-7.470E-06,0.240
-7.460E-06,0.200
-7.450E-06,0.160
-7.440E-06,0.160
-7.430E-06,0.160
-7.420E-06,0.120
-7.410E-06,0.000
-7.400E-06,0.040
-7.390E-06,0.000
-7.380E-06,0.040
-7.370E-06,0.000
-7.360E-06,0.000
-7.350E-06,-0.040
-7.340E-06,0.040
-7.330E-06,0.000
-7.320E-06,-0.040
-7.310E-06,-0.040
-7.300E-06,-0.040
-7.290E-06,-0.040
-7.280E-06,0.000
-7.270E-06,0.040
-7.260E-06,-0.040
-7.250E-06,0.000
-7.240E-06,0.000
-7.230E-06,0.000
-7.220E-06,-0.040
-7.210E-06,0.000
-7.200E-06,0.000
-7.190E-06,0.000
-7.180E-06,0.000
-7.170E-06,-0.040
-7.160E-06,0.000
-7.150E-06,0.040
-7.140E-06,0.080
-7.130E-06,0.080
-7.120E-06,0.080
-7.110E-06,0.080
-7.100E-06,0.080
-7.090E-06,0.080
-7.080E-06,0.040
-7.070E-06,-0.040
-7.060E-06,-0.040
-7.050E-06,-0.040
-7.040E-06,-0.080
-7.030E-06,-0.040
-7.020E-06,-0.040
-7.010E-06,-0.120
-7.000E-06,-0.200
-6.990E-06,-0.240
-6.980E-06,-0.240
-6.970E-06,-0.240
-6.960E-06,-0.240
-6.950E-06,-0.160
-6.940E-06,-0.320
-6.930E-06,-0.160
-6.920E-06,-0.280
-6.910E-06,-0.240
-6.900E-06,-0.280
-6.890E-06,-0.240
-6.880E-06,-0.360
-6.870E-06,-0.320
-6.860E-06,-0.520
-6.850E-06,-0.480
-6.840E-06,-0.480
-6.830E-06,-0.360
-6.820E-06,-0.320
-6.810E-06,-0.200
-6.800E-06,-0.280
-6.790E-06,-0.360
-6.780E-06,-0.320
-6.770E-06,-0.280
-6.760E-06,-0.160
-6.750E-06,-0.200
-6.740E-06,-0.200
-6.730E-06,-0.280
-6.720E-06,-0.280
-6.710E-06,-0.200
-6.700E-06,-0.200
-6.690E-06,-0.160
-6.680E-06,-0.160
-6.670E-06,-0.080
-6.660E-06,-0.080
-6.650E-06,-0.080
-6.640E-06,-0.040
-6.630E-06,0.080
-6.620E-06,0.000
-6.610E-06,0.040
-6.600E-06,0.120
-6.590E-06,0.080
-6.580E-06,0.160
-6.570E-06,0.240
-6.560E-06,0.240
-6.550E-06,0.240
-6.540E-06,0.240
-6.530E-06,0.200
-6.520E-06,0.240
-6.510E-06,0.280
-6.500E-06,0.240
-6.490E-06,0.200
-6.480E-06,0.120
-6.470E-06,0.120
-6.460E-06,0.040
-6.450E-06,0.000
-6.440E-06,0.000
-6.430E-06,0.000
-6.420E-06,0.000
-6.410E-06,0.040
-6.400E-06,0.040
-6.390E-06,0.040
-6.380E-06,0.040
-6.370E-06,0.040
-6.360E-06,0.000
-6.350E-06,0.040
-6.340E-06,0.080
-6.330E-06,0.040
-6.320E-06,0.040
-6.310E-06,0.040
-6.300E-06,0.080
-6.290E-06,0.120
-6.280E-06,0.080
-6.270E-06,0.040
-6.260E-06,0.040
-6.250E-06,0.000
-6.240E-06,0.000
-6.230E-06,0.000
-6.220E-06,-0.040
-6.210E-06,-0.040
-6.200E-06,0.000
-6.190E-06,0.040
-6.180E-06,-0.040
-6.170E-06,-0.040
-6.160E-06,-0.040
-6.150E-06,-0.080
-6.140E-06,0.000
-6.130E-06,-0.080
-6.120E-06,-0.080
-6.110E-06,-0.080
-6.100E-06,-0.080
-6.090E-06,-0.040
-6.080E-06,-0.040
-6.070E-06,0.040
-6.060E-06,0.040
-6.050E-06,0.040
-6.040E-06,-0.080
-6.030E-06,0.040
-6.020E-06,-0.040
-6.010E-06,0.000
-6.000E-06,-0.040
-5.990E-06,-0.080
-5.980E-06,-0.080
-5.970E-06,-0.080
-5.960E-06,-0.040
-5.950E-06,-0.040
-5.940E-06,0.040
-5.930E-06,0.000
-5.920E-06,0.080
-5.910E-06,0.000
-5.900E-06,0.080
-5.890E-06,0.040
-5.880E-06,0.040
-5.870E-06,0.080
-5.860E-06,-0.040
-5.850E-06,0.000
-5.840E-06,0.040
-5.830E-06,0.040
-5.820E-06,0.040
-5.810E-06,-0.040
-5.800E-06,0.000
-5.790E-06,0.000
-5.780E-06,-0.040
-5.770E-06,0.000
-5.760E-06,-0.040
-5.750E-06,-0.080
-5.740E-06,-0.160
-5.730E-06,-0.080
-5.720E-06,-0.120
-5.710E-06,-0.160
-5.700E-06,-0.160
-5.690E-06,-0.160
-5.680E-06,-0.200
-5.670E-06,-0.120
-5.660E-06,-0.160
-5.650E-06,-0.200
-5.640E-06,-0.160
-5.630E-06,-0.120
-5.620E-06,-0.120
-5.610E-06,-0.080
-5.600E-06,-0.040
-5.590E-06,-0.080
-5.580E-06,0.000
-5.570E-06,-0.040
-5.560E-06,-0.040
-5.550E-06,0.000
-5.540E-06,0.000
-5.530E-06,0.040
-5.520E-06,0.040
-5.510E-06,-0.040
-5.500E-06,-0.040
-5.490E-06,0.000
-5.480E-06,-0.040
-5.470E-06,0.000
-5.460E-06,0.040
-5.450E-06,0.040
-5.440E-06,-0.040
-5.430E-06,0.000
-5.420E-06,0.000
-5.410E-06,0.000
-5.400E-06,0.000
-5.390E-06,0.000
-5.380E-06,-0.040
-5.370E-06,-0.040
-5.360E-06,-0.040
-5.350E-06,0.000
-5.340E-06,-0.040
-5.330E-06,-0.080
-5.320E-06,-0.160
-5.310E-06,-0.120
-5.300E-06,-0.200
-5.290E-06,-0.120
-5.280E-06,-0.160
-5.270E-06,-0.200
-5.260E-06,-0.240
-5.250E-06,-0.320
-5.240E-06,-0.360
-5.230E-06,-0.320
-5.220E-06,-0.320
-5.210E-06,-0.360
-5.200E-06,-0.360
-5.190E-06,-0.400
-5.180E-06,-0.440
-5.170E-06,-0.520
-5.160E-06,-0.560
-5.150E-06,-0.600
-5.140E-06,-0.640
-5.130E-06,-0.720
-5.120E-06,-0.720
-5.110E-06,-0.800
-5.100E-06,-0.840
-5.090E-06,-0.840
-5.080E-06,-0.640
-5.070E-06,-0.560
-5.060E-06,-0.480
-5.050E-06,-0.400
-5.040E-06,-0.640
-5.030E-06,-0.680
-5.020E-06,-0.680
-5.010E-06,-0.680
-5.000E-06,-0.440
-4.990E-06,-0.520
-4.980E-06,-0.600
-4.970E-06,-0.760
-4.960E-06,-0.760
-4.950E-06,-0.680
-4.940E-06,-0.520
-4.930E-06,-0.480
-4.920E-06,-0.480
-4.910E-06,-0.480
-4.900E-06,-0.520
-4.890E-06,-0.440
-4.880E-06,-0.320
-4.870E-06,-0.240
-4.860E-06,-0.160
-4.850E-06,-0.200
-4.840E-06,-0.160
-4.830E-06,-0.080
-4.820E-06,0.040
-4.810E-06,0.120
-4.800E-06,0.160
-4.790E-06,0.160
-4.780E-06,0.200
-4.770E-06,0.120
-4.760E-06,0.200
-4.750E-06,0.360
-4.740E-06,0.360
-4.730E-06,0.400
-4.720E-06,0.360
-4.710E-06,0.360
-4.700E-06,0.320
-4.690E-06,0.280
-4.680E-06,0.200
-4.670E-06,0.160
-4.660E-06,0.160
-4.650E-06,0.120
-4.640E-06,0.040
-4.630E-06,-0.040
-4.620E-06,0.000
-4.610E-06,-0.040
-4.600E-06,-0.040
-4.590E-06,0.000
-4.580E-06,-0.080
-4.570E-06,-0.080
-4.560E-06,-0.160
-4.550E-06,-0.200
-4.540E-06,-0.200
-4.530E-06,-0.120
-4.520E-06,-0.120
-4.510E-06,-0.200
-4.500E-06,-0.120
-4.490E-06,-0.080
-4.480E-06,-0.120
-4.470E-06,-0.080
-4.460E-06,-0.080
-4.450E-06,-0.080
-4.440E-06,0.000
-4.430E-06,0.000
-4.420E-06,-0.040
-4.410E-06,0.040
-4.400E-06,0.000
-4.390E-06,0.000
-4.380E-06,0.040
-4.370E-06,0.040
-4.360E-06,0.040
-4.350E-06,0.040
-4.340E-06,0.000
-4.330E-06,0.000
-4.320E-06,0.000
-4.310E-06,-0.040
-4.300E-06,-0.080
-4.290E-06,-0.080
-4.280E-06,-0.160
-4.270E-06,-0.080
-4.260E-06,-0.080
-4.250E-06,-0.160
-4.240E-06,-0.240
-4.230E-06,-0.240
-4.220E-06,-0.240
-4.210E-06,-0.240
-4.200E-06,-0.240
-4.190E-06,-0.240
-4.180E-06,-0.120
-4.170E-06,0.200
-4.160E-06,0.240
-4.150E-06,0.240
-4.140E-06,0.080
-4.130E-06,-0.520
-4.120E-06,-0.600
-4.110E-06,-0.800
-4.100E-06,-0.680
-4.090E-06,-0.680
-4.080E-06,-0.880
-4.070E-06,-1.120
-4.060E-06,-1.160
-4.050E-06,-1.040
-4.040E-06,-0.840
-4.030E-06,-0.680
-4.020E-06,-0.640
-4.010E-06,-0.680
-4.000E-06,-0.640
-3.990E-06,-0.520
-3.980E-06,-0.400
-3.970E-06,-0.400
-3.960E-06,-0.120
-3.950E-06,-0.120
-3.940E-06,0.080
-3.930E-06,0.000
-3.920E-06,0.200
-3.910E-06,0.000
-3.900E-06,0.160
-3.890E-06,0.200
-3.880E-06,0.280
-3.870E-06,0.520
-3.860E-06,0.480
-3.850E-06,0.560
-3.840E-06,0.640
-3.830E-06,0.760
-3.820E-06,0.720
-3.810E-06,0.800
-3.800E-06,0.720
-3.790E-06,0.720
-3.780E-06,0.560
-3.770E-06,0.440
-3.760E-06,0.320
-3.750E-06,0.120
-3.740E-06,0.040
-3.730E-06,-0.080
-3.720E-06,-0.200
-3.710E-06,-0.320
-3.700E-06,-0.360
-3.690E-06,-0.280
-3.680E-06,-0.240
-3.670E-06,-0.280
-3.660E-06,-0.280
-3.650E-06,-0.280
-3.640E-06,-0.200
-3.630E-06,-0.200
-3.620E-06,-0.200
-3.610E-06,-0.160
-3.600E-06,-0.120
-3.590E-06,-0.120
-3.580E-06,-0.080
-3.570E-06,-0.080
-3.560E-06,-0.120
-3.550E-06,-0.040
-3.540E-06,0.000
-3.530E-06,0.000
-3.520E-06,0.080
-3.510E-06,0.160
-3.500E-06,0.240
-3.490E-06,0.280
-3.480E-06,0.320
-3.470E-06,0.320
-3.460E-06,0.360
-3.450E-06,0.240
-3.440E-06,0.280
-3.430E-06,0.240
-3.420E-06,0.200
-3.410E-06,0.200
-3.400E-06,0.160
-3.390E-06,0.160
-3.380E-06,0.160
-3.370E-06,0.120
-3.360E-06,0.120
-3.350E-06,0.040
-3.340E-06,0.040
-3.330E-06,0.040
-3.320E-06,0.040
-3.310E-06,0.120
-3.300E-06,0.040
-3.290E-06,0.080
-3.280E-06,0.080
-3.270E-06,0.040
-3.260E-06,0.080
-3.250E-06,0.080
-3.240E-06,0.080
-3.230E-06,0.080
-3.220E-06,0.040
-3.210E-06,0.000
-3.200E-06,0.000
-3.190E-06,-0.080
-3.180E-06,-0.080
-3.170E-06,-0.120
-3.160E-06,0.000
-3.150E-06,0.200
-3.140E-06,0.080
-3.130E-06,0.160
-3.120E-06,-0.160
-3.110E-06,-0.280
-3.100E-06,-0.440
-3.090E-06,-0.360
-3.080E-06,-0.360
-3.070E-06,-0.400
-3.060E-06,-0.600
-3.050E-06,-0.680
-3.040E-06,-0.680
-3.030E-06,-0.600
-3.020E-06,-0.440
-3.010E-06,-0.400
-3.000E-06,-0.400
-2.990E-06,-0.400
-2.980E-06,-0.320
-2.970E-06,-0.320
-2.960E-06,-0.160
-2.950E-06,-0.120
-2.940E-06,-0.040
-2.930E-06,0.000
-2.920E-06,0.040
-2.910E-06,0.080
-2.900E-06,0.120
-2.890E-06,0.200
-2.880E-06,0.440
-2.870E-06,0.520
-2.860E-06,0.640
-2.850E-06,0.600
-2.840E-06,0.560
-2.830E-06,0.520
-2.820E-06,0.520
-2.810E-06,0.480
-2.800E-06,0.480
-2.790E-06,0.480
-2.780E-06,0.320
-2.770E-06,0.280
-2.760E-06,0.280
-2.750E-06,0.320
-2.740E-06,0.320
-2.730E-06,0.240
-2.720E-06,0.160
-2.710E-06,0.160
-2.700E-06,0.120
-2.690E-06,0.120
-2.680E-06,0.120
-2.670E-06,0.120
-2.660E-06,0.120
-2.650E-06,0.000
-2.640E-06,0.000
-2.630E-06,0.000
-2.620E-06,0.000
-2.610E-06,-0.040
-2.600E-06,-0.040
-2.590E-06,0.000
-2.580E-06,-0.040
-2.570E-06,-0.040
-2.560E-06,-0.080
-2.550E-06,-0.080
-2.540E-06,-0.080
-2.530E-06,-0.080
-2.520E-06,-0.160
-2.510E-06,-0.080
-2.500E-06,-0.080
-2.490E-06,-0.080
-2.480E-06,0.000
-2.470E-06,-0.040
-2.460E-06,-0.040
-2.450E-06,-0.080
-2.440E-06,-0.040
-2.430E-06,0.000
-2.420E-06,-0.040
-2.410E-06,0.040
-2.400E-06,-0.040
-2.390E-06,0.040
-2.380E-06,0.040
-2.370E-06,0.080
-2.360E-06,0.040
-2.350E-06,0.040
-2.340E-06,0.120
-2.330E-06,0.160
-2.320E-06,0.080
-2.310E-06,0.120
-2.300E-06,0.120
-2.290E-06,0.160
-2.280E-06,0.160
-2.270E-06,0.120
-2.260E-06,0.160
-2.250E-06,0.200
-2.240E-06,0.200
-2.230E-06,0.160
-2.220E-06,0.120
-2.210E-06,0.160
-2.200E-06,0.080
-2.190E-06,0.080
-2.180E-06,0.000
-2.170E-06,-0.080
-2.160E-06,-0.080
-2.150E-06,-0.080
-2.140E-06,-0.160
-2.130E-06,-0.240
-2.120E-06,-0.240
-2.110E-06,-0.240
-2.100E-06,-0.040
-2.090E-06,-0.080
-2.080E-06,0.080
-2.070E-06,-0.200
-2.060E-06,-0.120
-2.050E-06,-0.440
-2.040E-06,-0.520
-2.030E-06,-0.600
-2.020E-06,-0.560
-2.010E-06,-0.680
-2.000E-06,-0.720
-1.990E-06,-0.800
-1.980E-06,-0.800
-1.970E-06,-0.720
-1.960E-06,-0.640
-1.950E-06,-0.600
-1.940E-06,-0.560
-1.930E-06,-0.560
-1.920E-06,-0.400
-1.910E-06,-0.320
-1.900E-06,-0.080
-1.890E-06,0.000
-1.880E-06,0.080
-1.870E-06,0.080
-1.860E-06,0.080
-1.850E-06,0.200
-1.840E-06,0.400
-1.830E-06,0.520
-1.820E-06,0.600
-1.810E-06,0.560
-1.800E-06,0.480
-1.790E-06,0.400
-1.780E-06,0.400
-1.770E-06,0.520
-1.760E-06,0.480
-1.750E-06,0.440
-1.740E-06,0.360
-1.730E-06,0.320
-1.720E-06,0.320
-1.710E-06,0.320
-1.700E-06,0.320
-1.690E-06,0.240
-1.680E-06,0.200
-1.670E-06,0.080
-1.660E-06,0.040
-1.650E-06,0.000
-1.640E-06,-0.040
-1.630E-06,-0.080
-1.620E-06,-0.120
-1.610E-06,-0.120
-1.600E-06,-0.120
-1.590E-06,-0.040
-1.580E-06,-0.080
-1.570E-06,-0.040
-1.560E-06,-0.040
-1.550E-06,-0.080
-1.540E-06,-0.040
-1.530E-06,0.000
-1.520E-06,-0.040
-1.510E-06,0.000
-1.500E-06,0.000
-1.490E-06,0.040
-1.480E-06,0.080
-1.470E-06,0.120
-1.460E-06,0.040
-1.450E-06,0.040
-1.440E-06,0.120
-1.430E-06,0.160
-1.420E-06,0.080
-1.410E-06,0.160
-1.400E-06,0.160
-1.390E-06,0.200
-1.380E-06,0.200
-1.370E-06,0.200
-1.360E-06,0.240
-1.350E-06,0.200
-1.340E-06,0.200
-1.330E-06,0.240
-1.320E-06,0.200
-1.310E-06,0.160
-1.300E-06,0.080
-1.290E-06,0.080
-1.280E-06,0.080
-1.270E-06,0.080
-1.260E-06,0.080
-1.250E-06,0.040
-1.240E-06,-0.040
-1.230E-06,0.000
-1.220E-06,-0.080
-1.210E-06,-0.120
-1.200E-06,-0.040
-1.190E-06,-0.080
-1.180E-06,-0.120
-1.170E-06,-0.080
-1.160E-06,-0.080
-1.150E-06,-0.080
-1.140E-06,-0.080
-1.130E-06,-0.080
-1.120E-06,-0.080
-1.110E-06,-0.080
-1.100E-06,-0.120
-1.090E-06,-0.120
-1.080E-06,-0.120
-1.070E-06,-0.080
-1.060E-06,-0.080
-1.050E-06,0.000
-1.040E-06,0.160
-1.030E-06,0.440
-1.020E-06,0.640
-1.010E-06,0.960
-1.000E-06,1.200
-9.900E-07,1.320
-9.800E-07,1.320
-9.700E-07,1.040
-9.600E-07,0.800
-9.500E-07,0.480
-9.400E-07,0.120
-9.300E-07,-0.040
-9.200E-07,-0.360
-9.100E-07,-0.600
-9.000E-07,-0.840
-8.900E-07,-1.080
-8.800E-07,-1.280
-8.700E-07,-1.360
-8.600E-07,-1.400
-8.500E-07,-1.400
-8.400E-07,-1.320
-8.300E-07,-1.320
-8.200E-07,-1.120
-8.100E-07,-1.240
-8.000E-07,-1.120
-7.900E-07,-1.000
-7.800E-07,-0.760
-7.700E-07,-0.560
-7.600E-07,-0.480
-7.500E-07,-0.400
-7.400E-07,-0.320
-7.300E-07,-0.440
-7.200E-07,-0.640
-7.100E-07,-1.160
-7.000E-07,-1.640
-6.900E-07,-2.200
-6.800E-07,-2.680
-6.700E-07,-2.840
-6.600E-07,-2.720
-6.500E-07,-2.280
-6.400E-07,-1.560
-6.300E-07,-0.560
-6.200E-07,0.400
-6.100E-07,1.240
-6.000E-07,2.000
-5.900E-07,2.440
-5.800E-07,2.720
-5.700E-07,2.680
-5.600E-07,2.520
-5.500E-07,2.200
-5.400E-07,1.920
-5.300E-07,1.760
-5.200E-07,1.600
-5.100E-07,1.560
-5.000E-07,1.560
-4.900E-07,1.640
-4.800E-07,1.720
-4.700E-07,1.720
-4.600E-07,1.560
-4.500E-07,1.320
-4.400E-07,1.000
-4.300E-07,0.520
-4.200E-07,0.120
-4.100E-07,-0.240
-4.000E-07,-0.560
-3.900E-07,-0.800
-3.800E-07,-1.040
-3.700E-07,-1.320
-3.600E-07,-1.360
-3.500E-07,-1.320
-3.400E-07,-1.160
-3.300E-07,-0.840
-3.200E-07,-0.640
-3.100E-07,-0.360
-3.000E-07,-0.080
-2.900E-07,-0.040
-2.800E-07,0.120
-2.700E-07,0.120
-2.600E-07,0.080
-2.500E-07,-0.080
-2.400E-07,-0.360
-2.300E-07,-0.480
-2.200E-07,-0.760
-2.100E-07,-1.000
-2.000E-07,-1.240
-1.900E-07,-1.320
-1.800E-07,-1.280
-1.700E-07,-1.320
-1.600E-07,-1.280
-1.500E-07,-1.240
-1.400E-07,-1.200
-1.300E-07,-1.160
-1.200E-07,-1.080
-1.100E-07,-1.040
-1.000E-07,-1.000
-9.000E-08,-1.000
-8.000E-08,-1.000
-7.000E-08,-0.920
-6.000E-08,-1.000
-5.000E-08,-0.480
-4.000E-08,0.480
-3.000E-08,0.480
-2.000E-08,1.280
-1.000E-08,0.640
0.000E+00,0.280
1.000E-08,0.000
2.000E-08,0.040
3.000E-08,0.360
4.000E-08,0.760
5.000E-08,0.280
6.000E-08,0.120
7.000E-08,-0.320
8.000E-08,-0.360
9.000E-08,-0.200
1.000E-07,-0.360
1.100E-07,-0.520
1.200E-07,-0.880
1.300E-07,-0.920
1.400E-07,-0.960
1.500E-07,-0.800
1.600E-07,-0.640
1.700E-07,-0.480
1.800E-07,-0.280
1.900E-07,-0.040
2.000E-07,0.280
2.100E-07,0.480
2.200E-07,0.680
2.300E-07,0.720
2.400E-07,0.760
2.500E-07,0.800
2.600E-07,0.800
2.700E-07,0.840
2.800E-07,0.840
2.900E-07,0.720
3.000E-07,0.680
3.100E-07,0.560
3.200E-07,0.680
3.300E-07,0.680
3.400E-07,0.760
3.500E-07,0.720
3.600E-07,0.680
3.700E-07,0.480
3.800E-07,0.360
3.900E-07,0.160
4.000E-07,0.120
4.100E-07,-0.040
4.200E-07,-0.160
4.300E-07,-0.320
4.400E-07,-0.320
4.500E-07,-0.320
4.600E-07,-0.440
4.700E-07,-0.400
4.800E-07,-0.480
4.900E-07,-0.360
5.000E-07,-0.360
5.100E-07,-0.200
5.200E-07,-0.280
5.300E-07,-0.360
5.400E-07,-0.520
5.500E-07,-0.520
5.600E-07,-0.480
5.700E-07,-0.240
5.800E-07,-0.240
5.900E-07,-0.080
6.000E-07,-0.240
6.100E-07,-0.600
6.200E-07,-1.000
6.300E-07,-1.240
6.400E-07,-1.480
6.500E-07,-1.480
6.600E-07,-1.480
6.700E-07,-1.480
6.800E-07,-1.400
6.900E-07,-1.480
7.000E-07,-1.240
7.100E-07,-1.080
7.200E-07,-0.880
7.300E-07,-0.640
7.400E-07,-0.480
7.500E-07,-0.440
7.600E-07,-0.320
7.700E-07,-0.280
7.800E-07,-0.200
7.900E-07,-0.120
8.000E-07,0.000
8.100E-07,0.120
8.200E-07,0.200
8.300E-07,0.360
8.400E-07,0.440
8.500E-07,0.520
8.600E-07,0.680
8.700E-07,0.720
8.800E-07,0.840
8.900E-07,0.880
9.000E-07,0.920
9.100E-07,0.880
9.200E-07,0.800
9.300E-07,0.640
9.400E-07,0.600
9.500E-07,0.640
9.600E-07,1.360
9.700E-07,1.200
9.800E-07,1.600
9.900E-07,0.920
1.000E-06,0.440
1.010E-06,-0.080
1.020E-06,-0.440
1.030E-06,-0.560
1.040E-06,-0.560
1.050E-06,-0.920
1.060E-06,-1.160
1.070E-06,-1.280
1.080E-06,-1.320
1.090E-06,-1.160
1.100E-06,-1.320
1.110E-06,-1.320
1.120E-06,-1.320
1.130E-06,-1.200
1.140E-06,-1.160
1.150E-06,-0.960
1.160E-06,-0.720
1.170E-06,-0.720
1.180E-06,-0.440
1.190E-06,-0.440
1.200E-06,-0.240
1.210E-06,-0.200
1.220E-06,0.080
1.230E-06,0.160
1.240E-06,0.240
1.250E-06,0.320
1.260E-06,0.240
1.270E-06,0.440
1.280E-06,0.400
1.290E-06,0.480
1.300E-06,0.480
1.310E-06,0.440
1.320E-06,0.440
1.330E-06,0.440
1.340E-06,0.480
1.350E-06,0.440
1.360E-06,0.320
1.370E-06,0.280
1.380E-06,0.240
1.390E-06,0.160
1.400E-06,0.120
1.410E-06,0.040
1.420E-06,0.080
1.430E-06,0.200
1.440E-06,0.320
1.450E-06,0.400
1.460E-06,0.400
1.470E-06,0.440
1.480E-06,0.480
1.490E-06,0.560
1.500E-06,0.680
1.510E-06,0.720
1.520E-06,0.680
1.530E-06,0.680
1.540E-06,0.640
1.550E-06,0.480
1.560E-06,0.400
1.570E-06,0.320
1.580E-06,0.200
1.590E-06,0.000
1.600E-06,-0.040
1.610E-06,-0.120
1.620E-06,-0.080
1.630E-06,-0.160
1.640E-06,-0.080
1.650E-06,-0.160
1.660E-06,-0.080
1.670E-06,-0.080
1.680E-06,-0.160
1.690E-06,-0.160
1.700E-06,-0.360
1.710E-06,-0.520
1.720E-06,-0.680
1.730E-06,-0.800
1.740E-06,-0.880
1.750E-06,-1.000
1.760E-06,-1.200
1.770E-06,-1.360
1.780E-06,-1.200
1.790E-06,-1.400
1.800E-06,-1.120
1.810E-06,-1.200
1.820E-06,-1.320
1.830E-06,-1.360
1.840E-06,-1.320
1.850E-06,-1.120
1.860E-06,-0.880
1.870E-06,-0.720
1.880E-06,-0.440
1.890E-06,-0.040
1.900E-06,0.080
1.910E-06,0.400
1.920E-06,-0.320
1.930E-06,-0.760
1.940E-06,-1.400
1.950E-06,-1.720
1.960E-06,-1.800
1.970E-06,-1.760
1.980E-06,-2.040
1.990E-06,-2.000
2.000E-06,-1.960
2.010E-06,-1.680
2.020E-06,-1.240
2.030E-06,-1.000
2.040E-06,-0.840
2.050E-06,-0.720
2.060E-06,-0.400
2.070E-06,-0.200
2.080E-06,0.040
2.090E-06,-0.040
2.100E-06,0.120
2.110E-06,0.120
2.120E-06,0.320
2.130E-06,0.360
2.140E-06,0.400
2.150E-06,0.320
2.160E-06,0.480
2.170E-06,0.360
2.180E-06,0.440
2.190E-06,0.320
2.200E-06,0.400
2.210E-06,0.360
2.220E-06,0.320
2.230E-06,0.280
2.240E-06,0.840
2.250E-06,0.480
2.260E-06,1.120
2.270E-06,1.120
2.280E-06,1.080
2.290E-06,1.360
2.300E-06,0.840
2.310E-06,0.680
2.320E-06,0.080
2.330E-06,-0.400
2.340E-06,-0.720
2.350E-06,-0.760
2.360E-06,-0.840
2.370E-06,-0.960
2.380E-06,-0.880
2.390E-06,-1.080
2.400E-06,-0.960
2.410E-06,-1.000
2.420E-06,-0.840
2.430E-06,-1.040
2.440E-06,-0.840
2.450E-06,-0.840
2.460E-06,-0.720
2.470E-06,-0.800
2.480E-06,-0.520
2.490E-06,-0.520
2.500E-06,-0.280
2.510E-06,-0.040
2.520E-06,0.040
2.530E-06,0.200
2.540E-06,0.400
2.550E-06,0.400
2.560E-06,0.360
2.570E-06,0.320
2.580E-06,0.040
2.590E-06,0.000
2.600E-06,-0.080
2.610E-06,-0.160
2.620E-06,-0.280
2.630E-06,-0.440
2.640E-06,-0.520
2.650E-06,-0.560
2.660E-06,-0.680
2.670E-06,-0.800
2.680E-06,-1.000
2.690E-06,-1.200
2.700E-06,-1.240
2.710E-06,-1.360
2.720E-06,-1.040
2.730E-06,-0.840
2.740E-06,-0.680
2.750E-06,-0.640
2.760E-06,-0.720
2.770E-06,-0.680
2.780E-06,-0.520
2.790E-06,-0.440
2.800E-06,-0.720
2.810E-06,-0.760
2.820E-06,-0.800
2.830E-06,-0.800
2.840E-06,-0.760
2.850E-06,0.120
2.860E-06,2.440
2.870E-06,1.520
2.880E-06,2.560
2.890E-06,-0.320
2.900E-06,-1.680
2.910E-06,-3.480
2.920E-06,-3.640
2.930E-06,-3.960
2.940E-06,-2.920
2.950E-06,-4.040
2.960E-06,-4.600
2.970E-06,-4.760
2.980E-06,-4.480
2.990E-06,-3.720
3.000E-06,-3.200
3.010E-06,-3.480
3.020E-06,-3.320
3.030E-06,-2.600
3.040E-06,-2.040
3.050E-06,-1.520
3.060E-06,-1.360
3.070E-06,-1.320
3.080E-06,-0.880
3.090E-06,-0.280
3.100E-06,-0.040
3.110E-06,0.000
3.120E-06,0.160
3.130E-06,0.360
3.140E-06,0.560
