mediciones/5-15 mala escala/27.77/WaveData46103.csv

#timebase=2000000(ps)
,#voltbase=1000000(mv/100)
#size=4000
-8.400E-06,0.040
-8.390E-06,0.000
-8.380E-06,-0.040
-8.370E-06,-0.040
-8.360E-06,-0.120
-8.350E-06,-0.200
-8.340E-06,-0.200
-8.330E-06,-0.280
-8.320E-06,-0.240
-8.310E-06,-0.320
-8.300E-06,-0.280
-8.290E-06,-0.360
-8.280E-06,0.080
-8.270E-06,0.320
-8.260E-06,0.160
-8.250E-06,0.360
-8.240E-06,-0.520
-8.230E-06,-0.520
-8.220E-06,-0.680
-8.210E-06,-0.520
-8.200E-06,-0.360
-8.190E-06,-0.560
-8.180E-06,-0.840
-8.170E-06,-1.000
-8.160E-06,-1.160
-8.150E-06,-0.840
-8.140E-06,-0.800
-8.130E-06,-0.720
-8.120E-06,-0.800
-8.110E-06,-0.240
-8.100E-06,-0.360
-8.090E-06,0.200
-8.080E-06,-0.080
-8.070E-06,0.040
-8.060E-06,0.000
-8.050E-06,-0.040
-8.040E-06,-0.040
-8.030E-06,0.080
-8.020E-06,-0.080
-8.010E-06,-0.040
-8.000E-06,-0.040
-7.990E-06,0.000
-7.980E-06,0.040
-7.970E-06,0.120
-7.960E-06,0.000
-7.950E-06,0.040
-7.940E-06,0.440
-7.930E-06,0.600
-7.920E-06,0.720
-7.910E-06,0.800
-7.900E-06,0.440
-7.890E-06,0.360
-7.880E-06,0.160
-7.870E-06,0.000
-7.860E-06,0.160
-7.850E-06,-0.080
-7.840E-06,-0.360
-7.830E-06,-0.480
-7.820E-06,-0.600
-7.810E-06,-0.440
-7.800E-06,-0.240
-7.790E-06,-0.160
-7.780E-06,-0.240
-7.770E-06,-0.320
-7.760E-06,-0.200
-7.750E-06,-0.120
-7.740E-06,0.000
-7.730E-06,0.040
-7.720E-06,0.160
-7.710E-06,0.080
-7.700E-06,0.080
-7.690E-06,0.000
-7.680E-06,0.000
-7.670E-06,-0.040
-7.660E-06,-0.080
-7.650E-06,0.040
-7.640E-06,0.080
-7.630E-06,0.320
-7.620E-06,0.440
-7.610E-06,0.440
-7.600E-06,0.480
-7.590E-06,0.400
-7.580E-06,0.360
-7.570E-06,0.400
-7.560E-06,0.360
-7.550E-06,0.200
-7.540E-06,0.160
-7.530E-06,0.000
-7.520E-06,-0.040
-7.510E-06,-0.160
-7.500E-06,-0.160
-7.490E-06,-0.240
-7.480E-06,-0.240
-7.470E-06,-0.320
-7.460E-06,-0.360
-7.450E-06,-0.240
-7.440E-06,-0.240
-7.430E-06,-0.160
-7.420E-06,-0.160
-7.410E-06,-0.280
-7.400E-06,-0.280
-7.390E-06,-0.360
-7.380E-06,-0.360
-7.370E-06,-0.360
-7.360E-06,-0.440
-7.350E-06,-0.200
-7.340E-06,-0.360
-7.330E-06,0.000
-7.320E-06,-0.160
-7.310E-06,0.000
-7.300E-06,-0.040
-7.290E-06,0.000
-7.280E-06,0.000
-7.270E-06,0.040
-7.260E-06,0.120
-7.250E-06,0.080
-7.240E-06,0.080
-7.230E-06,0.080
-7.220E-06,0.000
-7.210E-06,0.000
-7.200E-06,-0.040
-7.190E-06,-0.080
-7.180E-06,-0.160
-7.170E-06,-0.160
-7.160E-06,-0.240
-7.150E-06,-0.200
-7.140E-06,-0.280
-7.130E-06,-0.200
-7.120E-06,-0.240
-7.110E-06,-0.240
-7.100E-06,-0.240
-7.090E-06,-0.160
-7.080E-06,-0.080
-7.070E-06,0.000
-7.060E-06,-0.040
-7.050E-06,0.000
-7.040E-06,-0.040
-7.030E-06,0.080
-7.020E-06,0.120
-7.010E-06,0.000
-7.000E-06,-0.040
-6.990E-06,-0.040
-6.980E-06,-0.040
-6.970E-06,0.040
-6.960E-06,0.520
-6.950E-06,0.160
-6.940E-06,0.520
-6.930E-06,-0.080
-6.920E-06,-0.200
-6.910E-06,-0.360
-6.900E-06,-0.400
-6.890E-06,-0.320
-6.880E-06,-0.440
-6.870E-06,-0.840
-6.860E-06,-1.080
-6.850E-06,-1.200
-6.840E-06,-1.160
-6.830E-06,-1.000
-6.820E-06,-1.040
-6.810E-06,-1.080
-6.800E-06,-1.240
-6.790E-06,-0.840
-6.780E-06,-0.720
-6.770E-06,-0.200
-6.760E-06,0.040
-6.750E-06,0.240
-6.740E-06,0.160
-6.730E-06,0.120
-6.720E-06,-0.040
-6.710E-06,0.200
-6.700E-06,0.200
-6.690E-06,0.240
-6.680E-06,0.040
-6.670E-06,-0.040
-6.660E-06,-0.040
-6.650E-06,0.120
-6.640E-06,0.320
-6.630E-06,0.360
-6.620E-06,0.320
-6.610E-06,0.280
-6.600E-06,0.240
-6.590E-06,0.360
-6.580E-06,0.440
-6.570E-06,0.320
-6.560E-06,0.600
-6.550E-06,0.400
-6.540E-06,0.480
-6.530E-06,0.200
-6.520E-06,0.040
-6.510E-06,-0.200
-6.500E-06,-0.200
-6.490E-06,-0.240
-6.480E-06,0.040
-6.470E-06,-0.040
-6.460E-06,-0.160
-6.450E-06,-0.400
-6.440E-06,-0.360
-6.430E-06,-0.160
-6.420E-06,-0.120
-6.410E-06,-0.080
-6.400E-06,-0.120
-6.390E-06,-0.080
-6.380E-06,0.040
-6.370E-06,0.040
-6.360E-06,0.200
-6.350E-06,0.200
-6.340E-06,0.160
-6.330E-06,0.440
-6.320E-06,0.160
-6.310E-06,0.200
-6.300E-06,0.160
-6.290E-06,0.360
-6.280E-06,0.440
-6.270E-06,0.400
-6.260E-06,0.360
-6.250E-06,0.240
-6.240E-06,0.160
-6.230E-06,0.240
-6.220E-06,0.160
-6.210E-06,0.160
-6.200E-06,0.000
-6.190E-06,0.000
-6.180E-06,0.000
-6.170E-06,0.000
-6.160E-06,0.000
-6.150E-06,-0.080
-6.140E-06,-0.120
-6.130E-06,-0.280
-6.120E-06,-0.280
-6.110E-06,-0.360
-6.100E-06,-0.480
-6.090E-06,-0.480
-6.080E-06,-0.480
-6.070E-06,-0.120
-6.060E-06,-0.080
-6.050E-06,0.160
-6.040E-06,0.120
-6.030E-06,0.000
-6.020E-06,-0.040
-6.010E-06,-0.040
-6.000E-06,0.120
-5.990E-06,0.200
-5.980E-06,0.160
-5.970E-06,0.000
-5.960E-06,-0.120
-5.950E-06,-0.160
-5.940E-06,-0.080
-5.930E-06,-0.040
-5.920E-06,-0.080
-5.910E-06,-0.120
-5.900E-06,-0.080
-5.890E-06,-0.040
-5.880E-06,0.080
-5.870E-06,0.120
-5.860E-06,0.160
-5.850E-06,0.120
-5.840E-06,0.040
-5.830E-06,0.040
-5.820E-06,0.080
-5.810E-06,0.080
-5.800E-06,0.120
-5.790E-06,0.160
-5.780E-06,0.080
-5.770E-06,0.080
-5.760E-06,0.120
-5.750E-06,0.080
-5.740E-06,0.160
-5.730E-06,0.080
-5.720E-06,0.160
-5.710E-06,0.040
-5.700E-06,0.160
-5.690E-06,-0.040
-5.680E-06,0.320
-5.670E-06,0.960
-5.660E-06,1.040
-5.650E-06,1.280
-5.640E-06,0.880
-5.630E-06,0.080
-5.620E-06,0.000
-5.610E-06,-0.360
-5.600E-06,-0.280
-5.590E-06,-0.280
-5.580E-06,-0.640
-5.570E-06,-1.040
-5.560E-06,-1.320
-5.550E-06,-1.400
-5.540E-06,-1.200
-5.530E-06,-1.120
-5.520E-06,-1.200
-5.510E-06,-1.080
-5.500E-06,-0.920
-5.490E-06,-0.680
-5.480E-06,-0.520
-5.470E-06,-0.240
-5.460E-06,-0.040
-5.450E-06,0.040
-5.440E-06,0.080
-5.430E-06,0.160
-5.420E-06,0.120
-5.410E-06,0.400
-5.400E-06,0.520
-5.390E-06,0.520
-5.380E-06,0.440
-5.370E-06,0.320
-5.360E-06,0.200
-5.350E-06,0.440
-5.340E-06,0.560
-5.330E-06,0.600
-5.320E-06,0.520
-5.310E-06,0.440
-5.300E-06,0.440
-5.290E-06,0.560
-5.280E-06,0.840
-5.270E-06,0.680
-5.260E-06,0.640
-5.250E-06,0.360
-5.240E-06,0.240
-5.230E-06,0.400
-5.220E-06,0.280
-5.210E-06,0.440
-5.200E-06,0.000
-5.190E-06,-0.040
-5.180E-06,-0.360
-5.170E-06,-0.400
-5.160E-06,-0.400
-5.150E-06,-0.320
-5.140E-06,-0.600
-5.130E-06,-0.800
-5.120E-06,-0.920
-5.110E-06,-0.800
-5.100E-06,-0.680
-5.090E-06,-0.640
-5.080E-06,-0.640
-5.070E-06,-0.640
-5.060E-06,-0.640
-5.050E-06,-0.520
-5.040E-06,-0.480
-5.030E-06,-0.360
-5.020E-06,-0.320
-5.010E-06,-0.320
-5.000E-06,-0.160
-4.990E-06,-0.040
-4.980E-06,0.160
-4.970E-06,0.400
-4.960E-06,0.520
-4.950E-06,0.520
-4.940E-06,0.400
-4.930E-06,0.680
-4.920E-06,0.920
-4.910E-06,1.280
-4.900E-06,1.360
-4.890E-06,1.040
-4.880E-06,0.720
-4.870E-06,0.360
-4.860E-06,0.320
-4.850E-06,0.280
-4.840E-06,0.160
-4.830E-06,-0.120
-4.820E-06,-0.480
-4.810E-06,-0.760
-4.800E-06,-0.800
-4.790E-06,-0.840
-4.780E-06,-0.880
-4.770E-06,-1.040
-4.760E-06,-0.920
-4.750E-06,-0.800
-4.740E-06,-0.640
-4.730E-06,-0.520
-4.720E-06,-0.360
-4.710E-06,-0.240
-4.700E-06,-0.080
-4.690E-06,0.080
-4.680E-06,0.200
-4.670E-06,0.240
-4.660E-06,0.360
-4.650E-06,0.400
-4.640E-06,0.480
-4.630E-06,0.480
-4.620E-06,0.440
-4.610E-06,0.400
-4.600E-06,0.400
-4.590E-06,0.280
-4.580E-06,0.360
-4.570E-06,0.320
-4.560E-06,0.240
-4.550E-06,0.200
-4.540E-06,0.080
-4.530E-06,0.120
-4.520E-06,0.160
-4.510E-06,0.040
-4.500E-06,0.040
-4.490E-06,0.280
-4.480E-06,0.320
-4.470E-06,0.440
-4.460E-06,0.360
-4.450E-06,0.160
-4.440E-06,0.040
-4.430E-06,-0.040
-4.420E-06,-0.080
-4.410E-06,0.000
-4.400E-06,-0.240
-4.390E-06,-0.360
-4.380E-06,-0.400
-4.370E-06,-0.400
-4.360E-06,-0.320
-4.350E-06,-0.280
-4.340E-06,-0.200
-4.330E-06,-0.160
-4.320E-06,-0.160
-4.310E-06,-0.080
-4.300E-06,-0.040
-4.290E-06,0.000
-4.280E-06,0.040
-4.270E-06,0.040
-4.260E-06,-0.040
-4.250E-06,0.040
-4.240E-06,0.000
-4.230E-06,0.000
-4.220E-06,0.000
-4.210E-06,0.040
-4.200E-06,0.080
-4.190E-06,0.160
-4.180E-06,0.240
-4.170E-06,0.320
-4.160E-06,0.240
-4.150E-06,0.360
-4.140E-06,0.440
-4.130E-06,0.600
-4.120E-06,0.800
-4.110E-06,0.880
-4.100E-06,0.800
-4.090E-06,0.680
-4.080E-06,0.520
-4.070E-06,0.440
-4.060E-06,0.360
-4.050E-06,0.040
-4.040E-06,-0.080
-4.030E-06,-0.240
-4.020E-06,-0.440
-4.010E-06,-0.480
-4.000E-06,-0.520
-3.990E-06,-0.520
-3.980E-06,-0.640
-3.970E-06,-0.640
-3.960E-06,-0.680
-3.950E-06,-0.680
-3.940E-06,-0.600
-3.930E-06,-0.640
-3.920E-06,-0.520
-3.910E-06,-0.520
-3.900E-06,-0.640
-3.890E-06,-0.640
-3.880E-06,-0.840
-3.870E-06,-0.800
-3.860E-06,-1.040
-3.850E-06,-1.200
-3.840E-06,-1.280
-3.830E-06,-1.240
-3.820E-06,-0.840
-3.810E-06,-0.720
-3.800E-06,-0.320
-3.790E-06,-0.320
-3.780E-06,-0.320
-3.770E-06,-0.200
-3.760E-06,-0.200
-3.750E-06,-0.120
-3.740E-06,-0.160
-3.730E-06,-0.280
-3.720E-06,-0.480
-3.710E-06,-0.640
-3.700E-06,-0.720
-3.690E-06,-0.800
-3.680E-06,-0.880
-3.670E-06,-1.040
-3.660E-06,-1.120
-3.650E-06,-1.040
-3.640E-06,-0.800
-3.630E-06,-0.600
-3.620E-06,-0.360
-3.610E-06,-0.160
-3.600E-06,0.160
-3.590E-06,0.440
-3.580E-06,0.640
-3.570E-06,0.880
-3.560E-06,0.960
-3.550E-06,1.160
-3.540E-06,1.000
-3.530E-06,1.080
-3.520E-06,0.920
-3.510E-06,0.920
-3.500E-06,0.720
-3.490E-06,0.680
-3.480E-06,0.480
-3.470E-06,0.600
-3.460E-06,0.640
-3.450E-06,0.560
-3.440E-06,0.760
-3.430E-06,0.440
-3.420E-06,0.760
-3.410E-06,0.520
-3.400E-06,0.600
-3.390E-06,0.360
-3.380E-06,0.160
-3.370E-06,0.000
-3.360E-06,-0.320
-3.350E-06,-0.400
-3.340E-06,-0.600
-3.330E-06,-0.720
-3.320E-06,-1.040
-3.310E-06,-1.320
-3.300E-06,-1.680
-3.290E-06,-1.880
-3.280E-06,-2.080
-3.270E-06,-2.160
-3.260E-06,-2.200
-3.250E-06,-2.120
-3.240E-06,-2.000
-3.230E-06,-1.880
-3.220E-06,-1.720
-3.210E-06,-1.560
-3.200E-06,-1.200
-3.190E-06,-0.880
-3.180E-06,-0.560
-3.170E-06,-0.360
-3.160E-06,-0.160
-3.150E-06,0.000
-3.140E-06,0.120
-3.130E-06,0.520
-3.120E-06,0.600
-3.110E-06,0.960
-3.100E-06,0.920
-3.090E-06,1.040
-3.080E-06,1.080
-3.070E-06,1.160
-3.060E-06,1.200
-3.050E-06,1.320
-3.040E-06,1.120
-3.030E-06,1.040
-3.020E-06,0.840
-3.010E-06,0.680
-3.000E-06,0.520
-2.990E-06,0.280
-2.980E-06,0.040
-2.970E-06,-0.120
-2.960E-06,-0.240
-2.950E-06,-0.320
-2.940E-06,-0.400
-2.930E-06,-0.400
-2.920E-06,-0.360
-2.910E-06,-0.360
-2.900E-06,-0.320
-2.890E-06,-0.320
-2.880E-06,-0.320
-2.870E-06,-0.160
-2.860E-06,-0.080
-2.850E-06,0.000
-2.840E-06,0.080
-2.830E-06,0.120
-2.820E-06,0.240
-2.810E-06,0.360
-2.800E-06,0.480
-2.790E-06,0.520
-2.780E-06,0.600
-2.770E-06,0.640
-2.760E-06,0.720
-2.750E-06,0.680
-2.740E-06,0.600
-2.730E-06,0.480
-2.720E-06,0.400
-2.710E-06,0.120
-2.700E-06,-0.040
-2.690E-06,-0.320
-2.680E-06,-0.400
-2.670E-06,-0.320
-2.660E-06,-0.240
-2.650E-06,0.360
-2.640E-06,0.640
-2.630E-06,1.000
-2.620E-06,0.640
-2.610E-06,0.120
-2.600E-06,-0.640
-2.590E-06,-1.200
-2.580E-06,-1.560
-2.570E-06,-1.720
-2.560E-06,-1.800
-2.550E-06,-2.000
-2.540E-06,-2.200
-2.530E-06,-2.200
-2.520E-06,-2.080
-2.510E-06,-1.520
-2.500E-06,-1.120
-2.490E-06,-0.880
-2.480E-06,-0.600
-2.470E-06,-0.520
-2.460E-06,-0.280
-2.450E-06,-0.080
-2.440E-06,0.000
-2.430E-06,0.000
-2.420E-06,-0.040
-2.410E-06,0.000
-2.400E-06,0.080
-2.390E-06,0.360
-2.380E-06,0.440
-2.370E-06,0.560
-2.360E-06,0.640
-2.350E-06,0.640
-2.340E-06,0.640
-2.330E-06,0.720
-2.320E-06,0.680
-2.310E-06,0.480
-2.300E-06,0.320
-2.290E-06,0.120
-2.280E-06,0.040
-2.270E-06,-0.040
-2.260E-06,-0.200
-2.250E-06,-0.320
-2.240E-06,-0.400
-2.230E-06,-0.560
-2.220E-06,-0.680
-2.210E-06,-0.720
-2.200E-06,-0.720
-2.190E-06,-0.680
-2.180E-06,-0.520
-2.170E-06,-0.360
-2.160E-06,-0.240
-2.150E-06,-0.080
-2.140E-06,-0.040
-2.130E-06,0.120
-2.120E-06,0.240
-2.110E-06,0.360
-2.100E-06,0.400
-2.090E-06,0.520
-2.080E-06,0.560
-2.070E-06,0.600
-2.060E-06,0.680
-2.050E-06,0.680
-2.040E-06,0.760
-2.030E-06,0.760
-2.020E-06,0.800
-2.010E-06,0.800
-2.000E-06,0.720
-1.990E-06,0.720
-1.980E-06,0.640
-1.970E-06,0.520
-1.960E-06,0.440
-1.950E-06,0.320
-1.940E-06,0.160
-1.930E-06,0.080
-1.920E-06,0.000
-1.910E-06,0.000
-1.900E-06,-0.160
-1.890E-06,-0.240
-1.880E-06,-0.200
-1.870E-06,0.120
-1.860E-06,0.400
-1.850E-06,0.640
-1.840E-06,0.760
-1.830E-06,0.240
-1.820E-06,0.040
-1.810E-06,-0.280
-1.800E-06,-0.360
-1.790E-06,-0.360
-1.780E-06,-0.520
-1.770E-06,-0.840
-1.760E-06,-1.000
-1.750E-06,-1.160
-1.740E-06,-1.200
-1.730E-06,-0.960
-1.720E-06,-0.960
-1.710E-06,-0.800
-1.700E-06,-0.720
-1.690E-06,-0.640
-1.680E-06,-0.600
-1.670E-06,-0.440
-1.660E-06,-0.360
-1.650E-06,-0.120
-1.640E-06,-0.120
-1.630E-06,0.520
-1.620E-06,0.840
-1.610E-06,1.640
-1.600E-06,1.880
-1.590E-06,1.840
-1.580E-06,1.600
-1.570E-06,1.320
-1.560E-06,1.040
-1.550E-06,1.160
-1.540E-06,0.920
-1.530E-06,0.800
-1.520E-06,0.480
-1.510E-06,0.200
-1.500E-06,0.080
-1.490E-06,0.000
-1.480E-06,-0.200
-1.470E-06,-0.280
-1.460E-06,-0.560
-1.450E-06,-0.640
-1.440E-06,-0.640
-1.430E-06,-0.840
-1.420E-06,-0.880
-1.410E-06,-0.920
-1.400E-06,-0.880
-1.390E-06,-0.920
-1.380E-06,-1.000
-1.370E-06,-1.000
-1.360E-06,-1.040
-1.350E-06,-0.880
-1.340E-06,-0.800
-1.330E-06,-0.680
-1.320E-06,-0.560
-1.310E-06,-0.360
-1.300E-06,-0.200
-1.290E-06,-0.120
-1.280E-06,0.000
-1.270E-06,0.080
-1.260E-06,0.240
-1.250E-06,0.360
-1.240E-06,0.320
-1.230E-06,0.400
-1.220E-06,0.400
-1.210E-06,0.440
-1.200E-06,0.320
-1.190E-06,0.120
-1.180E-06,-0.200
-1.170E-06,-0.440
-1.160E-06,-0.640
-1.150E-06,-0.680
-1.140E-06,-0.920
-1.130E-06,-0.880
-1.120E-06,-0.680
-1.110E-06,0.480
-1.100E-06,-0.240
-1.090E-06,1.280
-1.080E-06,-0.560
-1.070E-06,-0.160
-1.060E-06,-1.440
-1.050E-06,-1.680
-1.040E-06,-2.120
-1.030E-06,-2.240
-1.020E-06,-3.080
-1.010E-06,-3.120
-1.000E-06,-3.240
-9.900E-07,-3.280
-9.800E-07,-2.840
-9.700E-07,-2.520
-9.600E-07,-2.200
-9.500E-07,-1.360
-9.400E-07,-0.360
-9.300E-07,0.440
-9.200E-07,1.480
-9.100E-07,2.040
-9.000E-07,1.880
-8.900E-07,1.480
-8.800E-07,0.960
-8.700E-07,0.320
-8.600E-07,0.160
-8.500E-07,-0.040
-8.400E-07,-0.440
-8.300E-07,-0.640
-8.200E-07,-1.040
-8.100E-07,-0.840
-8.000E-07,-0.520
-7.900E-07,-0.200
-7.800E-07,-0.040
-7.700E-07,0.160
-7.600E-07,0.320
-7.500E-07,0.520
-7.400E-07,0.480
-7.300E-07,0.400
-7.200E-07,0.040
-7.100E-07,-0.240
-7.000E-07,-0.720
-6.900E-07,-1.200
-6.800E-07,-1.440
-6.700E-07,-1.760
-6.600E-07,-1.760
-6.500E-07,-1.680
-6.400E-07,-1.320
-6.300E-07,-0.760
-6.200E-07,-0.200
-6.100E-07,0.440
-6.000E-07,0.960
-5.900E-07,1.440
-5.800E-07,1.760
-5.700E-07,1.800
-5.600E-07,1.880
-5.500E-07,1.840
-5.400E-07,1.680
-5.300E-07,1.360
-5.200E-07,0.880
-5.100E-07,0.440
-5.000E-07,-0.120
-4.900E-07,-0.520
-4.800E-07,-1.040
-4.700E-07,-1.160
-4.600E-07,-1.360
-4.500E-07,-1.360
-4.400E-07,-1.480
-4.300E-07,-1.320
-4.200E-07,-1.520
-4.100E-07,-1.600
-4.000E-07,-1.680
-3.900E-07,-1.800
-3.800E-07,-1.880
-3.700E-07,-1.920
-3.600E-07,-2.200
-3.500E-07,-2.160
-3.400E-07,-2.360
-3.300E-07,-2.120
-3.200E-07,-2.200
-3.100E-07,-2.040
-3.000E-07,-2.160
-2.900E-07,-2.200
-2.800E-07,-2.320
-2.700E-07,-2.520
-2.600E-07,-2.640
-2.500E-07,-2.840
-2.400E-07,-3.160
-2.300E-07,-3.240
-2.200E-07,-3.440
-2.100E-07,-3.360
-2.000E-07,-3.440
-1.900E-07,-3.320
-1.800E-07,-3.360
-1.700E-07,-3.400
-1.600E-07,-3.360
-1.500E-07,-3.560
-1.400E-07,-3.600
-1.300E-07,-3.560
-1.200E-07,-3.480
-1.100E-07,-3.240
-1.000E-07,-2.880
-9.000E-08,-2.600
-8.000E-08,-2.360
-7.000E-08,-2.160
-6.000E-08,-1.480
-5.000E-08,-0.800
-4.000E-08,-0.040
-3.000E-08,0.160
-2.000E-08,-0.240
-1.000E-08,-1.040
0.000E+00,-1.800
1.000E-08,-2.560
2.000E-08,-2.880
3.000E-08,-3.000
4.000E-08,-2.880
5.000E-08,-2.840
6.000E-08,-2.600
7.000E-08,-2.520
8.000E-08,-2.360
9.000E-08,-1.960
1.000E-07,-1.600
1.100E-07,-0.920
1.200E-07,-0.560
1.300E-07,-0.440
1.400E-07,-0.480
1.500E-07,-0.800
1.600E-07,-0.920
1.700E-07,-1.120
1.800E-07,-1.160
1.900E-07,-1.480
2.000E-07,-1.600
2.100E-07,-1.600
2.200E-07,-1.320
2.300E-07,-1.120
2.400E-07,-0.840
2.500E-07,-0.680
2.600E-07,-0.280
2.700E-07,0.120
2.800E-07,0.480
2.900E-07,0.520
3.000E-07,0.440
3.100E-07,0.280
3.200E-07,0.120
3.300E-07,-0.040
3.400E-07,-0.200
3.500E-07,-0.400
3.600E-07,-0.520
3.700E-07,-0.680
3.800E-07,-0.800
3.900E-07,-0.800
4.000E-07,-0.680
4.100E-07,-0.480
4.200E-07,-0.120
4.300E-07,0.120
4.400E-07,0.480
4.500E-07,0.680
4.600E-07,0.840
4.700E-07,0.960
4.800E-07,1.080
4.900E-07,1.200
5.000E-07,1.320
5.100E-07,1.240
5.200E-07,1.000
5.300E-07,0.680
5.400E-07,0.200
5.500E-07,-0.200
5.600E-07,-0.720
5.700E-07,-1.080
5.800E-07,-1.320
5.900E-07,-1.480
6.000E-07,-1.520
6.100E-07,-1.400
6.200E-07,-1.320
6.300E-07,-1.200
6.400E-07,-1.200
6.500E-07,-1.120
6.600E-07,-1.200
6.700E-07,-1.160
6.800E-07,-1.320
6.900E-07,-1.360
7.000E-07,-1.480
7.100E-07,-1.560
7.200E-07,-1.600
7.300E-07,-1.640
7.400E-07,-1.680
7.500E-07,-1.840
7.600E-07,-2.000
7.700E-07,-2.200
7.800E-07,-2.440
7.900E-07,-2.520
8.000E-07,-2.520
8.100E-07,-2.400
8.200E-07,-2.440
8.300E-07,-2.640
8.400E-07,-2.680
8.500E-07,-2.760
8.600E-07,-2.280
8.700E-07,-2.000
8.800E-07,-1.440
8.900E-07,-1.240
9.000E-07,-0.840
9.100E-07,-1.000
9.200E-07,-1.200
9.300E-07,-1.960
9.400E-07,-2.960
9.500E-07,-4.160
9.600E-07,-5.200
9.700E-07,-5.240
9.800E-07,-5.240
9.900E-07,-5.200
1.000E-06,-5.200
1.010E-06,-5.240
1.020E-06,-5.240
1.030E-06,-5.200
1.040E-06,-5.200
1.050E-06,-5.200
1.060E-06,-5.200
1.070E-06,-5.200
1.080E-06,-5.200
1.090E-06,-5.200
1.100E-06,-5.040
1.110E-06,-4.840
1.120E-06,-4.680
1.130E-06,-4.520
1.140E-06,-4.080
1.150E-06,-3.720
1.160E-06,-3.480
1.170E-06,-3.320
1.180E-06,-3.320
1.190E-06,-3.480
1.200E-06,-3.680
1.210E-06,-3.920
1.220E-06,-4.240
1.230E-06,-4.520
1.240E-06,-4.760
1.250E-06,-4.760
1.260E-06,-4.680
1.270E-06,-4.440
1.280E-06,-4.200
1.290E-06,-3.920
1.300E-06,-3.720
1.310E-06,-3.400
1.320E-06,-3.120
1.330E-06,-2.760
1.340E-06,-2.520
1.350E-06,-2.200
1.360E-06,-1.960
1.370E-06,-1.720
1.380E-06,-1.560
1.390E-06,-1.400
1.400E-06,-1.320
1.410E-06,-1.160
1.420E-06,-1.000
1.430E-06,-0.920
1.440E-06,-0.760
1.450E-06,-0.760
1.460E-06,-0.720
1.470E-06,-0.680
1.480E-06,-0.640
1.490E-06,-0.680
1.500E-06,-0.760
1.510E-06,-0.800
1.520E-06,-0.800
1.530E-06,-0.840
1.540E-06,-0.880
1.550E-06,-0.920
1.560E-06,-1.000
1.570E-06,-1.080
1.580E-06,-1.040
1.590E-06,-1.040
1.600E-06,-1.080
1.610E-06,-1.000
1.620E-06,-0.960
1.630E-06,-0.840
1.640E-06,-0.800
1.650E-06,-0.720
1.660E-06,-0.680
1.670E-06,-0.640
1.680E-06,-0.680
1.690E-06,-0.800
1.700E-06,-1.000
1.710E-06,-1.120
1.720E-06,-1.400
1.730E-06,-1.720
1.740E-06,-1.960
1.750E-06,-2.200
1.760E-06,-2.480
1.770E-06,-2.760
1.780E-06,-3.040
1.790E-06,-3.200
1.800E-06,-3.480
1.810E-06,-3.680
1.820E-06,-3.800
1.830E-06,-4.040
1.840E-06,-4.280
1.850E-06,-4.440
1.860E-06,-4.600
1.870E-06,-4.760
1.880E-06,-4.960
1.890E-06,-5.000
1.900E-06,-5.080
1.910E-06,-5.200
1.920E-06,-5.160
1.930E-06,-5.160
1.940E-06,-5.000
1.950E-06,-4.920
1.960E-06,-4.680
1.970E-06,-4.400
1.980E-06,-4.160
1.990E-06,-3.880
2.000E-06,-3.560
2.010E-06,-3.240
2.020E-06,-3.000
2.030E-06,-2.720
2.040E-06,-2.520
2.050E-06,-2.240
2.060E-06,-1.960
2.070E-06,-1.760
2.080E-06,-1.520
2.090E-06,-1.280
2.100E-06,-1.000
2.110E-06,-0.720
2.120E-06,-0.480
2.130E-06,-0.240
2.140E-06,-0.040
2.150E-06,0.160
2.160E-06,0.320
2.170E-06,0.560
2.180E-06,0.680
2.190E-06,0.800
2.200E-06,0.880
2.210E-06,0.960
2.220E-06,0.960
2.230E-06,1.040
2.240E-06,1.040
2.250E-06,1.120
2.260E-06,1.120
2.270E-06,1.200
2.280E-06,1.240
2.290E-06,1.200
2.300E-06,1.240
2.310E-06,1.240
2.320E-06,1.280
2.330E-06,1.320
2.340E-06,1.320
2.350E-06,1.280
2.360E-06,1.280
2.370E-06,1.280
2.380E-06,1.240
2.390E-06,1.200
2.400E-06,1.240
2.410E-06,1.200
2.420E-06,1.240
2.430E-06,1.280
2.440E-06,1.320
2.450E-06,1.320
2.460E-06,1.320
2.470E-06,1.280
2.480E-06,1.280
2.490E-06,1.240
2.500E-06,1.200
2.510E-06,1.200
2.520E-06,1.080
2.530E-06,1.000
2.540E-06,0.960
2.550E-06,0.920
2.560E-06,0.880
2.570E-06,0.880
2.580E-06,0.840
2.590E-06,0.880
2.600E-06,0.840
2.610E-06,0.720
2.620E-06,0.720
2.630E-06,0.720
2.640E-06,0.680
2.650E-06,0.640
2.660E-06,0.680
2.670E-06,0.640
2.680E-06,0.640
2.690E-06,0.720
2.700E-06,0.760
2.710E-06,0.840
2.720E-06,0.880
2.730E-06,0.880
2.740E-06,1.000
2.750E-06,0.960
2.760E-06,1.000
2.770E-06,1.040
2.780E-06,1.120
2.790E-06,1.120
2.800E-06,1.080
2.810E-06,1.040
2.820E-06,1.080
2.830E-06,1.040
2.840E-06,1.040
2.850E-06,1.000
2.860E-06,0.880
2.870E-06,0.880
2.880E-06,0.840
2.890E-06,0.720
2.900E-06,0.720
2.910E-06,0.680
2.920E-06,0.640
2.930E-06,0.600
2.940E-06,0.560
2.950E-06,0.600
2.960E-06,0.680
2.970E-06,0.640
2.980E-06,0.800
2.990E-06,0.880
3.000E-06,0.960
3.010E-06,1.040
3.020E-06,1.040
3.030E-06,1.080
3.040E-06,1.200
3.050E-06,1.240
3.060E-06,1.200
3.070E-06,1.160
3.080E-06,1.120
3.090E-06,1.240
3.100E-06,1.320
3.110E-06,1.360
3.120E-06,1.400
