mediciones/5-15 mala escala/27.77/WaveData4691.csv

#timebase=2000000(ps)
,#voltbase=1000000(mv/100)
#size=4000
-8.400E-06,-0.040
-8.390E-06,-0.040
-8.380E-06,-0.040
-8.370E-06,-0.040
-8.360E-06,0.000
-8.350E-06,-0.040
-8.340E-06,-0.080
-8.330E-06,0.000
-8.320E-06,-0.040
-8.310E-06,-0.040
-8.300E-06,-0.040
-8.290E-06,-0.080
-8.280E-06,-0.080
-8.270E-06,-0.080
-8.260E-06,0.000
-8.250E-06,0.000
-8.240E-06,0.000
-8.230E-06,0.000
-8.220E-06,0.000
-8.210E-06,-0.040
-8.200E-06,-0.040
-8.190E-06,-0.040
-8.180E-06,-0.040
-8.170E-06,-0.040
-8.160E-06,0.040
-8.150E-06,-0.120
-8.140E-06,-0.120
-8.130E-06,-0.040
-8.120E-06,0.000
-8.110E-06,-0.080
-8.100E-06,-0.040
-8.090E-06,-0.080
-8.080E-06,-0.040
-8.070E-06,-0.080
-8.060E-06,0.000
-8.050E-06,-0.040
-8.040E-06,-0.040
-8.030E-06,0.000
-8.020E-06,-0.040
-8.010E-06,0.000
-8.000E-06,-0.080
-7.990E-06,-0.040
-7.980E-06,0.000
-7.970E-06,0.000
-7.960E-06,0.000
-7.950E-06,-0.040
-7.940E-06,-0.040
-7.930E-06,0.000
-7.920E-06,0.040
-7.910E-06,0.040
-7.900E-06,-0.040
-7.890E-06,0.000
-7.880E-06,0.000
-7.870E-06,0.000
-7.860E-06,0.000
-7.850E-06,-0.040
-7.840E-06,0.040
-7.830E-06,0.040
-7.820E-06,-0.040
-7.810E-06,-0.040
-7.800E-06,0.000
-7.790E-06,0.040
-7.780E-06,0.040
-7.770E-06,0.000
-7.760E-06,-0.040
-7.750E-06,0.000
-7.740E-06,0.000
-7.730E-06,0.000
-7.720E-06,-0.040
-7.710E-06,0.000
-7.700E-06,0.040
-7.690E-06,-0.040
-7.680E-06,0.000
-7.670E-06,0.000
-7.660E-06,0.000
-7.650E-06,-0.040
-7.640E-06,0.000
-7.630E-06,0.000
-7.620E-06,0.000
-7.610E-06,0.000
-7.600E-06,-0.040
-7.590E-06,0.000
-7.580E-06,0.000
-7.570E-06,0.000
-7.560E-06,-0.040
-7.550E-06,0.000
-7.540E-06,0.000
-7.530E-06,0.000
-7.520E-06,0.000
-7.510E-06,0.000
-7.500E-06,0.000
-7.490E-06,0.000
-7.480E-06,0.000
-7.470E-06,0.000
-7.460E-06,0.000
-7.450E-06,0.000
-7.440E-06,0.040
-7.430E-06,0.040
-7.420E-06,-0.040
-7.410E-06,-0.040
-7.400E-06,0.040
-7.390E-06,0.040
-7.380E-06,-0.040
-7.370E-06,0.000
-7.360E-06,0.000
-7.350E-06,0.000
-7.340E-06,0.000
-7.330E-06,0.040
-7.320E-06,0.040
-7.310E-06,-0.040
-7.300E-06,0.000
-7.290E-06,0.000
-7.280E-06,0.040
-7.270E-06,0.080
-7.260E-06,-0.040
-7.250E-06,0.040
-7.240E-06,0.040
-7.230E-06,0.040
-7.220E-06,0.000
-7.210E-06,0.040
-7.200E-06,0.040
-7.190E-06,0.080
-7.180E-06,0.040
-7.170E-06,0.040
-7.160E-06,0.000
-7.150E-06,0.040
-7.140E-06,0.040
-7.130E-06,0.040
-7.120E-06,0.040
-7.110E-06,0.080
-7.100E-06,0.040
-7.090E-06,0.040
-7.080E-06,0.000
-7.070E-06,-0.040
-7.060E-06,0.040
-7.050E-06,0.000
-7.040E-06,-0.040
-7.030E-06,0.000
-7.020E-06,0.040
-7.010E-06,0.040
-7.000E-06,0.040
-6.990E-06,0.040
-6.980E-06,0.040
-6.970E-06,0.040
-6.960E-06,-0.040
-6.950E-06,-0.040
-6.940E-06,0.000
-6.930E-06,0.000
-6.920E-06,0.000
-6.910E-06,0.000
-6.900E-06,0.000
-6.890E-06,-0.040
-6.880E-06,0.000
-6.870E-06,0.000
-6.860E-06,0.000
-6.850E-06,0.000
-6.840E-06,0.000
-6.830E-06,0.000
-6.820E-06,0.000
-6.810E-06,0.000
-6.800E-06,0.000
-6.790E-06,0.000
-6.780E-06,-0.040
-6.770E-06,-0.040
-6.760E-06,0.000
-6.750E-06,0.000
-6.740E-06,-0.040
-6.730E-06,0.040
-6.720E-06,0.080
-6.710E-06,0.080
-6.700E-06,0.000
-6.690E-06,0.040
-6.680E-06,0.040
-6.670E-06,0.040
-6.660E-06,0.040
-6.650E-06,0.000
-6.640E-06,0.040
-6.630E-06,0.040
-6.620E-06,0.040
-6.610E-06,0.040
-6.600E-06,0.040
-6.590E-06,0.000
-6.580E-06,0.000
-6.570E-06,0.040
-6.560E-06,-0.040
-6.550E-06,-0.040
-6.540E-06,0.000
-6.530E-06,0.000
-6.520E-06,0.000
-6.510E-06,0.000
-6.500E-06,0.000
-6.490E-06,0.000
-6.480E-06,0.000
-6.470E-06,0.000
-6.460E-06,-0.040
-6.450E-06,0.000
-6.440E-06,-0.040
-6.430E-06,0.000
-6.420E-06,-0.040
-6.410E-06,0.000
-6.400E-06,0.000
-6.390E-06,0.000
-6.380E-06,0.040
-6.370E-06,0.000
-6.360E-06,0.000
-6.350E-06,0.000
-6.340E-06,0.000
-6.330E-06,-0.040
-6.320E-06,-0.040
-6.310E-06,0.000
-6.300E-06,0.040
-6.290E-06,-0.040
-6.280E-06,0.000
-6.270E-06,0.000
-6.260E-06,0.000
-6.250E-06,0.000
-6.240E-06,0.040
-6.230E-06,0.040
-6.220E-06,0.040
-6.210E-06,0.000
-6.200E-06,0.000
-6.190E-06,-0.040
-6.180E-06,0.000
-6.170E-06,-0.040
-6.160E-06,-0.040
-6.150E-06,0.040
-6.140E-06,-0.040
-6.130E-06,0.000
-6.120E-06,0.000
-6.110E-06,0.000
-6.100E-06,0.000
-6.090E-06,0.000
-6.080E-06,0.000
-6.070E-06,0.000
-6.060E-06,-0.040
-6.050E-06,0.000
-6.040E-06,0.000
-6.030E-06,0.000
-6.020E-06,0.000
-6.010E-06,0.000
-6.000E-06,0.040
-5.990E-06,0.040
-5.980E-06,-0.040
-5.970E-06,-0.040
-5.960E-06,0.000
-5.950E-06,0.000
-5.940E-06,0.000
-5.930E-06,0.000
-5.920E-06,-0.040
-5.910E-06,-0.040
-5.900E-06,0.000
-5.890E-06,0.000
-5.880E-06,0.000
-5.870E-06,0.000
-5.860E-06,0.000
-5.850E-06,0.000
-5.840E-06,0.000
-5.830E-06,0.000
-5.820E-06,0.000
-5.810E-06,-0.040
-5.800E-06,-0.040
-5.790E-06,0.000
-5.780E-06,-0.040
-5.770E-06,-0.040
-5.760E-06,0.000
-5.750E-06,0.000
-5.740E-06,0.000
-5.730E-06,0.000
-5.720E-06,0.000
-5.710E-06,0.000
-5.700E-06,0.000
-5.690E-06,0.040
-5.680E-06,-0.040
-5.670E-06,0.000
-5.660E-06,0.000
-5.650E-06,0.000
-5.640E-06,0.000
-5.630E-06,-0.040
-5.620E-06,0.000
-5.610E-06,0.000
-5.600E-06,0.000
-5.590E-06,0.000
-5.580E-06,0.000
-5.570E-06,-0.040
-5.560E-06,0.000
-5.550E-06,0.000
-5.540E-06,0.000
-5.530E-06,0.000
-5.520E-06,0.000
-5.510E-06,-0.040
-5.500E-06,0.000
-5.490E-06,-0.040
-5.480E-06,-0.040
-5.470E-06,0.000
-5.460E-06,-0.040
-5.450E-06,0.000
-5.440E-06,-0.040
-5.430E-06,0.000
-5.420E-06,-0.040
-5.410E-06,0.000
-5.400E-06,0.040
-5.390E-06,0.000
-5.380E-06,0.000
-5.370E-06,0.000
-5.360E-06,0.000
-5.350E-06,0.000
-5.340E-06,0.000
-5.330E-06,0.000
-5.320E-06,0.000
-5.310E-06,0.000
-5.300E-06,0.040
-5.290E-06,0.040
-5.280E-06,0.040
-5.270E-06,-0.040
-5.260E-06,0.000
-5.250E-06,0.000
-5.240E-06,0.000
-5.230E-06,0.000
-5.220E-06,0.000
-5.210E-06,-0.040
-5.200E-06,0.000
-5.190E-06,0.000
-5.180E-06,0.000
-5.170E-06,0.040
-5.160E-06,0.040
-5.150E-06,0.040
-5.140E-06,-0.040
-5.130E-06,-0.040
-5.120E-06,0.000
-5.110E-06,-0.040
-5.100E-06,0.000
-5.090E-06,-0.040
-5.080E-06,0.000
-5.070E-06,0.000
-5.060E-06,0.000
-5.050E-06,0.000
-5.040E-06,0.040
-5.030E-06,0.040
-5.020E-06,-0.040
-5.010E-06,0.000
-5.000E-06,0.000
-4.990E-06,0.000
-4.980E-06,0.040
-4.970E-06,0.040
-4.960E-06,0.040
-4.950E-06,-0.040
-4.940E-06,0.000
-4.930E-06,0.000
-4.920E-06,0.000
-4.910E-06,0.000
-4.900E-06,-0.040
-4.890E-06,0.000
-4.880E-06,-0.040
-4.870E-06,-0.040
-4.860E-06,0.000
-4.850E-06,0.040
-4.840E-06,0.040
-4.830E-06,0.040
-4.820E-06,-0.040
-4.810E-06,0.000
-4.800E-06,0.000
-4.790E-06,0.000
-4.780E-06,0.000
-4.770E-06,0.000
-4.760E-06,0.000
-4.750E-06,0.000
-4.740E-06,0.000
-4.730E-06,0.000
-4.720E-06,-0.040
-4.710E-06,0.000
-4.700E-06,0.040
-4.690E-06,0.040
-4.680E-06,0.040
-4.670E-06,-0.040
-4.660E-06,0.000
-4.650E-06,0.000
-4.640E-06,0.000
-4.630E-06,0.000
-4.620E-06,0.000
-4.610E-06,0.000
-4.600E-06,0.000
-4.590E-06,-0.040
-4.580E-06,0.000
-4.570E-06,0.000
-4.560E-06,0.000
-4.550E-06,0.040
-4.540E-06,-0.040
-4.530E-06,0.000
-4.520E-06,0.000
-4.510E-06,0.000
-4.500E-06,0.000
-4.490E-06,-0.040
-4.480E-06,0.000
-4.470E-06,-0.040
-4.460E-06,-0.080
-4.450E-06,0.000
-4.440E-06,-0.040
-4.430E-06,-0.040
-4.420E-06,0.000
-4.410E-06,-0.040
-4.400E-06,0.000
-4.390E-06,-0.040
-4.380E-06,-0.040
-4.370E-06,-0.040
-4.360E-06,-0.120
-4.350E-06,-0.040
-4.340E-06,-0.040
-4.330E-06,-0.120
-4.320E-06,-0.120
-4.310E-06,-0.120
-4.300E-06,-0.120
-4.290E-06,-0.160
-4.280E-06,-0.120
-4.270E-06,-0.120
-4.260E-06,-0.080
-4.250E-06,-0.080
-4.240E-06,-0.080
-4.230E-06,-0.080
-4.220E-06,-0.120
-4.210E-06,-0.080
-4.200E-06,-0.120
-4.190E-06,-0.080
-4.180E-06,-0.080
-4.170E-06,-0.120
-4.160E-06,-0.160
-4.150E-06,-0.120
-4.140E-06,-0.200
-4.130E-06,-0.200
-4.120E-06,-0.080
-4.110E-06,-0.080
-4.100E-06,-0.160
-4.090E-06,-0.120
-4.080E-06,-0.200
-4.070E-06,-0.240
-4.060E-06,-0.200
-4.050E-06,-0.160
-4.040E-06,-0.160
-4.030E-06,-0.120
-4.020E-06,-0.160
-4.010E-06,-0.200
-4.000E-06,-0.200
-3.990E-06,-0.200
-3.980E-06,-0.120
-3.970E-06,-0.040
-3.960E-06,-0.120
-3.950E-06,-0.080
-3.940E-06,-0.080
-3.930E-06,-0.040
-3.920E-06,-0.040
-3.910E-06,-0.040
-3.900E-06,0.000
-3.890E-06,-0.080
-3.880E-06,-0.040
-3.870E-06,-0.080
-3.860E-06,-0.040
-3.850E-06,-0.080
-3.840E-06,-0.040
-3.830E-06,-0.040
-3.820E-06,-0.080
-3.810E-06,-0.040
-3.800E-06,-0.040
-3.790E-06,-0.080
-3.780E-06,0.000
-3.770E-06,-0.040
-3.760E-06,-0.080
-3.750E-06,-0.080
-3.740E-06,-0.080
-3.730E-06,-0.080
-3.720E-06,-0.040
-3.710E-06,-0.080
-3.700E-06,-0.120
-3.690E-06,-0.120
-3.680E-06,-0.160
-3.670E-06,-0.160
-3.660E-06,-0.240
-3.650E-06,-0.240
-3.640E-06,-0.240
-3.630E-06,-0.200
-3.620E-06,-0.240
-3.610E-06,-0.280
-3.600E-06,-0.240
-3.590E-06,-0.280
-3.580E-06,-0.360
-3.570E-06,-0.320
-3.560E-06,-0.320
-3.550E-06,-0.320
-3.540E-06,-0.360
-3.530E-06,-0.320
-3.520E-06,-0.320
-3.510E-06,-0.360
-3.500E-06,-0.360
-3.490E-06,-0.320
-3.480E-06,-0.320
-3.470E-06,-0.320
-3.460E-06,-0.400
-3.450E-06,-0.400
-3.440E-06,-0.360
-3.430E-06,-0.360
-3.420E-06,-0.360
-3.410E-06,-0.360
-3.400E-06,-0.400
-3.390E-06,-0.360
-3.380E-06,-0.320
-3.370E-06,-0.360
-3.360E-06,-0.400
-3.350E-06,-0.440
-3.340E-06,-0.400
-3.330E-06,-0.400
-3.320E-06,-0.440
-3.310E-06,-0.440
-3.300E-06,-0.400
-3.290E-06,-0.480
-3.280E-06,-0.480
-3.270E-06,-0.400
-3.260E-06,-0.360
-3.250E-06,-0.320
-3.240E-06,-0.320
-3.230E-06,-0.440
-3.220E-06,-0.360
-3.210E-06,-0.320
-3.200E-06,-0.280
-3.190E-06,-0.240
-3.180E-06,-0.280
-3.170E-06,-0.240
-3.160E-06,-0.320
-3.150E-06,-0.360
-3.140E-06,-0.280
-3.130E-06,-0.240
-3.120E-06,-0.280
-3.110E-06,-0.240
-3.100E-06,-0.240
-3.090E-06,-0.240
-3.080E-06,-0.280
-3.070E-06,-0.200
-3.060E-06,-0.240
-3.050E-06,-0.280
-3.040E-06,-0.240
-3.030E-06,-0.240
-3.020E-06,-0.280
-3.010E-06,-0.320
-3.000E-06,-0.320
-2.990E-06,-0.240
-2.980E-06,-0.280
-2.970E-06,-0.200
-2.960E-06,-0.240
-2.950E-06,-0.240
-2.940E-06,-0.280
-2.930E-06,-0.280
-2.920E-06,-0.200
-2.910E-06,-0.240
-2.900E-06,-0.280
-2.890E-06,-0.320
-2.880E-06,-0.320
-2.870E-06,-0.320
-2.860E-06,-0.280
-2.850E-06,-0.240
-2.840E-06,-0.280
-2.830E-06,-0.400
-2.820E-06,-0.480
-2.810E-06,-0.640
-2.800E-06,-0.640
-2.790E-06,-0.600
-2.780E-06,-0.680
-2.770E-06,-0.600
-2.760E-06,-0.640
-2.750E-06,-0.640
-2.740E-06,-0.640
-2.730E-06,-0.640
-2.720E-06,-0.640
-2.710E-06,-0.640
-2.700E-06,-0.640
-2.690E-06,-0.600
-2.680E-06,-0.600
-2.670E-06,-0.560
-2.660E-06,-0.560
-2.650E-06,-0.600
-2.640E-06,-0.600
-2.630E-06,-0.600
-2.620E-06,-0.560
-2.610E-06,-0.600
-2.600E-06,-0.560
-2.590E-06,-0.560
-2.580E-06,-0.600
-2.570E-06,-0.600
-2.560E-06,-0.640
-2.550E-06,-0.640
-2.540E-06,-0.640
-2.530E-06,-0.640
-2.520E-06,-0.600
-2.510E-06,-0.600
-2.500E-06,-0.520
-2.490E-06,-0.600
-2.480E-06,-0.640
-2.470E-06,-0.640
-2.460E-06,-0.680
-2.450E-06,-0.680
-2.440E-06,-0.760
-2.430E-06,-0.800
-2.420E-06,-0.840
-2.410E-06,-0.880
-2.400E-06,-0.920
-2.390E-06,-0.880
-2.380E-06,-1.000
-2.370E-06,-1.040
-2.360E-06,-1.080
-2.350E-06,-1.080
-2.340E-06,-1.120
-2.330E-06,-1.120
-2.320E-06,-1.120
-2.310E-06,-1.120
-2.300E-06,-1.000
-2.290E-06,-1.080
-2.280E-06,-1.080
-2.270E-06,-1.120
-2.260E-06,-1.120
-2.250E-06,-1.080
-2.240E-06,-1.120
-2.230E-06,-1.120
-2.220E-06,-1.200
-2.210E-06,-1.200
-2.200E-06,-1.160
-2.190E-06,-1.200
-2.180E-06,-1.200
-2.170E-06,-1.240
-2.160E-06,-1.240
-2.150E-06,-1.320
-2.140E-06,-1.360
-2.130E-06,-1.360
-2.120E-06,-1.320
-2.110E-06,-1.400
-2.100E-06,-1.400
-2.090E-06,-1.480
-2.080E-06,-1.520
-2.070E-06,-1.560
-2.060E-06,-1.680
-2.050E-06,-1.760
-2.040E-06,-1.760
-2.030E-06,-1.760
-2.020E-06,-1.720
-2.010E-06,-1.640
-2.000E-06,-1.480
-1.990E-06,-1.400
-1.980E-06,-1.240
-1.970E-06,-1.160
-1.960E-06,-1.120
-1.950E-06,-1.120
-1.940E-06,-1.080
-1.930E-06,-1.080
-1.920E-06,-1.040
-1.910E-06,-1.200
-1.900E-06,-1.200
-1.890E-06,-1.240
-1.880E-06,-1.200
-1.870E-06,-1.040
-1.860E-06,-1.040
-1.850E-06,-1.000
-1.840E-06,-0.960
-1.830E-06,-0.840
-1.820E-06,-0.760
-1.810E-06,-0.720
-1.800E-06,-0.640
-1.790E-06,-0.640
-1.780E-06,-0.640
-1.770E-06,-0.680
-1.760E-06,-0.680
-1.750E-06,-0.680
-1.740E-06,-0.720
-1.730E-06,-0.720
-1.720E-06,-0.760
-1.710E-06,-0.800
-1.700E-06,-0.840
-1.690E-06,-0.840
-1.680E-06,-1.000
-1.670E-06,-1.080
-1.660E-06,-1.200
-1.650E-06,-1.320
-1.640E-06,-1.400
-1.630E-06,-1.560
-1.620E-06,-1.640
-1.610E-06,-1.720
-1.600E-06,-1.800
-1.590E-06,-1.920
-1.580E-06,-2.040
-1.570E-06,-2.120
-1.560E-06,-2.080
-1.550E-06,-2.160
-1.540E-06,-1.840
-1.530E-06,-1.800
-1.520E-06,-1.520
-1.510E-06,-1.400
-1.500E-06,-1.200
-1.490E-06,-1.160
-1.480E-06,-1.000
-1.470E-06,-0.880
-1.460E-06,-0.800
-1.450E-06,-0.760
-1.440E-06,-0.920
-1.430E-06,-0.880
-1.420E-06,-0.880
-1.410E-06,-0.800
-1.400E-06,-0.840
-1.390E-06,-0.880
-1.380E-06,-0.920
-1.370E-06,-0.920
-1.360E-06,-0.920
-1.350E-06,-0.960
-1.340E-06,-0.880
-1.330E-06,-0.920
-1.320E-06,-0.920
-1.310E-06,-0.880
-1.300E-06,-0.920
-1.290E-06,-0.920
-1.280E-06,-0.880
-1.270E-06,-0.800
-1.260E-06,-0.760
-1.250E-06,-0.680
-1.240E-06,-0.600
-1.230E-06,-0.520
-1.220E-06,-0.520
-1.210E-06,-0.600
-1.200E-06,-0.640
-1.190E-06,-0.720
-1.180E-06,-0.880
-1.170E-06,-1.000
-1.160E-06,-1.200
-1.150E-06,-1.400
-1.140E-06,-1.640
-1.130E-06,-1.880
-1.120E-06,-1.880
-1.110E-06,-1.880
-1.100E-06,-2.000
-1.090E-06,-1.800
-1.080E-06,-1.360
-1.070E-06,-1.360
-1.060E-06,-0.640
-1.050E-06,-0.960
-1.040E-06,-0.920
-1.030E-06,-1.120
-1.020E-06,-1.280
-1.010E-06,-1.200
-1.000E-06,-1.160
-9.900E-07,-1.280
-9.800E-07,-1.320
-9.700E-07,-1.480
-9.600E-07,-1.560
-9.500E-07,-1.400
-9.400E-07,-1.360
-9.300E-07,-1.320
-9.200E-07,-1.240
-9.100E-07,-1.120
-9.000E-07,-1.080
-8.900E-07,-1.040
-8.800E-07,-0.960
-8.700E-07,-0.920
-8.600E-07,-0.840
-8.500E-07,-0.680
-8.400E-07,-0.680
-8.300E-07,-0.680
-8.200E-07,-0.520
-8.100E-07,-0.480
-8.000E-07,-0.360
-7.900E-07,-0.160
-7.800E-07,-0.080
-7.700E-07,-0.040
-7.600E-07,0.120
-7.500E-07,0.160
-7.400E-07,0.320
-7.300E-07,0.240
-7.200E-07,0.240
-7.100E-07,0.160
-7.000E-07,0.080
-6.900E-07,-0.080
-6.800E-07,-0.280
-6.700E-07,-0.480
-6.600E-07,-0.600
-6.500E-07,-0.840
-6.400E-07,-1.000
-6.300E-07,-1.200
-6.200E-07,-1.400
-6.100E-07,-1.400
-6.000E-07,-1.360
-5.900E-07,-1.320
-5.800E-07,-1.160
-5.700E-07,-1.000
-5.600E-07,-1.000
-5.500E-07,-1.040
-5.400E-07,-1.080
-5.300E-07,-1.200
-5.200E-07,-1.200
-5.100E-07,-1.320
-5.000E-07,-1.400
-4.900E-07,-1.600
-4.800E-07,-1.800
-4.700E-07,-1.800
-4.600E-07,-1.920
-4.500E-07,-1.680
-4.400E-07,-1.600
-4.300E-07,-1.280
-4.200E-07,-1.160
-4.100E-07,-1.320
-4.000E-07,-1.360
-3.900E-07,-1.480
-3.800E-07,-1.520
-3.700E-07,-1.520
-3.600E-07,-1.680
-3.500E-07,-1.800
-3.400E-07,-1.840
-3.300E-07,-1.840
-3.200E-07,-1.840
-3.100E-07,-1.800
-3.000E-07,-1.720
-2.900E-07,-1.600
-2.800E-07,-1.440
-2.700E-07,-1.280
-2.600E-07,-1.160
-2.500E-07,-1.080
-2.400E-07,-0.880
-2.300E-07,-0.800
-2.200E-07,-0.720
-2.100E-07,-0.680
-2.000E-07,-0.600
-1.900E-07,-0.560
-1.800E-07,-0.600
-1.700E-07,-0.600
-1.600E-07,-0.680
-1.500E-07,-0.680
-1.400E-07,-0.800
-1.300E-07,-0.880
-1.200E-07,-0.960
-1.100E-07,-1.040
-1.000E-07,-1.040
-9.000E-08,-1.200
-8.000E-08,-1.320
-7.000E-08,-1.440
-6.000E-08,-1.480
-5.000E-08,-1.440
-4.000E-08,-0.400
-3.000E-08,-0.600
-2.000E-08,0.200
-1.000E-08,-0.360
0.000E+00,-0.200
1.000E-08,-0.360
2.000E-08,-0.240
3.000E-08,-0.480
4.000E-08,-0.720
5.000E-08,-1.240
6.000E-08,-1.600
7.000E-08,-1.600
8.000E-08,-1.280
9.000E-08,-1.200
1.000E-07,-1.360
1.100E-07,-1.800
1.200E-07,-1.880
1.300E-07,-1.720
1.400E-07,-1.440
1.500E-07,-1.360
1.600E-07,-1.320
1.700E-07,-1.400
1.800E-07,-1.320
1.900E-07,-1.200
2.000E-07,-1.160
2.100E-07,-1.160
2.200E-07,-1.000
2.300E-07,-0.840
2.400E-07,-0.640
2.500E-07,-0.520
2.600E-07,-0.320
2.700E-07,-0.280
2.800E-07,-0.120
2.900E-07,0.000
3.000E-07,0.000
3.100E-07,0.120
3.200E-07,0.200
3.300E-07,0.160
3.400E-07,0.320
3.500E-07,0.240
3.600E-07,0.520
3.700E-07,0.400
3.800E-07,0.680
3.900E-07,0.600
4.000E-07,0.600
4.100E-07,0.440
4.200E-07,0.080
4.300E-07,-0.320
4.400E-07,-0.720
4.500E-07,-1.000
4.600E-07,-1.240
4.700E-07,-1.200
4.800E-07,-1.320
4.900E-07,-1.360
5.000E-07,-1.560
5.100E-07,-1.520
5.200E-07,-1.760
5.300E-07,-1.760
5.400E-07,-1.800
5.500E-07,-1.840
5.600E-07,-1.920
5.700E-07,-1.800
5.800E-07,-1.880
5.900E-07,-1.800
6.000E-07,-1.840
6.100E-07,-1.800
6.200E-07,-1.800
6.300E-07,-1.720
6.400E-07,-1.600
6.500E-07,-1.040
6.600E-07,-0.880
6.700E-07,-0.360
6.800E-07,-0.360
6.900E-07,-0.400
7.000E-07,-0.400
7.100E-07,-0.480
7.200E-07,-0.400
7.300E-07,-0.320
7.400E-07,-0.360
7.500E-07,-0.400
7.600E-07,-0.560
7.700E-07,-0.640
7.800E-07,-0.800
7.900E-07,-0.840
8.000E-07,-1.040
8.100E-07,-1.160
8.200E-07,-1.440
8.300E-07,-1.720
8.400E-07,-1.880
8.500E-07,-2.080
8.600E-07,-2.320
8.700E-07,-2.440
8.800E-07,-2.640
8.900E-07,-2.760
9.000E-07,-2.920
9.100E-07,-2.960
9.200E-07,-3.080
9.300E-07,-3.000
9.400E-07,-3.040
9.500E-07,-2.760
9.600E-07,-2.560
9.700E-07,-2.240
9.800E-07,-2.000
9.900E-07,-1.720
1.000E-06,-1.680
1.010E-06,-1.600
1.020E-06,-1.760
1.030E-06,-1.840
1.040E-06,-2.120
1.050E-06,-2.200
1.060E-06,-2.320
1.070E-06,-2.480
1.080E-06,-2.640
1.090E-06,-2.880
1.100E-06,-2.840
1.110E-06,-3.160
1.120E-06,-3.280
1.130E-06,-3.400
1.140E-06,-3.400
1.150E-06,-3.480
1.160E-06,-3.480
1.170E-06,-3.040
1.180E-06,-2.880
1.190E-06,-2.720
1.200E-06,-3.080
1.210E-06,-3.520
1.220E-06,-3.920
1.230E-06,-3.960
1.240E-06,-4.040
1.250E-06,-4.000
1.260E-06,-4.520
1.270E-06,-4.960
1.280E-06,-5.240
1.290E-06,-5.240
1.300E-06,-5.240
1.310E-06,-5.080
1.320E-06,-3.480
1.330E-06,-2.760
1.340E-06,-1.760
1.350E-06,-2.480
1.360E-06,-3.240
1.370E-06,-4.120
1.380E-06,-4.560
1.390E-06,-4.800
1.400E-06,-4.720
1.410E-06,-5.240
1.420E-06,-5.240
1.430E-06,-5.240
1.440E-06,-5.240
1.450E-06,-5.200
1.460E-06,-5.200
1.470E-06,-5.120
1.480E-06,-4.760
1.490E-06,-4.080
1.500E-06,-3.560
1.510E-06,-3.160
1.520E-06,-3.360
1.530E-06,-3.280
1.540E-06,-3.640
1.550E-06,-3.600
1.560E-06,-3.920
1.570E-06,-4.360
1.580E-06,-4.720
1.590E-06,-5.000
1.600E-06,-5.120
1.610E-06,-4.960
1.620E-06,-4.640
1.630E-06,-4.120
1.640E-06,-4.080
1.650E-06,-3.640
1.660E-06,-3.680
1.670E-06,-3.520
1.680E-06,-3.480
1.690E-06,-3.440
1.700E-06,-3.680
1.710E-06,-3.920
1.720E-06,-4.480
1.730E-06,-5.040
1.740E-06,-5.240
1.750E-06,-5.200
1.760E-06,-5.240
1.770E-06,-5.200
1.780E-06,-5.240
1.790E-06,-5.240
1.800E-06,-5.200
1.810E-06,-5.240
1.820E-06,-5.240
1.830E-06,-5.240
1.840E-06,-5.200
1.850E-06,-5.240
1.860E-06,-5.200
1.870E-06,-5.200
1.880E-06,-5.240
1.890E-06,-5.240
1.900E-06,-5.240
1.910E-06,-5.240
1.920E-06,-5.240
1.930E-06,-5.240
1.940E-06,-5.200
1.950E-06,-5.200
1.960E-06,-5.200
1.970E-06,-5.240
1.980E-06,-5.240
1.990E-06,-5.200
2.000E-06,-5.240
2.010E-06,-5.240
2.020E-06,-5.240
2.030E-06,-5.240
2.040E-06,-5.200
2.050E-06,-5.240
2.060E-06,-5.240
2.070E-06,-5.240
2.080E-06,-5.240
2.090E-06,-5.200
2.100E-06,-5.200
2.110E-06,-5.200
2.120E-06,-5.240
2.130E-06,-5.240
2.140E-06,-5.240
2.150E-06,-5.240
2.160E-06,-5.240
2.170E-06,-5.120
2.180E-06,-4.920
2.190E-06,-4.600
2.200E-06,-4.360
2.210E-06,-4.120
2.220E-06,-3.920
2.230E-06,-3.840
2.240E-06,-3.680
2.250E-06,-3.640
2.260E-06,-3.640
2.270E-06,-3.640
2.280E-06,-3.760
2.290E-06,-3.880
2.300E-06,-3.960
2.310E-06,-4.080
2.320E-06,-4.320
2.330E-06,-4.520
2.340E-06,-4.760
2.350E-06,-4.960
2.360E-06,-5.120
2.370E-06,-5.240
2.380E-06,-5.240
2.390E-06,-5.200
2.400E-06,-5.120
2.410E-06,-4.920
2.420E-06,-4.800
2.430E-06,-4.720
2.440E-06,-4.640
2.450E-06,-4.560
2.460E-06,-4.560
2.470E-06,-4.440
2.480E-06,-4.440
2.490E-06,-4.480
2.500E-06,-4.520
2.510E-06,-4.600
2.520E-06,-4.640
2.530E-06,-4.760
2.540E-06,-4.840
2.550E-06,-4.840
2.560E-06,-4.920
2.570E-06,-4.880
2.580E-06,-4.920
2.590E-06,-4.840
2.600E-06,-4.800
2.610E-06,-4.800
2.620E-06,-4.800
2.630E-06,-4.880
2.640E-06,-4.840
2.650E-06,-4.840
2.660E-06,-4.800
2.670E-06,-4.800
2.680E-06,-4.760
2.690E-06,-4.720
2.700E-06,-4.720
2.710E-06,-4.600
2.720E-06,-4.480
2.730E-06,-4.400
2.740E-06,-4.280
2.750E-06,-4.080
2.760E-06,-4.000
2.770E-06,-3.840
2.780E-06,-3.760
2.790E-06,-3.640
2.800E-06,-3.640
2.810E-06,-3.600
2.820E-06,-3.600
2.830E-06,-3.560
2.840E-06,-3.520
2.850E-06,-3.480
2.860E-06,-3.480
2.870E-06,-3.360
2.880E-06,-3.280
2.890E-06,-3.240
2.900E-06,-3.120
2.910E-06,-3.040
2.920E-06,-2.840
2.930E-06,-2.800
2.940E-06,-2.720
2.950E-06,-2.600
2.960E-06,-2.560
2.970E-06,-2.480
2.980E-06,-2.440
2.990E-06,-2.360
3.000E-06,-2.360
3.010E-06,-2.320
