mediciones/5-15 mala escala/27.77/WaveData4688.csv

#timebase=2000000(ps)
,#voltbase=100000(mv/100)
#size=4000
-8.400E-06,0.004
-8.390E-06,0.132
-8.380E-06,0.204
-8.370E-06,0.152
-8.360E-06,-0.020
-8.350E-06,-0.204
-8.340E-06,-0.216
-8.330E-06,-0.076
-8.320E-06,0.056
-8.310E-06,0.132
-8.300E-06,0.124
-8.290E-06,0.012
-8.280E-06,-0.092
-8.270E-06,-0.092
-8.260E-06,-0.036
-8.250E-06,-0.024
-8.240E-06,0.016
-8.230E-06,0.044
-8.220E-06,0.056
-8.210E-06,0.024
-8.200E-06,-0.028
-8.190E-06,-0.040
-8.180E-06,-0.032
-8.170E-06,-0.020
-8.160E-06,0.012
-8.150E-06,0.024
-8.140E-06,0.028
-8.130E-06,0.024
-8.120E-06,0.012
-8.110E-06,-0.008
-8.100E-06,-0.024
-8.090E-06,-0.016
-8.080E-06,-0.004
-8.070E-06,0.008
-8.060E-06,0.012
-8.050E-06,0.020
-8.040E-06,0.016
-8.030E-06,0.008
-8.020E-06,-0.008
-8.010E-06,-0.024
-8.000E-06,-0.012
-7.990E-06,0.004
-7.980E-06,0.028
-7.970E-06,0.036
-7.960E-06,0.024
-7.950E-06,-0.004
-7.940E-06,-0.012
-7.930E-06,-0.024
-7.920E-06,-0.016
-7.910E-06,0.000
-7.900E-06,0.020
-7.890E-06,0.028
-7.880E-06,0.016
-7.870E-06,0.000
-7.860E-06,-0.008
-7.850E-06,-0.012
-7.840E-06,-0.004
-7.830E-06,0.004
-7.820E-06,0.012
-7.810E-06,0.024
-7.800E-06,0.028
-7.790E-06,0.020
-7.780E-06,0.008
-7.770E-06,0.000
-7.760E-06,-0.008
-7.750E-06,-0.008
-7.740E-06,0.004
-7.730E-06,0.020
-7.720E-06,0.032
-7.710E-06,0.028
-7.700E-06,0.028
-7.690E-06,0.004
-7.680E-06,0.000
-7.670E-06,-0.008
-7.660E-06,0.000
-7.650E-06,0.032
-7.640E-06,0.044
-7.630E-06,0.056
-7.620E-06,0.048
-7.610E-06,0.012
-7.600E-06,-0.056
-7.590E-06,-0.100
-7.580E-06,-0.088
-7.570E-06,-0.012
-7.560E-06,0.060
-7.550E-06,0.112
-7.540E-06,0.104
-7.530E-06,0.028
-7.520E-06,-0.036
-7.510E-06,-0.076
-7.500E-06,-0.168
-7.490E-06,-0.132
-7.480E-06,0.000
-7.470E-06,0.088
-7.460E-06,0.096
-7.450E-06,0.092
-7.440E-06,0.028
-7.430E-06,-0.060
-7.420E-06,-0.076
-7.410E-06,-0.076
-7.400E-06,-0.004
-7.390E-06,0.044
-7.380E-06,0.072
-7.370E-06,0.060
-7.360E-06,0.016
-7.350E-06,-0.020
-7.340E-06,-0.028
-7.330E-06,-0.032
-7.320E-06,-0.020
-7.310E-06,0.000
-7.300E-06,0.024
-7.290E-06,0.040
-7.280E-06,0.036
-7.270E-06,0.020
-7.260E-06,-0.012
-7.250E-06,-0.032
-7.240E-06,-0.036
-7.230E-06,-0.008
-7.220E-06,0.020
-7.210E-06,0.036
-7.200E-06,0.028
-7.190E-06,0.016
-7.180E-06,0.000
-7.170E-06,-0.012
-7.160E-06,-0.016
-7.150E-06,-0.008
-7.140E-06,0.012
-7.130E-06,0.020
-7.120E-06,0.020
-7.110E-06,0.008
-7.100E-06,0.004
-7.090E-06,0.000
-7.080E-06,-0.004
-7.070E-06,0.000
-7.060E-06,0.008
-7.050E-06,0.008
-7.040E-06,0.000
-7.030E-06,0.004
-7.020E-06,0.004
-7.010E-06,0.004
-7.000E-06,0.004
-6.990E-06,0.004
-6.980E-06,0.004
-6.970E-06,0.000
-6.960E-06,0.000
-6.950E-06,0.000
-6.940E-06,0.008
-6.930E-06,0.012
-6.920E-06,0.012
-6.910E-06,0.008
-6.900E-06,0.008
-6.890E-06,0.008
-6.880E-06,0.000
-6.870E-06,0.000
-6.860E-06,0.008
-6.850E-06,0.012
-6.840E-06,0.020
-6.830E-06,0.024
-6.820E-06,0.024
-6.810E-06,0.016
-6.800E-06,0.008
-6.790E-06,0.028
-6.780E-06,0.060
-6.770E-06,0.012
-6.760E-06,-0.028
-6.750E-06,-0.040
-6.740E-06,-0.036
-6.730E-06,-0.028
-6.720E-06,0.020
-6.710E-06,0.092
-6.700E-06,0.088
-6.690E-06,0.036
-6.680E-06,-0.052
-6.670E-06,-0.120
-6.660E-06,-0.132
-6.650E-06,-0.068
-6.640E-06,0.048
-6.630E-06,0.140
-6.620E-06,0.200
-6.610E-06,-0.060
-6.600E-06,-0.136
-6.590E-06,-0.156
-6.580E-06,-0.108
-6.570E-06,-0.044
-6.560E-06,0.124
-6.550E-06,0.204
-6.540E-06,0.112
-6.530E-06,0.020
-6.520E-06,-0.148
-6.510E-06,-0.152
-6.500E-06,-0.104
-6.490E-06,0.048
-6.480E-06,0.112
-6.470E-06,0.128
-6.460E-06,0.056
-6.450E-06,-0.012
-6.440E-06,-0.056
-6.430E-06,-0.080
-6.420E-06,-0.040
-6.410E-06,-0.004
-6.400E-06,0.056
-6.390E-06,0.056
-6.380E-06,0.064
-6.370E-06,0.012
-6.360E-06,-0.008
-6.350E-06,-0.044
-6.340E-06,-0.040
-6.330E-06,-0.012
-6.320E-06,0.012
-6.310E-06,0.060
-6.300E-06,0.052
-6.290E-06,0.040
-6.280E-06,-0.008
-6.270E-06,-0.032
-6.260E-06,-0.044
-6.250E-06,-0.024
-6.240E-06,0.008
-6.230E-06,0.036
-6.220E-06,0.040
-6.210E-06,0.024
-6.200E-06,-0.004
-6.190E-06,-0.028
-6.180E-06,-0.028
-6.170E-06,-0.012
-6.160E-06,0.008
-6.150E-06,0.024
-6.140E-06,0.028
-6.130E-06,0.012
-6.120E-06,0.000
-6.110E-06,-0.008
-6.100E-06,-0.008
-6.090E-06,0.000
-6.080E-06,0.012
-6.070E-06,0.024
-6.060E-06,0.020
-6.050E-06,0.020
-6.040E-06,0.012
-6.030E-06,0.004
-6.020E-06,-0.008
-6.010E-06,0.004
-6.000E-06,0.024
-5.990E-06,0.032
-5.980E-06,0.040
-5.970E-06,0.044
-5.960E-06,0.020
-5.950E-06,-0.004
-5.940E-06,-0.044
-5.930E-06,-0.060
-5.920E-06,-0.032
-5.910E-06,-0.012
-5.900E-06,0.048
-5.890E-06,0.048
-5.880E-06,0.044
-5.870E-06,0.020
-5.860E-06,0.004
-5.850E-06,-0.032
-5.840E-06,-0.076
-5.830E-06,-0.060
-5.820E-06,0.000
-5.810E-06,0.068
-5.800E-06,0.076
-5.790E-06,0.056
-5.780E-06,-0.012
-5.770E-06,-0.052
-5.760E-06,-0.068
-5.750E-06,-0.032
-5.740E-06,0.024
-5.730E-06,0.060
-5.720E-06,0.076
-5.710E-06,0.032
-5.700E-06,-0.028
-5.690E-06,-0.076
-5.680E-06,-0.076
-5.670E-06,-0.048
-5.660E-06,0.024
-5.650E-06,0.072
-5.640E-06,0.076
-5.630E-06,0.028
-5.620E-06,-0.036
-5.610E-06,-0.056
-5.600E-06,-0.040
-5.590E-06,0.004
-5.580E-06,0.024
-5.570E-06,0.044
-5.560E-06,0.028
-5.550E-06,0.004
-5.540E-06,-0.024
-5.530E-06,-0.016
-5.520E-06,-0.012
-5.510E-06,0.000
-5.500E-06,0.012
-5.490E-06,0.016
-5.480E-06,0.024
-5.470E-06,0.008
-5.460E-06,-0.004
-5.450E-06,-0.008
-5.440E-06,-0.008
-5.430E-06,-0.008
-5.420E-06,0.008
-5.410E-06,0.016
-5.400E-06,0.020
-5.390E-06,0.016
-5.380E-06,0.008
-5.370E-06,-0.012
-5.360E-06,-0.008
-5.350E-06,-0.008
-5.340E-06,0.004
-5.330E-06,0.012
-5.320E-06,0.024
-5.310E-06,0.008
-5.300E-06,0.004
-5.290E-06,-0.004
-5.280E-06,-0.008
-5.270E-06,0.000
-5.260E-06,0.008
-5.250E-06,0.012
-5.240E-06,0.012
-5.230E-06,0.004
-5.220E-06,0.004
-5.210E-06,0.000
-5.200E-06,-0.004
-5.190E-06,0.000
-5.180E-06,0.008
-5.170E-06,0.008
-5.160E-06,0.008
-5.150E-06,0.004
-5.140E-06,0.000
-5.130E-06,0.008
-5.120E-06,0.004
-5.110E-06,-0.004
-5.100E-06,-0.004
-5.090E-06,0.012
-5.080E-06,0.012
-5.070E-06,0.012
-5.060E-06,0.000
-5.050E-06,0.008
-5.040E-06,0.004
-5.030E-06,0.008
-5.020E-06,0.004
-5.010E-06,0.004
-5.000E-06,0.012
-4.990E-06,0.008
-4.980E-06,0.012
-4.970E-06,0.008
-4.960E-06,0.004
-4.950E-06,0.012
-4.940E-06,0.020
-4.930E-06,0.028
-4.920E-06,0.024
-4.910E-06,0.024
-4.900E-06,0.024
-4.890E-06,0.008
-4.880E-06,0.012
-4.870E-06,-0.004
-4.860E-06,0.008
-4.850E-06,0.044
-4.840E-06,0.048
-4.830E-06,0.044
-4.820E-06,0.020
-4.810E-06,-0.008
-4.800E-06,-0.028
-4.790E-06,-0.072
-4.780E-06,-0.064
-4.770E-06,-0.044
-4.760E-06,-0.004
-4.750E-06,0.036
-4.740E-06,0.068
-4.730E-06,0.064
-4.720E-06,0.016
-4.710E-06,-0.036
-4.700E-06,-0.068
-4.690E-06,-0.056
-4.680E-06,-0.008
-4.670E-06,0.032
-4.660E-06,0.060
-4.650E-06,0.060
-4.640E-06,0.024
-4.630E-06,-0.012
-4.620E-06,-0.044
-4.610E-06,-0.024
-4.600E-06,0.000
-4.590E-06,0.040
-4.580E-06,0.064
-4.570E-06,0.056
-4.560E-06,0.020
-4.550E-06,0.016
-4.540E-06,0.056
-4.530E-06,0.056
-4.520E-06,0.008
-4.510E-06,-0.032
-4.500E-06,-0.076
-4.490E-06,-0.076
-4.480E-06,-0.036
-4.470E-06,0.036
-4.460E-06,0.056
-4.450E-06,0.060
-4.440E-06,0.036
-4.430E-06,0.020
-4.420E-06,-0.052
-4.410E-06,-0.108
-4.400E-06,-0.080
-4.390E-06,-0.016
-4.380E-06,0.068
-4.370E-06,0.104
-4.360E-06,0.064
-4.350E-06,-0.020
-4.340E-06,-0.092
-4.330E-06,-0.100
-4.320E-06,-0.048
-4.310E-06,0.028
-4.300E-06,0.092
-4.290E-06,0.076
-4.280E-06,0.016
-4.270E-06,-0.036
-4.260E-06,-0.068
-4.250E-06,-0.044
-4.240E-06,-0.008
-4.230E-06,0.036
-4.220E-06,0.048
-4.210E-06,0.040
-4.200E-06,0.004
-4.190E-06,-0.016
-4.180E-06,-0.036
-4.170E-06,-0.024
-4.160E-06,-0.004
-4.150E-06,0.020
-4.140E-06,0.040
-4.130E-06,0.060
-4.120E-06,0.072
-4.110E-06,0.076
-4.100E-06,0.080
-4.090E-06,0.004
-4.080E-06,-0.096
-4.070E-06,-0.168
-4.060E-06,-0.132
-4.050E-06,0.004
-4.040E-06,0.108
-4.030E-06,0.108
-4.020E-06,0.056
-4.010E-06,-0.008
-4.000E-06,-0.076
-3.990E-06,-0.084
-3.980E-06,-0.048
-3.970E-06,0.008
-3.960E-06,0.060
-3.950E-06,0.092
-3.940E-06,0.056
-3.930E-06,0.000
-3.920E-06,-0.032
-3.910E-06,-0.044
-3.900E-06,-0.024
-3.890E-06,0.008
-3.880E-06,0.056
-3.870E-06,0.076
-3.860E-06,0.092
-3.850E-06,0.076
-3.840E-06,0.044
-3.830E-06,-0.004
-3.820E-06,-0.076
-3.810E-06,-0.108
-3.800E-06,-0.096
-3.790E-06,-0.016
-3.780E-06,0.056
-3.770E-06,0.088
-3.760E-06,0.068
-3.750E-06,0.024
-3.740E-06,-0.028
-3.730E-06,-0.072
-3.720E-06,-0.036
-3.710E-06,-0.012
-3.700E-06,0.008
-3.690E-06,0.008
-3.680E-06,0.008
-3.670E-06,-0.004
-3.660E-06,0.000
-3.650E-06,0.008
-3.640E-06,0.012
-3.630E-06,0.004
-3.620E-06,-0.016
-3.610E-06,-0.020
-3.600E-06,-0.012
-3.590E-06,0.020
-3.580E-06,0.032
-3.570E-06,0.036
-3.560E-06,0.008
-3.550E-06,-0.008
-3.540E-06,-0.024
-3.530E-06,-0.008
-3.520E-06,0.012
-3.510E-06,0.028
-3.500E-06,0.028
-3.490E-06,0.024
-3.480E-06,0.008
-3.470E-06,-0.008
-3.460E-06,-0.004
-3.450E-06,-0.004
-3.440E-06,0.008
-3.430E-06,0.020
-3.420E-06,0.044
-3.410E-06,0.040
-3.400E-06,0.044
-3.390E-06,0.032
-3.380E-06,0.032
-3.370E-06,0.032
-3.360E-06,0.036
-3.350E-06,0.040
-3.340E-06,0.028
-3.330E-06,0.020
-3.320E-06,0.020
-3.310E-06,0.044
-3.300E-06,0.056
-3.290E-06,0.076
-3.280E-06,0.048
-3.270E-06,-0.096
-3.260E-06,-0.200
-3.250E-06,-0.216
-3.240E-06,-0.060
-3.230E-06,0.092
-3.220E-06,0.148
-3.210E-06,0.124
-3.200E-06,0.036
-3.190E-06,-0.108
-3.180E-06,-0.200
-3.170E-06,-0.188
-3.160E-06,-0.024
-3.150E-06,0.108
-3.140E-06,0.160
-3.130E-06,0.080
-3.120E-06,-0.052
-3.110E-06,-0.132
-3.100E-06,-0.112
-3.090E-06,-0.028
-3.080E-06,0.044
-3.070E-06,0.088
-3.060E-06,0.072
-3.050E-06,0.028
-3.040E-06,-0.016
-3.030E-06,-0.048
-3.020E-06,-0.040
-3.010E-06,-0.008
-3.000E-06,0.028
-2.990E-06,0.028
-2.980E-06,0.012
-2.970E-06,-0.012
-2.960E-06,-0.016
-2.950E-06,-0.024
-2.940E-06,0.008
-2.930E-06,0.028
-2.920E-06,0.040
-2.910E-06,0.024
-2.900E-06,-0.004
-2.890E-06,-0.020
-2.880E-06,-0.024
-2.870E-06,-0.004
-2.860E-06,0.012
-2.850E-06,0.036
-2.840E-06,0.028
-2.830E-06,0.020
-2.820E-06,0.004
-2.810E-06,0.000
-2.800E-06,0.000
-2.790E-06,0.008
-2.780E-06,0.012
-2.770E-06,0.016
-2.760E-06,0.024
-2.750E-06,0.016
-2.740E-06,0.028
-2.730E-06,0.028
-2.720E-06,0.024
-2.710E-06,0.016
-2.700E-06,0.024
-2.690E-06,0.036
-2.680E-06,0.052
-2.670E-06,0.064
-2.660E-06,0.084
-2.650E-06,0.080
-2.640E-06,0.080
-2.630E-06,0.056
-2.620E-06,-0.036
-2.610E-06,-0.140
-2.600E-06,-0.208
-2.590E-06,-0.272
-2.580E-06,-0.068
-2.570E-06,0.112
-2.560E-06,0.252
-2.550E-06,0.204
-2.540E-06,0.036
-2.530E-06,-0.140
-2.520E-06,-0.264
-2.510E-06,-0.176
-2.500E-06,-0.024
-2.490E-06,0.164
-2.480E-06,0.208
-2.470E-06,0.168
-2.460E-06,0.000
-2.450E-06,-0.124
-2.440E-06,-0.168
-2.430E-06,-0.088
-2.420E-06,0.044
-2.410E-06,0.136
-2.400E-06,0.164
-2.390E-06,0.112
-2.380E-06,0.044
-2.370E-06,-0.036
-2.360E-06,-0.040
-2.350E-06,0.004
-2.340E-06,0.140
-2.330E-06,0.204
-2.320E-06,0.160
-2.310E-06,0.004
-2.300E-06,-0.176
-2.290E-06,-0.240
-2.280E-06,-0.228
-2.270E-06,-0.072
-2.260E-06,0.060
-2.250E-06,0.180
-2.240E-06,0.156
-2.230E-06,0.024
-2.220E-06,-0.092
-2.210E-06,-0.112
-2.200E-06,-0.096
-2.190E-06,-0.064
-2.180E-06,0.024
-2.170E-06,0.080
-2.160E-06,0.132
-2.150E-06,0.072
-2.140E-06,0.000
-2.130E-06,-0.108
-2.120E-06,-0.136
-2.110E-06,-0.088
-2.100E-06,0.024
-2.090E-06,0.124
-2.080E-06,0.160
-2.070E-06,0.124
-2.060E-06,0.040
-2.050E-06,-0.040
-2.040E-06,-0.092
-2.030E-06,-0.032
-2.020E-06,0.056
-2.010E-06,0.176
-2.000E-06,0.240
-1.990E-06,0.272
-1.980E-06,0.144
-1.970E-06,-0.056
-1.960E-06,-0.208
-1.950E-06,-0.280
-1.940E-06,-0.204
-1.930E-06,-0.044
-1.920E-06,0.144
-1.910E-06,0.200
-1.900E-06,0.204
-1.890E-06,0.112
-1.880E-06,-0.020
-1.870E-06,-0.152
-1.860E-06,-0.204
-1.850E-06,-0.160
-1.840E-06,-0.100
-1.830E-06,-0.040
-1.820E-06,-0.004
-1.810E-06,0.052
-1.800E-06,0.100
-1.790E-06,0.068
-1.780E-06,-0.084
-1.770E-06,-0.144
-1.760E-06,-0.132
-1.750E-06,-0.028
-1.740E-06,0.108
-1.730E-06,0.152
-1.720E-06,0.092
-1.710E-06,-0.028
-1.700E-06,-0.104
-1.690E-06,-0.120
-1.680E-06,-0.044
-1.670E-06,0.044
-1.660E-06,0.116
-1.650E-06,0.112
-1.640E-06,0.076
-1.630E-06,0.016
-1.620E-06,-0.020
-1.610E-06,-0.020
-1.600E-06,0.012
-1.590E-06,0.068
-1.580E-06,0.128
-1.570E-06,0.172
-1.560E-06,0.168
-1.550E-06,0.144
-1.540E-06,0.096
-1.530E-06,0.060
-1.520E-06,0.012
-1.510E-06,0.000
-1.500E-06,-0.044
-1.490E-06,-0.060
-1.480E-06,-0.084
-1.470E-06,-0.096
-1.460E-06,-0.028
-1.450E-06,0.020
-1.440E-06,0.096
-1.430E-06,0.140
-1.420E-06,0.064
-1.410E-06,-0.016
-1.400E-06,-0.132
-1.390E-06,-0.196
-1.380E-06,-0.192
-1.370E-06,-0.028
-1.360E-06,0.132
-1.350E-06,0.164
-1.340E-06,0.084
-1.330E-06,-0.044
-1.320E-06,-0.124
-1.310E-06,-0.136
-1.300E-06,-0.056
-1.290E-06,0.028
-1.280E-06,0.140
-1.270E-06,0.164
-1.260E-06,0.116
-1.250E-06,0.032
-1.240E-06,-0.032
-1.230E-06,-0.024
-1.220E-06,0.020
-1.210E-06,0.092
-1.200E-06,0.160
-1.190E-06,0.196
-1.180E-06,0.192
-1.170E-06,0.188
-1.160E-06,0.160
-1.150E-06,0.152
-1.140E-06,0.140
-1.130E-06,0.136
-1.120E-06,0.072
-1.110E-06,-0.144
-1.100E-06,-0.336
-1.090E-06,-0.512
-1.080E-06,-0.484
-1.070E-06,-0.300
-1.060E-06,-0.008
-1.050E-06,0.228
-1.040E-06,0.324
-1.030E-06,0.164
-1.020E-06,-0.132
-1.010E-06,-0.288
-1.000E-06,-0.300
-9.900E-07,-0.076
-9.800E-07,0.136
-9.700E-07,0.316
-9.600E-07,0.292
-9.500E-07,0.184
-9.400E-07,0.004
-9.300E-07,-0.140
-9.200E-07,-0.100
-9.100E-07,0.060
-9.000E-07,0.260
-8.900E-07,0.368
-8.800E-07,0.316
-8.700E-07,0.044
-8.600E-07,-0.288
-8.500E-07,-0.512
-8.400E-07,-0.508
-8.300E-07,-0.352
-8.200E-07,0.048
-8.100E-07,0.352
-8.000E-07,0.392
-7.900E-07,0.192
-7.800E-07,-0.160
-7.700E-07,-0.388
-7.600E-07,-0.440
-7.500E-07,-0.224
-7.400E-07,0.072
-7.300E-07,0.312
-7.200E-07,0.356
-7.100E-07,0.224
-7.000E-07,-0.024
-6.900E-07,-0.264
-6.800E-07,-0.320
-6.700E-07,-0.208
-6.600E-07,0.024
-6.500E-07,0.260
-6.400E-07,0.380
-6.300E-07,0.264
-6.200E-07,0.016
-6.100E-07,-0.180
-6.000E-07,-0.200
-5.900E-07,-0.060
-5.800E-07,0.148
-5.700E-07,0.364
-5.600E-07,0.360
-5.500E-07,0.240
-5.400E-07,0.020
-5.300E-07,-0.172
-5.200E-07,-0.264
-5.100E-07,-0.184
-5.000E-07,-0.004
-4.900E-07,0.164
-4.800E-07,0.216
-4.700E-07,0.132
-4.600E-07,0.024
-4.500E-07,-0.072
-4.400E-07,-0.140
-4.300E-07,-0.152
-4.200E-07,-0.036
-4.100E-07,0.092
-4.000E-07,0.228
-3.900E-07,0.272
-3.800E-07,0.240
-3.700E-07,0.156
-3.600E-07,0.092
-3.500E-07,0.092
-3.400E-07,0.128
-3.300E-07,0.196
-3.200E-07,0.284
-3.100E-07,0.340
-3.000E-07,0.312
-2.900E-07,0.248
-2.800E-07,0.172
-2.700E-07,0.152
-2.600E-07,0.160
-2.500E-07,0.204
-2.400E-07,0.280
-2.300E-07,0.332
-2.200E-07,0.340
-2.100E-07,0.288
-2.000E-07,0.188
-1.900E-07,0.072
-1.800E-07,-0.016
-1.700E-07,-0.072
-1.600E-07,-0.044
-1.500E-07,0.072
-1.400E-07,0.236
-1.300E-07,0.372
-1.200E-07,0.324
-1.100E-07,0.180
-1.000E-07,-0.104
-9.000E-08,-0.236
-8.000E-08,-0.416
-7.000E-08,-0.372
-6.000E-08,-0.468
-5.000E-08,-0.500
-4.000E-08,-0.468
-3.000E-08,-0.260
-2.000E-08,0.136
-1.000E-08,0.296
0.000E+00,0.416
1.000E-08,0.336
2.000E-08,0.184
3.000E-08,-0.308
4.000E-08,-0.512
5.000E-08,-0.512
6.000E-08,-0.508
7.000E-08,-0.512
8.000E-08,-0.140
9.000E-08,0.108
1.000E-07,0.116
1.100E-07,0.052
1.200E-07,-0.184
1.300E-07,-0.216
1.400E-07,-0.216
1.500E-07,0.024
1.600E-07,0.220
1.700E-07,0.384
1.800E-07,0.328
1.900E-07,0.124
2.000E-07,-0.068
2.100E-07,-0.204
2.200E-07,-0.132
2.300E-07,-0.028
2.400E-07,0.152
2.500E-07,0.236
2.600E-07,0.304
2.700E-07,0.216
2.800E-07,0.120
2.900E-07,-0.024
3.000E-07,-0.060
3.100E-07,0.016
3.200E-07,0.180
3.300E-07,0.352
3.400E-07,0.360
3.500E-07,0.272
3.600E-07,0.140
3.700E-07,0.128
3.800E-07,0.112
3.900E-07,0.172
4.000E-07,0.228
4.100E-07,0.300
4.200E-07,0.352
4.300E-07,0.356
4.400E-07,0.300
4.500E-07,0.216
4.600E-07,0.196
4.700E-07,0.188
4.800E-07,0.260
4.900E-07,0.312
5.000E-07,0.348
5.100E-07,0.336
5.200E-07,0.296
5.300E-07,0.244
5.400E-07,0.204
5.500E-07,0.212
5.600E-07,0.248
5.700E-07,0.308
5.800E-07,0.340
5.900E-07,0.340
6.000E-07,0.300
6.100E-07,0.264
6.200E-07,0.224
6.300E-07,0.224
6.400E-07,0.240
6.500E-07,0.264
6.600E-07,0.268
6.700E-07,0.244
6.800E-07,0.192
6.900E-07,0.096
7.000E-07,0.020
7.100E-07,-0.004
7.200E-07,0.016
7.300E-07,0.060
7.400E-07,0.092
7.500E-07,0.108
7.600E-07,0.044
7.700E-07,-0.024
7.800E-07,-0.052
7.900E-07,-0.024
8.000E-07,0.064
8.100E-07,0.188
8.200E-07,0.292
8.300E-07,0.336
8.400E-07,0.328
8.500E-07,0.276
8.600E-07,0.204
8.700E-07,0.140
8.800E-07,0.132
8.900E-07,0.180
9.000E-07,0.260
9.100E-07,0.308
9.200E-07,0.312
9.300E-07,0.276
9.400E-07,0.216
9.500E-07,0.160
9.600E-07,0.156
9.700E-07,0.196
9.800E-07,0.240
9.900E-07,0.300
1.000E-06,0.320
1.010E-06,0.304
1.020E-06,0.256
1.030E-06,0.220
1.040E-06,0.204
1.050E-06,0.220
1.060E-06,0.256
1.070E-06,0.288
1.080E-06,0.308
1.090E-06,0.292
1.100E-06,0.260
1.110E-06,0.228
1.120E-06,0.208
1.130E-06,0.208
1.140E-06,0.228
1.150E-06,0.244
1.160E-06,0.260
1.170E-06,0.264
1.180E-06,0.256
1.190E-06,0.252
1.200E-06,0.244
1.210E-06,0.244
1.220E-06,0.256
1.230E-06,0.264
1.240E-06,0.272
1.250E-06,0.272
1.260E-06,0.260
1.270E-06,0.248
1.280E-06,0.240
1.290E-06,0.240
1.300E-06,0.244
1.310E-06,0.240
1.320E-06,0.244
1.330E-06,0.252
1.340E-06,0.252
1.350E-06,0.252
1.360E-06,0.240
1.370E-06,0.236
1.380E-06,0.244
1.390E-06,0.248
1.400E-06,0.248
1.410E-06,0.256
1.420E-06,0.256
1.430E-06,0.256
1.440E-06,0.252
1.450E-06,0.252
1.460E-06,0.252
1.470E-06,0.252
1.480E-06,0.248
1.490E-06,0.252
1.500E-06,0.252
1.510E-06,0.256
1.520E-06,0.260
1.530E-06,0.248
1.540E-06,0.248
1.550E-06,0.248
1.560E-06,0.252
1.570E-06,0.256
1.580E-06,0.248
1.590E-06,0.244
1.600E-06,0.252
1.610E-06,0.252
1.620E-06,0.252
1.630E-06,0.256
1.640E-06,0.252
1.650E-06,0.244
1.660E-06,0.240
1.670E-06,0.240
1.680E-06,0.248
1.690E-06,0.252
1.700E-06,0.244
1.710E-06,0.240
1.720E-06,0.240
1.730E-06,0.236
1.740E-06,0.236
1.750E-06,0.240
1.760E-06,0.240
1.770E-06,0.240
1.780E-06,0.236
1.790E-06,0.236
1.800E-06,0.236
1.810E-06,0.232
1.820E-06,0.228
1.830E-06,0.232
1.840E-06,0.232
1.850E-06,0.236
1.860E-06,0.232
1.870E-06,0.232
1.880E-06,0.228
1.890E-06,0.232
1.900E-06,0.232
1.910E-06,0.232
1.920E-06,0.228
1.930E-06,0.228
1.940E-06,0.224
1.950E-06,0.224
1.960E-06,0.228
1.970E-06,0.224
1.980E-06,0.224
1.990E-06,0.236
2.000E-06,0.228
2.010E-06,0.224
2.020E-06,0.224
2.030E-06,0.228
2.040E-06,0.244
2.050E-06,0.256
2.060E-06,0.256
2.070E-06,0.252
2.080E-06,0.232
2.090E-06,0.216
2.100E-06,0.208
2.110E-06,0.208
2.120E-06,0.224
2.130E-06,0.228
2.140E-06,0.236
2.150E-06,0.232
2.160E-06,0.224
2.170E-06,0.212
2.180E-06,0.196
2.190E-06,0.192
2.200E-06,0.192
2.210E-06,0.200
2.220E-06,0.212
2.230E-06,0.232
2.240E-06,0.240
2.250E-06,0.232
2.260E-06,0.216
2.270E-06,0.196
2.280E-06,0.192
2.290E-06,0.196
2.300E-06,0.208
2.310E-06,0.220
2.320E-06,0.228
2.330E-06,0.232
2.340E-06,0.224
2.350E-06,0.204
2.360E-06,0.192
2.370E-06,0.188
2.380E-06,0.196
2.390E-06,0.220
2.400E-06,0.240
2.410E-06,0.244
2.420E-06,0.232
2.430E-06,0.208
2.440E-06,0.192
2.450E-06,0.176
2.460E-06,0.172
2.470E-06,0.192
2.480E-06,0.216
2.490E-06,0.224
2.500E-06,0.232
2.510E-06,0.220
2.520E-06,0.196
2.530E-06,0.176
2.540E-06,0.168
2.550E-06,0.172
2.560E-06,0.192
2.570E-06,0.216
2.580E-06,0.228
2.590E-06,0.228
2.600E-06,0.200
2.610E-06,0.176
2.620E-06,0.164
2.630E-06,0.172
2.640E-06,0.192
2.650E-06,0.208
2.660E-06,0.208
2.670E-06,0.208
2.680E-06,0.200
2.690E-06,0.180
2.700E-06,0.156
2.710E-06,0.160
2.720E-06,0.168
2.730E-06,0.192
2.740E-06,0.208
2.750E-06,0.216
2.760E-06,0.204
2.770E-06,0.188
2.780E-06,0.176
2.790E-06,0.164
2.800E-06,0.168
2.810E-06,0.172
2.820E-06,0.192
2.830E-06,0.204
2.840E-06,0.208
2.850E-06,0.196
2.860E-06,0.180
2.870E-06,0.168
2.880E-06,0.156
2.890E-06,0.164
2.900E-06,0.184
2.910E-06,0.200
2.920E-06,0.204
2.930E-06,0.200
2.940E-06,0.188
2.950E-06,0.164
2.960E-06,0.152
2.970E-06,0.156
2.980E-06,0.176
2.990E-06,0.192
3.000E-06,0.200
3.010E-06,0.196
3.020E-06,0.188
3.030E-06,0.176
3.040E-06,0.160
3.050E-06,0.152
3.060E-06,0.164
3.070E-06,0.188
3.080E-06,0.200
3.090E-06,0.204
3.100E-06,0.196
3.110E-06,0.184
3.120E-06,0.160
3.130E-06,0.144
3.140E-06,0.140
3.150E-06,0.160
3.160E-06,0.172
3.170E-06,0.176
3.180E-06,0.184
3.190E-06,0.172
3.200E-06,0.164
3.210E-06,0.160
3.220E-06,0.164
3.230E-06,0.160
3.240E-06,0.168
3.250E-06,0.172
3.260E-06,0.160
3.270E-06,0.164
3.280E-06,0.164
3.290E-06,0.164
3.300E-06,0.164
3.310E-06,0.164
