mediciones/5-15 mala escala/27.77/WaveData46106.csv

#timebase=2000000(ps)
,#voltbase=100000(mv/100)
#size=4000
-8.400E-06,0.004
-8.390E-06,-0.004
-8.380E-06,0.004
-8.370E-06,0.008
-8.360E-06,0.008
-8.350E-06,-0.004
-8.340E-06,0.004
-8.330E-06,0.004
-8.320E-06,0.004
-8.310E-06,0.004
-8.300E-06,0.000
-8.290E-06,0.004
-8.280E-06,0.000
-8.270E-06,0.004
-8.260E-06,-0.004
-8.250E-06,0.004
-8.240E-06,0.004
-8.230E-06,0.004
-8.220E-06,0.004
-8.210E-06,0.004
-8.200E-06,0.004
-8.190E-06,0.000
-8.180E-06,0.004
-8.170E-06,0.000
-8.160E-06,0.004
-8.150E-06,0.004
-8.140E-06,0.004
-8.130E-06,0.004
-8.120E-06,0.004
-8.110E-06,-0.004
-8.100E-06,0.000
-8.090E-06,0.004
-8.080E-06,0.008
-8.070E-06,0.008
-8.060E-06,0.008
-8.050E-06,0.004
-8.040E-06,0.000
-8.030E-06,0.000
-8.020E-06,0.004
-8.010E-06,-0.004
-8.000E-06,0.000
-7.990E-06,0.004
-7.980E-06,0.000
-7.970E-06,0.004
-7.960E-06,0.004
-7.950E-06,0.004
-7.940E-06,0.004
-7.930E-06,0.000
-7.920E-06,0.004
-7.910E-06,0.000
-7.900E-06,0.004
-7.890E-06,0.000
-7.880E-06,0.004
-7.870E-06,0.008
-7.860E-06,0.004
-7.850E-06,0.008
-7.840E-06,-0.004
-7.830E-06,0.000
-7.820E-06,0.004
-7.810E-06,0.004
-7.800E-06,0.004
-7.790E-06,0.004
-7.780E-06,0.000
-7.770E-06,0.000
-7.760E-06,0.000
-7.750E-06,0.004
-7.740E-06,0.004
-7.730E-06,0.004
-7.720E-06,-0.004
-7.710E-06,0.004
-7.700E-06,0.004
-7.690E-06,0.004
-7.680E-06,0.004
-7.670E-06,0.000
-7.660E-06,-0.004
-7.650E-06,0.000
-7.640E-06,0.000
-7.630E-06,-0.004
-7.620E-06,0.004
-7.610E-06,0.000
-7.600E-06,0.004
-7.590E-06,0.004
-7.580E-06,0.004
-7.570E-06,0.000
-7.560E-06,0.000
-7.550E-06,0.004
-7.540E-06,0.000
-7.530E-06,0.004
-7.520E-06,0.000
-7.510E-06,0.000
-7.500E-06,0.000
-7.490E-06,0.004
-7.480E-06,0.000
-7.470E-06,0.000
-7.460E-06,0.004
-7.450E-06,0.004
-7.440E-06,0.004
-7.430E-06,0.000
-7.420E-06,0.004
-7.410E-06,0.004
-7.400E-06,0.004
-7.390E-06,0.008
-7.380E-06,0.008
-7.370E-06,0.000
-7.360E-06,0.004
-7.350E-06,0.004
-7.340E-06,0.004
-7.330E-06,0.004
-7.320E-06,0.000
-7.310E-06,0.004
-7.300E-06,0.004
-7.290E-06,0.004
-7.280E-06,0.004
-7.270E-06,0.008
-7.260E-06,0.000
-7.250E-06,0.000
-7.240E-06,0.004
-7.230E-06,0.000
-7.220E-06,0.000
-7.210E-06,0.004
-7.200E-06,0.004
-7.190E-06,0.004
-7.180E-06,0.004
-7.170E-06,0.004
-7.160E-06,0.004
-7.150E-06,0.000
-7.140E-06,0.004
-7.130E-06,0.000
-7.120E-06,0.000
-7.110E-06,0.004
-7.100E-06,0.004
-7.090E-06,0.004
-7.080E-06,0.000
-7.070E-06,0.000
-7.060E-06,0.004
-7.050E-06,0.004
-7.040E-06,0.004
-7.030E-06,0.004
-7.020E-06,0.004
-7.010E-06,0.008
-7.000E-06,0.000
-6.990E-06,0.004
-6.980E-06,0.004
-6.970E-06,0.004
-6.960E-06,0.000
-6.950E-06,0.000
-6.940E-06,0.004
-6.930E-06,0.004
-6.920E-06,0.000
-6.910E-06,0.000
-6.900E-06,0.004
-6.890E-06,-0.004
-6.880E-06,0.000
-6.870E-06,0.000
-6.860E-06,0.004
-6.850E-06,0.008
-6.840E-06,0.000
-6.830E-06,0.000
-6.820E-06,0.004
-6.810E-06,0.000
-6.800E-06,0.004
-6.790E-06,0.004
-6.780E-06,0.004
-6.770E-06,0.000
-6.760E-06,0.004
-6.750E-06,0.000
-6.740E-06,0.004
-6.730E-06,0.004
-6.720E-06,0.004
-6.710E-06,0.004
-6.700E-06,0.004
-6.690E-06,0.004
-6.680E-06,0.004
-6.670E-06,0.000
-6.660E-06,0.000
-6.650E-06,0.004
-6.640E-06,0.004
-6.630E-06,0.008
-6.620E-06,0.000
-6.610E-06,0.004
-6.600E-06,0.000
-6.590E-06,0.004
-6.580E-06,-0.004
-6.570E-06,0.004
-6.560E-06,0.008
-6.550E-06,0.000
-6.540E-06,0.004
-6.530E-06,0.004
-6.520E-06,0.000
-6.510E-06,0.004
-6.500E-06,0.004
-6.490E-06,0.004
-6.480E-06,0.004
-6.470E-06,0.004
-6.460E-06,0.004
-6.450E-06,0.004
-6.440E-06,0.000
-6.430E-06,-0.004
-6.420E-06,0.004
-6.410E-06,0.004
-6.400E-06,0.004
-6.390E-06,0.004
-6.380E-06,0.008
-6.370E-06,-0.004
-6.360E-06,0.004
-6.350E-06,0.004
-6.340E-06,0.000
-6.330E-06,-0.004
-6.320E-06,0.000
-6.310E-06,0.004
-6.300E-06,0.000
-6.290E-06,0.000
-6.280E-06,0.000
-6.270E-06,0.000
-6.260E-06,0.004
-6.250E-06,0.000
-6.240E-06,0.000
-6.230E-06,0.004
-6.220E-06,0.004
-6.210E-06,0.008
-6.200E-06,0.004
-6.190E-06,0.004
-6.180E-06,-0.004
-6.170E-06,-0.004
-6.160E-06,0.000
-6.150E-06,0.004
-6.140E-06,0.004
-6.130E-06,0.004
-6.120E-06,0.000
-6.110E-06,-0.004
-6.100E-06,0.000
-6.090E-06,0.000
-6.080E-06,0.004
-6.070E-06,0.000
-6.060E-06,0.000
-6.050E-06,0.004
-6.040E-06,0.004
-6.030E-06,0.004
-6.020E-06,0.004
-6.010E-06,-0.004
-6.000E-06,0.000
-5.990E-06,0.004
-5.980E-06,0.008
-5.970E-06,0.008
-5.960E-06,0.004
-5.950E-06,-0.004
-5.940E-06,0.000
-5.930E-06,0.004
-5.920E-06,-0.004
-5.910E-06,0.000
-5.900E-06,-0.004
-5.890E-06,0.000
-5.880E-06,0.004
-5.870E-06,0.000
-5.860E-06,0.004
-5.850E-06,0.000
-5.840E-06,0.000
-5.830E-06,-0.004
-5.820E-06,0.000
-5.810E-06,0.004
-5.800E-06,0.004
-5.790E-06,0.008
-5.780E-06,-0.004
-5.770E-06,-0.004
-5.760E-06,0.004
-5.750E-06,0.000
-5.740E-06,0.004
-5.730E-06,0.004
-5.720E-06,0.004
-5.710E-06,0.004
-5.700E-06,-0.004
-5.690E-06,0.004
-5.680E-06,0.004
-5.670E-06,0.004
-5.660E-06,0.000
-5.650E-06,0.008
-5.640E-06,-0.004
-5.630E-06,-0.004
-5.620E-06,0.004
-5.610E-06,0.000
-5.600E-06,0.004
-5.590E-06,0.008
-5.580E-06,0.008
-5.570E-06,0.004
-5.560E-06,0.004
-5.550E-06,0.004
-5.540E-06,-0.004
-5.530E-06,-0.004
-5.520E-06,0.004
-5.510E-06,0.000
-5.500E-06,0.004
-5.490E-06,0.000
-5.480E-06,0.000
-5.470E-06,0.000
-5.460E-06,0.004
-5.450E-06,0.000
-5.440E-06,0.004
-5.430E-06,0.000
-5.420E-06,0.000
-5.410E-06,0.004
-5.400E-06,0.000
-5.390E-06,0.004
-5.380E-06,0.004
-5.370E-06,0.000
-5.360E-06,0.000
-5.350E-06,0.004
-5.340E-06,-0.004
-5.330E-06,0.004
-5.320E-06,0.000
-5.310E-06,0.004
-5.300E-06,0.008
-5.290E-06,0.008
-5.280E-06,-0.004
-5.270E-06,0.000
-5.260E-06,0.004
-5.250E-06,0.000
-5.240E-06,0.004
-5.230E-06,-0.004
-5.220E-06,0.000
-5.210E-06,0.004
-5.200E-06,0.000
-5.190E-06,0.004
-5.180E-06,0.000
-5.170E-06,0.000
-5.160E-06,0.004
-5.150E-06,0.004
-5.140E-06,0.004
-5.130E-06,0.004
-5.120E-06,0.008
-5.110E-06,0.000
-5.100E-06,0.000
-5.090E-06,0.004
-5.080E-06,0.004
-5.070E-06,0.000
-5.060E-06,0.004
-5.050E-06,0.004
-5.040E-06,0.000
-5.030E-06,0.000
-5.020E-06,0.008
-5.010E-06,0.000
-5.000E-06,0.004
-4.990E-06,0.008
-4.980E-06,0.004
-4.970E-06,0.000
-4.960E-06,0.000
-4.950E-06,0.004
-4.940E-06,0.004
-4.930E-06,0.004
-4.920E-06,0.004
-4.910E-06,0.008
-4.900E-06,-0.004
-4.890E-06,0.004
-4.880E-06,0.000
-4.870E-06,0.000
-4.860E-06,0.004
-4.850E-06,0.004
-4.840E-06,0.004
-4.830E-06,0.004
-4.820E-06,0.000
-4.810E-06,0.000
-4.800E-06,0.008
-4.790E-06,0.000
-4.780E-06,0.004
-4.770E-06,-0.004
-4.760E-06,0.004
-4.750E-06,0.000
-4.740E-06,0.000
-4.730E-06,0.004
-4.720E-06,0.004
-4.710E-06,0.000
-4.700E-06,0.000
-4.690E-06,0.000
-4.680E-06,0.004
-4.670E-06,0.004
-4.660E-06,0.008
-4.650E-06,0.000
-4.640E-06,0.000
-4.630E-06,0.004
-4.620E-06,0.000
-4.610E-06,0.004
-4.600E-06,0.000
-4.590E-06,0.004
-4.580E-06,0.004
-4.570E-06,0.004
-4.560E-06,0.004
-4.550E-06,0.004
-4.540E-06,0.000
-4.530E-06,0.004
-4.520E-06,0.004
-4.510E-06,0.012
-4.500E-06,0.000
-4.490E-06,0.004
-4.480E-06,0.000
-4.470E-06,0.004
-4.460E-06,0.008
-4.450E-06,0.008
-4.440E-06,0.012
-4.430E-06,0.008
-4.420E-06,0.004
-4.410E-06,0.008
-4.400E-06,0.000
-4.390E-06,0.008
-4.380E-06,0.008
-4.370E-06,0.004
-4.360E-06,0.000
-4.350E-06,-0.004
-4.340E-06,0.004
-4.330E-06,0.008
-4.320E-06,0.000
-4.310E-06,0.008
-4.300E-06,0.004
-4.290E-06,0.004
-4.280E-06,0.004
-4.270E-06,0.000
-4.260E-06,0.004
-4.250E-06,0.004
-4.240E-06,0.004
-4.230E-06,0.004
-4.220E-06,0.004
-4.210E-06,0.004
-4.200E-06,0.008
-4.190E-06,0.004
-4.180E-06,0.000
-4.170E-06,0.004
-4.160E-06,0.004
-4.150E-06,0.008
-4.140E-06,0.008
-4.130E-06,0.008
-4.120E-06,0.004
-4.110E-06,0.000
-4.100E-06,0.000
-4.090E-06,0.008
-4.080E-06,0.012
-4.070E-06,0.008
-4.060E-06,0.004
-4.050E-06,0.008
-4.040E-06,0.008
-4.030E-06,0.004
-4.020E-06,0.004
-4.010E-06,0.000
-4.000E-06,0.004
-3.990E-06,0.004
-3.980E-06,0.008
-3.970E-06,0.004
-3.960E-06,0.004
-3.950E-06,0.000
-3.940E-06,0.004
-3.930E-06,0.000
-3.920E-06,0.004
-3.910E-06,0.012
-3.900E-06,0.008
-3.890E-06,0.000
-3.880E-06,0.000
-3.870E-06,0.000
-3.860E-06,0.000
-3.850E-06,0.008
-3.840E-06,0.004
-3.830E-06,0.008
-3.820E-06,0.004
-3.810E-06,0.004
-3.800E-06,0.000
-3.790E-06,0.000
-3.780E-06,0.000
-3.770E-06,0.008
-3.760E-06,0.016
-3.750E-06,0.016
-3.740E-06,0.012
-3.730E-06,0.008
-3.720E-06,-0.004
-3.710E-06,-0.004
-3.700E-06,-0.008
-3.690E-06,-0.004
-3.680E-06,0.016
-3.670E-06,0.028
-3.660E-06,0.020
-3.650E-06,0.012
-3.640E-06,-0.012
-3.630E-06,-0.012
-3.620E-06,0.000
-3.610E-06,0.008
-3.600E-06,0.012
-3.590E-06,0.020
-3.580E-06,0.008
-3.570E-06,0.008
-3.560E-06,0.000
-3.550E-06,-0.004
-3.540E-06,-0.004
-3.530E-06,0.000
-3.520E-06,0.012
-3.510E-06,0.016
-3.500E-06,0.012
-3.490E-06,0.012
-3.480E-06,0.004
-3.470E-06,0.004
-3.460E-06,-0.004
-3.450E-06,-0.004
-3.440E-06,0.004
-3.430E-06,0.004
-3.420E-06,0.008
-3.410E-06,0.012
-3.400E-06,0.008
-3.390E-06,0.008
-3.380E-06,0.000
-3.370E-06,-0.004
-3.360E-06,0.000
-3.350E-06,0.008
-3.340E-06,0.012
-3.330E-06,0.008
-3.320E-06,0.008
-3.310E-06,0.000
-3.300E-06,0.000
-3.290E-06,0.000
-3.280E-06,0.004
-3.270E-06,0.012
-3.260E-06,0.016
-3.250E-06,0.012
-3.240E-06,0.004
-3.230E-06,0.000
-3.220E-06,-0.004
-3.210E-06,-0.004
-3.200E-06,0.008
-3.190E-06,0.016
-3.180E-06,0.016
-3.170E-06,0.012
-3.160E-06,0.004
-3.150E-06,0.000
-3.140E-06,-0.004
-3.130E-06,-0.004
-3.120E-06,0.004
-3.110E-06,0.016
-3.100E-06,0.024
-3.090E-06,0.028
-3.080E-06,0.020
-3.070E-06,0.016
-3.060E-06,0.012
-3.050E-06,-0.004
-3.040E-06,0.004
-3.030E-06,0.008
-3.020E-06,0.008
-3.010E-06,0.012
-3.000E-06,0.008
-2.990E-06,0.020
-2.980E-06,0.016
-2.970E-06,0.024
-2.960E-06,0.012
-2.950E-06,0.004
-2.940E-06,0.004
-2.930E-06,0.000
-2.920E-06,0.000
-2.910E-06,0.004
-2.900E-06,0.016
-2.890E-06,0.020
-2.880E-06,0.016
-2.870E-06,0.020
-2.860E-06,0.020
-2.850E-06,0.008
-2.840E-06,0.004
-2.830E-06,0.004
-2.820E-06,0.000
-2.810E-06,0.008
-2.800E-06,0.012
-2.790E-06,0.020
-2.780E-06,0.020
-2.770E-06,0.016
-2.760E-06,0.012
-2.750E-06,0.008
-2.740E-06,0.016
-2.730E-06,0.028
-2.720E-06,0.040
-2.710E-06,0.040
-2.700E-06,0.040
-2.690E-06,0.028
-2.680E-06,0.032
-2.670E-06,0.032
-2.660E-06,0.044
-2.650E-06,0.040
-2.640E-06,0.032
-2.630E-06,0.020
-2.620E-06,0.020
-2.610E-06,0.036
-2.600E-06,0.020
-2.590E-06,0.020
-2.580E-06,0.000
-2.570E-06,-0.040
-2.560E-06,-0.064
-2.550E-06,-0.052
-2.540E-06,-0.020
-2.530E-06,0.004
-2.520E-06,0.044
-2.510E-06,0.040
-2.500E-06,0.016
-2.490E-06,-0.008
-2.480E-06,-0.044
-2.470E-06,-0.044
-2.460E-06,-0.032
-2.450E-06,-0.004
-2.440E-06,0.008
-2.430E-06,0.012
-2.420E-06,0.004
-2.410E-06,0.008
-2.400E-06,0.012
-2.390E-06,0.020
-2.380E-06,0.016
-2.370E-06,0.012
-2.360E-06,0.008
-2.350E-06,0.000
-2.340E-06,-0.008
-2.330E-06,-0.024
-2.320E-06,-0.008
-2.310E-06,0.000
-2.300E-06,0.012
-2.290E-06,0.008
-2.280E-06,-0.008
-2.270E-06,-0.028
-2.260E-06,-0.032
-2.250E-06,-0.024
-2.240E-06,0.004
-2.230E-06,0.044
-2.220E-06,0.048
-2.210E-06,0.036
-2.200E-06,0.016
-2.190E-06,0.008
-2.180E-06,0.008
-2.170E-06,0.024
-2.160E-06,0.040
-2.150E-06,0.056
-2.140E-06,0.052
-2.130E-06,0.036
-2.120E-06,0.020
-2.110E-06,0.000
-2.100E-06,0.000
-2.090E-06,0.008
-2.080E-06,0.040
-2.070E-06,0.072
-2.060E-06,0.096
-2.050E-06,0.092
-2.040E-06,0.068
-2.030E-06,0.060
-2.020E-06,0.056
-2.010E-06,0.068
-2.000E-06,0.088
-1.990E-06,0.096
-1.980E-06,0.084
-1.970E-06,0.052
-1.960E-06,0.024
-1.950E-06,0.012
-1.940E-06,0.028
-1.930E-06,0.032
-1.920E-06,0.052
-1.910E-06,0.052
-1.900E-06,0.036
-1.890E-06,0.028
-1.880E-06,0.020
-1.870E-06,0.036
-1.860E-06,0.076
-1.850E-06,0.128
-1.840E-06,0.156
-1.830E-06,0.120
-1.820E-06,0.080
-1.810E-06,-0.004
-1.800E-06,-0.056
-1.790E-06,-0.104
-1.780E-06,-0.120
-1.770E-06,-0.136
-1.760E-06,-0.136
-1.750E-06,-0.156
-1.740E-06,-0.184
-1.730E-06,-0.152
-1.720E-06,-0.104
-1.710E-06,-0.032
-1.700E-06,-0.024
-1.690E-06,-0.008
-1.680E-06,-0.024
-1.670E-06,-0.048
-1.660E-06,-0.092
-1.650E-06,-0.096
-1.640E-06,-0.040
-1.630E-06,-0.020
-1.620E-06,0.012
-1.610E-06,0.012
-1.600E-06,0.016
-1.590E-06,0.004
-1.580E-06,0.016
-1.570E-06,0.012
-1.560E-06,0.008
-1.550E-06,0.044
-1.540E-06,0.040
-1.530E-06,0.036
-1.520E-06,0.008
-1.510E-06,0.008
-1.500E-06,0.020
-1.490E-06,0.028
-1.480E-06,0.028
-1.470E-06,0.040
-1.460E-06,0.072
-1.450E-06,0.108
-1.440E-06,0.156
-1.430E-06,0.180
-1.420E-06,0.196
-1.410E-06,0.156
-1.400E-06,0.072
-1.390E-06,0.012
-1.380E-06,-0.004
-1.370E-06,-0.016
-1.360E-06,-0.024
-1.350E-06,-0.028
-1.340E-06,-0.068
-1.330E-06,-0.072
-1.320E-06,-0.020
-1.310E-06,0.060
-1.300E-06,0.140
-1.290E-06,0.124
-1.280E-06,0.092
-1.270E-06,0.024
-1.260E-06,-0.052
-1.250E-06,-0.096
-1.240E-06,-0.024
-1.230E-06,0.040
-1.220E-06,0.088
-1.210E-06,0.088
-1.200E-06,0.068
-1.190E-06,-0.036
-1.180E-06,-0.084
-1.170E-06,-0.104
-1.160E-06,-0.084
-1.150E-06,-0.016
-1.140E-06,0.040
-1.130E-06,0.088
-1.120E-06,0.040
-1.110E-06,-0.016
-1.100E-06,-0.112
-1.090E-06,-0.128
-1.080E-06,-0.084
-1.070E-06,-0.004
-1.060E-06,0.104
-1.050E-06,0.192
-1.040E-06,0.208
-1.030E-06,0.108
-1.020E-06,0.004
-1.010E-06,-0.052
-1.000E-06,0.004
-9.900E-07,0.088
-9.800E-07,0.224
-9.700E-07,0.328
-9.600E-07,0.336
-9.500E-07,0.216
-9.400E-07,0.080
-9.300E-07,0.004
-9.200E-07,0.028
-9.100E-07,0.144
-9.000E-07,0.240
-8.900E-07,0.280
-8.800E-07,0.244
-8.700E-07,0.156
-8.600E-07,0.064
-8.500E-07,0.012
-8.400E-07,0.008
-8.300E-07,0.064
-8.200E-07,0.148
-8.100E-07,0.204
-8.000E-07,0.220
-7.900E-07,0.164
-7.800E-07,0.096
-7.700E-07,0.040
-7.600E-07,0.052
-7.500E-07,0.096
-7.400E-07,0.148
-7.300E-07,0.196
-7.200E-07,0.200
-7.100E-07,0.188
-7.000E-07,0.128
-6.900E-07,0.064
-6.800E-07,0.060
-6.700E-07,0.096
-6.600E-07,0.152
-6.500E-07,0.208
-6.400E-07,0.240
-6.300E-07,0.220
-6.200E-07,0.184
-6.100E-07,0.144
-6.000E-07,0.132
-5.900E-07,0.160
-5.800E-07,0.196
-5.700E-07,0.232
-5.600E-07,0.256
-5.500E-07,0.248
-5.400E-07,0.216
-5.300E-07,0.188
-5.200E-07,0.168
-5.100E-07,0.184
-5.000E-07,0.216
-4.900E-07,0.252
-4.800E-07,0.272
-4.700E-07,0.256
-4.600E-07,0.240
-4.500E-07,0.196
-4.400E-07,0.176
-4.300E-07,0.176
-4.200E-07,0.212
-4.100E-07,0.240
-4.000E-07,0.268
-3.900E-07,0.256
-3.800E-07,0.208
-3.700E-07,0.156
-3.600E-07,0.136
-3.500E-07,0.176
-3.400E-07,0.224
-3.300E-07,0.296
-3.200E-07,0.312
-3.100E-07,0.256
-3.000E-07,0.144
-2.900E-07,0.064
-2.800E-07,0.020
-2.700E-07,0.060
-2.600E-07,0.156
-2.500E-07,0.244
-2.400E-07,0.324
-2.300E-07,0.324
-2.200E-07,0.256
-2.100E-07,0.136
-2.000E-07,0.044
-1.900E-07,-0.012
-1.800E-07,-0.008
-1.700E-07,0.040
-1.600E-07,0.136
-1.500E-07,0.180
-1.400E-07,0.124
-1.300E-07,0.008
-1.200E-07,-0.048
-1.100E-07,-0.088
-1.000E-07,-0.088
-9.000E-08,-0.012
-8.000E-08,0.000
-7.000E-08,0.124
-6.000E-08,0.036
-5.000E-08,-0.036
-4.000E-08,-0.100
-3.000E-08,0.012
-2.000E-08,0.216
-1.000E-08,0.424
0.000E+00,0.512
1.000E-08,0.440
2.000E-08,0.284
3.000E-08,0.044
4.000E-08,-0.088
5.000E-08,-0.096
6.000E-08,0.064
7.000E-08,0.248
8.000E-08,0.400
9.000E-08,0.392
1.000E-07,0.284
1.100E-07,0.128
1.200E-07,0.048
1.300E-07,0.080
1.400E-07,0.172
1.500E-07,0.312
1.600E-07,0.360
1.700E-07,0.352
1.800E-07,0.252
1.900E-07,0.160
2.000E-07,0.076
2.100E-07,0.060
2.200E-07,0.104
2.300E-07,0.196
2.400E-07,0.284
2.500E-07,0.324
2.600E-07,0.320
2.700E-07,0.260
2.800E-07,0.192
2.900E-07,0.144
3.000E-07,0.160
3.100E-07,0.208
3.200E-07,0.284
3.300E-07,0.316
3.400E-07,0.308
3.500E-07,0.268
3.600E-07,0.212
3.700E-07,0.188
3.800E-07,0.192
3.900E-07,0.228
4.000E-07,0.272
4.100E-07,0.292
4.200E-07,0.288
4.300E-07,0.272
4.400E-07,0.240
4.500E-07,0.216
4.600E-07,0.200
4.700E-07,0.196
4.800E-07,0.204
4.900E-07,0.228
5.000E-07,0.260
5.100E-07,0.276
5.200E-07,0.272
5.300E-07,0.248
5.400E-07,0.212
5.500E-07,0.180
5.600E-07,0.176
5.700E-07,0.204
5.800E-07,0.244
5.900E-07,0.268
6.000E-07,0.264
6.100E-07,0.240
6.200E-07,0.216
6.300E-07,0.200
6.400E-07,0.200
6.500E-07,0.224
6.600E-07,0.240
6.700E-07,0.264
6.800E-07,0.264
6.900E-07,0.256
7.000E-07,0.236
7.100E-07,0.216
7.200E-07,0.208
7.300E-07,0.224
7.400E-07,0.232
7.500E-07,0.244
7.600E-07,0.252
7.700E-07,0.244
7.800E-07,0.232
7.900E-07,0.220
8.000E-07,0.220
8.100E-07,0.224
8.200E-07,0.232
8.300E-07,0.240
8.400E-07,0.236
8.500E-07,0.228
8.600E-07,0.220
8.700E-07,0.220
8.800E-07,0.216
8.900E-07,0.228
9.000E-07,0.240
9.100E-07,0.248
9.200E-07,0.248
9.300E-07,0.236
9.400E-07,0.224
9.500E-07,0.212
9.600E-07,0.204
9.700E-07,0.208
9.800E-07,0.220
9.900E-07,0.232
1.000E-06,0.236
1.010E-06,0.228
1.020E-06,0.224
1.030E-06,0.208
1.040E-06,0.204
1.050E-06,0.216
1.060E-06,0.228
1.070E-06,0.244
1.080E-06,0.244
1.090E-06,0.240
1.100E-06,0.224
1.110E-06,0.220
1.120E-06,0.216
1.130E-06,0.224
1.140E-06,0.232
1.150E-06,0.236
1.160E-06,0.244
1.170E-06,0.244
1.180E-06,0.232
1.190E-06,0.224
1.200E-06,0.208
1.210E-06,0.208
1.220E-06,0.212
1.230E-06,0.216
1.240E-06,0.224
1.250E-06,0.224
1.260E-06,0.220
1.270E-06,0.216
1.280E-06,0.212
1.290E-06,0.204
1.300E-06,0.204
1.310E-06,0.208
1.320E-06,0.216
1.330E-06,0.220
1.340E-06,0.220
1.350E-06,0.216
1.360E-06,0.208
1.370E-06,0.208
1.380E-06,0.204
1.390E-06,0.204
1.400E-06,0.208
1.410E-06,0.208
1.420E-06,0.216
1.430E-06,0.220
1.440E-06,0.212
1.450E-06,0.200
1.460E-06,0.192
1.470E-06,0.192
1.480E-06,0.200
1.490E-06,0.204
1.500E-06,0.208
1.510E-06,0.208
1.520E-06,0.208
1.530E-06,0.204
1.540E-06,0.196
1.550E-06,0.192
1.560E-06,0.196
1.570E-06,0.200
1.580E-06,0.204
1.590E-06,0.212
1.600E-06,0.204
1.610E-06,0.200
1.620E-06,0.196
1.630E-06,0.192
1.640E-06,0.196
1.650E-06,0.192
1.660E-06,0.196
1.670E-06,0.196
1.680E-06,0.204
1.690E-06,0.200
1.700E-06,0.192
1.710E-06,0.188
1.720E-06,0.184
1.730E-06,0.188
1.740E-06,0.188
1.750E-06,0.192
1.760E-06,0.192
1.770E-06,0.192
1.780E-06,0.192
1.790E-06,0.188
1.800E-06,0.192
1.810E-06,0.192
1.820E-06,0.188
1.830E-06,0.192
1.840E-06,0.196
1.850E-06,0.192
1.860E-06,0.192
1.870E-06,0.188
1.880E-06,0.188
1.890E-06,0.188
1.900E-06,0.184
1.910E-06,0.192
1.920E-06,0.192
1.930E-06,0.192
1.940E-06,0.188
1.950E-06,0.180
1.960E-06,0.176
1.970E-06,0.176
1.980E-06,0.172
1.990E-06,0.176
2.000E-06,0.188
2.010E-06,0.192
2.020E-06,0.188
2.030E-06,0.192
2.040E-06,0.180
2.050E-06,0.176
2.060E-06,0.176
2.070E-06,0.168
2.080E-06,0.176
2.090E-06,0.184
2.100E-06,0.184
2.110E-06,0.192
2.120E-06,0.184
2.130E-06,0.184
2.140E-06,0.172
2.150E-06,0.164
2.160E-06,0.168
2.170E-06,0.172
2.180E-06,0.176
2.190E-06,0.184
2.200E-06,0.180
2.210E-06,0.172
2.220E-06,0.168
2.230E-06,0.168
2.240E-06,0.164
2.250E-06,0.168
2.260E-06,0.164
2.270E-06,0.176
2.280E-06,0.180
2.290E-06,0.172
2.300E-06,0.160
2.310E-06,0.156
2.320E-06,0.156
2.330E-06,0.156
2.340E-06,0.164
2.350E-06,0.168
2.360E-06,0.176
2.370E-06,0.168
2.380E-06,0.168
2.390E-06,0.164
2.400E-06,0.152
2.410E-06,0.152
2.420E-06,0.156
2.430E-06,0.164
2.440E-06,0.160
2.450E-06,0.164
2.460E-06,0.156
2.470E-06,0.152
2.480E-06,0.152
2.490E-06,0.148
2.500E-06,0.144
2.510E-06,0.148
2.520E-06,0.144
2.530E-06,0.148
2.540E-06,0.144
2.550E-06,0.144
2.560E-06,0.144
2.570E-06,0.144
2.580E-06,0.144
2.590E-06,0.144
2.600E-06,0.140
2.610E-06,0.144
2.620E-06,0.144
2.630E-06,0.144
2.640E-06,0.144
2.650E-06,0.144
2.660E-06,0.140
2.670E-06,0.132
2.680E-06,0.132
2.690E-06,0.136
2.700E-06,0.148
2.710E-06,0.160
2.720E-06,0.152
2.730E-06,0.144
2.740E-06,0.128
2.750E-06,0.120
2.760E-06,0.120
2.770E-06,0.128
2.780E-06,0.136
2.790E-06,0.148
2.800E-06,0.156
2.810E-06,0.156
2.820E-06,0.140
2.830E-06,0.124
2.840E-06,0.116
2.850E-06,0.120
2.860E-06,0.128
2.870E-06,0.140
2.880E-06,0.144
2.890E-06,0.144
2.900E-06,0.144
2.910E-06,0.128
2.920E-06,0.120
2.930E-06,0.116
2.940E-06,0.120
2.950E-06,0.124
2.960E-06,0.128
2.970E-06,0.136
2.980E-06,0.132
2.990E-06,0.128
3.000E-06,0.124
3.010E-06,0.124
3.020E-06,0.124
3.030E-06,0.124
3.040E-06,0.128
3.050E-06,0.132
3.060E-06,0.128
3.070E-06,0.128
3.080E-06,0.124
3.090E-06,0.124
3.100E-06,0.124
3.110E-06,0.124
3.120E-06,0.128
3.130E-06,0.128
3.140E-06,0.128
3.150E-06,0.128
3.160E-06,0.124
3.170E-06,0.128
3.180E-06,0.128
3.190E-06,0.128
3.200E-06,0.124
3.210E-06,0.124
3.220E-06,0.124
3.230E-06,0.120
3.240E-06,0.120
3.250E-06,0.120
3.260E-06,0.124
3.270E-06,0.124
3.280E-06,0.124
3.290E-06,0.116
3.300E-06,0.116
3.310E-06,0.116
3.320E-06,0.112
3.330E-06,0.112
3.340E-06,0.112
3.350E-06,0.112
3.360E-06,0.116
3.370E-06,0.112
3.380E-06,0.104
3.390E-06,0.108
3.400E-06,0.108
3.410E-06,0.108
3.420E-06,0.108
3.430E-06,0.112
3.440E-06,0.112
3.450E-06,0.108
