mediciones/5-15 mala escala/27.77/WaveData46122.csv

#timebase=2000000(ps)
,#voltbase=100000(mv/100)
#size=4000
-8.400E-06,-0.008
-8.390E-06,0.000
-8.380E-06,0.012
-8.370E-06,0.012
-8.360E-06,0.008
-8.350E-06,0.008
-8.340E-06,-0.004
-8.330E-06,-0.004
-8.320E-06,-0.004
-8.310E-06,-0.008
-8.300E-06,-0.004
-8.290E-06,0.008
-8.280E-06,0.020
-8.270E-06,0.016
-8.260E-06,0.008
-8.250E-06,0.000
-8.240E-06,-0.012
-8.230E-06,-0.008
-8.220E-06,-0.004
-8.210E-06,0.020
-8.200E-06,0.032
-8.190E-06,0.020
-8.180E-06,0.012
-8.170E-06,0.004
-8.160E-06,-0.004
-8.150E-06,-0.008
-8.140E-06,0.008
-8.130E-06,0.012
-8.120E-06,0.012
-8.110E-06,0.008
-8.100E-06,0.012
-8.090E-06,0.012
-8.080E-06,-0.004
-8.070E-06,-0.004
-8.060E-06,0.004
-8.050E-06,0.008
-8.040E-06,0.016
-8.030E-06,0.020
-8.020E-06,0.016
-8.010E-06,0.012
-8.000E-06,0.004
-7.990E-06,0.012
-7.980E-06,0.012
-7.970E-06,0.004
-7.960E-06,-0.008
-7.950E-06,-0.024
-7.940E-06,0.000
-7.930E-06,0.024
-7.920E-06,0.060
-7.910E-06,0.076
-7.900E-06,0.024
-7.890E-06,-0.032
-7.880E-06,-0.072
-7.870E-06,-0.076
-7.860E-06,-0.028
-7.850E-06,0.032
-7.840E-06,0.068
-7.830E-06,0.044
-7.820E-06,-0.008
-7.810E-06,-0.036
-7.800E-06,-0.052
-7.790E-06,-0.036
-7.780E-06,0.000
-7.770E-06,0.028
-7.760E-06,0.028
-7.750E-06,0.004
-7.740E-06,-0.004
-7.730E-06,-0.004
-7.720E-06,-0.004
-7.710E-06,-0.012
-7.700E-06,-0.020
-7.690E-06,-0.004
-7.680E-06,0.004
-7.670E-06,0.024
-7.660E-06,0.028
-7.650E-06,0.024
-7.640E-06,-0.004
-7.630E-06,-0.024
-7.620E-06,-0.032
-7.610E-06,-0.020
-7.600E-06,0.008
-7.590E-06,0.028
-7.580E-06,0.032
-7.570E-06,0.016
-7.560E-06,0.000
-7.550E-06,-0.016
-7.540E-06,-0.024
-7.530E-06,-0.008
-7.520E-06,0.016
-7.510E-06,0.020
-7.500E-06,0.020
-7.490E-06,0.012
-7.480E-06,-0.004
-7.470E-06,-0.008
-7.460E-06,-0.004
-7.450E-06,-0.004
-7.440E-06,0.012
-7.430E-06,0.012
-7.420E-06,0.008
-7.410E-06,0.008
-7.400E-06,-0.008
-7.390E-06,-0.004
-7.380E-06,-0.004
-7.370E-06,0.004
-7.360E-06,0.012
-7.350E-06,0.020
-7.340E-06,0.024
-7.330E-06,0.016
-7.320E-06,0.004
-7.310E-06,0.000
-7.300E-06,0.004
-7.290E-06,0.004
-7.280E-06,0.012
-7.270E-06,0.008
-7.260E-06,0.012
-7.250E-06,0.008
-7.240E-06,0.004
-7.230E-06,0.004
-7.220E-06,0.004
-7.210E-06,0.012
-7.200E-06,0.020
-7.190E-06,0.028
-7.180E-06,0.028
-7.170E-06,0.028
-7.160E-06,0.024
-7.150E-06,0.020
-7.140E-06,0.020
-7.130E-06,0.032
-7.120E-06,0.044
-7.110E-06,0.044
-7.100E-06,0.032
-7.090E-06,0.020
-7.080E-06,-0.008
-7.070E-06,-0.076
-7.060E-06,-0.172
-7.050E-06,-0.172
-7.040E-06,-0.152
-7.030E-06,-0.012
-7.020E-06,0.204
-7.010E-06,0.240
-7.000E-06,0.144
-6.990E-06,-0.100
-6.980E-06,-0.216
-6.970E-06,-0.236
-6.960E-06,-0.100
-6.950E-06,0.108
-6.940E-06,0.208
-6.930E-06,0.184
-6.920E-06,0.044
-6.910E-06,-0.100
-6.900E-06,-0.188
-6.890E-06,-0.124
-6.880E-06,-0.008
-6.870E-06,0.108
-6.860E-06,0.124
-6.850E-06,0.084
-6.840E-06,0.008
-6.830E-06,-0.052
-6.820E-06,-0.068
-6.810E-06,-0.040
-6.800E-06,0.004
-6.790E-06,0.020
-6.780E-06,0.044
-6.770E-06,0.024
-6.760E-06,0.012
-6.750E-06,0.004
-6.740E-06,0.008
-6.730E-06,0.008
-6.720E-06,-0.008
-6.710E-06,0.004
-6.700E-06,0.024
-6.690E-06,0.044
-6.680E-06,0.044
-6.670E-06,0.024
-6.660E-06,-0.024
-6.650E-06,-0.032
-6.640E-06,-0.008
-6.630E-06,0.004
-6.620E-06,0.028
-6.610E-06,0.008
-6.600E-06,-0.004
-6.590E-06,-0.016
-6.580E-06,0.008
-6.570E-06,0.016
-6.560E-06,0.000
-6.550E-06,0.008
-6.540E-06,0.016
-6.530E-06,0.004
-6.520E-06,0.000
-6.510E-06,-0.004
-6.500E-06,-0.012
-6.490E-06,-0.012
-6.480E-06,0.000
-6.470E-06,0.012
-6.460E-06,0.028
-6.450E-06,0.028
-6.440E-06,0.020
-6.430E-06,-0.008
-6.420E-06,-0.016
-6.410E-06,-0.024
-6.400E-06,-0.008
-6.390E-06,0.024
-6.380E-06,0.040
-6.370E-06,0.032
-6.360E-06,0.004
-6.350E-06,-0.012
-6.340E-06,-0.032
-6.330E-06,-0.028
-6.320E-06,0.000
-6.310E-06,0.016
-6.300E-06,0.032
-6.290E-06,0.028
-6.280E-06,0.016
-6.270E-06,-0.004
-6.260E-06,-0.024
-6.250E-06,-0.024
-6.240E-06,-0.016
-6.230E-06,0.008
-6.220E-06,0.028
-6.210E-06,0.028
-6.200E-06,0.028
-6.190E-06,0.016
-6.180E-06,-0.004
-6.170E-06,-0.032
-6.160E-06,-0.036
-6.150E-06,-0.016
-6.140E-06,0.020
-6.130E-06,0.036
-6.120E-06,0.040
-6.110E-06,0.028
-6.100E-06,0.004
-6.090E-06,-0.020
-6.080E-06,-0.036
-6.070E-06,-0.024
-6.060E-06,0.008
-6.050E-06,0.028
-6.040E-06,0.044
-6.030E-06,0.036
-6.020E-06,0.008
-6.010E-06,-0.012
-6.000E-06,-0.020
-5.990E-06,-0.016
-5.980E-06,0.012
-5.970E-06,0.020
-5.960E-06,0.036
-5.950E-06,0.032
-5.940E-06,0.024
-5.930E-06,0.008
-5.920E-06,0.000
-5.910E-06,-0.004
-5.900E-06,-0.004
-5.890E-06,0.004
-5.880E-06,0.008
-5.870E-06,0.020
-5.860E-06,0.032
-5.850E-06,0.032
-5.840E-06,0.004
-5.830E-06,-0.008
-5.820E-06,-0.016
-5.810E-06,0.000
-5.800E-06,0.032
-5.790E-06,0.056
-5.780E-06,0.056
-5.770E-06,0.056
-5.760E-06,0.036
-5.750E-06,0.028
-5.740E-06,0.016
-5.730E-06,-0.012
-5.720E-06,-0.072
-5.710E-06,-0.108
-5.700E-06,-0.108
-5.690E-06,-0.096
-5.680E-06,-0.008
-5.670E-06,0.088
-5.660E-06,0.144
-5.650E-06,0.080
-5.640E-06,0.000
-5.630E-06,-0.108
-5.620E-06,-0.160
-5.610E-06,-0.096
-5.600E-06,0.016
-5.590E-06,0.128
-5.580E-06,0.140
-5.570E-06,0.064
-5.560E-06,-0.056
-5.550E-06,-0.124
-5.540E-06,-0.124
-5.530E-06,-0.040
-5.520E-06,0.060
-5.510E-06,0.120
-5.500E-06,0.100
-5.490E-06,0.028
-5.480E-06,-0.036
-5.470E-06,-0.080
-5.460E-06,-0.072
-5.450E-06,-0.028
-5.440E-06,0.036
-5.430E-06,0.072
-5.420E-06,0.080
-5.410E-06,0.036
-5.400E-06,-0.020
-5.390E-06,-0.056
-5.380E-06,-0.052
-5.370E-06,-0.020
-5.360E-06,0.024
-5.350E-06,0.048
-5.340E-06,0.040
-5.330E-06,0.008
-5.320E-06,-0.020
-5.310E-06,-0.028
-5.300E-06,-0.020
-5.290E-06,0.008
-5.280E-06,0.024
-5.270E-06,0.032
-5.260E-06,0.024
-5.250E-06,0.012
-5.240E-06,-0.008
-5.230E-06,-0.028
-5.220E-06,-0.032
-5.210E-06,-0.016
-5.200E-06,0.008
-5.190E-06,0.028
-5.180E-06,0.048
-5.170E-06,0.028
-5.160E-06,0.004
-5.150E-06,-0.024
-5.140E-06,-0.036
-5.130E-06,-0.020
-5.120E-06,0.016
-5.110E-06,0.044
-5.100E-06,0.052
-5.090E-06,0.040
-5.080E-06,0.020
-5.070E-06,-0.012
-5.060E-06,-0.016
-5.050E-06,-0.020
-5.040E-06,-0.004
-5.030E-06,0.020
-5.020E-06,0.040
-5.010E-06,0.056
-5.000E-06,0.040
-4.990E-06,0.024
-4.980E-06,0.000
-4.970E-06,-0.024
-4.960E-06,-0.020
-4.950E-06,0.008
-4.940E-06,0.036
-4.930E-06,0.056
-4.920E-06,0.052
-4.910E-06,0.032
-4.900E-06,0.008
-4.890E-06,-0.012
-4.880E-06,0.000
-4.870E-06,0.020
-4.860E-06,0.040
-4.850E-06,0.056
-4.840E-06,0.056
-4.830E-06,0.056
-4.820E-06,0.048
-4.810E-06,-0.028
-4.800E-06,-0.084
-4.790E-06,-0.164
-4.780E-06,-0.208
-4.770E-06,-0.120
-4.760E-06,0.072
-4.750E-06,0.192
-4.740E-06,0.204
-4.730E-06,0.060
-4.720E-06,-0.100
-4.710E-06,-0.192
-4.700E-06,-0.156
-4.690E-06,-0.036
-4.680E-06,0.084
-4.670E-06,0.172
-4.660E-06,0.136
-4.650E-06,0.016
-4.640E-06,-0.132
-4.630E-06,-0.152
-4.620E-06,-0.108
-4.610E-06,0.000
-4.600E-06,0.096
-4.590E-06,0.132
-4.580E-06,0.084
-4.570E-06,-0.008
-4.560E-06,-0.064
-4.550E-06,-0.072
-4.540E-06,-0.008
-4.530E-06,0.056
-4.520E-06,0.084
-4.510E-06,0.048
-4.500E-06,0.016
-4.490E-06,0.024
-4.480E-06,-0.012
-4.470E-06,-0.032
-4.460E-06,-0.064
-4.450E-06,-0.060
-4.440E-06,-0.024
-4.430E-06,0.052
-4.420E-06,0.100
-4.410E-06,0.076
-4.400E-06,0.024
-4.390E-06,-0.040
-4.380E-06,-0.052
-4.370E-06,-0.032
-4.360E-06,0.028
-4.350E-06,0.068
-4.340E-06,0.076
-4.330E-06,0.028
-4.320E-06,0.004
-4.310E-06,-0.012
-4.300E-06,0.024
-4.290E-06,0.052
-4.280E-06,0.112
-4.270E-06,0.068
-4.260E-06,-0.196
-4.250E-06,-0.308
-4.240E-06,-0.280
-4.230E-06,-0.044
-4.220E-06,0.096
-4.210E-06,0.280
-4.200E-06,0.228
-4.190E-06,0.060
-4.180E-06,-0.140
-4.170E-06,-0.280
-4.160E-06,-0.172
-4.150E-06,0.000
-4.140E-06,0.212
-4.130E-06,0.248
-4.120E-06,0.192
-4.110E-06,-0.036
-4.100E-06,-0.196
-4.090E-06,-0.308
-4.080E-06,-0.224
-4.070E-06,-0.020
-4.060E-06,0.140
-4.050E-06,0.248
-4.040E-06,0.144
-4.030E-06,0.048
-4.020E-06,-0.136
-4.010E-06,-0.192
-4.000E-06,-0.172
-3.990E-06,-0.024
-3.980E-06,0.124
-3.970E-06,0.176
-3.960E-06,0.136
-3.950E-06,0.024
-3.940E-06,-0.036
-3.930E-06,-0.108
-3.920E-06,-0.068
-3.910E-06,-0.036
-3.900E-06,0.040
-3.890E-06,0.024
-3.880E-06,0.128
-3.870E-06,0.032
-3.860E-06,-0.136
-3.850E-06,-0.088
-3.840E-06,0.024
-3.830E-06,0.028
-3.820E-06,0.064
-3.810E-06,0.080
-3.800E-06,0.036
-3.790E-06,0.044
-3.780E-06,-0.004
-3.770E-06,-0.028
-3.760E-06,-0.056
-3.750E-06,-0.020
-3.740E-06,0.020
-3.730E-06,0.068
-3.720E-06,0.044
-3.710E-06,-0.028
-3.700E-06,-0.072
-3.690E-06,-0.072
-3.680E-06,-0.008
-3.670E-06,0.056
-3.660E-06,0.096
-3.650E-06,0.056
-3.640E-06,-0.012
-3.630E-06,-0.040
-3.620E-06,-0.024
-3.610E-06,0.004
-3.600E-06,0.028
-3.590E-06,0.032
-3.580E-06,0.012
-3.570E-06,-0.012
-3.560E-06,-0.012
-3.550E-06,0.000
-3.540E-06,0.012
-3.530E-06,0.024
-3.520E-06,0.004
-3.510E-06,-0.016
-3.500E-06,-0.020
-3.490E-06,-0.004
-3.480E-06,0.016
-3.470E-06,0.032
-3.460E-06,0.028
-3.450E-06,-0.004
-3.440E-06,-0.020
-3.430E-06,-0.012
-3.420E-06,0.004
-3.410E-06,0.012
-3.400E-06,0.024
-3.390E-06,0.020
-3.380E-06,0.016
-3.370E-06,0.008
-3.360E-06,-0.004
-3.350E-06,-0.016
-3.340E-06,-0.020
-3.330E-06,-0.028
-3.320E-06,-0.004
-3.310E-06,0.020
-3.300E-06,0.040
-3.290E-06,0.036
-3.280E-06,0.008
-3.270E-06,-0.008
-3.260E-06,-0.028
-3.250E-06,-0.020
-3.240E-06,-0.004
-3.230E-06,0.028
-3.220E-06,0.040
-3.210E-06,0.036
-3.200E-06,0.016
-3.190E-06,-0.004
-3.180E-06,-0.028
-3.170E-06,-0.028
-3.160E-06,-0.008
-3.150E-06,0.016
-3.140E-06,0.028
-3.130E-06,0.028
-3.120E-06,0.024
-3.110E-06,0.000
-3.100E-06,-0.012
-3.090E-06,-0.024
-3.080E-06,-0.004
-3.070E-06,0.008
-3.060E-06,0.028
-3.050E-06,0.028
-3.040E-06,0.024
-3.030E-06,0.012
-3.020E-06,-0.004
-3.010E-06,-0.020
-3.000E-06,-0.016
-2.990E-06,0.008
-2.980E-06,0.024
-2.970E-06,0.036
-2.960E-06,0.032
-2.950E-06,0.020
-2.940E-06,-0.004
-2.930E-06,-0.024
-2.920E-06,-0.024
-2.910E-06,-0.004
-2.900E-06,0.024
-2.890E-06,0.052
-2.880E-06,0.060
-2.870E-06,0.024
-2.860E-06,0.000
-2.850E-06,-0.032
-2.840E-06,-0.036
-2.830E-06,-0.012
-2.820E-06,0.032
-2.810E-06,0.056
-2.800E-06,0.056
-2.790E-06,0.036
-2.780E-06,0.024
-2.770E-06,0.008
-2.760E-06,0.024
-2.750E-06,0.024
-2.740E-06,-0.020
-2.730E-06,-0.056
-2.720E-06,-0.092
-2.710E-06,-0.072
-2.700E-06,-0.032
-2.690E-06,0.052
-2.680E-06,0.104
-2.670E-06,0.064
-2.660E-06,-0.016
-2.650E-06,-0.104
-2.640E-06,-0.100
-2.630E-06,-0.044
-2.620E-06,0.040
-2.610E-06,0.072
-2.600E-06,0.060
-2.590E-06,0.000
-2.580E-06,-0.040
-2.570E-06,-0.056
-2.560E-06,-0.028
-2.550E-06,0.008
-2.540E-06,0.024
-2.530E-06,0.036
-2.520E-06,0.016
-2.510E-06,0.008
-2.500E-06,0.000
-2.490E-06,-0.008
-2.480E-06,-0.008
-2.470E-06,-0.004
-2.460E-06,0.008
-2.450E-06,0.020
-2.440E-06,0.024
-2.430E-06,0.016
-2.420E-06,0.008
-2.410E-06,-0.004
-2.400E-06,-0.004
-2.390E-06,-0.012
-2.380E-06,-0.004
-2.370E-06,0.000
-2.360E-06,0.016
-2.350E-06,0.032
-2.340E-06,0.032
-2.330E-06,0.020
-2.320E-06,-0.004
-2.310E-06,-0.024
-2.300E-06,-0.024
-2.290E-06,0.008
-2.280E-06,0.024
-2.270E-06,0.040
-2.260E-06,0.032
-2.250E-06,0.008
-2.240E-06,-0.008
-2.230E-06,-0.012
-2.220E-06,0.000
-2.210E-06,0.024
-2.200E-06,0.036
-2.190E-06,0.028
-2.180E-06,0.024
-2.170E-06,0.016
-2.160E-06,0.024
-2.150E-06,0.020
-2.140E-06,0.004
-2.130E-06,-0.028
-2.120E-06,-0.040
-2.110E-06,-0.028
-2.100E-06,0.024
-2.090E-06,0.084
-2.080E-06,0.076
-2.070E-06,0.028
-2.060E-06,-0.024
-2.050E-06,-0.048
-2.040E-06,-0.040
-2.030E-06,0.012
-2.020E-06,0.040
-2.010E-06,0.056
-2.000E-06,0.032
-1.990E-06,0.008
-1.980E-06,-0.004
-1.970E-06,-0.004
-1.960E-06,0.008
-1.950E-06,0.028
-1.940E-06,0.036
-1.930E-06,0.032
-1.920E-06,0.036
-1.910E-06,0.036
-1.900E-06,0.044
-1.890E-06,0.052
-1.880E-06,0.024
-1.870E-06,-0.044
-1.860E-06,-0.144
-1.850E-06,-0.212
-1.840E-06,-0.192
-1.830E-06,-0.012
-1.820E-06,0.148
-1.810E-06,0.224
-1.800E-06,0.148
-1.790E-06,0.004
-1.780E-06,-0.132
-1.770E-06,-0.200
-1.760E-06,-0.128
-1.750E-06,-0.012
-1.740E-06,0.072
-1.730E-06,0.092
-1.720E-06,0.068
-1.710E-06,-0.008
-1.700E-06,-0.064
-1.690E-06,-0.084
-1.680E-06,-0.044
-1.670E-06,0.004
-1.660E-06,0.044
-1.650E-06,0.064
-1.640E-06,0.040
-1.630E-06,0.012
-1.620E-06,-0.020
-1.610E-06,-0.028
-1.600E-06,-0.028
-1.590E-06,0.008
-1.580E-06,0.036
-1.570E-06,0.060
-1.560E-06,0.044
-1.550E-06,0.020
-1.540E-06,0.000
-1.530E-06,-0.016
-1.520E-06,0.008
-1.510E-06,0.004
-1.500E-06,0.008
-1.490E-06,0.012
-1.480E-06,0.020
-1.470E-06,0.040
-1.460E-06,0.064
-1.450E-06,0.064
-1.440E-06,0.012
-1.430E-06,-0.024
-1.420E-06,-0.048
-1.410E-06,-0.028
-1.400E-06,0.024
-1.390E-06,0.092
-1.380E-06,0.120
-1.370E-06,0.096
-1.360E-06,0.044
-1.350E-06,-0.060
-1.340E-06,-0.160
-1.330E-06,-0.176
-1.320E-06,-0.100
-1.310E-06,-0.008
-1.300E-06,0.068
-1.290E-06,0.100
-1.280E-06,0.060
-1.270E-06,-0.020
-1.260E-06,-0.088
-1.250E-06,-0.104
-1.240E-06,-0.056
-1.230E-06,0.016
-1.220E-06,0.064
-1.210E-06,0.060
-1.200E-06,0.020
-1.190E-06,-0.024
-1.180E-06,-0.044
-1.170E-06,-0.036
-1.160E-06,-0.020
-1.150E-06,0.008
-1.140E-06,0.028
-1.130E-06,0.040
-1.120E-06,0.036
-1.110E-06,0.008
-1.100E-06,-0.008
-1.090E-06,-0.028
-1.080E-06,-0.016
-1.070E-06,0.004
-1.060E-06,0.024
-1.050E-06,0.032
-1.040E-06,0.016
-1.030E-06,0.000
-1.020E-06,-0.024
-1.010E-06,-0.028
-1.000E-06,0.000
-9.900E-07,0.024
-9.800E-07,0.036
-9.700E-07,0.028
-9.600E-07,0.012
-9.500E-07,0.000
-9.400E-07,0.000
-9.300E-07,0.008
-9.200E-07,0.016
-9.100E-07,0.024
-9.000E-07,0.028
-8.900E-07,0.024
-8.800E-07,0.020
-8.700E-07,0.020
-8.600E-07,0.020
-8.500E-07,0.020
-8.400E-07,0.024
-8.300E-07,0.028
-8.200E-07,0.008
-8.100E-07,-0.004
-8.000E-07,-0.044
-7.900E-07,-0.048
-7.800E-07,-0.036
-7.700E-07,0.016
-7.600E-07,0.080
-7.500E-07,0.084
-7.400E-07,0.040
-7.300E-07,-0.012
-7.200E-07,-0.056
-7.100E-07,-0.048
-7.000E-07,0.000
-6.900E-07,0.060
-6.800E-07,0.088
-6.700E-07,0.064
-6.600E-07,0.024
-6.500E-07,-0.020
-6.400E-07,-0.028
-6.300E-07,-0.004
-6.200E-07,0.024
-6.100E-07,0.052
-6.000E-07,0.064
-5.900E-07,0.052
-5.800E-07,0.008
-5.700E-07,-0.016
-5.600E-07,-0.016
-5.500E-07,-0.040
-5.400E-07,-0.040
-5.300E-07,-0.044
-5.200E-07,-0.036
-5.100E-07,-0.028
-5.000E-07,-0.008
-4.900E-07,0.028
-4.800E-07,0.044
-4.700E-07,0.044
-4.600E-07,0.020
-4.500E-07,0.012
-4.400E-07,-0.016
-4.300E-07,-0.020
-4.200E-07,0.004
-4.100E-07,0.056
-4.000E-07,0.076
-3.900E-07,0.056
-3.800E-07,0.008
-3.700E-07,-0.008
-3.600E-07,-0.008
-3.500E-07,0.024
-3.400E-07,0.048
-3.300E-07,0.048
-3.200E-07,0.032
-3.100E-07,0.012
-3.000E-07,0.012
-2.900E-07,0.028
-2.800E-07,0.068
-2.700E-07,0.100
-2.600E-07,0.132
-2.500E-07,0.136
-2.400E-07,0.140
-2.300E-07,0.144
-2.200E-07,0.144
-2.100E-07,0.136
-2.000E-07,0.136
-1.900E-07,0.144
-1.800E-07,0.128
-1.700E-07,0.096
-1.600E-07,0.068
-1.500E-07,0.024
-1.400E-07,0.004
-1.300E-07,-0.004
-1.200E-07,0.072
-1.100E-07,0.188
-1.000E-07,0.200
-9.000E-08,0.156
-8.000E-08,0.068
-7.000E-08,-0.020
-6.000E-08,-0.004
-5.000E-08,-0.460
-4.000E-08,-0.512
-3.000E-08,-0.512
-2.000E-08,-0.512
-1.000E-08,-0.508
0.000E+00,0.544
1.000E-08,0.540
2.000E-08,0.540
3.000E-08,0.536
4.000E-08,-0.508
5.000E-08,-0.508
6.000E-08,-0.512
7.000E-08,-0.004
8.000E-08,0.544
9.000E-08,0.540
1.000E-07,0.540
1.100E-07,-0.096
1.200E-07,-0.512
1.300E-07,-0.512
1.400E-07,-0.512
1.500E-07,0.068
1.600E-07,0.540
1.700E-07,0.544
1.800E-07,0.544
1.900E-07,0.076
2.000E-07,-0.448
2.100E-07,-0.512
2.200E-07,-0.512
2.300E-07,-0.116
2.400E-07,0.456
2.500E-07,0.540
2.600E-07,0.536
2.700E-07,0.100
2.800E-07,-0.348
2.900E-07,-0.504
3.000E-07,-0.400
3.100E-07,-0.060
3.200E-07,0.256
3.300E-07,0.456
3.400E-07,0.364
3.500E-07,0.112
3.600E-07,-0.168
3.700E-07,-0.308
3.800E-07,-0.224
3.900E-07,-0.004
4.000E-07,0.236
4.100E-07,0.340
4.200E-07,0.284
4.300E-07,0.112
4.400E-07,-0.032
4.500E-07,-0.084
4.600E-07,-0.004
4.700E-07,0.184
4.800E-07,0.344
4.900E-07,0.392
5.000E-07,0.256
5.100E-07,0.024
5.200E-07,-0.240
5.300E-07,-0.356
5.400E-07,-0.296
5.500E-07,-0.112
5.600E-07,0.088
5.700E-07,0.164
5.800E-07,0.104
5.900E-07,-0.052
6.000E-07,-0.204
6.100E-07,-0.264
6.200E-07,-0.176
6.300E-07,-0.004
6.400E-07,0.164
6.500E-07,0.272
6.600E-07,0.264
6.700E-07,0.124
6.800E-07,-0.040
6.900E-07,-0.132
7.000E-07,-0.080
7.100E-07,0.096
7.200E-07,0.292
7.300E-07,0.396
7.400E-07,0.352
7.500E-07,0.244
7.600E-07,0.056
7.700E-07,0.000
7.800E-07,0.012
7.900E-07,0.136
8.000E-07,0.116
8.100E-07,-0.020
8.200E-07,-0.260
8.300E-07,-0.444
8.400E-07,-0.356
8.500E-07,-0.208
8.600E-07,-0.280
8.700E-07,-0.236
8.800E-07,-0.196
8.900E-07,-0.208
9.000E-07,-0.064
9.100E-07,0.056
9.200E-07,0.072
9.300E-07,-0.108
9.400E-07,-0.188
9.500E-07,-0.120
9.600E-07,0.020
9.700E-07,0.076
9.800E-07,0.160
9.900E-07,0.064
1.000E-06,-0.016
1.010E-06,0.004
1.020E-06,0.036
1.030E-06,0.092
1.040E-06,0.128
1.050E-06,0.124
1.060E-06,0.036
1.070E-06,-0.040
1.080E-06,-0.152
1.090E-06,-0.152
1.100E-06,-0.100
1.110E-06,0.008
1.120E-06,0.064
1.130E-06,0.064
1.140E-06,0.024
1.150E-06,-0.056
1.160E-06,-0.100
1.170E-06,-0.084
1.180E-06,0.012
1.190E-06,0.072
1.200E-06,0.036
1.210E-06,-0.032
1.220E-06,-0.088
1.230E-06,-0.076
1.240E-06,0.004
1.250E-06,0.056
1.260E-06,0.048
1.270E-06,0.032
1.280E-06,0.020
1.290E-06,0.024
1.300E-06,0.032
1.310E-06,0.056
1.320E-06,0.064
1.330E-06,0.072
1.340E-06,0.072
1.350E-06,0.076
1.360E-06,0.068
1.370E-06,0.056
1.380E-06,0.076
1.390E-06,0.100
1.400E-06,0.112
1.410E-06,0.120
1.420E-06,0.116
1.430E-06,0.120
1.440E-06,0.144
1.450E-06,0.172
1.460E-06,0.208
1.470E-06,0.228
1.480E-06,0.244
1.490E-06,0.264
1.500E-06,0.256
1.510E-06,0.188
1.520E-06,0.140
1.530E-06,0.112
1.540E-06,0.096
1.550E-06,0.084
1.560E-06,0.060
1.570E-06,0.004
1.580E-06,-0.044
1.590E-06,-0.096
1.600E-06,-0.072
1.610E-06,-0.004
1.620E-06,0.100
1.630E-06,0.156
1.640E-06,0.172
1.650E-06,0.180
1.660E-06,0.132
1.670E-06,0.088
1.680E-06,0.072
1.690E-06,0.108
1.700E-06,0.168
1.710E-06,0.280
1.720E-06,0.292
1.730E-06,0.140
1.740E-06,-0.144
1.750E-06,-0.416
1.760E-06,-0.512
1.770E-06,-0.512
1.780E-06,-0.240
1.790E-06,0.028
1.800E-06,0.180
1.810E-06,0.096
1.820E-06,-0.056
1.830E-06,-0.508
1.840E-06,-0.512
1.850E-06,-0.512
1.860E-06,-0.268
1.870E-06,-0.032
1.880E-06,0.144
1.890E-06,0.160
1.900E-06,0.072
1.910E-06,-0.040
1.920E-06,-0.116
1.930E-06,-0.180
1.940E-06,-0.204
1.950E-06,-0.116
1.960E-06,0.000
1.970E-06,0.128
1.980E-06,0.192
1.990E-06,0.212
2.000E-06,0.112
2.010E-06,-0.020
2.020E-06,-0.144
2.030E-06,-0.156
2.040E-06,-0.068
2.050E-06,0.068
2.060E-06,0.176
2.070E-06,0.196
2.080E-06,0.176
2.090E-06,0.064
2.100E-06,-0.052
2.110E-06,-0.144
2.120E-06,-0.136
2.130E-06,-0.056
2.140E-06,0.088
2.150E-06,0.168
2.160E-06,0.160
2.170E-06,0.080
2.180E-06,-0.052
2.190E-06,-0.148
2.200E-06,-0.136
2.210E-06,-0.060
2.220E-06,0.024
2.230E-06,0.136
2.240E-06,0.176
2.250E-06,0.136
2.260E-06,0.024
2.270E-06,-0.052
2.280E-06,-0.108
2.290E-06,-0.072
2.300E-06,0.056
2.310E-06,0.176
2.320E-06,0.240
2.330E-06,0.252
2.340E-06,0.192
2.350E-06,0.092
2.360E-06,0.044
2.370E-06,0.064
2.380E-06,0.140
2.390E-06,0.272
2.400E-06,0.360
2.410E-06,0.376
2.420E-06,0.316
2.430E-06,0.236
2.440E-06,0.156
2.450E-06,0.144
2.460E-06,0.180
2.470E-06,0.244
2.480E-06,0.300
2.490E-06,0.292
2.500E-06,0.256
2.510E-06,0.204
2.520E-06,0.160
2.530E-06,0.152
2.540E-06,0.184
2.550E-06,0.232
2.560E-06,0.276
2.570E-06,0.316
2.580E-06,0.328
2.590E-06,0.292
2.600E-06,0.216
2.610E-06,0.084
2.620E-06,-0.044
2.630E-06,-0.052
2.640E-06,-0.056
2.650E-06,0.020
2.660E-06,0.008
2.670E-06,-0.096
2.680E-06,-0.340
2.690E-06,-0.472
2.700E-06,-0.300
2.710E-06,-0.336
2.720E-06,-0.292
2.730E-06,-0.376
2.740E-06,-0.512
2.750E-06,-0.512
2.760E-06,-0.512
2.770E-06,-0.480
2.780E-06,-0.216
2.790E-06,0.084
2.800E-06,0.120
2.810E-06,0.168
2.820E-06,0.064
2.830E-06,0.024
2.840E-06,-0.172
2.850E-06,-0.232
2.860E-06,-0.316
2.870E-06,-0.116
2.880E-06,0.008
2.890E-06,0.132
2.900E-06,0.216
2.910E-06,0.216
2.920E-06,0.132
2.930E-06,-0.072
2.940E-06,-0.152
2.950E-06,-0.192
2.960E-06,-0.020
2.970E-06,0.160
2.980E-06,0.352
2.990E-06,0.344
3.000E-06,0.264
3.010E-06,0.092
3.020E-06,-0.016
3.030E-06,-0.048
3.040E-06,0.024
3.050E-06,0.192
3.060E-06,0.336
3.070E-06,0.420
3.080E-06,0.360
3.090E-06,0.256
3.100E-06,0.124
3.110E-06,0.068
3.120E-06,0.112
3.130E-06,0.240
3.140E-06,0.364
3.150E-06,0.440
3.160E-06,0.432
3.170E-06,0.352
3.180E-06,0.248
3.190E-06,0.152
3.200E-06,0.136
3.210E-06,0.172
3.220E-06,0.280
3.230E-06,0.356
3.240E-06,0.400
3.250E-06,0.356
