mediciones/5-22/-5/WaveData4961.csv

#timebase=2000000(ps)
,#voltbase=1000000(mv/100)
#size=4000
-8.400E-06,-0.480
-8.390E-06,-0.600
-8.380E-06,-0.760
-8.370E-06,-1.160
-8.360E-06,-1.320
-8.350E-06,-1.360
-8.340E-06,-1.520
-8.330E-06,-1.360
-8.320E-06,-0.880
-8.310E-06,-0.880
-8.300E-06,-0.680
-8.290E-06,-0.480
-8.280E-06,-0.400
-8.270E-06,-0.320
-8.260E-06,0.080
-8.250E-06,0.200
-8.240E-06,0.240
-8.230E-06,0.400
-8.220E-06,0.360
-8.210E-06,0.200
-8.200E-06,0.400
-8.190E-06,0.480
-8.180E-06,0.560
-8.170E-06,0.680
-8.160E-06,0.680
-8.150E-06,0.560
-8.140E-06,0.520
-8.130E-06,0.560
-8.120E-06,0.520
-8.110E-06,0.640
-8.100E-06,0.800
-8.090E-06,0.680
-8.080E-06,0.600
-8.070E-06,0.480
-8.060E-06,0.320
-8.050E-06,0.240
-8.040E-06,0.160
-8.030E-06,-0.040
-8.020E-06,-0.080
-8.010E-06,-0.240
-8.000E-06,-0.520
-7.990E-06,-0.720
-7.980E-06,-0.960
-7.970E-06,-1.120
-7.960E-06,-0.920
-7.950E-06,-0.680
-7.940E-06,-0.400
-7.930E-06,-0.160
-7.920E-06,-0.160
-7.910E-06,-0.440
-7.900E-06,-0.640
-7.890E-06,-0.800
-7.880E-06,-0.960
-7.870E-06,-0.880
-7.860E-06,-0.720
-7.850E-06,-0.720
-7.840E-06,-0.840
-7.830E-06,-0.960
-7.820E-06,-0.960
-7.810E-06,-0.840
-7.800E-06,-0.560
-7.790E-06,-0.320
-7.780E-06,-0.080
-7.770E-06,-0.040
-7.760E-06,-0.040
-7.750E-06,-0.040
-7.740E-06,-0.040
-7.730E-06,0.000
-7.720E-06,0.080
-7.710E-06,0.200
-7.700E-06,0.160
-7.690E-06,0.200
-7.680E-06,0.240
-7.670E-06,0.240
-7.660E-06,0.160
-7.650E-06,0.160
-7.640E-06,0.080
-7.630E-06,0.000
-7.620E-06,-0.080
-7.610E-06,-0.160
-7.600E-06,-0.320
-7.590E-06,-0.560
-7.580E-06,-0.680
-7.570E-06,-1.000
-7.560E-06,-0.880
-7.550E-06,-0.720
-7.540E-06,-0.440
-7.530E-06,-0.200
-7.520E-06,-0.080
-7.510E-06,-0.200
-7.500E-06,-0.640
-7.490E-06,-0.760
-7.480E-06,-1.000
-7.470E-06,-0.720
-7.460E-06,-0.200
-7.450E-06,0.160
-7.440E-06,0.360
-7.430E-06,0.240
-7.420E-06,0.000
-7.410E-06,-0.320
-7.400E-06,-0.280
-7.390E-06,-0.080
-7.380E-06,0.160
-7.370E-06,0.480
-7.360E-06,0.560
-7.350E-06,0.400
-7.340E-06,0.240
-7.330E-06,0.160
-7.320E-06,0.000
-7.310E-06,0.160
-7.300E-06,0.240
-7.290E-06,0.440
-7.280E-06,0.680
-7.270E-06,0.840
-7.260E-06,0.840
-7.250E-06,0.800
-7.240E-06,0.680
-7.230E-06,0.520
-7.220E-06,0.440
-7.210E-06,0.320
-7.200E-06,0.240
-7.190E-06,0.160
-7.180E-06,0.120
-7.170E-06,-0.120
-7.160E-06,-0.240
-7.150E-06,-0.240
-7.140E-06,-0.440
-7.130E-06,-0.520
-7.120E-06,-0.960
-7.110E-06,-1.280
-7.100E-06,-1.680
-7.090E-06,-1.840
-7.080E-06,-1.800
-7.070E-06,-1.520
-7.060E-06,-1.120
-7.050E-06,-0.600
-7.040E-06,-0.320
-7.030E-06,-0.360
-7.020E-06,-0.320
-7.010E-06,-0.400
-7.000E-06,-0.400
-6.990E-06,-0.040
-6.980E-06,0.360
-6.970E-06,0.320
-6.960E-06,0.440
-6.950E-06,0.320
-6.940E-06,0.000
-6.930E-06,-0.040
-6.920E-06,-0.120
-6.910E-06,-0.360
-6.900E-06,-0.360
-6.890E-06,-0.320
-6.880E-06,-0.440
-6.870E-06,-0.480
-6.860E-06,-0.440
-6.850E-06,-0.560
-6.840E-06,-0.480
-6.830E-06,-0.400
-6.820E-06,-0.440
-6.810E-06,-0.440
-6.800E-06,-0.320
-6.790E-06,-0.200
-6.780E-06,-0.080
-6.770E-06,0.040
-6.760E-06,-0.040
-6.750E-06,-0.040
-6.740E-06,-0.240
-6.730E-06,-0.280
-6.720E-06,-0.360
-6.710E-06,-0.320
-6.700E-06,-0.200
-6.690E-06,-0.080
-6.680E-06,0.000
-6.670E-06,0.000
-6.660E-06,-0.040
-6.650E-06,0.000
-6.640E-06,-0.040
-6.630E-06,0.000
-6.620E-06,0.040
-6.610E-06,0.160
-6.600E-06,0.160
-6.590E-06,0.320
-6.580E-06,0.480
-6.570E-06,0.680
-6.560E-06,0.880
-6.550E-06,1.040
-6.540E-06,1.240
-6.530E-06,1.600
-6.520E-06,1.960
-6.510E-06,2.160
-6.500E-06,2.280
-6.490E-06,2.160
-6.480E-06,1.760
-6.470E-06,1.520
-6.460E-06,1.280
-6.450E-06,1.080
-6.440E-06,1.000
-6.430E-06,0.840
-6.420E-06,0.400
-6.410E-06,-0.040
-6.400E-06,-0.360
-6.390E-06,-0.600
-6.380E-06,-0.600
-6.370E-06,-0.640
-6.360E-06,-0.720
-6.350E-06,-1.000
-6.340E-06,-1.200
-6.330E-06,-1.560
-6.320E-06,-1.760
-6.310E-06,-1.880
-6.300E-06,-1.920
-6.290E-06,-1.840
-6.280E-06,-1.520
-6.270E-06,-1.200
-6.260E-06,-1.040
-6.250E-06,-0.760
-6.240E-06,-0.560
-6.230E-06,-0.520
-6.220E-06,-0.240
-6.210E-06,0.120
-6.200E-06,0.520
-6.190E-06,0.840
-6.180E-06,1.160
-6.170E-06,1.200
-6.160E-06,1.280
-6.150E-06,1.320
-6.140E-06,1.400
-6.130E-06,1.400
-6.120E-06,1.480
-6.110E-06,1.440
-6.100E-06,1.320
-6.090E-06,1.200
-6.080E-06,0.920
-6.070E-06,0.840
-6.060E-06,0.680
-6.050E-06,0.600
-6.040E-06,0.360
-6.030E-06,0.000
-6.020E-06,-0.360
-6.010E-06,-0.680
-6.000E-06,-0.840
-5.990E-06,-1.160
-5.980E-06,-1.280
-5.970E-06,-1.360
-5.960E-06,-1.560
-5.950E-06,-1.680
-5.940E-06,-1.800
-5.930E-06,-1.760
-5.920E-06,-1.840
-5.910E-06,-1.680
-5.900E-06,-1.240
-5.890E-06,-0.680
-5.880E-06,0.000
-5.870E-06,0.480
-5.860E-06,0.640
-5.850E-06,0.680
-5.840E-06,0.680
-5.830E-06,0.600
-5.820E-06,0.600
-5.810E-06,0.680
-5.800E-06,0.720
-5.790E-06,0.680
-5.780E-06,0.560
-5.770E-06,0.440
-5.760E-06,0.240
-5.750E-06,0.000
-5.740E-06,-0.040
-5.730E-06,-0.320
-5.720E-06,-0.440
-5.710E-06,-0.560
-5.700E-06,-0.720
-5.690E-06,-0.840
-5.680E-06,-0.720
-5.670E-06,-0.600
-5.660E-06,-0.560
-5.650E-06,-0.400
-5.640E-06,-0.560
-5.630E-06,-0.520
-5.620E-06,-0.320
-5.610E-06,-0.080
-5.600E-06,0.200
-5.590E-06,0.480
-5.580E-06,0.480
-5.570E-06,0.320
-5.560E-06,0.080
-5.550E-06,-0.160
-5.540E-06,-0.400
-5.530E-06,-0.480
-5.520E-06,-0.560
-5.510E-06,-0.840
-5.500E-06,-0.920
-5.490E-06,-1.080
-5.480E-06,-1.240
-5.470E-06,-1.360
-5.460E-06,-1.320
-5.450E-06,-1.400
-5.440E-06,-1.400
-5.430E-06,-1.320
-5.420E-06,-1.200
-5.410E-06,-1.080
-5.400E-06,-0.960
-5.390E-06,-0.960
-5.380E-06,-1.000
-5.370E-06,-0.960
-5.360E-06,-0.640
-5.350E-06,-0.360
-5.340E-06,-0.080
-5.330E-06,0.080
-5.320E-06,0.720
-5.310E-06,1.200
-5.300E-06,1.920
-5.290E-06,2.360
-5.280E-06,2.320
-5.270E-06,2.000
-5.260E-06,1.760
-5.250E-06,1.400
-5.240E-06,1.160
-5.230E-06,1.240
-5.220E-06,1.240
-5.210E-06,1.240
-5.200E-06,1.120
-5.190E-06,0.840
-5.180E-06,0.480
-5.170E-06,0.360
-5.160E-06,0.120
-5.150E-06,-0.040
-5.140E-06,0.000
-5.130E-06,-0.080
-5.120E-06,-0.160
-5.110E-06,-0.160
-5.100E-06,-0.240
-5.090E-06,-0.360
-5.080E-06,-0.440
-5.070E-06,-0.480
-5.060E-06,-0.680
-5.050E-06,-0.720
-5.040E-06,-0.800
-5.030E-06,-0.840
-5.020E-06,-0.960
-5.010E-06,-1.040
-5.000E-06,-1.160
-4.990E-06,-1.240
-4.980E-06,-1.320
-4.970E-06,-1.480
-4.960E-06,-1.480
-4.950E-06,-1.520
-4.940E-06,-1.520
-4.930E-06,-1.520
-4.920E-06,-1.400
-4.910E-06,-1.320
-4.900E-06,-1.240
-4.890E-06,-1.120
-4.880E-06,-1.080
-4.870E-06,-1.040
-4.860E-06,-0.960
-4.850E-06,-0.880
-4.840E-06,-0.840
-4.830E-06,-0.680
-4.820E-06,-0.600
-4.810E-06,-0.600
-4.800E-06,-0.640
-4.790E-06,-0.800
-4.780E-06,-1.080
-4.770E-06,-1.320
-4.760E-06,-1.440
-4.750E-06,-1.000
-4.740E-06,-0.400
-4.730E-06,0.240
-4.720E-06,0.680
-4.710E-06,0.560
-4.700E-06,0.200
-4.690E-06,0.000
-4.680E-06,-0.280
-4.670E-06,-0.320
-4.660E-06,-0.240
-4.650E-06,-0.120
-4.640E-06,-0.160
-4.630E-06,-0.120
-4.620E-06,-0.080
-4.610E-06,-0.040
-4.600E-06,0.040
-4.590E-06,0.000
-4.580E-06,0.120
-4.570E-06,0.280
-4.560E-06,0.480
-4.550E-06,0.840
-4.540E-06,1.160
-4.530E-06,1.520
-4.520E-06,1.800
-4.510E-06,1.760
-4.500E-06,1.720
-4.490E-06,1.600
-4.480E-06,1.440
-4.470E-06,1.280
-4.460E-06,1.200
-4.450E-06,1.120
-4.440E-06,1.040
-4.430E-06,0.920
-4.420E-06,0.640
-4.410E-06,0.360
-4.400E-06,0.160
-4.390E-06,-0.080
-4.380E-06,-0.320
-4.370E-06,-0.480
-4.360E-06,-0.600
-4.350E-06,-0.680
-4.340E-06,-0.800
-4.330E-06,-0.880
-4.320E-06,-1.000
-4.310E-06,-1.120
-4.300E-06,-1.240
-4.290E-06,-1.320
-4.280E-06,-1.400
-4.270E-06,-1.360
-4.260E-06,-1.280
-4.250E-06,-1.240
-4.240E-06,-1.160
-4.230E-06,-1.120
-4.220E-06,-1.080
-4.210E-06,-1.000
-4.200E-06,-1.000
-4.190E-06,-1.000
-4.180E-06,-0.960
-4.170E-06,-0.800
-4.160E-06,-0.720
-4.150E-06,-0.560
-4.140E-06,-0.520
-4.130E-06,-0.520
-4.120E-06,-0.480
-4.110E-06,-0.520
-4.100E-06,-0.640
-4.090E-06,-0.520
-4.080E-06,-0.480
-4.070E-06,-0.320
-4.060E-06,-0.280
-4.050E-06,-0.280
-4.040E-06,-0.280
-4.030E-06,-0.240
-4.020E-06,-0.240
-4.010E-06,-0.200
-4.000E-06,-0.080
-3.990E-06,0.120
-3.980E-06,0.240
-3.970E-06,0.320
-3.960E-06,0.320
-3.950E-06,0.320
-3.940E-06,0.400
-3.930E-06,0.400
-3.920E-06,0.440
-3.910E-06,0.360
-3.900E-06,0.400
-3.890E-06,0.200
-3.880E-06,0.320
-3.870E-06,0.320
-3.860E-06,0.200
-3.850E-06,0.080
-3.840E-06,0.160
-3.830E-06,0.200
-3.820E-06,0.360
-3.810E-06,0.440
-3.800E-06,0.520
-3.790E-06,0.560
-3.780E-06,0.600
-3.770E-06,0.680
-3.760E-06,0.880
-3.750E-06,1.000
-3.740E-06,1.120
-3.730E-06,1.080
-3.720E-06,0.920
-3.710E-06,0.800
-3.700E-06,0.760
-3.690E-06,0.760
-3.680E-06,0.760
-3.670E-06,0.680
-3.660E-06,0.560
-3.650E-06,0.440
-3.640E-06,0.360
-3.630E-06,0.320
-3.620E-06,0.160
-3.610E-06,0.280
-3.600E-06,0.240
-3.590E-06,0.160
-3.580E-06,0.120
-3.570E-06,0.120
-3.560E-06,0.000
-3.550E-06,0.080
-3.540E-06,-0.040
-3.530E-06,-0.040
-3.520E-06,0.000
-3.510E-06,-0.080
-3.500E-06,-0.240
-3.490E-06,-0.320
-3.480E-06,-0.480
-3.470E-06,-0.640
-3.460E-06,-0.720
-3.450E-06,-0.920
-3.440E-06,-1.120
-3.430E-06,-1.240
-3.420E-06,-1.440
-3.410E-06,-1.400
-3.400E-06,-1.560
-3.390E-06,-1.280
-3.380E-06,-0.920
-3.370E-06,-0.520
-3.360E-06,0.160
-3.350E-06,0.680
-3.340E-06,1.000
-3.330E-06,1.360
-3.320E-06,1.840
-3.310E-06,2.040
-3.300E-06,1.920
-3.290E-06,1.480
-3.280E-06,1.040
-3.270E-06,0.600
-3.260E-06,0.800
-3.250E-06,1.520
-3.240E-06,1.600
-3.230E-06,1.440
-3.220E-06,1.520
-3.210E-06,0.960
-3.200E-06,0.360
-3.190E-06,0.160
-3.180E-06,0.040
-3.170E-06,-0.040
-3.160E-06,-0.280
-3.150E-06,-0.440
-3.140E-06,-0.840
-3.130E-06,-0.680
-3.120E-06,-0.840
-3.110E-06,-0.920
-3.100E-06,-1.160
-3.090E-06,-1.240
-3.080E-06,-1.320
-3.070E-06,-1.360
-3.060E-06,-1.440
-3.050E-06,-1.760
-3.040E-06,-1.920
-3.030E-06,-2.000
-3.020E-06,-1.760
-3.010E-06,-1.400
-3.000E-06,-1.160
-2.990E-06,-0.720
-2.980E-06,-0.440
-2.970E-06,-0.320
-2.960E-06,0.000
-2.950E-06,0.200
-2.940E-06,0.200
-2.930E-06,0.320
-2.920E-06,0.520
-2.910E-06,0.680
-2.900E-06,1.080
-2.890E-06,1.440
-2.880E-06,1.640
-2.870E-06,1.760
-2.860E-06,1.800
-2.850E-06,1.680
-2.840E-06,1.440
-2.830E-06,1.440
-2.820E-06,1.400
-2.810E-06,1.560
-2.800E-06,1.880
-2.790E-06,2.000
-2.780E-06,1.880
-2.770E-06,1.640
-2.760E-06,1.200
-2.750E-06,0.680
-2.740E-06,0.280
-2.730E-06,0.000
-2.720E-06,-0.360
-2.710E-06,-0.720
-2.700E-06,-0.800
-2.690E-06,-1.200
-2.680E-06,-1.400
-2.670E-06,-1.440
-2.660E-06,-1.600
-2.650E-06,-1.640
-2.640E-06,-1.720
-2.630E-06,-1.560
-2.620E-06,-1.200
-2.610E-06,-0.880
-2.600E-06,-0.440
-2.590E-06,-0.080
-2.580E-06,-0.160
-2.570E-06,-0.160
-2.560E-06,0.000
-2.550E-06,0.040
-2.540E-06,0.120
-2.530E-06,0.520
-2.520E-06,0.680
-2.510E-06,0.840
-2.500E-06,1.000
-2.490E-06,1.080
-2.480E-06,1.000
-2.470E-06,1.040
-2.460E-06,0.920
-2.450E-06,0.840
-2.440E-06,0.800
-2.430E-06,0.680
-2.420E-06,0.520
-2.410E-06,0.360
-2.400E-06,0.280
-2.390E-06,0.120
-2.380E-06,0.000
-2.370E-06,-0.200
-2.360E-06,-0.440
-2.350E-06,-0.680
-2.340E-06,-0.880
-2.330E-06,-1.040
-2.320E-06,-1.200
-2.310E-06,-1.440
-2.300E-06,-1.720
-2.290E-06,-2.080
-2.280E-06,-2.440
-2.270E-06,-2.840
-2.260E-06,-3.160
-2.250E-06,-3.360
-2.240E-06,-3.160
-2.230E-06,-2.800
-2.220E-06,-2.520
-2.210E-06,-2.160
-2.200E-06,-1.920
-2.190E-06,-2.000
-2.180E-06,-2.160
-2.170E-06,-2.280
-2.160E-06,-2.680
-2.150E-06,-2.960
-2.140E-06,-3.000
-2.130E-06,-2.920
-2.120E-06,-2.640
-2.110E-06,-1.880
-2.100E-06,-1.400
-2.090E-06,-0.720
-2.080E-06,-0.080
-2.070E-06,0.440
-2.060E-06,1.120
-2.050E-06,1.840
-2.040E-06,2.360
-2.030E-06,2.880
-2.020E-06,3.240
-2.010E-06,3.320
-2.000E-06,3.600
-1.990E-06,3.840
-1.980E-06,3.920
-1.970E-06,4.000
-1.960E-06,3.920
-1.950E-06,3.480
-1.940E-06,3.040
-1.930E-06,2.600
-1.920E-06,2.160
-1.910E-06,1.920
-1.900E-06,1.800
-1.890E-06,1.400
-1.880E-06,1.080
-1.870E-06,0.840
-1.860E-06,0.400
-1.850E-06,0.160
-1.840E-06,0.000
-1.830E-06,-0.240
-1.820E-06,-0.600
-1.810E-06,-1.200
-1.800E-06,-1.880
-1.790E-06,-2.560
-1.780E-06,-2.880
-1.770E-06,-2.960
-1.760E-06,-2.720
-1.750E-06,-2.480
-1.740E-06,-2.080
-1.730E-06,-1.640
-1.720E-06,-1.400
-1.710E-06,-0.920
-1.700E-06,-0.360
-1.690E-06,-0.120
-1.680E-06,0.120
-1.670E-06,0.160
-1.660E-06,0.000
-1.650E-06,0.320
-1.640E-06,0.720
-1.630E-06,1.120
-1.620E-06,1.520
-1.610E-06,1.520
-1.600E-06,1.160
-1.590E-06,0.800
-1.580E-06,0.320
-1.570E-06,0.040
-1.560E-06,0.000
-1.550E-06,0.200
-1.540E-06,0.360
-1.530E-06,0.560
-1.520E-06,0.760
-1.510E-06,0.800
-1.500E-06,0.840
-1.490E-06,0.880
-1.480E-06,0.920
-1.470E-06,1.080
-1.460E-06,1.320
-1.450E-06,1.520
-1.440E-06,1.720
-1.430E-06,1.720
-1.420E-06,1.520
-1.410E-06,1.360
-1.400E-06,1.160
-1.390E-06,1.040
-1.380E-06,0.840
-1.370E-06,0.760
-1.360E-06,0.640
-1.350E-06,0.480
-1.340E-06,0.240
-1.330E-06,0.040
-1.320E-06,-0.320
-1.310E-06,-0.680
-1.300E-06,-1.120
-1.290E-06,-1.520
-1.280E-06,-1.840
-1.270E-06,-2.040
-1.260E-06,-2.160
-1.250E-06,-2.200
-1.240E-06,-2.360
-1.230E-06,-2.560
-1.220E-06,-2.840
-1.210E-06,-3.000
-1.200E-06,-3.040
-1.190E-06,-3.040
-1.180E-06,-2.760
-1.170E-06,-2.360
-1.160E-06,-1.760
-1.150E-06,-1.120
-1.140E-06,-0.600
-1.130E-06,-0.520
-1.120E-06,-0.640
-1.110E-06,-0.760
-1.100E-06,-1.120
-1.090E-06,-1.320
-1.080E-06,-1.320
-1.070E-06,-1.360
-1.060E-06,-1.440
-1.050E-06,-1.480
-1.040E-06,-1.680
-1.030E-06,-1.720
-1.020E-06,-1.400
-1.010E-06,-1.120
-1.000E-06,-0.520
-9.900E-07,0.360
-9.800E-07,1.200
-9.700E-07,2.040
-9.600E-07,2.640
-9.500E-07,3.080
-9.400E-07,3.400
-9.300E-07,3.680
-9.200E-07,3.880
-9.100E-07,4.000
-9.000E-07,4.080
-8.900E-07,4.080
-8.800E-07,4.080
-8.700E-07,3.880
-8.600E-07,3.520
-8.500E-07,3.080
-8.400E-07,2.680
-8.300E-07,2.200
-8.200E-07,1.800
-8.100E-07,1.360
-8.000E-07,0.840
-7.900E-07,0.400
-7.800E-07,-0.080
-7.700E-07,-0.640
-7.600E-07,-1.120
-7.500E-07,-1.720
-7.400E-07,-2.080
-7.300E-07,-2.520
-7.200E-07,-3.000
-7.100E-07,-3.360
-7.000E-07,-3.800
-6.900E-07,-4.120
-6.800E-07,-4.440
-6.700E-07,-4.680
-6.600E-07,-5.000
-6.500E-07,-5.120
-6.400E-07,-5.240
-6.300E-07,-5.240
-6.200E-07,-5.200
-6.100E-07,-5.240
-6.000E-07,-5.160
-5.900E-07,-4.720
-5.800E-07,-4.080
-5.700E-07,-3.360
-5.600E-07,-2.480
-5.500E-07,-1.440
-5.400E-07,-0.360
-5.300E-07,0.840
-5.200E-07,1.760
-5.100E-07,2.640
-5.000E-07,3.360
-4.900E-07,3.640
-4.800E-07,3.760
-4.700E-07,3.800
-4.600E-07,3.680
-4.500E-07,3.400
-4.400E-07,3.040
-4.300E-07,2.640
-4.200E-07,2.200
-4.100E-07,1.720
-4.000E-07,0.960
-3.900E-07,0.440
-3.800E-07,-0.040
-3.700E-07,-0.600
-3.600E-07,-1.040
-3.500E-07,-1.560
-3.400E-07,-2.080
-3.300E-07,-2.640
-3.200E-07,-3.280
-3.100E-07,-3.880
-3.000E-07,-4.200
-2.900E-07,-3.840
-2.800E-07,-3.320
-2.700E-07,-2.720
-2.600E-07,-1.800
-2.500E-07,-1.320
-2.400E-07,-0.840
-2.300E-07,-0.320
-2.200E-07,0.040
-2.100E-07,0.680
-2.000E-07,1.400
-1.900E-07,1.800
-1.800E-07,1.920
-1.700E-07,1.800
-1.600E-07,0.960
-1.500E-07,0.080
-1.400E-07,-0.520
-1.300E-07,-1.120
-1.200E-07,-1.560
-1.100E-07,-1.960
-1.000E-07,-2.680
-9.000E-08,-3.720
-8.000E-08,-4.360
-7.000E-08,-4.880
-6.000E-08,-5.240
-5.000E-08,-5.240
-4.000E-08,-5.240
-3.000E-08,-5.240
-2.000E-08,-5.240
-1.000E-08,-5.240
0.000E+00,-5.200
1.000E-08,-5.240
2.000E-08,-4.480
3.000E-08,-0.240
4.000E-08,3.920
5.000E-08,5.480
6.000E-08,5.480
7.000E-08,5.480
8.000E-08,5.480
9.000E-08,5.480
1.000E-07,5.480
1.100E-07,5.400
1.200E-07,5.440
1.300E-07,5.440
1.400E-07,5.440
1.500E-07,4.480
1.600E-07,3.200
1.700E-07,2.040
1.800E-07,1.080
1.900E-07,0.640
2.000E-07,0.160
2.100E-07,-0.440
2.200E-07,-0.760
2.300E-07,-0.840
2.400E-07,-0.880
2.500E-07,-0.760
2.600E-07,-0.200
2.700E-07,0.160
2.800E-07,0.480
2.900E-07,0.720
3.000E-07,0.680
3.100E-07,0.160
3.200E-07,-0.160
3.300E-07,-0.440
3.400E-07,-0.880
3.500E-07,-1.360
3.600E-07,-1.760
3.700E-07,-2.320
3.800E-07,-3.160
3.900E-07,-3.920
4.000E-07,-4.880
4.100E-07,-5.240
4.200E-07,-5.240
4.300E-07,-5.200
4.400E-07,-5.200
4.500E-07,-5.200
4.600E-07,-5.200
4.700E-07,-5.200
4.800E-07,-5.200
4.900E-07,-5.240
5.000E-07,-5.240
5.100E-07,-5.200
5.200E-07,-5.240
5.300E-07,-5.200
5.400E-07,-5.200
5.500E-07,-5.200
5.600E-07,-5.240
5.700E-07,-4.920
5.800E-07,-5.160
5.900E-07,-5.200
6.000E-07,-5.240
6.100E-07,-5.240
6.200E-07,-5.200
6.300E-07,-5.200
6.400E-07,-5.240
6.500E-07,-5.240
6.600E-07,-5.200
6.700E-07,-5.200
6.800E-07,-5.200
6.900E-07,-5.240
7.000E-07,-5.240
7.100E-07,-4.520
7.200E-07,-1.920
7.300E-07,0.400
7.400E-07,1.920
7.500E-07,3.360
7.600E-07,3.280
7.700E-07,1.800
7.800E-07,0.560
7.900E-07,-0.840
8.000E-07,-2.320
8.100E-07,-2.640
8.200E-07,-2.840
8.300E-07,-3.160
8.400E-07,-3.040
8.500E-07,-3.480
8.600E-07,-3.840
8.700E-07,-3.640
8.800E-07,-2.480
8.900E-07,-1.080
9.000E-07,1.160
9.100E-07,3.200
9.200E-07,4.680
9.300E-07,5.440
9.400E-07,5.440
9.500E-07,5.440
9.600E-07,5.360
9.700E-07,5.360
9.800E-07,5.200
9.900E-07,4.880
1.000E-06,4.200
1.010E-06,3.400
1.020E-06,2.320
1.030E-06,1.240
1.040E-06,0.160
1.050E-06,-0.760
1.060E-06,-1.600
1.070E-06,-2.240
1.080E-06,-2.880
1.090E-06,-3.280
1.100E-06,-3.520
1.110E-06,-3.720
1.120E-06,-3.720
1.130E-06,-3.800
1.140E-06,-3.680
1.150E-06,-3.560
1.160E-06,-3.280
1.170E-06,-3.080
1.180E-06,-2.880
1.190E-06,-2.680
1.200E-06,-2.560
1.210E-06,-2.520
1.220E-06,-2.480
1.230E-06,-2.640
1.240E-06,-2.760
1.250E-06,-3.080
1.260E-06,-3.400
1.270E-06,-4.000
1.280E-06,-4.680
1.290E-06,-5.240
1.300E-06,-5.240
1.310E-06,-5.240
1.320E-06,-5.240
1.330E-06,-5.240
1.340E-06,-5.200
1.350E-06,-5.240
1.360E-06,-5.200
1.370E-06,-4.640
1.380E-06,-2.560
1.390E-06,-0.480
1.400E-06,0.840
1.410E-06,1.400
1.420E-06,1.480
1.430E-06,1.160
1.440E-06,0.840
1.450E-06,0.840
1.460E-06,0.880
1.470E-06,0.600
1.480E-06,0.240
1.490E-06,-0.320
1.500E-06,-1.120
1.510E-06,-1.800
1.520E-06,-2.320
1.530E-06,-2.640
1.540E-06,-2.560
1.550E-06,-2.000
1.560E-06,-1.160
1.570E-06,-0.200
1.580E-06,0.600
1.590E-06,1.160
1.600E-06,1.760
1.610E-06,2.040
1.620E-06,2.280
1.630E-06,2.400
1.640E-06,2.440
1.650E-06,2.360
1.660E-06,2.000
1.670E-06,1.680
1.680E-06,1.160
1.690E-06,0.680
1.700E-06,0.200
1.710E-06,-0.240
1.720E-06,-0.680
1.730E-06,-1.160
1.740E-06,-1.400
1.750E-06,-1.680
1.760E-06,-1.920
1.770E-06,-2.040
1.780E-06,-2.160
1.790E-06,-2.160
1.800E-06,-2.200
1.810E-06,-2.200
1.820E-06,-2.160
1.830E-06,-2.080
1.840E-06,-2.040
1.850E-06,-2.000
1.860E-06,-1.920
1.870E-06,-1.920
1.880E-06,-1.920
1.890E-06,-2.000
1.900E-06,-2.080
1.910E-06,-2.160
1.920E-06,-2.240
1.930E-06,-2.360
1.940E-06,-2.480
1.950E-06,-2.520
1.960E-06,-2.600
1.970E-06,-2.680
1.980E-06,-2.720
1.990E-06,-2.720
2.000E-06,-2.720
2.010E-06,-2.640
2.020E-06,-2.520
2.030E-06,-2.400
2.040E-06,-2.280
2.050E-06,-2.080
2.060E-06,-1.880
2.070E-06,-1.800
2.080E-06,-1.640
2.090E-06,-1.480
2.100E-06,-1.320
2.110E-06,-1.160
2.120E-06,-1.040
2.130E-06,-0.880
2.140E-06,-0.760
2.150E-06,-0.640
2.160E-06,-0.560
2.170E-06,-0.560
2.180E-06,-0.560
2.190E-06,-0.520
2.200E-06,-0.600
2.210E-06,-0.600
2.220E-06,-0.680
2.230E-06,-0.680
2.240E-06,-0.720
2.250E-06,-0.840
2.260E-06,-0.880
2.270E-06,-0.880
2.280E-06,-0.960
2.290E-06,-1.000
2.300E-06,-1.000
2.310E-06,-1.000
2.320E-06,-1.080
2.330E-06,-1.080
2.340E-06,-1.080
2.350E-06,-1.120
2.360E-06,-1.160
2.370E-06,-1.160
2.380E-06,-1.120
2.390E-06,-1.160
2.400E-06,-1.080
2.410E-06,-1.120
2.420E-06,-1.080
2.430E-06,-1.080
2.440E-06,-1.040
2.450E-06,-1.000
2.460E-06,-1.040
2.470E-06,-1.080
2.480E-06,-1.160
2.490E-06,-1.160
2.500E-06,-1.160
2.510E-06,-1.240
2.520E-06,-1.280
2.530E-06,-1.280
2.540E-06,-1.320
2.550E-06,-1.360
2.560E-06,-1.400
2.570E-06,-1.400
2.580E-06,-1.480
2.590E-06,-1.520
2.600E-06,-1.520
2.610E-06,-1.480
2.620E-06,-1.440
2.630E-06,-1.440
2.640E-06,-1.400
2.650E-06,-1.360
2.660E-06,-1.360
2.670E-06,-1.320
2.680E-06,-1.320
2.690E-06,-1.360
2.700E-06,-1.320
2.710E-06,-1.280
2.720E-06,-1.240
2.730E-06,-1.200
2.740E-06,-1.160
2.750E-06,-1.080
2.760E-06,-1.080
2.770E-06,-1.040
2.780E-06,-0.960
2.790E-06,-0.880
2.800E-06,-0.880
2.810E-06,-0.840
2.820E-06,-0.840
2.830E-06,-0.800
2.840E-06,-0.760
2.850E-06,-0.800
2.860E-06,-0.760
2.870E-06,-0.760
2.880E-06,-0.800
2.890E-06,-0.760
2.900E-06,-0.720
2.910E-06,-0.680
2.920E-06,-0.680
2.930E-06,-0.640
2.940E-06,-0.600
2.950E-06,-0.600
2.960E-06,-0.560
2.970E-06,-0.560
2.980E-06,-0.600
2.990E-06,-0.520
3.000E-06,-0.560
3.010E-06,-0.520
3.020E-06,-0.560
3.030E-06,-0.560
3.040E-06,-0.480
3.050E-06,-0.480
3.060E-06,-0.480
3.070E-06,-0.480
3.080E-06,-0.560
3.090E-06,-0.600
