mediciones/5-22/-5/WaveData4936.csv

#timebase=2000000(ps)
,#voltbase=100000(mv/100)
#size=4000
-8.400E-06,-0.012
-8.390E-06,0.004
-8.380E-06,0.020
-8.370E-06,0.024
-8.360E-06,0.016
-8.350E-06,0.012
-8.340E-06,-0.016
-8.330E-06,-0.008
-8.320E-06,-0.004
-8.310E-06,0.004
-8.300E-06,0.020
-8.290E-06,0.016
-8.280E-06,0.016
-8.270E-06,0.012
-8.260E-06,0.004
-8.250E-06,0.000
-8.240E-06,-0.004
-8.230E-06,-0.004
-8.220E-06,-0.004
-8.210E-06,0.000
-8.200E-06,0.004
-8.190E-06,0.008
-8.180E-06,0.016
-8.170E-06,0.000
-8.160E-06,-0.004
-8.150E-06,0.000
-8.140E-06,0.004
-8.130E-06,0.004
-8.120E-06,0.004
-8.110E-06,0.000
-8.100E-06,-0.004
-8.090E-06,-0.020
-8.080E-06,-0.008
-8.070E-06,-0.008
-8.060E-06,0.000
-8.050E-06,0.008
-8.040E-06,0.008
-8.030E-06,0.008
-8.020E-06,-0.004
-8.010E-06,0.000
-8.000E-06,-0.012
-7.990E-06,-0.008
-7.980E-06,0.000
-7.970E-06,0.008
-7.960E-06,0.012
-7.950E-06,0.008
-7.940E-06,0.004
-7.930E-06,0.000
-7.920E-06,-0.004
-7.910E-06,-0.004
-7.900E-06,0.000
-7.890E-06,0.008
-7.880E-06,0.008
-7.870E-06,0.012
-7.860E-06,0.008
-7.850E-06,0.004
-7.840E-06,-0.004
-7.830E-06,0.000
-7.820E-06,-0.004
-7.810E-06,-0.004
-7.800E-06,0.004
-7.790E-06,0.008
-7.780E-06,0.004
-7.770E-06,0.008
-7.760E-06,0.008
-7.750E-06,-0.004
-7.740E-06,0.000
-7.730E-06,0.000
-7.720E-06,-0.004
-7.710E-06,0.008
-7.700E-06,0.004
-7.690E-06,0.004
-7.680E-06,0.004
-7.670E-06,0.000
-7.660E-06,0.004
-7.650E-06,0.000
-7.640E-06,0.008
-7.630E-06,0.008
-7.620E-06,0.004
-7.610E-06,0.004
-7.600E-06,0.012
-7.590E-06,0.016
-7.580E-06,0.008
-7.570E-06,0.004
-7.560E-06,-0.012
-7.550E-06,-0.012
-7.540E-06,-0.004
-7.530E-06,-0.004
-7.520E-06,0.016
-7.510E-06,0.020
-7.500E-06,0.012
-7.490E-06,0.000
-7.480E-06,-0.004
-7.470E-06,-0.024
-7.460E-06,-0.016
-7.450E-06,0.012
-7.440E-06,0.020
-7.430E-06,0.028
-7.420E-06,0.012
-7.410E-06,0.000
-7.400E-06,-0.016
-7.390E-06,-0.024
-7.380E-06,-0.004
-7.370E-06,0.004
-7.360E-06,0.024
-7.350E-06,0.020
-7.340E-06,0.008
-7.330E-06,-0.008
-7.320E-06,-0.012
-7.310E-06,-0.016
-7.300E-06,-0.004
-7.290E-06,0.008
-7.280E-06,0.020
-7.270E-06,0.008
-7.260E-06,0.000
-7.250E-06,-0.004
-7.240E-06,-0.004
-7.230E-06,0.000
-7.220E-06,0.008
-7.210E-06,0.004
-7.200E-06,0.000
-7.190E-06,-0.004
-7.180E-06,-0.012
-7.170E-06,0.000
-7.160E-06,0.000
-7.150E-06,0.008
-7.140E-06,0.012
-7.130E-06,0.012
-7.120E-06,-0.008
-7.110E-06,-0.004
-7.100E-06,-0.004
-7.090E-06,0.004
-7.080E-06,0.008
-7.070E-06,0.008
-7.060E-06,0.008
-7.050E-06,0.004
-7.040E-06,0.004
-7.030E-06,0.004
-7.020E-06,-0.004
-7.010E-06,0.000
-7.000E-06,0.004
-6.990E-06,0.008
-6.980E-06,0.000
-6.970E-06,0.000
-6.960E-06,0.004
-6.950E-06,0.004
-6.940E-06,0.004
-6.930E-06,0.000
-6.920E-06,0.004
-6.910E-06,0.008
-6.900E-06,0.004
-6.890E-06,0.004
-6.880E-06,0.004
-6.870E-06,-0.008
-6.860E-06,-0.024
-6.850E-06,-0.008
-6.840E-06,-0.004
-6.830E-06,0.008
-6.820E-06,0.016
-6.810E-06,0.028
-6.800E-06,0.012
-6.790E-06,0.000
-6.780E-06,-0.008
-6.770E-06,-0.024
-6.760E-06,-0.008
-6.750E-06,0.004
-6.740E-06,0.020
-6.730E-06,0.020
-6.720E-06,0.016
-6.710E-06,0.004
-6.700E-06,-0.016
-6.690E-06,-0.020
-6.680E-06,-0.004
-6.670E-06,0.004
-6.660E-06,0.016
-6.650E-06,0.024
-6.640E-06,0.020
-6.630E-06,0.000
-6.620E-06,-0.008
-6.610E-06,-0.016
-6.600E-06,-0.012
-6.590E-06,0.008
-6.580E-06,0.016
-6.570E-06,0.020
-6.560E-06,0.012
-6.550E-06,0.000
-6.540E-06,-0.008
-6.530E-06,-0.012
-6.520E-06,-0.008
-6.510E-06,0.004
-6.500E-06,0.012
-6.490E-06,0.020
-6.480E-06,0.012
-6.470E-06,0.004
-6.460E-06,-0.004
-6.450E-06,-0.004
-6.440E-06,-0.004
-6.430E-06,0.000
-6.420E-06,0.012
-6.410E-06,0.012
-6.400E-06,0.012
-6.390E-06,0.008
-6.380E-06,0.000
-6.370E-06,-0.004
-6.360E-06,-0.004
-6.350E-06,0.004
-6.340E-06,0.008
-6.330E-06,0.008
-6.320E-06,0.008
-6.310E-06,0.000
-6.300E-06,-0.004
-6.290E-06,0.000
-6.280E-06,0.000
-6.270E-06,0.004
-6.260E-06,0.004
-6.250E-06,0.008
-6.240E-06,0.004
-6.230E-06,0.004
-6.220E-06,0.004
-6.210E-06,0.000
-6.200E-06,0.000
-6.190E-06,-0.004
-6.180E-06,0.000
-6.170E-06,0.000
-6.160E-06,0.008
-6.150E-06,0.008
-6.140E-06,0.004
-6.130E-06,0.004
-6.120E-06,0.000
-6.110E-06,-0.004
-6.100E-06,0.000
-6.090E-06,0.004
-6.080E-06,0.008
-6.070E-06,0.004
-6.060E-06,0.004
-6.050E-06,0.004
-6.040E-06,-0.008
-6.030E-06,-0.012
-6.020E-06,-0.004
-6.010E-06,-0.004
-6.000E-06,0.008
-5.990E-06,0.008
-5.980E-06,0.016
-5.970E-06,0.008
-5.960E-06,-0.004
-5.950E-06,-0.008
-5.940E-06,-0.008
-5.930E-06,-0.004
-5.920E-06,0.008
-5.910E-06,0.012
-5.900E-06,0.012
-5.890E-06,0.004
-5.880E-06,-0.004
-5.870E-06,0.000
-5.860E-06,-0.004
-5.850E-06,0.008
-5.840E-06,0.004
-5.830E-06,0.012
-5.820E-06,0.008
-5.810E-06,0.004
-5.800E-06,0.000
-5.790E-06,0.000
-5.780E-06,0.000
-5.770E-06,0.000
-5.760E-06,-0.004
-5.750E-06,0.000
-5.740E-06,0.000
-5.730E-06,0.004
-5.720E-06,0.004
-5.710E-06,0.000
-5.700E-06,0.000
-5.690E-06,0.000
-5.680E-06,0.000
-5.670E-06,0.004
-5.660E-06,0.004
-5.650E-06,0.008
-5.640E-06,0.004
-5.630E-06,0.000
-5.620E-06,0.000
-5.610E-06,0.000
-5.600E-06,0.004
-5.590E-06,0.012
-5.580E-06,0.008
-5.570E-06,0.008
-5.560E-06,0.004
-5.550E-06,0.004
-5.540E-06,0.000
-5.530E-06,0.012
-5.520E-06,0.020
-5.510E-06,0.008
-5.500E-06,-0.004
-5.490E-06,-0.008
-5.480E-06,-0.008
-5.470E-06,-0.004
-5.460E-06,0.004
-5.450E-06,0.016
-5.440E-06,0.012
-5.430E-06,0.012
-5.420E-06,-0.004
-5.410E-06,-0.012
-5.400E-06,-0.008
-5.390E-06,0.004
-5.380E-06,0.020
-5.370E-06,0.020
-5.360E-06,0.012
-5.350E-06,-0.004
-5.340E-06,-0.008
-5.330E-06,-0.008
-5.320E-06,-0.008
-5.310E-06,0.004
-5.300E-06,0.012
-5.290E-06,0.012
-5.280E-06,0.008
-5.270E-06,0.008
-5.260E-06,-0.004
-5.250E-06,-0.008
-5.240E-06,-0.004
-5.230E-06,-0.008
-5.220E-06,0.000
-5.210E-06,0.004
-5.200E-06,0.012
-5.190E-06,0.012
-5.180E-06,0.000
-5.170E-06,-0.004
-5.160E-06,-0.008
-5.150E-06,-0.004
-5.140E-06,0.008
-5.130E-06,0.012
-5.120E-06,0.012
-5.110E-06,0.004
-5.100E-06,0.000
-5.090E-06,-0.008
-5.080E-06,-0.004
-5.070E-06,0.004
-5.060E-06,0.008
-5.050E-06,0.008
-5.040E-06,0.004
-5.030E-06,-0.004
-5.020E-06,-0.004
-5.010E-06,0.000
-5.000E-06,0.004
-4.990E-06,0.008
-4.980E-06,0.008
-4.970E-06,0.004
-4.960E-06,0.000
-4.950E-06,0.004
-4.940E-06,0.000
-4.930E-06,0.004
-4.920E-06,0.000
-4.910E-06,0.000
-4.900E-06,0.004
-4.890E-06,0.004
-4.880E-06,0.008
-4.870E-06,0.004
-4.860E-06,0.008
-4.850E-06,0.008
-4.840E-06,0.008
-4.830E-06,0.000
-4.820E-06,0.000
-4.810E-06,0.000
-4.800E-06,-0.004
-4.790E-06,0.000
-4.780E-06,0.004
-4.770E-06,0.008
-4.760E-06,0.008
-4.750E-06,0.008
-4.740E-06,0.000
-4.730E-06,0.004
-4.720E-06,0.004
-4.710E-06,0.000
-4.700E-06,0.004
-4.690E-06,0.004
-4.680E-06,0.004
-4.670E-06,0.004
-4.660E-06,0.008
-4.650E-06,0.004
-4.640E-06,-0.004
-4.630E-06,0.000
-4.620E-06,0.004
-4.610E-06,0.000
-4.600E-06,0.008
-4.590E-06,0.008
-4.580E-06,0.004
-4.570E-06,0.008
-4.560E-06,0.000
-4.550E-06,0.004
-4.540E-06,0.008
-4.530E-06,0.008
-4.520E-06,0.008
-4.510E-06,0.008
-4.500E-06,0.008
-4.490E-06,0.008
-4.480E-06,0.004
-4.470E-06,0.008
-4.460E-06,0.004
-4.450E-06,0.012
-4.440E-06,0.012
-4.430E-06,0.012
-4.420E-06,0.012
-4.410E-06,0.012
-4.400E-06,0.012
-4.390E-06,0.016
-4.380E-06,0.020
-4.370E-06,0.024
-4.360E-06,0.028
-4.350E-06,0.028
-4.340E-06,0.028
-4.330E-06,0.032
-4.320E-06,0.032
-4.310E-06,0.040
-4.300E-06,0.032
-4.290E-06,0.028
-4.280E-06,0.028
-4.270E-06,0.020
-4.260E-06,0.000
-4.250E-06,-0.040
-4.240E-06,-0.096
-4.230E-06,-0.080
-4.220E-06,-0.068
-4.210E-06,0.004
-4.200E-06,0.056
-4.190E-06,0.092
-4.180E-06,0.040
-4.170E-06,-0.020
-4.160E-06,-0.076
-4.150E-06,-0.120
-4.140E-06,-0.060
-4.130E-06,-0.004
-4.120E-06,0.048
-4.110E-06,0.060
-4.100E-06,0.040
-4.090E-06,-0.012
-4.080E-06,-0.060
-4.070E-06,-0.060
-4.060E-06,-0.036
-4.050E-06,0.016
-4.040E-06,0.044
-4.030E-06,0.044
-4.020E-06,0.032
-4.010E-06,0.012
-4.000E-06,-0.028
-3.990E-06,-0.036
-3.980E-06,-0.032
-3.970E-06,-0.008
-3.960E-06,0.024
-3.950E-06,0.028
-3.940E-06,0.024
-3.930E-06,0.012
-3.920E-06,0.000
-3.910E-06,-0.016
-3.900E-06,-0.020
-3.890E-06,-0.004
-3.880E-06,0.008
-3.870E-06,0.024
-3.860E-06,0.024
-3.850E-06,0.016
-3.840E-06,0.000
-3.830E-06,-0.012
-3.820E-06,-0.008
-3.810E-06,-0.004
-3.800E-06,0.008
-3.790E-06,0.024
-3.780E-06,0.028
-3.770E-06,0.020
-3.760E-06,0.000
-3.750E-06,-0.008
-3.740E-06,-0.012
-3.730E-06,-0.008
-3.720E-06,0.008
-3.710E-06,0.020
-3.700E-06,0.028
-3.690E-06,0.020
-3.680E-06,0.008
-3.670E-06,-0.004
-3.660E-06,-0.008
-3.650E-06,-0.008
-3.640E-06,0.004
-3.630E-06,0.016
-3.620E-06,0.024
-3.610E-06,0.016
-3.600E-06,0.012
-3.590E-06,-0.004
-3.580E-06,0.000
-3.570E-06,0.008
-3.560E-06,0.024
-3.550E-06,0.036
-3.540E-06,0.036
-3.530E-06,0.040
-3.520E-06,0.036
-3.510E-06,0.036
-3.500E-06,0.036
-3.490E-06,0.056
-3.480E-06,0.072
-3.470E-06,0.072
-3.460E-06,0.072
-3.450E-06,0.052
-3.440E-06,0.040
-3.430E-06,-0.008
-3.420E-06,-0.084
-3.410E-06,-0.144
-3.400E-06,-0.160
-3.390E-06,-0.084
-3.380E-06,0.024
-3.370E-06,0.092
-3.360E-06,0.104
-3.350E-06,0.056
-3.340E-06,0.000
-3.330E-06,-0.044
-3.320E-06,-0.044
-3.310E-06,-0.004
-3.300E-06,0.032
-3.290E-06,0.068
-3.280E-06,0.060
-3.270E-06,-0.028
-3.260E-06,-0.144
-3.250E-06,-0.172
-3.240E-06,-0.128
-3.230E-06,-0.008
-3.220E-06,0.080
-3.210E-06,0.108
-3.200E-06,0.068
-3.190E-06,0.008
-3.180E-06,-0.056
-3.170E-06,-0.104
-3.160E-06,-0.076
-3.150E-06,-0.004
-3.140E-06,0.056
-3.130E-06,0.072
-3.120E-06,0.056
-3.110E-06,0.008
-3.100E-06,-0.024
-3.090E-06,-0.036
-3.080E-06,-0.024
-3.070E-06,-0.008
-3.060E-06,0.020
-3.050E-06,0.032
-3.040E-06,0.032
-3.030E-06,0.028
-3.020E-06,0.008
-3.010E-06,-0.004
-3.000E-06,-0.012
-2.990E-06,-0.012
-2.980E-06,-0.004
-2.970E-06,0.012
-2.960E-06,0.020
-2.950E-06,0.020
-2.940E-06,0.004
-2.930E-06,0.000
-2.920E-06,-0.008
-2.910E-06,-0.004
-2.900E-06,0.008
-2.890E-06,0.012
-2.880E-06,0.012
-2.870E-06,0.008
-2.860E-06,0.000
-2.850E-06,0.000
-2.840E-06,0.004
-2.830E-06,0.008
-2.820E-06,0.012
-2.810E-06,0.012
-2.800E-06,0.004
-2.790E-06,0.004
-2.780E-06,0.000
-2.770E-06,0.008
-2.760E-06,0.012
-2.750E-06,0.012
-2.740E-06,0.012
-2.730E-06,0.008
-2.720E-06,0.008
-2.710E-06,0.012
-2.700E-06,0.012
-2.690E-06,0.020
-2.680E-06,0.024
-2.670E-06,0.020
-2.660E-06,0.024
-2.650E-06,0.040
-2.640E-06,0.040
-2.630E-06,0.064
-2.620E-06,0.088
-2.610E-06,0.092
-2.600E-06,0.088
-2.590E-06,0.044
-2.580E-06,-0.036
-2.570E-06,-0.108
-2.560E-06,-0.136
-2.550E-06,-0.104
-2.540E-06,-0.028
-2.530E-06,0.044
-2.520E-06,0.084
-2.510E-06,0.064
-2.500E-06,0.012
-2.490E-06,-0.040
-2.480E-06,-0.068
-2.470E-06,-0.040
-2.460E-06,0.012
-2.450E-06,0.052
-2.440E-06,0.064
-2.430E-06,0.036
-2.420E-06,-0.012
-2.410E-06,-0.040
-2.400E-06,-0.044
-2.390E-06,-0.020
-2.380E-06,0.004
-2.370E-06,0.036
-2.360E-06,0.040
-2.350E-06,0.024
-2.340E-06,-0.004
-2.330E-06,-0.024
-2.320E-06,-0.020
-2.310E-06,-0.008
-2.300E-06,0.012
-2.290E-06,0.028
-2.280E-06,0.048
-2.270E-06,0.056
-2.260E-06,0.044
-2.250E-06,0.016
-2.240E-06,-0.024
-2.230E-06,-0.044
-2.220E-06,-0.032
-2.210E-06,0.012
-2.200E-06,0.056
-2.190E-06,0.100
-2.180E-06,0.088
-2.170E-06,0.028
-2.160E-06,-0.056
-2.150E-06,-0.104
-2.140E-06,-0.088
-2.130E-06,-0.036
-2.120E-06,0.044
-2.110E-06,0.092
-2.100E-06,0.104
-2.090E-06,0.056
-2.080E-06,-0.004
-2.070E-06,-0.044
-2.060E-06,-0.036
-2.050E-06,0.012
-2.040E-06,0.068
-2.030E-06,0.120
-2.020E-06,0.128
-2.010E-06,0.120
-2.000E-06,0.088
-1.990E-06,0.064
-1.980E-06,0.056
-1.970E-06,0.052
-1.960E-06,0.040
-1.950E-06,0.036
-1.940E-06,-0.056
-1.930E-06,-0.124
-1.920E-06,-0.188
-1.910E-06,-0.188
-1.900E-06,-0.148
-1.890E-06,-0.072
-1.880E-06,0.020
-1.870E-06,0.056
-1.860E-06,0.072
-1.850E-06,0.028
-1.840E-06,-0.024
-1.830E-06,-0.072
-1.820E-06,-0.084
-1.810E-06,-0.040
-1.800E-06,0.008
-1.790E-06,0.052
-1.780E-06,0.060
-1.770E-06,0.028
-1.760E-06,-0.024
-1.750E-06,-0.044
-1.740E-06,-0.072
-1.730E-06,-0.056
-1.720E-06,-0.012
-1.710E-06,0.024
-1.700E-06,0.036
-1.690E-06,0.044
-1.680E-06,0.012
-1.670E-06,-0.020
-1.660E-06,-0.028
-1.650E-06,-0.040
-1.640E-06,-0.012
-1.630E-06,0.020
-1.620E-06,0.044
-1.610E-06,0.032
-1.600E-06,0.032
-1.590E-06,0.012
-1.580E-06,0.000
-1.570E-06,0.008
-1.560E-06,0.012
-1.550E-06,0.036
-1.540E-06,0.044
-1.530E-06,0.064
-1.520E-06,0.092
-1.510E-06,0.072
-1.500E-06,0.028
-1.490E-06,-0.028
-1.480E-06,-0.060
-1.470E-06,-0.060
-1.460E-06,-0.020
-1.450E-06,0.040
-1.440E-06,0.084
-1.430E-06,0.096
-1.420E-06,0.048
-1.410E-06,-0.008
-1.400E-06,-0.040
-1.390E-06,-0.032
-1.380E-06,0.012
-1.370E-06,0.056
-1.360E-06,0.088
-1.350E-06,0.068
-1.340E-06,0.044
-1.330E-06,0.028
-1.320E-06,0.024
-1.310E-06,0.040
-1.300E-06,0.072
-1.290E-06,0.108
-1.280E-06,0.120
-1.270E-06,0.108
-1.260E-06,0.076
-1.250E-06,0.048
-1.240E-06,0.028
-1.230E-06,0.024
-1.220E-06,0.012
-1.210E-06,0.008
-1.200E-06,-0.004
-1.190E-06,-0.008
-1.180E-06,-0.012
-1.170E-06,-0.024
-1.160E-06,0.024
-1.150E-06,0.048
-1.140E-06,0.060
-1.130E-06,0.020
-1.120E-06,-0.060
-1.110E-06,-0.120
-1.100E-06,-0.120
-1.090E-06,-0.012
-1.080E-06,0.064
-1.070E-06,0.104
-1.060E-06,0.068
-1.050E-06,-0.028
-1.040E-06,-0.148
-1.030E-06,-0.336
-1.020E-06,-0.344
-1.010E-06,-0.244
-1.000E-06,-0.044
-9.900E-07,0.100
-9.800E-07,0.208
-9.700E-07,0.176
-9.600E-07,0.028
-9.500E-07,-0.096
-9.400E-07,-0.216
-9.300E-07,-0.200
-9.200E-07,-0.088
-9.100E-07,0.048
-9.000E-07,0.124
-8.900E-07,0.152
-8.800E-07,0.092
-8.700E-07,-0.016
-8.600E-07,-0.100
-8.500E-07,-0.124
-8.400E-07,-0.088
-8.300E-07,-0.004
-8.200E-07,0.040
-8.100E-07,0.056
-8.000E-07,0.052
-7.900E-07,0.004
-7.800E-07,-0.032
-7.700E-07,-0.052
-7.600E-07,-0.044
-7.500E-07,-0.012
-7.400E-07,0.028
-7.300E-07,0.040
-7.200E-07,0.036
-7.100E-07,0.032
-7.000E-07,0.004
-6.900E-07,-0.004
-6.800E-07,-0.016
-6.700E-07,-0.004
-6.600E-07,0.008
-6.500E-07,0.024
-6.400E-07,0.036
-6.300E-07,0.032
-6.200E-07,0.024
-6.100E-07,0.016
-6.000E-07,0.004
-5.900E-07,-0.004
-5.800E-07,0.016
-5.700E-07,0.036
-5.600E-07,0.036
-5.500E-07,0.044
-5.400E-07,0.040
-5.300E-07,0.036
-5.200E-07,0.036
-5.100E-07,0.044
-5.000E-07,0.048
-4.900E-07,0.060
-4.800E-07,0.052
-4.700E-07,0.044
-4.600E-07,0.032
-4.500E-07,0.024
-4.400E-07,0.028
-4.300E-07,0.028
-4.200E-07,0.028
-4.100E-07,0.020
-4.000E-07,0.008
-3.900E-07,-0.004
-3.800E-07,0.008
-3.700E-07,0.024
-3.600E-07,0.052
-3.500E-07,0.068
-3.400E-07,0.076
-3.300E-07,0.068
-3.200E-07,0.072
-3.100E-07,0.084
-3.000E-07,0.096
-2.900E-07,0.112
-2.800E-07,0.124
-2.700E-07,0.132
-2.600E-07,0.132
-2.500E-07,0.100
-2.400E-07,0.076
-2.300E-07,0.060
-2.200E-07,0.040
-2.100E-07,0.016
-2.000E-07,0.016
-1.900E-07,0.044
-1.800E-07,0.072
-1.700E-07,0.112
-1.600E-07,0.128
-1.500E-07,0.112
-1.400E-07,0.100
-1.300E-07,0.068
-1.200E-07,0.032
-1.100E-07,-0.004
-1.000E-07,-0.076
-9.000E-08,-0.080
-8.000E-08,-0.088
-7.000E-08,-0.176
-6.000E-08,-0.328
-5.000E-08,-0.512
-4.000E-08,-0.512
-3.000E-08,-0.512
-2.000E-08,-0.276
-1.000E-08,0.060
0.000E+00,0.344
1.000E-08,0.456
2.000E-08,0.236
3.000E-08,-0.084
4.000E-08,-0.384
5.000E-08,-0.400
6.000E-08,-0.180
7.000E-08,0.104
8.000E-08,0.296
9.000E-08,0.336
1.000E-07,0.212
1.100E-07,-0.028
1.200E-07,-0.208
1.300E-07,-0.256
1.400E-07,-0.124
1.500E-07,0.088
1.600E-07,0.216
1.700E-07,0.220
1.800E-07,0.144
1.900E-07,-0.004
2.000E-07,-0.144
2.100E-07,-0.168
2.200E-07,-0.096
2.300E-07,0.048
2.400E-07,0.144
2.500E-07,0.156
2.600E-07,0.076
2.700E-07,-0.028
2.800E-07,-0.136
2.900E-07,-0.172
3.000E-07,-0.116
3.100E-07,-0.016
3.200E-07,0.096
3.300E-07,0.132
3.400E-07,0.108
3.500E-07,0.024
3.600E-07,-0.056
3.700E-07,-0.100
3.800E-07,-0.072
3.900E-07,0.008
4.000E-07,0.088
4.100E-07,0.128
4.200E-07,0.108
4.300E-07,0.040
4.400E-07,-0.020
4.500E-07,-0.056
4.600E-07,-0.040
4.700E-07,0.012
4.800E-07,0.068
4.900E-07,0.096
5.000E-07,0.080
5.100E-07,0.044
5.200E-07,0.008
5.300E-07,-0.012
5.400E-07,0.004
5.500E-07,0.044
5.600E-07,0.096
5.700E-07,0.144
5.800E-07,0.160
5.900E-07,0.136
6.000E-07,0.124
6.100E-07,0.096
6.200E-07,0.096
6.300E-07,0.112
6.400E-07,0.140
6.500E-07,0.152
6.600E-07,0.156
6.700E-07,0.136
6.800E-07,0.112
6.900E-07,0.092
7.000E-07,0.100
7.100E-07,0.092
7.200E-07,0.096
7.300E-07,0.096
7.400E-07,0.096
7.500E-07,0.092
7.600E-07,0.076
7.700E-07,0.092
7.800E-07,0.096
7.900E-07,-0.128
8.000E-07,-0.508
8.100E-07,-0.508
8.200E-07,-0.508
8.300E-07,-0.508
8.400E-07,-0.176
8.500E-07,0.540
8.600E-07,0.544
8.700E-07,0.544
8.800E-07,0.236
8.900E-07,-0.500
9.000E-07,-0.512
9.100E-07,-0.512
9.200E-07,-0.264
9.300E-07,0.496
9.400E-07,0.540
9.500E-07,0.540
9.600E-07,0.232
9.700E-07,-0.400
9.800E-07,-0.512
9.900E-07,-0.512
1.000E-06,-0.424
1.010E-06,0.164
1.020E-06,0.540
1.030E-06,0.540
1.040E-06,0.356
1.050E-06,-0.152
1.060E-06,-0.464
1.070E-06,-0.512
1.080E-06,-0.324
1.090E-06,0.024
1.100E-06,0.340
1.110E-06,0.448
1.120E-06,0.308
1.130E-06,0.032
1.140E-06,-0.232
1.150E-06,-0.320
1.160E-06,-0.252
1.170E-06,-0.040
1.180E-06,0.156
1.190E-06,0.280
1.200E-06,0.232
1.210E-06,0.092
1.220E-06,-0.088
1.230E-06,-0.204
1.240E-06,-0.172
1.250E-06,-0.068
1.260E-06,0.088
1.270E-06,0.168
1.280E-06,0.180
1.290E-06,0.092
1.300E-06,-0.008
1.310E-06,-0.104
1.320E-06,-0.104
1.330E-06,-0.032
1.340E-06,0.068
1.350E-06,0.152
1.360E-06,0.160
1.370E-06,0.148
1.380E-06,0.084
1.390E-06,0.028
1.400E-06,-0.040
1.410E-06,-0.040
1.420E-06,-0.016
1.430E-06,0.024
1.440E-06,0.060
1.450E-06,0.088
1.460E-06,0.096
1.470E-06,0.088
1.480E-06,0.064
1.490E-06,0.048
1.500E-06,0.032
1.510E-06,0.056
1.520E-06,0.104
1.530E-06,0.136
1.540E-06,0.164
1.550E-06,0.168
1.560E-06,0.112
1.570E-06,0.052
1.580E-06,-0.060
1.590E-06,-0.176
1.600E-06,-0.240
1.610E-06,-0.236
1.620E-06,-0.156
1.630E-06,-0.064
1.640E-06,0.012
1.650E-06,0.068
1.660E-06,0.076
1.670E-06,0.008
1.680E-06,-0.096
1.690E-06,-0.104
1.700E-06,-0.140
1.710E-06,-0.100
1.720E-06,-0.032
1.730E-06,0.000
1.740E-06,0.016
1.750E-06,0.040
1.760E-06,-0.008
1.770E-06,-0.072
1.780E-06,-0.060
1.790E-06,-0.076
1.800E-06,-0.028
1.810E-06,0.044
1.820E-06,0.064
1.830E-06,0.048
1.840E-06,0.040
1.850E-06,-0.008
1.860E-06,-0.068
1.870E-06,-0.036
1.880E-06,0.020
1.890E-06,0.092
1.900E-06,0.148
1.910E-06,0.112
1.920E-06,0.024
1.930E-06,-0.044
1.940E-06,-0.096
1.950E-06,-0.072
1.960E-06,0.012
1.970E-06,0.128
1.980E-06,0.200
1.990E-06,0.164
2.000E-06,0.076
2.010E-06,-0.064
2.020E-06,-0.140
2.030E-06,-0.132
2.040E-06,-0.036
2.050E-06,0.072
2.060E-06,0.144
2.070E-06,0.132
2.080E-06,0.068
2.090E-06,-0.048
2.100E-06,-0.124
2.110E-06,-0.112
2.120E-06,-0.076
2.130E-06,-0.040
2.140E-06,-0.012
2.150E-06,-0.008
2.160E-06,-0.048
2.170E-06,-0.044
2.180E-06,-0.020
2.190E-06,0.004
2.200E-06,0.040
2.210E-06,0.048
2.220E-06,0.032
2.230E-06,0.032
2.240E-06,0.040
2.250E-06,0.056
2.260E-06,0.096
2.270E-06,0.108
2.280E-06,0.104
2.290E-06,0.084
2.300E-06,0.044
2.310E-06,0.032
2.320E-06,0.040
2.330E-06,0.068
2.340E-06,0.096
2.350E-06,0.108
2.360E-06,0.108
2.370E-06,0.092
2.380E-06,0.072
2.390E-06,0.064
2.400E-06,0.060
2.410E-06,0.064
2.420E-06,0.084
2.430E-06,0.088
2.440E-06,0.096
2.450E-06,0.104
2.460E-06,0.112
2.470E-06,0.100
2.480E-06,0.076
2.490E-06,0.052
2.500E-06,0.024
2.510E-06,0.000
2.520E-06,-0.044
2.530E-06,-0.092
2.540E-06,-0.120
2.550E-06,-0.136
2.560E-06,-0.140
2.570E-06,-0.160
2.580E-06,-0.112
2.590E-06,-0.096
2.600E-06,-0.036
2.610E-06,-0.036
2.620E-06,-0.036
2.630E-06,-0.012
2.640E-06,-0.024
2.650E-06,-0.024
2.660E-06,-0.020
2.670E-06,-0.008
2.680E-06,0.024
2.690E-06,0.020
2.700E-06,0.032
2.710E-06,0.020
2.720E-06,0.108
2.730E-06,0.116
2.740E-06,0.092
2.750E-06,0.092
2.760E-06,0.080
2.770E-06,0.064
2.780E-06,0.072
2.790E-06,0.108
2.800E-06,0.128
2.810E-06,0.176
2.820E-06,0.164
2.830E-06,0.124
2.840E-06,0.104
2.850E-06,0.100
2.860E-06,0.104
2.870E-06,0.124
2.880E-06,0.140
2.890E-06,0.140
2.900E-06,0.140
2.910E-06,0.124
2.920E-06,0.112
2.930E-06,0.088
2.940E-06,-0.044
2.950E-06,-0.272
2.960E-06,-0.340
2.970E-06,0.032
2.980E-06,0.388
2.990E-06,0.472
3.000E-06,0.092
3.010E-06,-0.304
3.020E-06,-0.508
3.030E-06,-0.508
3.040E-06,-0.512
3.050E-06,-0.060
3.060E-06,0.540
3.070E-06,0.540
3.080E-06,0.452
3.090E-06,-0.504
3.100E-06,-0.512
3.110E-06,-0.512
3.120E-06,-0.512
3.130E-06,0.252
3.140E-06,0.540
3.150E-06,0.540
3.160E-06,0.372
3.170E-06,-0.160
3.180E-06,-0.512
3.190E-06,-0.508
3.200E-06,-0.308
3.210E-06,0.164
3.220E-06,0.488
3.230E-06,0.540
3.240E-06,0.340
3.250E-06,-0.112
3.260E-06,-0.400
3.270E-06,-0.504
3.280E-06,-0.300
