mediciones/5-22/-5/WaveData4946.csv

#timebase=2000000(ps)
,#voltbase=100000(mv/100)
#size=4000
-8.400E-06,0.004
-8.390E-06,0.000
-8.380E-06,0.000
-8.370E-06,0.004
-8.360E-06,0.000
-8.350E-06,0.000
-8.340E-06,0.000
-8.330E-06,0.000
-8.320E-06,0.004
-8.310E-06,0.004
-8.300E-06,0.000
-8.290E-06,0.000
-8.280E-06,0.000
-8.270E-06,0.000
-8.260E-06,0.000
-8.250E-06,0.000
-8.240E-06,0.000
-8.230E-06,0.004
-8.220E-06,0.004
-8.210E-06,0.000
-8.200E-06,0.000
-8.190E-06,-0.004
-8.180E-06,0.000
-8.170E-06,0.000
-8.160E-06,0.004
-8.150E-06,0.000
-8.140E-06,0.004
-8.130E-06,0.004
-8.120E-06,0.004
-8.110E-06,0.004
-8.100E-06,0.004
-8.090E-06,0.000
-8.080E-06,0.000
-8.070E-06,0.000
-8.060E-06,0.000
-8.050E-06,0.004
-8.040E-06,0.004
-8.030E-06,0.004
-8.020E-06,-0.004
-8.010E-06,0.000
-8.000E-06,0.000
-7.990E-06,-0.004
-7.980E-06,0.000
-7.970E-06,0.004
-7.960E-06,0.000
-7.950E-06,0.004
-7.940E-06,0.008
-7.930E-06,0.004
-7.920E-06,0.008
-7.910E-06,0.012
-7.900E-06,-0.004
-7.890E-06,-0.004
-7.880E-06,-0.012
-7.870E-06,0.032
-7.860E-06,0.024
-7.850E-06,-0.064
-7.840E-06,0.004
-7.830E-06,0.004
-7.820E-06,0.040
-7.810E-06,0.004
-7.800E-06,0.004
-7.790E-06,0.004
-7.780E-06,0.000
-7.770E-06,-0.004
-7.760E-06,0.000
-7.750E-06,0.004
-7.740E-06,0.008
-7.730E-06,0.020
-7.720E-06,0.004
-7.710E-06,0.004
-7.700E-06,-0.008
-7.690E-06,0.004
-7.680E-06,-0.012
-7.670E-06,0.004
-7.660E-06,0.008
-7.650E-06,0.008
-7.640E-06,0.004
-7.630E-06,0.000
-7.620E-06,-0.004
-7.610E-06,-0.004
-7.600E-06,0.008
-7.590E-06,0.000
-7.580E-06,0.008
-7.570E-06,0.000
-7.560E-06,0.004
-7.550E-06,0.000
-7.540E-06,0.008
-7.530E-06,0.000
-7.520E-06,0.000
-7.510E-06,0.004
-7.500E-06,-0.004
-7.490E-06,0.000
-7.480E-06,0.004
-7.470E-06,0.000
-7.460E-06,-0.004
-7.450E-06,0.004
-7.440E-06,0.000
-7.430E-06,0.000
-7.420E-06,0.000
-7.410E-06,0.000
-7.400E-06,0.008
-7.390E-06,0.004
-7.380E-06,0.004
-7.370E-06,0.008
-7.360E-06,0.000
-7.350E-06,0.000
-7.340E-06,0.008
-7.330E-06,0.004
-7.320E-06,0.008
-7.310E-06,0.008
-7.300E-06,0.008
-7.290E-06,0.008
-7.280E-06,0.000
-7.270E-06,0.004
-7.260E-06,0.000
-7.250E-06,0.004
-7.240E-06,0.000
-7.230E-06,0.004
-7.220E-06,0.004
-7.210E-06,0.000
-7.200E-06,0.004
-7.190E-06,0.008
-7.180E-06,-0.004
-7.170E-06,-0.004
-7.160E-06,0.004
-7.150E-06,0.000
-7.140E-06,0.004
-7.130E-06,0.004
-7.120E-06,0.004
-7.110E-06,-0.004
-7.100E-06,0.000
-7.090E-06,0.000
-7.080E-06,0.004
-7.070E-06,0.004
-7.060E-06,0.004
-7.050E-06,0.008
-7.040E-06,0.000
-7.030E-06,0.000
-7.020E-06,0.000
-7.010E-06,0.004
-7.000E-06,0.004
-6.990E-06,0.000
-6.980E-06,0.004
-6.970E-06,0.004
-6.960E-06,0.004
-6.950E-06,0.000
-6.940E-06,0.004
-6.930E-06,-0.004
-6.920E-06,0.000
-6.910E-06,0.004
-6.900E-06,0.000
-6.890E-06,0.004
-6.880E-06,0.008
-6.870E-06,0.008
-6.860E-06,0.004
-6.850E-06,0.004
-6.840E-06,0.000
-6.830E-06,0.008
-6.820E-06,0.012
-6.810E-06,0.004
-6.800E-06,0.004
-6.790E-06,0.004
-6.780E-06,0.000
-6.770E-06,-0.004
-6.760E-06,0.004
-6.750E-06,0.000
-6.740E-06,0.008
-6.730E-06,0.000
-6.720E-06,0.004
-6.710E-06,0.008
-6.700E-06,0.000
-6.690E-06,-0.004
-6.680E-06,0.004
-6.670E-06,0.008
-6.660E-06,0.008
-6.650E-06,0.008
-6.640E-06,-0.004
-6.630E-06,0.000
-6.620E-06,0.000
-6.610E-06,0.000
-6.600E-06,0.004
-6.590E-06,0.000
-6.580E-06,0.004
-6.570E-06,0.008
-6.560E-06,0.004
-6.550E-06,-0.004
-6.540E-06,-0.004
-6.530E-06,0.004
-6.520E-06,0.004
-6.510E-06,0.000
-6.500E-06,0.004
-6.490E-06,0.004
-6.480E-06,0.004
-6.470E-06,0.000
-6.460E-06,0.004
-6.450E-06,0.000
-6.440E-06,0.004
-6.430E-06,0.004
-6.420E-06,0.004
-6.410E-06,0.004
-6.400E-06,0.012
-6.390E-06,0.004
-6.380E-06,0.000
-6.370E-06,0.000
-6.360E-06,0.000
-6.350E-06,0.000
-6.340E-06,0.004
-6.330E-06,0.000
-6.320E-06,0.004
-6.310E-06,0.000
-6.300E-06,0.008
-6.290E-06,0.004
-6.280E-06,0.000
-6.270E-06,-0.004
-6.260E-06,0.000
-6.250E-06,-0.004
-6.240E-06,0.004
-6.230E-06,0.000
-6.220E-06,0.008
-6.210E-06,0.008
-6.200E-06,0.008
-6.190E-06,0.000
-6.180E-06,-0.004
-6.170E-06,-0.008
-6.160E-06,-0.004
-6.150E-06,0.004
-6.140E-06,0.004
-6.130E-06,0.004
-6.120E-06,0.008
-6.110E-06,0.008
-6.100E-06,0.000
-6.090E-06,0.004
-6.080E-06,0.000
-6.070E-06,-0.004
-6.060E-06,0.000
-6.050E-06,0.000
-6.040E-06,0.008
-6.030E-06,0.008
-6.020E-06,0.004
-6.010E-06,0.004
-6.000E-06,-0.004
-5.990E-06,0.000
-5.980E-06,0.000
-5.970E-06,0.000
-5.960E-06,0.004
-5.950E-06,0.008
-5.940E-06,0.004
-5.930E-06,0.000
-5.920E-06,0.004
-5.910E-06,0.004
-5.900E-06,-0.004
-5.890E-06,-0.004
-5.880E-06,0.004
-5.870E-06,0.004
-5.860E-06,0.004
-5.850E-06,0.004
-5.840E-06,0.008
-5.830E-06,0.000
-5.820E-06,0.004
-5.810E-06,0.004
-5.800E-06,0.004
-5.790E-06,0.000
-5.780E-06,0.000
-5.770E-06,-0.004
-5.760E-06,-0.004
-5.750E-06,0.004
-5.740E-06,0.000
-5.730E-06,0.008
-5.720E-06,0.004
-5.710E-06,-0.004
-5.700E-06,0.000
-5.690E-06,-0.004
-5.680E-06,0.004
-5.670E-06,0.004
-5.660E-06,0.008
-5.650E-06,0.008
-5.640E-06,0.000
-5.630E-06,0.000
-5.620E-06,0.000
-5.610E-06,0.004
-5.600E-06,0.000
-5.590E-06,0.000
-5.580E-06,0.004
-5.570E-06,-0.004
-5.560E-06,0.000
-5.550E-06,0.000
-5.540E-06,0.004
-5.530E-06,0.000
-5.520E-06,0.008
-5.510E-06,0.004
-5.500E-06,0.008
-5.490E-06,-0.004
-5.480E-06,0.000
-5.470E-06,-0.004
-5.460E-06,-0.008
-5.450E-06,-0.004
-5.440E-06,0.004
-5.430E-06,0.012
-5.420E-06,0.012
-5.410E-06,0.008
-5.400E-06,0.004
-5.390E-06,0.000
-5.380E-06,-0.008
-5.370E-06,0.000
-5.360E-06,0.008
-5.350E-06,0.012
-5.340E-06,0.004
-5.330E-06,0.008
-5.320E-06,0.000
-5.310E-06,-0.004
-5.300E-06,0.000
-5.290E-06,-0.004
-5.280E-06,0.004
-5.270E-06,0.008
-5.260E-06,0.008
-5.250E-06,0.004
-5.240E-06,0.000
-5.230E-06,0.000
-5.220E-06,-0.004
-5.210E-06,0.004
-5.200E-06,0.004
-5.190E-06,0.008
-5.180E-06,0.004
-5.170E-06,-0.004
-5.160E-06,-0.004
-5.150E-06,-0.004
-5.140E-06,0.000
-5.130E-06,0.008
-5.120E-06,0.008
-5.110E-06,0.012
-5.100E-06,0.000
-5.090E-06,-0.004
-5.080E-06,0.000
-5.070E-06,-0.004
-5.060E-06,-0.004
-5.050E-06,-0.008
-5.040E-06,0.004
-5.030E-06,-0.004
-5.020E-06,0.004
-5.010E-06,0.008
-5.000E-06,0.008
-4.990E-06,0.008
-4.980E-06,0.004
-4.970E-06,0.000
-4.960E-06,0.000
-4.950E-06,0.000
-4.940E-06,0.004
-4.930E-06,0.008
-4.920E-06,0.008
-4.910E-06,0.004
-4.900E-06,0.000
-4.890E-06,-0.008
-4.880E-06,0.000
-4.870E-06,0.004
-4.860E-06,0.008
-4.850E-06,0.008
-4.840E-06,0.004
-4.830E-06,0.004
-4.820E-06,0.000
-4.810E-06,0.004
-4.800E-06,-0.004
-4.790E-06,0.004
-4.780E-06,0.004
-4.770E-06,0.004
-4.760E-06,0.008
-4.750E-06,0.000
-4.740E-06,0.000
-4.730E-06,-0.004
-4.720E-06,0.004
-4.710E-06,0.000
-4.700E-06,0.008
-4.690E-06,0.004
-4.680E-06,0.004
-4.670E-06,0.004
-4.660E-06,0.000
-4.650E-06,0.000
-4.640E-06,-0.004
-4.630E-06,0.004
-4.620E-06,0.004
-4.610E-06,0.008
-4.600E-06,0.000
-4.590E-06,0.000
-4.580E-06,0.004
-4.570E-06,0.004
-4.560E-06,0.008
-4.550E-06,0.004
-4.540E-06,0.004
-4.530E-06,0.004
-4.520E-06,0.004
-4.510E-06,0.000
-4.500E-06,0.004
-4.490E-06,0.008
-4.480E-06,0.004
-4.470E-06,0.004
-4.460E-06,0.000
-4.450E-06,-0.004
-4.440E-06,0.000
-4.430E-06,-0.004
-4.420E-06,0.008
-4.410E-06,0.012
-4.400E-06,0.012
-4.390E-06,0.008
-4.380E-06,0.000
-4.370E-06,0.000
-4.360E-06,-0.004
-4.350E-06,-0.004
-4.340E-06,0.008
-4.330E-06,0.012
-4.320E-06,0.012
-4.310E-06,0.008
-4.300E-06,-0.004
-4.290E-06,-0.004
-4.280E-06,0.000
-4.270E-06,0.000
-4.260E-06,0.008
-4.250E-06,0.008
-4.240E-06,0.008
-4.230E-06,0.008
-4.220E-06,0.000
-4.210E-06,-0.004
-4.200E-06,0.000
-4.190E-06,-0.004
-4.180E-06,0.008
-4.170E-06,0.004
-4.160E-06,0.004
-4.150E-06,0.008
-4.140E-06,0.000
-4.130E-06,0.000
-4.120E-06,0.000
-4.110E-06,0.000
-4.100E-06,0.000
-4.090E-06,0.008
-4.080E-06,0.000
-4.070E-06,0.000
-4.060E-06,-0.008
-4.050E-06,0.004
-4.040E-06,0.000
-4.030E-06,0.000
-4.020E-06,0.004
-4.010E-06,0.012
-4.000E-06,0.008
-3.990E-06,0.004
-3.980E-06,0.004
-3.970E-06,0.000
-3.960E-06,-0.008
-3.950E-06,-0.004
-3.940E-06,0.000
-3.930E-06,0.004
-3.920E-06,0.012
-3.910E-06,0.012
-3.900E-06,0.008
-3.890E-06,0.004
-3.880E-06,0.000
-3.870E-06,0.000
-3.860E-06,-0.004
-3.850E-06,0.004
-3.840E-06,0.012
-3.830E-06,0.012
-3.820E-06,0.008
-3.810E-06,0.000
-3.800E-06,-0.008
-3.790E-06,-0.004
-3.780E-06,0.000
-3.770E-06,0.008
-3.760E-06,0.012
-3.750E-06,0.012
-3.740E-06,0.008
-3.730E-06,0.000
-3.720E-06,0.000
-3.710E-06,-0.004
-3.700E-06,0.000
-3.690E-06,0.008
-3.680E-06,0.008
-3.670E-06,0.008
-3.660E-06,0.004
-3.650E-06,-0.008
-3.640E-06,0.000
-3.630E-06,0.000
-3.620E-06,0.000
-3.610E-06,0.000
-3.600E-06,0.008
-3.590E-06,0.008
-3.580E-06,0.004
-3.570E-06,0.004
-3.560E-06,0.000
-3.550E-06,0.004
-3.540E-06,0.008
-3.530E-06,0.000
-3.520E-06,0.004
-3.510E-06,0.004
-3.500E-06,0.000
-3.490E-06,0.004
-3.480E-06,0.008
-3.470E-06,0.004
-3.460E-06,0.000
-3.450E-06,-0.004
-3.440E-06,-0.004
-3.430E-06,0.004
-3.420E-06,0.008
-3.410E-06,0.008
-3.400E-06,0.004
-3.390E-06,-0.004
-3.380E-06,0.000
-3.370E-06,0.004
-3.360E-06,0.004
-3.350E-06,0.000
-3.340E-06,0.004
-3.330E-06,0.004
-3.320E-06,0.004
-3.310E-06,0.000
-3.300E-06,0.004
-3.290E-06,0.004
-3.280E-06,0.004
-3.270E-06,0.000
-3.260E-06,-0.004
-3.250E-06,-0.004
-3.240E-06,-0.004
-3.230E-06,0.008
-3.220E-06,0.008
-3.210E-06,0.012
-3.200E-06,0.008
-3.190E-06,0.004
-3.180E-06,0.000
-3.170E-06,-0.004
-3.160E-06,0.000
-3.150E-06,0.004
-3.140E-06,0.000
-3.130E-06,0.004
-3.120E-06,0.008
-3.110E-06,0.000
-3.100E-06,0.008
-3.090E-06,0.012
-3.080E-06,0.008
-3.070E-06,0.008
-3.060E-06,0.004
-3.050E-06,-0.004
-3.040E-06,-0.008
-3.030E-06,0.004
-3.020E-06,0.012
-3.010E-06,0.008
-3.000E-06,0.008
-2.990E-06,0.012
-2.980E-06,-0.004
-2.970E-06,-0.008
-2.960E-06,-0.012
-2.950E-06,-0.008
-2.940E-06,0.012
-2.930E-06,0.020
-2.920E-06,0.016
-2.910E-06,0.012
-2.900E-06,-0.008
-2.890E-06,-0.008
-2.880E-06,-0.008
-2.870E-06,0.000
-2.860E-06,0.012
-2.850E-06,0.024
-2.840E-06,0.028
-2.830E-06,0.016
-2.820E-06,0.004
-2.810E-06,-0.008
-2.800E-06,-0.004
-2.790E-06,-0.004
-2.780E-06,0.016
-2.770E-06,0.004
-2.760E-06,0.016
-2.750E-06,0.020
-2.740E-06,-0.004
-2.730E-06,-0.008
-2.720E-06,-0.008
-2.710E-06,-0.008
-2.700E-06,0.000
-2.690E-06,0.020
-2.680E-06,0.016
-2.670E-06,0.008
-2.660E-06,0.008
-2.650E-06,0.000
-2.640E-06,-0.004
-2.630E-06,0.000
-2.620E-06,0.000
-2.610E-06,0.004
-2.600E-06,-0.004
-2.590E-06,-0.004
-2.580E-06,0.000
-2.570E-06,0.004
-2.560E-06,0.000
-2.550E-06,0.004
-2.540E-06,0.008
-2.530E-06,0.004
-2.520E-06,-0.004
-2.510E-06,-0.004
-2.500E-06,0.000
-2.490E-06,0.000
-2.480E-06,0.000
-2.470E-06,0.004
-2.460E-06,0.008
-2.450E-06,0.004
-2.440E-06,0.004
-2.430E-06,-0.004
-2.420E-06,0.004
-2.410E-06,0.008
-2.400E-06,-0.004
-2.390E-06,0.004
-2.380E-06,0.004
-2.370E-06,0.008
-2.360E-06,0.000
-2.350E-06,0.004
-2.340E-06,-0.004
-2.330E-06,0.000
-2.320E-06,0.000
-2.310E-06,0.000
-2.300E-06,0.000
-2.290E-06,0.004
-2.280E-06,0.004
-2.270E-06,0.004
-2.260E-06,0.008
-2.250E-06,0.008
-2.240E-06,0.008
-2.230E-06,0.000
-2.220E-06,0.000
-2.210E-06,0.004
-2.200E-06,0.008
-2.190E-06,0.008
-2.180E-06,0.012
-2.170E-06,0.008
-2.160E-06,0.008
-2.150E-06,0.000
-2.140E-06,0.000
-2.130E-06,0.004
-2.120E-06,0.012
-2.110E-06,0.016
-2.100E-06,0.020
-2.090E-06,0.028
-2.080E-06,0.012
-2.070E-06,0.008
-2.060E-06,0.008
-2.050E-06,0.000
-2.040E-06,-0.008
-2.030E-06,-0.008
-2.020E-06,-0.004
-2.010E-06,0.004
-2.000E-06,0.012
-1.990E-06,0.012
-1.980E-06,0.008
-1.970E-06,0.004
-1.960E-06,0.000
-1.950E-06,-0.008
-1.940E-06,0.000
-1.930E-06,0.000
-1.920E-06,0.004
-1.910E-06,0.008
-1.900E-06,0.008
-1.890E-06,0.004
-1.880E-06,0.000
-1.870E-06,-0.004
-1.860E-06,-0.004
-1.850E-06,0.004
-1.840E-06,0.012
-1.830E-06,0.016
-1.820E-06,0.016
-1.810E-06,0.004
-1.800E-06,-0.004
-1.790E-06,0.000
-1.780E-06,0.008
-1.770E-06,0.000
-1.760E-06,0.012
-1.750E-06,0.012
-1.740E-06,0.016
-1.730E-06,0.004
-1.720E-06,0.000
-1.710E-06,-0.004
-1.700E-06,-0.004
-1.690E-06,0.004
-1.680E-06,0.012
-1.670E-06,0.012
-1.660E-06,0.016
-1.650E-06,0.012
-1.640E-06,-0.004
-1.630E-06,-0.004
-1.620E-06,0.000
-1.610E-06,0.004
-1.600E-06,0.004
-1.590E-06,0.012
-1.580E-06,0.028
-1.570E-06,0.012
-1.560E-06,0.008
-1.550E-06,0.008
-1.540E-06,0.004
-1.530E-06,0.000
-1.520E-06,0.000
-1.510E-06,0.016
-1.500E-06,0.016
-1.490E-06,0.024
-1.480E-06,0.004
-1.470E-06,0.008
-1.460E-06,-0.004
-1.450E-06,-0.004
-1.440E-06,-0.008
-1.430E-06,0.016
-1.420E-06,0.028
-1.410E-06,0.024
-1.400E-06,0.020
-1.390E-06,0.004
-1.380E-06,0.000
-1.370E-06,0.008
-1.360E-06,0.024
-1.350E-06,0.028
-1.340E-06,0.024
-1.330E-06,0.024
-1.320E-06,0.012
-1.310E-06,0.012
-1.300E-06,-0.004
-1.290E-06,0.008
-1.280E-06,0.024
-1.270E-06,0.040
-1.260E-06,0.056
-1.250E-06,0.048
-1.240E-06,0.036
-1.230E-06,0.028
-1.220E-06,0.028
-1.210E-06,-0.004
-1.200E-06,-0.008
-1.190E-06,-0.012
-1.180E-06,-0.008
-1.170E-06,-0.020
-1.160E-06,-0.020
-1.150E-06,-0.020
-1.140E-06,-0.024
-1.130E-06,-0.008
-1.120E-06,-0.008
-1.110E-06,0.000
-1.100E-06,-0.004
-1.090E-06,0.016
-1.080E-06,0.004
-1.070E-06,0.008
-1.060E-06,0.012
-1.050E-06,0.016
-1.040E-06,0.012
-1.030E-06,0.016
-1.020E-06,0.004
-1.010E-06,-0.008
-1.000E-06,0.004
-9.900E-07,0.012
-9.800E-07,0.028
-9.700E-07,0.036
-9.600E-07,0.040
-9.500E-07,0.020
-9.400E-07,0.004
-9.300E-07,0.000
-9.200E-07,-0.004
-9.100E-07,0.012
-9.000E-07,0.032
-8.900E-07,0.044
-8.800E-07,0.036
-8.700E-07,0.040
-8.600E-07,0.032
-8.500E-07,0.024
-8.400E-07,0.028
-8.300E-07,0.044
-8.200E-07,0.048
-8.100E-07,0.056
-8.000E-07,0.044
-7.900E-07,0.044
-7.800E-07,0.032
-7.700E-07,0.032
-7.600E-07,0.032
-7.500E-07,0.020
-7.400E-07,0.016
-7.300E-07,-0.004
-7.200E-07,-0.012
-7.100E-07,-0.016
-7.000E-07,-0.008
-6.900E-07,0.000
-6.800E-07,0.008
-6.700E-07,0.008
-6.600E-07,-0.004
-6.500E-07,-0.016
-6.400E-07,-0.040
-6.300E-07,-0.040
-6.200E-07,-0.028
-6.100E-07,0.004
-6.000E-07,0.028
-5.900E-07,0.052
-5.800E-07,0.044
-5.700E-07,0.036
-5.600E-07,0.020
-5.500E-07,0.012
-5.400E-07,0.024
-5.300E-07,0.052
-5.200E-07,0.068
-5.100E-07,0.076
-5.000E-07,0.076
-4.900E-07,0.052
-4.800E-07,0.044
-4.700E-07,0.036
-4.600E-07,0.056
-4.500E-07,0.064
-4.400E-07,0.064
-4.300E-07,0.060
-4.200E-07,0.044
-4.100E-07,0.028
-4.000E-07,0.032
-3.900E-07,0.036
-3.800E-07,0.044
-3.700E-07,0.044
-3.600E-07,0.040
-3.500E-07,0.024
-3.400E-07,0.020
-3.300E-07,0.012
-3.200E-07,0.016
-3.100E-07,0.028
-3.000E-07,0.040
-2.900E-07,0.048
-2.800E-07,0.060
-2.700E-07,0.068
-2.600E-07,0.068
-2.500E-07,0.060
-2.400E-07,0.068
-2.300E-07,0.072
-2.200E-07,0.076
-2.100E-07,0.088
-2.000E-07,0.076
-1.900E-07,0.092
-1.800E-07,0.088
-1.700E-07,0.084
-1.600E-07,0.064
-1.500E-07,0.084
-1.400E-07,0.100
-1.300E-07,0.104
-1.200E-07,0.152
-1.100E-07,0.168
-1.000E-07,0.092
-9.000E-08,0.008
-8.000E-08,0.064
-7.000E-08,-0.080
-6.000E-08,-0.336
-5.000E-08,-0.456
-4.000E-08,-0.508
-3.000E-08,-0.268
-2.000E-08,0.028
-1.000E-08,0.348
0.000E+00,0.408
1.000E-08,0.076
2.000E-08,-0.360
3.000E-08,-0.512
4.000E-08,-0.512
5.000E-08,-0.468
6.000E-08,0.076
7.000E-08,0.540
8.000E-08,0.536
9.000E-08,0.364
1.000E-07,-0.116
1.100E-07,-0.492
1.200E-07,-0.512
1.300E-07,-0.316
1.400E-07,0.096
1.500E-07,0.412
1.600E-07,0.452
1.700E-07,0.276
1.800E-07,-0.020
1.900E-07,-0.260
2.000E-07,-0.320
2.100E-07,-0.204
2.200E-07,0.024
2.300E-07,0.208
2.400E-07,0.284
2.500E-07,0.204
2.600E-07,0.036
2.700E-07,-0.132
2.800E-07,-0.188
2.900E-07,-0.152
3.000E-07,-0.028
3.100E-07,0.092
3.200E-07,0.168
3.300E-07,0.164
3.400E-07,0.096
3.500E-07,0.008
3.600E-07,-0.068
3.700E-07,-0.072
3.800E-07,-0.024
3.900E-07,0.056
4.000E-07,0.124
4.100E-07,0.144
4.200E-07,0.100
4.300E-07,0.044
4.400E-07,-0.008
4.500E-07,-0.036
4.600E-07,0.000
4.700E-07,0.056
4.800E-07,0.128
4.900E-07,0.160
5.000E-07,0.168
5.100E-07,0.116
5.200E-07,0.068
5.300E-07,0.048
5.400E-07,0.044
5.500E-07,0.092
5.600E-07,0.144
5.700E-07,0.208
5.800E-07,0.216
5.900E-07,0.208
6.000E-07,0.164
6.100E-07,0.128
6.200E-07,0.104
6.300E-07,0.092
6.400E-07,0.076
6.500E-07,-0.040
6.600E-07,0.016
6.700E-07,0.088
6.800E-07,0.204
6.900E-07,0.284
7.000E-07,0.192
7.100E-07,-0.040
7.200E-07,-0.512
7.300E-07,-0.512
7.400E-07,-0.508
7.500E-07,-0.508
7.600E-07,-0.200
7.700E-07,0.540
7.800E-07,0.540
7.900E-07,0.540
8.000E-07,0.200
8.100E-07,-0.508
8.200E-07,-0.512
8.300E-07,-0.512
8.400E-07,-0.052
8.500E-07,0.540
8.600E-07,0.540
8.700E-07,0.540
8.800E-07,0.220
8.900E-07,-0.400
9.000E-07,-0.508
9.100E-07,-0.508
9.200E-07,-0.148
9.300E-07,0.408
9.400E-07,0.540
9.500E-07,0.540
9.600E-07,0.208
9.700E-07,-0.204
9.800E-07,-0.452
9.900E-07,-0.396
1.000E-06,-0.164
1.010E-06,0.132
1.020E-06,0.352
1.030E-06,0.340
1.040E-06,0.176
1.050E-06,-0.056
1.060E-06,-0.232
1.070E-06,-0.264
1.080E-06,-0.152
1.090E-06,0.040
1.100E-06,0.188
1.110E-06,0.260
1.120E-06,0.192
1.130E-06,0.092
1.140E-06,0.000
1.150E-06,-0.048
1.160E-06,-0.008
1.170E-06,0.060
1.180E-06,0.124
1.190E-06,0.140
1.200E-06,0.140
1.210E-06,0.124
1.220E-06,0.076
1.230E-06,0.060
1.240E-06,0.052
1.250E-06,0.056
1.260E-06,0.064
1.270E-06,0.088
1.280E-06,0.128
1.290E-06,0.168
1.300E-06,0.204
1.310E-06,0.188
1.320E-06,0.124
1.330E-06,0.044
1.340E-06,-0.180
1.350E-06,-0.420
1.360E-06,-0.508
1.370E-06,-0.508
1.380E-06,-0.392
1.390E-06,-0.040
1.400E-06,0.312
1.410E-06,0.512
1.420E-06,0.540
1.430E-06,0.236
1.440E-06,-0.140
1.450E-06,-0.432
1.460E-06,-0.408
1.470E-06,-0.232
1.480E-06,0.076
1.490E-06,0.340
1.500E-06,0.368
1.510E-06,0.208
1.520E-06,-0.084
1.530E-06,-0.340
1.540E-06,-0.404
1.550E-06,-0.188
1.560E-06,0.128
1.570E-06,0.416
1.580E-06,0.488
1.590E-06,0.332
1.600E-06,0.028
1.610E-06,-0.288
1.620E-06,-0.416
1.630E-06,-0.324
1.640E-06,-0.012
1.650E-06,0.312
1.660E-06,0.488
1.670E-06,0.364
1.680E-06,0.064
1.690E-06,-0.276
1.700E-06,-0.440
1.710E-06,-0.392
1.720E-06,-0.104
1.730E-06,0.240
1.740E-06,0.452
1.750E-06,0.464
1.760E-06,0.228
1.770E-06,-0.072
1.780E-06,-0.312
1.790E-06,-0.340
1.800E-06,-0.228
1.810E-06,0.012
1.820E-06,0.212
1.830E-06,0.320
1.840E-06,0.240
1.850E-06,0.120
1.860E-06,-0.012
1.870E-06,-0.060
1.880E-06,0.012
1.890E-06,0.136
1.900E-06,0.288
1.910E-06,0.332
1.920E-06,0.308
1.930E-06,0.192
1.940E-06,0.076
1.950E-06,0.012
1.960E-06,0.032
1.970E-06,0.108
1.980E-06,0.204
1.990E-06,0.264
2.000E-06,0.188
2.010E-06,0.064
2.020E-06,-0.088
2.030E-06,-0.240
2.040E-06,-0.368
2.050E-06,-0.392
2.060E-06,-0.256
2.070E-06,-0.156
2.080E-06,-0.216
2.090E-06,-0.308
2.100E-06,-0.476
2.110E-06,-0.444
2.120E-06,-0.404
2.130E-06,-0.168
2.140E-06,0.088
2.150E-06,0.296
2.160E-06,0.328
2.170E-06,0.168
2.180E-06,0.012
2.190E-06,-0.136
2.200E-06,-0.184
2.210E-06,-0.128
2.220E-06,0.024
2.230E-06,0.104
2.240E-06,0.136
2.250E-06,0.092
2.260E-06,0.008
2.270E-06,-0.048
2.280E-06,-0.040
2.290E-06,-0.008
2.300E-06,0.036
2.310E-06,0.088
2.320E-06,0.096
2.330E-06,0.068
2.340E-06,0.028
2.350E-06,0.032
2.360E-06,0.032
2.370E-06,0.068
2.380E-06,0.120
2.390E-06,0.156
2.400E-06,0.176
2.410E-06,0.172
2.420E-06,0.152
2.430E-06,0.124
2.440E-06,0.120
2.450E-06,0.112
2.460E-06,0.120
2.470E-06,0.140
2.480E-06,0.144
2.490E-06,0.140
2.500E-06,0.152
2.510E-06,0.144
2.520E-06,0.132
2.530E-06,0.128
2.540E-06,0.124
2.550E-06,0.120
2.560E-06,0.128
2.570E-06,0.148
2.580E-06,0.156
2.590E-06,0.164
2.600E-06,0.152
2.610E-06,0.092
2.620E-06,0.012
2.630E-06,-0.040
2.640E-06,-0.060
2.650E-06,-0.040
2.660E-06,0.008
2.670E-06,0.108
2.680E-06,0.184
2.690E-06,0.224
2.700E-06,0.232
2.710E-06,0.216
2.720E-06,0.156
2.730E-06,0.108
2.740E-06,0.072
2.750E-06,0.056
2.760E-06,0.092
2.770E-06,0.144
2.780E-06,0.192
2.790E-06,0.224
2.800E-06,0.208
2.810E-06,0.148
2.820E-06,0.092
2.830E-06,0.076
2.840E-06,0.092
2.850E-06,0.148
2.860E-06,0.204
2.870E-06,0.236
2.880E-06,0.212
2.890E-06,0.160
2.900E-06,0.088
2.910E-06,0.048
2.920E-06,0.056
2.930E-06,0.028
2.940E-06,-0.008
2.950E-06,-0.020
2.960E-06,-0.124
2.970E-06,-0.204
2.980E-06,-0.252
2.990E-06,-0.220
3.000E-06,-0.100
3.010E-06,0.060
3.020E-06,0.260
3.030E-06,0.408
3.040E-06,0.400
3.050E-06,0.224
3.060E-06,0.012
3.070E-06,-0.152
3.080E-06,-0.184
3.090E-06,-0.092
3.100E-06,0.136
3.110E-06,0.292
3.120E-06,0.384
3.130E-06,0.300
3.140E-06,0.112
3.150E-06,-0.024
3.160E-06,-0.068
3.170E-06,0.008
3.180E-06,0.152
3.190E-06,0.280
3.200E-06,0.332
3.210E-06,0.300
3.220E-06,0.192
3.230E-06,0.092
3.240E-06,0.020
3.250E-06,0.040
3.260E-06,0.108
3.270E-06,0.196
3.280E-06,0.248
3.290E-06,0.244
3.300E-06,0.200
3.310E-06,0.132
3.320E-06,0.096
3.330E-06,0.092
3.340E-06,0.124
3.350E-06,0.176
3.360E-06,0.216
3.370E-06,0.224
