mediciones/5-22/-5/WaveData4959.csv

#timebase=2000000(ps)
,#voltbase=1000000(mv/100)
#size=4000
-8.400E-06,0.040
-8.390E-06,0.040
-8.380E-06,0.040
-8.370E-06,0.040
-8.360E-06,0.040
-8.350E-06,0.040
-8.340E-06,0.040
-8.330E-06,0.000
-8.320E-06,0.040
-8.310E-06,0.000
-8.300E-06,0.040
-8.290E-06,0.000
-8.280E-06,0.040
-8.270E-06,0.080
-8.260E-06,0.000
-8.250E-06,0.040
-8.240E-06,0.040
-8.230E-06,0.040
-8.220E-06,0.080
-8.210E-06,0.080
-8.200E-06,0.120
-8.190E-06,0.000
-8.180E-06,0.040
-8.170E-06,0.040
-8.160E-06,0.040
-8.150E-06,0.000
-8.140E-06,0.040
-8.130E-06,0.000
-8.120E-06,0.040
-8.110E-06,0.000
-8.100E-06,0.040
-8.090E-06,0.080
-8.080E-06,0.120
-8.070E-06,0.080
-8.060E-06,0.080
-8.050E-06,0.080
-8.040E-06,0.080
-8.030E-06,0.080
-8.020E-06,0.000
-8.010E-06,0.040
-8.000E-06,0.040
-7.990E-06,0.040
-7.980E-06,0.040
-7.970E-06,0.040
-7.960E-06,0.080
-7.950E-06,0.040
-7.940E-06,0.040
-7.930E-06,0.040
-7.920E-06,0.040
-7.910E-06,0.040
-7.900E-06,0.080
-7.890E-06,0.040
-7.880E-06,0.080
-7.870E-06,0.040
-7.860E-06,0.040
-7.850E-06,0.000
-7.840E-06,0.040
-7.830E-06,0.040
-7.820E-06,0.040
-7.810E-06,0.040
-7.800E-06,0.040
-7.790E-06,0.040
-7.780E-06,0.040
-7.770E-06,0.000
-7.760E-06,0.040
-7.750E-06,0.040
-7.740E-06,0.080
-7.730E-06,0.080
-7.720E-06,0.040
-7.710E-06,0.040
-7.700E-06,0.040
-7.690E-06,0.040
-7.680E-06,0.040
-7.670E-06,0.000
-7.660E-06,0.080
-7.650E-06,0.080
-7.640E-06,0.040
-7.630E-06,0.040
-7.620E-06,0.080
-7.610E-06,0.120
-7.600E-06,0.000
-7.590E-06,0.080
-7.580E-06,0.040
-7.570E-06,0.040
-7.560E-06,0.040
-7.550E-06,0.000
-7.540E-06,0.040
-7.530E-06,0.000
-7.520E-06,0.040
-7.510E-06,0.120
-7.500E-06,0.080
-7.490E-06,0.040
-7.480E-06,0.000
-7.470E-06,0.040
-7.460E-06,0.040
-7.450E-06,0.040
-7.440E-06,0.080
-7.430E-06,0.000
-7.420E-06,0.080
-7.410E-06,0.000
-7.400E-06,0.040
-7.390E-06,0.040
-7.380E-06,0.080
-7.370E-06,0.080
-7.360E-06,0.080
-7.350E-06,0.080
-7.340E-06,0.080
-7.330E-06,0.080
-7.320E-06,0.040
-7.310E-06,0.080
-7.300E-06,0.000
-7.290E-06,0.040
-7.280E-06,0.040
-7.270E-06,0.040
-7.260E-06,0.040
-7.250E-06,0.040
-7.240E-06,0.080
-7.230E-06,0.000
-7.220E-06,0.040
-7.210E-06,0.040
-7.200E-06,0.080
-7.190E-06,0.040
-7.180E-06,0.040
-7.170E-06,0.000
-7.160E-06,0.000
-7.150E-06,0.040
-7.140E-06,0.040
-7.130E-06,0.040
-7.120E-06,0.080
-7.110E-06,0.080
-7.100E-06,0.080
-7.090E-06,0.040
-7.080E-06,0.000
-7.070E-06,0.080
-7.060E-06,0.000
-7.050E-06,0.040
-7.040E-06,0.120
-7.030E-06,0.000
-7.020E-06,0.040
-7.010E-06,0.040
-7.000E-06,0.040
-6.990E-06,0.080
-6.980E-06,0.080
-6.970E-06,0.080
-6.960E-06,0.040
-6.950E-06,0.000
-6.940E-06,0.040
-6.930E-06,0.000
-6.920E-06,0.000
-6.910E-06,0.040
-6.900E-06,0.000
-6.890E-06,0.040
-6.880E-06,0.000
-6.870E-06,0.000
-6.860E-06,0.040
-6.850E-06,0.080
-6.840E-06,0.040
-6.830E-06,0.040
-6.820E-06,0.040
-6.810E-06,0.040
-6.800E-06,0.000
-6.790E-06,0.040
-6.780E-06,0.080
-6.770E-06,0.080
-6.760E-06,0.000
-6.750E-06,0.040
-6.740E-06,0.040
-6.730E-06,0.040
-6.720E-06,0.040
-6.710E-06,0.000
-6.700E-06,0.040
-6.690E-06,0.080
-6.680E-06,0.000
-6.670E-06,0.040
-6.660E-06,0.080
-6.650E-06,0.080
-6.640E-06,0.080
-6.630E-06,0.080
-6.620E-06,0.000
-6.610E-06,0.040
-6.600E-06,0.040
-6.590E-06,0.080
-6.580E-06,0.000
-6.570E-06,0.040
-6.560E-06,0.000
-6.550E-06,0.080
-6.540E-06,0.040
-6.530E-06,0.040
-6.520E-06,0.040
-6.510E-06,0.080
-6.500E-06,0.000
-6.490E-06,0.040
-6.480E-06,0.040
-6.470E-06,0.080
-6.460E-06,0.000
-6.450E-06,0.000
-6.440E-06,0.080
-6.430E-06,0.000
-6.420E-06,0.000
-6.410E-06,0.040
-6.400E-06,0.000
-6.390E-06,0.000
-6.380E-06,0.040
-6.370E-06,0.040
-6.360E-06,0.040
-6.350E-06,0.040
-6.340E-06,0.040
-6.330E-06,0.080
-6.320E-06,0.040
-6.310E-06,0.040
-6.300E-06,0.080
-6.290E-06,0.040
-6.280E-06,0.040
-6.270E-06,0.040
-6.260E-06,0.040
-6.250E-06,0.040
-6.240E-06,0.040
-6.230E-06,0.000
-6.220E-06,0.000
-6.210E-06,0.040
-6.200E-06,0.080
-6.190E-06,0.000
-6.180E-06,0.040
-6.170E-06,0.040
-6.160E-06,0.080
-6.150E-06,0.040
-6.140E-06,0.080
-6.130E-06,0.040
-6.120E-06,0.120
-6.110E-06,0.080
-6.100E-06,0.000
-6.090E-06,0.000
-6.080E-06,0.040
-6.070E-06,0.120
-6.060E-06,0.040
-6.050E-06,0.040
-6.040E-06,0.080
-6.030E-06,0.040
-6.020E-06,0.080
-6.010E-06,0.080
-6.000E-06,0.040
-5.990E-06,0.040
-5.980E-06,0.080
-5.970E-06,0.040
-5.960E-06,0.040
-5.950E-06,0.080
-5.940E-06,0.000
-5.930E-06,0.040
-5.920E-06,0.040
-5.910E-06,0.040
-5.900E-06,0.040
-5.890E-06,0.000
-5.880E-06,0.040
-5.870E-06,0.040
-5.860E-06,0.040
-5.850E-06,0.040
-5.840E-06,0.040
-5.830E-06,0.000
-5.820E-06,0.040
-5.810E-06,0.080
-5.800E-06,0.040
-5.790E-06,0.040
-5.780E-06,0.040
-5.770E-06,0.040
-5.760E-06,0.000
-5.750E-06,0.080
-5.740E-06,0.000
-5.730E-06,0.000
-5.720E-06,0.040
-5.710E-06,0.000
-5.700E-06,0.000
-5.690E-06,0.080
-5.680E-06,0.080
-5.670E-06,0.080
-5.660E-06,0.000
-5.650E-06,0.080
-5.640E-06,0.080
-5.630E-06,0.160
-5.620E-06,0.160
-5.610E-06,0.280
-5.600E-06,0.520
-5.590E-06,1.000
-5.580E-06,1.680
-5.570E-06,2.280
-5.560E-06,2.360
-5.550E-06,1.920
-5.540E-06,1.280
-5.530E-06,0.160
-5.520E-06,-0.800
-5.510E-06,-1.520
-5.500E-06,-1.520
-5.490E-06,-1.800
-5.480E-06,-1.680
-5.470E-06,-0.800
-5.460E-06,-1.160
-5.450E-06,-1.560
-5.440E-06,-0.960
-5.430E-06,-0.760
-5.420E-06,-1.280
-5.410E-06,-0.320
-5.400E-06,0.160
-5.390E-06,-0.520
-5.380E-06,-0.360
-5.370E-06,0.000
-5.360E-06,-0.440
-5.350E-06,-0.400
-5.340E-06,0.320
-5.330E-06,0.320
-5.320E-06,0.520
-5.310E-06,1.080
-5.300E-06,1.160
-5.290E-06,1.160
-5.280E-06,1.440
-5.270E-06,1.360
-5.260E-06,1.000
-5.250E-06,1.040
-5.240E-06,0.720
-5.230E-06,0.440
-5.220E-06,0.480
-5.210E-06,0.360
-5.200E-06,0.000
-5.190E-06,-0.080
-5.180E-06,-0.160
-5.170E-06,-0.440
-5.160E-06,-0.320
-5.150E-06,-0.240
-5.140E-06,-0.120
-5.130E-06,0.000
-5.120E-06,0.120
-5.110E-06,0.160
-5.100E-06,0.120
-5.090E-06,0.160
-5.080E-06,0.160
-5.070E-06,0.120
-5.060E-06,0.120
-5.050E-06,0.040
-5.040E-06,0.000
-5.030E-06,0.000
-5.020E-06,0.000
-5.010E-06,0.080
-5.000E-06,0.120
-4.990E-06,0.040
-4.980E-06,0.000
-4.970E-06,0.000
-4.960E-06,-0.040
-4.950E-06,-0.040
-4.940E-06,0.000
-4.930E-06,-0.040
-4.920E-06,-0.080
-4.910E-06,-0.200
-4.900E-06,-0.320
-4.890E-06,-0.360
-4.880E-06,-0.360
-4.870E-06,-0.360
-4.860E-06,-0.360
-4.850E-06,-0.320
-4.840E-06,-0.240
-4.830E-06,-0.120
-4.820E-06,-0.040
-4.810E-06,0.120
-4.800E-06,0.240
-4.790E-06,0.280
-4.780E-06,0.280
-4.770E-06,0.320
-4.760E-06,0.320
-4.750E-06,0.280
-4.740E-06,0.280
-4.730E-06,0.200
-4.720E-06,0.200
-4.710E-06,0.120
-4.700E-06,-0.040
-4.690E-06,-0.040
-4.680E-06,-0.040
-4.670E-06,0.000
-4.660E-06,-0.080
-4.650E-06,-0.120
-4.640E-06,-0.080
-4.630E-06,-0.120
-4.620E-06,-0.120
-4.610E-06,-0.120
-4.600E-06,-0.200
-4.590E-06,-0.120
-4.580E-06,-0.160
-4.570E-06,-0.200
-4.560E-06,-0.240
-4.550E-06,-0.160
-4.540E-06,-0.080
-4.530E-06,-0.040
-4.520E-06,-0.040
-4.510E-06,0.000
-4.500E-06,0.040
-4.490E-06,0.080
-4.480E-06,0.120
-4.470E-06,0.200
-4.460E-06,0.160
-4.450E-06,0.240
-4.440E-06,0.120
-4.430E-06,0.120
-4.420E-06,0.160
-4.410E-06,0.200
-4.400E-06,0.080
-4.390E-06,0.080
-4.380E-06,0.080
-4.370E-06,0.080
-4.360E-06,0.080
-4.350E-06,0.040
-4.340E-06,0.000
-4.330E-06,-0.040
-4.320E-06,0.000
-4.310E-06,-0.040
-4.300E-06,-0.080
-4.290E-06,-0.120
-4.280E-06,-0.120
-4.270E-06,-0.040
-4.260E-06,-0.080
-4.250E-06,-0.040
-4.240E-06,-0.080
-4.230E-06,-0.080
-4.220E-06,-0.040
-4.210E-06,-0.080
-4.200E-06,0.000
-4.190E-06,-0.040
-4.180E-06,0.000
-4.170E-06,0.000
-4.160E-06,0.040
-4.150E-06,0.120
-4.140E-06,0.040
-4.130E-06,0.120
-4.120E-06,0.200
-4.110E-06,0.200
-4.100E-06,0.200
-4.090E-06,0.280
-4.080E-06,0.320
-4.070E-06,0.240
-4.060E-06,0.240
-4.050E-06,0.280
-4.040E-06,0.320
-4.030E-06,0.280
-4.020E-06,0.280
-4.010E-06,0.240
-4.000E-06,0.200
-3.990E-06,0.160
-3.980E-06,0.200
-3.970E-06,0.160
-3.960E-06,0.200
-3.950E-06,0.160
-3.940E-06,0.120
-3.930E-06,0.200
-3.920E-06,0.160
-3.910E-06,0.120
-3.900E-06,0.120
-3.890E-06,0.160
-3.880E-06,0.200
-3.870E-06,0.200
-3.860E-06,0.160
-3.850E-06,0.120
-3.840E-06,0.160
-3.830E-06,0.240
-3.820E-06,0.160
-3.810E-06,0.160
-3.800E-06,0.200
-3.790E-06,0.160
-3.780E-06,0.200
-3.770E-06,0.240
-3.760E-06,0.320
-3.750E-06,0.320
-3.740E-06,0.400
-3.730E-06,0.320
-3.720E-06,0.320
-3.710E-06,0.200
-3.700E-06,0.280
-3.690E-06,0.280
-3.680E-06,0.360
-3.670E-06,0.400
-3.660E-06,0.360
-3.650E-06,0.360
-3.640E-06,0.320
-3.630E-06,0.280
-3.620E-06,0.240
-3.610E-06,0.240
-3.600E-06,0.280
-3.590E-06,0.360
-3.580E-06,0.320
-3.570E-06,0.280
-3.560E-06,0.160
-3.550E-06,0.240
-3.540E-06,0.240
-3.530E-06,0.200
-3.520E-06,0.160
-3.510E-06,0.160
-3.500E-06,0.160
-3.490E-06,0.160
-3.480E-06,0.160
-3.470E-06,0.160
-3.460E-06,0.120
-3.450E-06,-0.080
-3.440E-06,-0.240
-3.430E-06,-0.480
-3.420E-06,-1.000
-3.410E-06,-1.440
-3.400E-06,-1.840
-3.390E-06,-2.080
-3.380E-06,-1.800
-3.370E-06,-1.400
-3.360E-06,-0.720
-3.350E-06,-0.120
-3.340E-06,0.360
-3.330E-06,0.600
-3.320E-06,0.800
-3.310E-06,0.840
-3.300E-06,0.880
-3.290E-06,1.040
-3.280E-06,1.280
-3.270E-06,1.400
-3.260E-06,1.440
-3.250E-06,1.520
-3.240E-06,1.400
-3.230E-06,1.320
-3.220E-06,1.200
-3.210E-06,0.960
-3.200E-06,0.840
-3.190E-06,0.720
-3.180E-06,0.560
-3.170E-06,0.320
-3.160E-06,0.200
-3.150E-06,0.040
-3.140E-06,-0.240
-3.130E-06,-0.360
-3.120E-06,-0.480
-3.110E-06,-0.600
-3.100E-06,-0.680
-3.090E-06,-0.640
-3.080E-06,-0.520
-3.070E-06,-0.440
-3.060E-06,-0.400
-3.050E-06,-0.280
-3.040E-06,-0.200
-3.030E-06,-0.080
-3.020E-06,0.120
-3.010E-06,0.240
-3.000E-06,0.320
-2.990E-06,0.320
-2.980E-06,0.360
-2.970E-06,0.320
-2.960E-06,0.120
-2.950E-06,0.040
-2.940E-06,-0.080
-2.930E-06,-0.280
-2.920E-06,-0.360
-2.910E-06,-0.360
-2.900E-06,-0.400
-2.890E-06,-0.440
-2.880E-06,-0.440
-2.870E-06,-0.480
-2.860E-06,-0.440
-2.850E-06,-0.400
-2.840E-06,-0.320
-2.830E-06,-0.160
-2.820E-06,-0.080
-2.810E-06,0.040
-2.800E-06,0.120
-2.790E-06,0.120
-2.780E-06,0.200
-2.770E-06,0.280
-2.760E-06,0.360
-2.750E-06,0.440
-2.740E-06,0.600
-2.730E-06,0.640
-2.720E-06,0.760
-2.710E-06,0.800
-2.700E-06,0.840
-2.690E-06,0.800
-2.680E-06,0.760
-2.670E-06,0.720
-2.660E-06,0.600
-2.650E-06,0.440
-2.640E-06,0.320
-2.630E-06,0.240
-2.620E-06,0.200
-2.610E-06,0.080
-2.600E-06,0.000
-2.590E-06,-0.040
-2.580E-06,-0.120
-2.570E-06,-0.080
-2.560E-06,-0.120
-2.550E-06,-0.080
-2.540E-06,-0.040
-2.530E-06,-0.040
-2.520E-06,0.040
-2.510E-06,0.160
-2.500E-06,0.160
-2.490E-06,0.360
-2.480E-06,0.320
-2.470E-06,0.360
-2.460E-06,0.440
-2.450E-06,0.440
-2.440E-06,0.440
-2.430E-06,0.440
-2.420E-06,0.400
-2.410E-06,0.440
-2.400E-06,0.400
-2.390E-06,0.320
-2.380E-06,0.320
-2.370E-06,0.240
-2.360E-06,0.200
-2.350E-06,0.120
-2.340E-06,0.120
-2.330E-06,0.000
-2.320E-06,-0.040
-2.310E-06,0.000
-2.300E-06,-0.080
-2.290E-06,-0.080
-2.280E-06,-0.120
-2.270E-06,-0.080
-2.260E-06,-0.080
-2.250E-06,-0.160
-2.240E-06,-0.080
-2.230E-06,-0.080
-2.220E-06,-0.080
-2.210E-06,-0.040
-2.200E-06,-0.040
-2.190E-06,-0.040
-2.180E-06,0.040
-2.170E-06,-0.040
-2.160E-06,0.160
-2.150E-06,0.160
-2.140E-06,0.160
-2.130E-06,0.240
-2.120E-06,0.360
-2.110E-06,0.200
-2.100E-06,0.320
-2.090E-06,0.400
-2.080E-06,0.320
-2.070E-06,0.400
-2.060E-06,0.440
-2.050E-06,0.400
-2.040E-06,0.400
-2.030E-06,0.440
-2.020E-06,0.400
-2.010E-06,0.360
-2.000E-06,0.320
-1.990E-06,0.280
-1.980E-06,0.200
-1.970E-06,0.200
-1.960E-06,0.160
-1.950E-06,0.040
-1.940E-06,0.000
-1.930E-06,0.000
-1.920E-06,-0.080
-1.910E-06,-0.040
-1.900E-06,-0.080
-1.890E-06,-0.200
-1.880E-06,-0.200
-1.870E-06,-0.280
-1.860E-06,-0.320
-1.850E-06,-0.360
-1.840E-06,-0.400
-1.830E-06,-0.440
-1.820E-06,-0.520
-1.810E-06,-0.600
-1.800E-06,-0.600
-1.790E-06,-0.640
-1.780E-06,-0.600
-1.770E-06,-0.520
-1.760E-06,-0.440
-1.750E-06,-0.360
-1.740E-06,-0.160
-1.730E-06,-0.120
-1.720E-06,-0.160
-1.710E-06,-0.120
-1.700E-06,-0.080
-1.690E-06,-0.080
-1.680E-06,0.040
-1.670E-06,0.200
-1.660E-06,0.240
-1.650E-06,0.320
-1.640E-06,0.360
-1.630E-06,0.440
-1.620E-06,0.440
-1.610E-06,0.520
-1.600E-06,0.560
-1.590E-06,0.560
-1.580E-06,0.640
-1.570E-06,0.680
-1.560E-06,0.720
-1.550E-06,0.720
-1.540E-06,0.720
-1.530E-06,0.640
-1.520E-06,0.680
-1.510E-06,0.640
-1.500E-06,0.640
-1.490E-06,0.600
-1.480E-06,0.600
-1.470E-06,0.560
-1.460E-06,0.480
-1.450E-06,0.480
-1.440E-06,0.360
-1.430E-06,0.320
-1.420E-06,0.240
-1.410E-06,0.160
-1.400E-06,0.160
-1.390E-06,0.120
-1.380E-06,0.040
-1.370E-06,-0.080
-1.360E-06,0.000
-1.350E-06,-0.040
-1.340E-06,-0.040
-1.330E-06,-0.040
-1.320E-06,0.000
-1.310E-06,0.000
-1.300E-06,0.000
-1.290E-06,0.000
-1.280E-06,0.000
-1.270E-06,0.080
-1.260E-06,0.080
-1.250E-06,0.080
-1.240E-06,0.160
-1.230E-06,0.200
-1.220E-06,0.120
-1.210E-06,0.160
-1.200E-06,0.240
-1.190E-06,0.160
-1.180E-06,0.120
-1.170E-06,0.160
-1.160E-06,0.240
-1.150E-06,0.200
-1.140E-06,0.280
-1.130E-06,0.360
-1.120E-06,0.320
-1.110E-06,0.400
-1.100E-06,0.320
-1.090E-06,0.320
-1.080E-06,0.280
-1.070E-06,0.160
-1.060E-06,0.160
-1.050E-06,0.120
-1.040E-06,0.120
-1.030E-06,0.160
-1.020E-06,0.200
-1.010E-06,0.080
-1.000E-06,-0.080
-9.900E-07,-0.200
-9.800E-07,-0.240
-9.700E-07,-0.320
-9.600E-07,-0.280
-9.500E-07,-0.080
-9.400E-07,0.000
-9.300E-07,0.080
-9.200E-07,0.040
-9.100E-07,0.000
-9.000E-07,-0.040
-8.900E-07,0.000
-8.800E-07,0.160
-8.700E-07,0.280
-8.600E-07,0.320
-8.500E-07,0.400
-8.400E-07,0.480
-8.300E-07,0.480
-8.200E-07,0.440
-8.100E-07,0.520
-8.000E-07,0.520
-7.900E-07,0.560
-7.800E-07,0.600
-7.700E-07,0.600
-7.600E-07,0.640
-7.500E-07,0.640
-7.400E-07,0.600
-7.300E-07,0.680
-7.200E-07,0.640
-7.100E-07,0.640
-7.000E-07,0.640
-6.900E-07,0.520
-6.800E-07,0.520
-6.700E-07,0.520
-6.600E-07,0.600
-6.500E-07,0.560
-6.400E-07,0.640
-6.300E-07,0.640
-6.200E-07,0.600
-6.100E-07,0.520
-6.000E-07,0.600
-5.900E-07,0.600
-5.800E-07,0.640
-5.700E-07,0.640
-5.600E-07,0.680
-5.500E-07,0.640
-5.400E-07,0.600
-5.300E-07,0.480
-5.200E-07,0.520
-5.100E-07,0.440
-5.000E-07,0.480
-4.900E-07,0.480
-4.800E-07,0.640
-4.700E-07,0.720
-4.600E-07,0.640
-4.500E-07,0.480
-4.400E-07,0.320
-4.300E-07,0.200
-4.200E-07,0.400
-4.100E-07,0.640
-4.000E-07,0.640
-3.900E-07,0.680
-3.800E-07,0.560
-3.700E-07,0.320
-3.600E-07,0.320
-3.500E-07,0.400
-3.400E-07,0.520
-3.300E-07,0.760
-3.200E-07,0.880
-3.100E-07,0.920
-3.000E-07,0.880
-2.900E-07,0.960
-2.800E-07,1.000
-2.700E-07,1.120
-2.600E-07,1.080
-2.500E-07,1.120
-2.400E-07,1.120
-2.300E-07,1.080
-2.200E-07,1.080
-2.100E-07,1.000
-2.000E-07,0.960
-1.900E-07,0.960
-1.800E-07,0.920
-1.700E-07,0.840
-1.600E-07,0.840
-1.500E-07,0.800
-1.400E-07,0.800
-1.300E-07,0.800
-1.200E-07,0.720
-1.100E-07,0.800
-1.000E-07,0.720
-9.000E-08,0.600
-8.000E-08,0.520
-7.000E-08,0.520
-6.000E-08,0.400
-5.000E-08,0.200
-4.000E-08,0.000
-3.000E-08,0.000
-2.000E-08,-0.280
-1.000E-08,-0.640
0.000E+00,-0.960
1.000E-08,-1.280
2.000E-08,-0.800
3.000E-08,0.480
4.000E-08,1.040
5.000E-08,1.240
6.000E-08,0.480
7.000E-08,-2.320
8.000E-08,-3.640
9.000E-08,-3.680
1.000E-07,-2.200
1.100E-07,0.680
1.200E-07,3.560
1.300E-07,3.840
1.400E-07,3.320
1.500E-07,2.520
1.600E-07,1.200
1.700E-07,0.840
1.800E-07,1.640
1.900E-07,2.200
2.000E-07,2.560
2.100E-07,2.920
2.200E-07,2.480
2.300E-07,2.040
2.400E-07,1.880
2.500E-07,1.320
2.600E-07,0.680
2.700E-07,0.120
2.800E-07,-0.320
2.900E-07,-0.720
3.000E-07,-0.640
3.100E-07,-0.480
3.200E-07,-0.560
3.300E-07,-0.800
3.400E-07,-1.280
3.500E-07,-1.800
3.600E-07,-2.000
3.700E-07,-2.000
3.800E-07,-1.640
3.900E-07,-1.280
4.000E-07,-1.000
4.100E-07,-0.960
4.200E-07,-1.000
4.300E-07,-1.080
4.400E-07,-1.120
4.500E-07,-0.960
4.600E-07,-0.720
4.700E-07,-0.440
4.800E-07,-0.320
4.900E-07,-0.120
5.000E-07,-0.160
5.100E-07,-0.160
5.200E-07,-0.240
5.300E-07,-0.440
5.400E-07,-0.440
5.500E-07,-0.480
5.600E-07,-0.320
5.700E-07,-0.040
5.800E-07,0.320
5.900E-07,0.360
6.000E-07,0.480
6.100E-07,0.440
6.200E-07,0.360
6.300E-07,0.360
6.400E-07,0.320
6.500E-07,0.320
6.600E-07,0.480
6.700E-07,0.640
6.800E-07,0.680
6.900E-07,0.640
7.000E-07,0.480
7.100E-07,0.560
7.200E-07,0.520
7.300E-07,0.600
7.400E-07,0.680
7.500E-07,0.800
7.600E-07,0.920
7.700E-07,1.000
7.800E-07,0.920
7.900E-07,0.880
8.000E-07,0.880
8.100E-07,0.760
8.200E-07,0.600
8.300E-07,0.480
8.400E-07,0.320
8.500E-07,0.120
8.600E-07,0.040
8.700E-07,-0.240
8.800E-07,-0.520
8.900E-07,-0.760
9.000E-07,-1.200
9.100E-07,-1.640
9.200E-07,-2.040
9.300E-07,-2.240
9.400E-07,-2.040
9.500E-07,-1.680
9.600E-07,-1.200
9.700E-07,-0.680
9.800E-07,-0.320
9.900E-07,0.000
1.000E-06,0.000
1.010E-06,0.040
1.020E-06,0.000
1.030E-06,-0.080
1.040E-06,0.040
1.050E-06,0.320
1.060E-06,0.600
1.070E-06,0.840
1.080E-06,0.920
1.090E-06,0.880
1.100E-06,0.760
1.110E-06,0.480
1.120E-06,0.360
1.130E-06,0.160
1.140E-06,0.160
1.150E-06,0.120
1.160E-06,0.120
1.170E-06,0.160
1.180E-06,0.160
1.190E-06,0.080
1.200E-06,0.080
1.210E-06,0.040
1.220E-06,0.200
1.230E-06,0.360
1.240E-06,0.520
1.250E-06,0.720
1.260E-06,0.920
1.270E-06,0.960
1.280E-06,0.960
1.290E-06,0.880
1.300E-06,0.560
1.310E-06,0.120
1.320E-06,-0.080
1.330E-06,-0.520
1.340E-06,-0.840
1.350E-06,-1.040
1.360E-06,-1.160
1.370E-06,-1.160
1.380E-06,-1.120
1.390E-06,-1.160
1.400E-06,-1.120
1.410E-06,-0.880
1.420E-06,-0.640
1.430E-06,-0.440
1.440E-06,-0.200
1.450E-06,-0.160
1.460E-06,-0.240
1.470E-06,-0.160
1.480E-06,0.000
1.490E-06,0.040
1.500E-06,0.200
1.510E-06,0.440
1.520E-06,0.720
1.530E-06,0.960
1.540E-06,1.200
1.550E-06,1.320
1.560E-06,1.480
1.570E-06,1.520
1.580E-06,1.520
1.590E-06,1.560
1.600E-06,1.480
1.610E-06,1.160
1.620E-06,0.840
1.630E-06,0.480
1.640E-06,0.000
1.650E-06,-0.320
1.660E-06,-0.680
1.670E-06,-1.000
1.680E-06,-1.160
1.690E-06,-1.320
1.700E-06,-1.440
1.710E-06,-1.440
1.720E-06,-1.480
1.730E-06,-1.440
1.740E-06,-1.320
1.750E-06,-1.160
1.760E-06,-0.840
1.770E-06,-0.520
1.780E-06,-0.160
1.790E-06,0.160
1.800E-06,0.360
1.810E-06,0.600
1.820E-06,0.600
1.830E-06,0.400
1.840E-06,0.280
1.850E-06,-0.040
1.860E-06,0.000
1.870E-06,0.160
1.880E-06,0.280
1.890E-06,0.520
1.900E-06,0.760
1.910E-06,0.800
1.920E-06,0.880
1.930E-06,0.920
1.940E-06,0.640
1.950E-06,0.600
1.960E-06,0.600
1.970E-06,0.560
1.980E-06,0.680
1.990E-06,0.680
2.000E-06,0.680
2.010E-06,0.560
2.020E-06,0.400
2.030E-06,0.160
2.040E-06,0.040
2.050E-06,-0.080
2.060E-06,-0.160
2.070E-06,-0.360
2.080E-06,-0.480
2.090E-06,-0.720
2.100E-06,-1.000
2.110E-06,-1.200
2.120E-06,-1.400
2.130E-06,-1.720
2.140E-06,-1.880
2.150E-06,-2.000
2.160E-06,-2.160
2.170E-06,-2.360
2.180E-06,-2.440
2.190E-06,-2.520
2.200E-06,-2.560
2.210E-06,-2.560
2.220E-06,-2.640
2.230E-06,-2.760
2.240E-06,-2.880
2.250E-06,-2.840
2.260E-06,-2.720
2.270E-06,-2.240
2.280E-06,-1.600
2.290E-06,-1.000
2.300E-06,-0.640
2.310E-06,-0.880
2.320E-06,-1.320
2.330E-06,-1.960
2.340E-06,-2.640
2.350E-06,-3.240
2.360E-06,-3.760
2.370E-06,-3.960
2.380E-06,-3.760
2.390E-06,-3.400
2.400E-06,-3.160
2.410E-06,-3.200
2.420E-06,-3.160
2.430E-06,-3.000
2.440E-06,-2.440
2.450E-06,-1.640
2.460E-06,-0.440
2.470E-06,0.840
2.480E-06,1.560
2.490E-06,1.800
2.500E-06,1.360
2.510E-06,0.360
2.520E-06,-0.280
2.530E-06,-0.440
2.540E-06,-0.360
2.550E-06,0.200
2.560E-06,0.680
2.570E-06,0.680
2.580E-06,0.080
2.590E-06,-0.920
2.600E-06,-1.720
2.610E-06,-2.080
2.620E-06,-2.160
2.630E-06,-2.200
2.640E-06,-2.040
2.650E-06,-2.120
2.660E-06,-2.080
2.670E-06,-2.000
2.680E-06,-1.720
2.690E-06,-1.240
2.700E-06,-0.760
2.710E-06,-0.320
2.720E-06,0.040
2.730E-06,0.520
2.740E-06,0.840
2.750E-06,0.840
2.760E-06,0.560
2.770E-06,-0.120
2.780E-06,-1.080
2.790E-06,-2.000
2.800E-06,-2.800
2.810E-06,-3.560
2.820E-06,-4.440
2.830E-06,-5.160
2.840E-06,-5.240
2.850E-06,-5.240
2.860E-06,-5.200
2.870E-06,-5.200
2.880E-06,-5.240
2.890E-06,-5.240
2.900E-06,-5.240
2.910E-06,-5.240
2.920E-06,-5.240
2.930E-06,-5.240
2.940E-06,-5.240
2.950E-06,-5.200
2.960E-06,-5.200
2.970E-06,-5.200
2.980E-06,-5.240
2.990E-06,-5.240
3.000E-06,-5.200
3.010E-06,-5.240
3.020E-06,-5.240
3.030E-06,-5.240
3.040E-06,-5.240
3.050E-06,-5.200
3.060E-06,-5.200
3.070E-06,-5.200
3.080E-06,-5.200
3.090E-06,-5.240
3.100E-06,-5.240
3.110E-06,-5.240
3.120E-06,-5.240
3.130E-06,-5.240
3.140E-06,-5.240
3.150E-06,-5.000
3.160E-06,-4.640
3.170E-06,-4.400
3.180E-06,-4.160
3.190E-06,-4.000
3.200E-06,-3.800
3.210E-06,-3.640
3.220E-06,-3.360
3.230E-06,-3.280
3.240E-06,-3.160
3.250E-06,-3.080
3.260E-06,-2.920
3.270E-06,-2.680
3.280E-06,-2.480
3.290E-06,-2.200
3.300E-06,-1.840
