mediciones/5-22/-5/WaveData4953.csv

#timebase=2000000(ps)
,#voltbase=1000000(mv/100)
#size=4000
-8.400E-06,-0.160
-8.390E-06,-0.120
-8.380E-06,-0.120
-8.370E-06,-0.200
-8.360E-06,-0.160
-8.350E-06,-0.120
-8.340E-06,-0.160
-8.330E-06,-0.200
-8.320E-06,-0.200
-8.310E-06,-0.240
-8.300E-06,-0.160
-8.290E-06,-0.160
-8.280E-06,-0.200
-8.270E-06,-0.240
-8.260E-06,-0.200
-8.250E-06,-0.280
-8.240E-06,-0.200
-8.230E-06,-0.120
-8.220E-06,-0.160
-8.210E-06,-0.040
-8.200E-06,0.000
-8.190E-06,0.000
-8.180E-06,0.080
-8.170E-06,0.160
-8.160E-06,0.080
-8.150E-06,0.040
-8.140E-06,0.040
-8.130E-06,0.000
-8.120E-06,0.080
-8.110E-06,0.120
-8.100E-06,0.200
-8.090E-06,0.160
-8.080E-06,0.120
-8.070E-06,0.160
-8.060E-06,0.120
-8.050E-06,0.200
-8.040E-06,0.160
-8.030E-06,0.160
-8.020E-06,0.160
-8.010E-06,0.200
-8.000E-06,0.240
-7.990E-06,0.240
-7.980E-06,0.320
-7.970E-06,0.320
-7.960E-06,0.240
-7.950E-06,0.280
-7.940E-06,0.200
-7.930E-06,0.240
-7.920E-06,0.240
-7.910E-06,0.280
-7.900E-06,0.320
-7.890E-06,0.280
-7.880E-06,0.120
-7.870E-06,0.160
-7.860E-06,0.040
-7.850E-06,0.000
-7.840E-06,0.040
-7.830E-06,0.000
-7.820E-06,0.000
-7.810E-06,0.000
-7.800E-06,-0.240
-7.790E-06,-0.200
-7.780E-06,-0.040
-7.770E-06,-0.040
-7.760E-06,0.320
-7.750E-06,0.600
-7.740E-06,0.440
-7.730E-06,0.320
-7.720E-06,0.280
-7.710E-06,0.080
-7.700E-06,0.120
-7.690E-06,0.440
-7.680E-06,0.360
-7.670E-06,0.320
-7.660E-06,0.320
-7.650E-06,0.200
-7.640E-06,0.080
-7.630E-06,0.040
-7.620E-06,0.080
-7.610E-06,0.000
-7.600E-06,0.000
-7.590E-06,-0.040
-7.580E-06,-0.080
-7.570E-06,-0.080
-7.560E-06,-0.120
-7.550E-06,-0.120
-7.540E-06,-0.160
-7.530E-06,-0.280
-7.520E-06,-0.280
-7.510E-06,-0.280
-7.500E-06,-0.240
-7.490E-06,-0.240
-7.480E-06,-0.160
-7.470E-06,-0.200
-7.460E-06,-0.160
-7.450E-06,-0.160
-7.440E-06,-0.080
-7.430E-06,0.000
-7.420E-06,0.000
-7.410E-06,-0.040
-7.400E-06,0.000
-7.390E-06,0.000
-7.380E-06,-0.040
-7.370E-06,-0.040
-7.360E-06,0.000
-7.350E-06,-0.040
-7.340E-06,-0.040
-7.330E-06,-0.080
-7.320E-06,-0.080
-7.310E-06,-0.040
-7.300E-06,0.000
-7.290E-06,0.080
-7.280E-06,0.160
-7.270E-06,0.120
-7.260E-06,0.200
-7.250E-06,0.360
-7.240E-06,0.440
-7.230E-06,0.600
-7.220E-06,0.640
-7.210E-06,0.480
-7.200E-06,0.480
-7.190E-06,0.400
-7.180E-06,0.360
-7.170E-06,0.440
-7.160E-06,0.520
-7.150E-06,0.520
-7.140E-06,0.440
-7.130E-06,0.280
-7.120E-06,0.120
-7.110E-06,0.120
-7.100E-06,0.080
-7.090E-06,0.080
-7.080E-06,0.080
-7.070E-06,-0.040
-7.060E-06,-0.080
-7.050E-06,-0.160
-7.040E-06,-0.160
-7.030E-06,-0.160
-7.020E-06,-0.120
-7.010E-06,-0.200
-7.000E-06,-0.240
-6.990E-06,-0.280
-6.980E-06,-0.280
-6.970E-06,-0.160
-6.960E-06,-0.160
-6.950E-06,-0.080
-6.940E-06,-0.160
-6.930E-06,-0.200
-6.920E-06,-0.200
-6.910E-06,-0.200
-6.900E-06,-0.160
-6.890E-06,-0.080
-6.880E-06,-0.080
-6.870E-06,-0.120
-6.860E-06,-0.080
-6.850E-06,-0.120
-6.840E-06,-0.120
-6.830E-06,-0.120
-6.820E-06,0.000
-6.810E-06,0.000
-6.800E-06,-0.080
-6.790E-06,-0.040
-6.780E-06,0.000
-6.770E-06,0.000
-6.760E-06,0.080
-6.750E-06,0.160
-6.740E-06,0.120
-6.730E-06,0.040
-6.720E-06,0.040
-6.710E-06,0.040
-6.700E-06,0.080
-6.690E-06,0.120
-6.680E-06,0.040
-6.670E-06,0.080
-6.660E-06,-0.080
-6.650E-06,-0.200
-6.640E-06,-0.040
-6.630E-06,0.160
-6.620E-06,0.240
-6.610E-06,0.520
-6.600E-06,0.560
-6.590E-06,0.480
-6.580E-06,0.600
-6.570E-06,0.680
-6.560E-06,0.600
-6.550E-06,0.680
-6.540E-06,0.640
-6.530E-06,0.600
-6.520E-06,0.560
-6.510E-06,0.480
-6.500E-06,0.520
-6.490E-06,0.480
-6.480E-06,0.400
-6.470E-06,0.360
-6.460E-06,0.160
-6.450E-06,0.120
-6.440E-06,0.080
-6.430E-06,0.080
-6.420E-06,0.080
-6.410E-06,0.000
-6.400E-06,-0.040
-6.390E-06,-0.120
-6.380E-06,-0.240
-6.370E-06,-0.280
-6.360E-06,-0.280
-6.350E-06,-0.280
-6.340E-06,-0.240
-6.330E-06,-0.280
-6.320E-06,-0.360
-6.310E-06,-0.320
-6.300E-06,-0.320
-6.290E-06,-0.360
-6.280E-06,-0.360
-6.270E-06,-0.360
-6.260E-06,-0.400
-6.250E-06,-0.360
-6.240E-06,-0.400
-6.230E-06,-0.320
-6.220E-06,-0.360
-6.210E-06,-0.360
-6.200E-06,-0.360
-6.190E-06,-0.360
-6.180E-06,-0.320
-6.170E-06,-0.440
-6.160E-06,-0.360
-6.150E-06,-0.120
-6.140E-06,0.120
-6.130E-06,0.560
-6.120E-06,0.800
-6.110E-06,0.720
-6.100E-06,0.600
-6.090E-06,0.560
-6.080E-06,0.440
-6.070E-06,0.640
-6.060E-06,0.800
-6.050E-06,0.840
-6.040E-06,0.840
-6.030E-06,0.720
-6.020E-06,0.520
-6.010E-06,0.440
-6.000E-06,0.400
-5.990E-06,0.320
-5.980E-06,0.360
-5.970E-06,0.240
-5.960E-06,0.200
-5.950E-06,0.120
-5.940E-06,0.040
-5.930E-06,0.000
-5.920E-06,0.000
-5.910E-06,-0.080
-5.900E-06,-0.200
-5.890E-06,-0.240
-5.880E-06,-0.240
-5.870E-06,-0.200
-5.860E-06,-0.240
-5.850E-06,-0.200
-5.840E-06,-0.160
-5.830E-06,-0.280
-5.820E-06,-0.280
-5.810E-06,-0.280
-5.800E-06,-0.240
-5.790E-06,-0.280
-5.780E-06,-0.240
-5.770E-06,-0.240
-5.760E-06,-0.200
-5.750E-06,-0.160
-5.740E-06,-0.160
-5.730E-06,-0.080
-5.720E-06,-0.120
-5.710E-06,-0.080
-5.700E-06,-0.120
-5.690E-06,-0.120
-5.680E-06,-0.080
-5.670E-06,-0.040
-5.660E-06,0.000
-5.650E-06,0.040
-5.640E-06,0.080
-5.630E-06,0.080
-5.620E-06,0.080
-5.610E-06,0.120
-5.600E-06,0.160
-5.590E-06,0.160
-5.580E-06,0.240
-5.570E-06,0.200
-5.560E-06,0.120
-5.550E-06,0.160
-5.540E-06,0.160
-5.530E-06,0.040
-5.520E-06,0.120
-5.510E-06,0.160
-5.500E-06,0.080
-5.490E-06,0.160
-5.480E-06,-0.040
-5.470E-06,0.000
-5.460E-06,-0.040
-5.450E-06,-0.040
-5.440E-06,0.040
-5.430E-06,0.200
-5.420E-06,0.400
-5.410E-06,0.480
-5.400E-06,0.480
-5.390E-06,0.600
-5.380E-06,0.480
-5.370E-06,0.480
-5.360E-06,0.480
-5.350E-06,0.480
-5.340E-06,0.480
-5.330E-06,0.480
-5.320E-06,0.480
-5.310E-06,0.400
-5.300E-06,0.320
-5.290E-06,0.280
-5.280E-06,0.120
-5.270E-06,0.160
-5.260E-06,0.120
-5.250E-06,0.040
-5.240E-06,0.000
-5.230E-06,0.000
-5.220E-06,-0.040
-5.210E-06,-0.120
-5.200E-06,-0.120
-5.190E-06,-0.160
-5.180E-06,-0.240
-5.170E-06,-0.240
-5.160E-06,-0.200
-5.150E-06,-0.240
-5.140E-06,-0.320
-5.130E-06,-0.240
-5.120E-06,-0.320
-5.110E-06,-0.280
-5.100E-06,-0.320
-5.090E-06,-0.280
-5.080E-06,-0.360
-5.070E-06,-0.320
-5.060E-06,-0.320
-5.050E-06,-0.360
-5.040E-06,-0.280
-5.030E-06,-0.320
-5.020E-06,-0.320
-5.010E-06,-0.320
-5.000E-06,-0.240
-4.990E-06,-0.200
-4.980E-06,-0.120
-4.970E-06,-0.080
-4.960E-06,-0.040
-4.950E-06,-0.040
-4.940E-06,0.080
-4.930E-06,0.160
-4.920E-06,0.200
-4.910E-06,0.240
-4.900E-06,0.280
-4.890E-06,0.320
-4.880E-06,0.360
-4.870E-06,0.400
-4.860E-06,0.440
-4.850E-06,0.440
-4.840E-06,0.480
-4.830E-06,0.400
-4.820E-06,0.400
-4.810E-06,0.400
-4.800E-06,0.360
-4.790E-06,0.240
-4.780E-06,0.240
-4.770E-06,0.240
-4.760E-06,0.160
-4.750E-06,0.120
-4.740E-06,0.120
-4.730E-06,0.160
-4.720E-06,-0.080
-4.710E-06,-0.080
-4.700E-06,-0.040
-4.690E-06,0.160
-4.680E-06,0.480
-4.670E-06,0.640
-4.660E-06,0.480
-4.650E-06,0.360
-4.640E-06,0.240
-4.630E-06,0.200
-4.620E-06,0.280
-4.610E-06,0.400
-4.600E-06,0.440
-4.590E-06,0.400
-4.580E-06,0.320
-4.570E-06,0.120
-4.560E-06,0.040
-4.550E-06,0.120
-4.540E-06,0.040
-4.530E-06,0.040
-4.520E-06,0.000
-4.510E-06,-0.080
-4.500E-06,-0.120
-4.490E-06,-0.160
-4.480E-06,-0.080
-4.470E-06,-0.120
-4.460E-06,-0.040
-4.450E-06,-0.160
-4.440E-06,-0.280
-4.430E-06,-0.160
-4.420E-06,-0.200
-4.410E-06,-0.160
-4.400E-06,-0.080
-4.390E-06,-0.200
-4.380E-06,-0.240
-4.370E-06,-0.320
-4.360E-06,-0.360
-4.350E-06,-0.320
-4.340E-06,-0.280
-4.330E-06,-0.320
-4.320E-06,-0.320
-4.310E-06,-0.360
-4.300E-06,-0.320
-4.290E-06,-0.200
-4.280E-06,-0.160
-4.270E-06,-0.160
-4.260E-06,-0.120
-4.250E-06,-0.120
-4.240E-06,-0.080
-4.230E-06,-0.040
-4.220E-06,-0.040
-4.210E-06,0.080
-4.200E-06,0.120
-4.190E-06,0.040
-4.180E-06,-0.040
-4.170E-06,-0.040
-4.160E-06,0.040
-4.150E-06,0.280
-4.140E-06,0.560
-4.130E-06,0.880
-4.120E-06,0.880
-4.110E-06,0.840
-4.100E-06,0.760
-4.090E-06,0.720
-4.080E-06,0.720
-4.070E-06,0.720
-4.060E-06,0.840
-4.050E-06,0.800
-4.040E-06,0.720
-4.030E-06,0.560
-4.020E-06,0.520
-4.010E-06,0.440
-4.000E-06,0.360
-3.990E-06,0.280
-3.980E-06,0.200
-3.970E-06,0.080
-3.960E-06,-0.040
-3.950E-06,-0.040
-3.940E-06,-0.080
-3.930E-06,-0.160
-3.920E-06,-0.200
-3.910E-06,-0.240
-3.900E-06,-0.320
-3.890E-06,-0.400
-3.880E-06,-0.480
-3.870E-06,-0.440
-3.860E-06,-0.440
-3.850E-06,-0.440
-3.840E-06,-0.480
-3.830E-06,-0.560
-3.820E-06,-0.520
-3.810E-06,-0.400
-3.800E-06,-0.360
-3.790E-06,-0.240
-3.780E-06,-0.280
-3.770E-06,-0.280
-3.760E-06,-0.360
-3.750E-06,-0.280
-3.740E-06,-0.240
-3.730E-06,-0.240
-3.720E-06,-0.120
-3.710E-06,-0.160
-3.700E-06,-0.160
-3.690E-06,-0.200
-3.680E-06,-0.080
-3.670E-06,-0.040
-3.660E-06,0.080
-3.650E-06,0.120
-3.640E-06,0.160
-3.630E-06,0.240
-3.620E-06,0.360
-3.610E-06,0.280
-3.600E-06,0.200
-3.590E-06,0.400
-3.580E-06,0.480
-3.570E-06,0.800
-3.560E-06,1.080
-3.550E-06,1.080
-3.540E-06,0.800
-3.530E-06,0.720
-3.520E-06,0.560
-3.510E-06,0.480
-3.500E-06,0.680
-3.490E-06,0.680
-3.480E-06,0.600
-3.470E-06,0.440
-3.460E-06,0.160
-3.450E-06,0.000
-3.440E-06,-0.040
-3.430E-06,-0.080
-3.420E-06,-0.200
-3.410E-06,-0.200
-3.400E-06,-0.240
-3.390E-06,-0.320
-3.380E-06,-0.360
-3.370E-06,-0.320
-3.360E-06,-0.320
-3.350E-06,-0.360
-3.340E-06,-0.280
-3.330E-06,-0.320
-3.320E-06,-0.320
-3.310E-06,-0.280
-3.300E-06,-0.160
-3.290E-06,-0.080
-3.280E-06,0.040
-3.270E-06,0.160
-3.260E-06,0.040
-3.250E-06,0.120
-3.240E-06,0.200
-3.230E-06,0.320
-3.220E-06,0.480
-3.210E-06,0.640
-3.200E-06,0.480
-3.190E-06,0.520
-3.180E-06,0.440
-3.170E-06,0.320
-3.160E-06,0.440
-3.150E-06,0.640
-3.140E-06,0.600
-3.130E-06,0.560
-3.120E-06,0.480
-3.110E-06,0.320
-3.100E-06,0.320
-3.090E-06,0.360
-3.080E-06,0.400
-3.070E-06,0.400
-3.060E-06,0.400
-3.050E-06,0.320
-3.040E-06,0.200
-3.030E-06,0.200
-3.020E-06,0.120
-3.010E-06,0.080
-3.000E-06,0.040
-2.990E-06,-0.080
-2.980E-06,-0.200
-2.970E-06,-0.160
-2.960E-06,-0.200
-2.950E-06,-0.240
-2.940E-06,-0.200
-2.930E-06,-0.200
-2.920E-06,-0.320
-2.910E-06,-0.360
-2.900E-06,-0.400
-2.890E-06,-0.400
-2.880E-06,-0.320
-2.870E-06,-0.360
-2.860E-06,-0.280
-2.850E-06,-0.240
-2.840E-06,-0.200
-2.830E-06,-0.080
-2.820E-06,0.000
-2.810E-06,0.080
-2.800E-06,0.200
-2.790E-06,0.280
-2.780E-06,0.320
-2.770E-06,0.440
-2.760E-06,0.560
-2.750E-06,0.640
-2.740E-06,0.680
-2.730E-06,0.760
-2.720E-06,0.720
-2.710E-06,0.800
-2.700E-06,0.880
-2.690E-06,0.880
-2.680E-06,0.920
-2.670E-06,0.880
-2.660E-06,0.880
-2.650E-06,0.840
-2.640E-06,0.880
-2.630E-06,0.840
-2.620E-06,0.840
-2.610E-06,0.840
-2.600E-06,0.800
-2.590E-06,0.760
-2.580E-06,0.800
-2.570E-06,0.800
-2.560E-06,0.800
-2.550E-06,0.760
-2.540E-06,0.760
-2.530E-06,0.640
-2.520E-06,0.640
-2.510E-06,0.560
-2.500E-06,0.480
-2.490E-06,0.440
-2.480E-06,0.360
-2.470E-06,0.160
-2.460E-06,0.120
-2.450E-06,0.080
-2.440E-06,0.040
-2.430E-06,0.040
-2.420E-06,0.040
-2.410E-06,0.080
-2.400E-06,-0.040
-2.390E-06,-0.040
-2.380E-06,-0.200
-2.370E-06,-0.160
-2.360E-06,-0.200
-2.350E-06,-0.120
-2.340E-06,0.000
-2.330E-06,0.240
-2.320E-06,0.280
-2.310E-06,0.240
-2.300E-06,0.280
-2.290E-06,0.280
-2.280E-06,0.320
-2.270E-06,0.480
-2.260E-06,0.600
-2.250E-06,0.680
-2.240E-06,0.720
-2.230E-06,0.680
-2.220E-06,0.640
-2.210E-06,0.800
-2.200E-06,0.840
-2.190E-06,0.840
-2.180E-06,0.880
-2.170E-06,0.880
-2.160E-06,0.840
-2.150E-06,0.960
-2.140E-06,1.040
-2.130E-06,1.040
-2.120E-06,1.040
-2.110E-06,0.960
-2.100E-06,0.920
-2.090E-06,0.880
-2.080E-06,0.880
-2.070E-06,0.840
-2.060E-06,0.760
-2.050E-06,0.680
-2.040E-06,0.680
-2.030E-06,0.560
-2.020E-06,0.600
-2.010E-06,0.800
-2.000E-06,0.840
-1.990E-06,0.480
-1.980E-06,0.480
-1.970E-06,0.960
-1.960E-06,1.000
-1.950E-06,2.080
-1.940E-06,2.480
-1.930E-06,1.840
-1.920E-06,1.400
-1.910E-06,1.160
-1.900E-06,0.320
-1.890E-06,0.520
-1.880E-06,1.040
-1.870E-06,0.920
-1.860E-06,0.840
-1.850E-06,0.560
-1.840E-06,-0.040
-1.830E-06,-0.640
-1.820E-06,-0.800
-1.810E-06,-0.960
-1.800E-06,-1.080
-1.790E-06,-0.720
-1.780E-06,-0.560
-1.770E-06,-0.840
-1.760E-06,-1.000
-1.750E-06,-1.120
-1.740E-06,-1.480
-1.730E-06,-1.760
-1.720E-06,-1.680
-1.710E-06,-1.680
-1.700E-06,-1.520
-1.690E-06,-1.080
-1.680E-06,-0.840
-1.670E-06,-0.840
-1.660E-06,-0.520
-1.650E-06,-0.200
-1.640E-06,-0.160
-1.630E-06,0.080
-1.620E-06,0.480
-1.610E-06,0.520
-1.600E-06,0.680
-1.590E-06,0.880
-1.580E-06,0.880
-1.570E-06,0.920
-1.560E-06,1.040
-1.550E-06,1.080
-1.540E-06,1.000
-1.530E-06,1.040
-1.520E-06,1.000
-1.510E-06,0.920
-1.500E-06,1.040
-1.490E-06,1.160
-1.480E-06,1.160
-1.470E-06,1.240
-1.460E-06,1.000
-1.450E-06,0.880
-1.440E-06,0.760
-1.430E-06,0.640
-1.420E-06,0.480
-1.410E-06,0.440
-1.400E-06,0.280
-1.390E-06,0.080
-1.380E-06,0.000
-1.370E-06,-0.120
-1.360E-06,-0.360
-1.350E-06,-0.440
-1.340E-06,-0.680
-1.330E-06,-0.920
-1.320E-06,-1.080
-1.310E-06,-1.160
-1.300E-06,-1.120
-1.290E-06,-1.120
-1.280E-06,-0.960
-1.270E-06,-0.880
-1.260E-06,-0.840
-1.250E-06,-0.840
-1.240E-06,-0.920
-1.230E-06,-0.800
-1.220E-06,-0.600
-1.210E-06,-0.240
-1.200E-06,-0.040
-1.190E-06,0.280
-1.180E-06,0.440
-1.170E-06,0.520
-1.160E-06,0.720
-1.150E-06,0.880
-1.140E-06,0.960
-1.130E-06,1.000
-1.120E-06,1.000
-1.110E-06,0.840
-1.100E-06,0.560
-1.090E-06,0.520
-1.080E-06,0.480
-1.070E-06,0.640
-1.060E-06,0.800
-1.050E-06,0.920
-1.040E-06,0.880
-1.030E-06,0.680
-1.020E-06,0.520
-1.010E-06,0.400
-1.000E-06,0.400
-9.900E-07,0.680
-9.800E-07,1.000
-9.700E-07,1.160
-9.600E-07,1.240
-9.500E-07,1.080
-9.400E-07,0.800
-9.300E-07,0.680
-9.200E-07,0.680
-9.100E-07,0.720
-9.000E-07,0.760
-8.900E-07,0.800
-8.800E-07,0.640
-8.700E-07,0.480
-8.600E-07,0.320
-8.500E-07,0.240
-8.400E-07,0.160
-8.300E-07,0.160
-8.200E-07,0.080
-8.100E-07,0.040
-8.000E-07,0.040
-7.900E-07,0.000
-7.800E-07,0.000
-7.700E-07,0.040
-7.600E-07,0.160
-7.500E-07,0.120
-7.400E-07,0.120
-7.300E-07,0.120
-7.200E-07,-0.040
-7.100E-07,-0.120
-7.000E-07,-0.200
-6.900E-07,-0.280
-6.800E-07,-0.560
-6.700E-07,-1.200
-6.600E-07,-1.160
-6.500E-07,-0.800
-6.400E-07,0.040
-6.300E-07,1.400
-6.200E-07,1.880
-6.100E-07,0.640
-6.000E-07,-0.320
-5.900E-07,-1.320
-5.800E-07,-1.840
-5.700E-07,-1.080
-5.600E-07,0.120
-5.500E-07,0.280
-5.400E-07,0.360
-5.300E-07,-0.080
-5.200E-07,-0.680
-5.100E-07,-0.720
-5.000E-07,-0.200
-4.900E-07,-0.040
-4.800E-07,0.520
-4.700E-07,1.040
-4.600E-07,1.240
-4.500E-07,1.600
-4.400E-07,1.720
-4.300E-07,1.680
-4.200E-07,1.760
-4.100E-07,1.680
-4.000E-07,1.680
-3.900E-07,1.840
-3.800E-07,1.960
-3.700E-07,2.000
-3.600E-07,2.040
-3.500E-07,2.000
-3.400E-07,1.920
-3.300E-07,1.760
-3.200E-07,1.400
-3.100E-07,0.960
-3.000E-07,0.560
-2.900E-07,0.480
-2.800E-07,0.400
-2.700E-07,0.640
-2.600E-07,0.720
-2.500E-07,0.680
-2.400E-07,0.680
-2.300E-07,0.760
-2.200E-07,0.720
-2.100E-07,0.840
-2.000E-07,0.960
-1.900E-07,1.040
-1.800E-07,0.960
-1.700E-07,1.040
-1.600E-07,0.800
-1.500E-07,0.720
-1.400E-07,0.720
-1.300E-07,0.880
-1.200E-07,0.960
-1.100E-07,1.200
-1.000E-07,1.480
-9.000E-08,1.440
-8.000E-08,1.480
-7.000E-08,1.280
-6.000E-08,1.000
-5.000E-08,0.640
-4.000E-08,0.360
-3.000E-08,-0.040
-2.000E-08,-0.360
-1.000E-08,-0.880
0.000E+00,-1.240
1.000E-08,-1.040
2.000E-08,-0.080
3.000E-08,1.160
4.000E-08,2.160
5.000E-08,2.720
6.000E-08,2.560
7.000E-08,2.120
8.000E-08,1.840
9.000E-08,1.840
1.000E-07,1.960
1.100E-07,2.320
1.200E-07,2.320
1.300E-07,2.320
1.400E-07,2.280
1.500E-07,2.000
1.600E-07,1.880
1.700E-07,1.880
1.800E-07,1.320
1.900E-07,0.920
2.000E-07,0.800
2.100E-07,0.520
2.200E-07,0.480
2.300E-07,0.520
2.400E-07,0.320
2.500E-07,-0.040
2.600E-07,-0.280
2.700E-07,-0.520
2.800E-07,-0.600
2.900E-07,-0.480
3.000E-07,-0.320
3.100E-07,-0.320
3.200E-07,-0.320
3.300E-07,-0.360
3.400E-07,-0.440
3.500E-07,-0.520
3.600E-07,-0.600
3.700E-07,-0.600
3.800E-07,-0.520
3.900E-07,-0.520
4.000E-07,-0.400
4.100E-07,-0.360
4.200E-07,-0.400
4.300E-07,-0.400
4.400E-07,-0.480
4.500E-07,-0.560
4.600E-07,-0.560
4.700E-07,-0.520
4.800E-07,-0.400
4.900E-07,-0.240
5.000E-07,0.000
5.100E-07,0.040
5.200E-07,0.200
5.300E-07,0.240
5.400E-07,0.320
5.500E-07,0.400
5.600E-07,0.480
5.700E-07,0.600
5.800E-07,0.680
5.900E-07,0.640
6.000E-07,0.760
6.100E-07,0.720
6.200E-07,0.640
6.300E-07,0.560
6.400E-07,0.560
6.500E-07,0.520
6.600E-07,0.440
6.700E-07,0.480
6.800E-07,0.320
6.900E-07,0.240
7.000E-07,0.120
7.100E-07,0.120
7.200E-07,0.160
7.300E-07,0.320
7.400E-07,0.520
7.500E-07,0.640
7.600E-07,0.640
7.700E-07,0.600
7.800E-07,0.520
7.900E-07,0.400
8.000E-07,0.440
8.100E-07,0.520
8.200E-07,0.440
8.300E-07,0.400
8.400E-07,0.400
8.500E-07,0.040
8.600E-07,-0.320
8.700E-07,-0.880
8.800E-07,-1.960
8.900E-07,-2.600
9.000E-07,-3.120
9.100E-07,-2.480
9.200E-07,-1.360
9.300E-07,0.400
9.400E-07,1.520
9.500E-07,2.160
9.600E-07,1.200
9.700E-07,0.200
9.800E-07,-1.840
9.900E-07,-2.080
1.000E-06,-2.600
1.010E-06,-1.720
1.020E-06,-0.440
1.030E-06,0.760
1.040E-06,1.360
1.050E-06,1.840
1.060E-06,1.480
1.070E-06,0.960
1.080E-06,0.920
1.090E-06,1.120
1.100E-06,2.240
1.110E-06,3.240
1.120E-06,3.680
1.130E-06,3.480
1.140E-06,3.160
1.150E-06,2.520
1.160E-06,1.840
1.170E-06,1.480
1.180E-06,1.160
1.190E-06,1.040
1.200E-06,0.960
1.210E-06,0.800
1.220E-06,0.520
1.230E-06,0.240
1.240E-06,-0.040
1.250E-06,-0.440
1.260E-06,-0.840
1.270E-06,-1.200
1.280E-06,-1.480
1.290E-06,-1.600
1.300E-06,-1.680
1.310E-06,-1.640
1.320E-06,-1.560
1.330E-06,-1.560
1.340E-06,-1.560
1.350E-06,-1.720
1.360E-06,-1.760
1.370E-06,-1.800
1.380E-06,-1.520
1.390E-06,-1.280
1.400E-06,-1.000
1.410E-06,-0.640
1.420E-06,-0.440
1.430E-06,-0.280
1.440E-06,-0.240
1.450E-06,0.000
1.460E-06,0.160
1.470E-06,0.480
1.480E-06,0.760
1.490E-06,1.000
1.500E-06,1.320
1.510E-06,1.560
1.520E-06,1.880
1.530E-06,2.000
1.540E-06,2.120
1.550E-06,2.320
1.560E-06,2.360
1.570E-06,2.480
1.580E-06,2.600
1.590E-06,2.600
1.600E-06,2.520
1.610E-06,2.240
1.620E-06,1.960
1.630E-06,1.600
1.640E-06,1.080
1.650E-06,0.640
1.660E-06,0.360
1.670E-06,0.040
1.680E-06,-0.280
1.690E-06,-0.440
1.700E-06,-0.680
1.710E-06,-0.880
1.720E-06,-0.880
1.730E-06,-0.920
1.740E-06,-0.800
1.750E-06,-0.680
1.760E-06,-0.720
1.770E-06,-0.760
1.780E-06,-0.760
1.790E-06,-0.600
1.800E-06,-0.360
1.810E-06,0.000
1.820E-06,0.160
1.830E-06,0.240
1.840E-06,0.080
1.850E-06,-0.240
1.860E-06,-0.600
1.870E-06,-1.280
1.880E-06,-1.840
1.890E-06,-2.120
1.900E-06,-2.680
1.910E-06,-2.680
1.920E-06,-2.680
1.930E-06,-2.520
1.940E-06,-2.200
1.950E-06,-1.480
1.960E-06,-0.560
1.970E-06,0.960
1.980E-06,2.840
1.990E-06,4.560
2.000E-06,5.440
2.010E-06,5.440
2.020E-06,5.240
2.030E-06,4.440
2.040E-06,3.320
2.050E-06,2.480
2.060E-06,2.200
2.070E-06,2.160
2.080E-06,2.120
2.090E-06,2.440
2.100E-06,2.320
2.110E-06,2.160
2.120E-06,2.280
2.130E-06,2.360
2.140E-06,2.440
2.150E-06,2.800
2.160E-06,3.040
2.170E-06,3.400
2.180E-06,3.440
2.190E-06,3.360
2.200E-06,2.880
2.210E-06,2.480
2.220E-06,2.040
2.230E-06,1.760
2.240E-06,1.520
2.250E-06,1.480
2.260E-06,1.400
2.270E-06,1.280
2.280E-06,1.320
2.290E-06,1.160
2.300E-06,1.040
2.310E-06,0.920
2.320E-06,0.600
2.330E-06,0.360
2.340E-06,0.200
2.350E-06,0.120
2.360E-06,0.040
2.370E-06,0.000
2.380E-06,-0.080
2.390E-06,-0.280
2.400E-06,-0.480
2.410E-06,-0.840
2.420E-06,-1.200
2.430E-06,-1.520
2.440E-06,-1.760
2.450E-06,-2.000
2.460E-06,-2.080
2.470E-06,-2.040
2.480E-06,-1.880
2.490E-06,-1.760
2.500E-06,-1.520
2.510E-06,-1.400
2.520E-06,-1.280
2.530E-06,-1.200
2.540E-06,-1.160
2.550E-06,-1.160
2.560E-06,-1.080
2.570E-06,-1.080
2.580E-06,-1.120
2.590E-06,-1.080
2.600E-06,-1.160
2.610E-06,-1.280
2.620E-06,-1.400
2.630E-06,-1.520
2.640E-06,-1.600
2.650E-06,-1.720
2.660E-06,-1.720
2.670E-06,-1.720
2.680E-06,-1.600
2.690E-06,-1.600
2.700E-06,-1.480
2.710E-06,-1.320
2.720E-06,-1.160
2.730E-06,-1.040
2.740E-06,-0.880
2.750E-06,-0.840
2.760E-06,-0.640
2.770E-06,-0.680
2.780E-06,-0.640
2.790E-06,-0.600
2.800E-06,-0.680
2.810E-06,-0.760
2.820E-06,-0.880
2.830E-06,-0.960
2.840E-06,-1.200
2.850E-06,-1.320
2.860E-06,-1.520
2.870E-06,-1.640
2.880E-06,-1.680
2.890E-06,-1.720
2.900E-06,-1.760
2.910E-06,-1.720
2.920E-06,-1.680
2.930E-06,-1.600
2.940E-06,-1.520
2.950E-06,-1.440
2.960E-06,-1.440
2.970E-06,-1.360
2.980E-06,-1.280
2.990E-06,-1.280
3.000E-06,-1.360
3.010E-06,-1.280
3.020E-06,-1.240
3.030E-06,-1.240
3.040E-06,-1.200
3.050E-06,-1.160
3.060E-06,-1.200
3.070E-06,-1.280
3.080E-06,-1.320
3.090E-06,-1.440
3.100E-06,-1.600
3.110E-06,-1.760
3.120E-06,-1.880
3.130E-06,-2.080
3.140E-06,-2.240
3.150E-06,-2.480
3.160E-06,-2.720
3.170E-06,-3.000
3.180E-06,-3.320
3.190E-06,-3.640
3.200E-06,-3.960
3.210E-06,-4.280
