mediciones/5-22/-5/WaveData4942.csv

#timebase=2000000(ps)
,#voltbase=100000(mv/100)
#size=4000
-8.400E-06,0.000
-8.390E-06,0.000
-8.380E-06,0.000
-8.370E-06,0.000
-8.360E-06,0.004
-8.350E-06,0.000
-8.340E-06,0.004
-8.330E-06,0.004
-8.320E-06,0.000
-8.310E-06,-0.004
-8.300E-06,0.000
-8.290E-06,-0.004
-8.280E-06,0.004
-8.270E-06,0.008
-8.260E-06,-0.004
-8.250E-06,-0.004
-8.240E-06,0.004
-8.230E-06,-0.004
-8.220E-06,0.000
-8.210E-06,0.004
-8.200E-06,0.008
-8.190E-06,0.000
-8.180E-06,-0.004
-8.170E-06,0.004
-8.160E-06,0.000
-8.150E-06,0.004
-8.140E-06,0.004
-8.130E-06,0.004
-8.120E-06,0.000
-8.110E-06,0.004
-8.100E-06,0.004
-8.090E-06,0.004
-8.080E-06,0.004
-8.070E-06,0.004
-8.060E-06,0.000
-8.050E-06,-0.004
-8.040E-06,0.004
-8.030E-06,0.000
-8.020E-06,0.004
-8.010E-06,0.004
-8.000E-06,0.000
-7.990E-06,0.000
-7.980E-06,-0.004
-7.970E-06,0.004
-7.960E-06,0.004
-7.950E-06,0.008
-7.940E-06,0.004
-7.930E-06,0.004
-7.920E-06,0.000
-7.910E-06,0.000
-7.900E-06,0.004
-7.890E-06,-0.004
-7.880E-06,0.000
-7.870E-06,0.004
-7.860E-06,0.008
-7.850E-06,0.000
-7.840E-06,-0.004
-7.830E-06,0.004
-7.820E-06,0.008
-7.810E-06,0.008
-7.800E-06,0.008
-7.790E-06,0.000
-7.780E-06,0.000
-7.770E-06,0.004
-7.760E-06,0.004
-7.750E-06,0.004
-7.740E-06,0.004
-7.730E-06,0.004
-7.720E-06,0.004
-7.710E-06,0.004
-7.700E-06,-0.004
-7.690E-06,0.004
-7.680E-06,0.008
-7.670E-06,0.008
-7.660E-06,0.000
-7.650E-06,-0.004
-7.640E-06,0.000
-7.630E-06,0.000
-7.620E-06,0.004
-7.610E-06,0.000
-7.600E-06,0.008
-7.590E-06,0.008
-7.580E-06,0.000
-7.570E-06,-0.004
-7.560E-06,0.004
-7.550E-06,0.008
-7.540E-06,0.008
-7.530E-06,0.000
-7.520E-06,0.000
-7.510E-06,0.004
-7.500E-06,0.004
-7.490E-06,0.004
-7.480E-06,0.004
-7.470E-06,0.000
-7.460E-06,0.004
-7.450E-06,0.004
-7.440E-06,0.004
-7.430E-06,-0.004
-7.420E-06,0.008
-7.410E-06,0.004
-7.400E-06,0.004
-7.390E-06,0.004
-7.380E-06,0.000
-7.370E-06,0.000
-7.360E-06,0.000
-7.350E-06,0.004
-7.340E-06,0.004
-7.330E-06,0.008
-7.320E-06,0.004
-7.310E-06,0.004
-7.300E-06,0.000
-7.290E-06,-0.004
-7.280E-06,0.000
-7.270E-06,0.004
-7.260E-06,0.000
-7.250E-06,0.004
-7.240E-06,0.008
-7.230E-06,0.004
-7.220E-06,0.000
-7.210E-06,0.000
-7.200E-06,0.000
-7.190E-06,0.000
-7.180E-06,0.004
-7.170E-06,0.004
-7.160E-06,0.004
-7.150E-06,0.004
-7.140E-06,0.004
-7.130E-06,0.000
-7.120E-06,0.000
-7.110E-06,0.000
-7.100E-06,0.004
-7.090E-06,0.004
-7.080E-06,0.000
-7.070E-06,0.004
-7.060E-06,-0.004
-7.050E-06,0.000
-7.040E-06,0.004
-7.030E-06,0.000
-7.020E-06,0.004
-7.010E-06,0.004
-7.000E-06,0.004
-6.990E-06,0.000
-6.980E-06,-0.004
-6.970E-06,0.004
-6.960E-06,0.004
-6.950E-06,0.004
-6.940E-06,0.004
-6.930E-06,0.004
-6.920E-06,0.000
-6.910E-06,0.000
-6.900E-06,0.004
-6.890E-06,0.004
-6.880E-06,0.004
-6.870E-06,0.000
-6.860E-06,0.004
-6.850E-06,0.000
-6.840E-06,0.004
-6.830E-06,0.004
-6.820E-06,0.004
-6.810E-06,0.000
-6.800E-06,0.004
-6.790E-06,0.004
-6.780E-06,0.004
-6.770E-06,0.000
-6.760E-06,0.004
-6.750E-06,-0.004
-6.740E-06,-0.004
-6.730E-06,0.004
-6.720E-06,0.008
-6.710E-06,0.008
-6.700E-06,0.004
-6.690E-06,0.000
-6.680E-06,0.000
-6.670E-06,-0.004
-6.660E-06,0.000
-6.650E-06,0.000
-6.640E-06,0.008
-6.630E-06,0.004
-6.620E-06,0.004
-6.610E-06,0.000
-6.600E-06,0.004
-6.590E-06,0.004
-6.580E-06,0.004
-6.570E-06,0.004
-6.560E-06,0.004
-6.550E-06,-0.004
-6.540E-06,0.016
-6.530E-06,-0.008
-6.520E-06,0.000
-6.510E-06,0.000
-6.500E-06,0.020
-6.490E-06,-0.008
-6.480E-06,-0.008
-6.470E-06,0.008
-6.460E-06,-0.004
-6.450E-06,0.000
-6.440E-06,0.000
-6.430E-06,0.004
-6.420E-06,-0.004
-6.410E-06,0.008
-6.400E-06,0.004
-6.390E-06,0.004
-6.380E-06,0.004
-6.370E-06,0.000
-6.360E-06,0.000
-6.350E-06,0.000
-6.340E-06,0.000
-6.330E-06,0.000
-6.320E-06,0.012
-6.310E-06,-0.004
-6.300E-06,0.000
-6.290E-06,-0.004
-6.280E-06,0.024
-6.270E-06,-0.012
-6.260E-06,-0.004
-6.250E-06,0.020
-6.240E-06,0.012
-6.230E-06,-0.004
-6.220E-06,-0.004
-6.210E-06,0.004
-6.200E-06,-0.008
-6.190E-06,0.008
-6.180E-06,0.012
-6.170E-06,0.004
-6.160E-06,0.004
-6.150E-06,0.008
-6.140E-06,0.000
-6.130E-06,-0.004
-6.120E-06,0.004
-6.110E-06,0.000
-6.100E-06,0.008
-6.090E-06,0.008
-6.080E-06,0.004
-6.070E-06,0.000
-6.060E-06,0.004
-6.050E-06,0.000
-6.040E-06,0.004
-6.030E-06,0.000
-6.020E-06,0.000
-6.010E-06,-0.004
-6.000E-06,0.004
-5.990E-06,0.000
-5.980E-06,0.008
-5.970E-06,0.004
-5.960E-06,-0.004
-5.950E-06,0.000
-5.940E-06,0.000
-5.930E-06,0.004
-5.920E-06,-0.004
-5.910E-06,0.004
-5.900E-06,0.004
-5.890E-06,0.004
-5.880E-06,0.004
-5.870E-06,0.008
-5.860E-06,-0.004
-5.850E-06,0.000
-5.840E-06,0.004
-5.830E-06,0.000
-5.820E-06,0.000
-5.810E-06,0.028
-5.800E-06,-0.012
-5.790E-06,0.020
-5.780E-06,-0.052
-5.770E-06,0.028
-5.760E-06,-0.036
-5.750E-06,0.004
-5.740E-06,0.064
-5.730E-06,0.024
-5.720E-06,0.012
-5.710E-06,-0.016
-5.700E-06,-0.020
-5.690E-06,-0.044
-5.680E-06,0.016
-5.670E-06,0.024
-5.660E-06,0.040
-5.650E-06,0.020
-5.640E-06,0.004
-5.630E-06,-0.028
-5.620E-06,-0.008
-5.610E-06,-0.004
-5.600E-06,0.000
-5.590E-06,0.028
-5.580E-06,0.012
-5.570E-06,0.004
-5.560E-06,-0.008
-5.550E-06,-0.004
-5.540E-06,-0.008
-5.530E-06,0.008
-5.520E-06,0.012
-5.510E-06,0.008
-5.500E-06,0.004
-5.490E-06,0.004
-5.480E-06,-0.004
-5.470E-06,0.000
-5.460E-06,0.008
-5.450E-06,0.004
-5.440E-06,0.004
-5.430E-06,0.004
-5.420E-06,0.000
-5.410E-06,0.008
-5.400E-06,0.008
-5.390E-06,0.004
-5.380E-06,0.000
-5.370E-06,-0.004
-5.360E-06,0.000
-5.350E-06,0.004
-5.340E-06,0.004
-5.330E-06,0.008
-5.320E-06,0.004
-5.310E-06,0.004
-5.300E-06,-0.008
-5.290E-06,0.000
-5.280E-06,0.000
-5.270E-06,0.000
-5.260E-06,0.008
-5.250E-06,0.012
-5.240E-06,0.004
-5.230E-06,0.004
-5.220E-06,0.000
-5.210E-06,0.004
-5.200E-06,0.004
-5.190E-06,0.004
-5.180E-06,0.000
-5.170E-06,0.000
-5.160E-06,0.000
-5.150E-06,0.004
-5.140E-06,0.000
-5.130E-06,0.004
-5.120E-06,0.004
-5.110E-06,0.000
-5.100E-06,0.000
-5.090E-06,0.000
-5.080E-06,-0.004
-5.070E-06,0.004
-5.060E-06,0.008
-5.050E-06,0.004
-5.040E-06,0.004
-5.030E-06,0.000
-5.020E-06,0.000
-5.010E-06,0.004
-5.000E-06,0.004
-4.990E-06,0.004
-4.980E-06,0.004
-4.970E-06,0.000
-4.960E-06,0.004
-4.950E-06,0.004
-4.940E-06,0.000
-4.930E-06,0.000
-4.920E-06,0.004
-4.910E-06,0.004
-4.900E-06,0.000
-4.890E-06,0.004
-4.880E-06,0.000
-4.870E-06,0.004
-4.860E-06,0.000
-4.850E-06,0.004
-4.840E-06,0.004
-4.830E-06,0.004
-4.820E-06,0.004
-4.810E-06,0.000
-4.800E-06,0.004
-4.790E-06,0.004
-4.780E-06,0.000
-4.770E-06,0.004
-4.760E-06,0.008
-4.750E-06,0.008
-4.740E-06,0.012
-4.730E-06,0.016
-4.720E-06,0.012
-4.710E-06,0.012
-4.700E-06,0.004
-4.690E-06,-0.008
-4.680E-06,-0.012
-4.670E-06,-0.008
-4.660E-06,0.004
-4.650E-06,0.008
-4.640E-06,0.012
-4.630E-06,0.008
-4.620E-06,0.004
-4.610E-06,0.008
-4.600E-06,-0.004
-4.590E-06,0.000
-4.580E-06,0.000
-4.570E-06,0.000
-4.560E-06,-0.004
-4.550E-06,0.000
-4.540E-06,0.008
-4.530E-06,0.008
-4.520E-06,0.008
-4.510E-06,0.004
-4.500E-06,-0.004
-4.490E-06,-0.004
-4.480E-06,-0.004
-4.470E-06,0.004
-4.460E-06,0.008
-4.450E-06,0.012
-4.440E-06,0.004
-4.430E-06,0.004
-4.420E-06,0.000
-4.410E-06,0.000
-4.400E-06,0.000
-4.390E-06,0.004
-4.380E-06,0.008
-4.370E-06,0.008
-4.360E-06,0.000
-4.350E-06,0.004
-4.340E-06,0.004
-4.330E-06,0.004
-4.320E-06,0.004
-4.310E-06,0.008
-4.300E-06,0.008
-4.290E-06,0.008
-4.280E-06,0.004
-4.270E-06,0.000
-4.260E-06,0.004
-4.250E-06,0.000
-4.240E-06,0.004
-4.230E-06,0.012
-4.220E-06,0.000
-4.210E-06,0.004
-4.200E-06,0.008
-4.190E-06,0.008
-4.180E-06,-0.004
-4.170E-06,-0.004
-4.160E-06,0.004
-4.150E-06,0.008
-4.140E-06,0.008
-4.130E-06,0.008
-4.120E-06,0.004
-4.110E-06,0.000
-4.100E-06,0.000
-4.090E-06,-0.004
-4.080E-06,0.004
-4.070E-06,0.012
-4.060E-06,0.016
-4.050E-06,0.008
-4.040E-06,0.008
-4.030E-06,0.004
-4.020E-06,0.000
-4.010E-06,-0.004
-4.000E-06,0.000
-3.990E-06,0.008
-3.980E-06,0.008
-3.970E-06,0.008
-3.960E-06,0.004
-3.950E-06,0.004
-3.940E-06,0.004
-3.930E-06,0.008
-3.920E-06,-0.004
-3.910E-06,-0.004
-3.900E-06,0.000
-3.890E-06,-0.004
-3.880E-06,0.000
-3.870E-06,0.004
-3.860E-06,0.008
-3.850E-06,0.008
-3.840E-06,0.004
-3.830E-06,0.000
-3.820E-06,-0.004
-3.810E-06,0.000
-3.800E-06,0.004
-3.790E-06,0.008
-3.780E-06,0.004
-3.770E-06,0.000
-3.760E-06,0.004
-3.750E-06,0.008
-3.740E-06,0.008
-3.730E-06,0.008
-3.720E-06,0.012
-3.710E-06,0.012
-3.700E-06,0.004
-3.690E-06,0.008
-3.680E-06,0.012
-3.670E-06,0.016
-3.660E-06,0.024
-3.650E-06,0.012
-3.640E-06,-0.004
-3.630E-06,-0.008
-3.620E-06,-0.004
-3.610E-06,0.000
-3.600E-06,0.012
-3.590E-06,0.012
-3.580E-06,0.012
-3.570E-06,0.000
-3.560E-06,0.000
-3.550E-06,-0.004
-3.540E-06,0.000
-3.530E-06,0.008
-3.520E-06,0.016
-3.510E-06,0.020
-3.500E-06,0.012
-3.490E-06,0.004
-3.480E-06,-0.004
-3.470E-06,0.004
-3.460E-06,0.004
-3.450E-06,0.016
-3.440E-06,0.016
-3.430E-06,0.008
-3.420E-06,0.008
-3.410E-06,-0.004
-3.400E-06,-0.004
-3.390E-06,0.004
-3.380E-06,0.004
-3.370E-06,0.008
-3.360E-06,0.016
-3.350E-06,0.008
-3.340E-06,0.000
-3.330E-06,0.004
-3.320E-06,-0.004
-3.310E-06,-0.004
-3.300E-06,0.004
-3.290E-06,0.008
-3.280E-06,0.012
-3.270E-06,0.012
-3.260E-06,0.008
-3.250E-06,0.012
-3.240E-06,0.016
-3.230E-06,0.020
-3.220E-06,0.024
-3.210E-06,0.024
-3.200E-06,0.024
-3.190E-06,0.032
-3.180E-06,0.012
-3.170E-06,0.012
-3.160E-06,-0.020
-3.150E-06,-0.048
-3.140E-06,-0.056
-3.130E-06,-0.036
-3.120E-06,-0.012
-3.110E-06,0.004
-3.100E-06,0.024
-3.090E-06,0.008
-3.080E-06,-0.008
-3.070E-06,-0.008
-3.060E-06,-0.016
-3.050E-06,-0.008
-3.040E-06,0.008
-3.030E-06,0.012
-3.020E-06,0.020
-3.010E-06,0.012
-3.000E-06,0.004
-2.990E-06,0.000
-2.980E-06,0.004
-2.970E-06,0.004
-2.960E-06,0.004
-2.950E-06,0.008
-2.940E-06,0.008
-2.930E-06,0.008
-2.920E-06,0.000
-2.910E-06,0.004
-2.900E-06,0.008
-2.890E-06,0.016
-2.880E-06,0.016
-2.870E-06,0.008
-2.860E-06,0.012
-2.850E-06,0.008
-2.840E-06,0.004
-2.830E-06,0.000
-2.820E-06,0.004
-2.810E-06,0.012
-2.800E-06,0.020
-2.790E-06,0.036
-2.780E-06,0.032
-2.770E-06,0.024
-2.760E-06,0.008
-2.750E-06,-0.008
-2.740E-06,-0.012
-2.730E-06,-0.008
-2.720E-06,0.004
-2.710E-06,0.020
-2.700E-06,0.028
-2.690E-06,0.012
-2.680E-06,0.004
-2.670E-06,-0.016
-2.660E-06,-0.016
-2.650E-06,0.000
-2.640E-06,0.008
-2.630E-06,0.012
-2.620E-06,0.012
-2.610E-06,0.000
-2.600E-06,-0.004
-2.590E-06,-0.004
-2.580E-06,0.000
-2.570E-06,0.000
-2.560E-06,0.008
-2.550E-06,0.012
-2.540E-06,0.004
-2.530E-06,-0.004
-2.520E-06,-0.004
-2.510E-06,0.004
-2.500E-06,0.008
-2.490E-06,0.012
-2.480E-06,0.004
-2.470E-06,0.008
-2.460E-06,0.000
-2.450E-06,0.004
-2.440E-06,0.016
-2.430E-06,0.024
-2.420E-06,0.020
-2.410E-06,0.016
-2.400E-06,0.012
-2.390E-06,0.004
-2.380E-06,0.008
-2.370E-06,0.012
-2.360E-06,0.016
-2.350E-06,0.012
-2.340E-06,0.020
-2.330E-06,0.012
-2.320E-06,0.012
-2.310E-06,0.012
-2.300E-06,0.024
-2.290E-06,0.028
-2.280E-06,0.024
-2.270E-06,0.008
-2.260E-06,0.004
-2.250E-06,-0.004
-2.240E-06,0.004
-2.230E-06,0.012
-2.220E-06,0.024
-2.210E-06,0.028
-2.200E-06,0.032
-2.190E-06,0.032
-2.180E-06,0.024
-2.170E-06,0.024
-2.160E-06,0.024
-2.150E-06,0.024
-2.140E-06,0.016
-2.130E-06,0.016
-2.120E-06,0.020
-2.110E-06,0.028
-2.100E-06,0.040
-2.090E-06,0.048
-2.080E-06,0.036
-2.070E-06,0.032
-2.060E-06,0.028
-2.050E-06,0.020
-2.040E-06,0.020
-2.030E-06,0.028
-2.020E-06,0.036
-2.010E-06,0.036
-2.000E-06,0.036
-1.990E-06,0.028
-1.980E-06,0.016
-1.970E-06,0.024
-1.960E-06,0.044
-1.950E-06,0.060
-1.940E-06,0.068
-1.930E-06,0.080
-1.920E-06,0.068
-1.910E-06,0.060
-1.900E-06,0.060
-1.890E-06,0.052
-1.880E-06,0.048
-1.870E-06,0.044
-1.860E-06,0.040
-1.850E-06,0.024
-1.840E-06,0.056
-1.830E-06,0.052
-1.820E-06,-0.028
-1.810E-06,-0.152
-1.800E-06,-0.288
-1.790E-06,-0.304
-1.780E-06,-0.288
-1.770E-06,-0.076
-1.760E-06,0.104
-1.750E-06,0.140
-1.740E-06,0.068
-1.730E-06,-0.052
-1.720E-06,-0.160
-1.710E-06,-0.200
-1.700E-06,-0.100
-1.690E-06,-0.004
-1.680E-06,0.076
-1.670E-06,0.124
-1.660E-06,0.056
-1.650E-06,-0.004
-1.640E-06,-0.064
-1.630E-06,-0.060
-1.620E-06,-0.056
-1.610E-06,0.024
-1.600E-06,0.076
-1.590E-06,0.076
-1.580E-06,0.064
-1.570E-06,0.036
-1.560E-06,-0.008
-1.550E-06,-0.036
-1.540E-06,-0.028
-1.530E-06,-0.012
-1.520E-06,0.012
-1.510E-06,0.032
-1.500E-06,0.032
-1.490E-06,0.024
-1.480E-06,0.000
-1.470E-06,-0.040
-1.460E-06,-0.032
-1.450E-06,-0.036
-1.440E-06,-0.024
-1.430E-06,0.008
-1.420E-06,0.028
-1.410E-06,0.028
-1.400E-06,0.048
-1.390E-06,0.036
-1.380E-06,-0.004
-1.370E-06,-0.004
-1.360E-06,-0.008
-1.350E-06,0.012
-1.340E-06,0.036
-1.330E-06,0.068
-1.320E-06,0.076
-1.310E-06,0.088
-1.300E-06,0.076
-1.290E-06,0.060
-1.280E-06,0.068
-1.270E-06,0.076
-1.260E-06,0.076
-1.250E-06,0.084
-1.240E-06,0.076
-1.230E-06,0.044
-1.220E-06,0.024
-1.210E-06,0.004
-1.200E-06,0.008
-1.190E-06,0.016
-1.180E-06,0.036
-1.170E-06,0.048
-1.160E-06,0.044
-1.150E-06,0.040
-1.140E-06,0.020
-1.130E-06,0.012
-1.120E-06,0.004
-1.110E-06,0.004
-1.100E-06,0.008
-1.090E-06,0.020
-1.080E-06,0.024
-1.070E-06,0.012
-1.060E-06,0.008
-1.050E-06,0.016
-1.040E-06,0.036
-1.030E-06,0.036
-1.020E-06,0.048
-1.010E-06,0.040
-1.000E-06,0.028
-9.900E-07,0.012
-9.800E-07,0.008
-9.700E-07,0.016
-9.600E-07,0.036
-9.500E-07,0.060
-9.400E-07,0.056
-9.300E-07,0.044
-9.200E-07,0.032
-9.100E-07,0.028
-9.000E-07,0.024
-8.900E-07,0.040
-8.800E-07,0.072
-8.700E-07,0.092
-8.600E-07,0.096
-8.500E-07,0.096
-8.400E-07,0.084
-8.300E-07,0.092
-8.200E-07,0.096
-8.100E-07,0.084
-8.000E-07,0.020
-7.900E-07,-0.052
-7.800E-07,-0.160
-7.700E-07,-0.236
-7.600E-07,-0.208
-7.500E-07,-0.104
-7.400E-07,0.040
-7.300E-07,0.124
-7.200E-07,0.036
-7.100E-07,-0.152
-7.000E-07,-0.308
-6.900E-07,-0.400
-6.800E-07,-0.332
-6.700E-07,-0.152
-6.600E-07,0.056
-6.500E-07,0.172
-6.400E-07,0.200
-6.300E-07,0.068
-6.200E-07,-0.100
-6.100E-07,-0.200
-6.000E-07,-0.200
-5.900E-07,-0.092
-5.800E-07,0.044
-5.700E-07,0.136
-5.600E-07,0.148
-5.500E-07,0.096
-5.400E-07,-0.016
-5.300E-07,-0.108
-5.200E-07,-0.140
-5.100E-07,-0.084
-5.000E-07,0.012
-4.900E-07,0.104
-4.800E-07,0.144
-4.700E-07,0.104
-4.600E-07,0.024
-4.500E-07,-0.088
-4.400E-07,-0.112
-4.300E-07,-0.096
-4.200E-07,-0.028
-4.100E-07,0.056
-4.000E-07,0.100
-3.900E-07,0.088
-3.800E-07,0.040
-3.700E-07,-0.024
-3.600E-07,-0.056
-3.500E-07,-0.028
-3.400E-07,0.008
-3.300E-07,0.044
-3.200E-07,0.072
-3.100E-07,0.084
-3.000E-07,0.072
-2.900E-07,0.052
-2.800E-07,0.040
-2.700E-07,0.060
-2.600E-07,0.084
-2.500E-07,0.104
-2.400E-07,0.124
-2.300E-07,0.148
-2.200E-07,0.156
-2.100E-07,0.140
-2.000E-07,0.140
-1.900E-07,0.140
-1.800E-07,0.152
-1.700E-07,0.160
-1.600E-07,0.184
-1.500E-07,0.180
-1.400E-07,0.172
-1.300E-07,0.164
-1.200E-07,0.136
-1.100E-07,0.132
-1.000E-07,0.164
-9.000E-08,0.112
-8.000E-08,0.128
-7.000E-08,0.092
-6.000E-08,0.152
-5.000E-08,0.028
-4.000E-08,-0.164
-3.000E-08,-0.260
-2.000E-08,-0.208
-1.000E-08,0.192
0.000E+00,0.392
1.000E-08,0.432
2.000E-08,0.288
3.000E-08,-0.004
4.000E-08,-0.500
5.000E-08,-0.512
6.000E-08,-0.512
7.000E-08,-0.220
8.000E-08,0.424
9.000E-08,0.456
1.000E-07,-0.076
1.100E-07,-0.512
1.200E-07,-0.508
1.300E-07,-0.508
1.400E-07,-0.412
1.500E-07,0.536
1.600E-07,0.540
1.700E-07,0.540
1.800E-07,0.400
1.900E-07,-0.408
2.000E-07,-0.508
2.100E-07,-0.508
2.200E-07,-0.296
2.300E-07,0.364
2.400E-07,0.540
2.500E-07,0.540
2.600E-07,0.332
2.700E-07,-0.244
2.800E-07,-0.512
2.900E-07,-0.508
3.000E-07,-0.208
3.100E-07,0.208
3.200E-07,0.480
3.300E-07,0.480
3.400E-07,0.236
3.500E-07,-0.068
3.600E-07,-0.304
3.700E-07,-0.336
3.800E-07,-0.192
3.900E-07,0.052
4.000E-07,0.248
4.100E-07,0.296
4.200E-07,0.196
4.300E-07,0.012
4.400E-07,-0.148
4.500E-07,-0.204
4.600E-07,-0.148
4.700E-07,-0.012
4.800E-07,0.136
4.900E-07,0.208
5.000E-07,0.192
5.100E-07,0.096
5.200E-07,-0.012
5.300E-07,-0.084
5.400E-07,-0.068
5.500E-07,0.012
5.600E-07,0.124
5.700E-07,0.192
5.800E-07,0.204
5.900E-07,0.168
6.000E-07,0.108
6.100E-07,0.060
6.200E-07,0.064
6.300E-07,0.120
6.400E-07,0.180
6.500E-07,0.228
6.600E-07,0.236
6.700E-07,0.212
6.800E-07,0.160
6.900E-07,0.136
7.000E-07,0.120
7.100E-07,0.132
7.200E-07,0.160
7.300E-07,0.184
7.400E-07,0.196
7.500E-07,0.192
7.600E-07,0.172
7.700E-07,0.152
7.800E-07,0.140
7.900E-07,0.128
8.000E-07,0.136
8.100E-07,0.140
8.200E-07,0.156
8.300E-07,0.156
8.400E-07,0.160
8.500E-07,0.152
8.600E-07,0.148
8.700E-07,0.132
8.800E-07,0.128
8.900E-07,0.124
9.000E-07,0.132
9.100E-07,0.136
9.200E-07,0.092
9.300E-07,-0.004
9.400E-07,-0.168
9.500E-07,-0.284
9.600E-07,-0.176
9.700E-07,-0.072
9.800E-07,0.168
9.900E-07,0.300
1.000E-06,0.124
1.010E-06,-0.272
1.020E-06,-0.508
1.030E-06,-0.512
1.040E-06,-0.512
1.050E-06,-0.332
1.060E-06,0.340
1.070E-06,0.540
1.080E-06,0.544
1.090E-06,0.276
1.100E-06,-0.336
1.110E-06,-0.512
1.120E-06,-0.512
1.130E-06,-0.512
1.140E-06,-0.192
1.150E-06,0.260
1.160E-06,0.452
1.170E-06,0.272
1.180E-06,-0.112
1.190E-06,-0.484
1.200E-06,-0.508
1.210E-06,-0.452
1.220E-06,-0.088
1.230E-06,0.276
1.240E-06,0.448
1.250E-06,0.348
1.260E-06,0.120
1.270E-06,-0.140
1.280E-06,-0.268
1.290E-06,-0.208
1.300E-06,0.008
1.310E-06,0.256
1.320E-06,0.392
1.330E-06,0.404
1.340E-06,0.272
1.350E-06,0.100
1.360E-06,-0.024
1.370E-06,-0.036
1.380E-06,0.052
1.390E-06,0.200
1.400E-06,0.324
1.410E-06,0.356
1.420E-06,0.304
1.430E-06,0.188
1.440E-06,0.092
1.450E-06,0.048
1.460E-06,0.088
1.470E-06,0.164
1.480E-06,0.248
1.490E-06,0.292
1.500E-06,0.272
1.510E-06,0.212
1.520E-06,0.140
1.530E-06,0.096
1.540E-06,0.108
1.550E-06,0.156
1.560E-06,0.204
1.570E-06,0.240
1.580E-06,0.240
1.590E-06,0.208
1.600E-06,0.168
1.610E-06,0.136
1.620E-06,0.128
1.630E-06,0.148
1.640E-06,0.188
1.650E-06,0.212
1.660E-06,0.224
1.670E-06,0.208
1.680E-06,0.188
1.690E-06,0.160
1.700E-06,0.152
1.710E-06,0.156
1.720E-06,0.172
1.730E-06,0.196
1.740E-06,0.200
1.750E-06,0.192
1.760E-06,0.176
1.770E-06,0.160
1.780E-06,0.148
1.790E-06,0.152
1.800E-06,0.156
1.810E-06,0.160
1.820E-06,0.160
1.830E-06,0.152
1.840E-06,0.160
1.850E-06,0.160
1.860E-06,0.156
1.870E-06,0.156
1.880E-06,0.160
1.890E-06,0.152
1.900E-06,0.152
1.910E-06,0.144
1.920E-06,0.140
1.930E-06,0.144
1.940E-06,0.148
1.950E-06,0.156
1.960E-06,0.160
1.970E-06,0.168
1.980E-06,0.172
1.990E-06,0.176
2.000E-06,0.176
2.010E-06,0.172
2.020E-06,0.168
2.030E-06,0.160
2.040E-06,0.160
2.050E-06,0.164
2.060E-06,0.172
2.070E-06,0.176
2.080E-06,0.176
2.090E-06,0.176
2.100E-06,0.168
2.110E-06,0.168
2.120E-06,0.164
2.130E-06,0.168
2.140E-06,0.172
2.150E-06,0.176
2.160E-06,0.172
2.170E-06,0.176
2.180E-06,0.168
2.190E-06,0.168
2.200E-06,0.168
2.210E-06,0.172
2.220E-06,0.168
2.230E-06,0.172
2.240E-06,0.176
2.250E-06,0.172
2.260E-06,0.168
2.270E-06,0.164
2.280E-06,0.168
2.290E-06,0.168
2.300E-06,0.168
2.310E-06,0.172
2.320E-06,0.168
2.330E-06,0.168
2.340E-06,0.168
2.350E-06,0.160
2.360E-06,0.160
2.370E-06,0.164
2.380E-06,0.160
2.390E-06,0.164
2.400E-06,0.160
2.410E-06,0.164
2.420E-06,0.164
2.430E-06,0.160
2.440E-06,0.160
2.450E-06,0.168
2.460E-06,0.164
2.470E-06,0.160
2.480E-06,0.160
2.490E-06,0.160
2.500E-06,0.156
2.510E-06,0.164
2.520E-06,0.164
2.530E-06,0.160
2.540E-06,0.160
2.550E-06,0.164
2.560E-06,0.160
2.570E-06,0.156
2.580E-06,0.156
2.590E-06,0.160
2.600E-06,0.160
2.610E-06,0.156
2.620E-06,0.164
2.630E-06,0.164
2.640E-06,0.160
2.650E-06,0.160
2.660E-06,0.156
2.670E-06,0.156
2.680E-06,0.156
2.690E-06,0.160
2.700E-06,0.160
2.710E-06,0.160
2.720E-06,0.156
2.730E-06,0.152
2.740E-06,0.156
2.750E-06,0.160
2.760E-06,0.156
2.770E-06,0.152
2.780E-06,0.156
2.790E-06,0.152
2.800E-06,0.156
2.810E-06,0.156
2.820E-06,0.160
2.830E-06,0.156
2.840E-06,0.160
2.850E-06,0.152
2.860E-06,0.156
2.870E-06,0.160
2.880E-06,0.156
2.890E-06,0.160
2.900E-06,0.148
2.910E-06,0.152
2.920E-06,0.148
2.930E-06,0.148
2.940E-06,0.156
2.950E-06,0.156
2.960E-06,0.152
2.970E-06,0.156
2.980E-06,0.152
2.990E-06,0.152
3.000E-06,0.144
3.010E-06,0.144
3.020E-06,0.144
3.030E-06,0.148
3.040E-06,0.152
3.050E-06,0.144
3.060E-06,0.148
3.070E-06,0.144
3.080E-06,0.140
3.090E-06,0.144
3.100E-06,0.148
3.110E-06,0.148
3.120E-06,0.148
3.130E-06,0.148
3.140E-06,0.148
3.150E-06,0.136
3.160E-06,0.136
3.170E-06,0.140
3.180E-06,0.136
3.190E-06,0.140
3.200E-06,0.140
3.210E-06,0.140
3.220E-06,0.140
3.230E-06,0.136
3.240E-06,0.140
3.250E-06,0.144
3.260E-06,0.152
3.270E-06,0.156
3.280E-06,0.156
3.290E-06,0.160
3.300E-06,0.144
3.310E-06,0.136
3.320E-06,0.128
3.330E-06,0.128
3.340E-06,0.132
3.350E-06,0.140
3.360E-06,0.148
3.370E-06,0.148
3.380E-06,0.136
3.390E-06,0.128
