mediciones/5-22/-5/WaveData4954.csv

#timebase=2000000(ps)
,#voltbase=100000(mv/100)
#size=4000
-8.400E-06,0.032
-8.390E-06,0.012
-8.380E-06,0.000
-8.370E-06,-0.012
-8.360E-06,-0.016
-8.350E-06,0.000
-8.340E-06,0.012
-8.330E-06,0.024
-8.320E-06,0.028
-8.310E-06,0.016
-8.300E-06,0.008
-8.290E-06,-0.012
-8.280E-06,0.000
-8.270E-06,-0.004
-8.260E-06,0.008
-8.250E-06,0.016
-8.240E-06,0.024
-8.230E-06,0.012
-8.220E-06,0.012
-8.210E-06,0.008
-8.200E-06,0.012
-8.190E-06,0.020
-8.180E-06,0.016
-8.170E-06,0.016
-8.160E-06,0.020
-8.150E-06,0.016
-8.140E-06,0.008
-8.130E-06,0.004
-8.120E-06,0.004
-8.110E-06,0.004
-8.100E-06,0.016
-8.090E-06,0.020
-8.080E-06,0.020
-8.070E-06,0.008
-8.060E-06,-0.036
-8.050E-06,-0.084
-8.040E-06,-0.040
-8.030E-06,-0.004
-8.020E-06,0.028
-8.010E-06,0.044
-8.000E-06,0.048
-7.990E-06,-0.008
-7.980E-06,-0.056
-7.970E-06,-0.064
-7.960E-06,-0.052
-7.950E-06,0.012
-7.940E-06,0.056
-7.930E-06,0.032
-7.920E-06,0.012
-7.910E-06,-0.008
-7.900E-06,-0.036
-7.890E-06,-0.032
-7.880E-06,-0.004
-7.870E-06,0.016
-7.860E-06,0.028
-7.850E-06,0.032
-7.840E-06,0.012
-7.830E-06,-0.004
-7.820E-06,-0.008
-7.810E-06,-0.008
-7.800E-06,0.000
-7.790E-06,0.012
-7.780E-06,0.008
-7.770E-06,0.012
-7.760E-06,0.020
-7.750E-06,0.012
-7.740E-06,0.004
-7.730E-06,0.000
-7.720E-06,-0.004
-7.710E-06,0.000
-7.700E-06,0.008
-7.690E-06,0.012
-7.680E-06,0.020
-7.670E-06,0.024
-7.660E-06,0.016
-7.650E-06,0.012
-7.640E-06,0.012
-7.630E-06,0.008
-7.620E-06,0.012
-7.610E-06,0.008
-7.600E-06,0.008
-7.590E-06,0.004
-7.580E-06,0.004
-7.570E-06,0.004
-7.560E-06,0.008
-7.550E-06,0.020
-7.540E-06,0.020
-7.530E-06,0.028
-7.520E-06,0.032
-7.510E-06,0.016
-7.500E-06,0.004
-7.490E-06,-0.004
-7.480E-06,-0.004
-7.470E-06,-0.012
-7.460E-06,-0.008
-7.450E-06,-0.004
-7.440E-06,-0.004
-7.430E-06,-0.020
-7.420E-06,-0.008
-7.410E-06,0.020
-7.400E-06,0.016
-7.390E-06,-0.004
-7.380E-06,-0.028
-7.370E-06,-0.040
-7.360E-06,-0.040
-7.350E-06,-0.004
-7.340E-06,0.004
-7.330E-06,0.024
-7.320E-06,0.040
-7.310E-06,0.016
-7.300E-06,-0.016
-7.290E-06,-0.040
-7.280E-06,-0.040
-7.270E-06,-0.012
-7.260E-06,0.024
-7.250E-06,0.040
-7.240E-06,0.036
-7.230E-06,0.008
-7.220E-06,-0.012
-7.210E-06,-0.028
-7.200E-06,-0.016
-7.190E-06,0.004
-7.180E-06,0.028
-7.170E-06,0.032
-7.160E-06,0.032
-7.150E-06,0.012
-7.140E-06,-0.004
-7.130E-06,-0.008
-7.120E-06,-0.004
-7.110E-06,0.004
-7.100E-06,0.028
-7.090E-06,0.024
-7.080E-06,0.024
-7.070E-06,0.028
-7.060E-06,0.020
-7.050E-06,0.004
-7.040E-06,0.008
-7.030E-06,0.012
-7.020E-06,0.024
-7.010E-06,0.016
-7.000E-06,0.008
-6.990E-06,0.020
-6.980E-06,0.024
-6.970E-06,0.024
-6.960E-06,-0.020
-6.950E-06,-0.040
-6.940E-06,-0.100
-6.930E-06,-0.092
-6.920E-06,-0.028
-6.910E-06,0.020
-6.900E-06,0.080
-6.890E-06,0.072
-6.880E-06,0.048
-6.870E-06,-0.060
-6.860E-06,-0.088
-6.850E-06,-0.088
-6.840E-06,-0.036
-6.830E-06,0.056
-6.820E-06,0.100
-6.810E-06,0.064
-6.800E-06,0.008
-6.790E-06,-0.048
-6.780E-06,-0.088
-6.770E-06,-0.052
-6.760E-06,0.000
-6.750E-06,0.056
-6.740E-06,0.064
-6.730E-06,0.044
-6.720E-06,-0.004
-6.710E-06,-0.028
-6.700E-06,-0.040
-6.690E-06,-0.028
-6.680E-06,0.012
-6.670E-06,0.024
-6.660E-06,0.036
-6.650E-06,0.036
-6.640E-06,0.008
-6.630E-06,0.000
-6.620E-06,-0.012
-6.610E-06,-0.004
-6.600E-06,0.016
-6.590E-06,0.024
-6.580E-06,0.004
-6.570E-06,0.024
-6.560E-06,0.044
-6.550E-06,0.012
-6.540E-06,0.000
-6.530E-06,-0.004
-6.520E-06,-0.008
-6.510E-06,0.000
-6.500E-06,0.016
-6.490E-06,0.024
-6.480E-06,0.024
-6.470E-06,0.032
-6.460E-06,0.008
-6.450E-06,0.000
-6.440E-06,-0.012
-6.430E-06,-0.016
-6.420E-06,0.000
-6.410E-06,0.024
-6.400E-06,0.028
-6.390E-06,0.020
-6.380E-06,0.024
-6.370E-06,0.012
-6.360E-06,0.000
-6.350E-06,0.000
-6.340E-06,-0.004
-6.330E-06,0.000
-6.320E-06,-0.012
-6.310E-06,-0.012
-6.300E-06,0.004
-6.290E-06,0.024
-6.280E-06,0.016
-6.270E-06,-0.008
-6.260E-06,-0.020
-6.250E-06,-0.044
-6.240E-06,-0.036
-6.230E-06,-0.004
-6.220E-06,0.024
-6.210E-06,0.060
-6.200E-06,0.056
-6.190E-06,0.004
-6.180E-06,-0.056
-6.170E-06,-0.068
-6.160E-06,-0.052
-6.150E-06,-0.008
-6.140E-06,0.052
-6.130E-06,0.072
-6.120E-06,0.040
-6.110E-06,-0.012
-6.100E-06,-0.056
-6.090E-06,-0.068
-6.080E-06,-0.028
-6.070E-06,0.028
-6.060E-06,0.060
-6.050E-06,0.056
-6.040E-06,0.028
-6.030E-06,-0.012
-6.020E-06,-0.036
-6.010E-06,-0.032
-6.000E-06,0.000
-5.990E-06,0.024
-5.980E-06,0.040
-5.970E-06,0.028
-5.960E-06,0.012
-5.950E-06,0.000
-5.940E-06,0.000
-5.930E-06,0.000
-5.920E-06,0.008
-5.910E-06,0.012
-5.900E-06,0.016
-5.890E-06,0.012
-5.880E-06,0.012
-5.870E-06,0.016
-5.860E-06,0.024
-5.850E-06,0.016
-5.840E-06,0.024
-5.830E-06,0.036
-5.820E-06,0.036
-5.810E-06,0.028
-5.800E-06,0.016
-5.790E-06,0.000
-5.780E-06,-0.024
-5.770E-06,-0.044
-5.760E-06,-0.036
-5.750E-06,-0.020
-5.740E-06,0.004
-5.730E-06,0.028
-5.720E-06,0.028
-5.710E-06,0.024
-5.700E-06,0.008
-5.690E-06,0.000
-5.680E-06,0.008
-5.670E-06,0.012
-5.660E-06,0.020
-5.650E-06,-0.008
-5.640E-06,0.012
-5.630E-06,-0.012
-5.620E-06,-0.012
-5.610E-06,-0.020
-5.600E-06,-0.004
-5.590E-06,-0.012
-5.580E-06,-0.012
-5.570E-06,-0.004
-5.560E-06,-0.004
-5.550E-06,0.020
-5.540E-06,0.012
-5.530E-06,0.004
-5.520E-06,-0.004
-5.510E-06,-0.016
-5.500E-06,-0.024
-5.490E-06,0.000
-5.480E-06,0.008
-5.470E-06,0.024
-5.460E-06,0.016
-5.450E-06,0.000
-5.440E-06,-0.008
-5.430E-06,-0.008
-5.420E-06,-0.004
-5.410E-06,0.000
-5.400E-06,0.012
-5.390E-06,0.012
-5.380E-06,0.008
-5.370E-06,0.012
-5.360E-06,0.004
-5.350E-06,0.012
-5.340E-06,0.012
-5.330E-06,0.012
-5.320E-06,0.004
-5.310E-06,-0.004
-5.300E-06,0.004
-5.290E-06,0.008
-5.280E-06,0.016
-5.270E-06,0.024
-5.260E-06,0.012
-5.250E-06,0.008
-5.240E-06,0.008
-5.230E-06,0.008
-5.220E-06,0.020
-5.210E-06,0.032
-5.200E-06,0.032
-5.190E-06,0.032
-5.180E-06,0.028
-5.170E-06,0.020
-5.160E-06,0.024
-5.150E-06,0.024
-5.140E-06,0.028
-5.130E-06,0.012
-5.120E-06,-0.008
-5.110E-06,-0.040
-5.100E-06,-0.068
-5.090E-06,-0.072
-5.080E-06,-0.052
-5.070E-06,0.000
-5.060E-06,0.048
-5.050E-06,0.052
-5.040E-06,0.028
-5.030E-06,-0.004
-5.020E-06,-0.024
-5.010E-06,-0.040
-5.000E-06,-0.024
-4.990E-06,0.020
-4.980E-06,0.056
-4.970E-06,0.056
-4.960E-06,0.012
-4.950E-06,-0.012
-4.940E-06,-0.020
-4.930E-06,-0.008
-4.920E-06,0.008
-4.910E-06,0.004
-4.900E-06,-0.016
-4.890E-06,-0.028
-4.880E-06,-0.028
-4.870E-06,-0.036
-4.860E-06,-0.024
-4.850E-06,0.008
-4.840E-06,0.024
-4.830E-06,0.036
-4.820E-06,0.020
-4.810E-06,-0.008
-4.800E-06,-0.016
-4.790E-06,-0.004
-4.780E-06,0.008
-4.770E-06,0.024
-4.760E-06,0.044
-4.750E-06,0.028
-4.740E-06,0.012
-4.730E-06,-0.012
-4.720E-06,-0.012
-4.710E-06,0.008
-4.700E-06,0.032
-4.690E-06,0.040
-4.680E-06,0.044
-4.670E-06,0.020
-4.660E-06,-0.024
-4.650E-06,-0.068
-4.640E-06,-0.064
-4.630E-06,-0.020
-4.620E-06,0.008
-4.610E-06,0.040
-4.600E-06,0.064
-4.590E-06,0.044
-4.580E-06,0.008
-4.570E-06,-0.036
-4.560E-06,-0.040
-4.550E-06,-0.024
-4.540E-06,0.028
-4.530E-06,0.068
-4.520E-06,0.088
-4.510E-06,0.060
-4.500E-06,0.024
-4.490E-06,-0.028
-4.480E-06,-0.076
-4.470E-06,-0.080
-4.460E-06,-0.044
-4.450E-06,0.008
-4.440E-06,0.028
-4.430E-06,0.032
-4.420E-06,0.016
-4.410E-06,-0.020
-4.400E-06,-0.036
-4.390E-06,-0.036
-4.380E-06,-0.016
-4.370E-06,0.000
-4.360E-06,-0.004
-4.350E-06,-0.004
-4.340E-06,0.004
-4.330E-06,0.020
-4.320E-06,0.016
-4.310E-06,0.004
-4.300E-06,-0.012
-4.290E-06,-0.020
-4.280E-06,-0.016
-4.270E-06,0.000
-4.260E-06,0.024
-4.250E-06,0.036
-4.240E-06,0.032
-4.230E-06,0.008
-4.220E-06,-0.008
-4.210E-06,-0.016
-4.200E-06,-0.020
-4.190E-06,0.008
-4.180E-06,0.024
-4.170E-06,0.044
-4.160E-06,0.032
-4.150E-06,0.016
-4.140E-06,-0.008
-4.130E-06,-0.024
-4.120E-06,-0.020
-4.110E-06,-0.004
-4.100E-06,0.008
-4.090E-06,0.024
-4.080E-06,0.032
-4.070E-06,0.028
-4.060E-06,0.008
-4.050E-06,0.000
-4.040E-06,-0.004
-4.030E-06,0.000
-4.020E-06,0.008
-4.010E-06,0.012
-4.000E-06,0.016
-3.990E-06,0.016
-3.980E-06,0.012
-3.970E-06,0.020
-3.960E-06,0.016
-3.950E-06,0.012
-3.940E-06,0.024
-3.930E-06,0.020
-3.920E-06,0.028
-3.910E-06,0.008
-3.900E-06,0.012
-3.890E-06,0.040
-3.880E-06,0.048
-3.870E-06,-0.008
-3.860E-06,-0.136
-3.850E-06,-0.080
-3.840E-06,-0.088
-3.830E-06,-0.016
-3.820E-06,0.032
-3.810E-06,0.096
-3.800E-06,0.032
-3.790E-06,-0.040
-3.780E-06,-0.068
-3.770E-06,-0.092
-3.760E-06,0.016
-3.750E-06,0.060
-3.740E-06,0.052
-3.730E-06,0.020
-3.720E-06,-0.008
-3.710E-06,-0.064
-3.700E-06,-0.044
-3.690E-06,-0.004
-3.680E-06,0.032
-3.670E-06,0.060
-3.660E-06,0.052
-3.650E-06,0.004
-3.640E-06,-0.036
-3.630E-06,-0.036
-3.620E-06,-0.020
-3.610E-06,0.016
-3.600E-06,0.040
-3.590E-06,0.040
-3.580E-06,0.024
-3.570E-06,0.004
-3.560E-06,0.000
-3.550E-06,-0.004
-3.540E-06,0.012
-3.530E-06,0.024
-3.520E-06,0.036
-3.510E-06,0.044
-3.500E-06,0.048
-3.490E-06,0.024
-3.480E-06,0.012
-3.470E-06,-0.008
-3.460E-06,-0.012
-3.450E-06,-0.008
-3.440E-06,0.000
-3.430E-06,0.020
-3.420E-06,0.028
-3.410E-06,0.020
-3.400E-06,-0.004
-3.390E-06,-0.020
-3.380E-06,-0.016
-3.370E-06,-0.008
-3.360E-06,0.016
-3.350E-06,0.028
-3.340E-06,0.064
-3.330E-06,0.012
-3.320E-06,-0.008
-3.310E-06,-0.056
-3.300E-06,-0.068
-3.290E-06,-0.060
-3.280E-06,-0.020
-3.270E-06,0.008
-3.260E-06,0.020
-3.250E-06,0.060
-3.240E-06,0.032
-3.230E-06,-0.012
-3.220E-06,-0.052
-3.210E-06,-0.056
-3.200E-06,-0.040
-3.190E-06,0.008
-3.180E-06,0.040
-3.170E-06,0.052
-3.160E-06,0.040
-3.150E-06,0.008
-3.140E-06,-0.028
-3.130E-06,-0.032
-3.120E-06,-0.012
-3.110E-06,0.012
-3.100E-06,0.044
-3.090E-06,0.048
-3.080E-06,0.040
-3.070E-06,0.032
-3.060E-06,0.024
-3.050E-06,0.036
-3.040E-06,0.028
-3.030E-06,0.016
-3.020E-06,0.012
-3.010E-06,-0.004
-3.000E-06,-0.008
-2.990E-06,-0.012
-2.980E-06,0.000
-2.970E-06,-0.004
-2.960E-06,0.020
-2.950E-06,0.024
-2.940E-06,0.028
-2.930E-06,0.028
-2.920E-06,0.012
-2.910E-06,0.000
-2.900E-06,-0.104
-2.890E-06,-0.064
-2.880E-06,-0.040
-2.870E-06,0.008
-2.860E-06,0.024
-2.850E-06,0.044
-2.840E-06,0.012
-2.830E-06,-0.048
-2.820E-06,-0.048
-2.810E-06,-0.068
-2.800E-06,-0.004
-2.790E-06,0.060
-2.780E-06,0.060
-2.770E-06,0.024
-2.760E-06,-0.012
-2.750E-06,-0.036
-2.740E-06,-0.028
-2.730E-06,0.012
-2.720E-06,0.044
-2.710E-06,0.064
-2.700E-06,0.048
-2.690E-06,0.024
-2.680E-06,-0.016
-2.670E-06,-0.020
-2.660E-06,-0.024
-2.650E-06,0.000
-2.640E-06,0.024
-2.630E-06,0.020
-2.620E-06,0.028
-2.610E-06,0.032
-2.600E-06,0.044
-2.590E-06,0.032
-2.580E-06,0.016
-2.570E-06,-0.024
-2.560E-06,-0.036
-2.550E-06,-0.040
-2.540E-06,-0.008
-2.530E-06,0.036
-2.520E-06,0.064
-2.510E-06,0.072
-2.500E-06,0.044
-2.490E-06,0.012
-2.480E-06,-0.020
-2.470E-06,-0.044
-2.460E-06,-0.032
-2.450E-06,-0.008
-2.440E-06,0.012
-2.430E-06,0.024
-2.420E-06,0.012
-2.410E-06,-0.012
-2.400E-06,-0.036
-2.390E-06,-0.040
-2.380E-06,-0.040
-2.370E-06,-0.008
-2.360E-06,0.004
-2.350E-06,0.024
-2.340E-06,0.008
-2.330E-06,0.016
-2.320E-06,0.012
-2.310E-06,-0.008
-2.300E-06,-0.024
-2.290E-06,-0.024
-2.280E-06,-0.004
-2.270E-06,-0.004
-2.260E-06,0.024
-2.250E-06,0.028
-2.240E-06,0.036
-2.230E-06,0.024
-2.220E-06,0.004
-2.210E-06,-0.016
-2.200E-06,-0.024
-2.190E-06,-0.016
-2.180E-06,0.004
-2.170E-06,0.032
-2.160E-06,0.044
-2.150E-06,0.036
-2.140E-06,0.016
-2.130E-06,0.000
-2.120E-06,-0.020
-2.110E-06,-0.004
-2.100E-06,0.016
-2.090E-06,0.040
-2.080E-06,0.068
-2.070E-06,0.064
-2.060E-06,0.040
-2.050E-06,0.020
-2.040E-06,0.008
-2.030E-06,0.008
-2.020E-06,0.020
-2.010E-06,0.040
-2.000E-06,0.060
-1.990E-06,0.056
-1.980E-06,0.044
-1.970E-06,0.024
-1.960E-06,0.016
-1.950E-06,0.020
-1.940E-06,0.044
-1.930E-06,0.044
-1.920E-06,0.028
-1.910E-06,0.012
-1.900E-06,0.004
-1.890E-06,0.012
-1.880E-06,0.020
-1.870E-06,0.072
-1.860E-06,0.076
-1.850E-06,0.044
-1.840E-06,0.032
-1.830E-06,0.032
-1.820E-06,-0.024
-1.810E-06,-0.092
-1.800E-06,-0.124
-1.790E-06,-0.112
-1.780E-06,-0.064
-1.770E-06,0.012
-1.760E-06,0.060
-1.750E-06,0.060
-1.740E-06,0.076
-1.730E-06,0.064
-1.720E-06,0.044
-1.710E-06,-0.040
-1.700E-06,-0.040
-1.690E-06,-0.160
-1.680E-06,-0.208
-1.670E-06,-0.136
-1.660E-06,-0.068
-1.650E-06,0.060
-1.640E-06,0.112
-1.630E-06,0.140
-1.620E-06,0.028
-1.610E-06,0.000
-1.600E-06,-0.104
-1.590E-06,-0.244
-1.580E-06,-0.168
-1.570E-06,-0.004
-1.560E-06,0.080
-1.550E-06,0.160
-1.540E-06,0.188
-1.530E-06,-0.004
-1.520E-06,-0.168
-1.510E-06,-0.192
-1.500E-06,-0.196
-1.490E-06,-0.056
-1.480E-06,0.148
-1.470E-06,0.256
-1.460E-06,0.148
-1.450E-06,0.040
-1.440E-06,-0.132
-1.430E-06,-0.216
-1.420E-06,-0.096
-1.410E-06,0.044
-1.400E-06,0.144
-1.390E-06,0.180
-1.380E-06,0.124
-1.370E-06,-0.016
-1.360E-06,-0.056
-1.350E-06,-0.044
-1.340E-06,0.028
-1.330E-06,0.100
-1.320E-06,0.148
-1.310E-06,0.088
-1.300E-06,0.040
-1.290E-06,0.028
-1.280E-06,0.000
-1.270E-06,0.012
-1.260E-06,0.016
-1.250E-06,0.020
-1.240E-06,-0.024
-1.230E-06,-0.072
-1.220E-06,-0.104
-1.210E-06,-0.068
-1.200E-06,-0.040
-1.190E-06,0.012
-1.180E-06,0.044
-1.170E-06,0.044
-1.160E-06,0.012
-1.150E-06,-0.020
-1.140E-06,-0.036
-1.130E-06,-0.032
-1.120E-06,0.008
-1.110E-06,0.072
-1.100E-06,0.128
-1.090E-06,0.112
-1.080E-06,0.028
-1.070E-06,-0.048
-1.060E-06,-0.124
-1.050E-06,-0.144
-1.040E-06,-0.124
-1.030E-06,-0.024
-1.020E-06,0.028
-1.010E-06,0.068
-1.000E-06,0.060
-9.900E-07,0.008
-9.800E-07,-0.028
-9.700E-07,-0.056
-9.600E-07,-0.024
-9.500E-07,-0.004
-9.400E-07,0.048
-9.300E-07,0.060
-9.200E-07,0.072
-9.100E-07,0.064
-9.000E-07,0.048
-8.900E-07,0.032
-8.800E-07,0.016
-8.700E-07,0.024
-8.600E-07,0.016
-8.500E-07,0.020
-8.400E-07,0.024
-8.300E-07,0.028
-8.200E-07,0.024
-8.100E-07,0.032
-8.000E-07,0.048
-7.900E-07,0.060
-7.800E-07,0.036
-7.700E-07,-0.012
-7.600E-07,-0.132
-7.500E-07,-0.236
-7.400E-07,-0.192
-7.300E-07,-0.052
-7.200E-07,0.088
-7.100E-07,0.128
-7.000E-07,0.120
-6.900E-07,0.036
-6.800E-07,-0.100
-6.700E-07,-0.124
-6.600E-07,-0.128
-6.500E-07,-0.020
-6.400E-07,0.072
-6.300E-07,0.092
-6.200E-07,0.056
-6.100E-07,-0.024
-6.000E-07,-0.056
-5.900E-07,-0.056
-5.800E-07,0.016
-5.700E-07,0.060
-5.600E-07,0.092
-5.500E-07,0.080
-5.400E-07,0.052
-5.300E-07,0.044
-5.200E-07,0.048
-5.100E-07,0.032
-5.000E-07,0.008
-4.900E-07,-0.020
-4.800E-07,-0.060
-4.700E-07,-0.096
-4.600E-07,-0.064
-4.500E-07,0.008
-4.400E-07,0.044
-4.300E-07,0.060
-4.200E-07,0.020
-4.100E-07,-0.024
-4.000E-07,-0.044
-3.900E-07,-0.028
-3.800E-07,0.012
-3.700E-07,0.064
-3.600E-07,0.084
-3.500E-07,0.076
-3.400E-07,0.020
-3.300E-07,0.004
-3.200E-07,0.004
-3.100E-07,0.048
-3.000E-07,0.088
-2.900E-07,0.104
-2.800E-07,0.092
-2.700E-07,0.056
-2.600E-07,0.012
-2.500E-07,-0.024
-2.400E-07,-0.044
-2.300E-07,-0.040
-2.200E-07,-0.016
-2.100E-07,-0.008
-2.000E-07,0.000
-1.900E-07,-0.008
-1.800E-07,-0.024
-1.700E-07,-0.040
-1.600E-07,-0.052
-1.500E-07,-0.032
-1.400E-07,0.032
-1.300E-07,0.056
-1.200E-07,0.040
-1.100E-07,-0.016
-1.000E-07,-0.008
-9.000E-08,0.020
-8.000E-08,-0.068
-7.000E-08,-0.044
-6.000E-08,-0.364
-5.000E-08,-0.216
-4.000E-08,-0.256
-3.000E-08,-0.112
-2.000E-08,0.004
-1.000E-08,0.220
0.000E+00,0.348
1.000E-08,0.064
2.000E-08,-0.060
3.000E-08,-0.340
4.000E-08,-0.220
5.000E-08,-0.068
6.000E-08,0.124
7.000E-08,0.160
8.000E-08,0.236
9.000E-08,0.068
1.000E-07,-0.084
1.100E-07,-0.152
1.200E-07,-0.172
1.300E-07,-0.056
1.400E-07,0.052
1.500E-07,0.160
1.600E-07,0.096
1.700E-07,0.076
1.800E-07,-0.040
1.900E-07,-0.076
2.000E-07,-0.084
2.100E-07,-0.040
2.200E-07,0.012
2.300E-07,0.060
2.400E-07,0.088
2.500E-07,0.032
2.600E-07,0.016
2.700E-07,-0.036
2.800E-07,-0.040
2.900E-07,-0.040
3.000E-07,0.008
3.100E-07,0.036
3.200E-07,0.056
3.300E-07,0.052
3.400E-07,0.020
3.500E-07,0.008
3.600E-07,-0.012
3.700E-07,-0.008
3.800E-07,0.008
3.900E-07,0.036
4.000E-07,0.056
4.100E-07,0.056
4.200E-07,0.056
4.300E-07,0.040
4.400E-07,0.028
4.500E-07,0.036
4.600E-07,0.064
4.700E-07,0.092
4.800E-07,0.132
4.900E-07,0.140
5.000E-07,0.148
5.100E-07,0.112
5.200E-07,0.064
5.300E-07,-0.004
5.400E-07,-0.064
5.500E-07,-0.100
5.600E-07,-0.176
5.700E-07,-0.284
5.800E-07,-0.276
5.900E-07,-0.124
6.000E-07,0.024
6.100E-07,0.132
6.200E-07,0.196
6.300E-07,0.132
6.400E-07,-0.044
6.500E-07,-0.168
6.600E-07,-0.224
6.700E-07,-0.128
6.800E-07,0.056
6.900E-07,0.176
7.000E-07,0.160
7.100E-07,0.096
7.200E-07,-0.012
7.300E-07,-0.100
7.400E-07,-0.076
7.500E-07,-0.016
7.600E-07,-0.004
7.700E-07,-0.056
7.800E-07,-0.060
7.900E-07,-0.068
8.000E-07,-0.004
8.100E-07,0.024
8.200E-07,0.096
8.300E-07,0.052
8.400E-07,-0.012
8.500E-07,-0.040
8.600E-07,-0.072
8.700E-07,-0.024
8.800E-07,0.048
8.900E-07,0.076
9.000E-07,0.052
9.100E-07,0.028
9.200E-07,-0.036
9.300E-07,-0.056
9.400E-07,-0.024
9.500E-07,0.020
9.600E-07,0.064
9.700E-07,0.088
9.800E-07,0.060
9.900E-07,0.028
1.000E-06,0.004
1.010E-06,0.004
1.020E-06,0.044
1.030E-06,0.092
1.040E-06,0.108
1.050E-06,0.088
1.060E-06,0.044
1.070E-06,-0.024
1.080E-06,-0.056
1.090E-06,-0.040
1.100E-06,0.004
1.110E-06,0.024
1.120E-06,0.024
1.130E-06,-0.004
1.140E-06,0.000
1.150E-06,0.012
1.160E-06,0.024
1.170E-06,0.040
1.180E-06,0.048
1.190E-06,0.048
1.200E-06,0.016
1.210E-06,0.008
1.220E-06,-0.008
1.230E-06,0.008
1.240E-06,0.044
1.250E-06,0.028
1.260E-06,0.012
1.270E-06,-0.004
1.280E-06,-0.012
1.290E-06,-0.004
1.300E-06,0.028
1.310E-06,0.060
1.320E-06,0.096
1.330E-06,0.128
1.340E-06,0.124
1.350E-06,0.092
1.360E-06,0.056
1.370E-06,0.024
1.380E-06,0.008
1.390E-06,0.008
1.400E-06,0.016
1.410E-06,0.048
1.420E-06,0.072
1.430E-06,0.096
1.440E-06,0.072
1.450E-06,0.000
1.460E-06,-0.180
1.470E-06,-0.316
1.480E-06,-0.408
1.490E-06,-0.368
1.500E-06,-0.176
1.510E-06,0.096
1.520E-06,0.284
1.530E-06,0.292
1.540E-06,0.144
1.550E-06,-0.108
1.560E-06,-0.256
1.570E-06,-0.240
1.580E-06,-0.112
1.590E-06,0.112
1.600E-06,0.248
1.610E-06,0.220
1.620E-06,0.084
1.630E-06,-0.072
1.640E-06,-0.176
1.650E-06,-0.128
1.660E-06,0.032
1.670E-06,0.208
1.680E-06,0.256
1.690E-06,0.124
1.700E-06,-0.124
1.710E-06,-0.244
1.720E-06,-0.312
1.730E-06,-0.208
1.740E-06,-0.024
1.750E-06,0.176
1.760E-06,0.228
1.770E-06,0.152
1.780E-06,0.004
1.790E-06,-0.168
1.800E-06,-0.156
1.810E-06,-0.092
1.820E-06,0.008
1.830E-06,0.104
1.840E-06,0.140
1.850E-06,0.084
1.860E-06,-0.004
1.870E-06,-0.064
1.880E-06,-0.084
1.890E-06,-0.032
1.900E-06,0.052
1.910E-06,0.104
1.920E-06,0.128
1.930E-06,0.128
1.940E-06,0.072
1.950E-06,0.052
1.960E-06,0.032
1.970E-06,0.056
1.980E-06,0.080
1.990E-06,0.092
2.000E-06,0.080
2.010E-06,0.024
2.020E-06,-0.016
2.030E-06,-0.068
2.040E-06,-0.060
2.050E-06,-0.040
2.060E-06,0.008
2.070E-06,0.056
2.080E-06,0.068
2.090E-06,0.044
2.100E-06,0.008
2.110E-06,-0.012
2.120E-06,-0.016
2.130E-06,0.012
2.140E-06,0.072
2.150E-06,0.124
2.160E-06,0.112
2.170E-06,0.064
2.180E-06,-0.016
2.190E-06,-0.072
2.200E-06,-0.076
2.210E-06,-0.052
2.220E-06,-0.020
2.230E-06,-0.036
2.240E-06,-0.080
2.250E-06,-0.080
2.260E-06,-0.120
2.270E-06,-0.084
2.280E-06,-0.048
2.290E-06,-0.004
2.300E-06,0.024
2.310E-06,0.020
2.320E-06,0.012
2.330E-06,-0.024
2.340E-06,-0.008
2.350E-06,-0.028
2.360E-06,-0.036
2.370E-06,-0.024
2.380E-06,-0.004
2.390E-06,0.024
2.400E-06,0.056
2.410E-06,0.068
2.420E-06,0.040
2.430E-06,0.012
2.440E-06,0.008
2.450E-06,0.000
2.460E-06,0.028
2.470E-06,0.044
2.480E-06,0.076
2.490E-06,0.104
2.500E-06,0.116
2.510E-06,0.108
2.520E-06,0.092
2.530E-06,0.068
2.540E-06,0.044
2.550E-06,0.008
2.560E-06,-0.040
2.570E-06,-0.080
2.580E-06,-0.096
2.590E-06,-0.092
2.600E-06,-0.068
2.610E-06,-0.028
2.620E-06,0.012
2.630E-06,0.024
2.640E-06,0.028
2.650E-06,0.016
2.660E-06,0.000
2.670E-06,0.000
2.680E-06,0.012
2.690E-06,0.028
2.700E-06,0.036
2.710E-06,0.048
2.720E-06,0.060
2.730E-06,0.056
2.740E-06,0.060
2.750E-06,0.024
2.760E-06,0.016
2.770E-06,-0.008
2.780E-06,-0.012
2.790E-06,-0.012
2.800E-06,0.000
2.810E-06,0.032
2.820E-06,0.032
2.830E-06,0.036
2.840E-06,0.004
2.850E-06,-0.008
2.860E-06,-0.012
2.870E-06,0.000
2.880E-06,0.008
2.890E-06,0.032
2.900E-06,0.052
2.910E-06,0.048
2.920E-06,0.048
2.930E-06,0.020
2.940E-06,0.008
2.950E-06,0.008
2.960E-06,0.016
2.970E-06,0.024
2.980E-06,0.040
2.990E-06,0.044
3.000E-06,0.036
3.010E-06,0.032
3.020E-06,0.032
3.030E-06,0.020
3.040E-06,0.020
3.050E-06,0.036
3.060E-06,0.052
3.070E-06,0.060
3.080E-06,0.076
3.090E-06,0.080
3.100E-06,0.084
3.110E-06,0.076
3.120E-06,0.076
3.130E-06,0.084
3.140E-06,0.096
3.150E-06,0.100
3.160E-06,0.092
3.170E-06,0.064
3.180E-06,0.124
3.190E-06,0.136
3.200E-06,-0.112
3.210E-06,-0.068
3.220E-06,-0.132
3.230E-06,-0.096
3.240E-06,-0.512
3.250E-06,-0.512
3.260E-06,-0.512
