mediciones/5-22/-5/WaveData4939.csv

#timebase=2000000(ps)
,#voltbase=1000000(mv/100)
#size=4000
-8.400E-06,0.680
-8.390E-06,0.600
-8.380E-06,0.640
-8.370E-06,0.680
-8.360E-06,0.720
-8.350E-06,0.840
-8.340E-06,0.880
-8.330E-06,0.880
-8.320E-06,0.920
-8.310E-06,0.960
-8.300E-06,1.040
-8.290E-06,0.960
-8.280E-06,1.080
-8.270E-06,1.160
-8.260E-06,1.240
-8.250E-06,1.280
-8.240E-06,1.280
-8.230E-06,1.360
-8.220E-06,1.360
-8.210E-06,1.360
-8.200E-06,1.440
-8.190E-06,1.480
-8.180E-06,1.520
-8.170E-06,1.520
-8.160E-06,1.520
-8.150E-06,1.480
-8.140E-06,1.560
-8.130E-06,1.600
-8.120E-06,1.600
-8.110E-06,1.640
-8.100E-06,1.640
-8.090E-06,1.520
-8.080E-06,1.320
-8.070E-06,1.200
-8.060E-06,1.040
-8.050E-06,1.080
-8.040E-06,1.200
-8.030E-06,1.320
-8.020E-06,1.400
-8.010E-06,1.320
-8.000E-06,0.920
-7.990E-06,0.480
-7.980E-06,0.200
-7.970E-06,0.280
-7.960E-06,0.840
-7.950E-06,1.440
-7.940E-06,1.720
-7.930E-06,1.680
-7.920E-06,1.240
-7.910E-06,0.800
-7.900E-06,0.720
-7.890E-06,0.960
-7.880E-06,1.240
-7.870E-06,1.640
-7.860E-06,1.800
-7.850E-06,1.680
-7.840E-06,1.480
-7.830E-06,1.400
-7.820E-06,1.120
-7.810E-06,1.080
-7.800E-06,1.040
-7.790E-06,0.840
-7.780E-06,0.680
-7.770E-06,0.600
-7.760E-06,0.480
-7.750E-06,0.280
-7.740E-06,0.240
-7.730E-06,0.080
-7.720E-06,-0.040
-7.710E-06,-0.040
-7.700E-06,0.040
-7.690E-06,0.080
-7.680E-06,0.280
-7.670E-06,0.360
-7.660E-06,0.120
-7.650E-06,0.200
-7.640E-06,0.120
-7.630E-06,0.280
-7.620E-06,0.440
-7.610E-06,0.560
-7.600E-06,0.600
-7.590E-06,0.640
-7.580E-06,0.720
-7.570E-06,0.680
-7.560E-06,0.800
-7.550E-06,0.840
-7.540E-06,0.880
-7.530E-06,0.880
-7.520E-06,0.960
-7.510E-06,1.000
-7.500E-06,1.040
-7.490E-06,1.160
-7.480E-06,1.280
-7.470E-06,1.320
-7.460E-06,1.520
-7.450E-06,1.720
-7.440E-06,1.680
-7.430E-06,1.800
-7.420E-06,1.840
-7.410E-06,1.800
-7.400E-06,1.800
-7.390E-06,1.960
-7.380E-06,1.880
-7.370E-06,1.720
-7.360E-06,1.680
-7.350E-06,1.280
-7.340E-06,1.120
-7.330E-06,1.160
-7.320E-06,1.040
-7.310E-06,1.240
-7.300E-06,0.720
-7.290E-06,0.320
-7.280E-06,-0.040
-7.270E-06,-0.120
-7.260E-06,0.240
-7.250E-06,1.040
-7.240E-06,1.200
-7.230E-06,1.320
-7.220E-06,1.080
-7.210E-06,0.840
-7.200E-06,0.640
-7.190E-06,0.880
-7.180E-06,1.120
-7.170E-06,1.600
-7.160E-06,1.920
-7.150E-06,1.480
-7.140E-06,2.160
-7.130E-06,1.800
-7.120E-06,1.840
-7.110E-06,2.200
-7.100E-06,1.480
-7.090E-06,0.800
-7.080E-06,1.040
-7.070E-06,0.840
-7.060E-06,0.720
-7.050E-06,1.120
-7.040E-06,1.080
-7.030E-06,0.640
-7.020E-06,0.640
-7.010E-06,0.480
-7.000E-06,0.240
-6.990E-06,0.520
-6.980E-06,0.560
-6.970E-06,0.440
-6.960E-06,0.360
-6.950E-06,0.280
-6.940E-06,0.040
-6.930E-06,0.000
-6.920E-06,0.040
-6.910E-06,-0.080
-6.900E-06,-0.040
-6.890E-06,-0.080
-6.880E-06,-0.160
-6.870E-06,-0.120
-6.860E-06,0.000
-6.850E-06,0.000
-6.840E-06,-0.040
-6.830E-06,0.000
-6.820E-06,-0.040
-6.810E-06,-0.080
-6.800E-06,0.160
-6.790E-06,0.360
-6.780E-06,0.600
-6.770E-06,0.800
-6.760E-06,0.880
-6.750E-06,0.960
-6.740E-06,1.080
-6.730E-06,1.160
-6.720E-06,1.400
-6.710E-06,1.560
-6.700E-06,1.560
-6.690E-06,1.680
-6.680E-06,1.680
-6.670E-06,1.720
-6.660E-06,1.680
-6.650E-06,1.640
-6.640E-06,1.560
-6.630E-06,1.520
-6.620E-06,1.520
-6.610E-06,1.480
-6.600E-06,1.360
-6.590E-06,1.240
-6.580E-06,1.160
-6.570E-06,1.120
-6.560E-06,1.120
-6.550E-06,0.960
-6.540E-06,0.920
-6.530E-06,0.800
-6.520E-06,0.440
-6.510E-06,0.240
-6.500E-06,0.000
-6.490E-06,-0.400
-6.480E-06,-0.720
-6.470E-06,-0.760
-6.460E-06,-0.480
-6.450E-06,0.280
-6.440E-06,1.120
-6.430E-06,1.440
-6.420E-06,1.280
-6.410E-06,0.960
-6.400E-06,0.600
-6.390E-06,0.600
-6.380E-06,0.920
-6.370E-06,1.240
-6.360E-06,1.520
-6.350E-06,1.680
-6.340E-06,1.560
-6.330E-06,1.280
-6.320E-06,1.040
-6.310E-06,1.000
-6.300E-06,0.880
-6.290E-06,0.920
-6.280E-06,0.880
-6.270E-06,0.800
-6.260E-06,0.720
-6.250E-06,0.640
-6.240E-06,0.440
-6.230E-06,0.320
-6.220E-06,0.320
-6.210E-06,0.360
-6.200E-06,0.440
-6.190E-06,0.640
-6.180E-06,0.640
-6.170E-06,0.640
-6.160E-06,0.640
-6.150E-06,0.480
-6.140E-06,0.440
-6.130E-06,0.560
-6.120E-06,0.560
-6.110E-06,0.600
-6.100E-06,0.680
-6.090E-06,0.600
-6.080E-06,0.640
-6.070E-06,0.680
-6.060E-06,0.640
-6.050E-06,0.600
-6.040E-06,0.560
-6.030E-06,0.520
-6.020E-06,0.520
-6.010E-06,0.600
-6.000E-06,0.800
-5.990E-06,0.880
-5.980E-06,1.040
-5.970E-06,1.200
-5.960E-06,1.280
-5.950E-06,1.400
-5.940E-06,1.560
-5.930E-06,1.600
-5.920E-06,1.720
-5.910E-06,1.760
-5.900E-06,1.840
-5.890E-06,1.840
-5.880E-06,1.800
-5.870E-06,1.680
-5.860E-06,1.360
-5.850E-06,0.880
-5.840E-06,0.480
-5.830E-06,-0.040
-5.820E-06,-0.040
-5.810E-06,0.120
-5.800E-06,0.360
-5.790E-06,0.640
-5.780E-06,0.640
-5.770E-06,0.680
-5.760E-06,0.840
-5.750E-06,0.680
-5.740E-06,0.840
-5.730E-06,0.920
-5.720E-06,0.720
-5.710E-06,0.680
-5.700E-06,0.640
-5.690E-06,0.560
-5.680E-06,1.000
-5.670E-06,1.680
-5.660E-06,1.800
-5.650E-06,1.720
-5.640E-06,1.560
-5.630E-06,1.040
-5.620E-06,0.920
-5.610E-06,1.200
-5.600E-06,1.160
-5.590E-06,1.560
-5.580E-06,1.920
-5.570E-06,1.800
-5.560E-06,1.680
-5.550E-06,1.520
-5.540E-06,1.160
-5.530E-06,1.200
-5.520E-06,1.480
-5.510E-06,1.520
-5.500E-06,1.640
-5.490E-06,1.720
-5.480E-06,1.520
-5.470E-06,1.320
-5.460E-06,1.080
-5.450E-06,1.120
-5.440E-06,1.080
-5.430E-06,1.200
-5.420E-06,1.520
-5.410E-06,1.560
-5.400E-06,1.480
-5.390E-06,1.640
-5.380E-06,1.280
-5.370E-06,0.840
-5.360E-06,0.520
-5.350E-06,0.160
-5.340E-06,-0.040
-5.330E-06,-0.040
-5.320E-06,-0.080
-5.310E-06,0.040
-5.300E-06,0.280
-5.290E-06,0.360
-5.280E-06,0.360
-5.270E-06,0.640
-5.260E-06,1.000
-5.250E-06,1.120
-5.240E-06,1.320
-5.230E-06,1.440
-5.220E-06,1.720
-5.210E-06,1.360
-5.200E-06,0.640
-5.190E-06,-0.200
-5.180E-06,-0.800
-5.170E-06,-0.720
-5.160E-06,0.640
-5.150E-06,1.720
-5.140E-06,2.200
-5.130E-06,2.200
-5.120E-06,1.640
-5.110E-06,0.760
-5.100E-06,0.640
-5.090E-06,0.720
-5.080E-06,0.480
-5.070E-06,0.920
-5.060E-06,1.480
-5.050E-06,0.880
-5.040E-06,0.880
-5.030E-06,0.920
-5.020E-06,0.040
-5.010E-06,-0.040
-5.000E-06,0.320
-4.990E-06,0.080
-4.980E-06,0.240
-4.970E-06,0.720
-4.960E-06,0.640
-4.950E-06,0.520
-4.940E-06,0.760
-4.930E-06,0.480
-4.920E-06,0.400
-4.910E-06,0.760
-4.900E-06,0.760
-4.890E-06,0.360
-4.880E-06,-0.200
-4.870E-06,0.600
-4.860E-06,0.000
-4.850E-06,0.280
-4.840E-06,0.920
-4.830E-06,0.600
-4.820E-06,0.520
-4.810E-06,1.760
-4.800E-06,1.680
-4.790E-06,1.880
-4.780E-06,2.320
-4.770E-06,2.240
-4.760E-06,1.880
-4.750E-06,2.120
-4.740E-06,1.920
-4.730E-06,1.560
-4.720E-06,1.800
-4.710E-06,1.560
-4.700E-06,1.040
-4.690E-06,0.880
-4.680E-06,0.480
-4.670E-06,0.040
-4.660E-06,-0.200
-4.650E-06,-0.520
-4.640E-06,-0.960
-4.630E-06,-1.280
-4.620E-06,-1.720
-4.610E-06,-2.240
-4.600E-06,-2.760
-4.590E-06,-3.000
-4.580E-06,-3.320
-4.570E-06,-3.600
-4.560E-06,-3.920
-4.550E-06,-4.040
-4.540E-06,-3.840
-4.530E-06,-3.160
-4.520E-06,-2.480
-4.510E-06,-1.880
-4.500E-06,-1.720
-4.490E-06,-1.560
-4.480E-06,-1.360
-4.470E-06,-1.120
-4.460E-06,-0.760
-4.450E-06,-0.320
-4.440E-06,0.080
-4.430E-06,0.400
-4.420E-06,0.800
-4.410E-06,1.160
-4.400E-06,1.600
-4.390E-06,2.040
-4.380E-06,2.320
-4.370E-06,2.440
-4.360E-06,2.400
-4.350E-06,2.320
-4.340E-06,2.240
-4.330E-06,2.200
-4.320E-06,2.160
-4.310E-06,2.000
-4.300E-06,1.920
-4.290E-06,1.600
-4.280E-06,1.240
-4.270E-06,0.840
-4.260E-06,0.400
-4.250E-06,0.000
-4.240E-06,-0.360
-4.230E-06,-0.560
-4.220E-06,-0.840
-4.210E-06,-1.200
-4.200E-06,-1.360
-4.190E-06,-1.680
-4.180E-06,-1.960
-4.170E-06,-2.120
-4.160E-06,-2.360
-4.150E-06,-2.440
-4.140E-06,-2.520
-4.130E-06,-2.600
-4.120E-06,-2.640
-4.110E-06,-2.640
-4.100E-06,-2.760
-4.090E-06,-2.800
-4.080E-06,-2.640
-4.070E-06,-2.360
-4.060E-06,-2.160
-4.050E-06,-1.880
-4.040E-06,-1.720
-4.030E-06,-1.400
-4.020E-06,-1.200
-4.010E-06,-1.280
-4.000E-06,-1.200
-3.990E-06,-1.000
-3.980E-06,-1.600
-3.970E-06,-0.440
-3.960E-06,0.480
-3.950E-06,1.160
-3.940E-06,2.560
-3.930E-06,3.480
-3.920E-06,3.000
-3.910E-06,3.240
-3.900E-06,3.040
-3.890E-06,2.360
-3.880E-06,2.240
-3.870E-06,2.760
-3.860E-06,2.800
-3.850E-06,2.760
-3.840E-06,2.840
-3.830E-06,2.040
-3.820E-06,1.360
-3.810E-06,0.720
-3.800E-06,-0.160
-3.790E-06,-0.600
-3.780E-06,-1.040
-3.770E-06,-1.280
-3.760E-06,-1.440
-3.750E-06,-1.440
-3.740E-06,-1.520
-3.730E-06,-1.320
-3.720E-06,-1.280
-3.710E-06,-1.240
-3.700E-06,-1.400
-3.690E-06,-1.480
-3.680E-06,-1.400
-3.670E-06,-1.240
-3.660E-06,-1.120
-3.650E-06,-1.160
-3.640E-06,-1.280
-3.630E-06,-1.440
-3.620E-06,-1.720
-3.610E-06,-1.840
-3.600E-06,-2.000
-3.590E-06,-2.040
-3.580E-06,-2.080
-3.570E-06,-2.120
-3.560E-06,-2.240
-3.550E-06,-2.320
-3.540E-06,-2.360
-3.530E-06,-2.360
-3.520E-06,-2.440
-3.510E-06,-2.360
-3.500E-06,-2.360
-3.490E-06,-2.240
-3.480E-06,-2.200
-3.470E-06,-2.160
-3.460E-06,-1.960
-3.450E-06,-1.920
-3.440E-06,-1.920
-3.430E-06,-1.880
-3.420E-06,-1.840
-3.410E-06,-1.760
-3.400E-06,-1.640
-3.390E-06,-1.400
-3.380E-06,-1.400
-3.370E-06,-1.160
-3.360E-06,-0.840
-3.350E-06,-0.680
-3.340E-06,-0.360
-3.330E-06,0.000
-3.320E-06,0.120
-3.310E-06,0.480
-3.300E-06,0.800
-3.290E-06,1.040
-3.280E-06,1.320
-3.270E-06,1.560
-3.260E-06,1.680
-3.250E-06,1.800
-3.240E-06,1.840
-3.230E-06,1.800
-3.220E-06,1.840
-3.210E-06,1.760
-3.200E-06,1.680
-3.190E-06,1.440
-3.180E-06,1.320
-3.170E-06,1.000
-3.160E-06,0.720
-3.150E-06,0.400
-3.140E-06,0.000
-3.130E-06,-0.360
-3.120E-06,-0.680
-3.110E-06,-1.000
-3.100E-06,-1.320
-3.090E-06,-1.600
-3.080E-06,-1.920
-3.070E-06,-2.120
-3.060E-06,-2.320
-3.050E-06,-2.400
-3.040E-06,-2.440
-3.030E-06,-2.600
-3.020E-06,-2.720
-3.010E-06,-2.920
-3.000E-06,-3.720
-2.990E-06,-3.360
-2.980E-06,-2.880
-2.970E-06,-2.280
-2.960E-06,-0.800
-2.950E-06,-0.080
-2.940E-06,-0.480
-2.930E-06,-0.600
-2.920E-06,-0.920
-2.910E-06,-1.360
-2.900E-06,-0.960
-2.890E-06,-0.440
-2.880E-06,-0.320
-2.870E-06,0.000
-2.860E-06,0.080
-2.850E-06,-0.320
-2.840E-06,-0.560
-2.830E-06,-0.600
-2.820E-06,-0.880
-2.810E-06,-0.880
-2.800E-06,-0.840
-2.790E-06,-0.960
-2.780E-06,-1.000
-2.770E-06,-1.000
-2.760E-06,-1.200
-2.750E-06,-1.400
-2.740E-06,-1.680
-2.730E-06,-1.840
-2.720E-06,-2.080
-2.710E-06,-2.240
-2.700E-06,-2.320
-2.690E-06,-2.480
-2.680E-06,-2.560
-2.670E-06,-2.680
-2.660E-06,-2.800
-2.650E-06,-3.160
-2.640E-06,-3.240
-2.630E-06,-3.120
-2.620E-06,-2.920
-2.610E-06,-2.520
-2.600E-06,-2.000
-2.590E-06,-1.720
-2.580E-06,-1.280
-2.570E-06,-0.920
-2.560E-06,-0.680
-2.550E-06,-0.360
-2.540E-06,0.040
-2.530E-06,0.160
-2.520E-06,0.520
-2.510E-06,0.840
-2.500E-06,1.120
-2.490E-06,1.520
-2.480E-06,1.960
-2.470E-06,2.160
-2.460E-06,2.040
-2.450E-06,2.440
-2.440E-06,2.960
-2.430E-06,3.440
-2.420E-06,4.760
-2.410E-06,5.400
-2.400E-06,5.080
-2.390E-06,5.040
-2.380E-06,4.200
-2.370E-06,3.080
-2.360E-06,2.680
-2.350E-06,2.240
-2.340E-06,1.280
-2.330E-06,0.840
-2.320E-06,0.320
-2.310E-06,-0.640
-2.300E-06,-1.000
-2.290E-06,-1.320
-2.280E-06,-2.080
-2.270E-06,-2.480
-2.260E-06,-2.720
-2.250E-06,-3.320
-2.240E-06,-3.680
-2.230E-06,-3.680
-2.220E-06,-3.920
-2.210E-06,-3.920
-2.200E-06,-3.840
-2.190E-06,-3.960
-2.180E-06,-4.000
-2.170E-06,-3.840
-2.160E-06,-3.800
-2.150E-06,-3.800
-2.140E-06,-3.720
-2.130E-06,-3.640
-2.120E-06,-3.600
-2.110E-06,-3.520
-2.100E-06,-3.520
-2.090E-06,-3.480
-2.080E-06,-3.320
-2.070E-06,-3.280
-2.060E-06,-2.920
-2.050E-06,-2.960
-2.040E-06,-3.200
-2.030E-06,-2.520
-2.020E-06,-1.800
-2.010E-06,-1.040
-2.000E-06,-0.200
-1.990E-06,-0.400
-1.980E-06,-1.200
-1.970E-06,-2.480
-1.960E-06,-2.520
-1.950E-06,-1.360
-1.940E-06,0.080
-1.930E-06,3.160
-1.920E-06,5.080
-1.910E-06,4.840
-1.900E-06,4.560
-1.890E-06,3.520
-1.880E-06,2.040
-1.870E-06,1.800
-1.860E-06,1.960
-1.850E-06,2.000
-1.840E-06,2.280
-1.830E-06,2.320
-1.820E-06,1.360
-1.810E-06,0.560
-1.800E-06,-0.080
-1.790E-06,-1.120
-1.780E-06,-1.600
-1.770E-06,-1.800
-1.760E-06,-2.240
-1.750E-06,-2.360
-1.740E-06,-2.400
-1.730E-06,-2.880
-1.720E-06,-3.560
-1.710E-06,-3.920
-1.700E-06,-4.600
-1.690E-06,-4.520
-1.680E-06,-3.840
-1.670E-06,-3.200
-1.660E-06,-2.440
-1.650E-06,-1.800
-1.640E-06,-1.880
-1.630E-06,-2.040
-1.620E-06,-2.160
-1.610E-06,-2.360
-1.600E-06,-2.280
-1.590E-06,-1.880
-1.580E-06,-1.760
-1.570E-06,-1.680
-1.560E-06,-1.640
-1.550E-06,-1.800
-1.540E-06,-1.880
-1.530E-06,-1.840
-1.520E-06,-1.920
-1.510E-06,-2.000
-1.500E-06,-1.960
-1.490E-06,-1.840
-1.480E-06,-1.840
-1.470E-06,-1.560
-1.460E-06,-1.560
-1.450E-06,-1.480
-1.440E-06,-1.480
-1.430E-06,-1.520
-1.420E-06,-1.560
-1.410E-06,-1.600
-1.400E-06,-1.600
-1.390E-06,-1.640
-1.380E-06,-1.680
-1.370E-06,-1.680
-1.360E-06,-1.800
-1.350E-06,-2.240
-1.340E-06,-1.960
-1.330E-06,-1.880
-1.320E-06,-1.440
-1.310E-06,-0.640
-1.300E-06,-0.240
-1.290E-06,-0.120
-1.280E-06,0.240
-1.270E-06,0.040
-1.260E-06,0.000
-1.250E-06,0.000
-1.240E-06,0.000
-1.230E-06,-0.040
-1.220E-06,0.000
-1.210E-06,0.040
-1.200E-06,0.040
-1.190E-06,0.320
-1.180E-06,0.440
-1.170E-06,0.240
-1.160E-06,0.040
-1.150E-06,-0.360
-1.140E-06,-0.760
-1.130E-06,-0.960
-1.120E-06,-1.280
-1.110E-06,-1.200
-1.100E-06,-0.560
-1.090E-06,-0.080
-1.080E-06,0.840
-1.070E-06,1.480
-1.060E-06,1.040
-1.050E-06,0.600
-1.040E-06,0.200
-1.030E-06,-0.240
-1.020E-06,-0.280
-1.010E-06,0.040
-1.000E-06,-0.040
-9.900E-07,-0.040
-9.800E-07,-0.280
-9.700E-07,-0.840
-9.600E-07,-1.360
-9.500E-07,-1.640
-9.400E-07,-1.880
-9.300E-07,-1.880
-9.200E-07,-1.800
-9.100E-07,-1.760
-9.000E-07,-1.840
-8.900E-07,-1.760
-8.800E-07,-1.840
-8.700E-07,-1.800
-8.600E-07,-1.880
-8.500E-07,-1.840
-8.400E-07,-2.240
-8.300E-07,-2.520
-8.200E-07,-2.120
-8.100E-07,-1.800
-8.000E-07,-0.960
-7.900E-07,0.200
-7.800E-07,0.640
-7.700E-07,0.480
-7.600E-07,0.400
-7.500E-07,-0.120
-7.400E-07,-0.720
-7.300E-07,-0.920
-7.200E-07,-1.080
-7.100E-07,-1.240
-7.000E-07,-1.200
-6.900E-07,-1.360
-6.800E-07,-1.720
-6.700E-07,-1.760
-6.600E-07,-1.640
-6.500E-07,-1.640
-6.400E-07,-1.720
-6.300E-07,-1.120
-6.200E-07,-0.520
-6.100E-07,0.320
-6.000E-07,1.160
-5.900E-07,1.360
-5.800E-07,0.880
-5.700E-07,0.880
-5.600E-07,1.680
-5.500E-07,2.520
-5.400E-07,3.640
-5.300E-07,4.520
-5.200E-07,4.120
-5.100E-07,3.360
-5.000E-07,2.440
-4.900E-07,1.400
-4.800E-07,0.920
-4.700E-07,1.040
-4.600E-07,1.040
-4.500E-07,0.920
-4.400E-07,0.680
-4.300E-07,0.160
-4.200E-07,-0.520
-4.100E-07,-0.880
-4.000E-07,-1.280
-3.900E-07,-1.440
-3.800E-07,-1.480
-3.700E-07,-1.600
-3.600E-07,-1.720
-3.500E-07,-1.840
-3.400E-07,-2.000
-3.300E-07,-2.160
-3.200E-07,-2.320
-3.100E-07,-2.440
-3.000E-07,-2.560
-2.900E-07,-2.680
-2.800E-07,-2.720
-2.700E-07,-2.760
-2.600E-07,-2.800
-2.500E-07,-2.760
-2.400E-07,-2.880
-2.300E-07,-2.840
-2.200E-07,-2.840
-2.100E-07,-2.840
-2.000E-07,-2.800
-1.900E-07,-2.680
-1.800E-07,-2.560
-1.700E-07,-2.320
-1.600E-07,-2.120
-1.500E-07,-1.920
-1.400E-07,-1.760
-1.300E-07,-1.480
-1.200E-07,-1.400
-1.100E-07,-1.240
-1.000E-07,-0.840
-9.000E-08,-0.600
-8.000E-08,-0.160
-7.000E-08,0.240
-6.000E-08,0.560
-5.000E-08,0.560
-4.000E-08,0.640
-3.000E-08,1.880
-2.000E-08,0.880
-1.000E-08,0.640
0.000E+00,1.440
1.000E-08,2.280
2.000E-08,4.400
3.000E-08,5.440
4.000E-08,5.440
5.000E-08,5.400
6.000E-08,5.440
7.000E-08,2.720
8.000E-08,1.160
9.000E-08,2.200
1.000E-07,2.760
1.100E-07,4.360
1.200E-07,5.400
1.300E-07,4.280
1.400E-07,2.040
1.500E-07,1.440
1.600E-07,-0.160
1.700E-07,-0.960
1.800E-07,-0.200
1.900E-07,0.000
2.000E-07,-0.040
2.100E-07,0.400
2.200E-07,-0.360
2.300E-07,-1.240
2.400E-07,-1.480
2.500E-07,-1.760
2.600E-07,-2.040
2.700E-07,-1.880
2.800E-07,-1.800
2.900E-07,-1.960
3.000E-07,-1.880
3.100E-07,-1.960
3.200E-07,-2.240
3.300E-07,-2.440
3.400E-07,-2.520
3.500E-07,-2.640
3.600E-07,-2.560
3.700E-07,-2.440
3.800E-07,-2.320
3.900E-07,-2.240
4.000E-07,-2.080
4.100E-07,-2.080
4.200E-07,-1.960
4.300E-07,-1.760
4.400E-07,-1.720
4.500E-07,-1.520
4.600E-07,-1.240
4.700E-07,-1.040
4.800E-07,-0.720
4.900E-07,-0.520
5.000E-07,-0.400
5.100E-07,-0.240
5.200E-07,-0.120
5.300E-07,-0.080
5.400E-07,0.080
5.500E-07,0.200
5.600E-07,0.240
5.700E-07,0.360
5.800E-07,0.440
5.900E-07,0.360
6.000E-07,0.200
6.100E-07,0.160
6.200E-07,0.080
6.300E-07,0.040
6.400E-07,0.000
6.500E-07,0.000
6.600E-07,0.000
6.700E-07,-0.080
6.800E-07,-0.080
6.900E-07,-0.200
7.000E-07,-0.240
7.100E-07,-0.240
7.200E-07,-0.240
7.300E-07,-0.200
7.400E-07,-0.280
7.500E-07,-0.200
7.600E-07,-0.120
7.700E-07,-0.160
7.800E-07,-0.120
7.900E-07,-0.120
8.000E-07,-0.120
8.100E-07,-0.080
8.200E-07,-0.120
8.300E-07,-0.240
8.400E-07,-0.200
8.500E-07,-0.360
8.600E-07,-0.720
8.700E-07,-0.600
8.800E-07,-0.960
8.900E-07,-0.960
9.000E-07,-0.920
9.100E-07,-1.920
9.200E-07,-0.440
9.300E-07,1.040
9.400E-07,2.000
9.500E-07,4.080
9.600E-07,4.440
9.700E-07,2.680
9.800E-07,1.360
9.900E-07,1.000
1.000E-06,0.120
1.010E-06,0.160
1.020E-06,1.720
1.030E-06,2.040
1.040E-06,1.720
1.050E-06,2.200
1.060E-06,2.000
1.070E-06,0.840
1.080E-06,0.360
1.090E-06,0.120
1.100E-06,-0.520
1.110E-06,-0.480
1.120E-06,0.000
1.130E-06,-0.400
1.140E-06,-0.560
1.150E-06,-0.080
1.160E-06,-0.440
1.170E-06,-0.240
1.180E-06,0.480
1.190E-06,0.360
1.200E-06,0.400
1.210E-06,0.960
1.220E-06,0.480
1.230E-06,0.120
1.240E-06,0.160
1.250E-06,0.000
1.260E-06,-0.360
1.270E-06,-0.160
1.280E-06,-0.200
1.290E-06,-0.440
1.300E-06,-0.360
1.310E-06,-0.480
1.320E-06,-0.800
1.330E-06,-0.840
1.340E-06,-0.960
1.350E-06,-1.120
1.360E-06,-1.120
1.370E-06,-1.000
1.380E-06,-1.080
1.390E-06,-1.000
1.400E-06,-0.720
1.410E-06,-1.160
1.420E-06,-1.120
1.430E-06,-0.520
1.440E-06,-0.200
1.450E-06,0.520
1.460E-06,1.360
1.470E-06,1.080
1.480E-06,0.840
1.490E-06,0.840
1.500E-06,0.480
1.510E-06,0.440
1.520E-06,0.680
1.530E-06,0.760
1.540E-06,0.640
1.550E-06,0.760
1.560E-06,0.480
1.570E-06,0.200
1.580E-06,0.160
1.590E-06,-0.080
1.600E-06,-0.200
1.610E-06,-0.120
1.620E-06,-0.080
1.630E-06,-0.200
1.640E-06,-0.200
1.650E-06,-0.240
1.660E-06,-0.320
1.670E-06,-0.360
1.680E-06,-0.440
1.690E-06,-0.560
1.700E-06,-0.600
1.710E-06,-0.560
1.720E-06,-0.680
1.730E-06,-0.760
1.740E-06,-0.880
1.750E-06,-1.000
1.760E-06,-1.120
1.770E-06,-1.320
1.780E-06,-1.480
1.790E-06,-1.640
1.800E-06,-1.880
1.810E-06,-1.880
1.820E-06,-1.760
1.830E-06,-1.600
1.840E-06,-1.360
1.850E-06,-1.240
1.860E-06,-1.320
1.870E-06,-1.320
1.880E-06,-1.200
1.890E-06,-0.880
1.900E-06,-0.520
1.910E-06,0.040
1.920E-06,0.680
1.930E-06,0.680
1.940E-06,1.880
1.950E-06,2.000
1.960E-06,2.160
1.970E-06,2.240
1.980E-06,1.760
1.990E-06,1.360
2.000E-06,2.040
2.010E-06,2.800
2.020E-06,2.920
2.030E-06,3.080
2.040E-06,2.680
2.050E-06,1.880
2.060E-06,1.280
2.070E-06,1.040
2.080E-06,0.880
2.090E-06,1.040
2.100E-06,1.320
2.110E-06,1.200
2.120E-06,1.200
2.130E-06,1.080
2.140E-06,0.960
2.150E-06,0.880
2.160E-06,1.040
2.170E-06,1.080
2.180E-06,0.960
2.190E-06,0.960
2.200E-06,0.960
2.210E-06,0.600
2.220E-06,0.480
2.230E-06,0.240
2.240E-06,0.000
2.250E-06,-0.160
2.260E-06,-0.400
2.270E-06,-0.600
2.280E-06,-0.760
2.290E-06,-0.840
2.300E-06,-0.960
2.310E-06,-1.040
2.320E-06,-1.120
2.330E-06,-1.200
2.340E-06,-1.160
2.350E-06,-1.200
2.360E-06,-1.200
2.370E-06,-1.120
2.380E-06,-1.120
2.390E-06,-1.000
2.400E-06,-1.040
2.410E-06,-0.920
2.420E-06,-0.920
2.430E-06,-0.920
2.440E-06,-1.040
2.450E-06,-0.880
2.460E-06,-0.840
2.470E-06,-0.960
2.480E-06,-0.920
2.490E-06,-1.080
2.500E-06,-1.280
2.510E-06,-1.240
2.520E-06,-1.120
2.530E-06,-1.120
2.540E-06,-0.720
2.550E-06,-0.560
2.560E-06,-0.480
2.570E-06,-0.440
2.580E-06,-0.400
2.590E-06,-0.520
2.600E-06,-0.320
2.610E-06,-0.160
2.620E-06,0.120
2.630E-06,0.040
2.640E-06,0.200
2.650E-06,0.920
2.660E-06,1.360
2.670E-06,2.240
2.680E-06,2.840
2.690E-06,2.360
2.700E-06,2.000
2.710E-06,1.320
2.720E-06,0.320
2.730E-06,0.120
2.740E-06,0.240
2.750E-06,0.560
2.760E-06,1.320
2.770E-06,1.560
2.780E-06,1.480
2.790E-06,1.520
2.800E-06,1.280
2.810E-06,0.880
2.820E-06,0.720
2.830E-06,0.840
2.840E-06,0.800
2.850E-06,0.960
2.860E-06,1.400
2.870E-06,1.520
2.880E-06,2.000
2.890E-06,2.280
2.900E-06,2.000
2.910E-06,1.440
2.920E-06,1.040
2.930E-06,0.480
2.940E-06,0.120
2.950E-06,0.080
2.960E-06,0.040
2.970E-06,0.000
2.980E-06,-0.280
2.990E-06,-0.680
3.000E-06,-1.200
3.010E-06,-1.440
3.020E-06,-1.640
3.030E-06,-1.640
3.040E-06,-1.560
3.050E-06,-1.560
3.060E-06,-1.640
3.070E-06,-1.720
3.080E-06,-1.800
3.090E-06,-1.840
3.100E-06,-1.720
3.110E-06,-1.520
3.120E-06,-1.400
3.130E-06,-1.280
3.140E-06,-1.240
3.150E-06,-1.040
3.160E-06,-0.960
3.170E-06,-0.880
3.180E-06,-0.880
3.190E-06,-0.720
