mediciones/Mediciones filtradas (saque las feas)/5-27/-52.5/WaveData50254.csv

#timebase=2000000(ps)
,#voltbase=100000(mv/100)
#size=4000
-8.400E-06,0.004
-8.390E-06,0.004
-8.380E-06,0.000
-8.370E-06,0.004
-8.360E-06,0.004
-8.350E-06,0.008
-8.340E-06,0.008
-8.330E-06,0.000
-8.320E-06,0.004
-8.310E-06,0.004
-8.300E-06,0.000
-8.290E-06,0.004
-8.280E-06,0.008
-8.270E-06,0.000
-8.260E-06,0.000
-8.250E-06,0.004
-8.240E-06,0.008
-8.230E-06,-0.004
-8.220E-06,0.000
-8.210E-06,0.004
-8.200E-06,0.000
-8.190E-06,0.004
-8.180E-06,0.004
-8.170E-06,0.000
-8.160E-06,0.004
-8.150E-06,0.000
-8.140E-06,0.004
-8.130E-06,0.008
-8.120E-06,0.008
-8.110E-06,0.008
-8.100E-06,0.008
-8.090E-06,0.000
-8.080E-06,0.000
-8.070E-06,0.004
-8.060E-06,0.008
-8.050E-06,0.008
-8.040E-06,0.008
-8.030E-06,0.008
-8.020E-06,0.000
-8.010E-06,0.000
-8.000E-06,0.004
-7.990E-06,-0.004
-7.980E-06,0.000
-7.970E-06,0.000
-7.960E-06,0.000
-7.950E-06,0.004
-7.940E-06,0.000
-7.930E-06,0.000
-7.920E-06,0.004
-7.910E-06,-0.004
-7.900E-06,0.000
-7.890E-06,0.000
-7.880E-06,0.004
-7.870E-06,0.004
-7.860E-06,0.004
-7.850E-06,0.004
-7.840E-06,0.008
-7.830E-06,0.004
-7.820E-06,-0.004
-7.810E-06,-0.004
-7.800E-06,0.004
-7.790E-06,0.000
-7.780E-06,0.004
-7.770E-06,0.004
-7.760E-06,0.000
-7.750E-06,0.000
-7.740E-06,0.008
-7.730E-06,0.008
-7.720E-06,0.008
-7.710E-06,0.000
-7.700E-06,0.004
-7.690E-06,0.000
-7.680E-06,0.000
-7.670E-06,0.000
-7.660E-06,0.004
-7.650E-06,0.000
-7.640E-06,0.004
-7.630E-06,0.004
-7.620E-06,0.000
-7.610E-06,0.000
-7.600E-06,0.008
-7.590E-06,0.008
-7.580E-06,0.008
-7.570E-06,0.004
-7.560E-06,0.004
-7.550E-06,-0.004
-7.540E-06,-0.004
-7.530E-06,0.004
-7.520E-06,0.008
-7.510E-06,0.004
-7.500E-06,0.000
-7.490E-06,0.000
-7.480E-06,0.000
-7.470E-06,0.004
-7.460E-06,0.000
-7.450E-06,0.004
-7.440E-06,0.008
-7.430E-06,0.004
-7.420E-06,-0.004
-7.410E-06,0.000
-7.400E-06,0.008
-7.390E-06,0.000
-7.380E-06,0.004
-7.370E-06,0.004
-7.360E-06,0.004
-7.350E-06,0.000
-7.340E-06,0.000
-7.330E-06,0.004
-7.320E-06,0.000
-7.310E-06,0.004
-7.300E-06,-0.004
-7.290E-06,0.000
-7.280E-06,0.000
-7.270E-06,0.004
-7.260E-06,0.004
-7.250E-06,0.000
-7.240E-06,0.004
-7.230E-06,0.000
-7.220E-06,0.000
-7.210E-06,0.000
-7.200E-06,-0.004
-7.190E-06,0.008
-7.180E-06,0.000
-7.170E-06,0.000
-7.160E-06,0.004
-7.150E-06,0.000
-7.140E-06,0.004
-7.130E-06,0.008
-7.120E-06,0.004
-7.110E-06,0.000
-7.100E-06,0.004
-7.090E-06,0.000
-7.080E-06,0.000
-7.070E-06,0.012
-7.060E-06,-0.004
-7.050E-06,-0.004
-7.040E-06,0.004
-7.030E-06,0.004
-7.020E-06,0.008
-7.010E-06,0.004
-7.000E-06,0.000
-6.990E-06,0.000
-6.980E-06,0.000
-6.970E-06,-0.056
-6.960E-06,0.004
-6.950E-06,-0.032
-6.940E-06,-0.028
-6.930E-06,0.020
-6.920E-06,0.036
-6.910E-06,0.016
-6.900E-06,0.024
-6.890E-06,0.000
-6.880E-06,-0.040
-6.870E-06,-0.028
-6.860E-06,0.000
-6.850E-06,0.024
-6.840E-06,0.036
-6.830E-06,0.012
-6.820E-06,-0.008
-6.810E-06,-0.008
-6.800E-06,-0.008
-6.790E-06,0.000
-6.780E-06,0.016
-6.770E-06,0.016
-6.760E-06,0.008
-6.750E-06,-0.004
-6.740E-06,-0.004
-6.730E-06,-0.004
-6.720E-06,0.008
-6.710E-06,0.008
-6.700E-06,0.008
-6.690E-06,0.008
-6.680E-06,-0.004
-6.670E-06,0.000
-6.660E-06,0.004
-6.650E-06,0.012
-6.640E-06,0.004
-6.630E-06,0.004
-6.620E-06,0.004
-6.610E-06,-0.004
-6.600E-06,-0.004
-6.590E-06,0.004
-6.580E-06,0.008
-6.570E-06,0.004
-6.560E-06,0.008
-6.550E-06,0.004
-6.540E-06,-0.008
-6.530E-06,0.004
-6.520E-06,0.008
-6.510E-06,0.004
-6.500E-06,0.004
-6.490E-06,0.004
-6.480E-06,0.000
-6.470E-06,0.000
-6.460E-06,0.000
-6.450E-06,0.004
-6.440E-06,0.008
-6.430E-06,0.004
-6.420E-06,0.004
-6.410E-06,0.000
-6.400E-06,-0.004
-6.390E-06,0.004
-6.380E-06,0.000
-6.370E-06,0.008
-6.360E-06,0.004
-6.350E-06,0.004
-6.340E-06,0.000
-6.330E-06,-0.004
-6.320E-06,0.004
-6.310E-06,0.004
-6.300E-06,0.008
-6.290E-06,0.004
-6.280E-06,0.000
-6.270E-06,0.000
-6.260E-06,0.004
-6.250E-06,0.008
-6.240E-06,0.004
-6.230E-06,0.004
-6.220E-06,0.004
-6.210E-06,0.000
-6.200E-06,0.000
-6.190E-06,0.004
-6.180E-06,0.008
-6.170E-06,0.012
-6.160E-06,0.004
-6.150E-06,0.000
-6.140E-06,0.000
-6.130E-06,0.000
-6.120E-06,0.000
-6.110E-06,0.004
-6.100E-06,0.008
-6.090E-06,0.008
-6.080E-06,0.008
-6.070E-06,0.004
-6.060E-06,0.004
-6.050E-06,-0.004
-6.040E-06,0.000
-6.030E-06,0.008
-6.020E-06,0.008
-6.010E-06,0.008
-6.000E-06,0.004
-5.990E-06,0.004
-5.980E-06,0.000
-5.970E-06,0.004
-5.960E-06,0.004
-5.950E-06,0.012
-5.940E-06,0.000
-5.930E-06,-0.004
-5.920E-06,0.008
-5.910E-06,0.000
-5.900E-06,0.008
-5.890E-06,0.004
-5.880E-06,0.004
-5.870E-06,0.008
-5.860E-06,0.008
-5.850E-06,0.004
-5.840E-06,0.004
-5.830E-06,0.000
-5.820E-06,0.004
-5.810E-06,0.004
-5.800E-06,0.004
-5.790E-06,0.008
-5.780E-06,0.000
-5.770E-06,0.004
-5.760E-06,0.008
-5.750E-06,0.008
-5.740E-06,0.004
-5.730E-06,0.004
-5.720E-06,0.004
-5.710E-06,0.000
-5.700E-06,0.004
-5.690E-06,0.004
-5.680E-06,0.004
-5.670E-06,0.012
-5.660E-06,0.004
-5.650E-06,0.008
-5.640E-06,0.004
-5.630E-06,-0.004
-5.620E-06,0.000
-5.610E-06,0.000
-5.600E-06,0.004
-5.590E-06,0.012
-5.580E-06,0.008
-5.570E-06,0.008
-5.560E-06,0.008
-5.550E-06,0.000
-5.540E-06,0.000
-5.530E-06,0.004
-5.520E-06,0.004
-5.510E-06,0.000
-5.500E-06,0.008
-5.490E-06,0.000
-5.480E-06,0.004
-5.470E-06,0.004
-5.460E-06,0.000
-5.450E-06,0.000
-5.440E-06,0.000
-5.430E-06,0.004
-5.420E-06,-0.004
-5.410E-06,0.004
-5.400E-06,0.008
-5.390E-06,0.008
-5.380E-06,0.004
-5.370E-06,0.008
-5.360E-06,0.008
-5.350E-06,0.004
-5.340E-06,0.004
-5.330E-06,0.000
-5.320E-06,0.004
-5.310E-06,0.000
-5.300E-06,0.004
-5.290E-06,0.004
-5.280E-06,0.012
-5.270E-06,0.012
-5.260E-06,0.008
-5.250E-06,0.004
-5.240E-06,0.000
-5.230E-06,0.012
-5.220E-06,0.004
-5.210E-06,0.000
-5.200E-06,-0.012
-5.190E-06,-0.008
-5.180E-06,-0.012
-5.170E-06,0.000
-5.160E-06,0.004
-5.150E-06,0.004
-5.140E-06,-0.004
-5.130E-06,0.004
-5.120E-06,0.004
-5.110E-06,0.008
-5.100E-06,-0.004
-5.090E-06,-0.004
-5.080E-06,0.004
-5.070E-06,0.008
-5.060E-06,0.004
-5.050E-06,0.000
-5.040E-06,0.008
-5.030E-06,0.004
-5.020E-06,0.004
-5.010E-06,0.000
-5.000E-06,0.004
-4.990E-06,0.004
-4.980E-06,0.008
-4.970E-06,0.008
-4.960E-06,0.008
-4.950E-06,0.004
-4.940E-06,0.004
-4.930E-06,0.004
-4.920E-06,0.000
-4.910E-06,0.004
-4.900E-06,0.008
-4.890E-06,0.012
-4.880E-06,0.012
-4.870E-06,0.012
-4.860E-06,0.008
-4.850E-06,0.008
-4.840E-06,0.012
-4.830E-06,0.008
-4.820E-06,0.012
-4.810E-06,0.008
-4.800E-06,0.004
-4.790E-06,0.000
-4.780E-06,0.004
-4.770E-06,0.008
-4.760E-06,0.008
-4.750E-06,0.012
-4.740E-06,0.012
-4.730E-06,0.004
-4.720E-06,0.000
-4.710E-06,-0.004
-4.700E-06,0.004
-4.690E-06,0.012
-4.680E-06,0.012
-4.670E-06,0.008
-4.660E-06,0.004
-4.650E-06,0.008
-4.640E-06,0.016
-4.630E-06,0.012
-4.620E-06,0.016
-4.610E-06,-0.004
-4.600E-06,-0.012
-4.590E-06,-0.020
-4.580E-06,-0.028
-4.570E-06,-0.012
-4.560E-06,-0.008
-4.550E-06,0.012
-4.540E-06,0.004
-4.530E-06,0.004
-4.520E-06,0.000
-4.510E-06,-0.004
-4.500E-06,-0.004
-4.490E-06,0.008
-4.480E-06,0.012
-4.470E-06,0.008
-4.460E-06,0.008
-4.450E-06,0.004
-4.440E-06,0.000
-4.430E-06,0.008
-4.420E-06,0.008
-4.410E-06,0.012
-4.400E-06,0.012
-4.390E-06,0.008
-4.380E-06,0.008
-4.370E-06,0.008
-4.360E-06,0.004
-4.350E-06,0.008
-4.340E-06,0.012
-4.330E-06,0.016
-4.320E-06,0.004
-4.310E-06,0.000
-4.300E-06,0.000
-4.290E-06,-0.004
-4.280E-06,0.004
-4.270E-06,0.012
-4.260E-06,0.020
-4.250E-06,0.016
-4.240E-06,0.024
-4.230E-06,0.016
-4.220E-06,0.020
-4.210E-06,0.020
-4.200E-06,0.024
-4.190E-06,0.024
-4.180E-06,0.024
-4.170E-06,0.024
-4.160E-06,0.024
-4.150E-06,0.016
-4.140E-06,0.008
-4.130E-06,-0.004
-4.120E-06,-0.004
-4.110E-06,-0.024
-4.100E-06,-0.036
-4.090E-06,-0.024
-4.080E-06,-0.016
-4.070E-06,-0.004
-4.060E-06,-0.004
-4.050E-06,-0.004
-4.040E-06,-0.004
-4.030E-06,-0.008
-4.020E-06,-0.012
-4.010E-06,-0.012
-4.000E-06,-0.012
-3.990E-06,-0.008
-3.980E-06,-0.008
-3.970E-06,-0.004
-3.960E-06,0.000
-3.950E-06,-0.004
-3.940E-06,0.000
-3.930E-06,-0.004
-3.920E-06,-0.004
-3.910E-06,-0.008
-3.900E-06,-0.004
-3.890E-06,0.004
-3.880E-06,0.004
-3.870E-06,0.008
-3.860E-06,0.008
-3.850E-06,0.000
-3.840E-06,-0.004
-3.830E-06,-0.004
-3.820E-06,0.008
-3.810E-06,0.008
-3.800E-06,0.020
-3.790E-06,0.016
-3.780E-06,0.012
-3.770E-06,0.008
-3.760E-06,0.012
-3.750E-06,0.016
-3.740E-06,0.012
-3.730E-06,0.012
-3.720E-06,0.012
-3.710E-06,0.012
-3.700E-06,0.004
-3.690E-06,0.008
-3.680E-06,0.008
-3.670E-06,0.012
-3.660E-06,0.008
-3.650E-06,0.008
-3.640E-06,0.008
-3.630E-06,0.012
-3.620E-06,0.012
-3.610E-06,0.008
-3.600E-06,0.004
-3.590E-06,-0.008
-3.580E-06,-0.004
-3.570E-06,0.008
-3.560E-06,0.024
-3.550E-06,0.028
-3.540E-06,0.024
-3.530E-06,0.020
-3.520E-06,0.012
-3.510E-06,-0.004
-3.500E-06,-0.004
-3.490E-06,0.004
-3.480E-06,0.012
-3.470E-06,0.008
-3.460E-06,0.008
-3.450E-06,0.000
-3.440E-06,-0.004
-3.430E-06,-0.008
-3.420E-06,-0.008
-3.410E-06,-0.004
-3.400E-06,0.004
-3.390E-06,0.000
-3.380E-06,0.012
-3.370E-06,0.024
-3.360E-06,0.024
-3.350E-06,0.024
-3.340E-06,0.000
-3.330E-06,-0.012
-3.320E-06,-0.032
-3.310E-06,-0.036
-3.300E-06,-0.024
-3.290E-06,0.000
-3.280E-06,0.008
-3.270E-06,0.016
-3.260E-06,0.008
-3.250E-06,-0.008
-3.240E-06,-0.008
-3.230E-06,-0.012
-3.220E-06,0.000
-3.210E-06,0.008
-3.200E-06,0.008
-3.190E-06,0.008
-3.180E-06,0.004
-3.170E-06,-0.004
-3.160E-06,0.004
-3.150E-06,0.004
-3.140E-06,0.008
-3.130E-06,0.004
-3.120E-06,0.012
-3.110E-06,0.004
-3.100E-06,0.012
-3.090E-06,0.012
-3.080E-06,0.012
-3.070E-06,0.012
-3.060E-06,0.004
-3.050E-06,0.008
-3.040E-06,0.008
-3.030E-06,0.020
-3.020E-06,0.024
-3.010E-06,0.032
-3.000E-06,0.036
-2.990E-06,0.040
-2.980E-06,0.040
-2.970E-06,0.032
-2.960E-06,0.016
-2.950E-06,0.000
-2.940E-06,-0.008
-2.930E-06,-0.016
-2.920E-06,-0.020
-2.910E-06,-0.004
-2.900E-06,0.000
-2.890E-06,-0.004
-2.880E-06,0.000
-2.870E-06,-0.004
-2.860E-06,-0.004
-2.850E-06,-0.008
-2.840E-06,-0.004
-2.830E-06,-0.004
-2.820E-06,-0.008
-2.810E-06,-0.008
-2.800E-06,-0.004
-2.790E-06,0.004
-2.780E-06,0.008
-2.770E-06,0.016
-2.760E-06,0.020
-2.750E-06,0.028
-2.740E-06,0.032
-2.730E-06,0.020
-2.720E-06,0.012
-2.710E-06,-0.004
-2.700E-06,-0.004
-2.690E-06,0.000
-2.680E-06,0.020
-2.670E-06,0.032
-2.660E-06,0.020
-2.650E-06,-0.004
-2.640E-06,-0.008
-2.630E-06,-0.024
-2.620E-06,-0.016
-2.610E-06,0.000
-2.600E-06,0.020
-2.590E-06,0.020
-2.580E-06,0.020
-2.570E-06,0.008
-2.560E-06,-0.004
-2.550E-06,-0.008
-2.540E-06,0.000
-2.530E-06,0.016
-2.520E-06,0.028
-2.510E-06,0.036
-2.500E-06,0.032
-2.490E-06,0.012
-2.480E-06,0.004
-2.470E-06,0.004
-2.460E-06,0.008
-2.450E-06,0.016
-2.440E-06,0.020
-2.430E-06,0.020
-2.420E-06,0.016
-2.410E-06,0.012
-2.400E-06,0.004
-2.390E-06,0.004
-2.380E-06,0.004
-2.370E-06,0.008
-2.360E-06,0.012
-2.350E-06,0.020
-2.340E-06,0.024
-2.330E-06,0.024
-2.320E-06,0.016
-2.310E-06,0.008
-2.300E-06,0.008
-2.290E-06,0.004
-2.280E-06,0.012
-2.270E-06,0.016
-2.260E-06,0.020
-2.250E-06,0.016
-2.240E-06,0.012
-2.230E-06,0.012
-2.220E-06,0.012
-2.210E-06,0.024
-2.200E-06,0.032
-2.190E-06,0.032
-2.180E-06,0.028
-2.170E-06,0.032
-2.160E-06,0.032
-2.150E-06,0.032
-2.140E-06,0.032
-2.130E-06,0.032
-2.120E-06,0.024
-2.110E-06,0.028
-2.100E-06,0.032
-2.090E-06,0.032
-2.080E-06,0.036
-2.070E-06,0.044
-2.060E-06,0.048
-2.050E-06,0.048
-2.040E-06,0.036
-2.030E-06,0.028
-2.020E-06,0.028
-2.010E-06,0.028
-2.000E-06,0.040
-1.990E-06,0.056
-1.980E-06,0.056
-1.970E-06,0.056
-1.960E-06,0.044
-1.950E-06,0.024
-1.940E-06,0.004
-1.930E-06,0.000
-1.920E-06,-0.004
-1.910E-06,-0.012
-1.900E-06,-0.004
-1.890E-06,0.012
-1.880E-06,0.040
-1.870E-06,0.064
-1.860E-06,0.080
-1.850E-06,0.060
-1.840E-06,0.060
-1.830E-06,0.008
-1.820E-06,-0.020
-1.810E-06,-0.076
-1.800E-06,-0.104
-1.790E-06,-0.100
-1.780E-06,-0.076
-1.770E-06,-0.052
-1.760E-06,-0.036
-1.750E-06,-0.020
-1.740E-06,-0.032
-1.730E-06,-0.056
-1.720E-06,-0.064
-1.710E-06,-0.044
-1.700E-06,-0.020
-1.690E-06,-0.008
-1.680E-06,0.008
-1.670E-06,0.020
-1.660E-06,0.004
-1.650E-06,0.032
-1.640E-06,0.016
-1.630E-06,0.028
-1.620E-06,0.032
-1.610E-06,0.036
-1.600E-06,0.036
-1.590E-06,0.028
-1.580E-06,0.028
-1.570E-06,0.040
-1.560E-06,0.052
-1.550E-06,0.064
-1.540E-06,0.068
-1.530E-06,0.068
-1.520E-06,0.080
-1.510E-06,0.072
-1.500E-06,0.064
-1.490E-06,0.072
-1.480E-06,0.088
-1.470E-06,0.092
-1.460E-06,0.104
-1.450E-06,0.096
-1.440E-06,0.080
-1.430E-06,0.064
-1.420E-06,0.060
-1.410E-06,0.064
-1.400E-06,0.060
-1.390E-06,0.076
-1.380E-06,0.076
-1.370E-06,0.068
-1.360E-06,0.056
-1.350E-06,0.044
-1.340E-06,0.028
-1.330E-06,0.012
-1.320E-06,0.016
-1.310E-06,0.020
-1.300E-06,0.012
-1.290E-06,0.004
-1.280E-06,0.000
-1.270E-06,-0.008
-1.260E-06,-0.016
-1.250E-06,-0.008
-1.240E-06,-0.004
-1.230E-06,0.008
-1.220E-06,0.008
-1.210E-06,0.004
-1.200E-06,0.000
-1.190E-06,-0.004
-1.180E-06,-0.004
-1.170E-06,0.004
-1.160E-06,0.012
-1.150E-06,0.016
-1.140E-06,0.024
-1.130E-06,0.012
-1.120E-06,0.000
-1.110E-06,0.004
-1.100E-06,0.008
-1.090E-06,0.032
-1.080E-06,0.040
-1.070E-06,0.056
-1.060E-06,0.076
-1.050E-06,0.092
-1.040E-06,0.144
-1.030E-06,0.160
-1.020E-06,0.176
-1.010E-06,0.156
-1.000E-06,0.128
-9.900E-07,0.120
-9.800E-07,0.112
-9.700E-07,0.124
-9.600E-07,0.144
-9.500E-07,0.164
-9.400E-07,0.156
-9.300E-07,0.152
-9.200E-07,0.136
-9.100E-07,0.128
-9.000E-07,0.108
-8.900E-07,0.112
-8.800E-07,0.120
-8.700E-07,0.128
-8.600E-07,0.128
-8.500E-07,0.116
-8.400E-07,0.104
-8.300E-07,0.100
-8.200E-07,0.092
-8.100E-07,0.084
-8.000E-07,0.084
-7.900E-07,0.084
-7.800E-07,0.088
-7.700E-07,0.076
-7.600E-07,0.076
-7.500E-07,0.076
-7.400E-07,0.088
-7.300E-07,0.092
-7.200E-07,0.092
-7.100E-07,0.100
-7.000E-07,0.092
-6.900E-07,0.088
-6.800E-07,0.088
-6.700E-07,0.088
-6.600E-07,0.100
-6.500E-07,0.108
-6.400E-07,0.116
-6.300E-07,0.112
-6.200E-07,0.108
-6.100E-07,0.092
-6.000E-07,0.092
-5.900E-07,0.092
-5.800E-07,0.104
-5.700E-07,0.120
-5.600E-07,0.132
-5.500E-07,0.144
-5.400E-07,0.148
-5.300E-07,0.160
-5.200E-07,0.156
-5.100E-07,0.168
-5.000E-07,0.168
-4.900E-07,0.156
-4.800E-07,0.156
-4.700E-07,0.156
-4.600E-07,0.140
-4.500E-07,0.144
-4.400E-07,0.152
-4.300E-07,0.164
-4.200E-07,0.160
-4.100E-07,0.152
-4.000E-07,0.140
-3.900E-07,0.124
-3.800E-07,0.124
-3.700E-07,0.128
-3.600E-07,0.144
-3.500E-07,0.160
-3.400E-07,0.176
-3.300E-07,0.176
-3.200E-07,0.164
-3.100E-07,0.164
-3.000E-07,0.152
-2.900E-07,0.152
-2.800E-07,0.152
-2.700E-07,0.160
-2.600E-07,0.156
-2.500E-07,0.156
-2.400E-07,0.156
-2.300E-07,0.152
-2.200E-07,0.152
-2.100E-07,0.152
-2.000E-07,0.156
-1.900E-07,0.156
-1.800E-07,0.160
-1.700E-07,0.164
-1.600E-07,0.156
-1.500E-07,0.156
-1.400E-07,0.152
-1.300E-07,0.152
-1.200E-07,0.156
-1.100E-07,0.160
-1.000E-07,0.152
-9.000E-08,0.148
-8.000E-08,0.128
-7.000E-08,0.108
-6.000E-08,0.076
-5.000E-08,0.052
-4.000E-08,0.024
-3.000E-08,0.036
-2.000E-08,0.092
-1.000E-08,0.164
0.000E+00,0.220
1.000E-08,0.228
2.000E-08,0.188
3.000E-08,0.144
4.000E-08,0.108
5.000E-08,0.088
6.000E-08,0.104
7.000E-08,0.160
8.000E-08,0.192
9.000E-08,0.196
1.000E-07,0.176
1.100E-07,0.132
1.200E-07,0.120
1.300E-07,0.112
1.400E-07,0.132
1.500E-07,0.136
1.600E-07,0.156
1.700E-07,0.164
1.800E-07,0.156
1.900E-07,0.152
2.000E-07,0.144
2.100E-07,0.136
2.200E-07,0.132
2.300E-07,0.136
2.400E-07,0.140
2.500E-07,0.152
2.600E-07,0.156
2.700E-07,0.156
2.800E-07,0.152
2.900E-07,0.144
3.000E-07,0.140
3.100E-07,0.140
3.200E-07,0.140
3.300E-07,0.144
3.400E-07,0.148
3.500E-07,0.152
3.600E-07,0.152
3.700E-07,0.144
3.800E-07,0.144
3.900E-07,0.140
4.000E-07,0.144
4.100E-07,0.140
4.200E-07,0.144
4.300E-07,0.140
4.400E-07,0.136
4.500E-07,0.140
4.600E-07,0.136
4.700E-07,0.140
4.800E-07,0.144
4.900E-07,0.136
5.000E-07,0.140
5.100E-07,0.136
5.200E-07,0.132
5.300E-07,0.140
5.400E-07,0.136
5.500E-07,0.140
5.600E-07,0.136
5.700E-07,0.136
5.800E-07,0.136
5.900E-07,0.136
6.000E-07,0.136
6.100E-07,0.136
6.200E-07,0.140
6.300E-07,0.140
6.400E-07,0.140
6.500E-07,0.136
6.600E-07,0.140
6.700E-07,0.136
6.800E-07,0.140
6.900E-07,0.144
7.000E-07,0.144
7.100E-07,0.136
7.200E-07,0.140
7.300E-07,0.136
7.400E-07,0.136
7.500E-07,0.136
7.600E-07,0.136
7.700E-07,0.136
7.800E-07,0.136
7.900E-07,0.132
8.000E-07,0.136
8.100E-07,0.136
8.200E-07,0.128
8.300E-07,0.136
8.400E-07,0.132
8.500E-07,0.132
8.600E-07,0.132
8.700E-07,0.132
8.800E-07,0.128
8.900E-07,0.132
9.000E-07,0.128
9.100E-07,0.128
9.200E-07,0.128
9.300E-07,0.128
9.400E-07,0.128
9.500E-07,0.128
9.600E-07,0.128
9.700E-07,0.128
9.800E-07,0.128
9.900E-07,0.132
1.000E-06,0.132
1.010E-06,0.132
1.020E-06,0.132
1.030E-06,0.136
1.040E-06,0.136
1.050E-06,0.132
1.060E-06,0.132
1.070E-06,0.132
1.080E-06,0.128
1.090E-06,0.132
1.100E-06,0.132
1.110E-06,0.128
1.120E-06,0.128
1.130E-06,0.128
1.140E-06,0.128
1.150E-06,0.124
1.160E-06,0.124
1.170E-06,0.128
1.180E-06,0.128
1.190E-06,0.128
1.200E-06,0.128
1.210E-06,0.128
1.220E-06,0.128
1.230E-06,0.128
1.240E-06,0.124
1.250E-06,0.124
1.260E-06,0.124
1.270E-06,0.124
1.280E-06,0.120
1.290E-06,0.124
1.300E-06,0.124
1.310E-06,0.128
1.320E-06,0.124
1.330E-06,0.124
1.340E-06,0.124
1.350E-06,0.124
1.360E-06,0.128
1.370E-06,0.128
1.380E-06,0.124
1.390E-06,0.124
1.400E-06,0.124
1.410E-06,0.124
1.420E-06,0.124
1.430E-06,0.124
1.440E-06,0.120
1.450E-06,0.120
1.460E-06,0.120
1.470E-06,0.120
1.480E-06,0.120
1.490E-06,0.120
1.500E-06,0.120
1.510E-06,0.120
1.520E-06,0.120
1.530E-06,0.120
1.540E-06,0.116
1.550E-06,0.120
1.560E-06,0.120
1.570E-06,0.120
1.580E-06,0.112
1.590E-06,0.112
1.600E-06,0.112
1.610E-06,0.112
1.620E-06,0.116
1.630E-06,0.108
1.640E-06,0.112
1.650E-06,0.112
1.660E-06,0.108
1.670E-06,0.112
1.680E-06,0.108
1.690E-06,0.108
1.700E-06,0.108
1.710E-06,0.108
1.720E-06,0.108
1.730E-06,0.112
1.740E-06,0.112
1.750E-06,0.112
1.760E-06,0.104
1.770E-06,0.108
1.780E-06,0.108
1.790E-06,0.108
1.800E-06,0.108
1.810E-06,0.108
1.820E-06,0.108
1.830E-06,0.112
1.840E-06,0.112
1.850E-06,0.112
1.860E-06,0.112
1.870E-06,0.112
1.880E-06,0.116
1.890E-06,0.120
1.900E-06,0.112
1.910E-06,0.112
1.920E-06,0.112
1.930E-06,0.108
1.940E-06,0.104
1.950E-06,0.108
1.960E-06,0.108
1.970E-06,0.112
1.980E-06,0.112
1.990E-06,0.112
2.000E-06,0.104
2.010E-06,0.104
2.020E-06,0.104
2.030E-06,0.100
2.040E-06,0.104
2.050E-06,0.104
2.060E-06,0.100
2.070E-06,0.096
2.080E-06,0.096
2.090E-06,0.096
2.100E-06,0.092
2.110E-06,0.088
2.120E-06,0.092
2.130E-06,0.096
2.140E-06,0.092
2.150E-06,0.096
2.160E-06,0.092
2.170E-06,0.096
2.180E-06,0.092
2.190E-06,0.088
2.200E-06,0.088
2.210E-06,0.092
2.220E-06,0.096
2.230E-06,0.096
2.240E-06,0.096
2.250E-06,0.096
2.260E-06,0.092
2.270E-06,0.096
2.280E-06,0.096
2.290E-06,0.088
2.300E-06,0.092
2.310E-06,0.092
2.320E-06,0.096
2.330E-06,0.088
2.340E-06,0.092
2.350E-06,0.088
2.360E-06,0.088
2.370E-06,0.088
2.380E-06,0.092
2.390E-06,0.088
2.400E-06,0.092
2.410E-06,0.088
2.420E-06,0.092
2.430E-06,0.092
2.440E-06,0.088
2.450E-06,0.092
2.460E-06,0.088
2.470E-06,0.088
2.480E-06,0.092
2.490E-06,0.088
2.500E-06,0.088
2.510E-06,0.088
2.520E-06,0.092
2.530E-06,0.088
2.540E-06,0.088
2.550E-06,0.092
2.560E-06,0.092
2.570E-06,0.092
2.580E-06,0.092
2.590E-06,0.092
2.600E-06,0.092
2.610E-06,0.092
2.620E-06,0.084
2.630E-06,0.084
2.640E-06,0.084
2.650E-06,0.080
2.660E-06,0.088
2.670E-06,0.088
2.680E-06,0.084
2.690E-06,0.088
2.700E-06,0.088
2.710E-06,0.076
2.720E-06,0.080
2.730E-06,0.084
2.740E-06,0.080
2.750E-06,0.084
2.760E-06,0.084
2.770E-06,0.084
2.780E-06,0.084
2.790E-06,0.084
2.800E-06,0.080
2.810E-06,0.080
2.820E-06,0.076
2.830E-06,0.076
2.840E-06,0.084
2.850E-06,0.076
2.860E-06,0.076
2.870E-06,0.080
2.880E-06,0.080
2.890E-06,0.072
2.900E-06,0.072
2.910E-06,0.072
2.920E-06,0.076
2.930E-06,0.072
2.940E-06,0.076
2.950E-06,0.072
2.960E-06,0.068
2.970E-06,0.068
2.980E-06,0.076
2.990E-06,0.076
3.000E-06,0.072
3.010E-06,0.072
3.020E-06,0.076
3.030E-06,0.076
3.040E-06,0.068
3.050E-06,0.068
3.060E-06,0.064
3.070E-06,0.068
3.080E-06,0.064
3.090E-06,0.068
3.100E-06,0.068
3.110E-06,0.072
3.120E-06,0.072
3.130E-06,0.068
3.140E-06,0.068
3.150E-06,0.068
3.160E-06,0.068
3.170E-06,0.076
3.180E-06,0.072
3.190E-06,0.072
3.200E-06,0.072
3.210E-06,0.064
3.220E-06,0.064
3.230E-06,0.068
3.240E-06,0.068
3.250E-06,0.068
3.260E-06,0.068
3.270E-06,0.064
3.280E-06,0.064
3.290E-06,0.064
3.300E-06,0.068
3.310E-06,0.064
3.320E-06,0.060
3.330E-06,0.064
3.340E-06,0.064
3.350E-06,0.060
3.360E-06,0.060
3.370E-06,0.060
3.380E-06,0.064
3.390E-06,0.060
3.400E-06,0.056
3.410E-06,0.056
3.420E-06,0.056
3.430E-06,0.060
3.440E-06,0.060
