mediciones/Mediciones filtradas (saque las feas)/5-27/-52.5/WaveData50244.csv

#timebase=2000000(ps)
,#voltbase=100000(mv/100)
#size=4000
-8.400E-06,0.000
-8.390E-06,0.008
-8.380E-06,0.012
-8.370E-06,0.008
-8.360E-06,-0.004
-8.350E-06,-0.004
-8.340E-06,-0.008
-8.330E-06,0.000
-8.320E-06,0.004
-8.310E-06,0.012
-8.300E-06,0.004
-8.290E-06,0.004
-8.280E-06,-0.004
-8.270E-06,-0.004
-8.260E-06,-0.004
-8.250E-06,0.008
-8.240E-06,0.012
-8.230E-06,0.012
-8.220E-06,0.004
-8.210E-06,0.000
-8.200E-06,0.004
-8.190E-06,-0.004
-8.180E-06,0.000
-8.170E-06,0.008
-8.160E-06,0.008
-8.150E-06,0.008
-8.140E-06,0.004
-8.130E-06,-0.012
-8.120E-06,-0.004
-8.110E-06,0.000
-8.100E-06,0.036
-8.090E-06,0.040
-8.080E-06,-0.004
-8.070E-06,-0.032
-8.060E-06,-0.048
-8.050E-06,-0.024
-8.040E-06,0.024
-8.030E-06,0.064
-8.020E-06,0.068
-8.010E-06,0.056
-8.000E-06,-0.012
-7.990E-06,-0.056
-7.980E-06,-0.072
-7.970E-06,-0.028
-7.960E-06,-0.016
-7.950E-06,0.008
-7.940E-06,0.020
-7.930E-06,0.024
-7.920E-06,0.028
-7.910E-06,0.016
-7.900E-06,0.008
-7.890E-06,0.004
-7.880E-06,-0.020
-7.870E-06,-0.016
-7.860E-06,0.000
-7.850E-06,0.008
-7.840E-06,0.036
-7.830E-06,0.024
-7.820E-06,0.000
-7.810E-06,-0.008
-7.800E-06,-0.016
-7.790E-06,-0.012
-7.780E-06,0.000
-7.770E-06,0.012
-7.760E-06,0.012
-7.750E-06,0.004
-7.740E-06,0.008
-7.730E-06,0.000
-7.720E-06,0.000
-7.710E-06,0.004
-7.700E-06,0.004
-7.690E-06,0.004
-7.680E-06,0.004
-7.670E-06,0.000
-7.660E-06,0.008
-7.650E-06,0.012
-7.640E-06,0.004
-7.630E-06,0.008
-7.620E-06,0.004
-7.610E-06,0.000
-7.600E-06,0.004
-7.590E-06,-0.004
-7.580E-06,0.004
-7.570E-06,0.008
-7.560E-06,0.008
-7.550E-06,0.004
-7.540E-06,0.000
-7.530E-06,0.004
-7.520E-06,0.000
-7.510E-06,0.004
-7.500E-06,0.000
-7.490E-06,0.004
-7.480E-06,0.004
-7.470E-06,0.004
-7.460E-06,0.004
-7.450E-06,0.004
-7.440E-06,0.004
-7.430E-06,-0.004
-7.420E-06,-0.036
-7.410E-06,-0.008
-7.400E-06,0.024
-7.390E-06,0.080
-7.380E-06,0.036
-7.370E-06,0.000
-7.360E-06,-0.056
-7.350E-06,-0.044
-7.340E-06,-0.004
-7.330E-06,0.032
-7.320E-06,0.060
-7.310E-06,0.064
-7.300E-06,0.012
-7.290E-06,-0.036
-7.280E-06,-0.068
-7.270E-06,-0.064
-7.260E-06,-0.020
-7.250E-06,0.016
-7.240E-06,0.048
-7.230E-06,0.048
-7.220E-06,0.016
-7.210E-06,-0.004
-7.200E-06,-0.020
-7.190E-06,-0.020
-7.180E-06,0.000
-7.170E-06,0.004
-7.160E-06,0.012
-7.150E-06,0.008
-7.140E-06,-0.008
-7.130E-06,0.008
-7.120E-06,0.012
-7.110E-06,0.012
-7.100E-06,0.008
-7.090E-06,0.000
-7.080E-06,-0.008
-7.070E-06,-0.004
-7.060E-06,0.004
-7.050E-06,0.012
-7.040E-06,0.016
-7.030E-06,0.012
-7.020E-06,0.004
-7.010E-06,0.000
-7.000E-06,0.000
-6.990E-06,0.000
-6.980E-06,0.004
-6.970E-06,0.008
-6.960E-06,0.012
-6.950E-06,0.000
-6.940E-06,0.000
-6.930E-06,0.004
-6.920E-06,0.008
-6.910E-06,0.000
-6.900E-06,0.000
-6.890E-06,0.000
-6.880E-06,0.000
-6.870E-06,0.004
-6.860E-06,0.008
-6.850E-06,0.008
-6.840E-06,0.008
-6.830E-06,0.004
-6.820E-06,0.004
-6.810E-06,0.004
-6.800E-06,0.008
-6.790E-06,0.012
-6.780E-06,0.012
-6.770E-06,0.004
-6.760E-06,0.004
-6.750E-06,0.004
-6.740E-06,0.004
-6.730E-06,-0.008
-6.720E-06,-0.036
-6.710E-06,-0.012
-6.700E-06,0.004
-6.690E-06,0.064
-6.680E-06,0.060
-6.670E-06,0.020
-6.660E-06,-0.020
-6.650E-06,-0.060
-6.640E-06,-0.028
-6.630E-06,0.020
-6.620E-06,0.068
-6.610E-06,0.056
-6.600E-06,0.012
-6.590E-06,-0.056
-6.580E-06,-0.108
-6.570E-06,-0.056
-6.560E-06,-0.004
-6.550E-06,0.056
-6.540E-06,0.084
-6.530E-06,0.044
-6.520E-06,-0.012
-6.510E-06,-0.036
-6.500E-06,-0.028
-6.490E-06,-0.004
-6.480E-06,0.024
-6.470E-06,0.020
-6.460E-06,0.016
-6.450E-06,0.000
-6.440E-06,-0.008
-6.430E-06,-0.008
-6.420E-06,-0.008
-6.410E-06,0.004
-6.400E-06,0.012
-6.390E-06,0.004
-6.380E-06,0.004
-6.370E-06,0.008
-6.360E-06,0.008
-6.350E-06,0.000
-6.340E-06,0.004
-6.330E-06,0.000
-6.320E-06,0.000
-6.310E-06,0.000
-6.300E-06,0.004
-6.290E-06,0.008
-6.280E-06,0.012
-6.270E-06,0.008
-6.260E-06,0.004
-6.250E-06,0.004
-6.240E-06,0.004
-6.230E-06,0.000
-6.220E-06,0.004
-6.210E-06,0.008
-6.200E-06,0.008
-6.190E-06,-0.004
-6.180E-06,0.000
-6.170E-06,0.004
-6.160E-06,0.008
-6.150E-06,0.008
-6.140E-06,0.004
-6.130E-06,0.004
-6.120E-06,0.004
-6.110E-06,0.000
-6.100E-06,0.000
-6.090E-06,0.004
-6.080E-06,0.012
-6.070E-06,0.004
-6.060E-06,0.004
-6.050E-06,-0.020
-6.040E-06,-0.036
-6.030E-06,-0.016
-6.020E-06,0.048
-6.010E-06,0.076
-6.000E-06,0.060
-5.990E-06,-0.008
-5.980E-06,-0.060
-5.970E-06,-0.052
-5.960E-06,0.004
-5.950E-06,0.056
-5.940E-06,0.044
-5.930E-06,0.028
-5.920E-06,-0.032
-5.910E-06,-0.052
-5.900E-06,-0.032
-5.890E-06,0.012
-5.880E-06,0.016
-5.870E-06,0.016
-5.860E-06,-0.004
-5.850E-06,-0.008
-5.840E-06,-0.004
-5.830E-06,0.000
-5.820E-06,0.016
-5.810E-06,0.020
-5.800E-06,0.008
-5.790E-06,-0.004
-5.780E-06,-0.008
-5.770E-06,-0.008
-5.760E-06,0.008
-5.750E-06,0.016
-5.740E-06,0.004
-5.730E-06,0.004
-5.720E-06,0.000
-5.710E-06,-0.008
-5.700E-06,0.008
-5.690E-06,0.000
-5.680E-06,0.000
-5.670E-06,0.008
-5.660E-06,0.004
-5.650E-06,0.004
-5.640E-06,0.004
-5.630E-06,0.008
-5.620E-06,0.004
-5.610E-06,0.004
-5.600E-06,0.008
-5.590E-06,-0.004
-5.580E-06,0.000
-5.570E-06,0.004
-5.560E-06,0.008
-5.550E-06,0.008
-5.540E-06,0.008
-5.530E-06,0.008
-5.520E-06,0.004
-5.510E-06,-0.004
-5.500E-06,0.000
-5.490E-06,0.004
-5.480E-06,0.008
-5.470E-06,0.008
-5.460E-06,0.008
-5.450E-06,0.004
-5.440E-06,0.004
-5.430E-06,-0.004
-5.420E-06,0.004
-5.410E-06,0.004
-5.400E-06,0.008
-5.390E-06,0.004
-5.380E-06,0.008
-5.370E-06,-0.012
-5.360E-06,-0.036
-5.350E-06,-0.004
-5.340E-06,0.028
-5.330E-06,0.092
-5.320E-06,0.056
-5.310E-06,-0.004
-5.300E-06,-0.064
-5.290E-06,-0.060
-5.280E-06,-0.004
-5.270E-06,0.048
-5.260E-06,0.076
-5.250E-06,0.056
-5.240E-06,-0.004
-5.230E-06,-0.068
-5.220E-06,-0.104
-5.210E-06,-0.064
-5.200E-06,0.008
-5.190E-06,0.072
-5.180E-06,0.064
-5.170E-06,0.028
-5.160E-06,-0.004
-5.150E-06,-0.036
-5.140E-06,-0.028
-5.130E-06,-0.008
-5.120E-06,0.008
-5.110E-06,0.024
-5.100E-06,0.012
-5.090E-06,-0.004
-5.080E-06,0.000
-5.070E-06,0.000
-5.060E-06,0.004
-5.050E-06,0.008
-5.040E-06,0.000
-5.030E-06,-0.008
-5.020E-06,-0.008
-5.010E-06,-0.004
-5.000E-06,0.008
-4.990E-06,0.012
-4.980E-06,0.020
-4.970E-06,0.008
-4.960E-06,-0.004
-4.950E-06,-0.008
-4.940E-06,-0.004
-4.930E-06,0.012
-4.920E-06,0.008
-4.910E-06,0.008
-4.900E-06,0.008
-4.890E-06,0.000
-4.880E-06,-0.004
-4.870E-06,0.000
-4.860E-06,0.012
-4.850E-06,0.012
-4.840E-06,0.004
-4.830E-06,0.000
-4.820E-06,0.000
-4.810E-06,0.000
-4.800E-06,0.004
-4.790E-06,0.008
-4.780E-06,0.008
-4.770E-06,0.004
-4.760E-06,0.004
-4.750E-06,0.004
-4.740E-06,0.008
-4.730E-06,0.000
-4.720E-06,0.008
-4.710E-06,0.008
-4.700E-06,0.008
-4.690E-06,0.004
-4.680E-06,0.004
-4.670E-06,0.004
-4.660E-06,0.008
-4.650E-06,0.008
-4.640E-06,0.008
-4.630E-06,0.004
-4.620E-06,-0.016
-4.610E-06,-0.004
-4.600E-06,0.008
-4.590E-06,0.056
-4.580E-06,0.064
-4.570E-06,0.028
-4.560E-06,-0.024
-4.550E-06,-0.060
-4.540E-06,-0.052
-4.530E-06,0.020
-4.520E-06,0.076
-4.510E-06,0.092
-4.500E-06,0.088
-4.490E-06,-0.004
-4.480E-06,-0.056
-4.470E-06,-0.104
-4.460E-06,-0.084
-4.450E-06,-0.044
-4.440E-06,0.020
-4.430E-06,0.056
-4.420E-06,0.052
-4.410E-06,0.028
-4.400E-06,-0.004
-4.390E-06,-0.028
-4.380E-06,-0.028
-4.370E-06,-0.008
-4.360E-06,0.000
-4.350E-06,0.020
-4.340E-06,0.008
-4.330E-06,0.000
-4.320E-06,0.000
-4.310E-06,-0.008
-4.300E-06,-0.004
-4.290E-06,0.000
-4.280E-06,0.000
-4.270E-06,0.004
-4.260E-06,0.000
-4.250E-06,0.004
-4.240E-06,0.008
-4.230E-06,0.008
-4.220E-06,0.008
-4.210E-06,0.004
-4.200E-06,-0.004
-4.190E-06,0.000
-4.180E-06,0.000
-4.170E-06,0.000
-4.160E-06,0.004
-4.150E-06,0.008
-4.140E-06,0.004
-4.130E-06,0.000
-4.120E-06,0.004
-4.110E-06,0.004
-4.100E-06,-0.004
-4.090E-06,0.000
-4.080E-06,0.004
-4.070E-06,0.004
-4.060E-06,0.000
-4.050E-06,0.008
-4.040E-06,0.008
-4.030E-06,0.004
-4.020E-06,0.000
-4.010E-06,0.000
-4.000E-06,0.000
-3.990E-06,0.000
-3.980E-06,0.004
-3.970E-06,0.004
-3.960E-06,0.008
-3.950E-06,0.008
-3.940E-06,0.008
-3.930E-06,0.008
-3.920E-06,0.000
-3.910E-06,0.004
-3.900E-06,0.004
-3.890E-06,0.008
-3.880E-06,0.012
-3.870E-06,0.012
-3.860E-06,0.012
-3.850E-06,0.004
-3.840E-06,0.004
-3.830E-06,0.004
-3.820E-06,0.000
-3.810E-06,0.008
-3.800E-06,0.012
-3.790E-06,0.028
-3.780E-06,0.024
-3.770E-06,0.016
-3.760E-06,0.016
-3.750E-06,-0.016
-3.740E-06,-0.028
-3.730E-06,-0.028
-3.720E-06,-0.012
-3.710E-06,0.028
-3.700E-06,0.068
-3.690E-06,0.076
-3.680E-06,0.032
-3.670E-06,-0.036
-3.660E-06,-0.084
-3.650E-06,-0.088
-3.640E-06,-0.032
-3.630E-06,0.020
-3.620E-06,0.052
-3.610E-06,0.048
-3.600E-06,0.012
-3.590E-06,-0.012
-3.580E-06,-0.032
-3.570E-06,-0.020
-3.560E-06,0.012
-3.550E-06,0.028
-3.540E-06,0.028
-3.530E-06,0.016
-3.520E-06,0.004
-3.510E-06,-0.004
-3.500E-06,-0.008
-3.490E-06,0.000
-3.480E-06,0.008
-3.470E-06,0.008
-3.460E-06,0.008
-3.450E-06,-0.004
-3.440E-06,-0.004
-3.430E-06,-0.004
-3.420E-06,0.004
-3.410E-06,0.004
-3.400E-06,0.012
-3.390E-06,0.012
-3.380E-06,0.008
-3.370E-06,0.004
-3.360E-06,-0.012
-3.350E-06,-0.008
-3.340E-06,-0.004
-3.330E-06,0.012
-3.320E-06,0.016
-3.310E-06,0.016
-3.300E-06,-0.008
-3.290E-06,-0.028
-3.280E-06,-0.036
-3.270E-06,-0.020
-3.260E-06,0.024
-3.250E-06,0.040
-3.240E-06,0.044
-3.230E-06,0.032
-3.220E-06,0.004
-3.210E-06,-0.004
-3.200E-06,-0.008
-3.190E-06,0.000
-3.180E-06,0.004
-3.170E-06,0.004
-3.160E-06,0.000
-3.150E-06,0.000
-3.140E-06,0.012
-3.130E-06,0.016
-3.120E-06,0.016
-3.110E-06,0.012
-3.100E-06,-0.004
-3.090E-06,-0.008
-3.080E-06,-0.012
-3.070E-06,-0.008
-3.060E-06,0.004
-3.050E-06,0.012
-3.040E-06,0.008
-3.030E-06,0.008
-3.020E-06,0.004
-3.010E-06,-0.004
-3.000E-06,-0.008
-2.990E-06,-0.008
-2.980E-06,0.000
-2.970E-06,0.020
-2.960E-06,0.028
-2.950E-06,0.032
-2.940E-06,0.008
-2.930E-06,-0.008
-2.920E-06,-0.032
-2.910E-06,-0.028
-2.900E-06,-0.008
-2.890E-06,0.016
-2.880E-06,0.040
-2.870E-06,0.032
-2.860E-06,0.012
-2.850E-06,0.000
-2.840E-06,-0.016
-2.830E-06,-0.012
-2.820E-06,0.000
-2.810E-06,0.016
-2.800E-06,0.024
-2.790E-06,0.032
-2.780E-06,0.028
-2.770E-06,0.020
-2.760E-06,-0.012
-2.750E-06,-0.020
-2.740E-06,-0.036
-2.730E-06,-0.020
-2.720E-06,-0.004
-2.710E-06,0.020
-2.700E-06,0.036
-2.690E-06,0.032
-2.680E-06,0.028
-2.670E-06,0.004
-2.660E-06,-0.008
-2.650E-06,-0.012
-2.640E-06,-0.004
-2.630E-06,0.004
-2.620E-06,0.016
-2.610E-06,0.020
-2.600E-06,0.004
-2.590E-06,-0.008
-2.580E-06,-0.028
-2.570E-06,-0.020
-2.560E-06,-0.004
-2.550E-06,0.012
-2.540E-06,0.024
-2.530E-06,0.020
-2.520E-06,0.008
-2.510E-06,-0.004
-2.500E-06,-0.012
-2.490E-06,0.000
-2.480E-06,0.008
-2.470E-06,0.012
-2.460E-06,0.012
-2.450E-06,0.008
-2.440E-06,0.008
-2.430E-06,-0.008
-2.420E-06,0.000
-2.410E-06,-0.004
-2.400E-06,0.008
-2.390E-06,0.012
-2.380E-06,0.004
-2.370E-06,0.000
-2.360E-06,-0.008
-2.350E-06,-0.016
-2.340E-06,-0.012
-2.330E-06,-0.004
-2.320E-06,0.008
-2.310E-06,0.012
-2.300E-06,0.008
-2.290E-06,0.008
-2.280E-06,0.000
-2.270E-06,-0.008
-2.260E-06,0.000
-2.250E-06,0.000
-2.240E-06,0.004
-2.230E-06,0.008
-2.220E-06,0.004
-2.210E-06,0.000
-2.200E-06,0.004
-2.190E-06,0.000
-2.180E-06,0.004
-2.170E-06,0.000
-2.160E-06,0.008
-2.150E-06,0.004
-2.140E-06,0.008
-2.130E-06,0.008
-2.120E-06,0.008
-2.110E-06,0.008
-2.100E-06,0.008
-2.090E-06,0.008
-2.080E-06,0.012
-2.070E-06,0.004
-2.060E-06,0.008
-2.050E-06,0.012
-2.040E-06,0.012
-2.030E-06,0.016
-2.020E-06,0.008
-2.010E-06,0.004
-2.000E-06,0.004
-1.990E-06,0.004
-1.980E-06,0.004
-1.970E-06,0.008
-1.960E-06,0.004
-1.950E-06,0.008
-1.940E-06,0.008
-1.930E-06,0.008
-1.920E-06,0.004
-1.910E-06,0.012
-1.900E-06,0.008
-1.890E-06,0.012
-1.880E-06,0.012
-1.870E-06,0.012
-1.860E-06,0.016
-1.850E-06,0.012
-1.840E-06,0.020
-1.830E-06,0.012
-1.820E-06,0.008
-1.810E-06,0.004
-1.800E-06,0.004
-1.790E-06,0.004
-1.780E-06,0.012
-1.770E-06,0.016
-1.760E-06,0.012
-1.750E-06,0.012
-1.740E-06,-0.004
-1.730E-06,0.000
-1.720E-06,0.008
-1.710E-06,0.016
-1.700E-06,0.024
-1.690E-06,0.024
-1.680E-06,0.020
-1.670E-06,0.020
-1.660E-06,0.024
-1.650E-06,0.020
-1.640E-06,0.020
-1.630E-06,0.028
-1.620E-06,0.032
-1.610E-06,0.032
-1.600E-06,0.028
-1.590E-06,0.028
-1.580E-06,0.028
-1.570E-06,0.044
-1.560E-06,0.036
-1.550E-06,0.036
-1.540E-06,0.028
-1.530E-06,0.032
-1.520E-06,0.032
-1.510E-06,0.024
-1.500E-06,0.028
-1.490E-06,0.024
-1.480E-06,0.004
-1.470E-06,-0.004
-1.460E-06,-0.024
-1.450E-06,-0.036
-1.440E-06,-0.028
-1.430E-06,-0.008
-1.420E-06,0.028
-1.410E-06,0.028
-1.400E-06,0.028
-1.390E-06,0.016
-1.380E-06,-0.008
-1.370E-06,-0.012
-1.360E-06,-0.008
-1.350E-06,0.024
-1.340E-06,0.044
-1.330E-06,0.072
-1.320E-06,0.076
-1.310E-06,0.068
-1.300E-06,0.052
-1.290E-06,0.020
-1.280E-06,-0.008
-1.270E-06,-0.020
-1.260E-06,-0.020
-1.250E-06,0.000
-1.240E-06,0.028
-1.230E-06,0.052
-1.220E-06,0.076
-1.210E-06,0.092
-1.200E-06,0.068
-1.190E-06,0.032
-1.180E-06,-0.012
-1.170E-06,-0.032
-1.160E-06,-0.040
-1.150E-06,-0.016
-1.140E-06,0.020
-1.130E-06,0.040
-1.120E-06,0.048
-1.110E-06,0.016
-1.100E-06,0.008
-1.090E-06,-0.020
-1.080E-06,-0.008
-1.070E-06,-0.004
-1.060E-06,-0.008
-1.050E-06,-0.068
-1.040E-06,-0.156
-1.030E-06,-0.200
-1.020E-06,-0.164
-1.010E-06,-0.080
-1.000E-06,0.016
-9.900E-07,0.040
-9.800E-07,0.056
-9.700E-07,-0.044
-9.600E-07,-0.108
-9.500E-07,-0.108
-9.400E-07,-0.040
-9.300E-07,0.060
-9.200E-07,0.120
-9.100E-07,0.140
-9.000E-07,0.072
-8.900E-07,-0.012
-8.800E-07,-0.068
-8.700E-07,-0.080
-8.600E-07,-0.132
-8.500E-07,-0.104
-8.400E-07,-0.116
-8.300E-07,-0.040
-8.200E-07,0.004
-8.100E-07,0.036
-8.000E-07,0.056
-7.900E-07,0.032
-7.800E-07,0.008
-7.700E-07,-0.032
-7.600E-07,-0.040
-7.500E-07,-0.012
-7.400E-07,0.020
-7.300E-07,0.028
-7.200E-07,0.016
-7.100E-07,0.000
-7.000E-07,-0.004
-6.900E-07,0.000
-6.800E-07,0.000
-6.700E-07,0.008
-6.600E-07,0.016
-6.500E-07,0.020
-6.400E-07,0.012
-6.300E-07,-0.004
-6.200E-07,0.000
-6.100E-07,0.000
-6.000E-07,-0.004
-5.900E-07,0.012
-5.800E-07,0.012
-5.700E-07,0.008
-5.600E-07,0.008
-5.500E-07,0.000
-5.400E-07,0.000
-5.300E-07,0.000
-5.200E-07,0.008
-5.100E-07,0.008
-5.000E-07,0.016
-4.900E-07,0.020
-4.800E-07,0.020
-4.700E-07,0.020
-4.600E-07,0.024
-4.500E-07,0.028
-4.400E-07,0.028
-4.300E-07,0.028
-4.200E-07,0.040
-4.100E-07,0.052
-4.000E-07,0.060
-3.900E-07,0.060
-3.800E-07,0.056
-3.700E-07,0.060
-3.600E-07,0.056
-3.500E-07,0.060
-3.400E-07,0.068
-3.300E-07,0.084
-3.200E-07,0.088
-3.100E-07,0.088
-3.000E-07,0.088
-2.900E-07,0.088
-2.800E-07,0.080
-2.700E-07,0.080
-2.600E-07,0.080
-2.500E-07,0.088
-2.400E-07,0.096
-2.300E-07,0.108
-2.200E-07,0.120
-2.100E-07,0.124
-2.000E-07,0.124
-1.900E-07,0.120
-1.800E-07,0.112
-1.700E-07,0.096
-1.600E-07,0.088
-1.500E-07,0.068
-1.400E-07,0.068
-1.300E-07,0.056
-1.200E-07,0.056
-1.100E-07,0.056
-1.000E-07,0.056
-9.000E-08,0.028
-8.000E-08,-0.076
-7.000E-08,-0.188
-6.000E-08,-0.408
-5.000E-08,-0.508
-4.000E-08,-0.508
-3.000E-08,-0.420
-2.000E-08,-0.108
-1.000E-08,0.084
0.000E+00,0.284
1.000E-08,0.112
2.000E-08,-0.020
3.000E-08,-0.192
4.000E-08,-0.172
5.000E-08,-0.048
6.000E-08,0.072
7.000E-08,0.136
8.000E-08,0.116
9.000E-08,0.060
1.000E-07,-0.016
1.100E-07,-0.060
1.200E-07,-0.036
1.300E-07,0.000
1.400E-07,0.032
1.500E-07,0.060
1.600E-07,0.060
1.700E-07,0.024
1.800E-07,-0.016
1.900E-07,-0.044
2.000E-07,-0.044
2.100E-07,-0.024
2.200E-07,0.008
2.300E-07,0.028
2.400E-07,0.020
2.500E-07,0.008
2.600E-07,-0.020
2.700E-07,-0.044
2.800E-07,-0.040
2.900E-07,-0.012
3.000E-07,0.004
3.100E-07,0.020
3.200E-07,0.020
3.300E-07,0.012
3.400E-07,-0.008
3.500E-07,-0.020
3.600E-07,-0.024
3.700E-07,-0.016
3.800E-07,0.004
3.900E-07,0.020
4.000E-07,0.032
4.100E-07,0.028
4.200E-07,0.012
4.300E-07,-0.004
4.400E-07,-0.008
4.500E-07,0.004
4.600E-07,0.024
4.700E-07,0.040
4.800E-07,0.044
4.900E-07,0.040
5.000E-07,0.024
5.100E-07,0.024
5.200E-07,0.032
5.300E-07,0.040
5.400E-07,0.064
5.500E-07,0.084
5.600E-07,0.088
5.700E-07,0.092
5.800E-07,0.096
5.900E-07,0.108
6.000E-07,0.124
6.100E-07,0.140
6.200E-07,0.144
6.300E-07,0.136
6.400E-07,0.112
6.500E-07,0.084
6.600E-07,0.060
6.700E-07,0.044
6.800E-07,0.024
6.900E-07,0.000
7.000E-07,-0.020
7.100E-07,-0.024
7.200E-07,-0.040
7.300E-07,-0.044
7.400E-07,-0.060
7.500E-07,-0.092
7.600E-07,-0.092
7.700E-07,-0.092
7.800E-07,-0.060
7.900E-07,-0.024
8.000E-07,0.008
8.100E-07,0.032
8.200E-07,0.028
8.300E-07,-0.004
8.400E-07,-0.020
8.500E-07,-0.024
8.600E-07,-0.004
8.700E-07,0.012
8.800E-07,0.012
8.900E-07,0.012
9.000E-07,0.016
9.100E-07,0.008
9.200E-07,0.008
9.300E-07,0.028
9.400E-07,0.040
9.500E-07,0.056
9.600E-07,0.060
9.700E-07,0.064
9.800E-07,0.076
9.900E-07,0.100
1.000E-06,0.124
1.010E-06,0.128
1.020E-06,0.140
1.030E-06,0.136
1.040E-06,0.124
1.050E-06,0.108
1.060E-06,0.084
1.070E-06,0.048
1.080E-06,0.016
1.090E-06,-0.008
1.100E-06,-0.012
1.110E-06,-0.004
1.120E-06,-0.004
1.130E-06,-0.020
1.140E-06,-0.112
1.150E-06,-0.176
1.160E-06,-0.212
1.170E-06,-0.208
1.180E-06,-0.144
1.190E-06,-0.080
1.200E-06,0.008
1.210E-06,0.036
1.220E-06,0.016
1.230E-06,-0.012
1.240E-06,-0.044
1.250E-06,-0.020
1.260E-06,0.016
1.270E-06,0.052
1.280E-06,0.044
1.290E-06,0.028
1.300E-06,0.004
1.310E-06,-0.012
1.320E-06,-0.008
1.330E-06,0.020
1.340E-06,0.036
1.350E-06,0.056
1.360E-06,0.060
1.370E-06,0.056
1.380E-06,0.068
1.390E-06,0.096
1.400E-06,0.128
1.410E-06,0.156
1.420E-06,0.176
1.430E-06,0.168
1.440E-06,0.164
1.450E-06,0.140
1.460E-06,0.128
1.470E-06,0.100
1.480E-06,0.092
1.490E-06,0.088
1.500E-06,0.092
1.510E-06,0.092
1.520E-06,0.084
1.530E-06,0.060
1.540E-06,0.028
1.550E-06,-0.012
1.560E-06,-0.068
1.570E-06,-0.128
1.580E-06,-0.156
1.590E-06,-0.204
1.600E-06,-0.200
1.610E-06,-0.168
1.620E-06,-0.148
1.630E-06,-0.108
1.640E-06,-0.076
1.650E-06,-0.056
1.660E-06,-0.052
1.670E-06,-0.040
1.680E-06,0.028
1.690E-06,0.076
1.700E-06,0.140
1.710E-06,0.180
1.720E-06,0.152
1.730E-06,0.100
1.740E-06,0.012
1.750E-06,-0.044
1.760E-06,-0.076
1.770E-06,-0.052
1.780E-06,0.000
1.790E-06,0.044
1.800E-06,0.092
1.810E-06,0.092
1.820E-06,0.092
1.830E-06,0.088
1.840E-06,0.104
1.850E-06,0.108
1.860E-06,0.096
1.870E-06,0.100
1.880E-06,0.096
1.890E-06,0.100
1.900E-06,0.112
1.910E-06,0.112
1.920E-06,0.108
1.930E-06,0.080
1.940E-06,0.044
1.950E-06,-0.012
1.960E-06,-0.060
1.970E-06,-0.108
1.980E-06,-0.136
1.990E-06,-0.148
2.000E-06,-0.144
2.010E-06,-0.152
2.020E-06,-0.136
2.030E-06,-0.132
2.040E-06,-0.100
2.050E-06,-0.076
2.060E-06,-0.072
2.070E-06,-0.008
2.080E-06,0.004
2.090E-06,0.096
2.100E-06,0.096
2.110E-06,0.132
2.120E-06,0.120
2.130E-06,0.076
2.140E-06,0.044
2.150E-06,0.012
2.160E-06,0.056
2.170E-06,0.096
2.180E-06,0.156
2.190E-06,0.196
2.200E-06,0.200
2.210E-06,0.156
2.220E-06,0.088
2.230E-06,0.028
2.240E-06,0.000
2.250E-06,-0.004
2.260E-06,-0.008
2.270E-06,-0.020
2.280E-06,-0.056
2.290E-06,-0.112
2.300E-06,-0.168
2.310E-06,-0.212
2.320E-06,-0.220
2.330E-06,-0.172
2.340E-06,-0.136
2.350E-06,-0.096
2.360E-06,-0.100
2.370E-06,-0.120
2.380E-06,-0.132
2.390E-06,-0.152
2.400E-06,-0.148
2.410E-06,-0.136
2.420E-06,-0.072
2.430E-06,-0.016
2.440E-06,0.000
2.450E-06,0.020
2.460E-06,0.020
2.470E-06,0.016
2.480E-06,0.004
2.490E-06,0.012
2.500E-06,0.028
2.510E-06,0.044
2.520E-06,0.072
2.530E-06,0.088
2.540E-06,0.084
2.550E-06,0.072
2.560E-06,0.088
2.570E-06,0.100
2.580E-06,0.120
2.590E-06,0.140
2.600E-06,0.156
2.610E-06,0.168
2.620E-06,0.168
2.630E-06,0.172
2.640E-06,0.160
2.650E-06,0.160
2.660E-06,0.160
2.670E-06,0.160
2.680E-06,0.164
2.690E-06,0.164
2.700E-06,0.160
2.710E-06,0.164
2.720E-06,0.164
2.730E-06,0.160
2.740E-06,0.156
2.750E-06,0.164
2.760E-06,0.164
2.770E-06,0.168
2.780E-06,0.164
2.790E-06,0.156
2.800E-06,0.160
2.810E-06,0.152
2.820E-06,0.152
2.830E-06,0.156
2.840E-06,0.152
2.850E-06,0.156
2.860E-06,0.156
2.870E-06,0.160
2.880E-06,0.156
2.890E-06,0.152
2.900E-06,0.156
2.910E-06,0.156
2.920E-06,0.160
2.930E-06,0.156
2.940E-06,0.156
2.950E-06,0.148
2.960E-06,0.144
2.970E-06,0.128
2.980E-06,0.108
2.990E-06,0.092
3.000E-06,0.080
3.010E-06,0.072
3.020E-06,0.080
3.030E-06,0.108
3.040E-06,0.136
3.050E-06,0.156
3.060E-06,0.164
3.070E-06,0.152
3.080E-06,0.140
3.090E-06,0.136
3.100E-06,0.148
3.110E-06,0.160
3.120E-06,0.172
3.130E-06,0.176
3.140E-06,0.160
3.150E-06,0.152
3.160E-06,0.144
3.170E-06,0.140
3.180E-06,0.140
3.190E-06,0.140
3.200E-06,0.128
3.210E-06,0.124
3.220E-06,0.116
3.230E-06,0.120
3.240E-06,0.120
3.250E-06,0.104
3.260E-06,0.072
3.270E-06,0.044
3.280E-06,0.024
3.290E-06,0.008
3.300E-06,0.024
3.310E-06,0.064
3.320E-06,0.080
