mediciones/Mediciones filtradas (saque las feas)/5-27/-52.5/WaveData50222.csv

#timebase=2000000(ps)
,#voltbase=100000(mv/100)
#size=4000
-8.400E-06,0.012
-8.390E-06,0.008
-8.380E-06,0.012
-8.370E-06,-0.008
-8.360E-06,-0.012
-8.350E-06,0.000
-8.340E-06,0.008
-8.330E-06,0.028
-8.320E-06,0.012
-8.310E-06,0.000
-8.300E-06,0.012
-8.290E-06,0.000
-8.280E-06,0.004
-8.270E-06,0.004
-8.260E-06,-0.020
-8.250E-06,-0.020
-8.240E-06,-0.024
-8.230E-06,0.020
-8.220E-06,0.036
-8.210E-06,0.028
-8.200E-06,0.024
-8.190E-06,0.000
-8.180E-06,-0.036
-8.170E-06,-0.028
-8.160E-06,0.008
-8.150E-06,0.024
-8.140E-06,0.028
-8.130E-06,0.016
-8.120E-06,0.004
-8.110E-06,-0.028
-8.100E-06,-0.012
-8.090E-06,0.000
-8.080E-06,0.020
-8.070E-06,0.008
-8.060E-06,0.012
-8.050E-06,-0.008
-8.040E-06,-0.008
-8.030E-06,0.004
-8.020E-06,0.012
-8.010E-06,0.008
-8.000E-06,0.016
-7.990E-06,0.000
-7.980E-06,-0.008
-7.970E-06,-0.012
-7.960E-06,0.000
-7.950E-06,0.000
-7.940E-06,0.020
-7.930E-06,0.016
-7.920E-06,0.000
-7.910E-06,-0.004
-7.900E-06,-0.016
-7.890E-06,-0.004
-7.880E-06,0.008
-7.870E-06,0.016
-7.860E-06,0.012
-7.850E-06,0.008
-7.840E-06,-0.008
-7.830E-06,-0.004
-7.820E-06,-0.008
-7.810E-06,0.004
-7.800E-06,0.012
-7.790E-06,0.008
-7.780E-06,0.024
-7.770E-06,0.004
-7.760E-06,-0.012
-7.750E-06,-0.004
-7.740E-06,-0.004
-7.730E-06,0.004
-7.720E-06,0.012
-7.710E-06,0.004
-7.700E-06,0.000
-7.690E-06,0.000
-7.680E-06,0.008
-7.670E-06,-0.008
-7.660E-06,0.004
-7.650E-06,0.008
-7.640E-06,-0.004
-7.630E-06,0.004
-7.620E-06,0.024
-7.610E-06,0.028
-7.600E-06,0.036
-7.590E-06,0.024
-7.580E-06,-0.024
-7.570E-06,-0.056
-7.560E-06,-0.076
-7.550E-06,-0.008
-7.540E-06,0.040
-7.530E-06,0.052
-7.520E-06,0.048
-7.510E-06,0.008
-7.500E-06,-0.028
-7.490E-06,-0.040
-7.480E-06,-0.012
-7.470E-06,0.004
-7.460E-06,0.024
-7.450E-06,0.028
-7.440E-06,0.004
-7.430E-06,-0.004
-7.420E-06,-0.012
-7.410E-06,-0.008
-7.400E-06,0.012
-7.390E-06,0.016
-7.380E-06,0.012
-7.370E-06,0.000
-7.360E-06,-0.008
-7.350E-06,0.000
-7.340E-06,0.000
-7.330E-06,0.024
-7.320E-06,0.016
-7.310E-06,0.008
-7.300E-06,-0.008
-7.290E-06,-0.020
-7.280E-06,-0.004
-7.270E-06,0.000
-7.260E-06,0.020
-7.250E-06,0.028
-7.240E-06,0.012
-7.230E-06,-0.004
-7.220E-06,-0.004
-7.210E-06,-0.012
-7.200E-06,-0.004
-7.190E-06,0.024
-7.180E-06,0.020
-7.170E-06,0.024
-7.160E-06,-0.008
-7.150E-06,-0.008
-7.140E-06,-0.028
-7.130E-06,-0.004
-7.120E-06,0.008
-7.110E-06,0.024
-7.100E-06,0.024
-7.090E-06,0.008
-7.080E-06,-0.004
-7.070E-06,-0.012
-7.060E-06,0.000
-7.050E-06,0.012
-7.040E-06,0.020
-7.030E-06,0.024
-7.020E-06,0.036
-7.010E-06,0.028
-7.000E-06,0.000
-6.990E-06,-0.008
-6.980E-06,-0.028
-6.970E-06,-0.032
-6.960E-06,-0.004
-6.950E-06,0.004
-6.940E-06,0.036
-6.930E-06,0.024
-6.920E-06,0.000
-6.910E-06,-0.032
-6.900E-06,-0.032
-6.890E-06,0.000
-6.880E-06,0.024
-6.870E-06,0.040
-6.860E-06,0.028
-6.850E-06,-0.004
-6.840E-06,-0.016
-6.830E-06,-0.036
-6.820E-06,-0.016
-6.810E-06,0.008
-6.800E-06,0.028
-6.790E-06,0.028
-6.780E-06,0.004
-6.770E-06,-0.008
-6.760E-06,-0.016
-6.750E-06,-0.008
-6.740E-06,0.008
-6.730E-06,0.024
-6.720E-06,0.012
-6.710E-06,0.000
-6.700E-06,-0.004
-6.690E-06,-0.012
-6.680E-06,-0.004
-6.670E-06,0.008
-6.660E-06,0.012
-6.650E-06,0.016
-6.640E-06,0.008
-6.630E-06,-0.004
-6.620E-06,0.000
-6.610E-06,0.000
-6.600E-06,0.012
-6.590E-06,0.008
-6.580E-06,0.000
-6.570E-06,0.000
-6.560E-06,0.004
-6.550E-06,0.000
-6.540E-06,-0.008
-6.530E-06,0.012
-6.520E-06,0.008
-6.510E-06,0.000
-6.500E-06,0.004
-6.490E-06,0.004
-6.480E-06,-0.004
-6.470E-06,0.008
-6.460E-06,0.012
-6.450E-06,0.008
-6.440E-06,-0.004
-6.430E-06,0.000
-6.420E-06,0.012
-6.410E-06,0.012
-6.400E-06,0.040
-6.390E-06,0.008
-6.380E-06,-0.032
-6.370E-06,-0.032
-6.360E-06,-0.028
-6.350E-06,0.008
-6.340E-06,0.036
-6.330E-06,0.040
-6.320E-06,0.024
-6.310E-06,0.000
-6.300E-06,-0.036
-6.290E-06,-0.032
-6.280E-06,-0.004
-6.270E-06,0.024
-6.260E-06,0.028
-6.250E-06,0.024
-6.240E-06,0.004
-6.230E-06,-0.024
-6.220E-06,-0.008
-6.210E-06,0.000
-6.200E-06,0.012
-6.190E-06,0.016
-6.180E-06,0.016
-6.170E-06,-0.004
-6.160E-06,-0.004
-6.150E-06,0.000
-6.140E-06,-0.004
-6.130E-06,0.012
-6.120E-06,0.016
-6.110E-06,0.024
-6.100E-06,0.004
-6.090E-06,-0.008
-6.080E-06,-0.008
-6.070E-06,-0.004
-6.060E-06,-0.004
-6.050E-06,0.012
-6.040E-06,0.008
-6.030E-06,0.016
-6.020E-06,0.004
-6.010E-06,0.004
-6.000E-06,0.000
-5.990E-06,-0.004
-5.980E-06,-0.004
-5.970E-06,0.004
-5.960E-06,0.016
-5.950E-06,0.012
-5.940E-06,0.000
-5.930E-06,-0.004
-5.920E-06,-0.004
-5.910E-06,-0.004
-5.900E-06,0.004
-5.890E-06,0.012
-5.880E-06,0.008
-5.870E-06,0.004
-5.860E-06,0.000
-5.850E-06,0.008
-5.840E-06,-0.004
-5.830E-06,0.028
-5.820E-06,0.040
-5.810E-06,0.036
-5.800E-06,-0.016
-5.790E-06,-0.020
-5.780E-06,-0.104
-5.770E-06,-0.020
-5.760E-06,0.020
-5.750E-06,0.044
-5.740E-06,0.064
-5.730E-06,0.040
-5.720E-06,-0.008
-5.710E-06,-0.040
-5.700E-06,-0.024
-5.690E-06,-0.008
-5.680E-06,0.016
-5.670E-06,0.028
-5.660E-06,0.016
-5.650E-06,0.028
-5.640E-06,-0.012
-5.630E-06,-0.036
-5.620E-06,-0.020
-5.610E-06,0.012
-5.600E-06,0.024
-5.590E-06,0.032
-5.580E-06,0.020
-5.570E-06,-0.012
-5.560E-06,-0.012
-5.550E-06,0.008
-5.540E-06,-0.004
-5.530E-06,0.008
-5.520E-06,0.020
-5.510E-06,0.000
-5.500E-06,0.000
-5.490E-06,-0.004
-5.480E-06,-0.004
-5.470E-06,0.004
-5.460E-06,0.012
-5.450E-06,0.008
-5.440E-06,0.012
-5.430E-06,0.008
-5.420E-06,0.028
-5.410E-06,0.012
-5.400E-06,0.000
-5.390E-06,-0.008
-5.380E-06,-0.052
-5.370E-06,-0.044
-5.360E-06,-0.008
-5.350E-06,0.024
-5.340E-06,0.044
-5.330E-06,0.056
-5.320E-06,0.016
-5.310E-06,-0.032
-5.300E-06,-0.028
-5.290E-06,-0.024
-5.280E-06,0.000
-5.270E-06,0.048
-5.260E-06,0.036
-5.250E-06,0.040
-5.240E-06,-0.028
-5.230E-06,-0.036
-5.220E-06,-0.036
-5.210E-06,-0.004
-5.200E-06,0.012
-5.190E-06,0.028
-5.180E-06,0.012
-5.170E-06,0.000
-5.160E-06,0.016
-5.150E-06,-0.016
-5.140E-06,-0.012
-5.130E-06,0.000
-5.120E-06,0.000
-5.110E-06,-0.004
-5.100E-06,0.012
-5.090E-06,0.012
-5.080E-06,0.008
-5.070E-06,0.004
-5.060E-06,0.004
-5.050E-06,-0.028
-5.040E-06,-0.004
-5.030E-06,-0.004
-5.020E-06,0.016
-5.010E-06,0.024
-5.000E-06,0.024
-4.990E-06,0.004
-4.980E-06,-0.008
-4.970E-06,-0.012
-4.960E-06,0.000
-4.950E-06,0.012
-4.940E-06,0.032
-4.930E-06,-0.020
-4.920E-06,-0.020
-4.910E-06,-0.008
-4.900E-06,0.008
-4.890E-06,0.016
-4.880E-06,0.028
-4.870E-06,0.012
-4.860E-06,-0.012
-4.850E-06,-0.016
-4.840E-06,-0.004
-4.830E-06,0.000
-4.820E-06,0.012
-4.810E-06,0.024
-4.800E-06,0.004
-4.790E-06,0.004
-4.780E-06,-0.004
-4.770E-06,0.008
-4.760E-06,0.024
-4.750E-06,0.012
-4.740E-06,-0.008
-4.730E-06,-0.020
-4.720E-06,-0.024
-4.710E-06,0.004
-4.700E-06,0.028
-4.690E-06,0.028
-4.680E-06,0.012
-4.670E-06,0.004
-4.660E-06,-0.020
-4.650E-06,-0.028
-4.640E-06,-0.004
-4.630E-06,0.016
-4.620E-06,0.020
-4.610E-06,0.016
-4.600E-06,0.000
-4.590E-06,-0.012
-4.580E-06,-0.008
-4.570E-06,0.000
-4.560E-06,0.012
-4.550E-06,0.020
-4.540E-06,0.024
-4.530E-06,-0.008
-4.520E-06,-0.008
-4.510E-06,-0.008
-4.500E-06,0.000
-4.490E-06,0.004
-4.480E-06,0.016
-4.470E-06,0.008
-4.460E-06,0.004
-4.450E-06,0.004
-4.440E-06,-0.012
-4.430E-06,-0.004
-4.420E-06,0.008
-4.410E-06,0.008
-4.400E-06,0.012
-4.390E-06,0.004
-4.380E-06,-0.008
-4.370E-06,-0.008
-4.360E-06,0.000
-4.350E-06,0.008
-4.340E-06,0.008
-4.330E-06,0.012
-4.320E-06,-0.004
-4.310E-06,-0.004
-4.300E-06,-0.008
-4.290E-06,0.000
-4.280E-06,0.008
-4.270E-06,0.020
-4.260E-06,0.008
-4.250E-06,0.004
-4.240E-06,-0.004
-4.230E-06,-0.008
-4.220E-06,-0.004
-4.210E-06,0.012
-4.200E-06,0.020
-4.190E-06,0.008
-4.180E-06,0.008
-4.170E-06,-0.004
-4.160E-06,-0.012
-4.150E-06,0.000
-4.140E-06,0.012
-4.130E-06,0.016
-4.120E-06,0.016
-4.110E-06,0.000
-4.100E-06,-0.008
-4.090E-06,0.000
-4.080E-06,0.004
-4.070E-06,0.004
-4.060E-06,0.004
-4.050E-06,0.000
-4.040E-06,0.000
-4.030E-06,-0.004
-4.020E-06,0.000
-4.010E-06,0.008
-4.000E-06,0.012
-3.990E-06,0.008
-3.980E-06,0.008
-3.970E-06,-0.004
-3.960E-06,0.000
-3.950E-06,0.004
-3.940E-06,0.008
-3.930E-06,0.004
-3.920E-06,0.004
-3.910E-06,0.000
-3.900E-06,0.000
-3.890E-06,0.004
-3.880E-06,0.008
-3.870E-06,0.008
-3.860E-06,0.008
-3.850E-06,0.008
-3.840E-06,-0.012
-3.830E-06,-0.004
-3.820E-06,0.004
-3.810E-06,0.008
-3.800E-06,0.008
-3.790E-06,0.008
-3.780E-06,0.004
-3.770E-06,-0.004
-3.760E-06,0.000
-3.750E-06,-0.004
-3.740E-06,0.008
-3.730E-06,0.012
-3.720E-06,0.012
-3.710E-06,0.004
-3.700E-06,-0.004
-3.690E-06,-0.004
-3.680E-06,0.000
-3.670E-06,0.008
-3.660E-06,0.008
-3.650E-06,0.000
-3.640E-06,-0.004
-3.630E-06,0.004
-3.620E-06,0.004
-3.610E-06,0.012
-3.600E-06,0.004
-3.590E-06,-0.004
-3.580E-06,0.000
-3.570E-06,0.004
-3.560E-06,0.000
-3.550E-06,0.004
-3.540E-06,0.008
-3.530E-06,0.000
-3.520E-06,0.004
-3.510E-06,0.004
-3.500E-06,0.004
-3.490E-06,0.000
-3.480E-06,0.008
-3.470E-06,0.000
-3.460E-06,0.000
-3.450E-06,0.000
-3.440E-06,0.004
-3.430E-06,0.004
-3.420E-06,0.004
-3.410E-06,0.000
-3.400E-06,0.000
-3.390E-06,0.000
-3.380E-06,0.004
-3.370E-06,0.004
-3.360E-06,0.000
-3.350E-06,0.008
-3.340E-06,0.016
-3.330E-06,0.004
-3.320E-06,-0.004
-3.310E-06,-0.012
-3.300E-06,-0.008
-3.290E-06,0.000
-3.280E-06,0.004
-3.270E-06,-0.004
-3.260E-06,-0.008
-3.250E-06,0.000
-3.240E-06,0.012
-3.230E-06,0.008
-3.220E-06,0.016
-3.210E-06,0.004
-3.200E-06,0.008
-3.190E-06,-0.004
-3.180E-06,-0.004
-3.170E-06,0.000
-3.160E-06,0.004
-3.150E-06,0.012
-3.140E-06,0.024
-3.130E-06,0.016
-3.120E-06,0.016
-3.110E-06,-0.004
-3.100E-06,0.000
-3.090E-06,0.012
-3.080E-06,0.016
-3.070E-06,0.024
-3.060E-06,0.032
-3.050E-06,0.024
-3.040E-06,0.016
-3.030E-06,-0.012
-3.020E-06,-0.052
-3.010E-06,-0.048
-3.000E-06,-0.032
-2.990E-06,0.000
-2.980E-06,0.020
-2.970E-06,0.036
-2.960E-06,0.032
-2.950E-06,0.016
-2.940E-06,0.004
-2.930E-06,-0.004
-2.920E-06,0.004
-2.910E-06,0.000
-2.900E-06,-0.004
-2.890E-06,0.000
-2.880E-06,-0.004
-2.870E-06,0.000
-2.860E-06,0.004
-2.850E-06,0.012
-2.840E-06,0.016
-2.830E-06,0.016
-2.820E-06,-0.004
-2.810E-06,-0.004
-2.800E-06,-0.012
-2.790E-06,0.004
-2.780E-06,0.004
-2.770E-06,0.024
-2.760E-06,0.024
-2.750E-06,0.012
-2.740E-06,0.000
-2.730E-06,-0.012
-2.720E-06,-0.020
-2.710E-06,-0.012
-2.700E-06,-0.004
-2.690E-06,0.016
-2.680E-06,0.012
-2.670E-06,0.008
-2.660E-06,0.000
-2.650E-06,-0.016
-2.640E-06,-0.004
-2.630E-06,0.004
-2.620E-06,0.012
-2.610E-06,0.016
-2.600E-06,0.020
-2.590E-06,-0.008
-2.580E-06,0.000
-2.570E-06,-0.004
-2.560E-06,-0.004
-2.550E-06,0.008
-2.540E-06,0.012
-2.530E-06,0.004
-2.520E-06,-0.004
-2.510E-06,-0.004
-2.500E-06,-0.004
-2.490E-06,0.016
-2.480E-06,0.016
-2.470E-06,0.016
-2.460E-06,0.016
-2.450E-06,-0.020
-2.440E-06,0.000
-2.430E-06,-0.016
-2.420E-06,0.004
-2.410E-06,0.004
-2.400E-06,0.016
-2.390E-06,0.012
-2.380E-06,0.004
-2.370E-06,0.008
-2.360E-06,0.000
-2.350E-06,0.004
-2.340E-06,-0.008
-2.330E-06,0.004
-2.320E-06,0.008
-2.310E-06,0.012
-2.300E-06,0.000
-2.290E-06,0.000
-2.280E-06,0.012
-2.270E-06,0.016
-2.260E-06,0.000
-2.250E-06,-0.004
-2.240E-06,-0.008
-2.230E-06,-0.004
-2.220E-06,0.012
-2.210E-06,0.012
-2.200E-06,0.028
-2.190E-06,0.004
-2.180E-06,0.008
-2.170E-06,0.000
-2.160E-06,-0.004
-2.150E-06,0.000
-2.140E-06,0.008
-2.130E-06,0.004
-2.120E-06,0.012
-2.110E-06,0.008
-2.100E-06,0.012
-2.090E-06,0.004
-2.080E-06,0.012
-2.070E-06,0.008
-2.060E-06,0.012
-2.050E-06,0.004
-2.040E-06,0.012
-2.030E-06,0.000
-2.020E-06,0.012
-2.010E-06,-0.004
-2.000E-06,0.000
-1.990E-06,0.000
-1.980E-06,0.004
-1.970E-06,0.008
-1.960E-06,0.016
-1.950E-06,0.020
-1.940E-06,0.008
-1.930E-06,0.008
-1.920E-06,-0.004
-1.910E-06,0.008
-1.900E-06,0.012
-1.890E-06,0.008
-1.880E-06,0.008
-1.870E-06,0.000
-1.860E-06,0.008
-1.850E-06,0.020
-1.840E-06,0.020
-1.830E-06,0.024
-1.820E-06,0.024
-1.810E-06,0.016
-1.800E-06,0.012
-1.790E-06,0.000
-1.780E-06,0.016
-1.770E-06,0.004
-1.760E-06,0.028
-1.750E-06,0.012
-1.740E-06,0.020
-1.730E-06,0.012
-1.720E-06,0.004
-1.710E-06,-0.028
-1.700E-06,-0.040
-1.690E-06,-0.048
-1.680E-06,-0.040
-1.670E-06,-0.024
-1.660E-06,-0.004
-1.650E-06,0.016
-1.640E-06,0.000
-1.630E-06,0.000
-1.620E-06,-0.008
-1.610E-06,-0.032
-1.600E-06,-0.004
-1.590E-06,-0.008
-1.580E-06,0.012
-1.570E-06,0.000
-1.560E-06,0.012
-1.550E-06,0.008
-1.540E-06,-0.004
-1.530E-06,0.012
-1.520E-06,-0.004
-1.510E-06,-0.004
-1.500E-06,0.012
-1.490E-06,0.008
-1.480E-06,-0.004
-1.470E-06,0.012
-1.460E-06,0.000
-1.450E-06,0.008
-1.440E-06,0.020
-1.430E-06,0.004
-1.420E-06,0.020
-1.410E-06,0.024
-1.400E-06,0.008
-1.390E-06,0.000
-1.380E-06,-0.004
-1.370E-06,-0.004
-1.360E-06,0.000
-1.350E-06,0.000
-1.340E-06,0.008
-1.330E-06,0.008
-1.320E-06,0.008
-1.310E-06,0.012
-1.300E-06,0.016
-1.290E-06,0.004
-1.280E-06,0.008
-1.270E-06,-0.004
-1.260E-06,-0.004
-1.250E-06,0.008
-1.240E-06,0.008
-1.230E-06,0.020
-1.220E-06,0.008
-1.210E-06,0.012
-1.200E-06,0.012
-1.190E-06,0.008
-1.180E-06,0.000
-1.170E-06,0.008
-1.160E-06,0.000
-1.150E-06,0.008
-1.140E-06,0.000
-1.130E-06,0.012
-1.120E-06,0.012
-1.110E-06,0.012
-1.100E-06,0.004
-1.090E-06,0.000
-1.080E-06,0.012
-1.070E-06,0.008
-1.060E-06,0.012
-1.050E-06,0.004
-1.040E-06,0.000
-1.030E-06,-0.004
-1.020E-06,-0.004
-1.010E-06,0.000
-1.000E-06,0.004
-9.900E-07,0.008
-9.800E-07,0.012
-9.700E-07,0.012
-9.600E-07,0.008
-9.500E-07,0.012
-9.400E-07,0.012
-9.300E-07,0.012
-9.200E-07,0.012
-9.100E-07,0.020
-9.000E-07,0.016
-8.900E-07,0.020
-8.800E-07,0.016
-8.700E-07,0.024
-8.600E-07,0.024
-8.500E-07,0.016
-8.400E-07,0.020
-8.300E-07,0.012
-8.200E-07,0.016
-8.100E-07,0.012
-8.000E-07,0.028
-7.900E-07,0.016
-7.800E-07,0.024
-7.700E-07,0.024
-7.600E-07,0.016
-7.500E-07,0.016
-7.400E-07,0.024
-7.300E-07,0.020
-7.200E-07,0.016
-7.100E-07,0.012
-7.000E-07,-0.004
-6.900E-07,-0.020
-6.800E-07,-0.036
-6.700E-07,-0.020
-6.600E-07,-0.012
-6.500E-07,0.000
-6.400E-07,0.000
-6.300E-07,0.000
-6.200E-07,-0.004
-6.100E-07,-0.008
-6.000E-07,-0.008
-5.900E-07,0.000
-5.800E-07,0.012
-5.700E-07,0.008
-5.600E-07,0.012
-5.500E-07,0.012
-5.400E-07,0.008
-5.300E-07,0.016
-5.200E-07,0.024
-5.100E-07,0.040
-5.000E-07,0.040
-4.900E-07,0.036
-4.800E-07,0.024
-4.700E-07,0.028
-4.600E-07,0.032
-4.500E-07,0.028
-4.400E-07,0.040
-4.300E-07,0.044
-4.200E-07,0.048
-4.100E-07,0.040
-4.000E-07,0.040
-3.900E-07,0.044
-3.800E-07,0.036
-3.700E-07,0.036
-3.600E-07,0.036
-3.500E-07,0.036
-3.400E-07,0.040
-3.300E-07,0.044
-3.200E-07,0.044
-3.100E-07,0.036
-3.000E-07,0.040
-2.900E-07,0.040
-2.800E-07,0.048
-2.700E-07,0.052
-2.600E-07,0.072
-2.500E-07,0.068
-2.400E-07,0.072
-2.300E-07,0.064
-2.200E-07,0.072
-2.100E-07,0.064
-2.000E-07,0.064
-1.900E-07,0.096
-1.800E-07,0.104
-1.700E-07,0.128
-1.600E-07,0.116
-1.500E-07,0.124
-1.400E-07,0.096
-1.300E-07,0.092
-1.200E-07,0.060
-1.100E-07,0.124
-1.000E-07,0.132
-9.000E-08,0.164
-8.000E-08,0.128
-7.000E-08,-0.024
-6.000E-08,-0.240
-5.000E-08,-0.508
-4.000E-08,-0.508
-3.000E-08,-0.508
-2.000E-08,-0.480
-1.000E-08,0.056
0.000E+00,0.472
1.000E-08,0.500
2.000E-08,0.260
3.000E-08,-0.136
4.000E-08,-0.384
5.000E-08,-0.396
6.000E-08,-0.156
7.000E-08,0.152
8.000E-08,0.320
9.000E-08,0.352
1.000E-07,0.192
1.100E-07,0.008
1.200E-07,-0.100
1.300E-07,-0.084
1.400E-07,0.016
1.500E-07,0.108
1.600E-07,0.164
1.700E-07,0.144
1.800E-07,0.088
1.900E-07,0.048
2.000E-07,0.020
2.100E-07,0.028
2.200E-07,0.048
2.300E-07,0.032
2.400E-07,0.048
2.500E-07,0.024
2.600E-07,0.012
2.700E-07,-0.012
2.800E-07,-0.024
2.900E-07,-0.036
3.000E-07,-0.048
3.100E-07,-0.052
3.200E-07,-0.060
3.300E-07,-0.064
3.400E-07,-0.040
3.500E-07,-0.036
3.600E-07,-0.008
3.700E-07,-0.012
3.800E-07,0.012
3.900E-07,0.020
4.000E-07,0.024
4.100E-07,0.032
4.200E-07,0.044
4.300E-07,0.056
4.400E-07,0.060
4.500E-07,0.088
4.600E-07,0.100
4.700E-07,0.124
4.800E-07,0.164
4.900E-07,0.176
5.000E-07,0.192
5.100E-07,0.172
5.200E-07,0.144
5.300E-07,0.132
5.400E-07,0.132
5.500E-07,0.144
5.600E-07,0.148
5.700E-07,0.156
5.800E-07,0.140
5.900E-07,0.128
6.000E-07,0.124
6.100E-07,0.076
6.200E-07,0.028
6.300E-07,-0.044
6.400E-07,-0.136
6.500E-07,-0.156
6.600E-07,-0.108
6.700E-07,0.004
6.800E-07,0.080
6.900E-07,0.096
7.000E-07,0.004
7.100E-07,-0.124
7.200E-07,-0.216
7.300E-07,-0.244
7.400E-07,-0.204
7.500E-07,-0.080
7.600E-07,-0.016
7.700E-07,0.008
7.800E-07,-0.040
7.900E-07,-0.084
8.000E-07,-0.096
8.100E-07,-0.076
8.200E-07,0.000
8.300E-07,0.056
8.400E-07,0.104
8.500E-07,0.128
8.600E-07,0.120
8.700E-07,0.128
8.800E-07,0.140
8.900E-07,0.172
9.000E-07,0.196
9.100E-07,0.208
9.200E-07,0.196
9.300E-07,0.156
9.400E-07,0.132
9.500E-07,0.108
9.600E-07,0.124
9.700E-07,0.140
9.800E-07,0.152
9.900E-07,0.160
1.000E-06,0.132
1.010E-06,0.104
1.020E-06,0.064
1.030E-06,0.068
1.040E-06,0.084
1.050E-06,0.096
1.060E-06,0.096
1.070E-06,0.068
1.080E-06,0.016
1.090E-06,-0.040
1.100E-06,-0.056
1.110E-06,-0.068
1.120E-06,0.008
1.130E-06,0.060
1.140E-06,0.140
1.150E-06,0.152
1.160E-06,0.176
1.170E-06,0.172
1.180E-06,0.156
1.190E-06,0.156
1.200E-06,0.148
1.210E-06,0.160
1.220E-06,0.168
1.230E-06,0.172
1.240E-06,0.124
1.250E-06,0.032
1.260E-06,-0.064
1.270E-06,-0.148
1.280E-06,-0.104
1.290E-06,-0.020
1.300E-06,0.128
1.310E-06,0.184
1.320E-06,0.232
1.330E-06,0.240
1.340E-06,-0.024
1.350E-06,0.160
1.360E-06,0.108
1.370E-06,0.332
1.380E-06,-0.060
1.390E-06,0.028
1.400E-06,0.108
1.410E-06,0.100
1.420E-06,0.148
1.430E-06,-0.024
1.440E-06,0.052
1.450E-06,0.056
1.460E-06,0.204
1.470E-06,0.108
1.480E-06,0.136
1.490E-06,0.092
1.500E-06,0.156
1.510E-06,0.144
1.520E-06,0.124
1.530E-06,0.068
1.540E-06,0.016
1.550E-06,0.012
1.560E-06,-0.052
1.570E-06,-0.036
1.580E-06,-0.136
1.590E-06,-0.168
1.600E-06,-0.240
1.610E-06,-0.300
1.620E-06,-0.396
1.630E-06,-0.432
1.640E-06,-0.384
1.650E-06,-0.260
1.660E-06,-0.076
1.670E-06,0.108
1.680E-06,0.224
1.690E-06,0.288
1.700E-06,0.260
1.710E-06,0.196
1.720E-06,0.156
1.730E-06,0.128
1.740E-06,0.164
1.750E-06,0.180
1.760E-06,0.188
1.770E-06,0.188
1.780E-06,0.152
1.790E-06,0.112
1.800E-06,0.072
1.810E-06,0.076
1.820E-06,0.080
1.830E-06,0.104
1.840E-06,0.096
1.850E-06,0.104
1.860E-06,0.092
1.870E-06,0.076
1.880E-06,0.080
1.890E-06,0.092
1.900E-06,0.128
1.910E-06,0.156
1.920E-06,0.188
1.930E-06,0.188
1.940E-06,0.188
1.950E-06,0.176
1.960E-06,0.160
1.970E-06,0.152
1.980E-06,0.144
1.990E-06,0.148
2.000E-06,0.140
2.010E-06,0.140
2.020E-06,0.144
2.030E-06,0.160
2.040E-06,0.168
2.050E-06,0.172
2.060E-06,0.176
2.070E-06,0.168
2.080E-06,0.152
2.090E-06,0.152
2.100E-06,0.160
2.110E-06,0.160
2.120E-06,0.172
2.130E-06,0.168
2.140E-06,0.164
2.150E-06,0.156
2.160E-06,0.140
2.170E-06,0.144
2.180E-06,0.152
2.190E-06,0.160
2.200E-06,0.160
2.210E-06,0.152
2.220E-06,0.148
2.230E-06,0.148
2.240E-06,0.152
2.250E-06,0.156
2.260E-06,0.152
2.270E-06,0.164
2.280E-06,0.168
2.290E-06,0.164
2.300E-06,0.156
2.310E-06,0.156
2.320E-06,0.152
2.330E-06,0.152
2.340E-06,0.148
2.350E-06,0.156
2.360E-06,0.160
2.370E-06,0.160
2.380E-06,0.164
2.390E-06,0.160
2.400E-06,0.164
2.410E-06,0.156
2.420E-06,0.156
2.430E-06,0.160
2.440E-06,0.156
2.450E-06,0.152
2.460E-06,0.156
2.470E-06,0.156
2.480E-06,0.148
2.490E-06,0.148
2.500E-06,0.156
2.510E-06,0.160
2.520E-06,0.148
2.530E-06,0.148
2.540E-06,0.152
2.550E-06,0.152
2.560E-06,0.156
2.570E-06,0.156
2.580E-06,0.160
2.590E-06,0.156
2.600E-06,0.156
2.610E-06,0.160
2.620E-06,0.160
2.630E-06,0.160
2.640E-06,0.160
2.650E-06,0.156
2.660E-06,0.148
2.670E-06,0.144
2.680E-06,0.148
2.690E-06,0.144
2.700E-06,0.152
2.710E-06,0.152
2.720E-06,0.152
2.730E-06,0.152
2.740E-06,0.148
2.750E-06,0.152
2.760E-06,0.152
2.770E-06,0.152
2.780E-06,0.152
2.790E-06,0.148
2.800E-06,0.152
2.810E-06,0.148
2.820E-06,0.148
2.830E-06,0.140
2.840E-06,0.144
2.850E-06,0.140
2.860E-06,0.140
2.870E-06,0.140
2.880E-06,0.140
2.890E-06,0.140
2.900E-06,0.144
2.910E-06,0.140
2.920E-06,0.144
2.930E-06,0.140
2.940E-06,0.144
2.950E-06,0.148
2.960E-06,0.140
2.970E-06,0.136
2.980E-06,0.140
2.990E-06,0.144
3.000E-06,0.140
3.010E-06,0.140
3.020E-06,0.140
3.030E-06,0.140
3.040E-06,0.140
3.050E-06,0.140
3.060E-06,0.140
3.070E-06,0.136
3.080E-06,0.140
3.090E-06,0.144
3.100E-06,0.144
3.110E-06,0.144
3.120E-06,0.136
3.130E-06,0.144
3.140E-06,0.148
3.150E-06,0.156
3.160E-06,0.156
3.170E-06,0.148
3.180E-06,0.144
3.190E-06,0.140
3.200E-06,0.132
3.210E-06,0.140
3.220E-06,0.140
3.230E-06,0.144
3.240E-06,0.144
3.250E-06,0.140
3.260E-06,0.128
3.270E-06,0.124
3.280E-06,0.120
3.290E-06,0.124
3.300E-06,0.124
3.310E-06,0.136
3.320E-06,0.140
3.330E-06,0.144
3.340E-06,0.140
