mediciones/Mediciones filtradas (saque las feas)/5-27/-52.5/WaveData50232.csv

#timebase=2000000(ps)
,#voltbase=100000(mv/100)
#size=4000
-8.400E-06,0.000
-8.390E-06,0.004
-8.380E-06,0.004
-8.370E-06,0.004
-8.360E-06,0.004
-8.350E-06,0.008
-8.340E-06,0.008
-8.330E-06,0.008
-8.320E-06,0.000
-8.310E-06,0.000
-8.300E-06,0.004
-8.290E-06,0.008
-8.280E-06,0.000
-8.270E-06,0.000
-8.260E-06,0.004
-8.250E-06,0.004
-8.240E-06,0.004
-8.230E-06,0.004
-8.220E-06,0.004
-8.210E-06,0.008
-8.200E-06,0.000
-8.190E-06,0.000
-8.180E-06,0.000
-8.170E-06,0.008
-8.160E-06,0.000
-8.150E-06,0.000
-8.140E-06,0.004
-8.130E-06,0.004
-8.120E-06,0.008
-8.110E-06,0.008
-8.100E-06,0.000
-8.090E-06,0.004
-8.080E-06,0.004
-8.070E-06,0.004
-8.060E-06,0.008
-8.050E-06,0.008
-8.040E-06,0.000
-8.030E-06,0.000
-8.020E-06,0.004
-8.010E-06,0.000
-8.000E-06,0.004
-7.990E-06,0.000
-7.980E-06,0.000
-7.970E-06,0.004
-7.960E-06,0.000
-7.950E-06,-0.004
-7.940E-06,0.004
-7.930E-06,0.000
-7.920E-06,0.000
-7.910E-06,0.004
-7.900E-06,0.004
-7.890E-06,0.004
-7.880E-06,0.004
-7.870E-06,0.000
-7.860E-06,0.004
-7.850E-06,0.004
-7.840E-06,0.004
-7.830E-06,0.004
-7.820E-06,0.004
-7.810E-06,0.000
-7.800E-06,0.004
-7.790E-06,0.000
-7.780E-06,0.004
-7.770E-06,0.004
-7.760E-06,0.000
-7.750E-06,0.004
-7.740E-06,0.000
-7.730E-06,0.004
-7.720E-06,0.000
-7.710E-06,0.000
-7.700E-06,-0.004
-7.690E-06,0.004
-7.680E-06,0.008
-7.670E-06,0.000
-7.660E-06,-0.004
-7.650E-06,0.004
-7.640E-06,0.008
-7.630E-06,0.000
-7.620E-06,0.000
-7.610E-06,0.000
-7.600E-06,0.008
-7.590E-06,0.008
-7.580E-06,0.000
-7.570E-06,0.000
-7.560E-06,0.004
-7.550E-06,0.004
-7.540E-06,0.008
-7.530E-06,0.004
-7.520E-06,0.008
-7.510E-06,0.008
-7.500E-06,0.008
-7.490E-06,0.008
-7.480E-06,0.000
-7.470E-06,0.004
-7.460E-06,0.004
-7.450E-06,0.000
-7.440E-06,0.004
-7.430E-06,0.000
-7.420E-06,-0.004
-7.410E-06,0.000
-7.400E-06,0.004
-7.390E-06,0.004
-7.380E-06,0.004
-7.370E-06,0.000
-7.360E-06,0.004
-7.350E-06,0.000
-7.340E-06,0.004
-7.330E-06,0.000
-7.320E-06,0.004
-7.310E-06,0.004
-7.300E-06,0.008
-7.290E-06,-0.004
-7.280E-06,0.004
-7.270E-06,0.004
-7.260E-06,0.004
-7.250E-06,0.004
-7.240E-06,0.004
-7.230E-06,0.000
-7.220E-06,0.000
-7.210E-06,0.004
-7.200E-06,0.004
-7.190E-06,0.004
-7.180E-06,0.004
-7.170E-06,0.004
-7.160E-06,0.004
-7.150E-06,0.004
-7.140E-06,0.004
-7.130E-06,0.000
-7.120E-06,0.004
-7.110E-06,0.008
-7.100E-06,0.008
-7.090E-06,-0.004
-7.080E-06,0.004
-7.070E-06,0.004
-7.060E-06,0.000
-7.050E-06,0.004
-7.040E-06,0.000
-7.030E-06,0.000
-7.020E-06,0.004
-7.010E-06,0.004
-7.000E-06,0.004
-6.990E-06,0.004
-6.980E-06,0.004
-6.970E-06,0.004
-6.960E-06,0.004
-6.950E-06,0.000
-6.940E-06,0.000
-6.930E-06,0.004
-6.920E-06,0.000
-6.910E-06,0.004
-6.900E-06,0.000
-6.890E-06,0.004
-6.880E-06,0.004
-6.870E-06,0.004
-6.860E-06,0.000
-6.850E-06,0.004
-6.840E-06,0.000
-6.830E-06,0.000
-6.820E-06,0.000
-6.810E-06,0.004
-6.800E-06,0.000
-6.790E-06,0.000
-6.780E-06,0.004
-6.770E-06,0.000
-6.760E-06,0.000
-6.750E-06,0.004
-6.740E-06,0.004
-6.730E-06,0.000
-6.720E-06,0.000
-6.710E-06,0.004
-6.700E-06,0.004
-6.690E-06,0.000
-6.680E-06,0.000
-6.670E-06,0.004
-6.660E-06,-0.004
-6.650E-06,0.004
-6.640E-06,0.004
-6.630E-06,0.000
-6.620E-06,0.004
-6.610E-06,0.000
-6.600E-06,-0.004
-6.590E-06,0.004
-6.580E-06,0.004
-6.570E-06,0.000
-6.560E-06,0.004
-6.550E-06,0.008
-6.540E-06,0.000
-6.530E-06,0.000
-6.520E-06,0.004
-6.510E-06,0.008
-6.500E-06,0.000
-6.490E-06,0.000
-6.480E-06,0.000
-6.470E-06,0.000
-6.460E-06,0.000
-6.450E-06,0.004
-6.440E-06,0.004
-6.430E-06,0.000
-6.420E-06,0.000
-6.410E-06,0.004
-6.400E-06,0.016
-6.390E-06,0.044
-6.380E-06,0.076
-6.370E-06,0.088
-6.360E-06,0.068
-6.350E-06,0.008
-6.340E-06,-0.068
-6.330E-06,-0.112
-6.320E-06,-0.108
-6.310E-06,-0.036
-6.300E-06,0.040
-6.290E-06,0.072
-6.280E-06,0.044
-6.270E-06,0.000
-6.260E-06,-0.044
-6.250E-06,-0.044
-6.240E-06,0.008
-6.230E-06,0.052
-6.220E-06,0.072
-6.210E-06,0.056
-6.200E-06,0.008
-6.190E-06,-0.036
-6.180E-06,-0.040
-6.170E-06,-0.028
-6.160E-06,0.000
-6.150E-06,0.024
-6.140E-06,0.028
-6.130E-06,0.012
-6.120E-06,0.008
-6.110E-06,0.008
-6.100E-06,0.016
-6.090E-06,0.024
-6.080E-06,0.020
-6.070E-06,0.008
-6.060E-06,-0.004
-6.050E-06,-0.008
-6.040E-06,-0.008
-6.030E-06,-0.008
-6.020E-06,-0.008
-6.010E-06,-0.004
-6.000E-06,-0.012
-5.990E-06,-0.016
-5.980E-06,0.000
-5.970E-06,0.000
-5.960E-06,0.012
-5.950E-06,0.016
-5.940E-06,0.020
-5.930E-06,0.012
-5.920E-06,0.012
-5.910E-06,0.012
-5.900E-06,0.008
-5.890E-06,0.012
-5.880E-06,0.004
-5.870E-06,-0.004
-5.860E-06,-0.008
-5.850E-06,-0.004
-5.840E-06,0.000
-5.830E-06,0.008
-5.820E-06,0.012
-5.810E-06,0.012
-5.800E-06,0.012
-5.790E-06,0.008
-5.780E-06,0.008
-5.770E-06,0.008
-5.760E-06,0.012
-5.750E-06,0.012
-5.740E-06,0.008
-5.730E-06,-0.004
-5.720E-06,-0.004
-5.710E-06,-0.008
-5.700E-06,-0.008
-5.690E-06,0.008
-5.680E-06,0.012
-5.670E-06,0.004
-5.660E-06,-0.008
-5.650E-06,-0.012
-5.640E-06,0.000
-5.630E-06,0.004
-5.620E-06,0.012
-5.610E-06,0.008
-5.600E-06,0.008
-5.590E-06,0.000
-5.580E-06,-0.004
-5.570E-06,0.004
-5.560E-06,0.012
-5.550E-06,0.016
-5.540E-06,0.008
-5.530E-06,0.000
-5.520E-06,-0.008
-5.510E-06,-0.008
-5.500E-06,-0.004
-5.490E-06,0.000
-5.480E-06,0.008
-5.470E-06,0.008
-5.460E-06,0.000
-5.450E-06,0.000
-5.440E-06,-0.008
-5.430E-06,0.004
-5.420E-06,0.012
-5.410E-06,0.012
-5.400E-06,0.012
-5.390E-06,0.004
-5.380E-06,0.004
-5.370E-06,0.000
-5.360E-06,0.004
-5.350E-06,0.004
-5.340E-06,0.004
-5.330E-06,0.004
-5.320E-06,0.008
-5.310E-06,0.008
-5.300E-06,0.008
-5.290E-06,0.012
-5.280E-06,0.012
-5.270E-06,0.008
-5.260E-06,0.008
-5.250E-06,0.000
-5.240E-06,0.004
-5.230E-06,0.008
-5.220E-06,0.008
-5.210E-06,0.004
-5.200E-06,-0.004
-5.190E-06,0.000
-5.180E-06,0.008
-5.170E-06,0.020
-5.160E-06,0.028
-5.150E-06,0.008
-5.140E-06,-0.020
-5.130E-06,-0.040
-5.120E-06,-0.040
-5.110E-06,-0.008
-5.100E-06,0.024
-5.090E-06,0.044
-5.080E-06,0.032
-5.070E-06,0.000
-5.060E-06,-0.020
-5.050E-06,-0.032
-5.040E-06,-0.012
-5.030E-06,0.004
-5.020E-06,0.020
-5.010E-06,0.012
-5.000E-06,0.004
-4.990E-06,-0.004
-4.980E-06,-0.008
-4.970E-06,0.000
-4.960E-06,0.004
-4.950E-06,0.008
-4.940E-06,0.008
-4.930E-06,0.004
-4.920E-06,0.000
-4.910E-06,0.008
-4.900E-06,0.012
-4.890E-06,0.016
-4.880E-06,0.004
-4.870E-06,0.004
-4.860E-06,-0.004
-4.850E-06,0.000
-4.840E-06,0.000
-4.830E-06,0.008
-4.820E-06,0.008
-4.810E-06,0.004
-4.800E-06,0.004
-4.790E-06,0.000
-4.780E-06,0.000
-4.770E-06,0.008
-4.760E-06,0.012
-4.750E-06,0.008
-4.740E-06,0.004
-4.730E-06,0.008
-4.720E-06,0.012
-4.710E-06,0.012
-4.700E-06,0.016
-4.690E-06,0.008
-4.680E-06,0.012
-4.670E-06,0.008
-4.660E-06,0.004
-4.650E-06,0.004
-4.640E-06,-0.004
-4.630E-06,0.000
-4.620E-06,0.004
-4.610E-06,0.000
-4.600E-06,-0.004
-4.590E-06,-0.004
-4.580E-06,0.004
-4.570E-06,0.012
-4.560E-06,0.008
-4.550E-06,0.012
-4.540E-06,0.012
-4.530E-06,0.012
-4.520E-06,0.008
-4.510E-06,0.008
-4.500E-06,0.012
-4.490E-06,0.012
-4.480E-06,0.016
-4.470E-06,0.020
-4.460E-06,0.016
-4.450E-06,0.020
-4.440E-06,0.020
-4.430E-06,0.032
-4.420E-06,0.040
-4.410E-06,0.044
-4.400E-06,0.028
-4.390E-06,0.020
-4.380E-06,0.004
-4.370E-06,0.012
-4.360E-06,0.008
-4.350E-06,0.004
-4.340E-06,0.000
-4.330E-06,-0.004
-4.320E-06,-0.004
-4.310E-06,0.004
-4.300E-06,0.008
-4.290E-06,0.020
-4.280E-06,0.020
-4.270E-06,0.008
-4.260E-06,-0.008
-4.250E-06,-0.024
-4.240E-06,-0.028
-4.230E-06,-0.008
-4.220E-06,0.004
-4.210E-06,-0.012
-4.200E-06,-0.016
-4.190E-06,-0.032
-4.180E-06,-0.020
-4.170E-06,-0.008
-4.160E-06,0.008
-4.150E-06,0.012
-4.140E-06,-0.004
-4.130E-06,-0.008
-4.120E-06,-0.024
-4.110E-06,-0.020
-4.100E-06,0.000
-4.090E-06,0.012
-4.080E-06,0.012
-4.070E-06,0.008
-4.060E-06,-0.004
-4.050E-06,-0.024
-4.040E-06,-0.016
-4.030E-06,-0.004
-4.020E-06,0.024
-4.010E-06,0.024
-4.000E-06,0.028
-3.990E-06,0.012
-3.980E-06,0.000
-3.970E-06,-0.008
-3.960E-06,-0.004
-3.950E-06,0.012
-3.940E-06,0.024
-3.930E-06,0.028
-3.920E-06,0.024
-3.910E-06,0.012
-3.900E-06,0.004
-3.890E-06,0.012
-3.880E-06,0.020
-3.870E-06,0.024
-3.860E-06,0.024
-3.850E-06,0.012
-3.840E-06,0.008
-3.830E-06,-0.004
-3.820E-06,0.000
-3.810E-06,0.004
-3.800E-06,0.008
-3.790E-06,0.012
-3.780E-06,0.024
-3.770E-06,0.024
-3.760E-06,0.020
-3.750E-06,0.024
-3.740E-06,0.024
-3.730E-06,0.028
-3.720E-06,0.028
-3.710E-06,0.028
-3.700E-06,0.032
-3.690E-06,0.036
-3.680E-06,0.044
-3.670E-06,0.052
-3.660E-06,0.056
-3.650E-06,0.060
-3.640E-06,0.052
-3.630E-06,0.008
-3.620E-06,-0.036
-3.610E-06,-0.072
-3.600E-06,-0.076
-3.590E-06,-0.048
-3.580E-06,-0.028
-3.570E-06,-0.008
-3.560E-06,-0.044
-3.550E-06,-0.052
-3.540E-06,-0.068
-3.530E-06,-0.044
-3.520E-06,-0.028
-3.510E-06,0.000
-3.500E-06,0.012
-3.490E-06,0.008
-3.480E-06,-0.004
-3.470E-06,-0.016
-3.460E-06,-0.004
-3.450E-06,-0.004
-3.440E-06,0.012
-3.430E-06,0.008
-3.420E-06,0.004
-3.410E-06,-0.004
-3.400E-06,-0.004
-3.390E-06,0.000
-3.380E-06,0.008
-3.370E-06,0.012
-3.360E-06,0.016
-3.350E-06,0.024
-3.340E-06,0.016
-3.330E-06,0.024
-3.320E-06,0.020
-3.310E-06,0.012
-3.300E-06,0.012
-3.290E-06,0.004
-3.280E-06,0.024
-3.270E-06,0.028
-3.260E-06,0.012
-3.250E-06,0.028
-3.240E-06,0.004
-3.230E-06,-0.020
-3.220E-06,-0.048
-3.210E-06,-0.048
-3.200E-06,-0.020
-3.190E-06,-0.004
-3.180E-06,0.032
-3.170E-06,0.012
-3.160E-06,0.008
-3.150E-06,-0.004
-3.140E-06,-0.024
-3.130E-06,-0.024
-3.120E-06,-0.016
-3.110E-06,0.008
-3.100E-06,0.004
-3.090E-06,0.000
-3.080E-06,0.000
-3.070E-06,0.000
-3.060E-06,0.000
-3.050E-06,0.000
-3.040E-06,0.004
-3.030E-06,0.012
-3.020E-06,0.020
-3.010E-06,0.012
-3.000E-06,0.008
-2.990E-06,0.000
-2.980E-06,0.004
-2.970E-06,0.004
-2.960E-06,0.016
-2.950E-06,0.024
-2.940E-06,0.024
-2.930E-06,0.024
-2.920E-06,0.028
-2.910E-06,0.020
-2.900E-06,0.016
-2.890E-06,0.016
-2.880E-06,0.024
-2.870E-06,0.028
-2.860E-06,0.044
-2.850E-06,0.044
-2.840E-06,0.052
-2.830E-06,0.052
-2.820E-06,0.044
-2.810E-06,0.044
-2.800E-06,0.056
-2.790E-06,0.060
-2.780E-06,0.068
-2.770E-06,0.072
-2.760E-06,0.076
-2.750E-06,0.072
-2.740E-06,0.072
-2.730E-06,0.064
-2.720E-06,0.056
-2.710E-06,0.048
-2.700E-06,0.052
-2.690E-06,-0.008
-2.680E-06,-0.152
-2.670E-06,-0.284
-2.660E-06,-0.336
-2.650E-06,-0.232
-2.640E-06,-0.052
-2.630E-06,0.124
-2.620E-06,0.176
-2.610E-06,0.104
-2.600E-06,-0.020
-2.590E-06,-0.144
-2.580E-06,-0.168
-2.570E-06,-0.116
-2.560E-06,0.016
-2.550E-06,0.108
-2.540E-06,0.120
-2.530E-06,0.076
-2.520E-06,-0.008
-2.510E-06,-0.056
-2.500E-06,-0.076
-2.490E-06,-0.052
-2.480E-06,0.000
-2.470E-06,0.068
-2.460E-06,0.088
-2.450E-06,0.072
-2.440E-06,0.016
-2.430E-06,-0.024
-2.420E-06,-0.052
-2.410E-06,-0.048
-2.400E-06,0.004
-2.390E-06,0.024
-2.380E-06,0.060
-2.370E-06,0.044
-2.360E-06,0.040
-2.350E-06,0.016
-2.340E-06,-0.012
-2.330E-06,0.008
-2.320E-06,0.028
-2.310E-06,0.028
-2.300E-06,0.020
-2.290E-06,-0.028
-2.280E-06,-0.052
-2.270E-06,-0.072
-2.260E-06,-0.068
-2.250E-06,-0.008
-2.240E-06,0.056
-2.230E-06,0.088
-2.220E-06,0.064
-2.210E-06,0.024
-2.200E-06,-0.036
-2.190E-06,-0.060
-2.180E-06,-0.064
-2.170E-06,-0.032
-2.160E-06,0.020
-2.150E-06,0.048
-2.140E-06,0.048
-2.130E-06,0.028
-2.120E-06,-0.004
-2.110E-06,-0.008
-2.100E-06,-0.004
-2.090E-06,0.012
-2.080E-06,0.040
-2.070E-06,0.064
-2.060E-06,0.080
-2.050E-06,0.076
-2.040E-06,0.076
-2.030E-06,0.080
-2.020E-06,0.076
-2.010E-06,0.084
-2.000E-06,0.092
-1.990E-06,0.088
-1.980E-06,0.064
-1.970E-06,0.028
-1.960E-06,0.008
-1.950E-06,-0.008
-1.940E-06,-0.004
-1.930E-06,0.000
-1.920E-06,0.028
-1.910E-06,0.044
-1.900E-06,0.024
-1.890E-06,-0.040
-1.880E-06,-0.168
-1.870E-06,-0.220
-1.860E-06,-0.172
-1.850E-06,-0.124
-1.840E-06,-0.008
-1.830E-06,0.012
-1.820E-06,-0.008
-1.810E-06,-0.028
-1.800E-06,-0.036
-1.790E-06,-0.012
-1.780E-06,-0.008
-1.770E-06,0.024
-1.760E-06,0.060
-1.750E-06,0.060
-1.740E-06,0.032
-1.730E-06,0.012
-1.720E-06,0.008
-1.710E-06,0.012
-1.700E-06,0.012
-1.690E-06,0.000
-1.680E-06,-0.024
-1.670E-06,-0.060
-1.660E-06,-0.064
-1.650E-06,-0.036
-1.640E-06,-0.012
-1.630E-06,-0.004
-1.620E-06,-0.008
-1.610E-06,0.000
-1.600E-06,0.000
-1.590E-06,0.004
-1.580E-06,0.012
-1.570E-06,0.012
-1.560E-06,0.012
-1.550E-06,0.000
-1.540E-06,-0.012
-1.530E-06,-0.008
-1.520E-06,0.004
-1.510E-06,0.012
-1.500E-06,0.024
-1.490E-06,0.016
-1.480E-06,0.000
-1.470E-06,-0.008
-1.460E-06,-0.012
-1.450E-06,-0.004
-1.440E-06,0.020
-1.430E-06,0.032
-1.420E-06,0.036
-1.410E-06,0.036
-1.400E-06,0.024
-1.390E-06,0.012
-1.380E-06,0.020
-1.370E-06,0.020
-1.360E-06,0.040
-1.350E-06,0.056
-1.340E-06,0.068
-1.330E-06,0.076
-1.320E-06,0.084
-1.310E-06,0.088
-1.300E-06,0.092
-1.290E-06,0.108
-1.280E-06,0.120
-1.270E-06,0.124
-1.260E-06,0.124
-1.250E-06,0.112
-1.240E-06,0.096
-1.230E-06,0.088
-1.220E-06,0.064
-1.210E-06,0.020
-1.200E-06,-0.036
-1.190E-06,-0.064
-1.180E-06,-0.060
-1.170E-06,-0.024
-1.160E-06,-0.008
-1.150E-06,-0.064
-1.140E-06,-0.156
-1.130E-06,-0.228
-1.120E-06,-0.224
-1.110E-06,-0.136
-1.100E-06,-0.032
-1.090E-06,0.096
-1.080E-06,0.120
-1.070E-06,0.084
-1.060E-06,0.000
-1.050E-06,-0.068
-1.040E-06,-0.100
-1.030E-06,-0.020
-1.020E-06,0.040
-1.010E-06,0.108
-1.000E-06,0.124
-9.900E-07,0.096
-9.800E-07,0.056
-9.700E-07,0.036
-9.600E-07,0.056
-9.500E-07,0.028
-9.400E-07,-0.036
-9.300E-07,-0.124
-9.200E-07,-0.240
-9.100E-07,-0.220
-9.000E-07,-0.152
-8.900E-07,-0.024
-8.800E-07,0.092
-8.700E-07,0.136
-8.600E-07,0.108
-8.500E-07,0.008
-8.400E-07,-0.068
-8.300E-07,-0.092
-8.200E-07,-0.052
-8.100E-07,0.004
-8.000E-07,0.048
-7.900E-07,0.064
-7.800E-07,0.036
-7.700E-07,0.012
-7.600E-07,-0.024
-7.500E-07,-0.020
-7.400E-07,0.004
-7.300E-07,0.028
-7.200E-07,0.040
-7.100E-07,0.056
-7.000E-07,0.068
-6.900E-07,0.060
-6.800E-07,0.064
-6.700E-07,0.080
-6.600E-07,0.112
-6.500E-07,0.140
-6.400E-07,0.144
-6.300E-07,0.140
-6.200E-07,0.120
-6.100E-07,0.092
-6.000E-07,0.064
-5.900E-07,0.044
-5.800E-07,0.048
-5.700E-07,0.044
-5.600E-07,0.056
-5.500E-07,0.028
-5.400E-07,-0.064
-5.300E-07,-0.128
-5.200E-07,-0.196
-5.100E-07,-0.216
-5.000E-07,-0.164
-4.900E-07,-0.076
-4.800E-07,-0.008
-4.700E-07,0.044
-4.600E-07,-0.004
-4.500E-07,-0.072
-4.400E-07,-0.136
-4.300E-07,-0.076
-4.200E-07,-0.064
-4.100E-07,0.012
-4.000E-07,0.080
-3.900E-07,0.072
-3.800E-07,0.044
-3.700E-07,-0.012
-3.600E-07,-0.040
-3.500E-07,-0.032
-3.400E-07,0.020
-3.300E-07,0.100
-3.200E-07,0.164
-3.100E-07,0.112
-3.000E-07,0.028
-2.900E-07,-0.112
-2.800E-07,-0.228
-2.700E-07,-0.224
-2.600E-07,-0.128
-2.500E-07,0.000
-2.400E-07,0.100
-2.300E-07,0.124
-2.200E-07,0.092
-2.100E-07,0.004
-2.000E-07,-0.056
-1.900E-07,-0.060
-1.800E-07,0.004
-1.700E-07,0.060
-1.600E-07,0.068
-1.500E-07,0.020
-1.400E-07,-0.052
-1.300E-07,-0.104
-1.200E-07,-0.100
-1.100E-07,-0.060
-1.000E-07,0.028
-9.000E-08,0.088
-8.000E-08,0.116
-7.000E-08,0.096
-6.000E-08,0.056
-5.000E-08,0.024
-4.000E-08,0.024
-3.000E-08,0.064
-2.000E-08,0.132
-1.000E-08,0.180
0.000E+00,0.192
1.000E-08,0.156
2.000E-08,0.108
3.000E-08,0.044
4.000E-08,-0.004
5.000E-08,-0.036
6.000E-08,-0.056
7.000E-08,-0.072
8.000E-08,-0.084
9.000E-08,-0.088
1.000E-07,-0.092
1.100E-07,-0.080
1.200E-07,-0.064
1.300E-07,-0.036
1.400E-07,-0.004
1.500E-07,0.024
1.600E-07,0.052
1.700E-07,0.036
1.800E-07,0.016
1.900E-07,-0.020
2.000E-07,-0.048
2.100E-07,-0.052
2.200E-07,-0.028
2.300E-07,0.012
2.400E-07,0.052
2.500E-07,0.060
2.600E-07,0.056
2.700E-07,0.060
2.800E-07,0.048
2.900E-07,0.060
3.000E-07,0.088
3.100E-07,0.128
3.200E-07,0.168
3.300E-07,0.176
3.400E-07,0.164
3.500E-07,0.132
3.600E-07,0.112
3.700E-07,0.092
3.800E-07,0.084
3.900E-07,0.084
4.000E-07,0.080
4.100E-07,0.056
4.200E-07,0.024
4.300E-07,0.024
4.400E-07,0.012
4.500E-07,0.008
4.600E-07,0.024
4.700E-07,0.036
4.800E-07,0.040
4.900E-07,0.036
5.000E-07,0.036
5.100E-07,0.032
5.200E-07,0.044
5.300E-07,0.072
5.400E-07,0.108
5.500E-07,0.128
5.600E-07,0.144
5.700E-07,0.156
5.800E-07,0.136
5.900E-07,0.128
6.000E-07,0.108
6.100E-07,0.088
6.200E-07,0.044
6.300E-07,-0.020
6.400E-07,-0.084
6.500E-07,-0.152
6.600E-07,-0.208
6.700E-07,-0.220
6.800E-07,-0.184
6.900E-07,-0.084
7.000E-07,0.072
7.100E-07,0.176
7.200E-07,0.248
7.300E-07,0.216
7.400E-07,0.056
7.500E-07,-0.204
7.600E-07,-0.412
7.700E-07,-0.424
7.800E-07,-0.340
7.900E-07,-0.252
8.000E-07,-0.240
8.100E-07,-0.296
8.200E-07,-0.332
8.300E-07,-0.244
8.400E-07,-0.104
8.500E-07,0.068
8.600E-07,0.236
8.700E-07,0.320
8.800E-07,0.184
8.900E-07,0.028
9.000E-07,-0.092
9.100E-07,-0.052
9.200E-07,0.016
9.300E-07,0.108
9.400E-07,0.140
9.500E-07,0.096
9.600E-07,0.000
9.700E-07,-0.108
9.800E-07,-0.136
9.900E-07,-0.100
1.000E-06,-0.044
1.010E-06,0.024
1.020E-06,0.060
1.030E-06,0.068
1.040E-06,0.040
1.050E-06,0.024
1.060E-06,0.020
1.070E-06,0.028
1.080E-06,0.036
1.090E-06,0.056
1.100E-06,0.072
1.110E-06,0.068
1.120E-06,0.040
1.130E-06,0.036
1.140E-06,0.032
1.150E-06,0.056
1.160E-06,0.076
1.170E-06,0.096
1.180E-06,0.116
1.190E-06,0.128
1.200E-06,0.124
1.210E-06,0.124
1.220E-06,0.120
1.230E-06,0.128
1.240E-06,0.136
1.250E-06,0.156
1.260E-06,0.164
1.270E-06,0.160
1.280E-06,0.160
1.290E-06,0.156
1.300E-06,0.164
1.310E-06,0.164
1.320E-06,0.164
1.330E-06,0.160
1.340E-06,0.152
1.350E-06,0.136
1.360E-06,0.140
1.370E-06,0.144
1.380E-06,0.152
1.390E-06,0.152
1.400E-06,0.156
1.410E-06,0.148
1.420E-06,0.144
1.430E-06,0.152
1.440E-06,0.168
1.450E-06,0.176
1.460E-06,0.176
1.470E-06,0.164
1.480E-06,0.144
1.490E-06,0.104
1.500E-06,0.092
1.510E-06,0.092
1.520E-06,0.104
1.530E-06,0.128
1.540E-06,0.136
1.550E-06,0.108
1.560E-06,0.076
1.570E-06,0.024
1.580E-06,-0.004
1.590E-06,0.004
1.600E-06,0.060
1.610E-06,0.144
1.620E-06,0.188
1.630E-06,0.192
1.640E-06,0.100
1.650E-06,-0.068
1.660E-06,-0.284
1.670E-06,-0.484
1.680E-06,-0.512
1.690E-06,-0.512
1.700E-06,-0.480
1.710E-06,-0.308
1.720E-06,-0.124
1.730E-06,0.028
1.740E-06,0.104
1.750E-06,0.120
1.760E-06,0.060
1.770E-06,-0.032
1.780E-06,-0.136
1.790E-06,-0.152
1.800E-06,-0.080
1.810E-06,0.012
1.820E-06,0.088
1.830E-06,0.144
1.840E-06,0.156
1.850E-06,0.144
1.860E-06,0.096
1.870E-06,0.092
1.880E-06,0.120
1.890E-06,0.164
1.900E-06,0.196
1.910E-06,0.212
1.920E-06,0.200
1.930E-06,0.184
1.940E-06,0.152
1.950E-06,0.152
1.960E-06,0.156
1.970E-06,0.168
1.980E-06,0.176
1.990E-06,0.192
2.000E-06,0.192
2.010E-06,0.188
2.020E-06,0.176
2.030E-06,0.160
2.040E-06,0.156
2.050E-06,0.160
2.060E-06,0.160
2.070E-06,0.168
2.080E-06,0.164
2.090E-06,0.168
2.100E-06,0.168
2.110E-06,0.164
2.120E-06,0.168
2.130E-06,0.164
2.140E-06,0.160
2.150E-06,0.164
2.160E-06,0.168
2.170E-06,0.160
2.180E-06,0.160
2.190E-06,0.160
2.200E-06,0.160
2.210E-06,0.160
2.220E-06,0.164
2.230E-06,0.160
2.240E-06,0.156
2.250E-06,0.160
2.260E-06,0.164
2.270E-06,0.156
2.280E-06,0.160
2.290E-06,0.160
2.300E-06,0.164
2.310E-06,0.156
2.320E-06,0.152
2.330E-06,0.140
2.340E-06,0.128
2.350E-06,0.120
2.360E-06,0.112
2.370E-06,0.104
2.380E-06,0.112
2.390E-06,0.112
2.400E-06,0.112
2.410E-06,0.116
2.420E-06,0.128
2.430E-06,0.140
2.440E-06,0.152
2.450E-06,0.156
2.460E-06,0.160
2.470E-06,0.156
2.480E-06,0.160
2.490E-06,0.156
2.500E-06,0.160
2.510E-06,0.172
2.520E-06,0.176
2.530E-06,0.176
2.540E-06,0.168
2.550E-06,0.160
2.560E-06,0.156
2.570E-06,0.160
2.580E-06,0.156
2.590E-06,0.160
2.600E-06,0.168
2.610E-06,0.164
2.620E-06,0.164
2.630E-06,0.164
2.640E-06,0.160
2.650E-06,0.160
2.660E-06,0.160
2.670E-06,0.168
2.680E-06,0.164
2.690E-06,0.168
2.700E-06,0.168
2.710E-06,0.156
2.720E-06,0.152
2.730E-06,0.156
2.740E-06,0.152
2.750E-06,0.156
2.760E-06,0.156
2.770E-06,0.164
2.780E-06,0.160
2.790E-06,0.164
2.800E-06,0.156
2.810E-06,0.152
2.820E-06,0.160
2.830E-06,0.160
2.840E-06,0.160
2.850E-06,0.164
2.860E-06,0.156
2.870E-06,0.156
2.880E-06,0.156
2.890E-06,0.160
2.900E-06,0.160
2.910E-06,0.152
2.920E-06,0.152
2.930E-06,0.156
2.940E-06,0.156
2.950E-06,0.156
2.960E-06,0.160
2.970E-06,0.156
2.980E-06,0.152
2.990E-06,0.156
3.000E-06,0.156
3.010E-06,0.156
3.020E-06,0.156
3.030E-06,0.152
3.040E-06,0.152
3.050E-06,0.152
3.060E-06,0.152
3.070E-06,0.152
3.080E-06,0.152
3.090E-06,0.144
3.100E-06,0.152
3.110E-06,0.148
3.120E-06,0.148
3.130E-06,0.156
3.140E-06,0.144
3.150E-06,0.148
3.160E-06,0.148
3.170E-06,0.148
3.180E-06,0.148
3.190E-06,0.144
3.200E-06,0.144
3.210E-06,0.144
3.220E-06,0.148
3.230E-06,0.140
3.240E-06,0.144
3.250E-06,0.140
3.260E-06,0.144
3.270E-06,0.144
3.280E-06,0.144
3.290E-06,0.144
3.300E-06,0.140
3.310E-06,0.140
3.320E-06,0.140
3.330E-06,0.140
3.340E-06,0.140
3.350E-06,0.140
3.360E-06,0.136
