mediciones/5-27/-50/WaveData50194.csv

#timebase=2000000(ps)
,#voltbase=100000(mv/100)
#size=4000
-8.400E-06,0.008
-8.390E-06,0.000
-8.380E-06,-0.004
-8.370E-06,0.000
-8.360E-06,-0.004
-8.350E-06,0.008
-8.340E-06,0.016
-8.330E-06,0.008
-8.320E-06,0.004
-8.310E-06,-0.008
-8.300E-06,-0.008
-8.290E-06,0.004
-8.280E-06,0.016
-8.270E-06,0.016
-8.260E-06,0.008
-8.250E-06,-0.008
-8.240E-06,-0.024
-8.230E-06,-0.016
-8.220E-06,0.004
-8.210E-06,0.020
-8.200E-06,0.020
-8.190E-06,0.016
-8.180E-06,0.000
-8.170E-06,-0.004
-8.160E-06,-0.020
-8.150E-06,0.000
-8.140E-06,0.008
-8.130E-06,0.020
-8.120E-06,0.012
-8.110E-06,0.004
-8.100E-06,-0.008
-8.090E-06,-0.004
-8.080E-06,-0.004
-8.070E-06,0.008
-8.060E-06,0.012
-8.050E-06,0.008
-8.040E-06,0.004
-8.030E-06,0.000
-8.020E-06,-0.004
-8.010E-06,0.000
-8.000E-06,0.004
-7.990E-06,0.008
-7.980E-06,0.008
-7.970E-06,0.004
-7.960E-06,0.000
-7.950E-06,0.004
-7.940E-06,0.004
-7.930E-06,0.008
-7.920E-06,0.008
-7.910E-06,0.008
-7.900E-06,0.008
-7.890E-06,0.004
-7.880E-06,0.008
-7.870E-06,0.000
-7.860E-06,0.004
-7.850E-06,0.004
-7.840E-06,0.004
-7.830E-06,-0.004
-7.820E-06,0.004
-7.810E-06,0.000
-7.800E-06,0.008
-7.790E-06,0.008
-7.780E-06,0.004
-7.770E-06,0.004
-7.760E-06,0.004
-7.750E-06,0.000
-7.740E-06,0.008
-7.730E-06,0.008
-7.720E-06,0.012
-7.710E-06,0.000
-7.700E-06,0.000
-7.690E-06,0.004
-7.680E-06,0.012
-7.670E-06,0.012
-7.660E-06,0.012
-7.650E-06,0.012
-7.640E-06,0.012
-7.630E-06,0.004
-7.620E-06,0.000
-7.610E-06,0.000
-7.600E-06,0.004
-7.590E-06,-0.004
-7.580E-06,-0.004
-7.570E-06,0.000
-7.560E-06,0.004
-7.550E-06,0.008
-7.540E-06,0.008
-7.530E-06,0.000
-7.520E-06,-0.008
-7.510E-06,-0.008
-7.500E-06,0.000
-7.490E-06,0.008
-7.480E-06,0.028
-7.470E-06,0.024
-7.460E-06,0.008
-7.450E-06,-0.004
-7.440E-06,-0.012
-7.430E-06,-0.004
-7.420E-06,0.008
-7.410E-06,0.016
-7.400E-06,0.016
-7.390E-06,0.000
-7.380E-06,-0.004
-7.370E-06,-0.012
-7.360E-06,-0.008
-7.350E-06,0.004
-7.340E-06,0.012
-7.330E-06,0.012
-7.320E-06,0.008
-7.310E-06,0.004
-7.300E-06,-0.012
-7.290E-06,-0.008
-7.280E-06,0.000
-7.270E-06,0.000
-7.260E-06,0.012
-7.250E-06,0.012
-7.240E-06,0.000
-7.230E-06,0.000
-7.220E-06,-0.004
-7.210E-06,0.000
-7.200E-06,0.004
-7.190E-06,0.004
-7.180E-06,0.008
-7.170E-06,0.000
-7.160E-06,0.004
-7.150E-06,0.004
-7.140E-06,0.004
-7.130E-06,0.004
-7.120E-06,0.008
-7.110E-06,0.012
-7.100E-06,0.008
-7.090E-06,0.008
-7.080E-06,0.000
-7.070E-06,0.004
-7.060E-06,0.004
-7.050E-06,0.004
-7.040E-06,0.004
-7.030E-06,0.008
-7.020E-06,0.004
-7.010E-06,-0.004
-7.000E-06,0.000
-6.990E-06,0.004
-6.980E-06,0.004
-6.970E-06,0.004
-6.960E-06,0.004
-6.950E-06,0.000
-6.940E-06,0.000
-6.930E-06,0.008
-6.920E-06,0.004
-6.910E-06,0.004
-6.900E-06,0.008
-6.890E-06,0.008
-6.880E-06,0.012
-6.870E-06,0.008
-6.860E-06,0.004
-6.850E-06,-0.004
-6.840E-06,-0.004
-6.830E-06,0.012
-6.820E-06,0.016
-6.810E-06,0.020
-6.800E-06,0.016
-6.790E-06,0.012
-6.780E-06,0.000
-6.770E-06,-0.012
-6.760E-06,-0.020
-6.750E-06,-0.012
-6.740E-06,0.004
-6.730E-06,0.020
-6.720E-06,0.020
-6.710E-06,0.016
-6.700E-06,0.012
-6.690E-06,0.004
-6.680E-06,-0.004
-6.670E-06,0.000
-6.660E-06,0.000
-6.650E-06,-0.004
-6.640E-06,-0.008
-6.630E-06,-0.016
-6.620E-06,0.000
-6.610E-06,0.008
-6.600E-06,0.012
-6.590E-06,0.000
-6.580E-06,-0.008
-6.570E-06,-0.012
-6.560E-06,0.000
-6.550E-06,0.008
-6.540E-06,0.024
-6.530E-06,0.024
-6.520E-06,0.008
-6.510E-06,-0.004
-6.500E-06,0.000
-6.490E-06,-0.004
-6.480E-06,0.012
-6.470E-06,0.008
-6.460E-06,0.004
-6.450E-06,0.000
-6.440E-06,-0.004
-6.430E-06,-0.004
-6.420E-06,0.008
-6.410E-06,0.004
-6.400E-06,0.012
-6.390E-06,0.008
-6.380E-06,0.000
-6.370E-06,-0.008
-6.360E-06,-0.008
-6.350E-06,0.000
-6.340E-06,0.012
-6.330E-06,0.012
-6.320E-06,0.008
-6.310E-06,0.000
-6.300E-06,-0.004
-6.290E-06,0.000
-6.280E-06,0.008
-6.270E-06,0.008
-6.260E-06,0.008
-6.250E-06,0.004
-6.240E-06,0.008
-6.230E-06,0.008
-6.220E-06,0.008
-6.210E-06,0.004
-6.200E-06,-0.004
-6.190E-06,0.000
-6.180E-06,-0.004
-6.170E-06,0.000
-6.160E-06,0.008
-6.150E-06,0.008
-6.140E-06,0.004
-6.130E-06,0.000
-6.120E-06,0.000
-6.110E-06,0.000
-6.100E-06,0.004
-6.090E-06,0.008
-6.080E-06,0.012
-6.070E-06,0.000
-6.060E-06,0.004
-6.050E-06,0.004
-6.040E-06,0.004
-6.030E-06,-0.004
-6.020E-06,0.000
-6.010E-06,0.000
-6.000E-06,0.004
-5.990E-06,0.008
-5.980E-06,0.008
-5.970E-06,0.004
-5.960E-06,0.008
-5.950E-06,0.008
-5.940E-06,0.008
-5.930E-06,0.008
-5.920E-06,0.016
-5.910E-06,0.004
-5.900E-06,0.008
-5.890E-06,0.004
-5.880E-06,0.000
-5.870E-06,0.000
-5.860E-06,-0.004
-5.850E-06,-0.004
-5.840E-06,0.000
-5.830E-06,0.004
-5.820E-06,0.000
-5.810E-06,-0.004
-5.800E-06,-0.004
-5.790E-06,0.000
-5.780E-06,0.004
-5.770E-06,0.012
-5.760E-06,0.012
-5.750E-06,0.000
-5.740E-06,-0.004
-5.730E-06,-0.004
-5.720E-06,0.008
-5.710E-06,0.004
-5.700E-06,0.012
-5.690E-06,0.004
-5.680E-06,0.000
-5.670E-06,0.000
-5.660E-06,-0.004
-5.650E-06,0.004
-5.640E-06,0.008
-5.630E-06,0.008
-5.620E-06,0.004
-5.610E-06,0.000
-5.600E-06,-0.008
-5.590E-06,-0.004
-5.580E-06,0.000
-5.570E-06,0.008
-5.560E-06,0.008
-5.550E-06,0.004
-5.540E-06,0.004
-5.530E-06,-0.004
-5.520E-06,-0.004
-5.510E-06,0.000
-5.500E-06,0.004
-5.490E-06,0.008
-5.480E-06,0.008
-5.470E-06,0.008
-5.460E-06,0.008
-5.450E-06,0.008
-5.440E-06,0.012
-5.430E-06,0.012
-5.420E-06,0.004
-5.410E-06,0.004
-5.400E-06,0.000
-5.390E-06,-0.004
-5.380E-06,0.000
-5.370E-06,0.004
-5.360E-06,0.008
-5.350E-06,0.016
-5.340E-06,0.008
-5.330E-06,-0.004
-5.320E-06,0.000
-5.310E-06,0.004
-5.300E-06,0.000
-5.290E-06,0.004
-5.280E-06,0.004
-5.270E-06,0.004
-5.260E-06,0.008
-5.250E-06,0.004
-5.240E-06,0.000
-5.230E-06,0.000
-5.220E-06,0.000
-5.210E-06,0.008
-5.200E-06,0.008
-5.190E-06,0.012
-5.180E-06,0.024
-5.170E-06,0.016
-5.160E-06,0.000
-5.150E-06,-0.004
-5.140E-06,0.004
-5.130E-06,0.000
-5.120E-06,0.012
-5.110E-06,0.012
-5.100E-06,0.012
-5.090E-06,0.004
-5.080E-06,-0.004
-5.070E-06,-0.024
-5.060E-06,-0.012
-5.050E-06,-0.008
-5.040E-06,0.004
-5.030E-06,0.004
-5.020E-06,0.004
-5.010E-06,0.004
-5.000E-06,0.000
-4.990E-06,0.008
-4.980E-06,0.008
-4.970E-06,0.008
-4.960E-06,0.000
-4.950E-06,-0.012
-4.940E-06,-0.012
-4.930E-06,0.004
-4.920E-06,0.004
-4.910E-06,0.012
-4.900E-06,0.020
-4.890E-06,0.008
-4.880E-06,0.008
-4.870E-06,0.008
-4.860E-06,-0.004
-4.850E-06,0.000
-4.840E-06,-0.012
-4.830E-06,-0.008
-4.820E-06,0.000
-4.810E-06,0.004
-4.800E-06,0.008
-4.790E-06,0.000
-4.780E-06,-0.004
-4.770E-06,-0.008
-4.760E-06,0.008
-4.750E-06,0.008
-4.740E-06,0.004
-4.730E-06,-0.004
-4.720E-06,-0.008
-4.710E-06,-0.008
-4.700E-06,0.004
-4.690E-06,0.008
-4.680E-06,0.012
-4.670E-06,0.008
-4.660E-06,0.008
-4.650E-06,-0.008
-4.640E-06,-0.008
-4.630E-06,0.004
-4.620E-06,0.004
-4.610E-06,0.012
-4.600E-06,0.008
-4.590E-06,0.008
-4.580E-06,0.000
-4.570E-06,0.000
-4.560E-06,0.008
-4.550E-06,0.012
-4.540E-06,0.016
-4.530E-06,0.016
-4.520E-06,0.008
-4.510E-06,0.004
-4.500E-06,0.008
-4.490E-06,0.008
-4.480E-06,0.012
-4.470E-06,0.004
-4.460E-06,0.004
-4.450E-06,0.012
-4.440E-06,0.008
-4.430E-06,0.016
-4.420E-06,0.024
-4.410E-06,0.012
-4.400E-06,0.012
-4.390E-06,0.008
-4.380E-06,0.000
-4.370E-06,-0.004
-4.360E-06,-0.020
-4.350E-06,-0.012
-4.340E-06,-0.004
-4.330E-06,0.012
-4.320E-06,0.012
-4.310E-06,0.012
-4.300E-06,0.004
-4.290E-06,0.008
-4.280E-06,0.004
-4.270E-06,0.008
-4.260E-06,0.032
-4.250E-06,0.032
-4.240E-06,0.040
-4.230E-06,0.048
-4.220E-06,0.020
-4.210E-06,-0.008
-4.200E-06,-0.016
-4.190E-06,-0.020
-4.180E-06,-0.020
-4.170E-06,0.004
-4.160E-06,-0.004
-4.150E-06,-0.008
-4.140E-06,-0.020
-4.130E-06,-0.008
-4.120E-06,-0.008
-4.110E-06,0.008
-4.100E-06,0.012
-4.090E-06,0.004
-4.080E-06,0.004
-4.070E-06,-0.004
-4.060E-06,-0.008
-4.050E-06,-0.012
-4.040E-06,0.000
-4.030E-06,0.004
-4.020E-06,0.000
-4.010E-06,0.004
-4.000E-06,-0.004
-3.990E-06,0.000
-3.980E-06,-0.004
-3.970E-06,-0.004
-3.960E-06,0.004
-3.950E-06,0.008
-3.940E-06,0.012
-3.930E-06,0.008
-3.920E-06,0.000
-3.910E-06,0.000
-3.900E-06,-0.004
-3.890E-06,0.000
-3.880E-06,0.008
-3.870E-06,0.008
-3.860E-06,0.008
-3.850E-06,0.004
-3.840E-06,0.000
-3.830E-06,0.000
-3.820E-06,-0.004
-3.810E-06,0.008
-3.800E-06,0.008
-3.790E-06,0.020
-3.780E-06,0.016
-3.770E-06,0.012
-3.760E-06,0.008
-3.750E-06,0.004
-3.740E-06,0.008
-3.730E-06,0.012
-3.720E-06,0.012
-3.710E-06,0.008
-3.700E-06,0.020
-3.690E-06,0.016
-3.680E-06,0.024
-3.670E-06,0.012
-3.660E-06,0.012
-3.650E-06,0.012
-3.640E-06,0.000
-3.630E-06,0.012
-3.620E-06,0.016
-3.610E-06,0.020
-3.600E-06,0.020
-3.590E-06,0.016
-3.580E-06,0.012
-3.570E-06,0.024
-3.560E-06,0.032
-3.550E-06,0.032
-3.540E-06,0.024
-3.530E-06,-0.004
-3.520E-06,-0.028
-3.510E-06,-0.040
-3.500E-06,-0.028
-3.490E-06,-0.004
-3.480E-06,0.004
-3.470E-06,0.008
-3.460E-06,-0.008
-3.450E-06,-0.020
-3.440E-06,-0.020
-3.430E-06,-0.016
-3.420E-06,-0.004
-3.410E-06,0.004
-3.400E-06,0.008
-3.390E-06,0.012
-3.380E-06,0.012
-3.370E-06,0.008
-3.360E-06,0.008
-3.350E-06,0.024
-3.340E-06,0.020
-3.330E-06,0.024
-3.320E-06,0.012
-3.310E-06,0.012
-3.300E-06,0.008
-3.290E-06,0.016
-3.280E-06,0.024
-3.270E-06,0.020
-3.260E-06,0.016
-3.250E-06,0.008
-3.240E-06,-0.004
-3.230E-06,0.000
-3.220E-06,-0.004
-3.210E-06,-0.012
-3.200E-06,-0.012
-3.190E-06,-0.008
-3.180E-06,0.000
-3.170E-06,0.024
-3.160E-06,0.044
-3.150E-06,0.044
-3.140E-06,0.028
-3.130E-06,0.012
-3.120E-06,-0.020
-3.110E-06,-0.016
-3.100E-06,-0.012
-3.090E-06,-0.004
-3.080E-06,0.008
-3.070E-06,0.020
-3.060E-06,0.024
-3.050E-06,0.016
-3.040E-06,0.000
-3.030E-06,0.000
-3.020E-06,0.004
-3.010E-06,0.008
-3.000E-06,0.012
-2.990E-06,0.024
-2.980E-06,0.036
-2.970E-06,0.028
-2.960E-06,0.020
-2.950E-06,0.008
-2.940E-06,0.012
-2.930E-06,0.024
-2.920E-06,0.052
-2.910E-06,0.068
-2.900E-06,0.060
-2.890E-06,0.040
-2.880E-06,0.008
-2.870E-06,-0.012
-2.860E-06,-0.004
-2.850E-06,0.020
-2.840E-06,0.040
-2.830E-06,0.052
-2.820E-06,0.044
-2.810E-06,0.008
-2.800E-06,-0.044
-2.790E-06,-0.068
-2.780E-06,-0.072
-2.770E-06,-0.036
-2.760E-06,0.008
-2.750E-06,0.020
-2.740E-06,0.024
-2.730E-06,0.020
-2.720E-06,-0.004
-2.710E-06,-0.008
-2.700E-06,-0.004
-2.690E-06,-0.004
-2.680E-06,0.016
-2.670E-06,0.024
-2.660E-06,0.052
-2.650E-06,0.064
-2.640E-06,0.088
-2.630E-06,0.096
-2.620E-06,0.092
-2.610E-06,0.060
-2.600E-06,0.024
-2.590E-06,-0.008
-2.580E-06,-0.024
-2.570E-06,-0.040
-2.560E-06,-0.048
-2.550E-06,-0.044
-2.540E-06,-0.036
-2.530E-06,-0.008
-2.520E-06,-0.008
-2.510E-06,-0.012
-2.500E-06,-0.024
-2.490E-06,-0.032
-2.480E-06,-0.028
-2.470E-06,-0.024
-2.460E-06,-0.036
-2.450E-06,-0.024
-2.440E-06,-0.020
-2.430E-06,-0.012
-2.420E-06,-0.004
-2.410E-06,0.004
-2.400E-06,0.000
-2.390E-06,0.000
-2.380E-06,0.012
-2.370E-06,0.020
-2.360E-06,0.052
-2.350E-06,0.076
-2.340E-06,0.092
-2.330E-06,0.096
-2.320E-06,0.068
-2.310E-06,0.032
-2.300E-06,0.004
-2.290E-06,0.004
-2.280E-06,0.008
-2.270E-06,0.032
-2.260E-06,0.056
-2.250E-06,0.064
-2.240E-06,0.072
-2.230E-06,0.068
-2.220E-06,0.068
-2.210E-06,0.080
-2.200E-06,0.096
-2.190E-06,0.080
-2.180E-06,0.032
-2.170E-06,-0.028
-2.160E-06,-0.084
-2.150E-06,-0.100
-2.140E-06,-0.056
-2.130E-06,-0.020
-2.120E-06,0.008
-2.110E-06,0.012
-2.100E-06,-0.016
-2.090E-06,-0.072
-2.080E-06,-0.116
-2.070E-06,-0.136
-2.060E-06,-0.112
-2.050E-06,-0.072
-2.040E-06,-0.008
-2.030E-06,0.020
-2.020E-06,0.036
-2.010E-06,0.028
-2.000E-06,0.008
-1.990E-06,-0.004
-1.980E-06,-0.008
-1.970E-06,-0.004
-1.960E-06,0.008
-1.950E-06,0.008
-1.940E-06,0.008
-1.930E-06,0.012
-1.920E-06,0.012
-1.910E-06,0.016
-1.900E-06,0.028
-1.890E-06,0.060
-1.880E-06,0.064
-1.870E-06,0.084
-1.860E-06,0.080
-1.850E-06,0.076
-1.840E-06,0.072
-1.830E-06,0.088
-1.820E-06,0.096
-1.810E-06,0.096
-1.800E-06,0.096
-1.790E-06,0.072
-1.780E-06,0.040
-1.770E-06,0.000
-1.760E-06,-0.020
-1.750E-06,-0.044
-1.740E-06,-0.036
-1.730E-06,-0.024
-1.720E-06,-0.004
-1.710E-06,0.024
-1.700E-06,0.016
-1.690E-06,0.004
-1.680E-06,-0.004
-1.670E-06,0.000
-1.660E-06,0.024
-1.650E-06,0.072
-1.640E-06,0.124
-1.630E-06,0.148
-1.620E-06,0.148
-1.610E-06,0.124
-1.600E-06,0.056
-1.590E-06,0.004
-1.580E-06,-0.036
-1.570E-06,-0.052
-1.560E-06,-0.028
-1.550E-06,-0.024
-1.540E-06,-0.016
-1.530E-06,-0.036
-1.520E-06,-0.072
-1.510E-06,-0.088
-1.500E-06,-0.088
-1.490E-06,-0.076
-1.480E-06,-0.076
-1.470E-06,-0.064
-1.460E-06,-0.056
-1.450E-06,-0.040
-1.440E-06,-0.028
-1.430E-06,-0.020
-1.420E-06,0.008
-1.410E-06,0.032
-1.400E-06,0.028
-1.390E-06,0.020
-1.380E-06,0.004
-1.370E-06,0.004
-1.360E-06,0.016
-1.350E-06,0.032
-1.340E-06,0.028
-1.330E-06,0.060
-1.320E-06,0.068
-1.310E-06,0.084
-1.300E-06,0.108
-1.290E-06,0.128
-1.280E-06,0.140
-1.270E-06,0.140
-1.260E-06,0.100
-1.250E-06,0.048
-1.240E-06,0.016
-1.230E-06,-0.012
-1.220E-06,0.016
-1.210E-06,0.024
-1.200E-06,0.036
-1.190E-06,0.020
-1.180E-06,-0.004
-1.170E-06,-0.040
-1.160E-06,-0.036
-1.150E-06,-0.024
-1.140E-06,0.020
-1.130E-06,0.036
-1.120E-06,0.040
-1.110E-06,-0.008
-1.100E-06,-0.048
-1.090E-06,-0.060
-1.080E-06,-0.040
-1.070E-06,-0.004
-1.060E-06,0.032
-1.050E-06,0.056
-1.040E-06,0.060
-1.030E-06,0.060
-1.020E-06,0.056
-1.010E-06,0.076
-1.000E-06,0.112
-9.900E-07,0.152
-9.800E-07,0.160
-9.700E-07,0.132
-9.600E-07,0.068
-9.500E-07,0.012
-9.400E-07,-0.028
-9.300E-07,-0.064
-9.200E-07,-0.032
-9.100E-07,0.004
-9.000E-07,0.060
-8.900E-07,0.060
-8.800E-07,0.032
-8.700E-07,-0.044
-8.600E-07,-0.104
-8.500E-07,-0.152
-8.400E-07,-0.188
-8.300E-07,-0.196
-8.200E-07,-0.196
-8.100E-07,-0.160
-8.000E-07,-0.108
-7.900E-07,-0.068
-7.800E-07,-0.064
-7.700E-07,-0.024
-7.600E-07,-0.032
-7.500E-07,-0.008
-7.400E-07,0.008
-7.300E-07,0.040
-7.200E-07,0.124
-7.100E-07,0.148
-7.000E-07,0.172
-6.900E-07,0.160
-6.800E-07,0.140
-6.700E-07,0.108
-6.600E-07,0.112
-6.500E-07,0.120
-6.400E-07,0.136
-6.300E-07,0.144
-6.200E-07,0.128
-6.100E-07,0.116
-6.000E-07,0.112
-5.900E-07,0.104
-5.800E-07,0.104
-5.700E-07,0.104
-5.600E-07,0.088
-5.500E-07,0.072
-5.400E-07,0.020
-5.300E-07,-0.008
-5.200E-07,-0.068
-5.100E-07,-0.100
-5.000E-07,-0.152
-4.900E-07,-0.176
-4.800E-07,-0.164
-4.700E-07,-0.140
-4.600E-07,-0.072
-4.500E-07,-0.028
-4.400E-07,0.044
-4.300E-07,0.088
-4.200E-07,0.124
-4.100E-07,0.136
-4.000E-07,0.140
-3.900E-07,0.108
-3.800E-07,0.072
-3.700E-07,0.036
-3.600E-07,-0.016
-3.500E-07,-0.036
-3.400E-07,-0.048
-3.300E-07,-0.036
-3.200E-07,-0.020
-3.100E-07,-0.004
-3.000E-07,-0.004
-2.900E-07,0.016
-2.800E-07,0.044
-2.700E-07,0.084
-2.600E-07,0.128
-2.500E-07,0.164
-2.400E-07,0.156
-2.300E-07,0.100
-2.200E-07,0.064
-2.100E-07,0.012
-2.000E-07,0.004
-1.900E-07,-0.004
-1.800E-07,-0.008
-1.700E-07,-0.032
-1.600E-07,-0.060
-1.500E-07,-0.096
-1.400E-07,-0.100
-1.300E-07,-0.104
-1.200E-07,-0.096
-1.100E-07,-0.036
-1.000E-07,0.008
-9.000E-08,0.028
-8.000E-08,0.044
-7.000E-08,0.060
-6.000E-08,0.072
-5.000E-08,0.100
-4.000E-08,0.132
-3.000E-08,0.164
-2.000E-08,0.200
-1.000E-08,0.220
0.000E+00,0.220
1.000E-08,0.200
2.000E-08,0.176
3.000E-08,0.144
4.000E-08,0.124
5.000E-08,0.120
6.000E-08,0.120
7.000E-08,0.128
8.000E-08,0.132
9.000E-08,0.136
1.000E-07,0.132
1.100E-07,0.124
1.200E-07,0.112
1.300E-07,0.112
1.400E-07,0.104
1.500E-07,0.092
1.600E-07,0.056
1.700E-07,0.020
1.800E-07,-0.028
1.900E-07,-0.068
2.000E-07,-0.096
2.100E-07,-0.108
2.200E-07,-0.092
2.300E-07,-0.068
2.400E-07,-0.064
2.500E-07,-0.076
2.600E-07,-0.096
2.700E-07,-0.108
2.800E-07,-0.064
2.900E-07,-0.068
3.000E-07,0.016
3.100E-07,0.040
3.200E-07,0.088
3.300E-07,0.096
3.400E-07,0.120
3.500E-07,0.144
3.600E-07,0.156
3.700E-07,0.172
3.800E-07,0.172
3.900E-07,0.180
4.000E-07,0.172
4.100E-07,0.164
4.200E-07,0.156
4.300E-07,0.156
4.400E-07,0.156
4.500E-07,0.164
4.600E-07,0.148
4.700E-07,0.148
4.800E-07,0.136
4.900E-07,0.140
5.000E-07,0.160
5.100E-07,0.164
5.200E-07,0.160
5.300E-07,0.140
5.400E-07,0.124
5.500E-07,0.108
5.600E-07,0.124
5.700E-07,0.140
5.800E-07,0.160
5.900E-07,0.176
6.000E-07,0.172
6.100E-07,0.152
6.200E-07,0.128
6.300E-07,0.120
6.400E-07,0.140
6.500E-07,0.168
6.600E-07,0.180
6.700E-07,0.192
6.800E-07,0.168
6.900E-07,0.156
7.000E-07,0.068
7.100E-07,0.060
7.200E-07,0.032
7.300E-07,0.088
7.400E-07,0.176
7.500E-07,0.220
7.600E-07,0.244
7.700E-07,0.208
7.800E-07,0.144
7.900E-07,0.080
8.000E-07,0.044
8.100E-07,0.064
8.200E-07,0.124
8.300E-07,-0.064
8.400E-07,-0.156
8.500E-07,-0.280
8.600E-07,-0.368
8.700E-07,-0.240
8.800E-07,-0.020
8.900E-07,0.064
9.000E-07,0.176
9.100E-07,0.164
9.200E-07,0.056
9.300E-07,0.052
9.400E-07,0.076
9.500E-07,0.160
9.600E-07,0.232
9.700E-07,0.252
9.800E-07,0.228
9.900E-07,0.168
1.000E-06,0.132
1.010E-06,0.096
1.020E-06,0.140
1.030E-06,0.156
1.040E-06,0.176
1.050E-06,0.188
1.060E-06,0.176
1.070E-06,0.164
1.080E-06,0.152
1.090E-06,0.132
1.100E-06,0.136
1.110E-06,0.152
1.120E-06,0.160
1.130E-06,0.192
1.140E-06,0.192
1.150E-06,0.180
1.160E-06,0.164
1.170E-06,0.160
1.180E-06,0.148
1.190E-06,0.160
1.200E-06,0.164
1.210E-06,0.172
1.220E-06,0.176
1.230E-06,0.164
1.240E-06,0.156
1.250E-06,0.148
1.260E-06,0.152
1.270E-06,0.156
1.280E-06,0.164
1.290E-06,0.176
1.300E-06,0.176
1.310E-06,0.172
1.320E-06,0.164
1.330E-06,0.156
1.340E-06,0.152
1.350E-06,0.156
1.360E-06,0.164
1.370E-06,0.160
1.380E-06,0.160
1.390E-06,0.156
1.400E-06,0.152
1.410E-06,0.148
1.420E-06,0.152
1.430E-06,0.148
1.440E-06,0.156
1.450E-06,0.156
1.460E-06,0.156
1.470E-06,0.156
1.480E-06,0.160
1.490E-06,0.152
1.500E-06,0.152
1.510E-06,0.152
1.520E-06,0.152
1.530E-06,0.152
1.540E-06,0.152
1.550E-06,0.152
1.560E-06,0.152
1.570E-06,0.144
1.580E-06,0.144
1.590E-06,0.148
1.600E-06,0.140
1.610E-06,0.144
1.620E-06,0.152
1.630E-06,0.148
1.640E-06,0.148
1.650E-06,0.148
1.660E-06,0.144
1.670E-06,0.144
1.680E-06,0.148
1.690E-06,0.148
1.700E-06,0.144
1.710E-06,0.148
1.720E-06,0.144
1.730E-06,0.144
1.740E-06,0.140
1.750E-06,0.144
1.760E-06,0.144
1.770E-06,0.148
1.780E-06,0.144
1.790E-06,0.148
1.800E-06,0.148
1.810E-06,0.140
1.820E-06,0.148
1.830E-06,0.148
1.840E-06,0.148
1.850E-06,0.152
1.860E-06,0.152
1.870E-06,0.152
1.880E-06,0.148
1.890E-06,0.148
1.900E-06,0.144
1.910E-06,0.140
1.920E-06,0.140
1.930E-06,0.140
1.940E-06,0.144
1.950E-06,0.136
1.960E-06,0.140
1.970E-06,0.144
1.980E-06,0.140
1.990E-06,0.136
2.000E-06,0.140
2.010E-06,0.136
2.020E-06,0.140
2.030E-06,0.148
2.040E-06,0.140
2.050E-06,0.144
2.060E-06,0.144
2.070E-06,0.140
2.080E-06,0.140
2.090E-06,0.136
2.100E-06,0.144
2.110E-06,0.144
2.120E-06,0.136
2.130E-06,0.136
2.140E-06,0.140
2.150E-06,0.136
2.160E-06,0.140
2.170E-06,0.140
2.180E-06,0.140
2.190E-06,0.140
2.200E-06,0.136
2.210E-06,0.140
2.220E-06,0.136
2.230E-06,0.140
2.240E-06,0.140
2.250E-06,0.132
2.260E-06,0.136
2.270E-06,0.140
2.280E-06,0.136
2.290E-06,0.140
2.300E-06,0.136
2.310E-06,0.136
2.320E-06,0.136
2.330E-06,0.132
2.340E-06,0.132
2.350E-06,0.132
2.360E-06,0.132
2.370E-06,0.132
2.380E-06,0.132
2.390E-06,0.128
2.400E-06,0.128
2.410E-06,0.128
2.420E-06,0.124
2.430E-06,0.128
2.440E-06,0.124
2.450E-06,0.128
2.460E-06,0.128
2.470E-06,0.128
2.480E-06,0.128
2.490E-06,0.128
2.500E-06,0.128
2.510E-06,0.128
2.520E-06,0.128
2.530E-06,0.128
2.540E-06,0.132
2.550E-06,0.132
2.560E-06,0.128
2.570E-06,0.132
2.580E-06,0.124
2.590E-06,0.124
2.600E-06,0.124
2.610E-06,0.124
2.620E-06,0.124
2.630E-06,0.120
2.640E-06,0.124
2.650E-06,0.128
2.660E-06,0.136
2.670E-06,0.144
2.680E-06,0.136
2.690E-06,0.136
2.700E-06,0.132
2.710E-06,0.128
2.720E-06,0.124
2.730E-06,0.124
2.740E-06,0.128
2.750E-06,0.128
2.760E-06,0.128
2.770E-06,0.124
2.780E-06,0.120
2.790E-06,0.120
2.800E-06,0.120
2.810E-06,0.120
2.820E-06,0.124
2.830E-06,0.124
2.840E-06,0.132
2.850E-06,0.124
2.860E-06,0.124
2.870E-06,0.120
2.880E-06,0.112
2.890E-06,0.112
2.900E-06,0.112
2.910E-06,0.112
2.920E-06,0.108
2.930E-06,0.112
2.940E-06,0.112
2.950E-06,0.112
2.960E-06,0.108
2.970E-06,0.112
2.980E-06,0.104
2.990E-06,0.112
3.000E-06,0.116
3.010E-06,0.112
3.020E-06,0.112
3.030E-06,0.112
3.040E-06,0.104
3.050E-06,0.104
3.060E-06,0.108
3.070E-06,0.108
3.080E-06,0.108
3.090E-06,0.104
3.100E-06,0.104
3.110E-06,0.104
3.120E-06,0.100
3.130E-06,0.100
3.140E-06,0.104
3.150E-06,0.104
3.160E-06,0.104
3.170E-06,0.100
3.180E-06,0.100
3.190E-06,0.100
3.200E-06,0.104
3.210E-06,0.100
3.220E-06,0.104
3.230E-06,0.108
3.240E-06,0.104
3.250E-06,0.104
3.260E-06,0.100
3.270E-06,0.104
3.280E-06,0.100
3.290E-06,0.096
3.300E-06,0.104
3.310E-06,0.104
3.320E-06,0.100
3.330E-06,0.104
3.340E-06,0.104
3.350E-06,0.100
3.360E-06,0.096
3.370E-06,0.100
