mediciones/5-27/-50/WaveData50188.csv

#timebase=2000000(ps)
,#voltbase=100000(mv/100)
#size=4000
-8.400E-06,-0.008
-8.390E-06,-0.008
-8.380E-06,-0.008
-8.370E-06,0.012
-8.360E-06,0.004
-8.350E-06,0.008
-8.340E-06,0.000
-8.330E-06,0.000
-8.320E-06,-0.004
-8.310E-06,0.004
-8.300E-06,0.012
-8.290E-06,0.016
-8.280E-06,0.004
-8.270E-06,0.000
-8.260E-06,-0.004
-8.250E-06,-0.004
-8.240E-06,0.000
-8.230E-06,0.008
-8.220E-06,0.008
-8.210E-06,0.004
-8.200E-06,-0.004
-8.190E-06,0.000
-8.180E-06,0.004
-8.170E-06,0.008
-8.160E-06,0.004
-8.150E-06,0.008
-8.140E-06,0.004
-8.130E-06,0.000
-8.120E-06,-0.004
-8.110E-06,0.004
-8.100E-06,0.012
-8.090E-06,0.004
-8.080E-06,0.004
-8.070E-06,0.000
-8.060E-06,0.000
-8.050E-06,0.004
-8.040E-06,-0.004
-8.030E-06,0.004
-8.020E-06,0.008
-8.010E-06,0.008
-8.000E-06,0.004
-7.990E-06,0.004
-7.980E-06,0.000
-7.970E-06,-0.004
-7.960E-06,0.000
-7.950E-06,0.000
-7.940E-06,0.004
-7.930E-06,0.004
-7.920E-06,0.004
-7.910E-06,0.004
-7.900E-06,0.000
-7.890E-06,0.004
-7.880E-06,0.000
-7.870E-06,0.004
-7.860E-06,0.004
-7.850E-06,0.004
-7.840E-06,0.000
-7.830E-06,0.000
-7.820E-06,0.004
-7.810E-06,0.004
-7.800E-06,0.008
-7.790E-06,0.004
-7.780E-06,0.004
-7.770E-06,0.000
-7.760E-06,0.000
-7.750E-06,0.000
-7.740E-06,0.004
-7.730E-06,0.004
-7.720E-06,0.004
-7.710E-06,0.000
-7.700E-06,0.000
-7.690E-06,0.004
-7.680E-06,0.004
-7.670E-06,0.008
-7.660E-06,0.008
-7.650E-06,0.004
-7.640E-06,-0.004
-7.630E-06,0.000
-7.620E-06,0.000
-7.610E-06,-0.004
-7.600E-06,0.008
-7.590E-06,0.008
-7.580E-06,-0.004
-7.570E-06,0.004
-7.560E-06,0.000
-7.550E-06,0.004
-7.540E-06,0.012
-7.530E-06,0.008
-7.520E-06,-0.004
-7.510E-06,0.000
-7.500E-06,0.000
-7.490E-06,0.008
-7.480E-06,0.008
-7.470E-06,0.004
-7.460E-06,0.008
-7.450E-06,0.000
-7.440E-06,0.000
-7.430E-06,0.000
-7.420E-06,0.000
-7.410E-06,0.000
-7.400E-06,0.004
-7.390E-06,0.000
-7.380E-06,0.000
-7.370E-06,-0.004
-7.360E-06,0.000
-7.350E-06,0.008
-7.340E-06,0.004
-7.330E-06,-0.004
-7.320E-06,0.000
-7.310E-06,-0.004
-7.300E-06,0.000
-7.290E-06,0.004
-7.280E-06,0.008
-7.270E-06,0.008
-7.260E-06,0.004
-7.250E-06,0.000
-7.240E-06,0.000
-7.230E-06,0.000
-7.220E-06,0.004
-7.210E-06,0.012
-7.200E-06,0.004
-7.190E-06,0.004
-7.180E-06,0.004
-7.170E-06,0.004
-7.160E-06,0.004
-7.150E-06,0.004
-7.140E-06,-0.008
-7.130E-06,0.000
-7.120E-06,-0.004
-7.110E-06,0.008
-7.100E-06,0.008
-7.090E-06,0.008
-7.080E-06,0.000
-7.070E-06,0.000
-7.060E-06,-0.008
-7.050E-06,-0.004
-7.040E-06,0.004
-7.030E-06,0.012
-7.020E-06,0.004
-7.010E-06,0.000
-7.000E-06,-0.004
-6.990E-06,0.000
-6.980E-06,0.004
-6.970E-06,0.012
-6.960E-06,0.012
-6.950E-06,0.004
-6.940E-06,-0.004
-6.930E-06,0.000
-6.920E-06,0.000
-6.910E-06,0.004
-6.900E-06,0.012
-6.890E-06,0.008
-6.880E-06,0.008
-6.870E-06,-0.008
-6.860E-06,-0.004
-6.850E-06,-0.008
-6.840E-06,-0.004
-6.830E-06,0.000
-6.820E-06,0.004
-6.810E-06,0.008
-6.800E-06,0.008
-6.790E-06,0.004
-6.780E-06,-0.004
-6.770E-06,-0.004
-6.760E-06,-0.004
-6.750E-06,0.004
-6.740E-06,0.008
-6.730E-06,0.016
-6.720E-06,0.012
-6.710E-06,0.008
-6.700E-06,0.000
-6.690E-06,-0.004
-6.680E-06,-0.004
-6.670E-06,0.000
-6.660E-06,0.004
-6.650E-06,0.008
-6.640E-06,0.004
-6.630E-06,0.004
-6.620E-06,0.000
-6.610E-06,0.004
-6.600E-06,0.008
-6.590E-06,0.012
-6.580E-06,0.012
-6.570E-06,0.012
-6.560E-06,0.008
-6.550E-06,0.004
-6.540E-06,0.004
-6.530E-06,0.004
-6.520E-06,0.008
-6.510E-06,0.008
-6.500E-06,0.008
-6.490E-06,0.004
-6.480E-06,0.004
-6.470E-06,0.000
-6.460E-06,0.008
-6.450E-06,0.004
-6.440E-06,0.004
-6.430E-06,0.000
-6.420E-06,-0.004
-6.410E-06,0.004
-6.400E-06,0.012
-6.390E-06,0.008
-6.380E-06,0.004
-6.370E-06,0.000
-6.360E-06,-0.004
-6.350E-06,0.004
-6.340E-06,0.004
-6.330E-06,0.004
-6.320E-06,0.004
-6.310E-06,-0.004
-6.300E-06,-0.008
-6.290E-06,0.000
-6.280E-06,0.008
-6.270E-06,0.008
-6.260E-06,-0.008
-6.250E-06,-0.012
-6.240E-06,-0.016
-6.230E-06,-0.016
-6.220E-06,0.016
-6.210E-06,0.020
-6.200E-06,0.024
-6.190E-06,0.016
-6.180E-06,-0.004
-6.170E-06,-0.024
-6.160E-06,-0.016
-6.150E-06,0.000
-6.140E-06,0.012
-6.130E-06,0.024
-6.120E-06,0.008
-6.110E-06,-0.004
-6.100E-06,-0.008
-6.090E-06,-0.004
-6.080E-06,0.000
-6.070E-06,0.008
-6.060E-06,0.008
-6.050E-06,0.012
-6.040E-06,0.000
-6.030E-06,-0.004
-6.020E-06,0.000
-6.010E-06,0.012
-6.000E-06,0.012
-5.990E-06,0.008
-5.980E-06,-0.004
-5.970E-06,-0.012
-5.960E-06,-0.008
-5.950E-06,0.000
-5.940E-06,0.008
-5.930E-06,0.012
-5.920E-06,0.004
-5.910E-06,-0.004
-5.900E-06,0.000
-5.890E-06,-0.004
-5.880E-06,0.004
-5.870E-06,0.008
-5.860E-06,0.008
-5.850E-06,0.008
-5.840E-06,-0.004
-5.830E-06,-0.004
-5.820E-06,0.004
-5.810E-06,0.016
-5.800E-06,0.008
-5.790E-06,0.008
-5.780E-06,-0.008
-5.770E-06,-0.020
-5.760E-06,-0.008
-5.750E-06,0.012
-5.740E-06,0.028
-5.730E-06,0.012
-5.720E-06,0.004
-5.710E-06,-0.008
-5.700E-06,-0.016
-5.690E-06,-0.008
-5.680E-06,0.004
-5.670E-06,0.012
-5.660E-06,0.020
-5.650E-06,0.008
-5.640E-06,-0.004
-5.630E-06,-0.008
-5.620E-06,-0.004
-5.610E-06,0.004
-5.600E-06,0.012
-5.590E-06,0.012
-5.580E-06,0.000
-5.570E-06,-0.008
-5.560E-06,-0.004
-5.550E-06,0.000
-5.540E-06,0.012
-5.530E-06,0.008
-5.520E-06,0.008
-5.510E-06,0.004
-5.500E-06,0.000
-5.490E-06,-0.004
-5.480E-06,0.000
-5.470E-06,0.012
-5.460E-06,0.008
-5.450E-06,0.008
-5.440E-06,0.000
-5.430E-06,0.000
-5.420E-06,-0.004
-5.410E-06,0.004
-5.400E-06,0.004
-5.390E-06,0.004
-5.380E-06,0.004
-5.370E-06,0.000
-5.360E-06,0.004
-5.350E-06,0.004
-5.340E-06,0.008
-5.330E-06,0.004
-5.320E-06,0.004
-5.310E-06,0.000
-5.300E-06,0.000
-5.290E-06,-0.004
-5.280E-06,0.004
-5.270E-06,0.012
-5.260E-06,0.004
-5.250E-06,0.004
-5.240E-06,0.000
-5.230E-06,0.000
-5.220E-06,0.004
-5.210E-06,0.000
-5.200E-06,0.000
-5.190E-06,0.000
-5.180E-06,0.000
-5.170E-06,0.000
-5.160E-06,0.008
-5.150E-06,0.004
-5.140E-06,0.008
-5.130E-06,0.004
-5.120E-06,0.000
-5.110E-06,-0.004
-5.100E-06,-0.004
-5.090E-06,0.008
-5.080E-06,0.008
-5.070E-06,0.008
-5.060E-06,0.008
-5.050E-06,0.008
-5.040E-06,-0.004
-5.030E-06,0.000
-5.020E-06,0.004
-5.010E-06,0.004
-5.000E-06,0.004
-4.990E-06,0.000
-4.980E-06,0.000
-4.970E-06,0.000
-4.960E-06,0.000
-4.950E-06,0.004
-4.940E-06,0.004
-4.930E-06,0.004
-4.920E-06,0.004
-4.910E-06,-0.004
-4.900E-06,-0.004
-4.890E-06,0.000
-4.880E-06,-0.004
-4.870E-06,0.004
-4.860E-06,0.008
-4.850E-06,0.008
-4.840E-06,0.004
-4.830E-06,0.000
-4.820E-06,0.004
-4.810E-06,-0.004
-4.800E-06,0.004
-4.790E-06,0.008
-4.780E-06,0.004
-4.770E-06,0.000
-4.760E-06,-0.004
-4.750E-06,-0.008
-4.740E-06,0.004
-4.730E-06,0.020
-4.720E-06,0.024
-4.710E-06,0.008
-4.700E-06,-0.008
-4.690E-06,-0.016
-4.680E-06,-0.004
-4.670E-06,0.000
-4.660E-06,0.012
-4.650E-06,0.016
-4.640E-06,0.012
-4.630E-06,0.000
-4.620E-06,-0.004
-4.610E-06,-0.008
-4.600E-06,-0.004
-4.590E-06,0.008
-4.580E-06,0.016
-4.570E-06,0.012
-4.560E-06,0.008
-4.550E-06,-0.004
-4.540E-06,-0.008
-4.530E-06,-0.008
-4.520E-06,0.000
-4.510E-06,0.004
-4.500E-06,0.012
-4.490E-06,0.016
-4.480E-06,0.000
-4.470E-06,-0.004
-4.460E-06,-0.012
-4.450E-06,-0.012
-4.440E-06,0.008
-4.430E-06,0.008
-4.420E-06,0.012
-4.410E-06,0.004
-4.400E-06,0.000
-4.390E-06,-0.004
-4.380E-06,-0.004
-4.370E-06,0.004
-4.360E-06,0.012
-4.350E-06,0.012
-4.340E-06,0.008
-4.330E-06,0.000
-4.320E-06,-0.004
-4.310E-06,0.004
-4.300E-06,0.008
-4.290E-06,0.004
-4.280E-06,0.008
-4.270E-06,0.000
-4.260E-06,0.000
-4.250E-06,0.000
-4.240E-06,-0.004
-4.230E-06,0.004
-4.220E-06,0.012
-4.210E-06,0.008
-4.200E-06,0.004
-4.190E-06,0.004
-4.180E-06,-0.008
-4.170E-06,-0.004
-4.160E-06,0.000
-4.150E-06,0.008
-4.140E-06,0.008
-4.130E-06,0.004
-4.120E-06,0.004
-4.110E-06,0.000
-4.100E-06,0.004
-4.090E-06,0.008
-4.080E-06,0.004
-4.070E-06,0.004
-4.060E-06,0.004
-4.050E-06,0.004
-4.040E-06,0.008
-4.030E-06,0.004
-4.020E-06,0.008
-4.010E-06,0.004
-4.000E-06,-0.020
-3.990E-06,-0.004
-3.980E-06,-0.004
-3.970E-06,0.000
-3.960E-06,0.016
-3.950E-06,0.012
-3.940E-06,0.008
-3.930E-06,0.004
-3.920E-06,-0.004
-3.910E-06,-0.004
-3.900E-06,-0.004
-3.890E-06,0.004
-3.880E-06,0.008
-3.870E-06,0.004
-3.860E-06,0.000
-3.850E-06,0.000
-3.840E-06,-0.004
-3.830E-06,0.000
-3.820E-06,0.004
-3.810E-06,0.004
-3.800E-06,0.004
-3.790E-06,0.000
-3.780E-06,0.000
-3.770E-06,-0.004
-3.760E-06,0.000
-3.750E-06,0.000
-3.740E-06,0.004
-3.730E-06,0.008
-3.720E-06,0.008
-3.710E-06,0.000
-3.700E-06,0.000
-3.690E-06,0.000
-3.680E-06,0.000
-3.670E-06,0.004
-3.660E-06,0.008
-3.650E-06,0.008
-3.640E-06,0.012
-3.630E-06,0.008
-3.620E-06,-0.004
-3.610E-06,0.000
-3.600E-06,-0.004
-3.590E-06,-0.004
-3.580E-06,0.000
-3.570E-06,0.004
-3.560E-06,0.004
-3.550E-06,0.004
-3.540E-06,-0.004
-3.530E-06,-0.004
-3.520E-06,0.000
-3.510E-06,0.000
-3.500E-06,0.000
-3.490E-06,0.004
-3.480E-06,0.000
-3.470E-06,0.004
-3.460E-06,0.004
-3.450E-06,0.004
-3.440E-06,0.004
-3.430E-06,0.004
-3.420E-06,0.000
-3.410E-06,0.004
-3.400E-06,0.004
-3.390E-06,0.004
-3.380E-06,0.004
-3.370E-06,0.004
-3.360E-06,0.004
-3.350E-06,0.004
-3.340E-06,0.004
-3.330E-06,0.004
-3.320E-06,0.004
-3.310E-06,0.000
-3.300E-06,0.004
-3.290E-06,0.012
-3.280E-06,0.004
-3.270E-06,0.012
-3.260E-06,0.008
-3.250E-06,0.012
-3.240E-06,0.000
-3.230E-06,0.000
-3.220E-06,-0.008
-3.210E-06,0.000
-3.200E-06,0.004
-3.190E-06,0.012
-3.180E-06,0.012
-3.170E-06,0.008
-3.160E-06,-0.008
-3.150E-06,-0.012
-3.140E-06,0.000
-3.130E-06,0.004
-3.120E-06,0.012
-3.110E-06,0.008
-3.100E-06,0.004
-3.090E-06,0.000
-3.080E-06,-0.004
-3.070E-06,0.000
-3.060E-06,0.000
-3.050E-06,-0.004
-3.040E-06,0.000
-3.030E-06,0.000
-3.020E-06,0.000
-3.010E-06,0.004
-3.000E-06,0.008
-2.990E-06,-0.004
-2.980E-06,0.000
-2.970E-06,0.004
-2.960E-06,0.000
-2.950E-06,0.004
-2.940E-06,0.008
-2.930E-06,0.008
-2.920E-06,0.004
-2.910E-06,0.004
-2.900E-06,-0.004
-2.890E-06,0.000
-2.880E-06,0.008
-2.870E-06,0.008
-2.860E-06,0.000
-2.850E-06,0.000
-2.840E-06,0.000
-2.830E-06,0.000
-2.820E-06,0.004
-2.810E-06,0.008
-2.800E-06,0.008
-2.790E-06,0.000
-2.780E-06,0.000
-2.770E-06,0.004
-2.760E-06,0.004
-2.750E-06,0.000
-2.740E-06,0.004
-2.730E-06,0.004
-2.720E-06,0.008
-2.710E-06,0.004
-2.700E-06,0.004
-2.690E-06,0.008
-2.680E-06,0.008
-2.670E-06,0.004
-2.660E-06,0.008
-2.650E-06,0.004
-2.640E-06,0.004
-2.630E-06,0.004
-2.620E-06,0.004
-2.610E-06,0.008
-2.600E-06,0.012
-2.590E-06,0.016
-2.580E-06,0.000
-2.570E-06,0.000
-2.560E-06,-0.004
-2.550E-06,-0.012
-2.540E-06,-0.004
-2.530E-06,0.000
-2.520E-06,0.004
-2.510E-06,0.008
-2.500E-06,0.012
-2.490E-06,0.000
-2.480E-06,-0.004
-2.470E-06,-0.004
-2.460E-06,0.000
-2.450E-06,0.008
-2.440E-06,0.012
-2.430E-06,0.016
-2.420E-06,0.000
-2.410E-06,-0.008
-2.400E-06,-0.004
-2.390E-06,0.000
-2.380E-06,0.008
-2.370E-06,0.012
-2.360E-06,0.016
-2.350E-06,0.004
-2.340E-06,0.000
-2.330E-06,0.004
-2.320E-06,0.004
-2.310E-06,0.000
-2.300E-06,0.008
-2.290E-06,0.008
-2.280E-06,0.008
-2.270E-06,0.004
-2.260E-06,-0.004
-2.250E-06,-0.008
-2.240E-06,-0.004
-2.230E-06,-0.004
-2.220E-06,0.000
-2.210E-06,-0.008
-2.200E-06,-0.008
-2.190E-06,0.000
-2.180E-06,0.012
-2.170E-06,0.020
-2.160E-06,0.012
-2.150E-06,0.000
-2.140E-06,0.000
-2.130E-06,0.008
-2.120E-06,0.020
-2.110E-06,0.016
-2.100E-06,0.004
-2.090E-06,-0.016
-2.080E-06,-0.008
-2.070E-06,0.000
-2.060E-06,0.024
-2.050E-06,0.032
-2.040E-06,0.028
-2.030E-06,0.008
-2.020E-06,-0.012
-2.010E-06,-0.020
-2.000E-06,-0.008
-1.990E-06,0.008
-1.980E-06,0.024
-1.970E-06,0.020
-1.960E-06,0.012
-1.950E-06,-0.004
-1.940E-06,-0.008
-1.930E-06,-0.004
-1.920E-06,0.008
-1.910E-06,0.020
-1.900E-06,0.028
-1.890E-06,0.020
-1.880E-06,0.008
-1.870E-06,0.004
-1.860E-06,0.000
-1.850E-06,0.008
-1.840E-06,0.008
-1.830E-06,0.004
-1.820E-06,0.004
-1.810E-06,0.008
-1.800E-06,0.024
-1.790E-06,0.020
-1.780E-06,0.028
-1.770E-06,0.016
-1.760E-06,0.000
-1.750E-06,-0.024
-1.740E-06,-0.020
-1.730E-06,0.008
-1.720E-06,0.000
-1.710E-06,0.012
-1.700E-06,-0.012
-1.690E-06,-0.024
-1.680E-06,-0.020
-1.670E-06,-0.004
-1.660E-06,0.004
-1.650E-06,0.012
-1.640E-06,0.016
-1.630E-06,0.004
-1.620E-06,0.000
-1.610E-06,-0.004
-1.600E-06,-0.008
-1.590E-06,0.000
-1.580E-06,-0.004
-1.570E-06,0.008
-1.560E-06,0.004
-1.550E-06,0.004
-1.540E-06,0.008
-1.530E-06,0.004
-1.520E-06,0.004
-1.510E-06,0.008
-1.500E-06,0.008
-1.490E-06,0.004
-1.480E-06,0.008
-1.470E-06,0.004
-1.460E-06,0.004
-1.450E-06,0.008
-1.440E-06,0.008
-1.430E-06,0.008
-1.420E-06,0.012
-1.410E-06,0.012
-1.400E-06,0.008
-1.390E-06,0.008
-1.380E-06,0.008
-1.370E-06,0.008
-1.360E-06,0.024
-1.350E-06,0.020
-1.340E-06,0.016
-1.330E-06,0.008
-1.320E-06,0.008
-1.310E-06,0.012
-1.300E-06,0.032
-1.290E-06,0.044
-1.280E-06,0.036
-1.270E-06,0.020
-1.260E-06,0.004
-1.250E-06,-0.004
-1.240E-06,-0.008
-1.230E-06,-0.024
-1.220E-06,-0.028
-1.210E-06,-0.028
-1.200E-06,-0.004
-1.190E-06,0.012
-1.180E-06,0.036
-1.170E-06,0.032
-1.160E-06,0.024
-1.150E-06,0.024
-1.140E-06,-0.008
-1.130E-06,-0.004
-1.120E-06,-0.028
-1.110E-06,-0.032
-1.100E-06,-0.040
-1.090E-06,-0.004
-1.080E-06,0.004
-1.070E-06,0.024
-1.060E-06,0.020
-1.050E-06,-0.024
-1.040E-06,-0.028
-1.030E-06,-0.060
-1.020E-06,0.004
-1.010E-06,0.016
-1.000E-06,0.028
-9.900E-07,0.008
-9.800E-07,-0.012
-9.700E-07,-0.028
-9.600E-07,-0.012
-9.500E-07,0.024
-9.400E-07,0.032
-9.300E-07,0.016
-9.200E-07,-0.008
-9.100E-07,-0.024
-9.000E-07,-0.020
-8.900E-07,0.016
-8.800E-07,0.052
-8.700E-07,0.060
-8.600E-07,0.044
-8.500E-07,0.016
-8.400E-07,0.004
-8.300E-07,0.028
-8.200E-07,0.076
-8.100E-07,0.100
-8.000E-07,0.044
-7.900E-07,-0.044
-7.800E-07,-0.124
-7.700E-07,-0.148
-7.600E-07,-0.076
-7.500E-07,0.032
-7.400E-07,0.100
-7.300E-07,0.124
-7.200E-07,0.080
-7.100E-07,0.024
-7.000E-07,-0.004
-6.900E-07,0.028
-6.800E-07,0.096
-6.700E-07,0.144
-6.600E-07,0.152
-6.500E-07,0.100
-6.400E-07,0.020
-6.300E-07,-0.056
-6.200E-07,-0.096
-6.100E-07,-0.104
-6.000E-07,-0.080
-5.900E-07,-0.040
-5.800E-07,0.012
-5.700E-07,0.048
-5.600E-07,0.068
-5.500E-07,0.056
-5.400E-07,0.028
-5.300E-07,0.000
-5.200E-07,-0.016
-5.100E-07,-0.012
-5.000E-07,0.000
-4.900E-07,0.012
-4.800E-07,0.028
-4.700E-07,0.016
-4.600E-07,0.012
-4.500E-07,0.012
-4.400E-07,0.008
-4.300E-07,0.012
-4.200E-07,0.008
-4.100E-07,0.008
-4.000E-07,0.008
-3.900E-07,0.004
-3.800E-07,0.004
-3.700E-07,0.012
-3.600E-07,0.012
-3.500E-07,0.016
-3.400E-07,0.024
-3.300E-07,0.012
-3.200E-07,0.012
-3.100E-07,0.012
-3.000E-07,0.028
-2.900E-07,0.052
-2.800E-07,0.076
-2.700E-07,0.088
-2.600E-07,0.100
-2.500E-07,0.092
-2.400E-07,0.076
-2.300E-07,0.068
-2.200E-07,0.056
-2.100E-07,0.040
-2.000E-07,0.032
-1.900E-07,0.016
-1.800E-07,0.004
-1.700E-07,-0.012
-1.600E-07,-0.008
-1.500E-07,0.008
-1.400E-07,0.040
-1.300E-07,0.056
-1.200E-07,0.072
-1.100E-07,0.072
-1.000E-07,0.068
-9.000E-08,0.076
-8.000E-08,0.060
-7.000E-08,0.064
-6.000E-08,-0.048
-5.000E-08,-0.392
-4.000E-08,-0.508
-3.000E-08,-0.512
-2.000E-08,-0.304
-1.000E-08,0.196
0.000E+00,0.536
1.000E-08,0.440
2.000E-08,0.176
3.000E-08,-0.308
4.000E-08,-0.512
5.000E-08,-0.500
6.000E-08,-0.096
7.000E-08,0.256
8.000E-08,0.360
9.000E-08,0.208
1.000E-07,-0.048
1.100E-07,-0.176
1.200E-07,-0.144
1.300E-07,-0.024
1.400E-07,0.044
1.500E-07,0.064
1.600E-07,0.036
1.700E-07,-0.020
1.800E-07,-0.036
1.900E-07,-0.004
2.000E-07,0.012
2.100E-07,0.016
2.200E-07,0.020
2.300E-07,0.000
2.400E-07,-0.020
2.500E-07,-0.004
2.600E-07,0.012
2.700E-07,0.016
2.800E-07,0.016
2.900E-07,0.004
3.000E-07,-0.012
3.100E-07,-0.008
3.200E-07,-0.008
3.300E-07,0.016
3.400E-07,0.020
3.500E-07,0.020
3.600E-07,0.020
3.700E-07,0.016
3.800E-07,0.016
3.900E-07,0.024
4.000E-07,0.036
4.100E-07,0.048
4.200E-07,0.060
4.300E-07,0.072
4.400E-07,0.096
4.500E-07,0.128
4.600E-07,0.152
4.700E-07,0.152
4.800E-07,0.128
4.900E-07,0.088
5.000E-07,0.040
5.100E-07,0.008
5.200E-07,0.000
5.300E-07,0.016
5.400E-07,0.028
5.500E-07,0.044
5.600E-07,0.040
5.700E-07,0.020
5.800E-07,-0.008
5.900E-07,-0.008
6.000E-07,-0.020
6.100E-07,-0.008
6.200E-07,0.000
6.300E-07,-0.004
6.400E-07,0.012
6.500E-07,0.020
6.600E-07,0.044
6.700E-07,0.072
6.800E-07,0.084
6.900E-07,0.092
7.000E-07,0.040
7.100E-07,-0.024
7.200E-07,-0.076
7.300E-07,-0.108
7.400E-07,-0.048
7.500E-07,0.032
7.600E-07,0.140
7.700E-07,0.180
7.800E-07,0.160
7.900E-07,0.060
8.000E-07,-0.040
8.100E-07,-0.076
8.200E-07,-0.036
8.300E-07,0.068
8.400E-07,0.136
8.500E-07,0.160
8.600E-07,0.088
8.700E-07,0.008
8.800E-07,-0.072
8.900E-07,-0.092
9.000E-07,-0.024
9.100E-07,0.076
9.200E-07,0.176
9.300E-07,0.188
9.400E-07,0.124
9.500E-07,0.036
9.600E-07,-0.132
9.700E-07,-0.256
9.800E-07,-0.300
9.900E-07,-0.216
1.000E-06,-0.076
1.010E-06,0.084
1.020E-06,0.180
1.030E-06,0.172
1.040E-06,0.112
1.050E-06,0.052
1.060E-06,-0.020
1.070E-06,-0.048
1.080E-06,-0.036
1.090E-06,-0.040
1.100E-06,-0.064
1.110E-06,-0.072
1.120E-06,-0.128
1.130E-06,-0.164
1.140E-06,-0.144
1.150E-06,-0.104
1.160E-06,0.004
1.170E-06,0.092
1.180E-06,0.132
1.190E-06,0.096
1.200E-06,0.012
1.210E-06,-0.080
1.220E-06,-0.100
1.230E-06,-0.096
1.240E-06,-0.044
1.250E-06,-0.012
1.260E-06,0.016
1.270E-06,-0.008
1.280E-06,-0.032
1.290E-06,-0.060
1.300E-06,-0.040
1.310E-06,-0.004
1.320E-06,0.036
1.330E-06,0.064
1.340E-06,0.068
1.350E-06,0.036
1.360E-06,0.012
1.370E-06,0.012
1.380E-06,0.032
1.390E-06,0.064
1.400E-06,0.088
1.410E-06,0.120
1.420E-06,0.144
1.430E-06,0.152
1.440E-06,0.144
1.450E-06,0.128
1.460E-06,0.096
1.470E-06,0.092
1.480E-06,0.104
1.490E-06,0.128
1.500E-06,0.164
1.510E-06,0.180
1.520E-06,0.172
1.530E-06,0.148
1.540E-06,0.128
1.550E-06,0.108
1.560E-06,0.120
1.570E-06,0.144
1.580E-06,0.164
1.590E-06,0.184
1.600E-06,0.176
1.610E-06,0.152
1.620E-06,0.124
1.630E-06,0.120
1.640E-06,0.128
1.650E-06,0.168
1.660E-06,0.184
1.670E-06,0.108
1.680E-06,-0.032
1.690E-06,-0.152
1.700E-06,-0.192
1.710E-06,-0.108
1.720E-06,0.108
1.730E-06,0.260
1.740E-06,0.352
1.750E-06,0.272
1.760E-06,0.096
1.770E-06,-0.136
1.780E-06,-0.308
1.790E-06,-0.404
1.800E-06,-0.348
1.810E-06,-0.156
1.820E-06,-0.208
1.830E-06,0.052
1.840E-06,-0.196
1.850E-06,-0.104
1.860E-06,-0.300
1.870E-06,-0.256
1.880E-06,-0.256
1.890E-06,-0.168
1.900E-06,-0.176
1.910E-06,-0.224
1.920E-06,-0.204
1.930E-06,-0.188
1.940E-06,-0.088
1.950E-06,-0.040
1.960E-06,0.016
1.970E-06,-0.008
1.980E-06,0.024
1.990E-06,0.012
2.000E-06,0.028
2.010E-06,0.044
2.020E-06,0.056
2.030E-06,0.060
2.040E-06,0.056
2.050E-06,0.072
2.060E-06,0.088
2.070E-06,0.108
2.080E-06,0.128
2.090E-06,0.144
2.100E-06,0.152
2.110E-06,0.176
2.120E-06,0.180
2.130E-06,0.188
2.140E-06,0.168
2.150E-06,0.156
2.160E-06,0.144
2.170E-06,0.144
2.180E-06,0.152
2.190E-06,0.168
2.200E-06,0.184
2.210E-06,0.188
2.220E-06,0.184
2.230E-06,0.184
2.240E-06,0.176
2.250E-06,0.176
2.260E-06,0.176
2.270E-06,0.172
2.280E-06,0.172
2.290E-06,0.176
2.300E-06,0.172
2.310E-06,0.164
2.320E-06,0.164
2.330E-06,0.168
2.340E-06,0.172
2.350E-06,0.168
2.360E-06,0.164
2.370E-06,0.164
2.380E-06,0.160
2.390E-06,0.164
2.400E-06,0.164
2.410E-06,0.160
2.420E-06,0.160
2.430E-06,0.168
2.440E-06,0.168
2.450E-06,0.164
2.460E-06,0.168
2.470E-06,0.168
2.480E-06,0.168
2.490E-06,0.160
2.500E-06,0.156
2.510E-06,0.156
2.520E-06,0.160
2.530E-06,0.160
2.540E-06,0.152
2.550E-06,0.148
2.560E-06,0.144
2.570E-06,0.136
2.580E-06,0.132
2.590E-06,0.128
2.600E-06,0.128
2.610E-06,0.128
2.620E-06,0.132
2.630E-06,0.128
2.640E-06,0.132
2.650E-06,0.140
2.660E-06,0.140
2.670E-06,0.144
2.680E-06,0.148
2.690E-06,0.152
2.700E-06,0.160
2.710E-06,0.156
2.720E-06,0.156
2.730E-06,0.156
2.740E-06,0.160
2.750E-06,0.152
2.760E-06,0.152
2.770E-06,0.160
2.780E-06,0.156
2.790E-06,0.164
2.800E-06,0.168
2.810E-06,0.164
2.820E-06,0.168
2.830E-06,0.164
2.840E-06,0.164
2.850E-06,0.168
2.860E-06,0.164
2.870E-06,0.168
2.880E-06,0.164
2.890E-06,0.160
2.900E-06,0.168
2.910E-06,0.164
2.920E-06,0.164
2.930E-06,0.160
2.940E-06,0.164
2.950E-06,0.168
2.960E-06,0.160
2.970E-06,0.160
2.980E-06,0.164
2.990E-06,0.160
3.000E-06,0.160
3.010E-06,0.164
3.020E-06,0.156
3.030E-06,0.160
3.040E-06,0.164
3.050E-06,0.172
3.060E-06,0.180
3.070E-06,0.180
3.080E-06,0.184
3.090E-06,0.180
3.100E-06,0.172
3.110E-06,0.168
3.120E-06,0.172
3.130E-06,0.164
3.140E-06,0.160
3.150E-06,0.160
3.160E-06,0.164
3.170E-06,0.156
3.180E-06,0.156
3.190E-06,0.156
3.200E-06,0.156
3.210E-06,0.160
3.220E-06,0.156
3.230E-06,0.156
3.240E-06,0.160
3.250E-06,0.160
3.260E-06,0.160
3.270E-06,0.156
3.280E-06,0.156
3.290E-06,0.152
3.300E-06,0.160
3.310E-06,0.156
3.320E-06,0.152
3.330E-06,0.156
3.340E-06,0.152
3.350E-06,0.156
3.360E-06,0.160
