mediciones/5-27/-50/WaveData50205.csv

#timebase=2000000(ps)
,#voltbase=1000000(mv/100)
#size=4000
-8.400E-06,0.000
-8.390E-06,-0.040
-8.380E-06,0.000
-8.370E-06,0.040
-8.360E-06,-0.040
-8.350E-06,0.080
-8.340E-06,0.080
-8.330E-06,0.080
-8.320E-06,0.120
-8.310E-06,0.200
-8.300E-06,0.120
-8.290E-06,0.200
-8.280E-06,0.120
-8.270E-06,0.120
-8.260E-06,0.120
-8.250E-06,0.160
-8.240E-06,0.160
-8.230E-06,0.200
-8.220E-06,0.120
-8.210E-06,0.080
-8.200E-06,0.080
-8.190E-06,0.080
-8.180E-06,0.120
-8.170E-06,0.080
-8.160E-06,0.040
-8.150E-06,0.000
-8.140E-06,-0.080
-8.130E-06,-0.080
-8.120E-06,-0.080
-8.110E-06,-0.080
-8.100E-06,-0.160
-8.090E-06,-0.200
-8.080E-06,-0.320
-8.070E-06,-0.360
-8.060E-06,-0.320
-8.050E-06,-0.280
-8.040E-06,-0.320
-8.030E-06,-0.320
-8.020E-06,-0.320
-8.010E-06,-0.320
-8.000E-06,-0.360
-7.990E-06,-0.360
-7.980E-06,-0.280
-7.970E-06,-0.280
-7.960E-06,-0.200
-7.950E-06,-0.160
-7.940E-06,-0.160
-7.930E-06,-0.120
-7.920E-06,-0.040
-7.910E-06,-0.080
-7.900E-06,-0.040
-7.890E-06,0.000
-7.880E-06,0.000
-7.870E-06,0.040
-7.860E-06,0.080
-7.850E-06,0.080
-7.840E-06,0.040
-7.830E-06,0.040
-7.820E-06,0.080
-7.810E-06,0.080
-7.800E-06,0.080
-7.790E-06,0.160
-7.780E-06,0.200
-7.770E-06,0.120
-7.760E-06,0.160
-7.750E-06,0.120
-7.740E-06,0.200
-7.730E-06,0.120
-7.720E-06,0.120
-7.710E-06,0.200
-7.700E-06,0.240
-7.690E-06,0.160
-7.680E-06,0.240
-7.670E-06,0.160
-7.660E-06,0.120
-7.650E-06,0.200
-7.640E-06,0.120
-7.630E-06,0.200
-7.620E-06,0.080
-7.610E-06,0.000
-7.600E-06,0.040
-7.590E-06,0.000
-7.580E-06,0.040
-7.570E-06,0.120
-7.560E-06,0.040
-7.550E-06,0.160
-7.540E-06,0.040
-7.530E-06,-0.040
-7.520E-06,0.000
-7.510E-06,0.000
-7.500E-06,0.000
-7.490E-06,0.000
-7.480E-06,-0.040
-7.470E-06,0.000
-7.460E-06,-0.040
-7.450E-06,0.040
-7.440E-06,0.000
-7.430E-06,0.000
-7.420E-06,-0.160
-7.410E-06,-0.160
-7.400E-06,-0.240
-7.390E-06,-0.200
-7.380E-06,-0.040
-7.370E-06,0.000
-7.360E-06,-0.040
-7.350E-06,-0.080
-7.340E-06,-0.160
-7.330E-06,-0.080
-7.320E-06,0.000
-7.310E-06,0.080
-7.300E-06,0.160
-7.290E-06,0.160
-7.280E-06,0.120
-7.270E-06,0.040
-7.260E-06,0.000
-7.250E-06,0.000
-7.240E-06,0.000
-7.230E-06,-0.040
-7.220E-06,0.000
-7.210E-06,0.000
-7.200E-06,-0.040
-7.190E-06,-0.160
-7.180E-06,-0.200
-7.170E-06,-0.200
-7.160E-06,-0.280
-7.150E-06,-0.240
-7.140E-06,-0.200
-7.130E-06,-0.240
-7.120E-06,-0.240
-7.110E-06,-0.240
-7.100E-06,-0.280
-7.090E-06,-0.280
-7.080E-06,-0.320
-7.070E-06,-0.240
-7.060E-06,-0.120
-7.050E-06,-0.160
-7.040E-06,-0.160
-7.030E-06,-0.120
-7.020E-06,-0.080
-7.010E-06,-0.080
-7.000E-06,-0.120
-6.990E-06,-0.080
-6.980E-06,0.000
-6.970E-06,0.000
-6.960E-06,0.000
-6.950E-06,0.040
-6.940E-06,-0.040
-6.930E-06,0.000
-6.920E-06,0.000
-6.910E-06,0.000
-6.900E-06,-0.040
-6.890E-06,0.000
-6.880E-06,0.000
-6.870E-06,0.000
-6.860E-06,0.000
-6.850E-06,0.000
-6.840E-06,0.000
-6.830E-06,-0.080
-6.820E-06,-0.040
-6.810E-06,-0.040
-6.800E-06,-0.040
-6.790E-06,0.000
-6.780E-06,0.000
-6.770E-06,0.160
-6.760E-06,0.120
-6.750E-06,0.120
-6.740E-06,0.120
-6.730E-06,0.040
-6.720E-06,0.000
-6.710E-06,0.000
-6.700E-06,0.280
-6.690E-06,0.080
-6.680E-06,0.000
-6.670E-06,0.040
-6.660E-06,-0.080
-6.650E-06,0.160
-6.640E-06,0.320
-6.630E-06,0.360
-6.620E-06,0.360
-6.610E-06,0.160
-6.600E-06,0.040
-6.590E-06,0.080
-6.580E-06,0.200
-6.570E-06,0.200
-6.560E-06,0.240
-6.550E-06,0.120
-6.540E-06,0.040
-6.530E-06,-0.120
-6.520E-06,-0.080
-6.510E-06,-0.080
-6.500E-06,-0.200
-6.490E-06,-0.240
-6.480E-06,-0.320
-6.470E-06,-0.520
-6.460E-06,-0.480
-6.450E-06,-0.600
-6.440E-06,-0.680
-6.430E-06,-0.600
-6.420E-06,-0.640
-6.410E-06,-0.680
-6.400E-06,-0.560
-6.390E-06,-0.640
-6.380E-06,-0.600
-6.370E-06,-0.480
-6.360E-06,-0.400
-6.350E-06,-0.280
-6.340E-06,-0.200
-6.330E-06,-0.160
-6.320E-06,0.000
-6.310E-06,0.040
-6.300E-06,0.200
-6.290E-06,0.240
-6.280E-06,0.320
-6.270E-06,0.360
-6.260E-06,0.400
-6.250E-06,0.400
-6.240E-06,0.320
-6.230E-06,0.360
-6.220E-06,0.360
-6.210E-06,0.400
-6.200E-06,0.520
-6.190E-06,0.520
-6.180E-06,0.440
-6.170E-06,0.320
-6.160E-06,0.240
-6.150E-06,0.200
-6.140E-06,0.240
-6.130E-06,0.240
-6.120E-06,0.120
-6.110E-06,0.000
-6.100E-06,0.040
-6.090E-06,-0.040
-6.080E-06,-0.040
-6.070E-06,-0.240
-6.060E-06,-0.160
-6.050E-06,-0.280
-6.040E-06,-0.440
-6.030E-06,-0.400
-6.020E-06,-0.480
-6.010E-06,-0.360
-6.000E-06,-0.360
-5.990E-06,-0.280
-5.980E-06,-0.280
-5.970E-06,-0.360
-5.960E-06,-0.240
-5.950E-06,-0.240
-5.940E-06,-0.200
-5.930E-06,-0.040
-5.920E-06,-0.040
-5.910E-06,0.000
-5.900E-06,-0.040
-5.890E-06,-0.120
-5.880E-06,-0.160
-5.870E-06,-0.160
-5.860E-06,-0.240
-5.850E-06,-0.200
-5.840E-06,-0.240
-5.830E-06,-0.280
-5.820E-06,-0.320
-5.810E-06,-0.320
-5.800E-06,-0.360
-5.790E-06,-0.400
-5.780E-06,-0.440
-5.770E-06,-0.480
-5.760E-06,-0.480
-5.750E-06,-0.520
-5.740E-06,-0.480
-5.730E-06,-0.480
-5.720E-06,-0.440
-5.710E-06,-0.440
-5.700E-06,-0.400
-5.690E-06,-0.440
-5.680E-06,-0.360
-5.670E-06,-0.320
-5.660E-06,-0.240
-5.650E-06,-0.240
-5.640E-06,-0.200
-5.630E-06,-0.200
-5.620E-06,-0.120
-5.610E-06,-0.080
-5.600E-06,-0.040
-5.590E-06,-0.080
-5.580E-06,-0.080
-5.570E-06,-0.040
-5.560E-06,-0.040
-5.550E-06,0.000
-5.540E-06,-0.040
-5.530E-06,-0.040
-5.520E-06,-0.040
-5.510E-06,0.120
-5.500E-06,0.160
-5.490E-06,-0.160
-5.480E-06,0.080
-5.470E-06,-0.320
-5.460E-06,-0.400
-5.450E-06,-0.120
-5.440E-06,-0.160
-5.430E-06,0.560
-5.420E-06,0.440
-5.410E-06,0.280
-5.400E-06,0.080
-5.390E-06,-0.320
-5.380E-06,0.000
-5.370E-06,0.160
-5.360E-06,0.400
-5.350E-06,0.480
-5.340E-06,0.240
-5.330E-06,0.000
-5.320E-06,-0.080
-5.310E-06,-0.240
-5.300E-06,-0.200
-5.290E-06,-0.120
-5.280E-06,-0.200
-5.270E-06,-0.160
-5.260E-06,-0.240
-5.250E-06,-0.360
-5.240E-06,-0.480
-5.230E-06,-0.600
-5.220E-06,-0.640
-5.210E-06,-0.800
-5.200E-06,-0.840
-5.190E-06,-0.840
-5.180E-06,-0.840
-5.170E-06,-0.840
-5.160E-06,-0.920
-5.150E-06,-0.960
-5.140E-06,-1.000
-5.130E-06,-1.000
-5.120E-06,-0.960
-5.110E-06,-0.920
-5.100E-06,-0.840
-5.090E-06,-0.680
-5.080E-06,-0.640
-5.070E-06,-0.520
-5.060E-06,-0.520
-5.050E-06,-0.400
-5.040E-06,-0.320
-5.030E-06,-0.320
-5.020E-06,-0.200
-5.010E-06,-0.120
-5.000E-06,-0.080
-4.990E-06,-0.040
-4.980E-06,-0.040
-4.970E-06,0.000
-4.960E-06,0.000
-4.950E-06,0.080
-4.940E-06,0.040
-4.930E-06,0.000
-4.920E-06,0.160
-4.910E-06,-0.040
-4.900E-06,0.000
-4.890E-06,-0.120
-4.880E-06,-0.240
-4.870E-06,-0.160
-4.860E-06,-0.160
-4.850E-06,0.080
-4.840E-06,0.080
-4.830E-06,0.200
-4.820E-06,0.240
-4.810E-06,0.160
-4.800E-06,0.240
-4.790E-06,0.320
-4.780E-06,0.360
-4.770E-06,0.440
-4.760E-06,0.320
-4.750E-06,0.240
-4.740E-06,0.200
-4.730E-06,0.040
-4.720E-06,-0.040
-4.710E-06,-0.040
-4.700E-06,-0.160
-4.690E-06,-0.120
-4.680E-06,-0.320
-4.670E-06,-0.480
-4.660E-06,-0.640
-4.650E-06,-0.720
-4.640E-06,-0.840
-4.630E-06,-0.960
-4.620E-06,-0.920
-4.610E-06,-1.000
-4.600E-06,-0.880
-4.590E-06,-0.920
-4.580E-06,-1.040
-4.570E-06,-1.200
-4.560E-06,-1.360
-4.550E-06,-1.440
-4.540E-06,-1.280
-4.530E-06,-1.040
-4.520E-06,-0.760
-4.510E-06,-0.480
-4.500E-06,-0.560
-4.490E-06,-0.640
-4.480E-06,-0.480
-4.470E-06,-0.480
-4.460E-06,-0.160
-4.450E-06,-0.080
-4.440E-06,-0.120
-4.430E-06,-0.080
-4.420E-06,-0.080
-4.410E-06,0.120
-4.400E-06,0.240
-4.390E-06,0.360
-4.380E-06,0.400
-4.370E-06,0.320
-4.360E-06,0.280
-4.350E-06,0.360
-4.340E-06,0.280
-4.330E-06,0.360
-4.320E-06,0.200
-4.310E-06,0.040
-4.300E-06,-0.040
-4.290E-06,-0.120
-4.280E-06,-0.160
-4.270E-06,-0.160
-4.260E-06,-0.160
-4.250E-06,-0.280
-4.240E-06,-0.280
-4.230E-06,-0.360
-4.220E-06,-0.360
-4.210E-06,-0.200
-4.200E-06,-0.160
-4.190E-06,-0.040
-4.180E-06,-0.160
-4.170E-06,-0.240
-4.160E-06,-0.360
-4.150E-06,-0.440
-4.140E-06,-0.400
-4.130E-06,-0.520
-4.120E-06,-0.440
-4.110E-06,-0.440
-4.100E-06,-0.520
-4.090E-06,-0.320
-4.080E-06,-0.240
-4.070E-06,-0.080
-4.060E-06,0.040
-4.050E-06,0.080
-4.040E-06,0.240
-4.030E-06,0.360
-4.020E-06,0.400
-4.010E-06,0.520
-4.000E-06,0.600
-3.990E-06,0.600
-3.980E-06,0.680
-3.970E-06,0.640
-3.960E-06,0.680
-3.950E-06,0.720
-3.940E-06,0.680
-3.930E-06,0.760
-3.920E-06,0.680
-3.910E-06,0.520
-3.900E-06,0.360
-3.890E-06,0.120
-3.880E-06,-0.040
-3.870E-06,0.160
-3.860E-06,0.240
-3.850E-06,0.360
-3.840E-06,0.480
-3.830E-06,0.360
-3.820E-06,0.000
-3.810E-06,-0.040
-3.800E-06,-0.240
-3.790E-06,-0.280
-3.780E-06,-0.240
-3.770E-06,-0.320
-3.760E-06,-0.440
-3.750E-06,-0.440
-3.740E-06,-0.360
-3.730E-06,-0.320
-3.720E-06,-0.200
-3.710E-06,-0.200
-3.700E-06,-0.200
-3.690E-06,-0.200
-3.680E-06,-0.120
-3.670E-06,0.000
-3.660E-06,0.080
-3.650E-06,0.160
-3.640E-06,0.120
-3.630E-06,-0.120
-3.620E-06,-0.160
-3.610E-06,-0.200
-3.600E-06,-0.040
-3.590E-06,0.160
-3.580E-06,0.240
-3.570E-06,0.320
-3.560E-06,0.120
-3.550E-06,-0.040
-3.540E-06,-0.240
-3.530E-06,-0.520
-3.520E-06,-0.480
-3.510E-06,-0.560
-3.500E-06,-0.360
-3.490E-06,-0.320
-3.480E-06,-0.200
-3.470E-06,-0.120
-3.460E-06,-0.400
-3.450E-06,-0.360
-3.440E-06,-0.440
-3.430E-06,-0.520
-3.420E-06,-0.440
-3.410E-06,-0.400
-3.400E-06,-0.360
-3.390E-06,-0.360
-3.380E-06,-0.320
-3.370E-06,-0.120
-3.360E-06,0.000
-3.350E-06,0.000
-3.340E-06,0.160
-3.330E-06,0.160
-3.320E-06,0.120
-3.310E-06,0.240
-3.300E-06,0.320
-3.290E-06,0.320
-3.280E-06,0.240
-3.270E-06,0.200
-3.260E-06,0.200
-3.250E-06,0.200
-3.240E-06,0.240
-3.230E-06,0.120
-3.220E-06,0.080
-3.210E-06,-0.080
-3.200E-06,-0.240
-3.190E-06,-0.320
-3.180E-06,-0.440
-3.170E-06,-0.400
-3.160E-06,-0.480
-3.150E-06,-0.280
-3.140E-06,-0.400
-3.130E-06,-0.600
-3.120E-06,-0.960
-3.110E-06,-1.400
-3.100E-06,-1.680
-3.090E-06,-1.680
-3.080E-06,-1.480
-3.070E-06,-1.320
-3.060E-06,-0.760
-3.050E-06,-0.720
-3.040E-06,-0.800
-3.030E-06,-0.680
-3.020E-06,-0.920
-3.010E-06,-0.800
-3.000E-06,-0.600
-2.990E-06,-0.440
-2.980E-06,-0.240
-2.970E-06,-0.160
-2.960E-06,-0.240
-2.950E-06,-0.280
-2.940E-06,-0.320
-2.930E-06,-0.360
-2.920E-06,-0.240
-2.910E-06,-0.160
-2.900E-06,0.000
-2.890E-06,-0.040
-2.880E-06,-0.040
-2.870E-06,-0.080
-2.860E-06,-0.120
-2.850E-06,-0.280
-2.840E-06,-0.440
-2.830E-06,-0.480
-2.820E-06,-0.800
-2.810E-06,-1.200
-2.800E-06,-1.480
-2.790E-06,-1.680
-2.780E-06,-1.680
-2.770E-06,-1.360
-2.760E-06,-0.920
-2.750E-06,-0.760
-2.740E-06,-0.680
-2.730E-06,-0.760
-2.720E-06,-0.760
-2.710E-06,-0.800
-2.700E-06,-0.680
-2.690E-06,-0.520
-2.680E-06,-0.840
-2.670E-06,-1.000
-2.660E-06,-1.520
-2.650E-06,-1.720
-2.640E-06,-1.840
-2.630E-06,-1.600
-2.620E-06,-1.240
-2.610E-06,-1.000
-2.600E-06,-0.440
-2.590E-06,-0.280
-2.580E-06,-0.120
-2.570E-06,-0.040
-2.560E-06,-0.160
-2.550E-06,-0.200
-2.540E-06,-0.080
-2.530E-06,0.000
-2.520E-06,0.040
-2.510E-06,0.240
-2.500E-06,0.200
-2.490E-06,0.080
-2.480E-06,-0.040
-2.470E-06,-0.240
-2.460E-06,-0.280
-2.450E-06,-0.360
-2.440E-06,-0.400
-2.430E-06,-0.680
-2.420E-06,-0.760
-2.410E-06,-1.160
-2.400E-06,-1.280
-2.390E-06,-1.320
-2.380E-06,-1.240
-2.370E-06,-1.720
-2.360E-06,-1.480
-2.350E-06,-1.800
-2.340E-06,-2.320
-2.330E-06,-2.160
-2.320E-06,-2.840
-2.310E-06,-2.760
-2.300E-06,-2.520
-2.290E-06,-3.000
-2.280E-06,-2.440
-2.270E-06,-2.760
-2.260E-06,-3.080
-2.250E-06,-3.080
-2.240E-06,-3.320
-2.230E-06,-2.640
-2.220E-06,-2.000
-2.210E-06,-1.600
-2.200E-06,-0.800
-2.190E-06,-0.680
-2.180E-06,-0.440
-2.170E-06,-0.080
-2.160E-06,-0.200
-2.150E-06,-0.080
-2.140E-06,0.000
-2.130E-06,-0.240
-2.120E-06,-0.040
-2.110E-06,-0.160
-2.100E-06,-0.480
-2.090E-06,-0.680
-2.080E-06,-0.960
-2.070E-06,-1.160
-2.060E-06,-1.440
-2.050E-06,-2.120
-2.040E-06,-3.120
-2.030E-06,-3.920
-2.020E-06,-4.760
-2.010E-06,-4.880
-2.000E-06,-4.320
-1.990E-06,-4.120
-1.980E-06,-4.280
-1.970E-06,-4.400
-1.960E-06,-5.160
-1.950E-06,-5.200
-1.940E-06,-5.240
-1.930E-06,-5.240
-1.920E-06,-5.160
-1.910E-06,-5.040
-1.900E-06,-4.680
-1.890E-06,-4.480
-1.880E-06,-4.680
-1.870E-06,-4.920
-1.860E-06,-5.080
-1.850E-06,-5.200
-1.840E-06,-4.840
-1.830E-06,-4.280
-1.820E-06,-3.520
-1.810E-06,-3.040
-1.800E-06,-3.400
-1.790E-06,-3.840
-1.780E-06,-4.520
-1.770E-06,-4.800
-1.760E-06,-4.680
-1.750E-06,-4.600
-1.740E-06,-4.400
-1.730E-06,-4.440
-1.720E-06,-4.760
-1.710E-06,-5.000
-1.700E-06,-5.240
-1.690E-06,-5.240
-1.680E-06,-5.240
-1.670E-06,-5.240
-1.660E-06,-5.240
-1.650E-06,-5.240
-1.640E-06,-5.240
-1.630E-06,-5.200
-1.620E-06,-5.040
-1.610E-06,-4.920
-1.600E-06,-4.560
-1.590E-06,-4.360
-1.580E-06,-4.200
-1.570E-06,-3.960
-1.560E-06,-4.000
-1.550E-06,-3.840
-1.540E-06,-3.600
-1.530E-06,-3.680
-1.520E-06,-3.840
-1.510E-06,-3.480
-1.500E-06,-3.840
-1.490E-06,-3.800
-1.480E-06,-3.840
-1.470E-06,-4.000
-1.460E-06,-3.960
-1.450E-06,-3.280
-1.440E-06,-2.640
-1.430E-06,-1.760
-1.420E-06,-1.280
-1.410E-06,-1.280
-1.400E-06,-1.480
-1.390E-06,-1.200
-1.380E-06,-0.640
-1.370E-06,0.040
-1.360E-06,0.760
-1.350E-06,0.680
-1.340E-06,0.400
-1.330E-06,0.000
-1.320E-06,-0.320
-1.310E-06,-0.320
-1.300E-06,0.080
-1.290E-06,0.080
-1.280E-06,0.040
-1.270E-06,-0.320
-1.260E-06,-0.680
-1.250E-06,-1.160
-1.240E-06,-1.520
-1.230E-06,-1.800
-1.220E-06,-2.080
-1.210E-06,-1.960
-1.200E-06,-1.880
-1.190E-06,-1.920
-1.180E-06,-2.080
-1.170E-06,-2.720
-1.160E-06,-3.000
-1.150E-06,-3.280
-1.140E-06,-3.360
-1.130E-06,-3.480
-1.120E-06,-2.880
-1.110E-06,-3.480
-1.100E-06,-3.720
-1.090E-06,-4.000
-1.080E-06,-4.520
-1.070E-06,-3.680
-1.060E-06,-2.920
-1.050E-06,-2.160
-1.040E-06,-1.160
-1.030E-06,-0.720
-1.020E-06,-0.800
-1.010E-06,-0.160
-1.000E-06,0.040
-9.900E-07,0.440
-9.800E-07,0.960
-9.700E-07,0.920
-9.600E-07,0.840
-9.500E-07,0.360
-9.400E-07,-0.400
-9.300E-07,-0.760
-9.200E-07,-0.720
-9.100E-07,-0.520
-9.000E-07,0.760
-8.900E-07,1.560
-8.800E-07,1.960
-8.700E-07,2.040
-8.600E-07,1.360
-8.500E-07,1.040
-8.400E-07,0.600
-8.300E-07,0.480
-8.200E-07,0.600
-8.100E-07,0.480
-8.000E-07,0.320
-7.900E-07,0.040
-7.800E-07,-0.320
-7.700E-07,-0.640
-7.600E-07,-0.800
-7.500E-07,-1.160
-7.400E-07,-1.160
-7.300E-07,-1.320
-7.200E-07,-1.520
-7.100E-07,-1.600
-7.000E-07,-1.840
-6.900E-07,-1.960
-6.800E-07,-2.200
-6.700E-07,-2.400
-6.600E-07,-2.560
-6.500E-07,-2.680
-6.400E-07,-2.800
-6.300E-07,-2.880
-6.200E-07,-2.800
-6.100E-07,-2.840
-6.000E-07,-2.560
-5.900E-07,-2.360
-5.800E-07,-2.120
-5.700E-07,-1.920
-5.600E-07,-1.920
-5.500E-07,-1.920
-5.400E-07,-1.880
-5.300E-07,-1.880
-5.200E-07,-1.760
-5.100E-07,-1.800
-5.000E-07,-1.800
-4.900E-07,-2.040
-4.800E-07,-2.640
-4.700E-07,-2.560
-4.600E-07,-2.480
-4.500E-07,-2.360
-4.400E-07,-1.880
-4.300E-07,-1.560
-4.200E-07,-1.360
-4.100E-07,-1.360
-4.000E-07,-1.160
-3.900E-07,-0.960
-3.800E-07,-0.720
-3.700E-07,-0.440
-3.600E-07,-0.120
-3.500E-07,0.160
-3.400E-07,0.200
-3.300E-07,0.280
-3.200E-07,0.320
-3.100E-07,0.120
-3.000E-07,0.200
-2.900E-07,0.320
-2.800E-07,0.480
-2.700E-07,0.640
-2.600E-07,0.800
-2.500E-07,1.040
-2.400E-07,1.040
-2.300E-07,1.120
-2.200E-07,1.280
-2.100E-07,1.360
-2.000E-07,1.160
-1.900E-07,0.960
-1.800E-07,0.680
-1.700E-07,0.400
-1.600E-07,0.320
-1.500E-07,0.040
-1.400E-07,-0.200
-1.300E-07,-0.560
-1.200E-07,-1.120
-1.100E-07,-1.400
-1.000E-07,-1.440
-9.000E-08,-2.000
-8.000E-08,-2.280
-7.000E-08,-2.400
-6.000E-08,-3.320
-5.000E-08,-4.320
-4.000E-08,-3.360
-3.000E-08,-4.160
-2.000E-08,-4.040
-1.000E-08,-5.240
0.000E+00,-5.040
1.000E-08,-4.520
2.000E-08,-3.840
3.000E-08,-0.400
4.000E-08,0.720
5.000E-08,1.080
6.000E-08,1.200
7.000E-08,-1.280
8.000E-08,-0.960
9.000E-08,-0.800
1.000E-07,0.040
1.100E-07,1.200
1.200E-07,0.920
1.300E-07,0.880
1.400E-07,-0.080
1.500E-07,-0.160
1.600E-07,-0.560
1.700E-07,-0.360
1.800E-07,-0.360
1.900E-07,-0.280
2.000E-07,-0.240
2.100E-07,-0.280
2.200E-07,-0.400
2.300E-07,-0.840
2.400E-07,-1.160
2.500E-07,-1.520
2.600E-07,-1.760
2.700E-07,-1.880
2.800E-07,-2.040
2.900E-07,-2.320
3.000E-07,-2.480
3.100E-07,-2.720
3.200E-07,-2.800
3.300E-07,-2.680
3.400E-07,-2.680
3.500E-07,-2.520
3.600E-07,-2.400
3.700E-07,-2.480
3.800E-07,-2.400
3.900E-07,-2.360
4.000E-07,-2.320
4.100E-07,-2.200
4.200E-07,-2.160
4.300E-07,-2.000
4.400E-07,-2.000
4.500E-07,-2.000
4.600E-07,-2.080
4.700E-07,-2.200
4.800E-07,-2.240
4.900E-07,-2.320
5.000E-07,-2.440
5.100E-07,-2.560
5.200E-07,-2.640
5.300E-07,-2.720
5.400E-07,-2.640
5.500E-07,-2.640
5.600E-07,-2.520
5.700E-07,-2.400
5.800E-07,-2.280
5.900E-07,-2.240
6.000E-07,-2.240
6.100E-07,-2.200
6.200E-07,-2.160
6.300E-07,-2.080
6.400E-07,-2.040
6.500E-07,-2.040
6.600E-07,-1.960
6.700E-07,-1.960
6.800E-07,-1.920
6.900E-07,-1.840
7.000E-07,-1.880
7.100E-07,-1.880
7.200E-07,-1.880
7.300E-07,-1.760
7.400E-07,-1.800
7.500E-07,-1.800
7.600E-07,-1.880
7.700E-07,-1.880
7.800E-07,-2.040
7.900E-07,-2.080
8.000E-07,-2.200
8.100E-07,-2.240
8.200E-07,-2.240
8.300E-07,-2.240
8.400E-07,-2.280
8.500E-07,-2.360
8.600E-07,-2.320
8.700E-07,-2.240
8.800E-07,-2.160
8.900E-07,-2.080
9.000E-07,-2.000
9.100E-07,-2.000
9.200E-07,-1.880
9.300E-07,-1.880
9.400E-07,-1.840
9.500E-07,-1.800
9.600E-07,-1.760
9.700E-07,-1.760
9.800E-07,-1.760
9.900E-07,-1.720
1.000E-06,-1.720
1.010E-06,-1.720
1.020E-06,-1.720
1.030E-06,-1.680
1.040E-06,-1.680
1.050E-06,-1.720
1.060E-06,-1.720
1.070E-06,-1.680
1.080E-06,-1.680
1.090E-06,-1.600
1.100E-06,-1.600
1.110E-06,-1.600
1.120E-06,-1.600
1.130E-06,-1.600
1.140E-06,-1.560
1.150E-06,-1.600
1.160E-06,-1.600
1.170E-06,-1.600
1.180E-06,-1.560
1.190E-06,-1.600
1.200E-06,-1.600
1.210E-06,-1.560
1.220E-06,-1.560
1.230E-06,-1.560
1.240E-06,-1.560
1.250E-06,-1.560
1.260E-06,-1.560
1.270E-06,-1.520
1.280E-06,-1.600
1.290E-06,-1.560
1.300E-06,-1.640
1.310E-06,-1.680
1.320E-06,-1.680
1.330E-06,-1.760
1.340E-06,-1.760
1.350E-06,-1.800
1.360E-06,-1.800
1.370E-06,-1.840
1.380E-06,-1.880
1.390E-06,-1.880
1.400E-06,-2.000
1.410E-06,-1.960
1.420E-06,-2.000
1.430E-06,-2.080
1.440E-06,-2.080
1.450E-06,-2.080
1.460E-06,-2.120
1.470E-06,-2.160
1.480E-06,-2.240
1.490E-06,-2.280
1.500E-06,-2.320
1.510E-06,-2.400
1.520E-06,-2.520
1.530E-06,-2.520
1.540E-06,-2.600
1.550E-06,-2.680
1.560E-06,-2.680
1.570E-06,-2.640
1.580E-06,-2.720
1.590E-06,-2.720
1.600E-06,-2.760
1.610E-06,-2.760
1.620E-06,-2.880
1.630E-06,-3.000
1.640E-06,-3.120
1.650E-06,-3.240
1.660E-06,-3.240
1.670E-06,-3.040
1.680E-06,-2.840
1.690E-06,-2.600
1.700E-06,-2.360
1.710E-06,-2.160
1.720E-06,-1.960
1.730E-06,-1.920
1.740E-06,-1.840
1.750E-06,-1.680
1.760E-06,-1.680
1.770E-06,-1.600
1.780E-06,-1.480
1.790E-06,-1.400
1.800E-06,-1.400
1.810E-06,-1.440
1.820E-06,-1.400
1.830E-06,-1.400
1.840E-06,-1.480
1.850E-06,-1.480
1.860E-06,-1.480
1.870E-06,-1.560
1.880E-06,-1.640
1.890E-06,-1.720
1.900E-06,-1.760
1.910E-06,-1.840
1.920E-06,-1.920
1.930E-06,-2.000
1.940E-06,-2.040
1.950E-06,-2.120
1.960E-06,-2.160
1.970E-06,-2.200
1.980E-06,-2.240
1.990E-06,-2.280
2.000E-06,-2.360
2.010E-06,-2.280
2.020E-06,-2.240
2.030E-06,-2.160
2.040E-06,-2.160
2.050E-06,-2.160
2.060E-06,-2.200
2.070E-06,-2.320
2.080E-06,-2.360
2.090E-06,-2.360
2.100E-06,-2.400
2.110E-06,-2.440
2.120E-06,-2.400
2.130E-06,-2.360
2.140E-06,-2.320
2.150E-06,-2.360
2.160E-06,-2.320
2.170E-06,-2.240
2.180E-06,-2.120
2.190E-06,-1.960
2.200E-06,-1.800
2.210E-06,-1.720
2.220E-06,-1.640
2.230E-06,-1.440
2.240E-06,-1.360
2.250E-06,-1.160
2.260E-06,-1.040
2.270E-06,-0.880
2.280E-06,-0.680
2.290E-06,-0.560
2.300E-06,-0.520
2.310E-06,-0.480
2.320E-06,-0.440
2.330E-06,-0.400
2.340E-06,-0.440
2.350E-06,-0.520
2.360E-06,-0.640
2.370E-06,-0.880
2.380E-06,-1.120
2.390E-06,-1.320
2.400E-06,-1.480
2.410E-06,-1.680
2.420E-06,-1.800
2.430E-06,-1.920
2.440E-06,-2.080
2.450E-06,-2.240
2.460E-06,-2.360
2.470E-06,-2.440
2.480E-06,-2.480
2.490E-06,-2.480
2.500E-06,-2.480
2.510E-06,-2.440
2.520E-06,-2.480
2.530E-06,-2.440
2.540E-06,-2.440
2.550E-06,-2.400
2.560E-06,-2.320
2.570E-06,-2.360
2.580E-06,-2.280
2.590E-06,-2.200
2.600E-06,-2.160
2.610E-06,-2.080
2.620E-06,-1.960
2.630E-06,-2.000
2.640E-06,-1.920
2.650E-06,-1.920
2.660E-06,-1.760
2.670E-06,-1.720
2.680E-06,-1.680
2.690E-06,-1.520
2.700E-06,-1.400
2.710E-06,-1.360
2.720E-06,-1.160
2.730E-06,-1.120
2.740E-06,-0.960
2.750E-06,-0.840
2.760E-06,-0.760
2.770E-06,-0.640
2.780E-06,-0.520
2.790E-06,-0.440
2.800E-06,-0.360
2.810E-06,-0.240
2.820E-06,-0.200
2.830E-06,-0.160
2.840E-06,-0.160
2.850E-06,-0.040
2.860E-06,0.000
2.870E-06,0.080
2.880E-06,0.120
2.890E-06,0.120
2.900E-06,0.080
2.910E-06,0.160
2.920E-06,0.080
2.930E-06,0.040
2.940E-06,-0.040
2.950E-06,-0.200
2.960E-06,-0.320
2.970E-06,-0.400
2.980E-06,-0.560
2.990E-06,-0.680
3.000E-06,-0.800
