mediciones/5-27/-50/WaveData50200.csv

#timebase=2000000(ps)
,#voltbase=100000(mv/100)
#size=4000
-8.400E-06,-0.004
-8.390E-06,0.004
-8.380E-06,0.000
-8.370E-06,0.000
-8.360E-06,0.004
-8.350E-06,0.000
-8.340E-06,0.004
-8.330E-06,0.000
-8.320E-06,0.004
-8.310E-06,0.008
-8.300E-06,-0.004
-8.290E-06,0.000
-8.280E-06,0.004
-8.270E-06,0.000
-8.260E-06,0.004
-8.250E-06,0.000
-8.240E-06,0.004
-8.230E-06,0.000
-8.220E-06,0.000
-8.210E-06,0.004
-8.200E-06,0.004
-8.190E-06,0.000
-8.180E-06,0.004
-8.170E-06,0.000
-8.160E-06,0.000
-8.150E-06,0.004
-8.140E-06,0.000
-8.130E-06,0.004
-8.120E-06,0.000
-8.110E-06,0.008
-8.100E-06,0.000
-8.090E-06,0.000
-8.080E-06,0.000
-8.070E-06,0.000
-8.060E-06,0.000
-8.050E-06,0.004
-8.040E-06,0.000
-8.030E-06,0.004
-8.020E-06,0.000
-8.010E-06,0.004
-8.000E-06,0.008
-7.990E-06,0.000
-7.980E-06,0.000
-7.970E-06,0.004
-7.960E-06,0.000
-7.950E-06,0.004
-7.940E-06,0.004
-7.930E-06,0.000
-7.920E-06,0.000
-7.910E-06,0.004
-7.900E-06,0.004
-7.890E-06,0.004
-7.880E-06,0.000
-7.870E-06,0.000
-7.860E-06,0.008
-7.850E-06,-0.004
-7.840E-06,0.000
-7.830E-06,0.004
-7.820E-06,0.004
-7.810E-06,0.004
-7.800E-06,0.000
-7.790E-06,0.004
-7.780E-06,0.000
-7.770E-06,0.000
-7.760E-06,0.000
-7.750E-06,0.004
-7.740E-06,0.004
-7.730E-06,0.004
-7.720E-06,0.000
-7.710E-06,0.004
-7.700E-06,0.000
-7.690E-06,0.004
-7.680E-06,0.000
-7.670E-06,0.004
-7.660E-06,0.008
-7.650E-06,0.008
-7.640E-06,0.000
-7.630E-06,0.000
-7.620E-06,0.004
-7.610E-06,0.000
-7.600E-06,0.000
-7.590E-06,0.000
-7.580E-06,0.004
-7.570E-06,0.000
-7.560E-06,0.000
-7.550E-06,0.004
-7.540E-06,-0.004
-7.530E-06,0.004
-7.520E-06,0.000
-7.510E-06,0.004
-7.500E-06,-0.004
-7.490E-06,0.004
-7.480E-06,0.008
-7.470E-06,0.004
-7.460E-06,0.008
-7.450E-06,0.008
-7.440E-06,0.008
-7.430E-06,0.008
-7.420E-06,0.000
-7.410E-06,0.004
-7.400E-06,0.004
-7.390E-06,0.004
-7.380E-06,0.004
-7.370E-06,0.004
-7.360E-06,0.004
-7.350E-06,0.004
-7.340E-06,0.004
-7.330E-06,0.000
-7.320E-06,0.004
-7.310E-06,0.004
-7.300E-06,0.004
-7.290E-06,0.000
-7.280E-06,0.000
-7.270E-06,0.004
-7.260E-06,0.004
-7.250E-06,0.004
-7.240E-06,0.004
-7.230E-06,0.004
-7.220E-06,0.000
-7.210E-06,0.004
-7.200E-06,0.004
-7.190E-06,0.000
-7.180E-06,0.000
-7.170E-06,0.004
-7.160E-06,0.008
-7.150E-06,-0.004
-7.140E-06,0.000
-7.130E-06,0.004
-7.120E-06,0.004
-7.110E-06,0.004
-7.100E-06,0.000
-7.090E-06,0.000
-7.080E-06,0.000
-7.070E-06,0.004
-7.060E-06,0.000
-7.050E-06,-0.004
-7.040E-06,0.004
-7.030E-06,0.008
-7.020E-06,0.000
-7.010E-06,0.000
-7.000E-06,0.004
-6.990E-06,0.000
-6.980E-06,0.000
-6.970E-06,0.000
-6.960E-06,0.004
-6.950E-06,0.004
-6.940E-06,0.004
-6.930E-06,0.004
-6.920E-06,0.000
-6.910E-06,0.004
-6.900E-06,0.000
-6.890E-06,0.000
-6.880E-06,0.004
-6.870E-06,0.004
-6.860E-06,0.000
-6.850E-06,0.004
-6.840E-06,0.000
-6.830E-06,0.004
-6.820E-06,0.004
-6.810E-06,0.004
-6.800E-06,0.004
-6.790E-06,0.004
-6.780E-06,0.004
-6.770E-06,0.008
-6.760E-06,0.000
-6.750E-06,-0.004
-6.740E-06,0.004
-6.730E-06,0.000
-6.720E-06,0.004
-6.710E-06,0.004
-6.700E-06,0.004
-6.690E-06,0.000
-6.680E-06,0.000
-6.670E-06,0.004
-6.660E-06,0.000
-6.650E-06,0.000
-6.640E-06,0.004
-6.630E-06,0.004
-6.620E-06,0.004
-6.610E-06,0.000
-6.600E-06,0.004
-6.590E-06,0.004
-6.580E-06,0.000
-6.570E-06,0.004
-6.560E-06,0.000
-6.550E-06,0.008
-6.540E-06,0.000
-6.530E-06,0.000
-6.520E-06,0.000
-6.510E-06,-0.004
-6.500E-06,0.000
-6.490E-06,0.004
-6.480E-06,0.004
-6.470E-06,0.000
-6.460E-06,0.000
-6.450E-06,0.004
-6.440E-06,0.004
-6.430E-06,0.004
-6.420E-06,0.000
-6.410E-06,0.004
-6.400E-06,0.000
-6.390E-06,0.000
-6.380E-06,0.004
-6.370E-06,0.004
-6.360E-06,0.004
-6.350E-06,0.008
-6.340E-06,0.000
-6.330E-06,0.004
-6.320E-06,0.004
-6.310E-06,0.004
-6.300E-06,0.004
-6.290E-06,0.000
-6.280E-06,0.004
-6.270E-06,0.000
-6.260E-06,0.004
-6.250E-06,0.004
-6.240E-06,0.004
-6.230E-06,0.004
-6.220E-06,0.004
-6.210E-06,0.004
-6.200E-06,0.004
-6.190E-06,0.004
-6.180E-06,0.004
-6.170E-06,0.000
-6.160E-06,0.004
-6.150E-06,0.004
-6.140E-06,0.004
-6.130E-06,0.000
-6.120E-06,0.004
-6.110E-06,0.004
-6.100E-06,0.004
-6.090E-06,0.004
-6.080E-06,0.000
-6.070E-06,0.004
-6.060E-06,0.004
-6.050E-06,0.000
-6.040E-06,0.004
-6.030E-06,0.008
-6.020E-06,0.000
-6.010E-06,0.004
-6.000E-06,0.004
-5.990E-06,0.004
-5.980E-06,0.000
-5.970E-06,0.004
-5.960E-06,0.000
-5.950E-06,0.000
-5.940E-06,0.004
-5.930E-06,0.004
-5.920E-06,0.004
-5.910E-06,0.000
-5.900E-06,0.000
-5.890E-06,0.004
-5.880E-06,0.004
-5.870E-06,0.004
-5.860E-06,0.000
-5.850E-06,0.004
-5.840E-06,0.004
-5.830E-06,0.004
-5.820E-06,0.000
-5.810E-06,0.000
-5.800E-06,0.008
-5.790E-06,0.000
-5.780E-06,0.000
-5.770E-06,0.004
-5.760E-06,0.004
-5.750E-06,0.004
-5.740E-06,0.000
-5.730E-06,0.000
-5.720E-06,0.004
-5.710E-06,0.000
-5.700E-06,0.000
-5.690E-06,0.004
-5.680E-06,0.004
-5.670E-06,0.004
-5.660E-06,0.004
-5.650E-06,0.004
-5.640E-06,0.004
-5.630E-06,0.004
-5.620E-06,0.000
-5.610E-06,0.000
-5.600E-06,-0.004
-5.590E-06,0.004
-5.580E-06,0.000
-5.570E-06,0.004
-5.560E-06,0.000
-5.550E-06,0.004
-5.540E-06,0.004
-5.530E-06,0.004
-5.520E-06,0.004
-5.510E-06,0.000
-5.500E-06,0.000
-5.490E-06,0.000
-5.480E-06,0.004
-5.470E-06,0.004
-5.460E-06,0.004
-5.450E-06,0.004
-5.440E-06,0.004
-5.430E-06,0.004
-5.420E-06,0.004
-5.410E-06,0.004
-5.400E-06,0.004
-5.390E-06,0.004
-5.380E-06,0.004
-5.370E-06,0.000
-5.360E-06,-0.004
-5.350E-06,0.004
-5.340E-06,0.008
-5.330E-06,0.000
-5.320E-06,0.000
-5.310E-06,0.004
-5.300E-06,0.000
-5.290E-06,0.004
-5.280E-06,0.004
-5.270E-06,0.000
-5.260E-06,0.000
-5.250E-06,0.004
-5.240E-06,-0.004
-5.230E-06,0.000
-5.220E-06,0.004
-5.210E-06,0.008
-5.200E-06,0.000
-5.190E-06,0.000
-5.180E-06,0.004
-5.170E-06,0.000
-5.160E-06,0.000
-5.150E-06,0.004
-5.140E-06,0.004
-5.130E-06,0.000
-5.120E-06,0.004
-5.110E-06,0.000
-5.100E-06,0.004
-5.090E-06,0.004
-5.080E-06,0.008
-5.070E-06,0.004
-5.060E-06,0.000
-5.050E-06,0.004
-5.040E-06,0.004
-5.030E-06,0.004
-5.020E-06,0.004
-5.010E-06,-0.004
-5.000E-06,0.004
-4.990E-06,0.004
-4.980E-06,0.004
-4.970E-06,0.004
-4.960E-06,0.004
-4.950E-06,0.004
-4.940E-06,0.000
-4.930E-06,0.004
-4.920E-06,0.004
-4.910E-06,0.004
-4.900E-06,0.004
-4.890E-06,0.000
-4.880E-06,0.000
-4.870E-06,0.004
-4.860E-06,0.008
-4.850E-06,0.008
-4.840E-06,0.000
-4.830E-06,0.004
-4.820E-06,0.004
-4.810E-06,0.004
-4.800E-06,0.000
-4.790E-06,-0.004
-4.780E-06,0.004
-4.770E-06,-0.004
-4.760E-06,0.004
-4.750E-06,0.004
-4.740E-06,0.004
-4.730E-06,0.004
-4.720E-06,0.004
-4.710E-06,0.004
-4.700E-06,0.000
-4.690E-06,0.004
-4.680E-06,0.004
-4.670E-06,0.000
-4.660E-06,0.004
-4.650E-06,0.004
-4.640E-06,0.000
-4.630E-06,0.008
-4.620E-06,0.008
-4.610E-06,0.008
-4.600E-06,0.008
-4.590E-06,0.008
-4.580E-06,-0.004
-4.570E-06,0.000
-4.560E-06,0.004
-4.550E-06,0.000
-4.540E-06,0.004
-4.530E-06,0.004
-4.520E-06,0.004
-4.510E-06,0.008
-4.500E-06,0.004
-4.490E-06,0.000
-4.480E-06,0.004
-4.470E-06,0.004
-4.460E-06,0.004
-4.450E-06,0.008
-4.440E-06,0.008
-4.430E-06,0.000
-4.420E-06,0.004
-4.410E-06,0.000
-4.400E-06,0.004
-4.390E-06,0.016
-4.380E-06,0.040
-4.370E-06,0.080
-4.360E-06,0.100
-4.350E-06,0.072
-4.340E-06,0.004
-4.330E-06,-0.072
-4.320E-06,-0.124
-4.310E-06,-0.112
-4.300E-06,-0.032
-4.290E-06,0.040
-4.280E-06,0.088
-4.270E-06,0.048
-4.260E-06,-0.004
-4.250E-06,-0.060
-4.240E-06,-0.040
-4.230E-06,0.012
-4.220E-06,0.064
-4.210E-06,0.088
-4.200E-06,0.052
-4.190E-06,-0.004
-4.180E-06,-0.044
-4.170E-06,-0.052
-4.160E-06,-0.024
-4.150E-06,0.016
-4.140E-06,0.036
-4.130E-06,0.028
-4.120E-06,0.012
-4.110E-06,-0.012
-4.100E-06,-0.008
-4.090E-06,0.020
-4.080E-06,0.028
-4.070E-06,0.032
-4.060E-06,0.012
-4.050E-06,-0.004
-4.040E-06,-0.020
-4.030E-06,-0.012
-4.020E-06,-0.004
-4.010E-06,0.000
-4.000E-06,0.000
-3.990E-06,-0.012
-3.980E-06,-0.020
-3.970E-06,-0.012
-3.960E-06,-0.004
-3.950E-06,0.008
-3.940E-06,0.020
-3.930E-06,0.020
-3.920E-06,0.016
-3.910E-06,0.008
-3.900E-06,0.000
-3.890E-06,0.008
-3.880E-06,0.008
-3.870E-06,0.008
-3.860E-06,-0.004
-3.850E-06,-0.008
-3.840E-06,-0.008
-3.830E-06,-0.004
-3.820E-06,0.000
-3.810E-06,0.012
-3.800E-06,0.012
-3.790E-06,0.008
-3.780E-06,0.004
-3.770E-06,0.000
-3.760E-06,0.000
-3.750E-06,0.008
-3.740E-06,0.008
-3.730E-06,0.008
-3.720E-06,0.004
-3.710E-06,0.000
-3.700E-06,0.008
-3.690E-06,0.008
-3.680E-06,0.012
-3.670E-06,-0.004
-3.660E-06,-0.008
-3.650E-06,-0.008
-3.640E-06,-0.008
-3.630E-06,0.004
-3.620E-06,0.012
-3.610E-06,0.008
-3.600E-06,0.012
-3.590E-06,0.000
-3.580E-06,0.000
-3.570E-06,0.000
-3.560E-06,0.012
-3.550E-06,0.016
-3.540E-06,0.016
-3.530E-06,0.012
-3.520E-06,0.004
-3.510E-06,-0.008
-3.500E-06,0.000
-3.490E-06,0.000
-3.480E-06,0.004
-3.470E-06,0.000
-3.460E-06,0.008
-3.450E-06,0.004
-3.440E-06,0.000
-3.430E-06,0.000
-3.420E-06,0.004
-3.410E-06,0.004
-3.400E-06,0.008
-3.390E-06,0.004
-3.380E-06,0.008
-3.370E-06,-0.004
-3.360E-06,0.000
-3.350E-06,0.004
-3.340E-06,0.004
-3.330E-06,0.000
-3.320E-06,-0.004
-3.310E-06,0.012
-3.300E-06,0.004
-3.290E-06,0.000
-3.280E-06,0.004
-3.270E-06,0.004
-3.260E-06,0.004
-3.250E-06,0.000
-3.240E-06,0.012
-3.230E-06,0.008
-3.220E-06,0.004
-3.210E-06,0.012
-3.200E-06,0.008
-3.190E-06,0.012
-3.180E-06,0.008
-3.170E-06,0.004
-3.160E-06,0.016
-3.150E-06,0.016
-3.140E-06,0.008
-3.130E-06,-0.008
-3.120E-06,-0.008
-3.110E-06,0.000
-3.100E-06,0.012
-3.090E-06,0.012
-3.080E-06,0.016
-3.070E-06,-0.024
-3.060E-06,-0.016
-3.050E-06,-0.028
-3.040E-06,-0.012
-3.030E-06,0.008
-3.020E-06,0.024
-3.010E-06,0.020
-3.000E-06,0.012
-2.990E-06,0.000
-2.980E-06,-0.012
-2.970E-06,-0.008
-2.960E-06,0.004
-2.950E-06,0.004
-2.940E-06,0.000
-2.930E-06,0.008
-2.920E-06,0.000
-2.910E-06,0.004
-2.900E-06,0.008
-2.890E-06,0.012
-2.880E-06,0.000
-2.870E-06,-0.008
-2.860E-06,-0.004
-2.850E-06,0.008
-2.840E-06,0.000
-2.830E-06,0.008
-2.820E-06,0.000
-2.810E-06,0.004
-2.800E-06,0.000
-2.790E-06,0.004
-2.780E-06,-0.008
-2.770E-06,0.000
-2.760E-06,0.004
-2.750E-06,0.012
-2.740E-06,0.004
-2.730E-06,0.000
-2.720E-06,0.000
-2.710E-06,0.004
-2.700E-06,0.008
-2.690E-06,-0.004
-2.680E-06,0.008
-2.670E-06,0.004
-2.660E-06,0.008
-2.650E-06,-0.004
-2.640E-06,0.012
-2.630E-06,-0.004
-2.620E-06,0.008
-2.610E-06,0.008
-2.600E-06,0.004
-2.590E-06,-0.004
-2.580E-06,0.016
-2.570E-06,0.012
-2.560E-06,0.008
-2.550E-06,0.008
-2.540E-06,0.000
-2.530E-06,0.012
-2.520E-06,0.000
-2.510E-06,0.008
-2.500E-06,0.000
-2.490E-06,0.016
-2.480E-06,0.004
-2.470E-06,0.008
-2.460E-06,0.008
-2.450E-06,0.008
-2.440E-06,0.008
-2.430E-06,0.008
-2.420E-06,0.008
-2.410E-06,0.012
-2.400E-06,0.020
-2.390E-06,0.024
-2.380E-06,0.016
-2.370E-06,0.008
-2.360E-06,0.020
-2.350E-06,0.020
-2.340E-06,0.016
-2.330E-06,0.012
-2.320E-06,0.004
-2.310E-06,0.012
-2.300E-06,0.012
-2.290E-06,0.020
-2.280E-06,0.008
-2.270E-06,-0.012
-2.260E-06,-0.020
-2.250E-06,-0.020
-2.240E-06,-0.008
-2.230E-06,0.004
-2.220E-06,0.020
-2.210E-06,0.012
-2.200E-06,0.008
-2.190E-06,0.008
-2.180E-06,-0.004
-2.170E-06,0.020
-2.160E-06,0.052
-2.150E-06,0.044
-2.140E-06,0.000
-2.130E-06,-0.052
-2.120E-06,-0.076
-2.110E-06,-0.068
-2.100E-06,-0.028
-2.090E-06,0.012
-2.080E-06,0.024
-2.070E-06,0.024
-2.060E-06,-0.004
-2.050E-06,-0.036
-2.040E-06,-0.044
-2.030E-06,-0.028
-2.020E-06,0.000
-2.010E-06,0.020
-2.000E-06,0.032
-1.990E-06,0.020
-1.980E-06,-0.008
-1.970E-06,-0.020
-1.960E-06,-0.016
-1.950E-06,0.000
-1.940E-06,0.008
-1.930E-06,0.012
-1.920E-06,0.004
-1.910E-06,-0.008
-1.900E-06,-0.012
-1.890E-06,-0.008
-1.880E-06,0.000
-1.870E-06,0.008
-1.860E-06,0.008
-1.850E-06,0.008
-1.840E-06,0.008
-1.830E-06,0.000
-1.820E-06,0.000
-1.810E-06,0.004
-1.800E-06,0.000
-1.790E-06,0.000
-1.780E-06,-0.004
-1.770E-06,-0.004
-1.760E-06,-0.004
-1.750E-06,0.008
-1.740E-06,0.000
-1.730E-06,0.000
-1.720E-06,0.000
-1.710E-06,0.008
-1.700E-06,0.012
-1.690E-06,0.004
-1.680E-06,0.000
-1.670E-06,0.008
-1.660E-06,0.008
-1.650E-06,0.000
-1.640E-06,0.000
-1.630E-06,0.004
-1.620E-06,0.004
-1.610E-06,0.004
-1.600E-06,0.004
-1.590E-06,0.004
-1.580E-06,0.000
-1.570E-06,0.000
-1.560E-06,0.000
-1.550E-06,0.004
-1.540E-06,0.004
-1.530E-06,0.008
-1.520E-06,0.008
-1.510E-06,0.008
-1.500E-06,0.008
-1.490E-06,0.008
-1.480E-06,0.008
-1.470E-06,0.004
-1.460E-06,0.008
-1.450E-06,0.008
-1.440E-06,0.012
-1.430E-06,0.008
-1.420E-06,0.012
-1.410E-06,0.004
-1.400E-06,0.008
-1.390E-06,0.012
-1.380E-06,0.004
-1.370E-06,0.008
-1.360E-06,0.012
-1.350E-06,0.008
-1.340E-06,0.004
-1.330E-06,-0.004
-1.320E-06,0.000
-1.310E-06,0.004
-1.300E-06,0.004
-1.290E-06,0.008
-1.280E-06,0.012
-1.270E-06,0.008
-1.260E-06,0.008
-1.250E-06,0.004
-1.240E-06,0.004
-1.230E-06,0.008
-1.220E-06,0.012
-1.210E-06,0.020
-1.200E-06,0.024
-1.190E-06,0.028
-1.180E-06,0.036
-1.170E-06,0.036
-1.160E-06,0.044
-1.150E-06,0.052
-1.140E-06,0.056
-1.130E-06,0.056
-1.120E-06,0.064
-1.110E-06,0.064
-1.100E-06,0.052
-1.090E-06,0.012
-1.080E-06,-0.028
-1.070E-06,-0.072
-1.060E-06,-0.084
-1.050E-06,-0.068
-1.040E-06,-0.040
-1.030E-06,-0.008
-1.020E-06,0.000
-1.010E-06,0.008
-1.000E-06,-0.004
-9.900E-07,-0.004
-9.800E-07,-0.012
-9.700E-07,-0.012
-9.600E-07,-0.012
-9.500E-07,-0.008
-9.400E-07,-0.012
-9.300E-07,-0.012
-9.200E-07,-0.008
-9.100E-07,-0.008
-9.000E-07,0.004
-8.900E-07,0.004
-8.800E-07,0.000
-8.700E-07,-0.004
-8.600E-07,-0.008
-8.500E-07,-0.004
-8.400E-07,0.004
-8.300E-07,0.008
-8.200E-07,0.008
-8.100E-07,0.008
-8.000E-07,0.000
-7.900E-07,-0.008
-7.800E-07,0.004
-7.700E-07,0.008
-7.600E-07,0.008
-7.500E-07,0.008
-7.400E-07,0.008
-7.300E-07,0.008
-7.200E-07,0.004
-7.100E-07,0.012
-7.000E-07,0.020
-6.900E-07,0.024
-6.800E-07,0.028
-6.700E-07,0.036
-6.600E-07,0.036
-6.500E-07,0.040
-6.400E-07,0.044
-6.300E-07,0.036
-6.200E-07,0.016
-6.100E-07,-0.012
-6.000E-07,-0.028
-5.900E-07,-0.024
-5.800E-07,-0.016
-5.700E-07,-0.004
-5.600E-07,0.004
-5.500E-07,0.008
-5.400E-07,0.008
-5.300E-07,-0.008
-5.200E-07,-0.012
-5.100E-07,-0.004
-5.000E-07,0.000
-4.900E-07,0.004
-4.800E-07,0.008
-4.700E-07,0.000
-4.600E-07,0.004
-4.500E-07,0.000
-4.400E-07,0.008
-4.300E-07,0.024
-4.200E-07,0.036
-4.100E-07,0.032
-4.000E-07,0.044
-3.900E-07,0.044
-3.800E-07,0.036
-3.700E-07,0.032
-3.600E-07,0.024
-3.500E-07,0.008
-3.400E-07,0.004
-3.300E-07,0.004
-3.200E-07,0.008
-3.100E-07,0.024
-3.000E-07,0.032
-2.900E-07,0.036
-2.800E-07,0.040
-2.700E-07,0.040
-2.600E-07,0.044
-2.500E-07,0.044
-2.400E-07,0.044
-2.300E-07,0.052
-2.200E-07,0.060
-2.100E-07,0.072
-2.000E-07,0.076
-1.900E-07,0.076
-1.800E-07,0.072
-1.700E-07,0.060
-1.600E-07,0.060
-1.500E-07,0.076
-1.400E-07,0.088
-1.300E-07,0.104
-1.200E-07,0.088
-1.100E-07,0.060
-1.000E-07,0.024
-9.000E-08,0.004
-8.000E-08,0.008
-7.000E-08,-0.016
-6.000E-08,-0.088
-5.000E-08,-0.200
-4.000E-08,-0.272
-3.000E-08,-0.248
-2.000E-08,-0.052
-1.000E-08,0.212
0.000E+00,0.268
1.000E-08,0.220
2.000E-08,-0.004
3.000E-08,-0.208
4.000E-08,-0.236
5.000E-08,-0.092
6.000E-08,0.048
7.000E-08,0.100
8.000E-08,0.044
9.000E-08,-0.144
1.000E-07,-0.260
1.100E-07,-0.224
1.200E-07,-0.108
1.300E-07,0.060
1.400E-07,0.120
1.500E-07,0.088
1.600E-07,0.000
1.700E-07,-0.068
1.800E-07,-0.088
1.900E-07,-0.032
2.000E-07,0.024
2.100E-07,0.076
2.200E-07,0.056
2.300E-07,0.028
2.400E-07,-0.016
2.500E-07,-0.024
2.600E-07,-0.024
2.700E-07,-0.004
2.800E-07,0.000
2.900E-07,-0.028
3.000E-07,-0.028
3.100E-07,-0.020
3.200E-07,-0.008
3.300E-07,-0.004
3.400E-07,0.004
3.500E-07,-0.004
3.600E-07,-0.004
3.700E-07,0.004
3.800E-07,0.000
3.900E-07,0.004
4.000E-07,0.000
4.100E-07,-0.004
4.200E-07,0.004
4.300E-07,-0.004
4.400E-07,0.008
4.500E-07,0.012
4.600E-07,0.008
4.700E-07,0.004
4.800E-07,0.000
4.900E-07,0.000
5.000E-07,-0.004
5.100E-07,0.000
5.200E-07,0.000
5.300E-07,0.008
5.400E-07,0.012
5.500E-07,0.012
5.600E-07,0.008
5.700E-07,0.004
5.800E-07,0.000
5.900E-07,0.004
6.000E-07,0.008
6.100E-07,0.012
6.200E-07,0.008
6.300E-07,0.012
6.400E-07,0.016
6.500E-07,0.012
6.600E-07,0.028
6.700E-07,0.024
6.800E-07,0.036
6.900E-07,0.044
7.000E-07,0.044
7.100E-07,0.052
7.200E-07,0.060
7.300E-07,0.080
7.400E-07,0.092
7.500E-07,0.100
7.600E-07,0.096
7.700E-07,0.096
7.800E-07,0.096
7.900E-07,0.096
8.000E-07,0.096
8.100E-07,0.112
8.200E-07,0.124
8.300E-07,0.132
8.400E-07,0.136
8.500E-07,0.112
8.600E-07,-0.020
8.700E-07,-0.168
8.800E-07,-0.248
8.900E-07,-0.164
9.000E-07,-0.088
9.100E-07,0.008
9.200E-07,-0.020
9.300E-07,-0.100
9.400E-07,-0.120
9.500E-07,-0.188
9.600E-07,-0.176
9.700E-07,-0.140
9.800E-07,0.028
9.900E-07,0.008
1.000E-06,-0.012
1.010E-06,-0.044
1.020E-06,-0.076
1.030E-06,-0.056
1.040E-06,0.000
1.050E-06,0.052
1.060E-06,0.052
1.070E-06,0.024
1.080E-06,-0.024
1.090E-06,-0.036
1.100E-06,-0.008
1.110E-06,0.012
1.120E-06,0.040
1.130E-06,0.036
1.140E-06,0.004
1.150E-06,-0.004
1.160E-06,-0.016
1.170E-06,-0.024
1.180E-06,0.000
1.190E-06,0.004
1.200E-06,0.008
1.210E-06,0.008
1.220E-06,0.012
1.230E-06,0.000
1.240E-06,-0.004
1.250E-06,-0.004
1.260E-06,-0.008
1.270E-06,-0.008
1.280E-06,0.008
1.290E-06,0.016
1.300E-06,0.016
1.310E-06,0.008
1.320E-06,0.004
1.330E-06,0.004
1.340E-06,0.004
1.350E-06,0.012
1.360E-06,0.020
1.370E-06,0.028
1.380E-06,0.032
1.390E-06,0.032
1.400E-06,0.036
1.410E-06,0.044
1.420E-06,0.056
1.430E-06,0.056
1.440E-06,0.028
1.450E-06,0.004
1.460E-06,-0.024
1.470E-06,-0.048
1.480E-06,-0.032
1.490E-06,-0.008
1.500E-06,0.012
1.510E-06,0.016
1.520E-06,0.016
1.530E-06,0.008
1.540E-06,-0.004
1.550E-06,-0.008
1.560E-06,0.000
1.570E-06,0.028
1.580E-06,0.036
1.590E-06,0.056
1.600E-06,0.060
1.610E-06,0.056
1.620E-06,0.044
1.630E-06,0.064
1.640E-06,0.064
1.650E-06,0.088
1.660E-06,0.120
1.670E-06,0.112
1.680E-06,0.124
1.690E-06,0.108
1.700E-06,0.108
1.710E-06,0.104
1.720E-06,0.120
1.730E-06,0.124
1.740E-06,0.128
1.750E-06,0.124
1.760E-06,0.108
1.770E-06,0.108
1.780E-06,0.104
1.790E-06,0.096
1.800E-06,0.096
1.810E-06,0.092
1.820E-06,0.112
1.830E-06,0.092
1.840E-06,-0.336
1.850E-06,-0.512
1.860E-06,-0.512
1.870E-06,-0.508
1.880E-06,-0.508
1.890E-06,0.020
1.900E-06,0.540
1.910E-06,0.540
1.920E-06,0.520
1.930E-06,0.000
1.940E-06,-0.440
1.950E-06,-0.512
1.960E-06,-0.332
1.970E-06,0.060
1.980E-06,0.352
1.990E-06,0.376
2.000E-06,0.188
2.010E-06,-0.088
2.020E-06,-0.256
2.030E-06,-0.224
2.040E-06,-0.068
2.050E-06,0.092
2.060E-06,0.156
2.070E-06,0.112
2.080E-06,0.008
2.090E-06,-0.068
2.100E-06,-0.104
2.110E-06,-0.076
2.120E-06,0.004
2.130E-06,0.076
2.140E-06,0.108
2.150E-06,0.088
2.160E-06,0.020
2.170E-06,-0.044
2.180E-06,-0.068
2.190E-06,-0.044
2.200E-06,0.004
2.210E-06,0.044
2.220E-06,0.068
2.230E-06,0.052
2.240E-06,0.012
2.250E-06,-0.020
2.260E-06,-0.028
2.270E-06,0.000
2.280E-06,0.052
2.290E-06,0.092
2.300E-06,0.108
2.310E-06,0.092
2.320E-06,0.068
2.330E-06,0.028
2.340E-06,0.008
2.350E-06,0.028
2.360E-06,0.056
2.370E-06,0.056
2.380E-06,0.040
2.390E-06,-0.136
2.400E-06,-0.228
2.410E-06,-0.284
2.420E-06,-0.208
2.430E-06,-0.088
2.440E-06,0.056
2.450E-06,0.152
2.460E-06,0.124
2.470E-06,0.060
2.480E-06,-0.024
2.490E-06,-0.048
2.500E-06,-0.052
2.510E-06,-0.004
2.520E-06,0.024
2.530E-06,0.044
2.540E-06,0.048
2.550E-06,0.036
2.560E-06,0.012
2.570E-06,-0.012
2.580E-06,-0.012
2.590E-06,-0.012
2.600E-06,-0.004
2.610E-06,0.020
2.620E-06,0.016
2.630E-06,0.004
2.640E-06,-0.032
2.650E-06,-0.020
2.660E-06,0.000
2.670E-06,0.024
2.680E-06,0.052
2.690E-06,0.040
2.700E-06,0.036
2.710E-06,0.024
2.720E-06,0.004
2.730E-06,0.004
2.740E-06,0.008
2.750E-06,-0.012
2.760E-06,0.012
2.770E-06,0.012
2.780E-06,0.008
2.790E-06,-0.004
2.800E-06,-0.020
2.810E-06,0.000
2.820E-06,0.012
2.830E-06,0.036
2.840E-06,0.020
2.850E-06,0.000
2.860E-06,-0.024
2.870E-06,-0.036
2.880E-06,-0.028
2.890E-06,0.008
2.900E-06,0.040
2.910E-06,0.032
2.920E-06,0.004
2.930E-06,-0.032
2.940E-06,-0.056
2.950E-06,-0.040
2.960E-06,0.000
2.970E-06,0.028
2.980E-06,0.048
2.990E-06,0.028
3.000E-06,0.008
3.010E-06,-0.016
3.020E-06,-0.028
3.030E-06,-0.016
3.040E-06,0.012
3.050E-06,0.040
3.060E-06,0.052
3.070E-06,0.052
3.080E-06,0.040
3.090E-06,0.020
3.100E-06,0.020
3.110E-06,0.032
3.120E-06,0.056
3.130E-06,0.064
3.140E-06,0.016
3.150E-06,-0.428
3.160E-06,-0.440
3.170E-06,-0.428
3.180E-06,-0.072
3.190E-06,0.204
3.200E-06,0.360
3.210E-06,0.468
3.220E-06,0.256
3.230E-06,-0.044
3.240E-06,-0.304
3.250E-06,-0.356
3.260E-06,-0.196
3.270E-06,-0.036
3.280E-06,0.156
3.290E-06,0.188
3.300E-06,0.160
3.310E-06,0.032
3.320E-06,-0.076
3.330E-06,-0.112
3.340E-06,-0.104
3.350E-06,0.024
3.360E-06,0.096
3.370E-06,0.132
3.380E-06,0.076
