mediciones/mediciones removidas por ser diferentes/7.5/WaveData47185.csv

#timebase=2000000(ps)
,#voltbase=100000(mv/100)
#size=4000
-8.400E-06,0.008
-8.390E-06,0.004
-8.380E-06,0.004
-8.370E-06,0.000
-8.360E-06,-0.004
-8.350E-06,0.000
-8.340E-06,0.000
-8.330E-06,0.012
-8.320E-06,0.008
-8.310E-06,0.004
-8.300E-06,-0.004
-8.290E-06,-0.004
-8.280E-06,-0.004
-8.270E-06,0.004
-8.260E-06,0.012
-8.250E-06,0.008
-8.240E-06,0.008
-8.230E-06,0.000
-8.220E-06,-0.004
-8.210E-06,-0.004
-8.200E-06,-0.004
-8.190E-06,0.000
-8.180E-06,0.008
-8.170E-06,0.004
-8.160E-06,0.008
-8.150E-06,0.000
-8.140E-06,-0.004
-8.130E-06,0.000
-8.120E-06,0.000
-8.110E-06,0.004
-8.100E-06,0.008
-8.090E-06,0.012
-8.080E-06,0.012
-8.070E-06,0.000
-8.060E-06,-0.004
-8.050E-06,-0.004
-8.040E-06,0.000
-8.030E-06,0.004
-8.020E-06,0.012
-8.010E-06,0.016
-8.000E-06,0.012
-7.990E-06,0.004
-7.980E-06,-0.008
-7.970E-06,-0.008
-7.960E-06,0.000
-7.950E-06,0.008
-7.940E-06,0.012
-7.930E-06,0.012
-7.920E-06,0.016
-7.910E-06,0.000
-7.900E-06,-0.008
-7.890E-06,-0.004
-7.880E-06,0.000
-7.870E-06,0.012
-7.860E-06,0.012
-7.850E-06,0.012
-7.840E-06,0.004
-7.830E-06,-0.012
-7.820E-06,-0.004
-7.810E-06,0.000
-7.800E-06,0.008
-7.790E-06,0.008
-7.780E-06,0.000
-7.770E-06,-0.004
-7.760E-06,-0.004
-7.750E-06,-0.004
-7.740E-06,0.000
-7.730E-06,0.000
-7.720E-06,0.000
-7.710E-06,0.000
-7.700E-06,-0.004
-7.690E-06,0.000
-7.680E-06,0.008
-7.670E-06,0.008
-7.660E-06,0.004
-7.650E-06,0.000
-7.640E-06,-0.004
-7.630E-06,0.000
-7.620E-06,0.004
-7.610E-06,0.004
-7.600E-06,0.008
-7.590E-06,0.008
-7.580E-06,0.004
-7.570E-06,0.000
-7.560E-06,0.000
-7.550E-06,0.004
-7.540E-06,0.008
-7.530E-06,0.008
-7.520E-06,0.012
-7.510E-06,0.004
-7.500E-06,0.000
-7.490E-06,0.000
-7.480E-06,-0.004
-7.470E-06,0.000
-7.460E-06,0.004
-7.450E-06,0.004
-7.440E-06,0.008
-7.430E-06,0.008
-7.420E-06,-0.004
-7.410E-06,0.000
-7.400E-06,0.000
-7.390E-06,0.000
-7.380E-06,0.004
-7.370E-06,0.012
-7.360E-06,0.012
-7.350E-06,0.012
-7.340E-06,0.004
-7.330E-06,0.000
-7.320E-06,-0.004
-7.310E-06,-0.004
-7.300E-06,0.000
-7.290E-06,0.008
-7.280E-06,0.008
-7.270E-06,0.004
-7.260E-06,0.004
-7.250E-06,0.004
-7.240E-06,-0.004
-7.230E-06,-0.004
-7.220E-06,-0.004
-7.210E-06,0.000
-7.200E-06,0.000
-7.190E-06,0.008
-7.180E-06,0.012
-7.170E-06,0.008
-7.160E-06,0.000
-7.150E-06,-0.004
-7.140E-06,-0.004
-7.130E-06,0.000
-7.120E-06,0.008
-7.110E-06,0.012
-7.100E-06,0.008
-7.090E-06,0.004
-7.080E-06,0.000
-7.070E-06,-0.004
-7.060E-06,-0.008
-7.050E-06,0.000
-7.040E-06,0.008
-7.030E-06,0.012
-7.020E-06,0.008
-7.010E-06,0.008
-7.000E-06,-0.004
-6.990E-06,-0.004
-6.980E-06,0.000
-6.970E-06,0.004
-6.960E-06,0.004
-6.950E-06,-0.004
-6.940E-06,0.004
-6.930E-06,0.008
-6.920E-06,0.008
-6.910E-06,0.008
-6.900E-06,0.004
-6.890E-06,0.004
-6.880E-06,-0.004
-6.870E-06,-0.004
-6.860E-06,0.004
-6.850E-06,0.008
-6.840E-06,0.004
-6.830E-06,0.008
-6.820E-06,0.008
-6.810E-06,0.000
-6.800E-06,-0.008
-6.790E-06,-0.012
-6.780E-06,-0.004
-6.770E-06,-0.004
-6.760E-06,0.012
-6.750E-06,0.016
-6.740E-06,0.012
-6.730E-06,0.004
-6.720E-06,-0.004
-6.710E-06,-0.008
-6.700E-06,0.000
-6.690E-06,0.000
-6.680E-06,0.012
-6.670E-06,0.008
-6.660E-06,0.004
-6.650E-06,0.004
-6.640E-06,0.000
-6.630E-06,0.000
-6.620E-06,0.000
-6.610E-06,0.000
-6.600E-06,0.008
-6.590E-06,0.012
-6.580E-06,0.012
-6.570E-06,0.004
-6.560E-06,0.004
-6.550E-06,0.004
-6.540E-06,0.000
-6.530E-06,0.004
-6.520E-06,0.008
-6.510E-06,0.012
-6.500E-06,0.004
-6.490E-06,0.008
-6.480E-06,0.000
-6.470E-06,-0.004
-6.460E-06,-0.004
-6.450E-06,0.000
-6.440E-06,0.004
-6.430E-06,0.008
-6.420E-06,0.012
-6.410E-06,0.008
-6.400E-06,0.004
-6.390E-06,-0.004
-6.380E-06,0.000
-6.370E-06,-0.004
-6.360E-06,0.004
-6.350E-06,0.004
-6.340E-06,0.012
-6.330E-06,0.012
-6.320E-06,0.004
-6.310E-06,-0.004
-6.300E-06,-0.008
-6.290E-06,-0.008
-6.280E-06,0.000
-6.270E-06,0.012
-6.260E-06,0.012
-6.250E-06,0.008
-6.240E-06,0.004
-6.230E-06,-0.004
-6.220E-06,-0.004
-6.210E-06,-0.004
-6.200E-06,0.004
-6.190E-06,0.008
-6.180E-06,0.012
-6.170E-06,0.008
-6.160E-06,0.000
-6.150E-06,-0.004
-6.140E-06,-0.004
-6.130E-06,-0.004
-6.120E-06,0.008
-6.110E-06,0.004
-6.100E-06,0.008
-6.090E-06,0.008
-6.080E-06,0.008
-6.070E-06,0.004
-6.060E-06,0.000
-6.050E-06,0.000
-6.040E-06,0.000
-6.030E-06,0.008
-6.020E-06,0.012
-6.010E-06,0.004
-6.000E-06,0.008
-5.990E-06,0.000
-5.980E-06,-0.004
-5.970E-06,-0.004
-5.960E-06,0.000
-5.950E-06,0.004
-5.940E-06,0.008
-5.930E-06,0.008
-5.920E-06,0.008
-5.910E-06,0.008
-5.900E-06,0.000
-5.890E-06,0.000
-5.880E-06,0.000
-5.870E-06,0.000
-5.860E-06,0.008
-5.850E-06,0.012
-5.840E-06,0.020
-5.830E-06,0.008
-5.820E-06,0.004
-5.810E-06,0.000
-5.800E-06,-0.004
-5.790E-06,-0.008
-5.780E-06,-0.008
-5.770E-06,-0.004
-5.760E-06,0.012
-5.750E-06,0.020
-5.740E-06,0.004
-5.730E-06,0.000
-5.720E-06,-0.008
-5.710E-06,-0.012
-5.700E-06,-0.008
-5.690E-06,0.000
-5.680E-06,0.012
-5.670E-06,0.020
-5.660E-06,0.008
-5.650E-06,0.004
-5.640E-06,-0.008
-5.630E-06,-0.008
-5.620E-06,-0.008
-5.610E-06,0.000
-5.600E-06,0.008
-5.590E-06,0.012
-5.580E-06,0.012
-5.570E-06,0.000
-5.560E-06,-0.004
-5.550E-06,-0.004
-5.540E-06,-0.004
-5.530E-06,0.008
-5.520E-06,0.012
-5.510E-06,0.008
-5.500E-06,0.008
-5.490E-06,0.008
-5.480E-06,0.000
-5.470E-06,0.000
-5.460E-06,-0.004
-5.450E-06,0.004
-5.440E-06,0.008
-5.430E-06,0.008
-5.420E-06,0.008
-5.410E-06,0.004
-5.400E-06,0.000
-5.390E-06,-0.004
-5.380E-06,0.004
-5.370E-06,0.004
-5.360E-06,0.008
-5.350E-06,0.008
-5.340E-06,0.012
-5.330E-06,0.004
-5.320E-06,0.008
-5.310E-06,0.008
-5.300E-06,0.004
-5.290E-06,0.004
-5.280E-06,0.012
-5.270E-06,0.012
-5.260E-06,0.012
-5.250E-06,0.000
-5.240E-06,-0.008
-5.230E-06,-0.012
-5.220E-06,-0.004
-5.210E-06,0.008
-5.200E-06,0.020
-5.190E-06,0.024
-5.180E-06,0.008
-5.170E-06,0.000
-5.160E-06,-0.004
-5.150E-06,-0.008
-5.140E-06,0.000
-5.130E-06,0.008
-5.120E-06,0.024
-5.110E-06,0.016
-5.100E-06,0.008
-5.090E-06,-0.004
-5.080E-06,-0.008
-5.070E-06,-0.012
-5.060E-06,-0.008
-5.050E-06,0.008
-5.040E-06,0.008
-5.030E-06,0.012
-5.020E-06,0.000
-5.010E-06,-0.008
-5.000E-06,-0.028
-4.990E-06,-0.016
-4.980E-06,0.000
-4.970E-06,0.028
-4.960E-06,0.028
-4.950E-06,0.012
-4.940E-06,-0.008
-4.930E-06,-0.028
-4.920E-06,-0.028
-4.910E-06,0.000
-4.900E-06,0.016
-4.890E-06,0.028
-4.880E-06,0.028
-4.870E-06,0.004
-4.860E-06,-0.004
-4.850E-06,-0.012
-4.840E-06,-0.008
-4.830E-06,0.000
-4.820E-06,0.012
-4.810E-06,0.016
-4.800E-06,0.008
-4.790E-06,0.008
-4.780E-06,0.000
-4.770E-06,-0.004
-4.760E-06,-0.004
-4.750E-06,-0.004
-4.740E-06,-0.004
-4.730E-06,0.008
-4.720E-06,0.012
-4.710E-06,0.012
-4.700E-06,0.004
-4.690E-06,-0.004
-4.680E-06,-0.008
-4.670E-06,-0.004
-4.660E-06,0.008
-4.650E-06,0.008
-4.640E-06,0.012
-4.630E-06,0.008
-4.620E-06,-0.004
-4.610E-06,-0.004
-4.600E-06,-0.004
-4.590E-06,0.000
-4.580E-06,0.012
-4.570E-06,0.024
-4.560E-06,0.020
-4.550E-06,0.004
-4.540E-06,-0.004
-4.530E-06,-0.004
-4.520E-06,-0.008
-4.510E-06,0.000
-4.500E-06,0.008
-4.490E-06,0.016
-4.480E-06,0.020
-4.470E-06,0.012
-4.460E-06,0.008
-4.450E-06,-0.004
-4.440E-06,-0.004
-4.430E-06,-0.008
-4.420E-06,-0.004
-4.410E-06,0.008
-4.400E-06,0.008
-4.390E-06,0.004
-4.380E-06,0.000
-4.370E-06,0.000
-4.360E-06,0.004
-4.350E-06,0.000
-4.340E-06,0.008
-4.330E-06,0.008
-4.320E-06,0.008
-4.310E-06,0.000
-4.300E-06,0.004
-4.290E-06,0.004
-4.280E-06,0.012
-4.270E-06,0.012
-4.260E-06,0.012
-4.250E-06,0.000
-4.240E-06,-0.008
-4.230E-06,-0.012
-4.220E-06,-0.004
-4.210E-06,0.008
-4.200E-06,0.016
-4.190E-06,0.020
-4.180E-06,0.008
-4.170E-06,0.000
-4.160E-06,-0.004
-4.150E-06,-0.008
-4.140E-06,0.000
-4.130E-06,0.000
-4.120E-06,0.008
-4.110E-06,0.008
-4.100E-06,0.000
-4.090E-06,-0.008
-4.080E-06,-0.008
-4.070E-06,-0.004
-4.060E-06,0.008
-4.050E-06,0.008
-4.040E-06,0.012
-4.030E-06,0.012
-4.020E-06,0.004
-4.010E-06,-0.008
-4.000E-06,-0.004
-3.990E-06,0.000
-3.980E-06,0.008
-3.970E-06,0.016
-3.960E-06,0.020
-3.950E-06,0.012
-3.940E-06,-0.004
-3.930E-06,-0.008
-3.920E-06,-0.012
-3.910E-06,0.000
-3.900E-06,0.004
-3.890E-06,0.012
-3.880E-06,0.016
-3.870E-06,0.012
-3.860E-06,0.008
-3.850E-06,-0.004
-3.840E-06,-0.008
-3.830E-06,-0.008
-3.820E-06,-0.004
-3.810E-06,0.008
-3.800E-06,0.020
-3.790E-06,0.020
-3.780E-06,0.012
-3.770E-06,0.004
-3.760E-06,0.000
-3.750E-06,0.000
-3.740E-06,0.008
-3.730E-06,0.008
-3.720E-06,0.020
-3.710E-06,0.028
-3.700E-06,0.024
-3.690E-06,0.016
-3.680E-06,0.000
-3.670E-06,0.000
-3.660E-06,0.000
-3.650E-06,0.012
-3.640E-06,0.028
-3.630E-06,0.032
-3.620E-06,0.032
-3.610E-06,0.024
-3.600E-06,0.008
-3.590E-06,0.004
-3.580E-06,0.004
-3.570E-06,0.008
-3.560E-06,0.004
-3.550E-06,-0.004
-3.540E-06,-0.012
-3.530E-06,-0.016
-3.520E-06,0.008
-3.510E-06,0.028
-3.500E-06,0.048
-3.490E-06,0.048
-3.480E-06,0.016
-3.470E-06,-0.068
-3.460E-06,-0.104
-3.450E-06,-0.112
-3.440E-06,-0.044
-3.430E-06,0.040
-3.420E-06,0.092
-3.410E-06,0.076
-3.400E-06,0.012
-3.390E-06,-0.036
-3.380E-06,-0.072
-3.370E-06,-0.068
-3.360E-06,-0.020
-3.350E-06,0.028
-3.340E-06,0.056
-3.330E-06,0.056
-3.320E-06,0.016
-3.310E-06,-0.020
-3.300E-06,-0.036
-3.290E-06,-0.040
-3.280E-06,-0.024
-3.270E-06,0.004
-3.260E-06,0.032
-3.250E-06,0.036
-3.240E-06,0.028
-3.230E-06,0.008
-3.220E-06,-0.012
-3.210E-06,-0.028
-3.200E-06,-0.020
-3.190E-06,0.000
-3.180E-06,0.020
-3.170E-06,0.024
-3.160E-06,0.024
-3.150E-06,0.004
-3.140E-06,-0.004
-3.130E-06,-0.020
-3.120E-06,-0.012
-3.110E-06,-0.004
-3.100E-06,0.012
-3.090E-06,0.024
-3.080E-06,0.028
-3.070E-06,0.024
-3.060E-06,0.008
-3.050E-06,-0.008
-3.040E-06,-0.012
-3.030E-06,-0.004
-3.020E-06,-0.004
-3.010E-06,0.012
-3.000E-06,0.020
-2.990E-06,0.024
-2.980E-06,0.008
-2.970E-06,0.000
-2.960E-06,0.000
-2.950E-06,0.004
-2.940E-06,0.012
-2.930E-06,0.020
-2.920E-06,0.016
-2.910E-06,0.008
-2.900E-06,0.000
-2.890E-06,0.004
-2.880E-06,0.008
-2.870E-06,0.004
-2.860E-06,0.004
-2.850E-06,0.000
-2.840E-06,-0.004
-2.830E-06,0.004
-2.820E-06,0.012
-2.810E-06,0.024
-2.800E-06,0.016
-2.790E-06,0.000
-2.780E-06,-0.008
-2.770E-06,-0.008
-2.760E-06,0.016
-2.750E-06,0.036
-2.740E-06,0.032
-2.730E-06,0.012
-2.720E-06,-0.016
-2.710E-06,-0.036
-2.700E-06,-0.024
-2.690E-06,0.012
-2.680E-06,0.036
-2.670E-06,0.028
-2.660E-06,0.024
-2.650E-06,0.000
-2.640E-06,-0.008
-2.630E-06,-0.004
-2.620E-06,0.004
-2.610E-06,0.008
-2.600E-06,-0.008
-2.590E-06,-0.020
-2.580E-06,-0.020
-2.570E-06,-0.008
-2.560E-06,0.012
-2.550E-06,0.032
-2.540E-06,0.032
-2.530E-06,0.012
-2.520E-06,-0.004
-2.510E-06,-0.012
-2.500E-06,-0.004
-2.490E-06,0.008
-2.480E-06,0.016
-2.470E-06,0.020
-2.460E-06,0.024
-2.450E-06,0.028
-2.440E-06,0.024
-2.430E-06,0.036
-2.420E-06,0.020
-2.410E-06,0.016
-2.400E-06,0.036
-2.390E-06,0.040
-2.380E-06,0.000
-2.370E-06,-0.032
-2.360E-06,-0.048
-2.350E-06,-0.028
-2.340E-06,-0.008
-2.330E-06,0.020
-2.320E-06,0.020
-2.310E-06,0.020
-2.300E-06,0.008
-2.290E-06,-0.008
-2.280E-06,-0.020
-2.270E-06,-0.016
-2.260E-06,0.004
-2.250E-06,0.032
-2.240E-06,0.044
-2.230E-06,0.040
-2.220E-06,0.008
-2.210E-06,-0.012
-2.200E-06,-0.028
-2.190E-06,-0.012
-2.180E-06,0.004
-2.170E-06,0.028
-2.160E-06,0.044
-2.150E-06,0.032
-2.140E-06,0.012
-2.130E-06,-0.004
-2.120E-06,-0.012
-2.110E-06,-0.008
-2.100E-06,0.016
-2.090E-06,0.024
-2.080E-06,0.028
-2.070E-06,0.028
-2.060E-06,0.012
-2.050E-06,0.000
-2.040E-06,-0.004
-2.030E-06,0.000
-2.020E-06,0.008
-2.010E-06,0.028
-2.000E-06,0.028
-1.990E-06,0.044
-1.980E-06,0.056
-1.970E-06,0.052
-1.960E-06,0.040
-1.950E-06,0.012
-1.940E-06,0.020
-1.930E-06,0.004
-1.920E-06,0.032
-1.910E-06,0.020
-1.900E-06,-0.016
-1.890E-06,-0.080
-1.880E-06,-0.128
-1.870E-06,-0.168
-1.860E-06,-0.152
-1.850E-06,0.012
-1.840E-06,0.116
-1.830E-06,0.156
-1.820E-06,0.092
-1.810E-06,-0.020
-1.800E-06,-0.132
-1.790E-06,-0.160
-1.780E-06,-0.080
-1.770E-06,0.036
-1.760E-06,0.124
-1.750E-06,0.112
-1.740E-06,0.040
-1.730E-06,-0.028
-1.720E-06,-0.060
-1.710E-06,-0.072
-1.700E-06,-0.044
-1.690E-06,-0.016
-1.680E-06,0.024
-1.670E-06,0.040
-1.660E-06,0.060
-1.650E-06,0.040
-1.640E-06,0.000
-1.630E-06,-0.036
-1.620E-06,-0.056
-1.610E-06,-0.020
-1.600E-06,0.028
-1.590E-06,0.104
-1.580E-06,0.100
-1.570E-06,0.068
-1.560E-06,0.024
-1.550E-06,0.016
-1.540E-06,-0.008
-1.530E-06,-0.016
-1.520E-06,-0.036
-1.510E-06,-0.040
-1.500E-06,0.000
-1.490E-06,0.004
-1.480E-06,-0.004
-1.470E-06,-0.012
-1.460E-06,0.008
-1.450E-06,0.032
-1.440E-06,0.060
-1.430E-06,0.056
-1.420E-06,0.012
-1.410E-06,-0.032
-1.400E-06,-0.056
-1.390E-06,-0.056
-1.380E-06,-0.020
-1.370E-06,0.040
-1.360E-06,0.072
-1.350E-06,0.060
-1.340E-06,0.024
-1.330E-06,0.000
-1.320E-06,0.004
-1.310E-06,0.016
-1.300E-06,0.020
-1.290E-06,0.028
-1.280E-06,0.036
-1.270E-06,0.024
-1.260E-06,-0.068
-1.250E-06,-0.132
-1.240E-06,-0.132
-1.230E-06,-0.076
-1.220E-06,0.000
-1.210E-06,0.044
-1.200E-06,0.056
-1.190E-06,0.032
-1.180E-06,-0.004
-1.170E-06,-0.028
-1.160E-06,-0.032
-1.150E-06,-0.036
-1.140E-06,-0.008
-1.130E-06,0.032
-1.120E-06,0.048
-1.110E-06,0.052
-1.100E-06,0.028
-1.090E-06,0.012
-1.080E-06,-0.012
-1.070E-06,-0.008
-1.060E-06,0.004
-1.050E-06,0.044
-1.040E-06,0.080
-1.030E-06,0.076
-1.020E-06,0.052
-1.010E-06,0.028
-1.000E-06,0.004
-9.900E-07,0.008
-9.800E-07,0.032
-9.700E-07,0.044
-9.600E-07,0.068
-9.500E-07,0.092
-9.400E-07,0.080
-9.300E-07,0.064
-9.200E-07,0.068
-9.100E-07,0.084
-9.000E-07,0.092
-8.900E-07,0.080
-8.800E-07,-0.036
-8.700E-07,-0.168
-8.600E-07,-0.264
-8.500E-07,-0.240
-8.400E-07,-0.116
-8.300E-07,-0.008
-8.200E-07,0.128
-8.100E-07,0.116
-8.000E-07,0.036
-7.900E-07,-0.080
-7.800E-07,-0.132
-7.700E-07,-0.132
-7.600E-07,-0.060
-7.500E-07,0.044
-7.400E-07,0.112
-7.300E-07,0.128
-7.200E-07,0.048
-7.100E-07,-0.040
-7.000E-07,-0.128
-6.900E-07,-0.112
-6.800E-07,-0.048
-6.700E-07,0.060
-6.600E-07,0.124
-6.500E-07,0.132
-6.400E-07,0.084
-6.300E-07,0.004
-6.200E-07,-0.056
-6.100E-07,-0.092
-6.000E-07,-0.060
-5.900E-07,-0.012
-5.800E-07,0.072
-5.700E-07,0.116
-5.600E-07,0.116
-5.500E-07,0.068
-5.400E-07,0.028
-5.300E-07,-0.012
-5.200E-07,0.000
-5.100E-07,0.052
-5.000E-07,0.076
-4.900E-07,0.076
-4.800E-07,0.056
-4.700E-07,0.028
-4.600E-07,0.004
-4.500E-07,0.008
-4.400E-07,-0.004
-4.300E-07,0.000
-4.200E-07,0.060
-4.100E-07,0.064
-4.000E-07,0.056
-3.900E-07,-0.040
-3.800E-07,-0.128
-3.700E-07,-0.176
-3.600E-07,-0.136
-3.500E-07,-0.068
-3.400E-07,0.044
-3.300E-07,0.108
-3.200E-07,0.088
-3.100E-07,-0.004
-3.000E-07,-0.096
-2.900E-07,-0.124
-2.800E-07,-0.068
-2.700E-07,0.020
-2.600E-07,0.080
-2.500E-07,0.092
-2.400E-07,0.028
-2.300E-07,-0.028
-2.200E-07,-0.040
-2.100E-07,-0.016
-2.000E-07,0.032
-1.900E-07,0.072
-1.800E-07,0.076
-1.700E-07,0.080
-1.600E-07,0.084
-1.500E-07,0.096
-1.400E-07,0.128
-1.300E-07,0.132
-1.200E-07,0.124
-1.100E-07,0.096
-1.000E-07,0.096
-9.000E-08,0.100
-8.000E-08,0.104
-7.000E-08,-0.012
-6.000E-08,-0.188
-5.000E-08,-0.496
-4.000E-08,-0.404
-3.000E-08,-0.076
-2.000E-08,0.180
-1.000E-08,0.412
0.000E+00,0.320
1.000E-08,0.128
2.000E-08,-0.032
3.000E-08,-0.208
4.000E-08,-0.312
5.000E-08,-0.276
6.000E-08,-0.156
7.000E-08,-0.012
8.000E-08,0.072
9.000E-08,0.160
1.000E-07,0.156
1.100E-07,0.076
1.200E-07,-0.056
1.300E-07,-0.172
1.400E-07,-0.136
1.500E-07,0.000
1.600E-07,0.208
1.700E-07,0.276
1.800E-07,0.224
1.900E-07,0.108
2.000E-07,-0.024
2.100E-07,-0.152
2.200E-07,-0.140
2.300E-07,-0.096
2.400E-07,0.004
2.500E-07,0.168
2.600E-07,0.264
2.700E-07,0.232
2.800E-07,0.056
2.900E-07,-0.096
3.000E-07,-0.220
3.100E-07,-0.200
3.200E-07,-0.092
3.300E-07,-0.004
3.400E-07,0.176
3.500E-07,0.024
3.600E-07,-0.112
3.700E-07,-0.200
3.800E-07,-0.212
3.900E-07,-0.124
4.000E-07,-0.052
4.100E-07,0.016
4.200E-07,-0.028
4.300E-07,0.032
4.400E-07,0.112
4.500E-07,0.092
4.600E-07,-0.064
4.700E-07,-0.152
4.800E-07,-0.140
4.900E-07,-0.016
5.000E-07,0.128
5.100E-07,0.220
5.200E-07,0.208
5.300E-07,0.092
5.400E-07,-0.016
5.500E-07,-0.072
5.600E-07,-0.004
5.700E-07,0.096
5.800E-07,0.128
5.900E-07,0.092
6.000E-07,-0.004
6.100E-07,-0.152
6.200E-07,-0.248
6.300E-07,-0.160
6.400E-07,0.004
6.500E-07,0.132
6.600E-07,0.160
6.700E-07,0.096
6.800E-07,0.024
6.900E-07,-0.068
7.000E-07,-0.120
7.100E-07,-0.040
7.200E-07,0.044
7.300E-07,0.072
7.400E-07,0.120
7.500E-07,0.044
7.600E-07,-0.140
7.700E-07,-0.252
7.800E-07,-0.352
7.900E-07,-0.232
8.000E-07,0.108
8.100E-07,0.228
8.200E-07,0.156
8.300E-07,0.032
8.400E-07,-0.092
8.500E-07,-0.100
8.600E-07,-0.052
8.700E-07,0.012
8.800E-07,0.028
8.900E-07,0.032
9.000E-07,0.008
9.100E-07,0.012
9.200E-07,0.000
9.300E-07,0.000
9.400E-07,0.008
9.500E-07,0.012
9.600E-07,0.008
9.700E-07,0.000
9.800E-07,0.004
9.900E-07,0.008
1.000E-06,0.032
1.010E-06,0.040
1.020E-06,0.060
1.030E-06,0.052
1.040E-06,0.032
1.050E-06,0.004
1.060E-06,0.000
1.070E-06,0.028
1.080E-06,0.060
1.090E-06,0.072
1.100E-06,0.028
1.110E-06,-0.040
1.120E-06,-0.104
1.130E-06,-0.136
1.140E-06,-0.052
1.150E-06,0.080
1.160E-06,0.164
1.170E-06,0.132
1.180E-06,0.052
1.190E-06,-0.024
1.200E-06,-0.016
1.210E-06,0.020
1.220E-06,0.016
1.230E-06,-0.024
1.240E-06,-0.024
1.250E-06,0.016
1.260E-06,0.036
1.270E-06,0.036
1.280E-06,-0.004
1.290E-06,-0.036
1.300E-06,-0.052
1.310E-06,-0.024
1.320E-06,0.012
1.330E-06,0.056
1.340E-06,0.040
1.350E-06,0.036
1.360E-06,0.036
1.370E-06,0.020
1.380E-06,0.024
1.390E-06,0.036
1.400E-06,0.064
1.410E-06,0.056
1.420E-06,0.052
1.430E-06,0.048
1.440E-06,0.068
1.450E-06,0.040
1.460E-06,0.020
1.470E-06,0.024
1.480E-06,0.016
1.490E-06,0.032
1.500E-06,0.036
1.510E-06,0.016
1.520E-06,0.004
1.530E-06,0.000
1.540E-06,0.008
1.550E-06,0.000
1.560E-06,0.008
1.570E-06,0.028
1.580E-06,0.068
1.590E-06,0.104
1.600E-06,0.140
1.610E-06,0.152
1.620E-06,0.152
1.630E-06,0.156
1.640E-06,0.140
1.650E-06,0.176
1.660E-06,-0.204
1.670E-06,-0.448
1.680E-06,-0.508
1.690E-06,-0.512
1.700E-06,-0.232
1.710E-06,0.280
1.720E-06,0.528
1.730E-06,0.400
1.740E-06,0.160
1.750E-06,-0.172
1.760E-06,-0.120
1.770E-06,-0.016
1.780E-06,-0.048
1.790E-06,-0.344
1.800E-06,-0.512
1.810E-06,-0.512
1.820E-06,-0.112
1.830E-06,0.364
1.840E-06,0.540
1.850E-06,0.480
1.860E-06,0.060
1.870E-06,-0.356
1.880E-06,-0.416
1.890E-06,-0.120
1.900E-06,0.172
1.910E-06,0.392
1.920E-06,0.184
1.930E-06,-0.080
1.940E-06,-0.184
1.950E-06,-0.208
1.960E-06,-0.120
1.970E-06,-0.100
1.980E-06,0.008
1.990E-06,0.092
2.000E-06,0.212
2.010E-06,0.212
2.020E-06,0.128
2.030E-06,-0.100
2.040E-06,-0.244
2.050E-06,-0.216
2.060E-06,-0.056
2.070E-06,0.184
2.080E-06,0.320
2.090E-06,0.288
2.100E-06,0.116
2.110E-06,-0.036
2.120E-06,-0.188
2.130E-06,-0.164
2.140E-06,-0.036
2.150E-06,0.028
2.160E-06,0.084
2.170E-06,0.156
2.180E-06,0.136
2.190E-06,0.060
2.200E-06,0.048
2.210E-06,-0.028
2.220E-06,-0.064
2.230E-06,-0.040
2.240E-06,0.012
2.250E-06,0.056
2.260E-06,0.068
2.270E-06,0.036
2.280E-06,0.000
2.290E-06,-0.020
2.300E-06,-0.044
2.310E-06,-0.136
2.320E-06,-0.168
2.330E-06,-0.228
2.340E-06,-0.240
2.350E-06,-0.096
2.360E-06,0.140
2.370E-06,0.096
2.380E-06,-0.012
2.390E-06,-0.092
2.400E-06,-0.088
2.410E-06,0.016
2.420E-06,0.128
2.430E-06,0.164
2.440E-06,0.024
2.450E-06,-0.072
2.460E-06,-0.156
2.470E-06,-0.084
2.480E-06,0.020
2.490E-06,0.160
2.500E-06,0.188
2.510E-06,0.144
2.520E-06,0.040
2.530E-06,-0.040
2.540E-06,-0.104
2.550E-06,-0.128
2.560E-06,-0.068
2.570E-06,-0.008
2.580E-06,0.092
2.590E-06,0.132
2.600E-06,0.112
2.610E-06,-0.012
2.620E-06,-0.096
2.630E-06,-0.104
2.640E-06,0.000
2.650E-06,0.144
2.660E-06,0.220
2.670E-06,0.176
2.680E-06,0.032
2.690E-06,-0.076
2.700E-06,-0.136
2.710E-06,-0.096
2.720E-06,-0.032
2.730E-06,0.060
2.740E-06,0.144
2.750E-06,0.152
2.760E-06,0.096
2.770E-06,0.000
2.780E-06,-0.084
2.790E-06,-0.124
2.800E-06,-0.024
2.810E-06,0.104
2.820E-06,0.252
2.830E-06,0.244
2.840E-06,0.056
2.850E-06,-0.156
2.860E-06,-0.268
2.870E-06,-0.236
2.880E-06,-0.112
2.890E-06,0.012
2.900E-06,0.068
2.910E-06,0.108
2.920E-06,0.104
2.930E-06,0.020
2.940E-06,-0.120
2.950E-06,-0.208
2.960E-06,-0.204
2.970E-06,-0.060
2.980E-06,0.124
2.990E-06,0.200
3.000E-06,0.156
3.010E-06,-0.008
3.020E-06,-0.124
3.030E-06,-0.204
3.040E-06,-0.172
3.050E-06,-0.060
3.060E-06,0.088
3.070E-06,0.176
3.080E-06,0.172
3.090E-06,0.088
3.100E-06,-0.052
3.110E-06,-0.136
3.120E-06,-0.136
3.130E-06,-0.028
3.140E-06,0.100
3.150E-06,0.176
3.160E-06,0.160
3.170E-06,0.076
3.180E-06,-0.020
3.190E-06,-0.072
3.200E-06,-0.072
3.210E-06,-0.008
3.220E-06,0.080
3.230E-06,0.128
3.240E-06,0.124
3.250E-06,0.060
3.260E-06,-0.004
3.270E-06,-0.068
3.280E-06,-0.064
