mediciones/mediciones removidas por ser diferentes/-35/WaveData50110.csv

#timebase=2000000(ps)
,#voltbase=100000(mv/100)
#size=4000
-8.400E-06,0.004
-8.390E-06,0.000
-8.380E-06,0.004
-8.370E-06,0.004
-8.360E-06,0.004
-8.350E-06,0.004
-8.340E-06,0.004
-8.330E-06,0.004
-8.320E-06,0.004
-8.310E-06,0.004
-8.300E-06,0.004
-8.290E-06,0.004
-8.280E-06,0.004
-8.270E-06,0.004
-8.260E-06,0.000
-8.250E-06,0.000
-8.240E-06,0.004
-8.230E-06,0.004
-8.220E-06,0.004
-8.210E-06,0.004
-8.200E-06,0.004
-8.190E-06,0.000
-8.180E-06,-0.004
-8.170E-06,0.004
-8.160E-06,0.008
-8.150E-06,0.004
-8.140E-06,0.008
-8.130E-06,0.008
-8.120E-06,0.000
-8.110E-06,0.004
-8.100E-06,0.004
-8.090E-06,0.004
-8.080E-06,0.000
-8.070E-06,0.000
-8.060E-06,0.000
-8.050E-06,0.004
-8.040E-06,0.004
-8.030E-06,0.000
-8.020E-06,0.004
-8.010E-06,-0.004
-8.000E-06,0.004
-7.990E-06,0.008
-7.980E-06,0.008
-7.970E-06,0.008
-7.960E-06,0.000
-7.950E-06,0.000
-7.940E-06,0.000
-7.930E-06,0.000
-7.920E-06,0.000
-7.910E-06,0.000
-7.900E-06,0.004
-7.890E-06,0.004
-7.880E-06,0.004
-7.870E-06,0.000
-7.860E-06,0.004
-7.850E-06,0.000
-7.840E-06,0.000
-7.830E-06,0.004
-7.820E-06,0.004
-7.810E-06,0.004
-7.800E-06,0.008
-7.790E-06,0.008
-7.780E-06,0.000
-7.770E-06,0.000
-7.760E-06,0.008
-7.750E-06,0.004
-7.740E-06,0.004
-7.730E-06,0.000
-7.720E-06,0.000
-7.710E-06,0.000
-7.700E-06,0.004
-7.690E-06,0.008
-7.680E-06,0.008
-7.670E-06,0.000
-7.660E-06,0.004
-7.650E-06,0.004
-7.640E-06,0.000
-7.630E-06,0.000
-7.620E-06,0.004
-7.610E-06,0.004
-7.600E-06,0.004
-7.590E-06,0.000
-7.580E-06,0.004
-7.570E-06,0.004
-7.560E-06,0.004
-7.550E-06,0.000
-7.540E-06,-0.004
-7.530E-06,0.000
-7.520E-06,0.000
-7.510E-06,0.004
-7.500E-06,0.008
-7.490E-06,0.004
-7.480E-06,0.008
-7.470E-06,0.004
-7.460E-06,0.004
-7.450E-06,0.004
-7.440E-06,0.008
-7.430E-06,0.004
-7.420E-06,0.008
-7.410E-06,0.004
-7.400E-06,0.004
-7.390E-06,0.004
-7.380E-06,0.000
-7.370E-06,0.008
-7.360E-06,0.000
-7.350E-06,0.004
-7.340E-06,0.000
-7.330E-06,-0.004
-7.320E-06,0.000
-7.310E-06,-0.004
-7.300E-06,0.000
-7.290E-06,0.012
-7.280E-06,0.004
-7.270E-06,0.004
-7.260E-06,0.004
-7.250E-06,-0.004
-7.240E-06,-0.004
-7.230E-06,-0.004
-7.220E-06,0.004
-7.210E-06,0.008
-7.200E-06,0.004
-7.190E-06,0.000
-7.180E-06,-0.008
-7.170E-06,-0.016
-7.160E-06,-0.012
-7.150E-06,-0.004
-7.140E-06,0.000
-7.130E-06,0.016
-7.120E-06,0.040
-7.110E-06,0.052
-7.100E-06,0.032
-7.090E-06,0.012
-7.080E-06,-0.020
-7.070E-06,-0.036
-7.060E-06,-0.032
-7.050E-06,0.000
-7.040E-06,0.020
-7.030E-06,0.032
-7.020E-06,0.016
-7.010E-06,-0.004
-7.000E-06,-0.040
-6.990E-06,-0.036
-6.980E-06,-0.016
-6.970E-06,0.004
-6.960E-06,0.032
-6.950E-06,0.040
-6.940E-06,0.020
-6.930E-06,-0.004
-6.920E-06,-0.020
-6.910E-06,-0.024
-6.900E-06,-0.004
-6.890E-06,0.008
-6.880E-06,0.012
-6.870E-06,0.012
-6.860E-06,0.000
-6.850E-06,-0.008
-6.840E-06,-0.004
-6.830E-06,0.004
-6.820E-06,0.020
-6.810E-06,0.020
-6.800E-06,0.020
-6.790E-06,0.012
-6.780E-06,0.008
-6.770E-06,0.004
-6.760E-06,0.016
-6.750E-06,0.020
-6.740E-06,0.028
-6.730E-06,0.024
-6.720E-06,0.016
-6.710E-06,0.008
-6.700E-06,0.008
-6.690E-06,0.016
-6.680E-06,0.008
-6.670E-06,0.012
-6.660E-06,0.012
-6.650E-06,0.012
-6.640E-06,0.012
-6.630E-06,0.024
-6.620E-06,0.024
-6.610E-06,0.016
-6.600E-06,0.008
-6.590E-06,-0.016
-6.580E-06,-0.040
-6.570E-06,-0.044
-6.560E-06,-0.028
-6.550E-06,0.000
-6.540E-06,0.008
-6.530E-06,0.004
-6.520E-06,0.008
-6.510E-06,-0.004
-6.500E-06,0.012
-6.490E-06,0.004
-6.480E-06,0.012
-6.470E-06,0.004
-6.460E-06,-0.008
-6.450E-06,-0.024
-6.440E-06,-0.008
-6.430E-06,0.016
-6.420E-06,0.020
-6.410E-06,0.028
-6.400E-06,0.012
-6.390E-06,0.008
-6.380E-06,0.000
-6.370E-06,0.012
-6.360E-06,0.028
-6.350E-06,0.024
-6.340E-06,0.016
-6.330E-06,0.000
-6.320E-06,-0.004
-6.310E-06,-0.012
-6.300E-06,-0.004
-6.290E-06,0.000
-6.280E-06,0.008
-6.270E-06,0.016
-6.260E-06,0.012
-6.250E-06,0.020
-6.240E-06,0.032
-6.230E-06,0.024
-6.220E-06,0.032
-6.210E-06,0.032
-6.200E-06,0.024
-6.190E-06,0.032
-6.180E-06,0.028
-6.170E-06,0.016
-6.160E-06,-0.028
-6.150E-06,-0.076
-6.140E-06,-0.104
-6.130E-06,-0.088
-6.120E-06,-0.024
-6.110E-06,0.040
-6.100E-06,0.068
-6.090E-06,0.072
-6.080E-06,0.008
-6.070E-06,-0.032
-6.060E-06,-0.052
-6.050E-06,-0.016
-6.040E-06,0.012
-6.030E-06,0.044
-6.020E-06,0.048
-6.010E-06,0.032
-6.000E-06,0.028
-5.990E-06,0.028
-5.980E-06,0.048
-5.970E-06,0.044
-5.960E-06,0.016
-5.950E-06,-0.068
-5.940E-06,-0.120
-5.930E-06,-0.112
-5.920E-06,-0.032
-5.910E-06,0.044
-5.900E-06,0.064
-5.890E-06,0.060
-5.880E-06,0.000
-5.870E-06,-0.044
-5.860E-06,-0.056
-5.850E-06,-0.036
-5.840E-06,0.012
-5.830E-06,0.040
-5.820E-06,0.040
-5.810E-06,0.012
-5.800E-06,-0.004
-5.790E-06,0.004
-5.780E-06,0.012
-5.770E-06,0.024
-5.760E-06,0.024
-5.750E-06,0.020
-5.740E-06,0.016
-5.730E-06,0.008
-5.720E-06,0.008
-5.710E-06,0.008
-5.700E-06,0.028
-5.690E-06,0.048
-5.680E-06,0.068
-5.670E-06,-0.020
-5.660E-06,-0.128
-5.650E-06,-0.148
-5.640E-06,-0.144
-5.630E-06,-0.016
-5.620E-06,0.092
-5.610E-06,0.132
-5.600E-06,0.084
-5.590E-06,0.012
-5.580E-06,-0.060
-5.570E-06,-0.088
-5.560E-06,-0.044
-5.550E-06,0.020
-5.540E-06,0.056
-5.530E-06,0.052
-5.520E-06,0.028
-5.510E-06,-0.024
-5.500E-06,-0.036
-5.490E-06,-0.020
-5.480E-06,0.012
-5.470E-06,0.028
-5.460E-06,0.028
-5.450E-06,0.008
-5.440E-06,-0.004
-5.430E-06,-0.004
-5.420E-06,0.012
-5.410E-06,0.024
-5.400E-06,0.012
-5.390E-06,0.012
-5.380E-06,-0.004
-5.370E-06,-0.004
-5.360E-06,-0.004
-5.350E-06,0.000
-5.340E-06,0.020
-5.330E-06,0.024
-5.320E-06,0.008
-5.310E-06,-0.008
-5.300E-06,0.000
-5.290E-06,0.000
-5.280E-06,0.008
-5.270E-06,0.008
-5.260E-06,0.008
-5.250E-06,0.004
-5.240E-06,0.008
-5.230E-06,0.012
-5.220E-06,0.012
-5.210E-06,0.008
-5.200E-06,0.004
-5.190E-06,-0.004
-5.180E-06,-0.004
-5.170E-06,0.000
-5.160E-06,0.016
-5.150E-06,0.020
-5.140E-06,0.012
-5.130E-06,0.008
-5.120E-06,0.004
-5.110E-06,0.016
-5.100E-06,0.012
-5.090E-06,0.016
-5.080E-06,0.004
-5.070E-06,0.000
-5.060E-06,0.004
-5.050E-06,0.012
-5.040E-06,0.016
-5.030E-06,0.016
-5.020E-06,0.016
-5.010E-06,0.008
-5.000E-06,0.012
-4.990E-06,0.028
-4.980E-06,0.036
-4.970E-06,0.028
-4.960E-06,0.048
-4.950E-06,0.028
-4.940E-06,-0.060
-4.930E-06,-0.104
-4.920E-06,-0.156
-4.910E-06,-0.088
-4.900E-06,0.012
-4.890E-06,0.072
-4.880E-06,0.096
-4.870E-06,0.076
-4.860E-06,0.008
-4.850E-06,-0.052
-4.840E-06,-0.064
-4.830E-06,-0.028
-4.820E-06,0.028
-4.810E-06,0.052
-4.800E-06,0.032
-4.790E-06,0.008
-4.780E-06,-0.012
-4.770E-06,-0.004
-4.760E-06,0.008
-4.750E-06,0.020
-4.740E-06,0.012
-4.730E-06,0.004
-4.720E-06,-0.016
-4.710E-06,-0.004
-4.700E-06,0.008
-4.690E-06,0.024
-4.680E-06,0.032
-4.670E-06,0.028
-4.660E-06,0.012
-4.650E-06,0.000
-4.640E-06,0.008
-4.630E-06,0.028
-4.620E-06,0.048
-4.610E-06,0.060
-4.600E-06,0.036
-4.590E-06,0.020
-4.580E-06,0.028
-4.570E-06,0.024
-4.560E-06,-0.144
-4.550E-06,-0.220
-4.540E-06,-0.216
-4.530E-06,-0.076
-4.520E-06,0.092
-4.510E-06,0.200
-4.500E-06,0.152
-4.490E-06,0.072
-4.480E-06,-0.040
-4.470E-06,-0.128
-4.460E-06,-0.136
-4.450E-06,-0.036
-4.440E-06,0.072
-4.430E-06,0.108
-4.420E-06,0.076
-4.410E-06,-0.008
-4.400E-06,-0.064
-4.390E-06,-0.080
-4.380E-06,-0.020
-4.370E-06,0.016
-4.360E-06,0.048
-4.350E-06,0.052
-4.340E-06,0.016
-4.330E-06,-0.028
-4.320E-06,-0.036
-4.310E-06,-0.016
-4.300E-06,0.008
-4.290E-06,0.032
-4.280E-06,0.024
-4.270E-06,-0.004
-4.260E-06,-0.012
-4.250E-06,-0.008
-4.240E-06,0.000
-4.230E-06,0.020
-4.220E-06,0.028
-4.210E-06,0.024
-4.200E-06,0.028
-4.190E-06,-0.004
-4.180E-06,-0.012
-4.170E-06,-0.016
-4.160E-06,0.000
-4.150E-06,0.008
-4.140E-06,0.024
-4.130E-06,0.020
-4.120E-06,0.000
-4.110E-06,-0.008
-4.100E-06,-0.012
-4.090E-06,-0.004
-4.080E-06,0.004
-4.070E-06,0.024
-4.060E-06,0.012
-4.050E-06,0.016
-4.040E-06,0.008
-4.030E-06,-0.004
-4.020E-06,-0.004
-4.010E-06,-0.004
-4.000E-06,0.008
-3.990E-06,0.008
-3.980E-06,0.016
-3.970E-06,0.012
-3.960E-06,0.012
-3.950E-06,0.004
-3.940E-06,0.000
-3.930E-06,0.004
-3.920E-06,0.012
-3.910E-06,0.016
-3.900E-06,0.020
-3.890E-06,0.028
-3.880E-06,0.024
-3.870E-06,0.024
-3.860E-06,0.048
-3.850E-06,0.016
-3.840E-06,-0.052
-3.830E-06,-0.052
-3.820E-06,-0.052
-3.810E-06,-0.020
-3.800E-06,0.028
-3.790E-06,0.008
-3.780E-06,0.004
-3.770E-06,0.008
-3.760E-06,-0.008
-3.750E-06,-0.008
-3.740E-06,-0.004
-3.730E-06,0.012
-3.720E-06,0.028
-3.710E-06,0.024
-3.700E-06,0.016
-3.690E-06,0.016
-3.680E-06,0.012
-3.670E-06,0.008
-3.660E-06,0.008
-3.650E-06,-0.024
-3.640E-06,-0.040
-3.630E-06,-0.072
-3.620E-06,-0.044
-3.610E-06,-0.008
-3.600E-06,0.028
-3.590E-06,0.068
-3.580E-06,0.048
-3.570E-06,0.012
-3.560E-06,-0.028
-3.550E-06,-0.032
-3.540E-06,-0.028
-3.530E-06,-0.004
-3.520E-06,0.024
-3.510E-06,0.048
-3.500E-06,0.028
-3.490E-06,0.000
-3.480E-06,-0.020
-3.470E-06,-0.016
-3.460E-06,-0.004
-3.450E-06,0.016
-3.440E-06,0.032
-3.430E-06,0.024
-3.420E-06,0.012
-3.410E-06,0.000
-3.400E-06,-0.004
-3.390E-06,-0.004
-3.380E-06,0.000
-3.370E-06,0.008
-3.360E-06,-0.004
-3.350E-06,-0.004
-3.340E-06,0.004
-3.330E-06,0.016
-3.320E-06,0.024
-3.310E-06,0.032
-3.300E-06,0.008
-3.290E-06,0.004
-3.280E-06,-0.024
-3.270E-06,0.004
-3.260E-06,0.008
-3.250E-06,0.024
-3.240E-06,0.068
-3.230E-06,-0.092
-3.220E-06,-0.020
-3.210E-06,-0.076
-3.200E-06,-0.016
-3.190E-06,0.048
-3.180E-06,0.048
-3.170E-06,0.060
-3.160E-06,0.028
-3.150E-06,-0.032
-3.140E-06,-0.076
-3.130E-06,-0.052
-3.120E-06,0.008
-3.110E-06,0.072
-3.100E-06,0.056
-3.090E-06,0.028
-3.080E-06,-0.020
-3.070E-06,-0.040
-3.060E-06,-0.028
-3.050E-06,0.012
-3.040E-06,0.036
-3.030E-06,0.036
-3.020E-06,0.020
-3.010E-06,-0.028
-3.000E-06,-0.032
-2.990E-06,-0.012
-2.980E-06,0.012
-2.970E-06,0.024
-2.960E-06,0.036
-2.950E-06,0.016
-2.940E-06,-0.004
-2.930E-06,-0.008
-2.920E-06,-0.012
-2.910E-06,-0.008
-2.900E-06,0.008
-2.890E-06,0.016
-2.880E-06,0.016
-2.870E-06,0.008
-2.860E-06,0.000
-2.850E-06,0.000
-2.840E-06,0.004
-2.830E-06,0.008
-2.820E-06,0.020
-2.810E-06,0.032
-2.800E-06,0.032
-2.790E-06,0.024
-2.780E-06,0.004
-2.770E-06,-0.020
-2.760E-06,-0.024
-2.750E-06,-0.012
-2.740E-06,0.004
-2.730E-06,0.028
-2.720E-06,0.036
-2.710E-06,0.008
-2.700E-06,-0.004
-2.690E-06,-0.036
-2.680E-06,-0.016
-2.670E-06,-0.004
-2.660E-06,0.012
-2.650E-06,0.040
-2.640E-06,0.028
-2.630E-06,0.012
-2.620E-06,-0.004
-2.610E-06,-0.008
-2.600E-06,-0.008
-2.590E-06,0.004
-2.580E-06,0.020
-2.570E-06,0.028
-2.560E-06,0.016
-2.550E-06,0.012
-2.540E-06,0.004
-2.530E-06,0.000
-2.520E-06,0.008
-2.510E-06,0.020
-2.500E-06,0.020
-2.490E-06,0.016
-2.480E-06,-0.004
-2.470E-06,-0.008
-2.460E-06,-0.020
-2.450E-06,-0.016
-2.440E-06,0.024
-2.430E-06,0.028
-2.420E-06,0.020
-2.410E-06,0.032
-2.400E-06,0.032
-2.390E-06,0.012
-2.380E-06,-0.012
-2.370E-06,-0.008
-2.360E-06,0.004
-2.350E-06,0.020
-2.340E-06,0.024
-2.330E-06,0.024
-2.320E-06,0.024
-2.310E-06,0.028
-2.300E-06,0.032
-2.290E-06,0.008
-2.280E-06,-0.012
-2.270E-06,-0.036
-2.260E-06,-0.032
-2.250E-06,-0.028
-2.240E-06,0.000
-2.230E-06,-0.164
-2.220E-06,-0.060
-2.210E-06,-0.076
-2.200E-06,0.040
-2.190E-06,0.088
-2.180E-06,0.064
-2.170E-06,0.060
-2.160E-06,-0.004
-2.150E-06,-0.040
-2.140E-06,-0.060
-2.130E-06,-0.012
-2.120E-06,0.028
-2.110E-06,0.048
-2.100E-06,0.028
-2.090E-06,0.012
-2.080E-06,-0.016
-2.070E-06,-0.020
-2.060E-06,-0.004
-2.050E-06,0.020
-2.040E-06,0.028
-2.030E-06,0.028
-2.020E-06,0.012
-2.010E-06,-0.016
-2.000E-06,-0.032
-1.990E-06,-0.024
-1.980E-06,-0.004
-1.970E-06,0.016
-1.960E-06,0.032
-1.950E-06,0.028
-1.940E-06,0.012
-1.930E-06,-0.004
-1.920E-06,-0.024
-1.910E-06,0.000
-1.900E-06,0.008
-1.890E-06,0.028
-1.880E-06,0.036
-1.870E-06,0.036
-1.860E-06,0.016
-1.850E-06,-0.020
-1.840E-06,-0.040
-1.830E-06,-0.036
-1.820E-06,0.004
-1.810E-06,0.028
-1.800E-06,0.028
-1.790E-06,0.036
-1.780E-06,0.004
-1.770E-06,-0.020
-1.760E-06,-0.036
-1.750E-06,-0.032
-1.740E-06,-0.004
-1.730E-06,0.036
-1.720E-06,0.036
-1.710E-06,0.040
-1.700E-06,0.008
-1.690E-06,0.000
-1.680E-06,-0.020
-1.670E-06,-0.008
-1.660E-06,0.000
-1.650E-06,0.020
-1.640E-06,0.020
-1.630E-06,0.020
-1.620E-06,-0.008
-1.610E-06,-0.028
-1.600E-06,-0.032
-1.590E-06,-0.008
-1.580E-06,0.028
-1.570E-06,0.036
-1.560E-06,0.036
-1.550E-06,0.024
-1.540E-06,-0.012
-1.530E-06,-0.008
-1.520E-06,-0.012
-1.510E-06,0.004
-1.500E-06,0.024
-1.490E-06,0.032
-1.480E-06,0.024
-1.470E-06,0.016
-1.460E-06,0.000
-1.450E-06,-0.004
-1.440E-06,0.008
-1.430E-06,0.012
-1.420E-06,-0.008
-1.410E-06,-0.008
-1.400E-06,-0.032
-1.390E-06,-0.032
-1.380E-06,-0.012
-1.370E-06,0.020
-1.360E-06,0.040
-1.350E-06,0.044
-1.340E-06,0.012
-1.330E-06,-0.024
-1.320E-06,-0.028
-1.310E-06,-0.020
-1.300E-06,-0.004
-1.290E-06,0.024
-1.280E-06,0.032
-1.270E-06,0.028
-1.260E-06,0.020
-1.250E-06,0.000
-1.240E-06,-0.004
-1.230E-06,-0.004
-1.220E-06,-0.020
-1.210E-06,-0.040
-1.200E-06,-0.016
-1.190E-06,-0.008
-1.180E-06,0.020
-1.170E-06,0.016
-1.160E-06,-0.008
-1.150E-06,-0.012
-1.140E-06,-0.020
-1.130E-06,-0.004
-1.120E-06,0.004
-1.110E-06,0.012
-1.100E-06,0.016
-1.090E-06,0.028
-1.080E-06,0.000
-1.070E-06,-0.008
-1.060E-06,-0.008
-1.050E-06,-0.008
-1.040E-06,0.004
-1.030E-06,0.024
-1.020E-06,0.024
-1.010E-06,0.020
-1.000E-06,0.004
-9.900E-07,-0.004
-9.800E-07,-0.004
-9.700E-07,0.004
-9.600E-07,0.012
-9.500E-07,0.004
-9.400E-07,-0.004
-9.300E-07,-0.008
-9.200E-07,-0.004
-9.100E-07,0.012
-9.000E-07,0.016
-8.900E-07,0.020
-8.800E-07,0.016
-8.700E-07,0.000
-8.600E-07,-0.004
-8.500E-07,0.008
-8.400E-07,0.012
-8.300E-07,0.016
-8.200E-07,0.028
-8.100E-07,0.024
-8.000E-07,0.024
-7.900E-07,0.028
-7.800E-07,0.048
-7.700E-07,-0.048
-7.600E-07,-0.056
-7.500E-07,-0.120
-7.400E-07,-0.136
-7.300E-07,-0.004
-7.200E-07,0.088
-7.100E-07,0.124
-7.000E-07,0.100
-6.900E-07,0.020
-6.800E-07,-0.068
-6.700E-07,-0.084
-6.600E-07,-0.072
-6.500E-07,-0.016
-6.400E-07,0.016
-6.300E-07,0.024
-6.200E-07,0.012
-6.100E-07,-0.004
-6.000E-07,-0.004
-5.900E-07,-0.004
-5.800E-07,0.016
-5.700E-07,0.012
-5.600E-07,0.012
-5.500E-07,-0.004
-5.400E-07,-0.020
-5.300E-07,-0.024
-5.200E-07,0.000
-5.100E-07,0.012
-5.000E-07,0.032
-4.900E-07,0.020
-4.800E-07,0.004
-4.700E-07,-0.012
-4.600E-07,-0.012
-4.500E-07,0.000
-4.400E-07,0.012
-4.300E-07,0.032
-4.200E-07,0.036
-4.100E-07,0.040
-4.000E-07,0.036
-3.900E-07,-0.016
-3.800E-07,-0.012
-3.700E-07,-0.060
-3.600E-07,-0.020
-3.500E-07,0.004
-3.400E-07,0.028
-3.300E-07,0.032
-3.200E-07,0.028
-3.100E-07,0.012
-3.000E-07,-0.008
-2.900E-07,-0.008
-2.800E-07,-0.004
-2.700E-07,0.012
-2.600E-07,0.012
-2.500E-07,0.016
-2.400E-07,0.008
-2.300E-07,0.016
-2.200E-07,0.024
-2.100E-07,0.028
-2.000E-07,0.024
-1.900E-07,0.020
-1.800E-07,0.016
-1.700E-07,0.012
-1.600E-07,0.028
-1.500E-07,0.052
-1.400E-07,0.060
-1.300E-07,0.036
-1.200E-07,-0.024
-1.100E-07,-0.068
-1.000E-07,-0.080
-9.000E-08,0.036
-8.000E-08,0.108
-7.000E-08,0.132
-6.000E-08,-0.024
-5.000E-08,-0.268
-4.000E-08,-0.340
-3.000E-08,-0.208
-2.000E-08,0.064
-1.000E-08,0.208
0.000E+00,0.252
1.000E-08,0.148
2.000E-08,-0.012
3.000E-08,-0.152
4.000E-08,-0.180
5.000E-08,-0.096
6.000E-08,0.068
7.000E-08,0.136
8.000E-08,0.116
9.000E-08,0.056
1.000E-07,-0.028
1.100E-07,-0.084
1.200E-07,-0.068
1.300E-07,-0.024
1.400E-07,0.020
1.500E-07,0.060
1.600E-07,0.040
1.700E-07,0.012
1.800E-07,-0.004
1.900E-07,-0.008
2.000E-07,0.008
2.100E-07,0.044
2.200E-07,0.056
2.300E-07,0.012
2.400E-07,-0.024
2.500E-07,-0.036
2.600E-07,-0.024
2.700E-07,-0.016
2.800E-07,0.004
2.900E-07,-0.024
3.000E-07,-0.008
3.100E-07,0.000
3.200E-07,0.008
3.300E-07,0.028
3.400E-07,0.028
3.500E-07,0.008
3.600E-07,-0.016
3.700E-07,-0.020
3.800E-07,-0.012
3.900E-07,0.024
4.000E-07,0.032
4.100E-07,0.024
4.200E-07,0.012
4.300E-07,-0.008
4.400E-07,-0.008
4.500E-07,0.008
4.600E-07,0.036
4.700E-07,0.064
4.800E-07,0.032
4.900E-07,-0.004
5.000E-07,-0.072
5.100E-07,-0.112
5.200E-07,-0.020
5.300E-07,0.036
5.400E-07,0.060
5.500E-07,0.056
5.600E-07,0.024
5.700E-07,-0.024
5.800E-07,-0.052
5.900E-07,-0.036
6.000E-07,0.008
6.100E-07,0.044
6.200E-07,0.040
6.300E-07,0.016
6.400E-07,-0.008
6.500E-07,-0.020
6.600E-07,-0.004
6.700E-07,0.028
6.800E-07,0.040
6.900E-07,0.020
7.000E-07,-0.008
7.100E-07,-0.036
7.200E-07,-0.032
7.300E-07,-0.004
7.400E-07,0.016
7.500E-07,0.028
7.600E-07,0.028
7.700E-07,-0.004
7.800E-07,-0.024
7.900E-07,-0.020
8.000E-07,-0.012
8.100E-07,0.024
8.200E-07,0.028
8.300E-07,0.028
8.400E-07,0.028
8.500E-07,0.020
8.600E-07,0.028
8.700E-07,0.060
8.800E-07,-0.072
8.900E-07,-0.072
9.000E-07,-0.076
9.100E-07,-0.028
9.200E-07,0.044
9.300E-07,0.068
9.400E-07,0.064
9.500E-07,0.028
9.600E-07,-0.036
9.700E-07,-0.100
9.800E-07,-0.080
9.900E-07,0.000
1.000E-06,0.072
1.010E-06,0.076
1.020E-06,0.036
1.030E-06,-0.024
1.040E-06,-0.068
1.050E-06,-0.052
1.060E-06,0.000
1.070E-06,0.036
1.080E-06,0.052
1.090E-06,0.032
1.100E-06,-0.004
1.110E-06,-0.036
1.120E-06,-0.024
1.130E-06,0.000
1.140E-06,0.012
1.150E-06,0.032
1.160E-06,0.024
1.170E-06,0.000
1.180E-06,-0.008
1.190E-06,-0.008
1.200E-06,0.000
1.210E-06,0.020
1.220E-06,0.044
1.230E-06,0.028
1.240E-06,0.016
1.250E-06,-0.012
1.260E-06,-0.036
1.270E-06,0.000
1.280E-06,0.004
1.290E-06,0.012
1.300E-06,0.012
1.310E-06,0.016
1.320E-06,0.012
1.330E-06,0.012
1.340E-06,0.008
1.350E-06,0.008
1.360E-06,0.008
1.370E-06,0.000
1.380E-06,0.008
1.390E-06,0.004
1.400E-06,0.008
1.410E-06,0.020
1.420E-06,0.016
1.430E-06,0.016
1.440E-06,0.016
1.450E-06,0.008
1.460E-06,0.020
1.470E-06,0.032
1.480E-06,0.040
1.490E-06,0.028
1.500E-06,-0.084
1.510E-06,-0.132
1.520E-06,-0.128
1.530E-06,-0.012
1.540E-06,0.064
1.550E-06,0.088
1.560E-06,0.064
1.570E-06,0.012
1.580E-06,-0.040
1.590E-06,-0.080
1.600E-06,-0.052
1.610E-06,0.024
1.620E-06,0.080
1.630E-06,0.068
1.640E-06,0.020
1.650E-06,-0.024
1.660E-06,-0.032
1.670E-06,-0.008
1.680E-06,0.044
1.690E-06,0.028
1.700E-06,0.004
1.710E-06,-0.024
1.720E-06,-0.036
1.730E-06,-0.020
1.740E-06,0.008
1.750E-06,0.024
1.760E-06,0.020
1.770E-06,0.012
1.780E-06,-0.004
1.790E-06,-0.012
1.800E-06,-0.008
1.810E-06,0.000
1.820E-06,0.012
1.830E-06,0.032
1.840E-06,0.024
1.850E-06,0.024
1.860E-06,0.020
1.870E-06,0.012
1.880E-06,-0.004
1.890E-06,-0.004
1.900E-06,-0.012
1.910E-06,0.004
1.920E-06,0.024
1.930E-06,0.032
1.940E-06,0.024
1.950E-06,0.024
1.960E-06,0.008
1.970E-06,-0.004
1.980E-06,-0.004
1.990E-06,0.000
2.000E-06,0.016
2.010E-06,0.040
2.020E-06,0.040
2.030E-06,0.044
2.040E-06,0.000
2.050E-06,0.000
2.060E-06,-0.044
2.070E-06,-0.060
2.080E-06,-0.020
2.090E-06,0.048
2.100E-06,0.076
2.110E-06,0.092
2.120E-06,0.072
2.130E-06,0.056
2.140E-06,-0.016
2.150E-06,-0.052
2.160E-06,-0.160
2.170E-06,-0.156
2.180E-06,-0.104
2.190E-06,-0.032
2.200E-06,0.100
2.210E-06,0.128
2.220E-06,0.112
2.230E-06,0.016
2.240E-06,-0.068
2.250E-06,-0.100
2.260E-06,-0.064
2.270E-06,-0.024
2.280E-06,0.028
2.290E-06,0.000
2.300E-06,-0.008
2.310E-06,0.008
2.320E-06,0.004
2.330E-06,0.016
2.340E-06,0.028
2.350E-06,0.012
2.360E-06,-0.004
2.370E-06,-0.008
2.380E-06,-0.012
2.390E-06,0.004
2.400E-06,0.024
2.410E-06,0.044
2.420E-06,0.052
2.430E-06,0.040
2.440E-06,0.000
2.450E-06,-0.016
2.460E-06,-0.004
2.470E-06,-0.024
2.480E-06,0.012
2.490E-06,0.048
2.500E-06,0.052
2.510E-06,0.068
2.520E-06,0.036
2.530E-06,-0.044
2.540E-06,-0.092
2.550E-06,-0.144
2.560E-06,-0.144
2.570E-06,0.024
2.580E-06,0.092
2.590E-06,0.092
2.600E-06,0.068
2.610E-06,-0.004
2.620E-06,-0.060
2.630E-06,-0.064
2.640E-06,-0.028
2.650E-06,0.028
2.660E-06,0.076
2.670E-06,0.060
2.680E-06,0.016
2.690E-06,-0.004
2.700E-06,-0.008
2.710E-06,0.004
2.720E-06,0.056
2.730E-06,0.044
2.740E-06,0.024
2.750E-06,0.000
2.760E-06,-0.012
2.770E-06,-0.008
2.780E-06,0.008
2.790E-06,-0.004
2.800E-06,0.016
2.810E-06,-0.004
2.820E-06,-0.032
2.830E-06,0.020
2.840E-06,0.072
2.850E-06,0.076
2.860E-06,0.064
2.870E-06,0.024
2.880E-06,0.016
2.890E-06,0.020
2.900E-06,0.040
2.910E-06,-0.084
2.920E-06,-0.140
2.930E-06,-0.172
2.940E-06,-0.172
2.950E-06,-0.092
2.960E-06,0.048
2.970E-06,0.120
2.980E-06,0.108
2.990E-06,0.056
3.000E-06,-0.024
3.010E-06,-0.076
3.020E-06,-0.060
3.030E-06,0.004
3.040E-06,0.036
3.050E-06,0.068
3.060E-06,0.032
3.070E-06,0.000
3.080E-06,-0.028
3.090E-06,-0.008
3.100E-06,-0.008
3.110E-06,0.008
3.120E-06,-0.004
3.130E-06,-0.012
3.140E-06,0.000
3.150E-06,0.020
3.160E-06,0.060
3.170E-06,0.056
3.180E-06,0.052
3.190E-06,0.000
3.200E-06,-0.032
3.210E-06,-0.004
3.220E-06,0.016
3.230E-06,0.044
3.240E-06,0.044
3.250E-06,0.032
3.260E-06,0.012
3.270E-06,0.000
3.280E-06,-0.020
