mediciones/5-15/-40/WaveData47635.csv

#timebase=2000000(ps)
,#voltbase=100000(mv/100)
#size=4000
-8.400E-06,0.024
-8.390E-06,0.012
-8.380E-06,-0.004
-8.370E-06,-0.008
-8.360E-06,0.000
-8.350E-06,0.004
-8.340E-06,0.012
-8.330E-06,0.012
-8.320E-06,0.012
-8.310E-06,0.000
-8.300E-06,-0.004
-8.290E-06,-0.008
-8.280E-06,-0.008
-8.270E-06,0.008
-8.260E-06,0.024
-8.250E-06,0.020
-8.240E-06,0.020
-8.230E-06,0.008
-8.220E-06,-0.004
-8.210E-06,0.000
-8.200E-06,-0.004
-8.190E-06,-0.004
-8.180E-06,0.008
-8.170E-06,0.008
-8.160E-06,0.016
-8.150E-06,0.028
-8.140E-06,0.024
-8.130E-06,0.012
-8.120E-06,-0.004
-8.110E-06,-0.020
-8.100E-06,-0.020
-8.090E-06,0.004
-8.080E-06,0.028
-8.070E-06,0.036
-8.060E-06,0.024
-8.050E-06,0.004
-8.040E-06,-0.008
-8.030E-06,-0.004
-8.020E-06,-0.020
-8.010E-06,-0.012
-8.000E-06,-0.036
-7.990E-06,-0.004
-7.980E-06,0.016
-7.970E-06,0.036
-7.960E-06,0.032
-7.950E-06,0.024
-7.940E-06,-0.016
-7.930E-06,-0.072
-7.920E-06,-0.056
-7.910E-06,-0.008
-7.900E-06,0.072
-7.890E-06,0.088
-7.880E-06,0.056
-7.870E-06,-0.008
-7.860E-06,-0.064
-7.850E-06,-0.072
-7.840E-06,-0.024
-7.830E-06,0.036
-7.820E-06,0.064
-7.810E-06,0.052
-7.800E-06,0.012
-7.790E-06,-0.016
-7.780E-06,-0.040
-7.770E-06,-0.024
-7.760E-06,0.012
-7.750E-06,0.032
-7.740E-06,0.032
-7.730E-06,0.020
-7.720E-06,0.008
-7.710E-06,-0.012
-7.700E-06,-0.004
-7.690E-06,0.000
-7.680E-06,0.004
-7.670E-06,0.000
-7.660E-06,0.008
-7.650E-06,0.012
-7.640E-06,0.008
-7.630E-06,0.000
-7.620E-06,-0.004
-7.610E-06,-0.008
-7.600E-06,-0.008
-7.590E-06,0.004
-7.580E-06,0.020
-7.570E-06,0.028
-7.560E-06,0.016
-7.550E-06,0.000
-7.540E-06,-0.016
-7.530E-06,-0.020
-7.520E-06,0.000
-7.510E-06,0.016
-7.500E-06,0.032
-7.490E-06,0.028
-7.480E-06,0.012
-7.470E-06,0.000
-7.460E-06,-0.008
-7.450E-06,-0.008
-7.440E-06,0.012
-7.430E-06,0.032
-7.420E-06,0.028
-7.410E-06,0.016
-7.400E-06,0.008
-7.390E-06,-0.004
-7.380E-06,-0.016
-7.370E-06,-0.012
-7.360E-06,0.000
-7.350E-06,0.012
-7.340E-06,0.016
-7.330E-06,0.020
-7.320E-06,0.012
-7.310E-06,0.012
-7.300E-06,0.008
-7.290E-06,-0.008
-7.280E-06,-0.016
-7.270E-06,-0.012
-7.260E-06,-0.004
-7.250E-06,0.012
-7.240E-06,0.024
-7.230E-06,0.008
-7.220E-06,0.004
-7.210E-06,-0.008
-7.200E-06,-0.012
-7.190E-06,-0.008
-7.180E-06,0.004
-7.170E-06,0.012
-7.160E-06,0.012
-7.150E-06,-0.004
-7.140E-06,0.000
-7.130E-06,0.004
-7.120E-06,0.004
-7.110E-06,0.004
-7.100E-06,-0.004
-7.090E-06,-0.008
-7.080E-06,-0.004
-7.070E-06,0.012
-7.060E-06,0.024
-7.050E-06,0.020
-7.040E-06,0.016
-7.030E-06,-0.004
-7.020E-06,-0.008
-7.010E-06,-0.004
-7.000E-06,0.004
-6.990E-06,0.008
-6.980E-06,0.020
-6.970E-06,0.020
-6.960E-06,0.024
-6.950E-06,0.012
-6.940E-06,0.012
-6.930E-06,0.000
-6.920E-06,-0.004
-6.910E-06,-0.008
-6.900E-06,-0.004
-6.890E-06,0.008
-6.880E-06,0.024
-6.870E-06,0.024
-6.860E-06,0.016
-6.850E-06,0.004
-6.840E-06,-0.012
-6.830E-06,-0.012
-6.820E-06,-0.004
-6.810E-06,0.012
-6.800E-06,0.020
-6.790E-06,0.024
-6.780E-06,0.016
-6.770E-06,0.008
-6.760E-06,0.024
-6.750E-06,0.024
-6.740E-06,0.000
-6.730E-06,-0.032
-6.720E-06,-0.036
-6.710E-06,-0.060
-6.700E-06,-0.032
-6.690E-06,0.020
-6.680E-06,0.060
-6.670E-06,0.032
-6.660E-06,-0.024
-6.650E-06,-0.040
-6.640E-06,-0.032
-6.630E-06,0.020
-6.620E-06,0.028
-6.610E-06,0.028
-6.600E-06,0.004
-6.590E-06,-0.008
-6.580E-06,-0.028
-6.570E-06,-0.020
-6.560E-06,-0.004
-6.550E-06,0.020
-6.540E-06,0.028
-6.530E-06,0.024
-6.520E-06,0.008
-6.510E-06,-0.008
-6.500E-06,-0.016
-6.490E-06,-0.004
-6.480E-06,0.004
-6.470E-06,0.008
-6.460E-06,0.012
-6.450E-06,0.008
-6.440E-06,0.016
-6.430E-06,0.012
-6.420E-06,0.000
-6.410E-06,0.000
-6.400E-06,-0.004
-6.390E-06,0.004
-6.380E-06,0.012
-6.370E-06,0.016
-6.360E-06,0.012
-6.350E-06,0.000
-6.340E-06,-0.004
-6.330E-06,-0.004
-6.320E-06,0.004
-6.310E-06,0.012
-6.300E-06,0.020
-6.290E-06,0.024
-6.280E-06,0.008
-6.270E-06,-0.004
-6.260E-06,-0.004
-6.250E-06,0.000
-6.240E-06,0.004
-6.230E-06,0.012
-6.220E-06,0.016
-6.210E-06,0.008
-6.200E-06,0.008
-6.190E-06,0.008
-6.180E-06,0.004
-6.170E-06,0.008
-6.160E-06,0.012
-6.150E-06,0.008
-6.140E-06,0.036
-6.130E-06,0.036
-6.120E-06,0.004
-6.110E-06,-0.032
-6.100E-06,-0.052
-6.090E-06,-0.068
-6.080E-06,-0.012
-6.070E-06,0.052
-6.060E-06,0.068
-6.050E-06,0.020
-6.040E-06,-0.036
-6.030E-06,-0.048
-6.020E-06,-0.036
-6.010E-06,0.008
-6.000E-06,0.036
-5.990E-06,0.040
-5.980E-06,0.012
-5.970E-06,-0.016
-5.960E-06,-0.040
-5.950E-06,-0.024
-5.940E-06,0.008
-5.930E-06,0.036
-5.920E-06,0.036
-5.910E-06,0.008
-5.900E-06,-0.012
-5.890E-06,-0.028
-5.880E-06,-0.016
-5.870E-06,0.000
-5.860E-06,0.024
-5.850E-06,0.028
-5.840E-06,0.020
-5.830E-06,0.016
-5.820E-06,0.004
-5.810E-06,-0.008
-5.800E-06,0.000
-5.790E-06,0.000
-5.780E-06,0.004
-5.770E-06,0.012
-5.760E-06,0.016
-5.750E-06,0.012
-5.740E-06,0.008
-5.730E-06,0.008
-5.720E-06,0.000
-5.710E-06,0.004
-5.700E-06,0.012
-5.690E-06,0.028
-5.680E-06,0.024
-5.670E-06,0.000
-5.660E-06,-0.008
-5.650E-06,-0.012
-5.640E-06,0.008
-5.630E-06,0.032
-5.620E-06,0.052
-5.610E-06,0.044
-5.600E-06,0.024
-5.590E-06,-0.020
-5.580E-06,-0.056
-5.570E-06,-0.056
-5.560E-06,-0.024
-5.550E-06,0.016
-5.540E-06,0.060
-5.530E-06,0.076
-5.520E-06,0.064
-5.510E-06,0.000
-5.500E-06,-0.048
-5.490E-06,-0.072
-5.480E-06,-0.072
-5.470E-06,-0.028
-5.460E-06,0.036
-5.450E-06,0.072
-5.440E-06,0.052
-5.430E-06,0.020
-5.420E-06,-0.024
-5.410E-06,-0.040
-5.400E-06,-0.044
-5.390E-06,-0.016
-5.380E-06,0.004
-5.370E-06,0.040
-5.360E-06,0.040
-5.350E-06,0.024
-5.340E-06,0.012
-5.330E-06,-0.004
-5.320E-06,-0.004
-5.310E-06,-0.024
-5.300E-06,-0.028
-5.290E-06,-0.020
-5.280E-06,0.008
-5.270E-06,0.028
-5.260E-06,0.052
-5.250E-06,0.040
-5.240E-06,0.016
-5.230E-06,-0.008
-5.220E-06,-0.028
-5.210E-06,-0.008
-5.200E-06,0.004
-5.190E-06,0.028
-5.180E-06,0.032
-5.170E-06,0.028
-5.160E-06,0.024
-5.150E-06,-0.012
-5.140E-06,-0.020
-5.130E-06,-0.028
-5.120E-06,-0.008
-5.110E-06,0.012
-5.100E-06,0.024
-5.090E-06,0.032
-5.080E-06,0.028
-5.070E-06,0.004
-5.060E-06,-0.004
-5.050E-06,-0.004
-5.040E-06,0.012
-5.030E-06,0.028
-5.020E-06,0.020
-5.010E-06,0.008
-5.000E-06,-0.008
-4.990E-06,0.004
-4.980E-06,-0.004
-4.970E-06,0.004
-4.960E-06,0.012
-4.950E-06,0.012
-4.940E-06,-0.004
-4.930E-06,-0.020
-4.920E-06,-0.012
-4.910E-06,0.008
-4.900E-06,0.028
-4.890E-06,0.052
-4.880E-06,0.040
-4.870E-06,0.024
-4.860E-06,0.016
-4.850E-06,0.024
-4.840E-06,0.036
-4.830E-06,0.064
-4.820E-06,0.028
-4.810E-06,-0.064
-4.800E-06,-0.104
-4.790E-06,-0.104
-4.780E-06,-0.072
-4.770E-06,-0.008
-4.760E-06,0.084
-4.750E-06,0.088
-4.740E-06,0.024
-4.730E-06,-0.044
-4.720E-06,-0.076
-4.710E-06,-0.072
-4.700E-06,-0.024
-4.690E-06,0.036
-4.680E-06,0.056
-4.670E-06,0.048
-4.660E-06,0.008
-4.650E-06,-0.024
-4.640E-06,-0.044
-4.630E-06,-0.036
-4.620E-06,-0.020
-4.610E-06,0.012
-4.600E-06,0.036
-4.590E-06,0.032
-4.580E-06,0.016
-4.570E-06,-0.004
-4.560E-06,-0.016
-4.550E-06,-0.024
-4.540E-06,-0.016
-4.530E-06,0.000
-4.520E-06,0.028
-4.510E-06,0.044
-4.500E-06,0.040
-4.490E-06,0.012
-4.480E-06,-0.008
-4.470E-06,-0.024
-4.460E-06,-0.020
-4.450E-06,-0.004
-4.440E-06,0.016
-4.430E-06,0.032
-4.420E-06,0.024
-4.410E-06,0.020
-4.400E-06,0.008
-4.390E-06,0.000
-4.380E-06,0.000
-4.370E-06,0.016
-4.360E-06,0.032
-4.350E-06,0.040
-4.340E-06,0.036
-4.330E-06,0.028
-4.320E-06,0.020
-4.310E-06,0.020
-4.300E-06,0.028
-4.290E-06,0.040
-4.280E-06,0.024
-4.270E-06,-0.004
-4.260E-06,-0.040
-4.250E-06,-0.056
-4.240E-06,-0.040
-4.230E-06,-0.008
-4.220E-06,0.040
-4.210E-06,0.068
-4.200E-06,0.076
-4.190E-06,0.068
-4.180E-06,-0.032
-4.170E-06,-0.200
-4.160E-06,-0.212
-4.150E-06,-0.132
-4.140E-06,0.032
-4.130E-06,0.124
-4.120E-06,0.256
-4.110E-06,0.152
-4.100E-06,-0.072
-4.090E-06,-0.204
-4.080E-06,-0.244
-4.070E-06,-0.040
-4.060E-06,0.112
-4.050E-06,0.216
-4.040E-06,0.136
-4.030E-06,0.016
-4.020E-06,-0.120
-4.010E-06,-0.144
-4.000E-06,-0.092
-3.990E-06,0.004
-3.980E-06,0.092
-3.970E-06,0.112
-3.960E-06,0.084
-3.950E-06,0.000
-3.940E-06,-0.044
-3.930E-06,-0.084
-3.920E-06,-0.044
-3.910E-06,-0.008
-3.900E-06,0.048
-3.890E-06,0.072
-3.880E-06,0.068
-3.870E-06,0.028
-3.860E-06,-0.012
-3.850E-06,-0.040
-3.840E-06,-0.056
-3.830E-06,-0.004
-3.820E-06,0.032
-3.810E-06,0.092
-3.800E-06,0.088
-3.790E-06,0.060
-3.780E-06,0.004
-3.770E-06,-0.036
-3.760E-06,-0.036
-3.750E-06,-0.024
-3.740E-06,0.016
-3.730E-06,0.024
-3.720E-06,0.044
-3.710E-06,0.020
-3.700E-06,-0.008
-3.690E-06,-0.044
-3.680E-06,-0.048
-3.670E-06,-0.024
-3.660E-06,0.012
-3.650E-06,0.060
-3.640E-06,0.088
-3.630E-06,0.072
-3.620E-06,0.024
-3.610E-06,-0.012
-3.600E-06,-0.068
-3.590E-06,-0.068
-3.580E-06,-0.040
-3.570E-06,-0.060
-3.560E-06,-0.020
-3.550E-06,0.044
-3.540E-06,0.024
-3.530E-06,-0.040
-3.520E-06,0.028
-3.510E-06,-0.040
-3.500E-06,-0.072
-3.490E-06,-0.032
-3.480E-06,0.012
-3.470E-06,0.104
-3.460E-06,0.108
-3.450E-06,0.048
-3.440E-06,-0.092
-3.430E-06,-0.144
-3.420E-06,-0.124
-3.410E-06,0.028
-3.400E-06,0.136
-3.390E-06,0.160
-3.380E-06,0.076
-3.370E-06,-0.028
-3.360E-06,-0.112
-3.350E-06,-0.128
-3.340E-06,-0.060
-3.330E-06,0.024
-3.320E-06,0.108
-3.310E-06,0.120
-3.300E-06,0.088
-3.290E-06,0.000
-3.280E-06,-0.068
-3.270E-06,-0.100
-3.260E-06,-0.056
-3.250E-06,0.012
-3.240E-06,0.072
-3.230E-06,0.104
-3.220E-06,0.088
-3.210E-06,0.040
-3.200E-06,-0.020
-3.190E-06,-0.056
-3.180E-06,-0.040
-3.170E-06,0.016
-3.160E-06,0.076
-3.150E-06,0.088
-3.140E-06,0.056
-3.130E-06,-0.032
-3.120E-06,-0.096
-3.110E-06,-0.108
-3.100E-06,-0.060
-3.090E-06,0.024
-3.080E-06,0.104
-3.070E-06,0.120
-3.060E-06,0.068
-3.050E-06,-0.016
-3.040E-06,-0.068
-3.030E-06,-0.088
-3.020E-06,-0.044
-3.010E-06,0.008
-3.000E-06,0.056
-2.990E-06,0.056
-2.980E-06,0.036
-2.970E-06,0.016
-2.960E-06,-0.008
-2.950E-06,0.008
-2.940E-06,0.032
-2.930E-06,0.108
-2.920E-06,0.044
-2.910E-06,0.012
-2.900E-06,-0.060
-2.890E-06,-0.120
-2.880E-06,-0.116
-2.870E-06,-0.024
-2.860E-06,0.096
-2.850E-06,0.060
-2.840E-06,0.036
-2.830E-06,-0.040
-2.820E-06,-0.056
-2.810E-06,-0.028
-2.800E-06,0.012
-2.790E-06,0.012
-2.780E-06,0.000
-2.770E-06,-0.004
-2.760E-06,0.000
-2.750E-06,0.024
-2.740E-06,-0.004
-2.730E-06,-0.016
-2.720E-06,-0.028
-2.710E-06,-0.004
-2.700E-06,0.012
-2.690E-06,0.028
-2.680E-06,0.020
-2.670E-06,0.000
-2.660E-06,-0.008
-2.650E-06,-0.020
-2.640E-06,0.000
-2.630E-06,0.016
-2.620E-06,0.036
-2.610E-06,0.028
-2.600E-06,0.012
-2.590E-06,-0.020
-2.580E-06,-0.024
-2.570E-06,0.000
-2.560E-06,0.020
-2.550E-06,0.040
-2.540E-06,0.028
-2.530E-06,0.012
-2.520E-06,-0.008
-2.510E-06,-0.016
-2.500E-06,-0.016
-2.490E-06,0.004
-2.480E-06,0.024
-2.470E-06,0.040
-2.460E-06,0.044
-2.450E-06,0.024
-2.440E-06,0.004
-2.430E-06,-0.004
-2.420E-06,-0.004
-2.410E-06,0.008
-2.400E-06,0.024
-2.390E-06,0.040
-2.380E-06,0.048
-2.370E-06,0.048
-2.360E-06,0.044
-2.350E-06,0.024
-2.340E-06,0.024
-2.330E-06,0.012
-2.320E-06,0.020
-2.310E-06,-0.032
-2.300E-06,-0.092
-2.290E-06,-0.124
-2.280E-06,-0.100
-2.270E-06,0.020
-2.260E-06,0.068
-2.250E-06,0.104
-2.240E-06,0.128
-2.230E-06,0.004
-2.220E-06,-0.136
-2.210E-06,-0.200
-2.200E-06,-0.128
-2.190E-06,0.032
-2.180E-06,0.132
-2.170E-06,0.152
-2.160E-06,0.060
-2.150E-06,-0.080
-2.140E-06,-0.160
-2.130E-06,-0.104
-2.120E-06,0.004
-2.110E-06,0.100
-2.100E-06,0.136
-2.090E-06,0.076
-2.080E-06,-0.012
-2.070E-06,-0.084
-2.060E-06,-0.104
-2.050E-06,-0.044
-2.040E-06,0.040
-2.030E-06,0.092
-2.020E-06,0.096
-2.010E-06,0.056
-2.000E-06,-0.004
-1.990E-06,-0.060
-1.980E-06,-0.072
-1.970E-06,-0.032
-1.960E-06,0.020
-1.950E-06,0.072
-1.940E-06,0.088
-1.930E-06,0.060
-1.920E-06,0.008
-1.910E-06,-0.036
-1.900E-06,-0.040
-1.890E-06,-0.004
-1.880E-06,0.048
-1.870E-06,0.104
-1.860E-06,0.120
-1.850E-06,0.088
-1.840E-06,0.024
-1.830E-06,-0.060
-1.820E-06,-0.108
-1.810E-06,-0.100
-1.800E-06,-0.040
-1.790E-06,0.040
-1.780E-06,0.124
-1.770E-06,0.136
-1.760E-06,0.088
-1.750E-06,0.004
-1.740E-06,-0.072
-1.730E-06,-0.096
-1.720E-06,-0.084
-1.710E-06,-0.024
-1.700E-06,0.056
-1.690E-06,0.088
-1.680E-06,0.092
-1.670E-06,0.020
-1.660E-06,-0.028
-1.650E-06,-0.056
-1.640E-06,-0.012
-1.630E-06,0.088
-1.620E-06,0.144
-1.610E-06,0.136
-1.600E-06,0.008
-1.590E-06,-0.164
-1.580E-06,-0.220
-1.570E-06,-0.188
-1.560E-06,-0.072
-1.550E-06,0.048
-1.540E-06,0.144
-1.530E-06,0.128
-1.520E-06,0.052
-1.510E-06,-0.040
-1.500E-06,-0.120
-1.490E-06,-0.124
-1.480E-06,-0.056
-1.470E-06,0.028
-1.460E-06,0.084
-1.450E-06,0.104
-1.440E-06,0.076
-1.430E-06,0.008
-1.420E-06,-0.064
-1.410E-06,-0.108
-1.400E-06,-0.108
-1.390E-06,-0.040
-1.380E-06,0.060
-1.370E-06,0.124
-1.360E-06,0.124
-1.350E-06,0.044
-1.340E-06,-0.044
-1.330E-06,-0.108
-1.320E-06,-0.108
-1.310E-06,-0.044
-1.300E-06,0.044
-1.290E-06,0.108
-1.280E-06,0.128
-1.270E-06,0.076
-1.260E-06,0.000
-1.250E-06,-0.068
-1.240E-06,-0.076
-1.230E-06,-0.036
-1.220E-06,0.040
-1.210E-06,0.108
-1.200E-06,0.140
-1.190E-06,0.128
-1.180E-06,0.076
-1.170E-06,0.008
-1.160E-06,-0.032
-1.150E-06,-0.032
-1.140E-06,0.028
-1.130E-06,0.108
-1.120E-06,0.168
-1.110E-06,0.176
-1.100E-06,0.132
-1.090E-06,0.064
-1.080E-06,0.012
-1.070E-06,-0.024
-1.060E-06,-0.024
-1.050E-06,0.008
-1.040E-06,0.012
-1.030E-06,0.008
-1.020E-06,0.008
-1.010E-06,0.004
-1.000E-06,-0.004
-9.900E-07,-0.024
-9.800E-07,-0.036
-9.700E-07,-0.036
-9.600E-07,-0.008
-9.500E-07,0.032
-9.400E-07,0.068
-9.300E-07,0.092
-9.200E-07,0.120
-9.100E-07,0.124
-9.000E-07,0.156
-8.900E-07,0.124
-8.800E-07,0.048
-8.700E-07,-0.076
-8.600E-07,-0.168
-8.500E-07,-0.192
-8.400E-07,-0.140
-8.300E-07,-0.004
-8.200E-07,0.092
-8.100E-07,0.132
-8.000E-07,0.004
-7.900E-07,-0.104
-7.800E-07,-0.220
-7.700E-07,-0.180
-7.600E-07,-0.120
-7.500E-07,0.036
-7.400E-07,0.120
-7.300E-07,0.036
-7.200E-07,-0.084
-7.100E-07,-0.172
-7.000E-07,-0.092
-6.900E-07,-0.024
-6.800E-07,0.024
-6.700E-07,-0.008
-6.600E-07,0.024
-6.500E-07,0.024
-6.400E-07,0.032
-6.300E-07,0.044
-6.200E-07,0.016
-6.100E-07,-0.036
-6.000E-07,-0.080
-5.900E-07,-0.028
-5.800E-07,0.008
-5.700E-07,0.068
-5.600E-07,0.068
-5.500E-07,0.076
-5.400E-07,0.020
-5.300E-07,-0.016
-5.200E-07,-0.028
-5.100E-07,-0.004
-5.000E-07,0.012
-4.900E-07,0.012
-4.800E-07,0.016
-4.700E-07,0.004
-4.600E-07,0.016
-4.500E-07,0.016
-4.400E-07,0.056
-4.300E-07,0.076
-4.200E-07,0.100
-4.100E-07,0.108
-4.000E-07,0.112
-3.900E-07,0.100
-3.800E-07,0.084
-3.700E-07,0.072
-3.600E-07,0.084
-3.500E-07,0.128
-3.400E-07,0.172
-3.300E-07,0.212
-3.200E-07,0.180
-3.100E-07,0.128
-3.000E-07,0.060
-2.900E-07,0.004
-2.800E-07,0.004
-2.700E-07,0.044
-2.600E-07,0.084
-2.500E-07,0.112
-2.400E-07,0.084
-2.300E-07,-0.112
-2.200E-07,-0.324
-2.100E-07,-0.512
-2.000E-07,-0.512
-1.900E-07,-0.308
-1.800E-07,-0.024
-1.700E-07,0.260
-1.600E-07,0.356
-1.500E-07,0.276
-1.400E-07,-0.044
-1.300E-07,-0.304
-1.200E-07,-0.396
-1.100E-07,-0.220
-1.000E-07,0.048
-9.000E-08,0.260
-8.000E-08,0.352
-7.000E-08,0.268
-6.000E-08,0.112
-5.000E-08,-0.064
-4.000E-08,-0.096
-3.000E-08,0.008
-2.000E-08,0.204
-1.000E-08,0.340
0.000E+00,0.396
1.000E-08,0.316
2.000E-08,0.100
3.000E-08,-0.124
4.000E-08,-0.248
5.000E-08,-0.272
6.000E-08,-0.208
7.000E-08,-0.096
8.000E-08,0.024
9.000E-08,0.152
1.000E-07,0.152
1.100E-07,0.068
1.200E-07,-0.116
1.300E-07,-0.248
1.400E-07,-0.260
1.500E-07,-0.184
1.600E-07,-0.068
1.700E-07,0.100
1.800E-07,0.208
1.900E-07,0.200
2.000E-07,0.096
2.100E-07,-0.060
2.200E-07,-0.164
2.300E-07,-0.120
2.400E-07,0.080
2.500E-07,0.272
2.600E-07,0.356
2.700E-07,0.324
2.800E-07,0.172
2.900E-07,0.028
3.000E-07,-0.052
3.100E-07,-0.012
3.200E-07,0.124
3.300E-07,0.264
3.400E-07,0.316
3.500E-07,0.260
3.600E-07,0.120
3.700E-07,-0.072
3.800E-07,-0.256
3.900E-07,-0.384
4.000E-07,-0.340
4.100E-07,-0.244
4.200E-07,-0.056
4.300E-07,0.092
4.400E-07,0.092
4.500E-07,0.032
4.600E-07,-0.104
4.700E-07,-0.192
4.800E-07,-0.188
4.900E-07,-0.008
5.000E-07,0.176
5.100E-07,0.388
5.200E-07,0.492
5.300E-07,0.484
5.400E-07,0.304
5.500E-07,0.060
5.600E-07,-0.036
5.700E-07,-0.028
5.800E-07,0.108
5.900E-07,0.224
6.000E-07,0.336
6.100E-07,0.300
6.200E-07,0.188
6.300E-07,0.064
6.400E-07,0.016
6.500E-07,0.020
6.600E-07,0.088
6.700E-07,0.008
6.800E-07,-0.188
6.900E-07,-0.476
7.000E-07,-0.512
7.100E-07,-0.512
7.200E-07,-0.480
7.300E-07,0.008
7.400E-07,0.464
7.500E-07,0.540
7.600E-07,0.436
7.700E-07,0.112
7.800E-07,-0.140
7.900E-07,-0.168
8.000E-07,0.004
8.100E-07,0.280
8.200E-07,0.424
8.300E-07,0.260
8.400E-07,-0.072
8.500E-07,-0.476
8.600E-07,-0.508
8.700E-07,-0.512
8.800E-07,-0.320
8.900E-07,0.044
9.000E-07,0.224
9.100E-07,0.208
9.200E-07,0.056
9.300E-07,-0.136
9.400E-07,-0.272
9.500E-07,-0.276
9.600E-07,-0.104
9.700E-07,0.124
9.800E-07,0.308
9.900E-07,0.376
1.000E-06,0.288
1.010E-06,0.128
1.020E-06,0.020
1.030E-06,0.064
1.040E-06,0.216
1.050E-06,0.384
1.060E-06,0.448
1.070E-06,0.364
1.080E-06,0.156
1.090E-06,-0.072
1.100E-06,-0.240
1.110E-06,-0.272
1.120E-06,-0.212
1.130E-06,-0.136
1.140E-06,-0.072
1.150E-06,-0.096
1.160E-06,-0.160
1.170E-06,-0.248
1.180E-06,-0.292
1.190E-06,-0.308
1.200E-06,-0.236
1.210E-06,-0.080
1.220E-06,0.068
1.230E-06,0.128
1.240E-06,0.112
1.250E-06,0.048
1.260E-06,0.012
1.270E-06,-0.016
1.280E-06,0.040
1.290E-06,0.184
1.300E-06,0.348
1.310E-06,0.432
1.320E-06,0.376
1.330E-06,0.292
1.340E-06,0.188
1.350E-06,0.152
1.360E-06,0.156
1.370E-06,0.196
1.380E-06,0.252
1.390E-06,0.312
1.400E-06,0.348
1.410E-06,0.300
1.420E-06,0.232
1.430E-06,0.136
1.440E-06,0.080
1.450E-06,0.060
1.460E-06,0.080
1.470E-06,0.092
1.480E-06,0.080
1.490E-06,0.032
1.500E-06,-0.032
1.510E-06,-0.068
1.520E-06,-0.076
1.530E-06,-0.052
1.540E-06,0.012
1.550E-06,0.072
1.560E-06,0.092
1.570E-06,0.132
1.580E-06,0.164
1.590E-06,0.248
1.600E-06,0.332
1.610E-06,0.392
1.620E-06,0.388
1.630E-06,0.332
1.640E-06,0.240
1.650E-06,0.156
1.660E-06,0.148
1.670E-06,0.196
1.680E-06,0.276
1.690E-06,0.320
1.700E-06,0.316
1.710E-06,0.228
1.720E-06,0.120
1.730E-06,0.016
1.740E-06,-0.024
1.750E-06,-0.012
1.760E-06,0.020
1.770E-06,0.068
1.780E-06,0.072
1.790E-06,0.020
1.800E-06,-0.036
1.810E-06,-0.076
1.820E-06,-0.048
1.830E-06,0.068
1.840E-06,0.204
1.850E-06,0.348
1.860E-06,0.428
1.870E-06,0.424
1.880E-06,0.316
1.890E-06,0.196
1.900E-06,0.108
1.910E-06,0.104
1.920E-06,0.184
1.930E-06,0.268
1.940E-06,0.324
1.950E-06,0.316
1.960E-06,0.260
1.970E-06,0.176
1.980E-06,0.136
1.990E-06,0.136
2.000E-06,0.196
2.010E-06,0.288
2.020E-06,0.348
2.030E-06,0.352
2.040E-06,0.308
2.050E-06,0.236
2.060E-06,0.184
2.070E-06,0.184
2.080E-06,0.224
2.090E-06,0.284
2.100E-06,0.324
2.110E-06,0.340
2.120E-06,0.312
2.130E-06,0.272
2.140E-06,0.216
2.150E-06,0.192
2.160E-06,0.204
2.170E-06,0.240
2.180E-06,0.284
2.190E-06,0.300
2.200E-06,0.296
2.210E-06,0.264
2.220E-06,0.220
2.230E-06,0.200
2.240E-06,0.208
2.250E-06,0.236
2.260E-06,0.268
2.270E-06,0.288
2.280E-06,0.280
2.290E-06,0.264
2.300E-06,0.228
2.310E-06,0.208
2.320E-06,0.216
2.330E-06,0.228
2.340E-06,0.260
2.350E-06,0.276
2.360E-06,0.272
2.370E-06,0.260
2.380E-06,0.244
2.390E-06,0.224
2.400E-06,0.224
2.410E-06,0.228
2.420E-06,0.248
2.430E-06,0.264
2.440E-06,0.276
2.450E-06,0.264
2.460E-06,0.256
2.470E-06,0.236
2.480E-06,0.224
2.490E-06,0.228
2.500E-06,0.236
2.510E-06,0.248
2.520E-06,0.256
2.530E-06,0.256
2.540E-06,0.248
2.550E-06,0.236
2.560E-06,0.228
2.570E-06,0.224
2.580E-06,0.236
2.590E-06,0.236
2.600E-06,0.252
2.610E-06,0.256
2.620E-06,0.256
2.630E-06,0.252
2.640E-06,0.236
2.650E-06,0.236
2.660E-06,0.232
2.670E-06,0.236
2.680E-06,0.248
2.690E-06,0.256
2.700E-06,0.256
2.710E-06,0.252
2.720E-06,0.244
2.730E-06,0.240
2.740E-06,0.228
2.750E-06,0.232
2.760E-06,0.236
2.770E-06,0.244
2.780E-06,0.244
2.790E-06,0.244
2.800E-06,0.240
2.810E-06,0.236
2.820E-06,0.228
2.830E-06,0.232
2.840E-06,0.228
2.850E-06,0.236
2.860E-06,0.236
2.870E-06,0.232
2.880E-06,0.224
2.890E-06,0.224
2.900E-06,0.220
2.910E-06,0.224
2.920E-06,0.236
2.930E-06,0.240
2.940E-06,0.252
2.950E-06,0.248
2.960E-06,0.240
2.970E-06,0.224
2.980E-06,0.208
2.990E-06,0.204
3.000E-06,0.212
3.010E-06,0.224
3.020E-06,0.240
3.030E-06,0.244
3.040E-06,0.244
3.050E-06,0.232
3.060E-06,0.216
3.070E-06,0.204
3.080E-06,0.208
3.090E-06,0.224
3.100E-06,0.236
3.110E-06,0.244
3.120E-06,0.244
3.130E-06,0.236
3.140E-06,0.220
3.150E-06,0.212
3.160E-06,0.204
3.170E-06,0.204
3.180E-06,0.220
3.190E-06,0.232
3.200E-06,0.232
3.210E-06,0.228
3.220E-06,0.220
3.230E-06,0.204
3.240E-06,0.200
3.250E-06,0.200
3.260E-06,0.212
3.270E-06,0.228
3.280E-06,0.232
