mediciones/Mediciones filtradas (saque las feas)/6-10/64.4/WaveData55203.csv

#timebase=2000000(ps)
,#voltbase=100000(mv/100)
#size=4000
-4.250E-06,0.004
-4.240E-06,0.004
-4.230E-06,-0.004
-4.220E-06,-0.004
-4.210E-06,0.004
-4.200E-06,0.004
-4.190E-06,0.004
-4.180E-06,0.004
-4.170E-06,0.004
-4.160E-06,0.004
-4.150E-06,0.000
-4.140E-06,0.004
-4.130E-06,0.004
-4.120E-06,0.000
-4.110E-06,0.004
-4.100E-06,0.020
-4.090E-06,0.052
-4.080E-06,0.068
-4.070E-06,0.060
-4.060E-06,0.028
-4.050E-06,-0.032
-4.040E-06,-0.100
-4.030E-06,-0.196
-4.020E-06,-0.012
-4.010E-06,-0.024
-4.000E-06,0.076
-3.990E-06,0.164
-3.980E-06,0.076
-3.970E-06,-0.024
-3.960E-06,0.000
-3.950E-06,-0.072
-3.940E-06,-0.108
-3.930E-06,0.012
-3.920E-06,0.120
-3.910E-06,0.104
-3.900E-06,0.068
-3.890E-06,0.004
-3.880E-06,-0.120
-3.870E-06,-0.084
-3.860E-06,-0.040
-3.850E-06,0.032
-3.840E-06,0.060
-3.830E-06,0.068
-3.820E-06,0.056
-3.810E-06,0.012
-3.800E-06,0.008
-3.790E-06,-0.024
-3.780E-06,-0.024
-3.770E-06,-0.020
-3.760E-06,0.008
-3.750E-06,0.012
-3.740E-06,0.016
-3.730E-06,0.012
-3.720E-06,-0.008
-3.710E-06,-0.020
-3.700E-06,-0.028
-3.690E-06,-0.004
-3.680E-06,0.008
-3.670E-06,0.044
-3.660E-06,0.056
-3.650E-06,0.048
-3.640E-06,0.024
-3.630E-06,0.004
-3.620E-06,-0.020
-3.610E-06,-0.020
-3.600E-06,-0.008
-3.590E-06,0.004
-3.580E-06,0.024
-3.570E-06,0.016
-3.560E-06,0.000
-3.550E-06,-0.008
-3.540E-06,-0.004
-3.530E-06,-0.004
-3.520E-06,0.020
-3.510E-06,0.032
-3.500E-06,0.028
-3.490E-06,0.024
-3.480E-06,0.020
-3.470E-06,0.012
-3.460E-06,-0.008
-3.450E-06,-0.008
-3.440E-06,0.000
-3.430E-06,0.008
-3.420E-06,0.012
-3.410E-06,0.012
-3.400E-06,0.008
-3.390E-06,0.012
-3.380E-06,0.024
-3.370E-06,0.028
-3.360E-06,0.016
-3.350E-06,0.004
-3.340E-06,0.008
-3.330E-06,0.004
-3.320E-06,0.004
-3.310E-06,0.020
-3.300E-06,0.012
-3.290E-06,-0.004
-3.280E-06,-0.020
-3.270E-06,-0.024
-3.260E-06,-0.012
-3.250E-06,-0.004
-3.240E-06,0.020
-3.230E-06,0.040
-3.220E-06,0.028
-3.210E-06,-0.012
-3.200E-06,-0.008
-3.190E-06,0.012
-3.180E-06,-0.024
-3.170E-06,-0.028
-3.160E-06,-0.068
-3.150E-06,0.000
-3.140E-06,0.040
-3.130E-06,-0.032
-3.120E-06,-0.024
-3.110E-06,-0.040
-3.100E-06,0.008
-3.090E-06,0.024
-3.080E-06,0.024
-3.070E-06,-0.004
-3.060E-06,-0.012
-3.050E-06,-0.008
-3.040E-06,0.004
-3.030E-06,0.008
-3.020E-06,0.008
-3.010E-06,0.016
-3.000E-06,0.024
-2.990E-06,0.016
-2.980E-06,-0.008
-2.970E-06,-0.016
-2.960E-06,-0.020
-2.950E-06,-0.004
-2.940E-06,0.008
-2.930E-06,0.008
-2.920E-06,0.008
-2.910E-06,0.008
-2.900E-06,-0.008
-2.890E-06,-0.016
-2.880E-06,0.000
-2.870E-06,0.000
-2.860E-06,0.012
-2.850E-06,0.008
-2.840E-06,0.008
-2.830E-06,0.004
-2.820E-06,0.008
-2.810E-06,0.000
-2.800E-06,0.008
-2.790E-06,0.004
-2.780E-06,-0.008
-2.770E-06,0.000
-2.760E-06,-0.008
-2.750E-06,0.012
-2.740E-06,0.008
-2.730E-06,0.008
-2.720E-06,0.000
-2.710E-06,0.000
-2.700E-06,0.004
-2.690E-06,0.004
-2.680E-06,0.012
-2.670E-06,0.012
-2.660E-06,0.008
-2.650E-06,0.000
-2.640E-06,0.000
-2.630E-06,-0.004
-2.620E-06,0.004
-2.610E-06,0.004
-2.600E-06,0.012
-2.590E-06,0.004
-2.580E-06,0.008
-2.570E-06,0.004
-2.560E-06,-0.004
-2.550E-06,0.000
-2.540E-06,0.008
-2.530E-06,0.008
-2.520E-06,0.008
-2.510E-06,0.008
-2.500E-06,0.000
-2.490E-06,0.000
-2.480E-06,0.004
-2.470E-06,0.008
-2.460E-06,0.012
-2.450E-06,0.008
-2.440E-06,0.008
-2.430E-06,0.004
-2.420E-06,0.004
-2.410E-06,-0.004
-2.400E-06,0.004
-2.390E-06,0.004
-2.380E-06,0.004
-2.370E-06,0.008
-2.360E-06,0.008
-2.350E-06,0.008
-2.340E-06,0.008
-2.330E-06,0.000
-2.320E-06,0.000
-2.310E-06,0.016
-2.300E-06,0.012
-2.290E-06,0.016
-2.280E-06,0.004
-2.270E-06,0.008
-2.260E-06,0.008
-2.250E-06,0.012
-2.240E-06,0.000
-2.230E-06,0.004
-2.220E-06,0.004
-2.210E-06,0.008
-2.200E-06,0.012
-2.190E-06,0.008
-2.180E-06,0.024
-2.170E-06,0.036
-2.160E-06,0.004
-2.150E-06,-0.024
-2.140E-06,-0.040
-2.130E-06,-0.040
-2.120E-06,-0.004
-2.110E-06,0.016
-2.100E-06,0.032
-2.090E-06,0.028
-2.080E-06,0.012
-2.070E-06,0.000
-2.060E-06,-0.016
-2.050E-06,-0.024
-2.040E-06,-0.008
-2.030E-06,0.000
-2.020E-06,0.024
-2.010E-06,0.028
-2.000E-06,0.008
-1.990E-06,0.000
-1.980E-06,-0.008
-1.970E-06,-0.012
-1.960E-06,-0.004
-1.950E-06,0.008
-1.940E-06,0.012
-1.930E-06,0.016
-1.920E-06,0.012
-1.910E-06,0.008
-1.900E-06,0.000
-1.890E-06,-0.008
-1.880E-06,-0.004
-1.870E-06,0.000
-1.860E-06,0.008
-1.850E-06,0.024
-1.840E-06,0.016
-1.830E-06,0.008
-1.820E-06,0.004
-1.810E-06,0.004
-1.800E-06,-0.012
-1.790E-06,-0.004
-1.780E-06,-0.004
-1.770E-06,0.008
-1.760E-06,0.012
-1.750E-06,0.032
-1.740E-06,0.048
-1.730E-06,0.040
-1.720E-06,0.008
-1.710E-06,0.028
-1.700E-06,0.012
-1.690E-06,-0.004
-1.680E-06,0.024
-1.670E-06,0.052
-1.660E-06,0.028
-1.650E-06,0.036
-1.640E-06,0.028
-1.630E-06,0.020
-1.620E-06,0.024
-1.610E-06,0.028
-1.600E-06,0.036
-1.590E-06,0.028
-1.580E-06,0.040
-1.570E-06,0.032
-1.560E-06,0.020
-1.550E-06,0.024
-1.540E-06,0.020
-1.530E-06,0.024
-1.520E-06,0.048
-1.510E-06,0.044
-1.500E-06,0.016
-1.490E-06,-0.012
-1.480E-06,0.020
-1.470E-06,-0.056
-1.460E-06,-0.076
-1.450E-06,-0.056
-1.440E-06,0.032
-1.430E-06,0.092
-1.420E-06,0.140
-1.410E-06,0.152
-1.400E-06,0.052
-1.390E-06,-0.004
-1.380E-06,-0.020
-1.370E-06,-0.068
-1.360E-06,-0.004
-1.350E-06,-0.068
-1.340E-06,-0.136
-1.330E-06,-0.140
-1.320E-06,-0.012
-1.310E-06,-0.016
-1.300E-06,-0.096
-1.290E-06,-0.068
-1.280E-06,0.092
-1.270E-06,-0.068
-1.260E-06,-0.024
-1.250E-06,-0.024
-1.240E-06,-0.032
-1.230E-06,-0.056
-1.220E-06,-0.024
-1.210E-06,-0.012
-1.200E-06,0.028
-1.190E-06,0.092
-1.180E-06,0.036
-1.170E-06,0.016
-1.160E-06,-0.036
-1.150E-06,-0.032
-1.140E-06,-0.020
-1.130E-06,0.016
-1.120E-06,0.036
-1.110E-06,0.076
-1.100E-06,0.088
-1.090E-06,0.088
-1.080E-06,0.064
-1.070E-06,0.028
-1.060E-06,0.036
-1.050E-06,0.032
-1.040E-06,0.060
-1.030E-06,0.016
-1.020E-06,-0.048
-1.010E-06,-0.120
-1.000E-06,-0.160
-9.900E-07,-0.088
-9.800E-07,-0.016
-9.700E-07,0.048
-9.600E-07,0.124
-9.500E-07,0.096
-9.400E-07,0.012
-9.300E-07,-0.056
-9.200E-07,-0.088
-9.100E-07,-0.080
-9.000E-07,-0.024
-8.900E-07,0.044
-8.800E-07,0.096
-8.700E-07,0.096
-8.600E-07,0.020
-8.500E-07,0.000
-8.400E-07,-0.052
-8.300E-07,-0.036
-8.200E-07,0.004
-8.100E-07,0.028
-8.000E-07,0.072
-7.900E-07,0.040
-7.800E-07,0.020
-7.700E-07,-0.024
-7.600E-07,-0.040
-7.500E-07,-0.036
-7.400E-07,0.000
-7.300E-07,0.044
-7.200E-07,0.064
-7.100E-07,0.068
-7.000E-07,0.044
-6.900E-07,0.032
-6.800E-07,0.008
-6.700E-07,0.012
-6.600E-07,0.024
-6.500E-07,0.052
-6.400E-07,0.068
-6.300E-07,0.076
-6.200E-07,0.072
-6.100E-07,0.056
-6.000E-07,0.024
-5.900E-07,0.008
-5.800E-07,0.024
-5.700E-07,0.008
-5.600E-07,-0.100
-5.500E-07,-0.104
-5.400E-07,-0.072
-5.300E-07,-0.184
-5.200E-07,-0.008
-5.100E-07,0.124
-5.000E-07,0.172
-4.900E-07,0.160
-4.800E-07,0.068
-4.700E-07,0.052
-4.600E-07,-0.104
-4.500E-07,-0.056
-4.400E-07,-0.128
-4.300E-07,-0.036
-4.200E-07,0.068
-4.100E-07,0.152
-4.000E-07,0.092
-3.900E-07,0.060
-3.800E-07,0.000
-3.700E-07,-0.052
-3.600E-07,-0.056
-3.500E-07,-0.004
-3.400E-07,0.028
-3.300E-07,0.076
-3.200E-07,0.052
-3.100E-07,0.040
-3.000E-07,0.008
-2.900E-07,-0.028
-2.800E-07,-0.052
-2.700E-07,-0.028
-2.600E-07,0.008
-2.500E-07,0.032
-2.400E-07,0.052
-2.300E-07,0.032
-2.200E-07,0.012
-2.100E-07,0.000
-2.000E-07,-0.008
-1.900E-07,0.000
-1.800E-07,0.044
-1.700E-07,0.076
-1.600E-07,0.072
-1.500E-07,0.112
-1.400E-07,0.108
-1.300E-07,0.100
-1.200E-07,0.088
-1.100E-07,0.088
-1.000E-07,0.088
-9.000E-08,0.100
-8.000E-08,0.112
-7.000E-08,0.080
-6.000E-08,-0.040
-5.000E-08,-0.512
-4.000E-08,-0.508
-3.000E-08,-0.508
-2.000E-08,-0.068
-1.000E-08,0.120
0.000E+00,0.368
1.000E-08,0.388
2.000E-08,0.172
3.000E-08,-0.160
4.000E-08,-0.304
5.000E-08,-0.348
6.000E-08,-0.068
7.000E-08,0.324
8.000E-08,0.392
9.000E-08,0.444
1.000E-07,0.148
1.100E-07,-0.260
1.200E-07,-0.348
1.300E-07,-0.324
1.400E-07,-0.132
1.500E-07,0.104
1.600E-07,0.384
1.700E-07,0.456
1.800E-07,0.324
1.900E-07,0.184
2.000E-07,-0.104
2.100E-07,-0.368
2.200E-07,-0.468
2.300E-07,-0.424
2.400E-07,-0.272
2.500E-07,0.036
2.600E-07,0.316
2.700E-07,0.340
2.800E-07,0.092
2.900E-07,-0.136
3.000E-07,-0.232
3.100E-07,-0.284
3.200E-07,-0.188
3.300E-07,0.152
3.400E-07,0.276
3.500E-07,0.268
3.600E-07,0.084
3.700E-07,-0.052
3.800E-07,-0.204
3.900E-07,-0.228
4.000E-07,-0.064
4.100E-07,0.068
4.200E-07,0.236
4.300E-07,0.280
4.400E-07,0.200
4.500E-07,0.028
4.600E-07,-0.156
4.700E-07,-0.228
4.800E-07,-0.332
4.900E-07,-0.184
5.000E-07,0.116
5.100E-07,0.184
5.200E-07,0.124
5.300E-07,0.080
5.400E-07,-0.008
5.500E-07,-0.068
5.600E-07,-0.084
5.700E-07,-0.052
5.800E-07,0.060
5.900E-07,0.164
6.000E-07,0.216
6.100E-07,0.168
6.200E-07,0.112
6.300E-07,-0.020
6.400E-07,-0.040
6.500E-07,0.012
6.600E-07,0.068
6.700E-07,0.132
6.800E-07,0.072
6.900E-07,0.052
7.000E-07,-0.016
7.100E-07,-0.044
7.200E-07,-0.004
7.300E-07,0.064
7.400E-07,0.160
7.500E-07,0.168
7.600E-07,0.148
7.700E-07,0.120
7.800E-07,0.040
7.900E-07,0.008
8.000E-07,0.012
8.100E-07,-0.036
8.200E-07,-0.040
8.300E-07,-0.044
8.400E-07,-0.016
8.500E-07,-0.004
8.600E-07,0.024
8.700E-07,0.008
8.800E-07,-0.040
8.900E-07,-0.036
9.000E-07,-0.016
9.100E-07,-0.024
9.200E-07,0.012
9.300E-07,0.016
9.400E-07,0.028
9.500E-07,-0.004
9.600E-07,-0.004
9.700E-07,-0.024
9.800E-07,-0.008
9.900E-07,-0.004
1.000E-06,0.056
1.010E-06,0.096
1.020E-06,0.136
1.030E-06,0.140
1.040E-06,0.120
1.050E-06,0.100
1.060E-06,0.088
1.070E-06,0.108
1.080E-06,0.124
1.090E-06,0.140
1.100E-06,0.132
1.110E-06,0.124
1.120E-06,0.120
1.130E-06,0.088
1.140E-06,0.084
1.150E-06,0.072
1.160E-06,0.112
1.170E-06,0.120
1.180E-06,0.152
1.190E-06,0.192
1.200E-06,0.156
1.210E-06,0.108
1.220E-06,0.128
1.230E-06,0.024
1.240E-06,-0.072
1.250E-06,-0.088
1.260E-06,-0.328
1.270E-06,-0.512
1.280E-06,-0.512
1.290E-06,-0.508
1.300E-06,-0.496
1.310E-06,0.060
1.320E-06,0.540
1.330E-06,0.540
1.340E-06,0.528
1.350E-06,-0.296
1.360E-06,-0.512
1.370E-06,-0.512
1.380E-06,-0.272
1.390E-06,0.160
1.400E-06,0.508
1.410E-06,0.540
1.420E-06,0.368
1.430E-06,0.104
1.440E-06,-0.188
1.450E-06,-0.340
1.460E-06,-0.228
1.470E-06,0.040
1.480E-06,0.308
1.490E-06,0.388
1.500E-06,0.360
1.510E-06,0.092
1.520E-06,-0.104
1.530E-06,-0.216
1.540E-06,-0.156
1.550E-06,-0.024
1.560E-06,0.128
1.570E-06,0.272
1.580E-06,0.272
1.590E-06,0.208
1.600E-06,-0.024
1.610E-06,-0.092
1.620E-06,-0.096
1.630E-06,0.004
1.640E-06,0.172
1.650E-06,0.292
1.660E-06,0.308
1.670E-06,0.240
1.680E-06,0.164
1.690E-06,0.064
1.700E-06,0.036
1.710E-06,0.072
1.720E-06,0.164
1.730E-06,0.208
1.740E-06,0.260
1.750E-06,0.208
1.760E-06,0.136
1.770E-06,0.072
1.780E-06,0.056
1.790E-06,0.080
1.800E-06,0.144
1.810E-06,0.180
1.820E-06,0.240
1.830E-06,0.220
1.840E-06,0.196
1.850E-06,0.152
1.860E-06,0.124
1.870E-06,0.124
1.880E-06,0.140
1.890E-06,0.196
1.900E-06,0.204
1.910E-06,0.224
1.920E-06,0.204
1.930E-06,0.176
1.940E-06,0.148
1.950E-06,0.124
1.960E-06,0.136
1.970E-06,0.156
1.980E-06,0.196
1.990E-06,0.212
2.000E-06,0.196
2.010E-06,0.176
2.020E-06,0.144
2.030E-06,0.140
2.040E-06,0.128
2.050E-06,0.168
2.060E-06,0.176
2.070E-06,0.196
2.080E-06,0.192
2.090E-06,0.136
2.100E-06,0.140
2.110E-06,0.100
2.120E-06,0.104
2.130E-06,0.108
2.140E-06,0.084
2.150E-06,0.060
2.160E-06,0.040
2.170E-06,0.092
2.180E-06,0.096
2.190E-06,0.156
2.200E-06,0.188
2.210E-06,0.212
2.220E-06,0.148
2.230E-06,0.124
2.240E-06,0.124
2.250E-06,0.096
2.260E-06,0.124
2.270E-06,0.148
2.280E-06,0.160
2.290E-06,0.176
2.300E-06,0.172
2.310E-06,0.148
2.320E-06,0.136
2.330E-06,0.140
2.340E-06,0.152
2.350E-06,0.172
2.360E-06,0.196
2.370E-06,0.208
2.380E-06,0.204
2.390E-06,0.184
2.400E-06,0.164
2.410E-06,0.140
2.420E-06,0.140
2.430E-06,0.144
2.440E-06,0.160
2.450E-06,0.172
2.460E-06,0.176
2.470E-06,0.184
2.480E-06,0.180
2.490E-06,0.176
2.500E-06,0.160
2.510E-06,0.144
2.520E-06,0.140
2.530E-06,0.144
2.540E-06,0.160
2.550E-06,0.172
2.560E-06,0.172
2.570E-06,0.180
2.580E-06,0.168
2.590E-06,0.152
2.600E-06,0.156
2.610E-06,0.156
2.620E-06,0.172
2.630E-06,0.196
2.640E-06,0.192
2.650E-06,0.192
2.660E-06,0.180
2.670E-06,0.160
2.680E-06,0.156
2.690E-06,0.164
2.700E-06,0.180
2.710E-06,0.192
2.720E-06,0.192
2.730E-06,0.188
2.740E-06,0.176
2.750E-06,0.164
2.760E-06,0.156
2.770E-06,0.164
2.780E-06,0.176
2.790E-06,0.188
2.800E-06,0.192
2.810E-06,0.188
2.820E-06,0.180
2.830E-06,0.164
2.840E-06,0.156
2.850E-06,0.164
2.860E-06,0.168
2.870E-06,0.172
2.880E-06,0.184
2.890E-06,0.184
2.900E-06,0.172
2.910E-06,0.164
2.920E-06,0.164
2.930E-06,0.160
2.940E-06,0.168
2.950E-06,0.172
2.960E-06,0.184
2.970E-06,0.188
2.980E-06,0.176
2.990E-06,0.172
3.000E-06,0.164
3.010E-06,0.168
3.020E-06,0.168
3.030E-06,0.176
3.040E-06,0.176
3.050E-06,0.176
3.060E-06,0.176
3.070E-06,0.168
3.080E-06,0.164
3.090E-06,0.160
3.100E-06,0.168
3.110E-06,0.168
3.120E-06,0.168
3.130E-06,0.172
3.140E-06,0.168
3.150E-06,0.172
3.160E-06,0.172
3.170E-06,0.172
3.180E-06,0.164
3.190E-06,0.164
3.200E-06,0.168
3.210E-06,0.168
3.220E-06,0.164
3.230E-06,0.172
3.240E-06,0.176
3.250E-06,0.164
3.260E-06,0.164
3.270E-06,0.156
3.280E-06,0.160
3.290E-06,0.168
3.300E-06,0.164
3.310E-06,0.168
3.320E-06,0.172
3.330E-06,0.164
3.340E-06,0.152
3.350E-06,0.160
3.360E-06,0.164
3.370E-06,0.164
3.380E-06,0.164
3.390E-06,0.164
3.400E-06,0.160
3.410E-06,0.160
3.420E-06,0.156
3.430E-06,0.160
3.440E-06,0.156
3.450E-06,0.160
3.460E-06,0.160
3.470E-06,0.152
3.480E-06,0.160
3.490E-06,0.160
3.500E-06,0.156
3.510E-06,0.152
3.520E-06,0.152
3.530E-06,0.148
3.540E-06,0.156
3.550E-06,0.156
3.560E-06,0.156
3.570E-06,0.160
3.580E-06,0.156
3.590E-06,0.148
3.600E-06,0.152
3.610E-06,0.160
3.620E-06,0.160
3.630E-06,0.152
3.640E-06,0.152
3.650E-06,0.148
3.660E-06,0.148
3.670E-06,0.148
3.680E-06,0.148
3.690E-06,0.156
3.700E-06,0.156
3.710E-06,0.152
3.720E-06,0.148
3.730E-06,0.144
3.740E-06,0.140
3.750E-06,0.140
3.760E-06,0.148
3.770E-06,0.156
3.780E-06,0.152
3.790E-06,0.156
3.800E-06,0.152
3.810E-06,0.144
3.820E-06,0.136
3.830E-06,0.144
3.840E-06,0.148
3.850E-06,0.156
3.860E-06,0.156
3.870E-06,0.160
3.880E-06,0.156
3.890E-06,0.156
3.900E-06,0.140
3.910E-06,0.140
3.920E-06,0.144
3.930E-06,0.148
3.940E-06,0.148
3.950E-06,0.148
3.960E-06,0.156
3.970E-06,0.156
3.980E-06,0.140
3.990E-06,0.144
4.000E-06,0.144
4.010E-06,0.144
4.020E-06,0.144
4.030E-06,0.144
4.040E-06,0.152
4.050E-06,0.156
4.060E-06,0.148
4.070E-06,0.140
4.080E-06,0.136
4.090E-06,0.140
4.100E-06,0.136
4.110E-06,0.136
4.120E-06,0.140
4.130E-06,0.144
4.140E-06,0.148
4.150E-06,0.136
4.160E-06,0.136
4.170E-06,0.136
4.180E-06,0.136
4.190E-06,0.136
4.200E-06,0.140
4.210E-06,0.140
4.220E-06,0.140
4.230E-06,0.136
4.240E-06,0.140
4.250E-06,0.140
4.260E-06,0.132
4.270E-06,0.132
4.280E-06,0.136
4.290E-06,0.136
4.300E-06,0.140
4.310E-06,0.136
4.320E-06,0.136
4.330E-06,0.132
4.340E-06,0.132
4.350E-06,0.132
4.360E-06,0.132
4.370E-06,0.132
4.380E-06,0.136
4.390E-06,0.136
4.400E-06,0.136
4.410E-06,0.136
4.420E-06,0.128
4.430E-06,0.128
4.440E-06,0.128
4.450E-06,0.128
4.460E-06,0.128
4.470E-06,0.128
4.480E-06,0.128
4.490E-06,0.128
4.500E-06,0.128
4.510E-06,0.124
4.520E-06,0.124
4.530E-06,0.128
4.540E-06,0.124
4.550E-06,0.128
4.560E-06,0.124
4.570E-06,0.124
4.580E-06,0.120
4.590E-06,0.116
4.600E-06,0.124
4.610E-06,0.124
4.620E-06,0.124
4.630E-06,0.124
4.640E-06,0.124
4.650E-06,0.124
4.660E-06,0.120
4.670E-06,0.120
4.680E-06,0.120
4.690E-06,0.120
4.700E-06,0.112
4.710E-06,0.116
4.720E-06,0.116
4.730E-06,0.116
4.740E-06,0.116
4.750E-06,0.120
4.760E-06,0.112
4.770E-06,0.112
4.780E-06,0.120
4.790E-06,0.112
4.800E-06,0.116
4.810E-06,0.116
4.820E-06,0.116
4.830E-06,0.116
4.840E-06,0.112
4.850E-06,0.112
4.860E-06,0.112
4.870E-06,0.112
4.880E-06,0.112
4.890E-06,0.108
4.900E-06,0.112
4.910E-06,0.112
4.920E-06,0.108
4.930E-06,0.112
4.940E-06,0.108
4.950E-06,0.108
4.960E-06,0.112
4.970E-06,0.104
4.980E-06,0.104
4.990E-06,0.104
5.000E-06,0.108
5.010E-06,0.108
5.020E-06,0.100
5.030E-06,0.104
5.040E-06,0.104
5.050E-06,0.104
5.060E-06,0.104
5.070E-06,0.104
5.080E-06,0.100
5.090E-06,0.100
5.100E-06,0.096
5.110E-06,0.100
5.120E-06,0.096
5.130E-06,0.096
5.140E-06,0.104
5.150E-06,0.100
5.160E-06,0.104
5.170E-06,0.100
5.180E-06,0.096
5.190E-06,0.096
5.200E-06,0.100
5.210E-06,0.096
5.220E-06,0.100
5.230E-06,0.100
5.240E-06,0.096
5.250E-06,0.100
5.260E-06,0.096
5.270E-06,0.096
5.280E-06,0.092
5.290E-06,0.100
5.300E-06,0.092
5.310E-06,0.092
5.320E-06,0.096
5.330E-06,0.096
5.340E-06,0.092
5.350E-06,0.092
5.360E-06,0.096
5.370E-06,0.092
5.380E-06,0.092
5.390E-06,0.092
5.400E-06,0.092
5.410E-06,0.096
5.420E-06,0.092
5.430E-06,0.088
5.440E-06,0.088
5.450E-06,0.092
5.460E-06,0.084
5.470E-06,0.088
5.480E-06,0.092
5.490E-06,0.092
5.500E-06,0.088
5.510E-06,0.092
5.520E-06,0.092
5.530E-06,0.088
5.540E-06,0.088
5.550E-06,0.088
5.560E-06,0.088
5.570E-06,0.088
5.580E-06,0.088
5.590E-06,0.088
5.600E-06,0.088
5.610E-06,0.088
5.620E-06,0.088
5.630E-06,0.084
5.640E-06,0.084
5.650E-06,0.092
5.660E-06,0.088
5.670E-06,0.084
5.680E-06,0.084
5.690E-06,0.080
5.700E-06,0.076
5.710E-06,0.084
5.720E-06,0.084
5.730E-06,0.076
5.740E-06,0.084
5.750E-06,0.080
5.760E-06,0.076
5.770E-06,0.080
5.780E-06,0.076
5.790E-06,0.076
5.800E-06,0.076
5.810E-06,0.076
5.820E-06,0.076
5.830E-06,0.080
5.840E-06,0.080
5.850E-06,0.072
5.860E-06,0.072
5.870E-06,0.072
5.880E-06,0.072
5.890E-06,0.072
5.900E-06,0.072
5.910E-06,0.076
5.920E-06,0.076
5.930E-06,0.068
5.940E-06,0.072
5.950E-06,0.068
5.960E-06,0.068
5.970E-06,0.068
5.980E-06,0.068
5.990E-06,0.072
6.000E-06,0.064
6.010E-06,0.068
6.020E-06,0.064
6.030E-06,0.068
6.040E-06,0.064
6.050E-06,0.064
6.060E-06,0.064
6.070E-06,0.060
6.080E-06,0.060
6.090E-06,0.060
6.100E-06,0.064
6.110E-06,0.064
6.120E-06,0.060
6.130E-06,0.060
6.140E-06,0.056
6.150E-06,0.056
6.160E-06,0.060
6.170E-06,0.064
6.180E-06,0.060
6.190E-06,0.060
6.200E-06,0.064
6.210E-06,0.064
6.220E-06,0.060
6.230E-06,0.056
6.240E-06,0.056
6.250E-06,0.060
6.260E-06,0.060
6.270E-06,0.064
6.280E-06,0.060
6.290E-06,0.068
6.300E-06,0.060
6.310E-06,0.064
6.320E-06,0.060
6.330E-06,0.056
6.340E-06,0.060
6.350E-06,0.056
6.360E-06,0.060
6.370E-06,0.056
6.380E-06,0.056
6.390E-06,0.056
6.400E-06,0.056
6.410E-06,0.060
6.420E-06,0.060
6.430E-06,0.052
6.440E-06,0.052
6.450E-06,0.056
6.460E-06,0.044
6.470E-06,0.052
6.480E-06,0.060
6.490E-06,0.052
6.500E-06,0.056
6.510E-06,0.048
6.520E-06,0.044
6.530E-06,0.044
6.540E-06,0.052
6.550E-06,0.048
6.560E-06,0.052
6.570E-06,0.052
6.580E-06,0.052
6.590E-06,0.048
6.600E-06,0.044
6.610E-06,0.040
6.620E-06,0.044
6.630E-06,0.048
6.640E-06,0.044
6.650E-06,0.048
6.660E-06,0.048
6.670E-06,0.044
6.680E-06,0.040
6.690E-06,0.044
6.700E-06,0.044
6.710E-06,0.040
6.720E-06,0.048
6.730E-06,0.044
6.740E-06,0.040
6.750E-06,0.040
6.760E-06,0.036
6.770E-06,0.044
6.780E-06,0.044
6.790E-06,0.040
6.800E-06,0.044
6.810E-06,0.044
6.820E-06,0.040
6.830E-06,0.040
6.840E-06,0.032
6.850E-06,0.036
6.860E-06,0.028
6.870E-06,0.040
6.880E-06,0.044
6.890E-06,0.016
6.900E-06,0.028
6.910E-06,0.008
6.920E-06,0.008
6.930E-06,0.012
6.940E-06,0.036
6.950E-06,0.052
6.960E-06,0.072
6.970E-06,0.064
6.980E-06,0.040
6.990E-06,0.028
7.000E-06,0.024
7.010E-06,0.036
7.020E-06,0.044
7.030E-06,0.052
7.040E-06,0.056
7.050E-06,0.052
7.060E-06,0.028
7.070E-06,0.020
7.080E-06,0.016
7.090E-06,0.016
7.100E-06,0.020
7.110E-06,0.032
7.120E-06,0.048
7.130E-06,0.048
7.140E-06,0.036
7.150E-06,0.028
7.160E-06,0.020
7.170E-06,0.020
7.180E-06,0.028
7.190E-06,0.036
7.200E-06,0.044
7.210E-06,0.040
7.220E-06,0.036
7.230E-06,0.028
7.240E-06,0.024
7.250E-06,0.024
7.260E-06,0.016
7.270E-06,0.024
7.280E-06,0.032
7.290E-06,0.036
7.300E-06,0.032
7.310E-06,0.028
7.320E-06,0.024
7.330E-06,0.024
7.340E-06,0.028
7.350E-06,0.024
7.360E-06,0.028
7.370E-06,0.040
7.380E-06,0.032
7.390E-06,0.024
7.400E-06,0.028
7.410E-06,0.020
7.420E-06,0.012
7.430E-06,0.020
7.440E-06,0.024
7.450E-06,0.028
7.460E-06,0.028
7.470E-06,0.024
7.480E-06,0.028
7.490E-06,0.020
7.500E-06,0.012
7.510E-06,0.012
7.520E-06,0.024
7.530E-06,0.020
7.540E-06,0.020
7.550E-06,0.024
7.560E-06,0.020
7.570E-06,0.020
7.580E-06,0.012
7.590E-06,0.020
7.600E-06,0.024
7.610E-06,0.024
7.620E-06,0.024
7.630E-06,0.016
7.640E-06,0.020
7.650E-06,0.016
7.660E-06,0.016
7.670E-06,0.016
7.680E-06,0.016
7.690E-06,0.020
7.700E-06,0.020
7.710E-06,0.024
7.720E-06,0.020
7.730E-06,0.024
7.740E-06,0.020
7.750E-06,0.016
7.760E-06,0.008
7.770E-06,0.008
7.780E-06,0.016
7.790E-06,0.020
7.800E-06,0.016
7.810E-06,0.012
