mediciones/Mediciones filtradas (saque las feas)/6-10/64.4/WaveData55266.csv

#timebase=2000000(ps)
,#voltbase=500000(mv/100)
#size=4000
-4.200E-06,0.080
-4.190E-06,-0.020
-4.180E-06,-0.040
-4.170E-06,-0.120
-4.160E-06,-0.100
-4.150E-06,0.060
-4.140E-06,0.080
-4.130E-06,0.200
-4.120E-06,0.440
-4.110E-06,0.000
-4.100E-06,-0.100
-4.090E-06,-0.420
-4.080E-06,-0.060
-4.070E-06,0.340
-4.060E-06,0.600
-4.050E-06,0.840
-4.040E-06,0.360
-4.030E-06,-0.020
-4.020E-06,-0.340
-4.010E-06,-0.360
-4.000E-06,-0.040
-3.990E-06,0.420
-3.980E-06,0.560
-3.970E-06,0.420
-3.960E-06,0.220
-3.950E-06,0.020
-3.940E-06,0.020
-3.930E-06,0.100
-3.920E-06,0.160
-3.910E-06,0.200
-3.900E-06,0.100
-3.890E-06,-0.040
-3.880E-06,-0.060
-3.870E-06,-0.100
-3.860E-06,-0.100
-3.850E-06,-0.040
-3.840E-06,-0.200
-3.830E-06,-0.240
-3.820E-06,-0.160
-3.810E-06,-0.160
-3.800E-06,-0.020
-3.790E-06,-0.040
-3.780E-06,-0.080
-3.770E-06,-0.080
-3.760E-06,-0.160
-3.750E-06,-0.120
-3.740E-06,-0.060
-3.730E-06,0.000
-3.720E-06,0.100
-3.710E-06,0.100
-3.700E-06,0.100
-3.690E-06,0.100
-3.680E-06,0.060
-3.670E-06,0.060
-3.660E-06,0.120
-3.650E-06,0.200
-3.640E-06,0.220
-3.630E-06,0.220
-3.620E-06,0.200
-3.610E-06,0.220
-3.600E-06,0.220
-3.590E-06,0.200
-3.580E-06,0.200
-3.570E-06,0.200
-3.560E-06,0.200
-3.550E-06,0.200
-3.540E-06,0.180
-3.530E-06,0.180
-3.520E-06,0.180
-3.510E-06,0.120
-3.500E-06,0.140
-3.490E-06,0.080
-3.480E-06,0.100
-3.470E-06,0.100
-3.460E-06,0.140
-3.450E-06,0.100
-3.440E-06,0.080
-3.430E-06,0.080
-3.420E-06,0.100
-3.410E-06,0.040
-3.400E-06,0.060
-3.390E-06,0.000
-3.380E-06,0.200
-3.370E-06,0.000
-3.360E-06,-0.340
-3.350E-06,-0.540
-3.340E-06,-0.500
-3.330E-06,0.000
-3.320E-06,0.520
-3.310E-06,1.180
-3.300E-06,0.920
-3.290E-06,0.680
-3.280E-06,-0.180
-3.270E-06,-0.600
-3.260E-06,-0.480
-3.250E-06,0.000
-3.240E-06,0.580
-3.230E-06,0.720
-3.220E-06,0.440
-3.210E-06,0.060
-3.200E-06,-0.200
-3.190E-06,-0.260
-3.180E-06,-0.080
-3.170E-06,0.060
-3.160E-06,0.120
-3.150E-06,0.060
-3.140E-06,-0.080
-3.130E-06,-0.160
-3.120E-06,-0.180
-3.110E-06,-0.180
-3.100E-06,-0.280
-3.090E-06,-0.340
-3.080E-06,-0.360
-3.070E-06,-0.300
-3.060E-06,-0.180
-3.050E-06,-0.140
-3.040E-06,-0.120
-3.030E-06,-0.160
-3.020E-06,-0.180
-3.010E-06,-0.160
-3.000E-06,-0.100
-2.990E-06,-0.040
-2.980E-06,0.080
-2.970E-06,0.140
-2.960E-06,0.160
-2.950E-06,0.080
-2.940E-06,0.080
-2.930E-06,0.060
-2.920E-06,0.080
-2.910E-06,0.160
-2.900E-06,0.220
-2.890E-06,0.260
-2.880E-06,0.300
-2.870E-06,0.320
-2.860E-06,0.360
-2.850E-06,0.420
-2.840E-06,0.340
-2.830E-06,0.320
-2.820E-06,0.240
-2.810E-06,0.240
-2.800E-06,0.440
-2.790E-06,0.480
-2.780E-06,0.500
-2.770E-06,0.440
-2.760E-06,0.280
-2.750E-06,0.120
-2.740E-06,0.120
-2.730E-06,0.200
-2.720E-06,0.300
-2.710E-06,0.340
-2.700E-06,0.340
-2.690E-06,0.180
-2.680E-06,0.060
-2.670E-06,-0.040
-2.660E-06,-0.020
-2.650E-06,0.040
-2.640E-06,0.080
-2.630E-06,0.060
-2.620E-06,0.020
-2.610E-06,-0.040
-2.600E-06,-0.080
-2.590E-06,-0.060
-2.580E-06,-0.080
-2.570E-06,-0.080
-2.560E-06,-0.060
-2.550E-06,-0.160
-2.540E-06,-0.380
-2.530E-06,-0.560
-2.520E-06,-0.560
-2.510E-06,-0.520
-2.500E-06,-0.120
-2.490E-06,-0.100
-2.480E-06,0.060
-2.470E-06,0.200
-2.460E-06,-0.140
-2.450E-06,0.080
-2.440E-06,0.060
-2.430E-06,0.080
-2.420E-06,0.280
-2.410E-06,0.120
-2.400E-06,0.060
-2.390E-06,0.280
-2.380E-06,0.300
-2.370E-06,0.440
-2.360E-06,0.540
-2.350E-06,0.480
-2.340E-06,0.500
-2.330E-06,0.440
-2.320E-06,0.420
-2.310E-06,0.440
-2.300E-06,0.460
-2.290E-06,0.420
-2.280E-06,0.320
-2.270E-06,0.260
-2.260E-06,0.160
-2.250E-06,0.080
-2.240E-06,0.040
-2.230E-06,0.000
-2.220E-06,0.000
-2.210E-06,-0.080
-2.200E-06,-0.080
-2.190E-06,-0.080
-2.180E-06,-0.120
-2.170E-06,-0.140
-2.160E-06,-0.180
-2.150E-06,-0.160
-2.140E-06,-0.140
-2.130E-06,-0.160
-2.120E-06,-0.120
-2.110E-06,-0.120
-2.100E-06,-0.100
-2.090E-06,-0.040
-2.080E-06,-0.040
-2.070E-06,-0.040
-2.060E-06,-0.080
-2.050E-06,-0.040
-2.040E-06,-0.040
-2.030E-06,0.080
-2.020E-06,0.060
-2.010E-06,0.060
-2.000E-06,0.080
-1.990E-06,0.100
-1.980E-06,0.080
-1.970E-06,0.100
-1.960E-06,0.120
-1.950E-06,0.160
-1.940E-06,0.200
-1.930E-06,0.180
-1.920E-06,0.180
-1.910E-06,0.200
-1.900E-06,0.180
-1.890E-06,0.180
-1.880E-06,0.160
-1.870E-06,0.160
-1.860E-06,0.120
-1.850E-06,0.100
-1.840E-06,0.080
-1.830E-06,0.060
-1.820E-06,0.020
-1.810E-06,0.020
-1.800E-06,0.020
-1.790E-06,0.020
-1.780E-06,0.100
-1.770E-06,0.140
-1.760E-06,0.120
-1.750E-06,0.080
-1.740E-06,0.060
-1.730E-06,0.100
-1.720E-06,0.100
-1.710E-06,0.200
-1.700E-06,0.220
-1.690E-06,0.260
-1.680E-06,0.220
-1.670E-06,0.200
-1.660E-06,0.260
-1.650E-06,0.240
-1.640E-06,0.320
-1.630E-06,0.360
-1.620E-06,0.380
-1.610E-06,0.420
-1.600E-06,0.340
-1.590E-06,0.300
-1.580E-06,0.180
-1.570E-06,0.100
-1.560E-06,-0.020
-1.550E-06,-0.180
-1.540E-06,-0.260
-1.530E-06,-0.420
-1.520E-06,-0.340
-1.510E-06,-0.140
-1.500E-06,0.120
-1.490E-06,0.400
-1.480E-06,0.500
-1.470E-06,0.440
-1.460E-06,0.380
-1.450E-06,0.220
-1.440E-06,0.260
-1.430E-06,0.320
-1.420E-06,0.420
-1.410E-06,0.480
-1.400E-06,0.380
-1.390E-06,0.280
-1.380E-06,0.240
-1.370E-06,0.260
-1.360E-06,0.320
-1.350E-06,0.360
-1.340E-06,0.380
-1.330E-06,0.380
-1.320E-06,0.240
-1.310E-06,-0.100
-1.300E-06,0.040
-1.290E-06,-0.080
-1.280E-06,0.060
-1.270E-06,0.220
-1.260E-06,0.100
-1.250E-06,0.140
-1.240E-06,0.140
-1.230E-06,0.020
-1.220E-06,0.160
-1.210E-06,0.280
-1.200E-06,0.280
-1.190E-06,0.360
-1.180E-06,0.240
-1.170E-06,0.180
-1.160E-06,0.180
-1.150E-06,0.100
-1.140E-06,0.160
-1.130E-06,0.120
-1.120E-06,0.080
-1.110E-06,0.020
-1.100E-06,-0.060
-1.090E-06,-0.120
-1.080E-06,-0.160
-1.070E-06,-0.180
-1.060E-06,-0.220
-1.050E-06,-0.220
-1.040E-06,-0.240
-1.030E-06,-0.260
-1.020E-06,-0.280
-1.010E-06,-0.260
-1.000E-06,-0.260
-9.900E-07,-0.200
-9.800E-07,-0.100
-9.700E-07,-0.040
-9.600E-07,-0.020
-9.500E-07,0.080
-9.400E-07,0.120
-9.300E-07,0.100
-9.200E-07,0.260
-9.100E-07,0.240
-9.000E-07,0.320
-8.900E-07,0.360
-8.800E-07,0.300
-8.700E-07,0.280
-8.600E-07,0.180
-8.500E-07,0.100
-8.400E-07,0.140
-8.300E-07,0.060
-8.200E-07,0.160
-8.100E-07,0.180
-8.000E-07,0.160
-7.900E-07,0.120
-7.800E-07,0.040
-7.700E-07,0.140
-7.600E-07,0.000
-7.500E-07,-0.220
-7.400E-07,-0.820
-7.300E-07,-0.380
-7.200E-07,-0.580
-7.100E-07,0.000
-7.000E-07,0.620
-6.900E-07,1.180
-6.800E-07,0.660
-6.700E-07,0.840
-6.600E-07,-0.140
-6.500E-07,-0.680
-6.400E-07,0.040
-6.300E-07,0.040
-6.200E-07,0.840
-6.100E-07,0.980
-6.000E-07,0.660
-5.900E-07,0.480
-5.800E-07,0.180
-5.700E-07,0.000
-5.600E-07,0.280
-5.500E-07,0.340
-5.400E-07,0.160
-5.300E-07,0.260
-5.200E-07,0.400
-5.100E-07,0.320
-5.000E-07,0.480
-4.900E-07,0.420
-4.800E-07,-0.120
-4.700E-07,-0.060
-4.600E-07,-0.340
-4.500E-07,-0.360
-4.400E-07,0.160
-4.300E-07,0.020
-4.200E-07,0.100
-4.100E-07,-0.040
-4.000E-07,-0.280
-3.900E-07,-0.120
-3.800E-07,0.080
-3.700E-07,0.140
-3.600E-07,0.320
-3.500E-07,0.240
-3.400E-07,0.040
-3.300E-07,0.160
-3.200E-07,0.060
-3.100E-07,0.080
-3.000E-07,0.080
-2.900E-07,0.000
-2.800E-07,0.000
-2.700E-07,-0.040
-2.600E-07,-0.100
-2.500E-07,-0.160
-2.400E-07,-0.160
-2.300E-07,-0.260
-2.200E-07,-0.260
-2.100E-07,-0.300
-2.000E-07,-0.200
-1.900E-07,-0.140
-1.800E-07,-0.020
-1.700E-07,0.060
-1.600E-07,0.040
-1.500E-07,0.020
-1.400E-07,0.000
-1.300E-07,0.160
-1.200E-07,0.120
-1.100E-07,0.460
-1.000E-07,0.520
-9.000E-08,0.560
-8.000E-08,0.720
-7.000E-08,0.360
-6.000E-08,0.500
-5.000E-08,0.180
-4.000E-08,-0.380
-3.000E-08,0.560
-2.000E-08,-1.100
-1.000E-08,-2.000
0.000E+00,-0.920
1.000E-08,-1.640
2.000E-08,1.520
3.000E-08,2.760
4.000E-08,2.220
5.000E-08,2.760
6.000E-08,-0.020
7.000E-08,-1.720
8.000E-08,-2.040
9.000E-08,-1.700
1.000E-07,-0.020
1.100E-07,1.880
1.200E-07,2.420
1.300E-07,2.060
1.400E-07,1.500
1.500E-07,-0.400
1.600E-07,-1.420
1.700E-07,-0.600
1.800E-07,-0.400
1.900E-07,1.100
2.000E-07,2.020
2.100E-07,1.340
2.200E-07,1.500
2.300E-07,-0.180
2.400E-07,-0.800
2.500E-07,-0.900
2.600E-07,-0.760
2.700E-07,-0.120
2.800E-07,0.320
2.900E-07,0.300
3.000E-07,0.120
3.100E-07,-0.280
3.200E-07,-0.680
3.300E-07,-0.820
3.400E-07,-1.000
3.500E-07,-0.760
3.600E-07,-0.600
3.700E-07,-0.280
3.800E-07,-0.060
3.900E-07,-0.300
4.000E-07,-0.480
4.100E-07,-0.700
4.200E-07,-0.820
4.300E-07,-0.580
4.400E-07,-0.300
4.500E-07,-0.200
4.600E-07,0.040
4.700E-07,-0.100
4.800E-07,-0.060
4.900E-07,-0.060
5.000E-07,-0.220
5.100E-07,-0.020
5.200E-07,-0.140
5.300E-07,0.060
5.400E-07,0.120
5.500E-07,0.100
5.600E-07,0.160
5.700E-07,-0.100
5.800E-07,0.060
5.900E-07,0.040
6.000E-07,0.200
6.100E-07,0.340
6.200E-07,0.340
6.300E-07,0.400
6.400E-07,0.240
6.500E-07,0.240
6.600E-07,0.160
6.700E-07,0.100
6.800E-07,0.080
6.900E-07,0.060
7.000E-07,0.060
7.100E-07,0.120
7.200E-07,0.140
7.300E-07,0.180
7.400E-07,0.100
7.500E-07,0.100
7.600E-07,0.120
7.700E-07,0.200
7.800E-07,0.360
7.900E-07,0.440
8.000E-07,0.540
8.100E-07,0.380
8.200E-07,0.240
8.300E-07,0.020
8.400E-07,0.180
8.500E-07,-0.040
8.600E-07,-0.420
8.700E-07,-0.400
8.800E-07,-0.620
8.900E-07,-0.100
9.000E-07,0.600
9.100E-07,2.000
9.200E-07,1.440
9.300E-07,-1.880
9.400E-07,-1.540
9.500E-07,-2.660
9.600E-07,-2.520
9.700E-07,1.420
9.800E-07,1.700
9.900E-07,2.760
1.000E-06,1.480
1.010E-06,-1.360
1.020E-06,-1.280
1.030E-06,-1.240
1.040E-06,-0.040
1.050E-06,2.140
1.060E-06,1.380
1.070E-06,1.320
1.080E-06,0.860
1.090E-06,0.080
1.100E-06,0.120
1.110E-06,0.500
1.120E-06,-0.020
1.130E-06,-0.240
1.140E-06,-0.440
1.150E-06,-0.720
1.160E-06,-0.560
1.170E-06,-0.660
1.180E-06,-1.020
1.190E-06,-1.320
1.200E-06,-1.360
1.210E-06,-1.260
1.220E-06,-0.860
1.230E-06,-0.660
1.240E-06,-0.680
1.250E-06,-0.680
1.260E-06,-0.740
1.270E-06,-0.560
1.280E-06,-0.300
1.290E-06,-0.260
1.300E-06,-0.080
1.310E-06,-0.100
1.320E-06,0.080
1.330E-06,0.140
1.340E-06,0.060
1.350E-06,0.160
1.360E-06,0.120
1.370E-06,0.280
1.380E-06,0.400
1.390E-06,0.320
1.400E-06,0.340
1.410E-06,0.260
1.420E-06,0.320
1.430E-06,0.540
1.440E-06,0.780
1.450E-06,0.440
1.460E-06,0.240
1.470E-06,-0.080
1.480E-06,-0.400
1.490E-06,-0.020
1.500E-06,0.340
1.510E-06,0.640
1.520E-06,0.880
1.530E-06,0.680
1.540E-06,0.220
1.550E-06,-0.080
1.560E-06,-0.020
1.570E-06,0.280
1.580E-06,0.860
1.590E-06,1.100
1.600E-06,1.320
1.610E-06,1.120
1.620E-06,0.480
1.630E-06,0.280
1.640E-06,-0.080
1.650E-06,0.180
1.660E-06,0.280
1.670E-06,0.780
1.680E-06,1.400
1.690E-06,1.240
1.700E-06,0.840
1.710E-06,-0.840
1.720E-06,-1.340
1.730E-06,-1.360
1.740E-06,-1.240
1.750E-06,0.600
1.760E-06,0.660
1.770E-06,1.220
1.780E-06,0.540
1.790E-06,-0.360
1.800E-06,0.120
1.810E-06,-1.180
1.820E-06,-0.980
1.830E-06,-0.180
1.840E-06,-0.940
1.850E-06,-0.100
1.860E-06,-0.140
1.870E-06,-1.240
1.880E-06,0.420
1.890E-06,0.180
1.900E-06,0.260
1.910E-06,1.560
1.920E-06,0.740
1.930E-06,0.420
1.940E-06,0.560
1.950E-06,-0.300
1.960E-06,0.260
1.970E-06,0.480
1.980E-06,0.140
1.990E-06,0.260
2.000E-06,0.160
2.010E-06,-0.180
2.020E-06,-0.040
2.030E-06,-0.020
2.040E-06,-0.100
2.050E-06,0.000
2.060E-06,-0.320
2.070E-06,-0.460
2.080E-06,-0.660
2.090E-06,-0.540
2.100E-06,-0.760
2.110E-06,-0.840
2.120E-06,-0.880
2.130E-06,-1.100
2.140E-06,-1.060
2.150E-06,-1.080
2.160E-06,-1.020
2.170E-06,-0.840
2.180E-06,-0.580
2.190E-06,-0.720
2.200E-06,-0.400
2.210E-06,-0.360
2.220E-06,-0.300
2.230E-06,-0.180
2.240E-06,-0.240
2.250E-06,-0.020
2.260E-06,0.180
2.270E-06,0.420
2.280E-06,0.360
2.290E-06,0.240
2.300E-06,0.280
2.310E-06,0.200
2.320E-06,0.220
2.330E-06,0.240
2.340E-06,0.280
2.350E-06,0.380
2.360E-06,0.380
2.370E-06,0.320
2.380E-06,0.160
2.390E-06,0.000
2.400E-06,-0.140
2.410E-06,-0.180
2.420E-06,-0.160
2.430E-06,-0.240
2.440E-06,-0.060
2.450E-06,-0.640
2.460E-06,-0.560
2.470E-06,-0.500
2.480E-06,-1.000
2.490E-06,0.240
2.500E-06,0.160
2.510E-06,1.020
2.520E-06,1.720
2.530E-06,1.000
2.540E-06,0.580
2.550E-06,-0.280
2.560E-06,-1.160
2.570E-06,-0.880
2.580E-06,-1.620
2.590E-06,-0.840
2.600E-06,-1.800
2.610E-06,-1.520
2.620E-06,-0.440
2.630E-06,-0.360
2.640E-06,1.420
2.650E-06,1.620
2.660E-06,1.380
2.670E-06,1.020
2.680E-06,0.220
2.690E-06,0.160
2.700E-06,0.560
2.710E-06,0.820
2.720E-06,1.120
2.730E-06,0.860
2.740E-06,0.420
2.750E-06,0.040
2.760E-06,-0.020
2.770E-06,-0.400
2.780E-06,-0.280
2.790E-06,-0.780
2.800E-06,-0.400
2.810E-06,-0.500
2.820E-06,-0.540
2.830E-06,-1.200
2.840E-06,-1.520
2.850E-06,-1.520
2.860E-06,-1.460
2.870E-06,-0.600
2.880E-06,-0.260
2.890E-06,-0.220
2.900E-06,-0.200
2.910E-06,-0.680
2.920E-06,-0.840
2.930E-06,-0.320
2.940E-06,-0.100
2.950E-06,0.420
2.960E-06,0.880
2.970E-06,0.900
2.980E-06,0.900
2.990E-06,0.760
3.000E-06,0.260
3.010E-06,0.160
3.020E-06,-0.040
3.030E-06,-0.020
3.040E-06,0.040
3.050E-06,0.060
3.060E-06,-0.080
3.070E-06,-0.420
3.080E-06,-0.600
3.090E-06,-0.760
3.100E-06,-0.660
3.110E-06,-0.420
3.120E-06,-0.320
3.130E-06,-0.320
3.140E-06,-0.160
3.150E-06,-0.260
3.160E-06,-0.260
3.170E-06,-0.260
3.180E-06,-0.340
3.190E-06,-0.320
3.200E-06,-0.160
3.210E-06,-0.060
3.220E-06,-0.160
3.230E-06,0.080
3.240E-06,0.180
3.250E-06,0.180
3.260E-06,0.340
3.270E-06,-0.020
3.280E-06,-0.420
3.290E-06,0.240
3.300E-06,0.260
3.310E-06,-0.700
3.320E-06,-1.840
3.330E-06,-2.640
3.340E-06,-2.660
3.350E-06,-0.460
3.360E-06,0.220
3.370E-06,1.360
3.380E-06,2.180
3.390E-06,0.140
3.400E-06,-0.340
3.410E-06,-1.420
3.420E-06,-1.800
3.430E-06,-0.200
3.440E-06,-0.540
3.450E-06,0.700
3.460E-06,1.360
3.470E-06,0.760
3.480E-06,0.780
3.490E-06,0.260
3.500E-06,0.060
3.510E-06,0.260
3.520E-06,0.460
3.530E-06,0.780
3.540E-06,1.120
3.550E-06,0.700
3.560E-06,0.180
3.570E-06,-0.380
3.580E-06,-0.800
3.590E-06,-0.960
3.600E-06,-0.660
3.610E-06,-0.520
3.620E-06,-0.460
3.630E-06,-0.560
3.640E-06,-0.660
3.650E-06,-0.520
3.660E-06,-0.420
3.670E-06,-0.300
3.680E-06,-0.200
3.690E-06,-0.020
3.700E-06,0.140
3.710E-06,0.280
3.720E-06,0.260
3.730E-06,0.200
3.740E-06,0.060
3.750E-06,0.140
3.760E-06,0.380
3.770E-06,0.440
3.780E-06,0.460
3.790E-06,0.240
3.800E-06,0.020
3.810E-06,-0.120
3.820E-06,-0.100
3.830E-06,-0.120
3.840E-06,-0.020
3.850E-06,0.140
3.860E-06,0.260
3.870E-06,0.260
3.880E-06,0.220
3.890E-06,0.060
3.900E-06,0.000
3.910E-06,-0.060
3.920E-06,0.040
3.930E-06,0.120
3.940E-06,-0.220
3.950E-06,-0.160
3.960E-06,-0.480
3.970E-06,-0.500
3.980E-06,-0.320
3.990E-06,-0.420
4.000E-06,0.080
4.010E-06,0.560
4.020E-06,0.540
4.030E-06,1.000
4.040E-06,0.800
4.050E-06,0.100
4.060E-06,0.040
4.070E-06,-0.560
4.080E-06,-0.920
4.090E-06,-0.740
4.100E-06,-0.840
4.110E-06,-0.320
4.120E-06,0.320
4.130E-06,0.420
4.140E-06,1.340
4.150E-06,1.600
4.160E-06,1.640
4.170E-06,1.660
4.180E-06,1.020
4.190E-06,0.660
4.200E-06,0.320
4.210E-06,0.020
4.220E-06,0.440
4.230E-06,0.800
4.240E-06,0.920
4.250E-06,1.180
4.260E-06,0.660
4.270E-06,0.080
4.280E-06,-0.360
4.290E-06,-1.160
4.300E-06,-1.460
4.310E-06,-1.480
4.320E-06,-1.360
4.330E-06,-0.960
4.340E-06,-0.820
4.350E-06,-0.800
4.360E-06,-0.880
4.370E-06,-1.100
4.380E-06,-1.080
4.390E-06,-1.020
4.400E-06,-0.880
4.410E-06,-0.820
4.420E-06,-0.720
4.430E-06,-0.740
4.440E-06,-0.860
4.450E-06,-1.060
4.460E-06,-1.360
4.470E-06,-1.520
4.480E-06,-1.700
4.490E-06,-1.760
4.500E-06,-1.700
4.510E-06,-1.720
4.520E-06,-1.780
4.530E-06,-1.860
4.540E-06,-1.940
4.550E-06,-1.780
4.560E-06,-1.680
4.570E-06,-1.520
4.580E-06,-1.320
4.590E-06,-1.140
4.600E-06,-1.000
4.610E-06,-0.680
4.620E-06,-0.300
4.630E-06,0.100
4.640E-06,0.340
4.650E-06,0.320
4.660E-06,0.220
4.670E-06,0.060
4.680E-06,0.020
4.690E-06,0.060
4.700E-06,0.180
4.710E-06,0.300
4.720E-06,0.380
4.730E-06,0.300
4.740E-06,0.260
4.750E-06,0.260
4.760E-06,0.300
4.770E-06,0.320
4.780E-06,0.300
4.790E-06,0.220
4.800E-06,0.180
4.810E-06,0.100
4.820E-06,0.040
4.830E-06,-0.060
4.840E-06,-0.180
4.850E-06,-0.260
4.860E-06,-0.380
4.870E-06,-0.500
4.880E-06,-0.580
4.890E-06,-0.620
4.900E-06,-0.700
4.910E-06,-0.780
4.920E-06,-0.820
4.930E-06,-0.780
4.940E-06,-0.760
4.950E-06,-0.740
4.960E-06,-0.640
4.970E-06,-0.580
4.980E-06,-0.440
4.990E-06,-0.320
5.000E-06,-0.240
5.010E-06,-0.140
5.020E-06,-0.020
5.030E-06,0.020
5.040E-06,0.100
5.050E-06,0.140
5.060E-06,0.180
5.070E-06,0.260
5.080E-06,0.280
5.090E-06,0.320
5.100E-06,0.320
5.110E-06,0.340
5.120E-06,0.300
5.130E-06,0.320
5.140E-06,0.320
5.150E-06,0.240
5.160E-06,0.240
5.170E-06,0.240
5.180E-06,0.300
5.190E-06,0.320
5.200E-06,0.340
5.210E-06,0.340
5.220E-06,0.320
5.230E-06,0.400
5.240E-06,0.440
5.250E-06,0.480
5.260E-06,0.480
5.270E-06,0.480
5.280E-06,0.520
5.290E-06,0.500
5.300E-06,0.500
5.310E-06,0.500
5.320E-06,0.460
5.330E-06,0.420
5.340E-06,0.400
5.350E-06,0.260
5.360E-06,0.160
5.370E-06,0.060
5.380E-06,0.020
5.390E-06,-0.020
5.400E-06,-0.060
5.410E-06,-0.080
5.420E-06,-0.100
5.430E-06,-0.040
5.440E-06,-0.020
5.450E-06,0.020
5.460E-06,0.020
5.470E-06,0.080
5.480E-06,0.080
5.490E-06,0.060
5.500E-06,0.060
5.510E-06,-0.020
5.520E-06,0.000
5.530E-06,0.100
5.540E-06,0.160
5.550E-06,0.200
5.560E-06,0.240
5.570E-06,0.300
5.580E-06,0.320
5.590E-06,0.340
5.600E-06,0.260
5.610E-06,0.280
5.620E-06,0.240
5.630E-06,0.200
5.640E-06,0.220
5.650E-06,0.200
5.660E-06,0.180
5.670E-06,0.200
5.680E-06,0.220
5.690E-06,0.240
5.700E-06,0.300
5.710E-06,0.320
5.720E-06,0.340
5.730E-06,0.240
5.740E-06,0.300
5.750E-06,0.320
5.760E-06,0.260
5.770E-06,0.340
5.780E-06,0.320
5.790E-06,0.240
5.800E-06,0.320
5.810E-06,0.140
5.820E-06,0.140
5.830E-06,0.260
5.840E-06,0.240
5.850E-06,0.240
5.860E-06,0.160
5.870E-06,0.060
5.880E-06,0.000
5.890E-06,0.060
5.900E-06,0.160
5.910E-06,0.240
5.920E-06,0.300
5.930E-06,0.300
5.940E-06,0.240
5.950E-06,0.340
5.960E-06,0.360
5.970E-06,0.340
5.980E-06,0.380
5.990E-06,0.380
6.000E-06,0.280
6.010E-06,0.260
6.020E-06,0.240
6.030E-06,0.200
6.040E-06,0.180
6.050E-06,0.180
6.060E-06,0.160
6.070E-06,0.180
6.080E-06,0.140
6.090E-06,0.120
6.100E-06,0.140
6.110E-06,0.180
6.120E-06,0.200
6.130E-06,0.200
6.140E-06,0.220
6.150E-06,0.180
6.160E-06,0.180
6.170E-06,0.160
6.180E-06,0.140
6.190E-06,0.020
6.200E-06,0.000
6.210E-06,-0.060
6.220E-06,-0.160
6.230E-06,-0.260
6.240E-06,-0.320
6.250E-06,-0.320
6.260E-06,-0.340
6.270E-06,-0.360
6.280E-06,-0.360
6.290E-06,-0.360
6.300E-06,-0.360
6.310E-06,-0.360
6.320E-06,-0.400
6.330E-06,-0.320
6.340E-06,-0.280
6.350E-06,-0.260
6.360E-06,-0.240
6.370E-06,-0.160
6.380E-06,-0.160
6.390E-06,-0.180
6.400E-06,-0.160
6.410E-06,-0.160
6.420E-06,-0.140
6.430E-06,-0.080
6.440E-06,-0.060
6.450E-06,-0.020
6.460E-06,0.020
6.470E-06,0.120
6.480E-06,0.120
6.490E-06,0.200
6.500E-06,0.240
6.510E-06,0.260
6.520E-06,0.300
6.530E-06,0.340
6.540E-06,0.320
6.550E-06,0.340
6.560E-06,0.320
6.570E-06,0.340
6.580E-06,0.280
6.590E-06,0.260
6.600E-06,0.220
6.610E-06,0.180
6.620E-06,0.140
6.630E-06,0.100
6.640E-06,0.020
6.650E-06,0.020
6.660E-06,0.000
6.670E-06,-0.040
6.680E-06,-0.060
6.690E-06,-0.060
6.700E-06,-0.100
6.710E-06,-0.140
6.720E-06,-0.220
6.730E-06,-0.320
6.740E-06,-0.380
6.750E-06,-0.480
6.760E-06,-0.580
6.770E-06,-0.580
6.780E-06,-0.420
6.790E-06,-0.320
6.800E-06,-0.120
6.810E-06,0.100
6.820E-06,0.300
6.830E-06,0.440
6.840E-06,0.560
6.850E-06,0.560
6.860E-06,0.580
6.870E-06,0.580
6.880E-06,0.560
6.890E-06,0.560
6.900E-06,0.560
6.910E-06,0.580
6.920E-06,0.580
6.930E-06,0.560
6.940E-06,0.600
6.950E-06,0.580
6.960E-06,0.500
6.970E-06,0.440
6.980E-06,0.320
6.990E-06,0.220
7.000E-06,0.120
7.010E-06,0.020
7.020E-06,-0.020
7.030E-06,0.040
7.040E-06,0.080
7.050E-06,0.140
7.060E-06,0.140
7.070E-06,0.160
7.080E-06,0.120
7.090E-06,0.120
7.100E-06,0.100
7.110E-06,0.120
7.120E-06,0.180
7.130E-06,0.260
7.140E-06,0.360
7.150E-06,0.440
7.160E-06,0.500
7.170E-06,0.460
7.180E-06,0.420
7.190E-06,0.400
7.200E-06,0.360
7.210E-06,0.340
7.220E-06,0.380
7.230E-06,0.500
7.240E-06,0.560
7.250E-06,0.720
7.260E-06,0.840
7.270E-06,0.940
7.280E-06,0.960
7.290E-06,0.980
7.300E-06,0.980
7.310E-06,0.940
7.320E-06,0.900
7.330E-06,0.840
7.340E-06,0.780
7.350E-06,0.740
7.360E-06,0.640
7.370E-06,0.540
7.380E-06,0.500
7.390E-06,0.420
7.400E-06,0.260
7.410E-06,0.200
7.420E-06,0.080
7.430E-06,0.040
7.440E-06,0.040
7.450E-06,0.000
7.460E-06,0.020
7.470E-06,0.040
7.480E-06,0.040
7.490E-06,0.080
7.500E-06,0.100
7.510E-06,0.040
7.520E-06,0.020
7.530E-06,-0.020
7.540E-06,-0.100
7.550E-06,-0.160
7.560E-06,-0.220
7.570E-06,-0.220
7.580E-06,-0.180
7.590E-06,-0.080
7.600E-06,0.040
7.610E-06,0.080
7.620E-06,0.240
7.630E-06,0.300
7.640E-06,0.340
7.650E-06,0.420
7.660E-06,0.440
7.670E-06,0.480
7.680E-06,0.480
7.690E-06,0.440
7.700E-06,0.420
