mediciones/Mediciones filtradas (saque las feas)/6-10/64.4/WaveData55204.csv

#timebase=2000000(ps)
,#voltbase=500000(mv/100)
#size=4000
-4.250E-06,0.040
-4.240E-06,0.040
-4.230E-06,0.080
-4.220E-06,0.040
-4.210E-06,0.040
-4.200E-06,0.060
-4.190E-06,0.040
-4.180E-06,0.060
-4.170E-06,0.040
-4.160E-06,0.020
-4.150E-06,0.040
-4.140E-06,0.060
-4.130E-06,0.040
-4.120E-06,0.060
-4.110E-06,0.020
-4.100E-06,0.020
-4.090E-06,0.000
-4.080E-06,0.180
-4.070E-06,0.500
-4.060E-06,1.220
-4.050E-06,2.020
-4.040E-06,2.600
-4.030E-06,2.760
-4.020E-06,2.280
-4.010E-06,1.140
-4.000E-06,-0.320
-3.990E-06,-1.360
-3.980E-06,-1.740
-3.970E-06,-2.460
-3.960E-06,-2.020
-3.950E-06,-2.180
-3.940E-06,-2.660
-3.930E-06,-2.480
-3.920E-06,-2.300
-3.910E-06,-1.680
-3.900E-06,-0.980
-3.890E-06,-0.340
-3.880E-06,-0.140
-3.870E-06,0.060
-3.860E-06,-0.040
-3.850E-06,0.080
-3.840E-06,0.320
-3.830E-06,0.420
-3.820E-06,0.640
-3.810E-06,0.640
-3.800E-06,0.600
-3.790E-06,0.680
-3.780E-06,0.940
-3.770E-06,1.060
-3.760E-06,1.220
-3.750E-06,1.180
-3.740E-06,0.960
-3.730E-06,0.720
-3.720E-06,0.540
-3.710E-06,0.340
-3.700E-06,0.180
-3.690E-06,-0.020
-3.680E-06,-0.240
-3.670E-06,-0.380
-3.660E-06,-0.520
-3.650E-06,-0.480
-3.640E-06,-0.340
-3.630E-06,-0.080
-3.620E-06,0.160
-3.610E-06,0.400
-3.600E-06,0.560
-3.590E-06,0.720
-3.580E-06,0.780
-3.570E-06,0.820
-3.560E-06,0.800
-3.550E-06,0.760
-3.540E-06,0.640
-3.530E-06,0.500
-3.520E-06,0.420
-3.510E-06,0.300
-3.500E-06,0.140
-3.490E-06,-0.080
-3.480E-06,-0.300
-3.470E-06,-0.580
-3.460E-06,-0.840
-3.450E-06,-1.040
-3.440E-06,-1.140
-3.430E-06,-1.260
-3.420E-06,-1.200
-3.410E-06,-1.160
-3.400E-06,-1.120
-3.390E-06,-0.980
-3.380E-06,-0.860
-3.370E-06,-0.640
-3.360E-06,-0.380
-3.350E-06,-0.040
-3.340E-06,0.200
-3.330E-06,0.360
-3.320E-06,0.520
-3.310E-06,0.560
-3.300E-06,0.700
-3.290E-06,0.820
-3.280E-06,0.800
-3.270E-06,0.760
-3.260E-06,0.620
-3.250E-06,0.460
-3.240E-06,0.400
-3.230E-06,0.340
-3.220E-06,0.320
-3.210E-06,0.260
-3.200E-06,0.180
-3.190E-06,0.000
-3.180E-06,-0.060
-3.170E-06,-0.120
-3.160E-06,-0.060
-3.150E-06,-0.420
-3.140E-06,-0.060
-3.130E-06,-0.260
-3.120E-06,-0.380
-3.110E-06,-0.100
-3.100E-06,-0.440
-3.090E-06,-0.280
-3.080E-06,-0.160
-3.070E-06,-0.080
-3.060E-06,0.260
-3.050E-06,0.340
-3.040E-06,0.340
-3.030E-06,0.420
-3.020E-06,0.240
-3.010E-06,0.320
-3.000E-06,0.340
-2.990E-06,0.340
-2.980E-06,0.360
-2.970E-06,0.300
-2.960E-06,0.180
-2.950E-06,0.060
-2.940E-06,-0.020
-2.930E-06,0.000
-2.920E-06,0.000
-2.910E-06,0.000
-2.900E-06,-0.040
-2.890E-06,-0.220
-2.880E-06,-0.220
-2.870E-06,-0.260
-2.860E-06,-0.180
-2.850E-06,-0.100
-2.840E-06,-0.140
-2.830E-06,-0.100
-2.820E-06,-0.160
-2.810E-06,-0.200
-2.800E-06,-0.160
-2.790E-06,-0.100
-2.780E-06,-0.020
-2.770E-06,0.060
-2.760E-06,0.040
-2.750E-06,0.040
-2.740E-06,0.040
-2.730E-06,0.080
-2.720E-06,0.180
-2.710E-06,0.160
-2.700E-06,0.220
-2.690E-06,0.180
-2.680E-06,0.200
-2.670E-06,0.200
-2.660E-06,0.220
-2.650E-06,0.220
-2.640E-06,0.220
-2.630E-06,0.160
-2.620E-06,0.160
-2.610E-06,0.100
-2.600E-06,0.140
-2.590E-06,0.160
-2.580E-06,0.120
-2.570E-06,0.080
-2.560E-06,0.100
-2.550E-06,0.000
-2.540E-06,-0.020
-2.530E-06,0.000
-2.520E-06,0.020
-2.510E-06,0.040
-2.500E-06,0.040
-2.490E-06,-0.020
-2.480E-06,-0.020
-2.470E-06,-0.020
-2.460E-06,0.000
-2.450E-06,0.100
-2.440E-06,0.140
-2.430E-06,0.180
-2.420E-06,0.220
-2.410E-06,0.180
-2.400E-06,0.160
-2.390E-06,0.200
-2.380E-06,0.200
-2.370E-06,0.200
-2.360E-06,0.220
-2.350E-06,0.180
-2.340E-06,0.180
-2.330E-06,0.120
-2.320E-06,0.040
-2.310E-06,0.020
-2.300E-06,0.040
-2.290E-06,0.040
-2.280E-06,0.020
-2.270E-06,0.000
-2.260E-06,0.000
-2.250E-06,0.060
-2.240E-06,0.060
-2.230E-06,0.080
-2.220E-06,0.100
-2.210E-06,0.100
-2.200E-06,0.140
-2.190E-06,0.140
-2.180E-06,0.160
-2.170E-06,0.240
-2.160E-06,0.140
-2.150E-06,0.320
-2.140E-06,0.240
-2.130E-06,0.180
-2.120E-06,0.160
-2.110E-06,0.020
-2.100E-06,0.140
-2.090E-06,0.200
-2.080E-06,0.200
-2.070E-06,0.220
-2.060E-06,0.180
-2.050E-06,0.080
-2.040E-06,0.100
-2.030E-06,0.100
-2.020E-06,0.040
-2.010E-06,0.140
-2.000E-06,0.060
-1.990E-06,0.080
-1.980E-06,0.000
-1.970E-06,0.000
-1.960E-06,0.000
-1.950E-06,0.020
-1.940E-06,0.060
-1.930E-06,0.080
-1.920E-06,0.060
-1.910E-06,0.100
-1.900E-06,0.120
-1.890E-06,0.100
-1.880E-06,0.100
-1.870E-06,0.060
-1.860E-06,0.080
-1.850E-06,0.060
-1.840E-06,0.060
-1.830E-06,0.060
-1.820E-06,0.080
-1.810E-06,0.080
-1.800E-06,0.060
-1.790E-06,0.140
-1.780E-06,0.060
-1.770E-06,-0.020
-1.760E-06,-0.240
-1.750E-06,-0.480
-1.740E-06,-0.860
-1.730E-06,-0.900
-1.720E-06,-0.940
-1.710E-06,-0.740
-1.700E-06,-0.440
-1.690E-06,-0.120
-1.680E-06,0.180
-1.670E-06,0.400
-1.660E-06,0.500
-1.650E-06,0.620
-1.640E-06,0.720
-1.630E-06,0.720
-1.620E-06,0.840
-1.610E-06,0.960
-1.600E-06,1.000
-1.590E-06,1.120
-1.580E-06,1.100
-1.570E-06,1.060
-1.560E-06,0.940
-1.550E-06,0.780
-1.540E-06,0.580
-1.530E-06,0.460
-1.520E-06,0.340
-1.510E-06,0.300
-1.500E-06,0.260
-1.490E-06,0.160
-1.480E-06,-0.040
-1.470E-06,-0.160
-1.460E-06,-0.280
-1.450E-06,-0.520
-1.440E-06,-0.560
-1.430E-06,-0.540
-1.420E-06,-0.500
-1.410E-06,-0.280
-1.400E-06,-0.100
-1.390E-06,-0.060
-1.380E-06,0.120
-1.370E-06,-0.020
-1.360E-06,-0.040
-1.350E-06,-0.060
-1.340E-06,0.060
-1.330E-06,0.320
-1.320E-06,-0.260
-1.310E-06,-0.220
-1.300E-06,0.420
-1.290E-06,-0.740
-1.280E-06,0.180
-1.270E-06,-0.080
-1.260E-06,-0.420
-1.250E-06,-0.020
-1.240E-06,-0.340
-1.230E-06,-0.260
-1.220E-06,0.040
-1.210E-06,-0.020
-1.200E-06,0.000
-1.190E-06,0.180
-1.180E-06,-0.220
-1.170E-06,0.040
-1.160E-06,0.160
-1.150E-06,0.340
-1.140E-06,0.520
-1.130E-06,0.640
-1.120E-06,0.380
-1.110E-06,0.440
-1.100E-06,0.420
-1.090E-06,0.560
-1.080E-06,0.740
-1.070E-06,0.840
-1.060E-06,1.020
-1.050E-06,0.800
-1.040E-06,0.760
-1.030E-06,0.500
-1.020E-06,0.480
-1.010E-06,0.520
-1.000E-06,0.280
-9.900E-07,0.040
-9.800E-07,-0.020
-9.700E-07,-0.320
-9.600E-07,-0.300
-9.500E-07,-0.160
-9.400E-07,-0.120
-9.300E-07,0.140
-9.200E-07,0.160
-9.100E-07,-0.160
-9.000E-07,-0.140
-8.900E-07,-0.300
-8.800E-07,-0.220
-8.700E-07,0.300
-8.600E-07,0.140
-8.500E-07,0.440
-8.400E-07,0.460
-8.300E-07,0.160
-8.200E-07,0.400
-8.100E-07,0.200
-8.000E-07,0.280
-7.900E-07,0.440
-7.800E-07,0.260
-7.700E-07,0.380
-7.600E-07,0.220
-7.500E-07,0.040
-7.400E-07,0.060
-7.300E-07,-0.060
-7.200E-07,-0.080
-7.100E-07,-0.060
-7.000E-07,-0.140
-6.900E-07,-0.100
-6.800E-07,-0.060
-6.700E-07,-0.160
-6.600E-07,-0.080
-6.500E-07,-0.120
-6.400E-07,-0.080
-6.300E-07,0.020
-6.200E-07,0.000
-6.100E-07,0.080
-6.000E-07,0.180
-5.900E-07,0.140
-5.800E-07,0.160
-5.700E-07,0.120
-5.600E-07,0.220
-5.500E-07,0.000
-5.400E-07,0.120
-5.300E-07,-0.060
-5.200E-07,-0.120
-5.100E-07,-0.280
-5.000E-07,-0.360
-4.900E-07,0.040
-4.800E-07,0.180
-4.700E-07,0.520
-4.600E-07,0.540
-4.500E-07,-0.080
-4.400E-07,0.040
-4.300E-07,-0.360
-4.200E-07,-0.260
-4.100E-07,0.200
-4.000E-07,-0.080
-3.900E-07,0.120
-3.800E-07,0.160
-3.700E-07,0.160
-3.600E-07,-0.100
-3.500E-07,0.320
-3.400E-07,0.120
-3.300E-07,0.240
-3.200E-07,0.500
-3.100E-07,0.320
-3.000E-07,0.580
-2.900E-07,0.240
-2.800E-07,0.080
-2.700E-07,0.020
-2.600E-07,0.000
-2.500E-07,0.000
-2.400E-07,0.100
-2.300E-07,0.020
-2.200E-07,0.000
-2.100E-07,0.060
-2.000E-07,0.080
-1.900E-07,0.220
-1.800E-07,0.280
-1.700E-07,0.340
-1.600E-07,0.440
-1.500E-07,0.500
-1.400E-07,0.460
-1.300E-07,0.580
-1.200E-07,0.520
-1.100E-07,0.480
-1.000E-07,0.380
-9.000E-08,0.280
-8.000E-08,0.220
-7.000E-08,0.180
-6.000E-08,0.020
-5.000E-08,-0.020
-4.000E-08,1.140
-3.000E-08,-1.500
-2.000E-08,-1.660
-1.000E-08,-1.280
0.000E+00,-2.600
1.000E-08,-0.160
2.000E-08,0.900
3.000E-08,0.400
4.000E-08,1.080
5.000E-08,-0.440
6.000E-08,-1.360
7.000E-08,-0.340
8.000E-08,-0.020
9.000E-08,0.940
1.000E-07,2.040
1.100E-07,0.900
1.200E-07,0.840
1.300E-07,0.120
1.400E-07,-0.560
1.500E-07,-0.080
1.600E-07,-0.040
1.700E-07,0.240
1.800E-07,0.420
1.900E-07,0.280
2.000E-07,0.340
2.100E-07,-0.240
2.200E-07,-0.180
2.300E-07,-0.080
2.400E-07,-0.120
2.500E-07,-1.040
2.600E-07,-1.180
2.700E-07,-1.460
2.800E-07,-1.180
2.900E-07,0.220
3.000E-07,0.280
3.100E-07,0.700
3.200E-07,0.660
3.300E-07,-0.200
3.400E-07,-0.080
3.500E-07,0.280
3.600E-07,0.940
3.700E-07,1.340
3.800E-07,1.080
3.900E-07,0.580
4.000E-07,0.220
4.100E-07,-0.300
4.200E-07,-0.060
4.300E-07,0.320
4.400E-07,0.360
4.500E-07,0.420
4.600E-07,0.180
4.700E-07,0.080
4.800E-07,0.120
4.900E-07,-0.160
5.000E-07,-0.660
5.100E-07,-0.520
5.200E-07,-1.160
5.300E-07,-0.900
5.400E-07,-0.500
5.500E-07,-0.980
5.600E-07,-0.340
5.700E-07,-0.500
5.800E-07,-0.640
5.900E-07,-0.060
6.000E-07,0.100
6.100E-07,0.320
6.200E-07,1.000
6.300E-07,1.180
6.400E-07,0.820
6.500E-07,1.080
6.600E-07,0.480
6.700E-07,0.360
6.800E-07,0.560
6.900E-07,0.300
7.000E-07,0.440
7.100E-07,0.060
7.200E-07,-0.480
7.300E-07,-0.580
7.400E-07,-0.820
7.500E-07,-0.680
7.600E-07,-0.460
7.700E-07,-0.320
7.800E-07,-0.160
7.900E-07,-0.080
8.000E-07,-0.340
8.100E-07,-0.280
8.200E-07,-0.260
8.300E-07,-0.300
8.400E-07,-0.100
8.500E-07,-0.160
8.600E-07,-0.020
8.700E-07,0.120
8.800E-07,0.280
8.900E-07,0.440
9.000E-07,0.480
9.100E-07,0.540
9.200E-07,0.240
9.300E-07,0.220
9.400E-07,0.000
9.500E-07,-0.100
9.600E-07,0.420
9.700E-07,0.060
9.800E-07,0.160
9.900E-07,0.100
1.000E-06,-0.080
1.010E-06,0.000
1.020E-06,-0.060
1.030E-06,0.260
1.040E-06,0.320
1.050E-06,0.480
1.060E-06,0.640
1.070E-06,0.500
1.080E-06,0.320
1.090E-06,0.180
1.100E-06,0.100
1.110E-06,0.100
1.120E-06,0.180
1.130E-06,0.160
1.140E-06,0.180
1.150E-06,0.200
1.160E-06,0.160
1.170E-06,0.180
1.180E-06,0.000
1.190E-06,0.000
1.200E-06,-0.020
1.210E-06,0.020
1.220E-06,0.220
1.230E-06,0.020
1.240E-06,-0.040
1.250E-06,0.200
1.260E-06,-0.720
1.270E-06,-0.560
1.280E-06,1.020
1.290E-06,-1.640
1.300E-06,-2.660
1.310E-06,-2.660
1.320E-06,-2.640
1.330E-06,-1.540
1.340E-06,0.000
1.350E-06,2.040
1.360E-06,2.760
1.370E-06,1.180
1.380E-06,0.200
1.390E-06,-0.040
1.400E-06,-0.480
1.410E-06,1.700
1.420E-06,2.640
1.430E-06,2.640
1.440E-06,2.340
1.450E-06,1.060
1.460E-06,0.720
1.470E-06,0.860
1.480E-06,1.020
1.490E-06,1.000
1.500E-06,0.800
1.510E-06,0.160
1.520E-06,-0.140
1.530E-06,-0.620
1.540E-06,-0.920
1.550E-06,-1.100
1.560E-06,-1.400
1.570E-06,-1.260
1.580E-06,-1.120
1.590E-06,-0.980
1.600E-06,-0.620
1.610E-06,-0.700
1.620E-06,-0.540
1.630E-06,-0.400
1.640E-06,-0.300
1.650E-06,0.060
1.660E-06,0.260
1.670E-06,0.400
1.680E-06,0.640
1.690E-06,0.680
1.700E-06,0.700
1.710E-06,0.580
1.720E-06,0.340
1.730E-06,0.280
1.740E-06,0.120
1.750E-06,0.080
1.760E-06,-0.100
1.770E-06,-0.320
1.780E-06,-0.440
1.790E-06,-0.580
1.800E-06,-0.500
1.810E-06,-0.460
1.820E-06,-0.440
1.830E-06,-0.500
1.840E-06,-0.420
1.850E-06,-0.360
1.860E-06,-0.260
1.870E-06,-0.120
1.880E-06,0.060
1.890E-06,0.160
1.900E-06,0.220
1.910E-06,0.240
1.920E-06,0.220
1.930E-06,0.280
1.940E-06,0.320
1.950E-06,0.320
1.960E-06,0.340
1.970E-06,0.200
1.980E-06,0.080
1.990E-06,-0.060
2.000E-06,-0.140
2.010E-06,-0.180
2.020E-06,-0.200
2.030E-06,-0.340
2.040E-06,-0.420
2.050E-06,-0.540
2.060E-06,-0.500
2.070E-06,-0.580
2.080E-06,-0.620
2.090E-06,-0.540
2.100E-06,-0.520
2.110E-06,-0.420
2.120E-06,-0.500
2.130E-06,-0.480
2.140E-06,-0.460
2.150E-06,-0.600
2.160E-06,-0.180
2.170E-06,-0.420
2.180E-06,-0.420
2.190E-06,-0.120
2.200E-06,-0.420
2.210E-06,0.000
2.220E-06,0.340
2.230E-06,0.340
2.240E-06,0.540
2.250E-06,0.260
2.260E-06,0.040
2.270E-06,0.160
2.280E-06,-0.080
2.290E-06,-0.080
2.300E-06,0.000
2.310E-06,0.000
2.320E-06,0.020
2.330E-06,0.060
2.340E-06,0.000
2.350E-06,0.060
2.360E-06,0.120
2.370E-06,0.080
2.380E-06,0.040
2.390E-06,0.060
2.400E-06,0.000
2.410E-06,-0.040
2.420E-06,-0.120
2.430E-06,-0.260
2.440E-06,-0.440
2.450E-06,-0.620
2.460E-06,-0.760
2.470E-06,-0.860
2.480E-06,-0.900
2.490E-06,-0.900
2.500E-06,-0.920
2.510E-06,-0.840
2.520E-06,-0.860
2.530E-06,-0.960
2.540E-06,-1.060
2.550E-06,-1.180
2.560E-06,-1.260
2.570E-06,-1.260
2.580E-06,-1.200
2.590E-06,-1.060
2.600E-06,-0.960
2.610E-06,-0.900
2.620E-06,-0.860
2.630E-06,-0.860
2.640E-06,-0.860
2.650E-06,-0.780
2.660E-06,-0.680
2.670E-06,-0.600
2.680E-06,-0.520
2.690E-06,-0.480
2.700E-06,-0.460
2.710E-06,-0.460
2.720E-06,-0.440
2.730E-06,-0.380
2.740E-06,-0.360
2.750E-06,-0.320
2.760E-06,-0.320
2.770E-06,-0.360
2.780E-06,-0.360
2.790E-06,-0.380
2.800E-06,-0.400
2.810E-06,-0.360
2.820E-06,-0.360
2.830E-06,-0.340
2.840E-06,-0.340
2.850E-06,-0.340
2.860E-06,-0.380
2.870E-06,-0.460
2.880E-06,-0.500
2.890E-06,-0.500
2.900E-06,-0.500
2.910E-06,-0.500
2.920E-06,-0.440
2.930E-06,-0.440
2.940E-06,-0.420
2.950E-06,-0.400
2.960E-06,-0.420
2.970E-06,-0.400
2.980E-06,-0.360
2.990E-06,-0.360
3.000E-06,-0.380
3.010E-06,-0.360
3.020E-06,-0.340
3.030E-06,-0.340
3.040E-06,-0.260
3.050E-06,-0.260
3.060E-06,-0.260
3.070E-06,-0.260
3.080E-06,-0.260
3.090E-06,-0.240
3.100E-06,-0.220
3.110E-06,-0.220
3.120E-06,-0.240
3.130E-06,-0.240
3.140E-06,-0.220
3.150E-06,-0.260
3.160E-06,-0.260
3.170E-06,-0.260
3.180E-06,-0.260
3.190E-06,-0.220
3.200E-06,-0.200
3.210E-06,-0.220
3.220E-06,-0.220
3.230E-06,-0.240
3.240E-06,-0.200
3.250E-06,-0.180
3.260E-06,-0.140
3.270E-06,-0.120
3.280E-06,-0.100
3.290E-06,-0.140
3.300E-06,-0.140
3.310E-06,-0.120
3.320E-06,-0.100
3.330E-06,-0.060
3.340E-06,-0.040
3.350E-06,-0.020
3.360E-06,0.000
3.370E-06,0.020
3.380E-06,0.000
3.390E-06,-0.020
3.400E-06,-0.020
3.410E-06,-0.040
3.420E-06,-0.060
3.430E-06,-0.040
3.440E-06,-0.020
3.450E-06,-0.040
3.460E-06,-0.080
3.470E-06,-0.040
3.480E-06,-0.100
3.490E-06,-0.080
3.500E-06,-0.060
3.510E-06,-0.080
3.520E-06,-0.120
3.530E-06,-0.100
3.540E-06,-0.120
3.550E-06,-0.160
3.560E-06,-0.160
3.570E-06,-0.180
3.580E-06,-0.220
3.590E-06,-0.180
3.600E-06,-0.180
3.610E-06,-0.200
3.620E-06,-0.260
3.630E-06,-0.240
3.640E-06,-0.220
3.650E-06,-0.160
3.660E-06,-0.080
3.670E-06,0.000
3.680E-06,0.000
3.690E-06,0.000
3.700E-06,-0.020
3.710E-06,-0.020
3.720E-06,0.040
3.730E-06,0.100
3.740E-06,0.140
3.750E-06,0.160
3.760E-06,0.020
3.770E-06,-0.020
3.780E-06,-0.080
3.790E-06,-0.180
3.800E-06,-0.240
3.810E-06,-0.280
3.820E-06,-0.300
3.830E-06,-0.280
3.840E-06,-0.320
3.850E-06,-0.300
3.860E-06,-0.320
3.870E-06,-0.360
3.880E-06,-0.380
3.890E-06,-0.380
3.900E-06,-0.340
3.910E-06,-0.340
3.920E-06,-0.260
3.930E-06,-0.260
3.940E-06,-0.200
3.950E-06,-0.160
3.960E-06,-0.180
3.970E-06,-0.160
3.980E-06,-0.220
3.990E-06,-0.220
4.000E-06,-0.140
4.010E-06,-0.140
4.020E-06,-0.060
4.030E-06,-0.040
4.040E-06,-0.040
4.050E-06,-0.060
4.060E-06,-0.040
4.070E-06,0.000
4.080E-06,0.040
4.090E-06,0.080
4.100E-06,0.140
4.110E-06,0.160
4.120E-06,0.160
4.130E-06,0.200
4.140E-06,0.160
4.150E-06,0.220
4.160E-06,0.240
4.170E-06,0.200
4.180E-06,0.260
4.190E-06,0.240
4.200E-06,0.200
4.210E-06,0.240
4.220E-06,0.200
4.230E-06,0.200
4.240E-06,0.160
4.250E-06,0.120
4.260E-06,0.100
4.270E-06,0.080
4.280E-06,0.080
4.290E-06,0.080
4.300E-06,0.020
4.310E-06,0.000
4.320E-06,0.000
4.330E-06,-0.020
4.340E-06,-0.040
4.350E-06,-0.020
4.360E-06,-0.040
4.370E-06,-0.040
4.380E-06,0.000
4.390E-06,-0.020
4.400E-06,-0.040
4.410E-06,-0.080
4.420E-06,-0.020
4.430E-06,-0.040
4.440E-06,0.020
4.450E-06,-0.020
4.460E-06,-0.020
4.470E-06,0.000
4.480E-06,0.000
4.490E-06,0.000
4.500E-06,0.060
4.510E-06,0.080
4.520E-06,0.060
4.530E-06,0.080
4.540E-06,0.080
4.550E-06,0.100
4.560E-06,0.140
4.570E-06,0.120
4.580E-06,0.180
4.590E-06,0.160
4.600E-06,0.160
4.610E-06,0.200
4.620E-06,0.240
4.630E-06,0.240
4.640E-06,0.240
4.650E-06,0.260
4.660E-06,0.260
4.670E-06,0.280
4.680E-06,0.260
4.690E-06,0.220
4.700E-06,0.240
4.710E-06,0.200
4.720E-06,0.180
4.730E-06,0.160
4.740E-06,0.140
4.750E-06,0.120
4.760E-06,0.100
4.770E-06,0.120
4.780E-06,0.100
4.790E-06,0.080
4.800E-06,0.060
4.810E-06,0.020
4.820E-06,0.020
4.830E-06,0.000
4.840E-06,0.000
4.850E-06,0.000
4.860E-06,0.000
4.870E-06,0.000
4.880E-06,0.020
4.890E-06,0.020
4.900E-06,0.020
4.910E-06,0.020
4.920E-06,0.040
4.930E-06,0.040
4.940E-06,0.040
4.950E-06,0.040
4.960E-06,0.020
4.970E-06,0.000
4.980E-06,0.040
4.990E-06,0.000
5.000E-06,0.020
5.010E-06,0.060
5.020E-06,0.080
5.030E-06,0.100
5.040E-06,0.140
5.050E-06,0.200
5.060E-06,0.240
5.070E-06,0.320
5.080E-06,0.380
5.090E-06,0.460
5.100E-06,0.500
5.110E-06,0.520
5.120E-06,0.540
5.130E-06,0.540
5.140E-06,0.560
5.150E-06,0.540
5.160E-06,0.580
5.170E-06,0.540
5.180E-06,0.520
5.190E-06,0.500
5.200E-06,0.520
5.210E-06,0.500
5.220E-06,0.440
5.230E-06,0.420
5.240E-06,0.420
5.250E-06,0.380
5.260E-06,0.320
5.270E-06,0.260
5.280E-06,0.220
5.290E-06,0.240
5.300E-06,0.220
5.310E-06,0.180
5.320E-06,0.160
5.330E-06,0.160
5.340E-06,0.140
5.350E-06,0.160
5.360E-06,0.140
5.370E-06,0.140
5.380E-06,0.140
5.390E-06,0.160
5.400E-06,0.120
5.410E-06,0.160
5.420E-06,0.200
5.430E-06,0.220
5.440E-06,0.240
5.450E-06,0.240
5.460E-06,0.280
5.470E-06,0.280
5.480E-06,0.260
5.490E-06,0.280
5.500E-06,0.260
5.510E-06,0.300
5.520E-06,0.320
5.530E-06,0.320
5.540E-06,0.320
5.550E-06,0.340
5.560E-06,0.340
5.570E-06,0.360
5.580E-06,0.360
5.590E-06,0.380
5.600E-06,0.360
5.610E-06,0.360
5.620E-06,0.360
5.630E-06,0.360
5.640E-06,0.360
5.650E-06,0.320
5.660E-06,0.320
5.670E-06,0.320
5.680E-06,0.320
5.690E-06,0.320
5.700E-06,0.260
5.710E-06,0.320
5.720E-06,0.260
5.730E-06,0.240
5.740E-06,0.280
5.750E-06,0.280
5.760E-06,0.300
5.770E-06,0.300
5.780E-06,0.320
5.790E-06,0.320
5.800E-06,0.340
5.810E-06,0.320
5.820E-06,0.340
5.830E-06,0.340
5.840E-06,0.340
5.850E-06,0.380
5.860E-06,0.360
5.870E-06,0.400
5.880E-06,0.440
5.890E-06,0.440
5.900E-06,0.460
5.910E-06,0.500
5.920E-06,0.540
5.930E-06,0.560
5.940E-06,0.560
5.950E-06,0.560
5.960E-06,0.580
5.970E-06,0.600
5.980E-06,0.620
5.990E-06,0.660
6.000E-06,0.680
6.010E-06,0.660
6.020E-06,0.680
6.030E-06,0.680
6.040E-06,0.660
6.050E-06,0.700
6.060E-06,0.680
6.070E-06,0.700
6.080E-06,0.640
6.090E-06,0.640
6.100E-06,0.600
6.110E-06,0.580
6.120E-06,0.500
6.130E-06,0.480
6.140E-06,0.460
6.150E-06,0.380
6.160E-06,0.340
6.170E-06,0.280
6.180E-06,0.240
6.190E-06,0.200
6.200E-06,0.180
6.210E-06,0.200
6.220E-06,0.220
6.230E-06,0.320
6.240E-06,0.360
6.250E-06,0.460
6.260E-06,0.560
6.270E-06,0.700
6.280E-06,0.860
6.290E-06,1.040
6.300E-06,1.280
6.310E-06,1.560
6.320E-06,1.980
6.330E-06,2.380
6.340E-06,2.780
6.350E-06,2.780
6.360E-06,2.760
6.370E-06,2.760
6.380E-06,2.740
6.390E-06,2.760
6.400E-06,2.780
6.410E-06,2.760
6.420E-06,2.760
6.430E-06,2.780
6.440E-06,2.780
6.450E-06,2.760
6.460E-06,2.760
6.470E-06,2.760
6.480E-06,2.740
6.490E-06,2.760
6.500E-06,2.780
6.510E-06,2.760
6.520E-06,2.780
6.530E-06,2.760
6.540E-06,2.780
6.550E-06,2.760
6.560E-06,2.400
6.570E-06,2.080
6.580E-06,1.780
6.590E-06,1.540
6.600E-06,1.300
6.610E-06,1.080
6.620E-06,0.960
6.630E-06,0.860
6.640E-06,0.760
6.650E-06,0.700
6.660E-06,0.700
6.670E-06,0.660
6.680E-06,0.680
6.690E-06,0.700
6.700E-06,0.700
6.710E-06,0.740
6.720E-06,0.780
6.730E-06,0.780
6.740E-06,0.820
6.750E-06,0.840
6.760E-06,0.840
6.770E-06,0.760
6.780E-06,0.720
6.790E-06,0.720
6.800E-06,0.660
6.810E-06,0.620
6.820E-06,0.600
6.830E-06,0.680
6.840E-06,1.680
6.850E-06,2.760
6.860E-06,2.760
6.870E-06,2.760
6.880E-06,2.760
6.890E-06,2.740
6.900E-06,2.760
6.910E-06,2.780
6.920E-06,2.760
6.930E-06,2.760
6.940E-06,2.760
6.950E-06,2.740
6.960E-06,2.760
6.970E-06,2.780
6.980E-06,2.760
6.990E-06,2.760
7.000E-06,2.760
7.010E-06,2.760
7.020E-06,2.760
7.030E-06,2.740
7.040E-06,2.760
7.050E-06,2.760
7.060E-06,2.740
7.070E-06,2.760
7.080E-06,2.760
7.090E-06,2.740
7.100E-06,2.760
7.110E-06,2.760
7.120E-06,2.760
7.130E-06,2.740
7.140E-06,2.760
7.150E-06,2.780
7.160E-06,2.760
7.170E-06,2.740
7.180E-06,2.720
7.190E-06,2.700
7.200E-06,2.720
7.210E-06,2.720
7.220E-06,2.740
7.230E-06,2.760
7.240E-06,2.720
7.250E-06,2.620
7.260E-06,2.600
7.270E-06,2.540
7.280E-06,2.480
7.290E-06,2.360
7.300E-06,2.320
7.310E-06,2.280
7.320E-06,2.240
7.330E-06,2.220
7.340E-06,2.180
7.350E-06,2.220
7.360E-06,2.220
7.370E-06,2.280
7.380E-06,2.340
7.390E-06,2.400
7.400E-06,2.400
7.410E-06,2.460
7.420E-06,2.460
7.430E-06,2.380
7.440E-06,2.320
7.450E-06,2.240
7.460E-06,2.180
7.470E-06,2.020
7.480E-06,1.940
7.490E-06,1.820
7.500E-06,1.680
7.510E-06,1.620
7.520E-06,1.480
7.530E-06,1.360
7.540E-06,1.300
7.550E-06,1.220
7.560E-06,1.140
7.570E-06,1.100
7.580E-06,1.060
7.590E-06,1.040
7.600E-06,1.000
7.610E-06,0.940
7.620E-06,0.920
7.630E-06,0.880
7.640E-06,0.840
7.650E-06,0.840
7.660E-06,0.800
7.670E-06,0.820
7.680E-06,0.840
