mediciones/Mediciones filtradas (saque las feas)/6-10/64.4/WaveData55208.csv

#timebase=2000000(ps)
,#voltbase=500000(mv/100)
#size=4000
-4.250E-06,0.020
-4.240E-06,0.040
-4.230E-06,0.060
-4.220E-06,0.080
-4.210E-06,0.020
-4.200E-06,0.020
-4.190E-06,0.060
-4.180E-06,0.040
-4.170E-06,0.060
-4.160E-06,0.060
-4.150E-06,0.040
-4.140E-06,0.060
-4.130E-06,0.040
-4.120E-06,0.020
-4.110E-06,0.180
-4.100E-06,0.660
-4.090E-06,1.500
-4.080E-06,2.340
-4.070E-06,2.760
-4.060E-06,2.740
-4.050E-06,1.860
-4.040E-06,0.520
-4.030E-06,-0.840
-4.020E-06,-1.820
-4.010E-06,-2.280
-4.000E-06,-2.420
-3.990E-06,-2.400
-3.980E-06,-2.520
-3.970E-06,-2.580
-3.960E-06,-2.380
-3.950E-06,-1.980
-3.940E-06,-1.200
-3.930E-06,-0.500
-3.920E-06,0.140
-3.910E-06,0.060
-3.900E-06,0.200
-3.890E-06,0.360
-3.880E-06,0.240
-3.870E-06,0.680
-3.860E-06,0.620
-3.850E-06,0.560
-3.840E-06,0.680
-3.830E-06,0.540
-3.820E-06,0.920
-3.810E-06,1.100
-3.800E-06,1.200
-3.790E-06,1.200
-3.780E-06,0.920
-3.770E-06,0.640
-3.760E-06,0.440
-3.750E-06,0.340
-3.740E-06,0.240
-3.730E-06,0.100
-3.720E-06,-0.120
-3.710E-06,-0.340
-3.700E-06,-0.520
-3.690E-06,-0.620
-3.680E-06,-0.500
-3.670E-06,-0.240
-3.660E-06,-0.020
-3.650E-06,0.240
-3.640E-06,0.420
-3.630E-06,0.520
-3.620E-06,0.660
-3.610E-06,0.740
-3.600E-06,0.800
-3.590E-06,0.780
-3.580E-06,0.660
-3.570E-06,0.560
-3.560E-06,0.420
-3.550E-06,0.340
-3.540E-06,0.220
-3.530E-06,0.000
-3.520E-06,-0.240
-3.510E-06,-0.540
-3.500E-06,-0.840
-3.490E-06,-0.980
-3.480E-06,-1.140
-3.470E-06,-1.160
-3.460E-06,-1.180
-3.450E-06,-1.240
-3.440E-06,-1.160
-3.430E-06,-1.060
-3.420E-06,-0.840
-3.410E-06,-0.520
-3.400E-06,-0.200
-3.390E-06,0.060
-3.380E-06,0.300
-3.370E-06,0.460
-3.360E-06,0.620
-3.350E-06,0.760
-3.340E-06,0.920
-3.330E-06,0.960
-3.320E-06,0.900
-3.310E-06,0.760
-3.300E-06,0.660
-3.290E-06,0.580
-3.280E-06,0.480
-3.270E-06,0.420
-3.260E-06,0.320
-3.250E-06,0.240
-3.240E-06,0.080
-3.230E-06,-0.040
-3.220E-06,-0.080
-3.210E-06,-0.160
-3.200E-06,-0.220
-3.190E-06,-0.340
-3.180E-06,-0.500
-3.170E-06,-0.560
-3.160E-06,-0.540
-3.150E-06,-0.440
-3.140E-06,-0.420
-3.130E-06,-0.340
-3.120E-06,-0.220
-3.110E-06,-0.080
-3.100E-06,0.080
-3.090E-06,0.380
-3.080E-06,0.420
-3.070E-06,0.500
-3.060E-06,0.440
-3.050E-06,0.360
-3.040E-06,0.360
-3.030E-06,0.360
-3.020E-06,0.440
-3.010E-06,0.400
-3.000E-06,0.280
-2.990E-06,0.160
-2.980E-06,0.060
-2.970E-06,0.040
-2.960E-06,0.060
-2.950E-06,0.000
-2.940E-06,0.020
-2.930E-06,-0.060
-2.920E-06,-0.120
-2.910E-06,-0.120
-2.900E-06,-0.180
-2.890E-06,-0.060
-2.880E-06,-0.080
-2.870E-06,-0.100
-2.860E-06,-0.080
-2.850E-06,-0.120
-2.840E-06,-0.100
-2.830E-06,-0.040
-2.820E-06,-0.040
-2.810E-06,0.020
-2.800E-06,0.020
-2.790E-06,-0.020
-2.780E-06,0.040
-2.770E-06,0.100
-2.760E-06,0.120
-2.750E-06,0.180
-2.740E-06,0.160
-2.730E-06,0.180
-2.720E-06,0.180
-2.710E-06,0.200
-2.700E-06,0.260
-2.690E-06,0.200
-2.680E-06,0.200
-2.670E-06,0.180
-2.660E-06,0.160
-2.650E-06,0.180
-2.640E-06,0.140
-2.630E-06,0.140
-2.620E-06,0.100
-2.610E-06,0.080
-2.600E-06,0.080
-2.590E-06,0.080
-2.580E-06,0.040
-2.570E-06,0.060
-2.560E-06,0.060
-2.550E-06,0.040
-2.540E-06,0.020
-2.530E-06,0.040
-2.520E-06,0.040
-2.510E-06,0.060
-2.500E-06,0.080
-2.490E-06,0.120
-2.480E-06,0.140
-2.470E-06,0.160
-2.460E-06,0.180
-2.450E-06,0.220
-2.440E-06,0.260
-2.430E-06,0.280
-2.420E-06,0.280
-2.410E-06,0.220
-2.400E-06,0.180
-2.390E-06,0.180
-2.380E-06,0.160
-2.370E-06,0.160
-2.360E-06,0.160
-2.350E-06,0.100
-2.340E-06,0.100
-2.330E-06,0.020
-2.320E-06,0.020
-2.310E-06,0.020
-2.300E-06,0.040
-2.290E-06,0.080
-2.280E-06,0.120
-2.270E-06,0.160
-2.260E-06,0.180
-2.250E-06,0.240
-2.240E-06,0.260
-2.230E-06,0.320
-2.220E-06,0.380
-2.210E-06,0.420
-2.200E-06,0.420
-2.190E-06,0.440
-2.180E-06,0.340
-2.170E-06,0.260
-2.160E-06,0.120
-2.150E-06,-0.080
-2.140E-06,0.040
-2.130E-06,0.020
-2.120E-06,0.160
-2.110E-06,0.280
-2.100E-06,0.220
-2.090E-06,0.180
-2.080E-06,-0.020
-2.070E-06,0.000
-2.060E-06,0.060
-2.050E-06,0.200
-2.040E-06,0.280
-2.030E-06,0.300
-2.020E-06,0.200
-2.010E-06,0.080
-2.000E-06,0.140
-1.990E-06,0.160
-1.980E-06,0.220
-1.970E-06,0.360
-1.960E-06,0.420
-1.950E-06,0.420
-1.940E-06,0.480
-1.930E-06,0.420
-1.920E-06,0.480
-1.910E-06,0.560
-1.900E-06,0.520
-1.890E-06,0.580
-1.880E-06,0.520
-1.870E-06,0.500
-1.860E-06,0.480
-1.850E-06,0.380
-1.840E-06,0.260
-1.830E-06,0.080
-1.820E-06,-0.220
-1.810E-06,-0.500
-1.800E-06,-0.700
-1.790E-06,-0.720
-1.780E-06,-0.460
-1.770E-06,0.000
-1.760E-06,0.520
-1.750E-06,0.960
-1.740E-06,1.200
-1.730E-06,1.240
-1.720E-06,1.220
-1.710E-06,1.120
-1.700E-06,1.100
-1.690E-06,1.000
-1.680E-06,1.120
-1.670E-06,1.240
-1.660E-06,1.280
-1.650E-06,1.220
-1.640E-06,1.060
-1.630E-06,0.860
-1.620E-06,0.520
-1.610E-06,0.420
-1.600E-06,0.320
-1.590E-06,0.300
-1.580E-06,0.320
-1.570E-06,0.260
-1.560E-06,0.120
-1.550E-06,-0.020
-1.540E-06,-0.140
-1.530E-06,-0.160
-1.520E-06,-0.140
-1.510E-06,-0.100
-1.500E-06,-0.040
-1.490E-06,-0.040
-1.480E-06,-0.120
-1.470E-06,0.000
-1.460E-06,-0.380
-1.450E-06,-0.120
-1.440E-06,0.200
-1.430E-06,-0.320
-1.420E-06,0.380
-1.410E-06,0.320
-1.400E-06,0.580
-1.390E-06,0.920
-1.380E-06,0.400
-1.370E-06,0.140
-1.360E-06,-0.180
-1.350E-06,-0.500
-1.340E-06,-0.120
-1.330E-06,0.080
-1.320E-06,0.340
-1.310E-06,0.560
-1.300E-06,0.340
-1.290E-06,0.080
-1.280E-06,0.020
-1.270E-06,0.020
-1.260E-06,0.080
-1.250E-06,0.320
-1.240E-06,0.340
-1.230E-06,0.520
-1.220E-06,0.600
-1.210E-06,0.860
-1.200E-06,1.040
-1.190E-06,1.080
-1.180E-06,1.220
-1.170E-06,0.900
-1.160E-06,0.920
-1.150E-06,1.000
-1.140E-06,1.020
-1.130E-06,1.200
-1.120E-06,1.060
-1.110E-06,0.780
-1.100E-06,0.480
-1.090E-06,0.340
-1.080E-06,0.300
-1.070E-06,0.100
-1.060E-06,0.060
-1.050E-06,-0.080
-1.040E-06,-0.060
-1.030E-06,0.060
-1.020E-06,-0.180
-1.010E-06,-0.240
-1.000E-06,-0.160
-9.900E-07,-0.180
-9.800E-07,-0.140
-9.700E-07,-0.160
-9.600E-07,-0.100
-9.500E-07,-0.040
-9.400E-07,-0.060
-9.300E-07,0.020
-9.200E-07,-0.220
-9.100E-07,0.080
-9.000E-07,0.040
-8.900E-07,0.080
-8.800E-07,0.700
-8.700E-07,0.400
-8.600E-07,0.860
-8.500E-07,0.500
-8.400E-07,0.300
-8.300E-07,0.400
-8.200E-07,-0.100
-8.100E-07,-0.060
-8.000E-07,0.040
-7.900E-07,0.080
-7.800E-07,0.200
-7.700E-07,0.420
-7.600E-07,0.100
-7.500E-07,0.320
-7.400E-07,0.260
-7.300E-07,-0.120
-7.200E-07,0.140
-7.100E-07,0.380
-7.000E-07,0.280
-6.900E-07,0.720
-6.800E-07,0.940
-6.700E-07,0.840
-6.600E-07,0.940
-6.500E-07,0.980
-6.400E-07,0.340
-6.300E-07,0.440
-6.200E-07,0.220
-6.100E-07,-0.360
-6.000E-07,-0.100
-5.900E-07,-0.260
-5.800E-07,-0.300
-5.700E-07,0.120
-5.600E-07,0.080
-5.500E-07,-0.120
-5.400E-07,0.040
-5.300E-07,-0.200
-5.200E-07,0.260
-5.100E-07,0.820
-5.000E-07,0.880
-4.900E-07,0.920
-4.800E-07,0.500
-4.700E-07,0.060
-4.600E-07,-0.060
-4.500E-07,0.020
-4.400E-07,0.220
-4.300E-07,0.520
-4.200E-07,0.480
-4.100E-07,0.300
-4.000E-07,0.000
-3.900E-07,-0.200
-3.800E-07,-0.240
-3.700E-07,-0.120
-3.600E-07,0.040
-3.500E-07,0.300
-3.400E-07,0.440
-3.300E-07,0.460
-3.200E-07,0.340
-3.100E-07,0.220
-3.000E-07,0.060
-2.900E-07,-0.080
-2.800E-07,0.100
-2.700E-07,0.080
-2.600E-07,0.480
-2.500E-07,0.440
-2.400E-07,0.420
-2.300E-07,0.560
-2.200E-07,0.240
-2.100E-07,0.160
-2.000E-07,0.100
-1.900E-07,-0.060
-1.800E-07,0.040
-1.700E-07,0.160
-1.600E-07,0.120
-1.500E-07,0.120
-1.400E-07,0.080
-1.300E-07,-0.180
-1.200E-07,-0.140
-1.100E-07,-0.180
-1.000E-07,-0.040
-9.000E-08,0.080
-8.000E-08,0.060
-7.000E-08,0.340
-6.000E-08,0.140
-5.000E-08,0.440
-4.000E-08,0.440
-3.000E-08,1.040
-2.000E-08,-1.780
-1.000E-08,-2.100
0.000E+00,-1.320
1.000E-08,-1.940
2.000E-08,2.040
3.000E-08,1.400
4.000E-08,2.280
5.000E-08,1.420
6.000E-08,-1.600
7.000E-08,-1.500
8.000E-08,-1.720
9.000E-08,-0.700
1.000E-07,1.140
1.100E-07,0.980
1.200E-07,1.120
1.300E-07,0.340
1.400E-07,-0.400
1.500E-07,-0.240
1.600E-07,-0.160
1.700E-07,0.560
1.800E-07,0.880
1.900E-07,0.360
2.000E-07,0.440
2.100E-07,-0.360
2.200E-07,-0.520
2.300E-07,-0.300
2.400E-07,-0.380
2.500E-07,0.080
2.600E-07,0.280
2.700E-07,0.100
2.800E-07,0.160
2.900E-07,-0.080
3.000E-07,-0.420
3.100E-07,-0.320
3.200E-07,-0.280
3.300E-07,-0.160
3.400E-07,0.060
3.500E-07,0.000
3.600E-07,-0.020
3.700E-07,-0.060
3.800E-07,-0.220
3.900E-07,-0.340
4.000E-07,-0.300
4.100E-07,-0.260
4.200E-07,-0.100
4.300E-07,-0.060
4.400E-07,-0.060
4.500E-07,-0.320
4.600E-07,-0.400
4.700E-07,-0.420
4.800E-07,-0.360
4.900E-07,-0.240
5.000E-07,-0.160
5.100E-07,-0.180
5.200E-07,-0.120
5.300E-07,-0.120
5.400E-07,-0.200
5.500E-07,-0.180
5.600E-07,0.000
5.700E-07,0.020
5.800E-07,0.160
5.900E-07,0.180
6.000E-07,0.020
6.100E-07,0.200
6.200E-07,0.180
6.300E-07,0.280
6.400E-07,0.460
6.500E-07,0.240
6.600E-07,0.280
6.700E-07,0.280
6.800E-07,0.180
6.900E-07,0.340
7.000E-07,0.320
7.100E-07,0.020
7.200E-07,-0.120
7.300E-07,-0.160
7.400E-07,0.000
7.500E-07,0.320
7.600E-07,0.320
7.700E-07,0.320
7.800E-07,0.320
7.900E-07,0.260
8.000E-07,0.160
8.100E-07,0.000
8.200E-07,0.060
8.300E-07,0.020
8.400E-07,0.220
8.500E-07,-1.040
8.600E-07,-0.880
8.700E-07,-2.340
8.800E-07,-1.940
8.900E-07,-1.200
9.000E-07,-1.160
9.100E-07,1.000
9.200E-07,0.000
9.300E-07,-0.220
9.400E-07,-0.660
9.500E-07,-1.340
9.600E-07,-0.380
9.700E-07,0.500
9.800E-07,1.220
9.900E-07,1.720
1.000E-06,1.420
1.010E-06,0.400
1.020E-06,0.260
1.030E-06,-0.220
1.040E-06,-0.020
1.050E-06,0.500
1.060E-06,0.620
1.070E-06,0.560
1.080E-06,0.380
1.090E-06,-0.200
1.100E-06,-0.500
1.110E-06,-0.660
1.120E-06,-0.820
1.130E-06,-0.600
1.140E-06,-0.440
1.150E-06,-0.260
1.160E-06,-0.280
1.170E-06,-0.560
1.180E-06,-0.600
1.190E-06,-0.680
1.200E-06,-0.520
1.210E-06,-0.160
1.220E-06,-0.060
1.230E-06,0.100
1.240E-06,0.180
1.250E-06,0.000
1.260E-06,0.020
1.270E-06,-0.060
1.280E-06,-0.140
1.290E-06,-0.100
1.300E-06,-0.060
1.310E-06,-0.080
1.320E-06,-0.160
1.330E-06,-0.280
1.340E-06,-0.580
1.350E-06,-0.680
1.360E-06,-0.700
1.370E-06,-0.800
1.380E-06,-0.520
1.390E-06,-0.280
1.400E-06,-0.280
1.410E-06,-0.060
1.420E-06,-0.260
1.430E-06,-0.400
1.440E-06,-0.460
1.450E-06,-0.580
1.460E-06,-0.460
1.470E-06,-0.480
1.480E-06,-0.760
1.490E-06,-0.800
1.500E-06,-1.140
1.510E-06,-1.280
1.520E-06,-1.400
1.530E-06,-1.700
1.540E-06,-1.460
1.550E-06,-1.500
1.560E-06,-1.340
1.570E-06,-1.280
1.580E-06,-1.560
1.590E-06,-1.120
1.600E-06,-1.140
1.610E-06,-1.340
1.620E-06,-0.580
1.630E-06,-0.540
1.640E-06,-0.200
1.650E-06,-0.060
1.660E-06,-0.360
1.670E-06,-0.520
1.680E-06,-0.860
1.690E-06,-0.720
1.700E-06,-0.700
1.710E-06,-0.300
1.720E-06,-0.040
1.730E-06,0.100
1.740E-06,0.100
1.750E-06,-0.240
1.760E-06,-0.340
1.770E-06,-0.360
1.780E-06,-0.640
1.790E-06,-0.420
1.800E-06,-0.420
1.810E-06,-0.360
1.820E-06,-0.360
1.830E-06,-0.380
1.840E-06,-0.320
1.850E-06,-0.520
1.860E-06,-0.380
1.870E-06,-0.520
1.880E-06,-0.520
1.890E-06,-0.320
1.900E-06,-0.440
1.910E-06,-0.360
1.920E-06,-0.240
1.930E-06,-0.240
1.940E-06,-0.120
1.950E-06,-0.100
1.960E-06,-0.180
1.970E-06,-0.060
1.980E-06,0.060
1.990E-06,0.080
2.000E-06,0.140
2.010E-06,-0.120
2.020E-06,-0.180
2.030E-06,-0.120
2.040E-06,-0.260
2.050E-06,0.020
2.060E-06,-0.140
2.070E-06,-0.080
2.080E-06,-0.080
2.090E-06,-0.220
2.100E-06,-0.020
2.110E-06,0.260
2.120E-06,0.280
2.130E-06,0.520
2.140E-06,0.580
2.150E-06,0.560
2.160E-06,0.640
2.170E-06,0.800
2.180E-06,0.760
2.190E-06,0.720
2.200E-06,0.580
2.210E-06,0.360
2.220E-06,0.200
2.230E-06,-0.160
2.240E-06,-0.160
2.250E-06,-0.600
2.260E-06,-0.700
2.270E-06,-1.320
2.280E-06,-1.460
2.290E-06,-0.500
2.300E-06,-0.540
2.310E-06,0.800
2.320E-06,0.740
2.330E-06,1.380
2.340E-06,-0.120
2.350E-06,-1.420
2.360E-06,-1.500
2.370E-06,-2.060
2.380E-06,-1.580
2.390E-06,-0.320
2.400E-06,0.400
2.410E-06,0.760
2.420E-06,1.660
2.430E-06,0.940
2.440E-06,1.540
2.450E-06,1.760
2.460E-06,1.700
2.470E-06,2.220
2.480E-06,2.100
2.490E-06,1.820
2.500E-06,1.820
2.510E-06,1.600
2.520E-06,1.320
2.530E-06,1.420
2.540E-06,1.120
2.550E-06,1.140
2.560E-06,1.000
2.570E-06,0.780
2.580E-06,0.380
2.590E-06,0.240
2.600E-06,-0.160
2.610E-06,-0.280
2.620E-06,-0.300
2.630E-06,-0.360
2.640E-06,-0.400
2.650E-06,-0.540
2.660E-06,-0.660
2.670E-06,-0.760
2.680E-06,-0.820
2.690E-06,-0.820
2.700E-06,-0.700
2.710E-06,-0.680
2.720E-06,-0.580
2.730E-06,-0.560
2.740E-06,-0.520
2.750E-06,-0.560
2.760E-06,-0.600
2.770E-06,-0.600
2.780E-06,-0.500
2.790E-06,-0.440
2.800E-06,-0.420
2.810E-06,-0.320
2.820E-06,-0.400
2.830E-06,-0.400
2.840E-06,-0.500
2.850E-06,-0.740
2.860E-06,-0.820
2.870E-06,-0.660
2.880E-06,-0.620
2.890E-06,-0.300
2.900E-06,-0.140
2.910E-06,0.000
2.920E-06,0.280
2.930E-06,0.520
2.940E-06,1.060
2.950E-06,1.360
2.960E-06,1.280
2.970E-06,1.000
2.980E-06,0.420
2.990E-06,0.000
3.000E-06,-0.140
3.010E-06,-0.020
3.020E-06,0.300
3.030E-06,0.540
3.040E-06,0.540
3.050E-06,0.560
3.060E-06,0.640
3.070E-06,1.200
3.080E-06,1.460
3.090E-06,1.740
3.100E-06,1.840
3.110E-06,1.240
3.120E-06,1.180
3.130E-06,0.840
3.140E-06,0.640
3.150E-06,0.840
3.160E-06,0.680
3.170E-06,0.640
3.180E-06,0.500
3.190E-06,0.200
3.200E-06,0.080
3.210E-06,0.000
3.220E-06,-0.060
3.230E-06,0.100
3.240E-06,0.140
3.250E-06,0.220
3.260E-06,0.280
3.270E-06,0.260
3.280E-06,0.180
3.290E-06,0.080
3.300E-06,-0.100
3.310E-06,-0.220
3.320E-06,-0.340
3.330E-06,-0.480
3.340E-06,-0.500
3.350E-06,-0.640
3.360E-06,-0.760
3.370E-06,-0.900
3.380E-06,-1.000
3.390E-06,-1.000
3.400E-06,-1.020
3.410E-06,-0.940
3.420E-06,-0.900
3.430E-06,-0.840
3.440E-06,-0.820
3.450E-06,-0.760
3.460E-06,-0.780
3.470E-06,-0.740
3.480E-06,-0.680
3.490E-06,-0.580
3.500E-06,-0.520
3.510E-06,-0.420
3.520E-06,-0.360
3.530E-06,-0.320
3.540E-06,-0.260
3.550E-06,-0.160
3.560E-06,-0.080
3.570E-06,-0.020
3.580E-06,0.060
3.590E-06,0.140
3.600E-06,0.180
3.610E-06,0.180
3.620E-06,0.180
3.630E-06,0.160
3.640E-06,0.140
3.650E-06,0.140
3.660E-06,0.100
3.670E-06,0.080
3.680E-06,0.040
3.690E-06,0.000
3.700E-06,-0.020
3.710E-06,-0.040
3.720E-06,-0.080
3.730E-06,-0.080
3.740E-06,-0.100
3.750E-06,-0.080
3.760E-06,-0.060
3.770E-06,-0.060
3.780E-06,-0.020
3.790E-06,-0.040
3.800E-06,-0.040
3.810E-06,-0.020
3.820E-06,-0.040
3.830E-06,-0.040
3.840E-06,-0.020
3.850E-06,0.020
3.860E-06,0.060
3.870E-06,0.120
3.880E-06,0.100
3.890E-06,0.140
3.900E-06,0.160
3.910E-06,0.120
3.920E-06,0.140
3.930E-06,0.160
3.940E-06,0.140
3.950E-06,0.100
3.960E-06,0.040
3.970E-06,-0.040
3.980E-06,-0.060
3.990E-06,-0.120
4.000E-06,-0.160
4.010E-06,-0.220
4.020E-06,-0.300
4.030E-06,-0.320
4.040E-06,-0.340
4.050E-06,-0.320
4.060E-06,-0.300
4.070E-06,-0.300
4.080E-06,-0.260
4.090E-06,-0.180
4.100E-06,-0.160
4.110E-06,-0.080
4.120E-06,-0.020
4.130E-06,-0.060
4.140E-06,-0.020
4.150E-06,-0.040
4.160E-06,-0.060
4.170E-06,0.020
4.180E-06,0.000
4.190E-06,0.020
4.200E-06,0.000
4.210E-06,-0.080
4.220E-06,-0.080
4.230E-06,-0.060
4.240E-06,-0.080
4.250E-06,-0.040
4.260E-06,-0.080
4.270E-06,-0.060
4.280E-06,-0.040
4.290E-06,-0.100
4.300E-06,-0.040
4.310E-06,-0.060
4.320E-06,-0.040
4.330E-06,-0.060
4.340E-06,-0.080
4.350E-06,-0.100
4.360E-06,-0.100
4.370E-06,0.000
4.380E-06,0.080
4.390E-06,0.160
4.400E-06,0.180
4.410E-06,0.200
4.420E-06,0.260
4.430E-06,0.300
4.440E-06,0.340
4.450E-06,0.400
4.460E-06,0.460
4.470E-06,0.520
4.480E-06,0.600
4.490E-06,0.680
4.500E-06,0.680
4.510E-06,0.640
4.520E-06,0.640
4.530E-06,0.640
4.540E-06,0.620
4.550E-06,0.580
4.560E-06,0.520
4.570E-06,0.440
4.580E-06,0.360
4.590E-06,0.320
4.600E-06,0.340
4.610E-06,0.360
4.620E-06,0.340
4.630E-06,0.380
4.640E-06,0.400
4.650E-06,0.340
4.660E-06,0.320
4.670E-06,0.360
4.680E-06,0.340
4.690E-06,0.320
4.700E-06,0.320
4.710E-06,0.300
4.720E-06,0.260
4.730E-06,0.240
4.740E-06,0.120
4.750E-06,0.020
4.760E-06,0.000
4.770E-06,-0.060
4.780E-06,-0.060
4.790E-06,-0.080
4.800E-06,-0.160
4.810E-06,-0.220
4.820E-06,-0.240
4.830E-06,-0.240
4.840E-06,-0.200
4.850E-06,-0.240
4.860E-06,-0.220
4.870E-06,-0.160
4.880E-06,-0.180
4.890E-06,-0.140
4.900E-06,-0.060
4.910E-06,-0.100
4.920E-06,-0.080
4.930E-06,-0.040
4.940E-06,-0.060
4.950E-06,0.000
4.960E-06,0.020
4.970E-06,-0.020
4.980E-06,0.000
4.990E-06,0.000
5.000E-06,0.020
5.010E-06,-0.020
5.020E-06,-0.020
5.030E-06,-0.040
5.040E-06,-0.060
5.050E-06,-0.040
5.060E-06,-0.080
5.070E-06,-0.120
5.080E-06,-0.080
5.090E-06,-0.120
5.100E-06,-0.160
5.110E-06,-0.100
5.120E-06,-0.100
5.130E-06,-0.080
5.140E-06,-0.040
5.150E-06,-0.020
5.160E-06,0.000
5.170E-06,0.020
5.180E-06,0.040
5.190E-06,0.180
5.200E-06,0.120
5.210E-06,0.120
5.220E-06,0.060
5.230E-06,0.020
5.240E-06,0.000
5.250E-06,-0.040
5.260E-06,-0.060
5.270E-06,-0.120
5.280E-06,-0.160
5.290E-06,-0.160
5.300E-06,-0.240
5.310E-06,-0.240
5.320E-06,-0.260
5.330E-06,-0.260
5.340E-06,-0.240
5.350E-06,-0.220
5.360E-06,-0.180
5.370E-06,-0.160
5.380E-06,-0.100
5.390E-06,-0.040
5.400E-06,0.000
5.410E-06,0.000
5.420E-06,0.020
5.430E-06,0.000
5.440E-06,-0.080
5.450E-06,-0.080
5.460E-06,-0.120
5.470E-06,-0.160
5.480E-06,-0.160
5.490E-06,-0.180
5.500E-06,-0.120
5.510E-06,-0.080
5.520E-06,-0.040
5.530E-06,0.080
5.540E-06,0.180
5.550E-06,0.300
5.560E-06,0.360
5.570E-06,0.500
5.580E-06,0.560
5.590E-06,0.680
5.600E-06,0.640
5.610E-06,0.600
5.620E-06,0.600
5.630E-06,0.500
5.640E-06,0.460
5.650E-06,0.400
5.660E-06,0.360
5.670E-06,0.320
5.680E-06,0.240
5.690E-06,0.220
5.700E-06,0.260
5.710E-06,0.240
5.720E-06,0.260
5.730E-06,0.220
5.740E-06,0.200
5.750E-06,0.180
5.760E-06,0.200
5.770E-06,0.160
5.780E-06,0.160
5.790E-06,0.120
5.800E-06,0.140
5.810E-06,0.100
5.820E-06,0.100
5.830E-06,0.140
5.840E-06,0.180
5.850E-06,0.200
5.860E-06,0.320
5.870E-06,0.360
5.880E-06,0.420
5.890E-06,0.420
5.900E-06,0.380
5.910E-06,0.340
5.920E-06,0.320
5.930E-06,0.220
5.940E-06,0.200
5.950E-06,0.140
5.960E-06,0.060
5.970E-06,0.020
5.980E-06,0.000
5.990E-06,-0.020
6.000E-06,-0.060
6.010E-06,-0.100
6.020E-06,-0.120
6.030E-06,-0.100
6.040E-06,-0.120
6.050E-06,-0.120
6.060E-06,-0.100
6.070E-06,-0.120
6.080E-06,-0.120
6.090E-06,-0.120
6.100E-06,-0.120
6.110E-06,-0.120
6.120E-06,-0.120
6.130E-06,-0.080
6.140E-06,-0.040
6.150E-06,0.020
6.160E-06,0.060
6.170E-06,0.080
6.180E-06,0.240
6.190E-06,0.300
6.200E-06,0.380
6.210E-06,0.440
6.220E-06,0.480
6.230E-06,0.520
6.240E-06,0.560
6.250E-06,0.580
6.260E-06,0.680
6.270E-06,0.740
6.280E-06,0.800
6.290E-06,0.880
6.300E-06,0.900
6.310E-06,0.920
6.320E-06,0.900
6.330E-06,0.860
6.340E-06,0.840
6.350E-06,0.760
6.360E-06,0.700
6.370E-06,0.640
6.380E-06,0.620
6.390E-06,0.620
6.400E-06,0.640
6.410E-06,0.680
6.420E-06,0.680
6.430E-06,0.720
6.440E-06,0.760
6.450E-06,0.760
6.460E-06,0.780
6.470E-06,0.720
6.480E-06,0.680
6.490E-06,0.580
6.500E-06,0.500
6.510E-06,0.380
6.520E-06,0.260
6.530E-06,0.140
6.540E-06,0.020
6.550E-06,-0.100
6.560E-06,-0.200
6.570E-06,-0.260
6.580E-06,-0.340
6.590E-06,-0.400
6.600E-06,-0.360
6.610E-06,-0.360
6.620E-06,-0.240
6.630E-06,-0.160
6.640E-06,-0.060
6.650E-06,0.020
6.660E-06,0.120
6.670E-06,0.220
6.680E-06,0.300
6.690E-06,0.320
6.700E-06,0.320
6.710E-06,0.220
6.720E-06,0.160
6.730E-06,0.080
6.740E-06,0.020
6.750E-06,-0.020
6.760E-06,0.000
6.770E-06,0.000
6.780E-06,0.060
6.790E-06,0.140
6.800E-06,0.240
6.810E-06,0.320
6.820E-06,0.400
6.830E-06,0.480
6.840E-06,0.560
6.850E-06,0.620
6.860E-06,0.680
6.870E-06,0.680
6.880E-06,0.700
6.890E-06,0.700
6.900E-06,0.720
6.910E-06,0.800
6.920E-06,0.840
6.930E-06,0.880
6.940E-06,0.920
6.950E-06,0.880
6.960E-06,0.840
6.970E-06,0.760
6.980E-06,0.640
6.990E-06,0.540
7.000E-06,0.460
7.010E-06,0.340
7.020E-06,0.280
7.030E-06,0.220
7.040E-06,0.200
7.050E-06,0.220
7.060E-06,0.240
7.070E-06,0.320
7.080E-06,0.320
7.090E-06,0.320
7.100E-06,0.380
7.110E-06,0.420
7.120E-06,0.440
7.130E-06,0.480
7.140E-06,0.480
7.150E-06,0.500
7.160E-06,0.460
7.170E-06,0.460
7.180E-06,0.400
7.190E-06,0.420
7.200E-06,0.440
7.210E-06,0.440
7.220E-06,0.460
7.230E-06,0.480
7.240E-06,0.460
7.250E-06,0.460
7.260E-06,0.480
7.270E-06,0.520
7.280E-06,0.540
7.290E-06,0.580
7.300E-06,0.620
7.310E-06,0.700
7.320E-06,0.780
7.330E-06,0.860
7.340E-06,0.900
7.350E-06,0.920
7.360E-06,0.920
7.370E-06,0.960
7.380E-06,0.940
7.390E-06,0.960
7.400E-06,0.940
7.410E-06,0.960
7.420E-06,0.960
7.430E-06,0.980
7.440E-06,1.020
7.450E-06,1.100
7.460E-06,1.220
7.470E-06,1.400
7.480E-06,1.580
7.490E-06,1.880
7.500E-06,2.220
7.510E-06,2.540
7.520E-06,2.780
7.530E-06,2.760
7.540E-06,2.760
7.550E-06,2.760
7.560E-06,2.740
7.570E-06,2.760
7.580E-06,2.780
7.590E-06,2.760
7.600E-06,2.760
7.610E-06,2.780
7.620E-06,2.760
7.630E-06,2.740
7.640E-06,2.640
