mediciones/Mediciones filtradas (saque las feas)/6-10/64.4/WaveData55267.csv

#timebase=2000000(ps)
,#voltbase=100000(mv/100)
#size=4000
-4.200E-06,-0.032
-4.190E-06,-0.036
-4.180E-06,0.012
-4.170E-06,0.032
-4.160E-06,0.028
-4.150E-06,0.012
-4.140E-06,0.004
-4.130E-06,-0.028
-4.120E-06,-0.028
-4.110E-06,-0.004
-4.100E-06,0.008
-4.090E-06,0.008
-4.080E-06,0.020
-4.070E-06,0.012
-4.060E-06,0.008
-4.050E-06,0.004
-4.040E-06,-0.004
-4.030E-06,-0.008
-4.020E-06,0.000
-4.010E-06,0.020
-4.000E-06,0.016
-3.990E-06,0.020
-3.980E-06,0.012
-3.970E-06,0.004
-3.960E-06,0.000
-3.950E-06,-0.004
-3.940E-06,0.000
-3.930E-06,0.000
-3.920E-06,0.016
-3.910E-06,0.016
-3.900E-06,0.012
-3.890E-06,0.008
-3.880E-06,0.012
-3.870E-06,0.000
-3.860E-06,-0.004
-3.850E-06,0.004
-3.840E-06,0.000
-3.830E-06,0.012
-3.820E-06,0.008
-3.810E-06,0.012
-3.800E-06,0.004
-3.790E-06,0.008
-3.780E-06,0.000
-3.770E-06,0.000
-3.760E-06,0.004
-3.750E-06,0.008
-3.740E-06,0.020
-3.730E-06,0.028
-3.720E-06,0.020
-3.710E-06,0.016
-3.700E-06,0.004
-3.690E-06,-0.008
-3.680E-06,-0.020
-3.670E-06,-0.004
-3.660E-06,0.004
-3.650E-06,0.020
-3.640E-06,0.032
-3.630E-06,0.020
-3.620E-06,0.012
-3.610E-06,0.004
-3.600E-06,0.000
-3.590E-06,0.008
-3.580E-06,0.032
-3.570E-06,0.040
-3.560E-06,0.048
-3.550E-06,0.052
-3.540E-06,0.048
-3.530E-06,0.032
-3.520E-06,0.036
-3.510E-06,0.028
-3.500E-06,0.056
-3.490E-06,0.060
-3.480E-06,0.048
-3.470E-06,0.100
-3.460E-06,0.012
-3.450E-06,0.008
-3.440E-06,-0.076
-3.430E-06,-0.032
-3.420E-06,0.060
-3.410E-06,0.040
-3.400E-06,-0.096
-3.390E-06,-0.268
-3.380E-06,-0.272
-3.370E-06,-0.260
-3.360E-06,-0.064
-3.350E-06,0.148
-3.340E-06,0.272
-3.330E-06,0.140
-3.320E-06,0.012
-3.310E-06,-0.132
-3.300E-06,-0.196
-3.290E-06,-0.116
-3.280E-06,0.028
-3.270E-06,0.116
-3.260E-06,0.108
-3.250E-06,0.080
-3.240E-06,-0.008
-3.230E-06,-0.040
-3.220E-06,-0.080
-3.210E-06,-0.060
-3.200E-06,-0.012
-3.190E-06,0.052
-3.180E-06,0.080
-3.170E-06,0.064
-3.160E-06,0.036
-3.150E-06,-0.008
-3.140E-06,-0.028
-3.130E-06,-0.056
-3.120E-06,-0.028
-3.110E-06,-0.008
-3.100E-06,0.052
-3.090E-06,0.080
-3.080E-06,0.076
-3.070E-06,0.052
-3.060E-06,-0.008
-3.050E-06,-0.024
-3.040E-06,-0.036
-3.030E-06,0.016
-3.020E-06,0.064
-3.010E-06,0.060
-3.000E-06,0.052
-2.990E-06,0.044
-2.980E-06,-0.004
-2.970E-06,-0.036
-2.960E-06,0.012
-2.950E-06,0.036
-2.940E-06,0.028
-2.930E-06,0.076
-2.920E-06,0.100
-2.910E-06,0.008
-2.900E-06,-0.096
-2.890E-06,-0.152
-2.880E-06,-0.196
-2.870E-06,-0.044
-2.860E-06,0.136
-2.850E-06,0.148
-2.840E-06,0.148
-2.830E-06,0.164
-2.820E-06,0.032
-2.810E-06,-0.136
-2.800E-06,-0.156
-2.790E-06,-0.208
-2.780E-06,0.036
-2.770E-06,0.040
-2.760E-06,0.096
-2.750E-06,0.000
-2.740E-06,0.044
-2.730E-06,-0.036
-2.720E-06,-0.116
-2.710E-06,-0.156
-2.700E-06,-0.128
-2.690E-06,-0.004
-2.680E-06,0.124
-2.670E-06,0.176
-2.660E-06,0.064
-2.650E-06,-0.024
-2.640E-06,-0.076
-2.630E-06,-0.072
-2.620E-06,-0.028
-2.610E-06,0.016
-2.600E-06,0.088
-2.590E-06,0.104
-2.580E-06,0.064
-2.570E-06,0.004
-2.560E-06,-0.044
-2.550E-06,-0.088
-2.540E-06,-0.064
-2.530E-06,0.004
-2.520E-06,0.076
-2.510E-06,0.096
-2.500E-06,0.056
-2.490E-06,0.016
-2.480E-06,-0.004
-2.470E-06,-0.024
-2.460E-06,-0.024
-2.450E-06,0.020
-2.440E-06,0.036
-2.430E-06,0.044
-2.420E-06,0.032
-2.410E-06,-0.012
-2.400E-06,-0.032
-2.390E-06,-0.024
-2.380E-06,-0.024
-2.370E-06,0.012
-2.360E-06,0.024
-2.350E-06,0.064
-2.340E-06,0.024
-2.330E-06,0.016
-2.320E-06,-0.008
-2.310E-06,0.004
-2.300E-06,-0.008
-2.290E-06,0.012
-2.280E-06,0.032
-2.270E-06,0.000
-2.260E-06,-0.004
-2.250E-06,-0.044
-2.240E-06,-0.024
-2.230E-06,-0.016
-2.220E-06,0.024
-2.210E-06,0.044
-2.200E-06,0.060
-2.190E-06,0.056
-2.180E-06,0.032
-2.170E-06,-0.032
-2.160E-06,-0.044
-2.150E-06,-0.004
-2.140E-06,0.004
-2.130E-06,0.028
-2.120E-06,0.048
-2.110E-06,0.036
-2.100E-06,-0.004
-2.090E-06,-0.020
-2.080E-06,-0.016
-2.070E-06,-0.004
-2.060E-06,0.004
-2.050E-06,0.028
-2.040E-06,0.056
-2.030E-06,0.044
-2.020E-06,0.036
-2.010E-06,0.008
-2.000E-06,0.000
-1.990E-06,0.000
-1.980E-06,0.036
-1.970E-06,0.064
-1.960E-06,0.088
-1.950E-06,0.064
-1.940E-06,0.012
-1.930E-06,-0.012
-1.920E-06,-0.040
-1.910E-06,-0.020
-1.900E-06,0.028
-1.890E-06,0.084
-1.880E-06,0.108
-1.870E-06,0.044
-1.860E-06,-0.012
-1.850E-06,-0.072
-1.840E-06,-0.032
-1.830E-06,0.000
-1.820E-06,0.076
-1.810E-06,0.108
-1.800E-06,0.048
-1.790E-06,-0.008
-1.780E-06,-0.144
-1.770E-06,-0.168
-1.760E-06,-0.156
-1.750E-06,-0.052
-1.740E-06,0.040
-1.730E-06,0.124
-1.720E-06,0.108
-1.710E-06,0.040
-1.700E-06,-0.036
-1.690E-06,-0.040
-1.680E-06,-0.040
-1.670E-06,-0.008
-1.660E-06,0.032
-1.650E-06,0.044
-1.640E-06,0.024
-1.630E-06,-0.044
-1.620E-06,-0.056
-1.610E-06,-0.104
-1.600E-06,-0.068
-1.590E-06,-0.020
-1.580E-06,0.016
-1.570E-06,0.044
-1.560E-06,-0.004
-1.550E-06,-0.032
-1.540E-06,-0.044
-1.530E-06,-0.012
-1.520E-06,0.004
-1.510E-06,0.028
-1.500E-06,0.056
-1.490E-06,0.040
-1.480E-06,0.024
-1.470E-06,0.016
-1.460E-06,0.020
-1.450E-06,0.036
-1.440E-06,0.052
-1.430E-06,0.036
-1.420E-06,0.024
-1.410E-06,0.004
-1.400E-06,0.012
-1.390E-06,0.024
-1.380E-06,-0.012
-1.370E-06,0.020
-1.360E-06,-0.004
-1.350E-06,0.040
-1.340E-06,0.064
-1.330E-06,0.072
-1.320E-06,0.052
-1.310E-06,0.044
-1.300E-06,0.040
-1.290E-06,0.008
-1.280E-06,0.000
-1.270E-06,-0.096
-1.260E-06,-0.140
-1.250E-06,-0.248
-1.240E-06,-0.200
-1.230E-06,0.016
-1.220E-06,0.180
-1.210E-06,0.296
-1.200E-06,0.140
-1.190E-06,-0.068
-1.180E-06,-0.228
-1.170E-06,-0.204
-1.160E-06,-0.204
-1.150E-06,-0.040
-1.140E-06,0.160
-1.130E-06,0.176
-1.120E-06,0.128
-1.110E-06,-0.044
-1.100E-06,-0.164
-1.090E-06,-0.192
-1.080E-06,-0.080
-1.070E-06,0.080
-1.060E-06,0.156
-1.050E-06,0.124
-1.040E-06,0.032
-1.030E-06,-0.032
-1.020E-06,-0.084
-1.010E-06,-0.076
-1.000E-06,-0.032
-9.900E-07,0.036
-9.800E-07,0.036
-9.700E-07,0.064
-9.600E-07,0.024
-9.500E-07,0.020
-9.400E-07,-0.016
-9.300E-07,-0.040
-9.200E-07,-0.036
-9.100E-07,-0.036
-9.000E-07,0.004
-8.900E-07,0.044
-8.800E-07,0.064
-8.700E-07,0.048
-8.600E-07,0.008
-8.500E-07,-0.048
-8.400E-07,-0.056
-8.300E-07,-0.032
-8.200E-07,0.020
-8.100E-07,0.072
-8.000E-07,0.080
-7.900E-07,0.052
-7.800E-07,-0.008
-7.700E-07,-0.028
-7.600E-07,-0.036
-7.500E-07,0.008
-7.400E-07,0.060
-7.300E-07,0.104
-7.200E-07,0.100
-7.100E-07,0.064
-7.000E-07,0.008
-6.900E-07,-0.040
-6.800E-07,-0.044
-6.700E-07,-0.024
-6.600E-07,0.044
-6.500E-07,0.100
-6.400E-07,0.148
-6.300E-07,0.128
-6.200E-07,0.056
-6.100E-07,-0.036
-6.000E-07,-0.132
-5.900E-07,-0.172
-5.800E-07,-0.140
-5.700E-07,-0.020
-5.600E-07,0.072
-5.500E-07,0.124
-5.400E-07,0.120
-5.300E-07,0.024
-5.200E-07,-0.036
-5.100E-07,-0.076
-5.000E-07,-0.084
-4.900E-07,-0.008
-4.800E-07,0.084
-4.700E-07,0.112
-4.600E-07,0.084
-4.500E-07,0.024
-4.400E-07,-0.056
-4.300E-07,-0.140
-4.200E-07,-0.152
-4.100E-07,-0.068
-4.000E-07,0.020
-3.900E-07,0.084
-3.800E-07,0.088
-3.700E-07,0.020
-3.600E-07,-0.048
-3.500E-07,-0.096
-3.400E-07,-0.104
-3.300E-07,-0.068
-3.200E-07,0.008
-3.100E-07,0.072
-3.000E-07,0.104
-2.900E-07,0.076
-2.800E-07,0.016
-2.700E-07,-0.052
-2.600E-07,-0.072
-2.500E-07,-0.040
-2.400E-07,0.024
-2.300E-07,0.092
-2.200E-07,0.112
-2.100E-07,0.100
-2.000E-07,0.044
-1.900E-07,0.008
-1.800E-07,-0.024
-1.700E-07,0.004
-1.600E-07,0.044
-1.500E-07,0.088
-1.400E-07,0.124
-1.300E-07,0.096
-1.200E-07,0.040
-1.100E-07,0.044
-1.000E-07,-0.020
-9.000E-08,0.020
-8.000E-08,0.056
-7.000E-08,0.064
-6.000E-08,-0.036
-5.000E-08,-0.272
-4.000E-08,-0.500
-3.000E-08,-0.508
-2.000E-08,-0.100
-1.000E-08,0.260
0.000E+00,0.300
1.000E-08,0.208
2.000E-08,0.092
3.000E-08,-0.040
4.000E-08,-0.360
5.000E-08,-0.336
6.000E-08,-0.036
7.000E-08,0.260
8.000E-08,0.344
9.000E-08,0.300
1.000E-07,0.048
1.100E-07,-0.224
1.200E-07,-0.264
1.300E-07,-0.176
1.400E-07,-0.004
1.500E-07,0.144
1.600E-07,0.188
1.700E-07,0.104
1.800E-07,0.008
1.900E-07,-0.104
2.000E-07,-0.140
2.100E-07,-0.112
2.200E-07,-0.020
2.300E-07,0.076
2.400E-07,0.132
2.500E-07,0.132
2.600E-07,0.048
2.700E-07,-0.036
2.800E-07,-0.100
2.900E-07,-0.072
3.000E-07,0.004
3.100E-07,0.120
3.200E-07,0.188
3.300E-07,0.204
3.400E-07,0.192
3.500E-07,-0.064
3.600E-07,-0.244
3.700E-07,-0.372
3.800E-07,-0.236
3.900E-07,-0.004
4.000E-07,0.140
4.100E-07,0.292
4.200E-07,0.208
4.300E-07,0.088
4.400E-07,-0.136
4.500E-07,-0.304
4.600E-07,-0.220
4.700E-07,-0.040
4.800E-07,0.128
4.900E-07,0.188
5.000E-07,0.156
5.100E-07,0.008
5.200E-07,-0.104
5.300E-07,-0.136
5.400E-07,-0.100
5.500E-07,-0.016
5.600E-07,0.064
5.700E-07,0.096
5.800E-07,0.088
5.900E-07,0.024
6.000E-07,-0.044
6.100E-07,-0.072
6.200E-07,-0.060
6.300E-07,-0.008
6.400E-07,0.032
6.500E-07,0.076
6.600E-07,0.068
6.700E-07,0.040
6.800E-07,-0.004
6.900E-07,-0.044
7.000E-07,-0.056
7.100E-07,-0.036
7.200E-07,0.012
7.300E-07,0.040
7.400E-07,0.052
7.500E-07,0.028
7.600E-07,0.008
7.700E-07,-0.028
7.800E-07,-0.036
7.900E-07,-0.028
8.000E-07,0.004
8.100E-07,0.028
8.200E-07,0.040
8.300E-07,0.036
8.400E-07,0.012
8.500E-07,-0.008
8.600E-07,-0.020
8.700E-07,-0.012
8.800E-07,0.008
8.900E-07,0.024
9.000E-07,0.044
9.100E-07,0.040
9.200E-07,0.020
9.300E-07,0.004
9.400E-07,-0.004
9.500E-07,-0.004
9.600E-07,0.012
9.700E-07,0.028
9.800E-07,0.048
9.900E-07,0.056
1.000E-06,0.044
1.010E-06,0.036
1.020E-06,0.028
1.030E-06,0.020
1.040E-06,0.040
1.050E-06,0.056
1.060E-06,0.076
1.070E-06,0.088
1.080E-06,0.072
1.090E-06,0.064
1.100E-06,0.024
1.110E-06,-0.024
1.120E-06,-0.116
1.130E-06,-0.124
1.140E-06,-0.068
1.150E-06,0.020
1.160E-06,0.072
1.170E-06,0.084
1.180E-06,0.056
1.190E-06,-0.024
1.200E-06,-0.080
1.210E-06,-0.136
1.220E-06,-0.072
1.230E-06,0.040
1.240E-06,0.112
1.250E-06,0.128
1.260E-06,0.068
1.270E-06,0.032
1.280E-06,-0.032
1.290E-06,-0.072
1.300E-06,-0.080
1.310E-06,0.048
1.320E-06,0.124
1.330E-06,0.104
1.340E-06,0.056
1.350E-06,-0.032
1.360E-06,-0.140
1.370E-06,-0.164
1.380E-06,-0.148
1.390E-06,-0.132
1.400E-06,-0.052
1.410E-06,0.060
1.420E-06,0.168
1.430E-06,0.120
1.440E-06,-0.016
1.450E-06,-0.104
1.460E-06,-0.124
1.470E-06,-0.072
1.480E-06,0.000
1.490E-06,0.072
1.500E-06,0.104
1.510E-06,0.084
1.520E-06,0.024
1.530E-06,-0.052
1.540E-06,-0.100
1.550E-06,-0.084
1.560E-06,-0.024
1.570E-06,0.048
1.580E-06,0.084
1.590E-06,0.064
1.600E-06,0.016
1.610E-06,-0.020
1.620E-06,-0.040
1.630E-06,-0.032
1.640E-06,-0.004
1.650E-06,0.052
1.660E-06,0.088
1.670E-06,0.092
1.680E-06,0.060
1.690E-06,0.024
1.700E-06,0.000
1.710E-06,0.004
1.720E-06,0.024
1.730E-06,0.060
1.740E-06,0.096
1.750E-06,0.096
1.760E-06,0.092
1.770E-06,0.064
1.780E-06,0.032
1.790E-06,0.024
1.800E-06,0.044
1.810E-06,0.072
1.820E-06,0.104
1.830E-06,0.116
1.840E-06,0.100
1.850E-06,0.072
1.860E-06,0.048
1.870E-06,0.028
1.880E-06,0.008
1.890E-06,0.000
1.900E-06,-0.024
1.910E-06,-0.088
1.920E-06,-0.264
1.930E-06,-0.484
1.940E-06,-0.472
1.950E-06,-0.196
1.960E-06,0.036
1.970E-06,0.284
1.980E-06,0.152
1.990E-06,0.228
2.000E-06,-0.080
2.010E-06,-0.320
2.020E-06,-0.308
2.030E-06,-0.180
2.040E-06,0.192
2.050E-06,0.308
2.060E-06,0.252
2.070E-06,0.060
2.080E-06,-0.092
2.090E-06,-0.200
2.100E-06,-0.168
2.110E-06,-0.036
2.120E-06,0.040
2.130E-06,0.168
2.140E-06,0.124
2.150E-06,0.044
2.160E-06,-0.072
2.170E-06,-0.076
2.180E-06,-0.088
2.190E-06,-0.004
2.200E-06,0.056
2.210E-06,0.080
2.220E-06,0.088
2.230E-06,0.056
2.240E-06,-0.008
2.250E-06,-0.044
2.260E-06,-0.024
2.270E-06,0.004
2.280E-06,0.064
2.290E-06,0.076
2.300E-06,0.064
2.310E-06,0.028
2.320E-06,0.008
2.330E-06,-0.016
2.340E-06,0.000
2.350E-06,0.024
2.360E-06,0.044
2.370E-06,0.060
2.380E-06,0.068
2.390E-06,0.068
2.400E-06,0.032
2.410E-06,0.024
2.420E-06,0.032
2.430E-06,0.060
2.440E-06,0.092
2.450E-06,0.120
2.460E-06,0.148
2.470E-06,0.148
2.480E-06,0.120
2.490E-06,0.072
2.500E-06,-0.120
2.510E-06,-0.032
2.520E-06,-0.116
2.530E-06,0.012
2.540E-06,-0.120
2.550E-06,-0.132
2.560E-06,-0.092
2.570E-06,-0.080
2.580E-06,-0.056
2.590E-06,-0.080
2.600E-06,-0.064
2.610E-06,-0.096
2.620E-06,-0.020
2.630E-06,0.040
2.640E-06,0.056
2.650E-06,0.040
2.660E-06,0.040
2.670E-06,0.024
2.680E-06,-0.012
2.690E-06,0.000
2.700E-06,0.008
2.710E-06,0.032
2.720E-06,0.036
2.730E-06,0.024
2.740E-06,0.000
2.750E-06,-0.004
2.760E-06,0.024
2.770E-06,0.056
2.780E-06,0.112
2.790E-06,0.132
2.800E-06,0.204
2.810E-06,0.132
2.820E-06,0.052
2.830E-06,-0.052
2.840E-06,-0.184
2.850E-06,-0.128
2.860E-06,-0.040
2.870E-06,0.028
2.880E-06,0.068
2.890E-06,0.136
2.900E-06,0.032
2.910E-06,-0.068
2.920E-06,-0.100
2.930E-06,0.000
2.940E-06,0.080
2.950E-06,0.092
2.960E-06,0.168
2.970E-06,0.104
2.980E-06,0.064
2.990E-06,-0.052
3.000E-06,-0.120
3.010E-06,-0.140
3.020E-06,-0.104
3.030E-06,-0.032
3.040E-06,0.024
3.050E-06,0.068
3.060E-06,0.024
3.070E-06,0.008
3.080E-06,0.024
3.090E-06,0.028
3.100E-06,0.056
3.110E-06,0.112
3.120E-06,0.152
3.130E-06,0.232
3.140E-06,0.220
3.150E-06,0.152
3.160E-06,0.032
3.170E-06,-0.092
3.180E-06,-0.112
3.190E-06,-0.088
3.200E-06,-0.036
3.210E-06,-0.004
3.220E-06,-0.076
3.230E-06,-0.188
3.240E-06,-0.324
3.250E-06,-0.248
3.260E-06,-0.152
3.270E-06,-0.092
3.280E-06,0.056
3.290E-06,0.040
3.300E-06,0.088
3.310E-06,0.032
3.320E-06,-0.088
3.330E-06,-0.132
3.340E-06,-0.128
3.350E-06,-0.024
3.360E-06,0.028
3.370E-06,0.092
3.380E-06,0.048
3.390E-06,0.004
3.400E-06,-0.016
3.410E-06,-0.044
3.420E-06,-0.040
3.430E-06,-0.036
3.440E-06,0.008
3.450E-06,0.036
3.460E-06,0.068
3.470E-06,0.052
3.480E-06,0.016
3.490E-06,-0.024
3.500E-06,-0.028
3.510E-06,-0.020
3.520E-06,0.004
3.530E-06,0.040
3.540E-06,0.044
3.550E-06,0.052
3.560E-06,0.024
3.570E-06,0.008
3.580E-06,-0.004
3.590E-06,-0.004
3.600E-06,0.008
3.610E-06,0.036
3.620E-06,0.040
3.630E-06,0.032
3.640E-06,0.008
3.650E-06,-0.012
3.660E-06,-0.024
3.670E-06,-0.008
3.680E-06,0.000
3.690E-06,0.020
3.700E-06,0.028
3.710E-06,0.020
3.720E-06,0.016
3.730E-06,0.008
3.740E-06,0.008
3.750E-06,-0.004
3.760E-06,0.008
3.770E-06,0.012
3.780E-06,0.024
3.790E-06,0.032
3.800E-06,0.024
3.810E-06,0.028
3.820E-06,0.032
3.830E-06,0.028
3.840E-06,0.028
3.850E-06,0.056
3.860E-06,0.060
3.870E-06,0.068
3.880E-06,0.072
3.890E-06,0.076
3.900E-06,0.084
3.910E-06,0.084
3.920E-06,0.100
3.930E-06,0.104
3.940E-06,0.120
3.950E-06,0.128
3.960E-06,0.128
3.970E-06,0.124
3.980E-06,0.128
3.990E-06,0.140
4.000E-06,0.148
4.010E-06,0.140
4.020E-06,0.172
4.030E-06,0.152
4.040E-06,0.160
4.050E-06,0.124
4.060E-06,0.108
4.070E-06,0.048
4.080E-06,0.028
4.090E-06,-0.020
4.100E-06,-0.060
4.110E-06,-0.104
4.120E-06,-0.196
4.130E-06,-0.136
4.140E-06,-0.116
4.150E-06,-0.384
4.160E-06,-0.332
4.170E-06,-0.328
4.180E-06,-0.336
4.190E-06,-0.136
4.200E-06,0.044
4.210E-06,0.188
4.220E-06,0.176
4.230E-06,0.004
4.240E-06,0.028
4.250E-06,-0.236
4.260E-06,-0.204
4.270E-06,-0.120
4.280E-06,-0.076
4.290E-06,0.092
4.300E-06,0.092
4.310E-06,0.200
4.320E-06,-0.004
4.330E-06,-0.052
4.340E-06,-0.100
4.350E-06,-0.144
4.360E-06,-0.128
4.370E-06,-0.108
4.380E-06,0.048
4.390E-06,0.088
4.400E-06,0.092
4.410E-06,0.088
4.420E-06,0.040
4.430E-06,-0.056
4.440E-06,-0.076
4.450E-06,-0.060
4.460E-06,-0.044
4.470E-06,0.052
4.480E-06,0.072
4.490E-06,0.100
4.500E-06,0.092
4.510E-06,0.064
4.520E-06,-0.036
4.530E-06,-0.044
4.540E-06,-0.040
4.550E-06,0.040
4.560E-06,0.144
4.570E-06,0.104
4.580E-06,0.132
4.590E-06,0.064
4.600E-06,0.060
4.610E-06,0.028
4.620E-06,0.044
4.630E-06,0.004
4.640E-06,0.088
4.650E-06,0.152
4.660E-06,0.140
4.670E-06,0.088
4.680E-06,0.048
4.690E-06,0.000
4.700E-06,0.024
4.710E-06,0.060
4.720E-06,0.088
4.730E-06,0.136
4.740E-06,0.164
4.750E-06,0.188
4.760E-06,0.152
4.770E-06,0.136
4.780E-06,0.132
4.790E-06,0.152
4.800E-06,0.216
4.810E-06,0.232
4.820E-06,0.256
4.830E-06,0.236
4.840E-06,0.188
4.850E-06,0.156
4.860E-06,0.092
4.870E-06,0.052
4.880E-06,0.012
4.890E-06,-0.056
4.900E-06,-0.152
4.910E-06,-0.128
4.920E-06,-0.064
4.930E-06,-0.004
4.940E-06,0.128
4.950E-06,0.156
4.960E-06,-0.140
4.970E-06,-0.336
4.980E-06,-0.396
4.990E-06,-0.188
5.000E-06,-0.512
5.010E-06,-0.496
5.020E-06,-0.512
5.030E-06,-0.512
5.040E-06,-0.068
5.050E-06,0.172
5.060E-06,0.352
5.070E-06,0.352
5.080E-06,0.260
5.090E-06,-0.140
5.100E-06,-0.400
5.110E-06,-0.404
5.120E-06,-0.112
5.130E-06,0.196
5.140E-06,0.352
5.150E-06,0.408
5.160E-06,0.192
5.170E-06,-0.020
5.180E-06,-0.200
5.190E-06,-0.184
5.200E-06,-0.052
5.210E-06,0.124
5.220E-06,0.232
5.230E-06,0.272
5.240E-06,0.184
5.250E-06,0.036
5.260E-06,-0.056
5.270E-06,-0.104
5.280E-06,-0.032
5.290E-06,0.068
5.300E-06,0.208
5.310E-06,0.220
5.320E-06,0.176
5.330E-06,0.088
5.340E-06,0.000
5.350E-06,-0.012
5.360E-06,0.012
5.370E-06,0.128
5.380E-06,0.176
5.390E-06,0.224
5.400E-06,0.224
5.410E-06,0.192
5.420E-06,0.112
5.430E-06,0.120
5.440E-06,0.104
5.450E-06,0.120
5.460E-06,0.212
5.470E-06,0.228
5.480E-06,0.256
5.490E-06,0.204
5.500E-06,0.196
5.510E-06,0.148
5.520E-06,0.136
5.530E-06,0.152
5.540E-06,0.148
5.550E-06,0.160
5.560E-06,0.100
5.570E-06,0.032
5.580E-06,-0.020
5.590E-06,-0.076
5.600E-06,-0.096
5.610E-06,-0.056
5.620E-06,0.060
5.630E-06,0.124
5.640E-06,0.216
5.650E-06,0.196
5.660E-06,0.100
5.670E-06,0.124
5.680E-06,0.136
5.690E-06,0.192
5.700E-06,0.224
5.710E-06,0.164
5.720E-06,0.096
5.730E-06,-0.004
5.740E-06,-0.120
5.750E-06,-0.284
5.760E-06,-0.400
5.770E-06,-0.472
5.780E-06,-0.404
5.790E-06,-0.348
5.800E-06,-0.420
5.810E-06,-0.444
5.820E-06,-0.304
5.830E-06,-0.264
5.840E-06,-0.080
5.850E-06,-0.140
5.860E-06,-0.100
5.870E-06,0.028
5.880E-06,0.032
5.890E-06,0.088
5.900E-06,-0.036
5.910E-06,-0.004
5.920E-06,0.072
5.930E-06,0.100
5.940E-06,0.172
5.950E-06,0.244
5.960E-06,0.200
5.970E-06,0.196
5.980E-06,0.164
5.990E-06,0.196
6.000E-06,0.192
6.010E-06,0.200
6.020E-06,0.228
6.030E-06,0.252
6.040E-06,0.252
6.050E-06,0.224
6.060E-06,0.192
6.070E-06,0.176
6.080E-06,0.192
6.090E-06,0.208
6.100E-06,0.240
6.110E-06,0.240
6.120E-06,0.232
6.130E-06,0.216
6.140E-06,0.204
6.150E-06,0.188
6.160E-06,0.188
6.170E-06,0.204
6.180E-06,0.212
6.190E-06,0.232
6.200E-06,0.232
6.210E-06,0.220
6.220E-06,0.208
6.230E-06,0.192
6.240E-06,0.180
6.250E-06,0.184
6.260E-06,0.192
6.270E-06,0.192
6.280E-06,0.212
6.290E-06,0.204
6.300E-06,0.192
6.310E-06,0.196
6.320E-06,0.164
6.330E-06,0.168
6.340E-06,0.176
6.350E-06,0.188
6.360E-06,0.196
6.370E-06,0.212
6.380E-06,0.212
6.390E-06,0.196
6.400E-06,0.176
6.410E-06,0.152
6.420E-06,0.144
6.430E-06,0.144
6.440E-06,0.156
6.450E-06,0.152
6.460E-06,0.144
6.470E-06,0.156
6.480E-06,0.124
6.490E-06,0.120
6.500E-06,0.096
6.510E-06,0.076
6.520E-06,0.076
6.530E-06,0.080
6.540E-06,0.140
6.550E-06,0.140
6.560E-06,0.152
6.570E-06,0.176
6.580E-06,0.156
6.590E-06,0.144
6.600E-06,0.144
6.610E-06,0.164
6.620E-06,0.224
6.630E-06,0.232
6.640E-06,0.236
6.650E-06,0.192
6.660E-06,0.176
6.670E-06,0.160
6.680E-06,0.168
6.690E-06,0.184
6.700E-06,0.212
6.710E-06,0.220
6.720E-06,0.212
6.730E-06,0.200
6.740E-06,0.172
6.750E-06,0.172
6.760E-06,0.180
6.770E-06,0.200
6.780E-06,0.208
6.790E-06,0.228
6.800E-06,0.220
6.810E-06,0.212
6.820E-06,0.196
6.830E-06,0.180
6.840E-06,0.188
6.850E-06,0.188
6.860E-06,0.212
6.870E-06,0.216
6.880E-06,0.216
6.890E-06,0.200
6.900E-06,0.192
6.910E-06,0.188
6.920E-06,0.180
6.930E-06,0.188
6.940E-06,0.200
6.950E-06,0.208
6.960E-06,0.204
6.970E-06,0.204
6.980E-06,0.188
6.990E-06,0.184
7.000E-06,0.180
7.010E-06,0.180
7.020E-06,0.192
7.030E-06,0.200
7.040E-06,0.200
7.050E-06,0.196
7.060E-06,0.188
7.070E-06,0.188
7.080E-06,0.180
7.090E-06,0.188
7.100E-06,0.188
7.110E-06,0.192
7.120E-06,0.184
7.130E-06,0.188
7.140E-06,0.184
7.150E-06,0.184
7.160E-06,0.184
7.170E-06,0.180
7.180E-06,0.180
7.190E-06,0.184
7.200E-06,0.184
7.210E-06,0.184
7.220E-06,0.184
7.230E-06,0.184
7.240E-06,0.180
7.250E-06,0.188
7.260E-06,0.192
7.270E-06,0.188
7.280E-06,0.192
7.290E-06,0.184
7.300E-06,0.180
7.310E-06,0.184
7.320E-06,0.184
7.330E-06,0.184
7.340E-06,0.188
7.350E-06,0.188
7.360E-06,0.184
7.370E-06,0.176
7.380E-06,0.176
7.390E-06,0.180
7.400E-06,0.176
7.410E-06,0.184
7.420E-06,0.184
7.430E-06,0.184
7.440E-06,0.184
7.450E-06,0.180
7.460E-06,0.176
7.470E-06,0.176
7.480E-06,0.180
7.490E-06,0.176
7.500E-06,0.184
7.510E-06,0.188
7.520E-06,0.184
7.530E-06,0.184
7.540E-06,0.176
7.550E-06,0.176
7.560E-06,0.180
7.570E-06,0.180
7.580E-06,0.176
7.590E-06,0.176
7.600E-06,0.172
7.610E-06,0.172
7.620E-06,0.176
7.630E-06,0.172
7.640E-06,0.164
7.650E-06,0.168
7.660E-06,0.168
7.670E-06,0.172
7.680E-06,0.172
7.690E-06,0.168
7.700E-06,0.168
7.710E-06,0.168
7.720E-06,0.164
7.730E-06,0.160
7.740E-06,0.172
7.750E-06,0.172
