mediciones/Mediciones filtradas (saque las feas)/6-10/64.4/WaveData55264.csv

#timebase=2000000(ps)
,#voltbase=500000(mv/100)
#size=4000
-4.200E-06,0.000
-4.190E-06,0.000
-4.180E-06,-0.020
-4.170E-06,0.000
-4.160E-06,0.080
-4.150E-06,0.140
-4.140E-06,0.180
-4.130E-06,0.160
-4.120E-06,0.100
-4.110E-06,0.040
-4.100E-06,0.000
-4.090E-06,0.040
-4.080E-06,0.080
-4.070E-06,0.060
-4.060E-06,0.080
-4.050E-06,0.080
-4.040E-06,0.040
-4.030E-06,0.060
-4.020E-06,0.040
-4.010E-06,0.080
-4.000E-06,0.060
-3.990E-06,0.060
-3.980E-06,0.040
-3.970E-06,0.100
-3.960E-06,0.060
-3.950E-06,0.080
-3.940E-06,0.100
-3.930E-06,0.100
-3.920E-06,0.060
-3.910E-06,0.000
-3.900E-06,0.020
-3.890E-06,0.040
-3.880E-06,0.020
-3.870E-06,0.080
-3.860E-06,0.080
-3.850E-06,0.020
-3.840E-06,0.080
-3.830E-06,0.020
-3.820E-06,0.000
-3.810E-06,0.040
-3.800E-06,0.040
-3.790E-06,0.100
-3.780E-06,0.160
-3.770E-06,0.160
-3.760E-06,0.160
-3.750E-06,0.160
-3.740E-06,0.140
-3.730E-06,0.200
-3.720E-06,0.200
-3.710E-06,0.220
-3.700E-06,0.200
-3.690E-06,0.200
-3.680E-06,0.200
-3.670E-06,0.200
-3.660E-06,0.180
-3.650E-06,0.140
-3.640E-06,0.180
-3.630E-06,0.140
-3.620E-06,0.180
-3.610E-06,0.160
-3.600E-06,0.120
-3.590E-06,0.140
-3.580E-06,0.080
-3.570E-06,0.120
-3.560E-06,0.120
-3.550E-06,0.080
-3.540E-06,0.120
-3.530E-06,0.140
-3.520E-06,0.140
-3.510E-06,0.100
-3.500E-06,0.120
-3.490E-06,0.120
-3.480E-06,0.160
-3.470E-06,0.160
-3.460E-06,0.160
-3.450E-06,0.140
-3.440E-06,0.080
-3.430E-06,0.060
-3.420E-06,0.060
-3.410E-06,0.060
-3.400E-06,0.080
-3.390E-06,0.140
-3.380E-06,0.160
-3.370E-06,0.140
-3.360E-06,0.140
-3.350E-06,0.120
-3.340E-06,0.180
-3.330E-06,0.140
-3.320E-06,0.160
-3.310E-06,0.220
-3.300E-06,0.220
-3.290E-06,0.160
-3.280E-06,0.160
-3.270E-06,0.220
-3.260E-06,0.240
-3.250E-06,0.260
-3.240E-06,0.280
-3.230E-06,0.260
-3.220E-06,0.260
-3.210E-06,0.260
-3.200E-06,0.240
-3.190E-06,0.280
-3.180E-06,0.260
-3.170E-06,0.260
-3.160E-06,0.240
-3.150E-06,0.200
-3.140E-06,0.200
-3.130E-06,0.220
-3.120E-06,0.220
-3.110E-06,0.160
-3.100E-06,0.160
-3.090E-06,0.100
-3.080E-06,0.140
-3.070E-06,0.140
-3.060E-06,0.140
-3.050E-06,0.120
-3.040E-06,0.100
-3.030E-06,0.080
-3.020E-06,0.080
-3.010E-06,0.100
-3.000E-06,0.040
-2.990E-06,0.100
-2.980E-06,0.060
-2.970E-06,0.040
-2.960E-06,0.060
-2.950E-06,0.040
-2.940E-06,0.100
-2.930E-06,0.120
-2.920E-06,0.100
-2.910E-06,0.040
-2.900E-06,0.060
-2.890E-06,0.060
-2.880E-06,0.100
-2.870E-06,0.140
-2.860E-06,0.120
-2.850E-06,0.100
-2.840E-06,0.080
-2.830E-06,0.040
-2.820E-06,0.020
-2.810E-06,0.080
-2.800E-06,0.140
-2.790E-06,0.200
-2.780E-06,0.200
-2.770E-06,0.180
-2.760E-06,0.160
-2.750E-06,0.140
-2.740E-06,0.100
-2.730E-06,0.120
-2.720E-06,0.140
-2.710E-06,0.180
-2.700E-06,0.160
-2.690E-06,0.160
-2.680E-06,0.220
-2.670E-06,0.160
-2.660E-06,0.200
-2.650E-06,0.160
-2.640E-06,0.180
-2.630E-06,0.160
-2.620E-06,0.120
-2.610E-06,0.180
-2.600E-06,0.180
-2.590E-06,0.180
-2.580E-06,0.180
-2.570E-06,0.160
-2.560E-06,0.180
-2.550E-06,0.160
-2.540E-06,0.160
-2.530E-06,0.160
-2.520E-06,0.200
-2.510E-06,0.260
-2.500E-06,0.260
-2.490E-06,0.220
-2.480E-06,0.280
-2.470E-06,0.280
-2.460E-06,0.300
-2.450E-06,0.340
-2.440E-06,0.360
-2.430E-06,0.360
-2.420E-06,0.320
-2.410E-06,0.300
-2.400E-06,0.300
-2.390E-06,0.340
-2.380E-06,0.360
-2.370E-06,0.380
-2.360E-06,0.360
-2.350E-06,0.340
-2.340E-06,0.320
-2.330E-06,0.240
-2.320E-06,0.300
-2.310E-06,0.280
-2.300E-06,0.320
-2.290E-06,0.280
-2.280E-06,0.200
-2.270E-06,0.200
-2.260E-06,0.160
-2.250E-06,0.180
-2.240E-06,0.200
-2.230E-06,0.220
-2.220E-06,0.160
-2.210E-06,0.120
-2.200E-06,0.060
-2.190E-06,0.100
-2.180E-06,0.120
-2.170E-06,0.140
-2.160E-06,0.120
-2.150E-06,0.160
-2.140E-06,0.120
-2.130E-06,0.160
-2.120E-06,0.180
-2.110E-06,0.200
-2.100E-06,0.220
-2.090E-06,0.240
-2.080E-06,0.280
-2.070E-06,0.260
-2.060E-06,0.260
-2.050E-06,0.200
-2.040E-06,0.340
-2.030E-06,0.180
-2.020E-06,0.220
-2.010E-06,0.220
-2.000E-06,0.280
-1.990E-06,0.360
-1.980E-06,0.360
-1.970E-06,0.380
-1.960E-06,0.320
-1.950E-06,0.420
-1.940E-06,0.340
-1.930E-06,0.400
-1.920E-06,0.320
-1.910E-06,0.320
-1.900E-06,0.380
-1.890E-06,0.320
-1.880E-06,0.340
-1.870E-06,0.300
-1.860E-06,0.560
-1.850E-06,0.220
-1.840E-06,0.200
-1.830E-06,0.160
-1.820E-06,0.460
-1.810E-06,0.620
-1.800E-06,1.020
-1.790E-06,1.080
-1.780E-06,0.900
-1.770E-06,1.020
-1.760E-06,0.720
-1.750E-06,0.600
-1.740E-06,0.760
-1.730E-06,0.780
-1.720E-06,0.920
-1.710E-06,0.760
-1.700E-06,0.620
-1.690E-06,0.400
-1.680E-06,0.380
-1.670E-06,0.700
-1.660E-06,0.180
-1.650E-06,0.420
-1.640E-06,0.240
-1.630E-06,-0.360
-1.620E-06,0.100
-1.610E-06,-0.140
-1.600E-06,0.120
-1.590E-06,0.360
-1.580E-06,0.080
-1.570E-06,0.000
-1.560E-06,-0.120
-1.550E-06,-0.200
-1.540E-06,0.000
-1.530E-06,0.160
-1.520E-06,0.020
-1.510E-06,0.140
-1.500E-06,0.060
-1.490E-06,0.220
-1.480E-06,0.180
-1.470E-06,-0.120
-1.460E-06,0.140
-1.450E-06,-0.400
-1.440E-06,-0.120
-1.430E-06,-0.240
-1.420E-06,-0.180
-1.410E-06,0.020
-1.400E-06,-0.340
-1.390E-06,-0.260
-1.380E-06,-0.400
-1.370E-06,-0.400
-1.360E-06,-0.240
-1.350E-06,-0.180
-1.340E-06,0.020
-1.330E-06,0.000
-1.320E-06,0.040
-1.310E-06,0.180
-1.300E-06,0.160
-1.290E-06,0.300
-1.280E-06,0.400
-1.270E-06,0.380
-1.260E-06,0.480
-1.250E-06,0.480
-1.240E-06,0.420
-1.230E-06,0.500
-1.220E-06,0.420
-1.210E-06,0.380
-1.200E-06,0.320
-1.190E-06,0.300
-1.180E-06,0.240
-1.170E-06,0.200
-1.160E-06,-0.020
-1.150E-06,-0.020
-1.140E-06,-0.120
-1.130E-06,-0.220
-1.120E-06,0.000
-1.110E-06,-0.040
-1.100E-06,0.200
-1.090E-06,0.100
-1.080E-06,0.140
-1.070E-06,0.320
-1.060E-06,0.080
-1.050E-06,0.320
-1.040E-06,0.040
-1.030E-06,0.320
-1.020E-06,0.400
-1.010E-06,0.360
-1.000E-06,0.440
-9.900E-07,0.320
-9.800E-07,0.320
-9.700E-07,0.220
-9.600E-07,0.180
-9.500E-07,0.300
-9.400E-07,0.540
-9.300E-07,0.440
-9.200E-07,0.400
-9.100E-07,0.280
-9.000E-07,0.000
-8.900E-07,0.200
-8.800E-07,0.080
-8.700E-07,0.160
-8.600E-07,0.260
-8.500E-07,0.020
-8.400E-07,0.040
-8.300E-07,-0.080
-8.200E-07,-0.120
-8.100E-07,-0.060
-8.000E-07,-0.020
-7.900E-07,0.000
-7.800E-07,0.080
-7.700E-07,0.100
-7.600E-07,0.180
-7.500E-07,0.120
-7.400E-07,0.180
-7.300E-07,0.040
-7.200E-07,0.080
-7.100E-07,0.120
-7.000E-07,0.160
-6.900E-07,0.240
-6.800E-07,0.280
-6.700E-07,0.280
-6.600E-07,0.180
-6.500E-07,0.040
-6.400E-07,-0.040
-6.300E-07,-0.100
-6.200E-07,-0.060
-6.100E-07,0.000
-6.000E-07,0.000
-5.900E-07,0.120
-5.800E-07,0.080
-5.700E-07,0.060
-5.600E-07,0.100
-5.500E-07,0.040
-5.400E-07,0.040
-5.300E-07,0.060
-5.200E-07,0.020
-5.100E-07,-0.080
-5.000E-07,-0.060
-4.900E-07,0.040
-4.800E-07,-0.220
-4.700E-07,0.060
-4.600E-07,0.180
-4.500E-07,0.320
-4.400E-07,0.440
-4.300E-07,0.500
-4.200E-07,0.320
-4.100E-07,0.360
-4.000E-07,0.080
-3.900E-07,0.100
-3.800E-07,0.120
-3.700E-07,0.060
-3.600E-07,0.080
-3.500E-07,0.080
-3.400E-07,0.000
-3.300E-07,-0.020
-3.200E-07,0.020
-3.100E-07,0.080
-3.000E-07,0.180
-2.900E-07,0.120
-2.800E-07,0.200
-2.700E-07,0.180
-2.600E-07,0.220
-2.500E-07,0.400
-2.400E-07,0.260
-2.300E-07,0.320
-2.200E-07,0.340
-2.100E-07,0.180
-2.000E-07,0.260
-1.900E-07,0.080
-1.800E-07,0.100
-1.700E-07,0.180
-1.600E-07,0.080
-1.500E-07,0.160
-1.400E-07,0.180
-1.300E-07,0.120
-1.200E-07,0.240
-1.100E-07,0.160
-1.000E-07,0.220
-9.000E-08,0.240
-8.000E-08,0.260
-7.000E-08,0.240
-6.000E-08,0.340
-5.000E-08,0.340
-4.000E-08,0.120
-3.000E-08,0.100
-2.000E-08,-0.140
-1.000E-08,-0.140
0.000E+00,0.200
1.000E-08,0.480
2.000E-08,0.740
3.000E-08,1.000
4.000E-08,0.780
5.000E-08,0.520
6.000E-08,0.220
7.000E-08,0.060
8.000E-08,0.120
9.000E-08,0.460
1.000E-07,0.500
1.100E-07,0.520
1.200E-07,0.760
1.300E-07,0.200
1.400E-07,0.520
1.500E-07,0.280
1.600E-07,0.180
1.700E-07,0.560
1.800E-07,0.440
1.900E-07,0.860
2.000E-07,0.700
2.100E-07,0.400
2.200E-07,0.520
2.300E-07,-0.320
2.400E-07,0.300
2.500E-07,0.540
2.600E-07,0.180
2.700E-07,0.940
2.800E-07,0.000
2.900E-07,0.440
3.000E-07,1.700
3.100E-07,-0.280
3.200E-07,0.960
3.300E-07,1.080
3.400E-07,-1.440
3.500E-07,2.360
3.600E-07,-0.320
3.700E-07,-0.400
3.800E-07,2.140
3.900E-07,-0.900
4.000E-07,1.120
4.100E-07,1.380
4.200E-07,-0.400
4.300E-07,1.300
4.400E-07,-0.160
4.500E-07,-0.420
4.600E-07,0.220
4.700E-07,-0.340
4.800E-07,0.020
4.900E-07,0.460
5.000E-07,0.200
5.100E-07,0.460
5.200E-07,0.340
5.300E-07,0.420
5.400E-07,0.480
5.500E-07,0.700
5.600E-07,0.280
5.700E-07,0.220
5.800E-07,-0.260
5.900E-07,-0.460
6.000E-07,-0.760
6.100E-07,-0.980
6.200E-07,-0.840
6.300E-07,-0.880
6.400E-07,-0.720
6.500E-07,-0.700
6.600E-07,-0.660
6.700E-07,-0.800
6.800E-07,-0.740
6.900E-07,-0.860
7.000E-07,-0.600
7.100E-07,-0.500
7.200E-07,-0.340
7.300E-07,-0.220
7.400E-07,-0.160
7.500E-07,-0.200
7.600E-07,-0.240
7.700E-07,-0.200
7.800E-07,-0.260
7.900E-07,-0.180
8.000E-07,-0.140
8.100E-07,-0.100
8.200E-07,-0.200
8.300E-07,-0.200
8.400E-07,-0.360
8.500E-07,-0.360
8.600E-07,-0.380
8.700E-07,-0.500
8.800E-07,-0.600
8.900E-07,-0.660
9.000E-07,-0.780
9.100E-07,-0.880
9.200E-07,-1.060
9.300E-07,-1.260
9.400E-07,-1.480
9.500E-07,-1.700
9.600E-07,-1.840
9.700E-07,-2.080
9.800E-07,-2.260
9.900E-07,-2.460
1.000E-06,-2.660
1.010E-06,-2.660
1.020E-06,-2.640
1.030E-06,-2.660
1.040E-06,-2.660
1.050E-06,-2.660
1.060E-06,-2.660
1.070E-06,-2.640
1.080E-06,-2.580
1.090E-06,-2.460
1.100E-06,-2.300
1.110E-06,-2.200
1.120E-06,-2.240
1.130E-06,-2.060
1.140E-06,-2.020
1.150E-06,-2.000
1.160E-06,-1.660
1.170E-06,-1.540
1.180E-06,-1.180
1.190E-06,-1.060
1.200E-06,-0.840
1.210E-06,-0.980
1.220E-06,-1.020
1.230E-06,-1.040
1.240E-06,-0.640
1.250E-06,-0.680
1.260E-06,-0.380
1.270E-06,-0.500
1.280E-06,-0.600
1.290E-06,-0.900
1.300E-06,-1.220
1.310E-06,-1.100
1.320E-06,-0.980
1.330E-06,-0.360
1.340E-06,0.140
1.350E-06,0.500
1.360E-06,0.780
1.370E-06,0.820
1.380E-06,0.480
1.390E-06,0.460
1.400E-06,0.240
1.410E-06,0.260
1.420E-06,0.400
1.430E-06,0.280
1.440E-06,0.160
1.450E-06,-0.080
1.460E-06,-0.340
1.470E-06,-0.500
1.480E-06,-0.560
1.490E-06,-0.660
1.500E-06,-0.720
1.510E-06,-0.800
1.520E-06,-0.860
1.530E-06,-0.860
1.540E-06,-0.800
1.550E-06,-0.740
1.560E-06,-0.680
1.570E-06,-0.620
1.580E-06,-0.600
1.590E-06,-0.500
1.600E-06,-0.420
1.610E-06,-0.220
1.620E-06,-0.120
1.630E-06,0.020
1.640E-06,0.180
1.650E-06,0.240
1.660E-06,0.280
1.670E-06,0.300
1.680E-06,0.260
1.690E-06,0.240
1.700E-06,0.180
1.710E-06,0.020
1.720E-06,-0.060
1.730E-06,-0.140
1.740E-06,-0.240
1.750E-06,-0.300
1.760E-06,-0.360
1.770E-06,-0.440
1.780E-06,-0.460
1.790E-06,-0.440
1.800E-06,-0.420
1.810E-06,-0.360
1.820E-06,-0.240
1.830E-06,-0.080
1.840E-06,0.000
1.850E-06,0.180
1.860E-06,0.340
1.870E-06,0.440
1.880E-06,0.520
1.890E-06,0.580
1.900E-06,0.660
1.910E-06,0.600
1.920E-06,0.580
1.930E-06,0.520
1.940E-06,0.460
1.950E-06,0.380
1.960E-06,0.280
1.970E-06,0.180
1.980E-06,0.080
1.990E-06,-0.040
2.000E-06,-0.120
2.010E-06,-0.160
2.020E-06,-0.180
2.030E-06,-0.200
2.040E-06,-0.200
2.050E-06,-0.160
2.060E-06,-0.120
2.070E-06,-0.080
2.080E-06,0.000
2.090E-06,0.000
2.100E-06,0.080
2.110E-06,0.160
2.120E-06,0.180
2.130E-06,0.220
2.140E-06,0.220
2.150E-06,0.260
2.160E-06,0.260
2.170E-06,0.260
2.180E-06,0.260
2.190E-06,0.240
2.200E-06,0.160
2.210E-06,0.160
2.220E-06,0.040
2.230E-06,0.000
2.240E-06,-0.060
2.250E-06,-0.080
2.260E-06,-0.160
2.270E-06,-0.180
2.280E-06,-0.160
2.290E-06,-0.200
2.300E-06,-0.160
2.310E-06,-0.160
2.320E-06,-0.120
2.330E-06,-0.120
2.340E-06,-0.080
2.350E-06,-0.040
2.360E-06,0.000
2.370E-06,0.060
2.380E-06,0.100
2.390E-06,0.120
2.400E-06,0.160
2.410E-06,0.160
2.420E-06,0.160
2.430E-06,0.160
2.440E-06,0.180
2.450E-06,0.180
2.460E-06,0.140
2.470E-06,0.120
2.480E-06,0.080
2.490E-06,0.020
2.500E-06,-0.020
2.510E-06,-0.080
2.520E-06,-0.060
2.530E-06,-0.040
2.540E-06,-0.100
2.550E-06,-0.120
2.560E-06,-0.160
2.570E-06,-0.140
2.580E-06,-0.140
2.590E-06,-0.100
2.600E-06,-0.100
2.610E-06,-0.100
2.620E-06,-0.040
2.630E-06,-0.060
2.640E-06,-0.080
2.650E-06,-0.060
2.660E-06,-0.040
2.670E-06,-0.020
2.680E-06,0.020
2.690E-06,0.080
2.700E-06,0.060
2.710E-06,-0.040
2.720E-06,-0.060
2.730E-06,-0.080
2.740E-06,-0.140
2.750E-06,-0.100
2.760E-06,-0.080
2.770E-06,-0.080
2.780E-06,-0.020
2.790E-06,-0.020
2.800E-06,-0.060
2.810E-06,-0.060
2.820E-06,-0.120
2.830E-06,-0.160
2.840E-06,-0.100
2.850E-06,-0.120
2.860E-06,-0.160
2.870E-06,-0.140
2.880E-06,-0.180
2.890E-06,-0.160
2.900E-06,-0.140
2.910E-06,-0.160
2.920E-06,-0.120
2.930E-06,-0.140
2.940E-06,-0.100
2.950E-06,-0.060
2.960E-06,-0.040
2.970E-06,-0.020
2.980E-06,-0.020
2.990E-06,-0.020
3.000E-06,0.000
3.010E-06,0.000
3.020E-06,0.060
3.030E-06,0.080
3.040E-06,0.060
3.050E-06,0.080
3.060E-06,0.100
3.070E-06,0.120
3.080E-06,0.120
3.090E-06,0.180
3.100E-06,0.180
3.110E-06,0.160
3.120E-06,0.160
3.130E-06,0.160
3.140E-06,0.180
3.150E-06,0.100
3.160E-06,0.060
3.170E-06,0.020
3.180E-06,0.000
3.190E-06,-0.040
3.200E-06,-0.080
3.210E-06,-0.080
3.220E-06,-0.080
3.230E-06,-0.080
3.240E-06,-0.100
3.250E-06,-0.120
3.260E-06,-0.080
3.270E-06,-0.060
3.280E-06,-0.020
3.290E-06,0.000
3.300E-06,-0.020
3.310E-06,0.020
3.320E-06,-0.040
3.330E-06,0.020
3.340E-06,0.020
3.350E-06,0.040
3.360E-06,0.060
3.370E-06,0.080
3.380E-06,0.040
3.390E-06,0.040
3.400E-06,-0.020
3.410E-06,-0.060
3.420E-06,-0.100
3.430E-06,-0.120
3.440E-06,-0.100
3.450E-06,-0.140
3.460E-06,-0.160
3.470E-06,-0.160
3.480E-06,-0.200
3.490E-06,-0.220
3.500E-06,-0.220
3.510E-06,-0.180
3.520E-06,-0.180
3.530E-06,-0.180
3.540E-06,-0.100
3.550E-06,-0.080
3.560E-06,-0.100
3.570E-06,-0.100
3.580E-06,-0.080
3.590E-06,-0.080
3.600E-06,-0.060
3.610E-06,-0.040
3.620E-06,-0.020
3.630E-06,0.000
3.640E-06,0.080
3.650E-06,0.120
3.660E-06,0.180
3.670E-06,0.240
3.680E-06,0.280
3.690E-06,0.320
3.700E-06,0.360
3.710E-06,0.340
3.720E-06,0.340
3.730E-06,0.340
3.740E-06,0.340
3.750E-06,0.340
3.760E-06,0.340
3.770E-06,0.320
3.780E-06,0.300
3.790E-06,0.280
3.800E-06,0.280
3.810E-06,0.200
3.820E-06,0.160
3.830E-06,0.120
3.840E-06,0.080
3.850E-06,0.080
3.860E-06,0.020
3.870E-06,0.000
3.880E-06,-0.040
3.890E-06,-0.080
3.900E-06,-0.140
3.910E-06,-0.120
3.920E-06,-0.160
3.930E-06,-0.100
3.940E-06,-0.080
3.950E-06,-0.040
3.960E-06,0.000
3.970E-06,0.000
3.980E-06,0.080
3.990E-06,0.040
4.000E-06,0.040
4.010E-06,0.060
4.020E-06,0.060
4.030E-06,0.040
4.040E-06,0.040
4.050E-06,0.000
4.060E-06,0.060
4.070E-06,0.060
4.080E-06,0.100
4.090E-06,0.200
4.100E-06,0.240
4.110E-06,0.300
4.120E-06,0.360
4.130E-06,0.400
4.140E-06,0.440
4.150E-06,0.420
4.160E-06,0.420
4.170E-06,0.360
4.180E-06,0.320
4.190E-06,0.200
4.200E-06,0.120
4.210E-06,0.020
4.220E-06,-0.080
4.230E-06,-0.180
4.240E-06,-0.220
4.250E-06,-0.240
4.260E-06,-0.240
4.270E-06,-0.220
4.280E-06,-0.160
4.290E-06,-0.180
4.300E-06,-0.160
4.310E-06,-0.120
4.320E-06,-0.080
4.330E-06,-0.020
4.340E-06,0.120
4.350E-06,0.260
4.360E-06,0.400
4.370E-06,0.500
4.380E-06,0.600
4.390E-06,0.660
4.400E-06,0.700
4.410E-06,0.700
4.420E-06,0.720
4.430E-06,0.700
4.440E-06,0.680
4.450E-06,0.640
4.460E-06,0.600
4.470E-06,0.500
4.480E-06,0.420
4.490E-06,0.300
4.500E-06,0.180
4.510E-06,0.100
4.520E-06,0.000
4.530E-06,-0.080
4.540E-06,-0.100
4.550E-06,-0.080
4.560E-06,-0.120
4.570E-06,-0.100
4.580E-06,-0.060
4.590E-06,-0.040
4.600E-06,-0.020
4.610E-06,0.020
4.620E-06,0.100
4.630E-06,0.140
4.640E-06,0.160
4.650E-06,0.200
4.660E-06,0.220
4.670E-06,0.240
4.680E-06,0.260
4.690E-06,0.280
4.700E-06,0.320
4.710E-06,0.340
4.720E-06,0.380
4.730E-06,0.460
4.740E-06,0.520
4.750E-06,0.540
4.760E-06,0.580
4.770E-06,0.660
4.780E-06,0.680
4.790E-06,0.740
4.800E-06,0.760
4.810E-06,0.740
4.820E-06,0.780
4.830E-06,0.780
4.840E-06,0.780
4.850E-06,0.740
4.860E-06,0.720
4.870E-06,0.740
4.880E-06,0.680
4.890E-06,0.620
4.900E-06,0.600
4.910E-06,0.520
4.920E-06,0.480
4.930E-06,0.420
4.940E-06,0.360
4.950E-06,0.300
4.960E-06,0.240
4.970E-06,0.160
4.980E-06,0.100
4.990E-06,0.080
5.000E-06,0.020
5.010E-06,0.000
5.020E-06,-0.060
5.030E-06,-0.040
5.040E-06,-0.080
5.050E-06,-0.080
5.060E-06,-0.040
5.070E-06,-0.060
5.080E-06,-0.040
5.090E-06,-0.040
5.100E-06,-0.060
5.110E-06,-0.100
5.120E-06,-0.100
5.130E-06,-0.140
5.140E-06,-0.140
5.150E-06,-0.100
5.160E-06,-0.060
5.170E-06,-0.020
5.180E-06,0.080
5.190E-06,0.200
5.200E-06,0.280
5.210E-06,0.340
5.220E-06,0.420
5.230E-06,0.500
5.240E-06,0.600
5.250E-06,0.680
5.260E-06,0.780
5.270E-06,0.800
5.280E-06,0.860
5.290E-06,0.860
5.300E-06,0.880
5.310E-06,0.940
5.320E-06,0.940
5.330E-06,0.980
5.340E-06,0.980
5.350E-06,0.980
5.360E-06,0.940
5.370E-06,0.920
5.380E-06,0.860
5.390E-06,0.840
5.400E-06,0.800
5.410E-06,0.820
5.420E-06,0.780
5.430E-06,0.780
5.440E-06,0.780
5.450E-06,0.760
5.460E-06,0.800
5.470E-06,0.840
5.480E-06,0.920
5.490E-06,1.000
5.500E-06,1.200
5.510E-06,1.480
5.520E-06,1.760
5.530E-06,2.100
5.540E-06,2.480
5.550E-06,2.760
5.560E-06,2.760
5.570E-06,2.740
5.580E-06,2.760
5.590E-06,2.760
5.600E-06,2.740
5.610E-06,2.760
5.620E-06,2.760
5.630E-06,2.760
5.640E-06,2.780
5.650E-06,2.560
5.660E-06,2.200
5.670E-06,1.940
5.680E-06,1.620
5.690E-06,1.340
5.700E-06,1.180
5.710E-06,1.000
5.720E-06,0.880
5.730E-06,0.840
5.740E-06,0.760
5.750E-06,0.720
5.760E-06,0.700
5.770E-06,0.640
5.780E-06,0.640
5.790E-06,0.620
5.800E-06,0.580
5.810E-06,0.580
5.820E-06,0.500
5.830E-06,0.480
5.840E-06,0.460
5.850E-06,0.460
5.860E-06,0.400
5.870E-06,0.360
5.880E-06,0.320
5.890E-06,0.340
5.900E-06,0.320
5.910E-06,0.340
5.920E-06,0.340
5.930E-06,0.340
5.940E-06,0.340
5.950E-06,0.360
5.960E-06,0.360
5.970E-06,0.340
5.980E-06,0.320
5.990E-06,0.320
6.000E-06,0.340
6.010E-06,0.340
6.020E-06,0.340
6.030E-06,0.340
6.040E-06,0.340
6.050E-06,0.360
6.060E-06,0.380
6.070E-06,0.400
6.080E-06,0.420
6.090E-06,0.420
6.100E-06,0.460
6.110E-06,0.480
6.120E-06,0.520
6.130E-06,0.520
6.140E-06,0.540
6.150E-06,0.540
6.160E-06,0.560
6.170E-06,0.540
6.180E-06,0.520
6.190E-06,0.460
6.200E-06,0.420
6.210E-06,0.420
6.220E-06,0.360
6.230E-06,0.340
6.240E-06,0.340
6.250E-06,0.340
6.260E-06,0.340
6.270E-06,0.320
6.280E-06,0.320
6.290E-06,0.280
6.300E-06,0.280
6.310E-06,0.280
6.320E-06,0.280
6.330E-06,0.300
6.340E-06,0.320
6.350E-06,0.320
6.360E-06,0.340
6.370E-06,0.340
6.380E-06,0.360
6.390E-06,0.320
6.400E-06,0.360
6.410E-06,0.380
6.420E-06,0.420
6.430E-06,0.380
6.440E-06,0.360
6.450E-06,0.360
6.460E-06,0.360
6.470E-06,0.380
6.480E-06,0.340
6.490E-06,0.340
6.500E-06,0.320
6.510E-06,0.320
6.520E-06,0.320
6.530E-06,0.260
6.540E-06,0.260
6.550E-06,0.240
6.560E-06,0.240
6.570E-06,0.200
6.580E-06,0.200
6.590E-06,0.200
6.600E-06,0.160
6.610E-06,0.120
6.620E-06,0.120
6.630E-06,0.060
6.640E-06,0.080
6.650E-06,0.040
6.660E-06,0.060
6.670E-06,0.100
6.680E-06,0.120
6.690E-06,0.140
6.700E-06,0.160
6.710E-06,0.200
6.720E-06,0.220
6.730E-06,0.180
6.740E-06,0.220
6.750E-06,0.260
6.760E-06,0.260
6.770E-06,0.320
6.780E-06,0.360
6.790E-06,0.400
6.800E-06,0.460
6.810E-06,0.480
6.820E-06,0.520
6.830E-06,0.500
6.840E-06,0.520
6.850E-06,0.500
6.860E-06,0.540
6.870E-06,0.540
6.880E-06,0.560
6.890E-06,0.520
6.900E-06,0.500
6.910E-06,0.500
6.920E-06,0.480
6.930E-06,0.460
6.940E-06,0.440
6.950E-06,0.420
6.960E-06,0.440
6.970E-06,0.460
6.980E-06,0.440
6.990E-06,0.440
7.000E-06,0.420
7.010E-06,0.420
7.020E-06,0.440
7.030E-06,0.440
7.040E-06,0.460
7.050E-06,0.420
7.060E-06,0.400
7.070E-06,0.420
7.080E-06,0.420
7.090E-06,0.460
7.100E-06,0.440
7.110E-06,0.420
7.120E-06,0.460
7.130E-06,0.500
7.140E-06,0.500
7.150E-06,0.540
7.160E-06,0.540
7.170E-06,0.540
7.180E-06,0.560
7.190E-06,0.580
7.200E-06,0.600
7.210E-06,0.580
7.220E-06,0.620
7.230E-06,0.660
7.240E-06,0.680
7.250E-06,0.700
7.260E-06,0.720
7.270E-06,0.660
7.280E-06,0.680
7.290E-06,0.700
7.300E-06,0.700
7.310E-06,0.700
7.320E-06,0.740
7.330E-06,0.760
7.340E-06,0.760
7.350E-06,0.740
7.360E-06,0.760
7.370E-06,0.800
7.380E-06,0.780
7.390E-06,0.800
7.400E-06,0.800
7.410E-06,0.840
7.420E-06,0.800
7.430E-06,0.820
7.440E-06,0.820
7.450E-06,0.840
7.460E-06,0.840
7.470E-06,0.860
7.480E-06,0.880
7.490E-06,0.880
7.500E-06,0.940
7.510E-06,0.960
7.520E-06,0.980
7.530E-06,1.000
7.540E-06,1.020
7.550E-06,1.000
7.560E-06,1.020
7.570E-06,1.000
7.580E-06,1.020
7.590E-06,1.020
7.600E-06,1.020
7.610E-06,1.040
7.620E-06,1.040
7.630E-06,1.080
7.640E-06,1.100
7.650E-06,1.100
7.660E-06,1.120
7.670E-06,1.160
7.680E-06,1.180
7.690E-06,1.220
7.700E-06,1.260
7.710E-06,1.260
7.720E-06,1.280
7.730E-06,1.320
7.740E-06,1.340
7.750E-06,1.340
7.760E-06,1.360
7.770E-06,1.340
7.780E-06,1.340
7.790E-06,1.360
7.800E-06,1.360
