mediciones/Mediciones filtradas (saque las feas)/6-10/64.4/WaveData55265.csv

#timebase=2000000(ps)
,#voltbase=100000(mv/100)
#size=4000
-4.200E-06,-0.056
-4.190E-06,-0.020
-4.180E-06,-0.004
-4.170E-06,0.024
-4.160E-06,0.036
-4.150E-06,0.036
-4.140E-06,-0.016
-4.130E-06,-0.100
-4.120E-06,-0.204
-4.110E-06,-0.124
-4.100E-06,0.072
-4.090E-06,0.136
-4.080E-06,0.140
-4.070E-06,0.056
-4.060E-06,0.000
-4.050E-06,-0.076
-4.040E-06,-0.108
-4.030E-06,-0.076
-4.020E-06,0.000
-4.010E-06,0.128
-4.000E-06,0.120
-3.990E-06,0.072
-3.980E-06,-0.032
-3.970E-06,-0.060
-3.960E-06,-0.072
-3.950E-06,-0.040
-3.940E-06,0.012
-3.930E-06,0.036
-3.920E-06,0.040
-3.910E-06,0.028
-3.900E-06,0.016
-3.890E-06,-0.016
-3.880E-06,-0.024
-3.870E-06,-0.032
-3.860E-06,0.000
-3.850E-06,0.020
-3.840E-06,0.028
-3.830E-06,0.028
-3.820E-06,0.008
-3.810E-06,-0.012
-3.800E-06,-0.028
-3.790E-06,-0.028
-3.780E-06,-0.004
-3.770E-06,0.012
-3.760E-06,0.036
-3.750E-06,0.040
-3.740E-06,0.020
-3.730E-06,-0.008
-3.720E-06,-0.024
-3.710E-06,-0.020
-3.700E-06,-0.008
-3.690E-06,0.008
-3.680E-06,0.024
-3.670E-06,0.020
-3.660E-06,0.012
-3.650E-06,0.008
-3.640E-06,-0.008
-3.630E-06,-0.008
-3.620E-06,-0.004
-3.610E-06,0.008
-3.600E-06,0.024
-3.590E-06,0.024
-3.580E-06,0.020
-3.570E-06,0.004
-3.560E-06,0.000
-3.550E-06,0.000
-3.540E-06,0.008
-3.530E-06,0.008
-3.520E-06,0.024
-3.510E-06,0.032
-3.500E-06,0.028
-3.490E-06,0.024
-3.480E-06,0.016
-3.470E-06,0.016
-3.460E-06,0.028
-3.450E-06,0.036
-3.440E-06,0.044
-3.430E-06,0.056
-3.420E-06,0.056
-3.410E-06,0.044
-3.400E-06,0.028
-3.390E-06,-0.172
-3.380E-06,-0.236
-3.370E-06,-0.240
-3.360E-06,-0.116
-3.350E-06,0.140
-3.340E-06,0.232
-3.330E-06,0.204
-3.320E-06,0.080
-3.310E-06,-0.072
-3.300E-06,-0.192
-3.290E-06,-0.204
-3.280E-06,-0.092
-3.270E-06,0.100
-3.260E-06,0.180
-3.250E-06,0.160
-3.240E-06,0.048
-3.230E-06,-0.064
-3.220E-06,-0.136
-3.210E-06,-0.112
-3.200E-06,-0.036
-3.190E-06,0.040
-3.180E-06,0.108
-3.170E-06,0.096
-3.160E-06,0.044
-3.150E-06,-0.028
-3.140E-06,-0.064
-3.130E-06,-0.072
-3.120E-06,-0.024
-3.110E-06,0.024
-3.100E-06,0.060
-3.090E-06,0.080
-3.080E-06,0.056
-3.070E-06,0.012
-3.060E-06,-0.040
-3.050E-06,-0.052
-3.040E-06,-0.036
-3.030E-06,0.000
-3.020E-06,0.044
-3.010E-06,0.068
-3.000E-06,0.060
-2.990E-06,0.012
-2.980E-06,-0.020
-2.970E-06,-0.044
-2.960E-06,-0.036
-2.950E-06,-0.004
-2.940E-06,0.024
-2.930E-06,0.044
-2.920E-06,0.032
-2.910E-06,0.012
-2.900E-06,-0.012
-2.890E-06,-0.040
-2.880E-06,-0.028
-2.870E-06,-0.016
-2.860E-06,0.004
-2.850E-06,0.024
-2.840E-06,0.032
-2.830E-06,0.028
-2.820E-06,0.016
-2.810E-06,0.000
-2.800E-06,-0.016
-2.790E-06,-0.020
-2.780E-06,0.000
-2.770E-06,0.020
-2.760E-06,0.044
-2.750E-06,0.056
-2.740E-06,0.044
-2.730E-06,0.020
-2.720E-06,-0.004
-2.710E-06,-0.012
-2.700E-06,0.000
-2.690E-06,0.032
-2.680E-06,0.064
-2.670E-06,0.076
-2.660E-06,0.060
-2.650E-06,0.052
-2.640E-06,0.008
-2.630E-06,0.020
-2.620E-06,0.028
-2.610E-06,0.036
-2.600E-06,0.056
-2.590E-06,0.060
-2.580E-06,0.044
-2.570E-06,-0.040
-2.560E-06,-0.116
-2.550E-06,-0.180
-2.540E-06,-0.172
-2.530E-06,-0.100
-2.520E-06,-0.004
-2.510E-06,0.044
-2.500E-06,0.092
-2.490E-06,0.052
-2.480E-06,-0.008
-2.470E-06,-0.084
-2.460E-06,-0.088
-2.450E-06,-0.032
-2.440E-06,0.004
-2.430E-06,0.044
-2.420E-06,0.056
-2.410E-06,0.056
-2.400E-06,0.028
-2.390E-06,-0.016
-2.380E-06,-0.068
-2.370E-06,-0.060
-2.360E-06,-0.028
-2.350E-06,0.012
-2.340E-06,0.048
-2.330E-06,0.056
-2.320E-06,0.028
-2.310E-06,0.000
-2.300E-06,-0.024
-2.290E-06,-0.040
-2.280E-06,-0.024
-2.270E-06,0.004
-2.260E-06,0.032
-2.250E-06,0.044
-2.240E-06,0.028
-2.230E-06,0.004
-2.220E-06,-0.016
-2.210E-06,-0.024
-2.200E-06,-0.020
-2.190E-06,0.004
-2.180E-06,0.020
-2.170E-06,0.036
-2.160E-06,0.028
-2.150E-06,0.024
-2.140E-06,-0.004
-2.130E-06,-0.004
-2.120E-06,-0.008
-2.110E-06,-0.004
-2.100E-06,0.012
-2.090E-06,0.028
-2.080E-06,0.024
-2.070E-06,0.024
-2.060E-06,0.012
-2.050E-06,0.004
-2.040E-06,0.000
-2.030E-06,0.004
-2.020E-06,0.012
-2.010E-06,0.020
-2.000E-06,0.020
-1.990E-06,0.024
-1.980E-06,0.016
-1.970E-06,0.008
-1.960E-06,0.004
-1.950E-06,0.008
-1.940E-06,0.012
-1.930E-06,0.024
-1.920E-06,0.024
-1.910E-06,0.020
-1.900E-06,0.020
-1.890E-06,0.008
-1.880E-06,0.012
-1.870E-06,0.008
-1.860E-06,0.000
-1.850E-06,0.004
-1.840E-06,0.004
-1.830E-06,0.016
-1.820E-06,0.024
-1.810E-06,0.024
-1.800E-06,0.024
-1.790E-06,0.008
-1.780E-06,0.004
-1.770E-06,0.000
-1.760E-06,0.008
-1.750E-06,0.024
-1.740E-06,0.040
-1.730E-06,0.052
-1.720E-06,0.048
-1.710E-06,0.032
-1.700E-06,0.028
-1.690E-06,0.032
-1.680E-06,0.044
-1.670E-06,0.060
-1.660E-06,0.096
-1.650E-06,0.112
-1.640E-06,0.124
-1.630E-06,0.112
-1.620E-06,0.096
-1.610E-06,0.080
-1.600E-06,0.044
-1.590E-06,0.000
-1.580E-06,-0.096
-1.570E-06,-0.160
-1.560E-06,-0.252
-1.550E-06,-0.236
-1.540E-06,-0.160
-1.530E-06,-0.092
-1.520E-06,0.036
-1.510E-06,0.024
-1.500E-06,0.052
-1.490E-06,0.000
-1.480E-06,-0.060
-1.470E-06,-0.100
-1.460E-06,-0.076
-1.450E-06,-0.024
-1.440E-06,0.032
-1.430E-06,0.052
-1.420E-06,0.052
-1.410E-06,0.024
-1.400E-06,-0.004
-1.390E-06,-0.020
-1.380E-06,-0.028
-1.370E-06,-0.008
-1.360E-06,0.004
-1.350E-06,0.020
-1.340E-06,0.024
-1.330E-06,0.012
-1.320E-06,0.000
-1.310E-06,0.008
-1.300E-06,-0.004
-1.290E-06,-0.012
-1.280E-06,-0.008
-1.270E-06,-0.012
-1.260E-06,0.000
-1.250E-06,0.000
-1.240E-06,0.016
-1.230E-06,0.028
-1.220E-06,0.024
-1.210E-06,-0.004
-1.200E-06,-0.024
-1.190E-06,-0.008
-1.180E-06,0.004
-1.170E-06,0.024
-1.160E-06,0.028
-1.150E-06,0.020
-1.140E-06,0.012
-1.130E-06,0.004
-1.120E-06,-0.012
-1.110E-06,0.000
-1.100E-06,0.008
-1.090E-06,0.028
-1.080E-06,0.032
-1.070E-06,0.032
-1.060E-06,0.016
-1.050E-06,0.008
-1.040E-06,0.012
-1.030E-06,0.012
-1.020E-06,0.032
-1.010E-06,0.044
-1.000E-06,0.056
-9.900E-07,0.052
-9.800E-07,0.032
-9.700E-07,0.032
-9.600E-07,0.024
-9.500E-07,0.044
-9.400E-07,0.036
-9.300E-07,0.080
-9.200E-07,0.088
-9.100E-07,0.084
-9.000E-07,0.076
-8.900E-07,0.056
-8.800E-07,0.056
-8.700E-07,0.064
-8.600E-07,0.092
-8.500E-07,0.116
-8.400E-07,0.120
-8.300E-07,0.104
-8.200E-07,0.120
-8.100E-07,0.076
-8.000E-07,0.056
-7.900E-07,-0.012
-7.800E-07,0.068
-7.700E-07,-0.320
-7.600E-07,-0.284
-7.500E-07,-0.120
-7.400E-07,-0.108
-7.300E-07,-0.016
-7.200E-07,0.020
-7.100E-07,0.176
-7.000E-07,-0.032
-6.900E-07,-0.328
-6.800E-07,-0.312
-6.700E-07,-0.152
-6.600E-07,-0.080
-6.500E-07,0.220
-6.400E-07,0.228
-6.300E-07,0.124
-6.200E-07,0.076
-6.100E-07,0.012
-6.000E-07,-0.068
-5.900E-07,-0.188
-5.800E-07,-0.044
-5.700E-07,-0.224
-5.600E-07,-0.028
-5.500E-07,0.004
-5.400E-07,0.060
-5.300E-07,0.032
-5.200E-07,0.008
-5.100E-07,0.028
-5.000E-07,-0.088
-4.900E-07,-0.012
-4.800E-07,-0.020
-4.700E-07,0.028
-4.600E-07,-0.024
-4.500E-07,0.036
-4.400E-07,0.016
-4.300E-07,-0.004
-4.200E-07,-0.024
-4.100E-07,-0.008
-4.000E-07,0.000
-3.900E-07,0.032
-3.800E-07,0.036
-3.700E-07,-0.008
-3.600E-07,0.000
-3.500E-07,-0.028
-3.400E-07,0.024
-3.300E-07,0.004
-3.200E-07,0.020
-3.100E-07,0.004
-3.000E-07,0.008
-2.900E-07,0.012
-2.800E-07,0.004
-2.700E-07,0.028
-2.600E-07,0.008
-2.500E-07,0.040
-2.400E-07,0.028
-2.300E-07,0.048
-2.200E-07,0.040
-2.100E-07,0.040
-2.000E-07,0.036
-1.900E-07,0.044
-1.800E-07,0.068
-1.700E-07,0.076
-1.600E-07,0.100
-1.500E-07,0.104
-1.400E-07,0.160
-1.300E-07,0.148
-1.200E-07,0.136
-1.100E-07,0.156
-1.000E-07,0.136
-9.000E-08,0.216
-8.000E-08,0.140
-7.000E-08,0.108
-6.000E-08,-0.036
-5.000E-08,-0.324
-4.000E-08,-0.512
-3.000E-08,-0.512
-2.000E-08,-0.420
-1.000E-08,0.272
0.000E+00,0.540
1.000E-08,0.540
2.000E-08,0.540
3.000E-08,-0.132
4.000E-08,-0.512
5.000E-08,-0.508
6.000E-08,-0.508
7.000E-08,-0.096
8.000E-08,0.480
9.000E-08,0.540
1.000E-07,0.448
1.100E-07,0.080
1.200E-07,-0.360
1.300E-07,-0.512
1.400E-07,-0.508
1.500E-07,-0.212
1.600E-07,0.268
1.700E-07,0.512
1.800E-07,0.340
1.900E-07,0.092
2.000E-07,-0.228
2.100E-07,-0.368
2.200E-07,-0.352
2.300E-07,-0.108
2.400E-07,0.184
2.500E-07,0.320
2.600E-07,0.300
2.700E-07,0.104
2.800E-07,-0.172
2.900E-07,-0.332
3.000E-07,-0.260
3.100E-07,-0.088
3.200E-07,0.124
3.300E-07,0.236
3.400E-07,0.240
3.500E-07,0.140
3.600E-07,-0.036
3.700E-07,-0.160
3.800E-07,-0.216
3.900E-07,-0.108
4.000E-07,0.052
4.100E-07,0.208
4.200E-07,0.236
4.300E-07,0.160
4.400E-07,-0.032
4.500E-07,-0.168
4.600E-07,-0.212
4.700E-07,-0.128
4.800E-07,0.004
4.900E-07,0.128
5.000E-07,0.184
5.100E-07,0.132
5.200E-07,0.028
5.300E-07,-0.084
5.400E-07,-0.160
5.500E-07,-0.124
5.600E-07,-0.024
5.700E-07,0.108
5.800E-07,0.172
5.900E-07,0.152
6.000E-07,0.060
6.100E-07,-0.044
6.200E-07,-0.100
6.300E-07,-0.084
6.400E-07,-0.008
6.500E-07,0.076
6.600E-07,0.132
6.700E-07,0.140
6.800E-07,0.100
6.900E-07,0.036
7.000E-07,-0.004
7.100E-07,-0.008
7.200E-07,0.036
7.300E-07,0.128
7.400E-07,0.208
7.500E-07,0.244
7.600E-07,0.224
7.700E-07,0.152
7.800E-07,0.080
7.900E-07,0.032
8.000E-07,0.060
8.100E-07,0.084
8.200E-07,0.076
8.300E-07,-0.076
8.400E-07,-0.312
8.500E-07,-0.320
8.600E-07,-0.060
8.700E-07,0.404
8.800E-07,0.540
8.900E-07,0.432
9.000E-07,-0.116
9.100E-07,-0.508
9.200E-07,-0.508
9.300E-07,-0.512
9.400E-07,-0.176
9.500E-07,0.472
9.600E-07,0.540
9.700E-07,0.544
9.800E-07,0.132
9.900E-07,-0.512
1.000E-06,-0.508
1.010E-06,-0.512
1.020E-06,-0.092
1.030E-06,0.336
1.040E-06,0.540
1.050E-06,0.536
1.060E-06,0.184
1.070E-06,-0.132
1.080E-06,-0.416
1.090E-06,-0.432
1.100E-06,-0.252
1.110E-06,0.064
1.120E-06,0.312
1.130E-06,0.412
1.140E-06,0.268
1.150E-06,-0.016
1.160E-06,-0.216
1.170E-06,-0.312
1.180E-06,-0.212
1.190E-06,-0.040
1.200E-06,0.176
1.210E-06,0.252
1.220E-06,0.224
1.230E-06,0.060
1.240E-06,-0.104
1.250E-06,-0.184
1.260E-06,-0.144
1.270E-06,-0.012
1.280E-06,0.104
1.290E-06,0.220
1.300E-06,0.228
1.310E-06,0.160
1.320E-06,0.020
1.330E-06,-0.012
1.340E-06,-0.076
1.350E-06,0.000
1.360E-06,0.076
1.370E-06,0.180
1.380E-06,0.260
1.390E-06,0.184
1.400E-06,0.160
1.410E-06,0.088
1.420E-06,0.028
1.430E-06,-0.072
1.440E-06,-0.112
1.450E-06,-0.060
1.460E-06,0.004
1.470E-06,0.120
1.480E-06,0.144
1.490E-06,0.020
1.500E-06,-0.068
1.510E-06,-0.216
1.520E-06,-0.236
1.530E-06,-0.184
1.540E-06,0.068
1.550E-06,0.276
1.560E-06,0.300
1.570E-06,0.320
1.580E-06,0.256
1.590E-06,0.008
1.600E-06,-0.160
1.610E-06,-0.316
1.620E-06,-0.172
1.630E-06,-0.028
1.640E-06,0.316
1.650E-06,0.344
1.660E-06,0.292
1.670E-06,0.132
1.680E-06,-0.440
1.690E-06,-0.504
1.700E-06,-0.512
1.710E-06,-0.208
1.720E-06,0.088
1.730E-06,0.252
1.740E-06,0.216
1.750E-06,-0.040
1.760E-06,-0.220
1.770E-06,-0.264
1.780E-06,-0.188
1.790E-06,0.004
1.800E-06,0.232
1.810E-06,0.220
1.820E-06,0.328
1.830E-06,-0.088
1.840E-06,-0.204
1.850E-06,-0.336
1.860E-06,-0.208
1.870E-06,-0.016
1.880E-06,-0.004
1.890E-06,0.108
1.900E-06,0.088
1.910E-06,-0.008
1.920E-06,-0.112
1.930E-06,-0.168
1.940E-06,-0.136
1.950E-06,-0.028
1.960E-06,0.132
1.970E-06,0.156
1.980E-06,0.128
1.990E-06,0.072
2.000E-06,-0.044
2.010E-06,-0.112
2.020E-06,-0.072
2.030E-06,-0.040
2.040E-06,0.020
2.050E-06,0.124
2.060E-06,0.144
2.070E-06,0.108
2.080E-06,0.044
2.090E-06,-0.056
2.100E-06,-0.108
2.110E-06,-0.092
2.120E-06,0.060
2.130E-06,0.068
2.140E-06,0.144
2.150E-06,0.132
2.160E-06,0.032
2.170E-06,-0.012
2.180E-06,-0.080
2.190E-06,-0.040
2.200E-06,-0.032
2.210E-06,0.028
2.220E-06,0.092
2.230E-06,0.128
2.240E-06,0.100
2.250E-06,0.068
2.260E-06,0.028
2.270E-06,-0.004
2.280E-06,0.060
2.290E-06,0.108
2.300E-06,0.136
2.310E-06,0.192
2.320E-06,0.176
2.330E-06,0.124
2.340E-06,0.068
2.350E-06,0.096
2.360E-06,0.100
2.370E-06,0.148
2.380E-06,0.172
2.390E-06,0.192
2.400E-06,0.144
2.410E-06,0.060
2.420E-06,-0.104
2.430E-06,-0.296
2.440E-06,-0.376
2.450E-06,-0.356
2.460E-06,-0.152
2.470E-06,0.064
2.480E-06,0.200
2.490E-06,0.420
2.500E-06,0.452
2.510E-06,0.228
2.520E-06,-0.120
2.530E-06,-0.172
2.540E-06,-0.148
2.550E-06,-0.272
2.560E-06,-0.244
2.570E-06,-0.336
2.580E-06,-0.512
2.590E-06,-0.436
2.600E-06,-0.316
2.610E-06,0.020
2.620E-06,0.052
2.630E-06,0.368
2.640E-06,0.208
2.650E-06,-0.048
2.660E-06,-0.104
2.670E-06,-0.108
2.680E-06,0.016
2.690E-06,0.072
2.700E-06,0.260
2.710E-06,0.168
2.720E-06,0.028
2.730E-06,-0.100
2.740E-06,-0.052
2.750E-06,-0.040
2.760E-06,0.020
2.770E-06,0.196
2.780E-06,0.160
2.790E-06,0.120
2.800E-06,-0.004
2.810E-06,-0.124
2.820E-06,-0.168
2.830E-06,-0.188
2.840E-06,-0.008
2.850E-06,0.008
2.860E-06,0.108
2.870E-06,0.136
2.880E-06,0.064
2.890E-06,-0.056
2.900E-06,-0.036
2.910E-06,-0.088
2.920E-06,-0.028
2.930E-06,0.044
2.940E-06,0.104
2.950E-06,0.108
2.960E-06,0.040
2.970E-06,-0.004
2.980E-06,-0.032
2.990E-06,-0.012
3.000E-06,0.060
3.010E-06,0.072
3.020E-06,0.128
3.030E-06,0.168
3.040E-06,0.140
3.050E-06,0.120
3.060E-06,0.092
3.070E-06,0.116
3.080E-06,0.120
3.090E-06,0.192
3.100E-06,0.236
3.110E-06,0.248
3.120E-06,0.236
3.130E-06,0.192
3.140E-06,0.168
3.150E-06,0.144
3.160E-06,0.160
3.170E-06,0.164
3.180E-06,0.148
3.190E-06,0.156
3.200E-06,0.144
3.210E-06,0.148
3.220E-06,0.164
3.230E-06,0.148
3.240E-06,-0.004
3.250E-06,0.060
3.260E-06,0.048
3.270E-06,0.036
3.280E-06,-0.448
3.290E-06,-0.512
3.300E-06,-0.508
3.310E-06,-0.508
3.320E-06,-0.512
3.330E-06,0.344
3.340E-06,0.460
3.350E-06,0.372
3.360E-06,0.392
3.370E-06,-0.204
3.380E-06,-0.512
3.390E-06,-0.508
3.400E-06,-0.164
3.410E-06,0.160
3.420E-06,0.444
3.430E-06,0.488
3.440E-06,0.300
3.450E-06,-0.056
3.460E-06,-0.464
3.470E-06,-0.452
3.480E-06,-0.172
3.490E-06,0.148
3.500E-06,0.404
3.510E-06,0.412
3.520E-06,0.320
3.530E-06,0.056
3.540E-06,-0.192
3.550E-06,-0.220
3.560E-06,-0.084
3.570E-06,0.164
3.580E-06,0.352
3.590E-06,0.452
3.600E-06,0.352
3.610E-06,0.176
3.620E-06,0.012
3.630E-06,-0.060
3.640E-06,0.016
3.650E-06,0.136
3.660E-06,0.312
3.670E-06,0.364
3.680E-06,0.320
3.690E-06,0.164
3.700E-06,0.060
3.710E-06,-0.004
3.720E-06,0.052
3.730E-06,0.184
3.740E-06,0.300
3.750E-06,0.376
3.760E-06,0.332
3.770E-06,0.236
3.780E-06,0.108
3.790E-06,0.060
3.800E-06,0.080
3.810E-06,0.172
3.820E-06,0.276
3.830E-06,0.332
3.840E-06,0.320
3.850E-06,0.244
3.860E-06,0.140
3.870E-06,0.080
3.880E-06,0.076
3.890E-06,0.128
3.900E-06,0.216
3.910E-06,0.208
3.920E-06,0.156
3.930E-06,0.004
3.940E-06,-0.120
3.950E-06,-0.212
3.960E-06,-0.176
3.970E-06,-0.084
3.980E-06,0.152
3.990E-06,0.252
4.000E-06,0.360
4.010E-06,0.336
4.020E-06,0.272
4.030E-06,0.160
4.040E-06,0.008
4.050E-06,-0.012
4.060E-06,0.008
4.070E-06,0.000
4.080E-06,0.072
4.090E-06,0.028
4.100E-06,0.048
4.110E-06,0.072
4.120E-06,0.200
4.130E-06,0.192
4.140E-06,0.140
4.150E-06,0.036
4.160E-06,-0.040
4.170E-06,-0.136
4.180E-06,-0.164
4.190E-06,-0.052
4.200E-06,0.112
4.210E-06,0.264
4.220E-06,0.348
4.230E-06,0.324
4.240E-06,0.264
4.250E-06,0.076
4.260E-06,0.024
4.270E-06,0.036
4.280E-06,0.164
4.290E-06,0.268
4.300E-06,0.348
4.310E-06,0.360
4.320E-06,0.232
4.330E-06,0.148
4.340E-06,0.076
4.350E-06,0.076
4.360E-06,0.140
4.370E-06,0.252
4.380E-06,0.336
4.390E-06,0.332
4.400E-06,0.276
4.410E-06,0.184
4.420E-06,0.112
4.430E-06,0.100
4.440E-06,0.140
4.450E-06,0.216
4.460E-06,0.276
4.470E-06,0.300
4.480E-06,0.264
4.490E-06,0.188
4.500E-06,0.104
4.510E-06,0.072
4.520E-06,0.088
4.530E-06,0.132
4.540E-06,0.180
4.550E-06,0.192
4.560E-06,0.172
4.570E-06,0.144
4.580E-06,0.104
4.590E-06,0.128
4.600E-06,0.176
4.610E-06,0.228
4.620E-06,0.264
4.630E-06,0.264
4.640E-06,0.224
4.650E-06,0.184
4.660E-06,0.172
4.670E-06,0.164
4.680E-06,0.192
4.690E-06,0.224
4.700E-06,0.240
4.710E-06,0.228
4.720E-06,0.216
4.730E-06,0.196
4.740E-06,0.172
4.750E-06,0.176
4.760E-06,0.180
4.770E-06,0.208
4.780E-06,0.220
4.790E-06,0.224
4.800E-06,0.220
4.810E-06,0.208
4.820E-06,0.192
4.830E-06,0.192
4.840E-06,0.196
4.850E-06,0.204
4.860E-06,0.220
4.870E-06,0.224
4.880E-06,0.212
4.890E-06,0.204
4.900E-06,0.192
4.910E-06,0.188
4.920E-06,0.192
4.930E-06,0.196
4.940E-06,0.204
4.950E-06,0.212
4.960E-06,0.216
4.970E-06,0.200
4.980E-06,0.192
4.990E-06,0.192
5.000E-06,0.192
5.010E-06,0.192
5.020E-06,0.200
5.030E-06,0.208
5.040E-06,0.204
5.050E-06,0.204
5.060E-06,0.192
5.070E-06,0.184
5.080E-06,0.184
5.090E-06,0.188
5.100E-06,0.188
5.110E-06,0.192
5.120E-06,0.196
5.130E-06,0.188
5.140E-06,0.192
5.150E-06,0.192
5.160E-06,0.188
5.170E-06,0.188
5.180E-06,0.188
5.190E-06,0.188
5.200E-06,0.196
5.210E-06,0.192
5.220E-06,0.188
5.230E-06,0.188
5.240E-06,0.184
5.250E-06,0.180
5.260E-06,0.188
5.270E-06,0.180
5.280E-06,0.188
5.290E-06,0.192
5.300E-06,0.188
5.310E-06,0.184
5.320E-06,0.176
5.330E-06,0.172
5.340E-06,0.172
5.350E-06,0.176
5.360E-06,0.180
5.370E-06,0.180
5.380E-06,0.188
5.390E-06,0.184
5.400E-06,0.184
5.410E-06,0.188
5.420E-06,0.184
5.430E-06,0.180
5.440E-06,0.180
5.450E-06,0.180
5.460E-06,0.180
5.470E-06,0.180
5.480E-06,0.176
5.490E-06,0.176
5.500E-06,0.180
5.510E-06,0.172
5.520E-06,0.184
5.530E-06,0.176
5.540E-06,0.176
5.550E-06,0.176
5.560E-06,0.180
5.570E-06,0.176
5.580E-06,0.176
5.590E-06,0.176
5.600E-06,0.172
5.610E-06,0.176
5.620E-06,0.180
5.630E-06,0.184
5.640E-06,0.180
5.650E-06,0.172
5.660E-06,0.168
5.670E-06,0.168
5.680E-06,0.164
5.690E-06,0.160
5.700E-06,0.156
5.710E-06,0.160
5.720E-06,0.168
5.730E-06,0.164
5.740E-06,0.172
5.750E-06,0.164
5.760E-06,0.168
5.770E-06,0.160
5.780E-06,0.164
5.790E-06,0.168
5.800E-06,0.172
5.810E-06,0.168
5.820E-06,0.168
5.830E-06,0.160
5.840E-06,0.156
5.850E-06,0.152
5.860E-06,0.160
5.870E-06,0.168
5.880E-06,0.168
5.890E-06,0.164
5.900E-06,0.160
5.910E-06,0.152
5.920E-06,0.152
5.930E-06,0.160
5.940E-06,0.160
5.950E-06,0.156
5.960E-06,0.164
5.970E-06,0.164
5.980E-06,0.164
5.990E-06,0.156
6.000E-06,0.156
6.010E-06,0.156
6.020E-06,0.160
6.030E-06,0.156
6.040E-06,0.152
6.050E-06,0.152
6.060E-06,0.156
6.070E-06,0.152
6.080E-06,0.152
6.090E-06,0.156
6.100E-06,0.152
6.110E-06,0.156
6.120E-06,0.160
6.130E-06,0.160
6.140E-06,0.152
6.150E-06,0.152
6.160E-06,0.152
6.170E-06,0.148
6.180E-06,0.152
6.190E-06,0.156
6.200E-06,0.160
6.210E-06,0.156
6.220E-06,0.160
6.230E-06,0.152
6.240E-06,0.152
6.250E-06,0.152
6.260E-06,0.148
6.270E-06,0.148
6.280E-06,0.148
6.290E-06,0.144
6.300E-06,0.152
6.310E-06,0.148
6.320E-06,0.148
6.330E-06,0.144
6.340E-06,0.144
6.350E-06,0.144
6.360E-06,0.144
6.370E-06,0.140
6.380E-06,0.144
6.390E-06,0.152
6.400E-06,0.144
6.410E-06,0.144
6.420E-06,0.144
6.430E-06,0.144
6.440E-06,0.144
6.450E-06,0.144
6.460E-06,0.144
6.470E-06,0.136
6.480E-06,0.136
6.490E-06,0.140
6.500E-06,0.136
6.510E-06,0.136
6.520E-06,0.136
6.530E-06,0.136
6.540E-06,0.136
6.550E-06,0.136
6.560E-06,0.136
6.570E-06,0.136
6.580E-06,0.140
6.590E-06,0.132
6.600E-06,0.132
6.610E-06,0.132
6.620E-06,0.132
6.630E-06,0.136
6.640E-06,0.136
6.650E-06,0.132
6.660E-06,0.132
6.670E-06,0.132
6.680E-06,0.128
6.690E-06,0.128
6.700E-06,0.128
6.710E-06,0.128
6.720E-06,0.128
6.730E-06,0.128
6.740E-06,0.128
6.750E-06,0.128
6.760E-06,0.128
6.770E-06,0.128
6.780E-06,0.128
6.790E-06,0.128
6.800E-06,0.124
6.810E-06,0.124
6.820E-06,0.124
6.830E-06,0.124
6.840E-06,0.128
6.850E-06,0.124
6.860E-06,0.124
6.870E-06,0.124
6.880E-06,0.124
6.890E-06,0.120
6.900E-06,0.120
6.910E-06,0.120
6.920E-06,0.124
6.930E-06,0.120
6.940E-06,0.124
6.950E-06,0.120
6.960E-06,0.116
6.970E-06,0.116
6.980E-06,0.112
6.990E-06,0.124
7.000E-06,0.124
7.010E-06,0.124
7.020E-06,0.128
7.030E-06,0.112
7.040E-06,0.108
7.050E-06,0.104
7.060E-06,0.104
7.070E-06,0.112
7.080E-06,0.116
7.090E-06,0.112
7.100E-06,0.116
7.110E-06,0.120
7.120E-06,0.112
7.130E-06,0.108
7.140E-06,0.100
7.150E-06,0.100
7.160E-06,0.100
7.170E-06,0.112
7.180E-06,0.112
7.190E-06,0.112
7.200E-06,0.112
7.210E-06,0.108
7.220E-06,0.104
7.230E-06,0.096
7.240E-06,0.100
7.250E-06,0.096
7.260E-06,0.108
7.270E-06,0.104
7.280E-06,0.104
7.290E-06,0.096
7.300E-06,0.100
7.310E-06,0.096
7.320E-06,0.096
7.330E-06,0.100
7.340E-06,0.096
7.350E-06,0.096
7.360E-06,0.096
7.370E-06,0.092
7.380E-06,0.092
7.390E-06,0.096
7.400E-06,0.092
7.410E-06,0.092
7.420E-06,0.092
7.430E-06,0.092
7.440E-06,0.096
7.450E-06,0.092
7.460E-06,0.092
7.470E-06,0.088
7.480E-06,0.092
7.490E-06,0.092
7.500E-06,0.092
7.510E-06,0.092
7.520E-06,0.088
7.530E-06,0.092
7.540E-06,0.092
7.550E-06,0.092
7.560E-06,0.088
7.570E-06,0.088
7.580E-06,0.092
7.590E-06,0.084
7.600E-06,0.080
7.610E-06,0.084
7.620E-06,0.080
7.630E-06,0.084
7.640E-06,0.076
7.650E-06,0.080
7.660E-06,0.084
7.670E-06,0.080
7.680E-06,0.076
7.690E-06,0.076
7.700E-06,0.076
7.710E-06,0.076
7.720E-06,0.080
7.730E-06,0.080
7.740E-06,0.076
7.750E-06,0.076
7.760E-06,0.080
7.770E-06,0.076
7.780E-06,0.076
7.790E-06,0.072
7.800E-06,0.076
