mediciones/Mediciones filtradas (saque las feas)/6-10/64.4/WaveData55268.csv

#timebase=2000000(ps)
,#voltbase=500000(mv/100)
#size=4000
-4.200E-06,0.260
-4.190E-06,0.160
-4.180E-06,0.180
-4.170E-06,0.160
-4.160E-06,0.260
-4.150E-06,0.340
-4.140E-06,0.340
-4.130E-06,0.320
-4.120E-06,0.160
-4.110E-06,0.040
-4.100E-06,0.020
-4.090E-06,0.060
-4.080E-06,0.060
-4.070E-06,0.100
-4.060E-06,0.060
-4.050E-06,0.000
-4.040E-06,-0.040
-4.030E-06,-0.060
-4.020E-06,-0.040
-4.010E-06,0.020
-4.000E-06,0.080
-3.990E-06,0.000
-3.980E-06,0.080
-3.970E-06,0.060
-3.960E-06,0.100
-3.950E-06,0.160
-3.940E-06,0.160
-3.930E-06,0.220
-3.920E-06,0.180
-3.910E-06,0.140
-3.900E-06,0.180
-3.890E-06,0.140
-3.880E-06,0.140
-3.870E-06,0.160
-3.860E-06,0.060
-3.850E-06,0.080
-3.840E-06,0.000
-3.830E-06,-0.020
-3.820E-06,-0.020
-3.810E-06,0.000
-3.800E-06,0.040
-3.790E-06,0.040
-3.780E-06,0.060
-3.770E-06,0.020
-3.760E-06,-0.080
-3.750E-06,-0.280
-3.740E-06,-0.460
-3.730E-06,-0.500
-3.720E-06,-0.480
-3.710E-06,-0.200
-3.700E-06,0.120
-3.690E-06,0.480
-3.680E-06,0.660
-3.670E-06,0.700
-3.660E-06,0.660
-3.650E-06,0.560
-3.640E-06,0.540
-3.630E-06,0.660
-3.620E-06,0.700
-3.610E-06,0.820
-3.600E-06,0.840
-3.590E-06,0.740
-3.580E-06,0.600
-3.570E-06,0.420
-3.560E-06,0.300
-3.550E-06,0.260
-3.540E-06,0.220
-3.530E-06,0.200
-3.520E-06,0.160
-3.510E-06,0.100
-3.500E-06,0.020
-3.490E-06,0.000
-3.480E-06,-0.120
-3.470E-06,-0.060
-3.460E-06,0.000
-3.450E-06,0.040
-3.440E-06,0.080
-3.430E-06,0.280
-3.420E-06,0.180
-3.410E-06,0.280
-3.400E-06,0.440
-3.390E-06,0.460
-3.380E-06,0.460
-3.370E-06,-0.180
-3.360E-06,-0.220
-3.350E-06,-0.520
-3.340E-06,-0.200
-3.330E-06,0.700
-3.320E-06,0.940
-3.310E-06,1.020
-3.300E-06,0.420
-3.290E-06,-0.320
-3.280E-06,-0.600
-3.270E-06,-0.640
-3.260E-06,-0.020
-3.250E-06,0.500
-3.240E-06,0.560
-3.230E-06,0.260
-3.220E-06,-0.140
-3.210E-06,-0.360
-3.200E-06,-0.260
-3.190E-06,0.040
-3.180E-06,0.300
-3.170E-06,0.340
-3.160E-06,0.260
-3.150E-06,0.160
-3.140E-06,0.160
-3.130E-06,0.300
-3.120E-06,0.360
-3.110E-06,0.380
-3.100E-06,0.260
-3.090E-06,0.180
-3.080E-06,0.160
-3.070E-06,0.320
-3.060E-06,0.460
-3.050E-06,0.540
-3.040E-06,0.500
-3.030E-06,0.400
-3.020E-06,0.320
-3.010E-06,0.320
-3.000E-06,0.380
-2.990E-06,0.480
-2.980E-06,0.560
-2.970E-06,0.440
-2.960E-06,0.280
-2.950E-06,0.100
-2.940E-06,0.060
-2.930E-06,0.140
-2.920E-06,0.260
-2.910E-06,0.340
-2.900E-06,0.300
-2.890E-06,0.460
-2.880E-06,0.240
-2.870E-06,-0.040
-2.860E-06,-0.060
-2.850E-06,0.020
-2.840E-06,0.260
-2.830E-06,0.660
-2.820E-06,0.960
-2.810E-06,0.820
-2.800E-06,0.980
-2.790E-06,0.320
-2.780E-06,0.140
-2.770E-06,0.180
-2.760E-06,-0.100
-2.750E-06,0.660
-2.740E-06,0.380
-2.730E-06,0.560
-2.720E-06,0.760
-2.710E-06,0.000
-2.700E-06,0.180
-2.690E-06,-0.100
-2.680E-06,-0.500
-2.670E-06,0.020
-2.660E-06,-0.280
-2.650E-06,0.000
-2.640E-06,0.160
-2.630E-06,-0.100
-2.620E-06,0.060
-2.610E-06,-0.020
-2.600E-06,-0.140
-2.590E-06,0.360
-2.580E-06,0.360
-2.570E-06,0.340
-2.560E-06,0.680
-2.550E-06,0.400
-2.540E-06,0.320
-2.530E-06,0.420
-2.520E-06,0.200
-2.510E-06,0.340
-2.500E-06,0.380
-2.490E-06,0.320
-2.480E-06,0.500
-2.470E-06,0.420
-2.460E-06,0.400
-2.450E-06,0.340
-2.440E-06,0.280
-2.430E-06,0.160
-2.420E-06,0.260
-2.410E-06,0.180
-2.400E-06,-0.020
-2.390E-06,0.200
-2.380E-06,0.060
-2.370E-06,0.240
-2.360E-06,0.160
-2.350E-06,0.220
-2.340E-06,0.320
-2.330E-06,0.180
-2.320E-06,0.380
-2.310E-06,0.280
-2.300E-06,0.420
-2.290E-06,0.420
-2.280E-06,0.260
-2.270E-06,0.260
-2.260E-06,0.260
-2.250E-06,0.180
-2.240E-06,0.200
-2.230E-06,0.160
-2.220E-06,0.020
-2.210E-06,0.180
-2.200E-06,0.220
-2.190E-06,0.320
-2.180E-06,0.440
-2.170E-06,0.380
-2.160E-06,0.260
-2.150E-06,0.180
-2.140E-06,-0.020
-2.130E-06,0.000
-2.120E-06,0.160
-2.110E-06,0.140
-2.100E-06,0.180
-2.090E-06,0.160
-2.080E-06,0.040
-2.070E-06,0.120
-2.060E-06,0.120
-2.050E-06,0.120
-2.040E-06,0.200
-2.030E-06,0.220
-2.020E-06,0.280
-2.010E-06,0.440
-2.000E-06,0.420
-1.990E-06,0.460
-1.980E-06,0.500
-1.970E-06,0.400
-1.960E-06,0.400
-1.950E-06,0.400
-1.940E-06,0.440
-1.930E-06,0.440
-1.920E-06,0.420
-1.910E-06,0.300
-1.900E-06,0.220
-1.890E-06,0.180
-1.880E-06,0.160
-1.870E-06,0.280
-1.860E-06,0.380
-1.850E-06,0.380
-1.840E-06,0.180
-1.830E-06,0.080
-1.820E-06,-0.040
-1.810E-06,-0.020
-1.800E-06,0.200
-1.790E-06,0.500
-1.780E-06,0.500
-1.770E-06,0.380
-1.760E-06,0.020
-1.750E-06,-0.320
-1.740E-06,-0.220
-1.730E-06,-0.080
-1.720E-06,0.340
-1.710E-06,0.700
-1.700E-06,0.800
-1.690E-06,0.760
-1.680E-06,0.740
-1.670E-06,0.500
-1.660E-06,0.400
-1.650E-06,0.440
-1.640E-06,0.740
-1.630E-06,0.520
-1.620E-06,0.600
-1.610E-06,0.660
-1.600E-06,0.280
-1.590E-06,0.400
-1.580E-06,0.320
-1.570E-06,0.380
-1.560E-06,0.660
-1.550E-06,0.680
-1.540E-06,0.740
-1.530E-06,0.340
-1.520E-06,0.280
-1.510E-06,0.120
-1.500E-06,0.140
-1.490E-06,0.340
-1.480E-06,0.220
-1.470E-06,0.280
-1.460E-06,0.080
-1.450E-06,-0.040
-1.440E-06,0.100
-1.430E-06,0.180
-1.420E-06,0.400
-1.410E-06,0.480
-1.400E-06,0.380
-1.390E-06,0.320
-1.380E-06,0.160
-1.370E-06,0.140
-1.360E-06,0.160
-1.350E-06,0.180
-1.340E-06,0.160
-1.330E-06,0.160
-1.320E-06,0.040
-1.310E-06,0.020
-1.300E-06,-0.140
-1.290E-06,-0.200
-1.280E-06,-0.160
-1.270E-06,-0.300
-1.260E-06,-0.220
-1.250E-06,0.080
-1.240E-06,-0.280
-1.230E-06,-0.080
-1.220E-06,-0.280
-1.210E-06,-0.420
-1.200E-06,0.720
-1.190E-06,0.600
-1.180E-06,1.220
-1.170E-06,1.040
-1.160E-06,0.020
-1.150E-06,-0.600
-1.140E-06,-0.440
-1.130E-06,-0.220
-1.120E-06,0.820
-1.110E-06,1.540
-1.100E-06,1.020
-1.090E-06,0.560
-1.080E-06,-0.340
-1.070E-06,-0.860
-1.060E-06,-0.300
-1.050E-06,0.240
-1.040E-06,0.780
-1.030E-06,0.940
-1.020E-06,0.420
-1.010E-06,0.100
-1.000E-06,-0.240
-9.900E-07,-0.240
-9.800E-07,-0.080
-9.700E-07,0.120
-9.600E-07,0.000
-9.500E-07,-0.240
-9.400E-07,0.000
-9.300E-07,-0.040
-9.200E-07,0.220
-9.100E-07,0.500
-9.000E-07,0.060
-8.900E-07,-0.080
-8.800E-07,-0.380
-8.700E-07,-0.560
-8.600E-07,-0.180
-8.500E-07,0.040
-8.400E-07,0.300
-8.300E-07,0.300
-8.200E-07,0.040
-8.100E-07,-0.100
-8.000E-07,-0.040
-7.900E-07,0.100
-7.800E-07,0.360
-7.700E-07,0.520
-7.600E-07,0.400
-7.500E-07,0.280
-7.400E-07,0.140
-7.300E-07,0.080
-7.200E-07,0.160
-7.100E-07,0.240
-7.000E-07,0.320
-6.900E-07,0.200
-6.800E-07,0.080
-6.700E-07,0.020
-6.600E-07,-0.080
-6.500E-07,-0.060
-6.400E-07,-0.100
-6.300E-07,-0.100
-6.200E-07,0.100
-6.100E-07,0.220
-6.000E-07,0.320
-5.900E-07,0.260
-5.800E-07,0.080
-5.700E-07,-0.080
-5.600E-07,-0.160
-5.500E-07,-0.140
-5.400E-07,0.100
-5.300E-07,0.380
-5.200E-07,0.700
-5.100E-07,0.900
-5.000E-07,0.840
-4.900E-07,0.540
-4.800E-07,0.380
-4.700E-07,0.300
-4.600E-07,0.260
-4.500E-07,0.420
-4.400E-07,0.260
-4.300E-07,0.340
-4.200E-07,0.260
-4.100E-07,0.180
-4.000E-07,0.380
-3.900E-07,-0.040
-3.800E-07,0.040
-3.700E-07,0.040
-3.600E-07,-0.140
-3.500E-07,0.200
-3.400E-07,0.160
-3.300E-07,0.160
-3.200E-07,0.100
-3.100E-07,-0.100
-3.000E-07,-0.180
-2.900E-07,-0.120
-2.800E-07,-0.020
-2.700E-07,0.020
-2.600E-07,0.000
-2.500E-07,-0.140
-2.400E-07,-0.240
-2.300E-07,-0.300
-2.200E-07,-0.320
-2.100E-07,-0.220
-2.000E-07,-0.100
-1.900E-07,-0.040
-1.800E-07,-0.020
-1.700E-07,0.020
-1.600E-07,0.000
-1.500E-07,0.060
-1.400E-07,0.060
-1.300E-07,0.080
-1.200E-07,0.180
-1.100E-07,0.220
-1.000E-07,0.260
-9.000E-08,0.320
-8.000E-08,0.280
-7.000E-08,0.280
-6.000E-08,0.300
-5.000E-08,-0.100
-4.000E-08,0.420
-3.000E-08,0.260
-2.000E-08,-0.380
-1.000E-08,-0.480
0.000E+00,-1.200
1.000E-08,0.260
2.000E-08,1.300
3.000E-08,1.820
4.000E-08,2.360
5.000E-08,0.920
6.000E-08,-0.640
7.000E-08,-1.420
8.000E-08,-1.520
9.000E-08,0.020
1.000E-07,1.440
1.100E-07,1.620
1.200E-07,1.300
1.300E-07,0.300
1.400E-07,-0.460
1.500E-07,-0.580
1.600E-07,-0.100
1.700E-07,0.240
1.800E-07,0.520
1.900E-07,0.320
2.000E-07,-0.160
2.100E-07,-0.300
2.200E-07,-0.540
2.300E-07,-0.580
2.400E-07,-0.620
2.500E-07,-0.720
2.600E-07,-0.580
2.700E-07,-0.300
2.800E-07,-0.080
2.900E-07,0.020
3.000E-07,-0.160
3.100E-07,-0.360
3.200E-07,-0.440
3.300E-07,-0.320
3.400E-07,0.000
3.500E-07,0.160
3.600E-07,0.780
3.700E-07,0.980
3.800E-07,0.000
3.900E-07,-0.060
4.000E-07,-0.920
4.100E-07,-0.960
4.200E-07,0.440
4.300E-07,0.640
4.400E-07,1.680
4.500E-07,1.360
4.600E-07,0.280
4.700E-07,-0.140
4.800E-07,-0.580
4.900E-07,-0.080
5.000E-07,0.740
5.100E-07,1.100
5.200E-07,1.180
5.300E-07,0.940
5.400E-07,0.460
5.500E-07,0.260
5.600E-07,0.320
5.700E-07,0.400
5.800E-07,0.460
5.900E-07,0.420
6.000E-07,0.200
6.100E-07,0.000
6.200E-07,-0.160
6.300E-07,-0.240
6.400E-07,-0.360
6.500E-07,-0.420
6.600E-07,-0.580
6.700E-07,-0.660
6.800E-07,-0.600
6.900E-07,-0.500
7.000E-07,-0.440
7.100E-07,-0.400
7.200E-07,-0.400
7.300E-07,-0.400
7.400E-07,-0.320
7.500E-07,-0.300
7.600E-07,-0.180
7.700E-07,0.000
7.800E-07,0.100
7.900E-07,0.160
8.000E-07,0.180
8.100E-07,0.200
8.200E-07,0.200
8.300E-07,0.160
8.400E-07,0.240
8.500E-07,0.220
8.600E-07,0.260
8.700E-07,0.260
8.800E-07,0.220
8.900E-07,0.200
9.000E-07,0.200
9.100E-07,0.140
9.200E-07,0.160
9.300E-07,0.180
9.400E-07,0.220
9.500E-07,0.260
9.600E-07,0.260
9.700E-07,0.180
9.800E-07,0.180
9.900E-07,0.160
1.000E-06,0.160
1.010E-06,0.220
1.020E-06,0.180
1.030E-06,0.200
1.040E-06,0.220
1.050E-06,0.200
1.060E-06,0.180
1.070E-06,0.140
1.080E-06,0.120
1.090E-06,0.180
1.100E-06,0.100
1.110E-06,0.100
1.120E-06,0.140
1.130E-06,0.000
1.140E-06,-0.060
1.150E-06,-0.200
1.160E-06,-0.360
1.170E-06,-0.160
1.180E-06,0.000
1.190E-06,0.260
1.200E-06,0.480
1.210E-06,0.400
1.220E-06,0.140
1.230E-06,-0.080
1.240E-06,-0.280
1.250E-06,-0.040
1.260E-06,0.260
1.270E-06,0.660
1.280E-06,0.640
1.290E-06,0.680
1.300E-06,0.340
1.310E-06,0.120
1.320E-06,0.420
1.330E-06,0.200
1.340E-06,0.520
1.350E-06,0.460
1.360E-06,0.280
1.370E-06,0.300
1.380E-06,0.060
1.390E-06,0.040
1.400E-06,0.060
1.410E-06,0.000
1.420E-06,-0.260
1.430E-06,0.180
1.440E-06,0.060
1.450E-06,0.240
1.460E-06,0.540
1.470E-06,0.320
1.480E-06,0.320
1.490E-06,0.300
1.500E-06,0.260
1.510E-06,0.460
1.520E-06,0.600
1.530E-06,0.640
1.540E-06,0.460
1.550E-06,0.260
1.560E-06,0.100
1.570E-06,-0.020
1.580E-06,0.000
1.590E-06,0.000
1.600E-06,0.060
1.610E-06,-0.020
1.620E-06,-0.140
1.630E-06,-0.200
1.640E-06,-0.320
1.650E-06,-0.400
1.660E-06,-0.360
1.670E-06,-0.340
1.680E-06,-0.280
1.690E-06,-0.200
1.700E-06,-0.140
1.710E-06,-0.080
1.720E-06,-0.040
1.730E-06,0.000
1.740E-06,0.020
1.750E-06,0.080
1.760E-06,0.080
1.770E-06,0.160
1.780E-06,0.160
1.790E-06,0.220
1.800E-06,0.240
1.810E-06,0.200
1.820E-06,0.160
1.830E-06,0.160
1.840E-06,0.060
1.850E-06,0.040
1.860E-06,0.060
1.870E-06,0.040
1.880E-06,-0.020
1.890E-06,0.140
1.900E-06,0.040
1.910E-06,0.060
1.920E-06,0.120
1.930E-06,-0.060
1.940E-06,0.320
1.950E-06,-0.700
1.960E-06,-1.420
1.970E-06,-0.240
1.980E-06,-0.620
1.990E-06,1.400
2.000E-06,2.440
2.010E-06,1.660
2.020E-06,1.700
2.030E-06,0.060
2.040E-06,-1.000
2.050E-06,-0.120
2.060E-06,0.280
2.070E-06,1.120
2.080E-06,1.680
2.090E-06,0.940
2.100E-06,0.420
2.110E-06,0.080
2.120E-06,-0.280
2.130E-06,-0.080
2.140E-06,0.060
2.150E-06,-0.060
2.160E-06,-0.300
2.170E-06,-0.860
2.180E-06,-0.820
2.190E-06,-0.980
2.200E-06,-0.600
2.210E-06,-0.240
2.220E-06,-0.240
2.230E-06,0.080
2.240E-06,-0.140
2.250E-06,-0.320
2.260E-06,-0.340
2.270E-06,-0.480
2.280E-06,-0.360
2.290E-06,-0.040
2.300E-06,0.080
2.310E-06,0.200
2.320E-06,0.200
2.330E-06,0.120
2.340E-06,0.160
2.350E-06,0.180
2.360E-06,0.160
2.370E-06,0.180
2.380E-06,0.160
2.390E-06,0.140
2.400E-06,0.200
2.410E-06,0.240
2.420E-06,0.260
2.430E-06,0.180
2.440E-06,0.120
2.450E-06,0.140
2.460E-06,0.180
2.470E-06,0.080
2.480E-06,0.200
2.490E-06,0.220
2.500E-06,0.580
2.510E-06,0.460
2.520E-06,0.340
2.530E-06,0.440
2.540E-06,-0.180
2.550E-06,0.160
2.560E-06,0.000
2.570E-06,-0.080
2.580E-06,0.120
2.590E-06,0.100
2.600E-06,0.560
2.610E-06,0.320
2.620E-06,0.420
2.630E-06,-0.020
2.640E-06,0.100
2.650E-06,0.260
2.660E-06,0.400
2.670E-06,0.760
2.680E-06,0.720
2.690E-06,0.740
2.700E-06,0.600
2.710E-06,0.460
2.720E-06,0.460
2.730E-06,0.460
2.740E-06,0.440
2.750E-06,0.420
2.760E-06,0.380
2.770E-06,0.260
2.780E-06,0.300
2.790E-06,0.220
2.800E-06,0.180
2.810E-06,0.400
2.820E-06,0.160
2.830E-06,0.220
2.840E-06,0.080
2.850E-06,-0.260
2.860E-06,-0.460
2.870E-06,-0.900
2.880E-06,-0.700
2.890E-06,-0.540
2.900E-06,-0.600
2.910E-06,0.180
2.920E-06,-0.020
2.930E-06,-0.300
2.940E-06,-0.080
2.950E-06,-0.600
2.960E-06,0.000
2.970E-06,0.340
2.980E-06,0.480
2.990E-06,0.820
3.000E-06,0.540
3.010E-06,0.360
3.020E-06,0.320
3.030E-06,0.380
3.040E-06,0.040
3.050E-06,0.040
3.060E-06,0.360
3.070E-06,-0.180
3.080E-06,0.740
3.090E-06,0.680
3.100E-06,0.840
3.110E-06,1.160
3.120E-06,0.380
3.130E-06,0.340
3.140E-06,0.180
3.150E-06,0.020
3.160E-06,0.340
3.170E-06,0.320
3.180E-06,0.160
3.190E-06,-0.020
3.200E-06,-0.260
3.210E-06,-0.380
3.220E-06,-0.520
3.230E-06,-0.180
3.240E-06,0.020
3.250E-06,-0.720
3.260E-06,-0.300
3.270E-06,-0.700
3.280E-06,-1.000
3.290E-06,0.280
3.300E-06,0.080
3.310E-06,0.760
3.320E-06,0.920
3.330E-06,0.280
3.340E-06,0.400
3.350E-06,0.220
3.360E-06,0.160
3.370E-06,0.480
3.380E-06,0.600
3.390E-06,0.580
3.400E-06,0.760
3.410E-06,0.640
3.420E-06,0.500
3.430E-06,0.560
3.440E-06,0.460
3.450E-06,0.300
3.460E-06,0.180
3.470E-06,0.040
3.480E-06,-0.140
3.490E-06,-0.220
3.500E-06,-0.320
3.510E-06,-0.500
3.520E-06,-0.540
3.530E-06,-0.640
3.540E-06,-0.700
3.550E-06,-0.680
3.560E-06,-0.660
3.570E-06,-0.600
3.580E-06,-0.600
3.590E-06,-0.460
3.600E-06,-0.420
3.610E-06,-0.360
3.620E-06,-0.200
3.630E-06,-0.140
3.640E-06,-0.100
3.650E-06,-0.040
3.660E-06,-0.040
3.670E-06,-0.060
3.680E-06,0.020
3.690E-06,0.020
3.700E-06,0.080
3.710E-06,0.100
3.720E-06,0.080
3.730E-06,0.040
3.740E-06,0.060
3.750E-06,0.080
3.760E-06,0.140
3.770E-06,0.200
3.780E-06,0.140
3.790E-06,0.120
3.800E-06,0.120
3.810E-06,0.080
3.820E-06,0.100
3.830E-06,0.140
3.840E-06,0.180
3.850E-06,0.180
3.860E-06,0.180
3.870E-06,0.160
3.880E-06,0.200
3.890E-06,0.180
3.900E-06,0.200
3.910E-06,0.160
3.920E-06,0.180
3.930E-06,0.160
3.940E-06,0.160
3.950E-06,0.160
3.960E-06,0.160
3.970E-06,0.180
3.980E-06,0.140
3.990E-06,0.100
4.000E-06,0.040
4.010E-06,0.000
4.020E-06,0.000
4.030E-06,0.080
4.040E-06,0.040
4.050E-06,0.000
4.060E-06,0.000
4.070E-06,-0.060
4.080E-06,-0.120
4.090E-06,-0.260
4.100E-06,-0.360
4.110E-06,-0.440
4.120E-06,-0.500
4.130E-06,-0.660
4.140E-06,-0.560
4.150E-06,-0.680
4.160E-06,-0.540
4.170E-06,-0.220
4.180E-06,-0.720
4.190E-06,-0.360
4.200E-06,-0.900
4.210E-06,-1.000
4.220E-06,-0.160
4.230E-06,-0.400
4.240E-06,0.240
4.250E-06,0.620
4.260E-06,-0.080
4.270E-06,0.900
4.280E-06,0.320
4.290E-06,0.580
4.300E-06,1.240
4.310E-06,0.500
4.320E-06,1.060
4.330E-06,0.620
4.340E-06,0.820
4.350E-06,0.660
4.360E-06,0.720
4.370E-06,1.220
4.380E-06,0.920
4.390E-06,1.180
4.400E-06,0.840
4.410E-06,0.400
4.420E-06,0.460
4.430E-06,0.080
4.440E-06,0.180
4.450E-06,0.500
4.460E-06,0.240
4.470E-06,0.020
4.480E-06,-0.120
4.490E-06,-0.640
4.500E-06,-0.680
4.510E-06,-0.300
4.520E-06,-0.480
4.530E-06,-0.020
4.540E-06,0.080
4.550E-06,-0.300
4.560E-06,-0.100
4.570E-06,-0.400
4.580E-06,-0.440
4.590E-06,-0.280
4.600E-06,-0.340
4.610E-06,-0.460
4.620E-06,-0.480
4.630E-06,-0.580
4.640E-06,-0.660
4.650E-06,-0.720
4.660E-06,-0.720
4.670E-06,-0.680
4.680E-06,-0.400
4.690E-06,-0.240
4.700E-06,0.000
4.710E-06,0.260
4.720E-06,0.340
4.730E-06,0.420
4.740E-06,0.540
4.750E-06,0.680
4.760E-06,0.680
4.770E-06,0.840
4.780E-06,0.980
4.790E-06,0.980
4.800E-06,0.940
4.810E-06,0.880
4.820E-06,0.720
4.830E-06,0.680
4.840E-06,0.540
4.850E-06,0.540
4.860E-06,0.380
4.870E-06,0.300
4.880E-06,0.300
4.890E-06,0.040
4.900E-06,0.080
4.910E-06,-0.080
4.920E-06,-0.160
4.930E-06,-0.320
4.940E-06,-0.240
4.950E-06,-0.240
4.960E-06,0.340
4.970E-06,0.860
4.980E-06,0.840
4.990E-06,0.460
5.000E-06,-0.700
5.010E-06,-0.400
5.020E-06,-1.500
5.030E-06,-1.720
5.040E-06,-1.560
5.050E-06,-2.520
5.060E-06,-2.000
5.070E-06,-1.180
5.080E-06,0.560
5.090E-06,1.620
5.100E-06,1.900
5.110E-06,1.360
5.120E-06,0.080
5.130E-06,-0.740
5.140E-06,-0.020
5.150E-06,0.620
5.160E-06,1.800
5.170E-06,2.020
5.180E-06,1.720
5.190E-06,1.260
5.200E-06,1.080
5.210E-06,0.960
5.220E-06,1.120
5.230E-06,1.060
5.240E-06,0.780
5.250E-06,0.320
5.260E-06,-0.200
5.270E-06,-0.540
5.280E-06,-0.820
5.290E-06,-0.940
5.300E-06,-1.100
5.310E-06,-1.140
5.320E-06,-1.140
5.330E-06,-0.880
5.340E-06,-0.900
5.350E-06,-1.020
5.360E-06,-0.800
5.370E-06,-0.920
5.380E-06,-0.460
5.390E-06,-0.200
5.400E-06,0.020
5.410E-06,0.200
5.420E-06,0.280
5.430E-06,0.520
5.440E-06,0.440
5.450E-06,0.420
5.460E-06,0.520
5.470E-06,0.540
5.480E-06,0.600
5.490E-06,0.560
5.500E-06,0.480
5.510E-06,0.420
5.520E-06,0.360
5.530E-06,0.300
5.540E-06,0.180
5.550E-06,0.120
5.560E-06,0.060
5.570E-06,-0.100
5.580E-06,-0.180
5.590E-06,-0.340
5.600E-06,-0.340
5.610E-06,-0.420
5.620E-06,-0.220
5.630E-06,-0.100
5.640E-06,-0.060
5.650E-06,0.400
5.660E-06,0.360
5.670E-06,0.700
5.680E-06,0.700
5.690E-06,0.300
5.700E-06,0.520
5.710E-06,0.180
5.720E-06,0.000
5.730E-06,0.060
5.740E-06,-0.180
5.750E-06,-0.200
5.760E-06,-0.300
5.770E-06,-0.180
5.780E-06,-0.420
5.790E-06,-0.360
5.800E-06,-0.020
5.810E-06,-0.240
5.820E-06,-0.180
5.830E-06,-0.780
5.840E-06,-0.740
5.850E-06,-0.800
5.860E-06,-0.640
5.870E-06,-0.240
5.880E-06,-0.300
5.890E-06,-0.320
5.900E-06,-0.420
5.910E-06,-1.000
5.920E-06,-1.540
5.930E-06,-2.080
5.940E-06,-2.520
5.950E-06,-2.660
5.960E-06,-2.680
5.970E-06,-2.580
5.980E-06,-2.340
5.990E-06,-2.240
6.000E-06,-2.180
6.010E-06,-2.000
6.020E-06,-2.000
6.030E-06,-1.780
6.040E-06,-1.820
6.050E-06,-1.820
6.060E-06,-1.880
6.070E-06,-2.000
6.080E-06,-2.200
6.090E-06,-2.300
6.100E-06,-2.380
6.110E-06,-2.420
6.120E-06,-2.420
6.130E-06,-2.460
6.140E-06,-2.440
6.150E-06,-2.460
6.160E-06,-2.400
6.170E-06,-2.240
6.180E-06,-2.100
6.190E-06,-2.000
6.200E-06,-1.800
6.210E-06,-1.620
6.220E-06,-1.480
6.230E-06,-1.420
6.240E-06,-1.360
6.250E-06,-1.380
6.260E-06,-1.360
6.270E-06,-1.400
6.280E-06,-1.320
6.290E-06,-1.280
6.300E-06,-1.200
6.310E-06,-0.960
6.320E-06,-0.860
6.330E-06,-0.680
6.340E-06,-0.500
6.350E-06,-0.400
6.360E-06,-0.200
6.370E-06,-0.140
6.380E-06,0.020
6.390E-06,0.220
6.400E-06,0.300
6.410E-06,0.500
6.420E-06,0.440
6.430E-06,0.420
6.440E-06,0.400
6.450E-06,0.200
6.460E-06,0.020
6.470E-06,0.140
6.480E-06,-0.040
6.490E-06,-0.060
6.500E-06,0.000
6.510E-06,-0.200
6.520E-06,-0.080
6.530E-06,-0.180
6.540E-06,-0.300
6.550E-06,0.000
6.560E-06,-0.160
6.570E-06,0.120
6.580E-06,0.420
6.590E-06,0.320
6.600E-06,0.780
6.610E-06,0.600
6.620E-06,0.600
6.630E-06,0.880
6.640E-06,0.760
6.650E-06,1.040
6.660E-06,1.040
6.670E-06,0.880
6.680E-06,0.780
6.690E-06,0.500
6.700E-06,0.400
6.710E-06,0.420
6.720E-06,0.300
6.730E-06,0.320
6.740E-06,0.220
6.750E-06,0.060
6.760E-06,-0.060
6.770E-06,-0.220
6.780E-06,-0.360
6.790E-06,-0.420
6.800E-06,-0.560
6.810E-06,-0.600
6.820E-06,-0.640
6.830E-06,-0.720
6.840E-06,-0.800
6.850E-06,-0.820
6.860E-06,-0.820
6.870E-06,-0.820
6.880E-06,-0.720
6.890E-06,-0.640
6.900E-06,-0.500
6.910E-06,-0.420
6.920E-06,-0.300
6.930E-06,-0.160
6.940E-06,-0.060
6.950E-06,0.020
6.960E-06,0.120
6.970E-06,0.180
6.980E-06,0.200
6.990E-06,0.200
7.000E-06,0.200
7.010E-06,0.180
7.020E-06,0.120
7.030E-06,0.060
7.040E-06,0.040
7.050E-06,0.060
7.060E-06,0.040
7.070E-06,0.040
7.080E-06,0.080
7.090E-06,0.140
7.100E-06,0.160
7.110E-06,0.240
7.120E-06,0.300
7.130E-06,0.320
7.140E-06,0.360
7.150E-06,0.400
7.160E-06,0.400
7.170E-06,0.440
7.180E-06,0.500
7.190E-06,0.540
7.200E-06,0.560
7.210E-06,0.580
7.220E-06,0.540
7.230E-06,0.500
7.240E-06,0.480
7.250E-06,0.420
7.260E-06,0.380
7.270E-06,0.340
7.280E-06,0.280
7.290E-06,0.220
7.300E-06,0.180
7.310E-06,0.080
7.320E-06,0.040
7.330E-06,0.020
7.340E-06,0.020
7.350E-06,0.040
7.360E-06,0.060
7.370E-06,0.080
7.380E-06,0.080
7.390E-06,0.100
7.400E-06,0.160
7.410E-06,0.160
7.420E-06,0.180
7.430E-06,0.200
7.440E-06,0.220
7.450E-06,0.160
7.460E-06,0.140
7.470E-06,0.080
7.480E-06,0.020
7.490E-06,-0.020
7.500E-06,-0.100
7.510E-06,-0.180
7.520E-06,-0.200
7.530E-06,-0.240
7.540E-06,-0.220
7.550E-06,-0.220
7.560E-06,-0.200
7.570E-06,-0.220
7.580E-06,-0.160
7.590E-06,-0.180
7.600E-06,-0.140
7.610E-06,-0.080
7.620E-06,-0.080
7.630E-06,-0.080
7.640E-06,-0.060
7.650E-06,-0.060
7.660E-06,-0.080
7.670E-06,-0.140
7.680E-06,-0.160
7.690E-06,-0.180
7.700E-06,-0.220
7.710E-06,-0.220
7.720E-06,-0.220
7.730E-06,-0.260
