mediciones/Mediciones filtradas (saque las feas)/6-10/64.4/WaveData55262.csv

#timebase=2000000(ps)
,#voltbase=500000(mv/100)
#size=4000
-4.200E-06,0.040
-4.190E-06,0.060
-4.180E-06,0.060
-4.170E-06,0.080
-4.160E-06,0.060
-4.150E-06,0.040
-4.140E-06,0.060
-4.130E-06,0.060
-4.120E-06,0.020
-4.110E-06,0.040
-4.100E-06,0.060
-4.090E-06,0.040
-4.080E-06,0.020
-4.070E-06,0.020
-4.060E-06,0.240
-4.050E-06,0.720
-4.040E-06,1.440
-4.030E-06,2.400
-4.020E-06,2.600
-4.010E-06,2.560
-4.000E-06,2.160
-3.990E-06,0.840
-3.980E-06,0.040
-3.970E-06,-0.900
-3.960E-06,-1.800
-3.950E-06,-2.340
-3.940E-06,-2.660
-3.930E-06,-2.660
-3.920E-06,-2.660
-3.910E-06,-2.680
-3.900E-06,-2.280
-3.890E-06,-1.560
-3.880E-06,-0.980
-3.870E-06,-0.540
-3.860E-06,-0.140
-3.850E-06,0.080
-3.840E-06,0.300
-3.830E-06,0.500
-3.820E-06,0.520
-3.810E-06,0.520
-3.800E-06,0.540
-3.790E-06,0.600
-3.780E-06,0.780
-3.770E-06,1.000
-3.760E-06,1.140
-3.750E-06,1.200
-3.740E-06,1.220
-3.730E-06,1.080
-3.720E-06,0.920
-3.710E-06,0.760
-3.700E-06,0.580
-3.690E-06,0.420
-3.680E-06,0.180
-3.670E-06,-0.040
-3.660E-06,-0.340
-3.650E-06,-0.500
-3.640E-06,-0.640
-3.630E-06,-0.580
-3.620E-06,-0.360
-3.610E-06,-0.160
-3.600E-06,0.100
-3.590E-06,0.380
-3.580E-06,0.580
-3.570E-06,0.760
-3.560E-06,0.840
-3.550E-06,0.840
-3.540E-06,0.760
-3.530E-06,0.740
-3.520E-06,0.620
-3.510E-06,0.560
-3.500E-06,0.420
-3.490E-06,0.240
-3.480E-06,0.020
-3.470E-06,-0.200
-3.460E-06,-0.420
-3.450E-06,-0.680
-3.440E-06,-0.900
-3.430E-06,-1.100
-3.420E-06,-1.260
-3.410E-06,-1.340
-3.400E-06,-1.380
-3.390E-06,-1.360
-3.380E-06,-1.260
-3.370E-06,-1.060
-3.360E-06,-0.820
-3.350E-06,-0.540
-3.340E-06,-0.240
-3.330E-06,-0.020
-3.320E-06,0.280
-3.310E-06,0.460
-3.300E-06,0.660
-3.290E-06,0.800
-3.280E-06,0.880
-3.270E-06,0.900
-3.260E-06,0.840
-3.250E-06,0.760
-3.240E-06,0.660
-3.230E-06,0.540
-3.220E-06,0.440
-3.210E-06,0.340
-3.200E-06,0.240
-3.190E-06,0.100
-3.180E-06,0.020
-3.170E-06,0.000
-3.160E-06,-0.080
-3.150E-06,-0.160
-3.140E-06,-0.200
-3.130E-06,-0.320
-3.120E-06,-0.380
-3.110E-06,-0.380
-3.100E-06,-0.380
-3.090E-06,-0.300
-3.080E-06,-0.260
-3.070E-06,-0.160
-3.060E-06,0.000
-3.050E-06,0.060
-3.040E-06,0.180
-3.030E-06,0.300
-3.020E-06,0.360
-3.010E-06,0.480
-3.000E-06,0.500
-2.990E-06,0.460
-2.980E-06,0.480
-2.970E-06,0.360
-2.960E-06,0.300
-2.950E-06,0.260
-2.940E-06,0.200
-2.930E-06,0.220
-2.920E-06,0.180
-2.910E-06,0.080
-2.900E-06,-0.020
-2.890E-06,-0.080
-2.880E-06,-0.140
-2.870E-06,-0.180
-2.860E-06,-0.180
-2.850E-06,-0.180
-2.840E-06,-0.200
-2.830E-06,-0.180
-2.820E-06,-0.240
-2.810E-06,-0.240
-2.800E-06,-0.240
-2.790E-06,-0.180
-2.780E-06,-0.120
-2.770E-06,-0.120
-2.760E-06,-0.040
-2.750E-06,-0.040
-2.740E-06,-0.020
-2.730E-06,0.100
-2.720E-06,0.120
-2.710E-06,0.180
-2.700E-06,0.220
-2.690E-06,0.200
-2.680E-06,0.220
-2.670E-06,0.220
-2.660E-06,0.240
-2.650E-06,0.300
-2.640E-06,0.340
-2.630E-06,0.360
-2.620E-06,0.440
-2.610E-06,0.360
-2.600E-06,0.320
-2.590E-06,0.220
-2.580E-06,0.180
-2.570E-06,0.180
-2.560E-06,0.200
-2.550E-06,0.220
-2.540E-06,0.160
-2.530E-06,0.140
-2.520E-06,0.080
-2.510E-06,0.060
-2.500E-06,0.020
-2.490E-06,0.000
-2.480E-06,0.000
-2.470E-06,0.000
-2.460E-06,0.020
-2.450E-06,0.000
-2.440E-06,0.020
-2.430E-06,0.100
-2.420E-06,0.060
-2.410E-06,0.120
-2.400E-06,0.180
-2.390E-06,0.220
-2.380E-06,0.180
-2.370E-06,0.220
-2.360E-06,0.220
-2.350E-06,0.220
-2.340E-06,0.180
-2.330E-06,0.140
-2.320E-06,0.160
-2.310E-06,0.120
-2.300E-06,0.100
-2.290E-06,0.140
-2.280E-06,0.100
-2.270E-06,0.040
-2.260E-06,0.080
-2.250E-06,0.060
-2.240E-06,0.080
-2.230E-06,0.160
-2.220E-06,0.160
-2.210E-06,0.080
-2.200E-06,-0.020
-2.190E-06,-0.220
-2.180E-06,-0.400
-2.170E-06,-0.380
-2.160E-06,-0.260
-2.150E-06,-0.020
-2.140E-06,0.280
-2.130E-06,0.480
-2.120E-06,0.600
-2.110E-06,0.620
-2.100E-06,0.640
-2.090E-06,0.640
-2.080E-06,0.680
-2.070E-06,0.680
-2.060E-06,0.660
-2.050E-06,0.660
-2.040E-06,0.660
-2.030E-06,0.560
-2.020E-06,0.460
-2.010E-06,0.340
-2.000E-06,0.240
-1.990E-06,0.120
-1.980E-06,0.020
-1.970E-06,0.020
-1.960E-06,0.020
-1.950E-06,0.020
-1.940E-06,0.020
-1.930E-06,-0.040
-1.920E-06,0.000
-1.910E-06,0.020
-1.900E-06,0.140
-1.890E-06,0.180
-1.880E-06,0.220
-1.870E-06,0.280
-1.860E-06,0.320
-1.850E-06,0.420
-1.840E-06,0.480
-1.830E-06,0.500
-1.820E-06,0.620
-1.810E-06,0.440
-1.800E-06,0.700
-1.790E-06,0.540
-1.780E-06,0.420
-1.770E-06,0.700
-1.760E-06,0.020
-1.750E-06,-0.040
-1.740E-06,-0.440
-1.730E-06,-0.120
-1.720E-06,-0.840
-1.710E-06,0.320
-1.700E-06,0.580
-1.690E-06,-0.400
-1.680E-06,0.600
-1.670E-06,-0.340
-1.660E-06,-0.440
-1.650E-06,0.260
-1.640E-06,0.220
-1.630E-06,0.460
-1.620E-06,0.820
-1.610E-06,-0.340
-1.600E-06,0.360
-1.590E-06,0.540
-1.580E-06,0.260
-1.570E-06,1.560
-1.560E-06,1.040
-1.550E-06,0.700
-1.540E-06,0.400
-1.530E-06,-0.320
-1.520E-06,-0.120
-1.510E-06,0.200
-1.500E-06,0.440
-1.490E-06,0.500
-1.480E-06,0.560
-1.470E-06,0.260
-1.460E-06,-0.260
-1.450E-06,0.400
-1.440E-06,-0.160
-1.430E-06,0.240
-1.420E-06,0.360
-1.410E-06,-0.500
-1.400E-06,0.300
-1.390E-06,-0.020
-1.380E-06,0.160
-1.370E-06,0.360
-1.360E-06,-0.240
-1.350E-06,-0.040
-1.340E-06,-0.160
-1.330E-06,-0.180
-1.320E-06,0.540
-1.310E-06,0.460
-1.300E-06,0.260
-1.290E-06,0.240
-1.280E-06,-0.180
-1.270E-06,-0.200
-1.260E-06,0.340
-1.250E-06,0.300
-1.240E-06,0.460
-1.230E-06,0.460
-1.220E-06,0.000
-1.210E-06,0.100
-1.200E-06,-0.060
-1.190E-06,0.100
-1.180E-06,0.280
-1.170E-06,0.120
-1.160E-06,0.280
-1.150E-06,0.280
-1.140E-06,0.060
-1.130E-06,0.580
-1.120E-06,0.240
-1.110E-06,-0.180
-1.100E-06,-0.100
-1.090E-06,-0.700
-1.080E-06,-0.120
-1.070E-06,0.040
-1.060E-06,-0.300
-1.050E-06,0.320
-1.040E-06,-0.240
-1.030E-06,-0.100
-1.020E-06,0.360
-1.010E-06,0.260
-1.000E-06,0.280
-9.900E-07,-0.540
-9.800E-07,-0.180
-9.700E-07,-0.580
-9.600E-07,-0.140
-9.500E-07,0.760
-9.400E-07,0.180
-9.300E-07,0.460
-9.200E-07,0.000
-9.100E-07,-0.620
-9.000E-07,0.000
-8.900E-07,-0.040
-8.800E-07,0.240
-8.700E-07,0.420
-8.600E-07,0.060
-8.500E-07,0.000
-8.400E-07,0.020
-8.300E-07,0.040
-8.200E-07,0.160
-8.100E-07,0.320
-8.000E-07,0.080
-7.900E-07,0.160
-7.800E-07,-0.080
-7.700E-07,0.060
-7.600E-07,-0.800
-7.500E-07,-0.560
-7.400E-07,-0.160
-7.300E-07,-0.300
-7.200E-07,0.620
-7.100E-07,0.540
-7.000E-07,0.100
-6.900E-07,-0.200
-6.800E-07,-0.720
-6.700E-07,-0.880
-6.600E-07,-0.260
-6.500E-07,0.000
-6.400E-07,0.160
-6.300E-07,0.160
-6.200E-07,-0.300
-6.100E-07,-0.140
-6.000E-07,0.060
-5.900E-07,0.200
-5.800E-07,0.760
-5.700E-07,0.760
-5.600E-07,0.680
-5.500E-07,0.400
-5.400E-07,0.340
-5.300E-07,0.120
-5.200E-07,0.060
-5.100E-07,0.260
-5.000E-07,0.080
-4.900E-07,0.040
-4.800E-07,0.000
-4.700E-07,-0.080
-4.600E-07,-0.020
-4.500E-07,-0.020
-4.400E-07,-0.060
-4.300E-07,-0.120
-4.200E-07,-0.140
-4.100E-07,-0.180
-4.000E-07,-0.140
-3.900E-07,0.040
-3.800E-07,0.100
-3.700E-07,0.180
-3.600E-07,0.300
-3.500E-07,0.140
-3.400E-07,0.280
-3.300E-07,0.200
-3.200E-07,0.180
-3.100E-07,0.260
-3.000E-07,0.300
-2.900E-07,0.220
-2.800E-07,0.220
-2.700E-07,0.240
-2.600E-07,0.240
-2.500E-07,0.220
-2.400E-07,0.260
-2.300E-07,0.120
-2.200E-07,0.060
-2.100E-07,-0.020
-2.000E-07,0.000
-1.900E-07,0.120
-1.800E-07,0.420
-1.700E-07,0.680
-1.600E-07,0.580
-1.500E-07,0.520
-1.400E-07,0.220
-1.300E-07,-0.020
-1.200E-07,0.060
-1.100E-07,0.160
-1.000E-07,0.400
-9.000E-08,0.560
-8.000E-08,0.340
-7.000E-08,0.260
-6.000E-08,-0.020
-5.000E-08,-0.060
-4.000E-08,-0.780
-3.000E-08,1.860
-2.000E-08,-1.440
-1.000E-08,-1.900
0.000E+00,-1.620
1.000E-08,-1.860
2.000E-08,-1.220
3.000E-08,1.860
4.000E-08,1.480
5.000E-08,-0.160
6.000E-08,1.460
7.000E-08,-1.280
8.000E-08,0.060
9.000E-08,0.940
1.000E-07,-0.160
1.100E-07,0.960
1.200E-07,0.660
1.300E-07,-0.060
1.400E-07,0.980
1.500E-07,0.340
1.600E-07,0.180
1.700E-07,0.580
1.800E-07,0.000
1.900E-07,-0.280
2.000E-07,-0.140
2.100E-07,-0.140
2.200E-07,-0.320
2.300E-07,-0.060
2.400E-07,-0.480
2.500E-07,-0.660
2.600E-07,-0.540
2.700E-07,-0.340
2.800E-07,-0.340
2.900E-07,-0.160
3.000E-07,-0.060
3.100E-07,-0.100
3.200E-07,0.180
3.300E-07,0.260
3.400E-07,0.320
3.500E-07,0.460
3.600E-07,0.580
3.700E-07,0.720
3.800E-07,0.800
3.900E-07,0.600
4.000E-07,0.400
4.100E-07,0.220
4.200E-07,0.120
4.300E-07,0.080
4.400E-07,-0.140
4.500E-07,-0.220
4.600E-07,-0.220
4.700E-07,-0.320
4.800E-07,0.000
4.900E-07,0.140
5.000E-07,0.140
5.100E-07,0.160
5.200E-07,0.140
5.300E-07,0.060
5.400E-07,0.180
5.500E-07,0.260
5.600E-07,0.280
5.700E-07,0.300
5.800E-07,0.420
5.900E-07,0.260
6.000E-07,0.080
6.100E-07,0.100
6.200E-07,-0.020
6.300E-07,0.180
6.400E-07,0.240
6.500E-07,0.040
6.600E-07,-0.040
6.700E-07,0.000
6.800E-07,0.080
6.900E-07,0.100
7.000E-07,-0.040
7.100E-07,0.200
7.200E-07,0.180
7.300E-07,-0.600
7.400E-07,-0.260
7.500E-07,-0.600
7.600E-07,-1.000
7.700E-07,1.460
7.800E-07,0.800
7.900E-07,-2.660
8.000E-07,-2.660
8.100E-07,-2.680
8.200E-07,-2.660
8.300E-07,2.760
8.400E-07,2.780
8.500E-07,2.760
8.600E-07,2.760
8.700E-07,-1.800
8.800E-07,-2.660
8.900E-07,-2.000
9.000E-07,0.140
9.100E-07,2.760
9.200E-07,2.760
9.300E-07,1.780
9.400E-07,1.160
9.500E-07,-0.200
9.600E-07,-0.160
9.700E-07,0.720
9.800E-07,0.660
9.900E-07,0.640
1.000E-06,0.400
1.010E-06,0.040
1.020E-06,-0.180
1.030E-06,-0.180
1.040E-06,-0.740
1.050E-06,-0.860
1.060E-06,-0.940
1.070E-06,-0.580
1.080E-06,-0.060
1.090E-06,0.020
1.100E-06,0.020
1.110E-06,-0.500
1.120E-06,-0.460
1.130E-06,-0.080
1.140E-06,0.160
1.150E-06,0.480
1.160E-06,0.660
1.170E-06,0.700
1.180E-06,0.540
1.190E-06,0.500
1.200E-06,0.320
1.210E-06,0.080
1.220E-06,0.020
1.230E-06,-0.040
1.240E-06,0.040
1.250E-06,0.120
1.260E-06,-0.040
1.270E-06,-0.140
1.280E-06,-0.040
1.290E-06,0.100
1.300E-06,0.200
1.310E-06,0.100
1.320E-06,0.060
1.330E-06,0.100
1.340E-06,0.160
1.350E-06,0.340
1.360E-06,0.420
1.370E-06,0.500
1.380E-06,0.560
1.390E-06,0.420
1.400E-06,0.440
1.410E-06,0.360
1.420E-06,0.180
1.430E-06,0.300
1.440E-06,0.300
1.450E-06,0.100
1.460E-06,-0.080
1.470E-06,-0.440
1.480E-06,-0.660
1.490E-06,-0.640
1.500E-06,-0.700
1.510E-06,-0.680
1.520E-06,-0.640
1.530E-06,-0.820
1.540E-06,-0.780
1.550E-06,-0.940
1.560E-06,-0.960
1.570E-06,-1.300
1.580E-06,-1.120
1.590E-06,-1.360
1.600E-06,-2.120
1.610E-06,-2.120
1.620E-06,-2.480
1.630E-06,-1.500
1.640E-06,-0.100
1.650E-06,0.480
1.660E-06,0.080
1.670E-06,-1.700
1.680E-06,-2.660
1.690E-06,-2.660
1.700E-06,-2.660
1.710E-06,-2.660
1.720E-06,-1.460
1.730E-06,-0.260
1.740E-06,-0.640
1.750E-06,-1.060
1.760E-06,-1.540
1.770E-06,-1.860
1.780E-06,-1.480
1.790E-06,-0.800
1.800E-06,-0.460
1.810E-06,-0.040
1.820E-06,0.060
1.830E-06,-0.480
1.840E-06,-0.620
1.850E-06,-1.120
1.860E-06,-1.420
1.870E-06,-1.380
1.880E-06,-1.240
1.890E-06,-1.120
1.900E-06,-1.060
1.910E-06,-1.180
1.920E-06,-1.500
1.930E-06,-1.680
1.940E-06,-1.880
1.950E-06,-1.780
1.960E-06,-1.660
1.970E-06,-1.380
1.980E-06,-1.180
1.990E-06,-1.080
2.000E-06,-1.100
2.010E-06,-1.040
2.020E-06,-1.040
2.030E-06,-0.920
2.040E-06,-0.840
2.050E-06,-0.760
2.060E-06,-0.660
2.070E-06,-0.640
2.080E-06,-0.640
2.090E-06,-0.620
2.100E-06,-0.640
2.110E-06,-0.640
2.120E-06,-0.620
2.130E-06,-0.680
2.140E-06,-0.680
2.150E-06,-0.720
2.160E-06,-0.700
2.170E-06,-0.660
2.180E-06,-0.600
2.190E-06,-0.500
2.200E-06,-0.440
2.210E-06,-0.360
2.220E-06,-0.360
2.230E-06,-0.340
2.240E-06,-0.240
2.250E-06,-0.180
2.260E-06,-0.200
2.270E-06,-0.100
2.280E-06,-0.040
2.290E-06,-0.040
2.300E-06,-0.040
2.310E-06,0.000
2.320E-06,0.060
2.330E-06,0.100
2.340E-06,0.140
2.350E-06,0.180
2.360E-06,0.100
2.370E-06,0.080
2.380E-06,0.060
2.390E-06,0.120
2.400E-06,0.180
2.410E-06,0.160
2.420E-06,0.160
2.430E-06,0.200
2.440E-06,0.240
2.450E-06,0.260
2.460E-06,0.300
2.470E-06,0.320
2.480E-06,0.260
2.490E-06,0.200
2.500E-06,0.180
2.510E-06,0.180
2.520E-06,0.120
2.530E-06,0.040
2.540E-06,0.000
2.550E-06,0.000
2.560E-06,-0.080
2.570E-06,-0.160
2.580E-06,-0.180
2.590E-06,-0.220
2.600E-06,-0.240
2.610E-06,-0.240
2.620E-06,-0.220
2.630E-06,-0.220
2.640E-06,-0.240
2.650E-06,-0.180
2.660E-06,-0.160
2.670E-06,-0.160
2.680E-06,-0.040
2.690E-06,-0.020
2.700E-06,0.060
2.710E-06,0.120
2.720E-06,0.180
2.730E-06,0.160
2.740E-06,0.160
2.750E-06,0.160
2.760E-06,0.160
2.770E-06,0.140
2.780E-06,0.060
2.790E-06,0.020
2.800E-06,0.020
2.810E-06,-0.020
2.820E-06,-0.020
2.830E-06,0.020
2.840E-06,-0.020
2.850E-06,0.060
2.860E-06,0.080
2.870E-06,0.100
2.880E-06,0.120
2.890E-06,0.160
2.900E-06,0.180
2.910E-06,0.220
2.920E-06,0.240
2.930E-06,0.320
2.940E-06,0.340
2.950E-06,0.420
2.960E-06,0.500
2.970E-06,0.540
2.980E-06,0.600
2.990E-06,0.600
3.000E-06,0.620
3.010E-06,0.640
3.020E-06,0.620
3.030E-06,0.600
3.040E-06,0.600
3.050E-06,0.660
3.060E-06,0.600
3.070E-06,0.640
3.080E-06,0.620
3.090E-06,0.560
3.100E-06,0.520
3.110E-06,0.480
3.120E-06,0.460
3.130E-06,0.420
3.140E-06,0.440
3.150E-06,0.420
3.160E-06,0.400
3.170E-06,0.380
3.180E-06,0.340
3.190E-06,0.240
3.200E-06,0.240
3.210E-06,0.220
3.220E-06,0.260
3.230E-06,0.220
3.240E-06,0.200
3.250E-06,0.240
3.260E-06,0.200
3.270E-06,0.200
3.280E-06,0.220
3.290E-06,0.180
3.300E-06,0.120
3.310E-06,0.100
3.320E-06,0.120
3.330E-06,0.080
3.340E-06,0.100
3.350E-06,0.080
3.360E-06,0.120
3.370E-06,0.120
3.380E-06,0.100
3.390E-06,0.120
3.400E-06,0.100
3.410E-06,0.080
3.420E-06,0.080
3.430E-06,0.060
3.440E-06,0.080
3.450E-06,0.140
3.460E-06,0.140
3.470E-06,0.160
3.480E-06,0.160
3.490E-06,0.160
3.500E-06,0.180
3.510E-06,0.220
3.520E-06,0.280
3.530E-06,0.320
3.540E-06,0.420
3.550E-06,0.460
3.560E-06,0.480
3.570E-06,0.460
3.580E-06,0.460
3.590E-06,0.420
3.600E-06,0.440
3.610E-06,0.400
3.620E-06,0.420
3.630E-06,0.440
3.640E-06,0.420
3.650E-06,0.380
3.660E-06,0.460
3.670E-06,0.560
3.680E-06,0.660
3.690E-06,0.660
3.700E-06,0.660
3.710E-06,0.660
3.720E-06,0.700
3.730E-06,0.720
3.740E-06,0.760
3.750E-06,0.740
3.760E-06,0.700
3.770E-06,0.600
3.780E-06,0.560
3.790E-06,0.500
3.800E-06,0.440
3.810E-06,0.380
3.820E-06,0.360
3.830E-06,0.360
3.840E-06,0.320
3.850E-06,0.360
3.860E-06,0.340
3.870E-06,0.340
3.880E-06,0.300
3.890E-06,0.260
3.900E-06,0.320
3.910E-06,0.240
3.920E-06,0.300
3.930E-06,0.280
3.940E-06,0.220
3.950E-06,0.220
3.960E-06,0.160
3.970E-06,0.180
3.980E-06,0.140
3.990E-06,0.080
4.000E-06,0.040
4.010E-06,0.020
4.020E-06,0.020
4.030E-06,0.020
4.040E-06,-0.020
4.050E-06,0.000
4.060E-06,0.040
4.070E-06,0.060
4.080E-06,0.100
4.090E-06,0.120
4.100E-06,0.140
4.110E-06,0.180
4.120E-06,0.160
4.130E-06,0.140
4.140E-06,0.080
4.150E-06,0.080
4.160E-06,0.080
4.170E-06,0.100
4.180E-06,0.140
4.190E-06,0.080
4.200E-06,0.060
4.210E-06,0.060
4.220E-06,0.060
4.230E-06,0.060
4.240E-06,0.020
4.250E-06,0.020
4.260E-06,0.000
4.270E-06,0.040
4.280E-06,0.060
4.290E-06,0.040
4.300E-06,0.020
4.310E-06,0.080
4.320E-06,0.080
4.330E-06,0.100
4.340E-06,0.120
4.350E-06,0.140
4.360E-06,0.180
4.370E-06,0.180
4.380E-06,0.240
4.390E-06,0.280
4.400E-06,0.300
4.410E-06,0.320
4.420E-06,0.320
4.430E-06,0.340
4.440E-06,0.300
4.450E-06,0.260
4.460E-06,0.220
4.470E-06,0.180
4.480E-06,0.160
4.490E-06,0.180
4.500E-06,0.140
4.510E-06,0.120
4.520E-06,0.120
4.530E-06,0.140
4.540E-06,0.160
4.550E-06,0.200
4.560E-06,0.180
4.570E-06,0.160
4.580E-06,0.160
4.590E-06,0.100
4.600E-06,0.080
4.610E-06,0.020
4.620E-06,-0.060
4.630E-06,-0.080
4.640E-06,-0.080
4.650E-06,-0.140
4.660E-06,-0.180
4.670E-06,-0.220
4.680E-06,-0.240
4.690E-06,-0.300
4.700E-06,-0.300
4.710E-06,-0.320
4.720E-06,-0.260
4.730E-06,-0.220
4.740E-06,-0.120
4.750E-06,-0.060
4.760E-06,0.000
4.770E-06,0.080
4.780E-06,0.160
4.790E-06,0.180
4.800E-06,0.200
4.810E-06,0.200
4.820E-06,0.160
4.830E-06,0.160
4.840E-06,0.120
4.850E-06,0.100
4.860E-06,0.060
4.870E-06,0.080
4.880E-06,0.140
4.890E-06,0.200
4.900E-06,0.260
4.910E-06,0.360
4.920E-06,0.440
4.930E-06,0.500
4.940E-06,0.560
4.950E-06,0.560
4.960E-06,0.580
4.970E-06,0.600
4.980E-06,0.560
4.990E-06,0.560
5.000E-06,0.520
5.010E-06,0.440
5.020E-06,0.340
5.030E-06,0.200
5.040E-06,0.060
5.050E-06,-0.100
5.060E-06,-0.240
5.070E-06,-0.360
5.080E-06,-0.520
5.090E-06,-0.600
5.100E-06,-0.620
5.110E-06,-0.560
5.120E-06,-0.480
5.130E-06,-0.340
5.140E-06,-0.140
5.150E-06,0.060
5.160E-06,0.260
5.170E-06,0.420
5.180E-06,0.540
5.190E-06,0.700
5.200E-06,0.720
5.210E-06,0.780
5.220E-06,0.860
5.230E-06,0.820
5.240E-06,0.780
5.250E-06,0.660
5.260E-06,0.580
5.270E-06,0.480
5.280E-06,0.360
5.290E-06,0.320
5.300E-06,0.280
5.310E-06,0.280
5.320E-06,0.260
5.330E-06,0.260
5.340E-06,0.300
5.350E-06,0.280
5.360E-06,0.320
5.370E-06,0.300
5.380E-06,0.280
5.390E-06,0.220
5.400E-06,0.080
5.410E-06,0.000
5.420E-06,-0.220
5.430E-06,-0.380
5.440E-06,-0.520
5.450E-06,-0.540
5.460E-06,-0.460
5.470E-06,-0.340
5.480E-06,-0.160
5.490E-06,-0.020
5.500E-06,0.140
5.510E-06,0.260
5.520E-06,0.360
5.530E-06,0.420
5.540E-06,0.460
5.550E-06,0.500
5.560E-06,0.600
5.570E-06,0.660
5.580E-06,0.700
5.590E-06,0.760
5.600E-06,0.740
5.610E-06,0.700
5.620E-06,0.680
5.630E-06,0.680
5.640E-06,0.640
5.650E-06,0.680
5.660E-06,0.660
5.670E-06,0.600
5.680E-06,0.560
5.690E-06,0.520
5.700E-06,0.480
5.710E-06,0.440
5.720E-06,0.380
5.730E-06,0.340
5.740E-06,0.260
5.750E-06,0.180
5.760E-06,0.100
5.770E-06,0.000
5.780E-06,-0.100
5.790E-06,-0.180
5.800E-06,-0.280
5.810E-06,-0.300
5.820E-06,-0.300
5.830E-06,-0.280
5.840E-06,-0.200
5.850E-06,-0.160
5.860E-06,-0.140
5.870E-06,-0.120
5.880E-06,-0.100
5.890E-06,-0.040
5.900E-06,-0.020
5.910E-06,0.060
5.920E-06,0.100
5.930E-06,0.160
5.940E-06,0.260
5.950E-06,0.400
5.960E-06,0.480
5.970E-06,0.580
5.980E-06,0.700
5.990E-06,0.760
6.000E-06,0.800
6.010E-06,0.900
6.020E-06,0.960
6.030E-06,0.980
6.040E-06,1.000
6.050E-06,1.000
6.060E-06,1.000
6.070E-06,0.960
6.080E-06,0.960
6.090E-06,0.880
6.100E-06,0.800
6.110E-06,0.760
6.120E-06,0.740
6.130E-06,0.700
6.140E-06,0.640
6.150E-06,0.560
6.160E-06,0.540
6.170E-06,0.460
6.180E-06,0.400
6.190E-06,0.380
6.200E-06,0.360
6.210E-06,0.360
6.220E-06,0.340
6.230E-06,0.340
6.240E-06,0.360
6.250E-06,0.320
6.260E-06,0.300
6.270E-06,0.260
6.280E-06,0.220
6.290E-06,0.160
6.300E-06,0.100
6.310E-06,0.080
6.320E-06,0.020
6.330E-06,-0.020
6.340E-06,-0.020
6.350E-06,-0.060
6.360E-06,0.020
6.370E-06,0.080
6.380E-06,0.120
6.390E-06,0.220
6.400E-06,0.260
6.410E-06,0.320
6.420E-06,0.340
6.430E-06,0.320
6.440E-06,0.300
6.450E-06,0.260
6.460E-06,0.260
6.470E-06,0.240
6.480E-06,0.300
6.490E-06,0.340
6.500E-06,0.400
6.510E-06,0.400
6.520E-06,0.440
6.530E-06,0.480
6.540E-06,0.540
6.550E-06,0.580
6.560E-06,0.600
6.570E-06,0.600
6.580E-06,0.600
6.590E-06,0.560
6.600E-06,0.600
6.610E-06,0.660
6.620E-06,0.660
6.630E-06,0.640
6.640E-06,0.620
6.650E-06,0.620
6.660E-06,0.660
6.670E-06,0.720
6.680E-06,0.800
6.690E-06,0.860
6.700E-06,0.980
6.710E-06,1.100
6.720E-06,1.220
6.730E-06,1.340
6.740E-06,1.420
6.750E-06,1.620
6.760E-06,1.840
6.770E-06,2.060
6.780E-06,2.260
6.790E-06,2.520
6.800E-06,2.760
6.810E-06,2.740
6.820E-06,2.760
6.830E-06,2.780
6.840E-06,2.780
6.850E-06,2.760
6.860E-06,2.780
6.870E-06,2.760
6.880E-06,2.760
6.890E-06,2.760
6.900E-06,2.720
6.910E-06,2.620
6.920E-06,2.520
6.930E-06,2.400
6.940E-06,2.240
6.950E-06,2.000
6.960E-06,1.740
6.970E-06,1.460
6.980E-06,1.240
6.990E-06,1.060
7.000E-06,0.940
7.010E-06,0.840
7.020E-06,0.760
7.030E-06,0.720
7.040E-06,0.680
7.050E-06,0.660
7.060E-06,0.580
7.070E-06,0.560
7.080E-06,0.460
7.090E-06,0.420
7.100E-06,0.420
7.110E-06,0.380
7.120E-06,0.360
7.130E-06,0.300
7.140E-06,0.300
7.150E-06,0.300
7.160E-06,0.340
7.170E-06,0.420
7.180E-06,0.440
7.190E-06,0.480
7.200E-06,0.520
7.210E-06,0.520
7.220E-06,0.540
7.230E-06,0.580
7.240E-06,0.600
7.250E-06,0.580
7.260E-06,0.580
7.270E-06,0.620
7.280E-06,0.640
7.290E-06,0.640
7.300E-06,0.620
7.310E-06,0.680
7.320E-06,0.720
7.330E-06,0.700
7.340E-06,0.760
7.350E-06,0.780
7.360E-06,0.780
7.370E-06,0.800
7.380E-06,0.820
7.390E-06,0.820
7.400E-06,0.820
7.410E-06,0.800
7.420E-06,0.840
7.430E-06,0.860
7.440E-06,0.820
7.450E-06,0.860
7.460E-06,0.780
7.470E-06,0.720
7.480E-06,0.680
7.490E-06,0.660
7.500E-06,0.600
7.510E-06,0.580
7.520E-06,0.560
7.530E-06,0.540
7.540E-06,0.520
7.550E-06,0.500
7.560E-06,0.480
7.570E-06,0.460
7.580E-06,0.440
7.590E-06,0.380
7.600E-06,0.320
7.610E-06,0.320
7.620E-06,0.300
7.630E-06,0.260
7.640E-06,0.260
7.650E-06,0.300
7.660E-06,0.300
7.670E-06,0.320
7.680E-06,0.320
7.690E-06,0.320
7.700E-06,0.320
7.710E-06,0.300
7.720E-06,0.280
7.730E-06,0.300
7.740E-06,0.320
7.750E-06,0.340
7.760E-06,0.360
7.770E-06,0.380
7.780E-06,0.420
