mediciones/Mediciones filtradas (saque las feas)/6-10/64.4/WaveData55206.csv

#timebase=2000000(ps)
,#voltbase=500000(mv/100)
#size=4000
-4.250E-06,0.240
-4.240E-06,0.420
-4.230E-06,0.600
-4.220E-06,0.800
-4.210E-06,0.500
-4.200E-06,-0.020
-4.190E-06,0.300
-4.180E-06,-0.220
-4.170E-06,0.220
-4.160E-06,0.500
-4.150E-06,0.120
-4.140E-06,0.340
-4.130E-06,0.020
-4.120E-06,-0.200
-4.110E-06,-0.040
-4.100E-06,-0.020
-4.090E-06,0.020
-4.080E-06,0.220
-4.070E-06,0.060
-4.060E-06,0.080
-4.050E-06,0.120
-4.040E-06,-0.020
-4.030E-06,0.020
-4.020E-06,0.000
-4.010E-06,-0.120
-4.000E-06,-0.120
-3.990E-06,-0.040
-3.980E-06,0.000
-3.970E-06,0.100
-3.960E-06,0.040
-3.950E-06,0.000
-3.940E-06,-0.060
-3.930E-06,-0.080
-3.920E-06,-0.060
-3.910E-06,-0.020
-3.900E-06,0.040
-3.890E-06,0.060
-3.880E-06,0.080
-3.870E-06,0.060
-3.860E-06,0.080
-3.850E-06,0.100
-3.840E-06,0.100
-3.830E-06,0.080
-3.820E-06,0.140
-3.810E-06,0.120
-3.800E-06,0.180
-3.790E-06,0.100
-3.780E-06,0.160
-3.770E-06,0.200
-3.760E-06,0.120
-3.750E-06,0.180
-3.740E-06,0.080
-3.730E-06,0.100
-3.720E-06,0.080
-3.710E-06,0.060
-3.700E-06,0.140
-3.690E-06,0.080
-3.680E-06,0.080
-3.670E-06,0.020
-3.660E-06,0.000
-3.650E-06,0.060
-3.640E-06,0.140
-3.630E-06,0.220
-3.620E-06,0.320
-3.610E-06,0.280
-3.600E-06,0.240
-3.590E-06,0.220
-3.580E-06,0.200
-3.570E-06,0.260
-3.560E-06,0.260
-3.550E-06,0.260
-3.540E-06,0.320
-3.530E-06,0.240
-3.520E-06,0.280
-3.510E-06,0.280
-3.500E-06,0.300
-3.490E-06,0.220
-3.480E-06,0.260
-3.470E-06,0.340
-3.460E-06,0.220
-3.450E-06,0.200
-3.440E-06,0.100
-3.430E-06,-0.080
-3.420E-06,-0.020
-3.410E-06,0.100
-3.400E-06,0.260
-3.390E-06,0.440
-3.380E-06,0.320
-3.370E-06,0.160
-3.360E-06,0.060
-3.350E-06,-0.080
-3.340E-06,0.000
-3.330E-06,0.100
-3.320E-06,0.160
-3.310E-06,0.220
-3.300E-06,0.160
-3.290E-06,0.040
-3.280E-06,0.020
-3.270E-06,0.000
-3.260E-06,0.060
-3.250E-06,0.120
-3.240E-06,0.000
-3.230E-06,0.060
-3.220E-06,-0.020
-3.210E-06,0.080
-3.200E-06,0.120
-3.190E-06,0.000
-3.180E-06,0.260
-3.170E-06,0.000
-3.160E-06,0.040
-3.150E-06,0.020
-3.140E-06,-0.140
-3.130E-06,-0.020
-3.120E-06,-0.060
-3.110E-06,-0.040
-3.100E-06,-0.020
-3.090E-06,-0.080
-3.080E-06,-0.060
-3.070E-06,0.000
-3.060E-06,-0.040
-3.050E-06,-0.040
-3.040E-06,0.000
-3.030E-06,-0.060
-3.020E-06,0.020
-3.010E-06,-0.020
-3.000E-06,0.000
-2.990E-06,0.060
-2.980E-06,0.020
-2.970E-06,0.080
-2.960E-06,0.060
-2.950E-06,0.060
-2.940E-06,0.080
-2.930E-06,0.120
-2.920E-06,0.120
-2.910E-06,0.140
-2.900E-06,0.180
-2.890E-06,0.180
-2.880E-06,0.180
-2.870E-06,0.220
-2.860E-06,0.200
-2.850E-06,0.240
-2.840E-06,0.260
-2.830E-06,0.300
-2.820E-06,0.320
-2.810E-06,0.320
-2.800E-06,0.280
-2.790E-06,0.280
-2.780E-06,0.260
-2.770E-06,0.240
-2.760E-06,0.240
-2.750E-06,0.320
-2.740E-06,0.240
-2.730E-06,0.320
-2.720E-06,0.220
-2.710E-06,0.240
-2.700E-06,0.180
-2.690E-06,0.160
-2.680E-06,0.200
-2.670E-06,0.040
-2.660E-06,0.180
-2.650E-06,-0.040
-2.640E-06,0.020
-2.630E-06,0.080
-2.620E-06,0.240
-2.610E-06,0.200
-2.600E-06,0.340
-2.590E-06,0.180
-2.580E-06,0.120
-2.570E-06,0.380
-2.560E-06,0.280
-2.550E-06,0.360
-2.540E-06,0.300
-2.530E-06,0.140
-2.520E-06,0.060
-2.510E-06,-0.100
-2.500E-06,0.260
-2.490E-06,0.140
-2.480E-06,0.240
-2.470E-06,0.180
-2.460E-06,-0.020
-2.450E-06,-0.160
-2.440E-06,-0.400
-2.430E-06,0.420
-2.420E-06,0.560
-2.410E-06,0.640
-2.400E-06,0.360
-2.390E-06,-0.160
-2.380E-06,-0.440
-2.370E-06,-0.060
-2.360E-06,0.220
-2.350E-06,0.740
-2.340E-06,0.520
-2.330E-06,0.240
-2.320E-06,-0.120
-2.310E-06,-0.240
-2.300E-06,-0.040
-2.290E-06,0.300
-2.280E-06,0.400
-2.270E-06,0.240
-2.260E-06,0.020
-2.250E-06,-0.180
-2.240E-06,-0.200
-2.230E-06,-0.060
-2.220E-06,0.060
-2.210E-06,0.000
-2.200E-06,0.180
-2.190E-06,0.000
-2.180E-06,-0.140
-2.170E-06,0.140
-2.160E-06,-0.180
-2.150E-06,-0.040
-2.140E-06,-0.020
-2.130E-06,-0.260
-2.120E-06,-0.060
-2.110E-06,0.020
-2.100E-06,-0.180
-2.090E-06,0.000
-2.080E-06,-0.120
-2.070E-06,-0.140
-2.060E-06,0.180
-2.050E-06,0.200
-2.040E-06,0.340
-2.030E-06,0.460
-2.020E-06,0.340
-2.010E-06,0.320
-2.000E-06,0.240
-1.990E-06,0.120
-1.980E-06,0.180
-1.970E-06,0.260
-1.960E-06,0.240
-1.950E-06,0.280
-1.940E-06,0.200
-1.930E-06,0.080
-1.920E-06,0.020
-1.910E-06,0.000
-1.900E-06,0.000
-1.890E-06,0.120
-1.880E-06,0.040
-1.870E-06,0.120
-1.860E-06,0.100
-1.850E-06,-0.060
-1.840E-06,-0.160
-1.830E-06,-0.220
-1.820E-06,-0.420
-1.810E-06,-0.260
-1.800E-06,-0.160
-1.790E-06,0.080
-1.780E-06,0.240
-1.770E-06,0.380
-1.760E-06,0.440
-1.750E-06,0.240
-1.740E-06,0.240
-1.730E-06,0.120
-1.720E-06,0.280
-1.710E-06,0.320
-1.700E-06,0.180
-1.690E-06,0.340
-1.680E-06,0.100
-1.670E-06,0.100
-1.660E-06,-0.120
-1.650E-06,-0.200
-1.640E-06,0.000
-1.630E-06,0.060
-1.620E-06,0.460
-1.610E-06,0.400
-1.600E-06,0.160
-1.590E-06,0.280
-1.580E-06,-0.100
-1.570E-06,0.160
-1.560E-06,0.340
-1.550E-06,0.180
-1.540E-06,0.380
-1.530E-06,0.040
-1.520E-06,-0.100
-1.510E-06,-0.040
-1.500E-06,-0.120
-1.490E-06,-0.140
-1.480E-06,-0.120
-1.470E-06,-0.020
-1.460E-06,-0.300
-1.450E-06,-0.080
-1.440E-06,-0.080
-1.430E-06,-0.340
-1.420E-06,-0.160
-1.410E-06,-0.300
-1.400E-06,-0.300
-1.390E-06,-0.020
-1.380E-06,0.000
-1.370E-06,0.060
-1.360E-06,0.120
-1.350E-06,0.080
-1.340E-06,0.060
-1.330E-06,0.240
-1.320E-06,0.300
-1.310E-06,0.300
-1.300E-06,0.300
-1.290E-06,0.080
-1.280E-06,-0.020
-1.270E-06,0.100
-1.260E-06,0.000
-1.250E-06,0.060
-1.240E-06,0.140
-1.230E-06,0.080
-1.220E-06,0.020
-1.210E-06,0.100
-1.200E-06,0.000
-1.190E-06,-0.080
-1.180E-06,0.060
-1.170E-06,-0.080
-1.160E-06,-0.060
-1.150E-06,-0.040
-1.140E-06,-0.180
-1.130E-06,0.000
-1.120E-06,-0.060
-1.110E-06,-0.040
-1.100E-06,0.080
-1.090E-06,0.180
-1.080E-06,0.300
-1.070E-06,0.520
-1.060E-06,0.460
-1.050E-06,0.420
-1.040E-06,0.600
-1.030E-06,0.320
-1.020E-06,0.680
-1.010E-06,0.720
-1.000E-06,0.620
-9.900E-07,0.520
-9.800E-07,0.240
-9.700E-07,0.280
-9.600E-07,0.200
-9.500E-07,0.340
-9.400E-07,0.440
-9.300E-07,0.500
-9.200E-07,0.500
-9.100E-07,0.480
-9.000E-07,0.340
-8.900E-07,0.480
-8.800E-07,0.100
-8.700E-07,0.360
-8.600E-07,0.160
-8.500E-07,0.160
-8.400E-07,0.220
-8.300E-07,0.160
-8.200E-07,0.240
-8.100E-07,-0.040
-8.000E-07,0.120
-7.900E-07,0.000
-7.800E-07,0.240
-7.700E-07,0.240
-7.600E-07,0.340
-7.500E-07,0.500
-7.400E-07,-0.020
-7.300E-07,0.360
-7.200E-07,0.320
-7.100E-07,-0.020
-7.000E-07,-0.620
-6.900E-07,-0.580
-6.800E-07,-0.140
-6.700E-07,-0.300
-6.600E-07,0.000
-6.500E-07,0.320
-6.400E-07,0.080
-6.300E-07,0.120
-6.200E-07,-0.080
-6.100E-07,-0.960
-6.000E-07,0.240
-5.900E-07,-0.140
-5.800E-07,-0.080
-5.700E-07,0.240
-5.600E-07,-0.900
-5.500E-07,-0.380
-5.400E-07,-0.880
-5.300E-07,-1.220
-5.200E-07,-1.300
-5.100E-07,-1.640
-5.000E-07,-1.780
-4.900E-07,-1.680
-4.800E-07,-2.020
-4.700E-07,-2.060
-4.600E-07,-2.080
-4.500E-07,-2.400
-4.400E-07,-2.180
-4.300E-07,-2.380
-4.200E-07,-2.380
-4.100E-07,-2.460
-4.000E-07,-2.640
-3.900E-07,-2.500
-3.800E-07,-2.440
-3.700E-07,-2.380
-3.600E-07,-2.140
-3.500E-07,-2.120
-3.400E-07,-2.020
-3.300E-07,-1.700
-3.200E-07,-1.700
-3.100E-07,-1.380
-3.000E-07,-1.380
-2.900E-07,-1.180
-2.800E-07,-1.000
-2.700E-07,-0.780
-2.600E-07,-0.900
-2.500E-07,-0.580
-2.400E-07,-0.600
-2.300E-07,-0.540
-2.200E-07,-0.480
-2.100E-07,-0.520
-2.000E-07,-0.400
-1.900E-07,-0.400
-1.800E-07,-0.300
-1.700E-07,-0.080
-1.600E-07,-0.060
-1.500E-07,-0.100
-1.400E-07,-0.280
-1.300E-07,-0.300
-1.200E-07,-0.240
-1.100E-07,0.160
-1.000E-07,-0.600
-9.000E-08,-0.600
-8.000E-08,-0.220
-7.000E-08,-1.020
-6.000E-08,-0.580
-5.000E-08,0.500
-4.000E-08,-0.760
-3.000E-08,-0.460
-2.000E-08,-1.800
-1.000E-08,-1.120
0.000E+00,-1.420
1.000E-08,0.000
2.000E-08,1.360
3.000E-08,0.260
4.000E-08,2.200
5.000E-08,0.580
6.000E-08,1.000
7.000E-08,0.580
8.000E-08,0.240
9.000E-08,0.880
1.000E-07,0.500
1.100E-07,1.440
1.200E-07,0.660
1.300E-07,1.480
1.400E-07,0.660
1.500E-07,1.080
1.600E-07,0.800
1.700E-07,1.040
1.800E-07,0.900
1.900E-07,1.180
2.000E-07,1.140
2.100E-07,1.160
2.200E-07,1.060
2.300E-07,0.760
2.400E-07,0.600
2.500E-07,0.380
2.600E-07,0.200
2.700E-07,0.100
2.800E-07,-0.040
2.900E-07,-0.080
3.000E-07,-0.120
3.100E-07,-0.200
3.200E-07,0.080
3.300E-07,-0.180
3.400E-07,0.180
3.500E-07,0.120
3.600E-07,0.420
3.700E-07,0.640
3.800E-07,0.540
3.900E-07,0.820
4.000E-07,0.860
4.100E-07,0.980
4.200E-07,1.020
4.300E-07,0.760
4.400E-07,0.600
4.500E-07,0.460
4.600E-07,0.320
4.700E-07,0.380
4.800E-07,0.380
4.900E-07,0.420
5.000E-07,0.380
5.100E-07,0.320
5.200E-07,0.300
5.300E-07,0.340
5.400E-07,0.320
5.500E-07,0.280
5.600E-07,0.180
5.700E-07,0.040
5.800E-07,-0.060
5.900E-07,-0.160
6.000E-07,-0.280
6.100E-07,-0.380
6.200E-07,-0.460
6.300E-07,-0.600
6.400E-07,-0.680
6.500E-07,-0.780
6.600E-07,-0.860
6.700E-07,-0.940
6.800E-07,-1.000
6.900E-07,-1.080
7.000E-07,-1.100
7.100E-07,-1.180
7.200E-07,-1.240
7.300E-07,-1.300
7.400E-07,-1.320
7.500E-07,-1.360
7.600E-07,-1.400
7.700E-07,-1.400
7.800E-07,-1.420
7.900E-07,-1.440
8.000E-07,-1.420
8.100E-07,-1.420
8.200E-07,-1.420
8.300E-07,-1.380
8.400E-07,-1.380
8.500E-07,-1.360
8.600E-07,-1.340
8.700E-07,-1.280
8.800E-07,-1.260
8.900E-07,-1.220
9.000E-07,-1.200
9.100E-07,-1.200
9.200E-07,-1.100
9.300E-07,-1.040
9.400E-07,-0.980
9.500E-07,-0.940
9.600E-07,-0.860
9.700E-07,-0.760
9.800E-07,-0.680
9.900E-07,-0.620
1.000E-06,-0.520
1.010E-06,-0.420
1.020E-06,-0.360
1.030E-06,-0.300
1.040E-06,-0.260
1.050E-06,-0.180
1.060E-06,-0.140
1.070E-06,-0.120
1.080E-06,-0.120
1.090E-06,-0.100
1.100E-06,-0.140
1.110E-06,-0.140
1.120E-06,-0.160
1.130E-06,-0.180
1.140E-06,-0.240
1.150E-06,-0.240
1.160E-06,-0.180
1.170E-06,0.020
1.180E-06,-0.420
1.190E-06,0.000
1.200E-06,0.100
1.210E-06,0.220
1.220E-06,0.420
1.230E-06,0.420
1.240E-06,0.400
1.250E-06,0.400
1.260E-06,0.400
1.270E-06,0.500
1.280E-06,0.580
1.290E-06,0.720
1.300E-06,0.880
1.310E-06,1.000
1.320E-06,1.020
1.330E-06,1.080
1.340E-06,1.000
1.350E-06,1.000
1.360E-06,0.960
1.370E-06,0.900
1.380E-06,0.920
1.390E-06,0.940
1.400E-06,0.940
1.410E-06,1.000
1.420E-06,1.040
1.430E-06,1.000
1.440E-06,0.920
1.450E-06,0.760
1.460E-06,0.680
1.470E-06,0.500
1.480E-06,0.380
1.490E-06,0.340
1.500E-06,0.320
1.510E-06,0.340
1.520E-06,0.360
1.530E-06,0.380
1.540E-06,0.380
1.550E-06,0.320
1.560E-06,0.300
1.570E-06,0.260
1.580E-06,0.180
1.590E-06,0.160
1.600E-06,0.040
1.610E-06,0.040
1.620E-06,0.060
1.630E-06,0.040
1.640E-06,0.020
1.650E-06,0.000
1.660E-06,-0.120
1.670E-06,-0.200
1.680E-06,-0.300
1.690E-06,-0.220
1.700E-06,-0.180
1.710E-06,-0.120
1.720E-06,-0.060
1.730E-06,-0.160
1.740E-06,-0.180
1.750E-06,-0.200
1.760E-06,-0.120
1.770E-06,0.000
1.780E-06,0.060
1.790E-06,0.000
1.800E-06,-0.120
1.810E-06,-0.160
1.820E-06,-0.200
1.830E-06,0.000
1.840E-06,0.260
1.850E-06,0.240
1.860E-06,0.340
1.870E-06,0.380
1.880E-06,0.300
1.890E-06,0.380
1.900E-06,0.480
1.910E-06,0.520
1.920E-06,0.540
1.930E-06,0.540
1.940E-06,0.640
1.950E-06,0.660
1.960E-06,0.720
1.970E-06,0.780
1.980E-06,0.800
1.990E-06,0.840
2.000E-06,0.940
2.010E-06,0.920
2.020E-06,0.940
2.030E-06,0.960
2.040E-06,0.980
2.050E-06,0.980
2.060E-06,1.040
2.070E-06,1.080
2.080E-06,1.140
2.090E-06,1.100
2.100E-06,1.060
2.110E-06,1.000
2.120E-06,0.900
2.130E-06,0.840
2.140E-06,0.820
2.150E-06,0.760
2.160E-06,0.700
2.170E-06,0.680
2.180E-06,0.600
2.190E-06,0.560
2.200E-06,0.520
2.210E-06,0.460
2.220E-06,0.460
2.230E-06,0.380
2.240E-06,0.360
2.250E-06,0.320
2.260E-06,0.340
2.270E-06,0.340
2.280E-06,0.360
2.290E-06,0.300
2.300E-06,0.280
2.310E-06,0.240
2.320E-06,0.240
2.330E-06,0.180
2.340E-06,0.140
2.350E-06,0.180
2.360E-06,0.200
2.370E-06,0.200
2.380E-06,0.220
2.390E-06,0.240
2.400E-06,0.260
2.410E-06,0.200
2.420E-06,0.180
2.430E-06,0.120
2.440E-06,0.080
2.450E-06,0.000
2.460E-06,-0.080
2.470E-06,-0.260
2.480E-06,-0.440
2.490E-06,-0.620
2.500E-06,-0.740
2.510E-06,-0.740
2.520E-06,-0.640
2.530E-06,-0.440
2.540E-06,-0.240
2.550E-06,0.000
2.560E-06,0.180
2.570E-06,0.280
2.580E-06,0.380
2.590E-06,0.420
2.600E-06,0.400
2.610E-06,0.420
2.620E-06,0.400
2.630E-06,0.440
2.640E-06,0.340
2.650E-06,0.260
2.660E-06,0.180
2.670E-06,-0.020
2.680E-06,-0.120
2.690E-06,-0.160
2.700E-06,-0.260
2.710E-06,-0.260
2.720E-06,-0.340
2.730E-06,-0.340
2.740E-06,-0.400
2.750E-06,-0.480
2.760E-06,-0.480
2.770E-06,-0.440
2.780E-06,-0.380
2.790E-06,-0.300
2.800E-06,-0.200
2.810E-06,-0.120
2.820E-06,-0.020
2.830E-06,0.080
2.840E-06,0.140
2.850E-06,0.180
2.860E-06,0.200
2.870E-06,0.260
2.880E-06,0.220
2.890E-06,0.220
2.900E-06,0.160
2.910E-06,0.060
2.920E-06,0.000
2.930E-06,-0.100
2.940E-06,-0.160
2.950E-06,-0.240
2.960E-06,-0.300
2.970E-06,-0.340
2.980E-06,-0.360
2.990E-06,-0.320
3.000E-06,-0.300
3.010E-06,-0.200
3.020E-06,-0.120
3.030E-06,0.060
3.040E-06,0.160
3.050E-06,0.300
3.060E-06,0.380
3.070E-06,0.480
3.080E-06,0.500
3.090E-06,0.500
3.100E-06,0.480
3.110E-06,0.420
3.120E-06,0.340
3.130E-06,0.260
3.140E-06,0.160
3.150E-06,0.100
3.160E-06,0.040
3.170E-06,-0.060
3.180E-06,-0.060
3.190E-06,-0.080
3.200E-06,-0.120
3.210E-06,-0.140
3.220E-06,-0.140
3.230E-06,-0.140
3.240E-06,-0.140
3.250E-06,-0.120
3.260E-06,-0.100
3.270E-06,-0.060
3.280E-06,0.000
3.290E-06,0.080
3.300E-06,0.140
3.310E-06,0.160
3.320E-06,0.180
3.330E-06,0.220
3.340E-06,0.260
3.350E-06,0.240
3.360E-06,0.200
3.370E-06,0.240
3.380E-06,0.260
3.390E-06,0.240
3.400E-06,0.240
3.410E-06,0.280
3.420E-06,0.280
3.430E-06,0.300
3.440E-06,0.340
3.450E-06,0.320
3.460E-06,0.280
3.470E-06,0.240
3.480E-06,0.160
3.490E-06,0.120
3.500E-06,0.100
3.510E-06,0.080
3.520E-06,0.120
3.530E-06,0.180
3.540E-06,0.220
3.550E-06,0.260
3.560E-06,0.360
3.570E-06,0.480
3.580E-06,0.560
3.590E-06,0.600
3.600E-06,0.620
3.610E-06,0.600
3.620E-06,0.500
3.630E-06,0.440
3.640E-06,0.360
3.650E-06,0.180
3.660E-06,0.120
3.670E-06,0.060
3.680E-06,0.080
3.690E-06,0.180
3.700E-06,0.240
3.710E-06,0.340
3.720E-06,0.520
3.730E-06,0.600
3.740E-06,0.680
3.750E-06,0.720
3.760E-06,0.740
3.770E-06,0.720
3.780E-06,0.640
3.790E-06,0.560
3.800E-06,0.440
3.810E-06,0.360
3.820E-06,0.260
3.830E-06,0.180
3.840E-06,0.080
3.850E-06,0.020
3.860E-06,-0.060
3.870E-06,-0.060
3.880E-06,0.020
3.890E-06,-0.020
3.900E-06,0.020
3.910E-06,0.060
3.920E-06,0.020
3.930E-06,0.020
3.940E-06,0.020
3.950E-06,-0.060
3.960E-06,-0.080
3.970E-06,-0.080
3.980E-06,-0.060
3.990E-06,0.000
4.000E-06,-0.020
4.010E-06,0.100
4.020E-06,0.140
4.030E-06,0.220
4.040E-06,0.260
4.050E-06,0.320
4.060E-06,0.360
4.070E-06,0.440
4.080E-06,0.440
4.090E-06,0.400
4.100E-06,0.400
4.110E-06,0.380
4.120E-06,0.360
4.130E-06,0.340
4.140E-06,0.360
4.150E-06,0.380
4.160E-06,0.400
4.170E-06,0.480
4.180E-06,0.540
4.190E-06,0.660
4.200E-06,0.640
4.210E-06,0.640
4.220E-06,0.600
4.230E-06,0.580
4.240E-06,0.620
4.250E-06,0.660
4.260E-06,0.680
4.270E-06,0.780
4.280E-06,0.820
4.290E-06,0.840
4.300E-06,0.880
4.310E-06,0.840
4.320E-06,0.780
4.330E-06,0.740
4.340E-06,0.600
4.350E-06,0.500
4.360E-06,0.480
4.370E-06,0.420
4.380E-06,0.460
4.390E-06,0.540
4.400E-06,0.720
4.410E-06,0.800
4.420E-06,0.920
4.430E-06,0.980
4.440E-06,1.020
4.450E-06,1.000
4.460E-06,0.900
4.470E-06,0.720
4.480E-06,0.540
4.490E-06,0.320
4.500E-06,0.160
4.510E-06,-0.040
4.520E-06,-0.140
4.530E-06,-0.180
4.540E-06,-0.200
4.550E-06,-0.160
4.560E-06,-0.060
4.570E-06,0.060
4.580E-06,0.140
4.590E-06,0.240
4.600E-06,0.340
4.610E-06,0.460
4.620E-06,0.600
4.630E-06,0.740
4.640E-06,0.860
4.650E-06,0.960
4.660E-06,1.100
4.670E-06,1.200
4.680E-06,1.280
4.690E-06,1.420
4.700E-06,1.480
4.710E-06,1.540
4.720E-06,1.580
4.730E-06,1.620
4.740E-06,1.640
4.750E-06,1.680
4.760E-06,1.740
4.770E-06,1.780
4.780E-06,1.860
4.790E-06,1.860
4.800E-06,1.840
4.810E-06,1.820
4.820E-06,1.700
4.830E-06,1.520
4.840E-06,1.360
4.850E-06,1.160
4.860E-06,1.020
4.870E-06,0.880
4.880E-06,0.780
4.890E-06,0.660
4.900E-06,0.620
4.910E-06,0.620
4.920E-06,0.660
4.930E-06,0.680
4.940E-06,0.780
4.950E-06,0.780
4.960E-06,0.780
4.970E-06,0.760
4.980E-06,0.740
4.990E-06,0.700
5.000E-06,0.660
5.010E-06,0.600
5.020E-06,0.540
5.030E-06,0.520
5.040E-06,0.540
5.050E-06,0.500
5.060E-06,0.580
5.070E-06,0.640
5.080E-06,0.720
5.090E-06,0.800
5.100E-06,0.880
5.110E-06,0.880
5.120E-06,0.940
5.130E-06,0.940
5.140E-06,0.940
5.150E-06,0.940
5.160E-06,0.920
5.170E-06,0.860
5.180E-06,0.860
5.190E-06,0.820
5.200E-06,0.800
5.210E-06,0.760
5.220E-06,0.760
5.230E-06,0.760
5.240E-06,0.780
5.250E-06,0.840
5.260E-06,0.900
5.270E-06,0.980
5.280E-06,1.020
5.290E-06,1.200
5.300E-06,1.340
5.310E-06,1.620
5.320E-06,1.920
5.330E-06,2.300
5.340E-06,2.680
5.350E-06,2.780
5.360E-06,2.780
5.370E-06,2.760
5.380E-06,2.780
5.390E-06,2.760
5.400E-06,2.760
5.410E-06,2.780
5.420E-06,2.760
5.430E-06,2.740
5.440E-06,2.760
5.450E-06,2.780
5.460E-06,2.760
5.470E-06,2.760
5.480E-06,2.780
5.490E-06,2.760
5.500E-06,2.760
5.510E-06,2.740
5.520E-06,2.760
5.530E-06,2.780
5.540E-06,2.760
5.550E-06,2.760
5.560E-06,2.720
5.570E-06,2.420
5.580E-06,2.200
5.590E-06,1.980
5.600E-06,1.740
5.610E-06,1.600
5.620E-06,1.460
5.630E-06,1.320
5.640E-06,1.240
5.650E-06,1.140
5.660E-06,1.080
5.670E-06,1.020
5.680E-06,1.000
5.690E-06,0.960
5.700E-06,0.900
5.710E-06,0.860
5.720E-06,0.760
5.730E-06,0.720
5.740E-06,0.700
5.750E-06,0.680
5.760E-06,0.640
5.770E-06,0.620
5.780E-06,0.600
5.790E-06,0.600
5.800E-06,0.560
5.810E-06,0.560
5.820E-06,0.560
5.830E-06,0.560
5.840E-06,0.560
5.850E-06,0.600
5.860E-06,0.620
5.870E-06,0.640
5.880E-06,0.640
5.890E-06,0.660
5.900E-06,0.660
5.910E-06,0.680
5.920E-06,0.660
5.930E-06,0.640
5.940E-06,0.620
5.950E-06,0.600
5.960E-06,0.600
5.970E-06,0.580
5.980E-06,0.580
5.990E-06,0.600
6.000E-06,0.640
6.010E-06,0.700
6.020E-06,0.700
6.030E-06,0.740
6.040E-06,0.720
6.050E-06,0.760
6.060E-06,0.780
6.070E-06,0.780
6.080E-06,0.720
6.090E-06,0.740
6.100E-06,0.720
6.110E-06,0.680
6.120E-06,0.700
6.130E-06,0.680
6.140E-06,0.660
6.150E-06,0.620
6.160E-06,0.600
6.170E-06,0.580
6.180E-06,0.560
6.190E-06,0.580
6.200E-06,0.520
6.210E-06,0.520
6.220E-06,0.520
6.230E-06,0.520
6.240E-06,0.500
6.250E-06,0.480
6.260E-06,0.480
6.270E-06,0.500
6.280E-06,0.480
6.290E-06,0.480
6.300E-06,0.480
6.310E-06,0.480
6.320E-06,0.480
6.330E-06,0.480
6.340E-06,0.480
6.350E-06,0.520
6.360E-06,0.540
6.370E-06,0.500
6.380E-06,0.520
6.390E-06,0.560
6.400E-06,0.540
6.410E-06,0.560
6.420E-06,0.600
6.430E-06,0.640
6.440E-06,0.660
6.450E-06,0.720
6.460E-06,0.780
6.470E-06,0.780
6.480E-06,0.820
6.490E-06,0.840
6.500E-06,0.880
6.510E-06,0.900
6.520E-06,0.940
6.530E-06,1.000
6.540E-06,1.000
6.550E-06,1.040
6.560E-06,1.080
6.570E-06,1.140
6.580E-06,1.180
6.590E-06,1.200
6.600E-06,1.240
6.610E-06,1.260
6.620E-06,1.300
6.630E-06,1.300
6.640E-06,1.340
6.650E-06,1.360
6.660E-06,1.340
6.670E-06,1.360
6.680E-06,1.380
6.690E-06,1.420
6.700E-06,1.400
6.710E-06,1.380
6.720E-06,1.400
6.730E-06,1.380
6.740E-06,1.420
6.750E-06,1.440
6.760E-06,1.420
6.770E-06,1.400
6.780E-06,1.420
6.790E-06,1.420
6.800E-06,1.380
6.810E-06,1.380
6.820E-06,1.360
6.830E-06,1.340
6.840E-06,1.320
6.850E-06,1.300
6.860E-06,1.280
6.870E-06,1.280
6.880E-06,1.280
6.890E-06,1.260
6.900E-06,1.280
6.910E-06,1.280
6.920E-06,1.280
6.930E-06,1.280
6.940E-06,1.280
6.950E-06,1.320
6.960E-06,1.320
6.970E-06,1.360
6.980E-06,1.360
6.990E-06,1.380
7.000E-06,1.380
7.010E-06,1.420
7.020E-06,1.400
7.030E-06,1.440
7.040E-06,1.460
7.050E-06,1.440
7.060E-06,1.460
7.070E-06,1.480
7.080E-06,1.480
7.090E-06,1.480
7.100E-06,1.500
7.110E-06,1.520
7.120E-06,1.520
7.130E-06,1.540
7.140E-06,1.580
7.150E-06,1.560
7.160E-06,1.540
7.170E-06,1.560
7.180E-06,1.560
7.190E-06,1.520
7.200E-06,1.520
7.210E-06,1.540
7.220E-06,1.540
7.230E-06,1.520
7.240E-06,1.520
7.250E-06,1.540
7.260E-06,1.560
7.270E-06,1.560
7.280E-06,1.560
7.290E-06,1.560
7.300E-06,1.580
7.310E-06,1.540
7.320E-06,1.560
7.330E-06,1.560
7.340E-06,1.580
7.350E-06,1.560
7.360E-06,1.560
7.370E-06,1.560
7.380E-06,1.540
7.390E-06,1.540
7.400E-06,1.520
7.410E-06,1.540
7.420E-06,1.500
7.430E-06,1.500
7.440E-06,1.480
7.450E-06,1.500
7.460E-06,1.480
7.470E-06,1.480
7.480E-06,1.460
7.490E-06,1.520
7.500E-06,1.540
7.510E-06,1.500
7.520E-06,1.520
7.530E-06,1.520
7.540E-06,1.520
7.550E-06,1.540
7.560E-06,1.540
7.570E-06,1.560
7.580E-06,1.600
7.590E-06,1.600
7.600E-06,1.600
7.610E-06,1.580
7.620E-06,1.600
7.630E-06,1.620
7.640E-06,1.620
7.650E-06,1.640
7.660E-06,1.620
7.670E-06,1.640
7.680E-06,1.640
7.690E-06,1.600
7.700E-06,1.620
7.710E-06,1.620
7.720E-06,1.640
7.730E-06,1.640
7.740E-06,1.680
7.750E-06,1.680
