mediciones/Mediciones filtradas (saque las feas)/6-10/40/WaveData5519.csv

#timebase=2000000(ps)
,#voltbase=500000(mv/100)
#size=4000
-4.250E-06,0.020
-4.240E-06,-0.020
-4.230E-06,0.020
-4.220E-06,0.120
-4.210E-06,0.160
-4.200E-06,0.080
-4.190E-06,0.080
-4.180E-06,0.060
-4.170E-06,0.000
-4.160E-06,0.040
-4.150E-06,0.080
-4.140E-06,0.140
-4.130E-06,0.080
-4.120E-06,0.060
-4.110E-06,-0.020
-4.100E-06,0.020
-4.090E-06,0.000
-4.080E-06,0.060
-4.070E-06,0.080
-4.060E-06,0.080
-4.050E-06,0.100
-4.040E-06,0.000
-4.030E-06,0.060
-4.020E-06,0.040
-4.010E-06,0.080
-4.000E-06,0.080
-3.990E-06,0.120
-3.980E-06,0.020
-3.970E-06,0.060
-3.960E-06,0.080
-3.950E-06,0.040
-3.940E-06,0.100
-3.930E-06,0.080
-3.920E-06,0.080
-3.910E-06,0.080
-3.900E-06,0.000
-3.890E-06,0.000
-3.880E-06,0.020
-3.870E-06,0.040
-3.860E-06,0.040
-3.850E-06,0.040
-3.840E-06,0.020
-3.830E-06,0.000
-3.820E-06,-0.020
-3.810E-06,0.020
-3.800E-06,0.080
-3.790E-06,0.100
-3.780E-06,0.040
-3.770E-06,0.020
-3.760E-06,0.020
-3.750E-06,0.040
-3.740E-06,0.080
-3.730E-06,0.080
-3.720E-06,0.080
-3.710E-06,0.040
-3.700E-06,0.060
-3.690E-06,0.040
-3.680E-06,0.080
-3.670E-06,0.040
-3.660E-06,0.060
-3.650E-06,0.020
-3.640E-06,0.000
-3.630E-06,0.020
-3.620E-06,0.040
-3.610E-06,0.040
-3.600E-06,0.080
-3.590E-06,0.060
-3.580E-06,0.020
-3.570E-06,0.060
-3.560E-06,0.040
-3.550E-06,0.040
-3.540E-06,0.080
-3.530E-06,0.080
-3.520E-06,0.080
-3.510E-06,0.060
-3.500E-06,0.000
-3.490E-06,0.060
-3.480E-06,0.020
-3.470E-06,0.040
-3.460E-06,0.040
-3.450E-06,0.080
-3.440E-06,0.120
-3.430E-06,0.160
-3.420E-06,0.220
-3.410E-06,0.160
-3.400E-06,0.100
-3.390E-06,0.060
-3.380E-06,0.160
-3.370E-06,0.020
-3.360E-06,0.140
-3.350E-06,0.160
-3.340E-06,0.080
-3.330E-06,0.120
-3.320E-06,0.140
-3.310E-06,0.140
-3.300E-06,0.140
-3.290E-06,0.160
-3.280E-06,0.120
-3.270E-06,0.160
-3.260E-06,0.140
-3.250E-06,0.120
-3.240E-06,0.100
-3.230E-06,0.060
-3.220E-06,0.060
-3.210E-06,0.080
-3.200E-06,0.080
-3.190E-06,0.060
-3.180E-06,0.080
-3.170E-06,0.040
-3.160E-06,0.020
-3.150E-06,0.000
-3.140E-06,-0.020
-3.130E-06,0.000
-3.120E-06,0.000
-3.110E-06,0.000
-3.100E-06,-0.020
-3.090E-06,-0.020
-3.080E-06,0.000
-3.070E-06,0.000
-3.060E-06,0.040
-3.050E-06,0.060
-3.040E-06,0.000
-3.030E-06,0.020
-3.020E-06,0.020
-3.010E-06,0.000
-3.000E-06,0.060
-2.990E-06,0.060
-2.980E-06,0.100
-2.970E-06,0.100
-2.960E-06,0.040
-2.950E-06,0.060
-2.940E-06,0.080
-2.930E-06,0.100
-2.920E-06,0.120
-2.910E-06,0.120
-2.900E-06,0.100
-2.890E-06,0.120
-2.880E-06,0.140
-2.870E-06,0.120
-2.860E-06,0.140
-2.850E-06,0.160
-2.840E-06,0.140
-2.830E-06,0.080
-2.820E-06,0.140
-2.810E-06,0.120
-2.800E-06,0.100
-2.790E-06,0.120
-2.780E-06,0.100
-2.770E-06,0.100
-2.760E-06,0.100
-2.750E-06,0.100
-2.740E-06,0.160
-2.730E-06,0.160
-2.720E-06,0.160
-2.710E-06,0.120
-2.700E-06,0.100
-2.690E-06,0.160
-2.680E-06,0.000
-2.670E-06,-0.040
-2.660E-06,-0.060
-2.650E-06,-0.020
-2.640E-06,0.020
-2.630E-06,0.180
-2.620E-06,0.200
-2.610E-06,0.300
-2.600E-06,0.260
-2.590E-06,0.220
-2.580E-06,0.240
-2.570E-06,0.180
-2.560E-06,0.220
-2.550E-06,0.200
-2.540E-06,0.140
-2.530E-06,0.100
-2.520E-06,0.100
-2.510E-06,0.060
-2.500E-06,0.140
-2.490E-06,0.140
-2.480E-06,0.160
-2.470E-06,0.140
-2.460E-06,0.160
-2.450E-06,0.180
-2.440E-06,0.080
-2.430E-06,0.120
-2.420E-06,0.140
-2.410E-06,0.080
-2.400E-06,0.100
-2.390E-06,0.040
-2.380E-06,0.060
-2.370E-06,0.120
-2.360E-06,0.160
-2.350E-06,0.220
-2.340E-06,0.200
-2.330E-06,0.180
-2.320E-06,0.060
-2.310E-06,0.020
-2.300E-06,-0.060
-2.290E-06,0.080
-2.280E-06,0.080
-2.270E-06,0.320
-2.260E-06,0.300
-2.250E-06,0.080
-2.240E-06,0.240
-2.230E-06,0.060
-2.220E-06,0.180
-2.210E-06,0.380
-2.200E-06,0.320
-2.190E-06,0.340
-2.180E-06,0.260
-2.170E-06,0.040
-2.160E-06,0.080
-2.150E-06,0.100
-2.140E-06,0.200
-2.130E-06,0.380
-2.120E-06,0.500
-2.110E-06,0.560
-2.100E-06,0.420
-2.090E-06,0.260
-2.080E-06,0.140
-2.070E-06,0.020
-2.060E-06,0.040
-2.050E-06,0.120
-2.040E-06,0.220
-2.030E-06,0.260
-2.020E-06,0.240
-2.010E-06,0.240
-2.000E-06,0.180
-1.990E-06,0.080
-1.980E-06,0.000
-1.970E-06,0.040
-1.960E-06,-0.060
-1.950E-06,-0.020
-1.940E-06,0.160
-1.930E-06,0.000
-1.920E-06,0.260
-1.910E-06,0.020
-1.900E-06,0.020
-1.890E-06,0.000
-1.880E-06,-0.120
-1.870E-06,-0.020
-1.860E-06,0.000
-1.850E-06,0.100
-1.840E-06,0.100
-1.830E-06,0.060
-1.820E-06,0.000
-1.810E-06,0.060
-1.800E-06,0.040
-1.790E-06,0.120
-1.780E-06,0.160
-1.770E-06,0.180
-1.760E-06,0.160
-1.750E-06,0.180
-1.740E-06,0.180
-1.730E-06,0.160
-1.720E-06,0.180
-1.710E-06,0.160
-1.700E-06,0.180
-1.690E-06,0.140
-1.680E-06,0.200
-1.670E-06,0.220
-1.660E-06,0.200
-1.650E-06,0.200
-1.640E-06,0.200
-1.630E-06,0.180
-1.620E-06,0.200
-1.610E-06,0.240
-1.600E-06,0.260
-1.590E-06,0.360
-1.580E-06,0.360
-1.570E-06,0.380
-1.560E-06,0.320
-1.550E-06,0.320
-1.540E-06,0.300
-1.530E-06,0.280
-1.520E-06,0.320
-1.510E-06,0.300
-1.500E-06,0.360
-1.490E-06,0.400
-1.480E-06,0.320
-1.470E-06,0.260
-1.460E-06,0.240
-1.450E-06,0.220
-1.440E-06,0.240
-1.430E-06,0.240
-1.420E-06,0.260
-1.410E-06,0.320
-1.400E-06,0.360
-1.390E-06,0.180
-1.380E-06,0.180
-1.370E-06,0.080
-1.360E-06,0.120
-1.350E-06,0.320
-1.340E-06,0.360
-1.330E-06,0.420
-1.320E-06,0.480
-1.310E-06,0.320
-1.300E-06,0.300
-1.290E-06,0.340
-1.280E-06,0.420
-1.270E-06,0.760
-1.260E-06,0.620
-1.250E-06,0.560
-1.240E-06,0.200
-1.230E-06,0.680
-1.220E-06,0.360
-1.210E-06,0.360
-1.200E-06,0.200
-1.190E-06,0.200
-1.180E-06,0.120
-1.170E-06,0.460
-1.160E-06,0.660
-1.150E-06,0.840
-1.140E-06,1.220
-1.130E-06,0.540
-1.120E-06,0.640
-1.110E-06,0.560
-1.100E-06,0.480
-1.090E-06,0.860
-1.080E-06,0.740
-1.070E-06,1.040
-1.060E-06,0.800
-1.050E-06,0.820
-1.040E-06,0.800
-1.030E-06,0.660
-1.020E-06,0.620
-1.010E-06,0.480
-1.000E-06,0.620
-9.900E-07,0.800
-9.800E-07,0.640
-9.700E-07,0.720
-9.600E-07,0.680
-9.500E-07,0.580
-9.400E-07,0.320
-9.300E-07,0.520
-9.200E-07,0.040
-9.100E-07,0.020
-9.000E-07,-0.080
-8.900E-07,-0.300
-8.800E-07,-0.020
-8.700E-07,0.020
-8.600E-07,0.060
-8.500E-07,0.060
-8.400E-07,-0.080
-8.300E-07,-0.120
-8.200E-07,0.000
-8.100E-07,0.160
-8.000E-07,0.260
-7.900E-07,0.320
-7.800E-07,0.080
-7.700E-07,-0.200
-7.600E-07,-0.260
-7.500E-07,-0.420
-7.400E-07,-0.140
-7.300E-07,-0.180
-7.200E-07,-0.120
-7.100E-07,-0.180
-7.000E-07,-0.260
-6.900E-07,-0.100
-6.800E-07,-0.100
-6.700E-07,0.300
-6.600E-07,0.000
-6.500E-07,0.140
-6.400E-07,0.040
-6.300E-07,-0.020
-6.200E-07,0.240
-6.100E-07,0.440
-6.000E-07,0.460
-5.900E-07,0.520
-5.800E-07,0.200
-5.700E-07,0.080
-5.600E-07,0.160
-5.500E-07,0.200
-5.400E-07,0.380
-5.300E-07,0.480
-5.200E-07,0.440
-5.100E-07,0.220
-5.000E-07,0.360
-4.900E-07,0.340
-4.800E-07,0.480
-4.700E-07,0.480
-4.600E-07,0.480
-4.500E-07,0.840
-4.400E-07,0.800
-4.300E-07,0.780
-4.200E-07,0.680
-4.100E-07,0.480
-4.000E-07,0.400
-3.900E-07,0.420
-3.800E-07,0.220
-3.700E-07,0.460
-3.600E-07,0.420
-3.500E-07,0.280
-3.400E-07,0.420
-3.300E-07,0.240
-3.200E-07,0.260
-3.100E-07,0.340
-3.000E-07,0.160
-2.900E-07,0.300
-2.800E-07,0.200
-2.700E-07,0.160
-2.600E-07,0.200
-2.500E-07,0.160
-2.400E-07,0.180
-2.300E-07,0.140
-2.200E-07,0.020
-2.100E-07,0.020
-2.000E-07,-0.080
-1.900E-07,-0.080
-1.800E-07,0.020
-1.700E-07,-0.020
-1.600E-07,0.060
-1.500E-07,0.160
-1.400E-07,0.100
-1.300E-07,0.200
-1.200E-07,0.320
-1.100E-07,0.340
-1.000E-07,0.400
-9.000E-08,0.400
-8.000E-08,0.760
-7.000E-08,0.800
-6.000E-08,0.940
-5.000E-08,0.900
-4.000E-08,0.800
-3.000E-08,0.700
-2.000E-08,0.640
-1.000E-08,0.600
0.000E+00,0.820
1.000E-08,1.060
2.000E-08,1.160
3.000E-08,1.180
4.000E-08,0.900
5.000E-08,0.660
6.000E-08,0.420
7.000E-08,0.400
8.000E-08,0.520
9.000E-08,0.680
1.000E-07,0.800
1.100E-07,0.680
1.200E-07,0.500
1.300E-07,0.320
1.400E-07,0.200
1.500E-07,0.180
1.600E-07,0.220
1.700E-07,0.260
1.800E-07,0.260
1.900E-07,0.180
2.000E-07,0.080
2.100E-07,0.040
2.200E-07,0.040
2.300E-07,0.040
2.400E-07,0.040
2.500E-07,0.040
2.600E-07,0.040
2.700E-07,0.060
2.800E-07,0.100
2.900E-07,0.100
3.000E-07,0.080
3.100E-07,0.060
3.200E-07,0.020
3.300E-07,0.000
3.400E-07,0.000
3.500E-07,-0.040
3.600E-07,-0.080
3.700E-07,-0.100
3.800E-07,-0.100
3.900E-07,-0.120
4.000E-07,-0.100
4.100E-07,-0.140
4.200E-07,-0.200
4.300E-07,-0.240
4.400E-07,-0.260
4.500E-07,-0.320
4.600E-07,-0.360
4.700E-07,-0.400
4.800E-07,-0.360
4.900E-07,-0.400
5.000E-07,-0.400
5.100E-07,-0.480
5.200E-07,-0.560
5.300E-07,-0.580
5.400E-07,-0.700
5.500E-07,-0.660
5.600E-07,-0.740
5.700E-07,-0.820
5.800E-07,-0.920
5.900E-07,-1.100
6.000E-07,-1.320
6.100E-07,-1.600
6.200E-07,-1.960
6.300E-07,-2.300
6.400E-07,-2.660
6.500E-07,-2.660
6.600E-07,-2.660
6.700E-07,-2.660
6.800E-07,-2.660
6.900E-07,-2.660
7.000E-07,-2.660
7.100E-07,-2.660
7.200E-07,-2.660
7.300E-07,-2.660
7.400E-07,-2.660
7.500E-07,-2.640
7.600E-07,-2.660
7.700E-07,-2.660
7.800E-07,-2.660
7.900E-07,-2.660
8.000E-07,-2.660
8.100E-07,-2.660
8.200E-07,-2.660
8.300E-07,-2.540
8.400E-07,-2.300
8.500E-07,-1.980
8.600E-07,-1.700
8.700E-07,-1.500
8.800E-07,-1.320
8.900E-07,-1.060
9.000E-07,-0.900
9.100E-07,-0.700
9.200E-07,-0.600
9.300E-07,-0.460
9.400E-07,-0.340
9.500E-07,-0.300
9.600E-07,-0.220
9.700E-07,-0.140
9.800E-07,-0.080
9.900E-07,0.000
1.000E-06,-0.020
1.010E-06,0.000
1.020E-06,-0.020
1.030E-06,-0.020
1.040E-06,-0.040
1.050E-06,-0.020
1.060E-06,0.000
1.070E-06,-0.060
1.080E-06,-0.100
1.090E-06,-0.160
1.100E-06,-0.220
1.110E-06,-0.260
1.120E-06,-0.280
1.130E-06,-0.320
1.140E-06,-0.380
1.150E-06,-0.420
1.160E-06,-0.480
1.170E-06,-0.560
1.180E-06,-0.620
1.190E-06,-0.660
1.200E-06,-0.680
1.210E-06,-0.680
1.220E-06,-0.740
1.230E-06,-0.720
1.240E-06,-0.680
1.250E-06,-0.600
1.260E-06,-0.600
1.270E-06,-0.580
1.280E-06,-0.460
1.290E-06,-0.360
1.300E-06,-0.300
1.310E-06,-0.160
1.320E-06,-0.160
1.330E-06,-0.020
1.340E-06,0.040
1.350E-06,0.080
1.360E-06,0.180
1.370E-06,0.260
1.380E-06,0.340
1.390E-06,0.440
1.400E-06,0.420
1.410E-06,0.500
1.420E-06,0.560
1.430E-06,0.520
1.440E-06,0.580
1.450E-06,0.640
1.460E-06,0.600
1.470E-06,0.560
1.480E-06,0.560
1.490E-06,0.600
1.500E-06,0.580
1.510E-06,0.660
1.520E-06,0.780
1.530E-06,0.720
1.540E-06,0.760
1.550E-06,0.720
1.560E-06,0.760
1.570E-06,0.820
1.580E-06,0.800
1.590E-06,0.760
1.600E-06,0.740
1.610E-06,0.660
1.620E-06,0.640
1.630E-06,0.620
1.640E-06,0.520
1.650E-06,0.500
1.660E-06,0.520
1.670E-06,0.460
1.680E-06,0.500
1.690E-06,0.500
1.700E-06,0.400
1.710E-06,0.460
1.720E-06,0.440
1.730E-06,0.400
1.740E-06,0.380
1.750E-06,0.300
1.760E-06,0.280
1.770E-06,0.240
1.780E-06,0.220
1.790E-06,0.220
1.800E-06,0.240
1.810E-06,0.240
1.820E-06,0.280
1.830E-06,0.300
1.840E-06,0.320
1.850E-06,0.280
1.860E-06,0.280
1.870E-06,0.240
1.880E-06,0.200
1.890E-06,0.180
1.900E-06,0.100
1.910E-06,0.120
1.920E-06,0.040
1.930E-06,0.000
1.940E-06,0.000
1.950E-06,-0.020
1.960E-06,-0.060
1.970E-06,-0.100
1.980E-06,-0.160
1.990E-06,-0.180
2.000E-06,-0.180
2.010E-06,-0.220
2.020E-06,-0.220
2.030E-06,-0.220
2.040E-06,-0.260
2.050E-06,-0.300
2.060E-06,-0.340
2.070E-06,-0.340
2.080E-06,-0.320
2.090E-06,-0.320
2.100E-06,-0.380
2.110E-06,-0.420
2.120E-06,-0.420
2.130E-06,-0.460
2.140E-06,-0.440
2.150E-06,-0.420
2.160E-06,-0.360
2.170E-06,-0.320
2.180E-06,-0.280
2.190E-06,-0.180
2.200E-06,-0.120
2.210E-06,-0.120
2.220E-06,0.000
2.230E-06,-0.020
2.240E-06,0.000
2.250E-06,-0.020
2.260E-06,-0.060
2.270E-06,-0.120
2.280E-06,-0.120
2.290E-06,-0.160
2.300E-06,-0.140
2.310E-06,-0.060
2.320E-06,0.020
2.330E-06,0.140
2.340E-06,0.260
2.350E-06,0.400
2.360E-06,0.420
2.370E-06,0.520
2.380E-06,0.540
2.390E-06,0.560
2.400E-06,0.580
2.410E-06,0.620
2.420E-06,0.600
2.430E-06,0.600
2.440E-06,0.600
2.450E-06,0.640
2.460E-06,0.620
2.470E-06,0.580
2.480E-06,0.520
2.490E-06,0.480
2.500E-06,0.420
2.510E-06,0.340
2.520E-06,0.260
2.530E-06,0.220
2.540E-06,0.160
2.550E-06,0.120
2.560E-06,0.080
2.570E-06,0.080
2.580E-06,0.060
2.590E-06,0.020
2.600E-06,0.040
2.610E-06,0.040
2.620E-06,0.040
2.630E-06,0.040
2.640E-06,0.000
2.650E-06,-0.040
2.660E-06,-0.060
2.670E-06,-0.140
2.680E-06,-0.180
2.690E-06,-0.240
2.700E-06,-0.280
2.710E-06,-0.280
2.720E-06,-0.280
2.730E-06,-0.240
2.740E-06,-0.180
2.750E-06,-0.180
2.760E-06,-0.120
2.770E-06,-0.040
2.780E-06,0.000
2.790E-06,0.020
2.800E-06,0.080
2.810E-06,0.080
2.820E-06,0.120
2.830E-06,0.160
2.840E-06,0.160
2.850E-06,0.080
2.860E-06,0.120
2.870E-06,0.100
2.880E-06,0.080
2.890E-06,0.080
2.900E-06,0.060
2.910E-06,-0.020
2.920E-06,-0.040
2.930E-06,-0.100
2.940E-06,-0.140
2.950E-06,-0.160
2.960E-06,-0.160
2.970E-06,-0.160
2.980E-06,-0.160
2.990E-06,-0.100
3.000E-06,-0.060
3.010E-06,-0.060
3.020E-06,-0.060
3.030E-06,-0.040
3.040E-06,-0.040
3.050E-06,-0.060
3.060E-06,0.000
3.070E-06,0.020
3.080E-06,0.060
3.090E-06,0.100
3.100E-06,0.080
3.110E-06,0.100
3.120E-06,0.060
3.130E-06,0.100
3.140E-06,0.160
3.150E-06,0.120
3.160E-06,0.160
3.170E-06,0.160
3.180E-06,0.140
3.190E-06,0.180
3.200E-06,0.180
3.210E-06,0.260
3.220E-06,0.340
3.230E-06,0.420
3.240E-06,0.500
3.250E-06,0.560
3.260E-06,0.580
3.270E-06,0.600
3.280E-06,0.580
3.290E-06,0.500
3.300E-06,0.480
3.310E-06,0.440
3.320E-06,0.420
3.330E-06,0.360
3.340E-06,0.320
3.350E-06,0.340
3.360E-06,0.340
3.370E-06,0.340
3.380E-06,0.320
3.390E-06,0.340
3.400E-06,0.400
3.410E-06,0.400
3.420E-06,0.380
3.430E-06,0.340
3.440E-06,0.240
3.450E-06,0.160
3.460E-06,0.100
3.470E-06,0.100
3.480E-06,0.160
3.490E-06,0.160
3.500E-06,0.220
3.510E-06,0.260
3.520E-06,0.320
3.530E-06,0.360
3.540E-06,0.320
3.550E-06,0.320
3.560E-06,0.360
3.570E-06,0.360
3.580E-06,0.360
3.590E-06,0.400
3.600E-06,0.380
3.610E-06,0.440
3.620E-06,0.540
3.630E-06,0.580
3.640E-06,0.660
3.650E-06,0.680
3.660E-06,0.680
3.670E-06,0.660
3.680E-06,0.580
3.690E-06,0.500
3.700E-06,0.380
3.710E-06,0.280
3.720E-06,0.120
3.730E-06,0.020
3.740E-06,-0.100
3.750E-06,-0.160
3.760E-06,-0.260
3.770E-06,-0.340
3.780E-06,-0.360
3.790E-06,-0.380
3.800E-06,-0.340
3.810E-06,-0.280
3.820E-06,-0.240
3.830E-06,-0.120
3.840E-06,-0.060
3.850E-06,0.060
3.860E-06,0.160
3.870E-06,0.260
3.880E-06,0.320
3.890E-06,0.320
3.900E-06,0.380
3.910E-06,0.420
3.920E-06,0.460
3.930E-06,0.480
3.940E-06,0.560
3.950E-06,0.660
3.960E-06,0.780
3.970E-06,0.860
3.980E-06,0.880
3.990E-06,0.940
4.000E-06,0.940
4.010E-06,0.940
4.020E-06,0.920
4.030E-06,0.880
4.040E-06,0.840
4.050E-06,0.800
4.060E-06,0.760
4.070E-06,0.700
4.080E-06,0.700
4.090E-06,0.640
4.100E-06,0.600
4.110E-06,0.600
4.120E-06,0.580
4.130E-06,0.620
4.140E-06,0.600
4.150E-06,0.660
4.160E-06,0.700
4.170E-06,0.700
4.180E-06,0.740
4.190E-06,0.740
4.200E-06,0.760
4.210E-06,0.680
4.220E-06,0.640
4.230E-06,0.560
4.240E-06,0.480
4.250E-06,0.400
4.260E-06,0.320
4.270E-06,0.300
4.280E-06,0.300
4.290E-06,0.320
4.300E-06,0.400
4.310E-06,0.440
4.320E-06,0.540
4.330E-06,0.660
4.340E-06,0.780
4.350E-06,0.960
4.360E-06,1.200
4.370E-06,1.440
4.380E-06,1.780
4.390E-06,2.180
4.400E-06,2.600
4.410E-06,2.760
4.420E-06,2.760
4.430E-06,2.740
4.440E-06,2.760
4.450E-06,2.780
4.460E-06,2.780
4.470E-06,2.760
4.480E-06,2.760
4.490E-06,2.760
4.500E-06,2.760
4.510E-06,2.760
4.520E-06,2.740
4.530E-06,2.760
4.540E-06,2.780
4.550E-06,2.760
4.560E-06,2.740
4.570E-06,2.760
4.580E-06,2.760
4.590E-06,2.680
4.600E-06,2.300
4.610E-06,1.960
4.620E-06,1.640
4.630E-06,1.360
4.640E-06,1.180
4.650E-06,1.020
4.660E-06,0.880
4.670E-06,0.780
4.680E-06,0.700
4.690E-06,0.620
4.700E-06,0.560
4.710E-06,0.520
4.720E-06,0.500
4.730E-06,0.500
4.740E-06,0.500
4.750E-06,0.500
4.760E-06,0.520
4.770E-06,0.540
4.780E-06,0.540
4.790E-06,0.560
4.800E-06,0.520
4.810E-06,0.500
4.820E-06,0.480
4.830E-06,0.460
4.840E-06,0.440
4.850E-06,0.420
4.860E-06,0.480
4.870E-06,0.500
4.880E-06,0.500
4.890E-06,0.560
4.900E-06,0.560
4.910E-06,0.540
4.920E-06,0.540
4.930E-06,0.540
4.940E-06,0.500
4.950E-06,0.480
4.960E-06,0.380
4.970E-06,0.360
4.980E-06,0.280
4.990E-06,0.260
5.000E-06,0.220
5.010E-06,0.200
5.020E-06,0.240
5.030E-06,0.220
5.040E-06,0.260
5.050E-06,0.240
5.060E-06,0.280
5.070E-06,0.280
5.080E-06,0.260
5.090E-06,0.240
5.100E-06,0.220
5.110E-06,0.240
5.120E-06,0.240
5.130E-06,0.280
5.140E-06,0.340
5.150E-06,0.400
5.160E-06,0.400
5.170E-06,0.480
5.180E-06,0.500
5.190E-06,0.500
5.200E-06,0.500
5.210E-06,0.500
5.220E-06,0.480
5.230E-06,0.440
5.240E-06,0.460
5.250E-06,0.440
5.260E-06,0.420
5.270E-06,0.420
5.280E-06,0.420
5.290E-06,0.440
5.300E-06,0.460
5.310E-06,0.460
5.320E-06,0.500
5.330E-06,0.460
5.340E-06,0.440
5.350E-06,0.400
5.360E-06,0.380
5.370E-06,0.320
5.380E-06,0.280
5.390E-06,0.260
5.400E-06,0.240
5.410E-06,0.240
5.420E-06,0.240
5.430E-06,0.240
5.440E-06,0.240
5.450E-06,0.300
5.460E-06,0.300
5.470E-06,0.360
5.480E-06,0.320
5.490E-06,0.340
5.500E-06,0.340
5.510E-06,0.360
5.520E-06,0.340
5.530E-06,0.320
5.540E-06,0.340
5.550E-06,0.380
5.560E-06,0.420
5.570E-06,0.380
5.580E-06,0.380
5.590E-06,0.420
5.600E-06,0.400
5.610E-06,0.440
5.620E-06,0.440
5.630E-06,0.440
5.640E-06,0.480
5.650E-06,0.440
5.660E-06,0.420
5.670E-06,0.440
5.680E-06,0.400
5.690E-06,0.400
5.700E-06,0.380
5.710E-06,0.380
5.720E-06,0.400
5.730E-06,0.420
5.740E-06,0.400
5.750E-06,0.440
5.760E-06,0.480
5.770E-06,0.460
5.780E-06,0.500
5.790E-06,0.500
5.800E-06,0.500
5.810E-06,0.500
5.820E-06,0.500
5.830E-06,0.560
5.840E-06,0.520
5.850E-06,0.520
5.860E-06,0.480
5.870E-06,0.420
5.880E-06,0.400
5.890E-06,0.400
5.900E-06,0.380
5.910E-06,0.400
5.920E-06,0.360
5.930E-06,0.380
5.940E-06,0.400
5.950E-06,0.420
5.960E-06,0.440
5.970E-06,0.440
5.980E-06,0.420
5.990E-06,0.440
6.000E-06,0.460
6.010E-06,0.420
6.020E-06,0.480
6.030E-06,0.480
6.040E-06,0.460
6.050E-06,0.480
6.060E-06,0.480
6.070E-06,0.500
6.080E-06,0.500
6.090E-06,0.500
6.100E-06,0.500
6.110E-06,0.540
6.120E-06,0.540
6.130E-06,0.520
6.140E-06,0.560
6.150E-06,0.540
6.160E-06,0.560
6.170E-06,0.560
6.180E-06,0.580
6.190E-06,0.580
6.200E-06,0.600
6.210E-06,0.620
6.220E-06,0.620
6.230E-06,0.620
6.240E-06,0.640
6.250E-06,0.620
6.260E-06,0.620
6.270E-06,0.620
6.280E-06,0.600
6.290E-06,0.600
6.300E-06,0.620
6.310E-06,0.640
6.320E-06,0.660
6.330E-06,0.700
6.340E-06,0.700
6.350E-06,0.740
6.360E-06,0.740
6.370E-06,0.780
6.380E-06,0.820
6.390E-06,0.840
6.400E-06,0.880
6.410E-06,0.860
6.420E-06,0.880
6.430E-06,0.900
6.440E-06,0.900
6.450E-06,0.940
6.460E-06,0.940
6.470E-06,0.920
6.480E-06,0.920
6.490E-06,0.900
6.500E-06,0.900
6.510E-06,0.860
6.520E-06,0.860
6.530E-06,0.860
6.540E-06,0.860
6.550E-06,0.840
6.560E-06,0.880
6.570E-06,0.880
6.580E-06,0.880
6.590E-06,0.880
6.600E-06,0.880
6.610E-06,0.900
6.620E-06,0.900
6.630E-06,0.920
6.640E-06,0.900
6.650E-06,0.920
6.660E-06,0.920
6.670E-06,0.940
6.680E-06,0.940
6.690E-06,1.000
6.700E-06,0.980
6.710E-06,0.960
6.720E-06,0.960
6.730E-06,0.980
6.740E-06,0.980
6.750E-06,0.940
6.760E-06,0.920
6.770E-06,0.920
6.780E-06,0.900
6.790E-06,0.940
6.800E-06,0.920
6.810E-06,0.920
6.820E-06,0.900
6.830E-06,0.920
6.840E-06,0.920
6.850E-06,0.920
6.860E-06,0.920
6.870E-06,0.900
6.880E-06,0.920
6.890E-06,0.940
6.900E-06,0.920
6.910E-06,0.900
6.920E-06,0.900
6.930E-06,0.900
6.940E-06,0.900
6.950E-06,0.900
6.960E-06,0.940
6.970E-06,0.920
6.980E-06,0.900
6.990E-06,0.920
7.000E-06,0.940
7.010E-06,0.920
7.020E-06,0.900
7.030E-06,0.900
7.040E-06,0.940
7.050E-06,0.920
7.060E-06,0.940
7.070E-06,0.940
7.080E-06,0.880
7.090E-06,0.920
7.100E-06,0.920
7.110E-06,0.920
7.120E-06,0.920
7.130E-06,0.940
7.140E-06,0.940
7.150E-06,0.940
7.160E-06,0.980
7.170E-06,0.980
7.180E-06,0.980
7.190E-06,1.000
7.200E-06,1.000
7.210E-06,1.000
7.220E-06,1.000
7.230E-06,1.020
7.240E-06,1.020
7.250E-06,1.020
7.260E-06,1.040
7.270E-06,1.040
7.280E-06,1.060
7.290E-06,1.060
7.300E-06,1.040
7.310E-06,1.080
7.320E-06,1.060
7.330E-06,1.060
7.340E-06,1.060
7.350E-06,1.060
7.360E-06,1.060
7.370E-06,1.100
7.380E-06,1.080
7.390E-06,1.100
7.400E-06,1.080
7.410E-06,1.080
7.420E-06,1.080
7.430E-06,1.080
7.440E-06,1.080
7.450E-06,1.100
7.460E-06,1.080
7.470E-06,1.100
7.480E-06,1.120
7.490E-06,1.120
7.500E-06,1.100
7.510E-06,1.100
7.520E-06,1.100
7.530E-06,1.080
7.540E-06,1.080
7.550E-06,1.080
7.560E-06,1.080
7.570E-06,1.040
7.580E-06,1.060
7.590E-06,1.020
7.600E-06,1.020
7.610E-06,1.040
7.620E-06,1.040
7.630E-06,1.060
7.640E-06,1.000
7.650E-06,1.000
7.660E-06,1.020
7.670E-06,1.040
7.680E-06,1.000
7.690E-06,1.000
7.700E-06,0.980
7.710E-06,0.980
7.720E-06,1.020
7.730E-06,0.980
7.740E-06,1.000
7.750E-06,1.000
7.760E-06,0.980
7.770E-06,0.980
7.780E-06,0.980
7.790E-06,1.000
7.800E-06,1.000
7.810E-06,1.000
