mediciones/Mediciones filtradas (saque las feas)/6-10/40/WaveData5516.csv

#timebase=2000000(ps)
,#voltbase=100000(mv/100)
#size=4000
-4.250E-06,0.008
-4.240E-06,0.016
-4.230E-06,0.024
-4.220E-06,0.016
-4.210E-06,0.024
-4.200E-06,0.024
-4.190E-06,0.032
-4.180E-06,0.020
-4.170E-06,0.008
-4.160E-06,0.008
-4.150E-06,0.024
-4.140E-06,0.004
-4.130E-06,0.056
-4.120E-06,0.024
-4.110E-06,-0.020
-4.100E-06,-0.168
-4.090E-06,-0.104
-4.080E-06,0.032
-4.070E-06,0.052
-4.060E-06,0.060
-4.050E-06,-0.020
-4.040E-06,-0.036
-4.030E-06,-0.012
-4.020E-06,-0.028
-4.010E-06,-0.016
-4.000E-06,-0.024
-3.990E-06,0.012
-3.980E-06,0.012
-3.970E-06,0.052
-3.960E-06,0.016
-3.950E-06,0.016
-3.940E-06,-0.004
-3.930E-06,-0.004
-3.920E-06,-0.004
-3.910E-06,0.008
-3.900E-06,0.000
-3.890E-06,-0.004
-3.880E-06,0.036
-3.870E-06,0.012
-3.860E-06,0.032
-3.850E-06,-0.012
-3.840E-06,0.000
-3.830E-06,-0.032
-3.820E-06,0.000
-3.810E-06,0.008
-3.800E-06,0.024
-3.790E-06,0.044
-3.780E-06,0.024
-3.770E-06,0.040
-3.760E-06,0.028
-3.750E-06,-0.036
-3.740E-06,-0.048
-3.730E-06,-0.048
-3.720E-06,-0.100
-3.710E-06,-0.008
-3.700E-06,0.076
-3.690E-06,0.124
-3.680E-06,0.020
-3.670E-06,-0.020
-3.660E-06,-0.036
-3.650E-06,-0.080
-3.640E-06,-0.048
-3.630E-06,-0.024
-3.620E-06,0.056
-3.610E-06,0.104
-3.600E-06,0.092
-3.590E-06,-0.016
-3.580E-06,-0.088
-3.570E-06,-0.104
-3.560E-06,-0.052
-3.550E-06,0.036
-3.540E-06,0.080
-3.530E-06,0.076
-3.520E-06,0.024
-3.510E-06,-0.008
-3.500E-06,-0.048
-3.490E-06,-0.040
-3.480E-06,-0.032
-3.470E-06,0.016
-3.460E-06,0.032
-3.450E-06,0.052
-3.440E-06,0.028
-3.430E-06,0.000
-3.420E-06,-0.020
-3.410E-06,-0.032
-3.400E-06,-0.012
-3.390E-06,0.004
-3.380E-06,0.036
-3.370E-06,0.032
-3.360E-06,0.020
-3.350E-06,0.004
-3.340E-06,-0.008
-3.330E-06,-0.012
-3.320E-06,-0.004
-3.310E-06,0.004
-3.300E-06,0.012
-3.290E-06,0.024
-3.280E-06,0.016
-3.270E-06,0.016
-3.260E-06,-0.008
-3.250E-06,-0.016
-3.240E-06,-0.020
-3.230E-06,-0.008
-3.220E-06,0.008
-3.210E-06,0.024
-3.200E-06,0.032
-3.190E-06,0.012
-3.180E-06,0.004
-3.170E-06,-0.016
-3.160E-06,-0.016
-3.150E-06,-0.008
-3.140E-06,0.008
-3.130E-06,0.024
-3.120E-06,0.024
-3.110E-06,0.016
-3.100E-06,0.000
-3.090E-06,-0.004
-3.080E-06,-0.008
-3.070E-06,-0.004
-3.060E-06,0.004
-3.050E-06,0.016
-3.040E-06,0.024
-3.030E-06,0.012
-3.020E-06,0.000
-3.010E-06,-0.004
-3.000E-06,-0.008
-2.990E-06,0.004
-2.980E-06,0.012
-2.970E-06,0.016
-2.960E-06,0.008
-2.950E-06,0.012
-2.940E-06,0.004
-2.930E-06,0.000
-2.920E-06,-0.004
-2.910E-06,0.000
-2.900E-06,0.012
-2.890E-06,0.024
-2.880E-06,0.024
-2.870E-06,0.012
-2.860E-06,-0.004
-2.850E-06,0.000
-2.840E-06,-0.004
-2.830E-06,0.016
-2.820E-06,0.024
-2.810E-06,0.016
-2.800E-06,0.004
-2.790E-06,-0.004
-2.780E-06,-0.004
-2.770E-06,0.000
-2.760E-06,0.008
-2.750E-06,0.020
-2.740E-06,0.024
-2.730E-06,0.012
-2.720E-06,0.000
-2.710E-06,-0.012
-2.700E-06,0.000
-2.690E-06,0.004
-2.680E-06,0.028
-2.670E-06,0.032
-2.660E-06,0.016
-2.650E-06,0.008
-2.640E-06,-0.004
-2.630E-06,-0.008
-2.620E-06,-0.016
-2.610E-06,-0.020
-2.600E-06,0.000
-2.590E-06,0.004
-2.580E-06,0.028
-2.570E-06,0.028
-2.560E-06,0.020
-2.550E-06,0.000
-2.540E-06,-0.016
-2.530E-06,-0.028
-2.520E-06,-0.008
-2.510E-06,0.012
-2.500E-06,0.024
-2.490E-06,0.028
-2.480E-06,0.020
-2.470E-06,0.008
-2.460E-06,-0.040
-2.450E-06,0.020
-2.440E-06,0.032
-2.430E-06,0.048
-2.420E-06,0.028
-2.410E-06,0.056
-2.400E-06,0.036
-2.390E-06,0.024
-2.380E-06,0.020
-2.370E-06,0.000
-2.360E-06,-0.064
-2.350E-06,-0.072
-2.340E-06,0.000
-2.330E-06,-0.004
-2.320E-06,0.028
-2.310E-06,0.028
-2.300E-06,0.024
-2.290E-06,-0.004
-2.280E-06,-0.036
-2.270E-06,-0.028
-2.260E-06,-0.024
-2.250E-06,0.024
-2.240E-06,0.040
-2.230E-06,0.032
-2.220E-06,0.000
-2.210E-06,-0.016
-2.200E-06,-0.040
-2.190E-06,-0.040
-2.180E-06,-0.024
-2.170E-06,0.008
-2.160E-06,0.028
-2.150E-06,0.028
-2.140E-06,0.016
-2.130E-06,-0.020
-2.120E-06,-0.024
-2.110E-06,-0.028
-2.100E-06,-0.004
-2.090E-06,0.012
-2.080E-06,0.020
-2.070E-06,0.020
-2.060E-06,0.020
-2.050E-06,0.000
-2.040E-06,-0.012
-2.030E-06,-0.020
-2.020E-06,-0.008
-2.010E-06,0.008
-2.000E-06,0.028
-1.990E-06,0.032
-1.980E-06,0.028
-1.970E-06,0.024
-1.960E-06,0.008
-1.950E-06,-0.008
-1.940E-06,-0.008
-1.930E-06,-0.004
-1.920E-06,0.012
-1.910E-06,0.032
-1.900E-06,0.044
-1.890E-06,0.024
-1.880E-06,0.012
-1.870E-06,0.000
-1.860E-06,0.000
-1.850E-06,0.020
-1.840E-06,0.024
-1.830E-06,0.024
-1.820E-06,0.016
-1.810E-06,0.012
-1.800E-06,-0.004
-1.790E-06,-0.012
-1.780E-06,-0.008
-1.770E-06,0.008
-1.760E-06,0.028
-1.750E-06,0.028
-1.740E-06,0.044
-1.730E-06,0.044
-1.720E-06,0.044
-1.710E-06,0.032
-1.700E-06,-0.004
-1.690E-06,-0.016
-1.680E-06,-0.004
-1.670E-06,0.020
-1.660E-06,0.056
-1.650E-06,0.072
-1.640E-06,0.072
-1.630E-06,0.056
-1.620E-06,0.024
-1.610E-06,0.008
-1.600E-06,0.024
-1.590E-06,0.024
-1.580E-06,0.016
-1.570E-06,0.004
-1.560E-06,0.008
-1.550E-06,0.016
-1.540E-06,0.028
-1.530E-06,-0.108
-1.520E-06,-0.072
-1.510E-06,-0.316
-1.500E-06,-0.184
-1.490E-06,-0.188
-1.480E-06,-0.140
-1.470E-06,0.148
-1.460E-06,0.040
-1.450E-06,0.124
-1.440E-06,-0.060
-1.430E-06,-0.072
-1.420E-06,-0.076
-1.410E-06,-0.064
-1.400E-06,0.088
-1.390E-06,0.132
-1.380E-06,0.052
-1.370E-06,-0.040
-1.360E-06,-0.056
-1.350E-06,-0.072
-1.340E-06,0.008
-1.330E-06,0.032
-1.320E-06,0.044
-1.310E-06,0.008
-1.300E-06,0.008
-1.290E-06,-0.024
-1.280E-06,0.004
-1.270E-06,0.012
-1.260E-06,0.008
-1.250E-06,0.020
-1.240E-06,0.000
-1.230E-06,0.012
-1.220E-06,-0.008
-1.210E-06,0.016
-1.200E-06,0.012
-1.190E-06,0.032
-1.180E-06,0.012
-1.170E-06,0.012
-1.160E-06,-0.008
-1.150E-06,-0.012
-1.140E-06,-0.004
-1.130E-06,0.000
-1.120E-06,0.044
-1.110E-06,0.028
-1.100E-06,0.036
-1.090E-06,0.020
-1.080E-06,0.028
-1.070E-06,0.020
-1.060E-06,0.044
-1.050E-06,0.056
-1.040E-06,0.040
-1.030E-06,0.020
-1.020E-06,-0.008
-1.010E-06,0.004
-1.000E-06,0.028
-9.900E-07,0.032
-9.800E-07,0.004
-9.700E-07,-0.028
-9.600E-07,-0.052
-9.500E-07,-0.060
-9.400E-07,-0.040
-9.300E-07,-0.040
-9.200E-07,0.028
-9.100E-07,-0.004
-9.000E-07,-0.020
-8.900E-07,0.004
-8.800E-07,-0.016
-8.700E-07,-0.024
-8.600E-07,-0.028
-8.500E-07,-0.004
-8.400E-07,0.020
-8.300E-07,0.052
-8.200E-07,0.036
-8.100E-07,0.032
-8.000E-07,0.024
-7.900E-07,0.012
-7.800E-07,0.012
-7.700E-07,0.008
-7.600E-07,0.012
-7.500E-07,0.028
-7.400E-07,0.044
-7.300E-07,0.032
-7.200E-07,0.032
-7.100E-07,0.028
-7.000E-07,0.024
-6.900E-07,0.036
-6.800E-07,0.052
-6.700E-07,0.072
-6.600E-07,0.080
-6.500E-07,0.064
-6.400E-07,0.056
-6.300E-07,0.040
-6.200E-07,-0.008
-6.100E-07,-0.088
-6.000E-07,-0.068
-5.900E-07,-0.164
-5.800E-07,-0.180
-5.700E-07,-0.116
-5.600E-07,0.052
-5.500E-07,0.168
-5.400E-07,0.120
-5.300E-07,0.016
-5.200E-07,-0.040
-5.100E-07,-0.088
-5.000E-07,-0.072
-4.900E-07,-0.056
-4.800E-07,0.024
-4.700E-07,0.108
-4.600E-07,0.124
-4.500E-07,0.040
-4.400E-07,-0.072
-4.300E-07,-0.108
-4.200E-07,-0.084
-4.100E-07,0.000
-4.000E-07,0.056
-3.900E-07,0.040
-3.800E-07,0.080
-3.700E-07,0.016
-3.600E-07,0.000
-3.500E-07,-0.048
-3.400E-07,0.016
-3.300E-07,-0.004
-3.200E-07,0.064
-3.100E-07,0.140
-3.000E-07,0.064
-2.900E-07,0.024
-2.800E-07,-0.040
-2.700E-07,-0.056
-2.600E-07,-0.076
-2.500E-07,-0.068
-2.400E-07,0.004
-2.300E-07,-0.008
-2.200E-07,0.076
-2.100E-07,0.076
-2.000E-07,0.012
-1.900E-07,-0.008
-1.800E-07,-0.036
-1.700E-07,0.008
-1.600E-07,0.056
-1.500E-07,0.092
-1.400E-07,0.084
-1.300E-07,0.068
-1.200E-07,0.044
-1.100E-07,0.008
-1.000E-07,-0.008
-9.000E-08,0.068
-8.000E-08,0.040
-7.000E-08,0.076
-6.000E-08,-0.040
-5.000E-08,-0.200
-4.000E-08,-0.492
-3.000E-08,-0.232
-2.000E-08,0.012
-1.000E-08,0.084
0.000E+00,0.196
1.000E-08,0.184
2.000E-08,0.028
3.000E-08,-0.116
4.000E-08,-0.116
5.000E-08,-0.092
6.000E-08,0.128
7.000E-08,0.320
8.000E-08,0.220
9.000E-08,-0.088
1.000E-07,-0.232
1.100E-07,-0.452
1.200E-07,-0.288
1.300E-07,0.000
1.400E-07,0.148
1.500E-07,0.208
1.600E-07,0.128
1.700E-07,0.064
1.800E-07,-0.116
1.900E-07,-0.140
2.000E-07,-0.056
2.100E-07,0.008
2.200E-07,0.080
2.300E-07,0.060
2.400E-07,0.012
2.500E-07,-0.068
2.600E-07,-0.036
2.700E-07,-0.024
2.800E-07,0.040
2.900E-07,0.052
3.000E-07,0.076
3.100E-07,0.048
3.200E-07,0.012
3.300E-07,0.016
3.400E-07,-0.004
3.500E-07,0.032
3.600E-07,0.004
3.700E-07,0.052
3.800E-07,-0.036
3.900E-07,-0.052
4.000E-07,-0.092
4.100E-07,-0.040
4.200E-07,0.012
4.300E-07,0.040
4.400E-07,0.028
4.500E-07,0.004
4.600E-07,0.024
4.700E-07,0.016
4.800E-07,0.004
4.900E-07,-0.028
5.000E-07,-0.008
5.100E-07,0.000
5.200E-07,0.020
5.300E-07,0.040
5.400E-07,0.040
5.500E-07,0.012
5.600E-07,-0.008
5.700E-07,-0.012
5.800E-07,-0.008
5.900E-07,0.012
6.000E-07,0.028
6.100E-07,0.056
6.200E-07,0.056
6.300E-07,0.040
6.400E-07,0.012
6.500E-07,0.000
6.600E-07,0.000
6.700E-07,0.016
6.800E-07,0.040
6.900E-07,0.048
7.000E-07,0.048
7.100E-07,0.028
7.200E-07,0.044
7.300E-07,0.036
7.400E-07,0.040
7.500E-07,0.036
7.600E-07,0.032
7.700E-07,0.044
7.800E-07,0.056
7.900E-07,0.068
8.000E-07,0.088
8.100E-07,0.104
8.200E-07,0.096
8.300E-07,0.100
8.400E-07,0.052
8.500E-07,0.032
8.600E-07,-0.036
8.700E-07,-0.020
8.800E-07,-0.004
8.900E-07,-0.004
9.000E-07,-0.032
9.100E-07,-0.040
9.200E-07,-0.004
9.300E-07,0.036
9.400E-07,0.096
9.500E-07,0.108
9.600E-07,0.120
9.700E-07,0.088
9.800E-07,0.088
9.900E-07,-0.052
1.000E-06,-0.348
1.010E-06,-0.348
1.020E-06,-0.188
1.030E-06,0.060
1.040E-06,0.264
1.050E-06,0.272
1.060E-06,0.148
1.070E-06,-0.164
1.080E-06,-0.508
1.090E-06,-0.508
1.100E-06,-0.312
1.110E-06,0.236
1.120E-06,0.404
1.130E-06,0.368
1.140E-06,0.128
1.150E-06,-0.256
1.160E-06,-0.352
1.170E-06,-0.328
1.180E-06,-0.100
1.190E-06,0.152
1.200E-06,0.360
1.210E-06,0.248
1.220E-06,0.136
1.230E-06,-0.112
1.240E-06,-0.248
1.250E-06,-0.228
1.260E-06,-0.080
1.270E-06,0.148
1.280E-06,0.192
1.290E-06,0.196
1.300E-06,0.076
1.310E-06,-0.008
1.320E-06,-0.076
1.330E-06,-0.052
1.340E-06,0.008
1.350E-06,0.092
1.360E-06,0.152
1.370E-06,0.112
1.380E-06,0.040
1.390E-06,-0.056
1.400E-06,-0.140
1.410E-06,-0.152
1.420E-06,0.020
1.430E-06,0.132
1.440E-06,0.268
1.450E-06,0.212
1.460E-06,0.072
1.470E-06,-0.056
1.480E-06,-0.104
1.490E-06,-0.044
1.500E-06,0.068
1.510E-06,0.192
1.520E-06,0.168
1.530E-06,0.184
1.540E-06,0.092
1.550E-06,0.008
1.560E-06,-0.040
1.570E-06,0.008
1.580E-06,0.100
1.590E-06,0.220
1.600E-06,0.260
1.610E-06,0.212
1.620E-06,0.120
1.630E-06,0.000
1.640E-06,-0.020
1.650E-06,0.000
1.660E-06,0.080
1.670E-06,0.096
1.680E-06,0.200
1.690E-06,0.108
1.700E-06,0.076
1.710E-06,0.052
1.720E-06,-0.168
1.730E-06,-0.368
1.740E-06,-0.512
1.750E-06,-0.512
1.760E-06,-0.512
1.770E-06,0.012
1.780E-06,0.252
1.790E-06,0.468
1.800E-06,0.276
1.810E-06,-0.120
1.820E-06,-0.308
1.830E-06,-0.508
1.840E-06,0.068
1.850E-06,0.164
1.860E-06,0.404
1.870E-06,0.212
1.880E-06,0.024
1.890E-06,-0.136
1.900E-06,-0.304
1.910E-06,-0.172
1.920E-06,-0.072
1.930E-06,0.204
1.940E-06,0.308
1.950E-06,0.300
1.960E-06,0.064
1.970E-06,-0.068
1.980E-06,-0.196
1.990E-06,-0.060
2.000E-06,0.120
2.010E-06,0.264
2.020E-06,0.348
2.030E-06,0.252
2.040E-06,0.128
2.050E-06,-0.140
2.060E-06,-0.152
2.070E-06,-0.136
2.080E-06,0.152
2.090E-06,0.256
2.100E-06,0.416
2.110E-06,0.332
2.120E-06,0.168
2.130E-06,0.024
2.140E-06,-0.052
2.150E-06,0.008
2.160E-06,0.068
2.170E-06,0.112
2.180E-06,0.092
2.190E-06,-0.052
2.200E-06,-0.240
2.210E-06,-0.340
2.220E-06,-0.380
2.230E-06,-0.096
2.240E-06,0.348
2.250E-06,0.228
2.260E-06,-0.096
2.270E-06,-0.512
2.280E-06,-0.512
2.290E-06,-0.512
2.300E-06,-0.236
2.310E-06,-0.056
2.320E-06,0.352
2.330E-06,0.424
2.340E-06,0.072
2.350E-06,-0.140
2.360E-06,-0.404
2.370E-06,-0.224
2.380E-06,0.012
2.390E-06,0.228
2.400E-06,0.228
2.410E-06,0.156
2.420E-06,0.120
2.430E-06,-0.032
2.440E-06,-0.076
2.450E-06,-0.136
2.460E-06,-0.100
2.470E-06,0.036
2.480E-06,0.164
2.490E-06,0.200
2.500E-06,0.164
2.510E-06,0.108
2.520E-06,-0.020
2.530E-06,-0.064
2.540E-06,-0.024
2.550E-06,-0.008
2.560E-06,0.120
2.570E-06,0.124
2.580E-06,0.140
2.590E-06,0.124
2.600E-06,0.128
2.610E-06,0.104
2.620E-06,0.104
2.630E-06,0.160
2.640E-06,0.208
2.650E-06,0.268
2.660E-06,0.228
2.670E-06,0.200
2.680E-06,0.136
2.690E-06,0.124
2.700E-06,0.120
2.710E-06,0.124
2.720E-06,0.160
2.730E-06,0.192
2.740E-06,0.248
2.750E-06,0.240
2.760E-06,0.204
2.770E-06,0.144
2.780E-06,0.132
2.790E-06,0.080
2.800E-06,0.040
2.810E-06,-0.036
2.820E-06,-0.076
2.830E-06,-0.088
2.840E-06,0.028
2.850E-06,0.180
2.860E-06,0.188
2.870E-06,0.176
2.880E-06,-0.084
2.890E-06,-0.104
2.900E-06,-0.384
2.910E-06,-0.272
2.920E-06,-0.272
2.930E-06,-0.124
2.940E-06,0.264
2.950E-06,0.320
2.960E-06,0.212
2.970E-06,0.104
2.980E-06,-0.176
2.990E-06,-0.368
3.000E-06,-0.340
3.010E-06,-0.324
3.020E-06,-0.300
3.030E-06,0.084
3.040E-06,0.180
3.050E-06,0.124
3.060E-06,0.108
3.070E-06,0.068
3.080E-06,0.176
3.090E-06,0.012
3.100E-06,0.088
3.110E-06,0.148
3.120E-06,0.204
3.130E-06,0.180
3.140E-06,-0.008
3.150E-06,-0.140
3.160E-06,-0.192
3.170E-06,-0.120
3.180E-06,-0.028
3.190E-06,0.192
3.200E-06,0.240
3.210E-06,0.228
3.220E-06,0.144
3.230E-06,0.124
3.240E-06,0.064
3.250E-06,0.092
3.260E-06,0.208
3.270E-06,0.244
3.280E-06,0.364
3.290E-06,0.308
3.300E-06,0.228
3.310E-06,0.136
3.320E-06,0.120
3.330E-06,0.144
3.340E-06,0.196
3.350E-06,0.268
3.360E-06,0.268
3.370E-06,0.268
3.380E-06,0.208
3.390E-06,0.180
3.400E-06,0.136
3.410E-06,0.140
3.420E-06,0.180
3.430E-06,0.228
3.440E-06,0.268
3.450E-06,0.268
3.460E-06,0.240
3.470E-06,0.176
3.480E-06,0.132
3.490E-06,0.112
3.500E-06,0.108
3.510E-06,0.128
3.520E-06,0.144
3.530E-06,0.140
3.540E-06,0.164
3.550E-06,0.156
3.560E-06,0.140
3.570E-06,0.148
3.580E-06,0.164
3.590E-06,0.204
3.600E-06,0.196
3.610E-06,0.200
3.620E-06,0.188
3.630E-06,0.188
3.640E-06,0.188
3.650E-06,0.168
3.660E-06,0.176
3.670E-06,0.164
3.680E-06,0.184
3.690E-06,0.172
3.700E-06,0.188
3.710E-06,0.196
3.720E-06,0.212
3.730E-06,0.216
3.740E-06,0.216
3.750E-06,0.224
3.760E-06,0.200
3.770E-06,0.196
3.780E-06,0.192
3.790E-06,0.216
3.800E-06,0.224
3.810E-06,0.228
3.820E-06,0.208
3.830E-06,0.204
3.840E-06,0.200
3.850E-06,0.192
3.860E-06,0.200
3.870E-06,0.196
3.880E-06,0.208
3.890E-06,0.212
3.900E-06,0.208
3.910E-06,0.204
3.920E-06,0.204
3.930E-06,0.204
3.940E-06,0.200
3.950E-06,0.208
3.960E-06,0.216
3.970E-06,0.216
3.980E-06,0.216
3.990E-06,0.212
4.000E-06,0.208
4.010E-06,0.196
4.020E-06,0.200
4.030E-06,0.196
4.040E-06,0.204
4.050E-06,0.204
4.060E-06,0.208
4.070E-06,0.208
4.080E-06,0.196
4.090E-06,0.192
4.100E-06,0.188
4.110E-06,0.192
4.120E-06,0.192
4.130E-06,0.208
4.140E-06,0.208
4.150E-06,0.208
4.160E-06,0.208
4.170E-06,0.196
4.180E-06,0.196
4.190E-06,0.196
4.200E-06,0.196
4.210E-06,0.196
4.220E-06,0.200
4.230E-06,0.196
4.240E-06,0.196
4.250E-06,0.188
4.260E-06,0.188
4.270E-06,0.192
4.280E-06,0.196
4.290E-06,0.200
4.300E-06,0.196
4.310E-06,0.192
4.320E-06,0.196
4.330E-06,0.188
4.340E-06,0.188
4.350E-06,0.188
4.360E-06,0.192
4.370E-06,0.200
4.380E-06,0.192
4.390E-06,0.192
4.400E-06,0.192
4.410E-06,0.196
4.420E-06,0.188
4.430E-06,0.188
4.440E-06,0.184
4.450E-06,0.188
4.460E-06,0.192
4.470E-06,0.192
4.480E-06,0.192
4.490E-06,0.196
4.500E-06,0.188
4.510E-06,0.192
4.520E-06,0.184
4.530E-06,0.188
4.540E-06,0.184
4.550E-06,0.188
4.560E-06,0.188
4.570E-06,0.196
4.580E-06,0.192
4.590E-06,0.188
4.600E-06,0.184
4.610E-06,0.180
4.620E-06,0.176
4.630E-06,0.176
4.640E-06,0.184
4.650E-06,0.188
4.660E-06,0.188
4.670E-06,0.188
4.680E-06,0.176
4.690E-06,0.172
4.700E-06,0.176
4.710E-06,0.188
4.720E-06,0.184
4.730E-06,0.184
4.740E-06,0.180
4.750E-06,0.176
4.760E-06,0.184
4.770E-06,0.172
4.780E-06,0.180
4.790E-06,0.176
4.800E-06,0.176
4.810E-06,0.176
4.820E-06,0.168
4.830E-06,0.168
4.840E-06,0.176
4.850E-06,0.180
4.860E-06,0.176
4.870E-06,0.184
4.880E-06,0.180
4.890E-06,0.180
4.900E-06,0.176
4.910E-06,0.180
4.920E-06,0.176
4.930E-06,0.180
4.940E-06,0.176
4.950E-06,0.176
4.960E-06,0.180
4.970E-06,0.176
4.980E-06,0.180
4.990E-06,0.180
5.000E-06,0.176
5.010E-06,0.176
5.020E-06,0.172
5.030E-06,0.176
5.040E-06,0.172
5.050E-06,0.168
5.060E-06,0.172
5.070E-06,0.176
5.080E-06,0.172
5.090E-06,0.172
5.100E-06,0.168
5.110E-06,0.168
5.120E-06,0.172
5.130E-06,0.168
5.140E-06,0.168
5.150E-06,0.176
5.160E-06,0.168
5.170E-06,0.172
5.180E-06,0.160
5.190E-06,0.164
5.200E-06,0.164
5.210E-06,0.168
5.220E-06,0.168
5.230E-06,0.168
5.240E-06,0.168
5.250E-06,0.156
5.260E-06,0.160
5.270E-06,0.164
5.280E-06,0.160
5.290E-06,0.156
5.300E-06,0.152
5.310E-06,0.160
5.320E-06,0.164
5.330E-06,0.164
5.340E-06,0.160
5.350E-06,0.164
5.360E-06,0.156
5.370E-06,0.156
5.380E-06,0.160
5.390E-06,0.156
5.400E-06,0.156
5.410E-06,0.160
5.420E-06,0.156
5.430E-06,0.152
5.440E-06,0.152
5.450E-06,0.156
5.460E-06,0.160
5.470E-06,0.152
5.480E-06,0.156
5.490E-06,0.160
5.500E-06,0.156
5.510E-06,0.148
5.520E-06,0.156
5.530E-06,0.152
5.540E-06,0.152
5.550E-06,0.144
5.560E-06,0.148
5.570E-06,0.148
5.580E-06,0.156
5.590E-06,0.148
5.600E-06,0.152
5.610E-06,0.152
5.620E-06,0.148
5.630E-06,0.144
5.640E-06,0.144
5.650E-06,0.152
5.660E-06,0.148
5.670E-06,0.148
5.680E-06,0.140
5.690E-06,0.140
5.700E-06,0.148
5.710E-06,0.140
5.720E-06,0.140
5.730E-06,0.144
5.740E-06,0.140
5.750E-06,0.132
5.760E-06,0.132
5.770E-06,0.140
5.780E-06,0.140
5.790E-06,0.140
5.800E-06,0.140
5.810E-06,0.140
5.820E-06,0.136
5.830E-06,0.136
5.840E-06,0.132
5.850E-06,0.136
5.860E-06,0.132
5.870E-06,0.140
5.880E-06,0.132
5.890E-06,0.132
5.900E-06,0.136
5.910E-06,0.136
5.920E-06,0.132
5.930E-06,0.132
5.940E-06,0.132
5.950E-06,0.128
5.960E-06,0.132
5.970E-06,0.132
5.980E-06,0.132
5.990E-06,0.128
6.000E-06,0.128
6.010E-06,0.128
6.020E-06,0.128
6.030E-06,0.128
6.040E-06,0.128
6.050E-06,0.128
6.060E-06,0.128
6.070E-06,0.128
6.080E-06,0.128
6.090E-06,0.128
6.100E-06,0.124
6.110E-06,0.124
6.120E-06,0.124
6.130E-06,0.124
6.140E-06,0.124
6.150E-06,0.124
6.160E-06,0.124
6.170E-06,0.120
6.180E-06,0.120
6.190E-06,0.120
6.200E-06,0.116
6.210E-06,0.108
6.220E-06,0.112
6.230E-06,0.112
6.240E-06,0.124
6.250E-06,0.124
6.260E-06,0.120
6.270E-06,0.120
6.280E-06,0.116
6.290E-06,0.108
6.300E-06,0.112
6.310E-06,0.116
6.320E-06,0.124
6.330E-06,0.128
6.340E-06,0.120
6.350E-06,0.116
6.360E-06,0.104
6.370E-06,0.112
6.380E-06,0.112
6.390E-06,0.112
6.400E-06,0.108
6.410E-06,0.120
6.420E-06,0.112
6.430E-06,0.112
6.440E-06,0.108
6.450E-06,0.112
6.460E-06,0.112
6.470E-06,0.112
6.480E-06,0.112
6.490E-06,0.112
6.500E-06,0.108
6.510E-06,0.104
6.520E-06,0.100
6.530E-06,0.100
6.540E-06,0.100
6.550E-06,0.104
6.560E-06,0.112
6.570E-06,0.112
6.580E-06,0.112
6.590E-06,0.108
6.600E-06,0.104
6.610E-06,0.104
6.620E-06,0.100
6.630E-06,0.104
6.640E-06,0.104
6.650E-06,0.104
6.660E-06,0.104
6.670E-06,0.104
6.680E-06,0.096
6.690E-06,0.096
6.700E-06,0.104
6.710E-06,0.104
6.720E-06,0.100
6.730E-06,0.100
6.740E-06,0.100
6.750E-06,0.096
6.760E-06,0.096
6.770E-06,0.096
6.780E-06,0.092
6.790E-06,0.100
6.800E-06,0.096
6.810E-06,0.096
6.820E-06,0.092
6.830E-06,0.092
6.840E-06,0.092
6.850E-06,0.088
6.860E-06,0.096
6.870E-06,0.088
6.880E-06,0.096
6.890E-06,0.092
6.900E-06,0.092
6.910E-06,0.088
6.920E-06,0.088
6.930E-06,0.092
6.940E-06,0.092
6.950E-06,0.092
6.960E-06,0.096
6.970E-06,0.092
6.980E-06,0.088
6.990E-06,0.088
7.000E-06,0.088
7.010E-06,0.084
7.020E-06,0.076
7.030E-06,0.080
7.040E-06,0.088
7.050E-06,0.088
7.060E-06,0.092
7.070E-06,0.092
7.080E-06,0.076
7.090E-06,0.084
7.100E-06,0.080
7.110E-06,0.080
7.120E-06,0.084
7.130E-06,0.088
7.140E-06,0.088
7.150E-06,0.080
7.160E-06,0.080
7.170E-06,0.076
7.180E-06,0.076
7.190E-06,0.080
7.200E-06,0.080
7.210E-06,0.088
7.220E-06,0.084
7.230E-06,0.088
7.240E-06,0.076
7.250E-06,0.072
7.260E-06,0.076
7.270E-06,0.076
7.280E-06,0.076
7.290E-06,0.088
7.300E-06,0.080
7.310E-06,0.080
7.320E-06,0.076
7.330E-06,0.076
7.340E-06,0.072
7.350E-06,0.068
7.360E-06,0.072
7.370E-06,0.076
7.380E-06,0.076
7.390E-06,0.080
7.400E-06,0.076
7.410E-06,0.072
7.420E-06,0.072
7.430E-06,0.072
7.440E-06,0.072
7.450E-06,0.072
7.460E-06,0.072
7.470E-06,0.072
7.480E-06,0.076
7.490E-06,0.072
7.500E-06,0.072
7.510E-06,0.072
7.520E-06,0.068
7.530E-06,0.064
7.540E-06,0.072
7.550E-06,0.076
7.560E-06,0.072
7.570E-06,0.076
7.580E-06,0.068
7.590E-06,0.060
7.600E-06,0.060
7.610E-06,0.064
7.620E-06,0.064
7.630E-06,0.064
7.640E-06,0.068
7.650E-06,0.072
7.660E-06,0.064
7.670E-06,0.060
7.680E-06,0.056
7.690E-06,0.060
7.700E-06,0.056
7.710E-06,0.060
7.720E-06,0.064
7.730E-06,0.064
7.740E-06,0.064
7.750E-06,0.056
7.760E-06,0.052
7.770E-06,0.048
