mediciones/5-27/-47.5/WaveData50155.csv

#timebase=2000000(ps)
,#voltbase=1000000(mv/100)
#size=4000
-8.400E-06,-0.560
-8.390E-06,-0.520
-8.380E-06,-0.560
-8.370E-06,-0.520
-8.360E-06,-0.520
-8.350E-06,-0.520
-8.340E-06,-0.520
-8.330E-06,-0.520
-8.320E-06,-0.480
-8.310E-06,-0.480
-8.300E-06,-0.560
-8.290E-06,-0.480
-8.280E-06,-0.440
-8.270E-06,-0.480
-8.260E-06,-0.480
-8.250E-06,-0.480
-8.240E-06,-0.480
-8.230E-06,-0.440
-8.220E-06,-0.440
-8.210E-06,-0.480
-8.200E-06,-0.440
-8.190E-06,-0.440
-8.180E-06,-0.440
-8.170E-06,-0.520
-8.160E-06,-0.360
-8.150E-06,-0.400
-8.140E-06,-0.680
-8.130E-06,-0.320
-8.120E-06,-0.680
-8.110E-06,-0.480
-8.100E-06,0.000
-8.090E-06,-0.240
-8.080E-06,0.000
-8.070E-06,-0.360
-8.060E-06,-0.600
-8.050E-06,-0.520
-8.040E-06,-0.560
-8.030E-06,-0.120
-8.020E-06,0.000
-8.010E-06,-0.320
-8.000E-06,-0.280
-7.990E-06,-0.640
-7.980E-06,-0.800
-7.970E-06,-0.600
-7.960E-06,-0.640
-7.950E-06,-0.480
-7.940E-06,-0.440
-7.930E-06,-0.600
-7.920E-06,-0.560
-7.910E-06,-0.640
-7.900E-06,-0.720
-7.890E-06,-0.680
-7.880E-06,-0.800
-7.870E-06,-0.800
-7.860E-06,-0.760
-7.850E-06,-0.760
-7.840E-06,-0.720
-7.830E-06,-0.720
-7.820E-06,-0.720
-7.810E-06,-0.720
-7.800E-06,-0.680
-7.790E-06,-0.640
-7.780E-06,-0.600
-7.770E-06,-0.520
-7.760E-06,-0.480
-7.750E-06,-0.440
-7.740E-06,-0.440
-7.730E-06,-0.440
-7.720E-06,-0.480
-7.710E-06,-0.480
-7.700E-06,-0.400
-7.690E-06,-0.400
-7.680E-06,-0.440
-7.670E-06,-0.400
-7.660E-06,-0.440
-7.650E-06,-0.520
-7.640E-06,-0.480
-7.630E-06,-0.520
-7.620E-06,-0.440
-7.610E-06,-0.480
-7.600E-06,-0.440
-7.590E-06,-0.440
-7.580E-06,-0.400
-7.570E-06,-0.440
-7.560E-06,-0.440
-7.550E-06,-0.360
-7.540E-06,-0.440
-7.530E-06,-0.360
-7.520E-06,-0.360
-7.510E-06,-0.360
-7.500E-06,-0.360
-7.490E-06,-0.360
-7.480E-06,-0.320
-7.470E-06,-0.400
-7.460E-06,-0.400
-7.450E-06,-0.440
-7.440E-06,-0.440
-7.430E-06,-0.400
-7.420E-06,-0.400
-7.410E-06,-0.440
-7.400E-06,-0.480
-7.390E-06,-0.440
-7.380E-06,-0.520
-7.370E-06,-0.520
-7.360E-06,-0.480
-7.350E-06,-0.480
-7.340E-06,-0.520
-7.330E-06,-0.520
-7.320E-06,-0.560
-7.310E-06,-0.600
-7.300E-06,-0.520
-7.290E-06,-0.520
-7.280E-06,-0.480
-7.270E-06,-0.600
-7.260E-06,-0.520
-7.250E-06,-0.560
-7.240E-06,-0.520
-7.230E-06,-0.240
-7.220E-06,-0.240
-7.210E-06,-0.280
-7.200E-06,-0.400
-7.190E-06,-0.600
-7.180E-06,-0.560
-7.170E-06,-0.480
-7.160E-06,-0.280
-7.150E-06,-0.200
-7.140E-06,-0.240
-7.130E-06,-0.360
-7.120E-06,-0.400
-7.110E-06,-0.520
-7.100E-06,-0.440
-7.090E-06,-0.400
-7.080E-06,-0.360
-7.070E-06,-0.320
-7.060E-06,-0.320
-7.050E-06,-0.400
-7.040E-06,-0.440
-7.030E-06,-0.440
-7.020E-06,-0.440
-7.010E-06,-0.440
-7.000E-06,-0.440
-6.990E-06,-0.400
-6.980E-06,-0.480
-6.970E-06,-0.440
-6.960E-06,-0.440
-6.950E-06,-0.480
-6.940E-06,-0.480
-6.930E-06,-0.480
-6.920E-06,-0.440
-6.910E-06,-0.440
-6.900E-06,-0.400
-6.890E-06,-0.400
-6.880E-06,-0.360
-6.870E-06,-0.320
-6.860E-06,-0.360
-6.850E-06,-0.320
-6.840E-06,-0.360
-6.830E-06,-0.320
-6.820E-06,-0.320
-6.810E-06,-0.320
-6.800E-06,-0.320
-6.790E-06,-0.360
-6.780E-06,-0.360
-6.770E-06,-0.400
-6.760E-06,-0.400
-6.750E-06,-0.360
-6.740E-06,-0.400
-6.730E-06,-0.360
-6.720E-06,-0.360
-6.710E-06,-0.400
-6.700E-06,-0.360
-6.690E-06,-0.360
-6.680E-06,-0.320
-6.670E-06,-0.320
-6.660E-06,-0.360
-6.650E-06,-0.360
-6.640E-06,-0.320
-6.630E-06,-0.360
-6.620E-06,-0.280
-6.610E-06,-0.320
-6.600E-06,-0.280
-6.590E-06,-0.360
-6.580E-06,-0.320
-6.570E-06,-0.320
-6.560E-06,-0.320
-6.550E-06,-0.240
-6.540E-06,-0.240
-6.530E-06,-0.240
-6.520E-06,-0.280
-6.510E-06,-0.320
-6.500E-06,-0.320
-6.490E-06,-0.280
-6.480E-06,-0.320
-6.470E-06,-0.280
-6.460E-06,-0.240
-6.450E-06,-0.280
-6.440E-06,-0.360
-6.430E-06,-0.320
-6.420E-06,-0.320
-6.410E-06,-0.320
-6.400E-06,-0.160
-6.390E-06,-0.400
-6.380E-06,-0.360
-6.370E-06,-0.360
-6.360E-06,-0.560
-6.350E-06,-0.240
-6.340E-06,-0.200
-6.330E-06,-0.080
-6.320E-06,0.000
-6.310E-06,-0.320
-6.300E-06,-0.360
-6.290E-06,-0.400
-6.280E-06,-0.360
-6.270E-06,-0.080
-6.260E-06,-0.080
-6.250E-06,-0.080
-6.240E-06,-0.080
-6.230E-06,-0.360
-6.220E-06,-0.360
-6.210E-06,-0.320
-6.200E-06,-0.240
-6.190E-06,-0.120
-6.180E-06,-0.120
-6.170E-06,-0.200
-6.160E-06,-0.280
-6.150E-06,-0.240
-6.140E-06,-0.200
-6.130E-06,-0.200
-6.120E-06,-0.280
-6.110E-06,-0.280
-6.100E-06,-0.280
-6.090E-06,-0.320
-6.080E-06,-0.280
-6.070E-06,-0.320
-6.060E-06,-0.360
-6.050E-06,-0.280
-6.040E-06,-0.320
-6.030E-06,-0.320
-6.020E-06,-0.320
-6.010E-06,-0.240
-6.000E-06,-0.280
-5.990E-06,-0.160
-5.980E-06,-0.120
-5.970E-06,-0.160
-5.960E-06,-0.160
-5.950E-06,-0.160
-5.940E-06,-0.120
-5.930E-06,-0.080
-5.920E-06,-0.080
-5.910E-06,-0.080
-5.900E-06,-0.160
-5.890E-06,-0.120
-5.880E-06,-0.120
-5.870E-06,-0.120
-5.860E-06,-0.120
-5.850E-06,-0.200
-5.840E-06,-0.120
-5.830E-06,-0.160
-5.820E-06,-0.200
-5.810E-06,-0.200
-5.800E-06,-0.280
-5.790E-06,-0.320
-5.780E-06,-0.320
-5.770E-06,-0.400
-5.760E-06,-0.320
-5.750E-06,-0.200
-5.740E-06,-0.240
-5.730E-06,-0.200
-5.720E-06,-0.040
-5.710E-06,-0.160
-5.700E-06,0.040
-5.690E-06,0.080
-5.680E-06,0.000
-5.670E-06,0.000
-5.660E-06,-0.200
-5.650E-06,-0.080
-5.640E-06,0.000
-5.630E-06,0.080
-5.620E-06,0.200
-5.610E-06,0.120
-5.600E-06,0.080
-5.590E-06,0.000
-5.580E-06,-0.040
-5.570E-06,-0.080
-5.560E-06,-0.040
-5.550E-06,0.000
-5.540E-06,0.040
-5.530E-06,-0.080
-5.520E-06,-0.120
-5.510E-06,-0.120
-5.500E-06,-0.080
-5.490E-06,-0.160
-5.480E-06,-0.200
-5.470E-06,-0.280
-5.460E-06,-0.320
-5.450E-06,-0.240
-5.440E-06,-0.240
-5.430E-06,-0.200
-5.420E-06,-0.280
-5.410E-06,-0.360
-5.400E-06,-0.360
-5.390E-06,-0.280
-5.380E-06,-0.240
-5.370E-06,-0.120
-5.360E-06,-0.160
-5.350E-06,-0.200
-5.340E-06,-0.160
-5.330E-06,-0.120
-5.320E-06,-0.040
-5.310E-06,0.000
-5.300E-06,-0.040
-5.290E-06,-0.040
-5.280E-06,0.000
-5.270E-06,0.000
-5.260E-06,-0.040
-5.250E-06,0.000
-5.240E-06,-0.040
-5.230E-06,-0.040
-5.220E-06,0.000
-5.210E-06,0.000
-5.200E-06,0.000
-5.190E-06,-0.040
-5.180E-06,0.000
-5.170E-06,-0.200
-5.160E-06,0.000
-5.150E-06,-0.040
-5.140E-06,-0.160
-5.130E-06,0.000
-5.120E-06,-0.200
-5.110E-06,-0.200
-5.100E-06,-0.160
-5.090E-06,-0.160
-5.080E-06,0.040
-5.070E-06,0.000
-5.060E-06,0.040
-5.050E-06,0.080
-5.040E-06,-0.040
-5.030E-06,-0.040
-5.020E-06,0.080
-5.010E-06,0.120
-5.000E-06,0.040
-4.990E-06,0.120
-4.980E-06,0.120
-4.970E-06,0.200
-4.960E-06,0.280
-4.950E-06,0.320
-4.940E-06,0.280
-4.930E-06,0.080
-4.920E-06,0.040
-4.910E-06,0.040
-4.900E-06,0.120
-4.890E-06,0.240
-4.880E-06,0.240
-4.870E-06,0.160
-4.860E-06,0.080
-4.850E-06,0.000
-4.840E-06,-0.040
-4.830E-06,-0.120
-4.820E-06,-0.040
-4.810E-06,-0.120
-4.800E-06,-0.120
-4.790E-06,-0.320
-4.780E-06,-0.360
-4.770E-06,-0.280
-4.760E-06,-0.360
-4.750E-06,-0.160
-4.740E-06,-0.080
-4.730E-06,-0.200
-4.720E-06,-0.240
-4.710E-06,-0.360
-4.700E-06,-0.280
-4.690E-06,-0.200
-4.680E-06,-0.040
-4.670E-06,-0.040
-4.660E-06,0.000
-4.650E-06,-0.040
-4.640E-06,-0.040
-4.630E-06,0.000
-4.620E-06,0.080
-4.610E-06,0.080
-4.600E-06,0.200
-4.590E-06,0.240
-4.580E-06,0.080
-4.570E-06,0.200
-4.560E-06,0.080
-4.550E-06,0.000
-4.540E-06,0.120
-4.530E-06,0.000
-4.520E-06,0.040
-4.510E-06,0.280
-4.500E-06,0.200
-4.490E-06,0.320
-4.480E-06,0.240
-4.470E-06,0.000
-4.460E-06,0.080
-4.450E-06,0.080
-4.440E-06,0.280
-4.430E-06,0.400
-4.420E-06,0.400
-4.410E-06,0.320
-4.400E-06,0.200
-4.390E-06,0.160
-4.380E-06,0.080
-4.370E-06,0.160
-4.360E-06,0.280
-4.350E-06,0.360
-4.340E-06,0.280
-4.330E-06,0.160
-4.320E-06,0.080
-4.310E-06,0.040
-4.300E-06,-0.040
-4.290E-06,-0.040
-4.280E-06,0.000
-4.270E-06,0.000
-4.260E-06,-0.120
-4.250E-06,-0.160
-4.240E-06,-0.200
-4.230E-06,-0.240
-4.220E-06,-0.160
-4.210E-06,-0.040
-4.200E-06,-0.120
-4.190E-06,-0.200
-4.180E-06,-0.160
-4.170E-06,-0.240
-4.160E-06,-0.240
-4.150E-06,-0.080
-4.140E-06,-0.040
-4.130E-06,0.000
-4.120E-06,0.000
-4.110E-06,-0.080
-4.100E-06,-0.040
-4.090E-06,0.000
-4.080E-06,0.080
-4.070E-06,0.200
-4.060E-06,0.240
-4.050E-06,0.200
-4.040E-06,0.240
-4.030E-06,0.360
-4.020E-06,0.240
-4.010E-06,0.160
-4.000E-06,0.360
-3.990E-06,0.360
-3.980E-06,0.360
-3.970E-06,0.520
-3.960E-06,0.440
-3.950E-06,0.400
-3.940E-06,0.360
-3.930E-06,0.080
-3.920E-06,0.120
-3.910E-06,0.280
-3.900E-06,0.240
-3.890E-06,0.280
-3.880E-06,0.120
-3.870E-06,-0.040
-3.860E-06,-0.040
-3.850E-06,0.000
-3.840E-06,0.040
-3.830E-06,0.000
-3.820E-06,0.040
-3.810E-06,-0.040
-3.800E-06,-0.080
-3.790E-06,-0.040
-3.780E-06,0.000
-3.770E-06,-0.040
-3.760E-06,0.000
-3.750E-06,-0.120
-3.740E-06,-0.160
-3.730E-06,-0.080
-3.720E-06,0.000
-3.710E-06,-0.040
-3.700E-06,-0.040
-3.690E-06,-0.040
-3.680E-06,-0.080
-3.670E-06,-0.040
-3.660E-06,-0.040
-3.650E-06,0.040
-3.640E-06,0.160
-3.630E-06,0.120
-3.620E-06,0.120
-3.610E-06,0.160
-3.600E-06,0.160
-3.590E-06,0.040
-3.580E-06,0.080
-3.570E-06,0.120
-3.560E-06,0.160
-3.550E-06,0.360
-3.540E-06,0.320
-3.530E-06,0.280
-3.520E-06,0.200
-3.510E-06,0.080
-3.500E-06,0.120
-3.490E-06,0.200
-3.480E-06,0.240
-3.470E-06,0.280
-3.460E-06,0.200
-3.450E-06,0.120
-3.440E-06,0.120
-3.430E-06,0.160
-3.420E-06,0.160
-3.410E-06,0.120
-3.400E-06,0.160
-3.390E-06,0.200
-3.380E-06,0.200
-3.370E-06,0.200
-3.360E-06,0.120
-3.350E-06,0.120
-3.340E-06,0.120
-3.330E-06,0.080
-3.320E-06,0.120
-3.310E-06,0.040
-3.300E-06,0.120
-3.290E-06,0.160
-3.280E-06,0.160
-3.270E-06,0.080
-3.260E-06,0.000
-3.250E-06,0.120
-3.240E-06,-0.040
-3.230E-06,0.000
-3.220E-06,-0.040
-3.210E-06,-0.080
-3.200E-06,-0.200
-3.190E-06,-0.160
-3.180E-06,-0.040
-3.170E-06,0.000
-3.160E-06,0.120
-3.150E-06,0.080
-3.140E-06,0.000
-3.130E-06,0.080
-3.120E-06,-0.040
-3.110E-06,0.080
-3.100E-06,0.200
-3.090E-06,0.280
-3.080E-06,0.320
-3.070E-06,0.240
-3.060E-06,0.240
-3.050E-06,0.200
-3.040E-06,0.240
-3.030E-06,0.320
-3.020E-06,0.320
-3.010E-06,0.360
-3.000E-06,0.400
-2.990E-06,0.400
-2.980E-06,0.360
-2.970E-06,0.360
-2.960E-06,0.320
-2.950E-06,0.360
-2.940E-06,0.280
-2.930E-06,0.240
-2.920E-06,0.200
-2.910E-06,0.120
-2.900E-06,0.000
-2.890E-06,0.080
-2.880E-06,-0.040
-2.870E-06,0.000
-2.860E-06,0.040
-2.850E-06,0.160
-2.840E-06,0.000
-2.830E-06,-0.040
-2.820E-06,0.080
-2.810E-06,-0.040
-2.800E-06,0.240
-2.790E-06,0.400
-2.780E-06,0.240
-2.770E-06,0.360
-2.760E-06,0.000
-2.750E-06,0.000
-2.740E-06,0.160
-2.730E-06,0.200
-2.720E-06,0.400
-2.710E-06,0.400
-2.700E-06,0.240
-2.690E-06,0.120
-2.680E-06,0.040
-2.670E-06,0.040
-2.660E-06,0.080
-2.650E-06,0.160
-2.640E-06,0.200
-2.630E-06,0.160
-2.620E-06,0.040
-2.610E-06,0.040
-2.600E-06,0.040
-2.590E-06,0.040
-2.580E-06,0.120
-2.570E-06,-0.040
-2.560E-06,-0.040
-2.550E-06,-0.040
-2.540E-06,-0.040
-2.530E-06,-0.080
-2.520E-06,0.000
-2.510E-06,-0.040
-2.500E-06,-0.040
-2.490E-06,0.000
-2.480E-06,0.120
-2.470E-06,0.160
-2.460E-06,0.200
-2.450E-06,0.160
-2.440E-06,0.080
-2.430E-06,0.080
-2.420E-06,0.120
-2.410E-06,-0.040
-2.400E-06,0.200
-2.390E-06,0.320
-2.380E-06,0.400
-2.370E-06,0.560
-2.360E-06,0.400
-2.350E-06,0.360
-2.340E-06,0.160
-2.330E-06,0.160
-2.320E-06,0.360
-2.310E-06,0.480
-2.300E-06,0.560
-2.290E-06,0.560
-2.280E-06,0.520
-2.270E-06,0.320
-2.260E-06,0.360
-2.250E-06,0.280
-2.240E-06,0.400
-2.230E-06,0.400
-2.220E-06,0.440
-2.210E-06,0.440
-2.200E-06,0.320
-2.190E-06,0.360
-2.180E-06,0.200
-2.170E-06,0.160
-2.160E-06,0.120
-2.150E-06,0.000
-2.140E-06,0.000
-2.130E-06,0.000
-2.120E-06,0.000
-2.110E-06,0.000
-2.100E-06,-0.040
-2.090E-06,-0.040
-2.080E-06,-0.120
-2.070E-06,-0.080
-2.060E-06,-0.120
-2.050E-06,-0.080
-2.040E-06,0.000
-2.030E-06,0.040
-2.020E-06,0.040
-2.010E-06,-0.040
-2.000E-06,0.040
-1.990E-06,0.040
-1.980E-06,0.120
-1.970E-06,0.160
-1.960E-06,0.160
-1.950E-06,0.040
-1.940E-06,0.000
-1.930E-06,0.000
-1.920E-06,0.000
-1.910E-06,-0.040
-1.900E-06,-0.040
-1.890E-06,0.000
-1.880E-06,0.040
-1.870E-06,0.040
-1.860E-06,0.040
-1.850E-06,0.080
-1.840E-06,0.040
-1.830E-06,0.080
-1.820E-06,0.080
-1.810E-06,0.000
-1.800E-06,0.040
-1.790E-06,0.040
-1.780E-06,0.080
-1.770E-06,0.200
-1.760E-06,0.280
-1.750E-06,0.320
-1.740E-06,0.440
-1.730E-06,0.320
-1.720E-06,0.480
-1.710E-06,0.320
-1.700E-06,0.480
-1.690E-06,0.400
-1.680E-06,0.160
-1.670E-06,0.480
-1.660E-06,0.120
-1.650E-06,0.160
-1.640E-06,0.320
-1.630E-06,0.120
-1.620E-06,0.360
-1.610E-06,0.680
-1.600E-06,0.480
-1.590E-06,0.440
-1.580E-06,0.160
-1.570E-06,-0.080
-1.560E-06,-0.280
-1.550E-06,0.000
-1.540E-06,0.400
-1.530E-06,0.640
-1.520E-06,0.880
-1.510E-06,0.320
-1.500E-06,0.040
-1.490E-06,-0.360
-1.480E-06,-0.480
-1.470E-06,-0.040
-1.460E-06,0.000
-1.450E-06,0.400
-1.440E-06,0.320
-1.430E-06,-0.040
-1.420E-06,-0.320
-1.410E-06,-0.480
-1.400E-06,-0.400
-1.390E-06,-0.680
-1.380E-06,-0.520
-1.370E-06,-0.360
-1.360E-06,-0.240
-1.350E-06,0.160
-1.340E-06,0.120
-1.330E-06,0.040
-1.320E-06,-0.200
-1.310E-06,-0.280
-1.300E-06,0.000
-1.290E-06,0.160
-1.280E-06,0.640
-1.270E-06,0.840
-1.260E-06,0.520
-1.250E-06,0.360
-1.240E-06,0.040
-1.230E-06,-0.200
-1.220E-06,0.000
-1.210E-06,0.000
-1.200E-06,0.200
-1.190E-06,0.360
-1.180E-06,0.080
-1.170E-06,0.160
-1.160E-06,0.160
-1.150E-06,0.320
-1.140E-06,0.600
-1.130E-06,0.640
-1.120E-06,0.520
-1.110E-06,0.360
-1.100E-06,-0.040
-1.090E-06,0.000
-1.080E-06,-0.040
-1.070E-06,0.000
-1.060E-06,0.160
-1.050E-06,0.160
-1.040E-06,0.160
-1.030E-06,0.120
-1.020E-06,0.000
-1.010E-06,-0.040
-1.000E-06,-0.160
-9.900E-07,-0.240
-9.800E-07,-0.240
-9.700E-07,-0.280
-9.600E-07,-0.520
-9.500E-07,-0.320
-9.400E-07,-0.520
-9.300E-07,-0.520
-9.200E-07,-0.520
-9.100E-07,-0.640
-9.000E-07,-0.640
-8.900E-07,-0.400
-8.800E-07,-0.280
-8.700E-07,0.000
-8.600E-07,0.240
-8.500E-07,0.240
-8.400E-07,0.320
-8.300E-07,0.360
-8.200E-07,0.360
-8.100E-07,0.600
-8.000E-07,0.800
-7.900E-07,0.920
-7.800E-07,0.920
-7.700E-07,0.920
-7.600E-07,0.840
-7.500E-07,0.840
-7.400E-07,0.840
-7.300E-07,0.840
-7.200E-07,0.720
-7.100E-07,0.640
-7.000E-07,0.560
-6.900E-07,0.440
-6.800E-07,0.360
-6.700E-07,0.200
-6.600E-07,0.000
-6.500E-07,-0.120
-6.400E-07,-0.320
-6.300E-07,-0.320
-6.200E-07,-0.240
-6.100E-07,-0.120
-6.000E-07,0.000
-5.900E-07,0.080
-5.800E-07,0.120
-5.700E-07,0.120
-5.600E-07,0.000
-5.500E-07,-0.040
-5.400E-07,-0.120
-5.300E-07,-0.240
-5.200E-07,-0.360
-5.100E-07,-0.360
-5.000E-07,-0.440
-4.900E-07,-0.360
-4.800E-07,-0.440
-4.700E-07,-0.400
-4.600E-07,-0.400
-4.500E-07,-0.640
-4.400E-07,-0.640
-4.300E-07,-0.600
-4.200E-07,-0.600
-4.100E-07,-0.480
-4.000E-07,-0.480
-3.900E-07,-0.480
-3.800E-07,-0.480
-3.700E-07,-0.400
-3.600E-07,-0.320
-3.500E-07,-0.240
-3.400E-07,-0.080
-3.300E-07,-0.240
-3.200E-07,-0.200
-3.100E-07,-0.120
-3.000E-07,-0.040
-2.900E-07,0.080
-2.800E-07,0.160
-2.700E-07,0.240
-2.600E-07,0.320
-2.500E-07,0.360
-2.400E-07,0.440
-2.300E-07,0.520
-2.200E-07,0.640
-2.100E-07,0.680
-2.000E-07,0.680
-1.900E-07,0.600
-1.800E-07,0.480
-1.700E-07,0.400
-1.600E-07,0.320
-1.500E-07,0.200
-1.400E-07,0.080
-1.300E-07,0.040
-1.200E-07,-0.080
-1.100E-07,-0.160
-1.000E-07,-0.160
-9.000E-08,-0.240
-8.000E-08,-0.240
-7.000E-08,-0.320
-6.000E-08,-0.400
-5.000E-08,-0.480
-4.000E-08,-1.040
-3.000E-08,-0.320
-2.000E-08,-1.560
-1.000E-08,-3.080
0.000E+00,-2.000
1.000E-08,-3.400
2.000E-08,-0.840
3.000E-08,1.680
4.000E-08,1.840
5.000E-08,2.760
6.000E-08,0.880
7.000E-08,-1.240
8.000E-08,-1.200
9.000E-08,-0.680
1.000E-07,0.120
1.100E-07,0.960
1.200E-07,0.800
1.300E-07,0.280
1.400E-07,-0.200
1.500E-07,-0.240
1.600E-07,-0.240
1.700E-07,-0.240
1.800E-07,0.120
1.900E-07,0.200
2.000E-07,0.360
2.100E-07,0.640
2.200E-07,0.640
2.300E-07,0.520
2.400E-07,0.320
2.500E-07,-0.320
2.600E-07,-0.680
2.700E-07,-0.800
2.800E-07,-0.840
2.900E-07,-0.560
3.000E-07,-0.440
3.100E-07,-0.520
3.200E-07,-0.560
3.300E-07,-0.640
3.400E-07,-0.760
3.500E-07,-0.600
3.600E-07,-0.520
3.700E-07,-0.560
3.800E-07,-0.480
3.900E-07,-0.600
4.000E-07,-0.720
4.100E-07,-0.720
4.200E-07,-0.760
4.300E-07,-0.760
4.400E-07,-0.680
4.500E-07,-0.680
4.600E-07,-0.680
4.700E-07,-0.600
4.800E-07,-0.640
4.900E-07,-0.520
5.000E-07,-0.400
5.100E-07,-0.320
5.200E-07,-0.280
5.300E-07,-0.160
5.400E-07,-0.200
5.500E-07,-0.120
5.600E-07,-0.040
5.700E-07,-0.040
5.800E-07,0.000
5.900E-07,0.000
6.000E-07,-0.120
6.100E-07,-0.120
6.200E-07,-0.200
6.300E-07,-0.160
6.400E-07,-0.080
6.500E-07,-0.120
6.600E-07,-0.080
6.700E-07,-0.040
6.800E-07,0.000
6.900E-07,0.160
7.000E-07,0.200
7.100E-07,0.320
7.200E-07,0.440
7.300E-07,0.480
7.400E-07,0.520
7.500E-07,0.320
7.600E-07,0.360
7.700E-07,0.280
7.800E-07,0.200
7.900E-07,0.160
8.000E-07,-0.040
8.100E-07,-0.120
8.200E-07,-0.160
8.300E-07,-0.080
8.400E-07,-0.040
8.500E-07,0.000
8.600E-07,0.000
8.700E-07,-0.200
8.800E-07,-0.280
8.900E-07,-0.520
9.000E-07,-0.480
9.100E-07,-0.360
9.200E-07,-0.520
9.300E-07,-0.320
9.400E-07,-0.560
9.500E-07,-1.080
9.600E-07,-0.680
9.700E-07,-1.640
9.800E-07,-1.800
9.900E-07,-3.240
1.000E-06,-2.280
1.010E-06,-1.600
1.020E-06,-1.480
1.030E-06,0.960
1.040E-06,-0.560
1.050E-06,-0.840
1.060E-06,-1.240
1.070E-06,-1.880
1.080E-06,-0.040
1.090E-06,1.080
1.100E-06,1.760
1.110E-06,1.800
1.120E-06,0.760
1.130E-06,0.240
1.140E-06,-0.280
1.150E-06,0.080
1.160E-06,0.080
1.170E-06,0.320
1.180E-06,0.360
1.190E-06,0.080
1.200E-06,-0.040
1.210E-06,0.120
1.220E-06,-0.040
1.230E-06,0.000
1.240E-06,0.120
1.250E-06,-0.200
1.260E-06,-0.160
1.270E-06,-0.200
1.280E-06,-0.960
1.290E-06,-1.520
1.300E-06,-2.320
1.310E-06,-2.600
1.320E-06,-2.400
1.330E-06,-2.080
1.340E-06,-1.360
1.350E-06,-1.120
1.360E-06,-0.720
1.370E-06,-0.880
1.380E-06,-0.400
1.390E-06,-0.120
1.400E-06,-0.600
1.410E-06,-0.040
1.420E-06,-0.840
1.430E-06,-0.960
1.440E-06,-0.960
1.450E-06,-1.520
1.460E-06,-1.080
1.470E-06,-0.920
1.480E-06,-0.240
1.490E-06,0.160
1.500E-06,0.080
1.510E-06,0.160
1.520E-06,-0.320
1.530E-06,-0.200
1.540E-06,0.000
1.550E-06,0.160
1.560E-06,0.480
1.570E-06,0.320
1.580E-06,0.200
1.590E-06,-0.040
1.600E-06,-0.480
1.610E-06,-0.440
1.620E-06,-0.920
1.630E-06,-0.680
1.640E-06,-0.440
1.650E-06,-0.560
1.660E-06,-0.360
1.670E-06,-0.520
1.680E-06,-0.600
1.690E-06,-0.400
1.700E-06,-0.200
1.710E-06,0.000
1.720E-06,0.080
1.730E-06,-0.040
1.740E-06,-0.280
1.750E-06,-0.440
1.760E-06,-0.640
1.770E-06,-0.600
1.780E-06,-0.680
1.790E-06,-0.960
1.800E-06,-1.000
1.810E-06,-1.160
1.820E-06,-1.880
1.830E-06,-2.200
1.840E-06,-2.800
1.850E-06,-2.720
1.860E-06,-2.320
1.870E-06,-2.160
1.880E-06,-1.520
1.890E-06,-1.640
1.900E-06,-1.560
1.910E-06,-1.360
1.920E-06,-0.840
1.930E-06,-0.360
1.940E-06,0.280
1.950E-06,0.560
1.960E-06,0.680
1.970E-06,0.680
1.980E-06,0.640
1.990E-06,0.680
2.000E-06,0.840
2.010E-06,0.960
2.020E-06,1.000
2.030E-06,0.840
2.040E-06,0.440
2.050E-06,0.160
2.060E-06,-0.200
2.070E-06,-0.800
2.080E-06,-0.880
2.090E-06,-0.960
2.100E-06,-1.280
2.110E-06,-1.280
2.120E-06,-1.800
2.130E-06,-2.360
2.140E-06,-2.320
2.150E-06,-2.400
2.160E-06,-2.000
2.170E-06,-1.720
2.180E-06,-1.680
2.190E-06,-1.600
2.200E-06,-1.240
2.210E-06,-0.880
2.220E-06,-0.480
2.230E-06,-0.240
2.240E-06,-0.360
2.250E-06,-0.440
2.260E-06,-0.440
2.270E-06,-0.240
2.280E-06,0.000
2.290E-06,0.040
2.300E-06,0.000
2.310E-06,-0.400
2.320E-06,-0.680
2.330E-06,-0.840
2.340E-06,-1.080
2.350E-06,-0.960
2.360E-06,-1.000
2.370E-06,-1.200
2.380E-06,-1.320
2.390E-06,-1.520
2.400E-06,-1.720
2.410E-06,-1.680
2.420E-06,-1.760
2.430E-06,-1.400
2.440E-06,-1.320
2.450E-06,-1.800
2.460E-06,-1.480
2.470E-06,-1.880
2.480E-06,-2.240
2.490E-06,-2.760
2.500E-06,-3.400
2.510E-06,-4.000
2.520E-06,-3.560
2.530E-06,-2.840
2.540E-06,-1.760
2.550E-06,-0.560
2.560E-06,-0.320
2.570E-06,-0.320
2.580E-06,-0.160
2.590E-06,0.200
2.600E-06,0.720
2.610E-06,1.560
2.620E-06,1.840
2.630E-06,1.920
2.640E-06,1.720
2.650E-06,1.160
2.660E-06,0.920
2.670E-06,0.880
2.680E-06,0.880
2.690E-06,0.960
2.700E-06,1.040
2.710E-06,0.840
2.720E-06,0.400
2.730E-06,0.000
2.740E-06,-0.320
2.750E-06,-0.600
2.760E-06,-0.640
2.770E-06,-0.920
2.780E-06,-1.320
2.790E-06,-1.680
2.800E-06,-2.360
2.810E-06,-2.920
2.820E-06,-3.120
2.830E-06,-3.320
2.840E-06,-3.520
2.850E-06,-3.440
2.860E-06,-3.480
2.870E-06,-3.480
2.880E-06,-3.200
2.890E-06,-2.920
2.900E-06,-2.640
2.910E-06,-2.200
2.920E-06,-2.320
2.930E-06,-2.080
2.940E-06,-1.760
2.950E-06,-1.640
2.960E-06,-1.040
2.970E-06,-0.920
2.980E-06,-0.800
2.990E-06,-0.640
3.000E-06,-0.560
3.010E-06,-0.440
3.020E-06,-0.280
3.030E-06,-0.160
3.040E-06,-0.080
3.050E-06,-0.080
3.060E-06,-0.240
3.070E-06,-0.400
3.080E-06,-0.840
3.090E-06,-1.120
