mediciones/5-27/-47.5/WaveData50180.csv

#timebase=2000000(ps)
,#voltbase=100000(mv/100)
#size=4000
-8.400E-06,0.000
-8.390E-06,-0.004
-8.380E-06,-0.004
-8.370E-06,0.004
-8.360E-06,0.004
-8.350E-06,0.004
-8.340E-06,0.008
-8.330E-06,0.000
-8.320E-06,-0.004
-8.310E-06,-0.008
-8.300E-06,-0.004
-8.290E-06,0.004
-8.280E-06,0.012
-8.270E-06,0.004
-8.260E-06,0.000
-8.250E-06,0.000
-8.240E-06,0.000
-8.230E-06,0.000
-8.220E-06,0.004
-8.210E-06,0.000
-8.200E-06,0.004
-8.190E-06,0.000
-8.180E-06,0.000
-8.170E-06,0.004
-8.160E-06,0.004
-8.150E-06,0.004
-8.140E-06,0.008
-8.130E-06,0.000
-8.120E-06,0.000
-8.110E-06,-0.008
-8.100E-06,-0.004
-8.090E-06,0.004
-8.080E-06,0.008
-8.070E-06,0.004
-8.060E-06,0.004
-8.050E-06,-0.004
-8.040E-06,-0.004
-8.030E-06,-0.004
-8.020E-06,0.000
-8.010E-06,0.008
-8.000E-06,0.000
-7.990E-06,0.004
-7.980E-06,0.000
-7.970E-06,0.000
-7.960E-06,0.004
-7.950E-06,0.004
-7.940E-06,0.004
-7.930E-06,0.004
-7.920E-06,0.000
-7.910E-06,0.004
-7.900E-06,0.000
-7.890E-06,0.004
-7.880E-06,0.000
-7.870E-06,0.004
-7.860E-06,0.004
-7.850E-06,0.004
-7.840E-06,0.000
-7.830E-06,0.004
-7.820E-06,0.008
-7.810E-06,0.000
-7.800E-06,0.004
-7.790E-06,0.000
-7.780E-06,0.000
-7.770E-06,0.000
-7.760E-06,0.004
-7.750E-06,0.004
-7.740E-06,0.004
-7.730E-06,0.000
-7.720E-06,-0.004
-7.710E-06,0.000
-7.700E-06,0.000
-7.690E-06,0.000
-7.680E-06,0.004
-7.670E-06,0.004
-7.660E-06,0.004
-7.650E-06,0.000
-7.640E-06,0.004
-7.630E-06,0.004
-7.620E-06,0.012
-7.610E-06,0.000
-7.600E-06,0.000
-7.590E-06,0.004
-7.580E-06,0.004
-7.570E-06,0.004
-7.560E-06,0.008
-7.550E-06,-0.004
-7.540E-06,0.000
-7.530E-06,0.004
-7.520E-06,0.000
-7.510E-06,0.004
-7.500E-06,0.008
-7.490E-06,0.008
-7.480E-06,0.008
-7.470E-06,0.000
-7.460E-06,0.000
-7.450E-06,0.000
-7.440E-06,0.000
-7.430E-06,0.004
-7.420E-06,0.004
-7.410E-06,0.000
-7.400E-06,0.004
-7.390E-06,-0.004
-7.380E-06,0.000
-7.370E-06,0.000
-7.360E-06,0.004
-7.350E-06,0.000
-7.340E-06,0.000
-7.330E-06,0.000
-7.320E-06,-0.004
-7.310E-06,0.000
-7.300E-06,-0.004
-7.290E-06,0.004
-7.280E-06,0.004
-7.270E-06,0.004
-7.260E-06,0.004
-7.250E-06,0.004
-7.240E-06,0.004
-7.230E-06,0.000
-7.220E-06,0.000
-7.210E-06,0.008
-7.200E-06,0.008
-7.190E-06,0.008
-7.180E-06,0.004
-7.170E-06,0.000
-7.160E-06,-0.004
-7.150E-06,0.000
-7.140E-06,0.000
-7.130E-06,0.004
-7.120E-06,0.004
-7.110E-06,0.004
-7.100E-06,0.004
-7.090E-06,-0.004
-7.080E-06,0.004
-7.070E-06,-0.004
-7.060E-06,-0.004
-7.050E-06,0.000
-7.040E-06,0.004
-7.030E-06,0.004
-7.020E-06,0.004
-7.010E-06,0.000
-7.000E-06,0.004
-6.990E-06,-0.004
-6.980E-06,-0.004
-6.970E-06,0.000
-6.960E-06,0.000
-6.950E-06,0.004
-6.940E-06,0.000
-6.930E-06,0.004
-6.920E-06,-0.004
-6.910E-06,0.004
-6.900E-06,0.000
-6.890E-06,0.004
-6.880E-06,0.000
-6.870E-06,0.004
-6.860E-06,-0.004
-6.850E-06,0.000
-6.840E-06,0.000
-6.830E-06,0.004
-6.820E-06,0.004
-6.810E-06,0.004
-6.800E-06,0.004
-6.790E-06,0.000
-6.780E-06,0.000
-6.770E-06,0.004
-6.760E-06,0.004
-6.750E-06,0.004
-6.740E-06,0.004
-6.730E-06,0.000
-6.720E-06,0.008
-6.710E-06,0.008
-6.700E-06,0.008
-6.690E-06,0.008
-6.680E-06,-0.004
-6.670E-06,0.004
-6.660E-06,0.004
-6.650E-06,0.004
-6.640E-06,0.000
-6.630E-06,0.004
-6.620E-06,0.004
-6.610E-06,-0.004
-6.600E-06,0.000
-6.590E-06,0.004
-6.580E-06,-0.004
-6.570E-06,0.000
-6.560E-06,0.004
-6.550E-06,0.000
-6.540E-06,0.000
-6.530E-06,0.004
-6.520E-06,0.004
-6.510E-06,0.008
-6.500E-06,0.008
-6.490E-06,0.008
-6.480E-06,0.000
-6.470E-06,0.004
-6.460E-06,0.000
-6.450E-06,0.004
-6.440E-06,0.000
-6.430E-06,0.000
-6.420E-06,0.000
-6.410E-06,0.004
-6.400E-06,0.004
-6.390E-06,-0.004
-6.380E-06,0.004
-6.370E-06,0.000
-6.360E-06,0.004
-6.350E-06,-0.004
-6.340E-06,0.000
-6.330E-06,0.004
-6.320E-06,0.000
-6.310E-06,0.004
-6.300E-06,0.004
-6.290E-06,0.000
-6.280E-06,0.004
-6.270E-06,0.004
-6.260E-06,0.004
-6.250E-06,0.000
-6.240E-06,0.004
-6.230E-06,0.000
-6.220E-06,0.004
-6.210E-06,0.000
-6.200E-06,0.000
-6.190E-06,0.004
-6.180E-06,0.000
-6.170E-06,0.004
-6.160E-06,0.004
-6.150E-06,0.000
-6.140E-06,0.000
-6.130E-06,0.004
-6.120E-06,0.000
-6.110E-06,0.004
-6.100E-06,0.008
-6.090E-06,0.000
-6.080E-06,0.000
-6.070E-06,0.004
-6.060E-06,-0.004
-6.050E-06,0.000
-6.040E-06,0.000
-6.030E-06,0.000
-6.020E-06,0.000
-6.010E-06,0.000
-6.000E-06,0.004
-5.990E-06,0.004
-5.980E-06,0.000
-5.970E-06,0.000
-5.960E-06,0.000
-5.950E-06,0.000
-5.940E-06,0.004
-5.930E-06,0.008
-5.920E-06,-0.004
-5.910E-06,0.000
-5.900E-06,0.000
-5.890E-06,0.004
-5.880E-06,0.004
-5.870E-06,0.000
-5.860E-06,0.004
-5.850E-06,0.000
-5.840E-06,0.000
-5.830E-06,-0.004
-5.820E-06,-0.004
-5.810E-06,0.004
-5.800E-06,0.004
-5.790E-06,0.004
-5.780E-06,0.004
-5.770E-06,0.000
-5.760E-06,0.000
-5.750E-06,0.000
-5.740E-06,0.000
-5.730E-06,0.004
-5.720E-06,0.004
-5.710E-06,0.004
-5.700E-06,0.000
-5.690E-06,0.000
-5.680E-06,0.000
-5.670E-06,0.004
-5.660E-06,0.008
-5.650E-06,0.000
-5.640E-06,0.004
-5.630E-06,0.000
-5.620E-06,0.000
-5.610E-06,0.000
-5.600E-06,0.000
-5.590E-06,0.000
-5.580E-06,0.004
-5.570E-06,0.004
-5.560E-06,0.000
-5.550E-06,0.004
-5.540E-06,0.000
-5.530E-06,0.000
-5.520E-06,0.000
-5.510E-06,0.004
-5.500E-06,0.004
-5.490E-06,0.004
-5.480E-06,0.004
-5.470E-06,0.004
-5.460E-06,0.000
-5.450E-06,0.000
-5.440E-06,0.004
-5.430E-06,0.004
-5.420E-06,0.000
-5.410E-06,-0.004
-5.400E-06,0.000
-5.390E-06,0.004
-5.380E-06,0.000
-5.370E-06,0.004
-5.360E-06,0.008
-5.350E-06,0.000
-5.340E-06,-0.004
-5.330E-06,0.000
-5.320E-06,0.008
-5.310E-06,0.008
-5.300E-06,0.000
-5.290E-06,0.000
-5.280E-06,0.004
-5.270E-06,0.004
-5.260E-06,0.004
-5.250E-06,-0.004
-5.240E-06,0.000
-5.230E-06,0.004
-5.220E-06,0.008
-5.210E-06,0.008
-5.200E-06,0.000
-5.190E-06,0.004
-5.180E-06,0.008
-5.170E-06,0.004
-5.160E-06,0.008
-5.150E-06,-0.004
-5.140E-06,-0.004
-5.130E-06,-0.004
-5.120E-06,-0.004
-5.110E-06,0.004
-5.100E-06,0.008
-5.090E-06,0.012
-5.080E-06,0.004
-5.070E-06,-0.004
-5.060E-06,-0.004
-5.050E-06,0.000
-5.040E-06,0.004
-5.030E-06,0.008
-5.020E-06,0.004
-5.010E-06,0.004
-5.000E-06,0.000
-4.990E-06,-0.004
-4.980E-06,0.000
-4.970E-06,0.004
-4.960E-06,0.008
-4.950E-06,0.004
-4.940E-06,-0.004
-4.930E-06,0.000
-4.920E-06,0.004
-4.910E-06,0.000
-4.900E-06,0.000
-4.890E-06,0.004
-4.880E-06,0.008
-4.870E-06,-0.004
-4.860E-06,0.004
-4.850E-06,0.000
-4.840E-06,0.004
-4.830E-06,0.008
-4.820E-06,0.004
-4.810E-06,0.004
-4.800E-06,0.000
-4.790E-06,0.000
-4.780E-06,0.004
-4.770E-06,0.008
-4.760E-06,0.008
-4.750E-06,0.004
-4.740E-06,0.004
-4.730E-06,0.000
-4.720E-06,0.000
-4.710E-06,0.000
-4.700E-06,0.004
-4.690E-06,0.004
-4.680E-06,0.000
-4.670E-06,0.000
-4.660E-06,0.008
-4.650E-06,0.004
-4.640E-06,0.008
-4.630E-06,0.008
-4.620E-06,0.008
-4.610E-06,0.008
-4.600E-06,-0.004
-4.590E-06,0.000
-4.580E-06,0.004
-4.570E-06,0.004
-4.560E-06,0.000
-4.550E-06,0.004
-4.540E-06,0.004
-4.530E-06,0.004
-4.520E-06,0.000
-4.510E-06,0.004
-4.500E-06,0.004
-4.490E-06,0.004
-4.480E-06,0.004
-4.470E-06,0.000
-4.460E-06,0.004
-4.450E-06,0.004
-4.440E-06,0.004
-4.430E-06,0.004
-4.420E-06,0.004
-4.410E-06,0.008
-4.400E-06,0.008
-4.390E-06,0.008
-4.380E-06,0.008
-4.370E-06,0.000
-4.360E-06,-0.004
-4.350E-06,0.000
-4.340E-06,0.004
-4.330E-06,0.004
-4.320E-06,0.004
-4.310E-06,0.000
-4.300E-06,0.004
-4.290E-06,0.000
-4.280E-06,0.004
-4.270E-06,0.004
-4.260E-06,0.004
-4.250E-06,0.000
-4.240E-06,0.004
-4.230E-06,0.004
-4.220E-06,0.004
-4.210E-06,0.008
-4.200E-06,0.004
-4.190E-06,0.000
-4.180E-06,0.000
-4.170E-06,0.000
-4.160E-06,0.004
-4.150E-06,0.004
-4.140E-06,0.004
-4.130E-06,0.004
-4.120E-06,0.008
-4.110E-06,-0.004
-4.100E-06,0.000
-4.090E-06,0.004
-4.080E-06,0.004
-4.070E-06,0.004
-4.060E-06,0.004
-4.050E-06,0.000
-4.040E-06,0.004
-4.030E-06,-0.004
-4.020E-06,0.004
-4.010E-06,-0.004
-4.000E-06,0.004
-3.990E-06,0.008
-3.980E-06,0.004
-3.970E-06,0.000
-3.960E-06,0.004
-3.950E-06,0.004
-3.940E-06,0.004
-3.930E-06,0.008
-3.920E-06,0.008
-3.910E-06,0.008
-3.900E-06,0.008
-3.890E-06,0.004
-3.880E-06,0.004
-3.870E-06,0.008
-3.860E-06,0.008
-3.850E-06,-0.004
-3.840E-06,0.000
-3.830E-06,0.000
-3.820E-06,0.000
-3.810E-06,0.000
-3.800E-06,0.004
-3.790E-06,-0.004
-3.780E-06,0.004
-3.770E-06,0.004
-3.760E-06,0.004
-3.750E-06,0.008
-3.740E-06,0.004
-3.730E-06,0.000
-3.720E-06,0.000
-3.710E-06,0.004
-3.700E-06,0.004
-3.690E-06,0.004
-3.680E-06,0.000
-3.670E-06,0.004
-3.660E-06,0.004
-3.650E-06,0.012
-3.640E-06,0.004
-3.630E-06,0.004
-3.620E-06,0.000
-3.610E-06,-0.004
-3.600E-06,0.004
-3.590E-06,0.008
-3.580E-06,0.008
-3.570E-06,0.008
-3.560E-06,0.004
-3.550E-06,-0.004
-3.540E-06,-0.004
-3.530E-06,0.000
-3.520E-06,0.008
-3.510E-06,0.016
-3.500E-06,0.016
-3.490E-06,0.012
-3.480E-06,-0.004
-3.470E-06,-0.004
-3.460E-06,-0.004
-3.450E-06,0.004
-3.440E-06,0.008
-3.430E-06,0.004
-3.420E-06,0.004
-3.410E-06,0.004
-3.400E-06,0.000
-3.390E-06,0.000
-3.380E-06,0.004
-3.370E-06,0.008
-3.360E-06,0.012
-3.350E-06,0.000
-3.340E-06,0.004
-3.330E-06,0.000
-3.320E-06,0.004
-3.310E-06,0.000
-3.300E-06,0.004
-3.290E-06,0.000
-3.280E-06,0.004
-3.270E-06,0.004
-3.260E-06,0.000
-3.250E-06,0.008
-3.240E-06,0.000
-3.230E-06,0.004
-3.220E-06,0.004
-3.210E-06,0.000
-3.200E-06,0.004
-3.190E-06,0.000
-3.180E-06,-0.004
-3.170E-06,0.008
-3.160E-06,0.008
-3.150E-06,0.000
-3.140E-06,-0.004
-3.130E-06,0.004
-3.120E-06,0.004
-3.110E-06,0.012
-3.100E-06,0.004
-3.090E-06,0.008
-3.080E-06,0.004
-3.070E-06,0.000
-3.060E-06,0.004
-3.050E-06,0.004
-3.040E-06,0.012
-3.030E-06,0.012
-3.020E-06,0.016
-3.010E-06,0.012
-3.000E-06,0.000
-2.990E-06,0.004
-2.980E-06,0.000
-2.970E-06,0.008
-2.960E-06,0.008
-2.950E-06,0.008
-2.940E-06,0.008
-2.930E-06,0.004
-2.920E-06,0.004
-2.910E-06,0.000
-2.900E-06,0.008
-2.890E-06,0.008
-2.880E-06,0.012
-2.870E-06,0.012
-2.860E-06,0.008
-2.850E-06,-0.004
-2.840E-06,0.000
-2.830E-06,0.012
-2.820E-06,0.016
-2.810E-06,0.012
-2.800E-06,0.004
-2.790E-06,-0.004
-2.780E-06,-0.008
-2.770E-06,-0.004
-2.760E-06,0.000
-2.750E-06,0.008
-2.740E-06,0.000
-2.730E-06,0.000
-2.720E-06,-0.004
-2.710E-06,-0.004
-2.700E-06,0.000
-2.690E-06,0.004
-2.680E-06,0.000
-2.670E-06,0.004
-2.660E-06,0.000
-2.650E-06,0.000
-2.640E-06,0.000
-2.630E-06,0.004
-2.620E-06,0.008
-2.610E-06,0.004
-2.600E-06,0.008
-2.590E-06,-0.004
-2.580E-06,-0.004
-2.570E-06,0.004
-2.560E-06,0.000
-2.550E-06,0.008
-2.540E-06,0.008
-2.530E-06,0.008
-2.520E-06,0.004
-2.510E-06,0.008
-2.500E-06,0.004
-2.490E-06,0.004
-2.480E-06,-0.004
-2.470E-06,0.008
-2.460E-06,0.008
-2.450E-06,0.012
-2.440E-06,0.012
-2.430E-06,0.000
-2.420E-06,0.008
-2.410E-06,0.004
-2.400E-06,0.004
-2.390E-06,0.004
-2.380E-06,0.004
-2.370E-06,0.000
-2.360E-06,0.000
-2.350E-06,0.004
-2.340E-06,0.012
-2.330E-06,0.008
-2.320E-06,0.012
-2.310E-06,-0.004
-2.300E-06,-0.004
-2.290E-06,-0.004
-2.280E-06,0.004
-2.270E-06,0.020
-2.260E-06,0.024
-2.250E-06,0.020
-2.240E-06,0.012
-2.230E-06,0.000
-2.220E-06,0.000
-2.210E-06,0.008
-2.200E-06,0.012
-2.190E-06,0.012
-2.180E-06,0.008
-2.170E-06,0.004
-2.160E-06,0.004
-2.150E-06,0.008
-2.140E-06,0.012
-2.130E-06,0.012
-2.120E-06,0.004
-2.110E-06,0.000
-2.100E-06,-0.004
-2.090E-06,-0.004
-2.080E-06,0.008
-2.070E-06,0.016
-2.060E-06,0.028
-2.050E-06,0.024
-2.040E-06,0.004
-2.030E-06,0.000
-2.020E-06,-0.004
-2.010E-06,-0.004
-2.000E-06,0.012
-1.990E-06,0.016
-1.980E-06,0.028
-1.970E-06,0.032
-1.960E-06,0.028
-1.950E-06,0.016
-1.940E-06,0.016
-1.930E-06,0.020
-1.920E-06,0.024
-1.910E-06,0.024
-1.900E-06,0.024
-1.890E-06,0.016
-1.880E-06,0.024
-1.870E-06,0.028
-1.860E-06,0.024
-1.850E-06,0.028
-1.840E-06,0.012
-1.830E-06,-0.016
-1.820E-06,-0.032
-1.810E-06,-0.036
-1.800E-06,-0.012
-1.790E-06,0.008
-1.780E-06,0.024
-1.770E-06,0.008
-1.760E-06,0.000
-1.750E-06,-0.024
-1.740E-06,-0.016
-1.730E-06,-0.008
-1.720E-06,0.012
-1.710E-06,0.024
-1.700E-06,0.020
-1.690E-06,0.012
-1.680E-06,-0.004
-1.670E-06,-0.008
-1.660E-06,0.012
-1.650E-06,0.036
-1.640E-06,0.052
-1.630E-06,0.056
-1.620E-06,0.032
-1.610E-06,0.008
-1.600E-06,0.000
-1.590E-06,0.008
-1.580E-06,0.028
-1.570E-06,0.064
-1.560E-06,0.072
-1.550E-06,0.076
-1.540E-06,0.048
-1.530E-06,0.016
-1.520E-06,0.004
-1.510E-06,0.000
-1.500E-06,0.020
-1.490E-06,0.036
-1.480E-06,0.028
-1.470E-06,0.008
-1.460E-06,-0.008
-1.450E-06,-0.012
-1.440E-06,-0.004
-1.430E-06,0.012
-1.420E-06,0.024
-1.410E-06,0.024
-1.400E-06,0.016
-1.390E-06,0.012
-1.380E-06,0.004
-1.370E-06,-0.004
-1.360E-06,0.008
-1.350E-06,0.016
-1.340E-06,0.024
-1.330E-06,0.040
-1.320E-06,0.040
-1.310E-06,0.068
-1.300E-06,0.072
-1.290E-06,0.072
-1.280E-06,0.052
-1.270E-06,0.048
-1.260E-06,0.048
-1.250E-06,0.044
-1.240E-06,0.048
-1.230E-06,0.028
-1.220E-06,0.008
-1.210E-06,-0.016
-1.200E-06,-0.076
-1.190E-06,-0.096
-1.180E-06,-0.128
-1.170E-06,-0.120
-1.160E-06,-0.092
-1.150E-06,-0.040
-1.140E-06,-0.008
-1.130E-06,0.008
-1.120E-06,-0.032
-1.110E-06,-0.064
-1.100E-06,-0.068
-1.090E-06,-0.056
-1.080E-06,-0.016
-1.070E-06,0.020
-1.060E-06,0.028
-1.050E-06,0.020
-1.040E-06,0.000
-1.030E-06,-0.008
-1.020E-06,0.004
-1.010E-06,0.028
-1.000E-06,0.024
-9.900E-07,0.024
-9.800E-07,0.008
-9.700E-07,0.004
-9.600E-07,0.012
-9.500E-07,0.008
-9.400E-07,0.024
-9.300E-07,0.012
-9.200E-07,0.012
-9.100E-07,0.020
-9.000E-07,0.024
-8.900E-07,0.048
-8.800E-07,0.056
-8.700E-07,0.060
-8.600E-07,0.040
-8.500E-07,0.032
-8.400E-07,0.024
-8.300E-07,0.036
-8.200E-07,0.064
-8.100E-07,0.084
-8.000E-07,0.092
-7.900E-07,0.100
-7.800E-07,0.084
-7.700E-07,0.052
-7.600E-07,0.020
-7.500E-07,0.020
-7.400E-07,0.032
-7.300E-07,0.036
-7.200E-07,0.040
-7.100E-07,0.024
-7.000E-07,0.028
-6.900E-07,0.036
-6.800E-07,0.076
-6.700E-07,0.144
-6.600E-07,0.160
-6.500E-07,0.136
-6.400E-07,0.072
-6.300E-07,0.004
-6.200E-07,-0.040
-6.100E-07,-0.040
-6.000E-07,0.000
-5.900E-07,0.028
-5.800E-07,0.020
-5.700E-07,-0.008
-5.600E-07,-0.072
-5.500E-07,-0.108
-5.400E-07,-0.116
-5.300E-07,-0.088
-5.200E-07,-0.036
-5.100E-07,0.008
-5.000E-07,0.036
-4.900E-07,0.008
-4.800E-07,-0.020
-4.700E-07,-0.044
-4.600E-07,-0.060
-4.500E-07,-0.036
-4.400E-07,-0.040
-4.300E-07,-0.016
-4.200E-07,0.004
-4.100E-07,0.044
-4.000E-07,0.056
-3.900E-07,0.060
-3.800E-07,0.072
-3.700E-07,0.064
-3.600E-07,0.080
-3.500E-07,0.088
-3.400E-07,0.108
-3.300E-07,0.112
-3.200E-07,0.112
-3.100E-07,0.088
-3.000E-07,0.088
-2.900E-07,0.084
-2.800E-07,0.092
-2.700E-07,0.092
-2.600E-07,0.100
-2.500E-07,0.096
-2.400E-07,0.096
-2.300E-07,0.084
-2.200E-07,0.088
-2.100E-07,0.076
-2.000E-07,0.080
-1.900E-07,0.068
-1.800E-07,0.064
-1.700E-07,0.060
-1.600E-07,0.024
-1.500E-07,0.000
-1.400E-07,-0.032
-1.300E-07,-0.064
-1.200E-07,-0.060
-1.100E-07,-0.012
-1.000E-07,0.044
-9.000E-08,0.128
-8.000E-08,0.196
-7.000E-08,0.192
-6.000E-08,0.148
-5.000E-08,0.084
-4.000E-08,0.040
-3.000E-08,0.048
-2.000E-08,0.128
-1.000E-08,0.192
0.000E+00,0.236
1.000E-08,0.204
2.000E-08,0.124
3.000E-08,0.036
4.000E-08,-0.020
5.000E-08,-0.012
6.000E-08,0.060
7.000E-08,0.152
8.000E-08,0.216
9.000E-08,0.232
1.000E-07,0.192
1.100E-07,0.148
1.200E-07,0.120
1.300E-07,0.108
1.400E-07,0.132
1.500E-07,0.172
1.600E-07,0.196
1.700E-07,0.196
1.800E-07,0.180
1.900E-07,0.160
2.000E-07,0.140
2.100E-07,0.140
2.200E-07,0.144
2.300E-07,0.156
2.400E-07,0.172
2.500E-07,0.180
2.600E-07,0.168
2.700E-07,0.156
2.800E-07,0.144
2.900E-07,0.144
3.000E-07,0.152
3.100E-07,0.168
3.200E-07,0.176
3.300E-07,0.180
3.400E-07,0.176
3.500E-07,0.164
3.600E-07,0.156
3.700E-07,0.152
3.800E-07,0.160
3.900E-07,0.160
4.000E-07,0.164
4.100E-07,0.164
4.200E-07,0.156
4.300E-07,0.152
4.400E-07,0.144
4.500E-07,0.136
4.600E-07,0.144
4.700E-07,0.140
4.800E-07,0.148
4.900E-07,0.148
5.000E-07,0.140
5.100E-07,0.140
5.200E-07,0.132
5.300E-07,0.120
5.400E-07,0.120
5.500E-07,0.120
5.600E-07,0.128
5.700E-07,0.144
5.800E-07,0.164
5.900E-07,0.172
6.000E-07,0.172
6.100E-07,0.176
6.200E-07,0.168
6.300E-07,0.160
6.400E-07,0.156
6.500E-07,0.160
6.600E-07,0.168
6.700E-07,0.172
6.800E-07,0.172
6.900E-07,0.172
7.000E-07,0.172
7.100E-07,0.172
7.200E-07,0.160
7.300E-07,0.164
7.400E-07,0.164
7.500E-07,0.164
7.600E-07,0.168
7.700E-07,0.164
7.800E-07,0.168
7.900E-07,0.168
8.000E-07,0.160
8.100E-07,0.164
8.200E-07,0.168
8.300E-07,0.168
8.400E-07,0.168
8.500E-07,0.160
8.600E-07,0.160
8.700E-07,0.164
8.800E-07,0.156
8.900E-07,0.164
9.000E-07,0.160
9.100E-07,0.164
9.200E-07,0.160
9.300E-07,0.164
9.400E-07,0.160
9.500E-07,0.160
9.600E-07,0.164
9.700E-07,0.164
9.800E-07,0.164
9.900E-07,0.160
1.000E-06,0.164
1.010E-06,0.164
1.020E-06,0.164
1.030E-06,0.160
1.040E-06,0.164
1.050E-06,0.160
1.060E-06,0.156
1.070E-06,0.160
1.080E-06,0.160
1.090E-06,0.156
1.100E-06,0.164
1.110E-06,0.160
1.120E-06,0.164
1.130E-06,0.160
1.140E-06,0.160
1.150E-06,0.160
1.160E-06,0.164
1.170E-06,0.160
1.180E-06,0.164
1.190E-06,0.156
1.200E-06,0.160
1.210E-06,0.164
1.220E-06,0.156
1.230E-06,0.156
1.240E-06,0.156
1.250E-06,0.156
1.260E-06,0.164
1.270E-06,0.160
1.280E-06,0.152
1.290E-06,0.156
1.300E-06,0.160
1.310E-06,0.156
1.320E-06,0.164
1.330E-06,0.156
1.340E-06,0.156
1.350E-06,0.160
1.360E-06,0.156
1.370E-06,0.152
1.380E-06,0.156
1.390E-06,0.156
1.400E-06,0.160
1.410E-06,0.156
1.420E-06,0.152
1.430E-06,0.152
1.440E-06,0.152
1.450E-06,0.152
1.460E-06,0.152
1.470E-06,0.152
1.480E-06,0.152
1.490E-06,0.152
1.500E-06,0.156
1.510E-06,0.156
1.520E-06,0.148
1.530E-06,0.148
1.540E-06,0.152
1.550E-06,0.156
1.560E-06,0.156
1.570E-06,0.148
1.580E-06,0.152
1.590E-06,0.148
1.600E-06,0.148
1.610E-06,0.148
1.620E-06,0.152
1.630E-06,0.144
1.640E-06,0.144
1.650E-06,0.144
1.660E-06,0.144
1.670E-06,0.140
1.680E-06,0.144
1.690E-06,0.144
1.700E-06,0.144
1.710E-06,0.144
1.720E-06,0.144
1.730E-06,0.144
1.740E-06,0.144
1.750E-06,0.144
1.760E-06,0.140
1.770E-06,0.140
1.780E-06,0.140
1.790E-06,0.140
1.800E-06,0.140
1.810E-06,0.140
1.820E-06,0.140
1.830E-06,0.136
1.840E-06,0.140
1.850E-06,0.136
1.860E-06,0.140
1.870E-06,0.136
1.880E-06,0.140
1.890E-06,0.136
1.900E-06,0.140
1.910E-06,0.136
1.920E-06,0.140
1.930E-06,0.140
1.940E-06,0.140
1.950E-06,0.140
1.960E-06,0.140
1.970E-06,0.136
1.980E-06,0.132
1.990E-06,0.132
2.000E-06,0.140
2.010E-06,0.140
2.020E-06,0.140
2.030E-06,0.140
2.040E-06,0.140
2.050E-06,0.140
2.060E-06,0.136
2.070E-06,0.136
2.080E-06,0.136
2.090E-06,0.132
2.100E-06,0.132
2.110E-06,0.132
2.120E-06,0.132
2.130E-06,0.136
2.140E-06,0.132
2.150E-06,0.132
2.160E-06,0.132
2.170E-06,0.140
2.180E-06,0.140
2.190E-06,0.136
2.200E-06,0.128
2.210E-06,0.132
2.220E-06,0.128
2.230E-06,0.128
2.240E-06,0.128
2.250E-06,0.128
2.260E-06,0.132
2.270E-06,0.132
2.280E-06,0.132
2.290E-06,0.128
2.300E-06,0.128
2.310E-06,0.124
2.320E-06,0.128
2.330E-06,0.132
2.340E-06,0.132
2.350E-06,0.132
2.360E-06,0.124
2.370E-06,0.124
2.380E-06,0.120
2.390E-06,0.124
2.400E-06,0.124
2.410E-06,0.124
2.420E-06,0.124
2.430E-06,0.124
2.440E-06,0.124
2.450E-06,0.120
2.460E-06,0.120
2.470E-06,0.120
2.480E-06,0.120
2.490E-06,0.120
2.500E-06,0.124
2.510E-06,0.120
2.520E-06,0.120
2.530E-06,0.124
2.540E-06,0.120
2.550E-06,0.124
2.560E-06,0.116
2.570E-06,0.124
2.580E-06,0.124
2.590E-06,0.128
2.600E-06,0.128
2.610E-06,0.128
2.620E-06,0.128
2.630E-06,0.120
2.640E-06,0.120
2.650E-06,0.120
2.660E-06,0.120
2.670E-06,0.116
2.680E-06,0.112
2.690E-06,0.112
2.700E-06,0.108
2.710E-06,0.112
2.720E-06,0.112
2.730E-06,0.108
2.740E-06,0.112
2.750E-06,0.112
2.760E-06,0.104
2.770E-06,0.104
2.780E-06,0.104
2.790E-06,0.104
2.800E-06,0.104
2.810E-06,0.104
2.820E-06,0.104
2.830E-06,0.104
2.840E-06,0.104
2.850E-06,0.104
2.860E-06,0.100
2.870E-06,0.104
2.880E-06,0.104
2.890E-06,0.096
2.900E-06,0.104
2.910E-06,0.104
2.920E-06,0.104
2.930E-06,0.104
2.940E-06,0.104
2.950E-06,0.104
2.960E-06,0.100
2.970E-06,0.100
2.980E-06,0.100
2.990E-06,0.104
3.000E-06,0.100
3.010E-06,0.096
3.020E-06,0.096
3.030E-06,0.100
3.040E-06,0.096
3.050E-06,0.100
3.060E-06,0.096
3.070E-06,0.100
3.080E-06,0.096
3.090E-06,0.092
3.100E-06,0.092
3.110E-06,0.096
3.120E-06,0.092
3.130E-06,0.096
3.140E-06,0.092
3.150E-06,0.092
3.160E-06,0.096
3.170E-06,0.096
3.180E-06,0.092
3.190E-06,0.096
3.200E-06,0.096
3.210E-06,0.096
3.220E-06,0.092
3.230E-06,0.096
3.240E-06,0.096
3.250E-06,0.096
3.260E-06,0.088
3.270E-06,0.088
3.280E-06,0.092
3.290E-06,0.092
3.300E-06,0.092
3.310E-06,0.096
3.320E-06,0.092
3.330E-06,0.092
3.340E-06,0.092
3.350E-06,0.088
3.360E-06,0.088
3.370E-06,0.092
3.380E-06,0.092
3.390E-06,0.088
3.400E-06,0.092
3.410E-06,0.088
3.420E-06,0.088
3.430E-06,0.092
3.440E-06,0.088
3.450E-06,0.088
