mediciones/5-27/-47.5/WaveData50162.csv

#timebase=2000000(ps)
,#voltbase=100000(mv/100)
#size=4000
-8.400E-06,0.004
-8.390E-06,0.004
-8.380E-06,0.008
-8.370E-06,0.000
-8.360E-06,0.004
-8.350E-06,0.000
-8.340E-06,0.004
-8.330E-06,0.004
-8.320E-06,0.004
-8.310E-06,0.000
-8.300E-06,0.000
-8.290E-06,0.004
-8.280E-06,0.000
-8.270E-06,0.004
-8.260E-06,0.000
-8.250E-06,0.004
-8.240E-06,0.000
-8.230E-06,0.004
-8.220E-06,0.004
-8.210E-06,0.008
-8.200E-06,0.008
-8.190E-06,0.008
-8.180E-06,0.000
-8.170E-06,0.004
-8.160E-06,0.000
-8.150E-06,0.000
-8.140E-06,0.000
-8.130E-06,0.004
-8.120E-06,0.004
-8.110E-06,0.004
-8.100E-06,0.004
-8.090E-06,-0.004
-8.080E-06,0.004
-8.070E-06,0.008
-8.060E-06,0.008
-8.050E-06,0.008
-8.040E-06,0.008
-8.030E-06,0.008
-8.020E-06,0.008
-8.010E-06,0.004
-8.000E-06,0.008
-7.990E-06,0.000
-7.980E-06,0.000
-7.970E-06,0.004
-7.960E-06,0.004
-7.950E-06,0.004
-7.940E-06,0.004
-7.930E-06,0.004
-7.920E-06,0.000
-7.910E-06,0.004
-7.900E-06,0.004
-7.890E-06,0.004
-7.880E-06,0.004
-7.870E-06,0.004
-7.860E-06,0.004
-7.850E-06,0.004
-7.840E-06,0.004
-7.830E-06,0.004
-7.820E-06,0.004
-7.810E-06,0.008
-7.800E-06,0.008
-7.790E-06,-0.004
-7.780E-06,0.000
-7.770E-06,0.004
-7.760E-06,-0.004
-7.750E-06,0.000
-7.740E-06,0.000
-7.730E-06,0.000
-7.720E-06,0.004
-7.710E-06,0.004
-7.700E-06,0.000
-7.690E-06,0.000
-7.680E-06,0.004
-7.670E-06,0.000
-7.660E-06,0.004
-7.650E-06,0.004
-7.640E-06,0.004
-7.630E-06,0.004
-7.620E-06,0.004
-7.610E-06,0.004
-7.600E-06,0.004
-7.590E-06,0.000
-7.580E-06,0.000
-7.570E-06,0.008
-7.560E-06,0.008
-7.550E-06,0.004
-7.540E-06,0.000
-7.530E-06,0.004
-7.520E-06,0.004
-7.510E-06,0.004
-7.500E-06,0.004
-7.490E-06,0.004
-7.480E-06,0.004
-7.470E-06,0.000
-7.460E-06,0.004
-7.450E-06,0.004
-7.440E-06,0.000
-7.430E-06,0.004
-7.420E-06,0.008
-7.410E-06,0.008
-7.400E-06,0.008
-7.390E-06,0.000
-7.380E-06,0.000
-7.370E-06,0.004
-7.360E-06,0.000
-7.350E-06,0.004
-7.340E-06,0.004
-7.330E-06,0.004
-7.320E-06,0.004
-7.310E-06,0.000
-7.300E-06,0.000
-7.290E-06,0.004
-7.280E-06,0.008
-7.270E-06,0.000
-7.260E-06,0.004
-7.250E-06,0.004
-7.240E-06,0.000
-7.230E-06,-0.004
-7.220E-06,0.000
-7.210E-06,0.004
-7.200E-06,0.000
-7.190E-06,-0.004
-7.180E-06,0.004
-7.170E-06,0.000
-7.160E-06,0.004
-7.150E-06,-0.004
-7.140E-06,0.000
-7.130E-06,0.000
-7.120E-06,0.008
-7.110E-06,-0.004
-7.100E-06,0.000
-7.090E-06,0.004
-7.080E-06,0.004
-7.070E-06,0.000
-7.060E-06,0.000
-7.050E-06,0.004
-7.040E-06,0.008
-7.030E-06,0.000
-7.020E-06,0.004
-7.010E-06,0.000
-7.000E-06,0.004
-6.990E-06,0.000
-6.980E-06,0.000
-6.970E-06,0.004
-6.960E-06,0.004
-6.950E-06,0.004
-6.940E-06,0.000
-6.930E-06,0.000
-6.920E-06,0.000
-6.910E-06,0.000
-6.900E-06,0.000
-6.890E-06,0.000
-6.880E-06,0.004
-6.870E-06,0.000
-6.860E-06,0.004
-6.850E-06,0.000
-6.840E-06,0.000
-6.830E-06,0.004
-6.820E-06,0.000
-6.810E-06,0.000
-6.800E-06,-0.004
-6.790E-06,0.000
-6.780E-06,0.000
-6.770E-06,0.004
-6.760E-06,-0.004
-6.750E-06,0.004
-6.740E-06,0.000
-6.730E-06,0.000
-6.720E-06,0.004
-6.710E-06,0.004
-6.700E-06,0.000
-6.690E-06,0.004
-6.680E-06,0.004
-6.670E-06,0.000
-6.660E-06,0.004
-6.650E-06,0.000
-6.640E-06,0.000
-6.630E-06,0.004
-6.620E-06,0.000
-6.610E-06,0.000
-6.600E-06,0.000
-6.590E-06,0.004
-6.580E-06,0.000
-6.570E-06,0.004
-6.560E-06,0.004
-6.550E-06,0.004
-6.540E-06,0.000
-6.530E-06,0.000
-6.520E-06,0.004
-6.510E-06,0.004
-6.500E-06,0.000
-6.490E-06,0.000
-6.480E-06,0.004
-6.470E-06,0.004
-6.460E-06,0.000
-6.450E-06,0.004
-6.440E-06,0.004
-6.430E-06,0.004
-6.420E-06,0.004
-6.410E-06,0.004
-6.400E-06,-0.004
-6.390E-06,0.004
-6.380E-06,0.000
-6.370E-06,0.004
-6.360E-06,0.004
-6.350E-06,0.004
-6.340E-06,0.000
-6.330E-06,0.000
-6.320E-06,0.004
-6.310E-06,0.004
-6.300E-06,0.004
-6.290E-06,0.004
-6.280E-06,0.000
-6.270E-06,0.000
-6.260E-06,0.004
-6.250E-06,-0.004
-6.240E-06,0.004
-6.230E-06,0.004
-6.220E-06,0.004
-6.210E-06,0.000
-6.200E-06,0.000
-6.190E-06,0.000
-6.180E-06,0.004
-6.170E-06,0.008
-6.160E-06,0.008
-6.150E-06,0.000
-6.140E-06,0.000
-6.130E-06,0.004
-6.120E-06,-0.004
-6.110E-06,0.004
-6.100E-06,0.000
-6.090E-06,0.004
-6.080E-06,0.004
-6.070E-06,0.004
-6.060E-06,0.004
-6.050E-06,0.004
-6.040E-06,0.004
-6.030E-06,0.004
-6.020E-06,0.004
-6.010E-06,0.004
-6.000E-06,0.004
-5.990E-06,0.008
-5.980E-06,0.008
-5.970E-06,0.008
-5.960E-06,0.008
-5.950E-06,0.008
-5.940E-06,0.000
-5.930E-06,0.004
-5.920E-06,0.004
-5.910E-06,0.000
-5.900E-06,0.004
-5.890E-06,0.004
-5.880E-06,0.000
-5.870E-06,0.000
-5.860E-06,0.004
-5.850E-06,0.000
-5.840E-06,0.004
-5.830E-06,0.004
-5.820E-06,0.004
-5.810E-06,0.000
-5.800E-06,-0.004
-5.790E-06,0.004
-5.780E-06,0.000
-5.770E-06,0.004
-5.760E-06,0.008
-5.750E-06,0.000
-5.740E-06,0.000
-5.730E-06,0.004
-5.720E-06,0.004
-5.710E-06,0.004
-5.700E-06,0.004
-5.690E-06,0.004
-5.680E-06,0.000
-5.670E-06,0.008
-5.660E-06,0.008
-5.650E-06,0.000
-5.640E-06,-0.004
-5.630E-06,0.004
-5.620E-06,0.000
-5.610E-06,0.004
-5.600E-06,-0.004
-5.590E-06,0.000
-5.580E-06,0.004
-5.570E-06,0.000
-5.560E-06,0.004
-5.550E-06,0.004
-5.540E-06,0.000
-5.530E-06,0.000
-5.520E-06,0.000
-5.510E-06,0.004
-5.500E-06,0.000
-5.490E-06,0.008
-5.480E-06,0.000
-5.470E-06,0.000
-5.460E-06,0.004
-5.450E-06,0.004
-5.440E-06,0.000
-5.430E-06,0.000
-5.420E-06,0.004
-5.410E-06,0.000
-5.400E-06,0.000
-5.390E-06,0.000
-5.380E-06,0.004
-5.370E-06,0.004
-5.360E-06,0.000
-5.350E-06,0.004
-5.340E-06,0.004
-5.330E-06,0.000
-5.320E-06,0.004
-5.310E-06,-0.004
-5.300E-06,0.004
-5.290E-06,0.000
-5.280E-06,0.000
-5.270E-06,0.008
-5.260E-06,0.008
-5.250E-06,0.008
-5.240E-06,0.008
-5.230E-06,0.000
-5.220E-06,-0.004
-5.210E-06,0.004
-5.200E-06,0.004
-5.190E-06,0.004
-5.180E-06,0.004
-5.170E-06,0.000
-5.160E-06,0.000
-5.150E-06,0.004
-5.140E-06,0.004
-5.130E-06,0.004
-5.120E-06,0.000
-5.110E-06,0.000
-5.100E-06,0.000
-5.090E-06,0.004
-5.080E-06,0.000
-5.070E-06,0.000
-5.060E-06,0.000
-5.050E-06,0.000
-5.040E-06,0.008
-5.030E-06,0.008
-5.020E-06,-0.004
-5.010E-06,-0.004
-5.000E-06,0.004
-4.990E-06,0.008
-4.980E-06,0.000
-4.970E-06,0.000
-4.960E-06,0.004
-4.950E-06,-0.004
-4.940E-06,0.004
-4.930E-06,0.000
-4.920E-06,0.004
-4.910E-06,0.000
-4.900E-06,0.004
-4.890E-06,0.004
-4.880E-06,0.004
-4.870E-06,0.008
-4.860E-06,0.008
-4.850E-06,0.004
-4.840E-06,0.000
-4.830E-06,0.000
-4.820E-06,0.004
-4.810E-06,0.008
-4.800E-06,0.008
-4.790E-06,0.000
-4.780E-06,-0.004
-4.770E-06,0.004
-4.760E-06,-0.004
-4.750E-06,0.000
-4.740E-06,0.004
-4.730E-06,0.008
-4.720E-06,0.000
-4.710E-06,-0.004
-4.700E-06,0.004
-4.690E-06,0.000
-4.680E-06,0.004
-4.670E-06,0.000
-4.660E-06,0.000
-4.650E-06,0.000
-4.640E-06,0.000
-4.630E-06,0.004
-4.620E-06,0.004
-4.610E-06,0.004
-4.600E-06,0.008
-4.590E-06,0.008
-4.580E-06,-0.004
-4.570E-06,0.000
-4.560E-06,0.004
-4.550E-06,0.000
-4.540E-06,0.000
-4.530E-06,0.000
-4.520E-06,0.004
-4.510E-06,0.008
-4.500E-06,0.000
-4.490E-06,0.004
-4.480E-06,0.004
-4.470E-06,0.004
-4.460E-06,0.004
-4.450E-06,0.004
-4.440E-06,0.000
-4.430E-06,0.004
-4.420E-06,0.004
-4.410E-06,0.004
-4.400E-06,0.000
-4.390E-06,0.004
-4.380E-06,0.004
-4.370E-06,0.000
-4.360E-06,0.004
-4.350E-06,0.000
-4.340E-06,0.004
-4.330E-06,0.004
-4.320E-06,0.004
-4.310E-06,0.004
-4.300E-06,0.008
-4.290E-06,0.004
-4.280E-06,0.004
-4.270E-06,0.028
-4.260E-06,0.000
-4.250E-06,0.040
-4.240E-06,-0.004
-4.230E-06,-0.040
-4.220E-06,-0.056
-4.210E-06,-0.052
-4.200E-06,0.024
-4.190E-06,0.056
-4.180E-06,0.088
-4.170E-06,0.024
-4.160E-06,-0.020
-4.150E-06,-0.060
-4.140E-06,-0.060
-4.130E-06,-0.008
-4.120E-06,0.040
-4.110E-06,0.060
-4.100E-06,0.028
-4.090E-06,0.000
-4.080E-06,-0.044
-4.070E-06,-0.024
-4.060E-06,-0.004
-4.050E-06,0.032
-4.040E-06,0.032
-4.030E-06,0.016
-4.020E-06,-0.008
-4.010E-06,-0.020
-4.000E-06,-0.012
-3.990E-06,0.004
-3.980E-06,0.024
-3.970E-06,0.020
-3.960E-06,0.004
-3.950E-06,-0.004
-3.940E-06,-0.016
-3.930E-06,-0.004
-3.920E-06,0.012
-3.910E-06,0.016
-3.900E-06,0.012
-3.890E-06,0.000
-3.880E-06,-0.012
-3.870E-06,-0.004
-3.860E-06,0.000
-3.850E-06,0.008
-3.840E-06,0.020
-3.830E-06,0.012
-3.820E-06,0.004
-3.810E-06,0.000
-3.800E-06,-0.004
-3.790E-06,0.004
-3.780E-06,0.008
-3.770E-06,0.012
-3.760E-06,0.012
-3.750E-06,0.004
-3.740E-06,0.000
-3.730E-06,0.000
-3.720E-06,0.000
-3.710E-06,0.000
-3.700E-06,0.000
-3.690E-06,0.004
-3.680E-06,0.004
-3.670E-06,0.004
-3.660E-06,0.004
-3.650E-06,0.000
-3.640E-06,0.000
-3.630E-06,0.004
-3.620E-06,0.004
-3.610E-06,0.004
-3.600E-06,0.008
-3.590E-06,0.004
-3.580E-06,0.008
-3.570E-06,0.004
-3.560E-06,0.012
-3.550E-06,0.004
-3.540E-06,0.000
-3.530E-06,0.000
-3.520E-06,0.000
-3.510E-06,0.004
-3.500E-06,0.004
-3.490E-06,0.008
-3.480E-06,0.004
-3.470E-06,0.000
-3.460E-06,-0.008
-3.450E-06,0.000
-3.440E-06,0.004
-3.430E-06,0.008
-3.420E-06,0.012
-3.410E-06,0.008
-3.400E-06,0.000
-3.390E-06,-0.004
-3.380E-06,-0.004
-3.370E-06,0.000
-3.360E-06,0.004
-3.350E-06,0.008
-3.340E-06,0.008
-3.330E-06,0.008
-3.320E-06,0.000
-3.310E-06,-0.004
-3.300E-06,-0.004
-3.290E-06,0.004
-3.280E-06,0.008
-3.270E-06,0.012
-3.260E-06,0.004
-3.250E-06,0.004
-3.240E-06,0.008
-3.230E-06,0.000
-3.220E-06,0.004
-3.210E-06,0.000
-3.200E-06,-0.004
-3.190E-06,0.004
-3.180E-06,-0.004
-3.170E-06,0.000
-3.160E-06,0.004
-3.150E-06,0.008
-3.140E-06,0.008
-3.130E-06,0.004
-3.120E-06,-0.004
-3.110E-06,-0.004
-3.100E-06,0.000
-3.090E-06,0.004
-3.080E-06,0.012
-3.070E-06,0.004
-3.060E-06,0.000
-3.050E-06,-0.004
-3.040E-06,-0.008
-3.030E-06,-0.004
-3.020E-06,0.000
-3.010E-06,0.012
-3.000E-06,0.012
-2.990E-06,0.008
-2.980E-06,0.004
-2.970E-06,-0.004
-2.960E-06,0.000
-2.950E-06,0.004
-2.940E-06,0.008
-2.930E-06,0.008
-2.920E-06,0.008
-2.910E-06,0.004
-2.900E-06,0.000
-2.890E-06,0.000
-2.880E-06,0.008
-2.870E-06,0.004
-2.860E-06,0.008
-2.850E-06,0.000
-2.840E-06,0.004
-2.830E-06,0.008
-2.820E-06,0.012
-2.810E-06,0.012
-2.800E-06,0.012
-2.790E-06,0.000
-2.780E-06,0.004
-2.770E-06,0.004
-2.760E-06,0.008
-2.750E-06,0.012
-2.740E-06,0.012
-2.730E-06,0.012
-2.720E-06,0.008
-2.710E-06,0.004
-2.700E-06,0.008
-2.690E-06,0.004
-2.680E-06,0.012
-2.670E-06,0.024
-2.660E-06,0.020
-2.650E-06,0.012
-2.640E-06,0.004
-2.630E-06,-0.012
-2.620E-06,-0.008
-2.610E-06,0.008
-2.600E-06,0.016
-2.590E-06,0.024
-2.580E-06,0.016
-2.570E-06,0.012
-2.560E-06,-0.004
-2.550E-06,-0.004
-2.540E-06,0.004
-2.530E-06,0.016
-2.520E-06,0.012
-2.510E-06,-0.004
-2.500E-06,0.000
-2.490E-06,0.008
-2.480E-06,0.016
-2.470E-06,0.024
-2.460E-06,0.020
-2.450E-06,0.008
-2.440E-06,0.000
-2.430E-06,-0.004
-2.420E-06,0.004
-2.410E-06,0.008
-2.400E-06,0.020
-2.390E-06,0.012
-2.380E-06,0.008
-2.370E-06,0.004
-2.360E-06,0.020
-2.350E-06,0.028
-2.340E-06,0.044
-2.330E-06,0.044
-2.320E-06,0.024
-2.310E-06,0.008
-2.300E-06,-0.012
-2.290E-06,-0.024
-2.280E-06,-0.008
-2.270E-06,-0.024
-2.260E-06,-0.024
-2.250E-06,-0.016
-2.240E-06,-0.040
-2.230E-06,-0.032
-2.220E-06,-0.020
-2.210E-06,0.000
-2.200E-06,0.012
-2.190E-06,0.012
-2.180E-06,-0.004
-2.170E-06,-0.012
-2.160E-06,-0.016
-2.150E-06,-0.008
-2.140E-06,0.004
-2.130E-06,0.016
-2.120E-06,0.004
-2.110E-06,-0.004
-2.100E-06,-0.004
-2.090E-06,0.000
-2.080E-06,0.000
-2.070E-06,0.008
-2.060E-06,0.012
-2.050E-06,0.004
-2.040E-06,0.000
-2.030E-06,0.000
-2.020E-06,0.000
-2.010E-06,0.000
-2.000E-06,0.004
-1.990E-06,0.008
-1.980E-06,0.004
-1.970E-06,0.000
-1.960E-06,0.000
-1.950E-06,0.004
-1.940E-06,0.008
-1.930E-06,0.008
-1.920E-06,0.008
-1.910E-06,0.008
-1.900E-06,0.008
-1.890E-06,0.008
-1.880E-06,0.008
-1.870E-06,0.008
-1.860E-06,0.016
-1.850E-06,0.020
-1.840E-06,0.016
-1.830E-06,0.024
-1.820E-06,0.028
-1.810E-06,0.032
-1.800E-06,0.028
-1.790E-06,0.036
-1.780E-06,0.028
-1.770E-06,0.024
-1.760E-06,0.024
-1.750E-06,0.020
-1.740E-06,0.012
-1.730E-06,0.004
-1.720E-06,0.000
-1.710E-06,-0.012
-1.700E-06,-0.004
-1.690E-06,0.004
-1.680E-06,0.012
-1.670E-06,0.020
-1.660E-06,0.012
-1.650E-06,0.008
-1.640E-06,0.004
-1.630E-06,0.000
-1.620E-06,0.012
-1.610E-06,0.024
-1.600E-06,0.036
-1.590E-06,0.032
-1.580E-06,0.024
-1.570E-06,0.024
-1.560E-06,0.036
-1.550E-06,0.040
-1.540E-06,0.052
-1.530E-06,0.064
-1.520E-06,0.052
-1.510E-06,0.028
-1.500E-06,0.000
-1.490E-06,-0.024
-1.480E-06,-0.024
-1.470E-06,-0.024
-1.460E-06,-0.008
-1.450E-06,-0.008
-1.440E-06,-0.008
-1.430E-06,-0.008
-1.420E-06,0.008
-1.410E-06,0.008
-1.400E-06,0.004
-1.390E-06,-0.012
-1.380E-06,-0.028
-1.370E-06,-0.028
-1.360E-06,-0.024
-1.350E-06,-0.012
-1.340E-06,0.008
-1.330E-06,0.004
-1.320E-06,0.004
-1.310E-06,0.012
-1.300E-06,0.020
-1.290E-06,0.020
-1.280E-06,0.016
-1.270E-06,0.000
-1.260E-06,-0.012
-1.250E-06,-0.020
-1.240E-06,0.000
-1.230E-06,0.020
-1.220E-06,0.044
-1.210E-06,0.048
-1.200E-06,0.044
-1.190E-06,0.044
-1.180E-06,0.024
-1.170E-06,0.020
-1.160E-06,0.024
-1.150E-06,0.024
-1.140E-06,0.028
-1.130E-06,0.044
-1.120E-06,0.044
-1.110E-06,0.056
-1.100E-06,0.056
-1.090E-06,0.068
-1.080E-06,0.072
-1.070E-06,0.080
-1.060E-06,0.088
-1.050E-06,0.072
-1.040E-06,0.060
-1.030E-06,0.052
-1.020E-06,0.060
-1.010E-06,0.068
-1.000E-06,0.076
-9.900E-07,0.072
-9.800E-07,0.064
-9.700E-07,0.048
-9.600E-07,0.032
-9.500E-07,0.024
-9.400E-07,0.028
-9.300E-07,0.040
-9.200E-07,0.020
-9.100E-07,-0.012
-9.000E-07,-0.088
-8.900E-07,-0.160
-8.800E-07,-0.196
-8.700E-07,-0.176
-8.600E-07,-0.124
-8.500E-07,-0.040
-8.400E-07,0.008
-8.300E-07,0.012
-8.200E-07,0.000
-8.100E-07,-0.036
-8.000E-07,-0.052
-7.900E-07,-0.040
-7.800E-07,-0.024
-7.700E-07,0.008
-7.600E-07,0.028
-7.500E-07,0.052
-7.400E-07,0.048
-7.300E-07,0.040
-7.200E-07,0.052
-7.100E-07,0.072
-7.000E-07,0.088
-6.900E-07,0.112
-6.800E-07,0.124
-6.700E-07,0.108
-6.600E-07,0.096
-6.500E-07,0.072
-6.400E-07,0.060
-6.300E-07,0.060
-6.200E-07,0.092
-6.100E-07,0.088
-6.000E-07,0.092
-5.900E-07,0.052
-5.800E-07,0.012
-5.700E-07,-0.020
-5.600E-07,-0.040
-5.500E-07,-0.056
-5.400E-07,-0.072
-5.300E-07,-0.076
-5.200E-07,-0.104
-5.100E-07,-0.124
-5.000E-07,-0.132
-4.900E-07,-0.108
-4.800E-07,-0.072
-4.700E-07,-0.004
-4.600E-07,0.008
-4.500E-07,0.024
-4.400E-07,0.004
-4.300E-07,0.000
-4.200E-07,0.004
-4.100E-07,0.020
-4.000E-07,0.044
-3.900E-07,0.052
-3.800E-07,0.060
-3.700E-07,0.068
-3.600E-07,0.072
-3.500E-07,0.092
-3.400E-07,0.128
-3.300E-07,0.152
-3.200E-07,0.172
-3.100E-07,0.168
-3.000E-07,0.164
-2.900E-07,0.140
-2.800E-07,0.140
-2.700E-07,0.144
-2.600E-07,0.152
-2.500E-07,0.160
-2.400E-07,0.152
-2.300E-07,0.104
-2.200E-07,0.036
-2.100E-07,-0.052
-2.000E-07,-0.136
-1.900E-07,-0.180
-1.800E-07,-0.176
-1.700E-07,-0.132
-1.600E-07,-0.072
-1.500E-07,-0.036
-1.400E-07,-0.048
-1.300E-07,-0.040
-1.200E-07,-0.076
-1.100E-07,-0.048
-1.000E-07,-0.028
-9.000E-08,0.004
-8.000E-08,0.044
-7.000E-08,0.036
-6.000E-08,0.024
-5.000E-08,0.020
-4.000E-08,0.036
-3.000E-08,0.060
-2.000E-08,0.120
-1.000E-08,0.160
0.000E+00,0.196
1.000E-08,0.196
2.000E-08,0.160
3.000E-08,0.112
4.000E-08,0.060
5.000E-08,0.036
6.000E-08,-0.008
7.000E-08,0.016
8.000E-08,0.008
9.000E-08,0.056
1.000E-07,0.112
1.100E-07,0.176
1.200E-07,0.192
1.300E-07,0.172
1.400E-07,0.088
1.500E-07,0.020
1.600E-07,-0.020
1.700E-07,-0.012
1.800E-07,0.036
1.900E-07,0.076
2.000E-07,0.088
2.100E-07,0.060
2.200E-07,0.040
2.300E-07,0.056
2.400E-07,0.120
2.500E-07,0.160
2.600E-07,0.196
2.700E-07,0.176
2.800E-07,0.124
2.900E-07,0.064
3.000E-07,0.028
3.100E-07,0.060
3.200E-07,0.124
3.300E-07,0.180
3.400E-07,0.216
3.500E-07,0.208
3.600E-07,0.128
3.700E-07,-0.020
3.800E-07,-0.200
3.900E-07,-0.332
4.000E-07,-0.476
4.100E-07,-0.484
4.200E-07,-0.424
4.300E-07,-0.316
4.400E-07,-0.200
4.500E-07,-0.140
4.600E-07,-0.004
4.700E-07,0.072
4.800E-07,0.124
4.900E-07,0.076
5.000E-07,-0.008
5.100E-07,-0.192
5.200E-07,-0.324
5.300E-07,-0.380
5.400E-07,-0.304
5.500E-07,-0.136
5.600E-07,-0.036
5.700E-07,0.024
5.800E-07,-0.004
5.900E-07,-0.028
6.000E-07,-0.088
6.100E-07,-0.068
6.200E-07,-0.012
6.300E-07,0.056
6.400E-07,0.068
6.500E-07,0.076
6.600E-07,0.068
6.700E-07,0.040
6.800E-07,0.044
6.900E-07,0.044
7.000E-07,0.060
7.100E-07,0.068
7.200E-07,0.072
7.300E-07,0.072
7.400E-07,0.084
7.500E-07,0.096
7.600E-07,0.084
7.700E-07,0.084
7.800E-07,0.076
7.900E-07,0.092
8.000E-07,0.112
8.100E-07,0.136
8.200E-07,0.164
8.300E-07,0.184
8.400E-07,0.200
8.500E-07,0.200
8.600E-07,0.192
8.700E-07,0.180
8.800E-07,0.172
8.900E-07,0.176
9.000E-07,0.172
9.100E-07,0.172
9.200E-07,0.168
9.300E-07,0.168
9.400E-07,0.168
9.500E-07,0.172
9.600E-07,0.168
9.700E-07,0.168
9.800E-07,0.164
9.900E-07,0.156
1.000E-06,0.156
1.010E-06,0.168
1.020E-06,0.172
1.030E-06,0.176
1.040E-06,0.172
1.050E-06,0.172
1.060E-06,0.176
1.070E-06,0.164
1.080E-06,0.160
1.090E-06,0.156
1.100E-06,0.160
1.110E-06,0.160
1.120E-06,0.156
1.130E-06,0.148
1.140E-06,0.140
1.150E-06,0.132
1.160E-06,0.128
1.170E-06,0.108
1.180E-06,0.108
1.190E-06,0.104
1.200E-06,0.092
1.210E-06,0.088
1.220E-06,0.084
1.230E-06,0.096
1.240E-06,0.108
1.250E-06,0.112
1.260E-06,0.100
1.270E-06,0.104
1.280E-06,0.096
1.290E-06,0.124
1.300E-06,0.144
1.310E-06,0.168
1.320E-06,0.172
1.330E-06,0.172
1.340E-06,0.144
1.350E-06,0.140
1.360E-06,0.148
1.370E-06,0.164
1.380E-06,0.180
1.390E-06,0.180
1.400E-06,0.172
1.410E-06,0.156
1.420E-06,0.160
1.430E-06,0.152
1.440E-06,0.160
1.450E-06,0.168
1.460E-06,0.172
1.470E-06,0.164
1.480E-06,0.164
1.490E-06,0.160
1.500E-06,0.164
1.510E-06,0.164
1.520E-06,0.164
1.530E-06,0.172
1.540E-06,0.172
1.550E-06,0.176
1.560E-06,0.168
1.570E-06,0.168
1.580E-06,0.168
1.590E-06,0.160
1.600E-06,0.168
1.610E-06,0.172
1.620E-06,0.168
1.630E-06,0.172
1.640E-06,0.164
1.650E-06,0.160
1.660E-06,0.164
1.670E-06,0.164
1.680E-06,0.168
1.690E-06,0.172
1.700E-06,0.168
1.710E-06,0.164
1.720E-06,0.164
1.730E-06,0.160
1.740E-06,0.164
1.750E-06,0.160
1.760E-06,0.160
1.770E-06,0.164
1.780E-06,0.164
1.790E-06,0.156
1.800E-06,0.156
1.810E-06,0.156
1.820E-06,0.152
1.830E-06,0.152
1.840E-06,0.160
1.850E-06,0.160
1.860E-06,0.164
1.870E-06,0.160
1.880E-06,0.152
1.890E-06,0.156
1.900E-06,0.152
1.910E-06,0.160
1.920E-06,0.156
1.930E-06,0.160
1.940E-06,0.160
1.950E-06,0.164
1.960E-06,0.160
1.970E-06,0.152
1.980E-06,0.156
1.990E-06,0.152
2.000E-06,0.156
2.010E-06,0.152
2.020E-06,0.152
2.030E-06,0.156
2.040E-06,0.160
2.050E-06,0.160
2.060E-06,0.152
2.070E-06,0.148
2.080E-06,0.152
2.090E-06,0.148
2.100E-06,0.156
2.110E-06,0.148
2.120E-06,0.152
2.130E-06,0.148
2.140E-06,0.152
2.150E-06,0.152
2.160E-06,0.152
2.170E-06,0.152
2.180E-06,0.152
2.190E-06,0.152
2.200E-06,0.152
2.210E-06,0.152
2.220E-06,0.152
2.230E-06,0.148
2.240E-06,0.148
2.250E-06,0.148
2.260E-06,0.136
2.270E-06,0.136
2.280E-06,0.140
2.290E-06,0.140
2.300E-06,0.144
2.310E-06,0.144
2.320E-06,0.140
2.330E-06,0.132
2.340E-06,0.128
2.350E-06,0.128
2.360E-06,0.136
2.370E-06,0.140
2.380E-06,0.140
2.390E-06,0.144
2.400E-06,0.140
2.410E-06,0.140
2.420E-06,0.136
2.430E-06,0.132
2.440E-06,0.132
2.450E-06,0.136
2.460E-06,0.136
2.470E-06,0.140
2.480E-06,0.144
2.490E-06,0.148
2.500E-06,0.144
2.510E-06,0.140
2.520E-06,0.136
2.530E-06,0.132
2.540E-06,0.128
2.550E-06,0.140
2.560E-06,0.140
2.570E-06,0.140
2.580E-06,0.136
2.590E-06,0.128
2.600E-06,0.128
2.610E-06,0.128
2.620E-06,0.132
2.630E-06,0.136
2.640E-06,0.136
2.650E-06,0.136
2.660E-06,0.136
2.670E-06,0.132
2.680E-06,0.132
2.690E-06,0.136
2.700E-06,0.136
2.710E-06,0.136
2.720E-06,0.128
2.730E-06,0.128
2.740E-06,0.132
2.750E-06,0.128
2.760E-06,0.140
2.770E-06,0.140
2.780E-06,0.136
2.790E-06,0.128
2.800E-06,0.128
2.810E-06,0.128
2.820E-06,0.132
2.830E-06,0.136
2.840E-06,0.136
2.850E-06,0.136
2.860E-06,0.132
2.870E-06,0.128
2.880E-06,0.128
2.890E-06,0.128
2.900E-06,0.136
2.910E-06,0.132
2.920E-06,0.128
2.930E-06,0.128
2.940E-06,0.132
2.950E-06,0.132
2.960E-06,0.128
2.970E-06,0.132
2.980E-06,0.132
2.990E-06,0.132
3.000E-06,0.128
3.010E-06,0.128
3.020E-06,0.128
3.030E-06,0.128
3.040E-06,0.132
3.050E-06,0.132
3.060E-06,0.128
3.070E-06,0.124
3.080E-06,0.124
3.090E-06,0.124
3.100E-06,0.128
3.110E-06,0.128
3.120E-06,0.124
3.130E-06,0.124
3.140E-06,0.124
3.150E-06,0.128
3.160E-06,0.128
3.170E-06,0.128
3.180E-06,0.128
3.190E-06,0.132
3.200E-06,0.128
3.210E-06,0.128
3.220E-06,0.120
3.230E-06,0.124
3.240E-06,0.120
3.250E-06,0.128
3.260E-06,0.128
3.270E-06,0.128
3.280E-06,0.128
3.290E-06,0.128
3.300E-06,0.120
3.310E-06,0.116
3.320E-06,0.112
3.330E-06,0.120
3.340E-06,0.120
3.350E-06,0.120
3.360E-06,0.116
3.370E-06,0.120
3.380E-06,0.116
3.390E-06,0.112
3.400E-06,0.112
3.410E-06,0.112
3.420E-06,0.116
3.430E-06,0.112
