mediciones/5-27/-47.5/WaveData50178.csv

#timebase=2000000(ps)
,#voltbase=100000(mv/100)
#size=4000
-8.400E-06,0.056
-8.390E-06,0.092
-8.380E-06,0.108
-8.370E-06,0.068
-8.360E-06,0.012
-8.350E-06,-0.088
-8.340E-06,-0.128
-8.330E-06,-0.104
-8.320E-06,-0.032
-8.310E-06,0.056
-8.300E-06,0.076
-8.290E-06,0.036
-8.280E-06,-0.024
-8.270E-06,-0.048
-8.260E-06,-0.024
-8.250E-06,0.028
-8.240E-06,0.060
-8.230E-06,0.068
-8.220E-06,0.036
-8.210E-06,-0.012
-8.200E-06,-0.036
-8.190E-06,-0.032
-8.180E-06,-0.004
-8.170E-06,0.012
-8.160E-06,0.024
-8.150E-06,0.008
-8.140E-06,0.000
-8.130E-06,0.000
-8.120E-06,0.008
-8.110E-06,0.020
-8.100E-06,0.028
-8.090E-06,0.024
-8.080E-06,0.004
-8.070E-06,-0.008
-8.060E-06,-0.008
-8.050E-06,-0.008
-8.040E-06,-0.008
-8.030E-06,0.000
-8.020E-06,-0.004
-8.010E-06,-0.020
-8.000E-06,-0.020
-7.990E-06,-0.008
-7.980E-06,0.000
-7.970E-06,0.012
-7.960E-06,0.016
-7.950E-06,0.020
-7.940E-06,0.012
-7.930E-06,0.012
-7.920E-06,0.008
-7.910E-06,0.012
-7.900E-06,0.004
-7.890E-06,0.004
-7.880E-06,0.000
-7.870E-06,-0.004
-7.860E-06,-0.008
-7.850E-06,0.000
-7.840E-06,0.000
-7.830E-06,0.008
-7.820E-06,0.008
-7.810E-06,0.008
-7.800E-06,0.004
-7.790E-06,0.000
-7.780E-06,0.004
-7.770E-06,0.004
-7.760E-06,0.008
-7.750E-06,0.008
-7.740E-06,0.000
-7.730E-06,-0.004
-7.720E-06,-0.004
-7.710E-06,0.008
-7.700E-06,0.004
-7.690E-06,0.004
-7.680E-06,-0.004
-7.670E-06,0.000
-7.660E-06,-0.004
-7.650E-06,0.000
-7.640E-06,0.004
-7.630E-06,0.008
-7.620E-06,0.012
-7.610E-06,0.004
-7.600E-06,0.000
-7.590E-06,0.008
-7.580E-06,0.008
-7.570E-06,0.012
-7.560E-06,0.012
-7.550E-06,0.008
-7.540E-06,0.000
-7.530E-06,-0.004
-7.520E-06,-0.004
-7.510E-06,0.000
-7.500E-06,0.004
-7.490E-06,0.008
-7.480E-06,0.008
-7.470E-06,0.000
-7.460E-06,-0.004
-7.450E-06,-0.004
-7.440E-06,0.008
-7.430E-06,0.008
-7.420E-06,0.008
-7.410E-06,0.012
-7.400E-06,0.000
-7.390E-06,0.004
-7.380E-06,0.004
-7.370E-06,0.004
-7.360E-06,0.012
-7.350E-06,0.012
-7.340E-06,0.000
-7.330E-06,0.000
-7.320E-06,0.004
-7.310E-06,0.008
-7.300E-06,0.012
-7.290E-06,0.012
-7.280E-06,0.008
-7.270E-06,0.000
-7.260E-06,0.004
-7.250E-06,0.004
-7.240E-06,0.008
-7.230E-06,0.004
-7.220E-06,0.008
-7.210E-06,0.004
-7.200E-06,0.004
-7.190E-06,0.000
-7.180E-06,0.000
-7.170E-06,0.004
-7.160E-06,0.008
-7.150E-06,0.000
-7.140E-06,0.008
-7.130E-06,0.008
-7.120E-06,0.004
-7.110E-06,0.004
-7.100E-06,0.004
-7.090E-06,-0.008
-7.080E-06,0.008
-7.070E-06,0.004
-7.060E-06,0.008
-7.050E-06,0.008
-7.040E-06,0.004
-7.030E-06,0.000
-7.020E-06,0.000
-7.010E-06,0.000
-7.000E-06,0.004
-6.990E-06,0.004
-6.980E-06,0.008
-6.970E-06,0.008
-6.960E-06,0.004
-6.950E-06,-0.004
-6.940E-06,0.000
-6.930E-06,0.004
-6.920E-06,0.012
-6.910E-06,0.012
-6.900E-06,0.000
-6.890E-06,0.004
-6.880E-06,0.008
-6.870E-06,0.008
-6.860E-06,0.008
-6.850E-06,0.008
-6.840E-06,0.008
-6.830E-06,0.004
-6.820E-06,0.004
-6.810E-06,0.012
-6.800E-06,0.004
-6.790E-06,0.008
-6.780E-06,0.012
-6.770E-06,0.012
-6.760E-06,0.012
-6.750E-06,0.012
-6.740E-06,0.012
-6.730E-06,0.012
-6.720E-06,0.016
-6.710E-06,0.004
-6.700E-06,0.008
-6.690E-06,0.008
-6.680E-06,0.008
-6.670E-06,0.008
-6.660E-06,0.008
-6.650E-06,0.004
-6.640E-06,0.012
-6.630E-06,0.016
-6.620E-06,0.012
-6.610E-06,0.016
-6.600E-06,0.008
-6.590E-06,0.004
-6.580E-06,0.008
-6.570E-06,0.000
-6.560E-06,0.004
-6.550E-06,0.004
-6.540E-06,0.012
-6.530E-06,0.008
-6.520E-06,0.012
-6.510E-06,0.012
-6.500E-06,0.008
-6.490E-06,0.008
-6.480E-06,0.008
-6.470E-06,0.016
-6.460E-06,0.012
-6.450E-06,0.020
-6.440E-06,0.016
-6.430E-06,0.012
-6.420E-06,0.012
-6.410E-06,0.016
-6.400E-06,0.024
-6.390E-06,0.016
-6.380E-06,0.020
-6.370E-06,0.024
-6.360E-06,0.020
-6.350E-06,0.024
-6.340E-06,0.028
-6.330E-06,0.032
-6.320E-06,0.024
-6.310E-06,0.024
-6.300E-06,0.016
-6.290E-06,0.012
-6.280E-06,0.008
-6.270E-06,0.008
-6.260E-06,0.012
-6.250E-06,0.008
-6.240E-06,0.016
-6.230E-06,0.020
-6.220E-06,0.032
-6.210E-06,0.036
-6.200E-06,0.036
-6.190E-06,0.032
-6.180E-06,0.028
-6.170E-06,0.016
-6.160E-06,0.020
-6.150E-06,0.020
-6.140E-06,0.024
-6.130E-06,0.028
-6.120E-06,0.020
-6.110E-06,0.020
-6.100E-06,0.024
-6.090E-06,0.032
-6.080E-06,0.056
-6.070E-06,0.072
-6.060E-06,0.080
-6.050E-06,0.080
-6.040E-06,0.080
-6.030E-06,0.068
-6.020E-06,0.088
-6.010E-06,0.072
-6.000E-06,0.056
-5.990E-06,0.008
-5.980E-06,-0.012
-5.970E-06,-0.040
-5.960E-06,-0.008
-5.950E-06,0.028
-5.940E-06,0.068
-5.930E-06,0.028
-5.920E-06,-0.096
-5.910E-06,-0.204
-5.900E-06,-0.240
-5.890E-06,-0.176
-5.880E-06,-0.036
-5.870E-06,0.064
-5.860E-06,0.044
-5.850E-06,-0.020
-5.840E-06,-0.072
-5.830E-06,-0.100
-5.820E-06,-0.052
-5.810E-06,0.044
-5.800E-06,0.076
-5.790E-06,-0.012
-5.780E-06,-0.128
-5.770E-06,-0.216
-5.760E-06,-0.184
-5.750E-06,-0.076
-5.740E-06,0.044
-5.730E-06,0.112
-5.720E-06,0.100
-5.710E-06,0.004
-5.700E-06,-0.080
-5.690E-06,-0.096
-5.680E-06,-0.036
-5.670E-06,0.008
-5.660E-06,0.024
-5.650E-06,0.012
-5.640E-06,-0.028
-5.630E-06,-0.036
-5.620E-06,-0.032
-5.610E-06,-0.008
-5.600E-06,0.012
-5.590E-06,0.032
-5.580E-06,0.016
-5.570E-06,-0.004
-5.560E-06,-0.020
-5.550E-06,-0.008
-5.540E-06,0.008
-5.530E-06,0.020
-5.520E-06,0.028
-5.510E-06,0.008
-5.500E-06,0.004
-5.490E-06,-0.004
-5.480E-06,0.000
-5.470E-06,0.000
-5.460E-06,0.012
-5.450E-06,0.012
-5.440E-06,0.008
-5.430E-06,-0.004
-5.420E-06,0.004
-5.410E-06,0.012
-5.400E-06,0.012
-5.390E-06,0.020
-5.380E-06,0.012
-5.370E-06,0.008
-5.360E-06,0.012
-5.350E-06,0.024
-5.340E-06,0.032
-5.330E-06,0.036
-5.320E-06,0.036
-5.310E-06,0.032
-5.300E-06,0.028
-5.290E-06,0.032
-5.280E-06,0.048
-5.270E-06,0.056
-5.260E-06,0.052
-5.250E-06,0.056
-5.240E-06,0.044
-5.230E-06,0.052
-5.220E-06,0.056
-5.210E-06,0.072
-5.200E-06,0.072
-5.190E-06,0.084
-5.180E-06,0.072
-5.170E-06,0.084
-5.160E-06,0.092
-5.150E-06,0.088
-5.140E-06,0.056
-5.130E-06,0.000
-5.120E-06,-0.060
-5.110E-06,-0.140
-5.100E-06,-0.172
-5.090E-06,-0.172
-5.080E-06,-0.120
-5.070E-06,-0.052
-5.060E-06,0.024
-5.050E-06,0.048
-5.040E-06,0.012
-5.030E-06,0.020
-5.020E-06,-0.032
-5.010E-06,-0.028
-5.000E-06,-0.008
-4.990E-06,0.032
-4.980E-06,0.056
-4.970E-06,0.040
-4.960E-06,0.012
-4.950E-06,-0.020
-4.940E-06,-0.024
-4.930E-06,0.000
-4.920E-06,0.024
-4.910E-06,0.052
-4.900E-06,0.060
-4.890E-06,0.056
-4.880E-06,0.028
-4.870E-06,0.020
-4.860E-06,0.032
-4.850E-06,0.020
-4.840E-06,0.028
-4.830E-06,0.012
-4.820E-06,-0.024
-4.810E-06,-0.044
-4.800E-06,-0.060
-4.790E-06,-0.036
-4.780E-06,0.008
-4.770E-06,0.048
-4.760E-06,0.068
-4.750E-06,0.052
-4.740E-06,0.004
-4.730E-06,-0.040
-4.720E-06,-0.068
-4.710E-06,-0.060
-4.700E-06,-0.020
-4.690E-06,0.008
-4.680E-06,0.032
-4.670E-06,0.028
-4.660E-06,0.008
-4.650E-06,-0.004
-4.640E-06,-0.012
-4.630E-06,-0.008
-4.620E-06,0.000
-4.610E-06,0.024
-4.600E-06,0.024
-4.590E-06,0.032
-4.580E-06,0.028
-4.570E-06,0.032
-4.560E-06,0.040
-4.550E-06,0.052
-4.540E-06,0.064
-4.530E-06,0.072
-4.520E-06,0.076
-4.510E-06,0.064
-4.500E-06,0.056
-4.490E-06,0.044
-4.480E-06,0.032
-4.470E-06,0.028
-4.460E-06,-0.036
-4.450E-06,-0.096
-4.440E-06,-0.172
-4.430E-06,-0.188
-4.420E-06,-0.156
-4.410E-06,-0.048
-4.400E-06,0.056
-4.390E-06,0.092
-4.380E-06,0.092
-4.370E-06,0.032
-4.360E-06,-0.040
-4.350E-06,-0.128
-4.340E-06,-0.100
-4.330E-06,-0.056
-4.320E-06,0.028
-4.310E-06,0.072
-4.300E-06,0.060
-4.290E-06,0.032
-4.280E-06,0.012
-4.270E-06,0.000
-4.260E-06,0.008
-4.250E-06,0.060
-4.240E-06,0.088
-4.230E-06,0.108
-4.220E-06,0.096
-4.210E-06,0.076
-4.200E-06,0.004
-4.190E-06,-0.040
-4.180E-06,-0.100
-4.170E-06,-0.100
-4.160E-06,-0.072
-4.150E-06,-0.028
-4.140E-06,0.020
-4.130E-06,0.032
-4.120E-06,0.024
-4.110E-06,0.032
-4.100E-06,0.024
-4.090E-06,0.024
-4.080E-06,0.016
-4.070E-06,0.012
-4.060E-06,0.012
-4.050E-06,0.028
-4.040E-06,0.004
-4.030E-06,-0.004
-4.020E-06,-0.024
-4.010E-06,-0.032
-4.000E-06,-0.008
-3.990E-06,0.036
-3.980E-06,0.092
-3.970E-06,0.096
-3.960E-06,0.020
-3.950E-06,-0.144
-3.940E-06,-0.268
-3.930E-06,-0.232
-3.920E-06,-0.092
-3.910E-06,0.100
-3.900E-06,0.172
-3.890E-06,0.192
-3.880E-06,0.096
-3.870E-06,-0.032
-3.860E-06,-0.128
-3.850E-06,-0.128
-3.840E-06,-0.004
-3.830E-06,0.100
-3.820E-06,0.124
-3.810E-06,0.080
-3.800E-06,0.024
-3.790E-06,-0.044
-3.780E-06,-0.060
-3.770E-06,-0.068
-3.760E-06,-0.056
-3.750E-06,-0.100
-3.740E-06,-0.056
-3.730E-06,-0.100
-3.720E-06,-0.080
-3.710E-06,-0.040
-3.700E-06,0.012
-3.690E-06,0.012
-3.680E-06,0.024
-3.670E-06,0.020
-3.660E-06,0.008
-3.650E-06,0.004
-3.640E-06,-0.020
-3.630E-06,-0.008
-3.620E-06,-0.016
-3.610E-06,0.004
-3.600E-06,0.008
-3.590E-06,0.036
-3.580E-06,0.036
-3.570E-06,0.024
-3.560E-06,0.008
-3.550E-06,-0.004
-3.540E-06,0.000
-3.530E-06,0.008
-3.520E-06,0.048
-3.510E-06,0.068
-3.500E-06,0.108
-3.490E-06,0.080
-3.480E-06,-0.008
-3.470E-06,-0.056
-3.460E-06,-0.116
-3.450E-06,-0.120
-3.440E-06,-0.052
-3.430E-06,0.020
-3.420E-06,0.052
-3.410E-06,0.056
-3.400E-06,0.016
-3.390E-06,-0.032
-3.380E-06,-0.056
-3.370E-06,-0.044
-3.360E-06,-0.036
-3.350E-06,-0.004
-3.340E-06,0.004
-3.330E-06,0.008
-3.320E-06,0.008
-3.310E-06,0.000
-3.300E-06,-0.020
-3.290E-06,-0.020
-3.280E-06,-0.012
-3.270E-06,0.000
-3.260E-06,0.000
-3.250E-06,-0.004
-3.240E-06,-0.004
-3.230E-06,-0.004
-3.220E-06,-0.004
-3.210E-06,-0.004
-3.200E-06,0.012
-3.190E-06,0.008
-3.180E-06,0.012
-3.170E-06,0.000
-3.160E-06,-0.004
-3.150E-06,0.004
-3.140E-06,0.012
-3.130E-06,0.024
-3.120E-06,0.032
-3.110E-06,0.020
-3.100E-06,0.020
-3.090E-06,0.024
-3.080E-06,0.020
-3.070E-06,0.032
-3.060E-06,0.036
-3.050E-06,0.044
-3.040E-06,0.040
-3.030E-06,0.024
-3.020E-06,0.024
-3.010E-06,0.008
-3.000E-06,0.008
-2.990E-06,0.020
-2.980E-06,0.028
-2.970E-06,0.020
-2.960E-06,0.020
-2.950E-06,0.012
-2.940E-06,0.004
-2.930E-06,-0.004
-2.920E-06,-0.012
-2.910E-06,-0.004
-2.900E-06,-0.004
-2.890E-06,0.004
-2.880E-06,0.020
-2.870E-06,0.028
-2.860E-06,0.016
-2.850E-06,0.004
-2.840E-06,-0.004
-2.830E-06,-0.008
-2.820E-06,0.004
-2.810E-06,0.020
-2.800E-06,0.024
-2.790E-06,0.028
-2.780E-06,0.020
-2.770E-06,0.008
-2.760E-06,0.008
-2.750E-06,0.016
-2.740E-06,0.032
-2.730E-06,0.040
-2.720E-06,0.044
-2.710E-06,0.044
-2.700E-06,0.040
-2.690E-06,0.044
-2.680E-06,0.052
-2.670E-06,0.056
-2.660E-06,0.060
-2.650E-06,0.028
-2.640E-06,-0.020
-2.630E-06,-0.068
-2.620E-06,-0.096
-2.610E-06,-0.064
-2.600E-06,-0.028
-2.590E-06,0.028
-2.580E-06,0.052
-2.570E-06,0.056
-2.560E-06,0.028
-2.550E-06,-0.004
-2.540E-06,-0.032
-2.530E-06,-0.020
-2.520E-06,0.012
-2.510E-06,0.048
-2.500E-06,0.080
-2.490E-06,0.072
-2.480E-06,0.064
-2.470E-06,0.024
-2.460E-06,-0.036
-2.450E-06,-0.108
-2.440E-06,-0.124
-2.430E-06,-0.096
-2.420E-06,-0.004
-2.410E-06,0.060
-2.400E-06,0.088
-2.390E-06,0.096
-2.380E-06,0.064
-2.370E-06,0.032
-2.360E-06,0.004
-2.350E-06,-0.056
-2.340E-06,-0.056
-2.330E-06,-0.168
-2.320E-06,-0.184
-2.310E-06,-0.188
-2.300E-06,-0.112
-2.290E-06,0.028
-2.280E-06,0.136
-2.270E-06,0.136
-2.260E-06,0.044
-2.250E-06,-0.056
-2.240E-06,-0.116
-2.230E-06,-0.056
-2.220E-06,0.040
-2.210E-06,0.100
-2.200E-06,0.088
-2.190E-06,0.028
-2.180E-06,-0.008
-2.170E-06,-0.008
-2.160E-06,0.036
-2.150E-06,0.080
-2.140E-06,0.096
-2.130E-06,0.092
-2.120E-06,0.016
-2.110E-06,-0.040
-2.100E-06,-0.100
-2.090E-06,-0.096
-2.080E-06,-0.068
-2.070E-06,-0.036
-2.060E-06,0.008
-2.050E-06,0.032
-2.040E-06,0.024
-2.030E-06,-0.016
-2.020E-06,-0.036
-2.010E-06,-0.028
-2.000E-06,0.000
-1.990E-06,0.032
-1.980E-06,0.032
-1.970E-06,0.020
-1.960E-06,0.000
-1.950E-06,-0.016
-1.940E-06,-0.024
-1.930E-06,0.000
-1.920E-06,0.028
-1.910E-06,0.056
-1.900E-06,0.052
-1.890E-06,0.028
-1.880E-06,0.004
-1.870E-06,0.000
-1.860E-06,0.008
-1.850E-06,0.036
-1.840E-06,0.060
-1.830E-06,0.080
-1.820E-06,0.088
-1.810E-06,0.084
-1.800E-06,0.076
-1.790E-06,0.072
-1.780E-06,0.068
-1.770E-06,0.080
-1.760E-06,0.092
-1.750E-06,0.100
-1.740E-06,0.080
-1.730E-06,0.032
-1.720E-06,-0.004
-1.710E-06,-0.044
-1.700E-06,-0.060
-1.690E-06,-0.044
-1.680E-06,-0.028
-1.670E-06,-0.024
-1.660E-06,-0.040
-1.650E-06,-0.060
-1.640E-06,-0.068
-1.630E-06,-0.056
-1.620E-06,-0.028
-1.610E-06,0.012
-1.600E-06,0.012
-1.590E-06,0.012
-1.580E-06,-0.016
-1.570E-06,-0.020
-1.560E-06,-0.016
-1.550E-06,0.008
-1.540E-06,0.036
-1.530E-06,0.052
-1.520E-06,0.064
-1.510E-06,0.080
-1.500E-06,0.092
-1.490E-06,0.096
-1.480E-06,0.096
-1.470E-06,0.092
-1.460E-06,0.064
-1.450E-06,0.008
-1.440E-06,-0.096
-1.430E-06,-0.200
-1.420E-06,-0.248
-1.410E-06,-0.208
-1.400E-06,-0.072
-1.390E-06,0.032
-1.380E-06,0.156
-1.370E-06,0.132
-1.360E-06,0.056
-1.350E-06,-0.076
-1.340E-06,-0.140
-1.330E-06,-0.080
-1.320E-06,0.016
-1.310E-06,0.104
-1.300E-06,0.120
-1.290E-06,0.076
-1.280E-06,-0.020
-1.270E-06,-0.056
-1.260E-06,-0.072
-1.250E-06,-0.012
-1.240E-06,0.052
-1.230E-06,0.072
-1.220E-06,0.092
-1.210E-06,0.064
-1.200E-06,0.044
-1.190E-06,0.036
-1.180E-06,0.060
-1.170E-06,0.092
-1.160E-06,0.132
-1.150E-06,0.112
-1.140E-06,0.056
-1.130E-06,-0.012
-1.120E-06,-0.080
-1.110E-06,-0.132
-1.100E-06,-0.136
-1.090E-06,-0.112
-1.080E-06,-0.064
-1.070E-06,-0.024
-1.060E-06,-0.024
-1.050E-06,-0.028
-1.040E-06,-0.040
-1.030E-06,-0.048
-1.020E-06,-0.044
-1.010E-06,-0.028
-1.000E-06,-0.004
-9.900E-07,0.008
-9.800E-07,0.020
-9.700E-07,0.020
-9.600E-07,0.020
-9.500E-07,0.032
-9.400E-07,0.044
-9.300E-07,0.044
-9.200E-07,0.048
-9.100E-07,0.048
-9.000E-07,0.064
-8.900E-07,0.080
-8.800E-07,0.088
-8.700E-07,0.096
-8.600E-07,0.092
-8.500E-07,0.064
-8.400E-07,0.036
-8.300E-07,0.008
-8.200E-07,-0.008
-8.100E-07,-0.036
-8.000E-07,-0.068
-7.900E-07,-0.084
-7.800E-07,-0.080
-7.700E-07,-0.044
-7.600E-07,0.012
-7.500E-07,0.060
-7.400E-07,0.100
-7.300E-07,0.100
-7.200E-07,0.092
-7.100E-07,0.072
-7.000E-07,0.068
-6.900E-07,0.068
-6.800E-07,0.080
-6.700E-07,0.064
-6.600E-07,0.040
-6.500E-07,0.004
-6.400E-07,-0.036
-6.300E-07,-0.064
-6.200E-07,-0.056
-6.100E-07,-0.056
-6.000E-07,-0.016
-5.900E-07,0.004
-5.800E-07,0.016
-5.700E-07,0.024
-5.600E-07,0.024
-5.500E-07,0.044
-5.400E-07,0.068
-5.300E-07,0.112
-5.200E-07,0.144
-5.100E-07,0.168
-5.000E-07,0.164
-4.900E-07,0.148
-4.800E-07,0.124
-4.700E-07,0.108
-4.600E-07,0.112
-4.500E-07,0.128
-4.400E-07,0.136
-4.300E-07,0.144
-4.200E-07,0.152
-4.100E-07,0.136
-4.000E-07,0.128
-3.900E-07,0.124
-3.800E-07,0.124
-3.700E-07,0.124
-3.600E-07,0.140
-3.500E-07,0.152
-3.400E-07,0.156
-3.300E-07,0.148
-3.200E-07,0.132
-3.100E-07,0.108
-3.000E-07,0.104
-2.900E-07,0.104
-2.800E-07,0.108
-2.700E-07,0.108
-2.600E-07,0.108
-2.500E-07,0.100
-2.400E-07,0.100
-2.300E-07,0.112
-2.200E-07,0.116
-2.100E-07,0.124
-2.000E-07,0.124
-1.900E-07,0.124
-1.800E-07,0.116
-1.700E-07,0.124
-1.600E-07,0.068
-1.500E-07,0.008
-1.400E-07,-0.128
-1.300E-07,-0.204
-1.200E-07,-0.244
-1.100E-07,-0.276
-1.000E-07,-0.336
-9.000E-08,-0.264
-8.000E-08,-0.196
-7.000E-08,-0.276
-6.000E-08,-0.468
-5.000E-08,-0.512
-4.000E-08,-0.512
-3.000E-08,-0.512
-2.000E-08,-0.396
-1.000E-08,-0.004
0.000E+00,0.312
1.000E-08,0.352
2.000E-08,0.164
3.000E-08,-0.156
4.000E-08,-0.328
5.000E-08,-0.284
6.000E-08,-0.060
7.000E-08,0.136
8.000E-08,0.240
9.000E-08,0.200
1.000E-07,0.068
1.100E-07,-0.044
1.200E-07,-0.100
1.300E-07,-0.040
1.400E-07,0.064
1.500E-07,0.136
1.600E-07,0.140
1.700E-07,0.124
1.800E-07,0.080
1.900E-07,0.048
2.000E-07,0.044
2.100E-07,0.076
2.200E-07,0.112
2.300E-07,0.136
2.400E-07,0.136
2.500E-07,0.120
2.600E-07,0.084
2.700E-07,0.068
2.800E-07,0.068
2.900E-07,0.108
3.000E-07,0.144
3.100E-07,0.180
3.200E-07,0.200
3.300E-07,0.192
3.400E-07,0.176
3.500E-07,0.164
3.600E-07,0.156
3.700E-07,0.172
3.800E-07,0.188
3.900E-07,0.196
4.000E-07,0.196
4.100E-07,0.192
4.200E-07,0.160
4.300E-07,0.152
4.400E-07,0.152
4.500E-07,0.156
4.600E-07,0.176
4.700E-07,0.184
4.800E-07,0.188
4.900E-07,0.180
5.000E-07,0.176
5.100E-07,0.160
5.200E-07,0.164
5.300E-07,0.168
5.400E-07,0.164
5.500E-07,0.160
5.600E-07,0.144
5.700E-07,0.108
5.800E-07,0.072
5.900E-07,0.032
6.000E-07,0.004
6.100E-07,0.020
6.200E-07,0.052
6.300E-07,0.060
6.400E-07,0.028
6.500E-07,-0.044
6.600E-07,-0.140
6.700E-07,-0.240
6.800E-07,-0.304
6.900E-07,-0.292
7.000E-07,-0.232
7.100E-07,-0.200
7.200E-07,-0.196
7.300E-07,-0.232
7.400E-07,-0.268
7.500E-07,-0.224
7.600E-07,-0.128
7.700E-07,-0.024
7.800E-07,0.060
7.900E-07,0.096
8.000E-07,0.088
8.100E-07,0.060
8.200E-07,0.036
8.300E-07,0.028
8.400E-07,0.088
8.500E-07,0.140
8.600E-07,0.168
8.700E-07,0.184
8.800E-07,0.160
8.900E-07,0.136
9.000E-07,0.108
9.100E-07,0.096
9.200E-07,0.124
9.300E-07,0.156
9.400E-07,0.180
9.500E-07,0.180
9.600E-07,0.164
9.700E-07,0.140
9.800E-07,0.132
9.900E-07,0.136
1.000E-06,0.152
1.010E-06,0.168
1.020E-06,0.188
1.030E-06,0.192
1.040E-06,0.188
1.050E-06,0.176
1.060E-06,0.168
1.070E-06,0.168
1.080E-06,0.172
1.090E-06,0.172
1.100E-06,0.172
1.110E-06,0.176
1.120E-06,0.180
1.130E-06,0.176
1.140E-06,0.176
1.150E-06,0.168
1.160E-06,0.168
1.170E-06,0.168
1.180E-06,0.176
1.190E-06,0.176
1.200E-06,0.172
1.210E-06,0.176
1.220E-06,0.176
1.230E-06,0.168
1.240E-06,0.172
1.250E-06,0.164
1.260E-06,0.160
1.270E-06,0.164
1.280E-06,0.164
1.290E-06,0.160
1.300E-06,0.164
1.310E-06,0.160
1.320E-06,0.156
1.330E-06,0.164
1.340E-06,0.160
1.350E-06,0.168
1.360E-06,0.164
1.370E-06,0.160
1.380E-06,0.160
1.390E-06,0.156
1.400E-06,0.156
1.410E-06,0.160
1.420E-06,0.156
1.430E-06,0.152
1.440E-06,0.160
1.450E-06,0.156
1.460E-06,0.160
1.470E-06,0.156
1.480E-06,0.156
1.490E-06,0.148
1.500E-06,0.152
1.510E-06,0.144
1.520E-06,0.148
1.530E-06,0.152
1.540E-06,0.148
1.550E-06,0.140
1.560E-06,0.140
1.570E-06,0.136
1.580E-06,0.140
1.590E-06,0.144
1.600E-06,0.156
1.610E-06,0.164
1.620E-06,0.160
1.630E-06,0.156
1.640E-06,0.156
1.650E-06,0.156
1.660E-06,0.156
1.670E-06,0.160
1.680E-06,0.164
1.690E-06,0.164
1.700E-06,0.168
1.710E-06,0.168
1.720E-06,0.168
1.730E-06,0.168
1.740E-06,0.164
1.750E-06,0.156
1.760E-06,0.156
1.770E-06,0.164
1.780E-06,0.160
1.790E-06,0.164
1.800E-06,0.168
1.810E-06,0.160
1.820E-06,0.164
1.830E-06,0.156
1.840E-06,0.160
1.850E-06,0.164
1.860E-06,0.160
1.870E-06,0.160
1.880E-06,0.164
1.890E-06,0.160
1.900E-06,0.152
1.910E-06,0.156
1.920E-06,0.156
1.930E-06,0.164
1.940E-06,0.156
1.950E-06,0.156
1.960E-06,0.160
1.970E-06,0.156
1.980E-06,0.152
1.990E-06,0.152
2.000E-06,0.156
2.010E-06,0.160
2.020E-06,0.156
2.030E-06,0.156
2.040E-06,0.160
2.050E-06,0.148
2.060E-06,0.152
2.070E-06,0.152
2.080E-06,0.152
2.090E-06,0.156
2.100E-06,0.152
2.110E-06,0.160
2.120E-06,0.156
2.130E-06,0.152
2.140E-06,0.152
2.150E-06,0.152
2.160E-06,0.152
2.170E-06,0.148
2.180E-06,0.152
2.190E-06,0.152
2.200E-06,0.152
2.210E-06,0.148
2.220E-06,0.144
2.230E-06,0.144
2.240E-06,0.148
2.250E-06,0.144
2.260E-06,0.144
2.270E-06,0.148
2.280E-06,0.140
2.290E-06,0.136
2.300E-06,0.140
2.310E-06,0.144
2.320E-06,0.144
2.330E-06,0.136
2.340E-06,0.140
2.350E-06,0.140
2.360E-06,0.140
2.370E-06,0.140
2.380E-06,0.140
2.390E-06,0.140
2.400E-06,0.140
2.410E-06,0.140
2.420E-06,0.144
2.430E-06,0.136
2.440E-06,0.136
2.450E-06,0.140
2.460E-06,0.140
2.470E-06,0.144
2.480E-06,0.136
2.490E-06,0.136
2.500E-06,0.140
2.510E-06,0.140
2.520E-06,0.136
2.530E-06,0.136
2.540E-06,0.136
2.550E-06,0.140
2.560E-06,0.136
2.570E-06,0.136
2.580E-06,0.136
2.590E-06,0.136
2.600E-06,0.136
2.610E-06,0.132
2.620E-06,0.136
2.630E-06,0.136
2.640E-06,0.136
2.650E-06,0.136
2.660E-06,0.136
2.670E-06,0.132
2.680E-06,0.136
2.690E-06,0.132
2.700E-06,0.132
2.710E-06,0.132
2.720E-06,0.132
2.730E-06,0.128
2.740E-06,0.128
2.750E-06,0.132
2.760E-06,0.136
2.770E-06,0.128
2.780E-06,0.132
2.790E-06,0.128
2.800E-06,0.128
2.810E-06,0.124
2.820E-06,0.124
2.830E-06,0.124
2.840E-06,0.124
2.850E-06,0.124
2.860E-06,0.124
2.870E-06,0.124
2.880E-06,0.124
2.890E-06,0.124
2.900E-06,0.124
2.910E-06,0.124
2.920E-06,0.124
2.930E-06,0.108
2.940E-06,0.108
2.950E-06,0.112
2.960E-06,0.120
2.970E-06,0.124
2.980E-06,0.124
2.990E-06,0.120
3.000E-06,0.116
3.010E-06,0.108
3.020E-06,0.100
3.030E-06,0.104
3.040E-06,0.108
3.050E-06,0.120
3.060E-06,0.124
3.070E-06,0.124
3.080E-06,0.120
3.090E-06,0.116
3.100E-06,0.112
3.110E-06,0.108
3.120E-06,0.120
3.130E-06,0.124
3.140E-06,0.124
3.150E-06,0.124
3.160E-06,0.120
3.170E-06,0.112
3.180E-06,0.108
3.190E-06,0.100
3.200E-06,0.100
3.210E-06,0.108
3.220E-06,0.116
3.230E-06,0.120
3.240E-06,0.108
3.250E-06,0.104
3.260E-06,0.096
3.270E-06,0.100
3.280E-06,0.108
3.290E-06,0.124
3.300E-06,0.124
3.310E-06,0.124
3.320E-06,0.112
3.330E-06,0.104
3.340E-06,0.100
3.350E-06,0.108
3.360E-06,0.104
