mediciones/5-27/-47.5/WaveData50168.csv

#timebase=2000000(ps)
,#voltbase=100000(mv/100)
#size=4000
-8.400E-06,0.004
-8.390E-06,0.004
-8.380E-06,0.004
-8.370E-06,0.008
-8.360E-06,0.012
-8.350E-06,0.000
-8.340E-06,-0.004
-8.330E-06,0.000
-8.320E-06,0.000
-8.310E-06,0.008
-8.300E-06,0.016
-8.290E-06,0.012
-8.280E-06,0.000
-8.270E-06,-0.004
-8.260E-06,-0.004
-8.250E-06,-0.004
-8.240E-06,0.004
-8.230E-06,0.008
-8.220E-06,0.012
-8.210E-06,0.008
-8.200E-06,0.008
-8.190E-06,0.004
-8.180E-06,0.008
-8.170E-06,0.012
-8.160E-06,0.012
-8.150E-06,0.004
-8.140E-06,-0.012
-8.130E-06,-0.044
-8.120E-06,-0.048
-8.110E-06,-0.036
-8.100E-06,-0.004
-8.090E-06,0.048
-8.080E-06,0.056
-8.070E-06,0.024
-8.060E-06,-0.008
-8.050E-06,-0.036
-8.040E-06,-0.036
-8.030E-06,-0.004
-8.020E-06,0.024
-8.010E-06,0.040
-8.000E-06,0.024
-7.990E-06,-0.008
-7.980E-06,-0.008
-7.970E-06,-0.004
-7.960E-06,0.008
-7.950E-06,0.012
-7.940E-06,0.012
-7.930E-06,-0.016
-7.920E-06,-0.028
-7.910E-06,-0.012
-7.900E-06,0.016
-7.890E-06,0.028
-7.880E-06,0.024
-7.870E-06,0.008
-7.860E-06,-0.012
-7.850E-06,-0.020
-7.840E-06,-0.008
-7.830E-06,0.012
-7.820E-06,0.020
-7.810E-06,0.012
-7.800E-06,0.008
-7.790E-06,-0.004
-7.780E-06,0.000
-7.770E-06,0.000
-7.760E-06,0.008
-7.750E-06,0.004
-7.740E-06,0.004
-7.730E-06,-0.004
-7.720E-06,0.000
-7.710E-06,0.008
-7.700E-06,0.016
-7.690E-06,0.016
-7.680E-06,0.016
-7.670E-06,0.004
-7.660E-06,-0.008
-7.650E-06,0.000
-7.640E-06,0.004
-7.630E-06,0.012
-7.620E-06,0.016
-7.610E-06,0.016
-7.600E-06,0.004
-7.590E-06,-0.008
-7.580E-06,-0.020
-7.570E-06,-0.020
-7.560E-06,-0.008
-7.550E-06,0.004
-7.540E-06,0.012
-7.530E-06,0.024
-7.520E-06,0.008
-7.510E-06,0.004
-7.500E-06,-0.008
-7.490E-06,-0.016
-7.480E-06,-0.008
-7.470E-06,0.000
-7.460E-06,0.016
-7.450E-06,0.024
-7.440E-06,0.012
-7.430E-06,-0.008
-7.420E-06,-0.004
-7.410E-06,0.000
-7.400E-06,0.008
-7.390E-06,0.012
-7.380E-06,0.012
-7.370E-06,0.008
-7.360E-06,0.000
-7.350E-06,-0.004
-7.340E-06,0.004
-7.330E-06,0.008
-7.320E-06,0.012
-7.310E-06,0.008
-7.300E-06,0.004
-7.290E-06,0.000
-7.280E-06,-0.004
-7.270E-06,0.004
-7.260E-06,0.016
-7.250E-06,0.008
-7.240E-06,0.004
-7.230E-06,0.008
-7.220E-06,0.000
-7.210E-06,0.004
-7.200E-06,0.004
-7.190E-06,0.008
-7.180E-06,0.012
-7.170E-06,0.012
-7.160E-06,0.012
-7.150E-06,0.016
-7.140E-06,0.016
-7.130E-06,0.016
-7.120E-06,0.016
-7.110E-06,0.008
-7.100E-06,-0.004
-7.090E-06,-0.016
-7.080E-06,-0.016
-7.070E-06,-0.016
-7.060E-06,0.000
-7.050E-06,0.012
-7.040E-06,0.020
-7.030E-06,0.020
-7.020E-06,0.012
-7.010E-06,0.000
-7.000E-06,-0.004
-6.990E-06,0.004
-6.980E-06,0.012
-6.970E-06,0.028
-6.960E-06,0.024
-6.950E-06,0.008
-6.940E-06,-0.004
-6.930E-06,-0.012
-6.920E-06,-0.012
-6.910E-06,-0.008
-6.900E-06,0.004
-6.890E-06,0.012
-6.880E-06,0.008
-6.870E-06,0.004
-6.860E-06,-0.004
-6.850E-06,-0.004
-6.840E-06,-0.004
-6.830E-06,0.004
-6.820E-06,0.008
-6.810E-06,0.008
-6.800E-06,0.008
-6.790E-06,0.008
-6.780E-06,0.012
-6.770E-06,0.004
-6.760E-06,0.000
-6.750E-06,0.004
-6.740E-06,0.004
-6.730E-06,0.008
-6.720E-06,0.012
-6.710E-06,0.016
-6.700E-06,0.012
-6.690E-06,0.004
-6.680E-06,0.000
-6.670E-06,-0.004
-6.660E-06,0.000
-6.650E-06,0.008
-6.640E-06,0.024
-6.630E-06,0.028
-6.620E-06,0.024
-6.610E-06,0.024
-6.600E-06,0.008
-6.590E-06,0.004
-6.580E-06,0.008
-6.570E-06,0.020
-6.560E-06,0.016
-6.550E-06,0.020
-6.540E-06,0.016
-6.530E-06,0.012
-6.520E-06,0.012
-6.510E-06,0.012
-6.500E-06,0.008
-6.490E-06,-0.008
-6.480E-06,-0.008
-6.470E-06,-0.024
-6.460E-06,-0.024
-6.450E-06,-0.024
-6.440E-06,-0.008
-6.430E-06,0.004
-6.420E-06,0.024
-6.410E-06,0.020
-6.400E-06,0.024
-6.390E-06,0.012
-6.380E-06,-0.008
-6.370E-06,-0.020
-6.360E-06,-0.024
-6.350E-06,-0.004
-6.340E-06,0.004
-6.330E-06,0.004
-6.320E-06,0.000
-6.310E-06,0.000
-6.300E-06,-0.008
-6.290E-06,0.000
-6.280E-06,0.004
-6.270E-06,0.004
-6.260E-06,0.008
-6.250E-06,0.004
-6.240E-06,-0.004
-6.230E-06,-0.004
-6.220E-06,0.000
-6.210E-06,0.004
-6.200E-06,0.008
-6.190E-06,0.012
-6.180E-06,-0.004
-6.170E-06,-0.004
-6.160E-06,0.000
-6.150E-06,0.008
-6.140E-06,0.016
-6.130E-06,0.012
-6.120E-06,0.012
-6.110E-06,-0.004
-6.100E-06,-0.004
-6.090E-06,0.004
-6.080E-06,0.008
-6.070E-06,0.020
-6.060E-06,0.024
-6.050E-06,0.020
-6.040E-06,0.016
-6.030E-06,0.012
-6.020E-06,0.020
-6.010E-06,0.024
-6.000E-06,0.036
-5.990E-06,0.032
-5.980E-06,0.028
-5.970E-06,0.020
-5.960E-06,0.008
-5.950E-06,-0.040
-5.940E-06,-0.120
-5.930E-06,-0.108
-5.920E-06,-0.088
-5.910E-06,0.024
-5.900E-06,0.064
-5.890E-06,0.080
-5.880E-06,0.056
-5.870E-06,-0.004
-5.860E-06,-0.068
-5.850E-06,-0.072
-5.840E-06,-0.012
-5.830E-06,0.044
-5.820E-06,0.056
-5.810E-06,-0.004
-5.800E-06,-0.044
-5.790E-06,-0.060
-5.780E-06,-0.020
-5.770E-06,0.024
-5.760E-06,0.056
-5.750E-06,0.036
-5.740E-06,-0.004
-5.730E-06,-0.044
-5.720E-06,-0.056
-5.710E-06,-0.028
-5.700E-06,0.032
-5.690E-06,0.056
-5.680E-06,0.044
-5.670E-06,0.004
-5.660E-06,-0.032
-5.650E-06,-0.040
-5.640E-06,-0.020
-5.630E-06,0.008
-5.620E-06,0.028
-5.610E-06,0.028
-5.600E-06,0.004
-5.590E-06,-0.008
-5.580E-06,-0.024
-5.570E-06,-0.008
-5.560E-06,0.012
-5.550E-06,0.016
-5.540E-06,0.012
-5.530E-06,0.004
-5.520E-06,0.000
-5.510E-06,0.000
-5.500E-06,0.008
-5.490E-06,0.012
-5.480E-06,0.012
-5.470E-06,-0.004
-5.460E-06,-0.008
-5.450E-06,-0.004
-5.440E-06,0.008
-5.430E-06,0.016
-5.420E-06,0.012
-5.410E-06,0.012
-5.400E-06,-0.004
-5.390E-06,-0.008
-5.380E-06,0.000
-5.370E-06,0.012
-5.360E-06,0.024
-5.350E-06,0.024
-5.340E-06,0.012
-5.330E-06,0.004
-5.320E-06,0.000
-5.310E-06,0.008
-5.300E-06,0.012
-5.290E-06,0.028
-5.280E-06,-0.008
-5.270E-06,-0.048
-5.260E-06,-0.080
-5.250E-06,-0.072
-5.240E-06,-0.016
-5.230E-06,0.060
-5.220E-06,0.096
-5.210E-06,0.080
-5.200E-06,0.028
-5.190E-06,-0.036
-5.180E-06,-0.076
-5.170E-06,-0.068
-5.160E-06,-0.008
-5.150E-06,0.036
-5.140E-06,0.056
-5.130E-06,0.024
-5.120E-06,-0.008
-5.110E-06,-0.032
-5.100E-06,-0.024
-5.090E-06,0.004
-5.080E-06,0.024
-5.070E-06,0.028
-5.060E-06,0.004
-5.050E-06,-0.008
-5.040E-06,-0.016
-5.030E-06,-0.012
-5.020E-06,0.000
-5.010E-06,0.008
-5.000E-06,0.016
-4.990E-06,0.024
-4.980E-06,0.016
-4.970E-06,0.008
-4.960E-06,-0.004
-4.950E-06,-0.008
-4.940E-06,-0.004
-4.930E-06,0.004
-4.920E-06,0.008
-4.910E-06,0.016
-4.900E-06,0.012
-4.890E-06,0.012
-4.880E-06,0.004
-4.870E-06,-0.004
-4.860E-06,-0.004
-4.850E-06,-0.008
-4.840E-06,0.004
-4.830E-06,0.012
-4.820E-06,0.024
-4.810E-06,0.012
-4.800E-06,0.016
-4.790E-06,-0.008
-4.780E-06,-0.008
-4.770E-06,-0.012
-4.760E-06,0.000
-4.750E-06,0.012
-4.740E-06,0.020
-4.730E-06,0.008
-4.720E-06,-0.008
-4.710E-06,-0.028
-4.700E-06,-0.024
-4.690E-06,-0.004
-4.680E-06,0.020
-4.670E-06,0.040
-4.660E-06,0.028
-4.650E-06,0.008
-4.640E-06,-0.008
-4.630E-06,-0.020
-4.620E-06,-0.004
-4.610E-06,0.012
-4.600E-06,0.032
-4.590E-06,0.024
-4.580E-06,0.004
-4.570E-06,-0.012
-4.560E-06,-0.004
-4.550E-06,0.004
-4.540E-06,0.016
-4.530E-06,0.020
-4.520E-06,0.008
-4.510E-06,0.000
-4.500E-06,-0.004
-4.490E-06,-0.004
-4.480E-06,0.004
-4.470E-06,0.008
-4.460E-06,0.020
-4.450E-06,0.012
-4.440E-06,0.008
-4.430E-06,-0.004
-4.420E-06,0.000
-4.410E-06,0.008
-4.400E-06,0.008
-4.390E-06,0.016
-4.380E-06,0.012
-4.370E-06,0.004
-4.360E-06,0.004
-4.350E-06,0.004
-4.340E-06,0.008
-4.330E-06,0.008
-4.320E-06,-0.004
-4.310E-06,-0.008
-4.300E-06,-0.024
-4.290E-06,-0.024
-4.280E-06,-0.008
-4.270E-06,0.008
-4.260E-06,0.008
-4.250E-06,0.012
-4.240E-06,0.004
-4.230E-06,-0.004
-4.220E-06,-0.008
-4.210E-06,0.000
-4.200E-06,0.008
-4.190E-06,0.016
-4.180E-06,0.016
-4.170E-06,-0.004
-4.160E-06,0.000
-4.150E-06,-0.004
-4.140E-06,0.004
-4.130E-06,0.012
-4.120E-06,0.016
-4.110E-06,0.012
-4.100E-06,0.008
-4.090E-06,0.000
-4.080E-06,0.000
-4.070E-06,0.000
-4.060E-06,0.000
-4.050E-06,0.008
-4.040E-06,0.004
-4.030E-06,0.008
-4.020E-06,0.012
-4.010E-06,0.020
-4.000E-06,0.008
-3.990E-06,0.012
-3.980E-06,0.004
-3.970E-06,0.008
-3.960E-06,0.012
-3.950E-06,0.016
-3.940E-06,0.024
-3.930E-06,0.024
-3.920E-06,0.004
-3.910E-06,-0.004
-3.900E-06,-0.008
-3.890E-06,-0.012
-3.880E-06,0.000
-3.870E-06,0.004
-3.860E-06,0.012
-3.850E-06,0.012
-3.840E-06,0.008
-3.830E-06,0.008
-3.820E-06,-0.008
-3.810E-06,0.000
-3.800E-06,0.012
-3.790E-06,0.036
-3.780E-06,0.048
-3.770E-06,0.024
-3.760E-06,0.000
-3.750E-06,-0.008
-3.740E-06,-0.008
-3.730E-06,0.004
-3.720E-06,0.020
-3.710E-06,0.036
-3.700E-06,0.028
-3.690E-06,0.016
-3.680E-06,0.020
-3.670E-06,0.000
-3.660E-06,-0.060
-3.650E-06,-0.156
-3.640E-06,-0.160
-3.630E-06,-0.116
-3.620E-06,0.004
-3.610E-06,0.144
-3.600E-06,0.144
-3.590E-06,0.096
-3.580E-06,-0.028
-3.570E-06,-0.108
-3.560E-06,-0.128
-3.550E-06,-0.052
-3.540E-06,0.060
-3.530E-06,0.100
-3.520E-06,0.068
-3.510E-06,-0.008
-3.500E-06,-0.060
-3.490E-06,-0.056
-3.480E-06,-0.008
-3.470E-06,0.040
-3.460E-06,0.048
-3.450E-06,0.028
-3.440E-06,-0.012
-3.430E-06,-0.028
-3.420E-06,-0.020
-3.410E-06,0.008
-3.400E-06,0.032
-3.390E-06,0.036
-3.380E-06,0.016
-3.370E-06,0.000
-3.360E-06,-0.008
-3.350E-06,0.004
-3.340E-06,0.012
-3.330E-06,0.016
-3.320E-06,0.024
-3.310E-06,0.032
-3.300E-06,0.036
-3.290E-06,0.036
-3.280E-06,0.016
-3.270E-06,0.008
-3.260E-06,-0.004
-3.250E-06,-0.008
-3.240E-06,-0.008
-3.230E-06,-0.004
-3.220E-06,0.008
-3.210E-06,0.020
-3.200E-06,0.016
-3.190E-06,0.000
-3.180E-06,-0.004
-3.170E-06,-0.020
-3.160E-06,-0.012
-3.150E-06,0.000
-3.140E-06,0.020
-3.130E-06,0.020
-3.120E-06,0.012
-3.110E-06,0.000
-3.100E-06,-0.008
-3.090E-06,-0.012
-3.080E-06,-0.004
-3.070E-06,0.012
-3.060E-06,0.016
-3.050E-06,0.004
-3.040E-06,-0.004
-3.030E-06,-0.008
-3.020E-06,0.004
-3.010E-06,0.020
-3.000E-06,0.036
-2.990E-06,0.024
-2.980E-06,0.012
-2.970E-06,-0.004
-2.960E-06,-0.016
-2.950E-06,-0.004
-2.940E-06,0.000
-2.930E-06,0.020
-2.920E-06,0.008
-2.910E-06,-0.008
-2.900E-06,-0.020
-2.890E-06,-0.028
-2.880E-06,-0.012
-2.870E-06,0.008
-2.860E-06,0.028
-2.850E-06,0.032
-2.840E-06,0.016
-2.830E-06,0.000
-2.820E-06,-0.020
-2.810E-06,-0.008
-2.800E-06,0.008
-2.790E-06,0.024
-2.780E-06,0.032
-2.770E-06,0.020
-2.760E-06,0.000
-2.750E-06,-0.004
-2.740E-06,-0.012
-2.730E-06,-0.008
-2.720E-06,0.012
-2.710E-06,0.012
-2.700E-06,0.012
-2.690E-06,0.008
-2.680E-06,-0.004
-2.670E-06,0.000
-2.660E-06,0.004
-2.650E-06,0.008
-2.640E-06,0.008
-2.630E-06,0.012
-2.620E-06,0.020
-2.610E-06,0.028
-2.600E-06,0.020
-2.590E-06,0.012
-2.580E-06,0.008
-2.570E-06,0.000
-2.560E-06,0.004
-2.550E-06,0.008
-2.540E-06,0.020
-2.530E-06,0.028
-2.520E-06,0.020
-2.510E-06,0.016
-2.500E-06,0.008
-2.490E-06,0.012
-2.480E-06,0.008
-2.470E-06,0.008
-2.460E-06,0.012
-2.450E-06,0.004
-2.440E-06,0.004
-2.430E-06,0.000
-2.420E-06,-0.008
-2.410E-06,-0.008
-2.400E-06,-0.004
-2.390E-06,0.008
-2.380E-06,0.032
-2.370E-06,0.028
-2.360E-06,0.040
-2.350E-06,0.028
-2.340E-06,0.032
-2.330E-06,0.024
-2.320E-06,0.028
-2.310E-06,0.040
-2.300E-06,0.044
-2.290E-06,0.036
-2.280E-06,0.012
-2.270E-06,-0.044
-2.260E-06,-0.092
-2.250E-06,-0.164
-2.240E-06,-0.140
-2.230E-06,-0.076
-2.220E-06,0.036
-2.210E-06,0.096
-2.200E-06,0.076
-2.190E-06,0.020
-2.180E-06,-0.044
-2.170E-06,-0.072
-2.160E-06,-0.060
-2.150E-06,0.012
-2.140E-06,0.052
-2.130E-06,0.052
-2.120E-06,0.008
-2.110E-06,-0.036
-2.100E-06,-0.044
-2.090E-06,-0.008
-2.080E-06,0.024
-2.070E-06,0.040
-2.060E-06,0.028
-2.050E-06,0.000
-2.040E-06,-0.020
-2.030E-06,-0.024
-2.020E-06,-0.004
-2.010E-06,0.024
-2.000E-06,0.036
-1.990E-06,0.032
-1.980E-06,0.028
-1.970E-06,0.020
-1.960E-06,0.016
-1.950E-06,0.024
-1.940E-06,0.028
-1.930E-06,0.024
-1.920E-06,0.024
-1.910E-06,0.024
-1.900E-06,0.016
-1.890E-06,0.012
-1.880E-06,0.004
-1.870E-06,0.000
-1.860E-06,-0.020
-1.850E-06,-0.020
-1.840E-06,-0.012
-1.830E-06,0.000
-1.820E-06,0.012
-1.810E-06,0.020
-1.800E-06,0.004
-1.790E-06,-0.016
-1.780E-06,-0.040
-1.770E-06,-0.044
-1.760E-06,-0.024
-1.750E-06,0.012
-1.740E-06,0.032
-1.730E-06,0.028
-1.720E-06,0.012
-1.710E-06,-0.012
-1.700E-06,-0.008
-1.690E-06,0.000
-1.680E-06,0.016
-1.670E-06,0.028
-1.660E-06,0.012
-1.650E-06,0.012
-1.640E-06,-0.004
-1.630E-06,0.000
-1.620E-06,0.012
-1.610E-06,0.020
-1.600E-06,0.028
-1.590E-06,0.028
-1.580E-06,0.016
-1.570E-06,0.016
-1.560E-06,0.016
-1.550E-06,0.024
-1.540E-06,0.028
-1.530E-06,0.028
-1.520E-06,0.012
-1.510E-06,0.004
-1.500E-06,0.004
-1.490E-06,0.012
-1.480E-06,0.020
-1.470E-06,0.024
-1.460E-06,0.028
-1.450E-06,0.016
-1.440E-06,0.016
-1.430E-06,0.008
-1.420E-06,0.012
-1.410E-06,0.028
-1.400E-06,0.032
-1.390E-06,0.040
-1.380E-06,0.040
-1.370E-06,0.024
-1.360E-06,0.012
-1.350E-06,0.008
-1.340E-06,-0.012
-1.330E-06,-0.024
-1.320E-06,-0.052
-1.310E-06,-0.064
-1.300E-06,-0.088
-1.290E-06,-0.076
-1.280E-06,-0.056
-1.270E-06,-0.024
-1.260E-06,0.000
-1.250E-06,0.020
-1.240E-06,0.028
-1.230E-06,-0.004
-1.220E-06,0.000
-1.210E-06,-0.020
-1.200E-06,-0.016
-1.190E-06,0.012
-1.180E-06,0.020
-1.170E-06,0.024
-1.160E-06,0.020
-1.150E-06,0.008
-1.140E-06,0.004
-1.130E-06,0.004
-1.120E-06,0.008
-1.110E-06,0.020
-1.100E-06,0.020
-1.090E-06,0.016
-1.080E-06,0.004
-1.070E-06,0.004
-1.060E-06,0.004
-1.050E-06,0.012
-1.040E-06,0.012
-1.030E-06,0.008
-1.020E-06,-0.008
-1.010E-06,-0.016
-1.000E-06,-0.024
-9.900E-07,-0.008
-9.800E-07,0.004
-9.700E-07,0.028
-9.600E-07,0.032
-9.500E-07,0.032
-9.400E-07,0.024
-9.300E-07,0.000
-9.200E-07,0.000
-9.100E-07,-0.004
-9.000E-07,0.000
-8.900E-07,0.008
-8.800E-07,0.008
-8.700E-07,0.004
-8.600E-07,0.008
-8.500E-07,0.012
-8.400E-07,0.028
-8.300E-07,0.032
-8.200E-07,0.032
-8.100E-07,0.036
-8.000E-07,0.032
-7.900E-07,0.028
-7.800E-07,0.028
-7.700E-07,0.024
-7.600E-07,0.012
-7.500E-07,0.012
-7.400E-07,0.008
-7.300E-07,0.004
-7.200E-07,0.004
-7.100E-07,0.012
-7.000E-07,0.012
-6.900E-07,0.016
-6.800E-07,0.024
-6.700E-07,0.020
-6.600E-07,0.020
-6.500E-07,-0.008
-6.400E-07,-0.072
-6.300E-07,-0.184
-6.200E-07,-0.188
-6.100E-07,-0.152
-6.000E-07,-0.020
-5.900E-07,0.084
-5.800E-07,0.112
-5.700E-07,0.064
-5.600E-07,-0.024
-5.500E-07,-0.108
-5.400E-07,-0.124
-5.300E-07,-0.036
-5.200E-07,0.048
-5.100E-07,0.084
-5.000E-07,0.048
-4.900E-07,-0.008
-4.800E-07,-0.048
-4.700E-07,-0.044
-4.600E-07,-0.012
-4.500E-07,0.020
-4.400E-07,0.044
-4.300E-07,0.032
-4.200E-07,-0.004
-4.100E-07,-0.024
-4.000E-07,-0.024
-3.900E-07,0.000
-3.800E-07,0.020
-3.700E-07,0.032
-3.600E-07,0.024
-3.500E-07,0.012
-3.400E-07,0.000
-3.300E-07,-0.008
-3.200E-07,-0.012
-3.100E-07,0.000
-3.000E-07,0.012
-2.900E-07,0.008
-2.800E-07,0.000
-2.700E-07,-0.004
-2.600E-07,-0.004
-2.500E-07,0.000
-2.400E-07,0.008
-2.300E-07,0.020
-2.200E-07,0.028
-2.100E-07,0.032
-2.000E-07,0.028
-1.900E-07,0.032
-1.800E-07,0.032
-1.700E-07,0.040
-1.600E-07,0.040
-1.500E-07,0.040
-1.400E-07,0.040
-1.300E-07,0.036
-1.200E-07,0.024
-1.100E-07,0.028
-1.000E-07,0.012
-9.000E-08,0.000
-8.000E-08,-0.012
-7.000E-08,-0.020
-6.000E-08,-0.084
-5.000E-08,-0.232
-4.000E-08,-0.188
-3.000E-08,-0.152
-2.000E-08,0.028
-1.000E-08,0.168
0.000E+00,0.164
1.000E-08,0.128
2.000E-08,-0.012
3.000E-08,-0.140
4.000E-08,-0.156
5.000E-08,-0.040
6.000E-08,0.088
7.000E-08,0.136
8.000E-08,0.060
9.000E-08,-0.040
1.000E-07,-0.100
1.100E-07,-0.072
1.200E-07,-0.012
1.300E-07,0.056
1.400E-07,0.064
1.500E-07,0.024
1.600E-07,-0.012
1.700E-07,-0.048
1.800E-07,-0.036
1.900E-07,0.004
2.000E-07,0.032
2.100E-07,0.044
2.200E-07,0.028
2.300E-07,0.008
2.400E-07,-0.012
2.500E-07,-0.012
2.600E-07,-0.012
2.700E-07,0.004
2.800E-07,0.016
2.900E-07,0.028
3.000E-07,0.020
3.100E-07,0.016
3.200E-07,0.008
3.300E-07,0.008
3.400E-07,0.008
3.500E-07,0.012
3.600E-07,0.028
3.700E-07,0.032
3.800E-07,0.044
3.900E-07,0.044
4.000E-07,0.028
4.100E-07,0.012
4.200E-07,-0.004
4.300E-07,-0.004
4.400E-07,0.012
4.500E-07,0.024
4.600E-07,0.008
4.700E-07,-0.008
4.800E-07,-0.032
4.900E-07,-0.028
5.000E-07,-0.008
5.100E-07,0.008
5.200E-07,0.024
5.300E-07,0.020
5.400E-07,0.000
5.500E-07,-0.024
5.600E-07,-0.016
5.700E-07,-0.004
5.800E-07,0.000
5.900E-07,0.008
6.000E-07,-0.012
6.100E-07,-0.032
6.200E-07,-0.028
6.300E-07,-0.016
6.400E-07,0.016
6.500E-07,0.028
6.600E-07,0.012
6.700E-07,-0.004
6.800E-07,-0.024
6.900E-07,-0.012
7.000E-07,0.000
7.100E-07,0.024
7.200E-07,0.032
7.300E-07,0.024
7.400E-07,0.012
7.500E-07,0.000
7.600E-07,-0.004
7.700E-07,0.004
7.800E-07,0.012
7.900E-07,0.024
8.000E-07,0.024
8.100E-07,0.016
8.200E-07,0.016
8.300E-07,0.012
8.400E-07,0.012
8.500E-07,-0.004
8.600E-07,0.004
8.700E-07,0.008
8.800E-07,0.016
8.900E-07,0.020
9.000E-07,0.012
9.100E-07,0.012
9.200E-07,0.004
9.300E-07,0.004
9.400E-07,0.000
9.500E-07,0.008
9.600E-07,0.016
9.700E-07,0.016
9.800E-07,0.004
9.900E-07,-0.008
1.000E-06,-0.008
1.010E-06,-0.020
1.020E-06,-0.004
1.030E-06,-0.012
1.040E-06,-0.008
1.050E-06,-0.016
1.060E-06,-0.004
1.070E-06,-0.008
1.080E-06,-0.004
1.090E-06,0.004
1.100E-06,0.004
1.110E-06,0.000
1.120E-06,-0.008
1.130E-06,-0.016
1.140E-06,0.000
1.150E-06,0.012
1.160E-06,0.020
1.170E-06,0.024
1.180E-06,0.024
1.190E-06,0.012
1.200E-06,-0.004
1.210E-06,0.012
1.220E-06,0.024
1.230E-06,0.032
1.240E-06,0.036
1.250E-06,0.032
1.260E-06,0.020
1.270E-06,0.020
1.280E-06,0.028
1.290E-06,0.028
1.300E-06,0.032
1.310E-06,0.028
1.320E-06,0.024
1.330E-06,0.008
1.340E-06,0.000
1.350E-06,0.000
1.360E-06,0.012
1.370E-06,0.016
1.380E-06,0.020
1.390E-06,0.028
1.400E-06,0.028
1.410E-06,0.012
1.420E-06,0.012
1.430E-06,0.020
1.440E-06,0.020
1.450E-06,0.036
1.460E-06,0.048
1.470E-06,0.044
1.480E-06,0.056
1.490E-06,0.036
1.500E-06,0.028
1.510E-06,0.004
1.520E-06,-0.012
1.530E-06,-0.024
1.540E-06,-0.032
1.550E-06,-0.020
1.560E-06,-0.020
1.570E-06,-0.040
1.580E-06,-0.104
1.590E-06,-0.200
1.600E-06,-0.172
1.610E-06,-0.144
1.620E-06,0.012
1.630E-06,0.108
1.640E-06,0.096
1.650E-06,0.036
1.660E-06,-0.064
1.670E-06,-0.108
1.680E-06,-0.068
1.690E-06,0.036
1.700E-06,0.076
1.710E-06,0.056
1.720E-06,-0.020
1.730E-06,-0.052
1.740E-06,-0.044
1.750E-06,0.008
1.760E-06,0.024
1.770E-06,0.052
1.780E-06,0.024
1.790E-06,-0.004
1.800E-06,-0.020
1.810E-06,-0.012
1.820E-06,0.008
1.830E-06,0.028
1.840E-06,0.044
1.850E-06,0.036
1.860E-06,0.024
1.870E-06,0.008
1.880E-06,0.012
1.890E-06,0.004
1.900E-06,0.008
1.910E-06,0.012
1.920E-06,0.036
1.930E-06,0.048
1.940E-06,0.052
1.950E-06,0.060
1.960E-06,0.056
1.970E-06,0.052
1.980E-06,0.044
1.990E-06,0.036
2.000E-06,0.024
2.010E-06,0.012
2.020E-06,-0.092
2.030E-06,-0.368
2.040E-06,-0.376
2.050E-06,-0.272
2.060E-06,-0.028
2.070E-06,0.296
2.080E-06,0.340
2.090E-06,0.276
2.100E-06,0.016
2.110E-06,-0.184
2.120E-06,-0.256
2.130E-06,-0.096
2.140E-06,0.088
2.150E-06,0.160
2.160E-06,0.088
2.170E-06,-0.044
2.180E-06,-0.100
2.190E-06,-0.060
2.200E-06,-0.012
2.210E-06,0.064
2.220E-06,0.068
2.230E-06,0.032
2.240E-06,-0.008
2.250E-06,-0.064
2.260E-06,-0.068
2.270E-06,-0.012
2.280E-06,0.024
2.290E-06,0.052
2.300E-06,0.056
2.310E-06,0.008
2.320E-06,-0.032
2.330E-06,-0.028
2.340E-06,-0.020
2.350E-06,0.008
2.360E-06,0.028
2.370E-06,0.024
2.380E-06,0.020
2.390E-06,0.008
2.400E-06,0.000
2.410E-06,-0.004
2.420E-06,-0.004
2.430E-06,-0.012
2.440E-06,-0.008
2.450E-06,0.000
2.460E-06,0.000
2.470E-06,0.008
2.480E-06,0.008
2.490E-06,-0.004
2.500E-06,-0.004
2.510E-06,-0.004
2.520E-06,0.004
2.530E-06,0.016
2.540E-06,0.028
2.550E-06,0.028
2.560E-06,0.024
2.570E-06,0.016
2.580E-06,0.000
2.590E-06,-0.004
2.600E-06,-0.008
2.610E-06,-0.008
2.620E-06,0.008
2.630E-06,0.016
2.640E-06,0.008
2.650E-06,0.008
2.660E-06,0.004
2.670E-06,-0.004
2.680E-06,0.000
2.690E-06,0.004
2.700E-06,0.012
2.710E-06,0.012
2.720E-06,0.004
2.730E-06,0.004
2.740E-06,0.004
2.750E-06,0.000
2.760E-06,-0.008
2.770E-06,-0.004
2.780E-06,-0.004
2.790E-06,0.012
2.800E-06,0.020
2.810E-06,0.024
2.820E-06,0.016
2.830E-06,0.016
2.840E-06,0.008
2.850E-06,0.012
2.860E-06,0.012
2.870E-06,0.020
2.880E-06,0.020
2.890E-06,0.016
2.900E-06,0.016
2.910E-06,0.012
2.920E-06,-0.004
2.930E-06,-0.004
2.940E-06,-0.020
2.950E-06,-0.004
2.960E-06,0.008
2.970E-06,0.020
2.980E-06,0.016
2.990E-06,0.012
3.000E-06,0.012
3.010E-06,0.008
3.020E-06,0.020
3.030E-06,0.008
3.040E-06,0.024
3.050E-06,-0.012
3.060E-06,-0.032
3.070E-06,-0.052
3.080E-06,-0.072
3.090E-06,-0.048
3.100E-06,-0.028
3.110E-06,0.004
3.120E-06,0.020
3.130E-06,0.024
3.140E-06,-0.004
3.150E-06,-0.024
3.160E-06,-0.036
3.170E-06,-0.020
3.180E-06,0.008
3.190E-06,0.024
3.200E-06,0.020
3.210E-06,0.012
3.220E-06,-0.004
3.230E-06,-0.020
3.240E-06,-0.016
3.250E-06,-0.004
3.260E-06,0.008
3.270E-06,0.012
3.280E-06,0.008
3.290E-06,-0.004
