mediciones/5-27/-47.5/WaveData50154.csv

#timebase=2000000(ps)
,#voltbase=100000(mv/100)
#size=4000
-8.400E-06,0.000
-8.390E-06,0.000
-8.380E-06,0.000
-8.370E-06,0.008
-8.360E-06,0.012
-8.350E-06,0.008
-8.340E-06,0.004
-8.330E-06,0.000
-8.320E-06,0.004
-8.310E-06,0.008
-8.300E-06,0.012
-8.290E-06,0.012
-8.280E-06,0.008
-8.270E-06,0.004
-8.260E-06,0.008
-8.250E-06,0.008
-8.240E-06,0.004
-8.230E-06,0.008
-8.220E-06,0.004
-8.210E-06,0.000
-8.200E-06,-0.004
-8.190E-06,0.008
-8.180E-06,-0.008
-8.170E-06,-0.068
-8.160E-06,-0.056
-8.150E-06,-0.060
-8.140E-06,0.000
-8.130E-06,0.060
-8.120E-06,0.072
-8.110E-06,0.064
-8.100E-06,0.000
-8.090E-06,-0.048
-8.080E-06,-0.068
-8.070E-06,-0.024
-8.060E-06,0.028
-8.050E-06,0.052
-8.040E-06,0.024
-8.030E-06,-0.004
-8.020E-06,-0.024
-8.010E-06,-0.040
-8.000E-06,-0.020
-7.990E-06,0.000
-7.980E-06,0.020
-7.970E-06,0.016
-7.960E-06,0.004
-7.950E-06,-0.008
-7.940E-06,-0.008
-7.930E-06,0.000
-7.920E-06,0.008
-7.910E-06,0.012
-7.900E-06,0.008
-7.890E-06,0.000
-7.880E-06,-0.004
-7.870E-06,-0.004
-7.860E-06,0.000
-7.850E-06,0.000
-7.840E-06,0.000
-7.830E-06,0.004
-7.820E-06,0.000
-7.810E-06,0.008
-7.800E-06,0.008
-7.790E-06,0.000
-7.780E-06,-0.004
-7.770E-06,-0.004
-7.760E-06,-0.004
-7.750E-06,0.004
-7.740E-06,0.008
-7.730E-06,0.008
-7.720E-06,0.004
-7.710E-06,0.004
-7.700E-06,-0.008
-7.690E-06,0.000
-7.680E-06,0.000
-7.670E-06,0.004
-7.660E-06,0.004
-7.650E-06,0.008
-7.640E-06,0.008
-7.630E-06,0.004
-7.620E-06,-0.004
-7.610E-06,-0.004
-7.600E-06,-0.004
-7.590E-06,0.004
-7.580E-06,0.004
-7.570E-06,0.012
-7.560E-06,0.012
-7.550E-06,0.004
-7.540E-06,0.004
-7.530E-06,-0.004
-7.520E-06,0.000
-7.510E-06,0.000
-7.500E-06,0.004
-7.490E-06,0.004
-7.480E-06,0.008
-7.470E-06,0.008
-7.460E-06,0.008
-7.450E-06,0.008
-7.440E-06,0.004
-7.430E-06,0.004
-7.420E-06,0.004
-7.410E-06,0.008
-7.400E-06,0.008
-7.390E-06,0.008
-7.380E-06,0.008
-7.370E-06,-0.004
-7.360E-06,-0.004
-7.350E-06,-0.008
-7.340E-06,-0.004
-7.330E-06,0.008
-7.320E-06,0.008
-7.310E-06,0.008
-7.300E-06,-0.024
-7.290E-06,-0.028
-7.280E-06,-0.020
-7.270E-06,-0.004
-7.260E-06,0.028
-7.250E-06,0.028
-7.240E-06,0.024
-7.230E-06,0.000
-7.220E-06,-0.020
-7.210E-06,-0.032
-7.200E-06,-0.012
-7.190E-06,0.028
-7.180E-06,0.036
-7.170E-06,0.028
-7.160E-06,0.000
-7.150E-06,-0.012
-7.140E-06,-0.024
-7.130E-06,-0.004
-7.120E-06,0.004
-7.110E-06,0.012
-7.100E-06,0.016
-7.090E-06,-0.004
-7.080E-06,-0.008
-7.070E-06,-0.004
-7.060E-06,0.004
-7.050E-06,0.004
-7.040E-06,0.012
-7.030E-06,0.012
-7.020E-06,0.008
-7.010E-06,-0.008
-7.000E-06,0.000
-6.990E-06,-0.004
-6.980E-06,0.004
-6.970E-06,0.008
-6.960E-06,0.004
-6.950E-06,0.008
-6.940E-06,0.004
-6.930E-06,-0.004
-6.920E-06,0.000
-6.910E-06,-0.004
-6.900E-06,0.000
-6.890E-06,0.004
-6.880E-06,0.012
-6.870E-06,0.012
-6.860E-06,0.012
-6.850E-06,0.012
-6.840E-06,0.000
-6.830E-06,0.000
-6.820E-06,0.000
-6.810E-06,0.000
-6.800E-06,0.000
-6.790E-06,0.004
-6.780E-06,0.008
-6.770E-06,0.008
-6.760E-06,0.004
-6.750E-06,0.000
-6.740E-06,-0.004
-6.730E-06,-0.004
-6.720E-06,0.004
-6.710E-06,0.008
-6.700E-06,0.012
-6.690E-06,0.004
-6.680E-06,0.000
-6.670E-06,0.000
-6.660E-06,-0.004
-6.650E-06,0.004
-6.640E-06,0.008
-6.630E-06,0.008
-6.620E-06,0.008
-6.610E-06,0.000
-6.600E-06,0.000
-6.590E-06,0.008
-6.580E-06,0.008
-6.570E-06,0.004
-6.560E-06,0.000
-6.550E-06,0.000
-6.540E-06,0.004
-6.530E-06,0.000
-6.520E-06,0.008
-6.510E-06,0.012
-6.500E-06,0.008
-6.490E-06,0.004
-6.480E-06,0.004
-6.470E-06,0.008
-6.460E-06,0.004
-6.450E-06,0.012
-6.440E-06,0.000
-6.430E-06,0.008
-6.420E-06,-0.016
-6.410E-06,-0.020
-6.400E-06,-0.032
-6.390E-06,-0.024
-6.380E-06,0.008
-6.370E-06,0.032
-6.360E-06,0.044
-6.350E-06,0.032
-6.340E-06,0.004
-6.330E-06,-0.024
-6.320E-06,-0.036
-6.310E-06,-0.008
-6.300E-06,0.028
-6.290E-06,0.032
-6.280E-06,0.016
-6.270E-06,-0.004
-6.260E-06,-0.024
-6.250E-06,-0.024
-6.240E-06,-0.008
-6.230E-06,0.012
-6.220E-06,0.028
-6.210E-06,0.016
-6.200E-06,0.000
-6.190E-06,-0.016
-6.180E-06,-0.016
-6.170E-06,0.004
-6.160E-06,0.020
-6.150E-06,0.024
-6.140E-06,0.008
-6.130E-06,0.000
-6.120E-06,-0.008
-6.110E-06,-0.012
-6.100E-06,0.004
-6.090E-06,0.004
-6.080E-06,0.008
-6.070E-06,0.012
-6.060E-06,0.012
-6.050E-06,-0.004
-6.040E-06,0.000
-6.030E-06,0.004
-6.020E-06,0.004
-6.010E-06,0.000
-6.000E-06,0.008
-5.990E-06,0.004
-5.980E-06,0.008
-5.970E-06,0.012
-5.960E-06,0.008
-5.950E-06,0.008
-5.940E-06,0.012
-5.930E-06,0.000
-5.920E-06,0.000
-5.910E-06,0.004
-5.900E-06,0.016
-5.890E-06,0.012
-5.880E-06,0.012
-5.870E-06,0.016
-5.860E-06,0.016
-5.850E-06,0.004
-5.840E-06,0.012
-5.830E-06,0.000
-5.820E-06,-0.004
-5.810E-06,-0.004
-5.800E-06,-0.004
-5.790E-06,-0.008
-5.780E-06,-0.008
-5.770E-06,-0.012
-5.760E-06,-0.012
-5.750E-06,-0.012
-5.740E-06,-0.012
-5.730E-06,0.008
-5.720E-06,0.024
-5.710E-06,0.024
-5.700E-06,0.008
-5.690E-06,-0.012
-5.680E-06,-0.020
-5.670E-06,-0.004
-5.660E-06,0.012
-5.650E-06,0.008
-5.640E-06,0.016
-5.630E-06,0.000
-5.620E-06,-0.008
-5.610E-06,-0.004
-5.600E-06,-0.008
-5.590E-06,0.012
-5.580E-06,0.016
-5.570E-06,0.008
-5.560E-06,0.000
-5.550E-06,0.000
-5.540E-06,0.000
-5.530E-06,0.012
-5.520E-06,0.016
-5.510E-06,0.008
-5.500E-06,0.004
-5.490E-06,0.004
-5.480E-06,0.004
-5.470E-06,0.008
-5.460E-06,0.004
-5.450E-06,0.004
-5.440E-06,0.004
-5.430E-06,-0.004
-5.420E-06,0.000
-5.410E-06,0.000
-5.400E-06,0.008
-5.390E-06,0.004
-5.380E-06,0.000
-5.370E-06,0.000
-5.360E-06,0.004
-5.350E-06,0.008
-5.340E-06,0.012
-5.330E-06,0.012
-5.320E-06,0.008
-5.310E-06,-0.008
-5.300E-06,-0.012
-5.290E-06,-0.008
-5.280E-06,0.000
-5.270E-06,0.008
-5.260E-06,0.016
-5.250E-06,0.012
-5.240E-06,0.008
-5.230E-06,0.004
-5.220E-06,0.008
-5.210E-06,0.012
-5.200E-06,-0.004
-5.190E-06,0.008
-5.180E-06,0.000
-5.170E-06,0.012
-5.160E-06,0.008
-5.150E-06,0.004
-5.140E-06,-0.024
-5.130E-06,-0.012
-5.120E-06,-0.016
-5.110E-06,0.004
-5.100E-06,0.012
-5.090E-06,0.016
-5.080E-06,0.008
-5.070E-06,0.000
-5.060E-06,-0.004
-5.050E-06,0.008
-5.040E-06,0.008
-5.030E-06,-0.004
-5.020E-06,-0.024
-5.010E-06,-0.020
-5.000E-06,-0.012
-4.990E-06,0.008
-4.980E-06,0.024
-4.970E-06,0.024
-4.960E-06,0.004
-4.950E-06,-0.008
-4.940E-06,-0.024
-4.930E-06,0.000
-4.920E-06,0.008
-4.910E-06,0.020
-4.900E-06,0.008
-4.890E-06,0.004
-4.880E-06,0.000
-4.870E-06,0.000
-4.860E-06,0.008
-4.850E-06,0.012
-4.840E-06,0.016
-4.830E-06,0.000
-4.820E-06,-0.008
-4.810E-06,-0.020
-4.800E-06,-0.016
-4.790E-06,-0.004
-4.780E-06,0.024
-4.770E-06,0.032
-4.760E-06,0.016
-4.750E-06,-0.004
-4.740E-06,-0.020
-4.730E-06,-0.020
-4.720E-06,0.004
-4.710E-06,0.020
-4.700E-06,0.028
-4.690E-06,0.024
-4.680E-06,0.008
-4.670E-06,-0.008
-4.660E-06,-0.008
-4.650E-06,0.004
-4.640E-06,0.016
-4.630E-06,0.028
-4.620E-06,0.028
-4.610E-06,0.008
-4.600E-06,0.008
-4.590E-06,-0.004
-4.580E-06,-0.040
-4.570E-06,-0.036
-4.560E-06,-0.036
-4.550E-06,-0.012
-4.540E-06,0.028
-4.530E-06,0.032
-4.520E-06,0.024
-4.510E-06,0.012
-4.500E-06,-0.024
-4.490E-06,-0.036
-4.480E-06,-0.024
-4.470E-06,0.016
-4.460E-06,0.032
-4.450E-06,0.028
-4.440E-06,0.008
-4.430E-06,-0.008
-4.420E-06,-0.012
-4.410E-06,-0.008
-4.400E-06,0.012
-4.390E-06,0.024
-4.380E-06,0.020
-4.370E-06,0.012
-4.360E-06,0.004
-4.350E-06,-0.004
-4.340E-06,0.000
-4.330E-06,0.008
-4.320E-06,0.012
-4.310E-06,0.008
-4.300E-06,0.004
-4.290E-06,-0.012
-4.280E-06,-0.012
-4.270E-06,-0.008
-4.260E-06,0.016
-4.250E-06,0.028
-4.240E-06,0.024
-4.230E-06,0.020
-4.220E-06,0.008
-4.210E-06,-0.004
-4.200E-06,-0.008
-4.190E-06,-0.008
-4.180E-06,0.004
-4.170E-06,0.012
-4.160E-06,0.008
-4.150E-06,0.000
-4.140E-06,-0.004
-4.130E-06,-0.008
-4.120E-06,-0.004
-4.110E-06,0.004
-4.100E-06,0.020
-4.090E-06,0.028
-4.080E-06,0.028
-4.070E-06,0.012
-4.060E-06,0.000
-4.050E-06,-0.004
-4.040E-06,-0.024
-4.030E-06,-0.024
-4.020E-06,-0.024
-4.010E-06,-0.004
-4.000E-06,0.008
-3.990E-06,0.020
-3.980E-06,0.016
-3.970E-06,0.008
-3.960E-06,-0.016
-3.950E-06,-0.004
-3.940E-06,0.004
-3.930E-06,0.016
-3.920E-06,0.012
-3.910E-06,0.008
-3.900E-06,-0.004
-3.890E-06,0.000
-3.880E-06,0.008
-3.870E-06,0.020
-3.860E-06,0.008
-3.850E-06,0.000
-3.840E-06,-0.032
-3.830E-06,-0.032
-3.820E-06,-0.012
-3.810E-06,0.016
-3.800E-06,0.020
-3.790E-06,0.024
-3.780E-06,0.012
-3.770E-06,0.000
-3.760E-06,-0.004
-3.750E-06,0.000
-3.740E-06,0.016
-3.730E-06,0.016
-3.720E-06,0.008
-3.710E-06,0.008
-3.700E-06,0.008
-3.690E-06,0.008
-3.680E-06,0.016
-3.670E-06,0.028
-3.660E-06,0.028
-3.650E-06,0.032
-3.640E-06,0.008
-3.630E-06,-0.008
-3.620E-06,-0.024
-3.610E-06,-0.032
-3.600E-06,-0.028
-3.590E-06,-0.004
-3.580E-06,0.012
-3.570E-06,0.016
-3.560E-06,0.012
-3.550E-06,-0.008
-3.540E-06,-0.016
-3.530E-06,-0.008
-3.520E-06,-0.004
-3.510E-06,0.008
-3.500E-06,0.016
-3.490E-06,0.012
-3.480E-06,0.000
-3.470E-06,-0.004
-3.460E-06,-0.008
-3.450E-06,0.000
-3.440E-06,0.008
-3.430E-06,0.012
-3.420E-06,0.016
-3.410E-06,0.012
-3.400E-06,0.000
-3.390E-06,0.004
-3.380E-06,0.008
-3.370E-06,0.008
-3.360E-06,0.012
-3.350E-06,0.000
-3.340E-06,0.004
-3.330E-06,0.012
-3.320E-06,0.020
-3.310E-06,0.028
-3.300E-06,0.024
-3.290E-06,0.032
-3.280E-06,0.040
-3.270E-06,0.032
-3.260E-06,0.016
-3.250E-06,-0.008
-3.240E-06,-0.040
-3.230E-06,-0.048
-3.220E-06,-0.036
-3.210E-06,-0.016
-3.200E-06,0.016
-3.190E-06,0.032
-3.180E-06,0.028
-3.170E-06,0.004
-3.160E-06,-0.008
-3.150E-06,-0.024
-3.140E-06,-0.008
-3.130E-06,0.008
-3.120E-06,0.024
-3.110E-06,0.028
-3.100E-06,0.008
-3.090E-06,0.000
-3.080E-06,0.000
-3.070E-06,0.000
-3.060E-06,0.016
-3.050E-06,0.024
-3.040E-06,0.024
-3.030E-06,0.020
-3.020E-06,0.016
-3.010E-06,0.012
-3.000E-06,0.016
-2.990E-06,0.020
-2.980E-06,0.028
-2.970E-06,0.032
-2.960E-06,0.028
-2.950E-06,0.012
-2.940E-06,0.000
-2.930E-06,-0.008
-2.920E-06,-0.008
-2.910E-06,-0.028
-2.900E-06,-0.028
-2.890E-06,-0.028
-2.880E-06,-0.028
-2.870E-06,-0.028
-2.860E-06,-0.040
-2.850E-06,-0.028
-2.840E-06,-0.016
-2.830E-06,0.028
-2.820E-06,0.044
-2.810E-06,0.032
-2.800E-06,0.016
-2.790E-06,-0.036
-2.780E-06,-0.044
-2.770E-06,-0.028
-2.760E-06,0.012
-2.750E-06,0.036
-2.740E-06,0.032
-2.730E-06,0.008
-2.720E-06,-0.016
-2.710E-06,-0.012
-2.700E-06,-0.004
-2.690E-06,0.016
-2.680E-06,0.024
-2.670E-06,0.016
-2.660E-06,0.000
-2.650E-06,-0.008
-2.640E-06,-0.012
-2.630E-06,-0.004
-2.620E-06,0.024
-2.610E-06,0.028
-2.600E-06,0.020
-2.590E-06,0.000
-2.580E-06,-0.008
-2.570E-06,-0.008
-2.560E-06,0.000
-2.550E-06,0.008
-2.540E-06,0.024
-2.530E-06,0.024
-2.520E-06,0.020
-2.510E-06,0.032
-2.500E-06,0.036
-2.490E-06,0.032
-2.480E-06,0.028
-2.470E-06,-0.024
-2.460E-06,-0.064
-2.450E-06,-0.072
-2.440E-06,-0.064
-2.430E-06,-0.028
-2.420E-06,0.020
-2.410E-06,0.044
-2.400E-06,0.048
-2.390E-06,0.012
-2.380E-06,-0.008
-2.370E-06,-0.044
-2.360E-06,-0.032
-2.350E-06,-0.004
-2.340E-06,0.020
-2.330E-06,0.028
-2.320E-06,0.016
-2.310E-06,-0.004
-2.300E-06,-0.012
-2.290E-06,-0.016
-2.280E-06,-0.004
-2.270E-06,0.012
-2.260E-06,0.024
-2.250E-06,0.024
-2.240E-06,0.004
-2.230E-06,-0.004
-2.220E-06,-0.008
-2.210E-06,0.000
-2.200E-06,0.008
-2.190E-06,0.016
-2.180E-06,0.016
-2.170E-06,0.012
-2.160E-06,0.008
-2.150E-06,0.008
-2.140E-06,0.008
-2.130E-06,0.012
-2.120E-06,0.016
-2.110E-06,0.024
-2.100E-06,0.028
-2.090E-06,0.032
-2.080E-06,0.036
-2.070E-06,0.036
-2.060E-06,0.036
-2.050E-06,0.036
-2.040E-06,0.040
-2.030E-06,0.048
-2.020E-06,0.056
-2.010E-06,0.064
-2.000E-06,0.068
-1.990E-06,0.068
-1.980E-06,0.048
-1.970E-06,0.036
-1.960E-06,0.012
-1.950E-06,0.000
-1.940E-06,0.000
-1.930E-06,0.004
-1.920E-06,0.016
-1.910E-06,0.028
-1.900E-06,0.036
-1.890E-06,0.036
-1.880E-06,0.048
-1.870E-06,0.044
-1.860E-06,0.040
-1.850E-06,0.020
-1.840E-06,0.008
-1.830E-06,-0.016
-1.820E-06,-0.016
-1.810E-06,-0.012
-1.800E-06,0.016
-1.790E-06,0.028
-1.780E-06,0.040
-1.770E-06,0.044
-1.760E-06,0.032
-1.750E-06,0.036
-1.740E-06,0.008
-1.730E-06,0.004
-1.720E-06,-0.036
-1.710E-06,-0.072
-1.700E-06,-0.104
-1.690E-06,-0.116
-1.680E-06,-0.108
-1.670E-06,-0.092
-1.660E-06,-0.044
-1.650E-06,0.000
-1.640E-06,0.080
-1.630E-06,0.052
-1.620E-06,0.016
-1.610E-06,-0.056
-1.600E-06,-0.112
-1.590E-06,-0.104
-1.580E-06,-0.052
-1.570E-06,0.048
-1.560E-06,0.096
-1.550E-06,0.128
-1.540E-06,0.052
-1.530E-06,-0.028
-1.520E-06,-0.096
-1.510E-06,-0.084
-1.500E-06,-0.036
-1.490E-06,0.016
-1.480E-06,0.052
-1.470E-06,0.064
-1.460E-06,0.036
-1.450E-06,-0.016
-1.440E-06,-0.052
-1.430E-06,-0.072
-1.420E-06,-0.068
-1.410E-06,-0.044
-1.400E-06,-0.008
-1.390E-06,0.024
-1.380E-06,0.068
-1.370E-06,0.048
-1.360E-06,0.024
-1.350E-06,-0.008
-1.340E-06,-0.016
-1.330E-06,0.012
-1.320E-06,0.056
-1.310E-06,0.084
-1.300E-06,0.048
-1.290E-06,-0.036
-1.280E-06,-0.096
-1.270E-06,-0.104
-1.260E-06,-0.052
-1.250E-06,0.024
-1.240E-06,0.064
-1.230E-06,0.084
-1.220E-06,0.048
-1.210E-06,-0.020
-1.200E-06,-0.040
-1.190E-06,-0.032
-1.180E-06,0.020
-1.170E-06,0.072
-1.160E-06,0.084
-1.150E-06,0.060
-1.140E-06,0.024
-1.130E-06,-0.020
-1.120E-06,-0.012
-1.110E-06,0.024
-1.100E-06,0.064
-1.090E-06,0.088
-1.080E-06,0.096
-1.070E-06,0.052
-1.060E-06,0.020
-1.050E-06,-0.008
-1.040E-06,-0.008
-1.030E-06,0.000
-1.020E-06,0.012
-1.010E-06,0.012
-1.000E-06,0.004
-9.900E-07,0.000
-9.800E-07,-0.016
-9.700E-07,-0.028
-9.600E-07,-0.032
-9.500E-07,-0.024
-9.400E-07,-0.040
-9.300E-07,-0.040
-9.200E-07,-0.024
-9.100E-07,0.004
-9.000E-07,0.016
-8.900E-07,0.020
-8.800E-07,-0.008
-8.700E-07,-0.008
-8.600E-07,-0.020
-8.500E-07,0.004
-8.400E-07,0.028
-8.300E-07,0.064
-8.200E-07,0.060
-8.100E-07,0.044
-8.000E-07,0.020
-7.900E-07,0.004
-7.800E-07,0.008
-7.700E-07,0.020
-7.600E-07,0.024
-7.500E-07,0.024
-7.400E-07,0.024
-7.300E-07,0.012
-7.200E-07,0.016
-7.100E-07,0.008
-7.000E-07,0.008
-6.900E-07,0.004
-6.800E-07,-0.012
-6.700E-07,-0.024
-6.600E-07,-0.008
-6.500E-07,0.004
-6.400E-07,0.044
-6.300E-07,0.076
-6.200E-07,0.096
-6.100E-07,0.104
-6.000E-07,0.096
-5.900E-07,0.076
-5.800E-07,0.044
-5.700E-07,0.024
-5.600E-07,-0.004
-5.500E-07,-0.028
-5.400E-07,-0.036
-5.300E-07,-0.028
-5.200E-07,-0.008
-5.100E-07,0.004
-5.000E-07,0.000
-4.900E-07,-0.008
-4.800E-07,-0.028
-4.700E-07,-0.036
-4.600E-07,-0.032
-4.500E-07,-0.028
-4.400E-07,-0.024
-4.300E-07,-0.028
-4.200E-07,-0.024
-4.100E-07,-0.020
-4.000E-07,0.000
-3.900E-07,0.016
-3.800E-07,0.036
-3.700E-07,0.036
-3.600E-07,0.032
-3.500E-07,0.016
-3.400E-07,0.016
-3.300E-07,0.024
-3.200E-07,0.040
-3.100E-07,0.056
-3.000E-07,0.052
-2.900E-07,0.056
-2.800E-07,0.052
-2.700E-07,0.060
-2.600E-07,0.064
-2.500E-07,0.080
-2.400E-07,0.068
-2.300E-07,0.060
-2.200E-07,0.056
-2.100E-07,0.064
-2.000E-07,0.072
-1.900E-07,0.084
-1.800E-07,0.072
-1.700E-07,0.060
-1.600E-07,0.048
-1.500E-07,0.044
-1.400E-07,0.056
-1.300E-07,0.072
-1.200E-07,0.080
-1.100E-07,0.092
-1.000E-07,0.100
-9.000E-08,0.096
-8.000E-08,0.072
-7.000E-08,0.056
-6.000E-08,-0.068
-5.000E-08,-0.288
-4.000E-08,-0.512
-3.000E-08,-0.512
-2.000E-08,-0.512
-1.000E-08,-0.168
0.000E+00,0.484
1.000E-08,0.540
2.000E-08,0.536
3.000E-08,0.144
4.000E-08,-0.280
5.000E-08,-0.496
6.000E-08,-0.336
7.000E-08,-0.056
8.000E-08,0.212
9.000E-08,0.180
1.000E-07,0.008
1.100E-07,-0.112
1.200E-07,-0.120
1.300E-07,-0.072
1.400E-07,0.000
1.500E-07,0.020
1.600E-07,-0.024
1.700E-07,-0.024
1.800E-07,-0.032
1.900E-07,-0.004
2.000E-07,0.028
2.100E-07,0.040
2.200E-07,0.004
2.300E-07,0.000
2.400E-07,-0.024
2.500E-07,-0.016
2.600E-07,0.016
2.700E-07,0.008
2.800E-07,0.000
2.900E-07,-0.004
3.000E-07,-0.004
3.100E-07,0.008
3.200E-07,0.032
3.300E-07,0.032
3.400E-07,0.032
3.500E-07,0.020
3.600E-07,-0.004
3.700E-07,-0.008
3.800E-07,0.004
3.900E-07,0.016
4.000E-07,0.028
4.100E-07,0.036
4.200E-07,0.012
4.300E-07,-0.004
4.400E-07,-0.020
4.500E-07,-0.024
4.600E-07,-0.004
4.700E-07,0.020
4.800E-07,0.028
4.900E-07,0.044
5.000E-07,0.036
5.100E-07,0.024
5.200E-07,-0.004
5.300E-07,-0.004
5.400E-07,0.008
5.500E-07,0.024
5.600E-07,0.036
5.700E-07,0.032
5.800E-07,0.024
5.900E-07,0.024
6.000E-07,0.024
6.100E-07,0.028
6.200E-07,0.040
6.300E-07,0.048
6.400E-07,0.060
6.500E-07,0.080
6.600E-07,0.096
6.700E-07,0.112
6.800E-07,0.124
6.900E-07,0.132
7.000E-07,0.128
7.100E-07,0.132
7.200E-07,0.108
7.300E-07,0.100
7.400E-07,0.088
7.500E-07,0.052
7.600E-07,0.016
7.700E-07,-0.020
7.800E-07,-0.028
7.900E-07,-0.008
8.000E-07,0.044
8.100E-07,0.076
8.200E-07,0.100
8.300E-07,0.084
8.400E-07,0.060
8.500E-07,0.028
8.600E-07,0.028
8.700E-07,0.056
8.800E-07,0.088
8.900E-07,0.092
9.000E-07,0.092
9.100E-07,0.056
9.200E-07,0.024
9.300E-07,-0.056
9.400E-07,-0.200
9.500E-07,-0.440
9.600E-07,-0.508
9.700E-07,-0.284
9.800E-07,-0.120
9.900E-07,-0.004
1.000E-06,0.308
1.010E-06,-0.008
1.020E-06,-0.108
1.030E-06,-0.468
1.040E-06,-0.352
1.050E-06,-0.068
1.060E-06,0.340
1.070E-06,0.408
1.080E-06,0.224
1.090E-06,0.068
1.100E-06,-0.168
1.110E-06,-0.072
1.120E-06,-0.060
1.130E-06,0.108
1.140E-06,0.076
1.150E-06,0.120
1.160E-06,0.000
1.170E-06,0.012
1.180E-06,0.020
1.190E-06,0.068
1.200E-06,0.128
1.210E-06,0.104
1.220E-06,0.084
1.230E-06,0.000
1.240E-06,-0.032
1.250E-06,-0.136
1.260E-06,-0.136
1.270E-06,-0.180
1.280E-06,-0.104
1.290E-06,-0.008
1.300E-06,0.084
1.310E-06,0.124
1.320E-06,0.092
1.330E-06,0.064
1.340E-06,0.016
1.350E-06,0.076
1.360E-06,0.108
1.370E-06,0.124
1.380E-06,0.068
1.390E-06,-0.084
1.400E-06,-0.180
1.410E-06,-0.204
1.420E-06,-0.196
1.430E-06,-0.072
1.440E-06,0.092
1.450E-06,0.180
1.460E-06,0.200
1.470E-06,0.128
1.480E-06,0.032
1.490E-06,-0.056
1.500E-06,-0.032
1.510E-06,0.004
1.520E-06,0.060
1.530E-06,0.064
1.540E-06,-0.004
1.550E-06,-0.052
1.560E-06,-0.068
1.570E-06,-0.072
1.580E-06,-0.028
1.590E-06,0.004
1.600E-06,0.040
1.610E-06,0.084
1.620E-06,0.040
1.630E-06,0.000
1.640E-06,-0.032
1.650E-06,0.000
1.660E-06,0.048
1.670E-06,0.128
1.680E-06,0.172
1.690E-06,0.160
1.700E-06,0.104
1.710E-06,0.028
1.720E-06,-0.004
1.730E-06,0.004
1.740E-06,0.008
1.750E-06,0.020
1.760E-06,-0.020
1.770E-06,-0.100
1.780E-06,-0.192
1.790E-06,-0.272
1.800E-06,-0.248
1.810E-06,-0.220
1.820E-06,-0.068
1.830E-06,0.064
1.840E-06,0.152
1.850E-06,0.100
1.860E-06,0.024
1.870E-06,-0.040
1.880E-06,-0.056
1.890E-06,0.008
1.900E-06,0.092
1.910E-06,0.160
1.920E-06,0.152
1.930E-06,0.104
1.940E-06,0.052
1.950E-06,0.028
1.960E-06,0.044
1.970E-06,0.092
1.980E-06,0.116
1.990E-06,0.088
2.000E-06,0.040
2.010E-06,-0.036
2.020E-06,-0.084
2.030E-06,-0.104
2.040E-06,-0.100
2.050E-06,-0.056
2.060E-06,-0.016
2.070E-06,-0.024
2.080E-06,0.000
2.090E-06,-0.052
2.100E-06,-0.064
2.110E-06,-0.040
2.120E-06,-0.004
2.130E-06,0.028
2.140E-06,0.024
2.150E-06,-0.004
2.160E-06,-0.032
2.170E-06,0.004
2.180E-06,0.064
2.190E-06,0.128
2.200E-06,0.148
2.210E-06,0.104
2.220E-06,0.076
2.230E-06,0.072
2.240E-06,0.104
2.250E-06,0.124
2.260E-06,0.120
2.270E-06,0.068
2.280E-06,-0.012
2.290E-06,-0.028
2.300E-06,-0.016
2.310E-06,0.044
2.320E-06,0.088
2.330E-06,0.076
2.340E-06,0.020
2.350E-06,-0.028
2.360E-06,-0.072
2.370E-06,-0.060
2.380E-06,-0.004
2.390E-06,0.056
2.400E-06,0.084
2.410E-06,0.056
2.420E-06,0.000
2.430E-06,-0.084
2.440E-06,-0.176
2.450E-06,-0.296
2.460E-06,-0.336
2.470E-06,-0.436
2.480E-06,-0.332
2.490E-06,-0.136
2.500E-06,0.024
2.510E-06,0.140
2.520E-06,0.216
2.530E-06,0.084
2.540E-06,-0.028
2.550E-06,-0.100
2.560E-06,-0.048
2.570E-06,0.072
2.580E-06,0.156
2.590E-06,0.152
2.600E-06,0.060
2.610E-06,0.004
2.620E-06,-0.044
2.630E-06,0.004
2.640E-06,0.056
2.650E-06,0.108
2.660E-06,0.128
2.670E-06,0.108
2.680E-06,0.056
2.690E-06,0.036
2.700E-06,0.044
2.710E-06,0.084
2.720E-06,0.152
2.730E-06,0.184
2.740E-06,0.176
2.750E-06,0.124
2.760E-06,0.076
2.770E-06,0.008
2.780E-06,-0.004
2.790E-06,-0.008
2.800E-06,-0.008
2.810E-06,-0.032
2.820E-06,-0.092
2.830E-06,-0.140
2.840E-06,-0.160
2.850E-06,-0.128
2.860E-06,-0.084
2.870E-06,-0.028
2.880E-06,0.028
2.890E-06,0.016
2.900E-06,0.012
2.910E-06,-0.020
2.920E-06,0.008
2.930E-06,0.012
2.940E-06,0.044
2.950E-06,0.024
2.960E-06,0.036
2.970E-06,0.048
2.980E-06,0.076
2.990E-06,0.108
3.000E-06,0.108
3.010E-06,0.108
3.020E-06,0.092
3.030E-06,0.092
3.040E-06,0.084
3.050E-06,0.096
3.060E-06,0.108
3.070E-06,0.120
3.080E-06,0.132
3.090E-06,0.132
3.100E-06,0.132
3.110E-06,0.136
3.120E-06,0.140
3.130E-06,0.140
3.140E-06,0.128
3.150E-06,0.124
3.160E-06,0.112
3.170E-06,0.108
3.180E-06,0.108
3.190E-06,0.112
3.200E-06,0.104
3.210E-06,0.104
3.220E-06,0.112
3.230E-06,0.100
3.240E-06,0.132
3.250E-06,0.112
3.260E-06,0.140
3.270E-06,0.128
3.280E-06,0.152
3.290E-06,0.088
