mediciones/5-27/-47.5/WaveData50156.csv

#timebase=2000000(ps)
,#voltbase=100000(mv/100)
#size=4000
-8.400E-06,0.004
-8.390E-06,0.004
-8.380E-06,0.000
-8.370E-06,0.000
-8.360E-06,0.004
-8.350E-06,0.004
-8.340E-06,0.004
-8.330E-06,0.004
-8.320E-06,0.000
-8.310E-06,0.004
-8.300E-06,-0.004
-8.290E-06,0.008
-8.280E-06,0.004
-8.270E-06,0.000
-8.260E-06,0.008
-8.250E-06,0.008
-8.240E-06,-0.004
-8.230E-06,0.000
-8.220E-06,0.004
-8.210E-06,0.000
-8.200E-06,0.004
-8.190E-06,0.004
-8.180E-06,-0.004
-8.170E-06,0.004
-8.160E-06,0.004
-8.150E-06,0.004
-8.140E-06,0.000
-8.130E-06,0.000
-8.120E-06,0.000
-8.110E-06,0.004
-8.100E-06,-0.004
-8.090E-06,0.000
-8.080E-06,-0.004
-8.070E-06,0.004
-8.060E-06,0.004
-8.050E-06,0.000
-8.040E-06,0.000
-8.030E-06,0.004
-8.020E-06,0.004
-8.010E-06,0.004
-8.000E-06,0.004
-7.990E-06,0.008
-7.980E-06,0.000
-7.970E-06,0.004
-7.960E-06,0.004
-7.950E-06,0.004
-7.940E-06,0.000
-7.930E-06,0.000
-7.920E-06,0.000
-7.910E-06,0.000
-7.900E-06,0.000
-7.890E-06,0.004
-7.880E-06,0.008
-7.870E-06,0.000
-7.860E-06,0.000
-7.850E-06,0.004
-7.840E-06,0.000
-7.830E-06,0.004
-7.820E-06,0.000
-7.810E-06,0.004
-7.800E-06,0.008
-7.790E-06,0.008
-7.780E-06,-0.004
-7.770E-06,0.000
-7.760E-06,0.000
-7.750E-06,0.004
-7.740E-06,0.004
-7.730E-06,0.004
-7.720E-06,0.000
-7.710E-06,0.004
-7.700E-06,0.004
-7.690E-06,0.000
-7.680E-06,0.000
-7.670E-06,0.000
-7.660E-06,0.004
-7.650E-06,0.004
-7.640E-06,0.000
-7.630E-06,0.000
-7.620E-06,0.000
-7.610E-06,0.004
-7.600E-06,0.004
-7.590E-06,0.004
-7.580E-06,0.008
-7.570E-06,0.008
-7.560E-06,0.000
-7.550E-06,0.000
-7.540E-06,0.000
-7.530E-06,0.004
-7.520E-06,-0.004
-7.510E-06,0.000
-7.500E-06,0.004
-7.490E-06,0.000
-7.480E-06,0.004
-7.470E-06,0.000
-7.460E-06,0.000
-7.450E-06,0.000
-7.440E-06,0.004
-7.430E-06,0.000
-7.420E-06,0.004
-7.410E-06,0.008
-7.400E-06,0.012
-7.390E-06,-0.004
-7.380E-06,-0.004
-7.370E-06,0.004
-7.360E-06,0.000
-7.350E-06,0.000
-7.340E-06,-0.004
-7.330E-06,0.000
-7.320E-06,0.000
-7.310E-06,0.000
-7.300E-06,0.004
-7.290E-06,0.008
-7.280E-06,0.004
-7.270E-06,0.004
-7.260E-06,0.004
-7.250E-06,0.000
-7.240E-06,0.004
-7.230E-06,0.004
-7.220E-06,0.008
-7.210E-06,0.008
-7.200E-06,0.000
-7.190E-06,0.000
-7.180E-06,0.004
-7.170E-06,0.004
-7.160E-06,0.004
-7.150E-06,0.004
-7.140E-06,0.004
-7.130E-06,0.004
-7.120E-06,0.000
-7.110E-06,0.000
-7.100E-06,0.000
-7.090E-06,0.004
-7.080E-06,0.004
-7.070E-06,0.004
-7.060E-06,0.000
-7.050E-06,0.004
-7.040E-06,0.000
-7.030E-06,0.000
-7.020E-06,0.000
-7.010E-06,0.004
-7.000E-06,0.000
-6.990E-06,0.008
-6.980E-06,-0.004
-6.970E-06,0.004
-6.960E-06,0.004
-6.950E-06,0.000
-6.940E-06,-0.004
-6.930E-06,0.000
-6.920E-06,0.004
-6.910E-06,0.008
-6.900E-06,0.008
-6.890E-06,0.000
-6.880E-06,-0.004
-6.870E-06,0.000
-6.860E-06,0.008
-6.850E-06,0.016
-6.840E-06,0.008
-6.830E-06,0.000
-6.820E-06,-0.008
-6.810E-06,-0.008
-6.800E-06,-0.012
-6.790E-06,0.004
-6.780E-06,0.012
-6.770E-06,0.020
-6.760E-06,0.028
-6.750E-06,0.004
-6.740E-06,0.016
-6.730E-06,0.004
-6.720E-06,0.008
-6.710E-06,0.012
-6.700E-06,-0.008
-6.690E-06,-0.008
-6.680E-06,-0.004
-6.670E-06,-0.016
-6.660E-06,-0.008
-6.650E-06,0.024
-6.640E-06,0.028
-6.630E-06,0.020
-6.620E-06,0.008
-6.610E-06,-0.004
-6.600E-06,-0.008
-6.590E-06,-0.012
-6.580E-06,-0.004
-6.570E-06,0.008
-6.560E-06,0.012
-6.550E-06,0.008
-6.540E-06,0.004
-6.530E-06,-0.008
-6.520E-06,-0.008
-6.510E-06,0.000
-6.500E-06,0.012
-6.490E-06,0.008
-6.480E-06,0.008
-6.470E-06,0.004
-6.460E-06,-0.004
-6.450E-06,-0.004
-6.440E-06,0.000
-6.430E-06,0.004
-6.420E-06,0.000
-6.410E-06,0.008
-6.400E-06,0.008
-6.390E-06,0.000
-6.380E-06,-0.004
-6.370E-06,-0.004
-6.360E-06,0.004
-6.350E-06,0.012
-6.340E-06,0.012
-6.330E-06,0.004
-6.320E-06,0.000
-6.310E-06,-0.004
-6.300E-06,0.000
-6.290E-06,0.008
-6.280E-06,0.004
-6.270E-06,0.008
-6.260E-06,-0.004
-6.250E-06,-0.004
-6.240E-06,0.000
-6.230E-06,-0.004
-6.220E-06,0.012
-6.210E-06,0.012
-6.200E-06,0.008
-6.190E-06,0.008
-6.180E-06,0.008
-6.170E-06,-0.004
-6.160E-06,-0.004
-6.150E-06,-0.004
-6.140E-06,0.004
-6.130E-06,0.000
-6.120E-06,0.000
-6.110E-06,0.008
-6.100E-06,0.004
-6.090E-06,0.004
-6.080E-06,0.000
-6.070E-06,-0.004
-6.060E-06,0.004
-6.050E-06,0.004
-6.040E-06,0.008
-6.030E-06,0.012
-6.020E-06,0.004
-6.010E-06,0.004
-6.000E-06,-0.008
-5.990E-06,-0.008
-5.980E-06,-0.004
-5.970E-06,0.012
-5.960E-06,0.020
-5.950E-06,0.016
-5.940E-06,-0.004
-5.930E-06,-0.004
-5.920E-06,-0.004
-5.910E-06,0.000
-5.900E-06,0.012
-5.890E-06,0.008
-5.880E-06,0.004
-5.870E-06,0.004
-5.860E-06,-0.008
-5.850E-06,-0.008
-5.840E-06,0.012
-5.830E-06,0.004
-5.820E-06,0.004
-5.810E-06,0.004
-5.800E-06,0.000
-5.790E-06,0.000
-5.780E-06,0.004
-5.770E-06,0.008
-5.760E-06,0.004
-5.750E-06,0.000
-5.740E-06,0.004
-5.730E-06,0.000
-5.720E-06,0.000
-5.710E-06,0.004
-5.700E-06,-0.004
-5.690E-06,0.004
-5.680E-06,0.004
-5.670E-06,0.008
-5.660E-06,0.004
-5.650E-06,0.004
-5.640E-06,0.000
-5.630E-06,0.000
-5.620E-06,0.004
-5.610E-06,0.004
-5.600E-06,0.004
-5.590E-06,0.004
-5.580E-06,0.004
-5.570E-06,0.004
-5.560E-06,0.008
-5.550E-06,-0.004
-5.540E-06,0.000
-5.530E-06,0.004
-5.520E-06,0.004
-5.510E-06,0.000
-5.500E-06,0.004
-5.490E-06,0.004
-5.480E-06,0.004
-5.470E-06,0.004
-5.460E-06,0.000
-5.450E-06,0.000
-5.440E-06,0.008
-5.430E-06,0.004
-5.420E-06,0.004
-5.410E-06,0.000
-5.400E-06,-0.004
-5.390E-06,-0.004
-5.380E-06,0.008
-5.370E-06,0.012
-5.360E-06,0.008
-5.350E-06,0.000
-5.340E-06,0.000
-5.330E-06,0.000
-5.320E-06,0.004
-5.310E-06,0.008
-5.300E-06,0.000
-5.290E-06,0.004
-5.280E-06,0.000
-5.270E-06,0.000
-5.260E-06,0.000
-5.250E-06,0.004
-5.240E-06,0.004
-5.230E-06,0.008
-5.220E-06,0.008
-5.210E-06,0.004
-5.200E-06,0.004
-5.190E-06,0.000
-5.180E-06,0.008
-5.170E-06,-0.004
-5.160E-06,0.008
-5.150E-06,0.004
-5.140E-06,0.012
-5.130E-06,0.000
-5.120E-06,0.000
-5.110E-06,0.000
-5.100E-06,0.000
-5.090E-06,0.008
-5.080E-06,0.012
-5.070E-06,0.004
-5.060E-06,-0.004
-5.050E-06,0.000
-5.040E-06,-0.004
-5.030E-06,0.000
-5.020E-06,0.004
-5.010E-06,0.012
-5.000E-06,0.004
-4.990E-06,0.000
-4.980E-06,-0.012
-4.970E-06,-0.012
-4.960E-06,0.004
-4.950E-06,0.008
-4.940E-06,0.012
-4.930E-06,0.012
-4.920E-06,0.004
-4.910E-06,-0.008
-4.900E-06,0.000
-4.890E-06,0.000
-4.880E-06,0.008
-4.870E-06,0.004
-4.860E-06,0.004
-4.850E-06,0.012
-4.840E-06,-0.004
-4.830E-06,0.012
-4.820E-06,-0.004
-4.810E-06,-0.012
-4.800E-06,0.000
-4.790E-06,0.008
-4.780E-06,0.008
-4.770E-06,0.012
-4.760E-06,0.012
-4.750E-06,0.000
-4.740E-06,-0.004
-4.730E-06,-0.004
-4.720E-06,0.004
-4.710E-06,0.008
-4.700E-06,0.012
-4.690E-06,0.008
-4.680E-06,-0.004
-4.670E-06,-0.004
-4.660E-06,0.004
-4.650E-06,-0.004
-4.640E-06,0.012
-4.630E-06,0.012
-4.620E-06,0.004
-4.610E-06,0.000
-4.600E-06,0.000
-4.590E-06,-0.004
-4.580E-06,0.008
-4.570E-06,0.008
-4.560E-06,0.008
-4.550E-06,0.000
-4.540E-06,0.000
-4.530E-06,-0.008
-4.520E-06,0.000
-4.510E-06,0.000
-4.500E-06,0.004
-4.490E-06,0.004
-4.480E-06,0.008
-4.470E-06,0.008
-4.460E-06,-0.004
-4.450E-06,0.004
-4.440E-06,0.000
-4.430E-06,0.000
-4.420E-06,0.004
-4.410E-06,0.008
-4.400E-06,0.004
-4.390E-06,0.004
-4.380E-06,0.000
-4.370E-06,-0.004
-4.360E-06,-0.004
-4.350E-06,0.008
-4.340E-06,0.008
-4.330E-06,0.008
-4.320E-06,0.008
-4.310E-06,-0.008
-4.300E-06,0.004
-4.290E-06,0.000
-4.280E-06,0.008
-4.270E-06,0.008
-4.260E-06,0.008
-4.250E-06,0.004
-4.240E-06,0.000
-4.230E-06,-0.004
-4.220E-06,0.000
-4.210E-06,0.004
-4.200E-06,0.008
-4.190E-06,0.008
-4.180E-06,0.004
-4.170E-06,0.004
-4.160E-06,0.004
-4.150E-06,0.000
-4.140E-06,0.000
-4.130E-06,-0.004
-4.120E-06,0.008
-4.110E-06,0.008
-4.100E-06,0.008
-4.090E-06,-0.004
-4.080E-06,0.004
-4.070E-06,0.000
-4.060E-06,0.004
-4.050E-06,0.004
-4.040E-06,0.008
-4.030E-06,0.008
-4.020E-06,0.004
-4.010E-06,0.000
-4.000E-06,0.004
-3.990E-06,0.008
-3.980E-06,0.004
-3.970E-06,0.008
-3.960E-06,0.004
-3.950E-06,0.000
-3.940E-06,0.004
-3.930E-06,0.000
-3.920E-06,0.004
-3.910E-06,0.008
-3.900E-06,0.008
-3.890E-06,0.004
-3.880E-06,0.004
-3.870E-06,0.004
-3.860E-06,0.004
-3.850E-06,0.012
-3.840E-06,0.008
-3.830E-06,0.012
-3.820E-06,0.012
-3.810E-06,0.000
-3.800E-06,0.000
-3.790E-06,-0.004
-3.780E-06,-0.004
-3.770E-06,0.008
-3.760E-06,0.000
-3.750E-06,0.000
-3.740E-06,0.004
-3.730E-06,0.008
-3.720E-06,0.004
-3.710E-06,0.004
-3.700E-06,0.000
-3.690E-06,0.000
-3.680E-06,0.004
-3.670E-06,-0.004
-3.660E-06,-0.004
-3.650E-06,0.004
-3.640E-06,0.004
-3.630E-06,0.004
-3.620E-06,0.008
-3.610E-06,0.000
-3.600E-06,0.000
-3.590E-06,0.000
-3.580E-06,0.000
-3.570E-06,0.004
-3.560E-06,0.004
-3.550E-06,0.004
-3.540E-06,0.008
-3.530E-06,-0.004
-3.520E-06,0.000
-3.510E-06,0.000
-3.500E-06,0.000
-3.490E-06,0.000
-3.480E-06,0.004
-3.470E-06,0.000
-3.460E-06,0.004
-3.450E-06,0.000
-3.440E-06,0.008
-3.430E-06,0.008
-3.420E-06,0.000
-3.410E-06,0.004
-3.400E-06,0.004
-3.390E-06,0.000
-3.380E-06,0.000
-3.370E-06,0.004
-3.360E-06,0.004
-3.350E-06,0.004
-3.340E-06,0.008
-3.330E-06,0.004
-3.320E-06,0.004
-3.310E-06,0.004
-3.300E-06,0.000
-3.290E-06,0.004
-3.280E-06,0.008
-3.270E-06,-0.004
-3.260E-06,0.000
-3.250E-06,0.008
-3.240E-06,0.012
-3.230E-06,0.012
-3.220E-06,0.012
-3.210E-06,0.008
-3.200E-06,0.008
-3.190E-06,0.000
-3.180E-06,0.004
-3.170E-06,0.004
-3.160E-06,0.008
-3.150E-06,0.008
-3.140E-06,0.008
-3.130E-06,0.012
-3.120E-06,-0.004
-3.110E-06,0.000
-3.100E-06,0.004
-3.090E-06,0.008
-3.080E-06,0.008
-3.070E-06,0.008
-3.060E-06,0.000
-3.050E-06,0.004
-3.040E-06,0.004
-3.030E-06,0.008
-3.020E-06,0.004
-3.010E-06,0.008
-3.000E-06,0.004
-2.990E-06,0.008
-2.980E-06,0.008
-2.970E-06,0.008
-2.960E-06,0.016
-2.950E-06,0.012
-2.940E-06,0.012
-2.930E-06,0.008
-2.920E-06,0.004
-2.910E-06,-0.004
-2.900E-06,0.000
-2.890E-06,0.008
-2.880E-06,0.008
-2.870E-06,0.008
-2.860E-06,0.008
-2.850E-06,0.004
-2.840E-06,0.004
-2.830E-06,0.000
-2.820E-06,0.008
-2.810E-06,0.004
-2.800E-06,-0.004
-2.790E-06,-0.008
-2.780E-06,-0.008
-2.770E-06,-0.004
-2.760E-06,0.008
-2.750E-06,0.012
-2.740E-06,0.012
-2.730E-06,0.008
-2.720E-06,0.004
-2.710E-06,0.000
-2.700E-06,0.004
-2.690E-06,0.008
-2.680E-06,0.012
-2.670E-06,0.004
-2.660E-06,0.008
-2.650E-06,0.008
-2.640E-06,0.012
-2.630E-06,0.008
-2.620E-06,0.008
-2.610E-06,0.008
-2.600E-06,0.016
-2.590E-06,0.024
-2.580E-06,0.024
-2.570E-06,0.020
-2.560E-06,0.024
-2.550E-06,0.024
-2.540E-06,0.024
-2.530E-06,0.028
-2.520E-06,0.028
-2.510E-06,0.020
-2.500E-06,0.028
-2.490E-06,0.028
-2.480E-06,0.032
-2.470E-06,0.016
-2.460E-06,0.024
-2.450E-06,0.012
-2.440E-06,0.008
-2.430E-06,-0.004
-2.420E-06,-0.008
-2.410E-06,-0.040
-2.400E-06,-0.040
-2.390E-06,-0.032
-2.380E-06,-0.024
-2.370E-06,-0.012
-2.360E-06,-0.008
-2.350E-06,0.000
-2.340E-06,0.004
-2.330E-06,0.012
-2.320E-06,0.008
-2.310E-06,0.008
-2.300E-06,-0.004
-2.290E-06,0.000
-2.280E-06,0.000
-2.270E-06,0.008
-2.260E-06,0.028
-2.250E-06,0.020
-2.240E-06,0.028
-2.230E-06,0.024
-2.220E-06,0.016
-2.210E-06,0.008
-2.200E-06,-0.008
-2.190E-06,-0.016
-2.180E-06,-0.016
-2.170E-06,-0.012
-2.160E-06,0.004
-2.150E-06,0.032
-2.140E-06,0.024
-2.130E-06,0.016
-2.120E-06,-0.004
-2.110E-06,-0.016
-2.100E-06,-0.020
-2.090E-06,0.004
-2.080E-06,0.020
-2.070E-06,0.028
-2.060E-06,0.012
-2.050E-06,-0.004
-2.040E-06,-0.008
-2.030E-06,-0.016
-2.020E-06,-0.008
-2.010E-06,0.008
-2.000E-06,0.012
-1.990E-06,0.008
-1.980E-06,0.004
-1.970E-06,0.000
-1.960E-06,0.004
-1.950E-06,0.008
-1.940E-06,0.000
-1.930E-06,0.008
-1.920E-06,0.008
-1.910E-06,0.012
-1.900E-06,0.008
-1.890E-06,0.012
-1.880E-06,0.000
-1.870E-06,0.004
-1.860E-06,0.016
-1.850E-06,0.024
-1.840E-06,0.016
-1.830E-06,0.016
-1.820E-06,0.020
-1.810E-06,0.028
-1.800E-06,0.016
-1.790E-06,0.012
-1.780E-06,0.008
-1.770E-06,-0.004
-1.760E-06,0.000
-1.750E-06,-0.004
-1.740E-06,0.004
-1.730E-06,0.020
-1.720E-06,0.028
-1.710E-06,0.028
-1.700E-06,0.020
-1.690E-06,0.016
-1.680E-06,0.004
-1.670E-06,-0.004
-1.660E-06,0.004
-1.650E-06,0.024
-1.640E-06,0.032
-1.630E-06,0.020
-1.620E-06,0.012
-1.610E-06,0.000
-1.600E-06,-0.004
-1.590E-06,0.000
-1.580E-06,0.012
-1.570E-06,0.020
-1.560E-06,0.028
-1.550E-06,0.028
-1.540E-06,0.016
-1.530E-06,0.020
-1.520E-06,0.016
-1.510E-06,0.020
-1.500E-06,0.016
-1.490E-06,0.020
-1.480E-06,-0.008
-1.470E-06,-0.016
-1.460E-06,-0.024
-1.450E-06,-0.008
-1.440E-06,0.008
-1.430E-06,0.012
-1.420E-06,0.000
-1.410E-06,-0.008
-1.400E-06,-0.036
-1.390E-06,-0.036
-1.380E-06,-0.036
-1.370E-06,-0.016
-1.360E-06,0.000
-1.350E-06,0.000
-1.340E-06,-0.004
-1.330E-06,0.000
-1.320E-06,-0.004
-1.310E-06,0.008
-1.300E-06,0.012
-1.290E-06,-0.004
-1.280E-06,0.000
-1.270E-06,-0.012
-1.260E-06,-0.008
-1.250E-06,0.000
-1.240E-06,0.012
-1.230E-06,0.012
-1.220E-06,0.012
-1.210E-06,0.016
-1.200E-06,0.000
-1.190E-06,0.020
-1.180E-06,0.024
-1.170E-06,0.040
-1.160E-06,0.040
-1.150E-06,0.052
-1.140E-06,0.052
-1.130E-06,0.044
-1.120E-06,0.044
-1.110E-06,0.032
-1.100E-06,0.032
-1.090E-06,0.028
-1.080E-06,0.036
-1.070E-06,0.044
-1.060E-06,0.044
-1.050E-06,0.048
-1.040E-06,0.036
-1.030E-06,0.032
-1.020E-06,0.036
-1.010E-06,0.036
-1.000E-06,0.040
-9.900E-07,0.036
-9.800E-07,0.024
-9.700E-07,0.024
-9.600E-07,0.036
-9.500E-07,0.044
-9.400E-07,0.044
-9.300E-07,0.040
-9.200E-07,0.020
-9.100E-07,0.008
-9.000E-07,0.004
-8.900E-07,-0.004
-8.800E-07,0.004
-8.700E-07,0.012
-8.600E-07,0.016
-8.500E-07,0.028
-8.400E-07,0.028
-8.300E-07,0.040
-8.200E-07,0.056
-8.100E-07,0.068
-8.000E-07,0.068
-7.900E-07,0.056
-7.800E-07,0.056
-7.700E-07,0.044
-7.600E-07,0.036
-7.500E-07,0.048
-7.400E-07,0.056
-7.300E-07,0.060
-7.200E-07,0.044
-7.100E-07,0.032
-7.000E-07,0.004
-6.900E-07,0.004
-6.800E-07,-0.004
-6.700E-07,0.012
-6.600E-07,0.036
-6.500E-07,0.044
-6.400E-07,0.048
-6.300E-07,0.020
-6.200E-07,-0.008
-6.100E-07,-0.024
-6.000E-07,-0.040
-5.900E-07,-0.036
-5.800E-07,-0.032
-5.700E-07,0.000
-5.600E-07,0.004
-5.500E-07,0.012
-5.400E-07,0.008
-5.300E-07,0.004
-5.200E-07,0.000
-5.100E-07,0.004
-5.000E-07,0.004
-4.900E-07,0.004
-4.800E-07,0.008
-4.700E-07,0.004
-4.600E-07,0.004
-4.500E-07,-0.004
-4.400E-07,-0.008
-4.300E-07,-0.008
-4.200E-07,-0.004
-4.100E-07,-0.008
-4.000E-07,-0.004
-3.900E-07,0.012
-3.800E-07,0.012
-3.700E-07,0.016
-3.600E-07,0.016
-3.500E-07,0.032
-3.400E-07,0.056
-3.300E-07,0.088
-3.200E-07,0.092
-3.100E-07,0.084
-3.000E-07,0.064
-2.900E-07,0.048
-2.800E-07,0.036
-2.700E-07,0.052
-2.600E-07,0.068
-2.500E-07,0.092
-2.400E-07,0.108
-2.300E-07,0.104
-2.200E-07,0.104
-2.100E-07,0.100
-2.000E-07,0.100
-1.900E-07,0.096
-1.800E-07,0.096
-1.700E-07,0.088
-1.600E-07,0.092
-1.500E-07,0.076
-1.400E-07,0.080
-1.300E-07,0.080
-1.200E-07,0.076
-1.100E-07,0.080
-1.000E-07,0.068
-9.000E-08,0.052
-8.000E-08,0.028
-7.000E-08,0.016
-6.000E-08,0.024
-5.000E-08,0.028
-4.000E-08,0.044
-3.000E-08,0.096
-2.000E-08,0.144
-1.000E-08,0.180
0.000E+00,0.192
1.000E-08,0.180
2.000E-08,0.152
3.000E-08,0.124
4.000E-08,0.112
5.000E-08,0.120
6.000E-08,0.140
7.000E-08,0.160
8.000E-08,0.168
9.000E-08,0.164
1.000E-07,0.140
1.100E-07,0.136
1.200E-07,0.140
1.300E-07,0.152
1.400E-07,0.160
1.500E-07,0.168
1.600E-07,0.160
1.700E-07,0.156
1.800E-07,0.140
1.900E-07,0.132
2.000E-07,0.136
2.100E-07,0.140
2.200E-07,0.140
2.300E-07,0.156
2.400E-07,0.156
2.500E-07,0.156
2.600E-07,0.156
2.700E-07,0.156
2.800E-07,0.152
2.900E-07,0.144
3.000E-07,0.144
3.100E-07,0.144
3.200E-07,0.148
3.300E-07,0.152
3.400E-07,0.148
3.500E-07,0.136
3.600E-07,0.128
3.700E-07,0.124
3.800E-07,0.124
3.900E-07,0.128
4.000E-07,0.140
4.100E-07,0.144
4.200E-07,0.136
4.300E-07,0.112
4.400E-07,0.088
4.500E-07,0.076
4.600E-07,0.076
4.700E-07,0.092
4.800E-07,0.108
4.900E-07,0.140
5.000E-07,0.156
5.100E-07,0.176
5.200E-07,0.184
5.300E-07,0.180
5.400E-07,0.164
5.500E-07,0.164
5.600E-07,0.164
5.700E-07,0.168
5.800E-07,0.172
5.900E-07,0.172
6.000E-07,0.160
6.100E-07,0.156
6.200E-07,0.144
6.300E-07,0.144
6.400E-07,0.148
6.500E-07,0.148
6.600E-07,0.148
6.700E-07,0.152
6.800E-07,0.156
6.900E-07,0.156
7.000E-07,0.164
7.100E-07,0.180
7.200E-07,0.176
7.300E-07,0.172
7.400E-07,0.168
7.500E-07,0.164
7.600E-07,0.164
7.700E-07,0.168
7.800E-07,0.168
7.900E-07,0.164
8.000E-07,0.160
8.100E-07,0.164
8.200E-07,0.168
8.300E-07,0.160
8.400E-07,0.164
8.500E-07,0.168
8.600E-07,0.164
8.700E-07,0.168
8.800E-07,0.164
8.900E-07,0.164
9.000E-07,0.176
9.100E-07,0.172
9.200E-07,0.176
9.300E-07,0.164
9.400E-07,0.168
9.500E-07,0.160
9.600E-07,0.160
9.700E-07,0.160
9.800E-07,0.156
9.900E-07,0.160
1.000E-06,0.156
1.010E-06,0.160
1.020E-06,0.152
1.030E-06,0.156
1.040E-06,0.156
1.050E-06,0.160
1.060E-06,0.156
1.070E-06,0.152
1.080E-06,0.156
1.090E-06,0.156
1.100E-06,0.152
1.110E-06,0.156
1.120E-06,0.156
1.130E-06,0.156
1.140E-06,0.156
1.150E-06,0.160
1.160E-06,0.156
1.170E-06,0.160
1.180E-06,0.152
1.190E-06,0.152
1.200E-06,0.156
1.210E-06,0.156
1.220E-06,0.160
1.230E-06,0.156
1.240E-06,0.160
1.250E-06,0.160
1.260E-06,0.160
1.270E-06,0.160
1.280E-06,0.152
1.290E-06,0.156
1.300E-06,0.160
1.310E-06,0.156
1.320E-06,0.156
1.330E-06,0.152
1.340E-06,0.152
1.350E-06,0.156
1.360E-06,0.156
1.370E-06,0.160
1.380E-06,0.152
1.390E-06,0.152
1.400E-06,0.156
1.410E-06,0.156
1.420E-06,0.156
1.430E-06,0.148
1.440E-06,0.156
1.450E-06,0.152
1.460E-06,0.152
1.470E-06,0.156
1.480E-06,0.156
1.490E-06,0.156
1.500E-06,0.144
1.510E-06,0.144
1.520E-06,0.144
1.530E-06,0.140
1.540E-06,0.144
1.550E-06,0.144
1.560E-06,0.140
1.570E-06,0.136
1.580E-06,0.136
1.590E-06,0.144
1.600E-06,0.148
1.610E-06,0.148
1.620E-06,0.140
1.630E-06,0.140
1.640E-06,0.144
1.650E-06,0.136
1.660E-06,0.140
1.670E-06,0.136
1.680E-06,0.140
1.690E-06,0.136
1.700E-06,0.140
1.710E-06,0.136
1.720E-06,0.140
1.730E-06,0.140
1.740E-06,0.140
1.750E-06,0.140
1.760E-06,0.140
1.770E-06,0.140
1.780E-06,0.136
1.790E-06,0.136
1.800E-06,0.136
1.810E-06,0.136
1.820E-06,0.136
1.830E-06,0.136
1.840E-06,0.136
1.850E-06,0.136
1.860E-06,0.140
1.870E-06,0.140
1.880E-06,0.140
1.890E-06,0.132
1.900E-06,0.132
1.910E-06,0.132
1.920E-06,0.132
1.930E-06,0.136
1.940E-06,0.136
1.950E-06,0.140
1.960E-06,0.140
1.970E-06,0.140
1.980E-06,0.136
1.990E-06,0.136
2.000E-06,0.136
2.010E-06,0.136
2.020E-06,0.132
2.030E-06,0.132
2.040E-06,0.132
2.050E-06,0.136
2.060E-06,0.136
2.070E-06,0.140
2.080E-06,0.132
2.090E-06,0.132
2.100E-06,0.128
2.110E-06,0.132
2.120E-06,0.132
2.130E-06,0.136
2.140E-06,0.140
2.150E-06,0.132
2.160E-06,0.132
2.170E-06,0.124
2.180E-06,0.120
2.190E-06,0.124
2.200E-06,0.120
2.210E-06,0.124
2.220E-06,0.124
2.230E-06,0.124
2.240E-06,0.124
2.250E-06,0.128
2.260E-06,0.128
2.270E-06,0.128
2.280E-06,0.128
2.290E-06,0.128
2.300E-06,0.128
2.310E-06,0.128
2.320E-06,0.124
2.330E-06,0.120
2.340E-06,0.120
2.350E-06,0.120
2.360E-06,0.124
2.370E-06,0.124
2.380E-06,0.124
2.390E-06,0.124
2.400E-06,0.124
2.410E-06,0.120
2.420E-06,0.120
2.430E-06,0.124
2.440E-06,0.112
2.450E-06,0.124
2.460E-06,0.124
2.470E-06,0.124
2.480E-06,0.124
2.490E-06,0.124
2.500E-06,0.120
2.510E-06,0.124
2.520E-06,0.124
2.530E-06,0.120
2.540E-06,0.120
2.550E-06,0.116
2.560E-06,0.120
2.570E-06,0.120
2.580E-06,0.120
2.590E-06,0.120
2.600E-06,0.116
2.610E-06,0.112
2.620E-06,0.108
2.630E-06,0.112
2.640E-06,0.112
2.650E-06,0.108
2.660E-06,0.112
2.670E-06,0.112
2.680E-06,0.104
2.690E-06,0.108
2.700E-06,0.108
2.710E-06,0.112
2.720E-06,0.108
2.730E-06,0.112
2.740E-06,0.112
2.750E-06,0.108
2.760E-06,0.104
2.770E-06,0.104
2.780E-06,0.108
2.790E-06,0.108
2.800E-06,0.104
2.810E-06,0.104
2.820E-06,0.108
2.830E-06,0.108
2.840E-06,0.104
2.850E-06,0.100
2.860E-06,0.096
2.870E-06,0.100
2.880E-06,0.100
2.890E-06,0.100
2.900E-06,0.100
2.910E-06,0.104
2.920E-06,0.096
2.930E-06,0.100
2.940E-06,0.100
2.950E-06,0.100
2.960E-06,0.096
2.970E-06,0.096
2.980E-06,0.096
2.990E-06,0.100
3.000E-06,0.104
3.010E-06,0.104
3.020E-06,0.096
3.030E-06,0.100
3.040E-06,0.096
3.050E-06,0.096
3.060E-06,0.092
3.070E-06,0.096
3.080E-06,0.092
3.090E-06,0.096
3.100E-06,0.092
3.110E-06,0.092
3.120E-06,0.096
3.130E-06,0.096
3.140E-06,0.088
3.150E-06,0.088
3.160E-06,0.092
3.170E-06,0.088
3.180E-06,0.084
3.190E-06,0.084
3.200E-06,0.092
3.210E-06,0.088
3.220E-06,0.088
3.230E-06,0.088
3.240E-06,0.092
3.250E-06,0.088
3.260E-06,0.084
3.270E-06,0.088
3.280E-06,0.092
3.290E-06,0.092
3.300E-06,0.088
3.310E-06,0.088
3.320E-06,0.084
3.330E-06,0.088
3.340E-06,0.088
3.350E-06,0.084
3.360E-06,0.092
3.370E-06,0.088
3.380E-06,0.088
3.390E-06,0.084
3.400E-06,0.088
3.410E-06,0.088
3.420E-06,0.080
3.430E-06,0.080
3.440E-06,0.084
