mediciones/6-26/21.4/WaveData59240.csv

#timebase=2000000(ps)
,#voltbase=200000(mv/100)
#size=4000
-8.150E-06,0.008
-8.140E-06,0.008
-8.130E-06,0.000
-8.120E-06,0.008
-8.110E-06,0.016
-8.100E-06,0.008
-8.090E-06,0.016
-8.080E-06,0.016
-8.070E-06,0.008
-8.060E-06,0.000
-8.050E-06,0.008
-8.040E-06,0.000
-8.030E-06,0.000
-8.020E-06,0.008
-8.010E-06,0.000
-8.000E-06,0.000
-7.990E-06,0.008
-7.980E-06,-0.008
-7.970E-06,0.000
-7.960E-06,0.008
-7.950E-06,0.008
-7.940E-06,0.008
-7.930E-06,0.000
-7.920E-06,0.000
-7.910E-06,0.000
-7.900E-06,0.016
-7.890E-06,0.008
-7.880E-06,-0.008
-7.870E-06,0.008
-7.860E-06,0.000
-7.850E-06,0.000
-7.840E-06,0.000
-7.830E-06,0.008
-7.820E-06,0.000
-7.810E-06,0.000
-7.800E-06,-0.008
-7.790E-06,-0.008
-7.780E-06,0.008
-7.770E-06,0.008
-7.760E-06,0.000
-7.750E-06,0.008
-7.740E-06,-0.008
-7.730E-06,0.008
-7.720E-06,-0.008
-7.710E-06,0.000
-7.700E-06,0.008
-7.690E-06,0.008
-7.680E-06,0.016
-7.670E-06,0.008
-7.660E-06,-0.008
-7.650E-06,-0.008
-7.640E-06,0.000
-7.630E-06,0.000
-7.620E-06,0.000
-7.610E-06,0.000
-7.600E-06,0.000
-7.590E-06,0.008
-7.580E-06,0.008
-7.570E-06,0.000
-7.560E-06,-0.008
-7.550E-06,0.000
-7.540E-06,0.000
-7.530E-06,0.000
-7.520E-06,0.000
-7.510E-06,0.008
-7.500E-06,0.008
-7.490E-06,0.008
-7.480E-06,0.000
-7.470E-06,0.000
-7.460E-06,0.000
-7.450E-06,0.000
-7.440E-06,0.008
-7.430E-06,0.000
-7.420E-06,0.000
-7.410E-06,0.000
-7.400E-06,-0.008
-7.390E-06,0.008
-7.380E-06,-0.008
-7.370E-06,0.008
-7.360E-06,0.000
-7.350E-06,0.000
-7.340E-06,0.008
-7.330E-06,0.016
-7.320E-06,0.008
-7.310E-06,0.008
-7.300E-06,0.008
-7.290E-06,0.000
-7.280E-06,-0.008
-7.270E-06,0.000
-7.260E-06,0.008
-7.250E-06,0.008
-7.240E-06,0.000
-7.230E-06,0.000
-7.220E-06,0.008
-7.210E-06,0.000
-7.200E-06,0.000
-7.190E-06,0.008
-7.180E-06,0.000
-7.170E-06,0.000
-7.160E-06,0.000
-7.150E-06,0.008
-7.140E-06,-0.008
-7.130E-06,0.000
-7.120E-06,0.008
-7.110E-06,0.000
-7.100E-06,0.016
-7.090E-06,0.008
-7.080E-06,0.016
-7.070E-06,0.000
-7.060E-06,0.000
-7.050E-06,0.000
-7.040E-06,0.008
-7.030E-06,0.008
-7.020E-06,0.008
-7.010E-06,-0.008
-7.000E-06,0.008
-6.990E-06,0.000
-6.980E-06,0.008
-6.970E-06,0.016
-6.960E-06,0.008
-6.950E-06,0.008
-6.940E-06,0.000
-6.930E-06,0.000
-6.920E-06,0.008
-6.910E-06,0.008
-6.900E-06,0.008
-6.890E-06,0.008
-6.880E-06,0.000
-6.870E-06,0.008
-6.860E-06,-0.008
-6.850E-06,0.008
-6.840E-06,0.016
-6.830E-06,0.008
-6.820E-06,0.016
-6.810E-06,-0.008
-6.800E-06,-0.008
-6.790E-06,0.000
-6.780E-06,0.000
-6.770E-06,-0.008
-6.760E-06,0.008
-6.750E-06,0.000
-6.740E-06,0.000
-6.730E-06,0.000
-6.720E-06,0.008
-6.710E-06,0.000
-6.700E-06,0.008
-6.690E-06,0.000
-6.680E-06,0.000
-6.670E-06,0.008
-6.660E-06,0.008
-6.650E-06,0.008
-6.640E-06,0.008
-6.630E-06,0.000
-6.620E-06,0.000
-6.610E-06,0.008
-6.600E-06,0.008
-6.590E-06,0.008
-6.580E-06,0.008
-6.570E-06,0.016
-6.560E-06,0.008
-6.550E-06,-0.008
-6.540E-06,-0.008
-6.530E-06,0.008
-6.520E-06,0.008
-6.510E-06,0.000
-6.500E-06,0.000
-6.490E-06,-0.008
-6.480E-06,0.008
-6.470E-06,0.008
-6.460E-06,0.000
-6.450E-06,0.000
-6.440E-06,0.000
-6.430E-06,0.008
-6.420E-06,0.000
-6.410E-06,0.008
-6.400E-06,0.008
-6.390E-06,0.008
-6.380E-06,-0.008
-6.370E-06,0.008
-6.360E-06,0.008
-6.350E-06,0.000
-6.340E-06,0.008
-6.330E-06,0.000
-6.320E-06,0.008
-6.310E-06,0.000
-6.300E-06,0.000
-6.290E-06,0.008
-6.280E-06,0.000
-6.270E-06,0.000
-6.260E-06,0.000
-6.250E-06,0.000
-6.240E-06,0.000
-6.230E-06,0.016
-6.220E-06,0.016
-6.210E-06,0.016
-6.200E-06,0.008
-6.190E-06,-0.008
-6.180E-06,0.008
-6.170E-06,0.008
-6.160E-06,0.008
-6.150E-06,0.016
-6.140E-06,-0.008
-6.130E-06,-0.008
-6.120E-06,0.008
-6.110E-06,0.000
-6.100E-06,0.008
-6.090E-06,0.000
-6.080E-06,0.000
-6.070E-06,0.008
-6.060E-06,0.008
-6.050E-06,0.000
-6.040E-06,0.000
-6.030E-06,0.008
-6.020E-06,-0.008
-6.010E-06,0.000
-6.000E-06,0.000
-5.990E-06,0.008
-5.980E-06,0.000
-5.970E-06,0.000
-5.960E-06,0.008
-5.950E-06,0.000
-5.940E-06,0.000
-5.930E-06,0.000
-5.920E-06,-0.008
-5.910E-06,0.000
-5.900E-06,0.000
-5.890E-06,0.000
-5.880E-06,0.008
-5.870E-06,-0.008
-5.860E-06,-0.008
-5.850E-06,0.008
-5.840E-06,0.008
-5.830E-06,0.016
-5.820E-06,0.016
-5.810E-06,-0.008
-5.800E-06,0.000
-5.790E-06,0.008
-5.780E-06,0.016
-5.770E-06,0.008
-5.760E-06,0.016
-5.750E-06,0.000
-5.740E-06,0.000
-5.730E-06,0.008
-5.720E-06,0.000
-5.710E-06,-0.008
-5.700E-06,0.000
-5.690E-06,-0.008
-5.680E-06,0.000
-5.670E-06,0.000
-5.660E-06,-0.008
-5.650E-06,0.000
-5.640E-06,0.008
-5.630E-06,0.016
-5.620E-06,0.016
-5.610E-06,0.016
-5.600E-06,0.008
-5.590E-06,-0.008
-5.580E-06,0.000
-5.570E-06,0.008
-5.560E-06,0.008
-5.550E-06,0.008
-5.540E-06,0.000
-5.530E-06,0.008
-5.520E-06,0.008
-5.510E-06,0.000
-5.500E-06,0.000
-5.490E-06,0.000
-5.480E-06,0.000
-5.470E-06,0.008
-5.460E-06,0.008
-5.450E-06,0.000
-5.440E-06,0.008
-5.430E-06,0.000
-5.420E-06,0.000
-5.410E-06,0.008
-5.400E-06,0.000
-5.390E-06,0.000
-5.380E-06,0.008
-5.370E-06,0.000
-5.360E-06,0.008
-5.350E-06,0.000
-5.340E-06,0.008
-5.330E-06,0.008
-5.320E-06,0.000
-5.310E-06,0.008
-5.300E-06,0.008
-5.290E-06,0.008
-5.280E-06,-0.008
-5.270E-06,0.008
-5.260E-06,0.000
-5.250E-06,0.008
-5.240E-06,0.000
-5.230E-06,0.008
-5.220E-06,0.000
-5.210E-06,0.008
-5.200E-06,0.000
-5.190E-06,0.008
-5.180E-06,0.008
-5.170E-06,0.000
-5.160E-06,0.000
-5.150E-06,0.008
-5.140E-06,0.008
-5.130E-06,0.000
-5.120E-06,-0.008
-5.110E-06,0.000
-5.100E-06,0.000
-5.090E-06,0.008
-5.080E-06,0.016
-5.070E-06,0.000
-5.060E-06,0.008
-5.050E-06,0.008
-5.040E-06,0.008
-5.030E-06,0.016
-5.020E-06,0.008
-5.010E-06,0.016
-5.000E-06,-0.008
-4.990E-06,0.000
-4.980E-06,0.008
-4.970E-06,-0.008
-4.960E-06,-0.008
-4.950E-06,0.008
-4.940E-06,-0.008
-4.930E-06,0.008
-4.920E-06,0.000
-4.910E-06,0.000
-4.900E-06,0.008
-4.890E-06,0.016
-4.880E-06,0.000
-4.870E-06,-0.008
-4.860E-06,0.000
-4.850E-06,0.008
-4.840E-06,0.008
-4.830E-06,0.008
-4.820E-06,0.000
-4.810E-06,0.008
-4.800E-06,0.008
-4.790E-06,0.000
-4.780E-06,0.000
-4.770E-06,0.000
-4.760E-06,0.000
-4.750E-06,0.000
-4.740E-06,0.000
-4.730E-06,0.008
-4.720E-06,0.008
-4.710E-06,-0.008
-4.700E-06,0.000
-4.690E-06,0.008
-4.680E-06,0.008
-4.670E-06,0.000
-4.660E-06,0.000
-4.650E-06,0.008
-4.640E-06,0.000
-4.630E-06,0.008
-4.620E-06,0.032
-4.610E-06,0.080
-4.600E-06,0.096
-4.590E-06,0.072
-4.580E-06,0.000
-4.570E-06,-0.240
-4.560E-06,-0.168
-4.550E-06,0.048
-4.540E-06,-0.080
-4.530E-06,0.216
-4.520E-06,0.120
-4.510E-06,0.112
-4.500E-06,0.000
-4.490E-06,-0.112
-4.480E-06,-0.160
-4.470E-06,-0.064
-4.460E-06,0.080
-4.450E-06,0.104
-4.440E-06,0.176
-4.430E-06,0.024
-4.420E-06,-0.040
-4.410E-06,-0.144
-4.400E-06,-0.088
-4.390E-06,-0.056
-4.380E-06,0.040
-4.370E-06,0.112
-4.360E-06,0.088
-4.350E-06,0.064
-4.340E-06,-0.008
-4.330E-06,-0.024
-4.320E-06,-0.080
-4.310E-06,-0.008
-4.300E-06,0.000
-4.290E-06,0.040
-4.280E-06,0.024
-4.270E-06,0.024
-4.260E-06,-0.016
-4.250E-06,-0.040
-4.240E-06,-0.024
-4.230E-06,-0.016
-4.220E-06,0.016
-4.210E-06,0.032
-4.200E-06,0.064
-4.190E-06,0.056
-4.180E-06,0.040
-4.170E-06,0.000
-4.160E-06,-0.016
-4.150E-06,-0.024
-4.140E-06,-0.016
-4.130E-06,0.000
-4.120E-06,0.016
-4.110E-06,0.024
-4.100E-06,0.000
-4.090E-06,0.000
-4.080E-06,-0.008
-4.070E-06,-0.008
-4.060E-06,0.000
-4.050E-06,0.024
-4.040E-06,0.016
-4.030E-06,0.024
-4.020E-06,0.032
-4.010E-06,0.008
-4.000E-06,-0.008
-3.990E-06,-0.016
-3.980E-06,0.000
-3.970E-06,0.000
-3.960E-06,0.016
-3.950E-06,0.016
-3.940E-06,0.016
-3.930E-06,0.000
-3.920E-06,0.000
-3.910E-06,0.000
-3.900E-06,0.000
-3.890E-06,0.008
-3.880E-06,0.008
-3.870E-06,0.008
-3.860E-06,0.008
-3.850E-06,-0.008
-3.840E-06,-0.008
-3.830E-06,0.000
-3.820E-06,0.000
-3.810E-06,0.000
-3.800E-06,0.000
-3.790E-06,0.000
-3.780E-06,0.016
-3.770E-06,0.016
-3.760E-06,0.016
-3.750E-06,0.008
-3.740E-06,0.000
-3.730E-06,0.000
-3.720E-06,0.008
-3.710E-06,0.016
-3.700E-06,0.008
-3.690E-06,0.016
-3.680E-06,0.016
-3.670E-06,0.008
-3.660E-06,0.000
-3.650E-06,-0.008
-3.640E-06,0.000
-3.630E-06,0.008
-3.620E-06,0.008
-3.610E-06,0.000
-3.600E-06,0.000
-3.590E-06,0.000
-3.580E-06,-0.008
-3.570E-06,0.000
-3.560E-06,-0.008
-3.550E-06,0.008
-3.540E-06,0.000
-3.530E-06,0.000
-3.520E-06,0.008
-3.510E-06,0.016
-3.500E-06,0.008
-3.490E-06,0.008
-3.480E-06,0.008
-3.470E-06,0.008
-3.460E-06,-0.008
-3.450E-06,0.008
-3.440E-06,0.008
-3.430E-06,0.008
-3.420E-06,-0.008
-3.410E-06,0.008
-3.400E-06,0.000
-3.390E-06,0.000
-3.380E-06,-0.008
-3.370E-06,0.008
-3.360E-06,0.008
-3.350E-06,0.000
-3.340E-06,0.008
-3.330E-06,0.008
-3.320E-06,0.000
-3.310E-06,0.008
-3.300E-06,0.000
-3.290E-06,0.008
-3.280E-06,0.008
-3.270E-06,0.008
-3.260E-06,0.016
-3.250E-06,0.016
-3.240E-06,0.008
-3.230E-06,0.016
-3.220E-06,0.008
-3.210E-06,0.000
-3.200E-06,0.000
-3.190E-06,0.000
-3.180E-06,0.008
-3.170E-06,0.000
-3.160E-06,-0.008
-3.150E-06,0.008
-3.140E-06,-0.008
-3.130E-06,0.000
-3.120E-06,0.000
-3.110E-06,0.008
-3.100E-06,0.008
-3.090E-06,0.008
-3.080E-06,-0.008
-3.070E-06,0.000
-3.060E-06,0.008
-3.050E-06,0.008
-3.040E-06,0.000
-3.030E-06,0.000
-3.020E-06,0.000
-3.010E-06,0.008
-3.000E-06,0.016
-2.990E-06,-0.008
-2.980E-06,0.008
-2.970E-06,0.000
-2.960E-06,0.000
-2.950E-06,0.008
-2.940E-06,0.008
-2.930E-06,0.008
-2.920E-06,0.008
-2.910E-06,-0.008
-2.900E-06,0.000
-2.890E-06,0.000
-2.880E-06,-0.008
-2.870E-06,0.008
-2.860E-06,0.008
-2.850E-06,0.000
-2.840E-06,0.008
-2.830E-06,0.008
-2.820E-06,0.008
-2.810E-06,-0.008
-2.800E-06,0.008
-2.790E-06,0.000
-2.780E-06,0.008
-2.770E-06,0.000
-2.760E-06,0.008
-2.750E-06,-0.008
-2.740E-06,0.000
-2.730E-06,0.008
-2.720E-06,0.016
-2.710E-06,0.008
-2.700E-06,-0.008
-2.690E-06,0.000
-2.680E-06,0.000
-2.670E-06,0.008
-2.660E-06,0.016
-2.650E-06,0.008
-2.640E-06,0.000
-2.630E-06,0.000
-2.620E-06,0.008
-2.610E-06,0.000
-2.600E-06,0.000
-2.590E-06,0.000
-2.580E-06,-0.008
-2.570E-06,-0.008
-2.560E-06,0.016
-2.550E-06,0.000
-2.540E-06,0.000
-2.530E-06,0.008
-2.520E-06,-0.008
-2.510E-06,0.000
-2.500E-06,0.000
-2.490E-06,0.008
-2.480E-06,0.008
-2.470E-06,0.000
-2.460E-06,-0.008
-2.450E-06,0.008
-2.440E-06,0.000
-2.430E-06,0.000
-2.420E-06,0.000
-2.410E-06,0.008
-2.400E-06,0.016
-2.390E-06,0.016
-2.380E-06,-0.008
-2.370E-06,0.008
-2.360E-06,0.000
-2.350E-06,0.000
-2.340E-06,0.016
-2.330E-06,0.000
-2.320E-06,0.008
-2.310E-06,0.008
-2.300E-06,0.000
-2.290E-06,0.000
-2.280E-06,-0.016
-2.270E-06,-0.016
-2.260E-06,0.000
-2.250E-06,0.000
-2.240E-06,0.016
-2.230E-06,0.024
-2.220E-06,0.024
-2.210E-06,0.016
-2.200E-06,-0.008
-2.190E-06,-0.016
-2.180E-06,-0.024
-2.170E-06,-0.008
-2.160E-06,0.008
-2.150E-06,0.024
-2.140E-06,0.016
-2.130E-06,0.024
-2.120E-06,0.000
-2.110E-06,-0.016
-2.100E-06,-0.016
-2.090E-06,-0.016
-2.080E-06,0.000
-2.070E-06,0.008
-2.060E-06,0.024
-2.050E-06,0.008
-2.040E-06,0.008
-2.030E-06,-0.008
-2.020E-06,-0.008
-2.010E-06,-0.008
-2.000E-06,0.008
-1.990E-06,0.024
-1.980E-06,0.032
-1.970E-06,0.008
-1.960E-06,0.000
-1.950E-06,0.000
-1.940E-06,-0.008
-1.930E-06,0.000
-1.920E-06,0.000
-1.910E-06,0.016
-1.900E-06,0.024
-1.890E-06,0.024
-1.880E-06,0.016
-1.870E-06,0.008
-1.860E-06,-0.016
-1.850E-06,-0.008
-1.840E-06,0.008
-1.830E-06,0.016
-1.820E-06,0.016
-1.810E-06,0.016
-1.800E-06,0.016
-1.790E-06,0.016
-1.780E-06,0.008
-1.770E-06,0.008
-1.760E-06,0.008
-1.750E-06,0.008
-1.740E-06,0.008
-1.730E-06,0.016
-1.720E-06,0.016
-1.710E-06,0.016
-1.700E-06,0.000
-1.690E-06,0.008
-1.680E-06,0.016
-1.670E-06,0.008
-1.660E-06,0.008
-1.650E-06,0.008
-1.640E-06,0.016
-1.630E-06,0.016
-1.620E-06,0.016
-1.610E-06,0.016
-1.600E-06,0.024
-1.590E-06,0.008
-1.580E-06,0.000
-1.570E-06,0.016
-1.560E-06,0.000
-1.550E-06,0.016
-1.540E-06,0.008
-1.530E-06,0.024
-1.520E-06,0.024
-1.510E-06,0.024
-1.500E-06,0.024
-1.490E-06,0.008
-1.480E-06,0.016
-1.470E-06,0.008
-1.460E-06,0.016
-1.450E-06,0.016
-1.440E-06,0.032
-1.430E-06,0.056
-1.420E-06,0.048
-1.410E-06,0.040
-1.400E-06,0.008
-1.390E-06,0.016
-1.380E-06,0.024
-1.370E-06,0.024
-1.360E-06,0.040
-1.350E-06,0.032
-1.340E-06,0.040
-1.330E-06,0.040
-1.320E-06,0.016
-1.310E-06,0.040
-1.300E-06,0.016
-1.290E-06,0.064
-1.280E-06,0.048
-1.270E-06,0.104
-1.260E-06,0.040
-1.250E-06,0.000
-1.240E-06,-0.016
-1.230E-06,-0.072
-1.220E-06,-0.016
-1.210E-06,0.040
-1.200E-06,0.096
-1.190E-06,0.104
-1.180E-06,0.096
-1.170E-06,0.048
-1.160E-06,0.000
-1.150E-06,-0.016
-1.140E-06,0.008
-1.130E-06,0.064
-1.120E-06,0.096
-1.110E-06,0.112
-1.100E-06,0.104
-1.090E-06,0.088
-1.080E-06,0.064
-1.070E-06,0.048
-1.060E-06,0.048
-1.050E-06,0.112
-1.040E-06,0.160
-1.030E-06,0.144
-1.020E-06,0.000
-1.010E-06,-0.088
-1.000E-06,-0.256
-9.900E-07,-0.280
-9.800E-07,-0.272
-9.700E-07,-0.048
-9.600E-07,0.120
-9.500E-07,0.120
-9.400E-07,0.096
-9.300E-07,0.096
-9.200E-07,0.000
-9.100E-07,-0.072
-9.000E-07,-0.048
-8.900E-07,-0.040
-8.800E-07,0.088
-8.700E-07,0.120
-8.600E-07,0.112
-8.500E-07,0.120
-8.400E-07,0.024
-8.300E-07,0.024
-8.200E-07,0.096
-8.100E-07,0.128
-8.000E-07,0.176
-7.900E-07,0.176
-7.800E-07,0.104
-7.700E-07,0.104
-7.600E-07,0.016
-7.500E-07,0.136
-7.400E-07,0.096
-7.300E-07,0.120
-7.200E-07,0.216
-7.100E-07,0.184
-7.000E-07,0.104
-6.900E-07,-0.064
-6.800E-07,-0.008
-6.700E-07,-0.008
-6.600E-07,0.096
-6.500E-07,0.120
-6.400E-07,0.208
-6.300E-07,0.152
-6.200E-07,0.016
-6.100E-07,-0.304
-6.000E-07,-0.480
-5.900E-07,-0.368
-5.800E-07,-0.128
-5.700E-07,0.064
-5.600E-07,0.208
-5.500E-07,0.352
-5.400E-07,0.232
-5.300E-07,0.064
-5.200E-07,-0.080
-5.100E-07,-0.080
-5.000E-07,-0.024
-4.900E-07,0.160
-4.800E-07,0.336
-4.700E-07,0.320
-4.600E-07,0.312
-4.500E-07,0.152
-4.400E-07,0.048
-4.300E-07,-0.008
-4.200E-07,0.080
-4.100E-07,0.184
-4.000E-07,0.288
-3.900E-07,0.360
-3.800E-07,0.320
-3.700E-07,0.272
-3.600E-07,0.160
-3.500E-07,0.104
-3.400E-07,0.112
-3.300E-07,0.176
-3.200E-07,0.240
-3.100E-07,0.320
-3.000E-07,0.312
-2.900E-07,0.272
-2.800E-07,0.208
-2.700E-07,0.152
-2.600E-07,0.160
-2.500E-07,0.216
-2.400E-07,0.264
-2.300E-07,0.296
-2.200E-07,0.352
-2.100E-07,0.312
-2.000E-07,0.264
-1.900E-07,0.192
-1.800E-07,0.168
-1.700E-07,0.200
-1.600E-07,0.248
-1.500E-07,0.296
-1.400E-07,0.312
-1.300E-07,0.296
-1.200E-07,0.216
-1.100E-07,0.152
-1.000E-07,0.136
-9.000E-08,0.136
-8.000E-08,0.208
-7.000E-08,0.328
-6.000E-08,0.072
-5.000E-08,-0.144
-4.000E-08,-0.384
-3.000E-08,-0.192
-2.000E-08,-0.192
-1.000E-08,0.344
0.000E+00,0.600
1.000E-08,0.248
2.000E-08,0.256
3.000E-08,0.192
4.000E-08,0.040
5.000E-08,-0.328
6.000E-08,-0.176
7.000E-08,0.080
8.000E-08,0.248
9.000E-08,0.384
1.000E-07,0.328
1.100E-07,0.216
1.200E-07,0.216
1.300E-07,0.144
1.400E-07,0.088
1.500E-07,0.120
1.600E-07,0.136
1.700E-07,0.168
1.800E-07,0.256
1.900E-07,0.280
2.000E-07,0.264
2.100E-07,0.256
2.200E-07,0.288
2.300E-07,0.288
2.400E-07,0.264
2.500E-07,0.224
2.600E-07,0.168
2.700E-07,0.256
2.800E-07,0.304
2.900E-07,0.312
3.000E-07,0.312
3.100E-07,0.296
3.200E-07,0.288
3.300E-07,0.256
3.400E-07,0.248
3.500E-07,0.256
3.600E-07,0.264
3.700E-07,0.288
3.800E-07,0.264
3.900E-07,0.240
4.000E-07,0.208
4.100E-07,0.208
4.200E-07,0.200
4.300E-07,0.280
4.400E-07,0.360
4.500E-07,0.336
4.600E-07,0.288
4.700E-07,0.208
4.800E-07,0.128
4.900E-07,0.064
5.000E-07,0.104
5.100E-07,0.200
5.200E-07,0.320
5.300E-07,0.416
5.400E-07,0.432
5.500E-07,0.344
5.600E-07,0.240
5.700E-07,0.128
5.800E-07,0.096
5.900E-07,0.160
6.000E-07,0.248
6.100E-07,0.352
6.200E-07,0.400
6.300E-07,0.368
6.400E-07,0.272
6.500E-07,0.176
6.600E-07,0.144
6.700E-07,0.160
6.800E-07,0.248
6.900E-07,0.312
7.000E-07,0.368
7.100E-07,0.344
7.200E-07,0.280
7.300E-07,0.224
7.400E-07,0.192
7.500E-07,0.192
7.600E-07,0.248
7.700E-07,0.288
7.800E-07,0.336
7.900E-07,0.344
8.000E-07,0.304
8.100E-07,0.256
8.200E-07,0.216
8.300E-07,0.216
8.400E-07,0.240
8.500E-07,0.272
8.600E-07,0.296
8.700E-07,0.312
8.800E-07,0.288
8.900E-07,0.256
9.000E-07,0.232
9.100E-07,0.240
9.200E-07,0.256
9.300E-07,0.280
9.400E-07,0.304
9.500E-07,0.304
9.600E-07,0.288
9.700E-07,0.248
9.800E-07,0.224
9.900E-07,0.208
1.000E-06,0.224
1.010E-06,0.264
1.020E-06,0.272
1.030E-06,0.288
1.040E-06,0.288
1.050E-06,0.264
1.060E-06,0.256
1.070E-06,0.216
1.080E-06,0.224
1.090E-06,0.240
1.100E-06,0.264
1.110E-06,0.264
1.120E-06,0.264
1.130E-06,0.256
1.140E-06,0.256
1.150E-06,0.248
1.160E-06,0.232
1.170E-06,0.240
1.180E-06,0.256
1.190E-06,0.264
1.200E-06,0.272
1.210E-06,0.280
1.220E-06,0.264
1.230E-06,0.256
1.240E-06,0.248
1.250E-06,0.240
1.260E-06,0.256
1.270E-06,0.256
1.280E-06,0.264
1.290E-06,0.256
1.300E-06,0.256
1.310E-06,0.248
1.320E-06,0.240
1.330E-06,0.232
1.340E-06,0.240
1.350E-06,0.248
1.360E-06,0.248
1.370E-06,0.256
1.380E-06,0.256
1.390E-06,0.248
1.400E-06,0.232
1.410E-06,0.216
1.420E-06,0.232
1.430E-06,0.232
1.440E-06,0.248
1.450E-06,0.248
1.460E-06,0.248
1.470E-06,0.240
1.480E-06,0.224
1.490E-06,0.224
1.500E-06,0.216
1.510E-06,0.224
1.520E-06,0.240
1.530E-06,0.240
1.540E-06,0.248
1.550E-06,0.248
1.560E-06,0.240
1.570E-06,0.224
1.580E-06,0.216
1.590E-06,0.216
1.600E-06,0.232
1.610E-06,0.240
1.620E-06,0.248
1.630E-06,0.240
1.640E-06,0.216
1.650E-06,0.208
1.660E-06,0.200
1.670E-06,0.216
1.680E-06,0.232
1.690E-06,0.248
1.700E-06,0.248
1.710E-06,0.256
1.720E-06,0.216
1.730E-06,0.224
1.740E-06,0.216
1.750E-06,0.216
1.760E-06,0.216
1.770E-06,0.240
1.780E-06,0.240
1.790E-06,0.240
1.800E-06,0.224
1.810E-06,0.200
1.820E-06,0.192
1.830E-06,0.208
1.840E-06,0.208
1.850E-06,0.208
1.860E-06,0.224
1.870E-06,0.224
1.880E-06,0.240
1.890E-06,0.224
1.900E-06,0.208
1.910E-06,0.208
1.920E-06,0.200
1.930E-06,0.208
1.940E-06,0.216
1.950E-06,0.208
1.960E-06,0.208
1.970E-06,0.208
1.980E-06,0.216
1.990E-06,0.200
2.000E-06,0.208
2.010E-06,0.200
2.020E-06,0.208
2.030E-06,0.216
2.040E-06,0.216
2.050E-06,0.216
2.060E-06,0.200
2.070E-06,0.192
2.080E-06,0.192
2.090E-06,0.192
2.100E-06,0.192
2.110E-06,0.216
2.120E-06,0.224
2.130E-06,0.216
2.140E-06,0.200
2.150E-06,0.184
2.160E-06,0.176
2.170E-06,0.176
2.180E-06,0.192
2.190E-06,0.192
2.200E-06,0.216
2.210E-06,0.208
2.220E-06,0.200
2.230E-06,0.192
2.240E-06,0.184
2.250E-06,0.184
2.260E-06,0.184
2.270E-06,0.192
2.280E-06,0.184
2.290E-06,0.192
2.300E-06,0.200
2.310E-06,0.208
2.320E-06,0.200
2.330E-06,0.192
2.340E-06,0.184
2.350E-06,0.184
2.360E-06,0.176
2.370E-06,0.176
2.380E-06,0.184
2.390E-06,0.184
2.400E-06,0.200
2.410E-06,0.192
2.420E-06,0.192
2.430E-06,0.176
2.440E-06,0.168
2.450E-06,0.176
2.460E-06,0.184
2.470E-06,0.184
2.480E-06,0.192
2.490E-06,0.192
2.500E-06,0.200
2.510E-06,0.192
2.520E-06,0.184
2.530E-06,0.160
2.540E-06,0.176
2.550E-06,0.176
2.560E-06,0.184
2.570E-06,0.192
2.580E-06,0.192
2.590E-06,0.176
2.600E-06,0.184
2.610E-06,0.176
2.620E-06,0.160
2.630E-06,0.176
2.640E-06,0.176
2.650E-06,0.192
2.660E-06,0.184
2.670E-06,0.184
2.680E-06,0.176
2.690E-06,0.160
2.700E-06,0.160
2.710E-06,0.160
2.720E-06,0.168
2.730E-06,0.176
2.740E-06,0.176
2.750E-06,0.176
2.760E-06,0.152
2.770E-06,0.160
2.780E-06,0.152
2.790E-06,0.152
2.800E-06,0.168
2.810E-06,0.176
2.820E-06,0.184
2.830E-06,0.168
2.840E-06,0.152
2.850E-06,0.152
2.860E-06,0.144
2.870E-06,0.144
2.880E-06,0.152
2.890E-06,0.152
2.900E-06,0.160
2.910E-06,0.160
2.920E-06,0.152
2.930E-06,0.160
2.940E-06,0.144
2.950E-06,0.144
2.960E-06,0.144
2.970E-06,0.160
2.980E-06,0.160
2.990E-06,0.152
3.000E-06,0.160
3.010E-06,0.144
3.020E-06,0.144
3.030E-06,0.160
3.040E-06,0.160
3.050E-06,0.160
3.060E-06,0.152
3.070E-06,0.152
3.080E-06,0.144
3.090E-06,0.128
3.100E-06,0.136
3.110E-06,0.120
3.120E-06,0.136
3.130E-06,0.144
3.140E-06,0.144
3.150E-06,0.152
3.160E-06,0.160
3.170E-06,0.152
3.180E-06,0.144
3.190E-06,0.136
3.200E-06,0.128
3.210E-06,0.128
3.220E-06,0.128
3.230E-06,0.144
3.240E-06,0.152
3.250E-06,0.144
3.260E-06,0.136
3.270E-06,0.136
3.280E-06,0.128
3.290E-06,0.128
3.300E-06,0.128
3.310E-06,0.128
3.320E-06,0.136
3.330E-06,0.144
3.340E-06,0.136
3.350E-06,0.136
3.360E-06,0.136
3.370E-06,0.136
3.380E-06,0.120
3.390E-06,0.136
3.400E-06,0.128
3.410E-06,0.128
3.420E-06,0.136
3.430E-06,0.128
3.440E-06,0.128
3.450E-06,0.128
3.460E-06,0.120
3.470E-06,0.136
3.480E-06,0.128
3.490E-06,0.128
3.500E-06,0.120
3.510E-06,0.128
3.520E-06,0.120
3.530E-06,0.112
3.540E-06,0.128
3.550E-06,0.128
3.560E-06,0.128
3.570E-06,0.128
3.580E-06,0.128
3.590E-06,0.120
3.600E-06,0.112
3.610E-06,0.112
3.620E-06,0.112
3.630E-06,0.128
3.640E-06,0.128
3.650E-06,0.120
3.660E-06,0.120
3.670E-06,0.120
3.680E-06,0.120
3.690E-06,0.128
3.700E-06,0.120
3.710E-06,0.112
