mediciones/Mediciones filtradas (saque las feas)/5-15/47.5/WaveData47144.csv

#timebase=2000000(ps)
,#voltbase=2000000(mv/100)
#size=4000
-8.400E-06,0.000
-8.390E-06,0.080
-8.380E-06,0.080
-8.370E-06,0.080
-8.360E-06,0.080
-8.350E-06,0.320
-8.340E-06,0.160
-8.330E-06,0.320
-8.320E-06,0.320
-8.310E-06,0.160
-8.300E-06,0.080
-8.290E-06,0.000
-8.280E-06,0.000
-8.270E-06,0.080
-8.260E-06,0.000
-8.250E-06,0.080
-8.240E-06,0.000
-8.230E-06,0.000
-8.220E-06,0.000
-8.210E-06,0.000
-8.200E-06,0.000
-8.190E-06,0.000
-8.180E-06,0.000
-8.170E-06,0.000
-8.160E-06,-0.080
-8.150E-06,-0.080
-8.140E-06,0.000
-8.130E-06,0.000
-8.120E-06,0.080
-8.110E-06,0.080
-8.100E-06,0.160
-8.090E-06,0.240
-8.080E-06,0.160
-8.070E-06,0.240
-8.060E-06,0.080
-8.050E-06,0.080
-8.040E-06,0.160
-8.030E-06,0.240
-8.020E-06,0.240
-8.010E-06,0.160
-8.000E-06,0.240
-7.990E-06,0.160
-7.980E-06,0.080
-7.970E-06,0.160
-7.960E-06,0.240
-7.950E-06,0.160
-7.940E-06,0.080
-7.930E-06,0.080
-7.920E-06,0.160
-7.910E-06,0.000
-7.900E-06,-0.080
-7.890E-06,0.000
-7.880E-06,0.000
-7.870E-06,0.000
-7.860E-06,0.000
-7.850E-06,0.080
-7.840E-06,0.080
-7.830E-06,0.080
-7.820E-06,-0.080
-7.810E-06,0.000
-7.800E-06,0.000
-7.790E-06,0.000
-7.780E-06,-0.080
-7.770E-06,0.000
-7.760E-06,0.000
-7.750E-06,0.000
-7.740E-06,0.240
-7.730E-06,0.160
-7.720E-06,0.240
-7.710E-06,0.240
-7.700E-06,0.160
-7.690E-06,0.160
-7.680E-06,-0.080
-7.670E-06,0.080
-7.660E-06,0.080
-7.650E-06,0.080
-7.640E-06,0.000
-7.630E-06,0.000
-7.620E-06,0.000
-7.610E-06,0.160
-7.600E-06,-0.080
-7.590E-06,0.080
-7.580E-06,0.080
-7.570E-06,0.080
-7.560E-06,0.080
-7.550E-06,0.000
-7.540E-06,0.000
-7.530E-06,0.080
-7.520E-06,0.160
-7.510E-06,0.160
-7.500E-06,0.000
-7.490E-06,0.080
-7.480E-06,0.080
-7.470E-06,0.080
-7.460E-06,0.160
-7.450E-06,0.160
-7.440E-06,0.240
-7.430E-06,0.160
-7.420E-06,0.080
-7.410E-06,0.080
-7.400E-06,0.160
-7.390E-06,0.160
-7.380E-06,0.240
-7.370E-06,0.080
-7.360E-06,0.080
-7.350E-06,0.160
-7.340E-06,0.000
-7.330E-06,0.000
-7.320E-06,0.080
-7.310E-06,0.160
-7.300E-06,0.080
-7.290E-06,0.080
-7.280E-06,-0.080
-7.270E-06,-0.080
-7.260E-06,0.000
-7.250E-06,-0.080
-7.240E-06,0.000
-7.230E-06,-0.080
-7.220E-06,0.000
-7.210E-06,0.000
-7.200E-06,0.000
-7.190E-06,0.000
-7.180E-06,-0.080
-7.170E-06,0.000
-7.160E-06,-0.080
-7.150E-06,0.000
-7.140E-06,0.000
-7.130E-06,0.000
-7.120E-06,0.000
-7.110E-06,0.000
-7.100E-06,0.000
-7.090E-06,0.000
-7.080E-06,0.000
-7.070E-06,0.000
-7.060E-06,0.080
-7.050E-06,0.000
-7.040E-06,0.000
-7.030E-06,0.000
-7.020E-06,0.000
-7.010E-06,0.080
-7.000E-06,0.000
-6.990E-06,0.000
-6.980E-06,-0.080
-6.970E-06,-0.080
-6.960E-06,0.080
-6.950E-06,0.080
-6.940E-06,0.080
-6.930E-06,0.080
-6.920E-06,0.080
-6.910E-06,-0.080
-6.900E-06,-0.080
-6.890E-06,0.000
-6.880E-06,0.160
-6.870E-06,0.160
-6.860E-06,0.080
-6.850E-06,0.080
-6.840E-06,0.240
-6.830E-06,0.160
-6.820E-06,0.080
-6.810E-06,0.080
-6.800E-06,0.000
-6.790E-06,0.000
-6.780E-06,-0.080
-6.770E-06,0.000
-6.760E-06,-0.080
-6.750E-06,0.000
-6.740E-06,0.000
-6.730E-06,0.000
-6.720E-06,0.080
-6.710E-06,0.160
-6.700E-06,0.160
-6.690E-06,0.080
-6.680E-06,0.160
-6.670E-06,0.160
-6.660E-06,0.080
-6.650E-06,0.160
-6.640E-06,0.160
-6.630E-06,0.000
-6.620E-06,0.080
-6.610E-06,0.240
-6.600E-06,0.080
-6.590E-06,0.240
-6.580E-06,0.160
-6.570E-06,0.160
-6.560E-06,0.000
-6.550E-06,0.080
-6.540E-06,0.080
-6.530E-06,0.000
-6.520E-06,0.080
-6.510E-06,0.000
-6.500E-06,0.080
-6.490E-06,0.080
-6.480E-06,0.000
-6.470E-06,0.080
-6.460E-06,0.160
-6.450E-06,0.160
-6.440E-06,0.080
-6.430E-06,-0.080
-6.420E-06,-0.080
-6.410E-06,0.000
-6.400E-06,-0.080
-6.390E-06,-0.080
-6.380E-06,0.000
-6.370E-06,0.000
-6.360E-06,0.000
-6.350E-06,0.080
-6.340E-06,0.000
-6.330E-06,0.000
-6.320E-06,0.000
-6.310E-06,-0.080
-6.300E-06,-0.080
-6.290E-06,0.000
-6.280E-06,0.000
-6.270E-06,0.000
-6.260E-06,0.000
-6.250E-06,0.000
-6.240E-06,0.000
-6.230E-06,0.000
-6.220E-06,0.080
-6.210E-06,0.160
-6.200E-06,0.160
-6.190E-06,0.160
-6.180E-06,0.160
-6.170E-06,0.080
-6.160E-06,0.000
-6.150E-06,0.080
-6.140E-06,0.080
-6.130E-06,0.080
-6.120E-06,0.080
-6.110E-06,0.000
-6.100E-06,0.080
-6.090E-06,0.080
-6.080E-06,0.160
-6.070E-06,0.000
-6.060E-06,0.080
-6.050E-06,0.160
-6.040E-06,0.160
-6.030E-06,0.160
-6.020E-06,0.240
-6.010E-06,0.000
-6.000E-06,-0.080
-5.990E-06,0.000
-5.980E-06,0.000
-5.970E-06,0.080
-5.960E-06,0.000
-5.950E-06,0.000
-5.940E-06,0.000
-5.930E-06,-0.080
-5.920E-06,0.080
-5.910E-06,0.080
-5.900E-06,0.080
-5.890E-06,0.000
-5.880E-06,0.000
-5.870E-06,-0.080
-5.860E-06,0.080
-5.850E-06,0.160
-5.840E-06,0.160
-5.830E-06,0.240
-5.820E-06,0.160
-5.810E-06,0.000
-5.800E-06,0.080
-5.790E-06,0.080
-5.780E-06,0.080
-5.770E-06,0.160
-5.760E-06,0.000
-5.750E-06,0.000
-5.740E-06,0.080
-5.730E-06,0.080
-5.720E-06,0.080
-5.710E-06,0.080
-5.700E-06,0.000
-5.690E-06,0.160
-5.680E-06,0.160
-5.670E-06,0.080
-5.660E-06,0.080
-5.650E-06,0.160
-5.640E-06,0.000
-5.630E-06,0.080
-5.620E-06,0.080
-5.610E-06,0.080
-5.600E-06,0.080
-5.590E-06,0.000
-5.580E-06,0.080
-5.570E-06,0.000
-5.560E-06,0.080
-5.550E-06,0.080
-5.540E-06,-0.080
-5.530E-06,0.000
-5.520E-06,0.080
-5.510E-06,0.000
-5.500E-06,0.000
-5.490E-06,-0.080
-5.480E-06,-0.080
-5.470E-06,0.000
-5.460E-06,0.160
-5.450E-06,0.080
-5.440E-06,0.080
-5.430E-06,-0.080
-5.420E-06,-0.080
-5.410E-06,0.000
-5.400E-06,0.080
-5.390E-06,0.160
-5.380E-06,0.080
-5.370E-06,-0.080
-5.360E-06,0.080
-5.350E-06,0.000
-5.340E-06,0.080
-5.330E-06,0.000
-5.320E-06,0.080
-5.310E-06,0.000
-5.300E-06,0.000
-5.290E-06,0.080
-5.280E-06,0.000
-5.270E-06,0.000
-5.260E-06,0.080
-5.250E-06,0.160
-5.240E-06,0.160
-5.230E-06,0.160
-5.220E-06,0.160
-5.210E-06,0.000
-5.200E-06,0.000
-5.190E-06,0.080
-5.180E-06,0.080
-5.170E-06,0.080
-5.160E-06,0.080
-5.150E-06,0.080
-5.140E-06,0.080
-5.130E-06,0.000
-5.120E-06,-0.080
-5.110E-06,0.080
-5.100E-06,0.000
-5.090E-06,0.000
-5.080E-06,0.000
-5.070E-06,0.000
-5.060E-06,0.000
-5.050E-06,0.000
-5.040E-06,0.000
-5.030E-06,0.080
-5.020E-06,0.000
-5.010E-06,0.000
-5.000E-06,0.000
-4.990E-06,0.000
-4.980E-06,0.000
-4.970E-06,0.080
-4.960E-06,0.080
-4.950E-06,0.080
-4.940E-06,0.240
-4.930E-06,0.160
-4.920E-06,0.240
-4.910E-06,0.160
-4.900E-06,0.000
-4.890E-06,0.080
-4.880E-06,0.080
-4.870E-06,0.000
-4.860E-06,0.000
-4.850E-06,0.000
-4.840E-06,0.000
-4.830E-06,0.000
-4.820E-06,0.000
-4.810E-06,0.000
-4.800E-06,0.160
-4.790E-06,0.000
-4.780E-06,0.000
-4.770E-06,0.080
-4.760E-06,0.160
-4.750E-06,0.080
-4.740E-06,0.000
-4.730E-06,0.080
-4.720E-06,0.000
-4.710E-06,0.080
-4.700E-06,0.160
-4.690E-06,0.000
-4.680E-06,0.080
-4.670E-06,0.000
-4.660E-06,0.000
-4.650E-06,0.080
-4.640E-06,0.080
-4.630E-06,0.080
-4.620E-06,-0.080
-4.610E-06,-0.080
-4.600E-06,0.000
-4.590E-06,-0.080
-4.580E-06,-0.080
-4.570E-06,0.080
-4.560E-06,-0.080
-4.550E-06,0.080
-4.540E-06,0.080
-4.530E-06,0.160
-4.520E-06,0.240
-4.510E-06,0.160
-4.500E-06,0.000
-4.490E-06,0.000
-4.480E-06,0.080
-4.470E-06,0.080
-4.460E-06,0.080
-4.450E-06,0.080
-4.440E-06,0.000
-4.430E-06,0.080
-4.420E-06,0.080
-4.410E-06,0.080
-4.400E-06,0.080
-4.390E-06,0.080
-4.380E-06,0.080
-4.370E-06,0.080
-4.360E-06,0.080
-4.350E-06,0.080
-4.340E-06,0.080
-4.330E-06,0.000
-4.320E-06,0.080
-4.310E-06,0.160
-4.300E-06,0.240
-4.290E-06,0.160
-4.280E-06,0.080
-4.270E-06,0.160
-4.260E-06,0.000
-4.250E-06,0.000
-4.240E-06,-0.080
-4.230E-06,0.000
-4.220E-06,0.160
-4.210E-06,0.000
-4.200E-06,-0.080
-4.190E-06,0.000
-4.180E-06,-0.080
-4.170E-06,0.000
-4.160E-06,-0.080
-4.150E-06,0.000
-4.140E-06,0.000
-4.130E-06,0.080
-4.120E-06,0.000
-4.110E-06,0.000
-4.100E-06,-0.080
-4.090E-06,0.000
-4.080E-06,-0.080
-4.070E-06,-0.080
-4.060E-06,0.000
-4.050E-06,0.000
-4.040E-06,0.000
-4.030E-06,0.080
-4.020E-06,0.080
-4.010E-06,0.080
-4.000E-06,0.160
-3.990E-06,0.080
-3.980E-06,0.160
-3.970E-06,0.240
-3.960E-06,0.080
-3.950E-06,0.000
-3.940E-06,0.000
-3.930E-06,0.080
-3.920E-06,0.080
-3.910E-06,0.080
-3.900E-06,0.000
-3.890E-06,0.080
-3.880E-06,0.080
-3.870E-06,0.080
-3.860E-06,0.000
-3.850E-06,0.000
-3.840E-06,0.080
-3.830E-06,0.160
-3.820E-06,0.160
-3.810E-06,0.160
-3.800E-06,0.240
-3.790E-06,0.080
-3.780E-06,0.080
-3.770E-06,0.080
-3.760E-06,0.080
-3.750E-06,0.080
-3.740E-06,0.080
-3.730E-06,0.080
-3.720E-06,0.000
-3.710E-06,0.080
-3.700E-06,0.000
-3.690E-06,0.080
-3.680E-06,0.000
-3.670E-06,0.080
-3.660E-06,0.000
-3.650E-06,0.000
-3.640E-06,0.080
-3.630E-06,0.160
-3.620E-06,0.000
-3.610E-06,0.080
-3.600E-06,0.080
-3.590E-06,0.080
-3.580E-06,0.000
-3.570E-06,0.000
-3.560E-06,0.000
-3.550E-06,0.000
-3.540E-06,-0.080
-3.530E-06,0.080
-3.520E-06,0.080
-3.510E-06,0.000
-3.500E-06,-0.080
-3.490E-06,-0.080
-3.480E-06,0.000
-3.470E-06,-0.080
-3.460E-06,-0.080
-3.450E-06,0.000
-3.440E-06,-0.080
-3.430E-06,-0.080
-3.420E-06,0.000
-3.410E-06,0.000
-3.400E-06,0.000
-3.390E-06,0.000
-3.380E-06,0.000
-3.370E-06,0.000
-3.360E-06,0.000
-3.350E-06,0.000
-3.340E-06,0.080
-3.330E-06,0.160
-3.320E-06,0.160
-3.310E-06,0.240
-3.300E-06,0.160
-3.290E-06,0.080
-3.280E-06,0.080
-3.270E-06,0.080
-3.260E-06,0.080
-3.250E-06,0.080
-3.240E-06,0.080
-3.230E-06,0.000
-3.220E-06,-0.080
-3.210E-06,0.080
-3.200E-06,0.000
-3.190E-06,0.080
-3.180E-06,0.000
-3.170E-06,0.080
-3.160E-06,-0.080
-3.150E-06,0.000
-3.140E-06,0.080
-3.130E-06,0.160
-3.120E-06,0.080
-3.110E-06,0.160
-3.100E-06,0.080
-3.090E-06,0.080
-3.080E-06,0.000
-3.070E-06,0.080
-3.060E-06,0.080
-3.050E-06,0.000
-3.040E-06,-0.080
-3.030E-06,0.000
-3.020E-06,0.080
-3.010E-06,0.080
-3.000E-06,0.000
-2.990E-06,0.080
-2.980E-06,0.080
-2.970E-06,0.080
-2.960E-06,0.080
-2.950E-06,0.160
-2.940E-06,0.000
-2.930E-06,0.080
-2.920E-06,0.080
-2.910E-06,0.080
-2.900E-06,0.080
-2.890E-06,0.080
-2.880E-06,0.160
-2.870E-06,0.160
-2.860E-06,0.160
-2.850E-06,0.160
-2.840E-06,0.160
-2.830E-06,0.000
-2.820E-06,0.080
-2.810E-06,0.080
-2.800E-06,0.080
-2.790E-06,0.080
-2.780E-06,0.000
-2.770E-06,0.080
-2.760E-06,0.000
-2.750E-06,0.000
-2.740E-06,0.080
-2.730E-06,0.160
-2.720E-06,0.400
-2.710E-06,0.240
-2.700E-06,0.080
-2.690E-06,0.160
-2.680E-06,0.000
-2.670E-06,0.000
-2.660E-06,-0.080
-2.650E-06,0.000
-2.640E-06,-0.080
-2.630E-06,0.000
-2.620E-06,-0.160
-2.610E-06,0.000
-2.600E-06,0.000
-2.590E-06,0.000
-2.580E-06,0.000
-2.570E-06,0.000
-2.560E-06,0.000
-2.550E-06,0.000
-2.540E-06,0.080
-2.530E-06,-0.080
-2.520E-06,-0.080
-2.510E-06,0.080
-2.500E-06,0.000
-2.490E-06,0.080
-2.480E-06,0.160
-2.470E-06,0.240
-2.460E-06,0.160
-2.450E-06,0.240
-2.440E-06,0.240
-2.430E-06,0.000
-2.420E-06,0.160
-2.410E-06,0.240
-2.400E-06,0.160
-2.390E-06,0.080
-2.380E-06,0.160
-2.370E-06,0.080
-2.360E-06,0.160
-2.350E-06,0.240
-2.340E-06,0.240
-2.330E-06,0.240
-2.320E-06,0.080
-2.310E-06,0.080
-2.300E-06,0.160
-2.290E-06,0.240
-2.280E-06,0.240
-2.270E-06,0.240
-2.260E-06,0.000
-2.250E-06,0.000
-2.240E-06,0.000
-2.230E-06,0.080
-2.220E-06,0.000
-2.210E-06,0.000
-2.200E-06,-0.080
-2.190E-06,-0.080
-2.180E-06,0.000
-2.170E-06,-0.080
-2.160E-06,0.000
-2.150E-06,0.000
-2.140E-06,0.000
-2.130E-06,0.000
-2.120E-06,0.080
-2.110E-06,0.080
-2.100E-06,0.080
-2.090E-06,0.080
-2.080E-06,0.000
-2.070E-06,0.080
-2.060E-06,0.000
-2.050E-06,0.080
-2.040E-06,0.000
-2.030E-06,0.000
-2.020E-06,0.000
-2.010E-06,0.000
-2.000E-06,-0.080
-1.990E-06,0.000
-1.980E-06,0.000
-1.970E-06,0.000
-1.960E-06,0.080
-1.950E-06,-0.080
-1.940E-06,0.000
-1.930E-06,0.080
-1.920E-06,0.080
-1.910E-06,0.080
-1.900E-06,0.080
-1.890E-06,0.080
-1.880E-06,-0.080
-1.870E-06,0.000
-1.860E-06,0.000
-1.850E-06,0.000
-1.840E-06,-0.080
-1.830E-06,-0.080
-1.820E-06,-0.080
-1.810E-06,-0.080
-1.800E-06,0.000
-1.790E-06,0.000
-1.780E-06,0.080
-1.770E-06,0.160
-1.760E-06,0.000
-1.750E-06,0.000
-1.740E-06,0.000
-1.730E-06,0.000
-1.720E-06,0.000
-1.710E-06,-0.160
-1.700E-06,0.000
-1.690E-06,0.000
-1.680E-06,-0.160
-1.670E-06,0.000
-1.660E-06,-0.160
-1.650E-06,-0.160
-1.640E-06,-0.240
-1.630E-06,-0.160
-1.620E-06,-0.240
-1.610E-06,-0.320
-1.600E-06,-0.240
-1.590E-06,-0.080
-1.580E-06,-0.080
-1.570E-06,-0.160
-1.560E-06,-0.080
-1.550E-06,-0.160
-1.540E-06,-0.080
-1.530E-06,-0.160
-1.520E-06,-0.240
-1.510E-06,-0.240
-1.500E-06,-0.240
-1.490E-06,-0.240
-1.480E-06,-0.240
-1.470E-06,-0.080
-1.460E-06,-0.240
-1.450E-06,-0.320
-1.440E-06,-0.160
-1.430E-06,-0.160
-1.420E-06,-0.240
-1.410E-06,-0.160
-1.400E-06,-0.160
-1.390E-06,-0.240
-1.380E-06,-0.160
-1.370E-06,-0.240
-1.360E-06,-0.320
-1.350E-06,-0.240
-1.340E-06,-0.320
-1.330E-06,-0.320
-1.320E-06,-0.160
-1.310E-06,-0.320
-1.300E-06,-0.320
-1.290E-06,-0.320
-1.280E-06,-0.400
-1.270E-06,-0.400
-1.260E-06,-0.480
-1.250E-06,-0.400
-1.240E-06,-0.480
-1.230E-06,-0.480
-1.220E-06,-0.400
-1.210E-06,-0.480
-1.200E-06,-0.400
-1.190E-06,-0.480
-1.180E-06,-0.160
-1.170E-06,-0.320
-1.160E-06,-0.160
-1.150E-06,-0.320
-1.140E-06,-0.320
-1.130E-06,-0.480
-1.120E-06,-0.480
-1.110E-06,-0.240
-1.100E-06,-0.240
-1.090E-06,-0.480
-1.080E-06,-0.400
-1.070E-06,-0.320
-1.060E-06,-0.320
-1.050E-06,-0.320
-1.040E-06,-0.320
-1.030E-06,-0.400
-1.020E-06,-0.400
-1.010E-06,-0.480
-1.000E-06,-0.720
-9.900E-07,-0.640
-9.800E-07,-0.720
-9.700E-07,-0.720
-9.600E-07,-0.720
-9.500E-07,-0.640
-9.400E-07,-0.720
-9.300E-07,-0.560
-9.200E-07,-0.640
-9.100E-07,-0.640
-9.000E-07,-0.640
-8.900E-07,-0.640
-8.800E-07,-0.640
-8.700E-07,-0.640
-8.600E-07,-0.720
-8.500E-07,-0.720
-8.400E-07,-0.640
-8.300E-07,-0.560
-8.200E-07,-0.560
-8.100E-07,-0.560
-8.000E-07,-0.480
-7.900E-07,-0.480
-7.800E-07,-0.560
-7.700E-07,-0.560
-7.600E-07,-0.480
-7.500E-07,-0.560
-7.400E-07,-0.560
-7.300E-07,-0.560
-7.200E-07,-0.480
-7.100E-07,-0.480
-7.000E-07,-0.480
-6.900E-07,-0.480
-6.800E-07,-0.640
-6.700E-07,-0.560
-6.600E-07,-0.400
-6.500E-07,-0.400
-6.400E-07,-0.320
-6.300E-07,-0.240
-6.200E-07,0.000
-6.100E-07,0.000
-6.000E-07,0.000
-5.900E-07,0.000
-5.800E-07,-0.080
-5.700E-07,0.000
-5.600E-07,0.080
-5.500E-07,0.160
-5.400E-07,0.400
-5.300E-07,0.400
-5.200E-07,0.240
-5.100E-07,0.080
-5.000E-07,0.000
-4.900E-07,-0.160
-4.800E-07,-0.080
-4.700E-07,-0.080
-4.600E-07,-0.240
-4.500E-07,-0.240
-4.400E-07,-0.320
-4.300E-07,-0.320
-4.200E-07,-0.320
-4.100E-07,-0.320
-4.000E-07,-0.240
-3.900E-07,-0.080
-3.800E-07,-0.160
-3.700E-07,-0.320
-3.600E-07,-0.160
-3.500E-07,-0.240
-3.400E-07,0.000
-3.300E-07,-0.080
-3.200E-07,0.000
-3.100E-07,-0.080
-3.000E-07,0.000
-2.900E-07,-0.080
-2.800E-07,0.000
-2.700E-07,-0.080
-2.600E-07,-0.160
-2.500E-07,-0.080
-2.400E-07,-0.160
-2.300E-07,-0.400
-2.200E-07,-0.400
-2.100E-07,-0.480
-2.000E-07,-0.560
-1.900E-07,-0.480
-1.800E-07,-0.560
-1.700E-07,-0.640
-1.600E-07,-0.640
-1.500E-07,-0.720
-1.400E-07,-0.720
-1.300E-07,-0.640
-1.200E-07,-0.720
-1.100E-07,-0.800
-1.000E-07,-0.720
-9.000E-08,-0.800
-8.000E-08,-0.720
-7.000E-08,-0.720
-6.000E-08,-0.480
-5.000E-08,-0.320
-4.000E-08,0.160
-3.000E-08,0.000
-2.000E-08,0.320
-1.000E-08,-0.240
0.000E+00,-0.560
1.000E-08,-0.640
2.000E-08,-0.560
3.000E-08,-0.560
4.000E-08,-0.320
5.000E-08,-0.480
6.000E-08,-0.480
7.000E-08,-0.400
8.000E-08,-0.400
9.000E-08,-0.560
1.000E-07,-0.720
1.100E-07,-1.200
1.200E-07,-1.200
1.300E-07,-1.200
1.400E-07,-1.200
1.500E-07,-1.280
1.600E-07,-1.440
1.700E-07,-1.600
1.800E-07,-1.360
1.900E-07,-1.360
2.000E-07,-1.280
2.100E-07,-1.440
2.200E-07,-1.280
2.300E-07,-1.200
2.400E-07,-1.040
2.500E-07,-1.120
2.600E-07,-1.120
2.700E-07,-1.280
2.800E-07,-1.360
2.900E-07,-1.360
3.000E-07,-1.360
3.100E-07,-1.040
3.200E-07,-1.120
3.300E-07,-1.040
3.400E-07,-1.040
3.500E-07,-1.280
3.600E-07,-1.360
3.700E-07,-1.360
3.800E-07,-1.440
3.900E-07,-1.360
4.000E-07,-1.440
4.100E-07,-1.440
4.200E-07,-1.360
4.300E-07,-1.360
4.400E-07,-1.360
4.500E-07,-1.520
4.600E-07,-1.920
4.700E-07,-2.080
4.800E-07,-2.160
4.900E-07,-1.920
5.000E-07,-1.520
5.100E-07,-1.120
5.200E-07,-0.720
5.300E-07,-0.480
5.400E-07,-0.640
5.500E-07,-0.800
5.600E-07,-0.960
5.700E-07,-0.880
5.800E-07,-0.880
5.900E-07,-0.960
6.000E-07,-1.040
6.100E-07,-1.120
6.200E-07,-1.200
6.300E-07,-1.120
6.400E-07,-1.120
6.500E-07,-1.040
6.600E-07,-0.800
6.700E-07,-0.800
6.800E-07,-0.880
6.900E-07,-0.880
7.000E-07,-0.960
7.100E-07,-0.880
7.200E-07,-0.800
7.300E-07,-0.640
7.400E-07,-0.640
7.500E-07,-0.400
7.600E-07,-0.400
7.700E-07,-0.320
7.800E-07,-0.400
7.900E-07,-0.240
8.000E-07,-0.240
8.100E-07,-0.160
8.200E-07,-0.080
8.300E-07,-0.080
8.400E-07,-0.160
8.500E-07,0.000
8.600E-07,-0.080
8.700E-07,0.000
8.800E-07,0.080
8.900E-07,0.160
9.000E-07,0.160
9.100E-07,0.240
9.200E-07,0.080
9.300E-07,0.080
9.400E-07,-0.080
9.500E-07,-0.320
9.600E-07,-0.400
9.700E-07,-0.400
9.800E-07,-0.400
9.900E-07,-0.400
1.000E-06,-0.560
1.010E-06,-0.560
1.020E-06,-0.560
1.030E-06,-0.560
1.040E-06,-0.640
1.050E-06,-0.560
1.060E-06,-0.560
1.070E-06,-0.560
1.080E-06,-0.560
1.090E-06,-0.640
1.100E-06,-0.560
1.110E-06,-0.640
1.120E-06,-0.800
1.130E-06,-0.720
1.140E-06,-1.040
1.150E-06,-0.960
1.160E-06,-1.040
1.170E-06,-0.960
1.180E-06,-1.040
1.190E-06,-0.720
1.200E-06,-0.400
1.210E-06,-0.480
1.220E-06,-0.240
1.230E-06,-0.640
1.240E-06,-0.960
1.250E-06,-1.440
1.260E-06,-1.680
1.270E-06,-2.000
1.280E-06,-2.080
1.290E-06,-2.240
1.300E-06,-2.400
1.310E-06,-2.560
1.320E-06,-2.640
1.330E-06,-2.640
1.340E-06,-2.640
1.350E-06,-2.720
1.360E-06,-2.640
1.370E-06,-2.640
1.380E-06,-2.560
1.390E-06,-2.720
1.400E-06,-2.400
1.410E-06,-2.240
1.420E-06,-2.000
1.430E-06,-1.840
1.440E-06,-1.760
1.450E-06,-2.080
1.460E-06,-2.080
1.470E-06,-2.240
1.480E-06,-2.400
1.490E-06,-2.480
1.500E-06,-2.560
1.510E-06,-2.480
1.520E-06,-2.400
1.530E-06,-2.080
1.540E-06,-2.000
1.550E-06,-2.000
1.560E-06,-2.080
1.570E-06,-2.080
1.580E-06,-1.360
1.590E-06,-1.360
1.600E-06,-0.640
1.610E-06,-1.200
1.620E-06,-1.360
1.630E-06,-1.920
1.640E-06,-2.160
1.650E-06,-2.160
1.660E-06,-1.680
1.670E-06,-1.920
1.680E-06,-1.920
1.690E-06,-2.080
1.700E-06,-2.240
1.710E-06,-2.400
1.720E-06,-2.560
1.730E-06,-2.720
1.740E-06,-2.640
1.750E-06,-2.480
1.760E-06,-2.400
1.770E-06,-2.320
1.780E-06,-2.240
1.790E-06,-2.000
1.800E-06,-1.680
1.810E-06,-1.200
1.820E-06,-0.960
1.830E-06,-0.720
1.840E-06,-0.640
1.850E-06,-0.560
1.860E-06,-0.240
1.870E-06,-0.240
1.880E-06,-0.320
1.890E-06,-0.080
1.900E-06,0.000
1.910E-06,0.080
1.920E-06,0.320
1.930E-06,0.480
1.940E-06,0.480
1.950E-06,0.560
1.960E-06,0.480
1.970E-06,0.560
1.980E-06,0.560
1.990E-06,0.640
2.000E-06,0.640
2.010E-06,0.640
2.020E-06,0.400
2.030E-06,0.480
2.040E-06,0.160
2.050E-06,0.080
2.060E-06,0.000
2.070E-06,0.000
2.080E-06,-0.240
2.090E-06,-0.400
2.100E-06,-0.560
2.110E-06,-0.880
2.120E-06,-0.960
2.130E-06,-1.040
2.140E-06,-0.960
2.150E-06,-1.040
2.160E-06,-0.880
2.170E-06,-0.720
2.180E-06,-0.720
2.190E-06,-0.480
2.200E-06,-0.240
2.210E-06,-0.320
2.220E-06,-0.160
2.230E-06,0.000
2.240E-06,0.000
2.250E-06,0.000
2.260E-06,0.000
2.270E-06,0.000
2.280E-06,-0.080
2.290E-06,0.000
2.300E-06,0.000
2.310E-06,0.000
2.320E-06,0.000
2.330E-06,-0.160
2.340E-06,-0.080
2.350E-06,-0.080
2.360E-06,0.000
2.370E-06,0.000
2.380E-06,0.000
2.390E-06,-0.240
2.400E-06,-0.240
2.410E-06,-0.560
2.420E-06,-0.720
2.430E-06,-1.040
2.440E-06,-1.120
2.450E-06,-1.200
2.460E-06,-1.360
2.470E-06,-1.120
2.480E-06,-1.040
2.490E-06,-0.960
2.500E-06,-0.960
2.510E-06,-0.960
2.520E-06,-0.960
2.530E-06,-1.040
2.540E-06,-1.120
2.550E-06,-1.040
2.560E-06,-1.280
2.570E-06,-1.280
2.580E-06,-1.440
2.590E-06,-1.360
2.600E-06,-1.440
2.610E-06,-1.520
2.620E-06,-1.680
2.630E-06,-1.760
2.640E-06,-1.840
2.650E-06,-2.000
2.660E-06,-2.000
2.670E-06,-2.240
2.680E-06,-2.240
2.690E-06,-2.240
2.700E-06,-2.000
2.710E-06,-2.000
2.720E-06,-2.080
2.730E-06,-2.000
2.740E-06,-2.080
2.750E-06,-1.680
2.760E-06,-1.760
2.770E-06,-1.680
2.780E-06,-1.840
2.790E-06,-2.000
2.800E-06,-2.160
2.810E-06,-2.480
2.820E-06,-2.640
2.830E-06,-3.040
2.840E-06,-3.360
2.850E-06,-3.600
2.860E-06,-3.680
2.870E-06,-3.840
2.880E-06,-4.000
2.890E-06,-4.160
2.900E-06,-4.160
2.910E-06,-4.160
2.920E-06,-4.080
2.930E-06,-4.000
2.940E-06,-3.840
2.950E-06,-3.840
2.960E-06,-3.600
2.970E-06,-3.360
2.980E-06,-3.440
2.990E-06,-3.440
3.000E-06,-3.680
3.010E-06,-3.840
3.020E-06,-3.920
3.030E-06,-4.240
3.040E-06,-4.400
3.050E-06,-4.400
3.060E-06,-4.400
3.070E-06,-4.160
3.080E-06,-4.160
3.090E-06,-4.080
3.100E-06,-3.760
3.110E-06,-3.520
3.120E-06,-3.280
3.130E-06,-2.880
3.140E-06,-2.720
3.150E-06,-2.800
3.160E-06,-2.800
3.170E-06,-2.720
3.180E-06,-2.720
3.190E-06,-2.800
3.200E-06,-2.960
3.210E-06,-3.200
