mediciones/Mediciones filtradas (saque las feas)/5-15/47.5/WaveData47117.csv

#timebase=2000000(ps)
,#voltbase=2000000(mv/100)
#size=4000
-8.400E-06,0.000
-8.390E-06,0.080
-8.380E-06,0.080
-8.370E-06,0.080
-8.360E-06,0.080
-8.350E-06,0.000
-8.340E-06,0.080
-8.330E-06,0.000
-8.320E-06,0.000
-8.310E-06,0.080
-8.300E-06,-0.080
-8.290E-06,0.000
-8.280E-06,0.000
-8.270E-06,0.080
-8.260E-06,0.080
-8.250E-06,0.080
-8.240E-06,0.080
-8.230E-06,0.240
-8.220E-06,0.080
-8.210E-06,0.080
-8.200E-06,0.080
-8.190E-06,0.160
-8.180E-06,0.080
-8.170E-06,0.080
-8.160E-06,0.080
-8.150E-06,0.240
-8.140E-06,0.080
-8.130E-06,0.080
-8.120E-06,0.080
-8.110E-06,0.080
-8.100E-06,0.080
-8.090E-06,0.080
-8.080E-06,0.000
-8.070E-06,0.000
-8.060E-06,0.000
-8.050E-06,0.000
-8.040E-06,-0.080
-8.030E-06,0.000
-8.020E-06,0.000
-8.010E-06,0.000
-8.000E-06,0.000
-7.990E-06,0.160
-7.980E-06,0.080
-7.970E-06,0.000
-7.960E-06,0.080
-7.950E-06,0.080
-7.940E-06,0.080
-7.930E-06,0.000
-7.920E-06,0.160
-7.910E-06,0.160
-7.900E-06,0.000
-7.890E-06,0.080
-7.880E-06,0.080
-7.870E-06,0.080
-7.860E-06,0.080
-7.850E-06,0.000
-7.840E-06,0.080
-7.830E-06,0.160
-7.820E-06,0.160
-7.810E-06,0.000
-7.800E-06,0.080
-7.790E-06,0.080
-7.780E-06,0.080
-7.770E-06,0.080
-7.760E-06,0.080
-7.750E-06,0.000
-7.740E-06,0.000
-7.730E-06,0.080
-7.720E-06,0.080
-7.710E-06,0.080
-7.700E-06,0.080
-7.690E-06,0.080
-7.680E-06,0.080
-7.670E-06,0.160
-7.660E-06,-0.080
-7.650E-06,-0.080
-7.640E-06,0.000
-7.630E-06,0.080
-7.620E-06,0.080
-7.610E-06,0.080
-7.600E-06,-0.080
-7.590E-06,-0.080
-7.580E-06,0.000
-7.570E-06,0.080
-7.560E-06,-0.080
-7.550E-06,0.000
-7.540E-06,0.000
-7.530E-06,0.000
-7.520E-06,0.160
-7.510E-06,-0.080
-7.500E-06,-0.080
-7.490E-06,0.080
-7.480E-06,0.000
-7.470E-06,0.000
-7.460E-06,0.080
-7.450E-06,0.160
-7.440E-06,0.080
-7.430E-06,0.080
-7.420E-06,0.080
-7.410E-06,0.080
-7.400E-06,0.080
-7.390E-06,0.080
-7.380E-06,0.160
-7.370E-06,0.080
-7.360E-06,0.160
-7.350E-06,0.160
-7.340E-06,0.080
-7.330E-06,0.160
-7.320E-06,0.160
-7.310E-06,0.000
-7.300E-06,0.000
-7.290E-06,0.000
-7.280E-06,0.000
-7.270E-06,0.000
-7.260E-06,0.000
-7.250E-06,0.080
-7.240E-06,0.080
-7.230E-06,-0.080
-7.220E-06,0.080
-7.210E-06,0.000
-7.200E-06,0.080
-7.190E-06,0.080
-7.180E-06,0.080
-7.170E-06,0.160
-7.160E-06,0.080
-7.150E-06,0.080
-7.140E-06,0.160
-7.130E-06,0.080
-7.120E-06,-0.080
-7.110E-06,-0.080
-7.100E-06,0.000
-7.090E-06,-0.080
-7.080E-06,0.000
-7.070E-06,0.000
-7.060E-06,0.000
-7.050E-06,0.000
-7.040E-06,-0.080
-7.030E-06,0.000
-7.020E-06,0.080
-7.010E-06,-0.080
-7.000E-06,0.000
-6.990E-06,0.000
-6.980E-06,0.000
-6.970E-06,0.000
-6.960E-06,0.000
-6.950E-06,0.080
-6.940E-06,0.000
-6.930E-06,0.000
-6.920E-06,0.160
-6.910E-06,0.080
-6.900E-06,0.240
-6.890E-06,0.080
-6.880E-06,0.080
-6.870E-06,0.080
-6.860E-06,0.080
-6.850E-06,0.000
-6.840E-06,0.000
-6.830E-06,0.000
-6.820E-06,0.000
-6.810E-06,-0.080
-6.800E-06,0.000
-6.790E-06,-0.080
-6.780E-06,0.000
-6.770E-06,0.080
-6.760E-06,0.080
-6.750E-06,0.080
-6.740E-06,0.160
-6.730E-06,0.160
-6.720E-06,0.000
-6.710E-06,0.080
-6.700E-06,0.080
-6.690E-06,0.080
-6.680E-06,0.000
-6.670E-06,0.080
-6.660E-06,0.000
-6.650E-06,0.000
-6.640E-06,0.080
-6.630E-06,0.080
-6.620E-06,0.080
-6.610E-06,-0.080
-6.600E-06,-0.080
-6.590E-06,0.000
-6.580E-06,-0.080
-6.570E-06,0.080
-6.560E-06,0.000
-6.550E-06,0.080
-6.540E-06,0.080
-6.530E-06,0.080
-6.520E-06,0.080
-6.510E-06,0.160
-6.500E-06,0.160
-6.490E-06,-0.080
-6.480E-06,0.000
-6.470E-06,0.000
-6.460E-06,-0.080
-6.450E-06,0.080
-6.440E-06,0.080
-6.430E-06,0.080
-6.420E-06,0.160
-6.410E-06,0.160
-6.400E-06,-0.080
-6.390E-06,-0.080
-6.380E-06,0.000
-6.370E-06,0.000
-6.360E-06,0.000
-6.350E-06,0.000
-6.340E-06,0.000
-6.330E-06,-0.080
-6.320E-06,0.080
-6.310E-06,0.000
-6.300E-06,0.000
-6.290E-06,0.000
-6.280E-06,0.080
-6.270E-06,0.080
-6.260E-06,0.080
-6.250E-06,0.080
-6.240E-06,0.240
-6.230E-06,0.160
-6.220E-06,0.000
-6.210E-06,0.160
-6.200E-06,0.160
-6.190E-06,0.080
-6.180E-06,0.080
-6.170E-06,0.160
-6.160E-06,0.160
-6.150E-06,0.080
-6.140E-06,0.080
-6.130E-06,0.080
-6.120E-06,0.080
-6.110E-06,0.080
-6.100E-06,0.080
-6.090E-06,0.080
-6.080E-06,0.080
-6.070E-06,0.160
-6.060E-06,0.080
-6.050E-06,0.160
-6.040E-06,0.000
-6.030E-06,-0.080
-6.020E-06,0.000
-6.010E-06,-0.080
-6.000E-06,0.000
-5.990E-06,0.080
-5.980E-06,0.160
-5.970E-06,-0.080
-5.960E-06,-0.080
-5.950E-06,0.000
-5.940E-06,-0.080
-5.930E-06,-0.080
-5.920E-06,0.000
-5.910E-06,0.000
-5.900E-06,0.000
-5.890E-06,0.000
-5.880E-06,-0.080
-5.870E-06,0.000
-5.860E-06,0.080
-5.850E-06,0.080
-5.840E-06,0.080
-5.830E-06,0.080
-5.820E-06,0.080
-5.810E-06,0.080
-5.800E-06,0.080
-5.790E-06,0.000
-5.780E-06,0.080
-5.770E-06,0.000
-5.760E-06,0.080
-5.750E-06,0.080
-5.740E-06,0.080
-5.730E-06,0.080
-5.720E-06,0.160
-5.710E-06,0.080
-5.700E-06,0.080
-5.690E-06,0.080
-5.680E-06,0.080
-5.670E-06,0.000
-5.660E-06,-0.080
-5.650E-06,0.000
-5.640E-06,-0.080
-5.630E-06,0.000
-5.620E-06,0.000
-5.610E-06,0.000
-5.600E-06,0.000
-5.590E-06,0.000
-5.580E-06,0.000
-5.570E-06,0.000
-5.560E-06,0.000
-5.550E-06,0.000
-5.540E-06,0.000
-5.530E-06,0.000
-5.520E-06,0.000
-5.510E-06,0.160
-5.500E-06,0.160
-5.490E-06,0.080
-5.480E-06,0.160
-5.470E-06,0.000
-5.460E-06,0.000
-5.450E-06,0.080
-5.440E-06,0.160
-5.430E-06,0.160
-5.420E-06,0.080
-5.410E-06,0.080
-5.400E-06,0.160
-5.390E-06,0.080
-5.380E-06,0.080
-5.370E-06,0.080
-5.360E-06,0.000
-5.350E-06,0.080
-5.340E-06,0.000
-5.330E-06,0.080
-5.320E-06,0.000
-5.310E-06,0.080
-5.300E-06,0.080
-5.290E-06,0.080
-5.280E-06,0.000
-5.270E-06,0.080
-5.260E-06,0.000
-5.250E-06,0.080
-5.240E-06,0.000
-5.230E-06,0.080
-5.220E-06,0.000
-5.210E-06,0.080
-5.200E-06,0.160
-5.190E-06,-0.080
-5.180E-06,-0.080
-5.170E-06,0.000
-5.160E-06,0.080
-5.150E-06,0.080
-5.140E-06,-0.080
-5.130E-06,-0.080
-5.120E-06,0.000
-5.110E-06,-0.080
-5.100E-06,0.000
-5.090E-06,0.000
-5.080E-06,0.000
-5.070E-06,0.000
-5.060E-06,0.160
-5.050E-06,0.080
-5.040E-06,0.000
-5.030E-06,0.080
-5.020E-06,0.080
-5.010E-06,0.080
-5.000E-06,0.080
-4.990E-06,0.000
-4.980E-06,0.080
-4.970E-06,0.000
-4.960E-06,0.080
-4.950E-06,0.080
-4.940E-06,0.080
-4.930E-06,0.080
-4.920E-06,0.000
-4.910E-06,0.080
-4.900E-06,0.160
-4.890E-06,0.080
-4.880E-06,0.080
-4.870E-06,0.080
-4.860E-06,0.080
-4.850E-06,0.080
-4.840E-06,0.240
-4.830E-06,0.080
-4.820E-06,0.000
-4.810E-06,0.080
-4.800E-06,-0.080
-4.790E-06,0.080
-4.780E-06,0.160
-4.770E-06,-0.080
-4.760E-06,0.080
-4.750E-06,0.000
-4.740E-06,0.080
-4.730E-06,0.000
-4.720E-06,-0.080
-4.710E-06,0.000
-4.700E-06,0.080
-4.690E-06,0.000
-4.680E-06,0.080
-4.670E-06,0.000
-4.660E-06,-0.080
-4.650E-06,0.000
-4.640E-06,0.080
-4.630E-06,0.080
-4.620E-06,0.080
-4.610E-06,0.000
-4.600E-06,0.000
-4.590E-06,0.080
-4.580E-06,0.160
-4.570E-06,0.160
-4.560E-06,0.080
-4.550E-06,-0.080
-4.540E-06,-0.080
-4.530E-06,0.080
-4.520E-06,0.080
-4.510E-06,0.080
-4.500E-06,0.080
-4.490E-06,0.080
-4.480E-06,0.080
-4.470E-06,0.000
-4.460E-06,0.080
-4.450E-06,0.000
-4.440E-06,0.000
-4.430E-06,0.080
-4.420E-06,0.080
-4.410E-06,0.080
-4.400E-06,0.080
-4.390E-06,0.080
-4.380E-06,0.080
-4.370E-06,0.080
-4.360E-06,0.080
-4.350E-06,0.080
-4.340E-06,0.080
-4.330E-06,0.000
-4.320E-06,-0.080
-4.310E-06,0.080
-4.300E-06,0.080
-4.290E-06,0.000
-4.280E-06,0.000
-4.270E-06,0.000
-4.260E-06,0.000
-4.250E-06,0.080
-4.240E-06,0.080
-4.230E-06,0.080
-4.220E-06,0.080
-4.210E-06,0.080
-4.200E-06,0.080
-4.190E-06,0.080
-4.180E-06,0.000
-4.170E-06,0.000
-4.160E-06,0.080
-4.150E-06,0.160
-4.140E-06,0.080
-4.130E-06,0.000
-4.120E-06,0.080
-4.110E-06,0.080
-4.100E-06,0.080
-4.090E-06,0.080
-4.080E-06,0.000
-4.070E-06,0.000
-4.060E-06,-0.080
-4.050E-06,0.080
-4.040E-06,-0.080
-4.030E-06,0.080
-4.020E-06,0.080
-4.010E-06,0.080
-4.000E-06,0.000
-3.990E-06,0.000
-3.980E-06,0.080
-3.970E-06,0.080
-3.960E-06,-0.080
-3.950E-06,0.160
-3.940E-06,0.080
-3.930E-06,0.080
-3.920E-06,0.000
-3.910E-06,0.080
-3.900E-06,0.080
-3.890E-06,0.000
-3.880E-06,0.080
-3.870E-06,0.080
-3.860E-06,0.080
-3.850E-06,0.000
-3.840E-06,0.080
-3.830E-06,0.080
-3.820E-06,-0.080
-3.810E-06,0.000
-3.800E-06,0.000
-3.790E-06,0.080
-3.780E-06,0.000
-3.770E-06,-0.080
-3.760E-06,0.000
-3.750E-06,0.080
-3.740E-06,0.000
-3.730E-06,0.000
-3.720E-06,0.080
-3.710E-06,0.080
-3.700E-06,0.000
-3.690E-06,0.080
-3.680E-06,0.080
-3.670E-06,0.080
-3.660E-06,0.080
-3.650E-06,0.080
-3.640E-06,-0.080
-3.630E-06,0.000
-3.620E-06,0.000
-3.610E-06,0.080
-3.600E-06,0.000
-3.590E-06,0.000
-3.580E-06,0.080
-3.570E-06,0.080
-3.560E-06,0.080
-3.550E-06,0.000
-3.540E-06,0.080
-3.530E-06,0.160
-3.520E-06,0.000
-3.510E-06,0.000
-3.500E-06,0.080
-3.490E-06,0.000
-3.480E-06,0.160
-3.470E-06,0.160
-3.460E-06,0.160
-3.450E-06,0.160
-3.440E-06,0.000
-3.430E-06,0.160
-3.420E-06,0.080
-3.410E-06,0.080
-3.400E-06,0.080
-3.390E-06,-0.080
-3.380E-06,-0.080
-3.370E-06,0.080
-3.360E-06,-0.080
-3.350E-06,0.000
-3.340E-06,0.000
-3.330E-06,0.000
-3.320E-06,0.080
-3.310E-06,-0.080
-3.300E-06,0.000
-3.290E-06,0.080
-3.280E-06,0.000
-3.270E-06,0.080
-3.260E-06,-0.080
-3.250E-06,0.000
-3.240E-06,0.000
-3.230E-06,0.000
-3.220E-06,0.000
-3.210E-06,0.000
-3.200E-06,0.080
-3.190E-06,0.000
-3.180E-06,0.080
-3.170E-06,0.000
-3.160E-06,0.000
-3.150E-06,0.000
-3.140E-06,0.000
-3.130E-06,0.000
-3.120E-06,0.080
-3.110E-06,0.080
-3.100E-06,0.000
-3.090E-06,0.080
-3.080E-06,0.080
-3.070E-06,0.080
-3.060E-06,0.080
-3.050E-06,0.000
-3.040E-06,0.080
-3.030E-06,0.000
-3.020E-06,0.000
-3.010E-06,0.080
-3.000E-06,0.080
-2.990E-06,0.080
-2.980E-06,0.080
-2.970E-06,0.080
-2.960E-06,0.080
-2.950E-06,0.080
-2.940E-06,0.000
-2.930E-06,0.080
-2.920E-06,0.080
-2.910E-06,0.000
-2.900E-06,0.000
-2.890E-06,0.080
-2.880E-06,0.080
-2.870E-06,0.080
-2.860E-06,0.080
-2.850E-06,0.160
-2.840E-06,0.160
-2.830E-06,-0.080
-2.820E-06,-0.080
-2.810E-06,0.080
-2.800E-06,-0.080
-2.790E-06,0.000
-2.780E-06,0.000
-2.770E-06,0.000
-2.760E-06,0.080
-2.750E-06,0.080
-2.740E-06,0.080
-2.730E-06,0.080
-2.720E-06,-0.080
-2.710E-06,0.000
-2.700E-06,0.000
-2.690E-06,0.000
-2.680E-06,-0.080
-2.670E-06,0.080
-2.660E-06,0.000
-2.650E-06,0.000
-2.640E-06,0.000
-2.630E-06,0.080
-2.620E-06,-0.080
-2.610E-06,-0.080
-2.600E-06,0.000
-2.590E-06,0.080
-2.580E-06,0.160
-2.570E-06,0.080
-2.560E-06,0.160
-2.550E-06,0.160
-2.540E-06,0.160
-2.530E-06,0.160
-2.520E-06,0.080
-2.510E-06,-0.080
-2.500E-06,-0.080
-2.490E-06,0.000
-2.480E-06,0.080
-2.470E-06,-0.080
-2.460E-06,-0.080
-2.450E-06,0.000
-2.440E-06,0.000
-2.430E-06,0.000
-2.420E-06,0.000
-2.410E-06,0.000
-2.400E-06,0.000
-2.390E-06,0.000
-2.380E-06,-0.080
-2.370E-06,0.000
-2.360E-06,0.080
-2.350E-06,0.080
-2.340E-06,-0.080
-2.330E-06,0.000
-2.320E-06,0.000
-2.310E-06,0.000
-2.300E-06,0.000
-2.290E-06,0.000
-2.280E-06,-0.080
-2.270E-06,0.000
-2.260E-06,-0.080
-2.250E-06,0.000
-2.240E-06,0.000
-2.230E-06,0.000
-2.220E-06,0.000
-2.210E-06,0.000
-2.200E-06,-0.080
-2.190E-06,0.000
-2.180E-06,-0.080
-2.170E-06,0.000
-2.160E-06,-0.080
-2.150E-06,-0.080
-2.140E-06,0.000
-2.130E-06,0.080
-2.120E-06,-0.080
-2.110E-06,-0.080
-2.100E-06,0.000
-2.090E-06,0.000
-2.080E-06,0.000
-2.070E-06,0.000
-2.060E-06,-0.080
-2.050E-06,-0.080
-2.040E-06,-0.080
-2.030E-06,0.000
-2.020E-06,-0.080
-2.010E-06,-0.080
-2.000E-06,-0.160
-1.990E-06,0.000
-1.980E-06,-0.080
-1.970E-06,-0.080
-1.960E-06,-0.080
-1.950E-06,0.000
-1.940E-06,-0.080
-1.930E-06,-0.080
-1.920E-06,-0.160
-1.910E-06,-0.080
-1.900E-06,-0.160
-1.890E-06,-0.240
-1.880E-06,-0.160
-1.870E-06,-0.160
-1.860E-06,-0.240
-1.850E-06,-0.160
-1.840E-06,-0.320
-1.830E-06,-0.240
-1.820E-06,-0.160
-1.810E-06,-0.320
-1.800E-06,-0.320
-1.790E-06,-0.320
-1.780E-06,-0.240
-1.770E-06,-0.320
-1.760E-06,-0.400
-1.750E-06,-0.320
-1.740E-06,-0.400
-1.730E-06,-0.320
-1.720E-06,-0.320
-1.710E-06,-0.240
-1.700E-06,-0.400
-1.690E-06,-0.480
-1.680E-06,-0.480
-1.670E-06,-0.320
-1.660E-06,-0.320
-1.650E-06,-0.240
-1.640E-06,-0.240
-1.630E-06,-0.320
-1.620E-06,-0.240
-1.610E-06,-0.320
-1.600E-06,-0.160
-1.590E-06,-0.240
-1.580E-06,-0.320
-1.570E-06,-0.400
-1.560E-06,-0.320
-1.550E-06,-0.240
-1.540E-06,-0.080
-1.530E-06,-0.080
-1.520E-06,-0.160
-1.510E-06,-0.080
-1.500E-06,-0.080
-1.490E-06,-0.240
-1.480E-06,-0.400
-1.470E-06,-0.400
-1.460E-06,-0.480
-1.450E-06,-0.320
-1.440E-06,-0.400
-1.430E-06,-0.480
-1.420E-06,-0.560
-1.410E-06,-0.480
-1.400E-06,-0.560
-1.390E-06,-0.480
-1.380E-06,-0.720
-1.370E-06,-0.720
-1.360E-06,-0.560
-1.350E-06,-0.720
-1.340E-06,-0.640
-1.330E-06,-0.640
-1.320E-06,-0.640
-1.310E-06,-0.720
-1.300E-06,-0.720
-1.290E-06,-0.640
-1.280E-06,-0.640
-1.270E-06,-0.720
-1.260E-06,-0.720
-1.250E-06,-0.800
-1.240E-06,-0.880
-1.230E-06,-0.880
-1.220E-06,-1.040
-1.210E-06,-1.040
-1.200E-06,-1.040
-1.190E-06,-1.120
-1.180E-06,-0.960
-1.170E-06,-0.960
-1.160E-06,-0.960
-1.150E-06,-0.880
-1.140E-06,-0.960
-1.130E-06,-0.720
-1.120E-06,-0.720
-1.110E-06,-0.720
-1.100E-06,-0.720
-1.090E-06,-0.560
-1.080E-06,-0.400
-1.070E-06,-0.480
-1.060E-06,-0.480
-1.050E-06,-0.640
-1.040E-06,-0.720
-1.030E-06,-0.880
-1.020E-06,-0.960
-1.010E-06,-0.640
-1.000E-06,-0.560
-9.900E-07,-0.480
-9.800E-07,-0.480
-9.700E-07,-0.720
-9.600E-07,-0.640
-9.500E-07,-0.880
-9.400E-07,-0.640
-9.300E-07,-0.720
-9.200E-07,-0.880
-9.100E-07,-1.040
-9.000E-07,-0.960
-8.900E-07,-1.120
-8.800E-07,-0.960
-8.700E-07,-1.040
-8.600E-07,-1.040
-8.500E-07,-1.120
-8.400E-07,-1.120
-8.300E-07,-1.120
-8.200E-07,-1.040
-8.100E-07,-1.040
-8.000E-07,-1.040
-7.900E-07,-1.120
-7.800E-07,-1.120
-7.700E-07,-1.200
-7.600E-07,-1.200
-7.500E-07,-1.040
-7.400E-07,-1.040
-7.300E-07,-1.040
-7.200E-07,-1.120
-7.100E-07,-1.120
-7.000E-07,-1.200
-6.900E-07,-1.120
-6.800E-07,-1.200
-6.700E-07,-1.280
-6.600E-07,-1.280
-6.500E-07,-1.360
-6.400E-07,-1.440
-6.300E-07,-1.360
-6.200E-07,-1.440
-6.100E-07,-1.280
-6.000E-07,-1.360
-5.900E-07,-1.200
-5.800E-07,-1.040
-5.700E-07,-1.040
-5.600E-07,-0.960
-5.500E-07,-1.120
-5.400E-07,-1.200
-5.300E-07,-1.040
-5.200E-07,-1.280
-5.100E-07,-1.120
-5.000E-07,-1.440
-4.900E-07,-1.520
-4.800E-07,-1.600
-4.700E-07,-1.600
-4.600E-07,-1.520
-4.500E-07,-1.360
-4.400E-07,-1.440
-4.300E-07,-1.280
-4.200E-07,-1.520
-4.100E-07,-1.760
-4.000E-07,-1.840
-3.900E-07,-2.000
-3.800E-07,-2.000
-3.700E-07,-1.920
-3.600E-07,-1.840
-3.500E-07,-1.760
-3.400E-07,-1.680
-3.300E-07,-1.760
-3.200E-07,-1.680
-3.100E-07,-1.600
-3.000E-07,-1.520
-2.900E-07,-1.520
-2.800E-07,-1.600
-2.700E-07,-1.440
-2.600E-07,-1.440
-2.500E-07,-1.360
-2.400E-07,-1.280
-2.300E-07,-1.280
-2.200E-07,-1.200
-2.100E-07,-1.040
-2.000E-07,-1.040
-1.900E-07,-0.960
-1.800E-07,-0.960
-1.700E-07,-0.960
-1.600E-07,-0.960
-1.500E-07,-0.960
-1.400E-07,-1.040
-1.300E-07,-1.280
-1.200E-07,-1.040
-1.100E-07,-1.360
-1.000E-07,-1.360
-9.000E-08,-1.040
-8.000E-08,-1.680
-7.000E-08,-1.440
-6.000E-08,-2.000
-5.000E-08,-1.600
-4.000E-08,-1.520
-3.000E-08,-1.200
-2.000E-08,-1.040
-1.000E-08,-1.040
0.000E+00,-1.200
1.000E-08,-1.600
2.000E-08,-1.280
3.000E-08,-1.360
4.000E-08,-1.040
5.000E-08,-1.200
6.000E-08,-1.360
7.000E-08,-1.600
8.000E-08,-1.520
9.000E-08,-1.440
1.000E-07,-1.360
1.100E-07,-1.440
1.200E-07,-1.520
1.300E-07,-1.520
1.400E-07,-1.600
1.500E-07,-1.360
1.600E-07,-1.440
1.700E-07,-1.520
1.800E-07,-1.440
1.900E-07,-1.600
2.000E-07,-1.280
2.100E-07,-1.360
2.200E-07,-1.360
2.300E-07,-1.440
2.400E-07,-1.360
2.500E-07,-1.280
2.600E-07,-1.040
2.700E-07,-1.040
2.800E-07,-1.040
2.900E-07,-1.040
3.000E-07,-1.040
3.100E-07,-0.800
3.200E-07,-0.720
3.300E-07,-0.720
3.400E-07,-0.640
3.500E-07,-0.720
3.600E-07,-0.640
3.700E-07,-0.640
3.800E-07,-0.640
3.900E-07,-0.720
4.000E-07,-0.640
4.100E-07,-0.640
4.200E-07,-0.560
4.300E-07,-0.560
4.400E-07,-0.480
4.500E-07,-0.560
4.600E-07,-0.480
4.700E-07,-0.240
4.800E-07,-0.320
4.900E-07,-0.240
5.000E-07,-0.160
5.100E-07,-0.240
5.200E-07,-0.240
5.300E-07,-0.320
5.400E-07,-0.240
5.500E-07,-0.240
5.600E-07,-0.320
5.700E-07,-0.240
5.800E-07,-0.160
5.900E-07,-0.160
6.000E-07,-0.240
6.100E-07,-0.320
6.200E-07,-0.080
6.300E-07,-0.080
6.400E-07,-0.240
6.500E-07,-0.160
6.600E-07,-0.240
6.700E-07,-0.240
6.800E-07,-0.320
6.900E-07,-0.400
7.000E-07,-0.320
7.100E-07,-0.240
7.200E-07,-0.320
7.300E-07,-0.240
7.400E-07,-0.240
7.500E-07,-0.160
7.600E-07,0.000
7.700E-07,-0.080
7.800E-07,-0.080
7.900E-07,-0.080
8.000E-07,0.000
8.100E-07,0.160
8.200E-07,0.160
8.300E-07,0.240
8.400E-07,0.160
8.500E-07,0.400
8.600E-07,0.320
8.700E-07,0.320
8.800E-07,0.320
8.900E-07,0.400
9.000E-07,0.400
9.100E-07,0.320
9.200E-07,0.400
9.300E-07,0.320
9.400E-07,0.240
9.500E-07,0.240
9.600E-07,0.320
9.700E-07,0.400
9.800E-07,0.480
9.900E-07,0.480
1.000E-06,0.560
1.010E-06,0.640
1.020E-06,0.720
1.030E-06,0.720
1.040E-06,0.880
1.050E-06,0.880
1.060E-06,0.960
1.070E-06,0.960
1.080E-06,0.960
1.090E-06,0.960
1.100E-06,0.960
1.110E-06,0.800
1.120E-06,0.720
1.130E-06,0.720
1.140E-06,0.640
1.150E-06,0.640
1.160E-06,0.560
1.170E-06,0.640
1.180E-06,0.480
1.190E-06,0.400
1.200E-06,0.400
1.210E-06,0.480
1.220E-06,0.320
1.230E-06,0.400
1.240E-06,0.400
1.250E-06,0.320
1.260E-06,0.400
1.270E-06,0.240
1.280E-06,0.160
1.290E-06,0.240
1.300E-06,0.240
1.310E-06,0.240
1.320E-06,0.240
1.330E-06,0.160
1.340E-06,0.320
1.350E-06,0.240
1.360E-06,0.240
1.370E-06,0.240
1.380E-06,0.320
1.390E-06,0.400
1.400E-06,0.320
1.410E-06,0.320
1.420E-06,0.320
1.430E-06,0.240
1.440E-06,0.240
1.450E-06,0.240
1.460E-06,0.160
1.470E-06,0.160
1.480E-06,0.240
1.490E-06,0.080
1.500E-06,0.080
1.510E-06,0.240
1.520E-06,0.160
1.530E-06,0.080
1.540E-06,0.160
1.550E-06,0.080
1.560E-06,0.160
1.570E-06,0.080
1.580E-06,0.160
1.590E-06,0.160
1.600E-06,0.080
1.610E-06,0.080
1.620E-06,0.160
1.630E-06,0.080
1.640E-06,0.080
1.650E-06,0.080
1.660E-06,0.000
1.670E-06,0.080
1.680E-06,0.080
1.690E-06,0.080
1.700E-06,0.080
1.710E-06,0.000
1.720E-06,0.080
1.730E-06,0.000
1.740E-06,0.080
1.750E-06,0.080
1.760E-06,0.080
1.770E-06,0.080
1.780E-06,0.080
1.790E-06,0.240
1.800E-06,0.160
1.810E-06,0.080
1.820E-06,0.160
1.830E-06,0.160
1.840E-06,0.240
1.850E-06,0.160
1.860E-06,0.080
1.870E-06,0.240
1.880E-06,0.320
1.890E-06,0.320
1.900E-06,0.320
1.910E-06,0.400
1.920E-06,0.320
1.930E-06,0.320
1.940E-06,0.320
1.950E-06,0.320
1.960E-06,0.320
1.970E-06,0.240
1.980E-06,0.240
1.990E-06,0.320
2.000E-06,0.240
2.010E-06,0.320
2.020E-06,0.240
2.030E-06,0.240
2.040E-06,0.160
2.050E-06,0.080
2.060E-06,0.160
2.070E-06,0.080
2.080E-06,0.080
2.090E-06,0.080
2.100E-06,0.240
2.110E-06,0.000
2.120E-06,0.000
2.130E-06,0.080
2.140E-06,0.080
2.150E-06,0.080
2.160E-06,-0.080
2.170E-06,-0.080
2.180E-06,0.000
2.190E-06,0.000
2.200E-06,0.080
2.210E-06,0.080
2.220E-06,0.080
2.230E-06,0.240
2.240E-06,0.240
2.250E-06,0.240
2.260E-06,0.080
2.270E-06,0.160
2.280E-06,0.240
2.290E-06,0.160
2.300E-06,0.160
2.310E-06,0.240
2.320E-06,0.240
2.330E-06,0.160
2.340E-06,0.240
2.350E-06,0.320
2.360E-06,0.240
2.370E-06,0.320
2.380E-06,0.320
2.390E-06,0.160
2.400E-06,0.160
2.410E-06,0.240
2.420E-06,0.160
2.430E-06,0.080
2.440E-06,0.080
2.450E-06,-0.080
2.460E-06,0.000
2.470E-06,-0.080
2.480E-06,-0.080
2.490E-06,-0.160
2.500E-06,-0.080
2.510E-06,-0.080
2.520E-06,-0.080
2.530E-06,-0.160
2.540E-06,-0.160
2.550E-06,-0.240
2.560E-06,-0.160
2.570E-06,-0.080
2.580E-06,-0.160
2.590E-06,-0.240
2.600E-06,-0.160
2.610E-06,-0.080
2.620E-06,-0.160
2.630E-06,-0.080
2.640E-06,-0.160
2.650E-06,-0.080
2.660E-06,-0.160
2.670E-06,-0.080
2.680E-06,-0.080
2.690E-06,0.000
2.700E-06,0.000
2.710E-06,0.000
2.720E-06,0.000
2.730E-06,0.080
2.740E-06,-0.080
2.750E-06,0.000
2.760E-06,-0.080
2.770E-06,0.080
2.780E-06,-0.080
2.790E-06,-0.080
2.800E-06,0.000
2.810E-06,0.000
2.820E-06,0.160
2.830E-06,0.160
2.840E-06,0.320
2.850E-06,0.480
2.860E-06,0.720
2.870E-06,0.800
2.880E-06,0.720
2.890E-06,0.800
2.900E-06,0.800
2.910E-06,0.800
2.920E-06,0.880
2.930E-06,0.880
2.940E-06,0.800
2.950E-06,0.800
2.960E-06,0.800
2.970E-06,0.800
2.980E-06,0.880
2.990E-06,0.800
3.000E-06,0.880
3.010E-06,0.880
3.020E-06,1.040
3.030E-06,0.960
3.040E-06,0.960
3.050E-06,0.960
3.060E-06,1.040
3.070E-06,1.040
3.080E-06,1.040
3.090E-06,1.120
3.100E-06,1.040
3.110E-06,1.040
3.120E-06,0.960
3.130E-06,0.960
3.140E-06,0.960
3.150E-06,1.040
3.160E-06,1.040
3.170E-06,1.040
3.180E-06,1.040
3.190E-06,0.960
3.200E-06,1.040
3.210E-06,1.040
3.220E-06,1.040
3.230E-06,1.200
3.240E-06,1.120
3.250E-06,1.200
3.260E-06,1.280
3.270E-06,1.280
3.280E-06,1.280
