mediciones/Mediciones filtradas (saque las feas)/5-15/47.5/WaveData47118.csv

#timebase=2000000(ps)
,#voltbase=100000(mv/100)
#size=4000
-8.400E-06,0.004
-8.390E-06,0.008
-8.380E-06,0.020
-8.370E-06,0.024
-8.360E-06,0.012
-8.350E-06,-0.004
-8.340E-06,-0.004
-8.330E-06,-0.008
-8.320E-06,0.004
-8.310E-06,0.016
-8.300E-06,0.032
-8.290E-06,0.024
-8.280E-06,-0.024
-8.270E-06,-0.064
-8.260E-06,-0.068
-8.250E-06,-0.012
-8.240E-06,0.024
-8.230E-06,0.052
-8.220E-06,0.044
-8.210E-06,0.012
-8.200E-06,-0.016
-8.190E-06,-0.032
-8.180E-06,-0.016
-8.170E-06,-0.024
-8.160E-06,0.012
-8.150E-06,0.032
-8.140E-06,0.028
-8.130E-06,0.008
-8.120E-06,0.004
-8.110E-06,-0.012
-8.100E-06,-0.024
-8.090E-06,-0.016
-8.080E-06,0.000
-8.070E-06,0.008
-8.060E-06,0.024
-8.050E-06,0.024
-8.040E-06,0.012
-8.030E-06,-0.008
-8.020E-06,-0.016
-8.010E-06,-0.008
-8.000E-06,0.000
-7.990E-06,0.016
-7.980E-06,0.020
-7.970E-06,0.020
-7.960E-06,0.004
-7.950E-06,-0.008
-7.940E-06,-0.008
-7.930E-06,-0.008
-7.920E-06,-0.004
-7.910E-06,0.008
-7.900E-06,0.012
-7.890E-06,0.016
-7.880E-06,0.000
-7.870E-06,-0.004
-7.860E-06,-0.004
-7.850E-06,0.000
-7.840E-06,0.004
-7.830E-06,0.008
-7.820E-06,0.012
-7.810E-06,0.008
-7.800E-06,0.008
-7.790E-06,0.004
-7.780E-06,-0.004
-7.770E-06,0.000
-7.760E-06,0.004
-7.750E-06,0.012
-7.740E-06,0.024
-7.730E-06,0.020
-7.720E-06,0.012
-7.710E-06,0.008
-7.700E-06,0.000
-7.690E-06,0.004
-7.680E-06,0.004
-7.670E-06,0.004
-7.660E-06,0.012
-7.650E-06,0.012
-7.640E-06,-0.004
-7.630E-06,-0.072
-7.620E-06,-0.064
-7.610E-06,-0.060
-7.600E-06,-0.008
-7.590E-06,0.056
-7.580E-06,0.100
-7.570E-06,0.080
-7.560E-06,0.000
-7.550E-06,-0.052
-7.540E-06,-0.088
-7.530E-06,-0.052
-7.520E-06,0.024
-7.510E-06,0.080
-7.500E-06,0.072
-7.490E-06,0.028
-7.480E-06,-0.004
-7.470E-06,-0.056
-7.460E-06,-0.044
-7.450E-06,-0.016
-7.440E-06,0.016
-7.430E-06,0.036
-7.420E-06,0.036
-7.410E-06,0.016
-7.400E-06,0.004
-7.390E-06,-0.020
-7.380E-06,-0.024
-7.370E-06,-0.012
-7.360E-06,0.004
-7.350E-06,0.020
-7.340E-06,0.028
-7.330E-06,0.028
-7.320E-06,0.012
-7.310E-06,0.000
-7.300E-06,-0.020
-7.290E-06,-0.012
-7.280E-06,-0.004
-7.270E-06,0.012
-7.260E-06,0.028
-7.250E-06,0.016
-7.240E-06,0.004
-7.230E-06,-0.008
-7.220E-06,-0.008
-7.210E-06,-0.008
-7.200E-06,0.004
-7.190E-06,0.012
-7.180E-06,0.020
-7.170E-06,0.016
-7.160E-06,0.004
-7.150E-06,-0.004
-7.140E-06,-0.008
-7.130E-06,-0.004
-7.120E-06,0.004
-7.110E-06,0.012
-7.100E-06,0.012
-7.090E-06,0.012
-7.080E-06,0.012
-7.070E-06,-0.008
-7.060E-06,0.000
-7.050E-06,0.008
-7.040E-06,0.016
-7.030E-06,0.016
-7.020E-06,0.020
-7.010E-06,-0.008
-7.000E-06,-0.012
-6.990E-06,0.000
-6.980E-06,-0.004
-6.970E-06,-0.012
-6.960E-06,-0.008
-6.950E-06,0.024
-6.940E-06,0.028
-6.930E-06,0.004
-6.920E-06,0.020
-6.910E-06,0.008
-6.900E-06,-0.024
-6.890E-06,-0.020
-6.880E-06,-0.008
-6.870E-06,0.012
-6.860E-06,0.068
-6.850E-06,0.024
-6.840E-06,-0.012
-6.830E-06,0.000
-6.820E-06,0.020
-6.810E-06,-0.008
-6.800E-06,0.000
-6.790E-06,0.024
-6.780E-06,0.028
-6.770E-06,0.020
-6.760E-06,0.016
-6.750E-06,0.016
-6.740E-06,-0.004
-6.730E-06,0.012
-6.720E-06,0.008
-6.710E-06,0.016
-6.700E-06,0.008
-6.690E-06,0.004
-6.680E-06,0.004
-6.670E-06,0.020
-6.660E-06,0.024
-6.650E-06,0.024
-6.640E-06,0.004
-6.630E-06,-0.008
-6.620E-06,-0.004
-6.610E-06,-0.020
-6.600E-06,-0.024
-6.590E-06,-0.016
-6.580E-06,-0.012
-6.570E-06,-0.008
-6.560E-06,-0.008
-6.550E-06,0.000
-6.540E-06,0.020
-6.530E-06,0.028
-6.520E-06,0.004
-6.510E-06,0.000
-6.500E-06,-0.012
-6.490E-06,-0.020
-6.480E-06,-0.004
-6.470E-06,0.016
-6.460E-06,0.028
-6.450E-06,0.028
-6.440E-06,0.016
-6.430E-06,0.000
-6.420E-06,-0.012
-6.410E-06,-0.012
-6.400E-06,-0.008
-6.390E-06,0.008
-6.380E-06,0.028
-6.370E-06,0.044
-6.360E-06,0.044
-6.350E-06,0.020
-6.340E-06,-0.004
-6.330E-06,-0.016
-6.320E-06,-0.020
-6.310E-06,0.000
-6.300E-06,0.004
-6.290E-06,0.028
-6.280E-06,0.024
-6.270E-06,0.012
-6.260E-06,0.000
-6.250E-06,-0.004
-6.240E-06,0.000
-6.230E-06,0.008
-6.220E-06,0.012
-6.210E-06,0.004
-6.200E-06,0.004
-6.190E-06,-0.004
-6.180E-06,-0.004
-6.170E-06,0.008
-6.160E-06,0.024
-6.150E-06,0.028
-6.140E-06,0.032
-6.130E-06,0.024
-6.120E-06,0.004
-6.110E-06,-0.016
-6.100E-06,-0.032
-6.090E-06,-0.028
-6.080E-06,-0.056
-6.070E-06,-0.040
-6.060E-06,0.012
-6.050E-06,0.068
-6.040E-06,0.048
-6.030E-06,0.016
-6.020E-06,-0.032
-6.010E-06,-0.056
-6.000E-06,-0.040
-5.990E-06,0.008
-5.980E-06,0.048
-5.970E-06,0.060
-5.960E-06,0.028
-5.950E-06,-0.016
-5.940E-06,-0.040
-5.930E-06,-0.040
-5.920E-06,0.000
-5.910E-06,0.040
-5.900E-06,0.056
-5.890E-06,0.036
-5.880E-06,0.008
-5.870E-06,-0.008
-5.860E-06,-0.020
-5.850E-06,-0.008
-5.840E-06,0.020
-5.830E-06,0.040
-5.820E-06,0.004
-5.810E-06,-0.008
-5.800E-06,-0.044
-5.790E-06,-0.064
-5.780E-06,-0.024
-5.770E-06,0.028
-5.760E-06,0.060
-5.750E-06,0.056
-5.740E-06,0.020
-5.730E-06,-0.004
-5.720E-06,-0.028
-5.710E-06,-0.036
-5.700E-06,-0.008
-5.690E-06,0.012
-5.680E-06,0.036
-5.670E-06,0.056
-5.660E-06,0.056
-5.650E-06,0.032
-5.640E-06,-0.008
-5.630E-06,-0.032
-5.620E-06,-0.032
-5.610E-06,-0.008
-5.600E-06,0.024
-5.590E-06,0.020
-5.580E-06,-0.116
-5.570E-06,-0.100
-5.560E-06,-0.084
-5.550E-06,-0.008
-5.540E-06,0.084
-5.530E-06,0.172
-5.520E-06,0.152
-5.510E-06,-0.008
-5.500E-06,-0.196
-5.490E-06,-0.308
-5.480E-06,-0.088
-5.470E-06,0.132
-5.460E-06,0.220
-5.450E-06,0.144
-5.440E-06,0.044
-5.430E-06,-0.080
-5.420E-06,-0.152
-5.410E-06,-0.116
-5.400E-06,-0.016
-5.390E-06,0.096
-5.380E-06,0.140
-5.370E-06,0.128
-5.360E-06,0.008
-5.350E-06,-0.068
-5.340E-06,-0.120
-5.330E-06,-0.056
-5.320E-06,0.016
-5.310E-06,0.088
-5.300E-06,0.064
-5.290E-06,0.028
-5.280E-06,-0.016
-5.270E-06,-0.056
-5.260E-06,-0.072
-5.250E-06,-0.028
-5.240E-06,0.044
-5.230E-06,0.068
-5.220E-06,0.076
-5.210E-06,0.036
-5.200E-06,0.000
-5.190E-06,-0.032
-5.180E-06,-0.032
-5.170E-06,0.004
-5.160E-06,0.040
-5.150E-06,0.100
-5.140E-06,0.056
-5.130E-06,-0.016
-5.120E-06,-0.100
-5.110E-06,-0.144
-5.100E-06,-0.108
-5.090E-06,0.024
-5.080E-06,0.124
-5.070E-06,0.156
-5.060E-06,0.104
-5.050E-06,-0.008
-5.040E-06,-0.092
-5.030E-06,-0.104
-5.020E-06,-0.040
-5.010E-06,0.040
-5.000E-06,0.100
-4.990E-06,0.104
-4.980E-06,0.076
-4.970E-06,0.024
-4.960E-06,-0.020
-4.950E-06,-0.064
-4.940E-06,-0.068
-4.930E-06,-0.040
-4.920E-06,0.020
-4.910E-06,0.064
-4.900E-06,0.092
-4.890E-06,0.060
-4.880E-06,-0.012
-4.870E-06,-0.112
-4.860E-06,-0.160
-4.850E-06,-0.012
-4.840E-06,0.128
-4.830E-06,0.156
-4.820E-06,0.140
-4.810E-06,0.032
-4.800E-06,-0.068
-4.790E-06,-0.128
-4.780E-06,-0.072
-4.770E-06,0.008
-4.760E-06,0.076
-4.750E-06,0.076
-4.740E-06,0.060
-4.730E-06,-0.108
-4.720E-06,-0.168
-4.710E-06,-0.164
-4.700E-06,-0.084
-4.690E-06,0.088
-4.680E-06,0.216
-4.670E-06,0.220
-4.660E-06,0.012
-4.650E-06,-0.104
-4.640E-06,-0.156
-4.630E-06,-0.072
-4.620E-06,0.052
-4.610E-06,0.148
-4.600E-06,0.148
-4.590E-06,0.072
-4.580E-06,-0.124
-4.570E-06,-0.308
-4.560E-06,-0.256
-4.550E-06,-0.024
-4.540E-06,0.124
-4.530E-06,0.228
-4.520E-06,0.216
-4.510E-06,0.100
-4.500E-06,-0.076
-4.490E-06,-0.216
-4.480E-06,-0.200
-4.470E-06,-0.052
-4.460E-06,0.140
-4.450E-06,0.248
-4.440E-06,0.216
-4.430E-06,0.056
-4.420E-06,-0.108
-4.410E-06,-0.200
-4.400E-06,-0.180
-4.390E-06,-0.092
-4.380E-06,0.044
-4.370E-06,0.172
-4.360E-06,0.204
-4.350E-06,0.136
-4.340E-06,-0.008
-4.330E-06,-0.136
-4.320E-06,-0.168
-4.310E-06,-0.080
-4.300E-06,0.064
-4.290E-06,0.176
-4.280E-06,0.196
-4.270E-06,0.112
-4.260E-06,-0.028
-4.250E-06,-0.144
-4.240E-06,-0.168
-4.230E-06,-0.068
-4.220E-06,0.092
-4.210E-06,0.180
-4.200E-06,0.144
-4.190E-06,-0.076
-4.180E-06,-0.256
-4.170E-06,-0.260
-4.160E-06,-0.084
-4.150E-06,0.064
-4.140E-06,0.240
-4.130E-06,0.260
-4.120E-06,0.128
-4.110E-06,-0.056
-4.100E-06,-0.228
-4.090E-06,-0.200
-4.080E-06,-0.064
-4.070E-06,0.112
-4.060E-06,0.208
-4.050E-06,0.176
-4.040E-06,0.056
-4.030E-06,-0.064
-4.020E-06,-0.124
-4.010E-06,-0.104
-4.000E-06,-0.084
-3.990E-06,0.000
-3.980E-06,0.068
-3.970E-06,0.092
-3.960E-06,0.084
-3.950E-06,0.064
-3.940E-06,-0.056
-3.930E-06,-0.160
-3.920E-06,-0.172
-3.910E-06,-0.072
-3.900E-06,-0.004
-3.890E-06,0.096
-3.880E-06,0.164
-3.870E-06,0.116
-3.860E-06,0.052
-3.850E-06,-0.092
-3.840E-06,-0.128
-3.830E-06,-0.100
-3.820E-06,0.008
-3.810E-06,0.104
-3.800E-06,0.156
-3.790E-06,0.096
-3.780E-06,0.024
-3.770E-06,-0.036
-3.760E-06,-0.076
-3.750E-06,-0.076
-3.740E-06,-0.028
-3.730E-06,-0.032
-3.720E-06,-0.060
-3.710E-06,-0.020
-3.700E-06,0.036
-3.690E-06,0.048
-3.680E-06,0.060
-3.670E-06,0.024
-3.660E-06,-0.032
-3.650E-06,-0.052
-3.640E-06,-0.052
-3.630E-06,-0.012
-3.620E-06,0.044
-3.610E-06,0.072
-3.600E-06,0.056
-3.590E-06,0.012
-3.580E-06,-0.040
-3.570E-06,-0.056
-3.560E-06,-0.028
-3.550E-06,0.012
-3.540E-06,0.036
-3.530E-06,0.048
-3.520E-06,0.032
-3.510E-06,0.012
-3.500E-06,-0.004
-3.490E-06,-0.024
-3.480E-06,-0.016
-3.470E-06,-0.004
-3.460E-06,0.020
-3.450E-06,0.040
-3.440E-06,0.036
-3.430E-06,0.024
-3.420E-06,0.008
-3.410E-06,-0.004
-3.400E-06,-0.004
-3.390E-06,0.004
-3.380E-06,0.012
-3.370E-06,0.028
-3.360E-06,0.024
-3.350E-06,0.016
-3.340E-06,-0.008
-3.330E-06,-0.004
-3.320E-06,-0.008
-3.310E-06,0.008
-3.300E-06,0.032
-3.290E-06,0.048
-3.280E-06,0.036
-3.270E-06,0.020
-3.260E-06,0.008
-3.250E-06,-0.004
-3.240E-06,0.012
-3.230E-06,0.028
-3.220E-06,0.024
-3.210E-06,0.008
-3.200E-06,-0.072
-3.190E-06,-0.184
-3.180E-06,-0.216
-3.170E-06,-0.136
-3.160E-06,0.068
-3.150E-06,0.192
-3.140E-06,0.236
-3.130E-06,0.124
-3.120E-06,-0.052
-3.110E-06,-0.172
-3.100E-06,-0.200
-3.090E-06,-0.068
-3.080E-06,0.088
-3.070E-06,0.168
-3.060E-06,0.152
-3.050E-06,0.064
-3.040E-06,-0.068
-3.030E-06,-0.124
-3.020E-06,-0.104
-3.010E-06,-0.016
-3.000E-06,0.056
-2.990E-06,0.092
-2.980E-06,0.088
-2.970E-06,0.028
-2.960E-06,-0.020
-2.950E-06,-0.064
-2.940E-06,-0.056
-2.930E-06,-0.024
-2.920E-06,0.036
-2.910E-06,0.072
-2.900E-06,0.080
-2.890E-06,0.036
-2.880E-06,-0.004
-2.870E-06,-0.056
-2.860E-06,-0.044
-2.850E-06,-0.008
-2.840E-06,0.028
-2.830E-06,0.056
-2.820E-06,0.056
-2.810E-06,0.028
-2.800E-06,-0.008
-2.790E-06,-0.020
-2.780E-06,-0.020
-2.770E-06,0.004
-2.760E-06,0.036
-2.750E-06,0.060
-2.740E-06,0.056
-2.730E-06,0.028
-2.720E-06,0.008
-2.710E-06,0.004
-2.700E-06,0.008
-2.690E-06,0.008
-2.680E-06,-0.032
-2.670E-06,-0.292
-2.660E-06,-0.248
-2.650E-06,-0.212
-2.640E-06,-0.036
-2.630E-06,0.172
-2.620E-06,0.388
-2.610E-06,0.328
-2.600E-06,0.028
-2.590E-06,-0.172
-2.580E-06,-0.320
-2.570E-06,-0.208
-2.560E-06,-0.004
-2.550E-06,0.196
-2.540E-06,0.232
-2.530E-06,0.180
-2.520E-06,0.040
-2.510E-06,-0.088
-2.500E-06,-0.152
-2.490E-06,-0.144
-2.480E-06,-0.060
-2.470E-06,0.028
-2.460E-06,0.104
-2.450E-06,0.096
-2.440E-06,0.092
-2.430E-06,0.012
-2.420E-06,-0.056
-2.410E-06,-0.100
-2.400E-06,-0.052
-2.390E-06,0.028
-2.380E-06,0.100
-2.370E-06,0.120
-2.360E-06,0.056
-2.350E-06,-0.020
-2.340E-06,-0.072
-2.330E-06,-0.048
-2.320E-06,-0.004
-2.310E-06,0.064
-2.300E-06,0.088
-2.290E-06,0.076
-2.280E-06,0.032
-2.270E-06,-0.028
-2.260E-06,-0.212
-2.250E-06,-0.188
-2.240E-06,-0.164
-2.230E-06,-0.072
-2.220E-06,0.072
-2.210E-06,0.244
-2.200E-06,0.276
-2.190E-06,0.096
-2.180E-06,-0.092
-2.170E-06,-0.248
-2.160E-06,-0.188
-2.150E-06,-0.040
-2.140E-06,0.136
-2.130E-06,0.196
-2.120E-06,0.160
-2.110E-06,0.040
-2.100E-06,-0.084
-2.090E-06,-0.124
-2.080E-06,-0.100
-2.070E-06,0.012
-2.060E-06,0.092
-2.050E-06,0.140
-2.040E-06,0.084
-2.030E-06,0.012
-2.020E-06,-0.072
-2.010E-06,-0.092
-2.000E-06,-0.060
-1.990E-06,0.012
-1.980E-06,0.088
-1.970E-06,0.124
-1.960E-06,0.096
-1.950E-06,0.016
-1.940E-06,-0.056
-1.930E-06,-0.092
-1.920E-06,-0.056
-1.910E-06,0.004
-1.900E-06,0.076
-1.890E-06,0.108
-1.880E-06,0.076
-1.870E-06,0.008
-1.860E-06,-0.060
-1.850E-06,-0.076
-1.840E-06,-0.052
-1.830E-06,0.008
-1.820E-06,0.060
-1.810E-06,0.092
-1.800E-06,0.072
-1.790E-06,0.020
-1.780E-06,-0.020
-1.770E-06,-0.036
-1.760E-06,-0.020
-1.750E-06,0.016
-1.740E-06,0.068
-1.730E-06,0.044
-1.720E-06,-0.156
-1.710E-06,-0.204
-1.700E-06,-0.220
-1.690E-06,-0.100
-1.680E-06,0.072
-1.670E-06,0.260
-1.660E-06,0.312
-1.650E-06,0.148
-1.640E-06,-0.052
-1.630E-06,-0.224
-1.620E-06,-0.180
-1.610E-06,-0.032
-1.600E-06,0.144
-1.590E-06,0.216
-1.580E-06,0.208
-1.570E-06,0.108
-1.560E-06,-0.048
-1.550E-06,-0.160
-1.540E-06,-0.212
-1.530E-06,-0.172
-1.520E-06,-0.044
-1.510E-06,0.120
-1.500E-06,0.196
-1.490E-06,0.184
-1.480E-06,0.056
-1.470E-06,-0.084
-1.460E-06,-0.164
-1.450E-06,-0.116
-1.440E-06,0.008
-1.430E-06,0.128
-1.420E-06,0.152
-1.410E-06,0.088
-1.400E-06,-0.004
-1.390E-06,-0.068
-1.380E-06,-0.068
-1.370E-06,-0.028
-1.360E-06,0.028
-1.350E-06,0.068
-1.340E-06,0.076
-1.330E-06,0.064
-1.320E-06,0.056
-1.310E-06,-0.008
-1.300E-06,-0.052
-1.290E-06,-0.088
-1.280E-06,-0.136
-1.270E-06,-0.088
-1.260E-06,0.072
-1.250E-06,0.160
-1.240E-06,0.176
-1.230E-06,0.120
-1.220E-06,-0.008
-1.210E-06,-0.104
-1.200E-06,-0.132
-1.190E-06,-0.032
-1.180E-06,-0.004
-1.170E-06,0.060
-1.160E-06,-0.012
-1.150E-06,-0.076
-1.140E-06,-0.052
-1.130E-06,-0.068
-1.120E-06,-0.080
-1.110E-06,-0.112
-1.100E-06,-0.024
-1.090E-06,0.064
-1.080E-06,0.120
-1.070E-06,0.088
-1.060E-06,0.012
-1.050E-06,-0.056
-1.040E-06,-0.072
-1.030E-06,-0.024
-1.020E-06,0.000
-1.010E-06,0.048
-1.000E-06,0.040
-9.900E-07,0.044
-9.800E-07,0.012
-9.700E-07,0.008
-9.600E-07,0.020
-9.500E-07,0.044
-9.400E-07,0.064
-9.300E-07,0.020
-9.200E-07,-0.056
-9.100E-07,-0.104
-9.000E-07,-0.064
-8.900E-07,-0.076
-8.800E-07,-0.064
-8.700E-07,0.000
-8.600E-07,0.124
-8.500E-07,0.112
-8.400E-07,0.036
-8.300E-07,-0.068
-8.200E-07,-0.100
-8.100E-07,-0.052
-8.000E-07,0.028
-7.900E-07,0.088
-7.800E-07,0.080
-7.700E-07,0.048
-7.600E-07,-0.004
-7.500E-07,-0.036
-7.400E-07,-0.052
-7.300E-07,-0.032
-7.200E-07,0.024
-7.100E-07,0.076
-7.000E-07,0.088
-6.900E-07,0.052
-6.800E-07,0.008
-6.700E-07,-0.024
-6.600E-07,-0.008
-6.500E-07,0.020
-6.400E-07,0.052
-6.300E-07,0.072
-6.200E-07,0.076
-6.100E-07,0.072
-6.000E-07,0.048
-5.900E-07,0.016
-5.800E-07,0.012
-5.700E-07,0.016
-5.600E-07,0.008
-5.500E-07,0.020
-5.400E-07,0.008
-5.300E-07,-0.004
-5.200E-07,-0.028
-5.100E-07,-0.008
-5.000E-07,0.000
-4.900E-07,0.040
-4.800E-07,0.056
-4.700E-07,0.044
-4.600E-07,-0.040
-4.500E-07,-0.164
-4.400E-07,-0.160
-4.300E-07,-0.032
-4.200E-07,0.064
-4.100E-07,0.136
-4.000E-07,0.120
-3.900E-07,0.052
-3.800E-07,0.000
-3.700E-07,-0.028
-3.600E-07,0.016
-3.500E-07,0.056
-3.400E-07,0.016
-3.300E-07,0.008
-3.200E-07,-0.080
-3.100E-07,-0.100
-3.000E-07,-0.136
-2.900E-07,-0.124
-2.800E-07,-0.124
-2.700E-07,-0.064
-2.600E-07,0.016
-2.500E-07,0.132
-2.400E-07,0.192
-2.300E-07,0.108
-2.200E-07,-0.004
-2.100E-07,-0.120
-2.000E-07,-0.100
-1.900E-07,-0.016
-1.800E-07,0.120
-1.700E-07,0.176
-1.600E-07,0.196
-1.500E-07,0.132
-1.400E-07,0.036
-1.300E-07,-0.040
-1.200E-07,-0.056
-1.100E-07,-0.008
-1.000E-07,0.060
-9.000E-08,0.124
-8.000E-08,0.120
-7.000E-08,0.072
-6.000E-08,-0.108
-5.000E-08,-0.452
-4.000E-08,-0.508
-3.000E-08,-0.488
-2.000E-08,-0.028
-1.000E-08,0.360
0.000E+00,0.544
1.000E-08,0.540
2.000E-08,0.148
3.000E-08,-0.316
4.000E-08,-0.504
5.000E-08,-0.308
6.000E-08,0.088
7.000E-08,0.308
8.000E-08,0.296
9.000E-08,0.104
1.000E-07,-0.236
1.100E-07,-0.404
1.200E-07,-0.308
1.300E-07,-0.048
1.400E-07,0.196
1.500E-07,0.296
1.600E-07,0.204
1.700E-07,0.016
1.800E-07,-0.116
1.900E-07,-0.184
2.000E-07,-0.120
2.100E-07,-0.004
2.200E-07,0.092
2.300E-07,0.056
2.400E-07,-0.016
2.500E-07,-0.052
2.600E-07,-0.056
2.700E-07,-0.060
2.800E-07,0.020
2.900E-07,0.004
3.000E-07,-0.008
3.100E-07,0.020
3.200E-07,0.044
3.300E-07,0.048
3.400E-07,0.032
3.500E-07,-0.008
3.600E-07,-0.028
3.700E-07,0.012
3.800E-07,0.044
3.900E-07,0.068
4.000E-07,0.056
4.100E-07,-0.012
4.200E-07,-0.072
4.300E-07,-0.076
4.400E-07,-0.044
4.500E-07,0.016
4.600E-07,0.060
4.700E-07,0.060
4.800E-07,0.036
4.900E-07,0.016
5.000E-07,-0.004
5.100E-07,-0.028
5.200E-07,-0.024
5.300E-07,-0.024
5.400E-07,0.000
5.500E-07,0.040
5.600E-07,0.076
5.700E-07,0.052
5.800E-07,0.000
5.900E-07,-0.040
6.000E-07,-0.048
6.100E-07,-0.012
6.200E-07,0.016
6.300E-07,0.044
6.400E-07,0.048
6.500E-07,0.032
6.600E-07,0.004
6.700E-07,-0.020
6.800E-07,-0.036
6.900E-07,-0.028
7.000E-07,-0.004
7.100E-07,0.028
7.200E-07,0.060
7.300E-07,0.052
7.400E-07,0.020
7.500E-07,-0.008
7.600E-07,-0.032
7.700E-07,-0.020
7.800E-07,0.004
7.900E-07,0.032
8.000E-07,0.052
8.100E-07,0.044
8.200E-07,0.024
8.300E-07,0.004
8.400E-07,-0.004
8.500E-07,0.004
8.600E-07,0.020
8.700E-07,0.044
8.800E-07,0.060
8.900E-07,0.052
9.000E-07,0.028
9.100E-07,0.008
9.200E-07,-0.008
9.300E-07,-0.016
9.400E-07,-0.004
9.500E-07,0.028
9.600E-07,0.060
9.700E-07,0.088
9.800E-07,0.032
9.900E-07,-0.060
1.000E-06,-0.108
1.010E-06,-0.104
1.020E-06,-0.120
1.030E-06,-0.072
1.040E-06,-0.036
1.050E-06,-0.040
1.060E-06,-0.008
1.070E-06,0.088
1.080E-06,0.092
1.090E-06,0.008
1.100E-06,-0.064
1.110E-06,-0.080
1.120E-06,-0.004
1.130E-06,0.092
1.140E-06,0.124
1.150E-06,0.068
1.160E-06,0.008
1.170E-06,-0.032
1.180E-06,-0.008
1.190E-06,0.024
1.200E-06,0.068
1.210E-06,0.104
1.220E-06,0.088
1.230E-06,0.088
1.240E-06,0.044
1.250E-06,0.000
1.260E-06,-0.036
1.270E-06,-0.048
1.280E-06,-0.176
1.290E-06,-0.292
1.300E-06,-0.256
1.310E-06,-0.044
1.320E-06,0.136
1.330E-06,0.248
1.340E-06,0.180
1.350E-06,-0.016
1.360E-06,-0.136
1.370E-06,-0.168
1.380E-06,-0.060
1.390E-06,0.056
1.400E-06,0.152
1.410E-06,0.176
1.420E-06,0.144
1.430E-06,0.056
1.440E-06,-0.052
1.450E-06,-0.120
1.460E-06,-0.216
1.470E-06,-0.244
1.480E-06,-0.172
1.490E-06,-0.032
1.500E-06,0.096
1.510E-06,0.232
1.520E-06,0.192
1.530E-06,0.004
1.540E-06,-0.140
1.550E-06,-0.172
1.560E-06,-0.076
1.570E-06,0.060
1.580E-06,0.124
1.590E-06,0.088
1.600E-06,0.044
1.610E-06,-0.004
1.620E-06,-0.008
1.630E-06,-0.016
1.640E-06,-0.004
1.650E-06,-0.012
1.660E-06,0.008
1.670E-06,0.048
1.680E-06,0.076
1.690E-06,0.076
1.700E-06,0.052
1.710E-06,0.000
1.720E-06,-0.064
1.730E-06,-0.080
1.740E-06,-0.060
1.750E-06,-0.004
1.760E-06,0.040
1.770E-06,0.064
1.780E-06,0.068
1.790E-06,0.040
1.800E-06,0.000
1.810E-06,-0.048
1.820E-06,-0.056
1.830E-06,-0.028
1.840E-06,0.016
1.850E-06,0.068
1.860E-06,0.096
1.870E-06,0.088
1.880E-06,0.060
1.890E-06,0.012
1.900E-06,-0.036
1.910E-06,-0.060
1.920E-06,-0.032
1.930E-06,0.016
1.940E-06,0.076
1.950E-06,0.104
1.960E-06,0.092
1.970E-06,0.036
1.980E-06,-0.020
1.990E-06,-0.052
2.000E-06,-0.044
2.010E-06,0.008
2.020E-06,0.064
2.030E-06,0.116
2.040E-06,0.112
2.050E-06,0.068
2.060E-06,-0.044
2.070E-06,-0.172
2.080E-06,-0.244
2.090E-06,-0.220
2.100E-06,-0.088
2.110E-06,0.080
2.120E-06,0.208
2.130E-06,0.180
2.140E-06,0.028
2.150E-06,-0.112
2.160E-06,-0.156
2.170E-06,-0.076
2.180E-06,0.012
2.190E-06,0.084
2.200E-06,0.076
2.210E-06,-0.004
2.220E-06,-0.072
2.230E-06,-0.108
2.240E-06,-0.084
2.250E-06,-0.028
2.260E-06,0.072
2.270E-06,0.096
2.280E-06,0.092
2.290E-06,0.068
2.300E-06,0.036
2.310E-06,-0.008
2.320E-06,-0.028
2.330E-06,-0.084
2.340E-06,-0.136
2.350E-06,-0.100
2.360E-06,-0.040
2.370E-06,-0.004
2.380E-06,0.072
2.390E-06,0.068
2.400E-06,0.024
2.410E-06,-0.024
2.420E-06,-0.032
2.430E-06,-0.020
2.440E-06,-0.004
2.450E-06,0.012
2.460E-06,0.012
2.470E-06,0.036
2.480E-06,0.036
2.490E-06,0.028
2.500E-06,-0.012
2.510E-06,-0.024
2.520E-06,-0.044
2.530E-06,-0.040
2.540E-06,-0.004
2.550E-06,0.028
2.560E-06,0.044
2.570E-06,0.048
2.580E-06,0.024
2.590E-06,0.000
2.600E-06,-0.012
2.610E-06,-0.032
2.620E-06,-0.028
2.630E-06,-0.008
2.640E-06,0.020
2.650E-06,0.048
2.660E-06,0.052
2.670E-06,0.028
2.680E-06,-0.008
2.690E-06,-0.044
2.700E-06,-0.044
2.710E-06,-0.020
2.720E-06,0.012
2.730E-06,0.048
2.740E-06,0.052
2.750E-06,0.036
2.760E-06,0.004
2.770E-06,-0.028
2.780E-06,-0.040
2.790E-06,-0.036
2.800E-06,0.004
2.810E-06,0.036
2.820E-06,0.056
2.830E-06,0.048
2.840E-06,0.020
2.850E-06,-0.016
2.860E-06,-0.036
2.870E-06,-0.036
2.880E-06,-0.004
2.890E-06,0.024
2.900E-06,0.048
2.910E-06,0.056
2.920E-06,0.024
2.930E-06,-0.004
2.940E-06,-0.024
2.950E-06,-0.024
2.960E-06,-0.012
2.970E-06,0.008
2.980E-06,0.044
2.990E-06,0.056
3.000E-06,0.036
3.010E-06,0.016
3.020E-06,-0.004
3.030E-06,-0.016
3.040E-06,-0.008
3.050E-06,0.020
3.060E-06,0.040
3.070E-06,0.052
3.080E-06,0.056
3.090E-06,0.028
3.100E-06,0.000
3.110E-06,-0.028
3.120E-06,-0.024
3.130E-06,0.000
3.140E-06,0.036
3.150E-06,0.040
3.160E-06,0.040
3.170E-06,0.052
3.180E-06,0.040
3.190E-06,0.028
3.200E-06,0.016
3.210E-06,0.012
