mediciones/Mediciones filtradas (saque las feas)/5-15/47.5/WaveData47127.csv

#timebase=2000000(ps)
,#voltbase=100000(mv/100)
#size=4000
-8.400E-06,0.008
-8.390E-06,0.004
-8.380E-06,0.008
-8.370E-06,0.004
-8.360E-06,0.008
-8.350E-06,0.012
-8.340E-06,0.004
-8.330E-06,-0.008
-8.320E-06,-0.016
-8.310E-06,-0.004
-8.300E-06,0.012
-8.290E-06,0.024
-8.280E-06,0.024
-8.270E-06,0.012
-8.260E-06,-0.008
-8.250E-06,-0.024
-8.240E-06,-0.016
-8.230E-06,0.004
-8.220E-06,0.028
-8.210E-06,0.028
-8.200E-06,0.016
-8.190E-06,0.000
-8.180E-06,-0.012
-8.170E-06,-0.012
-8.160E-06,-0.008
-8.150E-06,0.008
-8.140E-06,0.004
-8.130E-06,0.008
-8.120E-06,-0.008
-8.110E-06,-0.008
-8.100E-06,-0.012
-8.090E-06,0.000
-8.080E-06,0.004
-8.070E-06,0.012
-8.060E-06,0.012
-8.050E-06,-0.004
-8.040E-06,-0.008
-8.030E-06,-0.012
-8.020E-06,0.000
-8.010E-06,0.008
-8.000E-06,0.012
-7.990E-06,0.008
-7.980E-06,0.004
-7.970E-06,-0.008
-7.960E-06,-0.012
-7.950E-06,-0.008
-7.940E-06,0.012
-7.930E-06,0.008
-7.920E-06,0.012
-7.910E-06,0.008
-7.900E-06,-0.004
-7.890E-06,-0.004
-7.880E-06,-0.004
-7.870E-06,0.000
-7.860E-06,0.000
-7.850E-06,0.004
-7.840E-06,0.004
-7.830E-06,0.000
-7.820E-06,0.004
-7.810E-06,0.008
-7.800E-06,-0.004
-7.790E-06,0.000
-7.780E-06,-0.004
-7.770E-06,0.000
-7.760E-06,0.004
-7.750E-06,0.008
-7.740E-06,0.008
-7.730E-06,0.004
-7.720E-06,0.004
-7.710E-06,-0.008
-7.700E-06,0.000
-7.690E-06,0.008
-7.680E-06,0.008
-7.670E-06,0.008
-7.660E-06,0.000
-7.650E-06,-0.004
-7.640E-06,-0.004
-7.630E-06,-0.004
-7.620E-06,0.008
-7.610E-06,0.012
-7.600E-06,0.008
-7.590E-06,0.004
-7.580E-06,0.000
-7.570E-06,-0.004
-7.560E-06,0.000
-7.550E-06,0.004
-7.540E-06,0.016
-7.530E-06,0.016
-7.520E-06,0.016
-7.510E-06,0.000
-7.500E-06,-0.004
-7.490E-06,-0.004
-7.480E-06,0.000
-7.470E-06,0.000
-7.460E-06,0.004
-7.450E-06,0.012
-7.440E-06,0.008
-7.430E-06,0.012
-7.420E-06,0.004
-7.410E-06,0.000
-7.400E-06,-0.004
-7.390E-06,-0.004
-7.380E-06,0.008
-7.370E-06,0.012
-7.360E-06,0.020
-7.350E-06,0.024
-7.340E-06,0.008
-7.330E-06,-0.008
-7.320E-06,-0.020
-7.310E-06,-0.016
-7.300E-06,-0.004
-7.290E-06,0.020
-7.280E-06,0.024
-7.270E-06,0.012
-7.260E-06,0.004
-7.250E-06,-0.004
-7.240E-06,-0.004
-7.230E-06,-0.004
-7.220E-06,0.008
-7.210E-06,0.004
-7.200E-06,0.004
-7.190E-06,0.004
-7.180E-06,-0.004
-7.170E-06,0.004
-7.160E-06,0.004
-7.150E-06,0.008
-7.140E-06,0.004
-7.130E-06,0.000
-7.120E-06,0.004
-7.110E-06,0.004
-7.100E-06,0.012
-7.090E-06,0.004
-7.080E-06,0.004
-7.070E-06,-0.004
-7.060E-06,0.000
-7.050E-06,0.012
-7.040E-06,0.016
-7.030E-06,0.016
-7.020E-06,0.004
-7.010E-06,-0.012
-7.000E-06,-0.020
-6.990E-06,-0.012
-6.980E-06,0.008
-6.970E-06,0.024
-6.960E-06,0.024
-6.950E-06,0.008
-6.940E-06,-0.016
-6.930E-06,-0.024
-6.920E-06,0.004
-6.910E-06,0.028
-6.900E-06,0.032
-6.890E-06,0.020
-6.880E-06,-0.024
-6.870E-06,-0.040
-6.860E-06,-0.024
-6.850E-06,0.004
-6.840E-06,0.048
-6.830E-06,0.044
-6.820E-06,0.012
-6.810E-06,-0.024
-6.800E-06,-0.044
-6.790E-06,-0.028
-6.780E-06,0.008
-6.770E-06,0.044
-6.760E-06,0.040
-6.750E-06,0.016
-6.740E-06,-0.016
-6.730E-06,-0.032
-6.720E-06,-0.016
-6.710E-06,0.000
-6.700E-06,0.024
-6.690E-06,0.024
-6.680E-06,0.016
-6.670E-06,-0.004
-6.660E-06,0.000
-6.650E-06,-0.008
-6.640E-06,-0.008
-6.630E-06,-0.004
-6.620E-06,0.012
-6.610E-06,0.008
-6.600E-06,0.016
-6.590E-06,0.012
-6.580E-06,0.008
-6.570E-06,0.004
-6.560E-06,-0.012
-6.550E-06,-0.004
-6.540E-06,-0.008
-6.530E-06,0.000
-6.520E-06,0.008
-6.510E-06,0.008
-6.500E-06,0.004
-6.490E-06,-0.004
-6.480E-06,-0.008
-6.470E-06,0.000
-6.460E-06,0.012
-6.450E-06,0.020
-6.440E-06,0.016
-6.430E-06,-0.012
-6.420E-06,-0.024
-6.410E-06,-0.012
-6.400E-06,0.012
-6.390E-06,0.020
-6.380E-06,0.028
-6.370E-06,0.004
-6.360E-06,-0.012
-6.350E-06,-0.024
-6.340E-06,-0.012
-6.330E-06,0.004
-6.320E-06,0.012
-6.310E-06,0.020
-6.300E-06,0.016
-6.290E-06,0.004
-6.280E-06,-0.004
-6.270E-06,-0.004
-6.260E-06,0.000
-6.250E-06,0.008
-6.240E-06,0.008
-6.230E-06,0.008
-6.220E-06,0.012
-6.210E-06,0.000
-6.200E-06,-0.004
-6.190E-06,-0.004
-6.180E-06,0.000
-6.170E-06,0.004
-6.160E-06,0.004
-6.150E-06,0.008
-6.140E-06,0.000
-6.130E-06,-0.004
-6.120E-06,0.000
-6.110E-06,-0.004
-6.100E-06,0.000
-6.090E-06,0.008
-6.080E-06,0.012
-6.070E-06,0.004
-6.060E-06,0.000
-6.050E-06,0.000
-6.040E-06,0.000
-6.030E-06,0.000
-6.020E-06,0.004
-6.010E-06,-0.004
-6.000E-06,-0.004
-5.990E-06,0.000
-5.980E-06,0.004
-5.970E-06,0.012
-5.960E-06,0.004
-5.950E-06,-0.004
-5.940E-06,-0.004
-5.930E-06,-0.008
-5.920E-06,0.004
-5.910E-06,0.004
-5.900E-06,0.008
-5.890E-06,0.008
-5.880E-06,0.000
-5.870E-06,-0.004
-5.860E-06,0.000
-5.850E-06,-0.004
-5.840E-06,0.000
-5.830E-06,0.012
-5.820E-06,0.016
-5.810E-06,0.004
-5.800E-06,0.000
-5.790E-06,-0.004
-5.780E-06,-0.004
-5.770E-06,0.000
-5.760E-06,0.004
-5.750E-06,0.008
-5.740E-06,0.008
-5.730E-06,0.008
-5.720E-06,0.008
-5.710E-06,0.000
-5.700E-06,-0.004
-5.690E-06,-0.004
-5.680E-06,0.000
-5.670E-06,0.004
-5.660E-06,0.008
-5.650E-06,0.008
-5.640E-06,0.008
-5.630E-06,0.004
-5.620E-06,-0.004
-5.610E-06,-0.004
-5.600E-06,-0.004
-5.590E-06,0.000
-5.580E-06,0.004
-5.570E-06,0.008
-5.560E-06,0.012
-5.550E-06,0.004
-5.540E-06,0.004
-5.530E-06,0.000
-5.520E-06,0.000
-5.510E-06,0.004
-5.500E-06,0.008
-5.490E-06,0.012
-5.480E-06,0.012
-5.470E-06,0.004
-5.460E-06,0.004
-5.450E-06,0.004
-5.440E-06,0.000
-5.430E-06,0.000
-5.420E-06,0.008
-5.410E-06,0.004
-5.400E-06,0.000
-5.390E-06,0.004
-5.380E-06,-0.004
-5.370E-06,-0.004
-5.360E-06,0.008
-5.350E-06,0.004
-5.340E-06,0.008
-5.330E-06,0.000
-5.320E-06,-0.004
-5.310E-06,-0.004
-5.300E-06,0.004
-5.290E-06,0.016
-5.280E-06,0.020
-5.270E-06,0.020
-5.260E-06,0.016
-5.250E-06,0.004
-5.240E-06,-0.008
-5.230E-06,-0.016
-5.220E-06,-0.008
-5.210E-06,-0.008
-5.200E-06,0.012
-5.190E-06,0.016
-5.180E-06,0.016
-5.170E-06,-0.004
-5.160E-06,-0.028
-5.150E-06,-0.024
-5.140E-06,-0.012
-5.130E-06,0.008
-5.120E-06,0.028
-5.110E-06,0.032
-5.100E-06,0.012
-5.090E-06,-0.008
-5.080E-06,-0.036
-5.070E-06,-0.024
-5.060E-06,-0.004
-5.050E-06,0.028
-5.040E-06,0.032
-5.030E-06,0.028
-5.020E-06,0.004
-5.010E-06,-0.016
-5.000E-06,-0.012
-4.990E-06,-0.012
-4.980E-06,0.000
-4.970E-06,0.012
-4.960E-06,0.016
-4.950E-06,0.012
-4.940E-06,-0.004
-4.930E-06,0.000
-4.920E-06,-0.008
-4.910E-06,0.000
-4.900E-06,0.004
-4.890E-06,0.012
-4.880E-06,0.016
-4.870E-06,0.012
-4.860E-06,0.000
-4.850E-06,-0.008
-4.840E-06,-0.012
-4.830E-06,-0.008
-4.820E-06,0.004
-4.810E-06,0.008
-4.800E-06,0.012
-4.790E-06,0.016
-4.780E-06,0.008
-4.770E-06,0.000
-4.760E-06,-0.004
-4.750E-06,-0.008
-4.740E-06,-0.008
-4.730E-06,0.004
-4.720E-06,0.012
-4.710E-06,0.016
-4.700E-06,0.008
-4.690E-06,0.008
-4.680E-06,-0.004
-4.670E-06,-0.012
-4.660E-06,-0.008
-4.650E-06,0.000
-4.640E-06,0.016
-4.630E-06,0.028
-4.620E-06,0.016
-4.610E-06,0.008
-4.600E-06,-0.004
-4.590E-06,-0.004
-4.580E-06,-0.004
-4.570E-06,0.004
-4.560E-06,0.012
-4.550E-06,0.020
-4.540E-06,0.012
-4.530E-06,0.000
-4.520E-06,-0.008
-4.510E-06,0.000
-4.500E-06,0.004
-4.490E-06,0.012
-4.480E-06,0.016
-4.470E-06,0.012
-4.460E-06,0.008
-4.450E-06,0.000
-4.440E-06,0.000
-4.430E-06,0.000
-4.420E-06,0.000
-4.410E-06,0.008
-4.400E-06,0.008
-4.390E-06,0.016
-4.380E-06,0.012
-4.370E-06,0.012
-4.360E-06,0.008
-4.350E-06,0.000
-4.340E-06,-0.004
-4.330E-06,-0.008
-4.320E-06,-0.004
-4.310E-06,0.012
-4.300E-06,0.024
-4.290E-06,0.028
-4.280E-06,0.028
-4.270E-06,0.008
-4.260E-06,-0.004
-4.250E-06,-0.020
-4.240E-06,-0.024
-4.230E-06,-0.004
-4.220E-06,0.024
-4.210E-06,0.036
-4.200E-06,0.036
-4.190E-06,0.016
-4.180E-06,-0.036
-4.170E-06,-0.064
-4.160E-06,-0.068
-4.150E-06,-0.040
-4.140E-06,0.008
-4.130E-06,0.060
-4.120E-06,0.096
-4.110E-06,0.044
-4.100E-06,-0.008
-4.090E-06,-0.072
-4.080E-06,-0.084
-4.070E-06,-0.040
-4.060E-06,0.028
-4.050E-06,0.072
-4.040E-06,0.072
-4.030E-06,0.040
-4.020E-06,-0.028
-4.010E-06,-0.056
-4.000E-06,-0.056
-3.990E-06,-0.012
-3.980E-06,0.024
-3.970E-06,0.052
-3.960E-06,0.048
-3.950E-06,0.012
-3.940E-06,-0.008
-3.930E-06,-0.032
-3.920E-06,-0.028
-3.910E-06,-0.012
-3.900E-06,0.000
-3.890E-06,0.012
-3.880E-06,0.016
-3.870E-06,0.016
-3.860E-06,0.008
-3.850E-06,0.004
-3.840E-06,-0.012
-3.830E-06,-0.020
-3.820E-06,-0.020
-3.810E-06,0.000
-3.800E-06,0.024
-3.790E-06,0.036
-3.780E-06,0.028
-3.770E-06,0.008
-3.760E-06,-0.016
-3.750E-06,-0.028
-3.740E-06,-0.020
-3.730E-06,0.012
-3.720E-06,0.036
-3.710E-06,0.036
-3.700E-06,0.016
-3.690E-06,0.000
-3.680E-06,-0.020
-3.670E-06,-0.028
-3.660E-06,-0.008
-3.650E-06,0.008
-3.640E-06,0.024
-3.630E-06,0.028
-3.620E-06,0.016
-3.610E-06,0.000
-3.600E-06,-0.008
-3.590E-06,-0.008
-3.580E-06,-0.008
-3.570E-06,0.000
-3.560E-06,0.016
-3.550E-06,0.028
-3.540E-06,0.020
-3.530E-06,0.016
-3.520E-06,0.000
-3.510E-06,-0.008
-3.500E-06,-0.008
-3.490E-06,0.000
-3.480E-06,0.012
-3.470E-06,0.028
-3.460E-06,0.028
-3.450E-06,0.012
-3.440E-06,0.000
-3.430E-06,-0.012
-3.420E-06,-0.024
-3.410E-06,-0.004
-3.400E-06,0.012
-3.390E-06,0.028
-3.380E-06,0.024
-3.370E-06,0.008
-3.360E-06,-0.008
-3.350E-06,-0.020
-3.340E-06,-0.016
-3.330E-06,0.000
-3.320E-06,0.024
-3.310E-06,0.036
-3.300E-06,0.036
-3.290E-06,0.012
-3.280E-06,-0.008
-3.270E-06,-0.020
-3.260E-06,-0.020
-3.250E-06,0.000
-3.240E-06,0.024
-3.230E-06,0.040
-3.220E-06,0.040
-3.210E-06,0.020
-3.200E-06,0.008
-3.190E-06,-0.008
-3.180E-06,-0.012
-3.170E-06,-0.008
-3.160E-06,-0.004
-3.150E-06,0.016
-3.140E-06,0.020
-3.130E-06,0.024
-3.120E-06,0.012
-3.110E-06,-0.004
-3.100E-06,-0.008
-3.090E-06,-0.012
-3.080E-06,-0.004
-3.070E-06,0.016
-3.060E-06,0.028
-3.050E-06,0.040
-3.040E-06,0.032
-3.030E-06,0.008
-3.020E-06,0.004
-3.010E-06,0.000
-3.000E-06,-0.012
-2.990E-06,-0.008
-2.980E-06,0.000
-2.970E-06,0.008
-2.960E-06,-0.004
-2.950E-06,-0.004
-2.940E-06,-0.020
-2.930E-06,-0.020
-2.920E-06,-0.008
-2.910E-06,0.000
-2.900E-06,0.016
-2.890E-06,0.020
-2.880E-06,0.012
-2.870E-06,0.000
-2.860E-06,-0.016
-2.850E-06,-0.024
-2.840E-06,-0.020
-2.830E-06,0.000
-2.820E-06,0.024
-2.810E-06,0.028
-2.800E-06,0.024
-2.790E-06,0.004
-2.780E-06,-0.012
-2.770E-06,-0.016
-2.760E-06,-0.008
-2.750E-06,0.004
-2.740E-06,0.024
-2.730E-06,0.024
-2.720E-06,0.012
-2.710E-06,-0.004
-2.700E-06,-0.012
-2.690E-06,-0.008
-2.680E-06,0.000
-2.670E-06,0.008
-2.660E-06,0.020
-2.650E-06,0.016
-2.640E-06,0.008
-2.630E-06,-0.004
-2.620E-06,-0.004
-2.610E-06,-0.008
-2.600E-06,0.004
-2.590E-06,0.012
-2.580E-06,0.016
-2.570E-06,0.012
-2.560E-06,0.004
-2.550E-06,0.004
-2.540E-06,0.000
-2.530E-06,0.008
-2.520E-06,0.012
-2.510E-06,0.020
-2.500E-06,0.024
-2.490E-06,0.032
-2.480E-06,0.012
-2.470E-06,-0.004
-2.460E-06,-0.032
-2.450E-06,-0.028
-2.440E-06,-0.016
-2.430E-06,-0.004
-2.420E-06,0.012
-2.410E-06,0.024
-2.400E-06,0.004
-2.390E-06,-0.016
-2.380E-06,-0.028
-2.370E-06,-0.024
-2.360E-06,-0.008
-2.350E-06,0.008
-2.340E-06,0.016
-2.330E-06,0.020
-2.320E-06,0.004
-2.310E-06,-0.004
-2.300E-06,-0.016
-2.290E-06,-0.020
-2.280E-06,-0.008
-2.270E-06,-0.004
-2.260E-06,0.012
-2.250E-06,0.016
-2.240E-06,0.016
-2.230E-06,0.008
-2.220E-06,-0.004
-2.210E-06,-0.012
-2.200E-06,-0.012
-2.190E-06,-0.008
-2.180E-06,0.008
-2.170E-06,0.024
-2.160E-06,0.024
-2.150E-06,0.012
-2.140E-06,0.000
-2.130E-06,-0.008
-2.120E-06,-0.012
-2.110E-06,-0.008
-2.100E-06,0.004
-2.090E-06,0.008
-2.080E-06,0.012
-2.070E-06,0.012
-2.060E-06,0.008
-2.050E-06,0.000
-2.040E-06,-0.004
-2.030E-06,-0.008
-2.020E-06,-0.004
-2.010E-06,0.000
-2.000E-06,0.012
-1.990E-06,0.016
-1.980E-06,0.012
-1.970E-06,0.000
-1.960E-06,-0.004
-1.950E-06,0.000
-1.940E-06,0.000
-1.930E-06,0.000
-1.920E-06,0.004
-1.910E-06,0.000
-1.900E-06,0.012
-1.890E-06,0.016
-1.880E-06,0.016
-1.870E-06,0.004
-1.860E-06,0.008
-1.850E-06,0.004
-1.840E-06,0.004
-1.830E-06,0.012
-1.820E-06,0.008
-1.810E-06,0.008
-1.800E-06,0.012
-1.790E-06,0.008
-1.780E-06,0.008
-1.770E-06,0.004
-1.760E-06,0.004
-1.750E-06,0.004
-1.740E-06,0.008
-1.730E-06,0.016
-1.720E-06,0.020
-1.710E-06,0.020
-1.700E-06,0.008
-1.690E-06,0.008
-1.680E-06,0.000
-1.670E-06,0.000
-1.660E-06,0.008
-1.650E-06,0.024
-1.640E-06,0.024
-1.630E-06,0.036
-1.620E-06,0.040
-1.610E-06,0.040
-1.600E-06,0.036
-1.590E-06,0.032
-1.580E-06,0.036
-1.570E-06,0.036
-1.560E-06,0.040
-1.550E-06,0.028
-1.540E-06,0.000
-1.530E-06,-0.040
-1.520E-06,-0.076
-1.510E-06,-0.100
-1.500E-06,-0.076
-1.490E-06,-0.032
-1.480E-06,0.000
-1.470E-06,0.032
-1.460E-06,0.036
-1.450E-06,0.032
-1.440E-06,0.012
-1.430E-06,-0.016
-1.420E-06,-0.016
-1.410E-06,-0.020
-1.400E-06,-0.008
-1.390E-06,0.016
-1.380E-06,0.036
-1.370E-06,0.036
-1.360E-06,0.024
-1.350E-06,-0.008
-1.340E-06,-0.040
-1.330E-06,-0.028
-1.320E-06,0.008
-1.310E-06,0.032
-1.300E-06,0.048
-1.290E-06,0.028
-1.280E-06,-0.012
-1.270E-06,-0.024
-1.260E-06,-0.028
-1.250E-06,0.000
-1.240E-06,0.028
-1.230E-06,0.048
-1.220E-06,0.036
-1.210E-06,0.008
-1.200E-06,-0.008
-1.190E-06,-0.008
-1.180E-06,0.008
-1.170E-06,0.032
-1.160E-06,0.036
-1.150E-06,0.020
-1.140E-06,0.008
-1.130E-06,0.000
-1.120E-06,-0.004
-1.110E-06,0.004
-1.100E-06,0.012
-1.090E-06,0.008
-1.080E-06,0.004
-1.070E-06,0.004
-1.060E-06,-0.004
-1.050E-06,0.004
-1.040E-06,0.016
-1.030E-06,0.012
-1.020E-06,0.004
-1.010E-06,-0.004
-1.000E-06,-0.008
-9.900E-07,0.000
-9.800E-07,0.012
-9.700E-07,0.020
-9.600E-07,0.008
-9.500E-07,0.004
-9.400E-07,0.000
-9.300E-07,-0.004
-9.200E-07,-0.004
-9.100E-07,0.004
-9.000E-07,0.016
-8.900E-07,0.024
-8.800E-07,0.024
-8.700E-07,0.016
-8.600E-07,0.012
-8.500E-07,0.004
-8.400E-07,0.004
-8.300E-07,0.016
-8.200E-07,0.024
-8.100E-07,0.028
-8.000E-07,0.028
-7.900E-07,0.020
-7.800E-07,0.012
-7.700E-07,0.004
-7.600E-07,0.012
-7.500E-07,0.024
-7.400E-07,0.044
-7.300E-07,0.048
-7.200E-07,0.036
-7.100E-07,0.028
-7.000E-07,0.020
-6.900E-07,0.016
-6.800E-07,0.028
-6.700E-07,0.040
-6.600E-07,0.056
-6.500E-07,0.060
-6.400E-07,0.048
-6.300E-07,0.032
-6.200E-07,0.028
-6.100E-07,0.028
-6.000E-07,0.048
-5.900E-07,0.044
-5.800E-07,0.056
-5.700E-07,0.056
-5.600E-07,0.036
-5.500E-07,0.020
-5.400E-07,0.012
-5.300E-07,-0.008
-5.200E-07,-0.024
-5.100E-07,-0.024
-5.000E-07,-0.012
-4.900E-07,0.008
-4.800E-07,0.024
-4.700E-07,0.036
-4.600E-07,0.024
-4.500E-07,0.004
-4.400E-07,-0.012
-4.300E-07,-0.020
-4.200E-07,-0.004
-4.100E-07,0.012
-4.000E-07,0.044
-3.900E-07,0.044
-3.800E-07,0.020
-3.700E-07,-0.004
-3.600E-07,-0.012
-3.500E-07,-0.028
-3.400E-07,-0.028
-3.300E-07,-0.004
-3.200E-07,0.016
-3.100E-07,0.040
-3.000E-07,0.028
-2.900E-07,0.024
-2.800E-07,0.016
-2.700E-07,0.040
-2.600E-07,0.060
-2.500E-07,0.076
-2.400E-07,0.092
-2.300E-07,0.088
-2.200E-07,0.076
-2.100E-07,0.076
-2.000E-07,0.080
-1.900E-07,0.076
-1.800E-07,0.088
-1.700E-07,0.104
-1.600E-07,0.120
-1.500E-07,0.104
-1.400E-07,0.084
-1.300E-07,0.028
-1.200E-07,-0.084
-1.100E-07,-0.140
-1.000E-07,-0.104
-9.000E-08,0.032
-8.000E-08,0.232
-7.000E-08,0.256
-6.000E-08,0.192
-5.000E-08,-0.096
-4.000E-08,-0.508
-3.000E-08,-0.508
-2.000E-08,-0.512
-1.000E-08,-0.352
0.000E+00,0.540
1.000E-08,0.540
2.000E-08,0.540
3.000E-08,0.372
4.000E-08,-0.508
5.000E-08,-0.512
6.000E-08,-0.512
7.000E-08,-0.176
8.000E-08,0.540
9.000E-08,0.540
1.000E-07,0.540
1.100E-07,0.152
1.200E-07,-0.512
1.300E-07,-0.508
1.400E-07,-0.512
1.500E-07,-0.104
1.600E-07,0.508
1.700E-07,0.540
1.800E-07,0.540
1.900E-07,0.328
2.000E-07,-0.244
2.100E-07,-0.512
2.200E-07,-0.508
2.300E-07,-0.204
2.400E-07,0.172
2.500E-07,0.448
2.600E-07,0.464
2.700E-07,0.272
2.800E-07,0.004
2.900E-07,-0.240
3.000E-07,-0.292
3.100E-07,-0.272
3.200E-07,-0.140
3.300E-07,0.000
3.400E-07,0.044
3.500E-07,-0.008
3.600E-07,-0.108
3.700E-07,-0.108
3.800E-07,-0.052
3.900E-07,0.012
4.000E-07,0.028
4.100E-07,0.012
4.200E-07,-0.020
4.300E-07,0.004
4.400E-07,0.060
4.500E-07,0.088
4.600E-07,0.088
4.700E-07,0.048
4.800E-07,0.020
4.900E-07,0.000
5.000E-07,0.032
5.100E-07,0.056
5.200E-07,0.096
5.300E-07,0.116
5.400E-07,0.100
5.500E-07,0.024
5.600E-07,-0.072
5.700E-07,-0.164
5.800E-07,-0.188
5.900E-07,-0.088
6.000E-07,0.052
6.100E-07,0.148
6.200E-07,0.136
6.300E-07,0.032
6.400E-07,-0.116
6.500E-07,-0.188
6.600E-07,-0.160
6.700E-07,-0.052
6.800E-07,0.092
6.900E-07,0.168
7.000E-07,0.124
7.100E-07,0.012
7.200E-07,-0.088
7.300E-07,-0.120
7.400E-07,-0.064
7.500E-07,0.060
7.600E-07,0.128
7.700E-07,0.160
7.800E-07,0.136
7.900E-07,0.048
8.000E-07,-0.048
8.100E-07,-0.072
8.200E-07,-0.060
8.300E-07,0.020
8.400E-07,0.116
8.500E-07,0.152
8.600E-07,0.144
8.700E-07,0.076
8.800E-07,-0.004
8.900E-07,-0.024
9.000E-07,-0.004
9.100E-07,0.072
9.200E-07,0.140
9.300E-07,0.164
9.400E-07,0.128
9.500E-07,0.052
9.600E-07,-0.140
9.700E-07,-0.484
9.800E-07,-0.512
9.900E-07,-0.508
1.000E-06,-0.164
1.010E-06,0.264
1.020E-06,0.540
1.030E-06,0.432
1.040E-06,0.132
1.050E-06,-0.292
1.060E-06,-0.472
1.070E-06,-0.320
1.080E-06,0.008
1.090E-06,0.308
1.100E-06,0.416
1.110E-06,0.288
1.120E-06,-0.040
1.130E-06,-0.228
1.140E-06,-0.332
1.150E-06,-0.152
1.160E-06,0.036
1.170E-06,0.244
1.180E-06,0.320
1.190E-06,0.332
1.200E-06,0.172
1.210E-06,-0.128
1.220E-06,-0.300
1.230E-06,-0.320
1.240E-06,-0.108
1.250E-06,0.156
1.260E-06,0.360
1.270E-06,0.336
1.280E-06,0.144
1.290E-06,-0.220
1.300E-06,-0.444
1.310E-06,-0.408
1.320E-06,-0.252
1.330E-06,0.012
1.340E-06,0.276
1.350E-06,0.348
1.360E-06,0.248
1.370E-06,0.084
1.380E-06,-0.040
1.390E-06,-0.108
1.400E-06,-0.128
1.410E-06,-0.076
1.420E-06,-0.036
1.430E-06,0.024
1.440E-06,0.040
1.450E-06,0.040
1.460E-06,-0.028
1.470E-06,-0.052
1.480E-06,-0.040
1.490E-06,0.032
1.500E-06,0.044
1.510E-06,0.036
1.520E-06,0.060
1.530E-06,0.108
1.540E-06,0.180
1.550E-06,0.144
1.560E-06,0.064
1.570E-06,-0.096
1.580E-06,-0.256
1.590E-06,-0.300
1.600E-06,-0.260
1.610E-06,-0.120
1.620E-06,0.004
1.630E-06,0.100
1.640E-06,0.128
1.650E-06,0.048
1.660E-06,-0.072
1.670E-06,-0.164
1.680E-06,-0.160
1.690E-06,-0.060
1.700E-06,0.096
1.710E-06,0.200
1.720E-06,0.192
1.730E-06,0.068
1.740E-06,-0.096
1.750E-06,-0.180
1.760E-06,-0.152
1.770E-06,-0.032
1.780E-06,0.108
1.790E-06,0.188
1.800E-06,0.180
1.810E-06,0.080
1.820E-06,-0.052
1.830E-06,-0.132
1.840E-06,-0.108
1.850E-06,-0.004
1.860E-06,0.128
1.870E-06,0.212
1.880E-06,0.204
1.890E-06,0.136
1.900E-06,0.032
1.910E-06,-0.036
1.920E-06,-0.040
1.930E-06,0.052
1.940E-06,0.152
1.950E-06,0.232
1.960E-06,0.224
1.970E-06,0.160
1.980E-06,0.028
1.990E-06,-0.084
2.000E-06,-0.136
2.010E-06,-0.088
2.020E-06,0.044
2.030E-06,0.160
2.040E-06,0.220
2.050E-06,0.156
2.060E-06,-0.044
2.070E-06,-0.232
2.080E-06,-0.320
2.090E-06,-0.244
2.100E-06,-0.076
2.110E-06,0.072
2.120E-06,0.140
2.130E-06,0.072
2.140E-06,-0.024
2.150E-06,-0.132
2.160E-06,-0.172
2.170E-06,-0.136
2.180E-06,-0.008
2.190E-06,0.092
2.200E-06,0.144
2.210E-06,0.128
2.220E-06,0.072
2.230E-06,-0.008
2.240E-06,-0.068
2.250E-06,-0.068
2.260E-06,-0.024
2.270E-06,0.068
2.280E-06,0.140
2.290E-06,0.152
2.300E-06,0.108
2.310E-06,0.060
2.320E-06,0.020
2.330E-06,0.048
2.340E-06,0.100
2.350E-06,0.152
2.360E-06,0.200
2.370E-06,0.216
2.380E-06,0.172
2.390E-06,0.096
2.400E-06,0.020
2.410E-06,-0.028
2.420E-06,-0.016
2.430E-06,0.044
2.440E-06,0.108
2.450E-06,0.132
2.460E-06,0.116
2.470E-06,0.080
2.480E-06,0.004
2.490E-06,-0.116
2.500E-06,-0.300
2.510E-06,-0.432
2.520E-06,-0.508
2.530E-06,-0.508
2.540E-06,-0.272
2.550E-06,0.032
2.560E-06,0.204
2.570E-06,0.196
2.580E-06,0.040
2.590E-06,-0.240
2.600E-06,-0.236
2.610E-06,-0.148
2.620E-06,0.156
2.630E-06,0.264
2.640E-06,0.272
2.650E-06,0.028
2.660E-06,-0.092
2.670E-06,-0.168
2.680E-06,-0.056
2.690E-06,0.164
2.700E-06,0.344
2.710E-06,0.352
2.720E-06,0.160
2.730E-06,-0.108
2.740E-06,-0.408
2.750E-06,-0.440
2.760E-06,-0.340
2.770E-06,-0.068
2.780E-06,0.164
2.790E-06,0.264
2.800E-06,0.152
2.810E-06,-0.024
2.820E-06,-0.152
2.830E-06,-0.204
2.840E-06,-0.096
2.850E-06,0.020
2.860E-06,0.128
2.870E-06,0.148
2.880E-06,0.104
2.890E-06,-0.004
2.900E-06,-0.064
2.910E-06,-0.084
2.920E-06,-0.036
2.930E-06,0.064
2.940E-06,0.136
2.950E-06,0.164
2.960E-06,0.104
2.970E-06,0.036
2.980E-06,-0.016
2.990E-06,0.000
3.000E-06,0.052
3.010E-06,0.128
3.020E-06,0.172
3.030E-06,0.156
3.040E-06,0.108
3.050E-06,0.036
3.060E-06,-0.008
3.070E-06,-0.012
3.080E-06,0.040
3.090E-06,0.144
3.100E-06,0.232
3.110E-06,0.240
3.120E-06,0.196
3.130E-06,0.124
3.140E-06,0.068
3.150E-06,0.052
3.160E-06,0.040
3.170E-06,0.040
3.180E-06,0.028
3.190E-06,0.012
3.200E-06,-0.024
3.210E-06,-0.072
3.220E-06,-0.112
3.230E-06,-0.132
3.240E-06,-0.076
3.250E-06,-0.016
3.260E-06,0.044
3.270E-06,0.080
