mediciones/Mediciones filtradas (saque las feas)/5-15/47.5/WaveData47135.csv

#timebase=2000000(ps)
,#voltbase=100000(mv/100)
#size=4000
-8.400E-06,-0.012
-8.390E-06,-0.028
-8.380E-06,-0.008
-8.370E-06,0.008
-8.360E-06,0.028
-8.350E-06,0.036
-8.340E-06,0.024
-8.330E-06,0.000
-8.320E-06,-0.052
-8.310E-06,-0.064
-8.300E-06,-0.048
-8.290E-06,-0.012
-8.280E-06,0.040
-8.270E-06,0.088
-8.260E-06,0.088
-8.250E-06,0.012
-8.240E-06,-0.060
-8.230E-06,-0.100
-8.220E-06,-0.072
-8.210E-06,0.004
-8.200E-06,0.076
-8.190E-06,0.096
-8.180E-06,0.064
-8.170E-06,-0.008
-8.160E-06,-0.064
-8.150E-06,-0.076
-8.140E-06,-0.040
-8.130E-06,0.012
-8.120E-06,0.056
-8.110E-06,0.068
-8.100E-06,0.040
-8.090E-06,0.000
-8.080E-06,-0.032
-8.070E-06,-0.040
-8.060E-06,-0.032
-8.050E-06,-0.004
-8.040E-06,0.020
-8.030E-06,0.036
-8.020E-06,0.028
-8.010E-06,0.012
-8.000E-06,-0.004
-7.990E-06,-0.024
-7.980E-06,-0.020
-7.970E-06,-0.008
-7.960E-06,0.008
-7.950E-06,0.024
-7.940E-06,0.028
-7.930E-06,0.020
-7.920E-06,0.000
-7.910E-06,-0.012
-7.900E-06,-0.012
-7.890E-06,-0.008
-7.880E-06,0.004
-7.870E-06,0.024
-7.860E-06,0.020
-7.850E-06,0.008
-7.840E-06,-0.004
-7.830E-06,-0.004
-7.820E-06,-0.012
-7.810E-06,0.000
-7.800E-06,0.008
-7.790E-06,0.020
-7.780E-06,0.020
-7.770E-06,0.008
-7.760E-06,-0.004
-7.750E-06,-0.004
-7.740E-06,0.000
-7.730E-06,0.000
-7.720E-06,0.016
-7.710E-06,0.020
-7.700E-06,0.024
-7.690E-06,0.024
-7.680E-06,0.004
-7.670E-06,-0.016
-7.660E-06,-0.032
-7.650E-06,-0.016
-7.640E-06,0.004
-7.630E-06,0.028
-7.620E-06,0.044
-7.610E-06,0.032
-7.600E-06,0.008
-7.590E-06,-0.016
-7.580E-06,-0.024
-7.570E-06,-0.020
-7.560E-06,0.004
-7.550E-06,0.024
-7.540E-06,0.032
-7.530E-06,0.008
-7.520E-06,0.000
-7.510E-06,-0.032
-7.500E-06,-0.040
-7.490E-06,-0.032
-7.480E-06,-0.012
-7.470E-06,0.000
-7.460E-06,0.008
-7.450E-06,0.040
-7.440E-06,0.052
-7.430E-06,0.032
-7.420E-06,-0.004
-7.410E-06,-0.048
-7.400E-06,-0.056
-7.390E-06,-0.040
-7.380E-06,0.012
-7.370E-06,0.064
-7.360E-06,0.072
-7.350E-06,0.024
-7.340E-06,-0.020
-7.330E-06,-0.060
-7.320E-06,-0.052
-7.310E-06,-0.012
-7.300E-06,0.032
-7.290E-06,0.060
-7.280E-06,0.048
-7.270E-06,0.012
-7.260E-06,-0.020
-7.250E-06,-0.032
-7.240E-06,-0.024
-7.230E-06,0.000
-7.220E-06,0.020
-7.210E-06,0.028
-7.200E-06,0.024
-7.190E-06,0.012
-7.180E-06,0.000
-7.170E-06,-0.008
-7.160E-06,-0.012
-7.150E-06,-0.004
-7.140E-06,0.012
-7.130E-06,0.020
-7.120E-06,0.024
-7.110E-06,0.020
-7.100E-06,0.000
-7.090E-06,0.000
-7.080E-06,-0.008
-7.070E-06,-0.004
-7.060E-06,0.004
-7.050E-06,0.016
-7.040E-06,0.020
-7.030E-06,0.008
-7.020E-06,0.000
-7.010E-06,-0.008
-7.000E-06,-0.004
-6.990E-06,0.000
-6.980E-06,0.008
-6.970E-06,0.020
-6.960E-06,0.024
-6.950E-06,0.020
-6.940E-06,0.004
-6.930E-06,-0.004
-6.920E-06,-0.008
-6.910E-06,-0.004
-6.900E-06,0.004
-6.890E-06,0.016
-6.880E-06,0.020
-6.870E-06,0.012
-6.860E-06,0.004
-6.850E-06,-0.004
-6.840E-06,-0.008
-6.830E-06,0.000
-6.820E-06,0.004
-6.810E-06,0.012
-6.800E-06,0.020
-6.790E-06,0.016
-6.780E-06,0.016
-6.770E-06,0.012
-6.760E-06,-0.004
-6.750E-06,-0.004
-6.740E-06,0.000
-6.730E-06,-0.012
-6.720E-06,0.000
-6.710E-06,-0.004
-6.700E-06,-0.004
-6.690E-06,-0.008
-6.680E-06,0.008
-6.670E-06,-0.008
-6.660E-06,0.000
-6.650E-06,0.008
-6.640E-06,0.004
-6.630E-06,0.008
-6.620E-06,0.016
-6.610E-06,0.008
-6.600E-06,-0.012
-6.590E-06,-0.004
-6.580E-06,-0.008
-6.570E-06,0.012
-6.560E-06,0.020
-6.550E-06,0.016
-6.540E-06,0.008
-6.530E-06,-0.004
-6.520E-06,-0.020
-6.510E-06,-0.008
-6.500E-06,0.004
-6.490E-06,0.020
-6.480E-06,0.024
-6.470E-06,0.016
-6.460E-06,0.008
-6.450E-06,0.000
-6.440E-06,-0.004
-6.430E-06,0.000
-6.420E-06,0.004
-6.410E-06,0.008
-6.400E-06,0.004
-6.390E-06,0.004
-6.380E-06,0.008
-6.370E-06,0.000
-6.360E-06,0.000
-6.350E-06,-0.004
-6.340E-06,0.000
-6.330E-06,0.000
-6.320E-06,0.000
-6.310E-06,0.012
-6.300E-06,0.012
-6.290E-06,0.012
-6.280E-06,0.008
-6.270E-06,0.004
-6.260E-06,-0.008
-6.250E-06,-0.008
-6.240E-06,0.004
-6.230E-06,0.004
-6.220E-06,0.012
-6.210E-06,0.008
-6.200E-06,0.008
-6.190E-06,0.004
-6.180E-06,-0.004
-6.170E-06,0.000
-6.160E-06,0.004
-6.150E-06,0.004
-6.140E-06,0.008
-6.130E-06,0.004
-6.120E-06,0.004
-6.110E-06,0.008
-6.100E-06,-0.004
-6.090E-06,0.004
-6.080E-06,0.000
-6.070E-06,0.000
-6.060E-06,0.004
-6.050E-06,0.000
-6.040E-06,0.012
-6.030E-06,0.012
-6.020E-06,0.012
-6.010E-06,0.008
-6.000E-06,0.000
-5.990E-06,0.008
-5.980E-06,0.016
-5.970E-06,0.012
-5.960E-06,-0.004
-5.950E-06,-0.008
-5.940E-06,-0.016
-5.930E-06,0.000
-5.920E-06,0.024
-5.910E-06,0.040
-5.900E-06,0.036
-5.890E-06,0.008
-5.880E-06,-0.020
-5.870E-06,-0.040
-5.860E-06,-0.028
-5.850E-06,0.000
-5.840E-06,0.028
-5.830E-06,0.032
-5.820E-06,0.016
-5.810E-06,-0.024
-5.800E-06,-0.040
-5.790E-06,-0.036
-5.780E-06,-0.004
-5.770E-06,0.036
-5.760E-06,0.044
-5.750E-06,0.036
-5.740E-06,0.004
-5.730E-06,-0.036
-5.720E-06,-0.044
-5.710E-06,-0.020
-5.700E-06,0.016
-5.690E-06,0.044
-5.680E-06,0.044
-5.670E-06,0.012
-5.660E-06,-0.020
-5.650E-06,-0.040
-5.640E-06,-0.020
-5.630E-06,0.000
-5.620E-06,0.024
-5.610E-06,0.028
-5.600E-06,0.024
-5.590E-06,0.008
-5.580E-06,-0.008
-5.570E-06,-0.016
-5.560E-06,-0.020
-5.550E-06,0.000
-5.540E-06,0.012
-5.530E-06,0.020
-5.520E-06,0.020
-5.510E-06,0.012
-5.500E-06,-0.004
-5.490E-06,-0.008
-5.480E-06,-0.012
-5.470E-06,-0.004
-5.460E-06,0.008
-5.450E-06,0.020
-5.440E-06,0.024
-5.430E-06,0.012
-5.420E-06,-0.004
-5.410E-06,-0.012
-5.400E-06,-0.008
-5.390E-06,-0.004
-5.380E-06,0.012
-5.370E-06,0.028
-5.360E-06,0.028
-5.350E-06,0.016
-5.340E-06,0.000
-5.330E-06,-0.016
-5.320E-06,-0.016
-5.310E-06,-0.004
-5.300E-06,0.008
-5.290E-06,0.020
-5.280E-06,0.024
-5.270E-06,0.008
-5.260E-06,0.000
-5.250E-06,-0.012
-5.240E-06,-0.008
-5.230E-06,-0.004
-5.220E-06,0.012
-5.210E-06,0.024
-5.200E-06,0.020
-5.190E-06,0.016
-5.180E-06,0.004
-5.170E-06,-0.004
-5.160E-06,-0.008
-5.150E-06,-0.004
-5.140E-06,0.008
-5.130E-06,0.016
-5.120E-06,0.028
-5.110E-06,0.020
-5.100E-06,0.016
-5.090E-06,0.004
-5.080E-06,-0.008
-5.070E-06,-0.008
-5.060E-06,-0.012
-5.050E-06,0.000
-5.040E-06,0.020
-5.030E-06,0.032
-5.020E-06,0.028
-5.010E-06,0.020
-5.000E-06,-0.004
-4.990E-06,-0.020
-4.980E-06,-0.012
-4.970E-06,-0.012
-4.960E-06,-0.008
-4.950E-06,-0.004
-4.940E-06,0.004
-4.930E-06,0.012
-4.920E-06,0.016
-4.910E-06,0.008
-4.900E-06,0.000
-4.890E-06,-0.004
-4.880E-06,-0.024
-4.870E-06,-0.016
-4.860E-06,0.000
-4.850E-06,0.020
-4.840E-06,0.028
-4.830E-06,0.024
-4.820E-06,0.004
-4.810E-06,-0.020
-4.800E-06,-0.036
-4.790E-06,-0.020
-4.780E-06,0.004
-4.770E-06,0.024
-4.760E-06,0.032
-4.750E-06,0.012
-4.740E-06,-0.004
-4.730E-06,-0.020
-4.720E-06,-0.016
-4.710E-06,-0.008
-4.700E-06,0.008
-4.690E-06,0.024
-4.680E-06,0.020
-4.670E-06,0.008
-4.660E-06,-0.004
-4.650E-06,-0.008
-4.640E-06,-0.008
-4.630E-06,-0.004
-4.620E-06,0.004
-4.610E-06,0.004
-4.600E-06,0.012
-4.590E-06,0.008
-4.580E-06,0.008
-4.570E-06,-0.004
-4.560E-06,-0.008
-4.550E-06,-0.004
-4.540E-06,0.000
-4.530E-06,0.012
-4.520E-06,0.020
-4.510E-06,0.012
-4.500E-06,0.008
-4.490E-06,-0.004
-4.480E-06,-0.008
-4.470E-06,-0.012
-4.460E-06,-0.016
-4.450E-06,-0.012
-4.440E-06,0.000
-4.430E-06,0.012
-4.420E-06,0.032
-4.410E-06,0.024
-4.400E-06,0.004
-4.390E-06,-0.012
-4.380E-06,-0.024
-4.370E-06,-0.016
-4.360E-06,0.004
-4.350E-06,0.020
-4.340E-06,0.028
-4.330E-06,0.024
-4.320E-06,-0.004
-4.310E-06,-0.020
-4.300E-06,-0.020
-4.290E-06,-0.012
-4.280E-06,0.008
-4.270E-06,0.028
-4.260E-06,0.032
-4.250E-06,0.020
-4.240E-06,0.004
-4.230E-06,-0.008
-4.220E-06,-0.008
-4.210E-06,-0.004
-4.200E-06,0.012
-4.190E-06,0.024
-4.180E-06,0.024
-4.170E-06,0.008
-4.160E-06,0.004
-4.150E-06,-0.008
-4.140E-06,-0.008
-4.130E-06,-0.008
-4.120E-06,0.008
-4.110E-06,0.008
-4.100E-06,0.012
-4.090E-06,0.012
-4.080E-06,0.004
-4.070E-06,0.000
-4.060E-06,-0.008
-4.050E-06,-0.012
-4.040E-06,0.004
-4.030E-06,0.008
-4.020E-06,0.016
-4.010E-06,0.016
-4.000E-06,0.004
-3.990E-06,-0.004
-3.980E-06,-0.008
-3.970E-06,-0.008
-3.960E-06,0.000
-3.950E-06,0.012
-3.940E-06,0.024
-3.930E-06,0.012
-3.920E-06,0.008
-3.910E-06,-0.004
-3.900E-06,-0.008
-3.890E-06,-0.004
-3.880E-06,0.000
-3.870E-06,0.012
-3.860E-06,0.016
-3.850E-06,0.016
-3.840E-06,0.004
-3.830E-06,-0.004
-3.820E-06,-0.012
-3.810E-06,-0.008
-3.800E-06,0.008
-3.790E-06,0.016
-3.780E-06,0.024
-3.770E-06,0.008
-3.760E-06,0.000
-3.750E-06,0.000
-3.740E-06,-0.004
-3.730E-06,0.004
-3.720E-06,0.012
-3.710E-06,0.020
-3.700E-06,0.012
-3.690E-06,0.004
-3.680E-06,0.000
-3.670E-06,-0.004
-3.660E-06,-0.008
-3.650E-06,-0.012
-3.640E-06,-0.004
-3.630E-06,0.008
-3.620E-06,0.004
-3.610E-06,0.012
-3.600E-06,0.012
-3.590E-06,0.008
-3.580E-06,0.000
-3.570E-06,0.000
-3.560E-06,0.004
-3.550E-06,0.008
-3.540E-06,0.000
-3.530E-06,-0.024
-3.520E-06,-0.028
-3.510E-06,-0.012
-3.500E-06,0.024
-3.490E-06,0.048
-3.480E-06,0.028
-3.470E-06,-0.008
-3.460E-06,-0.032
-3.450E-06,-0.040
-3.440E-06,-0.028
-3.430E-06,0.012
-3.420E-06,0.032
-3.410E-06,0.040
-3.400E-06,0.020
-3.390E-06,-0.004
-3.380E-06,-0.032
-3.370E-06,-0.028
-3.360E-06,-0.008
-3.350E-06,0.012
-3.340E-06,0.028
-3.330E-06,0.024
-3.320E-06,0.012
-3.310E-06,-0.004
-3.300E-06,-0.016
-3.290E-06,-0.020
-3.280E-06,-0.012
-3.270E-06,0.000
-3.260E-06,0.012
-3.250E-06,0.020
-3.240E-06,0.012
-3.230E-06,0.008
-3.220E-06,-0.008
-3.210E-06,-0.004
-3.200E-06,-0.004
-3.190E-06,0.000
-3.180E-06,0.016
-3.170E-06,0.024
-3.160E-06,0.020
-3.150E-06,0.004
-3.140E-06,-0.008
-3.130E-06,-0.008
-3.120E-06,-0.008
-3.110E-06,-0.004
-3.100E-06,0.012
-3.090E-06,0.020
-3.080E-06,0.020
-3.070E-06,0.008
-3.060E-06,-0.004
-3.050E-06,-0.008
-3.040E-06,-0.008
-3.030E-06,0.008
-3.020E-06,0.020
-3.010E-06,0.020
-3.000E-06,0.016
-2.990E-06,0.008
-2.980E-06,-0.008
-2.970E-06,-0.004
-2.960E-06,-0.008
-2.950E-06,0.000
-2.940E-06,0.012
-2.930E-06,0.024
-2.920E-06,0.016
-2.910E-06,0.008
-2.900E-06,0.000
-2.890E-06,-0.004
-2.880E-06,-0.008
-2.870E-06,0.004
-2.860E-06,0.012
-2.850E-06,0.020
-2.840E-06,0.024
-2.830E-06,0.008
-2.820E-06,0.004
-2.810E-06,0.004
-2.800E-06,-0.004
-2.790E-06,0.000
-2.780E-06,0.004
-2.770E-06,0.004
-2.760E-06,0.004
-2.750E-06,0.000
-2.740E-06,0.004
-2.730E-06,0.004
-2.720E-06,0.008
-2.710E-06,0.008
-2.700E-06,0.008
-2.690E-06,0.000
-2.680E-06,0.000
-2.670E-06,0.000
-2.660E-06,0.004
-2.650E-06,0.004
-2.640E-06,0.012
-2.630E-06,0.012
-2.620E-06,0.008
-2.610E-06,0.000
-2.600E-06,-0.008
-2.590E-06,-0.008
-2.580E-06,-0.004
-2.570E-06,0.012
-2.560E-06,-0.004
-2.550E-06,0.004
-2.540E-06,-0.004
-2.530E-06,-0.004
-2.520E-06,-0.008
-2.510E-06,0.012
-2.500E-06,0.012
-2.490E-06,-0.004
-2.480E-06,-0.020
-2.470E-06,-0.016
-2.460E-06,0.000
-2.450E-06,0.012
-2.440E-06,0.020
-2.430E-06,0.008
-2.420E-06,0.000
-2.410E-06,-0.008
-2.400E-06,-0.004
-2.390E-06,-0.004
-2.380E-06,0.000
-2.370E-06,0.012
-2.360E-06,0.008
-2.350E-06,0.008
-2.340E-06,0.000
-2.330E-06,-0.004
-2.320E-06,-0.008
-2.310E-06,0.000
-2.300E-06,0.000
-2.290E-06,0.008
-2.280E-06,0.008
-2.270E-06,0.004
-2.260E-06,0.004
-2.250E-06,0.000
-2.240E-06,0.000
-2.230E-06,0.000
-2.220E-06,0.000
-2.210E-06,0.004
-2.200E-06,0.004
-2.190E-06,0.004
-2.180E-06,0.000
-2.170E-06,0.004
-2.160E-06,0.000
-2.150E-06,0.004
-2.140E-06,0.008
-2.130E-06,0.004
-2.120E-06,0.008
-2.110E-06,0.004
-2.100E-06,0.004
-2.090E-06,-0.004
-2.080E-06,0.000
-2.070E-06,0.004
-2.060E-06,0.008
-2.050E-06,0.008
-2.040E-06,0.008
-2.030E-06,0.004
-2.020E-06,0.004
-2.010E-06,0.000
-2.000E-06,0.000
-1.990E-06,0.000
-1.980E-06,0.008
-1.970E-06,0.008
-1.960E-06,0.012
-1.950E-06,0.008
-1.940E-06,-0.004
-1.930E-06,0.000
-1.920E-06,0.000
-1.910E-06,0.004
-1.900E-06,0.008
-1.890E-06,0.008
-1.880E-06,0.012
-1.870E-06,0.008
-1.860E-06,0.004
-1.850E-06,0.000
-1.840E-06,0.004
-1.830E-06,0.008
-1.820E-06,0.004
-1.810E-06,0.008
-1.800E-06,0.008
-1.790E-06,0.012
-1.780E-06,0.008
-1.770E-06,0.008
-1.760E-06,0.004
-1.750E-06,-0.004
-1.740E-06,0.004
-1.730E-06,0.004
-1.720E-06,0.008
-1.710E-06,0.012
-1.700E-06,0.012
-1.690E-06,0.012
-1.680E-06,0.012
-1.670E-06,0.008
-1.660E-06,0.000
-1.650E-06,0.008
-1.640E-06,0.016
-1.630E-06,0.024
-1.620E-06,0.036
-1.610E-06,0.056
-1.600E-06,0.048
-1.590E-06,0.056
-1.580E-06,0.044
-1.570E-06,0.060
-1.560E-06,0.064
-1.550E-06,0.048
-1.540E-06,0.012
-1.530E-06,-0.036
-1.520E-06,-0.128
-1.510E-06,-0.148
-1.500E-06,-0.076
-1.490E-06,0.028
-1.480E-06,0.104
-1.470E-06,0.132
-1.460E-06,0.104
-1.450E-06,0.028
-1.440E-06,-0.116
-1.430E-06,-0.196
-1.420E-06,-0.200
-1.410E-06,-0.064
-1.400E-06,0.112
-1.390E-06,0.216
-1.380E-06,0.180
-1.370E-06,0.040
-1.360E-06,-0.104
-1.350E-06,-0.176
-1.340E-06,-0.120
-1.330E-06,0.028
-1.320E-06,0.160
-1.310E-06,0.168
-1.300E-06,0.080
-1.290E-06,-0.044
-1.280E-06,-0.128
-1.270E-06,-0.140
-1.260E-06,-0.036
-1.250E-06,0.056
-1.240E-06,0.096
-1.230E-06,0.084
-1.220E-06,0.028
-1.210E-06,0.016
-1.200E-06,0.012
-1.190E-06,0.040
-1.180E-06,0.056
-1.170E-06,0.060
-1.160E-06,0.048
-1.150E-06,0.000
-1.140E-06,-0.044
-1.130E-06,-0.052
-1.120E-06,-0.032
-1.110E-06,-0.004
-1.100E-06,0.024
-1.090E-06,0.024
-1.080E-06,0.016
-1.070E-06,-0.008
-1.060E-06,-0.016
-1.050E-06,-0.036
-1.040E-06,-0.024
-1.030E-06,-0.008
-1.020E-06,0.012
-1.010E-06,0.024
-1.000E-06,0.048
-9.900E-07,0.036
-9.800E-07,0.004
-9.700E-07,-0.016
-9.600E-07,-0.024
-9.500E-07,-0.004
-9.400E-07,0.024
-9.300E-07,0.060
-9.200E-07,0.076
-9.100E-07,0.060
-9.000E-07,0.032
-8.900E-07,0.024
-8.800E-07,0.020
-8.700E-07,0.024
-8.600E-07,0.040
-8.500E-07,0.040
-8.400E-07,0.040
-8.300E-07,0.024
-8.200E-07,0.008
-8.100E-07,0.012
-8.000E-07,0.024
-7.900E-07,0.052
-7.800E-07,0.016
-7.700E-07,-0.072
-7.600E-07,-0.148
-7.500E-07,-0.192
-7.400E-07,-0.192
-7.300E-07,-0.088
-7.200E-07,-0.008
-7.100E-07,0.096
-7.000E-07,0.148
-6.900E-07,0.120
-6.800E-07,0.004
-6.700E-07,-0.128
-6.600E-07,-0.144
-6.500E-07,-0.096
-6.400E-07,0.020
-6.300E-07,0.108
-6.200E-07,0.124
-6.100E-07,0.068
-6.000E-07,0.020
-5.900E-07,-0.052
-5.800E-07,-0.084
-5.700E-07,-0.052
-5.600E-07,0.024
-5.500E-07,0.104
-5.400E-07,0.140
-5.300E-07,0.124
-5.200E-07,0.048
-5.100E-07,0.000
-5.000E-07,-0.080
-4.900E-07,-0.156
-4.800E-07,-0.124
-4.700E-07,-0.084
-4.600E-07,0.016
-4.500E-07,0.132
-4.400E-07,0.168
-4.300E-07,0.092
-4.200E-07,-0.040
-4.100E-07,-0.144
-4.000E-07,-0.176
-3.900E-07,-0.100
-3.800E-07,0.016
-3.700E-07,0.108
-3.600E-07,0.132
-3.500E-07,0.072
-3.400E-07,-0.016
-3.300E-07,-0.076
-3.200E-07,-0.088
-3.100E-07,-0.040
-3.000E-07,0.032
-2.900E-07,0.076
-2.800E-07,0.084
-2.700E-07,0.044
-2.600E-07,0.004
-2.500E-07,-0.036
-2.400E-07,-0.028
-2.300E-07,-0.004
-2.200E-07,0.024
-2.100E-07,0.048
-2.000E-07,0.060
-1.900E-07,0.056
-1.800E-07,0.048
-1.700E-07,0.032
-1.600E-07,0.032
-1.500E-07,0.044
-1.400E-07,0.060
-1.300E-07,0.092
-1.200E-07,0.108
-1.100E-07,0.104
-1.000E-07,0.092
-9.000E-08,0.072
-8.000E-08,0.064
-7.000E-08,0.052
-6.000E-08,-0.008
-5.000E-08,-0.368
-4.000E-08,-0.512
-3.000E-08,-0.508
-2.000E-08,-0.204
-1.000E-08,0.324
0.000E+00,0.540
1.000E-08,0.540
2.000E-08,0.308
3.000E-08,-0.304
4.000E-08,-0.512
5.000E-08,-0.512
6.000E-08,-0.112
7.000E-08,0.368
8.000E-08,0.540
9.000E-08,0.424
1.000E-07,0.112
1.100E-07,-0.276
1.200E-07,-0.380
1.300E-07,-0.384
1.400E-07,-0.164
1.500E-07,0.084
1.600E-07,0.292
1.700E-07,0.332
1.800E-07,0.188
1.900E-07,-0.040
2.000E-07,-0.292
2.100E-07,-0.304
2.200E-07,-0.196
2.300E-07,0.064
2.400E-07,0.256
2.500E-07,0.312
2.600E-07,0.164
2.700E-07,-0.040
2.800E-07,-0.200
2.900E-07,-0.224
3.000E-07,-0.124
3.100E-07,0.028
3.200E-07,0.164
3.300E-07,0.180
3.400E-07,0.124
3.500E-07,-0.012
3.600E-07,-0.108
3.700E-07,-0.140
3.800E-07,-0.080
3.900E-07,0.016
4.000E-07,0.112
4.100E-07,0.140
4.200E-07,0.080
4.300E-07,0.000
4.400E-07,-0.076
4.500E-07,-0.096
4.600E-07,-0.056
4.700E-07,0.040
4.800E-07,0.104
4.900E-07,0.124
5.000E-07,0.060
5.100E-07,-0.028
5.200E-07,-0.100
5.300E-07,-0.108
5.400E-07,-0.060
5.500E-07,0.016
5.600E-07,0.092
5.700E-07,0.100
5.800E-07,0.056
5.900E-07,-0.012
6.000E-07,-0.068
6.100E-07,-0.080
6.200E-07,-0.044
6.300E-07,0.016
6.400E-07,0.060
6.500E-07,0.072
6.600E-07,0.044
6.700E-07,0.000
6.800E-07,-0.044
6.900E-07,-0.060
7.000E-07,-0.036
7.100E-07,0.012
7.200E-07,0.044
7.300E-07,0.060
7.400E-07,0.048
7.500E-07,0.012
7.600E-07,-0.028
7.700E-07,-0.044
7.800E-07,-0.024
7.900E-07,0.004
8.000E-07,0.044
8.100E-07,0.060
8.200E-07,0.060
8.300E-07,0.032
8.400E-07,0.004
8.500E-07,-0.004
8.600E-07,0.000
8.700E-07,0.028
8.800E-07,0.064
8.900E-07,0.092
9.000E-07,0.088
9.100E-07,0.072
9.200E-07,0.052
9.300E-07,0.044
9.400E-07,0.060
9.500E-07,0.084
9.600E-07,0.108
9.700E-07,0.132
9.800E-07,0.136
9.900E-07,0.120
1.000E-06,0.100
1.010E-06,0.076
1.020E-06,0.064
1.030E-06,0.072
1.040E-06,0.084
1.050E-06,0.088
1.060E-06,0.088
1.070E-06,0.076
1.080E-06,0.072
1.090E-06,0.076
1.100E-06,-0.076
1.110E-06,-0.512
1.120E-06,-0.508
1.130E-06,-0.512
1.140E-06,-0.408
1.150E-06,0.452
1.160E-06,0.536
1.170E-06,0.536
1.180E-06,0.172
1.190E-06,-0.456
1.200E-06,-0.508
1.210E-06,-0.512
1.220E-06,-0.012
1.230E-06,0.532
1.240E-06,0.544
1.250E-06,0.472
1.260E-06,0.148
1.270E-06,-0.500
1.280E-06,-0.508
1.290E-06,-0.512
1.300E-06,-0.264
1.310E-06,0.104
1.320E-06,0.540
1.330E-06,0.540
1.340E-06,0.404
1.350E-06,-0.068
1.360E-06,-0.472
1.370E-06,-0.508
1.380E-06,-0.372
1.390E-06,0.060
1.400E-06,0.372
1.410E-06,0.516
1.420E-06,0.308
1.430E-06,0.036
1.440E-06,-0.288
1.450E-06,-0.400
1.460E-06,-0.320
1.470E-06,-0.032
1.480E-06,0.192
1.490E-06,0.264
1.500E-06,0.208
1.510E-06,-0.008
1.520E-06,-0.172
1.530E-06,-0.208
1.540E-06,-0.076
1.550E-06,0.056
1.560E-06,0.172
1.570E-06,0.152
1.580E-06,0.068
1.590E-06,-0.028
1.600E-06,-0.076
1.610E-06,-0.052
1.620E-06,0.012
1.630E-06,0.096
1.640E-06,0.112
1.650E-06,0.092
1.660E-06,0.008
1.670E-06,-0.028
1.680E-06,-0.024
1.690E-06,0.052
1.700E-06,0.124
1.710E-06,0.168
1.720E-06,0.164
1.730E-06,0.100
1.740E-06,0.040
1.750E-06,0.008
1.760E-06,-0.084
1.770E-06,-0.224
1.780E-06,-0.348
1.790E-06,-0.332
1.800E-06,0.008
1.810E-06,0.252
1.820E-06,0.392
1.830E-06,0.260
1.840E-06,0.000
1.850E-06,-0.212
1.860E-06,-0.264
1.870E-06,-0.104
1.880E-06,0.124
1.890E-06,0.332
1.900E-06,0.368
1.910E-06,0.060
1.920E-06,-0.224
1.930E-06,-0.460
1.940E-06,-0.508
1.950E-06,-0.232
1.960E-06,0.212
1.970E-06,0.504
1.980E-06,0.388
1.990E-06,0.112
2.000E-06,-0.244
2.010E-06,-0.340
2.020E-06,-0.264
2.030E-06,-0.116
2.040E-06,0.052
2.050E-06,0.160
2.060E-06,0.192
2.070E-06,0.044
2.080E-06,-0.104
2.090E-06,-0.172
2.100E-06,-0.152
2.110E-06,-0.080
2.120E-06,0.064
2.130E-06,0.144
2.140E-06,0.164
2.150E-06,0.092
2.160E-06,-0.032
2.170E-06,-0.140
2.180E-06,-0.152
2.190E-06,-0.060
2.200E-06,0.052
2.210E-06,0.148
2.220E-06,0.140
2.230E-06,0.060
2.240E-06,-0.040
2.250E-06,-0.104
2.260E-06,-0.108
2.270E-06,-0.036
2.280E-06,0.044
2.290E-06,0.096
2.300E-06,0.100
2.310E-06,0.052
2.320E-06,-0.012
2.330E-06,-0.060
2.340E-06,-0.052
2.350E-06,-0.008
2.360E-06,0.056
2.370E-06,0.088
2.380E-06,0.068
2.390E-06,0.028
2.400E-06,-0.028
2.410E-06,-0.052
2.420E-06,-0.040
2.430E-06,-0.004
2.440E-06,0.044
2.450E-06,0.076
2.460E-06,0.064
2.470E-06,0.032
2.480E-06,-0.008
2.490E-06,-0.028
2.500E-06,-0.024
2.510E-06,0.008
2.520E-06,0.056
2.530E-06,0.080
2.540E-06,0.076
2.550E-06,0.060
2.560E-06,0.020
2.570E-06,-0.012
2.580E-06,-0.024
2.590E-06,-0.020
2.600E-06,0.000
2.610E-06,0.024
2.620E-06,0.048
2.630E-06,0.040
2.640E-06,0.016
2.650E-06,-0.004
2.660E-06,0.000
2.670E-06,0.012
2.680E-06,0.040
2.690E-06,0.068
2.700E-06,0.080
2.710E-06,0.076
2.720E-06,0.064
2.730E-06,0.056
2.740E-06,0.060
2.750E-06,0.092
2.760E-06,0.112
2.770E-06,0.128
2.780E-06,0.144
2.790E-06,0.152
2.800E-06,0.140
2.810E-06,0.120
2.820E-06,0.112
2.830E-06,0.100
2.840E-06,0.104
2.850E-06,0.116
2.860E-06,-0.076
2.870E-06,-0.316
2.880E-06,-0.420
2.890E-06,-0.508
2.900E-06,-0.344
2.910E-06,-0.136
2.920E-06,-0.288
2.930E-06,-0.064
2.940E-06,0.168
2.950E-06,0.056
2.960E-06,-0.120
2.970E-06,0.060
2.980E-06,0.012
2.990E-06,-0.040
3.000E-06,-0.040
3.010E-06,0.008
3.020E-06,0.032
3.030E-06,0.076
3.040E-06,0.004
3.050E-06,-0.080
3.060E-06,-0.048
3.070E-06,-0.004
3.080E-06,0.124
3.090E-06,0.144
3.100E-06,0.112
3.110E-06,-0.044
3.120E-06,-0.100
3.130E-06,-0.116
3.140E-06,-0.052
3.150E-06,0.060
3.160E-06,0.136
3.170E-06,0.144
3.180E-06,0.076
3.190E-06,0.008
3.200E-06,-0.076
3.210E-06,-0.072
3.220E-06,-0.068
3.230E-06,0.000
3.240E-06,0.036
3.250E-06,0.056
3.260E-06,0.032
