mediciones/Mediciones filtradas (saque las feas)/5-27/-50/WaveData50199.csv

#timebase=2000000(ps)
,#voltbase=1000000(mv/100)
#size=4000
-8.400E-06,0.080
-8.390E-06,0.000
-8.380E-06,0.000
-8.370E-06,0.080
-8.360E-06,0.000
-8.350E-06,0.000
-8.340E-06,0.040
-8.330E-06,0.040
-8.320E-06,0.080
-8.310E-06,0.040
-8.300E-06,0.080
-8.290E-06,0.080
-8.280E-06,0.080
-8.270E-06,0.080
-8.260E-06,0.040
-8.250E-06,0.040
-8.240E-06,0.040
-8.230E-06,0.080
-8.220E-06,0.080
-8.210E-06,0.040
-8.200E-06,0.040
-8.190E-06,0.040
-8.180E-06,0.040
-8.170E-06,0.040
-8.160E-06,0.040
-8.150E-06,0.120
-8.140E-06,0.120
-8.130E-06,0.120
-8.120E-06,0.000
-8.110E-06,0.080
-8.100E-06,0.080
-8.090E-06,0.040
-8.080E-06,0.080
-8.070E-06,0.040
-8.060E-06,0.080
-8.050E-06,0.120
-8.040E-06,0.040
-8.030E-06,0.040
-8.020E-06,0.040
-8.010E-06,0.080
-8.000E-06,0.080
-7.990E-06,0.000
-7.980E-06,0.040
-7.970E-06,0.040
-7.960E-06,0.040
-7.950E-06,0.080
-7.940E-06,0.040
-7.930E-06,0.040
-7.920E-06,0.040
-7.910E-06,0.080
-7.900E-06,0.120
-7.890E-06,0.000
-7.880E-06,0.080
-7.870E-06,0.040
-7.860E-06,0.040
-7.850E-06,0.120
-7.840E-06,0.000
-7.830E-06,0.000
-7.820E-06,0.040
-7.810E-06,0.000
-7.800E-06,0.040
-7.790E-06,0.040
-7.780E-06,0.040
-7.770E-06,0.000
-7.760E-06,0.040
-7.750E-06,0.040
-7.740E-06,0.000
-7.730E-06,0.040
-7.720E-06,0.000
-7.710E-06,0.040
-7.700E-06,0.000
-7.690E-06,0.000
-7.680E-06,0.080
-7.670E-06,0.040
-7.660E-06,0.040
-7.650E-06,0.000
-7.640E-06,0.000
-7.630E-06,0.080
-7.620E-06,0.000
-7.610E-06,0.040
-7.600E-06,0.120
-7.590E-06,0.120
-7.580E-06,0.000
-7.570E-06,0.040
-7.560E-06,0.040
-7.550E-06,0.080
-7.540E-06,0.080
-7.530E-06,0.000
-7.520E-06,0.000
-7.510E-06,0.040
-7.500E-06,0.080
-7.490E-06,0.000
-7.480E-06,0.040
-7.470E-06,0.040
-7.460E-06,0.040
-7.450E-06,0.040
-7.440E-06,0.080
-7.430E-06,0.000
-7.420E-06,0.080
-7.410E-06,0.040
-7.400E-06,0.080
-7.390E-06,0.040
-7.380E-06,0.080
-7.370E-06,0.000
-7.360E-06,0.040
-7.350E-06,0.080
-7.340E-06,0.080
-7.330E-06,0.000
-7.320E-06,0.080
-7.310E-06,0.040
-7.300E-06,0.000
-7.290E-06,0.040
-7.280E-06,0.040
-7.270E-06,0.040
-7.260E-06,0.040
-7.250E-06,0.080
-7.240E-06,0.080
-7.230E-06,0.040
-7.220E-06,0.080
-7.210E-06,0.000
-7.200E-06,0.040
-7.190E-06,0.080
-7.180E-06,0.000
-7.170E-06,0.040
-7.160E-06,0.040
-7.150E-06,0.040
-7.140E-06,0.040
-7.130E-06,0.040
-7.120E-06,0.080
-7.110E-06,0.000
-7.100E-06,0.080
-7.090E-06,0.040
-7.080E-06,0.080
-7.070E-06,0.000
-7.060E-06,0.040
-7.050E-06,0.040
-7.040E-06,0.040
-7.030E-06,0.000
-7.020E-06,0.080
-7.010E-06,0.040
-7.000E-06,0.040
-6.990E-06,0.040
-6.980E-06,0.080
-6.970E-06,0.040
-6.960E-06,0.120
-6.950E-06,0.080
-6.940E-06,0.040
-6.930E-06,0.080
-6.920E-06,0.040
-6.910E-06,0.080
-6.900E-06,0.040
-6.890E-06,0.040
-6.880E-06,0.040
-6.870E-06,0.040
-6.860E-06,0.040
-6.850E-06,0.040
-6.840E-06,0.000
-6.830E-06,0.040
-6.820E-06,0.000
-6.810E-06,0.040
-6.800E-06,0.040
-6.790E-06,0.080
-6.780E-06,0.040
-6.770E-06,0.040
-6.760E-06,0.040
-6.750E-06,0.080
-6.740E-06,0.080
-6.730E-06,0.000
-6.720E-06,0.040
-6.710E-06,0.040
-6.700E-06,0.040
-6.690E-06,0.040
-6.680E-06,0.080
-6.670E-06,0.240
-6.660E-06,0.440
-6.650E-06,0.920
-6.640E-06,1.800
-6.630E-06,2.840
-6.620E-06,3.920
-6.610E-06,4.560
-6.600E-06,4.480
-6.590E-06,3.520
-6.580E-06,2.000
-6.570E-06,0.440
-6.560E-06,-0.760
-6.550E-06,-1.800
-6.540E-06,-2.480
-6.530E-06,-3.120
-6.520E-06,-3.840
-6.510E-06,-4.400
-6.500E-06,-4.520
-6.490E-06,-4.160
-6.480E-06,-3.560
-6.470E-06,-3.040
-6.460E-06,-2.480
-6.450E-06,-2.200
-6.440E-06,-2.160
-6.430E-06,-1.960
-6.420E-06,-1.720
-6.410E-06,-1.320
-6.400E-06,-0.920
-6.390E-06,-0.520
-6.380E-06,-0.080
-6.370E-06,0.400
-6.360E-06,1.040
-6.350E-06,1.520
-6.340E-06,2.000
-6.330E-06,2.200
-6.320E-06,2.200
-6.310E-06,2.160
-6.300E-06,2.000
-6.290E-06,1.840
-6.280E-06,1.600
-6.270E-06,1.320
-6.260E-06,0.960
-6.250E-06,0.600
-6.240E-06,0.200
-6.230E-06,0.000
-6.220E-06,-0.160
-6.210E-06,-0.080
-6.200E-06,0.000
-6.190E-06,0.080
-6.180E-06,0.120
-6.170E-06,0.120
-6.160E-06,0.080
-6.150E-06,0.000
-6.140E-06,0.000
-6.130E-06,-0.040
-6.120E-06,-0.080
-6.110E-06,-0.080
-6.100E-06,-0.080
-6.090E-06,0.000
-6.080E-06,0.080
-6.070E-06,0.120
-6.060E-06,0.080
-6.050E-06,0.120
-6.040E-06,0.040
-6.030E-06,0.000
-6.020E-06,-0.120
-6.010E-06,-0.200
-6.000E-06,-0.360
-5.990E-06,-0.600
-5.980E-06,-0.840
-5.970E-06,-1.000
-5.960E-06,-1.040
-5.950E-06,-1.120
-5.940E-06,-1.120
-5.930E-06,-1.000
-5.920E-06,-0.880
-5.910E-06,-0.840
-5.900E-06,-0.720
-5.890E-06,-0.600
-5.880E-06,-0.400
-5.870E-06,-0.240
-5.860E-06,0.000
-5.850E-06,0.080
-5.840E-06,0.240
-5.830E-06,0.360
-5.820E-06,0.320
-5.810E-06,0.440
-5.800E-06,0.440
-5.790E-06,0.440
-5.780E-06,0.360
-5.770E-06,0.360
-5.760E-06,0.240
-5.750E-06,0.160
-5.740E-06,0.160
-5.730E-06,0.000
-5.720E-06,0.000
-5.710E-06,-0.080
-5.700E-06,-0.200
-5.690E-06,-0.240
-5.680E-06,-0.280
-5.670E-06,-0.240
-5.660E-06,-0.320
-5.650E-06,-0.320
-5.640E-06,-0.320
-5.630E-06,-0.360
-5.620E-06,-0.360
-5.610E-06,-0.320
-5.600E-06,-0.240
-5.590E-06,-0.160
-5.580E-06,-0.080
-5.570E-06,-0.080
-5.560E-06,-0.040
-5.550E-06,0.000
-5.540E-06,0.120
-5.530E-06,0.160
-5.520E-06,0.280
-5.510E-06,0.320
-5.500E-06,0.320
-5.490E-06,0.320
-5.480E-06,0.360
-5.470E-06,0.360
-5.460E-06,0.240
-5.450E-06,0.200
-5.440E-06,0.080
-5.430E-06,0.080
-5.420E-06,-0.040
-5.410E-06,-0.040
-5.400E-06,-0.120
-5.390E-06,-0.080
-5.380E-06,-0.160
-5.370E-06,-0.160
-5.360E-06,-0.240
-5.350E-06,-0.240
-5.340E-06,-0.280
-5.330E-06,-0.280
-5.320E-06,-0.280
-5.310E-06,-0.280
-5.300E-06,-0.320
-5.290E-06,-0.320
-5.280E-06,-0.240
-5.270E-06,-0.280
-5.260E-06,-0.160
-5.250E-06,-0.160
-5.240E-06,-0.080
-5.230E-06,0.040
-5.220E-06,-0.040
-5.210E-06,0.040
-5.200E-06,0.120
-5.190E-06,0.200
-5.180E-06,0.240
-5.170E-06,0.240
-5.160E-06,0.360
-5.150E-06,0.440
-5.140E-06,0.400
-5.130E-06,0.440
-5.120E-06,0.400
-5.110E-06,0.360
-5.100E-06,0.320
-5.090E-06,0.280
-5.080E-06,0.240
-5.070E-06,0.080
-5.060E-06,0.080
-5.050E-06,0.040
-5.040E-06,0.000
-5.030E-06,-0.080
-5.020E-06,-0.040
-5.010E-06,-0.080
-5.000E-06,-0.120
-4.990E-06,-0.080
-4.980E-06,-0.080
-4.970E-06,-0.120
-4.960E-06,-0.120
-4.950E-06,-0.040
-4.940E-06,-0.040
-4.930E-06,-0.040
-4.920E-06,0.000
-4.910E-06,0.040
-4.900E-06,0.080
-4.890E-06,0.040
-4.880E-06,0.120
-4.870E-06,0.160
-4.860E-06,0.160
-4.850E-06,0.240
-4.840E-06,0.200
-4.830E-06,0.200
-4.820E-06,0.240
-4.810E-06,0.280
-4.800E-06,0.360
-4.790E-06,0.280
-4.780E-06,0.280
-4.770E-06,0.240
-4.760E-06,0.240
-4.750E-06,0.240
-4.740E-06,0.200
-4.730E-06,0.240
-4.720E-06,0.240
-4.710E-06,0.160
-4.700E-06,0.200
-4.690E-06,0.240
-4.680E-06,0.160
-4.670E-06,0.120
-4.660E-06,0.120
-4.650E-06,0.160
-4.640E-06,0.160
-4.630E-06,0.160
-4.620E-06,0.120
-4.610E-06,0.120
-4.600E-06,0.120
-4.590E-06,0.160
-4.580E-06,0.080
-4.570E-06,0.040
-4.560E-06,0.040
-4.550E-06,0.040
-4.540E-06,0.040
-4.530E-06,0.040
-4.520E-06,0.040
-4.510E-06,0.040
-4.500E-06,0.040
-4.490E-06,0.000
-4.480E-06,0.000
-4.470E-06,0.040
-4.460E-06,0.040
-4.450E-06,0.080
-4.440E-06,0.120
-4.430E-06,0.040
-4.420E-06,0.080
-4.410E-06,0.080
-4.400E-06,0.080
-4.390E-06,0.120
-4.380E-06,0.080
-4.370E-06,0.200
-4.360E-06,0.120
-4.350E-06,0.160
-4.340E-06,0.120
-4.330E-06,0.120
-4.320E-06,0.120
-4.310E-06,0.120
-4.300E-06,0.120
-4.290E-06,0.040
-4.280E-06,0.000
-4.270E-06,0.000
-4.260E-06,-0.040
-4.250E-06,0.000
-4.240E-06,0.080
-4.230E-06,0.080
-4.220E-06,0.160
-4.210E-06,0.120
-4.200E-06,0.200
-4.190E-06,0.160
-4.180E-06,0.160
-4.170E-06,0.280
-4.160E-06,0.360
-4.150E-06,0.320
-4.140E-06,0.280
-4.130E-06,0.320
-4.120E-06,0.360
-4.110E-06,0.280
-4.100E-06,0.280
-4.090E-06,0.280
-4.080E-06,0.240
-4.070E-06,0.200
-4.060E-06,0.200
-4.050E-06,0.160
-4.040E-06,0.080
-4.030E-06,0.080
-4.020E-06,0.080
-4.010E-06,0.040
-4.000E-06,0.040
-3.990E-06,0.040
-3.980E-06,0.040
-3.970E-06,0.000
-3.960E-06,0.040
-3.950E-06,0.080
-3.940E-06,0.080
-3.930E-06,0.120
-3.920E-06,0.160
-3.910E-06,0.160
-3.900E-06,0.120
-3.890E-06,0.120
-3.880E-06,0.120
-3.870E-06,0.240
-3.860E-06,0.160
-3.850E-06,0.200
-3.840E-06,0.200
-3.830E-06,0.120
-3.820E-06,0.160
-3.810E-06,0.360
-3.800E-06,0.400
-3.790E-06,0.520
-3.780E-06,0.480
-3.770E-06,0.760
-3.760E-06,0.400
-3.750E-06,0.320
-3.740E-06,0.240
-3.730E-06,0.000
-3.720E-06,0.320
-3.710E-06,0.440
-3.700E-06,0.480
-3.690E-06,0.400
-3.680E-06,0.000
-3.670E-06,-0.120
-3.660E-06,-0.240
-3.650E-06,-0.080
-3.640E-06,0.080
-3.630E-06,0.120
-3.620E-06,0.080
-3.610E-06,-0.040
-3.600E-06,-0.160
-3.590E-06,-0.160
-3.580E-06,-0.080
-3.570E-06,0.040
-3.560E-06,0.160
-3.550E-06,0.160
-3.540E-06,0.000
-3.530E-06,0.000
-3.520E-06,0.080
-3.510E-06,0.120
-3.500E-06,0.120
-3.490E-06,0.160
-3.480E-06,0.160
-3.470E-06,0.200
-3.460E-06,0.160
-3.450E-06,0.280
-3.440E-06,0.240
-3.430E-06,0.120
-3.420E-06,0.080
-3.410E-06,-0.040
-3.400E-06,-0.040
-3.390E-06,0.000
-3.380E-06,0.080
-3.370E-06,0.160
-3.360E-06,0.080
-3.350E-06,0.080
-3.340E-06,0.040
-3.330E-06,0.080
-3.320E-06,0.080
-3.310E-06,0.120
-3.300E-06,0.240
-3.290E-06,0.280
-3.280E-06,0.280
-3.270E-06,0.240
-3.260E-06,0.240
-3.250E-06,0.280
-3.240E-06,0.360
-3.230E-06,0.320
-3.220E-06,0.240
-3.210E-06,0.280
-3.200E-06,0.200
-3.190E-06,0.200
-3.180E-06,0.240
-3.170E-06,0.280
-3.160E-06,0.160
-3.150E-06,0.080
-3.140E-06,0.120
-3.130E-06,0.120
-3.120E-06,0.120
-3.110E-06,0.200
-3.100E-06,0.160
-3.090E-06,0.120
-3.080E-06,0.200
-3.070E-06,0.200
-3.060E-06,0.200
-3.050E-06,0.280
-3.040E-06,0.200
-3.030E-06,0.240
-3.020E-06,0.200
-3.010E-06,0.160
-3.000E-06,0.160
-2.990E-06,0.240
-2.980E-06,0.320
-2.970E-06,0.320
-2.960E-06,0.440
-2.950E-06,0.400
-2.940E-06,0.400
-2.930E-06,0.480
-2.920E-06,0.320
-2.910E-06,0.360
-2.900E-06,0.360
-2.890E-06,0.160
-2.880E-06,0.280
-2.870E-06,0.200
-2.860E-06,0.160
-2.850E-06,0.280
-2.840E-06,0.160
-2.830E-06,0.240
-2.820E-06,0.280
-2.810E-06,0.160
-2.800E-06,0.160
-2.790E-06,0.080
-2.780E-06,0.040
-2.770E-06,0.040
-2.760E-06,0.000
-2.750E-06,0.080
-2.740E-06,0.080
-2.730E-06,0.120
-2.720E-06,0.080
-2.710E-06,0.080
-2.700E-06,0.040
-2.690E-06,0.080
-2.680E-06,0.080
-2.670E-06,0.120
-2.660E-06,0.080
-2.650E-06,0.160
-2.640E-06,0.200
-2.630E-06,0.160
-2.620E-06,0.120
-2.610E-06,0.160
-2.600E-06,0.160
-2.590E-06,0.240
-2.580E-06,0.200
-2.570E-06,0.200
-2.560E-06,0.200
-2.550E-06,0.200
-2.540E-06,0.200
-2.530E-06,0.200
-2.520E-06,0.280
-2.510E-06,0.240
-2.500E-06,0.240
-2.490E-06,0.360
-2.480E-06,0.360
-2.470E-06,0.320
-2.460E-06,0.360
-2.450E-06,0.360
-2.440E-06,0.280
-2.430E-06,0.360
-2.420E-06,0.320
-2.410E-06,0.400
-2.400E-06,0.400
-2.390E-06,0.440
-2.380E-06,0.440
-2.370E-06,0.400
-2.360E-06,0.360
-2.350E-06,0.360
-2.340E-06,0.360
-2.330E-06,0.360
-2.320E-06,0.400
-2.310E-06,0.320
-2.300E-06,0.360
-2.290E-06,0.280
-2.280E-06,0.240
-2.270E-06,0.240
-2.260E-06,0.320
-2.250E-06,0.360
-2.240E-06,0.320
-2.230E-06,0.400
-2.220E-06,0.360
-2.210E-06,0.360
-2.200E-06,0.320
-2.190E-06,0.320
-2.180E-06,0.360
-2.170E-06,0.360
-2.160E-06,0.440
-2.150E-06,0.440
-2.140E-06,0.400
-2.130E-06,0.400
-2.120E-06,0.440
-2.110E-06,0.440
-2.100E-06,0.520
-2.090E-06,0.520
-2.080E-06,0.480
-2.070E-06,0.560
-2.060E-06,0.600
-2.050E-06,0.560
-2.040E-06,0.560
-2.030E-06,0.520
-2.020E-06,0.520
-2.010E-06,0.480
-2.000E-06,0.440
-1.990E-06,0.400
-1.980E-06,0.400
-1.970E-06,0.360
-1.960E-06,0.400
-1.950E-06,0.360
-1.940E-06,0.360
-1.930E-06,0.240
-1.920E-06,0.040
-1.910E-06,-0.040
-1.900E-06,0.000
-1.890E-06,0.000
-1.880E-06,0.200
-1.870E-06,0.280
-1.860E-06,0.320
-1.850E-06,0.360
-1.840E-06,0.400
-1.830E-06,0.480
-1.820E-06,0.680
-1.810E-06,0.800
-1.800E-06,0.920
-1.790E-06,0.920
-1.780E-06,0.880
-1.770E-06,0.920
-1.760E-06,0.880
-1.750E-06,0.880
-1.740E-06,1.040
-1.730E-06,1.040
-1.720E-06,1.040
-1.710E-06,1.160
-1.700E-06,1.040
-1.690E-06,1.120
-1.680E-06,1.080
-1.670E-06,1.000
-1.660E-06,0.720
-1.650E-06,0.600
-1.640E-06,0.360
-1.630E-06,0.200
-1.620E-06,0.160
-1.610E-06,0.160
-1.600E-06,0.200
-1.590E-06,0.080
-1.580E-06,0.040
-1.570E-06,0.120
-1.560E-06,0.200
-1.550E-06,0.400
-1.540E-06,0.560
-1.530E-06,0.640
-1.520E-06,0.880
-1.510E-06,1.040
-1.500E-06,1.080
-1.490E-06,1.080
-1.480E-06,1.040
-1.470E-06,1.080
-1.460E-06,1.040
-1.450E-06,1.120
-1.440E-06,1.280
-1.430E-06,1.280
-1.420E-06,1.240
-1.410E-06,1.040
-1.400E-06,0.920
-1.390E-06,0.640
-1.380E-06,0.480
-1.370E-06,0.480
-1.360E-06,0.440
-1.350E-06,0.440
-1.340E-06,0.440
-1.330E-06,0.400
-1.320E-06,0.360
-1.310E-06,0.400
-1.300E-06,0.480
-1.290E-06,0.560
-1.280E-06,0.640
-1.270E-06,0.640
-1.260E-06,0.640
-1.250E-06,0.640
-1.240E-06,0.680
-1.230E-06,0.680
-1.220E-06,0.640
-1.210E-06,0.600
-1.200E-06,0.560
-1.190E-06,0.480
-1.180E-06,0.400
-1.170E-06,0.400
-1.160E-06,0.360
-1.150E-06,0.240
-1.140E-06,0.160
-1.130E-06,0.080
-1.120E-06,0.000
-1.110E-06,-0.040
-1.100E-06,-0.080
-1.090E-06,-0.080
-1.080E-06,-0.040
-1.070E-06,0.120
-1.060E-06,0.160
-1.050E-06,0.440
-1.040E-06,0.480
-1.030E-06,0.560
-1.020E-06,0.600
-1.010E-06,0.560
-1.000E-06,0.680
-9.900E-07,0.760
-9.800E-07,0.840
-9.700E-07,0.960
-9.600E-07,0.840
-9.500E-07,0.800
-9.400E-07,0.800
-9.300E-07,0.800
-9.200E-07,0.760
-9.100E-07,0.560
-9.000E-07,0.520
-8.900E-07,0.480
-8.800E-07,0.560
-8.700E-07,0.760
-8.600E-07,0.880
-8.500E-07,1.000
-8.400E-07,1.000
-8.300E-07,1.000
-8.200E-07,1.000
-8.100E-07,1.040
-8.000E-07,1.280
-7.900E-07,1.280
-7.800E-07,1.440
-7.700E-07,1.280
-7.600E-07,1.240
-7.500E-07,1.240
-7.400E-07,1.000
-7.300E-07,1.000
-7.200E-07,0.880
-7.100E-07,0.840
-7.000E-07,0.800
-6.900E-07,0.960
-6.800E-07,1.200
-6.700E-07,1.280
-6.600E-07,1.320
-6.500E-07,1.440
-6.400E-07,1.560
-6.300E-07,1.760
-6.200E-07,2.000
-6.100E-07,1.960
-6.000E-07,1.760
-5.900E-07,1.320
-5.800E-07,1.480
-5.700E-07,1.360
-5.600E-07,1.520
-5.500E-07,1.920
-5.400E-07,1.960
-5.300E-07,1.960
-5.200E-07,1.760
-5.100E-07,1.520
-5.000E-07,1.320
-4.900E-07,1.160
-4.800E-07,1.040
-4.700E-07,1.120
-4.600E-07,1.000
-4.500E-07,1.240
-4.400E-07,1.280
-4.300E-07,1.200
-4.200E-07,1.160
-4.100E-07,0.720
-4.000E-07,0.560
-3.900E-07,0.720
-3.800E-07,0.800
-3.700E-07,0.880
-3.600E-07,0.920
-3.500E-07,0.840
-3.400E-07,0.840
-3.300E-07,0.680
-3.200E-07,0.680
-3.100E-07,0.720
-3.000E-07,0.920
-2.900E-07,0.960
-2.800E-07,1.040
-2.700E-07,1.000
-2.600E-07,0.920
-2.500E-07,0.880
-2.400E-07,0.880
-2.300E-07,0.960
-2.200E-07,0.960
-2.100E-07,1.000
-2.000E-07,0.680
-1.900E-07,0.680
-1.800E-07,0.480
-1.700E-07,0.200
-1.600E-07,0.400
-1.500E-07,0.000
-1.400E-07,0.360
-1.300E-07,0.680
-1.200E-07,0.400
-1.100E-07,0.560
-1.000E-07,0.280
-9.000E-08,-0.120
-8.000E-08,-0.080
-7.000E-08,0.120
-6.000E-08,0.360
-5.000E-08,1.120
-4.000E-08,1.040
-3.000E-08,0.720
-2.000E-08,0.360
-1.000E-08,-0.040
0.000E+00,0.120
1.000E-08,0.600
2.000E-08,1.000
3.000E-08,1.640
4.000E-08,1.480
5.000E-08,1.240
6.000E-08,0.960
7.000E-08,0.200
8.000E-08,0.200
9.000E-08,0.160
1.000E-07,0.000
1.100E-07,0.280
1.200E-07,0.440
1.300E-07,0.200
1.400E-07,0.080
1.500E-07,-0.320
1.600E-07,-0.680
1.700E-07,-0.920
1.800E-07,-1.040
1.900E-07,-0.880
2.000E-07,-0.680
2.100E-07,-0.520
2.200E-07,-0.160
2.300E-07,-0.120
2.400E-07,-0.200
2.500E-07,-0.280
2.600E-07,-0.160
2.700E-07,-0.120
2.800E-07,0.040
2.900E-07,0.040
3.000E-07,0.200
3.100E-07,0.160
3.200E-07,0.240
3.300E-07,0.560
3.400E-07,0.680
3.500E-07,0.680
3.600E-07,0.520
3.700E-07,0.480
3.800E-07,0.360
3.900E-07,0.440
4.000E-07,0.440
4.100E-07,0.320
4.200E-07,0.320
4.300E-07,0.160
4.400E-07,0.160
4.500E-07,0.160
4.600E-07,0.040
4.700E-07,0.080
4.800E-07,-0.040
4.900E-07,0.000
5.000E-07,0.000
5.100E-07,0.080
5.200E-07,0.360
5.300E-07,0.280
5.400E-07,0.320
5.500E-07,0.120
5.600E-07,-0.120
5.700E-07,-0.160
5.800E-07,-0.360
5.900E-07,-0.400
6.000E-07,-0.320
6.100E-07,-0.600
6.200E-07,-0.600
6.300E-07,-0.680
6.400E-07,-0.800
6.500E-07,-0.720
6.600E-07,-0.800
6.700E-07,-0.880
6.800E-07,-0.760
6.900E-07,-0.800
7.000E-07,-0.800
7.100E-07,-0.840
7.200E-07,-0.840
7.300E-07,-0.760
7.400E-07,-0.760
7.500E-07,-0.800
7.600E-07,-0.720
7.700E-07,-0.640
7.800E-07,-0.520
7.900E-07,-0.600
8.000E-07,-0.680
8.100E-07,-0.800
8.200E-07,-1.160
8.300E-07,-1.480
8.400E-07,-1.720
8.500E-07,-2.120
8.600E-07,-2.360
8.700E-07,-3.040
8.800E-07,-3.920
8.900E-07,-4.960
9.000E-07,-5.200
9.100E-07,-5.200
9.200E-07,-5.200
9.300E-07,-5.200
9.400E-07,-5.200
9.500E-07,-5.200
9.600E-07,-5.200
9.700E-07,-5.240
9.800E-07,-5.240
9.900E-07,-5.240
1.000E-06,-5.240
1.010E-06,-5.240
1.020E-06,-5.240
1.030E-06,-5.240
1.040E-06,-5.240
1.050E-06,-5.240
1.060E-06,-5.200
1.070E-06,-5.240
1.080E-06,-5.240
1.090E-06,-5.200
1.100E-06,-5.200
1.110E-06,-5.200
1.120E-06,-5.240
1.130E-06,-5.200
1.140E-06,-5.240
1.150E-06,-4.760
1.160E-06,-3.840
1.170E-06,-3.360
1.180E-06,-3.120
1.190E-06,-3.320
1.200E-06,-3.840
1.210E-06,-4.080
1.220E-06,-4.720
1.230E-06,-4.880
1.240E-06,-5.040
1.250E-06,-5.240
1.260E-06,-5.200
1.270E-06,-5.200
1.280E-06,-5.200
1.290E-06,-5.240
1.300E-06,-5.240
1.310E-06,-5.240
1.320E-06,-5.240
1.330E-06,-5.240
1.340E-06,-5.240
1.350E-06,-5.240
1.360E-06,-5.200
1.370E-06,-5.200
1.380E-06,-5.240
1.390E-06,-5.240
1.400E-06,-5.240
1.410E-06,-5.200
1.420E-06,-4.960
1.430E-06,-4.560
1.440E-06,-4.280
1.450E-06,-3.960
1.460E-06,-3.480
1.470E-06,-3.120
1.480E-06,-2.720
1.490E-06,-2.520
1.500E-06,-2.520
1.510E-06,-2.520
1.520E-06,-2.520
1.530E-06,-2.560
1.540E-06,-2.440
1.550E-06,-2.320
1.560E-06,-2.360
1.570E-06,-2.400
1.580E-06,-2.480
1.590E-06,-2.440
1.600E-06,-2.400
1.610E-06,-2.400
1.620E-06,-2.360
1.630E-06,-2.280
1.640E-06,-2.240
1.650E-06,-2.200
1.660E-06,-2.040
1.670E-06,-2.000
1.680E-06,-1.840
1.690E-06,-1.800
1.700E-06,-1.800
1.710E-06,-1.800
1.720E-06,-1.840
1.730E-06,-1.680
1.740E-06,-1.720
1.750E-06,-1.880
1.760E-06,-1.920
1.770E-06,-2.240
1.780E-06,-2.840
1.790E-06,-2.520
1.800E-06,-2.960
1.810E-06,-2.960
1.820E-06,-2.880
1.830E-06,-4.640
1.840E-06,-4.240
1.850E-06,-4.760
1.860E-06,-4.000
1.870E-06,-3.320
1.880E-06,-2.160
1.890E-06,-2.840
1.900E-06,-4.200
1.910E-06,-4.360
1.920E-06,-5.240
1.930E-06,-4.520
1.940E-06,-3.240
1.950E-06,-2.320
1.960E-06,-0.560
1.970E-06,-0.160
1.980E-06,-0.240
1.990E-06,-0.400
2.000E-06,-0.960
2.010E-06,-0.520
2.020E-06,-0.240
2.030E-06,0.360
2.040E-06,0.960
2.050E-06,1.120
2.060E-06,1.040
2.070E-06,0.600
2.080E-06,0.000
2.090E-06,-0.320
2.100E-06,-0.600
2.110E-06,-0.880
2.120E-06,-0.840
2.130E-06,-1.120
2.140E-06,-1.400
2.150E-06,-1.680
2.160E-06,-2.240
2.170E-06,-2.520
2.180E-06,-2.720
2.190E-06,-2.960
2.200E-06,-2.800
2.210E-06,-2.680
2.220E-06,-2.680
2.230E-06,-2.480
2.240E-06,-2.480
2.250E-06,-2.520
2.260E-06,-2.200
2.270E-06,-2.080
2.280E-06,-1.920
2.290E-06,-1.680
2.300E-06,-1.760
2.310E-06,-1.760
2.320E-06,-1.840
2.330E-06,-2.040
2.340E-06,-2.200
2.350E-06,-2.240
2.360E-06,-2.440
2.370E-06,-2.520
2.380E-06,-2.680
2.390E-06,-2.800
2.400E-06,-2.840
2.410E-06,-2.880
2.420E-06,-3.000
2.430E-06,-3.000
2.440E-06,-3.040
2.450E-06,-3.040
2.460E-06,-3.120
2.470E-06,-3.160
2.480E-06,-3.120
2.490E-06,-3.200
2.500E-06,-3.320
2.510E-06,-3.520
2.520E-06,-3.400
2.530E-06,-3.640
2.540E-06,-3.200
2.550E-06,-3.120
2.560E-06,-2.920
2.570E-06,-2.400
2.580E-06,-2.320
2.590E-06,-1.800
2.600E-06,-1.720
2.610E-06,-1.720
2.620E-06,-1.520
2.630E-06,-1.880
2.640E-06,-2.000
2.650E-06,-2.040
2.660E-06,-2.120
2.670E-06,-1.840
2.680E-06,-1.880
2.690E-06,-2.000
2.700E-06,-2.240
2.710E-06,-2.520
2.720E-06,-2.960
2.730E-06,-3.280
2.740E-06,-3.560
2.750E-06,-4.200
2.760E-06,-4.360
2.770E-06,-4.920
2.780E-06,-5.000
2.790E-06,-4.680
2.800E-06,-4.480
2.810E-06,-3.760
2.820E-06,-3.400
2.830E-06,-3.120
2.840E-06,-2.640
2.850E-06,-2.280
2.860E-06,-1.720
2.870E-06,-1.040
2.880E-06,-0.800
2.890E-06,-0.760
2.900E-06,-0.840
2.910E-06,-1.240
2.920E-06,-1.360
2.930E-06,-1.320
2.940E-06,-1.080
2.950E-06,-0.680
2.960E-06,-0.360
2.970E-06,0.000
2.980E-06,0.240
2.990E-06,0.200
3.000E-06,0.120
3.010E-06,0.040
3.020E-06,0.000
3.030E-06,0.000
3.040E-06,-0.200
3.050E-06,-0.360
3.060E-06,-0.680
3.070E-06,-1.040
3.080E-06,-1.520
3.090E-06,-1.960
3.100E-06,-2.480
3.110E-06,-2.800
3.120E-06,-3.320
3.130E-06,-3.680
3.140E-06,-4.040
3.150E-06,-4.360
3.160E-06,-4.600
3.170E-06,-4.720
3.180E-06,-4.840
3.190E-06,-4.920
3.200E-06,-4.880
3.210E-06,-4.920
3.220E-06,-4.920
3.230E-06,-4.840
3.240E-06,-4.920
3.250E-06,-4.960
3.260E-06,-4.960
3.270E-06,-5.040
3.280E-06,-5.040
