mediciones/Mediciones filtradas (saque las feas)/5-27/-50/WaveData50202.csv

#timebase=2000000(ps)
,#voltbase=100000(mv/100)
#size=4000
-8.400E-06,-0.012
-8.390E-06,-0.008
-8.380E-06,0.000
-8.370E-06,0.012
-8.360E-06,0.020
-8.350E-06,0.008
-8.340E-06,0.000
-8.330E-06,-0.004
-8.320E-06,0.000
-8.310E-06,0.004
-8.300E-06,0.008
-8.290E-06,0.016
-8.280E-06,0.020
-8.270E-06,0.008
-8.260E-06,0.004
-8.250E-06,0.000
-8.240E-06,0.000
-8.230E-06,0.004
-8.220E-06,-0.008
-8.210E-06,-0.008
-8.200E-06,-0.008
-8.190E-06,-0.008
-8.180E-06,0.004
-8.170E-06,0.012
-8.160E-06,0.012
-8.150E-06,0.012
-8.140E-06,0.004
-8.130E-06,0.000
-8.120E-06,0.000
-8.110E-06,0.012
-8.100E-06,0.024
-8.090E-06,0.020
-8.080E-06,0.020
-8.070E-06,0.012
-8.060E-06,0.008
-8.050E-06,0.004
-8.040E-06,0.012
-8.030E-06,0.028
-8.020E-06,0.024
-8.010E-06,0.024
-8.000E-06,0.024
-7.990E-06,0.024
-7.980E-06,0.028
-7.970E-06,0.036
-7.960E-06,0.048
-7.950E-06,0.044
-7.940E-06,0.004
-7.930E-06,-0.032
-7.920E-06,-0.052
-7.910E-06,-0.036
-7.900E-06,0.004
-7.890E-06,0.044
-7.880E-06,0.060
-7.870E-06,0.056
-7.860E-06,0.032
-7.850E-06,0.004
-7.840E-06,-0.008
-7.830E-06,-0.008
-7.820E-06,0.008
-7.810E-06,0.024
-7.800E-06,0.020
-7.790E-06,0.020
-7.780E-06,-0.040
-7.770E-06,-0.132
-7.760E-06,-0.136
-7.750E-06,-0.124
-7.740E-06,-0.020
-7.730E-06,0.080
-7.720E-06,0.100
-7.710E-06,0.068
-7.700E-06,-0.020
-7.690E-06,-0.080
-7.680E-06,-0.104
-7.670E-06,-0.040
-7.660E-06,0.028
-7.650E-06,0.072
-7.640E-06,0.056
-7.630E-06,0.008
-7.620E-06,-0.028
-7.610E-06,-0.040
-7.600E-06,-0.016
-7.590E-06,0.008
-7.580E-06,0.032
-7.570E-06,0.020
-7.560E-06,-0.008
-7.550E-06,-0.016
-7.540E-06,-0.016
-7.530E-06,0.004
-7.520E-06,0.028
-7.510E-06,0.028
-7.500E-06,0.016
-7.490E-06,-0.004
-7.480E-06,-0.016
-7.470E-06,-0.008
-7.460E-06,-0.004
-7.450E-06,0.004
-7.440E-06,0.020
-7.430E-06,0.012
-7.420E-06,0.008
-7.410E-06,0.000
-7.400E-06,-0.004
-7.390E-06,-0.004
-7.380E-06,0.004
-7.370E-06,0.004
-7.360E-06,0.012
-7.350E-06,0.004
-7.340E-06,0.008
-7.330E-06,0.004
-7.320E-06,0.008
-7.310E-06,0.000
-7.300E-06,0.000
-7.290E-06,0.000
-7.280E-06,0.004
-7.270E-06,0.008
-7.260E-06,0.016
-7.250E-06,0.016
-7.240E-06,0.012
-7.230E-06,0.008
-7.220E-06,0.012
-7.210E-06,0.016
-7.200E-06,0.024
-7.190E-06,0.036
-7.180E-06,0.036
-7.170E-06,0.052
-7.160E-06,-0.012
-7.150E-06,-0.052
-7.140E-06,-0.072
-7.130E-06,-0.040
-7.120E-06,-0.004
-7.110E-06,0.028
-7.100E-06,0.056
-7.090E-06,0.040
-7.080E-06,0.028
-7.070E-06,-0.008
-7.060E-06,0.012
-7.050E-06,0.004
-7.040E-06,-0.024
-7.030E-06,-0.076
-7.020E-06,-0.128
-7.010E-06,-0.084
-7.000E-06,0.000
-6.990E-06,0.088
-6.980E-06,0.120
-6.970E-06,0.080
-6.960E-06,-0.012
-6.950E-06,-0.084
-6.940E-06,-0.108
-6.930E-06,-0.036
-6.920E-06,0.056
-6.910E-06,0.104
-6.900E-06,0.088
-6.890E-06,0.024
-6.880E-06,-0.040
-6.870E-06,-0.068
-6.860E-06,-0.036
-6.850E-06,0.008
-6.840E-06,0.048
-6.830E-06,0.044
-6.820E-06,0.008
-6.810E-06,-0.020
-6.800E-06,-0.028
-6.790E-06,-0.016
-6.780E-06,0.000
-6.770E-06,0.020
-6.760E-06,0.020
-6.750E-06,0.004
-6.740E-06,0.000
-6.730E-06,-0.004
-6.720E-06,-0.004
-6.710E-06,0.004
-6.700E-06,-0.004
-6.690E-06,0.000
-6.680E-06,-0.004
-6.670E-06,0.000
-6.660E-06,0.008
-6.650E-06,0.012
-6.640E-06,0.008
-6.630E-06,0.000
-6.620E-06,-0.004
-6.610E-06,0.000
-6.600E-06,0.016
-6.590E-06,0.024
-6.580E-06,0.028
-6.570E-06,0.024
-6.560E-06,0.012
-6.550E-06,0.008
-6.540E-06,0.016
-6.530E-06,0.036
-6.520E-06,0.060
-6.510E-06,0.064
-6.500E-06,0.072
-6.490E-06,0.036
-6.480E-06,-0.008
-6.470E-06,-0.052
-6.460E-06,-0.084
-6.450E-06,-0.048
-6.440E-06,-0.016
-6.430E-06,0.032
-6.420E-06,0.044
-6.410E-06,0.044
-6.400E-06,0.008
-6.390E-06,-0.028
-6.380E-06,-0.032
-6.370E-06,-0.020
-6.360E-06,0.008
-6.350E-06,0.016
-6.340E-06,0.024
-6.330E-06,0.008
-6.320E-06,0.004
-6.310E-06,0.000
-6.300E-06,0.000
-6.290E-06,0.012
-6.280E-06,0.024
-6.270E-06,0.032
-6.260E-06,0.048
-6.250E-06,0.016
-6.240E-06,-0.008
-6.230E-06,-0.036
-6.220E-06,-0.056
-6.210E-06,-0.016
-6.200E-06,0.016
-6.190E-06,0.056
-6.180E-06,0.040
-6.170E-06,0.020
-6.160E-06,-0.012
-6.150E-06,-0.080
-6.140E-06,-0.076
-6.130E-06,-0.056
-6.120E-06,-0.004
-6.110E-06,0.056
-6.100E-06,0.072
-6.090E-06,0.036
-6.080E-06,-0.020
-6.070E-06,-0.028
-6.060E-06,-0.064
-6.050E-06,-0.036
-6.040E-06,0.028
-6.030E-06,0.032
-6.020E-06,0.008
-6.010E-06,-0.028
-6.000E-06,-0.044
-5.990E-06,-0.036
-5.980E-06,0.012
-5.970E-06,0.048
-5.960E-06,0.044
-5.950E-06,0.020
-5.940E-06,-0.028
-5.930E-06,-0.032
-5.920E-06,-0.024
-5.910E-06,0.012
-5.900E-06,0.044
-5.890E-06,0.056
-5.880E-06,0.036
-5.870E-06,0.012
-5.860E-06,-0.008
-5.850E-06,0.000
-5.840E-06,0.020
-5.830E-06,0.056
-5.820E-06,0.076
-5.810E-06,0.084
-5.800E-06,0.064
-5.790E-06,0.000
-5.780E-06,-0.064
-5.770E-06,-0.108
-5.760E-06,-0.116
-5.750E-06,-0.060
-5.740E-06,0.016
-5.730E-06,0.068
-5.720E-06,0.088
-5.710E-06,0.056
-5.700E-06,-0.016
-5.690E-06,-0.068
-5.680E-06,-0.076
-5.670E-06,-0.044
-5.660E-06,0.024
-5.650E-06,0.068
-5.640E-06,0.076
-5.630E-06,0.044
-5.620E-06,0.004
-5.610E-06,-0.024
-5.600E-06,-0.028
-5.590E-06,-0.004
-5.580E-06,0.040
-5.570E-06,0.064
-5.560E-06,0.060
-5.550E-06,0.040
-5.540E-06,0.020
-5.530E-06,0.016
-5.520E-06,0.024
-5.510E-06,0.048
-5.500E-06,0.068
-5.490E-06,0.064
-5.480E-06,0.060
-5.470E-06,0.012
-5.460E-06,-0.028
-5.450E-06,-0.068
-5.440E-06,-0.076
-5.430E-06,-0.056
-5.420E-06,-0.016
-5.410E-06,0.012
-5.400E-06,0.032
-5.390E-06,0.020
-5.380E-06,0.000
-5.370E-06,-0.020
-5.360E-06,-0.020
-5.350E-06,-0.008
-5.340E-06,0.000
-5.330E-06,0.008
-5.320E-06,0.008
-5.310E-06,-0.004
-5.300E-06,-0.012
-5.290E-06,-0.012
-5.280E-06,0.004
-5.270E-06,0.016
-5.260E-06,0.012
-5.250E-06,0.012
-5.240E-06,0.012
-5.230E-06,0.008
-5.220E-06,0.012
-5.210E-06,0.020
-5.200E-06,0.028
-5.190E-06,0.040
-5.180E-06,0.048
-5.170E-06,0.052
-5.160E-06,0.056
-5.150E-06,0.060
-5.140E-06,0.060
-5.130E-06,0.032
-5.120E-06,-0.008
-5.110E-06,-0.064
-5.100E-06,-0.112
-5.090E-06,-0.124
-5.080E-06,-0.100
-5.070E-06,-0.052
-5.060E-06,0.000
-5.050E-06,0.024
-5.040E-06,0.020
-5.030E-06,0.004
-5.020E-06,-0.024
-5.010E-06,-0.044
-5.000E-06,-0.044
-4.990E-06,-0.016
-4.980E-06,0.008
-4.970E-06,0.012
-4.960E-06,0.016
-4.950E-06,0.004
-4.940E-06,-0.008
-4.930E-06,-0.020
-4.920E-06,-0.008
-4.910E-06,-0.004
-4.900E-06,0.008
-4.890E-06,0.004
-4.880E-06,0.004
-4.870E-06,-0.008
-4.860E-06,-0.004
-4.850E-06,0.000
-4.840E-06,0.004
-4.830E-06,0.008
-4.820E-06,0.012
-4.810E-06,0.008
-4.800E-06,0.008
-4.790E-06,0.008
-4.780E-06,0.004
-4.770E-06,0.012
-4.760E-06,0.016
-4.750E-06,0.024
-4.740E-06,0.024
-4.730E-06,0.020
-4.720E-06,0.024
-4.710E-06,0.024
-4.700E-06,0.016
-4.690E-06,0.008
-4.680E-06,0.008
-4.670E-06,0.008
-4.660E-06,0.008
-4.650E-06,0.016
-4.640E-06,0.020
-4.630E-06,0.016
-4.620E-06,0.012
-4.610E-06,-0.004
-4.600E-06,0.000
-4.590E-06,0.004
-4.580E-06,0.020
-4.570E-06,0.028
-4.560E-06,0.028
-4.550E-06,0.020
-4.540E-06,0.024
-4.530E-06,0.008
-4.520E-06,0.012
-4.510E-06,0.016
-4.500E-06,0.032
-4.490E-06,0.044
-4.480E-06,0.048
-4.470E-06,0.044
-4.460E-06,0.040
-4.450E-06,0.044
-4.440E-06,0.060
-4.430E-06,0.080
-4.420E-06,0.104
-4.410E-06,0.112
-4.400E-06,0.096
-4.390E-06,0.032
-4.380E-06,-0.048
-4.370E-06,-0.116
-4.360E-06,-0.124
-4.350E-06,-0.072
-4.340E-06,0.012
-4.330E-06,0.092
-4.320E-06,0.132
-4.310E-06,0.120
-4.300E-06,0.080
-4.290E-06,0.040
-4.280E-06,0.032
-4.270E-06,0.064
-4.260E-06,0.060
-4.250E-06,0.028
-4.240E-06,-0.100
-4.230E-06,-0.276
-4.220E-06,-0.384
-4.210E-06,-0.368
-4.200E-06,-0.200
-4.190E-06,0.036
-4.180E-06,0.188
-4.170E-06,0.216
-4.160E-06,0.108
-4.150E-06,-0.060
-4.140E-06,-0.168
-4.130E-06,-0.172
-4.120E-06,-0.088
-4.110E-06,0.040
-4.100E-06,0.112
-4.090E-06,0.096
-4.080E-06,0.028
-4.070E-06,-0.040
-4.060E-06,-0.072
-4.050E-06,-0.052
-4.040E-06,-0.008
-4.030E-06,0.024
-4.020E-06,0.036
-4.010E-06,0.016
-4.000E-06,-0.004
-3.990E-06,-0.008
-3.980E-06,-0.020
-3.970E-06,-0.008
-3.960E-06,0.008
-3.950E-06,0.016
-3.940E-06,0.016
-3.930E-06,0.020
-3.920E-06,0.016
-3.910E-06,0.008
-3.900E-06,0.004
-3.890E-06,0.000
-3.880E-06,0.000
-3.870E-06,0.012
-3.860E-06,0.012
-3.850E-06,0.020
-3.840E-06,0.016
-3.830E-06,0.004
-3.820E-06,-0.008
-3.810E-06,0.000
-3.800E-06,-0.004
-3.790E-06,0.012
-3.780E-06,0.024
-3.770E-06,0.024
-3.760E-06,0.016
-3.750E-06,0.004
-3.740E-06,-0.004
-3.730E-06,-0.004
-3.720E-06,-0.008
-3.710E-06,0.000
-3.700E-06,0.004
-3.690E-06,0.016
-3.680E-06,0.004
-3.670E-06,0.008
-3.660E-06,0.000
-3.650E-06,0.000
-3.640E-06,0.000
-3.630E-06,-0.004
-3.620E-06,-0.004
-3.610E-06,0.000
-3.600E-06,0.012
-3.590E-06,0.028
-3.580E-06,0.020
-3.570E-06,0.028
-3.560E-06,0.028
-3.550E-06,0.032
-3.540E-06,0.020
-3.530E-06,0.040
-3.520E-06,0.060
-3.510E-06,0.076
-3.500E-06,0.084
-3.490E-06,0.096
-3.480E-06,0.096
-3.470E-06,0.096
-3.460E-06,0.100
-3.450E-06,0.112
-3.440E-06,0.108
-3.430E-06,0.088
-3.420E-06,0.036
-3.410E-06,-0.008
-3.400E-06,-0.040
-3.390E-06,-0.060
-3.380E-06,-0.036
-3.370E-06,0.024
-3.360E-06,0.112
-3.350E-06,0.176
-3.340E-06,0.200
-3.330E-06,0.160
-3.320E-06,0.100
-3.310E-06,0.032
-3.300E-06,-0.004
-3.290E-06,0.004
-3.280E-06,0.052
-3.270E-06,0.088
-3.260E-06,0.104
-3.250E-06,0.068
-3.240E-06,0.028
-3.230E-06,-0.024
-3.220E-06,-0.048
-3.210E-06,-0.120
-3.200E-06,-0.216
-3.190E-06,-0.244
-3.180E-06,-0.304
-3.170E-06,-0.320
-3.160E-06,-0.264
-3.150E-06,-0.048
-3.140E-06,0.040
-3.130E-06,0.076
-3.120E-06,0.024
-3.110E-06,-0.048
-3.100E-06,-0.096
-3.090E-06,-0.080
-3.080E-06,-0.028
-3.070E-06,0.016
-3.060E-06,0.064
-3.050E-06,0.040
-3.040E-06,0.000
-3.030E-06,-0.052
-3.020E-06,-0.040
-3.010E-06,-0.036
-3.000E-06,0.000
-2.990E-06,0.008
-2.980E-06,0.008
-2.970E-06,-0.008
-2.960E-06,-0.024
-2.950E-06,-0.024
-2.940E-06,-0.004
-2.930E-06,0.012
-2.920E-06,0.028
-2.910E-06,0.028
-2.900E-06,0.012
-2.890E-06,0.004
-2.880E-06,-0.016
-2.870E-06,-0.024
-2.860E-06,-0.012
-2.850E-06,0.000
-2.840E-06,0.008
-2.830E-06,0.024
-2.820E-06,0.016
-2.810E-06,0.008
-2.800E-06,-0.004
-2.790E-06,-0.008
-2.780E-06,0.000
-2.770E-06,0.004
-2.760E-06,0.024
-2.750E-06,0.032
-2.740E-06,0.028
-2.730E-06,0.008
-2.720E-06,-0.004
-2.710E-06,-0.004
-2.700E-06,-0.004
-2.690E-06,0.008
-2.680E-06,0.024
-2.670E-06,0.024
-2.660E-06,0.020
-2.650E-06,0.016
-2.640E-06,0.004
-2.630E-06,0.004
-2.620E-06,0.008
-2.610E-06,0.024
-2.600E-06,0.024
-2.590E-06,0.036
-2.580E-06,0.036
-2.570E-06,0.036
-2.560E-06,0.024
-2.550E-06,0.024
-2.540E-06,0.012
-2.530E-06,0.020
-2.520E-06,0.020
-2.510E-06,0.028
-2.500E-06,0.032
-2.490E-06,0.040
-2.480E-06,0.052
-2.470E-06,0.052
-2.460E-06,0.056
-2.450E-06,0.064
-2.440E-06,0.080
-2.430E-06,0.088
-2.420E-06,0.096
-2.410E-06,0.092
-2.400E-06,0.096
-2.390E-06,0.084
-2.380E-06,0.080
-2.370E-06,0.072
-2.360E-06,0.080
-2.350E-06,0.092
-2.340E-06,0.116
-2.330E-06,0.132
-2.320E-06,0.136
-2.310E-06,0.136
-2.300E-06,0.108
-2.290E-06,0.076
-2.280E-06,0.020
-2.270E-06,0.008
-2.260E-06,-0.056
-2.250E-06,-0.092
-2.240E-06,-0.188
-2.230E-06,-0.208
-2.220E-06,-0.268
-2.210E-06,-0.264
-2.200E-06,-0.120
-2.190E-06,-0.028
-2.180E-06,0.084
-2.170E-06,-0.072
-2.160E-06,-0.236
-2.150E-06,-0.316
-2.140E-06,-0.252
-2.130E-06,-0.164
-2.120E-06,0.008
-2.110E-06,0.128
-2.100E-06,0.092
-2.090E-06,0.052
-2.080E-06,-0.040
-2.070E-06,-0.056
-2.060E-06,-0.036
-2.050E-06,-0.024
-2.040E-06,-0.020
-2.030E-06,0.024
-2.020E-06,0.032
-2.010E-06,0.032
-2.000E-06,0.028
-1.990E-06,-0.008
-1.980E-06,-0.036
-1.970E-06,-0.040
-1.960E-06,-0.016
-1.950E-06,0.020
-1.940E-06,0.068
-1.930E-06,0.044
-1.920E-06,0.028
-1.910E-06,-0.004
-1.900E-06,-0.024
-1.890E-06,-0.016
-1.880E-06,0.004
-1.870E-06,0.012
-1.860E-06,0.020
-1.850E-06,0.024
-1.840E-06,0.012
-1.830E-06,0.012
-1.820E-06,0.012
-1.810E-06,0.012
-1.800E-06,0.028
-1.790E-06,0.036
-1.780E-06,0.044
-1.770E-06,0.064
-1.760E-06,0.080
-1.750E-06,0.080
-1.740E-06,0.072
-1.730E-06,0.076
-1.720E-06,0.080
-1.710E-06,0.084
-1.700E-06,0.104
-1.690E-06,0.108
-1.680E-06,0.132
-1.670E-06,0.140
-1.660E-06,0.136
-1.650E-06,0.132
-1.640E-06,0.116
-1.630E-06,0.100
-1.620E-06,0.072
-1.610E-06,0.020
-1.600E-06,-0.020
-1.590E-06,-0.100
-1.580E-06,-0.164
-1.570E-06,-0.220
-1.560E-06,-0.240
-1.550E-06,-0.224
-1.540E-06,-0.156
-1.530E-06,-0.064
-1.520E-06,0.008
-1.510E-06,0.044
-1.500E-06,-0.012
-1.490E-06,-0.080
-1.480E-06,-0.124
-1.470E-06,-0.072
-1.460E-06,-0.008
-1.450E-06,0.048
-1.440E-06,0.072
-1.430E-06,0.032
-1.420E-06,0.004
-1.410E-06,-0.032
-1.400E-06,-0.028
-1.390E-06,-0.020
-1.380E-06,0.000
-1.370E-06,-0.008
-1.360E-06,-0.008
-1.350E-06,-0.024
-1.340E-06,-0.024
-1.330E-06,-0.016
-1.320E-06,0.000
-1.310E-06,0.000
-1.300E-06,0.008
-1.290E-06,0.000
-1.280E-06,-0.008
-1.270E-06,0.012
-1.260E-06,0.016
-1.250E-06,0.024
-1.240E-06,0.020
-1.230E-06,0.048
-1.220E-06,0.028
-1.210E-06,0.020
-1.200E-06,0.020
-1.190E-06,0.044
-1.180E-06,0.064
-1.170E-06,0.084
-1.160E-06,0.092
-1.150E-06,0.084
-1.140E-06,0.088
-1.130E-06,0.068
-1.120E-06,0.076
-1.110E-06,0.056
-1.100E-06,0.064
-1.090E-06,0.060
-1.080E-06,0.080
-1.070E-06,0.088
-1.060E-06,0.104
-1.050E-06,0.104
-1.040E-06,0.104
-1.030E-06,0.112
-1.020E-06,0.108
-1.010E-06,0.124
-1.000E-06,0.128
-9.900E-07,0.128
-9.800E-07,0.116
-9.700E-07,0.104
-9.600E-07,0.096
-9.500E-07,0.088
-9.400E-07,0.072
-9.300E-07,-0.024
-9.200E-07,-0.148
-9.100E-07,-0.304
-9.000E-07,-0.372
-8.900E-07,-0.360
-8.800E-07,-0.240
-8.700E-07,-0.112
-8.600E-07,-0.028
-8.500E-07,-0.028
-8.400E-07,-0.072
-8.300E-07,-0.124
-8.200E-07,-0.136
-8.100E-07,-0.084
-8.000E-07,0.004
-7.900E-07,0.056
-7.800E-07,0.060
-7.700E-07,0.020
-7.600E-07,-0.036
-7.500E-07,-0.060
-7.400E-07,-0.060
-7.300E-07,-0.040
-7.200E-07,0.028
-7.100E-07,0.056
-7.000E-07,0.060
-6.900E-07,0.032
-6.800E-07,0.000
-6.700E-07,-0.008
-6.600E-07,0.012
-6.500E-07,0.048
-6.400E-07,0.080
-6.300E-07,0.100
-6.200E-07,0.072
-6.100E-07,0.032
-6.000E-07,-0.004
-5.900E-07,-0.020
-5.800E-07,0.008
-5.700E-07,0.048
-5.600E-07,0.100
-5.500E-07,0.100
-5.400E-07,0.056
-5.300E-07,-0.020
-5.200E-07,-0.108
-5.100E-07,-0.124
-5.000E-07,-0.108
-4.900E-07,-0.008
-4.800E-07,0.072
-4.700E-07,0.120
-4.600E-07,0.108
-4.500E-07,0.056
-4.400E-07,0.004
-4.300E-07,-0.004
-4.200E-07,0.060
-4.100E-07,0.104
-4.000E-07,0.148
-3.900E-07,0.124
-3.800E-07,0.076
-3.700E-07,0.000
-3.600E-07,-0.032
-3.500E-07,-0.040
-3.400E-07,-0.012
-3.300E-07,0.032
-3.200E-07,0.064
-3.100E-07,0.072
-3.000E-07,0.060
-2.900E-07,0.044
-2.800E-07,0.032
-2.700E-07,0.044
-2.600E-07,0.060
-2.500E-07,0.088
-2.400E-07,0.104
-2.300E-07,0.112
-2.200E-07,0.116
-2.100E-07,0.116
-2.000E-07,0.108
-1.900E-07,0.116
-1.800E-07,0.124
-1.700E-07,0.144
-1.600E-07,0.160
-1.500E-07,0.168
-1.400E-07,0.172
-1.300E-07,0.168
-1.200E-07,0.156
-1.100E-07,0.144
-1.000E-07,0.120
-9.000E-08,0.088
-8.000E-08,0.060
-7.000E-08,0.012
-6.000E-08,-0.024
-5.000E-08,-0.024
-4.000E-08,0.008
-3.000E-08,0.088
-2.000E-08,0.180
-1.000E-08,0.228
0.000E+00,0.196
1.000E-08,0.076
2.000E-08,-0.116
3.000E-08,-0.288
4.000E-08,-0.364
5.000E-08,-0.268
6.000E-08,0.004
7.000E-08,0.272
8.000E-08,0.320
9.000E-08,0.168
1.000E-07,-0.100
1.100E-07,-0.400
1.200E-07,-0.512
1.300E-07,-0.512
1.400E-07,-0.500
1.500E-07,-0.304
1.600E-07,-0.108
1.700E-07,-0.052
1.800E-07,-0.072
1.900E-07,-0.084
2.000E-07,-0.104
2.100E-07,-0.004
2.200E-07,0.036
2.300E-07,0.096
2.400E-07,0.060
2.500E-07,-0.036
2.600E-07,-0.128
2.700E-07,-0.164
2.800E-07,-0.120
2.900E-07,-0.020
3.000E-07,0.080
3.100E-07,0.112
3.200E-07,0.120
3.300E-07,0.072
3.400E-07,-0.004
3.500E-07,-0.072
3.600E-07,-0.068
3.700E-07,-0.004
3.800E-07,0.088
3.900E-07,0.136
4.000E-07,0.112
4.100E-07,0.056
4.200E-07,0.012
4.300E-07,0.004
4.400E-07,0.028
4.500E-07,0.088
4.600E-07,0.128
4.700E-07,0.148
4.800E-07,0.144
4.900E-07,0.144
5.000E-07,0.136
5.100E-07,0.132
5.200E-07,0.128
5.300E-07,0.136
5.400E-07,0.148
5.500E-07,0.172
5.600E-07,0.180
5.700E-07,0.176
5.800E-07,0.160
5.900E-07,0.140
6.000E-07,0.132
6.100E-07,0.136
6.200E-07,0.152
6.300E-07,0.168
6.400E-07,0.176
6.500E-07,0.176
6.600E-07,0.168
6.700E-07,0.160
6.800E-07,0.156
6.900E-07,0.160
7.000E-07,0.160
7.100E-07,0.160
7.200E-07,0.164
7.300E-07,0.168
7.400E-07,0.164
7.500E-07,0.148
7.600E-07,0.128
7.700E-07,0.116
7.800E-07,0.116
7.900E-07,0.144
8.000E-07,0.160
8.100E-07,0.156
8.200E-07,0.084
8.300E-07,-0.024
8.400E-07,-0.148
8.500E-07,-0.240
8.600E-07,-0.296
8.700E-07,-0.328
8.800E-07,-0.348
8.900E-07,-0.328
9.000E-07,-0.256
9.100E-07,0.024
9.200E-07,0.084
9.300E-07,0.072
9.400E-07,0.000
9.500E-07,-0.240
9.600E-07,-0.368
9.700E-07,-0.364
9.800E-07,-0.240
9.900E-07,-0.084
1.000E-06,0.124
1.010E-06,0.112
1.020E-06,-0.024
1.030E-06,-0.096
1.040E-06,-0.216
1.050E-06,-0.192
1.060E-06,-0.100
1.070E-06,-0.004
1.080E-06,0.064
1.090E-06,0.104
1.100E-06,0.092
1.110E-06,0.032
1.120E-06,0.028
1.130E-06,0.016
1.140E-06,0.060
1.150E-06,0.128
1.160E-06,0.192
1.170E-06,0.220
1.180E-06,0.224
1.190E-06,0.180
1.200E-06,0.144
1.210E-06,0.144
1.220E-06,0.160
1.230E-06,0.180
1.240E-06,0.192
1.250E-06,0.192
1.260E-06,0.180
1.270E-06,0.164
1.280E-06,0.152
1.290E-06,0.156
1.300E-06,0.164
1.310E-06,0.172
1.320E-06,0.184
1.330E-06,0.188
1.340E-06,0.188
1.350E-06,0.176
1.360E-06,0.168
1.370E-06,0.156
1.380E-06,0.160
1.390E-06,0.168
1.400E-06,0.164
1.410E-06,0.172
1.420E-06,0.168
1.430E-06,0.160
1.440E-06,0.156
1.450E-06,0.156
1.460E-06,0.156
1.470E-06,0.164
1.480E-06,0.172
1.490E-06,0.168
1.500E-06,0.164
1.510E-06,0.160
1.520E-06,0.160
1.530E-06,0.160
1.540E-06,0.148
1.550E-06,0.152
1.560E-06,0.160
1.570E-06,0.156
1.580E-06,0.160
1.590E-06,0.164
1.600E-06,0.156
1.610E-06,0.148
1.620E-06,0.152
1.630E-06,0.144
1.640E-06,0.144
1.650E-06,0.148
1.660E-06,0.148
1.670E-06,0.152
1.680E-06,0.152
1.690E-06,0.140
1.700E-06,0.144
1.710E-06,0.140
1.720E-06,0.144
1.730E-06,0.152
1.740E-06,0.152
1.750E-06,0.160
1.760E-06,0.164
1.770E-06,0.160
1.780E-06,0.160
1.790E-06,0.156
1.800E-06,0.160
1.810E-06,0.164
1.820E-06,0.164
1.830E-06,0.160
1.840E-06,0.160
1.850E-06,0.164
1.860E-06,0.156
1.870E-06,0.156
1.880E-06,0.152
1.890E-06,0.156
1.900E-06,0.160
1.910E-06,0.156
1.920E-06,0.152
1.930E-06,0.156
1.940E-06,0.160
1.950E-06,0.160
1.960E-06,0.160
1.970E-06,0.160
1.980E-06,0.160
1.990E-06,0.164
2.000E-06,0.164
2.010E-06,0.156
2.020E-06,0.156
2.030E-06,0.160
2.040E-06,0.152
2.050E-06,0.156
2.060E-06,0.156
2.070E-06,0.160
2.080E-06,0.156
2.090E-06,0.156
2.100E-06,0.156
2.110E-06,0.156
2.120E-06,0.160
2.130E-06,0.152
2.140E-06,0.152
2.150E-06,0.156
2.160E-06,0.152
2.170E-06,0.152
2.180E-06,0.152
2.190E-06,0.152
2.200E-06,0.156
2.210E-06,0.156
2.220E-06,0.148
2.230E-06,0.152
2.240E-06,0.152
2.250E-06,0.152
2.260E-06,0.152
2.270E-06,0.152
2.280E-06,0.148
2.290E-06,0.152
2.300E-06,0.148
2.310E-06,0.152
2.320E-06,0.148
2.330E-06,0.148
2.340E-06,0.144
2.350E-06,0.152
2.360E-06,0.148
2.370E-06,0.148
2.380E-06,0.148
2.390E-06,0.144
2.400E-06,0.144
2.410E-06,0.144
2.420E-06,0.144
2.430E-06,0.140
2.440E-06,0.144
2.450E-06,0.144
2.460E-06,0.144
2.470E-06,0.144
2.480E-06,0.144
2.490E-06,0.144
2.500E-06,0.140
2.510E-06,0.144
2.520E-06,0.144
2.530E-06,0.140
2.540E-06,0.140
2.550E-06,0.136
2.560E-06,0.136
2.570E-06,0.140
2.580E-06,0.144
2.590E-06,0.144
2.600E-06,0.136
2.610E-06,0.132
2.620E-06,0.136
2.630E-06,0.136
2.640E-06,0.140
2.650E-06,0.140
2.660E-06,0.136
2.670E-06,0.136
2.680E-06,0.140
2.690E-06,0.136
2.700E-06,0.140
2.710E-06,0.140
2.720E-06,0.140
2.730E-06,0.140
2.740E-06,0.136
2.750E-06,0.136
2.760E-06,0.140
2.770E-06,0.136
2.780E-06,0.140
2.790E-06,0.140
2.800E-06,0.136
2.810E-06,0.132
2.820E-06,0.132
2.830E-06,0.136
2.840E-06,0.144
2.850E-06,0.136
2.860E-06,0.136
2.870E-06,0.132
2.880E-06,0.128
2.890E-06,0.128
2.900E-06,0.128
2.910E-06,0.132
2.920E-06,0.132
2.930E-06,0.132
2.940E-06,0.132
2.950E-06,0.128
2.960E-06,0.128
2.970E-06,0.128
2.980E-06,0.124
2.990E-06,0.124
3.000E-06,0.124
3.010E-06,0.128
3.020E-06,0.128
3.030E-06,0.128
3.040E-06,0.128
3.050E-06,0.128
3.060E-06,0.128
3.070E-06,0.128
3.080E-06,0.128
3.090E-06,0.132
3.100E-06,0.132
3.110E-06,0.132
3.120E-06,0.128
3.130E-06,0.124
3.140E-06,0.128
3.150E-06,0.128
3.160E-06,0.128
3.170E-06,0.132
3.180E-06,0.128
3.190E-06,0.128
3.200E-06,0.128
3.210E-06,0.132
3.220E-06,0.128
3.230E-06,0.124
3.240E-06,0.128
3.250E-06,0.124
3.260E-06,0.124
3.270E-06,0.128
3.280E-06,0.128
3.290E-06,0.128
3.300E-06,0.128
3.310E-06,0.124
3.320E-06,0.124
3.330E-06,0.120
