mediciones/Mediciones filtradas (saque las feas)/5-27/-55/WaveData50284.csv

#timebase=2000000(ps)
,#voltbase=100000(mv/100)
#size=4000
-5.650E-06,0.008
-5.640E-06,0.012
-5.630E-06,0.004
-5.620E-06,-0.004
-5.610E-06,0.000
-5.600E-06,0.000
-5.590E-06,-0.004
-5.580E-06,0.004
-5.570E-06,0.004
-5.560E-06,0.008
-5.550E-06,0.008
-5.540E-06,0.004
-5.530E-06,0.000
-5.520E-06,0.008
-5.510E-06,0.008
-5.500E-06,0.012
-5.490E-06,0.008
-5.480E-06,0.008
-5.470E-06,0.000
-5.460E-06,0.008
-5.450E-06,-0.004
-5.440E-06,0.000
-5.430E-06,-0.004
-5.420E-06,-0.012
-5.410E-06,0.008
-5.400E-06,0.012
-5.390E-06,0.016
-5.380E-06,0.012
-5.370E-06,0.012
-5.360E-06,0.004
-5.350E-06,0.000
-5.340E-06,0.000
-5.330E-06,0.008
-5.320E-06,0.012
-5.310E-06,0.004
-5.300E-06,0.000
-5.290E-06,-0.004
-5.280E-06,0.000
-5.270E-06,0.004
-5.260E-06,0.008
-5.250E-06,0.000
-5.240E-06,0.000
-5.230E-06,0.000
-5.220E-06,-0.008
-5.210E-06,0.012
-5.200E-06,0.016
-5.190E-06,0.016
-5.180E-06,0.000
-5.170E-06,-0.004
-5.160E-06,-0.004
-5.150E-06,0.000
-5.140E-06,0.008
-5.130E-06,0.012
-5.120E-06,0.012
-5.110E-06,0.004
-5.100E-06,0.000
-5.090E-06,-0.004
-5.080E-06,0.000
-5.070E-06,-0.004
-5.060E-06,0.008
-5.050E-06,0.012
-5.040E-06,0.012
-5.030E-06,-0.004
-5.020E-06,-0.004
-5.010E-06,-0.004
-5.000E-06,0.008
-4.990E-06,0.004
-4.980E-06,0.008
-4.970E-06,0.004
-4.960E-06,-0.004
-4.950E-06,-0.004
-4.940E-06,0.000
-4.930E-06,0.012
-4.920E-06,0.008
-4.910E-06,0.008
-4.900E-06,0.000
-4.890E-06,-0.004
-4.880E-06,-0.008
-4.870E-06,0.000
-4.860E-06,0.004
-4.850E-06,0.012
-4.840E-06,0.004
-4.830E-06,0.000
-4.820E-06,-0.004
-4.810E-06,-0.008
-4.800E-06,-0.004
-4.790E-06,0.008
-4.780E-06,0.008
-4.770E-06,0.016
-4.760E-06,0.008
-4.750E-06,-0.004
-4.740E-06,-0.008
-4.730E-06,0.000
-4.720E-06,0.000
-4.710E-06,0.012
-4.700E-06,0.016
-4.690E-06,0.004
-4.680E-06,-0.004
-4.670E-06,-0.004
-4.660E-06,0.000
-4.650E-06,0.000
-4.640E-06,0.008
-4.630E-06,0.012
-4.620E-06,0.008
-4.610E-06,0.000
-4.600E-06,0.000
-4.590E-06,0.000
-4.580E-06,0.000
-4.570E-06,0.012
-4.560E-06,0.012
-4.550E-06,0.004
-4.540E-06,0.004
-4.530E-06,0.004
-4.520E-06,0.000
-4.510E-06,-0.004
-4.500E-06,0.004
-4.490E-06,0.000
-4.480E-06,0.000
-4.470E-06,0.004
-4.460E-06,0.000
-4.450E-06,0.004
-4.440E-06,0.004
-4.430E-06,0.004
-4.420E-06,0.004
-4.410E-06,0.004
-4.400E-06,0.004
-4.390E-06,0.000
-4.380E-06,0.004
-4.370E-06,0.008
-4.360E-06,0.000
-4.350E-06,-0.004
-4.340E-06,0.000
-4.330E-06,-0.004
-4.320E-06,0.000
-4.310E-06,0.012
-4.300E-06,0.012
-4.290E-06,0.012
-4.280E-06,0.004
-4.270E-06,0.004
-4.260E-06,0.004
-4.250E-06,0.004
-4.240E-06,0.004
-4.230E-06,0.008
-4.220E-06,0.000
-4.210E-06,0.008
-4.200E-06,0.008
-4.190E-06,0.008
-4.180E-06,0.004
-4.170E-06,0.008
-4.160E-06,0.012
-4.150E-06,0.004
-4.140E-06,-0.008
-4.130E-06,-0.008
-4.120E-06,-0.008
-4.110E-06,-0.004
-4.100E-06,0.004
-4.090E-06,0.012
-4.080E-06,0.012
-4.070E-06,0.012
-4.060E-06,-0.004
-4.050E-06,-0.004
-4.040E-06,-0.004
-4.030E-06,0.008
-4.020E-06,0.008
-4.010E-06,0.008
-4.000E-06,0.004
-3.990E-06,-0.004
-3.980E-06,-0.004
-3.970E-06,0.000
-3.960E-06,0.000
-3.950E-06,0.008
-3.940E-06,0.008
-3.930E-06,0.004
-3.920E-06,0.000
-3.910E-06,-0.004
-3.900E-06,0.004
-3.890E-06,0.008
-3.880E-06,0.008
-3.870E-06,0.004
-3.860E-06,0.004
-3.850E-06,0.008
-3.840E-06,0.008
-3.830E-06,0.008
-3.820E-06,0.008
-3.810E-06,0.012
-3.800E-06,0.016
-3.790E-06,0.008
-3.780E-06,0.004
-3.770E-06,-0.004
-3.760E-06,-0.008
-3.750E-06,-0.012
-3.740E-06,-0.008
-3.730E-06,0.008
-3.720E-06,0.016
-3.710E-06,0.012
-3.700E-06,0.012
-3.690E-06,0.008
-3.680E-06,0.004
-3.670E-06,0.008
-3.660E-06,0.012
-3.650E-06,0.012
-3.640E-06,0.012
-3.630E-06,0.012
-3.620E-06,0.008
-3.610E-06,0.000
-3.600E-06,0.000
-3.590E-06,0.008
-3.580E-06,0.008
-3.570E-06,0.012
-3.560E-06,0.008
-3.550E-06,0.008
-3.540E-06,0.008
-3.530E-06,0.016
-3.520E-06,0.028
-3.510E-06,0.032
-3.500E-06,0.020
-3.490E-06,0.016
-3.480E-06,-0.004
-3.470E-06,-0.016
-3.460E-06,-0.024
-3.450E-06,-0.012
-3.440E-06,-0.008
-3.430E-06,0.016
-3.420E-06,0.028
-3.410E-06,0.012
-3.400E-06,-0.020
-3.390E-06,-0.056
-3.380E-06,-0.052
-3.370E-06,-0.028
-3.360E-06,0.016
-3.350E-06,0.048
-3.340E-06,0.056
-3.330E-06,0.028
-3.320E-06,-0.008
-3.310E-06,-0.044
-3.300E-06,-0.048
-3.290E-06,-0.004
-3.280E-06,0.028
-3.270E-06,0.052
-3.260E-06,0.032
-3.250E-06,0.008
-3.240E-06,-0.012
-3.230E-06,-0.020
-3.220E-06,-0.004
-3.210E-06,0.008
-3.200E-06,0.016
-3.190E-06,0.020
-3.180E-06,0.024
-3.170E-06,0.008
-3.160E-06,0.004
-3.150E-06,0.000
-3.140E-06,0.008
-3.130E-06,0.020
-3.120E-06,0.024
-3.110E-06,0.032
-3.100E-06,0.028
-3.090E-06,0.024
-3.080E-06,0.040
-3.070E-06,0.036
-3.060E-06,0.028
-3.050E-06,0.000
-3.040E-06,-0.028
-3.030E-06,-0.044
-3.020E-06,-0.032
-3.010E-06,-0.004
-3.000E-06,0.024
-2.990E-06,0.044
-2.980E-06,0.040
-2.970E-06,0.020
-2.960E-06,0.000
-2.950E-06,-0.008
-2.940E-06,-0.016
-2.930E-06,-0.012
-2.920E-06,0.004
-2.910E-06,0.008
-2.900E-06,0.024
-2.890E-06,0.020
-2.880E-06,-0.032
-2.870E-06,-0.124
-2.860E-06,-0.148
-2.850E-06,-0.104
-2.840E-06,0.000
-2.830E-06,0.092
-2.820E-06,0.104
-2.810E-06,0.092
-2.800E-06,0.020
-2.790E-06,-0.040
-2.780E-06,-0.072
-2.770E-06,-0.056
-2.760E-06,0.008
-2.750E-06,0.056
-2.740E-06,0.068
-2.730E-06,0.040
-2.720E-06,-0.004
-2.710E-06,-0.036
-2.700E-06,-0.024
-2.690E-06,-0.004
-2.680E-06,0.028
-2.670E-06,0.028
-2.660E-06,0.020
-2.650E-06,0.004
-2.640E-06,0.004
-2.630E-06,0.016
-2.620E-06,0.028
-2.610E-06,0.028
-2.600E-06,0.024
-2.590E-06,-0.024
-2.580E-06,-0.044
-2.570E-06,-0.036
-2.560E-06,0.000
-2.550E-06,0.040
-2.540E-06,0.052
-2.530E-06,0.032
-2.520E-06,0.004
-2.510E-06,-0.016
-2.500E-06,-0.032
-2.490E-06,-0.016
-2.480E-06,0.000
-2.470E-06,0.012
-2.460E-06,0.012
-2.450E-06,0.008
-2.440E-06,0.000
-2.430E-06,0.000
-2.420E-06,0.000
-2.410E-06,0.004
-2.400E-06,0.008
-2.390E-06,0.000
-2.380E-06,-0.004
-2.370E-06,0.000
-2.360E-06,0.008
-2.350E-06,0.024
-2.340E-06,0.036
-2.330E-06,0.028
-2.320E-06,0.024
-2.310E-06,0.016
-2.300E-06,0.012
-2.290E-06,0.024
-2.280E-06,0.032
-2.270E-06,0.044
-2.260E-06,0.052
-2.250E-06,0.048
-2.240E-06,0.044
-2.230E-06,0.040
-2.220E-06,0.048
-2.210E-06,0.048
-2.200E-06,0.040
-2.190E-06,0.012
-2.180E-06,-0.012
-2.170E-06,-0.040
-2.160E-06,-0.040
-2.150E-06,-0.012
-2.140E-06,0.012
-2.130E-06,0.032
-2.120E-06,0.028
-2.110E-06,0.024
-2.100E-06,0.012
-2.090E-06,0.008
-2.080E-06,0.012
-2.070E-06,0.012
-2.060E-06,0.024
-2.050E-06,0.020
-2.040E-06,0.016
-2.030E-06,-0.012
-2.020E-06,-0.084
-2.010E-06,-0.140
-2.000E-06,-0.140
-1.990E-06,-0.064
-1.980E-06,0.040
-1.970E-06,0.084
-1.960E-06,0.060
-1.950E-06,-0.032
-1.940E-06,-0.120
-1.930E-06,-0.156
-1.920E-06,-0.104
-1.910E-06,0.024
-1.900E-06,0.128
-1.890E-06,0.156
-1.880E-06,0.080
-1.870E-06,-0.024
-1.860E-06,-0.112
-1.850E-06,-0.080
-1.840E-06,-0.008
-1.830E-06,0.072
-1.820E-06,0.088
-1.810E-06,0.036
-1.800E-06,-0.028
-1.790E-06,-0.056
-1.780E-06,-0.052
-1.770E-06,0.000
-1.760E-06,0.040
-1.750E-06,0.040
-1.740E-06,0.012
-1.730E-06,-0.024
-1.720E-06,-0.032
-1.710E-06,-0.008
-1.700E-06,0.028
-1.690E-06,0.028
-1.680E-06,0.016
-1.670E-06,-0.016
-1.660E-06,-0.028
-1.650E-06,-0.012
-1.640E-06,0.016
-1.630E-06,0.032
-1.620E-06,0.028
-1.610E-06,0.012
-1.600E-06,-0.004
-1.590E-06,-0.008
-1.580E-06,0.000
-1.570E-06,0.024
-1.560E-06,0.036
-1.550E-06,0.028
-1.540E-06,0.012
-1.530E-06,-0.008
-1.520E-06,-0.008
-1.510E-06,-0.004
-1.500E-06,0.008
-1.490E-06,0.024
-1.480E-06,0.024
-1.470E-06,0.020
-1.460E-06,0.012
-1.450E-06,0.012
-1.440E-06,0.016
-1.430E-06,0.008
-1.420E-06,0.016
-1.410E-06,0.024
-1.400E-06,0.020
-1.390E-06,0.028
-1.380E-06,0.032
-1.370E-06,0.040
-1.360E-06,0.040
-1.350E-06,0.036
-1.340E-06,0.032
-1.330E-06,0.020
-1.320E-06,0.004
-1.310E-06,0.000
-1.300E-06,0.008
-1.290E-06,0.012
-1.280E-06,0.024
-1.270E-06,0.032
-1.260E-06,0.028
-1.250E-06,0.028
-1.240E-06,0.028
-1.230E-06,0.020
-1.220E-06,0.020
-1.210E-06,0.020
-1.200E-06,0.012
-1.190E-06,0.008
-1.180E-06,0.028
-1.170E-06,0.016
-1.160E-06,0.040
-1.150E-06,0.048
-1.140E-06,0.032
-1.130E-06,0.024
-1.120E-06,-0.004
-1.110E-06,-0.076
-1.100E-06,-0.124
-1.090E-06,-0.148
-1.080E-06,-0.136
-1.070E-06,-0.072
-1.060E-06,-0.036
-1.050E-06,0.000
-1.040E-06,0.024
-1.030E-06,0.012
-1.020E-06,-0.016
-1.010E-06,-0.040
-1.000E-06,-0.020
-9.900E-07,0.000
-9.800E-07,0.020
-9.700E-07,0.040
-9.600E-07,0.028
-9.500E-07,0.012
-9.400E-07,-0.012
-9.300E-07,-0.036
-9.200E-07,-0.032
-9.100E-07,-0.008
-9.000E-07,0.024
-8.900E-07,0.016
-8.800E-07,-0.008
-8.700E-07,-0.032
-8.600E-07,-0.040
-8.500E-07,-0.008
-8.400E-07,0.016
-8.300E-07,0.036
-8.200E-07,0.048
-8.100E-07,0.040
-8.000E-07,0.024
-7.900E-07,0.016
-7.800E-07,0.016
-7.700E-07,0.020
-7.600E-07,0.024
-7.500E-07,0.040
-7.400E-07,0.044
-7.300E-07,0.052
-7.200E-07,0.040
-7.100E-07,0.032
-7.000E-07,-0.004
-6.900E-07,-0.020
-6.800E-07,-0.056
-6.700E-07,-0.052
-6.600E-07,-0.036
-6.500E-07,-0.020
-6.400E-07,0.012
-6.300E-07,-0.004
-6.200E-07,-0.020
-6.100E-07,-0.032
-6.000E-07,-0.032
-5.900E-07,-0.004
-5.800E-07,0.008
-5.700E-07,0.028
-5.600E-07,0.016
-5.500E-07,0.004
-5.400E-07,-0.008
-5.300E-07,-0.024
-5.200E-07,-0.012
-5.100E-07,-0.004
-5.000E-07,0.012
-4.900E-07,0.008
-4.800E-07,0.004
-4.700E-07,0.004
-4.600E-07,-0.008
-4.500E-07,-0.008
-4.400E-07,-0.004
-4.300E-07,0.004
-4.200E-07,0.008
-4.100E-07,0.008
-4.000E-07,0.012
-3.900E-07,0.008
-3.800E-07,0.008
-3.700E-07,0.008
-3.600E-07,0.016
-3.500E-07,0.020
-3.400E-07,0.024
-3.300E-07,0.024
-3.200E-07,0.028
-3.100E-07,0.032
-3.000E-07,0.032
-2.900E-07,0.040
-2.800E-07,0.056
-2.700E-07,0.060
-2.600E-07,0.076
-2.500E-07,0.080
-2.400E-07,0.084
-2.300E-07,0.088
-2.200E-07,0.084
-2.100E-07,0.076
-2.000E-07,0.068
-1.900E-07,0.064
-1.800E-07,0.064
-1.700E-07,0.068
-1.600E-07,0.076
-1.500E-07,0.072
-1.400E-07,0.072
-1.300E-07,0.064
-1.200E-07,0.068
-1.100E-07,0.064
-1.000E-07,0.068
-9.000E-08,0.052
-8.000E-08,0.028
-7.000E-08,0.000
-6.000E-08,-0.060
-5.000E-08,-0.280
-4.000E-08,-0.512
-3.000E-08,-0.508
-2.000E-08,-0.504
-1.000E-08,0.060
0.000E+00,0.536
1.000E-08,0.540
2.000E-08,0.540
3.000E-08,-0.052
4.000E-08,-0.400
5.000E-08,-0.508
6.000E-08,-0.336
7.000E-08,-0.036
8.000E-08,0.160
9.000E-08,0.136
1.000E-07,0.064
1.100E-07,0.024
1.200E-07,-0.004
1.300E-07,0.024
1.400E-07,0.036
1.500E-07,0.024
1.600E-07,0.028
1.700E-07,0.056
1.800E-07,0.056
1.900E-07,0.080
2.000E-07,0.076
2.100E-07,0.048
2.200E-07,0.028
2.300E-07,0.048
2.400E-07,0.060
2.500E-07,0.076
2.600E-07,0.092
2.700E-07,0.084
2.800E-07,0.068
2.900E-07,0.072
3.000E-07,0.056
3.100E-07,0.000
3.200E-07,-0.080
3.300E-07,-0.144
3.400E-07,-0.192
3.500E-07,-0.172
3.600E-07,-0.096
3.700E-07,-0.028
3.800E-07,0.056
3.900E-07,0.096
4.000E-07,0.072
4.100E-07,0.004
4.200E-07,-0.040
4.300E-07,-0.056
4.400E-07,-0.036
4.500E-07,0.016
4.600E-07,0.088
4.700E-07,0.092
4.800E-07,0.068
4.900E-07,0.024
5.000E-07,-0.024
5.100E-07,-0.032
5.200E-07,-0.012
5.300E-07,0.008
5.400E-07,0.024
5.500E-07,0.024
5.600E-07,0.032
5.700E-07,0.028
5.800E-07,0.036
5.900E-07,0.040
6.000E-07,0.012
6.100E-07,-0.024
6.200E-07,-0.088
6.300E-07,-0.072
6.400E-07,-0.036
6.500E-07,0.028
6.600E-07,0.068
6.700E-07,0.056
6.800E-07,0.016
6.900E-07,-0.104
7.000E-07,-0.176
7.100E-07,-0.216
7.200E-07,-0.140
7.300E-07,0.024
7.400E-07,0.132
7.500E-07,0.152
7.600E-07,0.064
7.700E-07,-0.036
7.800E-07,-0.100
7.900E-07,-0.088
8.000E-07,-0.016
8.100E-07,0.056
8.200E-07,0.084
8.300E-07,0.068
8.400E-07,0.012
8.500E-07,-0.036
8.600E-07,-0.064
8.700E-07,-0.036
8.800E-07,0.008
8.900E-07,0.044
9.000E-07,0.044
9.100E-07,0.028
9.200E-07,0.004
9.300E-07,-0.008
9.400E-07,-0.008
9.500E-07,0.024
9.600E-07,0.064
9.700E-07,0.088
9.800E-07,0.076
9.900E-07,0.072
1.000E-06,0.044
1.010E-06,0.000
1.020E-06,-0.060
1.030E-06,-0.096
1.040E-06,-0.104
1.050E-06,-0.076
1.060E-06,-0.016
1.070E-06,-0.004
1.080E-06,0.024
1.090E-06,0.012
1.100E-06,0.000
1.110E-06,-0.008
1.120E-06,0.016
1.130E-06,0.016
1.140E-06,0.044
1.150E-06,0.008
1.160E-06,-0.008
1.170E-06,-0.020
1.180E-06,0.000
1.190E-06,0.020
1.200E-06,0.048
1.210E-06,0.060
1.220E-06,0.052
1.230E-06,0.040
1.240E-06,0.028
1.250E-06,0.028
1.260E-06,0.012
1.270E-06,0.020
1.280E-06,0.028
1.290E-06,0.040
1.300E-06,0.056
1.310E-06,0.068
1.320E-06,0.060
1.330E-06,0.044
1.340E-06,0.000
1.350E-06,-0.044
1.360E-06,-0.060
1.370E-06,-0.068
1.380E-06,-0.052
1.390E-06,-0.012
1.400E-06,-0.012
1.410E-06,0.000
1.420E-06,-0.024
1.430E-06,-0.056
1.440E-06,-0.068
1.450E-06,-0.052
1.460E-06,-0.008
1.470E-06,0.024
1.480E-06,0.040
1.490E-06,0.012
1.500E-06,-0.020
1.510E-06,-0.040
1.520E-06,-0.040
1.530E-06,-0.012
1.540E-06,0.012
1.550E-06,0.004
1.560E-06,0.008
1.570E-06,0.008
1.580E-06,0.008
1.590E-06,0.000
1.600E-06,-0.004
1.610E-06,-0.008
1.620E-06,-0.004
1.630E-06,0.000
1.640E-06,0.000
1.650E-06,0.008
1.660E-06,0.008
1.670E-06,0.004
1.680E-06,0.000
1.690E-06,0.000
1.700E-06,0.000
1.710E-06,0.012
1.720E-06,0.008
1.730E-06,0.012
1.740E-06,0.012
1.750E-06,0.016
1.760E-06,0.024
1.770E-06,0.024
1.780E-06,0.016
1.790E-06,0.024
1.800E-06,0.032
1.810E-06,0.032
1.820E-06,0.040
1.830E-06,0.028
1.840E-06,0.024
1.850E-06,0.020
1.860E-06,0.020
1.870E-06,0.028
1.880E-06,0.044
1.890E-06,0.040
1.900E-06,0.048
1.910E-06,0.040
1.920E-06,0.044
1.930E-06,0.044
1.940E-06,0.044
1.950E-06,0.040
1.960E-06,0.040
1.970E-06,0.036
1.980E-06,0.036
1.990E-06,0.044
2.000E-06,0.044
2.010E-06,0.056
2.020E-06,0.056
2.030E-06,0.068
2.040E-06,0.068
2.050E-06,0.072
2.060E-06,0.072
2.070E-06,0.060
2.080E-06,0.064
2.090E-06,0.072
2.100E-06,0.080
2.110E-06,0.088
2.120E-06,0.088
2.130E-06,0.088
2.140E-06,0.092
2.150E-06,0.096
2.160E-06,0.096
2.170E-06,0.104
2.180E-06,0.100
2.190E-06,0.096
2.200E-06,0.092
2.210E-06,0.088
2.220E-06,0.088
2.230E-06,0.076
2.240E-06,0.076
2.250E-06,0.068
2.260E-06,0.072
2.270E-06,0.072
2.280E-06,0.080
2.290E-06,0.080
2.300E-06,0.088
2.310E-06,0.088
2.320E-06,0.088
2.330E-06,0.080
2.340E-06,0.056
2.350E-06,-0.044
2.360E-06,-0.300
2.370E-06,-0.512
2.380E-06,-0.508
2.390E-06,-0.444
2.400E-06,0.000
2.410E-06,0.156
2.420E-06,0.224
2.430E-06,-0.068
2.440E-06,-0.336
2.450E-06,-0.508
2.460E-06,-0.508
2.470E-06,-0.380
2.480E-06,0.000
2.490E-06,0.252
2.500E-06,0.288
2.510E-06,0.116
2.520E-06,-0.020
2.530E-06,-0.168
2.540E-06,-0.208
2.550E-06,-0.052
2.560E-06,0.076
2.570E-06,0.220
2.580E-06,0.196
2.590E-06,0.072
2.600E-06,-0.072
2.610E-06,-0.108
2.620E-06,-0.092
2.630E-06,0.008
2.640E-06,0.124
2.650E-06,0.144
2.660E-06,0.124
2.670E-06,0.044
2.680E-06,-0.032
2.690E-06,-0.056
2.700E-06,-0.016
2.710E-06,0.024
2.720E-06,0.076
2.730E-06,0.092
2.740E-06,0.056
2.750E-06,0.016
2.760E-06,-0.032
2.770E-06,-0.068
2.780E-06,-0.040
2.790E-06,0.000
2.800E-06,0.040
2.810E-06,0.060
2.820E-06,0.040
2.830E-06,0.000
2.840E-06,-0.040
2.850E-06,-0.040
2.860E-06,-0.040
2.870E-06,0.012
2.880E-06,0.056
2.890E-06,0.076
2.900E-06,0.060
2.910E-06,0.040
2.920E-06,-0.004
2.930E-06,-0.020
2.940E-06,-0.012
2.950E-06,0.016
2.960E-06,0.048
2.970E-06,0.064
2.980E-06,0.060
2.990E-06,0.028
3.000E-06,0.016
3.010E-06,0.020
3.020E-06,0.028
3.030E-06,0.060
3.040E-06,0.076
3.050E-06,0.092
3.060E-06,0.096
3.070E-06,0.100
3.080E-06,0.092
3.090E-06,0.104
3.100E-06,0.108
3.110E-06,0.124
3.120E-06,0.136
3.130E-06,0.156
3.140E-06,0.144
3.150E-06,0.136
3.160E-06,0.112
3.170E-06,0.088
3.180E-06,0.064
3.190E-06,0.056
3.200E-06,0.064
3.210E-06,0.092
3.220E-06,0.108
3.230E-06,0.132
3.240E-06,0.128
3.250E-06,0.124
3.260E-06,0.116
3.270E-06,0.108
3.280E-06,0.092
3.290E-06,0.088
3.300E-06,0.072
3.310E-06,0.056
3.320E-06,0.060
3.330E-06,0.024
3.340E-06,-0.004
3.350E-06,-0.040
3.360E-06,-0.056
3.370E-06,-0.040
3.380E-06,0.020
3.390E-06,0.052
3.400E-06,0.080
3.410E-06,0.084
3.420E-06,0.052
3.430E-06,0.024
3.440E-06,0.028
3.450E-06,0.052
3.460E-06,0.076
3.470E-06,0.116
3.480E-06,0.132
3.490E-06,0.124
3.500E-06,0.092
3.510E-06,0.060
3.520E-06,-0.004
3.530E-06,-0.044
3.540E-06,-0.068
3.550E-06,-0.060
3.560E-06,-0.012
3.570E-06,0.024
3.580E-06,0.036
3.590E-06,-0.064
3.600E-06,-0.176
3.610E-06,-0.308
3.620E-06,-0.348
3.630E-06,-0.272
3.640E-06,-0.132
3.650E-06,-0.020
3.660E-06,0.056
3.670E-06,0.044
3.680E-06,-0.004
3.690E-06,-0.040
3.700E-06,-0.024
3.710E-06,0.032
3.720E-06,0.088
3.730E-06,0.104
3.740E-06,0.092
3.750E-06,0.060
3.760E-06,0.044
3.770E-06,0.068
3.780E-06,0.124
3.790E-06,0.156
3.800E-06,0.172
3.810E-06,0.152
3.820E-06,0.108
3.830E-06,0.076
3.840E-06,0.068
3.850E-06,0.076
3.860E-06,0.108
3.870E-06,0.124
3.880E-06,0.124
3.890E-06,0.096
3.900E-06,0.080
3.910E-06,0.072
3.920E-06,0.076
3.930E-06,0.100
3.940E-06,0.124
3.950E-06,0.136
3.960E-06,0.144
3.970E-06,0.148
3.980E-06,0.144
3.990E-06,0.136
4.000E-06,0.140
4.010E-06,0.144
4.020E-06,0.140
4.030E-06,0.144
4.040E-06,0.140
4.050E-06,0.140
4.060E-06,0.136
4.070E-06,0.128
4.080E-06,0.116
4.090E-06,0.120
4.100E-06,0.128
4.110E-06,0.136
4.120E-06,0.144
4.130E-06,0.144
4.140E-06,0.140
4.150E-06,0.136
4.160E-06,0.132
4.170E-06,0.128
4.180E-06,0.120
4.190E-06,0.120
4.200E-06,0.124
4.210E-06,0.124
4.220E-06,0.120
4.230E-06,0.120
4.240E-06,0.108
4.250E-06,0.104
4.260E-06,0.096
4.270E-06,0.100
4.280E-06,0.116
4.290E-06,0.136
4.300E-06,0.152
4.310E-06,0.148
4.320E-06,0.144
4.330E-06,0.128
4.340E-06,0.124
4.350E-06,0.112
4.360E-06,0.112
4.370E-06,0.124
4.380E-06,0.128
4.390E-06,0.128
4.400E-06,0.128
4.410E-06,0.124
4.420E-06,0.116
4.430E-06,0.112
4.440E-06,0.124
4.450E-06,0.124
4.460E-06,0.132
4.470E-06,0.128
4.480E-06,0.104
4.490E-06,0.056
4.500E-06,-0.040
4.510E-06,-0.088
4.520E-06,-0.148
4.530E-06,-0.156
4.540E-06,-0.176
4.550E-06,-0.236
4.560E-06,-0.240
4.570E-06,-0.272
4.580E-06,-0.288
4.590E-06,-0.196
4.600E-06,-0.036
4.610E-06,0.120
4.620E-06,0.280
4.630E-06,0.208
4.640E-06,0.108
4.650E-06,0.032
4.660E-06,0.020
4.670E-06,0.056
4.680E-06,0.076
4.690E-06,0.088
4.700E-06,0.056
4.710E-06,0.060
4.720E-06,0.072
4.730E-06,0.112
4.740E-06,0.140
4.750E-06,0.160
4.760E-06,0.140
4.770E-06,0.092
4.780E-06,0.064
4.790E-06,0.052
4.800E-06,0.068
4.810E-06,0.092
4.820E-06,0.104
4.830E-06,0.096
4.840E-06,0.080
4.850E-06,0.056
4.860E-06,0.064
4.870E-06,0.072
4.880E-06,0.096
4.890E-06,0.124
4.900E-06,0.136
4.910E-06,0.136
4.920E-06,0.128
4.930E-06,0.116
4.940E-06,0.108
4.950E-06,0.112
4.960E-06,0.128
4.970E-06,0.152
4.980E-06,0.156
4.990E-06,0.160
5.000E-06,0.144
5.010E-06,0.128
5.020E-06,0.120
5.030E-06,0.124
5.040E-06,0.132
5.050E-06,0.144
5.060E-06,0.144
5.070E-06,0.144
5.080E-06,0.132
5.090E-06,0.112
5.100E-06,0.108
5.110E-06,0.112
5.120E-06,0.124
5.130E-06,0.128
5.140E-06,0.140
5.150E-06,0.140
5.160E-06,0.140
5.170E-06,0.124
5.180E-06,0.120
5.190E-06,0.112
5.200E-06,0.120
5.210E-06,0.128
5.220E-06,0.136
5.230E-06,0.140
5.240E-06,0.132
5.250E-06,0.124
5.260E-06,0.120
5.270E-06,0.112
5.280E-06,0.112
5.290E-06,0.128
5.300E-06,0.132
5.310E-06,0.136
5.320E-06,0.132
5.330E-06,0.124
5.340E-06,0.116
5.350E-06,0.112
5.360E-06,0.124
5.370E-06,0.128
5.380E-06,0.140
5.390E-06,0.144
5.400E-06,0.136
5.410E-06,0.128
5.420E-06,0.108
5.430E-06,0.096
5.440E-06,0.100
5.450E-06,0.108
5.460E-06,0.116
5.470E-06,0.128
5.480E-06,0.124
5.490E-06,0.124
5.500E-06,0.116
5.510E-06,0.104
5.520E-06,0.096
5.530E-06,0.100
5.540E-06,0.100
5.550E-06,0.100
5.560E-06,0.100
5.570E-06,0.104
5.580E-06,0.104
5.590E-06,0.104
5.600E-06,0.100
5.610E-06,0.104
5.620E-06,0.112
5.630E-06,0.120
5.640E-06,0.128
5.650E-06,0.132
5.660E-06,0.128
5.670E-06,0.128
5.680E-06,0.124
5.690E-06,0.128
5.700E-06,0.124
5.710E-06,0.128
5.720E-06,0.124
5.730E-06,0.128
5.740E-06,0.128
5.750E-06,0.128
5.760E-06,0.128
5.770E-06,0.108
5.780E-06,0.112
5.790E-06,0.120
5.800E-06,0.124
5.810E-06,0.128
5.820E-06,0.124
5.830E-06,0.120
5.840E-06,0.112
5.850E-06,0.108
5.860E-06,0.108
5.870E-06,0.112
5.880E-06,0.112
5.890E-06,0.116
5.900E-06,0.116
5.910E-06,0.112
5.920E-06,0.112
5.930E-06,0.112
5.940E-06,0.112
5.950E-06,0.112
5.960E-06,0.120
5.970E-06,0.124
5.980E-06,0.128
5.990E-06,0.124
6.000E-06,0.120
6.010E-06,0.112
6.020E-06,0.112
6.030E-06,0.120
6.040E-06,0.120
6.050E-06,0.120
6.060E-06,0.120
6.070E-06,0.120
6.080E-06,0.116
6.090E-06,0.116
6.100E-06,0.108
6.110E-06,0.108
6.120E-06,0.108
6.130E-06,0.112
6.140E-06,0.116
6.150E-06,0.116
6.160E-06,0.116
6.170E-06,0.112
6.180E-06,0.108
6.190E-06,0.108
6.200E-06,0.112
6.210E-06,0.112
6.220E-06,0.112
6.230E-06,0.112
6.240E-06,0.112
6.250E-06,0.112
6.260E-06,0.108
6.270E-06,0.108
