mediciones/6-10/25/WaveData5541.csv

#timebase=2000000(ps)
,#voltbase=500000(mv/100)
#size=4000
-4.250E-06,0.020
-4.240E-06,0.040
-4.230E-06,0.020
-4.220E-06,0.040
-4.210E-06,0.080
-4.200E-06,0.000
-4.190E-06,0.020
-4.180E-06,0.060
-4.170E-06,0.020
-4.160E-06,0.040
-4.150E-06,0.020
-4.140E-06,0.060
-4.130E-06,0.020
-4.120E-06,0.040
-4.110E-06,0.020
-4.100E-06,0.060
-4.090E-06,0.020
-4.080E-06,0.060
-4.070E-06,0.020
-4.060E-06,0.040
-4.050E-06,0.040
-4.040E-06,0.040
-4.030E-06,0.060
-4.020E-06,0.060
-4.010E-06,0.060
-4.000E-06,0.060
-3.990E-06,0.040
-3.980E-06,0.040
-3.970E-06,0.060
-3.960E-06,0.040
-3.950E-06,0.040
-3.940E-06,0.020
-3.930E-06,0.040
-3.920E-06,0.060
-3.910E-06,0.060
-3.900E-06,0.060
-3.890E-06,0.060
-3.880E-06,0.040
-3.870E-06,0.060
-3.860E-06,0.080
-3.850E-06,0.060
-3.840E-06,0.080
-3.830E-06,0.060
-3.820E-06,0.080
-3.810E-06,0.020
-3.800E-06,0.060
-3.790E-06,0.060
-3.780E-06,0.060
-3.770E-06,0.080
-3.760E-06,0.060
-3.750E-06,0.060
-3.740E-06,0.040
-3.730E-06,0.060
-3.720E-06,0.060
-3.710E-06,0.040
-3.700E-06,0.060
-3.690E-06,0.080
-3.680E-06,0.060
-3.670E-06,0.000
-3.660E-06,0.040
-3.650E-06,0.040
-3.640E-06,0.060
-3.630E-06,0.060
-3.620E-06,0.060
-3.610E-06,0.080
-3.600E-06,0.020
-3.590E-06,0.040
-3.580E-06,0.040
-3.570E-06,0.060
-3.560E-06,0.060
-3.550E-06,0.020
-3.540E-06,0.020
-3.530E-06,0.040
-3.520E-06,0.020
-3.510E-06,0.020
-3.500E-06,0.040
-3.490E-06,0.020
-3.480E-06,0.060
-3.470E-06,0.040
-3.460E-06,0.060
-3.450E-06,0.020
-3.440E-06,0.060
-3.430E-06,0.060
-3.420E-06,0.080
-3.410E-06,0.060
-3.400E-06,0.040
-3.390E-06,0.080
-3.380E-06,0.040
-3.370E-06,0.020
-3.360E-06,0.060
-3.350E-06,0.080
-3.340E-06,0.060
-3.330E-06,0.080
-3.320E-06,0.080
-3.310E-06,0.040
-3.300E-06,0.040
-3.290E-06,0.040
-3.280E-06,0.020
-3.270E-06,0.040
-3.260E-06,0.040
-3.250E-06,0.060
-3.240E-06,0.040
-3.230E-06,0.040
-3.220E-06,0.060
-3.210E-06,0.040
-3.200E-06,0.020
-3.190E-06,0.040
-3.180E-06,0.060
-3.170E-06,0.060
-3.160E-06,0.040
-3.150E-06,0.060
-3.140E-06,0.020
-3.130E-06,0.160
-3.120E-06,0.500
-3.110E-06,1.160
-3.100E-06,1.900
-3.090E-06,2.560
-3.080E-06,2.360
-3.070E-06,1.740
-3.060E-06,0.660
-3.050E-06,-0.300
-3.040E-06,-1.420
-3.030E-06,-1.620
-3.020E-06,-1.820
-3.010E-06,-2.480
-3.000E-06,-2.480
-2.990E-06,-2.660
-2.980E-06,-2.480
-2.970E-06,-1.840
-2.960E-06,-1.040
-2.950E-06,-0.400
-2.940E-06,0.080
-2.930E-06,0.060
-2.920E-06,0.080
-2.910E-06,0.180
-2.900E-06,0.220
-2.890E-06,0.420
-2.880E-06,0.540
-2.870E-06,0.480
-2.860E-06,0.500
-2.850E-06,0.640
-2.840E-06,0.840
-2.830E-06,1.100
-2.820E-06,1.280
-2.810E-06,1.240
-2.800E-06,1.100
-2.790E-06,0.860
-2.780E-06,0.580
-2.770E-06,0.420
-2.760E-06,0.240
-2.750E-06,-0.020
-2.740E-06,-0.300
-2.730E-06,-0.580
-2.720E-06,-0.700
-2.710E-06,-0.760
-2.700E-06,-0.660
-2.690E-06,-0.380
-2.680E-06,-0.120
-2.670E-06,0.200
-2.660E-06,0.420
-2.650E-06,0.620
-2.640E-06,0.780
-2.630E-06,0.760
-2.620E-06,0.740
-2.610E-06,0.640
-2.600E-06,0.540
-2.590E-06,0.440
-2.580E-06,0.340
-2.570E-06,0.260
-2.560E-06,0.160
-2.550E-06,0.000
-2.540E-06,-0.100
-2.530E-06,-0.300
-2.520E-06,-0.460
-2.510E-06,-0.640
-2.500E-06,-0.800
-2.490E-06,-0.860
-2.480E-06,-0.960
-2.470E-06,-1.000
-2.460E-06,-1.020
-2.450E-06,-1.020
-2.440E-06,-0.920
-2.430E-06,-0.740
-2.420E-06,-0.500
-2.410E-06,-0.280
-2.400E-06,-0.040
-2.390E-06,0.160
-2.380E-06,0.380
-2.370E-06,0.560
-2.360E-06,0.700
-2.350E-06,0.820
-2.340E-06,0.820
-2.330E-06,0.780
-2.320E-06,0.720
-2.310E-06,0.580
-2.300E-06,0.460
-2.290E-06,0.360
-2.280E-06,0.200
-2.270E-06,0.120
-2.260E-06,0.080
-2.250E-06,-0.020
-2.240E-06,-0.100
-2.230E-06,-0.180
-2.220E-06,-0.220
-2.210E-06,-0.220
-2.200E-06,-0.280
-2.190E-06,-0.320
-2.180E-06,-0.320
-2.170E-06,-0.280
-2.160E-06,-0.220
-2.150E-06,-0.160
-2.140E-06,-0.100
-2.130E-06,-0.020
-2.120E-06,0.100
-2.110E-06,0.160
-2.100E-06,0.280
-2.090E-06,0.340
-2.080E-06,0.380
-2.070E-06,0.400
-2.060E-06,0.360
-2.050E-06,0.320
-2.040E-06,0.260
-2.030E-06,0.260
-2.020E-06,0.240
-2.010E-06,0.160
-2.000E-06,0.140
-1.990E-06,0.080
-1.980E-06,0.000
-1.970E-06,-0.040
-1.960E-06,-0.080
-1.950E-06,-0.100
-1.940E-06,-0.160
-1.930E-06,-0.180
-1.920E-06,-0.220
-1.910E-06,-0.220
-1.900E-06,-0.240
-1.890E-06,-0.220
-1.880E-06,-0.180
-1.870E-06,-0.180
-1.860E-06,-0.120
-1.850E-06,-0.060
-1.840E-06,-0.060
-1.830E-06,-0.020
-1.820E-06,0.020
-1.810E-06,0.080
-1.800E-06,0.060
-1.790E-06,0.080
-1.780E-06,0.120
-1.770E-06,0.160
-1.760E-06,0.160
-1.750E-06,0.200
-1.740E-06,0.220
-1.730E-06,0.200
-1.720E-06,0.200
-1.710E-06,0.220
-1.700E-06,0.220
-1.690E-06,0.200
-1.680E-06,0.160
-1.670E-06,0.180
-1.660E-06,0.120
-1.650E-06,0.080
-1.640E-06,0.080
-1.630E-06,0.040
-1.620E-06,0.060
-1.610E-06,0.040
-1.600E-06,0.020
-1.590E-06,0.040
-1.580E-06,0.060
-1.570E-06,0.060
-1.560E-06,0.000
-1.550E-06,-0.020
-1.540E-06,0.040
-1.530E-06,0.060
-1.520E-06,0.080
-1.510E-06,0.140
-1.500E-06,0.140
-1.490E-06,0.140
-1.480E-06,0.160
-1.470E-06,0.120
-1.460E-06,0.200
-1.450E-06,0.200
-1.440E-06,0.180
-1.430E-06,0.160
-1.420E-06,0.160
-1.410E-06,0.100
-1.400E-06,0.100
-1.390E-06,0.080
-1.380E-06,0.060
-1.370E-06,0.060
-1.360E-06,-0.020
-1.350E-06,-0.020
-1.340E-06,0.000
-1.330E-06,-0.020
-1.320E-06,0.000
-1.310E-06,0.060
-1.300E-06,0.060
-1.290E-06,0.100
-1.280E-06,0.140
-1.270E-06,0.080
-1.260E-06,0.160
-1.250E-06,0.160
-1.240E-06,0.240
-1.230E-06,0.200
-1.220E-06,0.160
-1.210E-06,0.280
-1.200E-06,0.240
-1.190E-06,0.360
-1.180E-06,0.280
-1.170E-06,0.200
-1.160E-06,0.120
-1.150E-06,0.020
-1.140E-06,0.120
-1.130E-06,0.160
-1.120E-06,0.260
-1.110E-06,0.220
-1.100E-06,0.140
-1.090E-06,-0.020
-1.080E-06,0.000
-1.070E-06,-0.080
-1.060E-06,0.120
-1.050E-06,0.280
-1.040E-06,-0.220
-1.030E-06,0.200
-1.020E-06,0.060
-1.010E-06,-0.020
-1.000E-06,0.300
-9.900E-07,-0.220
-9.800E-07,-0.060
-9.700E-07,-0.200
-9.600E-07,-0.160
-9.500E-07,0.160
-9.400E-07,0.280
-9.300E-07,0.280
-9.200E-07,0.200
-9.100E-07,-0.040
-9.000E-07,-0.120
-8.900E-07,-0.020
-8.800E-07,0.040
-8.700E-07,0.180
-8.600E-07,0.140
-8.500E-07,0.000
-8.400E-07,-0.180
-8.300E-07,-0.260
-8.200E-07,-0.360
-8.100E-07,-0.420
-8.000E-07,-0.360
-7.900E-07,-0.360
-7.800E-07,-0.220
-7.700E-07,-0.120
-7.600E-07,0.120
-7.500E-07,0.240
-7.400E-07,0.360
-7.300E-07,0.340
-7.200E-07,0.320
-7.100E-07,0.300
-7.000E-07,0.400
-6.900E-07,0.500
-6.800E-07,0.600
-6.700E-07,0.640
-6.600E-07,0.640
-6.500E-07,0.520
-6.400E-07,0.460
-6.300E-07,0.420
-6.200E-07,0.320
-6.100E-07,0.320
-6.000E-07,0.280
-5.900E-07,0.200
-5.800E-07,0.200
-5.700E-07,0.120
-5.600E-07,0.080
-5.500E-07,0.100
-5.400E-07,0.080
-5.300E-07,0.000
-5.200E-07,-0.020
-5.100E-07,-0.040
-5.000E-07,0.020
-4.900E-07,0.000
-4.800E-07,0.060
-4.700E-07,0.160
-4.600E-07,0.080
-4.500E-07,0.140
-4.400E-07,0.160
-4.300E-07,0.200
-4.200E-07,0.220
-4.100E-07,0.180
-4.000E-07,0.100
-3.900E-07,0.040
-3.800E-07,0.020
-3.700E-07,-0.020
-3.600E-07,0.000
-3.500E-07,0.060
-3.400E-07,0.060
-3.300E-07,0.020
-3.200E-07,0.020
-3.100E-07,0.060
-3.000E-07,0.040
-2.900E-07,0.040
-2.800E-07,0.040
-2.700E-07,0.040
-2.600E-07,0.100
-2.500E-07,0.160
-2.400E-07,0.220
-2.300E-07,0.300
-2.200E-07,0.320
-2.100E-07,0.340
-2.000E-07,0.280
-1.900E-07,0.260
-1.800E-07,0.240
-1.700E-07,0.400
-1.600E-07,0.300
-1.500E-07,0.320
-1.400E-07,0.400
-1.300E-07,0.220
-1.200E-07,0.340
-1.100E-07,0.220
-1.000E-07,0.220
-9.000E-08,0.260
-8.000E-08,0.220
-7.000E-08,0.060
-6.000E-08,0.160
-5.000E-08,-0.100
-4.000E-08,-0.300
-3.000E-08,0.220
-2.000E-08,-0.860
-1.000E-08,-0.620
0.000E+00,-0.500
1.000E-08,0.260
2.000E-08,0.380
3.000E-08,1.420
4.000E-08,0.560
5.000E-08,-0.140
6.000E-08,-0.120
7.000E-08,-1.020
8.000E-08,0.160
9.000E-08,0.120
1.000E-07,0.680
1.100E-07,0.640
1.200E-07,0.160
1.300E-07,-0.200
1.400E-07,-0.180
1.500E-07,-0.020
1.600E-07,0.000
1.700E-07,0.300
1.800E-07,0.040
1.900E-07,-0.140
2.000E-07,-0.180
2.100E-07,-0.140
2.200E-07,-0.160
2.300E-07,0.060
2.400E-07,-0.020
2.500E-07,-0.320
2.600E-07,-0.140
2.700E-07,-0.040
2.800E-07,-0.040
2.900E-07,0.520
3.000E-07,0.360
3.100E-07,0.400
3.200E-07,0.480
3.300E-07,0.280
3.400E-07,0.500
3.500E-07,0.600
3.600E-07,0.680
3.700E-07,0.760
3.800E-07,0.740
3.900E-07,0.660
4.000E-07,0.580
4.100E-07,0.460
4.200E-07,0.560
4.300E-07,0.440
4.400E-07,0.340
4.500E-07,0.280
4.600E-07,0.140
4.700E-07,0.240
4.800E-07,0.180
4.900E-07,0.320
5.000E-07,0.240
5.100E-07,-0.020
5.200E-07,0.260
5.300E-07,-0.140
5.400E-07,-0.140
5.500E-07,0.040
5.600E-07,0.080
5.700E-07,0.320
5.800E-07,0.000
5.900E-07,-0.820
6.000E-07,-1.100
6.100E-07,-0.500
6.200E-07,-0.560
6.300E-07,1.360
6.400E-07,1.180
6.500E-07,0.860
6.600E-07,1.020
6.700E-07,-0.500
6.800E-07,-1.160
6.900E-07,-0.660
7.000E-07,-0.240
7.100E-07,0.160
7.200E-07,1.200
7.300E-07,0.560
7.400E-07,0.560
7.500E-07,0.440
7.600E-07,-0.460
7.700E-07,-0.020
7.800E-07,0.040
7.900E-07,0.100
8.000E-07,0.600
8.100E-07,0.580
8.200E-07,0.540
8.300E-07,0.580
8.400E-07,0.280
8.500E-07,0.000
8.600E-07,0.080
8.700E-07,0.100
8.800E-07,0.140
8.900E-07,0.560
9.000E-07,0.220
9.100E-07,-0.260
9.200E-07,-0.260
9.300E-07,-0.600
9.400E-07,0.000
9.500E-07,0.340
9.600E-07,0.900
9.700E-07,0.860
9.800E-07,0.440
9.900E-07,0.340
1.000E-06,-0.500
1.010E-06,-0.360
1.020E-06,0.000
1.030E-06,-0.040
1.040E-06,0.760
1.050E-06,0.440
1.060E-06,0.600
1.070E-06,0.680
1.080E-06,0.260
1.090E-06,0.600
1.100E-06,0.320
1.110E-06,0.300
1.120E-06,0.380
1.130E-06,0.100
1.140E-06,0.120
1.150E-06,0.180
1.160E-06,0.100
1.170E-06,0.180
1.180E-06,0.040
1.190E-06,-0.320
1.200E-06,-0.460
1.210E-06,-0.560
1.220E-06,-0.440
1.230E-06,0.060
1.240E-06,0.260
1.250E-06,0.440
1.260E-06,0.500
1.270E-06,0.340
1.280E-06,0.420
1.290E-06,0.700
1.300E-06,0.820
1.310E-06,0.860
1.320E-06,0.720
1.330E-06,0.500
1.340E-06,0.420
1.350E-06,0.320
1.360E-06,0.240
1.370E-06,0.280
1.380E-06,0.220
1.390E-06,0.260
1.400E-06,0.220
1.410E-06,0.160
1.420E-06,0.100
1.430E-06,-0.100
1.440E-06,-0.340
1.450E-06,-0.560
1.460E-06,-0.520
1.470E-06,-0.200
1.480E-06,0.060
1.490E-06,0.360
1.500E-06,0.500
1.510E-06,0.280
1.520E-06,0.240
1.530E-06,0.060
1.540E-06,-0.060
1.550E-06,0.080
1.560E-06,0.060
1.570E-06,0.200
1.580E-06,0.240
1.590E-06,0.160
1.600E-06,0.160
1.610E-06,0.040
1.620E-06,0.000
1.630E-06,0.060
1.640E-06,0.000
1.650E-06,0.100
1.660E-06,0.180
1.670E-06,0.260
1.680E-06,0.300
1.690E-06,0.280
1.700E-06,0.100
1.710E-06,0.140
1.720E-06,0.180
1.730E-06,0.220
1.740E-06,0.260
1.750E-06,0.340
1.760E-06,0.320
1.770E-06,0.340
1.780E-06,0.320
1.790E-06,0.220
1.800E-06,0.260
1.810E-06,0.160
1.820E-06,0.200
1.830E-06,0.280
1.840E-06,0.320
1.850E-06,0.340
1.860E-06,0.240
1.870E-06,0.160
1.880E-06,0.060
1.890E-06,0.000
1.900E-06,-0.080
1.910E-06,-0.100
1.920E-06,-0.040
1.930E-06,-0.160
1.940E-06,-0.220
1.950E-06,-0.280
1.960E-06,-0.320
1.970E-06,-0.040
1.980E-06,-0.200
1.990E-06,-0.140
2.000E-06,-0.100
2.010E-06,-0.360
2.020E-06,0.320
2.030E-06,0.340
2.040E-06,0.300
2.050E-06,0.680
2.060E-06,-0.120
2.070E-06,0.160
2.080E-06,0.000
2.090E-06,-0.060
2.100E-06,0.520
2.110E-06,0.360
2.120E-06,0.480
2.130E-06,0.220
2.140E-06,-0.020
2.150E-06,-0.020
2.160E-06,-0.380
2.170E-06,0.580
2.180E-06,0.700
2.190E-06,-0.040
2.200E-06,0.140
2.210E-06,-1.480
2.220E-06,-1.480
2.230E-06,-0.600
2.240E-06,-0.660
2.250E-06,0.800
2.260E-06,0.900
2.270E-06,0.700
2.280E-06,0.980
2.290E-06,0.600
2.300E-06,0.800
2.310E-06,1.120
2.320E-06,0.980
2.330E-06,1.240
2.340E-06,0.840
2.350E-06,0.500
2.360E-06,0.380
2.370E-06,0.220
2.380E-06,0.440
2.390E-06,0.480
2.400E-06,0.500
2.410E-06,0.560
2.420E-06,0.200
2.430E-06,0.100
2.440E-06,-0.440
2.450E-06,-0.680
2.460E-06,-0.860
2.470E-06,-0.900
2.480E-06,-0.880
2.490E-06,-0.860
2.500E-06,-0.900
2.510E-06,-1.020
2.520E-06,-1.040
2.530E-06,-0.940
2.540E-06,-0.800
2.550E-06,-0.600
2.560E-06,-0.360
2.570E-06,-0.180
2.580E-06,0.060
2.590E-06,-0.060
2.600E-06,0.100
2.610E-06,0.060
2.620E-06,-0.080
2.630E-06,-0.220
2.640E-06,-0.420
2.650E-06,-0.580
2.660E-06,-0.800
2.670E-06,-1.060
2.680E-06,-1.360
2.690E-06,-1.660
2.700E-06,-1.900
2.710E-06,-2.060
2.720E-06,-2.200
2.730E-06,-2.220
2.740E-06,-2.200
2.750E-06,-2.160
2.760E-06,-2.100
2.770E-06,-2.080
2.780E-06,-2.060
2.790E-06,-2.100
2.800E-06,-1.940
2.810E-06,-1.820
2.820E-06,-1.680
2.830E-06,-1.560
2.840E-06,-1.560
2.850E-06,-1.600
2.860E-06,-1.740
2.870E-06,-1.900
2.880E-06,-2.000
2.890E-06,-2.020
2.900E-06,-2.000
2.910E-06,-1.880
2.920E-06,-1.760
2.930E-06,-1.580
2.940E-06,-1.520
2.950E-06,-1.440
2.960E-06,-1.240
2.970E-06,-1.240
2.980E-06,-1.300
2.990E-06,-0.840
3.000E-06,-0.560
3.010E-06,-0.040
3.020E-06,0.500
3.030E-06,0.100
3.040E-06,-0.300
3.050E-06,-0.700
3.060E-06,-0.900
3.070E-06,-0.360
3.080E-06,0.020
3.090E-06,0.660
3.100E-06,1.220
3.110E-06,0.700
3.120E-06,0.320
3.130E-06,-0.640
3.140E-06,-1.340
3.150E-06,-1.020
3.160E-06,-0.940
3.170E-06,-0.400
3.180E-06,-0.120
3.190E-06,-0.380
3.200E-06,-0.380
3.210E-06,-0.660
3.220E-06,-0.660
3.230E-06,-0.300
3.240E-06,-0.040
3.250E-06,0.600
3.260E-06,0.860
3.270E-06,0.860
3.280E-06,0.800
3.290E-06,0.640
3.300E-06,0.560
3.310E-06,0.580
3.320E-06,0.560
3.330E-06,0.480
3.340E-06,0.500
3.350E-06,0.380
3.360E-06,0.120
3.370E-06,-0.160
3.380E-06,-0.320
3.390E-06,-0.520
3.400E-06,-0.500
3.410E-06,-0.420
3.420E-06,-0.160
3.430E-06,0.120
3.440E-06,0.300
3.450E-06,0.360
3.460E-06,0.320
3.470E-06,0.260
3.480E-06,0.300
3.490E-06,0.280
3.500E-06,0.340
3.510E-06,0.360
3.520E-06,0.300
3.530E-06,0.180
3.540E-06,-0.040
3.550E-06,-0.180
3.560E-06,-0.300
3.570E-06,-0.380
3.580E-06,-0.480
3.590E-06,-0.540
3.600E-06,-0.640
3.610E-06,-0.720
3.620E-06,-0.760
3.630E-06,-0.780
3.640E-06,-0.800
3.650E-06,-0.820
3.660E-06,-0.800
3.670E-06,-0.720
3.680E-06,-0.660
3.690E-06,-0.560
3.700E-06,-0.520
3.710E-06,-0.420
3.720E-06,-0.380
3.730E-06,-0.280
3.740E-06,-0.200
3.750E-06,-0.160
3.760E-06,-0.060
3.770E-06,0.020
3.780E-06,0.060
3.790E-06,0.040
3.800E-06,0.080
3.810E-06,0.120
3.820E-06,0.180
3.830E-06,0.200
3.840E-06,0.240
3.850E-06,0.240
3.860E-06,0.240
3.870E-06,0.200
3.880E-06,0.180
3.890E-06,0.120
3.900E-06,0.020
3.910E-06,-0.020
3.920E-06,-0.140
3.930E-06,-0.180
3.940E-06,-0.260
3.950E-06,-0.360
3.960E-06,-0.420
3.970E-06,-0.420
3.980E-06,-0.500
3.990E-06,-0.480
4.000E-06,-0.500
4.010E-06,-0.480
4.020E-06,-0.400
4.030E-06,-0.340
4.040E-06,-0.280
4.050E-06,-0.180
4.060E-06,-0.100
4.070E-06,-0.020
4.080E-06,0.040
4.090E-06,0.080
4.100E-06,0.140
4.110E-06,0.180
4.120E-06,0.120
4.130E-06,0.160
4.140E-06,0.160
4.150E-06,0.180
4.160E-06,0.160
4.170E-06,0.080
4.180E-06,0.060
4.190E-06,-0.020
4.200E-06,-0.100
4.210E-06,-0.160
4.220E-06,-0.240
4.230E-06,-0.280
4.240E-06,-0.320
4.250E-06,-0.340
4.260E-06,-0.340
4.270E-06,-0.340
4.280E-06,-0.320
4.290E-06,-0.320
4.300E-06,-0.280
4.310E-06,-0.200
4.320E-06,-0.140
4.330E-06,-0.080
4.340E-06,-0.020
4.350E-06,-0.020
4.360E-06,0.020
4.370E-06,0.020
4.380E-06,0.040
4.390E-06,0.060
4.400E-06,0.080
4.410E-06,0.040
4.420E-06,0.020
4.430E-06,0.000
4.440E-06,0.000
4.450E-06,-0.020
4.460E-06,-0.060
4.470E-06,-0.080
4.480E-06,-0.080
4.490E-06,-0.140
4.500E-06,-0.240
4.510E-06,-0.260
4.520E-06,-0.300
4.530E-06,-0.340
4.540E-06,-0.360
4.550E-06,-0.380
4.560E-06,-0.380
4.570E-06,-0.400
4.580E-06,-0.420
4.590E-06,-0.380
4.600E-06,-0.360
4.610E-06,-0.340
4.620E-06,-0.340
4.630E-06,-0.380
4.640E-06,-0.300
4.650E-06,-0.240
4.660E-06,-0.140
4.670E-06,-0.060
4.680E-06,-0.020
4.690E-06,0.000
4.700E-06,0.020
4.710E-06,0.040
4.720E-06,0.040
4.730E-06,0.060
4.740E-06,0.020
4.750E-06,0.000
4.760E-06,-0.040
4.770E-06,-0.080
4.780E-06,-0.120
4.790E-06,-0.060
4.800E-06,-0.060
4.810E-06,-0.040
4.820E-06,-0.060
4.830E-06,-0.080
4.840E-06,-0.100
4.850E-06,-0.100
4.860E-06,-0.140
4.870E-06,-0.160
4.880E-06,-0.220
4.890E-06,-0.200
4.900E-06,-0.160
4.910E-06,-0.200
4.920E-06,-0.160
4.930E-06,-0.120
4.940E-06,-0.100
4.950E-06,-0.060
4.960E-06,-0.060
4.970E-06,-0.020
4.980E-06,-0.020
4.990E-06,0.000
5.000E-06,0.000
5.010E-06,0.020
5.020E-06,0.040
5.030E-06,0.060
5.040E-06,0.020
5.050E-06,0.020
5.060E-06,-0.020
5.070E-06,0.000
5.080E-06,0.040
5.090E-06,0.060
5.100E-06,0.060
5.110E-06,0.080
5.120E-06,0.120
5.130E-06,0.080
5.140E-06,0.100
5.150E-06,0.120
5.160E-06,0.080
5.170E-06,0.060
5.180E-06,0.060
5.190E-06,-0.020
5.200E-06,0.000
5.210E-06,0.000
5.220E-06,0.000
5.230E-06,0.000
5.240E-06,0.000
5.250E-06,-0.020
5.260E-06,-0.040
5.270E-06,-0.020
5.280E-06,-0.020
5.290E-06,-0.020
5.300E-06,0.000
5.310E-06,0.080
5.320E-06,0.080
5.330E-06,0.100
5.340E-06,0.080
5.350E-06,0.120
5.360E-06,0.160
5.370E-06,0.120
5.380E-06,0.120
5.390E-06,0.100
5.400E-06,0.060
5.410E-06,0.060
5.420E-06,-0.020
5.430E-06,-0.020
5.440E-06,-0.040
5.450E-06,-0.060
5.460E-06,-0.080
5.470E-06,-0.060
5.480E-06,-0.040
5.490E-06,-0.020
5.500E-06,-0.060
5.510E-06,-0.040
5.520E-06,-0.020
5.530E-06,-0.040
5.540E-06,-0.040
5.550E-06,-0.040
5.560E-06,-0.060
5.570E-06,-0.100
5.580E-06,-0.140
5.590E-06,-0.160
5.600E-06,-0.160
5.610E-06,-0.200
5.620E-06,-0.200
5.630E-06,-0.200
5.640E-06,-0.240
5.650E-06,-0.180
5.660E-06,-0.200
5.670E-06,-0.180
5.680E-06,-0.180
5.690E-06,-0.180
5.700E-06,-0.120
5.710E-06,-0.080
5.720E-06,0.000
5.730E-06,0.060
5.740E-06,0.160
5.750E-06,0.220
5.760E-06,0.280
5.770E-06,0.360
5.780E-06,0.320
5.790E-06,0.360
5.800E-06,0.400
5.810E-06,0.360
5.820E-06,0.340
5.830E-06,0.340
5.840E-06,0.340
5.850E-06,0.340
5.860E-06,0.320
5.870E-06,0.320
5.880E-06,0.320
5.890E-06,0.240
5.900E-06,0.160
5.910E-06,0.080
5.920E-06,-0.040
5.930E-06,-0.160
5.940E-06,-0.260
5.950E-06,-0.420
5.960E-06,-0.480
5.970E-06,-0.500
5.980E-06,-0.500
5.990E-06,-0.480
6.000E-06,-0.380
6.010E-06,-0.260
6.020E-06,-0.180
6.030E-06,-0.080
6.040E-06,0.000
6.050E-06,0.080
6.060E-06,0.140
6.070E-06,0.180
6.080E-06,0.160
6.090E-06,0.220
6.100E-06,0.240
6.110E-06,0.240
6.120E-06,0.300
6.130E-06,0.340
6.140E-06,0.400
6.150E-06,0.400
6.160E-06,0.380
6.170E-06,0.400
6.180E-06,0.400
6.190E-06,0.400
6.200E-06,0.340
6.210E-06,0.320
6.220E-06,0.280
6.230E-06,0.260
6.240E-06,0.240
6.250E-06,0.180
6.260E-06,0.120
6.270E-06,0.040
6.280E-06,0.040
6.290E-06,0.020
6.300E-06,0.040
6.310E-06,0.080
6.320E-06,0.180
6.330E-06,0.240
6.340E-06,0.300
6.350E-06,0.320
6.360E-06,0.340
6.370E-06,0.320
6.380E-06,0.320
6.390E-06,0.260
6.400E-06,0.280
6.410E-06,0.260
6.420E-06,0.320
6.430E-06,0.300
6.440E-06,0.320
6.450E-06,0.360
6.460E-06,0.380
6.470E-06,0.400
6.480E-06,0.460
6.490E-06,0.520
6.500E-06,0.540
6.510E-06,0.560
6.520E-06,0.580
6.530E-06,0.560
6.540E-06,0.500
6.550E-06,0.440
6.560E-06,0.400
6.570E-06,0.320
6.580E-06,0.300
6.590E-06,0.280
6.600E-06,0.260
6.610E-06,0.240
6.620E-06,0.240
6.630E-06,0.240
6.640E-06,0.240
6.650E-06,0.220
6.660E-06,0.240
6.670E-06,0.240
6.680E-06,0.260
6.690E-06,0.240
6.700E-06,0.240
6.710E-06,0.200
6.720E-06,0.160
6.730E-06,0.120
6.740E-06,0.060
6.750E-06,0.060
6.760E-06,0.000
6.770E-06,0.000
6.780E-06,0.000
6.790E-06,-0.020
6.800E-06,-0.060
6.810E-06,0.000
6.820E-06,-0.020
6.830E-06,0.000
6.840E-06,0.020
6.850E-06,0.040
6.860E-06,0.060
6.870E-06,0.060
6.880E-06,0.100
6.890E-06,0.180
6.900E-06,0.260
6.910E-06,0.320
6.920E-06,0.320
6.930E-06,0.320
6.940E-06,0.340
6.950E-06,0.280
6.960E-06,0.200
6.970E-06,0.180
6.980E-06,0.080
6.990E-06,0.000
7.000E-06,0.000
7.010E-06,-0.020
7.020E-06,-0.020
7.030E-06,-0.040
7.040E-06,-0.040
7.050E-06,-0.080
7.060E-06,-0.120
7.070E-06,-0.140
7.080E-06,-0.140
7.090E-06,-0.160
7.100E-06,-0.120
7.110E-06,-0.060
7.120E-06,-0.060
7.130E-06,0.020
7.140E-06,0.060
7.150E-06,0.080
7.160E-06,0.040
7.170E-06,0.040
7.180E-06,0.060
7.190E-06,0.080
7.200E-06,0.100
7.210E-06,0.080
7.220E-06,0.140
7.230E-06,0.180
7.240E-06,0.220
7.250E-06,0.280
7.260E-06,0.340
7.270E-06,0.340
7.280E-06,0.440
7.290E-06,0.460
7.300E-06,0.480
7.310E-06,0.540
7.320E-06,0.580
7.330E-06,0.640
7.340E-06,0.680
7.350E-06,0.720
7.360E-06,0.700
7.370E-06,0.720
7.380E-06,0.660
7.390E-06,0.640
7.400E-06,0.600
7.410E-06,0.520
7.420E-06,0.500
7.430E-06,0.460
7.440E-06,0.460
7.450E-06,0.400
7.460E-06,0.420
7.470E-06,0.360
7.480E-06,0.380
7.490E-06,0.360
7.500E-06,0.380
7.510E-06,0.380
7.520E-06,0.440
7.530E-06,0.480
7.540E-06,0.500
7.550E-06,0.540
7.560E-06,0.640
7.570E-06,0.700
7.580E-06,0.800
7.590E-06,0.900
7.600E-06,1.020
7.610E-06,1.160
7.620E-06,1.340
7.630E-06,1.580
7.640E-06,1.820
7.650E-06,2.120
7.660E-06,2.400
7.670E-06,2.720
7.680E-06,2.760
