mediciones/6-10/25/WaveData5542.csv

#timebase=2000000(ps)
,#voltbase=100000(mv/100)
#size=4000
-4.250E-06,-0.008
-4.240E-06,-0.084
-4.230E-06,-0.060
-4.220E-06,-0.024
-4.210E-06,0.044
-4.200E-06,0.088
-4.190E-06,0.096
-4.180E-06,-0.008
-4.170E-06,-0.064
-4.160E-06,-0.076
-4.150E-06,-0.056
-4.140E-06,-0.012
-4.130E-06,0.048
-4.120E-06,0.052
-4.110E-06,0.052
-4.100E-06,0.056
-4.090E-06,0.012
-4.080E-06,-0.008
-4.070E-06,-0.028
-4.060E-06,-0.020
-4.050E-06,-0.028
-4.040E-06,0.000
-4.030E-06,0.012
-4.020E-06,0.012
-4.010E-06,-0.004
-4.000E-06,-0.020
-3.990E-06,-0.020
-3.980E-06,-0.024
-3.970E-06,-0.004
-3.960E-06,0.020
-3.950E-06,0.044
-3.940E-06,0.056
-3.930E-06,0.040
-3.920E-06,0.008
-3.910E-06,-0.008
-3.900E-06,-0.028
-3.890E-06,-0.020
-3.880E-06,-0.008
-3.870E-06,0.004
-3.860E-06,0.016
-3.850E-06,0.012
-3.840E-06,0.000
-3.830E-06,-0.004
-3.820E-06,-0.008
-3.810E-06,-0.004
-3.800E-06,0.008
-3.790E-06,0.024
-3.780E-06,0.028
-3.770E-06,0.028
-3.760E-06,0.008
-3.750E-06,-0.004
-3.740E-06,-0.004
-3.730E-06,-0.008
-3.720E-06,-0.012
-3.710E-06,0.004
-3.700E-06,0.004
-3.690E-06,0.008
-3.680E-06,0.016
-3.670E-06,0.008
-3.660E-06,0.012
-3.650E-06,0.012
-3.640E-06,-0.004
-3.630E-06,0.000
-3.620E-06,0.008
-3.610E-06,0.016
-3.600E-06,0.004
-3.590E-06,0.008
-3.580E-06,0.000
-3.570E-06,-0.008
-3.560E-06,-0.016
-3.550E-06,-0.012
-3.540E-06,-0.012
-3.530E-06,0.012
-3.520E-06,0.008
-3.510E-06,0.004
-3.500E-06,0.008
-3.490E-06,0.012
-3.480E-06,0.000
-3.470E-06,0.000
-3.460E-06,0.012
-3.450E-06,0.008
-3.440E-06,0.012
-3.430E-06,0.008
-3.420E-06,0.000
-3.410E-06,0.008
-3.400E-06,0.000
-3.390E-06,0.000
-3.380E-06,0.008
-3.370E-06,0.012
-3.360E-06,0.000
-3.350E-06,0.008
-3.340E-06,0.004
-3.330E-06,0.004
-3.320E-06,0.004
-3.310E-06,0.012
-3.300E-06,0.000
-3.290E-06,0.000
-3.280E-06,0.004
-3.270E-06,0.012
-3.260E-06,0.012
-3.250E-06,0.004
-3.240E-06,0.000
-3.230E-06,-0.004
-3.220E-06,0.004
-3.210E-06,0.000
-3.200E-06,0.004
-3.190E-06,0.000
-3.180E-06,0.004
-3.170E-06,0.012
-3.160E-06,0.008
-3.150E-06,0.004
-3.140E-06,0.004
-3.130E-06,0.000
-3.120E-06,0.000
-3.110E-06,0.004
-3.100E-06,0.012
-3.090E-06,0.008
-3.080E-06,0.024
-3.070E-06,0.008
-3.060E-06,0.004
-3.050E-06,-0.004
-3.040E-06,-0.004
-3.030E-06,-0.008
-3.020E-06,0.004
-3.010E-06,0.016
-3.000E-06,0.012
-2.990E-06,0.008
-2.980E-06,0.012
-2.970E-06,0.016
-2.960E-06,-0.008
-2.950E-06,-0.004
-2.940E-06,-0.012
-2.930E-06,-0.004
-2.920E-06,0.004
-2.910E-06,0.000
-2.900E-06,0.008
-2.890E-06,-0.004
-2.880E-06,-0.012
-2.870E-06,0.000
-2.860E-06,-0.004
-2.850E-06,0.012
-2.840E-06,0.016
-2.830E-06,0.000
-2.820E-06,0.000
-2.810E-06,-0.004
-2.800E-06,0.008
-2.790E-06,0.012
-2.780E-06,-0.004
-2.770E-06,0.000
-2.760E-06,-0.004
-2.750E-06,0.008
-2.740E-06,0.012
-2.730E-06,0.012
-2.720E-06,0.004
-2.710E-06,0.004
-2.700E-06,0.008
-2.690E-06,-0.008
-2.680E-06,0.000
-2.670E-06,0.004
-2.660E-06,0.008
-2.650E-06,0.012
-2.640E-06,0.012
-2.630E-06,-0.004
-2.620E-06,0.000
-2.610E-06,-0.004
-2.600E-06,0.000
-2.590E-06,0.004
-2.580E-06,0.008
-2.570E-06,0.008
-2.560E-06,0.008
-2.550E-06,0.004
-2.540E-06,0.008
-2.530E-06,0.012
-2.520E-06,0.024
-2.510E-06,0.032
-2.500E-06,0.048
-2.490E-06,0.000
-2.480E-06,-0.024
-2.470E-06,-0.044
-2.460E-06,-0.040
-2.450E-06,-0.004
-2.440E-06,0.024
-2.430E-06,0.052
-2.420E-06,0.036
-2.410E-06,0.016
-2.400E-06,-0.008
-2.390E-06,-0.028
-2.380E-06,-0.028
-2.370E-06,-0.008
-2.360E-06,0.008
-2.350E-06,0.016
-2.340E-06,0.024
-2.330E-06,0.008
-2.320E-06,0.004
-2.310E-06,0.008
-2.300E-06,0.012
-2.290E-06,0.004
-2.280E-06,0.012
-2.270E-06,0.012
-2.260E-06,0.012
-2.250E-06,0.012
-2.240E-06,-0.004
-2.230E-06,-0.008
-2.220E-06,-0.008
-2.210E-06,-0.004
-2.200E-06,0.004
-2.190E-06,0.024
-2.180E-06,0.044
-2.170E-06,0.068
-2.160E-06,0.040
-2.150E-06,-0.032
-2.140E-06,-0.100
-2.130E-06,-0.088
-2.120E-06,-0.028
-2.110E-06,0.012
-2.100E-06,0.064
-2.090E-06,0.064
-2.080E-06,0.016
-2.070E-06,-0.012
-2.060E-06,-0.052
-2.050E-06,-0.060
-2.040E-06,-0.024
-2.030E-06,0.020
-2.020E-06,0.044
-2.010E-06,0.060
-2.000E-06,0.044
-1.990E-06,-0.004
-1.980E-06,-0.024
-1.970E-06,-0.028
-1.960E-06,-0.020
-1.950E-06,0.004
-1.940E-06,0.032
-1.930E-06,0.028
-1.920E-06,0.024
-1.910E-06,0.012
-1.900E-06,-0.008
-1.890E-06,-0.008
-1.880E-06,-0.004
-1.870E-06,0.008
-1.860E-06,0.020
-1.850E-06,0.032
-1.840E-06,0.020
-1.830E-06,0.008
-1.820E-06,-0.008
-1.810E-06,-0.004
-1.800E-06,0.000
-1.790E-06,0.012
-1.780E-06,0.028
-1.770E-06,0.032
-1.760E-06,0.016
-1.750E-06,0.024
-1.740E-06,0.016
-1.730E-06,0.000
-1.720E-06,0.012
-1.710E-06,-0.008
-1.700E-06,-0.004
-1.690E-06,-0.008
-1.680E-06,0.004
-1.670E-06,0.028
-1.660E-06,0.016
-1.650E-06,0.004
-1.640E-06,-0.028
-1.630E-06,-0.036
-1.620E-06,-0.028
-1.610E-06,-0.008
-1.600E-06,0.016
-1.590E-06,0.028
-1.580E-06,0.028
-1.570E-06,0.024
-1.560E-06,0.004
-1.550E-06,0.000
-1.540E-06,-0.004
-1.530E-06,-0.012
-1.520E-06,-0.020
-1.510E-06,-0.024
-1.500E-06,-0.020
-1.490E-06,-0.008
-1.480E-06,0.008
-1.470E-06,0.020
-1.460E-06,0.012
-1.450E-06,-0.004
-1.440E-06,-0.016
-1.430E-06,-0.016
-1.420E-06,-0.012
-1.410E-06,-0.004
-1.400E-06,0.012
-1.390E-06,0.028
-1.380E-06,0.024
-1.370E-06,0.012
-1.360E-06,-0.004
-1.350E-06,-0.004
-1.340E-06,0.004
-1.330E-06,0.008
-1.320E-06,0.028
-1.310E-06,0.028
-1.300E-06,0.032
-1.290E-06,0.024
-1.280E-06,0.008
-1.270E-06,0.004
-1.260E-06,0.008
-1.250E-06,0.004
-1.240E-06,0.008
-1.230E-06,0.012
-1.220E-06,0.020
-1.210E-06,0.008
-1.200E-06,0.004
-1.190E-06,0.004
-1.180E-06,0.000
-1.170E-06,0.000
-1.160E-06,0.012
-1.150E-06,0.016
-1.140E-06,0.020
-1.130E-06,0.012
-1.120E-06,0.008
-1.110E-06,0.004
-1.100E-06,0.008
-1.090E-06,0.008
-1.080E-06,0.012
-1.070E-06,0.028
-1.060E-06,0.028
-1.050E-06,0.036
-1.040E-06,0.036
-1.030E-06,0.044
-1.020E-06,0.040
-1.010E-06,0.040
-1.000E-06,0.040
-9.900E-07,0.040
-9.800E-07,0.024
-9.700E-07,0.000
-9.600E-07,-0.048
-9.500E-07,-0.088
-9.400E-07,-0.080
-9.300E-07,-0.056
-9.200E-07,0.008
-9.100E-07,0.048
-9.000E-07,0.052
-8.900E-07,0.012
-8.800E-07,-0.052
-8.700E-07,-0.068
-8.600E-07,-0.064
-8.500E-07,-0.008
-8.400E-07,0.032
-8.300E-07,0.064
-8.200E-07,0.068
-8.100E-07,0.036
-8.000E-07,0.008
-7.900E-07,-0.004
-7.800E-07,0.008
-7.700E-07,0.036
-7.600E-07,0.076
-7.500E-07,0.092
-7.400E-07,0.068
-7.300E-07,0.032
-7.200E-07,0.004
-7.100E-07,-0.008
-7.000E-07,-0.008
-6.900E-07,0.012
-6.800E-07,0.044
-6.700E-07,0.064
-6.600E-07,0.020
-6.500E-07,-0.028
-6.400E-07,-0.068
-6.300E-07,-0.132
-6.200E-07,-0.104
-6.100E-07,-0.072
-6.000E-07,0.004
-5.900E-07,0.068
-5.800E-07,0.108
-5.700E-07,0.076
-5.600E-07,0.024
-5.500E-07,-0.020
-5.400E-07,-0.056
-5.300E-07,-0.044
-5.200E-07,0.012
-5.100E-07,0.092
-5.000E-07,0.136
-4.900E-07,0.128
-4.800E-07,0.088
-4.700E-07,0.020
-4.600E-07,-0.024
-4.500E-07,0.000
-4.400E-07,0.044
-4.300E-07,0.112
-4.200E-07,0.160
-4.100E-07,0.160
-4.000E-07,0.128
-3.900E-07,0.056
-3.800E-07,-0.020
-3.700E-07,-0.036
-3.600E-07,-0.044
-3.500E-07,0.008
-3.400E-07,0.016
-3.300E-07,0.040
-3.200E-07,0.032
-3.100E-07,0.044
-3.000E-07,0.008
-2.900E-07,-0.024
-2.800E-07,-0.008
-2.700E-07,0.012
-2.600E-07,0.064
-2.500E-07,0.128
-2.400E-07,0.188
-2.300E-07,0.148
-2.200E-07,0.124
-2.100E-07,0.036
-2.000E-07,-0.056
-1.900E-07,-0.104
-1.800E-07,-0.164
-1.700E-07,-0.164
-1.600E-07,-0.128
-1.500E-07,-0.028
-1.400E-07,0.092
-1.300E-07,0.060
-1.200E-07,0.044
-1.100E-07,-0.052
-1.000E-07,-0.024
-9.000E-08,0.068
-8.000E-08,0.168
-7.000E-08,0.092
-6.000E-08,0.044
-5.000E-08,-0.280
-4.000E-08,-0.508
-3.000E-08,-0.512
-2.000E-08,-0.320
-1.000E-08,-0.104
0.000E+00,0.376
1.000E-08,0.392
2.000E-08,0.180
3.000E-08,-0.152
4.000E-08,-0.508
5.000E-08,-0.336
6.000E-08,-0.200
7.000E-08,0.124
8.000E-08,0.276
9.000E-08,0.308
1.000E-07,0.196
1.100E-07,-0.060
1.200E-07,-0.184
1.300E-07,-0.304
1.400E-07,-0.184
1.500E-07,-0.040
1.600E-07,0.160
1.700E-07,0.268
1.800E-07,0.208
1.900E-07,0.020
2.000E-07,-0.140
2.100E-07,-0.216
2.200E-07,-0.176
2.300E-07,-0.036
2.400E-07,0.096
2.500E-07,0.188
2.600E-07,0.148
2.700E-07,0.060
2.800E-07,-0.088
2.900E-07,-0.148
3.000E-07,-0.140
3.100E-07,-0.052
3.200E-07,0.064
3.300E-07,0.132
3.400E-07,0.132
3.500E-07,0.048
3.600E-07,-0.028
3.700E-07,-0.108
3.800E-07,-0.096
3.900E-07,-0.048
4.000E-07,0.036
4.100E-07,0.100
4.200E-07,0.108
4.300E-07,0.060
4.400E-07,-0.008
4.500E-07,-0.060
4.600E-07,-0.076
4.700E-07,-0.044
4.800E-07,0.020
4.900E-07,0.084
5.000E-07,0.100
5.100E-07,0.092
5.200E-07,0.040
5.300E-07,-0.008
5.400E-07,-0.028
5.500E-07,-0.012
5.600E-07,0.040
5.700E-07,0.096
5.800E-07,0.140
5.900E-07,0.136
6.000E-07,0.092
6.100E-07,0.052
6.200E-07,0.008
6.300E-07,0.008
6.400E-07,0.024
6.500E-07,0.060
6.600E-07,0.100
6.700E-07,0.084
6.800E-07,0.060
6.900E-07,0.032
7.000E-07,-0.116
7.100E-07,-0.456
7.200E-07,-0.432
7.300E-07,-0.512
7.400E-07,-0.036
7.500E-07,-0.104
7.600E-07,0.340
7.700E-07,0.212
7.800E-07,0.260
7.900E-07,0.384
8.000E-07,-0.056
8.100E-07,-0.112
8.200E-07,-0.340
8.300E-07,-0.184
8.400E-07,0.008
8.500E-07,0.148
8.600E-07,0.140
8.700E-07,0.056
8.800E-07,-0.008
8.900E-07,-0.112
9.000E-07,-0.076
9.100E-07,0.012
9.200E-07,0.056
9.300E-07,0.124
9.400E-07,0.044
9.500E-07,-0.040
9.600E-07,-0.032
9.700E-07,-0.112
9.800E-07,-0.068
9.900E-07,-0.024
1.000E-06,0.088
1.010E-06,0.032
1.020E-06,0.076
1.030E-06,0.060
1.040E-06,-0.012
1.050E-06,-0.040
1.060E-06,-0.024
1.070E-06,-0.036
1.080E-06,-0.016
1.090E-06,0.060
1.100E-06,0.076
1.110E-06,0.088
1.120E-06,0.040
1.130E-06,0.012
1.140E-06,-0.024
1.150E-06,0.032
1.160E-06,0.052
1.170E-06,0.072
1.180E-06,-0.004
1.190E-06,-0.076
1.200E-06,-0.088
1.210E-06,-0.004
1.220E-06,0.044
1.230E-06,0.124
1.240E-06,0.144
1.250E-06,0.088
1.260E-06,0.044
1.270E-06,-0.124
1.280E-06,-0.208
1.290E-06,-0.168
1.300E-06,-0.040
1.310E-06,0.064
1.320E-06,0.144
1.330E-06,0.056
1.340E-06,0.004
1.350E-06,-0.096
1.360E-06,-0.112
1.370E-06,-0.068
1.380E-06,0.004
1.390E-06,0.068
1.400E-06,0.072
1.410E-06,0.040
1.420E-06,-0.008
1.430E-06,-0.020
1.440E-06,-0.020
1.450E-06,-0.004
1.460E-06,0.000
1.470E-06,0.024
1.480E-06,0.020
1.490E-06,0.020
1.500E-06,0.000
1.510E-06,0.024
1.520E-06,0.024
1.530E-06,0.060
1.540E-06,0.056
1.550E-06,0.052
1.560E-06,0.024
1.570E-06,0.008
1.580E-06,-0.072
1.590E-06,-0.056
1.600E-06,-0.004
1.610E-06,-0.068
1.620E-06,-0.028
1.630E-06,0.072
1.640E-06,0.104
1.650E-06,0.012
1.660E-06,-0.040
1.670E-06,-0.072
1.680E-06,-0.124
1.690E-06,-0.036
1.700E-06,0.052
1.710E-06,0.092
1.720E-06,0.092
1.730E-06,0.052
1.740E-06,-0.012
1.750E-06,-0.072
1.760E-06,-0.064
1.770E-06,-0.020
1.780E-06,0.052
1.790E-06,0.092
1.800E-06,0.092
1.810E-06,0.024
1.820E-06,-0.028
1.830E-06,-0.040
1.840E-06,-0.044
1.850E-06,-0.052
1.860E-06,-0.020
1.870E-06,0.000
1.880E-06,0.016
1.890E-06,0.012
1.900E-06,-0.008
1.910E-06,-0.020
1.920E-06,-0.032
1.930E-06,-0.004
1.940E-06,0.024
1.950E-06,0.008
1.960E-06,0.004
1.970E-06,0.012
1.980E-06,0.012
1.990E-06,0.012
2.000E-06,0.012
2.010E-06,0.000
2.020E-06,0.008
2.030E-06,0.012
2.040E-06,0.012
2.050E-06,0.008
2.060E-06,0.012
2.070E-06,0.012
2.080E-06,0.008
2.090E-06,0.016
2.100E-06,0.008
2.110E-06,-0.008
2.120E-06,-0.008
2.130E-06,0.000
2.140E-06,0.008
2.150E-06,0.016
2.160E-06,0.016
2.170E-06,0.000
2.180E-06,-0.004
2.190E-06,-0.004
2.200E-06,0.000
2.210E-06,0.012
2.220E-06,0.016
2.230E-06,0.020
2.240E-06,0.020
2.250E-06,0.012
2.260E-06,0.000
2.270E-06,-0.012
2.280E-06,-0.020
2.290E-06,-0.004
2.300E-06,0.012
2.310E-06,0.024
2.320E-06,0.044
2.330E-06,0.044
2.340E-06,0.048
2.350E-06,0.028
2.360E-06,0.028
2.370E-06,0.028
2.380E-06,0.044
2.390E-06,0.064
2.400E-06,0.076
2.410E-06,0.084
2.420E-06,0.072
2.430E-06,0.040
2.440E-06,-0.004
2.450E-06,-0.028
2.460E-06,-0.060
2.470E-06,-0.072
2.480E-06,0.008
2.490E-06,0.052
2.500E-06,0.100
2.510E-06,0.076
2.520E-06,0.124
2.530E-06,0.000
2.540E-06,-0.112
2.550E-06,-0.200
2.560E-06,-0.208
2.570E-06,-0.200
2.580E-06,-0.008
2.590E-06,0.124
2.600E-06,0.128
2.610E-06,0.072
2.620E-06,0.008
2.630E-06,-0.132
2.640E-06,-0.184
2.650E-06,-0.100
2.660E-06,0.024
2.670E-06,0.128
2.680E-06,0.104
2.690E-06,0.040
2.700E-06,-0.024
2.710E-06,-0.056
2.720E-06,-0.056
2.730E-06,-0.024
2.740E-06,0.004
2.750E-06,0.040
2.760E-06,0.048
2.770E-06,0.012
2.780E-06,-0.028
2.790E-06,-0.052
2.800E-06,-0.028
2.810E-06,0.000
2.820E-06,0.032
2.830E-06,0.048
2.840E-06,0.036
2.850E-06,0.008
2.860E-06,-0.016
2.870E-06,-0.036
2.880E-06,-0.032
2.890E-06,0.008
2.900E-06,0.036
2.910E-06,0.060
2.920E-06,0.060
2.930E-06,0.040
2.940E-06,0.016
2.950E-06,0.028
2.960E-06,0.056
2.970E-06,0.076
2.980E-06,0.076
2.990E-06,0.052
3.000E-06,0.008
3.010E-06,-0.004
3.020E-06,-0.008
3.030E-06,0.044
3.040E-06,0.064
3.050E-06,0.132
3.060E-06,0.152
3.070E-06,0.108
3.080E-06,0.128
3.090E-06,0.044
3.100E-06,0.028
3.110E-06,-0.024
3.120E-06,-0.004
3.130E-06,0.008
3.140E-06,0.124
3.150E-06,0.072
3.160E-06,0.072
3.170E-06,-0.008
3.180E-06,-0.084
3.190E-06,-0.336
3.200E-06,-0.356
3.210E-06,-0.316
3.220E-06,-0.108
3.230E-06,0.172
3.240E-06,0.236
3.250E-06,0.220
3.260E-06,0.180
3.270E-06,-0.072
3.280E-06,-0.112
3.290E-06,-0.280
3.300E-06,-0.148
3.310E-06,-0.024
3.320E-06,0.172
3.330E-06,0.348
3.340E-06,0.236
3.350E-06,0.140
3.360E-06,-0.048
3.370E-06,-0.140
3.380E-06,-0.292
3.390E-06,-0.252
3.400E-06,-0.088
3.410E-06,0.140
3.420E-06,0.124
3.430E-06,0.088
3.440E-06,-0.056
3.450E-06,-0.124
3.460E-06,-0.140
3.470E-06,-0.084
3.480E-06,0.004
3.490E-06,0.108
3.500E-06,0.200
3.510E-06,0.136
3.520E-06,0.040
3.530E-06,-0.024
3.540E-06,-0.072
3.550E-06,0.004
3.560E-06,0.112
3.570E-06,0.212
3.580E-06,0.248
3.590E-06,0.180
3.600E-06,0.036
3.610E-06,-0.072
3.620E-06,-0.088
3.630E-06,-0.072
3.640E-06,-0.080
3.650E-06,-0.088
3.660E-06,-0.124
3.670E-06,-0.148
3.680E-06,-0.084
3.690E-06,-0.004
3.700E-06,0.044
3.710E-06,0.124
3.720E-06,0.068
3.730E-06,-0.016
3.740E-06,-0.104
3.750E-06,-0.088
3.760E-06,-0.040
3.770E-06,-0.008
3.780E-06,0.032
3.790E-06,0.036
3.800E-06,0.068
3.810E-06,0.052
3.820E-06,0.008
3.830E-06,-0.008
3.840E-06,0.008
3.850E-06,0.084
3.860E-06,0.092
3.870E-06,0.120
3.880E-06,0.124
3.890E-06,0.136
3.900E-06,0.132
3.910E-06,0.124
3.920E-06,0.112
3.930E-06,0.108
3.940E-06,0.100
3.950E-06,0.088
3.960E-06,0.080
3.970E-06,0.040
3.980E-06,0.020
3.990E-06,0.068
4.000E-06,0.060
4.010E-06,0.064
4.020E-06,0.100
4.030E-06,0.084
4.040E-06,-0.040
4.050E-06,-0.172
4.060E-06,-0.348
4.070E-06,-0.336
4.080E-06,-0.220
4.090E-06,-0.004
4.100E-06,0.148
4.110E-06,0.140
4.120E-06,-0.040
4.130E-06,-0.180
4.140E-06,-0.184
4.150E-06,-0.184
4.160E-06,0.056
4.170E-06,0.320
4.180E-06,0.420
4.190E-06,0.372
4.200E-06,0.152
4.210E-06,-0.084
4.220E-06,-0.276
4.230E-06,-0.300
4.240E-06,-0.224
4.250E-06,-0.016
4.260E-06,0.144
4.270E-06,0.288
4.280E-06,0.324
4.290E-06,0.168
4.300E-06,-0.036
4.310E-06,-0.200
4.320E-06,-0.292
4.330E-06,-0.112
4.340E-06,0.068
4.350E-06,0.052
4.360E-06,-0.044
4.370E-06,-0.352
4.380E-06,-0.392
4.390E-06,-0.304
4.400E-06,0.024
4.410E-06,0.204
4.420E-06,0.396
4.430E-06,0.284
4.440E-06,0.060
4.450E-06,-0.168
4.460E-06,-0.176
4.470E-06,-0.092
4.480E-06,0.072
4.490E-06,0.252
4.500E-06,0.344
4.510E-06,0.320
4.520E-06,0.124
4.530E-06,-0.164
4.540E-06,-0.208
4.550E-06,-0.236
4.560E-06,-0.128
4.570E-06,-0.056
4.580E-06,0.028
4.590E-06,-0.020
4.600E-06,-0.104
4.610E-06,-0.140
4.620E-06,-0.120
4.630E-06,-0.064
4.640E-06,-0.036
4.650E-06,-0.020
4.660E-06,0.028
4.670E-06,0.056
4.680E-06,0.076
4.690E-06,0.052
4.700E-06,-0.004
4.710E-06,0.012
4.720E-06,0.028
4.730E-06,0.092
4.740E-06,0.104
4.750E-06,0.128
4.760E-06,0.132
4.770E-06,0.140
4.780E-06,0.140
4.790E-06,0.124
4.800E-06,0.088
4.810E-06,0.084
4.820E-06,0.076
4.830E-06,0.036
4.840E-06,0.012
4.850E-06,-0.060
4.860E-06,-0.084
4.870E-06,-0.104
4.880E-06,-0.132
4.890E-06,-0.068
4.900E-06,-0.028
4.910E-06,0.008
4.920E-06,0.052
4.930E-06,-0.032
4.940E-06,-0.092
4.950E-06,-0.096
4.960E-06,-0.140
4.970E-06,-0.044
4.980E-06,-0.008
4.990E-06,0.016
5.000E-06,0.040
5.010E-06,0.060
5.020E-06,0.016
5.030E-06,-0.008
5.040E-06,-0.052
5.050E-06,0.008
5.060E-06,0.040
5.070E-06,0.144
5.080E-06,0.108
5.090E-06,0.124
5.100E-06,0.128
5.110E-06,0.120
5.120E-06,0.132
5.130E-06,0.140
5.140E-06,0.108
5.150E-06,0.172
5.160E-06,0.184
5.170E-06,0.192
5.180E-06,0.152
5.190E-06,0.136
5.200E-06,0.140
5.210E-06,0.148
5.220E-06,0.176
5.230E-06,0.212
5.240E-06,0.216
5.250E-06,0.216
5.260E-06,0.224
5.270E-06,0.196
5.280E-06,0.192
5.290E-06,0.188
5.300E-06,0.188
5.310E-06,0.204
5.320E-06,0.204
5.330E-06,0.216
5.340E-06,0.204
5.350E-06,0.188
5.360E-06,0.172
5.370E-06,0.152
5.380E-06,0.132
5.390E-06,0.104
5.400E-06,0.016
5.410E-06,-0.156
5.420E-06,-0.244
5.430E-06,-0.436
5.440E-06,-0.380
5.450E-06,-0.252
5.460E-06,-0.036
5.470E-06,0.236
5.480E-06,0.348
5.490E-06,0.388
5.500E-06,0.236
5.510E-06,0.088
5.520E-06,0.028
5.530E-06,-0.068
5.540E-06,-0.036
5.550E-06,0.000
5.560E-06,0.044
5.570E-06,0.100
5.580E-06,0.224
5.590E-06,0.276
5.600E-06,0.268
5.610E-06,0.168
5.620E-06,0.092
5.630E-06,-0.060
5.640E-06,-0.140
5.650E-06,-0.188
5.660E-06,-0.140
5.670E-06,-0.024
5.680E-06,0.056
5.690E-06,0.044
5.700E-06,-0.068
5.710E-06,-0.160
5.720E-06,-0.088
5.730E-06,-0.068
5.740E-06,-0.052
5.750E-06,-0.004
5.760E-06,0.208
5.770E-06,0.116
5.780E-06,0.060
5.790E-06,0.164
5.800E-06,0.140
5.810E-06,0.132
5.820E-06,0.056
5.830E-06,0.120
5.840E-06,0.056
5.850E-06,0.156
5.860E-06,0.196
5.870E-06,0.264
5.880E-06,0.272
5.890E-06,0.188
5.900E-06,0.112
5.910E-06,0.024
5.920E-06,0.060
5.930E-06,0.084
5.940E-06,0.192
5.950E-06,0.220
5.960E-06,0.212
5.970E-06,0.160
5.980E-06,0.140
5.990E-06,0.124
6.000E-06,0.132
6.010E-06,0.176
6.020E-06,0.220
6.030E-06,0.256
6.040E-06,0.252
6.050E-06,0.236
6.060E-06,0.200
6.070E-06,0.188
6.080E-06,0.172
6.090E-06,0.192
6.100E-06,0.212
6.110E-06,0.240
6.120E-06,0.248
6.130E-06,0.240
6.140E-06,0.216
6.150E-06,0.192
6.160E-06,0.188
6.170E-06,0.196
6.180E-06,0.212
6.190E-06,0.228
6.200E-06,0.244
6.210E-06,0.240
6.220E-06,0.220
6.230E-06,0.200
6.240E-06,0.192
6.250E-06,0.192
6.260E-06,0.196
6.270E-06,0.216
6.280E-06,0.228
6.290E-06,0.236
6.300E-06,0.224
6.310E-06,0.212
6.320E-06,0.196
6.330E-06,0.188
6.340E-06,0.196
6.350E-06,0.208
6.360E-06,0.224
6.370E-06,0.228
6.380E-06,0.220
6.390E-06,0.212
6.400E-06,0.200
6.410E-06,0.192
6.420E-06,0.196
6.430E-06,0.200
6.440E-06,0.220
6.450E-06,0.224
6.460E-06,0.220
6.470E-06,0.216
6.480E-06,0.208
6.490E-06,0.208
6.500E-06,0.196
6.510E-06,0.204
6.520E-06,0.212
6.530E-06,0.220
6.540E-06,0.216
6.550E-06,0.208
6.560E-06,0.204
6.570E-06,0.200
6.580E-06,0.200
6.590E-06,0.204
6.600E-06,0.212
6.610E-06,0.208
6.620E-06,0.208
6.630E-06,0.212
6.640E-06,0.212
6.650E-06,0.204
6.660E-06,0.196
6.670E-06,0.192
6.680E-06,0.204
6.690E-06,0.212
6.700E-06,0.208
6.710E-06,0.208
6.720E-06,0.196
6.730E-06,0.200
6.740E-06,0.196
6.750E-06,0.200
6.760E-06,0.200
6.770E-06,0.196
6.780E-06,0.196
6.790E-06,0.200
6.800E-06,0.208
6.810E-06,0.196
6.820E-06,0.192
6.830E-06,0.192
6.840E-06,0.192
6.850E-06,0.196
6.860E-06,0.200
6.870E-06,0.196
6.880E-06,0.196
6.890E-06,0.192
6.900E-06,0.192
6.910E-06,0.188
6.920E-06,0.196
6.930E-06,0.192
6.940E-06,0.192
6.950E-06,0.192
6.960E-06,0.196
6.970E-06,0.192
6.980E-06,0.188
6.990E-06,0.192
7.000E-06,0.188
7.010E-06,0.188
7.020E-06,0.192
7.030E-06,0.192
7.040E-06,0.188
7.050E-06,0.184
7.060E-06,0.184
7.070E-06,0.180
7.080E-06,0.188
7.090E-06,0.184
7.100E-06,0.184
7.110E-06,0.192
7.120E-06,0.188
7.130E-06,0.192
7.140E-06,0.184
7.150E-06,0.188
7.160E-06,0.184
7.170E-06,0.184
7.180E-06,0.188
7.190E-06,0.188
7.200E-06,0.180
7.210E-06,0.184
7.220E-06,0.188
7.230E-06,0.184
7.240E-06,0.176
7.250E-06,0.180
7.260E-06,0.180
7.270E-06,0.176
7.280E-06,0.184
7.290E-06,0.184
7.300E-06,0.176
7.310E-06,0.180
7.320E-06,0.176
7.330E-06,0.172
7.340E-06,0.168
7.350E-06,0.164
7.360E-06,0.172
7.370E-06,0.172
7.380E-06,0.164
7.390E-06,0.172
7.400E-06,0.180
7.410E-06,0.176
7.420E-06,0.176
7.430E-06,0.164
7.440E-06,0.164
7.450E-06,0.168
7.460E-06,0.168
7.470E-06,0.176
7.480E-06,0.168
7.490E-06,0.168
7.500E-06,0.168
7.510E-06,0.152
7.520E-06,0.152
7.530E-06,0.160
7.540E-06,0.164
7.550E-06,0.176
7.560E-06,0.168
7.570E-06,0.168
7.580E-06,0.160
7.590E-06,0.160
7.600E-06,0.156
7.610E-06,0.160
7.620E-06,0.176
7.630E-06,0.168
7.640E-06,0.164
7.650E-06,0.168
7.660E-06,0.160
7.670E-06,0.156
7.680E-06,0.164
7.690E-06,0.172
7.700E-06,0.168
