mediciones/6-10/25/WaveData5543.csv

#timebase=2000000(ps)
,#voltbase=500000(mv/100)
#size=4000
-4.250E-06,-2.660
-4.240E-06,-2.680
-4.230E-06,-2.680
-4.220E-06,-2.660
-4.210E-06,-2.500
-4.200E-06,-2.000
-4.190E-06,-1.220
-4.180E-06,-0.540
-4.170E-06,-0.060
-4.160E-06,0.060
-4.150E-06,0.180
-4.140E-06,0.180
-4.130E-06,0.320
-4.120E-06,0.440
-4.110E-06,0.500
-4.100E-06,0.560
-4.090E-06,0.660
-4.080E-06,0.760
-4.070E-06,1.100
-4.060E-06,1.380
-4.050E-06,1.520
-4.040E-06,1.580
-4.030E-06,1.380
-4.020E-06,1.100
-4.010E-06,0.780
-4.000E-06,0.460
-3.990E-06,0.140
-3.980E-06,-0.040
-3.970E-06,-0.360
-3.960E-06,-0.660
-3.950E-06,-0.780
-3.940E-06,-0.860
-3.930E-06,-0.680
-3.920E-06,-0.360
-3.910E-06,0.000
-3.900E-06,0.340
-3.890E-06,0.580
-3.880E-06,0.820
-3.870E-06,0.920
-3.860E-06,0.960
-3.850E-06,0.940
-3.840E-06,0.820
-3.830E-06,0.680
-3.820E-06,0.560
-3.810E-06,0.380
-3.800E-06,0.260
-3.790E-06,0.100
-3.780E-06,-0.100
-3.770E-06,-0.300
-3.760E-06,-0.560
-3.750E-06,-0.760
-3.740E-06,-0.920
-3.730E-06,-1.100
-3.720E-06,-1.200
-3.710E-06,-1.280
-3.700E-06,-1.360
-3.690E-06,-1.340
-3.680E-06,-1.260
-3.670E-06,-1.080
-3.660E-06,-0.840
-3.650E-06,-0.560
-3.640E-06,-0.300
-3.630E-06,0.020
-3.620E-06,0.280
-3.610E-06,0.500
-3.600E-06,0.680
-3.590E-06,0.800
-3.580E-06,0.920
-3.570E-06,0.940
-3.560E-06,0.900
-3.550E-06,0.820
-3.540E-06,0.680
-3.530E-06,0.540
-3.520E-06,0.440
-3.510E-06,0.340
-3.500E-06,0.200
-3.490E-06,0.160
-3.480E-06,0.020
-3.470E-06,-0.100
-3.460E-06,-0.180
-3.450E-06,-0.260
-3.440E-06,-0.340
-3.430E-06,-0.340
-3.420E-06,-0.380
-3.410E-06,-0.400
-3.400E-06,-0.340
-3.390E-06,-0.360
-3.380E-06,-0.240
-3.370E-06,-0.120
-3.360E-06,0.000
-3.350E-06,0.180
-3.340E-06,0.220
-3.330E-06,0.320
-3.320E-06,0.360
-3.310E-06,0.420
-3.300E-06,0.440
-3.290E-06,0.460
-3.280E-06,0.440
-3.270E-06,0.400
-3.260E-06,0.320
-3.250E-06,0.260
-3.240E-06,0.180
-3.230E-06,0.120
-3.220E-06,0.020
-3.210E-06,0.000
-3.200E-06,-0.040
-3.190E-06,-0.160
-3.180E-06,-0.140
-3.170E-06,-0.200
-3.160E-06,-0.200
-3.150E-06,-0.240
-3.140E-06,-0.220
-3.130E-06,-0.240
-3.120E-06,-0.220
-3.110E-06,-0.200
-3.100E-06,-0.160
-3.090E-06,-0.160
-3.080E-06,-0.140
-3.070E-06,-0.040
-3.060E-06,0.000
-3.050E-06,0.000
-3.040E-06,0.040
-3.030E-06,0.080
-3.020E-06,0.120
-3.010E-06,0.180
-3.000E-06,0.220
-2.990E-06,0.240
-2.980E-06,0.260
-2.970E-06,0.320
-2.960E-06,0.280
-2.950E-06,0.320
-2.940E-06,0.320
-2.930E-06,0.200
-2.920E-06,0.240
-2.910E-06,0.140
-2.900E-06,0.220
-2.890E-06,0.260
-2.880E-06,0.100
-2.870E-06,0.240
-2.860E-06,0.120
-2.850E-06,0.100
-2.840E-06,0.240
-2.830E-06,0.140
-2.820E-06,0.140
-2.810E-06,0.080
-2.800E-06,-0.080
-2.790E-06,-0.040
-2.780E-06,0.000
-2.770E-06,0.000
-2.760E-06,0.060
-2.750E-06,0.000
-2.740E-06,-0.060
-2.730E-06,-0.040
-2.720E-06,-0.040
-2.710E-06,0.000
-2.700E-06,0.080
-2.690E-06,0.140
-2.680E-06,0.100
-2.670E-06,0.080
-2.660E-06,0.060
-2.650E-06,0.060
-2.640E-06,0.060
-2.630E-06,0.040
-2.620E-06,-0.020
-2.610E-06,-0.020
-2.600E-06,-0.060
-2.590E-06,-0.080
-2.580E-06,-0.080
-2.570E-06,-0.080
-2.560E-06,-0.100
-2.550E-06,-0.200
-2.540E-06,-0.220
-2.530E-06,-0.320
-2.520E-06,-0.380
-2.510E-06,-0.340
-2.500E-06,-0.200
-2.490E-06,-0.020
-2.480E-06,0.280
-2.470E-06,0.420
-2.460E-06,0.400
-2.450E-06,0.420
-2.440E-06,0.360
-2.430E-06,0.380
-2.420E-06,0.620
-2.410E-06,0.660
-2.400E-06,0.720
-2.390E-06,0.720
-2.380E-06,0.600
-2.370E-06,0.520
-2.360E-06,0.520
-2.350E-06,0.440
-2.340E-06,0.400
-2.330E-06,0.300
-2.320E-06,0.140
-2.310E-06,0.060
-2.300E-06,0.020
-2.290E-06,0.000
-2.280E-06,0.120
-2.270E-06,0.100
-2.260E-06,0.060
-2.250E-06,0.000
-2.240E-06,-0.040
-2.230E-06,-0.040
-2.220E-06,0.040
-2.210E-06,0.020
-2.200E-06,0.040
-2.190E-06,0.000
-2.180E-06,0.000
-2.170E-06,0.040
-2.160E-06,0.120
-2.150E-06,0.280
-2.140E-06,0.400
-2.130E-06,0.200
-2.120E-06,0.220
-2.110E-06,0.060
-2.100E-06,-0.100
-2.090E-06,0.120
-2.080E-06,0.100
-2.070E-06,0.200
-2.060E-06,0.220
-2.050E-06,0.000
-2.040E-06,-0.100
-2.030E-06,-0.220
-2.020E-06,-0.280
-2.010E-06,-0.240
-2.000E-06,-0.160
-1.990E-06,-0.160
-1.980E-06,-0.140
-1.970E-06,-0.100
-1.960E-06,-0.020
-1.950E-06,0.040
-1.940E-06,0.120
-1.930E-06,0.180
-1.920E-06,0.240
-1.910E-06,0.280
-1.900E-06,0.300
-1.890E-06,0.360
-1.880E-06,0.380
-1.870E-06,0.420
-1.860E-06,0.400
-1.850E-06,0.380
-1.840E-06,0.340
-1.830E-06,0.340
-1.820E-06,0.320
-1.810E-06,0.300
-1.800E-06,0.220
-1.790E-06,0.160
-1.780E-06,0.080
-1.770E-06,0.060
-1.760E-06,0.000
-1.750E-06,0.000
-1.740E-06,-0.020
-1.730E-06,-0.040
-1.720E-06,-0.020
-1.710E-06,0.020
-1.700E-06,0.060
-1.690E-06,0.100
-1.680E-06,0.080
-1.670E-06,0.060
-1.660E-06,0.060
-1.650E-06,0.120
-1.640E-06,0.320
-1.630E-06,0.320
-1.620E-06,0.280
-1.610E-06,0.280
-1.600E-06,0.080
-1.590E-06,0.160
-1.580E-06,0.180
-1.570E-06,0.240
-1.560E-06,0.320
-1.550E-06,0.240
-1.540E-06,0.140
-1.530E-06,0.140
-1.520E-06,0.080
-1.510E-06,0.120
-1.500E-06,0.180
-1.490E-06,0.080
-1.480E-06,0.020
-1.470E-06,-0.060
-1.460E-06,-0.060
-1.450E-06,-0.020
-1.440E-06,0.040
-1.430E-06,0.040
-1.420E-06,0.000
-1.410E-06,-0.060
-1.400E-06,-0.060
-1.390E-06,0.000
-1.380E-06,0.060
-1.370E-06,0.160
-1.360E-06,0.180
-1.350E-06,0.200
-1.340E-06,0.160
-1.330E-06,0.180
-1.320E-06,0.160
-1.310E-06,0.180
-1.300E-06,0.180
-1.290E-06,0.220
-1.280E-06,0.200
-1.270E-06,0.160
-1.260E-06,0.140
-1.250E-06,0.100
-1.240E-06,0.060
-1.230E-06,0.020
-1.220E-06,-0.020
-1.210E-06,-0.100
-1.200E-06,-0.100
-1.190E-06,-0.120
-1.180E-06,-0.160
-1.170E-06,-0.160
-1.160E-06,-0.160
-1.150E-06,-0.120
-1.140E-06,-0.060
-1.130E-06,0.000
-1.120E-06,0.080
-1.110E-06,0.120
-1.100E-06,0.160
-1.090E-06,0.200
-1.080E-06,0.220
-1.070E-06,0.260
-1.060E-06,0.300
-1.050E-06,0.300
-1.040E-06,0.300
-1.030E-06,0.300
-1.020E-06,0.320
-1.010E-06,0.340
-1.000E-06,0.340
-9.900E-07,0.320
-9.800E-07,0.260
-9.700E-07,0.160
-9.600E-07,0.200
-9.500E-07,0.180
-9.400E-07,0.060
-9.300E-07,0.020
-9.200E-07,-0.140
-9.100E-07,-0.140
-9.000E-07,-0.040
-8.900E-07,0.160
-8.800E-07,0.220
-8.700E-07,0.320
-8.600E-07,0.160
-8.500E-07,0.000
-8.400E-07,0.060
-8.300E-07,0.080
-8.200E-07,0.220
-8.100E-07,0.340
-8.000E-07,0.380
-7.900E-07,0.340
-7.800E-07,0.260
-7.700E-07,0.200
-7.600E-07,0.240
-7.500E-07,0.340
-7.400E-07,0.340
-7.300E-07,0.380
-7.200E-07,0.280
-7.100E-07,0.180
-7.000E-07,0.080
-6.900E-07,0.060
-6.800E-07,0.080
-6.700E-07,0.000
-6.600E-07,0.080
-6.500E-07,-0.020
-6.400E-07,0.000
-6.300E-07,-0.020
-6.200E-07,-0.100
-6.100E-07,-0.040
-6.000E-07,-0.140
-5.900E-07,-0.080
-5.800E-07,-0.020
-5.700E-07,0.040
-5.600E-07,0.340
-5.500E-07,0.480
-5.400E-07,0.560
-5.300E-07,0.500
-5.200E-07,0.380
-5.100E-07,0.180
-5.000E-07,0.040
-4.900E-07,0.080
-4.800E-07,0.200
-4.700E-07,0.340
-4.600E-07,0.480
-4.500E-07,0.440
-4.400E-07,0.320
-4.300E-07,0.180
-4.200E-07,0.040
-4.100E-07,0.000
-4.000E-07,0.080
-3.900E-07,0.140
-3.800E-07,0.100
-3.700E-07,0.100
-3.600E-07,-0.040
-3.500E-07,-0.040
-3.400E-07,-0.060
-3.300E-07,-0.040
-3.200E-07,0.040
-3.100E-07,0.120
-3.000E-07,0.280
-2.900E-07,0.420
-2.800E-07,0.440
-2.700E-07,0.420
-2.600E-07,0.340
-2.500E-07,0.360
-2.400E-07,0.520
-2.300E-07,0.500
-2.200E-07,0.580
-2.100E-07,0.600
-2.000E-07,0.680
-1.900E-07,0.500
-1.800E-07,0.540
-1.700E-07,0.400
-1.600E-07,0.160
-1.500E-07,0.080
-1.400E-07,0.420
-1.300E-07,0.380
-1.200E-07,0.920
-1.100E-07,0.980
-1.000E-07,0.740
-9.000E-08,1.040
-8.000E-08,0.620
-7.000E-08,0.500
-6.000E-08,0.820
-5.000E-08,1.300
-4.000E-08,0.660
-3.000E-08,0.940
-2.000E-08,-0.840
-1.000E-08,-1.780
0.000E+00,-0.900
1.000E-08,-1.200
2.000E-08,0.900
3.000E-08,1.780
4.000E-08,1.340
5.000E-08,0.940
6.000E-08,-0.400
7.000E-08,-0.840
8.000E-08,-0.480
9.000E-08,-0.120
1.000E-07,0.460
1.100E-07,0.740
1.200E-07,0.860
1.300E-07,0.480
1.400E-07,0.400
1.500E-07,0.140
1.600E-07,-0.080
1.700E-07,-0.160
1.800E-07,-0.120
1.900E-07,-0.060
2.000E-07,0.220
2.100E-07,0.320
2.200E-07,0.140
2.300E-07,-0.160
2.400E-07,-0.500
2.500E-07,-0.640
2.600E-07,-0.480
2.700E-07,-0.160
2.800E-07,-0.020
2.900E-07,0.080
3.000E-07,-0.020
3.100E-07,-0.080
3.200E-07,-0.140
3.300E-07,-0.100
3.400E-07,-0.020
3.500E-07,0.080
3.600E-07,0.200
3.700E-07,0.260
3.800E-07,0.220
3.900E-07,0.160
4.000E-07,0.060
4.100E-07,0.060
4.200E-07,0.080
4.300E-07,0.120
4.400E-07,0.180
4.500E-07,0.160
4.600E-07,0.180
4.700E-07,0.200
4.800E-07,0.180
4.900E-07,0.140
5.000E-07,0.140
5.100E-07,0.080
5.200E-07,0.080
5.300E-07,0.140
5.400E-07,0.160
5.500E-07,0.140
5.600E-07,0.120
5.700E-07,0.080
5.800E-07,0.080
5.900E-07,0.080
6.000E-07,0.080
6.100E-07,0.100
6.200E-07,0.160
6.300E-07,0.200
6.400E-07,0.180
6.500E-07,0.120
6.600E-07,-0.020
6.700E-07,0.120
6.800E-07,0.020
6.900E-07,0.140
7.000E-07,0.260
7.100E-07,0.220
7.200E-07,0.880
7.300E-07,-2.000
7.400E-07,0.660
7.500E-07,-1.860
7.600E-07,-1.360
7.700E-07,1.140
7.800E-07,-1.600
7.900E-07,1.400
8.000E-07,0.180
8.100E-07,-0.540
8.200E-07,0.460
8.300E-07,-1.160
8.400E-07,-0.880
8.500E-07,-0.220
8.600E-07,-0.060
8.700E-07,0.960
8.800E-07,1.480
8.900E-07,1.140
9.000E-07,0.220
9.100E-07,-0.180
9.200E-07,-0.940
9.300E-07,-0.440
9.400E-07,-0.020
9.500E-07,0.620
9.600E-07,0.220
9.700E-07,-0.120
9.800E-07,0.020
9.900E-07,-0.520
1.000E-06,0.120
1.010E-06,0.000
1.020E-06,-0.200
1.030E-06,-0.240
1.040E-06,-0.460
1.050E-06,-0.400
1.060E-06,0.260
1.070E-06,0.340
1.080E-06,0.440
1.090E-06,0.340
1.100E-06,-0.040
1.110E-06,0.000
1.120E-06,0.240
1.130E-06,0.400
1.140E-06,0.460
1.150E-06,0.360
1.160E-06,-0.040
1.170E-06,-0.280
1.180E-06,-0.280
1.190E-06,0.080
1.200E-06,-0.080
1.210E-06,0.000
1.220E-06,-0.320
1.230E-06,-0.620
1.240E-06,-0.080
1.250E-06,0.060
1.260E-06,0.380
1.270E-06,0.540
1.280E-06,0.060
1.290E-06,-0.360
1.300E-06,-0.820
1.310E-06,-1.160
1.320E-06,-0.340
1.330E-06,0.240
1.340E-06,0.920
1.350E-06,1.060
1.360E-06,0.540
1.370E-06,0.060
1.380E-06,-0.240
1.390E-06,-0.180
1.400E-06,0.220
1.410E-06,0.800
1.420E-06,0.880
1.430E-06,0.740
1.440E-06,0.280
1.450E-06,0.000
1.460E-06,-0.020
1.470E-06,0.020
1.480E-06,0.240
1.490E-06,0.260
1.500E-06,0.120
1.510E-06,-0.180
1.520E-06,-0.420
1.530E-06,-0.540
1.540E-06,-0.460
1.550E-06,-0.200
1.560E-06,-0.320
1.570E-06,-0.180
1.580E-06,-0.420
1.590E-06,-0.320
1.600E-06,-0.340
1.610E-06,-0.160
1.620E-06,-0.140
1.630E-06,-0.560
1.640E-06,-0.500
1.650E-06,-0.560
1.660E-06,-0.160
1.670E-06,0.160
1.680E-06,0.280
1.690E-06,0.320
1.700E-06,0.180
1.710E-06,0.000
1.720E-06,-0.100
1.730E-06,0.020
1.740E-06,0.240
1.750E-06,0.260
1.760E-06,0.340
1.770E-06,0.140
1.780E-06,0.080
1.790E-06,0.080
1.800E-06,0.080
1.810E-06,0.220
1.820E-06,0.020
1.830E-06,0.000
1.840E-06,-0.080
1.850E-06,-0.280
1.860E-06,-0.160
1.870E-06,-0.120
1.880E-06,-0.220
1.890E-06,0.000
1.900E-06,-0.080
1.910E-06,-0.040
1.920E-06,0.020
1.930E-06,-0.060
1.940E-06,0.040
1.950E-06,0.200
1.960E-06,0.200
1.970E-06,0.340
1.980E-06,0.340
1.990E-06,0.240
2.000E-06,0.340
2.010E-06,0.360
2.020E-06,0.380
2.030E-06,0.420
2.040E-06,0.320
2.050E-06,0.220
2.060E-06,0.120
2.070E-06,0.020
2.080E-06,0.000
2.090E-06,-0.040
2.100E-06,-0.140
2.110E-06,-0.160
2.120E-06,-0.240
2.130E-06,-0.260
2.140E-06,-0.320
2.150E-06,-0.360
2.160E-06,-0.340
2.170E-06,-0.300
2.180E-06,-0.300
2.190E-06,-0.180
2.200E-06,-0.220
2.210E-06,-0.160
2.220E-06,-0.140
2.230E-06,-0.080
2.240E-06,-0.020
2.250E-06,-0.020
2.260E-06,0.040
2.270E-06,0.040
2.280E-06,0.120
2.290E-06,0.100
2.300E-06,0.100
2.310E-06,0.080
2.320E-06,0.040
2.330E-06,0.120
2.340E-06,0.120
2.350E-06,0.140
2.360E-06,0.200
2.370E-06,0.140
2.380E-06,0.080
2.390E-06,-0.020
2.400E-06,-0.040
2.410E-06,-0.040
2.420E-06,-0.020
2.430E-06,0.000
2.440E-06,-0.020
2.450E-06,-0.020
2.460E-06,-0.080
2.470E-06,-0.180
2.480E-06,-0.280
2.490E-06,-0.300
2.500E-06,-0.180
2.510E-06,0.000
2.520E-06,0.180
2.530E-06,0.320
2.540E-06,0.500
2.550E-06,0.300
2.560E-06,0.320
2.570E-06,0.100
2.580E-06,-0.580
2.590E-06,-0.300
2.600E-06,-0.260
2.610E-06,0.180
2.620E-06,0.920
2.630E-06,0.880
2.640E-06,0.520
2.650E-06,0.340
2.660E-06,-0.260
2.670E-06,-0.240
2.680E-06,0.280
2.690E-06,0.600
2.700E-06,0.900
2.710E-06,0.760
2.720E-06,0.420
2.730E-06,0.220
2.740E-06,0.080
2.750E-06,0.080
2.760E-06,0.280
2.770E-06,0.220
2.780E-06,0.260
2.790E-06,0.040
2.800E-06,-0.060
2.810E-06,-0.160
2.820E-06,-0.340
2.830E-06,-0.420
2.840E-06,-0.500
2.850E-06,-0.500
2.860E-06,-0.400
2.870E-06,-0.400
2.880E-06,-0.420
2.890E-06,-0.440
2.900E-06,-0.580
2.910E-06,-0.420
2.920E-06,-0.340
2.930E-06,-0.160
2.940E-06,-0.160
2.950E-06,-0.160
2.960E-06,-0.200
2.970E-06,-0.100
2.980E-06,0.020
2.990E-06,0.120
3.000E-06,0.220
3.010E-06,0.160
3.020E-06,0.080
3.030E-06,0.040
3.040E-06,0.020
3.050E-06,0.060
3.060E-06,0.280
3.070E-06,0.380
3.080E-06,0.460
3.090E-06,0.440
3.100E-06,0.320
3.110E-06,0.260
3.120E-06,0.120
3.130E-06,0.100
3.140E-06,0.120
3.150E-06,0.100
3.160E-06,0.260
3.170E-06,0.400
3.180E-06,0.380
3.190E-06,0.580
3.200E-06,0.340
3.210E-06,0.120
3.220E-06,-0.260
3.230E-06,-1.000
3.240E-06,-0.200
3.250E-06,-0.380
3.260E-06,0.680
3.270E-06,1.120
3.280E-06,0.700
3.290E-06,0.880
3.300E-06,0.020
3.310E-06,0.020
3.320E-06,-0.720
3.330E-06,-0.160
3.340E-06,-0.140
3.350E-06,0.280
3.360E-06,1.480
3.370E-06,0.740
3.380E-06,1.160
3.390E-06,0.320
3.400E-06,-0.620
3.410E-06,-0.620
3.420E-06,-1.100
3.430E-06,-0.540
3.440E-06,0.080
3.450E-06,0.380
3.460E-06,0.500
3.470E-06,0.280
3.480E-06,-0.020
3.490E-06,-0.280
3.500E-06,-0.260
3.510E-06,0.040
3.520E-06,0.200
3.530E-06,0.500
3.540E-06,0.280
3.550E-06,0.060
3.560E-06,-0.160
3.570E-06,-0.340
3.580E-06,-0.260
3.590E-06,-0.040
3.600E-06,0.180
3.610E-06,0.360
3.620E-06,0.200
3.630E-06,0.000
3.640E-06,-0.500
3.650E-06,-0.620
3.660E-06,-0.640
3.670E-06,-0.740
3.680E-06,-0.520
3.690E-06,-0.760
3.700E-06,-0.700
3.710E-06,-0.180
3.720E-06,-0.020
3.730E-06,0.500
3.740E-06,0.860
3.750E-06,0.540
3.760E-06,0.360
3.770E-06,0.120
3.780E-06,0.140
3.790E-06,0.380
3.800E-06,0.560
3.810E-06,0.660
3.820E-06,0.820
3.830E-06,0.680
3.840E-06,0.780
3.850E-06,0.820
3.860E-06,0.860
3.870E-06,0.980
3.880E-06,0.740
3.890E-06,0.580
3.900E-06,0.540
3.910E-06,0.520
3.920E-06,0.620
3.930E-06,0.500
3.940E-06,0.440
3.950E-06,0.240
3.960E-06,0.000
3.970E-06,-0.060
3.980E-06,-0.120
3.990E-06,-0.260
4.000E-06,-0.280
4.010E-06,-0.500
4.020E-06,-0.360
4.030E-06,-0.220
4.040E-06,-0.460
4.050E-06,-0.140
4.060E-06,-0.180
4.070E-06,-0.600
4.080E-06,-0.560
4.090E-06,-0.800
4.100E-06,-0.880
4.110E-06,-0.360
4.120E-06,0.180
4.130E-06,0.500
4.140E-06,0.820
4.150E-06,0.080
4.160E-06,-0.520
4.170E-06,-0.320
4.180E-06,-0.040
4.190E-06,1.100
4.200E-06,1.860
4.210E-06,2.100
4.220E-06,1.720
4.230E-06,1.100
4.240E-06,0.360
4.250E-06,-0.100
4.260E-06,-0.100
4.270E-06,-0.180
4.280E-06,0.420
4.290E-06,1.020
4.300E-06,1.420
4.310E-06,1.740
4.320E-06,1.460
4.330E-06,0.900
4.340E-06,0.160
4.350E-06,-0.780
4.360E-06,-0.040
4.370E-06,-0.020
4.380E-06,-0.140
4.390E-06,-0.160
4.400E-06,-1.900
4.410E-06,-1.920
4.420E-06,-1.660
4.430E-06,-0.440
4.440E-06,1.040
4.450E-06,1.480
4.460E-06,1.240
4.470E-06,0.480
4.480E-06,0.020
4.490E-06,0.100
4.500E-06,0.480
4.510E-06,0.820
4.520E-06,0.860
4.530E-06,0.880
4.540E-06,0.380
4.550E-06,0.220
4.560E-06,0.180
4.570E-06,-0.220
4.580E-06,-0.060
4.590E-06,-0.380
4.600E-06,-0.500
4.610E-06,-0.820
4.620E-06,-1.180
4.630E-06,-1.220
4.640E-06,-1.020
4.650E-06,-0.580
4.660E-06,-0.100
4.670E-06,0.200
4.680E-06,0.120
4.690E-06,0.060
4.700E-06,0.040
4.710E-06,0.140
4.720E-06,0.500
4.730E-06,0.720
4.740E-06,0.760
4.750E-06,0.720
4.760E-06,0.400
4.770E-06,0.360
4.780E-06,0.340
4.790E-06,0.320
4.800E-06,0.320
4.810E-06,0.240
4.820E-06,0.100
4.830E-06,-0.320
4.840E-06,-0.480
4.850E-06,-0.800
4.860E-06,-0.920
4.870E-06,-1.120
4.880E-06,-1.200
4.890E-06,-1.060
4.900E-06,-0.940
4.910E-06,-1.000
4.920E-06,-0.720
4.930E-06,-0.320
4.940E-06,-0.620
4.950E-06,-0.120
4.960E-06,-0.100
4.970E-06,-0.320
4.980E-06,0.260
4.990E-06,0.000
5.000E-06,0.380
5.010E-06,0.940
5.020E-06,0.840
5.030E-06,1.200
5.040E-06,1.080
5.050E-06,0.700
5.060E-06,0.880
5.070E-06,0.620
5.080E-06,0.600
5.090E-06,0.660
5.100E-06,0.640
5.110E-06,0.740
5.120E-06,0.500
5.130E-06,0.560
5.140E-06,0.200
5.150E-06,0.080
5.160E-06,-0.040
5.170E-06,-0.240
5.180E-06,-0.240
5.190E-06,-0.340
5.200E-06,-0.420
5.210E-06,-0.380
5.220E-06,-0.440
5.230E-06,-0.520
5.240E-06,-0.520
5.250E-06,-0.600
5.260E-06,-0.500
5.270E-06,-0.600
5.280E-06,-0.580
5.290E-06,-0.680
5.300E-06,-0.720
5.310E-06,-0.760
5.320E-06,-0.720
5.330E-06,-0.780
5.340E-06,-0.780
5.350E-06,-0.720
5.360E-06,-0.820
5.370E-06,-0.740
5.380E-06,-0.840
5.390E-06,-0.860
5.400E-06,-0.840
5.410E-06,-1.040
5.420E-06,-0.940
5.430E-06,-1.040
5.440E-06,-1.280
5.450E-06,-1.240
5.460E-06,-1.400
5.470E-06,-1.200
5.480E-06,-0.620
5.490E-06,-0.100
5.500E-06,0.580
5.510E-06,1.020
5.520E-06,0.840
5.530E-06,0.540
5.540E-06,-0.060
5.550E-06,-0.480
5.560E-06,-0.940
5.570E-06,-1.100
5.580E-06,-1.240
5.590E-06,-1.120
5.600E-06,-0.520
5.610E-06,-0.140
5.620E-06,0.400
5.630E-06,0.700
5.640E-06,0.240
5.650E-06,-0.220
5.660E-06,-1.240
5.670E-06,-1.980
5.680E-06,-1.960
5.690E-06,-1.920
5.700E-06,-0.920
5.710E-06,-0.860
5.720E-06,-0.680
5.730E-06,-1.360
5.740E-06,-1.540
5.750E-06,-1.940
5.760E-06,-2.460
5.770E-06,-1.700
5.780E-06,-2.020
5.790E-06,-1.660
5.800E-06,-1.440
5.810E-06,-1.640
5.820E-06,-1.200
5.830E-06,-1.240
5.840E-06,-1.480
5.850E-06,-1.500
5.860E-06,-2.120
5.870E-06,-1.900
5.880E-06,-1.660
5.890E-06,-1.080
5.900E-06,-0.480
5.910E-06,-0.180
5.920E-06,-0.180
5.930E-06,-0.400
5.940E-06,-0.620
5.950E-06,-0.700
5.960E-06,-0.620
5.970E-06,-0.400
5.980E-06,-0.340
5.990E-06,-0.280
6.000E-06,-0.340
6.010E-06,-0.560
6.020E-06,-0.620
6.030E-06,-0.780
6.040E-06,-0.860
6.050E-06,-1.000
6.060E-06,-1.080
6.070E-06,-1.160
6.080E-06,-1.160
6.090E-06,-1.120
6.100E-06,-1.100
6.110E-06,-1.040
6.120E-06,-1.100
6.130E-06,-1.080
6.140E-06,-1.060
6.150E-06,-0.940
6.160E-06,-0.840
6.170E-06,-0.780
6.180E-06,-0.700
6.190E-06,-0.640
6.200E-06,-0.560
6.210E-06,-0.520
6.220E-06,-0.420
6.230E-06,-0.320
6.240E-06,-0.280
6.250E-06,-0.240
6.260E-06,-0.220
6.270E-06,-0.180
6.280E-06,-0.180
6.290E-06,-0.180
6.300E-06,-0.160
6.310E-06,-0.180
6.320E-06,-0.120
6.330E-06,-0.140
6.340E-06,-0.200
6.350E-06,-0.260
6.360E-06,-0.300
6.370E-06,-0.340
6.380E-06,-0.400
6.390E-06,-0.460
6.400E-06,-0.500
6.410E-06,-0.500
6.420E-06,-0.500
6.430E-06,-0.480
6.440E-06,-0.420
6.450E-06,-0.400
6.460E-06,-0.360
6.470E-06,-0.320
6.480E-06,-0.260
6.490E-06,-0.200
6.500E-06,-0.080
6.510E-06,-0.020
6.520E-06,0.080
6.530E-06,0.160
6.540E-06,0.240
6.550E-06,0.240
6.560E-06,0.300
6.570E-06,0.300
6.580E-06,0.300
6.590E-06,0.240
6.600E-06,0.160
6.610E-06,0.120
6.620E-06,0.040
6.630E-06,-0.040
6.640E-06,-0.120
6.650E-06,-0.180
6.660E-06,-0.260
6.670E-06,-0.340
6.680E-06,-0.360
6.690E-06,-0.420
6.700E-06,-0.440
6.710E-06,-0.420
6.720E-06,-0.420
6.730E-06,-0.380
6.740E-06,-0.340
6.750E-06,-0.300
6.760E-06,-0.220
6.770E-06,-0.180
6.780E-06,-0.100
6.790E-06,0.000
6.800E-06,0.060
6.810E-06,0.100
6.820E-06,0.160
6.830E-06,0.200
6.840E-06,0.240
6.850E-06,0.240
6.860E-06,0.220
6.870E-06,0.200
6.880E-06,0.200
6.890E-06,0.160
6.900E-06,0.120
6.910E-06,0.100
6.920E-06,0.040
6.930E-06,0.020
6.940E-06,0.000
6.950E-06,-0.020
6.960E-06,-0.020
6.970E-06,-0.060
6.980E-06,-0.060
6.990E-06,-0.040
7.000E-06,-0.040
7.010E-06,0.020
7.020E-06,0.020
7.030E-06,0.040
7.040E-06,0.100
7.050E-06,0.120
7.060E-06,0.160
7.070E-06,0.180
7.080E-06,0.220
7.090E-06,0.240
7.100E-06,0.240
7.110E-06,0.240
7.120E-06,0.220
7.130E-06,0.200
7.140E-06,0.220
7.150E-06,0.180
7.160E-06,0.180
7.170E-06,0.200
7.180E-06,0.160
7.190E-06,0.140
7.200E-06,0.120
7.210E-06,0.100
7.220E-06,0.120
7.230E-06,0.100
7.240E-06,0.040
7.250E-06,0.020
7.260E-06,0.020
7.270E-06,0.000
7.280E-06,-0.020
7.290E-06,0.020
7.300E-06,0.020
7.310E-06,-0.020
7.320E-06,0.080
7.330E-06,0.100
7.340E-06,0.160
7.350E-06,0.200
7.360E-06,0.240
7.370E-06,0.320
7.380E-06,0.260
7.390E-06,0.360
7.400E-06,0.260
7.410E-06,0.220
7.420E-06,0.200
7.430E-06,0.160
7.440E-06,0.120
7.450E-06,0.060
7.460E-06,-0.020
7.470E-06,-0.100
7.480E-06,-0.160
7.490E-06,-0.160
7.500E-06,-0.100
7.510E-06,-0.100
7.520E-06,-0.120
7.530E-06,-0.140
7.540E-06,-0.180
7.550E-06,-0.180
7.560E-06,-0.180
7.570E-06,-0.160
7.580E-06,-0.200
7.590E-06,-0.180
7.600E-06,-0.180
7.610E-06,-0.280
7.620E-06,-0.260
