mediciones/6-10/25/WaveData5545.csv

#timebase=2000000(ps)
,#voltbase=500000(mv/100)
#size=4000
-4.250E-06,0.020
-4.240E-06,0.020
-4.230E-06,0.060
-4.220E-06,0.040
-4.210E-06,0.080
-4.200E-06,0.060
-4.190E-06,0.040
-4.180E-06,0.020
-4.170E-06,0.040
-4.160E-06,0.080
-4.150E-06,0.040
-4.140E-06,0.020
-4.130E-06,0.040
-4.120E-06,0.040
-4.110E-06,0.040
-4.100E-06,0.020
-4.090E-06,0.060
-4.080E-06,0.020
-4.070E-06,0.040
-4.060E-06,0.040
-4.050E-06,0.000
-4.040E-06,0.060
-4.030E-06,0.060
-4.020E-06,0.020
-4.010E-06,0.060
-4.000E-06,0.060
-3.990E-06,0.040
-3.980E-06,0.060
-3.970E-06,0.060
-3.960E-06,0.060
-3.950E-06,0.060
-3.940E-06,0.060
-3.930E-06,0.020
-3.920E-06,0.020
-3.910E-06,0.040
-3.900E-06,0.000
-3.890E-06,0.040
-3.880E-06,0.080
-3.870E-06,0.060
-3.860E-06,0.040
-3.850E-06,0.020
-3.840E-06,0.040
-3.830E-06,0.060
-3.820E-06,0.080
-3.810E-06,0.060
-3.800E-06,0.080
-3.790E-06,0.060
-3.780E-06,0.020
-3.770E-06,0.000
-3.760E-06,0.060
-3.750E-06,0.040
-3.740E-06,0.080
-3.730E-06,0.100
-3.720E-06,0.060
-3.710E-06,0.020
-3.700E-06,0.020
-3.690E-06,0.020
-3.680E-06,0.060
-3.670E-06,0.060
-3.660E-06,0.080
-3.650E-06,0.040
-3.640E-06,0.000
-3.630E-06,0.000
-3.620E-06,0.040
-3.610E-06,0.020
-3.600E-06,0.040
-3.590E-06,0.080
-3.580E-06,0.080
-3.570E-06,0.000
-3.560E-06,0.040
-3.550E-06,0.020
-3.540E-06,0.040
-3.530E-06,0.040
-3.520E-06,0.060
-3.510E-06,0.080
-3.500E-06,0.080
-3.490E-06,0.060
-3.480E-06,0.040
-3.470E-06,0.060
-3.460E-06,0.060
-3.450E-06,0.080
-3.440E-06,0.060
-3.430E-06,0.060
-3.420E-06,0.080
-3.410E-06,0.020
-3.400E-06,0.040
-3.390E-06,0.040
-3.380E-06,0.080
-3.370E-06,0.080
-3.360E-06,0.080
-3.350E-06,0.080
-3.340E-06,0.080
-3.330E-06,0.120
-3.320E-06,0.080
-3.310E-06,0.080
-3.300E-06,0.100
-3.290E-06,0.040
-3.280E-06,0.100
-3.270E-06,0.060
-3.260E-06,0.080
-3.250E-06,0.040
-3.240E-06,0.060
-3.230E-06,0.040
-3.220E-06,0.060
-3.210E-06,0.100
-3.200E-06,0.040
-3.190E-06,0.040
-3.180E-06,0.040
-3.170E-06,0.060
-3.160E-06,0.040
-3.150E-06,0.040
-3.140E-06,0.040
-3.130E-06,0.100
-3.120E-06,0.100
-3.110E-06,0.040
-3.100E-06,0.060
-3.090E-06,0.000
-3.080E-06,0.000
-3.070E-06,0.000
-3.060E-06,0.040
-3.050E-06,0.060
-3.040E-06,0.100
-3.030E-06,0.100
-3.020E-06,0.060
-3.010E-06,0.020
-3.000E-06,0.040
-2.990E-06,0.040
-2.980E-06,0.100
-2.970E-06,0.100
-2.960E-06,0.100
-2.950E-06,0.060
-2.940E-06,0.060
-2.930E-06,0.100
-2.920E-06,0.200
-2.910E-06,0.140
-2.900E-06,0.180
-2.890E-06,0.060
-2.880E-06,0.020
-2.870E-06,0.100
-2.860E-06,0.140
-2.850E-06,0.160
-2.840E-06,0.240
-2.830E-06,0.160
-2.820E-06,0.100
-2.810E-06,0.160
-2.800E-06,0.060
-2.790E-06,0.160
-2.780E-06,0.220
-2.770E-06,0.180
-2.760E-06,0.120
-2.750E-06,0.080
-2.740E-06,0.000
-2.730E-06,0.060
-2.720E-06,0.000
-2.710E-06,0.080
-2.700E-06,0.040
-2.690E-06,0.060
-2.680E-06,0.020
-2.670E-06,0.000
-2.660E-06,0.040
-2.650E-06,0.080
-2.640E-06,0.040
-2.630E-06,0.040
-2.620E-06,0.020
-2.610E-06,0.000
-2.600E-06,0.020
-2.590E-06,0.000
-2.580E-06,0.100
-2.570E-06,0.060
-2.560E-06,0.080
-2.550E-06,0.060
-2.540E-06,-0.020
-2.530E-06,0.060
-2.520E-06,0.080
-2.510E-06,0.160
-2.500E-06,0.080
-2.490E-06,0.140
-2.480E-06,0.080
-2.470E-06,0.060
-2.460E-06,0.160
-2.450E-06,0.100
-2.440E-06,0.160
-2.430E-06,0.140
-2.420E-06,0.040
-2.410E-06,0.060
-2.400E-06,0.040
-2.390E-06,0.080
-2.380E-06,0.200
-2.370E-06,0.220
-2.360E-06,0.180
-2.350E-06,0.180
-2.340E-06,0.080
-2.330E-06,0.040
-2.320E-06,0.100
-2.310E-06,0.180
-2.300E-06,0.240
-2.290E-06,0.240
-2.280E-06,0.200
-2.270E-06,0.160
-2.260E-06,0.120
-2.250E-06,0.120
-2.240E-06,0.100
-2.230E-06,0.140
-2.220E-06,0.120
-2.210E-06,0.080
-2.200E-06,0.100
-2.190E-06,0.140
-2.180E-06,0.100
-2.170E-06,0.100
-2.160E-06,0.040
-2.150E-06,-0.020
-2.140E-06,0.060
-2.130E-06,0.120
-2.120E-06,0.280
-2.110E-06,0.280
-2.100E-06,0.260
-2.090E-06,0.120
-2.080E-06,-0.020
-2.070E-06,0.000
-2.060E-06,0.120
-2.050E-06,0.280
-2.040E-06,0.360
-2.030E-06,0.400
-2.020E-06,0.340
-2.010E-06,0.240
-2.000E-06,0.240
-1.990E-06,0.320
-1.980E-06,0.320
-1.970E-06,0.400
-1.960E-06,0.380
-1.950E-06,0.300
-1.940E-06,0.260
-1.930E-06,0.220
-1.920E-06,0.240
-1.910E-06,0.280
-1.900E-06,0.260
-1.890E-06,0.220
-1.880E-06,0.140
-1.870E-06,0.120
-1.860E-06,0.160
-1.850E-06,0.180
-1.840E-06,0.160
-1.830E-06,0.180
-1.820E-06,0.100
-1.810E-06,0.040
-1.800E-06,0.080
-1.790E-06,0.100
-1.780E-06,0.120
-1.770E-06,0.220
-1.760E-06,0.180
-1.750E-06,0.160
-1.740E-06,0.160
-1.730E-06,0.160
-1.720E-06,0.160
-1.710E-06,0.180
-1.700E-06,0.140
-1.690E-06,0.080
-1.680E-06,0.080
-1.670E-06,0.080
-1.660E-06,0.160
-1.650E-06,0.120
-1.640E-06,0.180
-1.630E-06,0.240
-1.620E-06,0.080
-1.610E-06,0.120
-1.600E-06,0.120
-1.590E-06,0.120
-1.580E-06,0.300
-1.570E-06,0.340
-1.560E-06,0.360
-1.550E-06,0.360
-1.540E-06,0.360
-1.530E-06,0.280
-1.520E-06,0.300
-1.510E-06,0.200
-1.500E-06,0.180
-1.490E-06,0.180
-1.480E-06,0.160
-1.470E-06,0.320
-1.460E-06,0.360
-1.450E-06,0.420
-1.440E-06,0.400
-1.430E-06,0.380
-1.420E-06,0.320
-1.410E-06,0.340
-1.400E-06,0.300
-1.390E-06,0.320
-1.380E-06,0.280
-1.370E-06,0.240
-1.360E-06,0.200
-1.350E-06,0.220
-1.340E-06,0.260
-1.330E-06,0.220
-1.320E-06,0.200
-1.310E-06,0.160
-1.300E-06,0.180
-1.290E-06,0.280
-1.280E-06,0.340
-1.270E-06,0.360
-1.260E-06,0.300
-1.250E-06,0.260
-1.240E-06,0.100
-1.230E-06,0.140
-1.220E-06,0.160
-1.210E-06,0.200
-1.200E-06,0.340
-1.190E-06,0.240
-1.180E-06,0.240
-1.170E-06,0.160
-1.160E-06,0.100
-1.150E-06,0.100
-1.140E-06,0.080
-1.130E-06,0.060
-1.120E-06,0.180
-1.110E-06,0.180
-1.100E-06,0.160
-1.090E-06,0.180
-1.080E-06,0.200
-1.070E-06,0.260
-1.060E-06,0.280
-1.050E-06,0.260
-1.040E-06,0.240
-1.030E-06,0.220
-1.020E-06,0.240
-1.010E-06,0.240
-1.000E-06,0.320
-9.900E-07,0.260
-9.800E-07,0.220
-9.700E-07,0.180
-9.600E-07,0.240
-9.500E-07,0.320
-9.400E-07,0.320
-9.300E-07,0.220
-9.200E-07,0.080
-9.100E-07,0.020
-9.000E-07,0.080
-8.900E-07,0.060
-8.800E-07,0.360
-8.700E-07,0.280
-8.600E-07,0.500
-8.500E-07,0.700
-8.400E-07,0.500
-8.300E-07,0.740
-8.200E-07,0.400
-8.100E-07,0.400
-8.000E-07,0.580
-7.900E-07,0.320
-7.800E-07,0.360
-7.700E-07,0.540
-7.600E-07,0.380
-7.500E-07,0.540
-7.400E-07,0.400
-7.300E-07,0.260
-7.200E-07,0.500
-7.100E-07,0.400
-7.000E-07,0.480
-6.900E-07,0.460
-6.800E-07,0.280
-6.700E-07,0.100
-6.600E-07,0.140
-6.500E-07,0.080
-6.400E-07,0.200
-6.300E-07,0.180
-6.200E-07,0.120
-6.100E-07,0.160
-6.000E-07,0.020
-5.900E-07,0.100
-5.800E-07,0.180
-5.700E-07,0.100
-5.600E-07,0.180
-5.500E-07,0.180
-5.400E-07,0.360
-5.300E-07,0.360
-5.200E-07,0.380
-5.100E-07,0.460
-5.000E-07,0.280
-4.900E-07,0.600
-4.800E-07,0.340
-4.700E-07,0.420
-4.600E-07,0.460
-4.500E-07,0.080
-4.400E-07,0.440
-4.300E-07,-0.140
-4.200E-07,0.000
-4.100E-07,0.060
-4.000E-07,0.140
-3.900E-07,0.440
-3.800E-07,0.480
-3.700E-07,0.380
-3.600E-07,0.580
-3.500E-07,0.380
-3.400E-07,0.380
-3.300E-07,0.380
-3.200E-07,0.200
-3.100E-07,0.340
-3.000E-07,0.340
-2.900E-07,0.300
-2.800E-07,0.300
-2.700E-07,0.220
-2.600E-07,0.240
-2.500E-07,0.180
-2.400E-07,0.160
-2.300E-07,0.060
-2.200E-07,0.040
-2.100E-07,0.020
-2.000E-07,-0.020
-1.900E-07,0.040
-1.800E-07,0.100
-1.700E-07,0.060
-1.600E-07,0.040
-1.500E-07,0.240
-1.400E-07,0.140
-1.300E-07,0.040
-1.200E-07,0.000
-1.100E-07,0.300
-1.000E-07,1.200
-9.000E-08,1.020
-8.000E-08,0.820
-7.000E-08,1.020
-6.000E-08,0.760
-5.000E-08,0.740
-4.000E-08,1.000
-3.000E-08,1.020
-2.000E-08,0.780
-1.000E-08,1.120
0.000E+00,0.540
1.000E-08,0.480
2.000E-08,0.540
3.000E-08,0.100
4.000E-08,0.320
5.000E-08,0.200
6.000E-08,0.100
7.000E-08,0.240
8.000E-08,0.140
9.000E-08,0.100
1.000E-07,0.100
1.100E-07,0.120
1.200E-07,-0.080
1.300E-07,0.040
1.400E-07,0.000
1.500E-07,0.100
1.600E-07,0.200
1.700E-07,0.140
1.800E-07,0.220
1.900E-07,0.160
2.000E-07,0.260
2.100E-07,0.380
2.200E-07,0.600
2.300E-07,0.920
2.400E-07,1.020
2.500E-07,1.480
2.600E-07,1.520
2.700E-07,0.920
2.800E-07,1.460
2.900E-07,1.400
3.000E-07,1.160
3.100E-07,1.400
3.200E-07,1.320
3.300E-07,1.160
3.400E-07,0.980
3.500E-07,0.720
3.600E-07,0.320
3.700E-07,0.240
3.800E-07,-0.160
3.900E-07,-0.100
4.000E-07,0.160
4.100E-07,0.100
4.200E-07,0.380
4.300E-07,0.280
4.400E-07,0.160
4.500E-07,0.020
4.600E-07,0.220
4.700E-07,0.340
4.800E-07,0.560
4.900E-07,0.840
5.000E-07,0.840
5.100E-07,0.880
5.200E-07,0.760
5.300E-07,0.480
5.400E-07,0.440
5.500E-07,0.240
5.600E-07,0.100
5.700E-07,0.040
5.800E-07,-0.040
5.900E-07,0.020
6.000E-07,-0.060
6.100E-07,-0.040
6.200E-07,-0.040
6.300E-07,0.040
6.400E-07,0.000
6.500E-07,-0.020
6.600E-07,-0.020
6.700E-07,-0.160
6.800E-07,-0.420
6.900E-07,-0.860
7.000E-07,-1.460
7.100E-07,-2.380
7.200E-07,-2.660
7.300E-07,-2.660
7.400E-07,-2.660
7.500E-07,-2.660
7.600E-07,-2.660
7.700E-07,-2.660
7.800E-07,-2.660
7.900E-07,-2.660
8.000E-07,-2.660
8.100E-07,-2.640
8.200E-07,-2.640
8.300E-07,-2.660
8.400E-07,-2.660
8.500E-07,-2.660
8.600E-07,-2.640
8.700E-07,-2.660
8.800E-07,-2.660
8.900E-07,-2.660
9.000E-07,-2.640
9.100E-07,-2.660
9.200E-07,-2.660
9.300E-07,-2.680
9.400E-07,-2.380
9.500E-07,-1.900
9.600E-07,-1.420
9.700E-07,-1.000
9.800E-07,-0.660
9.900E-07,-0.360
1.000E-06,-0.120
1.010E-06,0.080
1.020E-06,0.180
1.030E-06,0.260
1.040E-06,0.300
1.050E-06,0.240
1.060E-06,0.200
1.070E-06,0.140
1.080E-06,0.040
1.090E-06,-0.020
1.100E-06,-0.180
1.110E-06,-0.220
1.120E-06,-0.360
1.130E-06,-0.480
1.140E-06,-0.640
1.150E-06,-0.780
1.160E-06,-0.900
1.170E-06,-1.000
1.180E-06,-1.140
1.190E-06,-1.180
1.200E-06,-1.240
1.210E-06,-1.300
1.220E-06,-1.320
1.230E-06,-1.300
1.240E-06,-1.200
1.250E-06,-1.040
1.260E-06,-0.980
1.270E-06,-0.920
1.280E-06,-0.860
1.290E-06,-0.680
1.300E-06,-0.540
1.310E-06,-0.400
1.320E-06,-0.300
1.330E-06,-0.200
1.340E-06,-0.100
1.350E-06,-0.020
1.360E-06,0.100
1.370E-06,0.220
1.380E-06,0.240
1.390E-06,0.320
1.400E-06,0.360
1.410E-06,0.320
1.420E-06,0.300
1.430E-06,0.280
1.440E-06,0.260
1.450E-06,0.220
1.460E-06,0.180
1.470E-06,0.140
1.480E-06,0.080
1.490E-06,0.040
1.500E-06,0.020
1.510E-06,0.000
1.520E-06,0.000
1.530E-06,-0.040
1.540E-06,-0.060
1.550E-06,-0.100
1.560E-06,-0.080
1.570E-06,-0.080
1.580E-06,-0.080
1.590E-06,-0.080
1.600E-06,-0.100
1.610E-06,-0.040
1.620E-06,-0.020
1.630E-06,0.040
1.640E-06,0.080
1.650E-06,0.020
1.660E-06,0.000
1.670E-06,-0.020
1.680E-06,0.000
1.690E-06,-0.040
1.700E-06,-0.020
1.710E-06,0.000
1.720E-06,-0.020
1.730E-06,0.020
1.740E-06,0.060
1.750E-06,0.040
1.760E-06,0.080
1.770E-06,0.160
1.780E-06,0.200
1.790E-06,0.260
1.800E-06,0.320
1.810E-06,0.340
1.820E-06,0.300
1.830E-06,0.240
1.840E-06,0.180
1.850E-06,0.100
1.860E-06,0.080
1.870E-06,0.040
1.880E-06,-0.040
1.890E-06,-0.080
1.900E-06,-0.140
1.910E-06,-0.220
1.920E-06,-0.220
1.930E-06,-0.260
1.940E-06,-0.260
1.950E-06,-0.240
1.960E-06,-0.260
1.970E-06,-0.240
1.980E-06,-0.200
1.990E-06,-0.160
2.000E-06,-0.080
2.010E-06,0.000
2.020E-06,0.020
2.030E-06,0.060
2.040E-06,0.120
2.050E-06,0.160
2.060E-06,0.160
2.070E-06,0.160
2.080E-06,0.180
2.090E-06,0.200
2.100E-06,0.220
2.110E-06,0.180
2.120E-06,0.140
2.130E-06,0.080
2.140E-06,0.040
2.150E-06,0.020
2.160E-06,0.060
2.170E-06,0.060
2.180E-06,0.080
2.190E-06,0.120
2.200E-06,0.180
2.210E-06,0.200
2.220E-06,0.300
2.230E-06,0.400
2.240E-06,0.420
2.250E-06,0.520
2.260E-06,0.540
2.270E-06,0.540
2.280E-06,0.560
2.290E-06,0.620
2.300E-06,0.720
2.310E-06,0.800
2.320E-06,0.760
2.330E-06,0.700
2.340E-06,0.480
2.350E-06,0.320
2.360E-06,0.260
2.370E-06,0.100
2.380E-06,0.020
2.390E-06,-0.080
2.400E-06,-0.200
2.410E-06,-0.260
2.420E-06,-0.420
2.430E-06,-0.500
2.440E-06,-0.560
2.450E-06,-0.560
2.460E-06,-0.620
2.470E-06,-0.640
2.480E-06,-0.720
2.490E-06,-0.720
2.500E-06,-0.840
2.510E-06,-0.940
2.520E-06,-1.080
2.530E-06,-1.180
2.540E-06,-1.160
2.550E-06,-1.000
2.560E-06,-0.780
2.570E-06,-0.460
2.580E-06,-0.220
2.590E-06,-0.020
2.600E-06,0.080
2.610E-06,0.060
2.620E-06,0.080
2.630E-06,0.060
2.640E-06,0.040
2.650E-06,0.060
2.660E-06,0.000
2.670E-06,-0.020
2.680E-06,0.000
2.690E-06,-0.020
2.700E-06,-0.060
2.710E-06,-0.120
2.720E-06,-0.140
2.730E-06,-0.100
2.740E-06,-0.100
2.750E-06,-0.080
2.760E-06,0.000
2.770E-06,0.000
2.780E-06,0.020
2.790E-06,0.020
2.800E-06,0.000
2.810E-06,0.000
2.820E-06,0.060
2.830E-06,0.100
2.840E-06,0.140
2.850E-06,0.200
2.860E-06,0.180
2.870E-06,0.240
2.880E-06,0.240
2.890E-06,0.320
2.900E-06,0.340
2.910E-06,0.300
2.920E-06,0.300
2.930E-06,0.260
2.940E-06,0.320
2.950E-06,0.320
2.960E-06,0.240
2.970E-06,0.260
2.980E-06,0.400
2.990E-06,0.580
3.000E-06,0.760
3.010E-06,0.800
3.020E-06,0.800
3.030E-06,0.760
3.040E-06,0.740
3.050E-06,0.660
3.060E-06,0.600
3.070E-06,0.500
3.080E-06,0.480
3.090E-06,0.460
3.100E-06,0.440
3.110E-06,0.480
3.120E-06,0.420
3.130E-06,0.460
3.140E-06,0.420
3.150E-06,0.400
3.160E-06,0.340
3.170E-06,0.280
3.180E-06,0.220
3.190E-06,0.160
3.200E-06,0.080
3.210E-06,-0.020
3.220E-06,-0.120
3.230E-06,-0.300
3.240E-06,-0.440
3.250E-06,-0.640
3.260E-06,-0.800
3.270E-06,-0.940
3.280E-06,-1.020
3.290E-06,-1.020
3.300E-06,-0.940
3.310E-06,-0.860
3.320E-06,-0.740
3.330E-06,-0.620
3.340E-06,-0.520
3.350E-06,-0.360
3.360E-06,-0.320
3.370E-06,-0.280
3.380E-06,-0.240
3.390E-06,-0.180
3.400E-06,-0.080
3.410E-06,0.000
3.420E-06,0.040
3.430E-06,0.020
3.440E-06,0.040
3.450E-06,0.020
3.460E-06,0.040
3.470E-06,0.080
3.480E-06,0.140
3.490E-06,0.160
3.500E-06,0.240
3.510E-06,0.360
3.520E-06,0.360
3.530E-06,0.400
3.540E-06,0.400
3.550E-06,0.460
3.560E-06,0.520
3.570E-06,0.580
3.580E-06,0.620
3.590E-06,0.700
3.600E-06,0.740
3.610E-06,0.800
3.620E-06,0.860
3.630E-06,0.940
3.640E-06,1.000
3.650E-06,1.020
3.660E-06,1.080
3.670E-06,1.080
3.680E-06,1.060
3.690E-06,1.040
3.700E-06,0.980
3.710E-06,0.980
3.720E-06,0.960
3.730E-06,0.960
3.740E-06,0.960
3.750E-06,0.940
3.760E-06,0.920
3.770E-06,0.880
3.780E-06,0.800
3.790E-06,0.720
3.800E-06,0.620
3.810E-06,0.540
3.820E-06,0.420
3.830E-06,0.340
3.840E-06,0.260
3.850E-06,0.180
3.860E-06,0.100
3.870E-06,0.080
3.880E-06,0.020
3.890E-06,-0.020
3.900E-06,-0.020
3.910E-06,-0.060
3.920E-06,-0.080
3.930E-06,-0.100
3.940E-06,-0.040
3.950E-06,-0.020
3.960E-06,0.000
3.970E-06,0.020
3.980E-06,0.020
3.990E-06,0.080
4.000E-06,0.080
4.010E-06,0.080
4.020E-06,0.060
4.030E-06,-0.020
4.040E-06,-0.180
4.050E-06,-0.220
4.060E-06,-0.280
4.070E-06,-0.320
4.080E-06,-0.360
4.090E-06,-0.400
4.100E-06,-0.320
4.110E-06,-0.280
4.120E-06,-0.140
4.130E-06,-0.020
4.140E-06,0.060
4.150E-06,0.140
4.160E-06,0.220
4.170E-06,0.260
4.180E-06,0.360
4.190E-06,0.480
4.200E-06,0.520
4.210E-06,0.480
4.220E-06,0.380
4.230E-06,0.260
4.240E-06,0.120
4.250E-06,0.000
4.260E-06,-0.160
4.270E-06,-0.260
4.280E-06,-0.340
4.290E-06,-0.340
4.300E-06,-0.300
4.310E-06,-0.220
4.320E-06,0.000
4.330E-06,0.160
4.340E-06,0.380
4.350E-06,0.500
4.360E-06,0.680
4.370E-06,0.740
4.380E-06,0.840
4.390E-06,0.900
4.400E-06,0.880
4.410E-06,0.880
4.420E-06,0.840
4.430E-06,0.800
4.440E-06,0.760
4.450E-06,0.640
4.460E-06,0.560
4.470E-06,0.540
4.480E-06,0.520
4.490E-06,0.540
4.500E-06,0.600
4.510E-06,0.680
4.520E-06,0.760
4.530E-06,0.860
4.540E-06,0.960
4.550E-06,1.020
4.560E-06,1.000
4.570E-06,1.020
4.580E-06,1.040
4.590E-06,1.000
4.600E-06,1.020
4.610E-06,1.000
4.620E-06,0.920
4.630E-06,0.920
4.640E-06,0.840
4.650E-06,0.760
4.660E-06,0.640
4.670E-06,0.520
4.680E-06,0.420
4.690E-06,0.320
4.700E-06,0.300
4.710E-06,0.340
4.720E-06,0.360
4.730E-06,0.360
4.740E-06,0.460
4.750E-06,0.460
4.760E-06,0.480
4.770E-06,0.480
4.780E-06,0.500
4.790E-06,0.540
4.800E-06,0.520
4.810E-06,0.580
4.820E-06,0.600
4.830E-06,0.600
4.840E-06,0.620
4.850E-06,0.580
4.860E-06,0.520
4.870E-06,0.440
4.880E-06,0.360
4.890E-06,0.320
4.900E-06,0.280
4.910E-06,0.340
4.920E-06,0.380
4.930E-06,0.420
4.940E-06,0.480
4.950E-06,0.560
4.960E-06,0.560
4.970E-06,0.600
4.980E-06,0.600
4.990E-06,0.580
5.000E-06,0.640
5.010E-06,0.680
5.020E-06,0.820
5.030E-06,0.920
5.040E-06,1.000
5.050E-06,1.080
5.060E-06,1.140
5.070E-06,1.140
5.080E-06,1.160
5.090E-06,1.180
5.100E-06,1.200
5.110E-06,1.320
5.120E-06,1.540
5.130E-06,1.840
5.140E-06,2.160
5.150E-06,2.560
5.160E-06,2.760
5.170E-06,2.760
5.180E-06,2.740
5.190E-06,2.760
5.200E-06,2.760
5.210E-06,2.780
5.220E-06,2.760
5.230E-06,2.760
5.240E-06,2.740
5.250E-06,2.760
5.260E-06,2.780
5.270E-06,2.760
5.280E-06,2.760
5.290E-06,2.740
5.300E-06,2.760
5.310E-06,2.760
5.320E-06,2.760
5.330E-06,2.580
5.340E-06,2.320
5.350E-06,2.040
5.360E-06,1.800
5.370E-06,1.560
5.380E-06,1.300
5.390E-06,1.120
5.400E-06,1.020
5.410E-06,0.880
5.420E-06,0.840
5.430E-06,0.800
5.440E-06,0.800
5.450E-06,0.760
5.460E-06,0.780
5.470E-06,0.820
5.480E-06,0.820
5.490E-06,0.860
5.500E-06,0.900
5.510E-06,0.880
5.520E-06,0.880
5.530E-06,0.900
5.540E-06,0.920
5.550E-06,0.960
5.560E-06,0.980
5.570E-06,1.020
5.580E-06,1.040
5.590E-06,1.040
5.600E-06,1.000
5.610E-06,1.000
5.620E-06,1.020
5.630E-06,0.960
5.640E-06,0.940
5.650E-06,0.880
5.660E-06,0.800
5.670E-06,0.740
5.680E-06,0.660
5.690E-06,0.660
5.700E-06,0.680
5.710E-06,0.660
5.720E-06,0.660
5.730E-06,0.640
5.740E-06,0.680
5.750E-06,0.660
5.760E-06,0.660
5.770E-06,0.640
5.780E-06,0.620
5.790E-06,0.640
5.800E-06,0.660
5.810E-06,0.660
5.820E-06,0.680
5.830E-06,0.740
5.840E-06,0.740
5.850E-06,0.740
5.860E-06,0.780
5.870E-06,0.760
5.880E-06,0.760
5.890E-06,0.780
5.900E-06,0.740
5.910E-06,0.740
5.920E-06,0.700
5.930E-06,0.660
5.940E-06,0.640
5.950E-06,0.600
5.960E-06,0.560
5.970E-06,0.520
5.980E-06,0.520
5.990E-06,0.480
6.000E-06,0.360
6.010E-06,0.340
6.020E-06,0.260
6.030E-06,0.220
6.040E-06,0.220
6.050E-06,0.220
6.060E-06,0.200
6.070E-06,0.220
6.080E-06,0.280
6.090E-06,0.300
6.100E-06,0.320
6.110E-06,0.340
6.120E-06,0.360
6.130E-06,0.400
6.140E-06,0.380
6.150E-06,0.380
6.160E-06,0.420
6.170E-06,0.380
6.180E-06,0.340
6.190E-06,0.340
6.200E-06,0.340
6.210E-06,0.260
6.220E-06,0.260
6.230E-06,0.260
6.240E-06,0.280
6.250E-06,0.280
6.260E-06,0.340
6.270E-06,0.380
6.280E-06,0.420
6.290E-06,0.460
6.300E-06,0.520
6.310E-06,0.520
6.320E-06,0.520
6.330E-06,0.540
6.340E-06,0.560
6.350E-06,0.540
6.360E-06,0.540
6.370E-06,0.560
6.380E-06,0.560
6.390E-06,0.560
6.400E-06,0.600
6.410E-06,0.580
6.420E-06,0.600
6.430E-06,0.600
6.440E-06,0.640
6.450E-06,0.640
6.460E-06,0.640
6.470E-06,0.640
6.480E-06,0.580
6.490E-06,0.580
6.500E-06,0.580
6.510E-06,0.540
6.520E-06,0.520
6.530E-06,0.540
6.540E-06,0.520
6.550E-06,0.540
6.560E-06,0.560
6.570E-06,0.560
6.580E-06,0.500
6.590E-06,0.520
6.600E-06,0.500
6.610E-06,0.480
6.620E-06,0.480
6.630E-06,0.500
6.640E-06,0.500
6.650E-06,0.480
6.660E-06,0.480
6.670E-06,0.520
6.680E-06,0.520
6.690E-06,0.500
6.700E-06,0.500
6.710E-06,0.460
6.720E-06,0.460
6.730E-06,0.460
6.740E-06,0.480
6.750E-06,0.480
6.760E-06,0.480
6.770E-06,0.520
6.780E-06,0.500
6.790E-06,0.500
6.800E-06,0.500
6.810E-06,0.520
6.820E-06,0.500
6.830E-06,0.500
6.840E-06,0.540
6.850E-06,0.520
6.860E-06,0.560
6.870E-06,0.560
6.880E-06,0.540
6.890E-06,0.540
6.900E-06,0.580
6.910E-06,0.580
6.920E-06,0.560
6.930E-06,0.580
6.940E-06,0.600
6.950E-06,0.600
6.960E-06,0.620
6.970E-06,0.600
6.980E-06,0.640
6.990E-06,0.660
7.000E-06,0.640
7.010E-06,0.620
7.020E-06,0.620
7.030E-06,0.640
7.040E-06,0.640
7.050E-06,0.640
7.060E-06,0.640
7.070E-06,0.660
7.080E-06,0.660
7.090E-06,0.660
7.100E-06,0.660
7.110E-06,0.660
7.120E-06,0.680
7.130E-06,0.700
7.140E-06,0.720
7.150E-06,0.700
7.160E-06,0.740
7.170E-06,0.720
7.180E-06,0.700
7.190E-06,0.720
7.200E-06,0.660
7.210E-06,0.660
7.220E-06,0.680
7.230E-06,0.680
7.240E-06,0.680
7.250E-06,0.720
7.260E-06,0.680
7.270E-06,0.720
7.280E-06,0.700
7.290E-06,0.660
7.300E-06,0.700
7.310E-06,0.680
7.320E-06,0.720
7.330E-06,0.680
7.340E-06,0.700
7.350E-06,0.680
7.360E-06,0.680
7.370E-06,0.680
7.380E-06,0.660
7.390E-06,0.660
7.400E-06,0.680
7.410E-06,0.720
7.420E-06,0.700
7.430E-06,0.720
7.440E-06,0.720
7.450E-06,0.700
7.460E-06,0.740
7.470E-06,0.760
7.480E-06,0.740
7.490E-06,0.760
7.500E-06,0.780
7.510E-06,0.760
7.520E-06,0.780
7.530E-06,0.780
7.540E-06,0.760
7.550E-06,0.780
7.560E-06,0.780
7.570E-06,0.760
7.580E-06,0.760
7.590E-06,0.740
7.600E-06,0.740
7.610E-06,0.720
7.620E-06,0.740
7.630E-06,0.700
7.640E-06,0.680
7.650E-06,0.660
7.660E-06,0.660
7.670E-06,0.660
7.680E-06,0.660
7.690E-06,0.600
7.700E-06,0.620
7.710E-06,0.640
7.720E-06,0.620
7.730E-06,0.640
7.740E-06,0.620
7.750E-06,0.620
7.760E-06,0.600
7.770E-06,0.640
7.780E-06,0.620
7.790E-06,0.600
7.800E-06,0.620
7.810E-06,0.640
7.820E-06,0.660
