mediciones/Mediciones filtradas (saque las feas)/5-27/-57.5/WaveData50316.csv

#timebase=2000000(ps)
,#voltbase=1000000(mv/100)
#size=4000
-5.650E-06,0.040
-5.640E-06,0.040
-5.630E-06,0.040
-5.620E-06,0.040
-5.610E-06,0.040
-5.600E-06,0.040
-5.590E-06,0.040
-5.580E-06,0.000
-5.570E-06,0.040
-5.560E-06,0.040
-5.550E-06,0.040
-5.540E-06,0.080
-5.530E-06,0.040
-5.520E-06,0.080
-5.510E-06,0.040
-5.500E-06,0.040
-5.490E-06,0.040
-5.480E-06,0.040
-5.470E-06,0.040
-5.460E-06,0.080
-5.450E-06,0.040
-5.440E-06,0.080
-5.430E-06,0.080
-5.420E-06,0.000
-5.410E-06,0.040
-5.400E-06,0.080
-5.390E-06,0.040
-5.380E-06,0.040
-5.370E-06,0.120
-5.360E-06,0.080
-5.350E-06,0.120
-5.340E-06,0.000
-5.330E-06,0.040
-5.320E-06,0.080
-5.310E-06,0.000
-5.300E-06,0.000
-5.290E-06,0.080
-5.280E-06,0.000
-5.270E-06,0.040
-5.260E-06,0.040
-5.250E-06,0.040
-5.240E-06,0.040
-5.230E-06,0.040
-5.220E-06,0.000
-5.210E-06,0.000
-5.200E-06,0.040
-5.190E-06,0.040
-5.180E-06,0.040
-5.170E-06,0.040
-5.160E-06,0.080
-5.150E-06,0.120
-5.140E-06,0.080
-5.130E-06,0.000
-5.120E-06,0.080
-5.110E-06,0.080
-5.100E-06,0.080
-5.090E-06,0.040
-5.080E-06,0.000
-5.070E-06,0.040
-5.060E-06,0.080
-5.050E-06,0.120
-5.040E-06,0.120
-5.030E-06,0.080
-5.020E-06,0.080
-5.010E-06,0.080
-5.000E-06,0.000
-4.990E-06,0.080
-4.980E-06,0.040
-4.970E-06,0.040
-4.960E-06,0.040
-4.950E-06,0.000
-4.940E-06,0.000
-4.930E-06,0.080
-4.920E-06,0.040
-4.910E-06,0.080
-4.900E-06,0.040
-4.890E-06,0.040
-4.880E-06,0.040
-4.870E-06,-0.040
-4.860E-06,0.040
-4.850E-06,0.040
-4.840E-06,0.040
-4.830E-06,0.040
-4.820E-06,0.120
-4.810E-06,0.080
-4.800E-06,0.000
-4.790E-06,0.000
-4.780E-06,0.040
-4.770E-06,0.080
-4.760E-06,0.000
-4.750E-06,0.080
-4.740E-06,0.040
-4.730E-06,0.040
-4.720E-06,0.080
-4.710E-06,0.080
-4.700E-06,0.040
-4.690E-06,0.080
-4.680E-06,0.080
-4.670E-06,0.040
-4.660E-06,0.080
-4.650E-06,0.120
-4.640E-06,0.040
-4.630E-06,-0.040
-4.620E-06,0.160
-4.610E-06,0.000
-4.600E-06,0.000
-4.590E-06,0.080
-4.580E-06,0.040
-4.570E-06,0.120
-4.560E-06,-0.040
-4.550E-06,0.080
-4.540E-06,0.080
-4.530E-06,0.000
-4.520E-06,0.080
-4.510E-06,0.000
-4.500E-06,0.000
-4.490E-06,0.040
-4.480E-06,0.080
-4.470E-06,0.080
-4.460E-06,0.040
-4.450E-06,0.080
-4.440E-06,0.000
-4.430E-06,0.040
-4.420E-06,0.040
-4.410E-06,0.040
-4.400E-06,0.040
-4.390E-06,0.040
-4.380E-06,0.000
-4.370E-06,0.040
-4.360E-06,-0.040
-4.350E-06,-0.040
-4.340E-06,0.080
-4.330E-06,0.040
-4.320E-06,0.040
-4.310E-06,0.040
-4.300E-06,0.040
-4.290E-06,0.080
-4.280E-06,-0.040
-4.270E-06,0.080
-4.260E-06,0.000
-4.250E-06,0.000
-4.240E-06,0.120
-4.230E-06,-0.040
-4.220E-06,0.000
-4.210E-06,0.000
-4.200E-06,0.040
-4.190E-06,0.040
-4.180E-06,0.000
-4.170E-06,0.040
-4.160E-06,0.000
-4.150E-06,0.080
-4.140E-06,0.000
-4.130E-06,0.040
-4.120E-06,0.080
-4.110E-06,0.040
-4.100E-06,0.080
-4.090E-06,0.000
-4.080E-06,0.080
-4.070E-06,0.040
-4.060E-06,0.080
-4.050E-06,0.160
-4.040E-06,0.120
-4.030E-06,0.040
-4.020E-06,0.040
-4.010E-06,0.080
-4.000E-06,0.040
-3.990E-06,0.080
-3.980E-06,0.040
-3.970E-06,0.080
-3.960E-06,0.120
-3.950E-06,0.080
-3.940E-06,0.080
-3.930E-06,0.080
-3.920E-06,0.040
-3.910E-06,0.080
-3.900E-06,0.040
-3.890E-06,0.080
-3.880E-06,0.000
-3.870E-06,0.000
-3.860E-06,-0.120
-3.850E-06,-0.320
-3.840E-06,-0.440
-3.830E-06,-1.000
-3.820E-06,-1.480
-3.810E-06,-1.880
-3.800E-06,-2.200
-3.790E-06,-2.280
-3.780E-06,-2.040
-3.770E-06,-1.480
-3.760E-06,-1.000
-3.750E-06,-0.400
-3.740E-06,0.120
-3.730E-06,0.480
-3.720E-06,0.880
-3.710E-06,1.200
-3.700E-06,1.600
-3.690E-06,1.840
-3.680E-06,2.000
-3.670E-06,2.200
-3.660E-06,2.160
-3.650E-06,2.240
-3.640E-06,2.040
-3.630E-06,1.880
-3.620E-06,1.560
-3.610E-06,1.280
-3.600E-06,1.240
-3.590E-06,0.840
-3.580E-06,0.760
-3.570E-06,0.400
-3.560E-06,-0.080
-3.550E-06,-0.360
-3.540E-06,-0.800
-3.530E-06,-0.960
-3.520E-06,-1.040
-3.510E-06,-0.960
-3.500E-06,-1.080
-3.490E-06,-1.080
-3.480E-06,-1.120
-3.470E-06,-1.120
-3.460E-06,-0.880
-3.450E-06,-0.720
-3.440E-06,-0.560
-3.430E-06,-0.400
-3.420E-06,-0.280
-3.410E-06,-0.120
-3.400E-06,0.120
-3.390E-06,0.200
-3.380E-06,0.200
-3.370E-06,0.240
-3.360E-06,0.240
-3.350E-06,0.160
-3.340E-06,0.120
-3.330E-06,0.120
-3.320E-06,0.080
-3.310E-06,-0.040
-3.300E-06,-0.120
-3.290E-06,-0.240
-3.280E-06,-0.360
-3.270E-06,-0.400
-3.260E-06,-0.360
-3.250E-06,-0.320
-3.240E-06,-0.240
-3.230E-06,-0.160
-3.220E-06,-0.080
-3.210E-06,0.000
-3.200E-06,0.040
-3.190E-06,0.120
-3.180E-06,0.360
-3.170E-06,0.440
-3.160E-06,0.600
-3.150E-06,0.720
-3.140E-06,0.800
-3.130E-06,0.880
-3.120E-06,0.920
-3.110E-06,0.920
-3.100E-06,0.880
-3.090E-06,0.880
-3.080E-06,0.800
-3.070E-06,0.680
-3.060E-06,0.600
-3.050E-06,0.480
-3.040E-06,0.320
-3.030E-06,0.120
-3.020E-06,0.040
-3.010E-06,-0.080
-3.000E-06,-0.240
-2.990E-06,-0.280
-2.980E-06,-0.280
-2.970E-06,-0.320
-2.960E-06,-0.320
-2.950E-06,-0.360
-2.940E-06,-0.360
-2.930E-06,-0.240
-2.920E-06,-0.160
-2.910E-06,-0.080
-2.900E-06,0.000
-2.890E-06,0.080
-2.880E-06,0.160
-2.870E-06,0.240
-2.860E-06,0.360
-2.850E-06,0.400
-2.840E-06,0.440
-2.830E-06,0.480
-2.820E-06,0.480
-2.810E-06,0.440
-2.800E-06,0.440
-2.790E-06,0.520
-2.780E-06,0.560
-2.770E-06,0.800
-2.760E-06,1.240
-2.750E-06,1.880
-2.740E-06,2.520
-2.730E-06,3.080
-2.720E-06,2.800
-2.710E-06,2.200
-2.700E-06,1.040
-2.690E-06,-0.160
-2.680E-06,-1.080
-2.670E-06,-1.600
-2.660E-06,-1.760
-2.650E-06,-2.080
-2.640E-06,-2.320
-2.630E-06,-2.600
-2.620E-06,-2.760
-2.610E-06,-2.640
-2.600E-06,-2.200
-2.590E-06,-1.720
-2.580E-06,-1.360
-2.570E-06,-1.360
-2.560E-06,-1.320
-2.550E-06,-1.280
-2.540E-06,-1.120
-2.530E-06,-0.680
-2.520E-06,-0.280
-2.510E-06,0.080
-2.500E-06,0.440
-2.490E-06,0.760
-2.480E-06,1.000
-2.470E-06,1.280
-2.460E-06,1.520
-2.450E-06,1.640
-2.440E-06,1.560
-2.430E-06,1.320
-2.420E-06,1.120
-2.410E-06,0.920
-2.400E-06,0.800
-2.390E-06,0.680
-2.380E-06,0.560
-2.370E-06,0.320
-2.360E-06,0.080
-2.350E-06,-0.040
-2.340E-06,-0.200
-2.330E-06,-0.200
-2.320E-06,-0.160
-2.310E-06,-0.040
-2.300E-06,-0.080
-2.290E-06,-0.160
-2.280E-06,-0.240
-2.270E-06,-0.360
-2.260E-06,-0.240
-2.250E-06,-0.120
-2.240E-06,0.000
-2.230E-06,0.160
-2.220E-06,0.280
-2.210E-06,0.360
-2.200E-06,0.400
-2.190E-06,0.440
-2.180E-06,0.360
-2.170E-06,0.320
-2.160E-06,0.120
-2.150E-06,-0.040
-2.140E-06,-0.080
-2.130E-06,-0.200
-2.120E-06,-0.320
-2.110E-06,-0.480
-2.100E-06,-0.520
-2.090E-06,-0.680
-2.080E-06,-0.680
-2.070E-06,-0.720
-2.060E-06,-0.680
-2.050E-06,-0.640
-2.040E-06,-0.640
-2.030E-06,-0.640
-2.020E-06,-0.600
-2.010E-06,-0.520
-2.000E-06,-0.400
-1.990E-06,-0.240
-1.980E-06,-0.040
-1.970E-06,-0.040
-1.960E-06,0.120
-1.950E-06,0.240
-1.940E-06,0.240
-1.930E-06,0.280
-1.920E-06,0.360
-1.910E-06,0.320
-1.900E-06,0.240
-1.890E-06,0.160
-1.880E-06,0.080
-1.870E-06,0.040
-1.860E-06,0.000
-1.850E-06,-0.040
-1.840E-06,-0.040
-1.830E-06,-0.120
-1.820E-06,-0.080
-1.810E-06,-0.160
-1.800E-06,-0.240
-1.790E-06,-0.320
-1.780E-06,-0.320
-1.770E-06,-0.360
-1.760E-06,-0.320
-1.750E-06,-0.360
-1.740E-06,-0.320
-1.730E-06,-0.320
-1.720E-06,-0.240
-1.710E-06,-0.200
-1.700E-06,-0.080
-1.690E-06,0.040
-1.680E-06,0.040
-1.670E-06,0.160
-1.660E-06,0.280
-1.650E-06,0.280
-1.640E-06,0.320
-1.630E-06,0.400
-1.620E-06,0.400
-1.610E-06,0.480
-1.600E-06,0.400
-1.590E-06,0.360
-1.580E-06,0.200
-1.570E-06,0.120
-1.560E-06,0.080
-1.550E-06,0.040
-1.540E-06,0.000
-1.530E-06,-0.040
-1.520E-06,-0.040
-1.510E-06,-0.160
-1.500E-06,-0.240
-1.490E-06,-0.200
-1.480E-06,-0.240
-1.470E-06,-0.280
-1.460E-06,-0.240
-1.450E-06,-0.320
-1.440E-06,-0.320
-1.430E-06,-0.320
-1.420E-06,-0.240
-1.410E-06,-0.240
-1.400E-06,-0.160
-1.390E-06,-0.080
-1.380E-06,-0.200
-1.370E-06,-0.160
-1.360E-06,-0.120
-1.350E-06,-0.120
-1.340E-06,-0.040
-1.330E-06,0.040
-1.320E-06,0.160
-1.310E-06,0.280
-1.300E-06,0.360
-1.290E-06,0.320
-1.280E-06,0.360
-1.270E-06,0.360
-1.260E-06,0.400
-1.250E-06,0.440
-1.240E-06,0.520
-1.230E-06,0.520
-1.220E-06,0.440
-1.210E-06,0.320
-1.200E-06,0.240
-1.190E-06,0.120
-1.180E-06,0.200
-1.170E-06,0.160
-1.160E-06,0.200
-1.150E-06,0.160
-1.140E-06,0.040
-1.130E-06,0.000
-1.120E-06,-0.040
-1.110E-06,-0.040
-1.100E-06,-0.040
-1.090E-06,0.000
-1.080E-06,0.000
-1.070E-06,0.000
-1.060E-06,0.000
-1.050E-06,0.040
-1.040E-06,0.040
-1.030E-06,0.120
-1.020E-06,0.160
-1.010E-06,0.160
-1.000E-06,0.200
-9.900E-07,0.160
-9.800E-07,0.240
-9.700E-07,0.320
-9.600E-07,0.360
-9.500E-07,0.320
-9.400E-07,0.360
-9.300E-07,0.360
-9.200E-07,0.360
-9.100E-07,0.360
-9.000E-07,0.400
-8.900E-07,0.400
-8.800E-07,0.400
-8.700E-07,0.400
-8.600E-07,0.400
-8.500E-07,0.360
-8.400E-07,0.400
-8.300E-07,0.400
-8.200E-07,0.440
-8.100E-07,0.440
-8.000E-07,0.440
-7.900E-07,0.440
-7.800E-07,0.480
-7.700E-07,0.480
-7.600E-07,0.480
-7.500E-07,0.480
-7.400E-07,0.480
-7.300E-07,0.480
-7.200E-07,0.360
-7.100E-07,0.480
-7.000E-07,0.360
-6.900E-07,0.240
-6.800E-07,0.360
-6.700E-07,0.240
-6.600E-07,0.120
-6.500E-07,0.160
-6.400E-07,0.120
-6.300E-07,-0.120
-6.200E-07,-0.200
-6.100E-07,0.080
-6.000E-07,0.000
-5.900E-07,0.440
-5.800E-07,0.520
-5.700E-07,0.320
-5.600E-07,0.320
-5.500E-07,-0.240
-5.400E-07,0.040
-5.300E-07,0.160
-5.200E-07,0.360
-5.100E-07,0.800
-5.000E-07,0.600
-4.900E-07,0.320
-4.800E-07,0.360
-4.700E-07,0.360
-4.600E-07,0.320
-4.500E-07,0.800
-4.400E-07,0.760
-4.300E-07,0.680
-4.200E-07,0.760
-4.100E-07,0.440
-4.000E-07,0.440
-3.900E-07,0.520
-3.800E-07,0.560
-3.700E-07,0.680
-3.600E-07,0.600
-3.500E-07,0.560
-3.400E-07,0.600
-3.300E-07,0.440
-3.200E-07,0.560
-3.100E-07,0.640
-3.000E-07,0.800
-2.900E-07,0.840
-2.800E-07,0.600
-2.700E-07,0.520
-2.600E-07,0.160
-2.500E-07,0.240
-2.400E-07,0.360
-2.300E-07,0.320
-2.200E-07,0.440
-2.100E-07,0.360
-2.000E-07,0.120
-1.900E-07,0.120
-1.800E-07,0.320
-1.700E-07,0.360
-1.600E-07,0.440
-1.500E-07,0.240
-1.400E-07,0.120
-1.300E-07,-0.080
-1.200E-07,0.160
-1.100E-07,0.400
-1.000E-07,0.320
-9.000E-08,0.480
-8.000E-08,0.200
-7.000E-08,-0.040
-6.000E-08,0.160
-5.000E-08,0.280
-4.000E-08,0.400
-3.000E-08,0.520
-2.000E-08,0.200
-1.000E-08,0.080
0.000E+00,0.160
1.000E-08,0.120
2.000E-08,1.200
3.000E-08,0.960
4.000E-08,1.000
5.000E-08,0.480
6.000E-08,-0.240
7.000E-08,-0.280
8.000E-08,-0.040
9.000E-08,0.760
1.000E-07,1.320
1.100E-07,1.120
1.200E-07,0.760
1.300E-07,0.120
1.400E-07,-0.120
1.500E-07,0.240
1.600E-07,0.640
1.700E-07,1.320
1.800E-07,1.440
1.900E-07,1.040
2.000E-07,0.480
2.100E-07,0.200
2.200E-07,0.120
2.300E-07,0.280
2.400E-07,0.600
2.500E-07,0.760
2.600E-07,0.680
2.700E-07,0.640
2.800E-07,0.520
2.900E-07,0.360
3.000E-07,0.280
3.100E-07,0.200
3.200E-07,0.200
3.300E-07,0.360
3.400E-07,0.360
3.500E-07,0.360
3.600E-07,0.480
3.700E-07,0.400
3.800E-07,0.200
3.900E-07,-0.320
4.000E-07,-1.360
4.100E-07,-1.560
4.200E-07,-1.440
4.300E-07,-0.280
4.400E-07,0.880
4.500E-07,1.720
4.600E-07,1.280
4.700E-07,0.040
4.800E-07,-0.760
4.900E-07,-0.880
5.000E-07,0.320
5.100E-07,1.600
5.200E-07,2.160
5.300E-07,2.040
5.400E-07,1.320
5.500E-07,0.560
5.600E-07,0.400
5.700E-07,0.720
5.800E-07,1.240
5.900E-07,1.560
6.000E-07,1.320
6.100E-07,0.920
6.200E-07,0.160
6.300E-07,-0.080
6.400E-07,-0.200
6.500E-07,-0.120
6.600E-07,0.320
6.700E-07,0.680
6.800E-07,0.880
6.900E-07,0.800
7.000E-07,0.360
7.100E-07,0.040
7.200E-07,0.000
7.300E-07,0.240
7.400E-07,0.680
7.500E-07,0.920
7.600E-07,1.120
7.700E-07,1.080
7.800E-07,0.920
7.900E-07,0.760
8.000E-07,0.720
8.100E-07,0.840
8.200E-07,1.040
8.300E-07,1.200
8.400E-07,1.280
8.500E-07,1.120
8.600E-07,0.840
8.700E-07,0.480
8.800E-07,0.400
8.900E-07,0.280
9.000E-07,0.160
9.100E-07,0.480
9.200E-07,0.320
9.300E-07,0.240
9.400E-07,0.280
9.500E-07,-0.080
9.600E-07,0.240
9.700E-07,-0.600
9.800E-07,0.200
9.900E-07,0.560
1.000E-06,0.000
1.010E-06,1.000
1.020E-06,0.360
1.030E-06,-0.400
1.040E-06,0.320
1.050E-06,0.360
1.060E-06,1.080
1.070E-06,2.000
1.080E-06,1.520
1.090E-06,1.000
1.100E-06,0.120
1.110E-06,0.000
1.120E-06,0.640
1.130E-06,1.320
1.140E-06,1.680
1.150E-06,1.440
1.160E-06,0.840
1.170E-06,0.560
1.180E-06,0.560
1.190E-06,0.840
1.200E-06,1.240
1.210E-06,1.080
1.220E-06,0.760
1.230E-06,0.520
1.240E-06,0.240
1.250E-06,0.400
1.260E-06,0.600
1.270E-06,0.600
1.280E-06,0.680
1.290E-06,0.560
1.300E-06,0.480
1.310E-06,0.480
1.320E-06,0.400
1.330E-06,0.440
1.340E-06,0.520
1.350E-06,0.400
1.360E-06,0.400
1.370E-06,0.400
1.380E-06,0.320
1.390E-06,0.320
1.400E-06,0.280
1.410E-06,0.120
1.420E-06,0.120
1.430E-06,0.080
1.440E-06,0.040
1.450E-06,0.160
1.460E-06,0.160
1.470E-06,0.080
1.480E-06,-0.040
1.490E-06,-0.040
1.500E-06,-0.160
1.510E-06,0.000
1.520E-06,0.000
1.530E-06,0.040
1.540E-06,0.080
1.550E-06,0.000
1.560E-06,0.000
1.570E-06,-0.120
1.580E-06,-0.080
1.590E-06,0.040
1.600E-06,0.000
1.610E-06,-0.080
1.620E-06,-0.280
1.630E-06,-0.440
1.640E-06,-0.440
1.650E-06,-0.440
1.660E-06,-0.400
1.670E-06,-0.360
1.680E-06,-0.440
1.690E-06,-0.520
1.700E-06,-0.520
1.710E-06,-0.640
1.720E-06,-0.640
1.730E-06,-0.600
1.740E-06,-0.520
1.750E-06,-0.440
1.760E-06,-0.440
1.770E-06,-0.320
1.780E-06,-0.280
1.790E-06,-0.360
1.800E-06,-0.320
1.810E-06,-0.280
1.820E-06,-0.360
1.830E-06,-0.280
1.840E-06,-0.200
1.850E-06,-0.280
1.860E-06,-0.360
1.870E-06,-0.400
1.880E-06,-0.560
1.890E-06,-0.680
1.900E-06,-0.760
1.910E-06,-0.800
1.920E-06,-0.800
1.930E-06,-0.760
1.940E-06,-0.760
1.950E-06,-0.760
1.960E-06,-0.840
1.970E-06,-0.840
1.980E-06,-0.880
1.990E-06,-0.880
2.000E-06,-0.920
2.010E-06,-1.000
2.020E-06,-1.080
2.030E-06,-1.240
2.040E-06,-1.360
2.050E-06,-1.480
2.060E-06,-1.640
2.070E-06,-1.720
2.080E-06,-1.840
2.090E-06,-2.000
2.100E-06,-2.080
2.110E-06,-2.160
2.120E-06,-2.280
2.130E-06,-2.320
2.140E-06,-2.440
2.150E-06,-2.440
2.160E-06,-2.480
2.170E-06,-2.440
2.180E-06,-2.320
2.190E-06,-2.360
2.200E-06,-2.240
2.210E-06,-2.200
2.220E-06,-2.200
2.230E-06,-2.080
2.240E-06,-2.000
2.250E-06,-2.000
2.260E-06,-1.960
2.270E-06,-1.920
2.280E-06,-1.920
2.290E-06,-2.040
2.300E-06,-2.080
2.310E-06,-2.160
2.320E-06,-2.240
2.330E-06,-2.360
2.340E-06,-2.400
2.350E-06,-2.480
2.360E-06,-2.480
2.370E-06,-2.640
2.380E-06,-2.640
2.390E-06,-2.680
2.400E-06,-2.720
2.410E-06,-2.760
2.420E-06,-2.800
2.430E-06,-2.840
2.440E-06,-2.920
2.450E-06,-2.920
2.460E-06,-2.840
2.470E-06,-2.920
2.480E-06,-2.840
2.490E-06,-2.760
2.500E-06,-2.760
2.510E-06,-2.760
2.520E-06,-2.760
2.530E-06,-2.720
2.540E-06,-2.680
2.550E-06,-2.640
2.560E-06,-2.560
2.570E-06,-2.520
2.580E-06,-2.400
2.590E-06,-2.360
2.600E-06,-2.240
2.610E-06,-2.200
2.620E-06,-2.160
2.630E-06,-2.080
2.640E-06,-2.000
2.650E-06,-1.960
2.660E-06,-1.840
2.670E-06,-1.840
2.680E-06,-1.840
2.690E-06,-1.880
2.700E-06,-1.800
2.710E-06,-1.800
2.720E-06,-1.840
2.730E-06,-1.800
2.740E-06,-1.840
2.750E-06,-1.840
2.760E-06,-1.880
2.770E-06,-1.880
2.780E-06,-1.920
2.790E-06,-1.920
2.800E-06,-1.960
2.810E-06,-1.920
2.820E-06,-1.960
2.830E-06,-1.880
2.840E-06,-1.840
2.850E-06,-1.880
2.860E-06,-1.880
2.870E-06,-1.880
2.880E-06,-1.760
2.890E-06,-1.760
2.900E-06,-1.680
2.910E-06,-1.680
2.920E-06,-1.640
2.930E-06,-1.560
2.940E-06,-1.480
2.950E-06,-1.440
2.960E-06,-1.440
2.970E-06,-1.360
2.980E-06,-1.360
2.990E-06,-1.360
3.000E-06,-1.320
3.010E-06,-1.320
3.020E-06,-1.320
3.030E-06,-1.360
3.040E-06,-1.400
3.050E-06,-1.360
3.060E-06,-1.320
3.070E-06,-1.400
3.080E-06,-1.400
3.090E-06,-1.440
3.100E-06,-1.440
3.110E-06,-1.480
3.120E-06,-1.520
3.130E-06,-1.520
3.140E-06,-1.520
3.150E-06,-1.560
3.160E-06,-1.560
3.170E-06,-1.600
3.180E-06,-1.720
3.190E-06,-1.720
3.200E-06,-1.760
3.210E-06,-1.800
3.220E-06,-1.840
3.230E-06,-1.800
3.240E-06,-1.840
3.250E-06,-1.880
3.260E-06,-1.920
3.270E-06,-1.960
3.280E-06,-1.880
3.290E-06,-1.920
3.300E-06,-1.920
3.310E-06,-1.920
3.320E-06,-1.880
3.330E-06,-1.880
3.340E-06,-1.880
3.350E-06,-1.840
3.360E-06,-1.880
3.370E-06,-1.840
3.380E-06,-1.800
3.390E-06,-1.840
3.400E-06,-1.840
3.410E-06,-1.840
3.420E-06,-1.840
3.430E-06,-1.840
3.440E-06,-1.800
3.450E-06,-1.760
3.460E-06,-1.760
3.470E-06,-1.720
3.480E-06,-1.720
3.490E-06,-1.680
3.500E-06,-1.640
3.510E-06,-1.600
3.520E-06,-1.480
3.530E-06,-1.480
3.540E-06,-1.440
3.550E-06,-1.320
3.560E-06,-1.320
3.570E-06,-1.160
3.580E-06,-1.160
3.590E-06,-1.160
3.600E-06,-1.200
3.610E-06,-1.160
3.620E-06,-1.160
3.630E-06,-1.120
3.640E-06,-1.080
3.650E-06,-1.120
3.660E-06,-1.000
3.670E-06,-1.040
3.680E-06,-1.120
3.690E-06,-1.160
3.700E-06,-1.240
3.710E-06,-1.360
3.720E-06,-1.520
3.730E-06,-1.600
3.740E-06,-1.720
3.750E-06,-1.800
3.760E-06,-1.920
3.770E-06,-2.000
3.780E-06,-2.120
3.790E-06,-2.160
3.800E-06,-2.200
3.810E-06,-2.200
3.820E-06,-2.280
3.830E-06,-2.320
3.840E-06,-2.280
3.850E-06,-2.280
3.860E-06,-2.240
3.870E-06,-2.200
3.880E-06,-2.160
3.890E-06,-2.200
3.900E-06,-2.160
3.910E-06,-2.160
3.920E-06,-2.160
3.930E-06,-2.080
3.940E-06,-2.000
3.950E-06,-2.000
3.960E-06,-2.040
3.970E-06,-1.960
3.980E-06,-1.960
3.990E-06,-1.880
4.000E-06,-1.800
4.010E-06,-1.840
4.020E-06,-1.800
4.030E-06,-1.760
4.040E-06,-1.680
4.050E-06,-1.680
4.060E-06,-1.680
4.070E-06,-1.600
4.080E-06,-1.560
4.090E-06,-1.640
4.100E-06,-1.640
4.110E-06,-1.680
4.120E-06,-1.640
4.130E-06,-1.640
4.140E-06,-1.640
4.150E-06,-1.640
4.160E-06,-1.680
4.170E-06,-1.680
4.180E-06,-1.720
4.190E-06,-1.840
4.200E-06,-1.880
4.210E-06,-2.000
4.220E-06,-1.960
4.230E-06,-2.040
4.240E-06,-2.120
4.250E-06,-2.080
4.260E-06,-2.080
4.270E-06,-2.080
4.280E-06,-2.040
4.290E-06,-1.960
4.300E-06,-1.920
4.310E-06,-1.920
4.320E-06,-1.840
4.330E-06,-1.800
4.340E-06,-1.720
4.350E-06,-1.680
4.360E-06,-1.640
4.370E-06,-1.600
4.380E-06,-1.520
4.390E-06,-1.560
4.400E-06,-1.560
4.410E-06,-1.600
4.420E-06,-1.640
4.430E-06,-1.720
4.440E-06,-1.800
4.450E-06,-1.880
4.460E-06,-1.960
4.470E-06,-1.920
4.480E-06,-2.000
4.490E-06,-2.040
4.500E-06,-2.000
4.510E-06,-2.040
4.520E-06,-2.040
4.530E-06,-2.080
4.540E-06,-2.040
4.550E-06,-2.080
4.560E-06,-2.160
4.570E-06,-2.160
4.580E-06,-2.160
4.590E-06,-2.160
4.600E-06,-2.160
4.610E-06,-2.160
4.620E-06,-2.200
4.630E-06,-2.160
4.640E-06,-2.120
4.650E-06,-2.080
4.660E-06,-2.040
4.670E-06,-2.000
4.680E-06,-1.960
4.690E-06,-1.880
4.700E-06,-1.880
4.710E-06,-1.840
4.720E-06,-1.800
4.730E-06,-1.720
4.740E-06,-1.720
4.750E-06,-1.680
4.760E-06,-1.680
4.770E-06,-1.640
4.780E-06,-1.560
4.790E-06,-1.480
4.800E-06,-1.480
4.810E-06,-1.360
4.820E-06,-1.320
4.830E-06,-1.320
4.840E-06,-1.280
4.850E-06,-1.360
4.860E-06,-1.320
4.870E-06,-1.240
4.880E-06,-1.320
4.890E-06,-1.240
4.900E-06,-1.240
4.910E-06,-1.200
4.920E-06,-1.160
4.930E-06,-1.200
4.940E-06,-1.240
4.950E-06,-1.280
4.960E-06,-1.280
4.970E-06,-1.240
4.980E-06,-1.240
4.990E-06,-1.280
5.000E-06,-1.320
5.010E-06,-1.320
5.020E-06,-1.400
5.030E-06,-1.440
5.040E-06,-1.480
5.050E-06,-1.520
5.060E-06,-1.640
5.070E-06,-1.680
5.080E-06,-1.800
5.090E-06,-1.880
5.100E-06,-1.920
5.110E-06,-2.000
5.120E-06,-2.080
5.130E-06,-2.160
5.140E-06,-2.120
5.150E-06,-2.120
5.160E-06,-2.080
5.170E-06,-2.040
5.180E-06,-2.000
5.190E-06,-1.960
5.200E-06,-1.960
5.210E-06,-1.840
5.220E-06,-1.840
5.230E-06,-1.800
5.240E-06,-1.840
5.250E-06,-1.800
5.260E-06,-1.800
5.270E-06,-1.840
5.280E-06,-1.760
5.290E-06,-1.760
5.300E-06,-1.800
5.310E-06,-1.840
5.320E-06,-1.760
5.330E-06,-1.800
5.340E-06,-1.840
5.350E-06,-1.800
5.360E-06,-1.880
5.370E-06,-1.840
5.380E-06,-1.880
5.390E-06,-1.880
5.400E-06,-1.880
5.410E-06,-1.880
5.420E-06,-1.920
5.430E-06,-1.920
5.440E-06,-1.920
5.450E-06,-1.920
5.460E-06,-1.800
5.470E-06,-1.800
5.480E-06,-1.800
5.490E-06,-1.720
5.500E-06,-1.680
5.510E-06,-1.640
5.520E-06,-1.600
5.530E-06,-1.520
5.540E-06,-1.440
5.550E-06,-1.400
5.560E-06,-1.400
5.570E-06,-1.400
5.580E-06,-1.440
5.590E-06,-1.360
5.600E-06,-1.440
5.610E-06,-1.400
5.620E-06,-1.360
5.630E-06,-1.400
5.640E-06,-1.360
5.650E-06,-1.320
5.660E-06,-1.320
5.670E-06,-1.240
5.680E-06,-1.200
5.690E-06,-1.160
5.700E-06,-1.120
5.710E-06,-1.120
5.720E-06,-1.040
5.730E-06,-0.960
5.740E-06,-1.000
5.750E-06,-1.000
5.760E-06,-1.000
5.770E-06,-1.040
5.780E-06,-1.040
5.790E-06,-1.120
5.800E-06,-1.080
5.810E-06,-1.120
5.820E-06,-1.200
5.830E-06,-1.200
5.840E-06,-1.240
5.850E-06,-1.320
5.860E-06,-1.360
5.870E-06,-1.360
5.880E-06,-1.400
5.890E-06,-1.480
5.900E-06,-1.520
5.910E-06,-1.560
5.920E-06,-1.640
5.930E-06,-1.680
5.940E-06,-1.680
5.950E-06,-1.640
5.960E-06,-1.720
5.970E-06,-1.720
5.980E-06,-1.760
5.990E-06,-1.760
6.000E-06,-1.840
6.010E-06,-1.760
6.020E-06,-1.800
6.030E-06,-1.840
6.040E-06,-1.800
6.050E-06,-1.840
6.060E-06,-1.840
