mediciones/Mediciones filtradas (saque las feas)/5-27/-57.5/WaveData50310.csv

#timebase=2000000(ps)
,#voltbase=1000000(mv/100)
#size=4000
-5.650E-06,0.200
-5.640E-06,-0.040
-5.630E-06,-0.120
-5.620E-06,-0.200
-5.610E-06,-0.080
-5.600E-06,0.000
-5.590E-06,-0.080
-5.580E-06,-0.160
-5.570E-06,-0.280
-5.560E-06,-0.360
-5.550E-06,-0.240
-5.540E-06,-0.120
-5.530E-06,-0.080
-5.520E-06,-0.160
-5.510E-06,-0.120
-5.500E-06,-0.120
-5.490E-06,-0.120
-5.480E-06,-0.040
-5.470E-06,0.040
-5.460E-06,0.080
-5.450E-06,0.080
-5.440E-06,0.040
-5.430E-06,0.080
-5.420E-06,0.160
-5.410E-06,0.200
-5.400E-06,0.200
-5.390E-06,0.280
-5.380E-06,0.320
-5.370E-06,0.200
-5.360E-06,0.360
-5.350E-06,0.160
-5.340E-06,0.120
-5.330E-06,0.520
-5.320E-06,0.360
-5.310E-06,0.400
-5.300E-06,0.560
-5.290E-06,0.080
-5.280E-06,-0.040
-5.270E-06,-0.120
-5.260E-06,0.000
-5.250E-06,0.520
-5.240E-06,0.560
-5.230E-06,0.560
-5.220E-06,0.240
-5.210E-06,-0.200
-5.200E-06,-0.320
-5.190E-06,-0.240
-5.180E-06,0.160
-5.170E-06,0.360
-5.160E-06,0.320
-5.150E-06,0.120
-5.140E-06,-0.160
-5.130E-06,-0.400
-5.120E-06,-0.360
-5.110E-06,-0.240
-5.100E-06,-0.120
-5.090E-06,-0.160
-5.080E-06,-0.160
-5.070E-06,-0.240
-5.060E-06,-0.200
-5.050E-06,-0.080
-5.040E-06,0.040
-5.030E-06,-0.040
-5.020E-06,-0.080
-5.010E-06,-0.160
-5.000E-06,-0.080
-4.990E-06,-0.040
-4.980E-06,0.080
-4.970E-06,0.200
-4.960E-06,0.200
-4.950E-06,0.160
-4.940E-06,0.000
-4.930E-06,0.000
-4.920E-06,0.160
-4.910E-06,0.320
-4.900E-06,0.480
-4.890E-06,0.360
-4.880E-06,0.200
-4.870E-06,0.000
-4.860E-06,0.000
-4.850E-06,0.200
-4.840E-06,0.680
-4.830E-06,0.760
-4.820E-06,0.640
-4.810E-06,0.400
-4.800E-06,0.120
-4.790E-06,0.000
-4.780E-06,0.160
-4.770E-06,0.440
-4.760E-06,0.640
-4.750E-06,0.480
-4.740E-06,0.280
-4.730E-06,0.040
-4.720E-06,-0.120
-4.710E-06,-0.080
-4.700E-06,0.040
-4.690E-06,0.080
-4.680E-06,0.000
-4.670E-06,-0.120
-4.660E-06,-0.240
-4.650E-06,-0.240
-4.640E-06,-0.160
-4.630E-06,-0.080
-4.620E-06,-0.080
-4.610E-06,-0.120
-4.600E-06,-0.240
-4.590E-06,-0.200
-4.580E-06,-0.200
-4.570E-06,-0.040
-4.560E-06,0.040
-4.550E-06,0.040
-4.540E-06,0.000
-4.530E-06,-0.080
-4.520E-06,-0.040
-4.510E-06,-0.040
-4.500E-06,0.120
-4.490E-06,0.160
-4.480E-06,0.240
-4.470E-06,0.200
-4.460E-06,0.160
-4.450E-06,0.120
-4.440E-06,0.160
-4.430E-06,0.200
-4.420E-06,0.240
-4.410E-06,0.240
-4.400E-06,0.160
-4.390E-06,0.120
-4.380E-06,0.080
-4.370E-06,0.160
-4.360E-06,0.200
-4.350E-06,0.080
-4.340E-06,0.040
-4.330E-06,0.040
-4.320E-06,0.040
-4.310E-06,-0.040
-4.300E-06,0.080
-4.290E-06,0.080
-4.280E-06,0.040
-4.270E-06,0.040
-4.260E-06,0.000
-4.250E-06,-0.040
-4.240E-06,0.000
-4.230E-06,0.040
-4.220E-06,0.200
-4.210E-06,0.120
-4.200E-06,-0.120
-4.190E-06,-0.040
-4.180E-06,-0.040
-4.170E-06,0.080
-4.160E-06,0.320
-4.150E-06,0.440
-4.140E-06,0.400
-4.130E-06,0.200
-4.120E-06,0.040
-4.110E-06,-0.040
-4.100E-06,0.000
-4.090E-06,0.280
-4.080E-06,0.320
-4.070E-06,0.320
-4.060E-06,0.120
-4.050E-06,-0.080
-4.040E-06,-0.160
-4.030E-06,-0.080
-4.020E-06,0.000
-4.010E-06,0.040
-4.000E-06,-0.040
-3.990E-06,-0.080
-3.980E-06,-0.160
-3.970E-06,-0.160
-3.960E-06,-0.160
-3.950E-06,-0.080
-3.940E-06,-0.160
-3.930E-06,-0.120
-3.920E-06,-0.200
-3.910E-06,-0.240
-3.900E-06,-0.160
-3.890E-06,-0.160
-3.880E-06,-0.080
-3.870E-06,0.000
-3.860E-06,-0.040
-3.850E-06,-0.040
-3.840E-06,-0.080
-3.830E-06,-0.080
-3.820E-06,0.040
-3.810E-06,0.080
-3.800E-06,0.120
-3.790E-06,0.120
-3.780E-06,0.040
-3.770E-06,0.080
-3.760E-06,0.080
-3.750E-06,0.080
-3.740E-06,0.120
-3.730E-06,0.040
-3.720E-06,0.080
-3.710E-06,0.120
-3.700E-06,0.160
-3.690E-06,0.160
-3.680E-06,0.200
-3.670E-06,0.200
-3.660E-06,0.160
-3.650E-06,0.040
-3.640E-06,0.080
-3.630E-06,0.080
-3.620E-06,0.080
-3.610E-06,0.080
-3.600E-06,0.080
-3.590E-06,0.040
-3.580E-06,0.000
-3.570E-06,-0.080
-3.560E-06,0.000
-3.550E-06,0.000
-3.540E-06,0.000
-3.530E-06,0.000
-3.520E-06,-0.040
-3.510E-06,-0.080
-3.500E-06,-0.080
-3.490E-06,-0.040
-3.480E-06,0.040
-3.470E-06,0.040
-3.460E-06,0.040
-3.450E-06,0.000
-3.440E-06,-0.080
-3.430E-06,-0.080
-3.420E-06,-0.080
-3.410E-06,-0.080
-3.400E-06,0.040
-3.390E-06,0.000
-3.380E-06,0.000
-3.370E-06,-0.080
-3.360E-06,-0.120
-3.350E-06,-0.080
-3.340E-06,-0.040
-3.330E-06,-0.040
-3.320E-06,0.000
-3.310E-06,0.040
-3.300E-06,0.080
-3.290E-06,0.160
-3.280E-06,0.160
-3.270E-06,0.160
-3.260E-06,0.160
-3.250E-06,0.160
-3.240E-06,0.240
-3.230E-06,0.200
-3.220E-06,0.160
-3.210E-06,0.200
-3.200E-06,0.080
-3.190E-06,0.080
-3.180E-06,0.040
-3.170E-06,0.080
-3.160E-06,0.120
-3.150E-06,0.160
-3.140E-06,0.200
-3.130E-06,0.160
-3.120E-06,0.080
-3.110E-06,0.080
-3.100E-06,0.080
-3.090E-06,0.160
-3.080E-06,0.160
-3.070E-06,0.160
-3.060E-06,0.120
-3.050E-06,0.080
-3.040E-06,0.080
-3.030E-06,0.040
-3.020E-06,0.040
-3.010E-06,0.080
-3.000E-06,0.120
-2.990E-06,0.120
-2.980E-06,0.160
-2.970E-06,0.160
-2.960E-06,0.080
-2.950E-06,0.160
-2.940E-06,0.120
-2.930E-06,0.120
-2.920E-06,0.160
-2.910E-06,0.160
-2.900E-06,0.160
-2.890E-06,0.120
-2.880E-06,0.120
-2.870E-06,0.160
-2.860E-06,0.200
-2.850E-06,0.200
-2.840E-06,0.240
-2.830E-06,0.200
-2.820E-06,0.240
-2.810E-06,0.200
-2.800E-06,0.120
-2.790E-06,0.200
-2.780E-06,0.200
-2.770E-06,0.280
-2.760E-06,0.280
-2.750E-06,0.320
-2.740E-06,0.360
-2.730E-06,0.240
-2.720E-06,0.160
-2.710E-06,0.160
-2.700E-06,0.080
-2.690E-06,0.120
-2.680E-06,0.240
-2.670E-06,0.240
-2.660E-06,0.320
-2.650E-06,0.320
-2.640E-06,0.320
-2.630E-06,0.360
-2.620E-06,0.360
-2.610E-06,0.320
-2.600E-06,0.360
-2.590E-06,0.440
-2.580E-06,0.480
-2.570E-06,0.480
-2.560E-06,0.520
-2.550E-06,0.520
-2.540E-06,0.640
-2.530E-06,0.600
-2.520E-06,0.680
-2.510E-06,0.680
-2.500E-06,0.680
-2.490E-06,0.640
-2.480E-06,0.640
-2.470E-06,0.640
-2.460E-06,0.680
-2.450E-06,0.600
-2.440E-06,0.560
-2.430E-06,0.560
-2.420E-06,0.600
-2.410E-06,0.760
-2.400E-06,0.720
-2.390E-06,0.840
-2.380E-06,0.840
-2.370E-06,0.880
-2.360E-06,0.880
-2.350E-06,0.840
-2.340E-06,0.920
-2.330E-06,0.880
-2.320E-06,0.880
-2.310E-06,0.960
-2.300E-06,1.040
-2.290E-06,1.040
-2.280E-06,0.920
-2.270E-06,0.960
-2.260E-06,0.840
-2.250E-06,0.840
-2.240E-06,0.880
-2.230E-06,0.960
-2.220E-06,1.000
-2.210E-06,1.040
-2.200E-06,0.880
-2.190E-06,0.840
-2.180E-06,0.800
-2.170E-06,0.760
-2.160E-06,0.840
-2.150E-06,0.920
-2.140E-06,0.840
-2.130E-06,0.840
-2.120E-06,0.800
-2.110E-06,0.760
-2.100E-06,0.760
-2.090E-06,0.760
-2.080E-06,0.840
-2.070E-06,0.760
-2.060E-06,0.840
-2.050E-06,0.720
-2.040E-06,0.640
-2.030E-06,0.600
-2.020E-06,0.560
-2.010E-06,0.600
-2.000E-06,0.680
-1.990E-06,0.600
-1.980E-06,0.680
-1.970E-06,0.640
-1.960E-06,0.480
-1.950E-06,0.560
-1.940E-06,0.480
-1.930E-06,0.520
-1.920E-06,0.560
-1.910E-06,0.600
-1.900E-06,0.640
-1.890E-06,0.640
-1.880E-06,0.600
-1.870E-06,0.560
-1.860E-06,0.600
-1.850E-06,0.560
-1.840E-06,0.680
-1.830E-06,0.680
-1.820E-06,0.680
-1.810E-06,0.640
-1.800E-06,0.640
-1.790E-06,0.560
-1.780E-06,0.720
-1.770E-06,0.440
-1.760E-06,0.520
-1.750E-06,0.400
-1.740E-06,0.120
-1.730E-06,0.160
-1.720E-06,0.080
-1.710E-06,0.200
-1.700E-06,0.320
-1.690E-06,0.360
-1.680E-06,0.320
-1.670E-06,0.400
-1.660E-06,0.360
-1.650E-06,0.400
-1.640E-06,0.320
-1.630E-06,0.200
-1.620E-06,0.040
-1.610E-06,0.040
-1.600E-06,-0.040
-1.590E-06,0.080
-1.580E-06,0.240
-1.570E-06,0.240
-1.560E-06,0.200
-1.550E-06,-0.040
-1.540E-06,-0.080
-1.530E-06,-0.200
-1.520E-06,-0.160
-1.510E-06,-0.040
-1.500E-06,0.000
-1.490E-06,0.000
-1.480E-06,0.000
-1.470E-06,-0.080
-1.460E-06,-0.120
-1.450E-06,-0.040
-1.440E-06,-0.040
-1.430E-06,0.000
-1.420E-06,0.080
-1.410E-06,0.120
-1.400E-06,0.160
-1.390E-06,0.160
-1.380E-06,0.200
-1.370E-06,0.120
-1.360E-06,0.040
-1.350E-06,-0.040
-1.340E-06,0.200
-1.330E-06,0.320
-1.320E-06,0.360
-1.310E-06,0.360
-1.300E-06,0.160
-1.290E-06,0.040
-1.280E-06,0.040
-1.270E-06,0.200
-1.260E-06,0.360
-1.250E-06,0.560
-1.240E-06,0.680
-1.230E-06,0.720
-1.220E-06,0.760
-1.210E-06,0.800
-1.200E-06,0.880
-1.190E-06,0.920
-1.180E-06,1.000
-1.170E-06,1.080
-1.160E-06,1.080
-1.150E-06,1.000
-1.140E-06,0.920
-1.130E-06,0.840
-1.120E-06,0.880
-1.110E-06,0.920
-1.100E-06,0.920
-1.090E-06,0.960
-1.080E-06,0.960
-1.070E-06,0.960
-1.060E-06,1.040
-1.050E-06,1.000
-1.040E-06,1.080
-1.030E-06,1.080
-1.020E-06,1.120
-1.010E-06,1.120
-1.000E-06,1.080
-9.900E-07,1.080
-9.800E-07,1.000
-9.700E-07,0.960
-9.600E-07,0.960
-9.500E-07,0.840
-9.400E-07,0.680
-9.300E-07,0.600
-9.200E-07,0.560
-9.100E-07,0.600
-9.000E-07,0.520
-8.900E-07,0.600
-8.800E-07,0.520
-8.700E-07,0.480
-8.600E-07,0.440
-8.500E-07,0.400
-8.400E-07,0.400
-8.300E-07,0.320
-8.200E-07,0.360
-8.100E-07,0.240
-8.000E-07,0.360
-7.900E-07,0.320
-7.800E-07,0.400
-7.700E-07,0.440
-7.600E-07,0.320
-7.500E-07,0.360
-7.400E-07,0.400
-7.300E-07,0.320
-7.200E-07,0.480
-7.100E-07,0.440
-7.000E-07,0.440
-6.900E-07,0.480
-6.800E-07,0.360
-6.700E-07,0.480
-6.600E-07,0.520
-6.500E-07,0.480
-6.400E-07,0.560
-6.300E-07,0.400
-6.200E-07,0.360
-6.100E-07,0.280
-6.000E-07,0.160
-5.900E-07,0.200
-5.800E-07,0.160
-5.700E-07,0.040
-5.600E-07,0.000
-5.500E-07,-0.080
-5.400E-07,-0.120
-5.300E-07,-0.080
-5.200E-07,-0.160
-5.100E-07,-0.160
-5.000E-07,-0.120
-4.900E-07,-0.120
-4.800E-07,-0.120
-4.700E-07,-0.160
-4.600E-07,-0.200
-4.500E-07,-0.160
-4.400E-07,-0.080
-4.300E-07,-0.120
-4.200E-07,-0.120
-4.100E-07,-0.080
-4.000E-07,0.000
-3.900E-07,-0.040
-3.800E-07,0.040
-3.700E-07,0.120
-3.600E-07,0.280
-3.500E-07,0.360
-3.400E-07,0.320
-3.300E-07,0.440
-3.200E-07,0.360
-3.100E-07,0.320
-3.000E-07,0.280
-2.900E-07,0.280
-2.800E-07,0.200
-2.700E-07,0.160
-2.600E-07,-0.080
-2.500E-07,-0.240
-2.400E-07,-0.480
-2.300E-07,-0.680
-2.200E-07,-0.760
-2.100E-07,-0.880
-2.000E-07,-0.920
-1.900E-07,-1.040
-1.800E-07,-1.240
-1.700E-07,-1.560
-1.600E-07,-1.760
-1.500E-07,-1.880
-1.400E-07,-2.000
-1.300E-07,-2.120
-1.200E-07,-2.200
-1.100E-07,-2.400
-1.000E-07,-2.760
-9.000E-08,-2.840
-8.000E-08,-2.960
-7.000E-08,-2.840
-6.000E-08,-2.840
-5.000E-08,-2.840
-4.000E-08,-2.680
-3.000E-08,-2.760
-2.000E-08,-2.520
-1.000E-08,-2.320
0.000E+00,-2.080
1.000E-08,-1.720
2.000E-08,-1.400
3.000E-08,-1.120
4.000E-08,-1.200
5.000E-08,-1.360
6.000E-08,-1.720
7.000E-08,-2.120
8.000E-08,-2.200
9.000E-08,-2.160
1.000E-07,-1.760
1.100E-07,-1.360
1.200E-07,-1.200
1.300E-07,-1.280
1.400E-07,-1.360
1.500E-07,-1.400
1.600E-07,-1.280
1.700E-07,-1.040
1.800E-07,-0.840
1.900E-07,-0.640
2.000E-07,-0.400
2.100E-07,-0.240
2.200E-07,-0.160
2.300E-07,-0.240
2.400E-07,-0.400
2.500E-07,-0.560
2.600E-07,-0.800
2.700E-07,-0.920
2.800E-07,-1.160
2.900E-07,-1.360
3.000E-07,-1.640
3.100E-07,-1.960
3.200E-07,-2.200
3.300E-07,-2.440
3.400E-07,-2.720
3.500E-07,-2.760
3.600E-07,-2.840
3.700E-07,-2.800
3.800E-07,-2.720
3.900E-07,-2.600
4.000E-07,-2.480
4.100E-07,-2.360
4.200E-07,-2.200
4.300E-07,-2.080
4.400E-07,-2.000
4.500E-07,-1.920
4.600E-07,-1.800
4.700E-07,-1.800
4.800E-07,-1.840
4.900E-07,-1.880
5.000E-07,-1.880
5.100E-07,-1.960
5.200E-07,-2.000
5.300E-07,-2.160
5.400E-07,-2.280
5.500E-07,-2.480
5.600E-07,-2.680
5.700E-07,-2.920
5.800E-07,-3.280
5.900E-07,-3.680
6.000E-07,-4.200
6.100E-07,-4.760
6.200E-07,-5.240
6.300E-07,-5.240
6.400E-07,-5.240
6.500E-07,-5.200
6.600E-07,-5.240
6.700E-07,-5.240
6.800E-07,-5.240
6.900E-07,-5.240
7.000E-07,-5.240
7.100E-07,-5.240
7.200E-07,-5.240
7.300E-07,-5.240
7.400E-07,-5.240
7.500E-07,-5.200
7.600E-07,-5.240
7.700E-07,-5.240
7.800E-07,-5.200
7.900E-07,-5.240
8.000E-07,-5.240
8.100E-07,-5.240
8.200E-07,-5.200
8.300E-07,-5.240
8.400E-07,-5.240
8.500E-07,-5.200
8.600E-07,-5.200
8.700E-07,-5.240
8.800E-07,-5.240
8.900E-07,-5.240
9.000E-07,-5.240
9.100E-07,-5.200
9.200E-07,-5.200
9.300E-07,-5.240
9.400E-07,-5.240
9.500E-07,-5.240
9.600E-07,-5.240
9.700E-07,-5.200
9.800E-07,-5.240
9.900E-07,-5.240
1.000E-06,-5.240
1.010E-06,-5.240
1.020E-06,-5.200
1.030E-06,-5.240
1.040E-06,-5.240
1.050E-06,-5.240
1.060E-06,-5.240
1.070E-06,-5.200
1.080E-06,-5.240
1.090E-06,-5.240
1.100E-06,-5.200
1.110E-06,-5.200
1.120E-06,-5.160
1.130E-06,-4.960
1.140E-06,-4.760
1.150E-06,-4.520
1.160E-06,-4.360
1.170E-06,-4.080
1.180E-06,-3.840
1.190E-06,-3.560
1.200E-06,-3.360
1.210E-06,-3.160
1.220E-06,-2.920
1.230E-06,-2.680
1.240E-06,-2.560
1.250E-06,-2.440
1.260E-06,-2.240
1.270E-06,-2.160
1.280E-06,-2.040
1.290E-06,-1.960
1.300E-06,-1.880
1.310E-06,-1.800
1.320E-06,-1.800
1.330E-06,-1.760
1.340E-06,-1.720
1.350E-06,-1.720
1.360E-06,-1.720
1.370E-06,-1.720
1.380E-06,-1.720
1.390E-06,-1.720
1.400E-06,-1.720
1.410E-06,-1.720
1.420E-06,-1.760
1.430E-06,-1.720
1.440E-06,-1.720
1.450E-06,-1.720
1.460E-06,-1.720
1.470E-06,-1.720
1.480E-06,-1.680
1.490E-06,-1.680
1.500E-06,-1.600
1.510E-06,-1.600
1.520E-06,-1.560
1.530E-06,-1.600
1.540E-06,-1.560
1.550E-06,-1.520
1.560E-06,-1.480
1.570E-06,-1.520
1.580E-06,-1.440
1.590E-06,-1.480
1.600E-06,-1.400
1.610E-06,-1.440
1.620E-06,-1.400
1.630E-06,-1.320
1.640E-06,-1.320
1.650E-06,-1.320
1.660E-06,-1.360
1.670E-06,-1.360
1.680E-06,-1.360
1.690E-06,-1.360
1.700E-06,-1.400
1.710E-06,-1.400
1.720E-06,-1.360
1.730E-06,-1.400
1.740E-06,-1.440
1.750E-06,-1.400
1.760E-06,-1.400
1.770E-06,-1.400
1.780E-06,-1.440
1.790E-06,-1.400
1.800E-06,-1.360
1.810E-06,-1.400
1.820E-06,-1.360
1.830E-06,-1.320
1.840E-06,-1.240
1.850E-06,-1.160
1.860E-06,-1.200
1.870E-06,-1.120
1.880E-06,-1.120
1.890E-06,-1.000
1.900E-06,-0.960
1.910E-06,-0.920
1.920E-06,-0.880
1.930E-06,-0.840
1.940E-06,-0.800
1.950E-06,-0.760
1.960E-06,-0.720
1.970E-06,-0.720
1.980E-06,-0.760
1.990E-06,-0.760
2.000E-06,-0.840
2.010E-06,-0.840
2.020E-06,-0.920
2.030E-06,-1.000
2.040E-06,-1.120
2.050E-06,-1.160
2.060E-06,-1.160
2.070E-06,-1.320
2.080E-06,-1.360
2.090E-06,-1.480
2.100E-06,-1.600
2.110E-06,-1.680
2.120E-06,-1.720
2.130E-06,-1.760
2.140E-06,-1.800
2.150E-06,-1.840
2.160E-06,-1.800
2.170E-06,-1.760
2.180E-06,-1.760
2.190E-06,-1.680
2.200E-06,-1.680
2.210E-06,-1.560
2.220E-06,-1.480
2.230E-06,-1.440
2.240E-06,-1.280
2.250E-06,-1.200
2.260E-06,-1.120
2.270E-06,-1.040
2.280E-06,-0.960
2.290E-06,-0.800
2.300E-06,-0.720
2.310E-06,-0.600
2.320E-06,-0.560
2.330E-06,-0.480
2.340E-06,-0.360
2.350E-06,-0.240
2.360E-06,-0.200
2.370E-06,-0.160
2.380E-06,-0.160
2.390E-06,-0.120
2.400E-06,-0.120
2.410E-06,-0.160
2.420E-06,-0.160
2.430E-06,-0.160
2.440E-06,-0.240
2.450E-06,-0.240
2.460E-06,-0.320
2.470E-06,-0.320
2.480E-06,-0.400
2.490E-06,-0.520
2.500E-06,-0.520
2.510E-06,-0.600
2.520E-06,-0.680
2.530E-06,-0.720
2.540E-06,-0.720
2.550E-06,-0.760
2.560E-06,-0.800
2.570E-06,-0.760
2.580E-06,-0.800
2.590E-06,-0.800
2.600E-06,-0.800
2.610E-06,-0.800
2.620E-06,-0.800
2.630E-06,-0.840
2.640E-06,-0.880
2.650E-06,-0.880
2.660E-06,-0.920
2.670E-06,-0.960
2.680E-06,-0.960
2.690E-06,-1.000
2.700E-06,-1.080
2.710E-06,-1.040
2.720E-06,-1.120
2.730E-06,-1.160
2.740E-06,-1.160
2.750E-06,-1.160
2.760E-06,-1.160
2.770E-06,-1.000
2.780E-06,-0.920
2.790E-06,-0.800
2.800E-06,-0.600
2.810E-06,-0.400
2.820E-06,-0.160
2.830E-06,0.000
2.840E-06,0.240
2.850E-06,0.400
2.860E-06,0.520
2.870E-06,0.640
2.880E-06,0.720
2.890E-06,0.840
2.900E-06,0.840
2.910E-06,0.880
2.920E-06,0.880
2.930E-06,0.880
2.940E-06,0.840
2.950E-06,0.840
2.960E-06,0.720
2.970E-06,0.720
2.980E-06,0.680
2.990E-06,0.560
3.000E-06,0.440
3.010E-06,0.280
3.020E-06,0.120
3.030E-06,0.000
3.040E-06,-0.200
3.050E-06,-0.360
3.060E-06,-0.520
3.070E-06,-0.680
3.080E-06,-0.840
3.090E-06,-1.080
3.100E-06,-1.320
3.110E-06,-1.560
3.120E-06,-1.760
3.130E-06,-2.040
3.140E-06,-2.240
3.150E-06,-2.280
3.160E-06,-2.240
3.170E-06,-2.040
3.180E-06,-1.760
3.190E-06,-1.360
3.200E-06,-1.040
3.210E-06,-0.680
3.220E-06,-0.400
3.230E-06,-0.160
3.240E-06,0.120
3.250E-06,0.240
3.260E-06,0.440
3.270E-06,0.560
3.280E-06,0.600
3.290E-06,0.680
3.300E-06,0.600
3.310E-06,0.560
3.320E-06,0.480
3.330E-06,0.440
3.340E-06,0.360
3.350E-06,0.360
3.360E-06,0.320
3.370E-06,0.240
3.380E-06,0.280
3.390E-06,0.360
3.400E-06,0.360
3.410E-06,0.320
3.420E-06,0.320
3.430E-06,0.320
3.440E-06,0.240
3.450E-06,0.240
3.460E-06,0.160
3.470E-06,0.080
3.480E-06,0.040
3.490E-06,0.000
3.500E-06,0.040
3.510E-06,-0.040
3.520E-06,0.000
3.530E-06,0.080
3.540E-06,0.120
3.550E-06,0.080
3.560E-06,0.080
3.570E-06,0.160
3.580E-06,0.160
3.590E-06,0.200
3.600E-06,0.280
3.610E-06,0.280
3.620E-06,0.320
3.630E-06,0.320
3.640E-06,0.400
3.650E-06,0.400
3.660E-06,0.440
3.670E-06,0.480
3.680E-06,0.520
3.690E-06,0.600
3.700E-06,0.600
3.710E-06,0.680
3.720E-06,0.640
3.730E-06,0.560
3.740E-06,0.600
3.750E-06,0.520
3.760E-06,0.480
3.770E-06,0.440
3.780E-06,0.360
3.790E-06,0.360
3.800E-06,0.240
3.810E-06,0.160
3.820E-06,0.160
3.830E-06,0.200
3.840E-06,0.160
3.850E-06,0.200
3.860E-06,0.320
3.870E-06,0.360
3.880E-06,0.440
3.890E-06,0.560
3.900E-06,0.560
3.910E-06,0.640
3.920E-06,0.760
3.930E-06,0.800
3.940E-06,0.880
3.950E-06,0.920
3.960E-06,0.960
3.970E-06,1.000
3.980E-06,1.080
3.990E-06,1.120
4.000E-06,1.080
4.010E-06,1.080
4.020E-06,1.040
4.030E-06,0.960
4.040E-06,0.880
4.050E-06,0.880
4.060E-06,0.800
4.070E-06,0.720
4.080E-06,0.680
4.090E-06,0.640
4.100E-06,0.600
4.110E-06,0.520
4.120E-06,0.480
4.130E-06,0.400
4.140E-06,0.320
4.150E-06,0.200
4.160E-06,0.080
4.170E-06,0.000
4.180E-06,-0.080
4.190E-06,-0.280
4.200E-06,-0.360
4.210E-06,-0.480
4.220E-06,-0.480
4.230E-06,-0.440
4.240E-06,-0.480
4.250E-06,-0.320
4.260E-06,-0.280
4.270E-06,-0.160
4.280E-06,-0.040
4.290E-06,0.040
4.300E-06,0.120
4.310E-06,0.200
4.320E-06,0.280
4.330E-06,0.400
4.340E-06,0.440
4.350E-06,0.480
4.360E-06,0.600
4.370E-06,0.600
4.380E-06,0.680
4.390E-06,0.720
4.400E-06,0.760
4.410E-06,0.800
4.420E-06,0.800
4.430E-06,0.720
4.440E-06,0.680
4.450E-06,0.640
4.460E-06,0.520
4.470E-06,0.440
4.480E-06,0.360
4.490E-06,0.320
4.500E-06,0.240
4.510E-06,0.240
4.520E-06,0.160
4.530E-06,0.200
4.540E-06,0.240
4.550E-06,0.360
4.560E-06,0.440
4.570E-06,0.480
4.580E-06,0.600
4.590E-06,0.680
4.600E-06,0.800
4.610E-06,0.920
4.620E-06,1.000
4.630E-06,1.160
4.640E-06,1.280
4.650E-06,1.360
4.660E-06,1.480
4.670E-06,1.560
4.680E-06,1.560
4.690E-06,1.640
4.700E-06,1.680
4.710E-06,1.760
4.720E-06,1.800
4.730E-06,1.840
4.740E-06,1.840
4.750E-06,1.920
4.760E-06,1.880
4.770E-06,1.920
4.780E-06,1.920
4.790E-06,1.960
4.800E-06,1.960
4.810E-06,2.080
4.820E-06,2.240
4.830E-06,2.480
4.840E-06,2.760
4.850E-06,3.160
4.860E-06,3.600
4.870E-06,4.000
4.880E-06,4.520
4.890E-06,5.000
4.900E-06,5.360
4.910E-06,5.480
4.920E-06,5.480
4.930E-06,5.480
4.940E-06,5.480
4.950E-06,5.480
4.960E-06,5.400
4.970E-06,5.400
4.980E-06,5.440
4.990E-06,5.400
5.000E-06,5.240
5.010E-06,4.920
5.020E-06,4.720
5.030E-06,4.520
5.040E-06,4.400
5.050E-06,4.160
5.060E-06,4.040
5.070E-06,3.920
5.080E-06,3.760
5.090E-06,3.600
5.100E-06,3.520
5.110E-06,3.360
5.120E-06,3.160
5.130E-06,3.080
5.140E-06,2.920
5.150E-06,2.840
5.160E-06,2.680
5.170E-06,2.640
5.180E-06,2.600
5.190E-06,2.520
5.200E-06,2.400
5.210E-06,2.360
5.220E-06,2.280
5.230E-06,2.200
5.240E-06,2.120
5.250E-06,2.000
5.260E-06,2.000
5.270E-06,1.920
5.280E-06,1.880
5.290E-06,1.880
5.300E-06,1.840
5.310E-06,1.840
5.320E-06,1.840
5.330E-06,1.840
5.340E-06,1.880
5.350E-06,1.840
5.360E-06,1.880
5.370E-06,1.920
5.380E-06,1.840
5.390E-06,1.840
5.400E-06,1.840
5.410E-06,1.840
5.420E-06,1.760
5.430E-06,1.720
5.440E-06,1.720
5.450E-06,1.720
5.460E-06,1.720
5.470E-06,1.680
5.480E-06,1.600
5.490E-06,1.600
5.500E-06,1.560
5.510E-06,1.480
5.520E-06,1.440
5.530E-06,1.360
5.540E-06,1.320
5.550E-06,1.200
5.560E-06,1.120
5.570E-06,1.000
5.580E-06,0.920
5.590E-06,0.880
5.600E-06,0.840
5.610E-06,0.760
5.620E-06,0.640
5.630E-06,0.600
5.640E-06,0.560
5.650E-06,0.480
5.660E-06,0.440
5.670E-06,0.440
5.680E-06,0.440
5.690E-06,0.480
5.700E-06,0.520
5.710E-06,0.480
5.720E-06,0.520
5.730E-06,0.520
5.740E-06,0.560
5.750E-06,0.640
5.760E-06,0.680
5.770E-06,0.680
5.780E-06,0.680
5.790E-06,0.720
5.800E-06,0.640
5.810E-06,0.680
5.820E-06,0.680
5.830E-06,0.680
5.840E-06,0.600
5.850E-06,0.560
5.860E-06,0.520
5.870E-06,0.440
5.880E-06,0.400
5.890E-06,0.320
5.900E-06,0.240
5.910E-06,0.240
5.920E-06,0.240
5.930E-06,0.200
5.940E-06,0.240
5.950E-06,0.240
5.960E-06,0.280
5.970E-06,0.240
5.980E-06,0.240
5.990E-06,0.240
6.000E-06,0.120
6.010E-06,0.080
6.020E-06,0.080
6.030E-06,0.120
6.040E-06,0.040
6.050E-06,0.040
6.060E-06,0.120
6.070E-06,0.080
6.080E-06,0.120
6.090E-06,0.120
6.100E-06,0.160
6.110E-06,0.080
6.120E-06,0.080
6.130E-06,0.000
6.140E-06,0.000
6.150E-06,-0.080
6.160E-06,-0.120
