mediciones/Mediciones filtradas (saque las feas)/5-27/-57.5/WaveData50297.csv

#timebase=2000000(ps)
,#voltbase=100000(mv/100)
#size=4000
-5.650E-06,0.016
-5.640E-06,-0.008
-5.630E-06,-0.024
-5.620E-06,-0.016
-5.610E-06,0.016
-5.600E-06,0.028
-5.590E-06,0.032
-5.580E-06,0.016
-5.570E-06,0.004
-5.560E-06,-0.004
-5.550E-06,0.004
-5.540E-06,0.024
-5.530E-06,0.028
-5.520E-06,0.008
-5.510E-06,0.000
-5.500E-06,-0.004
-5.490E-06,0.000
-5.480E-06,0.004
-5.470E-06,0.012
-5.460E-06,0.008
-5.450E-06,0.000
-5.440E-06,0.004
-5.430E-06,0.000
-5.420E-06,0.004
-5.410E-06,0.004
-5.400E-06,-0.008
-5.390E-06,0.000
-5.380E-06,0.020
-5.370E-06,0.032
-5.360E-06,0.044
-5.350E-06,0.036
-5.340E-06,0.016
-5.330E-06,-0.004
-5.320E-06,0.000
-5.310E-06,0.012
-5.300E-06,0.028
-5.290E-06,0.040
-5.280E-06,-0.012
-5.270E-06,-0.060
-5.260E-06,-0.088
-5.250E-06,-0.060
-5.240E-06,-0.004
-5.230E-06,0.028
-5.220E-06,0.068
-5.210E-06,0.056
-5.200E-06,0.016
-5.190E-06,-0.016
-5.180E-06,-0.052
-5.170E-06,-0.040
-5.160E-06,-0.016
-5.150E-06,0.016
-5.140E-06,0.036
-5.130E-06,0.044
-5.120E-06,0.024
-5.110E-06,0.004
-5.100E-06,-0.008
-5.090E-06,-0.016
-5.080E-06,-0.008
-5.070E-06,0.008
-5.060E-06,0.024
-5.050E-06,0.032
-5.040E-06,0.008
-5.030E-06,0.000
-5.020E-06,-0.012
-5.010E-06,-0.012
-5.000E-06,0.000
-4.990E-06,0.020
-4.980E-06,0.036
-4.970E-06,0.028
-4.960E-06,0.016
-4.950E-06,-0.004
-4.940E-06,-0.008
-4.930E-06,-0.004
-4.920E-06,0.012
-4.910E-06,0.032
-4.900E-06,0.040
-4.890E-06,0.036
-4.880E-06,0.016
-4.870E-06,-0.004
-4.860E-06,-0.016
-4.850E-06,-0.008
-4.840E-06,0.028
-4.830E-06,0.040
-4.820E-06,0.048
-4.810E-06,0.028
-4.800E-06,-0.004
-4.790E-06,-0.036
-4.780E-06,-0.040
-4.770E-06,-0.028
-4.760E-06,-0.004
-4.750E-06,0.032
-4.740E-06,0.044
-4.730E-06,0.012
-4.720E-06,-0.036
-4.710E-06,-0.104
-4.700E-06,-0.092
-4.690E-06,-0.040
-4.680E-06,0.024
-4.670E-06,0.044
-4.660E-06,0.048
-4.650E-06,0.008
-4.640E-06,-0.024
-4.630E-06,-0.040
-4.620E-06,-0.032
-4.610E-06,-0.008
-4.600E-06,0.012
-4.590E-06,0.012
-4.580E-06,0.016
-4.570E-06,0.008
-4.560E-06,0.000
-4.550E-06,-0.004
-4.540E-06,0.008
-4.530E-06,0.000
-4.520E-06,0.004
-4.510E-06,0.004
-4.500E-06,-0.008
-4.490E-06,-0.004
-4.480E-06,0.004
-4.470E-06,-0.004
-4.460E-06,-0.004
-4.450E-06,-0.004
-4.440E-06,0.000
-4.430E-06,0.016
-4.420E-06,-0.008
-4.410E-06,0.000
-4.400E-06,-0.012
-4.390E-06,-0.012
-4.380E-06,-0.004
-4.370E-06,0.000
-4.360E-06,0.012
-4.350E-06,0.016
-4.340E-06,0.008
-4.330E-06,0.004
-4.320E-06,0.004
-4.310E-06,0.012
-4.300E-06,0.012
-4.290E-06,0.004
-4.280E-06,-0.008
-4.270E-06,-0.016
-4.260E-06,-0.008
-4.250E-06,0.000
-4.240E-06,0.020
-4.230E-06,0.020
-4.220E-06,0.016
-4.210E-06,0.004
-4.200E-06,0.000
-4.190E-06,-0.004
-4.180E-06,0.004
-4.170E-06,0.008
-4.160E-06,0.012
-4.150E-06,0.008
-4.140E-06,0.008
-4.130E-06,0.004
-4.120E-06,0.016
-4.110E-06,0.024
-4.100E-06,0.016
-4.090E-06,0.008
-4.080E-06,-0.008
-4.070E-06,-0.012
-4.060E-06,0.000
-4.050E-06,0.016
-4.040E-06,0.032
-4.030E-06,0.032
-4.020E-06,0.028
-4.010E-06,0.024
-4.000E-06,0.016
-3.990E-06,0.012
-3.980E-06,0.016
-3.970E-06,0.016
-3.960E-06,0.008
-3.950E-06,-0.008
-3.940E-06,-0.032
-3.930E-06,-0.036
-3.920E-06,-0.032
-3.910E-06,0.004
-3.900E-06,0.040
-3.890E-06,0.064
-3.880E-06,0.068
-3.870E-06,0.052
-3.860E-06,0.024
-3.850E-06,-0.004
-3.840E-06,-0.024
-3.830E-06,-0.040
-3.820E-06,-0.060
-3.810E-06,-0.060
-3.800E-06,-0.052
-3.790E-06,-0.016
-3.780E-06,0.008
-3.770E-06,0.024
-3.760E-06,0.028
-3.750E-06,0.008
-3.740E-06,-0.004
-3.730E-06,-0.036
-3.720E-06,-0.036
-3.710E-06,0.000
-3.700E-06,0.024
-3.690E-06,0.032
-3.680E-06,0.024
-3.670E-06,0.008
-3.660E-06,-0.008
-3.650E-06,-0.016
-3.640E-06,-0.008
-3.630E-06,0.000
-3.620E-06,0.008
-3.610E-06,0.012
-3.600E-06,0.008
-3.590E-06,0.004
-3.580E-06,0.004
-3.570E-06,0.008
-3.560E-06,0.000
-3.550E-06,0.000
-3.540E-06,-0.004
-3.530E-06,-0.004
-3.520E-06,-0.004
-3.510E-06,0.000
-3.500E-06,0.000
-3.490E-06,0.016
-3.480E-06,0.016
-3.470E-06,0.008
-3.460E-06,-0.004
-3.450E-06,-0.008
-3.440E-06,-0.016
-3.430E-06,-0.008
-3.420E-06,0.008
-3.410E-06,0.020
-3.400E-06,0.020
-3.390E-06,0.012
-3.380E-06,0.000
-3.370E-06,-0.004
-3.360E-06,0.000
-3.350E-06,0.020
-3.340E-06,0.024
-3.330E-06,0.028
-3.320E-06,0.012
-3.310E-06,0.004
-3.300E-06,-0.008
-3.290E-06,-0.004
-3.280E-06,-0.004
-3.270E-06,0.004
-3.260E-06,0.000
-3.250E-06,-0.008
-3.240E-06,-0.004
-3.230E-06,-0.004
-3.220E-06,0.008
-3.210E-06,0.020
-3.200E-06,0.032
-3.190E-06,0.032
-3.180E-06,0.016
-3.170E-06,-0.004
-3.160E-06,-0.004
-3.150E-06,0.004
-3.140E-06,0.012
-3.130E-06,0.024
-3.120E-06,0.016
-3.110E-06,0.012
-3.100E-06,0.004
-3.090E-06,0.008
-3.080E-06,0.012
-3.070E-06,0.020
-3.060E-06,0.016
-3.050E-06,0.012
-3.040E-06,0.012
-3.030E-06,0.000
-3.020E-06,-0.004
-3.010E-06,-0.008
-3.000E-06,-0.012
-2.990E-06,-0.008
-2.980E-06,0.000
-2.970E-06,0.008
-2.960E-06,0.020
-2.950E-06,0.016
-2.940E-06,0.004
-2.930E-06,-0.020
-2.920E-06,-0.028
-2.910E-06,-0.016
-2.900E-06,-0.004
-2.890E-06,0.012
-2.880E-06,0.020
-2.870E-06,0.012
-2.860E-06,0.012
-2.850E-06,0.000
-2.840E-06,0.008
-2.830E-06,0.012
-2.820E-06,0.028
-2.810E-06,0.028
-2.800E-06,0.028
-2.790E-06,0.016
-2.780E-06,0.012
-2.770E-06,0.012
-2.760E-06,0.016
-2.750E-06,0.020
-2.740E-06,0.028
-2.730E-06,0.032
-2.720E-06,0.036
-2.710E-06,0.020
-2.700E-06,0.016
-2.690E-06,0.016
-2.680E-06,0.012
-2.670E-06,0.012
-2.660E-06,0.020
-2.650E-06,0.028
-2.640E-06,0.020
-2.630E-06,0.024
-2.620E-06,0.024
-2.610E-06,0.024
-2.600E-06,0.028
-2.590E-06,0.024
-2.580E-06,0.028
-2.570E-06,0.024
-2.560E-06,0.000
-2.550E-06,-0.068
-2.540E-06,-0.116
-2.530E-06,-0.096
-2.520E-06,-0.052
-2.510E-06,0.016
-2.500E-06,0.052
-2.490E-06,0.056
-2.480E-06,0.024
-2.470E-06,-0.008
-2.460E-06,-0.020
-2.450E-06,-0.028
-2.440E-06,0.016
-2.430E-06,0.028
-2.420E-06,0.044
-2.410E-06,0.040
-2.400E-06,0.016
-2.390E-06,0.000
-2.380E-06,-0.024
-2.370E-06,-0.040
-2.360E-06,-0.028
-2.350E-06,0.000
-2.340E-06,0.032
-2.330E-06,0.060
-2.320E-06,0.072
-2.310E-06,0.052
-2.300E-06,0.032
-2.290E-06,0.000
-2.280E-06,-0.004
-2.270E-06,0.004
-2.260E-06,0.024
-2.250E-06,0.044
-2.240E-06,0.056
-2.230E-06,0.036
-2.220E-06,0.028
-2.210E-06,0.016
-2.200E-06,0.024
-2.190E-06,0.056
-2.180E-06,0.080
-2.170E-06,0.104
-2.160E-06,0.104
-2.150E-06,0.092
-2.140E-06,0.032
-2.130E-06,-0.040
-2.120E-06,-0.120
-2.110E-06,-0.192
-2.100E-06,-0.200
-2.090E-06,-0.104
-2.080E-06,0.032
-2.070E-06,0.136
-2.060E-06,0.124
-2.050E-06,0.024
-2.040E-06,-0.160
-2.030E-06,-0.232
-2.020E-06,-0.240
-2.010E-06,-0.112
-2.000E-06,0.028
-1.990E-06,0.144
-1.980E-06,0.144
-1.970E-06,0.060
-1.960E-06,-0.052
-1.950E-06,-0.120
-1.940E-06,-0.100
-1.930E-06,-0.012
-1.920E-06,0.060
-1.910E-06,0.088
-1.900E-06,0.072
-1.890E-06,0.016
-1.880E-06,-0.020
-1.870E-06,-0.028
-1.860E-06,-0.008
-1.850E-06,0.008
-1.840E-06,0.040
-1.830E-06,0.032
-1.820E-06,0.028
-1.810E-06,0.012
-1.800E-06,0.008
-1.790E-06,0.012
-1.780E-06,0.028
-1.770E-06,0.048
-1.760E-06,0.060
-1.750E-06,0.040
-1.740E-06,0.024
-1.730E-06,-0.004
-1.720E-06,-0.024
-1.710E-06,-0.052
-1.700E-06,-0.040
-1.690E-06,-0.012
-1.680E-06,0.016
-1.670E-06,0.040
-1.660E-06,0.060
-1.650E-06,0.056
-1.640E-06,0.032
-1.630E-06,0.020
-1.620E-06,0.000
-1.610E-06,0.012
-1.600E-06,0.036
-1.590E-06,0.064
-1.580E-06,0.064
-1.570E-06,0.060
-1.560E-06,0.032
-1.550E-06,0.012
-1.540E-06,0.036
-1.530E-06,0.068
-1.520E-06,0.088
-1.510E-06,0.096
-1.500E-06,0.064
-1.490E-06,0.008
-1.480E-06,-0.024
-1.470E-06,-0.044
-1.460E-06,-0.028
-1.450E-06,0.008
-1.440E-06,0.056
-1.430E-06,0.060
-1.420E-06,0.044
-1.410E-06,0.028
-1.400E-06,0.004
-1.390E-06,0.004
-1.380E-06,0.016
-1.370E-06,0.032
-1.360E-06,0.068
-1.350E-06,0.080
-1.340E-06,0.072
-1.330E-06,0.056
-1.320E-06,0.036
-1.310E-06,0.024
-1.300E-06,0.028
-1.290E-06,0.040
-1.280E-06,0.052
-1.270E-06,0.056
-1.260E-06,0.048
-1.250E-06,0.024
-1.240E-06,0.004
-1.230E-06,0.008
-1.220E-06,0.012
-1.210E-06,0.028
-1.200E-06,0.044
-1.190E-06,0.056
-1.180E-06,0.072
-1.170E-06,0.072
-1.160E-06,0.076
-1.150E-06,0.076
-1.140E-06,0.076
-1.130E-06,0.060
-1.120E-06,0.036
-1.110E-06,-0.012
-1.100E-06,-0.100
-1.090E-06,-0.196
-1.080E-06,-0.220
-1.070E-06,-0.168
-1.060E-06,-0.160
-1.050E-06,-0.236
-1.040E-06,-0.332
-1.030E-06,-0.356
-1.020E-06,-0.236
-1.010E-06,-0.024
-1.000E-06,0.112
-9.900E-07,0.168
-9.800E-07,0.148
-9.700E-07,0.028
-9.600E-07,-0.088
-9.500E-07,-0.140
-9.400E-07,-0.112
-9.300E-07,0.044
-9.200E-07,0.156
-9.100E-07,0.172
-9.000E-07,0.096
-8.900E-07,-0.016
-8.800E-07,-0.116
-8.700E-07,-0.160
-8.600E-07,-0.100
-8.500E-07,-0.040
-8.400E-07,0.052
-8.300E-07,0.036
-8.200E-07,0.032
-8.100E-07,-0.036
-8.000E-07,-0.056
-7.900E-07,-0.052
-7.800E-07,-0.024
-7.700E-07,0.016
-7.600E-07,0.044
-7.500E-07,0.044
-7.400E-07,0.020
-7.300E-07,-0.008
-7.200E-07,-0.044
-7.100E-07,-0.044
-7.000E-07,-0.028
-6.900E-07,0.008
-6.800E-07,0.032
-6.700E-07,0.036
-6.600E-07,0.008
-6.500E-07,-0.004
-6.400E-07,-0.020
-6.300E-07,-0.016
-6.200E-07,0.000
-6.100E-07,0.024
-6.000E-07,0.028
-5.900E-07,0.040
-5.800E-07,0.020
-5.700E-07,0.000
-5.600E-07,-0.016
-5.500E-07,-0.004
-5.400E-07,0.000
-5.300E-07,0.028
-5.200E-07,0.044
-5.100E-07,0.036
-5.000E-07,0.032
-4.900E-07,0.016
-4.800E-07,0.004
-4.700E-07,0.008
-4.600E-07,0.032
-4.500E-07,0.060
-4.400E-07,0.072
-4.300E-07,0.084
-4.200E-07,0.080
-4.100E-07,0.076
-4.000E-07,0.068
-3.900E-07,0.092
-3.800E-07,0.108
-3.700E-07,0.120
-3.600E-07,0.124
-3.500E-07,0.120
-3.400E-07,0.124
-3.300E-07,0.112
-3.200E-07,0.104
-3.100E-07,0.104
-3.000E-07,0.112
-2.900E-07,0.124
-2.800E-07,0.132
-2.700E-07,0.128
-2.600E-07,0.128
-2.500E-07,0.116
-2.400E-07,0.108
-2.300E-07,0.096
-2.200E-07,0.088
-2.100E-07,0.092
-2.000E-07,0.096
-1.900E-07,0.104
-1.800E-07,0.104
-1.700E-07,0.100
-1.600E-07,0.088
-1.500E-07,0.088
-1.400E-07,0.084
-1.300E-07,0.084
-1.200E-07,0.092
-1.100E-07,0.092
-1.000E-07,0.096
-9.000E-08,0.096
-8.000E-08,0.056
-7.000E-08,-0.176
-6.000E-08,-0.480
-5.000E-08,-0.512
-4.000E-08,-0.512
-3.000E-08,-0.508
-2.000E-08,-0.452
-1.000E-08,0.008
0.000E+00,0.260
1.000E-08,0.396
2.000E-08,0.152
3.000E-08,-0.120
4.000E-08,-0.308
5.000E-08,-0.192
6.000E-08,0.008
7.000E-08,0.208
8.000E-08,0.292
9.000E-08,0.184
1.000E-07,0.068
1.100E-07,-0.072
1.200E-07,-0.100
1.300E-07,-0.060
1.400E-07,0.060
1.500E-07,0.140
1.600E-07,0.164
1.700E-07,0.120
1.800E-07,0.032
1.900E-07,-0.040
2.000E-07,-0.056
2.100E-07,-0.024
2.200E-07,0.036
2.300E-07,0.096
2.400E-07,0.100
2.500E-07,0.072
2.600E-07,0.012
2.700E-07,-0.036
2.800E-07,-0.056
2.900E-07,-0.032
3.000E-07,0.000
3.100E-07,0.040
3.200E-07,0.048
3.300E-07,0.024
3.400E-07,-0.016
3.500E-07,-0.044
3.600E-07,-0.052
3.700E-07,-0.016
3.800E-07,0.028
3.900E-07,0.080
4.000E-07,0.100
4.100E-07,0.092
4.200E-07,0.064
4.300E-07,0.044
4.400E-07,0.056
4.500E-07,0.080
4.600E-07,0.124
4.700E-07,0.148
4.800E-07,0.152
4.900E-07,0.132
5.000E-07,0.096
5.100E-07,0.076
5.200E-07,0.076
5.300E-07,0.096
5.400E-07,0.128
5.500E-07,0.148
5.600E-07,0.156
5.700E-07,0.140
5.800E-07,0.128
5.900E-07,0.120
6.000E-07,0.124
6.100E-07,0.128
6.200E-07,0.136
6.300E-07,0.136
6.400E-07,0.132
6.500E-07,0.124
6.600E-07,0.108
6.700E-07,0.084
6.800E-07,0.072
6.900E-07,0.076
7.000E-07,0.092
7.100E-07,0.108
7.200E-07,0.132
7.300E-07,0.140
7.400E-07,0.128
7.500E-07,0.092
7.600E-07,0.072
7.700E-07,0.048
7.800E-07,0.032
7.900E-07,-0.004
8.000E-07,-0.024
8.100E-07,-0.052
8.200E-07,-0.076
8.300E-07,-0.140
8.400E-07,-0.192
8.500E-07,-0.200
8.600E-07,-0.152
8.700E-07,-0.064
8.800E-07,-0.008
8.900E-07,0.004
9.000E-07,-0.040
9.100E-07,-0.152
9.200E-07,-0.236
9.300E-07,-0.228
9.400E-07,-0.168
9.500E-07,-0.068
9.600E-07,-0.020
9.700E-07,-0.040
9.800E-07,-0.084
9.900E-07,-0.188
1.000E-06,-0.212
1.010E-06,-0.120
1.020E-06,-0.004
1.030E-06,0.136
1.040E-06,0.152
1.050E-06,0.060
1.060E-06,-0.068
1.070E-06,-0.168
1.080E-06,-0.216
1.090E-06,-0.156
1.100E-06,-0.016
1.110E-06,0.108
1.120E-06,0.192
1.130E-06,0.160
1.140E-06,0.092
1.150E-06,0.012
1.160E-06,-0.020
1.170E-06,0.008
1.180E-06,0.076
1.190E-06,0.148
1.200E-06,0.172
1.210E-06,0.164
1.220E-06,0.120
1.230E-06,0.072
1.240E-06,0.056
1.250E-06,0.072
1.260E-06,0.116
1.270E-06,0.156
1.280E-06,0.180
1.290E-06,0.180
1.300E-06,0.156
1.310E-06,0.124
1.320E-06,0.112
1.330E-06,0.124
1.340E-06,0.132
1.350E-06,0.152
1.360E-06,0.164
1.370E-06,0.160
1.380E-06,0.152
1.390E-06,0.132
1.400E-06,0.124
1.410E-06,0.124
1.420E-06,0.136
1.430E-06,0.148
1.440E-06,0.156
1.450E-06,0.160
1.460E-06,0.144
1.470E-06,0.132
1.480E-06,0.124
1.490E-06,0.124
1.500E-06,0.136
1.510E-06,0.144
1.520E-06,0.156
1.530E-06,0.148
1.540E-06,0.144
1.550E-06,0.128
1.560E-06,0.120
1.570E-06,0.124
1.580E-06,0.132
1.590E-06,0.140
1.600E-06,0.144
1.610E-06,0.144
1.620E-06,0.140
1.630E-06,0.124
1.640E-06,0.120
1.650E-06,0.116
1.660E-06,0.116
1.670E-06,0.128
1.680E-06,0.132
1.690E-06,0.136
1.700E-06,0.132
1.710E-06,0.124
1.720E-06,0.112
1.730E-06,0.104
1.740E-06,0.104
1.750E-06,0.108
1.760E-06,0.116
1.770E-06,0.120
1.780E-06,0.116
1.790E-06,0.108
1.800E-06,0.096
1.810E-06,0.096
1.820E-06,0.100
1.830E-06,0.100
1.840E-06,0.112
1.850E-06,0.116
1.860E-06,0.128
1.870E-06,0.124
1.880E-06,0.128
1.890E-06,0.128
1.900E-06,0.136
1.910E-06,0.140
1.920E-06,0.132
1.930E-06,0.136
1.940E-06,0.132
1.950E-06,0.128
1.960E-06,0.132
1.970E-06,0.132
1.980E-06,0.124
1.990E-06,0.128
2.000E-06,0.124
2.010E-06,0.120
2.020E-06,0.116
2.030E-06,0.112
2.040E-06,0.120
2.050E-06,0.120
2.060E-06,0.120
2.070E-06,0.120
2.080E-06,0.120
2.090E-06,0.108
2.100E-06,0.120
2.110E-06,0.124
2.120E-06,0.132
2.130E-06,0.140
2.140E-06,0.136
2.150E-06,0.136
2.160E-06,0.132
2.170E-06,0.128
2.180E-06,0.128
2.190E-06,0.128
2.200E-06,0.136
2.210E-06,0.140
2.220E-06,0.136
2.230E-06,0.132
2.240E-06,0.132
2.250E-06,0.128
2.260E-06,0.124
2.270E-06,0.124
2.280E-06,0.124
2.290E-06,0.128
2.300E-06,0.124
2.310E-06,0.128
2.320E-06,0.128
2.330E-06,0.124
2.340E-06,0.124
2.350E-06,0.120
2.360E-06,0.120
2.370E-06,0.120
2.380E-06,0.120
2.390E-06,0.124
2.400E-06,0.124
2.410E-06,0.128
2.420E-06,0.124
2.430E-06,0.124
2.440E-06,0.124
2.450E-06,0.124
2.460E-06,0.124
2.470E-06,0.124
2.480E-06,0.124
2.490E-06,0.124
2.500E-06,0.124
2.510E-06,0.120
2.520E-06,0.124
2.530E-06,0.120
2.540E-06,0.124
2.550E-06,0.124
2.560E-06,0.124
2.570E-06,0.124
2.580E-06,0.124
2.590E-06,0.124
2.600E-06,0.124
2.610E-06,0.120
2.620E-06,0.124
2.630E-06,0.120
2.640E-06,0.120
2.650E-06,0.120
2.660E-06,0.120
2.670E-06,0.124
2.680E-06,0.128
2.690E-06,0.128
2.700E-06,0.128
2.710E-06,0.128
2.720E-06,0.124
2.730E-06,0.124
2.740E-06,0.124
2.750E-06,0.124
2.760E-06,0.124
2.770E-06,0.124
2.780E-06,0.124
2.790E-06,0.120
2.800E-06,0.120
2.810E-06,0.120
2.820E-06,0.120
2.830E-06,0.120
2.840E-06,0.120
2.850E-06,0.124
2.860E-06,0.124
2.870E-06,0.124
2.880E-06,0.124
2.890E-06,0.124
2.900E-06,0.120
2.910E-06,0.116
2.920E-06,0.116
2.930E-06,0.112
2.940E-06,0.116
2.950E-06,0.112
2.960E-06,0.112
2.970E-06,0.108
2.980E-06,0.112
2.990E-06,0.112
3.000E-06,0.112
3.010E-06,0.112
3.020E-06,0.112
3.030E-06,0.108
3.040E-06,0.112
3.050E-06,0.112
3.060E-06,0.108
3.070E-06,0.112
3.080E-06,0.108
3.090E-06,0.112
3.100E-06,0.112
3.110E-06,0.112
3.120E-06,0.112
3.130E-06,0.112
3.140E-06,0.112
3.150E-06,0.112
3.160E-06,0.112
3.170E-06,0.112
3.180E-06,0.112
3.190E-06,0.112
3.200E-06,0.104
3.210E-06,0.108
3.220E-06,0.112
3.230E-06,0.112
3.240E-06,0.112
3.250E-06,0.112
3.260E-06,0.108
3.270E-06,0.108
3.280E-06,0.112
3.290E-06,0.112
3.300E-06,0.108
3.310E-06,0.108
3.320E-06,0.112
3.330E-06,0.112
3.340E-06,0.104
3.350E-06,0.104
3.360E-06,0.108
3.370E-06,0.108
3.380E-06,0.108
3.390E-06,0.104
3.400E-06,0.104
3.410E-06,0.108
3.420E-06,0.108
3.430E-06,0.108
3.440E-06,0.104
3.450E-06,0.100
3.460E-06,0.104
3.470E-06,0.104
3.480E-06,0.104
3.490E-06,0.104
3.500E-06,0.100
3.510E-06,0.100
3.520E-06,0.100
3.530E-06,0.096
3.540E-06,0.100
3.550E-06,0.108
3.560E-06,0.108
3.570E-06,0.100
3.580E-06,0.096
3.590E-06,0.096
3.600E-06,0.096
3.610E-06,0.096
3.620E-06,0.100
3.630E-06,0.100
3.640E-06,0.100
3.650E-06,0.096
3.660E-06,0.100
3.670E-06,0.104
3.680E-06,0.100
3.690E-06,0.096
3.700E-06,0.096
3.710E-06,0.100
3.720E-06,0.096
3.730E-06,0.100
3.740E-06,0.096
3.750E-06,0.092
3.760E-06,0.096
3.770E-06,0.092
3.780E-06,0.092
3.790E-06,0.092
3.800E-06,0.096
3.810E-06,0.096
3.820E-06,0.096
3.830E-06,0.088
3.840E-06,0.092
3.850E-06,0.092
3.860E-06,0.092
3.870E-06,0.096
3.880E-06,0.096
3.890E-06,0.096
3.900E-06,0.096
3.910E-06,0.092
3.920E-06,0.096
3.930E-06,0.092
3.940E-06,0.096
3.950E-06,0.096
3.960E-06,0.100
3.970E-06,0.096
3.980E-06,0.096
3.990E-06,0.092
4.000E-06,0.096
4.010E-06,0.092
4.020E-06,0.096
4.030E-06,0.096
4.040E-06,0.096
4.050E-06,0.092
4.060E-06,0.092
4.070E-06,0.092
4.080E-06,0.092
4.090E-06,0.092
4.100E-06,0.092
4.110E-06,0.088
4.120E-06,0.088
4.130E-06,0.092
4.140E-06,0.088
4.150E-06,0.092
4.160E-06,0.092
4.170E-06,0.092
4.180E-06,0.088
4.190E-06,0.092
4.200E-06,0.088
4.210E-06,0.088
4.220E-06,0.088
4.230E-06,0.084
4.240E-06,0.084
4.250E-06,0.088
4.260E-06,0.084
4.270E-06,0.092
4.280E-06,0.088
4.290E-06,0.088
4.300E-06,0.084
4.310E-06,0.076
4.320E-06,0.088
4.330E-06,0.084
4.340E-06,0.088
4.350E-06,0.076
4.360E-06,0.084
4.370E-06,0.080
4.380E-06,0.076
4.390E-06,0.080
4.400E-06,0.076
4.410E-06,0.080
4.420E-06,0.076
4.430E-06,0.076
4.440E-06,0.076
4.450E-06,0.080
4.460E-06,0.076
4.470E-06,0.080
4.480E-06,0.072
4.490E-06,0.072
4.500E-06,0.076
4.510E-06,0.080
4.520E-06,0.076
4.530E-06,0.080
4.540E-06,0.076
4.550E-06,0.076
4.560E-06,0.072
4.570E-06,0.072
4.580E-06,0.080
4.590E-06,0.076
4.600E-06,0.072
4.610E-06,0.080
4.620E-06,0.076
4.630E-06,0.072
4.640E-06,0.080
4.650E-06,0.076
4.660E-06,0.080
4.670E-06,0.076
4.680E-06,0.072
4.690E-06,0.072
4.700E-06,0.072
4.710E-06,0.072
4.720E-06,0.072
4.730E-06,0.072
4.740E-06,0.072
4.750E-06,0.076
4.760E-06,0.076
4.770E-06,0.072
4.780E-06,0.076
4.790E-06,0.072
4.800E-06,0.072
4.810E-06,0.076
4.820E-06,0.076
4.830E-06,0.068
4.840E-06,0.068
4.850E-06,0.064
4.860E-06,0.068
4.870E-06,0.068
4.880E-06,0.068
4.890E-06,0.068
4.900E-06,0.072
4.910E-06,0.072
4.920E-06,0.064
4.930E-06,0.064
4.940E-06,0.072
4.950E-06,0.068
4.960E-06,0.068
4.970E-06,0.072
4.980E-06,0.072
4.990E-06,0.068
5.000E-06,0.064
5.010E-06,0.068
5.020E-06,0.064
5.030E-06,0.064
5.040E-06,0.068
5.050E-06,0.064
5.060E-06,0.068
5.070E-06,0.064
5.080E-06,0.064
5.090E-06,0.064
5.100E-06,0.068
5.110E-06,0.064
5.120E-06,0.064
5.130E-06,0.064
5.140E-06,0.064
5.150E-06,0.064
5.160E-06,0.064
5.170E-06,0.060
5.180E-06,0.064
5.190E-06,0.060
5.200E-06,0.056
5.210E-06,0.060
5.220E-06,0.060
5.230E-06,0.064
5.240E-06,0.060
5.250E-06,0.060
5.260E-06,0.060
5.270E-06,0.060
5.280E-06,0.060
5.290E-06,0.060
5.300E-06,0.064
5.310E-06,0.060
5.320E-06,0.060
5.330E-06,0.060
5.340E-06,0.060
5.350E-06,0.060
5.360E-06,0.056
5.370E-06,0.060
5.380E-06,0.060
5.390E-06,0.056
5.400E-06,0.056
5.410E-06,0.056
5.420E-06,0.052
5.430E-06,0.056
5.440E-06,0.056
5.450E-06,0.052
5.460E-06,0.056
5.470E-06,0.056
5.480E-06,0.056
5.490E-06,0.052
5.500E-06,0.056
5.510E-06,0.052
5.520E-06,0.056
5.530E-06,0.056
5.540E-06,0.052
5.550E-06,0.052
5.560E-06,0.056
5.570E-06,0.052
5.580E-06,0.052
5.590E-06,0.052
5.600E-06,0.052
5.610E-06,0.052
5.620E-06,0.056
5.630E-06,0.048
5.640E-06,0.048
5.650E-06,0.044
5.660E-06,0.048
5.670E-06,0.052
5.680E-06,0.052
5.690E-06,0.048
5.700E-06,0.040
5.710E-06,0.044
5.720E-06,0.044
5.730E-06,0.048
5.740E-06,0.052
5.750E-06,0.048
5.760E-06,0.048
5.770E-06,0.048
5.780E-06,0.044
5.790E-06,0.044
5.800E-06,0.044
5.810E-06,0.044
5.820E-06,0.044
5.830E-06,0.044
5.840E-06,0.040
5.850E-06,0.044
5.860E-06,0.044
5.870E-06,0.040
5.880E-06,0.040
5.890E-06,0.048
5.900E-06,0.048
5.910E-06,0.044
5.920E-06,0.044
5.930E-06,0.048
5.940E-06,0.048
5.950E-06,0.040
5.960E-06,0.044
5.970E-06,0.040
5.980E-06,0.044
5.990E-06,0.040
6.000E-06,0.040
6.010E-06,0.040
6.020E-06,0.044
6.030E-06,0.036
6.040E-06,0.036
6.050E-06,0.036
6.060E-06,0.032
6.070E-06,0.040
6.080E-06,0.044
6.090E-06,0.040
6.100E-06,0.036
6.110E-06,0.036
6.120E-06,0.036
6.130E-06,0.032
6.140E-06,0.036
6.150E-06,0.040
6.160E-06,0.040
6.170E-06,0.028
6.180E-06,0.032
6.190E-06,0.028
6.200E-06,0.032
6.210E-06,0.036
6.220E-06,0.036
6.230E-06,0.036
6.240E-06,0.032
6.250E-06,0.032
6.260E-06,0.036
6.270E-06,0.040
6.280E-06,0.032
6.290E-06,0.032
6.300E-06,0.040
6.310E-06,0.036
