mediciones/Mediciones filtradas (saque las feas)/5-27/-57.5/WaveData50322.csv

#timebase=2000000(ps)
,#voltbase=1000000(mv/100)
#size=4000
-5.650E-06,0.080
-5.640E-06,0.040
-5.630E-06,0.040
-5.620E-06,0.080
-5.610E-06,0.080
-5.600E-06,0.080
-5.590E-06,0.040
-5.580E-06,0.080
-5.570E-06,0.040
-5.560E-06,0.080
-5.550E-06,0.040
-5.540E-06,0.080
-5.530E-06,0.040
-5.520E-06,0.000
-5.510E-06,0.080
-5.500E-06,0.040
-5.490E-06,0.040
-5.480E-06,0.080
-5.470E-06,0.080
-5.460E-06,0.040
-5.450E-06,0.080
-5.440E-06,0.080
-5.430E-06,0.080
-5.420E-06,0.000
-5.410E-06,0.040
-5.400E-06,0.040
-5.390E-06,0.080
-5.380E-06,0.040
-5.370E-06,0.040
-5.360E-06,0.040
-5.350E-06,0.080
-5.340E-06,0.080
-5.330E-06,0.080
-5.320E-06,0.040
-5.310E-06,0.080
-5.300E-06,0.080
-5.290E-06,0.080
-5.280E-06,0.040
-5.270E-06,0.080
-5.260E-06,0.040
-5.250E-06,0.040
-5.240E-06,0.040
-5.230E-06,0.000
-5.220E-06,0.040
-5.210E-06,0.000
-5.200E-06,0.080
-5.190E-06,0.080
-5.180E-06,0.040
-5.170E-06,0.080
-5.160E-06,0.000
-5.150E-06,0.000
-5.140E-06,0.080
-5.130E-06,0.040
-5.120E-06,0.080
-5.110E-06,0.080
-5.100E-06,0.120
-5.090E-06,0.080
-5.080E-06,0.120
-5.070E-06,0.000
-5.060E-06,0.040
-5.050E-06,0.040
-5.040E-06,0.040
-5.030E-06,0.080
-5.020E-06,0.080
-5.010E-06,0.080
-5.000E-06,0.040
-4.990E-06,0.080
-4.980E-06,0.080
-4.970E-06,0.040
-4.960E-06,0.040
-4.950E-06,0.040
-4.940E-06,0.080
-4.930E-06,0.040
-4.920E-06,0.040
-4.910E-06,0.080
-4.900E-06,0.120
-4.890E-06,0.120
-4.880E-06,0.080
-4.870E-06,0.120
-4.860E-06,0.120
-4.850E-06,0.080
-4.840E-06,0.000
-4.830E-06,0.040
-4.820E-06,0.040
-4.810E-06,0.040
-4.800E-06,0.120
-4.790E-06,0.080
-4.780E-06,0.000
-4.770E-06,0.000
-4.760E-06,0.080
-4.750E-06,0.040
-4.740E-06,0.040
-4.730E-06,0.080
-4.720E-06,0.080
-4.710E-06,0.120
-4.700E-06,0.040
-4.690E-06,0.040
-4.680E-06,0.080
-4.670E-06,0.000
-4.660E-06,0.080
-4.650E-06,0.080
-4.640E-06,0.080
-4.630E-06,0.080
-4.620E-06,0.080
-4.610E-06,0.040
-4.600E-06,0.080
-4.590E-06,0.080
-4.580E-06,0.040
-4.570E-06,0.080
-4.560E-06,0.040
-4.550E-06,0.040
-4.540E-06,0.080
-4.530E-06,0.120
-4.520E-06,0.120
-4.510E-06,0.080
-4.500E-06,0.040
-4.490E-06,0.000
-4.480E-06,0.040
-4.470E-06,0.080
-4.460E-06,0.040
-4.450E-06,-0.040
-4.440E-06,0.040
-4.430E-06,0.000
-4.420E-06,0.000
-4.410E-06,0.000
-4.400E-06,-0.040
-4.390E-06,0.040
-4.380E-06,-0.040
-4.370E-06,0.000
-4.360E-06,0.000
-4.350E-06,0.040
-4.340E-06,0.080
-4.330E-06,0.040
-4.320E-06,-0.040
-4.310E-06,0.000
-4.300E-06,0.000
-4.290E-06,0.000
-4.280E-06,0.040
-4.270E-06,0.040
-4.260E-06,-0.040
-4.250E-06,0.000
-4.240E-06,0.000
-4.230E-06,0.000
-4.220E-06,-0.040
-4.210E-06,0.000
-4.200E-06,0.080
-4.190E-06,0.080
-4.180E-06,0.000
-4.170E-06,0.040
-4.160E-06,0.040
-4.150E-06,0.040
-4.140E-06,0.040
-4.130E-06,0.080
-4.120E-06,0.120
-4.110E-06,0.120
-4.100E-06,0.080
-4.090E-06,0.080
-4.080E-06,0.080
-4.070E-06,0.080
-4.060E-06,0.080
-4.050E-06,0.160
-4.040E-06,0.120
-4.030E-06,0.080
-4.020E-06,0.080
-4.010E-06,0.080
-4.000E-06,0.080
-3.990E-06,0.120
-3.980E-06,0.160
-3.970E-06,0.080
-3.960E-06,0.040
-3.950E-06,0.080
-3.940E-06,0.120
-3.930E-06,0.080
-3.920E-06,0.040
-3.910E-06,0.080
-3.900E-06,0.120
-3.890E-06,0.120
-3.880E-06,0.120
-3.870E-06,0.040
-3.860E-06,0.080
-3.850E-06,0.080
-3.840E-06,0.080
-3.830E-06,0.080
-3.820E-06,0.080
-3.810E-06,0.080
-3.800E-06,0.120
-3.790E-06,0.120
-3.780E-06,0.040
-3.770E-06,0.040
-3.760E-06,0.080
-3.750E-06,0.120
-3.740E-06,0.120
-3.730E-06,0.120
-3.720E-06,0.040
-3.710E-06,0.080
-3.700E-06,0.040
-3.690E-06,0.080
-3.680E-06,0.120
-3.670E-06,0.000
-3.660E-06,0.080
-3.650E-06,0.080
-3.640E-06,0.040
-3.630E-06,0.040
-3.620E-06,0.040
-3.610E-06,0.080
-3.600E-06,0.120
-3.590E-06,0.080
-3.580E-06,0.040
-3.570E-06,0.000
-3.560E-06,0.040
-3.550E-06,0.040
-3.540E-06,0.040
-3.530E-06,0.080
-3.520E-06,0.080
-3.510E-06,0.080
-3.500E-06,0.080
-3.490E-06,0.040
-3.480E-06,0.080
-3.470E-06,0.080
-3.460E-06,0.080
-3.450E-06,0.080
-3.440E-06,0.120
-3.430E-06,0.080
-3.420E-06,0.080
-3.410E-06,0.080
-3.400E-06,0.080
-3.390E-06,0.080
-3.380E-06,0.080
-3.370E-06,0.080
-3.360E-06,0.120
-3.350E-06,0.040
-3.340E-06,0.080
-3.330E-06,0.160
-3.320E-06,0.080
-3.310E-06,0.040
-3.300E-06,0.040
-3.290E-06,0.080
-3.280E-06,0.040
-3.270E-06,0.080
-3.260E-06,0.080
-3.250E-06,0.080
-3.240E-06,0.080
-3.230E-06,0.080
-3.220E-06,0.040
-3.210E-06,0.040
-3.200E-06,0.080
-3.190E-06,0.080
-3.180E-06,0.080
-3.170E-06,0.080
-3.160E-06,0.080
-3.150E-06,0.080
-3.140E-06,0.040
-3.130E-06,0.080
-3.120E-06,0.040
-3.110E-06,0.080
-3.100E-06,0.080
-3.090E-06,0.120
-3.080E-06,0.000
-3.070E-06,0.080
-3.060E-06,0.080
-3.050E-06,0.080
-3.040E-06,0.080
-3.030E-06,0.080
-3.020E-06,0.080
-3.010E-06,0.000
-3.000E-06,0.040
-2.990E-06,0.120
-2.980E-06,0.120
-2.970E-06,0.120
-2.960E-06,0.160
-2.950E-06,0.080
-2.940E-06,0.080
-2.930E-06,0.160
-2.920E-06,0.200
-2.910E-06,0.200
-2.900E-06,0.240
-2.890E-06,0.200
-2.880E-06,0.200
-2.870E-06,0.080
-2.860E-06,0.160
-2.850E-06,0.200
-2.840E-06,0.120
-2.830E-06,0.080
-2.820E-06,0.120
-2.810E-06,0.120
-2.800E-06,0.120
-2.790E-06,0.200
-2.780E-06,0.160
-2.770E-06,0.160
-2.760E-06,0.200
-2.750E-06,0.160
-2.740E-06,0.200
-2.730E-06,0.120
-2.720E-06,0.200
-2.710E-06,0.200
-2.700E-06,0.240
-2.690E-06,0.200
-2.680E-06,0.120
-2.670E-06,0.160
-2.660E-06,0.200
-2.650E-06,0.200
-2.640E-06,0.160
-2.630E-06,0.200
-2.620E-06,0.160
-2.610E-06,0.200
-2.600E-06,0.160
-2.590E-06,0.160
-2.580E-06,0.160
-2.570E-06,0.200
-2.560E-06,0.160
-2.550E-06,0.200
-2.540E-06,0.200
-2.530E-06,0.160
-2.520E-06,0.120
-2.510E-06,0.120
-2.500E-06,0.160
-2.490E-06,0.240
-2.480E-06,0.240
-2.470E-06,0.240
-2.460E-06,0.240
-2.450E-06,0.200
-2.440E-06,0.240
-2.430E-06,0.280
-2.420E-06,0.280
-2.410E-06,0.360
-2.400E-06,0.320
-2.390E-06,0.360
-2.380E-06,0.360
-2.370E-06,0.400
-2.360E-06,0.400
-2.350E-06,0.480
-2.340E-06,0.440
-2.330E-06,0.520
-2.320E-06,0.480
-2.310E-06,0.520
-2.300E-06,0.600
-2.290E-06,0.520
-2.280E-06,0.600
-2.270E-06,0.560
-2.260E-06,0.560
-2.250E-06,0.600
-2.240E-06,0.520
-2.230E-06,0.560
-2.220E-06,0.600
-2.210E-06,0.640
-2.200E-06,0.680
-2.190E-06,0.600
-2.180E-06,0.640
-2.170E-06,0.600
-2.160E-06,0.600
-2.150E-06,0.600
-2.140E-06,0.680
-2.130E-06,0.680
-2.120E-06,0.640
-2.110E-06,0.640
-2.100E-06,0.680
-2.090E-06,0.680
-2.080E-06,0.680
-2.070E-06,0.680
-2.060E-06,0.760
-2.050E-06,0.800
-2.040E-06,0.840
-2.030E-06,0.840
-2.020E-06,0.840
-2.010E-06,0.800
-2.000E-06,0.800
-1.990E-06,0.800
-1.980E-06,0.840
-1.970E-06,0.880
-1.960E-06,0.840
-1.950E-06,0.800
-1.940E-06,0.840
-1.930E-06,0.840
-1.920E-06,0.840
-1.910E-06,0.840
-1.900E-06,0.840
-1.890E-06,0.880
-1.880E-06,0.880
-1.870E-06,0.880
-1.860E-06,0.880
-1.850E-06,0.840
-1.840E-06,0.880
-1.830E-06,0.880
-1.820E-06,0.840
-1.810E-06,0.720
-1.800E-06,0.760
-1.790E-06,0.760
-1.780E-06,0.760
-1.770E-06,0.760
-1.760E-06,0.760
-1.750E-06,0.720
-1.740E-06,0.720
-1.730E-06,0.680
-1.720E-06,0.680
-1.710E-06,0.720
-1.700E-06,0.720
-1.690E-06,0.840
-1.680E-06,0.720
-1.670E-06,0.840
-1.660E-06,0.840
-1.650E-06,0.840
-1.640E-06,0.840
-1.630E-06,0.880
-1.620E-06,0.920
-1.610E-06,1.000
-1.600E-06,1.040
-1.590E-06,1.000
-1.580E-06,1.000
-1.570E-06,1.040
-1.560E-06,1.080
-1.550E-06,1.080
-1.540E-06,1.160
-1.530E-06,1.200
-1.520E-06,1.240
-1.510E-06,1.200
-1.500E-06,1.200
-1.490E-06,1.240
-1.480E-06,1.280
-1.470E-06,1.280
-1.460E-06,1.320
-1.450E-06,1.320
-1.440E-06,1.360
-1.430E-06,1.400
-1.420E-06,1.400
-1.410E-06,1.440
-1.400E-06,1.440
-1.390E-06,1.520
-1.380E-06,1.400
-1.370E-06,1.440
-1.360E-06,1.400
-1.350E-06,1.320
-1.340E-06,1.280
-1.330E-06,1.240
-1.320E-06,1.280
-1.310E-06,1.120
-1.300E-06,1.160
-1.290E-06,1.120
-1.280E-06,1.040
-1.270E-06,0.920
-1.260E-06,0.840
-1.250E-06,0.800
-1.240E-06,0.800
-1.230E-06,0.880
-1.220E-06,0.840
-1.210E-06,0.720
-1.200E-06,0.800
-1.190E-06,0.640
-1.180E-06,0.720
-1.170E-06,0.760
-1.160E-06,0.680
-1.150E-06,0.760
-1.140E-06,0.720
-1.130E-06,0.800
-1.120E-06,0.880
-1.110E-06,0.840
-1.100E-06,0.880
-1.090E-06,0.880
-1.080E-06,0.960
-1.070E-06,1.000
-1.060E-06,1.120
-1.050E-06,1.160
-1.040E-06,1.200
-1.030E-06,1.280
-1.020E-06,1.280
-1.010E-06,1.280
-1.000E-06,1.360
-9.900E-07,1.320
-9.800E-07,1.240
-9.700E-07,1.240
-9.600E-07,1.240
-9.500E-07,1.280
-9.400E-07,1.280
-9.300E-07,1.200
-9.200E-07,1.120
-9.100E-07,1.080
-9.000E-07,1.000
-8.900E-07,0.920
-8.800E-07,0.880
-8.700E-07,0.760
-8.600E-07,0.720
-8.500E-07,0.680
-8.400E-07,0.560
-8.300E-07,0.600
-8.200E-07,0.520
-8.100E-07,0.480
-8.000E-07,0.600
-7.900E-07,0.560
-7.800E-07,0.640
-7.700E-07,0.600
-7.600E-07,0.680
-7.500E-07,0.600
-7.400E-07,0.640
-7.300E-07,0.680
-7.200E-07,0.600
-7.100E-07,0.560
-7.000E-07,0.560
-6.900E-07,0.560
-6.800E-07,0.480
-6.700E-07,0.480
-6.600E-07,0.400
-6.500E-07,0.400
-6.400E-07,0.320
-6.300E-07,0.240
-6.200E-07,0.200
-6.100E-07,0.160
-6.000E-07,0.200
-5.900E-07,0.120
-5.800E-07,0.000
-5.700E-07,0.000
-5.600E-07,-0.040
-5.500E-07,-0.080
-5.400E-07,-0.160
-5.300E-07,-0.160
-5.200E-07,-0.240
-5.100E-07,-0.240
-5.000E-07,-0.280
-4.900E-07,-0.280
-4.800E-07,-0.200
-4.700E-07,-0.280
-4.600E-07,-0.240
-4.500E-07,-0.280
-4.400E-07,-0.240
-4.300E-07,-0.240
-4.200E-07,-0.200
-4.100E-07,-0.160
-4.000E-07,-0.200
-3.900E-07,-0.160
-3.800E-07,-0.120
-3.700E-07,-0.080
-3.600E-07,-0.160
-3.500E-07,-0.120
-3.400E-07,-0.240
-3.300E-07,-0.280
-3.200E-07,-0.320
-3.100E-07,-0.360
-3.000E-07,-0.360
-2.900E-07,-0.440
-2.800E-07,-0.520
-2.700E-07,-0.640
-2.600E-07,-0.840
-2.500E-07,-1.080
-2.400E-07,-1.320
-2.300E-07,-1.600
-2.200E-07,-2.040
-2.100E-07,-2.720
-2.000E-07,-3.520
-1.900E-07,-4.640
-1.800E-07,-5.240
-1.700E-07,-5.200
-1.600E-07,-5.240
-1.500E-07,-5.240
-1.400E-07,-5.240
-1.300E-07,-5.240
-1.200E-07,-5.240
-1.100E-07,-5.240
-1.000E-07,-5.240
-9.000E-08,-5.240
-8.000E-08,-5.240
-7.000E-08,-5.200
-6.000E-08,-5.240
-5.000E-08,-5.240
-4.000E-08,-5.240
-3.000E-08,-5.240
-2.000E-08,-5.240
-1.000E-08,-5.200
0.000E+00,-5.200
1.000E-08,-5.200
2.000E-08,-5.200
3.000E-08,-5.240
4.000E-08,-5.240
5.000E-08,-5.240
6.000E-08,-5.200
7.000E-08,-5.200
8.000E-08,-5.200
9.000E-08,-5.240
1.000E-07,-5.240
1.100E-07,-5.200
1.200E-07,-5.200
1.300E-07,-5.200
1.400E-07,-5.200
1.500E-07,-5.200
1.600E-07,-5.200
1.700E-07,-5.240
1.800E-07,-5.240
1.900E-07,-5.200
2.000E-07,-5.240
2.100E-07,-5.240
2.200E-07,-5.240
2.300E-07,-5.200
2.400E-07,-5.240
2.500E-07,-5.240
2.600E-07,-5.240
2.700E-07,-5.240
2.800E-07,-5.240
2.900E-07,-5.240
3.000E-07,-5.240
3.100E-07,-5.240
3.200E-07,-5.240
3.300E-07,-5.240
3.400E-07,-5.200
3.500E-07,-5.240
3.600E-07,-5.240
3.700E-07,-5.200
3.800E-07,-5.240
3.900E-07,-5.240
4.000E-07,-5.240
4.100E-07,-5.240
4.200E-07,-5.200
4.300E-07,-5.240
4.400E-07,-5.240
4.500E-07,-5.240
4.600E-07,-5.240
4.700E-07,-5.240
4.800E-07,-5.240
4.900E-07,-5.240
5.000E-07,-5.200
5.100E-07,-5.200
5.200E-07,-5.080
5.300E-07,-4.960
5.400E-07,-4.840
5.500E-07,-4.720
5.600E-07,-4.680
5.700E-07,-4.680
5.800E-07,-4.680
5.900E-07,-4.600
6.000E-07,-4.600
6.100E-07,-4.640
6.200E-07,-4.640
6.300E-07,-4.640
6.400E-07,-4.600
6.500E-07,-4.560
6.600E-07,-4.520
6.700E-07,-4.520
6.800E-07,-4.440
6.900E-07,-4.480
7.000E-07,-4.480
7.100E-07,-4.440
7.200E-07,-4.360
7.300E-07,-4.320
7.400E-07,-4.280
7.500E-07,-4.240
7.600E-07,-4.200
7.700E-07,-4.120
7.800E-07,-4.040
7.900E-07,-4.040
8.000E-07,-4.000
8.100E-07,-3.880
8.200E-07,-3.880
8.300E-07,-3.840
8.400E-07,-3.840
8.500E-07,-3.760
8.600E-07,-3.760
8.700E-07,-3.640
8.800E-07,-3.600
8.900E-07,-3.600
9.000E-07,-3.560
9.100E-07,-3.480
9.200E-07,-3.480
9.300E-07,-3.440
9.400E-07,-3.320
9.500E-07,-3.280
9.600E-07,-3.280
9.700E-07,-3.360
9.800E-07,-3.360
9.900E-07,-3.360
1.000E-06,-3.360
1.010E-06,-3.360
1.020E-06,-3.360
1.030E-06,-3.520
1.040E-06,-3.560
1.050E-06,-3.560
1.060E-06,-3.600
1.070E-06,-3.600
1.080E-06,-3.640
1.090E-06,-3.560
1.100E-06,-3.560
1.110E-06,-3.480
1.120E-06,-3.440
1.130E-06,-3.360
1.140E-06,-3.240
1.150E-06,-3.040
1.160E-06,-2.880
1.170E-06,-2.720
1.180E-06,-2.600
1.190E-06,-2.440
1.200E-06,-2.280
1.210E-06,-2.160
1.220E-06,-2.080
1.230E-06,-1.960
1.240E-06,-1.840
1.250E-06,-1.800
1.260E-06,-1.720
1.270E-06,-1.680
1.280E-06,-1.680
1.290E-06,-1.640
1.300E-06,-1.600
1.310E-06,-1.560
1.320E-06,-1.560
1.330E-06,-1.600
1.340E-06,-1.640
1.350E-06,-1.680
1.360E-06,-1.760
1.370E-06,-1.920
1.380E-06,-2.040
1.390E-06,-2.160
1.400E-06,-2.320
1.410E-06,-2.480
1.420E-06,-2.520
1.430E-06,-2.640
1.440E-06,-2.680
1.450E-06,-2.680
1.460E-06,-2.720
1.470E-06,-2.640
1.480E-06,-2.640
1.490E-06,-2.480
1.500E-06,-2.440
1.510E-06,-2.320
1.520E-06,-2.280
1.530E-06,-2.200
1.540E-06,-2.160
1.550E-06,-2.080
1.560E-06,-2.080
1.570E-06,-2.040
1.580E-06,-2.000
1.590E-06,-1.960
1.600E-06,-2.040
1.610E-06,-2.040
1.620E-06,-2.040
1.630E-06,-2.040
1.640E-06,-1.920
1.650E-06,-2.000
1.660E-06,-1.920
1.670E-06,-1.960
1.680E-06,-1.960
1.690E-06,-1.960
1.700E-06,-1.960
1.710E-06,-1.920
1.720E-06,-1.880
1.730E-06,-1.840
1.740E-06,-1.760
1.750E-06,-1.680
1.760E-06,-1.600
1.770E-06,-1.400
1.780E-06,-1.200
1.790E-06,-1.120
1.800E-06,-1.040
1.810E-06,-1.080
1.820E-06,-1.040
1.830E-06,-1.120
1.840E-06,-1.160
1.850E-06,-1.200
1.860E-06,-1.240
1.870E-06,-1.280
1.880E-06,-1.400
1.890E-06,-1.440
1.900E-06,-1.600
1.910E-06,-1.720
1.920E-06,-1.760
1.930E-06,-1.840
1.940E-06,-1.880
1.950E-06,-1.880
1.960E-06,-2.000
1.970E-06,-2.080
1.980E-06,-2.080
1.990E-06,-2.040
2.000E-06,-2.040
2.010E-06,-2.000
2.020E-06,-2.040
2.030E-06,-2.000
2.040E-06,-2.000
2.050E-06,-1.920
2.060E-06,-1.840
2.070E-06,-1.840
2.080E-06,-1.840
2.090E-06,-1.840
2.100E-06,-1.800
2.110E-06,-1.760
2.120E-06,-1.720
2.130E-06,-1.720
2.140E-06,-1.680
2.150E-06,-1.680
2.160E-06,-1.600
2.170E-06,-1.520
2.180E-06,-1.480
2.190E-06,-1.360
2.200E-06,-1.320
2.210E-06,-1.280
2.220E-06,-1.200
2.230E-06,-1.040
2.240E-06,-1.000
2.250E-06,-1.000
2.260E-06,-0.840
2.270E-06,-0.800
2.280E-06,-0.800
2.290E-06,-0.800
2.300E-06,-0.840
2.310E-06,-0.920
2.320E-06,-0.960
2.330E-06,-1.000
2.340E-06,-1.040
2.350E-06,-1.120
2.360E-06,-1.160
2.370E-06,-1.240
2.380E-06,-1.280
2.390E-06,-1.320
2.400E-06,-1.520
2.410E-06,-1.600
2.420E-06,-1.680
2.430E-06,-1.800
2.440E-06,-1.840
2.450E-06,-1.880
2.460E-06,-1.840
2.470E-06,-1.800
2.480E-06,-1.720
2.490E-06,-1.680
2.500E-06,-1.680
2.510E-06,-1.680
2.520E-06,-1.680
2.530E-06,-1.680
2.540E-06,-1.680
2.550E-06,-1.640
2.560E-06,-1.560
2.570E-06,-1.400
2.580E-06,-1.360
2.590E-06,-1.200
2.600E-06,-1.000
2.610E-06,-0.920
2.620E-06,-0.880
2.630E-06,-0.800
2.640E-06,-0.760
2.650E-06,-0.640
2.660E-06,-0.640
2.670E-06,-0.680
2.680E-06,-0.680
2.690E-06,-0.640
2.700E-06,-0.640
2.710E-06,-0.640
2.720E-06,-0.680
2.730E-06,-0.760
2.740E-06,-0.840
2.750E-06,-0.960
2.760E-06,-1.080
2.770E-06,-1.200
2.780E-06,-1.280
2.790E-06,-1.280
2.800E-06,-1.320
2.810E-06,-1.400
2.820E-06,-1.480
2.830E-06,-1.600
2.840E-06,-1.600
2.850E-06,-1.600
2.860E-06,-1.600
2.870E-06,-1.520
2.880E-06,-1.520
2.890E-06,-1.440
2.900E-06,-1.440
2.910E-06,-1.320
2.920E-06,-1.240
2.930E-06,-1.040
2.940E-06,-0.880
2.950E-06,-0.760
2.960E-06,-0.640
2.970E-06,-0.600
2.980E-06,-0.560
2.990E-06,-0.520
3.000E-06,-0.600
3.010E-06,-0.640
3.020E-06,-0.840
3.030E-06,-1.000
3.040E-06,-1.120
3.050E-06,-1.160
3.060E-06,-1.320
3.070E-06,-1.440
3.080E-06,-1.520
3.090E-06,-1.600
3.100E-06,-1.640
3.110E-06,-1.720
3.120E-06,-1.680
3.130E-06,-1.680
3.140E-06,-1.720
3.150E-06,-1.680
3.160E-06,-1.640
3.170E-06,-1.520
3.180E-06,-1.440
3.190E-06,-1.360
3.200E-06,-1.200
3.210E-06,-1.040
3.220E-06,-0.960
3.230E-06,-0.800
3.240E-06,-0.680
3.250E-06,-0.520
3.260E-06,-0.400
3.270E-06,-0.200
3.280E-06,-0.040
3.290E-06,0.000
3.300E-06,0.080
3.310E-06,0.200
3.320E-06,0.240
3.330E-06,0.240
3.340E-06,0.280
3.350E-06,0.240
3.360E-06,0.240
3.370E-06,0.080
3.380E-06,0.040
3.390E-06,0.000
3.400E-06,0.000
3.410E-06,-0.080
3.420E-06,-0.200
3.430E-06,-0.240
3.440E-06,-0.280
3.450E-06,-0.320
3.460E-06,-0.400
3.470E-06,-0.480
3.480E-06,-0.480
3.490E-06,-0.560
3.500E-06,-0.600
3.510E-06,-0.640
3.520E-06,-0.640
3.530E-06,-0.680
3.540E-06,-0.720
3.550E-06,-0.760
3.560E-06,-0.720
3.570E-06,-0.720
3.580E-06,-0.720
3.590E-06,-0.720
3.600E-06,-0.680
3.610E-06,-0.680
3.620E-06,-0.600
3.630E-06,-0.560
3.640E-06,-0.520
3.650E-06,-0.400
3.660E-06,-0.320
3.670E-06,-0.280
3.680E-06,-0.240
3.690E-06,-0.200
3.700E-06,-0.120
3.710E-06,0.000
3.720E-06,0.000
3.730E-06,0.040
3.740E-06,0.120
3.750E-06,0.200
3.760E-06,0.280
3.770E-06,0.360
3.780E-06,0.400
3.790E-06,0.480
3.800E-06,0.480
3.810E-06,0.520
3.820E-06,0.520
3.830E-06,0.520
3.840E-06,0.480
3.850E-06,0.440
3.860E-06,0.440
3.870E-06,0.320
3.880E-06,0.280
3.890E-06,0.120
3.900E-06,0.080
3.910E-06,-0.040
3.920E-06,-0.120
3.930E-06,-0.160
3.940E-06,-0.200
3.950E-06,-0.240
3.960E-06,-0.240
3.970E-06,-0.240
3.980E-06,-0.240
3.990E-06,-0.120
4.000E-06,-0.160
4.010E-06,-0.120
4.020E-06,-0.080
4.030E-06,-0.080
4.040E-06,-0.080
4.050E-06,-0.080
4.060E-06,-0.040
4.070E-06,-0.120
4.080E-06,-0.080
4.090E-06,-0.080
4.100E-06,-0.080
4.110E-06,0.000
4.120E-06,0.000
4.130E-06,-0.040
4.140E-06,0.000
4.150E-06,0.120
4.160E-06,0.040
4.170E-06,0.120
4.180E-06,0.160
4.190E-06,0.160
4.200E-06,0.240
4.210E-06,0.200
4.220E-06,0.280
4.230E-06,0.360
4.240E-06,0.320
4.250E-06,0.280
4.260E-06,0.280
4.270E-06,0.160
4.280E-06,0.160
4.290E-06,0.040
4.300E-06,0.000
4.310E-06,-0.040
4.320E-06,-0.160
4.330E-06,-0.240
4.340E-06,-0.440
4.350E-06,-0.480
4.360E-06,-0.680
4.370E-06,-0.760
4.380E-06,-0.840
4.390E-06,-0.920
4.400E-06,-1.000
4.410E-06,-1.000
4.420E-06,-0.960
4.430E-06,-0.840
4.440E-06,-0.800
4.450E-06,-0.760
4.460E-06,-0.720
4.470E-06,-0.640
4.480E-06,-0.640
4.490E-06,-0.680
4.500E-06,-0.600
4.510E-06,-0.560
4.520E-06,-0.560
4.530E-06,-0.480
4.540E-06,-0.320
4.550E-06,-0.200
4.560E-06,-0.120
4.570E-06,-0.080
4.580E-06,-0.040
4.590E-06,0.080
4.600E-06,0.160
4.610E-06,0.200
4.620E-06,0.360
4.630E-06,0.400
4.640E-06,0.440
4.650E-06,0.480
4.660E-06,0.480
4.670E-06,0.560
4.680E-06,0.600
4.690E-06,0.600
4.700E-06,0.680
4.710E-06,0.680
4.720E-06,0.640
4.730E-06,0.640
4.740E-06,0.680
4.750E-06,0.640
4.760E-06,0.640
4.770E-06,0.640
4.780E-06,0.600
4.790E-06,0.600
4.800E-06,0.560
4.810E-06,0.600
4.820E-06,0.600
4.830E-06,0.520
4.840E-06,0.520
4.850E-06,0.480
4.860E-06,0.400
4.870E-06,0.360
4.880E-06,0.320
4.890E-06,0.320
4.900E-06,0.360
4.910E-06,0.360
4.920E-06,0.360
4.930E-06,0.360
4.940E-06,0.440
4.950E-06,0.440
4.960E-06,0.400
4.970E-06,0.400
4.980E-06,0.440
4.990E-06,0.480
5.000E-06,0.440
5.010E-06,0.440
5.020E-06,0.400
5.030E-06,0.360
5.040E-06,0.360
5.050E-06,0.320
5.060E-06,0.240
5.070E-06,0.280
5.080E-06,0.360
5.090E-06,0.360
5.100E-06,0.360
5.110E-06,0.400
5.120E-06,0.400
5.130E-06,0.440
5.140E-06,0.480
5.150E-06,0.440
5.160E-06,0.480
5.170E-06,0.440
5.180E-06,0.440
5.190E-06,0.440
5.200E-06,0.480
5.210E-06,0.400
5.220E-06,0.400
5.230E-06,0.440
5.240E-06,0.400
5.250E-06,0.360
5.260E-06,0.400
5.270E-06,0.360
5.280E-06,0.400
5.290E-06,0.440
5.300E-06,0.480
5.310E-06,0.440
5.320E-06,0.440
5.330E-06,0.440
5.340E-06,0.480
5.350E-06,0.480
5.360E-06,0.440
5.370E-06,0.440
5.380E-06,0.480
5.390E-06,0.440
5.400E-06,0.400
5.410E-06,0.480
5.420E-06,0.440
5.430E-06,0.520
5.440E-06,0.480
5.450E-06,0.560
5.460E-06,0.600
5.470E-06,0.640
5.480E-06,0.720
5.490E-06,0.840
5.500E-06,0.920
5.510E-06,1.080
5.520E-06,1.320
5.530E-06,1.520
5.540E-06,1.760
5.550E-06,2.000
5.560E-06,2.320
5.570E-06,2.680
5.580E-06,3.120
5.590E-06,3.520
5.600E-06,3.760
5.610E-06,4.200
5.620E-06,4.520
5.630E-06,4.880
5.640E-06,5.200
5.650E-06,5.440
5.660E-06,5.440
5.670E-06,5.400
5.680E-06,5.440
5.690E-06,5.440
5.700E-06,5.440
5.710E-06,5.440
5.720E-06,5.440
5.730E-06,5.440
5.740E-06,5.440
5.750E-06,5.400
5.760E-06,5.440
5.770E-06,5.440
5.780E-06,5.440
5.790E-06,5.440
5.800E-06,5.480
5.810E-06,5.400
5.820E-06,5.440
5.830E-06,5.440
5.840E-06,5.440
5.850E-06,5.480
5.860E-06,5.480
5.870E-06,5.400
5.880E-06,5.400
5.890E-06,5.440
5.900E-06,5.280
5.910E-06,5.160
5.920E-06,5.000
5.930E-06,4.880
5.940E-06,4.840
5.950E-06,4.720
5.960E-06,4.520
5.970E-06,4.520
5.980E-06,4.400
5.990E-06,4.280
6.000E-06,4.160
6.010E-06,4.080
6.020E-06,4.000
6.030E-06,3.920
6.040E-06,3.840
6.050E-06,3.720
6.060E-06,3.560
6.070E-06,3.520
6.080E-06,3.440
6.090E-06,3.360
6.100E-06,3.280
6.110E-06,3.160
6.120E-06,3.080
6.130E-06,2.960
6.140E-06,2.840
6.150E-06,2.760
