mediciones/Mediciones filtradas (saque las feas)/5-27/-57.5/WaveData50330.csv

#timebase=2000000(ps)
,#voltbase=1000000(mv/100)
#size=4000
-5.650E-06,0.120
-5.640E-06,0.000
-5.630E-06,0.040
-5.620E-06,0.080
-5.610E-06,0.080
-5.600E-06,0.040
-5.590E-06,0.040
-5.580E-06,0.040
-5.570E-06,0.040
-5.560E-06,0.080
-5.550E-06,0.040
-5.540E-06,0.040
-5.530E-06,0.080
-5.520E-06,0.080
-5.510E-06,0.040
-5.500E-06,0.040
-5.490E-06,0.040
-5.480E-06,0.000
-5.470E-06,0.040
-5.460E-06,0.040
-5.450E-06,0.080
-5.440E-06,0.040
-5.430E-06,0.080
-5.420E-06,0.040
-5.410E-06,0.000
-5.400E-06,0.040
-5.390E-06,0.120
-5.380E-06,0.080
-5.370E-06,0.080
-5.360E-06,0.120
-5.350E-06,0.000
-5.340E-06,0.080
-5.330E-06,0.080
-5.320E-06,0.040
-5.310E-06,0.000
-5.300E-06,0.080
-5.290E-06,0.000
-5.280E-06,0.000
-5.270E-06,0.040
-5.260E-06,0.000
-5.250E-06,0.040
-5.240E-06,0.000
-5.230E-06,0.040
-5.220E-06,0.080
-5.210E-06,0.080
-5.200E-06,0.080
-5.190E-06,0.000
-5.180E-06,0.000
-5.170E-06,0.040
-5.160E-06,0.040
-5.150E-06,0.080
-5.140E-06,0.040
-5.130E-06,0.040
-5.120E-06,0.080
-5.110E-06,0.080
-5.100E-06,0.040
-5.090E-06,0.040
-5.080E-06,0.080
-5.070E-06,0.040
-5.060E-06,0.040
-5.050E-06,0.040
-5.040E-06,0.080
-5.030E-06,0.120
-5.020E-06,0.120
-5.010E-06,0.040
-5.000E-06,0.000
-4.990E-06,0.080
-4.980E-06,0.040
-4.970E-06,0.080
-4.960E-06,0.080
-4.950E-06,0.080
-4.940E-06,0.080
-4.930E-06,0.080
-4.920E-06,0.080
-4.910E-06,0.040
-4.900E-06,0.040
-4.890E-06,0.080
-4.880E-06,0.080
-4.870E-06,0.040
-4.860E-06,0.080
-4.850E-06,0.040
-4.840E-06,0.080
-4.830E-06,0.080
-4.820E-06,0.080
-4.810E-06,0.040
-4.800E-06,0.080
-4.790E-06,0.040
-4.780E-06,0.000
-4.770E-06,0.040
-4.760E-06,0.080
-4.750E-06,0.000
-4.740E-06,0.040
-4.730E-06,0.080
-4.720E-06,0.040
-4.710E-06,0.040
-4.700E-06,0.040
-4.690E-06,0.080
-4.680E-06,0.040
-4.670E-06,0.080
-4.660E-06,0.000
-4.650E-06,0.040
-4.640E-06,0.040
-4.630E-06,0.040
-4.620E-06,0.040
-4.610E-06,0.000
-4.600E-06,0.040
-4.590E-06,0.000
-4.580E-06,0.040
-4.570E-06,0.080
-4.560E-06,0.080
-4.550E-06,0.040
-4.540E-06,0.040
-4.530E-06,0.040
-4.520E-06,0.080
-4.510E-06,0.000
-4.500E-06,0.040
-4.490E-06,0.040
-4.480E-06,0.000
-4.470E-06,0.040
-4.460E-06,0.040
-4.450E-06,0.040
-4.440E-06,0.040
-4.430E-06,0.040
-4.420E-06,0.040
-4.410E-06,0.040
-4.400E-06,0.040
-4.390E-06,0.080
-4.380E-06,0.080
-4.370E-06,0.000
-4.360E-06,0.000
-4.350E-06,0.040
-4.340E-06,0.000
-4.330E-06,0.040
-4.320E-06,0.000
-4.310E-06,0.040
-4.300E-06,0.080
-4.290E-06,0.120
-4.280E-06,0.040
-4.270E-06,0.040
-4.260E-06,0.040
-4.250E-06,0.040
-4.240E-06,0.040
-4.230E-06,0.080
-4.220E-06,0.000
-4.210E-06,0.040
-4.200E-06,0.080
-4.190E-06,0.080
-4.180E-06,0.040
-4.170E-06,0.080
-4.160E-06,0.040
-4.150E-06,0.040
-4.140E-06,0.040
-4.130E-06,0.080
-4.120E-06,0.040
-4.110E-06,0.000
-4.100E-06,0.040
-4.090E-06,0.040
-4.080E-06,0.040
-4.070E-06,0.000
-4.060E-06,0.000
-4.050E-06,0.040
-4.040E-06,0.000
-4.030E-06,0.040
-4.020E-06,0.080
-4.010E-06,0.080
-4.000E-06,0.080
-3.990E-06,0.120
-3.980E-06,0.080
-3.970E-06,0.080
-3.960E-06,0.120
-3.950E-06,0.000
-3.940E-06,0.000
-3.930E-06,0.080
-3.920E-06,0.120
-3.910E-06,0.040
-3.900E-06,0.080
-3.890E-06,0.040
-3.880E-06,0.080
-3.870E-06,0.080
-3.860E-06,0.080
-3.850E-06,0.080
-3.840E-06,0.080
-3.830E-06,0.040
-3.820E-06,0.040
-3.810E-06,0.080
-3.800E-06,0.120
-3.790E-06,0.040
-3.780E-06,0.000
-3.770E-06,0.080
-3.760E-06,0.000
-3.750E-06,0.040
-3.740E-06,0.040
-3.730E-06,0.080
-3.720E-06,0.080
-3.710E-06,0.080
-3.700E-06,0.080
-3.690E-06,0.040
-3.680E-06,0.080
-3.670E-06,0.080
-3.660E-06,0.120
-3.650E-06,0.040
-3.640E-06,0.080
-3.630E-06,0.080
-3.620E-06,0.080
-3.610E-06,0.080
-3.600E-06,0.080
-3.590E-06,0.080
-3.580E-06,0.080
-3.570E-06,0.000
-3.560E-06,0.080
-3.550E-06,0.040
-3.540E-06,0.040
-3.530E-06,0.080
-3.520E-06,0.040
-3.510E-06,0.080
-3.500E-06,0.040
-3.490E-06,0.040
-3.480E-06,0.080
-3.470E-06,0.120
-3.460E-06,0.080
-3.450E-06,0.080
-3.440E-06,0.080
-3.430E-06,0.080
-3.420E-06,0.120
-3.410E-06,0.040
-3.400E-06,0.120
-3.390E-06,0.080
-3.380E-06,0.080
-3.370E-06,0.040
-3.360E-06,0.040
-3.350E-06,0.080
-3.340E-06,0.080
-3.330E-06,0.080
-3.320E-06,0.080
-3.310E-06,0.080
-3.300E-06,0.080
-3.290E-06,0.080
-3.280E-06,0.160
-3.270E-06,0.080
-3.260E-06,0.080
-3.250E-06,0.080
-3.240E-06,0.080
-3.230E-06,0.120
-3.220E-06,0.120
-3.210E-06,0.080
-3.200E-06,0.080
-3.190E-06,0.040
-3.180E-06,0.040
-3.170E-06,0.120
-3.160E-06,0.080
-3.150E-06,0.120
-3.140E-06,0.120
-3.130E-06,0.120
-3.120E-06,0.120
-3.110E-06,0.160
-3.100E-06,0.120
-3.090E-06,0.080
-3.080E-06,0.080
-3.070E-06,0.120
-3.060E-06,0.080
-3.050E-06,0.120
-3.040E-06,0.160
-3.030E-06,0.120
-3.020E-06,0.160
-3.010E-06,0.160
-3.000E-06,0.160
-2.990E-06,0.160
-2.980E-06,0.160
-2.970E-06,0.160
-2.960E-06,0.080
-2.950E-06,0.120
-2.940E-06,0.160
-2.930E-06,0.080
-2.920E-06,0.120
-2.910E-06,0.080
-2.900E-06,0.120
-2.890E-06,0.120
-2.880E-06,0.040
-2.870E-06,0.080
-2.860E-06,0.080
-2.850E-06,0.080
-2.840E-06,0.080
-2.830E-06,0.120
-2.820E-06,0.120
-2.810E-06,0.040
-2.800E-06,0.120
-2.790E-06,0.160
-2.780E-06,0.120
-2.770E-06,0.080
-2.760E-06,0.120
-2.750E-06,0.160
-2.740E-06,0.120
-2.730E-06,0.160
-2.720E-06,0.160
-2.710E-06,0.160
-2.700E-06,0.120
-2.690E-06,-0.040
-2.680E-06,0.000
-2.670E-06,-0.040
-2.660E-06,0.000
-2.650E-06,0.080
-2.640E-06,0.200
-2.630E-06,0.200
-2.620E-06,0.240
-2.610E-06,0.120
-2.600E-06,0.080
-2.590E-06,0.120
-2.580E-06,0.160
-2.570E-06,0.240
-2.560E-06,0.360
-2.550E-06,0.360
-2.540E-06,0.320
-2.530E-06,0.200
-2.520E-06,0.200
-2.510E-06,0.200
-2.500E-06,0.200
-2.490E-06,0.280
-2.480E-06,0.280
-2.470E-06,0.200
-2.460E-06,0.160
-2.450E-06,0.160
-2.440E-06,0.120
-2.430E-06,0.120
-2.420E-06,0.160
-2.410E-06,0.200
-2.400E-06,0.200
-2.390E-06,0.240
-2.380E-06,0.280
-2.370E-06,0.240
-2.360E-06,0.280
-2.350E-06,0.360
-2.340E-06,0.320
-2.330E-06,0.360
-2.320E-06,0.320
-2.310E-06,0.360
-2.300E-06,0.360
-2.290E-06,0.360
-2.280E-06,0.400
-2.270E-06,0.400
-2.260E-06,0.360
-2.250E-06,0.400
-2.240E-06,0.360
-2.230E-06,0.400
-2.220E-06,0.360
-2.210E-06,0.360
-2.200E-06,0.360
-2.190E-06,0.360
-2.180E-06,0.400
-2.170E-06,0.400
-2.160E-06,0.480
-2.150E-06,0.440
-2.140E-06,0.520
-2.130E-06,0.520
-2.120E-06,0.440
-2.110E-06,0.480
-2.100E-06,0.480
-2.090E-06,0.480
-2.080E-06,0.520
-2.070E-06,0.520
-2.060E-06,0.560
-2.050E-06,0.520
-2.040E-06,0.520
-2.030E-06,0.520
-2.020E-06,0.520
-2.010E-06,0.560
-2.000E-06,0.560
-1.990E-06,0.600
-1.980E-06,0.600
-1.970E-06,0.640
-1.960E-06,0.640
-1.950E-06,0.640
-1.940E-06,0.640
-1.930E-06,0.680
-1.920E-06,0.640
-1.910E-06,0.680
-1.900E-06,0.640
-1.890E-06,0.680
-1.880E-06,0.720
-1.870E-06,0.680
-1.860E-06,0.680
-1.850E-06,0.680
-1.840E-06,0.640
-1.830E-06,0.640
-1.820E-06,0.680
-1.810E-06,0.680
-1.800E-06,0.760
-1.790E-06,0.760
-1.780E-06,0.800
-1.770E-06,0.800
-1.760E-06,0.880
-1.750E-06,0.920
-1.740E-06,1.000
-1.730E-06,1.000
-1.720E-06,1.120
-1.710E-06,1.080
-1.700E-06,1.120
-1.690E-06,1.240
-1.680E-06,1.200
-1.670E-06,1.320
-1.660E-06,1.320
-1.650E-06,1.360
-1.640E-06,1.440
-1.630E-06,1.320
-1.620E-06,1.520
-1.610E-06,1.360
-1.600E-06,1.640
-1.590E-06,1.520
-1.580E-06,1.480
-1.570E-06,1.640
-1.560E-06,1.400
-1.550E-06,1.520
-1.540E-06,1.600
-1.530E-06,1.520
-1.520E-06,1.520
-1.510E-06,1.480
-1.500E-06,1.480
-1.490E-06,1.480
-1.480E-06,1.400
-1.470E-06,1.280
-1.460E-06,1.200
-1.450E-06,1.120
-1.440E-06,1.200
-1.430E-06,1.120
-1.420E-06,1.080
-1.410E-06,1.000
-1.400E-06,0.960
-1.390E-06,1.160
-1.380E-06,1.120
-1.370E-06,1.440
-1.360E-06,1.400
-1.350E-06,1.440
-1.340E-06,1.600
-1.330E-06,1.640
-1.320E-06,1.680
-1.310E-06,1.880
-1.300E-06,1.840
-1.290E-06,1.960
-1.280E-06,1.880
-1.270E-06,1.960
-1.260E-06,1.880
-1.250E-06,1.880
-1.240E-06,2.000
-1.230E-06,1.840
-1.220E-06,1.720
-1.210E-06,1.600
-1.200E-06,1.320
-1.190E-06,1.280
-1.180E-06,1.120
-1.170E-06,1.040
-1.160E-06,0.920
-1.150E-06,0.760
-1.140E-06,0.720
-1.130E-06,0.640
-1.120E-06,0.680
-1.110E-06,0.760
-1.100E-06,0.680
-1.090E-06,0.760
-1.080E-06,0.760
-1.070E-06,0.640
-1.060E-06,0.640
-1.050E-06,0.600
-1.040E-06,0.560
-1.030E-06,0.600
-1.020E-06,0.560
-1.010E-06,0.520
-1.000E-06,0.480
-9.900E-07,0.440
-9.800E-07,0.360
-9.700E-07,0.240
-9.600E-07,0.200
-9.500E-07,0.240
-9.400E-07,0.320
-9.300E-07,0.320
-9.200E-07,0.360
-9.100E-07,0.360
-9.000E-07,0.320
-8.900E-07,0.440
-8.800E-07,0.440
-8.700E-07,0.480
-8.600E-07,0.600
-8.500E-07,0.480
-8.400E-07,0.520
-8.300E-07,0.600
-8.200E-07,0.520
-8.100E-07,0.520
-8.000E-07,0.520
-7.900E-07,0.440
-7.800E-07,0.400
-7.700E-07,0.360
-7.600E-07,0.440
-7.500E-07,0.400
-7.400E-07,0.480
-7.300E-07,0.480
-7.200E-07,0.520
-7.100E-07,0.440
-7.000E-07,0.480
-6.900E-07,0.480
-6.800E-07,0.560
-6.700E-07,0.680
-6.600E-07,0.680
-6.500E-07,0.800
-6.400E-07,0.800
-6.300E-07,0.840
-6.200E-07,0.880
-6.100E-07,0.840
-6.000E-07,0.880
-5.900E-07,0.920
-5.800E-07,1.000
-5.700E-07,1.040
-5.600E-07,1.080
-5.500E-07,1.120
-5.400E-07,1.160
-5.300E-07,1.080
-5.200E-07,1.200
-5.100E-07,1.400
-5.000E-07,1.480
-4.900E-07,1.680
-4.800E-07,1.800
-4.700E-07,1.920
-4.600E-07,2.040
-4.500E-07,2.000
-4.400E-07,2.040
-4.300E-07,2.200
-4.200E-07,2.320
-4.100E-07,2.520
-4.000E-07,2.520
-3.900E-07,2.720
-3.800E-07,2.800
-3.700E-07,2.720
-3.600E-07,2.720
-3.500E-07,2.720
-3.400E-07,2.680
-3.300E-07,2.680
-3.200E-07,2.680
-3.100E-07,2.400
-3.000E-07,2.440
-2.900E-07,2.240
-2.800E-07,2.080
-2.700E-07,2.000
-2.600E-07,1.960
-2.500E-07,1.960
-2.400E-07,2.000
-2.300E-07,1.800
-2.200E-07,1.840
-2.100E-07,1.920
-2.000E-07,1.760
-1.900E-07,1.840
-1.800E-07,1.800
-1.700E-07,1.760
-1.600E-07,1.760
-1.500E-07,1.640
-1.400E-07,1.520
-1.300E-07,1.440
-1.200E-07,1.400
-1.100E-07,1.480
-1.000E-07,1.400
-9.000E-08,1.480
-8.000E-08,1.400
-7.000E-08,1.440
-6.000E-08,1.560
-5.000E-08,1.640
-4.000E-08,1.560
-3.000E-08,1.560
-2.000E-08,1.600
-1.000E-08,1.480
0.000E+00,1.480
1.000E-08,1.480
2.000E-08,1.480
3.000E-08,1.400
4.000E-08,1.360
5.000E-08,1.320
6.000E-08,1.280
7.000E-08,1.320
8.000E-08,1.200
9.000E-08,1.160
1.000E-07,1.120
1.100E-07,1.120
1.200E-07,1.200
1.300E-07,1.160
1.400E-07,1.120
1.500E-07,1.080
1.600E-07,1.000
1.700E-07,1.000
1.800E-07,0.880
1.900E-07,0.880
2.000E-07,0.760
2.100E-07,0.720
2.200E-07,0.680
2.300E-07,0.560
2.400E-07,0.480
2.500E-07,0.480
2.600E-07,0.400
2.700E-07,0.360
2.800E-07,0.320
2.900E-07,0.360
3.000E-07,0.320
3.100E-07,0.320
3.200E-07,0.360
3.300E-07,0.320
3.400E-07,0.240
3.500E-07,0.120
3.600E-07,0.120
3.700E-07,0.000
3.800E-07,-0.080
3.900E-07,-0.240
4.000E-07,-0.320
4.100E-07,-0.400
4.200E-07,-0.600
4.300E-07,-0.680
4.400E-07,-0.880
4.500E-07,-1.040
4.600E-07,-1.200
4.700E-07,-1.320
4.800E-07,-1.480
4.900E-07,-1.600
5.000E-07,-1.760
5.100E-07,-1.960
5.200E-07,-2.040
5.300E-07,-2.200
5.400E-07,-2.400
5.500E-07,-2.560
5.600E-07,-2.680
5.700E-07,-2.840
5.800E-07,-2.920
5.900E-07,-3.040
6.000E-07,-3.200
6.100E-07,-3.280
6.200E-07,-3.440
6.300E-07,-3.560
6.400E-07,-3.720
6.500E-07,-3.960
6.600E-07,-4.200
6.700E-07,-4.440
6.800E-07,-4.920
6.900E-07,-5.200
7.000E-07,-5.240
7.100E-07,-5.240
7.200E-07,-5.200
7.300E-07,-5.200
7.400E-07,-5.240
7.500E-07,-5.240
7.600E-07,-5.240
7.700E-07,-5.240
7.800E-07,-5.200
7.900E-07,-5.240
8.000E-07,-5.240
8.100E-07,-5.240
8.200E-07,-5.240
8.300E-07,-5.240
8.400E-07,-5.240
8.500E-07,-5.200
8.600E-07,-5.200
8.700E-07,-5.240
8.800E-07,-5.240
8.900E-07,-5.200
9.000E-07,-5.200
9.100E-07,-5.200
9.200E-07,-5.240
9.300E-07,-5.240
9.400E-07,-5.240
9.500E-07,-5.240
9.600E-07,-5.240
9.700E-07,-5.200
9.800E-07,-5.240
9.900E-07,-5.240
1.000E-06,-5.200
1.010E-06,-5.200
1.020E-06,-5.240
1.030E-06,-5.200
1.040E-06,-5.200
1.050E-06,-5.200
1.060E-06,-5.240
1.070E-06,-5.240
1.080E-06,-5.200
1.090E-06,-5.240
1.100E-06,-5.240
1.110E-06,-5.240
1.120E-06,-5.240
1.130E-06,-5.200
1.140E-06,-5.240
1.150E-06,-5.240
1.160E-06,-5.240
1.170E-06,-5.200
1.180E-06,-5.200
1.190E-06,-5.200
1.200E-06,-5.200
1.210E-06,-5.200
1.220E-06,-5.200
1.230E-06,-5.200
1.240E-06,-5.200
1.250E-06,-5.200
1.260E-06,-5.200
1.270E-06,-5.240
1.280E-06,-5.240
1.290E-06,-5.240
1.300E-06,-5.200
1.310E-06,-5.200
1.320E-06,-5.240
1.330E-06,-5.200
1.340E-06,-5.200
1.350E-06,-5.200
1.360E-06,-5.200
1.370E-06,-5.240
1.380E-06,-5.240
1.390E-06,-5.080
1.400E-06,-5.000
1.410E-06,-4.920
1.420E-06,-4.840
1.430E-06,-4.720
1.440E-06,-4.640
1.450E-06,-4.560
1.460E-06,-4.520
1.470E-06,-4.440
1.480E-06,-4.400
1.490E-06,-4.360
1.500E-06,-4.280
1.510E-06,-4.280
1.520E-06,-4.240
1.530E-06,-4.200
1.540E-06,-4.200
1.550E-06,-4.160
1.560E-06,-4.200
1.570E-06,-4.280
1.580E-06,-4.360
1.590E-06,-4.400
1.600E-06,-4.440
1.610E-06,-4.520
1.620E-06,-4.640
1.630E-06,-4.720
1.640E-06,-4.680
1.650E-06,-4.720
1.660E-06,-4.680
1.670E-06,-4.640
1.680E-06,-4.680
1.690E-06,-4.560
1.700E-06,-4.520
1.710E-06,-4.520
1.720E-06,-4.520
1.730E-06,-4.480
1.740E-06,-4.480
1.750E-06,-4.480
1.760E-06,-4.440
1.770E-06,-4.280
1.780E-06,-4.160
1.790E-06,-4.080
1.800E-06,-3.920
1.810E-06,-3.840
1.820E-06,-3.640
1.830E-06,-3.600
1.840E-06,-3.480
1.850E-06,-3.400
1.860E-06,-3.360
1.870E-06,-3.200
1.880E-06,-3.200
1.890E-06,-3.120
1.900E-06,-3.080
1.910E-06,-3.080
1.920E-06,-3.120
1.930E-06,-3.080
1.940E-06,-3.080
1.950E-06,-3.120
1.960E-06,-3.120
1.970E-06,-3.080
1.980E-06,-3.000
1.990E-06,-3.040
2.000E-06,-2.920
2.010E-06,-2.920
2.020E-06,-2.840
2.030E-06,-2.760
2.040E-06,-2.760
2.050E-06,-2.680
2.060E-06,-2.680
2.070E-06,-2.640
2.080E-06,-2.560
2.090E-06,-2.520
2.100E-06,-2.440
2.110E-06,-2.400
2.120E-06,-2.320
2.130E-06,-2.360
2.140E-06,-2.280
2.150E-06,-2.240
2.160E-06,-2.240
2.170E-06,-2.240
2.180E-06,-2.200
2.190E-06,-2.280
2.200E-06,-2.280
2.210E-06,-2.320
2.220E-06,-2.360
2.230E-06,-2.400
2.240E-06,-2.360
2.250E-06,-2.440
2.260E-06,-2.520
2.270E-06,-2.520
2.280E-06,-2.600
2.290E-06,-2.600
2.300E-06,-2.720
2.310E-06,-2.800
2.320E-06,-2.800
2.330E-06,-2.920
2.340E-06,-3.040
2.350E-06,-3.000
2.360E-06,-3.080
2.370E-06,-3.120
2.380E-06,-3.160
2.390E-06,-3.080
2.400E-06,-3.040
2.410E-06,-3.000
2.420E-06,-2.960
2.430E-06,-2.960
2.440E-06,-2.920
2.450E-06,-2.880
2.460E-06,-2.840
2.470E-06,-2.800
2.480E-06,-2.760
2.490E-06,-2.680
2.500E-06,-2.640
2.510E-06,-2.600
2.520E-06,-2.560
2.530E-06,-2.480
2.540E-06,-2.360
2.550E-06,-2.320
2.560E-06,-2.240
2.570E-06,-2.200
2.580E-06,-2.200
2.590E-06,-2.200
2.600E-06,-2.160
2.610E-06,-2.080
2.620E-06,-2.000
2.630E-06,-2.000
2.640E-06,-1.960
2.650E-06,-1.960
2.660E-06,-1.840
2.670E-06,-1.800
2.680E-06,-1.720
2.690E-06,-1.560
2.700E-06,-1.440
2.710E-06,-1.360
2.720E-06,-1.280
2.730E-06,-1.240
2.740E-06,-1.160
2.750E-06,-1.120
2.760E-06,-1.120
2.770E-06,-1.080
2.780E-06,-1.080
2.790E-06,-1.120
2.800E-06,-1.160
2.810E-06,-1.080
2.820E-06,-1.120
2.830E-06,-1.200
2.840E-06,-1.160
2.850E-06,-1.160
2.860E-06,-1.240
2.870E-06,-1.320
2.880E-06,-1.400
2.890E-06,-1.480
2.900E-06,-1.520
2.910E-06,-1.640
2.920E-06,-1.760
2.930E-06,-1.840
2.940E-06,-1.960
2.950E-06,-1.960
2.960E-06,-2.080
2.970E-06,-2.160
2.980E-06,-2.240
2.990E-06,-2.280
3.000E-06,-2.240
3.010E-06,-2.240
3.020E-06,-2.240
3.030E-06,-2.240
3.040E-06,-2.240
3.050E-06,-2.240
3.060E-06,-2.240
3.070E-06,-2.120
3.080E-06,-2.040
3.090E-06,-2.000
3.100E-06,-2.000
3.110E-06,-2.080
3.120E-06,-2.080
3.130E-06,-2.080
3.140E-06,-2.080
3.150E-06,-2.120
3.160E-06,-2.160
3.170E-06,-2.160
3.180E-06,-2.160
3.190E-06,-2.200
3.200E-06,-2.160
3.210E-06,-2.160
3.220E-06,-2.080
3.230E-06,-2.040
3.240E-06,-1.840
3.250E-06,-1.680
3.260E-06,-1.520
3.270E-06,-1.360
3.280E-06,-1.240
3.290E-06,-1.080
3.300E-06,-0.960
3.310E-06,-0.720
3.320E-06,-0.600
3.330E-06,-0.520
3.340E-06,-0.320
3.350E-06,-0.240
3.360E-06,-0.160
3.370E-06,-0.160
3.380E-06,-0.120
3.390E-06,-0.120
3.400E-06,-0.160
3.410E-06,-0.080
3.420E-06,-0.120
3.430E-06,-0.160
3.440E-06,-0.120
3.450E-06,-0.160
3.460E-06,-0.240
3.470E-06,-0.240
3.480E-06,-0.240
3.490E-06,-0.240
3.500E-06,-0.320
3.510E-06,-0.360
3.520E-06,-0.280
3.530E-06,-0.360
3.540E-06,-0.320
3.550E-06,-0.360
3.560E-06,-0.360
3.570E-06,-0.360
3.580E-06,-0.400
3.590E-06,-0.400
3.600E-06,-0.480
3.610E-06,-0.560
3.620E-06,-0.640
3.630E-06,-0.680
3.640E-06,-0.760
3.650E-06,-0.840
3.660E-06,-0.920
3.670E-06,-1.040
3.680E-06,-1.080
3.690E-06,-1.120
3.700E-06,-1.120
3.710E-06,-1.240
3.720E-06,-1.240
3.730E-06,-1.320
3.740E-06,-1.360
3.750E-06,-1.320
3.760E-06,-1.240
3.770E-06,-1.200
3.780E-06,-1.120
3.790E-06,-1.000
3.800E-06,-0.880
3.810E-06,-0.840
3.820E-06,-0.840
3.830E-06,-0.720
3.840E-06,-0.760
3.850E-06,-0.760
3.860E-06,-0.840
3.870E-06,-0.960
3.880E-06,-1.040
3.890E-06,-1.120
3.900E-06,-1.240
3.910E-06,-1.320
3.920E-06,-1.480
3.930E-06,-1.520
3.940E-06,-1.560
3.950E-06,-1.600
3.960E-06,-1.560
3.970E-06,-1.480
3.980E-06,-1.320
3.990E-06,-1.280
4.000E-06,-1.080
4.010E-06,-0.880
4.020E-06,-0.800
4.030E-06,-0.560
4.040E-06,-0.440
4.050E-06,-0.240
4.060E-06,-0.040
4.070E-06,0.160
4.080E-06,0.320
4.090E-06,0.480
4.100E-06,0.560
4.110E-06,0.720
4.120E-06,0.880
4.130E-06,1.000
4.140E-06,1.040
4.150E-06,1.200
4.160E-06,1.240
4.170E-06,1.280
4.180E-06,1.320
4.190E-06,1.320
4.200E-06,1.320
4.210E-06,1.240
4.220E-06,1.120
4.230E-06,1.120
4.240E-06,1.040
4.250E-06,0.960
4.260E-06,0.920
4.270E-06,0.880
4.280E-06,0.840
4.290E-06,0.800
4.300E-06,0.760
4.310E-06,0.720
4.320E-06,0.680
4.330E-06,0.600
4.340E-06,0.560
4.350E-06,0.440
4.360E-06,0.360
4.370E-06,0.280
4.380E-06,0.200
4.390E-06,0.040
4.400E-06,-0.040
4.410E-06,-0.240
4.420E-06,-0.400
4.430E-06,-0.600
4.440E-06,-0.680
4.450E-06,-0.800
4.460E-06,-0.800
4.470E-06,-0.760
4.480E-06,-0.720
4.490E-06,-0.680
4.500E-06,-0.680
4.510E-06,-0.680
4.520E-06,-0.640
4.530E-06,-0.680
4.540E-06,-0.680
4.550E-06,-0.680
4.560E-06,-0.600
4.570E-06,-0.600
4.580E-06,-0.520
4.590E-06,-0.400
4.600E-06,-0.360
4.610E-06,-0.280
4.620E-06,-0.120
4.630E-06,-0.080
4.640E-06,0.000
4.650E-06,0.080
4.660E-06,0.160
4.670E-06,0.200
4.680E-06,0.360
4.690E-06,0.360
4.700E-06,0.400
4.710E-06,0.400
4.720E-06,0.440
4.730E-06,0.400
4.740E-06,0.440
4.750E-06,0.400
4.760E-06,0.320
4.770E-06,0.320
4.780E-06,0.320
4.790E-06,0.280
4.800E-06,0.240
4.810E-06,0.200
4.820E-06,0.120
4.830E-06,0.120
4.840E-06,0.040
4.850E-06,0.000
4.860E-06,-0.080
4.870E-06,-0.160
4.880E-06,-0.240
4.890E-06,-0.320
4.900E-06,-0.400
4.910E-06,-0.520
4.920E-06,-0.600
4.930E-06,-0.680
4.940E-06,-0.760
4.950E-06,-0.840
4.960E-06,-0.840
4.970E-06,-0.840
4.980E-06,-0.840
4.990E-06,-0.840
5.000E-06,-0.800
5.010E-06,-0.800
5.020E-06,-0.840
5.030E-06,-0.840
5.040E-06,-0.720
5.050E-06,-0.720
5.060E-06,-0.760
5.070E-06,-0.760
5.080E-06,-0.720
5.090E-06,-0.760
5.100E-06,-0.680
5.110E-06,-0.720
5.120E-06,-0.680
5.130E-06,-0.560
5.140E-06,-0.520
5.150E-06,-0.480
5.160E-06,-0.440
5.170E-06,-0.320
5.180E-06,-0.280
5.190E-06,-0.280
5.200E-06,-0.160
5.210E-06,-0.240
5.220E-06,-0.160
5.230E-06,-0.240
5.240E-06,-0.280
5.250E-06,-0.280
5.260E-06,-0.240
5.270E-06,-0.240
5.280E-06,-0.240
5.290E-06,-0.280
5.300E-06,-0.200
5.310E-06,-0.240
5.320E-06,-0.200
5.330E-06,-0.120
5.340E-06,0.040
5.350E-06,0.000
5.360E-06,0.120
5.370E-06,0.200
5.380E-06,0.280
5.390E-06,0.400
5.400E-06,0.400
5.410E-06,0.480
5.420E-06,0.520
5.430E-06,0.520
5.440E-06,0.600
5.450E-06,0.600
5.460E-06,0.680
5.470E-06,0.720
5.480E-06,0.760
5.490E-06,0.760
5.500E-06,0.720
5.510E-06,0.680
5.520E-06,0.640
5.530E-06,0.520
5.540E-06,0.440
5.550E-06,0.400
5.560E-06,0.280
5.570E-06,0.200
5.580E-06,0.080
5.590E-06,0.040
5.600E-06,-0.040
5.610E-06,-0.040
5.620E-06,-0.040
5.630E-06,-0.080
5.640E-06,-0.080
5.650E-06,-0.080
5.660E-06,-0.040
5.670E-06,-0.080
5.680E-06,0.000
5.690E-06,0.000
5.700E-06,0.000
5.710E-06,0.000
5.720E-06,0.080
5.730E-06,0.160
5.740E-06,0.200
5.750E-06,0.320
5.760E-06,0.400
5.770E-06,0.480
5.780E-06,0.600
5.790E-06,0.680
5.800E-06,0.840
5.810E-06,0.880
5.820E-06,0.920
5.830E-06,0.960
5.840E-06,0.880
5.850E-06,0.920
5.860E-06,0.960
5.870E-06,0.960
5.880E-06,0.960
5.890E-06,0.960
5.900E-06,0.960
5.910E-06,0.920
5.920E-06,0.920
5.930E-06,0.960
5.940E-06,0.960
5.950E-06,0.960
5.960E-06,1.000
5.970E-06,1.000
5.980E-06,1.000
5.990E-06,1.040
6.000E-06,1.080
6.010E-06,1.120
6.020E-06,1.120
6.030E-06,1.120
6.040E-06,1.040
6.050E-06,1.040
6.060E-06,1.040
6.070E-06,1.040
6.080E-06,1.000
6.090E-06,1.000
6.100E-06,0.960
6.110E-06,0.960
6.120E-06,0.920
6.130E-06,0.920
6.140E-06,0.960
6.150E-06,0.960
6.160E-06,1.000
