mediciones/Mediciones filtradas (saque las feas)/5-27/-57.5/WaveData50311.csv

#timebase=2000000(ps)
,#voltbase=100000(mv/100)
#size=4000
-5.650E-06,0.000
-5.640E-06,-0.008
-5.630E-06,0.004
-5.620E-06,0.004
-5.610E-06,0.004
-5.600E-06,0.004
-5.590E-06,0.008
-5.580E-06,0.000
-5.570E-06,0.000
-5.560E-06,-0.004
-5.550E-06,0.000
-5.540E-06,0.000
-5.530E-06,0.004
-5.520E-06,0.004
-5.510E-06,0.004
-5.500E-06,0.004
-5.490E-06,0.000
-5.480E-06,0.000
-5.470E-06,0.000
-5.460E-06,0.004
-5.450E-06,0.000
-5.440E-06,0.004
-5.430E-06,-0.004
-5.420E-06,0.000
-5.410E-06,-0.004
-5.400E-06,0.004
-5.390E-06,0.004
-5.380E-06,0.004
-5.370E-06,0.000
-5.360E-06,-0.004
-5.350E-06,0.000
-5.340E-06,0.008
-5.330E-06,0.008
-5.320E-06,0.004
-5.310E-06,0.000
-5.300E-06,0.004
-5.290E-06,0.008
-5.280E-06,0.008
-5.270E-06,0.000
-5.260E-06,0.004
-5.250E-06,0.004
-5.240E-06,0.008
-5.230E-06,0.004
-5.220E-06,0.000
-5.210E-06,0.000
-5.200E-06,0.004
-5.190E-06,0.004
-5.180E-06,0.008
-5.170E-06,0.000
-5.160E-06,0.004
-5.150E-06,0.004
-5.140E-06,0.000
-5.130E-06,0.000
-5.120E-06,0.004
-5.110E-06,0.004
-5.100E-06,0.004
-5.090E-06,0.004
-5.080E-06,0.000
-5.070E-06,0.008
-5.060E-06,0.008
-5.050E-06,-0.004
-5.040E-06,-0.004
-5.030E-06,0.000
-5.020E-06,0.004
-5.010E-06,0.000
-5.000E-06,0.004
-4.990E-06,0.004
-4.980E-06,0.004
-4.970E-06,0.000
-4.960E-06,0.000
-4.950E-06,0.004
-4.940E-06,0.004
-4.930E-06,0.008
-4.920E-06,0.012
-4.910E-06,0.012
-4.900E-06,0.008
-4.890E-06,0.000
-4.880E-06,0.000
-4.870E-06,0.004
-4.860E-06,0.000
-4.850E-06,0.000
-4.840E-06,0.004
-4.830E-06,0.000
-4.820E-06,0.000
-4.810E-06,0.000
-4.800E-06,-0.004
-4.790E-06,-0.004
-4.780E-06,-0.008
-4.770E-06,-0.004
-4.760E-06,0.004
-4.750E-06,0.008
-4.740E-06,0.008
-4.730E-06,0.008
-4.720E-06,0.004
-4.710E-06,-0.004
-4.700E-06,0.000
-4.690E-06,0.000
-4.680E-06,0.008
-4.670E-06,0.004
-4.660E-06,0.004
-4.650E-06,-0.004
-4.640E-06,0.000
-4.630E-06,-0.004
-4.620E-06,0.000
-4.610E-06,0.000
-4.600E-06,0.000
-4.590E-06,0.004
-4.580E-06,0.000
-4.570E-06,0.004
-4.560E-06,0.004
-4.550E-06,0.000
-4.540E-06,0.004
-4.530E-06,-0.004
-4.520E-06,0.000
-4.510E-06,0.004
-4.500E-06,0.004
-4.490E-06,0.004
-4.480E-06,0.000
-4.470E-06,0.000
-4.460E-06,0.004
-4.450E-06,0.004
-4.440E-06,0.004
-4.430E-06,0.004
-4.420E-06,0.004
-4.410E-06,0.004
-4.400E-06,0.004
-4.390E-06,0.000
-4.380E-06,0.004
-4.370E-06,0.004
-4.360E-06,0.008
-4.350E-06,0.000
-4.340E-06,0.004
-4.330E-06,0.004
-4.320E-06,0.004
-4.310E-06,0.000
-4.300E-06,0.004
-4.290E-06,0.000
-4.280E-06,0.004
-4.270E-06,0.000
-4.260E-06,0.004
-4.250E-06,0.008
-4.240E-06,0.008
-4.230E-06,0.000
-4.220E-06,0.000
-4.210E-06,0.004
-4.200E-06,0.004
-4.190E-06,0.008
-4.180E-06,0.000
-4.170E-06,0.004
-4.160E-06,0.008
-4.150E-06,0.008
-4.140E-06,0.004
-4.130E-06,0.004
-4.120E-06,0.004
-4.110E-06,0.004
-4.100E-06,0.004
-4.090E-06,0.000
-4.080E-06,-0.004
-4.070E-06,-0.004
-4.060E-06,-0.004
-4.050E-06,0.004
-4.040E-06,0.008
-4.030E-06,0.012
-4.020E-06,0.012
-4.010E-06,0.012
-4.000E-06,0.008
-3.990E-06,-0.004
-3.980E-06,0.000
-3.970E-06,0.008
-3.960E-06,0.016
-3.950E-06,0.004
-3.940E-06,0.004
-3.930E-06,-0.004
-3.920E-06,-0.004
-3.910E-06,0.000
-3.900E-06,0.008
-3.890E-06,0.008
-3.880E-06,0.012
-3.870E-06,0.012
-3.860E-06,0.008
-3.850E-06,0.008
-3.840E-06,0.008
-3.830E-06,0.004
-3.820E-06,0.008
-3.810E-06,0.008
-3.800E-06,0.004
-3.790E-06,0.000
-3.780E-06,0.004
-3.770E-06,0.004
-3.760E-06,0.008
-3.750E-06,0.012
-3.740E-06,0.008
-3.730E-06,0.004
-3.720E-06,0.000
-3.710E-06,-0.004
-3.700E-06,-0.004
-3.690E-06,0.004
-3.680E-06,0.000
-3.670E-06,0.004
-3.660E-06,0.004
-3.650E-06,0.000
-3.640E-06,0.000
-3.630E-06,0.000
-3.620E-06,0.000
-3.610E-06,0.008
-3.600E-06,0.012
-3.590E-06,0.012
-3.580E-06,0.000
-3.570E-06,0.004
-3.560E-06,0.004
-3.550E-06,0.004
-3.540E-06,0.008
-3.530E-06,0.008
-3.520E-06,0.008
-3.510E-06,0.004
-3.500E-06,0.004
-3.490E-06,0.004
-3.480E-06,0.004
-3.470E-06,0.004
-3.460E-06,0.008
-3.450E-06,0.008
-3.440E-06,0.012
-3.430E-06,0.008
-3.420E-06,0.012
-3.410E-06,0.012
-3.400E-06,0.008
-3.390E-06,0.004
-3.380E-06,0.000
-3.370E-06,0.004
-3.360E-06,0.008
-3.350E-06,0.012
-3.340E-06,0.004
-3.330E-06,0.008
-3.320E-06,0.004
-3.310E-06,0.008
-3.300E-06,0.004
-3.290E-06,0.004
-3.280E-06,0.008
-3.270E-06,0.012
-3.260E-06,0.012
-3.250E-06,0.004
-3.240E-06,0.008
-3.230E-06,0.008
-3.220E-06,0.008
-3.210E-06,0.012
-3.200E-06,0.008
-3.190E-06,0.008
-3.180E-06,0.008
-3.170E-06,0.012
-3.160E-06,0.012
-3.150E-06,0.012
-3.140E-06,0.016
-3.130E-06,0.012
-3.120E-06,0.016
-3.110E-06,0.024
-3.100E-06,0.020
-3.090E-06,0.024
-3.080E-06,0.028
-3.070E-06,0.008
-3.060E-06,0.004
-3.050E-06,-0.004
-3.040E-06,-0.008
-3.030E-06,-0.012
-3.020E-06,-0.004
-3.010E-06,-0.004
-3.000E-06,-0.004
-2.990E-06,-0.004
-2.980E-06,0.004
-2.970E-06,0.000
-2.960E-06,0.008
-2.950E-06,0.012
-2.940E-06,0.008
-2.930E-06,0.008
-2.920E-06,0.008
-2.910E-06,0.012
-2.900E-06,0.024
-2.890E-06,0.016
-2.880E-06,0.020
-2.870E-06,0.012
-2.860E-06,0.024
-2.850E-06,0.020
-2.840E-06,0.020
-2.830E-06,0.024
-2.820E-06,-0.012
-2.810E-06,-0.016
-2.800E-06,-0.040
-2.790E-06,-0.040
-2.780E-06,-0.032
-2.770E-06,-0.008
-2.760E-06,0.008
-2.750E-06,0.012
-2.740E-06,0.000
-2.730E-06,-0.004
-2.720E-06,-0.008
-2.710E-06,-0.008
-2.700E-06,-0.004
-2.690E-06,0.012
-2.680E-06,0.020
-2.670E-06,0.012
-2.660E-06,0.000
-2.650E-06,-0.012
-2.640E-06,-0.024
-2.630E-06,-0.028
-2.620E-06,-0.016
-2.610E-06,0.004
-2.600E-06,0.016
-2.590E-06,0.008
-2.580E-06,0.008
-2.570E-06,-0.004
-2.560E-06,-0.008
-2.550E-06,-0.008
-2.540E-06,0.000
-2.530E-06,0.004
-2.520E-06,0.012
-2.510E-06,0.012
-2.500E-06,0.000
-2.490E-06,0.004
-2.480E-06,0.008
-2.470E-06,0.008
-2.460E-06,0.004
-2.450E-06,0.008
-2.440E-06,0.000
-2.430E-06,0.000
-2.420E-06,-0.004
-2.410E-06,0.000
-2.400E-06,0.004
-2.390E-06,0.008
-2.380E-06,0.008
-2.370E-06,0.008
-2.360E-06,0.000
-2.350E-06,0.004
-2.340E-06,0.004
-2.330E-06,0.008
-2.320E-06,0.008
-2.310E-06,0.012
-2.300E-06,0.008
-2.290E-06,0.012
-2.280E-06,0.008
-2.270E-06,0.012
-2.260E-06,0.016
-2.250E-06,0.016
-2.240E-06,0.008
-2.230E-06,0.008
-2.220E-06,0.012
-2.210E-06,0.004
-2.200E-06,0.004
-2.190E-06,0.004
-2.180E-06,0.004
-2.170E-06,0.008
-2.160E-06,0.004
-2.150E-06,0.012
-2.140E-06,0.008
-2.130E-06,0.008
-2.120E-06,0.008
-2.110E-06,0.012
-2.100E-06,0.020
-2.090E-06,0.016
-2.080E-06,0.024
-2.070E-06,0.016
-2.060E-06,0.016
-2.050E-06,0.020
-2.040E-06,0.016
-2.030E-06,0.024
-2.020E-06,0.024
-2.010E-06,0.032
-2.000E-06,0.032
-1.990E-06,0.032
-1.980E-06,0.028
-1.970E-06,0.032
-1.960E-06,0.032
-1.950E-06,0.028
-1.940E-06,0.024
-1.930E-06,0.024
-1.920E-06,0.032
-1.910E-06,0.016
-1.900E-06,-0.008
-1.890E-06,-0.028
-1.880E-06,-0.044
-1.870E-06,-0.044
-1.860E-06,-0.028
-1.850E-06,-0.008
-1.840E-06,0.000
-1.830E-06,0.000
-1.820E-06,-0.008
-1.810E-06,-0.020
-1.800E-06,-0.020
-1.790E-06,-0.028
-1.780E-06,-0.012
-1.770E-06,-0.004
-1.760E-06,0.008
-1.750E-06,0.012
-1.740E-06,0.016
-1.730E-06,0.020
-1.720E-06,0.020
-1.710E-06,0.024
-1.700E-06,0.024
-1.690E-06,0.032
-1.680E-06,0.036
-1.670E-06,0.040
-1.660E-06,0.040
-1.650E-06,0.036
-1.640E-06,0.028
-1.630E-06,0.028
-1.620E-06,0.032
-1.610E-06,0.032
-1.600E-06,0.020
-1.590E-06,0.008
-1.580E-06,0.008
-1.570E-06,-0.008
-1.560E-06,0.008
-1.550E-06,0.016
-1.540E-06,0.020
-1.530E-06,0.024
-1.520E-06,0.032
-1.510E-06,0.024
-1.500E-06,0.028
-1.490E-06,0.024
-1.480E-06,0.032
-1.470E-06,0.012
-1.460E-06,0.012
-1.450E-06,0.008
-1.440E-06,0.016
-1.430E-06,0.036
-1.420E-06,0.052
-1.410E-06,0.060
-1.400E-06,0.060
-1.390E-06,0.060
-1.380E-06,0.040
-1.370E-06,0.028
-1.360E-06,0.028
-1.350E-06,0.044
-1.340E-06,0.048
-1.330E-06,0.032
-1.320E-06,0.020
-1.310E-06,-0.008
-1.300E-06,-0.036
-1.290E-06,-0.060
-1.280E-06,-0.064
-1.270E-06,-0.072
-1.260E-06,-0.060
-1.250E-06,-0.056
-1.240E-06,-0.040
-1.230E-06,-0.048
-1.220E-06,-0.056
-1.210E-06,-0.056
-1.200E-06,-0.056
-1.190E-06,-0.032
-1.180E-06,-0.008
-1.170E-06,0.000
-1.160E-06,0.024
-1.150E-06,0.040
-1.140E-06,0.032
-1.130E-06,0.000
-1.120E-06,0.036
-1.110E-06,0.060
-1.100E-06,0.084
-1.090E-06,0.092
-1.080E-06,0.092
-1.070E-06,0.084
-1.060E-06,0.068
-1.050E-06,0.060
-1.040E-06,0.052
-1.030E-06,0.060
-1.020E-06,0.064
-1.010E-06,0.060
-1.000E-06,0.052
-9.900E-07,0.044
-9.800E-07,0.040
-9.700E-07,0.028
-9.600E-07,0.036
-9.500E-07,0.032
-9.400E-07,0.024
-9.300E-07,0.028
-9.200E-07,0.032
-9.100E-07,0.036
-9.000E-07,0.056
-8.900E-07,0.064
-8.800E-07,0.076
-8.700E-07,0.072
-8.600E-07,0.076
-8.500E-07,0.060
-8.400E-07,0.056
-8.300E-07,0.040
-8.200E-07,0.040
-8.100E-07,0.028
-8.000E-07,0.036
-7.900E-07,0.032
-7.800E-07,0.044
-7.700E-07,0.056
-7.600E-07,0.044
-7.500E-07,0.052
-7.400E-07,0.040
-7.300E-07,0.040
-7.200E-07,0.040
-7.100E-07,0.052
-7.000E-07,0.064
-6.900E-07,0.076
-6.800E-07,0.072
-6.700E-07,0.072
-6.600E-07,0.080
-6.500E-07,0.092
-6.400E-07,0.104
-6.300E-07,0.136
-6.200E-07,0.148
-6.100E-07,0.140
-6.000E-07,0.136
-5.900E-07,0.128
-5.800E-07,0.120
-5.700E-07,0.128
-5.600E-07,0.144
-5.500E-07,0.160
-5.400E-07,0.156
-5.300E-07,0.144
-5.200E-07,0.128
-5.100E-07,0.124
-5.000E-07,0.136
-4.900E-07,0.148
-4.800E-07,0.160
-4.700E-07,0.164
-4.600E-07,0.156
-4.500E-07,0.144
-4.400E-07,0.128
-4.300E-07,0.124
-4.200E-07,0.128
-4.100E-07,0.128
-4.000E-07,0.136
-3.900E-07,0.136
-3.800E-07,0.136
-3.700E-07,0.132
-3.600E-07,0.124
-3.500E-07,0.132
-3.400E-07,0.124
-3.300E-07,0.128
-3.200E-07,0.124
-3.100E-07,0.128
-3.000E-07,0.132
-2.900E-07,0.136
-2.800E-07,0.148
-2.700E-07,0.144
-2.600E-07,0.144
-2.500E-07,0.136
-2.400E-07,0.136
-2.300E-07,0.140
-2.200E-07,0.144
-2.100E-07,0.144
-2.000E-07,0.148
-1.900E-07,0.140
-1.800E-07,0.144
-1.700E-07,0.136
-1.600E-07,0.136
-1.500E-07,0.140
-1.400E-07,0.152
-1.300E-07,0.156
-1.200E-07,0.144
-1.100E-07,0.132
-1.000E-07,0.124
-9.000E-08,0.108
-8.000E-08,0.124
-7.000E-08,0.100
-6.000E-08,0.068
-5.000E-08,0.012
-4.000E-08,-0.004
-3.000E-08,0.024
-2.000E-08,0.100
-1.000E-08,0.156
0.000E+00,0.192
1.000E-08,0.156
2.000E-08,0.112
3.000E-08,0.048
4.000E-08,0.000
5.000E-08,-0.028
6.000E-08,-0.040
7.000E-08,0.004
8.000E-08,0.056
9.000E-08,0.076
1.000E-07,0.096
1.100E-07,0.060
1.200E-07,0.024
1.300E-07,-0.032
1.400E-07,-0.028
1.500E-07,0.004
1.600E-07,0.100
1.700E-07,0.164
1.800E-07,0.188
1.900E-07,0.168
2.000E-07,0.124
2.100E-07,0.072
2.200E-07,0.072
2.300E-07,0.108
2.400E-07,0.136
2.500E-07,0.164
2.600E-07,0.172
2.700E-07,0.168
2.800E-07,0.152
2.900E-07,0.136
3.000E-07,0.128
3.100E-07,0.128
3.200E-07,0.136
3.300E-07,0.140
3.400E-07,0.148
3.500E-07,0.152
3.600E-07,0.148
3.700E-07,0.140
3.800E-07,0.140
3.900E-07,0.136
4.000E-07,0.144
4.100E-07,0.148
4.200E-07,0.152
4.300E-07,0.148
4.400E-07,0.156
4.500E-07,0.156
4.600E-07,0.148
4.700E-07,0.156
4.800E-07,0.160
4.900E-07,0.160
5.000E-07,0.164
5.100E-07,0.160
5.200E-07,0.156
5.300E-07,0.156
5.400E-07,0.160
5.500E-07,0.160
5.600E-07,0.164
5.700E-07,0.168
5.800E-07,0.168
5.900E-07,0.164
6.000E-07,0.164
6.100E-07,0.156
6.200E-07,0.152
6.300E-07,0.160
6.400E-07,0.164
6.500E-07,0.156
6.600E-07,0.160
6.700E-07,0.164
6.800E-07,0.160
6.900E-07,0.152
7.000E-07,0.160
7.100E-07,0.160
7.200E-07,0.160
7.300E-07,0.164
7.400E-07,0.160
7.500E-07,0.160
7.600E-07,0.160
7.700E-07,0.160
7.800E-07,0.156
7.900E-07,0.160
8.000E-07,0.160
8.100E-07,0.160
8.200E-07,0.160
8.300E-07,0.152
8.400E-07,0.152
8.500E-07,0.156
8.600E-07,0.160
8.700E-07,0.152
8.800E-07,0.152
8.900E-07,0.160
9.000E-07,0.156
9.100E-07,0.156
9.200E-07,0.156
9.300E-07,0.152
9.400E-07,0.152
9.500E-07,0.144
9.600E-07,0.144
9.700E-07,0.148
9.800E-07,0.152
9.900E-07,0.148
1.000E-06,0.148
1.010E-06,0.152
1.020E-06,0.148
1.030E-06,0.148
1.040E-06,0.152
1.050E-06,0.148
1.060E-06,0.148
1.070E-06,0.148
1.080E-06,0.144
1.090E-06,0.144
1.100E-06,0.148
1.110E-06,0.148
1.120E-06,0.148
1.130E-06,0.140
1.140E-06,0.144
1.150E-06,0.144
1.160E-06,0.144
1.170E-06,0.144
1.180E-06,0.144
1.190E-06,0.144
1.200E-06,0.144
1.210E-06,0.144
1.220E-06,0.144
1.230E-06,0.144
1.240E-06,0.144
1.250E-06,0.144
1.260E-06,0.144
1.270E-06,0.140
1.280E-06,0.144
1.290E-06,0.140
1.300E-06,0.144
1.310E-06,0.144
1.320E-06,0.144
1.330E-06,0.144
1.340E-06,0.140
1.350E-06,0.140
1.360E-06,0.140
1.370E-06,0.140
1.380E-06,0.140
1.390E-06,0.140
1.400E-06,0.136
1.410E-06,0.136
1.420E-06,0.136
1.430E-06,0.136
1.440E-06,0.132
1.450E-06,0.132
1.460E-06,0.128
1.470E-06,0.136
1.480E-06,0.136
1.490E-06,0.140
1.500E-06,0.132
1.510E-06,0.136
1.520E-06,0.136
1.530E-06,0.140
1.540E-06,0.140
1.550E-06,0.132
1.560E-06,0.136
1.570E-06,0.136
1.580E-06,0.136
1.590E-06,0.132
1.600E-06,0.132
1.610E-06,0.132
1.620E-06,0.136
1.630E-06,0.132
1.640E-06,0.128
1.650E-06,0.128
1.660E-06,0.132
1.670E-06,0.132
1.680E-06,0.140
1.690E-06,0.136
1.700E-06,0.132
1.710E-06,0.132
1.720E-06,0.132
1.730E-06,0.132
1.740E-06,0.136
1.750E-06,0.136
1.760E-06,0.132
1.770E-06,0.128
1.780E-06,0.124
1.790E-06,0.124
1.800E-06,0.124
1.810E-06,0.124
1.820E-06,0.132
1.830E-06,0.132
1.840E-06,0.124
1.850E-06,0.124
1.860E-06,0.120
1.870E-06,0.120
1.880E-06,0.120
1.890E-06,0.120
1.900E-06,0.124
1.910E-06,0.124
1.920E-06,0.128
1.930E-06,0.124
1.940E-06,0.120
1.950E-06,0.116
1.960E-06,0.120
1.970E-06,0.124
1.980E-06,0.124
1.990E-06,0.124
2.000E-06,0.124
2.010E-06,0.120
2.020E-06,0.124
2.030E-06,0.124
2.040E-06,0.124
2.050E-06,0.120
2.060E-06,0.120
2.070E-06,0.120
2.080E-06,0.124
2.090E-06,0.124
2.100E-06,0.124
2.110E-06,0.124
2.120E-06,0.120
2.130E-06,0.120
2.140E-06,0.116
2.150E-06,0.120
2.160E-06,0.124
2.170E-06,0.128
2.180E-06,0.128
2.190E-06,0.124
2.200E-06,0.120
2.210E-06,0.124
2.220E-06,0.124
2.230E-06,0.124
2.240E-06,0.120
2.250E-06,0.124
2.260E-06,0.124
2.270E-06,0.120
2.280E-06,0.120
2.290E-06,0.112
2.300E-06,0.112
2.310E-06,0.108
2.320E-06,0.112
2.330E-06,0.112
2.340E-06,0.112
2.350E-06,0.108
2.360E-06,0.108
2.370E-06,0.108
2.380E-06,0.108
2.390E-06,0.108
2.400E-06,0.108
2.410E-06,0.104
2.420E-06,0.108
2.430E-06,0.108
2.440E-06,0.108
2.450E-06,0.104
2.460E-06,0.108
2.470E-06,0.108
2.480E-06,0.108
2.490E-06,0.104
2.500E-06,0.108
2.510E-06,0.108
2.520E-06,0.104
2.530E-06,0.108
2.540E-06,0.108
2.550E-06,0.104
2.560E-06,0.104
2.570E-06,0.104
2.580E-06,0.104
2.590E-06,0.104
2.600E-06,0.104
2.610E-06,0.104
2.620E-06,0.104
2.630E-06,0.104
2.640E-06,0.104
2.650E-06,0.100
2.660E-06,0.104
2.670E-06,0.104
2.680E-06,0.096
2.690E-06,0.104
2.700E-06,0.100
2.710E-06,0.100
2.720E-06,0.096
2.730E-06,0.100
2.740E-06,0.100
2.750E-06,0.096
2.760E-06,0.100
2.770E-06,0.100
2.780E-06,0.100
2.790E-06,0.100
2.800E-06,0.096
2.810E-06,0.096
2.820E-06,0.100
2.830E-06,0.100
2.840E-06,0.096
2.850E-06,0.096
2.860E-06,0.096
2.870E-06,0.100
2.880E-06,0.100
2.890E-06,0.096
2.900E-06,0.096
2.910E-06,0.092
2.920E-06,0.092
2.930E-06,0.096
2.940E-06,0.096
2.950E-06,0.096
2.960E-06,0.092
2.970E-06,0.096
2.980E-06,0.096
2.990E-06,0.092
3.000E-06,0.088
3.010E-06,0.088
3.020E-06,0.092
3.030E-06,0.092
3.040E-06,0.092
3.050E-06,0.092
3.060E-06,0.088
3.070E-06,0.092
3.080E-06,0.088
3.090E-06,0.088
3.100E-06,0.084
3.110E-06,0.088
3.120E-06,0.092
3.130E-06,0.092
3.140E-06,0.092
3.150E-06,0.092
3.160E-06,0.088
3.170E-06,0.084
3.180E-06,0.088
3.190E-06,0.080
3.200E-06,0.088
3.210E-06,0.084
3.220E-06,0.080
3.230E-06,0.080
3.240E-06,0.080
3.250E-06,0.080
3.260E-06,0.080
3.270E-06,0.080
3.280E-06,0.080
3.290E-06,0.080
3.300E-06,0.080
3.310E-06,0.076
3.320E-06,0.088
3.330E-06,0.076
3.340E-06,0.076
3.350E-06,0.076
3.360E-06,0.076
3.370E-06,0.072
3.380E-06,0.072
3.390E-06,0.072
3.400E-06,0.076
3.410E-06,0.076
3.420E-06,0.072
3.430E-06,0.076
3.440E-06,0.072
3.450E-06,0.072
3.460E-06,0.076
3.470E-06,0.076
3.480E-06,0.072
3.490E-06,0.072
3.500E-06,0.068
3.510E-06,0.076
3.520E-06,0.072
3.530E-06,0.068
3.540E-06,0.068
3.550E-06,0.072
3.560E-06,0.072
3.570E-06,0.068
3.580E-06,0.068
3.590E-06,0.072
3.600E-06,0.072
3.610E-06,0.076
3.620E-06,0.068
3.630E-06,0.072
3.640E-06,0.072
3.650E-06,0.068
3.660E-06,0.072
3.670E-06,0.076
3.680E-06,0.072
3.690E-06,0.068
3.700E-06,0.076
3.710E-06,0.072
3.720E-06,0.068
3.730E-06,0.068
3.740E-06,0.072
3.750E-06,0.068
3.760E-06,0.068
3.770E-06,0.068
3.780E-06,0.072
3.790E-06,0.068
3.800E-06,0.064
3.810E-06,0.064
3.820E-06,0.064
3.830E-06,0.064
3.840E-06,0.068
3.850E-06,0.068
3.860E-06,0.064
3.870E-06,0.068
3.880E-06,0.064
3.890E-06,0.064
3.900E-06,0.064
3.910E-06,0.068
3.920E-06,0.064
3.930E-06,0.064
3.940E-06,0.064
3.950E-06,0.068
3.960E-06,0.064
3.970E-06,0.064
3.980E-06,0.068
3.990E-06,0.060
4.000E-06,0.068
4.010E-06,0.060
4.020E-06,0.064
4.030E-06,0.060
4.040E-06,0.064
4.050E-06,0.060
4.060E-06,0.060
4.070E-06,0.060
4.080E-06,0.060
4.090E-06,0.064
4.100E-06,0.064
4.110E-06,0.060
4.120E-06,0.060
4.130E-06,0.060
4.140E-06,0.056
4.150E-06,0.064
4.160E-06,0.064
4.170E-06,0.060
4.180E-06,0.060
4.190E-06,0.064
4.200E-06,0.060
4.210E-06,0.060
4.220E-06,0.060
4.230E-06,0.060
4.240E-06,0.064
4.250E-06,0.064
4.260E-06,0.060
4.270E-06,0.056
4.280E-06,0.060
4.290E-06,0.060
4.300E-06,0.056
4.310E-06,0.056
4.320E-06,0.056
4.330E-06,0.060
4.340E-06,0.056
4.350E-06,0.060
4.360E-06,0.056
4.370E-06,0.060
4.380E-06,0.060
4.390E-06,0.052
4.400E-06,0.052
4.410E-06,0.056
4.420E-06,0.052
4.430E-06,0.048
4.440E-06,0.052
4.450E-06,0.044
4.460E-06,0.048
4.470E-06,0.044
4.480E-06,0.044
4.490E-06,0.040
4.500E-06,0.044
4.510E-06,0.048
4.520E-06,0.044
4.530E-06,0.044
4.540E-06,0.040
4.550E-06,0.040
4.560E-06,0.048
4.570E-06,0.040
4.580E-06,0.040
4.590E-06,0.044
4.600E-06,0.040
4.610E-06,0.040
4.620E-06,0.032
4.630E-06,0.040
4.640E-06,0.040
4.650E-06,0.040
4.660E-06,0.036
4.670E-06,0.040
4.680E-06,0.036
4.690E-06,0.036
4.700E-06,0.040
4.710E-06,0.040
4.720E-06,0.036
4.730E-06,0.036
4.740E-06,0.036
4.750E-06,0.040
4.760E-06,0.036
4.770E-06,0.036
4.780E-06,0.036
4.790E-06,0.036
4.800E-06,0.028
4.810E-06,0.028
4.820E-06,0.032
4.830E-06,0.036
4.840E-06,0.036
4.850E-06,0.028
4.860E-06,0.032
4.870E-06,0.032
4.880E-06,0.028
4.890E-06,0.028
4.900E-06,0.028
4.910E-06,0.032
4.920E-06,0.024
4.930E-06,0.024
4.940E-06,0.028
4.950E-06,0.024
4.960E-06,0.028
4.970E-06,0.032
4.980E-06,0.028
4.990E-06,0.032
5.000E-06,0.032
5.010E-06,0.024
5.020E-06,0.028
5.030E-06,0.032
5.040E-06,0.028
5.050E-06,0.032
5.060E-06,0.024
5.070E-06,0.020
5.080E-06,0.024
5.090E-06,0.024
5.100E-06,0.028
5.110E-06,0.028
5.120E-06,0.024
5.130E-06,0.020
5.140E-06,0.024
5.150E-06,0.020
5.160E-06,0.020
5.170E-06,0.024
5.180E-06,0.020
5.190E-06,0.028
5.200E-06,0.024
5.210E-06,0.028
5.220E-06,0.024
5.230E-06,0.020
5.240E-06,0.020
5.250E-06,0.024
5.260E-06,0.024
5.270E-06,0.024
5.280E-06,0.028
5.290E-06,0.024
5.300E-06,0.020
5.310E-06,0.016
5.320E-06,0.020
5.330E-06,0.028
5.340E-06,0.020
5.350E-06,0.020
5.360E-06,0.024
5.370E-06,0.020
5.380E-06,0.024
5.390E-06,0.028
5.400E-06,0.024
5.410E-06,0.016
5.420E-06,0.020
5.430E-06,0.016
5.440E-06,0.016
5.450E-06,0.020
5.460E-06,0.024
5.470E-06,0.028
5.480E-06,0.016
5.490E-06,0.016
5.500E-06,0.016
5.510E-06,0.012
5.520E-06,0.016
5.530E-06,0.016
5.540E-06,0.012
5.550E-06,0.020
5.560E-06,0.020
5.570E-06,0.016
5.580E-06,0.016
5.590E-06,0.012
5.600E-06,0.016
5.610E-06,0.016
5.620E-06,0.016
5.630E-06,0.016
5.640E-06,0.016
5.650E-06,0.008
5.660E-06,0.008
5.670E-06,0.012
5.680E-06,0.008
5.690E-06,0.012
5.700E-06,0.012
5.710E-06,0.012
5.720E-06,0.012
5.730E-06,0.012
5.740E-06,0.012
5.750E-06,0.012
5.760E-06,0.012
5.770E-06,0.012
5.780E-06,0.012
5.790E-06,0.008
5.800E-06,0.012
5.810E-06,0.008
5.820E-06,0.012
5.830E-06,0.004
5.840E-06,0.012
5.850E-06,0.012
5.860E-06,0.008
5.870E-06,0.008
5.880E-06,0.008
5.890E-06,0.008
5.900E-06,0.008
5.910E-06,0.012
5.920E-06,0.004
5.930E-06,0.004
5.940E-06,0.008
5.950E-06,0.012
5.960E-06,0.012
5.970E-06,0.012
5.980E-06,0.012
5.990E-06,0.004
6.000E-06,0.008
6.010E-06,0.008
6.020E-06,0.008
6.030E-06,0.012
6.040E-06,0.012
6.050E-06,0.004
6.060E-06,0.004
6.070E-06,0.008
6.080E-06,0.004
6.090E-06,0.008
6.100E-06,0.004
6.110E-06,0.008
6.120E-06,0.012
6.130E-06,0.004
6.140E-06,0.004
6.150E-06,0.008
6.160E-06,0.004
6.170E-06,0.004
6.180E-06,0.004
6.190E-06,0.004
6.200E-06,0.004
6.210E-06,0.004
6.220E-06,0.004
6.230E-06,0.004
6.240E-06,0.000
6.250E-06,0.004
6.260E-06,0.008
6.270E-06,0.000
6.280E-06,0.000
6.290E-06,0.004
6.300E-06,-0.004
6.310E-06,0.000
6.320E-06,0.004
6.330E-06,0.000
6.340E-06,0.000
6.350E-06,0.000
6.360E-06,0.000
6.370E-06,0.000
6.380E-06,0.000
6.390E-06,0.000
