mediciones/Mediciones filtradas (saque las feas)/5-27/-57.5/WaveData50307.csv

#timebase=2000000(ps)
,#voltbase=100000(mv/100)
#size=4000
-5.650E-06,0.000
-5.640E-06,0.000
-5.630E-06,0.000
-5.620E-06,0.008
-5.610E-06,0.000
-5.600E-06,0.000
-5.590E-06,0.004
-5.580E-06,0.000
-5.570E-06,0.004
-5.560E-06,0.004
-5.550E-06,0.004
-5.540E-06,0.004
-5.530E-06,0.008
-5.520E-06,0.008
-5.510E-06,0.000
-5.500E-06,0.004
-5.490E-06,0.004
-5.480E-06,0.004
-5.470E-06,0.000
-5.460E-06,0.004
-5.450E-06,0.000
-5.440E-06,0.004
-5.430E-06,0.008
-5.420E-06,0.012
-5.410E-06,0.012
-5.400E-06,0.000
-5.390E-06,0.000
-5.380E-06,-0.004
-5.370E-06,0.004
-5.360E-06,0.004
-5.350E-06,0.008
-5.340E-06,0.004
-5.330E-06,0.004
-5.320E-06,0.008
-5.310E-06,0.004
-5.300E-06,0.004
-5.290E-06,0.000
-5.280E-06,-0.004
-5.270E-06,0.000
-5.260E-06,0.004
-5.250E-06,0.000
-5.240E-06,0.000
-5.230E-06,0.004
-5.220E-06,-0.004
-5.210E-06,0.004
-5.200E-06,0.004
-5.190E-06,0.004
-5.180E-06,0.004
-5.170E-06,0.000
-5.160E-06,-0.004
-5.150E-06,0.004
-5.140E-06,0.000
-5.130E-06,0.004
-5.120E-06,0.008
-5.110E-06,0.004
-5.100E-06,0.004
-5.090E-06,0.004
-5.080E-06,0.000
-5.070E-06,0.000
-5.060E-06,0.004
-5.050E-06,0.004
-5.040E-06,0.008
-5.030E-06,0.000
-5.020E-06,0.004
-5.010E-06,0.004
-5.000E-06,0.004
-4.990E-06,0.004
-4.980E-06,0.008
-4.970E-06,0.008
-4.960E-06,-0.004
-4.950E-06,0.004
-4.940E-06,0.000
-4.930E-06,0.004
-4.920E-06,0.008
-4.910E-06,0.008
-4.900E-06,0.008
-4.890E-06,0.004
-4.880E-06,0.004
-4.870E-06,0.004
-4.860E-06,0.000
-4.850E-06,0.004
-4.840E-06,0.000
-4.830E-06,0.004
-4.820E-06,0.004
-4.810E-06,0.004
-4.800E-06,0.004
-4.790E-06,0.008
-4.780E-06,0.000
-4.770E-06,0.000
-4.760E-06,0.008
-4.750E-06,0.000
-4.740E-06,0.004
-4.730E-06,0.004
-4.720E-06,0.004
-4.710E-06,0.008
-4.700E-06,0.012
-4.690E-06,0.012
-4.680E-06,0.008
-4.670E-06,0.000
-4.660E-06,-0.004
-4.650E-06,0.000
-4.640E-06,0.000
-4.630E-06,0.000
-4.620E-06,-0.004
-4.610E-06,0.004
-4.600E-06,0.008
-4.590E-06,0.012
-4.580E-06,0.008
-4.570E-06,0.004
-4.560E-06,0.004
-4.550E-06,-0.004
-4.540E-06,0.004
-4.530E-06,0.008
-4.520E-06,0.008
-4.510E-06,0.004
-4.500E-06,0.004
-4.490E-06,0.004
-4.480E-06,0.004
-4.470E-06,0.004
-4.460E-06,0.008
-4.450E-06,0.004
-4.440E-06,0.000
-4.430E-06,0.000
-4.420E-06,0.004
-4.410E-06,0.008
-4.400E-06,0.004
-4.390E-06,0.008
-4.380E-06,0.008
-4.370E-06,0.004
-4.360E-06,0.004
-4.350E-06,0.004
-4.340E-06,0.004
-4.330E-06,0.004
-4.320E-06,0.008
-4.310E-06,0.004
-4.300E-06,0.008
-4.290E-06,0.000
-4.280E-06,0.000
-4.270E-06,0.004
-4.260E-06,0.004
-4.250E-06,0.008
-4.240E-06,0.004
-4.230E-06,0.008
-4.220E-06,0.008
-4.210E-06,0.008
-4.200E-06,0.008
-4.190E-06,0.008
-4.180E-06,0.012
-4.170E-06,0.012
-4.160E-06,0.012
-4.150E-06,0.004
-4.140E-06,0.012
-4.130E-06,0.016
-4.120E-06,0.024
-4.110E-06,0.020
-4.100E-06,0.016
-4.090E-06,0.012
-4.080E-06,0.008
-4.070E-06,0.004
-4.060E-06,-0.008
-4.050E-06,-0.008
-4.040E-06,-0.008
-4.030E-06,0.000
-4.020E-06,-0.004
-4.010E-06,-0.004
-4.000E-06,0.000
-3.990E-06,0.004
-3.980E-06,0.012
-3.970E-06,0.012
-3.960E-06,0.012
-3.950E-06,-0.004
-3.940E-06,-0.004
-3.930E-06,-0.008
-3.920E-06,-0.008
-3.910E-06,-0.004
-3.900E-06,0.000
-3.890E-06,0.004
-3.880E-06,0.008
-3.870E-06,0.004
-3.860E-06,0.008
-3.850E-06,0.004
-3.840E-06,0.004
-3.830E-06,0.004
-3.820E-06,-0.008
-3.810E-06,0.004
-3.800E-06,-0.004
-3.790E-06,0.004
-3.780E-06,0.008
-3.770E-06,0.008
-3.760E-06,0.008
-3.750E-06,0.004
-3.740E-06,-0.004
-3.730E-06,0.000
-3.720E-06,0.000
-3.710E-06,0.000
-3.700E-06,0.000
-3.690E-06,0.000
-3.680E-06,0.008
-3.670E-06,-0.004
-3.660E-06,0.000
-3.650E-06,0.008
-3.640E-06,0.004
-3.630E-06,0.012
-3.620E-06,0.008
-3.610E-06,0.008
-3.600E-06,0.004
-3.590E-06,0.004
-3.580E-06,0.008
-3.570E-06,0.008
-3.560E-06,0.012
-3.550E-06,0.012
-3.540E-06,0.012
-3.530E-06,0.008
-3.520E-06,0.012
-3.510E-06,0.012
-3.500E-06,0.016
-3.490E-06,0.012
-3.480E-06,0.012
-3.470E-06,0.000
-3.460E-06,0.004
-3.450E-06,0.008
-3.440E-06,0.008
-3.430E-06,0.016
-3.420E-06,0.004
-3.410E-06,0.000
-3.400E-06,0.000
-3.390E-06,0.000
-3.380E-06,0.000
-3.370E-06,0.012
-3.360E-06,0.012
-3.350E-06,-0.008
-3.340E-06,-0.020
-3.330E-06,-0.020
-3.320E-06,-0.008
-3.310E-06,0.000
-3.300E-06,0.004
-3.290E-06,0.000
-3.280E-06,-0.004
-3.270E-06,-0.008
-3.260E-06,-0.004
-3.250E-06,-0.004
-3.240E-06,0.008
-3.230E-06,0.008
-3.220E-06,0.000
-3.210E-06,0.000
-3.200E-06,-0.008
-3.190E-06,-0.004
-3.180E-06,0.000
-3.170E-06,0.008
-3.160E-06,0.008
-3.150E-06,0.004
-3.140E-06,-0.004
-3.130E-06,0.000
-3.120E-06,0.000
-3.110E-06,0.000
-3.100E-06,0.008
-3.090E-06,0.008
-3.080E-06,0.004
-3.070E-06,0.004
-3.060E-06,0.000
-3.050E-06,0.000
-3.040E-06,0.004
-3.030E-06,0.008
-3.020E-06,0.008
-3.010E-06,0.008
-3.000E-06,0.000
-2.990E-06,0.000
-2.980E-06,-0.004
-2.970E-06,0.004
-2.960E-06,0.004
-2.950E-06,0.008
-2.940E-06,0.008
-2.930E-06,0.008
-2.920E-06,0.004
-2.910E-06,0.004
-2.900E-06,0.000
-2.890E-06,0.004
-2.880E-06,0.004
-2.870E-06,0.008
-2.860E-06,0.008
-2.850E-06,0.008
-2.840E-06,0.008
-2.830E-06,0.008
-2.820E-06,0.000
-2.810E-06,0.004
-2.800E-06,0.008
-2.790E-06,0.012
-2.780E-06,0.016
-2.770E-06,0.012
-2.760E-06,0.020
-2.750E-06,0.024
-2.740E-06,0.024
-2.730E-06,0.028
-2.720E-06,0.028
-2.710E-06,0.024
-2.700E-06,0.016
-2.690E-06,0.000
-2.680E-06,-0.008
-2.670E-06,-0.008
-2.660E-06,-0.008
-2.650E-06,0.004
-2.640E-06,0.012
-2.630E-06,0.004
-2.620E-06,0.000
-2.610E-06,0.000
-2.600E-06,-0.008
-2.590E-06,0.000
-2.580E-06,-0.004
-2.570E-06,0.008
-2.560E-06,0.012
-2.550E-06,0.000
-2.540E-06,0.000
-2.530E-06,0.000
-2.520E-06,0.000
-2.510E-06,0.004
-2.500E-06,0.012
-2.490E-06,0.012
-2.480E-06,0.020
-2.470E-06,0.016
-2.460E-06,0.012
-2.450E-06,0.012
-2.440E-06,0.012
-2.430E-06,0.016
-2.420E-06,0.016
-2.410E-06,0.012
-2.400E-06,0.012
-2.390E-06,0.012
-2.380E-06,0.016
-2.370E-06,0.024
-2.360E-06,0.020
-2.350E-06,0.028
-2.340E-06,0.020
-2.330E-06,0.024
-2.320E-06,0.020
-2.310E-06,0.012
-2.300E-06,0.008
-2.290E-06,0.012
-2.280E-06,0.012
-2.270E-06,0.024
-2.260E-06,0.032
-2.250E-06,0.028
-2.240E-06,0.028
-2.230E-06,0.016
-2.220E-06,0.020
-2.210E-06,0.024
-2.200E-06,0.016
-2.190E-06,0.028
-2.180E-06,0.028
-2.170E-06,0.028
-2.160E-06,0.008
-2.150E-06,-0.008
-2.140E-06,-0.020
-2.130E-06,-0.020
-2.120E-06,-0.008
-2.110E-06,-0.012
-2.100E-06,-0.004
-2.090E-06,-0.020
-2.080E-06,-0.028
-2.070E-06,-0.024
-2.060E-06,-0.012
-2.050E-06,-0.004
-2.040E-06,-0.004
-2.030E-06,0.000
-2.020E-06,-0.004
-2.010E-06,-0.016
-2.000E-06,-0.028
-1.990E-06,-0.024
-1.980E-06,-0.004
-1.970E-06,0.004
-1.960E-06,0.012
-1.950E-06,0.020
-1.940E-06,0.016
-1.930E-06,0.000
-1.920E-06,-0.008
-1.910E-06,-0.004
-1.900E-06,0.004
-1.890E-06,0.004
-1.880E-06,0.012
-1.870E-06,0.012
-1.860E-06,0.008
-1.850E-06,0.000
-1.840E-06,0.008
-1.830E-06,0.016
-1.820E-06,0.016
-1.810E-06,0.024
-1.800E-06,0.016
-1.790E-06,0.016
-1.780E-06,0.024
-1.770E-06,0.024
-1.760E-06,0.024
-1.750E-06,0.024
-1.740E-06,0.020
-1.730E-06,0.028
-1.720E-06,0.032
-1.710E-06,0.036
-1.700E-06,0.028
-1.690E-06,0.024
-1.680E-06,0.016
-1.670E-06,0.020
-1.660E-06,0.028
-1.650E-06,0.024
-1.640E-06,0.020
-1.630E-06,0.004
-1.620E-06,0.004
-1.610E-06,0.004
-1.600E-06,0.028
-1.590E-06,0.036
-1.580E-06,0.036
-1.570E-06,0.036
-1.560E-06,0.028
-1.550E-06,0.012
-1.540E-06,0.008
-1.530E-06,0.008
-1.520E-06,0.012
-1.510E-06,0.008
-1.500E-06,0.004
-1.490E-06,-0.016
-1.480E-06,-0.016
-1.470E-06,-0.016
-1.460E-06,-0.028
-1.450E-06,-0.008
-1.440E-06,-0.016
-1.430E-06,0.000
-1.420E-06,-0.020
-1.410E-06,-0.044
-1.400E-06,-0.064
-1.390E-06,-0.068
-1.380E-06,-0.040
-1.370E-06,-0.012
-1.360E-06,0.004
-1.350E-06,0.016
-1.340E-06,0.012
-1.330E-06,0.012
-1.320E-06,0.000
-1.310E-06,0.008
-1.300E-06,0.012
-1.290E-06,0.000
-1.280E-06,-0.008
-1.270E-06,-0.004
-1.260E-06,-0.004
-1.250E-06,0.008
-1.240E-06,0.024
-1.230E-06,0.016
-1.220E-06,0.012
-1.210E-06,0.016
-1.200E-06,0.028
-1.190E-06,0.032
-1.180E-06,0.044
-1.170E-06,0.048
-1.160E-06,0.048
-1.150E-06,0.040
-1.140E-06,0.028
-1.130E-06,0.036
-1.120E-06,0.036
-1.110E-06,0.036
-1.100E-06,0.032
-1.090E-06,0.024
-1.080E-06,0.028
-1.070E-06,0.016
-1.060E-06,0.012
-1.050E-06,0.020
-1.040E-06,0.020
-1.030E-06,0.020
-1.020E-06,0.032
-1.010E-06,0.024
-1.000E-06,0.032
-9.900E-07,0.032
-9.800E-07,0.020
-9.700E-07,0.016
-9.600E-07,0.020
-9.500E-07,0.024
-9.400E-07,0.028
-9.300E-07,0.032
-9.200E-07,0.040
-9.100E-07,0.040
-9.000E-07,0.048
-8.900E-07,0.052
-8.800E-07,0.064
-8.700E-07,0.068
-8.600E-07,0.092
-8.500E-07,0.088
-8.400E-07,0.092
-8.300E-07,0.088
-8.200E-07,0.080
-8.100E-07,0.076
-8.000E-07,0.064
-7.900E-07,0.044
-7.800E-07,0.024
-7.700E-07,0.024
-7.600E-07,0.004
-7.500E-07,-0.008
-7.400E-07,-0.016
-7.300E-07,-0.020
-7.200E-07,-0.040
-7.100E-07,-0.032
-7.000E-07,-0.024
-6.900E-07,-0.004
-6.800E-07,0.012
-6.700E-07,0.044
-6.600E-07,0.064
-6.500E-07,0.076
-6.400E-07,0.072
-6.300E-07,0.056
-6.200E-07,0.012
-6.100E-07,-0.036
-6.000E-07,-0.052
-5.900E-07,-0.044
-5.800E-07,-0.024
-5.700E-07,0.004
-5.600E-07,0.032
-5.500E-07,0.036
-5.400E-07,0.020
-5.300E-07,-0.004
-5.200E-07,-0.032
-5.100E-07,-0.028
-5.000E-07,-0.008
-4.900E-07,0.020
-4.800E-07,0.028
-4.700E-07,0.040
-4.600E-07,0.048
-4.500E-07,0.064
-4.400E-07,0.084
-4.300E-07,0.096
-4.200E-07,0.104
-4.100E-07,0.108
-4.000E-07,0.108
-3.900E-07,0.108
-3.800E-07,0.116
-3.700E-07,0.116
-3.600E-07,0.124
-3.500E-07,0.120
-3.400E-07,0.108
-3.300E-07,0.112
-3.200E-07,0.108
-3.100E-07,0.120
-3.000E-07,0.112
-2.900E-07,0.120
-2.800E-07,0.112
-2.700E-07,0.128
-2.600E-07,0.112
-2.500E-07,0.128
-2.400E-07,0.124
-2.300E-07,0.124
-2.200E-07,0.128
-2.100E-07,0.124
-2.000E-07,0.124
-1.900E-07,0.108
-1.800E-07,0.116
-1.700E-07,0.108
-1.600E-07,0.124
-1.500E-07,0.104
-1.400E-07,0.096
-1.300E-07,0.108
-1.200E-07,-0.128
-1.100E-07,-0.348
-1.000E-07,-0.512
-9.000E-08,-0.376
-8.000E-08,-0.288
-7.000E-08,-0.484
-6.000E-08,-0.508
-5.000E-08,-0.512
-4.000E-08,-0.508
-3.000E-08,-0.452
-2.000E-08,-0.088
-1.000E-08,0.100
0.000E+00,0.284
1.000E-08,0.292
2.000E-08,-0.044
3.000E-08,-0.280
4.000E-08,-0.228
5.000E-08,-0.160
6.000E-08,0.036
7.000E-08,0.152
8.000E-08,0.116
9.000E-08,0.064
1.000E-07,0.028
1.100E-07,-0.020
1.200E-07,-0.020
1.300E-07,-0.004
1.400E-07,0.028
1.500E-07,0.060
1.600E-07,0.060
1.700E-07,0.024
1.800E-07,0.012
1.900E-07,-0.008
2.000E-07,-0.012
2.100E-07,0.008
2.200E-07,0.024
2.300E-07,0.044
2.400E-07,0.040
2.500E-07,0.024
2.600E-07,-0.008
2.700E-07,-0.004
2.800E-07,-0.012
2.900E-07,0.000
3.000E-07,0.012
3.100E-07,0.020
3.200E-07,0.032
3.300E-07,0.036
3.400E-07,0.028
3.500E-07,0.016
3.600E-07,0.028
3.700E-07,0.032
3.800E-07,0.036
3.900E-07,0.072
4.000E-07,0.096
4.100E-07,0.092
4.200E-07,0.092
4.300E-07,0.068
4.400E-07,0.064
4.500E-07,0.076
4.600E-07,0.100
4.700E-07,0.124
4.800E-07,0.144
4.900E-07,0.144
5.000E-07,0.124
5.100E-07,0.120
5.200E-07,0.108
5.300E-07,0.124
5.400E-07,0.132
5.500E-07,0.136
5.600E-07,0.144
5.700E-07,0.148
5.800E-07,0.148
5.900E-07,0.152
6.000E-07,0.148
6.100E-07,0.140
6.200E-07,0.140
6.300E-07,0.136
6.400E-07,0.128
6.500E-07,0.124
6.600E-07,0.128
6.700E-07,0.136
6.800E-07,0.136
6.900E-07,0.152
7.000E-07,0.152
7.100E-07,0.140
7.200E-07,0.144
7.300E-07,0.152
7.400E-07,0.136
7.500E-07,0.144
7.600E-07,0.124
7.700E-07,0.088
7.800E-07,0.108
7.900E-07,0.072
8.000E-07,0.064
8.100E-07,0.032
8.200E-07,-0.048
8.300E-07,-0.044
8.400E-07,-0.024
8.500E-07,-0.032
8.600E-07,-0.028
8.700E-07,-0.120
8.800E-07,-0.300
8.900E-07,-0.448
9.000E-07,-0.512
9.100E-07,-0.508
9.200E-07,-0.508
9.300E-07,-0.512
9.400E-07,-0.400
9.500E-07,-0.264
9.600E-07,-0.168
9.700E-07,-0.156
9.800E-07,-0.100
9.900E-07,-0.048
1.000E-06,-0.072
1.010E-06,-0.024
1.020E-06,0.032
1.030E-06,0.080
1.040E-06,0.100
1.050E-06,0.096
1.060E-06,0.076
1.070E-06,0.080
1.080E-06,0.092
1.090E-06,0.092
1.100E-06,0.124
1.110E-06,0.136
1.120E-06,0.120
1.130E-06,0.104
1.140E-06,0.088
1.150E-06,0.092
1.160E-06,0.100
1.170E-06,0.108
1.180E-06,0.104
1.190E-06,0.116
1.200E-06,0.108
1.210E-06,0.092
1.220E-06,0.092
1.230E-06,0.096
1.240E-06,0.104
1.250E-06,0.112
1.260E-06,0.108
1.270E-06,0.092
1.280E-06,0.092
1.290E-06,0.072
1.300E-06,0.080
1.310E-06,0.092
1.320E-06,0.108
1.330E-06,0.128
1.340E-06,0.144
1.350E-06,0.152
1.360E-06,0.140
1.370E-06,0.136
1.380E-06,0.136
1.390E-06,0.140
1.400E-06,0.136
1.410E-06,0.136
1.420E-06,0.144
1.430E-06,0.144
1.440E-06,0.144
1.450E-06,0.148
1.460E-06,0.148
1.470E-06,0.152
1.480E-06,0.156
1.490E-06,0.156
1.500E-06,0.156
1.510E-06,0.160
1.520E-06,0.160
1.530E-06,0.160
1.540E-06,0.152
1.550E-06,0.156
1.560E-06,0.160
1.570E-06,0.144
1.580E-06,0.148
1.590E-06,0.144
1.600E-06,0.148
1.610E-06,0.144
1.620E-06,0.136
1.630E-06,0.120
1.640E-06,0.124
1.650E-06,0.120
1.660E-06,0.120
1.670E-06,0.124
1.680E-06,0.128
1.690E-06,0.140
1.700E-06,0.144
1.710E-06,0.148
1.720E-06,0.128
1.730E-06,0.112
1.740E-06,0.104
1.750E-06,0.092
1.760E-06,0.120
1.770E-06,0.108
1.780E-06,0.128
1.790E-06,0.092
1.800E-06,0.108
1.810E-06,0.064
1.820E-06,0.088
1.830E-06,0.048
1.840E-06,0.060
1.850E-06,0.008
1.860E-06,0.024
1.870E-06,0.024
1.880E-06,0.032
1.890E-06,0.032
1.900E-06,0.020
1.910E-06,0.004
1.920E-06,-0.012
1.930E-06,0.000
1.940E-06,0.040
1.950E-06,0.088
1.960E-06,0.140
1.970E-06,0.148
1.980E-06,0.124
1.990E-06,0.092
2.000E-06,0.084
2.010E-06,0.084
2.020E-06,0.128
2.030E-06,0.164
2.040E-06,0.192
2.050E-06,0.176
2.060E-06,0.144
2.070E-06,0.112
2.080E-06,0.108
2.090E-06,0.124
2.100E-06,0.140
2.110E-06,0.144
2.120E-06,0.140
2.130E-06,0.132
2.140E-06,0.128
2.150E-06,0.136
2.160E-06,0.136
2.170E-06,0.140
2.180E-06,0.140
2.190E-06,0.140
2.200E-06,0.144
2.210E-06,0.144
2.220E-06,0.144
2.230E-06,0.140
2.240E-06,0.144
2.250E-06,0.144
2.260E-06,0.152
2.270E-06,0.152
2.280E-06,0.152
2.290E-06,0.148
2.300E-06,0.144
2.310E-06,0.144
2.320E-06,0.148
2.330E-06,0.148
2.340E-06,0.152
2.350E-06,0.152
2.360E-06,0.148
2.370E-06,0.152
2.380E-06,0.152
2.390E-06,0.152
2.400E-06,0.148
2.410E-06,0.156
2.420E-06,0.152
2.430E-06,0.152
2.440E-06,0.148
2.450E-06,0.148
2.460E-06,0.148
2.470E-06,0.148
2.480E-06,0.144
2.490E-06,0.152
2.500E-06,0.152
2.510E-06,0.152
2.520E-06,0.148
2.530E-06,0.148
2.540E-06,0.152
2.550E-06,0.152
2.560E-06,0.152
2.570E-06,0.156
2.580E-06,0.152
2.590E-06,0.148
2.600E-06,0.148
2.610E-06,0.148
2.620E-06,0.144
2.630E-06,0.152
2.640E-06,0.148
2.650E-06,0.144
2.660E-06,0.144
2.670E-06,0.148
2.680E-06,0.136
2.690E-06,0.140
2.700E-06,0.144
2.710E-06,0.140
2.720E-06,0.144
2.730E-06,0.144
2.740E-06,0.144
2.750E-06,0.144
2.760E-06,0.140
2.770E-06,0.140
2.780E-06,0.140
2.790E-06,0.140
2.800E-06,0.144
2.810E-06,0.144
2.820E-06,0.136
2.830E-06,0.136
2.840E-06,0.136
2.850E-06,0.136
2.860E-06,0.136
2.870E-06,0.136
2.880E-06,0.140
2.890E-06,0.140
2.900E-06,0.136
2.910E-06,0.140
2.920E-06,0.140
2.930E-06,0.136
2.940E-06,0.136
2.950E-06,0.140
2.960E-06,0.140
2.970E-06,0.144
2.980E-06,0.136
2.990E-06,0.136
3.000E-06,0.140
3.010E-06,0.144
3.020E-06,0.136
3.030E-06,0.140
3.040E-06,0.136
3.050E-06,0.136
3.060E-06,0.136
3.070E-06,0.140
3.080E-06,0.136
3.090E-06,0.132
3.100E-06,0.136
3.110E-06,0.140
3.120E-06,0.144
3.130E-06,0.148
3.140E-06,0.140
3.150E-06,0.140
3.160E-06,0.140
3.170E-06,0.140
3.180E-06,0.136
3.190E-06,0.132
3.200E-06,0.128
3.210E-06,0.128
3.220E-06,0.132
3.230E-06,0.128
3.240E-06,0.128
3.250E-06,0.120
3.260E-06,0.120
3.270E-06,0.124
3.280E-06,0.128
3.290E-06,0.128
3.300E-06,0.128
3.310E-06,0.128
3.320E-06,0.132
3.330E-06,0.140
3.340E-06,0.140
3.350E-06,0.132
3.360E-06,0.128
3.370E-06,0.108
3.380E-06,0.108
3.390E-06,0.104
3.400E-06,0.108
3.410E-06,0.120
3.420E-06,0.128
3.430E-06,0.128
3.440E-06,0.128
3.450E-06,0.132
3.460E-06,0.136
3.470E-06,0.136
3.480E-06,0.132
3.490E-06,0.132
3.500E-06,0.132
3.510E-06,0.128
3.520E-06,0.124
3.530E-06,0.116
3.540E-06,0.108
3.550E-06,0.112
3.560E-06,0.120
3.570E-06,0.124
3.580E-06,0.128
3.590E-06,0.132
3.600E-06,0.132
3.610E-06,0.124
3.620E-06,0.124
3.630E-06,0.120
3.640E-06,0.120
3.650E-06,0.124
3.660E-06,0.124
3.670E-06,0.120
3.680E-06,0.124
3.690E-06,0.124
3.700E-06,0.120
3.710E-06,0.116
3.720E-06,0.116
3.730E-06,0.116
3.740E-06,0.124
3.750E-06,0.120
3.760E-06,0.124
3.770E-06,0.124
3.780E-06,0.124
3.790E-06,0.124
3.800E-06,0.124
3.810E-06,0.128
3.820E-06,0.112
3.830E-06,0.112
3.840E-06,0.108
3.850E-06,0.112
3.860E-06,0.112
3.870E-06,0.116
3.880E-06,0.112
3.890E-06,0.108
3.900E-06,0.112
3.910E-06,0.108
3.920E-06,0.116
3.930E-06,0.112
3.940E-06,0.112
3.950E-06,0.116
3.960E-06,0.124
3.970E-06,0.120
3.980E-06,0.116
3.990E-06,0.108
4.000E-06,0.112
4.010E-06,0.108
4.020E-06,0.108
4.030E-06,0.108
4.040E-06,0.108
4.050E-06,0.108
4.060E-06,0.108
4.070E-06,0.100
4.080E-06,0.100
4.090E-06,0.104
4.100E-06,0.104
4.110E-06,0.104
4.120E-06,0.108
4.130E-06,0.108
4.140E-06,0.104
4.150E-06,0.104
4.160E-06,0.104
4.170E-06,0.104
4.180E-06,0.108
4.190E-06,0.108
4.200E-06,0.100
4.210E-06,0.096
4.220E-06,0.096
4.230E-06,0.096
4.240E-06,0.100
4.250E-06,0.104
4.260E-06,0.108
4.270E-06,0.104
4.280E-06,0.096
4.290E-06,0.096
4.300E-06,0.096
4.310E-06,0.100
4.320E-06,0.104
4.330E-06,0.104
4.340E-06,0.108
4.350E-06,0.108
4.360E-06,0.104
4.370E-06,0.100
4.380E-06,0.096
4.390E-06,0.100
4.400E-06,0.096
4.410E-06,0.096
4.420E-06,0.100
4.430E-06,0.104
4.440E-06,0.096
4.450E-06,0.104
4.460E-06,0.100
4.470E-06,0.096
4.480E-06,0.096
4.490E-06,0.100
4.500E-06,0.096
4.510E-06,0.096
4.520E-06,0.096
4.530E-06,0.092
4.540E-06,0.096
4.550E-06,0.096
4.560E-06,0.096
4.570E-06,0.092
4.580E-06,0.096
4.590E-06,0.096
4.600E-06,0.088
4.610E-06,0.088
4.620E-06,0.092
4.630E-06,0.092
4.640E-06,0.092
4.650E-06,0.092
4.660E-06,0.092
4.670E-06,0.088
4.680E-06,0.088
4.690E-06,0.088
4.700E-06,0.088
4.710E-06,0.092
4.720E-06,0.092
4.730E-06,0.092
4.740E-06,0.092
4.750E-06,0.088
4.760E-06,0.092
4.770E-06,0.092
4.780E-06,0.088
4.790E-06,0.092
4.800E-06,0.088
4.810E-06,0.088
4.820E-06,0.088
4.830E-06,0.088
4.840E-06,0.088
4.850E-06,0.088
4.860E-06,0.088
4.870E-06,0.088
4.880E-06,0.084
4.890E-06,0.084
4.900E-06,0.088
4.910E-06,0.088
4.920E-06,0.084
4.930E-06,0.088
4.940E-06,0.088
4.950E-06,0.084
4.960E-06,0.088
4.970E-06,0.084
4.980E-06,0.084
4.990E-06,0.088
5.000E-06,0.092
5.010E-06,0.088
5.020E-06,0.088
5.030E-06,0.080
5.040E-06,0.080
5.050E-06,0.080
5.060E-06,0.076
5.070E-06,0.080
5.080E-06,0.084
5.090E-06,0.080
5.100E-06,0.076
5.110E-06,0.076
5.120E-06,0.076
5.130E-06,0.080
5.140E-06,0.072
5.150E-06,0.072
5.160E-06,0.076
5.170E-06,0.076
5.180E-06,0.076
5.190E-06,0.072
5.200E-06,0.072
5.210E-06,0.076
5.220E-06,0.076
5.230E-06,0.072
5.240E-06,0.072
5.250E-06,0.076
5.260E-06,0.076
5.270E-06,0.068
5.280E-06,0.068
5.290E-06,0.072
5.300E-06,0.068
5.310E-06,0.068
5.320E-06,0.072
5.330E-06,0.072
5.340E-06,0.068
5.350E-06,0.072
5.360E-06,0.068
5.370E-06,0.068
5.380E-06,0.068
5.390E-06,0.072
5.400E-06,0.064
5.410E-06,0.068
5.420E-06,0.064
5.430E-06,0.068
5.440E-06,0.068
5.450E-06,0.060
5.460E-06,0.064
5.470E-06,0.064
5.480E-06,0.068
5.490E-06,0.064
5.500E-06,0.064
5.510E-06,0.060
5.520E-06,0.060
5.530E-06,0.060
5.540E-06,0.060
5.550E-06,0.068
5.560E-06,0.064
5.570E-06,0.064
5.580E-06,0.064
5.590E-06,0.064
5.600E-06,0.056
5.610E-06,0.060
5.620E-06,0.064
5.630E-06,0.064
5.640E-06,0.060
5.650E-06,0.060
5.660E-06,0.060
5.670E-06,0.060
5.680E-06,0.060
5.690E-06,0.064
5.700E-06,0.064
5.710E-06,0.060
5.720E-06,0.060
5.730E-06,0.060
5.740E-06,0.060
5.750E-06,0.060
5.760E-06,0.060
5.770E-06,0.060
5.780E-06,0.060
5.790E-06,0.064
5.800E-06,0.064
5.810E-06,0.060
5.820E-06,0.060
5.830E-06,0.056
5.840E-06,0.060
5.850E-06,0.056
5.860E-06,0.056
5.870E-06,0.056
5.880E-06,0.056
5.890E-06,0.060
5.900E-06,0.056
5.910E-06,0.056
5.920E-06,0.056
5.930E-06,0.060
5.940E-06,0.060
5.950E-06,0.056
5.960E-06,0.056
5.970E-06,0.052
5.980E-06,0.052
5.990E-06,0.052
6.000E-06,0.056
6.010E-06,0.056
6.020E-06,0.052
6.030E-06,0.052
6.040E-06,0.052
6.050E-06,0.056
6.060E-06,0.052
6.070E-06,0.052
6.080E-06,0.048
6.090E-06,0.044
6.100E-06,0.048
6.110E-06,0.048
6.120E-06,0.052
6.130E-06,0.052
6.140E-06,0.048
6.150E-06,0.052
6.160E-06,0.048
6.170E-06,0.044
6.180E-06,0.044
6.190E-06,0.048
6.200E-06,0.044
6.210E-06,0.044
6.220E-06,0.044
6.230E-06,0.044
6.240E-06,0.048
6.250E-06,0.044
6.260E-06,0.040
6.270E-06,0.044
6.280E-06,0.044
6.290E-06,0.044
6.300E-06,0.044
6.310E-06,0.044
6.320E-06,0.044
6.330E-06,0.044
6.340E-06,0.040
6.350E-06,0.044
6.360E-06,0.048
