mediciones/5-15/30/WaveData47447.csv

#timebase=2000000(ps)
,#voltbase=100000(mv/100)
#size=4000
-8.400E-06,0.000
-8.390E-06,0.000
-8.380E-06,-0.004
-8.370E-06,0.004
-8.360E-06,0.008
-8.350E-06,0.012
-8.340E-06,0.008
-8.330E-06,0.004
-8.320E-06,0.000
-8.310E-06,0.000
-8.300E-06,0.000
-8.290E-06,0.004
-8.280E-06,0.012
-8.270E-06,0.004
-8.260E-06,0.004
-8.250E-06,0.004
-8.240E-06,-0.004
-8.230E-06,0.000
-8.220E-06,0.004
-8.210E-06,0.000
-8.200E-06,0.000
-8.190E-06,0.008
-8.180E-06,0.012
-8.170E-06,0.000
-8.160E-06,0.000
-8.150E-06,0.000
-8.140E-06,0.000
-8.130E-06,-0.004
-8.120E-06,0.000
-8.110E-06,0.000
-8.100E-06,-0.004
-8.090E-06,0.004
-8.080E-06,0.008
-8.070E-06,0.004
-8.060E-06,0.004
-8.050E-06,0.000
-8.040E-06,0.000
-8.030E-06,0.000
-8.020E-06,0.008
-8.010E-06,0.000
-8.000E-06,-0.004
-7.990E-06,0.004
-7.980E-06,0.004
-7.970E-06,0.004
-7.960E-06,0.004
-7.950E-06,0.000
-7.940E-06,0.004
-7.930E-06,-0.004
-7.920E-06,-0.004
-7.910E-06,0.004
-7.900E-06,0.008
-7.890E-06,0.012
-7.880E-06,0.000
-7.870E-06,0.008
-7.860E-06,0.000
-7.850E-06,0.000
-7.840E-06,0.004
-7.830E-06,0.000
-7.820E-06,-0.004
-7.810E-06,0.000
-7.800E-06,0.000
-7.790E-06,0.004
-7.780E-06,0.004
-7.770E-06,0.004
-7.760E-06,0.004
-7.750E-06,0.000
-7.740E-06,0.004
-7.730E-06,0.004
-7.720E-06,0.008
-7.710E-06,0.004
-7.700E-06,0.008
-7.690E-06,0.008
-7.680E-06,0.004
-7.670E-06,-0.004
-7.660E-06,-0.004
-7.650E-06,0.000
-7.640E-06,0.004
-7.630E-06,0.008
-7.620E-06,0.008
-7.610E-06,0.008
-7.600E-06,0.008
-7.590E-06,0.008
-7.580E-06,0.004
-7.570E-06,0.000
-7.560E-06,0.004
-7.550E-06,0.008
-7.540E-06,0.004
-7.530E-06,0.004
-7.520E-06,0.004
-7.510E-06,0.004
-7.500E-06,0.000
-7.490E-06,0.008
-7.480E-06,0.004
-7.470E-06,0.008
-7.460E-06,0.004
-7.450E-06,0.000
-7.440E-06,-0.004
-7.430E-06,0.000
-7.420E-06,0.000
-7.410E-06,0.004
-7.400E-06,0.012
-7.390E-06,0.012
-7.380E-06,0.004
-7.370E-06,0.000
-7.360E-06,-0.004
-7.350E-06,-0.004
-7.340E-06,-0.004
-7.330E-06,0.008
-7.320E-06,0.012
-7.310E-06,0.012
-7.300E-06,0.008
-7.290E-06,-0.004
-7.280E-06,-0.008
-7.270E-06,0.000
-7.260E-06,0.000
-7.250E-06,0.004
-7.240E-06,0.008
-7.230E-06,0.008
-7.220E-06,0.004
-7.210E-06,0.000
-7.200E-06,0.000
-7.190E-06,0.000
-7.180E-06,0.000
-7.170E-06,0.004
-7.160E-06,0.004
-7.150E-06,0.000
-7.140E-06,0.000
-7.130E-06,0.004
-7.120E-06,0.008
-7.110E-06,-0.004
-7.100E-06,0.000
-7.090E-06,0.000
-7.080E-06,0.004
-7.070E-06,0.004
-7.060E-06,0.000
-7.050E-06,0.008
-7.040E-06,0.000
-7.030E-06,0.000
-7.020E-06,0.000
-7.010E-06,0.004
-7.000E-06,0.004
-6.990E-06,0.004
-6.980E-06,0.000
-6.970E-06,0.004
-6.960E-06,0.008
-6.950E-06,0.012
-6.940E-06,0.004
-6.930E-06,-0.004
-6.920E-06,0.000
-6.910E-06,-0.004
-6.900E-06,0.004
-6.890E-06,0.012
-6.880E-06,0.008
-6.870E-06,0.008
-6.860E-06,0.000
-6.850E-06,-0.004
-6.840E-06,-0.008
-6.830E-06,-0.004
-6.820E-06,0.004
-6.810E-06,0.008
-6.800E-06,0.012
-6.790E-06,0.008
-6.780E-06,0.000
-6.770E-06,-0.004
-6.760E-06,-0.004
-6.750E-06,-0.004
-6.740E-06,0.000
-6.730E-06,0.008
-6.720E-06,0.000
-6.710E-06,0.012
-6.700E-06,0.012
-6.690E-06,0.008
-6.680E-06,0.000
-6.670E-06,-0.004
-6.660E-06,-0.008
-6.650E-06,-0.008
-6.640E-06,0.008
-6.630E-06,0.008
-6.620E-06,0.004
-6.610E-06,0.008
-6.600E-06,0.000
-6.590E-06,-0.004
-6.580E-06,-0.008
-6.570E-06,-0.008
-6.560E-06,0.008
-6.550E-06,0.004
-6.540E-06,-0.016
-6.530E-06,-0.020
-6.520E-06,-0.004
-6.510E-06,0.004
-6.500E-06,0.032
-6.490E-06,0.056
-6.480E-06,0.044
-6.470E-06,0.012
-6.460E-06,-0.024
-6.450E-06,-0.040
-6.440E-06,-0.036
-6.430E-06,-0.012
-6.420E-06,0.020
-6.410E-06,0.036
-6.400E-06,0.032
-6.390E-06,0.020
-6.380E-06,-0.004
-6.370E-06,-0.020
-6.360E-06,-0.028
-6.350E-06,-0.020
-6.340E-06,-0.008
-6.330E-06,0.012
-6.320E-06,0.032
-6.310E-06,0.032
-6.300E-06,0.028
-6.290E-06,0.004
-6.280E-06,-0.012
-6.270E-06,-0.012
-6.260E-06,-0.008
-6.250E-06,-0.004
-6.240E-06,0.008
-6.230E-06,0.000
-6.220E-06,0.000
-6.210E-06,0.012
-6.200E-06,0.008
-6.190E-06,0.000
-6.180E-06,0.012
-6.170E-06,0.012
-6.160E-06,0.008
-6.150E-06,0.012
-6.140E-06,0.016
-6.130E-06,0.012
-6.120E-06,0.008
-6.110E-06,-0.004
-6.100E-06,-0.004
-6.090E-06,0.004
-6.080E-06,0.000
-6.070E-06,0.008
-6.060E-06,0.000
-6.050E-06,-0.004
-6.040E-06,-0.008
-6.030E-06,-0.004
-6.020E-06,-0.004
-6.010E-06,0.008
-6.000E-06,0.016
-5.990E-06,0.008
-5.980E-06,0.012
-5.970E-06,0.004
-5.960E-06,-0.004
-5.950E-06,-0.004
-5.940E-06,-0.004
-5.930E-06,0.000
-5.920E-06,0.004
-5.910E-06,0.000
-5.900E-06,0.004
-5.890E-06,0.004
-5.880E-06,0.000
-5.870E-06,-0.004
-5.860E-06,0.000
-5.850E-06,-0.004
-5.840E-06,0.000
-5.830E-06,0.004
-5.820E-06,0.008
-5.810E-06,0.012
-5.800E-06,0.004
-5.790E-06,0.000
-5.780E-06,0.004
-5.770E-06,-0.004
-5.760E-06,0.000
-5.750E-06,0.004
-5.740E-06,0.004
-5.730E-06,0.004
-5.720E-06,0.004
-5.710E-06,0.000
-5.700E-06,0.000
-5.690E-06,0.000
-5.680E-06,0.008
-5.670E-06,0.012
-5.660E-06,0.004
-5.650E-06,0.004
-5.640E-06,0.008
-5.630E-06,-0.004
-5.620E-06,0.000
-5.610E-06,0.000
-5.600E-06,0.004
-5.590E-06,0.004
-5.580E-06,0.004
-5.570E-06,0.012
-5.560E-06,-0.004
-5.550E-06,0.000
-5.540E-06,0.000
-5.530E-06,0.000
-5.520E-06,0.000
-5.510E-06,0.000
-5.500E-06,0.008
-5.490E-06,0.012
-5.480E-06,0.004
-5.470E-06,0.000
-5.460E-06,0.004
-5.450E-06,0.000
-5.440E-06,0.004
-5.430E-06,0.000
-5.420E-06,0.004
-5.410E-06,0.008
-5.400E-06,0.028
-5.390E-06,0.068
-5.380E-06,0.092
-5.370E-06,0.100
-5.360E-06,-0.008
-5.350E-06,-0.120
-5.340E-06,-0.236
-5.330E-06,-0.104
-5.320E-06,-0.056
-5.310E-06,0.160
-5.300E-06,0.196
-5.290E-06,0.172
-5.280E-06,0.068
-5.270E-06,-0.076
-5.260E-06,-0.188
-5.250E-06,-0.156
-5.240E-06,-0.016
-5.230E-06,0.060
-5.220E-06,0.060
-5.210E-06,0.092
-5.200E-06,0.068
-5.190E-06,0.000
-5.180E-06,-0.008
-5.170E-06,-0.052
-5.160E-06,-0.124
-5.150E-06,-0.080
-5.140E-06,0.012
-5.130E-06,0.088
-5.120E-06,0.136
-5.110E-06,0.132
-5.100E-06,0.004
-5.090E-06,-0.100
-5.080E-06,-0.120
-5.070E-06,-0.072
-5.060E-06,0.028
-5.050E-06,0.124
-5.040E-06,0.156
-5.030E-06,0.076
-5.020E-06,-0.036
-5.010E-06,-0.128
-5.000E-06,-0.144
-4.990E-06,-0.100
-4.980E-06,-0.008
-4.970E-06,0.092
-4.960E-06,0.108
-4.950E-06,0.108
-4.940E-06,0.064
-4.930E-06,0.008
-4.920E-06,-0.044
-4.910E-06,-0.068
-4.900E-06,-0.072
-4.890E-06,-0.032
-4.880E-06,0.020
-4.870E-06,0.076
-4.860E-06,0.104
-4.850E-06,0.064
-4.840E-06,-0.016
-4.830E-06,-0.088
-4.820E-06,-0.100
-4.810E-06,-0.068
-4.800E-06,0.008
-4.790E-06,0.088
-4.780E-06,0.116
-4.770E-06,0.072
-4.760E-06,0.008
-4.750E-06,-0.056
-4.740E-06,-0.076
-4.730E-06,-0.056
-4.720E-06,0.000
-4.710E-06,0.052
-4.700E-06,0.060
-4.690E-06,0.048
-4.680E-06,0.004
-4.670E-06,-0.024
-4.660E-06,-0.040
-4.650E-06,-0.040
-4.640E-06,-0.016
-4.630E-06,0.016
-4.620E-06,0.028
-4.610E-06,0.036
-4.600E-06,0.032
-4.590E-06,0.004
-4.580E-06,-0.008
-4.570E-06,-0.024
-4.560E-06,-0.024
-4.550E-06,-0.004
-4.540E-06,0.008
-4.530E-06,0.028
-4.520E-06,0.032
-4.510E-06,0.012
-4.500E-06,-0.016
-4.490E-06,-0.016
-4.480E-06,-0.016
-4.470E-06,-0.004
-4.460E-06,0.012
-4.450E-06,0.028
-4.440E-06,0.028
-4.430E-06,0.008
-4.420E-06,0.000
-4.410E-06,-0.020
-4.400E-06,-0.008
-4.390E-06,-0.004
-4.380E-06,0.008
-4.370E-06,0.008
-4.360E-06,0.016
-4.350E-06,0.004
-4.340E-06,0.004
-4.330E-06,0.000
-4.320E-06,-0.004
-4.310E-06,-0.004
-4.300E-06,0.000
-4.290E-06,0.008
-4.280E-06,0.008
-4.270E-06,0.012
-4.260E-06,0.004
-4.250E-06,0.008
-4.240E-06,0.000
-4.230E-06,0.000
-4.220E-06,0.004
-4.210E-06,-0.004
-4.200E-06,0.000
-4.190E-06,0.012
-4.180E-06,0.008
-4.170E-06,0.012
-4.160E-06,0.012
-4.150E-06,0.008
-4.140E-06,0.004
-4.130E-06,0.004
-4.120E-06,0.000
-4.110E-06,-0.008
-4.100E-06,0.004
-4.090E-06,0.008
-4.080E-06,0.004
-4.070E-06,0.008
-4.060E-06,-0.004
-4.050E-06,0.000
-4.040E-06,0.008
-4.030E-06,0.004
-4.020E-06,-0.012
-4.010E-06,-0.004
-4.000E-06,0.008
-3.990E-06,0.008
-3.980E-06,0.008
-3.970E-06,0.004
-3.960E-06,-0.004
-3.950E-06,-0.004
-3.940E-06,0.000
-3.930E-06,0.004
-3.920E-06,0.012
-3.910E-06,0.020
-3.900E-06,0.012
-3.890E-06,0.008
-3.880E-06,0.000
-3.870E-06,0.000
-3.860E-06,0.000
-3.850E-06,0.000
-3.840E-06,0.000
-3.830E-06,0.000
-3.820E-06,0.012
-3.810E-06,0.012
-3.800E-06,0.008
-3.790E-06,0.000
-3.780E-06,-0.004
-3.770E-06,0.000
-3.760E-06,0.008
-3.750E-06,0.004
-3.740E-06,0.008
-3.730E-06,0.012
-3.720E-06,0.004
-3.710E-06,0.000
-3.700E-06,0.000
-3.690E-06,0.000
-3.680E-06,0.000
-3.670E-06,0.000
-3.660E-06,0.004
-3.650E-06,0.008
-3.640E-06,0.004
-3.630E-06,0.008
-3.620E-06,0.012
-3.610E-06,0.012
-3.600E-06,0.012
-3.590E-06,0.008
-3.580E-06,-0.004
-3.570E-06,0.000
-3.560E-06,0.004
-3.550E-06,0.008
-3.540E-06,0.012
-3.530E-06,0.016
-3.520E-06,0.012
-3.510E-06,0.020
-3.500E-06,0.024
-3.490E-06,0.020
-3.480E-06,0.008
-3.470E-06,-0.004
-3.460E-06,-0.012
-3.450E-06,-0.008
-3.440E-06,-0.004
-3.430E-06,0.004
-3.420E-06,0.016
-3.410E-06,0.008
-3.400E-06,0.004
-3.390E-06,0.000
-3.380E-06,0.004
-3.370E-06,0.012
-3.360E-06,0.004
-3.350E-06,0.012
-3.340E-06,0.032
-3.330E-06,0.036
-3.320E-06,0.024
-3.310E-06,0.024
-3.300E-06,0.016
-3.290E-06,0.004
-3.280E-06,-0.004
-3.270E-06,0.024
-3.260E-06,0.024
-3.250E-06,0.012
-3.240E-06,0.004
-3.230E-06,0.000
-3.220E-06,-0.012
-3.210E-06,-0.024
-3.200E-06,-0.008
-3.190E-06,0.008
-3.180E-06,0.016
-3.170E-06,0.012
-3.160E-06,0.000
-3.150E-06,-0.036
-3.140E-06,-0.036
-3.130E-06,-0.024
-3.120E-06,0.008
-3.110E-06,0.028
-3.100E-06,0.028
-3.090E-06,0.008
-3.080E-06,-0.012
-3.070E-06,-0.016
-3.060E-06,-0.020
-3.050E-06,-0.016
-3.040E-06,-0.004
-3.030E-06,0.008
-3.020E-06,0.008
-3.010E-06,0.012
-3.000E-06,0.000
-2.990E-06,-0.004
-2.980E-06,-0.008
-2.970E-06,-0.008
-2.960E-06,-0.004
-2.950E-06,0.004
-2.940E-06,0.012
-2.930E-06,0.008
-2.920E-06,0.008
-2.910E-06,0.000
-2.900E-06,-0.004
-2.890E-06,-0.004
-2.880E-06,0.004
-2.870E-06,0.016
-2.860E-06,0.016
-2.850E-06,0.008
-2.840E-06,0.000
-2.830E-06,0.000
-2.820E-06,0.000
-2.810E-06,0.000
-2.800E-06,0.000
-2.790E-06,0.012
-2.780E-06,0.008
-2.770E-06,0.016
-2.760E-06,0.012
-2.750E-06,0.008
-2.740E-06,0.008
-2.730E-06,0.012
-2.720E-06,0.012
-2.710E-06,0.016
-2.700E-06,0.020
-2.690E-06,0.020
-2.680E-06,0.024
-2.670E-06,0.024
-2.660E-06,0.028
-2.650E-06,0.028
-2.640E-06,0.020
-2.630E-06,0.012
-2.620E-06,0.020
-2.610E-06,0.028
-2.600E-06,0.024
-2.590E-06,0.032
-2.580E-06,0.032
-2.570E-06,0.032
-2.560E-06,0.016
-2.550E-06,0.012
-2.540E-06,0.008
-2.530E-06,-0.008
-2.520E-06,-0.012
-2.510E-06,-0.004
-2.500E-06,0.020
-2.490E-06,0.012
-2.480E-06,-0.008
-2.470E-06,-0.056
-2.460E-06,-0.068
-2.450E-06,-0.064
-2.440E-06,-0.028
-2.430E-06,0.004
-2.420E-06,0.024
-2.410E-06,0.024
-2.400E-06,-0.012
-2.390E-06,-0.040
-2.380E-06,-0.044
-2.370E-06,-0.020
-2.360E-06,0.020
-2.350E-06,0.040
-2.340E-06,0.028
-2.330E-06,-0.004
-2.320E-06,-0.008
-2.310E-06,0.000
-2.300E-06,0.016
-2.290E-06,0.012
-2.280E-06,0.004
-2.270E-06,-0.004
-2.260E-06,-0.008
-2.250E-06,0.000
-2.240E-06,0.016
-2.230E-06,0.028
-2.220E-06,0.024
-2.210E-06,0.024
-2.200E-06,0.008
-2.190E-06,0.000
-2.180E-06,-0.004
-2.170E-06,0.004
-2.160E-06,0.008
-2.150E-06,0.024
-2.140E-06,0.024
-2.130E-06,0.020
-2.120E-06,0.004
-2.110E-06,-0.020
-2.100E-06,-0.040
-2.090E-06,-0.032
-2.080E-06,-0.008
-2.070E-06,0.020
-2.060E-06,0.052
-2.050E-06,0.060
-2.040E-06,0.004
-2.030E-06,-0.044
-2.020E-06,-0.060
-2.010E-06,-0.032
-2.000E-06,0.020
-1.990E-06,0.056
-1.980E-06,0.064
-1.970E-06,0.032
-1.960E-06,0.008
-1.950E-06,-0.012
-1.940E-06,-0.004
-1.930E-06,0.008
-1.920E-06,0.016
-1.910E-06,0.012
-1.900E-06,0.000
-1.890E-06,0.008
-1.880E-06,0.004
-1.870E-06,0.012
-1.860E-06,0.024
-1.850E-06,0.024
-1.840E-06,0.012
-1.830E-06,0.004
-1.820E-06,-0.004
-1.810E-06,-0.012
-1.800E-06,-0.004
-1.790E-06,-0.004
-1.780E-06,0.012
-1.770E-06,0.012
-1.760E-06,0.012
-1.750E-06,0.008
-1.740E-06,0.000
-1.730E-06,-0.008
-1.720E-06,-0.004
-1.710E-06,0.000
-1.700E-06,0.012
-1.690E-06,0.012
-1.680E-06,0.008
-1.670E-06,0.012
-1.660E-06,0.008
-1.650E-06,0.012
-1.640E-06,0.012
-1.630E-06,0.012
-1.620E-06,0.004
-1.610E-06,0.012
-1.600E-06,0.008
-1.590E-06,0.004
-1.580E-06,-0.004
-1.570E-06,0.000
-1.560E-06,0.004
-1.550E-06,0.012
-1.540E-06,0.028
-1.530E-06,0.024
-1.520E-06,0.020
-1.510E-06,0.004
-1.500E-06,-0.004
-1.490E-06,0.004
-1.480E-06,0.012
-1.470E-06,0.024
-1.460E-06,0.024
-1.450E-06,0.016
-1.440E-06,0.008
-1.430E-06,-0.004
-1.420E-06,0.004
-1.410E-06,0.016
-1.400E-06,0.032
-1.390E-06,0.032
-1.380E-06,0.028
-1.370E-06,0.024
-1.360E-06,0.012
-1.350E-06,0.012
-1.340E-06,0.016
-1.330E-06,0.028
-1.320E-06,0.036
-1.310E-06,0.036
-1.300E-06,0.032
-1.290E-06,0.024
-1.280E-06,0.008
-1.270E-06,0.004
-1.260E-06,0.012
-1.250E-06,0.028
-1.240E-06,0.048
-1.230E-06,0.048
-1.220E-06,0.028
-1.210E-06,0.008
-1.200E-06,0.000
-1.190E-06,0.008
-1.180E-06,0.032
-1.170E-06,0.056
-1.160E-06,0.064
-1.150E-06,0.044
-1.140E-06,0.020
-1.130E-06,0.000
-1.120E-06,0.000
-1.110E-06,0.024
-1.100E-06,0.048
-1.090E-06,0.068
-1.080E-06,0.072
-1.070E-06,0.056
-1.060E-06,0.036
-1.050E-06,0.020
-1.040E-06,0.016
-1.030E-06,0.024
-1.020E-06,0.040
-1.010E-06,0.036
-1.000E-06,0.024
-9.900E-07,0.008
-9.800E-07,0.004
-9.700E-07,0.012
-9.600E-07,0.016
-9.500E-07,0.044
-9.400E-07,0.072
-9.300E-07,0.092
-9.200E-07,0.088
-9.100E-07,0.076
-9.000E-07,0.056
-8.900E-07,0.012
-8.800E-07,-0.044
-8.700E-07,-0.088
-8.600E-07,-0.096
-8.500E-07,-0.068
-8.400E-07,-0.012
-8.300E-07,0.036
-8.200E-07,0.052
-8.100E-07,-0.004
-8.000E-07,-0.096
-7.900E-07,-0.164
-7.800E-07,-0.168
-7.700E-07,-0.120
-7.600E-07,-0.024
-7.500E-07,0.076
-7.400E-07,0.116
-7.300E-07,0.096
-7.200E-07,0.040
-7.100E-07,-0.040
-7.000E-07,-0.096
-6.900E-07,-0.072
-6.800E-07,-0.008
-6.700E-07,0.068
-6.600E-07,0.120
-6.500E-07,0.104
-6.400E-07,0.056
-6.300E-07,-0.004
-6.200E-07,-0.068
-6.100E-07,-0.088
-6.000E-07,-0.064
-5.900E-07,-0.020
-5.800E-07,0.032
-5.700E-07,0.060
-5.600E-07,0.056
-5.500E-07,0.004
-5.400E-07,-0.044
-5.300E-07,-0.068
-5.200E-07,-0.048
-5.100E-07,0.000
-5.000E-07,0.048
-4.900E-07,0.056
-4.800E-07,0.052
-4.700E-07,0.028
-4.600E-07,-0.008
-4.500E-07,-0.020
-4.400E-07,-0.004
-4.300E-07,0.032
-4.200E-07,0.056
-4.100E-07,0.108
-4.000E-07,0.124
-3.900E-07,0.112
-3.800E-07,0.080
-3.700E-07,0.064
-3.600E-07,0.080
-3.500E-07,0.092
-3.400E-07,0.124
-3.300E-07,0.140
-3.200E-07,0.148
-3.100E-07,0.136
-3.000E-07,0.128
-2.900E-07,0.104
-2.800E-07,0.096
-2.700E-07,0.092
-2.600E-07,0.104
-2.500E-07,0.108
-2.400E-07,0.120
-2.300E-07,0.108
-2.200E-07,0.088
-2.100E-07,0.068
-2.000E-07,0.060
-1.900E-07,0.068
-1.800E-07,0.060
-1.700E-07,0.048
-1.600E-07,0.028
-1.500E-07,0.028
-1.400E-07,0.012
-1.300E-07,0.144
-1.200E-07,0.212
-1.100E-07,0.160
-1.000E-07,0.104
-9.000E-08,0.108
-8.000E-08,0.052
-7.000E-08,0.012
-6.000E-08,-0.108
-5.000E-08,-0.348
-4.000E-08,-0.436
-3.000E-08,-0.336
-2.000E-08,0.016
-1.000E-08,0.424
0.000E+00,0.540
1.000E-08,0.540
2.000E-08,0.348
3.000E-08,-0.284
4.000E-08,-0.508
5.000E-08,-0.508
6.000E-08,-0.396
7.000E-08,0.112
8.000E-08,0.368
9.000E-08,0.320
1.000E-07,-0.084
1.100E-07,-0.440
1.200E-07,-0.508
1.300E-07,-0.508
1.400E-07,-0.368
1.500E-07,0.124
1.600E-07,0.452
1.700E-07,0.484
1.800E-07,0.244
1.900E-07,-0.132
2.000E-07,-0.296
2.100E-07,-0.428
2.200E-07,-0.184
2.300E-07,0.180
2.400E-07,0.540
2.500E-07,0.540
2.600E-07,0.296
2.700E-07,-0.108
2.800E-07,-0.404
2.900E-07,-0.480
3.000E-07,-0.288
3.100E-07,0.092
3.200E-07,0.360
3.300E-07,0.468
3.400E-07,0.264
3.500E-07,0.012
3.600E-07,-0.236
3.700E-07,-0.276
3.800E-07,-0.164
3.900E-07,0.072
4.000E-07,0.292
4.100E-07,0.368
4.200E-07,0.308
4.300E-07,0.104
4.400E-07,-0.072
4.500E-07,-0.196
4.600E-07,-0.136
4.700E-07,-0.008
4.800E-07,0.136
4.900E-07,0.164
5.000E-07,0.140
5.100E-07,0.016
5.200E-07,-0.120
5.300E-07,-0.152
5.400E-07,-0.128
5.500E-07,-0.004
5.600E-07,0.084
5.700E-07,0.148
5.800E-07,0.124
5.900E-07,0.080
6.000E-07,0.000
6.100E-07,-0.012
6.200E-07,0.000
6.300E-07,0.036
6.400E-07,0.112
6.500E-07,0.184
6.600E-07,0.208
6.700E-07,0.176
6.800E-07,0.156
6.900E-07,0.124
7.000E-07,0.148
7.100E-07,0.184
7.200E-07,0.220
7.300E-07,0.204
7.400E-07,0.196
7.500E-07,0.184
7.600E-07,0.164
7.700E-07,0.164
7.800E-07,0.160
7.900E-07,0.164
8.000E-07,0.156
8.100E-07,0.180
8.200E-07,0.176
8.300E-07,0.168
8.400E-07,0.148
8.500E-07,0.140
8.600E-07,0.140
8.700E-07,0.144
8.800E-07,0.160
8.900E-07,0.156
9.000E-07,0.164
9.100E-07,0.148
9.200E-07,0.144
9.300E-07,0.124
9.400E-07,0.096
9.500E-07,0.080
9.600E-07,0.056
9.700E-07,0.008
9.800E-07,-0.008
9.900E-07,-0.024
1.000E-06,0.004
1.010E-06,0.024
1.020E-06,0.096
1.030E-06,0.144
1.040E-06,0.192
1.050E-06,0.112
1.060E-06,-0.032
1.070E-06,-0.192
1.080E-06,-0.376
1.090E-06,-0.460
1.100E-06,-0.480
1.110E-06,-0.364
1.120E-06,-0.320
1.130E-06,-0.344
1.140E-06,-0.496
1.150E-06,-0.512
1.160E-06,-0.508
1.170E-06,-0.508
1.180E-06,-0.156
1.190E-06,0.152
1.200E-06,0.392
1.210E-06,0.396
1.220E-06,0.240
1.230E-06,-0.064
1.240E-06,-0.212
1.250E-06,-0.168
1.260E-06,0.032
1.270E-06,0.188
1.280E-06,0.272
1.290E-06,0.288
1.300E-06,0.184
1.310E-06,0.024
1.320E-06,-0.124
1.330E-06,-0.132
1.340E-06,-0.060
1.350E-06,0.108
1.360E-06,0.236
1.370E-06,0.284
1.380E-06,0.188
1.390E-06,0.056
1.400E-06,-0.056
1.410E-06,-0.096
1.420E-06,-0.044
1.430E-06,0.068
1.440E-06,0.200
1.450E-06,0.252
1.460E-06,0.224
1.470E-06,0.124
1.480E-06,0.020
1.490E-06,-0.032
1.500E-06,0.008
1.510E-06,0.100
1.520E-06,0.212
1.530E-06,0.288
1.540E-06,0.284
1.550E-06,0.236
1.560E-06,0.156
1.570E-06,0.108
1.580E-06,0.088
1.590E-06,0.140
1.600E-06,0.204
1.610E-06,0.264
1.620E-06,0.272
1.630E-06,0.244
1.640E-06,0.192
1.650E-06,0.144
1.660E-06,0.112
1.670E-06,0.128
1.680E-06,0.168
1.690E-06,0.208
1.700E-06,0.236
1.710E-06,0.228
1.720E-06,0.204
1.730E-06,0.156
1.740E-06,0.132
1.750E-06,0.124
1.760E-06,0.152
1.770E-06,0.188
1.780E-06,0.220
1.790E-06,0.228
1.800E-06,0.204
1.810E-06,0.176
1.820E-06,0.132
1.830E-06,0.112
1.840E-06,0.108
1.850E-06,0.124
1.860E-06,0.144
1.870E-06,0.160
1.880E-06,0.148
1.890E-06,0.132
1.900E-06,0.108
1.910E-06,0.108
1.920E-06,0.132
1.930E-06,0.160
1.940E-06,0.192
1.950E-06,0.204
1.960E-06,0.200
1.970E-06,0.188
1.980E-06,0.176
1.990E-06,0.160
2.000E-06,0.160
2.010E-06,0.160
2.020E-06,0.160
2.030E-06,0.168
2.040E-06,0.164
2.050E-06,0.160
2.060E-06,0.144
2.070E-06,0.136
2.080E-06,0.132
2.090E-06,0.132
2.100E-06,0.140
2.110E-06,0.152
2.120E-06,0.168
2.130E-06,0.164
2.140E-06,0.160
2.150E-06,0.152
2.160E-06,0.144
2.170E-06,0.140
2.180E-06,0.132
2.190E-06,0.132
2.200E-06,0.140
2.210E-06,0.144
2.220E-06,0.108
2.230E-06,0.044
2.240E-06,-0.016
2.250E-06,-0.052
2.260E-06,-0.028
2.270E-06,0.048
2.280E-06,0.140
2.290E-06,0.188
2.300E-06,0.184
2.310E-06,0.124
2.320E-06,0.032
2.330E-06,-0.004
2.340E-06,0.016
2.350E-06,0.124
2.360E-06,0.220
2.370E-06,0.284
2.380E-06,0.288
2.390E-06,0.224
2.400E-06,0.128
2.410E-06,0.060
2.420E-06,0.056
2.430E-06,0.112
2.440E-06,0.192
2.450E-06,0.256
2.460E-06,0.264
2.470E-06,0.220
2.480E-06,0.148
2.490E-06,0.088
2.500E-06,0.076
2.510E-06,0.100
2.520E-06,0.156
2.530E-06,0.224
2.540E-06,0.240
2.550E-06,0.224
2.560E-06,0.176
2.570E-06,0.124
2.580E-06,0.092
2.590E-06,0.104
2.600E-06,0.144
2.610E-06,0.192
2.620E-06,0.220
2.630E-06,0.208
2.640E-06,0.188
2.650E-06,0.144
2.660E-06,0.120
2.670E-06,0.116
2.680E-06,0.140
2.690E-06,0.168
2.700E-06,0.192
2.710E-06,0.200
2.720E-06,0.184
2.730E-06,0.160
2.740E-06,0.132
2.750E-06,0.128
2.760E-06,0.140
2.770E-06,0.160
2.780E-06,0.176
2.790E-06,0.192
2.800E-06,0.176
2.810E-06,0.160
2.820E-06,0.136
2.830E-06,0.128
2.840E-06,0.136
2.850E-06,0.148
2.860E-06,0.168
2.870E-06,0.180
2.880E-06,0.172
2.890E-06,0.160
2.900E-06,0.136
2.910E-06,0.128
2.920E-06,0.124
2.930E-06,0.140
2.940E-06,0.156
2.950E-06,0.168
2.960E-06,0.164
2.970E-06,0.156
2.980E-06,0.152
2.990E-06,0.140
3.000E-06,0.136
3.010E-06,0.140
3.020E-06,0.152
3.030E-06,0.160
3.040E-06,0.164
3.050E-06,0.160
3.060E-06,0.160
3.070E-06,0.140
3.080E-06,0.140
3.090E-06,0.140
3.100E-06,0.148
3.110E-06,0.160
3.120E-06,0.156
3.130E-06,0.156
3.140E-06,0.152
3.150E-06,0.140
3.160E-06,0.136
3.170E-06,0.148
3.180E-06,0.156
3.190E-06,0.168
3.200E-06,0.176
3.210E-06,0.160
3.220E-06,0.136
3.230E-06,0.132
3.240E-06,0.128
3.250E-06,0.132
3.260E-06,0.148
3.270E-06,0.160
3.280E-06,0.168
3.290E-06,0.164
3.300E-06,0.144
3.310E-06,0.128
3.320E-06,0.124
3.330E-06,0.120
3.340E-06,0.132
3.350E-06,0.144
3.360E-06,0.160
