mediciones/5-15/30/WaveData47445.csv

#timebase=2000000(ps)
,#voltbase=100000(mv/100)
#size=4000
-8.400E-06,-0.008
-8.390E-06,-0.008
-8.380E-06,0.008
-8.370E-06,0.020
-8.360E-06,0.012
-8.350E-06,0.004
-8.340E-06,0.004
-8.330E-06,0.000
-8.320E-06,-0.004
-8.310E-06,0.000
-8.300E-06,0.000
-8.290E-06,0.008
-8.280E-06,0.004
-8.270E-06,0.008
-8.260E-06,0.012
-8.250E-06,-0.004
-8.240E-06,-0.004
-8.230E-06,-0.004
-8.220E-06,0.000
-8.210E-06,0.000
-8.200E-06,0.008
-8.190E-06,0.008
-8.180E-06,0.008
-8.170E-06,0.004
-8.160E-06,0.000
-8.150E-06,-0.004
-8.140E-06,0.000
-8.130E-06,0.008
-8.120E-06,0.008
-8.110E-06,0.008
-8.100E-06,0.000
-8.090E-06,0.004
-8.080E-06,0.000
-8.070E-06,-0.004
-8.060E-06,-0.004
-8.050E-06,0.000
-8.040E-06,0.008
-8.030E-06,0.012
-8.020E-06,0.004
-8.010E-06,-0.004
-8.000E-06,0.004
-7.990E-06,-0.004
-7.980E-06,0.004
-7.970E-06,0.004
-7.960E-06,0.004
-7.950E-06,0.000
-7.940E-06,0.012
-7.930E-06,0.012
-7.920E-06,-0.004
-7.910E-06,-0.004
-7.900E-06,0.000
-7.890E-06,0.000
-7.880E-06,0.004
-7.870E-06,0.004
-7.860E-06,0.000
-7.850E-06,0.004
-7.840E-06,0.004
-7.830E-06,0.004
-7.820E-06,0.000
-7.810E-06,0.000
-7.800E-06,0.004
-7.790E-06,0.004
-7.780E-06,0.000
-7.770E-06,0.000
-7.760E-06,0.004
-7.750E-06,-0.004
-7.740E-06,0.000
-7.730E-06,0.004
-7.720E-06,0.008
-7.710E-06,0.008
-7.700E-06,0.008
-7.690E-06,0.012
-7.680E-06,0.004
-7.670E-06,0.004
-7.660E-06,0.008
-7.650E-06,0.008
-7.640E-06,0.008
-7.630E-06,0.008
-7.620E-06,-0.004
-7.610E-06,0.000
-7.600E-06,0.000
-7.590E-06,0.000
-7.580E-06,0.004
-7.570E-06,0.004
-7.560E-06,0.004
-7.550E-06,0.000
-7.540E-06,0.000
-7.530E-06,0.000
-7.520E-06,0.000
-7.510E-06,0.008
-7.500E-06,0.004
-7.490E-06,0.008
-7.480E-06,0.004
-7.470E-06,-0.004
-7.460E-06,0.000
-7.450E-06,0.008
-7.440E-06,0.000
-7.430E-06,0.000
-7.420E-06,0.000
-7.410E-06,0.004
-7.400E-06,0.004
-7.390E-06,0.000
-7.380E-06,0.000
-7.370E-06,0.000
-7.360E-06,0.000
-7.350E-06,0.000
-7.340E-06,0.008
-7.330E-06,0.000
-7.320E-06,0.000
-7.310E-06,0.004
-7.300E-06,0.004
-7.290E-06,-0.004
-7.280E-06,0.000
-7.270E-06,0.000
-7.260E-06,0.004
-7.250E-06,0.004
-7.240E-06,0.000
-7.230E-06,0.008
-7.220E-06,0.008
-7.210E-06,0.004
-7.200E-06,0.000
-7.190E-06,-0.004
-7.180E-06,-0.004
-7.170E-06,0.000
-7.160E-06,0.008
-7.150E-06,0.004
-7.140E-06,0.004
-7.130E-06,0.000
-7.120E-06,0.004
-7.110E-06,-0.004
-7.100E-06,0.000
-7.090E-06,0.000
-7.080E-06,0.004
-7.070E-06,0.004
-7.060E-06,0.000
-7.050E-06,0.004
-7.040E-06,0.004
-7.030E-06,0.004
-7.020E-06,0.000
-7.010E-06,0.000
-7.000E-06,0.000
-6.990E-06,0.000
-6.980E-06,0.000
-6.970E-06,0.000
-6.960E-06,0.004
-6.950E-06,0.000
-6.940E-06,0.008
-6.930E-06,0.004
-6.920E-06,0.000
-6.910E-06,-0.004
-6.900E-06,0.000
-6.890E-06,0.000
-6.880E-06,0.004
-6.870E-06,0.004
-6.860E-06,0.004
-6.850E-06,0.004
-6.840E-06,-0.004
-6.830E-06,0.000
-6.820E-06,0.004
-6.810E-06,0.004
-6.800E-06,0.004
-6.790E-06,0.008
-6.780E-06,0.008
-6.770E-06,0.004
-6.760E-06,0.004
-6.750E-06,0.000
-6.740E-06,0.000
-6.730E-06,0.004
-6.720E-06,0.000
-6.710E-06,0.004
-6.700E-06,0.004
-6.690E-06,0.004
-6.680E-06,0.000
-6.670E-06,0.000
-6.660E-06,0.000
-6.650E-06,0.000
-6.640E-06,0.000
-6.630E-06,0.004
-6.620E-06,0.000
-6.610E-06,0.000
-6.600E-06,-0.004
-6.590E-06,0.000
-6.580E-06,0.008
-6.570E-06,0.008
-6.560E-06,0.012
-6.550E-06,0.012
-6.540E-06,0.008
-6.530E-06,0.008
-6.520E-06,0.004
-6.510E-06,-0.008
-6.500E-06,0.000
-6.490E-06,0.008
-6.480E-06,0.004
-6.470E-06,0.008
-6.460E-06,0.004
-6.450E-06,0.000
-6.440E-06,0.000
-6.430E-06,-0.004
-6.420E-06,0.000
-6.410E-06,0.004
-6.400E-06,0.008
-6.390E-06,0.004
-6.380E-06,0.004
-6.370E-06,0.012
-6.360E-06,0.016
-6.350E-06,-0.004
-6.340E-06,0.040
-6.330E-06,0.060
-6.320E-06,-0.080
-6.310E-06,0.000
-6.300E-06,-0.116
-6.290E-06,-0.020
-6.280E-06,0.140
-6.270E-06,0.072
-6.260E-06,0.044
-6.250E-06,0.012
-6.240E-06,-0.112
-6.230E-06,-0.108
-6.220E-06,-0.012
-6.210E-06,0.024
-6.200E-06,0.136
-6.190E-06,0.040
-6.180E-06,0.008
-6.170E-06,-0.024
-6.160E-06,-0.092
-6.150E-06,-0.028
-6.140E-06,0.024
-6.130E-06,0.008
-6.120E-06,0.048
-6.110E-06,0.028
-6.100E-06,-0.020
-6.090E-06,0.024
-6.080E-06,-0.028
-6.070E-06,-0.008
-6.060E-06,0.004
-6.050E-06,-0.028
-6.040E-06,0.012
-6.030E-06,0.028
-6.020E-06,0.020
-6.010E-06,0.036
-6.000E-06,0.004
-5.990E-06,-0.028
-5.980E-06,-0.004
-5.970E-06,-0.040
-5.960E-06,0.012
-5.950E-06,0.036
-5.940E-06,0.012
-5.930E-06,0.020
-5.920E-06,-0.024
-5.910E-06,-0.056
-5.900E-06,-0.100
-5.890E-06,-0.036
-5.880E-06,-0.024
-5.870E-06,0.072
-5.860E-06,0.096
-5.850E-06,0.060
-5.840E-06,-0.004
-5.830E-06,-0.004
-5.820E-06,-0.064
-5.810E-06,-0.112
-5.800E-06,-0.016
-5.790E-06,0.052
-5.780E-06,0.080
-5.770E-06,0.072
-5.760E-06,0.048
-5.750E-06,-0.040
-5.740E-06,-0.064
-5.730E-06,-0.036
-5.720E-06,-0.004
-5.710E-06,0.020
-5.700E-06,0.056
-5.690E-06,0.052
-5.680E-06,0.016
-5.670E-06,0.000
-5.660E-06,-0.024
-5.650E-06,-0.024
-5.640E-06,-0.024
-5.630E-06,0.000
-5.620E-06,0.024
-5.610E-06,0.040
-5.600E-06,0.036
-5.590E-06,0.028
-5.580E-06,0.000
-5.570E-06,-0.020
-5.560E-06,-0.028
-5.550E-06,-0.008
-5.540E-06,0.016
-5.530E-06,0.032
-5.520E-06,0.044
-5.510E-06,0.024
-5.500E-06,0.000
-5.490E-06,-0.008
-5.480E-06,-0.020
-5.470E-06,-0.004
-5.460E-06,0.012
-5.450E-06,0.024
-5.440E-06,0.024
-5.430E-06,0.020
-5.420E-06,0.004
-5.410E-06,-0.004
-5.400E-06,0.000
-5.390E-06,0.000
-5.380E-06,0.016
-5.370E-06,0.028
-5.360E-06,0.020
-5.350E-06,0.016
-5.340E-06,0.012
-5.330E-06,0.000
-5.320E-06,0.000
-5.310E-06,-0.004
-5.300E-06,0.008
-5.290E-06,0.016
-5.280E-06,0.024
-5.270E-06,0.032
-5.260E-06,0.044
-5.250E-06,0.016
-5.240E-06,-0.044
-5.230E-06,-0.116
-5.220E-06,-0.120
-5.210E-06,-0.068
-5.200E-06,0.040
-5.190E-06,0.080
-5.180E-06,0.076
-5.170E-06,0.032
-5.160E-06,-0.012
-5.150E-06,-0.040
-5.140E-06,-0.064
-5.130E-06,-0.064
-5.120E-06,0.000
-5.110E-06,0.060
-5.100E-06,0.056
-5.090E-06,0.040
-5.080E-06,0.024
-5.070E-06,-0.024
-5.060E-06,-0.056
-5.050E-06,-0.044
-5.040E-06,-0.012
-5.030E-06,0.020
-5.020E-06,0.060
-5.010E-06,0.060
-5.000E-06,0.024
-4.990E-06,-0.028
-4.980E-06,-0.044
-4.970E-06,-0.036
-4.960E-06,-0.008
-4.950E-06,0.020
-4.940E-06,0.040
-4.930E-06,0.036
-4.920E-06,0.020
-4.910E-06,0.000
-4.900E-06,-0.016
-4.890E-06,-0.024
-4.880E-06,-0.012
-4.870E-06,0.000
-4.860E-06,0.024
-4.850E-06,0.024
-4.840E-06,0.020
-4.830E-06,0.012
-4.820E-06,0.000
-4.810E-06,-0.008
-4.800E-06,-0.012
-4.790E-06,0.000
-4.780E-06,0.012
-4.770E-06,0.024
-4.760E-06,0.024
-4.750E-06,0.012
-4.740E-06,-0.004
-4.730E-06,-0.008
-4.720E-06,-0.008
-4.710E-06,0.004
-4.700E-06,0.024
-4.690E-06,0.032
-4.680E-06,0.032
-4.670E-06,0.036
-4.660E-06,0.052
-4.650E-06,0.044
-4.640E-06,0.032
-4.630E-06,-0.008
-4.620E-06,-0.096
-4.610E-06,-0.116
-4.600E-06,-0.080
-4.590E-06,-0.044
-4.580E-06,0.060
-4.570E-06,0.092
-4.560E-06,0.044
-4.550E-06,0.008
-4.540E-06,-0.020
-4.530E-06,-0.072
-4.520E-06,-0.096
-4.510E-06,-0.008
-4.500E-06,0.052
-4.490E-06,0.076
-4.480E-06,0.072
-4.470E-06,0.008
-4.460E-06,-0.048
-4.450E-06,-0.068
-4.440E-06,-0.040
-4.430E-06,0.000
-4.420E-06,0.040
-4.410E-06,0.056
-4.400E-06,0.044
-4.390E-06,0.016
-4.380E-06,-0.016
-4.370E-06,-0.036
-4.360E-06,-0.024
-4.350E-06,0.000
-4.340E-06,0.020
-4.330E-06,0.032
-4.320E-06,0.028
-4.310E-06,0.024
-4.300E-06,0.000
-4.290E-06,-0.004
-4.280E-06,-0.016
-4.270E-06,-0.012
-4.260E-06,-0.004
-4.250E-06,0.020
-4.240E-06,0.024
-4.230E-06,0.024
-4.220E-06,0.004
-4.210E-06,-0.008
-4.200E-06,-0.008
-4.190E-06,-0.008
-4.180E-06,0.000
-4.170E-06,0.016
-4.160E-06,0.028
-4.150E-06,0.020
-4.140E-06,0.004
-4.130E-06,-0.004
-4.120E-06,-0.004
-4.110E-06,0.000
-4.100E-06,0.012
-4.090E-06,0.024
-4.080E-06,0.024
-4.070E-06,0.024
-4.060E-06,0.028
-4.050E-06,0.024
-4.040E-06,0.028
-4.030E-06,0.056
-4.020E-06,0.032
-4.010E-06,-0.024
-4.000E-06,-0.084
-3.990E-06,-0.120
-3.980E-06,-0.072
-3.970E-06,-0.012
-3.960E-06,0.052
-3.950E-06,0.072
-3.940E-06,0.056
-3.930E-06,0.004
-3.920E-06,-0.024
-3.910E-06,-0.052
-3.900E-06,-0.052
-3.890E-06,-0.004
-3.880E-06,0.024
-3.870E-06,0.036
-3.860E-06,0.032
-3.850E-06,0.028
-3.840E-06,0.000
-3.830E-06,-0.020
-3.820E-06,-0.024
-3.810E-06,-0.020
-3.800E-06,-0.004
-3.790E-06,0.020
-3.780E-06,0.036
-3.770E-06,0.028
-3.760E-06,0.008
-3.750E-06,-0.004
-3.740E-06,-0.016
-3.730E-06,-0.020
-3.720E-06,0.000
-3.710E-06,0.012
-3.700E-06,0.024
-3.690E-06,0.024
-3.680E-06,0.012
-3.670E-06,0.000
-3.660E-06,-0.012
-3.650E-06,-0.016
-3.640E-06,-0.008
-3.630E-06,0.012
-3.620E-06,0.020
-3.610E-06,0.016
-3.600E-06,0.008
-3.590E-06,0.000
-3.580E-06,0.000
-3.570E-06,-0.004
-3.560E-06,0.004
-3.550E-06,0.008
-3.540E-06,0.008
-3.530E-06,0.004
-3.520E-06,0.004
-3.510E-06,-0.004
-3.500E-06,0.000
-3.490E-06,0.004
-3.480E-06,0.008
-3.470E-06,0.008
-3.460E-06,0.008
-3.450E-06,0.004
-3.440E-06,0.000
-3.430E-06,0.000
-3.420E-06,-0.004
-3.410E-06,0.004
-3.400E-06,0.012
-3.390E-06,0.016
-3.380E-06,0.012
-3.370E-06,0.012
-3.360E-06,0.012
-3.350E-06,0.000
-3.340E-06,0.012
-3.330E-06,0.020
-3.320E-06,0.036
-3.310E-06,0.032
-3.300E-06,0.032
-3.290E-06,0.036
-3.280E-06,0.032
-3.270E-06,0.016
-3.260E-06,0.000
-3.250E-06,-0.060
-3.240E-06,-0.104
-3.230E-06,-0.084
-3.220E-06,-0.016
-3.210E-06,0.056
-3.200E-06,0.080
-3.190E-06,0.060
-3.180E-06,0.000
-3.170E-06,-0.056
-3.160E-06,-0.076
-3.150E-06,-0.044
-3.140E-06,0.004
-3.130E-06,0.076
-3.120E-06,0.092
-3.110E-06,0.048
-3.100E-06,-0.004
-3.090E-06,-0.040
-3.080E-06,-0.052
-3.070E-06,-0.016
-3.060E-06,0.028
-3.050E-06,0.080
-3.040E-06,0.028
-3.030E-06,0.000
-3.020E-06,-0.044
-3.010E-06,-0.052
-3.000E-06,-0.008
-2.990E-06,0.032
-2.980E-06,0.044
-2.970E-06,0.012
-2.960E-06,0.008
-2.950E-06,0.000
-2.940E-06,0.000
-2.930E-06,-0.004
-2.920E-06,0.000
-2.910E-06,-0.012
-2.900E-06,-0.004
-2.890E-06,0.000
-2.880E-06,0.008
-2.870E-06,0.004
-2.860E-06,0.008
-2.850E-06,0.016
-2.840E-06,0.004
-2.830E-06,-0.004
-2.820E-06,0.000
-2.810E-06,0.008
-2.800E-06,0.024
-2.790E-06,0.032
-2.780E-06,0.024
-2.770E-06,-0.012
-2.760E-06,-0.036
-2.750E-06,-0.020
-2.740E-06,0.008
-2.730E-06,0.028
-2.720E-06,0.020
-2.710E-06,0.008
-2.700E-06,-0.004
-2.690E-06,0.000
-2.680E-06,0.004
-2.670E-06,0.032
-2.660E-06,0.028
-2.650E-06,0.012
-2.640E-06,-0.008
-2.630E-06,-0.024
-2.620E-06,-0.028
-2.610E-06,-0.024
-2.600E-06,0.004
-2.590E-06,0.016
-2.580E-06,0.028
-2.570E-06,0.024
-2.560E-06,0.028
-2.550E-06,0.024
-2.540E-06,0.008
-2.530E-06,-0.004
-2.520E-06,-0.020
-2.510E-06,-0.024
-2.500E-06,-0.012
-2.490E-06,0.012
-2.480E-06,0.044
-2.470E-06,0.048
-2.460E-06,0.024
-2.450E-06,-0.008
-2.440E-06,-0.052
-2.430E-06,-0.040
-2.420E-06,0.012
-2.410E-06,0.028
-2.400E-06,0.044
-2.390E-06,0.020
-2.380E-06,0.016
-2.370E-06,-0.032
-2.360E-06,-0.024
-2.350E-06,-0.020
-2.340E-06,-0.040
-2.330E-06,-0.028
-2.320E-06,0.008
-2.310E-06,0.040
-2.300E-06,0.060
-2.290E-06,0.044
-2.280E-06,0.008
-2.270E-06,-0.040
-2.260E-06,-0.048
-2.250E-06,-0.016
-2.240E-06,0.012
-2.230E-06,0.012
-2.220E-06,0.012
-2.210E-06,0.000
-2.200E-06,0.000
-2.190E-06,0.008
-2.180E-06,0.016
-2.170E-06,0.004
-2.160E-06,-0.032
-2.150E-06,-0.028
-2.140E-06,-0.032
-2.130E-06,0.012
-2.120E-06,0.028
-2.110E-06,0.040
-2.100E-06,0.008
-2.090E-06,-0.012
-2.080E-06,-0.036
-2.070E-06,-0.016
-2.060E-06,0.012
-2.050E-06,0.044
-2.040E-06,0.052
-2.030E-06,0.020
-2.020E-06,-0.024
-2.010E-06,-0.060
-2.000E-06,-0.040
-1.990E-06,0.000
-1.980E-06,0.044
-1.970E-06,0.052
-1.960E-06,0.032
-1.950E-06,-0.004
-1.940E-06,-0.032
-1.930E-06,-0.024
-1.920E-06,0.008
-1.910E-06,0.036
-1.900E-06,0.028
-1.890E-06,0.012
-1.880E-06,-0.012
-1.870E-06,-0.020
-1.860E-06,-0.012
-1.850E-06,0.004
-1.840E-06,0.008
-1.830E-06,0.008
-1.820E-06,0.020
-1.810E-06,0.012
-1.800E-06,0.024
-1.790E-06,0.024
-1.780E-06,0.024
-1.770E-06,-0.024
-1.760E-06,-0.044
-1.750E-06,-0.044
-1.740E-06,-0.012
-1.730E-06,0.032
-1.720E-06,0.056
-1.710E-06,0.076
-1.700E-06,0.024
-1.690E-06,-0.032
-1.680E-06,-0.092
-1.670E-06,-0.072
-1.660E-06,-0.032
-1.650E-06,0.044
-1.640E-06,0.084
-1.630E-06,0.080
-1.620E-06,0.036
-1.610E-06,-0.032
-1.600E-06,-0.076
-1.590E-06,-0.064
-1.580E-06,-0.016
-1.570E-06,0.028
-1.560E-06,0.064
-1.550E-06,0.060
-1.540E-06,0.028
-1.530E-06,-0.012
-1.520E-06,-0.028
-1.510E-06,-0.012
-1.500E-06,0.028
-1.490E-06,0.044
-1.480E-06,0.020
-1.470E-06,0.000
-1.460E-06,-0.044
-1.450E-06,-0.044
-1.440E-06,-0.028
-1.430E-06,0.020
-1.420E-06,0.048
-1.410E-06,0.044
-1.400E-06,0.024
-1.390E-06,-0.004
-1.380E-06,-0.024
-1.370E-06,-0.024
-1.360E-06,-0.004
-1.350E-06,0.012
-1.340E-06,0.012
-1.330E-06,0.012
-1.320E-06,0.012
-1.310E-06,0.000
-1.300E-06,0.008
-1.290E-06,0.000
-1.280E-06,0.008
-1.270E-06,0.016
-1.260E-06,0.032
-1.250E-06,0.064
-1.240E-06,0.032
-1.230E-06,-0.004
-1.220E-06,-0.068
-1.210E-06,-0.104
-1.200E-06,-0.076
-1.190E-06,0.000
-1.180E-06,0.092
-1.170E-06,0.124
-1.160E-06,0.100
-1.150E-06,0.008
-1.140E-06,-0.080
-1.130E-06,-0.120
-1.120E-06,-0.068
-1.110E-06,0.020
-1.100E-06,0.100
-1.090E-06,0.096
-1.080E-06,0.044
-1.070E-06,-0.020
-1.060E-06,-0.080
-1.050E-06,-0.080
-1.040E-06,-0.032
-1.030E-06,0.040
-1.020E-06,0.080
-1.010E-06,0.088
-1.000E-06,0.060
-9.900E-07,0.028
-9.800E-07,-0.020
-9.700E-07,-0.036
-9.600E-07,-0.036
-9.500E-07,-0.008
-9.400E-07,0.012
-9.300E-07,0.048
-9.200E-07,0.068
-9.100E-07,0.056
-9.000E-07,0.024
-8.900E-07,0.024
-8.800E-07,0.012
-8.700E-07,-0.012
-8.600E-07,-0.028
-8.500E-07,-0.008
-8.400E-07,-0.004
-8.300E-07,-0.032
-8.200E-07,-0.056
-8.100E-07,-0.024
-8.000E-07,0.000
-7.900E-07,0.040
-7.800E-07,0.032
-7.700E-07,0.016
-7.600E-07,-0.008
-7.500E-07,-0.040
-7.400E-07,-0.040
-7.300E-07,-0.028
-7.200E-07,0.016
-7.100E-07,0.036
-7.000E-07,0.052
-6.900E-07,0.028
-6.800E-07,-0.016
-6.700E-07,-0.036
-6.600E-07,-0.008
-6.500E-07,0.020
-6.400E-07,0.052
-6.300E-07,0.068
-6.200E-07,0.060
-6.100E-07,0.044
-6.000E-07,0.020
-5.900E-07,0.020
-5.800E-07,0.020
-5.700E-07,0.020
-5.600E-07,-0.020
-5.500E-07,-0.080
-5.400E-07,-0.104
-5.300E-07,-0.056
-5.200E-07,0.008
-5.100E-07,0.064
-5.000E-07,0.108
-4.900E-07,0.140
-4.800E-07,0.136
-4.700E-07,0.052
-4.600E-07,-0.056
-4.500E-07,-0.136
-4.400E-07,-0.108
-4.300E-07,-0.020
-4.200E-07,0.064
-4.100E-07,0.084
-4.000E-07,0.068
-3.900E-07,0.016
-3.800E-07,-0.044
-3.700E-07,-0.068
-3.600E-07,-0.044
-3.500E-07,-0.008
-3.400E-07,0.052
-3.300E-07,0.080
-3.200E-07,0.056
-3.100E-07,0.004
-3.000E-07,-0.012
-2.900E-07,-0.036
-2.800E-07,-0.052
-2.700E-07,-0.032
-2.600E-07,0.024
-2.500E-07,0.068
-2.400E-07,0.120
-2.300E-07,0.112
-2.200E-07,0.076
-2.100E-07,-0.028
-2.000E-07,-0.108
-1.900E-07,-0.140
-1.800E-07,-0.076
-1.700E-07,0.052
-1.600E-07,0.160
-1.500E-07,0.160
-1.400E-07,0.072
-1.300E-07,-0.120
-1.200E-07,-0.252
-1.100E-07,-0.268
-1.000E-07,-0.064
-9.000E-08,0.236
-8.000E-08,0.384
-7.000E-08,0.276
-6.000E-08,-0.160
-5.000E-08,-0.400
-4.000E-08,-0.392
-3.000E-08,-0.180
-2.000E-08,0.140
-1.000E-08,0.436
0.000E+00,0.436
1.000E-08,0.124
2.000E-08,-0.236
3.000E-08,-0.508
4.000E-08,-0.496
5.000E-08,-0.232
6.000E-08,0.124
7.000E-08,0.364
8.000E-08,0.436
9.000E-08,0.296
1.000E-07,-0.044
1.100E-07,-0.264
1.200E-07,-0.352
1.300E-07,-0.240
1.400E-07,-0.012
1.500E-07,0.228
1.600E-07,0.312
1.700E-07,0.208
1.800E-07,0.000
1.900E-07,-0.204
2.000E-07,-0.256
2.100E-07,-0.176
2.200E-07,0.016
2.300E-07,0.152
2.400E-07,0.208
2.500E-07,0.136
2.600E-07,0.024
2.700E-07,-0.092
2.800E-07,-0.140
2.900E-07,-0.104
3.000E-07,-0.024
3.100E-07,0.068
3.200E-07,0.112
3.300E-07,0.108
3.400E-07,0.032
3.500E-07,-0.028
3.600E-07,-0.088
3.700E-07,-0.068
3.800E-07,-0.024
3.900E-07,0.032
4.000E-07,0.060
4.100E-07,0.056
4.200E-07,0.020
4.300E-07,-0.016
4.400E-07,-0.024
4.500E-07,-0.024
4.600E-07,0.004
4.700E-07,0.028
4.800E-07,0.036
4.900E-07,0.020
5.000E-07,0.000
5.100E-07,-0.012
5.200E-07,-0.008
5.300E-07,0.012
5.400E-07,0.024
5.500E-07,0.028
5.600E-07,0.012
5.700E-07,0.004
5.800E-07,-0.012
5.900E-07,0.000
6.000E-07,0.008
6.100E-07,0.028
6.200E-07,0.044
6.300E-07,0.048
6.400E-07,0.040
6.500E-07,0.032
6.600E-07,0.036
6.700E-07,0.044
6.800E-07,0.064
6.900E-07,0.076
7.000E-07,0.072
7.100E-07,0.024
7.200E-07,-0.032
7.300E-07,-0.056
7.400E-07,-0.044
7.500E-07,0.016
7.600E-07,0.072
7.700E-07,0.108
7.800E-07,0.084
7.900E-07,0.000
8.000E-07,-0.092
8.100E-07,-0.120
8.200E-07,-0.068
8.300E-07,0.032
8.400E-07,0.092
8.500E-07,0.120
8.600E-07,0.068
8.700E-07,-0.012
8.800E-07,-0.068
8.900E-07,-0.076
9.000E-07,-0.044
9.100E-07,0.016
9.200E-07,0.060
9.300E-07,0.096
9.400E-07,0.088
9.500E-07,0.028
9.600E-07,-0.024
9.700E-07,-0.056
9.800E-07,-0.048
9.900E-07,0.004
1.000E-06,0.072
1.010E-06,0.128
1.020E-06,0.124
1.030E-06,0.096
1.040E-06,0.060
1.050E-06,0.024
1.060E-06,0.016
1.070E-06,0.064
1.080E-06,0.108
1.090E-06,0.128
1.100E-06,0.104
1.110E-06,-0.008
1.120E-06,-0.232
1.130E-06,-0.424
1.140E-06,-0.484
1.150E-06,-0.348
1.160E-06,0.020
1.170E-06,0.260
1.180E-06,0.308
1.190E-06,0.260
1.200E-06,0.088
1.210E-06,-0.160
1.220E-06,-0.384
1.230E-06,-0.284
1.240E-06,0.028
1.250E-06,0.368
1.260E-06,0.472
1.270E-06,0.320
1.280E-06,-0.072
1.290E-06,-0.480
1.300E-06,-0.508
1.310E-06,-0.448
1.320E-06,-0.060
1.330E-06,0.388
1.340E-06,0.540
1.350E-06,0.400
1.360E-06,0.008
1.370E-06,-0.356
1.380E-06,-0.488
1.390E-06,-0.320
1.400E-06,0.036
1.410E-06,0.332
1.420E-06,0.404
1.430E-06,0.256
1.440E-06,0.000
1.450E-06,-0.204
1.460E-06,-0.272
1.470E-06,-0.172
1.480E-06,0.028
1.490E-06,0.240
1.500E-06,0.340
1.510E-06,0.292
1.520E-06,0.076
1.530E-06,-0.232
1.540E-06,-0.400
1.550E-06,-0.368
1.560E-06,-0.140
1.570E-06,0.164
1.580E-06,0.380
1.590E-06,0.384
1.600E-06,0.176
1.610E-06,-0.104
1.620E-06,-0.296
1.630E-06,-0.272
1.640E-06,-0.112
1.650E-06,0.092
1.660E-06,0.236
1.670E-06,0.228
1.680E-06,0.084
1.690E-06,-0.084
1.700E-06,-0.164
1.710E-06,-0.148
1.720E-06,-0.044
1.730E-06,0.060
1.740E-06,0.124
1.750E-06,0.108
1.760E-06,0.036
1.770E-06,-0.036
1.780E-06,-0.072
1.790E-06,-0.052
1.800E-06,0.008
1.810E-06,0.072
1.820E-06,0.092
1.830E-06,0.080
1.840E-06,0.056
1.850E-06,0.032
1.860E-06,0.008
1.870E-06,0.000
1.880E-06,0.004
1.890E-06,0.060
1.900E-06,0.092
1.910E-06,0.080
1.920E-06,0.064
1.930E-06,0.024
1.940E-06,0.012
1.950E-06,-0.040
1.960E-06,-0.080
1.970E-06,-0.160
1.980E-06,-0.296
1.990E-06,-0.284
2.000E-06,-0.052
2.010E-06,0.128
2.020E-06,0.208
2.030E-06,0.244
2.040E-06,0.052
2.050E-06,-0.180
2.060E-06,-0.272
2.070E-06,-0.200
2.080E-06,-0.008
2.090E-06,0.148
2.100E-06,0.208
2.110E-06,0.144
2.120E-06,0.020
2.130E-06,-0.152
2.140E-06,-0.168
2.150E-06,-0.068
2.160E-06,0.084
2.170E-06,0.164
2.180E-06,0.196
2.190E-06,0.144
2.200E-06,0.032
2.210E-06,-0.140
2.220E-06,-0.232
2.230E-06,-0.208
2.240E-06,-0.104
2.250E-06,0.048
2.260E-06,0.228
2.270E-06,0.236
2.280E-06,0.064
2.290E-06,-0.084
2.300E-06,-0.164
2.310E-06,-0.120
2.320E-06,-0.020
2.330E-06,0.092
2.340E-06,0.076
2.350E-06,0.052
2.360E-06,-0.040
2.370E-06,-0.108
2.380E-06,-0.068
2.390E-06,0.008
2.400E-06,0.076
2.410E-06,0.088
2.420E-06,0.048
2.430E-06,-0.028
2.440E-06,-0.056
2.450E-06,-0.044
2.460E-06,-0.012
2.470E-06,0.000
2.480E-06,0.028
2.490E-06,0.040
2.500E-06,0.044
2.510E-06,0.036
2.520E-06,0.024
2.530E-06,0.024
2.540E-06,0.028
2.550E-06,0.020
2.560E-06,0.036
2.570E-06,0.056
2.580E-06,0.056
2.590E-06,0.028
2.600E-06,-0.024
2.610E-06,-0.068
2.620E-06,-0.084
2.630E-06,-0.056
2.640E-06,-0.020
2.650E-06,0.000
2.660E-06,0.052
2.670E-06,0.048
2.680E-06,0.036
2.690E-06,-0.016
2.700E-06,-0.096
2.710E-06,-0.164
2.720E-06,-0.112
2.730E-06,-0.008
2.740E-06,0.096
2.750E-06,0.140
2.760E-06,0.068
2.770E-06,-0.040
2.780E-06,-0.116
2.790E-06,-0.108
2.800E-06,-0.044
2.810E-06,0.048
2.820E-06,0.100
2.830E-06,0.100
2.840E-06,0.048
2.850E-06,-0.020
2.860E-06,-0.060
2.870E-06,-0.064
2.880E-06,-0.024
2.890E-06,0.032
2.900E-06,0.076
2.910E-06,0.084
2.920E-06,0.056
2.930E-06,0.016
2.940E-06,-0.020
2.950E-06,-0.020
2.960E-06,0.024
2.970E-06,0.092
2.980E-06,0.136
2.990E-06,0.140
3.000E-06,0.076
3.010E-06,-0.052
3.020E-06,-0.152
3.030E-06,-0.140
3.040E-06,-0.056
3.050E-06,0.096
3.060E-06,0.220
3.070E-06,0.224
3.080E-06,0.124
3.090E-06,-0.044
3.100E-06,-0.196
3.110E-06,-0.232
3.120E-06,-0.108
3.130E-06,0.028
3.140E-06,0.156
3.150E-06,0.172
3.160E-06,0.124
3.170E-06,-0.056
3.180E-06,-0.200
3.190E-06,-0.272
3.200E-06,-0.244
3.210E-06,-0.076
3.220E-06,0.096
3.230E-06,0.232
3.240E-06,0.204
3.250E-06,0.084
3.260E-06,-0.116
3.270E-06,-0.188
