mediciones/6-10/5/WaveData5568.csv

#timebase=2000000(ps)
,#voltbase=100000(mv/100)
#size=4000
-4.250E-06,0.000
-4.240E-06,0.000
-4.230E-06,0.000
-4.220E-06,0.008
-4.210E-06,0.004
-4.200E-06,0.004
-4.190E-06,0.000
-4.180E-06,0.004
-4.170E-06,0.008
-4.160E-06,0.004
-4.150E-06,0.008
-4.140E-06,0.008
-4.130E-06,0.004
-4.120E-06,0.004
-4.110E-06,-0.004
-4.100E-06,0.000
-4.090E-06,0.004
-4.080E-06,-0.004
-4.070E-06,0.000
-4.060E-06,0.004
-4.050E-06,0.004
-4.040E-06,0.004
-4.030E-06,0.004
-4.020E-06,0.004
-4.010E-06,0.004
-4.000E-06,0.004
-3.990E-06,0.004
-3.980E-06,0.000
-3.970E-06,0.000
-3.960E-06,0.004
-3.950E-06,0.000
-3.940E-06,0.004
-3.930E-06,-0.004
-3.920E-06,0.000
-3.910E-06,0.008
-3.900E-06,0.008
-3.890E-06,0.008
-3.880E-06,0.008
-3.870E-06,0.004
-3.860E-06,0.000
-3.850E-06,0.000
-3.840E-06,0.004
-3.830E-06,0.000
-3.820E-06,0.000
-3.810E-06,0.000
-3.800E-06,0.000
-3.790E-06,0.004
-3.780E-06,0.004
-3.770E-06,0.000
-3.760E-06,0.000
-3.750E-06,0.004
-3.740E-06,0.004
-3.730E-06,0.008
-3.720E-06,0.000
-3.710E-06,0.004
-3.700E-06,0.004
-3.690E-06,0.000
-3.680E-06,-0.004
-3.670E-06,-0.004
-3.660E-06,0.004
-3.650E-06,0.004
-3.640E-06,0.004
-3.630E-06,0.004
-3.620E-06,0.000
-3.610E-06,0.000
-3.600E-06,0.004
-3.590E-06,0.004
-3.580E-06,0.004
-3.570E-06,0.004
-3.560E-06,0.004
-3.550E-06,0.000
-3.540E-06,0.000
-3.530E-06,0.000
-3.520E-06,0.004
-3.510E-06,0.000
-3.500E-06,0.000
-3.490E-06,0.004
-3.480E-06,0.000
-3.470E-06,0.004
-3.460E-06,0.004
-3.450E-06,0.004
-3.440E-06,0.004
-3.430E-06,0.004
-3.420E-06,0.004
-3.410E-06,0.004
-3.400E-06,0.000
-3.390E-06,0.004
-3.380E-06,0.008
-3.370E-06,0.004
-3.360E-06,0.004
-3.350E-06,0.000
-3.340E-06,0.004
-3.330E-06,0.004
-3.320E-06,0.004
-3.310E-06,0.000
-3.300E-06,0.004
-3.290E-06,0.004
-3.280E-06,0.000
-3.270E-06,0.004
-3.260E-06,0.004
-3.250E-06,0.004
-3.240E-06,0.004
-3.230E-06,0.008
-3.220E-06,0.000
-3.210E-06,0.000
-3.200E-06,0.004
-3.190E-06,0.008
-3.180E-06,0.008
-3.170E-06,0.012
-3.160E-06,-0.004
-3.150E-06,0.004
-3.140E-06,0.004
-3.130E-06,0.004
-3.120E-06,0.000
-3.110E-06,0.000
-3.100E-06,0.004
-3.090E-06,0.000
-3.080E-06,0.000
-3.070E-06,-0.004
-3.060E-06,0.004
-3.050E-06,0.024
-3.040E-06,0.060
-3.030E-06,0.072
-3.020E-06,0.060
-3.010E-06,0.012
-3.000E-06,-0.068
-2.990E-06,-0.120
-2.980E-06,-0.128
-2.970E-06,-0.044
-2.960E-06,0.028
-2.950E-06,0.116
-2.940E-06,0.112
-2.930E-06,0.056
-2.920E-06,-0.020
-2.910E-06,-0.060
-2.900E-06,-0.048
-2.890E-06,0.000
-2.880E-06,0.064
-2.870E-06,0.088
-2.860E-06,0.056
-2.850E-06,0.000
-2.840E-06,-0.052
-2.830E-06,-0.068
-2.820E-06,-0.044
-2.810E-06,-0.008
-2.800E-06,0.032
-2.790E-06,0.056
-2.780E-06,0.052
-2.770E-06,0.036
-2.760E-06,0.012
-2.750E-06,0.000
-2.740E-06,-0.020
-2.730E-06,-0.020
-2.720E-06,-0.020
-2.710E-06,-0.004
-2.700E-06,0.004
-2.690E-06,0.012
-2.680E-06,-0.008
-2.670E-06,-0.016
-2.660E-06,-0.024
-2.650E-06,-0.024
-2.640E-06,-0.004
-2.630E-06,0.028
-2.620E-06,0.044
-2.610E-06,0.044
-2.600E-06,0.040
-2.590E-06,0.012
-2.580E-06,-0.004
-2.570E-06,-0.020
-2.560E-06,-0.020
-2.550E-06,-0.004
-2.540E-06,0.000
-2.530E-06,0.008
-2.520E-06,0.004
-2.510E-06,0.000
-2.500E-06,-0.004
-2.490E-06,0.004
-2.480E-06,0.000
-2.470E-06,0.008
-2.460E-06,0.012
-2.450E-06,0.024
-2.440E-06,0.020
-2.430E-06,0.016
-2.420E-06,0.012
-2.410E-06,-0.004
-2.400E-06,-0.008
-2.390E-06,-0.012
-2.380E-06,-0.008
-2.370E-06,-0.004
-2.360E-06,0.012
-2.350E-06,0.016
-2.340E-06,0.008
-2.330E-06,0.008
-2.320E-06,0.000
-2.310E-06,-0.004
-2.300E-06,0.000
-2.290E-06,0.008
-2.280E-06,0.012
-2.270E-06,0.012
-2.260E-06,0.008
-2.250E-06,-0.004
-2.240E-06,-0.016
-2.230E-06,-0.004
-2.220E-06,-0.008
-2.210E-06,-0.004
-2.200E-06,0.008
-2.190E-06,0.012
-2.180E-06,0.008
-2.170E-06,0.000
-2.160E-06,-0.004
-2.150E-06,0.004
-2.140E-06,-0.004
-2.130E-06,0.008
-2.120E-06,0.012
-2.110E-06,0.012
-2.100E-06,0.004
-2.090E-06,0.004
-2.080E-06,0.004
-2.070E-06,0.000
-2.060E-06,-0.004
-2.050E-06,0.004
-2.040E-06,0.000
-2.030E-06,0.008
-2.020E-06,0.008
-2.010E-06,0.004
-2.000E-06,0.000
-1.990E-06,0.004
-1.980E-06,-0.004
-1.970E-06,0.004
-1.960E-06,0.008
-1.950E-06,0.012
-1.940E-06,0.016
-1.930E-06,0.000
-1.920E-06,0.000
-1.910E-06,-0.008
-1.900E-06,0.000
-1.890E-06,0.000
-1.880E-06,0.008
-1.870E-06,0.016
-1.860E-06,0.012
-1.850E-06,0.004
-1.840E-06,0.000
-1.830E-06,0.000
-1.820E-06,-0.004
-1.810E-06,0.000
-1.800E-06,0.008
-1.790E-06,0.004
-1.780E-06,0.004
-1.770E-06,0.008
-1.760E-06,0.008
-1.750E-06,0.004
-1.740E-06,-0.008
-1.730E-06,-0.004
-1.720E-06,0.004
-1.710E-06,0.004
-1.700E-06,0.008
-1.690E-06,0.000
-1.680E-06,0.004
-1.670E-06,0.000
-1.660E-06,0.008
-1.650E-06,0.008
-1.640E-06,0.008
-1.630E-06,0.004
-1.620E-06,0.008
-1.610E-06,0.008
-1.600E-06,0.008
-1.590E-06,0.004
-1.580E-06,0.004
-1.570E-06,0.004
-1.560E-06,0.004
-1.550E-06,0.012
-1.540E-06,0.008
-1.530E-06,0.004
-1.520E-06,0.004
-1.510E-06,0.000
-1.500E-06,0.008
-1.490E-06,0.008
-1.480E-06,0.008
-1.470E-06,0.012
-1.460E-06,0.008
-1.450E-06,0.008
-1.440E-06,0.000
-1.430E-06,0.000
-1.420E-06,0.004
-1.410E-06,0.004
-1.400E-06,0.008
-1.390E-06,0.012
-1.380E-06,0.012
-1.370E-06,0.008
-1.360E-06,0.004
-1.350E-06,0.008
-1.340E-06,-0.004
-1.330E-06,-0.004
-1.320E-06,0.000
-1.310E-06,0.004
-1.300E-06,0.004
-1.290E-06,0.004
-1.280E-06,0.004
-1.270E-06,0.004
-1.260E-06,0.000
-1.250E-06,-0.008
-1.240E-06,-0.012
-1.230E-06,-0.012
-1.220E-06,-0.004
-1.210E-06,0.004
-1.200E-06,0.020
-1.190E-06,0.024
-1.180E-06,0.028
-1.170E-06,0.024
-1.160E-06,0.004
-1.150E-06,-0.008
-1.140E-06,-0.020
-1.130E-06,0.000
-1.120E-06,0.016
-1.110E-06,0.036
-1.100E-06,0.028
-1.090E-06,0.020
-1.080E-06,0.004
-1.070E-06,0.000
-1.060E-06,-0.004
-1.050E-06,0.008
-1.040E-06,0.024
-1.030E-06,0.032
-1.020E-06,0.032
-1.010E-06,0.024
-1.000E-06,0.028
-9.900E-07,0.024
-9.800E-07,0.020
-9.700E-07,0.032
-9.600E-07,0.044
-9.500E-07,0.060
-9.400E-07,0.052
-9.300E-07,0.056
-9.200E-07,0.052
-9.100E-07,0.048
-9.000E-07,0.048
-8.900E-07,0.000
-8.800E-07,0.000
-8.700E-07,-0.004
-8.600E-07,-0.032
-8.500E-07,-0.136
-8.400E-07,-0.164
-8.300E-07,-0.152
-8.200E-07,-0.084
-8.100E-07,0.008
-8.000E-07,0.088
-7.900E-07,0.124
-7.800E-07,0.048
-7.700E-07,-0.028
-7.600E-07,-0.084
-7.500E-07,-0.080
-7.400E-07,-0.024
-7.300E-07,0.056
-7.200E-07,0.120
-7.100E-07,0.104
-7.000E-07,0.060
-6.900E-07,0.004
-6.800E-07,-0.020
-6.700E-07,-0.056
-6.600E-07,-0.020
-6.500E-07,0.000
-6.400E-07,0.028
-6.300E-07,0.036
-6.200E-07,0.012
-6.100E-07,-0.004
-6.000E-07,-0.048
-5.900E-07,-0.036
-5.800E-07,-0.040
-5.700E-07,0.012
-5.600E-07,0.048
-5.500E-07,0.056
-5.400E-07,0.056
-5.300E-07,0.028
-5.200E-07,0.004
-5.100E-07,-0.016
-5.000E-07,-0.004
-4.900E-07,0.024
-4.800E-07,0.052
-4.700E-07,0.056
-4.600E-07,0.032
-4.500E-07,0.000
-4.400E-07,-0.012
-4.300E-07,0.000
-4.200E-07,0.024
-4.100E-07,0.052
-4.000E-07,0.060
-3.900E-07,0.056
-3.800E-07,0.032
-3.700E-07,0.000
-3.600E-07,0.000
-3.500E-07,0.012
-3.400E-07,0.032
-3.300E-07,0.056
-3.200E-07,0.080
-3.100E-07,0.076
-3.000E-07,0.076
-2.900E-07,0.072
-2.800E-07,0.092
-2.700E-07,0.076
-2.600E-07,0.056
-2.500E-07,-0.004
-2.400E-07,-0.016
-2.300E-07,-0.008
-2.200E-07,0.004
-2.100E-07,0.012
-2.000E-07,0.032
-1.900E-07,0.040
-1.800E-07,0.020
-1.700E-07,0.008
-1.600E-07,0.000
-1.500E-07,0.000
-1.400E-07,0.032
-1.300E-07,0.056
-1.200E-07,0.092
-1.100E-07,0.100
-1.000E-07,0.040
-9.000E-08,0.036
-8.000E-08,0.032
-7.000E-08,-0.152
-6.000E-08,-0.272
-5.000E-08,-0.388
-4.000E-08,-0.272
-3.000E-08,-0.076
-2.000E-08,0.120
-1.000E-08,0.264
0.000E+00,0.288
1.000E-08,0.264
2.000E-08,0.092
3.000E-08,-0.236
4.000E-08,-0.432
5.000E-08,-0.392
6.000E-08,-0.024
7.000E-08,0.088
8.000E-08,0.124
9.000E-08,0.136
1.000E-07,0.184
1.100E-07,-0.008
1.200E-07,-0.140
1.300E-07,-0.272
1.400E-07,-0.124
1.500E-07,0.032
1.600E-07,0.136
1.700E-07,0.032
1.800E-07,0.072
1.900E-07,-0.008
2.000E-07,-0.084
2.100E-07,-0.040
2.200E-07,-0.064
2.300E-07,-0.016
2.400E-07,0.024
2.500E-07,0.108
2.600E-07,0.020
2.700E-07,0.008
2.800E-07,-0.048
2.900E-07,-0.060
3.000E-07,-0.012
3.100E-07,0.008
3.200E-07,0.048
3.300E-07,0.044
3.400E-07,0.056
3.500E-07,-0.004
3.600E-07,-0.004
3.700E-07,-0.020
3.800E-07,-0.004
3.900E-07,0.016
4.000E-07,0.052
4.100E-07,0.072
4.200E-07,0.056
4.300E-07,0.048
4.400E-07,0.012
4.500E-07,0.024
4.600E-07,0.036
4.700E-07,0.084
4.800E-07,0.128
4.900E-07,0.164
5.000E-07,0.156
5.100E-07,0.156
5.200E-07,0.132
5.300E-07,0.124
5.400E-07,0.128
5.500E-07,0.140
5.600E-07,0.176
5.700E-07,0.196
5.800E-07,0.208
5.900E-07,0.184
6.000E-07,0.176
6.100E-07,0.144
6.200E-07,0.136
6.300E-07,0.124
6.400E-07,0.128
6.500E-07,0.132
6.600E-07,0.124
6.700E-07,0.140
6.800E-07,0.136
6.900E-07,0.136
7.000E-07,0.128
7.100E-07,0.096
7.200E-07,0.072
7.300E-07,0.072
7.400E-07,0.080
7.500E-07,0.088
7.600E-07,0.124
7.700E-07,0.144
7.800E-07,0.148
7.900E-07,0.104
8.000E-07,0.072
8.100E-07,0.060
8.200E-07,0.004
8.300E-07,-0.060
8.400E-07,-0.104
8.500E-07,-0.268
8.600E-07,-0.272
8.700E-07,-0.320
8.800E-07,-0.128
8.900E-07,-0.068
9.000E-07,0.112
9.100E-07,0.252
9.200E-07,0.268
9.300E-07,0.100
9.400E-07,-0.132
9.500E-07,-0.416
9.600E-07,-0.200
9.700E-07,-0.144
9.800E-07,-0.032
9.900E-07,0.016
1.000E-06,0.024
1.010E-06,-0.004
1.020E-06,-0.236
1.030E-06,-0.364
1.040E-06,-0.312
1.050E-06,-0.292
1.060E-06,-0.320
1.070E-06,-0.080
1.080E-06,-0.056
1.090E-06,0.116
1.100E-06,0.216
1.110E-06,0.020
1.120E-06,-0.036
1.130E-06,-0.204
1.140E-06,-0.032
1.150E-06,0.064
1.160E-06,0.172
1.170E-06,0.236
1.180E-06,0.180
1.190E-06,0.152
1.200E-06,-0.004
1.210E-06,-0.004
1.220E-06,0.012
1.230E-06,0.124
1.240E-06,0.188
1.250E-06,0.244
1.260E-06,0.256
1.270E-06,0.176
1.280E-06,0.116
1.290E-06,0.064
1.300E-06,0.060
1.310E-06,0.104
1.320E-06,0.168
1.330E-06,0.208
1.340E-06,0.256
1.350E-06,0.240
1.360E-06,0.212
1.370E-06,0.196
1.380E-06,0.196
1.390E-06,0.204
1.400E-06,0.224
1.410E-06,0.260
1.420E-06,0.244
1.430E-06,0.240
1.440E-06,0.208
1.450E-06,0.200
1.460E-06,0.192
1.470E-06,0.208
1.480E-06,0.220
1.490E-06,0.240
1.500E-06,0.248
1.510E-06,0.224
1.520E-06,0.216
1.530E-06,0.200
1.540E-06,0.196
1.550E-06,0.200
1.560E-06,0.212
1.570E-06,0.224
1.580E-06,0.228
1.590E-06,0.216
1.600E-06,0.204
1.610E-06,0.192
1.620E-06,0.176
1.630E-06,0.192
1.640E-06,0.196
1.650E-06,0.196
1.660E-06,0.196
1.670E-06,0.208
1.680E-06,0.200
1.690E-06,0.208
1.700E-06,0.220
1.710E-06,0.220
1.720E-06,0.220
1.730E-06,0.212
1.740E-06,0.208
1.750E-06,0.208
1.760E-06,0.216
1.770E-06,0.220
1.780E-06,0.224
1.790E-06,0.216
1.800E-06,0.212
1.810E-06,0.224
1.820E-06,0.216
1.830E-06,0.220
1.840E-06,0.228
1.850E-06,0.228
1.860E-06,0.224
1.870E-06,0.220
1.880E-06,0.220
1.890E-06,0.220
1.900E-06,0.224
1.910E-06,0.220
1.920E-06,0.220
1.930E-06,0.224
1.940E-06,0.220
1.950E-06,0.212
1.960E-06,0.216
1.970E-06,0.212
1.980E-06,0.216
1.990E-06,0.220
2.000E-06,0.220
2.010E-06,0.224
2.020E-06,0.224
2.030E-06,0.224
2.040E-06,0.220
2.050E-06,0.220
2.060E-06,0.224
2.070E-06,0.224
2.080E-06,0.220
2.090E-06,0.224
2.100E-06,0.220
2.110E-06,0.216
2.120E-06,0.216
2.130E-06,0.224
2.140E-06,0.216
2.150E-06,0.216
2.160E-06,0.220
2.170E-06,0.220
2.180E-06,0.224
2.190E-06,0.216
2.200E-06,0.216
2.210E-06,0.216
2.220E-06,0.220
2.230E-06,0.216
2.240E-06,0.216
2.250E-06,0.216
2.260E-06,0.216
2.270E-06,0.216
2.280E-06,0.220
2.290E-06,0.216
2.300E-06,0.212
2.310E-06,0.208
2.320E-06,0.212
2.330E-06,0.212
2.340E-06,0.212
2.350E-06,0.208
2.360E-06,0.208
2.370E-06,0.212
2.380E-06,0.208
2.390E-06,0.212
2.400E-06,0.212
2.410E-06,0.208
2.420E-06,0.208
2.430E-06,0.208
2.440E-06,0.208
2.450E-06,0.208
2.460E-06,0.204
2.470E-06,0.204
2.480E-06,0.204
2.490E-06,0.204
2.500E-06,0.208
2.510E-06,0.208
2.520E-06,0.204
2.530E-06,0.204
2.540E-06,0.204
2.550E-06,0.204
2.560E-06,0.204
2.570E-06,0.208
2.580E-06,0.200
2.590E-06,0.204
2.600E-06,0.204
2.610E-06,0.196
2.620E-06,0.200
2.630E-06,0.200
2.640E-06,0.196
2.650E-06,0.204
2.660E-06,0.196
2.670E-06,0.196
2.680E-06,0.200
2.690E-06,0.200
2.700E-06,0.196
2.710E-06,0.196
2.720E-06,0.204
2.730E-06,0.200
2.740E-06,0.192
2.750E-06,0.196
2.760E-06,0.200
2.770E-06,0.196
2.780E-06,0.196
2.790E-06,0.192
2.800E-06,0.192
2.810E-06,0.192
2.820E-06,0.192
2.830E-06,0.192
2.840E-06,0.196
2.850E-06,0.192
2.860E-06,0.192
2.870E-06,0.192
2.880E-06,0.192
2.890E-06,0.188
2.900E-06,0.192
2.910E-06,0.192
2.920E-06,0.188
2.930E-06,0.196
2.940E-06,0.188
2.950E-06,0.188
2.960E-06,0.188
2.970E-06,0.188
2.980E-06,0.192
2.990E-06,0.188
3.000E-06,0.184
3.010E-06,0.188
3.020E-06,0.184
3.030E-06,0.188
3.040E-06,0.184
3.050E-06,0.188
3.060E-06,0.180
3.070E-06,0.184
3.080E-06,0.184
3.090E-06,0.188
3.100E-06,0.188
3.110E-06,0.180
3.120E-06,0.184
3.130E-06,0.180
3.140E-06,0.184
3.150E-06,0.180
3.160E-06,0.176
3.170E-06,0.184
3.180E-06,0.176
3.190E-06,0.172
3.200E-06,0.176
3.210E-06,0.184
3.220E-06,0.180
3.230E-06,0.176
3.240E-06,0.180
3.250E-06,0.172
3.260E-06,0.176
3.270E-06,0.176
3.280E-06,0.172
3.290E-06,0.176
3.300E-06,0.176
3.310E-06,0.172
3.320E-06,0.172
3.330E-06,0.176
3.340E-06,0.176
3.350E-06,0.172
3.360E-06,0.172
3.370E-06,0.172
3.380E-06,0.172
3.390E-06,0.164
3.400E-06,0.168
3.410E-06,0.172
3.420E-06,0.168
3.430E-06,0.160
3.440E-06,0.168
3.450E-06,0.164
3.460E-06,0.164
3.470E-06,0.164
3.480E-06,0.168
3.490E-06,0.164
3.500E-06,0.160
3.510E-06,0.160
3.520E-06,0.168
3.530E-06,0.164
3.540E-06,0.164
3.550E-06,0.164
3.560E-06,0.156
3.570E-06,0.160
3.580E-06,0.164
3.590E-06,0.160
3.600E-06,0.164
3.610E-06,0.156
3.620E-06,0.156
3.630E-06,0.156
3.640E-06,0.160
3.650E-06,0.160
3.660E-06,0.156
3.670E-06,0.152
3.680E-06,0.152
3.690E-06,0.156
3.700E-06,0.152
3.710E-06,0.152
3.720E-06,0.156
3.730E-06,0.156
3.740E-06,0.152
3.750E-06,0.152
3.760E-06,0.152
3.770E-06,0.148
3.780E-06,0.152
3.790E-06,0.152
3.800E-06,0.144
3.810E-06,0.152
3.820E-06,0.152
3.830E-06,0.148
3.840E-06,0.148
3.850E-06,0.144
3.860E-06,0.144
3.870E-06,0.144
3.880E-06,0.140
3.890E-06,0.144
3.900E-06,0.144
3.910E-06,0.144
3.920E-06,0.144
3.930E-06,0.144
3.940E-06,0.140
3.950E-06,0.144
3.960E-06,0.144
3.970E-06,0.140
3.980E-06,0.140
3.990E-06,0.144
4.000E-06,0.140
4.010E-06,0.140
4.020E-06,0.140
4.030E-06,0.136
4.040E-06,0.136
4.050E-06,0.144
4.060E-06,0.140
4.070E-06,0.132
4.080E-06,0.136
4.090E-06,0.136
4.100E-06,0.136
4.110E-06,0.132
4.120E-06,0.132
4.130E-06,0.132
4.140E-06,0.136
4.150E-06,0.132
4.160E-06,0.128
4.170E-06,0.128
4.180E-06,0.124
4.190E-06,0.124
4.200E-06,0.128
4.210E-06,0.128
4.220E-06,0.132
4.230E-06,0.132
4.240E-06,0.128
4.250E-06,0.128
4.260E-06,0.128
4.270E-06,0.124
4.280E-06,0.128
4.290E-06,0.128
4.300E-06,0.124
4.310E-06,0.128
4.320E-06,0.132
4.330E-06,0.124
4.340E-06,0.124
4.350E-06,0.124
4.360E-06,0.124
4.370E-06,0.120
4.380E-06,0.124
4.390E-06,0.124
4.400E-06,0.124
4.410E-06,0.124
4.420E-06,0.128
4.430E-06,0.124
4.440E-06,0.120
4.450E-06,0.120
4.460E-06,0.120
4.470E-06,0.120
4.480E-06,0.116
4.490E-06,0.120
4.500E-06,0.116
4.510E-06,0.120
4.520E-06,0.116
4.530E-06,0.112
4.540E-06,0.108
4.550E-06,0.108
4.560E-06,0.112
4.570E-06,0.108
4.580E-06,0.108
4.590E-06,0.108
4.600E-06,0.112
4.610E-06,0.112
4.620E-06,0.112
4.630E-06,0.108
4.640E-06,0.108
4.650E-06,0.112
4.660E-06,0.104
4.670E-06,0.104
4.680E-06,0.108
4.690E-06,0.104
4.700E-06,0.104
4.710E-06,0.104
4.720E-06,0.108
4.730E-06,0.108
4.740E-06,0.108
4.750E-06,0.108
4.760E-06,0.108
4.770E-06,0.108
4.780E-06,0.104
4.790E-06,0.104
4.800E-06,0.104
4.810E-06,0.104
4.820E-06,0.104
4.830E-06,0.104
4.840E-06,0.100
4.850E-06,0.096
4.860E-06,0.104
4.870E-06,0.104
4.880E-06,0.100
4.890E-06,0.096
4.900E-06,0.100
4.910E-06,0.100
4.920E-06,0.100
4.930E-06,0.092
4.940E-06,0.096
4.950E-06,0.092
4.960E-06,0.092
4.970E-06,0.092
4.980E-06,0.092
4.990E-06,0.096
5.000E-06,0.096
5.010E-06,0.096
5.020E-06,0.092
5.030E-06,0.088
5.040E-06,0.088
5.050E-06,0.092
5.060E-06,0.096
5.070E-06,0.092
5.080E-06,0.088
5.090E-06,0.088
5.100E-06,0.088
5.110E-06,0.092
5.120E-06,0.084
5.130E-06,0.092
5.140E-06,0.088
5.150E-06,0.088
5.160E-06,0.092
5.170E-06,0.084
5.180E-06,0.088
5.190E-06,0.084
5.200E-06,0.080
5.210E-06,0.088
5.220E-06,0.084
5.230E-06,0.084
5.240E-06,0.088
5.250E-06,0.080
5.260E-06,0.084
5.270E-06,0.076
5.280E-06,0.080
5.290E-06,0.076
5.300E-06,0.076
5.310E-06,0.076
5.320E-06,0.076
5.330E-06,0.076
5.340E-06,0.080
5.350E-06,0.076
5.360E-06,0.076
5.370E-06,0.080
5.380E-06,0.076
5.390E-06,0.072
5.400E-06,0.072
5.410E-06,0.072
5.420E-06,0.072
5.430E-06,0.076
5.440E-06,0.072
5.450E-06,0.072
5.460E-06,0.076
5.470E-06,0.072
5.480E-06,0.076
5.490E-06,0.072
5.500E-06,0.076
5.510E-06,0.076
5.520E-06,0.072
5.530E-06,0.068
5.540E-06,0.072
5.550E-06,0.072
5.560E-06,0.072
5.570E-06,0.072
5.580E-06,0.068
5.590E-06,0.064
5.600E-06,0.068
5.610E-06,0.068
5.620E-06,0.064
5.630E-06,0.064
5.640E-06,0.064
5.650E-06,0.060
5.660E-06,0.068
5.670E-06,0.064
5.680E-06,0.064
5.690E-06,0.064
5.700E-06,0.064
5.710E-06,0.060
5.720E-06,0.064
5.730E-06,0.060
5.740E-06,0.060
5.750E-06,0.060
5.760E-06,0.060
5.770E-06,0.060
5.780E-06,0.060
5.790E-06,0.060
5.800E-06,0.056
5.810E-06,0.060
5.820E-06,0.060
5.830E-06,0.064
5.840E-06,0.056
5.850E-06,0.056
5.860E-06,0.060
5.870E-06,0.056
5.880E-06,0.056
5.890E-06,0.056
5.900E-06,0.056
5.910E-06,0.060
5.920E-06,0.060
5.930E-06,0.056
5.940E-06,0.052
5.950E-06,0.052
5.960E-06,0.056
5.970E-06,0.056
5.980E-06,0.052
5.990E-06,0.056
6.000E-06,0.052
6.010E-06,0.060
6.020E-06,0.056
6.030E-06,0.048
6.040E-06,0.044
6.050E-06,0.052
6.060E-06,0.056
6.070E-06,0.048
6.080E-06,0.052
6.090E-06,0.048
6.100E-06,0.052
6.110E-06,0.048
6.120E-06,0.044
6.130E-06,0.044
6.140E-06,0.044
6.150E-06,0.040
6.160E-06,0.044
6.170E-06,0.048
6.180E-06,0.044
6.190E-06,0.044
6.200E-06,0.044
6.210E-06,0.040
6.220E-06,0.044
6.230E-06,0.044
6.240E-06,0.044
6.250E-06,0.044
6.260E-06,0.044
6.270E-06,0.032
6.280E-06,0.036
6.290E-06,0.040
6.300E-06,0.036
6.310E-06,0.036
6.320E-06,0.044
6.330E-06,0.044
6.340E-06,0.036
6.350E-06,0.036
6.360E-06,0.036
6.370E-06,0.036
6.380E-06,0.040
6.390E-06,0.040
6.400E-06,0.036
6.410E-06,0.044
6.420E-06,0.036
6.430E-06,0.036
6.440E-06,0.036
6.450E-06,0.036
6.460E-06,0.032
6.470E-06,0.036
6.480E-06,0.040
6.490E-06,0.036
6.500E-06,0.040
6.510E-06,0.040
6.520E-06,0.032
6.530E-06,0.028
6.540E-06,0.028
6.550E-06,0.032
6.560E-06,0.032
6.570E-06,0.036
6.580E-06,0.028
6.590E-06,0.028
6.600E-06,0.040
6.610E-06,0.028
6.620E-06,0.024
6.630E-06,0.024
6.640E-06,0.028
6.650E-06,0.020
6.660E-06,0.028
6.670E-06,0.032
6.680E-06,0.036
6.690E-06,0.028
6.700E-06,0.024
6.710E-06,0.028
6.720E-06,0.028
6.730E-06,0.024
6.740E-06,0.020
6.750E-06,0.028
6.760E-06,0.028
6.770E-06,0.036
6.780E-06,0.032
6.790E-06,0.024
6.800E-06,0.024
6.810E-06,0.016
6.820E-06,0.016
6.830E-06,0.020
6.840E-06,0.028
6.850E-06,0.024
6.860E-06,0.024
6.870E-06,0.028
6.880E-06,0.024
6.890E-06,0.024
6.900E-06,0.016
6.910E-06,0.012
6.920E-06,0.024
6.930E-06,0.028
6.940E-06,0.020
6.950E-06,0.024
6.960E-06,0.020
6.970E-06,0.020
6.980E-06,0.020
6.990E-06,0.016
7.000E-06,0.016
7.010E-06,0.016
7.020E-06,0.016
7.030E-06,0.020
7.040E-06,0.024
7.050E-06,0.024
7.060E-06,0.012
7.070E-06,0.012
7.080E-06,0.012
7.090E-06,0.016
7.100E-06,0.020
7.110E-06,0.020
7.120E-06,0.020
7.130E-06,0.016
7.140E-06,0.008
7.150E-06,0.008
7.160E-06,0.012
7.170E-06,0.012
7.180E-06,0.012
7.190E-06,0.012
7.200E-06,0.008
7.210E-06,0.012
7.220E-06,0.012
7.230E-06,0.016
7.240E-06,0.008
7.250E-06,0.008
7.260E-06,0.008
7.270E-06,0.012
7.280E-06,0.012
7.290E-06,0.012
7.300E-06,0.008
7.310E-06,0.004
7.320E-06,0.004
7.330E-06,0.008
7.340E-06,0.004
7.350E-06,0.008
7.360E-06,0.016
7.370E-06,0.008
7.380E-06,0.008
7.390E-06,0.008
7.400E-06,0.008
7.410E-06,0.012
7.420E-06,0.004
7.430E-06,0.008
7.440E-06,0.012
7.450E-06,0.012
7.460E-06,0.008
7.470E-06,0.000
7.480E-06,0.004
7.490E-06,0.008
7.500E-06,0.008
7.510E-06,0.008
7.520E-06,0.008
7.530E-06,0.004
7.540E-06,0.000
7.550E-06,0.004
7.560E-06,0.004
7.570E-06,0.004
7.580E-06,0.004
7.590E-06,0.000
7.600E-06,0.004
7.610E-06,0.000
7.620E-06,0.000
7.630E-06,0.000
7.640E-06,0.004
7.650E-06,0.004
7.660E-06,0.008
7.670E-06,0.000
7.680E-06,0.000
7.690E-06,0.000
7.700E-06,0.000
7.710E-06,-0.004
7.720E-06,0.000
7.730E-06,0.000
7.740E-06,-0.004
7.750E-06,-0.004
7.760E-06,0.000
7.770E-06,-0.004
7.780E-06,0.000
7.790E-06,-0.004
7.800E-06,0.000
7.810E-06,0.000
7.820E-06,-0.004
7.830E-06,-0.004
7.840E-06,-0.004
