mediciones/6-10/5/WaveData5569.csv

#timebase=2000000(ps)
,#voltbase=200000(mv/100)
#size=4000
-4.250E-06,0.000
-4.240E-06,0.008
-4.230E-06,-0.008
-4.220E-06,0.000
-4.210E-06,0.000
-4.200E-06,0.000
-4.190E-06,0.000
-4.180E-06,-0.008
-4.170E-06,0.000
-4.160E-06,0.008
-4.150E-06,-0.008
-4.140E-06,-0.008
-4.130E-06,0.000
-4.120E-06,-0.008
-4.110E-06,0.000
-4.100E-06,0.000
-4.090E-06,0.000
-4.080E-06,0.000
-4.070E-06,0.000
-4.060E-06,0.000
-4.050E-06,0.000
-4.040E-06,0.000
-4.030E-06,0.000
-4.020E-06,0.008
-4.010E-06,-0.008
-4.000E-06,-0.008
-3.990E-06,0.000
-3.980E-06,0.008
-3.970E-06,-0.008
-3.960E-06,0.000
-3.950E-06,0.008
-3.940E-06,0.000
-3.930E-06,0.008
-3.920E-06,-0.008
-3.910E-06,0.000
-3.900E-06,0.000
-3.890E-06,0.000
-3.880E-06,0.000
-3.870E-06,0.008
-3.860E-06,0.008
-3.850E-06,-0.008
-3.840E-06,-0.008
-3.830E-06,0.000
-3.820E-06,-0.008
-3.810E-06,0.008
-3.800E-06,0.000
-3.790E-06,0.008
-3.780E-06,0.008
-3.770E-06,0.000
-3.760E-06,0.000
-3.750E-06,0.000
-3.740E-06,0.000
-3.730E-06,0.008
-3.720E-06,0.000
-3.710E-06,0.000
-3.700E-06,0.000
-3.690E-06,-0.008
-3.680E-06,0.000
-3.670E-06,0.000
-3.660E-06,0.008
-3.650E-06,0.000
-3.640E-06,-0.008
-3.630E-06,0.000
-3.620E-06,0.000
-3.610E-06,0.000
-3.600E-06,0.008
-3.590E-06,0.008
-3.580E-06,-0.008
-3.570E-06,-0.008
-3.560E-06,0.000
-3.550E-06,0.008
-3.540E-06,-0.008
-3.530E-06,-0.008
-3.520E-06,0.000
-3.510E-06,-0.008
-3.500E-06,-0.008
-3.490E-06,0.000
-3.480E-06,0.000
-3.470E-06,0.000
-3.460E-06,0.000
-3.450E-06,0.000
-3.440E-06,0.000
-3.430E-06,0.008
-3.420E-06,0.008
-3.410E-06,0.008
-3.400E-06,-0.008
-3.390E-06,0.000
-3.380E-06,0.000
-3.370E-06,0.000
-3.360E-06,0.000
-3.350E-06,0.000
-3.340E-06,0.008
-3.330E-06,0.000
-3.320E-06,0.000
-3.310E-06,-0.008
-3.300E-06,0.008
-3.290E-06,0.016
-3.280E-06,0.008
-3.270E-06,0.008
-3.260E-06,0.008
-3.250E-06,-0.008
-3.240E-06,0.000
-3.230E-06,0.008
-3.220E-06,0.008
-3.210E-06,0.008
-3.200E-06,0.000
-3.190E-06,0.000
-3.180E-06,0.000
-3.170E-06,0.000
-3.160E-06,0.000
-3.150E-06,0.000
-3.140E-06,-0.008
-3.130E-06,0.000
-3.120E-06,0.008
-3.110E-06,0.000
-3.100E-06,0.000
-3.090E-06,0.000
-3.080E-06,0.000
-3.070E-06,0.000
-3.060E-06,0.000
-3.050E-06,-0.016
-3.040E-06,0.016
-3.030E-06,0.232
-3.020E-06,0.776
-3.010E-06,1.080
-3.000E-06,1.072
-2.990E-06,1.080
-2.980E-06,1.088
-2.970E-06,1.080
-2.960E-06,0.928
-2.950E-06,-0.504
-2.940E-06,-1.040
-2.930E-06,-1.040
-2.920E-06,-1.040
-2.910E-06,-1.040
-2.900E-06,-1.048
-2.890E-06,-1.040
-2.880E-06,-1.040
-2.870E-06,-1.040
-2.860E-06,-1.040
-2.850E-06,-0.944
-2.840E-06,-0.416
-2.830E-06,-0.176
-2.820E-06,0.056
-2.810E-06,0.176
-2.800E-06,0.296
-2.790E-06,0.504
-2.780E-06,0.576
-2.770E-06,0.600
-2.760E-06,0.648
-2.750E-06,0.760
-2.740E-06,1.024
-2.730E-06,1.080
-2.720E-06,1.080
-2.710E-06,1.080
-2.700E-06,1.072
-2.690E-06,1.080
-2.680E-06,0.760
-2.670E-06,0.488
-2.660E-06,0.248
-2.650E-06,-0.024
-2.640E-06,-0.312
-2.630E-06,-0.624
-2.620E-06,-0.824
-2.610E-06,-0.904
-2.600E-06,-0.800
-2.590E-06,-0.512
-2.580E-06,-0.160
-2.570E-06,0.168
-2.560E-06,0.464
-2.550E-06,0.720
-2.540E-06,0.896
-2.530E-06,1.000
-2.520E-06,0.992
-2.510E-06,0.912
-2.500E-06,0.760
-2.490E-06,0.624
-2.480E-06,0.512
-2.470E-06,0.424
-2.460E-06,0.280
-2.450E-06,0.032
-2.440E-06,-0.264
-2.430E-06,-0.624
-2.420E-06,-0.904
-2.410E-06,-1.032
-2.400E-06,-1.032
-2.390E-06,-1.040
-2.380E-06,-1.040
-2.370E-06,-1.048
-2.360E-06,-1.040
-2.350E-06,-1.040
-2.340E-06,-1.040
-2.330E-06,-0.976
-2.320E-06,-0.648
-2.310E-06,-0.328
-2.300E-06,-0.040
-2.290E-06,0.224
-2.280E-06,0.448
-2.270E-06,0.696
-2.260E-06,0.880
-2.250E-06,1.000
-2.240E-06,1.056
-2.230E-06,1.000
-2.220E-06,0.904
-2.210E-06,0.744
-2.200E-06,0.592
-2.190E-06,0.456
-2.180E-06,0.336
-2.170E-06,0.240
-2.160E-06,0.120
-2.150E-06,0.016
-2.140E-06,-0.112
-2.130E-06,-0.224
-2.120E-06,-0.336
-2.110E-06,-0.424
-2.100E-06,-0.488
-2.090E-06,-0.560
-2.080E-06,-0.592
-2.070E-06,-0.568
-2.060E-06,-0.512
-2.050E-06,-0.400
-2.040E-06,-0.288
-2.030E-06,-0.160
-2.020E-06,-0.024
-2.010E-06,0.104
-2.000E-06,0.216
-1.990E-06,0.336
-1.980E-06,0.400
-1.970E-06,0.464
-1.960E-06,0.464
-1.950E-06,0.448
-1.940E-06,0.400
-1.930E-06,0.336
-1.920E-06,0.288
-1.910E-06,0.200
-1.900E-06,0.104
-1.890E-06,0.008
-1.880E-06,-0.040
-1.870E-06,-0.080
-1.860E-06,-0.040
-1.850E-06,-0.048
-1.840E-06,-0.048
-1.830E-06,-0.088
-1.820E-06,-0.168
-1.810E-06,-0.192
-1.800E-06,-0.224
-1.790E-06,-0.216
-1.780E-06,-0.160
-1.770E-06,-0.144
-1.760E-06,-0.128
-1.750E-06,-0.104
-1.740E-06,-0.104
-1.730E-06,-0.080
-1.720E-06,-0.048
-1.710E-06,-0.024
-1.700E-06,0.016
-1.690E-06,0.064
-1.680E-06,0.096
-1.670E-06,0.144
-1.660E-06,0.160
-1.650E-06,0.176
-1.640E-06,0.200
-1.630E-06,0.192
-1.620E-06,0.200
-1.610E-06,0.208
-1.600E-06,0.200
-1.590E-06,0.168
-1.580E-06,0.144
-1.570E-06,0.104
-1.560E-06,0.064
-1.550E-06,0.032
-1.540E-06,0.008
-1.530E-06,0.000
-1.520E-06,-0.008
-1.510E-06,-0.024
-1.500E-06,-0.056
-1.490E-06,-0.064
-1.480E-06,-0.080
-1.470E-06,-0.072
-1.460E-06,-0.064
-1.450E-06,-0.024
-1.440E-06,-0.024
-1.430E-06,0.000
-1.420E-06,0.016
-1.410E-06,0.016
-1.400E-06,0.056
-1.390E-06,0.080
-1.380E-06,0.120
-1.370E-06,0.160
-1.360E-06,0.208
-1.350E-06,0.232
-1.340E-06,0.272
-1.330E-06,0.256
-1.320E-06,0.248
-1.310E-06,0.192
-1.300E-06,0.160
-1.290E-06,0.104
-1.280E-06,0.080
-1.270E-06,0.056
-1.260E-06,0.040
-1.250E-06,-0.008
-1.240E-06,-0.032
-1.230E-06,-0.112
-1.220E-06,-0.272
-1.210E-06,-0.480
-1.200E-06,-0.752
-1.190E-06,-0.872
-1.180E-06,-0.832
-1.170E-06,-0.552
-1.160E-06,-0.104
-1.150E-06,0.296
-1.140E-06,0.576
-1.130E-06,0.720
-1.120E-06,0.736
-1.110E-06,0.728
-1.100E-06,0.800
-1.090E-06,0.896
-1.080E-06,1.024
-1.070E-06,1.072
-1.060E-06,1.072
-1.050E-06,1.000
-1.040E-06,0.880
-1.030E-06,0.736
-1.020E-06,0.608
-1.010E-06,0.472
-1.000E-06,0.336
-9.900E-07,0.200
-9.800E-07,0.104
-9.700E-07,0.032
-9.600E-07,-0.040
-9.500E-07,-0.120
-9.400E-07,-0.160
-9.300E-07,-0.168
-9.200E-07,-0.128
-9.100E-07,-0.064
-9.000E-07,0.024
-8.900E-07,0.096
-8.800E-07,0.208
-8.700E-07,0.216
-8.600E-07,0.288
-8.500E-07,0.360
-8.400E-07,0.296
-8.300E-07,0.248
-8.200E-07,0.168
-8.100E-07,0.016
-8.000E-07,0.000
-7.900E-07,0.048
-7.800E-07,0.312
-7.700E-07,0.368
-7.600E-07,0.424
-7.500E-07,0.104
-7.400E-07,-0.104
-7.300E-07,-0.248
-7.200E-07,-0.272
-7.100E-07,0.048
-7.000E-07,0.160
-6.900E-07,0.120
-6.800E-07,0.160
-6.700E-07,0.024
-6.600E-07,0.088
-6.500E-07,0.296
-6.400E-07,0.384
-6.300E-07,0.600
-6.200E-07,0.392
-6.100E-07,0.232
-6.000E-07,0.248
-5.900E-07,0.304
-5.800E-07,0.536
-5.700E-07,0.544
-5.600E-07,0.584
-5.500E-07,0.456
-5.400E-07,0.464
-5.300E-07,0.632
-5.200E-07,0.608
-5.100E-07,0.728
-5.000E-07,0.768
-4.900E-07,0.664
-4.800E-07,0.576
-4.700E-07,0.512
-4.600E-07,0.424
-4.500E-07,0.416
-4.400E-07,0.400
-4.300E-07,0.256
-4.200E-07,0.208
-4.100E-07,0.080
-4.000E-07,0.048
-3.900E-07,0.120
-3.800E-07,0.176
-3.700E-07,0.216
-3.600E-07,0.128
-3.500E-07,0.096
-3.400E-07,0.032
-3.300E-07,0.096
-3.200E-07,0.280
-3.100E-07,0.336
-3.000E-07,0.352
-2.900E-07,0.312
-2.800E-07,0.232
-2.700E-07,0.288
-2.600E-07,0.464
-2.500E-07,0.456
-2.400E-07,0.368
-2.300E-07,0.296
-2.200E-07,0.040
-2.100E-07,-0.024
-2.000E-07,0.016
-1.900E-07,0.056
-1.800E-07,0.200
-1.700E-07,0.344
-1.600E-07,0.320
-1.500E-07,0.216
-1.400E-07,0.120
-1.300E-07,0.208
-1.200E-07,0.264
-1.100E-07,0.488
-1.000E-07,0.696
-9.000E-08,0.680
-8.000E-08,0.840
-7.000E-08,0.576
-6.000E-08,0.600
-5.000E-08,0.496
-4.000E-08,0.208
-3.000E-08,0.088
-2.000E-08,-0.136
-1.000E-08,0.160
0.000E+00,0.688
1.000E-08,1.088
2.000E-08,1.088
3.000E-08,1.080
4.000E-08,1.088
5.000E-08,0.576
6.000E-08,-0.728
7.000E-08,-1.040
8.000E-08,0.576
9.000E-08,-0.912
1.000E-07,0.664
1.100E-07,1.080
1.200E-07,-0.208
1.300E-07,0.928
1.400E-07,0.208
1.500E-07,-0.368
1.600E-07,0.544
1.700E-07,0.008
1.800E-07,0.032
1.900E-07,0.664
2.000E-07,-0.152
2.100E-07,0.376
2.200E-07,0.200
2.300E-07,-0.296
2.400E-07,-0.120
2.500E-07,-0.064
2.600E-07,-0.080
2.700E-07,0.112
2.800E-07,0.240
2.900E-07,-0.144
3.000E-07,-0.072
3.100E-07,-0.232
3.200E-07,-0.232
3.300E-07,-0.208
3.400E-07,-0.016
3.500E-07,-0.088
3.600E-07,0.008
3.700E-07,0.024
3.800E-07,-0.112
3.900E-07,-0.096
4.000E-07,-0.152
4.100E-07,-0.200
4.200E-07,-0.208
4.300E-07,-0.128
4.400E-07,-0.056
4.500E-07,0.064
4.600E-07,0.112
4.700E-07,0.144
4.800E-07,0.064
4.900E-07,0.064
5.000E-07,0.096
5.100E-07,0.216
5.200E-07,0.288
5.300E-07,0.352
5.400E-07,0.384
5.500E-07,0.344
5.600E-07,0.320
5.700E-07,0.232
5.800E-07,0.136
5.900E-07,0.112
6.000E-07,0.024
6.100E-07,0.080
6.200E-07,0.128
6.300E-07,0.088
6.400E-07,0.104
6.500E-07,-0.016
6.600E-07,-0.040
6.700E-07,-0.112
6.800E-07,-0.208
6.900E-07,-0.152
7.000E-07,-0.176
7.100E-07,-0.056
7.200E-07,0.048
7.300E-07,0.112
7.400E-07,0.096
7.500E-07,0.016
7.600E-07,-0.016
7.700E-07,-0.096
7.800E-07,0.168
7.900E-07,0.184
8.000E-07,0.384
8.100E-07,0.464
8.200E-07,0.264
8.300E-07,0.392
8.400E-07,0.144
8.500E-07,0.168
8.600E-07,-0.056
8.700E-07,0.408
8.800E-07,-0.528
8.900E-07,-0.120
9.000E-07,-0.256
9.100E-07,0.088
9.200E-07,0.616
9.300E-07,1.016
9.400E-07,1.080
9.500E-07,1.080
9.600E-07,1.080
9.700E-07,0.656
9.800E-07,0.464
9.900E-07,0.912
1.000E-06,1.080
1.010E-06,0.976
1.020E-06,1.080
1.030E-06,0.528
1.040E-06,-0.304
1.050E-06,0.064
1.060E-06,-0.408
1.070E-06,-0.480
1.080E-06,-0.072
1.090E-06,-0.664
1.100E-06,-0.480
1.110E-06,0.152
1.120E-06,0.736
1.130E-06,1.080
1.140E-06,1.088
1.150E-06,1.080
1.160E-06,1.088
1.170E-06,0.696
1.180E-06,0.920
1.190E-06,0.592
1.200E-06,0.840
1.210E-06,0.512
1.220E-06,0.400
1.230E-06,0.184
1.240E-06,0.344
1.250E-06,0.184
1.260E-06,0.200
1.270E-06,-0.264
1.280E-06,-0.512
1.290E-06,-0.576
1.300E-06,-0.688
1.310E-06,-0.696
1.320E-06,-0.712
1.330E-06,-0.776
1.340E-06,-0.816
1.350E-06,-0.680
1.360E-06,-0.704
1.370E-06,-0.608
1.380E-06,-0.592
1.390E-06,-0.464
1.400E-06,-0.400
1.410E-06,-0.128
1.420E-06,-0.032
1.430E-06,-0.024
1.440E-06,0.128
1.450E-06,-0.008
1.460E-06,0.008
1.470E-06,0.016
1.480E-06,0.016
1.490E-06,0.016
1.500E-06,0.040
1.510E-06,-0.080
1.520E-06,-0.096
1.530E-06,-0.112
1.540E-06,-0.224
1.550E-06,-0.248
1.560E-06,-0.232
1.570E-06,-0.216
1.580E-06,-0.128
1.590E-06,-0.056
1.600E-06,0.008
1.610E-06,0.104
1.620E-06,0.160
1.630E-06,0.192
1.640E-06,0.344
1.650E-06,0.464
1.660E-06,0.600
1.670E-06,0.704
1.680E-06,0.696
1.690E-06,0.680
1.700E-06,0.696
1.710E-06,0.600
1.720E-06,0.544
1.730E-06,0.504
1.740E-06,0.320
1.750E-06,0.208
1.760E-06,0.080
1.770E-06,-0.032
1.780E-06,-0.056
1.790E-06,-0.032
1.800E-06,-0.136
1.810E-06,-0.176
1.820E-06,-0.200
1.830E-06,-0.200
1.840E-06,-0.192
1.850E-06,-0.088
1.860E-06,-0.056
1.870E-06,-0.008
1.880E-06,-0.008
1.890E-06,-0.008
1.900E-06,-0.032
1.910E-06,-0.016
1.920E-06,-0.064
1.930E-06,-0.096
1.940E-06,-0.136
1.950E-06,-0.240
1.960E-06,-0.288
1.970E-06,-0.328
1.980E-06,-0.368
1.990E-06,-0.408
2.000E-06,-0.464
2.010E-06,-0.504
2.020E-06,-0.496
2.030E-06,-0.512
2.040E-06,-0.520
2.050E-06,-0.520
2.060E-06,-0.520
2.070E-06,-0.520
2.080E-06,-0.512
2.090E-06,-0.528
2.100E-06,-0.536
2.110E-06,-0.520
2.120E-06,-0.520
2.130E-06,-0.488
2.140E-06,-0.472
2.150E-06,-0.432
2.160E-06,-0.408
2.170E-06,-0.408
2.180E-06,-0.400
2.190E-06,-0.400
2.200E-06,-0.400
2.210E-06,-0.384
2.220E-06,-0.384
2.230E-06,-0.392
2.240E-06,-0.424
2.250E-06,-0.464
2.260E-06,-0.480
2.270E-06,-0.504
2.280E-06,-0.504
2.290E-06,-0.496
2.300E-06,-0.488
2.310E-06,-0.464
2.320E-06,-0.456
2.330E-06,-0.432
2.340E-06,-0.400
2.350E-06,-0.384
2.360E-06,-0.360
2.370E-06,-0.344
2.380E-06,-0.336
2.390E-06,-0.320
2.400E-06,-0.328
2.410E-06,-0.328
2.420E-06,-0.336
2.430E-06,-0.320
2.440E-06,-0.320
2.450E-06,-0.328
2.460E-06,-0.328
2.470E-06,-0.320
2.480E-06,-0.336
2.490E-06,-0.336
2.500E-06,-0.336
2.510E-06,-0.336
2.520E-06,-0.352
2.530E-06,-0.368
2.540E-06,-0.384
2.550E-06,-0.408
2.560E-06,-0.416
2.570E-06,-0.440
2.580E-06,-0.440
2.590E-06,-0.448
2.600E-06,-0.440
2.610E-06,-0.440
2.620E-06,-0.440
2.630E-06,-0.432
2.640E-06,-0.416
2.650E-06,-0.432
2.660E-06,-0.448
2.670E-06,-0.472
2.680E-06,-0.472
2.690E-06,-0.488
2.700E-06,-0.488
2.710E-06,-0.504
2.720E-06,-0.520
2.730E-06,-0.528
2.740E-06,-0.544
2.750E-06,-0.552
2.760E-06,-0.576
2.770E-06,-0.608
2.780E-06,-0.648
2.790E-06,-0.672
2.800E-06,-0.744
2.810E-06,-0.832
2.820E-06,-0.952
2.830E-06,-1.040
2.840E-06,-1.032
2.850E-06,-1.032
2.860E-06,-1.040
2.870E-06,-1.048
2.880E-06,-1.032
2.890E-06,-1.040
2.900E-06,-1.040
2.910E-06,-1.048
2.920E-06,-1.040
2.930E-06,-1.032
2.940E-06,-1.040
2.950E-06,-1.048
2.960E-06,-1.032
2.970E-06,-1.040
2.980E-06,-1.048
2.990E-06,-1.040
3.000E-06,-1.032
3.010E-06,-1.040
3.020E-06,-1.040
3.030E-06,-1.048
3.040E-06,-1.040
3.050E-06,-1.040
3.060E-06,-1.040
3.070E-06,-1.048
3.080E-06,-1.040
3.090E-06,-1.032
3.100E-06,-1.040
3.110E-06,-0.984
3.120E-06,-0.888
3.130E-06,-0.800
3.140E-06,-0.736
3.150E-06,-0.664
3.160E-06,-0.608
3.170E-06,-0.560
3.180E-06,-0.528
3.190E-06,-0.512
3.200E-06,-0.504
3.210E-06,-0.496
3.220E-06,-0.496
3.230E-06,-0.488
3.240E-06,-0.488
3.250E-06,-0.488
3.260E-06,-0.464
3.270E-06,-0.480
3.280E-06,-0.488
3.290E-06,-0.496
3.300E-06,-0.496
3.310E-06,-0.496
3.320E-06,-0.496
3.330E-06,-0.488
3.340E-06,-0.504
3.350E-06,-0.496
3.360E-06,-0.496
3.370E-06,-0.496
3.380E-06,-0.504
3.390E-06,-0.504
3.400E-06,-0.496
3.410E-06,-0.496
3.420E-06,-0.496
3.430E-06,-0.488
3.440E-06,-0.464
3.450E-06,-0.456
3.460E-06,-0.416
3.470E-06,-0.400
3.480E-06,-0.368
3.490E-06,-0.352
3.500E-06,-0.336
3.510E-06,-0.304
3.520E-06,-0.272
3.530E-06,-0.248
3.540E-06,-0.216
3.550E-06,-0.208
3.560E-06,-0.160
3.570E-06,-0.152
3.580E-06,-0.136
3.590E-06,-0.112
3.600E-06,-0.088
3.610E-06,-0.088
3.620E-06,-0.064
3.630E-06,-0.072
3.640E-06,-0.064
3.650E-06,-0.032
3.660E-06,-0.040
3.670E-06,-0.032
3.680E-06,-0.040
3.690E-06,-0.040
3.700E-06,-0.040
3.710E-06,-0.056
3.720E-06,-0.056
3.730E-06,-0.056
3.740E-06,-0.064
3.750E-06,-0.064
3.760E-06,-0.088
3.770E-06,-0.112
3.780E-06,-0.112
3.790E-06,-0.136
3.800E-06,-0.144
3.810E-06,-0.160
3.820E-06,-0.160
3.830E-06,-0.168
3.840E-06,-0.152
3.850E-06,-0.144
3.860E-06,-0.136
3.870E-06,-0.120
3.880E-06,-0.104
3.890E-06,-0.120
3.900E-06,-0.136
3.910E-06,-0.128
3.920E-06,-0.144
3.930E-06,-0.128
3.940E-06,-0.144
3.950E-06,-0.160
3.960E-06,-0.168
3.970E-06,-0.168
3.980E-06,-0.176
3.990E-06,-0.168
4.000E-06,-0.168
4.010E-06,-0.160
4.020E-06,-0.152
4.030E-06,-0.152
4.040E-06,-0.144
4.050E-06,-0.136
4.060E-06,-0.136
4.070E-06,-0.120
4.080E-06,-0.112
4.090E-06,-0.096
4.100E-06,-0.096
4.110E-06,-0.088
4.120E-06,-0.080
4.130E-06,-0.080
4.140E-06,-0.072
4.150E-06,-0.064
4.160E-06,-0.088
4.170E-06,-0.088
4.180E-06,-0.096
4.190E-06,-0.088
4.200E-06,-0.088
4.210E-06,-0.104
4.220E-06,-0.112
4.230E-06,-0.128
4.240E-06,-0.128
4.250E-06,-0.128
4.260E-06,-0.128
4.270E-06,-0.128
4.280E-06,-0.120
4.290E-06,-0.120
4.300E-06,-0.136
4.310E-06,-0.136
4.320E-06,-0.144
4.330E-06,-0.128
4.340E-06,-0.144
4.350E-06,-0.136
4.360E-06,-0.152
4.370E-06,-0.160
4.380E-06,-0.144
4.390E-06,-0.136
4.400E-06,-0.136
4.410E-06,-0.112
4.420E-06,-0.104
4.430E-06,-0.088
4.440E-06,-0.064
4.450E-06,-0.040
4.460E-06,-0.024
4.470E-06,-0.008
4.480E-06,0.008
4.490E-06,0.016
4.500E-06,0.032
4.510E-06,0.032
4.520E-06,0.040
4.530E-06,0.048
4.540E-06,0.056
4.550E-06,0.048
4.560E-06,0.056
4.570E-06,0.048
4.580E-06,0.040
4.590E-06,0.032
4.600E-06,0.024
4.610E-06,-0.008
4.620E-06,-0.008
4.630E-06,-0.040
4.640E-06,-0.064
4.650E-06,-0.112
4.660E-06,-0.152
4.670E-06,-0.200
4.680E-06,-0.240
4.690E-06,-0.312
4.700E-06,-0.360
4.710E-06,-0.424
4.720E-06,-0.496
4.730E-06,-0.544
4.740E-06,-0.600
4.750E-06,-0.632
4.760E-06,-0.672
4.770E-06,-0.696
4.780E-06,-0.696
4.790E-06,-0.688
4.800E-06,-0.656
4.810E-06,-0.608
4.820E-06,-0.544
4.830E-06,-0.472
4.840E-06,-0.400
4.850E-06,-0.344
4.860E-06,-0.296
4.870E-06,-0.264
4.880E-06,-0.224
4.890E-06,-0.200
4.900E-06,-0.160
4.910E-06,-0.104
4.920E-06,-0.032
4.930E-06,0.024
4.940E-06,0.128
4.950E-06,0.200
4.960E-06,0.264
4.970E-06,0.320
4.980E-06,0.368
4.990E-06,0.384
5.000E-06,0.400
5.010E-06,0.400
5.020E-06,0.408
5.030E-06,0.408
5.040E-06,0.408
5.050E-06,0.400
5.060E-06,0.384
5.070E-06,0.384
5.080E-06,0.392
5.090E-06,0.392
5.100E-06,0.408
5.110E-06,0.416
5.120E-06,0.424
5.130E-06,0.424
5.140E-06,0.416
5.150E-06,0.400
5.160E-06,0.400
5.170E-06,0.400
5.180E-06,0.400
5.190E-06,0.416
5.200E-06,0.416
5.210E-06,0.400
5.220E-06,0.400
5.230E-06,0.384
5.240E-06,0.376
5.250E-06,0.360
5.260E-06,0.328
5.270E-06,0.336
5.280E-06,0.336
5.290E-06,0.344
5.300E-06,0.352
5.310E-06,0.360
5.320E-06,0.352
5.330E-06,0.352
5.340E-06,0.336
5.350E-06,0.312
5.360E-06,0.296
5.370E-06,0.288
5.380E-06,0.264
5.390E-06,0.240
5.400E-06,0.216
5.410E-06,0.192
5.420E-06,0.160
5.430E-06,0.120
5.440E-06,0.064
5.450E-06,0.008
5.460E-06,-0.048
5.470E-06,-0.104
5.480E-06,-0.152
5.490E-06,-0.224
5.500E-06,-0.256
5.510E-06,-0.280
5.520E-06,-0.296
5.530E-06,-0.312
5.540E-06,-0.312
5.550E-06,-0.304
5.560E-06,-0.296
5.570E-06,-0.296
5.580E-06,-0.288
5.590E-06,-0.264
5.600E-06,-0.264
5.610E-06,-0.232
5.620E-06,-0.216
5.630E-06,-0.168
5.640E-06,-0.136
5.650E-06,-0.112
5.660E-06,-0.096
5.670E-06,-0.072
5.680E-06,-0.032
5.690E-06,-0.008
5.700E-06,0.024
5.710E-06,0.072
5.720E-06,0.104
5.730E-06,0.128
5.740E-06,0.168
5.750E-06,0.208
5.760E-06,0.224
5.770E-06,0.232
5.780E-06,0.264
5.790E-06,0.280
5.800E-06,0.288
5.810E-06,0.280
5.820E-06,0.288
5.830E-06,0.280
5.840E-06,0.280
5.850E-06,0.296
5.860E-06,0.312
5.870E-06,0.336
5.880E-06,0.360
5.890E-06,0.376
5.900E-06,0.392
5.910E-06,0.392
5.920E-06,0.392
5.930E-06,0.384
5.940E-06,0.368
5.950E-06,0.352
5.960E-06,0.344
5.970E-06,0.328
5.980E-06,0.312
5.990E-06,0.312
6.000E-06,0.296
6.010E-06,0.304
6.020E-06,0.296
6.030E-06,0.296
6.040E-06,0.304
6.050E-06,0.288
6.060E-06,0.280
6.070E-06,0.280
6.080E-06,0.280
6.090E-06,0.288
6.100E-06,0.280
6.110E-06,0.304
6.120E-06,0.304
6.130E-06,0.320
6.140E-06,0.304
6.150E-06,0.280
6.160E-06,0.256
6.170E-06,0.224
6.180E-06,0.184
6.190E-06,0.168
6.200E-06,0.144
6.210E-06,0.128
6.220E-06,0.128
6.230E-06,0.128
6.240E-06,0.136
6.250E-06,0.168
6.260E-06,0.208
6.270E-06,0.224
6.280E-06,0.280
6.290E-06,0.312
6.300E-06,0.344
6.310E-06,0.368
6.320E-06,0.384
6.330E-06,0.416
6.340E-06,0.448
6.350E-06,0.488
6.360E-06,0.544
6.370E-06,0.584
6.380E-06,0.640
6.390E-06,0.656
6.400E-06,0.696
6.410E-06,0.744
6.420E-06,0.792
6.430E-06,0.824
6.440E-06,0.864
6.450E-06,0.920
6.460E-06,0.992
6.470E-06,1.080
6.480E-06,1.088
6.490E-06,1.080
6.500E-06,1.080
6.510E-06,1.080
6.520E-06,1.080
6.530E-06,1.080
6.540E-06,1.088
6.550E-06,1.088
6.560E-06,1.080
6.570E-06,1.088
6.580E-06,1.088
6.590E-06,1.080
6.600E-06,1.088
6.610E-06,1.080
6.620E-06,1.080
6.630E-06,1.088
6.640E-06,1.088
6.650E-06,1.080
6.660E-06,1.088
6.670E-06,1.080
6.680E-06,1.088
6.690E-06,1.080
6.700E-06,1.064
6.710E-06,0.920
6.720E-06,0.856
6.730E-06,0.808
6.740E-06,0.752
6.750E-06,0.720
6.760E-06,0.568
6.770E-06,0.528
6.780E-06,0.488
6.790E-06,0.432
6.800E-06,0.392
6.810E-06,0.368
6.820E-06,0.352
6.830E-06,0.352
6.840E-06,0.360
6.850E-06,0.368
6.860E-06,0.376
6.870E-06,0.360
6.880E-06,0.368
6.890E-06,0.376
6.900E-06,0.384
6.910E-06,0.392
6.920E-06,0.392
6.930E-06,0.400
6.940E-06,0.392
6.950E-06,0.368
6.960E-06,0.368
6.970E-06,0.360
6.980E-06,0.344
6.990E-06,0.328
7.000E-06,0.320
7.010E-06,0.296
7.020E-06,0.296
7.030E-06,0.280
7.040E-06,0.272
7.050E-06,0.280
7.060E-06,0.296
7.070E-06,0.304
7.080E-06,0.312
7.090E-06,0.312
7.100E-06,0.320
7.110E-06,0.328
7.120E-06,0.328
7.130E-06,0.328
7.140E-06,0.336
7.150E-06,0.312
7.160E-06,0.304
7.170E-06,0.296
7.180E-06,0.288
7.190E-06,0.272
7.200E-06,0.272
7.210E-06,0.256
7.220E-06,0.248
7.230E-06,0.248
7.240E-06,0.224
7.250E-06,0.208
7.260E-06,0.216
7.270E-06,0.208
7.280E-06,0.200
7.290E-06,0.200
7.300E-06,0.184
7.310E-06,0.168
7.320E-06,0.160
7.330E-06,0.144
7.340E-06,0.120
7.350E-06,0.112
7.360E-06,0.128
7.370E-06,0.120
7.380E-06,0.112
7.390E-06,0.096
7.400E-06,0.064
7.410E-06,0.048
7.420E-06,0.048
7.430E-06,0.048
7.440E-06,0.064
7.450E-06,0.064
7.460E-06,0.072
7.470E-06,0.048
7.480E-06,0.032
7.490E-06,0.040
7.500E-06,0.040
7.510E-06,0.048
7.520E-06,0.048
7.530E-06,0.032
7.540E-06,0.016
7.550E-06,0.000
7.560E-06,0.000
7.570E-06,0.008
7.580E-06,0.008
7.590E-06,-0.008
7.600E-06,-0.008
7.610E-06,-0.024
