mediciones/Mediciones filtradas (saque las feas)/6-10/35/WaveData5527.csv

#timebase=2000000(ps)
,#voltbase=500000(mv/100)
#size=4000
-4.250E-06,-1.520
-4.240E-06,-1.080
-4.230E-06,-0.720
-4.220E-06,-0.240
-4.210E-06,-0.200
-4.200E-06,-0.080
-4.190E-06,0.080
-4.180E-06,0.060
-4.170E-06,0.220
-4.160E-06,0.240
-4.150E-06,0.160
-4.140E-06,0.140
-4.130E-06,0.260
-4.120E-06,0.360
-4.110E-06,0.680
-4.100E-06,0.900
-4.090E-06,0.980
-4.080E-06,0.940
-4.070E-06,0.900
-4.060E-06,0.700
-4.050E-06,0.560
-4.040E-06,0.440
-4.030E-06,0.240
-4.020E-06,0.000
-4.010E-06,-0.220
-4.000E-06,-0.400
-3.990E-06,-0.500
-3.980E-06,-0.520
-3.970E-06,-0.420
-3.960E-06,-0.240
-3.950E-06,-0.020
-3.940E-06,0.180
-3.930E-06,0.400
-3.920E-06,0.520
-3.910E-06,0.560
-3.900E-06,0.600
-3.890E-06,0.580
-3.880E-06,0.500
-3.870E-06,0.440
-3.860E-06,0.320
-3.850E-06,0.320
-3.840E-06,0.240
-3.830E-06,0.160
-3.820E-06,0.080
-3.810E-06,-0.120
-3.800E-06,-0.220
-3.790E-06,-0.340
-3.780E-06,-0.500
-3.770E-06,-0.580
-3.760E-06,-0.660
-3.750E-06,-0.720
-3.740E-06,-0.780
-3.730E-06,-0.780
-3.720E-06,-0.740
-3.710E-06,-0.660
-3.700E-06,-0.560
-3.690E-06,-0.420
-3.680E-06,-0.220
-3.670E-06,-0.040
-3.660E-06,0.100
-3.650E-06,0.300
-3.640E-06,0.420
-3.630E-06,0.520
-3.620E-06,0.580
-3.610E-06,0.660
-3.600E-06,0.600
-3.590E-06,0.560
-3.580E-06,0.500
-3.570E-06,0.420
-3.560E-06,0.360
-3.550E-06,0.240
-3.540E-06,0.160
-3.530E-06,0.100
-3.520E-06,0.080
-3.510E-06,0.000
-3.500E-06,-0.020
-3.490E-06,-0.040
-3.480E-06,-0.140
-3.470E-06,-0.120
-3.460E-06,-0.180
-3.450E-06,-0.180
-3.440E-06,-0.180
-3.430E-06,-0.180
-3.420E-06,-0.140
-3.410E-06,-0.120
-3.400E-06,-0.060
-3.390E-06,0.000
-3.380E-06,0.120
-3.370E-06,0.160
-3.360E-06,0.200
-3.350E-06,0.240
-3.340E-06,0.240
-3.330E-06,0.260
-3.320E-06,0.260
-3.310E-06,0.220
-3.300E-06,0.200
-3.290E-06,0.180
-3.280E-06,0.160
-3.270E-06,0.140
-3.260E-06,0.160
-3.250E-06,0.060
-3.240E-06,0.080
-3.230E-06,0.000
-3.220E-06,-0.020
-3.210E-06,0.000
-3.200E-06,0.000
-3.190E-06,0.000
-3.180E-06,0.000
-3.170E-06,0.000
-3.160E-06,-0.040
-3.150E-06,0.000
-3.140E-06,-0.040
-3.130E-06,-0.020
-3.120E-06,-0.020
-3.110E-06,0.000
-3.100E-06,0.020
-3.090E-06,0.040
-3.080E-06,0.040
-3.070E-06,0.080
-3.060E-06,0.100
-3.050E-06,0.120
-3.040E-06,0.100
-3.030E-06,0.120
-3.020E-06,0.120
-3.010E-06,0.120
-3.000E-06,0.140
-2.990E-06,0.120
-2.980E-06,0.120
-2.970E-06,0.100
-2.960E-06,0.100
-2.950E-06,0.080
-2.940E-06,0.080
-2.930E-06,0.080
-2.920E-06,0.040
-2.910E-06,0.060
-2.900E-06,0.020
-2.890E-06,0.040
-2.880E-06,0.040
-2.870E-06,0.020
-2.860E-06,0.060
-2.850E-06,0.060
-2.840E-06,0.080
-2.830E-06,0.020
-2.820E-06,0.020
-2.810E-06,0.020
-2.800E-06,0.020
-2.790E-06,0.080
-2.780E-06,0.080
-2.770E-06,0.160
-2.760E-06,0.140
-2.750E-06,0.160
-2.740E-06,0.160
-2.730E-06,0.140
-2.720E-06,0.180
-2.710E-06,0.200
-2.700E-06,0.160
-2.690E-06,0.180
-2.680E-06,0.160
-2.670E-06,0.100
-2.660E-06,0.080
-2.650E-06,0.100
-2.640E-06,0.120
-2.630E-06,0.080
-2.620E-06,0.040
-2.610E-06,0.040
-2.600E-06,0.020
-2.590E-06,0.020
-2.580E-06,0.060
-2.570E-06,0.100
-2.560E-06,0.100
-2.550E-06,0.140
-2.540E-06,0.140
-2.530E-06,0.160
-2.520E-06,0.160
-2.510E-06,0.160
-2.500E-06,0.200
-2.490E-06,0.260
-2.480E-06,0.260
-2.470E-06,0.300
-2.460E-06,0.300
-2.450E-06,0.260
-2.440E-06,0.220
-2.430E-06,0.220
-2.420E-06,0.240
-2.410E-06,0.220
-2.400E-06,0.260
-2.390E-06,0.220
-2.380E-06,0.180
-2.370E-06,0.140
-2.360E-06,0.060
-2.350E-06,0.080
-2.340E-06,0.080
-2.330E-06,0.080
-2.320E-06,0.080
-2.310E-06,0.140
-2.300E-06,0.060
-2.290E-06,0.040
-2.280E-06,0.100
-2.270E-06,0.080
-2.260E-06,0.180
-2.250E-06,0.160
-2.240E-06,0.140
-2.230E-06,0.180
-2.220E-06,0.260
-2.210E-06,0.460
-2.200E-06,-0.120
-2.190E-06,0.180
-2.180E-06,-0.240
-2.170E-06,0.260
-2.160E-06,0.300
-2.150E-06,0.560
-2.140E-06,0.900
-2.130E-06,0.100
-2.120E-06,-0.360
-2.110E-06,-1.380
-2.100E-06,-1.940
-2.090E-06,-2.140
-2.080E-06,-1.940
-2.070E-06,-1.240
-2.060E-06,-0.560
-2.050E-06,0.180
-2.040E-06,0.600
-2.030E-06,0.840
-2.020E-06,0.920
-2.010E-06,1.140
-2.000E-06,1.380
-1.990E-06,1.860
-1.980E-06,2.200
-1.970E-06,2.460
-1.960E-06,2.340
-1.950E-06,1.840
-1.940E-06,1.500
-1.930E-06,1.020
-1.920E-06,0.800
-1.910E-06,0.840
-1.900E-06,0.480
-1.890E-06,0.240
-1.880E-06,-0.180
-1.870E-06,-0.720
-1.860E-06,-1.000
-1.850E-06,-1.200
-1.840E-06,-1.240
-1.830E-06,-1.260
-1.820E-06,-1.200
-1.810E-06,-1.180
-1.800E-06,-1.020
-1.790E-06,-0.800
-1.780E-06,-0.600
-1.770E-06,-0.240
-1.760E-06,0.060
-1.750E-06,0.240
-1.740E-06,0.480
-1.730E-06,0.560
-1.720E-06,0.880
-1.710E-06,1.080
-1.700E-06,1.160
-1.690E-06,1.280
-1.680E-06,0.940
-1.670E-06,0.600
-1.660E-06,0.280
-1.650E-06,-0.120
-1.640E-06,-0.260
-1.630E-06,-0.260
-1.620E-06,-0.380
-1.610E-06,-0.420
-1.600E-06,-0.700
-1.590E-06,-0.880
-1.580E-06,-0.900
-1.570E-06,-0.720
-1.560E-06,-0.420
-1.550E-06,-0.100
-1.540E-06,0.120
-1.530E-06,0.240
-1.520E-06,0.400
-1.510E-06,0.560
-1.500E-06,0.860
-1.490E-06,1.200
-1.480E-06,1.360
-1.470E-06,1.480
-1.460E-06,1.500
-1.450E-06,1.420
-1.440E-06,1.380
-1.430E-06,1.280
-1.420E-06,1.180
-1.410E-06,1.000
-1.400E-06,0.760
-1.390E-06,0.500
-1.380E-06,0.200
-1.370E-06,-0.080
-1.360E-06,-0.240
-1.350E-06,-0.380
-1.340E-06,-0.520
-1.330E-06,-0.680
-1.320E-06,-0.700
-1.310E-06,-0.760
-1.300E-06,-0.680
-1.290E-06,-0.560
-1.280E-06,-0.400
-1.270E-06,-0.220
-1.260E-06,-0.040
-1.250E-06,0.140
-1.240E-06,0.340
-1.230E-06,0.480
-1.220E-06,0.640
-1.210E-06,0.780
-1.200E-06,0.820
-1.190E-06,0.820
-1.180E-06,0.840
-1.170E-06,0.780
-1.160E-06,0.780
-1.150E-06,0.720
-1.140E-06,0.640
-1.130E-06,0.540
-1.120E-06,0.380
-1.110E-06,0.240
-1.100E-06,0.100
-1.090E-06,0.040
-1.080E-06,-0.020
-1.070E-06,-0.020
-1.060E-06,-0.080
-1.050E-06,-0.180
-1.040E-06,-0.080
-1.030E-06,-0.100
-1.020E-06,-0.060
-1.010E-06,-0.020
-1.000E-06,0.120
-9.900E-07,0.220
-9.800E-07,0.360
-9.700E-07,0.380
-9.600E-07,0.440
-9.500E-07,0.340
-9.400E-07,0.480
-9.300E-07,0.540
-9.200E-07,0.600
-9.100E-07,0.760
-9.000E-07,0.700
-8.900E-07,0.740
-8.800E-07,0.640
-8.700E-07,0.560
-8.600E-07,0.600
-8.500E-07,0.360
-8.400E-07,0.380
-8.300E-07,0.360
-8.200E-07,0.220
-8.100E-07,0.260
-8.000E-07,0.160
-7.900E-07,0.140
-7.800E-07,0.140
-7.700E-07,0.140
-7.600E-07,0.160
-7.500E-07,0.160
-7.400E-07,0.180
-7.300E-07,0.100
-7.200E-07,0.180
-7.100E-07,0.100
-7.000E-07,0.100
-6.900E-07,0.080
-6.800E-07,0.060
-6.700E-07,0.100
-6.600E-07,0.100
-6.500E-07,0.100
-6.400E-07,0.120
-6.300E-07,0.100
-6.200E-07,0.060
-6.100E-07,0.100
-6.000E-07,0.100
-5.900E-07,0.100
-5.800E-07,0.100
-5.700E-07,0.100
-5.600E-07,0.120
-5.500E-07,0.100
-5.400E-07,0.100
-5.300E-07,0.020
-5.200E-07,-0.020
-5.100E-07,-0.020
-5.000E-07,-0.040
-4.900E-07,-0.020
-4.800E-07,-0.020
-4.700E-07,0.000
-4.600E-07,-0.020
-4.500E-07,0.020
-4.400E-07,0.020
-4.300E-07,0.020
-4.200E-07,0.000
-4.100E-07,-0.020
-4.000E-07,-0.020
-3.900E-07,0.060
-3.800E-07,0.160
-3.700E-07,0.280
-3.600E-07,0.320
-3.500E-07,0.280
-3.400E-07,0.280
-3.300E-07,0.260
-3.200E-07,0.260
-3.100E-07,0.300
-3.000E-07,0.240
-2.900E-07,0.260
-2.800E-07,0.200
-2.700E-07,0.200
-2.600E-07,0.200
-2.500E-07,0.220
-2.400E-07,0.200
-2.300E-07,0.080
-2.200E-07,0.020
-2.100E-07,0.000
-2.000E-07,-0.100
-1.900E-07,0.040
-1.800E-07,0.360
-1.700E-07,0.080
-1.600E-07,0.440
-1.500E-07,0.160
-1.400E-07,0.260
-1.300E-07,0.520
-1.200E-07,0.180
-1.100E-07,0.740
-1.000E-07,0.680
-9.000E-08,0.860
-8.000E-08,0.980
-7.000E-08,0.720
-6.000E-08,0.480
-5.000E-08,0.780
-4.000E-08,1.000
-3.000E-08,1.220
-2.000E-08,-1.040
-1.000E-08,-0.820
0.000E+00,-2.400
1.000E-08,-1.500
2.000E-08,-1.100
3.000E-08,1.440
4.000E-08,2.780
5.000E-08,1.160
6.000E-08,0.940
7.000E-08,-0.660
8.000E-08,0.020
9.000E-08,0.960
1.000E-07,1.320
1.100E-07,1.420
1.200E-07,0.540
1.300E-07,0.060
1.400E-07,0.540
1.500E-07,0.600
1.600E-07,1.080
1.700E-07,0.560
1.800E-07,-0.140
1.900E-07,-0.820
2.000E-07,-1.000
2.100E-07,-0.700
2.200E-07,-0.180
2.300E-07,0.220
2.400E-07,-0.100
2.500E-07,-0.560
2.600E-07,-0.780
2.700E-07,-0.580
2.800E-07,-0.020
2.900E-07,0.380
3.000E-07,0.720
3.100E-07,0.800
3.200E-07,0.740
3.300E-07,0.920
3.400E-07,0.840
3.500E-07,1.020
3.600E-07,1.160
3.700E-07,1.360
3.800E-07,1.320
3.900E-07,1.680
4.000E-07,1.240
4.100E-07,0.920
4.200E-07,1.740
4.300E-07,-1.100
4.400E-07,-2.200
4.500E-07,-0.320
4.600E-07,-2.000
4.700E-07,1.060
4.800E-07,1.920
4.900E-07,0.820
5.000E-07,2.120
5.100E-07,-0.400
5.200E-07,-1.620
5.300E-07,-0.760
5.400E-07,-0.740
5.500E-07,0.020
5.600E-07,1.280
5.700E-07,0.680
5.800E-07,1.280
5.900E-07,1.020
6.000E-07,0.120
6.100E-07,0.340
6.200E-07,0.280
6.300E-07,0.060
6.400E-07,0.580
6.500E-07,0.240
6.600E-07,0.160
6.700E-07,-0.120
6.800E-07,-0.700
6.900E-07,-0.400
7.000E-07,-0.760
7.100E-07,-0.400
7.200E-07,-0.320
7.300E-07,-0.320
7.400E-07,-0.240
7.500E-07,-0.100
7.600E-07,-0.160
7.700E-07,-0.040
7.800E-07,0.100
7.900E-07,-0.280
8.000E-07,-0.140
8.100E-07,-0.160
8.200E-07,0.180
8.300E-07,1.440
8.400E-07,0.860
8.500E-07,0.800
8.600E-07,0.520
8.700E-07,-1.460
8.800E-07,-0.840
8.900E-07,-0.260
9.000E-07,0.260
9.100E-07,1.700
9.200E-07,0.840
9.300E-07,-0.020
9.400E-07,-0.820
9.500E-07,-1.560
9.600E-07,-0.940
9.700E-07,-0.240
9.800E-07,0.260
9.900E-07,0.420
1.000E-06,0.380
1.010E-06,0.180
1.020E-06,-0.080
1.030E-06,0.020
1.040E-06,0.160
1.050E-06,-0.240
1.060E-06,0.240
1.070E-06,-0.360
1.080E-06,-0.860
1.090E-06,-0.660
1.100E-06,-1.640
1.110E-06,-1.420
1.120E-06,-1.780
1.130E-06,-2.040
1.140E-06,-1.700
1.150E-06,-1.940
1.160E-06,-1.840
1.170E-06,-2.000
1.180E-06,-2.340
1.190E-06,-2.600
1.200E-06,-2.660
1.210E-06,-2.660
1.220E-06,-2.640
1.230E-06,-2.580
1.240E-06,-2.360
1.250E-06,-2.180
1.260E-06,-2.040
1.270E-06,-2.100
1.280E-06,-2.100
1.290E-06,-2.160
1.300E-06,-2.100
1.310E-06,-2.020
1.320E-06,-1.940
1.330E-06,-1.980
1.340E-06,-1.880
1.350E-06,-1.820
1.360E-06,-1.920
1.370E-06,-1.540
1.380E-06,-1.600
1.390E-06,-1.480
1.400E-06,-1.380
1.410E-06,-1.640
1.420E-06,-1.680
1.430E-06,-1.520
1.440E-06,-1.560
1.450E-06,-1.060
1.460E-06,-0.880
1.470E-06,-0.720
1.480E-06,-0.700
1.490E-06,-0.680
1.500E-06,-0.500
1.510E-06,-0.720
1.520E-06,-0.140
1.530E-06,-0.320
1.540E-06,-0.340
1.550E-06,-0.060
1.560E-06,-0.480
1.570E-06,-0.160
1.580E-06,-0.320
1.590E-06,-0.320
1.600E-06,-0.240
1.610E-06,-0.300
1.620E-06,-0.280
1.630E-06,-0.220
1.640E-06,-0.280
1.650E-06,-0.280
1.660E-06,-0.100
1.670E-06,-0.340
1.680E-06,-0.300
1.690E-06,-0.400
1.700E-06,-0.240
1.710E-06,-0.160
1.720E-06,0.160
1.730E-06,0.340
1.740E-06,0.500
1.750E-06,0.500
1.760E-06,0.260
1.770E-06,0.080
1.780E-06,-0.240
1.790E-06,-0.500
1.800E-06,-0.460
1.810E-06,-0.040
1.820E-06,0.180
1.830E-06,0.780
1.840E-06,0.840
1.850E-06,0.680
1.860E-06,0.760
1.870E-06,0.080
1.880E-06,0.260
1.890E-06,0.100
1.900E-06,0.160
1.910E-06,0.660
1.920E-06,0.800
1.930E-06,0.720
1.940E-06,0.880
1.950E-06,0.500
1.960E-06,0.480
1.970E-06,0.640
1.980E-06,0.580
1.990E-06,0.760
2.000E-06,0.800
2.010E-06,0.920
2.020E-06,0.860
2.030E-06,0.960
2.040E-06,0.820
2.050E-06,0.700
2.060E-06,0.680
2.070E-06,0.580
2.080E-06,0.700
2.090E-06,0.800
2.100E-06,0.680
2.110E-06,0.540
2.120E-06,0.320
2.130E-06,0.120
2.140E-06,0.060
2.150E-06,0.020
2.160E-06,0.000
2.170E-06,0.100
2.180E-06,0.040
2.190E-06,-0.020
2.200E-06,0.200
2.210E-06,-0.180
2.220E-06,-0.160
2.230E-06,-0.180
2.240E-06,0.000
2.250E-06,0.240
2.260E-06,0.640
2.270E-06,1.040
2.280E-06,0.960
2.290E-06,0.820
2.300E-06,0.460
2.310E-06,0.200
2.320E-06,0.340
2.330E-06,0.460
2.340E-06,0.780
2.350E-06,1.040
2.360E-06,1.000
2.370E-06,0.920
2.380E-06,0.660
2.390E-06,0.500
2.400E-06,0.480
2.410E-06,0.500
2.420E-06,0.480
2.430E-06,0.560
2.440E-06,0.480
2.450E-06,0.320
2.460E-06,0.260
2.470E-06,0.020
2.480E-06,-0.140
2.490E-06,-0.160
2.500E-06,-0.260
2.510E-06,-0.180
2.520E-06,-0.080
2.530E-06,-0.100
2.540E-06,-0.120
2.550E-06,-0.220
2.560E-06,-0.300
2.570E-06,-0.340
2.580E-06,-0.400
2.590E-06,-0.360
2.600E-06,-0.320
2.610E-06,-0.360
2.620E-06,-0.320
2.630E-06,-0.320
2.640E-06,-0.140
2.650E-06,0.240
2.660E-06,0.360
2.670E-06,0.480
2.680E-06,0.320
2.690E-06,0.000
2.700E-06,0.040
2.710E-06,-0.060
2.720E-06,0.120
2.730E-06,0.500
2.740E-06,0.680
2.750E-06,1.040
2.760E-06,1.020
2.770E-06,1.080
2.780E-06,0.660
2.790E-06,-0.240
2.800E-06,-0.560
2.810E-06,-0.700
2.820E-06,-0.520
2.830E-06,0.460
2.840E-06,0.660
2.850E-06,1.460
2.860E-06,0.860
2.870E-06,0.000
2.880E-06,0.380
2.890E-06,0.200
2.900E-06,0.940
2.910E-06,1.460
2.920E-06,1.680
2.930E-06,1.780
2.940E-06,1.740
2.950E-06,1.140
2.960E-06,1.120
2.970E-06,0.600
2.980E-06,0.240
2.990E-06,0.100
3.000E-06,-0.120
3.010E-06,-0.320
3.020E-06,-0.700
3.030E-06,-1.280
3.040E-06,-2.020
3.050E-06,-2.660
3.060E-06,-2.660
3.070E-06,-2.680
3.080E-06,-2.680
3.090E-06,-2.680
3.100E-06,-2.680
3.110E-06,-2.680
3.120E-06,-2.660
3.130E-06,-2.660
3.140E-06,-2.660
3.150E-06,-2.660
3.160E-06,-2.660
3.170E-06,-2.660
3.180E-06,-2.660
3.190E-06,-2.660
3.200E-06,-2.680
3.210E-06,-2.660
3.220E-06,-2.620
3.230E-06,-2.300
3.240E-06,-1.960
3.250E-06,-1.700
3.260E-06,-1.360
3.270E-06,-1.180
3.280E-06,-1.040
3.290E-06,-0.880
3.300E-06,-0.840
3.310E-06,-0.840
3.320E-06,-0.800
3.330E-06,-0.740
3.340E-06,-0.660
3.350E-06,-0.580
3.360E-06,-0.480
3.370E-06,-0.360
3.380E-06,-0.280
3.390E-06,-0.180
3.400E-06,-0.200
3.410E-06,-0.220
3.420E-06,-0.160
3.430E-06,-0.060
3.440E-06,-0.040
3.450E-06,-0.060
3.460E-06,-0.080
3.470E-06,-0.180
3.480E-06,-0.220
3.490E-06,-0.260
3.500E-06,-0.320
3.510E-06,-0.320
3.520E-06,-0.340
3.530E-06,-0.400
3.540E-06,-0.380
3.550E-06,-0.360
3.560E-06,-0.380
3.570E-06,-0.320
3.580E-06,-0.280
3.590E-06,-0.240
3.600E-06,-0.140
3.610E-06,-0.060
3.620E-06,0.000
3.630E-06,0.140
3.640E-06,0.240
3.650E-06,0.300
3.660E-06,0.360
3.670E-06,0.420
3.680E-06,0.420
3.690E-06,0.380
3.700E-06,0.340
3.710E-06,0.320
3.720E-06,0.240
3.730E-06,0.160
3.740E-06,0.120
3.750E-06,0.000
3.760E-06,-0.040
3.770E-06,-0.140
3.780E-06,-0.180
3.790E-06,-0.240
3.800E-06,-0.260
3.810E-06,-0.280
3.820E-06,-0.280
3.830E-06,-0.240
3.840E-06,-0.160
3.850E-06,-0.140
3.860E-06,-0.040
3.870E-06,0.040
3.880E-06,0.160
3.890E-06,0.220
3.900E-06,0.320
3.910E-06,0.360
3.920E-06,0.420
3.930E-06,0.480
3.940E-06,0.540
3.950E-06,0.640
3.960E-06,0.680
3.970E-06,0.680
3.980E-06,0.740
3.990E-06,0.700
4.000E-06,0.640
4.010E-06,0.600
4.020E-06,0.500
4.030E-06,0.440
4.040E-06,0.380
4.050E-06,0.300
4.060E-06,0.260
4.070E-06,0.280
4.080E-06,0.260
4.090E-06,0.260
4.100E-06,0.260
4.110E-06,0.220
4.120E-06,0.260
4.130E-06,0.280
4.140E-06,0.340
4.150E-06,0.340
4.160E-06,0.260
4.170E-06,0.240
4.180E-06,0.240
4.190E-06,0.280
4.200E-06,0.280
4.210E-06,0.280
4.220E-06,0.220
4.230E-06,0.160
4.240E-06,0.120
4.250E-06,0.100
4.260E-06,0.120
4.270E-06,0.080
4.280E-06,0.000
4.290E-06,-0.020
4.300E-06,-0.060
4.310E-06,-0.060
4.320E-06,-0.020
4.330E-06,-0.120
4.340E-06,-0.140
4.350E-06,-0.080
4.360E-06,-0.040
4.370E-06,0.020
4.380E-06,0.060
4.390E-06,0.120
4.400E-06,0.140
4.410E-06,0.100
4.420E-06,0.100
4.430E-06,0.080
4.440E-06,0.080
4.450E-06,0.100
4.460E-06,0.080
4.470E-06,0.080
4.480E-06,0.060
4.490E-06,-0.020
4.500E-06,0.000
4.510E-06,-0.060
4.520E-06,-0.080
4.530E-06,-0.040
4.540E-06,-0.080
4.550E-06,-0.120
4.560E-06,-0.160
4.570E-06,-0.180
4.580E-06,-0.120
4.590E-06,-0.040
4.600E-06,0.020
4.610E-06,0.100
4.620E-06,-0.020
4.630E-06,0.020
4.640E-06,0.080
4.650E-06,0.120
4.660E-06,0.140
4.670E-06,0.160
4.680E-06,0.160
4.690E-06,0.120
4.700E-06,0.120
4.710E-06,0.080
4.720E-06,0.060
4.730E-06,-0.020
4.740E-06,-0.060
4.750E-06,-0.100
4.760E-06,-0.120
4.770E-06,-0.120
4.780E-06,-0.060
4.790E-06,0.000
4.800E-06,0.020
4.810E-06,0.020
4.820E-06,0.040
4.830E-06,0.040
4.840E-06,0.040
4.850E-06,0.060
4.860E-06,0.000
4.870E-06,0.000
4.880E-06,0.000
4.890E-06,0.020
4.900E-06,0.040
4.910E-06,0.020
4.920E-06,0.040
4.930E-06,0.020
4.940E-06,0.000
4.950E-06,0.000
4.960E-06,-0.020
4.970E-06,0.000
4.980E-06,-0.020
4.990E-06,-0.020
5.000E-06,0.000
5.010E-06,0.040
5.020E-06,0.100
5.030E-06,0.180
5.040E-06,0.300
5.050E-06,0.360
5.060E-06,0.380
5.070E-06,0.420
5.080E-06,0.480
5.090E-06,0.420
5.100E-06,0.400
5.110E-06,0.420
5.120E-06,0.360
5.130E-06,0.400
5.140E-06,0.400
5.150E-06,0.360
5.160E-06,0.420
5.170E-06,0.380
5.180E-06,0.360
5.190E-06,0.340
5.200E-06,0.200
5.210E-06,0.160
5.220E-06,0.060
5.230E-06,0.000
5.240E-06,-0.060
5.250E-06,-0.120
5.260E-06,-0.160
5.270E-06,-0.220
5.280E-06,-0.320
5.290E-06,-0.380
5.300E-06,-0.460
5.310E-06,-0.540
5.320E-06,-0.580
5.330E-06,-0.680
5.340E-06,-0.660
5.350E-06,-0.660
5.360E-06,-0.580
5.370E-06,-0.520
5.380E-06,-0.440
5.390E-06,-0.360
5.400E-06,-0.340
5.410E-06,-0.220
5.420E-06,-0.160
5.430E-06,-0.100
5.440E-06,-0.040
5.450E-06,0.000
5.460E-06,0.080
5.470E-06,0.140
5.480E-06,0.160
5.490E-06,0.220
5.500E-06,0.300
5.510E-06,0.400
5.520E-06,0.400
5.530E-06,0.420
5.540E-06,0.380
5.550E-06,0.340
5.560E-06,0.340
5.570E-06,0.360
5.580E-06,0.340
5.590E-06,0.340
5.600E-06,0.360
5.610E-06,0.300
5.620E-06,0.280
5.630E-06,0.220
5.640E-06,0.160
5.650E-06,0.080
5.660E-06,-0.020
5.670E-06,-0.020
5.680E-06,-0.160
5.690E-06,-0.200
5.700E-06,-0.280
5.710E-06,-0.340
5.720E-06,-0.320
5.730E-06,-0.380
5.740E-06,-0.360
5.750E-06,-0.340
5.760E-06,-0.340
5.770E-06,-0.320
5.780E-06,-0.240
5.790E-06,-0.240
5.800E-06,-0.200
5.810E-06,-0.160
5.820E-06,-0.180
5.830E-06,-0.140
5.840E-06,-0.080
5.850E-06,-0.040
5.860E-06,0.020
5.870E-06,0.120
5.880E-06,0.220
5.890E-06,0.360
5.900E-06,0.440
5.910E-06,0.520
5.920E-06,0.600
5.930E-06,0.620
5.940E-06,0.600
5.950E-06,0.560
5.960E-06,0.500
5.970E-06,0.460
5.980E-06,0.440
5.990E-06,0.460
6.000E-06,0.480
6.010E-06,0.520
6.020E-06,0.580
6.030E-06,0.640
6.040E-06,0.680
6.050E-06,0.720
6.060E-06,0.760
6.070E-06,0.760
6.080E-06,0.820
6.090E-06,0.840
6.100E-06,0.840
6.110E-06,0.800
6.120E-06,0.780
6.130E-06,0.740
6.140E-06,0.680
6.150E-06,0.600
6.160E-06,0.540
6.170E-06,0.440
6.180E-06,0.340
6.190E-06,0.220
6.200E-06,0.080
6.210E-06,0.040
6.220E-06,0.120
6.230E-06,0.180
6.240E-06,0.280
6.250E-06,0.360
6.260E-06,0.440
6.270E-06,0.460
6.280E-06,0.500
6.290E-06,0.480
6.300E-06,0.420
6.310E-06,0.360
6.320E-06,0.220
6.330E-06,0.080
6.340E-06,-0.020
6.350E-06,-0.140
6.360E-06,-0.220
6.370E-06,-0.200
6.380E-06,-0.220
6.390E-06,-0.140
6.400E-06,-0.080
6.410E-06,0.000
6.420E-06,0.060
6.430E-06,0.160
6.440E-06,0.220
6.450E-06,0.280
6.460E-06,0.340
6.470E-06,0.380
6.480E-06,0.420
6.490E-06,0.380
6.500E-06,0.380
6.510E-06,0.360
6.520E-06,0.340
6.530E-06,0.380
6.540E-06,0.360
6.550E-06,0.440
6.560E-06,0.440
6.570E-06,0.440
6.580E-06,0.440
6.590E-06,0.420
6.600E-06,0.380
6.610E-06,0.360
6.620E-06,0.300
6.630E-06,0.280
6.640E-06,0.280
6.650E-06,0.320
6.660E-06,0.440
6.670E-06,0.500
6.680E-06,0.600
6.690E-06,0.640
6.700E-06,0.680
6.710E-06,0.640
6.720E-06,0.640
6.730E-06,0.600
6.740E-06,0.580
6.750E-06,0.500
6.760E-06,0.460
6.770E-06,0.360
6.780E-06,0.300
6.790E-06,0.260
6.800E-06,0.200
6.810E-06,0.180
6.820E-06,0.140
6.830E-06,0.140
6.840E-06,0.120
6.850E-06,0.080
6.860E-06,0.080
6.870E-06,0.060
6.880E-06,0.020
6.890E-06,0.040
6.900E-06,0.140
6.910E-06,0.180
6.920E-06,0.280
6.930E-06,0.340
6.940E-06,0.400
6.950E-06,0.400
6.960E-06,0.460
6.970E-06,0.540
6.980E-06,0.640
6.990E-06,0.680
7.000E-06,0.680
7.010E-06,0.720
7.020E-06,0.760
7.030E-06,0.820
7.040E-06,1.000
7.050E-06,1.280
7.060E-06,1.680
7.070E-06,2.120
7.080E-06,2.600
7.090E-06,2.780
7.100E-06,2.780
7.110E-06,2.760
7.120E-06,2.780
7.130E-06,2.760
7.140E-06,2.780
7.150E-06,2.760
7.160E-06,2.780
7.170E-06,2.760
7.180E-06,2.760
7.190E-06,2.760
7.200E-06,2.760
7.210E-06,2.740
7.220E-06,2.760
7.230E-06,2.780
7.240E-06,2.780
7.250E-06,2.760
7.260E-06,2.760
7.270E-06,2.760
7.280E-06,2.760
7.290E-06,2.780
7.300E-06,2.780
7.310E-06,2.760
7.320E-06,2.580
7.330E-06,2.340
7.340E-06,2.040
7.350E-06,1.760
7.360E-06,1.460
7.370E-06,1.200
7.380E-06,1.020
7.390E-06,0.880
7.400E-06,0.820
7.410E-06,0.720
7.420E-06,0.760
7.430E-06,0.760
7.440E-06,0.760
7.450E-06,0.800
7.460E-06,0.780
7.470E-06,0.760
7.480E-06,0.700
7.490E-06,0.640
7.500E-06,0.520
7.510E-06,0.440
7.520E-06,0.400
7.530E-06,0.320
7.540E-06,0.320
7.550E-06,0.300
7.560E-06,0.320
7.570E-06,0.320
7.580E-06,0.380
7.590E-06,0.440
7.600E-06,0.520
7.610E-06,0.600
7.620E-06,0.680
7.630E-06,0.720
7.640E-06,0.780
7.650E-06,0.780
7.660E-06,0.760
7.670E-06,0.740
7.680E-06,0.680
