mediciones/Mediciones filtradas (saque las feas)/6-10/35/WaveData5529.csv

#timebase=2000000(ps)
,#voltbase=500000(mv/100)
#size=4000
-4.250E-06,0.000
-4.240E-06,0.060
-4.230E-06,0.000
-4.220E-06,0.080
-4.210E-06,0.180
-4.200E-06,0.160
-4.190E-06,0.180
-4.180E-06,0.200
-4.170E-06,0.100
-4.160E-06,0.120
-4.150E-06,0.100
-4.140E-06,0.080
-4.130E-06,0.120
-4.120E-06,0.100
-4.110E-06,0.020
-4.100E-06,0.060
-4.090E-06,0.040
-4.080E-06,0.080
-4.070E-06,0.080
-4.060E-06,0.060
-4.050E-06,0.040
-4.040E-06,0.060
-4.030E-06,0.060
-4.020E-06,0.040
-4.010E-06,0.040
-4.000E-06,0.080
-3.990E-06,0.100
-3.980E-06,0.020
-3.970E-06,0.060
-3.960E-06,0.060
-3.950E-06,0.060
-3.940E-06,0.060
-3.930E-06,0.060
-3.920E-06,0.040
-3.910E-06,0.040
-3.900E-06,0.040
-3.890E-06,0.040
-3.880E-06,0.060
-3.870E-06,0.100
-3.860E-06,0.020
-3.850E-06,0.040
-3.840E-06,0.000
-3.830E-06,-0.040
-3.820E-06,0.000
-3.810E-06,-0.040
-3.800E-06,0.020
-3.790E-06,0.040
-3.780E-06,0.020
-3.770E-06,0.120
-3.760E-06,0.120
-3.750E-06,0.140
-3.740E-06,0.180
-3.730E-06,0.160
-3.720E-06,0.180
-3.710E-06,0.180
-3.700E-06,0.180
-3.690E-06,0.200
-3.680E-06,0.160
-3.670E-06,0.180
-3.660E-06,0.140
-3.650E-06,0.120
-3.640E-06,0.140
-3.630E-06,0.140
-3.620E-06,0.160
-3.610E-06,0.140
-3.600E-06,0.140
-3.590E-06,0.100
-3.580E-06,0.120
-3.570E-06,0.140
-3.560E-06,0.160
-3.550E-06,0.180
-3.540E-06,0.180
-3.530E-06,0.220
-3.520E-06,0.180
-3.510E-06,0.200
-3.500E-06,0.000
-3.490E-06,0.040
-3.480E-06,-0.140
-3.470E-06,-0.080
-3.460E-06,-0.060
-3.450E-06,-0.160
-3.440E-06,0.040
-3.430E-06,0.100
-3.420E-06,0.140
-3.410E-06,0.100
-3.400E-06,0.120
-3.390E-06,0.080
-3.380E-06,0.060
-3.370E-06,0.100
-3.360E-06,0.100
-3.350E-06,0.140
-3.340E-06,0.160
-3.330E-06,0.060
-3.320E-06,0.060
-3.310E-06,0.000
-3.300E-06,0.000
-3.290E-06,0.080
-3.280E-06,0.100
-3.270E-06,0.060
-3.260E-06,0.080
-3.250E-06,0.000
-3.240E-06,0.060
-3.230E-06,0.100
-3.220E-06,0.060
-3.210E-06,0.020
-3.200E-06,0.080
-3.190E-06,0.020
-3.180E-06,-0.160
-3.170E-06,0.020
-3.160E-06,0.000
-3.150E-06,0.020
-3.140E-06,0.120
-3.130E-06,0.040
-3.120E-06,0.100
-3.110E-06,0.080
-3.100E-06,-0.040
-3.090E-06,0.040
-3.080E-06,-0.020
-3.070E-06,-0.020
-3.060E-06,0.100
-3.050E-06,0.060
-3.040E-06,0.100
-3.030E-06,0.160
-3.020E-06,0.080
-3.010E-06,0.060
-3.000E-06,0.020
-2.990E-06,0.060
-2.980E-06,0.040
-2.970E-06,0.100
-2.960E-06,0.080
-2.950E-06,0.100
-2.940E-06,0.060
-2.930E-06,0.040
-2.920E-06,0.060
-2.910E-06,0.040
-2.900E-06,0.060
-2.890E-06,0.080
-2.880E-06,0.060
-2.870E-06,0.080
-2.860E-06,0.020
-2.850E-06,0.040
-2.840E-06,0.060
-2.830E-06,0.040
-2.820E-06,0.080
-2.810E-06,0.040
-2.800E-06,0.000
-2.790E-06,0.040
-2.780E-06,0.060
-2.770E-06,0.020
-2.760E-06,0.060
-2.750E-06,0.040
-2.740E-06,0.020
-2.730E-06,0.000
-2.720E-06,0.000
-2.710E-06,0.040
-2.700E-06,0.040
-2.690E-06,0.080
-2.680E-06,0.020
-2.670E-06,0.080
-2.660E-06,0.060
-2.650E-06,0.060
-2.640E-06,0.080
-2.630E-06,0.060
-2.620E-06,0.040
-2.610E-06,0.040
-2.600E-06,0.100
-2.590E-06,0.040
-2.580E-06,0.100
-2.570E-06,0.060
-2.560E-06,0.060
-2.550E-06,0.080
-2.540E-06,0.100
-2.530E-06,0.060
-2.520E-06,0.080
-2.510E-06,0.080
-2.500E-06,0.040
-2.490E-06,0.080
-2.480E-06,0.060
-2.470E-06,0.060
-2.460E-06,-0.020
-2.450E-06,0.040
-2.440E-06,0.080
-2.430E-06,0.060
-2.420E-06,0.140
-2.410E-06,0.220
-2.400E-06,0.220
-2.390E-06,0.260
-2.380E-06,0.240
-2.370E-06,0.160
-2.360E-06,0.180
-2.350E-06,0.180
-2.340E-06,0.180
-2.330E-06,0.240
-2.320E-06,0.240
-2.310E-06,0.300
-2.300E-06,0.280
-2.290E-06,0.340
-2.280E-06,0.320
-2.270E-06,0.260
-2.260E-06,0.240
-2.250E-06,0.300
-2.240E-06,0.480
-2.230E-06,0.320
-2.220E-06,0.200
-2.210E-06,0.180
-2.200E-06,-0.020
-2.190E-06,0.080
-2.180E-06,0.400
-2.170E-06,0.420
-2.160E-06,0.500
-2.150E-06,0.460
-2.140E-06,0.020
-2.130E-06,0.060
-2.120E-06,0.000
-2.110E-06,0.080
-2.100E-06,0.280
-2.090E-06,0.220
-2.080E-06,0.160
-2.070E-06,0.120
-2.060E-06,0.000
-2.050E-06,0.020
-2.040E-06,0.060
-2.030E-06,0.080
-2.020E-06,0.140
-2.010E-06,0.080
-2.000E-06,0.040
-1.990E-06,0.080
-1.980E-06,0.060
-1.970E-06,0.080
-1.960E-06,0.060
-1.950E-06,0.060
-1.940E-06,-0.040
-1.930E-06,-0.020
-1.920E-06,-0.040
-1.910E-06,-0.020
-1.900E-06,-0.040
-1.890E-06,0.000
-1.880E-06,-0.020
-1.870E-06,0.000
-1.860E-06,-0.020
-1.850E-06,-0.020
-1.840E-06,0.000
-1.830E-06,-0.020
-1.820E-06,0.020
-1.810E-06,0.020
-1.800E-06,0.040
-1.790E-06,0.080
-1.780E-06,0.040
-1.770E-06,0.080
-1.760E-06,0.020
-1.750E-06,0.020
-1.740E-06,0.020
-1.730E-06,0.080
-1.720E-06,0.080
-1.710E-06,0.080
-1.700E-06,0.060
-1.690E-06,0.040
-1.680E-06,0.100
-1.670E-06,0.080
-1.660E-06,0.080
-1.650E-06,0.160
-1.640E-06,0.140
-1.630E-06,0.180
-1.620E-06,0.200
-1.610E-06,0.140
-1.600E-06,0.160
-1.590E-06,0.100
-1.580E-06,0.120
-1.570E-06,0.140
-1.560E-06,0.100
-1.550E-06,0.120
-1.540E-06,0.180
-1.530E-06,0.100
-1.520E-06,0.080
-1.510E-06,0.020
-1.500E-06,-0.020
-1.490E-06,0.040
-1.480E-06,0.240
-1.470E-06,0.300
-1.460E-06,0.340
-1.450E-06,0.320
-1.440E-06,0.220
-1.430E-06,0.200
-1.420E-06,0.220
-1.410E-06,0.340
-1.400E-06,0.280
-1.390E-06,0.220
-1.380E-06,0.120
-1.370E-06,0.080
-1.360E-06,0.260
-1.350E-06,0.280
-1.340E-06,0.420
-1.330E-06,0.260
-1.320E-06,0.260
-1.310E-06,0.300
-1.300E-06,0.440
-1.290E-06,0.420
-1.280E-06,0.360
-1.270E-06,0.480
-1.260E-06,0.220
-1.250E-06,0.060
-1.240E-06,-0.080
-1.230E-06,-0.100
-1.220E-06,0.020
-1.210E-06,0.300
-1.200E-06,0.200
-1.190E-06,0.320
-1.180E-06,0.160
-1.170E-06,-0.040
-1.160E-06,0.140
-1.150E-06,-0.020
-1.140E-06,0.180
-1.130E-06,0.200
-1.120E-06,0.140
-1.110E-06,0.040
-1.100E-06,-0.020
-1.090E-06,-0.080
-1.080E-06,-0.060
-1.070E-06,0.000
-1.060E-06,-0.080
-1.050E-06,-0.040
-1.040E-06,-0.080
-1.030E-06,-0.220
-1.020E-06,-0.220
-1.010E-06,-0.200
-1.000E-06,-0.260
-9.900E-07,-0.220
-9.800E-07,-0.220
-9.700E-07,-0.220
-9.600E-07,-0.240
-9.500E-07,-0.180
-9.400E-07,-0.180
-9.300E-07,-0.120
-9.200E-07,-0.080
-9.100E-07,-0.020
-9.000E-07,0.080
-8.900E-07,0.140
-8.800E-07,0.180
-8.700E-07,0.080
-8.600E-07,0.220
-8.500E-07,0.100
-8.400E-07,0.160
-8.300E-07,0.180
-8.200E-07,0.020
-8.100E-07,0.100
-8.000E-07,0.100
-7.900E-07,0.180
-7.800E-07,0.260
-7.700E-07,0.320
-7.600E-07,0.300
-7.500E-07,0.320
-7.400E-07,0.300
-7.300E-07,0.320
-7.200E-07,0.460
-7.100E-07,0.440
-7.000E-07,0.380
-6.900E-07,0.380
-6.800E-07,0.180
-6.700E-07,0.200
-6.600E-07,0.360
-6.500E-07,0.240
-6.400E-07,0.500
-6.300E-07,0.480
-6.200E-07,0.480
-6.100E-07,0.480
-6.000E-07,0.440
-5.900E-07,0.560
-5.800E-07,0.440
-5.700E-07,0.500
-5.600E-07,0.460
-5.500E-07,0.360
-5.400E-07,0.400
-5.300E-07,0.200
-5.200E-07,0.180
-5.100E-07,0.180
-5.000E-07,0.220
-4.900E-07,0.240
-4.800E-07,0.540
-4.700E-07,0.520
-4.600E-07,0.760
-4.500E-07,0.360
-4.400E-07,0.580
-4.300E-07,0.320
-4.200E-07,0.480
-4.100E-07,1.040
-4.000E-07,0.320
-3.900E-07,0.460
-3.800E-07,-0.180
-3.700E-07,-0.360
-3.600E-07,0.020
-3.500E-07,0.240
-3.400E-07,0.540
-3.300E-07,0.740
-3.200E-07,0.600
-3.100E-07,0.000
-3.000E-07,-0.120
-2.900E-07,-0.100
-2.800E-07,-0.100
-2.700E-07,0.100
-2.600E-07,0.180
-2.500E-07,-0.080
-2.400E-07,0.060
-2.300E-07,-0.080
-2.200E-07,0.120
-2.100E-07,0.180
-2.000E-07,0.220
-1.900E-07,0.240
-1.800E-07,-0.160
-1.700E-07,-0.020
-1.600E-07,0.180
-1.500E-07,0.400
-1.400E-07,0.800
-1.300E-07,0.220
-1.200E-07,0.440
-1.100E-07,-0.120
-1.000E-07,-0.360
-9.000E-08,-0.440
-8.000E-08,-0.020
-7.000E-08,0.500
-6.000E-08,0.340
-5.000E-08,0.600
-4.000E-08,-0.100
-3.000E-08,-0.200
-2.000E-08,0.020
-1.000E-08,-0.020
0.000E+00,0.280
1.000E-08,0.400
2.000E-08,0.160
3.000E-08,0.280
4.000E-08,0.060
5.000E-08,0.040
6.000E-08,0.240
7.000E-08,0.280
8.000E-08,0.520
9.000E-08,0.680
1.000E-07,0.680
1.100E-07,0.740
1.200E-07,0.720
1.300E-07,0.560
1.400E-07,0.580
1.500E-07,0.380
1.600E-07,0.520
1.700E-07,0.460
1.800E-07,0.420
1.900E-07,0.340
2.000E-07,0.160
2.100E-07,0.120
2.200E-07,-0.040
2.300E-07,-0.120
2.400E-07,-0.100
2.500E-07,-0.160
2.600E-07,-0.140
2.700E-07,-0.080
2.800E-07,-0.100
2.900E-07,-0.100
3.000E-07,-0.040
3.100E-07,0.000
3.200E-07,-0.020
3.300E-07,0.100
3.400E-07,0.300
3.500E-07,0.260
3.600E-07,0.460
3.700E-07,0.320
3.800E-07,0.320
3.900E-07,0.280
4.000E-07,0.380
4.100E-07,0.740
4.200E-07,0.780
4.300E-07,1.020
4.400E-07,0.900
4.500E-07,0.600
4.600E-07,0.580
4.700E-07,0.500
4.800E-07,0.600
4.900E-07,0.720
5.000E-07,0.600
5.100E-07,0.620
5.200E-07,0.500
5.300E-07,0.420
5.400E-07,0.560
5.500E-07,0.480
5.600E-07,0.520
5.700E-07,0.320
5.800E-07,0.220
5.900E-07,-0.080
6.000E-07,-0.100
6.100E-07,-0.100
6.200E-07,-0.060
6.300E-07,0.040
6.400E-07,0.280
6.500E-07,-0.080
6.600E-07,-0.160
6.700E-07,-0.280
6.800E-07,-0.300
6.900E-07,-0.260
7.000E-07,-0.440
7.100E-07,-0.440
7.200E-07,-0.720
7.300E-07,-0.780
7.400E-07,-1.260
7.500E-07,-1.020
7.600E-07,-1.420
7.700E-07,-1.840
7.800E-07,-2.340
7.900E-07,-2.660
8.000E-07,-2.660
8.100E-07,-2.660
8.200E-07,-2.660
8.300E-07,-2.660
8.400E-07,-2.660
8.500E-07,-2.660
8.600E-07,-2.660
8.700E-07,-2.660
8.800E-07,-2.660
8.900E-07,-2.660
9.000E-07,-2.660
9.100E-07,-2.660
9.200E-07,-2.660
9.300E-07,-2.660
9.400E-07,-2.660
9.500E-07,-2.660
9.600E-07,-2.660
9.700E-07,-2.660
9.800E-07,-2.660
9.900E-07,-2.660
1.000E-06,-2.660
1.010E-06,-2.660
1.020E-06,-2.660
1.030E-06,-2.660
1.040E-06,-2.660
1.050E-06,-2.540
1.060E-06,-2.340
1.070E-06,-2.240
1.080E-06,-2.000
1.090E-06,-1.840
1.100E-06,-1.660
1.110E-06,-1.400
1.120E-06,-1.160
1.130E-06,-0.960
1.140E-06,-0.820
1.150E-06,-0.740
1.160E-06,-0.620
1.170E-06,-0.560
1.180E-06,-0.440
1.190E-06,-0.360
1.200E-06,-0.320
1.210E-06,-0.300
1.220E-06,-0.260
1.230E-06,-0.240
1.240E-06,-0.260
1.250E-06,-0.260
1.260E-06,-0.320
1.270E-06,-0.360
1.280E-06,-0.400
1.290E-06,-0.400
1.300E-06,-0.440
1.310E-06,-0.460
1.320E-06,-0.460
1.330E-06,-0.500
1.340E-06,-0.460
1.350E-06,-0.440
1.360E-06,-0.360
1.370E-06,-0.340
1.380E-06,-0.320
1.390E-06,-0.280
1.400E-06,-0.220
1.410E-06,-0.160
1.420E-06,-0.140
1.430E-06,-0.080
1.440E-06,-0.020
1.450E-06,0.000
1.460E-06,0.060
1.470E-06,0.080
1.480E-06,0.120
1.490E-06,0.140
1.500E-06,0.160
1.510E-06,0.180
1.520E-06,0.240
1.530E-06,0.260
1.540E-06,0.260
1.550E-06,0.260
1.560E-06,0.280
1.570E-06,0.280
1.580E-06,0.280
1.590E-06,0.240
1.600E-06,0.260
1.610E-06,0.280
1.620E-06,0.280
1.630E-06,0.340
1.640E-06,0.320
1.650E-06,0.340
1.660E-06,0.340
1.670E-06,0.340
1.680E-06,0.340
1.690E-06,0.380
1.700E-06,0.320
1.710E-06,0.360
1.720E-06,0.340
1.730E-06,0.340
1.740E-06,0.360
1.750E-06,0.360
1.760E-06,0.360
1.770E-06,0.400
1.780E-06,0.420
1.790E-06,0.460
1.800E-06,0.440
1.810E-06,0.480
1.820E-06,0.500
1.830E-06,0.540
1.840E-06,0.560
1.850E-06,0.520
1.860E-06,0.560
1.870E-06,0.520
1.880E-06,0.480
1.890E-06,0.440
1.900E-06,0.320
1.910E-06,0.260
1.920E-06,0.200
1.930E-06,0.160
1.940E-06,0.140
1.950E-06,0.120
1.960E-06,0.080
1.970E-06,0.140
1.980E-06,0.140
1.990E-06,0.160
2.000E-06,0.120
2.010E-06,0.060
2.020E-06,0.060
2.030E-06,0.020
2.040E-06,0.060
2.050E-06,0.020
2.060E-06,0.080
2.070E-06,0.060
2.080E-06,-0.020
2.090E-06,-0.020
2.100E-06,0.020
2.110E-06,-0.020
2.120E-06,-0.020
2.130E-06,0.000
2.140E-06,0.000
2.150E-06,-0.060
2.160E-06,-0.040
2.170E-06,-0.040
2.180E-06,-0.120
2.190E-06,-0.100
2.200E-06,-0.100
2.210E-06,-0.080
2.220E-06,-0.020
2.230E-06,-0.040
2.240E-06,0.000
2.250E-06,0.060
2.260E-06,0.040
2.270E-06,0.100
2.280E-06,0.140
2.290E-06,0.160
2.300E-06,0.160
2.310E-06,0.160
2.320E-06,0.180
2.330E-06,0.160
2.340E-06,0.180
2.350E-06,0.160
2.360E-06,0.140
2.370E-06,0.180
2.380E-06,0.140
2.390E-06,0.120
2.400E-06,0.080
2.410E-06,0.060
2.420E-06,0.040
2.430E-06,0.040
2.440E-06,0.020
2.450E-06,-0.020
2.460E-06,0.000
2.470E-06,-0.040
2.480E-06,-0.060
2.490E-06,0.020
2.500E-06,-0.020
2.510E-06,0.020
2.520E-06,0.100
2.530E-06,0.120
2.540E-06,0.120
2.550E-06,0.200
2.560E-06,0.240
2.570E-06,0.260
2.580E-06,0.300
2.590E-06,0.320
2.600E-06,0.320
2.610E-06,0.320
2.620E-06,0.340
2.630E-06,0.260
2.640E-06,0.240
2.650E-06,0.240
2.660E-06,0.200
2.670E-06,0.240
2.680E-06,0.260
2.690E-06,0.260
2.700E-06,0.260
2.710E-06,0.260
2.720E-06,0.320
2.730E-06,0.320
2.740E-06,0.380
2.750E-06,0.380
2.760E-06,0.420
2.770E-06,0.480
2.780E-06,0.480
2.790E-06,0.500
2.800E-06,0.520
2.810E-06,0.520
2.820E-06,0.500
2.830E-06,0.480
2.840E-06,0.460
2.850E-06,0.460
2.860E-06,0.420
2.870E-06,0.420
2.880E-06,0.420
2.890E-06,0.420
2.900E-06,0.460
2.910E-06,0.500
2.920E-06,0.560
2.930E-06,0.540
2.940E-06,0.560
2.950E-06,0.580
2.960E-06,0.580
2.970E-06,0.520
2.980E-06,0.380
2.990E-06,0.320
3.000E-06,0.120
3.010E-06,-0.020
3.020E-06,-0.220
3.030E-06,-0.420
3.040E-06,-0.560
3.050E-06,-0.660
3.060E-06,-0.660
3.070E-06,-0.500
3.080E-06,-0.340
3.090E-06,-0.120
3.100E-06,0.020
3.110E-06,0.180
3.120E-06,0.200
3.130E-06,0.240
3.140E-06,0.200
3.150E-06,0.200
3.160E-06,0.200
3.170E-06,0.220
3.180E-06,0.240
3.190E-06,0.200
3.200E-06,0.160
3.210E-06,0.080
3.220E-06,0.000
3.230E-06,-0.060
3.240E-06,-0.080
3.250E-06,-0.160
3.260E-06,-0.280
3.270E-06,-0.300
3.280E-06,-0.200
3.290E-06,0.020
3.300E-06,0.220
3.310E-06,0.420
3.320E-06,0.520
3.330E-06,0.380
3.340E-06,0.180
3.350E-06,-0.120
3.360E-06,-0.460
3.370E-06,-0.740
3.380E-06,-0.900
3.390E-06,-0.920
3.400E-06,-0.820
3.410E-06,-0.640
3.420E-06,-0.420
3.430E-06,-0.180
3.440E-06,0.060
3.450E-06,0.320
3.460E-06,0.500
3.470E-06,0.540
3.480E-06,0.560
3.490E-06,0.540
3.500E-06,0.460
3.510E-06,0.340
3.520E-06,0.260
3.530E-06,0.180
3.540E-06,0.120
3.550E-06,0.080
3.560E-06,0.080
3.570E-06,0.060
3.580E-06,0.080
3.590E-06,0.140
3.600E-06,0.240
3.610E-06,0.340
3.620E-06,0.420
3.630E-06,0.500
3.640E-06,0.520
3.650E-06,0.520
3.660E-06,0.500
3.670E-06,0.380
3.680E-06,0.320
3.690E-06,0.220
3.700E-06,0.160
3.710E-06,0.160
3.720E-06,0.220
3.730E-06,0.320
3.740E-06,0.460
3.750E-06,0.580
3.760E-06,0.700
3.770E-06,0.760
3.780E-06,0.840
3.790E-06,0.880
3.800E-06,0.920
3.810E-06,0.880
3.820E-06,0.880
3.830E-06,0.800
3.840E-06,0.720
3.850E-06,0.680
3.860E-06,0.600
3.870E-06,0.520
3.880E-06,0.440
3.890E-06,0.400
3.900E-06,0.320
3.910E-06,0.280
3.920E-06,0.180
3.930E-06,0.100
3.940E-06,0.020
3.950E-06,-0.020
3.960E-06,-0.020
3.970E-06,0.060
3.980E-06,0.100
3.990E-06,0.160
4.000E-06,0.220
4.010E-06,0.260
4.020E-06,0.240
4.030E-06,0.220
4.040E-06,0.220
4.050E-06,0.220
4.060E-06,0.280
4.070E-06,0.340
4.080E-06,0.480
4.090E-06,0.600
4.100E-06,0.720
4.110E-06,0.780
4.120E-06,0.880
4.130E-06,1.020
4.140E-06,1.060
4.150E-06,1.120
4.160E-06,1.120
4.170E-06,1.100
4.180E-06,0.940
4.190E-06,0.760
4.200E-06,0.540
4.210E-06,0.300
4.220E-06,0.040
4.230E-06,-0.200
4.240E-06,-0.400
4.250E-06,-0.500
4.260E-06,-0.560
4.270E-06,-0.420
4.280E-06,-0.280
4.290E-06,-0.120
4.300E-06,0.180
4.310E-06,0.480
4.320E-06,0.840
4.330E-06,1.220
4.340E-06,1.600
4.350E-06,1.960
4.360E-06,2.300
4.370E-06,2.540
4.380E-06,2.760
4.390E-06,2.760
4.400E-06,2.740
4.410E-06,2.760
4.420E-06,2.780
4.430E-06,2.760
4.440E-06,2.760
4.450E-06,2.760
4.460E-06,2.740
4.470E-06,2.760
4.480E-06,2.780
4.490E-06,2.760
4.500E-06,2.740
4.510E-06,2.760
4.520E-06,2.780
4.530E-06,2.760
4.540E-06,2.780
4.550E-06,2.760
4.560E-06,2.760
4.570E-06,2.740
4.580E-06,2.760
4.590E-06,2.760
4.600E-06,2.740
4.610E-06,2.760
4.620E-06,2.780
4.630E-06,2.760
4.640E-06,2.760
4.650E-06,2.600
4.660E-06,2.380
4.670E-06,2.180
4.680E-06,1.940
4.690E-06,1.720
4.700E-06,1.560
4.710E-06,1.400
4.720E-06,1.260
4.730E-06,1.080
4.740E-06,1.000
4.750E-06,0.880
4.760E-06,0.800
4.770E-06,0.680
4.780E-06,0.640
4.790E-06,0.600
4.800E-06,0.580
4.810E-06,0.540
4.820E-06,0.540
4.830E-06,0.520
4.840E-06,0.460
4.850E-06,0.500
4.860E-06,0.460
4.870E-06,0.440
4.880E-06,0.440
4.890E-06,0.420
4.900E-06,0.420
4.910E-06,0.380
4.920E-06,0.360
4.930E-06,0.280
4.940E-06,0.220
4.950E-06,0.180
4.960E-06,0.140
4.970E-06,0.120
4.980E-06,0.060
4.990E-06,0.020
5.000E-06,-0.080
5.010E-06,-0.120
5.020E-06,-0.200
5.030E-06,-0.260
5.040E-06,-0.300
5.050E-06,-0.300
5.060E-06,-0.260
5.070E-06,-0.180
5.080E-06,-0.160
5.090E-06,-0.060
5.100E-06,-0.020
5.110E-06,0.060
5.120E-06,0.080
5.130E-06,0.080
5.140E-06,0.040
5.150E-06,0.040
5.160E-06,0.140
5.170E-06,0.140
5.180E-06,0.180
5.190E-06,0.220
5.200E-06,0.220
5.210E-06,0.280
5.220E-06,0.340
5.230E-06,0.380
5.240E-06,0.440
5.250E-06,0.480
5.260E-06,0.520
5.270E-06,0.560
5.280E-06,0.580
5.290E-06,0.580
5.300E-06,0.520
5.310E-06,0.480
5.320E-06,0.420
5.330E-06,0.340
5.340E-06,0.280
5.350E-06,0.220
5.360E-06,0.180
5.370E-06,0.140
5.380E-06,0.120
5.390E-06,0.140
5.400E-06,0.140
5.410E-06,0.160
5.420E-06,0.160
5.430E-06,0.180
5.440E-06,0.200
5.450E-06,0.180
5.460E-06,0.200
5.470E-06,0.220
5.480E-06,0.200
5.490E-06,0.200
5.500E-06,0.200
5.510E-06,0.220
5.520E-06,0.300
5.530E-06,0.380
5.540E-06,0.420
5.550E-06,0.520
5.560E-06,0.580
5.570E-06,0.600
5.580E-06,0.640
5.590E-06,0.660
5.600E-06,0.740
5.610E-06,0.760
5.620E-06,0.800
5.630E-06,0.780
5.640E-06,0.740
5.650E-06,0.720
5.660E-06,0.660
5.670E-06,0.660
5.680E-06,0.660
5.690E-06,0.660
5.700E-06,0.620
5.710E-06,0.620
5.720E-06,0.560
5.730E-06,0.540
5.740E-06,0.540
5.750E-06,0.540
5.760E-06,0.500
5.770E-06,0.500
5.780E-06,0.420
5.790E-06,0.380
5.800E-06,0.440
5.810E-06,0.400
5.820E-06,0.400
5.830E-06,0.400
5.840E-06,0.400
5.850E-06,0.420
5.860E-06,0.400
5.870E-06,0.420
5.880E-06,0.380
5.890E-06,0.400
5.900E-06,0.400
5.910E-06,0.380
5.920E-06,0.360
5.930E-06,0.340
5.940E-06,0.340
5.950E-06,0.360
5.960E-06,0.320
5.970E-06,0.340
5.980E-06,0.380
5.990E-06,0.360
6.000E-06,0.380
6.010E-06,0.400
6.020E-06,0.440
6.030E-06,0.440
6.040E-06,0.420
6.050E-06,0.460
6.060E-06,0.440
6.070E-06,0.420
6.080E-06,0.360
6.090E-06,0.340
6.100E-06,0.340
6.110E-06,0.300
6.120E-06,0.300
6.130E-06,0.240
6.140E-06,0.260
6.150E-06,0.260
6.160E-06,0.280
6.170E-06,0.320
6.180E-06,0.320
6.190E-06,0.340
6.200E-06,0.360
6.210E-06,0.320
6.220E-06,0.320
6.230E-06,0.340
6.240E-06,0.360
6.250E-06,0.320
6.260E-06,0.260
6.270E-06,0.240
6.280E-06,0.200
6.290E-06,0.160
6.300E-06,0.180
6.310E-06,0.160
6.320E-06,0.120
6.330E-06,0.160
6.340E-06,0.160
6.350E-06,0.200
6.360E-06,0.240
6.370E-06,0.260
6.380E-06,0.340
6.390E-06,0.320
6.400E-06,0.320
6.410E-06,0.360
6.420E-06,0.360
6.430E-06,0.400
6.440E-06,0.380
6.450E-06,0.400
6.460E-06,0.400
6.470E-06,0.420
6.480E-06,0.400
6.490E-06,0.420
6.500E-06,0.420
6.510E-06,0.440
6.520E-06,0.440
6.530E-06,0.480
6.540E-06,0.500
6.550E-06,0.500
6.560E-06,0.520
6.570E-06,0.520
6.580E-06,0.540
6.590E-06,0.540
6.600E-06,0.600
6.610E-06,0.580
6.620E-06,0.580
6.630E-06,0.580
6.640E-06,0.560
6.650E-06,0.580
6.660E-06,0.580
6.670E-06,0.560
6.680E-06,0.580
6.690E-06,0.580
6.700E-06,0.560
6.710E-06,0.600
6.720E-06,0.620
6.730E-06,0.660
6.740E-06,0.680
6.750E-06,0.720
6.760E-06,0.680
6.770E-06,0.660
6.780E-06,0.680
6.790E-06,0.640
6.800E-06,0.640
6.810E-06,0.600
6.820E-06,0.580
6.830E-06,0.580
6.840E-06,0.580
6.850E-06,0.560
6.860E-06,0.520
6.870E-06,0.540
6.880E-06,0.580
6.890E-06,0.560
6.900E-06,0.600
6.910E-06,0.620
6.920E-06,0.640
6.930E-06,0.660
6.940E-06,0.680
6.950E-06,0.680
6.960E-06,0.680
6.970E-06,0.700
6.980E-06,0.700
6.990E-06,0.700
7.000E-06,0.680
7.010E-06,0.640
7.020E-06,0.620
7.030E-06,0.620
7.040E-06,0.600
7.050E-06,0.620
7.060E-06,0.640
7.070E-06,0.660
7.080E-06,0.660
7.090E-06,0.720
7.100E-06,0.700
7.110E-06,0.760
7.120E-06,0.780
7.130E-06,0.740
7.140E-06,0.760
7.150E-06,0.800
7.160E-06,0.780
7.170E-06,0.820
7.180E-06,0.840
7.190E-06,0.840
7.200E-06,0.860
7.210E-06,0.860
7.220E-06,0.920
7.230E-06,0.940
7.240E-06,0.960
7.250E-06,0.980
7.260E-06,1.020
7.270E-06,1.000
7.280E-06,1.000
7.290E-06,1.020
7.300E-06,1.060
7.310E-06,1.040
7.320E-06,1.040
7.330E-06,1.060
7.340E-06,1.100
7.350E-06,1.100
7.360E-06,1.080
7.370E-06,1.120
7.380E-06,1.140
7.390E-06,1.120
7.400E-06,1.100
7.410E-06,1.140
7.420E-06,1.140
7.430E-06,1.140
7.440E-06,1.140
7.450E-06,1.140
7.460E-06,1.140
7.470E-06,1.140
7.480E-06,1.100
7.490E-06,1.120
7.500E-06,1.080
7.510E-06,1.100
7.520E-06,1.120
7.530E-06,1.160
7.540E-06,1.160
7.550E-06,1.140
7.560E-06,1.160
7.570E-06,1.160
7.580E-06,1.180
7.590E-06,1.200
7.600E-06,1.200
7.610E-06,1.180
7.620E-06,1.200
7.630E-06,1.180
7.640E-06,1.180
7.650E-06,1.180
7.660E-06,1.200
7.670E-06,1.180
7.680E-06,1.200
7.690E-06,1.200
7.700E-06,1.180
7.710E-06,1.200
7.720E-06,1.220
7.730E-06,1.180
7.740E-06,1.180
7.750E-06,1.220
7.760E-06,1.200
7.770E-06,1.180
7.780E-06,1.160
7.790E-06,1.180
7.800E-06,1.180
