mediciones/mediciones removidas por ser diferentes/-37.5/WaveData5111.csv

#timebase=2000000(ps)
,#voltbase=1000000(mv/100)
#size=4000
-5.650E-06,0.040
-5.640E-06,0.040
-5.630E-06,0.080
-5.620E-06,0.080
-5.610E-06,0.040
-5.600E-06,0.000
-5.590E-06,0.040
-5.580E-06,0.080
-5.570E-06,0.000
-5.560E-06,0.040
-5.550E-06,0.040
-5.540E-06,0.080
-5.530E-06,0.080
-5.520E-06,0.080
-5.510E-06,0.000
-5.500E-06,0.040
-5.490E-06,0.000
-5.480E-06,0.040
-5.470E-06,0.000
-5.460E-06,0.000
-5.450E-06,0.080
-5.440E-06,0.080
-5.430E-06,0.080
-5.420E-06,0.000
-5.410E-06,0.000
-5.400E-06,0.040
-5.390E-06,0.080
-5.380E-06,0.080
-5.370E-06,0.080
-5.360E-06,0.080
-5.350E-06,-0.040
-5.340E-06,0.040
-5.330E-06,0.040
-5.320E-06,0.040
-5.310E-06,0.040
-5.300E-06,0.040
-5.290E-06,0.000
-5.280E-06,0.040
-5.270E-06,0.000
-5.260E-06,0.000
-5.250E-06,0.040
-5.240E-06,0.000
-5.230E-06,0.080
-5.220E-06,0.000
-5.210E-06,0.040
-5.200E-06,0.080
-5.190E-06,0.040
-5.180E-06,0.040
-5.170E-06,0.000
-5.160E-06,0.040
-5.150E-06,0.080
-5.140E-06,0.040
-5.130E-06,0.040
-5.120E-06,0.080
-5.110E-06,0.080
-5.100E-06,0.080
-5.090E-06,0.080
-5.080E-06,0.000
-5.070E-06,0.040
-5.060E-06,0.040
-5.050E-06,0.040
-5.040E-06,0.000
-5.030E-06,0.040
-5.020E-06,0.040
-5.010E-06,0.040
-5.000E-06,0.040
-4.990E-06,0.040
-4.980E-06,0.000
-4.970E-06,0.000
-4.960E-06,0.040
-4.950E-06,0.080
-4.940E-06,0.080
-4.930E-06,0.080
-4.920E-06,0.080
-4.910E-06,0.080
-4.900E-06,0.000
-4.890E-06,0.000
-4.880E-06,0.040
-4.870E-06,0.000
-4.860E-06,0.040
-4.850E-06,0.000
-4.840E-06,0.000
-4.830E-06,0.040
-4.820E-06,0.040
-4.810E-06,0.040
-4.800E-06,0.040
-4.790E-06,0.040
-4.780E-06,0.080
-4.770E-06,0.080
-4.760E-06,0.040
-4.750E-06,0.080
-4.740E-06,0.120
-4.730E-06,0.000
-4.720E-06,0.000
-4.710E-06,0.040
-4.700E-06,0.000
-4.690E-06,0.000
-4.680E-06,0.040
-4.670E-06,0.000
-4.660E-06,0.040
-4.650E-06,0.040
-4.640E-06,0.040
-4.630E-06,0.040
-4.620E-06,0.000
-4.610E-06,0.000
-4.600E-06,0.000
-4.590E-06,-0.040
-4.580E-06,0.040
-4.570E-06,0.040
-4.560E-06,0.040
-4.550E-06,0.040
-4.540E-06,0.040
-4.530E-06,-0.040
-4.520E-06,0.000
-4.510E-06,0.040
-4.500E-06,0.040
-4.490E-06,0.000
-4.480E-06,0.040
-4.470E-06,0.040
-4.460E-06,0.040
-4.450E-06,0.080
-4.440E-06,0.000
-4.430E-06,0.000
-4.420E-06,0.040
-4.410E-06,0.000
-4.400E-06,0.040
-4.390E-06,0.040
-4.380E-06,0.040
-4.370E-06,0.040
-4.360E-06,0.040
-4.350E-06,0.040
-4.340E-06,0.040
-4.330E-06,0.040
-4.320E-06,0.000
-4.310E-06,0.040
-4.300E-06,-0.040
-4.290E-06,0.000
-4.280E-06,0.040
-4.270E-06,0.080
-4.260E-06,0.080
-4.250E-06,0.000
-4.240E-06,0.040
-4.230E-06,0.040
-4.220E-06,0.040
-4.210E-06,0.080
-4.200E-06,0.040
-4.190E-06,0.040
-4.180E-06,0.040
-4.170E-06,0.040
-4.160E-06,0.000
-4.150E-06,0.000
-4.140E-06,0.040
-4.130E-06,0.040
-4.120E-06,0.040
-4.110E-06,0.080
-4.100E-06,0.000
-4.090E-06,0.000
-4.080E-06,0.040
-4.070E-06,0.120
-4.060E-06,0.120
-4.050E-06,0.000
-4.040E-06,0.080
-4.030E-06,0.080
-4.020E-06,0.080
-4.010E-06,0.080
-4.000E-06,0.080
-3.990E-06,0.040
-3.980E-06,0.040
-3.970E-06,0.080
-3.960E-06,0.120
-3.950E-06,0.040
-3.940E-06,0.080
-3.930E-06,0.080
-3.920E-06,0.080
-3.910E-06,0.040
-3.900E-06,0.040
-3.890E-06,0.040
-3.880E-06,0.080
-3.870E-06,0.120
-3.860E-06,0.000
-3.850E-06,0.040
-3.840E-06,0.040
-3.830E-06,-0.040
-3.820E-06,0.000
-3.810E-06,0.040
-3.800E-06,0.080
-3.790E-06,0.040
-3.780E-06,-0.040
-3.770E-06,-0.040
-3.760E-06,0.000
-3.750E-06,-0.040
-3.740E-06,0.000
-3.730E-06,-0.080
-3.720E-06,0.000
-3.710E-06,0.000
-3.700E-06,0.000
-3.690E-06,0.000
-3.680E-06,0.000
-3.670E-06,0.000
-3.660E-06,0.000
-3.650E-06,0.000
-3.640E-06,0.040
-3.630E-06,0.040
-3.620E-06,0.040
-3.610E-06,0.040
-3.600E-06,0.080
-3.590E-06,0.080
-3.580E-06,0.080
-3.570E-06,0.080
-3.560E-06,0.120
-3.550E-06,0.160
-3.540E-06,0.120
-3.530E-06,0.160
-3.520E-06,0.160
-3.510E-06,0.160
-3.500E-06,0.200
-3.490E-06,0.200
-3.480E-06,0.160
-3.470E-06,0.240
-3.460E-06,0.320
-3.450E-06,0.400
-3.440E-06,0.320
-3.430E-06,0.240
-3.420E-06,0.160
-3.410E-06,0.200
-3.400E-06,0.160
-3.390E-06,0.240
-3.380E-06,0.360
-3.370E-06,0.240
-3.360E-06,0.120
-3.350E-06,0.000
-3.340E-06,-0.080
-3.330E-06,-0.040
-3.320E-06,0.040
-3.310E-06,0.200
-3.300E-06,0.240
-3.290E-06,0.080
-3.280E-06,-0.160
-3.270E-06,-0.120
-3.260E-06,-0.080
-3.250E-06,0.000
-3.240E-06,0.400
-3.230E-06,0.240
-3.220E-06,0.200
-3.210E-06,0.040
-3.200E-06,-0.040
-3.190E-06,0.200
-3.180E-06,0.320
-3.170E-06,0.640
-3.160E-06,0.680
-3.150E-06,0.480
-3.140E-06,0.320
-3.130E-06,0.240
-3.120E-06,0.440
-3.110E-06,0.560
-3.100E-06,0.720
-3.090E-06,0.640
-3.080E-06,0.480
-3.070E-06,0.400
-3.060E-06,0.360
-3.050E-06,0.440
-3.040E-06,0.480
-3.030E-06,0.560
-3.020E-06,0.400
-3.010E-06,0.320
-3.000E-06,0.200
-2.990E-06,0.160
-2.980E-06,0.200
-2.970E-06,0.240
-2.960E-06,0.320
-2.950E-06,0.240
-2.940E-06,0.240
-2.930E-06,0.160
-2.920E-06,0.160
-2.910E-06,0.120
-2.900E-06,0.160
-2.890E-06,0.200
-2.880E-06,0.160
-2.870E-06,0.160
-2.860E-06,0.080
-2.850E-06,0.040
-2.840E-06,0.000
-2.830E-06,-0.040
-2.820E-06,0.000
-2.810E-06,0.000
-2.800E-06,0.080
-2.790E-06,0.120
-2.780E-06,0.200
-2.770E-06,0.200
-2.760E-06,0.200
-2.750E-06,0.160
-2.740E-06,0.120
-2.730E-06,0.160
-2.720E-06,0.240
-2.710E-06,0.320
-2.700E-06,0.280
-2.690E-06,0.200
-2.680E-06,0.240
-2.670E-06,0.320
-2.660E-06,0.280
-2.650E-06,0.360
-2.640E-06,0.280
-2.630E-06,0.320
-2.620E-06,0.200
-2.610E-06,0.120
-2.600E-06,0.200
-2.590E-06,0.200
-2.580E-06,0.320
-2.570E-06,0.360
-2.560E-06,0.320
-2.550E-06,0.240
-2.540E-06,0.120
-2.530E-06,0.200
-2.520E-06,0.280
-2.510E-06,0.480
-2.500E-06,0.440
-2.490E-06,0.280
-2.480E-06,0.000
-2.470E-06,-0.160
-2.460E-06,-0.040
-2.450E-06,0.240
-2.440E-06,0.640
-2.430E-06,0.720
-2.420E-06,0.600
-2.410E-06,0.280
-2.400E-06,0.080
-2.390E-06,0.040
-2.380E-06,0.120
-2.370E-06,0.480
-2.360E-06,0.600
-2.350E-06,0.560
-2.340E-06,0.360
-2.330E-06,0.120
-2.320E-06,0.080
-2.310E-06,0.200
-2.300E-06,0.360
-2.290E-06,0.440
-2.280E-06,0.400
-2.270E-06,0.360
-2.260E-06,0.200
-2.250E-06,0.200
-2.240E-06,0.120
-2.230E-06,0.160
-2.220E-06,0.160
-2.210E-06,0.120
-2.200E-06,0.080
-2.190E-06,0.120
-2.180E-06,0.160
-2.170E-06,0.200
-2.160E-06,0.200
-2.150E-06,0.160
-2.140E-06,0.000
-2.130E-06,0.000
-2.120E-06,0.000
-2.110E-06,0.000
-2.100E-06,0.040
-2.090E-06,0.040
-2.080E-06,0.040
-2.070E-06,0.080
-2.060E-06,0.080
-2.050E-06,0.120
-2.040E-06,0.160
-2.030E-06,0.200
-2.020E-06,0.160
-2.010E-06,0.120
-2.000E-06,0.120
-1.990E-06,0.200
-1.980E-06,0.280
-1.970E-06,0.360
-1.960E-06,0.320
-1.950E-06,0.320
-1.940E-06,0.280
-1.930E-06,0.320
-1.920E-06,0.320
-1.910E-06,0.400
-1.900E-06,0.440
-1.890E-06,0.440
-1.880E-06,0.440
-1.870E-06,0.400
-1.860E-06,0.360
-1.850E-06,0.400
-1.840E-06,0.400
-1.830E-06,0.440
-1.820E-06,0.480
-1.810E-06,0.480
-1.800E-06,0.440
-1.790E-06,0.400
-1.780E-06,0.480
-1.770E-06,0.480
-1.760E-06,0.440
-1.750E-06,0.480
-1.740E-06,0.440
-1.730E-06,0.480
-1.720E-06,0.320
-1.710E-06,0.360
-1.700E-06,0.200
-1.690E-06,0.280
-1.680E-06,0.320
-1.670E-06,0.560
-1.660E-06,0.680
-1.650E-06,0.840
-1.640E-06,0.640
-1.630E-06,0.600
-1.620E-06,0.520
-1.610E-06,0.520
-1.600E-06,0.680
-1.590E-06,0.720
-1.580E-06,0.880
-1.570E-06,0.800
-1.560E-06,0.840
-1.550E-06,0.760
-1.540E-06,0.760
-1.530E-06,0.720
-1.520E-06,0.760
-1.510E-06,0.840
-1.500E-06,0.880
-1.490E-06,0.880
-1.480E-06,0.880
-1.470E-06,0.800
-1.460E-06,0.680
-1.450E-06,0.640
-1.440E-06,0.800
-1.430E-06,0.760
-1.420E-06,0.960
-1.410E-06,1.000
-1.400E-06,1.080
-1.390E-06,1.200
-1.380E-06,1.280
-1.370E-06,1.560
-1.360E-06,1.560
-1.350E-06,1.720
-1.340E-06,1.560
-1.330E-06,1.520
-1.320E-06,1.440
-1.310E-06,1.200
-1.300E-06,1.360
-1.290E-06,1.120
-1.280E-06,1.240
-1.270E-06,1.040
-1.260E-06,1.240
-1.250E-06,1.040
-1.240E-06,1.080
-1.230E-06,1.160
-1.220E-06,1.000
-1.210E-06,0.920
-1.200E-06,0.760
-1.190E-06,0.720
-1.180E-06,0.840
-1.170E-06,0.840
-1.160E-06,0.880
-1.150E-06,0.680
-1.140E-06,0.480
-1.130E-06,0.440
-1.120E-06,0.400
-1.110E-06,0.440
-1.100E-06,0.560
-1.090E-06,0.560
-1.080E-06,0.520
-1.070E-06,0.400
-1.060E-06,0.240
-1.050E-06,0.160
-1.040E-06,0.160
-1.030E-06,0.240
-1.020E-06,0.200
-1.010E-06,0.240
-1.000E-06,0.160
-9.900E-07,0.120
-9.800E-07,0.160
-9.700E-07,0.120
-9.600E-07,0.120
-9.500E-07,0.040
-9.400E-07,0.080
-9.300E-07,-0.040
-9.200E-07,0.000
-9.100E-07,0.080
-9.000E-07,0.080
-8.900E-07,0.080
-8.800E-07,0.120
-8.700E-07,0.080
-8.600E-07,0.120
-8.500E-07,0.160
-8.400E-07,0.200
-8.300E-07,0.240
-8.200E-07,0.200
-8.100E-07,0.240
-8.000E-07,0.320
-7.900E-07,0.400
-7.800E-07,0.440
-7.700E-07,0.400
-7.600E-07,0.320
-7.500E-07,0.280
-7.400E-07,0.160
-7.300E-07,0.120
-7.200E-07,0.200
-7.100E-07,0.240
-7.000E-07,0.240
-6.900E-07,0.200
-6.800E-07,0.160
-6.700E-07,0.120
-6.600E-07,0.080
-6.500E-07,0.160
-6.400E-07,0.240
-6.300E-07,0.240
-6.200E-07,0.320
-6.100E-07,0.400
-6.000E-07,0.400
-5.900E-07,0.480
-5.800E-07,0.560
-5.700E-07,0.600
-5.600E-07,0.680
-5.500E-07,0.520
-5.400E-07,0.520
-5.300E-07,0.280
-5.200E-07,0.320
-5.100E-07,0.320
-5.000E-07,0.440
-4.900E-07,0.680
-4.800E-07,0.680
-4.700E-07,0.640
-4.600E-07,0.480
-4.500E-07,0.240
-4.400E-07,0.120
-4.300E-07,0.240
-4.200E-07,0.520
-4.100E-07,0.640
-4.000E-07,0.640
-3.900E-07,0.640
-3.800E-07,0.640
-3.700E-07,0.760
-3.600E-07,0.840
-3.500E-07,1.080
-3.400E-07,1.320
-3.300E-07,1.360
-3.200E-07,1.480
-3.100E-07,1.440
-3.000E-07,1.360
-2.900E-07,1.320
-2.800E-07,1.200
-2.700E-07,1.120
-2.600E-07,1.040
-2.500E-07,1.080
-2.400E-07,1.000
-2.300E-07,1.080
-2.200E-07,1.080
-2.100E-07,0.960
-2.000E-07,0.920
-1.900E-07,0.880
-1.800E-07,0.920
-1.700E-07,0.960
-1.600E-07,1.120
-1.500E-07,1.200
-1.400E-07,1.120
-1.300E-07,1.040
-1.200E-07,1.000
-1.100E-07,1.040
-1.000E-07,1.000
-9.000E-08,1.120
-8.000E-08,0.960
-7.000E-08,0.920
-6.000E-08,0.920
-5.000E-08,0.880
-4.000E-08,0.840
-3.000E-08,0.440
-2.000E-08,0.960
-1.000E-08,-0.760
0.000E+00,0.040
1.000E-08,-1.120
2.000E-08,0.320
3.000E-08,0.160
4.000E-08,2.080
5.000E-08,1.320
6.000E-08,1.760
7.000E-08,0.640
8.000E-08,-0.080
9.000E-08,-0.520
1.000E-07,-0.720
1.100E-07,0.320
1.200E-07,1.080
1.300E-07,1.320
1.400E-07,1.480
1.500E-07,0.480
1.600E-07,-0.200
1.700E-07,-0.480
1.800E-07,0.120
1.900E-07,1.000
2.000E-07,1.520
2.100E-07,1.280
2.200E-07,0.840
2.300E-07,0.040
2.400E-07,-0.280
2.500E-07,-0.160
2.600E-07,0.080
2.700E-07,0.440
2.800E-07,0.600
2.900E-07,0.440
3.000E-07,0.200
3.100E-07,0.040
3.200E-07,-0.040
3.300E-07,0.000
3.400E-07,0.000
3.500E-07,-0.040
3.600E-07,0.000
3.700E-07,0.000
3.800E-07,-0.080
3.900E-07,-0.200
4.000E-07,-0.200
4.100E-07,-0.320
4.200E-07,-0.240
4.300E-07,-0.120
4.400E-07,0.000
4.500E-07,0.000
4.600E-07,-0.160
4.700E-07,-0.320
4.800E-07,-0.320
4.900E-07,-0.440
5.000E-07,-0.080
5.100E-07,-0.200
5.200E-07,0.000
5.300E-07,0.120
5.400E-07,0.320
5.500E-07,0.600
5.600E-07,0.600
5.700E-07,0.720
5.800E-07,0.600
5.900E-07,0.560
6.000E-07,0.560
6.100E-07,0.680
6.200E-07,0.520
6.300E-07,0.720
6.400E-07,0.480
6.500E-07,0.320
6.600E-07,0.080
6.700E-07,-0.680
6.800E-07,-0.800
6.900E-07,-1.000
7.000E-07,-0.800
7.100E-07,-0.320
7.200E-07,-0.120
7.300E-07,0.080
7.400E-07,-0.160
7.500E-07,-0.320
7.600E-07,-0.320
7.700E-07,-0.280
7.800E-07,0.080
7.900E-07,0.440
8.000E-07,0.440
8.100E-07,0.320
8.200E-07,0.080
8.300E-07,-0.040
8.400E-07,0.000
8.500E-07,0.080
8.600E-07,0.240
8.700E-07,0.160
8.800E-07,-0.080
8.900E-07,-0.360
9.000E-07,-0.520
9.100E-07,-0.640
9.200E-07,-0.480
9.300E-07,-0.440
9.400E-07,-0.240
9.500E-07,-0.240
9.600E-07,-0.240
9.700E-07,-0.200
9.800E-07,-0.080
9.900E-07,0.000
1.000E-06,0.160
1.010E-06,0.200
1.020E-06,0.400
1.030E-06,0.480
1.040E-06,0.600
1.050E-06,0.520
1.060E-06,0.600
1.070E-06,0.440
1.080E-06,0.600
1.090E-06,0.480
1.100E-06,0.560
1.110E-06,0.760
1.120E-06,0.320
1.130E-06,-0.040
1.140E-06,-0.160
1.150E-06,-0.640
1.160E-06,-0.240
1.170E-06,-0.200
1.180E-06,-0.120
1.190E-06,-0.160
1.200E-06,-0.600
1.210E-06,-0.640
1.220E-06,-0.640
1.230E-06,-0.480
1.240E-06,0.000
1.250E-06,-0.040
1.260E-06,-0.040
1.270E-06,-0.160
1.280E-06,-0.280
1.290E-06,-0.120
1.300E-06,0.080
1.310E-06,0.160
1.320E-06,0.320
1.330E-06,0.360
1.340E-06,0.160
1.350E-06,0.120
1.360E-06,0.040
1.370E-06,-0.080
1.380E-06,-0.040
1.390E-06,-0.040
1.400E-06,-0.160
1.410E-06,-0.240
1.420E-06,-0.240
1.430E-06,-0.320
1.440E-06,-0.360
1.450E-06,-0.360
1.460E-06,-0.320
1.470E-06,-0.360
1.480E-06,-0.280
1.490E-06,-0.240
1.500E-06,-0.160
1.510E-06,-0.120
1.520E-06,-0.120
1.530E-06,-0.160
1.540E-06,-0.040
1.550E-06,0.000
1.560E-06,0.000
1.570E-06,0.040
1.580E-06,0.000
1.590E-06,0.000
1.600E-06,0.000
1.610E-06,0.120
1.620E-06,0.200
1.630E-06,0.360
1.640E-06,0.440
1.650E-06,0.160
1.660E-06,0.240
1.670E-06,0.080
1.680E-06,0.040
1.690E-06,0.280
1.700E-06,0.320
1.710E-06,0.640
1.720E-06,0.680
1.730E-06,0.520
1.740E-06,0.520
1.750E-06,0.440
1.760E-06,0.520
1.770E-06,0.680
1.780E-06,0.680
1.790E-06,0.720
1.800E-06,0.640
1.810E-06,0.520
1.820E-06,0.520
1.830E-06,0.480
1.840E-06,0.520
1.850E-06,0.560
1.860E-06,0.560
1.870E-06,0.440
1.880E-06,0.360
1.890E-06,0.320
1.900E-06,0.320
1.910E-06,0.160
1.920E-06,0.160
1.930E-06,0.320
1.940E-06,-0.240
1.950E-06,0.000
1.960E-06,-0.040
1.970E-06,-0.160
1.980E-06,0.480
1.990E-06,0.880
2.000E-06,1.400
2.010E-06,1.480
2.020E-06,1.160
2.030E-06,1.000
2.040E-06,0.640
2.050E-06,0.640
2.060E-06,0.960
2.070E-06,1.120
2.080E-06,1.280
2.090E-06,1.120
2.100E-06,0.800
2.110E-06,0.480
2.120E-06,0.360
2.130E-06,0.240
2.140E-06,0.320
2.150E-06,0.240
2.160E-06,0.160
2.170E-06,-0.040
2.180E-06,-0.320
2.190E-06,-0.480
2.200E-06,-0.720
2.210E-06,-0.880
2.220E-06,-0.960
2.230E-06,-1.040
2.240E-06,-0.960
2.250E-06,-0.880
2.260E-06,-0.920
2.270E-06,-0.880
2.280E-06,-0.880
2.290E-06,-0.880
2.300E-06,-0.760
2.310E-06,-0.680
2.320E-06,-0.600
2.330E-06,-0.480
2.340E-06,-0.320
2.350E-06,-0.280
2.360E-06,-0.200
2.370E-06,-0.040
2.380E-06,0.000
2.390E-06,0.120
2.400E-06,0.200
2.410E-06,0.160
2.420E-06,0.160
2.430E-06,0.120
2.440E-06,0.120
2.450E-06,0.160
2.460E-06,0.120
2.470E-06,0.160
2.480E-06,0.080
2.490E-06,0.080
2.500E-06,0.080
2.510E-06,0.080
2.520E-06,0.080
2.530E-06,0.120
2.540E-06,0.080
2.550E-06,0.080
2.560E-06,0.040
2.570E-06,0.000
2.580E-06,0.000
2.590E-06,0.000
2.600E-06,0.000
2.610E-06,-0.040
2.620E-06,-0.040
2.630E-06,-0.080
2.640E-06,-0.080
2.650E-06,-0.040
2.660E-06,-0.080
2.670E-06,-0.120
2.680E-06,-0.120
2.690E-06,-0.080
2.700E-06,-0.120
2.710E-06,-0.200
2.720E-06,-0.200
2.730E-06,-0.240
2.740E-06,-0.240
2.750E-06,-0.240
2.760E-06,-0.280
2.770E-06,-0.280
2.780E-06,-0.240
2.790E-06,-0.240
2.800E-06,-0.200
2.810E-06,-0.200
2.820E-06,-0.200
2.830E-06,-0.160
2.840E-06,-0.200
2.850E-06,-0.320
2.860E-06,-0.400
2.870E-06,-0.480
2.880E-06,-0.520
2.890E-06,-0.440
2.900E-06,-0.480
2.910E-06,-0.440
2.920E-06,-0.480
2.930E-06,-0.640
2.940E-06,-0.720
2.950E-06,-0.960
2.960E-06,-0.640
2.970E-06,-0.720
2.980E-06,-0.480
2.990E-06,-0.560
3.000E-06,-0.880
3.010E-06,-1.040
3.020E-06,-1.320
3.030E-06,-1.480
3.040E-06,-1.520
3.050E-06,-1.760
3.060E-06,-1.800
3.070E-06,-1.920
3.080E-06,-1.440
3.090E-06,-0.880
3.100E-06,-0.080
3.110E-06,0.880
3.120E-06,1.480
3.130E-06,1.840
3.140E-06,2.000
3.150E-06,2.160
3.160E-06,2.200
3.170E-06,2.320
3.180E-06,2.600
3.190E-06,2.640
3.200E-06,2.600
3.210E-06,2.600
3.220E-06,2.640
3.230E-06,2.200
3.240E-06,1.400
3.250E-06,0.480
3.260E-06,-0.280
3.270E-06,-0.840
3.280E-06,-0.720
3.290E-06,-0.600
3.300E-06,-0.520
3.310E-06,-0.720
3.320E-06,-1.280
3.330E-06,-1.640
3.340E-06,-1.680
3.350E-06,-1.360
3.360E-06,-1.040
3.370E-06,-0.720
3.380E-06,-0.640
3.390E-06,-0.640
3.400E-06,-0.560
3.410E-06,-0.080
3.420E-06,0.120
3.430E-06,0.480
3.440E-06,0.480
3.450E-06,-0.120
3.460E-06,-0.360
3.470E-06,-0.600
3.480E-06,-0.360
3.490E-06,0.360
3.500E-06,0.600
3.510E-06,0.720
3.520E-06,0.160
3.530E-06,-0.560
3.540E-06,-0.960
3.550E-06,-0.880
3.560E-06,-0.440
3.570E-06,-0.040
3.580E-06,0.080
3.590E-06,0.000
3.600E-06,-0.360
3.610E-06,-0.400
3.620E-06,-0.240
3.630E-06,0.080
3.640E-06,0.360
3.650E-06,0.640
3.660E-06,0.680
3.670E-06,0.600
3.680E-06,0.640
3.690E-06,0.600
3.700E-06,0.640
3.710E-06,0.600
3.720E-06,0.520
3.730E-06,0.520
3.740E-06,0.320
3.750E-06,0.200
3.760E-06,0.000
3.770E-06,-0.320
3.780E-06,-0.520
3.790E-06,-0.680
3.800E-06,-0.800
3.810E-06,-0.840
3.820E-06,-0.880
3.830E-06,-0.920
3.840E-06,-0.920
3.850E-06,-0.960
3.860E-06,-0.880
3.870E-06,-0.840
3.880E-06,-0.760
3.890E-06,-0.680
3.900E-06,-0.640
3.910E-06,-0.600
3.920E-06,-0.520
3.930E-06,-0.520
3.940E-06,-0.440
3.950E-06,-0.240
3.960E-06,0.040
3.970E-06,0.240
3.980E-06,0.440
3.990E-06,0.480
4.000E-06,0.400
4.010E-06,0.320
4.020E-06,0.320
4.030E-06,0.400
4.040E-06,0.480
4.050E-06,0.560
4.060E-06,0.680
4.070E-06,0.560
4.080E-06,0.680
4.090E-06,0.760
4.100E-06,0.640
4.110E-06,0.720
4.120E-06,0.600
4.130E-06,0.520
4.140E-06,0.480
4.150E-06,0.600
4.160E-06,0.640
4.170E-06,0.840
4.180E-06,0.840
4.190E-06,0.920
4.200E-06,-0.440
4.210E-06,-0.480
4.220E-06,-1.360
4.230E-06,-0.600
4.240E-06,0.160
4.250E-06,1.760
4.260E-06,1.680
4.270E-06,1.040
4.280E-06,0.000
4.290E-06,-1.160
4.300E-06,-0.440
4.310E-06,0.400
4.320E-06,1.760
4.330E-06,2.120
4.340E-06,1.640
4.350E-06,1.040
4.360E-06,0.240
4.370E-06,0.040
4.380E-06,0.160
4.390E-06,0.040
4.400E-06,-0.160
4.410E-06,-0.840
4.420E-06,-1.200
4.430E-06,-1.320
4.440E-06,-0.760
4.450E-06,-0.080
4.460E-06,0.400
4.470E-06,0.400
4.480E-06,-0.360
4.490E-06,-1.120
4.500E-06,-1.480
4.510E-06,-1.320
4.520E-06,-0.680
4.530E-06,-0.280
4.540E-06,-0.080
4.550E-06,-0.280
4.560E-06,-0.520
4.570E-06,-0.680
4.580E-06,-0.640
4.590E-06,-0.400
4.600E-06,-0.160
4.610E-06,-0.080
4.620E-06,-0.040
4.630E-06,-0.080
4.640E-06,-0.080
4.650E-06,-0.160
4.660E-06,-0.240
4.670E-06,-0.320
4.680E-06,-0.440
4.690E-06,-0.520
4.700E-06,-0.640
4.710E-06,-0.760
4.720E-06,-1.000
4.730E-06,-1.280
4.740E-06,-1.520
4.750E-06,-1.680
4.760E-06,-2.000
4.770E-06,-1.880
4.780E-06,-2.120
4.790E-06,-2.160
4.800E-06,-2.360
4.810E-06,-2.240
4.820E-06,-2.120
4.830E-06,-1.800
4.840E-06,-1.400
4.850E-06,-1.000
4.860E-06,-0.640
4.870E-06,-0.320
4.880E-06,-0.240
4.890E-06,-0.040
4.900E-06,0.320
4.910E-06,-0.640
4.920E-06,0.200
4.930E-06,-0.160
4.940E-06,0.480
4.950E-06,1.520
4.960E-06,1.600
4.970E-06,1.880
4.980E-06,1.240
4.990E-06,0.480
5.000E-06,0.200
5.010E-06,-0.200
5.020E-06,0.520
5.030E-06,1.000
5.040E-06,1.440
5.050E-06,1.920
5.060E-06,1.280
5.070E-06,0.680
5.080E-06,-0.280
5.090E-06,-0.880
5.100E-06,-0.680
5.110E-06,-0.280
5.120E-06,0.200
5.130E-06,0.280
5.140E-06,-0.160
5.150E-06,-0.800
5.160E-06,-1.480
5.170E-06,-1.800
5.180E-06,-1.760
5.190E-06,-1.640
5.200E-06,-1.480
5.210E-06,-1.520
5.220E-06,-1.680
5.230E-06,-2.000
5.240E-06,-2.120
5.250E-06,-2.200
5.260E-06,-2.160
5.270E-06,-1.920
5.280E-06,-1.800
5.290E-06,-1.640
5.300E-06,-1.680
5.310E-06,-1.680
5.320E-06,-1.680
5.330E-06,-1.600
5.340E-06,-1.440
5.350E-06,-1.240
5.360E-06,-1.120
5.370E-06,-0.960
5.380E-06,-0.960
5.390E-06,-1.040
5.400E-06,-1.040
5.410E-06,-1.080
5.420E-06,-1.000
5.430E-06,-0.960
5.440E-06,-0.880
5.450E-06,-0.840
5.460E-06,-0.840
5.470E-06,-0.960
5.480E-06,-0.880
5.490E-06,-0.840
5.500E-06,-0.920
5.510E-06,-1.040
5.520E-06,-0.960
5.530E-06,-1.000
5.540E-06,-1.040
5.550E-06,-0.880
5.560E-06,-1.120
5.570E-06,-0.840
5.580E-06,-0.960
5.590E-06,-0.800
5.600E-06,-0.600
5.610E-06,-0.360
5.620E-06,-0.200
5.630E-06,0.000
5.640E-06,0.080
5.650E-06,0.200
5.660E-06,0.200
5.670E-06,0.120
5.680E-06,0.240
5.690E-06,0.360
5.700E-06,0.360
5.710E-06,0.400
5.720E-06,0.320
5.730E-06,0.360
5.740E-06,0.400
5.750E-06,0.360
5.760E-06,0.360
5.770E-06,0.200
5.780E-06,0.080
5.790E-06,-0.080
5.800E-06,-0.240
5.810E-06,-0.320
5.820E-06,-0.400
5.830E-06,-0.600
5.840E-06,-0.720
5.850E-06,-0.960
5.860E-06,-1.080
5.870E-06,-1.160
5.880E-06,-1.320
5.890E-06,-1.480
5.900E-06,-1.640
5.910E-06,-1.760
5.920E-06,-1.760
5.930E-06,-1.720
5.940E-06,-1.840
5.950E-06,-1.800
5.960E-06,-1.720
5.970E-06,-1.680
5.980E-06,-1.520
5.990E-06,-1.400
6.000E-06,-1.280
6.010E-06,-1.200
6.020E-06,-1.080
6.030E-06,-0.960
6.040E-06,-0.840
6.050E-06,-0.720
6.060E-06,-0.680
6.070E-06,-0.680
6.080E-06,-0.640
6.090E-06,-0.640
6.100E-06,-0.680
6.110E-06,-0.640
6.120E-06,-0.520
6.130E-06,-0.480
6.140E-06,-0.520
6.150E-06,-0.520
6.160E-06,-0.520
6.170E-06,-0.520
6.180E-06,-0.600
6.190E-06,-0.640
6.200E-06,-0.600
6.210E-06,-0.680
