mediciones/6-26/50.0/WaveData59335.csv

#timebase=2000000(ps)
,#voltbase=500000(mv/100)
#size=4000
-8.150E-06,0.060
-8.140E-06,0.020
-8.130E-06,0.020
-8.120E-06,0.040
-8.110E-06,0.060
-8.100E-06,0.080
-8.090E-06,0.060
-8.080E-06,0.040
-8.070E-06,0.040
-8.060E-06,0.040
-8.050E-06,0.020
-8.040E-06,0.060
-8.030E-06,0.060
-8.020E-06,0.040
-8.010E-06,0.040
-8.000E-06,0.040
-7.990E-06,0.040
-7.980E-06,0.060
-7.970E-06,0.020
-7.960E-06,0.060
-7.950E-06,0.020
-7.940E-06,0.060
-7.930E-06,0.040
-7.920E-06,0.060
-7.910E-06,0.060
-7.900E-06,0.080
-7.890E-06,0.040
-7.880E-06,0.040
-7.870E-06,0.040
-7.860E-06,0.040
-7.850E-06,0.040
-7.840E-06,0.040
-7.830E-06,0.060
-7.820E-06,0.060
-7.810E-06,0.060
-7.800E-06,0.080
-7.790E-06,0.080
-7.780E-06,0.040
-7.770E-06,0.020
-7.760E-06,0.060
-7.750E-06,0.060
-7.740E-06,0.060
-7.730E-06,0.040
-7.720E-06,0.060
-7.710E-06,0.060
-7.700E-06,0.080
-7.690E-06,0.020
-7.680E-06,0.020
-7.670E-06,0.040
-7.660E-06,0.060
-7.650E-06,0.060
-7.640E-06,0.060
-7.630E-06,0.060
-7.620E-06,0.040
-7.610E-06,0.040
-7.600E-06,0.060
-7.590E-06,0.040
-7.580E-06,0.060
-7.570E-06,0.080
-7.560E-06,0.060
-7.550E-06,0.060
-7.540E-06,0.060
-7.530E-06,0.060
-7.520E-06,0.080
-7.510E-06,0.060
-7.500E-06,0.060
-7.490E-06,0.080
-7.480E-06,0.040
-7.470E-06,0.040
-7.460E-06,0.040
-7.450E-06,0.040
-7.440E-06,0.040
-7.430E-06,0.060
-7.420E-06,0.060
-7.410E-06,0.060
-7.400E-06,0.040
-7.390E-06,0.060
-7.380E-06,0.040
-7.370E-06,0.040
-7.360E-06,0.080
-7.350E-06,0.060
-7.340E-06,0.060
-7.330E-06,0.020
-7.320E-06,0.020
-7.310E-06,0.040
-7.300E-06,0.060
-7.290E-06,0.080
-7.280E-06,0.080
-7.270E-06,0.060
-7.260E-06,0.060
-7.250E-06,0.020
-7.240E-06,0.040
-7.230E-06,0.060
-7.220E-06,0.040
-7.210E-06,0.040
-7.200E-06,0.060
-7.190E-06,0.080
-7.180E-06,0.040
-7.170E-06,0.040
-7.160E-06,0.060
-7.150E-06,0.040
-7.140E-06,0.080
-7.130E-06,0.060
-7.120E-06,0.020
-7.110E-06,0.060
-7.100E-06,0.060
-7.090E-06,0.060
-7.080E-06,0.080
-7.070E-06,0.060
-7.060E-06,0.080
-7.050E-06,0.040
-7.040E-06,0.060
-7.030E-06,0.080
-7.020E-06,0.040
-7.010E-06,0.040
-7.000E-06,0.060
-6.990E-06,0.080
-6.980E-06,0.040
-6.970E-06,0.020
-6.960E-06,0.040
-6.950E-06,0.060
-6.940E-06,0.040
-6.930E-06,0.060
-6.920E-06,0.060
-6.910E-06,0.040
-6.900E-06,0.060
-6.890E-06,0.040
-6.880E-06,0.060
-6.870E-06,0.060
-6.860E-06,0.060
-6.850E-06,0.040
-6.840E-06,0.060
-6.830E-06,0.040
-6.820E-06,0.060
-6.810E-06,0.040
-6.800E-06,0.060
-6.790E-06,0.040
-6.780E-06,0.060
-6.770E-06,0.040
-6.760E-06,0.080
-6.750E-06,0.060
-6.740E-06,0.060
-6.730E-06,0.060
-6.720E-06,0.080
-6.710E-06,0.040
-6.700E-06,0.080
-6.690E-06,0.060
-6.680E-06,0.020
-6.670E-06,0.020
-6.660E-06,0.060
-6.650E-06,0.080
-6.640E-06,0.060
-6.630E-06,0.060
-6.620E-06,0.060
-6.610E-06,0.060
-6.600E-06,0.040
-6.590E-06,0.040
-6.580E-06,0.100
-6.570E-06,0.040
-6.560E-06,0.040
-6.550E-06,0.080
-6.540E-06,0.060
-6.530E-06,0.020
-6.520E-06,0.020
-6.510E-06,0.060
-6.500E-06,0.040
-6.490E-06,0.080
-6.480E-06,0.040
-6.470E-06,0.080
-6.460E-06,0.060
-6.450E-06,0.040
-6.440E-06,0.040
-6.430E-06,0.080
-6.420E-06,0.060
-6.410E-06,0.040
-6.400E-06,0.060
-6.390E-06,0.040
-6.380E-06,0.020
-6.370E-06,0.040
-6.360E-06,0.080
-6.350E-06,0.080
-6.340E-06,0.040
-6.330E-06,0.040
-6.320E-06,0.040
-6.310E-06,0.080
-6.300E-06,0.060
-6.290E-06,0.020
-6.280E-06,0.020
-6.270E-06,0.060
-6.260E-06,0.060
-6.250E-06,0.080
-6.240E-06,0.060
-6.230E-06,0.040
-6.220E-06,0.040
-6.210E-06,0.060
-6.200E-06,0.060
-6.190E-06,0.040
-6.180E-06,0.040
-6.170E-06,0.040
-6.160E-06,0.040
-6.150E-06,0.040
-6.140E-06,0.080
-6.130E-06,0.040
-6.120E-06,0.060
-6.110E-06,0.080
-6.100E-06,0.060
-6.090E-06,0.040
-6.080E-06,0.040
-6.070E-06,0.040
-6.060E-06,0.020
-6.050E-06,0.040
-6.040E-06,0.080
-6.030E-06,0.060
-6.020E-06,0.060
-6.010E-06,0.040
-6.000E-06,0.020
-5.990E-06,0.020
-5.980E-06,0.060
-5.970E-06,0.020
-5.960E-06,0.060
-5.950E-06,0.060
-5.940E-06,0.080
-5.930E-06,0.040
-5.920E-06,0.040
-5.910E-06,0.040
-5.900E-06,0.040
-5.890E-06,0.040
-5.880E-06,0.060
-5.870E-06,0.060
-5.860E-06,0.060
-5.850E-06,0.080
-5.840E-06,0.040
-5.830E-06,0.060
-5.820E-06,0.040
-5.810E-06,0.080
-5.800E-06,0.060
-5.790E-06,0.040
-5.780E-06,0.060
-5.770E-06,0.060
-5.760E-06,0.040
-5.750E-06,0.040
-5.740E-06,0.060
-5.730E-06,0.060
-5.720E-06,0.040
-5.710E-06,0.080
-5.700E-06,0.060
-5.690E-06,0.060
-5.680E-06,0.020
-5.670E-06,0.060
-5.660E-06,0.040
-5.650E-06,0.080
-5.640E-06,0.040
-5.630E-06,0.040
-5.620E-06,0.040
-5.610E-06,0.040
-5.600E-06,0.080
-5.590E-06,0.060
-5.580E-06,0.040
-5.570E-06,0.060
-5.560E-06,0.040
-5.550E-06,0.040
-5.540E-06,0.060
-5.530E-06,0.060
-5.520E-06,0.080
-5.510E-06,0.060
-5.500E-06,0.020
-5.490E-06,0.060
-5.480E-06,0.020
-5.470E-06,0.060
-5.460E-06,0.080
-5.450E-06,0.040
-5.440E-06,0.040
-5.430E-06,0.060
-5.420E-06,0.040
-5.410E-06,0.080
-5.400E-06,0.040
-5.390E-06,0.060
-5.380E-06,0.080
-5.370E-06,0.040
-5.360E-06,0.040
-5.350E-06,0.060
-5.340E-06,0.040
-5.330E-06,0.040
-5.320E-06,0.020
-5.310E-06,0.060
-5.300E-06,0.080
-5.290E-06,0.040
-5.280E-06,0.040
-5.270E-06,0.060
-5.260E-06,0.060
-5.250E-06,0.080
-5.240E-06,0.060
-5.230E-06,0.020
-5.220E-06,0.040
-5.210E-06,0.060
-5.200E-06,0.060
-5.190E-06,0.020
-5.180E-06,0.040
-5.170E-06,0.040
-5.160E-06,0.040
-5.150E-06,0.040
-5.140E-06,0.080
-5.130E-06,0.060
-5.120E-06,0.040
-5.110E-06,0.060
-5.100E-06,0.020
-5.090E-06,0.020
-5.080E-06,0.060
-5.070E-06,0.060
-5.060E-06,0.020
-5.050E-06,0.020
-5.040E-06,0.040
-5.030E-06,0.020
-5.020E-06,0.060
-5.010E-06,0.060
-5.000E-06,0.080
-4.990E-06,0.020
-4.980E-06,0.020
-4.970E-06,0.060
-4.960E-06,0.080
-4.950E-06,0.080
-4.940E-06,0.080
-4.930E-06,0.040
-4.920E-06,0.040
-4.910E-06,0.060
-4.900E-06,0.040
-4.890E-06,0.060
-4.880E-06,0.020
-4.870E-06,0.040
-4.860E-06,0.060
-4.850E-06,0.060
-4.840E-06,0.020
-4.830E-06,0.040
-4.820E-06,0.060
-4.810E-06,0.020
-4.800E-06,0.040
-4.790E-06,0.060
-4.780E-06,0.040
-4.770E-06,0.040
-4.760E-06,0.080
-4.750E-06,0.020
-4.740E-06,0.040
-4.730E-06,0.060
-4.720E-06,0.080
-4.710E-06,0.040
-4.700E-06,0.060
-4.690E-06,0.060
-4.680E-06,0.080
-4.670E-06,0.040
-4.660E-06,0.080
-4.650E-06,0.040
-4.640E-06,0.040
-4.630E-06,0.060
-4.620E-06,0.080
-4.610E-06,0.080
-4.600E-06,0.080
-4.590E-06,0.040
-4.580E-06,0.060
-4.570E-06,0.040
-4.560E-06,0.060
-4.550E-06,0.040
-4.540E-06,0.060
-4.530E-06,0.080
-4.520E-06,0.040
-4.510E-06,0.080
-4.500E-06,0.040
-4.490E-06,0.040
-4.480E-06,0.060
-4.470E-06,0.060
-4.460E-06,0.020
-4.450E-06,0.040
-4.440E-06,0.060
-4.430E-06,0.040
-4.420E-06,0.020
-4.410E-06,0.060
-4.400E-06,0.040
-4.390E-06,0.060
-4.380E-06,0.080
-4.370E-06,0.060
-4.360E-06,0.060
-4.350E-06,0.080
-4.340E-06,0.080
-4.330E-06,0.080
-4.320E-06,0.040
-4.310E-06,0.040
-4.300E-06,0.040
-4.290E-06,0.040
-4.280E-06,0.060
-4.270E-06,0.040
-4.260E-06,0.060
-4.250E-06,0.080
-4.240E-06,0.040
-4.230E-06,0.060
-4.220E-06,0.040
-4.210E-06,0.040
-4.200E-06,0.060
-4.190E-06,0.040
-4.180E-06,0.040
-4.170E-06,0.040
-4.160E-06,0.060
-4.150E-06,0.080
-4.140E-06,0.060
-4.130E-06,0.020
-4.120E-06,0.060
-4.110E-06,0.040
-4.100E-06,0.020
-4.090E-06,0.040
-4.080E-06,0.040
-4.070E-06,0.040
-4.060E-06,0.060
-4.050E-06,0.060
-4.040E-06,0.040
-4.030E-06,0.060
-4.020E-06,0.040
-4.010E-06,0.040
-4.000E-06,0.040
-3.990E-06,0.040
-3.980E-06,0.040
-3.970E-06,0.040
-3.960E-06,0.080
-3.950E-06,0.040
-3.940E-06,0.040
-3.930E-06,0.060
-3.920E-06,0.060
-3.910E-06,0.040
-3.900E-06,0.060
-3.890E-06,0.060
-3.880E-06,0.060
-3.870E-06,0.080
-3.860E-06,0.060
-3.850E-06,0.040
-3.840E-06,0.060
-3.830E-06,0.040
-3.820E-06,0.060
-3.810E-06,0.060
-3.800E-06,0.060
-3.790E-06,0.060
-3.780E-06,0.060
-3.770E-06,0.080
-3.760E-06,0.060
-3.750E-06,0.060
-3.740E-06,0.060
-3.730E-06,0.060
-3.720E-06,0.080
-3.710E-06,0.060
-3.700E-06,0.080
-3.690E-06,0.040
-3.680E-06,0.040
-3.670E-06,0.040
-3.660E-06,0.040
-3.650E-06,0.020
-3.640E-06,0.060
-3.630E-06,0.060
-3.620E-06,0.100
-3.610E-06,0.060
-3.600E-06,0.080
-3.590E-06,0.060
-3.580E-06,0.040
-3.570E-06,0.080
-3.560E-06,0.040
-3.550E-06,0.040
-3.540E-06,0.040
-3.530E-06,0.060
-3.520E-06,0.040
-3.510E-06,0.040
-3.500E-06,0.060
-3.490E-06,0.040
-3.480E-06,0.060
-3.470E-06,0.060
-3.460E-06,0.040
-3.450E-06,0.080
-3.440E-06,0.040
-3.430E-06,0.020
-3.420E-06,0.040
-3.410E-06,0.060
-3.400E-06,0.040
-3.390E-06,0.040
-3.380E-06,0.060
-3.370E-06,0.080
-3.360E-06,0.040
-3.350E-06,0.060
-3.340E-06,0.020
-3.330E-06,0.040
-3.320E-06,0.060
-3.310E-06,0.080
-3.300E-06,0.060
-3.290E-06,0.020
-3.280E-06,0.060
-3.270E-06,0.080
-3.260E-06,0.060
-3.250E-06,0.080
-3.240E-06,0.040
-3.230E-06,0.060
-3.220E-06,0.060
-3.210E-06,0.060
-3.200E-06,0.060
-3.190E-06,0.060
-3.180E-06,0.060
-3.170E-06,0.060
-3.160E-06,0.060
-3.150E-06,0.060
-3.140E-06,0.060
-3.130E-06,0.040
-3.120E-06,0.060
-3.110E-06,0.060
-3.100E-06,0.080
-3.090E-06,0.040
-3.080E-06,0.040
-3.070E-06,0.040
-3.060E-06,0.060
-3.050E-06,0.040
-3.040E-06,0.040
-3.030E-06,0.060
-3.020E-06,0.080
-3.010E-06,0.080
-3.000E-06,0.080
-2.990E-06,0.080
-2.980E-06,0.020
-2.970E-06,0.020
-2.960E-06,0.060
-2.950E-06,0.080
-2.940E-06,0.080
-2.930E-06,0.080
-2.920E-06,0.020
-2.910E-06,0.040
-2.900E-06,0.060
-2.890E-06,0.040
-2.880E-06,0.060
-2.870E-06,0.060
-2.860E-06,0.060
-2.850E-06,0.040
-2.840E-06,0.040
-2.830E-06,0.040
-2.820E-06,0.040
-2.810E-06,0.060
-2.800E-06,0.060
-2.790E-06,0.080
-2.780E-06,0.060
-2.770E-06,0.040
-2.760E-06,0.040
-2.750E-06,0.060
-2.740E-06,0.060
-2.730E-06,0.040
-2.720E-06,0.040
-2.710E-06,0.060
-2.700E-06,0.060
-2.690E-06,0.100
-2.680E-06,0.060
-2.670E-06,0.040
-2.660E-06,0.040
-2.650E-06,0.080
-2.640E-06,0.040
-2.630E-06,0.060
-2.620E-06,0.080
-2.610E-06,0.060
-2.600E-06,0.040
-2.590E-06,0.040
-2.580E-06,0.080
-2.570E-06,0.040
-2.560E-06,0.040
-2.550E-06,0.040
-2.540E-06,0.060
-2.530E-06,0.080
-2.520E-06,0.060
-2.510E-06,0.020
-2.500E-06,0.060
-2.490E-06,0.060
-2.480E-06,0.020
-2.470E-06,0.060
-2.460E-06,0.060
-2.450E-06,0.060
-2.440E-06,0.020
-2.430E-06,0.060
-2.420E-06,0.060
-2.410E-06,0.060
-2.400E-06,0.020
-2.390E-06,0.060
-2.380E-06,0.040
-2.370E-06,0.060
-2.360E-06,0.040
-2.350E-06,0.040
-2.340E-06,0.060
-2.330E-06,0.060
-2.320E-06,0.040
-2.310E-06,0.060
-2.300E-06,0.080
-2.290E-06,0.060
-2.280E-06,0.060
-2.270E-06,0.060
-2.260E-06,0.060
-2.250E-06,0.040
-2.240E-06,0.040
-2.230E-06,0.040
-2.220E-06,0.080
-2.210E-06,0.040
-2.200E-06,0.060
-2.190E-06,0.060
-2.180E-06,0.060
-2.170E-06,0.060
-2.160E-06,0.040
-2.150E-06,0.060
-2.140E-06,0.080
-2.130E-06,0.040
-2.120E-06,0.020
-2.110E-06,0.060
-2.100E-06,0.080
-2.090E-06,0.020
-2.080E-06,0.060
-2.070E-06,0.040
-2.060E-06,0.060
-2.050E-06,0.060
-2.040E-06,0.040
-2.030E-06,0.060
-2.020E-06,0.080
-2.010E-06,0.060
-2.000E-06,0.060
-1.990E-06,0.080
-1.980E-06,0.080
-1.970E-06,0.040
-1.960E-06,0.040
-1.950E-06,0.060
-1.940E-06,0.100
-1.930E-06,0.060
-1.920E-06,0.080
-1.910E-06,0.080
-1.900E-06,0.020
-1.890E-06,0.060
-1.880E-06,0.060
-1.870E-06,0.060
-1.860E-06,0.060
-1.850E-06,0.080
-1.840E-06,0.040
-1.830E-06,0.060
-1.820E-06,0.060
-1.810E-06,0.040
-1.800E-06,0.060
-1.790E-06,0.060
-1.780E-06,0.040
-1.770E-06,0.060
-1.760E-06,0.020
-1.750E-06,0.020
-1.740E-06,0.060
-1.730E-06,0.040
-1.720E-06,0.080
-1.710E-06,0.040
-1.700E-06,0.020
-1.690E-06,0.060
-1.680E-06,0.060
-1.670E-06,0.060
-1.660E-06,0.060
-1.650E-06,0.060
-1.640E-06,0.040
-1.630E-06,0.040
-1.620E-06,0.060
-1.610E-06,0.060
-1.600E-06,0.060
-1.590E-06,0.040
-1.580E-06,0.040
-1.570E-06,0.020
-1.560E-06,0.060
-1.550E-06,0.060
-1.540E-06,0.040
-1.530E-06,0.060
-1.520E-06,0.020
-1.510E-06,0.040
-1.500E-06,0.040
-1.490E-06,0.060
-1.480E-06,0.080
-1.470E-06,0.040
-1.460E-06,0.080
-1.450E-06,0.080
-1.440E-06,0.040
-1.430E-06,0.060
-1.420E-06,0.060
-1.410E-06,0.060
-1.400E-06,0.080
-1.390E-06,0.060
-1.380E-06,0.020
-1.370E-06,0.060
-1.360E-06,0.060
-1.350E-06,0.060
-1.340E-06,0.040
-1.330E-06,0.040
-1.320E-06,0.020
-1.310E-06,0.040
-1.300E-06,0.040
-1.290E-06,0.040
-1.280E-06,0.040
-1.270E-06,0.040
-1.260E-06,0.040
-1.250E-06,0.040
-1.240E-06,0.060
-1.230E-06,0.040
-1.220E-06,0.080
-1.210E-06,0.040
-1.200E-06,0.080
-1.190E-06,0.080
-1.180E-06,0.040
-1.170E-06,0.060
-1.160E-06,0.060
-1.150E-06,0.080
-1.140E-06,0.020
-1.130E-06,0.040
-1.120E-06,0.060
-1.110E-06,0.040
-1.100E-06,0.060
-1.090E-06,0.080
-1.080E-06,0.080
-1.070E-06,0.040
-1.060E-06,0.040
-1.050E-06,0.040
-1.040E-06,0.020
-1.030E-06,0.060
-1.020E-06,0.080
-1.010E-06,0.060
-1.000E-06,0.080
-9.900E-07,0.080
-9.800E-07,0.020
-9.700E-07,0.060
-9.600E-07,0.040
-9.500E-07,0.040
-9.400E-07,0.060
-9.300E-07,0.060
-9.200E-07,0.040
-9.100E-07,0.060
-9.000E-07,0.040
-8.900E-07,0.080
-8.800E-07,0.060
-8.700E-07,0.040
-8.600E-07,0.020
-8.500E-07,0.040
-8.400E-07,0.040
-8.300E-07,0.060
-8.200E-07,0.040
-8.100E-07,0.060
-8.000E-07,0.080
-7.900E-07,0.040
-7.800E-07,0.080
-7.700E-07,0.060
-7.600E-07,0.040
-7.500E-07,0.040
-7.400E-07,0.060
-7.300E-07,0.080
-7.200E-07,0.040
-7.100E-07,0.020
-7.000E-07,0.060
-6.900E-07,0.040
-6.800E-07,0.040
-6.700E-07,0.060
-6.600E-07,0.080
-6.500E-07,0.040
-6.400E-07,0.080
-6.300E-07,0.080
-6.200E-07,0.060
-6.100E-07,0.080
-6.000E-07,0.080
-5.900E-07,0.040
-5.800E-07,0.040
-5.700E-07,0.060
-5.600E-07,0.020
-5.500E-07,0.060
-5.400E-07,0.020
-5.300E-07,0.060
-5.200E-07,0.080
-5.100E-07,0.060
-5.000E-07,0.040
-4.900E-07,0.080
-4.800E-07,0.020
-4.700E-07,0.060
-4.600E-07,0.020
-4.500E-07,0.000
-4.400E-07,0.040
-4.300E-07,0.160
-4.200E-07,0.580
-4.100E-07,1.340
-4.000E-07,2.140
-3.900E-07,2.760
-3.800E-07,2.460
-3.700E-07,1.460
-3.600E-07,-0.040
-3.500E-07,-0.920
-3.400E-07,-2.080
-3.300E-07,-1.880
-3.200E-07,-1.980
-3.100E-07,-2.420
-3.000E-07,-2.580
-2.900E-07,-2.680
-2.800E-07,-2.440
-2.700E-07,-1.760
-2.600E-07,-0.960
-2.500E-07,-0.240
-2.400E-07,0.200
-2.300E-07,0.280
-2.200E-07,0.380
-2.100E-07,0.440
-2.000E-07,0.600
-1.900E-07,0.780
-1.800E-07,0.880
-1.700E-07,0.840
-1.600E-07,0.740
-1.500E-07,0.500
-1.400E-07,0.480
-1.300E-07,0.520
-1.200E-07,0.640
-1.100E-07,0.700
-1.000E-07,0.740
-9.000E-08,0.560
-8.000E-08,0.320
-7.000E-08,0.080
-6.000E-08,-0.080
-5.000E-08,-0.160
-4.000E-08,-0.060
-3.000E-08,0.720
-2.000E-08,0.260
-1.000E-08,0.080
0.000E+00,0.640
1.000E-08,-0.500
2.000E-08,0.600
3.000E-08,0.980
4.000E-08,1.240
5.000E-08,1.500
6.000E-08,1.520
7.000E-08,0.900
8.000E-08,1.100
9.000E-08,0.720
1.000E-07,0.880
1.100E-07,0.900
1.200E-07,0.560
1.300E-07,0.140
1.400E-07,-0.360
1.500E-07,-0.660
1.600E-07,-1.000
1.700E-07,-1.000
1.800E-07,-1.140
1.900E-07,-1.200
2.000E-07,-1.380
2.100E-07,-1.300
2.200E-07,-1.320
2.300E-07,-0.920
2.400E-07,-0.620
2.500E-07,-0.200
2.600E-07,0.080
2.700E-07,0.400
2.800E-07,0.520
2.900E-07,0.660
3.000E-07,0.780
3.100E-07,0.840
3.200E-07,0.820
3.300E-07,0.760
3.400E-07,0.660
3.500E-07,0.480
3.600E-07,0.340
3.700E-07,0.220
3.800E-07,0.100
3.900E-07,0.060
4.000E-07,0.080
4.100E-07,0.080
4.200E-07,0.180
4.300E-07,0.260
4.400E-07,0.300
4.500E-07,0.360
4.600E-07,0.400
4.700E-07,0.420
4.800E-07,0.480
4.900E-07,0.540
5.000E-07,0.680
5.100E-07,0.800
5.200E-07,0.920
5.300E-07,1.040
5.400E-07,1.120
5.500E-07,1.280
5.600E-07,1.420
5.700E-07,1.540
5.800E-07,1.660
5.900E-07,1.680
6.000E-07,1.660
6.100E-07,1.640
6.200E-07,1.520
6.300E-07,1.500
6.400E-07,1.480
6.500E-07,1.420
6.600E-07,1.380
6.700E-07,1.360
6.800E-07,1.340
6.900E-07,1.320
7.000E-07,1.280
7.100E-07,1.300
7.200E-07,1.460
7.300E-07,1.540
7.400E-07,1.600
7.500E-07,1.680
7.600E-07,1.660
7.700E-07,1.720
7.800E-07,1.860
7.900E-07,1.900
8.000E-07,1.940
8.100E-07,1.960
8.200E-07,1.940
8.300E-07,2.080
8.400E-07,2.080
8.500E-07,2.100
8.600E-07,2.160
8.700E-07,2.260
8.800E-07,2.320
8.900E-07,2.300
9.000E-07,2.320
9.100E-07,2.380
9.200E-07,2.420
9.300E-07,2.460
9.400E-07,2.520
9.500E-07,2.500
9.600E-07,2.500
9.700E-07,2.400
9.800E-07,2.380
9.900E-07,2.360
1.000E-06,2.320
1.010E-06,2.260
1.020E-06,2.200
1.030E-06,2.200
1.040E-06,2.140
1.050E-06,2.140
1.060E-06,2.060
1.070E-06,2.000
1.080E-06,1.960
1.090E-06,1.920
1.100E-06,1.860
1.110E-06,1.820
1.120E-06,1.780
1.130E-06,1.780
1.140E-06,1.820
1.150E-06,1.800
1.160E-06,1.860
1.170E-06,2.000
1.180E-06,2.080
1.190E-06,2.180
1.200E-06,2.220
1.210E-06,2.300
1.220E-06,2.380
1.230E-06,2.520
1.240E-06,2.580
1.250E-06,2.620
1.260E-06,2.720
1.270E-06,2.780
1.280E-06,2.780
1.290E-06,2.760
1.300E-06,2.760
1.310E-06,2.780
1.320E-06,2.780
1.330E-06,2.720
1.340E-06,2.640
1.350E-06,2.520
1.360E-06,2.380
1.370E-06,2.300
1.380E-06,2.220
1.390E-06,2.120
1.400E-06,2.020
1.410E-06,1.980
1.420E-06,1.920
1.430E-06,1.860
1.440E-06,1.840
1.450E-06,1.800
1.460E-06,1.780
1.470E-06,1.720
1.480E-06,1.660
1.490E-06,1.600
1.500E-06,1.480
1.510E-06,1.420
1.520E-06,1.360
1.530E-06,1.260
1.540E-06,1.160
1.550E-06,1.120
1.560E-06,1.020
1.570E-06,0.940
1.580E-06,0.900
1.590E-06,0.820
1.600E-06,0.760
1.610E-06,0.740
1.620E-06,0.700
1.630E-06,0.680
1.640E-06,0.660
1.650E-06,0.620
1.660E-06,0.640
1.670E-06,0.620
1.680E-06,0.600
1.690E-06,0.580
1.700E-06,0.520
1.710E-06,0.520
1.720E-06,0.440
1.730E-06,0.400
1.740E-06,0.360
1.750E-06,0.340
1.760E-06,0.320
1.770E-06,0.300
1.780E-06,0.280
1.790E-06,0.260
1.800E-06,0.280
1.810E-06,0.280
1.820E-06,0.340
1.830E-06,0.320
1.840E-06,0.180
1.850E-06,-0.020
1.860E-06,-0.200
1.870E-06,-0.420
1.880E-06,-0.500
1.890E-06,-0.440
1.900E-06,-0.200
1.910E-06,0.140
1.920E-06,0.540
1.930E-06,0.860
1.940E-06,1.020
1.950E-06,1.060
1.960E-06,1.040
1.970E-06,0.940
1.980E-06,0.880
1.990E-06,0.760
2.000E-06,0.660
2.010E-06,0.560
2.020E-06,0.400
2.030E-06,0.220
2.040E-06,0.000
2.050E-06,-0.120
2.060E-06,-0.140
2.070E-06,-0.120
2.080E-06,-0.140
2.090E-06,-0.180
2.100E-06,-0.200
2.110E-06,-0.240
2.120E-06,-0.240
2.130E-06,-0.320
2.140E-06,-0.360
2.150E-06,-0.420
2.160E-06,-0.440
2.170E-06,-0.560
2.180E-06,-0.600
2.190E-06,-0.660
2.200E-06,-0.760
2.210E-06,-0.900
2.220E-06,-1.060
2.230E-06,-1.280
2.240E-06,-1.520
2.250E-06,-1.700
2.260E-06,-1.900
2.270E-06,-2.060
2.280E-06,-2.160
2.290E-06,-2.280
2.300E-06,-2.340
2.310E-06,-2.340
2.320E-06,-2.340
2.330E-06,-2.200
2.340E-06,-2.060
2.350E-06,-1.860
2.360E-06,-1.680
2.370E-06,-1.440
2.380E-06,-1.180
2.390E-06,-0.960
2.400E-06,-0.700
2.410E-06,-0.520
2.420E-06,-0.260
2.430E-06,-0.020
2.440E-06,0.220
2.450E-06,0.440
2.460E-06,0.640
2.470E-06,0.800
2.480E-06,0.900
2.490E-06,0.940
2.500E-06,1.000
2.510E-06,0.980
2.520E-06,0.960
2.530E-06,0.900
2.540E-06,0.840
2.550E-06,0.780
2.560E-06,0.640
2.570E-06,0.540
2.580E-06,0.380
2.590E-06,0.340
2.600E-06,0.240
2.610E-06,0.160
2.620E-06,0.080
2.630E-06,0.020
2.640E-06,-0.040
2.650E-06,-0.020
2.660E-06,-0.060
2.670E-06,-0.040
2.680E-06,-0.040
2.690E-06,-0.060
2.700E-06,-0.060
2.710E-06,-0.020
2.720E-06,-0.020
2.730E-06,0.020
2.740E-06,0.000
2.750E-06,0.020
2.760E-06,0.000
2.770E-06,-0.060
2.780E-06,0.000
2.790E-06,0.000
2.800E-06,0.020
2.810E-06,0.000
2.820E-06,-0.060
2.830E-06,-0.120
2.840E-06,-0.180
2.850E-06,-0.180
2.860E-06,-0.180
2.870E-06,-0.160
2.880E-06,-0.080
2.890E-06,-0.140
2.900E-06,-0.160
2.910E-06,-0.180
2.920E-06,-0.220
2.930E-06,-0.220
2.940E-06,-0.220
2.950E-06,-0.240
2.960E-06,-0.240
2.970E-06,-0.260
2.980E-06,-0.240
2.990E-06,-0.180
3.000E-06,-0.140
3.010E-06,-0.100
3.020E-06,-0.020
3.030E-06,-0.020
3.040E-06,0.000
3.050E-06,0.000
3.060E-06,-0.020
3.070E-06,-0.040
3.080E-06,-0.080
3.090E-06,-0.060
3.100E-06,-0.080
3.110E-06,-0.080
3.120E-06,-0.100
3.130E-06,-0.120
3.140E-06,-0.120
3.150E-06,-0.140
3.160E-06,-0.140
3.170E-06,-0.160
3.180E-06,-0.180
3.190E-06,-0.180
3.200E-06,-0.240
3.210E-06,-0.260
3.220E-06,-0.280
3.230E-06,-0.280
3.240E-06,-0.240
3.250E-06,-0.220
3.260E-06,-0.160
3.270E-06,-0.140
3.280E-06,-0.040
3.290E-06,0.180
3.300E-06,0.400
3.310E-06,0.580
3.320E-06,0.680
3.330E-06,0.760
3.340E-06,0.800
3.350E-06,0.760
3.360E-06,0.760
3.370E-06,0.780
3.380E-06,0.760
3.390E-06,0.760
3.400E-06,0.680
3.410E-06,0.560
3.420E-06,0.440
3.430E-06,0.380
3.440E-06,0.300
3.450E-06,0.180
3.460E-06,0.060
3.470E-06,-0.020
3.480E-06,-0.140
3.490E-06,-0.180
3.500E-06,-0.220
3.510E-06,-0.280
3.520E-06,-0.260
3.530E-06,-0.260
3.540E-06,-0.260
3.550E-06,-0.240
3.560E-06,-0.160
3.570E-06,-0.140
3.580E-06,-0.100
3.590E-06,-0.080
3.600E-06,-0.060
3.610E-06,-0.020
3.620E-06,-0.020
3.630E-06,-0.040
3.640E-06,-0.100
3.650E-06,-0.140
3.660E-06,-0.160
3.670E-06,-0.180
3.680E-06,-0.220
3.690E-06,-0.280
