mediciones/6-26/50.0/WaveData59337.csv

#timebase=2000000(ps)
,#voltbase=500000(mv/100)
#size=4000
-8.150E-06,0.040
-8.140E-06,0.040
-8.130E-06,0.080
-8.120E-06,0.080
-8.110E-06,0.040
-8.100E-06,0.060
-8.090E-06,0.080
-8.080E-06,0.040
-8.070E-06,0.040
-8.060E-06,0.040
-8.050E-06,0.060
-8.040E-06,0.040
-8.030E-06,0.080
-8.020E-06,0.060
-8.010E-06,0.040
-8.000E-06,0.040
-7.990E-06,0.060
-7.980E-06,0.060
-7.970E-06,0.080
-7.960E-06,0.060
-7.950E-06,0.080
-7.940E-06,0.080
-7.930E-06,0.040
-7.920E-06,0.040
-7.910E-06,0.060
-7.900E-06,0.080
-7.890E-06,0.080
-7.880E-06,0.080
-7.870E-06,0.040
-7.860E-06,0.060
-7.850E-06,0.080
-7.840E-06,0.060
-7.830E-06,0.040
-7.820E-06,0.040
-7.810E-06,0.100
-7.800E-06,0.040
-7.790E-06,0.060
-7.780E-06,0.040
-7.770E-06,0.040
-7.760E-06,0.060
-7.750E-06,0.080
-7.740E-06,0.080
-7.730E-06,0.040
-7.720E-06,0.060
-7.710E-06,0.080
-7.700E-06,0.060
-7.690E-06,0.080
-7.680E-06,0.080
-7.670E-06,0.080
-7.660E-06,0.040
-7.650E-06,0.060
-7.640E-06,0.080
-7.630E-06,0.100
-7.620E-06,0.060
-7.610E-06,0.080
-7.600E-06,0.060
-7.590E-06,0.060
-7.580E-06,0.040
-7.570E-06,0.060
-7.560E-06,0.080
-7.550E-06,0.080
-7.540E-06,0.080
-7.530E-06,0.080
-7.520E-06,0.080
-7.510E-06,0.040
-7.500E-06,0.060
-7.490E-06,0.080
-7.480E-06,0.060
-7.470E-06,0.040
-7.460E-06,0.060
-7.450E-06,0.080
-7.440E-06,0.040
-7.430E-06,0.040
-7.420E-06,0.060
-7.410E-06,0.060
-7.400E-06,0.100
-7.390E-06,0.060
-7.380E-06,0.080
-7.370E-06,0.080
-7.360E-06,0.060
-7.350E-06,0.060
-7.340E-06,0.040
-7.330E-06,0.060
-7.320E-06,0.060
-7.310E-06,0.060
-7.300E-06,0.080
-7.290E-06,0.060
-7.280E-06,0.080
-7.270E-06,0.080
-7.260E-06,0.060
-7.250E-06,0.080
-7.240E-06,0.040
-7.230E-06,0.040
-7.220E-06,0.060
-7.210E-06,0.040
-7.200E-06,0.040
-7.190E-06,0.060
-7.180E-06,0.040
-7.170E-06,0.040
-7.160E-06,0.040
-7.150E-06,0.060
-7.140E-06,0.040
-7.130E-06,0.040
-7.120E-06,0.060
-7.110E-06,0.040
-7.100E-06,0.040
-7.090E-06,0.060
-7.080E-06,0.060
-7.070E-06,0.060
-7.060E-06,0.020
-7.050E-06,0.060
-7.040E-06,0.080
-7.030E-06,0.080
-7.020E-06,0.020
-7.010E-06,0.040
-7.000E-06,0.060
-6.990E-06,0.040
-6.980E-06,0.040
-6.970E-06,0.040
-6.960E-06,0.080
-6.950E-06,0.040
-6.940E-06,0.060
-6.930E-06,0.060
-6.920E-06,0.060
-6.910E-06,0.060
-6.900E-06,0.080
-6.890E-06,0.060
-6.880E-06,0.060
-6.870E-06,0.060
-6.860E-06,0.060
-6.850E-06,0.080
-6.840E-06,0.060
-6.830E-06,0.020
-6.820E-06,0.080
-6.810E-06,0.080
-6.800E-06,0.060
-6.790E-06,0.060
-6.780E-06,0.020
-6.770E-06,0.040
-6.760E-06,0.060
-6.750E-06,0.040
-6.740E-06,0.060
-6.730E-06,0.080
-6.720E-06,0.040
-6.710E-06,0.040
-6.700E-06,0.040
-6.690E-06,0.040
-6.680E-06,0.080
-6.670E-06,0.060
-6.660E-06,0.020
-6.650E-06,0.060
-6.640E-06,0.040
-6.630E-06,0.040
-6.620E-06,0.060
-6.610E-06,0.060
-6.600E-06,0.060
-6.590E-06,0.060
-6.580E-06,0.060
-6.570E-06,0.060
-6.560E-06,0.040
-6.550E-06,0.060
-6.540E-06,0.080
-6.530E-06,0.080
-6.520E-06,0.060
-6.510E-06,0.040
-6.500E-06,0.060
-6.490E-06,0.060
-6.480E-06,0.060
-6.470E-06,0.060
-6.460E-06,0.040
-6.450E-06,0.060
-6.440E-06,0.080
-6.430E-06,0.060
-6.420E-06,0.080
-6.410E-06,0.040
-6.400E-06,0.040
-6.390E-06,0.040
-6.380E-06,0.080
-6.370E-06,0.040
-6.360E-06,0.060
-6.350E-06,0.080
-6.340E-06,0.060
-6.330E-06,0.040
-6.320E-06,0.060
-6.310E-06,0.040
-6.300E-06,0.080
-6.290E-06,0.080
-6.280E-06,0.060
-6.270E-06,0.060
-6.260E-06,0.060
-6.250E-06,0.040
-6.240E-06,0.040
-6.230E-06,0.060
-6.220E-06,0.080
-6.210E-06,0.040
-6.200E-06,0.040
-6.190E-06,0.060
-6.180E-06,0.040
-6.170E-06,0.060
-6.160E-06,0.080
-6.150E-06,0.040
-6.140E-06,0.040
-6.130E-06,0.060
-6.120E-06,0.080
-6.110E-06,0.060
-6.100E-06,0.080
-6.090E-06,0.080
-6.080E-06,0.060
-6.070E-06,0.040
-6.060E-06,0.040
-6.050E-06,0.060
-6.040E-06,0.060
-6.030E-06,0.040
-6.020E-06,0.040
-6.010E-06,0.060
-6.000E-06,0.080
-5.990E-06,0.100
-5.980E-06,0.040
-5.970E-06,0.080
-5.960E-06,0.080
-5.950E-06,0.040
-5.940E-06,0.060
-5.930E-06,0.060
-5.920E-06,0.040
-5.910E-06,0.060
-5.900E-06,0.080
-5.890E-06,0.060
-5.880E-06,0.040
-5.870E-06,0.040
-5.860E-06,0.020
-5.850E-06,0.040
-5.840E-06,0.040
-5.830E-06,0.040
-5.820E-06,0.100
-5.810E-06,0.040
-5.800E-06,0.060
-5.790E-06,0.080
-5.780E-06,0.040
-5.770E-06,0.080
-5.760E-06,0.060
-5.750E-06,0.080
-5.740E-06,0.060
-5.730E-06,0.040
-5.720E-06,0.060
-5.710E-06,0.040
-5.700E-06,0.060
-5.690E-06,0.100
-5.680E-06,0.060
-5.670E-06,0.020
-5.660E-06,0.060
-5.650E-06,0.060
-5.640E-06,0.060
-5.630E-06,0.080
-5.620E-06,0.060
-5.610E-06,0.080
-5.600E-06,0.080
-5.590E-06,0.040
-5.580E-06,0.020
-5.570E-06,0.040
-5.560E-06,0.060
-5.550E-06,0.080
-5.540E-06,0.080
-5.530E-06,0.040
-5.520E-06,0.040
-5.510E-06,0.040
-5.500E-06,0.080
-5.490E-06,0.040
-5.480E-06,0.040
-5.470E-06,0.040
-5.460E-06,0.040
-5.450E-06,0.040
-5.440E-06,0.040
-5.430E-06,0.060
-5.420E-06,0.060
-5.410E-06,0.040
-5.400E-06,0.080
-5.390E-06,0.060
-5.380E-06,0.080
-5.370E-06,0.080
-5.360E-06,0.040
-5.350E-06,0.040
-5.340E-06,0.060
-5.330E-06,0.060
-5.320E-06,0.080
-5.310E-06,0.080
-5.300E-06,0.040
-5.290E-06,0.040
-5.280E-06,0.060
-5.270E-06,0.060
-5.260E-06,0.080
-5.250E-06,0.060
-5.240E-06,0.080
-5.230E-06,0.060
-5.220E-06,0.060
-5.210E-06,0.040
-5.200E-06,0.080
-5.190E-06,0.040
-5.180E-06,0.040
-5.170E-06,0.040
-5.160E-06,0.060
-5.150E-06,0.080
-5.140E-06,0.020
-5.130E-06,0.060
-5.120E-06,0.060
-5.110E-06,0.040
-5.100E-06,0.020
-5.090E-06,0.040
-5.080E-06,0.080
-5.070E-06,0.160
-5.060E-06,0.580
-5.050E-06,1.340
-5.040E-06,2.120
-5.030E-06,2.580
-5.020E-06,2.080
-5.010E-06,1.000
-5.000E-06,-0.500
-4.990E-06,-1.460
-4.980E-06,-2.020
-4.970E-06,-1.820
-4.960E-06,-1.780
-4.950E-06,-1.960
-4.940E-06,-2.100
-4.930E-06,-2.180
-4.920E-06,-1.840
-4.910E-06,-1.120
-4.900E-06,-0.260
-4.890E-06,0.420
-4.880E-06,0.600
-4.870E-06,0.500
-4.860E-06,0.360
-4.850E-06,0.340
-4.840E-06,0.680
-4.830E-06,1.020
-4.820E-06,1.080
-4.810E-06,1.100
-4.800E-06,0.820
-4.790E-06,0.600
-4.780E-06,0.640
-4.770E-06,0.940
-4.760E-06,1.160
-4.750E-06,1.140
-4.740E-06,0.960
-4.730E-06,0.560
-4.720E-06,0.200
-4.710E-06,-0.160
-4.700E-06,-0.220
-4.690E-06,-0.240
-4.680E-06,-0.220
-4.670E-06,-0.220
-4.660E-06,-0.240
-4.650E-06,-0.220
-4.640E-06,-0.080
-4.630E-06,0.120
-4.620E-06,0.380
-4.610E-06,0.660
-4.600E-06,0.840
-4.590E-06,0.840
-4.580E-06,0.800
-4.570E-06,0.720
-4.560E-06,0.580
-4.550E-06,0.440
-4.540E-06,0.280
-4.530E-06,0.100
-4.520E-06,-0.140
-4.510E-06,-0.300
-4.500E-06,-0.480
-4.490E-06,-0.640
-4.480E-06,-0.800
-4.470E-06,-0.960
-4.460E-06,-1.080
-4.450E-06,-1.200
-4.440E-06,-1.200
-4.430E-06,-1.060
-4.420E-06,-0.800
-4.410E-06,-0.440
-4.400E-06,-0.380
-4.390E-06,-0.160
-4.380E-06,0.220
-4.370E-06,0.200
-4.360E-06,0.620
-4.350E-06,0.980
-4.340E-06,1.100
-4.330E-06,0.980
-4.320E-06,0.740
-4.310E-06,0.540
-4.300E-06,0.540
-4.290E-06,0.560
-4.280E-06,0.560
-4.270E-06,0.500
-4.260E-06,0.100
-4.250E-06,-0.160
-4.240E-06,-0.280
-4.230E-06,-0.180
-4.220E-06,-0.100
-4.210E-06,0.040
-4.200E-06,0.000
-4.190E-06,-0.120
-4.180E-06,-0.260
-4.170E-06,-0.340
-4.160E-06,-0.280
-4.150E-06,-0.160
-4.140E-06,-0.040
-4.130E-06,0.000
-4.120E-06,0.020
-4.110E-06,0.040
-4.100E-06,0.080
-4.090E-06,0.140
-4.080E-06,0.260
-4.070E-06,0.340
-4.060E-06,0.440
-4.050E-06,0.400
-4.040E-06,0.320
-4.030E-06,0.220
-4.020E-06,0.160
-4.010E-06,0.160
-4.000E-06,0.120
-3.990E-06,0.000
-3.980E-06,-0.020
-3.970E-06,0.060
-3.960E-06,-0.040
-3.950E-06,-0.040
-3.940E-06,0.000
-3.930E-06,-0.080
-3.920E-06,0.060
-3.910E-06,0.220
-3.900E-06,0.060
-3.890E-06,-0.040
-3.880E-06,-0.200
-3.870E-06,-0.240
-3.860E-06,-0.020
-3.850E-06,0.440
-3.840E-06,0.660
-3.830E-06,0.600
-3.820E-06,0.120
-3.810E-06,-0.180
-3.800E-06,-0.360
-3.790E-06,-0.220
-3.780E-06,0.240
-3.770E-06,0.600
-3.760E-06,0.760
-3.750E-06,0.680
-3.740E-06,0.240
-3.730E-06,-0.080
-3.720E-06,-0.200
-3.710E-06,-0.120
-3.700E-06,0.080
-3.690E-06,0.080
-3.680E-06,-0.020
-3.670E-06,-0.260
-3.660E-06,-0.460
-3.650E-06,0.000
-3.640E-06,-0.460
-3.630E-06,-0.200
-3.620E-06,0.220
-3.610E-06,0.120
-3.600E-06,0.720
-3.590E-06,1.040
-3.580E-06,0.860
-3.570E-06,0.520
-3.560E-06,0.140
-3.550E-06,-0.020
-3.540E-06,0.440
-3.530E-06,0.560
-3.520E-06,0.720
-3.510E-06,0.620
-3.500E-06,0.120
-3.490E-06,-0.220
-3.480E-06,-0.400
-3.470E-06,-0.400
-3.460E-06,-0.240
-3.450E-06,-0.240
-3.440E-06,-0.320
-3.430E-06,-0.500
-3.420E-06,-0.600
-3.410E-06,-0.500
-3.400E-06,-0.400
-3.390E-06,-0.320
-3.380E-06,-0.420
-3.370E-06,-0.660
-3.360E-06,-0.680
-3.350E-06,-0.580
-3.340E-06,-0.340
-3.330E-06,-0.060
-3.320E-06,0.160
-3.310E-06,0.220
-3.300E-06,0.180
-3.290E-06,0.100
-3.280E-06,0.120
-3.270E-06,0.340
-3.260E-06,0.440
-3.250E-06,0.580
-3.240E-06,0.700
-3.230E-06,0.780
-3.220E-06,1.020
-3.210E-06,1.100
-3.200E-06,1.080
-3.190E-06,0.840
-3.180E-06,0.580
-3.170E-06,0.420
-3.160E-06,0.200
-3.150E-06,0.180
-3.140E-06,0.360
-3.130E-06,0.340
-3.120E-06,0.260
-3.110E-06,-0.020
-3.100E-06,-0.340
-3.090E-06,-0.820
-3.080E-06,-0.660
-3.070E-06,0.080
-3.060E-06,0.840
-3.050E-06,1.220
-3.040E-06,1.120
-3.030E-06,0.380
-3.020E-06,-0.320
-3.010E-06,-0.720
-3.000E-06,-0.640
-2.990E-06,-0.120
-2.980E-06,0.280
-2.970E-06,0.320
-2.960E-06,0.020
-2.950E-06,-0.460
-2.940E-06,-0.820
-2.930E-06,-0.820
-2.920E-06,-0.580
-2.910E-06,-0.220
-2.900E-06,-0.020
-2.890E-06,-0.060
-2.880E-06,-0.200
-2.870E-06,-0.340
-2.860E-06,-0.440
-2.850E-06,-0.340
-2.840E-06,-0.200
-2.830E-06,0.000
-2.820E-06,0.100
-2.810E-06,0.040
-2.800E-06,-0.020
-2.790E-06,-0.080
-2.780E-06,0.000
-2.770E-06,0.140
-2.760E-06,0.260
-2.750E-06,0.300
-2.740E-06,0.260
-2.730E-06,0.040
-2.720E-06,-0.220
-2.710E-06,-0.700
-2.700E-06,-1.180
-2.690E-06,-1.580
-2.680E-06,-1.680
-2.670E-06,-1.680
-2.660E-06,-1.040
-2.650E-06,-0.820
-2.640E-06,-0.260
-2.630E-06,0.060
-2.620E-06,0.760
-2.610E-06,1.540
-2.600E-06,1.900
-2.590E-06,2.100
-2.580E-06,1.680
-2.570E-06,0.840
-2.560E-06,0.220
-2.550E-06,-0.040
-2.540E-06,0.640
-2.530E-06,0.720
-2.520E-06,0.740
-2.510E-06,1.060
-2.500E-06,0.660
-2.490E-06,1.160
-2.480E-06,1.540
-2.470E-06,1.620
-2.460E-06,1.120
-2.450E-06,0.440
-2.440E-06,-0.020
-2.430E-06,0.180
-2.420E-06,0.320
-2.410E-06,0.440
-2.400E-06,0.600
-2.390E-06,0.440
-2.380E-06,0.180
-2.370E-06,0.140
-2.360E-06,-0.020
-2.350E-06,0.000
-2.340E-06,-0.020
-2.330E-06,-0.140
-2.320E-06,-0.040
-2.310E-06,-0.200
-2.300E-06,-0.400
-2.290E-06,-0.600
-2.280E-06,-0.640
-2.270E-06,-0.840
-2.260E-06,-0.900
-2.250E-06,-1.300
-2.240E-06,-1.780
-2.230E-06,-2.200
-2.220E-06,-2.420
-2.210E-06,-2.180
-2.200E-06,-1.680
-2.190E-06,-1.120
-2.180E-06,-0.740
-2.170E-06,-0.640
-2.160E-06,-0.640
-2.150E-06,-0.500
-2.140E-06,-0.080
-2.130E-06,0.480
-2.120E-06,1.020
-2.110E-06,1.280
-2.100E-06,1.260
-2.090E-06,1.260
-2.080E-06,1.240
-2.070E-06,1.320
-2.060E-06,1.440
-2.050E-06,1.580
-2.040E-06,1.680
-2.030E-06,1.640
-2.020E-06,1.360
-2.010E-06,1.020
-2.000E-06,0.640
-1.990E-06,0.320
-1.980E-06,0.340
-1.970E-06,0.400
-1.960E-06,0.560
-1.950E-06,0.640
-1.940E-06,0.540
-1.930E-06,0.360
-1.920E-06,0.160
-1.910E-06,-0.040
-1.900E-06,-0.100
-1.890E-06,-0.120
-1.880E-06,-0.140
-1.870E-06,-0.020
-1.860E-06,-0.060
-1.850E-06,0.180
-1.840E-06,-0.340
-1.830E-06,-0.360
-1.820E-06,-0.920
-1.810E-06,-1.360
-1.800E-06,-1.360
-1.790E-06,-0.680
-1.780E-06,-1.540
-1.770E-06,-0.960
-1.760E-06,-0.320
-1.750E-06,-0.580
-1.740E-06,0.460
-1.730E-06,1.380
-1.720E-06,1.660
-1.710E-06,1.580
-1.700E-06,1.520
-1.690E-06,1.240
-1.680E-06,1.700
-1.670E-06,0.900
-1.660E-06,0.900
-1.650E-06,0.640
-1.640E-06,0.280
-1.630E-06,-0.160
-1.620E-06,-0.360
-1.610E-06,-0.260
-1.600E-06,-0.020
-1.590E-06,0.100
-1.580E-06,0.000
-1.570E-06,-0.220
-1.560E-06,-0.520
-1.550E-06,-0.700
-1.540E-06,-0.700
-1.530E-06,-0.420
-1.520E-06,-0.120
-1.510E-06,-0.480
-1.500E-06,-0.300
-1.490E-06,-0.140
-1.480E-06,-0.060
-1.470E-06,0.280
-1.460E-06,0.260
-1.450E-06,-0.020
-1.440E-06,-0.560
-1.430E-06,-1.080
-1.420E-06,-0.960
-1.410E-06,-0.240
-1.400E-06,-0.120
-1.390E-06,0.360
-1.380E-06,1.200
-1.370E-06,1.340
-1.360E-06,1.240
-1.350E-06,1.000
-1.340E-06,0.520
-1.330E-06,0.020
-1.320E-06,-0.240
-1.310E-06,-0.400
-1.300E-06,-0.100
-1.290E-06,0.060
-1.280E-06,0.100
-1.270E-06,0.320
-1.260E-06,0.040
-1.250E-06,-0.040
-1.240E-06,-0.080
-1.230E-06,-0.060
-1.220E-06,0.280
-1.210E-06,0.240
-1.200E-06,0.180
-1.190E-06,0.240
-1.180E-06,0.240
-1.170E-06,0.180
-1.160E-06,0.080
-1.150E-06,-0.180
-1.140E-06,-0.240
-1.130E-06,-0.400
-1.120E-06,-0.260
-1.110E-06,-0.100
-1.100E-06,-0.160
-1.090E-06,-0.140
-1.080E-06,-0.260
-1.070E-06,-0.320
-1.060E-06,-0.260
-1.050E-06,-0.160
-1.040E-06,-0.100
-1.030E-06,0.060
-1.020E-06,0.080
-1.010E-06,0.060
-1.000E-06,0.040
-9.900E-07,-0.060
-9.800E-07,0.000
-9.700E-07,-0.100
-9.600E-07,-0.100
-9.500E-07,0.180
-9.400E-07,0.340
-9.300E-07,0.440
-9.200E-07,0.460
-9.100E-07,0.220
-9.000E-07,-0.060
-8.900E-07,-0.340
-8.800E-07,-0.380
-8.700E-07,-0.180
-8.600E-07,-0.040
-8.500E-07,0.060
-8.400E-07,0.160
-8.300E-07,0.120
-8.200E-07,0.020
-8.100E-07,-0.040
-8.000E-07,-0.060
-7.900E-07,0.000
-7.800E-07,0.080
-7.700E-07,0.040
-7.600E-07,-0.020
-7.500E-07,-0.080
-7.400E-07,-0.300
-7.300E-07,-0.360
-7.200E-07,-0.400
-7.100E-07,-0.360
-7.000E-07,-0.240
-6.900E-07,-0.160
-6.800E-07,-0.060
-6.700E-07,-0.120
-6.600E-07,-0.300
-6.500E-07,-0.220
-6.400E-07,-0.040
-6.300E-07,0.340
-6.200E-07,1.000
-6.100E-07,1.060
-6.000E-07,0.980
-5.900E-07,0.400
-5.800E-07,-0.140
-5.700E-07,-0.160
-5.600E-07,0.120
-5.500E-07,0.780
-5.400E-07,1.080
-5.300E-07,1.000
-5.200E-07,0.720
-5.100E-07,0.420
-5.000E-07,0.180
-4.900E-07,0.060
-4.800E-07,-0.080
-4.700E-07,-0.180
-4.600E-07,-0.220
-4.500E-07,-0.320
-4.400E-07,-0.380
-4.300E-07,-0.380
-4.200E-07,-0.420
-4.100E-07,-0.420
-4.000E-07,-0.420
-3.900E-07,-0.340
-3.800E-07,-0.220
-3.700E-07,-0.100
-3.600E-07,-0.020
-3.500E-07,-0.060
-3.400E-07,-0.160
-3.300E-07,-0.260
-3.200E-07,-0.340
-3.100E-07,-0.360
-3.000E-07,-0.400
-2.900E-07,-0.380
-2.800E-07,-0.340
-2.700E-07,-0.280
-2.600E-07,-0.280
-2.500E-07,-0.280
-2.400E-07,-0.340
-2.300E-07,-0.400
-2.200E-07,-0.300
-2.100E-07,-0.180
-2.000E-07,-0.040
-1.900E-07,0.000
-1.800E-07,0.040
-1.700E-07,0.080
-1.600E-07,0.240
-1.500E-07,0.380
-1.400E-07,-0.120
-1.300E-07,0.440
-1.200E-07,0.840
-1.100E-07,0.760
-1.000E-07,0.800
-9.000E-08,0.420
-8.000E-08,0.240
-7.000E-08,0.380
-6.000E-08,0.780
-5.000E-08,0.900
-4.000E-08,0.900
-3.000E-08,-0.520
-2.000E-08,-0.180
-1.000E-08,-0.740
0.000E+00,-0.520
1.000E-08,0.740
2.000E-08,-0.080
3.000E-08,0.000
4.000E-08,0.060
5.000E-08,-0.700
6.000E-08,-0.860
7.000E-08,-0.320
8.000E-08,-0.260
9.000E-08,0.120
1.000E-07,-0.140
1.100E-07,-0.340
1.200E-07,-0.400
1.300E-07,-0.800
1.400E-07,-0.660
1.500E-07,0.060
1.600E-07,0.640
1.700E-07,1.300
1.800E-07,1.820
1.900E-07,1.560
2.000E-07,1.280
2.100E-07,0.820
2.200E-07,0.520
2.300E-07,0.140
2.400E-07,0.020
2.500E-07,0.060
2.600E-07,0.300
2.700E-07,0.340
2.800E-07,0.220
2.900E-07,0.000
3.000E-07,-0.060
3.100E-07,-0.100
3.200E-07,-0.040
3.300E-07,0.020
3.400E-07,0.000
3.500E-07,-0.060
3.600E-07,-0.180
3.700E-07,-0.160
3.800E-07,-0.060
3.900E-07,-0.180
4.000E-07,-0.100
4.100E-07,-0.240
4.200E-07,0.160
4.300E-07,-0.780
4.400E-07,-1.300
4.500E-07,-0.920
4.600E-07,-1.440
4.700E-07,-1.600
4.800E-07,-0.560
4.900E-07,-0.780
5.000E-07,-0.760
5.100E-07,-1.520
5.200E-07,-1.400
5.300E-07,-1.280
5.400E-07,-1.400
5.500E-07,0.340
5.600E-07,0.440
5.700E-07,1.180
5.800E-07,1.740
5.900E-07,1.520
6.000E-07,2.680
6.100E-07,2.760
6.200E-07,2.760
6.300E-07,2.760
6.400E-07,2.740
6.500E-07,2.760
6.600E-07,2.760
6.700E-07,2.780
6.800E-07,1.300
6.900E-07,0.400
7.000E-07,-1.160
7.100E-07,-1.860
7.200E-07,-2.380
7.300E-07,-2.660
7.400E-07,-2.660
7.500E-07,-2.660
7.600E-07,-2.660
7.700E-07,-2.660
7.800E-07,-2.660
7.900E-07,-2.640
8.000E-07,-2.500
8.100E-07,-1.780
8.200E-07,-1.280
8.300E-07,-0.940
8.400E-07,-0.660
8.500E-07,-0.520
8.600E-07,-0.400
8.700E-07,-0.460
8.800E-07,-0.740
8.900E-07,-1.140
9.000E-07,-1.600
9.100E-07,-1.960
9.200E-07,-1.840
9.300E-07,-1.360
9.400E-07,-0.680
9.500E-07,-0.220
9.600E-07,0.100
9.700E-07,-0.100
9.800E-07,-0.480
9.900E-07,-0.680
1.000E-06,-0.600
1.010E-06,0.100
1.020E-06,1.000
1.030E-06,2.000
1.040E-06,2.560
1.050E-06,2.760
1.060E-06,2.780
1.070E-06,2.760
1.080E-06,2.760
1.090E-06,2.760
1.100E-06,2.740
1.110E-06,2.760
1.120E-06,2.780
1.130E-06,2.480
1.140E-06,1.100
1.150E-06,0.200
1.160E-06,-0.520
1.170E-06,-0.500
1.180E-06,-0.080
1.190E-06,0.720
1.200E-06,1.680
1.210E-06,1.900
1.220E-06,1.940
1.230E-06,1.520
1.240E-06,1.100
1.250E-06,0.880
1.260E-06,0.820
1.270E-06,1.180
1.280E-06,1.340
1.290E-06,1.200
1.300E-06,0.860
1.310E-06,-0.320
1.320E-06,-1.880
1.330E-06,-2.680
1.340E-06,-2.680
1.350E-06,-2.680
1.360E-06,-2.660
1.370E-06,-2.660
1.380E-06,-2.660
1.390E-06,-2.240
1.400E-06,-1.640
1.410E-06,-1.160
1.420E-06,-0.880
1.430E-06,-0.580
1.440E-06,-0.480
1.450E-06,-0.100
1.460E-06,0.460
1.470E-06,1.280
1.480E-06,2.000
1.490E-06,2.160
1.500E-06,1.680
1.510E-06,0.780
1.520E-06,-0.120
1.530E-06,-0.680
1.540E-06,-0.560
1.550E-06,-0.020
1.560E-06,0.980
1.570E-06,2.060
1.580E-06,2.760
1.590E-06,2.780
1.600E-06,2.760
1.610E-06,2.740
1.620E-06,2.760
1.630E-06,2.780
1.640E-06,2.760
1.650E-06,2.260
1.660E-06,1.520
1.670E-06,0.740
1.680E-06,-0.020
1.690E-06,-0.680
1.700E-06,-1.040
1.710E-06,-0.980
1.720E-06,-0.580
1.730E-06,0.080
1.740E-06,0.840
1.750E-06,1.600
1.760E-06,2.220
1.770E-06,2.740
1.780E-06,2.760
1.790E-06,2.760
1.800E-06,2.760
1.810E-06,2.740
1.820E-06,2.760
1.830E-06,2.380
1.840E-06,1.840
1.850E-06,1.240
1.860E-06,0.460
1.870E-06,-0.280
1.880E-06,-0.960
1.890E-06,-1.520
1.900E-06,-1.760
1.910E-06,-1.700
1.920E-06,-1.460
1.930E-06,-1.040
1.940E-06,-0.500
1.950E-06,0.080
1.960E-06,0.660
1.970E-06,1.120
1.980E-06,1.520
1.990E-06,1.800
2.000E-06,1.920
2.010E-06,2.100
2.020E-06,2.160
2.030E-06,2.240
2.040E-06,2.240
2.050E-06,2.120
2.060E-06,1.900
2.070E-06,1.600
2.080E-06,1.220
2.090E-06,0.760
2.100E-06,0.420
2.110E-06,0.120
2.120E-06,-0.040
2.130E-06,-0.120
2.140E-06,-0.040
2.150E-06,0.100
2.160E-06,0.320
2.170E-06,0.540
2.180E-06,0.820
2.190E-06,1.020
2.200E-06,1.220
2.210E-06,1.380
2.220E-06,1.440
2.230E-06,1.500
2.240E-06,1.500
2.250E-06,1.460
2.260E-06,1.380
2.270E-06,1.300
2.280E-06,1.120
2.290E-06,0.940
2.300E-06,0.780
2.310E-06,0.580
2.320E-06,0.480
2.330E-06,0.420
2.340E-06,0.360
2.350E-06,0.360
2.360E-06,0.400
2.370E-06,0.500
2.380E-06,0.600
2.390E-06,0.760
2.400E-06,0.920
2.410E-06,1.080
2.420E-06,1.200
2.430E-06,1.360
2.440E-06,1.480
2.450E-06,1.540
2.460E-06,1.540
2.470E-06,1.540
2.480E-06,1.520
2.490E-06,1.440
2.500E-06,1.360
2.510E-06,1.180
2.520E-06,1.060
2.530E-06,0.880
2.540E-06,0.740
2.550E-06,0.620
2.560E-06,0.500
2.570E-06,0.480
2.580E-06,0.440
2.590E-06,0.440
2.600E-06,0.520
2.610E-06,0.580
2.620E-06,0.720
2.630E-06,0.840
2.640E-06,0.980
2.650E-06,1.060
2.660E-06,1.180
2.670E-06,1.220
2.680E-06,1.260
2.690E-06,1.240
2.700E-06,1.220
2.710E-06,1.140
2.720E-06,1.060
2.730E-06,0.900
2.740E-06,0.740
2.750E-06,0.520
2.760E-06,0.360
2.770E-06,0.260
2.780E-06,0.100
2.790E-06,0.120
2.800E-06,0.140
2.810E-06,0.320
2.820E-06,0.580
2.830E-06,0.820
2.840E-06,1.020
2.850E-06,1.180
2.860E-06,1.300
2.870E-06,1.360
2.880E-06,1.340
2.890E-06,1.300
2.900E-06,1.240
2.910E-06,1.100
2.920E-06,0.980
2.930E-06,0.780
2.940E-06,0.580
2.950E-06,0.440
2.960E-06,0.440
2.970E-06,0.500
2.980E-06,0.420
2.990E-06,0.360
3.000E-06,0.300
3.010E-06,0.300
3.020E-06,0.380
3.030E-06,0.400
3.040E-06,0.400
3.050E-06,0.380
3.060E-06,0.340
3.070E-06,0.340
3.080E-06,0.320
3.090E-06,0.360
3.100E-06,0.400
3.110E-06,0.520
3.120E-06,0.540
3.130E-06,0.560
3.140E-06,0.560
3.150E-06,0.560
3.160E-06,0.560
3.170E-06,0.500
3.180E-06,0.340
3.190E-06,0.140
3.200E-06,0.040
3.210E-06,-0.020
3.220E-06,-0.120
3.230E-06,-0.160
3.240E-06,-0.260
3.250E-06,-0.180
3.260E-06,-0.040
3.270E-06,0.020
3.280E-06,0.040
3.290E-06,0.060
3.300E-06,0.060
3.310E-06,0.080
3.320E-06,0.180
3.330E-06,0.220
3.340E-06,0.300
3.350E-06,0.340
3.360E-06,0.420
3.370E-06,0.540
3.380E-06,0.620
3.390E-06,0.720
3.400E-06,0.760
3.410E-06,0.760
3.420E-06,0.760
3.430E-06,0.780
3.440E-06,0.820
3.450E-06,0.840
3.460E-06,0.860
3.470E-06,0.720
3.480E-06,0.520
3.490E-06,0.280
3.500E-06,0.060
3.510E-06,-0.240
3.520E-06,-0.420
3.530E-06,-0.580
3.540E-06,-0.580
3.550E-06,-0.520
3.560E-06,-0.400
