mediciones/Mediciones filtradas (saque las feas)/6-10/42.5/WaveData55110.csv

#timebase=2000000(ps)
,#voltbase=100000(mv/100)
#size=4000
-4.250E-06,-0.008
-4.240E-06,0.016
-4.230E-06,0.024
-4.220E-06,0.020
-4.210E-06,0.004
-4.200E-06,0.000
-4.190E-06,-0.004
-4.180E-06,-0.008
-4.170E-06,0.000
-4.160E-06,0.012
-4.150E-06,0.016
-4.140E-06,0.008
-4.130E-06,0.004
-4.120E-06,-0.008
-4.110E-06,-0.004
-4.100E-06,0.000
-4.090E-06,0.016
-4.080E-06,0.012
-4.070E-06,0.016
-4.060E-06,0.008
-4.050E-06,0.008
-4.040E-06,0.008
-4.030E-06,0.008
-4.020E-06,0.004
-4.010E-06,0.000
-4.000E-06,0.008
-3.990E-06,0.020
-3.980E-06,0.024
-3.970E-06,0.040
-3.960E-06,0.048
-3.950E-06,0.028
-3.940E-06,-0.008
-3.930E-06,-0.020
-3.920E-06,-0.044
-3.910E-06,-0.028
-3.900E-06,-0.008
-3.890E-06,0.004
-3.880E-06,0.076
-3.870E-06,0.020
-3.860E-06,0.040
-3.850E-06,0.016
-3.840E-06,-0.004
-3.830E-06,-0.088
-3.820E-06,-0.004
-3.810E-06,0.004
-3.800E-06,-0.024
-3.790E-06,0.028
-3.780E-06,0.060
-3.770E-06,0.012
-3.760E-06,0.000
-3.750E-06,-0.004
-3.740E-06,-0.012
-3.730E-06,-0.024
-3.720E-06,0.024
-3.710E-06,0.024
-3.700E-06,0.024
-3.690E-06,0.028
-3.680E-06,0.004
-3.670E-06,-0.020
-3.660E-06,-0.052
-3.650E-06,-0.008
-3.640E-06,0.008
-3.630E-06,0.028
-3.620E-06,0.028
-3.610E-06,0.004
-3.600E-06,-0.024
-3.590E-06,-0.040
-3.580E-06,-0.016
-3.570E-06,0.004
-3.560E-06,0.036
-3.550E-06,0.052
-3.540E-06,0.040
-3.530E-06,0.012
-3.520E-06,-0.024
-3.510E-06,-0.048
-3.500E-06,-0.044
-3.490E-06,-0.004
-3.480E-06,0.028
-3.470E-06,0.040
-3.460E-06,0.036
-3.450E-06,0.008
-3.440E-06,-0.012
-3.430E-06,-0.024
-3.420E-06,-0.024
-3.410E-06,0.004
-3.400E-06,0.024
-3.390E-06,0.036
-3.380E-06,0.032
-3.370E-06,0.020
-3.360E-06,-0.008
-3.350E-06,-0.020
-3.340E-06,-0.028
-3.330E-06,0.000
-3.320E-06,0.020
-3.310E-06,0.040
-3.300E-06,0.028
-3.290E-06,0.036
-3.280E-06,0.004
-3.270E-06,0.012
-3.260E-06,0.008
-3.250E-06,0.008
-3.240E-06,0.024
-3.230E-06,0.012
-3.220E-06,-0.012
-3.210E-06,-0.032
-3.200E-06,-0.028
-3.190E-06,-0.012
-3.180E-06,-0.004
-3.170E-06,0.032
-3.160E-06,0.036
-3.150E-06,0.036
-3.140E-06,0.036
-3.130E-06,0.060
-3.120E-06,-0.040
-3.110E-06,-0.072
-3.100E-06,-0.104
-3.090E-06,-0.072
-3.080E-06,-0.004
-3.070E-06,0.052
-3.060E-06,0.080
-3.050E-06,0.048
-3.040E-06,0.028
-3.030E-06,-0.036
-3.020E-06,-0.056
-3.010E-06,-0.036
-3.000E-06,0.000
-2.990E-06,0.060
-2.980E-06,0.088
-2.970E-06,0.084
-2.960E-06,0.020
-2.950E-06,-0.020
-2.940E-06,-0.056
-2.930E-06,-0.052
-2.920E-06,-0.040
-2.910E-06,-0.004
-2.900E-06,0.020
-2.890E-06,0.040
-2.880E-06,0.040
-2.870E-06,0.028
-2.860E-06,0.012
-2.850E-06,-0.008
-2.840E-06,0.012
-2.830E-06,0.012
-2.820E-06,0.024
-2.810E-06,0.028
-2.800E-06,0.052
-2.790E-06,0.044
-2.780E-06,0.012
-2.770E-06,-0.024
-2.760E-06,-0.068
-2.750E-06,-0.068
-2.740E-06,-0.024
-2.730E-06,0.016
-2.720E-06,0.052
-2.710E-06,0.060
-2.700E-06,0.048
-2.690E-06,0.028
-2.680E-06,-0.004
-2.670E-06,-0.028
-2.660E-06,-0.016
-2.650E-06,0.028
-2.640E-06,0.040
-2.630E-06,0.068
-2.620E-06,0.000
-2.610E-06,-0.040
-2.600E-06,-0.084
-2.590E-06,-0.128
-2.580E-06,-0.084
-2.570E-06,-0.104
-2.560E-06,0.036
-2.550E-06,0.120
-2.540E-06,0.132
-2.530E-06,0.068
-2.520E-06,-0.040
-2.510E-06,-0.104
-2.500E-06,-0.128
-2.490E-06,-0.056
-2.480E-06,0.040
-2.470E-06,0.108
-2.460E-06,0.092
-2.450E-06,0.056
-2.440E-06,-0.008
-2.430E-06,-0.056
-2.420E-06,-0.076
-2.410E-06,-0.056
-2.400E-06,-0.016
-2.390E-06,0.032
-2.380E-06,0.072
-2.370E-06,0.068
-2.360E-06,0.028
-2.350E-06,-0.012
-2.340E-06,-0.040
-2.330E-06,-0.044
-2.320E-06,-0.020
-2.310E-06,0.024
-2.300E-06,0.052
-2.290E-06,0.064
-2.280E-06,0.056
-2.270E-06,0.032
-2.260E-06,-0.024
-2.250E-06,-0.044
-2.240E-06,-0.044
-2.230E-06,-0.036
-2.220E-06,0.004
-2.210E-06,0.044
-2.200E-06,0.060
-2.190E-06,0.040
-2.180E-06,0.012
-2.170E-06,-0.020
-2.160E-06,-0.040
-2.150E-06,-0.016
-2.140E-06,0.012
-2.130E-06,0.044
-2.120E-06,0.064
-2.110E-06,0.056
-2.100E-06,0.040
-2.090E-06,0.012
-2.080E-06,0.012
-2.070E-06,0.008
-2.060E-06,0.028
-2.050E-06,0.040
-2.040E-06,0.060
-2.030E-06,0.024
-2.020E-06,-0.012
-2.010E-06,-0.044
-2.000E-06,-0.072
-1.990E-06,-0.048
-1.980E-06,0.004
-1.970E-06,0.068
-1.960E-06,0.092
-1.950E-06,0.080
-1.940E-06,0.040
-1.930E-06,0.000
-1.920E-06,-0.036
-1.910E-06,-0.036
-1.900E-06,-0.012
-1.890E-06,0.020
-1.880E-06,0.068
-1.870E-06,0.056
-1.860E-06,0.044
-1.850E-06,-0.040
-1.840E-06,-0.104
-1.830E-06,-0.148
-1.820E-06,-0.140
-1.810E-06,-0.084
-1.800E-06,0.008
-1.790E-06,0.124
-1.780E-06,0.112
-1.770E-06,0.076
-1.760E-06,-0.024
-1.750E-06,-0.104
-1.740E-06,-0.120
-1.730E-06,-0.076
-1.720E-06,0.016
-1.710E-06,0.092
-1.700E-06,0.104
-1.690E-06,0.072
-1.680E-06,0.016
-1.670E-06,-0.068
-1.660E-06,-0.076
-1.650E-06,-0.052
-1.640E-06,0.012
-1.630E-06,0.080
-1.620E-06,0.100
-1.610E-06,0.068
-1.600E-06,0.048
-1.590E-06,-0.008
-1.580E-06,-0.052
-1.570E-06,-0.100
-1.560E-06,-0.008
-1.550E-06,-0.052
-1.540E-06,-0.004
-1.530E-06,0.056
-1.520E-06,0.064
-1.510E-06,-0.016
-1.500E-06,-0.068
-1.490E-06,-0.052
-1.480E-06,-0.020
-1.470E-06,0.000
-1.460E-06,0.044
-1.450E-06,0.044
-1.440E-06,0.028
-1.430E-06,0.000
-1.420E-06,-0.028
-1.410E-06,-0.032
-1.400E-06,-0.016
-1.390E-06,0.008
-1.380E-06,0.016
-1.370E-06,0.020
-1.360E-06,0.016
-1.350E-06,0.012
-1.340E-06,0.004
-1.330E-06,0.004
-1.320E-06,0.008
-1.310E-06,-0.008
-1.300E-06,0.008
-1.290E-06,0.016
-1.280E-06,0.032
-1.270E-06,0.028
-1.260E-06,0.044
-1.250E-06,0.036
-1.240E-06,0.048
-1.230E-06,0.048
-1.220E-06,0.060
-1.210E-06,0.092
-1.200E-06,0.100
-1.190E-06,0.092
-1.180E-06,0.060
-1.170E-06,0.028
-1.160E-06,0.040
-1.150E-06,0.016
-1.140E-06,0.012
-1.130E-06,-0.052
-1.120E-06,-0.084
-1.110E-06,-0.108
-1.100E-06,-0.052
-1.090E-06,0.024
-1.080E-06,0.136
-1.070E-06,0.136
-1.060E-06,0.120
-1.050E-06,-0.044
-1.040E-06,-0.240
-1.030E-06,-0.336
-1.020E-06,-0.228
-1.010E-06,-0.052
-1.000E-06,0.176
-9.900E-07,0.208
-9.800E-07,0.132
-9.700E-07,-0.024
-9.600E-07,-0.132
-9.500E-07,-0.200
-9.400E-07,-0.140
-9.300E-07,-0.004
-9.200E-07,0.100
-9.100E-07,0.156
-9.000E-07,0.100
-8.900E-07,0.008
-8.800E-07,-0.104
-8.700E-07,-0.128
-8.600E-07,-0.100
-8.500E-07,0.004
-8.400E-07,0.076
-8.300E-07,0.100
-8.200E-07,0.072
-8.100E-07,0.008
-8.000E-07,-0.040
-7.900E-07,-0.080
-7.800E-07,-0.064
-7.700E-07,-0.020
-7.600E-07,0.036
-7.500E-07,0.076
-7.400E-07,0.072
-7.300E-07,0.028
-7.200E-07,-0.020
-7.100E-07,-0.052
-7.000E-07,-0.056
-6.900E-07,-0.012
-6.800E-07,0.032
-6.700E-07,0.076
-6.600E-07,0.072
-6.500E-07,0.048
-6.400E-07,-0.004
-6.300E-07,-0.044
-6.200E-07,-0.056
-6.100E-07,-0.032
-6.000E-07,0.016
-5.900E-07,0.040
-5.800E-07,0.052
-5.700E-07,0.036
-5.600E-07,0.000
-5.500E-07,-0.032
-5.400E-07,-0.044
-5.300E-07,-0.032
-5.200E-07,0.000
-5.100E-07,0.020
-5.000E-07,0.044
-4.900E-07,0.040
-4.800E-07,0.016
-4.700E-07,-0.008
-4.600E-07,-0.028
-4.500E-07,-0.024
-4.400E-07,-0.012
-4.300E-07,0.020
-4.200E-07,0.032
-4.100E-07,0.044
-4.000E-07,0.032
-3.900E-07,0.012
-3.800E-07,-0.004
-3.700E-07,-0.004
-3.600E-07,0.000
-3.500E-07,0.020
-3.400E-07,0.040
-3.300E-07,0.056
-3.200E-07,0.052
-3.100E-07,0.036
-3.000E-07,0.024
-2.900E-07,0.024
-2.800E-07,0.032
-2.700E-07,0.048
-2.600E-07,0.072
-2.500E-07,0.084
-2.400E-07,0.088
-2.300E-07,0.080
-2.200E-07,0.076
-2.100E-07,0.076
-2.000E-07,0.092
-1.900E-07,0.104
-1.800E-07,0.124
-1.700E-07,0.132
-1.600E-07,0.144
-1.500E-07,0.124
-1.400E-07,0.100
-1.300E-07,0.060
-1.200E-07,0.064
-1.100E-07,-0.008
-1.000E-07,-0.068
-9.000E-08,-0.096
-8.000E-08,-0.184
-7.000E-08,-0.292
-6.000E-08,-0.316
-5.000E-08,-0.276
-4.000E-08,-0.244
-3.000E-08,-0.112
-2.000E-08,0.120
-1.000E-08,0.292
0.000E+00,0.204
1.000E-08,0.052
2.000E-08,-0.104
3.000E-08,-0.268
4.000E-08,-0.200
5.000E-08,-0.084
6.000E-08,0.128
7.000E-08,0.228
8.000E-08,0.224
9.000E-08,0.056
1.000E-07,-0.084
1.100E-07,-0.132
1.200E-07,-0.136
1.300E-07,-0.056
1.400E-07,0.048
1.500E-07,0.120
1.600E-07,0.112
1.700E-07,0.076
1.800E-07,-0.040
1.900E-07,-0.104
2.000E-07,-0.120
2.100E-07,-0.052
2.200E-07,0.020
2.300E-07,0.092
2.400E-07,0.104
2.500E-07,0.060
2.600E-07,-0.004
2.700E-07,-0.052
2.800E-07,-0.068
2.900E-07,-0.048
3.000E-07,0.004
3.100E-07,0.064
3.200E-07,0.080
3.300E-07,0.072
3.400E-07,0.012
3.500E-07,-0.040
3.600E-07,-0.068
3.700E-07,-0.048
3.800E-07,-0.004
3.900E-07,0.036
4.000E-07,0.064
4.100E-07,0.056
4.200E-07,0.036
4.300E-07,0.012
4.400E-07,-0.008
4.500E-07,0.000
4.600E-07,0.024
4.700E-07,0.080
4.800E-07,0.112
4.900E-07,0.144
5.000E-07,0.144
5.100E-07,0.136
5.200E-07,0.088
5.300E-07,-0.028
5.400E-07,-0.144
5.500E-07,-0.244
5.600E-07,-0.248
5.700E-07,-0.164
5.800E-07,-0.004
5.900E-07,0.136
6.000E-07,0.212
6.100E-07,0.280
6.200E-07,0.024
6.300E-07,-0.156
6.400E-07,-0.160
6.500E-07,-0.172
6.600E-07,-0.020
6.700E-07,0.072
6.800E-07,0.304
6.900E-07,0.360
7.000E-07,0.224
7.100E-07,-0.084
7.200E-07,-0.268
7.300E-07,-0.468
7.400E-07,-0.300
7.500E-07,-0.120
7.600E-07,0.012
7.700E-07,0.260
7.800E-07,0.160
7.900E-07,0.040
8.000E-07,-0.060
8.100E-07,-0.176
8.200E-07,-0.152
8.300E-07,-0.028
8.400E-07,0.108
8.500E-07,0.160
8.600E-07,0.108
8.700E-07,-0.008
8.800E-07,-0.096
8.900E-07,-0.124
9.000E-07,-0.100
9.100E-07,-0.008
9.200E-07,0.092
9.300E-07,0.128
9.400E-07,0.120
9.500E-07,0.032
9.600E-07,-0.040
9.700E-07,-0.084
9.800E-07,-0.056
9.900E-07,-0.016
1.000E-06,0.064
1.010E-06,0.072
1.020E-06,0.064
1.030E-06,0.012
1.040E-06,-0.072
1.050E-06,-0.120
1.060E-06,-0.104
1.070E-06,-0.016
1.080E-06,0.064
1.090E-06,0.104
1.100E-06,0.092
1.110E-06,0.040
1.120E-06,-0.024
1.130E-06,-0.068
1.140E-06,-0.076
1.150E-06,-0.028
1.160E-06,0.024
1.170E-06,0.072
1.180E-06,0.068
1.190E-06,0.040
1.200E-06,-0.004
1.210E-06,-0.048
1.220E-06,-0.056
1.230E-06,-0.028
1.240E-06,0.012
1.250E-06,0.036
1.260E-06,0.048
1.270E-06,0.036
1.280E-06,0.012
1.290E-06,0.000
1.300E-06,-0.012
1.310E-06,-0.008
1.320E-06,0.008
1.330E-06,0.020
1.340E-06,0.024
1.350E-06,0.036
1.360E-06,0.024
1.370E-06,0.012
1.380E-06,0.008
1.390E-06,0.004
1.400E-06,0.020
1.410E-06,0.028
1.420E-06,0.040
1.430E-06,0.040
1.440E-06,0.040
1.450E-06,0.040
1.460E-06,0.036
1.470E-06,0.040
1.480E-06,0.056
1.490E-06,0.064
1.500E-06,0.076
1.510E-06,0.080
1.520E-06,0.084
1.530E-06,0.092
1.540E-06,0.104
1.550E-06,0.108
1.560E-06,0.132
1.570E-06,0.136
1.580E-06,0.136
1.590E-06,0.148
1.600E-06,0.136
1.610E-06,0.144
1.620E-06,0.132
1.630E-06,0.124
1.640E-06,0.096
1.650E-06,0.124
1.660E-06,0.036
1.670E-06,0.084
1.680E-06,0.076
1.690E-06,0.100
1.700E-06,0.068
1.710E-06,-0.008
1.720E-06,0.020
1.730E-06,0.088
1.740E-06,0.180
1.750E-06,0.236
1.760E-06,0.256
1.770E-06,0.176
1.780E-06,0.064
1.790E-06,0.008
1.800E-06,0.024
1.810E-06,-0.308
1.820E-06,-0.512
1.830E-06,-0.512
1.840E-06,-0.508
1.850E-06,-0.512
1.860E-06,0.028
1.870E-06,0.540
1.880E-06,0.544
1.890E-06,0.540
1.900E-06,0.152
1.910E-06,-0.260
1.920E-06,-0.484
1.930E-06,-0.280
1.940E-06,0.044
1.950E-06,0.408
1.960E-06,0.520
1.970E-06,0.212
1.980E-06,-0.216
1.990E-06,-0.512
2.000E-06,-0.512
2.010E-06,-0.512
2.020E-06,-0.472
2.030E-06,0.124
2.040E-06,0.448
2.050E-06,0.536
2.060E-06,0.296
2.070E-06,-0.184
2.080E-06,-0.512
2.090E-06,-0.508
2.100E-06,-0.248
2.110E-06,0.064
2.120E-06,0.368
2.130E-06,0.456
2.140E-06,0.288
2.150E-06,-0.008
2.160E-06,-0.296
2.170E-06,-0.372
2.180E-06,-0.264
2.190E-06,-0.008
2.200E-06,0.260
2.210E-06,0.360
2.220E-06,0.284
2.230E-06,0.044
2.240E-06,-0.136
2.250E-06,-0.252
2.260E-06,-0.204
2.270E-06,-0.032
2.280E-06,0.136
2.290E-06,0.272
2.300E-06,0.192
2.310E-06,0.092
2.320E-06,-0.020
2.330E-06,-0.152
2.340E-06,-0.104
2.350E-06,-0.064
2.360E-06,0.108
2.370E-06,0.144
2.380E-06,0.148
2.390E-06,0.120
2.400E-06,0.004
2.410E-06,-0.012
2.420E-06,-0.056
2.430E-06,0.012
2.440E-06,0.060
2.450E-06,0.124
2.460E-06,0.152
2.470E-06,0.088
2.480E-06,0.000
2.490E-06,-0.024
2.500E-06,-0.052
2.510E-06,0.004
2.520E-06,0.064
2.530E-06,0.104
2.540E-06,0.124
2.550E-06,0.092
2.560E-06,0.116
2.570E-06,0.088
2.580E-06,0.068
2.590E-06,0.136
2.600E-06,0.076
2.610E-06,0.076
2.620E-06,0.088
2.630E-06,0.104
2.640E-06,0.100
2.650E-06,0.100
2.660E-06,0.140
2.670E-06,0.136
2.680E-06,0.164
2.690E-06,0.164
2.700E-06,0.132
2.710E-06,0.124
2.720E-06,0.164
2.730E-06,0.188
2.740E-06,0.200
2.750E-06,0.216
2.760E-06,0.204
2.770E-06,0.192
2.780E-06,0.184
2.790E-06,0.188
2.800E-06,0.168
2.810E-06,0.176
2.820E-06,0.172
2.830E-06,0.184
2.840E-06,0.184
2.850E-06,0.168
2.860E-06,0.164
2.870E-06,0.156
2.880E-06,0.172
2.890E-06,0.176
2.900E-06,0.172
2.910E-06,0.148
2.920E-06,0.108
2.930E-06,0.076
2.940E-06,0.060
2.950E-06,0.104
2.960E-06,0.188
2.970E-06,0.272
2.980E-06,0.292
2.990E-06,0.256
3.000E-06,0.204
3.010E-06,0.144
3.020E-06,0.104
3.030E-06,0.180
3.040E-06,0.160
3.050E-06,0.476
3.060E-06,0.204
3.070E-06,0.252
3.080E-06,0.044
3.090E-06,0.076
3.100E-06,0.124
3.110E-06,0.064
3.120E-06,0.260
3.130E-06,0.144
3.140E-06,0.304
3.150E-06,0.224
3.160E-06,0.152
3.170E-06,0.092
3.180E-06,0.084
3.190E-06,0.196
3.200E-06,0.200
3.210E-06,0.268
3.220E-06,0.220
3.230E-06,0.228
3.240E-06,0.164
3.250E-06,0.160
3.260E-06,0.156
3.270E-06,0.156
3.280E-06,0.196
3.290E-06,0.224
3.300E-06,0.244
3.310E-06,0.220
3.320E-06,0.216
3.330E-06,0.180
3.340E-06,0.188
3.350E-06,0.188
3.360E-06,0.208
3.370E-06,0.212
3.380E-06,0.232
3.390E-06,0.224
3.400E-06,0.208
3.410E-06,0.192
3.420E-06,0.176
3.430E-06,0.192
3.440E-06,0.192
3.450E-06,0.212
3.460E-06,0.212
3.470E-06,0.228
3.480E-06,0.208
3.490E-06,0.208
3.500E-06,0.196
3.510E-06,0.192
3.520E-06,0.192
3.530E-06,0.192
3.540E-06,0.204
3.550E-06,0.224
3.560E-06,0.208
3.570E-06,0.208
3.580E-06,0.200
3.590E-06,0.188
3.600E-06,0.196
3.610E-06,0.176
3.620E-06,0.216
3.630E-06,0.204
3.640E-06,0.212
3.650E-06,0.200
3.660E-06,0.204
3.670E-06,0.208
3.680E-06,0.188
3.690E-06,0.200
3.700E-06,0.192
3.710E-06,0.208
3.720E-06,0.204
3.730E-06,0.204
3.740E-06,0.196
3.750E-06,0.192
3.760E-06,0.188
3.770E-06,0.192
3.780E-06,0.196
3.790E-06,0.200
3.800E-06,0.208
3.810E-06,0.204
3.820E-06,0.208
3.830E-06,0.196
3.840E-06,0.192
3.850E-06,0.188
3.860E-06,0.192
3.870E-06,0.200
3.880E-06,0.200
3.890E-06,0.200
3.900E-06,0.196
3.910E-06,0.196
3.920E-06,0.192
3.930E-06,0.184
3.940E-06,0.192
3.950E-06,0.192
3.960E-06,0.192
3.970E-06,0.196
3.980E-06,0.196
3.990E-06,0.196
4.000E-06,0.192
4.010E-06,0.188
4.020E-06,0.192
4.030E-06,0.188
4.040E-06,0.188
4.050E-06,0.192
4.060E-06,0.188
4.070E-06,0.188
4.080E-06,0.184
4.090E-06,0.188
4.100E-06,0.184
4.110E-06,0.188
4.120E-06,0.184
4.130E-06,0.188
4.140E-06,0.192
4.150E-06,0.192
4.160E-06,0.184
4.170E-06,0.184
4.180E-06,0.172
4.190E-06,0.172
4.200E-06,0.180
4.210E-06,0.184
4.220E-06,0.184
4.230E-06,0.188
4.240E-06,0.188
4.250E-06,0.184
4.260E-06,0.180
4.270E-06,0.180
4.280E-06,0.176
4.290E-06,0.176
4.300E-06,0.180
4.310E-06,0.176
4.320E-06,0.176
4.330E-06,0.172
4.340E-06,0.176
4.350E-06,0.176
4.360E-06,0.176
4.370E-06,0.172
4.380E-06,0.168
4.390E-06,0.176
4.400E-06,0.168
4.410E-06,0.160
4.420E-06,0.168
4.430E-06,0.172
4.440E-06,0.172
4.450E-06,0.176
4.460E-06,0.172
4.470E-06,0.176
4.480E-06,0.172
4.490E-06,0.164
4.500E-06,0.160
4.510E-06,0.164
4.520E-06,0.164
4.530E-06,0.168
4.540E-06,0.172
4.550E-06,0.172
4.560E-06,0.176
4.570E-06,0.164
4.580E-06,0.168
4.590E-06,0.164
4.600E-06,0.172
4.610E-06,0.176
4.620E-06,0.176
4.630E-06,0.172
4.640E-06,0.172
4.650E-06,0.160
4.660E-06,0.160
4.670E-06,0.164
4.680E-06,0.164
4.690E-06,0.168
4.700E-06,0.172
4.710E-06,0.176
4.720E-06,0.168
4.730E-06,0.168
4.740E-06,0.160
4.750E-06,0.160
4.760E-06,0.164
4.770E-06,0.160
4.780E-06,0.168
4.790E-06,0.168
4.800E-06,0.164
4.810E-06,0.164
4.820E-06,0.164
4.830E-06,0.164
4.840E-06,0.160
4.850E-06,0.160
4.860E-06,0.164
4.870E-06,0.160
4.880E-06,0.156
4.890E-06,0.156
4.900E-06,0.156
4.910E-06,0.160
4.920E-06,0.160
4.930E-06,0.152
4.940E-06,0.152
4.950E-06,0.156
4.960E-06,0.152
4.970E-06,0.156
4.980E-06,0.148
4.990E-06,0.152
5.000E-06,0.148
5.010E-06,0.148
5.020E-06,0.148
5.030E-06,0.148
5.040E-06,0.148
5.050E-06,0.148
5.060E-06,0.152
5.070E-06,0.144
5.080E-06,0.148
5.090E-06,0.148
5.100E-06,0.148
5.110E-06,0.152
5.120E-06,0.144
5.130E-06,0.144
5.140E-06,0.144
5.150E-06,0.144
5.160E-06,0.144
5.170E-06,0.144
5.180E-06,0.140
5.190E-06,0.144
5.200E-06,0.144
5.210E-06,0.144
5.220E-06,0.140
5.230E-06,0.140
5.240E-06,0.140
5.250E-06,0.140
5.260E-06,0.140
5.270E-06,0.140
5.280E-06,0.136
5.290E-06,0.140
5.300E-06,0.136
5.310E-06,0.140
5.320E-06,0.136
5.330E-06,0.136
5.340E-06,0.136
5.350E-06,0.140
5.360E-06,0.136
5.370E-06,0.136
5.380E-06,0.132
5.390E-06,0.132
5.400E-06,0.128
5.410E-06,0.128
5.420E-06,0.128
5.430E-06,0.128
5.440E-06,0.128
5.450E-06,0.128
5.460E-06,0.128
5.470E-06,0.128
5.480E-06,0.128
5.490E-06,0.120
5.500E-06,0.124
5.510E-06,0.124
5.520E-06,0.124
5.530E-06,0.128
5.540E-06,0.124
5.550E-06,0.128
5.560E-06,0.124
5.570E-06,0.124
5.580E-06,0.120
5.590E-06,0.120
5.600E-06,0.124
5.610E-06,0.124
5.620E-06,0.124
5.630E-06,0.120
5.640E-06,0.120
5.650E-06,0.120
5.660E-06,0.124
5.670E-06,0.124
5.680E-06,0.124
5.690E-06,0.120
5.700E-06,0.124
5.710E-06,0.124
5.720E-06,0.124
5.730E-06,0.120
5.740E-06,0.120
5.750E-06,0.124
5.760E-06,0.116
5.770E-06,0.116
5.780E-06,0.120
5.790E-06,0.124
5.800E-06,0.120
5.810E-06,0.108
5.820E-06,0.112
5.830E-06,0.112
5.840E-06,0.108
5.850E-06,0.120
5.860E-06,0.120
5.870E-06,0.120
5.880E-06,0.124
5.890E-06,0.124
5.900E-06,0.124
5.910E-06,0.108
5.920E-06,0.112
5.930E-06,0.112
5.940E-06,0.108
5.950E-06,0.116
5.960E-06,0.112
5.970E-06,0.108
5.980E-06,0.112
5.990E-06,0.104
6.000E-06,0.104
6.010E-06,0.104
6.020E-06,0.108
6.030E-06,0.112
6.040E-06,0.108
6.050E-06,0.104
6.060E-06,0.108
6.070E-06,0.104
6.080E-06,0.100
6.090E-06,0.108
6.100E-06,0.104
6.110E-06,0.104
6.120E-06,0.100
6.130E-06,0.100
6.140E-06,0.104
6.150E-06,0.100
6.160E-06,0.096
6.170E-06,0.100
6.180E-06,0.096
6.190E-06,0.100
6.200E-06,0.096
6.210E-06,0.096
6.220E-06,0.096
6.230E-06,0.092
6.240E-06,0.096
6.250E-06,0.100
6.260E-06,0.100
6.270E-06,0.100
6.280E-06,0.092
6.290E-06,0.092
6.300E-06,0.088
6.310E-06,0.088
6.320E-06,0.092
6.330E-06,0.096
6.340E-06,0.096
6.350E-06,0.092
6.360E-06,0.092
6.370E-06,0.092
6.380E-06,0.088
6.390E-06,0.088
6.400E-06,0.084
6.410E-06,0.088
6.420E-06,0.088
6.430E-06,0.092
6.440E-06,0.088
6.450E-06,0.088
6.460E-06,0.088
6.470E-06,0.084
6.480E-06,0.080
6.490E-06,0.076
6.500E-06,0.080
6.510E-06,0.088
6.520E-06,0.092
6.530E-06,0.088
6.540E-06,0.080
6.550E-06,0.080
6.560E-06,0.080
6.570E-06,0.076
6.580E-06,0.072
6.590E-06,0.080
6.600E-06,0.084
6.610E-06,0.080
6.620E-06,0.076
6.630E-06,0.076
6.640E-06,0.076
6.650E-06,0.076
6.660E-06,0.072
6.670E-06,0.072
6.680E-06,0.080
6.690E-06,0.080
6.700E-06,0.080
6.710E-06,0.080
6.720E-06,0.072
6.730E-06,0.068
6.740E-06,0.072
6.750E-06,0.072
6.760E-06,0.072
6.770E-06,0.072
6.780E-06,0.076
6.790E-06,0.076
6.800E-06,0.072
6.810E-06,0.068
6.820E-06,0.068
6.830E-06,0.072
6.840E-06,0.072
6.850E-06,0.072
6.860E-06,0.076
6.870E-06,0.072
6.880E-06,0.064
6.890E-06,0.068
6.900E-06,0.072
6.910E-06,0.072
6.920E-06,0.068
6.930E-06,0.068
6.940E-06,0.068
6.950E-06,0.064
6.960E-06,0.064
6.970E-06,0.064
6.980E-06,0.064
6.990E-06,0.064
7.000E-06,0.072
7.010E-06,0.068
7.020E-06,0.060
7.030E-06,0.060
7.040E-06,0.060
7.050E-06,0.064
7.060E-06,0.068
7.070E-06,0.064
7.080E-06,0.064
7.090E-06,0.064
7.100E-06,0.060
7.110E-06,0.060
7.120E-06,0.060
7.130E-06,0.060
7.140E-06,0.060
7.150E-06,0.060
7.160E-06,0.064
7.170E-06,0.060
7.180E-06,0.060
7.190E-06,0.060
7.200E-06,0.056
7.210E-06,0.056
7.220E-06,0.060
7.230E-06,0.056
7.240E-06,0.060
7.250E-06,0.056
7.260E-06,0.056
7.270E-06,0.060
7.280E-06,0.056
7.290E-06,0.052
7.300E-06,0.060
7.310E-06,0.056
7.320E-06,0.056
7.330E-06,0.056
7.340E-06,0.052
7.350E-06,0.052
7.360E-06,0.048
7.370E-06,0.052
7.380E-06,0.048
7.390E-06,0.052
7.400E-06,0.056
7.410E-06,0.056
7.420E-06,0.052
7.430E-06,0.052
7.440E-06,0.044
7.450E-06,0.044
7.460E-06,0.040
7.470E-06,0.052
7.480E-06,0.056
7.490E-06,0.052
7.500E-06,0.048
7.510E-06,0.048
7.520E-06,0.040
7.530E-06,0.044
7.540E-06,0.044
7.550E-06,0.052
7.560E-06,0.048
7.570E-06,0.048
7.580E-06,0.040
7.590E-06,0.040
7.600E-06,0.048
7.610E-06,0.044
7.620E-06,0.044
7.630E-06,0.044
7.640E-06,0.044
7.650E-06,0.036
7.660E-06,0.044
7.670E-06,0.040
7.680E-06,0.040
7.690E-06,0.040
7.700E-06,0.044
7.710E-06,0.044
7.720E-06,0.040
7.730E-06,0.036
7.740E-06,0.032
7.750E-06,0.040
7.760E-06,0.044
7.770E-06,0.044
