mediciones/Mediciones filtradas (saque las feas)/6-10/42.5/WaveData55104.csv

#timebase=2000000(ps)
,#voltbase=100000(mv/100)
#size=4000
-4.250E-06,0.008
-4.240E-06,0.004
-4.230E-06,0.004
-4.220E-06,0.008
-4.210E-06,0.000
-4.200E-06,-0.004
-4.190E-06,0.000
-4.180E-06,0.004
-4.170E-06,0.000
-4.160E-06,0.008
-4.150E-06,0.008
-4.140E-06,0.008
-4.130E-06,0.004
-4.120E-06,0.012
-4.110E-06,0.008
-4.100E-06,0.008
-4.090E-06,0.008
-4.080E-06,0.000
-4.070E-06,0.000
-4.060E-06,-0.004
-4.050E-06,-0.004
-4.040E-06,0.004
-4.030E-06,0.008
-4.020E-06,0.004
-4.010E-06,0.004
-4.000E-06,-0.004
-3.990E-06,0.008
-3.980E-06,0.004
-3.970E-06,0.000
-3.960E-06,-0.016
-3.950E-06,0.000
-3.940E-06,0.000
-3.930E-06,0.000
-3.920E-06,0.000
-3.910E-06,0.004
-3.900E-06,0.000
-3.890E-06,0.000
-3.880E-06,0.004
-3.870E-06,-0.004
-3.860E-06,0.008
-3.850E-06,0.004
-3.840E-06,0.008
-3.830E-06,-0.004
-3.820E-06,0.004
-3.810E-06,0.000
-3.800E-06,-0.004
-3.790E-06,-0.004
-3.780E-06,0.000
-3.770E-06,0.008
-3.760E-06,0.004
-3.750E-06,0.012
-3.740E-06,0.000
-3.730E-06,0.000
-3.720E-06,-0.004
-3.710E-06,-0.004
-3.700E-06,-0.004
-3.690E-06,0.004
-3.680E-06,0.004
-3.670E-06,0.004
-3.660E-06,0.008
-3.650E-06,0.008
-3.640E-06,-0.004
-3.630E-06,0.000
-3.620E-06,0.000
-3.610E-06,0.000
-3.600E-06,0.008
-3.590E-06,0.004
-3.580E-06,0.004
-3.570E-06,0.008
-3.560E-06,0.000
-3.550E-06,0.008
-3.540E-06,0.004
-3.530E-06,0.004
-3.520E-06,-0.004
-3.510E-06,0.004
-3.500E-06,0.008
-3.490E-06,0.008
-3.480E-06,0.000
-3.470E-06,0.008
-3.460E-06,0.000
-3.450E-06,-0.008
-3.440E-06,0.000
-3.430E-06,0.004
-3.420E-06,0.008
-3.410E-06,0.004
-3.400E-06,0.000
-3.390E-06,-0.008
-3.380E-06,0.008
-3.370E-06,0.008
-3.360E-06,0.012
-3.350E-06,-0.004
-3.340E-06,0.008
-3.330E-06,0.004
-3.320E-06,-0.004
-3.310E-06,0.008
-3.300E-06,0.012
-3.290E-06,-0.004
-3.280E-06,0.000
-3.270E-06,0.004
-3.260E-06,0.008
-3.250E-06,0.000
-3.240E-06,0.000
-3.230E-06,0.008
-3.220E-06,0.004
-3.210E-06,0.008
-3.200E-06,0.000
-3.190E-06,0.004
-3.180E-06,-0.008
-3.170E-06,0.012
-3.160E-06,-0.008
-3.150E-06,0.004
-3.140E-06,-0.008
-3.130E-06,0.000
-3.120E-06,0.016
-3.110E-06,0.012
-3.100E-06,0.004
-3.090E-06,0.000
-3.080E-06,0.000
-3.070E-06,-0.004
-3.060E-06,0.008
-3.050E-06,0.008
-3.040E-06,0.004
-3.030E-06,0.000
-3.020E-06,0.004
-3.010E-06,-0.004
-3.000E-06,0.008
-2.990E-06,0.004
-2.980E-06,0.008
-2.970E-06,-0.004
-2.960E-06,-0.004
-2.950E-06,0.000
-2.940E-06,0.008
-2.930E-06,0.008
-2.920E-06,0.012
-2.910E-06,0.000
-2.900E-06,0.000
-2.890E-06,0.000
-2.880E-06,0.004
-2.870E-06,0.012
-2.860E-06,0.012
-2.850E-06,0.004
-2.840E-06,0.000
-2.830E-06,0.000
-2.820E-06,-0.004
-2.810E-06,0.004
-2.800E-06,0.008
-2.790E-06,0.008
-2.780E-06,0.008
-2.770E-06,-0.004
-2.760E-06,0.000
-2.750E-06,0.000
-2.740E-06,0.000
-2.730E-06,0.004
-2.720E-06,0.008
-2.710E-06,0.008
-2.700E-06,0.004
-2.690E-06,0.000
-2.680E-06,0.004
-2.670E-06,0.004
-2.660E-06,0.000
-2.650E-06,0.008
-2.640E-06,0.004
-2.630E-06,0.004
-2.620E-06,0.000
-2.610E-06,0.000
-2.600E-06,0.000
-2.590E-06,0.004
-2.580E-06,0.008
-2.570E-06,0.004
-2.560E-06,0.008
-2.550E-06,0.004
-2.540E-06,0.000
-2.530E-06,0.000
-2.520E-06,0.000
-2.510E-06,0.004
-2.500E-06,0.008
-2.490E-06,0.000
-2.480E-06,0.004
-2.470E-06,0.004
-2.460E-06,0.008
-2.450E-06,0.008
-2.440E-06,0.000
-2.430E-06,-0.004
-2.420E-06,0.008
-2.410E-06,0.004
-2.400E-06,0.008
-2.390E-06,0.004
-2.380E-06,-0.004
-2.370E-06,-0.004
-2.360E-06,0.004
-2.350E-06,0.008
-2.340E-06,0.008
-2.330E-06,0.008
-2.320E-06,0.008
-2.310E-06,0.004
-2.300E-06,0.000
-2.290E-06,0.000
-2.280E-06,0.008
-2.270E-06,0.008
-2.260E-06,0.008
-2.250E-06,0.008
-2.240E-06,0.004
-2.230E-06,0.008
-2.220E-06,0.004
-2.210E-06,0.008
-2.200E-06,0.008
-2.190E-06,0.008
-2.180E-06,0.000
-2.170E-06,-0.016
-2.160E-06,-0.016
-2.150E-06,-0.008
-2.140E-06,0.008
-2.130E-06,0.016
-2.120E-06,0.016
-2.110E-06,0.012
-2.100E-06,-0.004
-2.090E-06,-0.012
-2.080E-06,-0.008
-2.070E-06,-0.004
-2.060E-06,0.008
-2.050E-06,0.016
-2.040E-06,0.012
-2.030E-06,0.004
-2.020E-06,0.000
-2.010E-06,0.000
-2.000E-06,0.000
-1.990E-06,-0.004
-1.980E-06,0.008
-1.970E-06,0.012
-1.960E-06,0.012
-1.950E-06,0.012
-1.940E-06,0.008
-1.930E-06,0.008
-1.920E-06,0.004
-1.910E-06,0.012
-1.900E-06,0.008
-1.890E-06,0.008
-1.880E-06,0.012
-1.870E-06,0.012
-1.860E-06,0.008
-1.850E-06,0.004
-1.840E-06,0.004
-1.830E-06,0.012
-1.820E-06,0.012
-1.810E-06,0.028
-1.800E-06,0.020
-1.790E-06,0.020
-1.780E-06,0.012
-1.770E-06,0.000
-1.760E-06,0.000
-1.750E-06,0.000
-1.740E-06,-0.004
-1.730E-06,0.012
-1.720E-06,0.008
-1.710E-06,0.020
-1.700E-06,-0.012
-1.690E-06,0.016
-1.680E-06,-0.008
-1.670E-06,0.012
-1.660E-06,-0.004
-1.650E-06,0.020
-1.640E-06,-0.040
-1.630E-06,-0.060
-1.620E-06,-0.032
-1.610E-06,-0.008
-1.600E-06,-0.004
-1.590E-06,0.044
-1.580E-06,0.048
-1.570E-06,0.024
-1.560E-06,0.000
-1.550E-06,-0.028
-1.540E-06,-0.040
-1.530E-06,-0.020
-1.520E-06,0.012
-1.510E-06,0.008
-1.500E-06,0.028
-1.490E-06,0.008
-1.480E-06,0.020
-1.470E-06,0.016
-1.460E-06,0.000
-1.450E-06,-0.008
-1.440E-06,-0.008
-1.430E-06,0.012
-1.420E-06,0.028
-1.410E-06,0.036
-1.400E-06,0.024
-1.390E-06,0.008
-1.380E-06,-0.020
-1.370E-06,-0.036
-1.360E-06,-0.044
-1.350E-06,-0.008
-1.340E-06,0.028
-1.330E-06,0.036
-1.320E-06,0.032
-1.310E-06,0.028
-1.300E-06,0.008
-1.290E-06,0.024
-1.280E-06,-0.004
-1.270E-06,-0.040
-1.260E-06,-0.024
-1.250E-06,-0.024
-1.240E-06,0.012
-1.230E-06,-0.016
-1.220E-06,-0.040
-1.210E-06,0.016
-1.200E-06,0.016
-1.190E-06,0.012
-1.180E-06,-0.016
-1.170E-06,-0.024
-1.160E-06,0.004
-1.150E-06,0.000
-1.140E-06,-0.004
-1.130E-06,0.004
-1.120E-06,0.008
-1.110E-06,0.012
-1.100E-06,0.024
-1.090E-06,0.008
-1.080E-06,0.004
-1.070E-06,-0.004
-1.060E-06,-0.008
-1.050E-06,0.000
-1.040E-06,0.012
-1.030E-06,0.024
-1.020E-06,0.012
-1.010E-06,0.008
-1.000E-06,-0.004
-9.900E-07,-0.020
-9.800E-07,-0.028
-9.700E-07,-0.004
-9.600E-07,0.000
-9.500E-07,0.020
-9.400E-07,0.024
-9.300E-07,0.004
-9.200E-07,0.000
-9.100E-07,-0.004
-9.000E-07,-0.008
-8.900E-07,-0.004
-8.800E-07,0.008
-8.700E-07,0.008
-8.600E-07,0.004
-8.500E-07,0.000
-8.400E-07,0.004
-8.300E-07,0.004
-8.200E-07,0.004
-8.100E-07,0.004
-8.000E-07,0.004
-7.900E-07,0.008
-7.800E-07,0.012
-7.700E-07,0.004
-7.600E-07,0.008
-7.500E-07,0.004
-7.400E-07,-0.004
-7.300E-07,-0.008
-7.200E-07,-0.008
-7.100E-07,-0.004
-7.000E-07,0.004
-6.900E-07,0.012
-6.800E-07,0.004
-6.700E-07,0.004
-6.600E-07,0.004
-6.500E-07,0.004
-6.400E-07,0.004
-6.300E-07,-0.004
-6.200E-07,0.004
-6.100E-07,0.008
-6.000E-07,0.004
-5.900E-07,0.008
-5.800E-07,0.008
-5.700E-07,0.008
-5.600E-07,-0.004
-5.500E-07,0.000
-5.400E-07,-0.004
-5.300E-07,-0.004
-5.200E-07,0.008
-5.100E-07,0.012
-5.000E-07,0.020
-4.900E-07,0.012
-4.800E-07,0.004
-4.700E-07,-0.004
-4.600E-07,0.000
-4.500E-07,0.000
-4.400E-07,0.004
-4.300E-07,0.020
-4.200E-07,0.032
-4.100E-07,0.020
-4.000E-07,0.008
-3.900E-07,0.004
-3.800E-07,0.000
-3.700E-07,0.000
-3.600E-07,0.004
-3.500E-07,0.020
-3.400E-07,0.028
-3.300E-07,0.020
-3.200E-07,0.028
-3.100E-07,0.016
-3.000E-07,0.008
-2.900E-07,0.000
-2.800E-07,0.012
-2.700E-07,0.028
-2.600E-07,0.044
-2.500E-07,0.048
-2.400E-07,0.040
-2.300E-07,0.024
-2.200E-07,0.004
-2.100E-07,0.012
-2.000E-07,0.028
-1.900E-07,0.060
-1.800E-07,0.052
-1.700E-07,0.028
-1.600E-07,-0.008
-1.500E-07,-0.060
-1.400E-07,-0.060
-1.300E-07,-0.004
-1.200E-07,0.016
-1.100E-07,0.036
-1.000E-07,0.100
-9.000E-08,0.056
-8.000E-08,0.044
-7.000E-08,0.056
-6.000E-08,-0.064
-5.000E-08,-0.064
-4.000E-08,-0.304
-3.000E-08,-0.248
-2.000E-08,-0.120
-1.000E-08,0.092
0.000E+00,0.472
1.000E-08,0.108
2.000E-08,0.208
3.000E-08,-0.140
4.000E-08,-0.204
5.000E-08,-0.260
6.000E-08,-0.120
7.000E-08,0.108
8.000E-08,0.184
9.000E-08,0.176
1.000E-07,0.004
1.100E-07,-0.004
1.200E-07,-0.076
1.300E-07,-0.032
1.400E-07,-0.064
1.500E-07,0.008
1.600E-07,0.060
1.700E-07,0.104
1.800E-07,0.104
1.900E-07,0.072
2.000E-07,0.036
2.100E-07,-0.088
2.200E-07,-0.084
2.300E-07,-0.100
2.400E-07,0.028
2.500E-07,0.080
2.600E-07,0.156
2.700E-07,0.140
2.800E-07,0.068
2.900E-07,-0.004
3.000E-07,-0.136
3.100E-07,-0.172
3.200E-07,-0.124
3.300E-07,-0.012
3.400E-07,0.016
3.500E-07,0.032
3.600E-07,0.016
3.700E-07,0.000
3.800E-07,-0.036
3.900E-07,-0.052
4.000E-07,-0.036
4.100E-07,-0.024
4.200E-07,0.020
4.300E-07,0.056
4.400E-07,0.080
4.500E-07,0.052
4.600E-07,0.024
4.700E-07,-0.024
4.800E-07,-0.056
4.900E-07,-0.048
5.000E-07,0.008
5.100E-07,0.012
5.200E-07,0.060
5.300E-07,0.092
5.400E-07,0.052
5.500E-07,0.012
5.600E-07,-0.032
5.700E-07,-0.072
5.800E-07,-0.056
5.900E-07,-0.012
6.000E-07,0.044
6.100E-07,0.088
6.200E-07,0.052
6.300E-07,0.016
6.400E-07,-0.016
6.500E-07,0.024
6.600E-07,0.056
6.700E-07,0.024
6.800E-07,-0.016
6.900E-07,-0.028
7.000E-07,-0.112
7.100E-07,-0.152
7.200E-07,-0.104
7.300E-07,0.008
7.400E-07,0.076
7.500E-07,0.084
7.600E-07,0.068
7.700E-07,0.020
7.800E-07,-0.044
7.900E-07,-0.084
8.000E-07,-0.052
8.100E-07,0.012
8.200E-07,0.080
8.300E-07,0.112
8.400E-07,0.076
8.500E-07,0.024
8.600E-07,-0.012
8.700E-07,-0.060
8.800E-07,-0.040
8.900E-07,-0.036
9.000E-07,0.056
9.100E-07,0.056
9.200E-07,0.112
9.300E-07,0.084
9.400E-07,0.000
9.500E-07,-0.068
9.600E-07,-0.104
9.700E-07,-0.044
9.800E-07,0.040
9.900E-07,0.036
1.000E-06,0.072
1.010E-06,-0.096
1.020E-06,-0.116
1.030E-06,-0.076
1.040E-06,-0.016
1.050E-06,0.072
1.060E-06,0.088
1.070E-06,-0.008
1.080E-06,0.016
1.090E-06,-0.040
1.100E-06,-0.064
1.110E-06,-0.008
1.120E-06,-0.056
1.130E-06,0.076
1.140E-06,0.040
1.150E-06,-0.008
1.160E-06,-0.056
1.170E-06,-0.032
1.180E-06,0.032
1.190E-06,0.064
1.200E-06,0.096
1.210E-06,0.064
1.220E-06,0.092
1.230E-06,0.108
1.240E-06,-0.104
1.250E-06,-0.068
1.260E-06,-0.092
1.270E-06,0.020
1.280E-06,-0.072
1.290E-06,0.028
1.300E-06,0.132
1.310E-06,0.104
1.320E-06,0.044
1.330E-06,-0.088
1.340E-06,-0.084
1.350E-06,-0.056
1.360E-06,-0.004
1.370E-06,0.004
1.380E-06,0.016
1.390E-06,0.000
1.400E-06,-0.008
1.410E-06,0.004
1.420E-06,-0.012
1.430E-06,-0.032
1.440E-06,-0.028
1.450E-06,-0.012
1.460E-06,0.008
1.470E-06,0.028
1.480E-06,0.032
1.490E-06,0.036
1.500E-06,0.016
1.510E-06,0.016
1.520E-06,0.012
1.530E-06,0.024
1.540E-06,0.036
1.550E-06,0.060
1.560E-06,0.092
1.570E-06,0.068
1.580E-06,-0.008
1.590E-06,-0.112
1.600E-06,-0.160
1.610E-06,-0.100
1.620E-06,0.000
1.630E-06,0.080
1.640E-06,0.116
1.650E-06,0.076
1.660E-06,0.012
1.670E-06,-0.072
1.680E-06,-0.108
1.690E-06,-0.072
1.700E-06,-0.004
1.710E-06,0.056
1.720E-06,0.076
1.730E-06,0.056
1.740E-06,0.008
1.750E-06,-0.028
1.760E-06,-0.048
1.770E-06,-0.028
1.780E-06,0.008
1.790E-06,0.044
1.800E-06,0.064
1.810E-06,0.056
1.820E-06,0.036
1.830E-06,0.016
1.840E-06,0.000
1.850E-06,0.000
1.860E-06,0.008
1.870E-06,0.004
1.880E-06,0.016
1.890E-06,0.024
1.900E-06,0.036
1.910E-06,0.060
1.920E-06,0.072
1.930E-06,0.044
1.940E-06,0.060
1.950E-06,0.076
1.960E-06,0.072
1.970E-06,0.152
1.980E-06,0.076
1.990E-06,0.184
2.000E-06,-0.232
2.010E-06,-0.208
2.020E-06,-0.512
2.030E-06,-0.152
2.040E-06,-0.148
2.050E-06,0.004
2.060E-06,0.284
2.070E-06,0.244
2.080E-06,0.260
2.090E-06,-0.240
2.100E-06,-0.244
2.110E-06,-0.344
2.120E-06,-0.036
2.130E-06,0.192
2.140E-06,0.308
2.150E-06,0.160
2.160E-06,-0.008
2.170E-06,-0.064
2.180E-06,-0.184
2.190E-06,-0.064
2.200E-06,-0.068
2.210E-06,0.064
2.220E-06,0.088
2.230E-06,0.164
2.240E-06,0.072
2.250E-06,0.000
2.260E-06,-0.060
2.270E-06,-0.108
2.280E-06,-0.044
2.290E-06,-0.004
2.300E-06,0.084
2.310E-06,0.052
2.320E-06,0.088
2.330E-06,-0.004
2.340E-06,-0.004
2.350E-06,-0.044
2.360E-06,0.000
2.370E-06,0.012
2.380E-06,0.068
2.390E-06,0.084
2.400E-06,0.060
2.410E-06,0.056
2.420E-06,0.008
2.430E-06,0.036
2.440E-06,0.040
2.450E-06,0.108
2.460E-06,0.140
2.470E-06,0.136
2.480E-06,0.060
2.490E-06,-0.028
2.500E-06,-0.100
2.510E-06,-0.180
2.520E-06,-0.172
2.530E-06,-0.108
2.540E-06,-0.004
2.550E-06,0.020
2.560E-06,0.064
2.570E-06,0.036
2.580E-06,-0.004
2.590E-06,-0.048
2.600E-06,-0.056
2.610E-06,-0.036
2.620E-06,0.008
2.630E-06,0.036
2.640E-06,0.076
2.650E-06,0.084
2.660E-06,0.056
2.670E-06,0.020
2.680E-06,-0.032
2.690E-06,-0.040
2.700E-06,-0.040
2.710E-06,0.000
2.720E-06,0.052
2.730E-06,0.104
2.740E-06,0.124
2.750E-06,0.120
2.760E-06,0.112
2.770E-06,0.060
2.780E-06,0.076
2.790E-06,0.056
2.800E-06,0.072
2.810E-06,0.032
2.820E-06,0.008
2.830E-06,-0.044
2.840E-06,-0.064
2.850E-06,-0.068
2.860E-06,-0.048
2.870E-06,-0.012
2.880E-06,0.044
2.890E-06,0.016
2.900E-06,-0.004
2.910E-06,0.008
2.920E-06,0.004
2.930E-06,0.044
2.940E-06,0.080
2.950E-06,0.128
2.960E-06,0.064
2.970E-06,0.080
2.980E-06,-0.084
2.990E-06,-0.184
3.000E-06,-0.072
3.010E-06,-0.036
3.020E-06,0.132
3.030E-06,0.216
3.040E-06,0.280
3.050E-06,0.204
3.060E-06,0.060
3.070E-06,0.076
3.080E-06,0.012
3.090E-06,0.028
3.100E-06,0.104
3.110E-06,0.136
3.120E-06,0.172
3.130E-06,0.076
3.140E-06,-0.068
3.150E-06,-0.196
3.160E-06,-0.232
3.170E-06,-0.212
3.180E-06,-0.088
3.190E-06,-0.040
3.200E-06,-0.052
3.210E-06,-0.040
3.220E-06,-0.088
3.230E-06,-0.152
3.240E-06,-0.100
3.250E-06,0.128
3.260E-06,0.320
3.270E-06,0.432
3.280E-06,0.356
3.290E-06,0.228
3.300E-06,0.016
3.310E-06,-0.092
3.320E-06,-0.108
3.330E-06,-0.076
3.340E-06,0.028
3.350E-06,0.096
3.360E-06,0.120
3.370E-06,0.068
3.380E-06,0.032
3.390E-06,-0.012
3.400E-06,-0.008
3.410E-06,0.044
3.420E-06,-0.036
3.430E-06,0.288
3.440E-06,-0.104
3.450E-06,-0.144
3.460E-06,-0.344
3.470E-06,-0.296
3.480E-06,-0.356
3.490E-06,-0.208
3.500E-06,0.048
3.510E-06,0.036
3.520E-06,0.164
3.530E-06,0.240
3.540E-06,0.076
3.550E-06,-0.056
3.560E-06,-0.092
3.570E-06,-0.092
3.580E-06,0.012
3.590E-06,0.092
3.600E-06,0.220
3.610E-06,0.296
3.620E-06,0.220
3.630E-06,0.104
3.640E-06,-0.080
3.650E-06,-0.208
3.660E-06,-0.228
3.670E-06,-0.128
3.680E-06,-0.004
3.690E-06,0.128
3.700E-06,0.124
3.710E-06,0.072
3.720E-06,-0.064
3.730E-06,-0.140
3.740E-06,-0.220
3.750E-06,-0.172
3.760E-06,-0.076
3.770E-06,-0.032
3.780E-06,0.028
3.790E-06,-0.044
3.800E-06,-0.048
3.810E-06,-0.072
3.820E-06,0.016
3.830E-06,-0.012
3.840E-06,0.024
3.850E-06,0.092
3.860E-06,0.064
3.870E-06,0.032
3.880E-06,0.048
3.890E-06,0.128
3.900E-06,0.120
3.910E-06,0.176
3.920E-06,0.188
3.930E-06,0.156
3.940E-06,0.068
3.950E-06,0.044
3.960E-06,0.024
3.970E-06,0.052
3.980E-06,0.128
3.990E-06,0.156
4.000E-06,0.192
4.010E-06,0.176
4.020E-06,0.176
4.030E-06,0.148
4.040E-06,0.168
4.050E-06,0.148
4.060E-06,0.160
4.070E-06,0.176
4.080E-06,0.176
4.090E-06,0.152
4.100E-06,0.124
4.110E-06,0.096
4.120E-06,0.080
4.130E-06,0.084
4.140E-06,0.084
4.150E-06,0.096
4.160E-06,0.116
4.170E-06,0.096
4.180E-06,0.088
4.190E-06,0.084
4.200E-06,0.096
4.210E-06,0.124
4.220E-06,0.064
4.230E-06,0.152
4.240E-06,0.144
4.250E-06,0.140
4.260E-06,0.156
4.270E-06,0.164
4.280E-06,0.192
4.290E-06,0.156
4.300E-06,0.204
4.310E-06,0.212
4.320E-06,0.212
4.330E-06,0.188
4.340E-06,0.180
4.350E-06,0.180
4.360E-06,0.160
4.370E-06,0.192
4.380E-06,0.196
4.390E-06,0.216
4.400E-06,0.208
4.410E-06,0.192
4.420E-06,0.176
4.430E-06,0.172
4.440E-06,0.168
4.450E-06,0.184
4.460E-06,0.196
4.470E-06,0.208
4.480E-06,0.208
4.490E-06,0.204
4.500E-06,0.196
4.510E-06,0.192
4.520E-06,0.188
4.530E-06,0.192
4.540E-06,0.188
4.550E-06,0.180
4.560E-06,0.184
4.570E-06,0.176
4.580E-06,0.172
4.590E-06,0.188
4.600E-06,0.188
4.610E-06,0.192
4.620E-06,0.188
4.630E-06,0.176
4.640E-06,0.168
4.650E-06,0.160
4.660E-06,0.160
4.670E-06,0.160
4.680E-06,0.172
4.690E-06,0.184
4.700E-06,0.172
4.710E-06,0.188
4.720E-06,0.196
4.730E-06,0.212
4.740E-06,0.208
4.750E-06,0.208
4.760E-06,0.196
4.770E-06,0.188
4.780E-06,0.188
4.790E-06,0.192
4.800E-06,0.200
4.810E-06,0.212
4.820E-06,0.204
4.830E-06,0.196
4.840E-06,0.192
4.850E-06,0.192
4.860E-06,0.188
4.870E-06,0.196
4.880E-06,0.208
4.890E-06,0.184
4.900E-06,0.304
4.910E-06,0.200
4.920E-06,0.116
4.930E-06,0.304
4.940E-06,0.132
4.950E-06,0.220
4.960E-06,0.200
4.970E-06,0.204
4.980E-06,0.144
4.990E-06,0.228
5.000E-06,0.216
5.010E-06,0.152
5.020E-06,0.192
5.030E-06,0.172
5.040E-06,0.204
5.050E-06,0.220
5.060E-06,0.236
5.070E-06,0.200
5.080E-06,0.200
5.090E-06,0.180
5.100E-06,0.180
5.110E-06,0.184
5.120E-06,0.200
5.130E-06,0.208
5.140E-06,0.208
5.150E-06,0.216
5.160E-06,0.196
5.170E-06,0.196
5.180E-06,0.172
5.190E-06,0.188
5.200E-06,0.180
5.210E-06,0.196
5.220E-06,0.196
5.230E-06,0.196
5.240E-06,0.192
5.250E-06,0.176
5.260E-06,0.180
5.270E-06,0.176
5.280E-06,0.196
5.290E-06,0.192
5.300E-06,0.200
5.310E-06,0.192
5.320E-06,0.200
5.330E-06,0.184
5.340E-06,0.184
5.350E-06,0.176
5.360E-06,0.176
5.370E-06,0.192
5.380E-06,0.188
5.390E-06,0.200
5.400E-06,0.188
5.410E-06,0.196
5.420E-06,0.176
5.430E-06,0.184
5.440E-06,0.172
5.450E-06,0.184
5.460E-06,0.188
5.470E-06,0.192
5.480E-06,0.192
5.490E-06,0.188
5.500E-06,0.184
5.510E-06,0.168
5.520E-06,0.176
5.530E-06,0.180
5.540E-06,0.188
5.550E-06,0.188
5.560E-06,0.192
5.570E-06,0.180
5.580E-06,0.176
5.590E-06,0.180
5.600E-06,0.172
5.610E-06,0.168
5.620E-06,0.172
5.630E-06,0.176
5.640E-06,0.176
5.650E-06,0.184
5.660E-06,0.176
5.670E-06,0.180
5.680E-06,0.176
5.690E-06,0.180
5.700E-06,0.164
5.710E-06,0.164
5.720E-06,0.172
5.730E-06,0.176
5.740E-06,0.180
5.750E-06,0.180
5.760E-06,0.172
5.770E-06,0.172
5.780E-06,0.168
5.790E-06,0.172
5.800E-06,0.176
5.810E-06,0.172
5.820E-06,0.180
5.830E-06,0.172
5.840E-06,0.168
5.850E-06,0.160
5.860E-06,0.164
5.870E-06,0.168
5.880E-06,0.168
5.890E-06,0.160
5.900E-06,0.160
5.910E-06,0.168
5.920E-06,0.168
5.930E-06,0.164
5.940E-06,0.156
5.950E-06,0.164
5.960E-06,0.160
5.970E-06,0.168
5.980E-06,0.160
5.990E-06,0.164
6.000E-06,0.164
6.010E-06,0.164
6.020E-06,0.160
6.030E-06,0.160
6.040E-06,0.168
6.050E-06,0.164
6.060E-06,0.160
6.070E-06,0.164
6.080E-06,0.164
6.090E-06,0.160
6.100E-06,0.160
6.110E-06,0.164
6.120E-06,0.164
6.130E-06,0.156
6.140E-06,0.160
6.150E-06,0.164
6.160E-06,0.160
6.170E-06,0.164
6.180E-06,0.156
6.190E-06,0.160
6.200E-06,0.152
6.210E-06,0.160
6.220E-06,0.156
6.230E-06,0.160
6.240E-06,0.160
6.250E-06,0.148
6.260E-06,0.148
6.270E-06,0.156
6.280E-06,0.152
6.290E-06,0.152
6.300E-06,0.156
6.310E-06,0.156
6.320E-06,0.152
6.330E-06,0.148
6.340E-06,0.148
6.350E-06,0.148
6.360E-06,0.152
6.370E-06,0.152
6.380E-06,0.144
6.390E-06,0.148
6.400E-06,0.144
6.410E-06,0.140
6.420E-06,0.144
6.430E-06,0.144
6.440E-06,0.144
6.450E-06,0.144
6.460E-06,0.144
6.470E-06,0.140
6.480E-06,0.140
6.490E-06,0.144
6.500E-06,0.136
6.510E-06,0.132
6.520E-06,0.132
6.530E-06,0.136
6.540E-06,0.140
6.550E-06,0.148
6.560E-06,0.148
6.570E-06,0.144
6.580E-06,0.136
6.590E-06,0.136
6.600E-06,0.124
6.610E-06,0.128
6.620E-06,0.136
6.630E-06,0.136
6.640E-06,0.136
6.650E-06,0.140
6.660E-06,0.136
6.670E-06,0.136
6.680E-06,0.132
6.690E-06,0.132
6.700E-06,0.132
6.710E-06,0.136
6.720E-06,0.136
6.730E-06,0.132
6.740E-06,0.136
6.750E-06,0.136
6.760E-06,0.132
6.770E-06,0.128
6.780E-06,0.128
6.790E-06,0.128
6.800E-06,0.132
6.810E-06,0.132
6.820E-06,0.132
6.830E-06,0.136
6.840E-06,0.128
6.850E-06,0.128
6.860E-06,0.128
6.870E-06,0.128
6.880E-06,0.128
6.890E-06,0.128
6.900E-06,0.128
6.910E-06,0.128
6.920E-06,0.128
6.930E-06,0.128
6.940E-06,0.124
6.950E-06,0.128
6.960E-06,0.124
6.970E-06,0.124
6.980E-06,0.120
6.990E-06,0.124
7.000E-06,0.124
7.010E-06,0.124
7.020E-06,0.124
7.030E-06,0.120
7.040E-06,0.124
7.050E-06,0.124
7.060E-06,0.120
7.070E-06,0.116
7.080E-06,0.112
7.090E-06,0.112
7.100E-06,0.120
7.110E-06,0.120
7.120E-06,0.124
7.130E-06,0.120
7.140E-06,0.112
7.150E-06,0.112
7.160E-06,0.112
7.170E-06,0.108
7.180E-06,0.108
7.190E-06,0.108
7.200E-06,0.112
7.210E-06,0.112
7.220E-06,0.104
7.230E-06,0.112
7.240E-06,0.112
7.250E-06,0.104
7.260E-06,0.104
7.270E-06,0.104
7.280E-06,0.104
7.290E-06,0.104
7.300E-06,0.100
7.310E-06,0.108
7.320E-06,0.104
7.330E-06,0.100
7.340E-06,0.096
7.350E-06,0.104
7.360E-06,0.100
7.370E-06,0.104
7.380E-06,0.100
7.390E-06,0.100
7.400E-06,0.096
7.410E-06,0.096
7.420E-06,0.100
7.430E-06,0.100
7.440E-06,0.100
7.450E-06,0.092
7.460E-06,0.096
7.470E-06,0.096
7.480E-06,0.096
7.490E-06,0.100
7.500E-06,0.096
7.510E-06,0.096
7.520E-06,0.092
7.530E-06,0.096
7.540E-06,0.092
7.550E-06,0.092
7.560E-06,0.092
7.570E-06,0.096
7.580E-06,0.096
7.590E-06,0.096
7.600E-06,0.092
7.610E-06,0.088
7.620E-06,0.092
7.630E-06,0.092
7.640E-06,0.088
7.650E-06,0.092
7.660E-06,0.088
7.670E-06,0.092
7.680E-06,0.092
7.690E-06,0.092
7.700E-06,0.088
7.710E-06,0.088
7.720E-06,0.088
7.730E-06,0.084
7.740E-06,0.080
7.750E-06,0.092
7.760E-06,0.088
7.770E-06,0.088
