mediciones/Mediciones filtradas (saque las feas)/6-10/42.5/WaveData55111.csv

#timebase=2000000(ps)
,#voltbase=500000(mv/100)
#size=4000
-4.250E-06,-0.220
-4.240E-06,-0.220
-4.230E-06,-0.180
-4.220E-06,-0.160
-4.210E-06,0.020
-4.200E-06,0.000
-4.190E-06,-0.040
-4.180E-06,-0.080
-4.170E-06,-0.200
-4.160E-06,-0.180
-4.150E-06,-0.060
-4.140E-06,0.060
-4.130E-06,0.160
-4.120E-06,0.120
-4.110E-06,0.080
-4.100E-06,0.060
-4.090E-06,0.060
-4.080E-06,0.180
-4.070E-06,0.260
-4.060E-06,0.340
-4.050E-06,0.340
-4.040E-06,0.300
-4.030E-06,0.260
-4.020E-06,0.220
-4.010E-06,0.260
-4.000E-06,0.240
-3.990E-06,0.220
-3.980E-06,0.160
-3.970E-06,0.120
-3.960E-06,0.120
-3.950E-06,0.100
-3.940E-06,0.120
-3.930E-06,0.100
-3.920E-06,0.080
-3.910E-06,0.040
-3.900E-06,-0.100
-3.890E-06,0.000
-3.880E-06,-0.020
-3.870E-06,0.140
-3.860E-06,0.240
-3.850E-06,0.140
-3.840E-06,0.320
-3.830E-06,0.140
-3.820E-06,-0.040
-3.810E-06,0.220
-3.800E-06,0.180
-3.790E-06,0.300
-3.780E-06,0.400
-3.770E-06,0.140
-3.760E-06,0.180
-3.750E-06,0.080
-3.740E-06,0.140
-3.730E-06,0.280
-3.720E-06,0.200
-3.710E-06,0.180
-3.700E-06,0.060
-3.690E-06,-0.020
-3.680E-06,-0.100
-3.670E-06,-0.020
-3.660E-06,-0.040
-3.650E-06,-0.060
-3.640E-06,0.000
-3.630E-06,-0.060
-3.620E-06,-0.020
-3.610E-06,0.000
-3.600E-06,0.080
-3.590E-06,0.000
-3.580E-06,-0.160
-3.570E-06,-0.240
-3.560E-06,-0.420
-3.550E-06,-0.400
-3.540E-06,-0.160
-3.530E-06,0.080
-3.520E-06,0.360
-3.510E-06,0.480
-3.500E-06,0.520
-3.490E-06,0.520
-3.480E-06,0.500
-3.470E-06,0.560
-3.460E-06,0.700
-3.450E-06,0.780
-3.440E-06,0.800
-3.430E-06,0.720
-3.420E-06,0.600
-3.410E-06,0.500
-3.400E-06,0.420
-3.390E-06,0.340
-3.380E-06,0.280
-3.370E-06,0.180
-3.360E-06,0.120
-3.350E-06,0.020
-3.340E-06,0.020
-3.330E-06,-0.020
-3.320E-06,-0.040
-3.310E-06,-0.100
-3.300E-06,-0.120
-3.290E-06,-0.100
-3.280E-06,-0.020
-3.270E-06,0.060
-3.260E-06,0.060
-3.250E-06,0.140
-3.240E-06,0.220
-3.230E-06,0.160
-3.220E-06,0.280
-3.210E-06,0.420
-3.200E-06,0.300
-3.190E-06,0.300
-3.180E-06,0.280
-3.170E-06,0.120
-3.160E-06,0.160
-3.150E-06,0.140
-3.140E-06,0.080
-3.130E-06,0.160
-3.120E-06,0.120
-3.110E-06,0.260
-3.100E-06,0.180
-3.090E-06,-0.060
-3.080E-06,-0.020
-3.070E-06,-0.120
-3.060E-06,-0.260
-3.050E-06,-0.020
-3.040E-06,0.040
-3.030E-06,0.100
-3.020E-06,0.260
-3.010E-06,0.120
-3.000E-06,0.160
-2.990E-06,0.140
-2.980E-06,0.280
-2.970E-06,0.480
-2.960E-06,0.520
-2.950E-06,0.680
-2.940E-06,0.580
-2.930E-06,0.480
-2.920E-06,0.500
-2.910E-06,0.280
-2.900E-06,0.300
-2.890E-06,0.300
-2.880E-06,0.220
-2.870E-06,0.200
-2.860E-06,0.080
-2.850E-06,0.000
-2.840E-06,0.020
-2.830E-06,-0.020
-2.820E-06,0.020
-2.810E-06,0.060
-2.800E-06,0.040
-2.790E-06,0.000
-2.780E-06,0.000
-2.770E-06,0.020
-2.760E-06,0.080
-2.750E-06,0.080
-2.740E-06,0.080
-2.730E-06,0.040
-2.720E-06,0.040
-2.710E-06,0.140
-2.700E-06,0.260
-2.690E-06,0.340
-2.680E-06,0.420
-2.670E-06,0.360
-2.660E-06,0.320
-2.650E-06,0.340
-2.640E-06,0.340
-2.630E-06,0.340
-2.620E-06,0.340
-2.610E-06,0.320
-2.600E-06,0.280
-2.590E-06,0.160
-2.580E-06,0.260
-2.570E-06,0.020
-2.560E-06,0.020
-2.550E-06,0.220
-2.540E-06,-0.020
-2.530E-06,0.320
-2.520E-06,0.420
-2.510E-06,0.160
-2.500E-06,0.280
-2.490E-06,-0.040
-2.480E-06,-0.180
-2.470E-06,-0.120
-2.460E-06,-0.180
-2.450E-06,0.000
-2.440E-06,0.100
-2.430E-06,0.060
-2.420E-06,0.120
-2.410E-06,0.020
-2.400E-06,0.040
-2.390E-06,0.040
-2.380E-06,0.000
-2.370E-06,-0.020
-2.360E-06,-0.020
-2.350E-06,-0.020
-2.340E-06,0.080
-2.330E-06,0.140
-2.320E-06,0.180
-2.310E-06,0.080
-2.300E-06,0.000
-2.290E-06,-0.060
-2.280E-06,-0.100
-2.270E-06,-0.020
-2.260E-06,0.080
-2.250E-06,0.160
-2.240E-06,0.120
-2.230E-06,0.060
-2.220E-06,0.020
-2.210E-06,-0.100
-2.200E-06,-0.080
-2.190E-06,-0.060
-2.180E-06,0.000
-2.170E-06,0.060
-2.160E-06,0.080
-2.150E-06,0.000
-2.140E-06,0.040
-2.130E-06,0.000
-2.120E-06,0.000
-2.110E-06,0.080
-2.100E-06,0.080
-2.090E-06,0.160
-2.080E-06,0.200
-2.070E-06,0.160
-2.060E-06,0.120
-2.050E-06,0.120
-2.040E-06,0.120
-2.030E-06,0.080
-2.020E-06,0.020
-2.010E-06,0.080
-2.000E-06,-0.020
-1.990E-06,-0.060
-1.980E-06,-0.060
-1.970E-06,-0.040
-1.960E-06,0.120
-1.950E-06,0.240
-1.940E-06,0.320
-1.930E-06,0.400
-1.920E-06,0.360
-1.910E-06,0.340
-1.900E-06,0.220
-1.890E-06,0.140
-1.880E-06,0.160
-1.870E-06,0.080
-1.860E-06,0.280
-1.850E-06,0.340
-1.840E-06,0.320
-1.830E-06,0.380
-1.820E-06,0.320
-1.810E-06,0.100
-1.800E-06,0.000
-1.790E-06,-0.020
-1.780E-06,0.000
-1.770E-06,0.080
-1.760E-06,0.440
-1.750E-06,0.260
-1.740E-06,0.240
-1.730E-06,0.180
-1.720E-06,-0.280
-1.710E-06,-0.180
-1.700E-06,-0.200
-1.690E-06,-0.200
-1.680E-06,0.040
-1.670E-06,-0.020
-1.660E-06,-0.100
-1.650E-06,-0.040
-1.640E-06,-0.220
-1.630E-06,-0.200
-1.620E-06,-0.040
-1.610E-06,-0.160
-1.600E-06,-0.060
-1.590E-06,-0.020
-1.580E-06,-0.120
-1.570E-06,0.100
-1.560E-06,0.000
-1.550E-06,0.040
-1.540E-06,0.220
-1.530E-06,-0.300
-1.520E-06,0.060
-1.510E-06,-0.080
-1.500E-06,0.220
-1.490E-06,0.420
-1.480E-06,0.120
-1.470E-06,0.100
-1.460E-06,-0.140
-1.450E-06,-0.100
-1.440E-06,0.020
-1.430E-06,0.260
-1.420E-06,0.260
-1.410E-06,0.220
-1.400E-06,0.180
-1.390E-06,0.180
-1.380E-06,0.240
-1.370E-06,0.280
-1.360E-06,0.220
-1.350E-06,0.180
-1.340E-06,0.080
-1.330E-06,0.040
-1.320E-06,0.100
-1.310E-06,0.140
-1.300E-06,0.120
-1.290E-06,0.100
-1.280E-06,0.000
-1.270E-06,-0.180
-1.260E-06,-0.160
-1.250E-06,-0.080
-1.240E-06,0.000
-1.230E-06,0.040
-1.220E-06,0.040
-1.210E-06,0.000
-1.200E-06,-0.100
-1.190E-06,-0.040
-1.180E-06,0.020
-1.170E-06,-0.020
-1.160E-06,-0.080
-1.150E-06,-0.080
-1.140E-06,-0.180
-1.130E-06,-0.160
-1.120E-06,-0.060
-1.110E-06,-0.100
-1.100E-06,-0.020
-1.090E-06,-0.120
-1.080E-06,-0.100
-1.070E-06,0.020
-1.060E-06,0.360
-1.050E-06,0.460
-1.040E-06,0.900
-1.030E-06,0.720
-1.020E-06,0.240
-1.010E-06,-0.060
-1.000E-06,-0.680
-9.900E-07,-0.260
-9.800E-07,0.260
-9.700E-07,0.720
-9.600E-07,0.900
-9.500E-07,0.600
-9.400E-07,-0.020
-9.300E-07,-0.360
-9.200E-07,-0.560
-9.100E-07,-0.240
-9.000E-07,0.200
-8.900E-07,0.360
-8.800E-07,0.380
-8.700E-07,0.140
-8.600E-07,-0.080
-8.500E-07,-0.160
-8.400E-07,-0.140
-8.300E-07,0.000
-8.200E-07,0.060
-8.100E-07,0.100
-8.000E-07,0.040
-7.900E-07,-0.020
-7.800E-07,-0.040
-7.700E-07,-0.100
-7.600E-07,-0.180
-7.500E-07,-0.220
-7.400E-07,-0.220
-7.300E-07,-0.160
-7.200E-07,-0.060
-7.100E-07,0.000
-7.000E-07,-0.020
-6.900E-07,-0.060
-6.800E-07,-0.160
-6.700E-07,-0.180
-6.600E-07,-0.160
-6.500E-07,-0.080
-6.400E-07,0.000
-6.300E-07,0.060
-6.200E-07,0.080
-6.100E-07,0.040
-6.000E-07,-0.020
-5.900E-07,-0.040
-5.800E-07,0.000
-5.700E-07,0.000
-5.600E-07,0.000
-5.500E-07,0.040
-5.400E-07,0.020
-5.300E-07,0.040
-5.200E-07,0.020
-5.100E-07,0.060
-5.000E-07,0.020
-4.900E-07,0.000
-4.800E-07,-0.040
-4.700E-07,-0.060
-4.600E-07,0.020
-4.500E-07,0.060
-4.400E-07,0.080
-4.300E-07,0.040
-4.200E-07,0.020
-4.100E-07,-0.020
-4.000E-07,-0.040
-3.900E-07,-0.020
-3.800E-07,0.000
-3.700E-07,0.020
-3.600E-07,0.020
-3.500E-07,0.000
-3.400E-07,-0.020
-3.300E-07,-0.040
-3.200E-07,-0.100
-3.100E-07,-0.080
-3.000E-07,-0.020
-2.900E-07,0.000
-2.800E-07,0.020
-2.700E-07,0.060
-2.600E-07,0.000
-2.500E-07,0.020
-2.400E-07,0.020
-2.300E-07,0.040
-2.200E-07,0.080
-2.100E-07,0.080
-2.000E-07,0.100
-1.900E-07,0.120
-1.800E-07,0.100
-1.700E-07,0.120
-1.600E-07,0.120
-1.500E-07,0.060
-1.400E-07,0.060
-1.300E-07,0.020
-1.200E-07,-0.040
-1.100E-07,0.000
-1.000E-07,-0.220
-9.000E-08,-0.080
-8.000E-08,-0.200
-7.000E-08,-0.240
-6.000E-08,-0.140
-5.000E-08,-0.260
-4.000E-08,-0.180
-3.000E-08,-0.240
-2.000E-08,-0.480
-1.000E-08,-0.400
0.000E+00,0.080
1.000E-08,0.180
2.000E-08,0.940
3.000E-08,0.740
4.000E-08,0.400
5.000E-08,0.180
6.000E-08,-0.260
7.000E-08,-0.080
8.000E-08,0.300
9.000E-08,0.520
1.000E-07,0.740
1.100E-07,0.620
1.200E-07,0.440
1.300E-07,0.160
1.400E-07,0.040
1.500E-07,0.160
1.600E-07,0.080
1.700E-07,0.340
1.800E-07,0.180
1.900E-07,0.140
2.000E-07,0.100
2.100E-07,-0.140
2.200E-07,-0.080
2.300E-07,-0.200
2.400E-07,-0.260
2.500E-07,-0.160
2.600E-07,-0.160
2.700E-07,-0.140
2.800E-07,-0.100
2.900E-07,-0.180
3.000E-07,-0.240
3.100E-07,-0.220
3.200E-07,-0.180
3.300E-07,-0.180
3.400E-07,-0.160
3.500E-07,-0.200
3.600E-07,-0.120
3.700E-07,-0.240
3.800E-07,-0.260
3.900E-07,-0.240
4.000E-07,-0.260
4.100E-07,-0.200
4.200E-07,-0.220
4.300E-07,-0.240
4.400E-07,-0.160
4.500E-07,-0.100
4.600E-07,0.040
4.700E-07,0.080
4.800E-07,0.120
4.900E-07,0.180
5.000E-07,0.160
5.100E-07,0.260
5.200E-07,0.320
5.300E-07,0.200
5.400E-07,0.480
5.500E-07,0.460
5.600E-07,0.260
5.700E-07,-0.080
5.800E-07,-0.480
5.900E-07,-0.640
6.000E-07,-0.300
6.100E-07,0.080
6.200E-07,0.680
6.300E-07,1.040
6.400E-07,1.240
6.500E-07,0.420
6.600E-07,-0.180
6.700E-07,-0.200
6.800E-07,-0.760
6.900E-07,0.200
7.000E-07,0.520
7.100E-07,0.580
7.200E-07,1.260
7.300E-07,0.680
7.400E-07,-0.340
7.500E-07,0.520
7.600E-07,-1.180
7.700E-07,-0.580
7.800E-07,0.340
7.900E-07,-0.620
8.000E-07,1.000
8.100E-07,0.220
8.200E-07,-0.160
8.300E-07,0.080
8.400E-07,-0.640
8.500E-07,-0.200
8.600E-07,0.280
8.700E-07,0.300
8.800E-07,0.640
8.900E-07,0.300
9.000E-07,-0.020
9.100E-07,-0.060
9.200E-07,-0.140
9.300E-07,-0.140
9.400E-07,0.020
9.500E-07,-0.060
9.600E-07,-0.180
9.700E-07,-0.260
9.800E-07,-0.380
9.900E-07,-0.460
1.000E-06,-0.440
1.010E-06,-0.600
1.020E-06,-0.480
1.030E-06,-0.280
1.040E-06,-0.500
1.050E-06,-0.060
1.060E-06,-0.300
1.070E-06,-0.480
1.080E-06,-0.460
1.090E-06,-0.760
1.100E-06,-0.520
1.110E-06,-0.320
1.120E-06,-0.200
1.130E-06,0.040
1.140E-06,0.080
1.150E-06,0.180
1.160E-06,0.300
1.170E-06,0.400
1.180E-06,0.480
1.190E-06,0.540
1.200E-06,0.560
1.210E-06,0.500
1.220E-06,0.420
1.230E-06,0.340
1.240E-06,0.260
1.250E-06,0.220
1.260E-06,0.080
1.270E-06,0.040
1.280E-06,-0.160
1.290E-06,-0.300
1.300E-06,-0.420
1.310E-06,-0.500
1.320E-06,-0.500
1.330E-06,-0.520
1.340E-06,-0.520
1.350E-06,-0.560
1.360E-06,-0.680
1.370E-06,-0.700
1.380E-06,-0.700
1.390E-06,-0.680
1.400E-06,-0.540
1.410E-06,-0.500
1.420E-06,-0.380
1.430E-06,-0.320
1.440E-06,-0.260
1.450E-06,-0.180
1.460E-06,-0.100
1.470E-06,-0.100
1.480E-06,-0.020
1.490E-06,-0.020
1.500E-06,0.040
1.510E-06,0.180
1.520E-06,0.260
1.530E-06,0.240
1.540E-06,0.260
1.550E-06,0.240
1.560E-06,0.260
1.570E-06,0.320
1.580E-06,0.340
1.590E-06,0.420
1.600E-06,0.380
1.610E-06,0.260
1.620E-06,0.280
1.630E-06,0.180
1.640E-06,0.140
1.650E-06,0.180
1.660E-06,-0.040
1.670E-06,-0.040
1.680E-06,-0.060
1.690E-06,-0.140
1.700E-06,-0.180
1.710E-06,0.140
1.720E-06,0.040
1.730E-06,-0.140
1.740E-06,-0.020
1.750E-06,-0.480
1.760E-06,-0.140
1.770E-06,-0.020
1.780E-06,-0.080
1.790E-06,0.420
1.800E-06,-0.220
1.810E-06,-0.580
1.820E-06,-0.600
1.830E-06,-0.540
1.840E-06,-0.440
1.850E-06,-1.040
1.860E-06,-1.380
1.870E-06,-1.940
1.880E-06,-0.760
1.890E-06,0.660
1.900E-06,2.520
1.910E-06,2.760
1.920E-06,2.560
1.930E-06,1.320
1.940E-06,-0.100
1.950E-06,-0.240
1.960E-06,0.220
1.970E-06,0.740
1.980E-06,1.120
1.990E-06,0.900
2.000E-06,0.100
2.010E-06,-0.900
2.020E-06,-1.100
2.030E-06,-2.160
2.040E-06,-1.960
2.050E-06,-1.380
2.060E-06,-0.600
2.070E-06,0.940
2.080E-06,1.820
2.090E-06,2.280
2.100E-06,2.120
2.110E-06,1.100
2.120E-06,0.440
2.130E-06,0.140
2.140E-06,-0.040
2.150E-06,0.340
2.160E-06,0.340
2.170E-06,0.060
2.180E-06,-0.200
2.190E-06,-0.320
2.200E-06,-0.540
2.210E-06,-0.440
2.220E-06,-0.600
2.230E-06,-0.760
2.240E-06,-1.020
2.250E-06,-1.300
2.260E-06,-1.540
2.270E-06,-1.760
2.280E-06,-1.780
2.290E-06,-1.900
2.300E-06,-1.720
2.310E-06,-1.660
2.320E-06,-1.740
2.330E-06,-1.600
2.340E-06,-1.380
2.350E-06,-1.300
2.360E-06,-0.680
2.370E-06,-0.600
2.380E-06,-0.360
2.390E-06,-0.220
2.400E-06,-0.320
2.410E-06,-0.080
2.420E-06,-0.380
2.430E-06,-0.360
2.440E-06,-0.260
2.450E-06,-0.240
2.460E-06,-0.200
2.470E-06,-0.220
2.480E-06,-0.280
2.490E-06,-0.480
2.500E-06,-0.280
2.510E-06,-0.080
2.520E-06,0.260
2.530E-06,0.100
2.540E-06,0.340
2.550E-06,0.200
2.560E-06,-0.020
2.570E-06,0.160
2.580E-06,-0.500
2.590E-06,0.000
2.600E-06,-0.180
2.610E-06,-0.160
2.620E-06,0.460
2.630E-06,0.460
2.640E-06,0.560
2.650E-06,1.000
2.660E-06,0.800
2.670E-06,0.920
2.680E-06,1.080
2.690E-06,1.000
2.700E-06,1.040
2.710E-06,0.940
2.720E-06,0.760
2.730E-06,0.580
2.740E-06,0.320
2.750E-06,0.160
2.760E-06,0.060
2.770E-06,-0.100
2.780E-06,-0.220
2.790E-06,-0.400
2.800E-06,-0.540
2.810E-06,-0.580
2.820E-06,-0.600
2.830E-06,-0.540
2.840E-06,-0.500
2.850E-06,-0.420
2.860E-06,-0.300
2.870E-06,-0.260
2.880E-06,-0.220
2.890E-06,-0.160
2.900E-06,-0.200
2.910E-06,-0.140
2.920E-06,-0.060
2.930E-06,-0.080
2.940E-06,0.000
2.950E-06,-0.200
2.960E-06,-0.280
2.970E-06,-0.360
2.980E-06,-0.200
2.990E-06,0.020
3.000E-06,0.280
3.010E-06,0.400
3.020E-06,0.280
3.030E-06,0.040
3.040E-06,-0.340
3.050E-06,-0.740
3.060E-06,0.140
3.070E-06,-0.560
3.080E-06,0.840
3.090E-06,0.760
3.100E-06,0.900
3.110E-06,1.120
3.120E-06,0.400
3.130E-06,0.440
3.140E-06,0.020
3.150E-06,-0.100
3.160E-06,-0.300
3.170E-06,-0.260
3.180E-06,-0.420
3.190E-06,-0.700
3.200E-06,-0.720
3.210E-06,-1.020
3.220E-06,-1.000
3.230E-06,-0.960
3.240E-06,-0.760
3.250E-06,-0.640
3.260E-06,-0.380
3.270E-06,-0.340
3.280E-06,-0.180
3.290E-06,-0.120
3.300E-06,-0.040
3.310E-06,0.040
3.320E-06,0.080
3.330E-06,0.080
3.340E-06,0.140
3.350E-06,0.060
3.360E-06,0.000
3.370E-06,-0.080
3.380E-06,-0.180
3.390E-06,-0.260
3.400E-06,-0.360
3.410E-06,-0.380
3.420E-06,-0.500
3.430E-06,-0.580
3.440E-06,-0.660
3.450E-06,-0.720
3.460E-06,-0.700
3.470E-06,-0.720
3.480E-06,-0.740
3.490E-06,-0.680
3.500E-06,-0.560
3.510E-06,-0.500
3.520E-06,-0.400
3.530E-06,-0.320
3.540E-06,-0.220
3.550E-06,-0.160
3.560E-06,-0.180
3.570E-06,-0.160
3.580E-06,-0.140
3.590E-06,-0.180
3.600E-06,-0.180
3.610E-06,-0.260
3.620E-06,-0.300
3.630E-06,-0.440
3.640E-06,-0.580
3.650E-06,-0.700
3.660E-06,-0.860
3.670E-06,-0.940
3.680E-06,-1.020
3.690E-06,-1.020
3.700E-06,-1.100
3.710E-06,-1.100
3.720E-06,-1.100
3.730E-06,-1.020
3.740E-06,-0.940
3.750E-06,-0.840
3.760E-06,-0.700
3.770E-06,-0.540
3.780E-06,-0.420
3.790E-06,-0.260
3.800E-06,-0.140
3.810E-06,0.000
3.820E-06,0.120
3.830E-06,0.220
3.840E-06,0.280
3.850E-06,0.300
3.860E-06,0.340
3.870E-06,0.320
3.880E-06,0.360
3.890E-06,0.380
3.900E-06,0.360
3.910E-06,0.360
3.920E-06,0.380
3.930E-06,0.400
3.940E-06,0.340
3.950E-06,0.360
3.960E-06,0.400
3.970E-06,0.400
3.980E-06,0.380
3.990E-06,0.400
4.000E-06,0.420
4.010E-06,0.440
4.020E-06,0.500
4.030E-06,0.500
4.040E-06,0.560
4.050E-06,0.560
4.060E-06,0.580
4.070E-06,0.640
4.080E-06,0.620
4.090E-06,0.660
4.100E-06,0.660
4.110E-06,0.640
4.120E-06,0.620
4.130E-06,0.680
4.140E-06,0.700
4.150E-06,0.740
4.160E-06,0.680
4.170E-06,0.660
4.180E-06,0.620
4.190E-06,0.540
4.200E-06,0.480
4.210E-06,0.340
4.220E-06,0.300
4.230E-06,0.260
4.240E-06,0.260
4.250E-06,0.240
4.260E-06,0.220
4.270E-06,0.160
4.280E-06,0.100
4.290E-06,0.040
4.300E-06,0.080
4.310E-06,0.260
4.320E-06,0.340
4.330E-06,0.320
4.340E-06,0.240
4.350E-06,0.200
4.360E-06,0.180
4.370E-06,0.260
4.380E-06,0.320
4.390E-06,0.260
4.400E-06,0.160
4.410E-06,0.140
4.420E-06,0.180
4.430E-06,0.120
4.440E-06,0.100
4.450E-06,0.040
4.460E-06,0.000
4.470E-06,0.000
4.480E-06,0.020
4.490E-06,0.020
4.500E-06,0.060
4.510E-06,0.020
4.520E-06,0.060
4.530E-06,0.080
4.540E-06,0.040
4.550E-06,0.020
4.560E-06,0.040
4.570E-06,0.080
4.580E-06,0.080
4.590E-06,0.080
4.600E-06,0.060
4.610E-06,0.080
4.620E-06,0.080
4.630E-06,0.220
4.640E-06,0.340
4.650E-06,0.400
4.660E-06,0.480
4.670E-06,0.480
4.680E-06,0.600
4.690E-06,0.760
4.700E-06,0.820
4.710E-06,0.880
4.720E-06,0.920
4.730E-06,0.840
4.740E-06,0.860
4.750E-06,0.880
4.760E-06,0.840
4.770E-06,0.860
4.780E-06,0.760
4.790E-06,0.720
4.800E-06,0.680
4.810E-06,0.640
4.820E-06,0.640
4.830E-06,0.560
4.840E-06,0.520
4.850E-06,0.520
4.860E-06,0.480
4.870E-06,0.420
4.880E-06,0.440
4.890E-06,0.440
4.900E-06,0.360
4.910E-06,0.380
4.920E-06,0.320
4.930E-06,0.320
4.940E-06,0.300
4.950E-06,0.280
4.960E-06,0.300
4.970E-06,0.260
4.980E-06,0.240
4.990E-06,0.220
5.000E-06,0.200
5.010E-06,0.180
5.020E-06,0.180
5.030E-06,0.100
5.040E-06,0.100
5.050E-06,0.020
5.060E-06,0.020
5.070E-06,0.000
5.080E-06,-0.060
5.090E-06,-0.100
5.100E-06,-0.120
5.110E-06,-0.180
5.120E-06,-0.160
5.130E-06,-0.220
5.140E-06,-0.240
5.150E-06,-0.260
5.160E-06,-0.280
5.170E-06,-0.300
5.180E-06,-0.320
5.190E-06,-0.340
5.200E-06,-0.300
5.210E-06,-0.320
5.220E-06,-0.300
5.230E-06,-0.280
5.240E-06,-0.260
5.250E-06,-0.280
5.260E-06,-0.280
5.270E-06,-0.240
5.280E-06,-0.220
5.290E-06,-0.220
5.300E-06,-0.200
5.310E-06,-0.180
5.320E-06,-0.160
5.330E-06,-0.140
5.340E-06,-0.140
5.350E-06,-0.140
5.360E-06,-0.100
5.370E-06,-0.100
5.380E-06,-0.060
5.390E-06,-0.040
5.400E-06,0.000
5.410E-06,0.040
5.420E-06,0.060
5.430E-06,0.000
5.440E-06,0.000
5.450E-06,0.040
5.460E-06,0.040
5.470E-06,0.060
5.480E-06,0.100
5.490E-06,0.060
5.500E-06,0.100
5.510E-06,0.120
5.520E-06,0.120
5.530E-06,0.160
5.540E-06,0.180
5.550E-06,0.200
5.560E-06,0.220
5.570E-06,0.220
5.580E-06,0.220
5.590E-06,0.220
5.600E-06,0.160
5.610E-06,0.140
5.620E-06,0.120
5.630E-06,0.080
5.640E-06,0.060
5.650E-06,0.000
5.660E-06,-0.040
5.670E-06,-0.060
5.680E-06,-0.120
5.690E-06,-0.140
5.700E-06,-0.240
5.710E-06,-0.280
5.720E-06,-0.280
5.730E-06,-0.260
5.740E-06,-0.200
5.750E-06,-0.160
5.760E-06,-0.080
5.770E-06,-0.020
5.780E-06,0.060
5.790E-06,0.160
5.800E-06,0.240
5.810E-06,0.340
5.820E-06,0.420
5.830E-06,0.520
5.840E-06,0.440
5.850E-06,0.360
5.860E-06,0.280
5.870E-06,0.120
5.880E-06,0.020
5.890E-06,-0.040
5.900E-06,-0.060
5.910E-06,-0.080
5.920E-06,0.020
5.930E-06,0.160
5.940E-06,0.320
5.950E-06,0.480
5.960E-06,0.620
5.970E-06,0.720
5.980E-06,0.840
5.990E-06,0.840
6.000E-06,0.820
6.010E-06,0.760
6.020E-06,0.640
6.030E-06,0.560
6.040E-06,0.440
6.050E-06,0.280
6.060E-06,0.160
6.070E-06,0.060
6.080E-06,-0.040
6.090E-06,-0.080
6.100E-06,-0.100
6.110E-06,-0.140
6.120E-06,-0.140
6.130E-06,-0.120
6.140E-06,-0.160
6.150E-06,-0.160
6.160E-06,-0.180
6.170E-06,-0.160
6.180E-06,-0.180
6.190E-06,-0.180
6.200E-06,-0.140
6.210E-06,-0.100
6.220E-06,-0.080
6.230E-06,-0.060
6.240E-06,-0.120
6.250E-06,-0.180
6.260E-06,-0.220
6.270E-06,-0.260
6.280E-06,-0.260
6.290E-06,-0.200
6.300E-06,-0.100
6.310E-06,-0.040
6.320E-06,0.040
6.330E-06,0.080
6.340E-06,0.120
6.350E-06,0.080
6.360E-06,0.100
6.370E-06,0.120
6.380E-06,0.160
6.390E-06,0.160
6.400E-06,0.220
6.410E-06,0.260
6.420E-06,0.320
6.430E-06,0.380
6.440E-06,0.420
6.450E-06,0.480
6.460E-06,0.520
6.470E-06,0.600
6.480E-06,0.640
6.490E-06,0.640
6.500E-06,0.620
6.510E-06,0.580
6.520E-06,0.520
6.530E-06,0.420
6.540E-06,0.380
6.550E-06,0.340
6.560E-06,0.340
6.570E-06,0.340
6.580E-06,0.340
6.590E-06,0.340
6.600E-06,0.360
6.610E-06,0.400
6.620E-06,0.420
6.630E-06,0.500
6.640E-06,0.540
6.650E-06,0.600
6.660E-06,0.620
6.670E-06,0.660
6.680E-06,0.640
6.690E-06,0.640
6.700E-06,0.640
6.710E-06,0.600
6.720E-06,0.500
6.730E-06,0.480
6.740E-06,0.400
6.750E-06,0.320
6.760E-06,0.220
6.770E-06,0.120
6.780E-06,0.000
6.790E-06,-0.060
6.800E-06,-0.120
6.810E-06,-0.160
6.820E-06,-0.180
6.830E-06,-0.160
6.840E-06,-0.060
6.850E-06,0.000
6.860E-06,0.060
6.870E-06,0.060
6.880E-06,0.080
6.890E-06,0.100
6.900E-06,0.040
6.910E-06,0.060
6.920E-06,0.000
6.930E-06,0.040
6.940E-06,0.140
6.950E-06,0.100
6.960E-06,0.160
6.970E-06,0.120
6.980E-06,0.120
6.990E-06,0.140
7.000E-06,0.120
7.010E-06,0.080
7.020E-06,0.020
7.030E-06,0.000
7.040E-06,0.000
7.050E-06,-0.060
7.060E-06,-0.080
7.070E-06,-0.140
7.080E-06,-0.100
7.090E-06,-0.100
7.100E-06,-0.040
7.110E-06,-0.020
7.120E-06,0.040
7.130E-06,0.080
7.140E-06,0.120
7.150E-06,0.140
7.160E-06,0.140
7.170E-06,0.160
7.180E-06,0.160
7.190E-06,0.140
7.200E-06,0.100
7.210E-06,0.080
7.220E-06,0.040
7.230E-06,0.020
7.240E-06,0.040
7.250E-06,0.060
7.260E-06,0.120
7.270E-06,0.200
7.280E-06,0.300
7.290E-06,0.360
7.300E-06,0.440
7.310E-06,0.500
7.320E-06,0.600
7.330E-06,0.620
7.340E-06,0.740
7.350E-06,0.720
7.360E-06,0.720
7.370E-06,0.660
7.380E-06,0.620
7.390E-06,0.580
7.400E-06,0.540
7.410E-06,0.520
7.420E-06,0.540
7.430E-06,0.580
7.440E-06,0.600
7.450E-06,0.620
7.460E-06,0.660
7.470E-06,0.700
7.480E-06,0.700
7.490E-06,0.700
7.500E-06,0.680
7.510E-06,0.640
7.520E-06,0.600
7.530E-06,0.560
7.540E-06,0.500
7.550E-06,0.500
7.560E-06,0.520
7.570E-06,0.540
7.580E-06,0.580
7.590E-06,0.640
7.600E-06,0.700
7.610E-06,0.700
7.620E-06,0.780
7.630E-06,0.780
7.640E-06,0.820
7.650E-06,0.800
