mediciones/Mediciones filtradas (saque las feas)/6-10/42.5/WaveData55106.csv

#timebase=2000000(ps)
,#voltbase=100000(mv/100)
#size=4000
-4.250E-06,-0.088
-4.240E-06,-0.084
-4.230E-06,0.036
-4.220E-06,0.076
-4.210E-06,-0.012
-4.200E-06,0.056
-4.190E-06,0.028
-4.180E-06,-0.088
-4.170E-06,-0.024
-4.160E-06,0.072
-4.150E-06,0.024
-4.140E-06,-0.040
-4.130E-06,0.000
-4.120E-06,0.012
-4.110E-06,0.028
-4.100E-06,0.008
-4.090E-06,0.000
-4.080E-06,-0.020
-4.070E-06,-0.004
-4.060E-06,0.024
-4.050E-06,0.016
-4.040E-06,0.004
-4.030E-06,-0.008
-4.020E-06,0.000
-4.010E-06,-0.004
-4.000E-06,0.020
-3.990E-06,0.008
-3.980E-06,0.008
-3.970E-06,-0.004
-3.960E-06,-0.008
-3.950E-06,0.000
-3.940E-06,0.000
-3.930E-06,0.012
-3.920E-06,0.004
-3.910E-06,0.008
-3.900E-06,-0.004
-3.890E-06,0.000
-3.880E-06,-0.004
-3.870E-06,0.000
-3.860E-06,0.000
-3.850E-06,0.004
-3.840E-06,0.008
-3.830E-06,0.000
-3.820E-06,0.012
-3.810E-06,0.016
-3.800E-06,0.000
-3.790E-06,-0.008
-3.780E-06,-0.004
-3.770E-06,-0.004
-3.760E-06,0.008
-3.750E-06,0.016
-3.740E-06,0.008
-3.730E-06,0.012
-3.720E-06,-0.008
-3.710E-06,0.000
-3.700E-06,0.008
-3.690E-06,-0.004
-3.680E-06,0.004
-3.670E-06,0.040
-3.660E-06,-0.008
-3.650E-06,-0.004
-3.640E-06,0.012
-3.630E-06,0.004
-3.620E-06,0.000
-3.610E-06,0.008
-3.600E-06,0.008
-3.590E-06,-0.024
-3.580E-06,0.000
-3.570E-06,0.012
-3.560E-06,0.024
-3.550E-06,-0.004
-3.540E-06,0.008
-3.530E-06,0.016
-3.520E-06,0.000
-3.510E-06,-0.004
-3.500E-06,0.000
-3.490E-06,0.004
-3.480E-06,0.004
-3.470E-06,0.008
-3.460E-06,0.004
-3.450E-06,0.000
-3.440E-06,0.000
-3.430E-06,0.008
-3.420E-06,0.016
-3.410E-06,-0.016
-3.400E-06,-0.012
-3.390E-06,0.008
-3.380E-06,0.000
-3.370E-06,-0.004
-3.360E-06,0.024
-3.350E-06,-0.004
-3.340E-06,-0.004
-3.330E-06,0.016
-3.320E-06,0.016
-3.310E-06,-0.004
-3.300E-06,-0.008
-3.290E-06,-0.004
-3.280E-06,-0.008
-3.270E-06,0.004
-3.260E-06,0.020
-3.250E-06,0.024
-3.240E-06,0.016
-3.230E-06,0.008
-3.220E-06,-0.008
-3.210E-06,0.000
-3.200E-06,0.000
-3.190E-06,0.004
-3.180E-06,0.012
-3.170E-06,0.020
-3.160E-06,0.016
-3.150E-06,-0.012
-3.140E-06,0.008
-3.130E-06,-0.020
-3.120E-06,0.012
-3.110E-06,0.036
-3.100E-06,-0.008
-3.090E-06,0.004
-3.080E-06,0.032
-3.070E-06,0.016
-3.060E-06,-0.004
-3.050E-06,0.000
-3.040E-06,0.000
-3.030E-06,-0.028
-3.020E-06,0.008
-3.010E-06,0.028
-3.000E-06,0.016
-2.990E-06,0.012
-2.980E-06,-0.004
-2.970E-06,-0.008
-2.960E-06,-0.008
-2.950E-06,0.004
-2.940E-06,0.008
-2.930E-06,0.016
-2.920E-06,0.024
-2.910E-06,0.012
-2.900E-06,0.000
-2.890E-06,0.000
-2.880E-06,0.012
-2.870E-06,0.008
-2.860E-06,0.032
-2.850E-06,0.020
-2.840E-06,0.024
-2.830E-06,-0.004
-2.820E-06,-0.040
-2.810E-06,-0.040
-2.800E-06,-0.020
-2.790E-06,0.020
-2.780E-06,0.032
-2.770E-06,0.044
-2.760E-06,0.012
-2.750E-06,-0.008
-2.740E-06,-0.020
-2.730E-06,-0.008
-2.720E-06,-0.004
-2.710E-06,0.028
-2.700E-06,0.036
-2.690E-06,0.024
-2.680E-06,0.004
-2.670E-06,-0.008
-2.660E-06,-0.008
-2.650E-06,-0.016
-2.640E-06,0.000
-2.630E-06,0.008
-2.620E-06,0.012
-2.610E-06,0.016
-2.600E-06,0.012
-2.590E-06,-0.004
-2.580E-06,-0.004
-2.570E-06,-0.004
-2.560E-06,0.000
-2.550E-06,0.016
-2.540E-06,0.016
-2.530E-06,0.008
-2.520E-06,0.000
-2.510E-06,-0.004
-2.500E-06,-0.008
-2.490E-06,0.000
-2.480E-06,0.008
-2.470E-06,0.008
-2.460E-06,0.016
-2.450E-06,0.008
-2.440E-06,-0.004
-2.430E-06,-0.008
-2.420E-06,-0.004
-2.410E-06,0.000
-2.400E-06,0.008
-2.390E-06,0.016
-2.380E-06,0.024
-2.370E-06,0.024
-2.360E-06,0.004
-2.350E-06,0.000
-2.340E-06,-0.004
-2.330E-06,-0.004
-2.320E-06,0.000
-2.310E-06,0.004
-2.300E-06,0.008
-2.290E-06,0.012
-2.280E-06,0.012
-2.270E-06,0.000
-2.260E-06,0.004
-2.250E-06,0.000
-2.240E-06,0.000
-2.230E-06,0.004
-2.220E-06,0.012
-2.210E-06,0.008
-2.200E-06,0.020
-2.190E-06,0.024
-2.180E-06,0.020
-2.170E-06,0.016
-2.160E-06,0.004
-2.150E-06,-0.004
-2.140E-06,-0.004
-2.130E-06,-0.008
-2.120E-06,-0.004
-2.110E-06,0.000
-2.100E-06,-0.004
-2.090E-06,0.004
-2.080E-06,-0.004
-2.070E-06,0.000
-2.060E-06,0.004
-2.050E-06,0.008
-2.040E-06,0.012
-2.030E-06,0.000
-2.020E-06,-0.008
-2.010E-06,-0.012
-2.000E-06,-0.008
-1.990E-06,0.008
-1.980E-06,0.012
-1.970E-06,0.012
-1.960E-06,0.004
-1.950E-06,-0.004
-1.940E-06,-0.012
-1.930E-06,-0.004
-1.920E-06,-0.004
-1.910E-06,0.008
-1.900E-06,0.024
-1.890E-06,0.012
-1.880E-06,0.008
-1.870E-06,0.000
-1.860E-06,-0.004
-1.850E-06,-0.008
-1.840E-06,0.000
-1.830E-06,0.000
-1.820E-06,0.008
-1.810E-06,0.012
-1.800E-06,0.008
-1.790E-06,0.008
-1.780E-06,0.008
-1.770E-06,0.000
-1.760E-06,-0.004
-1.750E-06,0.004
-1.740E-06,0.004
-1.730E-06,0.012
-1.720E-06,0.016
-1.710E-06,0.008
-1.700E-06,0.008
-1.690E-06,0.000
-1.680E-06,-0.004
-1.670E-06,0.004
-1.660E-06,0.004
-1.650E-06,0.008
-1.640E-06,0.024
-1.630E-06,0.020
-1.620E-06,0.012
-1.610E-06,0.000
-1.600E-06,0.000
-1.590E-06,-0.008
-1.580E-06,-0.004
-1.570E-06,0.008
-1.560E-06,0.012
-1.550E-06,0.024
-1.540E-06,0.016
-1.530E-06,0.008
-1.520E-06,-0.004
-1.510E-06,-0.004
-1.500E-06,-0.008
-1.490E-06,0.000
-1.480E-06,0.020
-1.470E-06,0.032
-1.460E-06,0.020
-1.450E-06,0.020
-1.440E-06,0.004
-1.430E-06,-0.004
-1.420E-06,-0.008
-1.410E-06,0.000
-1.400E-06,0.008
-1.390E-06,0.020
-1.380E-06,0.016
-1.370E-06,0.012
-1.360E-06,0.016
-1.350E-06,0.000
-1.340E-06,0.000
-1.330E-06,0.012
-1.320E-06,0.016
-1.310E-06,0.016
-1.300E-06,0.004
-1.290E-06,0.000
-1.280E-06,0.008
-1.270E-06,0.016
-1.260E-06,0.016
-1.250E-06,0.020
-1.240E-06,0.024
-1.230E-06,0.024
-1.220E-06,0.028
-1.210E-06,0.032
-1.200E-06,0.020
-1.190E-06,0.028
-1.180E-06,0.032
-1.170E-06,0.032
-1.160E-06,0.032
-1.150E-06,0.028
-1.140E-06,0.024
-1.130E-06,0.024
-1.120E-06,0.016
-1.110E-06,0.012
-1.100E-06,0.020
-1.090E-06,0.020
-1.080E-06,0.020
-1.070E-06,0.024
-1.060E-06,0.024
-1.050E-06,0.028
-1.040E-06,0.028
-1.030E-06,0.024
-1.020E-06,0.012
-1.010E-06,0.008
-1.000E-06,0.008
-9.900E-07,0.012
-9.800E-07,0.024
-9.700E-07,0.024
-9.600E-07,0.004
-9.500E-07,0.000
-9.400E-07,-0.004
-9.300E-07,0.004
-9.200E-07,0.028
-9.100E-07,0.052
-9.000E-07,0.072
-8.900E-07,0.056
-8.800E-07,0.060
-8.700E-07,0.060
-8.600E-07,0.132
-8.500E-07,0.124
-8.400E-07,0.204
-8.300E-07,0.124
-8.200E-07,0.100
-8.100E-07,-0.008
-8.000E-07,-0.056
-7.900E-07,-0.104
-7.800E-07,-0.036
-7.700E-07,0.012
-7.600E-07,0.100
-7.500E-07,0.124
-7.400E-07,0.092
-7.300E-07,-0.188
-7.200E-07,-0.308
-7.100E-07,-0.468
-7.000E-07,-0.336
-6.900E-07,-0.108
-6.800E-07,0.164
-6.700E-07,0.064
-6.600E-07,-0.104
-6.500E-07,-0.180
-6.400E-07,-0.108
-6.300E-07,0.012
-6.200E-07,-0.068
-6.100E-07,-0.040
-6.000E-07,0.060
-5.900E-07,0.164
-5.800E-07,0.164
-5.700E-07,0.036
-5.600E-07,-0.140
-5.500E-07,-0.100
-5.400E-07,-0.076
-5.300E-07,0.020
-5.200E-07,0.072
-5.100E-07,0.060
-5.000E-07,0.044
-4.900E-07,0.000
-4.800E-07,0.000
-4.700E-07,-0.068
-4.600E-07,-0.064
-4.500E-07,-0.056
-4.400E-07,0.016
-4.300E-07,0.056
-4.200E-07,0.064
-4.100E-07,0.028
-4.000E-07,-0.028
-3.900E-07,-0.040
-3.800E-07,-0.044
-3.700E-07,0.000
-3.600E-07,0.016
-3.500E-07,0.044
-3.400E-07,0.036
-3.300E-07,0.028
-3.200E-07,0.008
-3.100E-07,-0.012
-3.000E-07,-0.020
-2.900E-07,-0.012
-2.800E-07,0.024
-2.700E-07,0.036
-2.600E-07,0.052
-2.500E-07,0.036
-2.400E-07,0.032
-2.300E-07,0.004
-2.200E-07,0.008
-2.100E-07,0.012
-2.000E-07,0.028
-1.900E-07,0.060
-1.800E-07,0.092
-1.700E-07,0.112
-1.600E-07,0.108
-1.500E-07,0.116
-1.400E-07,0.120
-1.300E-07,0.120
-1.200E-07,0.112
-1.100E-07,0.096
-1.000E-07,0.080
-9.000E-08,0.088
-8.000E-08,0.096
-7.000E-08,0.092
-6.000E-08,0.124
-5.000E-08,-0.032
-4.000E-08,-0.160
-3.000E-08,-0.328
-2.000E-08,-0.228
-1.000E-08,0.096
0.000E+00,0.332
1.000E-08,0.316
2.000E-08,0.212
3.000E-08,-0.008
4.000E-08,-0.060
5.000E-08,-0.264
6.000E-08,-0.512
7.000E-08,-0.440
8.000E-08,-0.272
9.000E-08,-0.068
1.000E-07,0.272
1.100E-07,0.344
1.200E-07,0.124
1.300E-07,-0.056
1.400E-07,-0.292
1.500E-07,-0.344
1.600E-07,-0.284
1.700E-07,0.000
1.800E-07,0.292
1.900E-07,0.360
2.000E-07,0.224
2.100E-07,-0.020
2.200E-07,-0.284
2.300E-07,-0.340
2.400E-07,-0.184
2.500E-07,-0.020
2.600E-07,0.176
2.700E-07,0.256
2.800E-07,0.196
2.900E-07,0.028
3.000E-07,-0.148
3.100E-07,-0.232
3.200E-07,-0.168
3.300E-07,-0.024
3.400E-07,0.112
3.500E-07,0.184
3.600E-07,0.144
3.700E-07,0.036
3.800E-07,-0.060
3.900E-07,-0.136
4.000E-07,-0.120
4.100E-07,-0.040
4.200E-07,0.052
4.300E-07,0.124
4.400E-07,0.128
4.500E-07,0.072
4.600E-07,-0.008
4.700E-07,-0.076
4.800E-07,-0.080
4.900E-07,-0.044
5.000E-07,0.028
5.100E-07,0.100
5.200E-07,0.128
5.300E-07,0.104
5.400E-07,0.040
5.500E-07,-0.020
5.600E-07,-0.060
5.700E-07,-0.036
5.800E-07,0.016
5.900E-07,0.092
6.000E-07,0.136
6.100E-07,0.136
6.200E-07,0.108
6.300E-07,0.064
6.400E-07,0.056
6.500E-07,0.076
6.600E-07,0.128
6.700E-07,0.180
6.800E-07,0.220
6.900E-07,0.232
7.000E-07,0.204
7.100E-07,0.160
7.200E-07,0.124
7.300E-07,0.096
7.400E-07,0.100
7.500E-07,0.128
7.600E-07,0.160
7.700E-07,0.180
7.800E-07,0.172
7.900E-07,0.192
8.000E-07,0.156
8.100E-07,0.144
8.200E-07,0.128
8.300E-07,0.108
8.400E-07,0.096
8.500E-07,0.120
8.600E-07,0.140
8.700E-07,0.172
8.800E-07,0.152
8.900E-07,0.152
9.000E-07,0.152
9.100E-07,0.176
9.200E-07,0.008
9.300E-07,-0.196
9.400E-07,-0.136
9.500E-07,-0.264
9.600E-07,-0.220
9.700E-07,-0.144
9.800E-07,-0.152
9.900E-07,-0.180
1.000E-06,-0.300
1.010E-06,-0.248
1.020E-06,-0.232
1.030E-06,-0.068
1.040E-06,0.180
1.050E-06,0.236
1.060E-06,0.216
1.070E-06,0.264
1.080E-06,0.108
1.090E-06,-0.104
1.100E-06,-0.276
1.110E-06,-0.432
1.120E-06,-0.512
1.130E-06,-0.444
1.140E-06,-0.512
1.150E-06,-0.256
1.160E-06,0.128
1.170E-06,0.048
1.180E-06,-0.092
1.190E-06,-0.136
1.200E-06,-0.048
1.210E-06,-0.152
1.220E-06,-0.084
1.230E-06,0.140
1.240E-06,0.196
1.250E-06,0.272
1.260E-06,0.072
1.270E-06,-0.072
1.280E-06,-0.112
1.290E-06,-0.044
1.300E-06,0.036
1.310E-06,0.064
1.320E-06,0.164
1.330E-06,0.212
1.340E-06,0.172
1.350E-06,0.092
1.360E-06,0.020
1.370E-06,0.028
1.380E-06,0.076
1.390E-06,0.160
1.400E-06,0.228
1.410E-06,0.224
1.420E-06,0.212
1.430E-06,0.192
1.440E-06,0.160
1.450E-06,0.152
1.460E-06,0.168
1.470E-06,0.200
1.480E-06,0.220
1.490E-06,0.228
1.500E-06,0.236
1.510E-06,0.216
1.520E-06,0.180
1.530E-06,0.164
1.540E-06,0.160
1.550E-06,0.192
1.560E-06,0.212
1.570E-06,0.216
1.580E-06,0.224
1.590E-06,0.208
1.600E-06,0.188
1.610E-06,0.176
1.620E-06,0.172
1.630E-06,0.160
1.640E-06,0.180
1.650E-06,0.180
1.660E-06,0.172
1.670E-06,0.164
1.680E-06,0.168
1.690E-06,0.176
1.700E-06,0.204
1.710E-06,0.220
1.720E-06,0.216
1.730E-06,0.192
1.740E-06,0.176
1.750E-06,0.124
1.760E-06,0.120
1.770E-06,0.104
1.780E-06,0.100
1.790E-06,0.088
1.800E-06,0.068
1.810E-06,0.048
1.820E-06,-0.004
1.830E-06,-0.080
1.840E-06,-0.152
1.850E-06,-0.228
1.860E-06,-0.212
1.870E-06,-0.232
1.880E-06,-0.172
1.890E-06,-0.216
1.900E-06,-0.136
1.910E-06,-0.236
1.920E-06,-0.204
1.930E-06,-0.124
1.940E-06,-0.156
1.950E-06,0.032
1.960E-06,-0.076
1.970E-06,0.104
1.980E-06,-0.008
1.990E-06,0.060
2.000E-06,0.144
2.010E-06,0.164
2.020E-06,0.252
2.030E-06,0.184
2.040E-06,0.260
2.050E-06,0.204
2.060E-06,0.256
2.070E-06,0.232
2.080E-06,0.208
2.090E-06,0.232
2.100E-06,0.200
2.110E-06,0.224
2.120E-06,0.212
2.130E-06,0.220
2.140E-06,0.208
2.150E-06,0.204
2.160E-06,0.196
2.170E-06,0.204
2.180E-06,0.204
2.190E-06,0.220
2.200E-06,0.220
2.210E-06,0.216
2.220E-06,0.208
2.230E-06,0.200
2.240E-06,0.196
2.250E-06,0.196
2.260E-06,0.204
2.270E-06,0.200
2.280E-06,0.220
2.290E-06,0.208
2.300E-06,0.204
2.310E-06,0.200
2.320E-06,0.196
2.330E-06,0.192
2.340E-06,0.196
2.350E-06,0.204
2.360E-06,0.208
2.370E-06,0.212
2.380E-06,0.204
2.390E-06,0.200
2.400E-06,0.192
2.410E-06,0.196
2.420E-06,0.196
2.430E-06,0.204
2.440E-06,0.208
2.450E-06,0.208
2.460E-06,0.220
2.470E-06,0.212
2.480E-06,0.212
2.490E-06,0.208
2.500E-06,0.208
2.510E-06,0.208
2.520E-06,0.200
2.530E-06,0.200
2.540E-06,0.200
2.550E-06,0.200
2.560E-06,0.200
2.570E-06,0.208
2.580E-06,0.200
2.590E-06,0.200
2.600E-06,0.192
2.610E-06,0.200
2.620E-06,0.200
2.630E-06,0.200
2.640E-06,0.204
2.650E-06,0.200
2.660E-06,0.200
2.670E-06,0.204
2.680E-06,0.204
2.690E-06,0.192
2.700E-06,0.196
2.710E-06,0.196
2.720E-06,0.192
2.730E-06,0.200
2.740E-06,0.196
2.750E-06,0.196
2.760E-06,0.200
2.770E-06,0.196
2.780E-06,0.196
2.790E-06,0.196
2.800E-06,0.192
2.810E-06,0.192
2.820E-06,0.196
2.830E-06,0.196
2.840E-06,0.192
2.850E-06,0.192
2.860E-06,0.188
2.870E-06,0.188
2.880E-06,0.188
2.890E-06,0.192
2.900E-06,0.192
2.910E-06,0.192
2.920E-06,0.192
2.930E-06,0.184
2.940E-06,0.184
2.950E-06,0.180
2.960E-06,0.180
2.970E-06,0.184
2.980E-06,0.180
2.990E-06,0.180
3.000E-06,0.176
3.010E-06,0.180
3.020E-06,0.180
3.030E-06,0.180
3.040E-06,0.176
3.050E-06,0.180
3.060E-06,0.180
3.070E-06,0.184
3.080E-06,0.184
3.090E-06,0.176
3.100E-06,0.180
3.110E-06,0.180
3.120E-06,0.184
3.130E-06,0.188
3.140E-06,0.188
3.150E-06,0.188
3.160E-06,0.188
3.170E-06,0.188
3.180E-06,0.180
3.190E-06,0.172
3.200E-06,0.172
3.210E-06,0.176
3.220E-06,0.180
3.230E-06,0.188
3.240E-06,0.192
3.250E-06,0.176
3.260E-06,0.172
3.270E-06,0.180
3.280E-06,0.168
3.290E-06,0.172
3.300E-06,0.180
3.310E-06,0.176
3.320E-06,0.164
3.330E-06,0.156
3.340E-06,0.160
3.350E-06,0.164
3.360E-06,0.172
3.370E-06,0.172
3.380E-06,0.176
3.390E-06,0.176
3.400E-06,0.164
3.410E-06,0.168
3.420E-06,0.168
3.430E-06,0.168
3.440E-06,0.172
3.450E-06,0.180
3.460E-06,0.172
3.470E-06,0.176
3.480E-06,0.160
3.490E-06,0.160
3.500E-06,0.156
3.510E-06,0.160
3.520E-06,0.160
3.530E-06,0.172
3.540E-06,0.176
3.550E-06,0.180
3.560E-06,0.180
3.570E-06,0.168
3.580E-06,0.160
3.590E-06,0.160
3.600E-06,0.156
3.610E-06,0.160
3.620E-06,0.164
3.630E-06,0.160
3.640E-06,0.168
3.650E-06,0.164
3.660E-06,0.156
3.670E-06,0.148
3.680E-06,0.140
3.690E-06,0.148
3.700E-06,0.152
3.710E-06,0.160
3.720E-06,0.164
3.730E-06,0.160
3.740E-06,0.152
3.750E-06,0.148
3.760E-06,0.156
3.770E-06,0.152
3.780E-06,0.160
3.790E-06,0.172
3.800E-06,0.160
3.810E-06,0.156
3.820E-06,0.156
3.830E-06,0.156
3.840E-06,0.148
3.850E-06,0.144
3.860E-06,0.152
3.870E-06,0.160
3.880E-06,0.160
3.890E-06,0.156
3.900E-06,0.148
3.910E-06,0.148
3.920E-06,0.152
3.930E-06,0.156
3.940E-06,0.148
3.950E-06,0.148
3.960E-06,0.148
3.970E-06,0.156
3.980E-06,0.156
3.990E-06,0.152
4.000E-06,0.152
4.010E-06,0.148
4.020E-06,0.144
4.030E-06,0.140
4.040E-06,0.144
4.050E-06,0.140
4.060E-06,0.148
4.070E-06,0.152
4.080E-06,0.144
4.090E-06,0.148
4.100E-06,0.144
4.110E-06,0.144
4.120E-06,0.136
4.130E-06,0.140
4.140E-06,0.140
4.150E-06,0.132
4.160E-06,0.128
4.170E-06,0.128
4.180E-06,0.140
4.190E-06,0.136
4.200E-06,0.140
4.210E-06,0.140
4.220E-06,0.132
4.230E-06,0.132
4.240E-06,0.128
4.250E-06,0.132
4.260E-06,0.136
4.270E-06,0.140
4.280E-06,0.140
4.290E-06,0.140
4.300E-06,0.136
4.310E-06,0.132
4.320E-06,0.136
4.330E-06,0.136
4.340E-06,0.140
4.350E-06,0.136
4.360E-06,0.140
4.370E-06,0.136
4.380E-06,0.132
4.390E-06,0.124
4.400E-06,0.124
4.410E-06,0.120
4.420E-06,0.124
4.430E-06,0.132
4.440E-06,0.132
4.450E-06,0.128
4.460E-06,0.124
4.470E-06,0.124
4.480E-06,0.124
4.490E-06,0.124
4.500E-06,0.124
4.510E-06,0.128
4.520E-06,0.124
4.530E-06,0.128
4.540E-06,0.128
4.550E-06,0.124
4.560E-06,0.124
4.570E-06,0.124
4.580E-06,0.120
4.590E-06,0.120
4.600E-06,0.120
4.610E-06,0.128
4.620E-06,0.124
4.630E-06,0.128
4.640E-06,0.124
4.650E-06,0.124
4.660E-06,0.120
4.670E-06,0.124
4.680E-06,0.120
4.690E-06,0.108
4.700E-06,0.112
4.710E-06,0.120
4.720E-06,0.124
4.730E-06,0.124
4.740E-06,0.124
4.750E-06,0.124
4.760E-06,0.124
4.770E-06,0.120
4.780E-06,0.120
4.790E-06,0.128
4.800E-06,0.124
4.810E-06,0.116
4.820E-06,0.112
4.830E-06,0.120
4.840E-06,0.120
4.850E-06,0.124
4.860E-06,0.120
4.870E-06,0.112
4.880E-06,0.112
4.890E-06,0.112
4.900E-06,0.112
4.910E-06,0.112
4.920E-06,0.120
4.930E-06,0.120
4.940E-06,0.116
4.950E-06,0.112
4.960E-06,0.108
4.970E-06,0.104
4.980E-06,0.104
4.990E-06,0.108
5.000E-06,0.112
5.010E-06,0.116
5.020E-06,0.112
5.030E-06,0.104
5.040E-06,0.108
5.050E-06,0.104
5.060E-06,0.104
5.070E-06,0.104
5.080E-06,0.108
5.090E-06,0.108
5.100E-06,0.108
5.110E-06,0.104
5.120E-06,0.104
5.130E-06,0.096
5.140E-06,0.100
5.150E-06,0.104
5.160E-06,0.104
5.170E-06,0.104
5.180E-06,0.104
5.190E-06,0.100
5.200E-06,0.092
5.210E-06,0.100
5.220E-06,0.092
5.230E-06,0.096
5.240E-06,0.100
5.250E-06,0.096
5.260E-06,0.100
5.270E-06,0.100
5.280E-06,0.100
5.290E-06,0.096
5.300E-06,0.092
5.310E-06,0.088
5.320E-06,0.096
5.330E-06,0.096
5.340E-06,0.092
5.350E-06,0.092
5.360E-06,0.092
5.370E-06,0.088
5.380E-06,0.092
5.390E-06,0.088
5.400E-06,0.088
5.410E-06,0.088
5.420E-06,0.088
5.430E-06,0.084
5.440E-06,0.084
5.450E-06,0.088
5.460E-06,0.092
5.470E-06,0.092
5.480E-06,0.096
5.490E-06,0.092
5.500E-06,0.088
5.510E-06,0.076
5.520E-06,0.080
5.530E-06,0.080
5.540E-06,0.084
5.550E-06,0.088
5.560E-06,0.088
5.570E-06,0.084
5.580E-06,0.084
5.590E-06,0.080
5.600E-06,0.080
5.610E-06,0.076
5.620E-06,0.080
5.630E-06,0.076
5.640E-06,0.076
5.650E-06,0.080
5.660E-06,0.076
5.670E-06,0.076
5.680E-06,0.080
5.690E-06,0.076
5.700E-06,0.080
5.710E-06,0.076
5.720E-06,0.072
5.730E-06,0.072
5.740E-06,0.076
5.750E-06,0.080
5.760E-06,0.088
5.770E-06,0.076
5.780E-06,0.076
5.790E-06,0.068
5.800E-06,0.068
5.810E-06,0.068
5.820E-06,0.076
5.830E-06,0.076
5.840E-06,0.076
5.850E-06,0.072
5.860E-06,0.068
5.870E-06,0.068
5.880E-06,0.068
5.890E-06,0.068
5.900E-06,0.068
5.910E-06,0.068
5.920E-06,0.068
5.930E-06,0.076
5.940E-06,0.068
5.950E-06,0.064
5.960E-06,0.064
5.970E-06,0.064
5.980E-06,0.068
5.990E-06,0.064
6.000E-06,0.072
6.010E-06,0.072
6.020E-06,0.064
6.030E-06,0.064
6.040E-06,0.060
6.050E-06,0.060
6.060E-06,0.064
6.070E-06,0.064
6.080E-06,0.060
6.090E-06,0.060
6.100E-06,0.060
6.110E-06,0.060
6.120E-06,0.060
6.130E-06,0.060
6.140E-06,0.056
6.150E-06,0.056
6.160E-06,0.060
6.170E-06,0.064
6.180E-06,0.064
6.190E-06,0.060
6.200E-06,0.060
6.210E-06,0.060
6.220E-06,0.052
6.230E-06,0.052
6.240E-06,0.056
6.250E-06,0.060
6.260E-06,0.060
6.270E-06,0.060
6.280E-06,0.056
6.290E-06,0.056
6.300E-06,0.052
6.310E-06,0.056
6.320E-06,0.060
6.330E-06,0.060
6.340E-06,0.060
6.350E-06,0.064
6.360E-06,0.060
6.370E-06,0.056
6.380E-06,0.048
6.390E-06,0.052
6.400E-06,0.056
6.410E-06,0.060
6.420E-06,0.060
6.430E-06,0.060
6.440E-06,0.060
6.450E-06,0.052
6.460E-06,0.052
6.470E-06,0.048
6.480E-06,0.056
6.490E-06,0.052
6.500E-06,0.052
6.510E-06,0.056
6.520E-06,0.052
6.530E-06,0.056
6.540E-06,0.052
6.550E-06,0.044
6.560E-06,0.040
6.570E-06,0.040
6.580E-06,0.044
6.590E-06,0.048
6.600E-06,0.060
6.610E-06,0.056
6.620E-06,0.048
6.630E-06,0.044
6.640E-06,0.032
6.650E-06,0.028
6.660E-06,0.040
6.670E-06,0.048
6.680E-06,0.052
6.690E-06,0.060
6.700E-06,0.052
6.710E-06,0.040
6.720E-06,0.032
6.730E-06,0.028
6.740E-06,0.028
6.750E-06,0.036
6.760E-06,0.048
6.770E-06,0.048
6.780E-06,0.044
6.790E-06,0.036
6.800E-06,0.032
6.810E-06,0.028
6.820E-06,0.028
6.830E-06,0.032
6.840E-06,0.044
6.850E-06,0.048
6.860E-06,0.044
6.870E-06,0.040
6.880E-06,0.028
6.890E-06,0.028
6.900E-06,0.024
6.910E-06,0.036
6.920E-06,0.040
6.930E-06,0.040
6.940E-06,0.044
6.950E-06,0.044
6.960E-06,0.032
6.970E-06,0.028
6.980E-06,0.028
6.990E-06,0.032
7.000E-06,0.032
7.010E-06,0.036
7.020E-06,0.032
7.030E-06,0.028
7.040E-06,0.032
7.050E-06,0.032
7.060E-06,0.028
7.070E-06,0.028
7.080E-06,0.032
7.090E-06,0.032
7.100E-06,0.036
7.110E-06,0.028
7.120E-06,0.028
7.130E-06,0.024
7.140E-06,0.028
7.150E-06,0.024
7.160E-06,0.028
7.170E-06,0.020
7.180E-06,0.024
7.190E-06,0.028
7.200E-06,0.028
7.210E-06,0.024
7.220E-06,0.028
7.230E-06,0.024
7.240E-06,0.020
7.250E-06,0.024
7.260E-06,0.024
7.270E-06,0.028
7.280E-06,0.028
7.290E-06,0.028
7.300E-06,0.024
7.310E-06,0.024
7.320E-06,0.020
7.330E-06,0.024
7.340E-06,0.024
7.350E-06,0.020
7.360E-06,0.024
7.370E-06,0.020
7.380E-06,0.020
7.390E-06,0.020
7.400E-06,0.024
7.410E-06,0.016
7.420E-06,0.016
7.430E-06,0.020
7.440E-06,0.028
7.450E-06,0.024
7.460E-06,0.016
7.470E-06,0.012
7.480E-06,0.012
7.490E-06,0.012
7.500E-06,0.016
7.510E-06,0.020
7.520E-06,0.020
7.530E-06,0.020
7.540E-06,0.016
7.550E-06,0.012
7.560E-06,0.008
7.570E-06,0.012
7.580E-06,0.012
7.590E-06,0.016
7.600E-06,0.024
7.610E-06,0.020
7.620E-06,0.008
7.630E-06,0.012
7.640E-06,0.012
7.650E-06,0.012
7.660E-06,0.012
7.670E-06,0.012
7.680E-06,0.008
7.690E-06,0.012
7.700E-06,0.012
7.710E-06,0.008
7.720E-06,0.012
7.730E-06,0.008
7.740E-06,0.008
7.750E-06,0.012
7.760E-06,0.008
7.770E-06,0.008
7.780E-06,0.012
7.790E-06,0.008
7.800E-06,0.008
7.810E-06,0.004
