mediciones/5-22/-10/WaveData4971.csv

#timebase=2000000(ps)
,#voltbase=1000000(mv/100)
#size=4000
-8.400E-06,0.040
-8.390E-06,0.040
-8.380E-06,0.080
-8.370E-06,0.160
-8.360E-06,0.120
-8.350E-06,0.080
-8.340E-06,0.080
-8.330E-06,0.080
-8.320E-06,0.120
-8.310E-06,0.120
-8.300E-06,0.080
-8.290E-06,0.080
-8.280E-06,0.080
-8.270E-06,0.040
-8.260E-06,0.080
-8.250E-06,0.080
-8.240E-06,0.080
-8.230E-06,0.080
-8.220E-06,0.080
-8.210E-06,0.040
-8.200E-06,0.080
-8.190E-06,0.000
-8.180E-06,0.040
-8.170E-06,0.040
-8.160E-06,0.000
-8.150E-06,0.000
-8.140E-06,0.040
-8.130E-06,-0.040
-8.120E-06,-0.040
-8.110E-06,0.000
-8.100E-06,-0.040
-8.090E-06,0.000
-8.080E-06,-0.040
-8.070E-06,-0.040
-8.060E-06,0.000
-8.050E-06,0.000
-8.040E-06,0.040
-8.030E-06,0.000
-8.020E-06,0.000
-8.010E-06,0.040
-8.000E-06,-0.040
-7.990E-06,0.000
-7.980E-06,0.040
-7.970E-06,0.080
-7.960E-06,0.040
-7.950E-06,0.040
-7.940E-06,0.080
-7.930E-06,0.120
-7.920E-06,0.120
-7.910E-06,0.040
-7.900E-06,0.080
-7.890E-06,0.080
-7.880E-06,0.080
-7.870E-06,0.080
-7.860E-06,0.080
-7.850E-06,0.080
-7.840E-06,0.120
-7.830E-06,0.120
-7.820E-06,0.120
-7.810E-06,0.040
-7.800E-06,0.080
-7.790E-06,0.080
-7.780E-06,0.080
-7.770E-06,0.000
-7.760E-06,0.040
-7.750E-06,0.080
-7.740E-06,0.080
-7.730E-06,0.000
-7.720E-06,0.000
-7.710E-06,0.040
-7.700E-06,0.080
-7.690E-06,0.080
-7.680E-06,0.080
-7.670E-06,0.080
-7.660E-06,0.080
-7.650E-06,-0.040
-7.640E-06,0.000
-7.630E-06,0.040
-7.620E-06,0.000
-7.610E-06,0.040
-7.600E-06,0.040
-7.590E-06,0.040
-7.580E-06,0.000
-7.570E-06,0.000
-7.560E-06,0.040
-7.550E-06,0.040
-7.540E-06,0.040
-7.530E-06,0.080
-7.520E-06,0.040
-7.510E-06,0.040
-7.500E-06,0.080
-7.490E-06,0.080
-7.480E-06,0.120
-7.470E-06,0.120
-7.460E-06,0.080
-7.450E-06,0.120
-7.440E-06,0.040
-7.430E-06,0.040
-7.420E-06,0.080
-7.410E-06,0.040
-7.400E-06,0.040
-7.390E-06,0.080
-7.380E-06,0.040
-7.370E-06,0.040
-7.360E-06,0.040
-7.350E-06,0.080
-7.340E-06,0.040
-7.330E-06,0.040
-7.320E-06,0.040
-7.310E-06,0.000
-7.300E-06,0.040
-7.290E-06,0.080
-7.280E-06,0.080
-7.270E-06,0.040
-7.260E-06,0.000
-7.250E-06,0.040
-7.240E-06,0.040
-7.230E-06,0.040
-7.220E-06,0.040
-7.210E-06,0.000
-7.200E-06,0.000
-7.190E-06,0.040
-7.180E-06,0.120
-7.170E-06,0.080
-7.160E-06,0.120
-7.150E-06,0.040
-7.140E-06,0.080
-7.130E-06,0.080
-7.120E-06,0.040
-7.110E-06,0.080
-7.100E-06,0.080
-7.090E-06,0.040
-7.080E-06,0.040
-7.070E-06,0.000
-7.060E-06,0.080
-7.050E-06,0.040
-7.040E-06,0.080
-7.030E-06,0.080
-7.020E-06,0.080
-7.010E-06,0.120
-7.000E-06,0.040
-6.990E-06,0.080
-6.980E-06,0.040
-6.970E-06,0.080
-6.960E-06,0.000
-6.950E-06,0.040
-6.940E-06,0.120
-6.930E-06,0.080
-6.920E-06,0.000
-6.910E-06,0.040
-6.900E-06,0.040
-6.890E-06,0.040
-6.880E-06,0.080
-6.870E-06,0.120
-6.860E-06,0.080
-6.850E-06,0.080
-6.840E-06,0.000
-6.830E-06,0.040
-6.820E-06,0.040
-6.810E-06,0.080
-6.800E-06,0.040
-6.790E-06,0.040
-6.780E-06,0.000
-6.770E-06,0.000
-6.760E-06,0.040
-6.750E-06,0.120
-6.740E-06,0.040
-6.730E-06,0.040
-6.720E-06,0.080
-6.710E-06,0.000
-6.700E-06,0.000
-6.690E-06,0.080
-6.680E-06,0.000
-6.670E-06,0.040
-6.660E-06,0.120
-6.650E-06,0.040
-6.640E-06,0.040
-6.630E-06,0.040
-6.620E-06,0.120
-6.610E-06,0.120
-6.600E-06,0.040
-6.590E-06,0.080
-6.580E-06,0.080
-6.570E-06,0.080
-6.560E-06,0.120
-6.550E-06,0.040
-6.540E-06,0.000
-6.530E-06,0.080
-6.520E-06,0.120
-6.510E-06,0.120
-6.500E-06,0.040
-6.490E-06,0.040
-6.480E-06,0.040
-6.470E-06,0.040
-6.460E-06,0.000
-6.450E-06,0.000
-6.440E-06,0.040
-6.430E-06,0.040
-6.420E-06,0.040
-6.410E-06,0.080
-6.400E-06,0.040
-6.390E-06,0.040
-6.380E-06,0.040
-6.370E-06,0.040
-6.360E-06,0.000
-6.350E-06,0.040
-6.340E-06,0.040
-6.330E-06,0.080
-6.320E-06,0.120
-6.310E-06,0.080
-6.300E-06,0.000
-6.290E-06,0.000
-6.280E-06,0.080
-6.270E-06,0.040
-6.260E-06,0.080
-6.250E-06,0.080
-6.240E-06,0.080
-6.230E-06,0.080
-6.220E-06,0.080
-6.210E-06,0.040
-6.200E-06,0.040
-6.190E-06,0.040
-6.180E-06,0.080
-6.170E-06,0.040
-6.160E-06,0.080
-6.150E-06,0.080
-6.140E-06,0.000
-6.130E-06,0.080
-6.120E-06,0.080
-6.110E-06,0.040
-6.100E-06,0.040
-6.090E-06,0.120
-6.080E-06,0.120
-6.070E-06,0.000
-6.060E-06,0.000
-6.050E-06,0.040
-6.040E-06,0.000
-6.030E-06,0.040
-6.020E-06,0.000
-6.010E-06,0.080
-6.000E-06,0.080
-5.990E-06,0.080
-5.980E-06,0.080
-5.970E-06,0.120
-5.960E-06,0.000
-5.950E-06,0.080
-5.940E-06,0.080
-5.930E-06,0.040
-5.920E-06,0.040
-5.910E-06,0.040
-5.900E-06,0.080
-5.890E-06,0.040
-5.880E-06,0.040
-5.870E-06,0.080
-5.860E-06,0.040
-5.850E-06,0.000
-5.840E-06,0.080
-5.830E-06,0.040
-5.820E-06,0.040
-5.810E-06,0.080
-5.800E-06,0.080
-5.790E-06,0.040
-5.780E-06,0.040
-5.770E-06,0.080
-5.760E-06,0.040
-5.750E-06,0.040
-5.740E-06,0.080
-5.730E-06,0.040
-5.720E-06,0.000
-5.710E-06,0.080
-5.700E-06,0.000
-5.690E-06,0.040
-5.680E-06,0.040
-5.670E-06,0.040
-5.660E-06,0.080
-5.650E-06,0.080
-5.640E-06,0.120
-5.630E-06,0.080
-5.620E-06,0.040
-5.610E-06,0.040
-5.600E-06,0.040
-5.590E-06,0.040
-5.580E-06,0.080
-5.570E-06,0.120
-5.560E-06,0.080
-5.550E-06,0.000
-5.540E-06,0.000
-5.530E-06,0.040
-5.520E-06,0.040
-5.510E-06,0.080
-5.500E-06,0.040
-5.490E-06,0.040
-5.480E-06,0.040
-5.470E-06,0.040
-5.460E-06,0.040
-5.450E-06,0.080
-5.440E-06,0.040
-5.430E-06,0.080
-5.420E-06,0.040
-5.410E-06,0.040
-5.400E-06,0.040
-5.390E-06,0.040
-5.380E-06,0.040
-5.370E-06,0.080
-5.360E-06,0.080
-5.350E-06,0.080
-5.340E-06,0.080
-5.330E-06,0.080
-5.320E-06,0.040
-5.310E-06,0.080
-5.300E-06,0.120
-5.290E-06,0.120
-5.280E-06,0.080
-5.270E-06,0.080
-5.260E-06,0.080
-5.250E-06,0.080
-5.240E-06,0.080
-5.230E-06,0.080
-5.220E-06,0.040
-5.210E-06,0.080
-5.200E-06,0.080
-5.190E-06,0.040
-5.180E-06,0.000
-5.170E-06,0.040
-5.160E-06,0.000
-5.150E-06,0.040
-5.140E-06,0.080
-5.130E-06,0.040
-5.120E-06,0.040
-5.110E-06,0.080
-5.100E-06,0.040
-5.090E-06,0.120
-5.080E-06,0.080
-5.070E-06,0.080
-5.060E-06,0.040
-5.050E-06,0.040
-5.040E-06,0.040
-5.030E-06,0.120
-5.020E-06,0.080
-5.010E-06,0.080
-5.000E-06,0.080
-4.990E-06,0.120
-4.980E-06,0.040
-4.970E-06,0.040
-4.960E-06,0.040
-4.950E-06,0.080
-4.940E-06,0.000
-4.930E-06,0.040
-4.920E-06,0.080
-4.910E-06,0.040
-4.900E-06,0.040
-4.890E-06,0.040
-4.880E-06,0.040
-4.870E-06,0.040
-4.860E-06,0.040
-4.850E-06,0.040
-4.840E-06,0.080
-4.830E-06,0.080
-4.820E-06,0.080
-4.810E-06,0.080
-4.800E-06,0.000
-4.790E-06,0.040
-4.780E-06,0.040
-4.770E-06,0.080
-4.760E-06,0.000
-4.750E-06,0.040
-4.740E-06,0.040
-4.730E-06,0.080
-4.720E-06,0.040
-4.710E-06,0.080
-4.700E-06,0.080
-4.690E-06,0.040
-4.680E-06,0.120
-4.670E-06,0.080
-4.660E-06,0.120
-4.650E-06,0.120
-4.640E-06,0.120
-4.630E-06,0.040
-4.620E-06,0.040
-4.610E-06,0.080
-4.600E-06,0.040
-4.590E-06,0.040
-4.580E-06,0.080
-4.570E-06,0.040
-4.560E-06,0.040
-4.550E-06,0.080
-4.540E-06,-0.040
-4.530E-06,0.080
-4.520E-06,0.080
-4.510E-06,0.080
-4.500E-06,0.120
-4.490E-06,0.080
-4.480E-06,0.080
-4.470E-06,0.080
-4.460E-06,0.080
-4.450E-06,0.080
-4.440E-06,0.120
-4.430E-06,0.000
-4.420E-06,0.040
-4.410E-06,0.040
-4.400E-06,0.080
-4.390E-06,0.040
-4.380E-06,0.040
-4.370E-06,0.120
-4.360E-06,0.000
-4.350E-06,0.040
-4.340E-06,0.080
-4.330E-06,0.080
-4.320E-06,0.080
-4.310E-06,0.080
-4.300E-06,0.040
-4.290E-06,0.000
-4.280E-06,0.080
-4.270E-06,0.000
-4.260E-06,0.080
-4.250E-06,0.040
-4.240E-06,0.080
-4.230E-06,0.080
-4.220E-06,0.040
-4.210E-06,0.040
-4.200E-06,0.000
-4.190E-06,0.040
-4.180E-06,0.080
-4.170E-06,0.120
-4.160E-06,0.120
-4.150E-06,0.040
-4.140E-06,0.040
-4.130E-06,0.040
-4.120E-06,0.040
-4.110E-06,0.040
-4.100E-06,0.080
-4.090E-06,0.080
-4.080E-06,0.040
-4.070E-06,0.040
-4.060E-06,0.040
-4.050E-06,0.080
-4.040E-06,0.040
-4.030E-06,0.040
-4.020E-06,0.080
-4.010E-06,0.080
-4.000E-06,0.040
-3.990E-06,0.080
-3.980E-06,0.040
-3.970E-06,0.040
-3.960E-06,0.040
-3.950E-06,0.080
-3.940E-06,0.080
-3.930E-06,0.040
-3.920E-06,0.080
-3.910E-06,0.040
-3.900E-06,0.000
-3.890E-06,0.040
-3.880E-06,0.120
-3.870E-06,0.080
-3.860E-06,0.000
-3.850E-06,0.040
-3.840E-06,0.080
-3.830E-06,0.120
-3.820E-06,0.040
-3.810E-06,0.040
-3.800E-06,0.040
-3.790E-06,0.040
-3.780E-06,0.040
-3.770E-06,0.080
-3.760E-06,0.040
-3.750E-06,0.080
-3.740E-06,0.080
-3.730E-06,0.040
-3.720E-06,0.040
-3.710E-06,0.080
-3.700E-06,0.040
-3.690E-06,0.080
-3.680E-06,0.080
-3.670E-06,0.040
-3.660E-06,0.040
-3.650E-06,0.040
-3.640E-06,0.080
-3.630E-06,0.080
-3.620E-06,0.040
-3.610E-06,0.080
-3.600E-06,0.040
-3.590E-06,0.040
-3.580E-06,0.040
-3.570E-06,0.040
-3.560E-06,0.080
-3.550E-06,0.080
-3.540E-06,0.000
-3.530E-06,0.040
-3.520E-06,0.040
-3.510E-06,0.040
-3.500E-06,0.040
-3.490E-06,0.080
-3.480E-06,0.080
-3.470E-06,0.080
-3.460E-06,0.040
-3.450E-06,0.040
-3.440E-06,0.040
-3.430E-06,0.120
-3.420E-06,0.040
-3.410E-06,0.040
-3.400E-06,0.080
-3.390E-06,0.120
-3.380E-06,0.040
-3.370E-06,0.080
-3.360E-06,0.080
-3.350E-06,0.080
-3.340E-06,0.080
-3.330E-06,0.080
-3.320E-06,0.040
-3.310E-06,0.080
-3.300E-06,0.080
-3.290E-06,0.080
-3.280E-06,0.120
-3.270E-06,0.120
-3.260E-06,0.040
-3.250E-06,0.080
-3.240E-06,0.080
-3.230E-06,0.040
-3.220E-06,0.000
-3.210E-06,0.080
-3.200E-06,0.040
-3.190E-06,0.080
-3.180E-06,0.080
-3.170E-06,0.080
-3.160E-06,0.080
-3.150E-06,0.040
-3.140E-06,0.040
-3.130E-06,0.040
-3.120E-06,0.120
-3.110E-06,0.120
-3.100E-06,0.040
-3.090E-06,0.000
-3.080E-06,0.080
-3.070E-06,0.080
-3.060E-06,0.000
-3.050E-06,0.080
-3.040E-06,0.080
-3.030E-06,0.040
-3.020E-06,0.040
-3.010E-06,0.000
-3.000E-06,0.080
-2.990E-06,0.040
-2.980E-06,0.040
-2.970E-06,0.080
-2.960E-06,0.080
-2.950E-06,0.160
-2.940E-06,0.080
-2.930E-06,0.080
-2.920E-06,0.120
-2.910E-06,0.080
-2.900E-06,0.080
-2.890E-06,0.080
-2.880E-06,0.040
-2.870E-06,0.120
-2.860E-06,0.160
-2.850E-06,0.120
-2.840E-06,0.120
-2.830E-06,0.120
-2.820E-06,0.160
-2.810E-06,0.120
-2.800E-06,0.120
-2.790E-06,0.160
-2.780E-06,0.160
-2.770E-06,0.120
-2.760E-06,0.160
-2.750E-06,0.160
-2.740E-06,0.200
-2.730E-06,0.160
-2.720E-06,0.120
-2.710E-06,0.160
-2.700E-06,0.240
-2.690E-06,0.240
-2.680E-06,0.160
-2.670E-06,0.160
-2.660E-06,0.200
-2.650E-06,0.200
-2.640E-06,0.200
-2.630E-06,0.160
-2.620E-06,0.160
-2.610E-06,0.160
-2.600E-06,0.160
-2.590E-06,0.160
-2.580E-06,0.160
-2.570E-06,0.160
-2.560E-06,0.160
-2.550E-06,0.200
-2.540E-06,0.200
-2.530E-06,0.240
-2.520E-06,0.120
-2.510E-06,0.120
-2.500E-06,0.160
-2.490E-06,0.240
-2.480E-06,0.160
-2.470E-06,0.200
-2.460E-06,0.200
-2.450E-06,0.080
-2.440E-06,0.120
-2.430E-06,0.160
-2.420E-06,0.240
-2.410E-06,0.320
-2.400E-06,0.320
-2.390E-06,0.240
-2.380E-06,0.200
-2.370E-06,0.240
-2.360E-06,0.200
-2.350E-06,0.240
-2.340E-06,0.240
-2.330E-06,0.200
-2.320E-06,0.280
-2.310E-06,0.280
-2.300E-06,0.240
-2.290E-06,0.320
-2.280E-06,0.280
-2.270E-06,0.240
-2.260E-06,0.320
-2.250E-06,0.320
-2.240E-06,0.320
-2.230E-06,0.320
-2.220E-06,0.400
-2.210E-06,0.400
-2.200E-06,0.400
-2.190E-06,0.440
-2.180E-06,0.440
-2.170E-06,0.440
-2.160E-06,0.520
-2.150E-06,0.480
-2.140E-06,0.520
-2.130E-06,0.520
-2.120E-06,0.600
-2.110E-06,0.560
-2.100E-06,0.560
-2.090E-06,0.560
-2.080E-06,0.560
-2.070E-06,0.480
-2.060E-06,0.520
-2.050E-06,0.520
-2.040E-06,0.480
-2.030E-06,0.560
-2.020E-06,0.560
-2.010E-06,0.480
-2.000E-06,0.480
-1.990E-06,0.440
-1.980E-06,0.400
-1.970E-06,0.400
-1.960E-06,0.440
-1.950E-06,0.480
-1.940E-06,0.480
-1.930E-06,0.480
-1.920E-06,0.480
-1.910E-06,0.520
-1.900E-06,0.600
-1.890E-06,0.560
-1.880E-06,0.600
-1.870E-06,0.600
-1.860E-06,0.680
-1.850E-06,0.680
-1.840E-06,0.680
-1.830E-06,0.720
-1.820E-06,0.720
-1.810E-06,0.760
-1.800E-06,0.760
-1.790E-06,0.680
-1.780E-06,0.760
-1.770E-06,0.800
-1.760E-06,0.800
-1.750E-06,0.840
-1.740E-06,0.800
-1.730E-06,0.800
-1.720E-06,0.840
-1.710E-06,0.840
-1.700E-06,0.840
-1.690E-06,0.880
-1.680E-06,0.840
-1.670E-06,0.840
-1.660E-06,0.840
-1.650E-06,0.880
-1.640E-06,0.920
-1.630E-06,0.920
-1.620E-06,0.880
-1.610E-06,0.840
-1.600E-06,0.840
-1.590E-06,0.800
-1.580E-06,0.800
-1.570E-06,0.800
-1.560E-06,0.800
-1.550E-06,0.800
-1.540E-06,0.760
-1.530E-06,0.760
-1.520E-06,0.760
-1.510E-06,0.760
-1.500E-06,0.800
-1.490E-06,0.760
-1.480E-06,0.720
-1.470E-06,0.680
-1.460E-06,0.760
-1.450E-06,0.800
-1.440E-06,0.720
-1.430E-06,0.800
-1.420E-06,0.760
-1.410E-06,0.680
-1.400E-06,0.640
-1.390E-06,0.640
-1.380E-06,0.680
-1.370E-06,0.720
-1.360E-06,0.800
-1.350E-06,0.840
-1.340E-06,0.880
-1.330E-06,0.920
-1.320E-06,0.920
-1.310E-06,1.000
-1.300E-06,1.080
-1.290E-06,1.160
-1.280E-06,1.200
-1.270E-06,1.240
-1.260E-06,1.280
-1.250E-06,1.320
-1.240E-06,1.360
-1.230E-06,1.480
-1.220E-06,1.520
-1.210E-06,1.560
-1.200E-06,1.560
-1.190E-06,1.520
-1.180E-06,1.520
-1.170E-06,1.520
-1.160E-06,1.520
-1.150E-06,1.480
-1.140E-06,1.520
-1.130E-06,1.480
-1.120E-06,1.480
-1.110E-06,1.520
-1.100E-06,1.480
-1.090E-06,1.600
-1.080E-06,1.680
-1.070E-06,1.600
-1.060E-06,1.520
-1.050E-06,1.680
-1.040E-06,1.720
-1.030E-06,1.680
-1.020E-06,1.760
-1.010E-06,1.760
-1.000E-06,1.760
-9.900E-07,1.760
-9.800E-07,1.800
-9.700E-07,1.760
-9.600E-07,1.680
-9.500E-07,1.600
-9.400E-07,1.560
-9.300E-07,1.520
-9.200E-07,1.520
-9.100E-07,1.520
-9.000E-07,1.520
-8.900E-07,1.480
-8.800E-07,1.440
-8.700E-07,1.440
-8.600E-07,1.480
-8.500E-07,1.480
-8.400E-07,1.480
-8.300E-07,1.600
-8.200E-07,1.600
-8.100E-07,1.640
-8.000E-07,1.720
-7.900E-07,1.800
-7.800E-07,1.760
-7.700E-07,1.760
-7.600E-07,1.800
-7.500E-07,1.800
-7.400E-07,1.880
-7.300E-07,1.960
-7.200E-07,1.920
-7.100E-07,2.040
-7.000E-07,2.200
-6.900E-07,2.200
-6.800E-07,2.280
-6.700E-07,2.280
-6.600E-07,2.240
-6.500E-07,2.240
-6.400E-07,2.360
-6.300E-07,2.360
-6.200E-07,2.320
-6.100E-07,2.320
-6.000E-07,2.280
-5.900E-07,2.160
-5.800E-07,2.040
-5.700E-07,2.000
-5.600E-07,1.920
-5.500E-07,1.880
-5.400E-07,1.840
-5.300E-07,1.760
-5.200E-07,1.680
-5.100E-07,1.560
-5.000E-07,1.520
-4.900E-07,1.400
-4.800E-07,1.400
-4.700E-07,1.360
-4.600E-07,1.360
-4.500E-07,1.400
-4.400E-07,1.360
-4.300E-07,1.320
-4.200E-07,1.360
-4.100E-07,1.320
-4.000E-07,1.320
-3.900E-07,1.360
-3.800E-07,1.320
-3.700E-07,1.400
-3.600E-07,1.440
-3.500E-07,1.480
-3.400E-07,1.440
-3.300E-07,1.480
-3.200E-07,1.440
-3.100E-07,1.520
-3.000E-07,1.520
-2.900E-07,1.560
-2.800E-07,1.560
-2.700E-07,1.720
-2.600E-07,1.880
-2.500E-07,2.000
-2.400E-07,2.040
-2.300E-07,2.080
-2.200E-07,1.920
-2.100E-07,1.800
-2.000E-07,1.960
-1.900E-07,1.960
-1.800E-07,1.920
-1.700E-07,2.000
-1.600E-07,2.040
-1.500E-07,1.680
-1.400E-07,1.440
-1.300E-07,1.440
-1.200E-07,1.320
-1.100E-07,1.360
-1.000E-07,1.480
-9.000E-08,1.320
-8.000E-08,1.120
-7.000E-08,1.040
-6.000E-08,0.880
-5.000E-08,0.880
-4.000E-08,1.160
-3.000E-08,1.720
-2.000E-08,1.560
-1.000E-08,1.760
0.000E+00,1.920
1.000E-08,2.240
2.000E-08,2.760
3.000E-08,4.000
4.000E-08,4.440
5.000E-08,4.920
6.000E-08,5.000
7.000E-08,4.760
8.000E-08,4.720
9.000E-08,5.040
1.000E-07,5.200
1.100E-07,5.440
1.200E-07,5.440
1.300E-07,5.440
1.400E-07,5.320
1.500E-07,5.280
1.600E-07,5.040
1.700E-07,4.920
1.800E-07,4.760
1.900E-07,4.560
2.000E-07,4.360
2.100E-07,4.240
2.200E-07,4.080
2.300E-07,4.040
2.400E-07,3.800
2.500E-07,3.480
2.600E-07,3.200
2.700E-07,3.000
2.800E-07,2.680
2.900E-07,2.480
3.000E-07,2.240
3.100E-07,1.840
3.200E-07,1.680
3.300E-07,1.440
3.400E-07,1.080
3.500E-07,0.800
3.600E-07,0.520
3.700E-07,0.160
3.800E-07,-0.080
3.900E-07,-0.240
4.000E-07,-0.480
4.100E-07,-0.600
4.200E-07,-0.680
4.300E-07,-0.840
4.400E-07,-0.960
4.500E-07,-1.080
4.600E-07,-1.160
4.700E-07,-1.200
4.800E-07,-1.120
4.900E-07,-1.120
5.000E-07,-1.000
5.100E-07,-0.880
5.200E-07,-0.800
5.300E-07,-0.720
5.400E-07,-0.680
5.500E-07,-0.640
5.600E-07,-0.560
5.700E-07,-0.560
5.800E-07,-0.480
5.900E-07,-0.440
6.000E-07,-0.360
6.100E-07,-0.280
6.200E-07,-0.200
6.300E-07,-0.160
6.400E-07,-0.120
6.500E-07,-0.160
6.600E-07,-0.160
6.700E-07,-0.280
6.800E-07,-0.360
6.900E-07,-0.440
7.000E-07,-0.480
7.100E-07,-0.600
7.200E-07,-0.640
7.300E-07,-0.680
7.400E-07,-0.640
7.500E-07,-0.760
7.600E-07,-0.760
7.700E-07,-0.760
7.800E-07,-0.760
7.900E-07,-0.720
8.000E-07,-0.680
8.100E-07,-0.600
8.200E-07,-0.600
8.300E-07,-0.640
8.400E-07,-0.640
8.500E-07,-0.640
8.600E-07,-0.640
8.700E-07,-0.640
8.800E-07,-0.640
8.900E-07,-0.680
9.000E-07,-0.720
9.100E-07,-0.840
9.200E-07,-0.920
9.300E-07,-1.000
9.400E-07,-1.120
9.500E-07,-1.160
9.600E-07,-1.280
9.700E-07,-1.360
9.800E-07,-1.360
9.900E-07,-1.480
1.000E-06,-1.520
1.010E-06,-1.600
1.020E-06,-1.680
1.030E-06,-1.720
1.040E-06,-1.760
1.050E-06,-1.760
1.060E-06,-1.760
1.070E-06,-1.840
1.080E-06,-1.880
1.090E-06,-1.800
1.100E-06,-1.800
1.110E-06,-1.840
1.120E-06,-1.840
1.130E-06,-1.920
1.140E-06,-1.880
1.150E-06,-1.840
1.160E-06,-1.920
1.170E-06,-1.880
1.180E-06,-1.920
1.190E-06,-1.920
1.200E-06,-1.840
1.210E-06,-1.840
1.220E-06,-1.880
1.230E-06,-1.800
1.240E-06,-1.840
1.250E-06,-1.880
1.260E-06,-1.760
1.270E-06,-1.800
1.280E-06,-1.840
1.290E-06,-1.920
1.300E-06,-1.880
1.310E-06,-2.000
1.320E-06,-2.080
1.330E-06,-2.160
1.340E-06,-2.240
1.350E-06,-2.360
1.360E-06,-2.480
1.370E-06,-2.640
1.380E-06,-2.760
1.390E-06,-2.920
1.400E-06,-3.120
1.410E-06,-3.280
1.420E-06,-3.560
1.430E-06,-3.720
1.440E-06,-3.840
1.450E-06,-4.080
1.460E-06,-4.320
1.470E-06,-4.520
1.480E-06,-4.720
1.490E-06,-4.880
1.500E-06,-5.080
1.510E-06,-5.200
1.520E-06,-5.240
1.530E-06,-5.240
1.540E-06,-5.240
1.550E-06,-5.240
1.560E-06,-5.240
1.570E-06,-5.200
1.580E-06,-5.240
1.590E-06,-5.240
1.600E-06,-5.200
1.610E-06,-5.240
1.620E-06,-5.240
1.630E-06,-5.120
1.640E-06,-4.960
1.650E-06,-4.840
1.660E-06,-4.680
1.670E-06,-4.560
1.680E-06,-4.400
1.690E-06,-4.280
1.700E-06,-4.200
1.710E-06,-4.080
1.720E-06,-3.960
1.730E-06,-3.920
1.740E-06,-3.840
1.750E-06,-3.720
1.760E-06,-3.680
1.770E-06,-3.640
1.780E-06,-3.600
1.790E-06,-3.520
1.800E-06,-3.520
1.810E-06,-3.440
1.820E-06,-3.400
1.830E-06,-3.360
1.840E-06,-3.360
1.850E-06,-3.320
1.860E-06,-3.240
1.870E-06,-3.200
1.880E-06,-3.160
1.890E-06,-3.080
1.900E-06,-3.040
1.910E-06,-3.040
1.920E-06,-2.960
1.930E-06,-2.840
1.940E-06,-2.840
1.950E-06,-2.800
1.960E-06,-2.760
1.970E-06,-2.720
1.980E-06,-2.640
1.990E-06,-2.600
2.000E-06,-2.520
2.010E-06,-2.440
2.020E-06,-2.400
2.030E-06,-2.320
2.040E-06,-2.360
2.050E-06,-2.280
2.060E-06,-2.240
2.070E-06,-2.200
2.080E-06,-2.200
2.090E-06,-2.160
2.100E-06,-2.000
2.110E-06,-2.000
2.120E-06,-1.960
2.130E-06,-1.880
2.140E-06,-1.920
2.150E-06,-1.880
2.160E-06,-1.880
2.170E-06,-1.800
2.180E-06,-1.840
2.190E-06,-1.880
2.200E-06,-1.880
2.210E-06,-1.840
2.220E-06,-1.840
2.230E-06,-1.760
2.240E-06,-1.760
2.250E-06,-1.760
2.260E-06,-1.760
2.270E-06,-1.720
2.280E-06,-1.720
2.290E-06,-1.720
2.300E-06,-1.720
2.310E-06,-1.640
2.320E-06,-1.680
2.330E-06,-1.680
2.340E-06,-1.680
2.350E-06,-1.680
2.360E-06,-1.720
2.370E-06,-1.720
2.380E-06,-1.720
2.390E-06,-1.600
2.400E-06,-1.640
2.410E-06,-1.640
2.420E-06,-1.600
2.430E-06,-1.600
2.440E-06,-1.640
2.450E-06,-1.680
2.460E-06,-1.680
2.470E-06,-1.640
2.480E-06,-1.640
2.490E-06,-1.680
2.500E-06,-1.680
2.510E-06,-1.680
2.520E-06,-1.680
2.530E-06,-1.640
2.540E-06,-1.600
2.550E-06,-1.600
2.560E-06,-1.560
2.570E-06,-1.600
2.580E-06,-1.560
2.590E-06,-1.560
2.600E-06,-1.520
2.610E-06,-1.560
2.620E-06,-1.520
2.630E-06,-1.520
2.640E-06,-1.480
2.650E-06,-1.440
2.660E-06,-1.400
2.670E-06,-1.360
2.680E-06,-1.360
2.690E-06,-1.360
2.700E-06,-1.320
2.710E-06,-1.360
2.720E-06,-1.320
2.730E-06,-1.360
2.740E-06,-1.400
2.750E-06,-1.480
2.760E-06,-1.520
2.770E-06,-1.560
2.780E-06,-1.560
2.790E-06,-1.600
2.800E-06,-1.600
2.810E-06,-1.600
2.820E-06,-1.640
2.830E-06,-1.680
2.840E-06,-1.640
2.850E-06,-1.680
2.860E-06,-1.760
2.870E-06,-1.800
2.880E-06,-1.840
2.890E-06,-1.800
2.900E-06,-1.840
2.910E-06,-1.840
2.920E-06,-1.800
2.930E-06,-1.760
2.940E-06,-1.760
2.950E-06,-1.680
2.960E-06,-1.640
2.970E-06,-1.560
2.980E-06,-1.560
2.990E-06,-1.520
3.000E-06,-1.480
3.010E-06,-1.360
3.020E-06,-1.280
3.030E-06,-1.200
3.040E-06,-1.080
3.050E-06,-1.000
3.060E-06,-0.920
3.070E-06,-0.800
3.080E-06,-0.720
3.090E-06,-0.680
3.100E-06,-0.680
3.110E-06,-0.640
3.120E-06,-0.560
3.130E-06,-0.520
3.140E-06,-0.480
3.150E-06,-0.520
3.160E-06,-0.480
3.170E-06,-0.480
3.180E-06,-0.520
3.190E-06,-0.520
3.200E-06,-0.560
3.210E-06,-0.600
3.220E-06,-0.640
3.230E-06,-0.600
3.240E-06,-0.640
3.250E-06,-0.600
3.260E-06,-0.600
3.270E-06,-0.600
3.280E-06,-0.480
3.290E-06,-0.520
3.300E-06,-0.560
3.310E-06,-0.600
3.320E-06,-0.600
3.330E-06,-0.640
