mediciones/5-22/-10/WaveData4972.csv

#timebase=2000000(ps)
,#voltbase=100000(mv/100)
#size=4000
-8.400E-06,0.004
-8.390E-06,0.004
-8.380E-06,0.008
-8.370E-06,0.000
-8.360E-06,-0.004
-8.350E-06,0.004
-8.340E-06,0.000
-8.330E-06,0.000
-8.320E-06,0.004
-8.310E-06,-0.004
-8.300E-06,0.004
-8.290E-06,0.000
-8.280E-06,0.004
-8.270E-06,0.004
-8.260E-06,0.004
-8.250E-06,0.004
-8.240E-06,0.000
-8.230E-06,0.004
-8.220E-06,0.004
-8.210E-06,0.004
-8.200E-06,0.004
-8.190E-06,0.008
-8.180E-06,0.008
-8.170E-06,0.008
-8.160E-06,-0.004
-8.150E-06,0.000
-8.140E-06,0.004
-8.130E-06,0.004
-8.120E-06,0.004
-8.110E-06,0.004
-8.100E-06,0.004
-8.090E-06,0.004
-8.080E-06,0.004
-8.070E-06,0.008
-8.060E-06,0.008
-8.050E-06,0.008
-8.040E-06,0.000
-8.030E-06,0.004
-8.020E-06,0.004
-8.010E-06,0.000
-8.000E-06,0.004
-7.990E-06,0.004
-7.980E-06,0.004
-7.970E-06,0.008
-7.960E-06,0.000
-7.950E-06,0.000
-7.940E-06,0.004
-7.930E-06,0.008
-7.920E-06,0.008
-7.910E-06,-0.004
-7.900E-06,0.000
-7.890E-06,0.000
-7.880E-06,0.008
-7.870E-06,0.008
-7.860E-06,0.000
-7.850E-06,0.000
-7.840E-06,0.004
-7.830E-06,0.004
-7.820E-06,0.008
-7.810E-06,0.000
-7.800E-06,0.004
-7.790E-06,0.004
-7.780E-06,0.004
-7.770E-06,0.004
-7.760E-06,0.000
-7.750E-06,0.004
-7.740E-06,0.000
-7.730E-06,0.004
-7.720E-06,0.000
-7.710E-06,0.000
-7.700E-06,0.004
-7.690E-06,0.000
-7.680E-06,0.004
-7.670E-06,0.004
-7.660E-06,0.004
-7.650E-06,0.004
-7.640E-06,0.004
-7.630E-06,0.000
-7.620E-06,0.004
-7.610E-06,0.004
-7.600E-06,0.000
-7.590E-06,0.004
-7.580E-06,-0.004
-7.570E-06,0.000
-7.560E-06,0.004
-7.550E-06,0.004
-7.540E-06,0.000
-7.530E-06,-0.004
-7.520E-06,0.000
-7.510E-06,0.004
-7.500E-06,0.000
-7.490E-06,0.004
-7.480E-06,0.004
-7.470E-06,0.004
-7.460E-06,-0.004
-7.450E-06,-0.004
-7.440E-06,0.004
-7.430E-06,0.004
-7.420E-06,0.004
-7.410E-06,0.004
-7.400E-06,0.000
-7.390E-06,0.004
-7.380E-06,0.004
-7.370E-06,0.004
-7.360E-06,0.004
-7.350E-06,0.004
-7.340E-06,0.004
-7.330E-06,0.004
-7.320E-06,0.000
-7.310E-06,0.000
-7.300E-06,0.004
-7.290E-06,0.000
-7.280E-06,0.000
-7.270E-06,0.004
-7.260E-06,0.004
-7.250E-06,0.004
-7.240E-06,0.000
-7.230E-06,0.004
-7.220E-06,0.000
-7.210E-06,0.000
-7.200E-06,0.004
-7.190E-06,0.000
-7.180E-06,0.000
-7.170E-06,0.004
-7.160E-06,0.004
-7.150E-06,0.000
-7.140E-06,0.000
-7.130E-06,0.004
-7.120E-06,0.004
-7.110E-06,0.000
-7.100E-06,0.004
-7.090E-06,0.004
-7.080E-06,0.004
-7.070E-06,0.000
-7.060E-06,0.000
-7.050E-06,0.004
-7.040E-06,0.004
-7.030E-06,0.004
-7.020E-06,0.004
-7.010E-06,0.000
-7.000E-06,0.000
-6.990E-06,0.004
-6.980E-06,0.000
-6.970E-06,0.004
-6.960E-06,0.000
-6.950E-06,0.004
-6.940E-06,0.004
-6.930E-06,0.008
-6.920E-06,0.008
-6.910E-06,-0.004
-6.900E-06,-0.004
-6.890E-06,0.004
-6.880E-06,0.008
-6.870E-06,0.000
-6.860E-06,0.000
-6.850E-06,0.004
-6.840E-06,0.008
-6.830E-06,0.008
-6.820E-06,0.008
-6.810E-06,0.000
-6.800E-06,0.000
-6.790E-06,0.004
-6.780E-06,-0.004
-6.770E-06,0.004
-6.760E-06,0.008
-6.750E-06,0.004
-6.740E-06,0.004
-6.730E-06,0.008
-6.720E-06,0.000
-6.710E-06,0.000
-6.700E-06,0.004
-6.690E-06,0.000
-6.680E-06,0.000
-6.670E-06,0.004
-6.660E-06,0.000
-6.650E-06,-0.004
-6.640E-06,0.004
-6.630E-06,0.004
-6.620E-06,0.004
-6.610E-06,-0.004
-6.600E-06,0.000
-6.590E-06,0.000
-6.580E-06,0.000
-6.570E-06,0.000
-6.560E-06,0.004
-6.550E-06,0.004
-6.540E-06,0.004
-6.530E-06,0.004
-6.520E-06,0.004
-6.510E-06,0.004
-6.500E-06,0.004
-6.490E-06,0.008
-6.480E-06,0.000
-6.470E-06,0.004
-6.460E-06,0.004
-6.450E-06,0.004
-6.440E-06,0.004
-6.430E-06,0.004
-6.420E-06,0.004
-6.410E-06,0.004
-6.400E-06,0.004
-6.390E-06,0.004
-6.380E-06,0.000
-6.370E-06,0.000
-6.360E-06,0.004
-6.350E-06,0.004
-6.340E-06,0.004
-6.330E-06,0.004
-6.320E-06,0.004
-6.310E-06,0.008
-6.300E-06,0.024
-6.290E-06,0.056
-6.280E-06,0.072
-6.270E-06,0.028
-6.260E-06,-0.004
-6.250E-06,-0.052
-6.240E-06,-0.068
-6.230E-06,-0.088
-6.220E-06,-0.008
-6.210E-06,0.048
-6.200E-06,0.068
-6.190E-06,0.064
-6.180E-06,0.004
-6.170E-06,-0.048
-6.160E-06,-0.052
-6.150E-06,-0.024
-6.140E-06,0.028
-6.130E-06,0.068
-6.120E-06,0.056
-6.110E-06,0.024
-6.100E-06,-0.020
-6.090E-06,-0.044
-6.080E-06,-0.044
-6.070E-06,-0.012
-6.060E-06,0.020
-6.050E-06,0.036
-6.040E-06,0.040
-6.030E-06,0.024
-6.020E-06,0.004
-6.010E-06,-0.008
-6.000E-06,-0.008
-5.990E-06,-0.004
-5.980E-06,-0.004
-5.970E-06,0.008
-5.960E-06,0.016
-5.950E-06,0.016
-5.940E-06,0.016
-5.930E-06,0.000
-5.920E-06,-0.016
-5.910E-06,-0.028
-5.900E-06,-0.020
-5.890E-06,-0.004
-5.880E-06,0.012
-5.870E-06,0.024
-5.860E-06,0.024
-5.850E-06,0.016
-5.840E-06,-0.004
-5.830E-06,-0.008
-5.820E-06,-0.004
-5.810E-06,0.004
-5.800E-06,0.016
-5.790E-06,0.032
-5.780E-06,0.012
-5.770E-06,-0.008
-5.760E-06,-0.008
-5.750E-06,-0.020
-5.740E-06,-0.008
-5.730E-06,0.008
-5.720E-06,0.016
-5.710E-06,0.020
-5.700E-06,0.008
-5.690E-06,0.004
-5.680E-06,0.000
-5.670E-06,-0.004
-5.660E-06,0.000
-5.650E-06,0.004
-5.640E-06,0.004
-5.630E-06,0.008
-5.620E-06,0.008
-5.610E-06,0.004
-5.600E-06,-0.004
-5.590E-06,-0.004
-5.580E-06,-0.004
-5.570E-06,-0.004
-5.560E-06,-0.004
-5.550E-06,0.008
-5.540E-06,0.008
-5.530E-06,0.012
-5.520E-06,0.012
-5.510E-06,0.004
-5.500E-06,0.000
-5.490E-06,0.000
-5.480E-06,0.004
-5.470E-06,0.008
-5.460E-06,0.016
-5.450E-06,0.008
-5.440E-06,0.000
-5.430E-06,-0.008
-5.420E-06,-0.004
-5.410E-06,-0.004
-5.400E-06,0.004
-5.390E-06,0.012
-5.380E-06,0.012
-5.370E-06,0.004
-5.360E-06,-0.004
-5.350E-06,-0.008
-5.340E-06,-0.004
-5.330E-06,0.008
-5.320E-06,0.008
-5.310E-06,0.012
-5.300E-06,0.008
-5.290E-06,0.004
-5.280E-06,-0.004
-5.270E-06,-0.004
-5.260E-06,-0.004
-5.250E-06,0.004
-5.240E-06,0.004
-5.230E-06,0.012
-5.220E-06,0.008
-5.210E-06,0.008
-5.200E-06,0.000
-5.190E-06,-0.008
-5.180E-06,-0.004
-5.170E-06,0.000
-5.160E-06,0.008
-5.150E-06,0.012
-5.140E-06,0.008
-5.130E-06,0.000
-5.120E-06,0.000
-5.110E-06,0.000
-5.100E-06,0.004
-5.090E-06,0.008
-5.080E-06,0.008
-5.070E-06,0.004
-5.060E-06,0.004
-5.050E-06,0.000
-5.040E-06,-0.004
-5.030E-06,0.000
-5.020E-06,0.008
-5.010E-06,0.004
-5.000E-06,0.008
-4.990E-06,0.000
-4.980E-06,0.000
-4.970E-06,0.000
-4.960E-06,0.004
-4.950E-06,0.008
-4.940E-06,0.008
-4.930E-06,0.000
-4.920E-06,-0.004
-4.910E-06,0.000
-4.900E-06,-0.004
-4.890E-06,0.004
-4.880E-06,0.012
-4.870E-06,0.016
-4.860E-06,0.004
-4.850E-06,0.000
-4.840E-06,-0.012
-4.830E-06,-0.004
-4.820E-06,0.004
-4.810E-06,0.012
-4.800E-06,0.024
-4.790E-06,0.016
-4.780E-06,0.012
-4.770E-06,-0.004
-4.760E-06,-0.008
-4.750E-06,-0.004
-4.740E-06,0.004
-4.730E-06,0.008
-4.720E-06,0.012
-4.710E-06,0.008
-4.700E-06,0.004
-4.690E-06,0.000
-4.680E-06,-0.004
-4.670E-06,0.004
-4.660E-06,0.012
-4.650E-06,0.008
-4.640E-06,0.004
-4.630E-06,0.004
-4.620E-06,-0.004
-4.610E-06,0.004
-4.600E-06,0.008
-4.590E-06,0.004
-4.580E-06,0.008
-4.570E-06,0.000
-4.560E-06,0.000
-4.550E-06,0.000
-4.540E-06,0.008
-4.530E-06,0.008
-4.520E-06,0.004
-4.510E-06,0.004
-4.500E-06,0.000
-4.490E-06,-0.004
-4.480E-06,0.000
-4.470E-06,0.008
-4.460E-06,0.000
-4.450E-06,0.000
-4.440E-06,-0.004
-4.430E-06,-0.004
-4.420E-06,0.004
-4.410E-06,0.008
-4.400E-06,0.000
-4.390E-06,0.000
-4.380E-06,-0.016
-4.370E-06,-0.008
-4.360E-06,0.004
-4.350E-06,0.020
-4.340E-06,0.016
-4.330E-06,0.012
-4.320E-06,-0.004
-4.310E-06,-0.016
-4.300E-06,-0.012
-4.290E-06,-0.004
-4.280E-06,0.012
-4.270E-06,0.024
-4.260E-06,0.016
-4.250E-06,0.004
-4.240E-06,-0.008
-4.230E-06,-0.012
-4.220E-06,-0.004
-4.210E-06,0.004
-4.200E-06,0.020
-4.190E-06,0.012
-4.180E-06,0.008
-4.170E-06,0.000
-4.160E-06,-0.004
-4.150E-06,0.004
-4.140E-06,0.000
-4.130E-06,0.008
-4.120E-06,0.008
-4.110E-06,0.012
-4.100E-06,0.000
-4.090E-06,0.000
-4.080E-06,0.008
-4.070E-06,0.000
-4.060E-06,-0.008
-4.050E-06,-0.008
-4.040E-06,-0.008
-4.030E-06,0.012
-4.020E-06,0.024
-4.010E-06,0.020
-4.000E-06,0.008
-3.990E-06,-0.004
-3.980E-06,-0.008
-3.970E-06,-0.024
-3.960E-06,-0.008
-3.950E-06,0.008
-3.940E-06,0.020
-3.930E-06,0.028
-3.920E-06,0.004
-3.910E-06,-0.004
-3.900E-06,-0.020
-3.890E-06,-0.016
-3.880E-06,0.004
-3.870E-06,0.024
-3.860E-06,0.028
-3.850E-06,0.008
-3.840E-06,0.000
-3.830E-06,-0.008
-3.820E-06,-0.008
-3.810E-06,-0.004
-3.800E-06,0.012
-3.790E-06,0.012
-3.780E-06,0.012
-3.770E-06,0.008
-3.760E-06,0.000
-3.750E-06,0.000
-3.740E-06,-0.004
-3.730E-06,0.000
-3.720E-06,0.000
-3.710E-06,0.000
-3.700E-06,0.004
-3.690E-06,0.008
-3.680E-06,0.012
-3.670E-06,-0.004
-3.660E-06,-0.004
-3.650E-06,0.008
-3.640E-06,0.004
-3.630E-06,0.004
-3.620E-06,0.012
-3.610E-06,0.008
-3.600E-06,-0.004
-3.590E-06,-0.008
-3.580E-06,-0.008
-3.570E-06,-0.004
-3.560E-06,0.012
-3.550E-06,0.020
-3.540E-06,0.012
-3.530E-06,0.000
-3.520E-06,-0.004
-3.510E-06,-0.012
-3.500E-06,0.000
-3.490E-06,0.004
-3.480E-06,0.016
-3.470E-06,0.012
-3.460E-06,0.004
-3.450E-06,-0.004
-3.440E-06,0.000
-3.430E-06,0.000
-3.420E-06,0.008
-3.410E-06,0.008
-3.400E-06,0.012
-3.390E-06,0.008
-3.380E-06,0.004
-3.370E-06,0.000
-3.360E-06,-0.004
-3.350E-06,0.004
-3.340E-06,0.004
-3.330E-06,0.012
-3.320E-06,0.008
-3.310E-06,0.012
-3.300E-06,0.000
-3.290E-06,-0.004
-3.280E-06,-0.008
-3.270E-06,-0.004
-3.260E-06,0.000
-3.250E-06,0.020
-3.240E-06,0.020
-3.230E-06,0.004
-3.220E-06,0.008
-3.210E-06,-0.008
-3.200E-06,-0.012
-3.190E-06,-0.012
-3.180E-06,0.000
-3.170E-06,0.008
-3.160E-06,0.020
-3.150E-06,0.016
-3.140E-06,0.008
-3.130E-06,-0.004
-3.120E-06,-0.016
-3.110E-06,-0.012
-3.100E-06,0.000
-3.090E-06,0.008
-3.080E-06,0.012
-3.070E-06,0.016
-3.060E-06,0.008
-3.050E-06,-0.004
-3.040E-06,-0.012
-3.030E-06,-0.004
-3.020E-06,0.004
-3.010E-06,0.012
-3.000E-06,0.020
-2.990E-06,0.012
-2.980E-06,0.000
-2.970E-06,-0.004
-2.960E-06,-0.004
-2.950E-06,-0.004
-2.940E-06,0.008
-2.930E-06,0.008
-2.920E-06,0.012
-2.910E-06,0.008
-2.900E-06,0.012
-2.890E-06,0.008
-2.880E-06,0.012
-2.870E-06,0.012
-2.860E-06,0.012
-2.850E-06,0.004
-2.840E-06,0.004
-2.830E-06,0.004
-2.820E-06,-0.004
-2.810E-06,0.000
-2.800E-06,-0.008
-2.790E-06,0.000
-2.780E-06,0.008
-2.770E-06,0.008
-2.760E-06,0.008
-2.750E-06,0.008
-2.740E-06,0.004
-2.730E-06,-0.020
-2.720E-06,-0.012
-2.710E-06,-0.004
-2.700E-06,0.004
-2.690E-06,0.020
-2.680E-06,0.012
-2.670E-06,-0.004
-2.660E-06,-0.004
-2.650E-06,-0.004
-2.640E-06,-0.008
-2.630E-06,0.012
-2.620E-06,0.024
-2.610E-06,0.008
-2.600E-06,-0.008
-2.590E-06,-0.008
-2.580E-06,-0.024
-2.570E-06,0.008
-2.560E-06,0.020
-2.550E-06,0.020
-2.540E-06,0.008
-2.530E-06,-0.004
-2.520E-06,-0.024
-2.510E-06,-0.012
-2.500E-06,0.000
-2.490E-06,0.012
-2.480E-06,0.028
-2.470E-06,0.012
-2.460E-06,-0.004
-2.450E-06,-0.004
-2.440E-06,-0.004
-2.430E-06,-0.004
-2.420E-06,0.012
-2.410E-06,0.008
-2.400E-06,0.008
-2.390E-06,0.008
-2.380E-06,-0.004
-2.370E-06,-0.004
-2.360E-06,0.000
-2.350E-06,0.004
-2.340E-06,0.004
-2.330E-06,0.008
-2.320E-06,0.012
-2.310E-06,0.016
-2.300E-06,0.016
-2.290E-06,0.008
-2.280E-06,0.012
-2.270E-06,0.012
-2.260E-06,0.016
-2.250E-06,-0.004
-2.240E-06,-0.012
-2.230E-06,-0.008
-2.220E-06,0.000
-2.210E-06,0.004
-2.200E-06,0.020
-2.190E-06,0.024
-2.180E-06,0.028
-2.170E-06,0.024
-2.160E-06,-0.008
-2.150E-06,-0.032
-2.140E-06,-0.012
-2.130E-06,-0.008
-2.120E-06,0.012
-2.110E-06,0.032
-2.100E-06,0.016
-2.090E-06,0.000
-2.080E-06,-0.020
-2.070E-06,-0.016
-2.060E-06,-0.016
-2.050E-06,0.012
-2.040E-06,0.028
-2.030E-06,0.020
-2.020E-06,0.004
-2.010E-06,-0.008
-2.000E-06,-0.024
-1.990E-06,0.000
-1.980E-06,0.008
-1.970E-06,0.024
-1.960E-06,0.032
-1.950E-06,0.020
-1.940E-06,-0.008
-1.930E-06,-0.012
-1.920E-06,-0.004
-1.910E-06,0.000
-1.900E-06,0.012
-1.890E-06,0.016
-1.880E-06,0.008
-1.870E-06,-0.004
-1.860E-06,-0.004
-1.850E-06,-0.004
-1.840E-06,0.000
-1.830E-06,0.004
-1.820E-06,0.008
-1.810E-06,0.008
-1.800E-06,0.000
-1.790E-06,0.000
-1.780E-06,0.000
-1.770E-06,0.008
-1.760E-06,0.008
-1.750E-06,0.012
-1.740E-06,0.008
-1.730E-06,-0.004
-1.720E-06,0.000
-1.710E-06,0.008
-1.700E-06,0.008
-1.690E-06,0.012
-1.680E-06,0.008
-1.670E-06,0.008
-1.660E-06,0.012
-1.650E-06,0.004
-1.640E-06,0.012
-1.630E-06,0.016
-1.620E-06,0.020
-1.610E-06,0.012
-1.600E-06,0.008
-1.590E-06,-0.008
-1.580E-06,-0.004
-1.570E-06,-0.004
-1.560E-06,-0.012
-1.550E-06,0.000
-1.540E-06,0.000
-1.530E-06,0.020
-1.520E-06,0.024
-1.510E-06,0.032
-1.500E-06,0.020
-1.490E-06,0.000
-1.480E-06,0.000
-1.470E-06,-0.008
-1.460E-06,0.012
-1.450E-06,0.012
-1.440E-06,0.020
-1.430E-06,0.004
-1.420E-06,-0.004
-1.410E-06,-0.016
-1.400E-06,-0.008
-1.390E-06,0.004
-1.380E-06,0.012
-1.370E-06,0.024
-1.360E-06,0.016
-1.350E-06,0.008
-1.340E-06,-0.008
-1.330E-06,-0.004
-1.320E-06,0.004
-1.310E-06,0.012
-1.300E-06,0.024
-1.290E-06,0.032
-1.280E-06,0.024
-1.270E-06,0.016
-1.260E-06,0.016
-1.250E-06,0.016
-1.240E-06,0.020
-1.230E-06,0.028
-1.220E-06,0.032
-1.210E-06,0.032
-1.200E-06,0.032
-1.190E-06,0.032
-1.180E-06,0.052
-1.170E-06,0.072
-1.160E-06,0.088
-1.150E-06,0.068
-1.140E-06,0.044
-1.130E-06,0.008
-1.120E-06,-0.036
-1.110E-06,-0.056
-1.100E-06,-0.056
-1.090E-06,-0.020
-1.080E-06,0.016
-1.070E-06,0.048
-1.060E-06,0.044
-1.050E-06,0.016
-1.040E-06,-0.012
-1.030E-06,-0.012
-1.020E-06,0.028
-1.010E-06,0.076
-1.000E-06,0.144
-9.900E-07,0.180
-9.800E-07,0.152
-9.700E-07,0.088
-9.600E-07,-0.004
-9.500E-07,-0.072
-9.400E-07,-0.088
-9.300E-07,-0.056
-9.200E-07,-0.012
-9.100E-07,0.008
-9.000E-07,0.000
-8.900E-07,-0.004
-8.800E-07,0.016
-8.700E-07,0.040
-8.600E-07,0.012
-8.500E-07,-0.096
-8.400E-07,-0.132
-8.300E-07,-0.164
-8.200E-07,-0.248
-8.100E-07,-0.236
-8.000E-07,-0.220
-7.900E-07,-0.080
-7.800E-07,0.076
-7.700E-07,0.188
-7.600E-07,0.156
-7.500E-07,0.020
-7.400E-07,-0.036
-7.300E-07,-0.160
-7.200E-07,-0.136
-7.100E-07,-0.036
-7.000E-07,0.064
-6.900E-07,0.120
-6.800E-07,0.104
-6.700E-07,0.028
-6.600E-07,-0.040
-6.500E-07,-0.060
-6.400E-07,-0.064
-6.300E-07,-0.008
-6.200E-07,0.028
-6.100E-07,0.056
-6.000E-07,0.040
-5.900E-07,0.024
-5.800E-07,-0.004
-5.700E-07,-0.028
-5.600E-07,-0.036
-5.500E-07,-0.020
-5.400E-07,0.004
-5.300E-07,0.020
-5.200E-07,0.040
-5.100E-07,0.032
-5.000E-07,0.028
-4.900E-07,-0.008
-4.800E-07,-0.028
-4.700E-07,-0.032
-4.600E-07,-0.012
-4.500E-07,0.012
-4.400E-07,0.036
-4.300E-07,0.048
-4.200E-07,0.024
-4.100E-07,0.008
-4.000E-07,-0.016
-3.900E-07,-0.016
-3.800E-07,-0.008
-3.700E-07,0.020
-3.600E-07,0.036
-3.500E-07,0.044
-3.400E-07,0.036
-3.300E-07,0.020
-3.200E-07,0.008
-3.100E-07,0.000
-3.000E-07,0.012
-2.900E-07,0.028
-2.800E-07,0.044
-2.700E-07,0.056
-2.600E-07,0.052
-2.500E-07,0.044
-2.400E-07,0.048
-2.300E-07,0.056
-2.200E-07,0.056
-2.100E-07,0.064
-2.000E-07,0.068
-1.900E-07,0.068
-1.800E-07,0.064
-1.700E-07,0.076
-1.600E-07,0.084
-1.500E-07,0.092
-1.400E-07,0.104
-1.300E-07,0.112
-1.200E-07,0.092
-1.100E-07,0.092
-1.000E-07,0.072
-9.000E-08,0.076
-8.000E-08,0.040
-7.000E-08,0.016
-6.000E-08,-0.144
-5.000E-08,-0.320
-4.000E-08,-0.408
-3.000E-08,-0.296
-2.000E-08,-0.032
-1.000E-08,0.236
0.000E+00,0.436
1.000E-08,0.464
2.000E-08,0.272
3.000E-08,-0.044
4.000E-08,-0.392
5.000E-08,-0.500
6.000E-08,-0.408
7.000E-08,-0.084
8.000E-08,0.108
9.000E-08,0.132
1.000E-07,0.036
1.100E-07,-0.056
1.200E-07,-0.112
1.300E-07,-0.092
1.400E-07,0.012
1.500E-07,0.096
1.600E-07,0.112
1.700E-07,0.056
1.800E-07,-0.032
1.900E-07,-0.132
2.000E-07,-0.140
2.100E-07,-0.072
2.200E-07,0.012
2.300E-07,0.060
2.400E-07,0.072
2.500E-07,0.012
2.600E-07,-0.016
2.700E-07,-0.012
2.800E-07,-0.040
2.900E-07,-0.048
3.000E-07,-0.024
3.100E-07,0.024
3.200E-07,-0.004
3.300E-07,0.024
3.400E-07,0.024
3.500E-07,0.012
3.600E-07,-0.004
3.700E-07,-0.032
3.800E-07,-0.040
3.900E-07,-0.028
4.000E-07,0.016
4.100E-07,0.028
4.200E-07,0.056
4.300E-07,0.028
4.400E-07,-0.004
4.500E-07,-0.032
4.600E-07,-0.032
4.700E-07,-0.012
4.800E-07,0.020
4.900E-07,0.048
5.000E-07,0.044
5.100E-07,0.020
5.200E-07,-0.012
5.300E-07,-0.028
5.400E-07,-0.032
5.500E-07,-0.004
5.600E-07,0.020
5.700E-07,0.032
5.800E-07,0.028
5.900E-07,0.020
6.000E-07,0.004
6.100E-07,0.000
6.200E-07,0.000
6.300E-07,0.000
6.400E-07,0.012
6.500E-07,0.016
6.600E-07,0.024
6.700E-07,0.024
6.800E-07,0.028
6.900E-07,0.024
7.000E-07,0.020
7.100E-07,0.016
7.200E-07,0.012
7.300E-07,0.020
7.400E-07,0.028
7.500E-07,0.048
7.600E-07,0.056
7.700E-07,0.056
7.800E-07,0.056
7.900E-07,0.044
8.000E-07,0.044
8.100E-07,0.056
8.200E-07,0.068
8.300E-07,0.088
8.400E-07,0.100
8.500E-07,0.108
8.600E-07,0.108
8.700E-07,0.108
8.800E-07,0.100
8.900E-07,0.088
9.000E-07,0.076
9.100E-07,0.068
9.200E-07,0.068
9.300E-07,0.072
9.400E-07,0.072
9.500E-07,0.076
9.600E-07,0.088
9.700E-07,0.092
9.800E-07,0.108
9.900E-07,0.100
1.000E-06,0.088
1.010E-06,0.060
1.020E-06,0.032
1.030E-06,-0.008
1.040E-06,-0.036
1.050E-06,-0.040
1.060E-06,-0.040
1.070E-06,-0.004
1.080E-06,0.048
1.090E-06,0.056
1.100E-06,0.064
1.110E-06,0.040
1.120E-06,0.032
1.130E-06,0.024
1.140E-06,0.044
1.150E-06,0.056
1.160E-06,0.020
1.170E-06,0.004
1.180E-06,0.004
1.190E-06,-0.072
1.200E-06,-0.156
1.210E-06,-0.276
1.220E-06,-0.396
1.230E-06,-0.272
1.240E-06,-0.064
1.250E-06,0.228
1.260E-06,0.072
1.270E-06,-0.196
1.280E-06,-0.512
1.290E-06,-0.512
1.300E-06,-0.464
1.310E-06,-0.040
1.320E-06,0.344
1.330E-06,0.528
1.340E-06,0.484
1.350E-06,0.076
1.360E-06,-0.264
1.370E-06,-0.448
1.380E-06,-0.348
1.390E-06,-0.040
1.400E-06,0.268
1.410E-06,0.340
1.420E-06,0.276
1.430E-06,0.088
1.440E-06,-0.180
1.450E-06,-0.296
1.460E-06,-0.260
1.470E-06,-0.092
1.480E-06,0.076
1.490E-06,0.212
1.500E-06,0.176
1.510E-06,0.084
1.520E-06,-0.036
1.530E-06,-0.136
1.540E-06,-0.164
1.550E-06,-0.096
1.560E-06,0.008
1.570E-06,0.088
1.580E-06,0.140
1.590E-06,0.096
1.600E-06,0.032
1.610E-06,-0.048
1.620E-06,-0.088
1.630E-06,-0.088
1.640E-06,-0.020
1.650E-06,0.044
1.660E-06,0.092
1.670E-06,0.088
1.680E-06,0.048
1.690E-06,0.000
1.700E-06,-0.052
1.710E-06,-0.056
1.720E-06,-0.028
1.730E-06,0.024
1.740E-06,0.060
1.750E-06,0.072
1.760E-06,0.056
1.770E-06,0.020
1.780E-06,0.000
1.790E-06,-0.008
1.800E-06,0.016
1.810E-06,0.040
1.820E-06,0.068
1.830E-06,0.084
1.840E-06,0.088
1.850E-06,0.080
1.860E-06,0.080
1.870E-06,0.084
1.880E-06,0.092
1.890E-06,0.108
1.900E-06,0.104
1.910E-06,0.100
1.920E-06,0.092
1.930E-06,0.088
1.940E-06,0.088
1.950E-06,0.112
1.960E-06,0.124
1.970E-06,0.132
1.980E-06,0.140
1.990E-06,0.144
2.000E-06,0.140
2.010E-06,0.136
2.020E-06,0.116
2.030E-06,0.112
2.040E-06,0.112
2.050E-06,0.108
2.060E-06,0.084
2.070E-06,0.020
2.080E-06,-0.072
2.090E-06,-0.168
2.100E-06,-0.220
2.110E-06,-0.208
2.120E-06,-0.120
2.130E-06,0.000
2.140E-06,0.104
2.150E-06,0.148
2.160E-06,0.120
2.170E-06,0.028
2.180E-06,-0.020
2.190E-06,-0.040
2.200E-06,-0.012
2.210E-06,0.044
2.220E-06,0.124
2.230E-06,0.132
2.240E-06,0.080
2.250E-06,0.028
2.260E-06,-0.036
2.270E-06,0.012
2.280E-06,0.072
2.290E-06,0.136
2.300E-06,0.152
2.310E-06,0.108
2.320E-06,0.016
2.330E-06,-0.060
2.340E-06,-0.100
2.350E-06,-0.140
2.360E-06,-0.124
2.370E-06,-0.116
2.380E-06,-0.080
2.390E-06,-0.036
2.400E-06,0.052
2.410E-06,0.140
2.420E-06,0.188
2.430E-06,0.112
2.440E-06,-0.024
2.450E-06,-0.100
2.460E-06,-0.100
2.470E-06,-0.020
2.480E-06,-0.028
2.490E-06,-0.124
2.500E-06,-0.408
2.510E-06,-0.512
2.520E-06,-0.512
2.530E-06,-0.512
2.540E-06,-0.088
2.550E-06,0.272
2.560E-06,0.460
2.570E-06,0.296
2.580E-06,0.020
2.590E-06,-0.228
2.600E-06,-0.352
2.610E-06,-0.332
2.620E-06,-0.076
2.630E-06,0.176
2.640E-06,0.284
2.650E-06,0.268
2.660E-06,0.104
2.670E-06,-0.080
2.680E-06,-0.180
2.690E-06,-0.180
2.700E-06,-0.072
2.710E-06,0.044
2.720E-06,0.072
2.730E-06,0.056
2.740E-06,0.000
2.750E-06,-0.060
2.760E-06,-0.112
2.770E-06,-0.096
2.780E-06,-0.036
2.790E-06,0.044
2.800E-06,0.088
2.810E-06,0.060
2.820E-06,0.016
2.830E-06,-0.016
2.840E-06,-0.040
2.850E-06,-0.036
2.860E-06,-0.012
2.870E-06,0.012
2.880E-06,0.036
2.890E-06,0.044
2.900E-06,0.044
2.910E-06,0.040
2.920E-06,0.024
2.930E-06,0.020
2.940E-06,0.024
2.950E-06,0.028
2.960E-06,0.032
2.970E-06,0.036
2.980E-06,0.036
2.990E-06,0.036
3.000E-06,0.032
3.010E-06,0.028
3.020E-06,0.036
3.030E-06,0.048
3.040E-06,0.060
3.050E-06,0.072
3.060E-06,0.088
3.070E-06,0.096
3.080E-06,0.092
3.090E-06,0.092
3.100E-06,0.096
3.110E-06,0.104
3.120E-06,0.124
3.130E-06,0.132
3.140E-06,0.140
3.150E-06,0.128
3.160E-06,0.128
3.170E-06,0.124
3.180E-06,0.124
3.190E-06,0.128
3.200E-06,0.136
3.210E-06,0.136
3.220E-06,0.136
3.230E-06,0.140
3.240E-06,0.136
3.250E-06,0.136
3.260E-06,0.140
3.270E-06,0.144
3.280E-06,0.144
3.290E-06,0.144
3.300E-06,0.140
3.310E-06,0.132
3.320E-06,0.132
