mediciones/5-22/-10/WaveData4968.csv

#timebase=2000000(ps)
,#voltbase=100000(mv/100)
#size=4000
-8.400E-06,0.012
-8.390E-06,0.000
-8.380E-06,-0.004
-8.370E-06,-0.008
-8.360E-06,0.000
-8.350E-06,0.012
-8.340E-06,0.016
-8.330E-06,0.012
-8.320E-06,0.008
-8.310E-06,-0.004
-8.300E-06,-0.008
-8.290E-06,-0.004
-8.280E-06,-0.004
-8.270E-06,0.008
-8.260E-06,0.004
-8.250E-06,0.008
-8.240E-06,0.000
-8.230E-06,0.000
-8.220E-06,0.000
-8.210E-06,0.000
-8.200E-06,0.000
-8.190E-06,0.004
-8.180E-06,0.008
-8.170E-06,0.008
-8.160E-06,0.008
-8.150E-06,0.004
-8.140E-06,0.000
-8.130E-06,0.004
-8.120E-06,0.004
-8.110E-06,-0.004
-8.100E-06,0.004
-8.090E-06,0.008
-8.080E-06,0.008
-8.070E-06,0.008
-8.060E-06,0.000
-8.050E-06,0.000
-8.040E-06,0.000
-8.030E-06,0.000
-8.020E-06,0.008
-8.010E-06,0.008
-8.000E-06,0.008
-7.990E-06,0.000
-7.980E-06,0.000
-7.970E-06,0.004
-7.960E-06,-0.004
-7.950E-06,0.000
-7.940E-06,0.008
-7.930E-06,0.004
-7.920E-06,0.000
-7.910E-06,0.004
-7.900E-06,0.000
-7.890E-06,0.004
-7.880E-06,0.004
-7.870E-06,0.000
-7.860E-06,0.008
-7.850E-06,0.004
-7.840E-06,0.004
-7.830E-06,0.008
-7.820E-06,0.004
-7.810E-06,0.008
-7.800E-06,0.012
-7.790E-06,0.008
-7.780E-06,-0.004
-7.770E-06,-0.004
-7.760E-06,0.000
-7.750E-06,0.008
-7.740E-06,0.012
-7.730E-06,0.020
-7.720E-06,0.024
-7.710E-06,0.004
-7.700E-06,-0.008
-7.690E-06,-0.012
-7.680E-06,-0.012
-7.670E-06,0.008
-7.660E-06,0.016
-7.650E-06,0.024
-7.640E-06,0.012
-7.630E-06,-0.012
-7.620E-06,-0.024
-7.610E-06,-0.032
-7.600E-06,-0.008
-7.590E-06,0.012
-7.580E-06,0.020
-7.570E-06,0.024
-7.560E-06,0.012
-7.550E-06,0.000
-7.540E-06,-0.024
-7.530E-06,-0.024
-7.520E-06,-0.012
-7.510E-06,0.004
-7.500E-06,0.028
-7.490E-06,0.028
-7.480E-06,0.008
-7.470E-06,-0.012
-7.460E-06,-0.024
-7.450E-06,-0.004
-7.440E-06,0.000
-7.430E-06,0.016
-7.420E-06,0.020
-7.410E-06,0.012
-7.400E-06,0.004
-7.390E-06,-0.004
-7.380E-06,-0.004
-7.370E-06,-0.004
-7.360E-06,0.000
-7.350E-06,0.008
-7.340E-06,0.008
-7.330E-06,0.008
-7.320E-06,0.004
-7.310E-06,0.000
-7.300E-06,0.000
-7.290E-06,0.000
-7.280E-06,-0.004
-7.270E-06,0.000
-7.260E-06,0.004
-7.250E-06,0.012
-7.240E-06,0.012
-7.230E-06,0.008
-7.220E-06,0.004
-7.210E-06,0.004
-7.200E-06,-0.008
-7.190E-06,-0.004
-7.180E-06,0.004
-7.170E-06,0.008
-7.160E-06,0.012
-7.150E-06,0.000
-7.140E-06,-0.004
-7.130E-06,0.000
-7.120E-06,-0.004
-7.110E-06,0.004
-7.100E-06,0.008
-7.090E-06,0.008
-7.080E-06,0.008
-7.070E-06,0.004
-7.060E-06,-0.004
-7.050E-06,-0.004
-7.040E-06,0.004
-7.030E-06,0.008
-7.020E-06,0.000
-7.010E-06,0.000
-7.000E-06,0.004
-6.990E-06,0.000
-6.980E-06,0.000
-6.970E-06,-0.004
-6.960E-06,0.000
-6.950E-06,0.000
-6.940E-06,0.004
-6.930E-06,0.004
-6.920E-06,0.004
-6.910E-06,0.004
-6.900E-06,0.008
-6.890E-06,0.004
-6.880E-06,0.004
-6.870E-06,0.004
-6.860E-06,0.000
-6.850E-06,0.004
-6.840E-06,0.004
-6.830E-06,0.012
-6.820E-06,0.012
-6.810E-06,0.008
-6.800E-06,0.008
-6.790E-06,-0.004
-6.780E-06,0.004
-6.770E-06,0.004
-6.760E-06,0.008
-6.750E-06,0.004
-6.740E-06,0.008
-6.730E-06,0.000
-6.720E-06,0.004
-6.710E-06,0.008
-6.700E-06,0.008
-6.690E-06,0.000
-6.680E-06,0.004
-6.670E-06,0.008
-6.660E-06,0.008
-6.650E-06,0.008
-6.640E-06,0.008
-6.630E-06,0.008
-6.620E-06,0.004
-6.610E-06,0.004
-6.600E-06,0.008
-6.590E-06,0.008
-6.580E-06,0.004
-6.570E-06,0.004
-6.560E-06,0.004
-6.550E-06,0.008
-6.540E-06,0.004
-6.530E-06,0.000
-6.520E-06,0.008
-6.510E-06,0.004
-6.500E-06,0.004
-6.490E-06,0.008
-6.480E-06,0.008
-6.470E-06,0.008
-6.460E-06,0.008
-6.450E-06,0.008
-6.440E-06,0.008
-6.430E-06,0.008
-6.420E-06,0.012
-6.410E-06,0.012
-6.400E-06,0.012
-6.390E-06,0.004
-6.380E-06,0.004
-6.370E-06,0.008
-6.360E-06,0.008
-6.350E-06,0.008
-6.340E-06,0.008
-6.330E-06,0.004
-6.320E-06,0.012
-6.310E-06,0.008
-6.300E-06,0.012
-6.290E-06,0.012
-6.280E-06,0.020
-6.270E-06,0.012
-6.260E-06,0.016
-6.250E-06,0.020
-6.240E-06,0.028
-6.230E-06,0.032
-6.220E-06,0.040
-6.210E-06,0.048
-6.200E-06,0.028
-6.190E-06,0.012
-6.180E-06,-0.008
-6.170E-06,-0.032
-6.160E-06,-0.048
-6.150E-06,-0.072
-6.140E-06,-0.064
-6.130E-06,-0.040
-6.120E-06,0.008
-6.110E-06,0.032
-6.100E-06,0.020
-6.090E-06,0.012
-6.080E-06,-0.020
-6.070E-06,-0.028
-6.060E-06,-0.028
-6.050E-06,-0.012
-6.040E-06,0.008
-6.030E-06,0.020
-6.020E-06,0.028
-6.010E-06,0.008
-6.000E-06,0.000
-5.990E-06,-0.004
-5.980E-06,-0.008
-5.970E-06,-0.004
-5.960E-06,0.024
-5.950E-06,0.020
-5.940E-06,0.020
-5.930E-06,0.016
-5.920E-06,0.024
-5.910E-06,0.008
-5.900E-06,0.008
-5.890E-06,-0.012
-5.880E-06,-0.024
-5.870E-06,-0.008
-5.860E-06,0.000
-5.850E-06,-0.004
-5.840E-06,0.012
-5.830E-06,0.012
-5.820E-06,0.008
-5.810E-06,0.008
-5.800E-06,-0.008
-5.790E-06,-0.004
-5.780E-06,-0.004
-5.770E-06,0.008
-5.760E-06,0.008
-5.750E-06,0.020
-5.740E-06,0.024
-5.730E-06,0.024
-5.720E-06,0.012
-5.710E-06,0.012
-5.700E-06,0.008
-5.690E-06,0.012
-5.680E-06,0.016
-5.670E-06,0.028
-5.660E-06,0.036
-5.650E-06,0.020
-5.640E-06,0.000
-5.630E-06,-0.008
-5.620E-06,-0.008
-5.610E-06,0.008
-5.600E-06,0.016
-5.590E-06,0.004
-5.580E-06,-0.012
-5.570E-06,-0.024
-5.560E-06,-0.004
-5.550E-06,0.016
-5.540E-06,0.036
-5.530E-06,0.036
-5.520E-06,0.016
-5.510E-06,0.000
-5.500E-06,-0.024
-5.490E-06,-0.012
-5.480E-06,0.000
-5.470E-06,0.020
-5.460E-06,0.044
-5.450E-06,0.036
-5.440E-06,0.032
-5.430E-06,0.004
-5.420E-06,-0.008
-5.410E-06,-0.012
-5.400E-06,-0.004
-5.390E-06,0.008
-5.380E-06,0.012
-5.370E-06,0.024
-5.360E-06,0.024
-5.350E-06,0.020
-5.340E-06,0.004
-5.330E-06,0.004
-5.320E-06,0.004
-5.310E-06,0.008
-5.300E-06,0.024
-5.290E-06,0.028
-5.280E-06,0.028
-5.270E-06,0.020
-5.260E-06,0.024
-5.250E-06,0.024
-5.240E-06,0.024
-5.230E-06,0.024
-5.220E-06,0.016
-5.210E-06,-0.008
-5.200E-06,-0.016
-5.190E-06,-0.024
-5.180E-06,-0.036
-5.170E-06,-0.032
-5.160E-06,-0.016
-5.150E-06,0.004
-5.140E-06,0.020
-5.130E-06,0.024
-5.120E-06,0.012
-5.110E-06,-0.004
-5.100E-06,-0.008
-5.090E-06,-0.016
-5.080E-06,-0.028
-5.070E-06,-0.016
-5.060E-06,-0.008
-5.050E-06,0.000
-5.040E-06,0.012
-5.030E-06,0.016
-5.020E-06,0.024
-5.010E-06,0.008
-5.000E-06,-0.012
-4.990E-06,-0.020
-4.980E-06,-0.008
-4.970E-06,-0.008
-4.960E-06,0.004
-4.950E-06,0.012
-4.940E-06,0.016
-4.930E-06,0.012
-4.920E-06,-0.004
-4.910E-06,-0.016
-4.900E-06,-0.024
-4.890E-06,-0.004
-4.880E-06,0.008
-4.870E-06,0.024
-4.860E-06,0.024
-4.850E-06,0.020
-4.840E-06,0.008
-4.830E-06,0.000
-4.820E-06,-0.004
-4.810E-06,-0.004
-4.800E-06,0.004
-4.790E-06,0.012
-4.780E-06,0.024
-4.770E-06,0.020
-4.760E-06,0.024
-4.750E-06,0.020
-4.740E-06,0.008
-4.730E-06,0.008
-4.720E-06,0.020
-4.710E-06,0.028
-4.700E-06,0.032
-4.690E-06,0.024
-4.680E-06,0.020
-4.670E-06,0.008
-4.660E-06,0.004
-4.650E-06,0.000
-4.640E-06,0.016
-4.630E-06,0.024
-4.620E-06,0.032
-4.610E-06,0.032
-4.600E-06,0.028
-4.590E-06,0.040
-4.580E-06,0.040
-4.570E-06,0.036
-4.560E-06,0.008
-4.550E-06,-0.004
-4.540E-06,-0.036
-4.530E-06,-0.048
-4.520E-06,-0.036
-4.510E-06,-0.004
-4.500E-06,0.020
-4.490E-06,0.036
-4.480E-06,0.044
-4.470E-06,0.036
-4.460E-06,0.020
-4.450E-06,0.012
-4.440E-06,0.024
-4.430E-06,0.044
-4.420E-06,0.064
-4.410E-06,0.048
-4.400E-06,0.008
-4.390E-06,-0.044
-4.380E-06,-0.072
-4.370E-06,-0.088
-4.360E-06,-0.060
-4.350E-06,-0.008
-4.340E-06,0.028
-4.330E-06,0.060
-4.320E-06,0.048
-4.310E-06,0.004
-4.300E-06,-0.020
-4.290E-06,-0.028
-4.280E-06,-0.012
-4.270E-06,0.020
-4.260E-06,0.040
-4.250E-06,0.048
-4.240E-06,0.032
-4.230E-06,0.004
-4.220E-06,-0.024
-4.210E-06,-0.040
-4.200E-06,-0.020
-4.190E-06,0.012
-4.180E-06,0.024
-4.170E-06,0.040
-4.160E-06,0.048
-4.150E-06,0.048
-4.140E-06,0.024
-4.130E-06,0.032
-4.120E-06,0.032
-4.110E-06,0.044
-4.100E-06,0.048
-4.090E-06,0.052
-4.080E-06,0.024
-4.070E-06,-0.020
-4.060E-06,-0.092
-4.050E-06,-0.120
-4.040E-06,-0.076
-4.030E-06,-0.008
-4.020E-06,0.048
-4.010E-06,0.076
-4.000E-06,0.060
-3.990E-06,0.004
-3.980E-06,-0.052
-3.970E-06,-0.080
-3.960E-06,-0.052
-3.950E-06,0.012
-3.940E-06,0.060
-3.930E-06,0.076
-3.920E-06,0.048
-3.910E-06,0.008
-3.900E-06,-0.036
-3.890E-06,-0.036
-3.880E-06,-0.008
-3.870E-06,0.024
-3.860E-06,0.064
-3.850E-06,0.060
-3.840E-06,0.028
-3.830E-06,0.008
-3.820E-06,-0.004
-3.810E-06,-0.020
-3.800E-06,-0.032
-3.790E-06,-0.072
-3.780E-06,-0.132
-3.770E-06,-0.260
-3.760E-06,-0.268
-3.750E-06,-0.076
-3.740E-06,0.092
-3.730E-06,0.180
-3.720E-06,0.200
-3.710E-06,0.080
-3.700E-06,-0.088
-3.690E-06,-0.208
-3.680E-06,-0.200
-3.670E-06,-0.104
-3.660E-06,0.100
-3.650E-06,0.180
-3.640E-06,0.156
-3.630E-06,0.072
-3.620E-06,-0.056
-3.610E-06,-0.152
-3.600E-06,-0.128
-3.590E-06,-0.052
-3.580E-06,0.036
-3.570E-06,0.108
-3.560E-06,0.104
-3.550E-06,0.044
-3.540E-06,-0.024
-3.530E-06,-0.068
-3.520E-06,-0.076
-3.510E-06,-0.032
-3.500E-06,0.016
-3.490E-06,0.048
-3.480E-06,0.060
-3.470E-06,0.036
-3.460E-06,0.008
-3.450E-06,-0.024
-3.440E-06,-0.028
-3.430E-06,-0.028
-3.420E-06,0.000
-3.410E-06,0.020
-3.400E-06,0.040
-3.390E-06,0.040
-3.380E-06,0.024
-3.370E-06,0.004
-3.360E-06,-0.012
-3.350E-06,-0.024
-3.340E-06,-0.008
-3.330E-06,0.008
-3.320E-06,0.028
-3.310E-06,0.036
-3.300E-06,0.024
-3.290E-06,0.008
-3.280E-06,-0.004
-3.270E-06,0.000
-3.260E-06,0.004
-3.250E-06,0.024
-3.240E-06,0.036
-3.230E-06,0.048
-3.220E-06,0.040
-3.210E-06,0.032
-3.200E-06,0.040
-3.190E-06,0.044
-3.180E-06,0.052
-3.170E-06,0.068
-3.160E-06,0.072
-3.150E-06,0.044
-3.140E-06,0.008
-3.130E-06,-0.060
-3.120E-06,-0.108
-3.110E-06,-0.088
-3.100E-06,-0.032
-3.090E-06,0.028
-3.080E-06,0.092
-3.070E-06,0.100
-3.060E-06,0.048
-3.050E-06,-0.004
-3.040E-06,-0.068
-3.030E-06,-0.084
-3.020E-06,-0.048
-3.010E-06,0.008
-3.000E-06,0.048
-2.990E-06,0.044
-2.980E-06,0.048
-2.970E-06,-0.008
-2.960E-06,-0.032
-2.950E-06,-0.040
-2.940E-06,-0.028
-2.930E-06,0.024
-2.920E-06,0.056
-2.910E-06,0.092
-2.900E-06,0.064
-2.890E-06,0.036
-2.880E-06,-0.008
-2.870E-06,-0.040
-2.860E-06,-0.020
-2.850E-06,0.008
-2.840E-06,0.048
-2.830E-06,0.088
-2.820E-06,0.092
-2.810E-06,0.068
-2.800E-06,0.028
-2.790E-06,-0.036
-2.780E-06,-0.124
-2.770E-06,-0.128
-2.760E-06,-0.120
-2.750E-06,-0.076
-2.740E-06,-0.024
-2.730E-06,0.012
-2.720E-06,0.032
-2.710E-06,0.032
-2.700E-06,0.020
-2.690E-06,0.000
-2.680E-06,-0.020
-2.670E-06,-0.040
-2.660E-06,-0.040
-2.650E-06,-0.016
-2.640E-06,0.012
-2.630E-06,0.020
-2.620E-06,0.028
-2.610E-06,0.028
-2.600E-06,0.000
-2.590E-06,-0.024
-2.580E-06,-0.028
-2.570E-06,-0.016
-2.560E-06,0.012
-2.550E-06,0.032
-2.540E-06,0.052
-2.530E-06,0.040
-2.520E-06,0.012
-2.510E-06,-0.004
-2.500E-06,-0.008
-2.490E-06,0.000
-2.480E-06,0.040
-2.470E-06,0.072
-2.460E-06,0.088
-2.450E-06,0.076
-2.440E-06,0.052
-2.430E-06,0.024
-2.420E-06,0.004
-2.410E-06,0.000
-2.400E-06,0.016
-2.390E-06,0.036
-2.380E-06,0.056
-2.370E-06,0.064
-2.360E-06,0.044
-2.350E-06,0.008
-2.340E-06,-0.024
-2.330E-06,-0.040
-2.320E-06,-0.032
-2.310E-06,0.000
-2.300E-06,0.036
-2.290E-06,0.072
-2.280E-06,0.080
-2.270E-06,0.060
-2.260E-06,0.036
-2.250E-06,0.028
-2.240E-06,0.048
-2.230E-06,0.084
-2.220E-06,0.120
-2.210E-06,0.128
-2.200E-06,0.120
-2.190E-06,0.104
-2.180E-06,0.080
-2.170E-06,0.060
-2.160E-06,0.060
-2.150E-06,0.060
-2.140E-06,0.044
-2.130E-06,0.004
-2.120E-06,-0.032
-2.110E-06,-0.036
-2.100E-06,-0.020
-2.090E-06,0.028
-2.080E-06,0.068
-2.070E-06,0.080
-2.060E-06,0.068
-2.050E-06,0.024
-2.040E-06,0.000
-2.030E-06,-0.004
-2.020E-06,0.028
-2.010E-06,0.060
-2.000E-06,0.100
-1.990E-06,0.084
-1.980E-06,0.032
-1.970E-06,-0.036
-1.960E-06,-0.124
-1.950E-06,-0.248
-1.940E-06,-0.364
-1.930E-06,-0.364
-1.920E-06,-0.272
-1.910E-06,-0.104
-1.900E-06,0.072
-1.890E-06,0.204
-1.880E-06,0.228
-1.870E-06,0.132
-1.860E-06,-0.008
-1.850E-06,-0.136
-1.840E-06,-0.132
-1.830E-06,-0.044
-1.820E-06,0.084
-1.810E-06,0.136
-1.800E-06,0.148
-1.790E-06,0.084
-1.780E-06,-0.020
-1.770E-06,-0.104
-1.760E-06,-0.092
-1.750E-06,-0.012
-1.740E-06,0.092
-1.730E-06,0.204
-1.720E-06,0.244
-1.710E-06,0.208
-1.700E-06,0.096
-1.690E-06,-0.012
-1.680E-06,-0.124
-1.670E-06,-0.184
-1.660E-06,-0.168
-1.650E-06,-0.096
-1.640E-06,-0.004
-1.630E-06,0.072
-1.620E-06,0.072
-1.610E-06,0.032
-1.600E-06,-0.032
-1.590E-06,-0.088
-1.580E-06,-0.092
-1.570E-06,-0.024
-1.560E-06,0.056
-1.550E-06,0.140
-1.540E-06,0.176
-1.530E-06,0.120
-1.520E-06,0.040
-1.510E-06,-0.056
-1.500E-06,-0.132
-1.490E-06,-0.172
-1.480E-06,-0.128
-1.470E-06,-0.052
-1.460E-06,0.012
-1.450E-06,0.056
-1.440E-06,0.036
-1.430E-06,0.004
-1.420E-06,-0.036
-1.410E-06,-0.056
-1.400E-06,-0.020
-1.390E-06,0.028
-1.380E-06,0.076
-1.370E-06,0.136
-1.360E-06,0.152
-1.350E-06,0.144
-1.340E-06,0.104
-1.330E-06,0.056
-1.320E-06,0.024
-1.310E-06,-0.004
-1.300E-06,-0.024
-1.290E-06,-0.056
-1.280E-06,-0.060
-1.270E-06,-0.060
-1.260E-06,-0.068
-1.250E-06,-0.076
-1.240E-06,-0.084
-1.230E-06,-0.084
-1.220E-06,-0.052
-1.210E-06,-0.020
-1.200E-06,0.008
-1.190E-06,0.012
-1.180E-06,0.004
-1.170E-06,-0.016
-1.160E-06,-0.020
-1.150E-06,-0.008
-1.140E-06,0.004
-1.130E-06,0.008
-1.120E-06,0.000
-1.110E-06,-0.020
-1.100E-06,-0.064
-1.090E-06,-0.060
-1.080E-06,-0.028
-1.070E-06,0.008
-1.060E-06,0.036
-1.050E-06,0.060
-1.040E-06,0.056
-1.030E-06,0.064
-1.020E-06,0.088
-1.010E-06,0.124
-1.000E-06,0.156
-9.900E-07,0.180
-9.800E-07,0.180
-9.700E-07,0.152
-9.600E-07,0.128
-9.500E-07,0.112
-9.400E-07,0.104
-9.300E-07,0.104
-9.200E-07,0.116
-9.100E-07,0.100
-9.000E-07,0.076
-8.900E-07,0.060
-8.800E-07,0.036
-8.700E-07,0.004
-8.600E-07,-0.012
-8.500E-07,-0.020
-8.400E-07,-0.052
-8.300E-07,-0.104
-8.200E-07,-0.172
-8.100E-07,-0.204
-8.000E-07,-0.184
-7.900E-07,-0.136
-7.800E-07,-0.080
-7.700E-07,-0.036
-7.600E-07,0.012
-7.500E-07,0.000
-7.400E-07,-0.052
-7.300E-07,-0.108
-7.200E-07,-0.100
-7.100E-07,-0.092
-7.000E-07,-0.036
-6.900E-07,0.008
-6.800E-07,0.036
-6.700E-07,0.032
-6.600E-07,0.020
-6.500E-07,-0.004
-6.400E-07,0.000
-6.300E-07,0.016
-6.200E-07,0.044
-6.100E-07,0.064
-6.000E-07,0.088
-5.900E-07,0.096
-5.800E-07,0.076
-5.700E-07,0.064
-5.600E-07,0.052
-5.500E-07,0.072
-5.400E-07,0.108
-5.300E-07,0.136
-5.200E-07,0.152
-5.100E-07,0.160
-5.000E-07,0.148
-4.900E-07,0.140
-4.800E-07,0.128
-4.700E-07,0.128
-4.600E-07,0.140
-4.500E-07,0.156
-4.400E-07,0.164
-4.300E-07,0.164
-4.200E-07,0.164
-4.100E-07,0.152
-4.000E-07,0.156
-3.900E-07,0.152
-3.800E-07,0.148
-3.700E-07,0.152
-3.600E-07,0.152
-3.500E-07,0.144
-3.400E-07,0.144
-3.300E-07,0.140
-3.200E-07,0.136
-3.100E-07,0.132
-3.000E-07,0.124
-2.900E-07,0.124
-2.800E-07,0.132
-2.700E-07,0.148
-2.600E-07,0.180
-2.500E-07,0.192
-2.400E-07,0.196
-2.300E-07,0.144
-2.200E-07,0.100
-2.100E-07,0.076
-2.000E-07,0.092
-1.900E-07,0.136
-1.800E-07,0.176
-1.700E-07,0.188
-1.600E-07,0.136
-1.500E-07,0.076
-1.400E-07,-0.032
-1.300E-07,-0.152
-1.200E-07,-0.240
-1.100E-07,-0.260
-1.000E-07,-0.228
-9.000E-08,-0.172
-8.000E-08,-0.100
-7.000E-08,-0.116
-6.000E-08,-0.136
-5.000E-08,-0.140
-4.000E-08,-0.140
-3.000E-08,-0.120
-2.000E-08,0.080
-1.000E-08,0.260
0.000E+00,0.320
1.000E-08,0.196
2.000E-08,-0.024
3.000E-08,-0.236
4.000E-08,-0.364
5.000E-08,-0.340
6.000E-08,-0.172
7.000E-08,0.044
8.000E-08,0.140
9.000E-08,0.068
1.000E-07,-0.068
1.100E-07,-0.240
1.200E-07,-0.308
1.300E-07,-0.312
1.400E-07,-0.188
1.500E-07,-0.032
1.600E-07,0.044
1.700E-07,0.008
1.800E-07,-0.084
1.900E-07,-0.164
2.000E-07,-0.176
2.100E-07,-0.104
2.200E-07,-0.008
2.300E-07,0.096
2.400E-07,0.176
2.500E-07,0.192
2.600E-07,0.128
2.700E-07,0.060
2.800E-07,0.008
2.900E-07,0.024
3.000E-07,0.084
3.100E-07,0.152
3.200E-07,0.212
3.300E-07,0.228
3.400E-07,0.220
3.500E-07,0.184
3.600E-07,0.144
3.700E-07,0.128
3.800E-07,0.144
3.900E-07,0.176
4.000E-07,0.196
4.100E-07,0.216
4.200E-07,0.208
4.300E-07,0.188
4.400E-07,0.160
4.500E-07,0.152
4.600E-07,0.156
4.700E-07,0.172
4.800E-07,0.192
4.900E-07,0.196
5.000E-07,0.196
5.100E-07,0.192
5.200E-07,0.168
5.300E-07,0.156
5.400E-07,0.156
5.500E-07,0.160
5.600E-07,0.176
5.700E-07,0.180
5.800E-07,0.176
5.900E-07,0.160
6.000E-07,0.144
6.100E-07,0.136
6.200E-07,0.124
6.300E-07,0.120
6.400E-07,0.120
6.500E-07,0.116
6.600E-07,0.092
6.700E-07,0.080
6.800E-07,0.076
6.900E-07,0.072
7.000E-07,0.088
7.100E-07,0.128
7.200E-07,0.140
7.300E-07,0.136
7.400E-07,0.096
7.500E-07,0.040
7.600E-07,-0.008
7.700E-07,-0.024
7.800E-07,0.000
7.900E-07,0.072
8.000E-07,0.184
8.100E-07,0.240
8.200E-07,0.180
8.300E-07,0.076
8.400E-07,-0.024
8.500E-07,-0.056
8.600E-07,0.000
8.700E-07,0.112
8.800E-07,0.220
8.900E-07,0.304
9.000E-07,0.308
9.100E-07,0.216
9.200E-07,0.104
9.300E-07,0.028
9.400E-07,0.036
9.500E-07,0.112
9.600E-07,0.188
9.700E-07,0.240
9.800E-07,0.252
9.900E-07,0.208
1.000E-06,0.132
1.010E-06,0.076
1.020E-06,0.068
1.030E-06,0.108
1.040E-06,0.172
1.050E-06,0.220
1.060E-06,0.236
1.070E-06,0.220
1.080E-06,0.164
1.090E-06,0.128
1.100E-06,0.108
1.110E-06,0.124
1.120E-06,0.160
1.130E-06,0.200
1.140E-06,0.224
1.150E-06,0.208
1.160E-06,0.180
1.170E-06,0.152
1.180E-06,0.136
1.190E-06,0.140
1.200E-06,0.160
1.210E-06,0.176
1.220E-06,0.192
1.230E-06,0.196
1.240E-06,0.188
1.250E-06,0.168
1.260E-06,0.160
1.270E-06,0.164
1.280E-06,0.168
1.290E-06,0.172
1.300E-06,0.184
1.310E-06,0.188
1.320E-06,0.172
1.330E-06,0.164
1.340E-06,0.156
1.350E-06,0.148
1.360E-06,0.148
1.370E-06,0.156
1.380E-06,0.164
1.390E-06,0.172
1.400E-06,0.168
1.410E-06,0.168
1.420E-06,0.160
1.430E-06,0.152
1.440E-06,0.156
1.450E-06,0.160
1.460E-06,0.164
1.470E-06,0.164
1.480E-06,0.156
1.490E-06,0.156
1.500E-06,0.156
1.510E-06,0.152
1.520E-06,0.152
1.530E-06,0.156
1.540E-06,0.152
1.550E-06,0.160
1.560E-06,0.152
1.570E-06,0.160
1.580E-06,0.156
1.590E-06,0.160
1.600E-06,0.160
1.610E-06,0.164
1.620E-06,0.160
1.630E-06,0.160
1.640E-06,0.160
1.650E-06,0.156
1.660E-06,0.152
1.670E-06,0.152
1.680E-06,0.152
1.690E-06,0.152
1.700E-06,0.156
1.710E-06,0.156
1.720E-06,0.152
1.730E-06,0.152
1.740E-06,0.152
1.750E-06,0.152
1.760E-06,0.152
1.770E-06,0.156
1.780E-06,0.156
1.790E-06,0.156
1.800E-06,0.152
1.810E-06,0.152
1.820E-06,0.148
1.830E-06,0.144
1.840E-06,0.148
1.850E-06,0.152
1.860E-06,0.148
1.870E-06,0.148
1.880E-06,0.148
1.890E-06,0.144
1.900E-06,0.144
1.910E-06,0.148
1.920E-06,0.148
1.930E-06,0.148
1.940E-06,0.148
1.950E-06,0.144
1.960E-06,0.144
1.970E-06,0.144
1.980E-06,0.144
1.990E-06,0.144
2.000E-06,0.144
2.010E-06,0.148
2.020E-06,0.144
2.030E-06,0.144
2.040E-06,0.144
2.050E-06,0.144
2.060E-06,0.144
2.070E-06,0.140
2.080E-06,0.144
2.090E-06,0.148
2.100E-06,0.144
2.110E-06,0.140
2.120E-06,0.144
2.130E-06,0.144
2.140E-06,0.144
2.150E-06,0.140
2.160E-06,0.144
2.170E-06,0.136
2.180E-06,0.140
2.190E-06,0.140
2.200E-06,0.140
2.210E-06,0.140
2.220E-06,0.140
2.230E-06,0.144
2.240E-06,0.144
2.250E-06,0.136
2.260E-06,0.136
2.270E-06,0.140
2.280E-06,0.136
2.290E-06,0.136
2.300E-06,0.140
2.310E-06,0.136
2.320E-06,0.136
2.330E-06,0.136
2.340E-06,0.140
2.350E-06,0.140
2.360E-06,0.136
2.370E-06,0.140
2.380E-06,0.136
2.390E-06,0.136
2.400E-06,0.136
2.410E-06,0.132
2.420E-06,0.132
2.430E-06,0.132
2.440E-06,0.136
2.450E-06,0.136
2.460E-06,0.132
2.470E-06,0.136
2.480E-06,0.136
2.490E-06,0.132
2.500E-06,0.128
2.510E-06,0.128
2.520E-06,0.132
2.530E-06,0.132
2.540E-06,0.132
2.550E-06,0.132
2.560E-06,0.132
2.570E-06,0.132
2.580E-06,0.132
2.590E-06,0.132
2.600E-06,0.132
2.610E-06,0.128
2.620E-06,0.132
2.630E-06,0.132
2.640E-06,0.132
2.650E-06,0.128
2.660E-06,0.124
2.670E-06,0.128
2.680E-06,0.128
2.690E-06,0.128
2.700E-06,0.128
2.710E-06,0.124
2.720E-06,0.124
2.730E-06,0.124
2.740E-06,0.124
2.750E-06,0.124
2.760E-06,0.124
2.770E-06,0.128
2.780E-06,0.128
2.790E-06,0.128
2.800E-06,0.128
2.810E-06,0.128
2.820E-06,0.128
2.830E-06,0.124
2.840E-06,0.128
2.850E-06,0.124
2.860E-06,0.128
2.870E-06,0.120
2.880E-06,0.124
2.890E-06,0.124
2.900E-06,0.124
2.910E-06,0.124
2.920E-06,0.124
2.930E-06,0.124
2.940E-06,0.124
2.950E-06,0.124
2.960E-06,0.124
2.970E-06,0.124
2.980E-06,0.124
2.990E-06,0.116
3.000E-06,0.120
3.010E-06,0.120
3.020E-06,0.124
3.030E-06,0.120
3.040E-06,0.124
3.050E-06,0.120
3.060E-06,0.120
3.070E-06,0.116
3.080E-06,0.116
3.090E-06,0.116
3.100E-06,0.120
3.110E-06,0.116
3.120E-06,0.112
3.130E-06,0.112
3.140E-06,0.112
3.150E-06,0.108
3.160E-06,0.112
3.170E-06,0.112
3.180E-06,0.112
3.190E-06,0.112
3.200E-06,0.112
3.210E-06,0.108
3.220E-06,0.108
3.230E-06,0.108
3.240E-06,0.112
3.250E-06,0.108
3.260E-06,0.104
3.270E-06,0.108
3.280E-06,0.108
3.290E-06,0.112
3.300E-06,0.104
3.310E-06,0.112
3.320E-06,0.112
3.330E-06,0.104
3.340E-06,0.104
3.350E-06,0.108
