mediciones/5-22/-10/WaveData4976.csv

#timebase=2000000(ps)
,#voltbase=100000(mv/100)
#size=4000
-8.400E-06,0.004
-8.390E-06,0.004
-8.380E-06,0.004
-8.370E-06,0.000
-8.360E-06,0.004
-8.350E-06,0.000
-8.340E-06,0.004
-8.330E-06,0.004
-8.320E-06,0.000
-8.310E-06,0.004
-8.300E-06,0.000
-8.290E-06,0.004
-8.280E-06,0.000
-8.270E-06,0.004
-8.260E-06,0.000
-8.250E-06,0.004
-8.240E-06,-0.004
-8.230E-06,0.004
-8.220E-06,0.000
-8.210E-06,0.004
-8.200E-06,0.000
-8.190E-06,0.004
-8.180E-06,0.004
-8.170E-06,0.004
-8.160E-06,0.004
-8.150E-06,0.004
-8.140E-06,0.000
-8.130E-06,0.000
-8.120E-06,0.004
-8.110E-06,0.004
-8.100E-06,0.000
-8.090E-06,0.004
-8.080E-06,0.004
-8.070E-06,0.004
-8.060E-06,0.004
-8.050E-06,0.004
-8.040E-06,0.004
-8.030E-06,0.004
-8.020E-06,0.000
-8.010E-06,0.000
-8.000E-06,0.004
-7.990E-06,0.004
-7.980E-06,0.000
-7.970E-06,0.004
-7.960E-06,0.004
-7.950E-06,0.004
-7.940E-06,-0.004
-7.930E-06,0.004
-7.920E-06,0.004
-7.910E-06,0.004
-7.900E-06,0.004
-7.890E-06,0.004
-7.880E-06,-0.004
-7.870E-06,0.004
-7.860E-06,0.000
-7.850E-06,0.000
-7.840E-06,0.004
-7.830E-06,0.000
-7.820E-06,0.000
-7.810E-06,0.004
-7.800E-06,0.000
-7.790E-06,-0.004
-7.780E-06,0.004
-7.770E-06,0.000
-7.760E-06,-0.004
-7.750E-06,0.004
-7.740E-06,0.008
-7.730E-06,0.000
-7.720E-06,0.004
-7.710E-06,0.004
-7.700E-06,0.000
-7.690E-06,0.000
-7.680E-06,0.000
-7.670E-06,0.004
-7.660E-06,0.004
-7.650E-06,0.004
-7.640E-06,0.004
-7.630E-06,0.000
-7.620E-06,0.004
-7.610E-06,0.000
-7.600E-06,0.004
-7.590E-06,0.000
-7.580E-06,0.000
-7.570E-06,0.004
-7.560E-06,0.000
-7.550E-06,0.004
-7.540E-06,0.000
-7.530E-06,0.000
-7.520E-06,0.004
-7.510E-06,0.004
-7.500E-06,0.004
-7.490E-06,0.000
-7.480E-06,0.000
-7.470E-06,0.004
-7.460E-06,0.000
-7.450E-06,0.000
-7.440E-06,0.000
-7.430E-06,0.004
-7.420E-06,0.004
-7.410E-06,0.008
-7.400E-06,0.000
-7.390E-06,0.004
-7.380E-06,0.004
-7.370E-06,0.004
-7.360E-06,0.004
-7.350E-06,0.004
-7.340E-06,-0.004
-7.330E-06,0.000
-7.320E-06,0.000
-7.310E-06,0.008
-7.300E-06,0.008
-7.290E-06,0.000
-7.280E-06,0.004
-7.270E-06,0.004
-7.260E-06,0.004
-7.250E-06,0.000
-7.240E-06,0.000
-7.230E-06,0.000
-7.220E-06,0.004
-7.210E-06,0.004
-7.200E-06,0.004
-7.190E-06,0.000
-7.180E-06,0.004
-7.170E-06,0.004
-7.160E-06,0.004
-7.150E-06,0.004
-7.140E-06,0.004
-7.130E-06,0.000
-7.120E-06,0.000
-7.110E-06,0.004
-7.100E-06,0.000
-7.090E-06,0.004
-7.080E-06,0.000
-7.070E-06,0.004
-7.060E-06,0.004
-7.050E-06,0.004
-7.040E-06,0.004
-7.030E-06,0.004
-7.020E-06,-0.004
-7.010E-06,0.004
-7.000E-06,0.004
-6.990E-06,0.004
-6.980E-06,0.000
-6.970E-06,0.004
-6.960E-06,0.004
-6.950E-06,0.008
-6.940E-06,0.000
-6.930E-06,-0.004
-6.920E-06,0.004
-6.910E-06,0.008
-6.900E-06,0.000
-6.890E-06,0.004
-6.880E-06,0.004
-6.870E-06,0.004
-6.860E-06,0.000
-6.850E-06,0.004
-6.840E-06,0.004
-6.830E-06,0.004
-6.820E-06,0.004
-6.810E-06,0.004
-6.800E-06,0.004
-6.790E-06,0.008
-6.780E-06,0.000
-6.770E-06,-0.004
-6.760E-06,0.000
-6.750E-06,0.004
-6.740E-06,0.004
-6.730E-06,0.004
-6.720E-06,0.004
-6.710E-06,0.008
-6.700E-06,0.004
-6.690E-06,0.008
-6.680E-06,-0.004
-6.670E-06,0.004
-6.660E-06,0.004
-6.650E-06,0.004
-6.640E-06,0.000
-6.630E-06,0.000
-6.620E-06,0.004
-6.610E-06,0.004
-6.600E-06,0.004
-6.590E-06,0.004
-6.580E-06,0.004
-6.570E-06,0.008
-6.560E-06,0.008
-6.550E-06,0.004
-6.540E-06,0.008
-6.530E-06,0.000
-6.520E-06,0.000
-6.510E-06,0.004
-6.500E-06,0.008
-6.490E-06,0.008
-6.480E-06,0.000
-6.470E-06,-0.004
-6.460E-06,0.004
-6.450E-06,0.004
-6.440E-06,0.008
-6.430E-06,0.000
-6.420E-06,0.000
-6.410E-06,0.004
-6.400E-06,0.000
-6.390E-06,0.000
-6.380E-06,0.000
-6.370E-06,0.000
-6.360E-06,0.000
-6.350E-06,0.004
-6.340E-06,0.004
-6.330E-06,0.000
-6.320E-06,0.000
-6.310E-06,0.004
-6.300E-06,0.000
-6.290E-06,0.004
-6.280E-06,0.004
-6.270E-06,0.008
-6.260E-06,0.008
-6.250E-06,0.008
-6.240E-06,0.000
-6.230E-06,0.000
-6.220E-06,0.000
-6.210E-06,0.000
-6.200E-06,0.000
-6.190E-06,0.004
-6.180E-06,0.000
-6.170E-06,-0.004
-6.160E-06,0.004
-6.150E-06,0.000
-6.140E-06,0.004
-6.130E-06,0.008
-6.120E-06,0.008
-6.110E-06,0.008
-6.100E-06,0.004
-6.090E-06,0.008
-6.080E-06,0.000
-6.070E-06,0.000
-6.060E-06,0.004
-6.050E-06,0.000
-6.040E-06,0.004
-6.030E-06,0.004
-6.020E-06,0.000
-6.010E-06,0.004
-6.000E-06,0.004
-5.990E-06,0.004
-5.980E-06,0.004
-5.970E-06,0.000
-5.960E-06,0.004
-5.950E-06,0.000
-5.940E-06,0.004
-5.930E-06,0.004
-5.920E-06,0.000
-5.910E-06,0.000
-5.900E-06,0.004
-5.890E-06,-0.004
-5.880E-06,0.000
-5.870E-06,0.000
-5.860E-06,0.004
-5.850E-06,0.008
-5.840E-06,0.004
-5.830E-06,0.008
-5.820E-06,0.004
-5.810E-06,0.000
-5.800E-06,-0.004
-5.790E-06,0.000
-5.780E-06,0.008
-5.770E-06,0.008
-5.760E-06,0.008
-5.750E-06,0.008
-5.740E-06,0.008
-5.730E-06,0.004
-5.720E-06,0.004
-5.710E-06,0.004
-5.700E-06,0.000
-5.690E-06,0.004
-5.680E-06,0.008
-5.670E-06,0.004
-5.660E-06,0.004
-5.650E-06,0.000
-5.640E-06,0.000
-5.630E-06,0.000
-5.620E-06,0.004
-5.610E-06,0.004
-5.600E-06,0.004
-5.590E-06,0.008
-5.580E-06,0.004
-5.570E-06,-0.004
-5.560E-06,0.000
-5.550E-06,0.004
-5.540E-06,0.008
-5.530E-06,0.000
-5.520E-06,0.000
-5.510E-06,0.004
-5.500E-06,0.000
-5.490E-06,0.000
-5.480E-06,0.000
-5.470E-06,0.004
-5.460E-06,0.008
-5.450E-06,0.008
-5.440E-06,0.000
-5.430E-06,0.000
-5.420E-06,0.000
-5.410E-06,0.008
-5.400E-06,0.008
-5.390E-06,0.000
-5.380E-06,0.004
-5.370E-06,0.004
-5.360E-06,0.004
-5.350E-06,0.000
-5.340E-06,0.000
-5.330E-06,0.004
-5.320E-06,0.000
-5.310E-06,0.000
-5.300E-06,0.004
-5.290E-06,0.000
-5.280E-06,0.004
-5.270E-06,0.004
-5.260E-06,0.004
-5.250E-06,0.004
-5.240E-06,0.004
-5.230E-06,0.004
-5.220E-06,0.004
-5.210E-06,0.004
-5.200E-06,0.004
-5.190E-06,0.004
-5.180E-06,0.004
-5.170E-06,0.004
-5.160E-06,0.008
-5.150E-06,0.008
-5.140E-06,0.008
-5.130E-06,0.000
-5.120E-06,0.000
-5.110E-06,-0.004
-5.100E-06,0.000
-5.090E-06,0.000
-5.080E-06,0.004
-5.070E-06,0.008
-5.060E-06,0.008
-5.050E-06,0.008
-5.040E-06,-0.004
-5.030E-06,-0.004
-5.020E-06,0.000
-5.010E-06,-0.004
-5.000E-06,0.004
-4.990E-06,0.004
-4.980E-06,0.008
-4.970E-06,0.004
-4.960E-06,0.000
-4.950E-06,0.000
-4.940E-06,-0.004
-4.930E-06,0.004
-4.920E-06,0.004
-4.910E-06,0.004
-4.900E-06,0.000
-4.890E-06,0.000
-4.880E-06,0.000
-4.870E-06,-0.004
-4.860E-06,0.000
-4.850E-06,0.004
-4.840E-06,0.004
-4.830E-06,0.004
-4.820E-06,0.004
-4.810E-06,0.004
-4.800E-06,0.004
-4.790E-06,0.000
-4.780E-06,0.000
-4.770E-06,0.008
-4.760E-06,0.012
-4.750E-06,0.000
-4.740E-06,0.004
-4.730E-06,0.008
-4.720E-06,0.004
-4.710E-06,0.000
-4.700E-06,0.000
-4.690E-06,0.000
-4.680E-06,0.000
-4.670E-06,0.004
-4.660E-06,0.008
-4.650E-06,0.000
-4.640E-06,0.004
-4.630E-06,0.004
-4.620E-06,0.004
-4.610E-06,0.004
-4.600E-06,0.000
-4.590E-06,0.008
-4.580E-06,0.000
-4.570E-06,0.008
-4.560E-06,0.008
-4.550E-06,0.008
-4.540E-06,0.008
-4.530E-06,0.000
-4.520E-06,-0.004
-4.510E-06,0.004
-4.500E-06,0.012
-4.490E-06,0.012
-4.480E-06,0.012
-4.470E-06,0.012
-4.460E-06,-0.012
-4.450E-06,-0.016
-4.440E-06,-0.016
-4.430E-06,0.000
-4.420E-06,0.000
-4.410E-06,0.012
-4.400E-06,0.012
-4.390E-06,0.012
-4.380E-06,0.008
-4.370E-06,-0.008
-4.360E-06,-0.008
-4.350E-06,-0.008
-4.340E-06,-0.008
-4.330E-06,0.000
-4.320E-06,0.004
-4.310E-06,0.008
-4.300E-06,0.004
-4.290E-06,0.000
-4.280E-06,0.000
-4.270E-06,0.000
-4.260E-06,0.000
-4.250E-06,0.004
-4.240E-06,0.008
-4.230E-06,0.012
-4.220E-06,0.008
-4.210E-06,0.004
-4.200E-06,-0.004
-4.190E-06,-0.004
-4.180E-06,-0.004
-4.170E-06,0.012
-4.160E-06,0.004
-4.150E-06,0.004
-4.140E-06,0.008
-4.130E-06,0.004
-4.120E-06,-0.004
-4.110E-06,-0.004
-4.100E-06,0.000
-4.090E-06,0.004
-4.080E-06,0.008
-4.070E-06,0.008
-4.060E-06,0.008
-4.050E-06,0.000
-4.040E-06,-0.004
-4.030E-06,0.000
-4.020E-06,0.000
-4.010E-06,0.004
-4.000E-06,0.004
-3.990E-06,0.008
-3.980E-06,0.004
-3.970E-06,0.000
-3.960E-06,0.000
-3.950E-06,0.000
-3.940E-06,0.000
-3.930E-06,0.004
-3.920E-06,0.004
-3.910E-06,0.008
-3.900E-06,0.004
-3.890E-06,0.004
-3.880E-06,0.000
-3.870E-06,0.000
-3.860E-06,0.008
-3.850E-06,0.004
-3.840E-06,0.008
-3.830E-06,0.008
-3.820E-06,0.004
-3.810E-06,0.004
-3.800E-06,0.004
-3.790E-06,0.008
-3.780E-06,0.004
-3.770E-06,0.008
-3.760E-06,0.004
-3.750E-06,0.004
-3.740E-06,0.008
-3.730E-06,0.012
-3.720E-06,0.012
-3.710E-06,0.012
-3.700E-06,0.000
-3.690E-06,0.000
-3.680E-06,0.000
-3.670E-06,0.004
-3.660E-06,0.012
-3.650E-06,0.016
-3.640E-06,0.012
-3.630E-06,0.012
-3.620E-06,0.004
-3.610E-06,-0.004
-3.600E-06,-0.008
-3.590E-06,0.004
-3.580E-06,0.016
-3.570E-06,0.016
-3.560E-06,0.008
-3.550E-06,-0.004
-3.540E-06,-0.008
-3.530E-06,-0.004
-3.520E-06,0.000
-3.510E-06,0.000
-3.500E-06,0.008
-3.490E-06,0.012
-3.480E-06,0.004
-3.470E-06,-0.004
-3.460E-06,-0.008
-3.450E-06,-0.008
-3.440E-06,0.000
-3.430E-06,0.004
-3.420E-06,0.012
-3.410E-06,0.012
-3.400E-06,0.012
-3.390E-06,0.004
-3.380E-06,-0.004
-3.370E-06,-0.004
-3.360E-06,-0.004
-3.350E-06,0.000
-3.340E-06,0.008
-3.330E-06,0.008
-3.320E-06,0.004
-3.310E-06,0.000
-3.300E-06,0.000
-3.290E-06,-0.004
-3.280E-06,0.000
-3.270E-06,0.004
-3.260E-06,0.004
-3.250E-06,0.004
-3.240E-06,0.000
-3.230E-06,0.000
-3.220E-06,-0.008
-3.210E-06,-0.012
-3.200E-06,-0.008
-3.190E-06,-0.004
-3.180E-06,0.008
-3.170E-06,0.016
-3.160E-06,0.012
-3.150E-06,0.008
-3.140E-06,0.008
-3.130E-06,0.008
-3.120E-06,0.008
-3.110E-06,0.012
-3.100E-06,0.020
-3.090E-06,0.012
-3.080E-06,0.004
-3.070E-06,0.000
-3.060E-06,0.000
-3.050E-06,0.004
-3.040E-06,0.008
-3.030E-06,0.012
-3.020E-06,0.008
-3.010E-06,0.000
-3.000E-06,-0.008
-2.990E-06,-0.004
-2.980E-06,0.004
-2.970E-06,0.012
-2.960E-06,0.024
-2.950E-06,0.012
-2.940E-06,0.004
-2.930E-06,-0.008
-2.920E-06,-0.008
-2.910E-06,0.000
-2.900E-06,0.012
-2.890E-06,0.028
-2.880E-06,0.028
-2.870E-06,0.024
-2.860E-06,0.000
-2.850E-06,-0.004
-2.840E-06,0.000
-2.830E-06,0.004
-2.820E-06,0.020
-2.810E-06,0.024
-2.800E-06,0.012
-2.790E-06,-0.004
-2.780E-06,0.000
-2.770E-06,-0.004
-2.760E-06,0.004
-2.750E-06,0.020
-2.740E-06,0.028
-2.730E-06,0.024
-2.720E-06,0.016
-2.710E-06,0.008
-2.700E-06,0.008
-2.690E-06,0.012
-2.680E-06,0.012
-2.670E-06,0.012
-2.660E-06,0.000
-2.650E-06,0.012
-2.640E-06,0.008
-2.630E-06,0.024
-2.620E-06,0.028
-2.610E-06,0.032
-2.600E-06,0.032
-2.590E-06,0.012
-2.580E-06,0.004
-2.570E-06,0.012
-2.560E-06,0.024
-2.550E-06,0.024
-2.540E-06,0.032
-2.530E-06,0.020
-2.520E-06,0.028
-2.510E-06,0.032
-2.500E-06,0.004
-2.490E-06,-0.024
-2.480E-06,-0.052
-2.470E-06,-0.060
-2.460E-06,-0.048
-2.450E-06,-0.016
-2.440E-06,0.008
-2.430E-06,0.028
-2.420E-06,0.024
-2.410E-06,0.004
-2.400E-06,-0.008
-2.390E-06,-0.020
-2.380E-06,-0.008
-2.370E-06,0.012
-2.360E-06,0.040
-2.350E-06,0.056
-2.340E-06,0.024
-2.330E-06,0.000
-2.320E-06,-0.036
-2.310E-06,-0.032
-2.300E-06,-0.016
-2.290E-06,0.028
-2.280E-06,0.040
-2.270E-06,0.028
-2.260E-06,0.012
-2.250E-06,-0.016
-2.240E-06,-0.032
-2.230E-06,-0.040
-2.220E-06,-0.012
-2.210E-06,0.016
-2.200E-06,0.044
-2.190E-06,0.040
-2.180E-06,0.020
-2.170E-06,-0.004
-2.160E-06,-0.028
-2.150E-06,-0.024
-2.140E-06,-0.008
-2.130E-06,0.012
-2.120E-06,0.016
-2.110E-06,0.012
-2.100E-06,0.008
-2.090E-06,-0.008
-2.080E-06,-0.024
-2.070E-06,-0.016
-2.060E-06,-0.004
-2.050E-06,0.016
-2.040E-06,0.024
-2.030E-06,0.032
-2.020E-06,0.032
-2.010E-06,0.012
-2.000E-06,0.004
-1.990E-06,0.004
-1.980E-06,0.008
-1.970E-06,0.028
-1.960E-06,0.036
-1.950E-06,0.040
-1.940E-06,0.040
-1.930E-06,0.040
-1.920E-06,0.024
-1.910E-06,0.024
-1.900E-06,0.032
-1.890E-06,0.032
-1.880E-06,0.048
-1.870E-06,0.048
-1.860E-06,0.044
-1.850E-06,0.036
-1.840E-06,0.012
-1.830E-06,-0.012
-1.820E-06,-0.036
-1.810E-06,-0.040
-1.800E-06,-0.060
-1.790E-06,-0.056
-1.780E-06,-0.036
-1.770E-06,-0.016
-1.760E-06,-0.020
-1.750E-06,-0.012
-1.740E-06,-0.012
-1.730E-06,0.004
-1.720E-06,0.016
-1.710E-06,0.028
-1.700E-06,0.012
-1.690E-06,0.004
-1.680E-06,-0.008
-1.670E-06,-0.028
-1.660E-06,-0.028
-1.650E-06,-0.024
-1.640E-06,0.000
-1.630E-06,0.016
-1.620E-06,0.040
-1.610E-06,0.016
-1.600E-06,-0.020
-1.590E-06,-0.020
-1.580E-06,-0.020
-1.570E-06,-0.004
-1.560E-06,-0.020
-1.550E-06,0.004
-1.540E-06,0.004
-1.530E-06,0.008
-1.520E-06,0.008
-1.510E-06,-0.012
-1.500E-06,-0.004
-1.490E-06,0.008
-1.480E-06,0.012
-1.470E-06,0.012
-1.460E-06,0.028
-1.450E-06,0.028
-1.440E-06,0.016
-1.430E-06,0.000
-1.420E-06,-0.016
-1.410E-06,-0.032
-1.400E-06,-0.004
-1.390E-06,0.012
-1.380E-06,0.028
-1.370E-06,0.028
-1.360E-06,0.012
-1.350E-06,-0.012
-1.340E-06,-0.028
-1.330E-06,-0.024
-1.320E-06,-0.008
-1.310E-06,0.020
-1.300E-06,0.036
-1.290E-06,0.032
-1.280E-06,0.024
-1.270E-06,0.008
-1.260E-06,-0.004
-1.250E-06,0.004
-1.240E-06,0.016
-1.230E-06,0.020
-1.220E-06,0.032
-1.210E-06,0.032
-1.200E-06,0.020
-1.190E-06,0.004
-1.180E-06,0.000
-1.170E-06,0.000
-1.160E-06,0.016
-1.150E-06,0.028
-1.140E-06,0.036
-1.130E-06,0.032
-1.120E-06,0.016
-1.110E-06,0.000
-1.100E-06,0.000
-1.090E-06,0.008
-1.080E-06,0.024
-1.070E-06,0.032
-1.060E-06,0.032
-1.050E-06,0.028
-1.040E-06,0.008
-1.030E-06,0.008
-1.020E-06,0.024
-1.010E-06,0.032
-1.000E-06,0.044
-9.900E-07,0.052
-9.800E-07,0.040
-9.700E-07,0.028
-9.600E-07,0.020
-9.500E-07,0.020
-9.400E-07,0.024
-9.300E-07,0.040
-9.200E-07,0.040
-9.100E-07,0.052
-9.000E-07,0.024
-8.900E-07,0.004
-8.800E-07,-0.036
-8.700E-07,-0.100
-8.600E-07,-0.152
-8.500E-07,-0.172
-8.400E-07,-0.100
-8.300E-07,-0.028
-8.200E-07,0.044
-8.100E-07,0.036
-8.000E-07,-0.016
-7.900E-07,-0.064
-7.800E-07,-0.100
-7.700E-07,-0.056
-7.600E-07,-0.016
-7.500E-07,0.048
-7.400E-07,0.052
-7.300E-07,0.028
-7.200E-07,-0.008
-7.100E-07,-0.056
-7.000E-07,-0.064
-6.900E-07,-0.040
-6.800E-07,0.012
-6.700E-07,0.040
-6.600E-07,0.060
-6.500E-07,0.064
-6.400E-07,0.048
-6.300E-07,0.028
-6.200E-07,0.012
-6.100E-07,0.004
-6.000E-07,0.008
-5.900E-07,0.028
-5.800E-07,0.048
-5.700E-07,0.068
-5.600E-07,0.060
-5.500E-07,0.056
-5.400E-07,0.040
-5.300E-07,0.000
-5.200E-07,-0.020
-5.100E-07,-0.036
-5.000E-07,-0.044
-4.900E-07,-0.020
-4.800E-07,0.004
-4.700E-07,0.024
-4.600E-07,0.024
-4.500E-07,0.012
-4.400E-07,0.000
-4.300E-07,-0.020
-4.200E-07,-0.004
-4.100E-07,0.000
-4.000E-07,0.020
-3.900E-07,0.032
-3.800E-07,0.044
-3.700E-07,0.036
-3.600E-07,0.024
-3.500E-07,0.000
-3.400E-07,-0.008
-3.300E-07,-0.020
-3.200E-07,-0.008
-3.100E-07,0.000
-3.000E-07,0.016
-2.900E-07,0.032
-2.800E-07,0.028
-2.700E-07,0.024
-2.600E-07,0.016
-2.500E-07,0.012
-2.400E-07,0.000
-2.300E-07,0.000
-2.200E-07,0.008
-2.100E-07,0.028
-2.000E-07,0.040
-1.900E-07,0.052
-1.800E-07,0.052
-1.700E-07,0.032
-1.600E-07,0.020
-1.500E-07,0.004
-1.400E-07,0.000
-1.300E-07,-0.004
-1.200E-07,0.008
-1.100E-07,0.024
-1.000E-07,0.008
-9.000E-08,-0.008
-8.000E-08,-0.032
-7.000E-08,-0.036
-6.000E-08,-0.100
-5.000E-08,-0.300
-4.000E-08,-0.456
-3.000E-08,-0.392
-2.000E-08,-0.188
-1.000E-08,0.184
0.000E+00,0.340
1.000E-08,0.440
2.000E-08,0.152
3.000E-08,-0.076
4.000E-08,-0.296
5.000E-08,-0.312
6.000E-08,-0.056
7.000E-08,0.168
8.000E-08,0.324
9.000E-08,0.344
1.000E-07,0.184
1.100E-07,-0.036
1.200E-07,-0.152
1.300E-07,-0.232
1.400E-07,-0.136
1.500E-07,0.044
1.600E-07,0.272
1.700E-07,0.280
1.800E-07,0.060
1.900E-07,-0.252
2.000E-07,-0.452
2.100E-07,-0.400
2.200E-07,-0.172
2.300E-07,0.156
2.400E-07,0.324
2.500E-07,0.288
2.600E-07,0.128
2.700E-07,-0.088
2.800E-07,-0.224
2.900E-07,-0.164
3.000E-07,-0.080
3.100E-07,0.060
3.200E-07,0.192
3.300E-07,0.164
3.400E-07,0.076
3.500E-07,-0.004
3.600E-07,-0.076
3.700E-07,-0.148
3.800E-07,-0.108
3.900E-07,-0.044
4.000E-07,0.036
4.100E-07,0.104
4.200E-07,0.108
4.300E-07,0.120
4.400E-07,0.056
4.500E-07,0.000
4.600E-07,-0.068
4.700E-07,-0.080
4.800E-07,-0.048
4.900E-07,0.056
5.000E-07,0.124
5.100E-07,0.132
5.200E-07,0.092
5.300E-07,0.008
5.400E-07,-0.068
5.500E-07,-0.104
5.600E-07,-0.052
5.700E-07,0.028
5.800E-07,0.092
5.900E-07,0.092
6.000E-07,0.060
6.100E-07,0.000
6.200E-07,-0.048
6.300E-07,-0.036
6.400E-07,0.000
6.500E-07,0.076
6.600E-07,0.120
6.700E-07,0.124
6.800E-07,0.100
6.900E-07,0.028
7.000E-07,-0.124
7.100E-07,-0.312
7.200E-07,-0.240
7.300E-07,-0.172
7.400E-07,-0.008
7.500E-07,0.136
7.600E-07,0.228
7.700E-07,0.168
7.800E-07,0.000
7.900E-07,-0.112
8.000E-07,-0.188
8.100E-07,-0.060
8.200E-07,0.052
8.300E-07,0.100
8.400E-07,0.188
8.500E-07,0.096
8.600E-07,-0.068
8.700E-07,-0.172
8.800E-07,-0.168
8.900E-07,-0.120
9.000E-07,0.024
9.100E-07,0.164
9.200E-07,0.156
9.300E-07,0.092
9.400E-07,-0.036
9.500E-07,-0.160
9.600E-07,-0.140
9.700E-07,-0.064
9.800E-07,0.004
9.900E-07,0.096
1.000E-06,0.132
1.010E-06,0.048
1.020E-06,-0.032
1.030E-06,-0.084
1.040E-06,-0.088
1.050E-06,-0.024
1.060E-06,0.056
1.070E-06,0.080
1.080E-06,0.076
1.090E-06,0.036
1.100E-06,-0.036
1.110E-06,-0.036
1.120E-06,-0.028
1.130E-06,0.000
1.140E-06,0.040
1.150E-06,0.060
1.160E-06,0.028
1.170E-06,0.004
1.180E-06,-0.004
1.190E-06,-0.040
1.200E-06,-0.032
1.210E-06,0.008
1.220E-06,0.028
1.230E-06,0.044
1.240E-06,0.044
1.250E-06,0.016
1.260E-06,-0.016
1.270E-06,-0.032
1.280E-06,-0.040
1.290E-06,-0.032
1.300E-06,0.008
1.310E-06,0.020
1.320E-06,0.028
1.330E-06,0.024
1.340E-06,0.008
1.350E-06,-0.012
1.360E-06,0.000
1.370E-06,0.000
1.380E-06,0.020
1.390E-06,0.036
1.400E-06,0.032
1.410E-06,0.028
1.420E-06,0.004
1.430E-06,-0.004
1.440E-06,-0.008
1.450E-06,0.000
1.460E-06,0.004
1.470E-06,0.012
1.480E-06,0.016
1.490E-06,0.024
1.500E-06,0.008
1.510E-06,0.004
1.520E-06,0.004
1.530E-06,-0.004
1.540E-06,-0.008
1.550E-06,0.000
1.560E-06,0.008
1.570E-06,0.020
1.580E-06,0.020
1.590E-06,0.012
1.600E-06,0.004
1.610E-06,0.000
1.620E-06,0.004
1.630E-06,0.004
1.640E-06,0.008
1.650E-06,0.008
1.660E-06,0.020
1.670E-06,0.024
1.680E-06,0.024
1.690E-06,0.016
1.700E-06,0.012
1.710E-06,0.004
1.720E-06,0.004
1.730E-06,0.004
1.740E-06,0.012
1.750E-06,0.028
1.760E-06,0.028
1.770E-06,0.036
1.780E-06,0.028
1.790E-06,0.016
1.800E-06,0.008
1.810E-06,0.008
1.820E-06,0.008
1.830E-06,0.020
1.840E-06,0.032
1.850E-06,0.032
1.860E-06,0.032
1.870E-06,0.032
1.880E-06,0.028
1.890E-06,0.016
1.900E-06,0.016
1.910E-06,0.024
1.920E-06,0.040
1.930E-06,0.048
1.940E-06,0.056
1.950E-06,0.056
1.960E-06,0.048
1.970E-06,0.036
1.980E-06,0.024
1.990E-06,0.012
2.000E-06,-0.100
2.010E-06,-0.324
2.020E-06,-0.452
2.030E-06,-0.364
2.040E-06,-0.048
2.050E-06,0.340
2.060E-06,0.544
2.070E-06,0.516
2.080E-06,0.224
2.090E-06,-0.172
2.100E-06,-0.436
2.110E-06,-0.432
2.120E-06,-0.144
2.130E-06,0.076
2.140E-06,0.256
2.150E-06,0.356
2.160E-06,0.256
2.170E-06,0.072
2.180E-06,-0.116
2.190E-06,-0.200
2.200E-06,-0.156
2.210E-06,-0.044
2.220E-06,0.048
2.230E-06,0.120
2.240E-06,0.120
2.250E-06,0.088
2.260E-06,0.008
2.270E-06,-0.136
2.280E-06,-0.372
2.290E-06,-0.276
2.300E-06,-0.172
2.310E-06,0.056
2.320E-06,0.140
2.330E-06,0.248
2.340E-06,0.156
2.350E-06,0.024
2.360E-06,-0.152
2.370E-06,-0.244
2.380E-06,-0.076
2.390E-06,0.064
2.400E-06,0.092
2.410E-06,0.080
2.420E-06,0.056
2.430E-06,0.032
2.440E-06,-0.004
2.450E-06,-0.044
2.460E-06,-0.040
2.470E-06,-0.072
2.480E-06,-0.052
2.490E-06,-0.048
2.500E-06,0.028
2.510E-06,0.088
2.520E-06,0.076
2.530E-06,0.036
2.540E-06,0.012
2.550E-06,-0.004
2.560E-06,-0.040
2.570E-06,-0.004
2.580E-06,0.040
2.590E-06,0.076
2.600E-06,0.076
2.610E-06,0.056
2.620E-06,-0.004
2.630E-06,-0.072
2.640E-06,-0.100
2.650E-06,-0.052
2.660E-06,0.000
2.670E-06,0.028
2.680E-06,0.060
2.690E-06,0.056
2.700E-06,-0.004
2.710E-06,-0.040
2.720E-06,-0.044
2.730E-06,-0.020
2.740E-06,0.040
2.750E-06,0.060
2.760E-06,0.044
2.770E-06,0.036
2.780E-06,0.000
2.790E-06,-0.040
2.800E-06,-0.020
2.810E-06,0.020
2.820E-06,0.044
2.830E-06,0.080
2.840E-06,0.072
2.850E-06,0.020
2.860E-06,-0.012
2.870E-06,-0.024
2.880E-06,-0.024
2.890E-06,0.016
2.900E-06,0.044
2.910E-06,0.064
2.920E-06,0.056
2.930E-06,0.032
2.940E-06,0.000
2.950E-06,-0.008
2.960E-06,0.000
2.970E-06,0.012
2.980E-06,0.024
2.990E-06,0.032
3.000E-06,0.024
3.010E-06,0.020
3.020E-06,0.012
3.030E-06,0.008
3.040E-06,0.008
3.050E-06,0.016
3.060E-06,0.036
3.070E-06,0.044
3.080E-06,0.044
3.090E-06,0.032
3.100E-06,0.024
3.110E-06,0.028
3.120E-06,0.040
3.130E-06,0.052
3.140E-06,0.064
3.150E-06,0.044
3.160E-06,0.032
3.170E-06,-0.036
3.180E-06,-0.100
3.190E-06,-0.160
3.200E-06,-0.164
3.210E-06,-0.128
3.220E-06,-0.056
3.230E-06,-0.008
3.240E-06,0.012
3.250E-06,0.028
3.260E-06,-0.016
3.270E-06,-0.048
3.280E-06,-0.076
3.290E-06,-0.056
3.300E-06,-0.024
3.310E-06,0.020
3.320E-06,0.056
3.330E-06,0.048
3.340E-06,0.032
3.350E-06,-0.012
3.360E-06,-0.040
