mediciones/mediciones removidas por ser diferentes/900V/48.7/WaveData55233.csv

#timebase=2000000(ps)
,#voltbase=100000(mv/100)
#size=4000
-4.200E-06,0.008
-4.190E-06,0.004
-4.180E-06,0.004
-4.170E-06,0.000
-4.160E-06,0.000
-4.150E-06,0.004
-4.140E-06,-0.004
-4.130E-06,0.004
-4.120E-06,0.004
-4.110E-06,0.004
-4.100E-06,0.004
-4.090E-06,-0.004
-4.080E-06,0.004
-4.070E-06,0.012
-4.060E-06,0.008
-4.050E-06,0.004
-4.040E-06,0.000
-4.030E-06,-0.004
-4.020E-06,-0.004
-4.010E-06,0.004
-4.000E-06,0.008
-3.990E-06,0.004
-3.980E-06,0.008
-3.970E-06,-0.008
-3.960E-06,0.000
-3.950E-06,0.000
-3.940E-06,0.000
-3.930E-06,0.004
-3.920E-06,0.004
-3.910E-06,0.008
-3.900E-06,0.008
-3.890E-06,0.000
-3.880E-06,-0.004
-3.870E-06,0.000
-3.860E-06,0.004
-3.850E-06,0.004
-3.840E-06,0.008
-3.830E-06,0.008
-3.820E-06,0.004
-3.810E-06,-0.004
-3.800E-06,0.000
-3.790E-06,-0.004
-3.780E-06,0.004
-3.770E-06,0.008
-3.760E-06,0.004
-3.750E-06,0.008
-3.740E-06,0.008
-3.730E-06,0.000
-3.720E-06,0.004
-3.710E-06,0.000
-3.700E-06,0.004
-3.690E-06,0.012
-3.680E-06,0.000
-3.670E-06,0.004
-3.660E-06,0.000
-3.650E-06,0.000
-3.640E-06,-0.004
-3.630E-06,0.008
-3.620E-06,0.004
-3.610E-06,0.020
-3.600E-06,0.012
-3.590E-06,0.004
-3.580E-06,-0.004
-3.570E-06,-0.004
-3.560E-06,0.000
-3.550E-06,0.008
-3.540E-06,0.012
-3.530E-06,0.012
-3.520E-06,0.008
-3.510E-06,0.004
-3.500E-06,0.000
-3.490E-06,-0.004
-3.480E-06,-0.004
-3.470E-06,0.000
-3.460E-06,0.004
-3.450E-06,0.008
-3.440E-06,0.008
-3.430E-06,0.012
-3.420E-06,0.008
-3.410E-06,0.008
-3.400E-06,0.000
-3.390E-06,0.000
-3.380E-06,-0.004
-3.370E-06,0.000
-3.360E-06,0.008
-3.350E-06,0.012
-3.340E-06,0.008
-3.330E-06,0.012
-3.320E-06,-0.004
-3.310E-06,0.000
-3.300E-06,-0.004
-3.290E-06,0.004
-3.280E-06,0.016
-3.270E-06,0.028
-3.260E-06,0.012
-3.250E-06,0.008
-3.240E-06,-0.008
-3.230E-06,-0.020
-3.220E-06,-0.008
-3.210E-06,0.000
-3.200E-06,0.008
-3.190E-06,0.008
-3.180E-06,0.024
-3.170E-06,0.012
-3.160E-06,0.016
-3.150E-06,0.000
-3.140E-06,0.004
-3.130E-06,0.000
-3.120E-06,0.000
-3.110E-06,0.000
-3.100E-06,0.000
-3.090E-06,0.000
-3.080E-06,0.004
-3.070E-06,0.012
-3.060E-06,0.020
-3.050E-06,0.012
-3.040E-06,-0.004
-3.030E-06,-0.008
-3.020E-06,-0.008
-3.010E-06,0.000
-3.000E-06,0.004
-2.990E-06,0.008
-2.980E-06,0.016
-2.970E-06,0.008
-2.960E-06,0.008
-2.950E-06,-0.004
-2.940E-06,-0.012
-2.930E-06,-0.016
-2.920E-06,-0.004
-2.910E-06,0.004
-2.900E-06,0.012
-2.890E-06,0.004
-2.880E-06,0.008
-2.870E-06,0.008
-2.860E-06,0.000
-2.850E-06,-0.004
-2.840E-06,-0.004
-2.830E-06,0.000
-2.820E-06,0.012
-2.810E-06,0.008
-2.800E-06,0.020
-2.790E-06,0.020
-2.780E-06,0.008
-2.770E-06,-0.004
-2.760E-06,0.000
-2.750E-06,-0.004
-2.740E-06,0.000
-2.730E-06,0.012
-2.720E-06,0.028
-2.710E-06,0.024
-2.700E-06,0.012
-2.690E-06,0.000
-2.680E-06,-0.004
-2.670E-06,-0.004
-2.660E-06,0.008
-2.650E-06,0.040
-2.640E-06,0.044
-2.630E-06,0.024
-2.620E-06,-0.004
-2.610E-06,-0.036
-2.600E-06,-0.028
-2.590E-06,0.008
-2.580E-06,0.036
-2.570E-06,0.044
-2.560E-06,0.024
-2.550E-06,0.000
-2.540E-06,-0.012
-2.530E-06,-0.032
-2.520E-06,-0.012
-2.510E-06,-0.008
-2.500E-06,0.028
-2.490E-06,0.036
-2.480E-06,0.044
-2.470E-06,0.000
-2.460E-06,-0.056
-2.450E-06,-0.084
-2.440E-06,-0.044
-2.430E-06,-0.012
-2.420E-06,0.012
-2.410E-06,0.056
-2.400E-06,0.044
-2.390E-06,0.024
-2.380E-06,-0.008
-2.370E-06,-0.052
-2.360E-06,-0.040
-2.350E-06,-0.008
-2.340E-06,0.008
-2.330E-06,0.028
-2.320E-06,0.040
-2.310E-06,0.024
-2.300E-06,0.020
-2.290E-06,-0.016
-2.280E-06,-0.040
-2.270E-06,-0.028
-2.260E-06,-0.004
-2.250E-06,0.032
-2.240E-06,0.036
-2.230E-06,0.032
-2.220E-06,0.008
-2.210E-06,-0.004
-2.200E-06,-0.012
-2.190E-06,-0.020
-2.180E-06,-0.008
-2.170E-06,0.008
-2.160E-06,0.012
-2.150E-06,0.020
-2.140E-06,0.024
-2.130E-06,0.000
-2.120E-06,-0.008
-2.110E-06,-0.020
-2.100E-06,-0.004
-2.090E-06,0.008
-2.080E-06,0.024
-2.070E-06,0.028
-2.060E-06,0.016
-2.050E-06,-0.008
-2.040E-06,-0.012
-2.030E-06,-0.004
-2.020E-06,-0.004
-2.010E-06,0.008
-2.000E-06,0.032
-1.990E-06,0.024
-1.980E-06,0.024
-1.970E-06,0.012
-1.960E-06,0.008
-1.950E-06,0.024
-1.940E-06,0.024
-1.930E-06,0.036
-1.920E-06,0.012
-1.910E-06,-0.008
-1.900E-06,-0.024
-1.890E-06,-0.020
-1.880E-06,-0.028
-1.870E-06,-0.036
-1.860E-06,-0.012
-1.850E-06,0.012
-1.840E-06,-0.008
-1.830E-06,0.008
-1.820E-06,-0.004
-1.810E-06,-0.020
-1.800E-06,-0.004
-1.790E-06,0.008
-1.780E-06,0.008
-1.770E-06,0.004
-1.760E-06,0.004
-1.750E-06,-0.008
-1.740E-06,0.004
-1.730E-06,0.004
-1.720E-06,0.024
-1.710E-06,0.024
-1.700E-06,-0.004
-1.690E-06,-0.008
-1.680E-06,-0.024
-1.670E-06,-0.004
-1.660E-06,0.000
-1.650E-06,0.024
-1.640E-06,0.020
-1.630E-06,0.008
-1.620E-06,-0.004
-1.610E-06,-0.012
-1.600E-06,-0.012
-1.590E-06,-0.012
-1.580E-06,0.008
-1.570E-06,0.004
-1.560E-06,0.012
-1.550E-06,0.008
-1.540E-06,0.020
-1.530E-06,0.008
-1.520E-06,-0.004
-1.510E-06,-0.004
-1.500E-06,-0.008
-1.490E-06,0.000
-1.480E-06,0.008
-1.470E-06,0.020
-1.460E-06,0.012
-1.450E-06,0.024
-1.440E-06,-0.004
-1.430E-06,-0.004
-1.420E-06,-0.020
-1.410E-06,0.000
-1.400E-06,0.004
-1.390E-06,0.028
-1.380E-06,0.024
-1.370E-06,0.020
-1.360E-06,0.008
-1.350E-06,-0.012
-1.340E-06,-0.004
-1.330E-06,0.000
-1.320E-06,0.000
-1.310E-06,0.020
-1.300E-06,0.024
-1.290E-06,0.012
-1.280E-06,0.012
-1.270E-06,0.008
-1.260E-06,0.000
-1.250E-06,0.000
-1.240E-06,0.008
-1.230E-06,0.024
-1.220E-06,0.020
-1.210E-06,0.020
-1.200E-06,0.024
-1.190E-06,0.004
-1.180E-06,0.012
-1.170E-06,0.004
-1.160E-06,0.020
-1.150E-06,0.020
-1.140E-06,0.028
-1.130E-06,0.040
-1.120E-06,0.044
-1.110E-06,0.040
-1.100E-06,0.064
-1.090E-06,0.036
-1.080E-06,0.044
-1.070E-06,0.028
-1.060E-06,0.028
-1.050E-06,-0.008
-1.040E-06,-0.032
-1.030E-06,-0.036
-1.020E-06,-0.052
-1.010E-06,-0.008
-1.000E-06,0.024
-9.900E-07,0.056
-9.800E-07,0.060
-9.700E-07,0.052
-9.600E-07,-0.008
-9.500E-07,-0.056
-9.400E-07,-0.024
-9.300E-07,-0.020
-9.200E-07,-0.012
-9.100E-07,0.040
-9.000E-07,0.096
-8.900E-07,0.084
-8.800E-07,0.068
-8.700E-07,-0.008
-8.600E-07,-0.068
-8.500E-07,-0.108
-8.400E-07,-0.108
-8.300E-07,-0.068
-8.200E-07,-0.008
-8.100E-07,0.008
-8.000E-07,0.004
-7.900E-07,-0.008
-7.800E-07,-0.040
-7.700E-07,-0.032
-7.600E-07,-0.040
-7.500E-07,-0.020
-7.400E-07,0.000
-7.300E-07,0.012
-7.200E-07,0.028
-7.100E-07,0.016
-7.000E-07,-0.008
-6.900E-07,-0.020
-6.800E-07,-0.024
-6.700E-07,-0.020
-6.600E-07,0.008
-6.500E-07,0.012
-6.400E-07,0.028
-6.300E-07,0.020
-6.200E-07,0.008
-6.100E-07,0.000
-6.000E-07,-0.008
-5.900E-07,-0.004
-5.800E-07,-0.008
-5.700E-07,0.008
-5.600E-07,0.024
-5.500E-07,0.040
-5.400E-07,0.040
-5.300E-07,0.024
-5.200E-07,0.004
-5.100E-07,-0.016
-5.000E-07,-0.020
-4.900E-07,-0.024
-4.800E-07,0.004
-4.700E-07,0.024
-4.600E-07,0.032
-4.500E-07,0.016
-4.400E-07,0.004
-4.300E-07,-0.008
-4.200E-07,-0.020
-4.100E-07,-0.016
-4.000E-07,-0.004
-3.900E-07,0.024
-3.800E-07,0.024
-3.700E-07,0.040
-3.600E-07,0.048
-3.500E-07,0.028
-3.400E-07,0.016
-3.300E-07,0.012
-3.200E-07,0.012
-3.100E-07,0.024
-3.000E-07,0.056
-2.900E-07,0.056
-2.800E-07,0.064
-2.700E-07,0.044
-2.600E-07,0.020
-2.500E-07,0.028
-2.400E-07,0.024
-2.300E-07,0.048
-2.200E-07,0.052
-2.100E-07,0.068
-2.000E-07,0.060
-1.900E-07,0.068
-1.800E-07,0.040
-1.700E-07,0.040
-1.600E-07,0.044
-1.500E-07,0.048
-1.400E-07,0.072
-1.300E-07,0.068
-1.200E-07,0.096
-1.100E-07,0.056
-1.000E-07,0.064
-9.000E-08,0.008
-8.000E-08,0.008
-7.000E-08,-0.120
-6.000E-08,-0.072
-5.000E-08,-0.068
-4.000E-08,0.024
-3.000E-08,0.088
-2.000E-08,-0.008
-1.000E-08,-0.228
0.000E+00,-0.488
1.000E-08,-0.456
2.000E-08,-0.336
3.000E-08,-0.020
4.000E-08,0.284
5.000E-08,0.480
6.000E-08,0.340
7.000E-08,0.004
8.000E-08,-0.328
9.000E-08,-0.368
1.000E-07,-0.200
1.100E-07,0.088
1.200E-07,0.240
1.300E-07,0.208
1.400E-07,0.156
1.500E-07,0.016
1.600E-07,-0.084
1.700E-07,-0.144
1.800E-07,-0.128
1.900E-07,-0.040
2.000E-07,0.104
2.100E-07,0.180
2.200E-07,0.164
2.300E-07,0.088
2.400E-07,-0.048
2.500E-07,-0.204
2.600E-07,-0.260
2.700E-07,-0.148
2.800E-07,0.056
2.900E-07,0.144
3.000E-07,0.192
3.100E-07,0.112
3.200E-07,0.004
3.300E-07,-0.088
3.400E-07,-0.148
3.500E-07,-0.140
3.600E-07,-0.008
3.700E-07,0.108
3.800E-07,0.160
3.900E-07,0.124
4.000E-07,0.020
4.100E-07,-0.052
4.200E-07,-0.088
4.300E-07,-0.060
4.400E-07,-0.012
4.500E-07,0.056
4.600E-07,0.092
4.700E-07,0.092
4.800E-07,0.072
4.900E-07,0.020
5.000E-07,-0.008
5.100E-07,-0.024
5.200E-07,0.000
5.300E-07,0.048
5.400E-07,0.092
5.500E-07,0.120
5.600E-07,0.108
5.700E-07,0.080
5.800E-07,0.044
5.900E-07,0.024
6.000E-07,0.036
6.100E-07,0.064
6.200E-07,0.096
6.300E-07,0.124
6.400E-07,0.120
6.500E-07,0.096
6.600E-07,0.064
6.700E-07,0.052
6.800E-07,0.004
6.900E-07,-0.012
7.000E-07,-0.004
7.100E-07,-0.024
7.200E-07,0.044
7.300E-07,0.032
7.400E-07,0.128
7.500E-07,-0.112
7.600E-07,-0.320
7.700E-07,-0.484
7.800E-07,-0.444
7.900E-07,-0.112
8.000E-07,0.276
8.100E-07,0.480
8.200E-07,0.208
8.300E-07,-0.024
8.400E-07,-0.452
8.500E-07,-0.500
8.600E-07,-0.188
8.700E-07,0.192
8.800E-07,0.468
8.900E-07,0.516
9.000E-07,0.284
9.100E-07,-0.204
9.200E-07,-0.416
9.300E-07,-0.508
9.400E-07,-0.496
9.500E-07,-0.168
9.600E-07,0.236
9.700E-07,0.540
9.800E-07,0.440
9.900E-07,0.164
1.000E-06,-0.244
1.010E-06,-0.432
1.020E-06,-0.380
1.030E-06,-0.164
1.040E-06,0.112
1.050E-06,0.308
1.060E-06,0.352
1.070E-06,0.224
1.080E-06,-0.028
1.090E-06,-0.224
1.100E-06,-0.296
1.110E-06,-0.208
1.120E-06,-0.004
1.130E-06,0.132
1.140E-06,0.208
1.150E-06,0.164
1.160E-06,0.056
1.170E-06,-0.056
1.180E-06,-0.152
1.190E-06,-0.160
1.200E-06,-0.084
1.210E-06,0.028
1.220E-06,0.108
1.230E-06,0.144
1.240E-06,0.076
1.250E-06,0.008
1.260E-06,-0.072
1.270E-06,-0.100
1.280E-06,-0.056
1.290E-06,-0.004
1.300E-06,0.052
1.310E-06,0.096
1.320E-06,0.088
1.330E-06,0.032
1.340E-06,-0.008
1.350E-06,-0.052
1.360E-06,-0.056
1.370E-06,-0.012
1.380E-06,0.028
1.390E-06,0.064
1.400E-06,0.080
1.410E-06,0.056
1.420E-06,0.020
1.430E-06,-0.016
1.440E-06,-0.036
1.450E-06,-0.020
1.460E-06,-0.004
1.470E-06,0.024
1.480E-06,0.052
1.490E-06,0.056
1.500E-06,0.048
1.510E-06,0.012
1.520E-06,0.000
1.530E-06,-0.004
1.540E-06,0.028
1.550E-06,0.044
1.560E-06,0.064
1.570E-06,0.068
1.580E-06,0.060
1.590E-06,0.056
1.600E-06,0.048
1.610E-06,0.072
1.620E-06,0.100
1.630E-06,0.104
1.640E-06,0.088
1.650E-06,0.012
1.660E-06,-0.164
1.670E-06,-0.216
1.680E-06,-0.232
1.690E-06,-0.108
1.700E-06,-0.012
1.710E-06,0.140
1.720E-06,0.104
1.730E-06,0.116
1.740E-06,0.000
1.750E-06,-0.004
1.760E-06,0.000
1.770E-06,-0.020
1.780E-06,0.008
1.790E-06,-0.056
1.800E-06,0.028
1.810E-06,0.052
1.820E-06,-0.136
1.830E-06,-0.100
1.840E-06,-0.304
1.850E-06,-0.272
1.860E-06,0.080
1.870E-06,0.208
1.880E-06,0.348
1.890E-06,-0.044
1.900E-06,-0.108
1.910E-06,-0.096
1.920E-06,-0.072
1.930E-06,0.000
1.940E-06,0.076
1.950E-06,-0.080
1.960E-06,-0.080
1.970E-06,0.060
1.980E-06,0.060
1.990E-06,0.132
2.000E-06,0.100
2.010E-06,0.040
2.020E-06,-0.040
2.030E-06,-0.064
2.040E-06,-0.084
2.050E-06,0.000
2.060E-06,-0.008
2.070E-06,0.024
2.080E-06,0.012
2.090E-06,0.044
2.100E-06,-0.012
2.110E-06,-0.100
2.120E-06,-0.040
2.130E-06,0.004
2.140E-06,0.104
2.150E-06,0.096
2.160E-06,0.024
2.170E-06,-0.040
2.180E-06,-0.080
2.190E-06,-0.008
2.200E-06,0.020
2.210E-06,0.140
2.220E-06,0.128
2.230E-06,0.112
2.240E-06,0.000
2.250E-06,-0.060
2.260E-06,-0.100
2.270E-06,-0.076
2.280E-06,0.012
2.290E-06,0.044
2.300E-06,0.072
2.310E-06,0.016
2.320E-06,-0.028
2.330E-06,-0.080
2.340E-06,-0.056
2.350E-06,-0.024
2.360E-06,0.036
2.370E-06,0.076
2.380E-06,0.096
2.390E-06,0.108
2.400E-06,0.048
2.410E-06,0.024
2.420E-06,0.000
2.430E-06,0.044
2.440E-06,0.068
2.450E-06,0.116
2.460E-06,0.160
2.470E-06,0.144
2.480E-06,0.092
2.490E-06,0.040
2.500E-06,-0.032
2.510E-06,-0.088
2.520E-06,-0.240
2.530E-06,-0.404
2.540E-06,-0.456
2.550E-06,-0.132
2.560E-06,0.172
2.570E-06,0.396
2.580E-06,0.340
2.590E-06,0.220
2.600E-06,0.060
2.610E-06,-0.144
2.620E-06,-0.148
2.630E-06,-0.080
2.640E-06,0.008
2.650E-06,-0.004
2.660E-06,-0.104
2.670E-06,-0.468
2.680E-06,-0.352
2.690E-06,-0.004
2.700E-06,0.156
2.710E-06,0.308
2.720E-06,0.080
2.730E-06,-0.060
2.740E-06,-0.152
2.750E-06,-0.192
2.760E-06,-0.060
2.770E-06,0.080
2.780E-06,0.096
2.790E-06,0.060
2.800E-06,0.084
2.810E-06,0.004
2.820E-06,-0.024
2.830E-06,-0.076
2.840E-06,-0.080
2.850E-06,-0.024
2.860E-06,0.024
2.870E-06,0.056
2.880E-06,0.044
2.890E-06,0.052
2.900E-06,0.004
2.910E-06,0.004
2.920E-06,-0.032
2.930E-06,-0.020
2.940E-06,-0.020
2.950E-06,0.032
2.960E-06,0.056
2.970E-06,0.064
2.980E-06,0.052
2.990E-06,0.024
3.000E-06,0.004
3.010E-06,0.008
3.020E-06,0.012
3.030E-06,0.028
3.040E-06,0.060
3.050E-06,0.056
3.060E-06,0.076
3.070E-06,0.056
3.080E-06,0.052
3.090E-06,0.056
3.100E-06,0.056
3.110E-06,0.092
3.120E-06,0.092
3.130E-06,0.072
3.140E-06,-0.056
3.150E-06,-0.132
3.160E-06,-0.280
3.170E-06,-0.284
3.180E-06,-0.172
3.190E-06,0.004
3.200E-06,0.172
3.210E-06,0.196
3.220E-06,0.184
3.230E-06,-0.036
3.240E-06,-0.140
3.250E-06,-0.176
3.260E-06,-0.052
3.270E-06,0.068
3.280E-06,0.128
3.290E-06,0.156
3.300E-06,0.092
3.310E-06,-0.004
3.320E-06,-0.096
3.330E-06,-0.108
3.340E-06,-0.068
3.350E-06,0.036
3.360E-06,0.140
3.370E-06,0.152
3.380E-06,0.116
3.390E-06,0.016
3.400E-06,-0.052
3.410E-06,-0.108
3.420E-06,-0.080
3.430E-06,-0.016
3.440E-06,0.068
3.450E-06,0.136
3.460E-06,0.140
3.470E-06,0.064
3.480E-06,-0.032
3.490E-06,-0.148
3.500E-06,-0.160
3.510E-06,-0.104
3.520E-06,-0.024
3.530E-06,0.092
3.540E-06,0.132
3.550E-06,0.108
3.560E-06,0.032
3.570E-06,-0.072
3.580E-06,-0.136
3.590E-06,-0.108
3.600E-06,-0.004
3.610E-06,0.092
3.620E-06,0.128
3.630E-06,0.120
3.640E-06,0.060
3.650E-06,-0.024
3.660E-06,-0.068
3.670E-06,-0.064
3.680E-06,0.008
3.690E-06,0.084
3.700E-06,0.124
3.710E-06,0.120
3.720E-06,0.064
3.730E-06,0.012
3.740E-06,-0.020
3.750E-06,-0.016
3.760E-06,0.020
3.770E-06,0.068
3.780E-06,0.096
3.790E-06,0.100
3.800E-06,0.072
3.810E-06,0.052
3.820E-06,-0.012
3.830E-06,-0.092
3.840E-06,-0.044
3.850E-06,-0.012
3.860E-06,-0.508
3.870E-06,-0.512
3.880E-06,-0.424
3.890E-06,-0.368
3.900E-06,0.208
3.910E-06,-0.008
3.920E-06,0.540
3.930E-06,0.284
3.940E-06,-0.160
3.950E-06,-0.404
3.960E-06,-0.384
3.970E-06,0.112
3.980E-06,0.528
3.990E-06,0.308
4.000E-06,0.092
4.010E-06,-0.168
4.020E-06,-0.316
4.030E-06,-0.096
4.040E-06,-0.080
4.050E-06,0.024
4.060E-06,0.040
4.070E-06,0.296
4.080E-06,0.208
4.090E-06,0.260
4.100E-06,0.020
4.110E-06,-0.208
4.120E-06,-0.184
4.130E-06,-0.144
4.140E-06,0.136
4.150E-06,0.128
4.160E-06,0.132
4.170E-06,-0.072
4.180E-06,-0.452
4.190E-06,-0.304
4.200E-06,-0.176
4.210E-06,0.096
4.220E-06,0.264
4.230E-06,0.280
4.240E-06,0.048
4.250E-06,-0.028
4.260E-06,-0.128
4.270E-06,-0.088
4.280E-06,-0.068
4.290E-06,0.088
4.300E-06,0.024
4.310E-06,0.036
4.320E-06,0.024
4.330E-06,0.012
4.340E-06,0.016
4.350E-06,-0.020
4.360E-06,0.044
4.370E-06,0.004
4.380E-06,0.060
4.390E-06,-0.004
4.400E-06,0.064
4.410E-06,0.032
4.420E-06,0.016
4.430E-06,-0.200
4.440E-06,-0.112
4.450E-06,-0.024
4.460E-06,0.024
4.470E-06,0.048
4.480E-06,0.060
4.490E-06,0.028
4.500E-06,-0.012
4.510E-06,-0.024
4.520E-06,-0.060
4.530E-06,0.020
4.540E-06,0.040
4.550E-06,0.044
4.560E-06,0.012
4.570E-06,0.004
4.580E-06,0.000
4.590E-06,0.008
4.600E-06,0.020
4.610E-06,0.016
4.620E-06,0.024
4.630E-06,0.000
4.640E-06,0.004
4.650E-06,-0.004
4.660E-06,0.012
4.670E-06,0.032
4.680E-06,0.052
4.690E-06,0.068
4.700E-06,0.060
4.710E-06,0.024
4.720E-06,-0.004
4.730E-06,0.000
4.740E-06,0.012
4.750E-06,0.052
4.760E-06,0.044
4.770E-06,0.032
4.780E-06,0.020
4.790E-06,0.040
4.800E-06,0.024
4.810E-06,-0.044
4.820E-06,-0.016
4.830E-06,-0.016
4.840E-06,-0.168
4.850E-06,-0.236
4.860E-06,-0.204
4.870E-06,-0.008
4.880E-06,0.088
4.890E-06,0.040
4.900E-06,0.016
4.910E-06,-0.040
4.920E-06,0.052
4.930E-06,0.060
4.940E-06,0.096
4.950E-06,0.064
4.960E-06,-0.044
4.970E-06,-0.108
4.980E-06,-0.100
4.990E-06,-0.008
5.000E-06,0.072
5.010E-06,0.080
5.020E-06,0.060
5.030E-06,0.020
5.040E-06,-0.024
5.050E-06,-0.056
5.060E-06,-0.044
5.070E-06,0.004
5.080E-06,0.088
5.090E-06,0.084
5.100E-06,0.060
5.110E-06,0.012
5.120E-06,-0.032
5.130E-06,-0.056
5.140E-06,-0.040
5.150E-06,-0.004
5.160E-06,0.000
5.170E-06,0.048
5.180E-06,0.076
5.190E-06,0.060
5.200E-06,0.036
5.210E-06,0.016
5.220E-06,-0.016
5.230E-06,-0.032
5.240E-06,0.004
5.250E-06,0.016
5.260E-06,0.072
5.270E-06,0.056
5.280E-06,0.024
5.290E-06,-0.004
5.300E-06,-0.036
5.310E-06,-0.036
5.320E-06,-0.012
5.330E-06,0.028
5.340E-06,0.048
5.350E-06,0.064
5.360E-06,0.044
5.370E-06,0.000
5.380E-06,-0.036
5.390E-06,-0.020
5.400E-06,0.000
5.410E-06,0.032
5.420E-06,0.072
5.430E-06,0.056
5.440E-06,0.004
5.450E-06,-0.008
5.460E-06,-0.008
5.470E-06,0.016
5.480E-06,0.076
5.490E-06,0.124
5.500E-06,0.120
5.510E-06,0.044
5.520E-06,-0.104
5.530E-06,-0.172
5.540E-06,-0.156
5.550E-06,-0.052
5.560E-06,0.040
5.570E-06,0.124
5.580E-06,0.156
5.590E-06,0.068
5.600E-06,0.036
5.610E-06,-0.064
5.620E-06,-0.120
5.630E-06,-0.168
5.640E-06,-0.036
5.650E-06,-0.004
5.660E-06,-0.044
5.670E-06,-0.056
5.680E-06,-0.064
5.690E-06,-0.044
5.700E-06,-0.036
5.710E-06,0.020
5.720E-06,0.044
5.730E-06,0.060
5.740E-06,0.040
5.750E-06,-0.004
5.760E-06,-0.060
5.770E-06,-0.036
5.780E-06,-0.008
5.790E-06,0.012
5.800E-06,0.056
5.810E-06,0.052
5.820E-06,0.056
5.830E-06,0.012
5.840E-06,0.008
5.850E-06,0.004
5.860E-06,0.040
5.870E-06,0.052
5.880E-06,0.084
5.890E-06,0.088
5.900E-06,0.076
5.910E-06,0.036
5.920E-06,-0.024
5.930E-06,-0.016
5.940E-06,-0.032
5.950E-06,-0.040
5.960E-06,-0.044
5.970E-06,0.004
5.980E-06,0.012
5.990E-06,0.036
6.000E-06,0.072
6.010E-06,0.060
6.020E-06,0.036
6.030E-06,0.020
6.040E-06,0.028
6.050E-06,0.032
6.060E-06,0.092
6.070E-06,0.092
6.080E-06,0.080
6.090E-06,0.072
6.100E-06,0.056
6.110E-06,0.068
6.120E-06,0.072
6.130E-06,0.092
6.140E-06,0.020
6.150E-06,-0.124
6.160E-06,-0.512
6.170E-06,-0.508
6.180E-06,-0.512
6.190E-06,0.540
6.200E-06,0.544
6.210E-06,0.540
6.220E-06,0.540
6.230E-06,-0.476
6.240E-06,-0.512
6.250E-06,-0.512
6.260E-06,-0.192
6.270E-06,0.140
6.280E-06,0.364
6.290E-06,0.312
6.300E-06,0.256
6.310E-06,0.104
6.320E-06,0.012
6.330E-06,-0.240
6.340E-06,-0.208
6.350E-06,-0.156
6.360E-06,-0.200
6.370E-06,-0.012
6.380E-06,0.108
6.390E-06,0.480
6.400E-06,0.328
6.410E-06,-0.040
6.420E-06,-0.192
6.430E-06,-0.308
6.440E-06,-0.204
6.450E-06,-0.128
6.460E-06,0.092
6.470E-06,0.192
6.480E-06,0.352
6.490E-06,0.136
6.500E-06,0.028
6.510E-06,-0.148
6.520E-06,-0.168
6.530E-06,-0.096
6.540E-06,0.076
6.550E-06,0.176
6.560E-06,0.164
6.570E-06,0.088
6.580E-06,-0.032
6.590E-06,-0.040
6.600E-06,-0.076
6.610E-06,0.044
6.620E-06,0.060
6.630E-06,0.184
6.640E-06,0.076
6.650E-06,0.024
6.660E-06,-0.148
6.670E-06,-0.104
6.680E-06,-0.080
6.690E-06,-0.124
6.700E-06,0.004
6.710E-06,-0.012
6.720E-06,0.128
6.730E-06,0.044
6.740E-06,0.024
6.750E-06,-0.028
6.760E-06,-0.064
6.770E-06,-0.068
6.780E-06,-0.036
6.790E-06,0.004
6.800E-06,0.020
6.810E-06,0.076
6.820E-06,0.072
6.830E-06,0.076
6.840E-06,0.016
6.850E-06,-0.008
6.860E-06,-0.056
6.870E-06,-0.024
6.880E-06,0.032
6.890E-06,0.076
6.900E-06,0.124
6.910E-06,0.124
6.920E-06,0.064
6.930E-06,-0.004
6.940E-06,-0.076
6.950E-06,-0.140
6.960E-06,-0.088
6.970E-06,-0.012
6.980E-06,0.064
6.990E-06,0.144
7.000E-06,0.120
7.010E-06,0.092
7.020E-06,-0.036
7.030E-06,-0.064
7.040E-06,-0.104
7.050E-06,0.000
7.060E-06,0.088
7.070E-06,0.156
7.080E-06,0.156
7.090E-06,0.048
7.100E-06,-0.020
7.110E-06,-0.092
7.120E-06,-0.100
7.130E-06,-0.060
7.140E-06,0.004
7.150E-06,0.104
7.160E-06,0.164
7.170E-06,0.144
7.180E-06,0.040
7.190E-06,-0.048
7.200E-06,-0.080
7.210E-06,-0.028
7.220E-06,0.032
7.230E-06,0.052
7.240E-06,0.096
7.250E-06,0.044
7.260E-06,0.048
7.270E-06,0.000
7.280E-06,0.020
7.290E-06,0.044
7.300E-06,0.048
7.310E-06,0.076
7.320E-06,0.056
7.330E-06,0.044
7.340E-06,-0.076
7.350E-06,-0.036
7.360E-06,-0.512
7.370E-06,-0.464
7.380E-06,-0.120
7.390E-06,0.420
7.400E-06,0.536
7.410E-06,-0.260
7.420E-06,-0.072
7.430E-06,0.072
7.440E-06,0.540
7.450E-06,-0.176
7.460E-06,-0.512
7.470E-06,-0.368
7.480E-06,-0.092
7.490E-06,0.260
7.500E-06,0.488
7.510E-06,0.132
7.520E-06,-0.164
7.530E-06,0.000
7.540E-06,0.076
7.550E-06,0.192
7.560E-06,-0.144
7.570E-06,-0.132
7.580E-06,-0.196
7.590E-06,0.060
7.600E-06,0.064
7.610E-06,0.036
7.620E-06,0.072
7.630E-06,-0.012
7.640E-06,0.036
7.650E-06,0.044
7.660E-06,0.072
7.670E-06,-0.088
7.680E-06,-0.004
7.690E-06,-0.076
7.700E-06,0.060
7.710E-06,0.032
