mediciones/mediciones removidas por ser diferentes/900V/48.7/WaveData55280.csv

#timebase=2000000(ps)
,#voltbase=500000(mv/100)
#size=4000
-4.200E-06,0.200
-4.190E-06,0.240
-4.180E-06,0.280
-4.170E-06,0.260
-4.160E-06,0.160
-4.150E-06,0.180
-4.140E-06,0.080
-4.130E-06,0.200
-4.120E-06,0.140
-4.110E-06,0.120
-4.100E-06,0.080
-4.090E-06,-0.080
-4.080E-06,0.180
-4.070E-06,0.000
-4.060E-06,-0.580
-4.050E-06,-0.020
-4.040E-06,-0.200
-4.030E-06,0.180
-4.020E-06,1.300
-4.010E-06,0.080
-4.000E-06,0.180
-3.990E-06,-0.080
-3.980E-06,-1.040
-3.970E-06,0.000
-3.960E-06,0.160
-3.950E-06,0.340
-3.940E-06,0.700
-3.930E-06,0.100
-3.920E-06,-0.160
-3.910E-06,-0.100
-3.900E-06,-0.180
-3.890E-06,0.000
-3.880E-06,0.200
-3.870E-06,0.080
-3.860E-06,0.020
-3.850E-06,0.020
-3.840E-06,-0.040
-3.830E-06,-0.080
-3.820E-06,0.000
-3.810E-06,-0.140
-3.800E-06,-0.240
-3.790E-06,-0.200
-3.780E-06,-0.200
-3.770E-06,-0.160
-3.760E-06,-0.120
-3.750E-06,-0.180
-3.740E-06,-0.160
-3.730E-06,-0.100
-3.720E-06,-0.080
-3.710E-06,0.040
-3.700E-06,0.100
-3.690E-06,0.100
-3.680E-06,0.200
-3.670E-06,0.340
-3.660E-06,0.060
-3.650E-06,0.020
-3.640E-06,0.040
-3.630E-06,-0.040
-3.620E-06,0.440
-3.610E-06,0.500
-3.600E-06,0.680
-3.590E-06,0.620
-3.580E-06,0.400
-3.570E-06,0.400
-3.560E-06,0.340
-3.550E-06,0.440
-3.540E-06,0.560
-3.530E-06,0.600
-3.520E-06,0.460
-3.510E-06,0.460
-3.500E-06,0.260
-3.490E-06,0.240
-3.480E-06,0.500
-3.470E-06,0.540
-3.460E-06,0.180
-3.450E-06,-0.180
-3.440E-06,-0.100
-3.430E-06,-0.100
-3.420E-06,0.460
-3.410E-06,0.880
-3.400E-06,0.540
-3.390E-06,0.360
-3.380E-06,-0.320
-3.370E-06,-0.740
-3.360E-06,-0.360
-3.350E-06,-0.100
-3.340E-06,0.240
-3.330E-06,0.200
-3.320E-06,-0.180
-3.310E-06,-0.440
-3.300E-06,-0.660
-3.290E-06,-0.600
-3.280E-06,-0.380
-3.270E-06,-0.160
-3.260E-06,-0.120
-3.250E-06,-0.180
-3.240E-06,-0.260
-3.230E-06,-0.340
-3.220E-06,-0.340
-3.210E-06,-0.180
-3.200E-06,-0.320
-3.190E-06,-0.160
-3.180E-06,-0.180
-3.170E-06,-0.420
-3.160E-06,-0.260
-3.150E-06,-0.340
-3.140E-06,-0.100
-3.130E-06,0.120
-3.120E-06,0.340
-3.110E-06,0.580
-3.100E-06,0.540
-3.090E-06,0.380
-3.080E-06,0.420
-3.070E-06,0.460
-3.060E-06,0.540
-3.050E-06,0.700
-3.040E-06,0.600
-3.030E-06,0.500
-3.020E-06,0.440
-3.010E-06,0.340
-3.000E-06,0.420
-2.990E-06,0.440
-2.980E-06,0.420
-2.970E-06,0.380
-2.960E-06,0.340
-2.950E-06,0.260
-2.940E-06,0.260
-2.930E-06,0.260
-2.920E-06,0.220
-2.910E-06,0.200
-2.900E-06,0.120
-2.890E-06,0.000
-2.880E-06,0.000
-2.870E-06,-0.440
-2.860E-06,-0.360
-2.850E-06,-0.540
-2.840E-06,-0.460
-2.830E-06,0.460
-2.820E-06,-0.840
-2.810E-06,-0.100
-2.800E-06,0.340
-2.790E-06,-0.380
-2.780E-06,0.840
-2.770E-06,0.040
-2.760E-06,0.020
-2.750E-06,-0.020
-2.740E-06,-0.280
-2.730E-06,0.020
-2.720E-06,0.380
-2.710E-06,0.360
-2.700E-06,0.260
-2.690E-06,-0.060
-2.680E-06,-0.320
-2.670E-06,-0.420
-2.660E-06,-0.480
-2.650E-06,-0.140
-2.640E-06,-0.180
-2.630E-06,-0.420
-2.620E-06,-0.340
-2.610E-06,-0.600
-2.600E-06,-0.380
-2.590E-06,-0.180
-2.580E-06,-0.260
-2.570E-06,-0.180
-2.560E-06,-0.340
-2.550E-06,-0.520
-2.540E-06,-0.220
-2.530E-06,0.000
-2.520E-06,0.180
-2.510E-06,0.340
-2.500E-06,0.180
-2.490E-06,0.200
-2.480E-06,0.240
-2.470E-06,0.360
-2.460E-06,0.500
-2.450E-06,0.700
-2.440E-06,0.600
-2.430E-06,0.500
-2.420E-06,0.380
-2.410E-06,0.260
-2.400E-06,0.340
-2.390E-06,0.340
-2.380E-06,0.420
-2.370E-06,0.400
-2.360E-06,0.320
-2.350E-06,0.100
-2.340E-06,0.040
-2.330E-06,0.580
-2.320E-06,-0.680
-2.310E-06,-0.340
-2.300E-06,-0.060
-2.290E-06,-0.600
-2.280E-06,0.860
-2.270E-06,0.360
-2.260E-06,0.420
-2.250E-06,-0.060
-2.240E-06,-1.120
-2.230E-06,-1.080
-2.220E-06,-0.400
-2.210E-06,-0.220
-2.200E-06,0.400
-2.190E-06,0.420
-2.180E-06,-0.660
-2.170E-06,-0.380
-2.160E-06,-0.180
-2.150E-06,-0.580
-2.140E-06,-0.340
-2.130E-06,-0.400
-2.120E-06,-0.120
-2.110E-06,0.200
-2.100E-06,1.020
-2.090E-06,0.720
-2.080E-06,0.660
-2.070E-06,0.140
-2.060E-06,-0.780
-2.050E-06,-0.160
-2.040E-06,0.160
-2.030E-06,0.580
-2.020E-06,0.900
-2.010E-06,0.320
-2.000E-06,-0.400
-1.990E-06,-0.420
-1.980E-06,-0.460
-1.970E-06,-0.160
-1.960E-06,0.300
-1.950E-06,0.020
-1.940E-06,-0.040
-1.930E-06,-0.300
-1.920E-06,-0.520
-1.910E-06,-0.500
-1.900E-06,-0.240
-1.890E-06,-0.240
-1.880E-06,-0.300
-1.870E-06,-0.320
-1.860E-06,-0.540
-1.850E-06,-0.500
-1.840E-06,-0.500
-1.830E-06,-0.560
-1.820E-06,-0.320
-1.810E-06,-0.180
-1.800E-06,-0.040
-1.790E-06,0.120
-1.780E-06,0.080
-1.770E-06,0.080
-1.760E-06,0.180
-1.750E-06,0.220
-1.740E-06,0.240
-1.730E-06,0.300
-1.720E-06,0.260
-1.710E-06,0.240
-1.700E-06,0.220
-1.690E-06,0.160
-1.680E-06,0.220
-1.670E-06,0.240
-1.660E-06,0.300
-1.650E-06,0.220
-1.640E-06,0.240
-1.630E-06,0.100
-1.620E-06,0.080
-1.610E-06,0.080
-1.600E-06,0.120
-1.590E-06,0.220
-1.580E-06,0.100
-1.570E-06,0.020
-1.560E-06,-0.020
-1.550E-06,-0.080
-1.540E-06,-0.080
-1.530E-06,0.000
-1.520E-06,-0.080
-1.510E-06,-0.120
-1.500E-06,-0.160
-1.490E-06,-0.180
-1.480E-06,-0.280
-1.470E-06,-0.300
-1.460E-06,-0.580
-1.450E-06,-0.680
-1.440E-06,-0.700
-1.430E-06,-0.780
-1.420E-06,-0.500
-1.410E-06,-0.420
-1.400E-06,-0.020
-1.390E-06,0.000
-1.380E-06,0.160
-1.370E-06,0.100
-1.360E-06,0.080
-1.350E-06,0.160
-1.340E-06,0.240
-1.330E-06,0.460
-1.320E-06,0.500
-1.310E-06,0.500
-1.300E-06,0.420
-1.290E-06,0.360
-1.280E-06,0.360
-1.270E-06,0.220
-1.260E-06,0.280
-1.250E-06,0.160
-1.240E-06,0.000
-1.230E-06,0.020
-1.220E-06,-0.040
-1.210E-06,0.000
-1.200E-06,-0.080
-1.190E-06,-0.060
-1.180E-06,-0.020
-1.170E-06,-0.160
-1.160E-06,-0.260
-1.150E-06,-0.340
-1.140E-06,-0.360
-1.130E-06,-0.440
-1.120E-06,-0.520
-1.110E-06,-0.560
-1.100E-06,-0.440
-1.090E-06,-0.480
-1.080E-06,-0.320
-1.070E-06,-0.080
-1.060E-06,-0.020
-1.050E-06,-0.020
-1.040E-06,-0.080
-1.030E-06,0.120
-1.020E-06,0.200
-1.010E-06,0.300
-1.000E-06,0.280
-9.900E-07,0.260
-9.800E-07,0.140
-9.700E-07,0.240
-9.600E-07,0.300
-9.500E-07,0.440
-9.400E-07,0.520
-9.300E-07,0.600
-9.200E-07,0.640
-9.100E-07,0.660
-9.000E-07,0.600
-8.900E-07,0.560
-8.800E-07,0.640
-8.700E-07,0.440
-8.600E-07,0.260
-8.500E-07,0.180
-8.400E-07,-0.520
-8.300E-07,-1.000
-8.200E-07,-0.360
-8.100E-07,-1.000
-8.000E-07,0.180
-7.900E-07,0.340
-7.800E-07,0.000
-7.700E-07,0.260
-7.600E-07,-0.760
-7.500E-07,-0.780
-7.400E-07,-0.580
-7.300E-07,-0.340
-7.200E-07,0.180
-7.100E-07,0.000
-7.000E-07,-0.200
-6.900E-07,-0.220
-6.800E-07,-0.220
-6.700E-07,0.160
-6.600E-07,0.560
-6.500E-07,0.480
-6.400E-07,0.500
-6.300E-07,0.160
-6.200E-07,-0.040
-6.100E-07,0.100
-6.000E-07,0.180
-5.900E-07,0.100
-5.800E-07,0.160
-5.700E-07,0.020
-5.600E-07,-0.200
-5.500E-07,-0.080
-5.400E-07,-0.460
-5.300E-07,-0.500
-5.200E-07,-0.640
-5.100E-07,-1.080
-5.000E-07,-0.780
-4.900E-07,-0.740
-4.800E-07,-0.220
-4.700E-07,0.080
-4.600E-07,0.000
-4.500E-07,0.100
-4.400E-07,-0.200
-4.300E-07,-0.360
-4.200E-07,-0.080
-4.100E-07,0.200
-4.000E-07,0.600
-3.900E-07,1.120
-3.800E-07,1.180
-3.700E-07,1.240
-3.600E-07,0.940
-3.500E-07,0.520
-3.400E-07,0.260
-3.300E-07,0.160
-3.200E-07,0.260
-3.100E-07,0.460
-3.000E-07,0.480
-2.900E-07,0.340
-2.800E-07,0.040
-2.700E-07,-0.300
-2.600E-07,-0.480
-2.500E-07,-0.540
-2.400E-07,-0.500
-2.300E-07,-0.440
-2.200E-07,-0.540
-2.100E-07,-0.620
-2.000E-07,-0.760
-1.900E-07,-0.740
-1.800E-07,-0.760
-1.700E-07,-0.780
-1.600E-07,-0.720
-1.500E-07,-0.800
-1.400E-07,-0.760
-1.300E-07,-0.640
-1.200E-07,-0.540
-1.100E-07,-0.460
-1.000E-07,-0.280
-9.000E-08,-0.260
-8.000E-08,-0.220
-7.000E-08,-0.220
-6.000E-08,-0.180
-5.000E-08,-0.120
-4.000E-08,-0.500
-3.000E-08,0.480
-2.000E-08,-1.340
-1.000E-08,-2.520
0.000E+00,0.340
1.000E-08,-0.800
2.000E-08,2.720
3.000E-08,2.760
4.000E-08,2.080
5.000E-08,1.660
6.000E-08,-0.500
7.000E-08,-1.680
8.000E-08,-0.180
9.000E-08,-0.120
1.000E-07,0.740
1.100E-07,1.740
1.200E-07,-0.360
1.300E-07,-0.380
1.400E-07,-2.280
1.500E-07,-1.420
1.600E-07,-0.920
1.700E-07,-0.140
1.800E-07,1.160
1.900E-07,0.640
2.000E-07,0.300
2.100E-07,-0.300
2.200E-07,-1.260
2.300E-07,-1.160
2.400E-07,-0.900
2.500E-07,-1.020
2.600E-07,-0.500
2.700E-07,-0.720
2.800E-07,-1.080
2.900E-07,-1.140
3.000E-07,-1.280
3.100E-07,-1.440
3.200E-07,-1.240
3.300E-07,-1.080
3.400E-07,-1.140
3.500E-07,-0.900
3.600E-07,-1.240
3.700E-07,-1.080
3.800E-07,-0.220
3.900E-07,-1.360
4.000E-07,-2.100
4.100E-07,-0.500
4.200E-07,-0.540
4.300E-07,1.420
4.400E-07,2.760
4.500E-07,1.760
4.600E-07,1.740
4.700E-07,0.740
4.800E-07,-0.020
4.900E-07,1.140
5.000E-07,1.600
5.100E-07,2.020
5.200E-07,2.240
5.300E-07,1.180
5.400E-07,0.340
5.500E-07,-0.020
5.600E-07,-0.480
5.700E-07,-0.080
5.800E-07,0.200
5.900E-07,-1.300
6.000E-07,-1.300
6.100E-07,-2.380
6.200E-07,-2.220
6.300E-07,-1.000
6.400E-07,-0.280
6.500E-07,0.400
6.600E-07,0.180
6.700E-07,-0.480
6.800E-07,-1.220
6.900E-07,-1.440
7.000E-07,-1.260
7.100E-07,-0.700
7.200E-07,-0.280
7.300E-07,0.040
7.400E-07,0.240
7.500E-07,0.240
7.600E-07,0.180
7.700E-07,0.180
7.800E-07,0.280
7.900E-07,0.300
8.000E-07,0.260
8.100E-07,0.160
8.200E-07,0.080
8.300E-07,0.000
8.400E-07,-0.020
8.500E-07,-0.260
8.600E-07,-0.460
8.700E-07,-0.680
8.800E-07,-0.860
8.900E-07,-0.920
9.000E-07,-0.820
9.100E-07,-1.140
9.200E-07,-1.080
9.300E-07,-1.200
9.400E-07,-1.360
9.500E-07,-1.000
9.600E-07,-1.360
9.700E-07,-1.080
9.800E-07,-0.940
9.900E-07,-0.860
1.000E-06,-0.420
1.010E-06,-0.340
1.020E-06,-0.220
1.030E-06,0.100
1.040E-06,0.020
1.050E-06,0.260
1.060E-06,0.160
1.070E-06,0.020
1.080E-06,0.500
1.090E-06,0.360
1.100E-06,1.320
1.110E-06,1.160
1.120E-06,1.140
1.130E-06,1.400
1.140E-06,1.180
1.150E-06,1.600
1.160E-06,1.960
1.170E-06,1.700
1.180E-06,1.600
1.190E-06,1.200
1.200E-06,0.780
1.210E-06,0.840
1.220E-06,0.600
1.230E-06,0.600
1.240E-06,0.260
1.250E-06,0.020
1.260E-06,-0.060
1.270E-06,-0.240
1.280E-06,-0.160
1.290E-06,-0.340
1.300E-06,-0.420
1.310E-06,-0.400
1.320E-06,-0.660
1.330E-06,-0.580
1.340E-06,-0.520
1.350E-06,-0.480
1.360E-06,-0.180
1.370E-06,-0.300
1.380E-06,-0.600
1.390E-06,0.000
1.400E-06,-0.880
1.410E-06,-0.760
1.420E-06,-0.040
1.430E-06,-1.080
1.440E-06,-1.680
1.450E-06,0.680
1.460E-06,-2.100
1.470E-06,-2.060
1.480E-06,2.560
1.490E-06,-1.520
1.500E-06,2.780
1.510E-06,2.780
1.520E-06,1.600
1.530E-06,1.040
1.540E-06,-1.140
1.550E-06,-1.440
1.560E-06,0.500
1.570E-06,1.340
1.580E-06,0.860
1.590E-06,2.260
1.600E-06,-1.240
1.610E-06,-0.840
1.620E-06,-1.200
1.630E-06,-1.340
1.640E-06,-0.680
1.650E-06,-0.200
1.660E-06,-0.740
1.670E-06,-0.500
1.680E-06,-0.780
1.690E-06,-1.340
1.700E-06,-1.520
1.710E-06,-1.840
1.720E-06,-1.600
1.730E-06,-1.560
1.740E-06,-1.080
1.750E-06,-0.960
1.760E-06,-0.940
1.770E-06,-1.500
1.780E-06,-1.000
1.790E-06,-1.000
1.800E-06,-0.320
1.810E-06,0.280
1.820E-06,-0.120
1.830E-06,0.080
1.840E-06,-0.240
1.850E-06,-0.260
1.860E-06,0.260
1.870E-06,0.580
1.880E-06,1.100
1.890E-06,1.820
1.900E-06,2.080
1.910E-06,2.500
1.920E-06,2.700
1.930E-06,2.760
1.940E-06,2.760
1.950E-06,2.700
1.960E-06,2.640
1.970E-06,2.580
1.980E-06,2.440
1.990E-06,2.100
2.000E-06,1.700
2.010E-06,1.160
2.020E-06,0.720
2.030E-06,0.380
2.040E-06,0.000
2.050E-06,-0.280
2.060E-06,-0.660
2.070E-06,-1.020
2.080E-06,-1.140
2.090E-06,-1.280
2.100E-06,-1.280
2.110E-06,-1.360
2.120E-06,-1.140
2.130E-06,-1.280
2.140E-06,-0.900
2.150E-06,-0.280
2.160E-06,-0.020
2.170E-06,0.660
2.180E-06,1.060
2.190E-06,1.240
2.200E-06,1.460
2.210E-06,1.440
2.220E-06,1.440
2.230E-06,1.460
2.240E-06,1.360
2.250E-06,1.180
2.260E-06,1.060
2.270E-06,0.780
2.280E-06,0.500
2.290E-06,0.140
2.300E-06,-0.160
2.310E-06,-0.300
2.320E-06,-0.440
2.330E-06,-0.560
2.340E-06,-0.640
2.350E-06,-0.680
2.360E-06,-0.780
2.370E-06,-0.700
2.380E-06,-0.560
2.390E-06,-0.340
2.400E-06,-0.140
2.410E-06,0.080
2.420E-06,0.240
2.430E-06,0.400
2.440E-06,0.440
2.450E-06,0.420
2.460E-06,0.560
2.470E-06,0.500
2.480E-06,0.420
2.490E-06,0.420
2.500E-06,0.200
2.510E-06,0.160
2.520E-06,0.060
2.530E-06,-0.140
2.540E-06,-0.260
2.550E-06,-0.520
2.560E-06,-0.740
2.570E-06,-0.840
2.580E-06,-0.920
2.590E-06,-0.880
2.600E-06,-0.840
2.610E-06,-0.800
2.620E-06,-0.660
2.630E-06,-0.520
2.640E-06,-0.360
2.650E-06,-0.200
2.660E-06,0.000
2.670E-06,0.140
2.680E-06,0.300
2.690E-06,0.400
2.700E-06,0.480
2.710E-06,0.440
2.720E-06,0.420
2.730E-06,0.340
2.740E-06,0.160
2.750E-06,-0.040
2.760E-06,-0.340
2.770E-06,-0.620
2.780E-06,-0.920
2.790E-06,-1.280
2.800E-06,-1.580
2.810E-06,-1.860
2.820E-06,-2.120
2.830E-06,-2.340
2.840E-06,-2.440
2.850E-06,-2.520
2.860E-06,-2.540
2.870E-06,-2.520
2.880E-06,-2.400
2.890E-06,-2.320
2.900E-06,-2.200
2.910E-06,-2.020
2.920E-06,-1.820
2.930E-06,-1.680
2.940E-06,-1.420
2.950E-06,-1.280
2.960E-06,-1.140
2.970E-06,-1.020
2.980E-06,-0.920
2.990E-06,-0.860
3.000E-06,-0.820
3.010E-06,-0.840
3.020E-06,-0.760
3.030E-06,-0.800
3.040E-06,-0.740
3.050E-06,-0.720
3.060E-06,-0.840
3.070E-06,-0.900
3.080E-06,-0.880
3.090E-06,-0.920
3.100E-06,-0.900
3.110E-06,-0.840
3.120E-06,-0.860
3.130E-06,-0.860
3.140E-06,-0.840
3.150E-06,-0.780
3.160E-06,-0.740
3.170E-06,-0.660
3.180E-06,-0.620
3.190E-06,-0.520
3.200E-06,-0.500
3.210E-06,-0.420
3.220E-06,-0.340
3.230E-06,-0.280
3.240E-06,-0.160
3.250E-06,-0.080
3.260E-06,-0.060
3.270E-06,0.000
3.280E-06,0.020
3.290E-06,0.080
3.300E-06,0.100
3.310E-06,0.160
3.320E-06,0.160
3.330E-06,0.120
3.340E-06,0.100
3.350E-06,0.120
3.360E-06,0.080
3.370E-06,0.060
3.380E-06,0.020
3.390E-06,0.060
3.400E-06,0.100
3.410E-06,0.120
3.420E-06,0.140
3.430E-06,0.120
3.440E-06,0.120
3.450E-06,0.140
3.460E-06,0.140
3.470E-06,0.140
3.480E-06,0.140
3.490E-06,0.080
3.500E-06,0.080
3.510E-06,0.020
3.520E-06,-0.020
3.530E-06,-0.100
3.540E-06,-0.080
3.550E-06,-0.100
3.560E-06,-0.140
3.570E-06,-0.140
3.580E-06,-0.140
3.590E-06,-0.120
3.600E-06,-0.140
3.610E-06,-0.120
3.620E-06,-0.020
3.630E-06,0.040
3.640E-06,0.100
3.650E-06,0.180
3.660E-06,0.260
3.670E-06,0.300
3.680E-06,0.300
3.690E-06,0.320
3.700E-06,0.340
3.710E-06,0.300
3.720E-06,0.300
3.730E-06,0.280
3.740E-06,0.320
3.750E-06,0.360
3.760E-06,0.440
3.770E-06,0.500
3.780E-06,0.520
3.790E-06,0.560
3.800E-06,0.640
3.810E-06,0.700
3.820E-06,0.820
3.830E-06,0.840
3.840E-06,0.880
3.850E-06,0.900
3.860E-06,0.840
3.870E-06,0.840
3.880E-06,0.760
3.890E-06,0.700
3.900E-06,0.660
3.910E-06,0.560
3.920E-06,0.540
3.930E-06,0.460
3.940E-06,0.440
3.950E-06,0.420
3.960E-06,0.460
3.970E-06,0.420
3.980E-06,0.480
3.990E-06,0.500
4.000E-06,0.520
4.010E-06,0.640
4.020E-06,0.740
4.030E-06,0.740
4.040E-06,0.660
4.050E-06,0.620
4.060E-06,0.540
4.070E-06,0.520
4.080E-06,0.540
4.090E-06,0.560
4.100E-06,0.480
4.110E-06,0.460
4.120E-06,0.420
4.130E-06,0.400
4.140E-06,0.380
4.150E-06,0.380
4.160E-06,0.340
4.170E-06,0.240
4.180E-06,0.200
4.190E-06,0.200
4.200E-06,0.100
4.210E-06,0.040
4.220E-06,0.040
4.230E-06,0.060
4.240E-06,0.020
4.250E-06,-0.020
4.260E-06,0.000
4.270E-06,0.060
4.280E-06,0.120
4.290E-06,0.180
4.300E-06,0.220
4.310E-06,0.340
4.320E-06,0.420
4.330E-06,0.520
4.340E-06,0.560
4.350E-06,0.560
4.360E-06,0.520
4.370E-06,0.420
4.380E-06,0.420
4.390E-06,0.420
4.400E-06,0.380
4.410E-06,0.320
4.420E-06,0.300
4.430E-06,0.220
4.440E-06,0.160
4.450E-06,0.120
4.460E-06,0.080
4.470E-06,0.120
4.480E-06,0.080
4.490E-06,0.100
4.500E-06,0.100
4.510E-06,0.160
4.520E-06,0.120
4.530E-06,0.120
4.540E-06,0.060
4.550E-06,0.000
4.560E-06,0.020
4.570E-06,-0.020
4.580E-06,0.000
4.590E-06,-0.020
4.600E-06,0.000
4.610E-06,0.000
4.620E-06,0.000
4.630E-06,0.040
4.640E-06,0.140
4.650E-06,0.180
4.660E-06,0.180
4.670E-06,0.240
4.680E-06,0.260
4.690E-06,0.240
4.700E-06,0.280
4.710E-06,0.260
4.720E-06,0.200
4.730E-06,0.220
4.740E-06,0.120
4.750E-06,0.140
4.760E-06,0.100
4.770E-06,0.100
4.780E-06,0.140
4.790E-06,0.120
4.800E-06,0.160
4.810E-06,0.120
4.820E-06,0.160
4.830E-06,0.180
4.840E-06,0.240
4.850E-06,0.240
4.860E-06,0.220
4.870E-06,0.200
4.880E-06,0.180
4.890E-06,0.160
4.900E-06,0.140
4.910E-06,0.100
4.920E-06,0.120
4.930E-06,0.060
4.940E-06,0.040
4.950E-06,-0.040
4.960E-06,-0.080
4.970E-06,-0.120
4.980E-06,-0.180
4.990E-06,-0.180
5.000E-06,-0.200
5.010E-06,-0.220
5.020E-06,-0.200
5.030E-06,-0.160
5.040E-06,-0.140
5.050E-06,-0.100
5.060E-06,-0.060
5.070E-06,0.000
5.080E-06,0.060
5.090E-06,0.120
5.100E-06,0.160
5.110E-06,0.160
5.120E-06,0.200
5.130E-06,0.240
5.140E-06,0.260
5.150E-06,0.260
5.160E-06,0.320
5.170E-06,0.340
5.180E-06,0.440
5.190E-06,0.520
5.200E-06,0.600
5.210E-06,0.660
5.220E-06,0.740
5.230E-06,0.780
5.240E-06,0.860
5.250E-06,0.860
5.260E-06,0.860
5.270E-06,0.860
5.280E-06,0.820
5.290E-06,0.760
5.300E-06,0.760
5.310E-06,0.740
5.320E-06,0.680
5.330E-06,0.720
5.340E-06,0.840
5.350E-06,0.780
5.360E-06,0.760
5.370E-06,0.660
5.380E-06,0.600
5.390E-06,0.520
5.400E-06,0.460
5.410E-06,0.400
5.420E-06,0.320
5.430E-06,0.260
5.440E-06,0.220
5.450E-06,0.120
5.460E-06,0.080
5.470E-06,0.020
5.480E-06,-0.040
5.490E-06,-0.140
5.500E-06,-0.220
5.510E-06,-0.260
5.520E-06,-0.260
5.530E-06,-0.200
5.540E-06,-0.060
5.550E-06,0.120
5.560E-06,0.340
5.570E-06,0.460
5.580E-06,0.600
5.590E-06,0.700
5.600E-06,0.720
5.610E-06,0.780
5.620E-06,0.780
5.630E-06,0.800
5.640E-06,0.820
5.650E-06,0.840
5.660E-06,0.840
5.670E-06,0.860
5.680E-06,0.840
5.690E-06,0.820
5.700E-06,0.760
5.710E-06,0.720
5.720E-06,0.660
5.730E-06,0.600
5.740E-06,0.500
5.750E-06,0.420
5.760E-06,0.320
5.770E-06,0.300
5.780E-06,0.260
5.790E-06,0.200
5.800E-06,0.200
5.810E-06,0.160
5.820E-06,0.120
5.830E-06,0.100
5.840E-06,0.060
5.850E-06,0.000
5.860E-06,-0.020
5.870E-06,-0.120
5.880E-06,-0.160
5.890E-06,-0.240
5.900E-06,-0.260
5.910E-06,-0.260
5.920E-06,-0.240
5.930E-06,-0.180
5.940E-06,-0.080
5.950E-06,0.120
5.960E-06,0.320
5.970E-06,0.520
5.980E-06,0.680
5.990E-06,0.760
6.000E-06,0.900
6.010E-06,0.960
6.020E-06,0.980
6.030E-06,0.980
6.040E-06,0.960
6.050E-06,0.960
6.060E-06,0.860
6.070E-06,0.740
6.080E-06,0.700
6.090E-06,0.600
6.100E-06,0.520
6.110E-06,0.360
6.120E-06,0.280
6.130E-06,0.280
6.140E-06,0.320
6.150E-06,0.420
6.160E-06,0.600
6.170E-06,0.880
6.180E-06,1.160
6.190E-06,1.500
6.200E-06,1.720
6.210E-06,1.860
6.220E-06,1.900
6.230E-06,1.880
6.240E-06,1.840
6.250E-06,1.760
6.260E-06,1.600
6.270E-06,1.460
6.280E-06,1.360
6.290E-06,1.280
6.300E-06,1.280
6.310E-06,1.300
6.320E-06,1.340
6.330E-06,1.440
6.340E-06,1.460
6.350E-06,1.480
6.360E-06,1.440
6.370E-06,1.440
6.380E-06,1.400
6.390E-06,1.340
6.400E-06,1.320
6.410E-06,1.260
6.420E-06,1.240
6.430E-06,1.200
6.440E-06,1.180
6.450E-06,1.180
6.460E-06,1.220
6.470E-06,1.280
6.480E-06,1.320
6.490E-06,1.340
6.500E-06,1.340
6.510E-06,1.360
6.520E-06,1.360
6.530E-06,1.280
6.540E-06,1.240
6.550E-06,1.260
6.560E-06,1.220
6.570E-06,1.160
6.580E-06,1.120
6.590E-06,1.000
6.600E-06,0.960
6.610E-06,0.860
6.620E-06,0.800
6.630E-06,0.720
6.640E-06,0.680
6.650E-06,0.640
6.660E-06,0.600
6.670E-06,0.600
6.680E-06,0.540
6.690E-06,0.560
6.700E-06,0.520
6.710E-06,0.460
6.720E-06,0.460
6.730E-06,0.420
6.740E-06,0.380
6.750E-06,0.340
6.760E-06,0.340
6.770E-06,0.340
6.780E-06,0.400
6.790E-06,0.480
6.800E-06,0.560
6.810E-06,0.640
6.820E-06,0.680
6.830E-06,0.680
6.840E-06,0.620
6.850E-06,0.540
6.860E-06,0.500
6.870E-06,0.480
6.880E-06,0.420
6.890E-06,0.480
6.900E-06,0.520
6.910E-06,0.580
6.920E-06,0.560
6.930E-06,0.620
6.940E-06,0.640
6.950E-06,0.740
6.960E-06,0.880
6.970E-06,1.040
6.980E-06,1.300
6.990E-06,1.600
7.000E-06,1.940
7.010E-06,2.320
7.020E-06,2.720
7.030E-06,2.760
7.040E-06,2.760
7.050E-06,2.740
7.060E-06,2.760
7.070E-06,2.760
7.080E-06,2.740
7.090E-06,2.760
7.100E-06,2.780
7.110E-06,2.760
7.120E-06,2.780
7.130E-06,2.760
7.140E-06,2.780
7.150E-06,2.760
7.160E-06,2.780
7.170E-06,2.760
7.180E-06,2.760
7.190E-06,2.740
7.200E-06,2.760
7.210E-06,2.780
7.220E-06,2.760
7.230E-06,2.740
7.240E-06,2.760
7.250E-06,2.760
7.260E-06,2.780
7.270E-06,2.760
7.280E-06,2.760
7.290E-06,2.480
7.300E-06,2.220
7.310E-06,1.960
7.320E-06,1.740
7.330E-06,1.500
7.340E-06,1.340
7.350E-06,1.180
7.360E-06,1.140
7.370E-06,1.120
7.380E-06,1.060
7.390E-06,1.020
7.400E-06,0.980
7.410E-06,0.960
7.420E-06,0.940
7.430E-06,0.960
7.440E-06,0.900
7.450E-06,0.920
7.460E-06,0.960
7.470E-06,0.980
7.480E-06,1.020
7.490E-06,1.040
7.500E-06,1.020
7.510E-06,1.000
7.520E-06,0.860
7.530E-06,0.820
7.540E-06,0.760
7.550E-06,0.720
7.560E-06,0.740
7.570E-06,0.700
7.580E-06,0.760
7.590E-06,0.760
7.600E-06,0.720
7.610E-06,0.720
7.620E-06,0.720
7.630E-06,0.720
7.640E-06,0.660
7.650E-06,0.620
7.660E-06,0.540
7.670E-06,0.500
7.680E-06,0.480
7.690E-06,0.440
7.700E-06,0.520
7.710E-06,0.540
