mediciones/5-27/-57.5/WaveData50318.csv

#timebase=2000000(ps)
,#voltbase=1000000(mv/100)
#size=4000
-5.650E-06,0.040
-5.640E-06,0.000
-5.630E-06,0.040
-5.620E-06,0.080
-5.610E-06,0.080
-5.600E-06,0.000
-5.590E-06,0.000
-5.580E-06,0.040
-5.570E-06,0.000
-5.560E-06,0.000
-5.550E-06,0.040
-5.540E-06,0.080
-5.530E-06,0.000
-5.520E-06,0.040
-5.510E-06,0.040
-5.500E-06,0.040
-5.490E-06,0.040
-5.480E-06,0.040
-5.470E-06,0.040
-5.460E-06,0.080
-5.450E-06,0.040
-5.440E-06,0.040
-5.430E-06,0.040
-5.420E-06,0.040
-5.410E-06,0.040
-5.400E-06,0.080
-5.390E-06,0.040
-5.380E-06,0.040
-5.370E-06,0.000
-5.360E-06,0.000
-5.350E-06,0.040
-5.340E-06,0.040
-5.330E-06,0.040
-5.320E-06,0.080
-5.310E-06,0.000
-5.300E-06,0.000
-5.290E-06,0.080
-5.280E-06,0.080
-5.270E-06,0.040
-5.260E-06,0.080
-5.250E-06,0.040
-5.240E-06,0.080
-5.230E-06,0.080
-5.220E-06,0.080
-5.210E-06,0.000
-5.200E-06,0.040
-5.190E-06,0.080
-5.180E-06,0.000
-5.170E-06,0.040
-5.160E-06,0.040
-5.150E-06,0.040
-5.140E-06,0.040
-5.130E-06,0.040
-5.120E-06,0.040
-5.110E-06,0.000
-5.100E-06,0.040
-5.090E-06,0.080
-5.080E-06,0.080
-5.070E-06,0.080
-5.060E-06,0.040
-5.050E-06,0.040
-5.040E-06,0.080
-5.030E-06,0.040
-5.020E-06,0.080
-5.010E-06,0.040
-5.000E-06,0.040
-4.990E-06,0.080
-4.980E-06,0.040
-4.970E-06,0.080
-4.960E-06,0.000
-4.950E-06,0.000
-4.940E-06,0.080
-4.930E-06,0.040
-4.920E-06,0.040
-4.910E-06,0.040
-4.900E-06,0.040
-4.890E-06,0.080
-4.880E-06,0.120
-4.870E-06,0.040
-4.860E-06,0.000
-4.850E-06,0.040
-4.840E-06,0.000
-4.830E-06,0.000
-4.820E-06,0.040
-4.810E-06,0.080
-4.800E-06,0.040
-4.790E-06,0.080
-4.780E-06,0.080
-4.770E-06,0.040
-4.760E-06,0.040
-4.750E-06,0.040
-4.740E-06,0.080
-4.730E-06,0.080
-4.720E-06,0.080
-4.710E-06,0.000
-4.700E-06,0.040
-4.690E-06,0.000
-4.680E-06,0.040
-4.670E-06,0.080
-4.660E-06,0.040
-4.650E-06,0.040
-4.640E-06,0.080
-4.630E-06,0.040
-4.620E-06,0.040
-4.610E-06,0.080
-4.600E-06,0.000
-4.590E-06,0.040
-4.580E-06,0.040
-4.570E-06,0.000
-4.560E-06,0.040
-4.550E-06,-0.040
-4.540E-06,0.080
-4.530E-06,0.040
-4.520E-06,0.080
-4.510E-06,0.080
-4.500E-06,0.080
-4.490E-06,0.080
-4.480E-06,0.040
-4.470E-06,0.040
-4.460E-06,0.040
-4.450E-06,0.080
-4.440E-06,0.040
-4.430E-06,0.080
-4.420E-06,0.040
-4.410E-06,0.080
-4.400E-06,0.080
-4.390E-06,0.080
-4.380E-06,0.080
-4.370E-06,0.040
-4.360E-06,0.080
-4.350E-06,0.080
-4.340E-06,0.080
-4.330E-06,0.080
-4.320E-06,0.040
-4.310E-06,0.080
-4.300E-06,0.080
-4.290E-06,0.160
-4.280E-06,0.040
-4.270E-06,0.080
-4.260E-06,0.080
-4.250E-06,0.080
-4.240E-06,0.160
-4.230E-06,0.160
-4.220E-06,0.160
-4.210E-06,0.040
-4.200E-06,0.080
-4.190E-06,0.120
-4.180E-06,0.080
-4.170E-06,0.080
-4.160E-06,0.040
-4.150E-06,0.040
-4.140E-06,0.080
-4.130E-06,0.040
-4.120E-06,0.080
-4.110E-06,0.120
-4.100E-06,0.120
-4.090E-06,0.000
-4.080E-06,0.040
-4.070E-06,0.040
-4.060E-06,0.000
-4.050E-06,0.080
-4.040E-06,0.000
-4.030E-06,0.000
-4.020E-06,0.000
-4.010E-06,0.040
-4.000E-06,-0.040
-3.990E-06,0.040
-3.980E-06,0.000
-3.970E-06,0.000
-3.960E-06,0.000
-3.950E-06,-0.040
-3.940E-06,0.000
-3.930E-06,0.000
-3.920E-06,-0.040
-3.910E-06,0.040
-3.900E-06,0.040
-3.890E-06,0.080
-3.880E-06,0.000
-3.870E-06,0.000
-3.860E-06,0.040
-3.850E-06,0.040
-3.840E-06,0.040
-3.830E-06,0.040
-3.820E-06,0.080
-3.810E-06,0.040
-3.800E-06,0.080
-3.790E-06,0.000
-3.780E-06,0.000
-3.770E-06,0.040
-3.760E-06,0.040
-3.750E-06,0.040
-3.740E-06,0.000
-3.730E-06,0.040
-3.720E-06,0.000
-3.710E-06,0.040
-3.700E-06,0.000
-3.690E-06,0.040
-3.680E-06,0.080
-3.670E-06,0.080
-3.660E-06,0.000
-3.650E-06,0.040
-3.640E-06,0.040
-3.630E-06,0.080
-3.620E-06,0.000
-3.610E-06,0.080
-3.600E-06,0.040
-3.590E-06,0.080
-3.580E-06,0.080
-3.570E-06,0.040
-3.560E-06,0.040
-3.550E-06,0.080
-3.540E-06,0.040
-3.530E-06,0.040
-3.520E-06,0.120
-3.510E-06,0.120
-3.500E-06,0.080
-3.490E-06,0.120
-3.480E-06,0.040
-3.470E-06,0.040
-3.460E-06,0.080
-3.450E-06,0.080
-3.440E-06,0.120
-3.430E-06,0.080
-3.420E-06,0.000
-3.410E-06,0.040
-3.400E-06,0.040
-3.390E-06,0.040
-3.380E-06,0.000
-3.370E-06,0.000
-3.360E-06,0.080
-3.350E-06,0.000
-3.340E-06,0.040
-3.330E-06,0.000
-3.320E-06,0.000
-3.310E-06,0.040
-3.300E-06,0.080
-3.290E-06,0.080
-3.280E-06,-0.040
-3.270E-06,0.040
-3.260E-06,0.040
-3.250E-06,0.000
-3.240E-06,0.080
-3.230E-06,0.040
-3.220E-06,0.080
-3.210E-06,-0.040
-3.200E-06,0.040
-3.190E-06,0.040
-3.180E-06,0.000
-3.170E-06,0.040
-3.160E-06,0.040
-3.150E-06,0.040
-3.140E-06,0.000
-3.130E-06,0.000
-3.120E-06,0.040
-3.110E-06,0.120
-3.100E-06,0.080
-3.090E-06,0.080
-3.080E-06,0.080
-3.070E-06,0.080
-3.060E-06,-0.040
-3.050E-06,0.040
-3.040E-06,0.040
-3.030E-06,0.040
-3.020E-06,0.040
-3.010E-06,0.080
-3.000E-06,0.040
-2.990E-06,0.080
-2.980E-06,0.040
-2.970E-06,0.080
-2.960E-06,0.040
-2.950E-06,0.080
-2.940E-06,0.080
-2.930E-06,0.120
-2.920E-06,0.120
-2.910E-06,0.120
-2.900E-06,0.120
-2.890E-06,0.040
-2.880E-06,0.040
-2.870E-06,0.080
-2.860E-06,0.040
-2.850E-06,0.080
-2.840E-06,0.080
-2.830E-06,0.080
-2.820E-06,0.080
-2.810E-06,0.080
-2.800E-06,0.040
-2.790E-06,0.000
-2.780E-06,0.000
-2.770E-06,0.080
-2.760E-06,0.040
-2.750E-06,0.040
-2.740E-06,0.080
-2.730E-06,0.040
-2.720E-06,0.080
-2.710E-06,0.040
-2.700E-06,0.080
-2.690E-06,0.040
-2.680E-06,0.040
-2.670E-06,0.080
-2.660E-06,0.040
-2.650E-06,0.080
-2.640E-06,0.080
-2.630E-06,0.080
-2.620E-06,0.080
-2.610E-06,0.040
-2.600E-06,0.080
-2.590E-06,0.080
-2.580E-06,0.080
-2.570E-06,0.040
-2.560E-06,0.000
-2.550E-06,0.080
-2.540E-06,0.000
-2.530E-06,0.040
-2.520E-06,0.080
-2.510E-06,0.120
-2.500E-06,0.040
-2.490E-06,0.080
-2.480E-06,0.080
-2.470E-06,0.120
-2.460E-06,0.160
-2.450E-06,0.200
-2.440E-06,0.160
-2.430E-06,0.160
-2.420E-06,0.160
-2.410E-06,0.160
-2.400E-06,0.160
-2.390E-06,0.160
-2.380E-06,0.120
-2.370E-06,0.160
-2.360E-06,0.200
-2.350E-06,0.120
-2.340E-06,0.200
-2.330E-06,0.080
-2.320E-06,0.080
-2.310E-06,0.120
-2.300E-06,0.080
-2.290E-06,0.120
-2.280E-06,0.160
-2.270E-06,0.120
-2.260E-06,0.120
-2.250E-06,0.160
-2.240E-06,0.120
-2.230E-06,0.160
-2.220E-06,0.120
-2.210E-06,0.040
-2.200E-06,0.080
-2.190E-06,0.040
-2.180E-06,0.040
-2.170E-06,0.080
-2.160E-06,0.080
-2.150E-06,0.080
-2.140E-06,0.080
-2.130E-06,0.040
-2.120E-06,0.040
-2.110E-06,-0.040
-2.100E-06,0.000
-2.090E-06,0.000
-2.080E-06,0.080
-2.070E-06,0.120
-2.060E-06,0.080
-2.050E-06,0.160
-2.040E-06,0.160
-2.030E-06,0.160
-2.020E-06,0.160
-2.010E-06,0.160
-2.000E-06,0.160
-1.990E-06,0.240
-1.980E-06,0.240
-1.970E-06,0.280
-1.960E-06,0.200
-1.950E-06,0.240
-1.940E-06,0.240
-1.930E-06,0.240
-1.920E-06,0.200
-1.910E-06,0.280
-1.900E-06,0.320
-1.890E-06,0.280
-1.880E-06,0.280
-1.870E-06,0.240
-1.860E-06,0.240
-1.850E-06,0.320
-1.840E-06,0.360
-1.830E-06,0.280
-1.820E-06,0.280
-1.810E-06,0.240
-1.800E-06,0.240
-1.790E-06,0.280
-1.780E-06,0.280
-1.770E-06,0.280
-1.760E-06,0.200
-1.750E-06,0.240
-1.740E-06,0.240
-1.730E-06,0.200
-1.720E-06,0.240
-1.710E-06,0.320
-1.700E-06,0.360
-1.690E-06,0.240
-1.680E-06,0.280
-1.670E-06,0.320
-1.660E-06,0.280
-1.650E-06,0.280
-1.640E-06,0.240
-1.630E-06,0.240
-1.620E-06,0.160
-1.610E-06,0.120
-1.600E-06,0.200
-1.590E-06,0.240
-1.580E-06,0.280
-1.570E-06,0.320
-1.560E-06,0.320
-1.550E-06,0.400
-1.540E-06,0.400
-1.530E-06,0.400
-1.520E-06,0.440
-1.510E-06,0.480
-1.500E-06,0.520
-1.490E-06,0.680
-1.480E-06,0.600
-1.470E-06,0.600
-1.460E-06,0.560
-1.450E-06,0.680
-1.440E-06,0.600
-1.430E-06,0.680
-1.420E-06,0.760
-1.410E-06,0.680
-1.400E-06,0.720
-1.390E-06,0.680
-1.380E-06,0.520
-1.370E-06,0.560
-1.360E-06,0.520
-1.350E-06,0.640
-1.340E-06,0.640
-1.330E-06,0.640
-1.320E-06,0.680
-1.310E-06,0.600
-1.300E-06,0.520
-1.290E-06,0.560
-1.280E-06,0.680
-1.270E-06,0.720
-1.260E-06,0.800
-1.250E-06,0.840
-1.240E-06,0.800
-1.230E-06,0.800
-1.220E-06,0.760
-1.210E-06,0.760
-1.200E-06,0.800
-1.190E-06,0.760
-1.180E-06,0.840
-1.170E-06,0.760
-1.160E-06,0.800
-1.150E-06,0.720
-1.140E-06,0.680
-1.130E-06,0.640
-1.120E-06,0.560
-1.110E-06,0.560
-1.100E-06,0.480
-1.090E-06,0.440
-1.080E-06,0.360
-1.070E-06,0.280
-1.060E-06,0.240
-1.050E-06,0.240
-1.040E-06,0.120
-1.030E-06,0.160
-1.020E-06,0.200
-1.010E-06,0.240
-1.000E-06,0.320
-9.900E-07,0.320
-9.800E-07,0.360
-9.700E-07,0.320
-9.600E-07,0.360
-9.500E-07,0.400
-9.400E-07,0.440
-9.300E-07,0.360
-9.200E-07,0.320
-9.100E-07,0.360
-9.000E-07,0.320
-8.900E-07,0.360
-8.800E-07,0.320
-8.700E-07,0.280
-8.600E-07,0.320
-8.500E-07,0.360
-8.400E-07,0.160
-8.300E-07,0.200
-8.200E-07,0.200
-8.100E-07,0.200
-8.000E-07,0.200
-7.900E-07,0.280
-7.800E-07,0.440
-7.700E-07,0.480
-7.600E-07,0.560
-7.500E-07,0.600
-7.400E-07,0.640
-7.300E-07,0.680
-7.200E-07,0.720
-7.100E-07,0.800
-7.000E-07,0.920
-6.900E-07,0.880
-6.800E-07,0.840
-6.700E-07,0.840
-6.600E-07,0.800
-6.500E-07,0.760
-6.400E-07,0.800
-6.300E-07,0.920
-6.200E-07,0.960
-6.100E-07,1.040
-6.000E-07,1.000
-5.900E-07,1.120
-5.800E-07,1.160
-5.700E-07,1.160
-5.600E-07,1.400
-5.500E-07,1.480
-5.400E-07,1.560
-5.300E-07,1.560
-5.200E-07,1.680
-5.100E-07,1.720
-5.000E-07,1.880
-4.900E-07,2.080
-4.800E-07,2.000
-4.700E-07,1.920
-4.600E-07,1.960
-4.500E-07,1.880
-4.400E-07,1.920
-4.300E-07,1.960
-4.200E-07,1.880
-4.100E-07,1.760
-4.000E-07,1.680
-3.900E-07,1.520
-3.800E-07,1.480
-3.700E-07,1.520
-3.600E-07,1.480
-3.500E-07,1.400
-3.400E-07,1.280
-3.300E-07,1.160
-3.200E-07,1.160
-3.100E-07,1.000
-3.000E-07,0.960
-2.900E-07,0.920
-2.800E-07,0.880
-2.700E-07,0.800
-2.600E-07,0.840
-2.500E-07,0.760
-2.400E-07,0.800
-2.300E-07,0.720
-2.200E-07,0.600
-2.100E-07,0.600
-2.000E-07,0.560
-1.900E-07,0.480
-1.800E-07,0.640
-1.700E-07,0.480
-1.600E-07,0.400
-1.500E-07,0.360
-1.400E-07,0.080
-1.300E-07,0.400
-1.200E-07,0.200
-1.100E-07,0.120
-1.000E-07,0.360
-9.000E-08,0.120
-8.000E-08,0.160
-7.000E-08,0.360
-6.000E-08,0.680
-5.000E-08,0.400
-4.000E-08,0.600
-3.000E-08,0.680
-2.000E-08,0.000
-1.000E-08,0.160
0.000E+00,-0.080
1.000E-08,0.560
2.000E-08,0.560
3.000E-08,1.880
4.000E-08,1.800
5.000E-08,1.080
6.000E-08,1.200
7.000E-08,0.040
8.000E-08,0.080
9.000E-08,0.640
1.000E-07,1.240
1.100E-07,1.720
1.200E-07,2.360
1.300E-07,1.320
1.400E-07,0.880
1.500E-07,0.800
1.600E-07,0.320
1.700E-07,1.160
1.800E-07,1.560
1.900E-07,1.520
2.000E-07,1.560
2.100E-07,1.160
2.200E-07,0.640
2.300E-07,0.480
2.400E-07,0.160
2.500E-07,0.360
2.600E-07,0.400
2.700E-07,0.560
2.800E-07,0.480
2.900E-07,0.200
3.000E-07,0.120
3.100E-07,-0.120
3.200E-07,-0.160
3.300E-07,-0.120
3.400E-07,-0.160
3.500E-07,-0.240
3.600E-07,-0.240
3.700E-07,-0.320
3.800E-07,-0.440
3.900E-07,-0.560
4.000E-07,-0.760
4.100E-07,-0.960
4.200E-07,-0.760
4.300E-07,-0.880
4.400E-07,-1.040
4.500E-07,-1.080
4.600E-07,-1.480
4.700E-07,-1.680
4.800E-07,-1.720
4.900E-07,-1.800
5.000E-07,-1.720
5.100E-07,-1.800
5.200E-07,-1.840
5.300E-07,-1.760
5.400E-07,-1.720
5.500E-07,-1.600
5.600E-07,-1.480
5.700E-07,-1.520
5.800E-07,-1.480
5.900E-07,-1.280
6.000E-07,-1.200
6.100E-07,-1.000
6.200E-07,-0.960
6.300E-07,-0.960
6.400E-07,-0.960
6.500E-07,-0.960
6.600E-07,-0.920
6.700E-07,-0.960
6.800E-07,-0.960
6.900E-07,-1.040
7.000E-07,-1.240
7.100E-07,-1.400
7.200E-07,-1.520
7.300E-07,-1.880
7.400E-07,-2.240
7.500E-07,-2.680
7.600E-07,-3.200
7.700E-07,-3.600
7.800E-07,-4.040
7.900E-07,-4.680
8.000E-07,-5.040
8.100E-07,-5.240
8.200E-07,-5.240
8.300E-07,-5.240
8.400E-07,-5.200
8.500E-07,-5.200
8.600E-07,-5.200
8.700E-07,-5.240
8.800E-07,-5.240
8.900E-07,-5.240
9.000E-07,-5.240
9.100E-07,-5.240
9.200E-07,-5.240
9.300E-07,-5.240
9.400E-07,-5.200
9.500E-07,-5.200
9.600E-07,-5.200
9.700E-07,-5.200
9.800E-07,-5.240
9.900E-07,-5.240
1.000E-06,-5.200
1.010E-06,-5.200
1.020E-06,-5.240
1.030E-06,-5.200
1.040E-06,-5.200
1.050E-06,-5.240
1.060E-06,-5.240
1.070E-06,-5.240
1.080E-06,-5.240
1.090E-06,-5.240
1.100E-06,-5.160
1.110E-06,-4.640
1.120E-06,-4.480
1.130E-06,-4.200
1.140E-06,-4.120
1.150E-06,-4.360
1.160E-06,-4.200
1.170E-06,-4.280
1.180E-06,-4.080
1.190E-06,-3.880
1.200E-06,-4.000
1.210E-06,-3.880
1.220E-06,-4.200
1.230E-06,-4.400
1.240E-06,-4.280
1.250E-06,-4.400
1.260E-06,-4.080
1.270E-06,-4.000
1.280E-06,-3.920
1.290E-06,-3.840
1.300E-06,-3.800
1.310E-06,-3.720
1.320E-06,-3.560
1.330E-06,-3.520
1.340E-06,-3.280
1.350E-06,-3.000
1.360E-06,-3.080
1.370E-06,-3.040
1.380E-06,-3.000
1.390E-06,-2.960
1.400E-06,-2.720
1.410E-06,-2.600
1.420E-06,-2.480
1.430E-06,-2.320
1.440E-06,-2.320
1.450E-06,-2.360
1.460E-06,-2.320
1.470E-06,-2.360
1.480E-06,-2.240
1.490E-06,-2.240
1.500E-06,-2.080
1.510E-06,-1.960
1.520E-06,-1.960
1.530E-06,-1.880
1.540E-06,-1.840
1.550E-06,-1.880
1.560E-06,-1.800
1.570E-06,-1.760
1.580E-06,-1.720
1.590E-06,-1.760
1.600E-06,-1.640
1.610E-06,-1.680
1.620E-06,-1.640
1.630E-06,-1.760
1.640E-06,-1.720
1.650E-06,-1.720
1.660E-06,-1.840
1.670E-06,-1.800
1.680E-06,-1.800
1.690E-06,-1.760
1.700E-06,-1.680
1.710E-06,-1.760
1.720E-06,-1.880
1.730E-06,-2.160
1.740E-06,-2.680
1.750E-06,-3.000
1.760E-06,-3.320
1.770E-06,-3.520
1.780E-06,-3.720
1.790E-06,-3.960
1.800E-06,-4.160
1.810E-06,-4.400
1.820E-06,-4.520
1.830E-06,-4.600
1.840E-06,-4.600
1.850E-06,-4.600
1.860E-06,-4.600
1.870E-06,-4.600
1.880E-06,-4.600
1.890E-06,-4.720
1.900E-06,-4.680
1.910E-06,-4.720
1.920E-06,-4.720
1.930E-06,-4.720
1.940E-06,-4.720
1.950E-06,-4.760
1.960E-06,-4.880
1.970E-06,-4.920
1.980E-06,-4.920
1.990E-06,-4.920
2.000E-06,-4.880
2.010E-06,-4.840
2.020E-06,-4.800
2.030E-06,-4.680
2.040E-06,-4.600
2.050E-06,-4.480
2.060E-06,-4.400
2.070E-06,-4.240
2.080E-06,-4.120
2.090E-06,-3.920
2.100E-06,-3.800
2.110E-06,-3.680
2.120E-06,-3.560
2.130E-06,-3.520
2.140E-06,-3.560
2.150E-06,-3.520
2.160E-06,-3.600
2.170E-06,-3.760
2.180E-06,-3.960
2.190E-06,-4.040
2.200E-06,-4.080
2.210E-06,-4.160
2.220E-06,-4.160
2.230E-06,-4.240
2.240E-06,-4.480
2.250E-06,-4.560
2.260E-06,-4.760
2.270E-06,-4.880
2.280E-06,-4.880
2.290E-06,-5.000
2.300E-06,-5.120
2.310E-06,-5.160
2.320E-06,-5.040
2.330E-06,-4.880
2.340E-06,-4.640
2.350E-06,-4.440
2.360E-06,-4.120
2.370E-06,-3.880
2.380E-06,-3.640
2.390E-06,-3.320
2.400E-06,-3.040
2.410E-06,-2.840
2.420E-06,-2.560
2.430E-06,-2.400
2.440E-06,-2.320
2.450E-06,-2.200
2.460E-06,-2.200
2.470E-06,-2.240
2.480E-06,-2.280
2.490E-06,-2.400
2.500E-06,-2.520
2.510E-06,-2.560
2.520E-06,-2.720
2.530E-06,-2.720
2.540E-06,-2.880
2.550E-06,-3.040
2.560E-06,-3.200
2.570E-06,-3.280
2.580E-06,-3.320
2.590E-06,-3.280
2.600E-06,-3.320
2.610E-06,-3.320
2.620E-06,-3.280
2.630E-06,-3.280
2.640E-06,-3.240
2.650E-06,-3.200
2.660E-06,-3.160
2.670E-06,-3.120
2.680E-06,-3.160
2.690E-06,-3.200
2.700E-06,-3.120
2.710E-06,-3.080
2.720E-06,-3.080
2.730E-06,-3.000
2.740E-06,-2.920
2.750E-06,-2.920
2.760E-06,-2.840
2.770E-06,-2.880
2.780E-06,-2.840
2.790E-06,-2.800
2.800E-06,-2.720
2.810E-06,-2.680
2.820E-06,-2.600
2.830E-06,-2.520
2.840E-06,-2.440
2.850E-06,-2.320
2.860E-06,-2.320
2.870E-06,-2.200
2.880E-06,-2.160
2.890E-06,-2.120
2.900E-06,-2.000
2.910E-06,-1.880
2.920E-06,-1.840
2.930E-06,-1.800
2.940E-06,-1.760
2.950E-06,-1.720
2.960E-06,-1.720
2.970E-06,-1.680
2.980E-06,-1.680
2.990E-06,-1.680
3.000E-06,-1.720
3.010E-06,-1.720
3.020E-06,-1.720
3.030E-06,-1.720
3.040E-06,-1.800
3.050E-06,-1.840
3.060E-06,-1.840
3.070E-06,-1.880
3.080E-06,-1.920
3.090E-06,-1.840
3.100E-06,-1.840
3.110E-06,-1.840
3.120E-06,-1.880
3.130E-06,-1.840
3.140E-06,-1.760
3.150E-06,-1.760
3.160E-06,-1.720
3.170E-06,-1.760
3.180E-06,-1.680
3.190E-06,-1.680
3.200E-06,-1.600
3.210E-06,-1.600
3.220E-06,-1.600
3.230E-06,-1.600
3.240E-06,-1.560
3.250E-06,-1.560
3.260E-06,-1.520
3.270E-06,-1.480
3.280E-06,-1.480
3.290E-06,-1.400
3.300E-06,-1.320
3.310E-06,-1.280
3.320E-06,-1.200
3.330E-06,-1.200
3.340E-06,-1.120
3.350E-06,-1.120
3.360E-06,-1.160
3.370E-06,-1.240
3.380E-06,-1.240
3.390E-06,-1.200
3.400E-06,-1.200
3.410E-06,-1.240
3.420E-06,-1.280
3.430E-06,-1.240
3.440E-06,-1.320
3.450E-06,-1.280
3.460E-06,-1.320
3.470E-06,-1.400
3.480E-06,-1.520
3.490E-06,-1.680
3.500E-06,-1.800
3.510E-06,-1.880
3.520E-06,-2.000
3.530E-06,-2.040
3.540E-06,-2.120
3.550E-06,-2.160
3.560E-06,-2.240
3.570E-06,-2.240
3.580E-06,-2.200
3.590E-06,-2.240
3.600E-06,-2.200
3.610E-06,-2.160
3.620E-06,-2.160
3.630E-06,-2.120
3.640E-06,-2.080
3.650E-06,-2.120
3.660E-06,-2.040
3.670E-06,-2.000
3.680E-06,-1.960
3.690E-06,-1.840
3.700E-06,-1.840
3.710E-06,-1.760
3.720E-06,-1.720
3.730E-06,-1.640
3.740E-06,-1.520
3.750E-06,-1.480
3.760E-06,-1.320
3.770E-06,-1.280
3.780E-06,-1.160
3.790E-06,-1.200
3.800E-06,-1.080
3.810E-06,-1.000
3.820E-06,-1.000
3.830E-06,-0.880
3.840E-06,-0.920
3.850E-06,-0.880
3.860E-06,-0.960
3.870E-06,-0.920
3.880E-06,-0.880
3.890E-06,-0.960
3.900E-06,-0.920
3.910E-06,-0.960
3.920E-06,-1.000
3.930E-06,-0.920
3.940E-06,-0.920
3.950E-06,-1.000
3.960E-06,-1.000
3.970E-06,-1.080
3.980E-06,-1.080
3.990E-06,-1.120
4.000E-06,-1.040
4.010E-06,-1.040
4.020E-06,-1.000
4.030E-06,-0.960
4.040E-06,-0.880
4.050E-06,-0.920
4.060E-06,-0.880
4.070E-06,-0.880
4.080E-06,-0.960
4.090E-06,-0.960
4.100E-06,-1.080
4.110E-06,-1.080
4.120E-06,-1.160
4.130E-06,-1.280
4.140E-06,-1.280
4.150E-06,-1.280
4.160E-06,-1.320
4.170E-06,-1.280
4.180E-06,-1.280
4.190E-06,-1.200
4.200E-06,-1.080
4.210E-06,-1.040
4.220E-06,-0.880
4.230E-06,-0.840
4.240E-06,-0.760
4.250E-06,-0.680
4.260E-06,-0.760
4.270E-06,-0.760
4.280E-06,-0.880
4.290E-06,-0.880
4.300E-06,-1.000
4.310E-06,-1.120
4.320E-06,-1.200
4.330E-06,-1.240
4.340E-06,-1.320
4.350E-06,-1.360
4.360E-06,-1.320
4.370E-06,-1.360
4.380E-06,-1.280
4.390E-06,-1.240
4.400E-06,-1.080
4.410E-06,-0.960
4.420E-06,-0.840
4.430E-06,-0.800
4.440E-06,-0.680
4.450E-06,-0.680
4.460E-06,-0.640
4.470E-06,-0.720
4.480E-06,-0.760
4.490E-06,-0.840
4.500E-06,-0.840
4.510E-06,-0.840
4.520E-06,-0.720
4.530E-06,-0.760
4.540E-06,-0.720
4.550E-06,-0.680
4.560E-06,-0.600
4.570E-06,-0.520
4.580E-06,-0.320
4.590E-06,-0.200
4.600E-06,-0.080
4.610E-06,0.000
4.620E-06,0.080
4.630E-06,0.120
4.640E-06,0.000
4.650E-06,0.000
4.660E-06,-0.080
4.670E-06,-0.240
4.680E-06,-0.280
4.690E-06,-0.360
4.700E-06,-0.440
4.710E-06,-0.480
4.720E-06,-0.400
4.730E-06,-0.320
4.740E-06,-0.280
4.750E-06,-0.280
4.760E-06,-0.280
4.770E-06,-0.240
4.780E-06,-0.200
4.790E-06,-0.200
4.800E-06,-0.280
4.810E-06,-0.360
4.820E-06,-0.360
4.830E-06,-0.440
4.840E-06,-0.440
4.850E-06,-0.480
4.860E-06,-0.520
4.870E-06,-0.480
4.880E-06,-0.600
4.890E-06,-0.640
4.900E-06,-0.680
4.910E-06,-0.760
4.920E-06,-0.840
4.930E-06,-0.920
4.940E-06,-1.000
4.950E-06,-1.160
4.960E-06,-1.240
4.970E-06,-1.280
4.980E-06,-1.320
4.990E-06,-1.360
5.000E-06,-1.440
5.010E-06,-1.480
5.020E-06,-1.440
5.030E-06,-1.480
5.040E-06,-1.400
5.050E-06,-1.360
5.060E-06,-1.360
5.070E-06,-1.200
5.080E-06,-1.120
5.090E-06,-0.880
5.100E-06,-0.760
5.110E-06,-0.600
5.120E-06,-0.480
5.130E-06,-0.280
5.140E-06,-0.120
5.150E-06,0.000
5.160E-06,0.040
5.170E-06,0.120
5.180E-06,0.200
5.190E-06,0.160
5.200E-06,0.200
5.210E-06,0.280
5.220E-06,0.280
5.230E-06,0.200
5.240E-06,0.160
5.250E-06,0.080
5.260E-06,0.000
5.270E-06,-0.120
5.280E-06,-0.120
5.290E-06,-0.240
5.300E-06,-0.360
5.310E-06,-0.320
5.320E-06,-0.320
5.330E-06,-0.320
5.340E-06,-0.360
5.350E-06,-0.360
5.360E-06,-0.400
5.370E-06,-0.360
5.380E-06,-0.360
5.390E-06,-0.360
5.400E-06,-0.400
5.410E-06,-0.360
5.420E-06,-0.320
5.430E-06,-0.360
5.440E-06,-0.320
5.450E-06,-0.320
5.460E-06,-0.240
5.470E-06,-0.200
5.480E-06,-0.080
5.490E-06,0.040
5.500E-06,0.120
5.510E-06,0.320
5.520E-06,0.320
5.530E-06,0.440
5.540E-06,0.440
5.550E-06,0.440
5.560E-06,0.480
5.570E-06,0.520
5.580E-06,0.520
5.590E-06,0.440
5.600E-06,0.440
5.610E-06,0.360
5.620E-06,0.320
5.630E-06,0.320
5.640E-06,0.240
5.650E-06,0.200
5.660E-06,0.160
5.670E-06,0.280
5.680E-06,0.240
5.690E-06,0.240
5.700E-06,0.280
5.710E-06,0.320
5.720E-06,0.400
5.730E-06,0.480
5.740E-06,0.560
5.750E-06,0.680
5.760E-06,0.720
5.770E-06,0.720
5.780E-06,0.680
5.790E-06,0.640
5.800E-06,0.520
5.810E-06,0.360
5.820E-06,0.120
5.830E-06,-0.160
5.840E-06,-0.400
5.850E-06,-0.640
5.860E-06,-0.920
5.870E-06,-1.160
5.880E-06,-1.160
5.890E-06,-1.160
5.900E-06,-1.200
5.910E-06,-1.200
5.920E-06,-1.040
5.930E-06,-1.000
5.940E-06,-0.880
5.950E-06,-0.720
5.960E-06,-0.680
5.970E-06,-0.600
5.980E-06,-0.520
5.990E-06,-0.480
6.000E-06,-0.440
6.010E-06,-0.360
6.020E-06,-0.320
6.030E-06,-0.240
6.040E-06,-0.200
6.050E-06,-0.120
6.060E-06,-0.040
6.070E-06,0.000
6.080E-06,0.000
6.090E-06,-0.040
6.100E-06,0.000
6.110E-06,-0.040
