mediciones/5-27/-57.5/WaveData50320.csv

#timebase=2000000(ps)
,#voltbase=1000000(mv/100)
#size=4000
-5.650E-06,0.040
-5.640E-06,0.040
-5.630E-06,0.040
-5.620E-06,0.040
-5.610E-06,0.080
-5.600E-06,0.080
-5.590E-06,0.080
-5.580E-06,0.040
-5.570E-06,0.000
-5.560E-06,0.080
-5.550E-06,0.080
-5.540E-06,0.040
-5.530E-06,0.080
-5.520E-06,0.040
-5.510E-06,0.040
-5.500E-06,0.080
-5.490E-06,0.080
-5.480E-06,0.080
-5.470E-06,0.080
-5.460E-06,0.040
-5.450E-06,0.040
-5.440E-06,0.040
-5.430E-06,0.040
-5.420E-06,0.040
-5.410E-06,0.080
-5.400E-06,0.080
-5.390E-06,0.080
-5.380E-06,0.000
-5.370E-06,0.040
-5.360E-06,0.000
-5.350E-06,0.000
-5.340E-06,0.080
-5.330E-06,0.080
-5.320E-06,0.040
-5.310E-06,0.080
-5.300E-06,-0.040
-5.290E-06,0.000
-5.280E-06,0.040
-5.270E-06,0.040
-5.260E-06,0.080
-5.250E-06,0.080
-5.240E-06,0.040
-5.230E-06,0.040
-5.220E-06,0.040
-5.210E-06,0.040
-5.200E-06,0.040
-5.190E-06,0.080
-5.180E-06,0.040
-5.170E-06,0.040
-5.160E-06,0.040
-5.150E-06,0.040
-5.140E-06,0.000
-5.130E-06,0.000
-5.120E-06,0.040
-5.110E-06,0.040
-5.100E-06,-0.040
-5.090E-06,0.000
-5.080E-06,0.080
-5.070E-06,0.080
-5.060E-06,0.160
-5.050E-06,0.080
-5.040E-06,0.000
-5.030E-06,0.080
-5.020E-06,0.040
-5.010E-06,0.080
-5.000E-06,0.120
-4.990E-06,0.080
-4.980E-06,0.080
-4.970E-06,0.040
-4.960E-06,0.040
-4.950E-06,0.080
-4.940E-06,0.080
-4.930E-06,0.040
-4.920E-06,0.080
-4.910E-06,0.040
-4.900E-06,0.000
-4.890E-06,0.040
-4.880E-06,-0.040
-4.870E-06,0.040
-4.860E-06,0.040
-4.850E-06,0.040
-4.840E-06,0.040
-4.830E-06,0.040
-4.820E-06,0.000
-4.810E-06,0.040
-4.800E-06,0.000
-4.790E-06,0.000
-4.780E-06,0.000
-4.770E-06,0.000
-4.760E-06,-0.040
-4.750E-06,-0.040
-4.740E-06,0.040
-4.730E-06,0.000
-4.720E-06,0.040
-4.710E-06,0.040
-4.700E-06,0.040
-4.690E-06,0.040
-4.680E-06,0.080
-4.670E-06,0.080
-4.660E-06,0.040
-4.650E-06,0.080
-4.640E-06,0.080
-4.630E-06,0.080
-4.620E-06,0.040
-4.610E-06,0.080
-4.600E-06,0.040
-4.590E-06,0.040
-4.580E-06,0.080
-4.570E-06,0.040
-4.560E-06,0.040
-4.550E-06,0.040
-4.540E-06,0.080
-4.530E-06,0.000
-4.520E-06,0.000
-4.510E-06,0.080
-4.500E-06,0.080
-4.490E-06,0.080
-4.480E-06,0.000
-4.470E-06,-0.040
-4.460E-06,0.040
-4.450E-06,0.000
-4.440E-06,0.000
-4.430E-06,-0.080
-4.420E-06,-0.080
-4.410E-06,-0.040
-4.400E-06,0.000
-4.390E-06,0.040
-4.380E-06,0.120
-4.370E-06,0.120
-4.360E-06,0.080
-4.350E-06,0.080
-4.340E-06,0.080
-4.330E-06,0.080
-4.320E-06,0.200
-4.310E-06,0.200
-4.300E-06,0.160
-4.290E-06,0.160
-4.280E-06,0.040
-4.270E-06,0.040
-4.260E-06,0.040
-4.250E-06,0.000
-4.240E-06,0.080
-4.230E-06,0.080
-4.220E-06,0.120
-4.210E-06,0.120
-4.200E-06,0.080
-4.190E-06,0.080
-4.180E-06,0.040
-4.170E-06,0.080
-4.160E-06,0.120
-4.150E-06,0.040
-4.140E-06,0.040
-4.130E-06,0.040
-4.120E-06,0.000
-4.110E-06,0.000
-4.100E-06,0.000
-4.090E-06,0.000
-4.080E-06,0.000
-4.070E-06,0.000
-4.060E-06,0.040
-4.050E-06,0.040
-4.040E-06,-0.040
-4.030E-06,0.000
-4.020E-06,-0.040
-4.010E-06,-0.040
-4.000E-06,-0.040
-3.990E-06,0.000
-3.980E-06,0.040
-3.970E-06,-0.040
-3.960E-06,-0.040
-3.950E-06,0.000
-3.940E-06,-0.040
-3.930E-06,0.000
-3.920E-06,0.000
-3.910E-06,0.040
-3.900E-06,0.080
-3.890E-06,0.080
-3.880E-06,0.080
-3.870E-06,0.040
-3.860E-06,0.040
-3.850E-06,0.120
-3.840E-06,0.040
-3.830E-06,0.040
-3.820E-06,0.120
-3.810E-06,0.080
-3.800E-06,0.080
-3.790E-06,0.040
-3.780E-06,0.080
-3.770E-06,0.080
-3.760E-06,0.080
-3.750E-06,0.040
-3.740E-06,0.080
-3.730E-06,0.080
-3.720E-06,0.040
-3.710E-06,0.080
-3.700E-06,0.000
-3.690E-06,0.040
-3.680E-06,0.080
-3.670E-06,0.080
-3.660E-06,0.000
-3.650E-06,0.040
-3.640E-06,0.040
-3.630E-06,0.040
-3.620E-06,0.040
-3.610E-06,0.000
-3.600E-06,-0.040
-3.590E-06,0.000
-3.580E-06,-0.040
-3.570E-06,-0.080
-3.560E-06,-0.040
-3.550E-06,0.040
-3.540E-06,0.080
-3.530E-06,0.160
-3.520E-06,0.120
-3.510E-06,0.120
-3.500E-06,0.040
-3.490E-06,0.000
-3.480E-06,0.040
-3.470E-06,0.120
-3.460E-06,0.120
-3.450E-06,0.160
-3.440E-06,0.160
-3.430E-06,0.080
-3.420E-06,-0.040
-3.410E-06,0.040
-3.400E-06,0.160
-3.390E-06,0.120
-3.380E-06,0.080
-3.370E-06,0.040
-3.360E-06,0.000
-3.350E-06,-0.040
-3.340E-06,0.000
-3.330E-06,0.040
-3.320E-06,0.080
-3.310E-06,0.040
-3.300E-06,0.000
-3.290E-06,0.000
-3.280E-06,0.000
-3.270E-06,0.000
-3.260E-06,0.000
-3.250E-06,0.000
-3.240E-06,0.040
-3.230E-06,0.000
-3.220E-06,0.000
-3.210E-06,0.000
-3.200E-06,0.000
-3.190E-06,0.040
-3.180E-06,0.040
-3.170E-06,0.000
-3.160E-06,0.000
-3.150E-06,0.000
-3.140E-06,0.000
-3.130E-06,0.000
-3.120E-06,0.080
-3.110E-06,0.080
-3.100E-06,0.080
-3.090E-06,0.040
-3.080E-06,0.080
-3.070E-06,0.080
-3.060E-06,0.120
-3.050E-06,0.080
-3.040E-06,0.120
-3.030E-06,0.000
-3.020E-06,0.040
-3.010E-06,0.080
-3.000E-06,0.080
-2.990E-06,0.080
-2.980E-06,0.080
-2.970E-06,0.080
-2.960E-06,0.040
-2.950E-06,0.080
-2.940E-06,0.080
-2.930E-06,0.080
-2.920E-06,0.080
-2.910E-06,0.000
-2.900E-06,0.000
-2.890E-06,-0.040
-2.880E-06,-0.040
-2.870E-06,0.000
-2.860E-06,0.040
-2.850E-06,0.040
-2.840E-06,0.040
-2.830E-06,-0.040
-2.820E-06,0.000
-2.810E-06,-0.040
-2.800E-06,0.000
-2.790E-06,0.000
-2.780E-06,-0.040
-2.770E-06,0.000
-2.760E-06,0.000
-2.750E-06,-0.040
-2.740E-06,0.000
-2.730E-06,0.080
-2.720E-06,0.160
-2.710E-06,0.160
-2.700E-06,0.120
-2.690E-06,0.120
-2.680E-06,0.160
-2.670E-06,0.120
-2.660E-06,0.160
-2.650E-06,0.200
-2.640E-06,0.160
-2.630E-06,0.120
-2.620E-06,0.120
-2.610E-06,0.080
-2.600E-06,0.080
-2.590E-06,0.120
-2.580E-06,0.160
-2.570E-06,0.120
-2.560E-06,0.040
-2.550E-06,0.000
-2.540E-06,0.000
-2.530E-06,-0.040
-2.520E-06,0.000
-2.510E-06,-0.040
-2.500E-06,0.000
-2.490E-06,0.000
-2.480E-06,-0.040
-2.470E-06,-0.080
-2.460E-06,0.000
-2.450E-06,-0.040
-2.440E-06,-0.040
-2.430E-06,-0.040
-2.420E-06,-0.040
-2.410E-06,0.000
-2.400E-06,-0.040
-2.390E-06,-0.040
-2.380E-06,0.000
-2.370E-06,-0.040
-2.360E-06,-0.080
-2.350E-06,0.000
-2.340E-06,0.000
-2.330E-06,0.000
-2.320E-06,0.000
-2.310E-06,0.000
-2.300E-06,0.000
-2.290E-06,0.040
-2.280E-06,0.080
-2.270E-06,0.080
-2.260E-06,0.160
-2.250E-06,0.200
-2.240E-06,0.200
-2.230E-06,0.200
-2.220E-06,0.320
-2.210E-06,0.360
-2.200E-06,0.320
-2.190E-06,0.240
-2.180E-06,0.280
-2.170E-06,0.240
-2.160E-06,0.320
-2.150E-06,0.440
-2.140E-06,0.440
-2.130E-06,0.520
-2.120E-06,0.440
-2.110E-06,0.320
-2.100E-06,0.360
-2.090E-06,0.320
-2.080E-06,0.400
-2.070E-06,0.440
-2.060E-06,0.320
-2.050E-06,0.040
-2.040E-06,0.080
-2.030E-06,-0.040
-2.020E-06,0.120
-2.010E-06,0.280
-2.000E-06,0.360
-1.990E-06,0.240
-1.980E-06,0.040
-1.970E-06,-0.160
-1.960E-06,-0.120
-1.950E-06,-0.080
-1.940E-06,0.160
-1.930E-06,0.160
-1.920E-06,0.080
-1.910E-06,-0.080
-1.900E-06,-0.120
-1.890E-06,-0.160
-1.880E-06,-0.080
-1.870E-06,0.040
-1.860E-06,0.080
-1.850E-06,-0.040
-1.840E-06,-0.080
-1.830E-06,-0.160
-1.820E-06,-0.040
-1.810E-06,-0.080
-1.800E-06,-0.040
-1.790E-06,0.000
-1.780E-06,-0.040
-1.770E-06,0.000
-1.760E-06,0.040
-1.750E-06,0.000
-1.740E-06,0.040
-1.730E-06,0.040
-1.720E-06,0.080
-1.710E-06,0.040
-1.700E-06,0.040
-1.690E-06,0.080
-1.680E-06,0.080
-1.670E-06,0.040
-1.660E-06,0.000
-1.650E-06,0.000
-1.640E-06,0.040
-1.630E-06,0.040
-1.620E-06,0.040
-1.610E-06,0.080
-1.600E-06,0.080
-1.590E-06,0.040
-1.580E-06,0.000
-1.570E-06,0.000
-1.560E-06,0.000
-1.550E-06,-0.040
-1.540E-06,0.000
-1.530E-06,0.040
-1.520E-06,0.120
-1.510E-06,0.080
-1.500E-06,-0.040
-1.490E-06,0.120
-1.480E-06,0.080
-1.470E-06,0.160
-1.460E-06,0.160
-1.450E-06,0.120
-1.440E-06,0.200
-1.430E-06,0.240
-1.420E-06,0.240
-1.410E-06,0.240
-1.400E-06,0.320
-1.390E-06,0.200
-1.380E-06,0.240
-1.370E-06,0.200
-1.360E-06,0.240
-1.350E-06,0.400
-1.340E-06,0.400
-1.330E-06,0.400
-1.320E-06,0.360
-1.310E-06,0.280
-1.300E-06,0.360
-1.290E-06,0.360
-1.280E-06,0.440
-1.270E-06,0.400
-1.260E-06,0.480
-1.250E-06,0.520
-1.240E-06,0.080
-1.230E-06,0.160
-1.220E-06,0.000
-1.210E-06,-0.040
-1.200E-06,0.200
-1.190E-06,0.240
-1.180E-06,0.400
-1.170E-06,0.080
-1.160E-06,-0.040
-1.150E-06,-0.280
-1.140E-06,-0.240
-1.130E-06,0.000
-1.120E-06,0.120
-1.110E-06,0.200
-1.100E-06,0.040
-1.090E-06,-0.040
-1.080E-06,-0.320
-1.070E-06,0.040
-1.060E-06,-0.040
-1.050E-06,0.120
-1.040E-06,0.000
-1.030E-06,-0.120
-1.020E-06,-0.120
-1.010E-06,-0.080
-1.000E-06,0.160
-9.900E-07,0.200
-9.800E-07,0.160
-9.700E-07,0.040
-9.600E-07,-0.240
-9.500E-07,-0.200
-9.400E-07,-0.040
-9.300E-07,0.320
-9.200E-07,0.480
-9.100E-07,0.280
-9.000E-07,0.120
-8.900E-07,0.000
-8.800E-07,0.000
-8.700E-07,0.320
-8.600E-07,0.600
-8.500E-07,0.920
-8.400E-07,0.840
-8.300E-07,0.680
-8.200E-07,0.440
-8.100E-07,0.400
-8.000E-07,0.560
-7.900E-07,0.680
-7.800E-07,0.760
-7.700E-07,0.680
-7.600E-07,0.520
-7.500E-07,0.440
-7.400E-07,0.360
-7.300E-07,0.360
-7.200E-07,0.400
-7.100E-07,0.360
-7.000E-07,0.600
-6.900E-07,0.320
-6.800E-07,0.240
-6.700E-07,0.120
-6.600E-07,0.040
-6.500E-07,0.040
-6.400E-07,0.240
-6.300E-07,0.320
-6.200E-07,0.200
-6.100E-07,0.440
-6.000E-07,-0.040
-5.900E-07,-0.280
-5.800E-07,-0.360
-5.700E-07,-0.240
-5.600E-07,0.160
-5.500E-07,0.360
-5.400E-07,0.480
-5.300E-07,0.400
-5.200E-07,0.000
-5.100E-07,-0.040
-5.000E-07,-0.080
-4.900E-07,0.160
-4.800E-07,0.480
-4.700E-07,0.680
-4.600E-07,0.600
-4.500E-07,0.480
-4.400E-07,0.360
-4.300E-07,0.400
-4.200E-07,0.360
-4.100E-07,0.480
-4.000E-07,0.440
-3.900E-07,0.320
-3.800E-07,0.440
-3.700E-07,0.160
-3.600E-07,0.360
-3.500E-07,0.240
-3.400E-07,0.280
-3.300E-07,0.160
-3.200E-07,0.160
-3.100E-07,0.360
-3.000E-07,0.320
-2.900E-07,0.600
-2.800E-07,0.640
-2.700E-07,0.520
-2.600E-07,0.560
-2.500E-07,0.400
-2.400E-07,0.360
-2.300E-07,0.400
-2.200E-07,0.400
-2.100E-07,0.560
-2.000E-07,0.400
-1.900E-07,0.480
-1.800E-07,0.120
-1.700E-07,0.240
-1.600E-07,0.040
-1.500E-07,0.160
-1.400E-07,0.520
-1.300E-07,0.480
-1.200E-07,0.600
-1.100E-07,0.480
-1.000E-07,0.520
-9.000E-08,0.680
-8.000E-08,0.520
-7.000E-08,0.800
-6.000E-08,0.560
-5.000E-08,0.000
-4.000E-08,0.600
-3.000E-08,0.240
-2.000E-08,0.320
-1.000E-08,0.520
0.000E+00,0.360
1.000E-08,0.360
2.000E-08,0.440
3.000E-08,0.920
4.000E-08,1.400
5.000E-08,1.160
6.000E-08,0.520
7.000E-08,-0.520
8.000E-08,-1.160
9.000E-08,-1.400
1.000E-07,-0.240
1.100E-07,0.440
1.200E-07,1.080
1.300E-07,0.720
1.400E-07,-0.200
1.500E-07,-0.640
1.600E-07,-0.800
1.700E-07,-0.040
1.800E-07,0.600
1.900E-07,0.800
2.000E-07,0.800
2.100E-07,0.240
2.200E-07,0.000
2.300E-07,0.000
2.400E-07,0.200
2.500E-07,0.520
2.600E-07,0.800
2.700E-07,0.880
2.800E-07,0.960
2.900E-07,0.840
3.000E-07,0.680
3.100E-07,0.640
3.200E-07,0.640
3.300E-07,0.640
3.400E-07,0.680
3.500E-07,0.760
3.600E-07,0.840
3.700E-07,0.800
3.800E-07,0.600
3.900E-07,0.520
4.000E-07,0.160
4.100E-07,0.520
4.200E-07,0.200
4.300E-07,0.560
4.400E-07,0.320
4.500E-07,0.040
4.600E-07,-0.040
4.700E-07,0.000
4.800E-07,0.200
4.900E-07,0.400
5.000E-07,0.840
5.100E-07,0.760
5.200E-07,0.440
5.300E-07,0.120
5.400E-07,-0.160
5.500E-07,-0.040
5.600E-07,0.400
5.700E-07,0.880
5.800E-07,0.920
5.900E-07,0.960
6.000E-07,0.600
6.100E-07,0.400
6.200E-07,0.440
6.300E-07,0.680
6.400E-07,0.760
6.500E-07,1.000
6.600E-07,1.080
6.700E-07,1.040
6.800E-07,1.000
6.900E-07,1.160
7.000E-07,1.000
7.100E-07,0.880
7.200E-07,0.680
7.300E-07,0.920
7.400E-07,0.880
7.500E-07,0.680
7.600E-07,1.200
7.700E-07,1.000
7.800E-07,0.960
7.900E-07,1.280
8.000E-07,1.040
8.100E-07,0.920
8.200E-07,0.960
8.300E-07,0.840
8.400E-07,0.840
8.500E-07,1.040
8.600E-07,0.920
8.700E-07,0.880
8.800E-07,0.960
8.900E-07,0.840
9.000E-07,0.840
9.100E-07,0.840
9.200E-07,0.880
9.300E-07,0.920
9.400E-07,1.000
9.500E-07,1.080
9.600E-07,1.600
9.700E-07,0.000
9.800E-07,2.120
9.900E-07,-0.560
1.000E-06,1.000
1.010E-06,1.040
1.020E-06,0.520
1.030E-06,1.520
1.040E-06,0.120
1.050E-06,-0.120
1.060E-06,-1.400
1.070E-06,-0.680
1.080E-06,-1.040
1.090E-06,0.040
1.100E-06,0.520
1.110E-06,-0.200
1.120E-06,0.040
1.130E-06,-0.600
1.140E-06,-0.480
1.150E-06,-0.080
1.160E-06,0.640
1.170E-06,0.960
1.180E-06,1.680
1.190E-06,1.480
1.200E-06,1.280
1.210E-06,1.080
1.220E-06,0.840
1.230E-06,0.960
1.240E-06,1.040
1.250E-06,1.240
1.260E-06,1.240
1.270E-06,1.000
1.280E-06,0.760
1.290E-06,0.400
1.300E-06,0.160
1.310E-06,0.080
1.320E-06,0.000
1.330E-06,-0.040
1.340E-06,0.080
1.350E-06,0.040
1.360E-06,-0.040
1.370E-06,0.000
1.380E-06,-0.080
1.390E-06,0.040
1.400E-06,0.120
1.410E-06,0.240
1.420E-06,0.480
1.430E-06,0.360
1.440E-06,0.200
1.450E-06,0.120
1.460E-06,0.040
1.470E-06,0.080
1.480E-06,0.240
1.490E-06,0.360
1.500E-06,0.280
1.510E-06,-0.320
1.520E-06,0.040
1.530E-06,-0.080
1.540E-06,-0.200
1.550E-06,0.120
1.560E-06,-0.440
1.570E-06,-0.320
1.580E-06,-0.400
1.590E-06,-0.400
1.600E-06,0.000
1.610E-06,-0.120
1.620E-06,-0.080
1.630E-06,0.200
1.640E-06,0.160
1.650E-06,0.360
1.660E-06,0.480
1.670E-06,0.000
1.680E-06,0.200
1.690E-06,0.320
1.700E-06,0.520
1.710E-06,0.880
1.720E-06,0.680
1.730E-06,0.520
1.740E-06,0.480
1.750E-06,0.480
1.760E-06,0.760
1.770E-06,0.920
1.780E-06,0.840
1.790E-06,0.760
1.800E-06,0.560
1.810E-06,0.360
1.820E-06,0.360
1.830E-06,0.280
1.840E-06,0.160
1.850E-06,0.000
1.860E-06,-0.120
1.870E-06,-0.320
1.880E-06,-0.400
1.890E-06,-0.520
1.900E-06,-0.680
1.910E-06,-0.760
1.920E-06,-0.840
1.930E-06,-0.840
1.940E-06,-0.960
1.950E-06,-1.000
1.960E-06,-1.040
1.970E-06,-1.120
1.980E-06,-1.080
1.990E-06,-1.000
2.000E-06,-1.040
2.010E-06,-1.040
2.020E-06,-1.000
2.030E-06,-0.960
2.040E-06,-1.000
2.050E-06,-1.040
2.060E-06,-1.040
2.070E-06,-1.120
2.080E-06,-1.200
2.090E-06,-1.240
2.100E-06,-1.240
2.110E-06,-1.320
2.120E-06,-1.280
2.130E-06,-1.360
2.140E-06,-1.360
2.150E-06,-1.320
2.160E-06,-1.320
2.170E-06,-1.360
2.180E-06,-1.320
2.190E-06,-1.280
2.200E-06,-1.360
2.210E-06,-1.280
2.220E-06,-1.320
2.230E-06,-1.320
2.240E-06,-1.320
2.250E-06,-1.320
2.260E-06,-1.320
2.270E-06,-1.320
2.280E-06,-1.320
2.290E-06,-1.360
2.300E-06,-1.400
2.310E-06,-1.360
2.320E-06,-1.360
2.330E-06,-1.400
2.340E-06,-1.440
2.350E-06,-1.480
2.360E-06,-1.520
2.370E-06,-1.520
2.380E-06,-1.560
2.390E-06,-1.560
2.400E-06,-1.640
2.410E-06,-1.640
2.420E-06,-1.680
2.430E-06,-1.680
2.440E-06,-1.720
2.450E-06,-1.720
2.460E-06,-1.760
2.470E-06,-1.800
2.480E-06,-1.760
2.490E-06,-1.800
2.500E-06,-1.840
2.510E-06,-1.880
2.520E-06,-1.880
2.530E-06,-1.880
2.540E-06,-1.880
2.550E-06,-1.920
2.560E-06,-1.880
2.570E-06,-1.960
2.580E-06,-1.880
2.590E-06,-1.960
2.600E-06,-1.920
2.610E-06,-1.920
2.620E-06,-1.960
2.630E-06,-2.000
2.640E-06,-1.960
2.650E-06,-1.920
2.660E-06,-1.960
2.670E-06,-1.920
2.680E-06,-2.000
2.690E-06,-2.000
2.700E-06,-2.040
2.710E-06,-2.000
2.720E-06,-1.960
2.730E-06,-2.000
2.740E-06,-2.000
2.750E-06,-1.960
2.760E-06,-2.000
2.770E-06,-2.040
2.780E-06,-2.000
2.790E-06,-2.000
2.800E-06,-2.000
2.810E-06,-1.960
2.820E-06,-2.000
2.830E-06,-2.040
2.840E-06,-2.000
2.850E-06,-1.960
2.860E-06,-2.040
2.870E-06,-2.080
2.880E-06,-2.080
2.890E-06,-2.040
2.900E-06,-2.120
2.910E-06,-2.080
2.920E-06,-2.040
2.930E-06,-2.120
2.940E-06,-2.160
2.950E-06,-2.120
2.960E-06,-2.160
2.970E-06,-2.200
2.980E-06,-2.200
2.990E-06,-2.280
3.000E-06,-2.280
3.010E-06,-2.240
3.020E-06,-2.320
3.030E-06,-2.280
3.040E-06,-2.280
3.050E-06,-2.320
3.060E-06,-2.280
3.070E-06,-2.320
3.080E-06,-2.320
3.090E-06,-2.280
3.100E-06,-2.280
3.110E-06,-2.280
3.120E-06,-2.320
3.130E-06,-2.360
3.140E-06,-2.360
3.150E-06,-2.400
3.160E-06,-2.480
3.170E-06,-2.640
3.180E-06,-2.720
3.190E-06,-2.840
3.200E-06,-2.920
3.210E-06,-2.800
3.220E-06,-2.720
3.230E-06,-2.560
3.240E-06,-2.360
3.250E-06,-2.160
3.260E-06,-2.080
3.270E-06,-2.040
3.280E-06,-1.960
3.290E-06,-2.000
3.300E-06,-1.960
3.310E-06,-1.880
3.320E-06,-1.840
3.330E-06,-1.920
3.340E-06,-1.960
3.350E-06,-1.960
3.360E-06,-2.080
3.370E-06,-2.160
3.380E-06,-2.200
3.390E-06,-2.240
3.400E-06,-2.360
3.410E-06,-2.440
3.420E-06,-2.440
3.430E-06,-2.520
3.440E-06,-2.600
3.450E-06,-2.680
3.460E-06,-2.720
3.470E-06,-2.640
3.480E-06,-2.640
3.490E-06,-2.600
3.500E-06,-2.560
3.510E-06,-2.480
3.520E-06,-2.480
3.530E-06,-2.440
3.540E-06,-2.400
3.550E-06,-2.400
3.560E-06,-2.320
3.570E-06,-2.280
3.580E-06,-2.240
3.590E-06,-2.160
3.600E-06,-2.160
3.610E-06,-2.120
3.620E-06,-2.000
3.630E-06,-2.000
3.640E-06,-2.000
3.650E-06,-2.000
3.660E-06,-1.960
3.670E-06,-1.840
3.680E-06,-1.840
3.690E-06,-1.800
3.700E-06,-1.840
3.710E-06,-1.800
3.720E-06,-1.840
3.730E-06,-1.840
3.740E-06,-1.920
3.750E-06,-1.960
3.760E-06,-2.040
3.770E-06,-2.160
3.780E-06,-2.240
3.790E-06,-2.240
3.800E-06,-2.240
3.810E-06,-2.240
3.820E-06,-2.200
3.830E-06,-2.160
3.840E-06,-2.160
3.850E-06,-2.120
3.860E-06,-2.040
3.870E-06,-1.880
3.880E-06,-1.840
3.890E-06,-1.760
3.900E-06,-1.680
3.910E-06,-1.640
3.920E-06,-1.600
3.930E-06,-1.520
3.940E-06,-1.560
3.950E-06,-1.520
3.960E-06,-1.600
3.970E-06,-1.680
3.980E-06,-1.720
3.990E-06,-1.840
4.000E-06,-1.880
4.010E-06,-2.000
4.020E-06,-2.120
4.030E-06,-2.200
4.040E-06,-2.320
4.050E-06,-2.320
4.060E-06,-2.320
4.070E-06,-2.400
4.080E-06,-2.360
4.090E-06,-2.360
4.100E-06,-2.280
4.110E-06,-2.240
4.120E-06,-2.240
4.130E-06,-2.240
4.140E-06,-2.160
4.150E-06,-2.160
4.160E-06,-2.160
4.170E-06,-2.240
4.180E-06,-2.200
4.190E-06,-2.240
4.200E-06,-2.280
4.210E-06,-2.280
4.220E-06,-2.320
4.230E-06,-2.400
4.240E-06,-2.400
4.250E-06,-2.440
4.260E-06,-2.400
4.270E-06,-2.480
4.280E-06,-2.480
4.290E-06,-2.440
4.300E-06,-2.440
4.310E-06,-2.400
4.320E-06,-2.360
4.330E-06,-2.320
4.340E-06,-2.240
4.350E-06,-2.200
4.360E-06,-2.160
4.370E-06,-1.920
4.380E-06,-1.760
4.390E-06,-1.560
4.400E-06,-1.560
4.410E-06,-1.760
4.420E-06,-2.000
4.430E-06,-2.360
4.440E-06,-2.720
4.450E-06,-2.880
4.460E-06,-3.120
4.470E-06,-3.160
4.480E-06,-3.160
4.490E-06,-3.000
4.500E-06,-2.760
4.510E-06,-2.640
4.520E-06,-2.520
4.530E-06,-2.440
4.540E-06,-2.320
4.550E-06,-2.360
4.560E-06,-2.360
4.570E-06,-2.280
4.580E-06,-2.200
4.590E-06,-2.200
4.600E-06,-2.080
4.610E-06,-2.040
4.620E-06,-1.880
4.630E-06,-1.760
4.640E-06,-1.680
4.650E-06,-1.640
4.660E-06,-1.520
4.670E-06,-1.560
4.680E-06,-1.600
4.690E-06,-1.640
4.700E-06,-1.720
4.710E-06,-1.680
4.720E-06,-1.680
4.730E-06,-1.640
4.740E-06,-1.600
4.750E-06,-1.520
4.760E-06,-1.520
4.770E-06,-1.480
4.780E-06,-1.520
4.790E-06,-1.520
4.800E-06,-1.480
4.810E-06,-1.520
4.820E-06,-1.520
4.830E-06,-1.520
4.840E-06,-1.600
4.850E-06,-1.640
4.860E-06,-1.680
4.870E-06,-1.640
4.880E-06,-1.640
4.890E-06,-1.720
4.900E-06,-1.720
4.910E-06,-1.760
4.920E-06,-1.800
4.930E-06,-1.840
4.940E-06,-1.960
4.950E-06,-2.000
4.960E-06,-2.000
4.970E-06,-2.040
4.980E-06,-2.080
4.990E-06,-2.120
5.000E-06,-2.120
5.010E-06,-2.160
5.020E-06,-2.200
5.030E-06,-2.160
5.040E-06,-2.120
5.050E-06,-2.080
5.060E-06,-2.080
5.070E-06,-2.120
5.080E-06,-2.120
5.090E-06,-2.160
5.100E-06,-2.080
5.110E-06,-2.000
5.120E-06,-1.960
5.130E-06,-1.920
5.140E-06,-1.840
5.150E-06,-1.720
5.160E-06,-1.600
5.170E-06,-1.480
5.180E-06,-1.360
5.190E-06,-1.280
5.200E-06,-1.120
5.210E-06,-1.120
5.220E-06,-1.120
5.230E-06,-1.120
5.240E-06,-1.160
5.250E-06,-1.200
5.260E-06,-1.160
5.270E-06,-1.240
5.280E-06,-1.280
5.290E-06,-1.280
5.300E-06,-1.320
5.310E-06,-1.440
5.320E-06,-1.480
5.330E-06,-1.600
5.340E-06,-1.640
5.350E-06,-1.680
5.360E-06,-1.680
5.370E-06,-1.720
5.380E-06,-1.760
5.390E-06,-1.760
5.400E-06,-1.760
5.410E-06,-1.720
5.420E-06,-1.680
5.430E-06,-1.680
5.440E-06,-1.600
5.450E-06,-1.520
5.460E-06,-1.400
5.470E-06,-1.320
5.480E-06,-1.320
5.490E-06,-1.280
5.500E-06,-1.280
5.510E-06,-1.200
5.520E-06,-1.120
5.530E-06,-1.200
5.540E-06,-1.200
5.550E-06,-1.160
5.560E-06,-1.160
5.570E-06,-1.200
5.580E-06,-1.200
5.590E-06,-1.160
5.600E-06,-1.120
5.610E-06,-1.120
5.620E-06,-1.080
5.630E-06,-1.080
5.640E-06,-1.040
5.650E-06,-1.000
5.660E-06,-0.920
5.670E-06,-0.880
5.680E-06,-0.880
5.690E-06,-0.840
5.700E-06,-0.840
5.710E-06,-0.800
5.720E-06,-0.760
5.730E-06,-0.720
5.740E-06,-0.720
5.750E-06,-0.640
5.760E-06,-0.680
5.770E-06,-0.680
5.780E-06,-0.600
5.790E-06,-0.560
5.800E-06,-0.600
5.810E-06,-0.600
5.820E-06,-0.600
5.830E-06,-0.600
5.840E-06,-0.640
5.850E-06,-0.640
5.860E-06,-0.680
5.870E-06,-0.720
5.880E-06,-0.760
5.890E-06,-0.800
5.900E-06,-0.840
5.910E-06,-0.880
5.920E-06,-0.880
5.930E-06,-1.000
5.940E-06,-1.040
5.950E-06,-1.040
5.960E-06,-1.120
5.970E-06,-1.200
5.980E-06,-1.160
5.990E-06,-1.240
6.000E-06,-1.200
6.010E-06,-1.280
6.020E-06,-1.240
6.030E-06,-1.240
6.040E-06,-1.280
6.050E-06,-1.160
6.060E-06,-1.160
6.070E-06,-1.120
6.080E-06,-1.040
6.090E-06,-0.960
6.100E-06,-0.960
6.110E-06,-0.880
