mediciones/5-27/-57.5/WaveData50296.csv

#timebase=2000000(ps)
,#voltbase=1000000(mv/100)
#size=4000
-5.650E-06,0.240
-5.640E-06,0.240
-5.630E-06,0.120
-5.620E-06,0.080
-5.610E-06,0.080
-5.600E-06,0.040
-5.590E-06,0.040
-5.580E-06,-0.040
-5.570E-06,-0.040
-5.560E-06,0.000
-5.550E-06,-0.040
-5.540E-06,-0.080
-5.530E-06,-0.160
-5.520E-06,-0.080
-5.510E-06,0.000
-5.500E-06,0.040
-5.490E-06,0.120
-5.480E-06,0.120
-5.470E-06,0.120
-5.460E-06,0.120
-5.450E-06,0.080
-5.440E-06,0.000
-5.430E-06,-0.040
-5.420E-06,-0.040
-5.410E-06,-0.080
-5.400E-06,0.080
-5.390E-06,0.080
-5.380E-06,0.360
-5.370E-06,0.280
-5.360E-06,0.240
-5.350E-06,0.080
-5.340E-06,-0.200
-5.330E-06,0.000
-5.320E-06,0.000
-5.310E-06,0.200
-5.300E-06,0.240
-5.290E-06,0.240
-5.280E-06,0.200
-5.270E-06,0.040
-5.260E-06,0.080
-5.250E-06,0.080
-5.240E-06,0.160
-5.230E-06,0.320
-5.220E-06,0.280
-5.210E-06,0.280
-5.200E-06,0.240
-5.190E-06,0.000
-5.180E-06,0.120
-5.170E-06,0.120
-5.160E-06,0.200
-5.150E-06,0.200
-5.140E-06,0.200
-5.130E-06,0.240
-5.120E-06,0.200
-5.110E-06,0.240
-5.100E-06,0.240
-5.090E-06,0.080
-5.080E-06,0.200
-5.070E-06,0.080
-5.060E-06,-0.120
-5.050E-06,-0.200
-5.040E-06,-0.360
-5.030E-06,-0.320
-5.020E-06,-0.160
-5.010E-06,-0.040
-5.000E-06,0.000
-4.990E-06,-0.040
-4.980E-06,-0.160
-4.970E-06,-0.240
-4.960E-06,-0.320
-4.950E-06,-0.240
-4.940E-06,-0.080
-4.930E-06,-0.080
-4.920E-06,-0.160
-4.910E-06,-0.280
-4.900E-06,-0.360
-4.890E-06,-0.240
-4.880E-06,-0.240
-4.870E-06,-0.040
-4.860E-06,0.080
-4.850E-06,0.120
-4.840E-06,0.240
-4.830E-06,0.040
-4.820E-06,0.160
-4.810E-06,0.160
-4.800E-06,0.200
-4.790E-06,0.360
-4.780E-06,0.240
-4.770E-06,0.320
-4.760E-06,0.400
-4.750E-06,0.280
-4.740E-06,0.200
-4.730E-06,0.160
-4.720E-06,-0.040
-4.710E-06,0.000
-4.700E-06,0.040
-4.690E-06,0.080
-4.680E-06,0.000
-4.670E-06,-0.040
-4.660E-06,-0.200
-4.650E-06,-0.320
-4.640E-06,-0.320
-4.630E-06,-0.320
-4.620E-06,-0.120
-4.610E-06,-0.040
-4.600E-06,-0.040
-4.590E-06,-0.080
-4.580E-06,-0.240
-4.570E-06,-0.320
-4.560E-06,-0.320
-4.550E-06,-0.280
-4.540E-06,-0.200
-4.530E-06,-0.240
-4.520E-06,-0.280
-4.510E-06,-0.320
-4.500E-06,-0.360
-4.490E-06,-0.320
-4.480E-06,-0.320
-4.470E-06,-0.280
-4.460E-06,-0.280
-4.450E-06,-0.240
-4.440E-06,-0.200
-4.430E-06,-0.120
-4.420E-06,-0.120
-4.410E-06,-0.080
-4.400E-06,-0.160
-4.390E-06,-0.200
-4.380E-06,-0.200
-4.370E-06,-0.160
-4.360E-06,-0.080
-4.350E-06,-0.040
-4.340E-06,0.000
-4.330E-06,-0.080
-4.320E-06,-0.120
-4.310E-06,-0.240
-4.300E-06,-0.160
-4.290E-06,-0.120
-4.280E-06,-0.080
-4.270E-06,0.080
-4.260E-06,0.120
-4.250E-06,0.080
-4.240E-06,-0.040
-4.230E-06,0.000
-4.220E-06,0.000
-4.210E-06,0.000
-4.200E-06,0.040
-4.190E-06,0.120
-4.180E-06,0.120
-4.170E-06,0.160
-4.160E-06,0.080
-4.150E-06,0.000
-4.140E-06,0.000
-4.130E-06,-0.040
-4.120E-06,-0.080
-4.110E-06,-0.120
-4.100E-06,-0.040
-4.090E-06,-0.080
-4.080E-06,-0.120
-4.070E-06,-0.200
-4.060E-06,-0.160
-4.050E-06,-0.240
-4.040E-06,-0.320
-4.030E-06,-0.360
-4.020E-06,-0.320
-4.010E-06,-0.320
-4.000E-06,-0.360
-3.990E-06,-0.440
-3.980E-06,-0.400
-3.970E-06,-0.520
-3.960E-06,-0.480
-3.950E-06,-0.520
-3.940E-06,-0.520
-3.930E-06,-0.480
-3.920E-06,-0.480
-3.910E-06,-0.400
-3.900E-06,-0.440
-3.890E-06,-0.440
-3.880E-06,-0.520
-3.870E-06,-0.400
-3.860E-06,-0.360
-3.850E-06,-0.080
-3.840E-06,0.000
-3.830E-06,0.040
-3.820E-06,0.040
-3.810E-06,0.000
-3.800E-06,0.000
-3.790E-06,0.000
-3.780E-06,0.080
-3.770E-06,0.160
-3.760E-06,0.160
-3.750E-06,0.200
-3.740E-06,0.240
-3.730E-06,0.240
-3.720E-06,0.200
-3.710E-06,0.280
-3.700E-06,0.080
-3.690E-06,-0.080
-3.680E-06,-0.480
-3.670E-06,-0.560
-3.660E-06,-0.600
-3.650E-06,-0.320
-3.640E-06,0.280
-3.630E-06,0.400
-3.620E-06,0.520
-3.610E-06,0.280
-3.600E-06,-0.240
-3.590E-06,-0.240
-3.580E-06,-0.040
-3.570E-06,0.280
-3.560E-06,0.760
-3.550E-06,0.920
-3.540E-06,0.840
-3.530E-06,0.800
-3.520E-06,0.600
-3.510E-06,0.400
-3.500E-06,0.480
-3.490E-06,0.480
-3.480E-06,0.560
-3.470E-06,0.640
-3.460E-06,0.520
-3.450E-06,0.440
-3.440E-06,0.200
-3.430E-06,0.040
-3.420E-06,-0.040
-3.410E-06,-0.160
-3.400E-06,-0.160
-3.390E-06,-0.200
-3.380E-06,-0.200
-3.370E-06,-0.240
-3.360E-06,-0.360
-3.350E-06,-0.440
-3.340E-06,-0.520
-3.330E-06,-0.560
-3.320E-06,-0.600
-3.310E-06,-0.600
-3.300E-06,-0.600
-3.290E-06,-0.600
-3.280E-06,-0.640
-3.270E-06,-0.640
-3.260E-06,-0.640
-3.250E-06,-0.640
-3.240E-06,-0.560
-3.230E-06,-0.480
-3.220E-06,-0.400
-3.210E-06,-0.360
-3.200E-06,-0.320
-3.190E-06,-0.320
-3.180E-06,-0.320
-3.170E-06,-0.280
-3.160E-06,-0.360
-3.150E-06,-0.320
-3.140E-06,-0.320
-3.130E-06,-0.320
-3.120E-06,-0.280
-3.110E-06,-0.280
-3.100E-06,-0.240
-3.090E-06,-0.280
-3.080E-06,-0.200
-3.070E-06,-0.120
-3.060E-06,-0.080
-3.050E-06,-0.040
-3.040E-06,0.000
-3.030E-06,0.040
-3.020E-06,0.040
-3.010E-06,0.080
-3.000E-06,0.080
-2.990E-06,0.000
-2.980E-06,0.000
-2.970E-06,0.040
-2.960E-06,0.080
-2.950E-06,0.040
-2.940E-06,0.000
-2.930E-06,0.040
-2.920E-06,-0.080
-2.910E-06,-0.040
-2.900E-06,-0.120
-2.890E-06,-0.120
-2.880E-06,-0.120
-2.870E-06,0.040
-2.860E-06,0.080
-2.850E-06,0.240
-2.840E-06,0.360
-2.830E-06,0.160
-2.820E-06,0.120
-2.810E-06,0.000
-2.800E-06,0.040
-2.790E-06,0.160
-2.780E-06,0.200
-2.770E-06,0.240
-2.760E-06,0.200
-2.750E-06,0.120
-2.740E-06,0.160
-2.730E-06,0.280
-2.720E-06,0.280
-2.710E-06,0.320
-2.700E-06,0.400
-2.690E-06,0.240
-2.680E-06,0.400
-2.670E-06,0.200
-2.660E-06,0.480
-2.650E-06,0.440
-2.640E-06,0.480
-2.630E-06,0.680
-2.620E-06,0.440
-2.610E-06,0.480
-2.600E-06,0.320
-2.590E-06,0.240
-2.580E-06,0.240
-2.570E-06,0.360
-2.560E-06,0.280
-2.550E-06,0.280
-2.540E-06,0.240
-2.530E-06,0.160
-2.520E-06,0.240
-2.510E-06,0.240
-2.500E-06,0.320
-2.490E-06,0.320
-2.480E-06,0.320
-2.470E-06,0.360
-2.460E-06,0.280
-2.450E-06,0.320
-2.440E-06,0.360
-2.430E-06,0.280
-2.420E-06,0.120
-2.410E-06,0.000
-2.400E-06,-0.240
-2.390E-06,-0.360
-2.380E-06,-0.320
-2.370E-06,-0.320
-2.360E-06,-0.160
-2.350E-06,0.000
-2.340E-06,0.000
-2.330E-06,0.000
-2.320E-06,-0.360
-2.310E-06,-0.200
-2.300E-06,-0.680
-2.290E-06,-0.680
-2.280E-06,-0.720
-2.270E-06,-0.880
-2.260E-06,-0.360
-2.250E-06,-0.320
-2.240E-06,-0.040
-2.230E-06,-0.040
-2.220E-06,-0.200
-2.210E-06,-0.040
-2.200E-06,0.160
-2.190E-06,0.480
-2.180E-06,0.840
-2.170E-06,0.840
-2.160E-06,0.800
-2.150E-06,0.520
-2.140E-06,0.360
-2.130E-06,0.240
-2.120E-06,0.360
-2.110E-06,0.360
-2.100E-06,0.360
-2.090E-06,0.360
-2.080E-06,0.200
-2.070E-06,0.040
-2.060E-06,-0.040
-2.050E-06,-0.200
-2.040E-06,-0.320
-2.030E-06,-0.600
-2.020E-06,-0.720
-2.010E-06,-0.960
-2.000E-06,-1.200
-1.990E-06,-1.240
-1.980E-06,-1.360
-1.970E-06,-1.240
-1.960E-06,-1.120
-1.950E-06,-1.080
-1.940E-06,-1.000
-1.930E-06,-1.040
-1.920E-06,-1.080
-1.910E-06,-0.800
-1.900E-06,-0.640
-1.890E-06,-0.520
-1.880E-06,-0.360
-1.870E-06,-0.400
-1.860E-06,-0.520
-1.850E-06,-0.480
-1.840E-06,-0.320
-1.830E-06,-0.200
-1.820E-06,0.000
-1.810E-06,0.120
-1.800E-06,0.160
-1.790E-06,0.280
-1.780E-06,0.200
-1.770E-06,0.320
-1.760E-06,0.360
-1.750E-06,0.360
-1.740E-06,0.400
-1.730E-06,0.440
-1.720E-06,0.320
-1.710E-06,0.280
-1.700E-06,0.160
-1.690E-06,0.120
-1.680E-06,0.040
-1.670E-06,-0.080
-1.660E-06,-0.120
-1.650E-06,-0.160
-1.640E-06,-0.320
-1.630E-06,-0.320
-1.620E-06,-0.400
-1.610E-06,-0.440
-1.600E-06,-0.480
-1.590E-06,-0.520
-1.580E-06,-0.440
-1.570E-06,-0.400
-1.560E-06,-0.400
-1.550E-06,-0.360
-1.540E-06,-0.360
-1.530E-06,-0.360
-1.520E-06,-0.320
-1.510E-06,-0.360
-1.500E-06,-0.360
-1.490E-06,-0.400
-1.480E-06,-0.480
-1.470E-06,-0.520
-1.460E-06,-0.520
-1.450E-06,-0.640
-1.440E-06,-0.640
-1.430E-06,-0.720
-1.420E-06,-0.760
-1.410E-06,-0.800
-1.400E-06,-0.880
-1.390E-06,-1.000
-1.380E-06,-1.040
-1.370E-06,-1.040
-1.360E-06,-1.080
-1.350E-06,-1.080
-1.340E-06,-1.120
-1.330E-06,-1.120
-1.320E-06,-1.160
-1.310E-06,-1.120
-1.300E-06,-1.080
-1.290E-06,-1.000
-1.280E-06,-0.800
-1.270E-06,-0.800
-1.260E-06,-0.680
-1.250E-06,-0.760
-1.240E-06,-0.640
-1.230E-06,-0.600
-1.220E-06,-0.600
-1.210E-06,-0.360
-1.200E-06,-0.560
-1.190E-06,-0.200
-1.180E-06,-0.680
-1.170E-06,-0.520
-1.160E-06,-1.000
-1.150E-06,-0.720
-1.140E-06,-0.840
-1.130E-06,-0.200
-1.120E-06,0.760
-1.110E-06,0.840
-1.100E-06,1.480
-1.090E-06,1.000
-1.080E-06,0.480
-1.070E-06,0.240
-1.060E-06,0.120
-1.050E-06,0.520
-1.040E-06,0.920
-1.030E-06,1.080
-1.020E-06,0.840
-1.010E-06,0.360
-1.000E-06,-0.240
-9.900E-07,-0.520
-9.800E-07,-0.800
-9.700E-07,-0.640
-9.600E-07,-0.480
-9.500E-07,-0.480
-9.400E-07,-0.480
-9.300E-07,-0.720
-9.200E-07,-1.000
-9.100E-07,-1.320
-9.000E-07,-1.360
-8.900E-07,-1.480
-8.800E-07,-1.440
-8.700E-07,-1.400
-8.600E-07,-1.480
-8.500E-07,-1.480
-8.400E-07,-1.560
-8.300E-07,-1.480
-8.200E-07,-1.360
-8.100E-07,-1.240
-8.000E-07,-0.840
-7.900E-07,-0.680
-7.800E-07,-0.480
-7.700E-07,-0.200
-7.600E-07,-0.120
-7.500E-07,0.000
-7.400E-07,0.120
-7.300E-07,0.280
-7.200E-07,0.480
-7.100E-07,0.520
-7.000E-07,0.480
-6.900E-07,0.480
-6.800E-07,0.360
-6.700E-07,0.080
-6.600E-07,0.040
-6.500E-07,0.000
-6.400E-07,-0.040
-6.300E-07,0.000
-6.200E-07,-0.120
-6.100E-07,-0.120
-6.000E-07,-0.160
-5.900E-07,-0.360
-5.800E-07,-0.320
-5.700E-07,-0.360
-5.600E-07,-0.360
-5.500E-07,-0.320
-5.400E-07,-0.360
-5.300E-07,-0.320
-5.200E-07,-0.320
-5.100E-07,-0.360
-5.000E-07,-0.440
-4.900E-07,-0.480
-4.800E-07,-0.520
-4.700E-07,-0.600
-4.600E-07,-0.640
-4.500E-07,-0.680
-4.400E-07,-0.600
-4.300E-07,-0.640
-4.200E-07,-0.680
-4.100E-07,-0.640
-4.000E-07,-0.760
-3.900E-07,-0.760
-3.800E-07,-0.800
-3.700E-07,-0.760
-3.600E-07,-0.840
-3.500E-07,-0.840
-3.400E-07,-0.920
-3.300E-07,-0.880
-3.200E-07,-0.920
-3.100E-07,-0.840
-3.000E-07,-0.720
-2.900E-07,-0.560
-2.800E-07,-0.560
-2.700E-07,-0.480
-2.600E-07,-0.520
-2.500E-07,-0.560
-2.400E-07,-0.520
-2.300E-07,-0.560
-2.200E-07,-0.680
-2.100E-07,-0.640
-2.000E-07,-0.640
-1.900E-07,-0.680
-1.800E-07,-0.640
-1.700E-07,-0.680
-1.600E-07,-0.760
-1.500E-07,-0.760
-1.400E-07,-0.720
-1.300E-07,-0.840
-1.200E-07,-0.680
-1.100E-07,-0.720
-1.000E-07,-0.680
-9.000E-08,-0.560
-8.000E-08,-0.680
-7.000E-08,-0.760
-6.000E-08,-0.640
-5.000E-08,-0.800
-4.000E-08,-1.320
-3.000E-08,-1.000
-2.000E-08,-2.760
-1.000E-08,-3.080
0.000E+00,-2.200
1.000E-08,-2.440
2.000E-08,-0.400
3.000E-08,1.040
4.000E-08,0.320
5.000E-08,0.360
6.000E-08,-1.160
7.000E-08,-2.200
8.000E-08,-1.520
9.000E-08,-1.160
1.000E-07,0.120
1.100E-07,1.000
1.200E-07,0.840
1.300E-07,0.480
1.400E-07,-0.400
1.500E-07,-0.960
1.600E-07,-0.840
1.700E-07,-0.440
1.800E-07,0.280
1.900E-07,0.800
2.000E-07,0.800
2.100E-07,0.560
2.200E-07,0.000
2.300E-07,-0.680
2.400E-07,-1.040
2.500E-07,-1.040
2.600E-07,-1.000
2.700E-07,-0.760
2.800E-07,-1.000
2.900E-07,-1.320
3.000E-07,-1.640
3.100E-07,-2.200
3.200E-07,-2.120
3.300E-07,-2.080
3.400E-07,-1.880
3.500E-07,-1.520
3.600E-07,-1.280
3.700E-07,-1.160
3.800E-07,-1.080
3.900E-07,-1.040
4.000E-07,-0.920
4.100E-07,-0.640
4.200E-07,-0.320
4.300E-07,0.080
4.400E-07,0.400
4.500E-07,0.240
4.600E-07,0.160
4.700E-07,0.080
4.800E-07,-0.160
4.900E-07,0.040
5.000E-07,0.040
5.100E-07,0.120
5.200E-07,0.160
5.300E-07,-0.040
5.400E-07,-0.120
5.500E-07,-0.240
5.600E-07,-0.360
5.700E-07,-0.160
5.800E-07,-0.040
5.900E-07,0.000
6.000E-07,0.160
6.100E-07,0.240
6.200E-07,0.200
6.300E-07,0.240
6.400E-07,0.160
6.500E-07,0.080
6.600E-07,0.000
6.700E-07,-0.120
6.800E-07,-0.160
6.900E-07,-0.080
7.000E-07,-0.280
7.100E-07,-0.360
7.200E-07,-0.440
7.300E-07,-0.640
7.400E-07,-0.720
7.500E-07,-0.840
7.600E-07,-0.920
7.700E-07,-1.040
7.800E-07,-1.120
7.900E-07,-1.240
8.000E-07,-1.400
8.100E-07,-1.600
8.200E-07,-1.680
8.300E-07,-1.680
8.400E-07,-1.680
8.500E-07,-1.640
8.600E-07,-1.600
8.700E-07,-1.600
8.800E-07,-1.560
8.900E-07,-1.560
9.000E-07,-1.360
9.100E-07,-1.480
9.200E-07,-1.320
9.300E-07,-1.280
9.400E-07,-1.400
9.500E-07,-0.800
9.600E-07,-1.280
9.700E-07,-1.160
9.800E-07,-0.840
9.900E-07,-1.680
1.000E-06,-1.200
1.010E-06,-1.520
1.020E-06,-2.000
1.030E-06,-1.840
1.040E-06,-2.520
1.050E-06,-2.120
1.060E-06,-1.800
1.070E-06,-1.680
1.080E-06,-1.280
1.090E-06,-1.240
1.100E-06,-1.320
1.110E-06,-1.240
1.120E-06,-1.120
1.130E-06,-1.080
1.140E-06,-0.800
1.150E-06,-0.760
1.160E-06,-0.520
1.170E-06,-0.520
1.180E-06,-0.320
1.190E-06,-0.200
1.200E-06,-0.040
1.210E-06,-0.160
1.220E-06,-0.160
1.230E-06,-0.240
1.240E-06,-0.240
1.250E-06,-0.040
1.260E-06,-0.120
1.270E-06,-0.160
1.280E-06,-0.440
1.290E-06,-0.640
1.300E-06,-0.760
1.310E-06,-0.960
1.320E-06,-1.120
1.330E-06,-1.240
1.340E-06,-1.520
1.350E-06,-1.680
1.360E-06,-1.880
1.370E-06,-2.160
1.380E-06,-2.200
1.390E-06,-2.320
1.400E-06,-2.360
1.410E-06,-2.400
1.420E-06,-2.360
1.430E-06,-2.360
1.440E-06,-2.200
1.450E-06,-2.000
1.460E-06,-1.880
1.470E-06,-1.720
1.480E-06,-1.600
1.490E-06,-1.560
1.500E-06,-1.400
1.510E-06,-1.320
1.520E-06,-1.200
1.530E-06,-1.080
1.540E-06,-1.120
1.550E-06,-1.080
1.560E-06,-1.120
1.570E-06,-1.080
1.580E-06,-1.120
1.590E-06,-1.200
1.600E-06,-1.280
1.610E-06,-1.320
1.620E-06,-1.480
1.630E-06,-1.600
1.640E-06,-1.720
1.650E-06,-1.840
1.660E-06,-1.960
1.670E-06,-2.080
1.680E-06,-2.240
1.690E-06,-2.240
1.700E-06,-2.320
1.710E-06,-2.400
1.720E-06,-2.440
1.730E-06,-2.360
1.740E-06,-2.400
1.750E-06,-2.400
1.760E-06,-2.320
1.770E-06,-2.480
1.780E-06,-2.320
1.790E-06,-2.360
1.800E-06,-2.440
1.810E-06,-2.080
1.820E-06,-2.360
1.830E-06,-2.120
1.840E-06,-2.160
1.850E-06,-2.160
1.860E-06,-1.840
1.870E-06,-1.840
1.880E-06,-1.720
1.890E-06,-1.760
1.900E-06,-1.840
1.910E-06,-1.960
1.920E-06,-1.960
1.930E-06,-2.640
1.940E-06,-3.200
1.950E-06,-3.560
1.960E-06,-4.640
1.970E-06,-4.240
1.980E-06,-4.200
1.990E-06,-4.520
2.000E-06,-3.600
2.010E-06,-3.560
2.020E-06,-3.080
2.030E-06,-2.240
2.040E-06,-2.200
2.050E-06,-1.440
2.060E-06,-0.920
2.070E-06,-0.200
2.080E-06,1.000
2.090E-06,1.480
2.100E-06,2.160
2.110E-06,2.000
2.120E-06,1.600
2.130E-06,1.600
2.140E-06,1.520
2.150E-06,1.520
2.160E-06,1.560
2.170E-06,1.120
2.180E-06,0.800
2.190E-06,0.360
2.200E-06,-0.480
2.210E-06,-0.880
2.220E-06,-1.240
2.230E-06,-1.560
2.240E-06,-1.560
2.250E-06,-1.680
2.260E-06,-1.760
2.270E-06,-1.720
2.280E-06,-1.880
2.290E-06,-1.920
2.300E-06,-1.840
2.310E-06,-1.840
2.320E-06,-1.720
2.330E-06,-1.560
2.340E-06,-1.440
2.350E-06,-1.240
2.360E-06,-1.160
2.370E-06,-1.200
2.380E-06,-1.120
2.390E-06,-1.200
2.400E-06,-1.320
2.410E-06,-1.400
2.420E-06,-1.560
2.430E-06,-1.760
2.440E-06,-1.960
2.450E-06,-2.240
2.460E-06,-2.520
2.470E-06,-2.720
2.480E-06,-3.040
2.490E-06,-3.200
2.500E-06,-3.360
2.510E-06,-3.480
2.520E-06,-3.480
2.530E-06,-3.480
2.540E-06,-3.520
2.550E-06,-3.560
2.560E-06,-3.640
2.570E-06,-3.600
2.580E-06,-3.440
2.590E-06,-3.280
2.600E-06,-2.960
2.610E-06,-2.520
2.620E-06,-2.360
2.630E-06,-2.200
2.640E-06,-2.040
2.650E-06,-1.880
2.660E-06,-1.680
2.670E-06,-1.600
2.680E-06,-1.720
2.690E-06,-1.960
2.700E-06,-2.320
2.710E-06,-2.840
2.720E-06,-2.960
2.730E-06,-3.000
2.740E-06,-3.080
2.750E-06,-3.120
2.760E-06,-3.480
2.770E-06,-3.680
2.780E-06,-4.120
2.790E-06,-4.440
2.800E-06,-4.480
2.810E-06,-4.800
2.820E-06,-4.600
2.830E-06,-4.560
2.840E-06,-4.560
2.850E-06,-4.160
2.860E-06,-4.040
2.870E-06,-3.840
2.880E-06,-3.640
2.890E-06,-3.800
2.900E-06,-3.760
2.910E-06,-3.880
2.920E-06,-4.040
2.930E-06,-3.920
2.940E-06,-4.080
2.950E-06,-4.360
2.960E-06,-4.680
2.970E-06,-4.960
2.980E-06,-5.160
2.990E-06,-5.240
3.000E-06,-5.240
3.010E-06,-5.240
3.020E-06,-5.120
3.030E-06,-4.960
3.040E-06,-4.880
3.050E-06,-4.880
3.060E-06,-4.880
3.070E-06,-4.880
3.080E-06,-4.840
3.090E-06,-4.680
3.100E-06,-4.600
3.110E-06,-4.560
3.120E-06,-4.640
3.130E-06,-4.720
3.140E-06,-4.800
3.150E-06,-4.880
3.160E-06,-4.960
3.170E-06,-5.000
3.180E-06,-5.000
3.190E-06,-4.960
3.200E-06,-4.960
3.210E-06,-4.960
3.220E-06,-4.920
3.230E-06,-4.840
3.240E-06,-4.720
3.250E-06,-4.560
3.260E-06,-4.320
3.270E-06,-4.120
3.280E-06,-3.920
3.290E-06,-3.760
3.300E-06,-3.560
3.310E-06,-3.400
3.320E-06,-3.240
3.330E-06,-3.000
3.340E-06,-2.880
3.350E-06,-2.760
3.360E-06,-2.720
3.370E-06,-2.600
3.380E-06,-2.520
3.390E-06,-2.520
3.400E-06,-2.480
3.410E-06,-2.440
3.420E-06,-2.400
3.430E-06,-2.320
3.440E-06,-2.320
3.450E-06,-2.360
3.460E-06,-2.320
3.470E-06,-2.240
3.480E-06,-2.160
3.490E-06,-2.120
3.500E-06,-2.120
3.510E-06,-2.000
3.520E-06,-1.920
3.530E-06,-1.880
3.540E-06,-1.880
3.550E-06,-1.840
3.560E-06,-1.800
3.570E-06,-1.760
3.580E-06,-1.760
3.590E-06,-1.680
3.600E-06,-1.680
3.610E-06,-1.680
3.620E-06,-1.720
3.630E-06,-1.720
3.640E-06,-1.760
3.650E-06,-1.720
3.660E-06,-1.800
3.670E-06,-1.800
3.680E-06,-1.760
3.690E-06,-1.800
3.700E-06,-1.800
3.710E-06,-1.760
3.720E-06,-1.720
3.730E-06,-1.680
3.740E-06,-1.640
3.750E-06,-1.560
3.760E-06,-1.520
3.770E-06,-1.480
3.780E-06,-1.520
3.790E-06,-1.440
3.800E-06,-1.480
3.810E-06,-1.440
3.820E-06,-1.480
3.830E-06,-1.480
3.840E-06,-1.440
3.850E-06,-1.480
3.860E-06,-1.480
3.870E-06,-1.520
3.880E-06,-1.520
3.890E-06,-1.560
3.900E-06,-1.520
3.910E-06,-1.520
3.920E-06,-1.560
3.930E-06,-1.480
3.940E-06,-1.480
3.950E-06,-1.480
3.960E-06,-1.400
3.970E-06,-1.360
3.980E-06,-1.320
3.990E-06,-1.240
4.000E-06,-1.240
4.010E-06,-1.160
4.020E-06,-1.080
4.030E-06,-1.080
4.040E-06,-1.000
4.050E-06,-1.000
4.060E-06,-1.040
4.070E-06,-1.000
4.080E-06,-0.960
4.090E-06,-0.960
4.100E-06,-1.000
4.110E-06,-0.960
4.120E-06,-1.000
4.130E-06,-0.960
4.140E-06,-1.040
4.150E-06,-1.040
4.160E-06,-1.120
4.170E-06,-1.080
4.180E-06,-1.160
4.190E-06,-1.160
4.200E-06,-1.160
4.210E-06,-1.160
4.220E-06,-1.120
4.230E-06,-1.080
4.240E-06,-1.120
4.250E-06,-1.120
4.260E-06,-1.080
4.270E-06,-1.080
4.280E-06,-1.040
4.290E-06,-0.960
4.300E-06,-1.000
4.310E-06,-0.920
4.320E-06,-0.880
4.330E-06,-0.840
4.340E-06,-0.800
4.350E-06,-0.680
4.360E-06,-0.640
4.370E-06,-0.600
4.380E-06,-0.640
4.390E-06,-0.600
4.400E-06,-0.640
4.410E-06,-0.640
4.420E-06,-0.680
4.430E-06,-0.720
4.440E-06,-0.720
4.450E-06,-0.720
4.460E-06,-0.760
4.470E-06,-0.760
4.480E-06,-0.800
4.490E-06,-0.840
4.500E-06,-0.880
4.510E-06,-0.960
4.520E-06,-1.040
4.530E-06,-1.000
4.540E-06,-0.880
4.550E-06,-0.880
4.560E-06,-0.800
4.570E-06,-0.760
4.580E-06,-0.760
4.590E-06,-0.760
4.600E-06,-0.800
4.610E-06,-0.840
4.620E-06,-0.840
4.630E-06,-0.800
4.640E-06,-0.760
4.650E-06,-0.680
4.660E-06,-0.680
4.670E-06,-0.640
4.680E-06,-0.560
4.690E-06,-0.600
4.700E-06,-0.480
4.710E-06,-0.440
4.720E-06,-0.480
4.730E-06,-0.440
4.740E-06,-0.400
4.750E-06,-0.400
4.760E-06,-0.440
4.770E-06,-0.400
4.780E-06,-0.400
4.790E-06,-0.360
4.800E-06,-0.400
4.810E-06,-0.320
4.820E-06,-0.360
4.830E-06,-0.240
4.840E-06,-0.240
4.850E-06,-0.160
4.860E-06,-0.040
4.870E-06,0.080
4.880E-06,0.160
4.890E-06,0.120
4.900E-06,0.080
4.910E-06,0.040
4.920E-06,0.000
4.930E-06,-0.160
4.940E-06,-0.240
4.950E-06,-0.240
4.960E-06,-0.320
4.970E-06,-0.440
4.980E-06,-0.480
4.990E-06,-0.560
5.000E-06,-0.560
5.010E-06,-0.600
5.020E-06,-0.680
5.030E-06,-0.640
5.040E-06,-0.640
5.050E-06,-0.640
5.060E-06,-0.600
5.070E-06,-0.600
5.080E-06,-0.480
5.090E-06,-0.440
5.100E-06,-0.440
5.110E-06,-0.360
5.120E-06,-0.320
5.130E-06,-0.320
5.140E-06,-0.360
5.150E-06,-0.360
5.160E-06,-0.320
5.170E-06,-0.320
5.180E-06,-0.360
5.190E-06,-0.320
5.200E-06,-0.240
5.210E-06,-0.240
5.220E-06,-0.320
5.230E-06,-0.360
5.240E-06,-0.360
5.250E-06,-0.360
5.260E-06,-0.400
5.270E-06,-0.360
5.280E-06,-0.320
5.290E-06,-0.360
5.300E-06,-0.320
5.310E-06,-0.280
5.320E-06,-0.280
5.330E-06,-0.240
5.340E-06,-0.240
5.350E-06,-0.320
5.360E-06,-0.360
5.370E-06,-0.320
5.380E-06,-0.360
5.390E-06,-0.400
5.400E-06,-0.400
5.410E-06,-0.440
5.420E-06,-0.400
5.430E-06,-0.320
5.440E-06,-0.360
5.450E-06,-0.280
5.460E-06,-0.320
5.470E-06,-0.280
5.480E-06,-0.360
5.490E-06,-0.280
5.500E-06,-0.360
5.510E-06,-0.360
5.520E-06,-0.400
5.530E-06,-0.400
5.540E-06,-0.440
5.550E-06,-0.520
5.560E-06,-0.560
5.570E-06,-0.520
5.580E-06,-0.560
5.590E-06,-0.560
5.600E-06,-0.560
5.610E-06,-0.600
5.620E-06,-0.600
5.630E-06,-0.560
5.640E-06,-0.560
5.650E-06,-0.480
5.660E-06,-0.440
5.670E-06,-0.400
5.680E-06,-0.360
5.690E-06,-0.320
5.700E-06,-0.320
5.710E-06,-0.320
5.720E-06,-0.400
5.730E-06,-0.400
5.740E-06,-0.440
5.750E-06,-0.480
5.760E-06,-0.440
5.770E-06,-0.360
5.780E-06,-0.280
5.790E-06,-0.160
5.800E-06,-0.080
5.810E-06,0.040
5.820E-06,0.200
5.830E-06,0.360
5.840E-06,0.440
5.850E-06,0.480
5.860E-06,0.600
5.870E-06,0.680
5.880E-06,0.640
5.890E-06,0.720
5.900E-06,0.760
