mediciones/5-27/-57.5/WaveData50306.csv

#timebase=2000000(ps)
,#voltbase=1000000(mv/100)
#size=4000
-5.650E-06,0.080
-5.640E-06,0.040
-5.630E-06,0.080
-5.620E-06,0.000
-5.610E-06,0.080
-5.600E-06,0.120
-5.590E-06,0.120
-5.580E-06,0.040
-5.570E-06,0.040
-5.560E-06,0.040
-5.550E-06,0.080
-5.540E-06,0.080
-5.530E-06,0.080
-5.520E-06,0.080
-5.510E-06,0.080
-5.500E-06,0.040
-5.490E-06,0.080
-5.480E-06,0.040
-5.470E-06,0.040
-5.460E-06,0.080
-5.450E-06,0.040
-5.440E-06,0.040
-5.430E-06,0.080
-5.420E-06,0.040
-5.410E-06,0.080
-5.400E-06,0.080
-5.390E-06,0.080
-5.380E-06,0.080
-5.370E-06,0.120
-5.360E-06,0.080
-5.350E-06,0.040
-5.340E-06,0.000
-5.330E-06,0.080
-5.320E-06,0.040
-5.310E-06,0.080
-5.300E-06,0.000
-5.290E-06,0.080
-5.280E-06,0.000
-5.270E-06,0.080
-5.260E-06,0.120
-5.250E-06,0.120
-5.240E-06,0.120
-5.230E-06,0.000
-5.220E-06,0.040
-5.210E-06,0.040
-5.200E-06,0.040
-5.190E-06,0.080
-5.180E-06,0.080
-5.170E-06,0.080
-5.160E-06,0.080
-5.150E-06,0.080
-5.140E-06,0.040
-5.130E-06,0.040
-5.120E-06,0.080
-5.110E-06,0.120
-5.100E-06,0.120
-5.090E-06,0.120
-5.080E-06,0.000
-5.070E-06,-0.040
-5.060E-06,0.040
-5.050E-06,0.040
-5.040E-06,0.080
-5.030E-06,0.040
-5.020E-06,0.040
-5.010E-06,0.000
-5.000E-06,0.040
-4.990E-06,0.120
-4.980E-06,0.120
-4.970E-06,0.120
-4.960E-06,0.040
-4.950E-06,0.080
-4.940E-06,0.040
-4.930E-06,0.040
-4.920E-06,0.040
-4.910E-06,0.080
-4.900E-06,0.000
-4.890E-06,0.080
-4.880E-06,0.040
-4.870E-06,0.040
-4.860E-06,0.040
-4.850E-06,0.080
-4.840E-06,0.120
-4.830E-06,0.000
-4.820E-06,0.000
-4.810E-06,0.040
-4.800E-06,0.040
-4.790E-06,0.080
-4.780E-06,0.040
-4.770E-06,0.040
-4.760E-06,0.080
-4.750E-06,0.040
-4.740E-06,0.000
-4.730E-06,0.080
-4.720E-06,0.080
-4.710E-06,0.080
-4.700E-06,0.080
-4.690E-06,0.040
-4.680E-06,0.040
-4.670E-06,0.080
-4.660E-06,0.040
-4.650E-06,0.080
-4.640E-06,0.080
-4.630E-06,0.080
-4.620E-06,0.080
-4.610E-06,0.040
-4.600E-06,0.040
-4.590E-06,0.080
-4.580E-06,0.040
-4.570E-06,0.080
-4.560E-06,0.040
-4.550E-06,0.080
-4.540E-06,0.040
-4.530E-06,0.080
-4.520E-06,0.080
-4.510E-06,0.040
-4.500E-06,0.080
-4.490E-06,0.040
-4.480E-06,0.040
-4.470E-06,0.080
-4.460E-06,0.040
-4.450E-06,0.080
-4.440E-06,0.040
-4.430E-06,0.000
-4.420E-06,0.040
-4.410E-06,0.040
-4.400E-06,0.040
-4.390E-06,0.040
-4.380E-06,0.040
-4.370E-06,0.040
-4.360E-06,0.080
-4.350E-06,0.080
-4.340E-06,0.000
-4.330E-06,0.000
-4.320E-06,0.080
-4.310E-06,0.040
-4.300E-06,0.040
-4.290E-06,0.000
-4.280E-06,0.040
-4.270E-06,0.040
-4.260E-06,0.080
-4.250E-06,0.000
-4.240E-06,0.000
-4.230E-06,0.000
-4.220E-06,0.000
-4.210E-06,0.040
-4.200E-06,0.080
-4.190E-06,0.080
-4.180E-06,0.080
-4.170E-06,0.120
-4.160E-06,0.040
-4.150E-06,0.120
-4.140E-06,0.120
-4.130E-06,0.040
-4.120E-06,0.080
-4.110E-06,0.080
-4.100E-06,0.080
-4.090E-06,0.040
-4.080E-06,0.040
-4.070E-06,0.080
-4.060E-06,0.080
-4.050E-06,0.040
-4.040E-06,0.080
-4.030E-06,0.040
-4.020E-06,0.000
-4.010E-06,0.040
-4.000E-06,0.000
-3.990E-06,0.000
-3.980E-06,0.080
-3.970E-06,0.000
-3.960E-06,0.000
-3.950E-06,0.040
-3.940E-06,0.080
-3.930E-06,0.040
-3.920E-06,0.080
-3.910E-06,0.040
-3.900E-06,0.040
-3.890E-06,0.040
-3.880E-06,0.080
-3.870E-06,0.080
-3.860E-06,0.080
-3.850E-06,0.080
-3.840E-06,0.080
-3.830E-06,0.040
-3.820E-06,0.040
-3.810E-06,0.080
-3.800E-06,0.080
-3.790E-06,0.080
-3.780E-06,0.120
-3.770E-06,0.040
-3.760E-06,0.000
-3.750E-06,0.040
-3.740E-06,0.080
-3.730E-06,0.040
-3.720E-06,0.040
-3.710E-06,0.040
-3.700E-06,0.040
-3.690E-06,0.000
-3.680E-06,0.040
-3.670E-06,0.120
-3.660E-06,0.000
-3.650E-06,0.040
-3.640E-06,0.040
-3.630E-06,0.080
-3.620E-06,0.080
-3.610E-06,0.040
-3.600E-06,0.040
-3.590E-06,0.040
-3.580E-06,0.000
-3.570E-06,0.000
-3.560E-06,0.040
-3.550E-06,0.040
-3.540E-06,0.040
-3.530E-06,0.040
-3.520E-06,0.080
-3.510E-06,0.040
-3.500E-06,0.040
-3.490E-06,0.040
-3.480E-06,0.080
-3.470E-06,0.040
-3.460E-06,0.080
-3.450E-06,0.000
-3.440E-06,0.040
-3.430E-06,0.000
-3.420E-06,0.000
-3.410E-06,0.040
-3.400E-06,0.040
-3.390E-06,0.080
-3.380E-06,0.040
-3.370E-06,0.040
-3.360E-06,0.000
-3.350E-06,0.040
-3.340E-06,0.040
-3.330E-06,0.040
-3.320E-06,0.080
-3.310E-06,0.080
-3.300E-06,0.040
-3.290E-06,0.080
-3.280E-06,0.080
-3.270E-06,0.040
-3.260E-06,0.080
-3.250E-06,0.120
-3.240E-06,0.080
-3.230E-06,0.160
-3.220E-06,0.040
-3.210E-06,0.080
-3.200E-06,0.080
-3.190E-06,0.000
-3.180E-06,0.080
-3.170E-06,0.240
-3.160E-06,0.200
-3.150E-06,0.160
-3.140E-06,0.320
-3.130E-06,0.200
-3.120E-06,0.120
-3.110E-06,0.080
-3.100E-06,0.040
-3.090E-06,-0.080
-3.080E-06,0.000
-3.070E-06,0.120
-3.060E-06,0.000
-3.050E-06,0.080
-3.040E-06,0.040
-3.030E-06,-0.040
-3.020E-06,-0.080
-3.010E-06,-0.120
-3.000E-06,0.000
-2.990E-06,0.000
-2.980E-06,0.000
-2.970E-06,-0.040
-2.960E-06,-0.040
-2.950E-06,-0.080
-2.940E-06,-0.040
-2.930E-06,0.080
-2.920E-06,-0.040
-2.910E-06,0.040
-2.900E-06,0.040
-2.890E-06,0.040
-2.880E-06,0.080
-2.870E-06,0.280
-2.860E-06,0.320
-2.850E-06,0.400
-2.840E-06,0.360
-2.830E-06,0.240
-2.820E-06,0.200
-2.810E-06,0.120
-2.800E-06,0.240
-2.790E-06,0.320
-2.780E-06,0.320
-2.770E-06,0.280
-2.760E-06,0.240
-2.750E-06,0.320
-2.740E-06,0.280
-2.730E-06,0.320
-2.720E-06,0.400
-2.710E-06,0.320
-2.700E-06,0.320
-2.690E-06,0.280
-2.680E-06,0.200
-2.670E-06,0.320
-2.660E-06,0.280
-2.650E-06,0.320
-2.640E-06,0.240
-2.630E-06,0.160
-2.620E-06,0.160
-2.610E-06,0.120
-2.600E-06,0.200
-2.590E-06,0.160
-2.580E-06,0.200
-2.570E-06,0.160
-2.560E-06,0.120
-2.550E-06,0.040
-2.540E-06,0.040
-2.530E-06,0.000
-2.520E-06,0.040
-2.510E-06,-0.040
-2.500E-06,-0.040
-2.490E-06,0.000
-2.480E-06,-0.040
-2.470E-06,-0.040
-2.460E-06,-0.040
-2.450E-06,0.000
-2.440E-06,0.000
-2.430E-06,0.000
-2.420E-06,-0.040
-2.410E-06,0.040
-2.400E-06,0.080
-2.390E-06,0.080
-2.380E-06,0.120
-2.370E-06,0.120
-2.360E-06,0.120
-2.350E-06,0.200
-2.340E-06,0.200
-2.330E-06,0.160
-2.320E-06,0.200
-2.310E-06,0.240
-2.300E-06,0.240
-2.290E-06,0.280
-2.280E-06,0.280
-2.270E-06,0.280
-2.260E-06,0.320
-2.250E-06,0.320
-2.240E-06,0.320
-2.230E-06,0.320
-2.220E-06,0.240
-2.210E-06,0.280
-2.200E-06,0.200
-2.190E-06,0.120
-2.180E-06,0.120
-2.170E-06,0.080
-2.160E-06,-0.080
-2.150E-06,-0.040
-2.140E-06,-0.120
-2.130E-06,-0.040
-2.120E-06,0.120
-2.110E-06,0.160
-2.100E-06,0.240
-2.090E-06,0.160
-2.080E-06,0.120
-2.070E-06,0.240
-2.060E-06,0.280
-2.050E-06,0.440
-2.040E-06,0.480
-2.030E-06,0.480
-2.020E-06,0.360
-2.010E-06,0.320
-2.000E-06,0.320
-1.990E-06,0.240
-1.980E-06,0.360
-1.970E-06,0.440
-1.960E-06,0.440
-1.950E-06,0.560
-1.940E-06,0.480
-1.930E-06,0.600
-1.920E-06,0.600
-1.910E-06,0.600
-1.900E-06,0.680
-1.890E-06,0.680
-1.880E-06,0.760
-1.870E-06,0.800
-1.860E-06,0.760
-1.850E-06,0.840
-1.840E-06,0.800
-1.830E-06,0.720
-1.820E-06,0.840
-1.810E-06,0.840
-1.800E-06,0.880
-1.790E-06,0.840
-1.780E-06,0.880
-1.770E-06,0.880
-1.760E-06,0.840
-1.750E-06,0.880
-1.740E-06,0.880
-1.730E-06,0.840
-1.720E-06,0.880
-1.710E-06,0.880
-1.700E-06,0.880
-1.690E-06,0.880
-1.680E-06,0.920
-1.670E-06,0.880
-1.660E-06,0.800
-1.650E-06,0.880
-1.640E-06,0.760
-1.630E-06,0.800
-1.620E-06,0.800
-1.610E-06,0.720
-1.600E-06,0.720
-1.590E-06,0.680
-1.580E-06,0.680
-1.570E-06,0.800
-1.560E-06,0.840
-1.550E-06,0.840
-1.540E-06,0.840
-1.530E-06,0.760
-1.520E-06,0.800
-1.510E-06,0.760
-1.500E-06,0.760
-1.490E-06,0.800
-1.480E-06,0.720
-1.470E-06,0.680
-1.460E-06,0.560
-1.450E-06,0.560
-1.440E-06,0.480
-1.430E-06,0.440
-1.420E-06,0.520
-1.410E-06,0.440
-1.400E-06,0.520
-1.390E-06,0.400
-1.380E-06,0.400
-1.370E-06,0.320
-1.360E-06,0.360
-1.350E-06,0.320
-1.340E-06,0.120
-1.330E-06,0.240
-1.320E-06,0.120
-1.310E-06,0.120
-1.300E-06,0.120
-1.290E-06,0.160
-1.280E-06,0.080
-1.270E-06,0.120
-1.260E-06,0.120
-1.250E-06,0.200
-1.240E-06,0.280
-1.230E-06,0.240
-1.220E-06,0.280
-1.210E-06,0.160
-1.200E-06,0.160
-1.190E-06,0.120
-1.180E-06,0.120
-1.170E-06,0.160
-1.160E-06,0.200
-1.150E-06,0.160
-1.140E-06,0.160
-1.130E-06,0.040
-1.120E-06,0.040
-1.110E-06,0.080
-1.100E-06,0.000
-1.090E-06,0.040
-1.080E-06,-0.040
-1.070E-06,0.040
-1.060E-06,0.040
-1.050E-06,0.080
-1.040E-06,0.160
-1.030E-06,0.200
-1.020E-06,0.040
-1.010E-06,0.080
-1.000E-06,0.000
-9.900E-07,-0.040
-9.800E-07,0.000
-9.700E-07,0.000
-9.600E-07,0.040
-9.500E-07,0.080
-9.400E-07,0.040
-9.300E-07,0.000
-9.200E-07,-0.040
-9.100E-07,-0.040
-9.000E-07,-0.040
-8.900E-07,0.040
-8.800E-07,0.120
-8.700E-07,0.160
-8.600E-07,0.120
-8.500E-07,0.160
-8.400E-07,0.160
-8.300E-07,0.120
-8.200E-07,0.240
-8.100E-07,0.280
-8.000E-07,0.320
-7.900E-07,0.320
-7.800E-07,0.240
-7.700E-07,0.200
-7.600E-07,0.280
-7.500E-07,0.280
-7.400E-07,0.240
-7.300E-07,0.280
-7.200E-07,0.080
-7.100E-07,0.040
-7.000E-07,0.000
-6.900E-07,-0.120
-6.800E-07,-0.080
-6.700E-07,-0.040
-6.600E-07,0.000
-6.500E-07,0.120
-6.400E-07,0.120
-6.300E-07,0.080
-6.200E-07,0.080
-6.100E-07,0.040
-6.000E-07,0.080
-5.900E-07,0.160
-5.800E-07,0.200
-5.700E-07,0.160
-5.600E-07,0.120
-5.500E-07,0.120
-5.400E-07,0.160
-5.300E-07,0.200
-5.200E-07,0.160
-5.100E-07,0.280
-5.000E-07,0.320
-4.900E-07,0.360
-4.800E-07,0.360
-4.700E-07,0.360
-4.600E-07,0.440
-4.500E-07,0.520
-4.400E-07,0.520
-4.300E-07,0.480
-4.200E-07,0.440
-4.100E-07,0.480
-4.000E-07,0.480
-3.900E-07,0.520
-3.800E-07,0.520
-3.700E-07,0.520
-3.600E-07,0.600
-3.500E-07,0.480
-3.400E-07,0.440
-3.300E-07,0.440
-3.200E-07,0.360
-3.100E-07,0.480
-3.000E-07,0.480
-2.900E-07,0.600
-2.800E-07,0.520
-2.700E-07,0.360
-2.600E-07,0.400
-2.500E-07,0.240
-2.400E-07,0.240
-2.300E-07,0.320
-2.200E-07,0.280
-2.100E-07,0.320
-2.000E-07,0.280
-1.900E-07,0.320
-1.800E-07,0.400
-1.700E-07,0.320
-1.600E-07,0.360
-1.500E-07,0.440
-1.400E-07,0.480
-1.300E-07,0.520
-1.200E-07,0.520
-1.100E-07,0.680
-1.000E-07,0.520
-9.000E-08,0.440
-8.000E-08,0.400
-7.000E-08,0.360
-6.000E-08,0.360
-5.000E-08,0.600
-4.000E-08,0.160
-3.000E-08,0.720
-2.000E-08,0.000
-1.000E-08,0.200
0.000E+00,-0.120
1.000E-08,-0.040
2.000E-08,0.480
3.000E-08,1.240
4.000E-08,1.840
5.000E-08,1.760
6.000E-08,1.320
7.000E-08,0.520
8.000E-08,0.000
9.000E-08,-0.040
1.000E-07,0.680
1.100E-07,1.040
1.200E-07,1.280
1.300E-07,1.160
1.400E-07,0.880
1.500E-07,0.640
1.600E-07,0.240
1.700E-07,0.120
1.800E-07,0.600
1.900E-07,0.440
2.000E-07,1.000
2.100E-07,0.960
2.200E-07,0.600
2.300E-07,0.520
2.400E-07,0.000
2.500E-07,0.200
2.600E-07,0.400
2.700E-07,0.880
2.800E-07,1.040
2.900E-07,0.320
3.000E-07,0.240
3.100E-07,-0.520
3.200E-07,-0.400
3.300E-07,0.200
3.400E-07,0.400
3.500E-07,0.880
3.600E-07,0.920
3.700E-07,0.400
3.800E-07,0.240
3.900E-07,0.160
4.000E-07,0.120
4.100E-07,0.520
4.200E-07,0.520
4.300E-07,0.680
4.400E-07,0.680
4.500E-07,0.480
4.600E-07,0.440
4.700E-07,0.600
4.800E-07,0.760
4.900E-07,0.840
5.000E-07,0.800
5.100E-07,0.800
5.200E-07,0.720
5.300E-07,0.880
5.400E-07,0.680
5.500E-07,0.760
5.600E-07,0.480
5.700E-07,0.080
5.800E-07,0.280
5.900E-07,-0.040
6.000E-07,0.000
6.100E-07,0.000
6.200E-07,-0.120
6.300E-07,0.000
6.400E-07,0.000
6.500E-07,-0.120
6.600E-07,0.080
6.700E-07,0.000
6.800E-07,0.160
6.900E-07,0.240
7.000E-07,0.040
7.100E-07,0.160
7.200E-07,0.080
7.300E-07,0.040
7.400E-07,0.120
7.500E-07,0.160
7.600E-07,0.160
7.700E-07,0.240
7.800E-07,0.160
7.900E-07,0.160
8.000E-07,0.120
8.100E-07,0.000
8.200E-07,-0.040
8.300E-07,-0.160
8.400E-07,-0.120
8.500E-07,-0.080
8.600E-07,0.000
8.700E-07,-0.040
8.800E-07,-0.080
8.900E-07,0.000
9.000E-07,-0.120
9.100E-07,-0.080
9.200E-07,-0.040
9.300E-07,0.080
9.400E-07,0.160
9.500E-07,0.280
9.600E-07,0.200
9.700E-07,0.160
9.800E-07,0.040
9.900E-07,0.000
1.000E-06,0.080
1.010E-06,0.160
1.020E-06,0.160
1.030E-06,0.120
1.040E-06,0.160
1.050E-06,0.120
1.060E-06,0.160
1.070E-06,0.200
1.080E-06,0.160
1.090E-06,0.120
1.100E-06,0.000
1.110E-06,0.120
1.120E-06,0.000
1.130E-06,0.000
1.140E-06,0.040
1.150E-06,-0.120
1.160E-06,-0.160
1.170E-06,-0.120
1.180E-06,-0.120
1.190E-06,-0.160
1.200E-06,-0.120
1.210E-06,-0.160
1.220E-06,-0.200
1.230E-06,-0.040
1.240E-06,0.040
1.250E-06,0.080
1.260E-06,0.040
1.270E-06,0.000
1.280E-06,-0.040
1.290E-06,-0.040
1.300E-06,0.080
1.310E-06,0.080
1.320E-06,0.160
1.330E-06,0.280
1.340E-06,0.120
1.350E-06,0.240
1.360E-06,0.200
1.370E-06,0.120
1.380E-06,0.200
1.390E-06,0.240
1.400E-06,0.320
1.410E-06,0.400
1.420E-06,0.400
1.430E-06,0.200
1.440E-06,0.400
1.450E-06,0.240
1.460E-06,-0.200
1.470E-06,-0.480
1.480E-06,-0.960
1.490E-06,-0.600
1.500E-06,-0.680
1.510E-06,0.440
1.520E-06,0.880
1.530E-06,0.880
1.540E-06,0.800
1.550E-06,0.080
1.560E-06,-0.560
1.570E-06,-0.520
1.580E-06,-0.360
1.590E-06,0.120
1.600E-06,0.480
1.610E-06,0.280
1.620E-06,0.240
1.630E-06,-0.400
1.640E-06,-0.200
1.650E-06,-0.360
1.660E-06,-0.520
1.670E-06,-0.360
1.680E-06,-0.640
1.690E-06,-0.520
1.700E-06,-0.040
1.710E-06,0.280
1.720E-06,0.640
1.730E-06,0.520
1.740E-06,0.240
1.750E-06,0.080
1.760E-06,0.120
1.770E-06,0.640
1.780E-06,0.600
1.790E-06,-0.200
1.800E-06,-0.400
1.810E-06,-1.600
1.820E-06,-1.320
1.830E-06,-0.640
1.840E-06,0.000
1.850E-06,0.920
1.860E-06,0.720
1.870E-06,0.600
1.880E-06,0.520
1.890E-06,0.280
1.900E-06,0.400
1.910E-06,0.840
1.920E-06,0.360
1.930E-06,0.120
1.940E-06,0.040
1.950E-06,-0.360
1.960E-06,-0.280
1.970E-06,0.080
1.980E-06,0.160
1.990E-06,0.080
2.000E-06,-0.040
2.010E-06,-0.680
2.020E-06,-1.480
2.030E-06,-1.000
2.040E-06,-1.320
2.050E-06,-0.680
2.060E-06,0.000
2.070E-06,-0.160
2.080E-06,0.080
2.090E-06,-0.280
2.100E-06,-0.560
2.110E-06,-0.200
2.120E-06,-0.160
2.130E-06,0.000
2.140E-06,0.200
2.150E-06,-0.080
2.160E-06,-0.080
2.170E-06,-0.200
2.180E-06,-0.240
2.190E-06,0.000
2.200E-06,-0.040
2.210E-06,-0.280
2.220E-06,-0.280
2.230E-06,-0.600
2.240E-06,-0.560
2.250E-06,-0.560
2.260E-06,-0.840
2.270E-06,-1.000
2.280E-06,-1.360
2.290E-06,-1.520
2.300E-06,-1.480
2.310E-06,-1.400
2.320E-06,-0.920
2.330E-06,-0.840
2.340E-06,-0.920
2.350E-06,-0.920
2.360E-06,-1.040
2.370E-06,-1.040
2.380E-06,-0.800
2.390E-06,-0.760
2.400E-06,-0.960
2.410E-06,-1.000
2.420E-06,-1.200
2.430E-06,-1.280
2.440E-06,-0.960
2.450E-06,-0.920
2.460E-06,-0.640
2.470E-06,-0.480
2.480E-06,-0.400
2.490E-06,-0.120
2.500E-06,0.000
2.510E-06,0.160
2.520E-06,0.240
2.530E-06,0.240
2.540E-06,0.280
2.550E-06,0.600
2.560E-06,0.760
2.570E-06,0.880
2.580E-06,0.800
2.590E-06,0.680
2.600E-06,0.480
2.610E-06,0.320
2.620E-06,0.240
2.630E-06,0.280
2.640E-06,0.160
2.650E-06,-0.160
2.660E-06,-0.440
2.670E-06,-1.040
2.680E-06,-1.280
2.690E-06,-1.520
2.700E-06,-1.520
2.710E-06,-1.280
2.720E-06,-1.120
2.730E-06,-0.920
2.740E-06,-1.040
2.750E-06,-1.120
2.760E-06,-1.280
2.770E-06,-1.360
2.780E-06,-1.160
2.790E-06,-0.880
2.800E-06,-0.800
2.810E-06,-0.640
2.820E-06,-0.840
2.830E-06,-0.920
2.840E-06,-0.840
2.850E-06,-0.840
2.860E-06,-0.680
2.870E-06,-0.600
2.880E-06,-0.720
2.890E-06,-0.720
2.900E-06,-0.880
2.910E-06,-1.160
2.920E-06,-1.120
2.930E-06,-1.240
2.940E-06,-1.320
2.950E-06,-1.240
2.960E-06,-1.320
2.970E-06,-1.200
2.980E-06,-1.160
2.990E-06,-1.200
3.000E-06,-1.080
3.010E-06,-1.040
3.020E-06,-0.960
3.030E-06,-0.840
3.040E-06,-0.800
3.050E-06,-0.760
3.060E-06,-0.680
3.070E-06,-0.600
3.080E-06,-0.680
3.090E-06,-0.800
3.100E-06,-1.040
3.110E-06,-1.280
3.120E-06,-1.720
3.130E-06,-1.920
3.140E-06,-2.240
3.150E-06,-1.680
3.160E-06,-2.680
3.170E-06,-2.840
3.180E-06,-2.400
3.190E-06,-3.040
3.200E-06,-1.280
3.210E-06,-0.320
3.220E-06,0.080
3.230E-06,0.920
3.240E-06,0.360
3.250E-06,-0.560
3.260E-06,-0.280
3.270E-06,-0.200
3.280E-06,0.200
3.290E-06,1.280
3.300E-06,1.400
3.310E-06,1.480
3.320E-06,1.120
3.330E-06,0.680
3.340E-06,-0.360
3.350E-06,-1.520
3.360E-06,-1.440
3.370E-06,-2.160
3.380E-06,-1.160
3.390E-06,-0.320
3.400E-06,0.120
3.410E-06,0.280
3.420E-06,-0.840
3.430E-06,-1.600
3.440E-06,-2.040
3.450E-06,-1.520
3.460E-06,-0.680
3.470E-06,-0.160
3.480E-06,0.160
3.490E-06,-0.160
3.500E-06,-0.560
3.510E-06,-0.760
3.520E-06,-0.840
3.530E-06,-0.680
3.540E-06,-0.320
3.550E-06,-0.400
3.560E-06,-0.440
3.570E-06,-0.720
3.580E-06,-1.320
3.590E-06,-1.720
3.600E-06,-1.800
3.610E-06,-2.440
3.620E-06,-2.400
3.630E-06,-2.960
3.640E-06,-3.040
3.650E-06,-2.560
3.660E-06,-2.560
3.670E-06,-2.000
3.680E-06,-1.960
3.690E-06,-2.040
3.700E-06,-2.200
3.710E-06,-1.960
3.720E-06,-1.760
3.730E-06,-1.080
3.740E-06,-0.440
3.750E-06,0.000
3.760E-06,0.480
3.770E-06,0.800
3.780E-06,1.040
3.790E-06,1.280
3.800E-06,1.520
3.810E-06,1.600
3.820E-06,1.760
3.830E-06,1.760
3.840E-06,1.840
3.850E-06,1.680
3.860E-06,1.440
3.870E-06,1.000
3.880E-06,0.680
3.890E-06,0.160
3.900E-06,-0.120
3.910E-06,-0.440
3.920E-06,-0.720
3.930E-06,-0.920
3.940E-06,-1.160
3.950E-06,-1.240
3.960E-06,-1.400
3.970E-06,-1.440
3.980E-06,-1.600
3.990E-06,-1.760
4.000E-06,-1.720
4.010E-06,-1.760
4.020E-06,-1.560
4.030E-06,-1.360
4.040E-06,-1.080
4.050E-06,-0.880
4.060E-06,-0.680
4.070E-06,-0.640
4.080E-06,-0.560
4.090E-06,-0.600
4.100E-06,-0.640
4.110E-06,-0.520
4.120E-06,-0.440
4.130E-06,-0.400
4.140E-06,-0.440
4.150E-06,-0.480
4.160E-06,-0.600
4.170E-06,-0.720
4.180E-06,-0.680
4.190E-06,-0.880
4.200E-06,-0.800
4.210E-06,-1.760
4.220E-06,-0.160
4.230E-06,-1.360
4.240E-06,-5.240
4.250E-06,-1.080
4.260E-06,-5.240
4.270E-06,-2.360
4.280E-06,0.640
4.290E-06,-0.360
4.300E-06,1.320
4.310E-06,-1.000
4.320E-06,-1.560
4.330E-06,-1.000
4.340E-06,0.400
4.350E-06,1.560
4.360E-06,1.960
4.370E-06,0.720
4.380E-06,-0.360
4.390E-06,-0.480
4.400E-06,-0.960
4.410E-06,0.520
4.420E-06,0.640
4.430E-06,0.960
4.440E-06,0.520
4.450E-06,-1.080
4.460E-06,-1.640
4.470E-06,-2.280
4.480E-06,-2.640
4.490E-06,-2.000
4.500E-06,-2.000
4.510E-06,-1.960
4.520E-06,-1.840
4.530E-06,-2.400
4.540E-06,-2.640
4.550E-06,-2.560
4.560E-06,-3.040
4.570E-06,-2.680
4.580E-06,-2.160
4.590E-06,-2.240
4.600E-06,-1.520
4.610E-06,-1.160
4.620E-06,-0.920
4.630E-06,-0.320
4.640E-06,-0.320
4.650E-06,-0.280
4.660E-06,0.040
4.670E-06,0.040
4.680E-06,0.160
4.690E-06,0.200
4.700E-06,0.000
4.710E-06,-0.040
4.720E-06,-0.160
4.730E-06,-0.320
4.740E-06,-0.080
4.750E-06,-0.040
4.760E-06,-0.120
4.770E-06,-0.080
4.780E-06,-0.360
4.790E-06,-0.560
4.800E-06,-0.560
4.810E-06,-0.760
4.820E-06,-0.720
4.830E-06,-0.680
4.840E-06,-0.640
4.850E-06,-0.920
4.860E-06,-1.040
4.870E-06,-1.120
4.880E-06,-1.520
4.890E-06,-1.560
4.900E-06,-1.840
4.910E-06,-1.680
4.920E-06,-1.240
4.930E-06,-0.880
4.940E-06,-0.200
4.950E-06,-0.040
4.960E-06,-0.280
4.970E-06,-0.560
4.980E-06,-1.120
4.990E-06,-1.160
5.000E-06,-1.120
5.010E-06,-1.000
5.020E-06,-0.840
5.030E-06,-0.840
5.040E-06,-0.920
5.050E-06,-1.160
5.060E-06,-1.640
5.070E-06,-2.080
5.080E-06,-2.560
5.090E-06,-2.920
5.100E-06,-2.600
5.110E-06,-2.160
5.120E-06,-1.240
5.130E-06,-0.280
5.140E-06,0.000
5.150E-06,-0.080
5.160E-06,-0.520
5.170E-06,-1.400
5.180E-06,-0.520
5.190E-06,-1.200
5.200E-06,-1.400
5.210E-06,-0.920
5.220E-06,-2.400
5.230E-06,-1.320
5.240E-06,-1.160
5.250E-06,-0.440
5.260E-06,0.800
5.270E-06,0.280
5.280E-06,-0.080
5.290E-06,0.000
5.300E-06,0.360
5.310E-06,1.320
5.320E-06,2.120
5.330E-06,2.000
5.340E-06,1.680
5.350E-06,0.920
5.360E-06,0.520
5.370E-06,0.520
5.380E-06,0.600
5.390E-06,0.640
5.400E-06,0.400
5.410E-06,0.000
5.420E-06,-0.520
5.430E-06,-1.000
5.440E-06,-1.480
5.450E-06,-1.800
5.460E-06,-2.200
5.470E-06,-2.160
5.480E-06,-2.320
5.490E-06,-2.320
5.500E-06,-2.440
5.510E-06,-2.480
5.520E-06,-2.520
5.530E-06,-2.320
5.540E-06,-1.880
5.550E-06,-1.720
5.560E-06,-1.360
5.570E-06,-1.080
5.580E-06,-0.960
5.590E-06,-0.760
5.600E-06,-0.640
5.610E-06,-0.440
5.620E-06,-0.080
5.630E-06,0.120
5.640E-06,0.320
5.650E-06,0.480
5.660E-06,0.400
5.670E-06,0.280
5.680E-06,0.120
5.690E-06,0.040
5.700E-06,0.040
5.710E-06,0.040
5.720E-06,0.120
5.730E-06,0.040
5.740E-06,-0.080
5.750E-06,-0.320
5.760E-06,-0.480
5.770E-06,-0.520
5.780E-06,-0.480
5.790E-06,-0.440
5.800E-06,-0.400
5.810E-06,-0.400
5.820E-06,-0.440
5.830E-06,-0.560
5.840E-06,-0.800
5.850E-06,-0.960
5.860E-06,-1.040
5.870E-06,-1.120
5.880E-06,-1.160
5.890E-06,-1.280
5.900E-06,-1.400
5.910E-06,-1.400
5.920E-06,-1.640
5.930E-06,-1.400
5.940E-06,-1.360
5.950E-06,-1.400
5.960E-06,-1.120
5.970E-06,-1.240
5.980E-06,-1.160
5.990E-06,-1.440
6.000E-06,-2.360
6.010E-06,-2.920
6.020E-06,-3.560
6.030E-06,-3.200
6.040E-06,-1.920
6.050E-06,-1.240
6.060E-06,-0.440
6.070E-06,-1.000
6.080E-06,-2.240
6.090E-06,-2.840
6.100E-06,-3.360
6.110E-06,-2.520
6.120E-06,-1.480
6.130E-06,-0.760
6.140E-06,-0.360
6.150E-06,-0.440
6.160E-06,-0.720
6.170E-06,-1.080
6.180E-06,-1.160
6.190E-06,-1.160
