mediciones/5-27/-57.5/WaveData50305.csv

#timebase=2000000(ps)
,#voltbase=100000(mv/100)
#size=4000
-5.650E-06,0.004
-5.640E-06,-0.004
-5.630E-06,0.000
-5.620E-06,0.004
-5.610E-06,0.004
-5.600E-06,0.000
-5.590E-06,0.000
-5.580E-06,-0.004
-5.570E-06,0.004
-5.560E-06,0.004
-5.550E-06,0.004
-5.540E-06,0.004
-5.530E-06,0.000
-5.520E-06,0.000
-5.510E-06,0.000
-5.500E-06,0.004
-5.490E-06,0.000
-5.480E-06,0.000
-5.470E-06,0.004
-5.460E-06,0.004
-5.450E-06,0.004
-5.440E-06,0.000
-5.430E-06,0.004
-5.420E-06,0.004
-5.410E-06,0.004
-5.400E-06,0.004
-5.390E-06,0.000
-5.380E-06,0.008
-5.370E-06,0.000
-5.360E-06,0.004
-5.350E-06,0.004
-5.340E-06,0.004
-5.330E-06,0.000
-5.320E-06,0.000
-5.310E-06,0.000
-5.300E-06,0.000
-5.290E-06,0.004
-5.280E-06,0.008
-5.270E-06,0.004
-5.260E-06,0.000
-5.250E-06,0.000
-5.240E-06,-0.004
-5.230E-06,0.000
-5.220E-06,0.004
-5.210E-06,0.012
-5.200E-06,0.008
-5.190E-06,0.008
-5.180E-06,0.004
-5.170E-06,0.004
-5.160E-06,0.000
-5.150E-06,0.004
-5.140E-06,0.008
-5.130E-06,0.004
-5.120E-06,0.004
-5.110E-06,0.004
-5.100E-06,-0.004
-5.090E-06,0.000
-5.080E-06,0.004
-5.070E-06,0.004
-5.060E-06,0.004
-5.050E-06,0.000
-5.040E-06,-0.004
-5.030E-06,0.000
-5.020E-06,0.000
-5.010E-06,0.008
-5.000E-06,0.004
-4.990E-06,0.004
-4.980E-06,0.000
-4.970E-06,0.004
-4.960E-06,-0.004
-4.950E-06,0.000
-4.940E-06,0.004
-4.930E-06,0.004
-4.920E-06,0.004
-4.910E-06,0.004
-4.900E-06,0.004
-4.890E-06,0.000
-4.880E-06,0.008
-4.870E-06,0.004
-4.860E-06,0.008
-4.850E-06,0.004
-4.840E-06,0.008
-4.830E-06,0.008
-4.820E-06,0.000
-4.810E-06,0.008
-4.800E-06,0.004
-4.790E-06,0.004
-4.780E-06,0.004
-4.770E-06,0.004
-4.760E-06,-0.004
-4.750E-06,0.004
-4.740E-06,0.000
-4.730E-06,0.004
-4.720E-06,0.000
-4.710E-06,0.000
-4.700E-06,0.004
-4.690E-06,0.000
-4.680E-06,0.000
-4.670E-06,0.000
-4.660E-06,0.000
-4.650E-06,0.000
-4.640E-06,0.000
-4.630E-06,0.004
-4.620E-06,0.004
-4.610E-06,0.008
-4.600E-06,0.000
-4.590E-06,0.000
-4.580E-06,0.000
-4.570E-06,0.000
-4.560E-06,0.008
-4.550E-06,0.000
-4.540E-06,0.004
-4.530E-06,0.000
-4.520E-06,0.000
-4.510E-06,0.000
-4.500E-06,0.000
-4.490E-06,0.004
-4.480E-06,0.004
-4.470E-06,0.004
-4.460E-06,0.004
-4.450E-06,0.000
-4.440E-06,0.000
-4.430E-06,0.008
-4.420E-06,0.008
-4.410E-06,0.004
-4.400E-06,0.000
-4.390E-06,0.004
-4.380E-06,0.004
-4.370E-06,0.004
-4.360E-06,0.012
-4.350E-06,0.008
-4.340E-06,0.000
-4.330E-06,0.000
-4.320E-06,0.000
-4.310E-06,-0.004
-4.300E-06,-0.004
-4.290E-06,0.004
-4.280E-06,0.004
-4.270E-06,0.000
-4.260E-06,0.000
-4.250E-06,0.004
-4.240E-06,0.008
-4.230E-06,0.000
-4.220E-06,0.004
-4.210E-06,0.004
-4.200E-06,0.000
-4.190E-06,0.000
-4.180E-06,0.004
-4.170E-06,0.004
-4.160E-06,0.008
-4.150E-06,0.008
-4.140E-06,0.008
-4.130E-06,0.004
-4.120E-06,0.004
-4.110E-06,-0.004
-4.100E-06,-0.004
-4.090E-06,0.008
-4.080E-06,0.004
-4.070E-06,0.004
-4.060E-06,0.004
-4.050E-06,0.000
-4.040E-06,0.000
-4.030E-06,0.000
-4.020E-06,0.004
-4.010E-06,0.000
-4.000E-06,0.000
-3.990E-06,0.004
-3.980E-06,0.000
-3.970E-06,0.008
-3.960E-06,0.004
-3.950E-06,0.008
-3.940E-06,0.004
-3.930E-06,0.000
-3.920E-06,0.000
-3.910E-06,0.000
-3.900E-06,0.008
-3.890E-06,0.008
-3.880E-06,0.008
-3.870E-06,0.008
-3.860E-06,-0.004
-3.850E-06,-0.004
-3.840E-06,0.004
-3.830E-06,0.004
-3.820E-06,0.008
-3.810E-06,0.004
-3.800E-06,0.004
-3.790E-06,0.000
-3.780E-06,0.004
-3.770E-06,-0.004
-3.760E-06,0.004
-3.750E-06,0.004
-3.740E-06,0.004
-3.730E-06,0.008
-3.720E-06,0.000
-3.710E-06,0.004
-3.700E-06,0.000
-3.690E-06,0.000
-3.680E-06,0.004
-3.670E-06,0.004
-3.660E-06,0.004
-3.650E-06,0.004
-3.640E-06,0.008
-3.630E-06,0.004
-3.620E-06,0.004
-3.610E-06,0.004
-3.600E-06,0.008
-3.590E-06,0.000
-3.580E-06,0.000
-3.570E-06,0.004
-3.560E-06,0.000
-3.550E-06,0.000
-3.540E-06,0.000
-3.530E-06,0.000
-3.520E-06,0.000
-3.510E-06,0.004
-3.500E-06,0.008
-3.490E-06,0.000
-3.480E-06,0.004
-3.470E-06,0.000
-3.460E-06,0.000
-3.450E-06,0.000
-3.440E-06,0.004
-3.430E-06,0.008
-3.420E-06,0.008
-3.410E-06,0.004
-3.400E-06,0.000
-3.390E-06,0.000
-3.380E-06,-0.004
-3.370E-06,-0.004
-3.360E-06,0.000
-3.350E-06,0.004
-3.340E-06,0.008
-3.330E-06,0.000
-3.320E-06,0.000
-3.310E-06,0.000
-3.300E-06,-0.008
-3.290E-06,0.000
-3.280E-06,0.000
-3.270E-06,0.008
-3.260E-06,0.004
-3.250E-06,-0.012
-3.240E-06,-0.016
-3.230E-06,-0.008
-3.220E-06,-0.016
-3.210E-06,0.004
-3.200E-06,0.016
-3.190E-06,0.028
-3.180E-06,0.032
-3.170E-06,0.032
-3.160E-06,0.016
-3.150E-06,-0.012
-3.140E-06,-0.016
-3.130E-06,-0.020
-3.120E-06,-0.020
-3.110E-06,0.016
-3.100E-06,0.028
-3.090E-06,0.036
-3.080E-06,0.024
-3.070E-06,0.008
-3.060E-06,-0.008
-3.050E-06,-0.016
-3.040E-06,-0.012
-3.030E-06,0.000
-3.020E-06,0.012
-3.010E-06,0.024
-3.000E-06,0.024
-2.990E-06,0.004
-2.980E-06,0.000
-2.970E-06,-0.008
-2.960E-06,-0.004
-2.950E-06,-0.004
-2.940E-06,-0.008
-2.930E-06,-0.008
-2.920E-06,-0.020
-2.910E-06,-0.004
-2.900E-06,0.024
-2.890E-06,0.028
-2.880E-06,0.024
-2.870E-06,0.008
-2.860E-06,-0.008
-2.850E-06,-0.008
-2.840E-06,-0.008
-2.830E-06,0.008
-2.820E-06,0.012
-2.810E-06,0.020
-2.800E-06,0.012
-2.790E-06,0.008
-2.780E-06,0.008
-2.770E-06,0.008
-2.760E-06,0.008
-2.750E-06,0.008
-2.740E-06,0.000
-2.730E-06,0.000
-2.720E-06,-0.004
-2.710E-06,-0.004
-2.700E-06,0.000
-2.690E-06,0.004
-2.680E-06,0.004
-2.670E-06,-0.004
-2.660E-06,-0.004
-2.650E-06,-0.004
-2.640E-06,0.000
-2.630E-06,0.000
-2.620E-06,0.008
-2.610E-06,0.008
-2.600E-06,0.008
-2.590E-06,0.004
-2.580E-06,-0.004
-2.570E-06,0.000
-2.560E-06,-0.004
-2.550E-06,0.008
-2.540E-06,0.012
-2.530E-06,0.008
-2.520E-06,0.012
-2.510E-06,0.012
-2.500E-06,0.000
-2.490E-06,0.004
-2.480E-06,0.008
-2.470E-06,0.012
-2.460E-06,0.016
-2.450E-06,0.012
-2.440E-06,0.016
-2.430E-06,0.016
-2.420E-06,0.024
-2.410E-06,0.008
-2.400E-06,0.016
-2.390E-06,0.012
-2.380E-06,0.016
-2.370E-06,0.024
-2.360E-06,0.020
-2.350E-06,0.016
-2.340E-06,0.016
-2.330E-06,0.020
-2.320E-06,0.020
-2.310E-06,0.024
-2.300E-06,0.032
-2.290E-06,0.040
-2.280E-06,0.044
-2.270E-06,0.048
-2.260E-06,0.044
-2.250E-06,0.040
-2.240E-06,0.040
-2.230E-06,0.040
-2.220E-06,0.032
-2.210E-06,0.020
-2.200E-06,0.004
-2.190E-06,-0.040
-2.180E-06,-0.048
-2.170E-06,-0.060
-2.160E-06,-0.036
-2.150E-06,0.016
-2.140E-06,0.036
-2.130E-06,0.044
-2.120E-06,0.040
-2.110E-06,0.024
-2.100E-06,0.024
-2.090E-06,0.044
-2.080E-06,0.060
-2.070E-06,0.068
-2.060E-06,0.060
-2.050E-06,0.032
-2.040E-06,0.004
-2.030E-06,-0.024
-2.020E-06,-0.036
-2.010E-06,-0.044
-2.000E-06,-0.032
-1.990E-06,-0.016
-1.980E-06,-0.004
-1.970E-06,0.000
-1.960E-06,-0.008
-1.950E-06,-0.012
-1.940E-06,-0.012
-1.930E-06,-0.016
-1.920E-06,-0.024
-1.910E-06,-0.004
-1.900E-06,-0.008
-1.890E-06,-0.012
-1.880E-06,-0.008
-1.870E-06,-0.008
-1.860E-06,-0.008
-1.850E-06,-0.008
-1.840E-06,-0.008
-1.830E-06,-0.008
-1.820E-06,0.012
-1.810E-06,0.024
-1.800E-06,0.020
-1.790E-06,0.028
-1.780E-06,0.024
-1.770E-06,0.012
-1.760E-06,0.008
-1.750E-06,0.008
-1.740E-06,0.028
-1.730E-06,0.032
-1.720E-06,0.020
-1.710E-06,0.012
-1.700E-06,-0.004
-1.690E-06,-0.012
-1.680E-06,0.000
-1.670E-06,0.004
-1.660E-06,0.016
-1.650E-06,0.016
-1.640E-06,0.016
-1.630E-06,-0.020
-1.620E-06,-0.048
-1.610E-06,-0.064
-1.600E-06,-0.020
-1.590E-06,-0.008
-1.580E-06,-0.016
-1.570E-06,-0.012
-1.560E-06,-0.016
-1.550E-06,-0.020
-1.540E-06,-0.012
-1.530E-06,-0.008
-1.520E-06,-0.008
-1.510E-06,0.000
-1.500E-06,-0.004
-1.490E-06,-0.004
-1.480E-06,0.000
-1.470E-06,0.008
-1.460E-06,0.008
-1.450E-06,0.012
-1.440E-06,0.016
-1.430E-06,0.016
-1.420E-06,0.004
-1.410E-06,0.004
-1.400E-06,0.008
-1.390E-06,0.004
-1.380E-06,0.008
-1.370E-06,0.008
-1.360E-06,0.008
-1.350E-06,0.020
-1.340E-06,0.008
-1.330E-06,0.012
-1.320E-06,-0.008
-1.310E-06,-0.008
-1.300E-06,-0.028
-1.290E-06,-0.008
-1.280E-06,-0.004
-1.270E-06,0.016
-1.260E-06,0.028
-1.250E-06,0.020
-1.240E-06,0.000
-1.230E-06,-0.016
-1.220E-06,-0.012
-1.210E-06,0.000
-1.200E-06,0.012
-1.190E-06,0.020
-1.180E-06,0.020
-1.170E-06,0.020
-1.160E-06,0.004
-1.150E-06,0.000
-1.140E-06,0.004
-1.130E-06,0.016
-1.120E-06,0.012
-1.110E-06,0.008
-1.100E-06,0.012
-1.090E-06,0.012
-1.080E-06,0.016
-1.070E-06,0.020
-1.060E-06,0.024
-1.050E-06,0.020
-1.040E-06,0.008
-1.030E-06,0.004
-1.020E-06,0.000
-1.010E-06,0.004
-1.000E-06,0.012
-9.900E-07,0.020
-9.800E-07,0.028
-9.700E-07,0.020
-9.600E-07,0.008
-9.500E-07,-0.008
-9.400E-07,0.004
-9.300E-07,0.016
-9.200E-07,0.028
-9.100E-07,0.020
-9.000E-07,0.012
-8.900E-07,0.000
-8.800E-07,-0.004
-8.700E-07,0.004
-8.600E-07,0.016
-8.500E-07,0.032
-8.400E-07,0.024
-8.300E-07,0.020
-8.200E-07,0.004
-8.100E-07,-0.008
-8.000E-07,-0.004
-7.900E-07,0.008
-7.800E-07,0.028
-7.700E-07,0.024
-7.600E-07,0.036
-7.500E-07,0.024
-7.400E-07,0.008
-7.300E-07,-0.032
-7.200E-07,-0.036
-7.100E-07,-0.024
-7.000E-07,0.000
-6.900E-07,0.016
-6.800E-07,0.028
-6.700E-07,0.032
-6.600E-07,0.020
-6.500E-07,0.012
-6.400E-07,-0.004
-6.300E-07,0.012
-6.200E-07,0.016
-6.100E-07,0.020
-6.000E-07,0.028
-5.900E-07,0.020
-5.800E-07,0.020
-5.700E-07,0.024
-5.600E-07,0.024
-5.500E-07,0.020
-5.400E-07,0.024
-5.300E-07,0.024
-5.200E-07,0.016
-5.100E-07,0.008
-5.000E-07,0.016
-4.900E-07,0.028
-4.800E-07,0.028
-4.700E-07,0.028
-4.600E-07,0.008
-4.500E-07,-0.004
-4.400E-07,-0.032
-4.300E-07,-0.028
-4.200E-07,-0.024
-4.100E-07,0.004
-4.000E-07,0.012
-3.900E-07,0.008
-3.800E-07,-0.016
-3.700E-07,-0.040
-3.600E-07,-0.040
-3.500E-07,-0.036
-3.400E-07,-0.004
-3.300E-07,0.020
-3.200E-07,0.036
-3.100E-07,0.032
-3.000E-07,0.020
-2.900E-07,0.012
-2.800E-07,0.012
-2.700E-07,0.024
-2.600E-07,0.020
-2.500E-07,0.024
-2.400E-07,0.024
-2.300E-07,0.024
-2.200E-07,0.024
-2.100E-07,0.028
-2.000E-07,0.028
-1.900E-07,0.032
-1.800E-07,0.044
-1.700E-07,0.056
-1.600E-07,0.068
-1.500E-07,0.076
-1.400E-07,0.068
-1.300E-07,0.040
-1.200E-07,0.040
-1.100E-07,0.028
-1.000E-07,0.028
-9.000E-08,0.024
-8.000E-08,-0.032
-7.000E-08,-0.048
-6.000E-08,-0.032
-5.000E-08,-0.124
-4.000E-08,-0.352
-3.000E-08,-0.456
-2.000E-08,-0.372
-1.000E-08,0.016
0.000E+00,0.348
1.000E-08,0.540
2.000E-08,0.504
3.000E-08,0.280
4.000E-08,-0.068
5.000E-08,-0.292
6.000E-08,-0.392
7.000E-08,-0.172
8.000E-08,0.080
9.000E-08,0.280
1.000E-07,0.284
1.100E-07,0.152
1.200E-07,-0.088
1.300E-07,-0.280
1.400E-07,-0.316
1.500E-07,-0.180
1.600E-07,0.000
1.700E-07,0.108
1.800E-07,0.088
1.900E-07,0.020
2.000E-07,-0.028
2.100E-07,-0.080
2.200E-07,-0.020
2.300E-07,0.092
2.400E-07,0.152
2.500E-07,0.104
2.600E-07,-0.140
2.700E-07,-0.264
2.800E-07,-0.376
2.900E-07,-0.240
3.000E-07,0.008
3.100E-07,0.188
3.200E-07,0.272
3.300E-07,0.176
3.400E-07,0.008
3.500E-07,-0.144
3.600E-07,-0.176
3.700E-07,-0.120
3.800E-07,0.008
3.900E-07,0.100
4.000E-07,0.144
4.100E-07,0.108
4.200E-07,0.040
4.300E-07,-0.008
4.400E-07,-0.028
4.500E-07,0.000
4.600E-07,0.036
4.700E-07,0.072
4.800E-07,0.064
4.900E-07,0.056
5.000E-07,0.024
5.100E-07,-0.032
5.200E-07,-0.076
5.300E-07,-0.100
5.400E-07,-0.096
5.500E-07,-0.044
5.600E-07,0.016
5.700E-07,0.072
5.800E-07,0.072
5.900E-07,0.036
6.000E-07,0.000
6.100E-07,-0.016
6.200E-07,0.000
6.300E-07,0.024
6.400E-07,0.044
6.500E-07,0.052
6.600E-07,0.060
6.700E-07,0.020
6.800E-07,0.004
6.900E-07,-0.036
7.000E-07,-0.040
7.100E-07,-0.024
7.200E-07,-0.004
7.300E-07,0.024
7.400E-07,0.040
7.500E-07,0.040
7.600E-07,0.024
7.700E-07,0.020
7.800E-07,0.016
7.900E-07,0.036
8.000E-07,0.056
8.100E-07,0.068
8.200E-07,0.068
8.300E-07,0.060
8.400E-07,0.056
8.500E-07,0.032
8.600E-07,0.032
8.700E-07,0.020
8.800E-07,0.020
8.900E-07,0.020
9.000E-07,0.024
9.100E-07,0.020
9.200E-07,0.008
9.300E-07,-0.024
9.400E-07,-0.028
9.500E-07,-0.032
9.600E-07,-0.028
9.700E-07,-0.020
9.800E-07,-0.008
9.900E-07,-0.008
1.000E-06,-0.016
1.010E-06,-0.020
1.020E-06,-0.020
1.030E-06,-0.008
1.040E-06,-0.008
1.050E-06,-0.004
1.060E-06,-0.012
1.070E-06,-0.020
1.080E-06,-0.016
1.090E-06,-0.008
1.100E-06,0.020
1.110E-06,0.024
1.120E-06,0.036
1.130E-06,0.020
1.140E-06,0.032
1.150E-06,0.028
1.160E-06,0.036
1.170E-06,0.024
1.180E-06,0.028
1.190E-06,0.012
1.200E-06,0.020
1.210E-06,0.028
1.220E-06,0.032
1.230E-06,0.028
1.240E-06,0.020
1.250E-06,0.016
1.260E-06,0.016
1.270E-06,0.028
1.280E-06,0.020
1.290E-06,0.036
1.300E-06,0.036
1.310E-06,0.060
1.320E-06,0.076
1.330E-06,0.092
1.340E-06,0.088
1.350E-06,0.092
1.360E-06,0.092
1.370E-06,0.104
1.380E-06,0.136
1.390E-06,0.140
1.400E-06,0.128
1.410E-06,0.084
1.420E-06,-0.020
1.430E-06,-0.180
1.440E-06,-0.384
1.450E-06,-0.492
1.460E-06,-0.424
1.470E-06,-0.100
1.480E-06,0.148
1.490E-06,0.340
1.500E-06,0.248
1.510E-06,0.096
1.520E-06,-0.160
1.530E-06,-0.268
1.540E-06,-0.288
1.550E-06,-0.084
1.560E-06,0.132
1.570E-06,0.272
1.580E-06,0.252
1.590E-06,0.164
1.600E-06,0.032
1.610E-06,-0.068
1.620E-06,-0.160
1.630E-06,-0.244
1.640E-06,-0.224
1.650E-06,-0.160
1.660E-06,-0.020
1.670E-06,0.108
1.680E-06,0.208
1.690E-06,0.220
1.700E-06,0.156
1.710E-06,0.044
1.720E-06,-0.044
1.730E-06,-0.028
1.740E-06,0.032
1.750E-06,-0.008
1.760E-06,-0.124
1.770E-06,-0.304
1.780E-06,-0.360
1.790E-06,-0.212
1.800E-06,0.016
1.810E-06,0.156
1.820E-06,0.260
1.830E-06,0.172
1.840E-06,0.032
1.850E-06,-0.068
1.860E-06,-0.060
1.870E-06,0.028
1.880E-06,0.104
1.890E-06,0.112
1.900E-06,0.000
1.910E-06,-0.108
1.920E-06,-0.120
1.930E-06,-0.060
1.940E-06,0.004
1.950E-06,0.104
1.960E-06,0.108
1.970E-06,0.044
1.980E-06,-0.088
1.990E-06,-0.172
2.000E-06,-0.188
2.010E-06,-0.164
2.020E-06,-0.040
2.030E-06,0.064
2.040E-06,0.092
2.050E-06,0.092
2.060E-06,0.028
2.070E-06,-0.040
2.080E-06,-0.052
2.090E-06,-0.012
2.100E-06,0.000
2.110E-06,0.024
2.120E-06,0.004
2.130E-06,0.004
2.140E-06,0.012
2.150E-06,0.028
2.160E-06,0.056
2.170E-06,0.056
2.180E-06,0.028
2.190E-06,0.008
2.200E-06,0.004
2.210E-06,0.020
2.220E-06,0.056
2.230E-06,0.060
2.240E-06,0.040
2.250E-06,0.016
2.260E-06,-0.004
2.270E-06,0.020
2.280E-06,0.072
2.290E-06,0.128
2.300E-06,0.092
2.310E-06,0.008
2.320E-06,-0.108
2.330E-06,-0.176
2.340E-06,-0.156
2.350E-06,-0.060
2.360E-06,0.032
2.370E-06,0.056
2.380E-06,0.060
2.390E-06,0.000
2.400E-06,-0.036
2.410E-06,-0.044
2.420E-06,-0.020
2.430E-06,-0.004
2.440E-06,0.020
2.450E-06,0.032
2.460E-06,0.044
2.470E-06,0.044
2.480E-06,0.024
2.490E-06,0.008
2.500E-06,0.012
2.510E-06,0.016
2.520E-06,0.044
2.530E-06,0.068
2.540E-06,0.084
2.550E-06,0.064
2.560E-06,0.044
2.570E-06,0.032
2.580E-06,0.052
2.590E-06,0.076
2.600E-06,0.084
2.610E-06,0.064
2.620E-06,0.008
2.630E-06,-0.056
2.640E-06,-0.116
2.650E-06,-0.116
2.660E-06,-0.088
2.670E-06,-0.016
2.680E-06,0.016
2.690E-06,0.040
2.700E-06,0.028
2.710E-06,-0.008
2.720E-06,-0.028
2.730E-06,-0.056
2.740E-06,-0.032
2.750E-06,0.000
2.760E-06,0.044
2.770E-06,0.044
2.780E-06,0.036
2.790E-06,-0.008
2.800E-06,-0.032
2.810E-06,-0.040
2.820E-06,-0.008
2.830E-06,0.020
2.840E-06,0.056
2.850E-06,0.036
2.860E-06,0.028
2.870E-06,-0.004
2.880E-06,-0.012
2.890E-06,-0.020
2.900E-06,-0.012
2.910E-06,0.000
2.920E-06,0.012
2.930E-06,0.024
2.940E-06,0.020
2.950E-06,0.028
2.960E-06,0.020
2.970E-06,0.028
2.980E-06,0.052
2.990E-06,0.064
3.000E-06,0.068
3.010E-06,0.064
3.020E-06,0.052
3.030E-06,0.040
3.040E-06,0.044
3.050E-06,0.040
3.060E-06,0.044
3.070E-06,0.052
3.080E-06,0.056
3.090E-06,0.060
3.100E-06,0.052
3.110E-06,0.036
3.120E-06,-0.016
3.130E-06,-0.196
3.140E-06,-0.336
3.150E-06,-0.380
3.160E-06,-0.232
3.170E-06,0.088
3.180E-06,0.392
3.190E-06,0.452
3.200E-06,0.372
3.210E-06,0.012
3.220E-06,-0.416
3.230E-06,-0.512
3.240E-06,-0.440
3.250E-06,-0.080
3.260E-06,0.296
3.270E-06,0.488
3.280E-06,0.432
3.290E-06,0.220
3.300E-06,-0.100
3.310E-06,-0.460
3.320E-06,-0.508
3.330E-06,-0.508
3.340E-06,-0.288
3.350E-06,0.084
3.360E-06,0.344
3.370E-06,0.404
3.380E-06,0.296
3.390E-06,-0.012
3.400E-06,-0.256
3.410E-06,-0.332
3.420E-06,-0.156
3.430E-06,0.056
3.440E-06,0.224
3.450E-06,0.196
3.460E-06,0.104
3.470E-06,-0.004
3.480E-06,-0.072
3.490E-06,-0.048
3.500E-06,0.028
3.510E-06,0.084
3.520E-06,0.108
3.530E-06,0.096
3.540E-06,0.048
3.550E-06,0.012
3.560E-06,0.004
3.570E-06,-0.032
3.580E-06,-0.060
3.590E-06,-0.060
3.600E-06,-0.124
3.610E-06,-0.064
3.620E-06,-0.032
3.630E-06,0.056
3.640E-06,0.088
3.650E-06,0.064
3.660E-06,0.020
3.670E-06,-0.040
3.680E-06,-0.056
3.690E-06,-0.060
3.700E-06,-0.008
3.710E-06,0.020
3.720E-06,0.036
3.730E-06,0.028
3.740E-06,0.008
3.750E-06,0.028
3.760E-06,0.020
3.770E-06,0.020
3.780E-06,0.012
3.790E-06,0.004
3.800E-06,-0.020
3.810E-06,-0.016
3.820E-06,0.004
3.830E-06,0.032
3.840E-06,0.044
3.850E-06,0.040
3.860E-06,0.024
3.870E-06,0.008
3.880E-06,0.012
3.890E-06,-0.008
3.900E-06,-0.004
3.910E-06,0.012
3.920E-06,0.040
3.930E-06,0.044
3.940E-06,0.044
3.950E-06,0.020
3.960E-06,0.008
3.970E-06,0.004
3.980E-06,0.000
3.990E-06,0.024
4.000E-06,0.044
4.010E-06,0.064
4.020E-06,0.072
4.030E-06,0.072
4.040E-06,0.060
4.050E-06,0.052
4.060E-06,0.044
4.070E-06,0.056
4.080E-06,0.072
4.090E-06,0.080
4.100E-06,0.088
4.110E-06,0.076
4.120E-06,0.068
4.130E-06,0.060
4.140E-06,0.060
4.150E-06,0.072
4.160E-06,0.084
4.170E-06,0.076
4.180E-06,0.040
4.190E-06,0.076
4.200E-06,-0.392
4.210E-06,-0.512
4.220E-06,-0.508
4.230E-06,-0.508
4.240E-06,-0.160
4.250E-06,0.540
4.260E-06,0.540
4.270E-06,0.540
4.280E-06,-0.040
4.290E-06,-0.508
4.300E-06,-0.512
4.310E-06,-0.192
4.320E-06,0.148
4.330E-06,0.544
4.340E-06,0.296
4.350E-06,0.036
4.360E-06,-0.268
4.370E-06,-0.308
4.380E-06,-0.228
4.390E-06,-0.012
4.400E-06,0.164
4.410E-06,0.156
4.420E-06,0.144
4.430E-06,-0.024
4.440E-06,-0.032
4.450E-06,-0.024
4.460E-06,0.088
4.470E-06,0.104
4.480E-06,0.148
4.490E-06,0.076
4.500E-06,0.012
4.510E-06,-0.036
4.520E-06,-0.060
4.530E-06,-0.052
4.540E-06,-0.040
4.550E-06,0.000
4.560E-06,-0.016
4.570E-06,0.012
4.580E-06,0.000
4.590E-06,0.028
4.600E-06,0.048
4.610E-06,0.044
4.620E-06,0.060
4.630E-06,0.056
4.640E-06,0.068
4.650E-06,0.060
4.660E-06,0.060
4.670E-06,0.020
4.680E-06,0.016
4.690E-06,0.024
4.700E-06,0.052
4.710E-06,0.104
4.720E-06,0.124
4.730E-06,0.124
4.740E-06,0.096
4.750E-06,0.060
4.760E-06,0.028
4.770E-06,0.036
4.780E-06,0.056
4.790E-06,0.076
4.800E-06,0.104
4.810E-06,0.108
4.820E-06,0.088
4.830E-06,0.076
4.840E-06,0.012
4.850E-06,-0.052
4.860E-06,-0.112
4.870E-06,-0.140
4.880E-06,-0.100
4.890E-06,-0.024
4.900E-06,0.052
4.910E-06,0.120
4.920E-06,0.136
4.930E-06,0.112
4.940E-06,0.048
4.950E-06,-0.004
4.960E-06,-0.008
4.970E-06,0.028
4.980E-06,0.076
4.990E-06,0.104
5.000E-06,0.120
5.010E-06,0.088
5.020E-06,0.060
5.030E-06,-0.040
5.040E-06,-0.140
5.050E-06,-0.264
5.060E-06,-0.288
5.070E-06,-0.224
5.080E-06,-0.088
5.090E-06,0.056
5.100E-06,0.152
5.110E-06,0.188
5.120E-06,0.144
5.130E-06,0.056
5.140E-06,-0.004
5.150E-06,0.040
5.160E-06,0.004
5.170E-06,-0.140
5.180E-06,-0.440
5.190E-06,-0.512
5.200E-06,-0.480
5.210E-06,-0.300
5.220E-06,0.048
5.230E-06,0.384
5.240E-06,0.372
5.250E-06,0.144
5.260E-06,-0.132
5.270E-06,-0.260
5.280E-06,-0.188
5.290E-06,-0.020
5.300E-06,0.056
5.310E-06,0.116
5.320E-06,0.108
5.330E-06,0.088
5.340E-06,0.028
5.350E-06,0.028
5.360E-06,0.000
5.370E-06,-0.008
5.380E-06,-0.024
5.390E-06,-0.024
5.400E-06,0.028
5.410E-06,0.060
5.420E-06,0.076
5.430E-06,0.060
5.440E-06,0.060
5.450E-06,0.012
5.460E-06,-0.008
5.470E-06,-0.020
5.480E-06,-0.012
5.490E-06,0.008
5.500E-06,0.040
5.510E-06,0.064
5.520E-06,0.060
5.530E-06,0.032
5.540E-06,-0.004
5.550E-06,-0.008
5.560E-06,-0.020
5.570E-06,0.000
5.580E-06,0.032
5.590E-06,0.072
5.600E-06,0.080
5.610E-06,0.072
5.620E-06,0.056
5.630E-06,0.032
5.640E-06,0.020
5.650E-06,0.032
5.660E-06,0.052
5.670E-06,0.088
5.680E-06,0.108
5.690E-06,0.124
5.700E-06,0.116
5.710E-06,0.108
5.720E-06,0.092
5.730E-06,0.092
5.740E-06,0.104
5.750E-06,0.128
5.760E-06,0.152
5.770E-06,0.160
5.780E-06,0.152
5.790E-06,0.136
5.800E-06,0.112
5.810E-06,0.096
5.820E-06,0.084
5.830E-06,0.072
5.840E-06,0.072
5.850E-06,0.052
5.860E-06,0.012
5.870E-06,-0.012
5.880E-06,-0.040
5.890E-06,-0.072
5.900E-06,-0.084
5.910E-06,-0.072
5.920E-06,-0.036
5.930E-06,0.084
5.940E-06,0.140
5.950E-06,0.120
5.960E-06,-0.044
5.970E-06,-0.292
5.980E-06,-0.468
5.990E-06,-0.416
6.000E-06,-0.168
6.010E-06,0.188
6.020E-06,0.392
6.030E-06,0.324
6.040E-06,0.024
6.050E-06,-0.296
6.060E-06,-0.456
6.070E-06,-0.392
6.080E-06,-0.140
6.090E-06,0.144
6.100E-06,0.276
6.110E-06,0.208
6.120E-06,0.044
6.130E-06,-0.120
6.140E-06,-0.176
6.150E-06,-0.108
6.160E-06,0.004
6.170E-06,0.128
6.180E-06,0.180
6.190E-06,0.132
6.200E-06,0.032
6.210E-06,-0.072
6.220E-06,-0.140
6.230E-06,-0.132
6.240E-06,-0.064
