mediciones/5-27/-57.5/WaveData50299.csv

#timebase=2000000(ps)
,#voltbase=100000(mv/100)
#size=4000
-5.650E-06,0.012
-5.640E-06,0.036
-5.630E-06,0.024
-5.620E-06,0.008
-5.610E-06,0.004
-5.600E-06,-0.008
-5.590E-06,0.024
-5.580E-06,0.036
-5.570E-06,0.024
-5.560E-06,0.008
-5.550E-06,-0.028
-5.540E-06,-0.048
-5.530E-06,-0.044
-5.520E-06,-0.016
-5.510E-06,0.012
-5.500E-06,0.020
-5.490E-06,0.036
-5.480E-06,0.008
-5.470E-06,-0.024
-5.460E-06,-0.032
-5.450E-06,-0.036
-5.440E-06,-0.004
-5.430E-06,0.016
-5.420E-06,0.028
-5.410E-06,0.020
-5.400E-06,0.012
-5.390E-06,-0.004
-5.380E-06,-0.008
-5.370E-06,-0.008
-5.360E-06,0.000
-5.350E-06,0.008
-5.340E-06,0.016
-5.330E-06,0.020
-5.320E-06,0.024
-5.310E-06,0.012
-5.300E-06,0.008
-5.290E-06,0.008
-5.280E-06,0.000
-5.270E-06,-0.008
-5.260E-06,-0.004
-5.250E-06,0.008
-5.240E-06,0.012
-5.230E-06,0.012
-5.220E-06,0.012
-5.210E-06,0.008
-5.200E-06,0.012
-5.190E-06,0.024
-5.180E-06,0.044
-5.170E-06,0.016
-5.160E-06,-0.004
-5.150E-06,-0.040
-5.140E-06,-0.044
-5.130E-06,-0.016
-5.120E-06,0.012
-5.110E-06,0.040
-5.100E-06,0.040
-5.090E-06,0.028
-5.080E-06,0.004
-5.070E-06,-0.016
-5.060E-06,-0.020
-5.050E-06,-0.008
-5.040E-06,-0.004
-5.030E-06,0.008
-5.020E-06,0.000
-5.010E-06,0.004
-5.000E-06,0.000
-4.990E-06,0.000
-4.980E-06,0.004
-4.970E-06,0.000
-4.960E-06,-0.004
-4.950E-06,0.000
-4.940E-06,-0.004
-4.930E-06,-0.004
-4.920E-06,0.008
-4.910E-06,0.012
-4.900E-06,0.012
-4.890E-06,0.008
-4.880E-06,0.004
-4.870E-06,0.012
-4.860E-06,0.008
-4.850E-06,0.008
-4.840E-06,0.008
-4.830E-06,0.008
-4.820E-06,0.012
-4.810E-06,0.016
-4.800E-06,0.016
-4.790E-06,0.020
-4.780E-06,0.028
-4.770E-06,0.016
-4.760E-06,0.028
-4.750E-06,0.040
-4.740E-06,0.048
-4.730E-06,0.056
-4.720E-06,0.028
-4.710E-06,0.012
-4.700E-06,-0.036
-4.690E-06,-0.068
-4.680E-06,-0.068
-4.670E-06,-0.068
-4.660E-06,-0.012
-4.650E-06,0.024
-4.640E-06,0.052
-4.630E-06,0.060
-4.620E-06,0.024
-4.610E-06,-0.016
-4.600E-06,-0.032
-4.590E-06,-0.028
-4.580E-06,-0.020
-4.570E-06,-0.004
-4.560E-06,0.032
-4.550E-06,0.000
-4.540E-06,-0.008
-4.530E-06,-0.004
-4.520E-06,-0.016
-4.510E-06,-0.012
-4.500E-06,-0.036
-4.490E-06,-0.028
-4.480E-06,-0.004
-4.470E-06,0.028
-4.460E-06,0.040
-4.450E-06,0.024
-4.440E-06,-0.012
-4.430E-06,-0.036
-4.420E-06,-0.008
-4.410E-06,0.000
-4.400E-06,0.028
-4.390E-06,0.036
-4.380E-06,0.016
-4.370E-06,-0.004
-4.360E-06,-0.004
-4.350E-06,-0.008
-4.340E-06,0.000
-4.330E-06,0.016
-4.320E-06,0.016
-4.310E-06,0.008
-4.300E-06,-0.004
-4.290E-06,-0.008
-4.280E-06,-0.004
-4.270E-06,0.016
-4.260E-06,0.016
-4.250E-06,0.020
-4.240E-06,0.020
-4.230E-06,0.008
-4.220E-06,-0.008
-4.210E-06,-0.020
-4.200E-06,-0.012
-4.190E-06,-0.004
-4.180E-06,0.012
-4.170E-06,0.020
-4.160E-06,0.028
-4.150E-06,0.016
-4.140E-06,0.004
-4.130E-06,0.004
-4.120E-06,0.004
-4.110E-06,0.008
-4.100E-06,0.012
-4.090E-06,0.012
-4.080E-06,0.008
-4.070E-06,0.000
-4.060E-06,-0.004
-4.050E-06,0.000
-4.040E-06,0.000
-4.030E-06,0.004
-4.020E-06,0.008
-4.010E-06,0.012
-4.000E-06,0.012
-3.990E-06,0.004
-3.980E-06,0.000
-3.970E-06,-0.004
-3.960E-06,-0.004
-3.950E-06,0.000
-3.940E-06,0.008
-3.930E-06,0.016
-3.920E-06,0.028
-3.910E-06,0.024
-3.900E-06,0.008
-3.890E-06,0.004
-3.880E-06,0.012
-3.870E-06,0.012
-3.860E-06,0.024
-3.850E-06,0.032
-3.840E-06,0.024
-3.830E-06,0.016
-3.820E-06,0.012
-3.810E-06,0.016
-3.800E-06,0.028
-3.790E-06,0.032
-3.780E-06,0.052
-3.770E-06,0.044
-3.760E-06,0.036
-3.750E-06,0.016
-3.740E-06,0.016
-3.730E-06,-0.004
-3.720E-06,-0.008
-3.710E-06,-0.024
-3.700E-06,-0.032
-3.690E-06,-0.032
-3.680E-06,-0.016
-3.670E-06,0.004
-3.660E-06,0.016
-3.650E-06,0.028
-3.640E-06,0.016
-3.630E-06,0.008
-3.620E-06,0.004
-3.610E-06,0.004
-3.600E-06,0.012
-3.590E-06,0.008
-3.580E-06,0.016
-3.570E-06,0.004
-3.560E-06,0.008
-3.550E-06,0.004
-3.540E-06,0.004
-3.530E-06,0.008
-3.520E-06,-0.040
-3.510E-06,-0.032
-3.500E-06,-0.064
-3.490E-06,-0.044
-3.480E-06,-0.024
-3.470E-06,0.000
-3.460E-06,0.032
-3.450E-06,0.028
-3.440E-06,0.016
-3.430E-06,0.000
-3.420E-06,0.000
-3.410E-06,-0.004
-3.400E-06,-0.008
-3.390E-06,-0.008
-3.380E-06,-0.004
-3.370E-06,0.012
-3.360E-06,0.016
-3.350E-06,0.004
-3.340E-06,0.000
-3.330E-06,-0.008
-3.320E-06,-0.004
-3.310E-06,0.012
-3.300E-06,0.024
-3.290E-06,0.032
-3.280E-06,0.036
-3.270E-06,0.020
-3.260E-06,-0.012
-3.250E-06,-0.032
-3.240E-06,-0.032
-3.230E-06,-0.012
-3.220E-06,0.004
-3.210E-06,0.020
-3.200E-06,0.028
-3.190E-06,0.016
-3.180E-06,0.020
-3.170E-06,0.012
-3.160E-06,0.008
-3.150E-06,-0.004
-3.140E-06,-0.004
-3.130E-06,0.000
-3.120E-06,0.016
-3.110E-06,0.024
-3.100E-06,0.020
-3.090E-06,0.024
-3.080E-06,0.028
-3.070E-06,0.040
-3.060E-06,0.056
-3.050E-06,0.068
-3.040E-06,0.048
-3.030E-06,0.024
-3.020E-06,-0.008
-3.010E-06,-0.004
-3.000E-06,0.008
-2.990E-06,0.044
-2.980E-06,0.060
-2.970E-06,0.060
-2.960E-06,-0.008
-2.950E-06,-0.120
-2.940E-06,-0.176
-2.930E-06,-0.200
-2.920E-06,-0.100
-2.910E-06,0.072
-2.900E-06,0.132
-2.890E-06,0.152
-2.880E-06,0.060
-2.870E-06,-0.036
-2.860E-06,-0.108
-2.850E-06,-0.076
-2.840E-06,0.024
-2.830E-06,0.088
-2.820E-06,0.076
-2.810E-06,-0.032
-2.800E-06,-0.100
-2.790E-06,-0.072
-2.780E-06,0.024
-2.770E-06,0.100
-2.760E-06,0.092
-2.750E-06,0.028
-2.740E-06,-0.068
-2.730E-06,-0.132
-2.720E-06,-0.116
-2.710E-06,-0.024
-2.700E-06,0.056
-2.690E-06,0.092
-2.680E-06,0.060
-2.670E-06,-0.024
-2.660E-06,-0.052
-2.650E-06,-0.032
-2.640E-06,-0.004
-2.630E-06,0.028
-2.620E-06,0.052
-2.610E-06,0.036
-2.600E-06,0.032
-2.590E-06,0.000
-2.580E-06,0.000
-2.570E-06,-0.020
-2.560E-06,-0.008
-2.550E-06,-0.004
-2.540E-06,-0.008
-2.530E-06,0.000
-2.520E-06,-0.004
-2.510E-06,0.004
-2.500E-06,0.000
-2.490E-06,0.012
-2.480E-06,0.020
-2.470E-06,0.028
-2.460E-06,0.020
-2.450E-06,0.020
-2.440E-06,0.024
-2.430E-06,0.040
-2.420E-06,0.060
-2.410E-06,0.072
-2.400E-06,0.064
-2.390E-06,0.008
-2.380E-06,-0.064
-2.370E-06,-0.112
-2.360E-06,-0.104
-2.350E-06,-0.036
-2.340E-06,0.028
-2.330E-06,0.056
-2.320E-06,0.064
-2.310E-06,0.028
-2.300E-06,-0.016
-2.290E-06,-0.044
-2.280E-06,-0.036
-2.270E-06,0.000
-2.260E-06,0.044
-2.250E-06,0.068
-2.240E-06,0.068
-2.230E-06,0.068
-2.220E-06,0.044
-2.210E-06,0.028
-2.200E-06,0.020
-2.190E-06,0.024
-2.180E-06,0.060
-2.170E-06,0.104
-2.160E-06,0.100
-2.150E-06,0.088
-2.140E-06,0.024
-2.130E-06,-0.056
-2.120E-06,-0.160
-2.110E-06,-0.232
-2.100E-06,-0.216
-2.090E-06,-0.120
-2.080E-06,-0.004
-2.070E-06,0.080
-2.060E-06,0.116
-2.050E-06,0.080
-2.040E-06,-0.004
-2.030E-06,-0.052
-2.020E-06,-0.092
-2.010E-06,-0.068
-2.000E-06,0.012
-1.990E-06,0.064
-1.980E-06,0.060
-1.970E-06,0.024
-1.960E-06,-0.040
-1.950E-06,-0.080
-1.940E-06,-0.064
-1.930E-06,-0.020
-1.920E-06,0.032
-1.910E-06,0.068
-1.900E-06,0.052
-1.890E-06,0.020
-1.880E-06,-0.012
-1.870E-06,-0.028
-1.860E-06,-0.012
-1.850E-06,0.020
-1.840E-06,0.060
-1.830E-06,0.076
-1.820E-06,0.076
-1.810E-06,0.068
-1.800E-06,0.072
-1.790E-06,0.028
-1.780E-06,-0.008
-1.770E-06,-0.056
-1.760E-06,-0.092
-1.750E-06,-0.056
-1.740E-06,0.012
-1.730E-06,0.036
-1.720E-06,0.064
-1.710E-06,0.068
-1.700E-06,0.024
-1.690E-06,-0.004
-1.680E-06,-0.004
-1.670E-06,0.020
-1.660E-06,0.056
-1.650E-06,0.076
-1.640E-06,0.036
-1.630E-06,0.000
-1.620E-06,-0.028
-1.610E-06,-0.020
-1.600E-06,-0.004
-1.590E-06,0.028
-1.580E-06,0.032
-1.570E-06,0.036
-1.560E-06,0.048
-1.550E-06,0.036
-1.540E-06,0.016
-1.530E-06,-0.052
-1.520E-06,-0.128
-1.510E-06,-0.144
-1.500E-06,-0.100
-1.490E-06,-0.040
-1.480E-06,0.020
-1.470E-06,0.044
-1.460E-06,0.040
-1.450E-06,-0.004
-1.440E-06,-0.068
-1.430E-06,-0.068
-1.420E-06,-0.040
-1.410E-06,0.008
-1.400E-06,0.032
-1.390E-06,0.028
-1.380E-06,-0.008
-1.370E-06,-0.020
-1.360E-06,-0.020
-1.350E-06,-0.020
-1.340E-06,0.008
-1.330E-06,0.024
-1.320E-06,0.020
-1.310E-06,0.008
-1.300E-06,0.000
-1.290E-06,-0.004
-1.280E-06,-0.008
-1.270E-06,-0.004
-1.260E-06,0.000
-1.250E-06,0.016
-1.240E-06,0.016
-1.230E-06,0.012
-1.220E-06,0.016
-1.210E-06,0.000
-1.200E-06,0.004
-1.190E-06,0.016
-1.180E-06,0.036
-1.170E-06,0.056
-1.160E-06,0.060
-1.150E-06,0.072
-1.140E-06,0.076
-1.130E-06,0.084
-1.120E-06,0.076
-1.110E-06,0.060
-1.100E-06,0.028
-1.090E-06,0.012
-1.080E-06,-0.004
-1.070E-06,-0.032
-1.060E-06,-0.112
-1.050E-06,-0.240
-1.040E-06,-0.204
-1.030E-06,-0.108
-1.020E-06,0.132
-1.010E-06,0.196
-1.000E-06,0.116
-9.900E-07,0.084
-9.800E-07,-0.060
-9.700E-07,-0.128
-9.600E-07,-0.124
-9.500E-07,0.016
-9.400E-07,0.084
-9.300E-07,0.104
-9.200E-07,0.024
-9.100E-07,-0.036
-9.000E-07,-0.048
-8.900E-07,-0.020
-8.800E-07,0.024
-8.700E-07,0.076
-8.600E-07,0.088
-8.500E-07,0.052
-8.400E-07,0.024
-8.300E-07,-0.032
-8.200E-07,-0.024
-8.100E-07,0.012
-8.000E-07,-0.032
-7.900E-07,-0.056
-7.800E-07,-0.096
-7.700E-07,-0.084
-7.600E-07,-0.004
-7.500E-07,0.056
-7.400E-07,0.044
-7.300E-07,0.028
-7.200E-07,0.004
-7.100E-07,-0.056
-7.000E-07,-0.040
-6.900E-07,-0.012
-6.800E-07,0.020
-6.700E-07,0.048
-6.600E-07,0.028
-6.500E-07,-0.008
-6.400E-07,-0.012
-6.300E-07,0.000
-6.200E-07,0.024
-6.100E-07,0.044
-6.000E-07,0.020
-5.900E-07,-0.012
-5.800E-07,-0.036
-5.700E-07,-0.052
-5.600E-07,-0.032
-5.500E-07,0.008
-5.400E-07,0.040
-5.300E-07,0.040
-5.200E-07,0.024
-5.100E-07,-0.008
-5.000E-07,-0.032
-4.900E-07,-0.036
-4.800E-07,-0.012
-4.700E-07,0.008
-4.600E-07,0.032
-4.500E-07,0.044
-4.400E-07,0.020
-4.300E-07,0.012
-4.200E-07,-0.008
-4.100E-07,-0.008
-4.000E-07,0.000
-3.900E-07,0.020
-3.800E-07,0.024
-3.700E-07,0.036
-3.600E-07,0.032
-3.500E-07,0.020
-3.400E-07,0.004
-3.300E-07,0.000
-3.200E-07,0.004
-3.100E-07,0.016
-3.000E-07,0.036
-2.900E-07,0.052
-2.800E-07,0.056
-2.700E-07,0.044
-2.600E-07,0.036
-2.500E-07,0.032
-2.400E-07,0.028
-2.300E-07,0.028
-2.200E-07,0.032
-2.100E-07,0.028
-2.000E-07,0.032
-1.900E-07,0.024
-1.800E-07,0.012
-1.700E-07,-0.004
-1.600E-07,-0.024
-1.500E-07,-0.024
-1.400E-07,-0.024
-1.300E-07,0.000
-1.200E-07,0.024
-1.100E-07,0.060
-1.000E-07,0.104
-9.000E-08,0.060
-8.000E-08,0.064
-7.000E-08,0.016
-6.000E-08,0.068
-5.000E-08,-0.292
-4.000E-08,-0.272
-3.000E-08,-0.364
-2.000E-08,-0.188
-1.000E-08,0.144
0.000E+00,0.312
1.000E-08,0.336
2.000E-08,0.172
3.000E-08,0.028
4.000E-08,-0.136
5.000E-08,-0.136
6.000E-08,-0.192
7.000E-08,-0.100
8.000E-08,-0.108
9.000E-08,-0.004
1.000E-07,0.036
1.100E-07,0.092
1.200E-07,0.108
1.300E-07,0.064
1.400E-07,0.008
1.500E-07,-0.068
1.600E-07,-0.036
1.700E-07,-0.004
1.800E-07,0.052
1.900E-07,0.036
2.000E-07,0.012
2.100E-07,-0.016
2.200E-07,0.000
2.300E-07,0.020
2.400E-07,0.044
2.500E-07,0.060
2.600E-07,0.028
2.700E-07,0.008
2.800E-07,0.000
2.900E-07,0.004
3.000E-07,0.040
3.100E-07,0.072
3.200E-07,0.072
3.300E-07,0.056
3.400E-07,0.028
3.500E-07,-0.004
3.600E-07,-0.036
3.700E-07,-0.036
3.800E-07,0.000
3.900E-07,0.040
4.000E-07,0.068
4.100E-07,0.076
4.200E-07,0.064
4.300E-07,0.032
4.400E-07,0.016
4.500E-07,0.000
4.600E-07,0.012
4.700E-07,0.044
4.800E-07,0.088
4.900E-07,0.096
5.000E-07,0.136
5.100E-07,0.104
5.200E-07,0.020
5.300E-07,-0.052
5.400E-07,-0.148
5.500E-07,-0.156
5.600E-07,-0.072
5.700E-07,0.040
5.800E-07,0.096
5.900E-07,0.124
6.000E-07,0.104
6.100E-07,0.000
6.200E-07,-0.040
6.300E-07,-0.068
6.400E-07,-0.072
6.500E-07,-0.060
6.600E-07,-0.088
6.700E-07,-0.112
6.800E-07,-0.080
6.900E-07,0.012
7.000E-07,0.064
7.100E-07,0.124
7.200E-07,0.056
7.300E-07,0.008
7.400E-07,-0.080
7.500E-07,-0.096
7.600E-07,-0.060
7.700E-07,0.048
7.800E-07,0.096
7.900E-07,0.092
8.000E-07,0.048
8.100E-07,-0.032
8.200E-07,-0.060
8.300E-07,-0.072
8.400E-07,-0.024
8.500E-07,-0.004
8.600E-07,0.040
8.700E-07,0.040
8.800E-07,0.048
8.900E-07,0.028
9.000E-07,0.020
9.100E-07,-0.008
9.200E-07,-0.024
9.300E-07,-0.056
9.400E-07,-0.060
9.500E-07,-0.040
9.600E-07,-0.004
9.700E-07,0.064
9.800E-07,0.076
9.900E-07,0.080
1.000E-06,0.040
1.010E-06,0.012
1.020E-06,0.000
1.030E-06,0.056
1.040E-06,0.100
1.050E-06,0.128
1.060E-06,0.132
1.070E-06,0.108
1.080E-06,0.080
1.090E-06,0.020
1.100E-06,-0.024
1.110E-06,-0.100
1.120E-06,-0.124
1.130E-06,-0.148
1.140E-06,-0.120
1.150E-06,-0.076
1.160E-06,-0.004
1.170E-06,0.048
1.180E-06,0.052
1.190E-06,0.024
1.200E-06,-0.020
1.210E-06,-0.004
1.220E-06,0.024
1.230E-06,0.076
1.240E-06,0.120
1.250E-06,0.124
1.260E-06,0.112
1.270E-06,0.080
1.280E-06,0.052
1.290E-06,0.032
1.300E-06,0.056
1.310E-06,0.072
1.320E-06,0.088
1.330E-06,0.080
1.340E-06,0.076
1.350E-06,0.048
1.360E-06,0.040
1.370E-06,0.060
1.380E-06,0.096
1.390E-06,0.132
1.400E-06,0.156
1.410E-06,0.148
1.420E-06,0.124
1.430E-06,0.072
1.440E-06,0.044
1.450E-06,0.036
1.460E-06,0.052
1.470E-06,0.064
1.480E-06,0.064
1.490E-06,0.032
1.500E-06,-0.008
1.510E-06,-0.048
1.520E-06,-0.056
1.530E-06,-0.032
1.540E-06,0.012
1.550E-06,0.076
1.560E-06,0.108
1.570E-06,0.100
1.580E-06,0.072
1.590E-06,0.044
1.600E-06,0.004
1.610E-06,0.008
1.620E-06,0.020
1.630E-06,0.060
1.640E-06,-0.032
1.650E-06,-0.104
1.660E-06,-0.220
1.670E-06,-0.268
1.680E-06,-0.216
1.690E-06,-0.168
1.700E-06,-0.084
1.710E-06,-0.140
1.720E-06,-0.160
1.730E-06,-0.148
1.740E-06,0.008
1.750E-06,0.072
1.760E-06,0.088
1.770E-06,0.080
1.780E-06,-0.076
1.790E-06,-0.188
1.800E-06,-0.208
1.810E-06,-0.160
1.820E-06,-0.052
1.830E-06,0.076
1.840E-06,0.104
1.850E-06,0.076
1.860E-06,-0.008
1.870E-06,-0.068
1.880E-06,-0.052
1.890E-06,0.008
1.900E-06,0.040
1.910E-06,0.072
1.920E-06,0.076
1.930E-06,0.064
1.940E-06,0.024
1.950E-06,-0.024
1.960E-06,-0.060
1.970E-06,-0.096
1.980E-06,-0.108
1.990E-06,-0.088
2.000E-06,-0.068
2.010E-06,-0.044
2.020E-06,0.008
2.030E-06,0.028
2.040E-06,0.044
2.050E-06,0.032
2.060E-06,-0.004
2.070E-06,-0.016
2.080E-06,0.000
2.090E-06,0.032
2.100E-06,0.080
2.110E-06,0.092
2.120E-06,0.064
2.130E-06,0.032
2.140E-06,0.028
2.150E-06,0.032
2.160E-06,0.044
2.170E-06,0.084
2.180E-06,0.092
2.190E-06,0.080
2.200E-06,0.060
2.210E-06,0.056
2.220E-06,0.068
2.230E-06,0.092
2.240E-06,0.128
2.250E-06,0.156
2.260E-06,0.168
2.270E-06,0.156
2.280E-06,0.152
2.290E-06,0.144
2.300E-06,0.144
2.310E-06,0.152
2.320E-06,0.164
2.330E-06,0.172
2.340E-06,0.172
2.350E-06,0.164
2.360E-06,0.156
2.370E-06,0.152
2.380E-06,0.148
2.390E-06,0.156
2.400E-06,0.168
2.410E-06,0.184
2.420E-06,0.184
2.430E-06,0.176
2.440E-06,0.156
2.450E-06,0.144
2.460E-06,0.140
2.470E-06,0.136
2.480E-06,0.148
2.490E-06,0.160
2.500E-06,0.156
2.510E-06,0.156
2.520E-06,0.152
2.530E-06,0.112
2.540E-06,0.060
2.550E-06,0.040
2.560E-06,-0.032
2.570E-06,-0.176
2.580E-06,-0.380
2.590E-06,-0.508
2.600E-06,-0.512
2.610E-06,-0.508
2.620E-06,-0.372
2.630E-06,0.192
2.640E-06,0.408
2.650E-06,0.304
2.660E-06,-0.056
2.670E-06,-0.488
2.680E-06,-0.512
2.690E-06,-0.508
2.700E-06,-0.152
2.710E-06,0.180
2.720E-06,0.356
2.730E-06,0.240
2.740E-06,-0.032
2.750E-06,-0.324
2.760E-06,-0.400
2.770E-06,-0.264
2.780E-06,-0.052
2.790E-06,0.128
2.800E-06,0.164
2.810E-06,0.104
2.820E-06,-0.008
2.830E-06,-0.128
2.840E-06,-0.160
2.850E-06,-0.084
2.860E-06,0.032
2.870E-06,0.144
2.880E-06,0.192
2.890E-06,0.164
2.900E-06,0.088
2.910E-06,0.012
2.920E-06,-0.008
2.930E-06,0.024
2.940E-06,0.100
2.950E-06,0.172
2.960E-06,0.200
2.970E-06,0.172
2.980E-06,0.124
2.990E-06,0.072
3.000E-06,0.064
3.010E-06,0.092
3.020E-06,0.148
3.030E-06,0.200
3.040E-06,0.224
3.050E-06,0.208
3.060E-06,0.168
3.070E-06,0.140
3.080E-06,0.124
3.090E-06,0.140
3.100E-06,0.164
3.110E-06,0.192
3.120E-06,0.192
3.130E-06,0.172
3.140E-06,0.144
3.150E-06,0.120
3.160E-06,0.092
3.170E-06,0.088
3.180E-06,0.068
3.190E-06,0.056
3.200E-06,0.040
3.210E-06,0.028
3.220E-06,0.004
3.230E-06,0.004
3.240E-06,0.020
3.250E-06,0.028
3.260E-06,0.064
3.270E-06,0.076
3.280E-06,0.092
3.290E-06,0.092
3.300E-06,0.128
3.310E-06,0.152
3.320E-06,0.172
3.330E-06,0.192
3.340E-06,0.192
3.350E-06,0.168
3.360E-06,0.128
3.370E-06,0.108
3.380E-06,0.100
3.390E-06,0.112
3.400E-06,0.124
3.410E-06,0.144
3.420E-06,0.152
3.430E-06,0.152
3.440E-06,0.144
3.450E-06,0.136
3.460E-06,0.144
3.470E-06,0.160
3.480E-06,0.164
3.490E-06,0.172
3.500E-06,0.168
3.510E-06,0.160
3.520E-06,0.160
3.530E-06,0.156
3.540E-06,0.152
3.550E-06,0.152
3.560E-06,0.152
3.570E-06,0.144
3.580E-06,0.140
3.590E-06,0.132
3.600E-06,0.124
3.610E-06,0.108
3.620E-06,0.100
3.630E-06,0.100
3.640E-06,0.108
3.650E-06,0.124
3.660E-06,0.140
3.670E-06,0.160
3.680E-06,0.172
3.690E-06,0.164
3.700E-06,0.160
3.710E-06,0.148
3.720E-06,0.148
3.730E-06,0.156
3.740E-06,0.164
3.750E-06,0.180
3.760E-06,0.180
3.770E-06,0.168
3.780E-06,0.160
3.790E-06,0.156
3.800E-06,0.148
3.810E-06,0.156
3.820E-06,0.160
3.830E-06,0.164
3.840E-06,0.168
3.850E-06,0.172
3.860E-06,0.164
3.870E-06,0.160
3.880E-06,0.156
3.890E-06,0.160
3.900E-06,0.164
3.910E-06,0.164
3.920E-06,0.160
3.930E-06,0.160
3.940E-06,0.164
3.950E-06,0.160
3.960E-06,0.160
3.970E-06,0.164
3.980E-06,0.160
3.990E-06,0.156
4.000E-06,0.156
4.010E-06,0.164
4.020E-06,0.164
4.030E-06,0.168
4.040E-06,0.160
4.050E-06,0.164
4.060E-06,0.156
4.070E-06,0.160
4.080E-06,0.164
4.090E-06,0.160
4.100E-06,0.156
4.110E-06,0.160
4.120E-06,0.160
4.130E-06,0.152
4.140E-06,0.152
4.150E-06,0.156
4.160E-06,0.160
4.170E-06,0.152
4.180E-06,0.156
4.190E-06,0.160
4.200E-06,0.156
4.210E-06,0.160
4.220E-06,0.152
4.230E-06,0.156
4.240E-06,0.160
4.250E-06,0.156
4.260E-06,0.160
4.270E-06,0.160
4.280E-06,0.160
4.290E-06,0.148
4.300E-06,0.148
4.310E-06,0.152
4.320E-06,0.148
4.330E-06,0.152
4.340E-06,0.148
4.350E-06,0.152
4.360E-06,0.152
4.370E-06,0.148
4.380E-06,0.148
4.390E-06,0.152
4.400E-06,0.148
4.410E-06,0.140
4.420E-06,0.140
4.430E-06,0.140
4.440E-06,0.136
4.450E-06,0.136
4.460E-06,0.140
4.470E-06,0.136
4.480E-06,0.140
4.490E-06,0.144
4.500E-06,0.148
4.510E-06,0.152
4.520E-06,0.156
4.530E-06,0.160
4.540E-06,0.152
4.550E-06,0.156
4.560E-06,0.152
4.570E-06,0.140
4.580E-06,0.140
4.590E-06,0.144
4.600E-06,0.144
4.610E-06,0.144
4.620E-06,0.144
4.630E-06,0.144
4.640E-06,0.144
4.650E-06,0.140
4.660E-06,0.140
4.670E-06,0.136
4.680E-06,0.140
4.690E-06,0.136
4.700E-06,0.132
4.710E-06,0.144
4.720E-06,0.144
4.730E-06,0.140
4.740E-06,0.148
4.750E-06,0.144
4.760E-06,0.140
4.770E-06,0.140
4.780E-06,0.140
4.790E-06,0.144
4.800E-06,0.148
4.810E-06,0.140
4.820E-06,0.140
4.830E-06,0.140
4.840E-06,0.136
4.850E-06,0.136
4.860E-06,0.140
4.870E-06,0.140
4.880E-06,0.148
4.890E-06,0.148
4.900E-06,0.144
4.910E-06,0.144
4.920E-06,0.144
4.930E-06,0.144
4.940E-06,0.140
4.950E-06,0.144
4.960E-06,0.144
4.970E-06,0.144
4.980E-06,0.140
4.990E-06,0.136
5.000E-06,0.140
5.010E-06,0.140
5.020E-06,0.140
5.030E-06,0.144
5.040E-06,0.144
5.050E-06,0.144
5.060E-06,0.140
5.070E-06,0.136
5.080E-06,0.132
5.090E-06,0.136
5.100E-06,0.136
5.110E-06,0.136
5.120E-06,0.136
5.130E-06,0.132
5.140E-06,0.132
5.150E-06,0.128
5.160E-06,0.132
5.170E-06,0.132
5.180E-06,0.132
5.190E-06,0.128
5.200E-06,0.132
5.210E-06,0.128
5.220E-06,0.132
5.230E-06,0.132
5.240E-06,0.128
5.250E-06,0.128
5.260E-06,0.132
5.270E-06,0.136
5.280E-06,0.136
5.290E-06,0.136
5.300E-06,0.132
5.310E-06,0.128
5.320E-06,0.128
5.330E-06,0.128
5.340E-06,0.128
5.350E-06,0.128
5.360E-06,0.128
5.370E-06,0.128
5.380E-06,0.128
5.390E-06,0.128
5.400E-06,0.128
5.410E-06,0.128
5.420E-06,0.124
5.430E-06,0.128
5.440E-06,0.128
5.450E-06,0.128
5.460E-06,0.128
5.470E-06,0.124
5.480E-06,0.124
5.490E-06,0.124
5.500E-06,0.124
5.510E-06,0.124
5.520E-06,0.124
5.530E-06,0.124
5.540E-06,0.120
5.550E-06,0.120
5.560E-06,0.124
5.570E-06,0.120
5.580E-06,0.124
5.590E-06,0.124
5.600E-06,0.124
5.610E-06,0.120
5.620E-06,0.124
5.630E-06,0.124
5.640E-06,0.124
5.650E-06,0.120
5.660E-06,0.120
5.670E-06,0.120
5.680E-06,0.120
5.690E-06,0.124
5.700E-06,0.120
5.710E-06,0.116
5.720E-06,0.116
5.730E-06,0.108
5.740E-06,0.112
5.750E-06,0.120
5.760E-06,0.120
5.770E-06,0.112
5.780E-06,0.112
5.790E-06,0.108
5.800E-06,0.108
5.810E-06,0.104
5.820E-06,0.104
5.830E-06,0.108
5.840E-06,0.104
5.850E-06,0.108
5.860E-06,0.108
5.870E-06,0.108
5.880E-06,0.108
5.890E-06,0.108
5.900E-06,0.104
5.910E-06,0.108
5.920E-06,0.104
5.930E-06,0.104
5.940E-06,0.104
5.950E-06,0.100
5.960E-06,0.100
5.970E-06,0.108
5.980E-06,0.108
5.990E-06,0.096
6.000E-06,0.096
6.010E-06,0.096
6.020E-06,0.096
6.030E-06,0.100
6.040E-06,0.104
6.050E-06,0.108
6.060E-06,0.100
6.070E-06,0.100
6.080E-06,0.100
6.090E-06,0.096
6.100E-06,0.096
6.110E-06,0.104
6.120E-06,0.100
6.130E-06,0.100
6.140E-06,0.096
6.150E-06,0.092
6.160E-06,0.100
6.170E-06,0.092
6.180E-06,0.096
6.190E-06,0.100
6.200E-06,0.100
6.210E-06,0.096
6.220E-06,0.096
6.230E-06,0.092
6.240E-06,0.092
6.250E-06,0.096
6.260E-06,0.096
