mediciones/5-27/-57.5/WaveData50303.csv

#timebase=2000000(ps)
,#voltbase=100000(mv/100)
#size=4000
-5.650E-06,0.000
-5.640E-06,0.000
-5.630E-06,0.000
-5.620E-06,0.000
-5.610E-06,0.000
-5.600E-06,0.008
-5.590E-06,0.004
-5.580E-06,0.012
-5.570E-06,0.008
-5.560E-06,0.004
-5.550E-06,0.004
-5.540E-06,-0.004
-5.530E-06,0.000
-5.520E-06,0.004
-5.510E-06,0.008
-5.500E-06,0.008
-5.490E-06,0.000
-5.480E-06,0.004
-5.470E-06,0.004
-5.460E-06,-0.004
-5.450E-06,0.000
-5.440E-06,0.000
-5.430E-06,0.004
-5.420E-06,0.008
-5.410E-06,0.004
-5.400E-06,0.004
-5.390E-06,-0.004
-5.380E-06,-0.004
-5.370E-06,-0.004
-5.360E-06,0.004
-5.350E-06,0.004
-5.340E-06,0.008
-5.330E-06,0.004
-5.320E-06,0.000
-5.310E-06,0.000
-5.300E-06,0.000
-5.290E-06,-0.004
-5.280E-06,-0.004
-5.270E-06,0.008
-5.260E-06,0.004
-5.250E-06,0.004
-5.240E-06,0.000
-5.230E-06,-0.004
-5.220E-06,-0.004
-5.210E-06,-0.004
-5.200E-06,0.004
-5.190E-06,0.012
-5.180E-06,0.008
-5.170E-06,0.008
-5.160E-06,0.000
-5.150E-06,-0.004
-5.140E-06,-0.004
-5.130E-06,-0.004
-5.120E-06,0.004
-5.110E-06,0.000
-5.100E-06,0.000
-5.090E-06,-0.008
-5.080E-06,-0.004
-5.070E-06,-0.004
-5.060E-06,0.020
-5.050E-06,0.028
-5.040E-06,0.036
-5.030E-06,-0.004
-5.020E-06,-0.036
-5.010E-06,-0.060
-5.000E-06,-0.024
-4.990E-06,0.012
-4.980E-06,0.052
-4.970E-06,0.024
-4.960E-06,-0.012
-4.950E-06,-0.064
-4.940E-06,-0.064
-4.930E-06,-0.024
-4.920E-06,0.040
-4.910E-06,0.072
-4.900E-06,0.056
-4.890E-06,0.008
-4.880E-06,-0.036
-4.870E-06,-0.048
-4.860E-06,-0.020
-4.850E-06,0.024
-4.840E-06,0.052
-4.830E-06,0.048
-4.820E-06,0.004
-4.810E-06,-0.024
-4.800E-06,-0.032
-4.790E-06,-0.004
-4.780E-06,0.020
-4.770E-06,0.032
-4.760E-06,0.020
-4.750E-06,-0.004
-4.740E-06,-0.008
-4.730E-06,-0.004
-4.720E-06,0.016
-4.710E-06,0.024
-4.700E-06,0.032
-4.690E-06,0.016
-4.680E-06,-0.008
-4.670E-06,-0.020
-4.660E-06,-0.024
-4.650E-06,-0.008
-4.640E-06,0.016
-4.630E-06,0.032
-4.620E-06,0.016
-4.610E-06,0.012
-4.600E-06,0.000
-4.590E-06,-0.004
-4.580E-06,0.008
-4.570E-06,0.008
-4.560E-06,0.008
-4.550E-06,-0.004
-4.540E-06,0.000
-4.530E-06,-0.004
-4.520E-06,0.012
-4.510E-06,0.012
-4.500E-06,0.016
-4.490E-06,0.012
-4.480E-06,0.004
-4.470E-06,-0.004
-4.460E-06,0.004
-4.450E-06,0.012
-4.440E-06,0.020
-4.430E-06,0.024
-4.420E-06,0.012
-4.410E-06,0.012
-4.400E-06,0.008
-4.390E-06,0.008
-4.380E-06,0.008
-4.370E-06,0.008
-4.360E-06,0.012
-4.350E-06,0.004
-4.340E-06,0.012
-4.330E-06,0.008
-4.320E-06,0.020
-4.310E-06,0.024
-4.300E-06,0.032
-4.290E-06,0.012
-4.280E-06,0.012
-4.270E-06,0.004
-4.260E-06,0.012
-4.250E-06,0.020
-4.240E-06,0.048
-4.230E-06,0.044
-4.220E-06,0.036
-4.210E-06,0.020
-4.200E-06,0.008
-4.190E-06,0.008
-4.180E-06,0.032
-4.170E-06,0.056
-4.160E-06,0.076
-4.150E-06,0.068
-4.140E-06,0.060
-4.130E-06,0.008
-4.120E-06,-0.040
-4.110E-06,-0.108
-4.100E-06,-0.116
-4.090E-06,-0.100
-4.080E-06,-0.028
-4.070E-06,0.020
-4.060E-06,0.048
-4.050E-06,0.032
-4.040E-06,0.000
-4.030E-06,-0.036
-4.020E-06,-0.044
-4.010E-06,-0.028
-4.000E-06,0.000
-3.990E-06,0.016
-3.980E-06,0.024
-3.970E-06,0.024
-3.960E-06,-0.008
-3.950E-06,-0.012
-3.940E-06,-0.028
-3.930E-06,-0.016
-3.920E-06,-0.012
-3.910E-06,-0.004
-3.900E-06,-0.008
-3.890E-06,0.000
-3.880E-06,0.012
-3.870E-06,0.012
-3.860E-06,0.008
-3.850E-06,0.000
-3.840E-06,-0.008
-3.830E-06,-0.012
-3.820E-06,0.000
-3.810E-06,0.012
-3.800E-06,0.028
-3.790E-06,0.028
-3.780E-06,0.020
-3.770E-06,0.012
-3.760E-06,-0.004
-3.750E-06,-0.004
-3.740E-06,-0.004
-3.730E-06,0.000
-3.720E-06,0.008
-3.710E-06,0.012
-3.700E-06,0.008
-3.690E-06,0.008
-3.680E-06,-0.004
-3.670E-06,0.000
-3.660E-06,0.008
-3.650E-06,0.016
-3.640E-06,0.012
-3.630E-06,0.008
-3.620E-06,-0.004
-3.610E-06,-0.008
-3.600E-06,-0.004
-3.590E-06,0.008
-3.580E-06,0.028
-3.570E-06,0.032
-3.560E-06,0.024
-3.550E-06,0.008
-3.540E-06,-0.012
-3.530E-06,-0.024
-3.520E-06,-0.004
-3.510E-06,0.008
-3.500E-06,0.028
-3.490E-06,0.032
-3.480E-06,0.036
-3.470E-06,0.028
-3.460E-06,0.020
-3.450E-06,0.016
-3.440E-06,0.016
-3.430E-06,0.036
-3.420E-06,0.064
-3.410E-06,0.088
-3.400E-06,0.068
-3.390E-06,0.052
-3.380E-06,0.000
-3.370E-06,-0.036
-3.360E-06,-0.056
-3.350E-06,-0.024
-3.340E-06,-0.004
-3.330E-06,0.020
-3.320E-06,0.028
-3.310E-06,0.012
-3.300E-06,0.008
-3.290E-06,0.008
-3.280E-06,0.012
-3.270E-06,0.024
-3.260E-06,0.016
-3.250E-06,-0.004
-3.240E-06,-0.004
-3.230E-06,0.000
-3.220E-06,0.028
-3.210E-06,0.048
-3.200E-06,0.044
-3.190E-06,0.020
-3.180E-06,-0.040
-3.170E-06,-0.088
-3.160E-06,-0.120
-3.150E-06,-0.096
-3.140E-06,-0.028
-3.130E-06,0.020
-3.120E-06,0.052
-3.110E-06,0.036
-3.100E-06,0.000
-3.090E-06,-0.036
-3.080E-06,-0.040
-3.070E-06,-0.020
-3.060E-06,0.000
-3.050E-06,0.012
-3.040E-06,0.012
-3.030E-06,0.000
-3.020E-06,-0.012
-3.010E-06,-0.020
-3.000E-06,-0.012
-2.990E-06,-0.008
-2.980E-06,0.004
-2.970E-06,0.004
-2.960E-06,-0.004
-2.950E-06,-0.004
-2.940E-06,0.008
-2.930E-06,0.008
-2.920E-06,0.016
-2.910E-06,0.020
-2.900E-06,0.016
-2.890E-06,0.012
-2.880E-06,0.012
-2.870E-06,0.016
-2.860E-06,0.000
-2.850E-06,-0.008
-2.840E-06,-0.024
-2.830E-06,-0.028
-2.820E-06,0.004
-2.810E-06,0.036
-2.800E-06,0.068
-2.790E-06,0.072
-2.780E-06,0.064
-2.770E-06,0.040
-2.760E-06,0.000
-2.750E-06,-0.024
-2.740E-06,-0.036
-2.730E-06,-0.044
-2.720E-06,-0.040
-2.710E-06,-0.028
-2.700E-06,-0.008
-2.690E-06,0.008
-2.680E-06,0.016
-2.670E-06,0.004
-2.660E-06,0.000
-2.650E-06,-0.008
-2.640E-06,-0.004
-2.630E-06,-0.032
-2.620E-06,-0.036
-2.610E-06,-0.020
-2.600E-06,0.004
-2.590E-06,0.020
-2.580E-06,0.024
-2.570E-06,0.004
-2.560E-06,-0.008
-2.550E-06,-0.008
-2.540E-06,0.008
-2.530E-06,0.028
-2.520E-06,0.028
-2.510E-06,0.024
-2.500E-06,0.016
-2.490E-06,0.012
-2.480E-06,0.016
-2.470E-06,0.024
-2.460E-06,0.044
-2.450E-06,0.052
-2.440E-06,0.052
-2.430E-06,0.060
-2.420E-06,0.060
-2.410E-06,0.076
-2.400E-06,0.080
-2.390E-06,0.076
-2.380E-06,0.056
-2.370E-06,0.044
-2.360E-06,0.008
-2.350E-06,-0.008
-2.340E-06,-0.020
-2.330E-06,-0.020
-2.320E-06,-0.012
-2.310E-06,-0.008
-2.300E-06,-0.008
-2.290E-06,-0.008
-2.280E-06,-0.012
-2.270E-06,-0.020
-2.260E-06,-0.012
-2.250E-06,-0.004
-2.240E-06,-0.004
-2.230E-06,0.004
-2.220E-06,0.008
-2.210E-06,-0.004
-2.200E-06,0.000
-2.190E-06,-0.016
-2.180E-06,0.004
-2.170E-06,0.012
-2.160E-06,0.028
-2.150E-06,0.024
-2.140E-06,0.028
-2.130E-06,0.016
-2.120E-06,0.000
-2.110E-06,0.020
-2.100E-06,0.024
-2.090E-06,0.044
-2.080E-06,0.048
-2.070E-06,0.048
-2.060E-06,0.028
-2.050E-06,0.024
-2.040E-06,-0.004
-2.030E-06,-0.040
-2.020E-06,-0.064
-2.010E-06,-0.056
-2.000E-06,-0.024
-1.990E-06,0.012
-1.980E-06,0.040
-1.970E-06,0.032
-1.960E-06,0.020
-1.950E-06,0.008
-1.940E-06,0.000
-1.930E-06,0.024
-1.920E-06,0.032
-1.910E-06,0.052
-1.900E-06,0.048
-1.890E-06,0.028
-1.880E-06,0.016
-1.870E-06,0.004
-1.860E-06,0.000
-1.850E-06,0.004
-1.840E-06,0.028
-1.830E-06,0.024
-1.820E-06,0.032
-1.810E-06,0.032
-1.800E-06,0.028
-1.790E-06,0.024
-1.780E-06,0.032
-1.770E-06,0.020
-1.760E-06,0.024
-1.750E-06,0.016
-1.740E-06,0.004
-1.730E-06,-0.048
-1.720E-06,-0.132
-1.710E-06,-0.200
-1.700E-06,-0.236
-1.690E-06,-0.180
-1.680E-06,-0.076
-1.670E-06,0.044
-1.660E-06,0.136
-1.650E-06,0.124
-1.640E-06,0.052
-1.630E-06,-0.056
-1.620E-06,-0.132
-1.610E-06,-0.108
-1.600E-06,-0.032
-1.590E-06,0.056
-1.580E-06,0.084
-1.570E-06,0.056
-1.560E-06,-0.008
-1.550E-06,-0.056
-1.540E-06,-0.056
-1.530E-06,-0.028
-1.520E-06,0.020
-1.510E-06,0.044
-1.500E-06,0.036
-1.490E-06,0.008
-1.480E-06,-0.020
-1.470E-06,-0.028
-1.460E-06,-0.020
-1.450E-06,0.008
-1.440E-06,0.036
-1.430E-06,0.044
-1.420E-06,0.040
-1.410E-06,0.020
-1.400E-06,0.008
-1.390E-06,0.004
-1.380E-06,0.008
-1.370E-06,0.016
-1.360E-06,0.024
-1.350E-06,0.032
-1.340E-06,0.036
-1.330E-06,0.032
-1.320E-06,0.032
-1.310E-06,0.036
-1.300E-06,0.032
-1.290E-06,0.020
-1.280E-06,0.008
-1.270E-06,-0.008
-1.260E-06,-0.004
-1.250E-06,0.004
-1.240E-06,0.028
-1.230E-06,0.032
-1.220E-06,0.044
-1.210E-06,0.032
-1.200E-06,0.024
-1.190E-06,0.036
-1.180E-06,0.040
-1.170E-06,0.024
-1.160E-06,-0.016
-1.150E-06,-0.100
-1.140E-06,-0.152
-1.130E-06,-0.160
-1.120E-06,-0.084
-1.110E-06,0.020
-1.100E-06,0.132
-1.090E-06,0.112
-1.080E-06,0.048
-1.070E-06,-0.064
-1.060E-06,-0.128
-1.050E-06,-0.104
-1.040E-06,-0.008
-1.030E-06,0.072
-1.020E-06,0.100
-1.010E-06,0.060
-1.000E-06,-0.004
-9.900E-07,-0.048
-9.800E-07,-0.072
-9.700E-07,-0.056
-9.600E-07,-0.024
-9.500E-07,0.012
-9.400E-07,0.024
-9.300E-07,0.024
-9.200E-07,0.000
-9.100E-07,-0.028
-9.000E-07,-0.040
-8.900E-07,-0.028
-8.800E-07,-0.004
-8.700E-07,0.040
-8.600E-07,0.048
-8.500E-07,0.028
-8.400E-07,0.000
-8.300E-07,-0.016
-8.200E-07,-0.008
-8.100E-07,0.028
-8.000E-07,0.040
-7.900E-07,0.048
-7.800E-07,0.040
-7.700E-07,0.008
-7.600E-07,0.008
-7.500E-07,0.000
-7.400E-07,0.012
-7.300E-07,0.012
-7.200E-07,0.012
-7.100E-07,-0.016
-7.000E-07,-0.028
-6.900E-07,-0.036
-6.800E-07,-0.024
-6.700E-07,0.000
-6.600E-07,0.008
-6.500E-07,0.024
-6.400E-07,0.020
-6.300E-07,0.024
-6.200E-07,0.028
-6.100E-07,0.020
-6.000E-07,0.012
-5.900E-07,0.016
-5.800E-07,0.004
-5.700E-07,0.024
-5.600E-07,0.048
-5.500E-07,0.060
-5.400E-07,0.056
-5.300E-07,0.048
-5.200E-07,0.024
-5.100E-07,0.012
-5.000E-07,0.020
-4.900E-07,0.032
-4.800E-07,0.040
-4.700E-07,0.028
-4.600E-07,0.024
-4.500E-07,0.016
-4.400E-07,0.016
-4.300E-07,0.016
-4.200E-07,0.032
-4.100E-07,0.048
-4.000E-07,0.052
-3.900E-07,0.044
-3.800E-07,0.032
-3.700E-07,0.024
-3.600E-07,0.020
-3.500E-07,0.020
-3.400E-07,0.036
-3.300E-07,0.044
-3.200E-07,0.064
-3.100E-07,0.044
-3.000E-07,0.024
-2.900E-07,-0.012
-2.800E-07,-0.020
-2.700E-07,-0.028
-2.600E-07,-0.020
-2.500E-07,0.000
-2.400E-07,0.036
-2.300E-07,0.056
-2.200E-07,0.036
-2.100E-07,0.020
-2.000E-07,0.000
-1.900E-07,-0.020
-1.800E-07,-0.024
-1.700E-07,-0.020
-1.600E-07,-0.024
-1.500E-07,-0.008
-1.400E-07,-0.004
-1.300E-07,0.008
-1.200E-07,0.004
-1.100E-07,0.012
-1.000E-07,0.012
-9.000E-08,0.028
-8.000E-08,0.016
-7.000E-08,-0.028
-6.000E-08,-0.040
-5.000E-08,-0.268
-4.000E-08,-0.296
-3.000E-08,-0.396
-2.000E-08,-0.172
-1.000E-08,0.112
0.000E+00,0.424
1.000E-08,0.480
2.000E-08,0.388
3.000E-08,0.036
4.000E-08,-0.140
5.000E-08,-0.172
6.000E-08,0.012
7.000E-08,0.152
8.000E-08,0.124
9.000E-08,-0.104
1.000E-07,-0.448
1.100E-07,-0.508
1.200E-07,-0.440
1.300E-07,-0.068
1.400E-07,0.316
1.500E-07,0.516
1.600E-07,0.404
1.700E-07,0.124
1.800E-07,-0.236
1.900E-07,-0.360
2.000E-07,-0.224
2.100E-07,0.104
2.200E-07,0.204
2.300E-07,0.192
2.400E-07,-0.040
2.500E-07,-0.180
2.600E-07,-0.240
2.700E-07,-0.144
2.800E-07,0.056
2.900E-07,0.156
3.000E-07,0.168
3.100E-07,0.084
3.200E-07,-0.024
3.300E-07,-0.084
3.400E-07,-0.056
3.500E-07,0.012
3.600E-07,0.088
3.700E-07,0.124
3.800E-07,0.108
3.900E-07,0.072
4.000E-07,0.040
4.100E-07,0.008
4.200E-07,0.004
4.300E-07,0.024
4.400E-07,0.052
4.500E-07,0.008
4.600E-07,-0.036
4.700E-07,-0.084
4.800E-07,-0.148
4.900E-07,-0.100
5.000E-07,-0.032
5.100E-07,0.064
5.200E-07,0.088
5.300E-07,0.072
5.400E-07,0.012
5.500E-07,-0.056
5.600E-07,-0.068
5.700E-07,-0.068
5.800E-07,-0.008
5.900E-07,0.020
6.000E-07,0.056
6.100E-07,0.028
6.200E-07,0.016
6.300E-07,-0.004
6.400E-07,-0.012
6.500E-07,0.000
6.600E-07,0.000
6.700E-07,0.008
6.800E-07,0.004
6.900E-07,0.008
7.000E-07,-0.008
7.100E-07,-0.012
7.200E-07,-0.040
7.300E-07,-0.024
7.400E-07,-0.008
7.500E-07,0.020
7.600E-07,0.040
7.700E-07,0.036
7.800E-07,0.008
7.900E-07,-0.012
8.000E-07,-0.024
8.100E-07,0.008
8.200E-07,0.044
8.300E-07,0.068
8.400E-07,0.072
8.500E-07,0.060
8.600E-07,0.036
8.700E-07,0.032
8.800E-07,0.056
8.900E-07,0.088
9.000E-07,0.108
9.100E-07,0.104
9.200E-07,0.084
9.300E-07,0.044
9.400E-07,0.008
9.500E-07,-0.012
9.600E-07,-0.012
9.700E-07,-0.008
9.800E-07,-0.008
9.900E-07,-0.008
1.000E-06,-0.040
1.010E-06,-0.132
1.020E-06,-0.232
1.030E-06,-0.260
1.040E-06,-0.192
1.050E-06,-0.008
1.060E-06,0.176
1.070E-06,0.208
1.080E-06,0.116
1.090E-06,-0.052
1.100E-06,-0.200
1.110E-06,-0.212
1.120E-06,-0.072
1.130E-06,0.084
1.140E-06,0.156
1.150E-06,0.100
1.160E-06,-0.024
1.170E-06,-0.124
1.180E-06,-0.120
1.190E-06,-0.040
1.200E-06,0.040
1.210E-06,0.068
1.220E-06,0.040
1.230E-06,-0.004
1.240E-06,-0.040
1.250E-06,-0.028
1.260E-06,-0.004
1.270E-06,0.016
1.280E-06,0.012
1.290E-06,0.008
1.300E-06,0.000
1.310E-06,0.000
1.320E-06,0.004
1.330E-06,0.004
1.340E-06,0.012
1.350E-06,0.012
1.360E-06,0.012
1.370E-06,0.012
1.380E-06,0.004
1.390E-06,-0.008
1.400E-06,-0.008
1.410E-06,-0.028
1.420E-06,-0.012
1.430E-06,-0.004
1.440E-06,0.004
1.450E-06,0.028
1.460E-06,0.036
1.470E-06,0.044
1.480E-06,0.028
1.490E-06,0.016
1.500E-06,0.008
1.510E-06,0.004
1.520E-06,0.012
1.530E-06,0.024
1.540E-06,0.012
1.550E-06,0.000
1.560E-06,-0.008
1.570E-06,-0.004
1.580E-06,0.004
1.590E-06,0.020
1.600E-06,0.032
1.610E-06,0.024
1.620E-06,0.020
1.630E-06,0.008
1.640E-06,0.008
1.650E-06,0.016
1.660E-06,0.024
1.670E-06,0.032
1.680E-06,0.036
1.690E-06,0.024
1.700E-06,0.024
1.710E-06,0.028
1.720E-06,0.020
1.730E-06,0.020
1.740E-06,0.032
1.750E-06,0.060
1.760E-06,0.064
1.770E-06,0.052
1.780E-06,0.028
1.790E-06,-0.004
1.800E-06,-0.016
1.810E-06,0.004
1.820E-06,0.032
1.830E-06,0.048
1.840E-06,0.052
1.850E-06,0.024
1.860E-06,0.000
1.870E-06,-0.012
1.880E-06,-0.016
1.890E-06,-0.012
1.900E-06,0.000
1.910E-06,0.004
1.920E-06,0.024
1.930E-06,0.012
1.940E-06,0.020
1.950E-06,0.020
1.960E-06,0.004
1.970E-06,0.020
1.980E-06,0.008
1.990E-06,0.028
2.000E-06,0.024
2.010E-06,0.028
2.020E-06,0.032
2.030E-06,0.016
2.040E-06,0.012
2.050E-06,-0.008
2.060E-06,-0.004
2.070E-06,0.008
2.080E-06,0.028
2.090E-06,0.040
2.100E-06,0.052
2.110E-06,0.064
2.120E-06,0.060
2.130E-06,0.060
2.140E-06,0.052
2.150E-06,0.032
2.160E-06,0.044
2.170E-06,0.056
2.180E-06,0.056
2.190E-06,0.040
2.200E-06,0.032
2.210E-06,0.024
2.220E-06,0.036
2.230E-06,0.072
2.240E-06,0.112
2.250E-06,0.144
2.260E-06,0.152
2.270E-06,0.144
2.280E-06,0.108
2.290E-06,0.096
2.300E-06,0.024
2.310E-06,-0.108
2.320E-06,-0.272
2.330E-06,-0.456
2.340E-06,-0.380
2.350E-06,-0.172
2.360E-06,0.208
2.370E-06,0.384
2.380E-06,0.400
2.390E-06,0.108
2.400E-06,-0.164
2.410E-06,-0.308
2.420E-06,-0.196
2.430E-06,0.068
2.440E-06,0.348
2.450E-06,0.456
2.460E-06,0.348
2.470E-06,0.124
2.480E-06,-0.076
2.490E-06,-0.128
2.500E-06,-0.044
2.510E-06,0.112
2.520E-06,0.160
2.530E-06,0.128
2.540E-06,0.016
2.550E-06,-0.104
2.560E-06,-0.160
2.570E-06,-0.108
2.580E-06,-0.004
2.590E-06,0.112
2.600E-06,0.164
2.610E-06,0.136
2.620E-06,0.088
2.630E-06,0.000
2.640E-06,-0.180
2.650E-06,-0.256
2.660E-06,-0.236
2.670E-06,-0.188
2.680E-06,-0.100
2.690E-06,-0.188
2.700E-06,-0.224
2.710E-06,-0.324
2.720E-06,-0.328
2.730E-06,-0.336
2.740E-06,-0.060
2.750E-06,0.204
2.760E-06,0.228
2.770E-06,0.044
2.780E-06,-0.196
2.790E-06,-0.240
2.800E-06,-0.068
2.810E-06,0.136
2.820E-06,0.128
2.830E-06,0.068
2.840E-06,-0.068
2.850E-06,-0.088
2.860E-06,-0.052
2.870E-06,0.032
2.880E-06,0.092
2.890E-06,0.096
2.900E-06,0.020
2.910E-06,-0.064
2.920E-06,-0.056
2.930E-06,-0.044
2.940E-06,0.028
2.950E-06,0.076
2.960E-06,0.096
2.970E-06,0.068
2.980E-06,0.040
2.990E-06,-0.008
3.000E-06,-0.052
3.010E-06,-0.040
3.020E-06,-0.020
3.030E-06,0.024
3.040E-06,0.064
3.050E-06,0.068
3.060E-06,0.044
3.070E-06,0.012
3.080E-06,-0.020
3.090E-06,-0.028
3.100E-06,0.008
3.110E-06,0.072
3.120E-06,0.132
3.130E-06,0.152
3.140E-06,0.124
3.150E-06,0.072
3.160E-06,0.036
3.170E-06,0.036
3.180E-06,0.088
3.190E-06,0.152
3.200E-06,0.212
3.210E-06,0.224
3.220E-06,0.204
3.230E-06,0.160
3.240E-06,0.128
3.250E-06,0.100
3.260E-06,0.112
3.270E-06,0.156
3.280E-06,0.180
3.290E-06,0.196
3.300E-06,0.184
3.310E-06,0.144
3.320E-06,0.108
3.330E-06,0.076
3.340E-06,0.076
3.350E-06,0.088
3.360E-06,0.096
3.370E-06,0.108
3.380E-06,0.120
3.390E-06,0.112
3.400E-06,0.108
3.410E-06,0.096
3.420E-06,0.088
3.430E-06,0.088
3.440E-06,0.108
3.450E-06,0.120
3.460E-06,0.124
3.470E-06,0.128
3.480E-06,0.128
3.490E-06,0.104
3.500E-06,0.088
3.510E-06,0.076
3.520E-06,0.052
3.530E-06,-0.056
3.540E-06,-0.076
3.550E-06,-0.100
3.560E-06,-0.020
3.570E-06,0.036
3.580E-06,0.080
3.590E-06,0.120
3.600E-06,-0.104
3.610E-06,-0.068
3.620E-06,-0.268
3.630E-06,-0.448
3.640E-06,-0.388
3.650E-06,-0.512
3.660E-06,-0.508
3.670E-06,-0.448
3.680E-06,-0.216
3.690E-06,0.052
3.700E-06,0.292
3.710E-06,0.152
3.720E-06,-0.208
3.730E-06,-0.312
3.740E-06,-0.260
3.750E-06,-0.056
3.760E-06,0.096
3.770E-06,0.244
3.780E-06,0.096
3.790E-06,0.088
3.800E-06,-0.160
3.810E-06,-0.240
3.820E-06,-0.264
3.830E-06,-0.156
3.840E-06,-0.068
3.850E-06,-0.020
3.860E-06,0.012
3.870E-06,-0.004
3.880E-06,-0.024
3.890E-06,-0.088
3.900E-06,-0.052
3.910E-06,-0.036
3.920E-06,0.024
3.930E-06,0.056
3.940E-06,0.088
3.950E-06,0.040
3.960E-06,0.020
3.970E-06,-0.004
3.980E-06,-0.008
3.990E-06,0.032
4.000E-06,0.056
4.010E-06,0.092
4.020E-06,0.088
4.030E-06,0.072
4.040E-06,0.044
4.050E-06,0.032
4.060E-06,0.040
4.070E-06,0.084
4.080E-06,0.100
4.090E-06,0.136
4.100E-06,0.136
4.110E-06,0.144
4.120E-06,0.136
4.130E-06,0.132
4.140E-06,0.136
4.150E-06,0.140
4.160E-06,0.168
4.170E-06,0.172
4.180E-06,0.172
4.190E-06,0.168
4.200E-06,0.148
4.210E-06,0.140
4.220E-06,0.144
4.230E-06,0.156
4.240E-06,0.152
4.250E-06,0.164
4.260E-06,0.164
4.270E-06,0.164
4.280E-06,0.164
4.290E-06,0.160
4.300E-06,0.152
4.310E-06,0.148
4.320E-06,0.156
4.330E-06,0.160
4.340E-06,0.160
4.350E-06,0.160
4.360E-06,0.152
4.370E-06,0.156
4.380E-06,0.140
4.390E-06,0.108
4.400E-06,0.052
4.410E-06,-0.032
4.420E-06,-0.124
4.430E-06,-0.224
4.440E-06,-0.276
4.450E-06,-0.284
4.460E-06,-0.268
4.470E-06,-0.232
4.480E-06,-0.204
4.490E-06,-0.148
4.500E-06,-0.100
4.510E-06,-0.068
4.520E-06,-0.032
4.530E-06,-0.004
4.540E-06,0.024
4.550E-06,0.080
4.560E-06,0.068
4.570E-06,0.088
4.580E-06,0.076
4.590E-06,0.072
4.600E-06,0.044
4.610E-06,0.028
4.620E-06,0.024
4.630E-06,0.020
4.640E-06,0.064
4.650E-06,0.088
4.660E-06,0.128
4.670E-06,0.108
4.680E-06,0.088
4.690E-06,0.056
4.700E-06,0.076
4.710E-06,0.124
4.720E-06,0.176
4.730E-06,0.220
4.740E-06,0.224
4.750E-06,0.192
4.760E-06,0.152
4.770E-06,0.128
4.780E-06,0.124
4.790E-06,0.152
4.800E-06,0.180
4.810E-06,0.196
4.820E-06,0.196
4.830E-06,0.176
4.840E-06,0.160
4.850E-06,0.140
4.860E-06,0.140
4.870E-06,0.156
4.880E-06,0.168
4.890E-06,0.188
4.900E-06,0.192
4.910E-06,0.172
4.920E-06,0.156
4.930E-06,0.144
4.940E-06,0.148
4.950E-06,0.148
4.960E-06,0.160
4.970E-06,0.184
4.980E-06,0.188
4.990E-06,0.184
5.000E-06,0.168
5.010E-06,0.156
5.020E-06,0.148
5.030E-06,0.152
5.040E-06,0.156
5.050E-06,0.160
5.060E-06,0.156
5.070E-06,0.156
5.080E-06,0.140
5.090E-06,0.136
5.100E-06,0.140
5.110E-06,0.148
5.120E-06,0.160
5.130E-06,0.176
5.140E-06,0.180
5.150E-06,0.164
5.160E-06,0.156
5.170E-06,0.148
5.180E-06,0.140
5.190E-06,0.156
5.200E-06,0.168
5.210E-06,0.176
5.220E-06,0.168
5.230E-06,0.156
5.240E-06,0.152
5.250E-06,0.152
5.260E-06,0.160
5.270E-06,0.160
5.280E-06,0.164
5.290E-06,0.172
5.300E-06,0.168
5.310E-06,0.164
5.320E-06,0.160
5.330E-06,0.156
5.340E-06,0.160
5.350E-06,0.160
5.360E-06,0.160
5.370E-06,0.164
5.380E-06,0.160
5.390E-06,0.160
5.400E-06,0.152
5.410E-06,0.156
5.420E-06,0.156
5.430E-06,0.164
5.440E-06,0.160
5.450E-06,0.160
5.460E-06,0.160
5.470E-06,0.156
5.480E-06,0.160
5.490E-06,0.156
5.500E-06,0.152
5.510E-06,0.160
5.520E-06,0.164
5.530E-06,0.164
5.540E-06,0.156
5.550E-06,0.152
5.560E-06,0.156
5.570E-06,0.160
5.580E-06,0.152
5.590E-06,0.156
5.600E-06,0.156
5.610E-06,0.156
5.620E-06,0.156
5.630E-06,0.156
5.640E-06,0.156
5.650E-06,0.152
5.660E-06,0.156
5.670E-06,0.160
5.680E-06,0.156
5.690E-06,0.160
5.700E-06,0.152
5.710E-06,0.152
5.720E-06,0.152
5.730E-06,0.152
5.740E-06,0.148
5.750E-06,0.152
5.760E-06,0.156
5.770E-06,0.156
5.780E-06,0.152
5.790E-06,0.152
5.800E-06,0.148
5.810E-06,0.152
5.820E-06,0.148
5.830E-06,0.152
5.840E-06,0.148
5.850E-06,0.148
5.860E-06,0.148
5.870E-06,0.148
5.880E-06,0.144
5.890E-06,0.140
5.900E-06,0.140
5.910E-06,0.140
5.920E-06,0.136
5.930E-06,0.136
5.940E-06,0.140
5.950E-06,0.136
5.960E-06,0.140
5.970E-06,0.144
5.980E-06,0.144
5.990E-06,0.136
6.000E-06,0.136
6.010E-06,0.140
6.020E-06,0.140
6.030E-06,0.144
6.040E-06,0.144
6.050E-06,0.144
6.060E-06,0.144
6.070E-06,0.148
6.080E-06,0.140
6.090E-06,0.144
6.100E-06,0.144
6.110E-06,0.144
6.120E-06,0.144
6.130E-06,0.144
6.140E-06,0.140
6.150E-06,0.144
6.160E-06,0.140
6.170E-06,0.144
6.180E-06,0.148
6.190E-06,0.144
6.200E-06,0.144
6.210E-06,0.144
6.220E-06,0.144
6.230E-06,0.144
