mediciones/Mediciones filtradas (saque las feas)/6-10/31.5/WaveData55131.csv

#timebase=2000000(ps)
,#voltbase=500000(mv/100)
#size=4000
-4.250E-06,0.080
-4.240E-06,0.080
-4.230E-06,0.180
-4.220E-06,0.480
-4.210E-06,0.480
-4.200E-06,0.400
-4.190E-06,0.320
-4.180E-06,0.000
-4.170E-06,-0.020
-4.160E-06,0.080
-4.150E-06,0.180
-4.140E-06,0.440
-4.130E-06,0.440
-4.120E-06,0.260
-4.110E-06,0.080
-4.100E-06,-0.040
-4.090E-06,-0.120
-4.080E-06,0.000
-4.070E-06,0.100
-4.060E-06,0.180
-4.050E-06,0.200
-4.040E-06,0.140
-4.030E-06,-0.040
-4.020E-06,0.000
-4.010E-06,-0.100
-4.000E-06,-0.120
-3.990E-06,-0.040
-3.980E-06,-0.020
-3.970E-06,0.000
-3.960E-06,0.000
-3.950E-06,-0.060
-3.940E-06,-0.120
-3.930E-06,-0.100
-3.920E-06,-0.140
-3.910E-06,-0.020
-3.900E-06,0.040
-3.890E-06,-0.020
-3.880E-06,0.080
-3.870E-06,-0.040
-3.860E-06,-0.020
-3.850E-06,0.160
-3.840E-06,-0.220
-3.830E-06,0.260
-3.820E-06,0.080
-3.810E-06,0.060
-3.800E-06,0.260
-3.790E-06,0.040
-3.780E-06,0.280
-3.770E-06,0.260
-3.760E-06,0.160
-3.750E-06,0.360
-3.740E-06,0.180
-3.730E-06,0.140
-3.720E-06,0.240
-3.710E-06,0.140
-3.700E-06,0.180
-3.690E-06,0.140
-3.680E-06,0.120
-3.670E-06,0.100
-3.660E-06,0.080
-3.650E-06,0.100
-3.640E-06,-0.020
-3.630E-06,0.060
-3.620E-06,0.060
-3.610E-06,-0.140
-3.600E-06,-0.060
-3.590E-06,-0.040
-3.580E-06,-0.080
-3.570E-06,0.160
-3.560E-06,-0.100
-3.550E-06,0.000
-3.540E-06,-0.080
-3.530E-06,-0.160
-3.520E-06,0.160
-3.510E-06,0.080
-3.500E-06,0.180
-3.490E-06,0.160
-3.480E-06,-0.140
-3.470E-06,-0.160
-3.460E-06,-0.060
-3.450E-06,0.020
-3.440E-06,0.280
-3.430E-06,0.240
-3.420E-06,0.120
-3.410E-06,0.000
-3.400E-06,-0.120
-3.390E-06,-0.060
-3.380E-06,0.100
-3.370E-06,0.180
-3.360E-06,0.260
-3.350E-06,0.160
-3.340E-06,-0.020
-3.330E-06,0.040
-3.320E-06,-0.060
-3.310E-06,0.040
-3.300E-06,0.160
-3.290E-06,0.000
-3.280E-06,0.040
-3.270E-06,0.060
-3.260E-06,-0.020
-3.250E-06,0.080
-3.240E-06,0.100
-3.230E-06,0.080
-3.220E-06,0.000
-3.210E-06,-0.060
-3.200E-06,0.020
-3.190E-06,0.040
-3.180E-06,0.120
-3.170E-06,0.140
-3.160E-06,0.000
-3.150E-06,-0.020
-3.140E-06,-0.080
-3.130E-06,-0.020
-3.120E-06,0.060
-3.110E-06,0.120
-3.100E-06,0.180
-3.090E-06,0.060
-3.080E-06,0.020
-3.070E-06,0.020
-3.060E-06,0.000
-3.050E-06,0.100
-3.040E-06,0.100
-3.030E-06,0.100
-3.020E-06,0.100
-3.010E-06,0.080
-3.000E-06,0.120
-2.990E-06,0.120
-2.980E-06,0.180
-2.970E-06,0.120
-2.960E-06,0.120
-2.950E-06,0.000
-2.940E-06,0.040
-2.930E-06,0.080
-2.920E-06,0.140
-2.910E-06,0.160
-2.900E-06,0.100
-2.890E-06,0.060
-2.880E-06,0.000
-2.870E-06,-0.020
-2.860E-06,0.060
-2.850E-06,0.160
-2.840E-06,0.160
-2.830E-06,0.160
-2.820E-06,0.100
-2.810E-06,0.080
-2.800E-06,0.100
-2.790E-06,0.060
-2.780E-06,0.160
-2.770E-06,0.100
-2.760E-06,0.060
-2.750E-06,0.180
-2.740E-06,0.120
-2.730E-06,0.060
-2.720E-06,0.080
-2.710E-06,0.220
-2.700E-06,0.100
-2.690E-06,0.200
-2.680E-06,0.300
-2.670E-06,0.000
-2.660E-06,0.100
-2.650E-06,0.100
-2.640E-06,0.000
-2.630E-06,0.160
-2.620E-06,0.220
-2.610E-06,0.240
-2.600E-06,0.260
-2.590E-06,0.160
-2.580E-06,0.120
-2.570E-06,0.100
-2.560E-06,-0.040
-2.550E-06,0.000
-2.540E-06,0.000
-2.530E-06,0.000
-2.520E-06,0.120
-2.510E-06,0.100
-2.500E-06,-0.020
-2.490E-06,-0.080
-2.480E-06,-0.140
-2.470E-06,-0.180
-2.460E-06,-0.080
-2.450E-06,-0.140
-2.440E-06,-0.020
-2.430E-06,-0.040
-2.420E-06,-0.240
-2.410E-06,0.020
-2.400E-06,0.000
-2.390E-06,0.200
-2.380E-06,0.460
-2.370E-06,0.320
-2.360E-06,0.320
-2.350E-06,0.140
-2.340E-06,-0.040
-2.330E-06,0.140
-2.320E-06,0.180
-2.310E-06,0.220
-2.300E-06,0.340
-2.290E-06,0.180
-2.280E-06,0.100
-2.270E-06,0.060
-2.260E-06,0.000
-2.250E-06,0.080
-2.240E-06,0.100
-2.230E-06,0.160
-2.220E-06,0.100
-2.210E-06,0.080
-2.200E-06,0.020
-2.190E-06,-0.020
-2.180E-06,0.000
-2.170E-06,-0.020
-2.160E-06,-0.040
-2.150E-06,0.000
-2.140E-06,-0.040
-2.130E-06,-0.080
-2.120E-06,-0.080
-2.110E-06,-0.080
-2.100E-06,-0.120
-2.090E-06,-0.060
-2.080E-06,-0.040
-2.070E-06,0.040
-2.060E-06,-0.060
-2.050E-06,0.000
-2.040E-06,0.080
-2.030E-06,-0.060
-2.020E-06,0.080
-2.010E-06,0.080
-2.000E-06,0.080
-1.990E-06,0.100
-1.980E-06,0.100
-1.970E-06,0.080
-1.960E-06,0.060
-1.950E-06,0.060
-1.940E-06,0.100
-1.930E-06,0.180
-1.920E-06,0.160
-1.910E-06,0.140
-1.900E-06,0.160
-1.890E-06,0.100
-1.880E-06,0.080
-1.870E-06,0.120
-1.860E-06,0.100
-1.850E-06,0.160
-1.840E-06,0.100
-1.830E-06,0.080
-1.820E-06,0.080
-1.810E-06,0.060
-1.800E-06,0.040
-1.790E-06,0.060
-1.780E-06,0.080
-1.770E-06,0.100
-1.760E-06,0.180
-1.750E-06,0.100
-1.740E-06,0.120
-1.730E-06,0.080
-1.720E-06,0.080
-1.710E-06,0.080
-1.700E-06,0.120
-1.690E-06,0.180
-1.680E-06,0.180
-1.670E-06,0.160
-1.660E-06,0.180
-1.650E-06,0.200
-1.640E-06,0.220
-1.630E-06,0.240
-1.620E-06,0.280
-1.610E-06,0.280
-1.600E-06,0.260
-1.590E-06,0.260
-1.580E-06,0.280
-1.570E-06,0.360
-1.560E-06,0.420
-1.550E-06,0.220
-1.540E-06,0.160
-1.530E-06,0.060
-1.520E-06,-0.080
-1.510E-06,0.000
-1.500E-06,0.100
-1.490E-06,0.160
-1.480E-06,0.180
-1.470E-06,0.160
-1.460E-06,-0.040
-1.450E-06,0.100
-1.440E-06,0.160
-1.430E-06,0.080
-1.420E-06,0.320
-1.410E-06,0.000
-1.400E-06,0.060
-1.390E-06,0.120
-1.380E-06,0.080
-1.370E-06,0.260
-1.360E-06,0.280
-1.350E-06,0.220
-1.340E-06,0.260
-1.330E-06,0.160
-1.320E-06,0.160
-1.310E-06,0.320
-1.300E-06,0.420
-1.290E-06,0.400
-1.280E-06,0.540
-1.270E-06,0.200
-1.260E-06,0.040
-1.250E-06,0.160
-1.240E-06,0.060
-1.230E-06,0.420
-1.220E-06,0.300
-1.210E-06,0.260
-1.200E-06,0.060
-1.190E-06,-0.020
-1.180E-06,-0.080
-1.170E-06,0.220
-1.160E-06,0.360
-1.150E-06,0.240
-1.140E-06,0.360
-1.130E-06,0.120
-1.120E-06,0.140
-1.110E-06,0.260
-1.100E-06,0.420
-1.090E-06,0.500
-1.080E-06,0.440
-1.070E-06,0.240
-1.060E-06,-0.100
-1.050E-06,0.060
-1.040E-06,0.680
-1.030E-06,0.000
-1.020E-06,0.080
-1.010E-06,0.320
-1.000E-06,-0.340
-9.900E-07,0.600
-9.800E-07,0.640
-9.700E-07,0.500
-9.600E-07,0.460
-9.500E-07,0.000
-9.400E-07,-0.300
-9.300E-07,0.160
-9.200E-07,0.240
-9.100E-07,0.520
-9.000E-07,0.640
-8.900E-07,-0.020
-8.800E-07,-0.180
-8.700E-07,-0.300
-8.600E-07,0.060
-8.500E-07,-0.560
-8.400E-07,-0.280
-8.300E-07,-0.360
-8.200E-07,-0.360
-8.100E-07,0.120
-8.000E-07,0.300
-7.900E-07,0.360
-7.800E-07,0.140
-7.700E-07,-0.160
-7.600E-07,-0.500
-7.500E-07,-0.100
-7.400E-07,0.100
-7.300E-07,0.480
-7.200E-07,0.460
-7.100E-07,0.140
-7.000E-07,-0.060
-6.900E-07,-0.080
-6.800E-07,0.020
-6.700E-07,0.340
-6.600E-07,0.500
-6.500E-07,0.500
-6.400E-07,0.440
-6.300E-07,0.280
-6.200E-07,0.140
-6.100E-07,0.080
-6.000E-07,0.100
-5.900E-07,0.060
-5.800E-07,0.040
-5.700E-07,-0.020
-5.600E-07,-0.100
-5.500E-07,-0.180
-5.400E-07,-0.220
-5.300E-07,-0.220
-5.200E-07,-0.180
-5.100E-07,-0.180
-5.000E-07,-0.120
-4.900E-07,-0.100
-4.800E-07,-0.040
-4.700E-07,-0.020
-4.600E-07,0.000
-4.500E-07,0.000
-4.400E-07,-0.040
-4.300E-07,-0.020
-4.200E-07,-0.020
-4.100E-07,0.000
-4.000E-07,0.040
-3.900E-07,0.020
-3.800E-07,0.020
-3.700E-07,-0.040
-3.600E-07,0.020
-3.500E-07,0.000
-3.400E-07,0.080
-3.300E-07,0.140
-3.200E-07,0.180
-3.100E-07,0.160
-3.000E-07,0.220
-2.900E-07,0.220
-2.800E-07,0.220
-2.700E-07,0.240
-2.600E-07,0.220
-2.500E-07,0.240
-2.400E-07,0.260
-2.300E-07,0.260
-2.200E-07,0.240
-2.100E-07,0.240
-2.000E-07,0.260
-1.900E-07,0.260
-1.800E-07,0.220
-1.700E-07,0.280
-1.600E-07,0.260
-1.500E-07,0.340
-1.400E-07,0.340
-1.300E-07,0.320
-1.200E-07,0.360
-1.100E-07,0.240
-1.000E-07,0.240
-9.000E-08,0.160
-8.000E-08,0.220
-7.000E-08,-0.060
-6.000E-08,0.000
-5.000E-08,-0.020
-4.000E-08,0.060
-3.000E-08,-0.040
-2.000E-08,-0.160
-1.000E-08,-0.220
0.000E+00,0.040
1.000E-08,0.360
2.000E-08,0.600
3.000E-08,1.260
4.000E-08,0.900
5.000E-08,0.160
6.000E-08,-0.940
7.000E-08,-0.820
8.000E-08,-0.680
9.000E-08,0.880
1.000E-07,1.380
1.100E-07,1.000
1.200E-07,0.420
1.300E-07,-0.580
1.400E-07,-1.100
1.500E-07,-0.040
1.600E-07,0.320
1.700E-07,0.840
1.800E-07,1.140
1.900E-07,-0.280
2.000E-07,-0.080
2.100E-07,-0.500
2.200E-07,0.000
2.300E-07,0.620
2.400E-07,0.580
2.500E-07,0.360
2.600E-07,0.220
2.700E-07,-0.100
2.800E-07,0.080
2.900E-07,0.520
3.000E-07,0.540
3.100E-07,0.520
3.200E-07,0.380
3.300E-07,0.160
3.400E-07,0.200
3.500E-07,0.300
3.600E-07,0.200
3.700E-07,0.300
3.800E-07,0.100
3.900E-07,0.100
4.000E-07,0.280
4.100E-07,0.360
4.200E-07,0.480
4.300E-07,0.520
4.400E-07,0.240
4.500E-07,0.420
4.600E-07,0.380
4.700E-07,0.560
4.800E-07,0.840
4.900E-07,0.760
5.000E-07,1.180
5.100E-07,0.860
5.200E-07,0.760
5.300E-07,0.820
5.400E-07,0.080
5.500E-07,0.460
5.600E-07,0.120
5.700E-07,0.080
5.800E-07,0.500
5.900E-07,0.580
6.000E-07,0.700
6.100E-07,0.540
6.200E-07,0.320
6.300E-07,0.120
6.400E-07,0.200
6.500E-07,0.420
6.600E-07,0.360
6.700E-07,0.780
6.800E-07,0.320
6.900E-07,0.360
7.000E-07,0.420
7.100E-07,0.260
7.200E-07,0.480
7.300E-07,0.520
7.400E-07,0.580
7.500E-07,0.620
7.600E-07,0.540
7.700E-07,0.440
7.800E-07,0.380
7.900E-07,0.280
8.000E-07,0.260
8.100E-07,0.160
8.200E-07,0.260
8.300E-07,0.220
8.400E-07,0.120
8.500E-07,0.240
8.600E-07,0.040
8.700E-07,0.080
8.800E-07,0.140
8.900E-07,0.140
9.000E-07,0.280
9.100E-07,0.460
9.200E-07,0.500
9.300E-07,0.540
9.400E-07,0.400
9.500E-07,0.320
9.600E-07,0.400
9.700E-07,0.260
9.800E-07,0.260
9.900E-07,0.180
1.000E-06,0.280
1.010E-06,0.160
1.020E-06,0.040
1.030E-06,0.040
1.040E-06,0.080
1.050E-06,0.240
1.060E-06,0.320
1.070E-06,0.480
1.080E-06,0.600
1.090E-06,0.580
1.100E-06,0.600
1.110E-06,0.540
1.120E-06,0.560
1.130E-06,0.580
1.140E-06,0.560
1.150E-06,0.520
1.160E-06,0.520
1.170E-06,0.460
1.180E-06,0.420
1.190E-06,0.460
1.200E-06,0.340
1.210E-06,0.380
1.220E-06,0.380
1.230E-06,0.420
1.240E-06,0.400
1.250E-06,0.420
1.260E-06,0.360
1.270E-06,0.520
1.280E-06,0.400
1.290E-06,0.400
1.300E-06,0.320
1.310E-06,0.340
1.320E-06,0.300
1.330E-06,0.420
1.340E-06,0.380
1.350E-06,0.300
1.360E-06,0.360
1.370E-06,0.320
1.380E-06,0.360
1.390E-06,0.340
1.400E-06,0.360
1.410E-06,0.320
1.420E-06,0.420
1.430E-06,0.400
1.440E-06,0.460
1.450E-06,0.420
1.460E-06,0.360
1.470E-06,0.280
1.480E-06,0.300
1.490E-06,0.360
1.500E-06,0.320
1.510E-06,0.400
1.520E-06,0.320
1.530E-06,0.320
1.540E-06,0.240
1.550E-06,0.220
1.560E-06,0.260
1.570E-06,0.340
1.580E-06,0.300
1.590E-06,0.380
1.600E-06,0.420
1.610E-06,0.400
1.620E-06,0.460
1.630E-06,0.440
1.640E-06,0.400
1.650E-06,0.420
1.660E-06,0.420
1.670E-06,0.460
1.680E-06,0.520
1.690E-06,0.580
1.700E-06,0.580
1.710E-06,0.580
1.720E-06,0.540
1.730E-06,0.540
1.740E-06,0.500
1.750E-06,0.480
1.760E-06,0.440
1.770E-06,0.340
1.780E-06,0.320
1.790E-06,0.260
1.800E-06,0.140
1.810E-06,0.060
1.820E-06,-0.020
1.830E-06,-0.160
1.840E-06,-0.180
1.850E-06,-0.220
1.860E-06,-0.260
1.870E-06,-0.300
1.880E-06,-0.320
1.890E-06,-0.320
1.900E-06,-0.300
1.910E-06,-0.320
1.920E-06,-0.300
1.930E-06,-0.300
1.940E-06,-0.280
1.950E-06,-0.220
1.960E-06,-0.260
1.970E-06,-0.240
1.980E-06,-0.220
1.990E-06,-0.240
2.000E-06,-0.240
2.010E-06,-0.220
2.020E-06,-0.200
2.030E-06,-0.240
2.040E-06,-0.200
2.050E-06,-0.220
2.060E-06,-0.180
2.070E-06,-0.200
2.080E-06,-0.180
2.090E-06,-0.200
2.100E-06,-0.180
2.110E-06,-0.180
2.120E-06,-0.160
2.130E-06,-0.160
2.140E-06,-0.160
2.150E-06,-0.180
2.160E-06,-0.180
2.170E-06,-0.160
2.180E-06,-0.160
2.190E-06,-0.160
2.200E-06,-0.160
2.210E-06,-0.160
2.220E-06,-0.160
2.230E-06,-0.140
2.240E-06,-0.120
2.250E-06,-0.140
2.260E-06,-0.120
2.270E-06,-0.180
2.280E-06,-0.160
2.290E-06,-0.200
2.300E-06,-0.220
2.310E-06,-0.240
2.320E-06,-0.320
2.330E-06,-0.220
2.340E-06,-0.320
2.350E-06,-0.300
2.360E-06,-0.280
2.370E-06,-0.340
2.380E-06,-0.260
2.390E-06,-0.200
2.400E-06,-0.180
2.410E-06,-0.120
2.420E-06,-0.060
2.430E-06,-0.120
2.440E-06,-0.080
2.450E-06,-0.100
2.460E-06,-0.020
2.470E-06,0.060
2.480E-06,0.140
2.490E-06,0.220
2.500E-06,0.300
2.510E-06,0.340
2.520E-06,0.360
2.530E-06,0.340
2.540E-06,0.340
2.550E-06,0.320
2.560E-06,0.320
2.570E-06,0.320
2.580E-06,0.300
2.590E-06,0.320
2.600E-06,0.260
2.610E-06,0.260
2.620E-06,0.220
2.630E-06,0.160
2.640E-06,0.100
2.650E-06,0.000
2.660E-06,-0.080
2.670E-06,-0.160
2.680E-06,-0.260
2.690E-06,-0.380
2.700E-06,-0.460
2.710E-06,-0.560
2.720E-06,-0.700
2.730E-06,-0.780
2.740E-06,-0.880
2.750E-06,-1.000
2.760E-06,-1.040
2.770E-06,-1.180
2.780E-06,-1.240
2.790E-06,-1.340
2.800E-06,-1.620
2.810E-06,-1.840
2.820E-06,-2.040
2.830E-06,-2.380
2.840E-06,-2.660
2.850E-06,-2.660
2.860E-06,-2.660
2.870E-06,-2.660
2.880E-06,-2.660
2.890E-06,-2.660
2.900E-06,-2.660
2.910E-06,-2.660
2.920E-06,-2.640
2.930E-06,-2.660
2.940E-06,-2.560
2.950E-06,-2.280
2.960E-06,-2.140
2.970E-06,-1.840
2.980E-06,-1.560
2.990E-06,-1.320
3.000E-06,-1.120
3.010E-06,-0.860
3.020E-06,-0.520
3.030E-06,-0.320
3.040E-06,-0.160
3.050E-06,0.000
3.060E-06,0.180
3.070E-06,0.340
3.080E-06,0.500
3.090E-06,0.680
3.100E-06,0.800
3.110E-06,0.860
3.120E-06,0.940
3.130E-06,0.960
3.140E-06,0.940
3.150E-06,0.840
3.160E-06,0.840
3.170E-06,0.860
3.180E-06,0.760
3.190E-06,0.760
3.200E-06,0.660
3.210E-06,0.380
3.220E-06,0.260
3.230E-06,0.220
3.240E-06,0.260
3.250E-06,0.340
3.260E-06,0.500
3.270E-06,0.680
3.280E-06,0.700
3.290E-06,0.840
3.300E-06,0.920
3.310E-06,0.840
3.320E-06,0.840
3.330E-06,0.820
3.340E-06,0.820
3.350E-06,0.840
3.360E-06,0.800
3.370E-06,0.780
3.380E-06,0.680
3.390E-06,0.500
3.400E-06,0.380
3.410E-06,0.260
3.420E-06,0.200
3.430E-06,0.140
3.440E-06,0.080
3.450E-06,0.080
3.460E-06,0.020
3.470E-06,0.000
3.480E-06,0.000
3.490E-06,0.040
3.500E-06,0.080
3.510E-06,0.160
3.520E-06,0.160
3.530E-06,0.220
3.540E-06,0.260
3.550E-06,0.300
3.560E-06,0.300
3.570E-06,0.280
3.580E-06,0.280
3.590E-06,0.240
3.600E-06,0.260
3.610E-06,0.220
3.620E-06,0.180
3.630E-06,0.100
3.640E-06,0.000
3.650E-06,-0.080
3.660E-06,-0.220
3.670E-06,-0.340
3.680E-06,-0.420
3.690E-06,-0.500
3.700E-06,-0.500
3.710E-06,-0.460
3.720E-06,-0.360
3.730E-06,-0.300
3.740E-06,-0.160
3.750E-06,-0.060
3.760E-06,0.060
3.770E-06,0.140
3.780E-06,0.240
3.790E-06,0.400
3.800E-06,0.500
3.810E-06,0.600
3.820E-06,0.680
3.830E-06,0.700
3.840E-06,0.780
3.850E-06,0.760
3.860E-06,0.740
3.870E-06,0.660
3.880E-06,0.580
3.890E-06,0.480
3.900E-06,0.340
3.910E-06,0.220
3.920E-06,0.080
3.930E-06,0.000
3.940E-06,-0.040
3.950E-06,0.000
3.960E-06,-0.020
3.970E-06,-0.040
3.980E-06,-0.020
3.990E-06,-0.060
4.000E-06,-0.120
4.010E-06,-0.160
4.020E-06,-0.160
4.030E-06,-0.180
4.040E-06,-0.160
4.050E-06,-0.160
4.060E-06,-0.140
4.070E-06,-0.060
4.080E-06,-0.040
4.090E-06,-0.020
4.100E-06,-0.040
4.110E-06,-0.040
4.120E-06,-0.100
4.130E-06,0.000
4.140E-06,0.040
4.150E-06,0.120
4.160E-06,0.220
4.170E-06,0.300
4.180E-06,0.360
4.190E-06,0.320
4.200E-06,0.340
4.210E-06,0.280
4.220E-06,0.220
4.230E-06,0.200
4.240E-06,0.200
4.250E-06,0.160
4.260E-06,0.200
4.270E-06,0.160
4.280E-06,0.120
4.290E-06,0.140
4.300E-06,0.140
4.310E-06,0.140
4.320E-06,0.260
4.330E-06,0.400
4.340E-06,0.480
4.350E-06,0.620
4.360E-06,0.720
4.370E-06,0.720
4.380E-06,0.720
4.390E-06,0.620
4.400E-06,0.480
4.410E-06,0.340
4.420E-06,0.240
4.430E-06,0.220
4.440E-06,0.220
4.450E-06,0.260
4.460E-06,0.260
4.470E-06,0.320
4.480E-06,0.340
4.490E-06,0.260
4.500E-06,0.240
4.510E-06,0.180
4.520E-06,0.140
4.530E-06,0.120
4.540E-06,0.120
4.550E-06,0.060
4.560E-06,-0.020
4.570E-06,-0.180
4.580E-06,-0.240
4.590E-06,-0.380
4.600E-06,-0.520
4.610E-06,-0.640
4.620E-06,-0.700
4.630E-06,-0.660
4.640E-06,-0.560
4.650E-06,-0.400
4.660E-06,-0.160
4.670E-06,-0.040
4.680E-06,0.100
4.690E-06,0.220
4.700E-06,0.300
4.710E-06,0.340
4.720E-06,0.340
4.730E-06,0.340
4.740E-06,0.340
4.750E-06,0.240
4.760E-06,0.160
4.770E-06,0.100
4.780E-06,0.020
4.790E-06,-0.020
4.800E-06,-0.020
4.810E-06,-0.060
4.820E-06,0.000
4.830E-06,0.080
4.840E-06,0.180
4.850E-06,0.260
4.860E-06,0.320
4.870E-06,0.320
4.880E-06,0.300
4.890E-06,0.340
4.900E-06,0.300
4.910E-06,0.320
4.920E-06,0.320
4.930E-06,0.320
4.940E-06,0.320
4.950E-06,0.300
4.960E-06,0.260
4.970E-06,0.240
4.980E-06,0.160
4.990E-06,0.160
5.000E-06,0.160
5.010E-06,0.120
5.020E-06,0.140
5.030E-06,0.220
5.040E-06,0.260
5.050E-06,0.360
5.060E-06,0.480
5.070E-06,0.560
5.080E-06,0.620
5.090E-06,0.600
5.100E-06,0.520
5.110E-06,0.440
5.120E-06,0.400
5.130E-06,0.340
5.140E-06,0.360
5.150E-06,0.320
5.160E-06,0.380
5.170E-06,0.420
5.180E-06,0.440
5.190E-06,0.500
5.200E-06,0.560
5.210E-06,0.580
5.220E-06,0.600
5.230E-06,0.580
5.240E-06,0.520
5.250E-06,0.500
5.260E-06,0.520
5.270E-06,0.500
5.280E-06,0.520
5.290E-06,0.520
5.300E-06,0.480
5.310E-06,0.540
5.320E-06,0.660
5.330E-06,0.700
5.340E-06,0.760
5.350E-06,0.780
5.360E-06,0.800
5.370E-06,0.800
5.380E-06,0.760
5.390E-06,0.760
5.400E-06,0.720
5.410E-06,0.740
5.420E-06,0.660
5.430E-06,0.640
5.440E-06,0.620
5.450E-06,0.600
5.460E-06,0.580
5.470E-06,0.600
5.480E-06,0.620
5.490E-06,0.640
5.500E-06,0.600
5.510E-06,0.580
5.520E-06,0.500
5.530E-06,0.500
5.540E-06,0.440
5.550E-06,0.400
5.560E-06,0.340
5.570E-06,0.220
5.580E-06,0.160
5.590E-06,0.040
5.600E-06,-0.080
5.610E-06,-0.220
5.620E-06,-0.400
5.630E-06,-0.580
5.640E-06,-0.680
5.650E-06,-0.680
5.660E-06,-0.620
5.670E-06,-0.460
5.680E-06,-0.260
5.690E-06,-0.120
5.700E-06,0.020
5.710E-06,0.040
5.720E-06,0.060
5.730E-06,0.040
5.740E-06,0.000
5.750E-06,0.000
5.760E-06,-0.060
5.770E-06,-0.060
5.780E-06,-0.120
5.790E-06,-0.180
5.800E-06,-0.120
5.810E-06,-0.060
5.820E-06,0.080
5.830E-06,0.240
5.840E-06,0.400
5.850E-06,0.480
5.860E-06,0.580
5.870E-06,0.700
5.880E-06,0.720
5.890E-06,0.780
5.900E-06,0.800
5.910E-06,0.780
5.920E-06,0.780
5.930E-06,0.780
5.940E-06,0.800
5.950E-06,0.780
5.960E-06,0.760
5.970E-06,0.800
5.980E-06,0.860
5.990E-06,0.860
6.000E-06,0.900
6.010E-06,0.880
6.020E-06,0.800
6.030E-06,0.760
6.040E-06,0.660
6.050E-06,0.640
6.060E-06,0.640
6.070E-06,0.660
6.080E-06,0.660
6.090E-06,0.660
6.100E-06,0.620
6.110E-06,0.680
6.120E-06,0.760
6.130E-06,0.860
6.140E-06,0.940
6.150E-06,1.040
6.160E-06,1.040
6.170E-06,1.060
6.180E-06,1.080
6.190E-06,1.020
6.200E-06,0.980
6.210E-06,0.940
6.220E-06,0.900
6.230E-06,0.840
6.240E-06,0.820
6.250E-06,0.840
6.260E-06,0.920
6.270E-06,1.040
6.280E-06,1.320
6.290E-06,1.660
6.300E-06,2.060
6.310E-06,2.500
6.320E-06,2.760
6.330E-06,2.760
6.340E-06,2.760
6.350E-06,2.780
6.360E-06,2.780
6.370E-06,2.760
6.380E-06,2.760
6.390E-06,2.760
6.400E-06,2.760
6.410E-06,2.760
6.420E-06,2.780
6.430E-06,2.580
6.440E-06,2.160
6.450E-06,1.800
6.460E-06,1.460
6.470E-06,1.120
6.480E-06,0.960
6.490E-06,0.720
6.500E-06,0.580
6.510E-06,0.480
6.520E-06,0.380
6.530E-06,0.300
6.540E-06,0.220
6.550E-06,0.120
6.560E-06,0.060
6.570E-06,0.000
6.580E-06,0.000
6.590E-06,0.000
6.600E-06,0.000
6.610E-06,0.020
6.620E-06,0.040
6.630E-06,0.040
6.640E-06,0.080
6.650E-06,0.160
6.660E-06,0.220
6.670E-06,0.240
6.680E-06,0.300
6.690E-06,0.340
6.700E-06,0.400
6.710E-06,0.420
6.720E-06,0.460
6.730E-06,0.480
6.740E-06,0.520
6.750E-06,0.580
6.760E-06,0.620
6.770E-06,0.620
6.780E-06,0.640
6.790E-06,0.620
6.800E-06,0.660
6.810E-06,0.680
6.820E-06,0.700
6.830E-06,0.680
6.840E-06,0.700
6.850E-06,0.780
6.860E-06,0.800
6.870E-06,0.820
6.880E-06,0.820
6.890E-06,0.800
6.900E-06,0.780
6.910E-06,0.780
6.920E-06,0.740
6.930E-06,0.740
6.940E-06,0.720
6.950E-06,0.680
6.960E-06,0.640
6.970E-06,0.620
6.980E-06,0.560
6.990E-06,0.540
7.000E-06,0.480
7.010E-06,0.460
7.020E-06,0.420
7.030E-06,0.400
7.040E-06,0.340
7.050E-06,0.340
7.060E-06,0.300
7.070E-06,0.320
7.080E-06,0.320
7.090E-06,0.260
7.100E-06,0.280
7.110E-06,0.260
7.120E-06,0.280
7.130E-06,0.240
7.140E-06,0.240
7.150E-06,0.300
7.160E-06,0.320
7.170E-06,0.340
7.180E-06,0.340
7.190E-06,0.320
7.200E-06,0.320
7.210E-06,0.340
7.220E-06,0.360
7.230E-06,0.380
7.240E-06,0.360
7.250E-06,0.360
7.260E-06,0.340
7.270E-06,0.340
7.280E-06,0.340
7.290E-06,0.320
7.300E-06,0.340
7.310E-06,0.300
7.320E-06,0.280
7.330E-06,0.240
7.340E-06,0.240
7.350E-06,0.240
7.360E-06,0.220
7.370E-06,0.180
7.380E-06,0.200
7.390E-06,0.200
7.400E-06,0.180
7.410E-06,0.240
7.420E-06,0.260
7.430E-06,0.280
7.440E-06,0.260
7.450E-06,0.280
7.460E-06,0.300
7.470E-06,0.340
7.480E-06,0.380
7.490E-06,0.360
7.500E-06,0.420
7.510E-06,0.480
7.520E-06,0.480
7.530E-06,0.500
7.540E-06,0.580
7.550E-06,0.620
7.560E-06,0.660
7.570E-06,0.680
7.580E-06,0.720
7.590E-06,0.760
7.600E-06,0.760
7.610E-06,0.820
7.620E-06,0.800
7.630E-06,0.840
7.640E-06,0.840
7.650E-06,0.880
7.660E-06,0.860
7.670E-06,0.840
7.680E-06,0.820
7.690E-06,0.840
7.700E-06,0.820
7.710E-06,0.780
7.720E-06,0.820
7.730E-06,0.820
7.740E-06,0.800
7.750E-06,0.800
7.760E-06,0.820
