mediciones/Mediciones filtradas (saque las feas)/6-10/31.5/WaveData55133.csv

#timebase=2000000(ps)
,#voltbase=500000(mv/100)
#size=4000
-4.250E-06,-0.280
-4.240E-06,-0.260
-4.230E-06,-0.220
-4.220E-06,-0.180
-4.210E-06,-0.080
-4.200E-06,-0.120
-4.190E-06,0.060
-4.180E-06,0.080
-4.170E-06,0.140
-4.160E-06,0.300
-4.150E-06,0.300
-4.140E-06,0.260
-4.130E-06,0.300
-4.120E-06,0.260
-4.110E-06,0.280
-4.100E-06,0.280
-4.090E-06,0.260
-4.080E-06,0.240
-4.070E-06,0.120
-4.060E-06,0.080
-4.050E-06,0.080
-4.040E-06,0.000
-4.030E-06,0.100
-4.020E-06,0.000
-4.010E-06,0.000
-4.000E-06,-0.040
-3.990E-06,-0.120
-3.980E-06,0.060
-3.970E-06,0.040
-3.960E-06,0.160
-3.950E-06,0.100
-3.940E-06,0.020
-3.930E-06,-0.020
-3.920E-06,-0.080
-3.910E-06,-0.060
-3.900E-06,0.000
-3.890E-06,0.080
-3.880E-06,0.040
-3.870E-06,0.020
-3.860E-06,0.000
-3.850E-06,0.000
-3.840E-06,0.040
-3.830E-06,0.100
-3.820E-06,0.180
-3.810E-06,0.100
-3.800E-06,0.160
-3.790E-06,0.100
-3.780E-06,0.060
-3.770E-06,0.120
-3.760E-06,0.060
-3.750E-06,0.100
-3.740E-06,0.080
-3.730E-06,0.040
-3.720E-06,0.060
-3.710E-06,-0.040
-3.700E-06,0.000
-3.690E-06,0.040
-3.680E-06,0.040
-3.670E-06,0.000
-3.660E-06,-0.020
-3.650E-06,0.040
-3.640E-06,0.020
-3.630E-06,0.080
-3.620E-06,0.060
-3.610E-06,0.060
-3.600E-06,0.080
-3.590E-06,0.060
-3.580E-06,0.060
-3.570E-06,0.080
-3.560E-06,0.060
-3.550E-06,0.080
-3.540E-06,0.140
-3.530E-06,0.120
-3.520E-06,0.120
-3.510E-06,0.180
-3.500E-06,0.180
-3.490E-06,0.180
-3.480E-06,0.160
-3.470E-06,0.160
-3.460E-06,0.100
-3.450E-06,0.080
-3.440E-06,0.080
-3.430E-06,0.060
-3.420E-06,-0.020
-3.410E-06,-0.020
-3.400E-06,-0.020
-3.390E-06,-0.020
-3.380E-06,-0.020
-3.370E-06,-0.040
-3.360E-06,0.000
-3.350E-06,0.020
-3.340E-06,0.060
-3.330E-06,0.120
-3.320E-06,0.140
-3.310E-06,0.160
-3.300E-06,0.160
-3.290E-06,0.120
-3.280E-06,0.160
-3.270E-06,0.180
-3.260E-06,0.160
-3.250E-06,0.140
-3.240E-06,0.180
-3.230E-06,0.100
-3.220E-06,0.120
-3.210E-06,0.080
-3.200E-06,0.080
-3.190E-06,0.060
-3.180E-06,0.000
-3.170E-06,0.020
-3.160E-06,0.000
-3.150E-06,0.000
-3.140E-06,0.000
-3.130E-06,-0.020
-3.120E-06,-0.020
-3.110E-06,0.000
-3.100E-06,0.040
-3.090E-06,0.100
-3.080E-06,0.100
-3.070E-06,0.040
-3.060E-06,0.000
-3.050E-06,-0.060
-3.040E-06,0.000
-3.030E-06,0.000
-3.020E-06,0.020
-3.010E-06,0.180
-3.000E-06,0.160
-2.990E-06,0.180
-2.980E-06,0.180
-2.970E-06,0.040
-2.960E-06,0.060
-2.950E-06,0.040
-2.940E-06,0.080
-2.930E-06,0.140
-2.920E-06,0.180
-2.910E-06,0.060
-2.900E-06,0.000
-2.890E-06,0.060
-2.880E-06,0.040
-2.870E-06,0.060
-2.860E-06,0.100
-2.850E-06,0.060
-2.840E-06,0.000
-2.830E-06,0.000
-2.820E-06,-0.020
-2.810E-06,0.020
-2.800E-06,0.080
-2.790E-06,0.100
-2.780E-06,0.040
-2.770E-06,0.020
-2.760E-06,0.020
-2.750E-06,0.020
-2.740E-06,0.100
-2.730E-06,0.160
-2.720E-06,0.100
-2.710E-06,0.080
-2.700E-06,0.080
-2.690E-06,-0.080
-2.680E-06,0.020
-2.670E-06,0.060
-2.660E-06,0.000
-2.650E-06,0.100
-2.640E-06,0.120
-2.630E-06,0.080
-2.620E-06,0.060
-2.610E-06,0.040
-2.600E-06,-0.020
-2.590E-06,0.000
-2.580E-06,0.000
-2.570E-06,0.040
-2.560E-06,0.060
-2.550E-06,0.020
-2.540E-06,0.040
-2.530E-06,-0.060
-2.520E-06,0.000
-2.510E-06,-0.020
-2.500E-06,-0.060
-2.490E-06,0.060
-2.480E-06,0.120
-2.470E-06,0.140
-2.460E-06,0.200
-2.450E-06,0.100
-2.440E-06,0.020
-2.430E-06,0.020
-2.420E-06,0.020
-2.410E-06,0.040
-2.400E-06,0.100
-2.390E-06,0.100
-2.380E-06,0.080
-2.370E-06,0.060
-2.360E-06,0.040
-2.350E-06,0.020
-2.340E-06,0.080
-2.330E-06,0.040
-2.320E-06,0.080
-2.310E-06,0.060
-2.300E-06,0.020
-2.290E-06,0.000
-2.280E-06,0.000
-2.270E-06,0.000
-2.260E-06,0.000
-2.250E-06,0.020
-2.240E-06,0.000
-2.230E-06,0.000
-2.220E-06,0.000
-2.210E-06,-0.020
-2.200E-06,-0.020
-2.190E-06,0.000
-2.180E-06,0.000
-2.170E-06,0.020
-2.160E-06,0.000
-2.150E-06,-0.020
-2.140E-06,-0.020
-2.130E-06,0.040
-2.120E-06,0.000
-2.110E-06,0.040
-2.100E-06,0.040
-2.090E-06,0.060
-2.080E-06,0.040
-2.070E-06,0.020
-2.060E-06,0.040
-2.050E-06,0.060
-2.040E-06,0.060
-2.030E-06,0.100
-2.020E-06,0.100
-2.010E-06,0.040
-2.000E-06,0.080
-1.990E-06,0.040
-1.980E-06,0.040
-1.970E-06,0.120
-1.960E-06,0.120
-1.950E-06,0.100
-1.940E-06,0.020
-1.930E-06,0.000
-1.920E-06,0.000
-1.910E-06,0.080
-1.900E-06,0.140
-1.890E-06,0.140
-1.880E-06,0.100
-1.870E-06,0.040
-1.860E-06,0.000
-1.850E-06,0.040
-1.840E-06,0.080
-1.830E-06,0.080
-1.820E-06,0.060
-1.810E-06,0.040
-1.800E-06,0.020
-1.790E-06,-0.020
-1.780E-06,0.000
-1.770E-06,0.080
-1.760E-06,0.080
-1.750E-06,0.140
-1.740E-06,0.060
-1.730E-06,0.100
-1.720E-06,0.240
-1.710E-06,0.200
-1.700E-06,0.320
-1.690E-06,0.160
-1.680E-06,0.120
-1.670E-06,0.000
-1.660E-06,-0.040
-1.650E-06,0.020
-1.640E-06,0.100
-1.630E-06,0.160
-1.620E-06,0.100
-1.610E-06,0.060
-1.600E-06,-0.020
-1.590E-06,-0.040
-1.580E-06,-0.040
-1.570E-06,0.060
-1.560E-06,0.060
-1.550E-06,0.080
-1.540E-06,-0.020
-1.530E-06,0.000
-1.520E-06,-0.020
-1.510E-06,0.000
-1.500E-06,0.000
-1.490E-06,-0.020
-1.480E-06,-0.060
-1.470E-06,-0.020
-1.460E-06,-0.040
-1.450E-06,-0.060
-1.440E-06,-0.020
-1.430E-06,-0.020
-1.420E-06,0.040
-1.410E-06,0.020
-1.400E-06,-0.020
-1.390E-06,-0.020
-1.380E-06,0.000
-1.370E-06,0.020
-1.360E-06,0.100
-1.350E-06,0.180
-1.340E-06,0.140
-1.330E-06,0.140
-1.320E-06,0.140
-1.310E-06,0.100
-1.300E-06,0.120
-1.290E-06,0.160
-1.280E-06,0.180
-1.270E-06,0.240
-1.260E-06,0.200
-1.250E-06,0.220
-1.240E-06,0.160
-1.230E-06,0.180
-1.220E-06,0.100
-1.210E-06,0.160
-1.200E-06,0.040
-1.190E-06,0.160
-1.180E-06,0.200
-1.170E-06,0.240
-1.160E-06,0.380
-1.150E-06,0.280
-1.140E-06,0.340
-1.130E-06,0.080
-1.120E-06,0.000
-1.110E-06,0.000
-1.100E-06,-0.020
-1.090E-06,0.060
-1.080E-06,0.100
-1.070E-06,0.100
-1.060E-06,0.040
-1.050E-06,-0.040
-1.040E-06,-0.180
-1.030E-06,-0.080
-1.020E-06,-0.120
-1.010E-06,-0.020
-1.000E-06,0.020
-9.900E-07,-0.020
-9.800E-07,-0.020
-9.700E-07,-0.080
-9.600E-07,-0.120
-9.500E-07,-0.060
-9.400E-07,-0.040
-9.300E-07,-0.020
-9.200E-07,0.000
-9.100E-07,0.000
-9.000E-07,-0.020
-8.900E-07,-0.040
-8.800E-07,0.000
-8.700E-07,0.000
-8.600E-07,0.020
-8.500E-07,0.040
-8.400E-07,0.080
-8.300E-07,0.060
-8.200E-07,0.100
-8.100E-07,0.080
-8.000E-07,0.100
-7.900E-07,0.180
-7.800E-07,0.180
-7.700E-07,0.180
-7.600E-07,0.100
-7.500E-07,0.140
-7.400E-07,0.100
-7.300E-07,0.080
-7.200E-07,0.080
-7.100E-07,0.140
-7.000E-07,0.160
-6.900E-07,0.180
-6.800E-07,0.160
-6.700E-07,0.160
-6.600E-07,0.160
-6.500E-07,0.180
-6.400E-07,0.160
-6.300E-07,0.160
-6.200E-07,0.120
-6.100E-07,0.160
-6.000E-07,0.160
-5.900E-07,0.180
-5.800E-07,0.220
-5.700E-07,0.200
-5.600E-07,0.140
-5.500E-07,0.100
-5.400E-07,0.060
-5.300E-07,0.080
-5.200E-07,0.080
-5.100E-07,0.140
-5.000E-07,0.140
-4.900E-07,0.120
-4.800E-07,0.060
-4.700E-07,0.080
-4.600E-07,0.140
-4.500E-07,0.140
-4.400E-07,0.160
-4.300E-07,0.120
-4.200E-07,0.120
-4.100E-07,0.100
-4.000E-07,0.120
-3.900E-07,0.120
-3.800E-07,0.160
-3.700E-07,0.160
-3.600E-07,0.160
-3.500E-07,0.180
-3.400E-07,0.120
-3.300E-07,0.140
-3.200E-07,0.100
-3.100E-07,0.100
-3.000E-07,0.160
-2.900E-07,0.140
-2.800E-07,0.140
-2.700E-07,0.080
-2.600E-07,0.060
-2.500E-07,0.080
-2.400E-07,0.100
-2.300E-07,0.100
-2.200E-07,0.180
-2.100E-07,0.140
-2.000E-07,0.160
-1.900E-07,0.120
-1.800E-07,0.160
-1.700E-07,0.180
-1.600E-07,0.160
-1.500E-07,0.260
-1.400E-07,0.200
-1.300E-07,0.240
-1.200E-07,0.160
-1.100E-07,0.200
-1.000E-07,0.220
-9.000E-08,0.240
-8.000E-08,0.240
-7.000E-08,0.220
-6.000E-08,0.180
-5.000E-08,0.260
-4.000E-08,0.760
-3.000E-08,-0.120
-2.000E-08,-0.860
-1.000E-08,-0.120
0.000E+00,-0.560
1.000E-08,0.140
2.000E-08,1.500
3.000E-08,0.740
4.000E-08,0.680
5.000E-08,-0.020
6.000E-08,-0.940
7.000E-08,-0.120
8.000E-08,-0.100
9.000E-08,0.680
1.000E-07,0.840
1.100E-07,0.240
1.200E-07,-0.200
1.300E-07,-0.420
1.400E-07,-0.360
1.500E-07,0.040
1.600E-07,-0.040
1.700E-07,0.440
1.800E-07,-0.100
1.900E-07,0.000
2.000E-07,0.340
2.100E-07,0.260
2.200E-07,0.440
2.300E-07,0.220
2.400E-07,-0.180
2.500E-07,0.220
2.600E-07,0.100
2.700E-07,0.600
2.800E-07,-0.480
2.900E-07,0.000
3.000E-07,-0.380
3.100E-07,-0.320
3.200E-07,1.400
3.300E-07,0.840
3.400E-07,0.940
3.500E-07,0.560
3.600E-07,-0.560
3.700E-07,-0.020
3.800E-07,0.100
3.900E-07,0.540
4.000E-07,0.920
4.100E-07,0.240
4.200E-07,-0.200
4.300E-07,-0.480
4.400E-07,-0.320
4.500E-07,-0.100
4.600E-07,0.420
4.700E-07,1.020
4.800E-07,-0.040
4.900E-07,-0.180
5.000E-07,-0.520
5.100E-07,-0.920
5.200E-07,0.060
5.300E-07,0.080
5.400E-07,0.160
5.500E-07,0.280
5.600E-07,-0.300
5.700E-07,-0.260
5.800E-07,-0.040
5.900E-07,-0.060
6.000E-07,0.240
6.100E-07,0.240
6.200E-07,0.260
6.300E-07,0.140
6.400E-07,0.120
6.500E-07,0.000
6.600E-07,0.280
6.700E-07,0.300
6.800E-07,0.180
6.900E-07,0.220
7.000E-07,0.020
7.100E-07,-0.260
7.200E-07,-0.140
7.300E-07,-0.080
7.400E-07,-0.200
7.500E-07,0.080
7.600E-07,-0.180
7.700E-07,-0.200
7.800E-07,0.100
7.900E-07,-0.100
8.000E-07,-0.160
8.100E-07,0.020
8.200E-07,-0.220
8.300E-07,-0.080
8.400E-07,0.220
8.500E-07,0.140
8.600E-07,0.460
8.700E-07,0.400
8.800E-07,0.180
8.900E-07,0.120
9.000E-07,-0.060
9.100E-07,0.000
9.200E-07,0.240
9.300E-07,0.340
9.400E-07,0.340
9.500E-07,0.220
9.600E-07,-0.060
9.700E-07,-0.200
9.800E-07,-0.080
9.900E-07,0.020
1.000E-06,0.180
1.010E-06,0.240
1.020E-06,0.140
1.030E-06,0.020
1.040E-06,-0.060
1.050E-06,-0.120
1.060E-06,-0.020
1.070E-06,0.040
1.080E-06,0.080
1.090E-06,0.140
1.100E-06,0.060
1.110E-06,-0.020
1.120E-06,0.000
1.130E-06,0.060
1.140E-06,0.060
1.150E-06,0.160
1.160E-06,0.060
1.170E-06,0.040
1.180E-06,0.040
1.190E-06,0.000
1.200E-06,0.200
1.210E-06,0.260
1.220E-06,0.280
1.230E-06,0.440
1.240E-06,0.260
1.250E-06,0.400
1.260E-06,0.420
1.270E-06,-0.160
1.280E-06,0.140
1.290E-06,-0.260
1.300E-06,-0.360
1.310E-06,0.180
1.320E-06,0.200
1.330E-06,0.220
1.340E-06,0.340
1.350E-06,-0.200
1.360E-06,-0.020
1.370E-06,-0.020
1.380E-06,0.120
1.390E-06,0.340
1.400E-06,0.340
1.410E-06,0.080
1.420E-06,-0.060
1.430E-06,0.000
1.440E-06,-0.300
1.450E-06,-0.160
1.460E-06,0.140
1.470E-06,0.040
1.480E-06,0.100
1.490E-06,0.060
1.500E-06,-0.280
1.510E-06,-0.200
1.520E-06,-0.260
1.530E-06,-0.160
1.540E-06,0.180
1.550E-06,0.220
1.560E-06,0.300
1.570E-06,0.240
1.580E-06,0.040
1.590E-06,0.080
1.600E-06,0.220
1.610E-06,0.340
1.620E-06,0.540
1.630E-06,0.680
1.640E-06,0.540
1.650E-06,0.500
1.660E-06,0.460
1.670E-06,0.520
1.680E-06,0.540
1.690E-06,0.620
1.700E-06,0.300
1.710E-06,-0.600
1.720E-06,-0.160
1.730E-06,-1.420
1.740E-06,0.520
1.750E-06,0.540
1.760E-06,0.580
1.770E-06,1.420
1.780E-06,-0.260
1.790E-06,-0.340
1.800E-06,-0.500
1.810E-06,-0.460
1.820E-06,0.760
1.830E-06,1.360
1.840E-06,0.680
1.850E-06,0.680
1.860E-06,-0.240
1.870E-06,-0.600
1.880E-06,0.040
1.890E-06,0.220
1.900E-06,0.240
1.910E-06,0.680
1.920E-06,0.160
1.930E-06,-0.120
1.940E-06,-0.440
1.950E-06,-0.400
1.960E-06,-0.200
1.970E-06,-0.180
1.980E-06,0.280
1.990E-06,0.120
2.000E-06,0.580
2.010E-06,0.000
2.020E-06,0.060
2.030E-06,-0.080
2.040E-06,-0.140
2.050E-06,0.700
2.060E-06,0.380
2.070E-06,0.400
2.080E-06,0.420
2.090E-06,-0.140
2.100E-06,0.180
2.110E-06,0.200
2.120E-06,0.400
2.130E-06,0.760
2.140E-06,0.420
2.150E-06,0.420
2.160E-06,0.000
2.170E-06,-0.040
2.180E-06,-0.280
2.190E-06,-0.260
2.200E-06,-0.140
2.210E-06,-0.160
2.220E-06,-0.300
2.230E-06,-0.140
2.240E-06,-0.580
2.250E-06,-0.220
2.260E-06,0.200
2.270E-06,0.520
2.280E-06,0.860
2.290E-06,1.120
2.300E-06,0.980
2.310E-06,0.900
2.320E-06,1.060
2.330E-06,0.860
2.340E-06,0.900
2.350E-06,0.920
2.360E-06,0.620
2.370E-06,0.420
2.380E-06,0.180
2.390E-06,0.420
2.400E-06,0.660
2.410E-06,0.200
2.420E-06,0.020
2.430E-06,-0.600
2.440E-06,-0.700
2.450E-06,-0.560
2.460E-06,0.160
2.470E-06,0.260
2.480E-06,0.060
2.490E-06,0.040
2.500E-06,-0.260
2.510E-06,-0.360
2.520E-06,0.100
2.530E-06,0.220
2.540E-06,0.240
2.550E-06,0.460
2.560E-06,0.240
2.570E-06,0.240
2.580E-06,0.400
2.590E-06,0.360
2.600E-06,0.460
2.610E-06,0.240
2.620E-06,0.160
2.630E-06,-0.060
2.640E-06,-0.100
2.650E-06,-0.040
2.660E-06,0.040
2.670E-06,0.060
2.680E-06,-0.060
2.690E-06,-0.160
2.700E-06,-0.280
2.710E-06,-0.160
2.720E-06,-0.020
2.730E-06,0.100
2.740E-06,0.560
2.750E-06,0.280
2.760E-06,0.320
2.770E-06,0.580
2.780E-06,-0.760
2.790E-06,-0.360
2.800E-06,-1.000
2.810E-06,-1.300
2.820E-06,-0.400
2.830E-06,-0.540
2.840E-06,0.020
2.850E-06,0.580
2.860E-06,0.440
2.870E-06,1.160
2.880E-06,1.240
2.890E-06,1.340
2.900E-06,1.880
2.910E-06,1.540
2.920E-06,1.660
2.930E-06,1.700
2.940E-06,1.260
2.950E-06,1.380
2.960E-06,1.000
2.970E-06,0.680
2.980E-06,0.440
2.990E-06,0.040
3.000E-06,-0.160
3.010E-06,-0.220
3.020E-06,-0.420
3.030E-06,-0.560
3.040E-06,-0.620
3.050E-06,-0.780
3.060E-06,-0.700
3.070E-06,-0.640
3.080E-06,-0.580
3.090E-06,-0.420
3.100E-06,-0.340
3.110E-06,-0.260
3.120E-06,-0.080
3.130E-06,0.060
3.140E-06,0.160
3.150E-06,0.300
3.160E-06,0.440
3.170E-06,0.400
3.180E-06,0.560
3.190E-06,0.580
3.200E-06,0.520
3.210E-06,0.500
3.220E-06,0.440
3.230E-06,0.380
3.240E-06,0.320
3.250E-06,0.300
3.260E-06,0.200
3.270E-06,0.160
3.280E-06,0.000
3.290E-06,-0.160
3.300E-06,-0.220
3.310E-06,-0.260
3.320E-06,-0.280
3.330E-06,-0.060
3.340E-06,0.100
3.350E-06,0.320
3.360E-06,0.500
3.370E-06,0.560
3.380E-06,0.640
3.390E-06,0.740
3.400E-06,0.760
3.410E-06,0.760
3.420E-06,1.420
3.430E-06,-0.320
3.440E-06,1.180
3.450E-06,-0.840
3.460E-06,-1.640
3.470E-06,-0.160
3.480E-06,-1.740
3.490E-06,1.020
3.500E-06,2.080
3.510E-06,1.780
3.520E-06,2.420
3.530E-06,0.320
3.540E-06,-0.920
3.550E-06,-0.720
3.560E-06,-0.300
3.570E-06,1.020
3.580E-06,1.860
3.590E-06,0.980
3.600E-06,1.080
3.610E-06,0.160
3.620E-06,0.160
3.630E-06,-0.580
3.640E-06,0.040
3.650E-06,-0.280
3.660E-06,0.280
3.670E-06,0.020
3.680E-06,0.240
3.690E-06,-0.120
3.700E-06,-0.260
3.710E-06,-0.500
3.720E-06,-0.800
3.730E-06,-0.440
3.740E-06,-0.340
3.750E-06,-0.020
3.760E-06,-0.080
3.770E-06,-0.120
3.780E-06,-0.480
3.790E-06,-0.280
3.800E-06,-0.360
3.810E-06,-0.160
3.820E-06,-0.180
3.830E-06,-0.260
3.840E-06,-0.300
3.850E-06,-0.300
3.860E-06,-0.320
3.870E-06,-0.380
3.880E-06,-0.300
3.890E-06,-0.400
3.900E-06,-0.340
3.910E-06,-0.340
3.920E-06,-0.240
3.930E-06,-0.320
3.940E-06,-0.260
3.950E-06,-0.180
3.960E-06,-0.060
3.970E-06,0.040
3.980E-06,0.100
3.990E-06,0.180
4.000E-06,0.320
4.010E-06,0.460
4.020E-06,0.580
4.030E-06,0.620
4.040E-06,0.620
4.050E-06,0.540
4.060E-06,0.500
4.070E-06,0.460
4.080E-06,0.340
4.090E-06,0.280
4.100E-06,0.220
4.110E-06,0.120
4.120E-06,0.020
4.130E-06,-0.080
4.140E-06,-0.300
4.150E-06,-0.400
4.160E-06,-0.460
4.170E-06,-0.560
4.180E-06,-0.600
4.190E-06,-0.640
4.200E-06,-0.620
4.210E-06,-0.580
4.220E-06,-0.500
4.230E-06,-0.400
4.240E-06,-0.300
4.250E-06,-0.220
4.260E-06,-0.120
4.270E-06,-0.060
4.280E-06,0.040
4.290E-06,0.080
4.300E-06,0.140
4.310E-06,0.220
4.320E-06,0.260
4.330E-06,0.260
4.340E-06,0.220
4.350E-06,0.120
4.360E-06,0.060
4.370E-06,-0.040
4.380E-06,-0.080
4.390E-06,-0.120
4.400E-06,-0.180
4.410E-06,-0.260
4.420E-06,-0.260
4.430E-06,-0.240
4.440E-06,-0.220
4.450E-06,-0.280
4.460E-06,-0.260
4.470E-06,-0.220
4.480E-06,-0.180
4.490E-06,-0.160
4.500E-06,-0.140
4.510E-06,-0.100
4.520E-06,-0.040
4.530E-06,0.020
4.540E-06,0.120
4.550E-06,0.180
4.560E-06,0.160
4.570E-06,0.200
4.580E-06,0.200
4.590E-06,0.200
4.600E-06,0.180
4.610E-06,0.160
4.620E-06,0.180
4.630E-06,0.160
4.640E-06,0.180
4.650E-06,0.100
4.660E-06,0.100
4.670E-06,0.020
4.680E-06,0.040
4.690E-06,-0.020
4.700E-06,-0.040
4.710E-06,-0.080
4.720E-06,-0.060
4.730E-06,-0.060
4.740E-06,-0.060
4.750E-06,0.000
4.760E-06,0.040
4.770E-06,0.060
4.780E-06,0.080
4.790E-06,0.140
4.800E-06,0.140
4.810E-06,0.140
4.820E-06,0.120
4.830E-06,0.160
4.840E-06,0.120
4.850E-06,0.120
4.860E-06,0.060
4.870E-06,0.040
4.880E-06,0.000
4.890E-06,-0.040
4.900E-06,-0.100
4.910E-06,-0.160
4.920E-06,-0.220
4.930E-06,-0.260
4.940E-06,-0.240
4.950E-06,-0.200
4.960E-06,-0.160
4.970E-06,-0.180
4.980E-06,-0.180
4.990E-06,-0.160
5.000E-06,-0.200
5.010E-06,-0.160
5.020E-06,-0.180
5.030E-06,-0.180
5.040E-06,-0.220
5.050E-06,-0.240
5.060E-06,-0.220
5.070E-06,-0.240
5.080E-06,-0.240
5.090E-06,-0.180
5.100E-06,-0.200
5.110E-06,-0.160
5.120E-06,-0.180
5.130E-06,-0.180
5.140E-06,-0.160
5.150E-06,-0.200
5.160E-06,-0.200
5.170E-06,-0.180
5.180E-06,-0.160
5.190E-06,-0.160
5.200E-06,-0.160
5.210E-06,-0.160
5.220E-06,-0.200
5.230E-06,-0.220
5.240E-06,-0.240
5.250E-06,-0.240
5.260E-06,-0.200
5.270E-06,-0.180
5.280E-06,-0.140
5.290E-06,-0.120
5.300E-06,-0.020
5.310E-06,-0.020
5.320E-06,-0.040
5.330E-06,0.020
5.340E-06,-0.040
5.350E-06,-0.040
5.360E-06,-0.040
5.370E-06,-0.140
5.380E-06,-0.220
5.390E-06,-0.240
5.400E-06,-0.320
5.410E-06,-0.360
5.420E-06,-0.360
5.430E-06,-0.360
5.440E-06,-0.360
5.450E-06,-0.340
5.460E-06,-0.400
5.470E-06,-0.340
5.480E-06,-0.360
5.490E-06,-0.360
5.500E-06,-0.400
5.510E-06,-0.360
5.520E-06,-0.360
5.530E-06,-0.420
5.540E-06,-0.400
5.550E-06,-0.380
5.560E-06,-0.360
5.570E-06,-0.380
5.580E-06,-0.340
5.590E-06,-0.340
5.600E-06,-0.280
5.610E-06,-0.300
5.620E-06,-0.280
5.630E-06,-0.260
5.640E-06,-0.280
5.650E-06,-0.280
5.660E-06,-0.220
5.670E-06,-0.240
5.680E-06,-0.220
5.690E-06,-0.280
5.700E-06,-0.320
5.710E-06,-0.300
5.720E-06,-0.360
5.730E-06,-0.320
5.740E-06,-0.340
5.750E-06,-0.360
5.760E-06,-0.380
5.770E-06,-0.400
5.780E-06,-0.360
5.790E-06,-0.320
5.800E-06,-0.320
5.810E-06,-0.320
5.820E-06,-0.260
5.830E-06,-0.200
5.840E-06,-0.220
5.850E-06,-0.120
5.860E-06,-0.060
5.870E-06,-0.040
5.880E-06,0.040
5.890E-06,0.080
5.900E-06,0.120
5.910E-06,0.120
5.920E-06,0.180
5.930E-06,0.180
5.940E-06,0.220
5.950E-06,0.180
5.960E-06,0.200
5.970E-06,0.180
5.980E-06,0.160
5.990E-06,0.160
6.000E-06,0.180
6.010E-06,0.180
6.020E-06,0.200
6.030E-06,0.180
6.040E-06,0.220
6.050E-06,0.200
6.060E-06,0.160
6.070E-06,0.220
6.080E-06,0.220
6.090E-06,0.220
6.100E-06,0.220
6.110E-06,0.180
6.120E-06,0.160
6.130E-06,0.100
6.140E-06,0.120
6.150E-06,0.100
6.160E-06,0.080
6.170E-06,0.060
6.180E-06,0.060
6.190E-06,0.040
6.200E-06,0.060
6.210E-06,0.080
6.220E-06,0.080
6.230E-06,0.060
6.240E-06,0.080
6.250E-06,0.100
6.260E-06,0.160
6.270E-06,0.180
6.280E-06,0.200
6.290E-06,0.220
6.300E-06,0.240
6.310E-06,0.300
6.320E-06,0.300
6.330E-06,0.320
6.340E-06,0.340
6.350E-06,0.320
6.360E-06,0.320
6.370E-06,0.280
6.380E-06,0.260
6.390E-06,0.200
6.400E-06,0.180
6.410E-06,0.120
6.420E-06,0.100
6.430E-06,0.100
6.440E-06,0.040
6.450E-06,0.040
6.460E-06,0.060
6.470E-06,0.020
6.480E-06,0.060
6.490E-06,0.060
6.500E-06,0.060
6.510E-06,0.100
6.520E-06,0.100
6.530E-06,0.100
6.540E-06,0.180
6.550E-06,0.160
6.560E-06,0.160
6.570E-06,0.140
6.580E-06,0.120
6.590E-06,0.140
6.600E-06,0.120
6.610E-06,0.100
6.620E-06,0.060
6.630E-06,0.020
6.640E-06,0.020
6.650E-06,0.020
6.660E-06,0.000
6.670E-06,0.040
6.680E-06,0.080
6.690E-06,0.100
6.700E-06,0.120
6.710E-06,0.160
6.720E-06,0.200
6.730E-06,0.240
6.740E-06,0.240
6.750E-06,0.280
6.760E-06,0.300
6.770E-06,0.320
6.780E-06,0.320
6.790E-06,0.300
6.800E-06,0.300
6.810E-06,0.300
6.820E-06,0.280
6.830E-06,0.280
6.840E-06,0.300
6.850E-06,0.240
6.860E-06,0.260
6.870E-06,0.220
6.880E-06,0.200
6.890E-06,0.180
6.900E-06,0.180
6.910E-06,0.120
6.920E-06,0.100
6.930E-06,0.060
6.940E-06,0.060
6.950E-06,0.040
6.960E-06,0.020
6.970E-06,-0.060
6.980E-06,-0.060
6.990E-06,-0.080
7.000E-06,-0.040
7.010E-06,-0.080
7.020E-06,-0.080
7.030E-06,-0.080
7.040E-06,-0.080
7.050E-06,-0.100
7.060E-06,-0.100
7.070E-06,-0.040
7.080E-06,-0.020
7.090E-06,0.020
7.100E-06,0.020
7.110E-06,0.120
7.120E-06,0.180
7.130E-06,0.240
7.140E-06,0.300
7.150E-06,0.340
7.160E-06,0.340
7.170E-06,0.360
7.180E-06,0.380
7.190E-06,0.360
7.200E-06,0.340
7.210E-06,0.300
7.220E-06,0.260
7.230E-06,0.240
7.240E-06,0.160
7.250E-06,0.120
7.260E-06,0.100
7.270E-06,0.060
7.280E-06,0.020
7.290E-06,-0.020
7.300E-06,-0.040
7.310E-06,-0.080
7.320E-06,-0.120
7.330E-06,-0.080
7.340E-06,-0.100
7.350E-06,-0.080
7.360E-06,-0.080
7.370E-06,-0.100
7.380E-06,-0.120
7.390E-06,-0.120
7.400E-06,-0.160
7.410E-06,-0.160
7.420E-06,-0.160
7.430E-06,-0.180
7.440E-06,-0.140
7.450E-06,-0.180
7.460E-06,-0.160
7.470E-06,-0.160
7.480E-06,-0.140
7.490E-06,-0.120
7.500E-06,-0.120
7.510E-06,-0.100
7.520E-06,-0.040
7.530E-06,-0.020
7.540E-06,0.020
7.550E-06,0.020
7.560E-06,0.020
7.570E-06,0.100
7.580E-06,0.100
7.590E-06,0.180
7.600E-06,0.180
7.610E-06,0.260
7.620E-06,0.280
7.630E-06,0.320
7.640E-06,0.380
7.650E-06,0.380
7.660E-06,0.440
7.670E-06,0.400
7.680E-06,0.380
