mediciones/Mediciones filtradas (saque las feas)/6-10/31.5/WaveData55135.csv

#timebase=2000000(ps)
,#voltbase=500000(mv/100)
#size=4000
-4.250E-06,0.440
-4.240E-06,0.360
-4.230E-06,0.340
-4.220E-06,0.240
-4.210E-06,0.140
-4.200E-06,-0.040
-4.190E-06,-0.300
-4.180E-06,-0.540
-4.170E-06,-0.700
-4.160E-06,-0.880
-4.150E-06,-1.040
-4.140E-06,-1.100
-4.130E-06,-1.140
-4.120E-06,-1.140
-4.110E-06,-1.040
-4.100E-06,-0.880
-4.090E-06,-0.680
-4.080E-06,-0.360
-4.070E-06,-0.120
-4.060E-06,0.100
-4.050E-06,0.300
-4.040E-06,0.500
-4.030E-06,0.640
-4.020E-06,0.720
-4.010E-06,0.860
-4.000E-06,0.800
-3.990E-06,0.760
-3.980E-06,0.680
-3.970E-06,0.560
-3.960E-06,0.500
-3.950E-06,0.440
-3.940E-06,0.380
-3.930E-06,0.300
-3.920E-06,0.180
-3.910E-06,0.080
-3.900E-06,-0.020
-3.890E-06,-0.100
-3.880E-06,-0.160
-3.870E-06,-0.220
-3.860E-06,-0.300
-3.850E-06,-0.380
-3.840E-06,-0.440
-3.830E-06,-0.420
-3.820E-06,-0.400
-3.810E-06,-0.320
-3.800E-06,-0.180
-3.790E-06,-0.100
-3.780E-06,-0.020
-3.770E-06,0.100
-3.760E-06,0.220
-3.750E-06,0.340
-3.740E-06,0.400
-3.730E-06,0.400
-3.720E-06,0.420
-3.710E-06,0.360
-3.700E-06,0.300
-3.690E-06,0.260
-3.680E-06,0.260
-3.670E-06,0.220
-3.660E-06,0.160
-3.650E-06,0.120
-3.640E-06,0.080
-3.630E-06,0.040
-3.620E-06,0.020
-3.610E-06,0.000
-3.600E-06,-0.020
-3.590E-06,-0.020
-3.580E-06,-0.060
-3.570E-06,-0.080
-3.560E-06,-0.060
-3.550E-06,-0.100
-3.540E-06,-0.060
-3.530E-06,-0.080
-3.520E-06,-0.040
-3.510E-06,-0.020
-3.500E-06,0.000
-3.490E-06,0.020
-3.480E-06,0.020
-3.470E-06,0.020
-3.460E-06,0.020
-3.450E-06,0.080
-3.440E-06,0.200
-3.430E-06,0.160
-3.420E-06,0.240
-3.410E-06,0.260
-3.400E-06,0.100
-3.390E-06,0.240
-3.380E-06,0.260
-3.370E-06,0.240
-3.360E-06,0.260
-3.350E-06,0.200
-3.340E-06,0.180
-3.330E-06,0.100
-3.320E-06,0.060
-3.310E-06,0.080
-3.300E-06,0.060
-3.290E-06,0.040
-3.280E-06,0.000
-3.270E-06,0.000
-3.260E-06,-0.020
-3.250E-06,-0.020
-3.240E-06,0.040
-3.230E-06,-0.020
-3.220E-06,-0.020
-3.210E-06,-0.040
-3.200E-06,-0.020
-3.190E-06,0.000
-3.180E-06,0.020
-3.170E-06,0.060
-3.160E-06,0.080
-3.150E-06,0.100
-3.140E-06,0.080
-3.130E-06,0.120
-3.120E-06,0.140
-3.110E-06,0.180
-3.100E-06,0.220
-3.090E-06,0.200
-3.080E-06,0.200
-3.070E-06,0.140
-3.060E-06,0.100
-3.050E-06,0.100
-3.040E-06,0.080
-3.030E-06,0.080
-3.020E-06,0.060
-3.010E-06,0.000
-3.000E-06,0.020
-2.990E-06,-0.020
-2.980E-06,-0.020
-2.970E-06,0.000
-2.960E-06,0.000
-2.950E-06,0.060
-2.940E-06,0.060
-2.930E-06,0.080
-2.920E-06,0.100
-2.910E-06,0.160
-2.900E-06,0.220
-2.890E-06,0.200
-2.880E-06,0.200
-2.870E-06,0.200
-2.860E-06,0.200
-2.850E-06,0.240
-2.840E-06,0.200
-2.830E-06,0.220
-2.820E-06,0.240
-2.810E-06,0.180
-2.800E-06,0.160
-2.790E-06,0.120
-2.780E-06,0.100
-2.770E-06,0.080
-2.760E-06,0.060
-2.750E-06,0.040
-2.740E-06,0.000
-2.730E-06,-0.020
-2.720E-06,-0.040
-2.710E-06,-0.020
-2.700E-06,-0.040
-2.690E-06,-0.040
-2.680E-06,0.000
-2.670E-06,0.000
-2.660E-06,0.020
-2.650E-06,0.000
-2.640E-06,0.060
-2.630E-06,0.080
-2.620E-06,0.060
-2.610E-06,0.100
-2.600E-06,0.100
-2.590E-06,0.120
-2.580E-06,0.120
-2.570E-06,0.160
-2.560E-06,0.140
-2.550E-06,0.160
-2.540E-06,0.160
-2.530E-06,0.120
-2.520E-06,0.040
-2.510E-06,-0.220
-2.500E-06,-0.560
-2.490E-06,-0.940
-2.480E-06,-1.320
-2.470E-06,-1.200
-2.460E-06,-1.260
-2.450E-06,-0.700
-2.440E-06,-0.180
-2.430E-06,0.280
-2.420E-06,0.800
-2.410E-06,1.080
-2.400E-06,1.180
-2.390E-06,1.200
-2.380E-06,1.160
-2.370E-06,1.060
-2.360E-06,1.080
-2.350E-06,1.080
-2.340E-06,1.080
-2.330E-06,1.000
-2.320E-06,0.840
-2.310E-06,0.620
-2.300E-06,0.380
-2.290E-06,0.200
-2.280E-06,-0.020
-2.270E-06,-0.180
-2.260E-06,-0.340
-2.250E-06,-0.360
-2.240E-06,-0.500
-2.230E-06,-0.520
-2.220E-06,-0.480
-2.210E-06,-0.500
-2.200E-06,-0.400
-2.190E-06,-0.360
-2.180E-06,-0.200
-2.170E-06,-0.160
-2.160E-06,-0.100
-2.150E-06,-0.020
-2.140E-06,0.000
-2.130E-06,0.120
-2.120E-06,0.320
-2.110E-06,0.440
-2.100E-06,0.500
-2.090E-06,0.460
-2.080E-06,0.440
-2.070E-06,0.340
-2.060E-06,0.240
-2.050E-06,0.160
-2.040E-06,-0.060
-2.030E-06,-0.240
-2.020E-06,-0.440
-2.010E-06,-0.520
-2.000E-06,-0.500
-1.990E-06,-0.400
-1.980E-06,-0.300
-1.970E-06,-0.380
-1.960E-06,-0.360
-1.950E-06,-0.360
-1.940E-06,-0.340
-1.930E-06,-0.100
-1.920E-06,0.040
-1.910E-06,0.260
-1.900E-06,0.420
-1.890E-06,0.500
-1.880E-06,0.580
-1.870E-06,0.660
-1.860E-06,0.720
-1.850E-06,0.720
-1.840E-06,0.720
-1.830E-06,0.620
-1.820E-06,0.580
-1.810E-06,0.500
-1.800E-06,0.380
-1.790E-06,0.320
-1.780E-06,0.180
-1.770E-06,0.040
-1.760E-06,-0.040
-1.750E-06,-0.140
-1.740E-06,-0.180
-1.730E-06,-0.160
-1.720E-06,-0.200
-1.710E-06,-0.220
-1.700E-06,-0.180
-1.690E-06,-0.160
-1.680E-06,-0.120
-1.670E-06,-0.040
-1.660E-06,0.060
-1.650E-06,0.100
-1.640E-06,0.160
-1.630E-06,0.180
-1.620E-06,0.280
-1.610E-06,0.320
-1.600E-06,0.420
-1.590E-06,0.440
-1.580E-06,0.440
-1.570E-06,0.420
-1.560E-06,0.420
-1.550E-06,0.320
-1.540E-06,0.220
-1.530E-06,0.180
-1.520E-06,0.080
-1.510E-06,0.040
-1.500E-06,-0.020
-1.490E-06,-0.040
-1.480E-06,-0.100
-1.470E-06,-0.180
-1.460E-06,-0.180
-1.450E-06,-0.220
-1.440E-06,-0.240
-1.430E-06,-0.160
-1.420E-06,-0.180
-1.410E-06,-0.120
-1.400E-06,-0.040
-1.390E-06,-0.100
-1.380E-06,0.140
-1.370E-06,0.060
-1.360E-06,0.080
-1.350E-06,0.320
-1.340E-06,0.180
-1.330E-06,0.320
-1.320E-06,0.320
-1.310E-06,0.220
-1.300E-06,0.220
-1.290E-06,0.200
-1.280E-06,0.160
-1.270E-06,0.240
-1.260E-06,0.320
-1.250E-06,0.320
-1.240E-06,0.400
-1.230E-06,0.320
-1.220E-06,0.200
-1.210E-06,0.100
-1.200E-06,0.180
-1.190E-06,0.220
-1.180E-06,0.160
-1.170E-06,0.200
-1.160E-06,0.200
-1.150E-06,0.180
-1.140E-06,0.220
-1.130E-06,0.140
-1.120E-06,0.160
-1.110E-06,0.140
-1.100E-06,0.100
-1.090E-06,0.180
-1.080E-06,0.160
-1.070E-06,0.180
-1.060E-06,0.200
-1.050E-06,0.220
-1.040E-06,0.180
-1.030E-06,0.180
-1.020E-06,0.180
-1.010E-06,0.200
-1.000E-06,0.180
-9.900E-07,0.160
-9.800E-07,0.140
-9.700E-07,0.140
-9.600E-07,0.180
-9.500E-07,0.140
-9.400E-07,0.160
-9.300E-07,0.100
-9.200E-07,0.080
-9.100E-07,0.080
-9.000E-07,0.020
-8.900E-07,0.000
-8.800E-07,0.000
-8.700E-07,-0.080
-8.600E-07,-0.060
-8.500E-07,-0.100
-8.400E-07,-0.160
-8.300E-07,-0.120
-8.200E-07,-0.160
-8.100E-07,-0.100
-8.000E-07,-0.080
-7.900E-07,-0.080
-7.800E-07,-0.020
-7.700E-07,-0.040
-7.600E-07,0.040
-7.500E-07,0.100
-7.400E-07,0.140
-7.300E-07,0.200
-7.200E-07,0.160
-7.100E-07,0.180
-7.000E-07,0.220
-6.900E-07,0.220
-6.800E-07,0.220
-6.700E-07,0.180
-6.600E-07,0.160
-6.500E-07,0.080
-6.400E-07,0.040
-6.300E-07,-0.040
-6.200E-07,0.020
-6.100E-07,0.020
-6.000E-07,0.020
-5.900E-07,0.040
-5.800E-07,0.000
-5.700E-07,0.080
-5.600E-07,0.020
-5.500E-07,0.040
-5.400E-07,0.120
-5.300E-07,0.100
-5.200E-07,0.180
-5.100E-07,0.220
-5.000E-07,0.260
-4.900E-07,0.300
-4.800E-07,0.340
-4.700E-07,0.320
-4.600E-07,0.320
-4.500E-07,0.360
-4.400E-07,0.340
-4.300E-07,0.360
-4.200E-07,0.380
-4.100E-07,0.360
-4.000E-07,0.400
-3.900E-07,0.420
-3.800E-07,0.400
-3.700E-07,0.320
-3.600E-07,0.280
-3.500E-07,0.220
-3.400E-07,0.240
-3.300E-07,0.240
-3.200E-07,0.260
-3.100E-07,0.240
-3.000E-07,0.200
-2.900E-07,0.180
-2.800E-07,0.120
-2.700E-07,0.040
-2.600E-07,0.080
-2.500E-07,0.020
-2.400E-07,0.060
-2.300E-07,0.040
-2.200E-07,0.060
-2.100E-07,0.040
-2.000E-07,0.060
-1.900E-07,0.080
-1.800E-07,0.020
-1.700E-07,0.020
-1.600E-07,0.080
-1.500E-07,0.040
-1.400E-07,0.060
-1.300E-07,0.040
-1.200E-07,0.060
-1.100E-07,-0.020
-1.000E-07,0.040
-9.000E-08,-0.040
-8.000E-08,0.020
-7.000E-08,-0.020
-6.000E-08,0.000
-5.000E-08,0.060
-4.000E-08,-0.080
-3.000E-08,1.440
-2.000E-08,-2.100
-1.000E-08,-1.660
0.000E+00,-2.660
1.000E-08,-2.660
2.000E-08,-1.020
3.000E-08,1.020
4.000E-08,2.140
5.000E-08,2.620
6.000E-08,2.060
7.000E-08,-0.160
8.000E-08,-0.020
9.000E-08,-0.380
1.000E-07,0.540
1.100E-07,1.920
1.200E-07,1.800
1.300E-07,2.280
1.400E-07,1.480
1.500E-07,0.820
1.600E-07,0.180
1.700E-07,-0.120
1.800E-07,-0.160
1.900E-07,-0.320
2.000E-07,-0.220
2.100E-07,-0.180
2.200E-07,-0.320
2.300E-07,-0.360
2.400E-07,-0.640
2.500E-07,-0.900
2.600E-07,-0.800
2.700E-07,-0.720
2.800E-07,-0.420
2.900E-07,0.060
3.000E-07,0.380
3.100E-07,0.500
3.200E-07,0.620
3.300E-07,0.640
3.400E-07,0.620
3.500E-07,0.740
3.600E-07,0.960
3.700E-07,1.140
3.800E-07,1.180
3.900E-07,0.940
4.000E-07,0.580
4.100E-07,0.380
4.200E-07,0.140
4.300E-07,-0.160
4.400E-07,-0.020
4.500E-07,0.360
4.600E-07,-0.220
4.700E-07,-0.320
4.800E-07,-0.320
4.900E-07,-1.520
5.000E-07,-0.380
5.100E-07,-0.600
5.200E-07,0.960
5.300E-07,1.400
5.400E-07,1.180
5.500E-07,0.600
5.600E-07,-0.360
5.700E-07,-0.240
5.800E-07,0.000
5.900E-07,0.960
6.000E-07,1.540
6.100E-07,1.140
6.200E-07,0.960
6.300E-07,0.640
6.400E-07,-0.100
6.500E-07,0.480
6.600E-07,0.580
6.700E-07,0.940
6.800E-07,1.280
6.900E-07,0.460
7.000E-07,0.180
7.100E-07,-0.240
7.200E-07,-0.980
7.300E-07,-0.580
7.400E-07,-0.720
7.500E-07,-0.540
7.600E-07,0.000
7.700E-07,-0.400
7.800E-07,-0.340
7.900E-07,-0.480
8.000E-07,-0.540
8.100E-07,-0.280
8.200E-07,0.260
8.300E-07,0.440
8.400E-07,0.700
8.500E-07,0.700
8.600E-07,0.860
8.700E-07,0.600
8.800E-07,0.760
8.900E-07,0.940
9.000E-07,0.520
9.100E-07,0.900
9.200E-07,0.340
9.300E-07,0.500
9.400E-07,0.340
9.500E-07,-0.680
9.600E-07,-0.620
9.700E-07,-1.040
9.800E-07,-1.360
9.900E-07,-0.200
1.000E-06,-0.120
1.010E-06,-0.020
1.020E-06,1.000
1.030E-06,-0.220
1.040E-06,-0.280
1.050E-06,0.020
1.060E-06,-0.680
1.070E-06,0.360
1.080E-06,0.520
1.090E-06,0.020
1.100E-06,0.400
1.110E-06,-0.420
1.120E-06,-0.700
1.130E-06,-0.180
1.140E-06,-0.880
1.150E-06,-0.320
1.160E-06,-0.040
1.170E-06,-0.440
1.180E-06,0.200
1.190E-06,0.280
1.200E-06,-0.060
1.210E-06,0.600
1.220E-06,-0.420
1.230E-06,-0.860
1.240E-06,-0.620
1.250E-06,-0.920
1.260E-06,-0.420
1.270E-06,-0.080
1.280E-06,-0.400
1.290E-06,-0.720
1.300E-06,-1.100
1.310E-06,-1.540
1.320E-06,-1.220
1.330E-06,-1.060
1.340E-06,-0.940
1.350E-06,-0.920
1.360E-06,-1.180
1.370E-06,-1.580
1.380E-06,-2.080
1.390E-06,-2.400
1.400E-06,-2.660
1.410E-06,-2.660
1.420E-06,-2.500
1.430E-06,-2.380
1.440E-06,-2.140
1.450E-06,-2.120
1.460E-06,-2.360
1.470E-06,-2.480
1.480E-06,-2.640
1.490E-06,-2.660
1.500E-06,-2.540
1.510E-06,-2.200
1.520E-06,-1.980
1.530E-06,-1.980
1.540E-06,-2.200
1.550E-06,-2.060
1.560E-06,-2.100
1.570E-06,-2.220
1.580E-06,-1.800
1.590E-06,-1.780
1.600E-06,-1.380
1.610E-06,-1.060
1.620E-06,-0.980
1.630E-06,-0.580
1.640E-06,-0.660
1.650E-06,-0.480
1.660E-06,-0.440
1.670E-06,-0.340
1.680E-06,-0.300
1.690E-06,-0.340
1.700E-06,-0.140
1.710E-06,-0.220
1.720E-06,-0.260
1.730E-06,-0.180
1.740E-06,-0.360
1.750E-06,-0.120
1.760E-06,-0.120
1.770E-06,-0.240
1.780E-06,0.000
1.790E-06,-0.120
1.800E-06,-0.080
1.810E-06,-0.060
1.820E-06,-0.240
1.830E-06,-0.320
1.840E-06,-0.380
1.850E-06,-0.520
1.860E-06,-0.500
1.870E-06,-0.500
1.880E-06,-0.540
1.890E-06,-0.500
1.900E-06,-0.580
1.910E-06,-0.620
1.920E-06,-0.620
1.930E-06,-0.600
1.940E-06,-0.500
1.950E-06,-0.420
1.960E-06,-0.320
1.970E-06,-0.240
1.980E-06,-0.180
1.990E-06,-0.140
2.000E-06,-0.100
2.010E-06,-0.020
2.020E-06,0.000
2.030E-06,0.080
2.040E-06,0.060
2.050E-06,0.080
2.060E-06,0.040
2.070E-06,0.040
2.080E-06,0.100
2.090E-06,0.060
2.100E-06,0.160
2.110E-06,0.120
2.120E-06,0.040
2.130E-06,0.120
2.140E-06,0.060
2.150E-06,0.060
2.160E-06,0.080
2.170E-06,0.020
2.180E-06,-0.020
2.190E-06,-0.100
2.200E-06,-0.040
2.210E-06,0.000
2.220E-06,-0.040
2.230E-06,-0.020
2.240E-06,-0.120
2.250E-06,-0.240
2.260E-06,-0.240
2.270E-06,-0.200
2.280E-06,-0.160
2.290E-06,-0.020
2.300E-06,-0.020
2.310E-06,-0.200
2.320E-06,-0.220
2.330E-06,-0.340
2.340E-06,-0.500
2.350E-06,-0.480
2.360E-06,-0.500
2.370E-06,-0.520
2.380E-06,-0.660
2.390E-06,-0.560
2.400E-06,-0.700
2.410E-06,-0.360
2.420E-06,0.160
2.430E-06,0.480
2.440E-06,0.800
2.450E-06,0.580
2.460E-06,0.480
2.470E-06,0.460
2.480E-06,0.600
2.490E-06,0.720
2.500E-06,0.580
2.510E-06,0.380
2.520E-06,0.180
2.530E-06,0.020
2.540E-06,0.080
2.550E-06,0.180
2.560E-06,0.360
2.570E-06,0.400
2.580E-06,0.420
2.590E-06,0.440
2.600E-06,0.400
2.610E-06,0.420
2.620E-06,0.220
2.630E-06,0.060
2.640E-06,-0.060
2.650E-06,-0.160
2.660E-06,-0.080
2.670E-06,-0.060
2.680E-06,-0.040
2.690E-06,-0.220
2.700E-06,-0.380
2.710E-06,-0.540
2.720E-06,-0.580
2.730E-06,-0.520
2.740E-06,-0.480
2.750E-06,-0.440
2.760E-06,-0.420
2.770E-06,-0.400
2.780E-06,-0.360
2.790E-06,-0.360
2.800E-06,-0.400
2.810E-06,-0.400
2.820E-06,-0.420
2.830E-06,-0.380
2.840E-06,-0.320
2.850E-06,-0.220
2.860E-06,-0.180
2.870E-06,-0.100
2.880E-06,-0.020
2.890E-06,0.020
2.900E-06,0.020
2.910E-06,0.020
2.920E-06,0.020
2.930E-06,0.060
2.940E-06,0.080
2.950E-06,0.140
2.960E-06,0.140
2.970E-06,0.100
2.980E-06,0.100
2.990E-06,0.020
3.000E-06,0.000
3.010E-06,0.000
3.020E-06,-0.020
3.030E-06,0.000
3.040E-06,-0.020
3.050E-06,-0.040
3.060E-06,-0.120
3.070E-06,-0.180
3.080E-06,-0.160
3.090E-06,-0.140
3.100E-06,-0.180
3.110E-06,-0.160
3.120E-06,-0.200
3.130E-06,-0.180
3.140E-06,-0.180
3.150E-06,-0.160
3.160E-06,-0.180
3.170E-06,-0.120
3.180E-06,-0.080
3.190E-06,0.000
3.200E-06,0.100
3.210E-06,0.140
3.220E-06,0.120
3.230E-06,0.100
3.240E-06,0.080
3.250E-06,0.080
3.260E-06,0.080
3.270E-06,0.040
3.280E-06,-0.020
3.290E-06,-0.020
3.300E-06,-0.100
3.310E-06,-0.120
3.320E-06,-0.160
3.330E-06,-0.160
3.340E-06,-0.180
3.350E-06,-0.180
3.360E-06,-0.220
3.370E-06,-0.260
3.380E-06,-0.260
3.390E-06,-0.260
3.400E-06,-0.220
3.410E-06,-0.200
3.420E-06,-0.140
3.430E-06,-0.100
3.440E-06,-0.100
3.450E-06,-0.080
3.460E-06,-0.060
3.470E-06,-0.080
3.480E-06,-0.080
3.490E-06,-0.060
3.500E-06,-0.060
3.510E-06,-0.040
3.520E-06,-0.060
3.530E-06,-0.080
3.540E-06,-0.180
3.550E-06,-0.140
3.560E-06,-0.140
3.570E-06,-0.160
3.580E-06,-0.160
3.590E-06,-0.180
3.600E-06,-0.160
3.610E-06,-0.120
3.620E-06,-0.120
3.630E-06,-0.100
3.640E-06,-0.100
3.650E-06,-0.060
3.660E-06,-0.060
3.670E-06,-0.020
3.680E-06,0.020
3.690E-06,0.060
3.700E-06,0.040
3.710E-06,0.020
3.720E-06,0.080
3.730E-06,0.080
3.740E-06,0.040
3.750E-06,0.020
3.760E-06,0.000
3.770E-06,-0.020
3.780E-06,-0.020
3.790E-06,-0.060
3.800E-06,-0.080
3.810E-06,-0.140
3.820E-06,-0.160
3.830E-06,-0.200
3.840E-06,-0.200
3.850E-06,-0.220
3.860E-06,-0.240
3.870E-06,-0.240
3.880E-06,-0.240
3.890E-06,-0.260
3.900E-06,-0.240
3.910E-06,-0.220
3.920E-06,-0.180
3.930E-06,-0.140
3.940E-06,-0.140
3.950E-06,-0.060
3.960E-06,-0.040
3.970E-06,0.000
3.980E-06,0.020
3.990E-06,0.040
4.000E-06,0.080
4.010E-06,0.120
4.020E-06,0.140
4.030E-06,0.160
4.040E-06,0.160
4.050E-06,0.100
4.060E-06,0.100
4.070E-06,0.060
4.080E-06,0.060
4.090E-06,0.020
4.100E-06,0.000
4.110E-06,0.000
4.120E-06,-0.020
4.130E-06,-0.060
4.140E-06,-0.100
4.150E-06,-0.080
4.160E-06,-0.160
4.170E-06,-0.180
4.180E-06,-0.180
4.190E-06,-0.240
4.200E-06,-0.260
4.210E-06,-0.240
4.220E-06,-0.240
4.230E-06,-0.220
4.240E-06,-0.240
4.250E-06,-0.280
4.260E-06,-0.260
4.270E-06,-0.280
4.280E-06,-0.280
4.290E-06,-0.300
4.300E-06,-0.280
4.310E-06,-0.280
4.320E-06,-0.260
4.330E-06,-0.240
4.340E-06,-0.220
4.350E-06,-0.220
4.360E-06,-0.200
4.370E-06,-0.160
4.380E-06,-0.120
4.390E-06,-0.100
4.400E-06,-0.060
4.410E-06,-0.020
4.420E-06,0.000
4.430E-06,0.020
4.440E-06,0.020
4.450E-06,0.020
4.460E-06,0.040
4.470E-06,0.040
4.480E-06,0.020
4.490E-06,0.040
4.500E-06,0.040
4.510E-06,0.040
4.520E-06,0.040
4.530E-06,0.020
4.540E-06,0.040
4.550E-06,0.060
4.560E-06,0.080
4.570E-06,0.100
4.580E-06,0.080
4.590E-06,0.060
4.600E-06,0.100
4.610E-06,0.040
4.620E-06,0.020
4.630E-06,0.040
4.640E-06,0.040
4.650E-06,0.020
4.660E-06,0.000
4.670E-06,-0.020
4.680E-06,0.000
4.690E-06,-0.040
4.700E-06,-0.060
4.710E-06,-0.080
4.720E-06,-0.040
4.730E-06,-0.040
4.740E-06,-0.040
4.750E-06,-0.040
4.760E-06,-0.060
4.770E-06,-0.040
4.780E-06,-0.100
4.790E-06,-0.120
4.800E-06,-0.120
4.810E-06,-0.120
4.820E-06,-0.100
4.830E-06,-0.080
4.840E-06,-0.040
4.850E-06,-0.040
4.860E-06,-0.060
4.870E-06,0.000
4.880E-06,0.000
4.890E-06,0.000
4.900E-06,0.000
4.910E-06,0.000
4.920E-06,0.000
4.930E-06,0.000
4.940E-06,-0.020
4.950E-06,-0.040
4.960E-06,-0.060
4.970E-06,-0.140
4.980E-06,-0.160
4.990E-06,-0.200
5.000E-06,-0.160
5.010E-06,-0.160
5.020E-06,-0.120
5.030E-06,-0.080
5.040E-06,-0.080
5.050E-06,-0.060
5.060E-06,-0.020
5.070E-06,-0.020
5.080E-06,0.040
5.090E-06,0.060
5.100E-06,0.100
5.110E-06,0.100
5.120E-06,0.080
5.130E-06,0.080
5.140E-06,0.080
5.150E-06,0.080
5.160E-06,0.020
5.170E-06,-0.020
5.180E-06,-0.040
5.190E-06,-0.040
5.200E-06,-0.080
5.210E-06,-0.120
5.220E-06,-0.080
5.230E-06,-0.060
5.240E-06,-0.020
5.250E-06,0.000
5.260E-06,0.020
5.270E-06,0.080
5.280E-06,0.140
5.290E-06,0.120
5.300E-06,0.200
5.310E-06,0.220
5.320E-06,0.260
5.330E-06,0.260
5.340E-06,0.320
5.350E-06,0.300
5.360E-06,0.320
5.370E-06,0.340
5.380E-06,0.300
5.390E-06,0.320
5.400E-06,0.300
5.410E-06,0.260
5.420E-06,0.240
5.430E-06,0.180
5.440E-06,0.180
5.450E-06,0.200
5.460E-06,0.080
5.470E-06,0.100
5.480E-06,0.080
5.490E-06,0.060
5.500E-06,0.040
5.510E-06,0.000
5.520E-06,0.020
5.530E-06,0.060
5.540E-06,0.040
5.550E-06,0.060
5.560E-06,0.100
5.570E-06,0.100
5.580E-06,0.120
5.590E-06,0.160
5.600E-06,0.200
5.610E-06,0.180
5.620E-06,0.120
5.630E-06,0.100
5.640E-06,0.100
5.650E-06,0.100
5.660E-06,0.020
5.670E-06,0.000
5.680E-06,0.020
5.690E-06,-0.040
5.700E-06,-0.040
5.710E-06,-0.080
5.720E-06,-0.100
5.730E-06,-0.080
5.740E-06,-0.080
5.750E-06,-0.080
5.760E-06,-0.060
5.770E-06,-0.020
5.780E-06,-0.040
5.790E-06,-0.040
5.800E-06,-0.020
5.810E-06,-0.020
5.820E-06,-0.020
5.830E-06,-0.020
5.840E-06,-0.020
5.850E-06,0.000
5.860E-06,-0.020
5.870E-06,-0.040
5.880E-06,-0.060
5.890E-06,-0.080
5.900E-06,-0.100
5.910E-06,-0.040
5.920E-06,-0.060
5.930E-06,-0.040
5.940E-06,-0.060
5.950E-06,-0.060
5.960E-06,-0.040
5.970E-06,0.020
5.980E-06,-0.020
5.990E-06,0.000
6.000E-06,0.000
6.010E-06,0.020
6.020E-06,0.100
6.030E-06,0.120
6.040E-06,0.220
6.050E-06,0.300
6.060E-06,0.380
6.070E-06,0.440
6.080E-06,0.520
6.090E-06,0.560
6.100E-06,0.560
6.110E-06,0.600
6.120E-06,0.560
6.130E-06,0.560
6.140E-06,0.500
6.150E-06,0.440
6.160E-06,0.420
6.170E-06,0.320
6.180E-06,0.280
6.190E-06,0.240
6.200E-06,0.220
6.210E-06,0.220
6.220E-06,0.200
6.230E-06,0.260
6.240E-06,0.280
6.250E-06,0.360
6.260E-06,0.400
6.270E-06,0.400
6.280E-06,0.420
6.290E-06,0.440
6.300E-06,0.400
6.310E-06,0.380
6.320E-06,0.340
6.330E-06,0.240
6.340E-06,0.200
6.350E-06,0.120
6.360E-06,0.080
6.370E-06,0.000
6.380E-06,-0.060
6.390E-06,-0.040
6.400E-06,-0.040
6.410E-06,-0.060
6.420E-06,-0.020
6.430E-06,0.000
6.440E-06,0.060
6.450E-06,0.120
6.460E-06,0.140
6.470E-06,0.200
6.480E-06,0.220
6.490E-06,0.280
6.500E-06,0.260
6.510E-06,0.260
6.520E-06,0.220
6.530E-06,0.200
6.540E-06,0.200
6.550E-06,0.160
6.560E-06,0.160
6.570E-06,0.200
6.580E-06,0.200
6.590E-06,0.260
6.600E-06,0.300
6.610E-06,0.340
6.620E-06,0.340
6.630E-06,0.340
6.640E-06,0.340
6.650E-06,0.320
6.660E-06,0.260
6.670E-06,0.220
6.680E-06,0.160
6.690E-06,0.100
6.700E-06,0.040
6.710E-06,0.040
6.720E-06,0.040
6.730E-06,0.020
6.740E-06,0.040
6.750E-06,0.060
6.760E-06,0.100
6.770E-06,0.140
6.780E-06,0.200
6.790E-06,0.260
6.800E-06,0.320
6.810E-06,0.380
6.820E-06,0.460
6.830E-06,0.460
6.840E-06,0.480
6.850E-06,0.440
6.860E-06,0.420
6.870E-06,0.440
6.880E-06,0.360
6.890E-06,0.380
6.900E-06,0.340
6.910E-06,0.280
6.920E-06,0.240
6.930E-06,0.220
6.940E-06,0.200
6.950E-06,0.180
6.960E-06,0.140
6.970E-06,0.120
6.980E-06,0.160
6.990E-06,0.180
7.000E-06,0.220
7.010E-06,0.240
7.020E-06,0.260
7.030E-06,0.300
7.040E-06,0.340
7.050E-06,0.360
7.060E-06,0.360
7.070E-06,0.380
7.080E-06,0.420
7.090E-06,0.420
7.100E-06,0.420
7.110E-06,0.420
7.120E-06,0.400
7.130E-06,0.420
7.140E-06,0.420
7.150E-06,0.440
7.160E-06,0.480
7.170E-06,0.500
7.180E-06,0.480
7.190E-06,0.520
7.200E-06,0.480
7.210E-06,0.500
7.220E-06,0.480
7.230E-06,0.440
7.240E-06,0.420
7.250E-06,0.360
7.260E-06,0.360
7.270E-06,0.340
7.280E-06,0.340
7.290E-06,0.340
7.300E-06,0.360
7.310E-06,0.340
7.320E-06,0.380
7.330E-06,0.380
7.340E-06,0.420
7.350E-06,0.400
7.360E-06,0.380
7.370E-06,0.380
7.380E-06,0.360
7.390E-06,0.380
7.400E-06,0.380
7.410E-06,0.360
7.420E-06,0.380
7.430E-06,0.400
7.440E-06,0.380
7.450E-06,0.420
7.460E-06,0.400
7.470E-06,0.360
7.480E-06,0.400
7.490E-06,0.400
7.500E-06,0.420
7.510E-06,0.440
7.520E-06,0.480
7.530E-06,0.600
7.540E-06,0.620
7.550E-06,0.700
7.560E-06,0.760
7.570E-06,0.760
7.580E-06,0.840
7.590E-06,0.880
7.600E-06,0.900
7.610E-06,0.940
7.620E-06,1.000
7.630E-06,1.060
