mediciones/Mediciones filtradas (saque las feas)/6-10/31.5/WaveData55132.csv

#timebase=2000000(ps)
,#voltbase=100000(mv/100)
#size=4000
-4.250E-06,0.016
-4.240E-06,-0.004
-4.230E-06,0.008
-4.220E-06,0.000
-4.210E-06,-0.004
-4.200E-06,0.012
-4.190E-06,0.028
-4.180E-06,0.016
-4.170E-06,-0.004
-4.160E-06,0.008
-4.150E-06,-0.008
-4.140E-06,-0.004
-4.130E-06,0.012
-4.120E-06,0.012
-4.110E-06,0.024
-4.100E-06,0.000
-4.090E-06,0.008
-4.080E-06,-0.008
-4.070E-06,0.008
-4.060E-06,0.004
-4.050E-06,-0.032
-4.040E-06,-0.028
-4.030E-06,-0.044
-4.020E-06,-0.028
-4.010E-06,-0.004
-4.000E-06,0.012
-3.990E-06,0.048
-3.980E-06,0.024
-3.970E-06,0.020
-3.960E-06,-0.024
-3.950E-06,-0.036
-3.940E-06,-0.028
-3.930E-06,0.000
-3.920E-06,0.032
-3.910E-06,0.028
-3.900E-06,0.024
-3.890E-06,0.008
-3.880E-06,-0.004
-3.870E-06,-0.028
-3.860E-06,-0.016
-3.850E-06,-0.008
-3.840E-06,0.008
-3.830E-06,0.024
-3.820E-06,0.024
-3.810E-06,0.016
-3.800E-06,-0.008
-3.790E-06,0.000
-3.780E-06,0.000
-3.770E-06,-0.004
-3.760E-06,0.008
-3.750E-06,0.012
-3.740E-06,0.008
-3.730E-06,0.008
-3.720E-06,0.004
-3.710E-06,0.000
-3.700E-06,-0.004
-3.690E-06,-0.004
-3.680E-06,-0.004
-3.670E-06,0.008
-3.660E-06,0.016
-3.650E-06,0.008
-3.640E-06,0.012
-3.630E-06,0.004
-3.620E-06,-0.004
-3.610E-06,-0.008
-3.600E-06,0.000
-3.590E-06,0.004
-3.580E-06,0.008
-3.570E-06,0.012
-3.560E-06,0.000
-3.550E-06,0.000
-3.540E-06,0.000
-3.530E-06,0.000
-3.520E-06,0.000
-3.510E-06,0.004
-3.500E-06,0.008
-3.490E-06,0.012
-3.480E-06,0.004
-3.470E-06,0.000
-3.460E-06,-0.004
-3.450E-06,-0.004
-3.440E-06,-0.004
-3.430E-06,0.004
-3.420E-06,0.004
-3.410E-06,0.008
-3.400E-06,0.004
-3.390E-06,0.004
-3.380E-06,0.000
-3.370E-06,0.000
-3.360E-06,0.004
-3.350E-06,0.012
-3.340E-06,0.004
-3.330E-06,0.008
-3.320E-06,0.008
-3.310E-06,0.000
-3.300E-06,0.000
-3.290E-06,0.000
-3.280E-06,0.000
-3.270E-06,0.008
-3.260E-06,0.004
-3.250E-06,0.008
-3.240E-06,0.008
-3.230E-06,0.004
-3.220E-06,0.000
-3.210E-06,0.000
-3.200E-06,-0.008
-3.190E-06,0.000
-3.180E-06,-0.004
-3.170E-06,0.004
-3.160E-06,-0.004
-3.150E-06,0.008
-3.140E-06,0.004
-3.130E-06,0.008
-3.120E-06,0.008
-3.110E-06,0.004
-3.100E-06,0.000
-3.090E-06,0.004
-3.080E-06,-0.008
-3.070E-06,-0.012
-3.060E-06,0.000
-3.050E-06,-0.004
-3.040E-06,0.016
-3.030E-06,0.016
-3.020E-06,0.008
-3.010E-06,0.000
-3.000E-06,-0.008
-2.990E-06,-0.008
-2.980E-06,-0.004
-2.970E-06,0.004
-2.960E-06,0.016
-2.950E-06,0.020
-2.940E-06,0.012
-2.930E-06,0.000
-2.920E-06,-0.008
-2.910E-06,-0.004
-2.900E-06,0.004
-2.890E-06,0.008
-2.880E-06,0.012
-2.870E-06,0.008
-2.860E-06,0.004
-2.850E-06,-0.004
-2.840E-06,0.000
-2.830E-06,0.000
-2.820E-06,0.012
-2.810E-06,0.004
-2.800E-06,0.008
-2.790E-06,0.004
-2.780E-06,-0.004
-2.770E-06,0.000
-2.760E-06,0.004
-2.750E-06,0.004
-2.740E-06,0.012
-2.730E-06,0.004
-2.720E-06,0.000
-2.710E-06,0.000
-2.700E-06,0.000
-2.690E-06,-0.004
-2.680E-06,0.004
-2.670E-06,0.000
-2.660E-06,0.008
-2.650E-06,0.004
-2.640E-06,0.004
-2.630E-06,-0.004
-2.620E-06,-0.004
-2.610E-06,-0.004
-2.600E-06,0.012
-2.590E-06,0.016
-2.580E-06,0.012
-2.570E-06,0.016
-2.560E-06,-0.012
-2.550E-06,0.000
-2.540E-06,0.000
-2.530E-06,0.004
-2.520E-06,0.012
-2.510E-06,0.012
-2.500E-06,0.012
-2.490E-06,0.008
-2.480E-06,0.000
-2.470E-06,-0.008
-2.460E-06,-0.008
-2.450E-06,-0.008
-2.440E-06,-0.004
-2.430E-06,0.008
-2.420E-06,0.008
-2.410E-06,0.008
-2.400E-06,0.008
-2.390E-06,-0.008
-2.380E-06,0.000
-2.370E-06,-0.004
-2.360E-06,0.004
-2.350E-06,0.012
-2.340E-06,0.012
-2.330E-06,0.008
-2.320E-06,0.004
-2.310E-06,0.000
-2.300E-06,-0.004
-2.290E-06,0.008
-2.280E-06,0.008
-2.270E-06,0.004
-2.260E-06,0.004
-2.250E-06,0.004
-2.240E-06,0.004
-2.230E-06,0.004
-2.220E-06,0.008
-2.210E-06,0.000
-2.200E-06,0.004
-2.190E-06,0.004
-2.180E-06,0.008
-2.170E-06,0.000
-2.160E-06,0.000
-2.150E-06,0.000
-2.140E-06,0.000
-2.130E-06,0.008
-2.120E-06,0.004
-2.110E-06,0.008
-2.100E-06,0.008
-2.090E-06,0.004
-2.080E-06,0.000
-2.070E-06,0.000
-2.060E-06,0.004
-2.050E-06,0.004
-2.040E-06,0.004
-2.030E-06,0.004
-2.020E-06,-0.004
-2.010E-06,0.008
-2.000E-06,0.008
-1.990E-06,0.012
-1.980E-06,0.008
-1.970E-06,0.012
-1.960E-06,0.000
-1.950E-06,-0.004
-1.940E-06,0.004
-1.930E-06,0.012
-1.920E-06,0.008
-1.910E-06,0.020
-1.900E-06,0.000
-1.890E-06,-0.004
-1.880E-06,-0.004
-1.870E-06,-0.004
-1.860E-06,0.016
-1.850E-06,0.020
-1.840E-06,0.020
-1.830E-06,0.012
-1.820E-06,0.000
-1.810E-06,0.016
-1.800E-06,0.008
-1.790E-06,0.000
-1.780E-06,-0.008
-1.770E-06,-0.008
-1.760E-06,-0.008
-1.750E-06,0.008
-1.740E-06,0.008
-1.730E-06,0.004
-1.720E-06,-0.004
-1.710E-06,-0.004
-1.700E-06,0.000
-1.690E-06,-0.004
-1.680E-06,0.000
-1.670E-06,0.004
-1.660E-06,0.016
-1.650E-06,0.020
-1.640E-06,0.008
-1.630E-06,-0.008
-1.620E-06,-0.004
-1.610E-06,0.000
-1.600E-06,0.016
-1.590E-06,0.016
-1.580E-06,0.012
-1.570E-06,0.004
-1.560E-06,0.000
-1.550E-06,-0.004
-1.540E-06,-0.004
-1.530E-06,0.000
-1.520E-06,0.008
-1.510E-06,0.008
-1.500E-06,0.012
-1.490E-06,0.012
-1.480E-06,0.004
-1.470E-06,0.004
-1.460E-06,0.004
-1.450E-06,0.004
-1.440E-06,0.004
-1.430E-06,0.008
-1.420E-06,0.008
-1.410E-06,0.000
-1.400E-06,0.008
-1.390E-06,0.004
-1.380E-06,0.012
-1.370E-06,0.012
-1.360E-06,0.012
-1.350E-06,0.000
-1.340E-06,-0.004
-1.330E-06,0.004
-1.320E-06,0.004
-1.310E-06,0.020
-1.300E-06,0.020
-1.290E-06,0.032
-1.280E-06,0.008
-1.270E-06,0.012
-1.260E-06,-0.020
-1.250E-06,-0.004
-1.240E-06,-0.036
-1.230E-06,-0.020
-1.220E-06,-0.008
-1.210E-06,-0.028
-1.200E-06,0.000
-1.190E-06,0.008
-1.180E-06,0.024
-1.170E-06,0.028
-1.160E-06,-0.004
-1.150E-06,-0.032
-1.140E-06,-0.040
-1.130E-06,-0.004
-1.120E-06,0.020
-1.110E-06,0.028
-1.100E-06,0.024
-1.090E-06,0.024
-1.080E-06,0.012
-1.070E-06,0.000
-1.060E-06,-0.008
-1.050E-06,-0.016
-1.040E-06,-0.012
-1.030E-06,0.008
-1.020E-06,0.028
-1.010E-06,0.036
-1.000E-06,0.004
-9.900E-07,0.000
-9.800E-07,-0.012
-9.700E-07,0.000
-9.600E-07,0.004
-9.500E-07,0.012
-9.400E-07,0.012
-9.300E-07,0.012
-9.200E-07,0.008
-9.100E-07,-0.004
-9.000E-07,0.004
-8.900E-07,0.000
-8.800E-07,0.000
-8.700E-07,0.008
-8.600E-07,0.008
-8.500E-07,0.008
-8.400E-07,0.008
-8.300E-07,0.008
-8.200E-07,0.008
-8.100E-07,0.004
-8.000E-07,0.008
-7.900E-07,0.012
-7.800E-07,0.000
-7.700E-07,0.000
-7.600E-07,0.004
-7.500E-07,0.008
-7.400E-07,0.012
-7.300E-07,0.008
-7.200E-07,0.008
-7.100E-07,0.008
-7.000E-07,0.008
-6.900E-07,0.004
-6.800E-07,0.000
-6.700E-07,-0.004
-6.600E-07,0.000
-6.500E-07,-0.004
-6.400E-07,0.012
-6.300E-07,0.012
-6.200E-07,0.028
-6.100E-07,0.024
-6.000E-07,0.020
-5.900E-07,0.004
-5.800E-07,0.000
-5.700E-07,-0.004
-5.600E-07,0.000
-5.500E-07,0.008
-5.400E-07,0.024
-5.300E-07,0.024
-5.200E-07,0.024
-5.100E-07,0.020
-5.000E-07,0.008
-4.900E-07,0.012
-4.800E-07,0.012
-4.700E-07,0.024
-4.600E-07,0.028
-4.500E-07,0.016
-4.400E-07,0.008
-4.300E-07,0.000
-4.200E-07,-0.004
-4.100E-07,0.004
-4.000E-07,0.008
-3.900E-07,0.016
-3.800E-07,0.028
-3.700E-07,0.024
-3.600E-07,0.016
-3.500E-07,0.008
-3.400E-07,0.004
-3.300E-07,0.008
-3.200E-07,0.012
-3.100E-07,0.020
-3.000E-07,0.020
-2.900E-07,0.012
-2.800E-07,0.012
-2.700E-07,0.008
-2.600E-07,0.016
-2.500E-07,0.020
-2.400E-07,0.020
-2.300E-07,0.032
-2.200E-07,0.024
-2.100E-07,0.032
-2.000E-07,0.032
-1.900E-07,0.024
-1.800E-07,0.036
-1.700E-07,0.044
-1.600E-07,0.060
-1.500E-07,0.028
-1.400E-07,0.052
-1.300E-07,0.048
-1.200E-07,0.068
-1.100E-07,0.056
-1.000E-07,0.040
-9.000E-08,0.036
-8.000E-08,0.040
-7.000E-08,0.044
-6.000E-08,-0.108
-5.000E-08,-0.312
-4.000E-08,-0.460
-3.000E-08,-0.492
-2.000E-08,-0.100
-1.000E-08,0.244
0.000E+00,0.276
1.000E-08,0.308
2.000E-08,0.060
3.000E-08,-0.240
4.000E-08,-0.200
5.000E-08,-0.112
6.000E-08,-0.064
7.000E-08,0.128
8.000E-08,0.236
9.000E-08,0.232
1.000E-07,0.124
1.100E-07,-0.008
1.200E-07,-0.068
1.300E-07,-0.108
1.400E-07,-0.052
1.500E-07,-0.032
1.600E-07,0.052
1.700E-07,0.156
1.800E-07,0.204
1.900E-07,0.184
2.000E-07,0.092
2.100E-07,-0.064
2.200E-07,-0.104
2.300E-07,-0.144
2.400E-07,-0.156
2.500E-07,-0.152
2.600E-07,-0.144
2.700E-07,-0.348
2.800E-07,-0.132
2.900E-07,0.160
3.000E-07,0.260
3.100E-07,0.240
3.200E-07,0.020
3.300E-07,-0.124
3.400E-07,-0.104
3.500E-07,-0.040
3.600E-07,-0.028
3.700E-07,0.088
3.800E-07,0.096
3.900E-07,0.076
4.000E-07,0.048
4.100E-07,0.004
4.200E-07,-0.044
4.300E-07,-0.008
4.400E-07,0.116
4.500E-07,0.104
4.600E-07,0.008
4.700E-07,-0.140
4.800E-07,-0.204
4.900E-07,-0.088
5.000E-07,-0.072
5.100E-07,-0.004
5.200E-07,0.136
5.300E-07,0.152
5.400E-07,0.056
5.500E-07,-0.012
5.600E-07,-0.076
5.700E-07,-0.080
5.800E-07,-0.068
5.900E-07,-0.004
6.000E-07,0.040
6.100E-07,0.068
6.200E-07,0.088
6.300E-07,0.064
6.400E-07,0.020
6.500E-07,-0.040
6.600E-07,-0.048
6.700E-07,-0.032
6.800E-07,0.016
6.900E-07,0.048
7.000E-07,0.044
7.100E-07,0.012
7.200E-07,0.036
7.300E-07,0.004
7.400E-07,0.000
7.500E-07,-0.008
7.600E-07,-0.004
7.700E-07,0.008
7.800E-07,0.000
7.900E-07,-0.024
8.000E-07,-0.016
8.100E-07,0.004
8.200E-07,-0.016
8.300E-07,0.016
8.400E-07,0.012
8.500E-07,0.004
8.600E-07,0.004
8.700E-07,-0.008
8.800E-07,0.012
8.900E-07,0.024
9.000E-07,0.032
9.100E-07,0.012
9.200E-07,0.016
9.300E-07,-0.008
9.400E-07,-0.008
9.500E-07,-0.004
9.600E-07,0.012
9.700E-07,0.040
9.800E-07,0.040
9.900E-07,0.024
1.000E-06,0.000
1.010E-06,-0.008
1.020E-06,-0.028
1.030E-06,-0.004
1.040E-06,0.008
1.050E-06,0.028
1.060E-06,0.024
1.070E-06,0.008
1.080E-06,0.000
1.090E-06,-0.012
1.100E-06,-0.012
1.110E-06,-0.004
1.120E-06,0.012
1.130E-06,0.008
1.140E-06,0.024
1.150E-06,0.028
1.160E-06,0.032
1.170E-06,0.028
1.180E-06,0.036
1.190E-06,0.048
1.200E-06,0.048
1.210E-06,0.048
1.220E-06,0.068
1.230E-06,0.056
1.240E-06,-0.028
1.250E-06,-0.056
1.260E-06,-0.156
1.270E-06,-0.116
1.280E-06,-0.068
1.290E-06,0.072
1.300E-06,0.112
1.310E-06,0.092
1.320E-06,0.060
1.330E-06,0.008
1.340E-06,-0.064
1.350E-06,-0.088
1.360E-06,-0.008
1.370E-06,0.040
1.380E-06,0.096
1.390E-06,0.060
1.400E-06,0.032
1.410E-06,0.004
1.420E-06,-0.004
1.430E-06,-0.032
1.440E-06,-0.024
1.450E-06,0.024
1.460E-06,0.008
1.470E-06,0.024
1.480E-06,0.032
1.490E-06,0.044
1.500E-06,0.020
1.510E-06,0.052
1.520E-06,0.032
1.530E-06,0.028
1.540E-06,0.048
1.550E-06,0.024
1.560E-06,0.052
1.570E-06,0.060
1.580E-06,0.108
1.590E-06,0.092
1.600E-06,0.072
1.610E-06,0.056
1.620E-06,0.060
1.630E-06,0.064
1.640E-06,0.044
1.650E-06,0.072
1.660E-06,0.064
1.670E-06,-0.048
1.680E-06,-0.264
1.690E-06,-0.456
1.700E-06,-0.420
1.710E-06,-0.272
1.720E-06,0.208
1.730E-06,0.148
1.740E-06,0.180
1.750E-06,-0.056
1.760E-06,-0.044
1.770E-06,-0.124
1.780E-06,-0.160
1.790E-06,-0.044
1.800E-06,0.120
1.810E-06,0.320
1.820E-06,0.300
1.830E-06,0.192
1.840E-06,-0.012
1.850E-06,-0.056
1.860E-06,-0.164
1.870E-06,0.004
1.880E-06,-0.076
1.890E-06,-0.068
1.900E-06,-0.068
1.910E-06,-0.004
1.920E-06,0.028
1.930E-06,-0.104
1.940E-06,-0.132
1.950E-06,-0.296
1.960E-06,-0.148
1.970E-06,0.028
1.980E-06,0.064
1.990E-06,0.196
2.000E-06,0.124
2.010E-06,0.024
2.020E-06,-0.024
2.030E-06,-0.040
2.040E-06,-0.040
2.050E-06,-0.072
2.060E-06,0.032
2.070E-06,0.144
2.080E-06,0.204
2.090E-06,0.184
2.100E-06,0.140
2.110E-06,0.012
2.120E-06,-0.056
2.130E-06,-0.100
2.140E-06,-0.140
2.150E-06,-0.056
2.160E-06,0.036
2.170E-06,0.064
2.180E-06,0.076
2.190E-06,-0.044
2.200E-06,-0.020
2.210E-06,-0.136
2.220E-06,-0.136
2.230E-06,-0.016
2.240E-06,0.144
2.250E-06,0.216
2.260E-06,0.192
2.270E-06,0.136
2.280E-06,0.016
2.290E-06,-0.060
2.300E-06,-0.044
2.310E-06,0.072
2.320E-06,0.060
2.330E-06,0.060
2.340E-06,-0.004
2.350E-06,-0.024
2.360E-06,-0.008
2.370E-06,0.020
2.380E-06,0.068
2.390E-06,0.076
2.400E-06,-0.152
2.410E-06,-0.108
2.420E-06,-0.144
2.430E-06,-0.016
2.440E-06,0.004
2.450E-06,0.044
2.460E-06,0.068
2.470E-06,0.012
2.480E-06,-0.040
2.490E-06,-0.056
2.500E-06,-0.044
2.510E-06,0.040
2.520E-06,0.076
2.530E-06,0.108
2.540E-06,0.140
2.550E-06,0.128
2.560E-06,0.092
2.570E-06,0.072
2.580E-06,0.024
2.590E-06,0.020
2.600E-06,0.044
2.610E-06,0.092
2.620E-06,0.132
2.630E-06,0.100
2.640E-06,0.116
2.650E-06,0.044
2.660E-06,-0.008
2.670E-06,-0.072
2.680E-06,-0.060
2.690E-06,-0.112
2.700E-06,-0.104
2.710E-06,-0.072
2.720E-06,0.004
2.730E-06,0.000
2.740E-06,-0.076
2.750E-06,-0.088
2.760E-06,-0.028
2.770E-06,-0.072
2.780E-06,-0.068
2.790E-06,0.000
2.800E-06,0.036
2.810E-06,0.100
2.820E-06,0.112
2.830E-06,0.032
2.840E-06,0.044
2.850E-06,0.064
2.860E-06,0.036
2.870E-06,0.104
2.880E-06,0.084
2.890E-06,0.096
2.900E-06,0.092
2.910E-06,0.076
2.920E-06,0.092
2.930E-06,0.048
2.940E-06,0.044
2.950E-06,0.056
2.960E-06,0.072
2.970E-06,0.104
2.980E-06,0.136
2.990E-06,0.108
3.000E-06,0.108
3.010E-06,0.076
3.020E-06,0.080
3.030E-06,0.076
3.040E-06,0.088
3.050E-06,0.100
3.060E-06,0.088
3.070E-06,0.124
3.080E-06,0.076
3.090E-06,0.076
3.100E-06,0.028
3.110E-06,0.036
3.120E-06,0.048
3.130E-06,0.056
3.140E-06,0.064
3.150E-06,0.076
3.160E-06,0.068
3.170E-06,0.060
3.180E-06,0.060
3.190E-06,0.068
3.200E-06,0.096
3.210E-06,0.112
3.220E-06,0.152
3.230E-06,0.152
3.240E-06,0.152
3.250E-06,0.128
3.260E-06,0.112
3.270E-06,0.092
3.280E-06,0.096
3.290E-06,0.100
3.300E-06,0.132
3.310E-06,0.144
3.320E-06,0.152
3.330E-06,0.136
3.340E-06,0.108
3.350E-06,0.096
3.360E-06,0.088
3.370E-06,0.112
3.380E-06,0.148
3.390E-06,0.160
3.400E-06,-0.024
3.410E-06,0.200
3.420E-06,-0.512
3.430E-06,-0.336
3.440E-06,-0.508
3.450E-06,-0.232
3.460E-06,-0.088
3.470E-06,0.536
3.480E-06,0.540
3.490E-06,0.432
3.500E-06,-0.072
3.510E-06,-0.512
3.520E-06,-0.092
3.530E-06,-0.428
3.540E-06,0.404
3.550E-06,0.540
3.560E-06,0.540
3.570E-06,0.360
3.580E-06,-0.068
3.590E-06,-0.124
3.600E-06,-0.380
3.610E-06,-0.076
3.620E-06,0.080
3.630E-06,0.488
3.640E-06,0.488
3.650E-06,0.376
3.660E-06,0.112
3.670E-06,-0.088
3.680E-06,-0.196
3.690E-06,-0.120
3.700E-06,0.116
3.710E-06,0.292
3.720E-06,0.424
3.730E-06,0.368
3.740E-06,0.264
3.750E-06,0.024
3.760E-06,-0.052
3.770E-06,-0.080
3.780E-06,0.096
3.790E-06,0.236
3.800E-06,0.360
3.810E-06,0.368
3.820E-06,0.264
3.830E-06,0.124
3.840E-06,0.004
3.850E-06,0.024
3.860E-06,0.060
3.870E-06,0.200
3.880E-06,0.268
3.890E-06,0.328
3.900E-06,0.264
3.910E-06,0.176
3.920E-06,0.076
3.930E-06,0.032
3.940E-06,0.080
3.950E-06,0.152
3.960E-06,0.240
3.970E-06,0.276
3.980E-06,0.276
3.990E-06,0.188
4.000E-06,0.128
4.010E-06,0.076
4.020E-06,0.084
4.030E-06,0.128
4.040E-06,0.200
4.050E-06,0.240
4.060E-06,0.244
4.070E-06,0.216
4.080E-06,0.152
4.090E-06,0.120
4.100E-06,0.092
4.110E-06,0.132
4.120E-06,0.164
4.130E-06,0.212
4.140E-06,0.228
4.150E-06,0.204
4.160E-06,0.176
4.170E-06,0.132
4.180E-06,0.124
4.190E-06,0.128
4.200E-06,0.156
4.210E-06,0.192
4.220E-06,0.208
4.230E-06,0.196
4.240E-06,0.168
4.250E-06,0.140
4.260E-06,0.128
4.270E-06,0.128
4.280E-06,0.156
4.290E-06,0.176
4.300E-06,0.192
4.310E-06,0.188
4.320E-06,0.172
4.330E-06,0.148
4.340E-06,0.132
4.350E-06,0.128
4.360E-06,0.140
4.370E-06,0.160
4.380E-06,0.176
4.390E-06,0.184
4.400E-06,0.168
4.410E-06,0.152
4.420E-06,0.144
4.430E-06,0.128
4.440E-06,0.144
4.450E-06,0.152
4.460E-06,0.160
4.470E-06,0.164
4.480E-06,0.168
4.490E-06,0.156
4.500E-06,0.144
4.510E-06,0.144
4.520E-06,0.140
4.530E-06,0.148
4.540E-06,0.160
4.550E-06,0.164
4.560E-06,0.160
4.570E-06,0.148
4.580E-06,0.144
4.590E-06,0.140
4.600E-06,0.144
4.610E-06,0.144
4.620E-06,0.144
4.630E-06,0.164
4.640E-06,0.156
4.650E-06,0.156
4.660E-06,0.148
4.670E-06,0.136
4.680E-06,0.136
4.690E-06,0.144
4.700E-06,0.156
4.710E-06,0.148
4.720E-06,0.156
4.730E-06,0.152
4.740E-06,0.152
4.750E-06,0.144
4.760E-06,0.144
4.770E-06,0.136
4.780E-06,0.140
4.790E-06,0.152
4.800E-06,0.144
4.810E-06,0.152
4.820E-06,0.144
4.830E-06,0.140
4.840E-06,0.144
4.850E-06,0.140
4.860E-06,0.156
4.870E-06,0.112
4.880E-06,0.160
4.890E-06,0.144
4.900E-06,0.144
4.910E-06,0.140
4.920E-06,0.140
4.930E-06,0.140
4.940E-06,0.136
4.950E-06,0.152
4.960E-06,0.144
4.970E-06,0.148
4.980E-06,0.148
4.990E-06,0.144
5.000E-06,0.148
5.010E-06,0.144
5.020E-06,0.140
5.030E-06,0.136
5.040E-06,0.148
5.050E-06,0.152
5.060E-06,0.148
5.070E-06,0.152
5.080E-06,0.144
5.090E-06,0.140
5.100E-06,0.132
5.110E-06,0.144
5.120E-06,0.132
5.130E-06,0.136
5.140E-06,0.136
5.150E-06,0.136
5.160E-06,0.144
5.170E-06,0.128
5.180E-06,0.128
5.190E-06,0.136
5.200E-06,0.128
5.210E-06,0.136
5.220E-06,0.136
5.230E-06,0.132
5.240E-06,0.140
5.250E-06,0.136
5.260E-06,0.132
5.270E-06,0.124
5.280E-06,0.124
5.290E-06,0.124
5.300E-06,0.132
5.310E-06,0.144
5.320E-06,0.128
5.330E-06,0.136
5.340E-06,0.136
5.350E-06,0.128
5.360E-06,0.132
5.370E-06,0.140
5.380E-06,0.144
5.390E-06,0.136
5.400E-06,0.140
5.410E-06,0.136
5.420E-06,0.128
5.430E-06,0.128
5.440E-06,0.132
5.450E-06,0.132
5.460E-06,0.136
5.470E-06,0.144
5.480E-06,0.132
5.490E-06,0.132
5.500E-06,0.132
5.510E-06,0.128
5.520E-06,0.128
5.530E-06,0.128
5.540E-06,0.132
5.550E-06,0.128
5.560E-06,0.132
5.570E-06,0.124
5.580E-06,0.132
5.590E-06,0.124
5.600E-06,0.120
5.610E-06,0.124
5.620E-06,0.124
5.630E-06,0.128
5.640E-06,0.124
5.650E-06,0.124
5.660E-06,0.124
5.670E-06,0.112
5.680E-06,0.120
5.690E-06,0.120
5.700E-06,0.124
5.710E-06,0.124
5.720E-06,0.124
5.730E-06,0.132
5.740E-06,0.120
5.750E-06,0.124
5.760E-06,0.120
5.770E-06,0.124
5.780E-06,0.116
5.790E-06,0.120
5.800E-06,0.120
5.810E-06,0.124
5.820E-06,0.128
5.830E-06,0.120
5.840E-06,0.124
5.850E-06,0.120
5.860E-06,0.124
5.870E-06,0.120
5.880E-06,0.120
5.890E-06,0.120
5.900E-06,0.124
5.910E-06,0.116
5.920E-06,0.108
5.930E-06,0.124
5.940E-06,0.124
5.950E-06,0.112
5.960E-06,0.108
5.970E-06,0.124
5.980E-06,0.124
5.990E-06,0.116
6.000E-06,0.112
6.010E-06,0.116
6.020E-06,0.108
6.030E-06,0.108
6.040E-06,0.112
6.050E-06,0.112
6.060E-06,0.108
6.070E-06,0.112
6.080E-06,0.108
6.090E-06,0.108
6.100E-06,0.108
6.110E-06,0.112
6.120E-06,0.108
6.130E-06,0.108
6.140E-06,0.108
6.150E-06,0.108
6.160E-06,0.108
6.170E-06,0.104
6.180E-06,0.108
6.190E-06,0.108
6.200E-06,0.108
6.210E-06,0.104
6.220E-06,0.108
6.230E-06,0.108
6.240E-06,0.108
6.250E-06,0.104
6.260E-06,0.104
6.270E-06,0.104
6.280E-06,0.104
6.290E-06,0.104
6.300E-06,0.104
6.310E-06,0.104
6.320E-06,0.104
6.330E-06,0.104
6.340E-06,0.100
6.350E-06,0.108
6.360E-06,0.104
6.370E-06,0.104
6.380E-06,0.104
6.390E-06,0.100
6.400E-06,0.104
6.410E-06,0.096
6.420E-06,0.104
6.430E-06,0.100
6.440E-06,0.100
6.450E-06,0.104
6.460E-06,0.104
6.470E-06,0.100
6.480E-06,0.096
6.490E-06,0.096
6.500E-06,0.100
6.510E-06,0.100
6.520E-06,0.092
6.530E-06,0.092
6.540E-06,0.096
6.550E-06,0.096
6.560E-06,0.096
6.570E-06,0.092
6.580E-06,0.092
6.590E-06,0.096
6.600E-06,0.092
6.610E-06,0.092
6.620E-06,0.096
6.630E-06,0.100
6.640E-06,0.096
6.650E-06,0.088
6.660E-06,0.092
6.670E-06,0.096
6.680E-06,0.092
6.690E-06,0.096
6.700E-06,0.096
6.710E-06,0.088
6.720E-06,0.092
6.730E-06,0.092
6.740E-06,0.092
6.750E-06,0.092
6.760E-06,0.092
6.770E-06,0.088
6.780E-06,0.088
6.790E-06,0.088
6.800E-06,0.088
6.810E-06,0.092
6.820E-06,0.088
6.830E-06,0.088
6.840E-06,0.092
6.850E-06,0.088
6.860E-06,0.088
6.870E-06,0.084
6.880E-06,0.088
6.890E-06,0.080
6.900E-06,0.084
6.910E-06,0.080
6.920E-06,0.084
6.930E-06,0.084
6.940E-06,0.088
6.950E-06,0.084
6.960E-06,0.088
6.970E-06,0.084
6.980E-06,0.084
6.990E-06,0.080
7.000E-06,0.080
7.010E-06,0.080
7.020E-06,0.080
7.030E-06,0.080
7.040E-06,0.084
7.050E-06,0.080
7.060E-06,0.084
7.070E-06,0.080
7.080E-06,0.080
7.090E-06,0.076
7.100E-06,0.080
7.110E-06,0.076
7.120E-06,0.072
7.130E-06,0.076
7.140E-06,0.084
7.150E-06,0.072
7.160E-06,0.080
7.170E-06,0.072
7.180E-06,0.072
7.190E-06,0.072
7.200E-06,0.080
7.210E-06,0.080
7.220E-06,0.076
7.230E-06,0.072
7.240E-06,0.080
7.250E-06,0.080
7.260E-06,0.072
7.270E-06,0.072
7.280E-06,0.076
7.290E-06,0.076
7.300E-06,0.072
7.310E-06,0.072
7.320E-06,0.072
7.330E-06,0.076
7.340E-06,0.072
7.350E-06,0.064
7.360E-06,0.072
7.370E-06,0.068
7.380E-06,0.072
7.390E-06,0.072
7.400E-06,0.072
7.410E-06,0.068
7.420E-06,0.068
7.430E-06,0.068
7.440E-06,0.068
7.450E-06,0.072
7.460E-06,0.072
7.470E-06,0.068
7.480E-06,0.068
7.490E-06,0.068
7.500E-06,0.068
7.510E-06,0.068
7.520E-06,0.068
7.530E-06,0.064
7.540E-06,0.068
7.550E-06,0.064
7.560E-06,0.072
7.570E-06,0.068
7.580E-06,0.064
7.590E-06,0.064
7.600E-06,0.060
7.610E-06,0.060
7.620E-06,0.068
7.630E-06,0.060
7.640E-06,0.060
7.650E-06,0.060
7.660E-06,0.064
7.670E-06,0.064
7.680E-06,0.056
7.690E-06,0.056
7.700E-06,0.060
7.710E-06,0.060
7.720E-06,0.060
7.730E-06,0.056
7.740E-06,0.060
7.750E-06,0.060
7.760E-06,0.056
7.770E-06,0.056
7.780E-06,0.064
7.790E-06,0.056
