mediciones/Mediciones filtradas (saque las feas)/6-10/31.5/WaveData55134.csv

#timebase=2000000(ps)
,#voltbase=100000(mv/100)
#size=4000
-4.250E-06,0.012
-4.240E-06,-0.004
-4.230E-06,0.008
-4.220E-06,0.004
-4.210E-06,0.008
-4.200E-06,0.008
-4.190E-06,0.016
-4.180E-06,0.016
-4.170E-06,0.008
-4.160E-06,-0.004
-4.150E-06,-0.004
-4.140E-06,0.000
-4.130E-06,-0.004
-4.120E-06,0.000
-4.110E-06,0.008
-4.100E-06,0.012
-4.090E-06,0.008
-4.080E-06,0.004
-4.070E-06,0.000
-4.060E-06,0.004
-4.050E-06,0.008
-4.040E-06,0.012
-4.030E-06,0.008
-4.020E-06,0.012
-4.010E-06,0.004
-4.000E-06,-0.008
-3.990E-06,-0.004
-3.980E-06,0.000
-3.970E-06,0.000
-3.960E-06,0.004
-3.950E-06,0.012
-3.940E-06,0.004
-3.930E-06,-0.004
-3.920E-06,0.000
-3.910E-06,0.004
-3.900E-06,0.004
-3.890E-06,0.008
-3.880E-06,0.012
-3.870E-06,0.004
-3.860E-06,0.008
-3.850E-06,0.004
-3.840E-06,0.004
-3.830E-06,0.008
-3.820E-06,0.004
-3.810E-06,0.004
-3.800E-06,0.004
-3.790E-06,0.000
-3.780E-06,0.008
-3.770E-06,0.004
-3.760E-06,0.004
-3.750E-06,0.012
-3.740E-06,0.000
-3.730E-06,0.000
-3.720E-06,0.008
-3.710E-06,0.004
-3.700E-06,0.008
-3.690E-06,0.008
-3.680E-06,0.008
-3.670E-06,0.004
-3.660E-06,0.004
-3.650E-06,0.000
-3.640E-06,0.000
-3.630E-06,0.004
-3.620E-06,0.000
-3.610E-06,0.012
-3.600E-06,0.008
-3.590E-06,0.008
-3.580E-06,0.008
-3.570E-06,0.008
-3.560E-06,0.012
-3.550E-06,0.000
-3.540E-06,0.008
-3.530E-06,0.020
-3.520E-06,0.024
-3.510E-06,0.008
-3.500E-06,0.000
-3.490E-06,-0.008
-3.480E-06,-0.008
-3.470E-06,-0.004
-3.460E-06,-0.008
-3.450E-06,-0.004
-3.440E-06,0.000
-3.430E-06,-0.004
-3.420E-06,0.004
-3.410E-06,0.000
-3.400E-06,0.004
-3.390E-06,0.008
-3.380E-06,0.004
-3.370E-06,0.000
-3.360E-06,-0.004
-3.350E-06,-0.004
-3.340E-06,0.008
-3.330E-06,0.008
-3.320E-06,0.004
-3.310E-06,0.000
-3.300E-06,0.000
-3.290E-06,0.000
-3.280E-06,0.000
-3.270E-06,0.004
-3.260E-06,0.012
-3.250E-06,0.008
-3.240E-06,0.008
-3.230E-06,0.004
-3.220E-06,0.008
-3.210E-06,0.000
-3.200E-06,0.004
-3.190E-06,0.004
-3.180E-06,0.000
-3.170E-06,0.000
-3.160E-06,0.000
-3.150E-06,0.000
-3.140E-06,0.000
-3.130E-06,0.008
-3.120E-06,0.004
-3.110E-06,0.004
-3.100E-06,0.000
-3.090E-06,0.000
-3.080E-06,-0.004
-3.070E-06,0.008
-3.060E-06,0.008
-3.050E-06,0.008
-3.040E-06,0.008
-3.030E-06,0.004
-3.020E-06,0.000
-3.010E-06,0.000
-3.000E-06,0.004
-2.990E-06,0.004
-2.980E-06,0.012
-2.970E-06,0.012
-2.960E-06,0.000
-2.950E-06,0.004
-2.940E-06,0.000
-2.930E-06,0.004
-2.920E-06,0.008
-2.910E-06,0.004
-2.900E-06,0.004
-2.890E-06,0.004
-2.880E-06,0.004
-2.870E-06,0.004
-2.860E-06,0.004
-2.850E-06,0.008
-2.840E-06,0.008
-2.830E-06,0.004
-2.820E-06,0.004
-2.810E-06,0.000
-2.800E-06,0.004
-2.790E-06,0.012
-2.780E-06,0.012
-2.770E-06,0.008
-2.760E-06,0.012
-2.750E-06,0.012
-2.740E-06,-0.004
-2.730E-06,0.000
-2.720E-06,0.004
-2.710E-06,0.008
-2.700E-06,0.016
-2.690E-06,0.024
-2.680E-06,0.016
-2.670E-06,0.004
-2.660E-06,0.000
-2.650E-06,0.004
-2.640E-06,-0.008
-2.630E-06,0.004
-2.620E-06,0.004
-2.610E-06,0.004
-2.600E-06,0.004
-2.590E-06,0.012
-2.580E-06,0.016
-2.570E-06,-0.008
-2.560E-06,0.016
-2.550E-06,-0.004
-2.540E-06,0.000
-2.530E-06,0.008
-2.520E-06,0.020
-2.510E-06,0.008
-2.500E-06,0.036
-2.490E-06,0.040
-2.480E-06,0.016
-2.470E-06,-0.020
-2.460E-06,-0.044
-2.450E-06,-0.020
-2.440E-06,-0.012
-2.430E-06,0.016
-2.420E-06,0.028
-2.410E-06,0.012
-2.400E-06,0.000
-2.390E-06,0.000
-2.380E-06,-0.024
-2.370E-06,-0.032
-2.360E-06,0.000
-2.350E-06,0.016
-2.340E-06,0.032
-2.330E-06,0.024
-2.320E-06,0.016
-2.310E-06,-0.008
-2.300E-06,-0.004
-2.290E-06,-0.008
-2.280E-06,-0.008
-2.270E-06,0.000
-2.260E-06,0.004
-2.250E-06,0.012
-2.240E-06,0.012
-2.230E-06,0.008
-2.220E-06,0.000
-2.210E-06,-0.004
-2.200E-06,-0.004
-2.190E-06,0.008
-2.180E-06,0.016
-2.170E-06,0.012
-2.160E-06,0.012
-2.150E-06,0.024
-2.140E-06,0.016
-2.130E-06,0.000
-2.120E-06,-0.008
-2.110E-06,0.000
-2.100E-06,0.012
-2.090E-06,0.004
-2.080E-06,-0.008
-2.070E-06,-0.016
-2.060E-06,0.000
-2.050E-06,0.000
-2.040E-06,0.000
-2.030E-06,0.000
-2.020E-06,0.024
-2.010E-06,0.024
-2.000E-06,0.004
-1.990E-06,-0.012
-1.980E-06,-0.028
-1.970E-06,-0.008
-1.960E-06,0.004
-1.950E-06,0.020
-1.940E-06,0.012
-1.930E-06,0.016
-1.920E-06,0.004
-1.910E-06,-0.008
-1.900E-06,-0.020
-1.890E-06,-0.008
-1.880E-06,0.008
-1.870E-06,0.012
-1.860E-06,0.024
-1.850E-06,0.020
-1.840E-06,0.016
-1.830E-06,0.004
-1.820E-06,-0.004
-1.810E-06,-0.004
-1.800E-06,0.004
-1.790E-06,0.008
-1.780E-06,0.012
-1.770E-06,0.008
-1.760E-06,0.004
-1.750E-06,0.008
-1.740E-06,0.004
-1.730E-06,0.008
-1.720E-06,0.012
-1.710E-06,0.020
-1.700E-06,0.020
-1.690E-06,0.024
-1.680E-06,0.024
-1.670E-06,0.004
-1.660E-06,-0.012
-1.650E-06,-0.016
-1.640E-06,-0.008
-1.630E-06,0.004
-1.620E-06,0.020
-1.610E-06,0.028
-1.600E-06,0.016
-1.590E-06,0.008
-1.580E-06,-0.004
-1.570E-06,-0.012
-1.560E-06,-0.012
-1.550E-06,0.008
-1.540E-06,0.024
-1.530E-06,0.024
-1.520E-06,0.028
-1.510E-06,0.028
-1.500E-06,0.008
-1.490E-06,-0.004
-1.480E-06,-0.008
-1.470E-06,0.000
-1.460E-06,0.016
-1.450E-06,0.024
-1.440E-06,0.020
-1.430E-06,0.020
-1.420E-06,0.000
-1.410E-06,0.008
-1.400E-06,-0.016
-1.390E-06,0.032
-1.380E-06,0.004
-1.370E-06,0.052
-1.360E-06,0.076
-1.350E-06,0.016
-1.340E-06,-0.004
-1.330E-06,-0.044
-1.320E-06,-0.048
-1.310E-06,-0.068
-1.300E-06,-0.028
-1.290E-06,0.024
-1.280E-06,0.008
-1.270E-06,0.044
-1.260E-06,0.028
-1.250E-06,-0.012
-1.240E-06,-0.044
-1.230E-06,-0.052
-1.220E-06,-0.032
-1.210E-06,-0.008
-1.200E-06,0.024
-1.190E-06,0.036
-1.180E-06,0.020
-1.170E-06,0.004
-1.160E-06,-0.024
-1.150E-06,-0.028
-1.140E-06,-0.028
-1.130E-06,-0.016
-1.120E-06,0.008
-1.110E-06,0.020
-1.100E-06,0.028
-1.090E-06,0.016
-1.080E-06,-0.004
-1.070E-06,-0.012
-1.060E-06,-0.008
-1.050E-06,0.000
-1.040E-06,0.016
-1.030E-06,0.020
-1.020E-06,0.020
-1.010E-06,0.012
-1.000E-06,0.008
-9.900E-07,-0.008
-9.800E-07,0.008
-9.700E-07,0.012
-9.600E-07,0.020
-9.500E-07,0.032
-9.400E-07,0.032
-9.300E-07,0.024
-9.200E-07,0.016
-9.100E-07,0.012
-9.000E-07,0.016
-8.900E-07,0.012
-8.800E-07,0.008
-8.700E-07,0.012
-8.600E-07,0.000
-8.500E-07,0.008
-8.400E-07,0.008
-8.300E-07,0.008
-8.200E-07,0.012
-8.100E-07,0.012
-8.000E-07,0.012
-7.900E-07,0.020
-7.800E-07,0.028
-7.700E-07,0.036
-7.600E-07,0.024
-7.500E-07,0.020
-7.400E-07,0.012
-7.300E-07,0.004
-7.200E-07,0.012
-7.100E-07,0.024
-7.000E-07,0.024
-6.900E-07,0.020
-6.800E-07,0.012
-6.700E-07,0.012
-6.600E-07,0.012
-6.500E-07,0.016
-6.400E-07,0.020
-6.300E-07,0.028
-6.200E-07,0.036
-6.100E-07,0.028
-6.000E-07,0.024
-5.900E-07,0.024
-5.800E-07,0.000
-5.700E-07,0.008
-5.600E-07,-0.008
-5.500E-07,-0.004
-5.400E-07,0.024
-5.300E-07,0.004
-5.200E-07,0.000
-5.100E-07,-0.004
-5.000E-07,0.004
-4.900E-07,-0.004
-4.800E-07,0.008
-4.700E-07,0.008
-4.600E-07,0.012
-4.500E-07,0.028
-4.400E-07,0.036
-4.300E-07,0.028
-4.200E-07,0.020
-4.100E-07,0.032
-4.000E-07,0.036
-3.900E-07,0.040
-3.800E-07,0.052
-3.700E-07,0.056
-3.600E-07,0.072
-3.500E-07,0.072
-3.400E-07,0.080
-3.300E-07,0.068
-3.200E-07,0.072
-3.100E-07,0.060
-3.000E-07,0.060
-2.900E-07,0.056
-2.800E-07,0.060
-2.700E-07,0.072
-2.600E-07,0.060
-2.500E-07,0.064
-2.400E-07,0.060
-2.300E-07,0.044
-2.200E-07,0.060
-2.100E-07,0.068
-2.000E-07,0.060
-1.900E-07,0.064
-1.800E-07,0.060
-1.700E-07,0.072
-1.600E-07,0.056
-1.500E-07,0.060
-1.400E-07,0.060
-1.300E-07,0.036
-1.200E-07,0.040
-1.100E-07,0.056
-1.000E-07,0.028
-9.000E-08,0.064
-8.000E-08,0.036
-7.000E-08,0.032
-6.000E-08,-0.148
-5.000E-08,-0.276
-4.000E-08,-0.508
-3.000E-08,-0.512
-2.000E-08,-0.512
-1.000E-08,0.296
0.000E+00,0.516
1.000E-08,0.540
2.000E-08,0.540
3.000E-08,-0.032
4.000E-08,-0.508
5.000E-08,-0.508
6.000E-08,-0.508
7.000E-08,-0.068
8.000E-08,0.544
9.000E-08,0.540
1.000E-07,0.540
1.100E-07,0.284
1.200E-07,-0.292
1.300E-07,-0.512
1.400E-07,-0.512
1.500E-07,-0.356
1.600E-07,0.256
1.700E-07,0.540
1.800E-07,0.540
1.900E-07,0.284
2.000E-07,-0.028
2.100E-07,-0.356
2.200E-07,-0.464
2.300E-07,-0.216
2.400E-07,0.084
2.500E-07,0.424
2.600E-07,0.524
2.700E-07,0.372
2.800E-07,0.088
2.900E-07,-0.228
3.000E-07,-0.296
3.100E-07,-0.196
3.200E-07,0.100
3.300E-07,0.328
3.400E-07,0.440
3.500E-07,0.336
3.600E-07,0.152
3.700E-07,-0.076
3.800E-07,-0.172
3.900E-07,-0.140
4.000E-07,-0.004
4.100E-07,0.152
4.200E-07,0.288
4.300E-07,0.120
4.400E-07,-0.272
4.500E-07,-0.512
4.600E-07,-0.508
4.700E-07,-0.500
4.800E-07,-0.244
4.900E-07,0.344
5.000E-07,0.540
5.100E-07,0.540
5.200E-07,0.240
5.300E-07,-0.244
5.400E-07,-0.400
5.500E-07,-0.332
5.600E-07,-0.052
5.700E-07,0.316
5.800E-07,0.476
5.900E-07,0.304
6.000E-07,0.024
6.100E-07,-0.432
6.200E-07,-0.396
6.300E-07,-0.244
6.400E-07,0.048
6.500E-07,0.248
6.600E-07,0.364
6.700E-07,0.300
6.800E-07,0.000
6.900E-07,-0.112
7.000E-07,-0.228
7.100E-07,-0.136
7.200E-07,0.084
7.300E-07,0.364
7.400E-07,0.392
7.500E-07,0.260
7.600E-07,0.028
7.700E-07,-0.176
7.800E-07,-0.264
7.900E-07,-0.264
8.000E-07,-0.092
8.100E-07,0.020
8.200E-07,0.128
8.300E-07,0.048
8.400E-07,-0.116
8.500E-07,-0.104
8.600E-07,-0.068
8.700E-07,-0.088
8.800E-07,0.068
8.900E-07,0.280
9.000E-07,0.240
9.100E-07,0.188
9.200E-07,-0.140
9.300E-07,-0.336
9.400E-07,-0.504
9.500E-07,-0.432
9.600E-07,-0.024
9.700E-07,0.236
9.800E-07,0.120
9.900E-07,0.208
1.000E-06,0.056
1.010E-06,-0.032
1.020E-06,-0.160
1.030E-06,-0.260
1.040E-06,0.000
1.050E-06,0.180
1.060E-06,0.332
1.070E-06,0.344
1.080E-06,0.032
1.090E-06,-0.196
1.100E-06,-0.300
1.110E-06,-0.256
1.120E-06,-0.172
1.130E-06,0.092
1.140E-06,0.272
1.150E-06,0.284
1.160E-06,0.152
1.170E-06,0.000
1.180E-06,-0.204
1.190E-06,-0.232
1.200E-06,-0.192
1.210E-06,-0.052
1.220E-06,0.124
1.230E-06,0.328
1.240E-06,0.244
1.250E-06,0.080
1.260E-06,-0.100
1.270E-06,-0.176
1.280E-06,-0.104
1.290E-06,0.000
1.300E-06,0.184
1.310E-06,0.284
1.320E-06,0.348
1.330E-06,0.248
1.340E-06,0.092
1.350E-06,-0.076
1.360E-06,-0.144
1.370E-06,-0.068
1.380E-06,0.060
1.390E-06,0.204
1.400E-06,0.228
1.410E-06,0.200
1.420E-06,0.076
1.430E-06,-0.040
1.440E-06,-0.088
1.450E-06,-0.056
1.460E-06,0.064
1.470E-06,0.168
1.480E-06,0.240
1.490E-06,0.208
1.500E-06,0.140
1.510E-06,-0.020
1.520E-06,-0.172
1.530E-06,-0.204
1.540E-06,-0.204
1.550E-06,-0.132
1.560E-06,-0.072
1.570E-06,-0.012
1.580E-06,0.004
1.590E-06,-0.024
1.600E-06,-0.028
1.610E-06,-0.068
1.620E-06,-0.048
1.630E-06,-0.036
1.640E-06,0.016
1.650E-06,0.060
1.660E-06,0.076
1.670E-06,0.076
1.680E-06,0.052
1.690E-06,0.072
1.700E-06,0.064
1.710E-06,0.088
1.720E-06,0.108
1.730E-06,0.132
1.740E-06,0.144
1.750E-06,0.152
1.760E-06,0.092
1.770E-06,0.080
1.780E-06,0.084
1.790E-06,0.072
1.800E-06,0.108
1.810E-06,0.136
1.820E-06,0.156
1.830E-06,0.152
1.840E-06,0.144
1.850E-06,0.112
1.860E-06,0.096
1.870E-06,0.104
1.880E-06,0.108
1.890E-06,0.140
1.900E-06,0.152
1.910E-06,0.172
1.920E-06,0.160
1.930E-06,0.140
1.940E-06,0.120
1.950E-06,0.108
1.960E-06,0.108
1.970E-06,0.132
1.980E-06,0.152
1.990E-06,0.160
2.000E-06,0.152
2.010E-06,0.140
2.020E-06,0.128
2.030E-06,0.108
2.040E-06,0.108
2.050E-06,0.128
2.060E-06,0.140
2.070E-06,0.148
2.080E-06,0.148
2.090E-06,0.140
2.100E-06,0.120
2.110E-06,0.124
2.120E-06,0.132
2.130E-06,0.140
2.140E-06,0.140
2.150E-06,0.152
2.160E-06,0.148
2.170E-06,0.140
2.180E-06,0.144
2.190E-06,0.140
2.200E-06,0.132
2.210E-06,0.124
2.220E-06,0.096
2.230E-06,0.132
2.240E-06,0.132
2.250E-06,0.152
2.260E-06,0.160
2.270E-06,0.160
2.280E-06,0.140
2.290E-06,0.128
2.300E-06,0.096
2.310E-06,0.088
2.320E-06,0.056
2.330E-06,0.028
2.340E-06,0.012
2.350E-06,-0.076
2.360E-06,-0.120
2.370E-06,-0.124
2.380E-06,-0.076
2.390E-06,0.068
2.400E-06,0.096
2.410E-06,0.164
2.420E-06,0.112
2.430E-06,0.096
2.440E-06,0.072
2.450E-06,0.108
2.460E-06,0.120
2.470E-06,0.156
2.480E-06,0.156
2.490E-06,0.132
2.500E-06,0.112
2.510E-06,0.060
2.520E-06,0.080
2.530E-06,0.080
2.540E-06,0.112
2.550E-06,0.120
2.560E-06,0.140
2.570E-06,0.140
2.580E-06,0.132
2.590E-06,0.104
2.600E-06,0.084
2.610E-06,0.084
2.620E-06,0.096
2.630E-06,0.144
2.640E-06,0.168
2.650E-06,0.192
2.660E-06,0.168
2.670E-06,0.144
2.680E-06,0.104
2.690E-06,0.100
2.700E-06,0.108
2.710E-06,0.140
2.720E-06,0.168
2.730E-06,0.164
2.740E-06,0.156
2.750E-06,0.140
2.760E-06,0.124
2.770E-06,0.104
2.780E-06,0.112
2.790E-06,0.124
2.800E-06,0.140
2.810E-06,0.160
2.820E-06,0.164
2.830E-06,0.156
2.840E-06,0.144
2.850E-06,0.136
2.860E-06,0.128
2.870E-06,0.136
2.880E-06,0.144
2.890E-06,0.156
2.900E-06,0.164
2.910E-06,0.160
2.920E-06,0.152
2.930E-06,0.140
2.940E-06,0.140
2.950E-06,0.136
2.960E-06,0.148
2.970E-06,0.152
2.980E-06,0.160
2.990E-06,0.156
3.000E-06,0.156
3.010E-06,0.140
3.020E-06,0.128
3.030E-06,0.128
3.040E-06,0.140
3.050E-06,0.144
3.060E-06,0.156
3.070E-06,0.164
3.080E-06,0.156
3.090E-06,0.144
3.100E-06,0.136
3.110E-06,0.132
3.120E-06,0.128
3.130E-06,0.132
3.140E-06,0.136
3.150E-06,0.148
3.160E-06,0.148
3.170E-06,0.136
3.180E-06,0.132
3.190E-06,0.128
3.200E-06,0.124
3.210E-06,0.128
3.220E-06,0.132
3.230E-06,0.148
3.240E-06,0.152
3.250E-06,0.152
3.260E-06,0.144
3.270E-06,0.136
3.280E-06,0.132
3.290E-06,0.136
3.300E-06,0.144
3.310E-06,0.160
3.320E-06,0.152
3.330E-06,0.152
3.340E-06,0.144
3.350E-06,0.132
3.360E-06,0.128
3.370E-06,0.136
3.380E-06,0.136
3.390E-06,0.148
3.400E-06,0.152
3.410E-06,0.144
3.420E-06,0.144
3.430E-06,0.136
3.440E-06,0.136
3.450E-06,0.136
3.460E-06,0.136
3.470E-06,0.144
3.480E-06,0.144
3.490E-06,0.140
3.500E-06,0.136
3.510E-06,0.132
3.520E-06,0.132
3.530E-06,0.128
3.540E-06,0.132
3.550E-06,0.148
3.560E-06,0.148
3.570E-06,0.136
3.580E-06,0.136
3.590E-06,0.136
3.600E-06,0.128
3.610E-06,0.128
3.620E-06,0.128
3.630E-06,0.132
3.640E-06,0.140
3.650E-06,0.136
3.660E-06,0.132
3.670E-06,0.128
3.680E-06,0.124
3.690E-06,0.120
3.700E-06,0.120
3.710E-06,0.128
3.720E-06,0.136
3.730E-06,0.136
3.740E-06,0.136
3.750E-06,0.136
3.760E-06,0.128
3.770E-06,0.128
3.780E-06,0.128
3.790E-06,0.128
3.800E-06,0.136
3.810E-06,0.136
3.820E-06,0.132
3.830E-06,0.136
3.840E-06,0.132
3.850E-06,0.132
3.860E-06,0.132
3.870E-06,0.132
3.880E-06,0.132
3.890E-06,0.132
3.900E-06,0.132
3.910E-06,0.132
3.920E-06,0.132
3.930E-06,0.128
3.940E-06,0.124
3.950E-06,0.124
3.960E-06,0.128
3.970E-06,0.128
3.980E-06,0.128
3.990E-06,0.128
4.000E-06,0.124
4.010E-06,0.124
4.020E-06,0.124
4.030E-06,0.116
4.040E-06,0.120
4.050E-06,0.124
4.060E-06,0.124
4.070E-06,0.124
4.080E-06,0.124
4.090E-06,0.124
4.100E-06,0.116
4.110E-06,0.120
4.120E-06,0.120
4.130E-06,0.124
4.140E-06,0.128
4.150E-06,0.128
4.160E-06,0.128
4.170E-06,0.124
4.180E-06,0.124
4.190E-06,0.124
4.200E-06,0.124
4.210E-06,0.124
4.220E-06,0.124
4.230E-06,0.124
4.240E-06,0.128
4.250E-06,0.128
4.260E-06,0.128
4.270E-06,0.128
4.280E-06,0.124
4.290E-06,0.124
4.300E-06,0.120
4.310E-06,0.116
4.320E-06,0.120
4.330E-06,0.124
4.340E-06,0.120
4.350E-06,0.120
4.360E-06,0.120
4.370E-06,0.120
4.380E-06,0.124
4.390E-06,0.120
4.400E-06,0.120
4.410E-06,0.120
4.420E-06,0.120
4.430E-06,0.120
4.440E-06,0.124
4.450E-06,0.112
4.460E-06,0.112
4.470E-06,0.116
4.480E-06,0.112
4.490E-06,0.120
4.500E-06,0.112
4.510E-06,0.112
4.520E-06,0.116
4.530E-06,0.108
4.540E-06,0.112
4.550E-06,0.112
4.560E-06,0.112
4.570E-06,0.108
4.580E-06,0.112
4.590E-06,0.108
4.600E-06,0.108
4.610E-06,0.112
4.620E-06,0.108
4.630E-06,0.104
4.640E-06,0.108
4.650E-06,0.112
4.660E-06,0.112
4.670E-06,0.108
4.680E-06,0.108
4.690E-06,0.108
4.700E-06,0.108
4.710E-06,0.108
4.720E-06,0.104
4.730E-06,0.104
4.740E-06,0.104
4.750E-06,0.104
4.760E-06,0.104
4.770E-06,0.108
4.780E-06,0.108
4.790E-06,0.104
4.800E-06,0.104
4.810E-06,0.104
4.820E-06,0.108
4.830E-06,0.104
4.840E-06,0.104
4.850E-06,0.108
4.860E-06,0.104
4.870E-06,0.096
4.880E-06,0.104
4.890E-06,0.104
4.900E-06,0.104
4.910E-06,0.100
4.920E-06,0.104
4.930E-06,0.104
4.940E-06,0.096
4.950E-06,0.096
4.960E-06,0.096
4.970E-06,0.096
4.980E-06,0.096
4.990E-06,0.096
5.000E-06,0.100
5.010E-06,0.100
5.020E-06,0.104
5.030E-06,0.100
5.040E-06,0.096
5.050E-06,0.096
5.060E-06,0.096
5.070E-06,0.096
5.080E-06,0.096
5.090E-06,0.100
5.100E-06,0.100
5.110E-06,0.100
5.120E-06,0.096
5.130E-06,0.096
5.140E-06,0.096
5.150E-06,0.092
5.160E-06,0.092
5.170E-06,0.100
5.180E-06,0.104
5.190E-06,0.096
5.200E-06,0.096
5.210E-06,0.096
5.220E-06,0.096
5.230E-06,0.092
5.240E-06,0.092
5.250E-06,0.096
5.260E-06,0.092
5.270E-06,0.096
5.280E-06,0.096
5.290E-06,0.092
5.300E-06,0.092
5.310E-06,0.088
5.320E-06,0.092
5.330E-06,0.088
5.340E-06,0.096
5.350E-06,0.092
5.360E-06,0.092
5.370E-06,0.088
5.380E-06,0.092
5.390E-06,0.088
5.400E-06,0.088
5.410E-06,0.088
5.420E-06,0.088
5.430E-06,0.084
5.440E-06,0.092
5.450E-06,0.084
5.460E-06,0.084
5.470E-06,0.088
5.480E-06,0.084
5.490E-06,0.088
5.500E-06,0.084
5.510E-06,0.088
5.520E-06,0.088
5.530E-06,0.084
5.540E-06,0.084
5.550E-06,0.084
5.560E-06,0.088
5.570E-06,0.084
5.580E-06,0.084
5.590E-06,0.076
5.600E-06,0.084
5.610E-06,0.080
5.620E-06,0.084
5.630E-06,0.084
5.640E-06,0.084
5.650E-06,0.088
5.660E-06,0.084
5.670E-06,0.084
5.680E-06,0.080
5.690E-06,0.084
5.700E-06,0.072
5.710E-06,0.080
5.720E-06,0.076
5.730E-06,0.076
5.740E-06,0.072
5.750E-06,0.076
5.760E-06,0.076
5.770E-06,0.080
5.780E-06,0.072
5.790E-06,0.076
5.800E-06,0.076
5.810E-06,0.072
5.820E-06,0.076
5.830E-06,0.076
5.840E-06,0.076
5.850E-06,0.076
5.860E-06,0.076
5.870E-06,0.072
5.880E-06,0.072
5.890E-06,0.076
5.900E-06,0.072
5.910E-06,0.072
5.920E-06,0.076
5.930E-06,0.072
5.940E-06,0.068
5.950E-06,0.072
5.960E-06,0.076
5.970E-06,0.076
5.980E-06,0.072
5.990E-06,0.068
6.000E-06,0.076
6.010E-06,0.068
6.020E-06,0.068
6.030E-06,0.068
6.040E-06,0.068
6.050E-06,0.072
6.060E-06,0.072
6.070E-06,0.064
6.080E-06,0.064
6.090E-06,0.068
6.100E-06,0.068
6.110E-06,0.064
6.120E-06,0.064
6.130E-06,0.064
6.140E-06,0.060
6.150E-06,0.064
6.160E-06,0.064
6.170E-06,0.060
6.180E-06,0.060
6.190E-06,0.060
6.200E-06,0.060
6.210E-06,0.056
6.220E-06,0.060
6.230E-06,0.064
6.240E-06,0.060
6.250E-06,0.056
6.260E-06,0.056
6.270E-06,0.056
6.280E-06,0.056
6.290E-06,0.060
6.300E-06,0.060
6.310E-06,0.056
6.320E-06,0.060
6.330E-06,0.056
6.340E-06,0.060
6.350E-06,0.060
6.360E-06,0.060
6.370E-06,0.056
6.380E-06,0.056
6.390E-06,0.060
6.400E-06,0.056
6.410E-06,0.064
6.420E-06,0.056
6.430E-06,0.060
6.440E-06,0.060
6.450E-06,0.056
6.460E-06,0.056
6.470E-06,0.056
6.480E-06,0.056
6.490E-06,0.056
6.500E-06,0.060
6.510E-06,0.056
6.520E-06,0.060
6.530E-06,0.056
6.540E-06,0.060
6.550E-06,0.056
6.560E-06,0.056
6.570E-06,0.052
6.580E-06,0.052
6.590E-06,0.056
6.600E-06,0.052
6.610E-06,0.052
6.620E-06,0.060
6.630E-06,0.060
6.640E-06,0.056
6.650E-06,0.060
6.660E-06,0.056
6.670E-06,0.052
6.680E-06,0.056
6.690E-06,0.056
6.700E-06,0.052
6.710E-06,0.060
6.720E-06,0.056
6.730E-06,0.056
6.740E-06,0.052
6.750E-06,0.052
6.760E-06,0.052
6.770E-06,0.052
6.780E-06,0.052
6.790E-06,0.052
6.800E-06,0.052
6.810E-06,0.048
6.820E-06,0.044
6.830E-06,0.048
6.840E-06,0.044
6.850E-06,0.048
6.860E-06,0.044
6.870E-06,0.048
6.880E-06,0.048
6.890E-06,0.044
6.900E-06,0.044
6.910E-06,0.040
6.920E-06,0.044
6.930E-06,0.044
6.940E-06,0.052
6.950E-06,0.044
6.960E-06,0.040
6.970E-06,0.044
6.980E-06,0.048
6.990E-06,0.044
7.000E-06,0.044
7.010E-06,0.044
7.020E-06,0.040
7.030E-06,0.044
7.040E-06,0.040
7.050E-06,0.036
7.060E-06,0.040
7.070E-06,0.040
7.080E-06,0.044
7.090E-06,0.040
7.100E-06,0.044
7.110E-06,0.040
7.120E-06,0.032
7.130E-06,0.036
7.140E-06,0.036
7.150E-06,0.040
7.160E-06,0.032
7.170E-06,0.036
7.180E-06,0.036
7.190E-06,0.036
7.200E-06,0.032
7.210E-06,0.036
7.220E-06,0.036
7.230E-06,0.032
7.240E-06,0.032
7.250E-06,0.036
7.260E-06,0.032
7.270E-06,0.032
7.280E-06,0.032
7.290E-06,0.036
7.300E-06,0.032
7.310E-06,0.036
7.320E-06,0.032
7.330E-06,0.036
7.340E-06,0.032
7.350E-06,0.024
7.360E-06,0.028
7.370E-06,0.028
7.380E-06,0.028
7.390E-06,0.032
7.400E-06,0.028
7.410E-06,0.024
7.420E-06,0.028
7.430E-06,0.032
7.440E-06,0.028
7.450E-06,0.024
7.460E-06,0.024
7.470E-06,0.024
7.480E-06,0.024
7.490E-06,0.024
7.500E-06,0.028
7.510E-06,0.024
7.520E-06,0.028
7.530E-06,0.024
7.540E-06,0.028
7.550E-06,0.028
7.560E-06,0.024
7.570E-06,0.028
7.580E-06,0.024
7.590E-06,0.028
7.600E-06,0.028
7.610E-06,0.028
7.620E-06,0.024
7.630E-06,0.028
7.640E-06,0.028
7.650E-06,0.028
7.660E-06,0.028
7.670E-06,0.032
7.680E-06,0.020
7.690E-06,0.024
7.700E-06,0.028
7.710E-06,0.024
7.720E-06,0.028
7.730E-06,0.016
7.740E-06,0.024
7.750E-06,0.028
7.760E-06,0.024
7.770E-06,0.020
7.780E-06,0.024
7.790E-06,0.024
7.800E-06,0.020
7.810E-06,0.024
7.820E-06,0.012
7.830E-06,0.016
