mediciones/Mediciones filtradas (saque las feas)/6-10/52.5/WaveData55173.csv

#timebase=2000000(ps)
,#voltbase=500000(mv/100)
#size=4000
-4.250E-06,-0.060
-4.240E-06,0.140
-4.230E-06,0.200
-4.220E-06,0.200
-4.210E-06,0.140
-4.200E-06,-0.020
-4.190E-06,-0.080
-4.180E-06,-0.020
-4.170E-06,0.180
-4.160E-06,0.240
-4.150E-06,0.300
-4.140E-06,0.220
-4.130E-06,0.100
-4.120E-06,0.040
-4.110E-06,0.040
-4.100E-06,0.100
-4.090E-06,0.160
-4.080E-06,0.160
-4.070E-06,0.120
-4.060E-06,0.020
-4.050E-06,-0.020
-4.040E-06,-0.020
-4.030E-06,-0.020
-4.020E-06,-0.020
-4.010E-06,-0.060
-4.000E-06,-0.080
-3.990E-06,-0.100
-3.980E-06,-0.040
-3.970E-06,0.020
-3.960E-06,0.040
-3.950E-06,0.000
-3.940E-06,0.000
-3.930E-06,-0.020
-3.920E-06,-0.020
-3.910E-06,0.020
-3.900E-06,0.020
-3.890E-06,0.080
-3.880E-06,0.160
-3.870E-06,0.100
-3.860E-06,0.120
-3.850E-06,0.040
-3.840E-06,0.040
-3.830E-06,0.080
-3.820E-06,-0.100
-3.810E-06,0.100
-3.800E-06,0.120
-3.790E-06,0.160
-3.780E-06,0.340
-3.770E-06,0.160
-3.760E-06,0.200
-3.750E-06,0.080
-3.740E-06,-0.040
-3.730E-06,0.080
-3.720E-06,0.080
-3.710E-06,0.200
-3.700E-06,0.200
-3.690E-06,0.100
-3.680E-06,0.020
-3.670E-06,-0.060
-3.660E-06,0.000
-3.650E-06,0.060
-3.640E-06,0.080
-3.630E-06,0.100
-3.620E-06,0.040
-3.610E-06,-0.060
-3.600E-06,-0.080
-3.590E-06,-0.080
-3.580E-06,-0.100
-3.570E-06,0.000
-3.560E-06,-0.020
-3.550E-06,0.040
-3.540E-06,-0.100
-3.530E-06,-0.180
-3.520E-06,-0.160
-3.510E-06,-0.240
-3.500E-06,-0.080
-3.490E-06,0.000
-3.480E-06,0.020
-3.470E-06,0.080
-3.460E-06,-0.020
-3.450E-06,-0.040
-3.440E-06,0.040
-3.430E-06,0.040
-3.420E-06,0.220
-3.410E-06,0.260
-3.400E-06,0.220
-3.390E-06,0.220
-3.380E-06,0.100
-3.370E-06,0.100
-3.360E-06,0.100
-3.350E-06,0.160
-3.340E-06,0.180
-3.330E-06,0.220
-3.320E-06,0.200
-3.310E-06,0.100
-3.300E-06,0.100
-3.290E-06,0.120
-3.280E-06,0.060
-3.270E-06,0.160
-3.260E-06,0.160
-3.250E-06,0.100
-3.240E-06,0.220
-3.230E-06,0.180
-3.220E-06,0.120
-3.210E-06,0.040
-3.200E-06,0.000
-3.190E-06,0.000
-3.180E-06,0.040
-3.170E-06,0.120
-3.160E-06,0.180
-3.150E-06,0.300
-3.140E-06,0.260
-3.130E-06,0.180
-3.120E-06,0.160
-3.110E-06,0.020
-3.100E-06,0.120
-3.090E-06,0.060
-3.080E-06,0.040
-3.070E-06,-0.020
-3.060E-06,-0.020
-3.050E-06,0.040
-3.040E-06,0.100
-3.030E-06,0.140
-3.020E-06,0.180
-3.010E-06,0.160
-3.000E-06,0.120
-2.990E-06,0.180
-2.980E-06,0.220
-2.970E-06,0.160
-2.960E-06,0.180
-2.950E-06,0.060
-2.940E-06,0.040
-2.930E-06,0.000
-2.920E-06,-0.020
-2.910E-06,0.060
-2.900E-06,0.080
-2.890E-06,0.080
-2.880E-06,0.040
-2.870E-06,0.020
-2.860E-06,0.020
-2.850E-06,-0.020
-2.840E-06,-0.020
-2.830E-06,0.000
-2.820E-06,0.000
-2.810E-06,-0.020
-2.800E-06,0.000
-2.790E-06,0.000
-2.780E-06,0.060
-2.770E-06,0.040
-2.760E-06,0.060
-2.750E-06,0.040
-2.740E-06,-0.020
-2.730E-06,0.000
-2.720E-06,0.000
-2.710E-06,0.020
-2.700E-06,0.020
-2.690E-06,0.020
-2.680E-06,0.040
-2.670E-06,0.020
-2.660E-06,0.080
-2.650E-06,0.120
-2.640E-06,0.140
-2.630E-06,0.160
-2.620E-06,0.120
-2.610E-06,0.080
-2.600E-06,0.080
-2.590E-06,0.000
-2.580E-06,0.060
-2.570E-06,0.160
-2.560E-06,0.120
-2.550E-06,0.280
-2.540E-06,0.280
-2.530E-06,0.160
-2.520E-06,0.260
-2.510E-06,0.160
-2.500E-06,0.180
-2.490E-06,0.240
-2.480E-06,0.180
-2.470E-06,0.300
-2.460E-06,0.380
-2.450E-06,0.300
-2.440E-06,0.260
-2.430E-06,0.320
-2.420E-06,0.200
-2.410E-06,0.140
-2.400E-06,0.020
-2.390E-06,-0.020
-2.380E-06,0.080
-2.370E-06,-0.040
-2.360E-06,0.340
-2.350E-06,0.120
-2.340E-06,0.280
-2.330E-06,0.280
-2.320E-06,-0.220
-2.310E-06,0.280
-2.300E-06,-0.200
-2.290E-06,-0.440
-2.280E-06,-0.020
-2.270E-06,-0.320
-2.260E-06,0.100
-2.250E-06,0.320
-2.240E-06,0.040
-2.230E-06,0.100
-2.220E-06,0.000
-2.210E-06,-0.240
-2.200E-06,0.060
-2.190E-06,0.140
-2.180E-06,0.140
-2.170E-06,0.180
-2.160E-06,-0.020
-2.150E-06,-0.100
-2.140E-06,0.040
-2.130E-06,0.100
-2.120E-06,0.080
-2.110E-06,0.120
-2.100E-06,0.020
-2.090E-06,-0.020
-2.080E-06,0.060
-2.070E-06,0.140
-2.060E-06,0.120
-2.050E-06,0.180
-2.040E-06,0.140
-2.030E-06,0.040
-2.020E-06,0.160
-2.010E-06,0.200
-2.000E-06,0.400
-1.990E-06,0.420
-1.980E-06,0.200
-1.970E-06,-0.020
-1.960E-06,0.220
-1.950E-06,-0.260
-1.940E-06,-0.160
-1.930E-06,0.260
-1.920E-06,-0.340
-1.910E-06,0.260
-1.900E-06,0.660
-1.890E-06,-0.320
-1.880E-06,0.340
-1.870E-06,-0.540
-1.860E-06,-1.260
-1.850E-06,0.120
-1.840E-06,-0.160
-1.830E-06,0.780
-1.820E-06,1.240
-1.810E-06,0.420
-1.800E-06,0.160
-1.790E-06,-0.180
-1.780E-06,-0.780
-1.770E-06,0.000
-1.760E-06,0.280
-1.750E-06,0.420
-1.740E-06,0.580
-1.730E-06,0.160
-1.720E-06,-0.100
-1.710E-06,-0.080
-1.700E-06,-0.040
-1.690E-06,0.000
-1.680E-06,0.180
-1.670E-06,0.080
-1.660E-06,-0.040
-1.650E-06,-0.060
-1.640E-06,-0.180
-1.630E-06,-0.240
-1.620E-06,-0.260
-1.610E-06,-0.480
-1.600E-06,-0.400
-1.590E-06,-0.180
-1.580E-06,-0.100
-1.570E-06,0.100
-1.560E-06,0.300
-1.550E-06,0.180
-1.540E-06,0.000
-1.530E-06,-0.060
-1.520E-06,-0.260
-1.510E-06,-0.080
-1.500E-06,0.080
-1.490E-06,0.200
-1.480E-06,0.400
-1.470E-06,0.300
-1.460E-06,0.260
-1.450E-06,0.180
-1.440E-06,0.160
-1.430E-06,0.320
-1.420E-06,0.360
-1.410E-06,0.340
-1.400E-06,0.260
-1.390E-06,0.260
-1.380E-06,0.280
-1.370E-06,0.260
-1.360E-06,0.340
-1.350E-06,0.200
-1.340E-06,0.100
-1.330E-06,0.000
-1.320E-06,-0.020
-1.310E-06,0.020
-1.300E-06,0.060
-1.290E-06,0.080
-1.280E-06,0.000
-1.270E-06,-0.120
-1.260E-06,-0.140
-1.250E-06,-0.340
-1.240E-06,-0.060
-1.230E-06,0.060
-1.220E-06,-0.140
-1.210E-06,-0.100
-1.200E-06,-0.380
-1.190E-06,0.100
-1.180E-06,0.220
-1.170E-06,0.580
-1.160E-06,0.700
-1.150E-06,0.200
-1.140E-06,0.000
-1.130E-06,-0.380
-1.120E-06,-0.300
-1.110E-06,0.060
-1.100E-06,0.280
-1.090E-06,0.340
-1.080E-06,0.220
-1.070E-06,-0.160
-1.060E-06,-0.160
-1.050E-06,-0.180
-1.040E-06,-0.080
-1.030E-06,0.040
-1.020E-06,0.120
-1.010E-06,0.000
-1.000E-06,-0.140
-9.900E-07,-0.220
-9.800E-07,-0.200
-9.700E-07,-0.180
-9.600E-07,-0.100
-9.500E-07,-0.020
-9.400E-07,-0.100
-9.300E-07,0.100
-9.200E-07,-0.140
-9.100E-07,-0.240
-9.000E-07,-0.160
-8.900E-07,-0.260
-8.800E-07,0.140
-8.700E-07,0.460
-8.600E-07,0.480
-8.500E-07,0.660
-8.400E-07,0.320
-8.300E-07,0.260
-8.200E-07,0.200
-8.100E-07,0.000
-8.000E-07,0.400
-7.900E-07,0.460
-7.800E-07,0.340
-7.700E-07,0.680
-7.600E-07,0.160
-7.500E-07,0.160
-7.400E-07,0.200
-7.300E-07,0.000
-7.200E-07,0.380
-7.100E-07,0.420
-7.000E-07,0.400
-6.900E-07,0.540
-6.800E-07,0.380
-6.700E-07,0.340
-6.600E-07,0.360
-6.500E-07,0.280
-6.400E-07,0.260
-6.300E-07,0.220
-6.200E-07,0.080
-6.100E-07,-0.020
-6.000E-07,-0.020
-5.900E-07,-0.160
-5.800E-07,-0.080
-5.700E-07,-0.060
-5.600E-07,-0.020
-5.500E-07,0.000
-5.400E-07,-0.080
-5.300E-07,-0.160
-5.200E-07,-0.160
-5.100E-07,-0.160
-5.000E-07,-0.120
-4.900E-07,-0.100
-4.800E-07,-0.060
-4.700E-07,-0.040
-4.600E-07,-0.100
-4.500E-07,-0.100
-4.400E-07,-0.140
-4.300E-07,-0.140
-4.200E-07,-0.120
-4.100E-07,-0.080
-4.000E-07,-0.080
-3.900E-07,-0.020
-3.800E-07,-0.060
-3.700E-07,-0.260
-3.600E-07,-0.140
-3.500E-07,-0.240
-3.400E-07,-0.100
-3.300E-07,0.100
-3.200E-07,0.040
-3.100E-07,0.220
-3.000E-07,0.120
-2.900E-07,0.080
-2.800E-07,0.120
-2.700E-07,0.080
-2.600E-07,0.220
-2.500E-07,0.400
-2.400E-07,0.480
-2.300E-07,0.420
-2.200E-07,0.460
-2.100E-07,0.460
-2.000E-07,0.480
-1.900E-07,0.580
-1.800E-07,0.580
-1.700E-07,0.620
-1.600E-07,0.640
-1.500E-07,0.560
-1.400E-07,0.560
-1.300E-07,0.500
-1.200E-07,0.500
-1.100E-07,0.500
-1.000E-07,0.520
-9.000E-08,0.460
-8.000E-08,0.560
-7.000E-08,0.420
-6.000E-08,0.340
-5.000E-08,0.160
-4.000E-08,-0.160
-3.000E-08,0.320
-2.000E-08,-0.140
-1.000E-08,-2.680
0.000E+00,-0.480
1.000E-08,-1.780
2.000E-08,-0.240
3.000E-08,2.760
4.000E-08,1.520
5.000E-08,2.200
6.000E-08,-0.020
7.000E-08,-2.060
8.000E-08,-1.340
9.000E-08,-0.660
1.000E-07,0.180
1.100E-07,1.760
1.200E-07,0.700
1.300E-07,-0.020
1.400E-07,-0.260
1.500E-07,-0.900
1.600E-07,-0.760
1.700E-07,-0.240
1.800E-07,-0.400
1.900E-07,-0.620
2.000E-07,-0.640
2.100E-07,-1.000
2.200E-07,-0.840
2.300E-07,-0.860
2.400E-07,-0.940
2.500E-07,-0.980
2.600E-07,-0.740
2.700E-07,-0.360
2.800E-07,-0.080
2.900E-07,0.160
3.000E-07,0.240
3.100E-07,0.160
3.200E-07,0.380
3.300E-07,0.620
3.400E-07,0.780
3.500E-07,0.920
3.600E-07,0.840
3.700E-07,0.940
3.800E-07,1.020
3.900E-07,1.120
4.000E-07,1.240
4.100E-07,1.260
4.200E-07,1.040
4.300E-07,1.120
4.400E-07,0.680
4.500E-07,0.460
4.600E-07,0.380
4.700E-07,0.120
4.800E-07,0.480
4.900E-07,0.540
5.000E-07,0.740
5.100E-07,0.520
5.200E-07,0.140
5.300E-07,-0.020
5.400E-07,0.000
5.500E-07,0.440
5.600E-07,0.400
5.700E-07,0.760
5.800E-07,0.220
5.900E-07,-0.500
6.000E-07,-1.280
6.100E-07,-2.180
6.200E-07,0.860
6.300E-07,-1.100
6.400E-07,0.040
6.500E-07,0.000
6.600E-07,-1.960
6.700E-07,-0.320
6.800E-07,-0.520
6.900E-07,0.420
7.000E-07,1.860
7.100E-07,0.900
7.200E-07,0.260
7.300E-07,-0.640
7.400E-07,-0.760
7.500E-07,-0.380
7.600E-07,0.420
7.700E-07,0.840
7.800E-07,0.520
7.900E-07,0.720
8.000E-07,0.060
8.100E-07,0.100
8.200E-07,0.120
8.300E-07,-0.200
8.400E-07,-0.260
8.500E-07,-0.640
8.600E-07,-0.700
8.700E-07,-0.620
8.800E-07,-0.340
8.900E-07,-0.320
9.000E-07,-0.260
9.100E-07,-0.420
9.200E-07,-0.500
9.300E-07,-0.460
9.400E-07,-0.340
9.500E-07,-0.140
9.600E-07,-0.020
9.700E-07,0.160
9.800E-07,0.300
9.900E-07,0.320
1.000E-06,0.260
1.010E-06,0.280
1.020E-06,0.280
1.030E-06,0.400
1.040E-06,0.380
1.050E-06,0.440
1.060E-06,0.320
1.070E-06,0.220
1.080E-06,0.040
1.090E-06,0.000
1.100E-06,0.000
1.110E-06,-0.080
1.120E-06,-0.040
1.130E-06,0.020
1.140E-06,0.020
1.150E-06,0.080
1.160E-06,0.000
1.170E-06,0.000
1.180E-06,0.000
1.190E-06,-0.020
1.200E-06,0.120
1.210E-06,0.160
1.220E-06,0.280
1.230E-06,0.200
1.240E-06,0.260
1.250E-06,0.360
1.260E-06,0.300
1.270E-06,0.300
1.280E-06,0.160
1.290E-06,0.020
1.300E-06,-0.020
1.310E-06,-0.080
1.320E-06,-0.120
1.330E-06,-0.060
1.340E-06,-0.160
1.350E-06,-0.260
1.360E-06,-0.420
1.370E-06,-0.500
1.380E-06,-0.600
1.390E-06,-0.520
1.400E-06,-0.340
1.410E-06,-0.040
1.420E-06,0.100
1.430E-06,0.140
1.440E-06,0.300
1.450E-06,0.080
1.460E-06,-0.080
1.470E-06,-0.100
1.480E-06,-0.220
1.490E-06,-0.120
1.500E-06,0.020
1.510E-06,0.100
1.520E-06,0.020
1.530E-06,-0.240
1.540E-06,-0.540
1.550E-06,-0.820
1.560E-06,-1.000
1.570E-06,-0.700
1.580E-06,-0.080
1.590E-06,0.560
1.600E-06,1.440
1.610E-06,1.600
1.620E-06,1.460
1.630E-06,0.900
1.640E-06,0.220
1.650E-06,0.020
1.660E-06,-0.160
1.670E-06,0.260
1.680E-06,0.340
1.690E-06,0.120
1.700E-06,0.160
1.710E-06,-0.240
1.720E-06,-0.120
1.730E-06,0.120
1.740E-06,0.760
1.750E-06,1.500
1.760E-06,1.660
1.770E-06,1.820
1.780E-06,1.000
1.790E-06,0.500
1.800E-06,0.440
1.810E-06,0.580
1.820E-06,0.740
1.830E-06,1.040
1.840E-06,0.720
1.850E-06,0.660
1.860E-06,0.500
1.870E-06,0.140
1.880E-06,0.360
1.890E-06,0.220
1.900E-06,0.100
1.910E-06,0.260
1.920E-06,0.080
1.930E-06,0.160
1.940E-06,0.220
1.950E-06,0.000
1.960E-06,-0.360
1.970E-06,-0.860
1.980E-06,-1.500
1.990E-06,-2.020
2.000E-06,-2.340
2.010E-06,-2.660
2.020E-06,-2.660
2.030E-06,-2.660
2.040E-06,-2.660
2.050E-06,-2.660
2.060E-06,-2.660
2.070E-06,-2.660
2.080E-06,-2.680
2.090E-06,-2.660
2.100E-06,-2.660
2.110E-06,-2.660
2.120E-06,-2.680
2.130E-06,-2.680
2.140E-06,-2.680
2.150E-06,-2.680
2.160E-06,-2.520
2.170E-06,-2.320
2.180E-06,-2.040
2.190E-06,-1.820
2.200E-06,-1.560
2.210E-06,-1.300
2.220E-06,-1.120
2.230E-06,-1.000
2.240E-06,-0.860
2.250E-06,-0.760
2.260E-06,-0.700
2.270E-06,-0.600
2.280E-06,-0.520
2.290E-06,-0.440
2.300E-06,-0.440
2.310E-06,-0.420
2.320E-06,-0.380
2.330E-06,-0.360
2.340E-06,-0.320
2.350E-06,-0.340
2.360E-06,-0.280
2.370E-06,-0.260
2.380E-06,-0.240
2.390E-06,-0.220
2.400E-06,-0.260
2.410E-06,-0.360
2.420E-06,-0.420
2.430E-06,-0.500
2.440E-06,-0.460
2.450E-06,-0.400
2.460E-06,-0.360
2.470E-06,-0.340
2.480E-06,-0.340
2.490E-06,-0.240
2.500E-06,-0.220
2.510E-06,-0.180
2.520E-06,-0.080
2.530E-06,0.000
2.540E-06,0.080
2.550E-06,0.160
2.560E-06,0.200
2.570E-06,0.240
2.580E-06,0.280
2.590E-06,0.280
2.600E-06,0.220
2.610E-06,0.160
2.620E-06,0.100
2.630E-06,0.040
2.640E-06,0.020
2.650E-06,0.000
2.660E-06,-0.080
2.670E-06,-0.180
2.680E-06,-0.220
2.690E-06,-0.240
2.700E-06,-0.260
2.710E-06,-0.280
2.720E-06,-0.300
2.730E-06,-0.280
2.740E-06,-0.260
2.750E-06,-0.220
2.760E-06,-0.180
2.770E-06,-0.160
2.780E-06,-0.120
2.790E-06,-0.040
2.800E-06,0.000
2.810E-06,0.100
2.820E-06,0.160
2.830E-06,0.200
2.840E-06,0.280
2.850E-06,0.320
2.860E-06,0.360
2.870E-06,0.360
2.880E-06,0.380
2.890E-06,0.380
2.900E-06,0.380
2.910E-06,0.360
2.920E-06,0.340
2.930E-06,0.280
2.940E-06,0.300
2.950E-06,0.280
2.960E-06,0.240
2.970E-06,0.260
2.980E-06,0.240
2.990E-06,0.220
3.000E-06,0.260
3.010E-06,0.280
3.020E-06,0.320
3.030E-06,0.320
3.040E-06,0.320
3.050E-06,0.380
3.060E-06,0.400
3.070E-06,0.460
3.080E-06,0.420
3.090E-06,0.440
3.100E-06,0.440
3.110E-06,0.480
3.120E-06,0.460
3.130E-06,0.440
3.140E-06,0.420
3.150E-06,0.380
3.160E-06,0.380
3.170E-06,0.400
3.180E-06,0.400
3.190E-06,0.400
3.200E-06,0.460
3.210E-06,0.500
3.220E-06,0.480
3.230E-06,0.420
3.240E-06,0.440
3.250E-06,0.400
3.260E-06,0.400
3.270E-06,0.380
3.280E-06,0.360
3.290E-06,0.320
3.300E-06,0.260
3.310E-06,0.220
3.320E-06,0.220
3.330E-06,0.200
3.340E-06,0.160
3.350E-06,0.080
3.360E-06,0.040
3.370E-06,0.020
3.380E-06,0.020
3.390E-06,0.040
3.400E-06,0.040
3.410E-06,-0.020
3.420E-06,0.000
3.430E-06,0.040
3.440E-06,0.060
3.450E-06,0.100
3.460E-06,0.060
3.470E-06,0.060
3.480E-06,0.100
3.490E-06,0.180
3.500E-06,0.260
3.510E-06,0.240
3.520E-06,0.280
3.530E-06,0.260
3.540E-06,0.260
3.550E-06,0.220
3.560E-06,0.260
3.570E-06,0.280
3.580E-06,0.220
3.590E-06,0.200
3.600E-06,0.200
3.610E-06,0.160
3.620E-06,0.160
3.630E-06,0.140
3.640E-06,0.160
3.650E-06,0.140
3.660E-06,0.080
3.670E-06,0.100
3.680E-06,0.080
3.690E-06,0.140
3.700E-06,0.180
3.710E-06,0.160
3.720E-06,0.180
3.730E-06,0.160
3.740E-06,0.200
3.750E-06,0.220
3.760E-06,0.160
3.770E-06,0.080
3.780E-06,0.080
3.790E-06,0.120
3.800E-06,0.120
3.810E-06,0.200
3.820E-06,0.220
3.830E-06,0.240
3.840E-06,0.220
3.850E-06,0.260
3.860E-06,0.220
3.870E-06,0.200
3.880E-06,0.160
3.890E-06,0.160
3.900E-06,0.180
3.910E-06,0.140
3.920E-06,0.160
3.930E-06,0.140
3.940E-06,0.100
3.950E-06,0.100
3.960E-06,0.100
3.970E-06,0.040
3.980E-06,0.080
3.990E-06,0.060
4.000E-06,0.100
4.010E-06,0.120
4.020E-06,0.100
4.030E-06,0.040
4.040E-06,0.020
4.050E-06,0.000
4.060E-06,0.000
4.070E-06,0.020
4.080E-06,0.000
4.090E-06,0.000
4.100E-06,0.000
4.110E-06,0.020
4.120E-06,0.080
4.130E-06,0.080
4.140E-06,0.120
4.150E-06,0.160
4.160E-06,0.200
4.170E-06,0.260
4.180E-06,0.240
4.190E-06,0.280
4.200E-06,0.340
4.210E-06,0.340
4.220E-06,0.320
4.230E-06,0.260
4.240E-06,0.160
4.250E-06,0.120
4.260E-06,0.060
4.270E-06,-0.040
4.280E-06,-0.100
4.290E-06,-0.160
4.300E-06,-0.240
4.310E-06,-0.300
4.320E-06,-0.320
4.330E-06,-0.340
4.340E-06,-0.340
4.350E-06,-0.300
4.360E-06,-0.280
4.370E-06,-0.260
4.380E-06,-0.240
4.390E-06,-0.180
4.400E-06,-0.160
4.410E-06,-0.160
4.420E-06,-0.100
4.430E-06,-0.080
4.440E-06,-0.060
4.450E-06,-0.060
4.460E-06,-0.060
4.470E-06,-0.100
4.480E-06,-0.140
4.490E-06,-0.100
4.500E-06,-0.080
4.510E-06,0.020
4.520E-06,0.060
4.530E-06,0.060
4.540E-06,0.080
4.550E-06,0.100
4.560E-06,0.120
4.570E-06,0.080
4.580E-06,0.100
4.590E-06,0.140
4.600E-06,0.160
4.610E-06,0.200
4.620E-06,0.200
4.630E-06,0.260
4.640E-06,0.220
4.650E-06,0.240
4.660E-06,0.200
4.670E-06,0.220
4.680E-06,0.220
4.690E-06,0.220
4.700E-06,0.260
4.710E-06,0.260
4.720E-06,0.260
4.730E-06,0.260
4.740E-06,0.220
4.750E-06,0.180
4.760E-06,0.140
4.770E-06,0.040
4.780E-06,-0.100
4.790E-06,-0.260
4.800E-06,-0.360
4.810E-06,-0.400
4.820E-06,-0.460
4.830E-06,-0.460
4.840E-06,-0.380
4.850E-06,-0.340
4.860E-06,-0.200
4.870E-06,-0.080
4.880E-06,-0.020
4.890E-06,0.120
4.900E-06,0.160
4.910E-06,0.260
4.920E-06,0.340
4.930E-06,0.480
4.940E-06,0.540
4.950E-06,0.600
4.960E-06,0.660
4.970E-06,0.680
4.980E-06,0.700
4.990E-06,0.680
5.000E-06,0.620
5.010E-06,0.580
5.020E-06,0.540
5.030E-06,0.500
5.040E-06,0.420
5.050E-06,0.340
5.060E-06,0.280
5.070E-06,0.220
5.080E-06,0.160
5.090E-06,0.080
5.100E-06,0.000
5.110E-06,0.000
5.120E-06,-0.080
5.130E-06,-0.060
5.140E-06,-0.080
5.150E-06,-0.020
5.160E-06,0.060
5.170E-06,0.140
5.180E-06,0.200
5.190E-06,0.240
5.200E-06,0.300
5.210E-06,0.260
5.220E-06,0.260
5.230E-06,0.220
5.240E-06,0.220
5.250E-06,0.220
5.260E-06,0.260
5.270E-06,0.260
5.280E-06,0.320
5.290E-06,0.320
5.300E-06,0.440
5.310E-06,0.480
5.320E-06,0.500
5.330E-06,0.540
5.340E-06,0.600
5.350E-06,0.580
5.360E-06,0.560
5.370E-06,0.520
5.380E-06,0.480
5.390E-06,0.440
5.400E-06,0.380
5.410E-06,0.340
5.420E-06,0.280
5.430E-06,0.240
5.440E-06,0.160
5.450E-06,0.160
5.460E-06,0.140
5.470E-06,0.160
5.480E-06,0.160
5.490E-06,0.180
5.500E-06,0.200
5.510E-06,0.220
5.520E-06,0.220
5.530E-06,0.260
5.540E-06,0.220
5.550E-06,0.180
5.560E-06,0.160
5.570E-06,0.100
5.580E-06,0.080
5.590E-06,0.080
5.600E-06,0.040
5.610E-06,0.040
5.620E-06,0.060
5.630E-06,0.080
5.640E-06,0.100
5.650E-06,0.100
5.660E-06,0.160
5.670E-06,0.180
5.680E-06,0.260
5.690E-06,0.300
5.700E-06,0.340
5.710E-06,0.400
5.720E-06,0.440
5.730E-06,0.480
5.740E-06,0.500
5.750E-06,0.500
5.760E-06,0.420
5.770E-06,0.380
5.780E-06,0.340
5.790E-06,0.320
5.800E-06,0.260
5.810E-06,0.200
5.820E-06,0.160
5.830E-06,0.140
5.840E-06,0.080
5.850E-06,0.060
5.860E-06,0.080
5.870E-06,0.060
5.880E-06,0.080
5.890E-06,0.060
5.900E-06,0.060
5.910E-06,0.040
5.920E-06,0.040
5.930E-06,-0.020
5.940E-06,0.020
5.950E-06,0.100
5.960E-06,0.160
5.970E-06,0.180
5.980E-06,0.280
5.990E-06,0.300
6.000E-06,0.340
6.010E-06,0.340
6.020E-06,0.340
6.030E-06,0.340
6.040E-06,0.340
6.050E-06,0.320
6.060E-06,0.280
6.070E-06,0.260
6.080E-06,0.160
6.090E-06,0.140
6.100E-06,0.120
6.110E-06,0.180
6.120E-06,0.160
6.130E-06,0.220
6.140E-06,0.280
6.150E-06,0.340
6.160E-06,0.380
6.170E-06,0.420
6.180E-06,0.460
6.190E-06,0.480
6.200E-06,0.520
6.210E-06,0.560
6.220E-06,0.560
6.230E-06,0.580
6.240E-06,0.640
6.250E-06,0.660
6.260E-06,0.640
6.270E-06,0.620
6.280E-06,0.580
6.290E-06,0.580
6.300E-06,0.600
6.310E-06,0.620
6.320E-06,0.640
6.330E-06,0.660
6.340E-06,0.680
6.350E-06,0.700
6.360E-06,0.760
6.370E-06,0.760
6.380E-06,0.820
6.390E-06,0.940
6.400E-06,1.020
6.410E-06,1.180
6.420E-06,1.380
6.430E-06,1.680
6.440E-06,1.980
6.450E-06,2.320
6.460E-06,2.700
6.470E-06,2.740
6.480E-06,2.760
6.490E-06,2.780
6.500E-06,2.760
6.510E-06,2.740
6.520E-06,2.760
6.530E-06,2.760
6.540E-06,2.740
6.550E-06,2.760
6.560E-06,2.780
6.570E-06,2.660
6.580E-06,2.460
6.590E-06,2.240
6.600E-06,2.000
6.610E-06,1.780
6.620E-06,1.520
6.630E-06,1.300
6.640E-06,1.040
6.650E-06,0.920
6.660E-06,0.760
6.670E-06,0.740
6.680E-06,0.680
6.690E-06,0.660
6.700E-06,0.660
6.710E-06,0.640
6.720E-06,0.580
6.730E-06,0.500
6.740E-06,0.500
6.750E-06,0.480
6.760E-06,0.500
6.770E-06,0.520
6.780E-06,0.540
6.790E-06,0.560
6.800E-06,0.560
6.810E-06,0.560
6.820E-06,0.500
6.830E-06,0.500
6.840E-06,0.500
6.850E-06,0.440
6.860E-06,0.420
6.870E-06,0.400
6.880E-06,0.400
6.890E-06,0.400
6.900E-06,0.400
6.910E-06,0.420
6.920E-06,0.360
6.930E-06,0.400
6.940E-06,0.360
6.950E-06,0.360
6.960E-06,0.340
6.970E-06,0.320
6.980E-06,0.320
6.990E-06,0.340
7.000E-06,0.320
7.010E-06,0.320
7.020E-06,0.300
7.030E-06,0.320
7.040E-06,0.320
7.050E-06,0.340
7.060E-06,0.340
7.070E-06,0.320
7.080E-06,0.340
7.090E-06,0.400
7.100E-06,0.380
7.110E-06,0.400
7.120E-06,0.420
7.130E-06,0.400
7.140E-06,0.380
7.150E-06,0.360
7.160E-06,0.340
7.170E-06,0.280
7.180E-06,0.300
7.190E-06,0.260
7.200E-06,0.260
7.210E-06,0.200
7.220E-06,0.220
7.230E-06,0.220
7.240E-06,0.260
7.250E-06,0.260
7.260E-06,0.260
7.270E-06,0.320
7.280E-06,0.320
7.290E-06,0.340
7.300E-06,0.360
7.310E-06,0.360
7.320E-06,0.400
7.330E-06,0.380
7.340E-06,0.400
7.350E-06,0.340
7.360E-06,0.380
7.370E-06,0.360
7.380E-06,0.340
7.390E-06,0.320
7.400E-06,0.320
7.410E-06,0.280
7.420E-06,0.260
7.430E-06,0.280
7.440E-06,0.300
7.450E-06,0.300
7.460E-06,0.280
7.470E-06,0.300
7.480E-06,0.300
7.490E-06,0.300
7.500E-06,0.280
7.510E-06,0.300
7.520E-06,0.280
7.530E-06,0.260
7.540E-06,0.240
7.550E-06,0.220
7.560E-06,0.240
7.570E-06,0.260
7.580E-06,0.320
7.590E-06,0.320
7.600E-06,0.340
7.610E-06,0.360
7.620E-06,0.340
7.630E-06,0.340
7.640E-06,0.320
7.650E-06,0.300
7.660E-06,0.260
7.670E-06,0.240
7.680E-06,0.240
7.690E-06,0.200
7.700E-06,0.240
7.710E-06,0.260
7.720E-06,0.280
7.730E-06,0.300
7.740E-06,0.320
