mediciones/Mediciones filtradas (saque las feas)/6-10/52.5/WaveData55169.csv

#timebase=2000000(ps)
,#voltbase=500000(mv/100)
#size=4000
-4.250E-06,0.060
-4.240E-06,0.060
-4.230E-06,0.060
-4.220E-06,0.060
-4.210E-06,0.040
-4.200E-06,0.040
-4.190E-06,0.040
-4.180E-06,0.080
-4.170E-06,0.060
-4.160E-06,0.060
-4.150E-06,0.080
-4.140E-06,0.020
-4.130E-06,0.040
-4.120E-06,0.040
-4.110E-06,0.040
-4.100E-06,0.080
-4.090E-06,0.040
-4.080E-06,0.000
-4.070E-06,0.020
-4.060E-06,0.060
-4.050E-06,0.240
-4.040E-06,0.680
-4.030E-06,1.540
-4.020E-06,2.320
-4.010E-06,2.780
-4.000E-06,2.660
-3.990E-06,1.740
-3.980E-06,0.440
-3.970E-06,-0.920
-3.960E-06,-1.880
-3.950E-06,-2.340
-3.940E-06,-2.380
-3.930E-06,-2.660
-3.920E-06,-2.680
-3.910E-06,-2.540
-3.900E-06,-2.420
-3.890E-06,-1.680
-3.880E-06,-0.940
-3.870E-06,-0.240
-3.860E-06,0.180
-3.850E-06,0.260
-3.840E-06,0.240
-3.830E-06,0.260
-3.820E-06,0.340
-3.810E-06,0.440
-3.800E-06,0.540
-3.790E-06,0.480
-3.780E-06,0.540
-3.770E-06,0.780
-3.760E-06,1.020
-3.750E-06,1.240
-3.740E-06,1.420
-3.730E-06,1.280
-3.720E-06,1.040
-3.710E-06,0.800
-3.700E-06,0.480
-3.690E-06,0.300
-3.680E-06,0.060
-3.670E-06,-0.160
-3.660E-06,-0.480
-3.650E-06,-0.660
-3.640E-06,-0.760
-3.630E-06,-0.680
-3.620E-06,-0.600
-3.610E-06,-0.220
-3.600E-06,-0.020
-3.590E-06,0.220
-3.580E-06,0.500
-3.570E-06,0.700
-3.560E-06,0.900
-3.550E-06,0.900
-3.540E-06,0.840
-3.530E-06,0.660
-3.520E-06,0.500
-3.510E-06,0.340
-3.500E-06,0.300
-3.490E-06,0.200
-3.480E-06,0.100
-3.470E-06,-0.020
-3.460E-06,-0.260
-3.450E-06,-0.480
-3.440E-06,-0.660
-3.430E-06,-0.800
-3.420E-06,-0.900
-3.410E-06,-0.980
-3.400E-06,-1.040
-3.390E-06,-1.040
-3.380E-06,-1.060
-3.370E-06,-0.980
-3.360E-06,-0.860
-3.350E-06,-0.680
-3.340E-06,-0.420
-3.330E-06,-0.220
-3.320E-06,0.040
-3.310E-06,0.280
-3.300E-06,0.500
-3.290E-06,0.700
-3.280E-06,0.800
-3.270E-06,0.900
-3.260E-06,0.860
-3.250E-06,0.820
-3.240E-06,0.760
-3.230E-06,0.560
-3.220E-06,0.440
-3.210E-06,0.340
-3.200E-06,0.220
-3.190E-06,0.100
-3.180E-06,0.000
-3.170E-06,-0.080
-3.160E-06,-0.140
-3.150E-06,-0.160
-3.140E-06,-0.240
-3.130E-06,-0.280
-3.120E-06,-0.320
-3.110E-06,-0.340
-3.100E-06,-0.340
-3.090E-06,-0.320
-3.080E-06,-0.260
-3.070E-06,-0.180
-3.060E-06,-0.100
-3.050E-06,-0.040
-3.040E-06,0.060
-3.030E-06,0.160
-3.020E-06,0.260
-3.010E-06,0.340
-3.000E-06,0.400
-2.990E-06,0.420
-2.980E-06,0.420
-2.970E-06,0.380
-2.960E-06,0.340
-2.950E-06,0.260
-2.940E-06,0.240
-2.930E-06,0.220
-2.920E-06,0.180
-2.910E-06,0.020
-2.900E-06,-0.020
-2.890E-06,-0.040
-2.880E-06,-0.120
-2.870E-06,-0.100
-2.860E-06,-0.120
-2.850E-06,-0.140
-2.840E-06,-0.160
-2.830E-06,-0.180
-2.820E-06,-0.160
-2.810E-06,-0.120
-2.800E-06,-0.100
-2.790E-06,-0.120
-2.780E-06,-0.120
-2.770E-06,-0.080
-2.760E-06,-0.080
-2.750E-06,-0.040
-2.740E-06,-0.020
-2.730E-06,0.040
-2.720E-06,0.080
-2.710E-06,0.120
-2.700E-06,0.120
-2.690E-06,0.140
-2.680E-06,0.200
-2.670E-06,0.180
-2.660E-06,0.220
-2.650E-06,0.200
-2.640E-06,0.200
-2.630E-06,0.180
-2.620E-06,0.180
-2.610E-06,0.120
-2.600E-06,0.100
-2.590E-06,0.100
-2.580E-06,0.080
-2.570E-06,0.080
-2.560E-06,0.040
-2.550E-06,0.040
-2.540E-06,0.060
-2.530E-06,0.060
-2.520E-06,-0.020
-2.510E-06,-0.020
-2.500E-06,-0.040
-2.490E-06,-0.020
-2.480E-06,0.020
-2.470E-06,0.000
-2.460E-06,0.040
-2.450E-06,0.060
-2.440E-06,0.040
-2.430E-06,0.100
-2.420E-06,0.100
-2.410E-06,0.160
-2.400E-06,0.160
-2.390E-06,0.180
-2.380E-06,0.180
-2.370E-06,0.200
-2.360E-06,0.180
-2.350E-06,0.180
-2.340E-06,0.160
-2.330E-06,0.140
-2.320E-06,0.080
-2.310E-06,0.040
-2.300E-06,0.040
-2.290E-06,0.000
-2.280E-06,-0.020
-2.270E-06,-0.020
-2.260E-06,0.000
-2.250E-06,-0.020
-2.240E-06,-0.020
-2.230E-06,-0.040
-2.220E-06,-0.020
-2.210E-06,0.020
-2.200E-06,0.040
-2.190E-06,0.100
-2.180E-06,0.100
-2.170E-06,0.120
-2.160E-06,0.140
-2.150E-06,0.160
-2.140E-06,0.180
-2.130E-06,0.200
-2.120E-06,0.220
-2.110E-06,0.280
-2.100E-06,0.260
-2.090E-06,0.220
-2.080E-06,0.200
-2.070E-06,0.160
-2.060E-06,0.080
-2.050E-06,0.060
-2.040E-06,0.000
-2.030E-06,0.040
-2.020E-06,0.120
-2.010E-06,0.120
-2.000E-06,0.060
-1.990E-06,-0.020
-1.980E-06,-0.100
-1.970E-06,-0.160
-1.960E-06,0.040
-1.950E-06,0.160
-1.940E-06,0.220
-1.930E-06,0.240
-1.920E-06,0.120
-1.910E-06,0.080
-1.900E-06,0.160
-1.890E-06,0.180
-1.880E-06,0.240
-1.870E-06,0.380
-1.860E-06,0.240
-1.850E-06,0.340
-1.840E-06,0.200
-1.830E-06,0.340
-1.820E-06,0.460
-1.810E-06,0.340
-1.800E-06,0.220
-1.790E-06,-0.280
-1.780E-06,-0.640
-1.770E-06,-0.920
-1.760E-06,-0.880
-1.750E-06,-0.500
-1.740E-06,-0.160
-1.730E-06,0.180
-1.720E-06,0.320
-1.710E-06,0.360
-1.700E-06,0.300
-1.690E-06,0.420
-1.680E-06,0.540
-1.670E-06,0.780
-1.660E-06,0.880
-1.650E-06,0.920
-1.640E-06,0.900
-1.630E-06,0.860
-1.620E-06,0.840
-1.610E-06,0.820
-1.600E-06,0.740
-1.590E-06,0.620
-1.580E-06,0.540
-1.570E-06,0.460
-1.560E-06,0.420
-1.550E-06,0.420
-1.540E-06,0.400
-1.530E-06,0.260
-1.520E-06,0.240
-1.510E-06,0.020
-1.500E-06,-0.320
-1.490E-06,-0.380
-1.480E-06,-0.600
-1.470E-06,-0.560
-1.460E-06,-0.360
-1.450E-06,-0.320
-1.440E-06,-0.160
-1.430E-06,-0.180
-1.420E-06,-0.080
-1.410E-06,0.020
-1.400E-06,0.200
-1.390E-06,0.320
-1.380E-06,0.420
-1.370E-06,0.460
-1.360E-06,0.360
-1.350E-06,0.320
-1.340E-06,0.380
-1.330E-06,0.400
-1.320E-06,0.400
-1.310E-06,0.340
-1.300E-06,0.240
-1.290E-06,0.200
-1.280E-06,0.120
-1.270E-06,0.160
-1.260E-06,0.180
-1.250E-06,0.220
-1.240E-06,0.160
-1.230E-06,0.180
-1.220E-06,0.180
-1.210E-06,0.180
-1.200E-06,0.220
-1.190E-06,0.240
-1.180E-06,0.340
-1.170E-06,0.380
-1.160E-06,0.460
-1.150E-06,0.500
-1.140E-06,0.500
-1.130E-06,0.500
-1.120E-06,0.500
-1.110E-06,0.520
-1.100E-06,0.520
-1.090E-06,0.540
-1.080E-06,0.540
-1.070E-06,0.460
-1.060E-06,0.420
-1.050E-06,0.340
-1.040E-06,0.160
-1.030E-06,-0.040
-1.020E-06,-0.240
-1.010E-06,-0.400
-1.000E-06,-0.260
-9.900E-07,-0.080
-9.800E-07,0.120
-9.700E-07,0.320
-9.600E-07,0.180
-9.500E-07,0.020
-9.400E-07,0.020
-9.300E-07,0.020
-9.200E-07,0.120
-9.100E-07,0.380
-9.000E-07,0.540
-8.900E-07,0.680
-8.800E-07,0.920
-8.700E-07,0.760
-8.600E-07,0.800
-8.500E-07,0.720
-8.400E-07,0.660
-8.300E-07,0.660
-8.200E-07,0.420
-8.100E-07,0.340
-8.000E-07,0.020
-7.900E-07,-0.120
-7.800E-07,-0.180
-7.700E-07,-0.080
-7.600E-07,0.320
-7.500E-07,0.380
-7.400E-07,0.380
-7.300E-07,0.340
-7.200E-07,0.320
-7.100E-07,0.480
-7.000E-07,0.660
-6.900E-07,0.860
-6.800E-07,1.000
-6.700E-07,0.820
-6.600E-07,1.000
-6.500E-07,0.820
-6.400E-07,0.720
-6.300E-07,0.840
-6.200E-07,0.900
-6.100E-07,1.040
-6.000E-07,0.960
-5.900E-07,0.860
-5.800E-07,0.840
-5.700E-07,0.540
-5.600E-07,0.560
-5.500E-07,0.520
-5.400E-07,0.480
-5.300E-07,0.420
-5.200E-07,0.460
-5.100E-07,0.340
-5.000E-07,0.260
-4.900E-07,0.260
-4.800E-07,0.140
-4.700E-07,0.160
-4.600E-07,0.180
-4.500E-07,0.240
-4.400E-07,0.320
-4.300E-07,0.460
-4.200E-07,0.440
-4.100E-07,0.520
-4.000E-07,0.520
-3.900E-07,0.400
-3.800E-07,0.520
-3.700E-07,0.320
-3.600E-07,0.440
-3.500E-07,0.260
-3.400E-07,0.220
-3.300E-07,0.320
-3.200E-07,0.220
-3.100E-07,-0.040
-3.000E-07,0.060
-2.900E-07,0.020
-2.800E-07,-0.120
-2.700E-07,0.040
-2.600E-07,-0.180
-2.500E-07,-0.060
-2.400E-07,0.000
-2.300E-07,0.120
-2.200E-07,0.280
-2.100E-07,0.400
-2.000E-07,0.520
-1.900E-07,0.540
-1.800E-07,0.680
-1.700E-07,0.960
-1.600E-07,1.380
-1.500E-07,1.440
-1.400E-07,1.540
-1.300E-07,1.440
-1.200E-07,0.980
-1.100E-07,1.000
-1.000E-07,0.820
-9.000E-08,0.880
-8.000E-08,0.740
-7.000E-08,0.080
-6.000E-08,0.380
-5.000E-08,1.500
-4.000E-08,1.280
-3.000E-08,1.060
-2.000E-08,0.480
-1.000E-08,-1.400
0.000E+00,-1.500
1.000E-08,-1.140
2.000E-08,-0.460
3.000E-08,0.760
4.000E-08,0.880
5.000E-08,-0.060
6.000E-08,-0.600
7.000E-08,-0.900
8.000E-08,-0.680
9.000E-08,-0.240
1.000E-07,0.600
1.100E-07,0.320
1.200E-07,-0.080
1.300E-07,-1.020
1.400E-07,-1.500
1.500E-07,-1.140
1.600E-07,-0.560
1.700E-07,0.160
1.800E-07,0.460
1.900E-07,0.440
2.000E-07,-0.100
2.100E-07,-0.140
2.200E-07,-0.340
2.300E-07,-0.460
2.400E-07,-0.200
2.500E-07,-0.080
2.600E-07,-0.020
2.700E-07,0.280
2.800E-07,0.100
2.900E-07,0.240
3.000E-07,0.260
3.100E-07,0.120
3.200E-07,0.220
3.300E-07,0.220
3.400E-07,0.260
3.500E-07,0.420
3.600E-07,0.420
3.700E-07,0.360
3.800E-07,0.420
3.900E-07,0.340
4.000E-07,0.400
4.100E-07,0.420
4.200E-07,0.380
4.300E-07,0.280
4.400E-07,0.100
4.500E-07,-0.020
4.600E-07,-0.120
4.700E-07,0.020
4.800E-07,0.060
4.900E-07,0.080
5.000E-07,0.080
5.100E-07,-0.020
5.200E-07,-0.240
5.300E-07,-0.280
5.400E-07,-0.380
5.500E-07,-0.420
5.600E-07,-0.340
5.700E-07,-0.380
5.800E-07,-0.480
5.900E-07,-0.500
6.000E-07,-0.640
6.100E-07,-0.620
6.200E-07,-0.520
6.300E-07,-0.380
6.400E-07,-0.320
6.500E-07,-0.380
6.600E-07,-0.440
6.700E-07,-0.500
6.800E-07,-0.440
6.900E-07,-0.400
7.000E-07,-0.320
7.100E-07,-0.260
7.200E-07,-0.160
7.300E-07,-0.140
7.400E-07,-0.120
7.500E-07,-0.020
7.600E-07,0.120
7.700E-07,0.120
7.800E-07,0.440
7.900E-07,0.500
8.000E-07,0.640
8.100E-07,0.680
8.200E-07,0.500
8.300E-07,0.440
8.400E-07,0.380
8.500E-07,0.460
8.600E-07,0.520
8.700E-07,0.220
8.800E-07,0.040
8.900E-07,-0.380
9.000E-07,-0.920
9.100E-07,-0.700
9.200E-07,-0.820
9.300E-07,-0.720
9.400E-07,-0.660
9.500E-07,-1.020
9.600E-07,-1.280
9.700E-07,-1.900
9.800E-07,-2.020
9.900E-07,-2.340
1.000E-06,-2.400
1.010E-06,-2.220
1.020E-06,-2.140
1.030E-06,-1.940
1.040E-06,-2.060
1.050E-06,-2.320
1.060E-06,-2.340
1.070E-06,-2.660
1.080E-06,-2.660
1.090E-06,-2.660
1.100E-06,-2.240
1.110E-06,-2.660
1.120E-06,-2.660
1.130E-06,-2.660
1.140E-06,-2.660
1.150E-06,-2.660
1.160E-06,-2.660
1.170E-06,-2.660
1.180E-06,-1.900
1.190E-06,-2.080
1.200E-06,-0.740
1.210E-06,-0.600
1.220E-06,-0.680
1.230E-06,-0.440
1.240E-06,-0.600
1.250E-06,-0.500
1.260E-06,0.160
1.270E-06,0.660
1.280E-06,1.040
1.290E-06,1.020
1.300E-06,0.940
1.310E-06,0.280
1.320E-06,-0.080
1.330E-06,-0.200
1.340E-06,-0.560
1.350E-06,-0.220
1.360E-06,-0.240
1.370E-06,-0.300
1.380E-06,-0.260
1.390E-06,-0.440
1.400E-06,-0.520
1.410E-06,-0.720
1.420E-06,-0.800
1.430E-06,-0.860
1.440E-06,-0.940
1.450E-06,-0.800
1.460E-06,-0.460
1.470E-06,-0.340
1.480E-06,-0.220
1.490E-06,-0.260
1.500E-06,-0.300
1.510E-06,-0.120
1.520E-06,-0.180
1.530E-06,-0.120
1.540E-06,0.100
1.550E-06,0.200
1.560E-06,0.200
1.570E-06,0.180
1.580E-06,0.300
1.590E-06,0.340
1.600E-06,0.240
1.610E-06,0.260
1.620E-06,0.100
1.630E-06,0.000
1.640E-06,0.220
1.650E-06,0.380
1.660E-06,0.660
1.670E-06,0.840
1.680E-06,0.760
1.690E-06,0.820
1.700E-06,0.780
1.710E-06,1.180
1.720E-06,1.460
1.730E-06,1.260
1.740E-06,1.080
1.750E-06,0.940
1.760E-06,0.660
1.770E-06,0.760
1.780E-06,0.380
1.790E-06,0.380
1.800E-06,1.060
1.810E-06,-0.340
1.820E-06,0.240
1.830E-06,-0.400
1.840E-06,-0.280
1.850E-06,1.120
1.860E-06,0.380
1.870E-06,0.200
1.880E-06,0.500
1.890E-06,-0.660
1.900E-06,-0.560
1.910E-06,0.040
1.920E-06,0.140
1.930E-06,1.340
1.940E-06,1.200
1.950E-06,0.700
1.960E-06,1.160
1.970E-06,0.320
1.980E-06,0.140
1.990E-06,0.700
2.000E-06,0.080
2.010E-06,0.680
2.020E-06,1.060
2.030E-06,0.980
2.040E-06,1.400
2.050E-06,1.320
2.060E-06,0.960
2.070E-06,0.700
2.080E-06,0.500
2.090E-06,0.240
2.100E-06,0.260
2.110E-06,0.100
2.120E-06,-0.320
2.130E-06,-0.340
2.140E-06,-0.740
2.150E-06,-0.900
2.160E-06,-0.780
2.170E-06,-0.900
2.180E-06,-0.680
2.190E-06,-0.600
2.200E-06,-0.360
2.210E-06,-0.120
2.220E-06,0.080
2.230E-06,0.280
2.240E-06,0.340
2.250E-06,0.400
2.260E-06,0.420
2.270E-06,0.420
2.280E-06,0.380
2.290E-06,0.260
2.300E-06,0.160
2.310E-06,0.140
2.320E-06,0.120
2.330E-06,0.200
2.340E-06,0.260
2.350E-06,0.180
2.360E-06,0.080
2.370E-06,-0.040
2.380E-06,-0.340
2.390E-06,-0.580
2.400E-06,-0.560
2.410E-06,-0.400
2.420E-06,-0.060
2.430E-06,-0.020
2.440E-06,-0.060
2.450E-06,0.180
2.460E-06,0.000
2.470E-06,-0.560
2.480E-06,-0.080
2.490E-06,0.080
2.500E-06,1.180
2.510E-06,2.400
2.520E-06,2.240
2.530E-06,2.140
2.540E-06,1.000
2.550E-06,-0.680
2.560E-06,-1.320
2.570E-06,-1.880
2.580E-06,-1.460
2.590E-06,0.300
2.600E-06,0.580
2.610E-06,0.960
2.620E-06,1.360
2.630E-06,-0.580
2.640E-06,-0.680
2.650E-06,0.100
2.660E-06,-0.280
2.670E-06,1.140
2.680E-06,0.920
2.690E-06,0.420
2.700E-06,0.520
2.710E-06,-0.320
2.720E-06,0.000
2.730E-06,0.660
2.740E-06,0.880
2.750E-06,1.180
2.760E-06,0.960
2.770E-06,0.200
2.780E-06,-0.520
2.790E-06,-1.040
2.800E-06,-1.460
2.810E-06,-1.720
2.820E-06,-1.700
2.830E-06,-1.660
2.840E-06,-1.620
2.850E-06,-1.560
2.860E-06,-1.600
2.870E-06,-1.740
2.880E-06,-1.760
2.890E-06,-1.760
2.900E-06,-1.540
2.910E-06,-1.220
2.920E-06,-0.960
2.930E-06,-0.820
2.940E-06,-0.780
2.950E-06,-0.900
2.960E-06,-1.040
2.970E-06,-1.100
2.980E-06,-1.160
2.990E-06,-1.100
3.000E-06,-1.020
3.010E-06,-0.980
3.020E-06,-1.020
3.030E-06,-1.120
3.040E-06,-1.180
3.050E-06,-1.280
3.060E-06,-1.300
3.070E-06,-1.280
3.080E-06,-1.260
3.090E-06,-1.120
3.100E-06,-1.080
3.110E-06,-1.020
3.120E-06,-0.880
3.130E-06,-0.780
3.140E-06,-0.560
3.150E-06,-0.380
3.160E-06,-0.160
3.170E-06,0.020
3.180E-06,0.160
3.190E-06,0.200
3.200E-06,0.320
3.210E-06,0.580
3.220E-06,0.680
3.230E-06,0.800
3.240E-06,0.740
3.250E-06,0.540
3.260E-06,0.540
3.270E-06,0.660
3.280E-06,0.660
3.290E-06,0.820
3.300E-06,0.880
3.310E-06,0.720
3.320E-06,0.740
3.330E-06,0.500
3.340E-06,0.300
3.350E-06,0.220
3.360E-06,-0.140
3.370E-06,-0.240
3.380E-06,-0.340
3.390E-06,-0.400
3.400E-06,-0.340
3.410E-06,-0.360
3.420E-06,-0.400
3.430E-06,-0.400
3.440E-06,-0.440
3.450E-06,-0.360
3.460E-06,-0.260
3.470E-06,-0.220
3.480E-06,-0.160
3.490E-06,-0.120
3.500E-06,-0.120
3.510E-06,-0.100
3.520E-06,-0.140
3.530E-06,-0.180
3.540E-06,-0.220
3.550E-06,-0.260
3.560E-06,-0.320
3.570E-06,-0.400
3.580E-06,-0.500
3.590E-06,-0.660
3.600E-06,-0.760
3.610E-06,-0.840
3.620E-06,-0.920
3.630E-06,-0.940
3.640E-06,-0.940
3.650E-06,-0.880
3.660E-06,-0.860
3.670E-06,-0.760
3.680E-06,-0.660
3.690E-06,-0.580
3.700E-06,-0.360
3.710E-06,-0.220
3.720E-06,-0.020
3.730E-06,0.140
3.740E-06,0.280
3.750E-06,0.400
3.760E-06,0.460
3.770E-06,0.540
3.780E-06,0.620
3.790E-06,0.700
3.800E-06,0.680
3.810E-06,0.700
3.820E-06,0.640
3.830E-06,0.560
3.840E-06,0.480
3.850E-06,0.340
3.860E-06,0.260
3.870E-06,0.180
3.880E-06,0.100
3.890E-06,-0.020
3.900E-06,-0.080
3.910E-06,-0.140
3.920E-06,-0.200
3.930E-06,-0.260
3.940E-06,-0.300
3.950E-06,-0.320
3.960E-06,-0.260
3.970E-06,-0.260
3.980E-06,-0.240
3.990E-06,-0.180
4.000E-06,-0.180
4.010E-06,-0.180
4.020E-06,-0.160
4.030E-06,-0.100
4.040E-06,-0.040
4.050E-06,0.020
4.060E-06,0.020
4.070E-06,0.040
4.080E-06,0.060
4.090E-06,0.060
4.100E-06,0.060
4.110E-06,0.140
4.120E-06,0.180
4.130E-06,0.040
4.140E-06,0.000
4.150E-06,-0.140
4.160E-06,-0.240
4.170E-06,-0.240
4.180E-06,-0.340
4.190E-06,-0.440
4.200E-06,-0.520
4.210E-06,-0.600
4.220E-06,-0.600
4.230E-06,-0.580
4.240E-06,-0.580
4.250E-06,-0.520
4.260E-06,-0.480
4.270E-06,-0.460
4.280E-06,-0.360
4.290E-06,-0.360
4.300E-06,-0.280
4.310E-06,-0.240
4.320E-06,-0.200
4.330E-06,-0.160
4.340E-06,-0.140
4.350E-06,-0.040
4.360E-06,0.000
4.370E-06,0.000
4.380E-06,0.100
4.390E-06,0.120
4.400E-06,0.180
4.410E-06,0.200
4.420E-06,0.200
4.430E-06,0.200
4.440E-06,0.120
4.450E-06,0.080
4.460E-06,0.040
4.470E-06,0.020
4.480E-06,0.040
4.490E-06,0.060
4.500E-06,-0.020
4.510E-06,0.000
4.520E-06,-0.040
4.530E-06,-0.080
4.540E-06,0.000
4.550E-06,-0.020
4.560E-06,-0.040
4.570E-06,-0.020
4.580E-06,-0.080
4.590E-06,-0.060
4.600E-06,-0.080
4.610E-06,0.000
4.620E-06,-0.020
4.630E-06,0.040
4.640E-06,0.020
4.650E-06,0.040
4.660E-06,0.080
4.670E-06,0.100
4.680E-06,0.100
4.690E-06,0.060
4.700E-06,0.040
4.710E-06,0.080
4.720E-06,0.060
4.730E-06,0.060
4.740E-06,0.000
4.750E-06,0.000
4.760E-06,0.000
4.770E-06,-0.020
4.780E-06,-0.020
4.790E-06,-0.020
4.800E-06,-0.040
4.810E-06,-0.060
4.820E-06,-0.040
4.830E-06,0.000
4.840E-06,0.000
4.850E-06,0.060
4.860E-06,0.060
4.870E-06,0.060
4.880E-06,0.080
4.890E-06,0.140
4.900E-06,0.140
4.910E-06,0.180
4.920E-06,0.220
4.930E-06,0.260
4.940E-06,0.260
4.950E-06,0.300
4.960E-06,0.320
4.970E-06,0.320
4.980E-06,0.280
4.990E-06,0.220
5.000E-06,0.160
5.010E-06,0.140
5.020E-06,0.060
5.030E-06,0.060
5.040E-06,0.000
5.050E-06,0.000
5.060E-06,-0.020
5.070E-06,0.020
5.080E-06,0.060
5.090E-06,0.100
5.100E-06,0.180
5.110E-06,0.220
5.120E-06,0.240
5.130E-06,0.320
5.140E-06,0.360
5.150E-06,0.420
5.160E-06,0.420
5.170E-06,0.420
5.180E-06,0.360
5.190E-06,0.340
5.200E-06,0.240
5.210E-06,0.220
5.220E-06,0.180
5.230E-06,0.080
5.240E-06,0.040
5.250E-06,0.000
5.260E-06,-0.100
5.270E-06,-0.120
5.280E-06,-0.160
5.290E-06,-0.120
5.300E-06,-0.080
5.310E-06,-0.060
5.320E-06,0.020
5.330E-06,0.060
5.340E-06,0.100
5.350E-06,0.160
5.360E-06,0.160
5.370E-06,0.100
5.380E-06,0.040
5.390E-06,-0.060
5.400E-06,-0.140
5.410E-06,-0.220
5.420E-06,-0.280
5.430E-06,-0.400
5.440E-06,-0.440
5.450E-06,-0.520
5.460E-06,-0.500
5.470E-06,-0.460
5.480E-06,-0.360
5.490E-06,-0.260
5.500E-06,-0.140
5.510E-06,-0.040
5.520E-06,0.000
5.530E-06,0.060
5.540E-06,0.080
5.550E-06,0.120
5.560E-06,0.160
5.570E-06,0.240
5.580E-06,0.260
5.590E-06,0.260
5.600E-06,0.280
5.610E-06,0.280
5.620E-06,0.260
5.630E-06,0.280
5.640E-06,0.300
5.650E-06,0.300
5.660E-06,0.320
5.670E-06,0.360
5.680E-06,0.400
5.690E-06,0.480
5.700E-06,0.500
5.710E-06,0.520
5.720E-06,0.500
5.730E-06,0.460
5.740E-06,0.400
5.750E-06,0.300
5.760E-06,0.220
5.770E-06,0.080
5.780E-06,0.040
5.790E-06,-0.020
5.800E-06,-0.100
5.810E-06,-0.140
5.820E-06,-0.120
5.830E-06,-0.100
5.840E-06,0.000
5.850E-06,0.060
5.860E-06,0.180
5.870E-06,0.320
5.880E-06,0.380
5.890E-06,0.520
5.900E-06,0.540
5.910E-06,0.540
5.920E-06,0.560
5.930E-06,0.580
5.940E-06,0.540
5.950E-06,0.580
5.960E-06,0.600
5.970E-06,0.580
5.980E-06,0.600
5.990E-06,0.680
6.000E-06,0.760
6.010E-06,0.800
6.020E-06,0.900
6.030E-06,0.960
6.040E-06,1.000
6.050E-06,1.000
6.060E-06,1.000
6.070E-06,0.940
6.080E-06,0.860
6.090E-06,0.740
6.100E-06,0.640
6.110E-06,0.560
6.120E-06,0.500
6.130E-06,0.500
6.140E-06,0.460
6.150E-06,0.520
6.160E-06,0.580
6.170E-06,0.620
6.180E-06,0.640
6.190E-06,0.660
6.200E-06,0.640
6.210E-06,0.620
6.220E-06,0.580
6.230E-06,0.520
6.240E-06,0.480
6.250E-06,0.460
6.260E-06,0.340
6.270E-06,0.280
6.280E-06,0.200
6.290E-06,0.100
6.300E-06,0.080
6.310E-06,0.040
6.320E-06,0.020
6.330E-06,0.000
6.340E-06,-0.020
6.350E-06,-0.080
6.360E-06,-0.160
6.370E-06,-0.260
6.380E-06,-0.240
6.390E-06,-0.200
6.400E-06,-0.120
6.410E-06,-0.040
6.420E-06,0.080
6.430E-06,0.240
6.440E-06,0.300
6.450E-06,0.400
6.460E-06,0.460
6.470E-06,0.500
6.480E-06,0.560
6.490E-06,0.540
6.500E-06,0.540
6.510E-06,0.500
6.520E-06,0.440
6.530E-06,0.360
6.540E-06,0.300
6.550E-06,0.240
6.560E-06,0.240
6.570E-06,0.240
6.580E-06,0.280
6.590E-06,0.340
6.600E-06,0.480
6.610E-06,0.620
6.620E-06,0.740
6.630E-06,0.840
6.640E-06,0.920
6.650E-06,1.040
6.660E-06,1.100
6.670E-06,1.180
6.680E-06,1.280
6.690E-06,1.380
6.700E-06,1.620
6.710E-06,1.880
6.720E-06,2.260
6.730E-06,2.700
6.740E-06,2.760
6.750E-06,2.780
6.760E-06,2.760
6.770E-06,2.760
6.780E-06,2.740
6.790E-06,2.760
6.800E-06,2.780
6.810E-06,2.760
6.820E-06,2.760
6.830E-06,2.740
6.840E-06,2.760
6.850E-06,2.780
6.860E-06,2.760
6.870E-06,2.740
6.880E-06,2.760
6.890E-06,2.780
6.900E-06,2.760
6.910E-06,2.780
6.920E-06,2.680
6.930E-06,2.440
6.940E-06,2.220
6.950E-06,1.980
6.960E-06,1.760
6.970E-06,1.540
6.980E-06,1.340
6.990E-06,1.160
7.000E-06,1.020
7.010E-06,0.880
7.020E-06,0.780
7.030E-06,0.680
7.040E-06,0.620
7.050E-06,0.600
7.060E-06,0.560
7.070E-06,0.540
7.080E-06,0.560
7.090E-06,0.600
7.100E-06,0.600
7.110E-06,0.640
7.120E-06,0.660
7.130E-06,0.640
7.140E-06,0.640
7.150E-06,0.600
7.160E-06,0.680
7.170E-06,0.660
7.180E-06,0.680
7.190E-06,0.680
7.200E-06,0.680
7.210E-06,0.680
7.220E-06,0.660
7.230E-06,0.620
7.240E-06,0.640
7.250E-06,0.620
7.260E-06,0.600
7.270E-06,0.580
7.280E-06,0.560
7.290E-06,0.580
7.300E-06,0.580
7.310E-06,0.600
7.320E-06,0.600
7.330E-06,0.620
7.340E-06,0.580
7.350E-06,0.560
7.360E-06,0.520
7.370E-06,0.500
7.380E-06,0.500
7.390E-06,0.460
7.400E-06,0.500
7.410E-06,0.500
7.420E-06,0.500
7.430E-06,0.520
7.440E-06,0.500
7.450E-06,0.520
7.460E-06,0.480
7.470E-06,0.500
7.480E-06,0.440
7.490E-06,0.420
7.500E-06,0.380
7.510E-06,0.360
7.520E-06,0.340
7.530E-06,0.300
7.540E-06,0.300
7.550E-06,0.320
7.560E-06,0.320
7.570E-06,0.360
7.580E-06,0.420
7.590E-06,0.460
7.600E-06,0.500
7.610E-06,0.540
7.620E-06,0.540
7.630E-06,0.560
7.640E-06,0.580
7.650E-06,0.600
7.660E-06,0.580
7.670E-06,0.560
7.680E-06,0.580
