mediciones/Mediciones filtradas (saque las feas)/6-10/52.5/WaveData55171.csv

#timebase=2000000(ps)
,#voltbase=500000(mv/100)
#size=4000
-4.250E-06,-0.100
-4.240E-06,-0.040
-4.230E-06,0.040
-4.220E-06,0.080
-4.210E-06,0.220
-4.200E-06,0.180
-4.190E-06,0.120
-4.180E-06,0.000
-4.170E-06,0.020
-4.160E-06,-0.020
-4.150E-06,0.060
-4.140E-06,0.140
-4.130E-06,0.120
-4.120E-06,0.160
-4.110E-06,0.100
-4.100E-06,0.120
-4.090E-06,0.100
-4.080E-06,0.080
-4.070E-06,0.060
-4.060E-06,0.040
-4.050E-06,0.060
-4.040E-06,0.060
-4.030E-06,0.060
-4.020E-06,0.020
-4.010E-06,0.040
-4.000E-06,0.000
-3.990E-06,0.020
-3.980E-06,0.000
-3.970E-06,0.020
-3.960E-06,0.000
-3.950E-06,0.040
-3.940E-06,0.080
-3.930E-06,0.080
-3.920E-06,0.080
-3.910E-06,0.080
-3.900E-06,0.120
-3.890E-06,0.140
-3.880E-06,0.180
-3.870E-06,0.160
-3.860E-06,0.160
-3.850E-06,0.160
-3.840E-06,0.180
-3.830E-06,0.180
-3.820E-06,0.160
-3.810E-06,0.180
-3.800E-06,0.180
-3.790E-06,0.160
-3.780E-06,0.180
-3.770E-06,0.120
-3.760E-06,0.080
-3.750E-06,0.100
-3.740E-06,0.080
-3.730E-06,0.080
-3.720E-06,0.080
-3.710E-06,0.080
-3.700E-06,0.060
-3.690E-06,0.040
-3.680E-06,0.060
-3.670E-06,0.040
-3.660E-06,0.040
-3.650E-06,0.000
-3.640E-06,0.000
-3.630E-06,0.020
-3.620E-06,0.040
-3.610E-06,0.060
-3.600E-06,0.100
-3.590E-06,0.140
-3.580E-06,0.120
-3.570E-06,0.180
-3.560E-06,0.220
-3.550E-06,0.300
-3.540E-06,0.240
-3.530E-06,0.240
-3.520E-06,0.340
-3.510E-06,0.260
-3.500E-06,0.260
-3.490E-06,0.260
-3.480E-06,0.080
-3.470E-06,0.060
-3.460E-06,-0.040
-3.450E-06,0.000
-3.440E-06,0.000
-3.430E-06,0.020
-3.420E-06,0.060
-3.410E-06,-0.020
-3.400E-06,-0.120
-3.390E-06,-0.160
-3.380E-06,-0.080
-3.370E-06,-0.080
-3.360E-06,0.000
-3.350E-06,0.000
-3.340E-06,-0.060
-3.330E-06,-0.080
-3.320E-06,-0.060
-3.310E-06,0.000
-3.300E-06,0.060
-3.290E-06,0.080
-3.280E-06,0.100
-3.270E-06,0.080
-3.260E-06,0.100
-3.250E-06,0.060
-3.240E-06,0.100
-3.230E-06,0.120
-3.220E-06,0.100
-3.210E-06,0.160
-3.200E-06,0.120
-3.190E-06,0.160
-3.180E-06,0.120
-3.170E-06,0.160
-3.160E-06,0.140
-3.150E-06,0.140
-3.140E-06,0.180
-3.130E-06,0.120
-3.120E-06,0.140
-3.110E-06,0.180
-3.100E-06,0.180
-3.090E-06,0.160
-3.080E-06,0.160
-3.070E-06,0.180
-3.060E-06,0.180
-3.050E-06,0.160
-3.040E-06,0.160
-3.030E-06,0.160
-3.020E-06,0.180
-3.010E-06,0.160
-3.000E-06,0.120
-2.990E-06,0.160
-2.980E-06,0.220
-2.970E-06,0.060
-2.960E-06,0.120
-2.950E-06,0.140
-2.940E-06,0.020
-2.930E-06,0.100
-2.920E-06,-0.020
-2.910E-06,0.080
-2.900E-06,0.040
-2.890E-06,0.060
-2.880E-06,0.060
-2.870E-06,0.100
-2.860E-06,0.100
-2.850E-06,0.000
-2.840E-06,0.020
-2.830E-06,0.020
-2.820E-06,0.080
-2.810E-06,0.160
-2.800E-06,0.160
-2.790E-06,0.200
-2.780E-06,0.180
-2.770E-06,0.180
-2.760E-06,0.180
-2.750E-06,0.160
-2.740E-06,0.180
-2.730E-06,0.180
-2.720E-06,0.140
-2.710E-06,0.160
-2.700E-06,0.160
-2.690E-06,0.180
-2.680E-06,0.200
-2.670E-06,0.160
-2.660E-06,0.180
-2.650E-06,0.180
-2.640E-06,0.140
-2.630E-06,0.180
-2.620E-06,0.160
-2.610E-06,0.080
-2.600E-06,0.020
-2.590E-06,-0.080
-2.580E-06,-0.140
-2.570E-06,-0.160
-2.560E-06,0.000
-2.550E-06,0.080
-2.540E-06,0.220
-2.530E-06,0.320
-2.520E-06,0.120
-2.510E-06,0.120
-2.500E-06,-0.020
-2.490E-06,-0.020
-2.480E-06,0.100
-2.470E-06,0.120
-2.460E-06,0.260
-2.450E-06,0.200
-2.440E-06,0.240
-2.430E-06,0.180
-2.420E-06,0.160
-2.410E-06,0.100
-2.400E-06,0.100
-2.390E-06,0.040
-2.380E-06,0.000
-2.370E-06,0.040
-2.360E-06,0.080
-2.350E-06,0.060
-2.340E-06,0.080
-2.330E-06,0.060
-2.320E-06,0.060
-2.310E-06,-0.100
-2.300E-06,0.120
-2.290E-06,0.320
-2.280E-06,-0.020
-2.270E-06,0.440
-2.260E-06,0.320
-2.250E-06,0.200
-2.240E-06,0.680
-2.230E-06,0.320
-2.220E-06,0.360
-2.210E-06,0.360
-2.200E-06,0.100
-2.190E-06,0.400
-2.180E-06,0.240
-2.170E-06,0.300
-2.160E-06,0.320
-2.150E-06,0.220
-2.140E-06,0.140
-2.130E-06,0.160
-2.120E-06,0.180
-2.110E-06,0.220
-2.100E-06,0.280
-2.090E-06,0.280
-2.080E-06,0.320
-2.070E-06,0.360
-2.060E-06,0.320
-2.050E-06,0.320
-2.040E-06,0.300
-2.030E-06,0.340
-2.020E-06,0.320
-2.010E-06,0.320
-2.000E-06,0.400
-1.990E-06,0.320
-1.980E-06,0.360
-1.970E-06,0.440
-1.960E-06,0.360
-1.950E-06,0.420
-1.940E-06,0.320
-1.930E-06,0.220
-1.920E-06,0.220
-1.910E-06,0.100
-1.900E-06,0.080
-1.890E-06,0.080
-1.880E-06,-0.020
-1.870E-06,0.000
-1.860E-06,0.060
-1.850E-06,0.060
-1.840E-06,0.160
-1.830E-06,0.260
-1.820E-06,0.280
-1.810E-06,0.220
-1.800E-06,0.160
-1.790E-06,0.160
-1.780E-06,-0.080
-1.770E-06,0.040
-1.760E-06,0.040
-1.750E-06,0.140
-1.740E-06,0.300
-1.730E-06,0.260
-1.720E-06,0.360
-1.710E-06,0.300
-1.700E-06,0.340
-1.690E-06,0.640
-1.680E-06,0.560
-1.670E-06,0.640
-1.660E-06,0.760
-1.650E-06,0.660
-1.640E-06,0.860
-1.630E-06,0.760
-1.620E-06,0.600
-1.610E-06,0.620
-1.600E-06,0.360
-1.590E-06,0.320
-1.580E-06,0.500
-1.570E-06,0.460
-1.560E-06,0.560
-1.550E-06,0.520
-1.540E-06,0.320
-1.530E-06,0.200
-1.520E-06,0.000
-1.510E-06,-0.120
-1.500E-06,-0.100
-1.490E-06,-0.100
-1.480E-06,-0.160
-1.470E-06,-0.160
-1.460E-06,-0.240
-1.450E-06,-0.240
-1.440E-06,-0.200
-1.430E-06,-0.160
-1.420E-06,-0.140
-1.410E-06,-0.120
-1.400E-06,-0.100
-1.390E-06,-0.020
-1.380E-06,0.000
-1.370E-06,0.060
-1.360E-06,0.060
-1.350E-06,0.080
-1.340E-06,0.020
-1.330E-06,-0.080
-1.320E-06,-0.120
-1.310E-06,-0.160
-1.300E-06,-0.160
-1.290E-06,-0.200
-1.280E-06,-0.160
-1.270E-06,-0.140
-1.260E-06,-0.120
-1.250E-06,-0.060
-1.240E-06,0.000
-1.230E-06,0.040
-1.220E-06,0.100
-1.210E-06,0.160
-1.200E-06,0.180
-1.190E-06,0.260
-1.180E-06,0.320
-1.170E-06,0.400
-1.160E-06,0.420
-1.150E-06,0.460
-1.140E-06,0.420
-1.130E-06,0.380
-1.120E-06,0.380
-1.110E-06,0.340
-1.100E-06,0.340
-1.090E-06,0.340
-1.080E-06,0.300
-1.070E-06,0.300
-1.060E-06,0.200
-1.050E-06,0.080
-1.040E-06,0.080
-1.030E-06,0.040
-1.020E-06,0.020
-1.010E-06,0.100
-1.000E-06,0.060
-9.900E-07,0.040
-9.800E-07,0.100
-9.700E-07,0.100
-9.600E-07,0.160
-9.500E-07,0.200
-9.400E-07,0.220
-9.300E-07,0.240
-9.200E-07,0.180
-9.100E-07,0.220
-9.000E-07,0.260
-8.900E-07,0.240
-8.800E-07,0.320
-8.700E-07,0.200
-8.600E-07,0.140
-8.500E-07,0.340
-8.400E-07,0.100
-8.300E-07,-0.100
-8.200E-07,-0.400
-8.100E-07,-0.080
-8.000E-07,0.200
-7.900E-07,0.240
-7.800E-07,0.660
-7.700E-07,0.660
-7.600E-07,0.720
-7.500E-07,0.600
-7.400E-07,0.160
-7.300E-07,0.220
-7.200E-07,0.060
-7.100E-07,0.080
-7.000E-07,0.420
-6.900E-07,0.520
-6.800E-07,0.680
-6.700E-07,0.500
-6.600E-07,0.420
-6.500E-07,0.320
-6.400E-07,0.320
-6.300E-07,0.340
-6.200E-07,0.360
-6.100E-07,0.420
-6.000E-07,0.340
-5.900E-07,0.320
-5.800E-07,0.220
-5.700E-07,0.160
-5.600E-07,0.080
-5.500E-07,0.100
-5.400E-07,0.040
-5.300E-07,0.000
-5.200E-07,0.060
-5.100E-07,0.100
-5.000E-07,0.180
-4.900E-07,0.180
-4.800E-07,0.180
-4.700E-07,0.180
-4.600E-07,0.080
-4.500E-07,0.120
-4.400E-07,0.200
-4.300E-07,0.120
-4.200E-07,0.120
-4.100E-07,0.140
-4.000E-07,0.160
-3.900E-07,0.180
-3.800E-07,0.140
-3.700E-07,0.180
-3.600E-07,0.160
-3.500E-07,0.300
-3.400E-07,0.340
-3.300E-07,0.380
-3.200E-07,0.380
-3.100E-07,0.160
-3.000E-07,0.220
-2.900E-07,0.340
-2.800E-07,0.320
-2.700E-07,0.540
-2.600E-07,0.520
-2.500E-07,0.560
-2.400E-07,0.660
-2.300E-07,0.620
-2.200E-07,0.760
-2.100E-07,0.700
-2.000E-07,0.520
-1.900E-07,0.400
-1.800E-07,0.360
-1.700E-07,0.340
-1.600E-07,0.260
-1.500E-07,0.220
-1.400E-07,0.160
-1.300E-07,0.240
-1.200E-07,0.060
-1.100E-07,0.280
-1.000E-07,0.260
-9.000E-08,0.080
-8.000E-08,0.220
-7.000E-08,-0.020
-6.000E-08,0.000
-5.000E-08,-0.160
-4.000E-08,-1.080
-3.000E-08,2.220
-2.000E-08,-0.860
-1.000E-08,-2.660
0.000E+00,0.720
1.000E-08,-2.660
2.000E-08,0.380
3.000E-08,2.540
4.000E-08,-0.420
5.000E-08,2.780
6.000E-08,-0.800
7.000E-08,-1.920
8.000E-08,-0.880
9.000E-08,-2.620
1.000E-07,-0.800
1.100E-07,1.420
1.200E-07,0.700
1.300E-07,1.080
1.400E-07,0.160
1.500E-07,-1.240
1.600E-07,-1.260
1.700E-07,-1.520
1.800E-07,-1.780
1.900E-07,-1.620
2.000E-07,-1.920
2.100E-07,-2.600
2.200E-07,-2.660
2.300E-07,-2.660
2.400E-07,-2.660
2.500E-07,-2.660
2.600E-07,-2.660
2.700E-07,-2.660
2.800E-07,-2.660
2.900E-07,-2.660
3.000E-07,-2.660
3.100E-07,-2.660
3.200E-07,-2.620
3.300E-07,-2.680
3.400E-07,-2.220
3.500E-07,-1.840
3.600E-07,-1.500
3.700E-07,-0.920
3.800E-07,-0.900
3.900E-07,-1.040
4.000E-07,-1.320
4.100E-07,-1.640
4.200E-07,-2.100
4.300E-07,-1.480
4.400E-07,-1.120
4.500E-07,-0.880
4.600E-07,-0.500
4.700E-07,-0.780
4.800E-07,-0.700
4.900E-07,-0.600
5.000E-07,-0.740
5.100E-07,-0.500
5.200E-07,-0.660
5.300E-07,-0.520
5.400E-07,-0.160
5.500E-07,-0.740
5.600E-07,-0.420
5.700E-07,-0.820
5.800E-07,-1.740
5.900E-07,-1.140
6.000E-07,-1.880
6.100E-07,-1.300
6.200E-07,-0.380
6.300E-07,-0.800
6.400E-07,0.340
6.500E-07,-0.060
6.600E-07,-0.360
6.700E-07,0.000
6.800E-07,-0.440
6.900E-07,-0.260
7.000E-07,-0.080
7.100E-07,-0.180
7.200E-07,-0.040
7.300E-07,-0.080
7.400E-07,0.080
7.500E-07,-0.020
7.600E-07,0.280
7.700E-07,0.120
7.800E-07,0.000
7.900E-07,-0.060
8.000E-07,-0.420
8.100E-07,-0.200
8.200E-07,-0.420
8.300E-07,0.020
8.400E-07,0.160
8.500E-07,0.440
8.600E-07,0.500
8.700E-07,0.120
8.800E-07,0.260
8.900E-07,-0.280
9.000E-07,-0.180
9.100E-07,-0.040
9.200E-07,-0.020
9.300E-07,0.340
9.400E-07,0.400
9.500E-07,0.260
9.600E-07,0.240
9.700E-07,0.080
9.800E-07,0.000
9.900E-07,0.420
1.000E-06,0.420
1.010E-06,0.840
1.020E-06,1.080
1.030E-06,0.320
1.040E-06,0.340
1.050E-06,-0.120
1.060E-06,-0.340
1.070E-06,0.040
1.080E-06,-0.220
1.090E-06,-0.240
1.100E-06,0.260
1.110E-06,-0.380
1.120E-06,0.180
1.130E-06,0.080
1.140E-06,-0.260
1.150E-06,0.440
1.160E-06,0.020
1.170E-06,0.200
1.180E-06,0.440
1.190E-06,0.100
1.200E-06,0.280
1.210E-06,0.360
1.220E-06,0.260
1.230E-06,0.320
1.240E-06,0.620
1.250E-06,0.480
1.260E-06,0.560
1.270E-06,0.440
1.280E-06,0.320
1.290E-06,0.440
1.300E-06,0.220
1.310E-06,0.720
1.320E-06,-0.100
1.330E-06,1.400
1.340E-06,0.760
1.350E-06,-2.660
1.360E-06,-2.140
1.370E-06,-2.660
1.380E-06,-2.660
1.390E-06,1.800
1.400E-06,0.620
1.410E-06,2.300
1.420E-06,2.040
1.430E-06,-0.960
1.440E-06,0.860
1.450E-06,0.500
1.460E-06,1.500
1.470E-06,2.720
1.480E-06,1.480
1.490E-06,1.360
1.500E-06,0.800
1.510E-06,1.000
1.520E-06,0.480
1.530E-06,1.260
1.540E-06,0.240
1.550E-06,-0.420
1.560E-06,-0.940
1.570E-06,-1.180
1.580E-06,-1.100
1.590E-06,-0.560
1.600E-06,-0.500
1.610E-06,-0.260
1.620E-06,-0.560
1.630E-06,-0.800
1.640E-06,-0.680
1.650E-06,-1.020
1.660E-06,-0.600
1.670E-06,-0.800
1.680E-06,-0.180
1.690E-06,0.180
1.700E-06,0.420
1.710E-06,0.580
1.720E-06,0.440
1.730E-06,0.460
1.740E-06,0.300
1.750E-06,0.460
1.760E-06,0.740
1.770E-06,0.780
1.780E-06,1.200
1.790E-06,0.900
1.800E-06,0.500
1.810E-06,0.020
1.820E-06,-0.680
1.830E-06,-0.440
1.840E-06,-0.420
1.850E-06,0.040
1.860E-06,0.340
1.870E-06,0.360
1.880E-06,0.160
1.890E-06,0.040
1.900E-06,0.020
1.910E-06,0.080
1.920E-06,0.500
1.930E-06,0.500
1.940E-06,0.600
1.950E-06,1.000
1.960E-06,1.060
1.970E-06,1.000
1.980E-06,1.280
1.990E-06,1.060
2.000E-06,1.140
2.010E-06,1.020
2.020E-06,0.720
2.030E-06,0.640
2.040E-06,0.500
2.050E-06,0.360
2.060E-06,0.400
2.070E-06,0.320
2.080E-06,-0.080
2.090E-06,0.000
2.100E-06,0.160
2.110E-06,0.280
2.120E-06,0.100
2.130E-06,0.180
2.140E-06,0.000
2.150E-06,-0.600
2.160E-06,-1.300
2.170E-06,-2.100
2.180E-06,-2.420
2.190E-06,-2.660
2.200E-06,-2.300
2.210E-06,-1.820
2.220E-06,-1.040
2.230E-06,-0.080
2.240E-06,0.060
2.250E-06,1.000
2.260E-06,1.120
2.270E-06,1.760
2.280E-06,2.540
2.290E-06,2.500
2.300E-06,2.760
2.310E-06,2.780
2.320E-06,2.760
2.330E-06,2.760
2.340E-06,2.680
2.350E-06,2.580
2.360E-06,2.500
2.370E-06,2.120
2.380E-06,1.700
2.390E-06,1.020
2.400E-06,0.520
2.410E-06,-0.040
2.420E-06,-0.460
2.430E-06,-0.560
2.440E-06,-0.820
2.450E-06,-1.020
2.460E-06,-1.120
2.470E-06,-1.200
2.480E-06,-1.280
2.490E-06,-1.120
2.500E-06,-1.060
2.510E-06,-1.040
2.520E-06,-1.020
2.530E-06,-0.920
2.540E-06,-0.800
2.550E-06,-0.920
2.560E-06,-0.700
2.570E-06,-0.300
2.580E-06,-0.240
2.590E-06,-0.180
2.600E-06,-0.240
2.610E-06,-0.200
2.620E-06,0.040
2.630E-06,0.140
2.640E-06,0.300
2.650E-06,0.200
2.660E-06,-0.120
2.670E-06,-0.040
2.680E-06,-0.260
2.690E-06,-0.020
2.700E-06,0.200
2.710E-06,0.180
2.720E-06,0.500
2.730E-06,0.540
2.740E-06,0.480
2.750E-06,0.700
2.760E-06,0.720
2.770E-06,1.000
2.780E-06,1.240
2.790E-06,1.380
2.800E-06,1.440
2.810E-06,1.400
2.820E-06,1.300
2.830E-06,1.160
2.840E-06,1.020
2.850E-06,0.920
2.860E-06,0.740
2.870E-06,0.540
2.880E-06,0.300
2.890E-06,0.060
2.900E-06,-0.220
2.910E-06,-0.420
2.920E-06,-0.620
2.930E-06,-0.740
2.940E-06,-0.860
2.950E-06,-0.940
2.960E-06,-1.020
2.970E-06,-1.100
2.980E-06,-1.080
2.990E-06,-1.100
3.000E-06,-1.040
3.010E-06,-0.980
3.020E-06,-0.960
3.030E-06,-0.920
3.040E-06,-0.940
3.050E-06,-0.960
3.060E-06,-1.040
3.070E-06,-1.120
3.080E-06,-1.160
3.090E-06,-1.280
3.100E-06,-1.280
3.110E-06,-1.400
3.120E-06,-1.560
3.130E-06,-1.700
3.140E-06,-1.840
3.150E-06,-1.960
3.160E-06,-2.000
3.170E-06,-1.820
3.180E-06,-1.760
3.190E-06,-1.700
3.200E-06,-1.500
3.210E-06,-1.360
3.220E-06,-1.120
3.230E-06,-1.000
3.240E-06,-0.980
3.250E-06,-0.960
3.260E-06,-0.880
3.270E-06,-1.080
3.280E-06,-0.980
3.290E-06,-0.860
3.300E-06,-0.880
3.310E-06,-0.660
3.320E-06,-0.460
3.330E-06,-0.260
3.340E-06,0.020
3.350E-06,0.160
3.360E-06,0.040
3.370E-06,-0.020
3.380E-06,-0.180
3.390E-06,-0.240
3.400E-06,-0.160
3.410E-06,-0.180
3.420E-06,-0.180
3.430E-06,-0.300
3.440E-06,-0.440
3.450E-06,-0.600
3.460E-06,-0.640
3.470E-06,-0.660
3.480E-06,-0.680
3.490E-06,-0.700
3.500E-06,-0.780
3.510E-06,-0.840
3.520E-06,-0.900
3.530E-06,-0.940
3.540E-06,-1.000
3.550E-06,-1.060
3.560E-06,-1.080
3.570E-06,-1.100
3.580E-06,-1.040
3.590E-06,-1.080
3.600E-06,-1.020
3.610E-06,-0.980
3.620E-06,-0.900
3.630E-06,-0.820
3.640E-06,-0.720
3.650E-06,-0.640
3.660E-06,-0.600
3.670E-06,-0.580
3.680E-06,-0.480
3.690E-06,-0.360
3.700E-06,-0.320
3.710E-06,-0.240
3.720E-06,-0.160
3.730E-06,-0.100
3.740E-06,-0.060
3.750E-06,0.000
3.760E-06,0.040
3.770E-06,0.060
3.780E-06,0.080
3.790E-06,0.100
3.800E-06,0.100
3.810E-06,0.120
3.820E-06,0.160
3.830E-06,0.200
3.840E-06,0.240
3.850E-06,0.320
3.860E-06,0.380
3.870E-06,0.420
3.880E-06,0.440
3.890E-06,0.480
3.900E-06,0.520
3.910E-06,0.520
3.920E-06,0.580
3.930E-06,0.660
3.940E-06,0.660
3.950E-06,0.680
3.960E-06,0.720
3.970E-06,0.700
3.980E-06,0.680
3.990E-06,0.660
4.000E-06,0.660
4.010E-06,0.620
4.020E-06,0.580
4.030E-06,0.540
4.040E-06,0.480
4.050E-06,0.420
4.060E-06,0.320
4.070E-06,0.300
4.080E-06,0.240
4.090E-06,0.160
4.100E-06,0.100
4.110E-06,0.020
4.120E-06,0.000
4.130E-06,-0.040
4.140E-06,-0.040
4.150E-06,-0.080
4.160E-06,-0.120
4.170E-06,-0.080
4.180E-06,-0.060
4.190E-06,-0.040
4.200E-06,0.000
4.210E-06,-0.020
4.220E-06,-0.040
4.230E-06,-0.060
4.240E-06,-0.140
4.250E-06,-0.100
4.260E-06,-0.140
4.270E-06,-0.140
4.280E-06,-0.160
4.290E-06,-0.240
4.300E-06,-0.320
4.310E-06,-0.300
4.320E-06,-0.320
4.330E-06,-0.340
4.340E-06,-0.320
4.350E-06,-0.300
4.360E-06,-0.260
4.370E-06,-0.240
4.380E-06,-0.160
4.390E-06,-0.180
4.400E-06,-0.160
4.410E-06,-0.180
4.420E-06,-0.140
4.430E-06,-0.160
4.440E-06,-0.120
4.450E-06,-0.100
4.460E-06,-0.120
4.470E-06,-0.080
4.480E-06,-0.080
4.490E-06,-0.060
4.500E-06,-0.040
4.510E-06,-0.080
4.520E-06,-0.060
4.530E-06,-0.080
4.540E-06,-0.080
4.550E-06,-0.040
4.560E-06,0.000
4.570E-06,0.000
4.580E-06,0.020
4.590E-06,0.020
4.600E-06,0.000
4.610E-06,0.020
4.620E-06,0.020
4.630E-06,0.060
4.640E-06,-0.020
4.650E-06,0.040
4.660E-06,0.060
4.670E-06,0.040
4.680E-06,0.080
4.690E-06,0.080
4.700E-06,0.060
4.710E-06,0.040
4.720E-06,0.000
4.730E-06,-0.060
4.740E-06,-0.040
4.750E-06,-0.080
4.760E-06,-0.080
4.770E-06,-0.100
4.780E-06,-0.100
4.790E-06,-0.080
4.800E-06,-0.040
4.810E-06,0.000
4.820E-06,0.020
4.830E-06,0.060
4.840E-06,0.080
4.850E-06,0.100
4.860E-06,0.080
4.870E-06,0.100
4.880E-06,0.080
4.890E-06,0.100
4.900E-06,0.100
4.910E-06,0.040
4.920E-06,0.020
4.930E-06,-0.040
4.940E-06,-0.020
4.950E-06,-0.060
4.960E-06,-0.100
4.970E-06,-0.120
4.980E-06,-0.140
4.990E-06,-0.140
5.000E-06,-0.140
5.010E-06,-0.140
5.020E-06,-0.100
5.030E-06,-0.080
5.040E-06,-0.080
5.050E-06,-0.060
5.060E-06,0.020
5.070E-06,0.060
5.080E-06,0.080
5.090E-06,0.180
5.100E-06,0.200
5.110E-06,0.200
5.120E-06,0.200
5.130E-06,0.220
5.140E-06,0.220
5.150E-06,0.200
5.160E-06,0.220
5.170E-06,0.220
5.180E-06,0.220
5.190E-06,0.200
5.200E-06,0.200
5.210E-06,0.180
5.220E-06,0.180
5.230E-06,0.180
5.240E-06,0.200
5.250E-06,0.200
5.260E-06,0.220
5.270E-06,0.240
5.280E-06,0.240
5.290E-06,0.260
5.300E-06,0.280
5.310E-06,0.280
5.320E-06,0.300
5.330E-06,0.280
5.340E-06,0.320
5.350E-06,0.240
5.360E-06,0.260
5.370E-06,0.200
5.380E-06,0.160
5.390E-06,0.160
5.400E-06,0.120
5.410E-06,0.140
5.420E-06,0.180
5.430E-06,0.160
5.440E-06,0.180
5.450E-06,0.180
5.460E-06,0.240
5.470E-06,0.260
5.480E-06,0.260
5.490E-06,0.320
5.500E-06,0.280
5.510E-06,0.340
5.520E-06,0.380
5.530E-06,0.360
5.540E-06,0.380
5.550E-06,0.400
5.560E-06,0.380
5.570E-06,0.360
5.580E-06,0.360
5.590E-06,0.340
5.600E-06,0.260
5.610E-06,0.240
5.620E-06,0.200
5.630E-06,0.160
5.640E-06,0.120
5.650E-06,0.060
5.660E-06,0.080
5.670E-06,0.080
5.680E-06,0.080
5.690E-06,0.080
5.700E-06,0.080
5.710E-06,0.080
5.720E-06,0.080
5.730E-06,0.060
5.740E-06,0.060
5.750E-06,0.100
5.760E-06,0.100
5.770E-06,0.100
5.780E-06,0.120
5.790E-06,0.080
5.800E-06,0.080
5.810E-06,0.120
5.820E-06,0.140
5.830E-06,0.100
5.840E-06,0.140
5.850E-06,0.140
5.860E-06,0.140
5.870E-06,0.160
5.880E-06,0.140
5.890E-06,0.160
5.900E-06,0.160
5.910E-06,0.140
5.920E-06,0.100
5.930E-06,0.080
5.940E-06,0.060
5.950E-06,0.080
5.960E-06,0.100
5.970E-06,0.080
5.980E-06,0.100
5.990E-06,0.080
6.000E-06,0.080
6.010E-06,0.080
6.020E-06,0.100
6.030E-06,0.120
6.040E-06,0.160
6.050E-06,0.220
6.060E-06,0.280
6.070E-06,0.340
6.080E-06,0.360
6.090E-06,0.360
6.100E-06,0.340
6.110E-06,0.340
6.120E-06,0.320
6.130E-06,0.300
6.140E-06,0.240
6.150E-06,0.220
6.160E-06,0.180
6.170E-06,0.160
6.180E-06,0.220
6.190E-06,0.300
6.200E-06,0.360
6.210E-06,0.460
6.220E-06,0.580
6.230E-06,0.720
6.240E-06,0.840
6.250E-06,0.900
6.260E-06,0.960
6.270E-06,1.000
6.280E-06,1.020
6.290E-06,1.040
6.300E-06,1.040
6.310E-06,1.000
6.320E-06,1.000
6.330E-06,1.000
6.340E-06,0.940
6.350E-06,0.920
6.360E-06,0.840
6.370E-06,0.780
6.380E-06,0.740
6.390E-06,0.700
6.400E-06,0.660
6.410E-06,0.640
6.420E-06,0.620
6.430E-06,0.620
6.440E-06,0.680
6.450E-06,0.640
6.460E-06,0.620
6.470E-06,0.600
6.480E-06,0.580
6.490E-06,0.520
6.500E-06,0.440
6.510E-06,0.400
6.520E-06,0.360
6.530E-06,0.340
6.540E-06,0.320
6.550E-06,0.320
6.560E-06,0.340
6.570E-06,0.320
6.580E-06,0.320
6.590E-06,0.340
6.600E-06,0.340
6.610E-06,0.380
6.620E-06,0.440
6.630E-06,0.440
6.640E-06,0.480
6.650E-06,0.500
6.660E-06,0.500
6.670E-06,0.500
6.680E-06,0.520
6.690E-06,0.480
6.700E-06,0.380
6.710E-06,0.320
6.720E-06,0.220
6.730E-06,0.160
6.740E-06,0.060
6.750E-06,0.000
6.760E-06,-0.080
6.770E-06,-0.120
6.780E-06,-0.160
6.790E-06,-0.140
6.800E-06,-0.100
6.810E-06,-0.080
6.820E-06,0.000
6.830E-06,0.040
6.840E-06,0.120
6.850E-06,0.140
6.860E-06,0.180
6.870E-06,0.180
6.880E-06,0.200
6.890E-06,0.260
6.900E-06,0.380
6.910E-06,0.440
6.920E-06,0.560
6.930E-06,0.640
6.940E-06,0.740
6.950E-06,0.820
6.960E-06,0.960
6.970E-06,1.140
6.980E-06,1.380
6.990E-06,1.760
7.000E-06,2.180
7.010E-06,2.620
7.020E-06,2.760
7.030E-06,2.780
7.040E-06,2.780
7.050E-06,2.760
7.060E-06,2.760
7.070E-06,2.760
7.080E-06,2.780
7.090E-06,2.760
7.100E-06,2.740
7.110E-06,2.760
7.120E-06,2.760
7.130E-06,2.760
7.140E-06,2.740
7.150E-06,2.760
7.160E-06,2.780
7.170E-06,2.760
7.180E-06,2.780
7.190E-06,2.760
7.200E-06,2.780
7.210E-06,2.760
7.220E-06,2.340
7.230E-06,1.900
7.240E-06,1.620
7.250E-06,1.420
7.260E-06,1.260
7.270E-06,1.180
7.280E-06,1.100
7.290E-06,1.080
7.300E-06,1.000
7.310E-06,0.960
7.320E-06,0.900
7.330E-06,0.900
7.340E-06,0.900
7.350E-06,0.900
7.360E-06,0.940
7.370E-06,0.920
7.380E-06,0.940
7.390E-06,1.000
7.400E-06,0.980
7.410E-06,0.980
7.420E-06,0.980
7.430E-06,0.920
7.440E-06,0.920
7.450E-06,0.840
7.460E-06,0.780
7.470E-06,0.780
7.480E-06,0.660
7.490E-06,0.560
7.500E-06,0.520
7.510E-06,0.500
7.520E-06,0.540
7.530E-06,0.640
7.540E-06,0.780
7.550E-06,0.840
7.560E-06,0.940
7.570E-06,0.940
7.580E-06,0.920
7.590E-06,0.900
7.600E-06,0.880
7.610E-06,0.820
7.620E-06,0.740
7.630E-06,0.700
7.640E-06,0.600
7.650E-06,0.500
7.660E-06,0.400
7.670E-06,0.260
7.680E-06,0.160
7.690E-06,0.100
7.700E-06,0.020
7.710E-06,-0.040
7.720E-06,-0.080
