mediciones/Mediciones filtradas (saque las feas)/6-10/52.5/WaveData55170.csv

#timebase=2000000(ps)
,#voltbase=100000(mv/100)
#size=4000
-4.250E-06,-0.004
-4.240E-06,0.004
-4.230E-06,0.000
-4.220E-06,-0.008
-4.210E-06,0.024
-4.200E-06,0.012
-4.190E-06,-0.004
-4.180E-06,0.004
-4.170E-06,0.008
-4.160E-06,0.020
-4.150E-06,-0.012
-4.140E-06,0.008
-4.130E-06,0.020
-4.120E-06,-0.004
-4.110E-06,-0.004
-4.100E-06,0.012
-4.090E-06,0.008
-4.080E-06,-0.004
-4.070E-06,0.008
-4.060E-06,0.004
-4.050E-06,0.004
-4.040E-06,0.012
-4.030E-06,0.016
-4.020E-06,0.000
-4.010E-06,-0.004
-4.000E-06,0.000
-3.990E-06,0.004
-3.980E-06,0.000
-3.970E-06,-0.004
-3.960E-06,0.008
-3.950E-06,0.004
-3.940E-06,0.000
-3.930E-06,0.000
-3.920E-06,0.008
-3.910E-06,0.000
-3.900E-06,0.000
-3.890E-06,0.012
-3.880E-06,-0.004
-3.870E-06,0.000
-3.860E-06,0.008
-3.850E-06,0.008
-3.840E-06,0.004
-3.830E-06,0.008
-3.820E-06,0.012
-3.810E-06,0.004
-3.800E-06,0.000
-3.790E-06,0.008
-3.780E-06,0.000
-3.770E-06,0.000
-3.760E-06,0.004
-3.750E-06,0.004
-3.740E-06,0.004
-3.730E-06,0.000
-3.720E-06,0.000
-3.710E-06,0.004
-3.700E-06,0.008
-3.690E-06,0.008
-3.680E-06,0.004
-3.670E-06,0.012
-3.660E-06,0.012
-3.650E-06,0.008
-3.640E-06,-0.004
-3.630E-06,0.012
-3.620E-06,0.008
-3.610E-06,0.016
-3.600E-06,0.004
-3.590E-06,0.016
-3.580E-06,0.028
-3.570E-06,0.024
-3.560E-06,0.024
-3.550E-06,-0.008
-3.540E-06,-0.040
-3.530E-06,-0.040
-3.520E-06,-0.044
-3.510E-06,0.008
-3.500E-06,0.008
-3.490E-06,0.024
-3.480E-06,0.020
-3.470E-06,0.008
-3.460E-06,-0.004
-3.450E-06,-0.004
-3.440E-06,-0.012
-3.430E-06,-0.028
-3.420E-06,-0.004
-3.410E-06,0.024
-3.400E-06,0.032
-3.390E-06,0.024
-3.380E-06,0.004
-3.370E-06,-0.016
-3.360E-06,-0.020
-3.350E-06,-0.012
-3.340E-06,0.008
-3.330E-06,0.020
-3.320E-06,0.020
-3.310E-06,0.024
-3.300E-06,0.012
-3.290E-06,-0.008
-3.280E-06,-0.020
-3.270E-06,-0.012
-3.260E-06,-0.004
-3.250E-06,0.016
-3.240E-06,0.020
-3.230E-06,0.016
-3.220E-06,0.004
-3.210E-06,-0.004
-3.200E-06,-0.008
-3.190E-06,-0.008
-3.180E-06,-0.004
-3.170E-06,0.008
-3.160E-06,0.012
-3.150E-06,0.016
-3.140E-06,0.020
-3.130E-06,0.012
-3.120E-06,-0.008
-3.110E-06,0.008
-3.100E-06,-0.004
-3.090E-06,0.000
-3.080E-06,0.012
-3.070E-06,0.008
-3.060E-06,0.012
-3.050E-06,0.000
-3.040E-06,0.000
-3.030E-06,-0.004
-3.020E-06,-0.004
-3.010E-06,0.004
-3.000E-06,0.008
-2.990E-06,0.012
-2.980E-06,-0.156
-2.970E-06,0.052
-2.960E-06,0.056
-2.950E-06,0.076
-2.940E-06,-0.040
-2.930E-06,0.068
-2.920E-06,0.104
-2.910E-06,-0.044
-2.900E-06,0.000
-2.890E-06,0.044
-2.880E-06,-0.032
-2.870E-06,-0.004
-2.860E-06,0.040
-2.850E-06,0.012
-2.840E-06,-0.004
-2.830E-06,0.028
-2.820E-06,0.020
-2.810E-06,0.028
-2.800E-06,0.020
-2.790E-06,0.020
-2.780E-06,0.012
-2.770E-06,0.028
-2.760E-06,0.028
-2.750E-06,0.012
-2.740E-06,0.016
-2.730E-06,0.012
-2.720E-06,0.012
-2.710E-06,0.024
-2.700E-06,0.036
-2.690E-06,0.032
-2.680E-06,0.028
-2.670E-06,0.048
-2.660E-06,0.048
-2.650E-06,0.048
-2.640E-06,0.044
-2.630E-06,0.024
-2.620E-06,-0.016
-2.610E-06,-0.072
-2.600E-06,-0.132
-2.590E-06,-0.104
-2.580E-06,-0.096
-2.570E-06,-0.040
-2.560E-06,0.004
-2.550E-06,0.032
-2.540E-06,0.036
-2.530E-06,0.008
-2.520E-06,-0.028
-2.510E-06,-0.040
-2.500E-06,-0.040
-2.490E-06,-0.012
-2.480E-06,0.012
-2.470E-06,0.028
-2.460E-06,0.028
-2.450E-06,0.008
-2.440E-06,-0.008
-2.430E-06,-0.028
-2.420E-06,-0.028
-2.410E-06,-0.024
-2.400E-06,0.012
-2.390E-06,0.032
-2.380E-06,0.028
-2.370E-06,0.024
-2.360E-06,0.008
-2.350E-06,-0.008
-2.340E-06,-0.016
-2.330E-06,-0.008
-2.320E-06,0.008
-2.310E-06,0.012
-2.300E-06,0.080
-2.290E-06,-0.004
-2.280E-06,0.180
-2.270E-06,-0.012
-2.260E-06,-0.008
-2.250E-06,0.152
-2.240E-06,-0.056
-2.230E-06,-0.184
-2.220E-06,0.096
-2.210E-06,0.112
-2.200E-06,-0.048
-2.190E-06,0.012
-2.180E-06,0.032
-2.170E-06,-0.040
-2.160E-06,-0.020
-2.150E-06,0.044
-2.140E-06,-0.004
-2.130E-06,0.008
-2.120E-06,0.044
-2.110E-06,0.020
-2.100E-06,0.024
-2.090E-06,0.008
-2.080E-06,0.012
-2.070E-06,0.004
-2.060E-06,0.056
-2.050E-06,0.056
-2.040E-06,0.044
-2.030E-06,0.036
-2.020E-06,0.032
-2.010E-06,0.020
-2.000E-06,0.016
-1.990E-06,0.020
-1.980E-06,0.024
-1.970E-06,0.048
-1.960E-06,0.052
-1.950E-06,0.036
-1.940E-06,0.012
-1.930E-06,-0.004
-1.920E-06,0.016
-1.910E-06,0.008
-1.900E-06,0.012
-1.890E-06,0.016
-1.880E-06,0.036
-1.870E-06,0.076
-1.860E-06,0.064
-1.850E-06,0.064
-1.840E-06,0.068
-1.830E-06,0.036
-1.820E-06,-0.004
-1.810E-06,-0.068
-1.800E-06,-0.084
-1.790E-06,-0.112
-1.780E-06,-0.076
-1.770E-06,-0.068
-1.760E-06,-0.028
-1.750E-06,0.004
-1.740E-06,-0.004
-1.730E-06,-0.004
-1.720E-06,-0.012
-1.710E-06,-0.016
-1.700E-06,-0.032
-1.690E-06,0.000
-1.680E-06,0.008
-1.670E-06,0.040
-1.660E-06,0.052
-1.650E-06,0.032
-1.640E-06,-0.020
-1.630E-06,-0.088
-1.620E-06,-0.100
-1.610E-06,-0.080
-1.600E-06,-0.028
-1.590E-06,0.024
-1.580E-06,0.040
-1.570E-06,0.024
-1.560E-06,0.000
-1.550E-06,-0.036
-1.540E-06,-0.064
-1.530E-06,-0.052
-1.520E-06,-0.016
-1.510E-06,0.028
-1.500E-06,0.040
-1.490E-06,0.024
-1.480E-06,0.004
-1.470E-06,-0.004
-1.460E-06,-0.020
-1.450E-06,-0.020
-1.440E-06,-0.004
-1.430E-06,0.012
-1.420E-06,0.028
-1.410E-06,0.024
-1.400E-06,0.024
-1.390E-06,0.012
-1.380E-06,0.000
-1.370E-06,-0.004
-1.360E-06,0.008
-1.350E-06,0.020
-1.340E-06,0.044
-1.330E-06,0.052
-1.320E-06,0.044
-1.310E-06,0.032
-1.300E-06,0.020
-1.290E-06,0.020
-1.280E-06,0.032
-1.270E-06,0.044
-1.260E-06,0.060
-1.250E-06,0.060
-1.240E-06,0.056
-1.230E-06,0.040
-1.220E-06,0.024
-1.210E-06,0.012
-1.200E-06,0.028
-1.190E-06,0.024
-1.180E-06,0.044
-1.170E-06,0.052
-1.160E-06,0.060
-1.150E-06,0.048
-1.140E-06,0.032
-1.130E-06,0.024
-1.120E-06,0.028
-1.110E-06,0.044
-1.100E-06,0.036
-1.090E-06,0.036
-1.080E-06,0.040
-1.070E-06,0.036
-1.060E-06,0.032
-1.050E-06,0.020
-1.040E-06,0.016
-1.030E-06,-0.004
-1.020E-06,0.004
-1.010E-06,0.020
-1.000E-06,0.032
-9.900E-07,0.056
-9.800E-07,0.060
-9.700E-07,0.068
-9.600E-07,0.072
-9.500E-07,0.068
-9.400E-07,0.064
-9.300E-07,0.076
-9.200E-07,0.088
-9.100E-07,0.104
-9.000E-07,0.100
-8.900E-07,0.080
-8.800E-07,0.040
-8.700E-07,-0.096
-8.600E-07,-0.160
-8.500E-07,-0.268
-8.400E-07,-0.324
-8.300E-07,-0.260
-8.200E-07,-0.152
-8.100E-07,0.012
-8.000E-07,0.048
-7.900E-07,0.068
-7.800E-07,-0.016
-7.700E-07,-0.116
-7.600E-07,-0.192
-7.500E-07,-0.132
-7.400E-07,-0.068
-7.300E-07,0.044
-7.200E-07,0.128
-7.100E-07,0.120
-7.000E-07,0.064
-6.900E-07,-0.048
-6.800E-07,-0.140
-6.700E-07,-0.156
-6.600E-07,-0.076
-6.500E-07,0.028
-6.400E-07,0.104
-6.300E-07,0.096
-6.200E-07,0.056
-6.100E-07,-0.004
-6.000E-07,-0.052
-5.900E-07,-0.072
-5.800E-07,-0.052
-5.700E-07,0.000
-5.600E-07,0.044
-5.500E-07,0.088
-5.400E-07,0.068
-5.300E-07,0.028
-5.200E-07,-0.028
-5.100E-07,-0.060
-5.000E-07,-0.044
-4.900E-07,-0.012
-4.800E-07,0.036
-4.700E-07,0.072
-4.600E-07,0.072
-4.500E-07,0.036
-4.400E-07,0.008
-4.300E-07,-0.024
-4.200E-07,-0.028
-4.100E-07,-0.016
-4.000E-07,0.024
-3.900E-07,0.056
-3.800E-07,0.060
-3.700E-07,0.060
-3.600E-07,0.020
-3.500E-07,0.008
-3.400E-07,-0.024
-3.300E-07,0.012
-3.200E-07,0.020
-3.100E-07,0.056
-3.000E-07,0.108
-2.900E-07,0.068
-2.800E-07,0.072
-2.700E-07,0.068
-2.600E-07,0.056
-2.500E-07,0.076
-2.400E-07,0.104
-2.300E-07,0.124
-2.200E-07,0.140
-2.100E-07,0.144
-2.000E-07,0.124
-1.900E-07,0.076
-1.800E-07,0.084
-1.700E-07,0.080
-1.600E-07,0.092
-1.500E-07,0.096
-1.400E-07,0.156
-1.300E-07,0.144
-1.200E-07,0.180
-1.100E-07,0.144
-1.000E-07,0.056
-9.000E-08,0.168
-8.000E-08,0.140
-7.000E-08,0.212
-6.000E-08,0.088
-5.000E-08,-0.432
-4.000E-08,-0.508
-3.000E-08,-0.508
-2.000E-08,-0.512
-1.000E-08,0.140
0.000E+00,0.524
1.000E-08,0.540
2.000E-08,0.540
3.000E-08,0.540
4.000E-08,-0.512
5.000E-08,-0.508
6.000E-08,-0.512
7.000E-08,0.140
8.000E-08,0.540
9.000E-08,0.540
1.000E-07,0.280
1.100E-07,0.416
1.200E-07,-0.108
1.300E-07,-0.484
1.400E-07,-0.508
1.500E-07,-0.396
1.600E-07,0.240
1.700E-07,0.540
1.800E-07,0.540
1.900E-07,0.216
2.000E-07,-0.168
2.100E-07,-0.472
2.200E-07,-0.368
2.300E-07,-0.176
2.400E-07,0.084
2.500E-07,0.292
2.600E-07,0.368
2.700E-07,0.272
2.800E-07,0.000
2.900E-07,-0.184
3.000E-07,-0.352
3.100E-07,-0.224
3.200E-07,-0.028
3.300E-07,0.264
3.400E-07,0.320
3.500E-07,0.248
3.600E-07,0.076
3.700E-07,-0.076
3.800E-07,-0.168
3.900E-07,-0.192
4.000E-07,0.004
4.100E-07,0.168
4.200E-07,0.296
4.300E-07,0.248
4.400E-07,0.124
4.500E-07,-0.008
4.600E-07,-0.056
4.700E-07,-0.012
4.800E-07,0.112
4.900E-07,0.240
5.000E-07,0.316
5.100E-07,0.288
5.200E-07,0.068
5.300E-07,-0.136
5.400E-07,-0.276
5.500E-07,-0.276
5.600E-07,-0.248
5.700E-07,-0.204
5.800E-07,0.184
5.900E-07,0.204
6.000E-07,-0.040
6.100E-07,-0.088
6.200E-07,-0.176
6.300E-07,-0.172
6.400E-07,-0.156
6.500E-07,-0.108
6.600E-07,0.052
6.700E-07,0.076
6.800E-07,0.076
6.900E-07,0.024
7.000E-07,-0.032
7.100E-07,-0.040
7.200E-07,-0.056
7.300E-07,0.060
7.400E-07,0.064
7.500E-07,0.108
7.600E-07,0.024
7.700E-07,-0.056
7.800E-07,-0.088
7.900E-07,-0.088
8.000E-07,-0.008
8.100E-07,0.064
8.200E-07,0.112
8.300E-07,0.100
8.400E-07,0.048
8.500E-07,-0.008
8.600E-07,-0.068
8.700E-07,-0.080
8.800E-07,-0.056
8.900E-07,0.032
9.000E-07,0.120
9.100E-07,0.096
9.200E-07,0.056
9.300E-07,-0.008
9.400E-07,-0.024
9.500E-07,-0.032
9.600E-07,0.016
9.700E-07,0.084
9.800E-07,0.132
9.900E-07,0.144
1.000E-06,0.044
1.010E-06,0.000
1.020E-06,-0.064
1.030E-06,-0.016
1.040E-06,0.112
1.050E-06,0.144
1.060E-06,0.172
1.070E-06,0.132
1.080E-06,0.056
1.090E-06,0.032
1.100E-06,-0.004
1.110E-06,0.024
1.120E-06,0.128
1.130E-06,0.164
1.140E-06,0.232
1.150E-06,0.208
1.160E-06,0.128
1.170E-06,0.060
1.180E-06,0.056
1.190E-06,0.072
1.200E-06,0.112
1.210E-06,0.152
1.220E-06,0.292
1.230E-06,0.236
1.240E-06,0.136
1.250E-06,0.032
1.260E-06,0.096
1.270E-06,0.040
1.280E-06,0.060
1.290E-06,-0.020
1.300E-06,-0.100
1.310E-06,0.328
1.320E-06,-0.508
1.330E-06,-0.508
1.340E-06,-0.508
1.350E-06,-0.508
1.360E-06,-0.512
1.370E-06,-0.204
1.380E-06,0.540
1.390E-06,0.540
1.400E-06,0.336
1.410E-06,0.000
1.420E-06,-0.512
1.430E-06,-0.512
1.440E-06,-0.300
1.450E-06,0.092
1.460E-06,0.320
1.470E-06,0.476
1.480E-06,0.360
1.490E-06,0.012
1.500E-06,-0.268
1.510E-06,-0.372
1.520E-06,-0.400
1.530E-06,-0.188
1.540E-06,0.088
1.550E-06,0.264
1.560E-06,0.352
1.570E-06,0.136
1.580E-06,-0.008
1.590E-06,-0.236
1.600E-06,-0.292
1.610E-06,-0.288
1.620E-06,-0.068
1.630E-06,0.120
1.640E-06,0.304
1.650E-06,0.260
1.660E-06,0.088
1.670E-06,-0.088
1.680E-06,-0.148
1.690E-06,-0.148
1.700E-06,-0.060
1.710E-06,0.116
1.720E-06,0.200
1.730E-06,0.236
1.740E-06,0.176
1.750E-06,0.028
1.760E-06,-0.108
1.770E-06,-0.176
1.780E-06,-0.128
1.790E-06,-0.004
1.800E-06,0.124
1.810E-06,0.216
1.820E-06,0.224
1.830E-06,0.160
1.840E-06,0.052
1.850E-06,-0.044
1.860E-06,-0.024
1.870E-06,0.036
1.880E-06,0.136
1.890E-06,0.248
1.900E-06,0.260
1.910E-06,0.184
1.920E-06,0.100
1.930E-06,0.044
1.940E-06,0.076
1.950E-06,0.100
1.960E-06,0.148
1.970E-06,0.224
1.980E-06,0.248
1.990E-06,0.240
2.000E-06,0.192
2.010E-06,0.124
2.020E-06,0.056
2.030E-06,0.016
2.040E-06,0.008
2.050E-06,0.040
2.060E-06,0.084
2.070E-06,0.180
2.080E-06,0.192
2.090E-06,0.144
2.100E-06,-0.008
2.110E-06,-0.108
2.120E-06,-0.328
2.130E-06,-0.508
2.140E-06,-0.508
2.150E-06,-0.348
2.160E-06,-0.356
2.170E-06,-0.220
2.180E-06,-0.052
2.190E-06,-0.056
2.200E-06,-0.080
2.210E-06,-0.132
2.220E-06,-0.192
2.230E-06,-0.196
2.240E-06,-0.020
2.250E-06,0.056
2.260E-06,0.144
2.270E-06,0.144
2.280E-06,0.024
2.290E-06,-0.008
2.300E-06,-0.016
2.310E-06,-0.020
2.320E-06,0.040
2.330E-06,0.208
2.340E-06,0.252
2.350E-06,0.236
2.360E-06,0.128
2.370E-06,0.092
2.380E-06,0.056
2.390E-06,0.128
2.400E-06,0.200
2.410E-06,0.160
2.420E-06,0.184
2.430E-06,0.140
2.440E-06,0.132
2.450E-06,0.100
2.460E-06,0.108
2.470E-06,0.132
2.480E-06,0.160
2.490E-06,0.160
2.500E-06,0.108
2.510E-06,0.068
2.520E-06,0.052
2.530E-06,-0.012
2.540E-06,-0.012
2.550E-06,-0.040
2.560E-06,-0.056
2.570E-06,-0.040
2.580E-06,-0.008
2.590E-06,0.056
2.600E-06,0.072
2.610E-06,0.072
2.620E-06,0.068
2.630E-06,0.032
2.640E-06,0.044
2.650E-06,0.060
2.660E-06,0.168
2.670E-06,0.220
2.680E-06,0.264
2.690E-06,0.244
2.700E-06,0.184
2.710E-06,0.128
2.720E-06,0.120
2.730E-06,0.148
2.740E-06,0.192
2.750E-06,0.232
2.760E-06,0.256
2.770E-06,0.256
2.780E-06,0.188
2.790E-06,0.148
2.800E-06,0.124
2.810E-06,0.140
2.820E-06,0.188
2.830E-06,0.240
2.840E-06,0.268
2.850E-06,0.248
2.860E-06,0.220
2.870E-06,0.180
2.880E-06,0.152
2.890E-06,0.160
2.900E-06,0.184
2.910E-06,0.216
2.920E-06,0.236
2.930E-06,0.228
2.940E-06,0.216
2.950E-06,0.184
2.960E-06,0.172
2.970E-06,0.164
2.980E-06,0.184
2.990E-06,0.220
3.000E-06,0.224
3.010E-06,0.240
3.020E-06,0.220
3.030E-06,0.196
3.040E-06,0.180
3.050E-06,0.176
3.060E-06,0.176
3.070E-06,0.192
3.080E-06,0.208
3.090E-06,0.208
3.100E-06,0.188
3.110E-06,0.148
3.120E-06,0.132
3.130E-06,0.128
3.140E-06,0.132
3.150E-06,0.152
3.160E-06,0.156
3.170E-06,0.172
3.180E-06,0.200
3.190E-06,0.212
3.200E-06,0.188
3.210E-06,0.160
3.220E-06,0.160
3.230E-06,0.176
3.240E-06,0.176
3.250E-06,0.164
3.260E-06,0.148
3.270E-06,0.160
3.280E-06,0.160
3.290E-06,0.160
3.300E-06,0.168
3.310E-06,0.188
3.320E-06,0.192
3.330E-06,0.188
3.340E-06,0.196
3.350E-06,0.164
3.360E-06,0.160
3.370E-06,0.180
3.380E-06,0.192
3.390E-06,0.212
3.400E-06,0.208
3.410E-06,0.204
3.420E-06,0.188
3.430E-06,0.184
3.440E-06,0.176
3.450E-06,0.188
3.460E-06,0.196
3.470E-06,0.204
3.480E-06,0.204
3.490E-06,0.204
3.500E-06,0.200
3.510E-06,0.192
3.520E-06,0.180
3.530E-06,0.180
3.540E-06,0.196
3.550E-06,0.200
3.560E-06,0.204
3.570E-06,0.200
3.580E-06,0.200
3.590E-06,0.192
3.600E-06,0.188
3.610E-06,0.192
3.620E-06,0.188
3.630E-06,0.196
3.640E-06,0.192
3.650E-06,0.196
3.660E-06,0.192
3.670E-06,0.192
3.680E-06,0.192
3.690E-06,0.192
3.700E-06,0.188
3.710E-06,0.192
3.720E-06,0.200
3.730E-06,0.196
3.740E-06,0.192
3.750E-06,0.188
3.760E-06,0.180
3.770E-06,0.176
3.780E-06,0.176
3.790E-06,0.180
3.800E-06,0.188
3.810E-06,0.192
3.820E-06,0.192
3.830E-06,0.184
3.840E-06,0.172
3.850E-06,0.176
3.860E-06,0.176
3.870E-06,0.176
3.880E-06,0.172
3.890E-06,0.184
3.900E-06,0.188
3.910E-06,0.184
3.920E-06,0.176
3.930E-06,0.164
3.940E-06,0.160
3.950E-06,0.164
3.960E-06,0.172
3.970E-06,0.180
3.980E-06,0.188
3.990E-06,0.180
4.000E-06,0.180
4.010E-06,0.176
4.020E-06,0.172
4.030E-06,0.180
4.040E-06,0.180
4.050E-06,0.176
4.060E-06,0.184
4.070E-06,0.180
4.080E-06,0.180
4.090E-06,0.180
4.100E-06,0.176
4.110E-06,0.180
4.120E-06,0.188
4.130E-06,0.184
4.140E-06,0.180
4.150E-06,0.180
4.160E-06,0.184
4.170E-06,0.180
4.180E-06,0.172
4.190E-06,0.172
4.200E-06,0.168
4.210E-06,0.172
4.220E-06,0.172
4.230E-06,0.176
4.240E-06,0.180
4.250E-06,0.180
4.260E-06,0.164
4.270E-06,0.160
4.280E-06,0.156
4.290E-06,0.164
4.300E-06,0.176
4.310E-06,0.180
4.320E-06,0.176
4.330E-06,0.172
4.340E-06,0.168
4.350E-06,0.164
4.360E-06,0.160
4.370E-06,0.160
4.380E-06,0.168
4.390E-06,0.172
4.400E-06,0.172
4.410E-06,0.164
4.420E-06,0.164
4.430E-06,0.160
4.440E-06,0.160
4.450E-06,0.160
4.460E-06,0.168
4.470E-06,0.172
4.480E-06,0.172
4.490E-06,0.168
4.500E-06,0.164
4.510E-06,0.168
4.520E-06,0.160
4.530E-06,0.168
4.540E-06,0.164
4.550E-06,0.164
4.560E-06,0.168
4.570E-06,0.160
4.580E-06,0.160
4.590E-06,0.164
4.600E-06,0.160
4.610E-06,0.164
4.620E-06,0.164
4.630E-06,0.152
4.640E-06,0.156
4.650E-06,0.160
4.660E-06,0.160
4.670E-06,0.160
4.680E-06,0.156
4.690E-06,0.156
4.700E-06,0.160
4.710E-06,0.152
4.720E-06,0.156
4.730E-06,0.160
4.740E-06,0.152
4.750E-06,0.160
4.760E-06,0.164
4.770E-06,0.160
4.780E-06,0.160
4.790E-06,0.160
4.800E-06,0.160
4.810E-06,0.160
4.820E-06,0.156
4.830E-06,0.156
4.840E-06,0.160
4.850E-06,0.152
4.860E-06,0.148
4.870E-06,0.152
4.880E-06,0.152
4.890E-06,0.152
4.900E-06,0.148
4.910E-06,0.152
4.920E-06,0.148
4.930E-06,0.152
4.940E-06,0.148
4.950E-06,0.152
4.960E-06,0.152
4.970E-06,0.152
4.980E-06,0.148
4.990E-06,0.148
5.000E-06,0.148
5.010E-06,0.144
5.020E-06,0.148
5.030E-06,0.144
5.040E-06,0.144
5.050E-06,0.144
5.060E-06,0.144
5.070E-06,0.144
5.080E-06,0.140
5.090E-06,0.140
5.100E-06,0.140
5.110E-06,0.144
5.120E-06,0.140
5.130E-06,0.144
5.140E-06,0.140
5.150E-06,0.140
5.160E-06,0.128
5.170E-06,0.128
5.180E-06,0.136
5.190E-06,0.136
5.200E-06,0.136
5.210E-06,0.136
5.220E-06,0.136
5.230E-06,0.136
5.240E-06,0.140
5.250E-06,0.132
5.260E-06,0.132
5.270E-06,0.132
5.280E-06,0.132
5.290E-06,0.132
5.300E-06,0.132
5.310E-06,0.140
5.320E-06,0.140
5.330E-06,0.132
5.340E-06,0.136
5.350E-06,0.128
5.360E-06,0.128
5.370E-06,0.128
5.380E-06,0.132
5.390E-06,0.132
5.400E-06,0.132
5.410E-06,0.128
5.420E-06,0.128
5.430E-06,0.128
5.440E-06,0.128
5.450E-06,0.128
5.460E-06,0.128
5.470E-06,0.128
5.480E-06,0.124
5.490E-06,0.124
5.500E-06,0.120
5.510E-06,0.120
5.520E-06,0.124
5.530E-06,0.128
5.540E-06,0.124
5.550E-06,0.124
5.560E-06,0.120
5.570E-06,0.120
5.580E-06,0.124
5.590E-06,0.124
5.600E-06,0.120
5.610E-06,0.120
5.620E-06,0.128
5.630E-06,0.120
5.640E-06,0.124
5.650E-06,0.120
5.660E-06,0.112
5.670E-06,0.112
5.680E-06,0.120
5.690E-06,0.120
5.700E-06,0.120
5.710E-06,0.120
5.720E-06,0.112
5.730E-06,0.112
5.740E-06,0.112
5.750E-06,0.116
5.760E-06,0.120
5.770E-06,0.112
5.780E-06,0.112
5.790E-06,0.112
5.800E-06,0.112
5.810E-06,0.112
5.820E-06,0.108
5.830E-06,0.108
5.840E-06,0.116
5.850E-06,0.108
5.860E-06,0.112
5.870E-06,0.112
5.880E-06,0.108
5.890E-06,0.108
5.900E-06,0.108
5.910E-06,0.108
5.920E-06,0.108
5.930E-06,0.112
5.940E-06,0.108
5.950E-06,0.108
5.960E-06,0.104
5.970E-06,0.104
5.980E-06,0.108
5.990E-06,0.108
6.000E-06,0.100
6.010E-06,0.108
6.020E-06,0.108
6.030E-06,0.104
6.040E-06,0.096
6.050E-06,0.100
6.060E-06,0.100
6.070E-06,0.100
6.080E-06,0.100
6.090E-06,0.100
6.100E-06,0.104
6.110E-06,0.100
6.120E-06,0.096
6.130E-06,0.100
6.140E-06,0.092
6.150E-06,0.096
6.160E-06,0.096
6.170E-06,0.096
6.180E-06,0.100
6.190E-06,0.096
6.200E-06,0.092
6.210E-06,0.096
6.220E-06,0.092
6.230E-06,0.088
6.240E-06,0.096
6.250E-06,0.088
6.260E-06,0.092
6.270E-06,0.092
6.280E-06,0.092
6.290E-06,0.088
6.300E-06,0.092
6.310E-06,0.092
6.320E-06,0.084
6.330E-06,0.088
6.340E-06,0.084
6.350E-06,0.088
6.360E-06,0.092
6.370E-06,0.088
6.380E-06,0.088
6.390E-06,0.088
6.400E-06,0.092
6.410E-06,0.084
6.420E-06,0.088
6.430E-06,0.084
6.440E-06,0.088
6.450E-06,0.084
6.460E-06,0.084
6.470E-06,0.088
6.480E-06,0.084
6.490E-06,0.084
6.500E-06,0.080
6.510E-06,0.080
6.520E-06,0.080
6.530E-06,0.076
6.540E-06,0.080
6.550E-06,0.076
6.560E-06,0.076
6.570E-06,0.076
6.580E-06,0.076
6.590E-06,0.076
6.600E-06,0.084
6.610E-06,0.076
6.620E-06,0.072
6.630E-06,0.072
6.640E-06,0.072
6.650E-06,0.076
6.660E-06,0.072
6.670E-06,0.072
6.680E-06,0.076
6.690E-06,0.072
6.700E-06,0.076
6.710E-06,0.072
6.720E-06,0.072
6.730E-06,0.068
6.740E-06,0.068
6.750E-06,0.068
6.760E-06,0.072
6.770E-06,0.076
6.780E-06,0.072
6.790E-06,0.068
6.800E-06,0.072
6.810E-06,0.068
6.820E-06,0.064
6.830E-06,0.068
6.840E-06,0.068
6.850E-06,0.072
6.860E-06,0.072
6.870E-06,0.068
6.880E-06,0.060
6.890E-06,0.060
6.900E-06,0.068
6.910E-06,0.068
6.920E-06,0.064
6.930E-06,0.064
6.940E-06,0.068
6.950E-06,0.068
6.960E-06,0.072
6.970E-06,0.076
6.980E-06,0.068
6.990E-06,0.064
7.000E-06,0.064
7.010E-06,0.064
7.020E-06,0.064
7.030E-06,0.064
7.040E-06,0.060
7.050E-06,0.060
7.060E-06,0.064
7.070E-06,0.068
7.080E-06,0.064
7.090E-06,0.060
7.100E-06,0.064
7.110E-06,0.060
7.120E-06,0.056
7.130E-06,0.056
7.140E-06,0.056
7.150E-06,0.060
7.160E-06,0.068
7.170E-06,0.060
7.180E-06,0.060
7.190E-06,0.056
7.200E-06,0.044
7.210E-06,0.052
7.220E-06,0.056
7.230E-06,0.060
7.240E-06,0.060
7.250E-06,0.056
7.260E-06,0.056
7.270E-06,0.044
7.280E-06,0.044
7.290E-06,0.048
7.300E-06,0.052
7.310E-06,0.056
7.320E-06,0.056
7.330E-06,0.060
7.340E-06,0.056
7.350E-06,0.044
7.360E-06,0.040
7.370E-06,0.044
7.380E-06,0.048
7.390E-06,0.052
7.400E-06,0.052
7.410E-06,0.056
7.420E-06,0.048
7.430E-06,0.044
7.440E-06,0.044
7.450E-06,0.036
7.460E-06,0.044
7.470E-06,0.048
7.480E-06,0.052
7.490E-06,0.048
7.500E-06,0.044
7.510E-06,0.048
7.520E-06,0.044
7.530E-06,0.048
7.540E-06,0.044
7.550E-06,0.036
7.560E-06,0.036
7.570E-06,0.036
7.580E-06,0.044
7.590E-06,0.048
7.600E-06,0.044
7.610E-06,0.040
7.620E-06,0.036
7.630E-06,0.036
7.640E-06,0.032
7.650E-06,0.036
7.660E-06,0.048
7.670E-06,0.044
7.680E-06,0.044
7.690E-06,0.040
7.700E-06,0.032
7.710E-06,0.032
7.720E-06,0.032
7.730E-06,0.036
7.740E-06,0.040
7.750E-06,0.040
7.760E-06,0.036
7.770E-06,0.032
7.780E-06,0.032
7.790E-06,0.032
