mediciones/6-26/26.4/WaveData59225.csv

#timebase=2000000(ps)
,#voltbase=200000(mv/100)
#size=4000
-8.150E-06,0.000
-8.140E-06,0.000
-8.130E-06,0.000
-8.120E-06,0.000
-8.110E-06,-0.008
-8.100E-06,0.000
-8.090E-06,0.000
-8.080E-06,0.000
-8.070E-06,0.000
-8.060E-06,0.008
-8.050E-06,-0.008
-8.040E-06,-0.008
-8.030E-06,0.000
-8.020E-06,-0.008
-8.010E-06,0.000
-8.000E-06,0.008
-7.990E-06,0.008
-7.980E-06,-0.008
-7.970E-06,-0.008
-7.960E-06,0.000
-7.950E-06,0.008
-7.940E-06,-0.008
-7.930E-06,-0.008
-7.920E-06,0.000
-7.910E-06,-0.008
-7.900E-06,0.008
-7.890E-06,-0.008
-7.880E-06,0.000
-7.870E-06,0.000
-7.860E-06,0.000
-7.850E-06,0.000
-7.840E-06,0.000
-7.830E-06,0.008
-7.820E-06,0.008
-7.810E-06,-0.008
-7.800E-06,-0.008
-7.790E-06,0.000
-7.780E-06,0.008
-7.770E-06,0.008
-7.760E-06,0.008
-7.750E-06,0.016
-7.740E-06,0.000
-7.730E-06,0.008
-7.720E-06,0.016
-7.710E-06,0.008
-7.700E-06,0.008
-7.690E-06,0.000
-7.680E-06,0.000
-7.670E-06,0.008
-7.660E-06,-0.008
-7.650E-06,-0.008
-7.640E-06,0.000
-7.630E-06,-0.008
-7.620E-06,0.000
-7.610E-06,0.008
-7.600E-06,0.008
-7.590E-06,0.008
-7.580E-06,-0.008
-7.570E-06,0.000
-7.560E-06,0.008
-7.550E-06,-0.008
-7.540E-06,0.000
-7.530E-06,0.000
-7.520E-06,0.008
-7.510E-06,-0.008
-7.500E-06,-0.008
-7.490E-06,0.000
-7.480E-06,0.000
-7.470E-06,-0.008
-7.460E-06,0.008
-7.450E-06,0.000
-7.440E-06,0.000
-7.430E-06,0.000
-7.420E-06,0.008
-7.410E-06,0.008
-7.400E-06,0.008
-7.390E-06,0.008
-7.380E-06,0.008
-7.370E-06,-0.008
-7.360E-06,0.000
-7.350E-06,0.000
-7.340E-06,0.008
-7.330E-06,0.000
-7.320E-06,0.000
-7.310E-06,0.016
-7.300E-06,0.008
-7.290E-06,0.008
-7.280E-06,-0.008
-7.270E-06,0.000
-7.260E-06,0.000
-7.250E-06,0.000
-7.240E-06,0.008
-7.230E-06,0.008
-7.220E-06,0.008
-7.210E-06,-0.008
-7.200E-06,0.000
-7.190E-06,0.000
-7.180E-06,0.000
-7.170E-06,0.000
-7.160E-06,0.008
-7.150E-06,0.008
-7.140E-06,-0.008
-7.130E-06,-0.008
-7.120E-06,0.000
-7.110E-06,0.008
-7.100E-06,0.008
-7.090E-06,0.008
-7.080E-06,-0.008
-7.070E-06,0.000
-7.060E-06,0.000
-7.050E-06,0.000
-7.040E-06,0.000
-7.030E-06,0.000
-7.020E-06,0.000
-7.010E-06,0.000
-7.000E-06,0.000
-6.990E-06,-0.008
-6.980E-06,0.000
-6.970E-06,0.000
-6.960E-06,0.016
-6.950E-06,-0.008
-6.940E-06,-0.008
-6.930E-06,0.000
-6.920E-06,0.008
-6.910E-06,0.000
-6.900E-06,0.000
-6.890E-06,-0.008
-6.880E-06,0.000
-6.870E-06,-0.008
-6.860E-06,0.008
-6.850E-06,0.000
-6.840E-06,0.000
-6.830E-06,0.008
-6.820E-06,-0.008
-6.810E-06,0.008
-6.800E-06,0.000
-6.790E-06,0.000
-6.780E-06,-0.008
-6.770E-06,0.008
-6.760E-06,-0.008
-6.750E-06,0.008
-6.740E-06,0.000
-6.730E-06,0.000
-6.720E-06,0.000
-6.710E-06,-0.008
-6.700E-06,0.000
-6.690E-06,-0.008
-6.680E-06,0.000
-6.670E-06,0.008
-6.660E-06,-0.008
-6.650E-06,-0.008
-6.640E-06,0.000
-6.630E-06,0.008
-6.620E-06,-0.008
-6.610E-06,-0.008
-6.600E-06,0.000
-6.590E-06,-0.008
-6.580E-06,0.000
-6.570E-06,-0.008
-6.560E-06,0.008
-6.550E-06,-0.008
-6.540E-06,0.000
-6.530E-06,0.008
-6.520E-06,0.008
-6.510E-06,0.008
-6.500E-06,0.008
-6.490E-06,-0.008
-6.480E-06,-0.008
-6.470E-06,0.000
-6.460E-06,0.000
-6.450E-06,0.000
-6.440E-06,0.000
-6.430E-06,0.000
-6.420E-06,0.000
-6.410E-06,0.000
-6.400E-06,0.000
-6.390E-06,0.008
-6.380E-06,-0.008
-6.370E-06,0.000
-6.360E-06,0.000
-6.350E-06,0.000
-6.340E-06,0.000
-6.330E-06,0.000
-6.320E-06,0.000
-6.310E-06,0.000
-6.300E-06,0.008
-6.290E-06,0.000
-6.280E-06,0.000
-6.270E-06,0.000
-6.260E-06,0.000
-6.250E-06,0.008
-6.240E-06,-0.008
-6.230E-06,0.008
-6.220E-06,0.000
-6.210E-06,0.000
-6.200E-06,0.000
-6.190E-06,0.000
-6.180E-06,0.000
-6.170E-06,0.000
-6.160E-06,0.000
-6.150E-06,-0.008
-6.140E-06,0.000
-6.130E-06,-0.008
-6.120E-06,0.000
-6.110E-06,0.000
-6.100E-06,0.000
-6.090E-06,-0.008
-6.080E-06,0.000
-6.070E-06,0.000
-6.060E-06,0.000
-6.050E-06,0.000
-6.040E-06,-0.008
-6.030E-06,-0.008
-6.020E-06,0.000
-6.010E-06,0.008
-6.000E-06,-0.008
-5.990E-06,0.000
-5.980E-06,0.000
-5.970E-06,0.000
-5.960E-06,0.000
-5.950E-06,0.000
-5.940E-06,0.000
-5.930E-06,0.000
-5.920E-06,0.000
-5.910E-06,0.000
-5.900E-06,-0.008
-5.890E-06,0.000
-5.880E-06,-0.008
-5.870E-06,0.000
-5.860E-06,0.000
-5.850E-06,0.000
-5.840E-06,0.000
-5.830E-06,0.000
-5.820E-06,0.000
-5.810E-06,-0.008
-5.800E-06,0.000
-5.790E-06,-0.008
-5.780E-06,0.000
-5.770E-06,0.000
-5.760E-06,0.000
-5.750E-06,0.000
-5.740E-06,0.000
-5.730E-06,0.000
-5.720E-06,0.000
-5.710E-06,0.000
-5.700E-06,0.000
-5.690E-06,0.000
-5.680E-06,-0.008
-5.670E-06,0.000
-5.660E-06,0.000
-5.650E-06,0.008
-5.640E-06,-0.008
-5.630E-06,-0.008
-5.620E-06,0.000
-5.610E-06,0.008
-5.600E-06,-0.008
-5.590E-06,-0.008
-5.580E-06,0.008
-5.570E-06,0.000
-5.560E-06,0.008
-5.550E-06,0.000
-5.540E-06,0.000
-5.530E-06,0.000
-5.520E-06,0.000
-5.510E-06,0.000
-5.500E-06,-0.008
-5.490E-06,0.000
-5.480E-06,0.008
-5.470E-06,-0.008
-5.460E-06,-0.008
-5.450E-06,0.000
-5.440E-06,-0.008
-5.430E-06,0.000
-5.420E-06,0.000
-5.410E-06,0.000
-5.400E-06,0.008
-5.390E-06,0.000
-5.380E-06,0.000
-5.370E-06,0.000
-5.360E-06,0.000
-5.350E-06,0.000
-5.340E-06,-0.008
-5.330E-06,0.000
-5.320E-06,0.000
-5.310E-06,0.000
-5.300E-06,0.000
-5.290E-06,0.000
-5.280E-06,0.000
-5.270E-06,0.000
-5.260E-06,0.000
-5.250E-06,0.000
-5.240E-06,0.008
-5.230E-06,0.008
-5.220E-06,0.008
-5.210E-06,0.016
-5.200E-06,0.008
-5.190E-06,-0.008
-5.180E-06,-0.008
-5.170E-06,0.000
-5.160E-06,-0.008
-5.150E-06,0.000
-5.140E-06,0.000
-5.130E-06,0.000
-5.120E-06,0.000
-5.110E-06,0.008
-5.100E-06,0.008
-5.090E-06,-0.008
-5.080E-06,-0.008
-5.070E-06,0.000
-5.060E-06,0.000
-5.050E-06,0.000
-5.040E-06,0.000
-5.030E-06,0.000
-5.020E-06,-0.008
-5.010E-06,0.000
-5.000E-06,0.000
-4.990E-06,0.000
-4.980E-06,0.000
-4.970E-06,0.000
-4.960E-06,0.000
-4.950E-06,0.000
-4.940E-06,0.000
-4.930E-06,0.000
-4.920E-06,0.000
-4.910E-06,0.000
-4.900E-06,0.008
-4.890E-06,0.016
-4.880E-06,-0.008
-4.870E-06,-0.008
-4.860E-06,0.000
-4.850E-06,0.016
-4.840E-06,0.008
-4.830E-06,0.008
-4.820E-06,0.008
-4.810E-06,-0.008
-4.800E-06,-0.008
-4.790E-06,0.008
-4.780E-06,0.008
-4.770E-06,0.000
-4.760E-06,0.000
-4.750E-06,0.000
-4.740E-06,0.000
-4.730E-06,-0.008
-4.720E-06,-0.008
-4.710E-06,0.008
-4.700E-06,-0.008
-4.690E-06,0.000
-4.680E-06,-0.008
-4.670E-06,0.008
-4.660E-06,0.008
-4.650E-06,-0.008
-4.640E-06,-0.008
-4.630E-06,0.000
-4.620E-06,0.000
-4.610E-06,0.008
-4.600E-06,0.000
-4.590E-06,0.016
-4.580E-06,-0.008
-4.570E-06,0.008
-4.560E-06,0.000
-4.550E-06,0.000
-4.540E-06,-0.008
-4.530E-06,0.000
-4.520E-06,0.000
-4.510E-06,0.008
-4.500E-06,0.008
-4.490E-06,0.008
-4.480E-06,0.008
-4.470E-06,-0.008
-4.460E-06,0.000
-4.450E-06,0.000
-4.440E-06,0.000
-4.430E-06,0.008
-4.420E-06,-0.008
-4.410E-06,0.000
-4.400E-06,0.000
-4.390E-06,-0.008
-4.380E-06,0.000
-4.370E-06,0.000
-4.360E-06,0.000
-4.350E-06,0.000
-4.340E-06,0.008
-4.330E-06,0.000
-4.320E-06,0.000
-4.310E-06,0.000
-4.300E-06,0.000
-4.290E-06,0.000
-4.280E-06,-0.008
-4.270E-06,-0.008
-4.260E-06,0.000
-4.250E-06,-0.008
-4.240E-06,0.008
-4.230E-06,0.000
-4.220E-06,0.000
-4.210E-06,0.000
-4.200E-06,0.000
-4.190E-06,-0.008
-4.180E-06,0.000
-4.170E-06,0.000
-4.160E-06,0.000
-4.150E-06,0.000
-4.140E-06,0.000
-4.130E-06,-0.008
-4.120E-06,-0.008
-4.110E-06,0.000
-4.100E-06,-0.008
-4.090E-06,0.000
-4.080E-06,-0.008
-4.070E-06,0.000
-4.060E-06,-0.008
-4.050E-06,0.000
-4.040E-06,0.000
-4.030E-06,0.000
-4.020E-06,0.000
-4.010E-06,0.000
-4.000E-06,0.000
-3.990E-06,0.000
-3.980E-06,-0.008
-3.970E-06,0.000
-3.960E-06,0.008
-3.950E-06,0.000
-3.940E-06,0.008
-3.930E-06,0.008
-3.920E-06,0.008
-3.910E-06,0.008
-3.900E-06,-0.008
-3.890E-06,-0.008
-3.880E-06,0.000
-3.870E-06,0.016
-3.860E-06,-0.008
-3.850E-06,0.000
-3.840E-06,0.000
-3.830E-06,0.000
-3.820E-06,0.008
-3.810E-06,0.008
-3.800E-06,-0.008
-3.790E-06,0.000
-3.780E-06,0.000
-3.770E-06,0.000
-3.760E-06,0.000
-3.750E-06,0.008
-3.740E-06,-0.008
-3.730E-06,0.000
-3.720E-06,0.000
-3.710E-06,0.000
-3.700E-06,0.000
-3.690E-06,0.000
-3.680E-06,0.008
-3.670E-06,0.000
-3.660E-06,0.000
-3.650E-06,0.000
-3.640E-06,-0.008
-3.630E-06,-0.008
-3.620E-06,0.000
-3.610E-06,0.000
-3.600E-06,0.000
-3.590E-06,0.008
-3.580E-06,0.000
-3.570E-06,-0.008
-3.560E-06,0.000
-3.550E-06,0.000
-3.540E-06,0.000
-3.530E-06,0.000
-3.520E-06,0.000
-3.510E-06,-0.008
-3.500E-06,0.000
-3.490E-06,-0.008
-3.480E-06,0.000
-3.470E-06,0.000
-3.460E-06,-0.008
-3.450E-06,0.000
-3.440E-06,-0.008
-3.430E-06,-0.008
-3.420E-06,-0.040
-3.410E-06,-0.008
-3.400E-06,0.088
-3.390E-06,0.472
-3.380E-06,1.088
-3.370E-06,1.080
-3.360E-06,1.080
-3.350E-06,1.072
-3.340E-06,0.768
-3.330E-06,-0.376
-3.320E-06,-1.048
-3.310E-06,-1.040
-3.300E-06,-1.040
-3.290E-06,-1.040
-3.280E-06,-1.048
-3.270E-06,-1.040
-3.260E-06,-1.048
-3.250E-06,-1.048
-3.240E-06,-1.048
-3.230E-06,-0.448
-3.220E-06,-0.032
-3.210E-06,0.128
-3.200E-06,0.224
-3.190E-06,0.264
-3.180E-06,0.344
-3.170E-06,0.456
-3.160E-06,0.536
-3.150E-06,0.544
-3.140E-06,0.496
-3.130E-06,0.400
-3.120E-06,0.344
-3.110E-06,0.368
-3.100E-06,0.408
-3.090E-06,0.488
-3.080E-06,0.504
-3.070E-06,0.448
-3.060E-06,0.288
-3.050E-06,0.104
-3.040E-06,-0.024
-3.030E-06,-0.128
-3.020E-06,-0.152
-3.010E-06,-0.152
-3.000E-06,-0.128
-2.990E-06,-0.104
-2.980E-06,-0.096
-2.970E-06,-0.008
-2.960E-06,0.104
-2.950E-06,0.272
-2.940E-06,0.432
-2.930E-06,0.560
-2.920E-06,0.632
-2.910E-06,0.656
-2.900E-06,0.624
-2.890E-06,0.544
-2.880E-06,0.432
-2.870E-06,0.256
-2.860E-06,0.104
-2.850E-06,-0.072
-2.840E-06,-0.256
-2.830E-06,-0.408
-2.820E-06,-0.576
-2.810E-06,-0.752
-2.800E-06,-0.920
-2.790E-06,-1.040
-2.780E-06,-1.032
-2.770E-06,-1.032
-2.760E-06,-0.952
-2.750E-06,-0.760
-2.740E-06,-0.528
-2.730E-06,-0.328
-2.720E-06,-0.128
-2.710E-06,0.056
-2.700E-06,0.232
-2.690E-06,0.400
-2.680E-06,0.528
-2.670E-06,0.608
-2.660E-06,0.616
-2.650E-06,0.584
-2.640E-06,0.512
-2.630E-06,0.416
-2.620E-06,0.304
-2.610E-06,0.216
-2.600E-06,0.104
-2.590E-06,0.024
-2.580E-06,-0.064
-2.570E-06,-0.112
-2.560E-06,-0.120
-2.550E-06,-0.112
-2.540E-06,-0.112
-2.530E-06,-0.104
-2.520E-06,-0.136
-2.510E-06,-0.168
-2.500E-06,-0.200
-2.490E-06,-0.216
-2.480E-06,-0.200
-2.470E-06,-0.136
-2.460E-06,-0.056
-2.450E-06,0.016
-2.440E-06,0.096
-2.430E-06,0.152
-2.420E-06,0.200
-2.410E-06,0.224
-2.400E-06,0.264
-2.390E-06,0.280
-2.380E-06,0.304
-2.370E-06,0.320
-2.360E-06,0.272
-2.350E-06,0.208
-2.340E-06,0.160
-2.330E-06,0.088
-2.320E-06,0.096
-2.310E-06,0.040
-2.300E-06,0.040
-2.290E-06,0.080
-2.280E-06,0.088
-2.270E-06,0.104
-2.260E-06,0.160
-2.250E-06,0.224
-2.240E-06,0.192
-2.230E-06,0.264
-2.220E-06,0.232
-2.210E-06,0.128
-2.200E-06,0.064
-2.190E-06,-0.024
-2.180E-06,-0.032
-2.170E-06,0.040
-2.160E-06,0.032
-2.150E-06,0.040
-2.140E-06,-0.040
-2.130E-06,-0.104
-2.120E-06,-0.144
-2.110E-06,-0.136
-2.100E-06,-0.120
-2.090E-06,-0.088
-2.080E-06,-0.024
-2.070E-06,-0.032
-2.060E-06,-0.072
-2.050E-06,-0.104
-2.040E-06,-0.104
-2.030E-06,-0.112
-2.020E-06,-0.096
-2.010E-06,-0.056
-2.000E-06,-0.040
-1.990E-06,-0.016
-1.980E-06,-0.008
-1.970E-06,-0.040
-1.960E-06,0.000
-1.950E-06,0.328
-1.940E-06,0.168
-1.930E-06,0.224
-1.920E-06,0.216
-1.910E-06,0.008
-1.900E-06,0.176
-1.890E-06,0.528
-1.880E-06,0.656
-1.870E-06,0.696
-1.860E-06,0.480
-1.850E-06,0.216
-1.840E-06,0.240
-1.830E-06,0.272
-1.820E-06,0.448
-1.810E-06,0.600
-1.800E-06,0.520
-1.790E-06,0.328
-1.780E-06,0.136
-1.770E-06,0.008
-1.760E-06,-0.008
-1.750E-06,0.064
-1.740E-06,0.120
-1.730E-06,0.080
-1.720E-06,-0.072
-1.710E-06,-0.224
-1.700E-06,-0.352
-1.690E-06,-0.384
-1.680E-06,-0.360
-1.670E-06,-0.328
-1.660E-06,-0.288
-1.650E-06,-0.304
-1.640E-06,-0.368
-1.630E-06,-0.392
-1.620E-06,-0.368
-1.610E-06,-0.304
-1.600E-06,-0.192
-1.590E-06,-0.096
-1.580E-06,-0.080
-1.570E-06,-0.096
-1.560E-06,-0.104
-1.550E-06,-0.088
-1.540E-06,-0.056
-1.530E-06,0.024
-1.520E-06,0.088
-1.510E-06,0.104
-1.500E-06,0.152
-1.490E-06,0.184
-1.480E-06,0.256
-1.470E-06,0.336
-1.460E-06,0.336
-1.450E-06,0.312
-1.440E-06,0.296
-1.430E-06,0.272
-1.420E-06,0.336
-1.410E-06,0.376
-1.400E-06,0.416
-1.390E-06,0.424
-1.380E-06,0.400
-1.370E-06,0.392
-1.360E-06,0.392
-1.350E-06,0.400
-1.340E-06,0.424
-1.330E-06,0.440
-1.320E-06,0.472
-1.310E-06,0.464
-1.300E-06,0.464
-1.290E-06,0.488
-1.280E-06,0.480
-1.270E-06,0.480
-1.260E-06,0.488
-1.250E-06,0.464
-1.240E-06,0.496
-1.230E-06,0.536
-1.220E-06,0.528
-1.210E-06,0.464
-1.200E-06,0.448
-1.190E-06,0.464
-1.180E-06,0.536
-1.170E-06,0.528
-1.160E-06,0.592
-1.150E-06,0.496
-1.140E-06,0.480
-1.130E-06,0.632
-1.120E-06,0.408
-1.110E-06,0.192
-1.100E-06,0.176
-1.090E-06,0.128
-1.080E-06,0.224
-1.070E-06,0.224
-1.060E-06,0.088
-1.050E-06,-0.200
-1.040E-06,-0.336
-1.030E-06,-0.336
-1.020E-06,0.024
-1.010E-06,0.584
-1.000E-06,1.008
-9.900E-07,1.080
-9.800E-07,1.080
-9.700E-07,1.072
-9.600E-07,1.080
-9.500E-07,1.080
-9.400E-07,1.072
-9.300E-07,1.080
-9.200E-07,1.080
-9.100E-07,1.080
-9.000E-07,1.080
-8.900E-07,1.080
-8.800E-07,1.088
-8.700E-07,1.088
-8.600E-07,0.976
-8.500E-07,0.736
-8.400E-07,0.568
-8.300E-07,0.424
-8.200E-07,0.336
-8.100E-07,0.392
-8.000E-07,0.504
-7.900E-07,0.672
-7.800E-07,0.760
-7.700E-07,0.632
-7.600E-07,0.440
-7.500E-07,0.240
-7.400E-07,-0.904
-7.300E-07,-0.720
-7.200E-07,-1.048
-7.100E-07,-1.032
-7.000E-07,-0.552
-6.900E-07,-0.384
-6.800E-07,-0.528
-6.700E-07,-0.120
-6.600E-07,-0.176
-6.500E-07,0.432
-6.400E-07,1.088
-6.300E-07,1.080
-6.200E-07,1.072
-6.100E-07,1.080
-6.000E-07,1.080
-5.900E-07,1.088
-5.800E-07,0.832
-5.700E-07,0.504
-5.600E-07,0.656
-5.500E-07,0.864
-5.400E-07,1.080
-5.300E-07,1.088
-5.200E-07,1.080
-5.100E-07,1.080
-5.000E-07,1.072
-4.900E-07,1.080
-4.800E-07,1.088
-4.700E-07,1.080
-4.600E-07,1.088
-4.500E-07,1.080
-4.400E-07,1.088
-4.300E-07,1.080
-4.200E-07,1.072
-4.100E-07,1.080
-4.000E-07,1.088
-3.900E-07,1.088
-3.800E-07,0.680
-3.700E-07,0.408
-3.600E-07,0.096
-3.500E-07,0.016
-3.400E-07,-0.032
-3.300E-07,0.056
-3.200E-07,0.160
-3.100E-07,0.312
-3.000E-07,0.456
-2.900E-07,0.224
-2.800E-07,0.216
-2.700E-07,0.328
-2.600E-07,0.368
-2.500E-07,0.752
-2.400E-07,1.080
-2.300E-07,1.080
-2.200E-07,1.088
-2.100E-07,1.088
-2.000E-07,1.080
-1.900E-07,1.088
-1.800E-07,1.080
-1.700E-07,1.080
-1.600E-07,1.080
-1.500E-07,1.080
-1.400E-07,1.080
-1.300E-07,1.080
-1.200E-07,1.080
-1.100E-07,1.080
-1.000E-07,1.088
-9.000E-08,1.088
-8.000E-08,1.080
-7.000E-08,1.080
-6.000E-08,1.072
-5.000E-08,1.080
-4.000E-08,0.312
-3.000E-08,-0.736
-2.000E-08,-1.040
-1.000E-08,-1.040
0.000E+00,-1.040
1.000E-08,-1.048
2.000E-08,-0.320
3.000E-08,0.696
4.000E-08,1.080
5.000E-08,0.504
6.000E-08,-0.840
7.000E-08,-0.800
8.000E-08,-1.008
9.000E-08,-0.752
1.000E-07,-0.136
1.100E-07,0.632
1.200E-07,1.080
1.300E-07,1.080
1.400E-07,1.088
1.500E-07,1.080
1.600E-07,-0.264
1.700E-07,-1.032
1.800E-07,-1.032
1.900E-07,-1.040
2.000E-07,-1.048
2.100E-07,-1.048
2.200E-07,-1.032
2.300E-07,-1.032
2.400E-07,-0.272
2.500E-07,1.080
2.600E-07,1.088
2.700E-07,1.080
2.800E-07,1.080
2.900E-07,1.088
3.000E-07,1.080
3.100E-07,1.080
3.200E-07,1.072
3.300E-07,1.080
3.400E-07,1.080
3.500E-07,1.080
3.600E-07,1.088
3.700E-07,1.088
3.800E-07,-0.024
3.900E-07,-0.848
4.000E-07,-1.032
4.100E-07,-1.040
4.200E-07,-1.040
4.300E-07,-1.040
4.400E-07,-1.040
4.500E-07,-1.040
4.600E-07,-0.664
4.700E-07,0.360
4.800E-07,1.080
4.900E-07,1.080
5.000E-07,1.088
5.100E-07,1.088
5.200E-07,1.080
5.300E-07,1.088
5.400E-07,1.088
5.500E-07,1.080
5.600E-07,1.088
5.700E-07,1.080
5.800E-07,0.632
5.900E-07,0.112
6.000E-07,-0.264
6.100E-07,-0.656
6.200E-07,-0.928
6.300E-07,-0.952
6.400E-07,-0.864
6.500E-07,-0.632
6.600E-07,-0.352
6.700E-07,-0.032
6.800E-07,0.224
6.900E-07,0.448
7.000E-07,0.584
7.100E-07,0.624
7.200E-07,0.552
7.300E-07,0.400
7.400E-07,0.264
7.500E-07,0.136
7.600E-07,0.056
7.700E-07,0.008
7.800E-07,0.000
7.900E-07,0.016
8.000E-07,-0.008
8.100E-07,0.080
8.200E-07,0.224
8.300E-07,0.512
8.400E-07,0.824
8.500E-07,1.080
8.600E-07,1.088
8.700E-07,1.088
8.800E-07,1.080
8.900E-07,1.080
9.000E-07,0.888
9.100E-07,0.488
9.200E-07,0.064
9.300E-07,-0.376
9.400E-07,-0.840
9.500E-07,-1.048
9.600E-07,-1.048
9.700E-07,-1.048
9.800E-07,-1.048
9.900E-07,-1.032
1.000E-06,-1.040
1.010E-06,-1.048
1.020E-06,-1.040
1.030E-06,-1.048
1.040E-06,-1.032
1.050E-06,-1.040
1.060E-06,-1.040
1.070E-06,-1.048
1.080E-06,-1.040
1.090E-06,-1.032
1.100E-06,-1.032
1.110E-06,-1.040
1.120E-06,-1.048
1.130E-06,-1.032
1.140E-06,-1.032
1.150E-06,-1.040
1.160E-06,-1.040
1.170E-06,-1.040
1.180E-06,-0.912
1.190E-06,-0.576
1.200E-06,-0.136
1.210E-06,0.200
1.220E-06,0.552
1.230E-06,0.888
1.240E-06,1.080
1.250E-06,1.080
1.260E-06,1.072
1.270E-06,1.080
1.280E-06,1.080
1.290E-06,1.080
1.300E-06,1.088
1.310E-06,1.080
1.320E-06,1.080
1.330E-06,1.080
1.340E-06,1.080
1.350E-06,1.072
1.360E-06,1.080
1.370E-06,1.080
1.380E-06,1.072
1.390E-06,1.080
1.400E-06,1.088
1.410E-06,1.088
1.420E-06,1.040
1.430E-06,0.968
1.440E-06,0.944
1.450E-06,0.992
1.460E-06,1.064
1.470E-06,1.072
1.480E-06,1.080
1.490E-06,1.048
1.500E-06,0.944
1.510E-06,0.808
1.520E-06,0.632
1.530E-06,0.496
1.540E-06,0.352
1.550E-06,0.232
1.560E-06,0.128
1.570E-06,0.032
1.580E-06,-0.008
1.590E-06,0.032
1.600E-06,0.128
1.610E-06,0.280
1.620E-06,0.432
1.630E-06,0.584
1.640E-06,0.752
1.650E-06,0.880
1.660E-06,0.944
1.670E-06,1.016
1.680E-06,1.072
1.690E-06,1.080
1.700E-06,1.080
1.710E-06,0.824
1.720E-06,0.432
1.730E-06,0.128
1.740E-06,-0.040
1.750E-06,-0.032
1.760E-06,0.088
1.770E-06,0.296
1.780E-06,0.432
1.790E-06,0.528
1.800E-06,0.656
1.810E-06,0.768
1.820E-06,0.872
1.830E-06,0.840
1.840E-06,0.704
1.850E-06,0.504
1.860E-06,0.272
1.870E-06,0.184
1.880E-06,0.152
1.890E-06,0.176
1.900E-06,0.232
1.910E-06,0.232
1.920E-06,0.312
1.930E-06,0.272
1.940E-06,0.160
1.950E-06,0.056
1.960E-06,0.024
1.970E-06,0.112
1.980E-06,0.200
1.990E-06,0.264
2.000E-06,0.312
2.010E-06,0.336
2.020E-06,0.336
2.030E-06,0.304
2.040E-06,0.264
2.050E-06,0.224
2.060E-06,0.200
2.070E-06,0.184
2.080E-06,0.160
2.090E-06,0.136
2.100E-06,0.104
2.110E-06,0.064
2.120E-06,-0.008
2.130E-06,-0.088
2.140E-06,-0.168
2.150E-06,-0.232
2.160E-06,-0.232
2.170E-06,-0.168
2.180E-06,-0.104
2.190E-06,0.000
2.200E-06,0.120
2.210E-06,0.216
2.220E-06,0.336
2.230E-06,0.424
2.240E-06,0.464
2.250E-06,0.464
2.260E-06,0.360
2.270E-06,0.184
2.280E-06,-0.016
2.290E-06,-0.160
2.300E-06,-0.280
2.310E-06,-0.296
2.320E-06,-0.240
2.330E-06,-0.160
2.340E-06,-0.112
2.350E-06,-0.112
2.360E-06,-0.072
2.370E-06,0.000
2.380E-06,0.088
2.390E-06,0.176
2.400E-06,0.296
2.410E-06,0.328
2.420E-06,0.392
2.430E-06,0.464
2.440E-06,0.560
2.450E-06,0.664
2.460E-06,0.680
2.470E-06,0.640
2.480E-06,0.608
2.490E-06,0.568
2.500E-06,0.608
2.510E-06,0.568
2.520E-06,0.512
2.530E-06,0.328
2.540E-06,0.136
2.550E-06,-0.024
2.560E-06,-0.112
2.570E-06,-0.200
2.580E-06,-0.320
2.590E-06,-0.432
2.600E-06,-0.496
2.610E-06,-0.488
2.620E-06,-0.416
2.630E-06,-0.344
2.640E-06,-0.240
2.650E-06,-0.136
2.660E-06,-0.040
2.670E-06,0.072
2.680E-06,0.096
2.690E-06,0.096
2.700E-06,0.080
2.710E-06,0.048
2.720E-06,0.008
2.730E-06,-0.088
2.740E-06,-0.216
2.750E-06,-0.304
2.760E-06,-0.328
2.770E-06,-0.304
2.780E-06,-0.280
2.790E-06,-0.224
2.800E-06,-0.160
2.810E-06,-0.128
2.820E-06,-0.096
2.830E-06,0.000
2.840E-06,0.112
2.850E-06,0.248
2.860E-06,0.360
2.870E-06,0.392
2.880E-06,0.416
2.890E-06,0.400
2.900E-06,0.424
2.910E-06,0.432
2.920E-06,0.520
2.930E-06,0.632
2.940E-06,0.672
2.950E-06,0.568
2.960E-06,0.480
2.970E-06,0.344
2.980E-06,0.256
2.990E-06,0.176
3.000E-06,0.064
3.010E-06,-0.048
3.020E-06,-0.120
3.030E-06,-0.152
3.040E-06,-0.144
3.050E-06,-0.144
3.060E-06,-0.144
3.070E-06,-0.128
3.080E-06,-0.104
3.090E-06,-0.072
3.100E-06,-0.056
3.110E-06,-0.040
3.120E-06,-0.040
3.130E-06,-0.024
3.140E-06,0.128
3.150E-06,0.200
3.160E-06,0.208
3.170E-06,0.144
3.180E-06,-0.008
3.190E-06,-0.072
3.200E-06,-0.096
3.210E-06,-0.136
3.220E-06,-0.184
3.230E-06,-0.200
3.240E-06,-0.200
3.250E-06,-0.160
3.260E-06,-0.112
3.270E-06,-0.064
3.280E-06,-0.032
3.290E-06,-0.008
3.300E-06,0.008
3.310E-06,0.008
3.320E-06,-0.008
3.330E-06,-0.016
3.340E-06,-0.048
3.350E-06,-0.040
3.360E-06,-0.056
3.370E-06,-0.064
3.380E-06,-0.080
3.390E-06,-0.096
3.400E-06,-0.064
3.410E-06,-0.008
3.420E-06,0.048
3.430E-06,0.096
3.440E-06,0.096
3.450E-06,0.016
3.460E-06,-0.064
3.470E-06,-0.136
3.480E-06,-0.168
3.490E-06,-0.192
3.500E-06,-0.200
3.510E-06,-0.224
3.520E-06,-0.232
3.530E-06,-0.208
3.540E-06,-0.136
3.550E-06,0.152
3.560E-06,0.568
