mediciones/6-26/26.4/WaveData59219.csv

#timebase=2000000(ps)
,#voltbase=200000(mv/100)
#size=4000
-8.150E-06,-0.008
-8.140E-06,0.000
-8.130E-06,0.008
-8.120E-06,-0.008
-8.110E-06,-0.008
-8.100E-06,0.000
-8.090E-06,-0.008
-8.080E-06,0.000
-8.070E-06,-0.008
-8.060E-06,0.000
-8.050E-06,0.000
-8.040E-06,0.000
-8.030E-06,0.000
-8.020E-06,-0.008
-8.010E-06,-0.008
-8.000E-06,0.008
-7.990E-06,-0.008
-7.980E-06,-0.008
-7.970E-06,0.008
-7.960E-06,0.000
-7.950E-06,0.000
-7.940E-06,0.000
-7.930E-06,0.000
-7.920E-06,0.008
-7.910E-06,-0.008
-7.900E-06,-0.008
-7.890E-06,0.000
-7.880E-06,0.000
-7.870E-06,0.000
-7.860E-06,0.000
-7.850E-06,0.000
-7.840E-06,0.000
-7.830E-06,0.000
-7.820E-06,0.000
-7.810E-06,0.000
-7.800E-06,0.000
-7.790E-06,0.000
-7.780E-06,0.000
-7.770E-06,0.000
-7.760E-06,0.000
-7.750E-06,0.000
-7.740E-06,0.008
-7.730E-06,0.008
-7.720E-06,-0.008
-7.710E-06,0.000
-7.700E-06,0.008
-7.690E-06,0.000
-7.680E-06,0.000
-7.670E-06,0.008
-7.660E-06,0.008
-7.650E-06,0.008
-7.640E-06,0.008
-7.630E-06,-0.008
-7.620E-06,0.000
-7.610E-06,0.000
-7.600E-06,0.000
-7.590E-06,0.000
-7.580E-06,0.000
-7.570E-06,0.000
-7.560E-06,0.000
-7.550E-06,0.000
-7.540E-06,0.000
-7.530E-06,-0.008
-7.520E-06,-0.008
-7.510E-06,0.000
-7.500E-06,-0.008
-7.490E-06,-0.008
-7.480E-06,0.000
-7.470E-06,0.000
-7.460E-06,0.008
-7.450E-06,0.000
-7.440E-06,0.000
-7.430E-06,0.000
-7.420E-06,0.008
-7.410E-06,0.008
-7.400E-06,-0.008
-7.390E-06,0.000
-7.380E-06,0.000
-7.370E-06,0.000
-7.360E-06,0.000
-7.350E-06,0.000
-7.340E-06,0.000
-7.330E-06,-0.008
-7.320E-06,0.000
-7.310E-06,0.000
-7.300E-06,0.000
-7.290E-06,0.000
-7.280E-06,-0.008
-7.270E-06,0.008
-7.260E-06,-0.008
-7.250E-06,0.000
-7.240E-06,0.008
-7.230E-06,0.008
-7.220E-06,0.008
-7.210E-06,-0.008
-7.200E-06,0.000
-7.190E-06,0.008
-7.180E-06,0.000
-7.170E-06,0.000
-7.160E-06,-0.008
-7.150E-06,0.000
-7.140E-06,-0.008
-7.130E-06,0.000
-7.120E-06,0.000
-7.110E-06,0.000
-7.100E-06,0.000
-7.090E-06,0.000
-7.080E-06,0.000
-7.070E-06,0.000
-7.060E-06,0.000
-7.050E-06,0.000
-7.040E-06,0.000
-7.030E-06,0.000
-7.020E-06,0.000
-7.010E-06,0.000
-7.000E-06,0.000
-6.990E-06,0.008
-6.980E-06,-0.008
-6.970E-06,0.000
-6.960E-06,0.000
-6.950E-06,0.000
-6.940E-06,0.000
-6.930E-06,-0.008
-6.920E-06,0.000
-6.910E-06,-0.008
-6.900E-06,0.000
-6.890E-06,0.008
-6.880E-06,-0.008
-6.870E-06,0.000
-6.860E-06,0.000
-6.850E-06,0.000
-6.840E-06,0.000
-6.830E-06,0.000
-6.820E-06,0.000
-6.810E-06,-0.008
-6.800E-06,0.000
-6.790E-06,-0.008
-6.780E-06,0.000
-6.770E-06,0.000
-6.760E-06,0.000
-6.750E-06,0.000
-6.740E-06,0.000
-6.730E-06,0.000
-6.720E-06,0.008
-6.710E-06,-0.008
-6.700E-06,0.008
-6.690E-06,0.000
-6.680E-06,0.000
-6.670E-06,0.000
-6.660E-06,0.000
-6.650E-06,0.000
-6.640E-06,-0.008
-6.630E-06,-0.008
-6.620E-06,0.008
-6.610E-06,0.008
-6.600E-06,0.008
-6.590E-06,0.024
-6.580E-06,0.024
-6.570E-06,0.008
-6.560E-06,0.000
-6.550E-06,0.000
-6.540E-06,-0.008
-6.530E-06,0.000
-6.520E-06,0.016
-6.510E-06,0.016
-6.500E-06,0.000
-6.490E-06,0.000
-6.480E-06,0.000
-6.470E-06,-0.008
-6.460E-06,-0.008
-6.450E-06,0.008
-6.440E-06,0.016
-6.430E-06,0.008
-6.420E-06,-0.008
-6.410E-06,-0.008
-6.400E-06,0.000
-6.390E-06,0.000
-6.380E-06,0.016
-6.370E-06,0.008
-6.360E-06,-0.008
-6.350E-06,0.000
-6.340E-06,0.008
-6.330E-06,-0.008
-6.320E-06,0.008
-6.310E-06,0.008
-6.300E-06,0.008
-6.290E-06,0.000
-6.280E-06,0.008
-6.270E-06,0.008
-6.260E-06,0.008
-6.250E-06,0.000
-6.240E-06,0.008
-6.230E-06,0.008
-6.220E-06,0.000
-6.210E-06,-0.008
-6.200E-06,0.000
-6.190E-06,0.000
-6.180E-06,0.000
-6.170E-06,0.008
-6.160E-06,0.008
-6.150E-06,0.000
-6.140E-06,0.008
-6.130E-06,0.008
-6.120E-06,0.008
-6.110E-06,-0.008
-6.100E-06,0.008
-6.090E-06,0.000
-6.080E-06,0.000
-6.070E-06,0.000
-6.060E-06,0.008
-6.050E-06,0.008
-6.040E-06,0.016
-6.030E-06,0.000
-6.020E-06,-0.008
-6.010E-06,0.000
-6.000E-06,0.008
-5.990E-06,0.008
-5.980E-06,-0.008
-5.970E-06,0.008
-5.960E-06,0.000
-5.950E-06,0.000
-5.940E-06,0.000
-5.930E-06,0.000
-5.920E-06,0.008
-5.910E-06,-0.008
-5.900E-06,-0.008
-5.890E-06,0.000
-5.880E-06,0.000
-5.870E-06,0.008
-5.860E-06,0.000
-5.850E-06,0.000
-5.840E-06,0.000
-5.830E-06,0.000
-5.820E-06,-0.008
-5.810E-06,0.008
-5.800E-06,0.008
-5.790E-06,0.000
-5.780E-06,0.000
-5.770E-06,-0.008
-5.760E-06,0.000
-5.750E-06,0.008
-5.740E-06,-0.008
-5.730E-06,0.000
-5.720E-06,0.008
-5.710E-06,0.000
-5.700E-06,0.008
-5.690E-06,0.000
-5.680E-06,0.000
-5.670E-06,0.008
-5.660E-06,-0.008
-5.650E-06,0.000
-5.640E-06,0.000
-5.630E-06,0.016
-5.620E-06,0.016
-5.610E-06,-0.008
-5.600E-06,0.000
-5.590E-06,0.000
-5.580E-06,-0.008
-5.570E-06,0.008
-5.560E-06,-0.008
-5.550E-06,0.008
-5.540E-06,0.000
-5.530E-06,0.008
-5.520E-06,0.008
-5.510E-06,-0.008
-5.500E-06,0.000
-5.490E-06,0.000
-5.480E-06,0.000
-5.470E-06,0.000
-5.460E-06,0.000
-5.450E-06,0.000
-5.440E-06,0.008
-5.430E-06,0.000
-5.420E-06,0.008
-5.410E-06,0.000
-5.400E-06,-0.008
-5.390E-06,0.000
-5.380E-06,0.000
-5.370E-06,0.008
-5.360E-06,0.000
-5.350E-06,0.000
-5.340E-06,0.000
-5.330E-06,0.000
-5.320E-06,-0.008
-5.310E-06,0.000
-5.300E-06,0.000
-5.290E-06,0.000
-5.280E-06,0.008
-5.270E-06,0.000
-5.260E-06,0.016
-5.250E-06,-0.008
-5.240E-06,0.000
-5.230E-06,0.008
-5.220E-06,0.008
-5.210E-06,0.000
-5.200E-06,0.008
-5.190E-06,0.000
-5.180E-06,0.008
-5.170E-06,-0.008
-5.160E-06,-0.008
-5.150E-06,0.008
-5.140E-06,0.000
-5.130E-06,0.008
-5.120E-06,0.000
-5.110E-06,0.000
-5.100E-06,0.000
-5.090E-06,0.000
-5.080E-06,-0.008
-5.070E-06,-0.008
-5.060E-06,0.000
-5.050E-06,0.000
-5.040E-06,0.000
-5.030E-06,-0.008
-5.020E-06,0.000
-5.010E-06,0.000
-5.000E-06,0.000
-4.990E-06,0.000
-4.980E-06,0.008
-4.970E-06,0.016
-4.960E-06,0.016
-4.950E-06,0.016
-4.940E-06,0.016
-4.930E-06,0.016
-4.920E-06,0.016
-4.910E-06,0.016
-4.900E-06,0.008
-4.890E-06,-0.008
-4.880E-06,0.000
-4.870E-06,0.000
-4.860E-06,0.000
-4.850E-06,0.000
-4.840E-06,-0.008
-4.830E-06,0.000
-4.820E-06,0.008
-4.810E-06,0.008
-4.800E-06,0.008
-4.790E-06,0.000
-4.780E-06,0.008
-4.770E-06,0.008
-4.760E-06,-0.008
-4.750E-06,0.008
-4.740E-06,0.000
-4.730E-06,0.008
-4.720E-06,0.000
-4.710E-06,-0.008
-4.700E-06,0.000
-4.690E-06,0.008
-4.680E-06,-0.008
-4.670E-06,-0.008
-4.660E-06,0.008
-4.650E-06,0.016
-4.640E-06,-0.008
-4.630E-06,-0.008
-4.620E-06,0.008
-4.610E-06,-0.008
-4.600E-06,0.008
-4.590E-06,0.008
-4.580E-06,0.008
-4.570E-06,0.000
-4.560E-06,0.008
-4.550E-06,0.008
-4.540E-06,0.008
-4.530E-06,0.016
-4.520E-06,0.016
-4.510E-06,-0.008
-4.500E-06,0.000
-4.490E-06,0.000
-4.480E-06,-0.008
-4.470E-06,0.000
-4.460E-06,0.000
-4.450E-06,0.000
-4.440E-06,0.008
-4.430E-06,0.000
-4.420E-06,0.000
-4.410E-06,0.000
-4.400E-06,0.000
-4.390E-06,0.008
-4.380E-06,0.000
-4.370E-06,0.000
-4.360E-06,0.008
-4.350E-06,0.008
-4.340E-06,0.008
-4.330E-06,0.008
-4.320E-06,0.008
-4.310E-06,0.008
-4.300E-06,-0.008
-4.290E-06,-0.008
-4.280E-06,0.000
-4.270E-06,-0.008
-4.260E-06,-0.008
-4.250E-06,0.008
-4.240E-06,0.008
-4.230E-06,0.008
-4.220E-06,0.000
-4.210E-06,-0.008
-4.200E-06,0.008
-4.190E-06,0.000
-4.180E-06,0.000
-4.170E-06,0.000
-4.160E-06,0.000
-4.150E-06,-0.016
-4.140E-06,0.016
-4.130E-06,0.216
-4.120E-06,0.800
-4.110E-06,1.080
-4.100E-06,1.072
-4.090E-06,1.080
-4.080E-06,1.088
-4.070E-06,1.088
-4.060E-06,-0.168
-4.050E-06,-1.048
-4.040E-06,-1.040
-4.030E-06,-1.040
-4.020E-06,-1.048
-4.010E-06,-1.040
-4.000E-06,-1.032
-3.990E-06,-1.032
-3.980E-06,-1.040
-3.970E-06,-1.032
-3.960E-06,-1.008
-3.950E-06,-0.432
-3.940E-06,0.000
-3.930E-06,0.360
-3.920E-06,0.376
-3.910E-06,0.392
-3.900E-06,0.440
-3.890E-06,0.520
-3.880E-06,0.616
-3.870E-06,0.680
-3.860E-06,0.680
-3.850E-06,0.656
-3.840E-06,0.648
-3.830E-06,0.704
-3.820E-06,0.760
-3.810E-06,0.784
-3.800E-06,0.736
-3.790E-06,0.560
-3.780E-06,0.288
-3.770E-06,0.016
-3.760E-06,-0.128
-3.750E-06,-0.072
-3.740E-06,-0.384
-3.730E-06,-0.504
-3.720E-06,-0.472
-3.710E-06,-0.104
-3.700E-06,-0.144
-3.690E-06,0.728
-3.680E-06,0.768
-3.670E-06,0.704
-3.660E-06,0.744
-3.650E-06,0.672
-3.640E-06,0.840
-3.630E-06,1.080
-3.620E-06,1.032
-3.610E-06,0.848
-3.600E-06,0.488
-3.590E-06,-0.088
-3.580E-06,-0.376
-3.570E-06,-0.568
-3.560E-06,-0.624
-3.550E-06,-0.664
-3.540E-06,-0.840
-3.530E-06,-1.032
-3.520E-06,-1.040
-3.510E-06,-1.040
-3.500E-06,-1.040
-3.490E-06,-1.040
-3.480E-06,-1.048
-3.470E-06,-0.896
-3.460E-06,-0.608
-3.450E-06,-0.400
-3.440E-06,-0.168
-3.430E-06,0.056
-3.420E-06,0.312
-3.410E-06,0.528
-3.400E-06,0.696
-3.390E-06,0.800
-3.380E-06,0.768
-3.370E-06,0.712
-3.360E-06,0.584
-3.350E-06,0.456
-3.340E-06,0.336
-3.330E-06,0.192
-3.320E-06,0.096
-3.310E-06,0.000
-3.300E-06,-0.072
-3.290E-06,-0.112
-3.280E-06,-0.144
-3.270E-06,-0.152
-3.260E-06,-0.192
-3.250E-06,-0.216
-3.240E-06,-0.224
-3.230E-06,-0.232
-3.220E-06,-0.208
-3.210E-06,-0.176
-3.200E-06,-0.144
-3.190E-06,-0.096
-3.180E-06,-0.024
-3.170E-06,0.056
-3.160E-06,0.160
-3.150E-06,0.256
-3.140E-06,0.336
-3.130E-06,0.376
-3.120E-06,0.376
-3.110E-06,0.336
-3.100E-06,0.288
-3.090E-06,0.232
-3.080E-06,0.152
-3.070E-06,0.096
-3.060E-06,0.024
-3.050E-06,-0.040
-3.040E-06,-0.112
-3.030E-06,-0.160
-3.020E-06,-0.168
-3.010E-06,-0.168
-3.000E-06,-0.144
-2.990E-06,-0.120
-2.980E-06,-0.096
-2.970E-06,-0.088
-2.960E-06,-0.096
-2.950E-06,-0.080
-2.940E-06,-0.072
-2.930E-06,-0.072
-2.920E-06,-0.072
-2.910E-06,-0.064
-2.900E-06,-0.072
-2.890E-06,-0.072
-2.880E-06,-0.088
-2.870E-06,-0.072
-2.860E-06,-0.056
-2.850E-06,-0.032
-2.840E-06,-0.008
-2.830E-06,0.016
-2.820E-06,0.040
-2.810E-06,0.064
-2.800E-06,0.056
-2.790E-06,0.096
-2.780E-06,0.104
-2.770E-06,0.088
-2.760E-06,0.080
-2.750E-06,0.064
-2.740E-06,0.032
-2.730E-06,0.024
-2.720E-06,0.016
-2.710E-06,0.016
-2.700E-06,0.024
-2.690E-06,0.016
-2.680E-06,0.024
-2.670E-06,0.024
-2.660E-06,0.024
-2.650E-06,0.048
-2.640E-06,0.072
-2.630E-06,0.096
-2.620E-06,0.104
-2.610E-06,0.120
-2.600E-06,0.096
-2.590E-06,0.096
-2.580E-06,0.096
-2.570E-06,0.096
-2.560E-06,0.096
-2.550E-06,0.104
-2.540E-06,0.096
-2.530E-06,0.080
-2.520E-06,0.080
-2.510E-06,0.064
-2.500E-06,0.056
-2.490E-06,0.040
-2.480E-06,0.008
-2.470E-06,0.000
-2.460E-06,-0.040
-2.450E-06,-0.056
-2.440E-06,-0.088
-2.430E-06,-0.112
-2.420E-06,-0.128
-2.410E-06,-0.136
-2.400E-06,-0.136
-2.390E-06,-0.136
-2.380E-06,-0.112
-2.370E-06,-0.080
-2.360E-06,-0.032
-2.350E-06,0.008
-2.340E-06,0.072
-2.330E-06,0.104
-2.320E-06,0.152
-2.310E-06,0.152
-2.300E-06,0.184
-2.290E-06,0.160
-2.280E-06,0.096
-2.270E-06,-0.048
-2.260E-06,-0.232
-2.250E-06,-0.368
-2.240E-06,-0.424
-2.230E-06,-0.336
-2.220E-06,-0.136
-2.210E-06,0.072
-2.200E-06,0.208
-2.190E-06,0.272
-2.180E-06,0.248
-2.170E-06,0.224
-2.160E-06,0.248
-2.150E-06,0.304
-2.140E-06,0.392
-2.130E-06,0.464
-2.120E-06,0.464
-2.110E-06,0.448
-2.100E-06,0.392
-2.090E-06,0.328
-2.080E-06,0.288
-2.070E-06,0.216
-2.060E-06,0.168
-2.050E-06,0.128
-2.040E-06,0.072
-2.030E-06,0.032
-2.020E-06,0.000
-2.010E-06,-0.024
-2.000E-06,-0.064
-1.990E-06,-0.080
-1.980E-06,-0.112
-1.970E-06,-0.128
-1.960E-06,-0.120
-1.950E-06,-0.088
-1.940E-06,-0.072
-1.930E-06,-0.008
-1.920E-06,0.024
-1.910E-06,0.040
-1.900E-06,0.088
-1.890E-06,0.104
-1.880E-06,0.096
-1.870E-06,0.096
-1.860E-06,0.080
-1.850E-06,0.056
-1.840E-06,0.024
-1.830E-06,-0.008
-1.820E-06,-0.056
-1.810E-06,-0.104
-1.800E-06,-0.136
-1.790E-06,-0.152
-1.780E-06,-0.160
-1.770E-06,-0.160
-1.760E-06,-0.136
-1.750E-06,-0.104
-1.740E-06,-0.080
-1.730E-06,-0.040
-1.720E-06,0.000
-1.710E-06,0.040
-1.700E-06,0.112
-1.690E-06,0.168
-1.680E-06,0.224
-1.670E-06,0.280
-1.660E-06,0.336
-1.650E-06,0.344
-1.640E-06,0.360
-1.630E-06,0.336
-1.620E-06,0.304
-1.610E-06,0.216
-1.600E-06,0.192
-1.590E-06,0.136
-1.580E-06,0.088
-1.570E-06,0.040
-1.560E-06,0.000
-1.550E-06,-0.024
-1.540E-06,-0.056
-1.530E-06,-0.080
-1.520E-06,-0.064
-1.510E-06,-0.096
-1.500E-06,-0.104
-1.490E-06,-0.088
-1.480E-06,-0.056
-1.470E-06,0.000
-1.460E-06,0.024
-1.450E-06,0.080
-1.440E-06,0.104
-1.430E-06,0.088
-1.420E-06,0.136
-1.410E-06,0.160
-1.400E-06,0.176
-1.390E-06,0.192
-1.380E-06,0.184
-1.370E-06,0.144
-1.360E-06,0.144
-1.350E-06,0.104
-1.340E-06,0.056
-1.330E-06,0.032
-1.320E-06,-0.008
-1.310E-06,-0.056
-1.300E-06,-0.088
-1.290E-06,-0.096
-1.280E-06,-0.096
-1.270E-06,-0.080
-1.260E-06,-0.080
-1.250E-06,-0.064
-1.240E-06,-0.056
-1.230E-06,-0.048
-1.220E-06,-0.032
-1.210E-06,-0.024
-1.200E-06,-0.024
-1.190E-06,0.000
-1.180E-06,0.032
-1.170E-06,0.088
-1.160E-06,0.136
-1.150E-06,0.168
-1.140E-06,0.168
-1.130E-06,0.144
-1.120E-06,0.120
-1.110E-06,0.120
-1.100E-06,0.136
-1.090E-06,0.136
-1.080E-06,0.136
-1.070E-06,0.128
-1.060E-06,0.136
-1.050E-06,0.104
-1.040E-06,0.136
-1.030E-06,0.184
-1.020E-06,0.192
-1.010E-06,0.248
-1.000E-06,0.264
-9.900E-07,0.424
-9.800E-07,0.208
-9.700E-07,0.320
-9.600E-07,0.224
-9.500E-07,0.136
-9.400E-07,0.272
-9.300E-07,0.240
-9.200E-07,0.128
-9.100E-07,0.064
-9.000E-07,-0.096
-8.900E-07,-0.112
-8.800E-07,-0.016
-8.700E-07,0.032
-8.600E-07,0.056
-8.500E-07,-0.016
-8.400E-07,-0.056
-8.300E-07,0.352
-8.200E-07,-0.456
-8.100E-07,-0.104
-8.000E-07,-0.216
-7.900E-07,-0.376
-7.800E-07,0.736
-7.700E-07,0.968
-7.600E-07,0.864
-7.500E-07,0.512
-7.400E-07,-0.312
-7.300E-07,-0.448
-7.200E-07,-0.112
-7.100E-07,0.248
-7.000E-07,0.568
-6.900E-07,0.616
-6.800E-07,0.200
-6.700E-07,-0.208
-6.600E-07,-0.408
-6.500E-07,-0.456
-6.400E-07,-0.200
-6.300E-07,0.016
-6.200E-07,0.064
-6.100E-07,-0.104
-6.000E-07,-0.328
-5.900E-07,-0.536
-5.800E-07,-0.560
-5.700E-07,-0.512
-5.600E-07,-0.448
-5.500E-07,-0.368
-5.400E-07,-0.328
-5.300E-07,-0.344
-5.200E-07,-0.384
-5.100E-07,-0.304
-5.000E-07,-0.280
-4.900E-07,-0.216
-4.800E-07,-0.264
-4.700E-07,-0.328
-4.600E-07,-0.320
-4.500E-07,-0.280
-4.400E-07,-0.168
-4.300E-07,0.064
-4.200E-07,0.128
-4.100E-07,0.112
-4.000E-07,0.056
-3.900E-07,-0.096
-3.800E-07,-0.024
-3.700E-07,0.168
-3.600E-07,0.432
-3.500E-07,0.736
-3.400E-07,0.800
-3.300E-07,0.640
-3.200E-07,0.504
-3.100E-07,0.368
-3.000E-07,0.472
-2.900E-07,0.640
-2.800E-07,0.800
-2.700E-07,0.864
-2.600E-07,0.768
-2.500E-07,0.560
-2.400E-07,0.376
-2.300E-07,0.264
-2.200E-07,0.296
-2.100E-07,0.360
-2.000E-07,0.360
-1.900E-07,0.208
-1.800E-07,0.008
-1.700E-07,-0.200
-1.600E-07,-0.216
-1.500E-07,-0.088
-1.400E-07,0.040
-1.300E-07,0.136
-1.200E-07,0.200
-1.100E-07,0.200
-1.000E-07,0.224
-9.000E-08,0.312
-8.000E-08,0.216
-7.000E-08,0.328
-6.000E-08,0.376
-5.000E-08,0.464
-4.000E-08,0.328
-3.000E-08,0.224
-2.000E-08,-0.624
-1.000E-08,-0.288
0.000E+00,-0.136
1.000E-08,1.072
2.000E-08,1.080
3.000E-08,1.080
4.000E-08,1.072
5.000E-08,1.040
6.000E-08,0.064
7.000E-08,-0.584
8.000E-08,-0.360
9.000E-08,0.216
1.000E-07,0.912
1.100E-07,1.064
1.200E-07,0.552
1.300E-07,-0.112
1.400E-07,-1.032
1.500E-07,-1.040
1.600E-07,-1.040
1.700E-07,-1.048
1.800E-07,-1.040
1.900E-07,-1.040
2.000E-07,-1.048
2.100E-07,-1.040
2.200E-07,-0.952
2.300E-07,-0.904
2.400E-07,-0.696
2.500E-07,-0.272
2.600E-07,-0.072
2.700E-07,0.328
2.800E-07,0.456
2.900E-07,0.352
3.000E-07,0.104
3.100E-07,-0.056
3.200E-07,-0.040
3.300E-07,-0.056
3.400E-07,-0.792
3.500E-07,0.000
3.600E-07,0.432
3.700E-07,1.080
3.800E-07,1.072
3.900E-07,1.080
4.000E-07,1.080
4.100E-07,1.072
4.200E-07,1.080
4.300E-07,1.080
4.400E-07,1.056
4.500E-07,0.232
4.600E-07,-0.328
4.700E-07,-1.032
4.800E-07,-1.040
4.900E-07,-0.744
5.000E-07,0.416
5.100E-07,1.080
5.200E-07,1.072
5.300E-07,1.080
5.400E-07,0.920
5.500E-07,-0.024
5.600E-07,-0.680
5.700E-07,-0.960
5.800E-07,-0.784
5.900E-07,-0.960
6.000E-07,-1.032
6.100E-07,-1.032
6.200E-07,-1.040
6.300E-07,-1.032
6.400E-07,-1.032
6.500E-07,-1.040
6.600E-07,-1.040
6.700E-07,-1.048
6.800E-07,-0.296
6.900E-07,0.600
7.000E-07,0.992
7.100E-07,1.088
7.200E-07,1.080
7.300E-07,1.080
7.400E-07,1.072
7.500E-07,1.080
7.600E-07,1.088
7.700E-07,1.088
7.800E-07,1.080
7.900E-07,1.088
8.000E-07,1.080
8.100E-07,1.080
8.200E-07,1.080
8.300E-07,0.736
8.400E-07,0.528
8.500E-07,0.304
8.600E-07,0.224
8.700E-07,-0.056
8.800E-07,-0.440
8.900E-07,-0.920
9.000E-07,-1.048
9.100E-07,-1.048
9.200E-07,-1.032
9.300E-07,-1.040
9.400E-07,-1.040
9.500E-07,-1.040
9.600E-07,-1.040
9.700E-07,-1.040
9.800E-07,-1.048
9.900E-07,-1.040
1.000E-06,-1.040
1.010E-06,-1.048
1.020E-06,-0.952
1.030E-06,-0.544
1.040E-06,0.112
1.050E-06,0.496
1.060E-06,0.784
1.070E-06,0.832
1.080E-06,0.768
1.090E-06,0.752
1.100E-06,0.936
1.110E-06,1.080
1.120E-06,1.088
1.130E-06,1.080
1.140E-06,1.080
1.150E-06,1.080
1.160E-06,1.080
1.170E-06,1.088
1.180E-06,1.088
1.190E-06,1.080
1.200E-06,1.088
1.210E-06,1.080
1.220E-06,1.032
1.230E-06,-0.968
1.240E-06,-1.032
1.250E-06,-1.040
1.260E-06,-1.040
1.270E-06,-1.048
1.280E-06,-1.040
1.290E-06,0.856
1.300E-06,1.080
1.310E-06,1.088
1.320E-06,1.088
1.330E-06,1.080
1.340E-06,1.080
1.350E-06,1.072
1.360E-06,1.080
1.370E-06,1.088
1.380E-06,1.080
1.390E-06,1.080
1.400E-06,1.072
1.410E-06,-0.144
1.420E-06,-0.968
1.430E-06,-1.048
1.440E-06,-1.040
1.450E-06,-1.032
1.460E-06,-1.032
1.470E-06,-1.040
1.480E-06,-1.032
1.490E-06,-0.880
1.500E-06,-0.160
1.510E-06,0.560
1.520E-06,1.080
1.530E-06,1.080
1.540E-06,1.072
1.550E-06,1.080
1.560E-06,1.088
1.570E-06,1.080
1.580E-06,1.080
1.590E-06,1.080
1.600E-06,1.080
1.610E-06,0.832
1.620E-06,0.752
1.630E-06,0.576
1.640E-06,0.328
1.650E-06,-0.032
1.660E-06,-0.448
1.670E-06,-0.904
1.680E-06,-1.032
1.690E-06,-1.032
1.700E-06,-1.040
1.710E-06,-1.048
1.720E-06,-1.048
1.730E-06,-1.048
1.740E-06,-1.048
1.750E-06,-1.048
1.760E-06,-0.352
1.770E-06,0.616
1.780E-06,1.080
1.790E-06,1.088
1.800E-06,1.080
1.810E-06,1.080
1.820E-06,1.080
1.830E-06,1.072
1.840E-06,1.080
1.850E-06,1.088
1.860E-06,1.080
1.870E-06,1.080
1.880E-06,1.088
1.890E-06,1.080
1.900E-06,0.320
1.910E-06,-0.560
1.920E-06,-1.032
1.930E-06,-1.040
1.940E-06,-1.032
1.950E-06,-1.040
1.960E-06,-1.040
1.970E-06,-1.040
1.980E-06,-1.040
1.990E-06,-1.048
2.000E-06,-1.040
2.010E-06,-1.040
2.020E-06,-0.384
2.030E-06,0.592
2.040E-06,1.080
2.050E-06,1.072
2.060E-06,1.080
2.070E-06,1.080
2.080E-06,1.080
2.090E-06,1.080
2.100E-06,0.800
2.110E-06,0.352
2.120E-06,0.032
2.130E-06,-0.136
2.140E-06,-0.128
2.150E-06,-0.080
2.160E-06,0.184
2.170E-06,0.760
2.180E-06,1.072
2.190E-06,1.080
2.200E-06,1.088
2.210E-06,1.080
2.220E-06,1.080
2.230E-06,1.072
2.240E-06,1.080
2.250E-06,1.080
2.260E-06,1.080
2.270E-06,1.080
2.280E-06,1.080
2.290E-06,1.072
2.300E-06,1.080
2.310E-06,1.088
2.320E-06,1.016
2.330E-06,0.840
2.340E-06,0.664
2.350E-06,0.552
2.360E-06,0.536
2.370E-06,0.496
2.380E-06,0.600
2.390E-06,0.688
2.400E-06,0.792
2.410E-06,0.864
2.420E-06,0.880
2.430E-06,0.856
2.440E-06,0.808
2.450E-06,0.704
2.460E-06,0.528
2.470E-06,0.344
2.480E-06,0.152
2.490E-06,-0.056
2.500E-06,-0.208
2.510E-06,-0.304
2.520E-06,-0.360
2.530E-06,-0.312
2.540E-06,-0.208
2.550E-06,-0.064
2.560E-06,0.112
2.570E-06,0.296
2.580E-06,0.456
2.590E-06,0.600
2.600E-06,0.728
2.610E-06,0.792
2.620E-06,0.800
2.630E-06,0.728
2.640E-06,0.616
2.650E-06,0.440
2.660E-06,0.272
2.670E-06,0.088
2.680E-06,-0.056
2.690E-06,-0.168
2.700E-06,-0.232
2.710E-06,-0.256
2.720E-06,-0.256
2.730E-06,-0.208
2.740E-06,-0.080
2.750E-06,0.088
2.760E-06,0.272
2.770E-06,0.472
2.780E-06,0.648
2.790E-06,0.792
2.800E-06,0.840
2.810E-06,0.808
2.820E-06,0.736
2.830E-06,0.664
2.840E-06,0.616
2.850E-06,0.568
2.860E-06,0.464
2.870E-06,0.328
2.880E-06,0.192
2.890E-06,0.024
2.900E-06,-0.088
2.910E-06,-0.160
2.920E-06,-0.168
2.930E-06,-0.136
2.940E-06,-0.096
2.950E-06,-0.048
2.960E-06,-0.024
2.970E-06,0.008
2.980E-06,0.024
2.990E-06,0.024
3.000E-06,0.016
3.010E-06,0.016
3.020E-06,0.040
3.030E-06,0.080
3.040E-06,0.112
3.050E-06,0.120
3.060E-06,0.080
3.070E-06,0.024
3.080E-06,-0.080
3.090E-06,-0.216
3.100E-06,-0.336
3.110E-06,-0.424
3.120E-06,-0.440
3.130E-06,-0.440
3.140E-06,-0.400
3.150E-06,-0.336
3.160E-06,-0.264
3.170E-06,-0.144
3.180E-06,-0.072
3.190E-06,-0.016
3.200E-06,0.016
3.210E-06,0.008
3.220E-06,-0.024
3.230E-06,-0.080
3.240E-06,-0.136
3.250E-06,-0.168
3.260E-06,-0.264
3.270E-06,-0.408
3.280E-06,-0.544
3.290E-06,-0.616
3.300E-06,-0.600
3.310E-06,-0.536
3.320E-06,-0.520
3.330E-06,-0.456
3.340E-06,-0.400
3.350E-06,-0.312
3.360E-06,-0.216
3.370E-06,-0.152
3.380E-06,-0.120
3.390E-06,-0.128
3.400E-06,-0.152
3.410E-06,-0.168
3.420E-06,-0.192
3.430E-06,-0.208
3.440E-06,-0.224
3.450E-06,-0.248
3.460E-06,-0.288
3.470E-06,-0.312
3.480E-06,-0.336
3.490E-06,-0.328
3.500E-06,-0.344
3.510E-06,-0.352
3.520E-06,-0.360
3.530E-06,-0.384
