mediciones/6-26/26.4/WaveData59221.csv

#timebase=2000000(ps)
,#voltbase=200000(mv/100)
#size=4000
-8.150E-06,0.000
-8.140E-06,-0.008
-8.130E-06,-0.008
-8.120E-06,0.000
-8.110E-06,0.016
-8.100E-06,-0.008
-8.090E-06,-0.008
-8.080E-06,0.000
-8.070E-06,0.008
-8.060E-06,-0.008
-8.050E-06,-0.008
-8.040E-06,0.000
-8.030E-06,0.000
-8.020E-06,0.000
-8.010E-06,0.000
-8.000E-06,-0.008
-7.990E-06,0.000
-7.980E-06,0.008
-7.970E-06,0.008
-7.960E-06,0.008
-7.950E-06,0.008
-7.940E-06,0.008
-7.930E-06,-0.008
-7.920E-06,0.000
-7.910E-06,0.000
-7.900E-06,0.000
-7.890E-06,-0.008
-7.880E-06,0.000
-7.870E-06,0.000
-7.860E-06,0.000
-7.850E-06,0.000
-7.840E-06,0.000
-7.830E-06,0.000
-7.820E-06,0.000
-7.810E-06,0.000
-7.800E-06,0.008
-7.790E-06,0.008
-7.780E-06,0.008
-7.770E-06,0.008
-7.760E-06,0.008
-7.750E-06,-0.008
-7.740E-06,0.000
-7.730E-06,0.000
-7.720E-06,0.016
-7.710E-06,-0.008
-7.700E-06,-0.008
-7.690E-06,0.000
-7.680E-06,0.008
-7.670E-06,0.008
-7.660E-06,-0.008
-7.650E-06,0.000
-7.640E-06,0.000
-7.630E-06,0.000
-7.620E-06,-0.008
-7.610E-06,0.000
-7.600E-06,0.008
-7.590E-06,0.008
-7.580E-06,0.008
-7.570E-06,0.008
-7.560E-06,0.000
-7.550E-06,0.000
-7.540E-06,0.000
-7.530E-06,0.000
-7.520E-06,0.008
-7.510E-06,0.008
-7.500E-06,-0.008
-7.490E-06,0.000
-7.480E-06,0.000
-7.470E-06,0.000
-7.460E-06,0.000
-7.450E-06,-0.008
-7.440E-06,0.000
-7.430E-06,0.008
-7.420E-06,-0.008
-7.410E-06,-0.008
-7.400E-06,0.000
-7.390E-06,-0.008
-7.380E-06,-0.008
-7.370E-06,0.000
-7.360E-06,0.000
-7.350E-06,0.000
-7.340E-06,0.000
-7.330E-06,0.000
-7.320E-06,0.000
-7.310E-06,0.000
-7.300E-06,0.000
-7.290E-06,0.008
-7.280E-06,-0.008
-7.270E-06,0.000
-7.260E-06,0.000
-7.250E-06,0.000
-7.240E-06,-0.008
-7.230E-06,0.000
-7.220E-06,0.000
-7.210E-06,0.000
-7.200E-06,0.000
-7.190E-06,-0.008
-7.180E-06,0.000
-7.170E-06,0.000
-7.160E-06,0.000
-7.150E-06,0.000
-7.140E-06,0.000
-7.130E-06,0.008
-7.120E-06,0.008
-7.110E-06,0.008
-7.100E-06,0.008
-7.090E-06,0.016
-7.080E-06,-0.008
-7.070E-06,0.000
-7.060E-06,0.000
-7.050E-06,0.000
-7.040E-06,-0.008
-7.030E-06,-0.008
-7.020E-06,0.000
-7.010E-06,-0.008
-7.000E-06,0.000
-6.990E-06,-0.008
-6.980E-06,0.000
-6.970E-06,0.000
-6.960E-06,0.008
-6.950E-06,0.008
-6.940E-06,-0.008
-6.930E-06,0.000
-6.920E-06,0.000
-6.910E-06,0.000
-6.900E-06,0.008
-6.890E-06,0.008
-6.880E-06,0.008
-6.870E-06,0.008
-6.860E-06,-0.008
-6.850E-06,0.000
-6.840E-06,0.000
-6.830E-06,0.000
-6.820E-06,0.000
-6.810E-06,0.000
-6.800E-06,0.008
-6.790E-06,-0.008
-6.780E-06,0.000
-6.770E-06,0.008
-6.760E-06,-0.008
-6.750E-06,-0.008
-6.740E-06,0.000
-6.730E-06,0.008
-6.720E-06,0.008
-6.710E-06,-0.008
-6.700E-06,0.000
-6.690E-06,0.000
-6.680E-06,0.000
-6.670E-06,0.000
-6.660E-06,0.000
-6.650E-06,0.000
-6.640E-06,0.000
-6.630E-06,0.008
-6.620E-06,0.008
-6.610E-06,-0.008
-6.600E-06,0.000
-6.590E-06,0.000
-6.580E-06,0.000
-6.570E-06,0.000
-6.560E-06,0.000
-6.550E-06,0.000
-6.540E-06,-0.008
-6.530E-06,0.000
-6.520E-06,0.000
-6.510E-06,0.008
-6.500E-06,0.000
-6.490E-06,-0.008
-6.480E-06,0.000
-6.470E-06,0.008
-6.460E-06,-0.008
-6.450E-06,0.000
-6.440E-06,0.000
-6.430E-06,0.000
-6.420E-06,-0.008
-6.410E-06,0.000
-6.400E-06,-0.008
-6.390E-06,0.000
-6.380E-06,0.008
-6.370E-06,0.008
-6.360E-06,0.008
-6.350E-06,0.008
-6.340E-06,-0.008
-6.330E-06,-0.008
-6.320E-06,0.000
-6.310E-06,0.008
-6.300E-06,0.016
-6.290E-06,-0.008
-6.280E-06,0.000
-6.270E-06,0.000
-6.260E-06,0.000
-6.250E-06,0.000
-6.240E-06,0.000
-6.230E-06,-0.008
-6.220E-06,0.008
-6.210E-06,-0.008
-6.200E-06,0.000
-6.190E-06,-0.008
-6.180E-06,0.000
-6.170E-06,0.000
-6.160E-06,-0.008
-6.150E-06,-0.024
-6.140E-06,0.000
-6.130E-06,0.128
-6.120E-06,0.528
-6.110E-06,1.080
-6.100E-06,1.072
-6.090E-06,1.080
-6.080E-06,1.080
-6.070E-06,1.056
-6.060E-06,0.008
-6.050E-06,-1.048
-6.040E-06,-1.048
-6.030E-06,-1.048
-6.020E-06,-1.032
-6.010E-06,-1.040
-6.000E-06,-1.040
-5.990E-06,-1.048
-5.980E-06,-1.040
-5.970E-06,-1.040
-5.960E-06,-0.760
-5.950E-06,-0.144
-5.940E-06,0.096
-5.930E-06,0.208
-5.920E-06,0.200
-5.910E-06,0.304
-5.900E-06,0.472
-5.890E-06,0.640
-5.880E-06,0.720
-5.870E-06,0.664
-5.860E-06,0.512
-5.850E-06,0.392
-5.840E-06,0.408
-5.830E-06,0.488
-5.820E-06,0.600
-5.810E-06,0.672
-5.800E-06,0.624
-5.790E-06,0.424
-5.780E-06,0.152
-5.770E-06,-0.064
-5.760E-06,-0.192
-5.750E-06,-0.256
-5.740E-06,-0.216
-5.730E-06,-0.208
-5.720E-06,-0.152
-5.710E-06,-0.152
-5.700E-06,-0.056
-5.690E-06,0.064
-5.680E-06,0.280
-5.670E-06,0.480
-5.660E-06,0.664
-5.650E-06,0.768
-5.640E-06,0.800
-5.630E-06,0.752
-5.620E-06,0.640
-5.610E-06,0.504
-5.600E-06,0.328
-5.590E-06,0.152
-5.580E-06,-0.040
-5.570E-06,-0.240
-5.560E-06,-0.416
-5.550E-06,-0.632
-5.540E-06,-0.840
-5.530E-06,-1.024
-5.520E-06,-1.032
-5.510E-06,-1.040
-5.500E-06,-1.032
-5.490E-06,-1.040
-5.480E-06,-0.968
-5.470E-06,-0.744
-5.460E-06,-0.512
-5.450E-06,-0.272
-5.440E-06,-0.032
-5.430E-06,0.184
-5.420E-06,0.392
-5.410E-06,0.560
-5.400E-06,0.688
-5.390E-06,0.720
-5.380E-06,0.696
-5.370E-06,0.624
-5.360E-06,0.504
-5.350E-06,0.400
-5.340E-06,0.280
-5.330E-06,0.160
-5.320E-06,0.056
-5.310E-06,-0.040
-5.300E-06,-0.104
-5.290E-06,-0.144
-5.280E-06,-0.136
-5.270E-06,-0.144
-5.260E-06,-0.152
-5.250E-06,-0.192
-5.240E-06,-0.232
-5.230E-06,-0.272
-5.220E-06,-0.280
-5.210E-06,-0.248
-5.200E-06,-0.200
-5.190E-06,-0.136
-5.180E-06,-0.056
-5.170E-06,0.008
-5.160E-06,0.072
-5.150E-06,0.160
-5.140E-06,0.216
-5.130E-06,0.272
-5.120E-06,0.304
-5.110E-06,0.296
-5.100E-06,0.240
-5.090E-06,0.200
-5.080E-06,0.128
-5.070E-06,0.064
-5.060E-06,0.008
-5.050E-06,-0.032
-5.040E-06,-0.072
-5.030E-06,-0.112
-5.020E-06,-0.136
-5.010E-06,-0.120
-5.000E-06,-0.112
-4.990E-06,-0.080
-4.980E-06,-0.056
-4.970E-06,-0.024
-4.960E-06,-0.008
-4.950E-06,-0.024
-4.940E-06,-0.024
-4.930E-06,-0.040
-4.920E-06,-0.032
-4.910E-06,-0.032
-4.900E-06,-0.040
-4.890E-06,-0.040
-4.880E-06,-0.056
-4.870E-06,-0.064
-4.860E-06,-0.064
-4.850E-06,-0.064
-4.840E-06,-0.048
-4.830E-06,-0.016
-4.820E-06,0.000
-4.810E-06,0.024
-4.800E-06,0.040
-4.790E-06,0.040
-4.780E-06,0.064
-4.770E-06,0.064
-4.760E-06,0.056
-4.750E-06,0.040
-4.740E-06,0.024
-4.730E-06,0.024
-4.720E-06,0.000
-4.710E-06,0.000
-4.700E-06,-0.016
-4.690E-06,0.000
-4.680E-06,-0.008
-4.670E-06,-0.008
-4.660E-06,0.000
-4.650E-06,0.024
-4.640E-06,0.024
-4.630E-06,0.056
-4.620E-06,0.072
-4.610E-06,0.072
-4.600E-06,0.080
-4.590E-06,0.080
-4.580E-06,0.080
-4.570E-06,0.088
-4.560E-06,0.080
-4.550E-06,0.080
-4.540E-06,0.064
-4.530E-06,0.064
-4.520E-06,0.056
-4.510E-06,0.064
-4.500E-06,0.040
-4.490E-06,0.024
-4.480E-06,0.008
-4.470E-06,0.000
-4.460E-06,-0.032
-4.450E-06,-0.040
-4.440E-06,-0.072
-4.430E-06,-0.088
-4.420E-06,-0.104
-4.410E-06,-0.104
-4.400E-06,-0.120
-4.390E-06,-0.104
-4.380E-06,-0.088
-4.370E-06,-0.064
-4.360E-06,-0.040
-4.350E-06,0.008
-4.340E-06,0.040
-4.330E-06,0.080
-4.320E-06,0.128
-4.310E-06,0.144
-4.300E-06,0.176
-4.290E-06,0.192
-4.280E-06,0.192
-4.270E-06,0.184
-4.260E-06,0.176
-4.250E-06,0.144
-4.240E-06,0.120
-4.230E-06,0.088
-4.220E-06,0.048
-4.210E-06,0.024
-4.200E-06,0.000
-4.190E-06,-0.032
-4.180E-06,-0.056
-4.170E-06,-0.048
-4.160E-06,-0.072
-4.150E-06,-0.080
-4.140E-06,-0.080
-4.130E-06,-0.072
-4.120E-06,-0.072
-4.110E-06,-0.064
-4.100E-06,-0.040
-4.090E-06,-0.040
-4.080E-06,-0.024
-4.070E-06,0.000
-4.060E-06,0.008
-4.050E-06,0.016
-4.040E-06,0.040
-4.030E-06,0.048
-4.020E-06,0.048
-4.010E-06,0.056
-4.000E-06,0.048
-3.990E-06,0.072
-3.980E-06,0.040
-3.970E-06,0.040
-3.960E-06,0.032
-3.950E-06,-0.008
-3.940E-06,0.000
-3.930E-06,-0.024
-3.920E-06,-0.024
-3.910E-06,-0.040
-3.900E-06,-0.032
-3.890E-06,-0.024
-3.880E-06,-0.024
-3.870E-06,-0.016
-3.860E-06,0.000
-3.850E-06,0.000
-3.840E-06,0.016
-3.830E-06,0.016
-3.820E-06,0.000
-3.810E-06,-0.040
-3.800E-06,-0.160
-3.790E-06,-0.320
-3.780E-06,-0.456
-3.770E-06,-0.520
-3.760E-06,-0.440
-3.750E-06,-0.232
-3.740E-06,0.016
-3.730E-06,0.216
-3.720E-06,0.328
-3.710E-06,0.360
-3.700E-06,0.320
-3.690E-06,0.304
-3.680E-06,0.344
-3.670E-06,0.448
-3.660E-06,0.536
-3.650E-06,0.576
-3.640E-06,0.560
-3.630E-06,0.472
-3.620E-06,0.360
-3.610E-06,0.240
-3.600E-06,0.168
-3.590E-06,0.080
-3.580E-06,0.024
-3.570E-06,-0.024
-3.560E-06,-0.056
-3.550E-06,-0.096
-3.540E-06,-0.144
-3.530E-06,-0.160
-3.520E-06,-0.184
-3.510E-06,-0.200
-3.500E-06,-0.192
-3.490E-06,-0.160
-3.480E-06,-0.120
-3.470E-06,-0.064
-3.460E-06,-0.016
-3.450E-06,0.032
-3.440E-06,0.064
-3.430E-06,0.080
-3.420E-06,0.088
-3.410E-06,0.080
-3.400E-06,0.072
-3.390E-06,0.064
-3.380E-06,0.024
-3.370E-06,-0.008
-3.360E-06,-0.016
-3.350E-06,-0.048
-3.340E-06,-0.080
-3.330E-06,-0.096
-3.320E-06,-0.112
-3.310E-06,-0.112
-3.300E-06,-0.088
-3.290E-06,-0.088
-3.280E-06,-0.096
-3.270E-06,-0.056
-3.260E-06,-0.072
-3.250E-06,-0.024
-3.240E-06,0.040
-3.230E-06,0.104
-3.220E-06,0.192
-3.210E-06,0.264
-3.200E-06,0.296
-3.190E-06,0.304
-3.180E-06,0.312
-3.170E-06,0.312
-3.160E-06,0.280
-3.150E-06,0.264
-3.140E-06,0.216
-3.130E-06,0.176
-3.120E-06,0.120
-3.110E-06,0.072
-3.100E-06,0.016
-3.090E-06,-0.008
-3.080E-06,-0.040
-3.070E-06,-0.064
-3.060E-06,-0.104
-3.050E-06,-0.136
-3.040E-06,-0.160
-3.030E-06,-0.160
-3.020E-06,-0.144
-3.010E-06,-0.104
-3.000E-06,-0.064
-2.990E-06,-0.040
-2.980E-06,-0.008
-2.970E-06,0.016
-2.960E-06,0.024
-2.950E-06,0.056
-2.940E-06,0.088
-2.930E-06,0.128
-2.920E-06,0.144
-2.910E-06,0.168
-2.900E-06,0.152
-2.890E-06,0.144
-2.880E-06,0.128
-2.870E-06,0.112
-2.860E-06,0.104
-2.850E-06,0.120
-2.840E-06,0.104
-2.830E-06,0.080
-2.820E-06,0.056
-2.810E-06,0.032
-2.800E-06,0.024
-2.790E-06,0.008
-2.780E-06,0.016
-2.770E-06,0.008
-2.760E-06,0.016
-2.750E-06,0.040
-2.740E-06,0.040
-2.730E-06,0.032
-2.720E-06,0.064
-2.710E-06,0.080
-2.700E-06,0.096
-2.690E-06,0.104
-2.680E-06,0.088
-2.670E-06,0.104
-2.660E-06,0.072
-2.650E-06,0.328
-2.640E-06,0.024
-2.630E-06,0.136
-2.620E-06,0.256
-2.610E-06,0.208
-2.600E-06,0.576
-2.590E-06,0.712
-2.580E-06,0.544
-2.570E-06,0.240
-2.560E-06,-0.192
-2.550E-06,-0.248
-2.540E-06,0.024
-2.530E-06,0.296
-2.520E-06,0.496
-2.510E-06,0.472
-2.500E-06,0.152
-2.490E-06,-0.200
-2.480E-06,-0.328
-2.470E-06,-0.344
-2.460E-06,-0.120
-2.450E-06,0.040
-2.440E-06,0.104
-2.430E-06,-0.016
-2.420E-06,-0.208
-2.410E-06,-0.360
-2.400E-06,-0.400
-2.390E-06,-0.304
-2.380E-06,-0.200
-2.370E-06,-0.072
-2.360E-06,-0.032
-2.350E-06,-0.064
-2.340E-06,-0.168
-2.330E-06,-0.200
-2.320E-06,-0.160
-2.310E-06,-0.104
-2.300E-06,-0.032
-2.290E-06,-0.008
-2.280E-06,-0.032
-2.270E-06,-0.064
-2.260E-06,-0.128
-2.250E-06,-0.120
-2.240E-06,-0.112
-2.230E-06,-0.088
-2.220E-06,-0.088
-2.210E-06,-0.120
-2.200E-06,-0.200
-2.190E-06,-0.224
-2.180E-06,-0.152
-2.170E-06,-0.152
-2.160E-06,-0.160
-2.150E-06,-0.176
-2.140E-06,-0.088
-2.130E-06,0.168
-2.120E-06,0.616
-2.110E-06,0.920
-2.100E-06,0.880
-2.090E-06,0.512
-2.080E-06,0.136
-2.070E-06,0.016
-2.060E-06,0.200
-2.050E-06,0.512
-2.040E-06,0.744
-2.030E-06,0.728
-2.020E-06,0.384
-2.010E-06,0.000
-2.000E-06,-0.272
-1.990E-06,-0.384
-1.980E-06,-0.120
-1.970E-06,0.128
-1.960E-06,0.296
-1.950E-06,0.208
-1.940E-06,-0.120
-1.930E-06,-0.480
-1.920E-06,-0.656
-1.910E-06,-0.656
-1.900E-06,-0.440
-1.890E-06,-0.168
-1.880E-06,-0.040
-1.870E-06,-0.096
-1.860E-06,-0.256
-1.850E-06,-0.440
-1.840E-06,-0.464
-1.830E-06,-0.360
-1.820E-06,-0.216
-1.810E-06,-0.008
-1.800E-06,0.040
-1.790E-06,-0.008
-1.780E-06,-0.104
-1.770E-06,-0.216
-1.760E-06,-0.240
-1.750E-06,-0.232
-1.740E-06,-0.136
-1.730E-06,-0.072
-1.720E-06,-0.024
-1.710E-06,-0.016
-1.700E-06,-0.056
-1.690E-06,0.000
-1.680E-06,0.064
-1.670E-06,0.184
-1.660E-06,0.296
-1.650E-06,0.288
-1.640E-06,0.352
-1.630E-06,0.568
-1.620E-06,0.848
-1.610E-06,0.984
-1.600E-06,0.864
-1.590E-06,0.368
-1.580E-06,-0.104
-1.570E-06,-0.336
-1.560E-06,-0.200
-1.550E-06,0.144
-1.540E-06,0.424
-1.530E-06,0.472
-1.520E-06,0.224
-1.510E-06,-0.064
-1.500E-06,-0.192
-1.490E-06,-0.176
-1.480E-06,0.024
-1.470E-06,0.232
-1.460E-06,0.280
-1.450E-06,0.224
-1.440E-06,0.032
-1.430E-06,-0.160
-1.420E-06,-0.200
-1.410E-06,-0.104
-1.400E-06,0.128
-1.390E-06,0.264
-1.380E-06,0.392
-1.370E-06,0.408
-1.360E-06,0.240
-1.350E-06,0.448
-1.340E-06,0.424
-1.330E-06,0.736
-1.320E-06,0.368
-1.310E-06,0.400
-1.300E-06,0.536
-1.290E-06,0.776
-1.280E-06,1.080
-1.270E-06,1.072
-1.260E-06,1.080
-1.250E-06,1.080
-1.240E-06,0.984
-1.230E-06,1.016
-1.220E-06,1.088
-1.210E-06,1.080
-1.200E-06,1.080
-1.190E-06,1.080
-1.180E-06,0.920
-1.170E-06,0.416
-1.160E-06,-0.040
-1.150E-06,-0.384
-1.140E-06,-0.656
-1.130E-06,-1.032
-1.120E-06,-1.040
-1.110E-06,-1.048
-1.100E-06,-1.048
-1.090E-06,-1.032
-1.080E-06,-1.032
-1.070E-06,-1.040
-1.060E-06,-1.016
-1.050E-06,-0.504
-1.040E-06,-0.240
-1.030E-06,-0.072
-1.020E-06,-0.400
-1.010E-06,-0.424
-1.000E-06,-0.408
-9.900E-07,-0.072
-9.800E-07,0.032
-9.700E-07,0.368
-9.600E-07,0.816
-9.500E-07,0.776
-9.400E-07,0.904
-9.300E-07,1.032
-9.200E-07,1.024
-9.100E-07,1.080
-9.000E-07,1.072
-8.900E-07,1.080
-8.800E-07,0.896
-8.700E-07,0.248
-8.600E-07,0.272
-8.500E-07,0.512
-8.400E-07,0.896
-8.300E-07,1.080
-8.200E-07,1.088
-8.100E-07,1.080
-8.000E-07,1.072
-7.900E-07,1.080
-7.800E-07,1.080
-7.700E-07,1.080
-7.600E-07,1.080
-7.500E-07,1.088
-7.400E-07,1.088
-7.300E-07,1.080
-7.200E-07,1.080
-7.100E-07,1.080
-7.000E-07,1.080
-6.900E-07,1.072
-6.800E-07,1.080
-6.700E-07,0.824
-6.600E-07,0.296
-6.500E-07,-0.136
-6.400E-07,-0.400
-6.300E-07,-0.648
-6.200E-07,-0.888
-6.100E-07,-0.824
-6.000E-07,-0.824
-5.900E-07,-0.656
-5.800E-07,-0.480
-5.700E-07,-0.200
-5.600E-07,-0.168
-5.500E-07,-0.056
-5.400E-07,-0.008
-5.300E-07,0.040
-5.200E-07,0.144
-5.100E-07,0.168
-5.000E-07,-0.048
-4.900E-07,-0.032
-4.800E-07,-0.112
-4.700E-07,-0.024
-4.600E-07,0.000
-4.500E-07,0.104
-4.400E-07,0.416
-4.300E-07,0.864
-4.200E-07,1.032
-4.100E-07,1.080
-4.000E-07,1.080
-3.900E-07,1.088
-3.800E-07,1.080
-3.700E-07,1.080
-3.600E-07,1.080
-3.500E-07,1.072
-3.400E-07,1.080
-3.300E-07,1.088
-3.200E-07,1.088
-3.100E-07,1.080
-3.000E-07,1.088
-2.900E-07,1.088
-2.800E-07,1.080
-2.700E-07,1.080
-2.600E-07,1.080
-2.500E-07,1.088
-2.400E-07,0.944
-2.300E-07,0.616
-2.200E-07,0.256
-2.100E-07,-0.344
-2.000E-07,-0.792
-1.900E-07,-1.032
-1.800E-07,-1.040
-1.700E-07,-0.632
-1.600E-07,0.120
-1.500E-07,0.824
-1.400E-07,1.080
-1.300E-07,1.080
-1.200E-07,1.080
-1.100E-07,1.080
-1.000E-07,1.080
-9.000E-08,1.088
-8.000E-08,1.088
-7.000E-08,0.976
-6.000E-08,0.256
-5.000E-08,-0.512
-4.000E-08,-1.040
-3.000E-08,-1.048
-2.000E-08,-1.040
-1.000E-08,-1.032
0.000E+00,-1.032
1.000E-08,-1.040
2.000E-08,0.208
3.000E-08,1.088
4.000E-08,1.080
5.000E-08,1.088
6.000E-08,1.080
7.000E-08,1.080
8.000E-08,1.080
9.000E-08,1.088
1.000E-07,1.088
1.100E-07,1.080
1.200E-07,1.080
1.300E-07,1.080
1.400E-07,0.256
1.500E-07,-0.288
1.600E-07,-0.704
1.700E-07,-1.008
1.800E-07,-1.032
1.900E-07,-0.960
2.000E-07,-0.992
2.100E-07,-0.960
2.200E-07,-0.888
2.300E-07,-0.712
2.400E-07,-0.424
2.500E-07,-0.056
2.600E-07,0.392
2.700E-07,0.824
2.800E-07,1.080
2.900E-07,1.088
3.000E-07,1.080
3.100E-07,1.080
3.200E-07,1.072
3.300E-07,1.080
3.400E-07,1.088
3.500E-07,1.080
3.600E-07,0.784
3.700E-07,0.464
3.800E-07,0.184
3.900E-07,-0.128
4.000E-07,-0.208
4.100E-07,-0.208
4.200E-07,-0.096
4.300E-07,0.104
4.400E-07,0.376
4.500E-07,0.640
4.600E-07,0.864
4.700E-07,1.032
4.800E-07,1.088
4.900E-07,1.080
5.000E-07,1.088
5.100E-07,1.032
5.200E-07,0.920
5.300E-07,0.728
5.400E-07,0.480
5.500E-07,0.184
5.600E-07,-0.096
5.700E-07,-0.360
5.800E-07,-0.544
5.900E-07,-0.640
6.000E-07,-0.632
6.100E-07,-0.552
6.200E-07,-0.488
6.300E-07,-0.464
6.400E-07,-0.328
6.500E-07,-0.216
6.600E-07,-0.120
6.700E-07,-0.072
6.800E-07,-0.040
6.900E-07,-0.008
7.000E-07,-0.072
7.100E-07,-0.144
7.200E-07,-0.168
7.300E-07,-0.056
7.400E-07,0.008
7.500E-07,-0.200
7.600E-07,-0.312
7.700E-07,-0.320
7.800E-07,-0.216
7.900E-07,-0.096
8.000E-07,-0.048
8.100E-07,0.016
8.200E-07,0.016
8.300E-07,-0.120
8.400E-07,-0.312
8.500E-07,-0.472
8.600E-07,-0.576
8.700E-07,-0.720
8.800E-07,-0.824
8.900E-07,-0.776
9.000E-07,-0.528
9.100E-07,-0.328
9.200E-07,-0.384
9.300E-07,-0.568
9.400E-07,-0.696
9.500E-07,-0.664
9.600E-07,-0.576
9.700E-07,-0.528
9.800E-07,-0.552
9.900E-07,-0.624
1.000E-06,-0.680
1.010E-06,-0.736
1.020E-06,-0.768
1.030E-06,-0.648
1.040E-06,-0.480
1.050E-06,-0.288
1.060E-06,-0.120
1.070E-06,-0.040
1.080E-06,0.032
1.090E-06,0.096
1.100E-06,0.160
1.110E-06,0.200
1.120E-06,0.160
1.130E-06,0.096
1.140E-06,0.024
1.150E-06,-0.064
1.160E-06,-0.160
1.170E-06,-0.304
1.180E-06,-0.504
1.190E-06,-0.696
1.200E-06,-0.864
1.210E-06,-0.984
1.220E-06,-1.040
1.230E-06,-1.048
1.240E-06,-1.032
1.250E-06,-0.960
1.260E-06,-0.864
1.270E-06,-0.784
1.280E-06,-0.704
1.290E-06,-0.552
1.300E-06,-0.408
1.310E-06,-0.336
1.320E-06,-0.336
1.330E-06,-0.384
1.340E-06,-0.424
1.350E-06,-0.440
1.360E-06,-0.464
1.370E-06,-0.496
1.380E-06,-0.544
1.390E-06,-0.584
1.400E-06,-0.560
1.410E-06,-0.480
1.420E-06,-0.384
1.430E-06,-0.264
1.440E-06,-0.144
1.450E-06,-0.056
1.460E-06,0.024
1.470E-06,0.024
1.480E-06,0.000
1.490E-06,-0.024
1.500E-06,-0.032
1.510E-06,-0.040
1.520E-06,-0.072
1.530E-06,-0.152
1.540E-06,-0.232
1.550E-06,-0.288
1.560E-06,-0.304
1.570E-06,-0.304
1.580E-06,-0.304
1.590E-06,-0.280
1.600E-06,-0.208
1.610E-06,-0.144
1.620E-06,-0.096
1.630E-06,-0.072
1.640E-06,-0.016
1.650E-06,0.048
1.660E-06,0.112
1.670E-06,0.160
1.680E-06,0.200
1.690E-06,0.216
1.700E-06,0.200
1.710E-06,0.160
1.720E-06,0.080
1.730E-06,-0.008
1.740E-06,-0.096
1.750E-06,-0.200
1.760E-06,-0.304
1.770E-06,-0.392
1.780E-06,-0.472
1.790E-06,-0.536
1.800E-06,-0.592
1.810E-06,-0.632
1.820E-06,-0.648
1.830E-06,-0.664
1.840E-06,-0.664
1.850E-06,-0.608
1.860E-06,-0.504
1.870E-06,-0.376
1.880E-06,-0.184
1.890E-06,0.048
1.900E-06,0.288
1.910E-06,0.416
1.920E-06,0.440
1.930E-06,0.400
1.940E-06,0.320
1.950E-06,0.248
1.960E-06,0.192
1.970E-06,0.064
1.980E-06,-0.088
1.990E-06,-0.288
2.000E-06,-0.440
2.010E-06,-0.520
2.020E-06,-0.496
2.030E-06,-0.440
2.040E-06,-0.352
2.050E-06,-0.224
2.060E-06,-0.112
2.070E-06,-0.056
2.080E-06,-0.024
2.090E-06,0.008
2.100E-06,0.080
2.110E-06,0.160
2.120E-06,0.176
2.130E-06,0.120
2.140E-06,0.048
2.150E-06,-0.032
2.160E-06,-0.096
2.170E-06,-0.144
2.180E-06,-0.168
2.190E-06,-0.136
2.200E-06,-0.056
2.210E-06,0.064
2.220E-06,0.120
2.230E-06,0.168
2.240E-06,0.200
2.250E-06,0.248
2.260E-06,0.240
2.270E-06,0.152
2.280E-06,0.008
2.290E-06,-0.136
2.300E-06,-0.248
2.310E-06,-0.344
2.320E-06,-0.408
2.330E-06,-0.432
2.340E-06,-0.440
2.350E-06,-0.432
2.360E-06,-0.376
2.370E-06,-0.304
2.380E-06,-0.224
2.390E-06,-0.136
2.400E-06,-0.080
2.410E-06,-0.008
2.420E-06,0.032
2.430E-06,0.064
2.440E-06,0.072
2.450E-06,0.080
2.460E-06,0.072
2.470E-06,0.048
2.480E-06,0.008
2.490E-06,0.032
2.500E-06,0.056
2.510E-06,0.080
2.520E-06,0.048
2.530E-06,-0.104
2.540E-06,-0.232
2.550E-06,-0.296
2.560E-06,-0.344
2.570E-06,-0.384
2.580E-06,-0.448
2.590E-06,-0.488
2.600E-06,-0.464
2.610E-06,-0.432
2.620E-06,-0.392
2.630E-06,-0.360
2.640E-06,-0.312
2.650E-06,-0.224
2.660E-06,-0.128
2.670E-06,-0.048
2.680E-06,-0.016
2.690E-06,-0.016
2.700E-06,-0.064
2.710E-06,-0.072
2.720E-06,-0.056
2.730E-06,-0.032
2.740E-06,0.016
2.750E-06,0.040
2.760E-06,0.096
2.770E-06,0.152
2.780E-06,0.176
2.790E-06,0.168
2.800E-06,0.192
2.810E-06,0.424
2.820E-06,0.656
2.830E-06,0.808
2.840E-06,0.776
2.850E-06,0.520
2.860E-06,0.464
2.870E-06,0.536
2.880E-06,0.616
2.890E-06,0.624
2.900E-06,0.408
2.910E-06,0.128
2.920E-06,-0.040
2.930E-06,-0.088
2.940E-06,-0.120
2.950E-06,-0.200
2.960E-06,-0.328
2.970E-06,-0.464
2.980E-06,-0.496
2.990E-06,-0.536
3.000E-06,-0.552
3.010E-06,-0.552
3.020E-06,-0.504
3.030E-06,-0.400
3.040E-06,-0.280
3.050E-06,-0.160
3.060E-06,-0.064
3.070E-06,0.024
3.080E-06,0.064
3.090E-06,0.088
3.100E-06,0.064
3.110E-06,0.024
3.120E-06,-0.032
3.130E-06,-0.104
3.140E-06,-0.200
3.150E-06,-0.312
3.160E-06,-0.440
3.170E-06,-0.584
3.180E-06,-0.696
3.190E-06,-0.680
3.200E-06,-0.464
3.210E-06,-0.160
3.220E-06,0.040
3.230E-06,0.136
3.240E-06,0.176
3.250E-06,0.216
3.260E-06,0.248
3.270E-06,0.192
3.280E-06,0.088
3.290E-06,0.016
3.300E-06,0.008
3.310E-06,0.008
3.320E-06,-0.024
3.330E-06,-0.064
3.340E-06,-0.096
3.350E-06,-0.072
3.360E-06,0.000
3.370E-06,0.072
3.380E-06,0.136
3.390E-06,0.200
3.400E-06,0.272
3.410E-06,0.368
3.420E-06,0.440
3.430E-06,0.424
3.440E-06,0.344
3.450E-06,0.256
3.460E-06,0.128
