mediciones/6-26/26.4/WaveData59223.csv

#timebase=2000000(ps)
,#voltbase=200000(mv/100)
#size=4000
-8.150E-06,0.104
-8.140E-06,0.032
-8.130E-06,0.000
-8.120E-06,-0.024
-8.110E-06,0.024
-8.100E-06,0.040
-8.090E-06,0.016
-8.080E-06,-0.016
-8.070E-06,-0.064
-8.060E-06,-0.096
-8.050E-06,-0.096
-8.040E-06,-0.104
-8.030E-06,-0.096
-8.020E-06,-0.096
-8.010E-06,-0.088
-8.000E-06,-0.120
-7.990E-06,-0.136
-7.980E-06,-0.128
-7.970E-06,-0.152
-7.960E-06,-0.120
-7.950E-06,-0.096
-7.940E-06,-0.064
-7.930E-06,-0.064
-7.920E-06,-0.064
-7.910E-06,-0.096
-7.900E-06,-0.104
-7.890E-06,-0.112
-7.880E-06,-0.160
-7.870E-06,-0.064
-7.860E-06,-0.136
-7.850E-06,-0.192
-7.840E-06,-0.072
-7.830E-06,-0.008
-7.820E-06,0.136
-7.810E-06,0.272
-7.800E-06,0.304
-7.790E-06,0.040
-7.780E-06,-0.048
-7.770E-06,-0.136
-7.760E-06,0.008
-7.750E-06,0.232
-7.740E-06,0.440
-7.730E-06,0.480
-7.720E-06,0.296
-7.710E-06,0.008
-7.700E-06,-0.128
-7.690E-06,-0.064
-7.680E-06,0.000
-7.670E-06,0.128
-7.660E-06,0.152
-7.650E-06,0.056
-7.640E-06,-0.040
-7.630E-06,-0.128
-7.620E-06,-0.152
-7.610E-06,-0.112
-7.600E-06,-0.048
-7.590E-06,-0.056
-7.580E-06,-0.072
-7.570E-06,-0.104
-7.560E-06,-0.144
-7.550E-06,-0.168
-7.540E-06,-0.160
-7.530E-06,-0.128
-7.520E-06,-0.120
-7.510E-06,-0.096
-7.500E-06,-0.104
-7.490E-06,-0.136
-7.480E-06,-0.144
-7.470E-06,-0.144
-7.460E-06,-0.136
-7.450E-06,-0.104
-7.440E-06,-0.080
-7.430E-06,-0.056
-7.420E-06,-0.048
-7.410E-06,-0.048
-7.400E-06,-0.064
-7.390E-06,-0.040
-7.380E-06,-0.032
-7.370E-06,-0.024
-7.360E-06,-0.024
-7.350E-06,0.000
-7.340E-06,0.000
-7.330E-06,0.296
-7.320E-06,-0.184
-7.310E-06,-0.128
-7.300E-06,0.248
-7.290E-06,0.120
-7.280E-06,0.480
-7.270E-06,0.680
-7.260E-06,0.320
-7.250E-06,0.232
-7.240E-06,-0.016
-7.230E-06,-0.016
-7.220E-06,0.208
-7.210E-06,0.080
-7.200E-06,0.200
-7.190E-06,0.176
-7.180E-06,0.016
-7.170E-06,-0.120
-7.160E-06,-0.104
-7.150E-06,-0.112
-7.140E-06,-0.040
-7.130E-06,-0.072
-7.120E-06,-0.064
-7.110E-06,-0.104
-7.100E-06,-0.144
-7.090E-06,-0.168
-7.080E-06,-0.192
-7.070E-06,-0.160
-7.060E-06,-0.144
-7.050E-06,-0.128
-7.040E-06,-0.144
-7.030E-06,-0.200
-7.020E-06,-0.216
-7.010E-06,-0.208
-7.000E-06,-0.144
-6.990E-06,-0.080
-6.980E-06,0.016
-6.970E-06,-0.088
-6.960E-06,-0.264
-6.950E-06,0.000
-6.940E-06,-0.192
-6.930E-06,-0.136
-6.920E-06,0.216
-6.910E-06,0.216
-6.900E-06,0.296
-6.890E-06,0.360
-6.880E-06,0.224
-6.870E-06,0.120
-6.860E-06,0.088
-6.850E-06,0.000
-6.840E-06,0.184
-6.830E-06,0.200
-6.820E-06,0.136
-6.810E-06,0.176
-6.800E-06,0.080
-6.790E-06,0.032
-6.780E-06,0.040
-6.770E-06,0.056
-6.760E-06,0.040
-6.750E-06,0.056
-6.740E-06,-0.008
-6.730E-06,-0.032
-6.720E-06,-0.040
-6.710E-06,-0.048
-6.700E-06,-0.072
-6.690E-06,-0.072
-6.680E-06,-0.088
-6.670E-06,-0.120
-6.660E-06,-0.160
-6.650E-06,-0.144
-6.640E-06,-0.160
-6.630E-06,-0.200
-6.620E-06,-0.200
-6.610E-06,-0.160
-6.600E-06,-0.088
-6.590E-06,0.040
-6.580E-06,-0.128
-6.570E-06,-0.152
-6.560E-06,-0.160
-6.550E-06,-0.184
-6.540E-06,0.136
-6.530E-06,0.328
-6.520E-06,0.392
-6.510E-06,0.384
-6.500E-06,0.200
-6.490E-06,0.104
-6.480E-06,0.080
-6.470E-06,0.072
-6.460E-06,0.208
-6.450E-06,0.296
-6.440E-06,0.256
-6.430E-06,0.192
-6.420E-06,0.120
-6.410E-06,0.080
-6.400E-06,0.048
-6.390E-06,0.040
-6.380E-06,0.064
-6.370E-06,0.072
-6.360E-06,0.032
-6.350E-06,-0.048
-6.340E-06,-0.144
-6.330E-06,-0.200
-6.320E-06,-0.192
-6.310E-06,-0.192
-6.300E-06,-0.160
-6.290E-06,-0.120
-6.280E-06,-0.168
-6.270E-06,-0.024
-6.260E-06,-0.408
-6.250E-06,-0.320
-6.240E-06,-0.112
-6.230E-06,0.040
-6.220E-06,0.360
-6.210E-06,0.600
-6.200E-06,0.280
-6.190E-06,0.072
-6.180E-06,-0.152
-6.170E-06,-0.128
-6.160E-06,0.112
-6.150E-06,0.160
-6.140E-06,0.232
-6.130E-06,0.208
-6.120E-06,0.064
-6.110E-06,-0.064
-6.100E-06,-0.064
-6.090E-06,-0.040
-6.080E-06,0.056
-6.070E-06,0.080
-6.060E-06,0.080
-6.050E-06,0.048
-6.040E-06,0.000
-6.030E-06,-0.024
-6.020E-06,-0.024
-6.010E-06,-0.024
-6.000E-06,-0.032
-5.990E-06,-0.024
-5.980E-06,-0.032
-5.970E-06,-0.072
-5.960E-06,-0.088
-5.950E-06,-0.112
-5.940E-06,-0.152
-5.930E-06,-0.160
-5.920E-06,-0.168
-5.910E-06,-0.200
-5.900E-06,-0.128
-5.890E-06,0.088
-5.880E-06,-0.024
-5.870E-06,-0.040
-5.860E-06,-0.048
-5.850E-06,-0.104
-5.840E-06,0.112
-5.830E-06,0.360
-5.820E-06,0.456
-5.810E-06,0.464
-5.800E-06,0.224
-5.790E-06,0.000
-5.780E-06,-0.048
-5.770E-06,0.048
-5.760E-06,0.192
-5.750E-06,0.304
-5.740E-06,0.344
-5.730E-06,0.176
-5.720E-06,0.032
-5.710E-06,-0.032
-5.700E-06,-0.016
-5.690E-06,0.080
-5.680E-06,0.184
-5.670E-06,0.192
-5.660E-06,0.160
-5.650E-06,0.008
-5.640E-06,-0.120
-5.630E-06,-0.104
-5.620E-06,-0.136
-5.610E-06,-0.120
-5.600E-06,0.000
-5.590E-06,-0.136
-5.580E-06,-0.160
-5.570E-06,-0.152
-5.560E-06,-0.136
-5.550E-06,-0.120
-5.540E-06,0.072
-5.530E-06,-0.024
-5.520E-06,-0.168
-5.510E-06,0.088
-5.500E-06,0.144
-5.490E-06,0.352
-5.480E-06,0.384
-5.470E-06,0.288
-5.460E-06,0.128
-5.450E-06,0.016
-5.440E-06,-0.040
-5.430E-06,0.096
-5.420E-06,0.128
-5.410E-06,0.216
-5.400E-06,0.216
-5.390E-06,0.136
-5.380E-06,0.072
-5.370E-06,-0.064
-5.360E-06,-0.056
-5.350E-06,-0.064
-5.340E-06,-0.032
-5.330E-06,-0.008
-5.320E-06,0.000
-5.310E-06,-0.016
-5.300E-06,-0.016
-5.290E-06,-0.104
-5.280E-06,-0.128
-5.270E-06,-0.152
-5.260E-06,-0.136
-5.250E-06,-0.192
-5.240E-06,-0.096
-5.230E-06,-0.176
-5.220E-06,-0.312
-5.210E-06,-0.136
-5.200E-06,-0.072
-5.190E-06,0.080
-5.180E-06,0.352
-5.170E-06,0.080
-5.160E-06,-0.056
-5.150E-06,-0.120
-5.140E-06,-0.136
-5.130E-06,0.264
-5.120E-06,0.600
-5.110E-06,0.504
-5.100E-06,0.384
-5.090E-06,0.160
-5.080E-06,0.016
-5.070E-06,0.120
-5.060E-06,0.152
-5.050E-06,0.224
-5.040E-06,0.288
-5.030E-06,0.160
-5.020E-06,0.064
-5.010E-06,0.016
-5.000E-06,-0.032
-4.990E-06,0.008
-4.980E-06,0.080
-4.970E-06,0.064
-4.960E-06,0.040
-4.950E-06,-0.016
-4.940E-06,-0.032
-4.930E-06,-0.072
-4.920E-06,-0.104
-4.910E-06,-0.104
-4.900E-06,-0.136
-4.890E-06,-0.144
-4.880E-06,-0.184
-4.870E-06,-0.184
-4.860E-06,-0.152
-4.850E-06,-0.224
-4.840E-06,-0.240
-4.830E-06,-0.168
-4.820E-06,-0.176
-4.810E-06,-0.040
-4.800E-06,0.104
-4.790E-06,0.072
-4.780E-06,0.064
-4.770E-06,-0.152
-4.760E-06,-0.120
-4.750E-06,0.008
-4.740E-06,0.256
-4.730E-06,0.456
-4.720E-06,0.528
-4.710E-06,0.376
-4.700E-06,0.136
-4.690E-06,0.008
-4.680E-06,0.104
-4.670E-06,0.184
-4.660E-06,0.296
-4.650E-06,0.288
-4.640E-06,0.224
-4.630E-06,0.144
-4.620E-06,0.040
-4.610E-06,0.000
-4.600E-06,0.032
-4.590E-06,0.048
-4.580E-06,0.072
-4.570E-06,0.072
-4.560E-06,-0.008
-4.550E-06,-0.072
-4.540E-06,-0.088
-4.530E-06,-0.096
-4.520E-06,-0.088
-4.510E-06,-0.056
-4.500E-06,-0.080
-4.490E-06,-0.104
-4.480E-06,-0.144
-4.470E-06,-0.224
-4.460E-06,-0.168
-4.450E-06,-0.168
-4.440E-06,-0.152
-4.430E-06,0.032
-4.420E-06,-0.032
-4.410E-06,-0.176
-4.400E-06,-0.048
-4.390E-06,-0.216
-4.380E-06,0.256
-4.370E-06,-0.104
-4.360E-06,-0.056
-4.350E-06,0.488
-4.340E-06,-0.248
-4.330E-06,-0.040
-4.320E-06,0.576
-4.310E-06,0.360
-4.300E-06,0.704
-4.290E-06,0.944
-4.280E-06,0.480
-4.270E-06,0.296
-4.260E-06,-0.008
-4.250E-06,0.000
-4.240E-06,0.440
-4.230E-06,0.360
-4.220E-06,0.240
-4.210E-06,0.240
-4.200E-06,0.032
-4.190E-06,-0.120
-4.180E-06,-0.128
-4.170E-06,-0.112
-4.160E-06,-0.064
-4.150E-06,-0.032
-4.140E-06,-0.104
-4.130E-06,-0.208
-4.120E-06,-0.192
-4.110E-06,-0.248
-4.100E-06,-0.392
-4.090E-06,-0.352
-4.080E-06,-0.376
-4.070E-06,-0.320
-4.060E-06,-0.168
-4.050E-06,-0.080
-4.040E-06,-0.072
-4.030E-06,-0.136
-4.020E-06,0.000
-4.010E-06,0.000
-4.000E-06,0.080
-3.990E-06,0.056
-3.980E-06,0.192
-3.970E-06,0.216
-3.960E-06,0.320
-3.950E-06,0.216
-3.940E-06,0.120
-3.930E-06,0.008
-3.920E-06,-0.032
-3.910E-06,0.176
-3.900E-06,0.256
-3.890E-06,0.304
-3.880E-06,0.264
-3.870E-06,0.104
-3.860E-06,0.000
-3.850E-06,0.000
-3.840E-06,0.080
-3.830E-06,0.208
-3.820E-06,0.264
-3.810E-06,0.232
-3.800E-06,0.200
-3.790E-06,0.048
-3.780E-06,-0.064
-3.770E-06,-0.088
-3.760E-06,-0.040
-3.750E-06,0.128
-3.740E-06,0.008
-3.730E-06,-0.096
-3.720E-06,-0.168
-3.710E-06,-0.240
-3.700E-06,-0.048
-3.690E-06,0.320
-3.680E-06,0.256
-3.670E-06,0.096
-3.660E-06,-0.064
-3.650E-06,-0.320
-3.640E-06,0.104
-3.630E-06,-0.080
-3.620E-06,-0.248
-3.610E-06,0.440
-3.600E-06,0.200
-3.590E-06,0.440
-3.580E-06,0.576
-3.570E-06,0.136
-3.560E-06,-0.024
-3.550E-06,-0.048
-3.540E-06,-0.088
-3.530E-06,0.296
-3.520E-06,0.200
-3.510E-06,0.080
-3.500E-06,0.144
-3.490E-06,-0.008
-3.480E-06,-0.120
-3.470E-06,-0.088
-3.460E-06,-0.048
-3.450E-06,-0.016
-3.440E-06,-0.024
-3.430E-06,-0.088
-3.420E-06,-0.120
-3.410E-06,-0.144
-3.400E-06,-0.136
-3.390E-06,-0.136
-3.380E-06,-0.144
-3.370E-06,-0.128
-3.360E-06,-0.136
-3.350E-06,-0.216
-3.340E-06,-0.232
-3.330E-06,-0.216
-3.320E-06,-0.240
-3.310E-06,-0.160
-3.300E-06,-0.040
-3.290E-06,0.024
-3.280E-06,0.032
-3.270E-06,-0.112
-3.260E-06,0.072
-3.250E-06,0.040
-3.240E-06,0.200
-3.230E-06,0.376
-3.220E-06,0.504
-3.210E-06,0.424
-3.200E-06,0.360
-3.190E-06,0.256
-3.180E-06,0.208
-3.170E-06,0.192
-3.160E-06,0.216
-3.150E-06,0.248
-3.140E-06,0.288
-3.130E-06,0.232
-3.120E-06,0.160
-3.110E-06,0.120
-3.100E-06,0.080
-3.090E-06,0.048
-3.080E-06,0.032
-3.070E-06,0.024
-3.060E-06,-0.016
-3.050E-06,-0.032
-3.040E-06,-0.056
-3.030E-06,-0.104
-3.020E-06,-0.176
-3.010E-06,-0.216
-3.000E-06,-0.264
-2.990E-06,-0.160
-2.980E-06,-0.160
-2.970E-06,-0.208
-2.960E-06,-0.224
-2.950E-06,-0.360
-2.940E-06,-0.048
-2.930E-06,-0.096
-2.920E-06,0.000
-2.910E-06,0.136
-2.900E-06,0.144
-2.890E-06,0.200
-2.880E-06,0.304
-2.870E-06,0.200
-2.860E-06,0.072
-2.850E-06,0.040
-2.840E-06,0.024
-2.830E-06,0.200
-2.820E-06,0.272
-2.810E-06,0.160
-2.800E-06,0.064
-2.790E-06,-0.008
-2.780E-06,0.080
-2.770E-06,0.128
-2.760E-06,0.344
-2.750E-06,0.184
-2.740E-06,0.096
-2.730E-06,0.000
-2.720E-06,-0.040
-2.710E-06,0.096
-2.700E-06,0.304
-2.690E-06,0.200
-2.680E-06,0.088
-2.670E-06,-0.016
-2.660E-06,-0.144
-2.650E-06,-0.136
-2.640E-06,-0.112
-2.630E-06,-0.080
-2.620E-06,0.000
-2.610E-06,-0.008
-2.600E-06,-0.064
-2.590E-06,-0.136
-2.580E-06,-0.192
-2.570E-06,-0.240
-2.560E-06,-0.128
-2.550E-06,-0.104
-2.540E-06,-0.120
-2.530E-06,-0.096
-2.520E-06,-0.096
-2.510E-06,-0.104
-2.500E-06,-0.088
-2.490E-06,-0.064
-2.480E-06,-0.008
-2.470E-06,0.088
-2.460E-06,0.128
-2.450E-06,0.104
-2.440E-06,0.008
-2.430E-06,-0.128
-2.420E-06,0.056
-2.410E-06,-0.008
-2.400E-06,-0.032
-2.390E-06,0.160
-2.380E-06,0.208
-2.370E-06,0.240
-2.360E-06,0.320
-2.350E-06,0.232
-2.340E-06,0.032
-2.330E-06,0.048
-2.320E-06,0.032
-2.310E-06,0.112
-2.300E-06,0.184
-2.290E-06,0.112
-2.280E-06,0.072
-2.270E-06,0.064
-2.260E-06,-0.064
-2.250E-06,-0.056
-2.240E-06,-0.016
-2.230E-06,-0.024
-2.220E-06,0.008
-2.210E-06,-0.016
-2.200E-06,-0.104
-2.190E-06,-0.128
-2.180E-06,-0.184
-2.170E-06,-0.176
-2.160E-06,-0.072
-2.150E-06,0.048
-2.140E-06,0.096
-2.130E-06,0.088
-2.120E-06,-0.040
-2.110E-06,-0.080
-2.100E-06,-0.112
-2.090E-06,0.032
-2.080E-06,0.088
-2.070E-06,-0.072
-2.060E-06,-0.040
-2.050E-06,0.008
-2.040E-06,0.016
-2.030E-06,0.344
-2.020E-06,0.464
-2.010E-06,0.056
-2.000E-06,-0.064
-1.990E-06,-0.168
-1.980E-06,-0.040
-1.970E-06,0.440
-1.960E-06,0.544
-1.950E-06,0.360
-1.940E-06,0.144
-1.930E-06,-0.176
-1.920E-06,-0.168
-1.910E-06,0.032
-1.900E-06,0.056
-1.890E-06,0.128
-1.880E-06,0.128
-1.870E-06,0.000
-1.860E-06,0.008
-1.850E-06,0.000
-1.840E-06,-0.040
-1.830E-06,-0.032
-1.820E-06,-0.040
-1.810E-06,-0.064
-1.800E-06,-0.048
-1.790E-06,-0.056
-1.780E-06,-0.088
-1.770E-06,-0.128
-1.760E-06,-0.144
-1.750E-06,-0.144
-1.740E-06,-0.136
-1.730E-06,-0.128
-1.720E-06,-0.104
-1.710E-06,-0.144
-1.700E-06,-0.128
-1.690E-06,-0.120
-1.680E-06,-0.112
-1.670E-06,-0.064
-1.660E-06,-0.040
-1.650E-06,-0.032
-1.640E-06,-0.032
-1.630E-06,0.008
-1.620E-06,0.008
-1.610E-06,-0.128
-1.600E-06,0.064
-1.590E-06,-0.144
-1.580E-06,-0.360
-1.570E-06,-0.312
-1.560E-06,-0.080
-1.550E-06,0.128
-1.540E-06,0.608
-1.530E-06,0.608
-1.520E-06,0.360
-1.510E-06,0.152
-1.500E-06,0.000
-1.490E-06,0.208
-1.480E-06,0.520
-1.470E-06,0.544
-1.460E-06,0.560
-1.450E-06,0.400
-1.440E-06,0.192
-1.430E-06,0.048
-1.420E-06,0.160
-1.410E-06,0.272
-1.400E-06,0.856
-1.390E-06,0.264
-1.380E-06,-0.040
-1.370E-06,0.208
-1.360E-06,-0.104
-1.350E-06,0.520
-1.340E-06,1.080
-1.330E-06,0.336
-1.320E-06,-0.248
-1.310E-06,-0.400
-1.300E-06,-0.576
-1.290E-06,0.512
-1.280E-06,0.432
-1.270E-06,0.048
-1.260E-06,-0.048
-1.250E-06,-0.536
-1.240E-06,-0.480
-1.230E-06,-0.088
-1.220E-06,-0.192
-1.210E-06,-0.184
-1.200E-06,-0.224
-1.190E-06,-0.408
-1.180E-06,-0.360
-1.170E-06,-0.368
-1.160E-06,-0.336
-1.150E-06,-0.240
-1.140E-06,-0.224
-1.130E-06,-0.264
-1.120E-06,-0.280
-1.110E-06,-0.264
-1.100E-06,-0.176
-1.090E-06,-0.136
-1.080E-06,-0.072
-1.070E-06,-0.048
-1.060E-06,-0.032
-1.050E-06,-0.032
-1.040E-06,-0.040
-1.030E-06,-0.040
-1.020E-06,-0.040
-1.010E-06,-0.064
-1.000E-06,0.000
-9.900E-07,0.096
-9.800E-07,0.200
-9.700E-07,0.008
-9.600E-07,-0.048
-9.500E-07,0.056
-9.400E-07,0.104
-9.300E-07,0.384
-9.200E-07,0.424
-9.100E-07,0.368
-9.000E-07,0.256
-8.900E-07,0.376
-8.800E-07,0.536
-8.700E-07,0.568
-8.600E-07,0.392
-8.500E-07,0.152
-8.400E-07,-0.048
-8.300E-07,-0.008
-8.200E-07,0.096
-8.100E-07,0.136
-8.000E-07,0.312
-7.900E-07,0.360
-7.800E-07,0.352
-7.700E-07,0.248
-7.600E-07,-0.008
-7.500E-07,-0.024
-7.400E-07,0.064
-7.300E-07,-0.208
-7.200E-07,-0.160
-7.100E-07,0.032
-7.000E-07,0.000
-6.900E-07,0.264
-6.800E-07,0.216
-6.700E-07,0.088
-6.600E-07,-0.112
-6.500E-07,-0.256
-6.400E-07,-0.144
-6.300E-07,0.000
-6.200E-07,-0.152
-6.100E-07,-0.120
-6.000E-07,-0.128
-5.900E-07,-0.160
-5.800E-07,-0.160
-5.700E-07,-0.200
-5.600E-07,-0.192
-5.500E-07,-0.168
-5.400E-07,-0.160
-5.300E-07,-0.160
-5.200E-07,-0.136
-5.100E-07,-0.152
-5.000E-07,-0.144
-4.900E-07,-0.144
-4.800E-07,-0.120
-4.700E-07,-0.120
-4.600E-07,-0.088
-4.500E-07,-0.088
-4.400E-07,-0.064
-4.300E-07,-0.104
-4.200E-07,-0.160
-4.100E-07,0.032
-4.000E-07,0.024
-3.900E-07,-0.088
-3.800E-07,-0.080
-3.700E-07,-0.168
-3.600E-07,-0.096
-3.500E-07,0.184
-3.400E-07,0.256
-3.300E-07,0.360
-3.200E-07,0.224
-3.100E-07,0.000
-3.000E-07,0.000
-2.900E-07,0.080
-2.800E-07,0.328
-2.700E-07,0.512
-2.600E-07,0.616
-2.500E-07,0.456
-2.400E-07,0.120
-2.300E-07,0.008
-2.200E-07,0.064
-2.100E-07,0.280
-2.000E-07,0.376
-1.900E-07,0.256
-1.800E-07,0.168
-1.700E-07,0.000
-1.600E-07,-0.232
-1.500E-07,-0.192
-1.400E-07,0.032
-1.300E-07,0.024
-1.200E-07,-0.280
-1.100E-07,-0.216
-1.000E-07,-0.328
-9.000E-08,-0.328
-8.000E-08,0.776
-7.000E-08,0.800
-6.000E-08,0.336
-5.000E-08,0.312
-4.000E-08,-0.256
-3.000E-08,-0.016
-2.000E-08,0.672
-1.000E-08,0.520
0.000E+00,0.728
1.000E-08,0.376
2.000E-08,-0.152
3.000E-08,-0.272
4.000E-08,-0.080
5.000E-08,-0.488
6.000E-08,-0.408
7.000E-08,-0.184
8.000E-08,-0.216
9.000E-08,0.224
1.000E-07,0.320
1.100E-07,0.272
1.200E-07,0.288
1.300E-07,0.304
1.400E-07,0.208
1.500E-07,0.304
1.600E-07,0.336
1.700E-07,0.376
1.800E-07,0.392
1.900E-07,0.464
2.000E-07,0.368
2.100E-07,0.184
2.200E-07,-0.016
2.300E-07,-0.160
2.400E-07,-0.152
2.500E-07,-0.072
2.600E-07,0.016
2.700E-07,0.152
2.800E-07,0.224
2.900E-07,0.152
3.000E-07,0.056
3.100E-07,0.000
3.200E-07,0.000
3.300E-07,-0.136
3.400E-07,-0.144
3.500E-07,-0.280
3.600E-07,-0.360
3.700E-07,-0.344
3.800E-07,-0.128
3.900E-07,-0.112
4.000E-07,0.008
4.100E-07,-0.096
4.200E-07,-0.264
4.300E-07,-0.272
4.400E-07,-0.224
4.500E-07,-0.128
4.600E-07,0.200
4.700E-07,0.408
4.800E-07,-0.272
4.900E-07,0.064
5.000E-07,0.144
5.100E-07,1.048
5.200E-07,0.752
5.300E-07,0.608
5.400E-07,1.080
5.500E-07,1.080
5.600E-07,1.080
5.700E-07,1.080
5.800E-07,0.424
5.900E-07,0.688
6.000E-07,-0.792
6.100E-07,-1.040
6.200E-07,0.536
6.300E-07,0.776
6.400E-07,0.832
6.500E-07,1.072
6.600E-07,1.080
6.700E-07,1.080
6.800E-07,1.072
6.900E-07,0.928
7.000E-07,0.784
7.100E-07,0.744
7.200E-07,-0.128
7.300E-07,-0.816
7.400E-07,-0.960
7.500E-07,-1.040
7.600E-07,-1.040
7.700E-07,-0.800
7.800E-07,-0.920
7.900E-07,-1.040
8.000E-07,-1.040
8.100E-07,-1.048
8.200E-07,-1.040
8.300E-07,-0.720
8.400E-07,-0.488
8.500E-07,0.136
8.600E-07,0.296
8.700E-07,0.096
8.800E-07,0.544
8.900E-07,0.336
9.000E-07,0.712
9.100E-07,0.768
9.200E-07,0.824
9.300E-07,1.088
9.400E-07,1.080
9.500E-07,1.088
9.600E-07,1.080
9.700E-07,1.080
9.800E-07,0.968
9.900E-07,0.456
1.000E-06,-0.152
1.010E-06,-0.472
1.020E-06,-0.880
1.030E-06,-0.888
1.040E-06,-1.040
1.050E-06,-1.032
1.060E-06,-1.040
1.070E-06,-0.848
1.080E-06,-0.216
1.090E-06,0.320
1.100E-06,0.896
1.110E-06,1.088
1.120E-06,1.080
1.130E-06,1.088
1.140E-06,1.088
1.150E-06,1.080
1.160E-06,1.080
1.170E-06,1.080
1.180E-06,0.600
1.190E-06,-0.328
1.200E-06,-1.032
1.210E-06,-1.040
1.220E-06,-1.032
1.230E-06,-1.032
1.240E-06,-1.040
1.250E-06,-1.032
1.260E-06,-1.040
1.270E-06,-1.048
1.280E-06,-0.880
1.290E-06,0.216
1.300E-06,1.080
1.310E-06,1.080
1.320E-06,1.080
1.330E-06,1.088
1.340E-06,1.088
1.350E-06,1.080
1.360E-06,1.080
1.370E-06,1.032
1.380E-06,0.808
1.390E-06,0.520
1.400E-06,0.216
1.410E-06,-0.264
1.420E-06,-0.528
1.430E-06,-0.624
1.440E-06,-0.632
1.450E-06,-0.640
1.460E-06,-0.720
1.470E-06,-0.872
1.480E-06,-0.920
1.490E-06,-1.024
1.500E-06,-1.032
1.510E-06,-1.032
1.520E-06,-1.040
1.530E-06,-1.040
1.540E-06,-1.040
1.550E-06,-1.048
1.560E-06,-1.040
1.570E-06,-1.032
1.580E-06,-1.040
1.590E-06,-1.048
1.600E-06,-1.040
1.610E-06,-0.904
1.620E-06,-0.488
1.630E-06,-0.128
1.640E-06,0.336
1.650E-06,0.768
1.660E-06,1.088
1.670E-06,1.088
1.680E-06,1.080
1.690E-06,1.088
1.700E-06,1.080
1.710E-06,1.088
1.720E-06,1.088
1.730E-06,1.080
1.740E-06,1.088
1.750E-06,1.080
1.760E-06,1.088
1.770E-06,1.080
1.780E-06,1.088
1.790E-06,1.080
1.800E-06,1.080
1.810E-06,1.056
1.820E-06,1.080
1.830E-06,1.072
1.840E-06,1.080
1.850E-06,1.080
1.860E-06,1.072
1.870E-06,1.080
1.880E-06,1.080
1.890E-06,1.080
1.900E-06,1.088
1.910E-06,1.080
1.920E-06,1.080
1.930E-06,1.080
1.940E-06,1.072
1.950E-06,1.080
1.960E-06,1.080
1.970E-06,1.072
1.980E-06,1.080
1.990E-06,1.080
2.000E-06,1.080
2.010E-06,1.072
2.020E-06,1.048
2.030E-06,0.984
2.040E-06,0.928
2.050E-06,0.912
2.060E-06,0.832
2.070E-06,0.784
2.080E-06,0.768
2.090E-06,0.760
2.100E-06,0.848
2.110E-06,0.968
2.120E-06,1.064
2.130E-06,1.080
2.140E-06,1.072
2.150E-06,1.080
2.160E-06,1.032
2.170E-06,0.952
2.180E-06,0.880
2.190E-06,0.792
2.200E-06,0.656
2.210E-06,0.528
2.220E-06,0.368
2.230E-06,0.192
2.240E-06,-0.008
2.250E-06,-0.160
2.260E-06,-0.320
2.270E-06,-0.400
2.280E-06,-0.408
2.290E-06,-0.392
2.300E-06,-0.312
2.310E-06,-0.216
2.320E-06,-0.064
2.330E-06,0.096
2.340E-06,0.288
2.350E-06,0.464
2.360E-06,0.672
2.370E-06,0.792
2.380E-06,0.880
2.390E-06,0.960
2.400E-06,1.000
2.410E-06,1.080
2.420E-06,1.080
2.430E-06,1.080
2.440E-06,1.088
2.450E-06,1.088
2.460E-06,1.080
2.470E-06,1.088
2.480E-06,1.080
2.490E-06,1.080
2.500E-06,1.088
2.510E-06,1.080
2.520E-06,1.072
2.530E-06,1.080
2.540E-06,1.088
2.550E-06,1.032
2.560E-06,0.800
2.570E-06,0.560
2.580E-06,0.376
2.590E-06,0.192
2.600E-06,-0.008
2.610E-06,-0.144
2.620E-06,-0.288
2.630E-06,-0.400
2.640E-06,-0.536
2.650E-06,-0.640
2.660E-06,-0.760
2.670E-06,-0.896
2.680E-06,-1.032
2.690E-06,-1.040
2.700E-06,-1.040
2.710E-06,-1.040
2.720E-06,-1.048
2.730E-06,-1.040
2.740E-06,-1.048
2.750E-06,-1.032
2.760E-06,-1.032
2.770E-06,-1.040
2.780E-06,-1.040
2.790E-06,-1.000
2.800E-06,-0.872
2.810E-06,-0.760
2.820E-06,-0.640
2.830E-06,-0.496
2.840E-06,-0.376
2.850E-06,-0.256
2.860E-06,-0.136
2.870E-06,-0.048
2.880E-06,0.120
2.890E-06,0.256
2.900E-06,0.448
2.910E-06,0.600
2.920E-06,0.816
2.930E-06,1.088
2.940E-06,1.080
2.950E-06,1.072
2.960E-06,1.080
2.970E-06,1.088
2.980E-06,1.080
2.990E-06,1.088
3.000E-06,1.088
3.010E-06,1.080
3.020E-06,1.080
3.030E-06,1.080
3.040E-06,1.080
3.050E-06,1.088
3.060E-06,1.088
3.070E-06,1.080
3.080E-06,1.080
3.090E-06,1.072
3.100E-06,1.080
3.110E-06,1.088
3.120E-06,1.080
3.130E-06,1.088
3.140E-06,1.088
3.150E-06,1.024
3.160E-06,0.952
3.170E-06,0.920
3.180E-06,0.896
3.190E-06,0.864
3.200E-06,0.864
3.210E-06,0.880
3.220E-06,0.912
3.230E-06,0.944
3.240E-06,1.000
3.250E-06,1.048
3.260E-06,1.080
3.270E-06,1.088
3.280E-06,1.080
3.290E-06,1.080
3.300E-06,1.080
3.310E-06,1.072
3.320E-06,1.080
3.330E-06,1.088
3.340E-06,1.000
3.350E-06,0.768
3.360E-06,0.648
3.370E-06,0.656
3.380E-06,0.696
3.390E-06,0.704
3.400E-06,0.728
3.410E-06,0.736
3.420E-06,0.768
3.430E-06,0.808
3.440E-06,0.832
3.450E-06,0.840
