mediciones/6-26/26.4/WaveData59222.csv

#timebase=2000000(ps)
,#voltbase=200000(mv/100)
#size=4000
-8.150E-06,-0.040
-8.140E-06,-0.048
-8.130E-06,-0.016
-8.120E-06,0.024
-8.110E-06,0.048
-8.100E-06,0.048
-8.090E-06,0.032
-8.080E-06,0.008
-8.070E-06,-0.024
-8.060E-06,-0.024
-8.050E-06,-0.008
-8.040E-06,0.008
-8.030E-06,0.032
-8.020E-06,0.048
-8.010E-06,0.016
-8.000E-06,0.008
-7.990E-06,-0.008
-7.980E-06,-0.024
-7.970E-06,-0.024
-7.960E-06,0.000
-7.950E-06,0.024
-7.940E-06,0.040
-7.930E-06,0.024
-7.920E-06,0.024
-7.910E-06,0.008
-7.900E-06,-0.024
-7.890E-06,-0.008
-7.880E-06,-0.024
-7.870E-06,-0.024
-7.860E-06,0.016
-7.850E-06,0.000
-7.840E-06,0.040
-7.830E-06,0.008
-7.820E-06,0.000
-7.810E-06,-0.056
-7.800E-06,-0.024
-7.790E-06,-0.032
-7.780E-06,-0.016
-7.770E-06,0.000
-7.760E-06,0.072
-7.750E-06,0.088
-7.740E-06,0.008
-7.730E-06,-0.040
-7.720E-06,-0.072
-7.710E-06,-0.016
-7.700E-06,0.040
-7.690E-06,0.056
-7.680E-06,0.056
-7.670E-06,0.016
-7.660E-06,-0.008
-7.650E-06,-0.024
-7.640E-06,-0.024
-7.630E-06,-0.016
-7.620E-06,0.016
-7.610E-06,0.048
-7.600E-06,0.048
-7.590E-06,0.024
-7.580E-06,-0.008
-7.570E-06,-0.016
-7.560E-06,-0.016
-7.550E-06,0.000
-7.540E-06,0.016
-7.530E-06,0.016
-7.520E-06,0.032
-7.510E-06,0.024
-7.500E-06,0.016
-7.490E-06,-0.016
-7.480E-06,0.000
-7.470E-06,-0.008
-7.460E-06,0.016
-7.450E-06,0.016
-7.440E-06,0.032
-7.430E-06,0.032
-7.420E-06,0.016
-7.410E-06,0.016
-7.400E-06,0.008
-7.390E-06,0.000
-7.380E-06,0.016
-7.370E-06,0.016
-7.360E-06,0.040
-7.350E-06,0.056
-7.340E-06,-0.120
-7.330E-06,-0.168
-7.320E-06,-0.040
-7.310E-06,0.008
-7.300E-06,0.128
-7.290E-06,0.048
-7.280E-06,0.144
-7.270E-06,0.016
-7.260E-06,-0.064
-7.250E-06,-0.120
-7.240E-06,-0.064
-7.230E-06,0.048
-7.220E-06,0.064
-7.210E-06,0.072
-7.200E-06,0.040
-7.190E-06,0.000
-7.180E-06,-0.008
-7.170E-06,-0.024
-7.160E-06,-0.032
-7.150E-06,-0.008
-7.140E-06,0.032
-7.130E-06,0.056
-7.120E-06,0.048
-7.110E-06,0.024
-7.100E-06,-0.008
-7.090E-06,-0.008
-7.080E-06,0.008
-7.070E-06,0.016
-7.060E-06,0.016
-7.050E-06,0.024
-7.040E-06,0.024
-7.030E-06,0.024
-7.020E-06,0.024
-7.010E-06,0.008
-7.000E-06,0.000
-6.990E-06,-0.048
-6.980E-06,-0.072
-6.970E-06,0.048
-6.960E-06,-0.072
-6.950E-06,-0.008
-6.940E-06,0.016
-6.930E-06,0.000
-6.920E-06,0.056
-6.910E-06,-0.016
-6.900E-06,0.024
-6.890E-06,0.000
-6.880E-06,-0.008
-6.870E-06,0.008
-6.860E-06,0.000
-6.850E-06,0.024
-6.840E-06,0.016
-6.830E-06,0.016
-6.820E-06,-0.016
-6.810E-06,-0.008
-6.800E-06,0.000
-6.790E-06,0.016
-6.780E-06,0.016
-6.770E-06,0.016
-6.760E-06,0.008
-6.750E-06,0.008
-6.740E-06,0.008
-6.730E-06,-0.008
-6.720E-06,0.008
-6.710E-06,0.024
-6.700E-06,0.024
-6.690E-06,0.040
-6.680E-06,0.048
-6.670E-06,0.024
-6.660E-06,0.024
-6.650E-06,0.016
-6.640E-06,0.000
-6.630E-06,0.000
-6.620E-06,-0.008
-6.610E-06,-0.016
-6.600E-06,-0.064
-6.590E-06,-0.064
-6.580E-06,-0.080
-6.570E-06,0.064
-6.560E-06,0.056
-6.550E-06,0.080
-6.540E-06,0.072
-6.530E-06,-0.016
-6.520E-06,-0.056
-6.510E-06,-0.088
-6.500E-06,-0.048
-6.490E-06,-0.008
-6.480E-06,0.056
-6.470E-06,0.088
-6.460E-06,0.056
-6.450E-06,0.000
-6.440E-06,-0.048
-6.430E-06,-0.056
-6.420E-06,-0.048
-6.410E-06,-0.008
-6.400E-06,0.048
-6.390E-06,0.064
-6.380E-06,0.072
-6.370E-06,0.024
-6.360E-06,0.000
-6.350E-06,-0.024
-6.340E-06,-0.016
-6.330E-06,0.008
-6.320E-06,0.040
-6.310E-06,0.056
-6.300E-06,0.032
-6.290E-06,-0.024
-6.280E-06,-0.144
-6.270E-06,-0.144
-6.260E-06,-0.048
-6.250E-06,-0.032
-6.240E-06,0.184
-6.230E-06,0.144
-6.220E-06,0.112
-6.210E-06,-0.032
-6.200E-06,-0.112
-6.190E-06,-0.128
-6.180E-06,-0.040
-6.170E-06,0.072
-6.160E-06,0.072
-6.150E-06,0.080
-6.140E-06,0.056
-6.130E-06,-0.016
-6.120E-06,-0.048
-6.110E-06,-0.056
-6.100E-06,-0.040
-6.090E-06,0.008
-6.080E-06,0.064
-6.070E-06,0.080
-6.060E-06,0.048
-6.050E-06,0.008
-6.040E-06,-0.016
-6.030E-06,-0.040
-6.020E-06,-0.016
-6.010E-06,0.016
-6.000E-06,0.048
-5.990E-06,0.072
-5.980E-06,0.080
-5.970E-06,0.048
-5.960E-06,-0.008
-5.950E-06,-0.024
-5.940E-06,-0.032
-5.930E-06,-0.032
-5.920E-06,0.016
-5.910E-06,0.056
-5.900E-06,0.040
-5.890E-06,0.000
-5.880E-06,-0.072
-5.870E-06,-0.040
-5.860E-06,-0.032
-5.850E-06,0.008
-5.840E-06,0.056
-5.830E-06,0.024
-5.820E-06,0.040
-5.810E-06,0.000
-5.800E-06,-0.032
-5.790E-06,-0.024
-5.780E-06,-0.008
-5.770E-06,0.024
-5.760E-06,0.040
-5.750E-06,0.008
-5.740E-06,-0.008
-5.730E-06,-0.024
-5.720E-06,0.008
-5.710E-06,0.024
-5.700E-06,0.032
-5.690E-06,0.032
-5.680E-06,0.008
-5.670E-06,0.016
-5.660E-06,0.016
-5.650E-06,0.024
-5.640E-06,0.024
-5.630E-06,0.048
-5.620E-06,0.056
-5.610E-06,0.024
-5.600E-06,-0.032
-5.590E-06,-0.056
-5.580E-06,-0.056
-5.570E-06,-0.016
-5.560E-06,-0.008
-5.550E-06,-0.048
-5.540E-06,-0.112
-5.530E-06,0.032
-5.520E-06,0.104
-5.510E-06,0.064
-5.500E-06,-0.016
-5.490E-06,-0.024
-5.480E-06,0.008
-5.470E-06,-0.016
-5.460E-06,-0.048
-5.450E-06,-0.008
-5.440E-06,0.016
-5.430E-06,0.064
-5.420E-06,0.080
-5.410E-06,0.008
-5.400E-06,-0.040
-5.390E-06,-0.048
-5.380E-06,-0.016
-5.370E-06,0.000
-5.360E-06,0.048
-5.350E-06,0.032
-5.340E-06,0.040
-5.330E-06,0.032
-5.320E-06,0.016
-5.310E-06,-0.016
-5.300E-06,-0.016
-5.290E-06,0.008
-5.280E-06,0.048
-5.270E-06,0.072
-5.260E-06,0.072
-5.250E-06,0.008
-5.240E-06,-0.008
-5.230E-06,-0.016
-5.220E-06,-0.008
-5.210E-06,-0.008
-5.200E-06,-0.016
-5.190E-06,-0.040
-5.180E-06,-0.032
-5.170E-06,-0.064
-5.160E-06,-0.072
-5.150E-06,-0.008
-5.140E-06,0.088
-5.130E-06,0.144
-5.120E-06,0.024
-5.110E-06,-0.048
-5.100E-06,-0.088
-5.090E-06,-0.040
-5.080E-06,0.032
-5.070E-06,0.056
-5.060E-06,0.040
-5.050E-06,0.024
-5.040E-06,0.016
-5.030E-06,-0.016
-5.020E-06,-0.040
-5.010E-06,-0.040
-5.000E-06,0.000
-4.990E-06,0.048
-4.980E-06,0.056
-4.970E-06,0.040
-4.960E-06,0.000
-4.950E-06,-0.016
-4.940E-06,-0.016
-4.930E-06,-0.008
-4.920E-06,0.016
-4.910E-06,0.032
-4.900E-06,0.056
-4.890E-06,0.072
-4.880E-06,0.056
-4.870E-06,0.016
-4.860E-06,-0.016
-4.850E-06,-0.064
-4.840E-06,-0.048
-4.830E-06,0.000
-4.820E-06,0.048
-4.810E-06,0.064
-4.800E-06,0.040
-4.790E-06,-0.040
-4.780E-06,-0.128
-4.770E-06,-0.024
-4.760E-06,-0.048
-4.750E-06,0.040
-4.740E-06,0.056
-4.730E-06,0.040
-4.720E-06,0.024
-4.710E-06,0.000
-4.700E-06,-0.024
-4.690E-06,-0.024
-4.680E-06,0.008
-4.670E-06,0.024
-4.660E-06,0.024
-4.650E-06,0.024
-4.640E-06,0.016
-4.630E-06,-0.008
-4.620E-06,-0.008
-4.610E-06,0.008
-4.600E-06,0.000
-4.590E-06,0.008
-4.580E-06,0.032
-4.570E-06,0.008
-4.560E-06,0.024
-4.550E-06,0.016
-4.540E-06,0.016
-4.530E-06,0.016
-4.520E-06,0.008
-4.510E-06,0.024
-4.500E-06,0.008
-4.490E-06,0.016
-4.480E-06,0.040
-4.470E-06,0.016
-4.460E-06,0.032
-4.450E-06,0.056
-4.440E-06,0.024
-4.430E-06,-0.040
-4.420E-06,-0.064
-4.410E-06,-0.048
-4.400E-06,0.048
-4.390E-06,-0.072
-4.380E-06,-0.096
-4.370E-06,-0.024
-4.360E-06,-0.160
-4.350E-06,-0.048
-4.340E-06,0.032
-4.330E-06,0.112
-4.320E-06,0.008
-4.310E-06,0.024
-4.300E-06,0.080
-4.290E-06,-0.064
-4.280E-06,-0.096
-4.270E-06,-0.008
-4.260E-06,0.032
-4.250E-06,0.072
-4.240E-06,0.104
-4.230E-06,0.032
-4.220E-06,-0.032
-4.210E-06,-0.048
-4.200E-06,-0.040
-4.190E-06,-0.008
-4.180E-06,0.040
-4.170E-06,0.056
-4.160E-06,0.056
-4.150E-06,0.056
-4.140E-06,0.032
-4.130E-06,-0.008
-4.120E-06,-0.008
-4.110E-06,0.024
-4.100E-06,-0.016
-4.090E-06,0.024
-4.080E-06,0.032
-4.070E-06,0.056
-4.060E-06,0.024
-4.050E-06,-0.072
-4.040E-06,-0.064
-4.030E-06,-0.104
-4.020E-06,-0.024
-4.010E-06,0.056
-4.000E-06,0.080
-3.990E-06,0.096
-3.980E-06,0.032
-3.970E-06,-0.032
-3.960E-06,-0.064
-3.950E-06,-0.064
-3.940E-06,-0.024
-3.930E-06,0.032
-3.920E-06,0.056
-3.910E-06,0.048
-3.900E-06,0.008
-3.890E-06,-0.032
-3.880E-06,-0.072
-3.870E-06,-0.056
-3.860E-06,0.016
-3.850E-06,0.048
-3.840E-06,0.080
-3.830E-06,0.064
-3.820E-06,0.016
-3.810E-06,-0.024
-3.800E-06,-0.032
-3.790E-06,0.000
-3.780E-06,0.056
-3.770E-06,0.120
-3.760E-06,0.056
-3.750E-06,0.008
-3.740E-06,-0.048
-3.730E-06,-0.080
-3.720E-06,-0.080
-3.710E-06,0.008
-3.700E-06,0.064
-3.690E-06,0.024
-3.680E-06,0.016
-3.670E-06,-0.016
-3.660E-06,0.032
-3.650E-06,-0.072
-3.640E-06,-0.200
-3.630E-06,-0.120
-3.620E-06,0.032
-3.610E-06,0.064
-3.600E-06,0.072
-3.590E-06,0.112
-3.580E-06,0.024
-3.570E-06,0.016
-3.560E-06,-0.032
-3.550E-06,-0.048
-3.540E-06,-0.032
-3.530E-06,0.032
-3.520E-06,0.040
-3.510E-06,0.040
-3.500E-06,0.032
-3.490E-06,-0.016
-3.480E-06,-0.008
-3.470E-06,-0.008
-3.460E-06,-0.008
-3.450E-06,0.008
-3.440E-06,0.024
-3.430E-06,0.048
-3.420E-06,0.048
-3.410E-06,0.048
-3.400E-06,0.008
-3.390E-06,0.016
-3.380E-06,0.024
-3.370E-06,0.024
-3.360E-06,0.032
-3.350E-06,0.016
-3.340E-06,0.016
-3.330E-06,0.024
-3.320E-06,0.024
-3.310E-06,0.024
-3.300E-06,-0.024
-3.290E-06,-0.080
-3.280E-06,-0.072
-3.270E-06,-0.016
-3.260E-06,-0.016
-3.250E-06,0.040
-3.240E-06,0.048
-3.230E-06,0.072
-3.220E-06,0.000
-3.210E-06,-0.048
-3.200E-06,-0.056
-3.190E-06,-0.056
-3.180E-06,0.024
-3.170E-06,0.040
-3.160E-06,0.056
-3.150E-06,0.024
-3.140E-06,0.008
-3.130E-06,-0.016
-3.120E-06,-0.024
-3.110E-06,-0.016
-3.100E-06,0.000
-3.090E-06,0.040
-3.080E-06,0.056
-3.070E-06,0.056
-3.060E-06,0.024
-3.050E-06,0.024
-3.040E-06,0.008
-3.030E-06,0.000
-3.020E-06,0.048
-3.010E-06,0.048
-3.000E-06,0.056
-2.990E-06,-0.008
-2.980E-06,-0.024
-2.970E-06,-0.040
-2.960E-06,-0.008
-2.950E-06,-0.104
-2.940E-06,-0.040
-2.930E-06,0.024
-2.920E-06,0.064
-2.910E-06,0.088
-2.900E-06,-0.032
-2.890E-06,-0.040
-2.880E-06,-0.032
-2.870E-06,-0.016
-2.860E-06,-0.008
-2.850E-06,0.032
-2.840E-06,0.056
-2.830E-06,0.056
-2.820E-06,0.048
-2.810E-06,-0.024
-2.800E-06,-0.048
-2.790E-06,-0.016
-2.780E-06,0.000
-2.770E-06,-0.016
-2.760E-06,0.040
-2.750E-06,0.016
-2.740E-06,-0.056
-2.730E-06,-0.024
-2.720E-06,0.000
-2.710E-06,0.056
-2.700E-06,0.000
-2.690E-06,0.000
-2.680E-06,0.000
-2.670E-06,0.008
-2.660E-06,0.016
-2.650E-06,0.008
-2.640E-06,-0.008
-2.630E-06,-0.016
-2.620E-06,0.024
-2.610E-06,0.016
-2.600E-06,0.008
-2.590E-06,0.008
-2.580E-06,0.016
-2.570E-06,0.024
-2.560E-06,0.040
-2.550E-06,0.008
-2.540E-06,-0.008
-2.530E-06,-0.008
-2.520E-06,0.024
-2.510E-06,0.016
-2.500E-06,-0.016
-2.490E-06,0.000
-2.480E-06,0.008
-2.470E-06,0.040
-2.460E-06,0.016
-2.450E-06,-0.008
-2.440E-06,0.008
-2.430E-06,-0.016
-2.420E-06,0.000
-2.410E-06,0.016
-2.400E-06,0.016
-2.390E-06,0.016
-2.380E-06,-0.032
-2.370E-06,-0.016
-2.360E-06,0.000
-2.350E-06,-0.016
-2.340E-06,-0.008
-2.330E-06,0.024
-2.320E-06,0.024
-2.310E-06,0.040
-2.300E-06,0.008
-2.290E-06,0.000
-2.280E-06,-0.024
-2.270E-06,0.000
-2.260E-06,0.016
-2.250E-06,0.032
-2.240E-06,0.040
-2.230E-06,0.024
-2.220E-06,-0.008
-2.210E-06,-0.024
-2.200E-06,-0.032
-2.190E-06,-0.008
-2.180E-06,0.016
-2.170E-06,0.056
-2.160E-06,0.072
-2.150E-06,0.040
-2.140E-06,0.008
-2.130E-06,0.008
-2.120E-06,0.008
-2.110E-06,0.048
-2.100E-06,0.000
-2.090E-06,0.024
-2.080E-06,0.008
-2.070E-06,-0.016
-2.060E-06,-0.008
-2.050E-06,-0.032
-2.040E-06,0.040
-2.030E-06,-0.048
-2.020E-06,-0.008
-2.010E-06,-0.120
-2.000E-06,-0.120
-1.990E-06,0.024
-1.980E-06,0.136
-1.970E-06,0.160
-1.960E-06,-0.008
-1.950E-06,-0.072
-1.940E-06,-0.072
-1.930E-06,-0.024
-1.920E-06,0.040
-1.910E-06,0.016
-1.900E-06,-0.008
-1.890E-06,0.016
-1.880E-06,0.040
-1.870E-06,0.008
-1.860E-06,-0.024
-1.850E-06,-0.048
-1.840E-06,-0.008
-1.830E-06,0.032
-1.820E-06,0.056
-1.810E-06,0.016
-1.800E-06,0.000
-1.790E-06,0.000
-1.780E-06,0.008
-1.770E-06,-0.008
-1.760E-06,0.016
-1.750E-06,0.016
-1.740E-06,0.032
-1.730E-06,0.048
-1.720E-06,0.024
-1.710E-06,0.008
-1.700E-06,-0.008
-1.690E-06,0.008
-1.680E-06,0.024
-1.670E-06,0.032
-1.660E-06,0.016
-1.650E-06,0.016
-1.640E-06,0.000
-1.630E-06,-0.024
-1.620E-06,0.048
-1.610E-06,-0.120
-1.600E-06,0.000
-1.590E-06,-0.056
-1.580E-06,-0.008
-1.570E-06,0.048
-1.560E-06,0.008
-1.550E-06,0.096
-1.540E-06,0.016
-1.530E-06,-0.032
-1.520E-06,-0.080
-1.510E-06,-0.032
-1.500E-06,0.064
-1.490E-06,0.080
-1.480E-06,0.072
-1.470E-06,0.016
-1.460E-06,-0.032
-1.450E-06,-0.104
-1.440E-06,-0.024
-1.430E-06,0.112
-1.420E-06,0.224
-1.410E-06,-0.080
-1.400E-06,-0.088
-1.390E-06,-0.112
-1.380E-06,-0.184
-1.370E-06,-0.096
-1.360E-06,0.112
-1.350E-06,0.192
-1.340E-06,0.048
-1.330E-06,-0.064
-1.320E-06,-0.104
-1.310E-06,-0.112
-1.300E-06,0.000
-1.290E-06,0.096
-1.280E-06,0.040
-1.270E-06,0.008
-1.260E-06,0.024
-1.250E-06,0.008
-1.240E-06,0.048
-1.230E-06,-0.008
-1.220E-06,-0.048
-1.210E-06,-0.040
-1.200E-06,0.008
-1.190E-06,0.048
-1.180E-06,0.064
-1.170E-06,0.056
-1.160E-06,0.024
-1.150E-06,-0.008
-1.140E-06,-0.016
-1.130E-06,-0.024
-1.120E-06,0.000
-1.110E-06,0.024
-1.100E-06,0.056
-1.090E-06,0.040
-1.080E-06,0.032
-1.070E-06,0.016
-1.060E-06,0.000
-1.050E-06,0.000
-1.040E-06,0.024
-1.030E-06,0.048
-1.020E-06,0.072
-1.010E-06,0.096
-1.000E-06,0.080
-9.900E-07,-0.008
-9.800E-07,-0.016
-9.700E-07,-0.024
-9.600E-07,-0.064
-9.500E-07,-0.032
-9.400E-07,-0.008
-9.300E-07,0.104
-9.200E-07,0.048
-9.100E-07,0.000
-9.000E-07,-0.024
-8.900E-07,-0.064
-8.800E-07,0.000
-8.700E-07,0.048
-8.600E-07,0.040
-8.500E-07,0.016
-8.400E-07,0.024
-8.300E-07,0.016
-8.200E-07,-0.032
-8.100E-07,0.008
-8.000E-07,0.008
-7.900E-07,-0.032
-7.800E-07,0.000
-7.700E-07,0.056
-7.600E-07,0.072
-7.500E-07,0.024
-7.400E-07,-0.144
-7.300E-07,-0.112
-7.200E-07,0.000
-7.100E-07,-0.032
-7.000E-07,-0.016
-6.900E-07,0.016
-6.800E-07,0.016
-6.700E-07,0.032
-6.600E-07,0.032
-6.500E-07,-0.008
-6.400E-07,-0.040
-6.300E-07,-0.016
-6.200E-07,0.000
-6.100E-07,0.024
-6.000E-07,0.040
-5.900E-07,0.032
-5.800E-07,0.024
-5.700E-07,0.000
-5.600E-07,-0.016
-5.500E-07,-0.024
-5.400E-07,-0.024
-5.300E-07,0.016
-5.200E-07,0.048
-5.100E-07,0.040
-5.000E-07,0.040
-4.900E-07,0.024
-4.800E-07,0.008
-4.700E-07,0.000
-4.600E-07,0.024
-4.500E-07,0.008
-4.400E-07,0.040
-4.300E-07,0.088
-4.200E-07,0.040
-4.100E-07,0.032
-4.000E-07,0.016
-3.900E-07,-0.048
-3.800E-07,0.008
-3.700E-07,0.016
-3.600E-07,0.112
-3.500E-07,0.136
-3.400E-07,0.056
-3.300E-07,0.008
-3.200E-07,-0.072
-3.100E-07,-0.064
-3.000E-07,-0.080
-2.900E-07,0.008
-2.800E-07,0.056
-2.700E-07,0.080
-2.600E-07,0.088
-2.500E-07,0.016
-2.400E-07,-0.008
-2.300E-07,0.016
-2.200E-07,0.024
-2.100E-07,0.048
-2.000E-07,0.064
-1.900E-07,0.072
-1.800E-07,0.040
-1.700E-07,0.088
-1.600E-07,0.000
-1.500E-07,0.080
-1.400E-07,-0.072
-1.300E-07,-0.152
-1.200E-07,-0.104
-1.100E-07,0.224
-1.000E-07,0.176
-9.000E-08,0.344
-8.000E-08,-0.072
-7.000E-08,-0.064
-6.000E-08,-0.208
-5.000E-08,-0.312
-4.000E-08,-0.400
-3.000E-08,-0.176
-2.000E-08,0.456
-1.000E-08,0.456
0.000E+00,0.480
1.000E-08,0.056
2.000E-08,-0.304
3.000E-08,-0.400
4.000E-08,-0.280
5.000E-08,-0.224
6.000E-08,0.016
7.000E-08,0.264
8.000E-08,0.368
9.000E-08,0.368
1.000E-07,0.040
1.100E-07,-0.208
1.200E-07,-0.368
1.300E-07,-0.224
1.400E-07,0.016
1.500E-07,0.192
1.600E-07,0.256
1.700E-07,0.224
1.800E-07,0.144
1.900E-07,0.008
2.000E-07,-0.160
2.100E-07,-0.200
2.200E-07,-0.088
2.300E-07,0.072
2.400E-07,0.224
2.500E-07,0.264
2.600E-07,0.160
2.700E-07,0.000
2.800E-07,-0.088
2.900E-07,-0.112
3.000E-07,-0.064
3.100E-07,0.008
3.200E-07,0.152
3.300E-07,0.200
3.400E-07,0.152
3.500E-07,0.096
3.600E-07,0.056
3.700E-07,0.008
3.800E-07,0.032
3.900E-07,0.024
4.000E-07,0.120
4.100E-07,0.168
4.200E-07,0.128
4.300E-07,0.112
4.400E-07,0.064
4.500E-07,0.032
4.600E-07,-0.176
4.700E-07,-0.136
4.800E-07,-0.480
4.900E-07,0.960
5.000E-07,-0.376
5.100E-07,-0.104
5.200E-07,-0.256
5.300E-07,-0.352
5.400E-07,0.904
5.500E-07,-0.680
5.600E-07,0.344
5.700E-07,0.040
5.800E-07,-0.544
5.900E-07,-0.336
6.000E-07,-0.200
6.100E-07,0.408
6.200E-07,0.200
6.300E-07,-0.272
6.400E-07,-0.264
6.500E-07,0.040
6.600E-07,0.120
6.700E-07,0.120
6.800E-07,-0.176
6.900E-07,-0.080
7.000E-07,0.048
7.100E-07,-0.008
7.200E-07,0.024
7.300E-07,-0.136
7.400E-07,0.088
7.500E-07,0.192
7.600E-07,0.288
7.700E-07,0.224
7.800E-07,0.032
7.900E-07,-0.136
8.000E-07,-0.208
8.100E-07,-0.184
8.200E-07,0.072
8.300E-07,0.280
8.400E-07,0.296
8.500E-07,0.176
8.600E-07,0.112
8.700E-07,0.072
8.800E-07,-0.040
8.900E-07,-0.056
9.000E-07,-0.120
9.100E-07,0.056
9.200E-07,0.112
9.300E-07,0.128
9.400E-07,0.024
9.500E-07,-0.040
9.600E-07,0.008
9.700E-07,0.032
9.800E-07,0.176
9.900E-07,0.192
1.000E-06,0.176
1.010E-06,0.120
1.020E-06,0.080
1.030E-06,0.024
1.040E-06,-0.024
1.050E-06,0.024
1.060E-06,0.008
1.070E-06,0.040
1.080E-06,0.040
1.090E-06,-0.128
1.100E-06,-0.120
1.110E-06,-0.136
1.120E-06,-0.040
1.130E-06,-0.032
1.140E-06,0.000
1.150E-06,0.024
1.160E-06,0.048
1.170E-06,0.104
1.180E-06,0.152
1.190E-06,0.168
1.200E-06,0.080
1.210E-06,-0.160
1.220E-06,-0.112
1.230E-06,-0.176
1.240E-06,-0.232
1.250E-06,-0.232
1.260E-06,-0.056
1.270E-06,0.152
1.280E-06,0.064
1.290E-06,0.112
1.300E-06,-0.080
1.310E-06,-0.104
1.320E-06,-0.144
1.330E-06,-0.104
1.340E-06,-0.016
1.350E-06,0.080
1.360E-06,0.144
1.370E-06,0.056
1.380E-06,0.048
1.390E-06,-0.048
1.400E-06,-0.072
1.410E-06,-0.032
1.420E-06,0.024
1.430E-06,0.144
1.440E-06,0.184
1.450E-06,0.200
1.460E-06,0.152
1.470E-06,0.072
1.480E-06,0.080
1.490E-06,0.056
1.500E-06,0.112
1.510E-06,0.168
1.520E-06,0.208
1.530E-06,0.240
1.540E-06,0.152
1.550E-06,0.128
1.560E-06,0.104
1.570E-06,0.112
1.580E-06,0.112
1.590E-06,0.208
1.600E-06,0.208
1.610E-06,0.224
1.620E-06,0.200
1.630E-06,0.184
1.640E-06,0.192
1.650E-06,0.160
1.660E-06,0.184
1.670E-06,0.160
1.680E-06,0.184
1.690E-06,0.208
1.700E-06,0.192
1.710E-06,0.192
1.720E-06,0.184
1.730E-06,0.184
1.740E-06,0.200
1.750E-06,0.224
1.760E-06,0.240
1.770E-06,0.248
1.780E-06,0.264
1.790E-06,0.272
1.800E-06,0.264
1.810E-06,0.280
1.820E-06,0.264
1.830E-06,0.272
1.840E-06,0.280
1.850E-06,0.272
1.860E-06,0.280
1.870E-06,0.264
1.880E-06,0.256
1.890E-06,0.248
1.900E-06,0.256
1.910E-06,0.264
1.920E-06,0.256
1.930E-06,0.256
1.940E-06,0.240
1.950E-06,0.248
1.960E-06,0.256
1.970E-06,0.264
1.980E-06,0.264
1.990E-06,0.248
2.000E-06,0.248
2.010E-06,0.248
2.020E-06,0.248
2.030E-06,0.248
2.040E-06,0.248
2.050E-06,0.256
2.060E-06,0.256
2.070E-06,0.248
2.080E-06,0.240
2.090E-06,0.240
2.100E-06,0.232
2.110E-06,0.248
2.120E-06,0.248
2.130E-06,0.256
2.140E-06,0.248
2.150E-06,0.240
2.160E-06,0.248
2.170E-06,0.248
2.180E-06,0.248
2.190E-06,0.248
2.200E-06,0.256
2.210E-06,0.256
2.220E-06,0.256
2.230E-06,0.256
2.240E-06,0.248
2.250E-06,0.248
2.260E-06,0.256
2.270E-06,0.264
2.280E-06,0.272
2.290E-06,0.280
2.300E-06,0.280
2.310E-06,0.272
2.320E-06,0.264
2.330E-06,0.264
2.340E-06,0.256
2.350E-06,0.256
2.360E-06,0.264
2.370E-06,0.248
2.380E-06,0.232
2.390E-06,0.256
2.400E-06,0.256
2.410E-06,0.272
2.420E-06,0.280
2.430E-06,0.304
2.440E-06,0.288
2.450E-06,0.288
2.460E-06,0.272
2.470E-06,0.264
2.480E-06,0.272
2.490E-06,0.280
2.500E-06,0.288
2.510E-06,0.280
2.520E-06,0.280
2.530E-06,0.288
2.540E-06,0.272
2.550E-06,0.280
2.560E-06,0.280
2.570E-06,0.280
2.580E-06,0.288
2.590E-06,0.288
2.600E-06,0.288
2.610E-06,0.296
2.620E-06,0.288
2.630E-06,0.272
2.640E-06,0.272
2.650E-06,0.280
2.660E-06,0.272
2.670E-06,0.288
2.680E-06,0.280
2.690E-06,0.280
2.700E-06,0.280
2.710E-06,0.272
2.720E-06,0.280
2.730E-06,0.288
2.740E-06,0.272
2.750E-06,0.280
2.760E-06,0.264
2.770E-06,0.288
2.780E-06,0.280
2.790E-06,0.272
2.800E-06,0.256
2.810E-06,0.288
2.820E-06,0.288
2.830E-06,0.272
2.840E-06,0.264
2.850E-06,0.272
2.860E-06,0.280
2.870E-06,0.280
2.880E-06,0.264
2.890E-06,0.264
2.900E-06,0.272
2.910E-06,0.280
2.920E-06,0.288
2.930E-06,0.272
2.940E-06,0.288
2.950E-06,0.288
2.960E-06,0.280
2.970E-06,0.272
2.980E-06,0.256
2.990E-06,0.248
3.000E-06,0.256
3.010E-06,0.248
3.020E-06,0.264
3.030E-06,0.272
3.040E-06,0.272
3.050E-06,0.272
3.060E-06,0.256
3.070E-06,0.256
3.080E-06,0.256
3.090E-06,0.256
3.100E-06,0.256
3.110E-06,0.256
3.120E-06,0.256
3.130E-06,0.248
3.140E-06,0.240
3.150E-06,0.248
3.160E-06,0.248
3.170E-06,0.248
3.180E-06,0.248
3.190E-06,0.256
3.200E-06,0.264
3.210E-06,0.256
3.220E-06,0.264
3.230E-06,0.248
3.240E-06,0.248
3.250E-06,0.248
3.260E-06,0.248
3.270E-06,0.248
3.280E-06,0.256
3.290E-06,0.256
3.300E-06,0.256
3.310E-06,0.240
3.320E-06,0.224
3.330E-06,0.224
3.340E-06,0.216
3.350E-06,0.224
3.360E-06,0.248
3.370E-06,0.256
3.380E-06,0.256
3.390E-06,0.256
3.400E-06,0.240
3.410E-06,0.224
3.420E-06,0.216
3.430E-06,0.224
3.440E-06,0.240
3.450E-06,0.248
3.460E-06,0.256
3.470E-06,0.248
3.480E-06,0.232
3.490E-06,0.216
3.500E-06,0.224
3.510E-06,0.216
3.520E-06,0.216
3.530E-06,0.224
3.540E-06,0.240
3.550E-06,0.248
3.560E-06,0.248
