mediciones/6-26/26.4/WaveData59224.csv

#timebase=2000000(ps)
,#voltbase=200000(mv/100)
#size=4000
-8.150E-06,0.000
-8.140E-06,0.008
-8.130E-06,-0.008
-8.120E-06,-0.008
-8.110E-06,0.000
-8.100E-06,0.008
-8.090E-06,0.016
-8.080E-06,-0.008
-8.070E-06,-0.008
-8.060E-06,0.000
-8.050E-06,0.016
-8.040E-06,0.016
-8.030E-06,0.016
-8.020E-06,0.016
-8.010E-06,0.000
-8.000E-06,0.000
-7.990E-06,0.000
-7.980E-06,0.008
-7.970E-06,0.000
-7.960E-06,0.000
-7.950E-06,0.008
-7.940E-06,0.008
-7.930E-06,0.000
-7.920E-06,0.000
-7.910E-06,0.008
-7.900E-06,-0.008
-7.890E-06,0.008
-7.880E-06,0.016
-7.870E-06,0.016
-7.860E-06,-0.008
-7.850E-06,0.000
-7.840E-06,0.000
-7.830E-06,-0.008
-7.820E-06,0.000
-7.810E-06,0.008
-7.800E-06,0.008
-7.790E-06,0.008
-7.780E-06,0.016
-7.770E-06,0.000
-7.760E-06,0.000
-7.750E-06,0.000
-7.740E-06,0.000
-7.730E-06,0.000
-7.720E-06,0.000
-7.710E-06,0.000
-7.700E-06,0.000
-7.690E-06,0.000
-7.680E-06,0.008
-7.670E-06,-0.008
-7.660E-06,0.008
-7.650E-06,0.016
-7.640E-06,-0.008
-7.630E-06,0.000
-7.620E-06,0.008
-7.610E-06,0.000
-7.600E-06,0.000
-7.590E-06,0.008
-7.580E-06,0.016
-7.570E-06,0.008
-7.560E-06,0.000
-7.550E-06,0.000
-7.540E-06,0.000
-7.530E-06,0.008
-7.520E-06,0.008
-7.510E-06,0.000
-7.500E-06,0.008
-7.490E-06,0.008
-7.480E-06,0.000
-7.470E-06,0.008
-7.460E-06,0.016
-7.450E-06,0.000
-7.440E-06,-0.008
-7.430E-06,0.000
-7.420E-06,0.008
-7.410E-06,0.008
-7.400E-06,0.000
-7.390E-06,0.008
-7.380E-06,0.000
-7.370E-06,0.008
-7.360E-06,0.008
-7.350E-06,0.000
-7.340E-06,-0.008
-7.330E-06,0.000
-7.320E-06,0.008
-7.310E-06,0.000
-7.300E-06,0.008
-7.290E-06,0.008
-7.280E-06,0.008
-7.270E-06,0.016
-7.260E-06,0.008
-7.250E-06,0.008
-7.240E-06,0.000
-7.230E-06,0.000
-7.220E-06,0.000
-7.210E-06,-0.008
-7.200E-06,0.000
-7.190E-06,0.016
-7.180E-06,0.008
-7.170E-06,0.008
-7.160E-06,-0.008
-7.150E-06,-0.008
-7.140E-06,0.008
-7.130E-06,0.016
-7.120E-06,-0.008
-7.110E-06,0.000
-7.100E-06,0.008
-7.090E-06,0.000
-7.080E-06,-0.008
-7.070E-06,0.000
-7.060E-06,0.008
-7.050E-06,0.000
-7.040E-06,-0.008
-7.030E-06,0.000
-7.020E-06,0.000
-7.010E-06,0.016
-7.000E-06,-0.008
-6.990E-06,0.000
-6.980E-06,0.008
-6.970E-06,0.000
-6.960E-06,0.008
-6.950E-06,0.008
-6.940E-06,0.008
-6.930E-06,0.008
-6.920E-06,0.008
-6.910E-06,0.000
-6.900E-06,0.000
-6.890E-06,0.008
-6.880E-06,0.016
-6.870E-06,-0.008
-6.860E-06,0.000
-6.850E-06,0.000
-6.840E-06,0.008
-6.830E-06,0.008
-6.820E-06,0.008
-6.810E-06,0.000
-6.800E-06,0.008
-6.790E-06,0.000
-6.780E-06,0.000
-6.770E-06,0.008
-6.760E-06,0.008
-6.750E-06,0.000
-6.740E-06,0.008
-6.730E-06,0.000
-6.720E-06,0.008
-6.710E-06,0.008
-6.700E-06,0.008
-6.690E-06,0.008
-6.680E-06,0.008
-6.670E-06,-0.008
-6.660E-06,0.000
-6.650E-06,0.008
-6.640E-06,0.000
-6.630E-06,0.000
-6.620E-06,0.000
-6.610E-06,0.008
-6.600E-06,0.008
-6.590E-06,0.008
-6.580E-06,0.008
-6.570E-06,-0.008
-6.560E-06,-0.008
-6.550E-06,0.000
-6.540E-06,0.000
-6.530E-06,0.000
-6.520E-06,-0.008
-6.510E-06,0.000
-6.500E-06,0.008
-6.490E-06,0.000
-6.480E-06,0.008
-6.470E-06,-0.008
-6.460E-06,0.000
-6.450E-06,0.008
-6.440E-06,0.008
-6.430E-06,0.008
-6.420E-06,0.008
-6.410E-06,0.016
-6.400E-06,0.008
-6.390E-06,0.000
-6.380E-06,0.008
-6.370E-06,0.008
-6.360E-06,0.000
-6.350E-06,-0.008
-6.340E-06,0.008
-6.330E-06,0.008
-6.320E-06,0.000
-6.310E-06,0.000
-6.300E-06,0.000
-6.290E-06,0.008
-6.280E-06,0.008
-6.270E-06,0.000
-6.260E-06,0.016
-6.250E-06,0.008
-6.240E-06,0.008
-6.230E-06,0.000
-6.220E-06,0.008
-6.210E-06,0.008
-6.200E-06,0.000
-6.190E-06,-0.008
-6.180E-06,0.000
-6.170E-06,0.000
-6.160E-06,0.000
-6.150E-06,0.016
-6.140E-06,0.016
-6.130E-06,0.008
-6.120E-06,0.008
-6.110E-06,0.016
-6.100E-06,0.016
-6.090E-06,0.000
-6.080E-06,0.008
-6.070E-06,0.000
-6.060E-06,0.000
-6.050E-06,0.008
-6.040E-06,0.008
-6.030E-06,0.000
-6.020E-06,0.016
-6.010E-06,-0.008
-6.000E-06,0.000
-5.990E-06,0.000
-5.980E-06,0.008
-5.970E-06,0.008
-5.960E-06,-0.008
-5.950E-06,-0.008
-5.940E-06,0.008
-5.930E-06,0.008
-5.920E-06,0.016
-5.910E-06,-0.008
-5.900E-06,0.008
-5.890E-06,0.000
-5.880E-06,0.008
-5.870E-06,0.000
-5.860E-06,0.000
-5.850E-06,0.008
-5.840E-06,0.000
-5.830E-06,0.000
-5.820E-06,-0.008
-5.810E-06,0.008
-5.800E-06,0.008
-5.790E-06,0.000
-5.780E-06,0.000
-5.770E-06,-0.008
-5.760E-06,0.000
-5.750E-06,-0.008
-5.740E-06,0.000
-5.730E-06,0.008
-5.720E-06,0.016
-5.710E-06,0.016
-5.700E-06,0.008
-5.690E-06,0.000
-5.680E-06,-0.008
-5.670E-06,0.000
-5.660E-06,-0.008
-5.650E-06,0.008
-5.640E-06,-0.008
-5.630E-06,0.008
-5.620E-06,0.008
-5.610E-06,0.008
-5.600E-06,0.008
-5.590E-06,0.000
-5.580E-06,0.000
-5.570E-06,0.000
-5.560E-06,0.000
-5.550E-06,0.008
-5.540E-06,0.000
-5.530E-06,0.008
-5.520E-06,0.000
-5.510E-06,0.000
-5.500E-06,0.000
-5.490E-06,-0.008
-5.480E-06,0.000
-5.470E-06,0.008
-5.460E-06,0.000
-5.450E-06,0.000
-5.440E-06,-0.008
-5.430E-06,0.000
-5.420E-06,0.000
-5.410E-06,0.000
-5.400E-06,0.000
-5.390E-06,0.000
-5.380E-06,-0.008
-5.370E-06,0.008
-5.360E-06,0.008
-5.350E-06,0.008
-5.340E-06,0.016
-5.330E-06,0.016
-5.320E-06,-0.008
-5.310E-06,0.000
-5.300E-06,0.000
-5.290E-06,0.008
-5.280E-06,0.008
-5.270E-06,0.000
-5.260E-06,0.008
-5.250E-06,0.000
-5.240E-06,0.000
-5.230E-06,-0.008
-5.220E-06,0.000
-5.210E-06,0.000
-5.200E-06,0.000
-5.190E-06,0.000
-5.180E-06,0.000
-5.170E-06,-0.008
-5.160E-06,0.008
-5.150E-06,0.008
-5.140E-06,0.008
-5.130E-06,0.008
-5.120E-06,0.008
-5.110E-06,0.016
-5.100E-06,-0.008
-5.090E-06,0.000
-5.080E-06,0.000
-5.070E-06,0.008
-5.060E-06,0.008
-5.050E-06,0.016
-5.040E-06,-0.008
-5.030E-06,0.000
-5.020E-06,0.008
-5.010E-06,0.008
-5.000E-06,0.008
-4.990E-06,0.016
-4.980E-06,0.008
-4.970E-06,-0.008
-4.960E-06,0.008
-4.950E-06,0.000
-4.940E-06,0.000
-4.930E-06,0.008
-4.920E-06,0.008
-4.910E-06,0.008
-4.900E-06,0.008
-4.890E-06,0.000
-4.880E-06,0.008
-4.870E-06,0.016
-4.860E-06,0.016
-4.850E-06,0.016
-4.840E-06,-0.008
-4.830E-06,-0.008
-4.820E-06,0.000
-4.810E-06,-0.008
-4.800E-06,-0.008
-4.790E-06,0.008
-4.780E-06,0.008
-4.770E-06,0.000
-4.760E-06,0.000
-4.750E-06,0.008
-4.740E-06,0.008
-4.730E-06,0.008
-4.720E-06,-0.008
-4.710E-06,0.000
-4.700E-06,0.008
-4.690E-06,0.008
-4.680E-06,0.000
-4.670E-06,0.000
-4.660E-06,0.000
-4.650E-06,0.000
-4.640E-06,0.000
-4.630E-06,0.000
-4.620E-06,0.008
-4.610E-06,0.008
-4.600E-06,0.008
-4.590E-06,0.016
-4.580E-06,0.000
-4.570E-06,0.000
-4.560E-06,0.008
-4.550E-06,0.000
-4.540E-06,0.000
-4.530E-06,0.000
-4.520E-06,-0.008
-4.510E-06,0.008
-4.500E-06,0.008
-4.490E-06,0.000
-4.480E-06,0.000
-4.470E-06,0.000
-4.460E-06,0.000
-4.450E-06,0.008
-4.440E-06,0.008
-4.430E-06,0.008
-4.420E-06,0.000
-4.410E-06,-0.008
-4.400E-06,0.000
-4.390E-06,0.000
-4.380E-06,0.008
-4.370E-06,0.008
-4.360E-06,0.000
-4.350E-06,0.008
-4.340E-06,-0.008
-4.330E-06,0.000
-4.320E-06,0.000
-4.310E-06,0.000
-4.300E-06,0.000
-4.290E-06,0.000
-4.280E-06,-0.008
-4.270E-06,0.000
-4.260E-06,0.016
-4.250E-06,0.008
-4.240E-06,0.008
-4.230E-06,0.016
-4.220E-06,0.000
-4.210E-06,0.008
-4.200E-06,0.000
-4.190E-06,0.000
-4.180E-06,0.008
-4.170E-06,-0.008
-4.160E-06,0.000
-4.150E-06,0.008
-4.140E-06,0.000
-4.130E-06,0.008
-4.120E-06,0.008
-4.110E-06,0.000
-4.100E-06,0.000
-4.090E-06,0.016
-4.080E-06,-0.008
-4.070E-06,-0.008
-4.060E-06,0.008
-4.050E-06,-0.008
-4.040E-06,0.000
-4.030E-06,0.008
-4.020E-06,0.008
-4.010E-06,0.000
-4.000E-06,0.000
-3.990E-06,0.000
-3.980E-06,0.008
-3.970E-06,0.008
-3.960E-06,0.000
-3.950E-06,0.000
-3.940E-06,-0.008
-3.930E-06,0.008
-3.920E-06,0.000
-3.910E-06,0.000
-3.900E-06,-0.008
-3.890E-06,-0.008
-3.880E-06,0.008
-3.870E-06,0.008
-3.860E-06,0.016
-3.850E-06,0.016
-3.840E-06,0.000
-3.830E-06,0.000
-3.820E-06,0.008
-3.810E-06,0.016
-3.800E-06,0.016
-3.790E-06,0.008
-3.780E-06,-0.008
-3.770E-06,0.008
-3.760E-06,0.000
-3.750E-06,0.008
-3.740E-06,-0.008
-3.730E-06,0.008
-3.720E-06,-0.008
-3.710E-06,0.000
-3.700E-06,0.000
-3.690E-06,0.000
-3.680E-06,0.000
-3.670E-06,0.008
-3.660E-06,0.008
-3.650E-06,0.008
-3.640E-06,0.016
-3.630E-06,0.008
-3.620E-06,0.000
-3.610E-06,0.000
-3.600E-06,0.008
-3.590E-06,0.008
-3.580E-06,0.000
-3.570E-06,0.008
-3.560E-06,0.000
-3.550E-06,0.008
-3.540E-06,0.000
-3.530E-06,0.000
-3.520E-06,0.008
-3.510E-06,-0.008
-3.500E-06,0.008
-3.490E-06,0.000
-3.480E-06,0.008
-3.470E-06,0.008
-3.460E-06,0.000
-3.450E-06,0.008
-3.440E-06,0.008
-3.430E-06,0.008
-3.420E-06,0.040
-3.410E-06,0.096
-3.400E-06,0.112
-3.390E-06,0.088
-3.380E-06,-0.016
-3.370E-06,-0.176
-3.360E-06,-0.096
-3.350E-06,-0.096
-3.340E-06,-0.016
-3.330E-06,0.120
-3.320E-06,0.136
-3.310E-06,0.112
-3.300E-06,0.000
-3.290E-06,-0.088
-3.280E-06,-0.128
-3.270E-06,-0.040
-3.260E-06,0.048
-3.250E-06,0.112
-3.240E-06,0.120
-3.230E-06,0.064
-3.220E-06,-0.016
-3.210E-06,-0.088
-3.200E-06,-0.088
-3.190E-06,-0.056
-3.180E-06,0.024
-3.170E-06,0.072
-3.160E-06,0.080
-3.150E-06,0.048
-3.140E-06,0.024
-3.130E-06,-0.008
-3.120E-06,-0.040
-3.110E-06,-0.032
-3.100E-06,0.000
-3.090E-06,0.016
-3.080E-06,0.024
-3.070E-06,0.024
-3.060E-06,-0.016
-3.050E-06,-0.024
-3.040E-06,-0.048
-3.030E-06,-0.016
-3.020E-06,0.000
-3.010E-06,0.024
-3.000E-06,0.040
-2.990E-06,0.040
-2.980E-06,0.040
-2.970E-06,0.008
-2.960E-06,-0.008
-2.950E-06,-0.008
-2.940E-06,-0.016
-2.930E-06,-0.016
-2.920E-06,0.016
-2.910E-06,0.008
-2.900E-06,0.008
-2.890E-06,0.008
-2.880E-06,-0.008
-2.870E-06,-0.008
-2.860E-06,-0.008
-2.850E-06,0.008
-2.840E-06,0.032
-2.830E-06,0.048
-2.820E-06,0.032
-2.810E-06,0.016
-2.800E-06,-0.008
-2.790E-06,-0.008
-2.780E-06,-0.008
-2.770E-06,0.000
-2.760E-06,0.008
-2.750E-06,0.016
-2.740E-06,0.008
-2.730E-06,0.000
-2.720E-06,0.000
-2.710E-06,0.000
-2.700E-06,0.000
-2.690E-06,0.008
-2.680E-06,0.016
-2.670E-06,0.008
-2.660E-06,0.016
-2.650E-06,0.008
-2.640E-06,0.008
-2.630E-06,-0.016
-2.620E-06,-0.008
-2.610E-06,-0.008
-2.600E-06,0.008
-2.590E-06,0.000
-2.580E-06,0.008
-2.570E-06,0.008
-2.560E-06,0.016
-2.550E-06,0.008
-2.540E-06,0.008
-2.530E-06,0.000
-2.520E-06,0.008
-2.510E-06,0.000
-2.500E-06,0.016
-2.490E-06,0.016
-2.480E-06,0.008
-2.470E-06,0.016
-2.460E-06,0.008
-2.450E-06,0.000
-2.440E-06,0.000
-2.430E-06,0.000
-2.420E-06,0.008
-2.410E-06,0.016
-2.400E-06,0.016
-2.390E-06,0.016
-2.380E-06,0.016
-2.370E-06,-0.008
-2.360E-06,0.000
-2.350E-06,0.008
-2.340E-06,0.016
-2.330E-06,-0.008
-2.320E-06,-0.008
-2.310E-06,-0.008
-2.300E-06,0.024
-2.290E-06,0.024
-2.280E-06,0.040
-2.270E-06,-0.008
-2.260E-06,-0.008
-2.250E-06,-0.008
-2.240E-06,-0.032
-2.230E-06,-0.024
-2.220E-06,0.008
-2.210E-06,0.048
-2.200E-06,0.024
-2.190E-06,0.024
-2.180E-06,0.008
-2.170E-06,0.000
-2.160E-06,-0.016
-2.150E-06,-0.008
-2.140E-06,0.000
-2.130E-06,0.008
-2.120E-06,0.024
-2.110E-06,0.032
-2.100E-06,0.024
-2.090E-06,0.000
-2.080E-06,-0.016
-2.070E-06,-0.008
-2.060E-06,-0.008
-2.050E-06,0.016
-2.040E-06,0.040
-2.030E-06,0.032
-2.020E-06,0.024
-2.010E-06,0.016
-2.000E-06,0.000
-1.990E-06,0.000
-1.980E-06,-0.008
-1.970E-06,0.032
-1.960E-06,-0.056
-1.950E-06,-0.024
-1.940E-06,-0.016
-1.930E-06,-0.016
-1.920E-06,0.048
-1.910E-06,0.040
-1.900E-06,0.048
-1.890E-06,-0.024
-1.880E-06,-0.040
-1.870E-06,-0.056
-1.860E-06,-0.024
-1.850E-06,0.024
-1.840E-06,0.072
-1.830E-06,0.056
-1.820E-06,0.024
-1.810E-06,-0.008
-1.800E-06,-0.048
-1.790E-06,-0.048
-1.780E-06,-0.016
-1.770E-06,0.032
-1.760E-06,0.056
-1.750E-06,0.056
-1.740E-06,0.024
-1.730E-06,-0.016
-1.720E-06,-0.048
-1.710E-06,-0.016
-1.700E-06,0.000
-1.690E-06,0.024
-1.680E-06,0.048
-1.670E-06,0.032
-1.660E-06,0.016
-1.650E-06,-0.016
-1.640E-06,-0.016
-1.630E-06,0.000
-1.620E-06,0.016
-1.610E-06,0.016
-1.600E-06,0.040
-1.590E-06,0.032
-1.580E-06,0.024
-1.570E-06,0.000
-1.560E-06,-0.008
-1.550E-06,-0.008
-1.540E-06,-0.016
-1.530E-06,0.024
-1.520E-06,0.040
-1.510E-06,0.040
-1.500E-06,0.040
-1.490E-06,0.008
-1.480E-06,0.008
-1.470E-06,0.000
-1.460E-06,0.000
-1.450E-06,0.000
-1.440E-06,0.016
-1.430E-06,0.024
-1.420E-06,0.040
-1.410E-06,0.016
-1.400E-06,0.016
-1.390E-06,0.000
-1.380E-06,0.000
-1.370E-06,0.016
-1.360E-06,0.032
-1.350E-06,0.016
-1.340E-06,0.040
-1.330E-06,0.040
-1.320E-06,0.040
-1.310E-06,0.056
-1.300E-06,0.024
-1.290E-06,0.048
-1.280E-06,0.056
-1.270E-06,0.072
-1.260E-06,0.064
-1.250E-06,0.056
-1.240E-06,0.016
-1.230E-06,0.048
-1.220E-06,0.056
-1.210E-06,0.072
-1.200E-06,0.048
-1.190E-06,0.016
-1.180E-06,0.096
-1.170E-06,0.032
-1.160E-06,0.000
-1.150E-06,-0.064
-1.140E-06,-0.080
-1.130E-06,-0.088
-1.120E-06,-0.024
-1.110E-06,0.016
-1.100E-06,0.072
-1.090E-06,0.056
-1.080E-06,-0.008
-1.070E-06,-0.032
-1.060E-06,-0.048
-1.050E-06,-0.008
-1.040E-06,0.032
-1.030E-06,0.104
-1.020E-06,0.112
-1.010E-06,0.112
-1.000E-06,0.048
-9.900E-07,0.032
-9.800E-07,0.016
-9.700E-07,0.032
-9.600E-07,0.072
-9.500E-07,0.072
-9.400E-07,0.080
-9.300E-07,0.128
-9.200E-07,0.144
-9.100E-07,0.120
-9.000E-07,0.128
-8.900E-07,0.088
-8.800E-07,0.072
-8.700E-07,0.064
-8.600E-07,0.048
-8.500E-07,0.080
-8.400E-07,0.112
-8.300E-07,0.192
-8.200E-07,0.176
-8.100E-07,0.192
-8.000E-07,0.112
-7.900E-07,0.008
-7.800E-07,-0.040
-7.700E-07,-0.176
-7.600E-07,-0.256
-7.500E-07,-0.064
-7.400E-07,-0.224
-7.300E-07,-0.008
-7.200E-07,-0.040
-7.100E-07,-0.064
-7.000E-07,-0.024
-6.900E-07,-0.072
-6.800E-07,0.064
-6.700E-07,0.048
-6.600E-07,0.240
-6.500E-07,0.296
-6.400E-07,0.248
-6.300E-07,0.024
-6.200E-07,-0.072
-6.100E-07,-0.168
-6.000E-07,-0.208
-5.900E-07,-0.016
-5.800E-07,0.112
-5.700E-07,0.272
-5.600E-07,0.312
-5.500E-07,0.208
-5.400E-07,0.064
-5.300E-07,0.000
-5.200E-07,0.008
-5.100E-07,0.088
-5.000E-07,0.272
-4.900E-07,0.344
-4.800E-07,0.384
-4.700E-07,0.312
-4.600E-07,0.184
-4.500E-07,0.088
-4.400E-07,0.048
-4.300E-07,0.112
-4.200E-07,0.184
-4.100E-07,0.256
-4.000E-07,0.280
-3.900E-07,0.256
-3.800E-07,0.152
-3.700E-07,0.120
-3.600E-07,0.072
-3.500E-07,0.112
-3.400E-07,0.136
-3.300E-07,0.224
-3.200E-07,0.232
-3.100E-07,0.208
-3.000E-07,0.128
-2.900E-07,0.072
-2.800E-07,0.112
-2.700E-07,0.112
-2.600E-07,0.200
-2.500E-07,0.248
-2.400E-07,0.248
-2.300E-07,0.184
-2.200E-07,0.128
-2.100E-07,0.096
-2.000E-07,0.072
-1.900E-07,0.176
-1.800E-07,0.216
-1.700E-07,0.296
-1.600E-07,0.304
-1.500E-07,0.272
-1.400E-07,0.240
-1.300E-07,0.192
-1.200E-07,0.192
-1.100E-07,0.264
-1.000E-07,0.304
-9.000E-08,0.288
-8.000E-08,0.256
-7.000E-08,0.192
-6.000E-08,0.048
-5.000E-08,-0.216
-4.000E-08,-0.312
-3.000E-08,-0.120
-2.000E-08,0.248
-1.000E-08,0.592
0.000E+00,0.328
1.000E-08,0.544
2.000E-08,-0.048
3.000E-08,-0.144
4.000E-08,-0.480
5.000E-08,-0.432
6.000E-08,-0.208
7.000E-08,0.128
8.000E-08,0.272
9.000E-08,0.656
1.000E-07,0.640
1.100E-07,0.352
1.200E-07,0.008
1.300E-07,-0.464
1.400E-07,-0.800
1.500E-07,-0.904
1.600E-07,-0.808
1.700E-07,-0.840
1.800E-07,0.080
1.900E-07,0.200
2.000E-07,0.112
2.100E-07,0.080
2.200E-07,-0.288
2.300E-07,-0.552
2.400E-07,-0.840
2.500E-07,-0.704
2.600E-07,-0.168
2.700E-07,0.176
2.800E-07,0.376
2.900E-07,0.384
3.000E-07,0.232
3.100E-07,-0.024
3.200E-07,-0.320
3.300E-07,-0.168
3.400E-07,-0.104
3.500E-07,0.248
3.600E-07,0.400
3.700E-07,0.352
3.800E-07,0.304
3.900E-07,0.096
4.000E-07,0.016
4.100E-07,-0.040
4.200E-07,0.112
4.300E-07,0.264
4.400E-07,0.416
4.500E-07,0.464
4.600E-07,0.416
4.700E-07,0.288
4.800E-07,0.144
4.900E-07,0.112
5.000E-07,0.128
5.100E-07,0.224
5.200E-07,0.304
5.300E-07,0.408
5.400E-07,0.376
5.500E-07,0.336
5.600E-07,0.256
5.700E-07,0.184
5.800E-07,0.192
5.900E-07,0.248
6.000E-07,0.320
6.100E-07,0.360
6.200E-07,0.392
6.300E-07,0.328
6.400E-07,0.280
6.500E-07,0.224
6.600E-07,0.200
6.700E-07,0.240
6.800E-07,0.280
6.900E-07,0.328
7.000E-07,0.344
7.100E-07,0.320
7.200E-07,0.264
7.300E-07,0.240
7.400E-07,0.216
7.500E-07,0.240
7.600E-07,0.256
7.700E-07,0.280
7.800E-07,0.288
7.900E-07,0.272
8.000E-07,0.248
8.100E-07,0.256
8.200E-07,0.248
8.300E-07,0.280
8.400E-07,0.296
8.500E-07,0.296
8.600E-07,0.296
8.700E-07,0.264
8.800E-07,0.256
8.900E-07,0.248
9.000E-07,0.248
9.100E-07,0.264
9.200E-07,0.272
9.300E-07,0.272
9.400E-07,0.280
9.500E-07,0.272
9.600E-07,0.264
9.700E-07,0.256
9.800E-07,0.256
9.900E-07,0.264
1.000E-06,0.272
1.010E-06,0.272
1.020E-06,0.288
1.030E-06,0.272
1.040E-06,0.272
1.050E-06,0.272
1.060E-06,0.264
1.070E-06,0.264
1.080E-06,0.264
1.090E-06,0.280
1.100E-06,0.272
1.110E-06,0.272
1.120E-06,0.256
1.130E-06,0.264
1.140E-06,0.264
1.150E-06,0.280
1.160E-06,0.280
1.170E-06,0.288
1.180E-06,0.288
1.190E-06,0.288
1.200E-06,0.272
1.210E-06,0.272
1.220E-06,0.272
1.230E-06,0.264
1.240E-06,0.272
1.250E-06,0.264
1.260E-06,0.264
1.270E-06,0.256
1.280E-06,0.256
1.290E-06,0.256
1.300E-06,0.256
1.310E-06,0.256
1.320E-06,0.264
1.330E-06,0.272
1.340E-06,0.264
1.350E-06,0.264
1.360E-06,0.256
1.370E-06,0.256
1.380E-06,0.256
1.390E-06,0.256
1.400E-06,0.256
1.410E-06,0.248
1.420E-06,0.248
1.430E-06,0.248
1.440E-06,0.256
1.450E-06,0.248
1.460E-06,0.248
1.470E-06,0.248
1.480E-06,0.248
1.490E-06,0.248
1.500E-06,0.248
1.510E-06,0.248
1.520E-06,0.248
1.530E-06,0.248
1.540E-06,0.248
1.550E-06,0.256
1.560E-06,0.256
1.570E-06,0.256
1.580E-06,0.248
1.590E-06,0.248
1.600E-06,0.256
1.610E-06,0.248
1.620E-06,0.248
1.630E-06,0.240
1.640E-06,0.240
1.650E-06,0.248
1.660E-06,0.248
1.670E-06,0.240
1.680E-06,0.232
1.690E-06,0.224
1.700E-06,0.240
1.710E-06,0.240
1.720E-06,0.240
1.730E-06,0.240
1.740E-06,0.232
1.750E-06,0.240
1.760E-06,0.240
1.770E-06,0.248
1.780E-06,0.248
1.790E-06,0.240
1.800E-06,0.240
1.810E-06,0.224
1.820E-06,0.208
1.830E-06,0.224
1.840E-06,0.224
1.850E-06,0.240
1.860E-06,0.240
1.870E-06,0.248
1.880E-06,0.224
1.890E-06,0.208
1.900E-06,0.208
1.910E-06,0.208
1.920E-06,0.216
1.930E-06,0.216
1.940E-06,0.224
1.950E-06,0.248
1.960E-06,0.248
1.970E-06,0.248
1.980E-06,0.216
1.990E-06,0.216
2.000E-06,0.216
2.010E-06,0.224
2.020E-06,0.216
2.030E-06,0.216
2.040E-06,0.216
2.050E-06,0.224
2.060E-06,0.224
2.070E-06,0.208
2.080E-06,0.208
2.090E-06,0.208
2.100E-06,0.216
2.110E-06,0.208
2.120E-06,0.216
2.130E-06,0.224
2.140E-06,0.216
2.150E-06,0.208
2.160E-06,0.216
2.170E-06,0.216
2.180E-06,0.224
2.190E-06,0.216
2.200E-06,0.216
2.210E-06,0.208
2.220E-06,0.208
2.230E-06,0.192
2.240E-06,0.192
2.250E-06,0.192
2.260E-06,0.200
2.270E-06,0.216
2.280E-06,0.216
2.290E-06,0.216
2.300E-06,0.208
2.310E-06,0.200
2.320E-06,0.192
2.330E-06,0.192
2.340E-06,0.216
2.350E-06,0.208
2.360E-06,0.208
2.370E-06,0.216
2.380E-06,0.200
2.390E-06,0.200
2.400E-06,0.192
2.410E-06,0.200
2.420E-06,0.208
2.430E-06,0.208
2.440E-06,0.208
2.450E-06,0.208
2.460E-06,0.192
2.470E-06,0.192
2.480E-06,0.192
2.490E-06,0.192
2.500E-06,0.192
2.510E-06,0.200
2.520E-06,0.200
2.530E-06,0.200
2.540E-06,0.208
2.550E-06,0.192
2.560E-06,0.184
2.570E-06,0.184
2.580E-06,0.184
2.590E-06,0.192
2.600E-06,0.200
2.610E-06,0.200
2.620E-06,0.192
2.630E-06,0.208
2.640E-06,0.184
2.650E-06,0.192
2.660E-06,0.176
2.670E-06,0.192
2.680E-06,0.200
2.690E-06,0.192
2.700E-06,0.192
2.710E-06,0.192
2.720E-06,0.184
2.730E-06,0.176
2.740E-06,0.176
2.750E-06,0.184
2.760E-06,0.192
2.770E-06,0.192
2.780E-06,0.184
2.790E-06,0.192
2.800E-06,0.184
2.810E-06,0.184
2.820E-06,0.176
2.830E-06,0.176
2.840E-06,0.184
2.850E-06,0.192
2.860E-06,0.200
2.870E-06,0.192
2.880E-06,0.176
2.890E-06,0.176
2.900E-06,0.152
2.910E-06,0.160
2.920E-06,0.176
2.930E-06,0.176
2.940E-06,0.192
2.950E-06,0.200
2.960E-06,0.176
2.970E-06,0.168
2.980E-06,0.152
2.990E-06,0.144
3.000E-06,0.160
3.010E-06,0.184
3.020E-06,0.192
3.030E-06,0.184
3.040E-06,0.176
3.050E-06,0.168
3.060E-06,0.160
3.070E-06,0.144
3.080E-06,0.144
3.090E-06,0.168
3.100E-06,0.184
3.110E-06,0.184
3.120E-06,0.184
3.130E-06,0.176
3.140E-06,0.168
3.150E-06,0.160
3.160E-06,0.152
3.170E-06,0.168
3.180E-06,0.160
3.190E-06,0.152
3.200E-06,0.152
3.210E-06,0.160
3.220E-06,0.176
3.230E-06,0.168
3.240E-06,0.168
3.250E-06,0.176
3.260E-06,0.160
3.270E-06,0.152
3.280E-06,0.152
3.290E-06,0.144
3.300E-06,0.152
3.310E-06,0.160
3.320E-06,0.160
3.330E-06,0.168
3.340E-06,0.152
3.350E-06,0.160
3.360E-06,0.144
3.370E-06,0.136
3.380E-06,0.144
3.390E-06,0.152
3.400E-06,0.160
3.410E-06,0.152
3.420E-06,0.144
3.430E-06,0.144
3.440E-06,0.152
3.450E-06,0.136
3.460E-06,0.144
3.470E-06,0.152
3.480E-06,0.152
3.490E-06,0.144
3.500E-06,0.144
3.510E-06,0.152
3.520E-06,0.152
3.530E-06,0.136
3.540E-06,0.144
3.550E-06,0.144
3.560E-06,0.152
3.570E-06,0.160
3.580E-06,0.152
3.590E-06,0.152
3.600E-06,0.128
3.610E-06,0.104
3.620E-06,0.088
3.630E-06,0.104
3.640E-06,0.128
3.650E-06,0.168
3.660E-06,0.176
3.670E-06,0.176
3.680E-06,0.144
