mediciones/Mediciones filtradas (saque las feas)/6-10/41.4/WaveData55212.csv

#timebase=2000000(ps)
,#voltbase=500000(mv/100)
#size=4000
-4.250E-06,0.060
-4.240E-06,0.080
-4.230E-06,0.040
-4.220E-06,0.080
-4.210E-06,0.020
-4.200E-06,0.060
-4.190E-06,0.080
-4.180E-06,0.060
-4.170E-06,0.060
-4.160E-06,0.060
-4.150E-06,0.080
-4.140E-06,0.040
-4.130E-06,0.040
-4.120E-06,0.040
-4.110E-06,0.080
-4.100E-06,0.020
-4.090E-06,0.060
-4.080E-06,0.060
-4.070E-06,0.040
-4.060E-06,0.020
-4.050E-06,0.020
-4.040E-06,0.060
-4.030E-06,0.080
-4.020E-06,0.020
-4.010E-06,0.060
-4.000E-06,0.040
-3.990E-06,0.060
-3.980E-06,0.060
-3.970E-06,0.040
-3.960E-06,0.040
-3.950E-06,0.040
-3.940E-06,0.060
-3.930E-06,0.060
-3.920E-06,0.020
-3.910E-06,0.040
-3.900E-06,0.020
-3.890E-06,0.060
-3.880E-06,0.040
-3.870E-06,0.060
-3.860E-06,0.060
-3.850E-06,0.040
-3.840E-06,0.060
-3.830E-06,0.060
-3.820E-06,0.020
-3.810E-06,0.020
-3.800E-06,0.040
-3.790E-06,0.020
-3.780E-06,0.060
-3.770E-06,0.080
-3.760E-06,0.020
-3.750E-06,0.020
-3.740E-06,0.060
-3.730E-06,0.060
-3.720E-06,0.040
-3.710E-06,0.080
-3.700E-06,0.040
-3.690E-06,0.040
-3.680E-06,0.020
-3.670E-06,0.060
-3.660E-06,0.040
-3.650E-06,0.000
-3.640E-06,0.060
-3.630E-06,0.040
-3.620E-06,0.060
-3.610E-06,0.060
-3.600E-06,0.060
-3.590E-06,0.040
-3.580E-06,0.020
-3.570E-06,0.040
-3.560E-06,0.040
-3.550E-06,0.040
-3.540E-06,0.060
-3.530E-06,0.040
-3.520E-06,0.040
-3.510E-06,0.080
-3.500E-06,0.040
-3.490E-06,0.040
-3.480E-06,0.000
-3.470E-06,0.040
-3.460E-06,0.060
-3.450E-06,0.080
-3.440E-06,0.060
-3.430E-06,0.080
-3.420E-06,0.080
-3.410E-06,0.060
-3.400E-06,0.060
-3.390E-06,0.080
-3.380E-06,0.080
-3.370E-06,0.080
-3.360E-06,0.080
-3.350E-06,0.020
-3.340E-06,0.040
-3.330E-06,0.060
-3.320E-06,0.060
-3.310E-06,0.060
-3.300E-06,0.080
-3.290E-06,0.040
-3.280E-06,0.060
-3.270E-06,0.040
-3.260E-06,0.040
-3.250E-06,0.060
-3.240E-06,0.060
-3.230E-06,0.040
-3.220E-06,0.040
-3.210E-06,0.040
-3.200E-06,0.020
-3.190E-06,0.040
-3.180E-06,0.060
-3.170E-06,0.060
-3.160E-06,0.020
-3.150E-06,0.040
-3.140E-06,0.040
-3.130E-06,0.060
-3.120E-06,0.020
-3.110E-06,0.060
-3.100E-06,0.060
-3.090E-06,0.060
-3.080E-06,0.040
-3.070E-06,0.040
-3.060E-06,0.060
-3.050E-06,0.040
-3.040E-06,0.080
-3.030E-06,0.060
-3.020E-06,0.060
-3.010E-06,0.060
-3.000E-06,0.040
-2.990E-06,0.040
-2.980E-06,0.040
-2.970E-06,0.060
-2.960E-06,0.060
-2.950E-06,0.040
-2.940E-06,0.020
-2.930E-06,0.040
-2.920E-06,0.060
-2.910E-06,0.060
-2.900E-06,0.040
-2.890E-06,0.040
-2.880E-06,0.040
-2.870E-06,0.040
-2.860E-06,0.040
-2.850E-06,0.060
-2.840E-06,0.060
-2.830E-06,0.040
-2.820E-06,0.020
-2.810E-06,0.040
-2.800E-06,0.060
-2.790E-06,0.060
-2.780E-06,0.040
-2.770E-06,0.060
-2.760E-06,0.060
-2.750E-06,0.020
-2.740E-06,0.040
-2.730E-06,0.040
-2.720E-06,0.040
-2.710E-06,0.080
-2.700E-06,0.040
-2.690E-06,0.080
-2.680E-06,0.020
-2.670E-06,0.040
-2.660E-06,0.080
-2.650E-06,0.040
-2.640E-06,0.000
-2.630E-06,0.060
-2.620E-06,0.060
-2.610E-06,0.060
-2.600E-06,0.040
-2.590E-06,0.040
-2.580E-06,0.080
-2.570E-06,0.040
-2.560E-06,0.040
-2.550E-06,0.080
-2.540E-06,0.040
-2.530E-06,0.040
-2.520E-06,0.060
-2.510E-06,0.060
-2.500E-06,0.060
-2.490E-06,0.040
-2.480E-06,0.060
-2.470E-06,0.040
-2.460E-06,0.060
-2.450E-06,0.040
-2.440E-06,0.040
-2.430E-06,0.040
-2.420E-06,0.040
-2.410E-06,0.060
-2.400E-06,0.040
-2.390E-06,0.040
-2.380E-06,0.060
-2.370E-06,0.060
-2.360E-06,0.060
-2.350E-06,0.080
-2.340E-06,0.100
-2.330E-06,0.020
-2.320E-06,0.060
-2.310E-06,0.040
-2.300E-06,0.040
-2.290E-06,0.060
-2.280E-06,0.040
-2.270E-06,0.080
-2.260E-06,0.060
-2.250E-06,0.040
-2.240E-06,0.040
-2.230E-06,0.060
-2.220E-06,0.020
-2.210E-06,0.060
-2.200E-06,0.080
-2.190E-06,0.060
-2.180E-06,0.060
-2.170E-06,0.080
-2.160E-06,0.020
-2.150E-06,0.020
-2.140E-06,0.060
-2.130E-06,0.080
-2.120E-06,0.020
-2.110E-06,0.000
-2.100E-06,0.060
-2.090E-06,0.260
-2.080E-06,0.900
-2.070E-06,1.700
-2.060E-06,2.440
-2.050E-06,2.740
-2.040E-06,2.760
-2.030E-06,2.200
-2.020E-06,1.000
-2.010E-06,-0.340
-2.000E-06,-1.420
-1.990E-06,-2.240
-1.980E-06,-2.660
-1.970E-06,-2.660
-1.960E-06,-2.660
-1.950E-06,-2.660
-1.940E-06,-2.600
-1.930E-06,-2.160
-1.920E-06,-1.620
-1.910E-06,-1.080
-1.900E-06,-0.620
-1.890E-06,-0.280
-1.880E-06,0.000
-1.870E-06,0.220
-1.860E-06,0.320
-1.850E-06,0.440
-1.840E-06,0.520
-1.830E-06,0.540
-1.820E-06,0.640
-1.810E-06,0.760
-1.800E-06,0.980
-1.790E-06,1.180
-1.780E-06,1.320
-1.770E-06,1.320
-1.760E-06,1.220
-1.750E-06,1.120
-1.740E-06,0.920
-1.730E-06,0.700
-1.720E-06,0.420
-1.710E-06,0.340
-1.700E-06,-0.020
-1.690E-06,-0.260
-1.680E-06,-0.680
-1.670E-06,-0.340
-1.660E-06,-0.400
-1.650E-06,-0.080
-1.640E-06,0.340
-1.630E-06,0.360
-1.620E-06,0.820
-1.610E-06,0.700
-1.600E-06,0.960
-1.590E-06,1.100
-1.580E-06,1.100
-1.570E-06,1.200
-1.560E-06,1.040
-1.550E-06,0.900
-1.540E-06,0.580
-1.530E-06,0.480
-1.520E-06,0.280
-1.510E-06,0.080
-1.500E-06,-0.240
-1.490E-06,-0.520
-1.480E-06,-0.900
-1.470E-06,-1.100
-1.460E-06,-1.260
-1.450E-06,-1.340
-1.440E-06,-1.380
-1.430E-06,-1.400
-1.420E-06,-1.400
-1.410E-06,-1.400
-1.400E-06,-1.260
-1.390E-06,-1.000
-1.380E-06,-0.740
-1.370E-06,-0.420
-1.360E-06,-0.180
-1.350E-06,0.060
-1.340E-06,0.300
-1.330E-06,0.480
-1.320E-06,0.620
-1.310E-06,0.740
-1.300E-06,0.800
-1.290E-06,0.780
-1.280E-06,0.680
-1.270E-06,0.600
-1.260E-06,0.500
-1.250E-06,0.440
-1.240E-06,0.400
-1.230E-06,0.340
-1.220E-06,0.240
-1.210E-06,0.180
-1.200E-06,0.060
-1.190E-06,0.000
-1.180E-06,-0.080
-1.170E-06,-0.120
-1.160E-06,-0.200
-1.150E-06,-0.280
-1.140E-06,-0.320
-1.130E-06,-0.260
-1.120E-06,-0.240
-1.110E-06,-0.160
-1.100E-06,-0.060
-1.090E-06,0.060
-1.080E-06,0.140
-1.070E-06,0.220
-1.060E-06,0.320
-1.050E-06,0.380
-1.040E-06,0.460
-1.030E-06,0.480
-1.020E-06,0.460
-1.010E-06,0.400
-1.000E-06,0.380
-9.900E-07,0.260
-9.800E-07,0.200
-9.700E-07,0.080
-9.600E-07,0.080
-9.500E-07,0.020
-9.400E-07,0.000
-9.300E-07,0.020
-9.200E-07,-0.040
-9.100E-07,-0.080
-9.000E-07,-0.140
-8.900E-07,-0.180
-8.800E-07,-0.160
-8.700E-07,-0.140
-8.600E-07,-0.060
-8.500E-07,-0.020
-8.400E-07,-0.060
-8.300E-07,-0.080
-8.200E-07,-0.120
-8.100E-07,-0.140
-8.000E-07,-0.080
-7.900E-07,-0.020
-7.800E-07,0.000
-7.700E-07,0.040
-7.600E-07,0.040
-7.500E-07,0.080
-7.400E-07,0.140
-7.300E-07,0.160
-7.200E-07,0.180
-7.100E-07,0.240
-7.000E-07,0.220
-6.900E-07,0.220
-6.800E-07,0.220
-6.700E-07,0.240
-6.600E-07,0.240
-6.500E-07,0.220
-6.400E-07,0.180
-6.300E-07,0.160
-6.200E-07,0.080
-6.100E-07,0.100
-6.000E-07,0.120
-5.900E-07,0.100
-5.800E-07,0.060
-5.700E-07,0.080
-5.600E-07,0.060
-5.500E-07,0.060
-5.400E-07,0.020
-5.300E-07,0.000
-5.200E-07,-0.020
-5.100E-07,0.000
-5.000E-07,-0.020
-4.900E-07,0.000
-4.800E-07,0.040
-4.700E-07,0.060
-4.600E-07,0.080
-4.500E-07,0.100
-4.400E-07,0.180
-4.300E-07,0.220
-4.200E-07,0.200
-4.100E-07,0.220
-4.000E-07,0.260
-3.900E-07,0.220
-3.800E-07,0.240
-3.700E-07,0.220
-3.600E-07,0.220
-3.500E-07,0.160
-3.400E-07,0.140
-3.300E-07,0.080
-3.200E-07,0.100
-3.100E-07,0.060
-3.000E-07,0.020
-2.900E-07,0.000
-2.800E-07,-0.020
-2.700E-07,-0.160
-2.600E-07,-0.380
-2.500E-07,-0.760
-2.400E-07,-1.060
-2.300E-07,-1.220
-2.200E-07,-1.200
-2.100E-07,-0.980
-2.000E-07,-0.500
-1.900E-07,0.020
-1.800E-07,0.580
-1.700E-07,1.000
-1.600E-07,1.220
-1.500E-07,1.440
-1.400E-07,1.460
-1.300E-07,1.340
-1.200E-07,1.320
-1.100E-07,1.120
-1.000E-07,0.980
-9.000E-08,0.940
-8.000E-08,0.820
-7.000E-08,0.720
-6.000E-08,0.600
-5.000E-08,0.480
-4.000E-08,0.500
-3.000E-08,-0.600
-2.000E-08,-1.480
-1.000E-08,-2.000
0.000E+00,-2.180
1.000E-08,-1.360
2.000E-08,-0.020
3.000E-08,1.020
4.000E-08,1.180
5.000E-08,1.180
6.000E-08,0.500
7.000E-08,0.400
8.000E-08,1.040
9.000E-08,1.640
1.000E-07,2.320
1.100E-07,2.300
1.200E-07,1.700
1.300E-07,1.200
1.400E-07,1.100
1.500E-07,0.840
1.600E-07,1.120
1.700E-07,0.900
1.800E-07,0.400
1.900E-07,-0.220
2.000E-07,-0.680
2.100E-07,-0.980
2.200E-07,-0.960
2.300E-07,-0.960
2.400E-07,-1.100
2.500E-07,-1.180
2.600E-07,-1.400
2.700E-07,-1.220
2.800E-07,-1.040
2.900E-07,-0.660
3.000E-07,-0.240
3.100E-07,0.000
3.200E-07,0.320
3.300E-07,0.620
3.400E-07,0.860
3.500E-07,1.200
3.600E-07,1.420
3.700E-07,1.560
3.800E-07,1.500
3.900E-07,1.340
4.000E-07,1.140
4.100E-07,0.860
4.200E-07,0.640
4.300E-07,0.340
4.400E-07,0.020
4.500E-07,-0.240
4.600E-07,-0.460
4.700E-07,-0.420
4.800E-07,-0.320
4.900E-07,-0.240
5.000E-07,-0.180
5.100E-07,-0.140
5.200E-07,-0.060
5.300E-07,0.000
5.400E-07,0.200
5.500E-07,0.380
5.600E-07,0.560
5.700E-07,0.760
5.800E-07,0.920
5.900E-07,1.100
6.000E-07,1.080
6.100E-07,1.200
6.200E-07,1.140
6.300E-07,1.140
6.400E-07,1.000
6.500E-07,0.820
6.600E-07,0.640
6.700E-07,0.840
6.800E-07,-0.440
6.900E-07,0.460
7.000E-07,-0.140
7.100E-07,-0.800
7.200E-07,0.160
7.300E-07,-0.680
7.400E-07,0.240
7.500E-07,0.840
7.600E-07,-1.560
7.700E-07,-1.100
7.800E-07,-2.640
7.900E-07,-2.660
8.000E-07,-0.520
8.100E-07,0.000
8.200E-07,1.860
8.300E-07,2.340
8.400E-07,1.440
8.500E-07,1.020
8.600E-07,0.780
8.700E-07,0.580
8.800E-07,1.320
8.900E-07,1.700
9.000E-07,2.080
9.100E-07,2.040
9.200E-07,1.820
9.300E-07,1.520
9.400E-07,1.000
9.500E-07,0.220
9.600E-07,-0.200
9.700E-07,-0.220
9.800E-07,0.240
9.900E-07,1.160
1.000E-06,0.500
1.010E-06,0.800
1.020E-06,-0.580
1.030E-06,-1.560
1.040E-06,-1.260
1.050E-06,-1.560
1.060E-06,-0.220
1.070E-06,0.000
1.080E-06,-0.260
1.090E-06,-0.020
1.100E-06,-0.480
1.110E-06,-0.340
1.120E-06,0.220
1.130E-06,0.200
1.140E-06,0.620
1.150E-06,0.540
1.160E-06,0.380
1.170E-06,0.360
1.180E-06,0.260
1.190E-06,0.200
1.200E-06,0.120
1.210E-06,-0.060
1.220E-06,-0.320
1.230E-06,-0.420
1.240E-06,-0.520
1.250E-06,-0.500
1.260E-06,-0.500
1.270E-06,-0.500
1.280E-06,-0.520
1.290E-06,-0.500
1.300E-06,-0.480
1.310E-06,-0.320
1.320E-06,-0.140
1.330E-06,0.080
1.340E-06,0.280
1.350E-06,0.400
1.360E-06,0.500
1.370E-06,0.540
1.380E-06,0.680
1.390E-06,0.760
1.400E-06,0.880
1.410E-06,0.980
1.420E-06,0.920
1.430E-06,0.860
1.440E-06,0.660
1.450E-06,0.380
1.460E-06,0.280
1.470E-06,0.160
1.480E-06,0.080
1.490E-06,0.040
1.500E-06,-0.060
1.510E-06,-0.140
1.520E-06,-0.200
1.530E-06,-0.220
1.540E-06,-0.220
1.550E-06,-0.180
1.560E-06,-0.200
1.570E-06,-0.120
1.580E-06,-0.160
1.590E-06,-0.100
1.600E-06,-0.080
1.610E-06,-0.060
1.620E-06,-0.100
1.630E-06,-0.080
1.640E-06,-0.180
1.650E-06,-0.160
1.660E-06,-0.060
1.670E-06,-0.080
1.680E-06,0.080
1.690E-06,0.040
1.700E-06,0.000
1.710E-06,0.080
1.720E-06,-0.060
1.730E-06,0.000
1.740E-06,0.000
1.750E-06,0.100
1.760E-06,0.180
1.770E-06,0.360
1.780E-06,0.380
1.790E-06,0.220
1.800E-06,0.300
1.810E-06,0.340
1.820E-06,0.300
1.830E-06,0.400
1.840E-06,0.400
1.850E-06,0.540
1.860E-06,0.500
1.870E-06,0.620
1.880E-06,0.400
1.890E-06,0.520
1.900E-06,0.360
1.910E-06,0.160
1.920E-06,0.320
1.930E-06,0.320
1.940E-06,0.440
1.950E-06,0.480
1.960E-06,0.520
1.970E-06,0.600
1.980E-06,0.780
1.990E-06,0.700
2.000E-06,0.860
2.010E-06,0.980
2.020E-06,0.860
2.030E-06,0.760
2.040E-06,0.920
2.050E-06,0.820
2.060E-06,1.020
2.070E-06,1.200
2.080E-06,1.120
2.090E-06,0.700
2.100E-06,0.740
2.110E-06,0.780
2.120E-06,-0.020
2.130E-06,-0.080
2.140E-06,-0.400
2.150E-06,-1.020
2.160E-06,-0.200
2.170E-06,-0.940
2.180E-06,-0.220
2.190E-06,0.020
2.200E-06,0.240
2.210E-06,0.460
2.220E-06,0.180
2.230E-06,0.740
2.240E-06,1.520
2.250E-06,1.600
2.260E-06,1.720
2.270E-06,1.780
2.280E-06,1.280
2.290E-06,1.420
2.300E-06,0.520
2.310E-06,0.420
2.320E-06,0.380
2.330E-06,-0.100
2.340E-06,0.480
2.350E-06,0.320
2.360E-06,0.400
2.370E-06,0.220
2.380E-06,-0.280
2.390E-06,-0.640
2.400E-06,-0.900
2.410E-06,-0.820
2.420E-06,-0.740
2.430E-06,-0.780
2.440E-06,-0.700
2.450E-06,-1.040
2.460E-06,-1.020
2.470E-06,-0.840
2.480E-06,-0.760
2.490E-06,-0.460
2.500E-06,-0.300
2.510E-06,-0.260
2.520E-06,-0.080
2.530E-06,-0.060
2.540E-06,0.040
2.550E-06,0.180
2.560E-06,0.160
2.570E-06,0.260
2.580E-06,0.220
2.590E-06,0.260
2.600E-06,0.180
2.610E-06,0.080
2.620E-06,-0.020
2.630E-06,-0.120
2.640E-06,-0.160
2.650E-06,-0.160
2.660E-06,-0.200
2.670E-06,-0.140
2.680E-06,-0.060
2.690E-06,-0.020
2.700E-06,0.080
2.710E-06,0.140
2.720E-06,0.180
2.730E-06,0.260
2.740E-06,0.380
2.750E-06,0.440
2.760E-06,0.520
2.770E-06,0.560
2.780E-06,0.520
2.790E-06,0.520
2.800E-06,0.400
2.810E-06,0.360
2.820E-06,0.260
2.830E-06,0.180
2.840E-06,0.080
2.850E-06,0.000
2.860E-06,-0.080
2.870E-06,-0.140
2.880E-06,-0.240
2.890E-06,-0.260
2.900E-06,-0.340
2.910E-06,-0.340
2.920E-06,-0.340
2.930E-06,-0.400
2.940E-06,-0.360
2.950E-06,-0.360
2.960E-06,-0.320
2.970E-06,-0.240
2.980E-06,-0.180
2.990E-06,-0.160
3.000E-06,-0.160
3.010E-06,-0.100
3.020E-06,-0.120
3.030E-06,-0.100
3.040E-06,-0.100
3.050E-06,-0.080
3.060E-06,-0.080
3.070E-06,-0.080
3.080E-06,-0.120
3.090E-06,-0.240
3.100E-06,-0.280
3.110E-06,-0.360
3.120E-06,-0.440
3.130E-06,-0.500
3.140E-06,-0.560
3.150E-06,-0.600
3.160E-06,-0.540
3.170E-06,-0.540
3.180E-06,-0.580
3.190E-06,-0.600
3.200E-06,-0.680
3.210E-06,-0.700
3.220E-06,-0.800
3.230E-06,-0.960
3.240E-06,-1.160
3.250E-06,-1.420
3.260E-06,-1.740
3.270E-06,-2.000
3.280E-06,-2.220
3.290E-06,-2.500
3.300E-06,-2.680
3.310E-06,-2.660
3.320E-06,-2.660
3.330E-06,-2.660
3.340E-06,-2.660
3.350E-06,-2.660
3.360E-06,-2.660
3.370E-06,-2.660
3.380E-06,-2.660
3.390E-06,-2.660
3.400E-06,-2.660
3.410E-06,-2.660
3.420E-06,-2.660
3.430E-06,-2.660
3.440E-06,-2.660
3.450E-06,-2.600
3.460E-06,-2.540
3.470E-06,-2.380
3.480E-06,-2.260
3.490E-06,-2.160
3.500E-06,-2.020
3.510E-06,-1.900
3.520E-06,-1.800
3.530E-06,-1.640
3.540E-06,-1.500
3.550E-06,-1.400
3.560E-06,-1.280
3.570E-06,-1.220
3.580E-06,-1.060
3.590E-06,-1.000
3.600E-06,-0.960
3.610E-06,-0.840
3.620E-06,-0.800
3.630E-06,-0.700
3.640E-06,-0.660
3.650E-06,-0.580
3.660E-06,-0.500
3.670E-06,-0.420
3.680E-06,-0.360
3.690E-06,-0.300
3.700E-06,-0.220
3.710E-06,-0.200
3.720E-06,-0.160
3.730E-06,-0.120
3.740E-06,-0.080
3.750E-06,-0.100
3.760E-06,-0.060
3.770E-06,-0.040
3.780E-06,-0.100
3.790E-06,-0.040
3.800E-06,-0.060
3.810E-06,-0.080
3.820E-06,-0.080
3.830E-06,-0.080
3.840E-06,-0.080
3.850E-06,-0.080
3.860E-06,-0.080
3.870E-06,-0.060
3.880E-06,-0.060
3.890E-06,-0.040
3.900E-06,0.000
3.910E-06,-0.020
3.920E-06,0.000
3.930E-06,-0.020
3.940E-06,-0.020
3.950E-06,-0.020
3.960E-06,0.000
3.970E-06,0.000
3.980E-06,0.000
3.990E-06,0.000
4.000E-06,0.000
4.010E-06,0.020
4.020E-06,0.000
4.030E-06,0.000
4.040E-06,0.040
4.050E-06,0.060
4.060E-06,0.060
4.070E-06,0.060
4.080E-06,0.100
4.090E-06,0.080
4.100E-06,0.120
4.110E-06,0.140
4.120E-06,0.120
4.130E-06,0.160
4.140E-06,0.160
4.150E-06,0.160
4.160E-06,0.160
4.170E-06,0.160
4.180E-06,0.160
4.190E-06,0.160
4.200E-06,0.180
4.210E-06,0.200
4.220E-06,0.180
4.230E-06,0.200
4.240E-06,0.200
4.250E-06,0.220
4.260E-06,0.220
4.270E-06,0.220
4.280E-06,0.220
4.290E-06,0.220
4.300E-06,0.200
4.310E-06,0.200
4.320E-06,0.180
4.330E-06,0.220
4.340E-06,0.200
4.350E-06,0.220
4.360E-06,0.200
4.370E-06,0.180
4.380E-06,0.180
4.390E-06,0.160
4.400E-06,0.180
4.410E-06,0.160
4.420E-06,0.120
4.430E-06,0.120
4.440E-06,0.140
4.450E-06,0.140
4.460E-06,0.100
4.470E-06,0.120
4.480E-06,0.120
4.490E-06,0.080
4.500E-06,0.100
4.510E-06,0.080
4.520E-06,0.100
4.530E-06,0.100
4.540E-06,0.080
4.550E-06,0.100
4.560E-06,0.100
4.570E-06,0.120
4.580E-06,0.120
4.590E-06,0.120
4.600E-06,0.120
4.610E-06,0.080
4.620E-06,0.060
4.630E-06,0.060
4.640E-06,0.080
4.650E-06,0.060
4.660E-06,0.040
4.670E-06,0.080
4.680E-06,0.020
4.690E-06,0.000
4.700E-06,0.000
4.710E-06,0.000
4.720E-06,0.020
4.730E-06,0.000
4.740E-06,0.000
4.750E-06,0.000
4.760E-06,-0.020
4.770E-06,0.000
4.780E-06,0.000
4.790E-06,-0.020
4.800E-06,0.000
4.810E-06,-0.020
4.820E-06,-0.040
4.830E-06,0.000
4.840E-06,-0.020
4.850E-06,-0.040
4.860E-06,0.000
4.870E-06,-0.080
4.880E-06,-0.080
4.890E-06,-0.060
4.900E-06,-0.080
4.910E-06,-0.100
4.920E-06,-0.120
4.930E-06,-0.080
4.940E-06,-0.060
4.950E-06,-0.100
4.960E-06,-0.060
4.970E-06,-0.020
4.980E-06,-0.040
4.990E-06,0.000
5.000E-06,-0.020
5.010E-06,-0.040
5.020E-06,-0.020
5.030E-06,-0.020
5.040E-06,-0.020
5.050E-06,-0.020
5.060E-06,0.000
5.070E-06,0.020
5.080E-06,-0.020
5.090E-06,0.040
5.100E-06,0.060
5.110E-06,0.040
5.120E-06,0.020
5.130E-06,0.040
5.140E-06,0.080
5.150E-06,0.060
5.160E-06,0.020
5.170E-06,0.020
5.180E-06,0.020
5.190E-06,0.020
5.200E-06,0.000
5.210E-06,0.020
5.220E-06,0.020
5.230E-06,0.020
5.240E-06,-0.020
5.250E-06,0.000
5.260E-06,-0.040
5.270E-06,-0.020
5.280E-06,-0.060
5.290E-06,-0.060
5.300E-06,-0.040
5.310E-06,-0.080
5.320E-06,-0.100
5.330E-06,-0.120
5.340E-06,-0.120
5.350E-06,-0.100
5.360E-06,-0.080
5.370E-06,-0.120
5.380E-06,-0.120
5.390E-06,-0.100
5.400E-06,-0.100
5.410E-06,-0.100
5.420E-06,-0.080
5.430E-06,-0.100
5.440E-06,-0.100
5.450E-06,-0.080
5.460E-06,-0.040
5.470E-06,-0.080
5.480E-06,-0.060
5.490E-06,-0.020
5.500E-06,0.000
5.510E-06,0.000
5.520E-06,-0.020
5.530E-06,0.020
5.540E-06,0.040
5.550E-06,0.060
5.560E-06,0.080
5.570E-06,0.080
5.580E-06,0.120
5.590E-06,0.120
5.600E-06,0.100
5.610E-06,0.120
5.620E-06,0.120
5.630E-06,0.120
5.640E-06,0.120
5.650E-06,0.100
5.660E-06,0.120
5.670E-06,0.120
5.680E-06,0.140
5.690E-06,0.120
5.700E-06,0.080
5.710E-06,0.080
5.720E-06,0.080
5.730E-06,0.040
5.740E-06,0.020
5.750E-06,0.040
5.760E-06,0.040
5.770E-06,0.040
5.780E-06,0.060
5.790E-06,0.020
5.800E-06,0.020
5.810E-06,0.020
5.820E-06,-0.020
5.830E-06,0.000
5.840E-06,0.000
5.850E-06,-0.040
5.860E-06,-0.020
5.870E-06,0.000
5.880E-06,-0.020
5.890E-06,0.000
5.900E-06,-0.020
5.910E-06,0.000
5.920E-06,0.000
5.930E-06,0.000
5.940E-06,0.000
5.950E-06,0.000
5.960E-06,0.020
5.970E-06,0.060
5.980E-06,0.040
5.990E-06,0.060
6.000E-06,0.080
6.010E-06,0.100
6.020E-06,0.080
6.030E-06,0.060
6.040E-06,0.100
6.050E-06,0.100
6.060E-06,0.120
6.070E-06,0.140
6.080E-06,0.140
6.090E-06,0.140
6.100E-06,0.140
6.110E-06,0.160
6.120E-06,0.160
6.130E-06,0.160
6.140E-06,0.180
6.150E-06,0.160
6.160E-06,0.160
6.170E-06,0.180
6.180E-06,0.180
6.190E-06,0.160
6.200E-06,0.180
6.210E-06,0.160
6.220E-06,0.160
6.230E-06,0.160
6.240E-06,0.160
6.250E-06,0.140
6.260E-06,0.120
6.270E-06,0.140
6.280E-06,0.120
6.290E-06,0.120
6.300E-06,0.140
6.310E-06,0.120
6.320E-06,0.120
6.330E-06,0.140
6.340E-06,0.120
6.350E-06,0.160
6.360E-06,0.140
6.370E-06,0.140
6.380E-06,0.160
6.390E-06,0.140
6.400E-06,0.140
6.410E-06,0.180
6.420E-06,0.180
6.430E-06,0.160
6.440E-06,0.160
6.450E-06,0.160
6.460E-06,0.200
6.470E-06,0.180
6.480E-06,0.180
6.490E-06,0.220
6.500E-06,0.240
6.510E-06,0.200
6.520E-06,0.200
6.530E-06,0.220
6.540E-06,0.240
6.550E-06,0.220
6.560E-06,0.220
6.570E-06,0.240
6.580E-06,0.220
6.590E-06,0.240
6.600E-06,0.260
6.610E-06,0.260
6.620E-06,0.260
6.630E-06,0.240
6.640E-06,0.240
6.650E-06,0.260
6.660E-06,0.260
6.670E-06,0.240
6.680E-06,0.240
6.690E-06,0.260
6.700E-06,0.240
6.710E-06,0.260
6.720E-06,0.220
6.730E-06,0.240
6.740E-06,0.220
6.750E-06,0.240
6.760E-06,0.220
6.770E-06,0.220
6.780E-06,0.220
6.790E-06,0.240
6.800E-06,0.200
6.810E-06,0.220
6.820E-06,0.220
6.830E-06,0.200
6.840E-06,0.180
6.850E-06,0.180
6.860E-06,0.160
6.870E-06,0.180
6.880E-06,0.180
6.890E-06,0.160
6.900E-06,0.160
6.910E-06,0.160
6.920E-06,0.180
6.930E-06,0.120
6.940E-06,0.100
6.950E-06,0.120
6.960E-06,0.100
6.970E-06,0.080
6.980E-06,0.080
6.990E-06,0.060
7.000E-06,0.080
7.010E-06,0.100
7.020E-06,0.120
7.030E-06,0.120
7.040E-06,0.140
7.050E-06,0.140
7.060E-06,0.180
7.070E-06,0.200
7.080E-06,0.240
7.090E-06,0.240
7.100E-06,0.260
7.110E-06,0.260
7.120E-06,0.240
7.130E-06,0.240
7.140E-06,0.240
7.150E-06,0.240
7.160E-06,0.220
7.170E-06,0.220
7.180E-06,0.240
7.190E-06,0.200
7.200E-06,0.220
7.210E-06,0.200
7.220E-06,0.220
7.230E-06,0.260
7.240E-06,0.260
7.250E-06,0.300
7.260E-06,0.320
7.270E-06,0.360
7.280E-06,0.320
7.290E-06,0.340
7.300E-06,0.300
7.310E-06,0.300
7.320E-06,0.300
7.330E-06,0.280
7.340E-06,0.280
7.350E-06,0.260
7.360E-06,0.280
7.370E-06,0.300
7.380E-06,0.320
7.390E-06,0.340
7.400E-06,0.340
7.410E-06,0.360
7.420E-06,0.360
7.430E-06,0.380
7.440E-06,0.380
7.450E-06,0.420
7.460E-06,0.400
7.470E-06,0.420
7.480E-06,0.360
7.490E-06,0.360
7.500E-06,0.380
7.510E-06,0.400
7.520E-06,0.320
7.530E-06,0.320
7.540E-06,0.340
7.550E-06,0.340
7.560E-06,0.340
7.570E-06,0.360
7.580E-06,0.400
7.590E-06,0.400
7.600E-06,0.440
7.610E-06,0.520
7.620E-06,0.540
7.630E-06,0.600
7.640E-06,0.660
7.650E-06,0.660
7.660E-06,0.720
7.670E-06,0.740
7.680E-06,0.800
7.690E-06,0.820
7.700E-06,0.820
7.710E-06,0.820
7.720E-06,0.840
