mediciones/Mediciones filtradas (saque las feas)/6-10/41.4/WaveData55210.csv

#timebase=2000000(ps)
,#voltbase=500000(mv/100)
#size=4000
-4.250E-06,0.040
-4.240E-06,0.040
-4.230E-06,0.060
-4.220E-06,0.040
-4.210E-06,0.060
-4.200E-06,0.080
-4.190E-06,0.040
-4.180E-06,0.040
-4.170E-06,0.060
-4.160E-06,0.060
-4.150E-06,0.060
-4.140E-06,0.060
-4.130E-06,0.040
-4.120E-06,0.060
-4.110E-06,0.080
-4.100E-06,0.060
-4.090E-06,0.020
-4.080E-06,0.040
-4.070E-06,0.040
-4.060E-06,0.040
-4.050E-06,0.060
-4.040E-06,0.040
-4.030E-06,0.020
-4.020E-06,0.020
-4.010E-06,0.040
-4.000E-06,0.040
-3.990E-06,0.060
-3.980E-06,0.060
-3.970E-06,0.040
-3.960E-06,0.040
-3.950E-06,0.060
-3.940E-06,0.080
-3.930E-06,0.060
-3.920E-06,0.020
-3.910E-06,0.040
-3.900E-06,0.080
-3.890E-06,0.060
-3.880E-06,0.020
-3.870E-06,0.020
-3.860E-06,0.060
-3.850E-06,0.060
-3.840E-06,0.080
-3.830E-06,0.060
-3.820E-06,0.020
-3.810E-06,0.080
-3.800E-06,0.040
-3.790E-06,0.060
-3.780E-06,0.040
-3.770E-06,0.060
-3.760E-06,0.040
-3.750E-06,0.040
-3.740E-06,0.060
-3.730E-06,0.080
-3.720E-06,0.060
-3.710E-06,0.020
-3.700E-06,0.040
-3.690E-06,0.060
-3.680E-06,0.040
-3.670E-06,0.080
-3.660E-06,0.040
-3.650E-06,0.040
-3.640E-06,0.040
-3.630E-06,0.040
-3.620E-06,0.060
-3.610E-06,0.040
-3.600E-06,0.060
-3.590E-06,0.040
-3.580E-06,0.060
-3.570E-06,0.040
-3.560E-06,0.080
-3.550E-06,0.040
-3.540E-06,0.060
-3.530E-06,0.060
-3.520E-06,0.060
-3.510E-06,0.060
-3.500E-06,0.040
-3.490E-06,0.040
-3.480E-06,0.040
-3.470E-06,0.040
-3.460E-06,0.060
-3.450E-06,0.060
-3.440E-06,0.060
-3.430E-06,0.060
-3.420E-06,0.060
-3.410E-06,0.080
-3.400E-06,0.060
-3.390E-06,0.040
-3.380E-06,0.040
-3.370E-06,0.040
-3.360E-06,0.020
-3.350E-06,0.060
-3.340E-06,0.080
-3.330E-06,0.060
-3.320E-06,0.060
-3.310E-06,0.040
-3.300E-06,0.020
-3.290E-06,0.060
-3.280E-06,0.080
-3.270E-06,0.020
-3.260E-06,0.040
-3.250E-06,0.060
-3.240E-06,0.040
-3.230E-06,0.060
-3.220E-06,0.060
-3.210E-06,0.080
-3.200E-06,0.060
-3.190E-06,0.040
-3.180E-06,0.060
-3.170E-06,0.080
-3.160E-06,0.080
-3.150E-06,0.080
-3.140E-06,0.040
-3.130E-06,0.040
-3.120E-06,0.040
-3.110E-06,0.020
-3.100E-06,0.040
-3.090E-06,0.020
-3.080E-06,0.020
-3.070E-06,0.040
-3.060E-06,0.080
-3.050E-06,0.060
-3.040E-06,0.080
-3.030E-06,0.040
-3.020E-06,0.020
-3.010E-06,0.060
-3.000E-06,0.080
-2.990E-06,0.040
-2.980E-06,0.060
-2.970E-06,0.040
-2.960E-06,0.020
-2.950E-06,0.060
-2.940E-06,0.060
-2.930E-06,0.080
-2.920E-06,0.060
-2.910E-06,0.020
-2.900E-06,0.060
-2.890E-06,0.040
-2.880E-06,0.040
-2.870E-06,0.060
-2.860E-06,0.060
-2.850E-06,0.020
-2.840E-06,0.060
-2.830E-06,0.060
-2.820E-06,0.080
-2.810E-06,0.060
-2.800E-06,0.020
-2.790E-06,0.040
-2.780E-06,0.060
-2.770E-06,0.020
-2.760E-06,0.020
-2.750E-06,0.060
-2.740E-06,0.040
-2.730E-06,0.040
-2.720E-06,0.040
-2.710E-06,0.060
-2.700E-06,0.040
-2.690E-06,0.040
-2.680E-06,0.040
-2.670E-06,0.040
-2.660E-06,0.060
-2.650E-06,0.060
-2.640E-06,0.060
-2.630E-06,0.020
-2.620E-06,0.040
-2.610E-06,0.060
-2.600E-06,0.020
-2.590E-06,0.040
-2.580E-06,0.060
-2.570E-06,0.020
-2.560E-06,0.040
-2.550E-06,0.060
-2.540E-06,0.060
-2.530E-06,0.060
-2.520E-06,0.020
-2.510E-06,0.060
-2.500E-06,0.040
-2.490E-06,0.040
-2.480E-06,0.060
-2.470E-06,0.040
-2.460E-06,0.060
-2.450E-06,0.040
-2.440E-06,0.080
-2.430E-06,0.060
-2.420E-06,0.040
-2.410E-06,0.020
-2.400E-06,0.060
-2.390E-06,0.040
-2.380E-06,0.080
-2.370E-06,0.060
-2.360E-06,0.020
-2.350E-06,0.060
-2.340E-06,0.040
-2.330E-06,0.060
-2.320E-06,0.040
-2.310E-06,0.060
-2.300E-06,0.060
-2.290E-06,0.040
-2.280E-06,0.000
-2.270E-06,0.120
-2.260E-06,0.520
-2.250E-06,1.220
-2.240E-06,2.060
-2.230E-06,2.720
-2.220E-06,2.780
-2.210E-06,2.760
-2.200E-06,1.960
-2.190E-06,0.760
-2.180E-06,-0.520
-2.170E-06,-1.540
-2.160E-06,-2.380
-2.150E-06,-2.660
-2.140E-06,-2.680
-2.130E-06,-2.660
-2.120E-06,-2.660
-2.110E-06,-2.640
-2.100E-06,-2.540
-2.090E-06,-1.800
-2.080E-06,-1.000
-2.070E-06,-0.400
-2.060E-06,-0.100
-2.050E-06,0.180
-2.040E-06,0.320
-2.030E-06,0.400
-2.020E-06,0.520
-2.010E-06,0.620
-2.000E-06,0.720
-1.990E-06,0.880
-1.980E-06,1.040
-1.970E-06,1.220
-1.960E-06,1.440
-1.950E-06,1.540
-1.940E-06,1.520
-1.930E-06,1.380
-1.920E-06,1.180
-1.910E-06,0.920
-1.900E-06,0.660
-1.890E-06,0.360
-1.880E-06,0.020
-1.870E-06,-0.340
-1.860E-06,-0.600
-1.850E-06,-0.740
-1.840E-06,-0.800
-1.830E-06,-0.700
-1.820E-06,-0.420
-1.810E-06,-0.140
-1.800E-06,0.160
-1.790E-06,0.480
-1.780E-06,0.760
-1.770E-06,0.980
-1.760E-06,1.060
-1.750E-06,1.040
-1.740E-06,0.940
-1.730E-06,0.820
-1.720E-06,0.700
-1.710E-06,0.520
-1.700E-06,0.380
-1.690E-06,0.180
-1.680E-06,-0.060
-1.670E-06,-0.260
-1.660E-06,-0.560
-1.650E-06,-0.820
-1.640E-06,-1.060
-1.630E-06,-1.240
-1.620E-06,-1.420
-1.610E-06,-1.540
-1.600E-06,-1.600
-1.590E-06,-1.580
-1.580E-06,-1.460
-1.570E-06,-1.260
-1.560E-06,-1.020
-1.550E-06,-0.740
-1.540E-06,-0.360
-1.530E-06,-0.040
-1.520E-06,0.280
-1.510E-06,0.500
-1.500E-06,0.780
-1.490E-06,0.960
-1.480E-06,1.040
-1.470E-06,1.100
-1.460E-06,1.020
-1.450E-06,0.940
-1.440E-06,0.820
-1.430E-06,0.640
-1.420E-06,0.500
-1.410E-06,0.420
-1.400E-06,0.300
-1.390E-06,0.160
-1.380E-06,0.000
-1.370E-06,-0.060
-1.360E-06,-0.200
-1.350E-06,-0.280
-1.340E-06,-0.380
-1.330E-06,-0.380
-1.320E-06,-0.420
-1.310E-06,-0.540
-1.300E-06,-0.440
-1.290E-06,-0.400
-1.280E-06,-0.320
-1.270E-06,-0.220
-1.260E-06,-0.040
-1.250E-06,0.140
-1.240E-06,0.060
-1.230E-06,0.300
-1.220E-06,0.380
-1.210E-06,0.460
-1.200E-06,0.640
-1.190E-06,0.680
-1.180E-06,0.640
-1.170E-06,0.540
-1.160E-06,0.320
-1.150E-06,0.420
-1.140E-06,0.400
-1.130E-06,0.340
-1.120E-06,0.340
-1.110E-06,-0.060
-1.100E-06,-0.060
-1.090E-06,-0.020
-1.080E-06,0.020
-1.070E-06,0.280
-1.060E-06,0.380
-1.050E-06,0.160
-1.040E-06,0.020
-1.030E-06,-0.060
-1.020E-06,-0.140
-1.010E-06,0.040
-1.000E-06,0.160
-9.900E-07,0.180
-9.800E-07,0.100
-9.700E-07,-0.080
-9.600E-07,-0.160
-9.500E-07,-0.060
-9.400E-07,-0.020
-9.300E-07,0.080
-9.200E-07,0.140
-9.100E-07,0.080
-9.000E-07,0.020
-8.900E-07,0.060
-8.800E-07,0.140
-8.700E-07,0.200
-8.600E-07,0.240
-8.500E-07,0.180
-8.400E-07,0.160
-8.300E-07,0.100
-8.200E-07,0.060
-8.100E-07,0.100
-8.000E-07,0.140
-7.900E-07,0.100
-7.800E-07,0.020
-7.700E-07,0.000
-7.600E-07,0.000
-7.500E-07,0.000
-7.400E-07,0.000
-7.300E-07,-0.040
-7.200E-07,-0.040
-7.100E-07,-0.060
-7.000E-07,-0.020
-6.900E-07,-0.040
-6.800E-07,-0.040
-6.700E-07,0.000
-6.600E-07,-0.020
-6.500E-07,0.040
-6.400E-07,0.040
-6.300E-07,0.060
-6.200E-07,0.160
-6.100E-07,0.240
-6.000E-07,0.280
-5.900E-07,0.300
-5.800E-07,0.320
-5.700E-07,0.300
-5.600E-07,0.300
-5.500E-07,0.280
-5.400E-07,0.280
-5.300E-07,0.280
-5.200E-07,0.240
-5.100E-07,0.220
-5.000E-07,0.160
-4.900E-07,0.120
-4.800E-07,0.080
-4.700E-07,0.040
-4.600E-07,-0.100
-4.500E-07,-0.420
-4.400E-07,-0.920
-4.300E-07,-1.500
-4.200E-07,-1.880
-4.100E-07,-1.940
-4.000E-07,-1.660
-3.900E-07,-0.920
-3.800E-07,-0.140
-3.700E-07,0.700
-3.600E-07,1.220
-3.500E-07,1.520
-3.400E-07,1.440
-3.300E-07,1.120
-3.200E-07,0.940
-3.100E-07,0.840
-3.000E-07,1.280
-2.900E-07,1.700
-2.800E-07,1.940
-2.700E-07,1.920
-2.600E-07,1.520
-2.500E-07,0.920
-2.400E-07,0.340
-2.300E-07,0.060
-2.200E-07,0.120
-2.100E-07,0.260
-2.000E-07,0.340
-1.900E-07,0.140
-1.800E-07,-0.160
-1.700E-07,-0.580
-1.600E-07,-0.760
-1.500E-07,-0.880
-1.400E-07,-0.740
-1.300E-07,-0.580
-1.200E-07,-0.400
-1.100E-07,-0.340
-1.000E-07,-0.280
-9.000E-08,-0.200
-8.000E-08,-0.060
-7.000E-08,0.180
-6.000E-08,0.320
-5.000E-08,0.340
-4.000E-08,0.300
-3.000E-08,0.180
-2.000E-08,0.100
-1.000E-08,0.040
0.000E+00,0.540
1.000E-08,0.880
2.000E-08,0.700
3.000E-08,0.500
4.000E-08,-0.320
5.000E-08,-0.440
6.000E-08,-0.600
7.000E-08,-0.420
8.000E-08,-0.020
9.000E-08,0.100
1.000E-07,0.480
1.100E-07,-0.260
1.200E-07,-0.260
1.300E-07,-0.360
1.400E-07,-0.120
1.500E-07,0.860
1.600E-07,0.880
1.700E-07,1.340
1.800E-07,0.520
1.900E-07,0.500
2.000E-07,0.620
2.100E-07,0.700
2.200E-07,1.580
2.300E-07,1.640
2.400E-07,1.560
2.500E-07,1.220
2.600E-07,0.700
2.700E-07,0.640
2.800E-07,0.540
2.900E-07,0.560
3.000E-07,0.500
3.100E-07,0.200
3.200E-07,-0.200
3.300E-07,-0.140
3.400E-07,-0.340
3.500E-07,-0.560
3.600E-07,-0.260
3.700E-07,-0.620
3.800E-07,-0.760
3.900E-07,-0.920
4.000E-07,-0.800
4.100E-07,-0.520
4.200E-07,-0.260
4.300E-07,0.000
4.400E-07,-0.120
4.500E-07,-0.160
4.600E-07,-0.320
4.700E-07,-0.260
4.800E-07,0.040
4.900E-07,0.160
5.000E-07,0.320
5.100E-07,0.320
5.200E-07,0.240
5.300E-07,0.280
5.400E-07,0.280
5.500E-07,0.380
5.600E-07,0.680
5.700E-07,0.520
5.800E-07,0.340
5.900E-07,0.400
6.000E-07,0.360
6.100E-07,0.400
6.200E-07,0.640
6.300E-07,0.500
6.400E-07,0.380
6.500E-07,0.040
6.600E-07,0.000
6.700E-07,-0.140
6.800E-07,-0.560
6.900E-07,0.000
7.000E-07,-0.380
7.100E-07,0.180
7.200E-07,0.920
7.300E-07,0.560
7.400E-07,0.880
7.500E-07,0.420
7.600E-07,-0.220
7.700E-07,0.040
7.800E-07,-0.040
7.900E-07,0.460
8.000E-07,0.740
8.100E-07,0.500
8.200E-07,0.500
8.300E-07,0.340
8.400E-07,0.240
8.500E-07,0.280
8.600E-07,0.380
8.700E-07,0.320
8.800E-07,0.220
8.900E-07,0.100
9.000E-07,-0.020
9.100E-07,-0.020
9.200E-07,-0.020
9.300E-07,-0.080
9.400E-07,-0.260
9.500E-07,-0.420
9.600E-07,-0.560
9.700E-07,-0.460
9.800E-07,-0.400
9.900E-07,-0.340
1.000E-06,-0.320
1.010E-06,-0.280
1.020E-06,-0.400
1.030E-06,-0.640
1.040E-06,-0.260
1.050E-06,-0.120
1.060E-06,0.220
1.070E-06,0.580
1.080E-06,0.280
1.090E-06,0.240
1.100E-06,-0.100
1.110E-06,-0.260
1.120E-06,0.000
1.130E-06,0.200
1.140E-06,0.440
1.150E-06,0.420
1.160E-06,0.140
1.170E-06,-0.120
1.180E-06,-0.180
1.190E-06,-0.140
1.200E-06,0.080
1.210E-06,0.180
1.220E-06,0.120
1.230E-06,0.020
1.240E-06,-0.080
1.250E-06,-0.080
1.260E-06,0.060
1.270E-06,0.160
1.280E-06,0.260
1.290E-06,0.200
1.300E-06,0.180
1.310E-06,0.220
1.320E-06,0.260
1.330E-06,0.460
1.340E-06,0.440
1.350E-06,0.220
1.360E-06,-0.100
1.370E-06,-0.460
1.380E-06,-0.160
1.390E-06,-0.140
1.400E-06,-0.160
1.410E-06,0.440
1.420E-06,0.160
1.430E-06,0.120
1.440E-06,0.240
1.450E-06,-0.320
1.460E-06,-0.060
1.470E-06,-0.020
1.480E-06,-0.120
1.490E-06,0.220
1.500E-06,0.140
1.510E-06,0.060
1.520E-06,0.060
1.530E-06,-0.180
1.540E-06,-0.220
1.550E-06,-0.120
1.560E-06,-0.160
1.570E-06,-0.100
1.580E-06,-0.060
1.590E-06,-0.240
1.600E-06,-0.080
1.610E-06,-0.260
1.620E-06,-0.220
1.630E-06,-0.060
1.640E-06,-0.160
1.650E-06,-0.260
1.660E-06,-0.560
1.670E-06,0.160
1.680E-06,0.080
1.690E-06,0.480
1.700E-06,0.720
1.710E-06,-0.040
1.720E-06,-0.020
1.730E-06,-0.520
1.740E-06,-0.300
1.750E-06,0.200
1.760E-06,0.340
1.770E-06,0.400
1.780E-06,0.220
1.790E-06,-0.260
1.800E-06,-0.380
1.810E-06,-0.140
1.820E-06,0.080
1.830E-06,0.380
1.840E-06,0.420
1.850E-06,0.140
1.860E-06,0.000
1.870E-06,-0.060
1.880E-06,0.000
1.890E-06,0.240
1.900E-06,0.280
1.910E-06,0.220
1.920E-06,0.120
1.930E-06,0.080
1.940E-06,0.120
1.950E-06,0.200
1.960E-06,0.320
1.970E-06,0.300
1.980E-06,0.220
1.990E-06,0.100
2.000E-06,0.080
2.010E-06,-0.020
2.020E-06,-0.080
2.030E-06,0.180
2.040E-06,0.060
2.050E-06,0.100
2.060E-06,0.160
2.070E-06,0.020
2.080E-06,0.080
2.090E-06,0.080
2.100E-06,0.160
2.110E-06,0.120
2.120E-06,0.100
2.130E-06,0.140
2.140E-06,0.120
2.150E-06,0.180
2.160E-06,0.220
2.170E-06,0.260
2.180E-06,0.340
2.190E-06,0.340
2.200E-06,0.380
2.210E-06,0.260
2.220E-06,0.120
2.230E-06,0.180
2.240E-06,0.080
2.250E-06,0.120
2.260E-06,0.140
2.270E-06,0.120
2.280E-06,0.180
2.290E-06,0.160
2.300E-06,0.140
2.310E-06,0.100
2.320E-06,0.080
2.330E-06,0.080
2.340E-06,0.160
2.350E-06,0.200
2.360E-06,0.320
2.370E-06,0.380
2.380E-06,0.340
2.390E-06,0.240
2.400E-06,0.080
2.410E-06,0.080
2.420E-06,-0.100
2.430E-06,-0.040
2.440E-06,0.080
2.450E-06,0.160
2.460E-06,0.240
2.470E-06,0.240
2.480E-06,0.180
2.490E-06,0.140
2.500E-06,0.080
2.510E-06,0.100
2.520E-06,0.120
2.530E-06,0.180
2.540E-06,0.120
2.550E-06,-0.020
2.560E-06,0.160
2.570E-06,0.100
2.580E-06,0.260
2.590E-06,0.240
2.600E-06,0.260
2.610E-06,0.340
2.620E-06,0.200
2.630E-06,0.220
2.640E-06,0.320
2.650E-06,0.120
2.660E-06,0.260
2.670E-06,0.160
2.680E-06,0.040
2.690E-06,0.120
2.700E-06,-0.020
2.710E-06,0.060
2.720E-06,0.120
2.730E-06,0.160
2.740E-06,0.220
2.750E-06,0.220
2.760E-06,0.120
2.770E-06,0.100
2.780E-06,-0.040
2.790E-06,-0.080
2.800E-06,-0.080
2.810E-06,-0.080
2.820E-06,-0.040
2.830E-06,-0.040
2.840E-06,-0.080
2.850E-06,-0.140
2.860E-06,-0.220
2.870E-06,-0.280
2.880E-06,-0.300
2.890E-06,-0.440
2.900E-06,-0.360
2.910E-06,-0.240
2.920E-06,-0.160
2.930E-06,0.080
2.940E-06,0.000
2.950E-06,-0.080
2.960E-06,-0.040
2.970E-06,-0.360
2.980E-06,-0.260
2.990E-06,-0.140
3.000E-06,-0.040
3.010E-06,0.260
3.020E-06,0.400
3.030E-06,0.400
3.040E-06,0.520
3.050E-06,0.500
3.060E-06,0.400
3.070E-06,0.500
3.080E-06,0.420
3.090E-06,0.440
3.100E-06,0.480
3.110E-06,0.240
3.120E-06,0.380
3.130E-06,0.420
3.140E-06,0.160
3.150E-06,0.220
3.160E-06,0.120
3.170E-06,0.200
3.180E-06,0.380
3.190E-06,0.180
3.200E-06,0.220
3.210E-06,-0.120
3.220E-06,-1.080
3.230E-06,-1.040
3.240E-06,-0.600
3.250E-06,-0.480
3.260E-06,1.000
3.270E-06,0.420
3.280E-06,0.560
3.290E-06,-0.020
3.300E-06,-0.800
3.310E-06,0.020
3.320E-06,0.340
3.330E-06,1.180
3.340E-06,1.120
3.350E-06,0.720
3.360E-06,0.460
3.370E-06,0.120
3.380E-06,0.060
3.390E-06,0.140
3.400E-06,0.020
3.410E-06,-0.160
3.420E-06,-0.220
3.430E-06,-0.220
3.440E-06,-0.440
3.450E-06,-0.220
3.460E-06,-0.460
3.470E-06,-0.500
3.480E-06,-0.340
3.490E-06,-0.200
3.500E-06,-0.520
3.510E-06,-1.120
3.520E-06,-1.000
3.530E-06,-1.340
3.540E-06,-0.320
3.550E-06,-0.240
3.560E-06,0.280
3.570E-06,0.260
3.580E-06,-0.280
3.590E-06,-0.180
3.600E-06,-0.660
3.610E-06,-0.140
3.620E-06,0.160
3.630E-06,0.420
3.640E-06,0.340
3.650E-06,0.140
3.660E-06,-0.220
3.670E-06,-0.080
3.680E-06,-0.180
3.690E-06,0.080
3.700E-06,-0.240
3.710E-06,-0.400
3.720E-06,-0.580
3.730E-06,-1.000
3.740E-06,-1.020
3.750E-06,-1.280
3.760E-06,-1.500
3.770E-06,-1.660
3.780E-06,-1.820
3.790E-06,-2.020
3.800E-06,-1.860
3.810E-06,-2.100
3.820E-06,-2.100
3.830E-06,-2.160
3.840E-06,-2.160
3.850E-06,-1.960
3.860E-06,-1.900
3.870E-06,-1.920
3.880E-06,-2.020
3.890E-06,-2.060
3.900E-06,-2.100
3.910E-06,-1.880
3.920E-06,-1.540
3.930E-06,-1.280
3.940E-06,-1.260
3.950E-06,-1.500
3.960E-06,-1.780
3.970E-06,-1.800
3.980E-06,-1.540
3.990E-06,-1.100
4.000E-06,-0.300
4.010E-06,-0.020
4.020E-06,-0.660
4.030E-06,-1.180
4.040E-06,-1.700
4.050E-06,-1.660
4.060E-06,-0.320
4.070E-06,0.120
4.080E-06,0.980
4.090E-06,0.960
4.100E-06,0.080
4.110E-06,-0.080
4.120E-06,-0.440
4.130E-06,0.000
4.140E-06,0.300
4.150E-06,0.540
4.160E-06,0.180
4.170E-06,-0.180
4.180E-06,-0.580
4.190E-06,-0.840
4.200E-06,-0.500
4.210E-06,-0.260
4.220E-06,-0.740
4.230E-06,-0.660
4.240E-06,-1.260
4.250E-06,-1.520
4.260E-06,-0.940
4.270E-06,-1.340
4.280E-06,-0.780
4.290E-06,-1.060
4.300E-06,-1.140
4.310E-06,-1.020
4.320E-06,-1.480
4.330E-06,-2.060
4.340E-06,-1.820
4.350E-06,-1.520
4.360E-06,-0.660
4.370E-06,0.800
4.380E-06,1.120
4.390E-06,1.180
4.400E-06,0.500
4.410E-06,-0.140
4.420E-06,-0.180
4.430E-06,0.100
4.440E-06,0.680
4.450E-06,1.020
4.460E-06,1.100
4.470E-06,0.820
4.480E-06,0.700
4.490E-06,0.540
4.500E-06,0.500
4.510E-06,0.520
4.520E-06,0.640
4.530E-06,0.460
4.540E-06,0.460
4.550E-06,0.420
4.560E-06,0.360
4.570E-06,0.360
4.580E-06,-0.220
4.590E-06,-0.700
4.600E-06,-0.920
4.610E-06,-1.020
4.620E-06,-0.380
4.630E-06,-0.180
4.640E-06,-0.220
4.650E-06,-0.220
4.660E-06,-1.100
4.670E-06,-1.000
4.680E-06,-0.900
4.690E-06,-0.700
4.700E-06,0.040
4.710E-06,-0.060
4.720E-06,0.020
4.730E-06,-0.020
4.740E-06,-0.340
4.750E-06,0.000
4.760E-06,0.220
4.770E-06,0.460
4.780E-06,0.720
4.790E-06,0.500
4.800E-06,0.380
4.810E-06,0.300
4.820E-06,0.320
4.830E-06,0.420
4.840E-06,0.480
4.850E-06,0.400
4.860E-06,0.300
4.870E-06,0.200
4.880E-06,0.040
4.890E-06,0.020
4.900E-06,-0.120
4.910E-06,-0.180
4.920E-06,-0.260
4.930E-06,-0.320
4.940E-06,-0.340
4.950E-06,-0.360
4.960E-06,-0.320
4.970E-06,-0.240
4.980E-06,-0.260
4.990E-06,-0.320
5.000E-06,-0.340
5.010E-06,-0.480
5.020E-06,-0.360
5.030E-06,-0.480
5.040E-06,-0.480
5.050E-06,-0.420
5.060E-06,-0.700
5.070E-06,-0.900
5.080E-06,-0.460
5.090E-06,-0.160
5.100E-06,0.500
5.110E-06,0.940
5.120E-06,0.520
5.130E-06,0.340
5.140E-06,-0.340
5.150E-06,-0.520
5.160E-06,-0.240
5.170E-06,0.080
5.180E-06,0.520
5.190E-06,0.680
5.200E-06,0.480
5.210E-06,-0.020
5.220E-06,0.240
5.230E-06,-0.140
5.240E-06,0.340
5.250E-06,0.600
5.260E-06,0.480
5.270E-06,0.720
5.280E-06,0.440
5.290E-06,0.420
5.300E-06,0.580
5.310E-06,0.640
5.320E-06,0.680
5.330E-06,0.760
5.340E-06,0.580
5.350E-06,0.620
5.360E-06,0.520
5.370E-06,0.440
5.380E-06,0.440
5.390E-06,0.480
5.400E-06,0.360
5.410E-06,0.300
5.420E-06,0.080
5.430E-06,-0.140
5.440E-06,-0.300
5.450E-06,-0.360
5.460E-06,-0.160
5.470E-06,-0.240
5.480E-06,-0.160
5.490E-06,-0.160
5.500E-06,-0.340
5.510E-06,-0.260
5.520E-06,-0.620
5.530E-06,-0.600
5.540E-06,-0.500
5.550E-06,-0.420
5.560E-06,-0.080
5.570E-06,-0.080
5.580E-06,0.000
5.590E-06,-0.020
5.600E-06,-0.180
5.610E-06,-0.120
5.620E-06,0.060
5.630E-06,0.120
5.640E-06,0.220
5.650E-06,0.320
5.660E-06,0.220
5.670E-06,0.380
5.680E-06,0.500
5.690E-06,0.800
5.700E-06,0.580
5.710E-06,0.540
5.720E-06,0.540
5.730E-06,0.360
5.740E-06,0.520
5.750E-06,0.800
5.760E-06,0.840
5.770E-06,0.880
5.780E-06,1.020
5.790E-06,0.840
5.800E-06,0.760
5.810E-06,0.920
5.820E-06,1.180
5.830E-06,1.200
5.840E-06,1.120
5.850E-06,0.940
5.860E-06,0.700
5.870E-06,0.660
5.880E-06,0.800
5.890E-06,0.620
5.900E-06,0.640
5.910E-06,0.400
5.920E-06,0.260
5.930E-06,0.460
5.940E-06,0.120
5.950E-06,0.100
5.960E-06,0.080
5.970E-06,-0.260
5.980E-06,-0.280
5.990E-06,-0.260
6.000E-06,-0.420
6.010E-06,-0.100
6.020E-06,-0.180
6.030E-06,-0.180
6.040E-06,0.080
6.050E-06,0.260
6.060E-06,0.640
6.070E-06,0.600
6.080E-06,0.700
6.090E-06,0.580
6.100E-06,0.460
6.110E-06,0.500
6.120E-06,0.340
6.130E-06,0.360
6.140E-06,0.460
6.150E-06,0.120
6.160E-06,0.260
6.170E-06,0.520
6.180E-06,0.500
6.190E-06,0.360
6.200E-06,0.240
6.210E-06,-0.220
6.220E-06,-0.160
6.230E-06,-0.160
6.240E-06,-0.160
6.250E-06,0.340
6.260E-06,0.980
6.270E-06,1.860
6.280E-06,2.280
6.290E-06,2.340
6.300E-06,2.040
6.310E-06,1.160
6.320E-06,0.100
6.330E-06,-0.140
6.340E-06,-0.840
6.350E-06,-0.480
6.360E-06,0.700
6.370E-06,0.500
6.380E-06,1.220
6.390E-06,1.040
6.400E-06,0.940
6.410E-06,-0.160
6.420E-06,1.020
6.430E-06,0.260
6.440E-06,0.500
6.450E-06,1.540
6.460E-06,0.680
6.470E-06,1.280
6.480E-06,0.700
6.490E-06,0.160
6.500E-06,0.340
6.510E-06,-0.100
6.520E-06,-0.180
6.530E-06,0.480
6.540E-06,0.380
6.550E-06,0.420
6.560E-06,0.760
6.570E-06,0.440
6.580E-06,0.500
6.590E-06,0.500
6.600E-06,0.420
6.610E-06,0.380
6.620E-06,0.440
6.630E-06,0.220
6.640E-06,0.040
6.650E-06,-0.220
6.660E-06,-0.420
6.670E-06,-0.680
6.680E-06,-0.780
6.690E-06,-0.860
6.700E-06,-0.960
6.710E-06,-0.920
6.720E-06,-1.020
6.730E-06,-1.080
6.740E-06,-1.080
6.750E-06,-1.000
6.760E-06,-1.040
6.770E-06,-1.000
6.780E-06,-0.940
6.790E-06,-0.900
6.800E-06,-0.900
6.810E-06,-0.960
6.820E-06,-1.120
6.830E-06,-1.340
6.840E-06,-1.580
6.850E-06,-1.880
6.860E-06,-2.080
6.870E-06,-2.380
6.880E-06,-2.580
6.890E-06,-2.660
6.900E-06,-2.660
6.910E-06,-2.660
6.920E-06,-2.660
6.930E-06,-2.660
6.940E-06,-2.680
6.950E-06,-2.680
6.960E-06,-2.660
6.970E-06,-2.660
6.980E-06,-2.660
6.990E-06,-2.660
7.000E-06,-2.620
7.010E-06,-2.440
7.020E-06,-2.260
7.030E-06,-2.060
7.040E-06,-1.780
7.050E-06,-1.600
7.060E-06,-1.400
7.070E-06,-1.180
7.080E-06,-1.020
7.090E-06,-0.920
7.100E-06,-0.840
7.110E-06,-0.780
7.120E-06,-0.760
7.130E-06,-0.740
7.140E-06,-0.760
7.150E-06,-0.740
7.160E-06,-0.700
7.170E-06,-0.780
7.180E-06,-0.780
7.190E-06,-0.840
7.200E-06,-0.860
7.210E-06,-0.860
7.220E-06,-0.880
7.230E-06,-0.900
7.240E-06,-0.840
7.250E-06,-0.840
7.260E-06,-0.860
7.270E-06,-0.840
7.280E-06,-0.800
7.290E-06,-0.760
7.300E-06,-0.740
7.310E-06,-0.720
7.320E-06,-0.720
7.330E-06,-0.760
7.340E-06,-0.720
7.350E-06,-0.700
7.360E-06,-0.680
7.370E-06,-0.640
7.380E-06,-0.580
7.390E-06,-0.480
7.400E-06,-0.380
7.410E-06,-0.320
7.420E-06,-0.260
7.430E-06,-0.160
7.440E-06,-0.140
7.450E-06,-0.060
7.460E-06,0.020
7.470E-06,0.000
7.480E-06,0.040
7.490E-06,0.100
7.500E-06,0.080
7.510E-06,0.100
7.520E-06,0.120
7.530E-06,0.120
7.540E-06,0.120
7.550E-06,0.100
7.560E-06,0.100
7.570E-06,0.080
7.580E-06,0.060
7.590E-06,0.080
7.600E-06,0.080
7.610E-06,0.080
7.620E-06,0.040
7.630E-06,0.040
7.640E-06,0.060
7.650E-06,0.060
7.660E-06,0.060
