mediciones/Mediciones filtradas (saque las feas)/5-27/-25/WaveData5035.csv

#timebase=2000000(ps)
,#voltbase=500000(mv/100)
#size=4000
-8.400E-06,-0.060
-8.390E-06,-0.060
-8.380E-06,0.000
-8.370E-06,0.220
-8.360E-06,0.040
-8.350E-06,0.140
-8.340E-06,0.060
-8.330E-06,-0.020
-8.320E-06,0.140
-8.310E-06,0.340
-8.300E-06,0.340
-8.290E-06,0.240
-8.280E-06,0.120
-8.270E-06,-0.080
-8.260E-06,0.000
-8.250E-06,0.200
-8.240E-06,0.320
-8.230E-06,0.440
-8.220E-06,0.320
-8.210E-06,0.100
-8.200E-06,0.000
-8.190E-06,-0.060
-8.180E-06,0.100
-8.170E-06,0.220
-8.160E-06,0.220
-8.150E-06,0.140
-8.140E-06,0.000
-8.130E-06,-0.080
-8.120E-06,-0.080
-8.110E-06,0.000
-8.100E-06,0.060
-8.090E-06,0.020
-8.080E-06,-0.020
-8.070E-06,-0.100
-8.060E-06,-0.120
-8.050E-06,-0.100
-8.040E-06,-0.120
-8.030E-06,-0.100
-8.020E-06,-0.080
-8.010E-06,-0.120
-8.000E-06,-0.120
-7.990E-06,-0.100
-7.980E-06,-0.100
-7.970E-06,-0.060
-7.960E-06,-0.020
-7.950E-06,-0.040
-7.940E-06,-0.060
-7.930E-06,-0.060
-7.920E-06,-0.060
-7.910E-06,-0.020
-7.900E-06,0.020
-7.890E-06,0.000
-7.880E-06,0.000
-7.870E-06,0.000
-7.860E-06,0.020
-7.850E-06,0.040
-7.840E-06,0.080
-7.830E-06,0.060
-7.820E-06,0.080
-7.810E-06,0.100
-7.800E-06,0.060
-7.790E-06,0.060
-7.780E-06,0.060
-7.770E-06,0.080
-7.760E-06,0.060
-7.750E-06,0.020
-7.740E-06,0.020
-7.730E-06,0.000
-7.720E-06,0.060
-7.710E-06,0.020
-7.700E-06,0.020
-7.690E-06,-0.140
-7.680E-06,0.080
-7.670E-06,-0.200
-7.660E-06,0.040
-7.650E-06,0.160
-7.640E-06,0.000
-7.630E-06,0.320
-7.620E-06,0.240
-7.610E-06,0.320
-7.600E-06,0.400
-7.590E-06,0.000
-7.580E-06,0.120
-7.570E-06,-0.160
-7.560E-06,0.000
-7.550E-06,0.180
-7.540E-06,0.540
-7.530E-06,0.700
-7.520E-06,0.480
-7.510E-06,0.320
-7.500E-06,0.160
-7.490E-06,0.120
-7.480E-06,0.280
-7.470E-06,0.400
-7.460E-06,0.440
-7.450E-06,0.340
-7.440E-06,0.120
-7.430E-06,0.020
-7.420E-06,-0.020
-7.410E-06,0.000
-7.400E-06,0.080
-7.390E-06,0.080
-7.380E-06,0.020
-7.370E-06,-0.080
-7.360E-06,-0.140
-7.350E-06,-0.140
-7.340E-06,-0.120
-7.330E-06,-0.160
-7.320E-06,-0.160
-7.310E-06,-0.200
-7.300E-06,-0.260
-7.290E-06,-0.220
-7.280E-06,-0.200
-7.270E-06,-0.160
-7.260E-06,-0.140
-7.250E-06,-0.160
-7.240E-06,-0.180
-7.230E-06,-0.160
-7.220E-06,-0.140
-7.210E-06,-0.100
-7.200E-06,-0.040
-7.190E-06,-0.060
-7.180E-06,-0.020
-7.170E-06,0.000
-7.160E-06,-0.020
-7.150E-06,0.020
-7.140E-06,0.080
-7.130E-06,0.140
-7.120E-06,0.140
-7.110E-06,0.100
-7.100E-06,0.160
-7.090E-06,0.080
-7.080E-06,0.120
-7.070E-06,0.120
-7.060E-06,0.140
-7.050E-06,0.100
-7.040E-06,0.080
-7.030E-06,0.080
-7.020E-06,0.060
-7.010E-06,0.120
-7.000E-06,0.200
-6.990E-06,0.180
-6.980E-06,0.180
-6.970E-06,0.140
-6.960E-06,0.160
-6.950E-06,0.160
-6.940E-06,0.220
-6.930E-06,0.180
-6.920E-06,0.160
-6.910E-06,0.040
-6.900E-06,0.160
-6.890E-06,0.020
-6.880E-06,-0.060
-6.870E-06,0.400
-6.860E-06,0.040
-6.850E-06,0.340
-6.840E-06,0.640
-6.830E-06,0.400
-6.820E-06,0.580
-6.810E-06,0.340
-6.800E-06,-0.200
-6.790E-06,0.600
-6.780E-06,-0.440
-6.770E-06,0.160
-6.760E-06,0.160
-6.750E-06,-0.440
-6.740E-06,0.220
-6.730E-06,0.100
-6.720E-06,0.320
-6.710E-06,0.480
-6.700E-06,0.220
-6.690E-06,0.160
-6.680E-06,0.080
-6.670E-06,0.100
-6.660E-06,0.240
-6.650E-06,0.320
-6.640E-06,0.200
-6.630E-06,0.080
-6.620E-06,-0.100
-6.610E-06,-0.160
-6.600E-06,-0.120
-6.590E-06,0.040
-6.580E-06,0.080
-6.570E-06,0.040
-6.560E-06,-0.020
-6.550E-06,-0.140
-6.540E-06,-0.180
-6.530E-06,-0.160
-6.520E-06,-0.160
-6.510E-06,-0.100
-6.500E-06,-0.100
-6.490E-06,-0.120
-6.480E-06,-0.080
-6.470E-06,-0.080
-6.460E-06,-0.080
-6.450E-06,-0.080
-6.440E-06,-0.060
-6.430E-06,-0.120
-6.420E-06,-0.180
-6.410E-06,-0.200
-6.400E-06,-0.160
-6.390E-06,-0.160
-6.380E-06,-0.160
-6.370E-06,-0.120
-6.360E-06,-0.120
-6.350E-06,-0.120
-6.340E-06,-0.080
-6.330E-06,0.000
-6.320E-06,0.040
-6.310E-06,0.100
-6.300E-06,0.140
-6.290E-06,0.120
-6.280E-06,0.120
-6.270E-06,0.200
-6.260E-06,0.140
-6.250E-06,0.260
-6.240E-06,0.300
-6.230E-06,0.280
-6.220E-06,0.180
-6.210E-06,0.240
-6.200E-06,0.480
-6.190E-06,-0.340
-6.180E-06,0.260
-6.170E-06,0.100
-6.160E-06,-0.120
-6.150E-06,0.820
-6.140E-06,0.500
-6.130E-06,0.620
-6.120E-06,0.440
-6.110E-06,-0.100
-6.100E-06,0.000
-6.090E-06,-0.320
-6.080E-06,0.240
-6.070E-06,0.080
-6.060E-06,-0.020
-6.050E-06,0.260
-6.040E-06,-0.060
-6.030E-06,0.160
-6.020E-06,0.460
-6.010E-06,0.420
-6.000E-06,0.580
-5.990E-06,0.380
-5.980E-06,0.140
-5.970E-06,0.160
-5.960E-06,0.100
-5.950E-06,0.220
-5.940E-06,0.320
-5.930E-06,0.120
-5.920E-06,0.060
-5.910E-06,0.000
-5.900E-06,-0.100
-5.890E-06,0.000
-5.880E-06,0.040
-5.870E-06,0.060
-5.860E-06,0.000
-5.850E-06,-0.080
-5.840E-06,-0.180
-5.830E-06,-0.260
-5.820E-06,-0.260
-5.810E-06,-0.240
-5.800E-06,-0.220
-5.790E-06,-0.140
-5.780E-06,-0.160
-5.770E-06,-0.240
-5.760E-06,-0.140
-5.750E-06,-0.120
-5.740E-06,-0.080
-5.730E-06,0.020
-5.720E-06,0.040
-5.710E-06,-0.080
-5.700E-06,-0.120
-5.690E-06,0.020
-5.680E-06,-0.080
-5.670E-06,0.040
-5.660E-06,0.280
-5.650E-06,0.280
-5.640E-06,0.360
-5.630E-06,0.320
-5.620E-06,0.320
-5.610E-06,0.360
-5.600E-06,0.460
-5.590E-06,0.700
-5.580E-06,0.720
-5.570E-06,0.640
-5.560E-06,0.540
-5.550E-06,0.400
-5.540E-06,0.460
-5.530E-06,0.560
-5.520E-06,0.640
-5.510E-06,0.620
-5.500E-06,0.520
-5.490E-06,0.400
-5.480E-06,0.340
-5.470E-06,0.260
-5.460E-06,0.300
-5.450E-06,0.320
-5.440E-06,0.220
-5.430E-06,0.060
-5.420E-06,-0.080
-5.410E-06,-0.260
-5.400E-06,-0.300
-5.390E-06,-0.340
-5.380E-06,-0.340
-5.370E-06,-0.360
-5.360E-06,-0.260
-5.350E-06,-0.400
-5.340E-06,-0.380
-5.330E-06,-0.400
-5.320E-06,-0.420
-5.310E-06,-0.500
-5.300E-06,-0.280
-5.290E-06,0.320
-5.280E-06,-0.500
-5.270E-06,0.180
-5.260E-06,0.100
-5.250E-06,-0.340
-5.240E-06,0.880
-5.230E-06,0.600
-5.220E-06,0.800
-5.210E-06,0.760
-5.200E-06,-0.020
-5.190E-06,0.120
-5.180E-06,0.220
-5.170E-06,0.540
-5.160E-06,0.800
-5.150E-06,0.600
-5.140E-06,0.160
-5.130E-06,-0.020
-5.120E-06,-0.300
-5.110E-06,-0.080
-5.100E-06,0.240
-5.090E-06,0.360
-5.080E-06,0.420
-5.070E-06,0.000
-5.060E-06,-0.240
-5.050E-06,-0.420
-5.040E-06,-0.480
-5.030E-06,-0.340
-5.020E-06,-0.360
-5.010E-06,-0.460
-5.000E-06,-0.460
-4.990E-06,-0.680
-4.980E-06,-0.680
-4.970E-06,-0.660
-4.960E-06,-0.880
-4.950E-06,-0.200
-4.940E-06,-0.920
-4.930E-06,-0.660
-4.920E-06,-0.360
-4.910E-06,-1.000
-4.900E-06,0.020
-4.890E-06,-0.140
-4.880E-06,0.020
-4.870E-06,0.340
-4.860E-06,0.060
-4.850E-06,0.140
-4.840E-06,0.320
-4.830E-06,0.360
-4.820E-06,0.500
-4.810E-06,0.520
-4.800E-06,0.320
-4.790E-06,0.260
-4.780E-06,0.180
-4.770E-06,0.160
-4.760E-06,0.260
-4.750E-06,0.300
-4.740E-06,0.240
-4.730E-06,0.160
-4.720E-06,0.100
-4.710E-06,0.000
-4.700E-06,0.000
-4.690E-06,0.040
-4.680E-06,0.000
-4.670E-06,-0.020
-4.660E-06,-0.120
-4.650E-06,-0.220
-4.640E-06,-0.260
-4.630E-06,-0.280
-4.620E-06,-0.320
-4.610E-06,-0.300
-4.600E-06,-0.360
-4.590E-06,-0.360
-4.580E-06,-0.360
-4.570E-06,-0.320
-4.560E-06,-0.300
-4.550E-06,-0.260
-4.540E-06,-0.300
-4.530E-06,-0.340
-4.520E-06,-0.340
-4.510E-06,-0.340
-4.500E-06,-0.280
-4.490E-06,-0.200
-4.480E-06,-0.160
-4.470E-06,-0.160
-4.460E-06,-0.180
-4.450E-06,-0.160
-4.440E-06,-0.160
-4.430E-06,-0.160
-4.420E-06,-0.040
-4.410E-06,-0.040
-4.400E-06,-0.040
-4.390E-06,-0.040
-4.380E-06,-0.060
-4.370E-06,-0.060
-4.360E-06,-0.020
-4.350E-06,-0.020
-4.340E-06,-0.020
-4.330E-06,-0.020
-4.320E-06,-0.040
-4.310E-06,-0.080
-4.300E-06,-0.060
-4.290E-06,-0.040
-4.280E-06,-0.100
-4.270E-06,-0.140
-4.260E-06,-0.160
-4.250E-06,-0.160
-4.240E-06,-0.200
-4.230E-06,-0.180
-4.220E-06,-0.200
-4.210E-06,-0.200
-4.200E-06,-0.160
-4.190E-06,-0.180
-4.180E-06,-0.180
-4.170E-06,-0.200
-4.160E-06,-0.220
-4.150E-06,-0.180
-4.140E-06,-0.160
-4.130E-06,-0.160
-4.120E-06,-0.160
-4.110E-06,-0.180
-4.100E-06,-0.180
-4.090E-06,-0.160
-4.080E-06,-0.120
-4.070E-06,-0.080
-4.060E-06,-0.020
-4.050E-06,0.000
-4.040E-06,0.000
-4.030E-06,0.000
-4.020E-06,0.000
-4.010E-06,0.020
-4.000E-06,0.040
-3.990E-06,0.100
-3.980E-06,0.080
-3.970E-06,0.080
-3.960E-06,0.100
-3.950E-06,0.020
-3.940E-06,-0.020
-3.930E-06,-0.080
-3.920E-06,-0.220
-3.910E-06,-0.140
-3.900E-06,-0.160
-3.890E-06,-0.040
-3.880E-06,0.100
-3.870E-06,0.140
-3.860E-06,0.180
-3.850E-06,0.060
-3.840E-06,-0.020
-3.830E-06,0.040
-3.820E-06,0.000
-3.810E-06,0.240
-3.800E-06,0.240
-3.790E-06,0.120
-3.780E-06,0.180
-3.770E-06,0.080
-3.760E-06,0.040
-3.750E-06,0.280
-3.740E-06,0.260
-3.730E-06,0.460
-3.720E-06,0.280
-3.710E-06,0.340
-3.700E-06,0.320
-3.690E-06,0.240
-3.680E-06,0.300
-3.670E-06,0.360
-3.660E-06,0.280
-3.650E-06,0.320
-3.640E-06,0.320
-3.630E-06,0.340
-3.620E-06,0.440
-3.610E-06,0.420
-3.600E-06,0.480
-3.590E-06,0.460
-3.580E-06,0.500
-3.570E-06,0.560
-3.560E-06,0.580
-3.550E-06,0.620
-3.540E-06,0.680
-3.530E-06,0.640
-3.520E-06,0.600
-3.510E-06,0.620
-3.500E-06,0.440
-3.490E-06,0.420
-3.480E-06,0.200
-3.470E-06,0.140
-3.460E-06,0.160
-3.450E-06,-0.060
-3.440E-06,0.220
-3.430E-06,0.440
-3.420E-06,0.220
-3.410E-06,0.380
-3.400E-06,-0.020
-3.390E-06,0.200
-3.380E-06,-0.280
-3.370E-06,0.340
-3.360E-06,0.480
-3.350E-06,-0.260
-3.340E-06,0.080
-3.330E-06,-0.440
-3.320E-06,-0.160
-3.310E-06,0.560
-3.300E-06,0.700
-3.290E-06,0.980
-3.280E-06,0.340
-3.270E-06,-0.160
-3.260E-06,-0.320
-3.250E-06,-0.160
-3.240E-06,-0.280
-3.230E-06,0.280
-3.220E-06,-0.020
-3.210E-06,-0.180
-3.200E-06,-0.020
-3.190E-06,0.040
-3.180E-06,0.340
-3.170E-06,0.180
-3.160E-06,0.140
-3.150E-06,-0.160
-3.140E-06,-0.280
-3.130E-06,-0.060
-3.120E-06,0.020
-3.110E-06,0.280
-3.100E-06,0.100
-3.090E-06,0.080
-3.080E-06,-0.240
-3.070E-06,-0.300
-3.060E-06,-0.100
-3.050E-06,-0.120
-3.040E-06,0.080
-3.030E-06,-0.080
-3.020E-06,-0.320
-3.010E-06,0.020
-3.000E-06,-0.060
-2.990E-06,0.260
-2.980E-06,0.640
-2.970E-06,0.460
-2.960E-06,0.600
-2.950E-06,0.420
-2.940E-06,0.200
-2.930E-06,0.260
-2.920E-06,0.100
-2.910E-06,0.040
-2.900E-06,0.160
-2.890E-06,0.080
-2.880E-06,-0.040
-2.870E-06,-0.100
-2.860E-06,-0.180
-2.850E-06,-0.240
-2.840E-06,-0.260
-2.830E-06,-0.280
-2.820E-06,-0.240
-2.810E-06,-0.420
-2.800E-06,-0.360
-2.790E-06,-0.440
-2.780E-06,-0.620
-2.770E-06,-0.480
-2.760E-06,-0.580
-2.750E-06,-0.500
-2.740E-06,-0.500
-2.730E-06,-0.520
-2.720E-06,-0.440
-2.710E-06,-0.460
-2.700E-06,-0.420
-2.690E-06,-0.380
-2.680E-06,-0.360
-2.670E-06,-0.240
-2.660E-06,-0.180
-2.650E-06,-0.100
-2.640E-06,0.000
-2.630E-06,0.100
-2.620E-06,0.240
-2.610E-06,0.280
-2.600E-06,0.300
-2.590E-06,0.320
-2.580E-06,0.220
-2.570E-06,0.340
-2.560E-06,0.340
-2.550E-06,0.520
-2.540E-06,0.660
-2.530E-06,0.660
-2.520E-06,0.820
-2.510E-06,0.700
-2.500E-06,0.600
-2.490E-06,0.600
-2.480E-06,0.500
-2.470E-06,0.520
-2.460E-06,0.540
-2.450E-06,0.540
-2.440E-06,0.380
-2.430E-06,0.360
-2.420E-06,0.460
-2.410E-06,0.040
-2.400E-06,-0.080
-2.390E-06,0.000
-2.380E-06,-0.160
-2.370E-06,0.020
-2.360E-06,0.320
-2.350E-06,0.120
-2.340E-06,0.000
-2.330E-06,-0.300
-2.320E-06,-0.760
-2.310E-06,0.340
-2.300E-06,-0.660
-2.290E-06,-0.180
-2.280E-06,0.320
-2.270E-06,-0.660
-2.260E-06,0.920
-2.250E-06,0.900
-2.240E-06,1.100
-2.230E-06,1.220
-2.220E-06,0.200
-2.210E-06,0.080
-2.200E-06,0.440
-2.190E-06,0.720
-2.180E-06,1.180
-2.170E-06,1.200
-2.160E-06,0.680
-2.150E-06,0.220
-2.140E-06,-0.080
-2.130E-06,-0.080
-2.120E-06,0.140
-2.110E-06,0.300
-2.100E-06,0.260
-2.090E-06,-0.100
-2.080E-06,-0.340
-2.070E-06,-0.800
-2.060E-06,-0.940
-2.050E-06,-1.060
-2.040E-06,-1.200
-2.030E-06,-1.200
-2.020E-06,-1.240
-2.010E-06,-1.260
-2.000E-06,-1.360
-1.990E-06,-1.420
-1.980E-06,-1.560
-1.970E-06,-1.560
-1.960E-06,-1.640
-1.950E-06,-1.640
-1.940E-06,-1.740
-1.930E-06,-1.100
-1.920E-06,-1.360
-1.910E-06,-1.320
-1.900E-06,-1.460
-1.890E-06,-1.140
-1.880E-06,-1.160
-1.870E-06,-0.180
-1.860E-06,0.240
-1.850E-06,0.420
-1.840E-06,0.500
-1.830E-06,0.020
-1.820E-06,0.140
-1.810E-06,0.340
-1.800E-06,0.620
-1.790E-06,0.940
-1.780E-06,0.980
-1.770E-06,0.760
-1.760E-06,0.300
-1.750E-06,0.200
-1.740E-06,-0.120
-1.730E-06,-0.220
-1.720E-06,-0.300
-1.710E-06,-0.120
-1.700E-06,-0.180
-1.690E-06,-0.120
-1.680E-06,0.040
-1.670E-06,-0.140
-1.660E-06,-0.160
-1.650E-06,-0.400
-1.640E-06,-0.700
-1.630E-06,-0.760
-1.620E-06,-0.740
-1.610E-06,-0.760
-1.600E-06,-0.640
-1.590E-06,-0.720
-1.580E-06,-0.920
-1.570E-06,-1.000
-1.560E-06,-1.300
-1.550E-06,-1.260
-1.540E-06,-1.220
-1.530E-06,-1.480
-1.520E-06,-0.920
-1.510E-06,-1.280
-1.500E-06,-1.360
-1.490E-06,-1.240
-1.480E-06,-1.480
-1.470E-06,-1.100
-1.460E-06,-0.460
-1.450E-06,-0.120
-1.440E-06,0.200
-1.430E-06,0.340
-1.420E-06,-0.140
-1.410E-06,-0.240
-1.400E-06,-0.320
-1.390E-06,-0.240
-1.380E-06,0.100
-1.370E-06,0.220
-1.360E-06,0.100
-1.350E-06,-0.060
-1.340E-06,-0.300
-1.330E-06,-0.380
-1.320E-06,-0.320
-1.310E-06,-0.340
-1.300E-06,-0.360
-1.290E-06,-0.580
-1.280E-06,-0.220
-1.270E-06,-1.100
-1.260E-06,-1.360
-1.250E-06,-1.460
-1.240E-06,-2.160
-1.230E-06,-1.620
-1.220E-06,-1.180
-1.210E-06,-1.060
-1.200E-06,-0.660
-1.190E-06,-1.120
-1.180E-06,-1.500
-1.170E-06,-1.340
-1.160E-06,-1.440
-1.150E-06,-1.120
-1.140E-06,-0.860
-1.130E-06,-0.920
-1.120E-06,-0.940
-1.110E-06,-0.940
-1.100E-06,-0.920
-1.090E-06,-0.720
-1.080E-06,-0.500
-1.070E-06,-0.360
-1.060E-06,-0.340
-1.050E-06,-0.280
-1.040E-06,-0.320
-1.030E-06,-0.280
-1.020E-06,-0.200
-1.010E-06,-0.380
-1.000E-06,-0.340
-9.900E-07,-0.500
-9.800E-07,-1.060
-9.700E-07,-0.860
-9.600E-07,-1.280
-9.500E-07,-1.180
-9.400E-07,-0.700
-9.300E-07,-0.720
-9.200E-07,-0.460
-9.100E-07,-0.540
-9.000E-07,-0.840
-8.900E-07,-1.040
-8.800E-07,-1.080
-8.700E-07,-0.580
-8.600E-07,-1.080
-8.500E-07,-0.780
-8.400E-07,-0.660
-8.300E-07,-1.120
-8.200E-07,-0.420
-8.100E-07,-0.600
-8.000E-07,-0.500
-7.900E-07,-0.380
-7.800E-07,-0.800
-7.700E-07,-0.620
-7.600E-07,-0.860
-7.500E-07,-0.640
-7.400E-07,-0.900
-7.300E-07,-0.800
-7.200E-07,-0.760
-7.100E-07,-0.880
-7.000E-07,-0.380
-6.900E-07,-0.500
-6.800E-07,-0.240
-6.700E-07,-0.180
-6.600E-07,-0.460
-6.500E-07,-0.340
-6.400E-07,-0.360
-6.300E-07,-0.360
-6.200E-07,-0.280
-6.100E-07,-0.340
-6.000E-07,-0.500
-5.900E-07,-0.540
-5.800E-07,-0.700
-5.700E-07,-0.660
-5.600E-07,-0.640
-5.500E-07,-0.680
-5.400E-07,-0.700
-5.300E-07,-0.780
-5.200E-07,-0.920
-5.100E-07,-1.040
-5.000E-07,-1.100
-4.900E-07,-1.160
-4.800E-07,-1.180
-4.700E-07,-1.180
-4.600E-07,-1.300
-4.500E-07,-1.380
-4.400E-07,-1.420
-4.300E-07,-1.580
-4.200E-07,-1.700
-4.100E-07,-1.520
-4.000E-07,-1.560
-3.900E-07,-1.400
-3.800E-07,-1.180
-3.700E-07,-1.360
-3.600E-07,-1.160
-3.500E-07,-1.200
-3.400E-07,-1.060
-3.300E-07,-0.600
-3.200E-07,-0.600
-3.100E-07,-0.180
-3.000E-07,-0.200
-2.900E-07,-0.260
-2.800E-07,-0.100
-2.700E-07,-0.220
-2.600E-07,-0.100
-2.500E-07,-0.100
-2.400E-07,-0.100
-2.300E-07,-0.100
-2.200E-07,-0.220
-2.100E-07,-0.300
-2.000E-07,-0.340
-1.900E-07,-0.440
-1.800E-07,-0.420
-1.700E-07,-0.420
-1.600E-07,-0.400
-1.500E-07,-0.320
-1.400E-07,-0.380
-1.300E-07,-0.300
-1.200E-07,-0.340
-1.100E-07,-0.340
-1.000E-07,-0.440
-9.000E-08,-0.560
-8.000E-08,-0.320
-7.000E-08,-0.940
-6.000E-08,-0.060
-5.000E-08,-0.500
-4.000E-08,-0.260
-3.000E-08,-0.580
-2.000E-08,-1.480
-1.000E-08,-0.900
0.000E+00,-0.960
1.000E-08,0.120
2.000E-08,1.600
3.000E-08,1.420
4.000E-08,1.420
5.000E-08,0.160
6.000E-08,-0.760
7.000E-08,-1.080
8.000E-08,-0.760
9.000E-08,-0.400
1.000E-07,0.060
1.100E-07,-1.020
1.200E-07,-1.980
1.300E-07,-2.320
1.400E-07,-2.640
1.500E-07,-1.240
1.600E-07,-0.040
1.700E-07,0.420
1.800E-07,0.640
1.900E-07,-0.460
2.000E-07,-1.100
2.100E-07,-1.220
2.200E-07,-1.040
2.300E-07,-0.500
2.400E-07,-0.340
2.500E-07,-0.520
2.600E-07,-0.820
2.700E-07,-1.020
2.800E-07,-1.220
2.900E-07,-1.040
3.000E-07,-0.680
3.100E-07,-0.560
3.200E-07,-0.200
3.300E-07,-0.040
3.400E-07,-0.240
3.500E-07,-0.340
3.600E-07,-0.640
3.700E-07,-0.780
3.800E-07,-0.620
3.900E-07,-0.640
4.000E-07,-0.600
4.100E-07,-0.620
4.200E-07,-0.860
4.300E-07,-1.040
4.400E-07,-1.280
4.500E-07,-1.480
4.600E-07,-1.480
4.700E-07,-1.600
4.800E-07,-1.600
4.900E-07,-1.620
5.000E-07,-1.680
5.100E-07,-1.680
5.200E-07,-1.720
5.300E-07,-1.700
5.400E-07,-1.580
5.500E-07,-1.540
5.600E-07,-1.480
5.700E-07,-1.420
5.800E-07,-1.440
5.900E-07,-1.480
6.000E-07,-1.480
6.100E-07,-1.460
6.200E-07,-1.380
6.300E-07,-1.400
6.400E-07,-1.440
6.500E-07,-1.420
6.600E-07,-1.360
6.700E-07,-1.240
6.800E-07,-1.080
6.900E-07,-0.820
7.000E-07,-0.680
7.100E-07,-0.600
7.200E-07,-0.640
7.300E-07,-0.760
7.400E-07,-0.680
7.500E-07,-0.720
7.600E-07,-0.660
7.700E-07,-0.500
7.800E-07,-0.560
7.900E-07,-0.420
8.000E-07,-0.520
8.100E-07,-0.320
8.200E-07,-0.340
8.300E-07,-0.320
8.400E-07,-0.340
8.500E-07,-0.400
8.600E-07,-0.320
8.700E-07,-0.440
8.800E-07,-0.220
8.900E-07,-0.080
9.000E-07,-0.360
9.100E-07,-0.160
9.200E-07,-0.260
9.300E-07,-0.220
9.400E-07,0.140
9.500E-07,-0.200
9.600E-07,0.020
9.700E-07,0.220
9.800E-07,-0.120
9.900E-07,-0.220
1.000E-06,0.080
1.010E-06,-0.080
1.020E-06,-1.240
1.030E-06,-0.400
1.040E-06,-0.400
1.050E-06,-0.520
1.060E-06,0.960
1.070E-06,0.780
1.080E-06,0.040
1.090E-06,-0.120
1.100E-06,-1.460
1.110E-06,-1.280
1.120E-06,-1.880
1.130E-06,-2.660
1.140E-06,-1.340
1.150E-06,-2.240
1.160E-06,-0.360
1.170E-06,0.880
1.180E-06,0.600
1.190E-06,0.500
1.200E-06,-1.160
1.210E-06,-2.320
1.220E-06,-1.920
1.230E-06,-1.060
1.240E-06,0.080
1.250E-06,0.880
1.260E-06,0.720
1.270E-06,0.160
1.280E-06,-0.320
1.290E-06,-0.760
1.300E-06,-0.660
1.310E-06,-0.420
1.320E-06,-0.200
1.330E-06,-0.080
1.340E-06,-0.120
1.350E-06,-0.400
1.360E-06,-0.760
1.370E-06,-1.200
1.380E-06,-1.520
1.390E-06,-1.580
1.400E-06,-1.580
1.410E-06,-1.460
1.420E-06,-1.420
1.430E-06,-1.600
1.440E-06,-1.920
1.450E-06,-2.200
1.460E-06,-2.440
1.470E-06,-2.420
1.480E-06,-2.400
1.490E-06,-2.300
1.500E-06,-2.220
1.510E-06,-2.220
1.520E-06,-2.300
1.530E-06,-2.300
1.540E-06,-2.240
1.550E-06,-2.080
1.560E-06,-1.780
1.570E-06,-1.620
1.580E-06,-1.520
1.590E-06,-1.540
1.600E-06,-1.600
1.610E-06,-1.500
1.620E-06,-1.400
1.630E-06,-1.100
1.640E-06,-0.960
1.650E-06,-0.820
1.660E-06,-0.760
1.670E-06,-0.820
1.680E-06,-0.940
1.690E-06,-0.660
1.700E-06,-0.860
1.710E-06,-1.440
1.720E-06,-1.880
1.730E-06,-2.220
1.740E-06,-1.800
1.750E-06,-0.520
1.760E-06,0.560
1.770E-06,1.660
1.780E-06,1.480
1.790E-06,0.620
1.800E-06,0.000
1.810E-06,-0.280
1.820E-06,0.280
1.830E-06,1.020
1.840E-06,1.380
1.850E-06,1.340
1.860E-06,1.120
1.870E-06,0.600
1.880E-06,0.320
1.890E-06,0.100
1.900E-06,-0.200
1.910E-06,-0.600
1.920E-06,-0.760
1.930E-06,-1.260
1.940E-06,-1.640
1.950E-06,-1.880
1.960E-06,-2.360
1.970E-06,-2.120
1.980E-06,-2.280
1.990E-06,-2.660
2.000E-06,-2.660
2.010E-06,-2.660
2.020E-06,-2.660
2.030E-06,-2.660
2.040E-06,-2.660
2.050E-06,-2.620
2.060E-06,-1.520
2.070E-06,-0.800
2.080E-06,-0.680
2.090E-06,-0.580
2.100E-06,-0.500
2.110E-06,-0.080
2.120E-06,0.680
2.130E-06,1.340
2.140E-06,1.860
2.150E-06,2.000
2.160E-06,1.820
2.170E-06,1.560
2.180E-06,1.340
2.190E-06,1.240
2.200E-06,1.140
2.210E-06,1.020
2.220E-06,0.700
2.230E-06,0.240
2.240E-06,-0.220
2.250E-06,-0.720
2.260E-06,-1.080
2.270E-06,-1.420
2.280E-06,-1.640
2.290E-06,-1.920
2.300E-06,-2.240
2.310E-06,-2.580
2.320E-06,-2.660
2.330E-06,-2.660
2.340E-06,-2.660
2.350E-06,-2.640
2.360E-06,-2.660
2.370E-06,-2.660
2.380E-06,-2.580
2.390E-06,-2.560
2.400E-06,-2.460
2.410E-06,-2.640
2.420E-06,-2.560
2.430E-06,-2.420
2.440E-06,-2.220
2.450E-06,-1.940
2.460E-06,-1.760
2.470E-06,-1.460
2.480E-06,-1.420
2.490E-06,-1.180
2.500E-06,-0.840
2.510E-06,-0.500
2.520E-06,-0.100
2.530E-06,0.200
2.540E-06,0.420
2.550E-06,0.760
2.560E-06,0.920
2.570E-06,1.220
2.580E-06,1.460
2.590E-06,1.520
2.600E-06,1.580
2.610E-06,1.480
2.620E-06,1.400
2.630E-06,1.220
2.640E-06,1.100
2.650E-06,0.940
2.660E-06,0.800
2.670E-06,0.500
2.680E-06,0.260
2.690E-06,-0.120
2.700E-06,-0.400
2.710E-06,-0.760
2.720E-06,-0.920
2.730E-06,-1.140
2.740E-06,-1.260
2.750E-06,-1.340
2.760E-06,-1.600
2.770E-06,-1.680
2.780E-06,-1.860
2.790E-06,-2.120
2.800E-06,-2.320
2.810E-06,-2.600
2.820E-06,-2.500
2.830E-06,-2.660
2.840E-06,-2.560
2.850E-06,-2.340
2.860E-06,-2.580
2.870E-06,-2.260
2.880E-06,-2.420
2.890E-06,-2.220
2.900E-06,-2.240
2.910E-06,-2.360
2.920E-06,-2.420
2.930E-06,-2.280
2.940E-06,-1.840
2.950E-06,-1.380
2.960E-06,-0.680
2.970E-06,-0.220
2.980E-06,0.020
2.990E-06,0.180
3.000E-06,0.260
3.010E-06,0.360
3.020E-06,0.620
3.030E-06,0.860
3.040E-06,1.020
3.050E-06,1.120
3.060E-06,0.960
3.070E-06,0.900
3.080E-06,0.900
3.090E-06,0.760
