mediciones/Mediciones filtradas (saque las feas)/5-27/-25/WaveData5027.csv

#timebase=2000000(ps)
,#voltbase=500000(mv/100)
#size=4000
-8.400E-06,0.020
-8.390E-06,0.040
-8.380E-06,0.020
-8.370E-06,0.020
-8.360E-06,0.020
-8.350E-06,0.040
-8.340E-06,0.020
-8.330E-06,0.020
-8.320E-06,0.040
-8.310E-06,0.020
-8.300E-06,0.040
-8.290E-06,0.040
-8.280E-06,0.020
-8.270E-06,0.040
-8.260E-06,0.040
-8.250E-06,0.040
-8.240E-06,0.020
-8.230E-06,0.040
-8.220E-06,0.020
-8.210E-06,0.020
-8.200E-06,0.040
-8.190E-06,0.060
-8.180E-06,0.020
-8.170E-06,0.020
-8.160E-06,0.000
-8.150E-06,0.040
-8.140E-06,0.060
-8.130E-06,0.040
-8.120E-06,0.020
-8.110E-06,0.020
-8.100E-06,0.020
-8.090E-06,0.020
-8.080E-06,0.000
-8.070E-06,0.040
-8.060E-06,0.060
-8.050E-06,0.040
-8.040E-06,0.020
-8.030E-06,0.020
-8.020E-06,0.040
-8.010E-06,0.020
-8.000E-06,0.040
-7.990E-06,0.040
-7.980E-06,0.020
-7.970E-06,0.040
-7.960E-06,0.000
-7.950E-06,0.020
-7.940E-06,0.060
-7.930E-06,0.020
-7.920E-06,0.020
-7.910E-06,0.040
-7.900E-06,0.000
-7.890E-06,0.040
-7.880E-06,0.040
-7.870E-06,0.040
-7.860E-06,0.040
-7.850E-06,0.040
-7.840E-06,0.040
-7.830E-06,0.040
-7.820E-06,0.060
-7.810E-06,0.040
-7.800E-06,0.060
-7.790E-06,0.020
-7.780E-06,0.020
-7.770E-06,0.040
-7.760E-06,0.060
-7.750E-06,0.060
-7.740E-06,0.020
-7.730E-06,0.040
-7.720E-06,0.040
-7.710E-06,0.060
-7.700E-06,0.040
-7.690E-06,0.000
-7.680E-06,0.020
-7.670E-06,0.060
-7.660E-06,0.040
-7.650E-06,0.060
-7.640E-06,0.020
-7.630E-06,0.020
-7.620E-06,0.060
-7.610E-06,0.040
-7.600E-06,0.020
-7.590E-06,0.020
-7.580E-06,0.020
-7.570E-06,0.020
-7.560E-06,0.020
-7.550E-06,0.040
-7.540E-06,0.060
-7.530E-06,0.040
-7.520E-06,0.040
-7.510E-06,0.000
-7.500E-06,0.020
-7.490E-06,0.020
-7.480E-06,0.000
-7.470E-06,0.040
-7.460E-06,0.060
-7.450E-06,0.040
-7.440E-06,0.060
-7.430E-06,0.080
-7.420E-06,0.080
-7.410E-06,0.080
-7.400E-06,0.040
-7.390E-06,0.020
-7.380E-06,0.040
-7.370E-06,0.080
-7.360E-06,0.100
-7.350E-06,0.080
-7.340E-06,0.120
-7.330E-06,0.040
-7.320E-06,0.040
-7.310E-06,0.040
-7.300E-06,0.080
-7.290E-06,0.080
-7.280E-06,0.100
-7.270E-06,0.080
-7.260E-06,0.060
-7.250E-06,0.020
-7.240E-06,0.040
-7.230E-06,0.040
-7.220E-06,0.060
-7.210E-06,0.060
-7.200E-06,0.060
-7.190E-06,0.040
-7.180E-06,0.000
-7.170E-06,0.040
-7.160E-06,0.060
-7.150E-06,0.000
-7.140E-06,0.040
-7.130E-06,0.020
-7.120E-06,0.000
-7.110E-06,0.040
-7.100E-06,0.020
-7.090E-06,0.040
-7.080E-06,0.040
-7.070E-06,0.040
-7.060E-06,0.000
-7.050E-06,0.020
-7.040E-06,0.060
-7.030E-06,0.040
-7.020E-06,0.040
-7.010E-06,0.020
-7.000E-06,0.020
-6.990E-06,0.000
-6.980E-06,0.020
-6.970E-06,0.060
-6.960E-06,0.060
-6.950E-06,0.060
-6.940E-06,0.060
-6.930E-06,0.020
-6.920E-06,0.000
-6.910E-06,0.080
-6.900E-06,0.040
-6.890E-06,0.080
-6.880E-06,0.120
-6.870E-06,0.100
-6.860E-06,0.140
-6.850E-06,0.100
-6.840E-06,0.100
-6.830E-06,0.080
-6.820E-06,-0.020
-6.810E-06,-0.020
-6.800E-06,-0.160
-6.790E-06,-0.040
-6.780E-06,0.000
-6.770E-06,0.180
-6.760E-06,0.420
-6.750E-06,0.500
-6.740E-06,0.420
-6.730E-06,0.340
-6.720E-06,0.200
-6.710E-06,0.100
-6.700E-06,0.160
-6.690E-06,0.220
-6.680E-06,0.320
-6.670E-06,0.340
-6.660E-06,0.160
-6.650E-06,0.060
-6.640E-06,0.020
-6.630E-06,-0.020
-6.620E-06,0.040
-6.610E-06,0.180
-6.600E-06,0.060
-6.590E-06,0.040
-6.580E-06,0.000
-6.570E-06,-0.100
-6.560E-06,-0.080
-6.550E-06,-0.020
-6.540E-06,0.000
-6.530E-06,0.000
-6.520E-06,-0.020
-6.510E-06,-0.040
-6.500E-06,-0.040
-6.490E-06,-0.020
-6.480E-06,0.040
-6.470E-06,0.040
-6.460E-06,0.020
-6.450E-06,0.100
-6.440E-06,0.000
-6.430E-06,0.000
-6.420E-06,0.040
-6.410E-06,0.040
-6.400E-06,0.120
-6.390E-06,0.140
-6.380E-06,0.180
-6.370E-06,0.180
-6.360E-06,0.180
-6.350E-06,0.220
-6.340E-06,0.160
-6.330E-06,0.140
-6.320E-06,0.200
-6.310E-06,-0.020
-6.300E-06,-0.060
-6.290E-06,0.060
-6.280E-06,0.080
-6.270E-06,0.380
-6.260E-06,0.600
-6.250E-06,0.540
-6.240E-06,0.420
-6.230E-06,0.240
-6.220E-06,0.120
-6.210E-06,0.120
-6.200E-06,0.300
-6.190E-06,0.500
-6.180E-06,0.460
-6.170E-06,0.340
-6.160E-06,0.280
-6.150E-06,0.140
-6.140E-06,0.100
-6.130E-06,0.120
-6.120E-06,-0.260
-6.110E-06,-0.020
-6.100E-06,-0.300
-6.090E-06,-0.240
-6.080E-06,0.460
-6.070E-06,0.440
-6.060E-06,0.540
-6.050E-06,0.500
-6.040E-06,0.040
-6.030E-06,0.020
-6.020E-06,0.020
-6.010E-06,0.260
-6.000E-06,0.560
-5.990E-06,0.520
-5.980E-06,0.400
-5.970E-06,0.180
-5.960E-06,-0.040
-5.950E-06,0.080
-5.940E-06,0.180
-5.930E-06,0.320
-5.920E-06,0.240
-5.910E-06,0.180
-5.900E-06,0.180
-5.890E-06,-0.260
-5.880E-06,0.100
-5.870E-06,0.060
-5.860E-06,-0.020
-5.850E-06,0.260
-5.840E-06,0.060
-5.830E-06,0.080
-5.820E-06,0.100
-5.810E-06,0.020
-5.800E-06,0.080
-5.790E-06,0.040
-5.780E-06,0.040
-5.770E-06,0.040
-5.760E-06,-0.040
-5.750E-06,-0.060
-5.740E-06,-0.060
-5.730E-06,0.020
-5.720E-06,-0.020
-5.710E-06,0.040
-5.700E-06,0.080
-5.690E-06,0.000
-5.680E-06,0.040
-5.670E-06,0.060
-5.660E-06,0.020
-5.650E-06,0.080
-5.640E-06,0.040
-5.630E-06,0.040
-5.620E-06,0.100
-5.610E-06,0.100
-5.600E-06,0.140
-5.590E-06,0.100
-5.580E-06,0.100
-5.570E-06,0.060
-5.560E-06,0.040
-5.550E-06,0.080
-5.540E-06,0.060
-5.530E-06,0.260
-5.520E-06,-0.080
-5.510E-06,0.100
-5.500E-06,0.020
-5.490E-06,-0.180
-5.480E-06,0.160
-5.470E-06,0.120
-5.460E-06,0.220
-5.450E-06,0.240
-5.440E-06,0.060
-5.430E-06,0.040
-5.420E-06,-0.040
-5.410E-06,0.020
-5.400E-06,0.180
-5.390E-06,0.180
-5.380E-06,0.140
-5.370E-06,0.060
-5.360E-06,-0.040
-5.350E-06,-0.020
-5.340E-06,0.000
-5.330E-06,0.060
-5.320E-06,0.100
-5.310E-06,0.100
-5.300E-06,0.040
-5.290E-06,-0.060
-5.280E-06,0.020
-5.270E-06,-0.020
-5.260E-06,0.000
-5.250E-06,0.060
-5.240E-06,0.000
-5.230E-06,-0.020
-5.220E-06,-0.020
-5.210E-06,-0.020
-5.200E-06,0.000
-5.190E-06,-0.020
-5.180E-06,0.020
-5.170E-06,0.020
-5.160E-06,-0.020
-5.150E-06,0.000
-5.140E-06,-0.020
-5.130E-06,-0.040
-5.120E-06,-0.020
-5.110E-06,-0.020
-5.100E-06,-0.020
-5.090E-06,0.020
-5.080E-06,0.020
-5.070E-06,0.060
-5.060E-06,0.060
-5.050E-06,-0.020
-5.040E-06,0.040
-5.030E-06,0.060
-5.020E-06,0.000
-5.010E-06,0.060
-5.000E-06,0.100
-4.990E-06,0.000
-4.980E-06,0.080
-4.970E-06,0.020
-4.960E-06,0.040
-4.950E-06,0.060
-4.940E-06,-0.020
-4.930E-06,0.020
-4.920E-06,0.080
-4.910E-06,-0.020
-4.900E-06,-0.040
-4.890E-06,0.020
-4.880E-06,0.020
-4.870E-06,0.040
-4.860E-06,0.080
-4.850E-06,0.080
-4.840E-06,0.080
-4.830E-06,0.000
-4.820E-06,0.040
-4.810E-06,0.060
-4.800E-06,0.060
-4.790E-06,0.080
-4.780E-06,0.100
-4.770E-06,0.100
-4.760E-06,0.000
-4.750E-06,-0.020
-4.740E-06,0.000
-4.730E-06,0.000
-4.720E-06,0.080
-4.710E-06,0.060
-4.700E-06,0.040
-4.690E-06,0.060
-4.680E-06,0.000
-4.670E-06,-0.040
-4.660E-06,-0.040
-4.650E-06,-0.040
-4.640E-06,0.000
-4.630E-06,0.000
-4.620E-06,0.040
-4.610E-06,0.020
-4.600E-06,0.000
-4.590E-06,0.020
-4.580E-06,-0.020
-4.570E-06,0.020
-4.560E-06,0.060
-4.550E-06,0.060
-4.540E-06,0.080
-4.530E-06,0.060
-4.520E-06,0.080
-4.510E-06,0.100
-4.500E-06,-0.040
-4.490E-06,0.260
-4.480E-06,-0.160
-4.470E-06,0.000
-4.460E-06,-0.020
-4.450E-06,0.060
-4.440E-06,0.520
-4.430E-06,0.720
-4.420E-06,0.960
-4.410E-06,0.640
-4.400E-06,0.300
-4.390E-06,0.040
-4.380E-06,-0.120
-4.370E-06,0.340
-4.360E-06,0.560
-4.350E-06,0.620
-4.340E-06,0.400
-4.330E-06,0.260
-4.320E-06,-0.280
-4.310E-06,-0.160
-4.300E-06,-0.020
-4.290E-06,0.320
-4.280E-06,0.380
-4.270E-06,0.380
-4.260E-06,0.380
-4.250E-06,0.020
-4.240E-06,0.040
-4.230E-06,0.020
-4.220E-06,0.060
-4.210E-06,0.140
-4.200E-06,0.180
-4.190E-06,0.060
-4.180E-06,0.080
-4.170E-06,-0.020
-4.160E-06,0.000
-4.150E-06,0.020
-4.140E-06,-0.080
-4.130E-06,0.020
-4.120E-06,-0.060
-4.110E-06,0.060
-4.100E-06,0.040
-4.090E-06,0.380
-4.080E-06,-0.060
-4.070E-06,0.260
-4.060E-06,-0.080
-4.050E-06,0.040
-4.040E-06,0.500
-4.030E-06,0.540
-4.020E-06,1.000
-4.010E-06,0.880
-4.000E-06,0.060
-3.990E-06,0.100
-3.980E-06,-0.200
-3.970E-06,0.060
-3.960E-06,0.860
-3.950E-06,0.760
-3.940E-06,0.760
-3.930E-06,0.720
-3.920E-06,-0.340
-3.910E-06,-0.100
-3.900E-06,0.000
-3.890E-06,0.080
-3.880E-06,0.800
-3.870E-06,0.820
-3.860E-06,0.480
-3.850E-06,0.340
-3.840E-06,-0.080
-3.830E-06,-0.160
-3.820E-06,0.080
-3.810E-06,0.240
-3.800E-06,0.320
-3.790E-06,0.260
-3.780E-06,0.000
-3.770E-06,-0.200
-3.760E-06,-0.160
-3.750E-06,-0.180
-3.740E-06,0.000
-3.730E-06,0.080
-3.720E-06,-0.020
-3.710E-06,-0.040
-3.700E-06,-0.160
-3.690E-06,-0.180
-3.680E-06,-0.080
-3.670E-06,-0.020
-3.660E-06,-0.020
-3.650E-06,0.100
-3.640E-06,0.020
-3.630E-06,0.020
-3.620E-06,0.120
-3.610E-06,0.040
-3.600E-06,0.140
-3.590E-06,0.160
-3.580E-06,0.100
-3.570E-06,0.140
-3.560E-06,0.200
-3.550E-06,0.240
-3.540E-06,0.260
-3.530E-06,0.280
-3.520E-06,0.300
-3.510E-06,0.320
-3.500E-06,0.320
-3.490E-06,0.400
-3.480E-06,0.460
-3.470E-06,0.160
-3.460E-06,1.000
-3.450E-06,-0.460
-3.440E-06,0.040
-3.430E-06,0.380
-3.420E-06,-0.700
-3.410E-06,0.760
-3.400E-06,0.800
-3.390E-06,0.620
-3.380E-06,0.960
-3.370E-06,0.440
-3.360E-06,0.060
-3.350E-06,0.320
-3.340E-06,0.020
-3.330E-06,0.640
-3.320E-06,0.500
-3.310E-06,0.120
-3.300E-06,0.420
-3.290E-06,0.080
-3.280E-06,0.160
-3.270E-06,0.380
-3.260E-06,0.480
-3.250E-06,0.380
-3.240E-06,0.620
-3.230E-06,-0.220
-3.220E-06,0.260
-3.210E-06,0.520
-3.200E-06,-0.200
-3.190E-06,0.000
-3.180E-06,0.320
-3.170E-06,-0.660
-3.160E-06,-0.180
-3.150E-06,-0.140
-3.140E-06,-0.020
-3.130E-06,0.580
-3.120E-06,0.320
-3.110E-06,0.300
-3.100E-06,0.120
-3.090E-06,-0.280
-3.080E-06,-0.040
-3.070E-06,0.080
-3.060E-06,0.100
-3.050E-06,0.240
-3.040E-06,0.260
-3.030E-06,0.020
-3.020E-06,0.160
-3.010E-06,0.140
-3.000E-06,0.200
-2.990E-06,0.700
-2.980E-06,-0.020
-2.970E-06,0.300
-2.960E-06,0.080
-2.950E-06,-0.440
-2.940E-06,0.320
-2.930E-06,0.160
-2.920E-06,-0.100
-2.910E-06,0.280
-2.900E-06,-0.640
-2.890E-06,-0.740
-2.880E-06,-0.380
-2.870E-06,-0.620
-2.860E-06,0.100
-2.850E-06,0.060
-2.840E-06,-0.080
-2.830E-06,-0.100
-2.820E-06,-0.420
-2.810E-06,-0.240
-2.800E-06,0.000
-2.790E-06,0.260
-2.780E-06,0.340
-2.770E-06,0.260
-2.760E-06,0.080
-2.750E-06,-0.020
-2.740E-06,0.060
-2.730E-06,0.260
-2.720E-06,0.380
-2.710E-06,0.380
-2.700E-06,0.340
-2.690E-06,0.080
-2.680E-06,0.000
-2.670E-06,0.080
-2.660E-06,0.040
-2.650E-06,0.160
-2.640E-06,0.040
-2.630E-06,-0.060
-2.620E-06,-0.100
-2.610E-06,-0.180
-2.600E-06,-0.140
-2.590E-06,-0.160
-2.580E-06,-0.180
-2.570E-06,-0.240
-2.560E-06,-0.260
-2.550E-06,-0.300
-2.540E-06,-0.320
-2.530E-06,-0.240
-2.520E-06,-0.240
-2.510E-06,-0.260
-2.500E-06,-0.260
-2.490E-06,-0.260
-2.480E-06,-0.240
-2.470E-06,-0.160
-2.460E-06,-0.140
-2.450E-06,-0.140
-2.440E-06,-0.080
-2.430E-06,-0.080
-2.420E-06,-0.260
-2.410E-06,0.040
-2.400E-06,-0.300
-2.390E-06,0.000
-2.380E-06,0.300
-2.370E-06,-0.440
-2.360E-06,-0.220
-2.350E-06,-0.540
-2.340E-06,-1.020
-2.330E-06,-0.320
-2.320E-06,0.020
-2.310E-06,0.240
-2.300E-06,0.580
-2.290E-06,0.140
-2.280E-06,-0.080
-2.270E-06,-0.060
-2.260E-06,-0.060
-2.250E-06,0.280
-2.240E-06,0.360
-2.230E-06,0.200
-2.220E-06,0.160
-2.210E-06,-0.020
-2.200E-06,-0.080
-2.190E-06,0.060
-2.180E-06,0.200
-2.170E-06,0.240
-2.160E-06,0.140
-2.150E-06,0.100
-2.140E-06,-0.080
-2.130E-06,-0.080
-2.120E-06,-0.040
-2.110E-06,-0.180
-2.100E-06,-0.080
-2.090E-06,-0.160
-2.080E-06,-0.240
-2.070E-06,-0.160
-2.060E-06,-0.340
-2.050E-06,-0.260
-2.040E-06,-0.360
-2.030E-06,-0.400
-2.020E-06,-0.320
-2.010E-06,-0.360
-2.000E-06,-0.300
-1.990E-06,-0.320
-1.980E-06,-0.340
-1.970E-06,-0.360
-1.960E-06,-0.320
-1.950E-06,-0.220
-1.940E-06,-0.160
-1.930E-06,-0.140
-1.920E-06,-0.060
-1.910E-06,-0.120
-1.900E-06,-0.060
-1.890E-06,-0.080
-1.880E-06,-0.120
-1.870E-06,-0.100
-1.860E-06,-0.180
-1.850E-06,-0.060
-1.840E-06,-0.140
-1.830E-06,-0.100
-1.820E-06,-0.080
-1.810E-06,-0.260
-1.800E-06,-0.140
-1.790E-06,-0.240
-1.780E-06,-0.180
-1.770E-06,-0.120
-1.760E-06,-0.140
-1.750E-06,-0.060
-1.740E-06,-0.080
-1.730E-06,-0.080
-1.720E-06,-0.020
-1.710E-06,-0.020
-1.700E-06,0.160
-1.690E-06,0.060
-1.680E-06,0.240
-1.670E-06,0.260
-1.660E-06,0.300
-1.650E-06,0.040
-1.640E-06,0.680
-1.630E-06,-0.320
-1.620E-06,0.480
-1.610E-06,-0.120
-1.600E-06,0.260
-1.590E-06,0.340
-1.580E-06,0.320
-1.570E-06,0.200
-1.560E-06,0.380
-1.550E-06,0.120
-1.540E-06,-0.020
-1.530E-06,0.520
-1.520E-06,0.020
-1.510E-06,0.360
-1.500E-06,0.160
-1.490E-06,0.540
-1.480E-06,0.440
-1.470E-06,0.420
-1.460E-06,0.620
-1.450E-06,0.320
-1.440E-06,0.420
-1.430E-06,0.480
-1.420E-06,0.880
-1.410E-06,0.440
-1.400E-06,0.700
-1.390E-06,0.200
-1.380E-06,-0.140
-1.370E-06,0.160
-1.360E-06,0.240
-1.350E-06,0.320
-1.340E-06,0.220
-1.330E-06,0.000
-1.320E-06,-0.300
-1.310E-06,-0.200
-1.300E-06,0.240
-1.290E-06,0.240
-1.280E-06,0.520
-1.270E-06,0.100
-1.260E-06,-0.320
-1.250E-06,-0.200
-1.240E-06,0.000
-1.230E-06,0.380
-1.220E-06,0.360
-1.210E-06,0.440
-1.200E-06,-0.240
-1.190E-06,-0.340
-1.180E-06,-0.240
-1.170E-06,0.080
-1.160E-06,0.620
-1.150E-06,0.540
-1.140E-06,0.260
-1.130E-06,-0.040
-1.120E-06,-0.280
-1.110E-06,-0.100
-1.100E-06,0.120
-1.090E-06,0.200
-1.080E-06,0.180
-1.070E-06,0.100
-1.060E-06,-0.160
-1.050E-06,-0.060
-1.040E-06,0.240
-1.030E-06,-0.120
-1.020E-06,-0.020
-1.010E-06,-0.060
-1.000E-06,-0.320
-9.900E-07,-0.040
-9.800E-07,0.160
-9.700E-07,0.040
-9.600E-07,0.240
-9.500E-07,-0.020
-9.400E-07,-0.240
-9.300E-07,0.720
-9.200E-07,0.080
-9.100E-07,0.540
-9.000E-07,0.000
-8.900E-07,-0.500
-8.800E-07,-0.540
-8.700E-07,-0.660
-8.600E-07,0.080
-8.500E-07,0.140
-8.400E-07,0.320
-8.300E-07,0.020
-8.200E-07,-0.080
-8.100E-07,0.360
-8.000E-07,0.380
-7.900E-07,0.700
-7.800E-07,0.780
-7.700E-07,0.020
-7.600E-07,0.120
-7.500E-07,-0.060
-7.400E-07,0.340
-7.300E-07,0.440
-7.200E-07,0.920
-7.100E-07,0.460
-7.000E-07,0.160
-6.900E-07,0.020
-6.800E-07,-0.480
-6.700E-07,-0.140
-6.600E-07,-0.080
-6.500E-07,-0.140
-6.400E-07,0.220
-6.300E-07,-0.240
-6.200E-07,-0.200
-6.100E-07,0.000
-6.000E-07,-0.300
-5.900E-07,0.080
-5.800E-07,0.180
-5.700E-07,0.000
-5.600E-07,0.180
-5.500E-07,-0.020
-5.400E-07,0.000
-5.300E-07,0.220
-5.200E-07,0.380
-5.100E-07,0.380
-5.000E-07,1.180
-4.900E-07,0.880
-4.800E-07,0.420
-4.700E-07,0.500
-4.600E-07,-0.080
-4.500E-07,-0.640
-4.400E-07,-0.140
-4.300E-07,-0.040
-4.200E-07,-0.140
-4.100E-07,0.620
-4.000E-07,-0.340
-3.900E-07,-0.300
-3.800E-07,0.380
-3.700E-07,-0.780
-3.600E-07,0.220
-3.500E-07,-0.060
-3.400E-07,-0.560
-3.300E-07,0.040
-3.200E-07,0.080
-3.100E-07,0.200
-3.000E-07,1.040
-2.900E-07,1.000
-2.800E-07,0.700
-2.700E-07,1.320
-2.600E-07,0.660
-2.500E-07,0.880
-2.400E-07,0.840
-2.300E-07,0.300
-2.200E-07,0.320
-2.100E-07,0.400
-2.000E-07,0.320
-1.900E-07,0.340
-1.800E-07,0.800
-1.700E-07,0.440
-1.600E-07,0.520
-1.500E-07,0.560
-1.400E-07,0.180
-1.300E-07,0.420
-1.200E-07,0.380
-1.100E-07,0.240
-1.000E-07,0.500
-9.000E-08,0.460
-8.000E-08,0.340
-7.000E-08,0.620
-6.000E-08,0.560
-5.000E-08,0.620
-4.000E-08,0.780
-3.000E-08,0.700
-2.000E-08,0.760
-1.000E-08,1.000
0.000E+00,1.240
1.000E-08,1.300
2.000E-08,1.480
3.000E-08,1.780
4.000E-08,1.880
5.000E-08,1.900
6.000E-08,2.440
7.000E-08,1.800
8.000E-08,2.340
9.000E-08,2.740
1.000E-07,1.360
1.100E-07,2.600
1.200E-07,1.140
1.300E-07,0.380
1.400E-07,0.620
1.500E-07,0.280
1.600E-07,0.000
1.700E-07,1.020
1.800E-07,-0.180
1.900E-07,0.180
2.000E-07,0.600
2.100E-07,0.180
2.200E-07,0.860
2.300E-07,1.040
2.400E-07,0.260
2.500E-07,-0.180
2.600E-07,-0.800
2.700E-07,-1.380
2.800E-07,-0.760
2.900E-07,-0.100
3.000E-07,0.520
3.100E-07,1.400
3.200E-07,1.420
3.300E-07,1.400
3.400E-07,1.500
3.500E-07,1.420
3.600E-07,1.560
3.700E-07,1.820
3.800E-07,1.880
3.900E-07,1.880
4.000E-07,1.920
4.100E-07,1.560
4.200E-07,1.340
4.300E-07,1.040
4.400E-07,0.760
4.500E-07,0.560
4.600E-07,0.500
4.700E-07,0.320
4.800E-07,0.120
4.900E-07,-0.100
5.000E-07,-0.400
5.100E-07,-0.600
5.200E-07,-0.760
5.300E-07,-0.840
5.400E-07,-0.880
5.500E-07,-0.880
5.600E-07,-0.920
5.700E-07,-0.980
5.800E-07,-1.020
5.900E-07,-0.960
6.000E-07,-0.840
6.100E-07,-0.680
6.200E-07,-0.500
6.300E-07,-0.420
6.400E-07,-0.340
6.500E-07,-0.380
6.600E-07,-0.500
6.700E-07,-0.640
6.800E-07,-0.760
6.900E-07,-0.900
7.000E-07,-1.000
7.100E-07,-1.180
7.200E-07,-1.340
7.300E-07,-1.520
7.400E-07,-1.700
7.500E-07,-1.840
7.600E-07,-1.940
7.700E-07,-2.020
7.800E-07,-2.060
7.900E-07,-2.040
8.000E-07,-2.000
8.100E-07,-1.960
8.200E-07,-1.920
8.300E-07,-1.880
8.400E-07,-1.820
8.500E-07,-1.800
8.600E-07,-1.800
8.700E-07,-1.780
8.800E-07,-1.720
8.900E-07,-1.720
9.000E-07,-1.700
9.100E-07,-1.700
9.200E-07,-1.700
9.300E-07,-1.720
9.400E-07,-1.720
9.500E-07,-1.780
9.600E-07,-1.840
9.700E-07,-1.940
9.800E-07,-2.080
9.900E-07,-2.220
1.000E-06,-2.400
1.010E-06,-2.580
1.020E-06,-2.680
1.030E-06,-2.680
1.040E-06,-2.680
1.050E-06,-2.660
1.060E-06,-2.660
1.070E-06,-2.640
1.080E-06,-2.660
1.090E-06,-2.660
1.100E-06,-2.660
1.110E-06,-2.660
1.120E-06,-2.660
1.130E-06,-2.660
1.140E-06,-2.660
1.150E-06,-2.660
1.160E-06,-2.660
1.170E-06,-2.660
1.180E-06,-2.660
1.190E-06,-2.660
1.200E-06,-2.660
1.210E-06,-2.660
1.220E-06,-2.660
1.230E-06,-2.660
1.240E-06,-2.660
1.250E-06,-2.660
1.260E-06,-2.680
1.270E-06,-2.660
1.280E-06,-2.660
1.290E-06,-2.640
1.300E-06,-2.640
1.310E-06,-2.640
1.320E-06,-2.660
1.330E-06,-2.660
1.340E-06,-2.680
1.350E-06,-2.660
1.360E-06,-2.660
1.370E-06,-2.660
1.380E-06,-2.660
1.390E-06,-2.660
1.400E-06,-2.660
1.410E-06,-2.660
1.420E-06,-2.660
1.430E-06,-2.680
1.440E-06,-2.680
1.450E-06,-2.660
1.460E-06,-2.660
1.470E-06,-2.660
1.480E-06,-2.660
1.490E-06,-2.660
1.500E-06,-2.660
1.510E-06,-2.660
1.520E-06,-2.660
1.530E-06,-2.680
1.540E-06,-2.680
1.550E-06,-2.680
1.560E-06,-2.660
1.570E-06,-2.660
1.580E-06,-2.660
1.590E-06,-2.680
1.600E-06,-2.680
1.610E-06,-2.680
1.620E-06,-2.660
1.630E-06,-2.660
1.640E-06,-2.660
1.650E-06,-2.660
1.660E-06,-2.660
1.670E-06,-2.660
1.680E-06,-2.660
1.690E-06,-2.660
1.700E-06,-2.660
1.710E-06,-2.660
1.720E-06,-2.660
1.730E-06,-2.660
1.740E-06,-2.660
1.750E-06,-2.660
1.760E-06,-2.640
1.770E-06,-2.660
1.780E-06,-2.660
1.790E-06,-2.660
1.800E-06,-2.660
1.810E-06,-2.660
1.820E-06,-2.660
1.830E-06,-2.640
1.840E-06,-2.640
1.850E-06,-2.640
1.860E-06,-2.660
1.870E-06,-2.660
1.880E-06,-2.660
1.890E-06,-2.660
1.900E-06,-2.660
1.910E-06,-2.660
1.920E-06,-2.680
1.930E-06,-2.660
1.940E-06,-2.660
1.950E-06,-2.640
1.960E-06,-2.660
1.970E-06,-2.660
1.980E-06,-2.680
1.990E-06,-2.680
2.000E-06,-2.660
2.010E-06,-2.660
2.020E-06,-2.640
2.030E-06,-2.660
2.040E-06,-2.660
2.050E-06,-2.660
2.060E-06,-2.640
2.070E-06,-2.540
2.080E-06,-2.420
2.090E-06,-2.300
2.100E-06,-2.240
2.110E-06,-2.220
2.120E-06,-2.180
2.130E-06,-2.220
2.140E-06,-2.260
2.150E-06,-2.340
2.160E-06,-2.440
2.170E-06,-2.520
2.180E-06,-2.560
2.190E-06,-2.640
2.200E-06,-2.660
2.210E-06,-2.660
2.220E-06,-2.660
2.230E-06,-2.660
2.240E-06,-2.660
2.250E-06,-2.660
2.260E-06,-2.680
2.270E-06,-2.600
2.280E-06,-2.560
2.290E-06,-2.540
2.300E-06,-2.480
2.310E-06,-2.460
2.320E-06,-2.380
2.330E-06,-2.340
2.340E-06,-2.280
2.350E-06,-2.220
2.360E-06,-2.160
2.370E-06,-2.100
2.380E-06,-2.080
2.390E-06,-2.020
2.400E-06,-1.920
2.410E-06,-1.880
2.420E-06,-1.820
2.430E-06,-1.800
2.440E-06,-1.720
2.450E-06,-1.680
2.460E-06,-1.640
2.470E-06,-1.600
2.480E-06,-1.580
2.490E-06,-1.540
2.500E-06,-1.520
2.510E-06,-1.480
2.520E-06,-1.500
2.530E-06,-1.500
2.540E-06,-1.480
2.550E-06,-1.480
2.560E-06,-1.480
2.570E-06,-1.480
2.580E-06,-1.500
2.590E-06,-1.540
2.600E-06,-1.600
2.610E-06,-1.700
2.620E-06,-1.800
2.630E-06,-1.900
2.640E-06,-2.020
2.650E-06,-2.100
2.660E-06,-2.200
2.670E-06,-2.260
2.680E-06,-2.300
2.690E-06,-2.260
2.700E-06,-2.180
2.710E-06,-2.080
2.720E-06,-1.940
2.730E-06,-1.780
2.740E-06,-1.600
2.750E-06,-1.440
2.760E-06,-1.280
2.770E-06,-1.140
2.780E-06,-1.020
2.790E-06,-0.980
2.800E-06,-0.900
2.810E-06,-0.820
2.820E-06,-0.760
2.830E-06,-0.700
2.840E-06,-0.560
2.850E-06,-0.500
2.860E-06,-0.480
2.870E-06,-0.500
2.880E-06,-0.580
2.890E-06,-0.600
2.900E-06,-0.580
2.910E-06,-0.560
2.920E-06,-0.520
2.930E-06,-0.500
2.940E-06,-0.560
2.950E-06,-0.600
2.960E-06,-0.680
2.970E-06,-0.760
2.980E-06,-0.840
2.990E-06,-0.880
3.000E-06,-0.920
3.010E-06,-1.000
3.020E-06,-1.060
3.030E-06,-1.140
3.040E-06,-1.240
3.050E-06,-1.320
3.060E-06,-1.440
3.070E-06,-1.500
3.080E-06,-1.560
3.090E-06,-1.620
3.100E-06,-1.700
3.110E-06,-1.740
3.120E-06,-1.780
3.130E-06,-1.800
3.140E-06,-1.840
3.150E-06,-1.860
3.160E-06,-1.860
3.170E-06,-1.860
3.180E-06,-1.860
3.190E-06,-1.820
3.200E-06,-1.800
3.210E-06,-1.720
