mediciones/Mediciones filtradas (saque las feas)/5-27/-25/WaveData5017.csv

#timebase=2000000(ps)
,#voltbase=500000(mv/100)
#size=4000
-8.400E-06,0.100
-8.390E-06,0.120
-8.380E-06,0.160
-8.370E-06,0.140
-8.360E-06,0.140
-8.350E-06,0.080
-8.340E-06,0.120
-8.330E-06,0.100
-8.320E-06,0.080
-8.310E-06,0.100
-8.300E-06,0.120
-8.290E-06,-0.060
-8.280E-06,0.120
-8.270E-06,0.080
-8.260E-06,0.080
-8.250E-06,0.340
-8.240E-06,0.220
-8.230E-06,0.200
-8.220E-06,0.160
-8.210E-06,0.000
-8.200E-06,0.060
-8.190E-06,0.160
-8.180E-06,0.220
-8.170E-06,0.260
-8.160E-06,0.180
-8.150E-06,0.080
-8.140E-06,0.040
-8.130E-06,0.020
-8.120E-06,0.100
-8.110E-06,0.180
-8.100E-06,0.160
-8.090E-06,0.080
-8.080E-06,0.080
-8.070E-06,0.000
-8.060E-06,0.020
-8.050E-06,0.080
-8.040E-06,0.040
-8.030E-06,0.000
-8.020E-06,0.000
-8.010E-06,-0.040
-8.000E-06,-0.060
-7.990E-06,0.000
-7.980E-06,-0.040
-7.970E-06,-0.020
-7.960E-06,-0.020
-7.950E-06,-0.120
-7.940E-06,-0.020
-7.930E-06,-0.040
-7.920E-06,-0.040
-7.910E-06,0.020
-7.900E-06,-0.020
-7.890E-06,0.040
-7.880E-06,0.080
-7.870E-06,0.000
-7.860E-06,0.080
-7.850E-06,-0.020
-7.840E-06,0.100
-7.830E-06,0.160
-7.820E-06,0.140
-7.810E-06,0.260
-7.800E-06,0.120
-7.790E-06,0.140
-7.780E-06,0.040
-7.770E-06,0.020
-7.760E-06,0.120
-7.750E-06,0.120
-7.740E-06,0.220
-7.730E-06,0.200
-7.720E-06,0.140
-7.710E-06,0.080
-7.700E-06,0.020
-7.690E-06,0.020
-7.680E-06,0.060
-7.670E-06,0.080
-7.660E-06,0.080
-7.650E-06,0.100
-7.640E-06,0.060
-7.630E-06,0.020
-7.620E-06,0.020
-7.610E-06,-0.020
-7.600E-06,0.100
-7.590E-06,-0.060
-7.580E-06,0.000
-7.570E-06,0.080
-7.560E-06,-0.040
-7.550E-06,0.140
-7.540E-06,0.180
-7.530E-06,0.100
-7.520E-06,0.040
-7.510E-06,-0.020
-7.500E-06,-0.020
-7.490E-06,0.060
-7.480E-06,0.120
-7.470E-06,0.220
-7.460E-06,0.160
-7.450E-06,0.060
-7.440E-06,0.040
-7.430E-06,0.040
-7.420E-06,0.100
-7.410E-06,0.160
-7.400E-06,0.160
-7.390E-06,0.140
-7.380E-06,0.080
-7.370E-06,0.060
-7.360E-06,0.080
-7.350E-06,0.080
-7.340E-06,0.080
-7.330E-06,0.080
-7.320E-06,0.060
-7.310E-06,-0.020
-7.300E-06,-0.020
-7.290E-06,0.000
-7.280E-06,-0.020
-7.270E-06,-0.020
-7.260E-06,0.000
-7.250E-06,0.000
-7.240E-06,0.000
-7.230E-06,-0.040
-7.220E-06,0.000
-7.210E-06,0.000
-7.200E-06,0.020
-7.190E-06,-0.020
-7.180E-06,-0.020
-7.170E-06,0.000
-7.160E-06,0.020
-7.150E-06,0.040
-7.140E-06,0.060
-7.130E-06,0.060
-7.120E-06,0.080
-7.110E-06,0.040
-7.100E-06,0.080
-7.090E-06,0.060
-7.080E-06,0.100
-7.070E-06,0.140
-7.060E-06,0.080
-7.050E-06,0.120
-7.040E-06,0.100
-7.030E-06,0.100
-7.020E-06,0.140
-7.010E-06,0.100
-7.000E-06,0.100
-6.990E-06,0.080
-6.980E-06,0.120
-6.970E-06,0.140
-6.960E-06,0.140
-6.950E-06,0.080
-6.940E-06,0.080
-6.930E-06,0.080
-6.920E-06,0.060
-6.910E-06,0.040
-6.900E-06,0.040
-6.890E-06,0.040
-6.880E-06,0.080
-6.870E-06,0.080
-6.860E-06,0.080
-6.850E-06,0.060
-6.840E-06,0.020
-6.830E-06,0.020
-6.820E-06,0.020
-6.810E-06,0.000
-6.800E-06,0.060
-6.790E-06,0.060
-6.780E-06,0.000
-6.770E-06,0.000
-6.760E-06,0.000
-6.750E-06,0.000
-6.740E-06,0.000
-6.730E-06,0.040
-6.720E-06,0.000
-6.710E-06,0.040
-6.700E-06,0.020
-6.690E-06,0.020
-6.680E-06,0.020
-6.670E-06,0.020
-6.660E-06,0.020
-6.650E-06,0.040
-6.640E-06,0.040
-6.630E-06,0.040
-6.620E-06,0.040
-6.610E-06,0.040
-6.600E-06,0.060
-6.590E-06,0.080
-6.580E-06,0.060
-6.570E-06,0.020
-6.560E-06,0.060
-6.550E-06,0.060
-6.540E-06,0.060
-6.530E-06,0.100
-6.520E-06,0.060
-6.510E-06,0.080
-6.500E-06,0.060
-6.490E-06,0.080
-6.480E-06,0.100
-6.470E-06,0.080
-6.460E-06,0.080
-6.450E-06,0.060
-6.440E-06,0.080
-6.430E-06,0.080
-6.420E-06,0.060
-6.410E-06,0.080
-6.400E-06,0.060
-6.390E-06,0.080
-6.380E-06,0.060
-6.370E-06,0.080
-6.360E-06,0.080
-6.350E-06,0.060
-6.340E-06,0.040
-6.330E-06,0.020
-6.320E-06,0.020
-6.310E-06,0.000
-6.300E-06,-0.020
-6.290E-06,-0.020
-6.280E-06,0.000
-6.270E-06,0.020
-6.260E-06,0.020
-6.250E-06,0.020
-6.240E-06,0.060
-6.230E-06,-0.060
-6.220E-06,0.000
-6.210E-06,-0.020
-6.200E-06,0.040
-6.190E-06,0.100
-6.180E-06,0.120
-6.170E-06,0.120
-6.160E-06,0.120
-6.150E-06,0.100
-6.140E-06,0.080
-6.130E-06,0.100
-6.120E-06,0.100
-6.110E-06,0.100
-6.100E-06,0.100
-6.090E-06,0.060
-6.080E-06,0.060
-6.070E-06,0.040
-6.060E-06,0.040
-6.050E-06,0.040
-6.040E-06,0.080
-6.030E-06,0.060
-6.020E-06,0.040
-6.010E-06,0.080
-6.000E-06,0.080
-5.990E-06,0.060
-5.980E-06,0.060
-5.970E-06,0.080
-5.960E-06,0.040
-5.950E-06,0.040
-5.940E-06,0.020
-5.930E-06,0.020
-5.920E-06,0.060
-5.910E-06,0.060
-5.900E-06,0.020
-5.890E-06,-0.020
-5.880E-06,0.000
-5.870E-06,0.000
-5.860E-06,0.040
-5.850E-06,0.060
-5.840E-06,0.040
-5.830E-06,0.080
-5.820E-06,0.060
-5.810E-06,0.040
-5.800E-06,0.060
-5.790E-06,0.080
-5.780E-06,0.080
-5.770E-06,0.080
-5.760E-06,0.080
-5.750E-06,0.080
-5.740E-06,0.020
-5.730E-06,0.020
-5.720E-06,0.040
-5.710E-06,0.060
-5.700E-06,-0.020
-5.690E-06,-0.020
-5.680E-06,0.000
-5.670E-06,-0.020
-5.660E-06,0.000
-5.650E-06,0.000
-5.640E-06,-0.020
-5.630E-06,-0.040
-5.620E-06,-0.040
-5.610E-06,-0.100
-5.600E-06,-0.080
-5.590E-06,-0.080
-5.580E-06,-0.080
-5.570E-06,0.000
-5.560E-06,-0.100
-5.550E-06,0.000
-5.540E-06,-0.120
-5.530E-06,-0.040
-5.520E-06,0.060
-5.510E-06,-0.060
-5.500E-06,0.100
-5.490E-06,0.100
-5.480E-06,0.120
-5.470E-06,0.200
-5.460E-06,0.240
-5.450E-06,0.160
-5.440E-06,0.240
-5.430E-06,0.200
-5.420E-06,0.060
-5.410E-06,0.120
-5.400E-06,0.000
-5.390E-06,-0.020
-5.380E-06,0.060
-5.370E-06,0.100
-5.360E-06,0.200
-5.350E-06,0.120
-5.340E-06,0.020
-5.330E-06,0.000
-5.320E-06,-0.020
-5.310E-06,0.060
-5.300E-06,0.080
-5.290E-06,0.080
-5.280E-06,0.020
-5.270E-06,-0.020
-5.260E-06,-0.060
-5.250E-06,-0.080
-5.240E-06,0.000
-5.230E-06,0.040
-5.220E-06,0.040
-5.210E-06,0.020
-5.200E-06,-0.020
-5.190E-06,-0.060
-5.180E-06,-0.040
-5.170E-06,-0.040
-5.160E-06,-0.020
-5.150E-06,0.040
-5.140E-06,0.040
-5.130E-06,0.040
-5.120E-06,0.080
-5.110E-06,0.020
-5.100E-06,0.020
-5.090E-06,0.040
-5.080E-06,0.040
-5.070E-06,0.040
-5.060E-06,0.100
-5.050E-06,0.040
-5.040E-06,-0.020
-5.030E-06,-0.020
-5.020E-06,-0.080
-5.010E-06,-0.080
-5.000E-06,-0.080
-4.990E-06,-0.080
-4.980E-06,-0.100
-4.970E-06,-0.140
-4.960E-06,-0.140
-4.950E-06,-0.120
-4.940E-06,-0.160
-4.930E-06,-0.160
-4.920E-06,-0.180
-4.910E-06,-0.140
-4.900E-06,-0.160
-4.890E-06,-0.200
-4.880E-06,-0.160
-4.870E-06,0.020
-4.860E-06,-0.260
-4.850E-06,-0.080
-4.840E-06,-0.080
-4.830E-06,-0.120
-4.820E-06,0.200
-4.810E-06,0.440
-4.800E-06,0.440
-4.790E-06,0.420
-4.780E-06,0.160
-4.770E-06,0.020
-4.760E-06,0.020
-4.750E-06,0.100
-4.740E-06,0.300
-4.730E-06,0.300
-4.720E-06,0.180
-4.710E-06,0.080
-4.700E-06,-0.040
-4.690E-06,-0.080
-4.680E-06,0.060
-4.670E-06,0.080
-4.660E-06,-0.020
-4.650E-06,0.000
-4.640E-06,-0.360
-4.630E-06,-0.200
-4.620E-06,-0.020
-4.610E-06,0.000
-4.600E-06,0.660
-4.590E-06,0.420
-4.580E-06,0.180
-4.570E-06,0.160
-4.560E-06,-0.220
-4.550E-06,0.000
-4.540E-06,0.120
-4.530E-06,0.280
-4.520E-06,0.220
-4.510E-06,0.080
-4.500E-06,-0.160
-4.490E-06,-0.240
-4.480E-06,-0.140
-4.470E-06,-0.080
-4.460E-06,0.140
-4.450E-06,0.100
-4.440E-06,-0.020
-4.430E-06,-0.020
-4.420E-06,-0.160
-4.410E-06,-0.200
-4.400E-06,-0.140
-4.390E-06,-0.140
-4.380E-06,-0.160
-4.370E-06,-0.180
-4.360E-06,-0.240
-4.350E-06,-0.160
-4.340E-06,-0.160
-4.330E-06,-0.160
-4.320E-06,-0.120
-4.310E-06,-0.180
-4.300E-06,-0.180
-4.290E-06,-0.160
-4.280E-06,-0.140
-4.270E-06,-0.160
-4.260E-06,-0.100
-4.250E-06,-0.100
-4.240E-06,-0.100
-4.230E-06,0.000
-4.220E-06,0.060
-4.210E-06,0.060
-4.200E-06,0.040
-4.190E-06,-0.020
-4.180E-06,0.020
-4.170E-06,0.000
-4.160E-06,0.040
-4.150E-06,0.120
-4.140E-06,0.180
-4.130E-06,0.120
-4.120E-06,0.080
-4.110E-06,0.040
-4.100E-06,0.060
-4.090E-06,0.100
-4.080E-06,0.200
-4.070E-06,0.220
-4.060E-06,0.100
-4.050E-06,0.140
-4.040E-06,0.060
-4.030E-06,-0.040
-4.020E-06,0.100
-4.010E-06,0.060
-4.000E-06,0.080
-3.990E-06,0.120
-3.980E-06,0.120
-3.970E-06,0.080
-3.960E-06,-0.020
-3.950E-06,-0.020
-3.940E-06,-0.060
-3.930E-06,-0.020
-3.920E-06,0.100
-3.910E-06,0.080
-3.900E-06,0.060
-3.890E-06,-0.060
-3.880E-06,-0.160
-3.870E-06,-0.140
-3.860E-06,-0.100
-3.850E-06,-0.060
-3.840E-06,0.040
-3.830E-06,0.000
-3.820E-06,-0.020
-3.810E-06,-0.080
-3.800E-06,-0.120
-3.790E-06,-0.100
-3.780E-06,-0.040
-3.770E-06,0.020
-3.760E-06,0.040
-3.750E-06,0.060
-3.740E-06,0.000
-3.730E-06,0.000
-3.720E-06,0.000
-3.710E-06,-0.020
-3.700E-06,-0.020
-3.690E-06,0.000
-3.680E-06,-0.020
-3.670E-06,0.000
-3.660E-06,0.020
-3.650E-06,0.000
-3.640E-06,0.000
-3.630E-06,-0.060
-3.620E-06,-0.040
-3.610E-06,-0.080
-3.600E-06,-0.020
-3.590E-06,0.000
-3.580E-06,-0.040
-3.570E-06,-0.060
-3.560E-06,-0.080
-3.550E-06,-0.080
-3.540E-06,0.020
-3.530E-06,0.040
-3.520E-06,0.040
-3.510E-06,0.040
-3.500E-06,-0.060
-3.490E-06,-0.020
-3.480E-06,-0.020
-3.470E-06,0.020
-3.460E-06,0.080
-3.450E-06,0.100
-3.440E-06,0.060
-3.430E-06,0.060
-3.420E-06,0.040
-3.410E-06,0.060
-3.400E-06,0.080
-3.390E-06,0.080
-3.380E-06,0.080
-3.370E-06,0.060
-3.360E-06,0.040
-3.350E-06,0.040
-3.340E-06,0.040
-3.330E-06,0.060
-3.320E-06,0.040
-3.310E-06,0.020
-3.300E-06,0.040
-3.290E-06,0.000
-3.280E-06,0.020
-3.270E-06,0.000
-3.260E-06,0.000
-3.250E-06,0.000
-3.240E-06,0.000
-3.230E-06,-0.040
-3.220E-06,-0.060
-3.210E-06,-0.040
-3.200E-06,-0.040
-3.190E-06,-0.060
-3.180E-06,-0.040
-3.170E-06,-0.060
-3.160E-06,-0.080
-3.150E-06,-0.060
-3.140E-06,0.000
-3.130E-06,-0.080
-3.120E-06,-0.060
-3.110E-06,-0.080
-3.100E-06,-0.120
-3.090E-06,-0.060
-3.080E-06,-0.120
-3.070E-06,-0.060
-3.060E-06,0.000
-3.050E-06,-0.020
-3.040E-06,-0.020
-3.030E-06,-0.040
-3.020E-06,0.020
-3.010E-06,0.040
-3.000E-06,0.020
-2.990E-06,0.000
-2.980E-06,0.020
-2.970E-06,-0.020
-2.960E-06,-0.040
-2.950E-06,0.020
-2.940E-06,0.040
-2.930E-06,0.060
-2.920E-06,0.080
-2.910E-06,0.000
-2.900E-06,0.040
-2.890E-06,0.080
-2.880E-06,0.160
-2.870E-06,0.200
-2.860E-06,0.180
-2.850E-06,0.100
-2.840E-06,0.060
-2.830E-06,0.020
-2.820E-06,0.060
-2.810E-06,0.100
-2.800E-06,0.100
-2.790E-06,0.080
-2.780E-06,0.060
-2.770E-06,0.000
-2.760E-06,-0.020
-2.750E-06,-0.040
-2.740E-06,-0.040
-2.730E-06,-0.060
-2.720E-06,-0.060
-2.710E-06,-0.100
-2.700E-06,-0.120
-2.690E-06,-0.140
-2.680E-06,-0.120
-2.670E-06,-0.120
-2.660E-06,-0.120
-2.650E-06,-0.120
-2.640E-06,-0.080
-2.630E-06,-0.060
-2.620E-06,-0.080
-2.610E-06,-0.100
-2.600E-06,-0.120
-2.590E-06,-0.140
-2.580E-06,-0.120
-2.570E-06,-0.100
-2.560E-06,-0.100
-2.550E-06,-0.060
-2.540E-06,-0.040
-2.530E-06,0.020
-2.520E-06,0.020
-2.510E-06,0.020
-2.500E-06,0.000
-2.490E-06,0.000
-2.480E-06,-0.020
-2.470E-06,0.080
-2.460E-06,0.060
-2.450E-06,0.120
-2.440E-06,0.120
-2.430E-06,0.060
-2.420E-06,0.000
-2.410E-06,-0.020
-2.400E-06,-0.020
-2.390E-06,0.080
-2.380E-06,0.100
-2.370E-06,0.080
-2.360E-06,0.080
-2.350E-06,0.000
-2.340E-06,-0.080
-2.330E-06,-0.080
-2.320E-06,-0.040
-2.310E-06,0.000
-2.300E-06,0.020
-2.290E-06,-0.040
-2.280E-06,-0.060
-2.270E-06,-0.020
-2.260E-06,-0.040
-2.250E-06,0.040
-2.240E-06,0.060
-2.230E-06,0.060
-2.220E-06,0.060
-2.210E-06,0.020
-2.200E-06,-0.060
-2.190E-06,-0.040
-2.180E-06,-0.040
-2.170E-06,-0.060
-2.160E-06,-0.040
-2.150E-06,-0.040
-2.140E-06,-0.100
-2.130E-06,-0.120
-2.120E-06,-0.120
-2.110E-06,-0.120
-2.100E-06,-0.180
-2.090E-06,-0.060
-2.080E-06,-0.260
-2.070E-06,-0.160
-2.060E-06,-0.140
-2.050E-06,-0.260
-2.040E-06,-0.100
-2.030E-06,-0.180
-2.020E-06,-0.140
-2.010E-06,-0.120
-2.000E-06,-0.160
-1.990E-06,-0.100
-1.980E-06,-0.140
-1.970E-06,-0.120
-1.960E-06,-0.040
-1.950E-06,-0.120
-1.940E-06,-0.100
-1.930E-06,-0.100
-1.920E-06,-0.060
-1.910E-06,-0.040
-1.900E-06,-0.060
-1.890E-06,-0.040
-1.880E-06,-0.060
-1.870E-06,-0.100
-1.860E-06,-0.060
-1.850E-06,-0.040
-1.840E-06,0.000
-1.830E-06,0.020
-1.820E-06,0.000
-1.810E-06,-0.020
-1.800E-06,0.000
-1.790E-06,0.000
-1.780E-06,0.000
-1.770E-06,0.020
-1.760E-06,0.020
-1.750E-06,0.060
-1.740E-06,0.080
-1.730E-06,0.080
-1.720E-06,0.120
-1.710E-06,0.140
-1.700E-06,0.120
-1.690E-06,0.140
-1.680E-06,0.080
-1.670E-06,0.120
-1.660E-06,-0.080
-1.650E-06,0.020
-1.640E-06,0.160
-1.630E-06,0.160
-1.620E-06,0.360
-1.610E-06,0.380
-1.600E-06,0.160
-1.590E-06,0.080
-1.580E-06,-0.160
-1.570E-06,-0.180
-1.560E-06,-0.040
-1.550E-06,0.120
-1.540E-06,0.220
-1.530E-06,0.240
-1.520E-06,0.020
-1.510E-06,-0.160
-1.500E-06,-0.200
-1.490E-06,-0.220
-1.480E-06,-0.060
-1.470E-06,0.040
-1.460E-06,0.000
-1.450E-06,-0.020
-1.440E-06,-0.260
-1.430E-06,-0.180
-1.420E-06,-0.400
-1.410E-06,-0.280
-1.400E-06,-0.220
-1.390E-06,-0.320
-1.380E-06,-0.080
-1.370E-06,-0.120
-1.360E-06,0.000
-1.350E-06,0.100
-1.340E-06,0.000
-1.330E-06,0.020
-1.320E-06,-0.020
-1.310E-06,0.000
-1.300E-06,0.180
-1.290E-06,0.300
-1.280E-06,0.320
-1.270E-06,0.300
-1.260E-06,0.240
-1.250E-06,0.100
-1.240E-06,0.120
-1.230E-06,0.240
-1.220E-06,0.340
-1.210E-06,0.400
-1.200E-06,0.400
-1.190E-06,0.360
-1.180E-06,0.300
-1.170E-06,0.280
-1.160E-06,0.340
-1.150E-06,0.340
-1.140E-06,0.340
-1.130E-06,0.320
-1.120E-06,0.220
-1.110E-06,0.120
-1.100E-06,0.060
-1.090E-06,0.080
-1.080E-06,0.080
-1.070E-06,0.080
-1.060E-06,0.020
-1.050E-06,-0.020
-1.040E-06,-0.140
-1.030E-06,-0.160
-1.020E-06,-0.200
-1.010E-06,-0.160
-1.000E-06,-0.140
-9.900E-07,-0.100
-9.800E-07,-0.080
-9.700E-07,-0.020
-9.600E-07,-0.020
-9.500E-07,0.000
-9.400E-07,0.020
-9.300E-07,0.040
-9.200E-07,0.100
-9.100E-07,0.100
-9.000E-07,0.160
-8.900E-07,0.200
-8.800E-07,0.300
-8.700E-07,0.260
-8.600E-07,0.240
-8.500E-07,0.200
-8.400E-07,0.060
-8.300E-07,0.020
-8.200E-07,-0.040
-8.100E-07,-0.040
-8.000E-07,0.140
-7.900E-07,0.180
-7.800E-07,0.220
-7.700E-07,0.280
-7.600E-07,0.120
-7.500E-07,0.140
-7.400E-07,0.180
-7.300E-07,0.240
-7.200E-07,0.220
-7.100E-07,0.360
-7.000E-07,0.320
-6.900E-07,0.200
-6.800E-07,0.360
-6.700E-07,0.180
-6.600E-07,0.260
-6.500E-07,0.320
-6.400E-07,0.180
-6.300E-07,0.340
-6.200E-07,0.280
-6.100E-07,0.260
-6.000E-07,0.320
-5.900E-07,0.280
-5.800E-07,0.240
-5.700E-07,0.200
-5.600E-07,0.140
-5.500E-07,0.140
-5.400E-07,0.140
-5.300E-07,0.120
-5.200E-07,0.100
-5.100E-07,0.060
-5.000E-07,0.040
-4.900E-07,0.020
-4.800E-07,0.000
-4.700E-07,0.020
-4.600E-07,-0.020
-4.500E-07,-0.040
-4.400E-07,-0.140
-4.300E-07,-0.180
-4.200E-07,-0.220
-4.100E-07,-0.240
-4.000E-07,-0.180
-3.900E-07,-0.180
-3.800E-07,-0.160
-3.700E-07,-0.200
-3.600E-07,-0.200
-3.500E-07,-0.240
-3.400E-07,-0.200
-3.300E-07,-0.180
-3.200E-07,-0.160
-3.100E-07,-0.160
-3.000E-07,-0.180
-2.900E-07,-0.180
-2.800E-07,-0.140
-2.700E-07,-0.120
-2.600E-07,-0.080
-2.500E-07,-0.080
-2.400E-07,-0.060
-2.300E-07,-0.040
-2.200E-07,-0.040
-2.100E-07,-0.040
-2.000E-07,-0.060
-1.900E-07,0.000
-1.800E-07,-0.020
-1.700E-07,-0.060
-1.600E-07,-0.100
-1.500E-07,-0.100
-1.400E-07,-0.120
-1.300E-07,-0.140
-1.200E-07,-0.120
-1.100E-07,-0.140
-1.000E-07,-0.140
-9.000E-08,-0.180
-8.000E-08,-0.160
-7.000E-08,-0.200
-6.000E-08,-0.240
-5.000E-08,-0.340
-4.000E-08,-0.500
-3.000E-08,-0.600
-2.000E-08,-1.120
-1.000E-08,-0.980
0.000E+00,-1.200
1.000E-08,-0.440
2.000E-08,-0.300
3.000E-08,0.200
4.000E-08,0.300
5.000E-08,-0.220
6.000E-08,-0.440
7.000E-08,-0.540
8.000E-08,-0.300
9.000E-08,0.420
1.000E-07,0.660
1.100E-07,0.760
1.200E-07,0.580
1.300E-07,0.080
1.400E-07,0.200
1.500E-07,-0.160
1.600E-07,0.320
1.700E-07,0.380
1.800E-07,0.020
1.900E-07,-0.140
2.000E-07,-0.680
2.100E-07,-0.940
2.200E-07,-0.860
2.300E-07,-0.440
2.400E-07,-0.100
2.500E-07,0.200
2.600E-07,0.100
2.700E-07,-0.160
2.800E-07,-0.160
2.900E-07,-0.200
3.000E-07,-0.140
3.100E-07,-0.060
3.200E-07,-0.140
3.300E-07,-0.260
3.400E-07,-0.300
3.500E-07,-0.360
3.600E-07,-0.340
3.700E-07,-0.240
3.800E-07,-0.260
3.900E-07,-0.100
4.000E-07,-0.080
4.100E-07,-0.020
4.200E-07,0.080
4.300E-07,-0.160
4.400E-07,-0.380
4.500E-07,-0.260
4.600E-07,-0.500
4.700E-07,-0.160
4.800E-07,0.080
4.900E-07,-0.020
5.000E-07,0.000
5.100E-07,-0.100
5.200E-07,-0.240
5.300E-07,-0.160
5.400E-07,-0.020
5.500E-07,-0.040
5.600E-07,0.040
5.700E-07,0.000
5.800E-07,-0.100
5.900E-07,-0.060
6.000E-07,-0.020
6.100E-07,-0.100
6.200E-07,0.020
6.300E-07,-0.340
6.400E-07,-0.360
6.500E-07,-0.560
6.600E-07,-0.240
6.700E-07,-0.120
6.800E-07,0.340
6.900E-07,0.280
7.000E-07,0.340
7.100E-07,-0.180
7.200E-07,-0.500
7.300E-07,-0.500
7.400E-07,-0.340
7.500E-07,-0.080
7.600E-07,0.320
7.700E-07,0.320
7.800E-07,0.220
7.900E-07,-0.020
8.000E-07,-0.140
8.100E-07,-0.020
8.200E-07,0.180
8.300E-07,0.380
8.400E-07,0.360
8.500E-07,0.340
8.600E-07,0.320
8.700E-07,0.040
8.800E-07,-0.060
8.900E-07,-0.140
9.000E-07,-0.100
9.100E-07,0.040
9.200E-07,0.080
9.300E-07,0.440
9.400E-07,0.300
9.500E-07,0.320
9.600E-07,0.300
9.700E-07,0.220
9.800E-07,0.260
9.900E-07,0.320
1.000E-06,0.440
1.010E-06,0.500
1.020E-06,0.400
1.030E-06,0.320
1.040E-06,0.180
1.050E-06,0.180
1.060E-06,0.120
1.070E-06,0.260
1.080E-06,0.420
1.090E-06,0.440
1.100E-06,0.340
1.110E-06,0.440
1.120E-06,0.000
1.130E-06,0.080
1.140E-06,-0.240
1.150E-06,-0.340
1.160E-06,-1.140
1.170E-06,-1.040
1.180E-06,-1.420
1.190E-06,-1.300
1.200E-06,-0.600
1.210E-06,-0.420
1.220E-06,0.080
1.230E-06,0.100
1.240E-06,0.080
1.250E-06,0.200
1.260E-06,0.220
1.270E-06,0.420
1.280E-06,0.480
1.290E-06,0.520
1.300E-06,0.540
1.310E-06,0.380
1.320E-06,0.420
1.330E-06,0.520
1.340E-06,0.460
1.350E-06,0.760
1.360E-06,0.560
1.370E-06,0.560
1.380E-06,0.260
1.390E-06,-0.140
1.400E-06,-0.540
1.410E-06,-0.860
1.420E-06,-1.040
1.430E-06,-0.920
1.440E-06,-0.740
1.450E-06,-0.660
1.460E-06,-0.540
1.470E-06,-0.560
1.480E-06,-0.560
1.490E-06,-0.680
1.500E-06,-0.580
1.510E-06,-0.420
1.520E-06,-0.300
1.530E-06,-0.120
1.540E-06,0.000
1.550E-06,0.040
1.560E-06,0.160
1.570E-06,0.220
1.580E-06,0.320
1.590E-06,0.420
1.600E-06,0.440
1.610E-06,0.460
1.620E-06,0.400
1.630E-06,0.280
1.640E-06,0.300
1.650E-06,-0.480
1.660E-06,-1.000
1.670E-06,-1.100
1.680E-06,-1.400
1.690E-06,-0.660
1.700E-06,0.160
1.710E-06,0.520
1.720E-06,0.840
1.730E-06,0.320
1.740E-06,-0.520
1.750E-06,-0.640
1.760E-06,-0.960
1.770E-06,-1.160
1.780E-06,-1.000
1.790E-06,-1.440
1.800E-06,-1.580
1.810E-06,-1.280
1.820E-06,-0.960
1.830E-06,-0.300
1.840E-06,0.260
1.850E-06,0.120
1.860E-06,-0.180
1.870E-06,-0.300
1.880E-06,-0.540
1.890E-06,-0.200
1.900E-06,-0.180
1.910E-06,0.000
1.920E-06,-0.220
1.930E-06,-0.640
1.940E-06,-1.380
1.950E-06,-1.860
1.960E-06,-1.700
1.970E-06,-1.260
1.980E-06,-0.360
1.990E-06,0.700
2.000E-06,0.800
2.010E-06,0.660
2.020E-06,0.120
2.030E-06,-0.720
2.040E-06,-0.520
2.050E-06,-0.960
2.060E-06,-0.500
2.070E-06,-0.660
2.080E-06,-1.040
2.090E-06,-1.080
2.100E-06,-1.600
2.110E-06,-1.180
2.120E-06,-0.960
2.130E-06,-1.020
2.140E-06,-0.640
2.150E-06,-0.740
2.160E-06,-1.020
2.170E-06,-0.740
2.180E-06,-1.020
2.190E-06,-0.680
2.200E-06,-0.400
2.210E-06,-0.260
2.220E-06,0.320
2.230E-06,0.260
2.240E-06,0.240
2.250E-06,0.100
2.260E-06,-0.480
2.270E-06,-0.480
2.280E-06,-0.320
2.290E-06,-0.320
2.300E-06,-0.020
2.310E-06,-0.160
2.320E-06,-0.340
2.330E-06,-0.520
2.340E-06,-0.880
2.350E-06,-1.040
2.360E-06,-1.180
2.370E-06,-1.180
2.380E-06,-1.160
2.390E-06,-1.020
2.400E-06,-1.060
2.410E-06,-1.240
2.420E-06,-1.260
2.430E-06,-1.460
2.440E-06,-1.440
2.450E-06,-1.340
2.460E-06,-1.360
2.470E-06,-1.260
2.480E-06,-1.300
2.490E-06,-1.360
2.500E-06,-1.400
2.510E-06,-1.440
2.520E-06,-1.520
2.530E-06,-1.480
2.540E-06,-1.480
2.550E-06,-1.360
2.560E-06,-1.320
2.570E-06,-1.380
2.580E-06,-1.440
2.590E-06,-1.520
2.600E-06,-1.680
2.610E-06,-1.640
2.620E-06,-1.540
2.630E-06,-1.420
2.640E-06,-1.220
2.650E-06,-1.020
2.660E-06,-1.020
2.670E-06,-0.940
2.680E-06,-0.840
2.690E-06,-0.880
2.700E-06,-0.700
2.710E-06,-0.580
2.720E-06,-0.600
2.730E-06,-0.420
2.740E-06,-0.480
2.750E-06,-0.540
2.760E-06,-0.520
2.770E-06,-0.540
2.780E-06,-0.540
2.790E-06,-0.500
2.800E-06,-0.560
2.810E-06,-0.560
2.820E-06,-0.600
2.830E-06,-0.680
2.840E-06,-0.820
2.850E-06,-0.860
2.860E-06,-1.000
2.870E-06,-1.100
2.880E-06,-1.180
2.890E-06,-1.280
2.900E-06,-1.380
2.910E-06,-1.480
2.920E-06,-1.580
2.930E-06,-1.680
2.940E-06,-1.920
2.950E-06,-1.920
2.960E-06,-2.240
2.970E-06,-2.320
2.980E-06,-2.400
2.990E-06,-2.660
3.000E-06,-2.620
3.010E-06,-2.660
3.020E-06,-2.660
3.030E-06,-2.660
3.040E-06,-2.660
3.050E-06,-2.660
3.060E-06,-2.660
3.070E-06,-2.660
3.080E-06,-2.660
3.090E-06,-2.660
3.100E-06,-2.300
3.110E-06,-1.480
3.120E-06,-0.840
3.130E-06,-0.580
3.140E-06,-0.380
3.150E-06,-0.460
3.160E-06,-0.540
3.170E-06,-0.780
3.180E-06,-0.820
3.190E-06,-1.400
