mediciones/Mediciones filtradas (saque las feas)/6-10/6.4/WaveData5661.csv

#timebase=2000000(ps)
,#voltbase=100000(mv/100)
#size=4000
-4.200E-06,0.004
-4.190E-06,0.000
-4.180E-06,0.000
-4.170E-06,0.004
-4.160E-06,0.004
-4.150E-06,0.004
-4.140E-06,0.004
-4.130E-06,0.000
-4.120E-06,0.000
-4.110E-06,0.000
-4.100E-06,0.000
-4.090E-06,0.000
-4.080E-06,0.004
-4.070E-06,0.008
-4.060E-06,0.004
-4.050E-06,0.008
-4.040E-06,0.008
-4.030E-06,0.008
-4.020E-06,0.008
-4.010E-06,-0.004
-4.000E-06,0.004
-3.990E-06,0.004
-3.980E-06,0.004
-3.970E-06,0.000
-3.960E-06,0.004
-3.950E-06,0.004
-3.940E-06,-0.004
-3.930E-06,0.004
-3.920E-06,0.004
-3.910E-06,0.000
-3.900E-06,0.000
-3.890E-06,0.004
-3.880E-06,0.008
-3.870E-06,0.008
-3.860E-06,-0.004
-3.850E-06,0.004
-3.840E-06,0.004
-3.830E-06,0.004
-3.820E-06,0.004
-3.810E-06,0.008
-3.800E-06,0.000
-3.790E-06,0.000
-3.780E-06,0.004
-3.770E-06,0.004
-3.760E-06,0.004
-3.750E-06,0.004
-3.740E-06,0.008
-3.730E-06,0.044
-3.720E-06,0.064
-3.710E-06,0.072
-3.700E-06,0.052
-3.690E-06,0.000
-3.680E-06,-0.060
-3.670E-06,-0.116
-3.660E-06,-0.116
-3.650E-06,-0.056
-3.640E-06,0.024
-3.630E-06,0.092
-3.620E-06,0.100
-3.610E-06,0.056
-3.600E-06,0.000
-3.590E-06,-0.056
-3.580E-06,-0.040
-3.570E-06,0.004
-3.560E-06,0.052
-3.550E-06,0.084
-3.540E-06,0.048
-3.530E-06,-0.016
-3.520E-06,-0.052
-3.510E-06,-0.064
-3.500E-06,-0.040
-3.490E-06,-0.004
-3.480E-06,0.044
-3.470E-06,0.056
-3.460E-06,0.052
-3.450E-06,0.028
-3.440E-06,0.000
-3.430E-06,-0.012
-3.420E-06,-0.020
-3.410E-06,-0.004
-3.400E-06,0.012
-3.390E-06,0.012
-3.380E-06,0.008
-3.370E-06,-0.008
-3.360E-06,-0.028
-3.350E-06,-0.040
-3.340E-06,-0.028
-3.330E-06,0.004
-3.320E-06,0.024
-3.310E-06,0.028
-3.300E-06,0.040
-3.290E-06,0.036
-3.280E-06,0.016
-3.270E-06,0.004
-3.260E-06,-0.008
-3.250E-06,-0.008
-3.240E-06,-0.004
-3.230E-06,0.000
-3.220E-06,0.000
-3.210E-06,0.000
-3.200E-06,0.004
-3.190E-06,0.000
-3.180E-06,-0.004
-3.170E-06,-0.004
-3.160E-06,0.004
-3.150E-06,0.024
-3.140E-06,0.032
-3.130E-06,0.016
-3.120E-06,0.012
-3.110E-06,0.004
-3.100E-06,-0.008
-3.090E-06,-0.004
-3.080E-06,0.000
-3.070E-06,0.004
-3.060E-06,0.008
-3.050E-06,0.004
-3.040E-06,0.000
-3.030E-06,0.000
-3.020E-06,-0.004
-3.010E-06,0.004
-3.000E-06,0.012
-2.990E-06,0.028
-2.980E-06,0.020
-2.970E-06,0.020
-2.960E-06,0.012
-2.950E-06,-0.008
-2.940E-06,-0.012
-2.930E-06,-0.004
-2.920E-06,0.004
-2.910E-06,0.004
-2.900E-06,0.012
-2.890E-06,0.004
-2.880E-06,-0.004
-2.870E-06,-0.004
-2.860E-06,-0.008
-2.850E-06,0.004
-2.840E-06,0.012
-2.830E-06,0.004
-2.820E-06,0.008
-2.810E-06,0.012
-2.800E-06,0.004
-2.790E-06,0.004
-2.780E-06,0.000
-2.770E-06,0.000
-2.760E-06,0.008
-2.750E-06,0.012
-2.740E-06,0.008
-2.730E-06,0.008
-2.720E-06,0.008
-2.710E-06,0.000
-2.700E-06,0.004
-2.690E-06,0.004
-2.680E-06,0.004
-2.670E-06,0.008
-2.660E-06,0.012
-2.650E-06,0.012
-2.640E-06,0.012
-2.630E-06,0.004
-2.620E-06,0.020
-2.610E-06,0.012
-2.600E-06,0.012
-2.590E-06,0.016
-2.580E-06,0.012
-2.570E-06,-0.020
-2.560E-06,-0.004
-2.550E-06,-0.036
-2.540E-06,-0.004
-2.530E-06,0.024
-2.520E-06,0.044
-2.510E-06,0.000
-2.500E-06,-0.040
-2.490E-06,-0.052
-2.480E-06,-0.012
-2.470E-06,0.020
-2.460E-06,0.040
-2.450E-06,0.036
-2.440E-06,0.024
-2.430E-06,-0.004
-2.420E-06,-0.012
-2.410E-06,-0.024
-2.400E-06,-0.016
-2.390E-06,0.012
-2.380E-06,0.016
-2.370E-06,0.020
-2.360E-06,0.020
-2.350E-06,0.000
-2.340E-06,-0.004
-2.330E-06,-0.024
-2.320E-06,0.044
-2.310E-06,0.044
-2.300E-06,-0.284
-2.290E-06,0.472
-2.280E-06,-0.232
-2.270E-06,0.040
-2.260E-06,-0.156
-2.250E-06,0.132
-2.240E-06,0.136
-2.230E-06,-0.084
-2.220E-06,0.136
-2.210E-06,-0.108
-2.200E-06,-0.184
-2.190E-06,-0.152
-2.180E-06,0.096
-2.170E-06,0.056
-2.160E-06,0.032
-2.150E-06,0.056
-2.140E-06,0.000
-2.130E-06,-0.024
-2.120E-06,-0.056
-2.110E-06,-0.052
-2.100E-06,-0.024
-2.090E-06,0.072
-2.080E-06,0.056
-2.070E-06,0.024
-2.060E-06,-0.004
-2.050E-06,-0.012
-2.040E-06,-0.032
-2.030E-06,0.000
-2.020E-06,-0.008
-2.010E-06,0.004
-2.000E-06,0.032
-1.990E-06,0.032
-1.980E-06,0.024
-1.970E-06,0.000
-1.960E-06,0.008
-1.950E-06,-0.024
-1.940E-06,0.000
-1.930E-06,-0.008
-1.920E-06,0.000
-1.910E-06,-0.004
-1.900E-06,0.004
-1.890E-06,0.016
-1.880E-06,0.028
-1.870E-06,0.048
-1.860E-06,0.040
-1.850E-06,0.048
-1.840E-06,0.008
-1.830E-06,-0.004
-1.820E-06,-0.036
-1.810E-06,-0.032
-1.800E-06,-0.020
-1.790E-06,0.052
-1.780E-06,0.064
-1.770E-06,0.052
-1.760E-06,0.016
-1.750E-06,-0.024
-1.740E-06,-0.048
-1.730E-06,-0.060
-1.720E-06,0.000
-1.710E-06,0.064
-1.700E-06,0.128
-1.690E-06,0.120
-1.680E-06,0.056
-1.670E-06,0.000
-1.660E-06,-0.036
-1.650E-06,-0.016
-1.640E-06,-0.028
-1.630E-06,-0.012
-1.620E-06,0.016
-1.610E-06,0.052
-1.600E-06,0.064
-1.590E-06,0.020
-1.580E-06,-0.008
-1.570E-06,-0.096
-1.560E-06,-0.168
-1.550E-06,-0.116
-1.540E-06,-0.068
-1.530E-06,0.024
-1.520E-06,0.112
-1.510E-06,0.180
-1.500E-06,0.088
-1.490E-06,-0.076
-1.480E-06,-0.132
-1.470E-06,-0.140
-1.460E-06,-0.076
-1.450E-06,0.028
-1.440E-06,0.140
-1.430E-06,0.128
-1.420E-06,0.060
-1.410E-06,-0.008
-1.400E-06,-0.068
-1.390E-06,-0.076
-1.380E-06,-0.036
-1.370E-06,0.016
-1.360E-06,0.052
-1.350E-06,0.076
-1.340E-06,0.052
-1.330E-06,0.008
-1.320E-06,-0.020
-1.310E-06,-0.036
-1.300E-06,-0.032
-1.290E-06,0.000
-1.280E-06,0.044
-1.270E-06,0.036
-1.260E-06,0.040
-1.250E-06,0.028
-1.240E-06,0.036
-1.230E-06,0.056
-1.220E-06,0.056
-1.210E-06,0.024
-1.200E-06,-0.052
-1.190E-06,-0.112
-1.180E-06,-0.132
-1.170E-06,-0.060
-1.160E-06,0.064
-1.150E-06,0.124
-1.140E-06,0.132
-1.130E-06,0.088
-1.120E-06,0.000
-1.110E-06,-0.044
-1.100E-06,0.028
-1.090E-06,0.124
-1.080E-06,0.048
-1.070E-06,0.008
-1.060E-06,-0.180
-1.050E-06,-0.200
-1.040E-06,-0.152
-1.030E-06,-0.048
-1.020E-06,0.092
-1.010E-06,0.124
-1.000E-06,0.160
-9.900E-07,0.064
-9.800E-07,-0.048
-9.700E-07,-0.124
-9.600E-07,-0.072
-9.500E-07,0.028
-9.400E-07,0.104
-9.300E-07,0.140
-9.200E-07,0.120
-9.100E-07,0.036
-9.000E-07,-0.032
-8.900E-07,-0.068
-8.800E-07,-0.072
-8.700E-07,-0.012
-8.600E-07,0.020
-8.500E-07,0.028
-8.400E-07,0.012
-8.300E-07,-0.024
-8.200E-07,-0.008
-8.100E-07,0.016
-8.000E-07,0.048
-7.900E-07,0.072
-7.800E-07,0.088
-7.700E-07,0.080
-7.600E-07,0.060
-7.500E-07,0.028
-7.400E-07,-0.008
-7.300E-07,-0.052
-7.200E-07,-0.056
-7.100E-07,-0.044
-7.000E-07,0.008
-6.900E-07,0.080
-6.800E-07,0.148
-6.700E-07,0.112
-6.600E-07,0.016
-6.500E-07,-0.136
-6.400E-07,-0.272
-6.300E-07,-0.248
-6.200E-07,-0.124
-6.100E-07,0.068
-6.000E-07,0.172
-5.900E-07,0.208
-5.800E-07,0.096
-5.700E-07,-0.056
-5.600E-07,-0.180
-5.500E-07,-0.188
-5.400E-07,-0.100
-5.300E-07,0.036
-5.200E-07,0.148
-5.100E-07,0.160
-5.000E-07,0.088
-4.900E-07,-0.040
-4.800E-07,-0.116
-4.700E-07,-0.124
-4.600E-07,-0.056
-4.500E-07,0.028
-4.400E-07,0.104
-4.300E-07,0.108
-4.200E-07,0.068
-4.100E-07,-0.004
-4.000E-07,-0.052
-3.900E-07,-0.056
-3.800E-07,-0.032
-3.700E-07,0.016
-3.600E-07,0.064
-3.500E-07,0.072
-3.400E-07,0.064
-3.300E-07,0.032
-3.200E-07,0.000
-3.100E-07,-0.008
-3.000E-07,0.004
-2.900E-07,0.044
-2.800E-07,0.064
-2.700E-07,0.056
-2.600E-07,0.036
-2.500E-07,-0.012
-2.400E-07,-0.040
-2.300E-07,-0.028
-2.200E-07,-0.008
-2.100E-07,0.048
-2.000E-07,0.100
-1.900E-07,0.144
-1.800E-07,0.152
-1.700E-07,0.160
-1.600E-07,0.156
-1.500E-07,0.160
-1.400E-07,0.132
-1.300E-07,0.096
-1.200E-07,0.092
-1.100E-07,0.076
-1.000E-07,0.092
-9.000E-08,0.112
-8.000E-08,0.100
-7.000E-08,0.052
-6.000E-08,-0.080
-5.000E-08,-0.204
-4.000E-08,-0.224
-3.000E-08,-0.128
-2.000E-08,0.076
-1.000E-08,0.332
0.000E+00,0.332
1.000E-08,0.220
2.000E-08,0.060
3.000E-08,-0.076
4.000E-08,-0.192
5.000E-08,-0.188
6.000E-08,-0.040
7.000E-08,0.084
8.000E-08,0.088
9.000E-08,0.004
1.000E-07,-0.284
1.100E-07,-0.384
1.200E-07,-0.380
1.300E-07,-0.344
1.400E-07,-0.104
1.500E-07,-0.076
1.600E-07,0.112
1.700E-07,0.100
1.800E-07,0.032
1.900E-07,-0.072
2.000E-07,-0.132
2.100E-07,-0.096
2.200E-07,-0.020
2.300E-07,0.020
2.400E-07,0.028
2.500E-07,0.044
2.600E-07,0.036
2.700E-07,0.012
2.800E-07,-0.004
2.900E-07,-0.040
3.000E-07,-0.060
3.100E-07,-0.024
3.200E-07,0.008
3.300E-07,0.048
3.400E-07,0.044
3.500E-07,0.040
3.600E-07,0.012
3.700E-07,0.004
3.800E-07,-0.008
3.900E-07,-0.004
4.000E-07,0.000
4.100E-07,0.020
4.200E-07,0.028
4.300E-07,0.024
4.400E-07,0.016
4.500E-07,0.004
4.600E-07,0.008
4.700E-07,0.016
4.800E-07,0.036
4.900E-07,0.056
5.000E-07,0.044
5.100E-07,0.040
5.200E-07,0.024
5.300E-07,0.028
5.400E-07,0.044
5.500E-07,0.072
5.600E-07,0.104
5.700E-07,0.112
5.800E-07,0.108
5.900E-07,0.092
6.000E-07,0.068
6.100E-07,0.040
6.200E-07,0.036
6.300E-07,0.056
6.400E-07,0.076
6.500E-07,0.064
6.600E-07,0.068
6.700E-07,0.056
6.800E-07,0.056
6.900E-07,0.024
7.000E-07,-0.052
7.100E-07,-0.120
7.200E-07,-0.156
7.300E-07,-0.224
7.400E-07,-0.140
7.500E-07,-0.136
7.600E-07,-0.120
7.700E-07,-0.132
7.800E-07,-0.120
7.900E-07,-0.060
8.000E-07,-0.060
8.100E-07,-0.032
8.200E-07,-0.044
8.300E-07,0.036
8.400E-07,0.048
8.500E-07,0.024
8.600E-07,-0.036
8.700E-07,-0.024
8.800E-07,0.004
8.900E-07,0.044
9.000E-07,0.024
9.100E-07,0.008
9.200E-07,0.024
9.300E-07,-0.008
9.400E-07,-0.040
9.500E-07,-0.048
9.600E-07,-0.020
9.700E-07,0.008
9.800E-07,0.056
9.900E-07,0.060
1.000E-06,0.028
1.010E-06,-0.008
1.020E-06,-0.040
1.030E-06,-0.032
1.040E-06,-0.008
1.050E-06,0.032
1.060E-06,0.056
1.070E-06,0.060
1.080E-06,0.032
1.090E-06,0.016
1.100E-06,-0.004
1.110E-06,0.008
1.120E-06,0.016
1.130E-06,0.060
1.140E-06,0.088
1.150E-06,0.108
1.160E-06,0.096
1.170E-06,0.092
1.180E-06,0.080
1.190E-06,0.080
1.200E-06,0.092
1.210E-06,0.108
1.220E-06,0.132
1.230E-06,0.136
1.240E-06,0.144
1.250E-06,0.112
1.260E-06,0.092
1.270E-06,0.076
1.280E-06,0.076
1.290E-06,0.096
1.300E-06,0.104
1.310E-06,0.116
1.320E-06,0.104
1.330E-06,0.096
1.340E-06,0.096
1.350E-06,0.116
1.360E-06,0.140
1.370E-06,0.140
1.380E-06,0.152
1.390E-06,0.112
1.400E-06,0.028
1.410E-06,-0.100
1.420E-06,-0.260
1.430E-06,-0.408
1.440E-06,-0.512
1.450E-06,-0.384
1.460E-06,-0.360
1.470E-06,-0.052
1.480E-06,0.012
1.490E-06,0.212
1.500E-06,0.228
1.510E-06,0.144
1.520E-06,-0.144
1.530E-06,-0.268
1.540E-06,-0.288
1.550E-06,-0.232
1.560E-06,-0.008
1.570E-06,0.064
1.580E-06,0.212
1.590E-06,0.120
1.600E-06,-0.072
1.610E-06,-0.216
1.620E-06,-0.204
1.630E-06,-0.168
1.640E-06,0.020
1.650E-06,0.104
1.660E-06,0.196
1.670E-06,0.160
1.680E-06,0.040
1.690E-06,-0.076
1.700E-06,-0.128
1.710E-06,-0.100
1.720E-06,0.008
1.730E-06,0.108
1.740E-06,0.104
1.750E-06,0.068
1.760E-06,-0.008
1.770E-06,-0.060
1.780E-06,-0.088
1.790E-06,-0.020
1.800E-06,0.020
1.810E-06,0.088
1.820E-06,0.088
1.830E-06,0.044
1.840E-06,-0.016
1.850E-06,-0.044
1.860E-06,-0.024
1.870E-06,0.004
1.880E-06,0.072
1.890E-06,0.100
1.900E-06,0.104
1.910E-06,0.088
1.920E-06,0.056
1.930E-06,0.036
1.940E-06,0.036
1.950E-06,0.068
1.960E-06,0.140
1.970E-06,0.188
1.980E-06,0.208
1.990E-06,0.192
2.000E-06,0.188
2.010E-06,0.152
2.020E-06,0.156
2.030E-06,0.180
2.040E-06,0.204
2.050E-06,0.216
2.060E-06,0.220
2.070E-06,0.200
2.080E-06,0.176
2.090E-06,0.140
2.100E-06,0.136
2.110E-06,0.132
2.120E-06,0.160
2.130E-06,0.100
2.140E-06,0.008
2.150E-06,-0.060
2.160E-06,-0.040
2.170E-06,-0.156
2.180E-06,-0.216
2.190E-06,-0.252
2.200E-06,-0.372
2.210E-06,-0.192
2.220E-06,-0.124
2.230E-06,0.004
2.240E-06,0.220
2.250E-06,0.160
2.260E-06,-0.200
2.270E-06,-0.140
2.280E-06,-0.512
2.290E-06,-0.072
2.300E-06,-0.252
2.310E-06,0.180
2.320E-06,0.044
2.330E-06,-0.224
2.340E-06,-0.384
2.350E-06,-0.512
2.360E-06,-0.372
2.370E-06,-0.308
2.380E-06,0.084
2.390E-06,0.388
2.400E-06,0.284
2.410E-06,0.144
2.420E-06,-0.104
2.430E-06,-0.372
2.440E-06,-0.420
2.450E-06,-0.112
2.460E-06,0.188
2.470E-06,0.332
2.480E-06,0.372
2.490E-06,0.248
2.500E-06,-0.084
2.510E-06,-0.256
2.520E-06,-0.332
2.530E-06,-0.236
2.540E-06,-0.052
2.550E-06,0.192
2.560E-06,0.332
2.570E-06,0.296
2.580E-06,0.124
2.590E-06,-0.080
2.600E-06,-0.260
2.610E-06,-0.228
2.620E-06,-0.128
2.630E-06,0.104
2.640E-06,0.220
2.650E-06,0.228
2.660E-06,0.172
2.670E-06,0.004
2.680E-06,-0.088
2.690E-06,-0.168
2.700E-06,-0.072
2.710E-06,0.032
2.720E-06,0.144
2.730E-06,0.192
2.740E-06,0.156
2.750E-06,0.056
2.760E-06,-0.036
2.770E-06,-0.108
2.780E-06,-0.096
2.790E-06,0.000
2.800E-06,0.104
2.810E-06,0.156
2.820E-06,0.172
2.830E-06,0.112
2.840E-06,0.036
2.850E-06,-0.032
2.860E-06,-0.024
2.870E-06,0.008
2.880E-06,0.104
2.890E-06,0.188
2.900E-06,0.232
2.910E-06,0.244
2.920E-06,0.184
2.930E-06,0.128
2.940E-06,0.072
2.950E-06,0.076
2.960E-06,0.124
2.970E-06,0.176
2.980E-06,0.240
2.990E-06,0.228
3.000E-06,0.192
3.010E-06,0.148
3.020E-06,0.124
3.030E-06,0.128
3.040E-06,-0.028
3.050E-06,-0.220
3.060E-06,-0.508
3.070E-06,-0.508
3.080E-06,-0.508
3.090E-06,-0.512
3.100E-06,-0.488
3.110E-06,0.544
3.120E-06,0.544
3.130E-06,0.544
3.140E-06,0.004
3.150E-06,-0.372
3.160E-06,-0.512
3.170E-06,-0.512
3.180E-06,-0.068
3.190E-06,0.484
3.200E-06,0.540
3.210E-06,0.496
3.220E-06,0.204
3.230E-06,-0.324
3.240E-06,-0.432
3.250E-06,-0.432
3.260E-06,-0.152
3.270E-06,0.060
3.280E-06,0.312
3.290E-06,0.352
3.300E-06,0.124
3.310E-06,0.000
3.320E-06,-0.276
3.330E-06,-0.212
3.340E-06,-0.208
3.350E-06,0.076
3.360E-06,0.176
3.370E-06,0.244
3.380E-06,0.112
3.390E-06,-0.012
3.400E-06,-0.064
3.410E-06,-0.132
3.420E-06,-0.060
3.430E-06,0.028
3.440E-06,0.128
3.450E-06,0.164
3.460E-06,0.152
3.470E-06,0.104
3.480E-06,0.024
3.490E-06,-0.032
3.500E-06,-0.004
3.510E-06,0.068
3.520E-06,0.140
3.530E-06,0.204
3.540E-06,0.208
3.550E-06,0.220
3.560E-06,0.176
3.570E-06,0.160
3.580E-06,0.128
3.590E-06,0.136
3.600E-06,0.136
3.610E-06,0.104
3.620E-06,0.088
3.630E-06,0.044
3.640E-06,0.100
3.650E-06,0.096
3.660E-06,0.192
3.670E-06,0.140
3.680E-06,0.064
3.690E-06,-0.080
3.700E-06,-0.220
3.710E-06,-0.232
3.720E-06,-0.216
3.730E-06,-0.156
3.740E-06,0.000
3.750E-06,0.048
3.760E-06,0.060
3.770E-06,-0.028
3.780E-06,-0.064
3.790E-06,-0.092
3.800E-06,-0.044
3.810E-06,0.068
3.820E-06,0.140
3.830E-06,0.180
3.840E-06,0.220
3.850E-06,0.188
3.860E-06,0.160
3.870E-06,0.152
3.880E-06,0.136
3.890E-06,0.124
3.900E-06,0.072
3.910E-06,0.024
3.920E-06,-0.036
3.930E-06,-0.076
3.940E-06,-0.180
3.950E-06,-0.160
3.960E-06,-0.168
3.970E-06,-0.184
3.980E-06,0.000
3.990E-06,0.108
4.000E-06,0.076
4.010E-06,-0.004
4.020E-06,0.028
4.030E-06,-0.152
4.040E-06,-0.104
4.050E-06,-0.096
4.060E-06,0.084
4.070E-06,0.204
4.080E-06,0.272
4.090E-06,0.288
4.100E-06,0.260
4.110E-06,0.120
4.120E-06,0.068
4.130E-06,0.024
4.140E-06,0.024
4.150E-06,0.012
4.160E-06,-0.016
4.170E-06,-0.072
4.180E-06,-0.160
4.190E-06,-0.184
4.200E-06,-0.144
4.210E-06,-0.052
4.220E-06,-0.128
4.230E-06,0.036
4.240E-06,0.112
4.250E-06,0.148
4.260E-06,0.132
4.270E-06,0.144
4.280E-06,0.200
4.290E-06,0.120
4.300E-06,0.192
4.310E-06,0.096
4.320E-06,0.056
4.330E-06,-0.040
4.340E-06,-0.156
4.350E-06,-0.164
4.360E-06,-0.112
4.370E-06,-0.168
4.380E-06,-0.128
4.390E-06,-0.140
4.400E-06,-0.180
4.410E-06,-0.140
4.420E-06,-0.256
4.430E-06,-0.156
4.440E-06,-0.052
4.450E-06,0.016
4.460E-06,0.072
4.470E-06,0.084
4.480E-06,0.092
4.490E-06,0.152
4.500E-06,0.184
4.510E-06,0.160
4.520E-06,0.100
4.530E-06,0.032
4.540E-06,0.000
4.550E-06,0.052
4.560E-06,0.084
4.570E-06,0.076
4.580E-06,0.104
4.590E-06,0.004
4.600E-06,-0.020
4.610E-06,-0.072
4.620E-06,-0.012
4.630E-06,0.060
4.640E-06,0.168
4.650E-06,0.276
4.660E-06,0.280
4.670E-06,0.272
4.680E-06,0.160
4.690E-06,0.108
4.700E-06,0.064
4.710E-06,0.124
4.720E-06,0.208
4.730E-06,0.280
4.740E-06,0.300
4.750E-06,0.272
4.760E-06,0.212
4.770E-06,0.144
4.780E-06,0.112
4.790E-06,0.128
4.800E-06,0.184
4.810E-06,0.236
4.820E-06,0.264
4.830E-06,0.244
4.840E-06,0.212
4.850E-06,0.156
4.860E-06,0.144
4.870E-06,0.152
4.880E-06,0.184
4.890E-06,0.216
4.900E-06,0.232
4.910E-06,0.240
4.920E-06,0.208
4.930E-06,0.176
4.940E-06,0.140
4.950E-06,0.128
4.960E-06,0.152
4.970E-06,0.156
4.980E-06,0.184
4.990E-06,0.188
5.000E-06,0.128
5.010E-06,0.112
5.020E-06,0.124
5.030E-06,0.160
5.040E-06,0.212
5.050E-06,0.220
5.060E-06,0.244
5.070E-06,0.212
5.080E-06,0.164
5.090E-06,0.144
5.100E-06,0.140
5.110E-06,0.164
5.120E-06,0.192
5.130E-06,0.208
5.140E-06,0.200
5.150E-06,0.180
5.160E-06,0.152
5.170E-06,0.148
5.180E-06,0.160
5.190E-06,0.176
5.200E-06,0.184
5.210E-06,0.192
5.220E-06,0.176
5.230E-06,0.120
5.240E-06,0.044
5.250E-06,-0.088
5.260E-06,-0.168
5.270E-06,-0.268
5.280E-06,-0.328
5.290E-06,-0.340
5.300E-06,-0.176
5.310E-06,-0.040
5.320E-06,-0.100
5.330E-06,-0.240
5.340E-06,-0.076
5.350E-06,-0.060
5.360E-06,-0.112
5.370E-06,-0.040
5.380E-06,0.344
5.390E-06,0.468
5.400E-06,0.372
5.410E-06,0.272
5.420E-06,0.136
5.430E-06,0.048
5.440E-06,0.060
5.450E-06,0.144
5.460E-06,0.252
5.470E-06,0.360
5.480E-06,0.388
5.490E-06,0.288
5.500E-06,0.152
5.510E-06,0.060
5.520E-06,0.020
5.530E-06,0.100
5.540E-06,0.220
5.550E-06,0.324
5.560E-06,0.348
5.570E-06,0.292
5.580E-06,0.208
5.590E-06,0.116
5.600E-06,0.076
5.610E-06,0.104
5.620E-06,0.192
5.630E-06,0.264
5.640E-06,0.316
5.650E-06,0.292
5.660E-06,0.224
5.670E-06,0.136
5.680E-06,0.092
5.690E-06,0.096
5.700E-06,0.160
5.710E-06,0.224
5.720E-06,0.280
5.730E-06,0.280
5.740E-06,0.236
5.750E-06,0.172
5.760E-06,0.124
5.770E-06,0.116
5.780E-06,0.148
5.790E-06,0.212
5.800E-06,0.256
5.810E-06,0.260
5.820E-06,0.232
5.830E-06,0.180
5.840E-06,0.136
5.850E-06,0.124
5.860E-06,0.140
5.870E-06,0.188
5.880E-06,0.228
5.890E-06,0.244
5.900E-06,0.232
5.910E-06,0.192
5.920E-06,0.152
5.930E-06,0.140
5.940E-06,0.144
5.950E-06,0.172
5.960E-06,0.208
5.970E-06,0.224
5.980E-06,0.220
5.990E-06,0.196
6.000E-06,0.172
6.010E-06,0.152
6.020E-06,0.148
6.030E-06,0.160
6.040E-06,0.192
6.050E-06,0.208
6.060E-06,0.220
6.070E-06,0.208
6.080E-06,0.188
6.090E-06,0.164
6.100E-06,0.160
6.110E-06,0.164
6.120E-06,0.180
6.130E-06,0.192
6.140E-06,0.192
6.150E-06,0.188
6.160E-06,0.180
6.170E-06,0.156
6.180E-06,0.148
6.190E-06,0.156
6.200E-06,0.164
6.210E-06,0.184
6.220E-06,0.188
6.230E-06,0.188
6.240E-06,0.184
6.250E-06,0.172
6.260E-06,0.164
6.270E-06,0.164
6.280E-06,0.172
6.290E-06,0.176
6.300E-06,0.192
6.310E-06,0.192
6.320E-06,0.184
6.330E-06,0.172
6.340E-06,0.156
6.350E-06,0.160
6.360E-06,0.164
6.370E-06,0.176
6.380E-06,0.180
6.390E-06,0.188
6.400E-06,0.176
6.410E-06,0.164
6.420E-06,0.160
6.430E-06,0.160
6.440E-06,0.156
6.450E-06,0.168
6.460E-06,0.172
6.470E-06,0.172
6.480E-06,0.176
6.490E-06,0.168
6.500E-06,0.164
6.510E-06,0.152
6.520E-06,0.156
6.530E-06,0.160
6.540E-06,0.160
6.550E-06,0.168
6.560E-06,0.168
6.570E-06,0.164
6.580E-06,0.152
6.590E-06,0.152
6.600E-06,0.160
6.610E-06,0.160
6.620E-06,0.160
6.630E-06,0.156
6.640E-06,0.156
6.650E-06,0.156
6.660E-06,0.152
6.670E-06,0.156
6.680E-06,0.156
6.690E-06,0.156
6.700E-06,0.160
6.710E-06,0.160
6.720E-06,0.152
6.730E-06,0.152
6.740E-06,0.156
6.750E-06,0.148
6.760E-06,0.140
6.770E-06,0.136
6.780E-06,0.144
6.790E-06,0.140
6.800E-06,0.148
6.810E-06,0.152
6.820E-06,0.156
6.830E-06,0.156
6.840E-06,0.156
6.850E-06,0.152
6.860E-06,0.152
6.870E-06,0.152
6.880E-06,0.152
6.890E-06,0.160
6.900E-06,0.156
6.910E-06,0.164
6.920E-06,0.152
6.930E-06,0.148
6.940E-06,0.144
6.950E-06,0.148
6.960E-06,0.148
6.970E-06,0.152
6.980E-06,0.148
6.990E-06,0.156
7.000E-06,0.152
7.010E-06,0.152
7.020E-06,0.144
7.030E-06,0.136
7.040E-06,0.136
7.050E-06,0.140
7.060E-06,0.144
7.070E-06,0.140
7.080E-06,0.136
7.090E-06,0.140
7.100E-06,0.140
7.110E-06,0.136
7.120E-06,0.136
7.130E-06,0.132
7.140E-06,0.140
7.150E-06,0.140
7.160E-06,0.140
7.170E-06,0.136
7.180E-06,0.132
7.190E-06,0.136
7.200E-06,0.136
7.210E-06,0.140
7.220E-06,0.144
7.230E-06,0.140
7.240E-06,0.144
7.250E-06,0.140
7.260E-06,0.132
7.270E-06,0.128
7.280E-06,0.128
7.290E-06,0.128
7.300E-06,0.136
7.310E-06,0.140
7.320E-06,0.136
7.330E-06,0.136
7.340E-06,0.132
7.350E-06,0.132
7.360E-06,0.124
7.370E-06,0.128
7.380E-06,0.128
7.390E-06,0.132
7.400E-06,0.132
7.410E-06,0.132
7.420E-06,0.132
7.430E-06,0.128
7.440E-06,0.120
7.450E-06,0.112
7.460E-06,0.116
7.470E-06,0.124
7.480E-06,0.124
7.490E-06,0.124
7.500E-06,0.120
7.510E-06,0.108
7.520E-06,0.108
7.530E-06,0.112
7.540E-06,0.112
7.550E-06,0.124
7.560E-06,0.124
7.570E-06,0.112
7.580E-06,0.104
7.590E-06,0.108
7.600E-06,0.104
7.610E-06,0.112
7.620E-06,0.116
7.630E-06,0.124
7.640E-06,0.124
7.650E-06,0.120
7.660E-06,0.112
7.670E-06,0.108
7.680E-06,0.108
7.690E-06,0.108
7.700E-06,0.120
7.710E-06,0.124
7.720E-06,0.128
7.730E-06,0.124
7.740E-06,0.108
7.750E-06,0.112
7.760E-06,0.108
7.770E-06,0.108
7.780E-06,0.112
