mediciones/Mediciones filtradas (saque las feas)/6-10/6.4/WaveData5660.csv

#timebase=2000000(ps)
,#voltbase=200000(mv/100)
#size=4000
-4.200E-06,0.000
-4.190E-06,-0.008
-4.180E-06,0.000
-4.170E-06,0.016
-4.160E-06,0.008
-4.150E-06,0.016
-4.140E-06,0.008
-4.130E-06,0.008
-4.120E-06,-0.008
-4.110E-06,-0.008
-4.100E-06,0.000
-4.090E-06,-0.008
-4.080E-06,0.000
-4.070E-06,0.000
-4.060E-06,-0.008
-4.050E-06,0.008
-4.040E-06,-0.008
-4.030E-06,0.000
-4.020E-06,0.000
-4.010E-06,0.008
-4.000E-06,0.000
-3.990E-06,0.000
-3.980E-06,0.000
-3.970E-06,0.000
-3.960E-06,0.008
-3.950E-06,-0.008
-3.940E-06,-0.008
-3.930E-06,0.000
-3.920E-06,-0.008
-3.910E-06,-0.008
-3.900E-06,0.000
-3.890E-06,-0.008
-3.880E-06,0.000
-3.870E-06,0.000
-3.860E-06,0.000
-3.850E-06,0.000
-3.840E-06,-0.008
-3.830E-06,-0.008
-3.820E-06,0.000
-3.810E-06,-0.008
-3.800E-06,0.000
-3.790E-06,0.000
-3.780E-06,0.000
-3.770E-06,0.008
-3.760E-06,0.008
-3.750E-06,-0.008
-3.740E-06,0.008
-3.730E-06,0.000
-3.720E-06,0.000
-3.710E-06,-0.008
-3.700E-06,0.000
-3.690E-06,0.000
-3.680E-06,0.000
-3.670E-06,0.008
-3.660E-06,-0.008
-3.650E-06,-0.008
-3.640E-06,0.000
-3.630E-06,-0.008
-3.620E-06,0.000
-3.610E-06,0.000
-3.600E-06,0.000
-3.590E-06,0.008
-3.580E-06,0.008
-3.570E-06,0.008
-3.560E-06,0.000
-3.550E-06,0.000
-3.540E-06,-0.008
-3.530E-06,0.000
-3.520E-06,-0.008
-3.510E-06,-0.008
-3.500E-06,0.000
-3.490E-06,0.008
-3.480E-06,0.008
-3.470E-06,-0.008
-3.460E-06,0.008
-3.450E-06,0.008
-3.440E-06,0.000
-3.430E-06,0.008
-3.420E-06,0.000
-3.410E-06,0.008
-3.400E-06,0.000
-3.390E-06,-0.016
-3.380E-06,0.024
-3.370E-06,0.280
-3.360E-06,0.856
-3.350E-06,1.088
-3.340E-06,1.080
-3.330E-06,1.080
-3.320E-06,1.072
-3.310E-06,1.080
-3.300E-06,0.760
-3.290E-06,-0.688
-3.280E-06,-1.048
-3.270E-06,-1.032
-3.260E-06,-1.040
-3.250E-06,-1.040
-3.240E-06,-1.040
-3.230E-06,-1.048
-3.220E-06,-1.040
-3.210E-06,-1.032
-3.200E-06,-1.032
-3.190E-06,-0.728
-3.180E-06,-0.304
-3.170E-06,0.000
-3.160E-06,0.264
-3.150E-06,0.304
-3.140E-06,0.368
-3.130E-06,0.480
-3.120E-06,0.544
-3.110E-06,0.696
-3.100E-06,0.800
-3.090E-06,0.912
-3.080E-06,1.072
-3.070E-06,1.080
-3.060E-06,1.080
-3.050E-06,1.072
-3.040E-06,1.080
-3.030E-06,1.016
-3.020E-06,0.728
-3.010E-06,0.408
-3.000E-06,-0.008
-2.990E-06,-0.320
-2.980E-06,-0.600
-2.970E-06,-0.728
-2.960E-06,-0.760
-2.950E-06,-0.704
-2.940E-06,-0.536
-2.930E-06,-0.360
-2.920E-06,-0.096
-2.910E-06,0.168
-2.900E-06,0.440
-2.890E-06,0.688
-2.880E-06,0.888
-2.870E-06,0.992
-2.860E-06,0.992
-2.850E-06,0.864
-2.840E-06,0.688
-2.830E-06,0.496
-2.820E-06,0.328
-2.810E-06,0.168
-2.800E-06,0.032
-2.790E-06,-0.112
-2.780E-06,-0.328
-2.770E-06,-0.528
-2.760E-06,-0.800
-2.750E-06,-1.024
-2.740E-06,-1.048
-2.730E-06,-1.040
-2.720E-06,-1.048
-2.710E-06,-1.048
-2.700E-06,-1.032
-2.690E-06,-1.040
-2.680E-06,-1.048
-2.670E-06,-0.872
-2.660E-06,-0.576
-2.650E-06,-0.304
-2.640E-06,0.016
-2.630E-06,0.288
-2.620E-06,0.512
-2.610E-06,0.720
-2.600E-06,0.856
-2.590E-06,0.928
-2.580E-06,0.968
-2.570E-06,0.912
-2.560E-06,0.808
-2.550E-06,0.640
-2.540E-06,0.480
-2.530E-06,0.368
-2.520E-06,0.224
-2.510E-06,0.136
-2.500E-06,0.056
-2.490E-06,-0.040
-2.480E-06,-0.136
-2.470E-06,-0.224
-2.460E-06,-0.296
-2.450E-06,-0.352
-2.440E-06,-0.400
-2.430E-06,-0.424
-2.420E-06,-0.424
-2.410E-06,-0.400
-2.400E-06,-0.344
-2.390E-06,-0.256
-2.380E-06,-0.144
-2.370E-06,-0.024
-2.360E-06,0.120
-2.350E-06,0.232
-2.340E-06,0.360
-2.330E-06,0.424
-2.320E-06,0.456
-2.310E-06,0.496
-2.300E-06,0.488
-2.290E-06,0.480
-2.280E-06,0.464
-2.270E-06,0.400
-2.260E-06,0.344
-2.250E-06,0.248
-2.240E-06,0.152
-2.230E-06,0.080
-2.220E-06,0.016
-2.210E-06,-0.040
-2.200E-06,-0.064
-2.190E-06,-0.080
-2.180E-06,-0.080
-2.170E-06,-0.096
-2.160E-06,-0.088
-2.150E-06,-0.144
-2.140E-06,-0.152
-2.130E-06,-0.144
-2.120E-06,-0.144
-2.110E-06,-0.088
-2.100E-06,-0.024
-2.090E-06,0.040
-2.080E-06,0.032
-2.070E-06,0.008
-2.060E-06,0.016
-2.050E-06,0.008
-2.040E-06,-0.008
-2.030E-06,-0.072
-2.020E-06,0.144
-2.010E-06,0.136
-2.000E-06,0.280
-1.990E-06,0.456
-1.980E-06,0.488
-1.970E-06,0.488
-1.960E-06,0.544
-1.950E-06,0.504
-1.940E-06,0.496
-1.930E-06,0.728
-1.920E-06,0.264
-1.910E-06,0.280
-1.900E-06,0.200
-1.890E-06,-0.032
-1.880E-06,0.344
-1.870E-06,0.576
-1.860E-06,0.704
-1.850E-06,0.720
-1.840E-06,0.688
-1.830E-06,0.368
-1.820E-06,0.200
-1.810E-06,0.480
-1.800E-06,0.368
-1.790E-06,0.736
-1.780E-06,0.840
-1.770E-06,0.656
-1.760E-06,0.688
-1.750E-06,0.264
-1.740E-06,0.096
-1.730E-06,0.024
-1.720E-06,0.080
-1.710E-06,0.288
-1.700E-06,0.408
-1.690E-06,0.440
-1.680E-06,0.400
-1.670E-06,0.192
-1.660E-06,0.024
-1.650E-06,-0.024
-1.640E-06,-0.048
-1.630E-06,-0.040
-1.620E-06,0.024
-1.610E-06,-0.024
-1.600E-06,-0.128
-1.590E-06,-0.200
-1.580E-06,-0.344
-1.570E-06,-0.360
-1.560E-06,-0.280
-1.550E-06,-0.224
-1.540E-06,-0.024
-1.530E-06,-0.048
-1.520E-06,-0.200
-1.510E-06,-0.488
-1.500E-06,-0.840
-1.490E-06,-1.024
-1.480E-06,-1.048
-1.470E-06,-0.568
-1.460E-06,-0.264
-1.450E-06,0.016
-1.440E-06,0.632
-1.430E-06,0.608
-1.420E-06,0.680
-1.410E-06,1.080
-1.400E-06,1.080
-1.390E-06,1.080
-1.380E-06,1.080
-1.370E-06,0.848
-1.360E-06,0.736
-1.350E-06,0.984
-1.340E-06,0.504
-1.330E-06,0.880
-1.320E-06,0.736
-1.310E-06,0.096
-1.300E-06,0.296
-1.290E-06,-0.080
-1.280E-06,-0.184
-1.270E-06,0.184
-1.260E-06,0.000
-1.250E-06,0.080
-1.240E-06,0.112
-1.230E-06,-0.184
-1.220E-06,-0.168
-1.210E-06,-0.224
-1.200E-06,-0.168
-1.190E-06,-0.040
-1.180E-06,0.128
-1.170E-06,0.240
-1.160E-06,0.336
-1.150E-06,0.408
-1.140E-06,0.392
-1.130E-06,0.392
-1.120E-06,0.416
-1.110E-06,0.416
-1.100E-06,0.464
-1.090E-06,0.504
-1.080E-06,0.432
-1.070E-06,0.456
-1.060E-06,0.312
-1.050E-06,0.200
-1.040E-06,0.128
-1.030E-06,0.000
-1.020E-06,0.112
-1.010E-06,0.064
-1.000E-06,0.136
-9.900E-07,0.088
-9.800E-07,-0.016
-9.700E-07,-0.064
-9.600E-07,0.000
-9.500E-07,0.096
-9.400E-07,0.200
-9.300E-07,0.376
-9.200E-07,0.312
-9.100E-07,0.312
-9.000E-07,0.280
-8.900E-07,0.168
-8.800E-07,0.360
-8.700E-07,0.440
-8.600E-07,0.520
-8.500E-07,0.704
-8.400E-07,0.576
-8.300E-07,0.624
-8.200E-07,0.288
-8.100E-07,0.120
-8.000E-07,0.216
-7.900E-07,-0.216
-7.800E-07,0.072
-7.700E-07,-0.080
-7.600E-07,-0.312
-7.500E-07,0.168
-7.400E-07,0.304
-7.300E-07,0.832
-7.200E-07,0.880
-7.100E-07,1.072
-7.000E-07,0.648
-6.900E-07,0.240
-6.800E-07,-0.888
-6.700E-07,-1.040
-6.600E-07,-0.992
-6.500E-07,-0.824
-6.400E-07,0.592
-6.300E-07,1.080
-6.200E-07,1.088
-6.100E-07,0.832
-6.000E-07,-0.128
-5.900E-07,-0.584
-5.800E-07,-0.016
-5.700E-07,0.216
-5.600E-07,1.088
-5.500E-07,1.080
-5.400E-07,1.072
-5.300E-07,0.680
-5.200E-07,0.184
-5.100E-07,-0.192
-5.000E-07,0.160
-4.900E-07,0.264
-4.800E-07,0.472
-4.700E-07,0.456
-4.600E-07,0.096
-4.500E-07,-0.192
-4.400E-07,-0.464
-4.300E-07,-0.592
-4.200E-07,-0.560
-4.100E-07,-0.432
-4.000E-07,-0.256
-3.900E-07,-0.184
-3.800E-07,-0.256
-3.700E-07,-0.296
-3.600E-07,-0.512
-3.500E-07,-0.496
-3.400E-07,-0.304
-3.300E-07,-0.224
-3.200E-07,0.080
-3.100E-07,0.128
-3.000E-07,0.168
-2.900E-07,0.192
-2.800E-07,0.184
-2.700E-07,0.128
-2.600E-07,0.184
-2.500E-07,0.248
-2.400E-07,0.368
-2.300E-07,0.616
-2.200E-07,0.632
-2.100E-07,0.600
-2.000E-07,0.464
-1.900E-07,0.200
-1.800E-07,0.152
-1.700E-07,0.056
-1.600E-07,0.016
-1.500E-07,-0.008
-1.400E-07,-0.112
-1.300E-07,-0.272
-1.200E-07,-0.400
-1.100E-07,-0.504
-1.000E-07,-0.592
-9.000E-08,-0.512
-8.000E-08,-0.472
-7.000E-08,-0.352
-6.000E-08,-0.624
-5.000E-08,-0.168
-4.000E-08,-0.040
-3.000E-08,-0.760
-2.000E-08,-0.392
-1.000E-08,-1.040
0.000E+00,-0.864
1.000E-08,0.592
2.000E-08,0.768
3.000E-08,1.088
4.000E-08,0.856
5.000E-08,-0.456
6.000E-08,-1.040
7.000E-08,-1.048
8.000E-08,-1.048
9.000E-08,-0.048
1.000E-07,1.080
1.100E-07,0.976
1.200E-07,1.072
1.300E-07,0.024
1.400E-07,-0.736
1.500E-07,-0.456
1.600E-07,-0.384
1.700E-07,0.368
1.800E-07,1.024
1.900E-07,0.840
2.000E-07,0.656
2.100E-07,0.176
2.200E-07,-0.320
2.300E-07,-0.392
2.400E-07,-0.288
2.500E-07,-0.120
2.600E-07,0.128
2.700E-07,0.224
2.800E-07,0.120
2.900E-07,-0.016
3.000E-07,-0.200
3.100E-07,-0.248
3.200E-07,-0.168
3.300E-07,-0.016
3.400E-07,0.128
3.500E-07,0.344
3.600E-07,0.472
3.700E-07,0.336
3.800E-07,0.232
3.900E-07,-0.104
4.000E-07,-0.240
4.100E-07,-0.232
4.200E-07,-0.144
4.300E-07,0.048
4.400E-07,-0.016
4.500E-07,-0.080
4.600E-07,-0.304
4.700E-07,-0.368
4.800E-07,-0.496
4.900E-07,-0.456
5.000E-07,-0.304
5.100E-07,-0.136
5.200E-07,0.040
5.300E-07,0.320
5.400E-07,0.288
5.500E-07,0.376
5.600E-07,0.384
5.700E-07,0.376
5.800E-07,0.368
5.900E-07,0.464
6.000E-07,0.392
6.100E-07,0.208
6.200E-07,0.296
6.300E-07,0.040
6.400E-07,0.168
6.500E-07,0.520
6.600E-07,0.616
6.700E-07,0.736
6.800E-07,0.600
6.900E-07,0.272
7.000E-07,0.000
7.100E-07,-0.912
7.200E-07,-0.784
7.300E-07,-1.032
7.400E-07,-0.792
7.500E-07,-1.032
7.600E-07,-0.120
7.700E-07,0.128
7.800E-07,0.168
7.900E-07,0.464
8.000E-07,0.136
8.100E-07,0.208
8.200E-07,0.008
8.300E-07,0.424
8.400E-07,0.608
8.500E-07,0.872
8.600E-07,1.072
8.700E-07,0.680
8.800E-07,0.416
8.900E-07,0.304
9.000E-07,0.168
9.100E-07,0.496
9.200E-07,0.848
9.300E-07,0.880
9.400E-07,0.800
9.500E-07,0.472
9.600E-07,0.000
9.700E-07,-0.320
9.800E-07,-0.264
9.900E-07,-0.360
1.000E-06,-0.136
1.010E-06,0.168
1.020E-06,-0.080
1.030E-06,0.016
1.040E-06,-0.232
1.050E-06,-0.640
1.060E-06,-0.672
1.070E-06,-0.720
1.080E-06,-0.472
1.090E-06,0.144
1.100E-06,0.624
1.110E-06,0.808
1.120E-06,0.576
1.130E-06,0.480
1.140E-06,0.200
1.150E-06,-0.176
1.160E-06,0.120
1.170E-06,0.040
1.180E-06,0.288
1.190E-06,0.168
1.200E-06,-0.296
1.210E-06,-0.672
1.220E-06,-0.576
1.230E-06,-0.712
1.240E-06,-0.632
1.250E-06,-0.264
1.260E-06,-0.200
1.270E-06,-0.128
1.280E-06,-0.064
1.290E-06,-0.280
1.300E-06,-0.040
1.310E-06,0.048
1.320E-06,0.176
1.330E-06,0.560
1.340E-06,0.576
1.350E-06,0.840
1.360E-06,0.728
1.370E-06,0.520
1.380E-06,0.512
1.390E-06,-0.040
1.400E-06,0.024
1.410E-06,0.200
1.420E-06,0.688
1.430E-06,1.080
1.440E-06,1.088
1.450E-06,1.080
1.460E-06,0.968
1.470E-06,0.520
1.480E-06,-0.160
1.490E-06,-0.496
1.500E-06,-0.608
1.510E-06,-0.592
1.520E-06,-0.552
1.530E-06,-0.832
1.540E-06,-0.600
1.550E-06,-0.736
1.560E-06,-0.440
1.570E-06,0.128
1.580E-06,0.584
1.590E-06,1.008
1.600E-06,1.088
1.610E-06,1.080
1.620E-06,1.088
1.630E-06,1.080
1.640E-06,0.712
1.650E-06,0.496
1.660E-06,0.400
1.670E-06,0.024
1.680E-06,0.232
1.690E-06,0.136
1.700E-06,0.264
1.710E-06,0.408
1.720E-06,-0.056
1.730E-06,-0.096
1.740E-06,-0.624
1.750E-06,-1.040
1.760E-06,-1.008
1.770E-06,-0.928
1.780E-06,-0.640
1.790E-06,-0.416
1.800E-06,-0.632
1.810E-06,-0.536
1.820E-06,-1.048
1.830E-06,-1.040
1.840E-06,-1.048
1.850E-06,-1.032
1.860E-06,-1.040
1.870E-06,-1.040
1.880E-06,-1.048
1.890E-06,-1.040
1.900E-06,-1.040
1.910E-06,-1.048
1.920E-06,-1.040
1.930E-06,-1.032
1.940E-06,-1.040
1.950E-06,-1.040
1.960E-06,-1.040
1.970E-06,-1.040
1.980E-06,-1.040
1.990E-06,-1.040
2.000E-06,-1.048
2.010E-06,-1.040
2.020E-06,-1.032
2.030E-06,-1.032
2.040E-06,-1.040
2.050E-06,-1.040
2.060E-06,-1.048
2.070E-06,-1.040
2.080E-06,-1.048
2.090E-06,-1.032
2.100E-06,-1.040
2.110E-06,-1.048
2.120E-06,-1.040
2.130E-06,-1.048
2.140E-06,-1.048
2.150E-06,-1.048
2.160E-06,-1.016
2.170E-06,-0.976
2.180E-06,-0.720
2.190E-06,-0.504
2.200E-06,-0.608
2.210E-06,-0.200
2.220E-06,-0.376
2.230E-06,-0.168
2.240E-06,1.080
2.250E-06,0.864
2.260E-06,1.080
2.270E-06,1.080
2.280E-06,0.480
2.290E-06,0.816
2.300E-06,-0.072
2.310E-06,-0.064
2.320E-06,1.016
2.330E-06,0.872
2.340E-06,1.080
2.350E-06,1.080
2.360E-06,0.416
2.370E-06,0.392
2.380E-06,-0.032
2.390E-06,0.000
2.400E-06,0.224
2.410E-06,0.272
2.420E-06,0.144
2.430E-06,-0.200
2.440E-06,0.040
2.450E-06,-0.424
2.460E-06,-0.576
2.470E-06,-0.696
2.480E-06,-1.032
2.490E-06,-1.040
2.500E-06,-1.048
2.510E-06,-1.040
2.520E-06,-0.976
2.530E-06,-0.896
2.540E-06,-0.696
2.550E-06,-0.792
2.560E-06,-0.752
2.570E-06,-0.568
2.580E-06,-0.344
2.590E-06,-0.064
2.600E-06,0.152
2.610E-06,0.216
2.620E-06,0.056
2.630E-06,0.072
2.640E-06,0.064
2.650E-06,0.160
2.660E-06,0.296
2.670E-06,0.400
2.680E-06,0.400
2.690E-06,0.224
2.700E-06,0.024
2.710E-06,-0.160
2.720E-06,-0.392
2.730E-06,-0.472
2.740E-06,-0.544
2.750E-06,-0.520
2.760E-06,-0.432
2.770E-06,-0.472
2.780E-06,-0.496
2.790E-06,0.008
2.800E-06,-0.192
2.810E-06,-0.360
2.820E-06,-0.360
2.830E-06,-0.256
2.840E-06,0.088
2.850E-06,0.392
2.860E-06,0.656
2.870E-06,0.536
2.880E-06,0.416
2.890E-06,-0.072
2.900E-06,-0.400
2.910E-06,-0.528
2.920E-06,-0.616
2.930E-06,-0.280
2.940E-06,0.088
2.950E-06,0.464
2.960E-06,0.896
2.970E-06,1.080
2.980E-06,1.088
2.990E-06,1.088
3.000E-06,1.080
3.010E-06,1.088
3.020E-06,1.072
3.030E-06,0.944
3.040E-06,0.784
3.050E-06,0.488
3.060E-06,0.072
3.070E-06,-0.416
3.080E-06,-0.928
3.090E-06,-1.040
3.100E-06,-1.048
3.110E-06,-1.040
3.120E-06,-1.040
3.130E-06,-1.040
3.140E-06,-1.048
3.150E-06,-1.040
3.160E-06,-1.032
3.170E-06,-1.040
3.180E-06,-1.048
3.190E-06,-1.040
3.200E-06,-1.040
3.210E-06,-0.928
3.220E-06,-0.544
3.230E-06,-0.320
3.240E-06,-0.136
3.250E-06,0.040
3.260E-06,0.200
3.270E-06,0.400
3.280E-06,0.560
3.290E-06,0.688
3.300E-06,0.728
3.310E-06,0.688
3.320E-06,0.528
3.330E-06,0.368
3.340E-06,0.224
3.350E-06,0.096
3.360E-06,0.072
3.370E-06,0.016
3.380E-06,-0.104
3.390E-06,-0.232
3.400E-06,-0.464
3.410E-06,-0.712
3.420E-06,-0.832
3.430E-06,-0.920
3.440E-06,-0.896
3.450E-06,-0.832
3.460E-06,-0.776
3.470E-06,-0.712
3.480E-06,-0.656
3.490E-06,-0.568
3.500E-06,-0.424
3.510E-06,-0.256
3.520E-06,-0.080
3.530E-06,0.088
3.540E-06,0.200
3.550E-06,0.280
3.560E-06,0.288
3.570E-06,0.240
3.580E-06,0.232
3.590E-06,0.184
3.600E-06,0.176
3.610E-06,0.160
3.620E-06,0.104
3.630E-06,0.032
3.640E-06,-0.048
3.650E-06,-0.200
3.660E-06,-0.328
3.670E-06,-0.440
3.680E-06,-0.544
3.690E-06,-0.560
3.700E-06,-0.600
3.710E-06,-0.576
3.720E-06,-0.584
3.730E-06,-0.664
3.740E-06,-0.672
3.750E-06,-0.696
3.760E-06,-0.632
3.770E-06,-0.520
3.780E-06,-0.440
3.790E-06,-0.320
3.800E-06,-0.216
3.810E-06,-0.176
3.820E-06,-0.104
3.830E-06,-0.096
3.840E-06,-0.128
3.850E-06,-0.128
3.860E-06,-0.136
3.870E-06,-0.120
3.880E-06,-0.088
3.890E-06,-0.088
3.900E-06,-0.152
3.910E-06,-0.208
3.920E-06,-0.312
3.930E-06,-0.400
3.940E-06,-0.424
3.950E-06,-0.488
3.960E-06,-0.520
3.970E-06,-0.608
3.980E-06,-0.696
3.990E-06,-0.760
4.000E-06,-0.784
4.010E-06,-0.776
4.020E-06,-0.696
4.030E-06,-0.664
4.040E-06,-0.632
4.050E-06,-0.616
4.060E-06,-0.592
4.070E-06,-0.536
4.080E-06,-0.432
4.090E-06,-0.312
4.100E-06,-0.224
4.110E-06,-0.120
4.120E-06,-0.072
4.130E-06,-0.024
4.140E-06,0.024
4.150E-06,0.048
4.160E-06,0.048
4.170E-06,0.056
4.180E-06,0.040
4.190E-06,0.000
4.200E-06,-0.024
4.210E-06,-0.088
4.220E-06,-0.128
4.230E-06,-0.192
4.240E-06,-0.240
4.250E-06,-0.288
4.260E-06,-0.328
4.270E-06,-0.336
4.280E-06,-0.320
4.290E-06,-0.272
4.300E-06,-0.240
4.310E-06,-0.224
4.320E-06,-0.192
4.330E-06,-0.184
4.340E-06,-0.152
4.350E-06,-0.096
4.360E-06,-0.016
4.370E-06,0.064
4.380E-06,0.136
4.390E-06,0.152
4.400E-06,0.136
4.410E-06,0.112
4.420E-06,0.064
4.430E-06,0.024
4.440E-06,0.000
4.450E-06,-0.056
4.460E-06,-0.136
4.470E-06,-0.240
4.480E-06,-0.328
4.490E-06,-0.416
4.500E-06,-0.440
4.510E-06,-0.472
4.520E-06,-0.480
4.530E-06,-0.456
4.540E-06,-0.432
4.550E-06,-0.400
4.560E-06,-0.376
4.570E-06,-0.336
4.580E-06,-0.288
4.590E-06,-0.240
4.600E-06,-0.168
4.610E-06,-0.088
4.620E-06,-0.024
4.630E-06,0.056
4.640E-06,0.064
4.650E-06,0.096
4.660E-06,0.120
4.670E-06,0.072
4.680E-06,0.072
4.690E-06,0.048
4.700E-06,0.008
4.710E-06,-0.008
4.720E-06,-0.032
4.730E-06,-0.096
4.740E-06,-0.128
4.750E-06,-0.168
4.760E-06,-0.224
4.770E-06,-0.224
4.780E-06,-0.240
4.790E-06,-0.232
4.800E-06,-0.232
4.810E-06,-0.272
4.820E-06,-0.272
4.830E-06,-0.280
4.840E-06,-0.264
4.850E-06,-0.256
4.860E-06,-0.208
4.870E-06,-0.176
4.880E-06,-0.160
4.890E-06,-0.136
4.900E-06,-0.136
4.910E-06,-0.152
4.920E-06,-0.152
4.930E-06,-0.168
4.940E-06,-0.168
4.950E-06,-0.192
4.960E-06,-0.200
4.970E-06,-0.136
4.980E-06,-0.128
4.990E-06,-0.096
5.000E-06,-0.056
5.010E-06,-0.064
5.020E-06,-0.048
5.030E-06,-0.016
5.040E-06,0.024
5.050E-06,0.104
5.060E-06,0.160
5.070E-06,0.224
5.080E-06,0.272
5.090E-06,0.288
5.100E-06,0.240
5.110E-06,0.200
5.120E-06,0.144
5.130E-06,0.096
5.140E-06,0.064
5.150E-06,0.024
5.160E-06,0.016
5.170E-06,0.024
5.180E-06,0.016
5.190E-06,0.024
5.200E-06,0.016
5.210E-06,-0.008
5.220E-06,0.016
5.230E-06,0.008
5.240E-06,0.016
5.250E-06,0.008
5.260E-06,-0.016
5.270E-06,-0.040
5.280E-06,-0.096
5.290E-06,-0.160
5.300E-06,-0.224
5.310E-06,-0.288
5.320E-06,-0.368
5.330E-06,-0.384
5.340E-06,-0.416
5.350E-06,-0.440
5.360E-06,-0.440
5.370E-06,-0.400
5.380E-06,-0.312
5.390E-06,-0.272
5.400E-06,-0.200
5.410E-06,-0.160
5.420E-06,-0.168
5.430E-06,-0.136
5.440E-06,-0.160
5.450E-06,-0.200
5.460E-06,-0.208
5.470E-06,-0.248
5.480E-06,-0.248
5.490E-06,-0.232
5.500E-06,-0.216
5.510E-06,-0.192
5.520E-06,-0.192
5.530E-06,-0.168
5.540E-06,-0.136
5.550E-06,-0.064
5.560E-06,0.024
5.570E-06,0.104
5.580E-06,0.192
5.590E-06,0.248
5.600E-06,0.296
5.610E-06,0.352
5.620E-06,0.392
5.630E-06,0.432
5.640E-06,0.440
5.650E-06,0.408
5.660E-06,0.360
5.670E-06,0.304
5.680E-06,0.240
5.690E-06,0.200
5.700E-06,0.136
5.710E-06,0.096
5.720E-06,0.040
5.730E-06,0.016
5.740E-06,-0.016
5.750E-06,-0.040
5.760E-06,-0.016
5.770E-06,-0.024
5.780E-06,-0.064
5.790E-06,-0.104
5.800E-06,-0.192
5.810E-06,-0.272
5.820E-06,-0.352
5.830E-06,-0.400
5.840E-06,-0.416
5.850E-06,-0.392
5.860E-06,-0.312
5.870E-06,-0.224
5.880E-06,-0.104
5.890E-06,-0.008
5.900E-06,0.080
5.910E-06,0.152
5.920E-06,0.184
5.930E-06,0.224
5.940E-06,0.240
5.950E-06,0.280
5.960E-06,0.296
5.970E-06,0.288
5.980E-06,0.296
5.990E-06,0.264
6.000E-06,0.272
6.010E-06,0.288
6.020E-06,0.320
6.030E-06,0.392
6.040E-06,0.424
6.050E-06,0.488
6.060E-06,0.512
6.070E-06,0.512
6.080E-06,0.496
6.090E-06,0.432
6.100E-06,0.384
6.110E-06,0.312
6.120E-06,0.240
6.130E-06,0.216
6.140E-06,0.192
6.150E-06,0.184
6.160E-06,0.200
6.170E-06,0.248
6.180E-06,0.304
6.190E-06,0.360
6.200E-06,0.392
6.210E-06,0.408
6.220E-06,0.408
6.230E-06,0.400
6.240E-06,0.400
6.250E-06,0.416
6.260E-06,0.416
6.270E-06,0.432
6.280E-06,0.456
6.290E-06,0.456
6.300E-06,0.432
6.310E-06,0.400
6.320E-06,0.376
6.330E-06,0.344
6.340E-06,0.304
6.350E-06,0.288
6.360E-06,0.264
6.370E-06,0.280
6.380E-06,0.288
6.390E-06,0.296
6.400E-06,0.312
6.410E-06,0.320
6.420E-06,0.280
6.430E-06,0.208
6.440E-06,0.112
6.450E-06,0.000
6.460E-06,-0.096
6.470E-06,-0.200
6.480E-06,-0.272
6.490E-06,-0.328
6.500E-06,-0.352
6.510E-06,-0.360
6.520E-06,-0.344
6.530E-06,-0.296
6.540E-06,-0.240
6.550E-06,-0.120
6.560E-06,0.000
6.570E-06,0.136
6.580E-06,0.256
6.590E-06,0.360
6.600E-06,0.440
6.610E-06,0.496
6.620E-06,0.536
6.630E-06,0.568
6.640E-06,0.632
6.650E-06,0.696
6.660E-06,0.768
6.670E-06,0.840
6.680E-06,0.904
6.690E-06,0.928
6.700E-06,0.920
6.710E-06,0.912
6.720E-06,0.888
6.730E-06,0.848
6.740E-06,0.832
6.750E-06,0.824
6.760E-06,0.848
6.770E-06,0.904
6.780E-06,1.008
6.790E-06,1.080
6.800E-06,1.088
6.810E-06,1.080
6.820E-06,1.080
6.830E-06,1.080
6.840E-06,1.080
6.850E-06,1.080
6.860E-06,1.080
6.870E-06,1.072
6.880E-06,1.080
6.890E-06,1.088
6.900E-06,1.080
6.910E-06,1.080
6.920E-06,1.088
6.930E-06,1.080
6.940E-06,1.072
6.950E-06,1.080
6.960E-06,1.088
6.970E-06,1.088
6.980E-06,1.080
6.990E-06,1.088
7.000E-06,1.080
7.010E-06,1.080
7.020E-06,1.080
7.030E-06,1.088
7.040E-06,1.088
7.050E-06,1.080
7.060E-06,1.088
7.070E-06,1.080
7.080E-06,1.088
7.090E-06,1.080
7.100E-06,1.080
7.110E-06,1.080
7.120E-06,1.016
7.130E-06,0.880
7.140E-06,0.760
7.150E-06,0.728
7.160E-06,0.720
7.170E-06,0.672
7.180E-06,0.704
7.190E-06,0.672
7.200E-06,0.648
7.210E-06,0.648
7.220E-06,0.656
7.230E-06,0.656
7.240E-06,0.664
7.250E-06,0.672
7.260E-06,0.672
7.270E-06,0.712
7.280E-06,0.728
7.290E-06,0.728
7.300E-06,0.728
7.310E-06,0.728
7.320E-06,0.720
7.330E-06,0.688
7.340E-06,0.648
7.350E-06,0.624
7.360E-06,0.584
7.370E-06,0.536
7.380E-06,0.472
7.390E-06,0.424
7.400E-06,0.392
7.410E-06,0.368
7.420E-06,0.384
7.430E-06,0.440
7.440E-06,0.504
7.450E-06,0.576
7.460E-06,0.632
7.470E-06,0.680
7.480E-06,0.664
7.490E-06,0.640
7.500E-06,0.568
7.510E-06,0.480
7.520E-06,0.392
7.530E-06,0.288
7.540E-06,0.184
7.550E-06,0.080
7.560E-06,0.008
7.570E-06,-0.040
7.580E-06,-0.056
7.590E-06,-0.040
7.600E-06,0.000
7.610E-06,0.040
7.620E-06,0.112
7.630E-06,0.144
7.640E-06,0.184
7.650E-06,0.208
7.660E-06,0.208
