mediciones/5-27/-27.5/WaveData5186.csv

#timebase=2000000(ps)
,#voltbase=100000(mv/100)
#size=4000
-3.800E-06,0.012
-3.790E-06,-0.004
-3.780E-06,-0.004
-3.770E-06,-0.004
-3.760E-06,-0.004
-3.750E-06,0.024
-3.740E-06,0.020
-3.730E-06,0.020
-3.720E-06,0.012
-3.710E-06,0.012
-3.700E-06,0.012
-3.690E-06,0.004
-3.680E-06,0.016
-3.670E-06,0.032
-3.660E-06,0.044
-3.650E-06,0.020
-3.640E-06,-0.008
-3.630E-06,-0.040
-3.620E-06,-0.052
-3.610E-06,-0.024
-3.600E-06,0.000
-3.590E-06,0.008
-3.580E-06,0.016
-3.570E-06,-0.004
-3.560E-06,-0.008
-3.550E-06,-0.024
-3.540E-06,-0.016
-3.530E-06,0.004
-3.520E-06,0.016
-3.510E-06,0.008
-3.500E-06,0.008
-3.490E-06,-0.004
-3.480E-06,-0.004
-3.470E-06,0.000
-3.460E-06,0.008
-3.450E-06,0.008
-3.440E-06,0.008
-3.430E-06,0.000
-3.420E-06,0.000
-3.410E-06,0.004
-3.400E-06,-0.004
-3.390E-06,0.008
-3.380E-06,0.008
-3.370E-06,0.000
-3.360E-06,0.000
-3.350E-06,0.004
-3.340E-06,0.004
-3.330E-06,0.008
-3.320E-06,0.012
-3.310E-06,0.008
-3.300E-06,0.008
-3.290E-06,0.012
-3.280E-06,0.012
-3.270E-06,0.012
-3.260E-06,0.012
-3.250E-06,0.020
-3.240E-06,0.020
-3.230E-06,0.024
-3.220E-06,0.024
-3.210E-06,0.028
-3.200E-06,0.016
-3.190E-06,0.000
-3.180E-06,-0.028
-3.170E-06,-0.036
-3.160E-06,-0.024
-3.150E-06,-0.004
-3.140E-06,0.024
-3.130E-06,0.032
-3.120E-06,0.028
-3.110E-06,0.008
-3.100E-06,-0.008
-3.090E-06,-0.016
-3.080E-06,-0.008
-3.070E-06,0.000
-3.060E-06,0.012
-3.050E-06,0.008
-3.040E-06,-0.008
-3.030E-06,-0.012
-3.020E-06,-0.004
-3.010E-06,-0.004
-3.000E-06,0.008
-2.990E-06,0.008
-2.980E-06,0.008
-2.970E-06,0.008
-2.960E-06,0.004
-2.950E-06,-0.004
-2.940E-06,0.004
-2.930E-06,0.008
-2.920E-06,0.016
-2.910E-06,0.004
-2.900E-06,0.012
-2.890E-06,0.004
-2.880E-06,0.012
-2.870E-06,0.004
-2.860E-06,0.012
-2.850E-06,0.012
-2.840E-06,0.008
-2.830E-06,0.000
-2.820E-06,0.004
-2.810E-06,0.000
-2.800E-06,0.000
-2.790E-06,0.016
-2.780E-06,0.024
-2.770E-06,0.016
-2.760E-06,0.020
-2.750E-06,0.012
-2.740E-06,0.008
-2.730E-06,0.008
-2.720E-06,0.008
-2.710E-06,0.020
-2.700E-06,0.028
-2.690E-06,0.028
-2.680E-06,0.028
-2.670E-06,0.008
-2.660E-06,0.004
-2.650E-06,0.008
-2.640E-06,0.000
-2.630E-06,0.000
-2.620E-06,0.000
-2.610E-06,0.008
-2.600E-06,0.012
-2.590E-06,0.020
-2.580E-06,0.016
-2.570E-06,0.016
-2.560E-06,0.012
-2.550E-06,0.008
-2.540E-06,0.020
-2.530E-06,0.032
-2.520E-06,0.040
-2.510E-06,0.032
-2.500E-06,0.024
-2.490E-06,0.028
-2.480E-06,0.028
-2.470E-06,0.044
-2.460E-06,0.044
-2.450E-06,0.060
-2.440E-06,0.068
-2.430E-06,0.040
-2.420E-06,0.028
-2.410E-06,-0.012
-2.400E-06,-0.032
-2.390E-06,-0.052
-2.380E-06,-0.064
-2.370E-06,-0.040
-2.360E-06,-0.028
-2.350E-06,0.016
-2.340E-06,0.056
-2.330E-06,0.068
-2.320E-06,0.000
-2.310E-06,-0.112
-2.300E-06,-0.216
-2.290E-06,-0.216
-2.280E-06,-0.124
-2.270E-06,0.004
-2.260E-06,0.120
-2.250E-06,0.152
-2.240E-06,0.088
-2.230E-06,-0.020
-2.220E-06,-0.080
-2.210E-06,-0.100
-2.200E-06,-0.048
-2.190E-06,0.016
-2.180E-06,0.060
-2.170E-06,0.064
-2.160E-06,0.016
-2.150E-06,-0.024
-2.140E-06,-0.044
-2.130E-06,-0.032
-2.120E-06,0.000
-2.110E-06,0.024
-2.100E-06,0.024
-2.090E-06,0.020
-2.080E-06,0.000
-2.070E-06,-0.004
-2.060E-06,-0.012
-2.050E-06,-0.004
-2.040E-06,0.008
-2.030E-06,0.008
-2.020E-06,0.012
-2.010E-06,0.012
-2.000E-06,0.012
-1.990E-06,0.004
-1.980E-06,0.000
-1.970E-06,0.004
-1.960E-06,-0.004
-1.950E-06,0.004
-1.940E-06,0.012
-1.930E-06,0.016
-1.920E-06,0.016
-1.910E-06,0.020
-1.900E-06,0.012
-1.890E-06,0.012
-1.880E-06,0.004
-1.870E-06,0.020
-1.860E-06,0.032
-1.850E-06,0.036
-1.840E-06,0.044
-1.830E-06,0.048
-1.820E-06,0.052
-1.810E-06,0.060
-1.800E-06,0.076
-1.790E-06,0.096
-1.780E-06,0.100
-1.770E-06,0.088
-1.760E-06,0.044
-1.750E-06,-0.012
-1.740E-06,-0.076
-1.730E-06,-0.112
-1.720E-06,-0.112
-1.710E-06,-0.068
-1.700E-06,-0.012
-1.690E-06,0.024
-1.680E-06,0.044
-1.670E-06,0.024
-1.660E-06,0.000
-1.650E-06,-0.024
-1.640E-06,-0.028
-1.630E-06,-0.012
-1.620E-06,0.008
-1.610E-06,0.028
-1.600E-06,0.028
-1.590E-06,0.020
-1.580E-06,0.016
-1.570E-06,0.012
-1.560E-06,0.020
-1.550E-06,0.028
-1.540E-06,0.024
-1.530E-06,0.024
-1.520E-06,0.028
-1.510E-06,0.028
-1.500E-06,0.040
-1.490E-06,0.052
-1.480E-06,0.052
-1.470E-06,0.068
-1.460E-06,0.084
-1.450E-06,0.096
-1.440E-06,0.096
-1.430E-06,0.076
-1.420E-06,0.052
-1.410E-06,0.016
-1.400E-06,0.012
-1.390E-06,0.008
-1.380E-06,0.008
-1.370E-06,0.048
-1.360E-06,0.048
-1.350E-06,0.008
-1.340E-06,-0.064
-1.330E-06,-0.112
-1.320E-06,-0.124
-1.310E-06,-0.088
-1.300E-06,-0.024
-1.290E-06,0.040
-1.280E-06,0.096
-1.270E-06,0.084
-1.260E-06,0.060
-1.250E-06,0.020
-1.240E-06,0.004
-1.230E-06,0.032
-1.220E-06,0.060
-1.210E-06,0.112
-1.200E-06,0.092
-1.190E-06,0.076
-1.180E-06,0.000
-1.170E-06,-0.040
-1.160E-06,-0.064
-1.150E-06,-0.080
-1.140E-06,-0.104
-1.130E-06,-0.172
-1.120E-06,-0.168
-1.110E-06,-0.136
-1.100E-06,-0.064
-1.090E-06,0.020
-1.080E-06,0.068
-1.070E-06,0.084
-1.060E-06,0.048
-1.050E-06,0.012
-1.040E-06,0.008
-1.030E-06,0.044
-1.020E-06,0.100
-1.010E-06,0.144
-1.000E-06,0.128
-9.900E-07,0.064
-9.800E-07,-0.076
-9.700E-07,-0.216
-9.600E-07,-0.292
-9.500E-07,-0.244
-9.400E-07,-0.092
-9.300E-07,0.016
-9.200E-07,0.088
-9.100E-07,0.124
-9.000E-07,0.068
-8.900E-07,-0.028
-8.800E-07,-0.112
-8.700E-07,-0.096
-8.600E-07,-0.044
-8.500E-07,0.044
-8.400E-07,0.088
-8.300E-07,0.080
-8.200E-07,0.048
-8.100E-07,0.000
-8.000E-07,-0.048
-7.900E-07,-0.032
-7.800E-07,0.008
-7.700E-07,0.044
-7.600E-07,0.080
-7.500E-07,0.060
-7.400E-07,0.020
-7.300E-07,-0.016
-7.200E-07,-0.036
-7.100E-07,-0.040
-7.000E-07,0.020
-6.900E-07,0.076
-6.800E-07,0.124
-6.700E-07,0.120
-6.600E-07,0.048
-6.500E-07,-0.012
-6.400E-07,-0.056
-6.300E-07,-0.044
-6.200E-07,0.008
-6.100E-07,0.092
-6.000E-07,0.128
-5.900E-07,0.136
-5.800E-07,0.104
-5.700E-07,0.024
-5.600E-07,-0.040
-5.500E-07,-0.076
-5.400E-07,-0.088
-5.300E-07,-0.068
-5.200E-07,-0.060
-5.100E-07,-0.036
-5.000E-07,-0.004
-4.900E-07,-0.004
-4.800E-07,0.008
-4.700E-07,-0.004
-4.600E-07,0.004
-4.500E-07,0.012
-4.400E-07,0.028
-4.300E-07,0.048
-4.200E-07,0.068
-4.100E-07,0.092
-4.000E-07,0.092
-3.900E-07,0.092
-3.800E-07,0.104
-3.700E-07,0.128
-3.600E-07,0.152
-3.500E-07,0.168
-3.400E-07,0.156
-3.300E-07,0.136
-3.200E-07,0.104
-3.100E-07,0.080
-3.000E-07,0.064
-2.900E-07,0.068
-2.800E-07,0.088
-2.700E-07,0.108
-2.600E-07,0.128
-2.500E-07,0.120
-2.400E-07,0.108
-2.300E-07,0.112
-2.200E-07,0.112
-2.100E-07,0.124
-2.000E-07,0.124
-1.900E-07,0.132
-1.800E-07,0.092
-1.700E-07,0.064
-1.600E-07,0.012
-1.500E-07,-0.100
-1.400E-07,-0.268
-1.300E-07,-0.420
-1.200E-07,-0.472
-1.100E-07,-0.284
-1.000E-07,0.056
-9.000E-08,0.224
-8.000E-08,0.196
-7.000E-08,-0.056
-6.000E-08,-0.380
-5.000E-08,-0.512
-4.000E-08,-0.512
-3.000E-08,-0.300
-2.000E-08,0.016
-1.000E-08,0.228
0.000E+00,0.240
1.000E-08,0.096
2.000E-08,-0.116
3.000E-08,-0.216
4.000E-08,-0.172
5.000E-08,-0.060
6.000E-08,0.068
7.000E-08,0.128
8.000E-08,0.132
9.000E-08,0.060
1.000E-07,-0.028
1.100E-07,-0.060
1.200E-07,-0.040
1.300E-07,0.004
1.400E-07,0.044
1.500E-07,0.076
1.600E-07,0.080
1.700E-07,0.040
1.800E-07,0.000
1.900E-07,-0.036
2.000E-07,-0.032
2.100E-07,-0.008
2.200E-07,0.024
2.300E-07,0.056
2.400E-07,0.060
2.500E-07,0.036
2.600E-07,0.008
2.700E-07,-0.004
2.800E-07,0.008
2.900E-07,0.040
3.000E-07,0.076
3.100E-07,0.088
3.200E-07,0.084
3.300E-07,0.060
3.400E-07,0.056
3.500E-07,0.044
3.600E-07,0.068
3.700E-07,0.092
3.800E-07,0.124
3.900E-07,0.128
4.000E-07,0.128
4.100E-07,0.104
4.200E-07,0.104
4.300E-07,0.112
4.400E-07,0.136
4.500E-07,0.164
4.600E-07,0.184
4.700E-07,0.180
4.800E-07,0.152
4.900E-07,0.124
5.000E-07,0.100
5.100E-07,0.092
5.200E-07,0.108
5.300E-07,0.128
5.400E-07,0.128
5.500E-07,0.128
5.600E-07,0.104
5.700E-07,0.092
5.800E-07,0.104
5.900E-07,0.112
6.000E-07,0.128
6.100E-07,0.136
6.200E-07,0.144
6.300E-07,0.144
6.400E-07,0.132
6.500E-07,0.124
6.600E-07,0.116
6.700E-07,0.108
6.800E-07,0.104
6.900E-07,0.096
7.000E-07,0.096
7.100E-07,0.108
7.200E-07,0.120
7.300E-07,0.128
7.400E-07,0.124
7.500E-07,0.116
7.600E-07,0.120
7.700E-07,0.128
7.800E-07,0.152
7.900E-07,0.140
8.000E-07,0.096
8.100E-07,0.032
8.200E-07,-0.020
8.300E-07,-0.084
8.400E-07,-0.080
8.500E-07,-0.024
8.600E-07,0.072
8.700E-07,0.120
8.800E-07,0.068
8.900E-07,-0.056
9.000E-07,-0.212
9.100E-07,-0.324
9.200E-07,-0.348
9.300E-07,-0.284
9.400E-07,-0.172
9.500E-07,-0.092
9.600E-07,-0.028
9.700E-07,-0.044
9.800E-07,-0.072
9.900E-07,-0.072
1.000E-06,-0.040
1.010E-06,-0.004
1.020E-06,0.048
1.030E-06,0.048
1.040E-06,0.032
1.050E-06,0.004
1.060E-06,-0.008
1.070E-06,0.016
1.080E-06,0.056
1.090E-06,0.088
1.100E-06,0.092
1.110E-06,0.068
1.120E-06,0.060
1.130E-06,0.020
1.140E-06,0.000
1.150E-06,0.028
1.160E-06,0.100
1.170E-06,0.168
1.180E-06,0.204
1.190E-06,0.196
1.200E-06,0.160
1.210E-06,0.120
1.220E-06,0.100
1.230E-06,0.108
1.240E-06,0.144
1.250E-06,0.184
1.260E-06,0.204
1.270E-06,0.196
1.280E-06,0.172
1.290E-06,0.144
1.300E-06,0.128
1.310E-06,0.136
1.320E-06,0.156
1.330E-06,0.172
1.340E-06,0.188
1.350E-06,0.188
1.360E-06,0.164
1.370E-06,0.156
1.380E-06,0.148
1.390E-06,0.148
1.400E-06,0.160
1.410E-06,0.160
1.420E-06,0.164
1.430E-06,0.164
1.440E-06,0.164
1.450E-06,0.156
1.460E-06,0.152
1.470E-06,0.160
1.480E-06,0.156
1.490E-06,0.160
1.500E-06,0.152
1.510E-06,0.152
1.520E-06,0.156
1.530E-06,0.156
1.540E-06,0.156
1.550E-06,0.152
1.560E-06,0.156
1.570E-06,0.156
1.580E-06,0.144
1.590E-06,0.140
1.600E-06,0.140
1.610E-06,0.136
1.620E-06,0.140
1.630E-06,0.152
1.640E-06,0.160
1.650E-06,0.152
1.660E-06,0.152
1.670E-06,0.152
1.680E-06,0.144
1.690E-06,0.140
1.700E-06,0.144
1.710E-06,0.144
1.720E-06,0.152
1.730E-06,0.152
1.740E-06,0.144
1.750E-06,0.144
1.760E-06,0.148
1.770E-06,0.160
1.780E-06,0.156
1.790E-06,0.164
1.800E-06,0.168
1.810E-06,0.160
1.820E-06,0.152
1.830E-06,0.152
1.840E-06,0.156
1.850E-06,0.152
1.860E-06,0.152
1.870E-06,0.156
1.880E-06,0.156
1.890E-06,0.156
1.900E-06,0.156
1.910E-06,0.160
1.920E-06,0.156
1.930E-06,0.160
1.940E-06,0.152
1.950E-06,0.156
1.960E-06,0.160
1.970E-06,0.156
1.980E-06,0.148
1.990E-06,0.156
2.000E-06,0.152
2.010E-06,0.152
2.020E-06,0.156
2.030E-06,0.160
2.040E-06,0.156
2.050E-06,0.156
2.060E-06,0.156
2.070E-06,0.152
2.080E-06,0.152
2.090E-06,0.156
2.100E-06,0.156
2.110E-06,0.152
2.120E-06,0.152
2.130E-06,0.156
2.140E-06,0.156
2.150E-06,0.144
2.160E-06,0.144
2.170E-06,0.144
2.180E-06,0.148
2.190E-06,0.148
2.200E-06,0.148
2.210E-06,0.148
2.220E-06,0.148
2.230E-06,0.144
2.240E-06,0.148
2.250E-06,0.148
2.260E-06,0.152
2.270E-06,0.144
2.280E-06,0.148
2.290E-06,0.144
2.300E-06,0.144
2.310E-06,0.148
2.320E-06,0.148
2.330E-06,0.144
2.340E-06,0.144
2.350E-06,0.144
2.360E-06,0.148
2.370E-06,0.148
2.380E-06,0.140
2.390E-06,0.144
2.400E-06,0.144
2.410E-06,0.144
2.420E-06,0.140
2.430E-06,0.144
2.440E-06,0.140
2.450E-06,0.140
2.460E-06,0.140
2.470E-06,0.148
2.480E-06,0.144
2.490E-06,0.140
2.500E-06,0.140
2.510E-06,0.140
2.520E-06,0.144
2.530E-06,0.140
2.540E-06,0.136
2.550E-06,0.136
2.560E-06,0.140
2.570E-06,0.140
2.580E-06,0.144
2.590E-06,0.140
2.600E-06,0.140
2.610E-06,0.132
2.620E-06,0.136
2.630E-06,0.136
2.640E-06,0.136
2.650E-06,0.136
2.660E-06,0.140
2.670E-06,0.132
2.680E-06,0.132
2.690E-06,0.136
2.700E-06,0.136
2.710E-06,0.136
2.720E-06,0.136
2.730E-06,0.132
2.740E-06,0.128
2.750E-06,0.124
2.760E-06,0.124
2.770E-06,0.128
2.780E-06,0.132
2.790E-06,0.136
2.800E-06,0.136
2.810E-06,0.132
2.820E-06,0.128
2.830E-06,0.128
2.840E-06,0.128
2.850E-06,0.132
2.860E-06,0.136
2.870E-06,0.136
2.880E-06,0.136
2.890E-06,0.136
2.900E-06,0.128
2.910E-06,0.128
2.920E-06,0.124
2.930E-06,0.120
2.940E-06,0.124
2.950E-06,0.128
2.960E-06,0.132
2.970E-06,0.132
2.980E-06,0.136
2.990E-06,0.132
3.000E-06,0.128
3.010E-06,0.120
3.020E-06,0.120
3.030E-06,0.120
3.040E-06,0.124
3.050E-06,0.128
3.060E-06,0.132
3.070E-06,0.132
3.080E-06,0.128
3.090E-06,0.124
3.100E-06,0.124
3.110E-06,0.116
3.120E-06,0.120
3.130E-06,0.124
3.140E-06,0.128
3.150E-06,0.124
3.160E-06,0.124
3.170E-06,0.120
3.180E-06,0.120
3.190E-06,0.120
3.200E-06,0.108
3.210E-06,0.112
3.220E-06,0.108
3.230E-06,0.120
3.240E-06,0.124
3.250E-06,0.128
3.260E-06,0.120
3.270E-06,0.116
3.280E-06,0.116
3.290E-06,0.112
3.300E-06,0.120
3.310E-06,0.124
3.320E-06,0.124
3.330E-06,0.120
3.340E-06,0.112
3.350E-06,0.112
3.360E-06,0.116
3.370E-06,0.124
3.380E-06,0.124
3.390E-06,0.124
3.400E-06,0.120
3.410E-06,0.112
3.420E-06,0.112
3.430E-06,0.112
3.440E-06,0.112
3.450E-06,0.112
3.460E-06,0.120
3.470E-06,0.120
3.480E-06,0.120
3.490E-06,0.116
3.500E-06,0.112
3.510E-06,0.108
3.520E-06,0.108
3.530E-06,0.112
3.540E-06,0.112
3.550E-06,0.116
3.560E-06,0.112
3.570E-06,0.112
3.580E-06,0.112
3.590E-06,0.112
3.600E-06,0.108
3.610E-06,0.112
3.620E-06,0.116
3.630E-06,0.112
3.640E-06,0.108
3.650E-06,0.112
3.660E-06,0.108
3.670E-06,0.108
3.680E-06,0.108
3.690E-06,0.108
3.700E-06,0.108
3.710E-06,0.108
3.720E-06,0.104
3.730E-06,0.104
3.740E-06,0.108
3.750E-06,0.108
3.760E-06,0.100
3.770E-06,0.100
3.780E-06,0.104
3.790E-06,0.108
3.800E-06,0.104
3.810E-06,0.104
3.820E-06,0.096
3.830E-06,0.096
3.840E-06,0.096
3.850E-06,0.096
3.860E-06,0.100
3.870E-06,0.100
3.880E-06,0.096
3.890E-06,0.100
3.900E-06,0.096
3.910E-06,0.104
3.920E-06,0.104
3.930E-06,0.100
3.940E-06,0.104
3.950E-06,0.096
3.960E-06,0.096
3.970E-06,0.100
3.980E-06,0.100
3.990E-06,0.096
4.000E-06,0.096
4.010E-06,0.100
4.020E-06,0.092
4.030E-06,0.092
4.040E-06,0.096
4.050E-06,0.092
4.060E-06,0.096
4.070E-06,0.096
4.080E-06,0.096
4.090E-06,0.096
4.100E-06,0.096
4.110E-06,0.092
4.120E-06,0.092
4.130E-06,0.096
4.140E-06,0.092
4.150E-06,0.096
4.160E-06,0.096
4.170E-06,0.088
4.180E-06,0.088
4.190E-06,0.088
4.200E-06,0.092
4.210E-06,0.092
4.220E-06,0.092
4.230E-06,0.092
4.240E-06,0.092
4.250E-06,0.096
4.260E-06,0.092
4.270E-06,0.088
4.280E-06,0.088
4.290E-06,0.092
4.300E-06,0.096
4.310E-06,0.092
4.320E-06,0.088
4.330E-06,0.088
4.340E-06,0.088
4.350E-06,0.092
4.360E-06,0.088
4.370E-06,0.088
4.380E-06,0.088
4.390E-06,0.092
4.400E-06,0.088
4.410E-06,0.088
4.420E-06,0.088
4.430E-06,0.088
4.440E-06,0.088
4.450E-06,0.092
4.460E-06,0.088
4.470E-06,0.084
4.480E-06,0.084
4.490E-06,0.084
4.500E-06,0.080
4.510E-06,0.080
4.520E-06,0.076
4.530E-06,0.080
4.540E-06,0.080
4.550E-06,0.084
4.560E-06,0.088
4.570E-06,0.080
4.580E-06,0.084
4.590E-06,0.080
4.600E-06,0.076
4.610E-06,0.076
4.620E-06,0.072
4.630E-06,0.080
4.640E-06,0.076
4.650E-06,0.072
4.660E-06,0.076
4.670E-06,0.072
4.680E-06,0.076
4.690E-06,0.076
4.700E-06,0.072
4.710E-06,0.076
4.720E-06,0.072
4.730E-06,0.076
4.740E-06,0.076
4.750E-06,0.072
4.760E-06,0.072
4.770E-06,0.076
4.780E-06,0.076
4.790E-06,0.072
4.800E-06,0.076
4.810E-06,0.072
4.820E-06,0.076
4.830E-06,0.068
4.840E-06,0.072
4.850E-06,0.068
4.860E-06,0.068
4.870E-06,0.068
4.880E-06,0.072
4.890E-06,0.068
4.900E-06,0.076
4.910E-06,0.068
4.920E-06,0.068
4.930E-06,0.064
4.940E-06,0.068
4.950E-06,0.068
4.960E-06,0.072
4.970E-06,0.072
4.980E-06,0.068
4.990E-06,0.072
5.000E-06,0.068
5.010E-06,0.068
5.020E-06,0.068
5.030E-06,0.072
5.040E-06,0.072
5.050E-06,0.068
5.060E-06,0.068
5.070E-06,0.068
5.080E-06,0.064
5.090E-06,0.064
5.100E-06,0.064
5.110E-06,0.068
5.120E-06,0.068
5.130E-06,0.064
5.140E-06,0.064
5.150E-06,0.064
5.160E-06,0.068
5.170E-06,0.060
5.180E-06,0.064
5.190E-06,0.060
5.200E-06,0.064
5.210E-06,0.064
5.220E-06,0.060
5.230E-06,0.064
5.240E-06,0.064
5.250E-06,0.060
5.260E-06,0.064
5.270E-06,0.060
5.280E-06,0.060
5.290E-06,0.060
5.300E-06,0.064
5.310E-06,0.060
5.320E-06,0.060
5.330E-06,0.064
5.340E-06,0.060
5.350E-06,0.060
5.360E-06,0.060
5.370E-06,0.060
5.380E-06,0.060
5.390E-06,0.064
5.400E-06,0.056
5.410E-06,0.060
5.420E-06,0.056
5.430E-06,0.056
5.440E-06,0.060
5.450E-06,0.056
5.460E-06,0.060
5.470E-06,0.060
5.480E-06,0.056
5.490E-06,0.056
5.500E-06,0.056
5.510E-06,0.056
5.520E-06,0.060
5.530E-06,0.060
5.540E-06,0.056
5.550E-06,0.056
5.560E-06,0.060
5.570E-06,0.056
5.580E-06,0.052
5.590E-06,0.052
5.600E-06,0.052
5.610E-06,0.052
5.620E-06,0.052
5.630E-06,0.052
5.640E-06,0.052
5.650E-06,0.056
5.660E-06,0.056
5.670E-06,0.052
5.680E-06,0.052
5.690E-06,0.052
5.700E-06,0.052
5.710E-06,0.052
5.720E-06,0.048
5.730E-06,0.052
5.740E-06,0.048
5.750E-06,0.044
5.760E-06,0.048
5.770E-06,0.052
5.780E-06,0.048
5.790E-06,0.048
5.800E-06,0.044
5.810E-06,0.044
5.820E-06,0.044
5.830E-06,0.044
5.840E-06,0.044
5.850E-06,0.040
5.860E-06,0.044
5.870E-06,0.044
5.880E-06,0.044
5.890E-06,0.044
5.900E-06,0.040
5.910E-06,0.040
5.920E-06,0.044
5.930E-06,0.044
5.940E-06,0.044
5.950E-06,0.040
5.960E-06,0.044
5.970E-06,0.044
5.980E-06,0.040
5.990E-06,0.040
6.000E-06,0.036
6.010E-06,0.040
6.020E-06,0.036
6.030E-06,0.036
6.040E-06,0.036
6.050E-06,0.036
6.060E-06,0.032
6.070E-06,0.036
6.080E-06,0.036
6.090E-06,0.040
6.100E-06,0.032
6.110E-06,0.036
6.120E-06,0.040
6.130E-06,0.032
6.140E-06,0.040
6.150E-06,0.040
6.160E-06,0.036
6.170E-06,0.032
6.180E-06,0.036
6.190E-06,0.028
6.200E-06,0.032
6.210E-06,0.036
6.220E-06,0.032
6.230E-06,0.028
6.240E-06,0.032
6.250E-06,0.036
6.260E-06,0.024
6.270E-06,0.024
6.280E-06,0.032
6.290E-06,0.028
6.300E-06,0.032
6.310E-06,0.028
6.320E-06,0.024
6.330E-06,0.028
6.340E-06,0.032
6.350E-06,0.024
6.360E-06,0.028
6.370E-06,0.032
6.380E-06,0.028
6.390E-06,0.024
6.400E-06,0.028
6.410E-06,0.032
6.420E-06,0.028
6.430E-06,0.024
6.440E-06,0.024
6.450E-06,0.028
6.460E-06,0.032
6.470E-06,0.028
6.480E-06,0.024
6.490E-06,0.028
6.500E-06,0.028
6.510E-06,0.024
6.520E-06,0.028
6.530E-06,0.028
6.540E-06,0.028
6.550E-06,0.032
6.560E-06,0.032
6.570E-06,0.028
6.580E-06,0.020
6.590E-06,0.020
6.600E-06,0.024
6.610E-06,0.028
6.620E-06,0.020
6.630E-06,0.024
6.640E-06,0.024
6.650E-06,0.028
6.660E-06,0.024
6.670E-06,0.020
6.680E-06,0.024
6.690E-06,0.028
6.700E-06,0.020
6.710E-06,0.020
6.720E-06,0.024
6.730E-06,0.028
6.740E-06,0.020
6.750E-06,0.024
6.760E-06,0.024
6.770E-06,0.028
6.780E-06,0.024
6.790E-06,0.024
6.800E-06,0.024
6.810E-06,0.028
6.820E-06,0.024
6.830E-06,0.028
6.840E-06,0.028
6.850E-06,0.028
6.860E-06,0.020
6.870E-06,0.024
6.880E-06,0.024
6.890E-06,0.028
6.900E-06,0.024
6.910E-06,0.028
6.920E-06,0.028
6.930E-06,0.020
6.940E-06,0.024
6.950E-06,0.028
6.960E-06,0.024
6.970E-06,0.024
6.980E-06,0.028
6.990E-06,0.016
7.000E-06,0.020
7.010E-06,0.020
7.020E-06,0.016
7.030E-06,0.016
7.040E-06,0.012
7.050E-06,0.008
7.060E-06,0.012
7.070E-06,0.008
7.080E-06,0.008
7.090E-06,0.012
7.100E-06,0.008
7.110E-06,0.008
7.120E-06,0.012
7.130E-06,0.008
7.140E-06,0.012
7.150E-06,0.012
7.160E-06,0.012
7.170E-06,0.012
7.180E-06,0.012
7.190E-06,0.012
7.200E-06,0.012
7.210E-06,0.012
7.220E-06,0.008
7.230E-06,0.008
7.240E-06,0.008
7.250E-06,0.008
7.260E-06,0.008
7.270E-06,0.012
7.280E-06,0.008
7.290E-06,0.008
7.300E-06,0.008
7.310E-06,0.008
7.320E-06,0.012
7.330E-06,0.004
7.340E-06,0.008
7.350E-06,0.008
7.360E-06,0.008
7.370E-06,0.012
7.380E-06,0.012
7.390E-06,0.004
7.400E-06,0.008
7.410E-06,0.008
7.420E-06,0.008
7.430E-06,0.008
7.440E-06,0.008
7.450E-06,0.004
7.460E-06,0.008
7.470E-06,0.008
7.480E-06,0.004
7.490E-06,0.004
7.500E-06,0.000
7.510E-06,0.000
7.520E-06,0.004
7.530E-06,0.000
7.540E-06,0.004
7.550E-06,0.000
7.560E-06,0.004
7.570E-06,0.000
7.580E-06,0.000
7.590E-06,0.004
7.600E-06,0.004
7.610E-06,0.004
7.620E-06,0.004
7.630E-06,0.008
7.640E-06,0.008
7.650E-06,0.000
7.660E-06,0.000
7.670E-06,0.000
7.680E-06,0.000
7.690E-06,-0.004
7.700E-06,-0.004
7.710E-06,0.000
7.720E-06,-0.004
7.730E-06,0.000
7.740E-06,0.004
7.750E-06,0.004
7.760E-06,-0.004
7.770E-06,-0.004
7.780E-06,0.000
7.790E-06,-0.004
7.800E-06,0.000
7.810E-06,0.000
7.820E-06,-0.004
7.830E-06,-0.008
7.840E-06,-0.008
7.850E-06,0.000
7.860E-06,-0.004
7.870E-06,-0.004
7.880E-06,-0.004
7.890E-06,0.000
7.900E-06,-0.004
7.910E-06,0.000
7.920E-06,-0.004
7.930E-06,-0.004
7.940E-06,-0.004
7.950E-06,-0.004
7.960E-06,0.000
7.970E-06,0.000
7.980E-06,-0.004
7.990E-06,0.000
8.000E-06,-0.004
8.010E-06,-0.004
8.020E-06,-0.004
8.030E-06,-0.004
8.040E-06,-0.004
8.050E-06,-0.008
8.060E-06,-0.008
8.070E-06,0.000
8.080E-06,0.000
8.090E-06,-0.004
8.100E-06,-0.008
8.110E-06,0.000
8.120E-06,0.000
8.130E-06,-0.004
8.140E-06,0.000
8.150E-06,-0.004
8.160E-06,-0.004
8.170E-06,-0.008
8.180E-06,-0.004
8.190E-06,-0.008
8.200E-06,-0.004
8.210E-06,-0.008
8.220E-06,-0.008
8.230E-06,-0.012
8.240E-06,-0.004
8.250E-06,-0.004
8.260E-06,-0.008
8.270E-06,-0.004
8.280E-06,-0.008
8.290E-06,-0.004
8.300E-06,-0.008
