mediciones/5-27/-27.5/WaveData5154.csv

#timebase=2000000(ps)
,#voltbase=100000(mv/100)
#size=4000
-3.800E-06,0.004
-3.790E-06,0.008
-3.780E-06,0.000
-3.770E-06,0.004
-3.760E-06,0.000
-3.750E-06,0.004
-3.740E-06,0.008
-3.730E-06,0.008
-3.720E-06,0.008
-3.710E-06,0.008
-3.700E-06,0.008
-3.690E-06,0.020
-3.680E-06,0.008
-3.670E-06,-0.004
-3.660E-06,-0.012
-3.650E-06,-0.028
-3.640E-06,-0.012
-3.630E-06,0.000
-3.620E-06,0.012
-3.610E-06,0.024
-3.600E-06,0.004
-3.590E-06,0.000
-3.580E-06,-0.008
-3.570E-06,-0.008
-3.560E-06,-0.004
-3.550E-06,0.008
-3.540E-06,0.008
-3.530E-06,0.008
-3.520E-06,0.000
-3.510E-06,-0.004
-3.500E-06,-0.004
-3.490E-06,0.000
-3.480E-06,0.004
-3.470E-06,0.008
-3.460E-06,0.004
-3.450E-06,-0.004
-3.440E-06,0.000
-3.430E-06,0.004
-3.420E-06,0.012
-3.410E-06,0.004
-3.400E-06,0.004
-3.390E-06,0.004
-3.380E-06,0.000
-3.370E-06,0.000
-3.360E-06,0.008
-3.350E-06,0.008
-3.340E-06,0.008
-3.330E-06,0.008
-3.320E-06,0.000
-3.310E-06,0.008
-3.300E-06,0.004
-3.290E-06,0.004
-3.280E-06,0.004
-3.270E-06,0.000
-3.260E-06,0.004
-3.250E-06,0.008
-3.240E-06,0.012
-3.230E-06,0.008
-3.220E-06,0.000
-3.210E-06,-0.004
-3.200E-06,0.004
-3.190E-06,0.004
-3.180E-06,0.008
-3.170E-06,0.004
-3.160E-06,0.000
-3.150E-06,-0.012
-3.140E-06,-0.012
-3.130E-06,-0.004
-3.120E-06,0.008
-3.110E-06,0.024
-3.100E-06,0.024
-3.090E-06,0.008
-3.080E-06,0.000
-3.070E-06,-0.008
-3.060E-06,-0.008
-3.050E-06,0.000
-3.040E-06,0.008
-3.030E-06,0.012
-3.020E-06,0.004
-3.010E-06,0.004
-3.000E-06,0.000
-2.990E-06,0.004
-2.980E-06,0.008
-2.970E-06,0.004
-2.960E-06,0.004
-2.950E-06,0.000
-2.940E-06,0.004
-2.930E-06,0.008
-2.920E-06,0.012
-2.910E-06,0.016
-2.900E-06,0.004
-2.890E-06,0.004
-2.880E-06,0.004
-2.870E-06,0.000
-2.860E-06,0.004
-2.850E-06,0.004
-2.840E-06,0.008
-2.830E-06,0.000
-2.820E-06,0.004
-2.810E-06,0.008
-2.800E-06,0.008
-2.790E-06,0.012
-2.780E-06,0.016
-2.770E-06,0.016
-2.760E-06,0.016
-2.750E-06,0.012
-2.740E-06,0.004
-2.730E-06,0.008
-2.720E-06,0.020
-2.710E-06,0.024
-2.700E-06,0.004
-2.690E-06,-0.020
-2.680E-06,-0.036
-2.670E-06,-0.028
-2.660E-06,-0.012
-2.650E-06,0.008
-2.640E-06,0.024
-2.630E-06,0.012
-2.620E-06,0.000
-2.610E-06,-0.008
-2.600E-06,-0.016
-2.590E-06,-0.008
-2.580E-06,0.004
-2.570E-06,0.004
-2.560E-06,0.012
-2.550E-06,0.008
-2.540E-06,0.000
-2.530E-06,-0.004
-2.520E-06,0.000
-2.510E-06,0.004
-2.500E-06,0.004
-2.490E-06,0.008
-2.480E-06,0.000
-2.470E-06,0.000
-2.460E-06,0.000
-2.450E-06,0.004
-2.440E-06,0.004
-2.430E-06,0.004
-2.420E-06,0.000
-2.410E-06,-0.008
-2.400E-06,0.000
-2.390E-06,0.000
-2.380E-06,0.004
-2.370E-06,0.004
-2.360E-06,0.000
-2.350E-06,0.000
-2.340E-06,0.000
-2.330E-06,0.008
-2.320E-06,0.012
-2.310E-06,0.016
-2.300E-06,0.016
-2.290E-06,-0.004
-2.280E-06,-0.004
-2.270E-06,-0.004
-2.260E-06,0.004
-2.250E-06,0.008
-2.240E-06,0.008
-2.230E-06,0.008
-2.220E-06,0.000
-2.210E-06,-0.004
-2.200E-06,-0.004
-2.190E-06,-0.004
-2.180E-06,0.008
-2.170E-06,0.008
-2.160E-06,0.012
-2.150E-06,0.000
-2.140E-06,-0.004
-2.130E-06,-0.004
-2.120E-06,0.000
-2.110E-06,0.004
-2.100E-06,0.008
-2.090E-06,0.012
-2.080E-06,0.004
-2.070E-06,0.004
-2.060E-06,-0.004
-2.050E-06,-0.004
-2.040E-06,0.008
-2.030E-06,0.016
-2.020E-06,0.008
-2.010E-06,0.012
-2.000E-06,0.012
-1.990E-06,0.008
-1.980E-06,0.008
-1.970E-06,0.012
-1.960E-06,0.008
-1.950E-06,0.012
-1.940E-06,0.004
-1.930E-06,0.012
-1.920E-06,0.024
-1.910E-06,0.024
-1.900E-06,0.024
-1.890E-06,0.028
-1.880E-06,0.024
-1.870E-06,0.024
-1.860E-06,0.028
-1.850E-06,0.036
-1.840E-06,0.044
-1.830E-06,0.012
-1.820E-06,-0.040
-1.810E-06,-0.084
-1.800E-06,-0.072
-1.790E-06,-0.040
-1.780E-06,0.008
-1.770E-06,0.048
-1.760E-06,0.040
-1.750E-06,0.028
-1.740E-06,-0.020
-1.730E-06,-0.040
-1.720E-06,-0.032
-1.710E-06,-0.012
-1.700E-06,0.020
-1.690E-06,0.028
-1.680E-06,0.020
-1.670E-06,0.000
-1.660E-06,0.000
-1.650E-06,-0.004
-1.640E-06,0.004
-1.630E-06,-0.008
-1.620E-06,-0.008
-1.610E-06,-0.024
-1.600E-06,-0.004
-1.590E-06,0.000
-1.580E-06,0.016
-1.570E-06,0.036
-1.560E-06,0.024
-1.550E-06,-0.004
-1.540E-06,-0.048
-1.530E-06,-0.052
-1.520E-06,-0.028
-1.510E-06,0.004
-1.500E-06,0.040
-1.490E-06,0.036
-1.480E-06,0.024
-1.470E-06,-0.008
-1.460E-06,-0.024
-1.450E-06,-0.028
-1.440E-06,-0.008
-1.430E-06,0.008
-1.420E-06,0.024
-1.410E-06,0.016
-1.400E-06,-0.004
-1.390E-06,-0.008
-1.380E-06,-0.008
-1.370E-06,0.000
-1.360E-06,0.012
-1.350E-06,0.008
-1.340E-06,0.004
-1.330E-06,0.004
-1.320E-06,-0.008
-1.310E-06,0.004
-1.300E-06,0.004
-1.290E-06,0.012
-1.280E-06,0.016
-1.270E-06,0.004
-1.260E-06,0.004
-1.250E-06,-0.004
-1.240E-06,0.008
-1.230E-06,0.008
-1.220E-06,0.020
-1.210E-06,0.032
-1.200E-06,0.024
-1.190E-06,0.024
-1.180E-06,0.008
-1.170E-06,-0.008
-1.160E-06,-0.024
-1.150E-06,-0.016
-1.140E-06,0.000
-1.130E-06,0.016
-1.120E-06,0.028
-1.110E-06,0.040
-1.100E-06,0.024
-1.090E-06,0.004
-1.080E-06,-0.008
-1.070E-06,-0.020
-1.060E-06,-0.004
-1.050E-06,0.028
-1.040E-06,0.036
-1.030E-06,0.036
-1.020E-06,0.008
-1.010E-06,-0.008
-1.000E-06,-0.028
-9.900E-07,-0.020
-9.800E-07,-0.004
-9.700E-07,0.016
-9.600E-07,0.024
-9.500E-07,0.024
-9.400E-07,0.012
-9.300E-07,0.004
-9.200E-07,-0.004
-9.100E-07,-0.004
-9.000E-07,0.000
-8.900E-07,0.008
-8.800E-07,0.012
-8.700E-07,0.020
-8.600E-07,0.020
-8.500E-07,0.020
-8.400E-07,0.020
-8.300E-07,0.020
-8.200E-07,0.020
-8.100E-07,0.028
-8.000E-07,0.036
-7.900E-07,0.040
-7.800E-07,0.028
-7.700E-07,0.020
-7.600E-07,0.024
-7.500E-07,-0.008
-7.400E-07,-0.036
-7.300E-07,-0.064
-7.200E-07,-0.072
-7.100E-07,-0.056
-7.000E-07,-0.032
-6.900E-07,-0.004
-6.800E-07,0.012
-6.700E-07,0.016
-6.600E-07,-0.008
-6.500E-07,-0.012
-6.400E-07,-0.016
-6.300E-07,-0.012
-6.200E-07,-0.008
-6.100E-07,0.008
-6.000E-07,0.012
-5.900E-07,0.004
-5.800E-07,0.000
-5.700E-07,-0.008
-5.600E-07,-0.008
-5.500E-07,0.000
-5.400E-07,0.004
-5.300E-07,0.000
-5.200E-07,0.008
-5.100E-07,0.008
-5.000E-07,0.008
-4.900E-07,0.012
-4.800E-07,0.012
-4.700E-07,0.024
-4.600E-07,0.016
-4.500E-07,0.012
-4.400E-07,0.020
-4.300E-07,0.024
-4.200E-07,0.032
-4.100E-07,0.032
-4.000E-07,0.028
-3.900E-07,0.032
-3.800E-07,0.032
-3.700E-07,0.020
-3.600E-07,0.008
-3.500E-07,0.012
-3.400E-07,0.024
-3.300E-07,0.020
-3.200E-07,0.020
-3.100E-07,0.024
-3.000E-07,0.012
-2.900E-07,0.008
-2.800E-07,0.012
-2.700E-07,0.024
-2.600E-07,0.036
-2.500E-07,0.040
-2.400E-07,0.040
-2.300E-07,0.036
-2.200E-07,0.036
-2.100E-07,0.036
-2.000E-07,0.040
-1.900E-07,0.044
-1.800E-07,0.032
-1.700E-07,0.024
-1.600E-07,0.008
-1.500E-07,0.040
-1.400E-07,0.068
-1.300E-07,0.092
-1.200E-07,0.080
-1.100E-07,0.068
-1.000E-07,0.000
-9.000E-08,-0.056
-8.000E-08,-0.056
-7.000E-08,-0.112
-6.000E-08,0.032
-5.000E-08,-0.168
-4.000E-08,-0.308
-3.000E-08,-0.288
-2.000E-08,-0.204
-1.000E-08,0.192
0.000E+00,0.260
1.000E-08,0.104
2.000E-08,-0.116
3.000E-08,-0.300
4.000E-08,-0.220
5.000E-08,-0.120
6.000E-08,0.064
7.000E-08,0.224
8.000E-08,0.180
9.000E-08,0.060
1.000E-07,-0.104
1.100E-07,-0.128
1.200E-07,-0.060
1.300E-07,0.000
1.400E-07,0.036
1.500E-07,0.056
1.600E-07,0.048
1.700E-07,0.036
1.800E-07,0.008
1.900E-07,-0.008
2.000E-07,-0.012
2.100E-07,-0.016
2.200E-07,0.008
2.300E-07,0.028
2.400E-07,0.048
2.500E-07,0.060
2.600E-07,0.064
2.700E-07,0.032
2.800E-07,0.024
2.900E-07,0.032
3.000E-07,0.040
3.100E-07,0.068
3.200E-07,-0.004
3.300E-07,-0.108
3.400E-07,-0.156
3.500E-07,-0.172
3.600E-07,-0.076
3.700E-07,0.032
3.800E-07,0.120
3.900E-07,0.140
4.000E-07,0.064
4.100E-07,-0.032
4.200E-07,-0.088
4.300E-07,-0.080
4.400E-07,-0.016
4.500E-07,0.028
4.600E-07,0.044
4.700E-07,0.028
4.800E-07,-0.004
4.900E-07,-0.012
5.000E-07,-0.020
5.100E-07,-0.008
5.200E-07,0.008
5.300E-07,0.008
5.400E-07,0.012
5.500E-07,0.004
5.600E-07,0.000
5.700E-07,0.004
5.800E-07,0.012
5.900E-07,0.028
6.000E-07,0.032
6.100E-07,0.028
6.200E-07,0.028
6.300E-07,0.020
6.400E-07,0.020
6.500E-07,0.020
6.600E-07,0.012
6.700E-07,0.004
6.800E-07,0.004
6.900E-07,0.024
7.000E-07,0.008
7.100E-07,0.008
7.200E-07,0.008
7.300E-07,0.004
7.400E-07,0.012
7.500E-07,0.008
7.600E-07,0.012
7.700E-07,0.012
7.800E-07,-0.008
7.900E-07,-0.028
8.000E-07,-0.020
8.100E-07,-0.008
8.200E-07,0.008
8.300E-07,0.032
8.400E-07,0.056
8.500E-07,0.052
8.600E-07,0.024
8.700E-07,-0.024
8.800E-07,-0.052
8.900E-07,-0.060
9.000E-07,-0.032
9.100E-07,0.020
9.200E-07,0.068
9.300E-07,0.076
9.400E-07,0.088
9.500E-07,0.072
9.600E-07,0.044
9.700E-07,0.028
9.800E-07,0.024
9.900E-07,-0.004
1.000E-06,-0.024
1.010E-06,-0.056
1.020E-06,-0.080
1.030E-06,-0.088
1.040E-06,-0.060
1.050E-06,-0.036
1.060E-06,-0.008
1.070E-06,0.004
1.080E-06,0.012
1.090E-06,0.000
1.100E-06,-0.012
1.110E-06,-0.020
1.120E-06,-0.008
1.130E-06,-0.004
1.140E-06,0.012
1.150E-06,0.012
1.160E-06,0.016
1.170E-06,-0.004
1.180E-06,-0.008
1.190E-06,-0.008
1.200E-06,-0.008
1.210E-06,0.000
1.220E-06,0.008
1.230E-06,0.008
1.240E-06,0.012
1.250E-06,0.008
1.260E-06,-0.004
1.270E-06,-0.004
1.280E-06,0.000
1.290E-06,0.008
1.300E-06,0.012
1.310E-06,0.024
1.320E-06,0.024
1.330E-06,0.016
1.340E-06,0.016
1.350E-06,0.016
1.360E-06,0.024
1.370E-06,0.036
1.380E-06,0.052
1.390E-06,0.064
1.400E-06,0.060
1.410E-06,0.060
1.420E-06,0.036
1.430E-06,0.024
1.440E-06,0.008
1.450E-06,0.004
1.460E-06,0.012
1.470E-06,0.016
1.480E-06,0.024
1.490E-06,0.012
1.500E-06,-0.004
1.510E-06,-0.008
1.520E-06,0.000
1.530E-06,0.008
1.540E-06,0.036
1.550E-06,0.052
1.560E-06,0.068
1.570E-06,0.040
1.580E-06,0.004
1.590E-06,-0.032
1.600E-06,-0.072
1.610E-06,-0.092
1.620E-06,-0.072
1.630E-06,-0.064
1.640E-06,-0.044
1.650E-06,-0.016
1.660E-06,-0.008
1.670E-06,-0.016
1.680E-06,-0.020
1.690E-06,-0.016
1.700E-06,-0.012
1.710E-06,0.008
1.720E-06,0.004
1.730E-06,0.004
1.740E-06,0.000
1.750E-06,-0.004
1.760E-06,-0.008
1.770E-06,-0.008
1.780E-06,0.008
1.790E-06,0.012
1.800E-06,0.012
1.810E-06,0.008
1.820E-06,-0.008
1.830E-06,0.000
1.840E-06,0.004
1.850E-06,0.016
1.860E-06,0.020
1.870E-06,0.024
1.880E-06,0.024
1.890E-06,0.024
1.900E-06,0.028
1.910E-06,0.040
1.920E-06,0.060
1.930E-06,0.084
1.940E-06,0.100
1.950E-06,0.120
1.960E-06,0.096
1.970E-06,0.060
1.980E-06,0.004
1.990E-06,-0.028
2.000E-06,-0.044
2.010E-06,-0.040
2.020E-06,-0.028
2.030E-06,-0.012
2.040E-06,-0.004
2.050E-06,0.004
2.060E-06,0.016
2.070E-06,0.012
2.080E-06,0.000
2.090E-06,-0.008
2.100E-06,-0.024
2.110E-06,-0.036
2.120E-06,-0.048
2.130E-06,-0.044
2.140E-06,-0.052
2.150E-06,-0.032
2.160E-06,-0.016
2.170E-06,-0.004
2.180E-06,-0.004
2.190E-06,-0.004
2.200E-06,0.008
2.210E-06,0.008
2.220E-06,0.020
2.230E-06,0.032
2.240E-06,0.044
2.250E-06,0.052
2.260E-06,0.040
2.270E-06,0.024
2.280E-06,0.012
2.290E-06,0.000
2.300E-06,0.004
2.310E-06,0.016
2.320E-06,0.036
2.330E-06,0.056
2.340E-06,0.060
2.350E-06,0.068
2.360E-06,0.068
2.370E-06,0.080
2.380E-06,0.080
2.390E-06,0.084
2.400E-06,0.084
2.410E-06,0.088
2.420E-06,0.100
2.430E-06,0.092
2.440E-06,0.100
2.450E-06,0.076
2.460E-06,0.056
2.470E-06,0.108
2.480E-06,-0.012
2.490E-06,-0.396
2.500E-06,-0.512
2.510E-06,-0.512
2.520E-06,-0.484
2.530E-06,-0.072
2.540E-06,0.120
2.550E-06,0.472
2.560E-06,0.472
2.570E-06,0.224
2.580E-06,-0.200
2.590E-06,-0.432
2.600E-06,-0.200
2.610E-06,-0.008
2.620E-06,0.216
2.630E-06,0.240
2.640E-06,0.156
2.650E-06,-0.008
2.660E-06,-0.072
2.670E-06,-0.104
2.680E-06,-0.056
2.690E-06,0.024
2.700E-06,0.044
2.710E-06,0.048
2.720E-06,0.024
2.730E-06,0.036
2.740E-06,-0.004
2.750E-06,0.032
2.760E-06,0.044
2.770E-06,0.060
2.780E-06,0.052
2.790E-06,0.060
2.800E-06,0.040
2.810E-06,0.020
2.820E-06,0.012
2.830E-06,0.008
2.840E-06,0.036
2.850E-06,0.060
2.860E-06,0.092
2.870E-06,0.076
2.880E-06,0.084
2.890E-06,0.000
2.900E-06,-0.016
2.910E-06,-0.044
2.920E-06,-0.060
2.930E-06,-0.036
2.940E-06,-0.004
2.950E-06,0.032
2.960E-06,0.024
2.970E-06,0.012
2.980E-06,-0.148
2.990E-06,-0.232
3.000E-06,-0.248
3.010E-06,-0.172
3.020E-06,-0.024
3.030E-06,0.072
3.040E-06,0.104
3.050E-06,0.036
3.060E-06,0.000
3.070E-06,-0.024
3.080E-06,-0.060
3.090E-06,-0.052
3.100E-06,-0.016
3.110E-06,0.020
3.120E-06,0.024
3.130E-06,0.052
3.140E-06,0.032
3.150E-06,0.012
3.160E-06,-0.028
3.170E-06,-0.036
3.180E-06,-0.028
3.190E-06,0.000
3.200E-06,0.028
3.210E-06,0.036
3.220E-06,0.036
3.230E-06,0.016
3.240E-06,-0.008
3.250E-06,-0.028
3.260E-06,-0.012
3.270E-06,0.000
3.280E-06,0.024
3.290E-06,0.036
3.300E-06,0.024
3.310E-06,0.016
3.320E-06,0.008
3.330E-06,-0.008
3.340E-06,-0.004
3.350E-06,0.016
3.360E-06,0.036
3.370E-06,0.048
3.380E-06,0.040
3.390E-06,0.024
3.400E-06,0.020
3.410E-06,0.000
3.420E-06,0.000
3.430E-06,0.008
3.440E-06,0.016
3.450E-06,0.044
3.460E-06,0.052
3.470E-06,0.052
3.480E-06,0.044
3.490E-06,0.056
3.500E-06,0.056
3.510E-06,0.048
3.520E-06,0.044
3.530E-06,0.048
3.540E-06,0.032
3.550E-06,0.004
3.560E-06,0.004
3.570E-06,0.012
3.580E-06,0.032
3.590E-06,0.064
3.600E-06,0.032
3.610E-06,-0.040
3.620E-06,-0.096
3.630E-06,-0.120
3.640E-06,-0.064
3.650E-06,0.024
3.660E-06,0.060
3.670E-06,0.036
3.680E-06,0.000
3.690E-06,-0.056
3.700E-06,-0.064
3.710E-06,-0.052
3.720E-06,0.000
3.730E-06,0.032
3.740E-06,0.056
3.750E-06,-0.004
3.760E-06,-0.072
3.770E-06,-0.124
3.780E-06,-0.112
3.790E-06,-0.056
3.800E-06,0.012
3.810E-06,0.060
3.820E-06,0.080
3.830E-06,0.092
3.840E-06,0.040
3.850E-06,0.020
3.860E-06,0.004
3.870E-06,0.016
3.880E-06,0.036
3.890E-06,0.052
3.900E-06,0.068
3.910E-06,0.088
3.920E-06,0.096
3.930E-06,0.108
3.940E-06,0.072
3.950E-06,0.008
3.960E-06,-0.064
3.970E-06,-0.156
3.980E-06,-0.168
3.990E-06,-0.152
4.000E-06,-0.104
4.010E-06,-0.008
4.020E-06,0.036
4.030E-06,0.052
4.040E-06,0.024
4.050E-06,-0.036
4.060E-06,-0.048
4.070E-06,-0.056
4.080E-06,-0.036
4.090E-06,0.004
4.100E-06,0.036
4.110E-06,0.040
4.120E-06,0.012
4.130E-06,-0.012
4.140E-06,-0.024
4.150E-06,-0.004
4.160E-06,0.020
4.170E-06,0.040
4.180E-06,0.048
4.190E-06,0.052
4.200E-06,0.052
4.210E-06,0.024
4.220E-06,0.020
4.230E-06,0.028
4.240E-06,0.028
4.250E-06,0.040
4.260E-06,0.040
4.270E-06,0.024
4.280E-06,-0.008
4.290E-06,-0.032
4.300E-06,-0.036
4.310E-06,0.008
4.320E-06,0.076
4.330E-06,0.120
4.340E-06,0.088
4.350E-06,0.044
4.360E-06,-0.016
4.370E-06,-0.060
4.380E-06,-0.068
4.390E-06,-0.064
4.400E-06,-0.068
4.410E-06,-0.048
4.420E-06,-0.036
4.430E-06,-0.032
4.440E-06,-0.024
4.450E-06,-0.024
4.460E-06,-0.004
4.470E-06,-0.004
4.480E-06,0.004
4.490E-06,0.000
4.500E-06,0.012
4.510E-06,0.024
4.520E-06,0.004
4.530E-06,0.004
4.540E-06,0.004
4.550E-06,0.020
4.560E-06,0.032
4.570E-06,0.044
4.580E-06,0.056
4.590E-06,0.056
4.600E-06,0.068
4.610E-06,0.076
4.620E-06,0.072
4.630E-06,0.072
4.640E-06,0.084
4.650E-06,0.088
4.660E-06,0.096
4.670E-06,0.100
4.680E-06,0.096
4.690E-06,0.088
4.700E-06,0.076
4.710E-06,0.064
4.720E-06,0.060
4.730E-06,0.068
4.740E-06,0.076
4.750E-06,0.096
4.760E-06,0.092
4.770E-06,0.080
4.780E-06,0.064
4.790E-06,0.060
4.800E-06,0.056
4.810E-06,0.064
4.820E-06,0.076
4.830E-06,0.044
4.840E-06,-0.016
4.850E-06,-0.100
4.860E-06,-0.136
4.870E-06,-0.172
4.880E-06,-0.168
4.890E-06,-0.124
4.900E-06,-0.068
4.910E-06,-0.016
4.920E-06,0.004
4.930E-06,0.008
4.940E-06,-0.004
4.950E-06,-0.024
4.960E-06,-0.048
4.970E-06,-0.040
4.980E-06,-0.012
4.990E-06,0.024
5.000E-06,0.052
5.010E-06,0.088
5.020E-06,0.088
5.030E-06,0.084
5.040E-06,0.080
5.050E-06,0.088
5.060E-06,0.116
5.070E-06,0.128
5.080E-06,0.100
5.090E-06,0.012
5.100E-06,-0.072
5.110E-06,-0.144
5.120E-06,-0.116
5.130E-06,-0.024
5.140E-06,0.112
5.150E-06,0.212
5.160E-06,0.252
5.170E-06,0.136
5.180E-06,-0.052
5.190E-06,-0.228
5.200E-06,-0.288
5.210E-06,-0.192
5.220E-06,-0.028
5.230E-06,0.136
5.240E-06,0.204
5.250E-06,0.176
5.260E-06,0.060
5.270E-06,-0.036
5.280E-06,-0.056
5.290E-06,-0.012
5.300E-06,0.100
5.310E-06,0.204
5.320E-06,0.244
5.330E-06,0.220
5.340E-06,0.124
5.350E-06,-0.012
5.360E-06,-0.156
5.370E-06,-0.216
5.380E-06,-0.168
5.390E-06,-0.052
5.400E-06,0.048
5.410E-06,0.060
5.420E-06,0.004
5.430E-06,-0.084
5.440E-06,-0.056
5.450E-06,0.060
5.460E-06,0.144
5.470E-06,0.084
5.480E-06,-0.200
5.490E-06,-0.492
5.500E-06,-0.512
5.510E-06,-0.512
5.520E-06,-0.488
5.530E-06,0.112
5.540E-06,0.444
5.550E-06,0.540
5.560E-06,0.264
5.570E-06,-0.096
5.580E-06,-0.376
5.590E-06,-0.340
5.600E-06,-0.096
5.610E-06,0.144
5.620E-06,0.276
5.630E-06,0.192
5.640E-06,0.060
5.650E-06,-0.076
5.660E-06,-0.124
5.670E-06,-0.108
5.680E-06,-0.016
5.690E-06,0.052
5.700E-06,0.068
5.710E-06,0.044
5.720E-06,-0.008
5.730E-06,-0.044
5.740E-06,-0.064
5.750E-06,-0.028
5.760E-06,0.012
5.770E-06,0.056
5.780E-06,0.060
5.790E-06,0.012
5.800E-06,-0.012
5.810E-06,-0.040
5.820E-06,-0.028
5.830E-06,0.012
5.840E-06,0.056
5.850E-06,0.068
5.860E-06,0.048
5.870E-06,0.028
5.880E-06,-0.012
5.890E-06,-0.036
5.900E-06,-0.024
5.910E-06,0.024
5.920E-06,0.068
5.930E-06,0.076
5.940E-06,0.076
5.950E-06,0.044
5.960E-06,0.008
5.970E-06,-0.004
5.980E-06,0.016
5.990E-06,0.040
6.000E-06,0.088
6.010E-06,0.112
6.020E-06,0.108
6.030E-06,0.096
6.040E-06,0.080
6.050E-06,0.068
6.060E-06,0.088
6.070E-06,0.104
6.080E-06,0.136
6.090E-06,0.152
6.100E-06,0.144
6.110E-06,0.128
6.120E-06,0.104
6.130E-06,0.088
6.140E-06,0.080
6.150E-06,0.092
6.160E-06,0.132
6.170E-06,0.148
6.180E-06,0.156
6.190E-06,0.080
6.200E-06,-0.224
6.210E-06,-0.508
6.220E-06,-0.508
6.230E-06,-0.512
6.240E-06,-0.448
6.250E-06,0.084
6.260E-06,0.408
6.270E-06,0.384
6.280E-06,0.156
6.290E-06,-0.140
6.300E-06,-0.372
6.310E-06,-0.328
6.320E-06,-0.008
6.330E-06,0.268
6.340E-06,0.388
6.350E-06,0.236
6.360E-06,0.032
6.370E-06,-0.120
6.380E-06,-0.128
6.390E-06,-0.040
6.400E-06,0.084
6.410E-06,0.172
6.420E-06,0.160
6.430E-06,0.092
6.440E-06,0.000
6.450E-06,-0.036
6.460E-06,-0.024
6.470E-06,0.044
6.480E-06,0.132
6.490E-06,0.188
6.500E-06,0.188
6.510E-06,0.136
6.520E-06,0.064
6.530E-06,0.016
6.540E-06,0.020
6.550E-06,0.064
6.560E-06,0.112
6.570E-06,0.104
6.580E-06,0.068
6.590E-06,0.016
6.600E-06,-0.020
6.610E-06,0.008
6.620E-06,0.092
6.630E-06,0.196
6.640E-06,0.264
6.650E-06,0.264
6.660E-06,0.208
6.670E-06,0.136
6.680E-06,0.080
6.690E-06,0.060
6.700E-06,0.080
6.710E-06,0.080
6.720E-06,-0.088
6.730E-06,-0.276
6.740E-06,-0.484
6.750E-06,-0.512
6.760E-06,-0.376
6.770E-06,-0.160
6.780E-06,0.128
6.790E-06,0.156
6.800E-06,0.076
6.810E-06,-0.184
6.820E-06,-0.464
6.830E-06,-0.484
6.840E-06,-0.236
6.850E-06,-0.092
6.860E-06,0.148
6.870E-06,0.272
6.880E-06,0.124
6.890E-06,-0.072
6.900E-06,-0.252
6.910E-06,-0.236
6.920E-06,-0.144
6.930E-06,0.036
6.940E-06,0.180
6.950E-06,0.212
6.960E-06,0.112
6.970E-06,-0.020
6.980E-06,-0.112
6.990E-06,-0.100
7.000E-06,-0.016
7.010E-06,0.080
7.020E-06,0.164
7.030E-06,0.168
7.040E-06,0.132
7.050E-06,0.032
7.060E-06,-0.036
7.070E-06,-0.048
7.080E-06,0.000
7.090E-06,0.060
7.100E-06,0.128
7.110E-06,0.144
7.120E-06,0.100
7.130E-06,0.048
7.140E-06,0.000
7.150E-06,-0.004
7.160E-06,0.028
7.170E-06,0.080
7.180E-06,0.132
7.190E-06,0.160
7.200E-06,0.136
7.210E-06,0.104
7.220E-06,0.072
7.230E-06,0.056
7.240E-06,0.072
7.250E-06,0.100
7.260E-06,0.132
7.270E-06,0.160
7.280E-06,0.156
7.290E-06,0.136
7.300E-06,0.128
7.310E-06,0.124
7.320E-06,0.136
7.330E-06,0.160
7.340E-06,0.160
7.350E-06,0.172
7.360E-06,0.156
7.370E-06,0.100
7.380E-06,0.008
7.390E-06,-0.208
7.400E-06,-0.320
7.410E-06,-0.420
7.420E-06,-0.356
7.430E-06,-0.220
7.440E-06,-0.180
7.450E-06,-0.092
7.460E-06,-0.160
7.470E-06,-0.236
7.480E-06,-0.264
7.490E-06,-0.224
7.500E-06,-0.132
7.510E-06,-0.052
7.520E-06,0.044
7.530E-06,0.044
7.540E-06,0.032
7.550E-06,-0.008
7.560E-06,-0.036
7.570E-06,-0.052
7.580E-06,-0.032
7.590E-06,0.004
7.600E-06,0.072
7.610E-06,0.088
7.620E-06,0.080
7.630E-06,0.060
7.640E-06,0.024
7.650E-06,0.028
7.660E-06,0.060
7.670E-06,0.100
7.680E-06,0.136
7.690E-06,0.144
7.700E-06,0.136
7.710E-06,0.116
7.720E-06,0.092
7.730E-06,0.088
7.740E-06,0.108
7.750E-06,0.128
7.760E-06,0.160
7.770E-06,0.168
7.780E-06,0.156
7.790E-06,0.144
7.800E-06,0.124
7.810E-06,0.120
7.820E-06,0.132
7.830E-06,0.152
7.840E-06,0.168
7.850E-06,0.180
7.860E-06,0.172
7.870E-06,0.160
7.880E-06,0.140
7.890E-06,0.132
7.900E-06,0.124
7.910E-06,0.128
7.920E-06,0.132
7.930E-06,0.140
7.940E-06,0.148
7.950E-06,0.152
7.960E-06,0.160
7.970E-06,0.160
7.980E-06,0.156
7.990E-06,0.156
8.000E-06,0.156
8.010E-06,0.160
8.020E-06,0.160
8.030E-06,0.156
8.040E-06,0.148
8.050E-06,0.128
8.060E-06,0.120
8.070E-06,0.096
8.080E-06,0.072
8.090E-06,0.032
8.100E-06,0.012
8.110E-06,-0.052
8.120E-06,-0.120
8.130E-06,-0.188
8.140E-06,-0.232
8.150E-06,-0.184
8.160E-06,-0.040
8.170E-06,0.120
8.180E-06,0.240
