mediciones/5-27/-27.5/WaveData5170.csv

#timebase=2000000(ps)
,#voltbase=100000(mv/100)
#size=4000
-3.800E-06,0.024
-3.790E-06,0.016
-3.780E-06,0.020
-3.770E-06,0.024
-3.760E-06,0.024
-3.750E-06,0.024
-3.740E-06,0.024
-3.730E-06,0.024
-3.720E-06,0.028
-3.710E-06,0.032
-3.700E-06,0.040
-3.690E-06,0.040
-3.680E-06,0.036
-3.670E-06,0.024
-3.660E-06,0.012
-3.650E-06,0.012
-3.640E-06,0.024
-3.630E-06,0.036
-3.620E-06,0.048
-3.610E-06,0.044
-3.600E-06,0.036
-3.590E-06,0.024
-3.580E-06,0.012
-3.570E-06,0.000
-3.560E-06,-0.004
-3.550E-06,-0.008
-3.540E-06,0.008
-3.530E-06,0.024
-3.520E-06,0.036
-3.510E-06,0.032
-3.500E-06,0.036
-3.490E-06,0.032
-3.480E-06,0.028
-3.470E-06,0.036
-3.460E-06,0.048
-3.450E-06,0.060
-3.440E-06,0.032
-3.430E-06,-0.056
-3.420E-06,-0.184
-3.410E-06,-0.216
-3.400E-06,-0.172
-3.390E-06,-0.060
-3.380E-06,0.000
-3.370E-06,-0.008
-3.360E-06,-0.028
-3.350E-06,-0.068
-3.340E-06,-0.028
-3.330E-06,-0.020
-3.320E-06,0.012
-3.310E-06,0.060
-3.300E-06,0.032
-3.290E-06,0.000
-3.280E-06,-0.024
-3.270E-06,-0.036
-3.260E-06,-0.008
-3.250E-06,0.016
-3.240E-06,0.040
-3.230E-06,0.028
-3.220E-06,0.020
-3.210E-06,-0.012
-3.200E-06,-0.020
-3.190E-06,-0.016
-3.180E-06,-0.004
-3.170E-06,0.024
-3.160E-06,0.032
-3.150E-06,0.028
-3.140E-06,-0.012
-3.130E-06,-0.016
-3.120E-06,-0.016
-3.110E-06,-0.004
-3.100E-06,0.012
-3.090E-06,0.008
-3.080E-06,0.008
-3.070E-06,-0.004
-3.060E-06,-0.008
-3.050E-06,-0.016
-3.040E-06,0.000
-3.030E-06,0.008
-3.020E-06,0.012
-3.010E-06,0.016
-3.000E-06,0.004
-2.990E-06,0.004
-2.980E-06,0.004
-2.970E-06,0.000
-2.960E-06,0.000
-2.950E-06,0.008
-2.940E-06,0.008
-2.930E-06,0.012
-2.920E-06,0.008
-2.910E-06,0.008
-2.900E-06,0.000
-2.890E-06,0.004
-2.880E-06,0.008
-2.870E-06,0.008
-2.860E-06,0.008
-2.850E-06,0.012
-2.840E-06,0.008
-2.830E-06,0.012
-2.820E-06,0.012
-2.810E-06,0.008
-2.800E-06,0.012
-2.790E-06,0.008
-2.780E-06,0.012
-2.770E-06,0.012
-2.760E-06,0.012
-2.750E-06,0.016
-2.740E-06,0.004
-2.730E-06,0.004
-2.720E-06,0.012
-2.710E-06,0.016
-2.700E-06,0.024
-2.690E-06,0.028
-2.680E-06,0.024
-2.670E-06,0.020
-2.660E-06,0.016
-2.650E-06,0.016
-2.640E-06,0.016
-2.630E-06,0.024
-2.620E-06,0.024
-2.610E-06,0.028
-2.600E-06,0.028
-2.590E-06,0.020
-2.580E-06,0.024
-2.570E-06,0.016
-2.560E-06,0.016
-2.550E-06,0.024
-2.540E-06,0.024
-2.530E-06,0.032
-2.520E-06,0.028
-2.510E-06,0.024
-2.500E-06,0.024
-2.490E-06,0.024
-2.480E-06,0.020
-2.470E-06,0.020
-2.460E-06,0.028
-2.450E-06,0.032
-2.440E-06,0.056
-2.430E-06,0.072
-2.420E-06,0.076
-2.410E-06,0.080
-2.400E-06,0.072
-2.390E-06,0.064
-2.380E-06,0.040
-2.370E-06,0.040
-2.360E-06,0.052
-2.350E-06,0.056
-2.340E-06,0.064
-2.330E-06,0.056
-2.320E-06,0.056
-2.310E-06,0.020
-2.300E-06,-0.060
-2.290E-06,-0.144
-2.280E-06,-0.172
-2.270E-06,-0.128
-2.260E-06,-0.044
-2.250E-06,0.056
-2.240E-06,0.108
-2.230E-06,0.104
-2.220E-06,0.072
-2.210E-06,0.020
-2.200E-06,0.004
-2.190E-06,0.020
-2.180E-06,0.056
-2.170E-06,0.096
-2.160E-06,0.072
-2.150E-06,0.044
-2.140E-06,-0.068
-2.130E-06,-0.156
-2.120E-06,-0.180
-2.110E-06,-0.204
-2.100E-06,-0.108
-2.090E-06,-0.044
-2.080E-06,-0.008
-2.070E-06,-0.092
-2.060E-06,-0.092
-2.050E-06,-0.172
-2.040E-06,-0.132
-2.030E-06,-0.040
-2.020E-06,0.028
-2.010E-06,0.064
-2.000E-06,0.048
-1.990E-06,0.000
-1.980E-06,-0.016
-1.970E-06,-0.020
-1.960E-06,0.008
-1.950E-06,0.044
-1.940E-06,0.060
-1.930E-06,0.056
-1.920E-06,0.008
-1.910E-06,-0.004
-1.900E-06,-0.040
-1.890E-06,-0.068
-1.880E-06,-0.044
-1.870E-06,-0.040
-1.860E-06,-0.004
-1.850E-06,0.012
-1.840E-06,0.004
-1.830E-06,0.008
-1.820E-06,0.000
-1.810E-06,0.000
-1.800E-06,0.000
-1.790E-06,0.000
-1.780E-06,0.000
-1.770E-06,0.012
-1.760E-06,0.020
-1.750E-06,0.024
-1.740E-06,0.012
-1.730E-06,-0.008
-1.720E-06,-0.020
-1.710E-06,-0.024
-1.700E-06,-0.012
-1.690E-06,0.004
-1.680E-06,0.024
-1.670E-06,0.020
-1.660E-06,0.012
-1.650E-06,0.000
-1.640E-06,-0.008
-1.630E-06,-0.008
-1.620E-06,-0.004
-1.610E-06,0.004
-1.600E-06,0.012
-1.590E-06,0.020
-1.580E-06,0.020
-1.570E-06,0.012
-1.560E-06,0.004
-1.550E-06,-0.008
-1.540E-06,-0.008
-1.530E-06,0.000
-1.520E-06,0.012
-1.510E-06,0.028
-1.500E-06,0.036
-1.490E-06,0.036
-1.480E-06,0.020
-1.470E-06,0.020
-1.460E-06,0.024
-1.450E-06,0.024
-1.440E-06,0.028
-1.430E-06,0.044
-1.420E-06,0.060
-1.410E-06,0.060
-1.400E-06,0.060
-1.390E-06,0.060
-1.380E-06,0.044
-1.370E-06,0.048
-1.360E-06,0.052
-1.350E-06,0.056
-1.340E-06,0.056
-1.330E-06,0.056
-1.320E-06,0.056
-1.310E-06,0.044
-1.300E-06,0.044
-1.290E-06,0.036
-1.280E-06,0.032
-1.270E-06,0.040
-1.260E-06,0.048
-1.250E-06,0.056
-1.240E-06,0.064
-1.230E-06,0.064
-1.220E-06,0.068
-1.210E-06,0.072
-1.200E-06,0.072
-1.190E-06,0.064
-1.180E-06,0.060
-1.170E-06,0.064
-1.160E-06,0.052
-1.150E-06,0.044
-1.140E-06,0.036
-1.130E-06,0.044
-1.120E-06,0.036
-1.110E-06,0.056
-1.100E-06,0.092
-1.090E-06,0.116
-1.080E-06,0.016
-1.070E-06,-0.280
-1.060E-06,-0.508
-1.050E-06,-0.512
-1.040E-06,-0.504
-1.030E-06,-0.100
-1.020E-06,-0.028
-1.010E-06,0.076
-1.000E-06,0.088
-9.900E-07,0.112
-9.800E-07,0.024
-9.700E-07,-0.060
-9.600E-07,-0.040
-9.500E-07,0.024
-9.400E-07,0.104
-9.300E-07,0.132
-9.200E-07,0.092
-9.100E-07,0.032
-9.000E-07,-0.012
-8.900E-07,-0.024
-8.800E-07,0.020
-8.700E-07,0.024
-8.600E-07,0.012
-8.500E-07,-0.072
-8.400E-07,-0.124
-8.300E-07,-0.120
-8.200E-07,-0.092
-8.100E-07,-0.016
-8.000E-07,0.012
-7.900E-07,0.036
-7.800E-07,0.032
-7.700E-07,0.004
-7.600E-07,0.000
-7.500E-07,-0.024
-7.400E-07,-0.024
-7.300E-07,-0.004
-7.200E-07,0.000
-7.100E-07,0.020
-7.000E-07,0.028
-6.900E-07,0.032
-6.800E-07,0.024
-6.700E-07,0.004
-6.600E-07,-0.024
-6.500E-07,-0.044
-6.400E-07,-0.044
-6.300E-07,-0.012
-6.200E-07,0.028
-6.100E-07,0.060
-6.000E-07,0.064
-5.900E-07,0.032
-5.800E-07,-0.012
-5.700E-07,-0.036
-5.600E-07,-0.036
-5.500E-07,-0.024
-5.400E-07,0.000
-5.300E-07,0.028
-5.200E-07,0.040
-5.100E-07,0.032
-5.000E-07,0.012
-4.900E-07,-0.008
-4.800E-07,-0.020
-4.700E-07,-0.016
-4.600E-07,0.008
-4.500E-07,0.028
-4.400E-07,0.040
-4.300E-07,0.036
-4.200E-07,0.028
-4.100E-07,0.020
-4.000E-07,0.008
-3.900E-07,0.008
-3.800E-07,0.016
-3.700E-07,0.028
-3.600E-07,0.044
-3.500E-07,0.060
-3.400E-07,0.064
-3.300E-07,0.056
-3.200E-07,0.052
-3.100E-07,0.048
-3.000E-07,0.056
-2.900E-07,0.072
-2.800E-07,0.088
-2.700E-07,0.100
-2.600E-07,0.100
-2.500E-07,0.096
-2.400E-07,0.092
-2.300E-07,0.088
-2.200E-07,0.080
-2.100E-07,0.084
-2.000E-07,0.092
-1.900E-07,0.096
-1.800E-07,0.096
-1.700E-07,0.096
-1.600E-07,0.088
-1.500E-07,0.076
-1.400E-07,0.064
-1.300E-07,0.056
-1.200E-07,0.068
-1.100E-07,0.068
-1.000E-07,0.080
-9.000E-08,0.088
-8.000E-08,0.064
-7.000E-08,0.000
-6.000E-08,-0.260
-5.000E-08,-0.512
-4.000E-08,-0.512
-3.000E-08,-0.512
-2.000E-08,-0.468
-1.000E-08,0.168
0.000E+00,0.536
1.000E-08,0.536
2.000E-08,0.372
3.000E-08,-0.104
4.000E-08,-0.508
5.000E-08,-0.512
6.000E-08,-0.308
7.000E-08,0.144
8.000E-08,0.480
9.000E-08,0.352
1.000E-07,0.120
1.100E-07,-0.196
1.200E-07,-0.248
1.300E-07,-0.192
1.400E-07,-0.012
1.500E-07,0.100
1.600E-07,0.132
1.700E-07,0.100
1.800E-07,0.024
1.900E-07,-0.028
2.000E-07,-0.076
2.100E-07,-0.060
2.200E-07,-0.032
2.300E-07,0.036
2.400E-07,0.056
2.500E-07,0.068
2.600E-07,0.024
2.700E-07,-0.004
2.800E-07,-0.040
2.900E-07,-0.036
3.000E-07,0.000
3.100E-07,0.020
3.200E-07,0.032
3.300E-07,0.024
3.400E-07,0.004
3.500E-07,-0.024
3.600E-07,-0.032
3.700E-07,-0.016
3.800E-07,0.008
3.900E-07,0.032
4.000E-07,0.044
4.100E-07,0.028
4.200E-07,0.012
4.300E-07,-0.008
4.400E-07,-0.020
4.500E-07,-0.008
4.600E-07,0.012
4.700E-07,0.028
4.800E-07,0.032
4.900E-07,0.020
5.000E-07,0.000
5.100E-07,-0.008
5.200E-07,-0.004
5.300E-07,0.008
5.400E-07,0.024
5.500E-07,0.048
5.600E-07,0.044
5.700E-07,0.036
5.800E-07,0.024
5.900E-07,0.024
6.000E-07,0.020
6.100E-07,0.036
6.200E-07,0.044
6.300E-07,0.052
6.400E-07,0.044
6.500E-07,0.040
6.600E-07,0.024
6.700E-07,0.024
6.800E-07,0.036
6.900E-07,0.056
7.000E-07,0.072
7.100E-07,0.096
7.200E-07,0.112
7.300E-07,0.120
7.400E-07,0.112
7.500E-07,0.112
7.600E-07,0.112
7.700E-07,0.120
7.800E-07,0.124
7.900E-07,0.120
8.000E-07,0.124
8.100E-07,0.108
8.200E-07,0.096
8.300E-07,0.092
8.400E-07,0.096
8.500E-07,0.096
8.600E-07,0.096
8.700E-07,0.108
8.800E-07,0.124
8.900E-07,0.128
9.000E-07,0.132
9.100E-07,0.128
9.200E-07,0.120
9.300E-07,0.108
9.400E-07,0.096
9.500E-07,0.088
9.600E-07,0.092
9.700E-07,0.096
9.800E-07,0.108
9.900E-07,0.096
1.000E-06,0.088
1.010E-06,0.036
1.020E-06,-0.092
1.030E-06,-0.276
1.040E-06,-0.440
1.050E-06,-0.512
1.060E-06,-0.508
1.070E-06,-0.512
1.080E-06,-0.508
1.090E-06,-0.512
1.100E-06,0.244
1.110E-06,0.540
1.120E-06,0.540
1.130E-06,0.540
1.140E-06,-0.288
1.150E-06,-0.512
1.160E-06,-0.512
1.170E-06,-0.196
1.180E-06,0.324
1.190E-06,0.412
1.200E-06,0.232
1.210E-06,-0.004
1.220E-06,-0.168
1.230E-06,-0.192
1.240E-06,-0.112
1.250E-06,0.024
1.260E-06,0.072
1.270E-06,0.100
1.280E-06,0.052
1.290E-06,-0.024
1.300E-06,-0.040
1.310E-06,-0.032
1.320E-06,0.000
1.330E-06,0.048
1.340E-06,0.072
1.350E-06,0.032
1.360E-06,0.012
1.370E-06,-0.032
1.380E-06,-0.048
1.390E-06,-0.024
1.400E-06,0.028
1.410E-06,0.060
1.420E-06,0.048
1.430E-06,0.016
1.440E-06,-0.028
1.450E-06,-0.040
1.460E-06,-0.040
1.470E-06,0.008
1.480E-06,0.056
1.490E-06,0.084
1.500E-06,0.064
1.510E-06,0.032
1.520E-06,-0.016
1.530E-06,-0.036
1.540E-06,-0.024
1.550E-06,0.008
1.560E-06,0.056
1.570E-06,0.092
1.580E-06,0.100
1.590E-06,0.076
1.600E-06,0.040
1.610E-06,0.000
1.620E-06,-0.004
1.630E-06,0.008
1.640E-06,0.048
1.650E-06,0.072
1.660E-06,0.072
1.670E-06,0.072
1.680E-06,0.052
1.690E-06,0.048
1.700E-06,0.044
1.710E-06,0.060
1.720E-06,0.084
1.730E-06,0.100
1.740E-06,0.104
1.750E-06,0.092
1.760E-06,0.084
1.770E-06,0.080
1.780E-06,0.080
1.790E-06,0.104
1.800E-06,0.128
1.810E-06,0.160
1.820E-06,0.176
1.830E-06,0.156
1.840E-06,0.156
1.850E-06,0.124
1.860E-06,0.104
1.870E-06,0.092
1.880E-06,0.084
1.890E-06,0.092
1.900E-06,0.088
1.910E-06,0.080
1.920E-06,0.064
1.930E-06,0.036
1.940E-06,0.000
1.950E-06,-0.004
1.960E-06,-0.004
1.970E-06,0.024
1.980E-06,0.056
1.990E-06,0.076
2.000E-06,0.084
2.010E-06,0.080
2.020E-06,0.084
2.030E-06,0.076
2.040E-06,0.088
2.050E-06,0.084
2.060E-06,0.024
2.070E-06,-0.156
2.080E-06,-0.384
2.090E-06,-0.512
2.100E-06,-0.496
2.110E-06,-0.100
2.120E-06,0.324
2.130E-06,0.536
2.140E-06,0.440
2.150E-06,0.020
2.160E-06,-0.436
2.170E-06,-0.508
2.180E-06,-0.512
2.190E-06,-0.408
2.200E-06,0.032
2.210E-06,0.340
2.220E-06,0.352
2.230E-06,0.232
2.240E-06,-0.208
2.250E-06,-0.512
2.260E-06,-0.508
2.270E-06,-0.404
2.280E-06,-0.112
2.290E-06,0.160
2.300E-06,0.292
2.310E-06,0.176
2.320E-06,-0.056
2.330E-06,-0.180
2.340E-06,-0.252
2.350E-06,-0.132
2.360E-06,0.000
2.370E-06,0.144
2.380E-06,0.176
2.390E-06,0.128
2.400E-06,0.012
2.410E-06,-0.088
2.420E-06,-0.124
2.430E-06,-0.080
2.440E-06,0.032
2.450E-06,0.080
2.460E-06,0.104
2.470E-06,0.048
2.480E-06,-0.044
2.490E-06,-0.076
2.500E-06,-0.084
2.510E-06,-0.040
2.520E-06,0.036
2.530E-06,0.088
2.540E-06,0.092
2.550E-06,0.048
2.560E-06,0.000
2.570E-06,-0.040
2.580E-06,-0.036
2.590E-06,-0.020
2.600E-06,0.028
2.610E-06,0.084
2.620E-06,0.076
2.630E-06,0.052
2.640E-06,0.004
2.650E-06,-0.036
2.660E-06,-0.044
2.670E-06,-0.004
2.680E-06,0.028
2.690E-06,0.076
2.700E-06,0.092
2.710E-06,0.072
2.720E-06,0.052
2.730E-06,0.024
2.740E-06,0.024
2.750E-06,0.048
2.760E-06,0.092
2.770E-06,0.128
2.780E-06,0.148
2.790E-06,0.152
2.800E-06,0.144
2.810E-06,0.124
2.820E-06,0.112
2.830E-06,0.136
2.840E-06,0.140
2.850E-06,0.172
2.860E-06,0.180
2.870E-06,0.156
2.880E-06,0.124
2.890E-06,0.092
2.900E-06,0.060
2.910E-06,0.044
2.920E-06,0.036
2.930E-06,0.016
2.940E-06,-0.004
2.950E-06,-0.036
2.960E-06,-0.060
2.970E-06,-0.084
2.980E-06,-0.076
2.990E-06,-0.076
3.000E-06,-0.044
3.010E-06,-0.040
3.020E-06,-0.016
3.030E-06,0.000
3.040E-06,0.000
3.050E-06,0.000
3.060E-06,0.004
3.070E-06,0.032
3.080E-06,0.064
3.090E-06,0.092
3.100E-06,0.116
3.110E-06,0.124
3.120E-06,0.124
3.130E-06,0.112
3.140E-06,0.104
3.150E-06,0.112
3.160E-06,0.128
3.170E-06,0.136
3.180E-06,0.140
3.190E-06,0.140
3.200E-06,0.132
3.210E-06,0.128
3.220E-06,0.128
3.230E-06,0.132
3.240E-06,0.140
3.250E-06,0.152
3.260E-06,0.152
3.270E-06,0.156
3.280E-06,0.152
3.290E-06,0.148
3.300E-06,0.152
3.310E-06,0.144
3.320E-06,0.144
3.330E-06,0.140
3.340E-06,0.136
3.350E-06,0.136
3.360E-06,0.136
3.370E-06,0.136
3.380E-06,0.144
3.390E-06,0.148
3.400E-06,0.140
3.410E-06,0.148
3.420E-06,0.152
3.430E-06,0.148
3.440E-06,0.152
3.450E-06,0.148
3.460E-06,0.148
3.470E-06,0.144
3.480E-06,0.152
3.490E-06,0.156
3.500E-06,0.168
3.510E-06,0.160
3.520E-06,0.160
3.530E-06,0.124
3.540E-06,0.096
3.550E-06,0.072
3.560E-06,0.068
3.570E-06,0.052
3.580E-06,0.056
3.590E-06,0.056
3.600E-06,0.064
3.610E-06,0.056
3.620E-06,-0.008
3.630E-06,-0.072
3.640E-06,-0.096
3.650E-06,-0.056
3.660E-06,-0.004
3.670E-06,0.048
3.680E-06,-0.040
3.690E-06,-0.184
3.700E-06,-0.252
3.710E-06,-0.284
3.720E-06,-0.140
3.730E-06,0.008
3.740E-06,0.020
3.750E-06,-0.140
3.760E-06,-0.476
3.770E-06,-0.508
3.780E-06,-0.508
3.790E-06,-0.508
3.800E-06,-0.384
3.810E-06,-0.020
3.820E-06,0.224
3.830E-06,0.240
3.840E-06,0.088
3.850E-06,-0.188
3.860E-06,-0.336
3.870E-06,-0.256
3.880E-06,-0.072
3.890E-06,0.160
3.900E-06,0.308
3.910E-06,0.356
3.920E-06,0.272
3.930E-06,0.176
3.940E-06,0.076
3.950E-06,0.060
3.960E-06,0.116
3.970E-06,0.188
3.980E-06,0.244
3.990E-06,0.256
4.000E-06,0.224
4.010E-06,0.164
4.020E-06,0.120
4.030E-06,0.108
4.040E-06,0.132
4.050E-06,0.164
4.060E-06,0.208
4.070E-06,0.228
4.080E-06,0.212
4.090E-06,0.188
4.100E-06,0.152
4.110E-06,0.140
4.120E-06,0.152
4.130E-06,0.172
4.140E-06,0.192
4.150E-06,0.204
4.160E-06,0.188
4.170E-06,0.164
4.180E-06,0.148
4.190E-06,0.140
4.200E-06,0.136
4.210E-06,0.152
4.220E-06,0.172
4.230E-06,0.180
4.240E-06,0.176
4.250E-06,0.156
4.260E-06,0.132
4.270E-06,0.108
4.280E-06,0.052
4.290E-06,-0.004
4.300E-06,-0.080
4.310E-06,-0.032
4.320E-06,-0.036
4.330E-06,0.004
4.340E-06,0.076
4.350E-06,0.060
4.360E-06,0.008
4.370E-06,-0.136
4.380E-06,-0.268
4.390E-06,-0.400
4.400E-06,-0.492
4.410E-06,-0.368
4.420E-06,-0.304
4.430E-06,-0.172
4.440E-06,-0.120
4.450E-06,-0.224
4.460E-06,-0.200
4.470E-06,-0.232
4.480E-06,-0.304
4.490E-06,-0.296
4.500E-06,-0.200
4.510E-06,-0.032
4.520E-06,-0.012
4.530E-06,0.044
4.540E-06,0.092
4.550E-06,0.028
4.560E-06,0.012
4.570E-06,0.052
4.580E-06,0.072
4.590E-06,0.148
4.600E-06,0.216
4.610E-06,0.216
4.620E-06,0.212
4.630E-06,0.180
4.640E-06,0.160
4.650E-06,0.152
4.660E-06,0.148
4.670E-06,0.168
4.680E-06,0.192
4.690E-06,0.204
4.700E-06,0.208
4.710E-06,0.176
4.720E-06,0.156
4.730E-06,0.156
4.740E-06,0.148
4.750E-06,0.164
4.760E-06,0.192
4.770E-06,0.192
4.780E-06,0.184
4.790E-06,0.176
4.800E-06,0.160
4.810E-06,0.156
4.820E-06,0.144
4.830E-06,0.152
4.840E-06,0.164
4.850E-06,0.164
4.860E-06,0.160
4.870E-06,0.160
4.880E-06,0.152
4.890E-06,0.140
4.900E-06,0.140
4.910E-06,0.152
4.920E-06,0.164
4.930E-06,0.180
4.940E-06,0.176
4.950E-06,0.168
4.960E-06,0.156
4.970E-06,0.128
4.980E-06,0.124
4.990E-06,0.128
5.000E-06,0.152
5.010E-06,0.164
5.020E-06,0.184
5.030E-06,0.172
5.040E-06,0.156
5.050E-06,0.140
5.060E-06,0.136
5.070E-06,0.144
5.080E-06,0.152
5.090E-06,0.156
5.100E-06,0.160
5.110E-06,0.156
5.120E-06,0.140
5.130E-06,0.124
5.140E-06,0.128
5.150E-06,0.140
5.160E-06,0.156
5.170E-06,0.168
5.180E-06,0.164
5.190E-06,0.160
5.200E-06,0.148
5.210E-06,0.140
5.220E-06,0.140
5.230E-06,0.136
5.240E-06,0.144
5.250E-06,0.144
5.260E-06,0.144
5.270E-06,0.140
5.280E-06,0.140
5.290E-06,0.140
5.300E-06,0.144
5.310E-06,0.152
5.320E-06,0.156
5.330E-06,0.152
5.340E-06,0.152
5.350E-06,0.152
5.360E-06,0.144
5.370E-06,0.148
5.380E-06,0.156
5.390E-06,0.156
5.400E-06,0.152
5.410E-06,0.148
5.420E-06,0.152
5.430E-06,0.152
5.440E-06,0.152
5.450E-06,0.144
5.460E-06,0.144
5.470E-06,0.148
5.480E-06,0.148
5.490E-06,0.140
5.500E-06,0.144
5.510E-06,0.148
5.520E-06,0.148
5.530E-06,0.148
5.540E-06,0.152
5.550E-06,0.152
5.560E-06,0.152
5.570E-06,0.152
5.580E-06,0.152
5.590E-06,0.156
5.600E-06,0.156
5.610E-06,0.160
5.620E-06,0.152
5.630E-06,0.148
5.640E-06,0.148
5.650E-06,0.152
5.660E-06,0.144
5.670E-06,0.148
5.680E-06,0.152
5.690E-06,0.152
5.700E-06,0.148
5.710E-06,0.144
5.720E-06,0.144
5.730E-06,0.148
5.740E-06,0.140
5.750E-06,0.144
5.760E-06,0.144
5.770E-06,0.148
5.780E-06,0.144
5.790E-06,0.140
5.800E-06,0.144
5.810E-06,0.140
5.820E-06,0.144
5.830E-06,0.144
5.840E-06,0.144
5.850E-06,0.144
5.860E-06,0.144
5.870E-06,0.144
5.880E-06,0.140
5.890E-06,0.140
5.900E-06,0.144
5.910E-06,0.144
5.920E-06,0.140
5.930E-06,0.140
5.940E-06,0.136
5.950E-06,0.140
5.960E-06,0.144
5.970E-06,0.136
5.980E-06,0.136
5.990E-06,0.140
6.000E-06,0.140
6.010E-06,0.136
6.020E-06,0.140
6.030E-06,0.136
6.040E-06,0.136
6.050E-06,0.136
6.060E-06,0.136
6.070E-06,0.132
6.080E-06,0.132
6.090E-06,0.132
6.100E-06,0.132
6.110E-06,0.136
6.120E-06,0.136
6.130E-06,0.136
6.140E-06,0.132
6.150E-06,0.128
6.160E-06,0.128
6.170E-06,0.132
6.180E-06,0.132
6.190E-06,0.136
6.200E-06,0.136
6.210E-06,0.132
6.220E-06,0.136
6.230E-06,0.128
6.240E-06,0.128
6.250E-06,0.128
6.260E-06,0.128
6.270E-06,0.128
6.280E-06,0.128
6.290E-06,0.124
6.300E-06,0.124
6.310E-06,0.128
6.320E-06,0.124
6.330E-06,0.128
6.340E-06,0.124
6.350E-06,0.132
6.360E-06,0.128
6.370E-06,0.128
6.380E-06,0.128
6.390E-06,0.128
6.400E-06,0.128
6.410E-06,0.132
6.420E-06,0.132
6.430E-06,0.128
6.440E-06,0.128
6.450E-06,0.128
6.460E-06,0.128
6.470E-06,0.128
6.480E-06,0.128
6.490E-06,0.124
6.500E-06,0.124
6.510E-06,0.124
6.520E-06,0.124
6.530E-06,0.120
6.540E-06,0.120
6.550E-06,0.116
6.560E-06,0.120
6.570E-06,0.120
6.580E-06,0.120
6.590E-06,0.124
6.600E-06,0.124
6.610E-06,0.124
6.620E-06,0.124
6.630E-06,0.120
6.640E-06,0.124
6.650E-06,0.120
6.660E-06,0.128
6.670E-06,0.124
6.680E-06,0.120
6.690E-06,0.120
6.700E-06,0.124
6.710E-06,0.112
6.720E-06,0.112
6.730E-06,0.112
6.740E-06,0.116
6.750E-06,0.120
6.760E-06,0.112
6.770E-06,0.120
6.780E-06,0.116
6.790E-06,0.116
6.800E-06,0.108
6.810E-06,0.108
6.820E-06,0.108
6.830E-06,0.112
6.840E-06,0.112
6.850E-06,0.112
6.860E-06,0.108
6.870E-06,0.108
6.880E-06,0.108
6.890E-06,0.112
6.900E-06,0.112
6.910E-06,0.108
6.920E-06,0.108
6.930E-06,0.108
6.940E-06,0.108
6.950E-06,0.104
6.960E-06,0.104
6.970E-06,0.108
6.980E-06,0.108
6.990E-06,0.104
7.000E-06,0.108
7.010E-06,0.108
7.020E-06,0.104
7.030E-06,0.104
7.040E-06,0.104
7.050E-06,0.104
7.060E-06,0.100
7.070E-06,0.100
7.080E-06,0.100
7.090E-06,0.100
7.100E-06,0.100
7.110E-06,0.104
7.120E-06,0.100
7.130E-06,0.100
7.140E-06,0.104
7.150E-06,0.104
7.160E-06,0.104
7.170E-06,0.104
7.180E-06,0.104
7.190E-06,0.100
7.200E-06,0.100
7.210E-06,0.104
7.220E-06,0.100
7.230E-06,0.100
7.240E-06,0.104
7.250E-06,0.100
7.260E-06,0.104
7.270E-06,0.100
7.280E-06,0.100
7.290E-06,0.096
7.300E-06,0.100
7.310E-06,0.096
7.320E-06,0.096
7.330E-06,0.100
7.340E-06,0.096
7.350E-06,0.100
7.360E-06,0.100
7.370E-06,0.096
7.380E-06,0.092
7.390E-06,0.096
7.400E-06,0.092
7.410E-06,0.096
7.420E-06,0.092
7.430E-06,0.096
7.440E-06,0.096
7.450E-06,0.092
7.460E-06,0.092
7.470E-06,0.096
7.480E-06,0.088
7.490E-06,0.096
7.500E-06,0.092
7.510E-06,0.088
7.520E-06,0.092
7.530E-06,0.088
7.540E-06,0.088
7.550E-06,0.092
7.560E-06,0.092
7.570E-06,0.088
7.580E-06,0.092
7.590E-06,0.084
7.600E-06,0.088
7.610E-06,0.088
7.620E-06,0.088
7.630E-06,0.088
7.640E-06,0.092
7.650E-06,0.092
7.660E-06,0.088
7.670E-06,0.092
7.680E-06,0.088
7.690E-06,0.084
7.700E-06,0.088
7.710E-06,0.088
7.720E-06,0.084
7.730E-06,0.084
7.740E-06,0.080
7.750E-06,0.084
7.760E-06,0.080
7.770E-06,0.080
7.780E-06,0.076
7.790E-06,0.080
7.800E-06,0.084
7.810E-06,0.088
7.820E-06,0.088
7.830E-06,0.080
7.840E-06,0.088
7.850E-06,0.080
7.860E-06,0.084
7.870E-06,0.080
7.880E-06,0.076
7.890E-06,0.084
7.900E-06,0.076
7.910E-06,0.076
7.920E-06,0.080
7.930E-06,0.076
7.940E-06,0.076
7.950E-06,0.076
7.960E-06,0.076
7.970E-06,0.080
7.980E-06,0.080
7.990E-06,0.072
8.000E-06,0.080
8.010E-06,0.076
8.020E-06,0.072
8.030E-06,0.072
8.040E-06,0.072
8.050E-06,0.076
8.060E-06,0.076
8.070E-06,0.068
8.080E-06,0.072
8.090E-06,0.072
8.100E-06,0.068
8.110E-06,0.072
8.120E-06,0.072
8.130E-06,0.068
8.140E-06,0.068
8.150E-06,0.072
8.160E-06,0.072
8.170E-06,0.068
8.180E-06,0.068
8.190E-06,0.068
8.200E-06,0.068
8.210E-06,0.068
8.220E-06,0.068
8.230E-06,0.068
8.240E-06,0.072
8.250E-06,0.072
8.260E-06,0.064
8.270E-06,0.064
