mediciones/5-27/-27.5/WaveData5176.csv

#timebase=2000000(ps)
,#voltbase=100000(mv/100)
#size=4000
-3.800E-06,0.032
-3.790E-06,0.020
-3.780E-06,0.004
-3.770E-06,-0.004
-3.760E-06,-0.008
-3.750E-06,0.012
-3.740E-06,0.024
-3.730E-06,0.024
-3.720E-06,0.024
-3.710E-06,0.024
-3.700E-06,0.020
-3.690E-06,0.028
-3.680E-06,0.036
-3.670E-06,0.036
-3.660E-06,0.016
-3.650E-06,-0.012
-3.640E-06,-0.020
-3.630E-06,-0.024
-3.620E-06,-0.012
-3.610E-06,-0.004
-3.600E-06,0.004
-3.590E-06,0.008
-3.580E-06,0.012
-3.570E-06,0.020
-3.560E-06,0.028
-3.550E-06,0.040
-3.540E-06,0.012
-3.530E-06,0.000
-3.520E-06,-0.032
-3.510E-06,-0.044
-3.500E-06,-0.008
-3.490E-06,0.028
-3.480E-06,0.032
-3.470E-06,0.052
-3.460E-06,0.024
-3.450E-06,0.020
-3.440E-06,0.016
-3.430E-06,-0.012
-3.420E-06,-0.040
-3.410E-06,-0.068
-3.400E-06,-0.068
-3.390E-06,-0.012
-3.380E-06,0.024
-3.370E-06,0.056
-3.360E-06,0.068
-3.350E-06,0.032
-3.340E-06,-0.028
-3.330E-06,-0.052
-3.320E-06,-0.052
-3.310E-06,-0.004
-3.300E-06,0.040
-3.290E-06,0.024
-3.280E-06,-0.008
-3.270E-06,-0.056
-3.260E-06,-0.044
-3.250E-06,-0.012
-3.240E-06,0.012
-3.230E-06,0.028
-3.220E-06,0.024
-3.210E-06,0.004
-3.200E-06,-0.008
-3.190E-06,-0.016
-3.180E-06,-0.004
-3.170E-06,0.020
-3.160E-06,0.024
-3.150E-06,0.008
-3.140E-06,-0.020
-3.130E-06,-0.028
-3.120E-06,-0.008
-3.110E-06,0.008
-3.100E-06,0.028
-3.090E-06,0.024
-3.080E-06,0.012
-3.070E-06,-0.008
-3.060E-06,-0.024
-3.050E-06,-0.024
-3.040E-06,0.000
-3.030E-06,0.024
-3.020E-06,0.036
-3.010E-06,0.028
-3.000E-06,0.012
-2.990E-06,0.000
-2.980E-06,-0.004
-2.970E-06,0.000
-2.960E-06,0.020
-2.950E-06,0.036
-2.940E-06,0.032
-2.930E-06,0.044
-2.920E-06,0.044
-2.910E-06,0.028
-2.900E-06,0.020
-2.890E-06,-0.004
-2.880E-06,-0.064
-2.870E-06,-0.060
-2.860E-06,-0.084
-2.850E-06,-0.036
-2.840E-06,0.072
-2.830E-06,0.056
-2.820E-06,0.044
-2.810E-06,0.000
-2.800E-06,-0.040
-2.790E-06,-0.052
-2.780E-06,-0.048
-2.770E-06,0.012
-2.760E-06,0.036
-2.750E-06,0.036
-2.740E-06,-0.008
-2.730E-06,-0.048
-2.720E-06,-0.056
-2.710E-06,-0.012
-2.700E-06,0.020
-2.690E-06,0.044
-2.680E-06,0.028
-2.670E-06,0.000
-2.660E-06,-0.020
-2.650E-06,-0.036
-2.640E-06,-0.012
-2.630E-06,0.012
-2.620E-06,0.036
-2.610E-06,0.036
-2.600E-06,0.012
-2.590E-06,-0.008
-2.580E-06,-0.028
-2.570E-06,-0.020
-2.560E-06,-0.004
-2.550E-06,0.016
-2.540E-06,0.024
-2.530E-06,0.028
-2.520E-06,0.008
-2.510E-06,-0.008
-2.500E-06,-0.012
-2.490E-06,-0.008
-2.480E-06,0.008
-2.470E-06,0.016
-2.460E-06,0.020
-2.450E-06,0.024
-2.440E-06,0.012
-2.430E-06,-0.004
-2.420E-06,-0.012
-2.410E-06,-0.012
-2.400E-06,0.008
-2.390E-06,0.024
-2.380E-06,0.036
-2.370E-06,0.036
-2.360E-06,0.036
-2.350E-06,0.028
-2.340E-06,0.008
-2.330E-06,0.008
-2.320E-06,-0.004
-2.310E-06,0.008
-2.300E-06,0.024
-2.290E-06,0.028
-2.280E-06,0.024
-2.270E-06,-0.020
-2.260E-06,-0.056
-2.250E-06,-0.068
-2.240E-06,-0.064
-2.230E-06,-0.004
-2.220E-06,0.024
-2.210E-06,0.052
-2.200E-06,0.028
-2.190E-06,0.008
-2.180E-06,-0.016
-2.170E-06,-0.028
-2.160E-06,0.000
-2.150E-06,0.008
-2.140E-06,0.040
-2.130E-06,0.024
-2.120E-06,0.028
-2.110E-06,-0.004
-2.100E-06,-0.048
-2.090E-06,-0.028
-2.080E-06,-0.020
-2.070E-06,0.000
-2.060E-06,0.000
-2.050E-06,0.004
-2.040E-06,0.004
-2.030E-06,-0.004
-2.020E-06,-0.004
-2.010E-06,-0.012
-2.000E-06,-0.008
-1.990E-06,0.000
-1.980E-06,0.008
-1.970E-06,0.012
-1.960E-06,0.008
-1.950E-06,0.012
-1.940E-06,0.004
-1.930E-06,0.004
-1.920E-06,0.008
-1.910E-06,0.016
-1.900E-06,0.012
-1.890E-06,0.008
-1.880E-06,0.008
-1.870E-06,0.000
-1.860E-06,-0.008
-1.850E-06,-0.004
-1.840E-06,0.004
-1.830E-06,0.008
-1.820E-06,0.020
-1.810E-06,0.020
-1.800E-06,0.020
-1.790E-06,0.012
-1.780E-06,0.000
-1.770E-06,0.000
-1.760E-06,0.000
-1.750E-06,0.000
-1.740E-06,0.016
-1.730E-06,0.016
-1.720E-06,0.016
-1.710E-06,0.008
-1.700E-06,0.000
-1.690E-06,0.000
-1.680E-06,0.012
-1.670E-06,0.024
-1.660E-06,0.044
-1.650E-06,0.044
-1.640E-06,0.008
-1.630E-06,-0.024
-1.620E-06,-0.052
-1.610E-06,-0.048
-1.600E-06,-0.024
-1.590E-06,0.004
-1.580E-06,0.020
-1.570E-06,0.008
-1.560E-06,0.000
-1.550E-06,-0.008
-1.540E-06,-0.028
-1.530E-06,-0.008
-1.520E-06,0.004
-1.510E-06,0.024
-1.500E-06,0.024
-1.490E-06,0.012
-1.480E-06,-0.004
-1.470E-06,-0.004
-1.460E-06,0.004
-1.450E-06,0.020
-1.440E-06,0.036
-1.430E-06,0.040
-1.420E-06,0.032
-1.410E-06,0.020
-1.400E-06,0.000
-1.390E-06,0.000
-1.380E-06,0.012
-1.370E-06,0.016
-1.360E-06,0.024
-1.350E-06,0.016
-1.340E-06,0.016
-1.330E-06,0.016
-1.320E-06,0.012
-1.310E-06,0.012
-1.300E-06,0.008
-1.290E-06,0.000
-1.280E-06,0.008
-1.270E-06,0.004
-1.260E-06,0.044
-1.250E-06,0.056
-1.240E-06,0.076
-1.230E-06,0.032
-1.220E-06,-0.036
-1.210E-06,-0.080
-1.200E-06,-0.120
-1.190E-06,-0.076
-1.180E-06,-0.024
-1.170E-06,0.060
-1.160E-06,0.076
-1.150E-06,0.044
-1.140E-06,-0.004
-1.130E-06,-0.056
-1.120E-06,-0.064
-1.110E-06,-0.024
-1.100E-06,0.008
-1.090E-06,0.028
-1.080E-06,0.028
-1.070E-06,-0.004
-1.060E-06,-0.036
-1.050E-06,-0.056
-1.040E-06,-0.032
-1.030E-06,-0.004
-1.020E-06,0.028
-1.010E-06,0.040
-1.000E-06,0.028
-9.900E-07,0.004
-9.800E-07,-0.016
-9.700E-07,-0.016
-9.600E-07,-0.004
-9.500E-07,0.008
-9.400E-07,0.024
-9.300E-07,0.024
-9.200E-07,0.020
-9.100E-07,0.004
-9.000E-07,0.000
-8.900E-07,0.004
-8.800E-07,0.012
-8.700E-07,0.012
-8.600E-07,0.004
-8.500E-07,0.004
-8.400E-07,0.008
-8.300E-07,0.012
-8.200E-07,0.020
-8.100E-07,0.028
-8.000E-07,0.032
-7.900E-07,0.048
-7.800E-07,0.064
-7.700E-07,0.072
-7.600E-07,0.092
-7.500E-07,0.072
-7.400E-07,0.044
-7.300E-07,0.008
-7.200E-07,-0.048
-7.100E-07,-0.080
-7.000E-07,-0.072
-6.900E-07,-0.044
-6.800E-07,0.008
-6.700E-07,0.048
-6.600E-07,0.072
-6.500E-07,0.048
-6.400E-07,0.004
-6.300E-07,-0.036
-6.200E-07,-0.044
-6.100E-07,-0.024
-6.000E-07,0.016
-5.900E-07,0.040
-5.800E-07,0.060
-5.700E-07,0.068
-5.600E-07,0.084
-5.500E-07,0.084
-5.400E-07,0.100
-5.300E-07,0.076
-5.200E-07,0.048
-5.100E-07,-0.052
-5.000E-07,-0.156
-4.900E-07,-0.220
-4.800E-07,-0.196
-4.700E-07,-0.076
-4.600E-07,0.016
-4.500E-07,0.088
-4.400E-07,0.084
-4.300E-07,-0.004
-4.200E-07,-0.056
-4.100E-07,-0.036
-4.000E-07,0.000
-3.900E-07,0.044
-3.800E-07,0.104
-3.700E-07,0.112
-3.600E-07,0.056
-3.500E-07,-0.040
-3.400E-07,-0.128
-3.300E-07,-0.156
-3.200E-07,-0.112
-3.100E-07,-0.012
-3.000E-07,0.072
-2.900E-07,0.124
-2.800E-07,0.128
-2.700E-07,0.076
-2.600E-07,0.008
-2.500E-07,-0.036
-2.400E-07,-0.032
-2.300E-07,0.004
-2.200E-07,0.040
-2.100E-07,0.052
-2.000E-07,0.048
-1.900E-07,0.020
-1.800E-07,0.012
-1.700E-07,0.024
-1.600E-07,0.060
-1.500E-07,0.088
-1.400E-07,0.124
-1.300E-07,0.120
-1.200E-07,0.032
-1.100E-07,-0.044
-1.000E-07,-0.076
-9.000E-08,-0.068
-8.000E-08,0.064
-7.000E-08,0.084
-6.000E-08,-0.036
-5.000E-08,-0.156
-4.000E-08,-0.204
-3.000E-08,-0.128
-2.000E-08,0.032
-1.000E-08,0.228
0.000E+00,0.284
1.000E-08,0.132
2.000E-08,-0.096
3.000E-08,-0.280
4.000E-08,-0.232
5.000E-08,-0.056
6.000E-08,-0.028
7.000E-08,0.028
8.000E-08,-0.040
9.000E-08,-0.148
1.000E-07,-0.084
1.100E-07,0.020
1.200E-07,0.172
1.300E-07,0.140
1.400E-07,0.024
1.500E-07,-0.116
1.600E-07,-0.152
1.700E-07,-0.056
1.800E-07,0.040
1.900E-07,0.076
2.000E-07,0.036
2.100E-07,0.004
2.200E-07,-0.040
2.300E-07,-0.028
2.400E-07,0.000
2.500E-07,0.028
2.600E-07,0.032
2.700E-07,0.016
2.800E-07,-0.008
2.900E-07,-0.024
3.000E-07,-0.004
3.100E-07,0.016
3.200E-07,0.020
3.300E-07,0.028
3.400E-07,0.016
3.500E-07,0.000
3.600E-07,0.004
3.700E-07,0.000
3.800E-07,0.004
3.900E-07,0.024
4.000E-07,0.020
4.100E-07,0.020
4.200E-07,0.020
4.300E-07,0.016
4.400E-07,0.008
4.500E-07,0.008
4.600E-07,0.004
4.700E-07,0.016
4.800E-07,0.028
4.900E-07,0.036
5.000E-07,0.044
5.100E-07,0.052
5.200E-07,0.056
5.300E-07,0.052
5.400E-07,0.012
5.500E-07,-0.060
5.600E-07,-0.168
5.700E-07,-0.152
5.800E-07,-0.108
5.900E-07,0.028
6.000E-07,0.100
6.100E-07,0.088
6.200E-07,0.080
6.300E-07,-0.024
6.400E-07,-0.092
6.500E-07,-0.084
6.600E-07,-0.004
6.700E-07,0.080
6.800E-07,0.064
6.900E-07,0.008
7.000E-07,-0.056
7.100E-07,-0.068
7.200E-07,-0.028
7.300E-07,0.028
7.400E-07,0.076
7.500E-07,0.068
7.600E-07,0.024
7.700E-07,-0.020
7.800E-07,-0.040
7.900E-07,-0.004
8.000E-07,0.040
8.100E-07,0.076
8.200E-07,0.064
8.300E-07,0.052
8.400E-07,0.024
8.500E-07,0.028
8.600E-07,0.028
8.700E-07,0.008
8.800E-07,-0.020
8.900E-07,-0.052
9.000E-07,-0.060
9.100E-07,-0.032
9.200E-07,-0.004
9.300E-07,0.008
9.400E-07,0.008
9.500E-07,0.016
9.600E-07,0.008
9.700E-07,0.004
9.800E-07,-0.004
9.900E-07,-0.008
1.000E-06,-0.020
1.010E-06,-0.008
1.020E-06,0.012
1.030E-06,0.032
1.040E-06,0.052
1.050E-06,0.048
1.060E-06,0.020
1.070E-06,-0.004
1.080E-06,-0.028
1.090E-06,-0.036
1.100E-06,-0.004
1.110E-06,0.016
1.120E-06,0.084
1.130E-06,0.076
1.140E-06,0.060
1.150E-06,0.028
1.160E-06,-0.020
1.170E-06,-0.020
1.180E-06,-0.036
1.190E-06,-0.028
1.200E-06,0.004
1.210E-06,0.012
1.220E-06,0.008
1.230E-06,0.000
1.240E-06,-0.008
1.250E-06,-0.008
1.260E-06,0.016
1.270E-06,0.048
1.280E-06,0.064
1.290E-06,0.060
1.300E-06,0.048
1.310E-06,0.012
1.320E-06,-0.008
1.330E-06,0.008
1.340E-06,0.016
1.350E-06,0.016
1.360E-06,-0.008
1.370E-06,-0.036
1.380E-06,-0.084
1.390E-06,-0.088
1.400E-06,-0.068
1.410E-06,-0.016
1.420E-06,0.028
1.430E-06,0.056
1.440E-06,0.024
1.450E-06,-0.004
1.460E-06,-0.024
1.470E-06,-0.024
1.480E-06,0.000
1.490E-06,0.016
1.500E-06,0.056
1.510E-06,0.044
1.520E-06,0.032
1.530E-06,-0.004
1.540E-06,-0.024
1.550E-06,-0.020
1.560E-06,0.000
1.570E-06,0.008
1.580E-06,0.028
1.590E-06,0.048
1.600E-06,0.040
1.610E-06,0.028
1.620E-06,-0.004
1.630E-06,-0.020
1.640E-06,-0.036
1.650E-06,-0.036
1.660E-06,-0.008
1.670E-06,0.004
1.680E-06,0.024
1.690E-06,0.040
1.700E-06,0.060
1.710E-06,0.092
1.720E-06,0.084
1.730E-06,0.076
1.740E-06,0.064
1.750E-06,0.040
1.760E-06,0.040
1.770E-06,0.028
1.780E-06,0.052
1.790E-06,0.048
1.800E-06,0.060
1.810E-06,0.048
1.820E-06,0.080
1.830E-06,0.072
1.840E-06,0.060
1.850E-06,0.044
1.860E-06,-0.004
1.870E-06,-0.016
1.880E-06,-0.020
1.890E-06,0.004
1.900E-06,0.020
1.910E-06,0.000
1.920E-06,-0.032
1.930E-06,-0.132
1.940E-06,-0.136
1.950E-06,-0.124
1.960E-06,-0.044
1.970E-06,0.036
1.980E-06,0.080
1.990E-06,0.064
2.000E-06,0.024
2.010E-06,0.008
2.020E-06,0.016
2.030E-06,0.052
2.040E-06,0.108
2.050E-06,0.124
2.060E-06,0.100
2.070E-06,0.056
2.080E-06,0.056
2.090E-06,0.100
2.100E-06,0.112
2.110E-06,0.156
2.120E-06,-0.052
2.130E-06,-0.092
2.140E-06,-0.276
2.150E-06,-0.288
2.160E-06,-0.176
2.170E-06,-0.112
2.180E-06,0.112
2.190E-06,-0.236
2.200E-06,-0.232
2.210E-06,-0.184
2.220E-06,-0.068
2.230E-06,0.032
2.240E-06,0.124
2.250E-06,0.240
2.260E-06,0.032
2.270E-06,-0.084
2.280E-06,-0.208
2.290E-06,-0.148
2.300E-06,-0.028
2.310E-06,0.088
2.320E-06,0.112
2.330E-06,0.104
2.340E-06,0.064
2.350E-06,-0.008
2.360E-06,-0.064
2.370E-06,-0.080
2.380E-06,-0.036
2.390E-06,0.008
2.400E-06,0.052
2.410E-06,0.056
2.420E-06,0.044
2.430E-06,0.024
2.440E-06,-0.004
2.450E-06,-0.012
2.460E-06,-0.012
2.470E-06,0.000
2.480E-06,0.008
2.490E-06,0.028
2.500E-06,0.028
2.510E-06,0.040
2.520E-06,0.032
2.530E-06,0.028
2.540E-06,0.024
2.550E-06,0.028
2.560E-06,0.024
2.570E-06,0.040
2.580E-06,0.052
2.590E-06,0.056
2.600E-06,0.068
2.610E-06,0.068
2.620E-06,0.064
2.630E-06,0.044
2.640E-06,0.032
2.650E-06,0.012
2.660E-06,0.020
2.670E-06,0.044
2.680E-06,0.088
2.690E-06,0.112
2.700E-06,0.120
2.710E-06,0.084
2.720E-06,0.012
2.730E-06,-0.064
2.740E-06,-0.112
2.750E-06,-0.108
2.760E-06,-0.096
2.770E-06,-0.068
2.780E-06,-0.068
2.790E-06,-0.120
2.800E-06,-0.108
2.810E-06,-0.072
2.820E-06,-0.040
2.830E-06,0.044
2.840E-06,0.076
2.850E-06,0.076
2.860E-06,0.048
2.870E-06,0.000
2.880E-06,0.012
2.890E-06,0.008
2.900E-06,0.028
2.910E-06,0.068
2.920E-06,0.104
2.930E-06,0.128
2.940E-06,0.124
2.950E-06,0.096
2.960E-06,0.072
2.970E-06,0.072
2.980E-06,0.092
2.990E-06,0.120
3.000E-06,0.120
3.010E-06,0.092
3.020E-06,0.028
3.030E-06,-0.004
3.040E-06,-0.036
3.050E-06,-0.020
3.060E-06,0.020
3.070E-06,0.060
3.080E-06,0.064
3.090E-06,0.036
3.100E-06,0.012
3.110E-06,-0.008
3.120E-06,0.008
3.130E-06,0.032
3.140E-06,0.060
3.150E-06,0.092
3.160E-06,0.100
3.170E-06,0.112
3.180E-06,0.120
3.190E-06,0.120
3.200E-06,0.120
3.210E-06,0.096
3.220E-06,0.072
3.230E-06,0.044
3.240E-06,0.052
3.250E-06,0.088
3.260E-06,0.124
3.270E-06,0.144
3.280E-06,0.112
3.290E-06,0.040
3.300E-06,-0.004
3.310E-06,-0.028
3.320E-06,0.068
3.330E-06,0.132
3.340E-06,0.204
3.350E-06,0.224
3.360E-06,0.160
3.370E-06,0.032
3.380E-06,-0.120
3.390E-06,-0.264
3.400E-06,-0.348
3.410E-06,-0.456
3.420E-06,-0.508
3.430E-06,-0.268
3.440E-06,-0.160
3.450E-06,0.120
3.460E-06,0.224
3.470E-06,0.160
3.480E-06,-0.172
3.490E-06,-0.392
3.500E-06,-0.452
3.510E-06,-0.332
3.520E-06,-0.052
3.530E-06,0.132
3.540E-06,0.248
3.550E-06,0.156
3.560E-06,-0.032
3.570E-06,-0.208
3.580E-06,-0.228
3.590E-06,-0.108
3.600E-06,0.060
3.610E-06,0.144
3.620E-06,0.160
3.630E-06,0.088
3.640E-06,-0.020
3.650E-06,-0.096
3.660E-06,-0.076
3.670E-06,0.004
3.680E-06,0.112
3.690E-06,0.192
3.700E-06,0.156
3.710E-06,0.112
3.720E-06,0.032
3.730E-06,0.008
3.740E-06,-0.016
3.750E-06,0.024
3.760E-06,0.084
3.770E-06,0.128
3.780E-06,0.144
3.790E-06,0.108
3.800E-06,0.060
3.810E-06,0.028
3.820E-06,0.028
3.830E-06,0.040
3.840E-06,0.084
3.850E-06,0.120
3.860E-06,0.140
3.870E-06,0.136
3.880E-06,0.124
3.890E-06,0.124
3.900E-06,0.108
3.910E-06,0.132
3.920E-06,0.160
3.930E-06,0.180
3.940E-06,0.192
3.950E-06,0.188
3.960E-06,0.160
3.970E-06,0.140
3.980E-06,0.124
3.990E-06,0.128
4.000E-06,0.140
4.010E-06,0.164
4.020E-06,0.184
4.030E-06,0.192
4.040E-06,0.176
4.050E-06,0.140
4.060E-06,0.108
4.070E-06,0.080
4.080E-06,0.092
4.090E-06,0.108
4.100E-06,0.128
4.110E-06,0.124
4.120E-06,0.108
4.130E-06,0.088
4.140E-06,0.072
4.150E-06,0.088
4.160E-06,0.120
4.170E-06,0.168
4.180E-06,0.204
4.190E-06,0.200
4.200E-06,0.164
4.210E-06,0.116
4.220E-06,0.056
4.230E-06,0.008
4.240E-06,-0.060
4.250E-06,-0.128
4.260E-06,-0.208
4.270E-06,-0.236
4.280E-06,-0.300
4.290E-06,-0.196
4.300E-06,-0.140
4.310E-06,-0.064
4.320E-06,-0.040
4.330E-06,-0.068
4.340E-06,-0.072
4.350E-06,-0.032
4.360E-06,0.080
4.370E-06,0.064
4.380E-06,0.084
4.390E-06,0.016
4.400E-06,-0.044
4.410E-06,-0.120
4.420E-06,-0.108
4.430E-06,-0.036
4.440E-06,0.036
4.450E-06,0.088
4.460E-06,0.056
4.470E-06,0.048
4.480E-06,0.004
4.490E-06,0.036
4.500E-06,0.080
4.510E-06,0.136
4.520E-06,0.172
4.530E-06,0.152
4.540E-06,0.136
4.550E-06,0.112
4.560E-06,0.104
4.570E-06,0.120
4.580E-06,0.156
4.590E-06,0.196
4.600E-06,0.212
4.610E-06,0.200
4.620E-06,0.188
4.630E-06,0.156
4.640E-06,0.136
4.650E-06,0.136
4.660E-06,0.140
4.670E-06,0.168
4.680E-06,0.176
4.690E-06,0.184
4.700E-06,0.176
4.710E-06,0.160
4.720E-06,0.152
4.730E-06,0.152
4.740E-06,0.164
4.750E-06,0.168
4.760E-06,0.172
4.770E-06,0.172
4.780E-06,0.176
4.790E-06,0.160
4.800E-06,0.160
4.810E-06,0.160
4.820E-06,0.168
4.830E-06,0.172
4.840E-06,0.172
4.850E-06,0.172
4.860E-06,0.160
4.870E-06,0.160
4.880E-06,0.156
4.890E-06,0.160
4.900E-06,0.168
4.910E-06,0.164
4.920E-06,0.156
4.930E-06,0.156
4.940E-06,0.148
4.950E-06,0.144
4.960E-06,0.152
4.970E-06,0.152
4.980E-06,0.152
4.990E-06,0.156
5.000E-06,0.148
5.010E-06,0.152
5.020E-06,0.152
5.030E-06,0.152
5.040E-06,0.160
5.050E-06,0.160
5.060E-06,0.172
5.070E-06,0.172
5.080E-06,0.164
5.090E-06,0.160
5.100E-06,0.160
5.110E-06,0.160
5.120E-06,0.168
5.130E-06,0.164
5.140E-06,0.172
5.150E-06,0.164
5.160E-06,0.160
5.170E-06,0.160
5.180E-06,0.152
5.190E-06,0.160
5.200E-06,0.160
5.210E-06,0.160
5.220E-06,0.160
5.230E-06,0.164
5.240E-06,0.160
5.250E-06,0.160
5.260E-06,0.152
5.270E-06,0.152
5.280E-06,0.156
5.290E-06,0.156
5.300E-06,0.160
5.310E-06,0.156
5.320E-06,0.160
5.330E-06,0.160
5.340E-06,0.156
5.350E-06,0.160
5.360E-06,0.156
5.370E-06,0.160
5.380E-06,0.164
5.390E-06,0.160
5.400E-06,0.152
5.410E-06,0.156
5.420E-06,0.156
5.430E-06,0.156
5.440E-06,0.160
5.450E-06,0.156
5.460E-06,0.152
5.470E-06,0.156
5.480E-06,0.160
5.490E-06,0.152
5.500E-06,0.156
5.510E-06,0.152
5.520E-06,0.152
5.530E-06,0.156
5.540E-06,0.152
5.550E-06,0.152
5.560E-06,0.152
5.570E-06,0.148
5.580E-06,0.152
5.590E-06,0.152
5.600E-06,0.152
5.610E-06,0.152
5.620E-06,0.148
5.630E-06,0.152
5.640E-06,0.148
5.650E-06,0.152
5.660E-06,0.148
5.670E-06,0.152
5.680E-06,0.144
5.690E-06,0.148
5.700E-06,0.152
5.710E-06,0.148
5.720E-06,0.148
5.730E-06,0.148
5.740E-06,0.148
5.750E-06,0.148
5.760E-06,0.148
5.770E-06,0.148
5.780E-06,0.148
5.790E-06,0.144
5.800E-06,0.140
5.810E-06,0.148
5.820E-06,0.148
5.830E-06,0.148
5.840E-06,0.144
5.850E-06,0.144
5.860E-06,0.140
5.870E-06,0.140
5.880E-06,0.144
5.890E-06,0.140
5.900E-06,0.144
5.910E-06,0.136
5.920E-06,0.140
5.930E-06,0.136
5.940E-06,0.140
5.950E-06,0.136
5.960E-06,0.140
5.970E-06,0.144
5.980E-06,0.144
5.990E-06,0.144
6.000E-06,0.144
6.010E-06,0.136
6.020E-06,0.136
6.030E-06,0.132
6.040E-06,0.140
6.050E-06,0.144
6.060E-06,0.144
6.070E-06,0.136
6.080E-06,0.140
6.090E-06,0.140
6.100E-06,0.136
6.110E-06,0.136
6.120E-06,0.140
6.130E-06,0.144
6.140E-06,0.136
6.150E-06,0.136
6.160E-06,0.136
6.170E-06,0.136
6.180E-06,0.132
6.190E-06,0.136
6.200E-06,0.136
6.210E-06,0.136
6.220E-06,0.140
6.230E-06,0.136
6.240E-06,0.136
6.250E-06,0.136
6.260E-06,0.136
6.270E-06,0.136
6.280E-06,0.132
6.290E-06,0.132
6.300E-06,0.136
6.310E-06,0.136
6.320E-06,0.128
6.330E-06,0.128
6.340E-06,0.124
6.350E-06,0.124
6.360E-06,0.124
6.370E-06,0.124
6.380E-06,0.128
6.390E-06,0.128
6.400E-06,0.132
6.410E-06,0.128
6.420E-06,0.128
6.430E-06,0.128
6.440E-06,0.128
6.450E-06,0.128
6.460E-06,0.128
6.470E-06,0.128
6.480E-06,0.128
6.490E-06,0.128
6.500E-06,0.128
6.510E-06,0.128
6.520E-06,0.128
6.530E-06,0.128
6.540E-06,0.128
6.550E-06,0.132
6.560E-06,0.128
6.570E-06,0.128
6.580E-06,0.128
6.590E-06,0.132
6.600E-06,0.132
6.610E-06,0.132
6.620E-06,0.132
6.630E-06,0.128
6.640E-06,0.124
6.650E-06,0.124
6.660E-06,0.124
6.670E-06,0.124
6.680E-06,0.124
6.690E-06,0.124
6.700E-06,0.120
6.710E-06,0.120
6.720E-06,0.124
6.730E-06,0.120
6.740E-06,0.120
6.750E-06,0.124
6.760E-06,0.124
6.770E-06,0.124
6.780E-06,0.124
6.790E-06,0.124
6.800E-06,0.124
6.810E-06,0.124
6.820E-06,0.124
6.830E-06,0.120
6.840E-06,0.120
6.850E-06,0.120
6.860E-06,0.112
6.870E-06,0.120
6.880E-06,0.116
6.890E-06,0.112
6.900E-06,0.108
6.910E-06,0.112
6.920E-06,0.116
6.930E-06,0.112
6.940E-06,0.112
6.950E-06,0.108
6.960E-06,0.112
6.970E-06,0.112
6.980E-06,0.112
6.990E-06,0.108
7.000E-06,0.108
7.010E-06,0.108
7.020E-06,0.100
7.030E-06,0.108
7.040E-06,0.108
7.050E-06,0.104
7.060E-06,0.112
7.070E-06,0.112
7.080E-06,0.104
7.090E-06,0.100
7.100E-06,0.100
7.110E-06,0.104
7.120E-06,0.104
7.130E-06,0.108
7.140E-06,0.108
7.150E-06,0.104
7.160E-06,0.108
7.170E-06,0.104
7.180E-06,0.104
7.190E-06,0.108
7.200E-06,0.108
7.210E-06,0.104
7.220E-06,0.104
7.230E-06,0.104
7.240E-06,0.104
7.250E-06,0.096
7.260E-06,0.100
7.270E-06,0.104
7.280E-06,0.104
7.290E-06,0.100
7.300E-06,0.100
7.310E-06,0.100
7.320E-06,0.096
7.330E-06,0.100
7.340E-06,0.096
7.350E-06,0.096
7.360E-06,0.096
7.370E-06,0.092
7.380E-06,0.092
7.390E-06,0.096
7.400E-06,0.096
7.410E-06,0.096
7.420E-06,0.096
7.430E-06,0.096
7.440E-06,0.092
7.450E-06,0.096
7.460E-06,0.092
7.470E-06,0.088
7.480E-06,0.092
7.490E-06,0.092
7.500E-06,0.092
7.510E-06,0.088
7.520E-06,0.088
7.530E-06,0.088
7.540E-06,0.088
7.550E-06,0.088
7.560E-06,0.088
7.570E-06,0.092
7.580E-06,0.088
7.590E-06,0.088
7.600E-06,0.092
7.610E-06,0.088
7.620E-06,0.088
7.630E-06,0.088
7.640E-06,0.092
7.650E-06,0.092
7.660E-06,0.088
7.670E-06,0.092
7.680E-06,0.088
7.690E-06,0.088
7.700E-06,0.092
7.710E-06,0.092
7.720E-06,0.092
7.730E-06,0.088
7.740E-06,0.088
7.750E-06,0.084
7.760E-06,0.084
7.770E-06,0.088
7.780E-06,0.092
7.790E-06,0.092
7.800E-06,0.088
7.810E-06,0.088
7.820E-06,0.088
7.830E-06,0.088
7.840E-06,0.084
7.850E-06,0.084
7.860E-06,0.088
7.870E-06,0.092
7.880E-06,0.088
7.890E-06,0.084
7.900E-06,0.088
7.910E-06,0.084
7.920E-06,0.084
7.930E-06,0.084
7.940E-06,0.084
7.950E-06,0.080
7.960E-06,0.084
7.970E-06,0.088
7.980E-06,0.084
7.990E-06,0.088
8.000E-06,0.080
8.010E-06,0.076
8.020E-06,0.076
8.030E-06,0.076
8.040E-06,0.080
8.050E-06,0.080
8.060E-06,0.076
8.070E-06,0.076
8.080E-06,0.076
8.090E-06,0.072
8.100E-06,0.072
8.110E-06,0.072
8.120E-06,0.080
8.130E-06,0.076
8.140E-06,0.072
8.150E-06,0.076
8.160E-06,0.072
8.170E-06,0.072
8.180E-06,0.068
8.190E-06,0.072
8.200E-06,0.080
8.210E-06,0.072
8.220E-06,0.072
8.230E-06,0.060
8.240E-06,0.052
