mediciones/5-27/-27.5/WaveData5172.csv

#timebase=2000000(ps)
,#voltbase=100000(mv/100)
#size=4000
-3.800E-06,0.008
-3.790E-06,0.004
-3.780E-06,0.008
-3.770E-06,0.012
-3.760E-06,0.004
-3.750E-06,0.004
-3.740E-06,0.008
-3.730E-06,0.004
-3.720E-06,0.004
-3.710E-06,0.008
-3.700E-06,0.004
-3.690E-06,0.008
-3.680E-06,0.008
-3.670E-06,0.016
-3.660E-06,0.024
-3.650E-06,0.020
-3.640E-06,0.012
-3.630E-06,-0.004
-3.620E-06,-0.024
-3.610E-06,-0.020
-3.600E-06,-0.008
-3.590E-06,-0.004
-3.580E-06,0.004
-3.570E-06,0.012
-3.560E-06,0.016
-3.550E-06,0.016
-3.540E-06,0.000
-3.530E-06,-0.008
-3.520E-06,-0.008
-3.510E-06,-0.012
-3.500E-06,0.000
-3.490E-06,0.000
-3.480E-06,0.008
-3.470E-06,0.000
-3.460E-06,0.000
-3.450E-06,-0.004
-3.440E-06,-0.008
-3.430E-06,0.000
-3.420E-06,0.008
-3.410E-06,0.008
-3.400E-06,0.004
-3.390E-06,0.004
-3.380E-06,0.000
-3.370E-06,0.000
-3.360E-06,0.004
-3.350E-06,0.004
-3.340E-06,0.008
-3.330E-06,0.008
-3.320E-06,0.000
-3.310E-06,0.000
-3.300E-06,0.004
-3.290E-06,0.012
-3.280E-06,0.004
-3.270E-06,0.008
-3.260E-06,0.008
-3.250E-06,0.012
-3.240E-06,0.012
-3.230E-06,0.012
-3.220E-06,0.012
-3.210E-06,0.012
-3.200E-06,0.012
-3.190E-06,0.012
-3.180E-06,0.024
-3.170E-06,0.020
-3.160E-06,0.004
-3.150E-06,-0.004
-3.140E-06,-0.024
-3.130E-06,-0.020
-3.120E-06,-0.004
-3.110E-06,0.008
-3.100E-06,0.024
-3.090E-06,0.028
-3.080E-06,0.016
-3.070E-06,-0.004
-3.060E-06,-0.004
-3.050E-06,-0.008
-3.040E-06,-0.004
-3.030E-06,0.012
-3.020E-06,0.016
-3.010E-06,0.020
-3.000E-06,0.008
-2.990E-06,0.000
-2.980E-06,-0.004
-2.970E-06,-0.008
-2.960E-06,0.000
-2.950E-06,0.008
-2.940E-06,0.016
-2.930E-06,0.024
-2.920E-06,0.016
-2.910E-06,0.008
-2.900E-06,0.012
-2.890E-06,0.012
-2.880E-06,0.024
-2.870E-06,0.020
-2.860E-06,0.008
-2.850E-06,-0.004
-2.840E-06,-0.024
-2.830E-06,-0.024
-2.820E-06,-0.008
-2.810E-06,0.020
-2.800E-06,0.020
-2.790E-06,0.024
-2.780E-06,0.008
-2.770E-06,-0.004
-2.760E-06,-0.008
-2.750E-06,0.000
-2.740E-06,0.004
-2.730E-06,0.012
-2.720E-06,0.016
-2.710E-06,0.012
-2.700E-06,0.012
-2.690E-06,0.012
-2.680E-06,0.016
-2.670E-06,0.020
-2.660E-06,0.024
-2.650E-06,0.028
-2.640E-06,0.016
-2.630E-06,0.016
-2.620E-06,0.020
-2.610E-06,0.020
-2.600E-06,0.020
-2.590E-06,0.028
-2.580E-06,0.032
-2.570E-06,0.020
-2.560E-06,0.016
-2.550E-06,0.008
-2.540E-06,0.024
-2.530E-06,0.024
-2.520E-06,0.024
-2.510E-06,0.024
-2.500E-06,0.008
-2.490E-06,0.020
-2.480E-06,0.004
-2.470E-06,-0.012
-2.460E-06,-0.028
-2.450E-06,-0.032
-2.440E-06,-0.032
-2.430E-06,-0.028
-2.420E-06,-0.008
-2.410E-06,0.008
-2.400E-06,0.004
-2.390E-06,0.012
-2.380E-06,0.000
-2.370E-06,0.004
-2.360E-06,0.004
-2.350E-06,0.016
-2.340E-06,0.024
-2.330E-06,0.028
-2.320E-06,0.036
-2.310E-06,0.036
-2.300E-06,0.040
-2.290E-06,0.040
-2.280E-06,0.040
-2.270E-06,0.048
-2.260E-06,0.056
-2.250E-06,0.052
-2.240E-06,0.044
-2.230E-06,0.036
-2.220E-06,0.036
-2.210E-06,0.044
-2.200E-06,0.004
-2.190E-06,-0.020
-2.180E-06,-0.060
-2.170E-06,-0.060
-2.160E-06,-0.028
-2.150E-06,0.008
-2.140E-06,0.060
-2.130E-06,0.068
-2.120E-06,0.052
-2.110E-06,0.008
-2.100E-06,-0.024
-2.090E-06,-0.060
-2.080E-06,-0.004
-2.070E-06,-0.004
-2.060E-06,0.024
-2.050E-06,0.008
-2.040E-06,0.032
-2.030E-06,0.028
-2.020E-06,0.020
-2.010E-06,0.012
-2.000E-06,-0.068
-1.990E-06,-0.080
-1.980E-06,-0.128
-1.970E-06,-0.124
-1.960E-06,-0.072
-1.950E-06,-0.068
-1.940E-06,-0.048
-1.930E-06,-0.040
-1.920E-06,0.004
-1.910E-06,0.032
-1.900E-06,0.008
-1.890E-06,0.004
-1.880E-06,-0.004
-1.870E-06,-0.012
-1.860E-06,0.000
-1.850E-06,0.004
-1.840E-06,0.004
-1.830E-06,0.000
-1.820E-06,0.000
-1.810E-06,0.012
-1.800E-06,0.012
-1.790E-06,0.016
-1.780E-06,0.008
-1.770E-06,0.000
-1.760E-06,-0.008
-1.750E-06,-0.008
-1.740E-06,0.000
-1.730E-06,0.008
-1.720E-06,0.028
-1.710E-06,0.028
-1.700E-06,0.012
-1.690E-06,-0.004
-1.680E-06,-0.020
-1.670E-06,-0.004
-1.660E-06,0.008
-1.650E-06,0.028
-1.640E-06,0.040
-1.630E-06,0.028
-1.620E-06,0.000
-1.610E-06,-0.012
-1.600E-06,-0.020
-1.590E-06,-0.020
-1.580E-06,0.000
-1.570E-06,0.008
-1.560E-06,0.020
-1.550E-06,0.024
-1.540E-06,0.016
-1.530E-06,0.008
-1.520E-06,-0.004
-1.510E-06,0.004
-1.500E-06,0.012
-1.490E-06,0.012
-1.480E-06,0.024
-1.470E-06,0.032
-1.460E-06,0.040
-1.450E-06,0.056
-1.440E-06,0.064
-1.430E-06,0.072
-1.420E-06,0.080
-1.410E-06,0.092
-1.400E-06,0.096
-1.390E-06,0.096
-1.380E-06,0.088
-1.370E-06,0.060
-1.360E-06,0.032
-1.350E-06,0.008
-1.340E-06,0.012
-1.330E-06,0.040
-1.320E-06,0.060
-1.310E-06,0.072
-1.300E-06,0.040
-1.290E-06,0.008
-1.280E-06,-0.020
-1.270E-06,-0.044
-1.260E-06,-0.068
-1.250E-06,-0.036
-1.240E-06,-0.020
-1.230E-06,0.004
-1.220E-06,0.020
-1.210E-06,0.044
-1.200E-06,0.048
-1.190E-06,0.048
-1.180E-06,0.032
-1.170E-06,0.016
-1.160E-06,0.032
-1.150E-06,0.088
-1.140E-06,0.124
-1.130E-06,0.128
-1.120E-06,0.044
-1.110E-06,-0.104
-1.100E-06,-0.232
-1.090E-06,-0.284
-1.080E-06,-0.228
-1.070E-06,-0.104
-1.060E-06,0.016
-1.050E-06,0.100
-1.040E-06,0.092
-1.030E-06,0.072
-1.020E-06,0.000
-1.010E-06,-0.024
-1.000E-06,-0.016
-9.900E-07,-0.008
-9.800E-07,-0.004
-9.700E-07,-0.020
-9.600E-07,-0.036
-9.500E-07,-0.032
-9.400E-07,-0.008
-9.300E-07,0.012
-9.200E-07,0.036
-9.100E-07,0.056
-9.000E-07,0.052
-8.900E-07,0.032
-8.800E-07,0.008
-8.700E-07,-0.020
-8.600E-07,-0.032
-8.500E-07,-0.024
-8.400E-07,0.024
-8.300E-07,0.044
-8.200E-07,0.068
-8.100E-07,0.084
-8.000E-07,0.092
-7.900E-07,0.092
-7.800E-07,0.088
-7.700E-07,0.080
-7.600E-07,0.080
-7.500E-07,0.056
-7.400E-07,0.028
-7.300E-07,0.004
-7.200E-07,-0.004
-7.100E-07,-0.004
-7.000E-07,0.000
-6.900E-07,0.004
-6.800E-07,0.012
-6.700E-07,0.012
-6.600E-07,-0.004
-6.500E-07,-0.008
-6.400E-07,-0.028
-6.300E-07,-0.044
-6.200E-07,-0.064
-6.100E-07,-0.064
-6.000E-07,-0.072
-5.900E-07,-0.064
-5.800E-07,-0.040
-5.700E-07,-0.008
-5.600E-07,0.044
-5.500E-07,0.072
-5.400E-07,0.104
-5.300E-07,0.100
-5.200E-07,0.088
-5.100E-07,0.076
-5.000E-07,0.060
-4.900E-07,0.056
-4.800E-07,0.088
-4.700E-07,0.104
-4.600E-07,0.124
-4.500E-07,0.124
-4.400E-07,0.120
-4.300E-07,0.116
-4.200E-07,0.104
-4.100E-07,0.096
-4.000E-07,0.084
-3.900E-07,0.076
-3.800E-07,0.056
-3.700E-07,0.016
-3.600E-07,-0.004
-3.500E-07,-0.012
-3.400E-07,0.000
-3.300E-07,0.012
-3.200E-07,0.012
-3.100E-07,0.020
-3.000E-07,0.028
-2.900E-07,0.032
-2.800E-07,0.060
-2.700E-07,0.088
-2.600E-07,0.124
-2.500E-07,0.128
-2.400E-07,0.128
-2.300E-07,0.128
-2.200E-07,0.124
-2.100E-07,0.108
-2.000E-07,0.096
-1.900E-07,0.064
-1.800E-07,0.012
-1.700E-07,-0.044
-1.600E-07,-0.224
-1.500E-07,-0.392
-1.400E-07,-0.508
-1.300E-07,-0.508
-1.200E-07,-0.432
-1.100E-07,-0.236
-1.000E-07,-0.032
-9.000E-08,0.104
-8.000E-08,0.168
-7.000E-08,0.092
-6.000E-08,-0.024
-5.000E-08,-0.088
-4.000E-08,-0.056
-3.000E-08,0.052
-2.000E-08,0.164
-1.000E-08,0.224
0.000E+00,0.220
1.000E-08,0.188
2.000E-08,0.116
3.000E-08,0.060
4.000E-08,0.008
5.000E-08,-0.036
6.000E-08,-0.084
7.000E-08,-0.136
8.000E-08,-0.168
9.000E-08,-0.196
1.000E-07,-0.180
1.100E-07,-0.124
1.200E-07,-0.052
1.300E-07,-0.056
1.400E-07,-0.072
1.500E-07,-0.112
1.600E-07,-0.124
1.700E-07,-0.100
1.800E-07,-0.048
1.900E-07,0.016
2.000E-07,0.056
2.100E-07,0.084
2.200E-07,0.036
2.300E-07,0.004
2.400E-07,-0.008
2.500E-07,0.004
2.600E-07,0.044
2.700E-07,0.068
2.800E-07,0.068
2.900E-07,0.052
3.000E-07,0.036
3.100E-07,0.024
3.200E-07,0.044
3.300E-07,0.060
3.400E-07,0.068
3.500E-07,0.080
3.600E-07,0.076
3.700E-07,0.084
3.800E-07,0.088
3.900E-07,0.104
4.000E-07,0.124
4.100E-07,0.144
4.200E-07,0.152
4.300E-07,0.152
4.400E-07,0.152
4.500E-07,0.144
4.600E-07,0.128
4.700E-07,0.128
4.800E-07,0.136
4.900E-07,0.144
5.000E-07,0.152
5.100E-07,0.156
5.200E-07,0.152
5.300E-07,0.148
5.400E-07,0.136
5.500E-07,0.136
5.600E-07,0.136
5.700E-07,0.144
5.800E-07,0.148
5.900E-07,0.152
6.000E-07,0.156
6.100E-07,0.160
6.200E-07,0.152
6.300E-07,0.156
6.400E-07,0.156
6.500E-07,0.160
6.600E-07,0.144
6.700E-07,0.108
6.800E-07,0.060
6.900E-07,-0.008
7.000E-07,-0.064
7.100E-07,-0.116
7.200E-07,-0.140
7.300E-07,-0.104
7.400E-07,-0.052
7.500E-07,0.004
7.600E-07,0.020
7.700E-07,0.020
7.800E-07,0.000
7.900E-07,0.008
8.000E-07,0.036
8.100E-07,0.100
8.200E-07,0.192
8.300E-07,0.224
8.400E-07,0.208
8.500E-07,0.116
8.600E-07,0.008
8.700E-07,-0.104
8.800E-07,-0.152
8.900E-07,-0.148
9.000E-07,-0.120
9.100E-07,-0.108
9.200E-07,-0.104
9.300E-07,-0.132
9.400E-07,-0.156
9.500E-07,-0.160
9.600E-07,-0.152
9.700E-07,-0.136
9.800E-07,-0.052
9.900E-07,-0.056
1.000E-06,-0.032
1.010E-06,-0.028
1.020E-06,0.008
1.030E-06,0.056
1.040E-06,0.044
1.050E-06,0.124
1.060E-06,0.128
1.070E-06,0.168
1.080E-06,0.184
1.090E-06,0.180
1.100E-06,0.184
1.110E-06,0.148
1.120E-06,0.128
1.130E-06,0.104
1.140E-06,0.120
1.150E-06,0.144
1.160E-06,0.176
1.170E-06,0.192
1.180E-06,0.196
1.190E-06,0.176
1.200E-06,0.156
1.210E-06,0.148
1.220E-06,0.140
1.230E-06,0.148
1.240E-06,0.164
1.250E-06,0.172
1.260E-06,0.168
1.270E-06,0.172
1.280E-06,0.160
1.290E-06,0.152
1.300E-06,0.148
1.310E-06,0.156
1.320E-06,0.160
1.330E-06,0.160
1.340E-06,0.164
1.350E-06,0.176
1.360E-06,0.168
1.370E-06,0.164
1.380E-06,0.156
1.390E-06,0.156
1.400E-06,0.164
1.410E-06,0.164
1.420E-06,0.164
1.430E-06,0.168
1.440E-06,0.164
1.450E-06,0.164
1.460E-06,0.156
1.470E-06,0.156
1.480E-06,0.152
1.490E-06,0.152
1.500E-06,0.144
1.510E-06,0.140
1.520E-06,0.140
1.530E-06,0.144
1.540E-06,0.152
1.550E-06,0.164
1.560E-06,0.168
1.570E-06,0.172
1.580E-06,0.160
1.590E-06,0.152
1.600E-06,0.144
1.610E-06,0.124
1.620E-06,0.104
1.630E-06,0.068
1.640E-06,0.032
1.650E-06,-0.008
1.660E-06,-0.028
1.670E-06,-0.044
1.680E-06,-0.040
1.690E-06,-0.028
1.700E-06,-0.004
1.710E-06,-0.020
1.720E-06,-0.028
1.730E-06,-0.040
1.740E-06,-0.040
1.750E-06,0.004
1.760E-06,0.048
1.770E-06,0.140
1.780E-06,0.196
1.790E-06,0.220
1.800E-06,0.220
1.810E-06,0.176
1.820E-06,0.152
1.830E-06,0.132
1.840E-06,0.152
1.850E-06,0.176
1.860E-06,0.192
1.870E-06,0.200
1.880E-06,0.188
1.890E-06,0.164
1.900E-06,0.152
1.910E-06,0.144
1.920E-06,0.140
1.930E-06,0.152
1.940E-06,0.164
1.950E-06,0.172
1.960E-06,0.176
1.970E-06,0.172
1.980E-06,0.160
1.990E-06,0.156
2.000E-06,0.144
2.010E-06,0.152
2.020E-06,0.160
2.030E-06,0.168
2.040E-06,0.168
2.050E-06,0.160
2.060E-06,0.156
2.070E-06,0.152
2.080E-06,0.144
2.090E-06,0.152
2.100E-06,0.156
2.110E-06,0.160
2.120E-06,0.160
2.130E-06,0.156
2.140E-06,0.156
2.150E-06,0.156
2.160E-06,0.152
2.170E-06,0.156
2.180E-06,0.156
2.190E-06,0.160
2.200E-06,0.152
2.210E-06,0.152
2.220E-06,0.156
2.230E-06,0.156
2.240E-06,0.148
2.250E-06,0.148
2.260E-06,0.148
2.270E-06,0.152
2.280E-06,0.152
2.290E-06,0.152
2.300E-06,0.152
2.310E-06,0.144
2.320E-06,0.148
2.330E-06,0.144
2.340E-06,0.144
2.350E-06,0.156
2.360E-06,0.148
2.370E-06,0.144
2.380E-06,0.144
2.390E-06,0.140
2.400E-06,0.136
2.410E-06,0.136
2.420E-06,0.140
2.430E-06,0.140
2.440E-06,0.136
2.450E-06,0.140
2.460E-06,0.144
2.470E-06,0.140
2.480E-06,0.140
2.490E-06,0.144
2.500E-06,0.144
2.510E-06,0.152
2.520E-06,0.152
2.530E-06,0.152
2.540E-06,0.148
2.550E-06,0.144
2.560E-06,0.144
2.570E-06,0.144
2.580E-06,0.144
2.590E-06,0.140
2.600E-06,0.140
2.610E-06,0.140
2.620E-06,0.144
2.630E-06,0.144
2.640E-06,0.140
2.650E-06,0.140
2.660E-06,0.144
2.670E-06,0.148
2.680E-06,0.144
2.690E-06,0.148
2.700E-06,0.148
2.710E-06,0.148
2.720E-06,0.136
2.730E-06,0.136
2.740E-06,0.132
2.750E-06,0.128
2.760E-06,0.132
2.770E-06,0.136
2.780E-06,0.136
2.790E-06,0.140
2.800E-06,0.136
2.810E-06,0.136
2.820E-06,0.136
2.830E-06,0.140
2.840E-06,0.140
2.850E-06,0.144
2.860E-06,0.136
2.870E-06,0.136
2.880E-06,0.132
2.890E-06,0.132
2.900E-06,0.132
2.910E-06,0.136
2.920E-06,0.136
2.930E-06,0.132
2.940E-06,0.132
2.950E-06,0.136
2.960E-06,0.136
2.970E-06,0.132
2.980E-06,0.136
2.990E-06,0.136
3.000E-06,0.136
3.010E-06,0.132
3.020E-06,0.128
3.030E-06,0.128
3.040E-06,0.128
3.050E-06,0.136
3.060E-06,0.136
3.070E-06,0.136
3.080E-06,0.132
3.090E-06,0.128
3.100E-06,0.132
3.110E-06,0.132
3.120E-06,0.136
3.130E-06,0.136
3.140E-06,0.136
3.150E-06,0.132
3.160E-06,0.128
3.170E-06,0.124
3.180E-06,0.128
3.190E-06,0.128
3.200E-06,0.132
3.210E-06,0.132
3.220E-06,0.132
3.230E-06,0.128
3.240E-06,0.124
3.250E-06,0.124
3.260E-06,0.124
3.270E-06,0.124
3.280E-06,0.124
3.290E-06,0.120
3.300E-06,0.124
3.310E-06,0.124
3.320E-06,0.128
3.330E-06,0.128
3.340E-06,0.128
3.350E-06,0.128
3.360E-06,0.124
3.370E-06,0.124
3.380E-06,0.120
3.390E-06,0.120
3.400E-06,0.124
3.410E-06,0.120
3.420E-06,0.120
3.430E-06,0.116
3.440E-06,0.120
3.450E-06,0.120
3.460E-06,0.124
3.470E-06,0.124
3.480E-06,0.124
3.490E-06,0.120
3.500E-06,0.120
3.510E-06,0.124
3.520E-06,0.120
3.530E-06,0.124
3.540E-06,0.124
3.550E-06,0.124
3.560E-06,0.124
3.570E-06,0.124
3.580E-06,0.124
3.590E-06,0.124
3.600E-06,0.124
3.610E-06,0.124
3.620E-06,0.112
3.630E-06,0.112
3.640E-06,0.116
3.650E-06,0.112
3.660E-06,0.112
3.670E-06,0.112
3.680E-06,0.112
3.690E-06,0.112
3.700E-06,0.112
3.710E-06,0.112
3.720E-06,0.112
3.730E-06,0.112
3.740E-06,0.112
3.750E-06,0.108
3.760E-06,0.104
3.770E-06,0.104
3.780E-06,0.104
3.790E-06,0.108
3.800E-06,0.108
3.810E-06,0.108
3.820E-06,0.108
3.830E-06,0.104
3.840E-06,0.108
3.850E-06,0.108
3.860E-06,0.104
3.870E-06,0.108
3.880E-06,0.104
3.890E-06,0.104
3.900E-06,0.100
3.910E-06,0.104
3.920E-06,0.104
3.930E-06,0.104
3.940E-06,0.100
3.950E-06,0.096
3.960E-06,0.100
3.970E-06,0.096
3.980E-06,0.100
3.990E-06,0.100
4.000E-06,0.100
4.010E-06,0.100
4.020E-06,0.104
4.030E-06,0.100
4.040E-06,0.100
4.050E-06,0.104
4.060E-06,0.104
4.070E-06,0.100
4.080E-06,0.104
4.090E-06,0.096
4.100E-06,0.096
4.110E-06,0.100
4.120E-06,0.096
4.130E-06,0.100
4.140E-06,0.096
4.150E-06,0.096
4.160E-06,0.096
4.170E-06,0.096
4.180E-06,0.096
4.190E-06,0.092
4.200E-06,0.096
4.210E-06,0.096
4.220E-06,0.092
4.230E-06,0.100
4.240E-06,0.100
4.250E-06,0.096
4.260E-06,0.096
4.270E-06,0.092
4.280E-06,0.092
4.290E-06,0.096
4.300E-06,0.096
4.310E-06,0.092
4.320E-06,0.096
4.330E-06,0.092
4.340E-06,0.096
4.350E-06,0.096
4.360E-06,0.088
4.370E-06,0.092
4.380E-06,0.088
4.390E-06,0.092
4.400E-06,0.092
4.410E-06,0.088
4.420E-06,0.088
4.430E-06,0.092
4.440E-06,0.092
4.450E-06,0.088
4.460E-06,0.084
4.470E-06,0.084
4.480E-06,0.084
4.490E-06,0.084
4.500E-06,0.088
4.510E-06,0.088
4.520E-06,0.088
4.530E-06,0.088
4.540E-06,0.084
4.550E-06,0.084
4.560E-06,0.084
4.570E-06,0.080
4.580E-06,0.088
4.590E-06,0.088
4.600E-06,0.084
4.610E-06,0.084
4.620E-06,0.088
4.630E-06,0.080
4.640E-06,0.080
4.650E-06,0.076
4.660E-06,0.080
4.670E-06,0.084
4.680E-06,0.080
4.690E-06,0.080
4.700E-06,0.080
4.710E-06,0.080
4.720E-06,0.080
4.730E-06,0.080
4.740E-06,0.080
4.750E-06,0.076
4.760E-06,0.076
4.770E-06,0.080
4.780E-06,0.080
4.790E-06,0.076
4.800E-06,0.072
4.810E-06,0.072
4.820E-06,0.076
4.830E-06,0.080
4.840E-06,0.080
4.850E-06,0.076
4.860E-06,0.076
4.870E-06,0.080
4.880E-06,0.076
4.890E-06,0.080
4.900E-06,0.076
4.910E-06,0.076
4.920E-06,0.080
4.930E-06,0.076
4.940E-06,0.080
4.950E-06,0.076
4.960E-06,0.072
4.970E-06,0.076
4.980E-06,0.076
4.990E-06,0.076
5.000E-06,0.072
5.010E-06,0.072
5.020E-06,0.072
5.030E-06,0.072
5.040E-06,0.076
5.050E-06,0.072
5.060E-06,0.072
5.070E-06,0.072
5.080E-06,0.076
5.090E-06,0.076
5.100E-06,0.068
5.110E-06,0.068
5.120E-06,0.068
5.130E-06,0.072
5.140E-06,0.072
5.150E-06,0.068
5.160E-06,0.072
5.170E-06,0.068
5.180E-06,0.068
5.190E-06,0.068
5.200E-06,0.072
5.210E-06,0.064
5.220E-06,0.064
5.230E-06,0.068
5.240E-06,0.064
5.250E-06,0.064
5.260E-06,0.064
5.270E-06,0.064
5.280E-06,0.064
5.290E-06,0.064
5.300E-06,0.064
5.310E-06,0.060
5.320E-06,0.060
5.330E-06,0.064
5.340E-06,0.064
5.350E-06,0.064
5.360E-06,0.060
5.370E-06,0.060
5.380E-06,0.064
5.390E-06,0.064
5.400E-06,0.056
5.410E-06,0.064
5.420E-06,0.056
5.430E-06,0.056
5.440E-06,0.056
5.450E-06,0.060
5.460E-06,0.060
5.470E-06,0.056
5.480E-06,0.056
5.490E-06,0.060
5.500E-06,0.056
5.510E-06,0.056
5.520E-06,0.056
5.530E-06,0.060
5.540E-06,0.056
5.550E-06,0.052
5.560E-06,0.052
5.570E-06,0.052
5.580E-06,0.056
5.590E-06,0.056
5.600E-06,0.052
5.610E-06,0.052
5.620E-06,0.048
5.630E-06,0.044
5.640E-06,0.048
5.650E-06,0.052
5.660E-06,0.048
5.670E-06,0.052
5.680E-06,0.048
5.690E-06,0.048
5.700E-06,0.048
5.710E-06,0.044
5.720E-06,0.048
5.730E-06,0.048
5.740E-06,0.044
5.750E-06,0.044
5.760E-06,0.048
5.770E-06,0.044
5.780E-06,0.040
5.790E-06,0.044
5.800E-06,0.044
5.810E-06,0.040
5.820E-06,0.044
5.830E-06,0.044
5.840E-06,0.040
5.850E-06,0.044
5.860E-06,0.048
5.870E-06,0.044
5.880E-06,0.040
5.890E-06,0.044
5.900E-06,0.040
5.910E-06,0.036
5.920E-06,0.040
5.930E-06,0.044
5.940E-06,0.040
5.950E-06,0.040
5.960E-06,0.040
5.970E-06,0.044
5.980E-06,0.040
5.990E-06,0.040
6.000E-06,0.040
6.010E-06,0.036
6.020E-06,0.040
6.030E-06,0.044
6.040E-06,0.044
6.050E-06,0.040
6.060E-06,0.044
6.070E-06,0.040
6.080E-06,0.036
6.090E-06,0.032
6.100E-06,0.040
6.110E-06,0.040
6.120E-06,0.040
6.130E-06,0.036
6.140E-06,0.036
6.150E-06,0.036
6.160E-06,0.032
6.170E-06,0.036
6.180E-06,0.040
6.190E-06,0.036
6.200E-06,0.032
6.210E-06,0.036
6.220E-06,0.036
6.230E-06,0.036
6.240E-06,0.036
6.250E-06,0.036
6.260E-06,0.040
6.270E-06,0.040
6.280E-06,0.040
6.290E-06,0.040
6.300E-06,0.036
6.310E-06,0.040
6.320E-06,0.040
6.330E-06,0.044
6.340E-06,0.040
6.350E-06,0.040
6.360E-06,0.036
6.370E-06,0.040
6.380E-06,0.044
6.390E-06,0.036
6.400E-06,0.036
6.410E-06,0.040
6.420E-06,0.036
6.430E-06,0.036
6.440E-06,0.032
6.450E-06,0.032
6.460E-06,0.032
6.470E-06,0.028
6.480E-06,0.032
6.490E-06,0.028
6.500E-06,0.028
6.510E-06,0.028
6.520E-06,0.032
6.530E-06,0.028
6.540E-06,0.028
6.550E-06,0.024
6.560E-06,0.028
6.570E-06,0.024
6.580E-06,0.028
6.590E-06,0.028
6.600E-06,0.028
6.610E-06,0.028
6.620E-06,0.024
6.630E-06,0.028
6.640E-06,0.028
6.650E-06,0.028
6.660E-06,0.028
6.670E-06,0.020
6.680E-06,0.020
6.690E-06,0.024
6.700E-06,0.020
6.710E-06,0.020
6.720E-06,0.024
6.730E-06,0.020
6.740E-06,0.024
6.750E-06,0.028
6.760E-06,0.028
6.770E-06,0.020
6.780E-06,0.020
6.790E-06,0.020
6.800E-06,0.020
6.810E-06,0.020
6.820E-06,0.020
6.830E-06,0.024
6.840E-06,0.024
6.850E-06,0.028
6.860E-06,0.016
6.870E-06,0.020
6.880E-06,0.020
6.890E-06,0.020
6.900E-06,0.020
6.910E-06,0.024
6.920E-06,0.020
6.930E-06,0.016
6.940E-06,0.016
6.950E-06,0.020
6.960E-06,0.020
6.970E-06,0.012
6.980E-06,0.016
6.990E-06,0.016
7.000E-06,0.016
7.010E-06,0.016
7.020E-06,0.020
7.030E-06,0.012
7.040E-06,0.012
7.050E-06,0.012
7.060E-06,0.012
7.070E-06,0.012
7.080E-06,0.012
7.090E-06,0.012
7.100E-06,0.012
7.110E-06,0.012
7.120E-06,0.012
7.130E-06,0.012
7.140E-06,0.012
7.150E-06,0.012
7.160E-06,0.012
7.170E-06,0.012
7.180E-06,0.012
7.190E-06,0.008
7.200E-06,0.008
7.210E-06,0.008
7.220E-06,0.008
7.230E-06,0.008
7.240E-06,0.004
7.250E-06,0.008
7.260E-06,0.012
7.270E-06,0.012
7.280E-06,0.008
7.290E-06,0.008
7.300E-06,0.012
7.310E-06,0.016
7.320E-06,0.012
7.330E-06,0.012
7.340E-06,0.012
7.350E-06,0.016
7.360E-06,0.004
7.370E-06,0.004
7.380E-06,0.008
7.390E-06,0.004
7.400E-06,0.008
7.410E-06,0.012
7.420E-06,0.012
7.430E-06,0.012
7.440E-06,0.004
7.450E-06,0.008
7.460E-06,0.008
7.470E-06,0.008
7.480E-06,0.008
7.490E-06,0.008
7.500E-06,0.008
7.510E-06,0.004
7.520E-06,0.000
7.530E-06,0.004
7.540E-06,0.004
7.550E-06,0.004
7.560E-06,0.008
7.570E-06,0.000
7.580E-06,0.004
7.590E-06,0.004
7.600E-06,0.004
7.610E-06,0.000
7.620E-06,0.000
7.630E-06,0.004
7.640E-06,0.000
7.650E-06,0.000
7.660E-06,0.004
7.670E-06,0.000
7.680E-06,0.000
7.690E-06,0.000
7.700E-06,0.000
7.710E-06,0.004
7.720E-06,0.000
7.730E-06,0.000
7.740E-06,0.000
7.750E-06,-0.004
7.760E-06,0.000
7.770E-06,0.000
7.780E-06,0.000
7.790E-06,0.000
7.800E-06,0.000
7.810E-06,0.000
7.820E-06,-0.004
7.830E-06,0.000
7.840E-06,0.000
7.850E-06,0.000
7.860E-06,0.000
7.870E-06,0.000
7.880E-06,0.000
7.890E-06,0.000
7.900E-06,-0.008
7.910E-06,-0.008
7.920E-06,0.000
7.930E-06,0.000
7.940E-06,-0.004
7.950E-06,0.000
7.960E-06,-0.004
7.970E-06,-0.004
7.980E-06,-0.004
7.990E-06,-0.004
8.000E-06,0.000
8.010E-06,-0.004
8.020E-06,-0.008
8.030E-06,0.000
8.040E-06,-0.004
8.050E-06,-0.004
8.060E-06,-0.004
8.070E-06,0.000
8.080E-06,-0.004
8.090E-06,0.000
8.100E-06,0.000
8.110E-06,-0.008
8.120E-06,-0.004
8.130E-06,-0.004
8.140E-06,-0.008
8.150E-06,-0.008
8.160E-06,-0.004
8.170E-06,-0.008
8.180E-06,-0.012
8.190E-06,-0.004
8.200E-06,-0.004
8.210E-06,-0.008
8.220E-06,-0.004
8.230E-06,-0.008
8.240E-06,-0.008
8.250E-06,-0.008
8.260E-06,-0.008
8.270E-06,-0.004
8.280E-06,-0.008
8.290E-06,-0.008
