mediciones/5-27/-27.5/WaveData5158.csv

#timebase=2000000(ps)
,#voltbase=100000(mv/100)
#size=4000
-3.800E-06,0.004
-3.790E-06,0.004
-3.780E-06,0.008
-3.770E-06,0.000
-3.760E-06,0.000
-3.750E-06,0.004
-3.740E-06,-0.004
-3.730E-06,0.004
-3.720E-06,0.004
-3.710E-06,0.012
-3.700E-06,0.000
-3.690E-06,0.000
-3.680E-06,0.004
-3.670E-06,0.008
-3.660E-06,0.000
-3.650E-06,-0.004
-3.640E-06,0.000
-3.630E-06,-0.004
-3.620E-06,0.008
-3.610E-06,0.004
-3.600E-06,0.004
-3.590E-06,0.008
-3.580E-06,0.004
-3.570E-06,0.004
-3.560E-06,0.008
-3.550E-06,0.012
-3.540E-06,0.016
-3.530E-06,0.004
-3.520E-06,0.000
-3.510E-06,-0.004
-3.500E-06,-0.012
-3.490E-06,0.004
-3.480E-06,0.012
-3.470E-06,0.012
-3.460E-06,0.004
-3.450E-06,0.000
-3.440E-06,0.000
-3.430E-06,0.000
-3.420E-06,0.004
-3.410E-06,0.008
-3.400E-06,0.016
-3.390E-06,0.016
-3.380E-06,0.004
-3.370E-06,-0.004
-3.360E-06,-0.004
-3.350E-06,0.000
-3.340E-06,0.008
-3.330E-06,0.016
-3.320E-06,0.024
-3.310E-06,0.016
-3.300E-06,0.000
-3.290E-06,-0.008
-3.280E-06,-0.020
-3.270E-06,-0.004
-3.260E-06,0.000
-3.250E-06,0.008
-3.240E-06,0.020
-3.230E-06,0.008
-3.220E-06,0.008
-3.210E-06,0.004
-3.200E-06,-0.004
-3.190E-06,0.000
-3.180E-06,-0.004
-3.170E-06,0.004
-3.160E-06,0.008
-3.150E-06,0.012
-3.140E-06,0.016
-3.130E-06,0.016
-3.120E-06,0.004
-3.110E-06,-0.008
-3.100E-06,-0.012
-3.090E-06,0.000
-3.080E-06,-0.008
-3.070E-06,-0.004
-3.060E-06,0.000
-3.050E-06,0.004
-3.040E-06,0.008
-3.030E-06,0.012
-3.020E-06,0.004
-3.010E-06,-0.008
-3.000E-06,-0.004
-2.990E-06,-0.004
-2.980E-06,0.004
-2.970E-06,0.004
-2.960E-06,0.008
-2.950E-06,0.004
-2.940E-06,0.004
-2.930E-06,0.004
-2.920E-06,0.008
-2.910E-06,0.008
-2.900E-06,0.000
-2.890E-06,0.000
-2.880E-06,0.004
-2.870E-06,0.008
-2.860E-06,0.000
-2.850E-06,0.000
-2.840E-06,0.004
-2.830E-06,0.004
-2.820E-06,0.004
-2.810E-06,0.008
-2.800E-06,0.004
-2.790E-06,0.008
-2.780E-06,0.012
-2.770E-06,0.012
-2.760E-06,0.012
-2.750E-06,0.004
-2.740E-06,-0.004
-2.730E-06,-0.012
-2.720E-06,-0.008
-2.710E-06,0.000
-2.700E-06,0.004
-2.690E-06,0.020
-2.680E-06,0.016
-2.670E-06,0.004
-2.660E-06,0.000
-2.650E-06,-0.008
-2.640E-06,-0.004
-2.630E-06,0.008
-2.620E-06,0.012
-2.610E-06,0.008
-2.600E-06,0.008
-2.590E-06,-0.004
-2.580E-06,0.000
-2.570E-06,-0.004
-2.560E-06,0.004
-2.550E-06,0.004
-2.540E-06,0.000
-2.530E-06,0.004
-2.520E-06,0.004
-2.510E-06,0.008
-2.500E-06,0.000
-2.490E-06,0.004
-2.480E-06,-0.004
-2.470E-06,0.000
-2.460E-06,0.000
-2.450E-06,0.004
-2.440E-06,0.008
-2.430E-06,0.004
-2.420E-06,0.008
-2.410E-06,-0.004
-2.400E-06,0.000
-2.390E-06,0.004
-2.380E-06,0.000
-2.370E-06,0.004
-2.360E-06,0.008
-2.350E-06,0.008
-2.340E-06,0.000
-2.330E-06,-0.004
-2.320E-06,0.004
-2.310E-06,0.000
-2.300E-06,0.008
-2.290E-06,0.008
-2.280E-06,0.008
-2.270E-06,0.000
-2.260E-06,0.000
-2.250E-06,0.008
-2.240E-06,0.012
-2.230E-06,0.016
-2.220E-06,0.016
-2.210E-06,0.004
-2.200E-06,0.000
-2.190E-06,0.000
-2.180E-06,0.004
-2.170E-06,0.008
-2.160E-06,0.012
-2.150E-06,0.012
-2.140E-06,0.008
-2.130E-06,0.000
-2.120E-06,-0.004
-2.110E-06,-0.004
-2.100E-06,-0.004
-2.090E-06,0.008
-2.080E-06,0.016
-2.070E-06,0.020
-2.060E-06,0.020
-2.050E-06,0.012
-2.040E-06,0.008
-2.030E-06,0.004
-2.020E-06,0.004
-2.010E-06,0.008
-2.000E-06,0.008
-1.990E-06,0.004
-1.980E-06,0.000
-1.970E-06,0.012
-1.960E-06,0.008
-1.950E-06,0.024
-1.940E-06,0.028
-1.930E-06,0.016
-1.920E-06,-0.004
-1.910E-06,-0.024
-1.900E-06,-0.028
-1.890E-06,-0.016
-1.880E-06,0.000
-1.870E-06,0.008
-1.860E-06,0.020
-1.850E-06,0.008
-1.840E-06,0.008
-1.830E-06,-0.004
-1.820E-06,-0.008
-1.810E-06,-0.004
-1.800E-06,0.008
-1.790E-06,0.012
-1.780E-06,0.016
-1.770E-06,0.012
-1.760E-06,0.004
-1.750E-06,0.004
-1.740E-06,0.008
-1.730E-06,0.012
-1.720E-06,0.004
-1.710E-06,0.008
-1.700E-06,0.008
-1.690E-06,0.004
-1.680E-06,0.000
-1.670E-06,-0.004
-1.660E-06,0.000
-1.650E-06,0.012
-1.640E-06,0.020
-1.630E-06,0.020
-1.620E-06,0.016
-1.610E-06,0.012
-1.600E-06,0.000
-1.590E-06,-0.004
-1.580E-06,-0.012
-1.570E-06,-0.032
-1.560E-06,-0.032
-1.550E-06,-0.028
-1.540E-06,-0.004
-1.530E-06,0.004
-1.520E-06,0.016
-1.510E-06,0.004
-1.500E-06,0.000
-1.490E-06,-0.008
-1.480E-06,-0.016
-1.470E-06,-0.004
-1.460E-06,-0.004
-1.450E-06,0.008
-1.440E-06,0.004
-1.430E-06,0.004
-1.420E-06,0.004
-1.410E-06,0.004
-1.400E-06,-0.004
-1.390E-06,-0.004
-1.380E-06,-0.004
-1.370E-06,-0.004
-1.360E-06,0.000
-1.350E-06,0.004
-1.340E-06,0.008
-1.330E-06,0.008
-1.320E-06,0.000
-1.310E-06,-0.004
-1.300E-06,-0.008
-1.290E-06,0.000
-1.280E-06,0.008
-1.270E-06,0.008
-1.260E-06,0.008
-1.250E-06,0.004
-1.240E-06,0.000
-1.230E-06,-0.004
-1.220E-06,0.000
-1.210E-06,0.000
-1.200E-06,0.008
-1.190E-06,0.004
-1.180E-06,0.000
-1.170E-06,0.004
-1.160E-06,-0.004
-1.150E-06,0.000
-1.140E-06,0.000
-1.130E-06,0.004
-1.120E-06,0.004
-1.110E-06,0.008
-1.100E-06,0.008
-1.090E-06,0.008
-1.080E-06,0.004
-1.070E-06,0.004
-1.060E-06,0.004
-1.050E-06,0.004
-1.040E-06,0.012
-1.030E-06,0.008
-1.020E-06,0.012
-1.010E-06,0.016
-1.000E-06,0.016
-9.900E-07,0.016
-9.800E-07,0.016
-9.700E-07,0.012
-9.600E-07,0.012
-9.500E-07,0.024
-9.400E-07,0.028
-9.300E-07,0.028
-9.200E-07,0.016
-9.100E-07,0.000
-9.000E-07,-0.004
-8.900E-07,-0.004
-8.800E-07,0.004
-8.700E-07,0.020
-8.600E-07,0.032
-8.500E-07,0.032
-8.400E-07,0.024
-8.300E-07,0.016
-8.200E-07,0.004
-8.100E-07,-0.004
-8.000E-07,-0.004
-7.900E-07,0.008
-7.800E-07,0.004
-7.700E-07,0.012
-7.600E-07,0.008
-7.500E-07,0.012
-7.400E-07,0.004
-7.300E-07,0.008
-7.200E-07,0.008
-7.100E-07,0.008
-7.000E-07,0.012
-6.900E-07,0.024
-6.800E-07,0.024
-6.700E-07,0.032
-6.600E-07,0.024
-6.500E-07,0.020
-6.400E-07,0.024
-6.300E-07,0.024
-6.200E-07,0.036
-6.100E-07,0.036
-6.000E-07,0.036
-5.900E-07,0.024
-5.800E-07,0.008
-5.700E-07,-0.028
-5.600E-07,-0.056
-5.500E-07,-0.056
-5.400E-07,-0.020
-5.300E-07,0.024
-5.200E-07,0.036
-5.100E-07,-0.004
-5.000E-07,-0.084
-4.900E-07,-0.136
-4.800E-07,-0.120
-4.700E-07,-0.052
-4.600E-07,0.044
-4.500E-07,0.092
-4.400E-07,0.076
-4.300E-07,0.016
-4.200E-07,-0.052
-4.100E-07,-0.088
-4.000E-07,-0.060
-3.900E-07,-0.004
-3.800E-07,0.044
-3.700E-07,0.056
-3.600E-07,0.044
-3.500E-07,0.008
-3.400E-07,-0.020
-3.300E-07,-0.028
-3.200E-07,-0.004
-3.100E-07,0.024
-3.000E-07,0.032
-2.900E-07,0.036
-2.800E-07,0.032
-2.700E-07,0.020
-2.600E-07,0.008
-2.500E-07,0.008
-2.400E-07,0.008
-2.300E-07,0.020
-2.200E-07,0.028
-2.100E-07,0.032
-2.000E-07,0.036
-1.900E-07,0.032
-1.800E-07,0.040
-1.700E-07,0.044
-1.600E-07,0.036
-1.500E-07,0.036
-1.400E-07,0.028
-1.300E-07,0.024
-1.200E-07,0.024
-1.100E-07,0.020
-1.000E-07,0.024
-9.000E-08,0.028
-8.000E-08,0.024
-7.000E-08,-0.004
-6.000E-08,-0.132
-5.000E-08,-0.268
-4.000E-08,-0.292
-3.000E-08,-0.196
-2.000E-08,0.016
-1.000E-08,0.220
0.000E+00,0.292
1.000E-08,0.192
2.000E-08,0.052
3.000E-08,-0.080
4.000E-08,-0.148
5.000E-08,-0.072
6.000E-08,0.008
7.000E-08,0.112
8.000E-08,0.012
9.000E-08,-0.036
1.000E-07,-0.152
1.100E-07,-0.104
1.200E-07,0.000
1.300E-07,0.064
1.400E-07,0.076
1.500E-07,0.032
1.600E-07,0.000
1.700E-07,-0.044
1.800E-07,-0.036
1.900E-07,0.000
2.000E-07,0.044
2.100E-07,0.048
2.200E-07,0.044
2.300E-07,0.020
2.400E-07,0.020
2.500E-07,0.040
2.600E-07,0.032
2.700E-07,0.036
2.800E-07,0.024
2.900E-07,0.012
3.000E-07,0.004
3.100E-07,0.016
3.200E-07,0.012
3.300E-07,0.024
3.400E-07,0.008
3.500E-07,-0.052
3.600E-07,-0.068
3.700E-07,-0.044
3.800E-07,0.024
3.900E-07,0.052
4.000E-07,0.036
4.100E-07,-0.028
4.200E-07,-0.084
4.300E-07,-0.100
4.400E-07,-0.084
4.500E-07,0.004
4.600E-07,0.092
4.700E-07,0.140
4.800E-07,0.088
4.900E-07,0.012
5.000E-07,-0.060
5.100E-07,-0.096
5.200E-07,-0.040
5.300E-07,0.020
5.400E-07,0.064
5.500E-07,0.076
5.600E-07,0.044
5.700E-07,0.012
5.800E-07,-0.020
5.900E-07,-0.008
6.000E-07,0.036
6.100E-07,0.068
6.200E-07,0.064
6.300E-07,0.056
6.400E-07,-0.016
6.500E-07,-0.112
6.600E-07,-0.168
6.700E-07,-0.176
6.800E-07,-0.112
6.900E-07,0.016
7.000E-07,0.108
7.100E-07,0.124
7.200E-07,0.032
7.300E-07,-0.032
7.400E-07,-0.084
7.500E-07,-0.076
7.600E-07,-0.020
7.700E-07,0.036
7.800E-07,0.064
7.900E-07,0.040
8.000E-07,0.008
8.100E-07,-0.020
8.200E-07,-0.016
8.300E-07,-0.008
8.400E-07,0.012
8.500E-07,0.024
8.600E-07,0.028
8.700E-07,0.012
8.800E-07,0.000
8.900E-07,0.000
9.000E-07,0.008
9.100E-07,0.016
9.200E-07,0.028
9.300E-07,0.036
9.400E-07,0.028
9.500E-07,0.020
9.600E-07,0.024
9.700E-07,0.024
9.800E-07,0.036
9.900E-07,0.040
1.000E-06,0.052
1.010E-06,0.044
1.020E-06,0.036
1.030E-06,0.016
1.040E-06,-0.064
1.050E-06,-0.184
1.060E-06,-0.224
1.070E-06,-0.164
1.080E-06,0.028
1.090E-06,0.172
1.100E-06,0.180
1.110E-06,0.144
1.120E-06,-0.004
1.130E-06,-0.120
1.140E-06,-0.152
1.150E-06,-0.076
1.160E-06,0.056
1.170E-06,0.108
1.180E-06,0.092
1.190E-06,0.024
1.200E-06,-0.016
1.210E-06,-0.020
1.220E-06,0.000
1.230E-06,0.036
1.240E-06,0.060
1.250E-06,0.064
1.260E-06,-0.008
1.270E-06,-0.032
1.280E-06,-0.064
1.290E-06,-0.028
1.300E-06,0.008
1.310E-06,0.060
1.320E-06,0.100
1.330E-06,0.064
1.340E-06,0.036
1.350E-06,-0.020
1.360E-06,-0.040
1.370E-06,-0.004
1.380E-06,0.044
1.390E-06,0.092
1.400E-06,0.092
1.410E-06,0.052
1.420E-06,0.004
1.430E-06,-0.032
1.440E-06,-0.028
1.450E-06,-0.008
1.460E-06,-0.012
1.470E-06,-0.004
1.480E-06,-0.040
1.490E-06,-0.040
1.500E-06,-0.036
1.510E-06,0.004
1.520E-06,0.032
1.530E-06,0.040
1.540E-06,0.024
1.550E-06,0.004
1.560E-06,0.008
1.570E-06,0.004
1.580E-06,0.016
1.590E-06,0.024
1.600E-06,0.016
1.610E-06,0.008
1.620E-06,0.004
1.630E-06,0.012
1.640E-06,0.036
1.650E-06,0.056
1.660E-06,0.056
1.670E-06,0.056
1.680E-06,0.044
1.690E-06,0.056
1.700E-06,0.056
1.710E-06,0.048
1.720E-06,0.020
1.730E-06,-0.004
1.740E-06,-0.040
1.750E-06,-0.056
1.760E-06,-0.044
1.770E-06,-0.032
1.780E-06,-0.012
1.790E-06,-0.004
1.800E-06,-0.004
1.810E-06,-0.020
1.820E-06,-0.012
1.830E-06,-0.020
1.840E-06,-0.008
1.850E-06,0.004
1.860E-06,0.012
1.870E-06,0.020
1.880E-06,0.020
1.890E-06,0.028
1.900E-06,0.040
1.910E-06,0.056
1.920E-06,0.064
1.930E-06,0.072
1.940E-06,0.076
1.950E-06,0.068
1.960E-06,0.068
1.970E-06,0.056
1.980E-06,-0.016
1.990E-06,-0.256
2.000E-06,-0.400
2.010E-06,-0.484
2.020E-06,-0.128
2.030E-06,0.064
2.040E-06,0.316
2.050E-06,0.416
2.060E-06,0.228
2.070E-06,0.012
2.080E-06,-0.156
2.090E-06,-0.140
2.100E-06,-0.020
2.110E-06,0.120
2.120E-06,0.144
2.130E-06,0.104
2.140E-06,-0.052
2.150E-06,-0.224
2.160E-06,-0.300
2.170E-06,-0.244
2.180E-06,-0.020
2.190E-06,0.164
2.200E-06,0.268
2.210E-06,0.256
2.220E-06,0.148
2.230E-06,-0.048
2.240E-06,-0.148
2.250E-06,-0.128
2.260E-06,-0.020
2.270E-06,0.068
2.280E-06,0.096
2.290E-06,0.104
2.300E-06,0.040
2.310E-06,0.000
2.320E-06,-0.004
2.330E-06,0.024
2.340E-06,0.056
2.350E-06,0.064
2.360E-06,0.060
2.370E-06,0.048
2.380E-06,0.028
2.390E-06,0.016
2.400E-06,-0.220
2.410E-06,-0.232
2.420E-06,-0.460
2.430E-06,-0.384
2.440E-06,-0.024
2.450E-06,0.236
2.460E-06,0.388
2.470E-06,0.220
2.480E-06,0.064
2.490E-06,-0.104
2.500E-06,-0.124
2.510E-06,0.016
2.520E-06,0.124
2.530E-06,0.128
2.540E-06,0.020
2.550E-06,-0.136
2.560E-06,-0.256
2.570E-06,-0.208
2.580E-06,-0.160
2.590E-06,0.020
2.600E-06,0.092
2.610E-06,0.148
2.620E-06,0.092
2.630E-06,-0.032
2.640E-06,-0.072
2.650E-06,-0.052
2.660E-06,-0.008
2.670E-06,0.064
2.680E-06,0.060
2.690E-06,0.044
2.700E-06,0.024
2.710E-06,-0.004
2.720E-06,-0.004
2.730E-06,0.028
2.740E-06,0.092
2.750E-06,0.120
2.760E-06,0.100
2.770E-06,0.060
2.780E-06,0.016
2.790E-06,0.020
2.800E-06,0.036
2.810E-06,0.072
2.820E-06,0.044
2.830E-06,-0.028
2.840E-06,-0.132
2.850E-06,-0.144
2.860E-06,-0.180
2.870E-06,-0.132
2.880E-06,-0.048
2.890E-06,0.052
2.900E-06,0.080
2.910E-06,0.060
2.920E-06,0.036
2.930E-06,0.000
2.940E-06,0.000
2.950E-06,-0.036
2.960E-06,-0.044
2.970E-06,-0.004
2.980E-06,0.024
2.990E-06,0.060
3.000E-06,0.032
3.010E-06,0.004
3.020E-06,-0.024
3.030E-06,-0.020
3.040E-06,0.008
3.050E-06,0.032
3.060E-06,0.060
3.070E-06,0.060
3.080E-06,0.040
3.090E-06,0.000
3.100E-06,-0.020
3.110E-06,0.000
3.120E-06,0.024
3.130E-06,0.072
3.140E-06,0.084
3.150E-06,0.080
3.160E-06,0.056
3.170E-06,0.044
3.180E-06,0.036
3.190E-06,0.028
3.200E-06,0.008
3.210E-06,-0.040
3.220E-06,-0.060
3.230E-06,-0.104
3.240E-06,-0.056
3.250E-06,0.012
3.260E-06,0.072
3.270E-06,0.124
3.280E-06,0.124
3.290E-06,0.096
3.300E-06,0.052
3.310E-06,-0.016
3.320E-06,-0.096
3.330E-06,-0.176
3.340E-06,-0.176
3.350E-06,-0.144
3.360E-06,-0.068
3.370E-06,0.052
3.380E-06,0.088
3.390E-06,0.112
3.400E-06,0.036
3.410E-06,-0.048
3.420E-06,-0.092
3.430E-06,-0.068
3.440E-06,0.028
3.450E-06,0.092
3.460E-06,0.108
3.470E-06,0.072
3.480E-06,0.008
3.490E-06,-0.040
3.500E-06,-0.052
3.510E-06,-0.028
3.520E-06,0.000
3.530E-06,0.008
3.540E-06,0.020
3.550E-06,0.028
3.560E-06,0.028
3.570E-06,0.028
3.580E-06,0.020
3.590E-06,0.024
3.600E-06,0.028
3.610E-06,0.044
3.620E-06,0.064
3.630E-06,0.084
3.640E-06,0.088
3.650E-06,0.080
3.660E-06,0.064
3.670E-06,0.044
3.680E-06,0.032
3.690E-06,0.024
3.700E-06,0.016
3.710E-06,-0.004
3.720E-06,-0.004
3.730E-06,-0.508
3.740E-06,-0.332
3.750E-06,-0.512
3.760E-06,-0.196
3.770E-06,0.220
3.780E-06,0.496
3.790E-06,0.540
3.800E-06,0.212
3.810E-06,-0.092
3.820E-06,-0.372
3.830E-06,-0.172
3.840E-06,-0.040
3.850E-06,0.140
3.860E-06,0.160
3.870E-06,0.108
3.880E-06,-0.012
3.890E-06,-0.108
3.900E-06,-0.056
3.910E-06,-0.060
3.920E-06,-0.036
3.930E-06,-0.088
3.940E-06,-0.040
3.950E-06,-0.060
3.960E-06,-0.028
3.970E-06,0.000
3.980E-06,0.056
3.990E-06,0.076
4.000E-06,0.140
4.010E-06,0.112
4.020E-06,-0.008
4.030E-06,-0.052
4.040E-06,-0.120
4.050E-06,-0.108
4.060E-06,-0.008
4.070E-06,0.104
4.080E-06,0.172
4.090E-06,0.128
4.100E-06,0.044
4.110E-06,-0.068
4.120E-06,-0.132
4.130E-06,-0.124
4.140E-06,-0.064
4.150E-06,-0.056
4.160E-06,-0.036
4.170E-06,0.028
4.180E-06,0.024
4.190E-06,0.020
4.200E-06,0.004
4.210E-06,-0.008
4.220E-06,-0.008
4.230E-06,-0.012
4.240E-06,0.032
4.250E-06,0.060
4.260E-06,0.088
4.270E-06,0.064
4.280E-06,0.020
4.290E-06,-0.012
4.300E-06,-0.024
4.310E-06,0.008
4.320E-06,0.064
4.330E-06,0.108
4.340E-06,0.104
4.350E-06,0.056
4.360E-06,-0.004
4.370E-06,-0.056
4.380E-06,-0.052
4.390E-06,0.000
4.400E-06,0.056
4.410E-06,0.096
4.420E-06,0.060
4.430E-06,0.000
4.440E-06,-0.068
4.450E-06,-0.096
4.460E-06,-0.080
4.470E-06,-0.020
4.480E-06,0.060
4.490E-06,0.100
4.500E-06,0.076
4.510E-06,0.004
4.520E-06,-0.044
4.530E-06,-0.056
4.540E-06,-0.024
4.550E-06,0.028
4.560E-06,0.084
4.570E-06,0.104
4.580E-06,0.100
4.590E-06,0.068
4.600E-06,0.028
4.610E-06,0.024
4.620E-06,0.040
4.630E-06,0.076
4.640E-06,0.108
4.650E-06,0.116
4.660E-06,0.072
4.670E-06,-0.048
4.680E-06,-0.148
4.690E-06,-0.268
4.700E-06,-0.252
4.710E-06,-0.172
4.720E-06,-0.056
4.730E-06,0.072
4.740E-06,0.128
4.750E-06,0.132
4.760E-06,0.036
4.770E-06,-0.032
4.780E-06,-0.076
4.790E-06,-0.056
4.800E-06,0.020
4.810E-06,0.080
4.820E-06,0.096
4.830E-06,0.052
4.840E-06,0.028
4.850E-06,0.008
4.860E-06,0.028
4.870E-06,0.064
4.880E-06,0.104
4.890E-06,0.104
4.900E-06,0.096
4.910E-06,0.084
4.920E-06,0.056
4.930E-06,0.040
4.940E-06,0.036
4.950E-06,0.052
4.960E-06,0.072
4.970E-06,0.100
4.980E-06,0.108
4.990E-06,0.104
5.000E-06,0.084
5.010E-06,0.060
5.020E-06,0.076
5.030E-06,-0.272
5.040E-06,-0.508
5.050E-06,-0.508
5.060E-06,-0.512
5.070E-06,-0.140
5.080E-06,0.232
5.090E-06,0.536
5.100E-06,0.540
5.110E-06,0.244
5.120E-06,0.012
5.130E-06,-0.308
5.140E-06,-0.308
5.150E-06,-0.244
5.160E-06,-0.080
5.170E-06,-0.028
5.180E-06,0.052
5.190E-06,0.048
5.200E-06,0.112
5.210E-06,0.108
5.220E-06,0.080
5.230E-06,-0.012
5.240E-06,-0.108
5.250E-06,-0.056
5.260E-06,0.024
5.270E-06,0.200
5.280E-06,0.264
5.290E-06,0.212
5.300E-06,0.048
5.310E-06,-0.112
5.320E-06,-0.228
5.330E-06,-0.236
5.340E-06,-0.164
5.350E-06,-0.052
5.360E-06,0.072
5.370E-06,0.068
5.380E-06,0.044
5.390E-06,-0.008
5.400E-06,-0.048
5.410E-06,-0.068
5.420E-06,-0.004
5.430E-06,0.040
5.440E-06,0.100
5.450E-06,0.120
5.460E-06,0.092
5.470E-06,0.056
5.480E-06,0.016
5.490E-06,0.008
5.500E-06,0.016
5.510E-06,0.052
5.520E-06,0.076
5.530E-06,0.092
5.540E-06,0.068
5.550E-06,0.032
5.560E-06,-0.016
5.570E-06,-0.052
5.580E-06,-0.068
5.590E-06,-0.056
5.600E-06,0.012
5.610E-06,0.028
5.620E-06,0.040
5.630E-06,0.024
5.640E-06,-0.004
5.650E-06,-0.032
5.660E-06,-0.056
5.670E-06,-0.052
5.680E-06,-0.032
5.690E-06,0.012
5.700E-06,0.036
5.710E-06,0.048
5.720E-06,0.016
5.730E-06,0.012
5.740E-06,-0.016
5.750E-06,-0.004
5.760E-06,0.020
5.770E-06,0.048
5.780E-06,0.072
5.790E-06,0.064
5.800E-06,0.044
5.810E-06,0.028
5.820E-06,0.020
5.830E-06,0.020
5.840E-06,0.048
5.850E-06,0.072
5.860E-06,0.084
5.870E-06,0.088
5.880E-06,0.076
5.890E-06,0.072
5.900E-06,0.076
5.910E-06,0.076
5.920E-06,0.092
5.930E-06,0.096
5.940E-06,0.096
5.950E-06,0.096
5.960E-06,0.088
5.970E-06,0.068
5.980E-06,0.060
5.990E-06,0.056
6.000E-06,0.040
6.010E-06,0.020
6.020E-06,-0.004
6.030E-06,-0.020
6.040E-06,-0.060
6.050E-06,-0.068
6.060E-06,-0.052
6.070E-06,0.072
6.080E-06,0.156
6.090E-06,0.172
6.100E-06,0.132
6.110E-06,0.072
6.120E-06,0.020
6.130E-06,-0.016
6.140E-06,0.040
6.150E-06,0.120
6.160E-06,-0.512
6.170E-06,-0.508
6.180E-06,-0.508
6.190E-06,-0.508
6.200E-06,0.184
6.210E-06,0.540
6.220E-06,0.544
6.230E-06,0.064
6.240E-06,-0.472
6.250E-06,-0.512
6.260E-06,-0.512
6.270E-06,-0.012
6.280E-06,0.536
6.290E-06,0.536
6.300E-06,0.316
6.310E-06,0.016
6.320E-06,-0.336
6.330E-06,-0.288
6.340E-06,-0.204
6.350E-06,0.060
6.360E-06,0.136
6.370E-06,0.228
6.380E-06,0.176
6.390E-06,0.056
6.400E-06,-0.024
6.410E-06,-0.104
6.420E-06,-0.100
6.430E-06,-0.024
6.440E-06,0.112
6.450E-06,0.104
6.460E-06,0.124
6.470E-06,0.036
6.480E-06,-0.012
6.490E-06,-0.020
6.500E-06,0.012
6.510E-06,0.060
6.520E-06,0.080
6.530E-06,0.088
6.540E-06,0.052
6.550E-06,0.056
6.560E-06,0.052
6.570E-06,0.092
6.580E-06,0.104
6.590E-06,0.128
6.600E-06,0.124
6.610E-06,0.120
6.620E-06,0.088
6.630E-06,0.080
6.640E-06,0.092
6.650E-06,0.096
6.660E-06,0.132
6.670E-06,0.136
6.680E-06,0.108
6.690E-06,0.072
6.700E-06,0.024
6.710E-06,-0.004
6.720E-06,-0.024
6.730E-06,-0.012
6.740E-06,-0.012
6.750E-06,-0.032
6.760E-06,-0.068
6.770E-06,-0.128
6.780E-06,-0.176
6.790E-06,-0.184
6.800E-06,-0.152
6.810E-06,-0.104
6.820E-06,-0.032
6.830E-06,0.008
6.840E-06,0.012
6.850E-06,0.016
6.860E-06,0.012
6.870E-06,0.012
6.880E-06,0.036
6.890E-06,0.076
6.900E-06,0.092
6.910E-06,0.116
6.920E-06,0.124
6.930E-06,0.124
6.940E-06,0.120
6.950E-06,0.096
6.960E-06,0.052
6.970E-06,0.004
6.980E-06,-0.004
6.990E-06,0.000
7.000E-06,0.032
7.010E-06,0.072
7.020E-06,0.088
7.030E-06,0.060
7.040E-06,0.028
7.050E-06,-0.004
7.060E-06,-0.008
7.070E-06,0.012
7.080E-06,0.048
7.090E-06,0.068
7.100E-06,0.092
7.110E-06,0.096
7.120E-06,0.084
7.130E-06,0.088
7.140E-06,0.100
7.150E-06,0.112
7.160E-06,0.120
7.170E-06,0.124
7.180E-06,0.104
7.190E-06,0.072
7.200E-06,0.056
7.210E-06,0.048
7.220E-06,0.044
7.230E-06,0.056
7.240E-06,0.056
7.250E-06,0.052
7.260E-06,0.044
7.270E-06,0.028
7.280E-06,0.020
7.290E-06,0.016
7.300E-06,0.008
7.310E-06,-0.012
7.320E-06,-0.036
7.330E-06,-0.036
7.340E-06,-0.024
7.350E-06,-0.004
7.360E-06,0.036
7.370E-06,0.088
7.380E-06,0.124
7.390E-06,0.148
7.400E-06,0.148
7.410E-06,0.144
7.420E-06,0.128
7.430E-06,0.108
7.440E-06,0.100
7.450E-06,0.096
7.460E-06,0.100
7.470E-06,0.108
7.480E-06,0.112
7.490E-06,0.120
7.500E-06,0.120
7.510E-06,0.108
7.520E-06,0.072
7.530E-06,0.028
7.540E-06,-0.032
7.550E-06,-0.052
7.560E-06,-0.040
7.570E-06,-0.028
7.580E-06,-0.036
7.590E-06,-0.152
7.600E-06,-0.268
7.610E-06,-0.348
7.620E-06,-0.332
7.630E-06,-0.172
7.640E-06,0.088
7.650E-06,0.228
7.660E-06,0.208
7.670E-06,0.088
7.680E-06,-0.084
7.690E-06,-0.284
7.700E-06,-0.396
7.710E-06,-0.324
7.720E-06,-0.172
7.730E-06,-0.016
7.740E-06,0.072
7.750E-06,0.100
7.760E-06,0.108
7.770E-06,0.008
7.780E-06,-0.096
7.790E-06,-0.152
7.800E-06,-0.172
7.810E-06,-0.072
7.820E-06,0.048
7.830E-06,0.084
7.840E-06,0.092
7.850E-06,0.036
7.860E-06,-0.032
7.870E-06,-0.068
7.880E-06,-0.044
7.890E-06,0.024
7.900E-06,0.092
7.910E-06,0.112
7.920E-06,0.108
7.930E-06,0.072
7.940E-06,0.028
7.950E-06,0.024
7.960E-06,0.040
7.970E-06,0.092
7.980E-06,0.132
7.990E-06,0.160
8.000E-06,0.152
8.010E-06,0.132
8.020E-06,0.112
8.030E-06,0.104
8.040E-06,0.116
8.050E-06,0.136
8.060E-06,0.156
8.070E-06,0.164
8.080E-06,0.156
8.090E-06,0.128
8.100E-06,0.116
8.110E-06,0.108
8.120E-06,0.116
8.130E-06,0.128
8.140E-06,0.144
8.150E-06,0.144
8.160E-06,0.136
8.170E-06,0.124
8.180E-06,0.112
