mediciones/5-27/-27.5/WaveData5181.csv

#timebase=2000000(ps)
,#voltbase=1000000(mv/100)
#size=4000
-3.800E-06,0.520
-3.790E-06,0.480
-3.780E-06,0.480
-3.770E-06,0.480
-3.760E-06,0.400
-3.750E-06,0.400
-3.740E-06,0.360
-3.730E-06,0.400
-3.720E-06,0.400
-3.710E-06,0.440
-3.700E-06,0.400
-3.690E-06,0.440
-3.680E-06,0.360
-3.670E-06,0.320
-3.660E-06,0.320
-3.650E-06,0.320
-3.640E-06,0.320
-3.630E-06,0.360
-3.620E-06,0.360
-3.610E-06,0.320
-3.600E-06,0.320
-3.590E-06,0.240
-3.580E-06,0.240
-3.570E-06,0.240
-3.560E-06,0.160
-3.550E-06,0.160
-3.540E-06,0.160
-3.530E-06,0.120
-3.520E-06,0.120
-3.510E-06,0.160
-3.500E-06,0.120
-3.490E-06,0.120
-3.480E-06,0.040
-3.470E-06,0.040
-3.460E-06,0.080
-3.450E-06,0.120
-3.440E-06,0.160
-3.430E-06,0.240
-3.420E-06,0.160
-3.410E-06,0.200
-3.400E-06,0.240
-3.390E-06,0.200
-3.380E-06,0.240
-3.370E-06,0.240
-3.360E-06,0.320
-3.350E-06,0.320
-3.340E-06,0.360
-3.330E-06,0.320
-3.320E-06,0.320
-3.310E-06,0.360
-3.300E-06,0.360
-3.290E-06,0.360
-3.280E-06,0.360
-3.270E-06,0.320
-3.260E-06,0.360
-3.250E-06,0.240
-3.240E-06,0.320
-3.230E-06,0.320
-3.220E-06,0.360
-3.210E-06,0.320
-3.200E-06,0.320
-3.190E-06,0.320
-3.180E-06,0.320
-3.170E-06,0.360
-3.160E-06,0.320
-3.150E-06,0.400
-3.140E-06,0.440
-3.130E-06,0.440
-3.120E-06,0.440
-3.110E-06,0.400
-3.100E-06,0.480
-3.090E-06,0.520
-3.080E-06,0.520
-3.070E-06,0.640
-3.060E-06,0.600
-3.050E-06,0.600
-3.040E-06,0.640
-3.030E-06,0.640
-3.020E-06,0.600
-3.010E-06,0.600
-3.000E-06,0.680
-2.990E-06,0.600
-2.980E-06,0.560
-2.970E-06,0.440
-2.960E-06,0.400
-2.950E-06,0.440
-2.940E-06,0.440
-2.930E-06,0.400
-2.920E-06,0.360
-2.910E-06,0.400
-2.900E-06,0.360
-2.890E-06,0.400
-2.880E-06,0.440
-2.870E-06,0.400
-2.860E-06,0.360
-2.850E-06,0.320
-2.840E-06,0.360
-2.830E-06,0.320
-2.820E-06,0.320
-2.810E-06,0.360
-2.800E-06,0.320
-2.790E-06,0.200
-2.780E-06,0.200
-2.770E-06,0.240
-2.760E-06,0.160
-2.750E-06,0.160
-2.740E-06,0.200
-2.730E-06,0.160
-2.720E-06,0.200
-2.710E-06,0.160
-2.700E-06,0.160
-2.690E-06,0.240
-2.680E-06,0.200
-2.670E-06,0.320
-2.660E-06,0.280
-2.650E-06,0.360
-2.640E-06,0.320
-2.630E-06,0.320
-2.620E-06,0.360
-2.610E-06,0.360
-2.600E-06,0.360
-2.590E-06,0.320
-2.580E-06,0.320
-2.570E-06,0.160
-2.560E-06,0.120
-2.550E-06,0.200
-2.540E-06,0.120
-2.530E-06,0.320
-2.520E-06,0.480
-2.510E-06,0.480
-2.500E-06,0.480
-2.490E-06,0.440
-2.480E-06,0.440
-2.470E-06,0.440
-2.460E-06,0.560
-2.450E-06,0.640
-2.440E-06,0.680
-2.430E-06,0.640
-2.420E-06,0.600
-2.410E-06,0.560
-2.400E-06,0.640
-2.390E-06,0.560
-2.380E-06,0.680
-2.370E-06,0.760
-2.360E-06,0.840
-2.350E-06,0.800
-2.340E-06,0.720
-2.330E-06,0.640
-2.320E-06,0.640
-2.310E-06,0.680
-2.300E-06,0.760
-2.290E-06,0.800
-2.280E-06,0.800
-2.270E-06,0.760
-2.260E-06,0.680
-2.250E-06,0.640
-2.240E-06,0.600
-2.230E-06,0.680
-2.220E-06,0.720
-2.210E-06,0.680
-2.200E-06,0.560
-2.190E-06,0.440
-2.180E-06,0.440
-2.170E-06,0.440
-2.160E-06,0.480
-2.150E-06,0.520
-2.140E-06,0.480
-2.130E-06,0.520
-2.120E-06,0.440
-2.110E-06,0.520
-2.100E-06,0.360
-2.090E-06,0.360
-2.080E-06,0.240
-2.070E-06,0.160
-2.060E-06,0.240
-2.050E-06,0.320
-2.040E-06,0.400
-2.030E-06,0.520
-2.020E-06,0.480
-2.010E-06,0.640
-2.000E-06,0.680
-1.990E-06,0.720
-1.980E-06,0.800
-1.970E-06,0.800
-1.960E-06,0.880
-1.950E-06,0.960
-1.940E-06,1.000
-1.930E-06,1.000
-1.920E-06,1.080
-1.910E-06,1.080
-1.900E-06,1.040
-1.890E-06,1.160
-1.880E-06,1.120
-1.870E-06,1.200
-1.860E-06,1.160
-1.850E-06,1.240
-1.840E-06,1.360
-1.830E-06,1.320
-1.820E-06,1.400
-1.810E-06,1.440
-1.800E-06,1.400
-1.790E-06,1.320
-1.780E-06,1.360
-1.770E-06,1.280
-1.760E-06,1.200
-1.750E-06,1.080
-1.740E-06,0.640
-1.730E-06,1.080
-1.720E-06,0.920
-1.710E-06,0.440
-1.700E-06,0.920
-1.690E-06,-0.040
-1.680E-06,-0.120
-1.670E-06,-0.600
-1.660E-06,0.680
-1.650E-06,0.640
-1.640E-06,1.520
-1.630E-06,1.120
-1.620E-06,0.440
-1.610E-06,-0.040
-1.600E-06,-0.400
-1.590E-06,0.280
-1.580E-06,0.720
-1.570E-06,0.920
-1.560E-06,0.960
-1.550E-06,0.400
-1.540E-06,0.240
-1.530E-06,0.280
-1.520E-06,0.440
-1.510E-06,0.760
-1.500E-06,0.840
-1.490E-06,0.680
-1.480E-06,0.520
-1.470E-06,0.240
-1.460E-06,0.120
-1.450E-06,0.240
-1.440E-06,0.280
-1.430E-06,0.320
-1.420E-06,0.240
-1.410E-06,0.200
-1.400E-06,0.120
-1.390E-06,0.200
-1.380E-06,0.200
-1.370E-06,0.280
-1.360E-06,0.360
-1.350E-06,0.440
-1.340E-06,0.440
-1.330E-06,0.520
-1.320E-06,0.440
-1.310E-06,0.480
-1.300E-06,0.320
-1.290E-06,0.320
-1.280E-06,0.480
-1.270E-06,0.520
-1.260E-06,0.680
-1.250E-06,0.840
-1.240E-06,0.760
-1.230E-06,0.720
-1.220E-06,0.520
-1.210E-06,0.480
-1.200E-06,0.360
-1.190E-06,0.400
-1.180E-06,0.520
-1.170E-06,0.400
-1.160E-06,0.600
-1.150E-06,0.360
-1.140E-06,0.160
-1.130E-06,0.080
-1.120E-06,-0.360
-1.110E-06,-0.160
-1.100E-06,-0.320
-1.090E-06,-0.520
-1.080E-06,-0.400
-1.070E-06,-0.240
-1.060E-06,-0.880
-1.050E-06,-0.480
-1.040E-06,-0.840
-1.030E-06,-0.600
-1.020E-06,-0.320
-1.010E-06,-0.120
-1.000E-06,0.040
-9.900E-07,-0.080
-9.800E-07,-0.280
-9.700E-07,-0.360
-9.600E-07,-0.480
-9.500E-07,-0.160
-9.400E-07,-0.080
-9.300E-07,-0.040
-9.200E-07,-0.040
-9.100E-07,-0.280
-9.000E-07,-0.320
-8.900E-07,-0.040
-8.800E-07,-0.040
-8.700E-07,0.080
-8.600E-07,0.000
-8.500E-07,-0.080
-8.400E-07,-0.080
-8.300E-07,-0.120
-8.200E-07,0.000
-8.100E-07,-0.160
-8.000E-07,-0.080
-7.900E-07,-0.280
-7.800E-07,-0.320
-7.700E-07,-0.480
-7.600E-07,-0.520
-7.500E-07,-0.480
-7.400E-07,-0.520
-7.300E-07,-0.400
-7.200E-07,-0.280
-7.100E-07,-0.240
-7.000E-07,-0.320
-6.900E-07,-0.440
-6.800E-07,-0.480
-6.700E-07,-0.520
-6.600E-07,-0.520
-6.500E-07,-0.440
-6.400E-07,-0.480
-6.300E-07,-0.560
-6.200E-07,-0.640
-6.100E-07,-0.760
-6.000E-07,-0.800
-5.900E-07,-0.880
-5.800E-07,-0.880
-5.700E-07,-0.960
-5.600E-07,-0.880
-5.500E-07,-0.880
-5.400E-07,-0.920
-5.300E-07,-1.040
-5.200E-07,-0.960
-5.100E-07,-1.000
-5.000E-07,-1.000
-4.900E-07,-0.840
-4.800E-07,-0.800
-4.700E-07,-0.760
-4.600E-07,-0.720
-4.500E-07,-0.760
-4.400E-07,-0.800
-4.300E-07,-0.840
-4.200E-07,-0.840
-4.100E-07,-0.840
-4.000E-07,-0.720
-3.900E-07,-0.760
-3.800E-07,-0.760
-3.700E-07,-0.800
-3.600E-07,-0.760
-3.500E-07,-0.680
-3.400E-07,-0.640
-3.300E-07,-0.640
-3.200E-07,-0.640
-3.100E-07,-0.640
-3.000E-07,-0.600
-2.900E-07,-0.600
-2.800E-07,-0.520
-2.700E-07,-0.560
-2.600E-07,-0.640
-2.500E-07,-0.640
-2.400E-07,-0.720
-2.300E-07,-0.800
-2.200E-07,-0.800
-2.100E-07,-0.760
-2.000E-07,-0.840
-1.900E-07,-0.840
-1.800E-07,-0.840
-1.700E-07,-0.720
-1.600E-07,-0.720
-1.500E-07,-0.600
-1.400E-07,-0.520
-1.300E-07,-0.520
-1.200E-07,-0.720
-1.100E-07,-0.720
-1.000E-07,-0.840
-9.000E-08,-0.720
-8.000E-08,-1.000
-7.000E-08,-0.920
-6.000E-08,-1.280
-5.000E-08,-1.320
-4.000E-08,-1.000
-3.000E-08,-1.160
-2.000E-08,-1.160
-1.000E-08,-1.800
0.000E+00,-2.280
1.000E-08,-2.200
2.000E-08,-1.520
3.000E-08,-0.080
4.000E-08,0.280
5.000E-08,0.720
6.000E-08,-0.520
7.000E-08,-1.560
8.000E-08,-2.160
9.000E-08,-1.840
1.000E-07,-1.120
1.100E-07,-0.200
1.200E-07,0.360
1.300E-07,0.520
1.400E-07,0.200
1.500E-07,-0.240
1.600E-07,-0.720
1.700E-07,-0.720
1.800E-07,-0.480
1.900E-07,-0.080
2.000E-07,0.000
2.100E-07,0.000
2.200E-07,-0.240
2.300E-07,-0.720
2.400E-07,-1.000
2.500E-07,-1.120
2.600E-07,-0.960
2.700E-07,-0.800
2.800E-07,-0.760
2.900E-07,-0.800
3.000E-07,-1.080
3.100E-07,-1.320
3.200E-07,-1.560
3.300E-07,-1.680
3.400E-07,-1.720
3.500E-07,-1.640
3.600E-07,-1.680
3.700E-07,-1.720
3.800E-07,-1.840
3.900E-07,-1.840
4.000E-07,-1.880
4.100E-07,-1.840
4.200E-07,-1.720
4.300E-07,-1.560
4.400E-07,-1.440
4.500E-07,-1.440
4.600E-07,-1.480
4.700E-07,-1.600
4.800E-07,-1.640
4.900E-07,-1.560
5.000E-07,-1.360
5.100E-07,-1.200
5.200E-07,-1.000
5.300E-07,-1.000
5.400E-07,-1.040
5.500E-07,-1.320
5.600E-07,-1.360
5.700E-07,-1.400
5.800E-07,-1.400
5.900E-07,-1.280
6.000E-07,-1.120
6.100E-07,-1.040
6.200E-07,-1.000
6.300E-07,-1.040
6.400E-07,-0.920
6.500E-07,-1.040
6.600E-07,-0.880
6.700E-07,-0.800
6.800E-07,-0.760
6.900E-07,-0.560
7.000E-07,-0.600
7.100E-07,-0.520
7.200E-07,-0.600
7.300E-07,-0.680
7.400E-07,-0.920
7.500E-07,-0.880
7.600E-07,-0.920
7.700E-07,-1.000
7.800E-07,-1.320
7.900E-07,-1.840
8.000E-07,-1.880
8.100E-07,-2.240
8.200E-07,-2.040
8.300E-07,-0.880
8.400E-07,-0.920
8.500E-07,0.280
8.600E-07,-0.560
8.700E-07,-0.600
8.800E-07,-0.600
8.900E-07,-0.640
9.000E-07,0.360
9.100E-07,0.320
9.200E-07,0.440
9.300E-07,0.000
9.400E-07,-0.320
9.500E-07,-0.320
9.600E-07,-0.240
9.700E-07,-0.200
9.800E-07,-0.320
9.900E-07,-0.600
1.000E-06,-1.040
1.010E-06,-1.200
1.020E-06,-1.520
1.030E-06,-1.840
1.040E-06,-2.040
1.050E-06,-2.400
1.060E-06,-2.520
1.070E-06,-2.720
1.080E-06,-2.880
1.090E-06,-2.960
1.100E-06,-3.120
1.110E-06,-3.160
1.120E-06,-3.200
1.130E-06,-3.040
1.140E-06,-3.040
1.150E-06,-2.760
1.160E-06,-2.640
1.170E-06,-2.600
1.180E-06,-2.480
1.190E-06,-2.400
1.200E-06,-2.280
1.210E-06,-2.200
1.220E-06,-2.160
1.230E-06,-2.120
1.240E-06,-2.160
1.250E-06,-2.360
1.260E-06,-2.360
1.270E-06,-2.280
1.280E-06,-1.840
1.290E-06,-1.560
1.300E-06,-1.240
1.310E-06,-1.000
1.320E-06,-0.840
1.330E-06,-0.880
1.340E-06,-0.680
1.350E-06,-0.480
1.360E-06,-0.400
1.370E-06,-0.280
1.380E-06,-0.240
1.390E-06,-0.120
1.400E-06,0.000
1.410E-06,-0.040
1.420E-06,0.360
1.430E-06,0.480
1.440E-06,0.160
1.450E-06,-0.280
1.460E-06,-0.440
1.470E-06,-0.520
1.480E-06,-0.120
1.490E-06,-0.240
1.500E-06,-0.520
1.510E-06,-0.680
1.520E-06,-0.680
1.530E-06,-1.200
1.540E-06,0.120
1.550E-06,0.160
1.560E-06,0.640
1.570E-06,0.440
1.580E-06,0.000
1.590E-06,0.520
1.600E-06,0.160
1.610E-06,0.160
1.620E-06,0.000
1.630E-06,-0.280
1.640E-06,-0.040
1.650E-06,-0.200
1.660E-06,-0.440
1.670E-06,-0.720
1.680E-06,-1.280
1.690E-06,-1.560
1.700E-06,-1.680
1.710E-06,-1.800
1.720E-06,-1.880
1.730E-06,-2.120
1.740E-06,-2.520
1.750E-06,-2.720
1.760E-06,-3.240
1.770E-06,-3.360
1.780E-06,-3.640
1.790E-06,-3.680
1.800E-06,-3.840
1.810E-06,-3.720
1.820E-06,-3.600
1.830E-06,-3.360
1.840E-06,-3.400
1.850E-06,-3.360
1.860E-06,-3.320
1.870E-06,-3.000
1.880E-06,-2.680
1.890E-06,-2.240
1.900E-06,-1.760
1.910E-06,-1.560
1.920E-06,-1.240
1.930E-06,-0.920
1.940E-06,-0.480
1.950E-06,0.080
1.960E-06,0.360
1.970E-06,0.680
1.980E-06,0.640
1.990E-06,0.520
2.000E-06,0.800
2.010E-06,0.840
2.020E-06,1.000
2.030E-06,1.200
2.040E-06,1.320
2.050E-06,1.440
2.060E-06,1.560
2.070E-06,1.520
2.080E-06,1.440
2.090E-06,1.200
2.100E-06,0.960
2.110E-06,0.640
2.120E-06,0.720
2.130E-06,0.680
2.140E-06,0.800
2.150E-06,0.560
2.160E-06,0.440
2.170E-06,0.080
2.180E-06,-0.360
2.190E-06,-0.640
2.200E-06,-1.040
2.210E-06,-1.240
2.220E-06,-1.360
2.230E-06,-1.400
2.240E-06,-1.680
2.250E-06,-1.920
2.260E-06,-2.320
2.270E-06,-2.640
2.280E-06,-2.800
2.290E-06,-2.920
2.300E-06,-2.920
2.310E-06,-2.320
2.320E-06,-3.360
2.330E-06,-3.200
2.340E-06,-4.000
2.350E-06,-2.920
2.360E-06,-3.160
2.370E-06,-1.720
2.380E-06,-1.120
2.390E-06,-1.120
2.400E-06,-0.960
2.410E-06,-1.240
2.420E-06,-0.840
2.430E-06,-0.520
2.440E-06,-0.040
2.450E-06,-0.280
2.460E-06,-0.320
2.470E-06,-0.240
2.480E-06,0.040
2.490E-06,0.240
2.500E-06,0.320
2.510E-06,-0.040
2.520E-06,-0.240
2.530E-06,-0.640
2.540E-06,-0.520
2.550E-06,-0.560
2.560E-06,-0.560
2.570E-06,-0.400
2.580E-06,-0.520
2.590E-06,-0.480
2.600E-06,-0.400
2.610E-06,-0.720
2.620E-06,-0.640
2.630E-06,-0.960
2.640E-06,-1.000
2.650E-06,-0.880
2.660E-06,-0.680
2.670E-06,-0.480
2.680E-06,-0.520
2.690E-06,-0.560
2.700E-06,-0.600
2.710E-06,-0.720
2.720E-06,-0.560
2.730E-06,-0.480
2.740E-06,-0.480
2.750E-06,-0.440
2.760E-06,-0.560
2.770E-06,-0.680
2.780E-06,-0.760
2.790E-06,-0.840
2.800E-06,-0.960
2.810E-06,-0.920
2.820E-06,-1.000
2.830E-06,-1.040
2.840E-06,-1.160
2.850E-06,-1.320
2.860E-06,-1.400
2.870E-06,-1.440
2.880E-06,-1.320
2.890E-06,-1.280
2.900E-06,-1.120
2.910E-06,-1.200
2.920E-06,-1.280
2.930E-06,-1.400
2.940E-06,-1.360
2.950E-06,-1.320
2.960E-06,-1.280
2.970E-06,-1.080
2.980E-06,-1.040
2.990E-06,-1.000
3.000E-06,-1.080
3.010E-06,-1.040
3.020E-06,-0.920
3.030E-06,-0.680
3.040E-06,-0.520
3.050E-06,-0.440
3.060E-06,-0.360
3.070E-06,-0.560
3.080E-06,-0.640
3.090E-06,-0.720
3.100E-06,-0.920
3.110E-06,-0.760
3.120E-06,-0.640
3.130E-06,-0.440
3.140E-06,-0.160
3.150E-06,-0.200
3.160E-06,-0.120
3.170E-06,-0.200
3.180E-06,-0.320
3.190E-06,-0.040
3.200E-06,0.040
3.210E-06,0.320
3.220E-06,0.480
3.230E-06,0.600
3.240E-06,0.600
3.250E-06,0.520
3.260E-06,0.480
3.270E-06,0.440
3.280E-06,0.400
3.290E-06,0.360
3.300E-06,0.360
3.310E-06,0.240
3.320E-06,0.120
3.330E-06,0.080
3.340E-06,-0.080
3.350E-06,-0.200
3.360E-06,-0.360
3.370E-06,-0.400
3.380E-06,-0.480
3.390E-06,-0.640
3.400E-06,-0.720
3.410E-06,-0.800
3.420E-06,-0.840
3.430E-06,-0.920
3.440E-06,-1.040
3.450E-06,-1.040
3.460E-06,-0.960
3.470E-06,-0.960
3.480E-06,-0.960
3.490E-06,-0.920
3.500E-06,-0.960
3.510E-06,-0.880
3.520E-06,-0.840
3.530E-06,-0.840
3.540E-06,-0.680
3.550E-06,-0.560
3.560E-06,-0.560
3.570E-06,-0.600
3.580E-06,-0.680
3.590E-06,-0.800
3.600E-06,-0.840
3.610E-06,-0.840
3.620E-06,-0.960
3.630E-06,-1.040
3.640E-06,0.000
3.650E-06,-1.080
3.660E-06,-1.360
3.670E-06,-1.080
3.680E-06,-1.880
3.690E-06,-0.160
3.700E-06,0.360
3.710E-06,1.120
3.720E-06,0.640
3.730E-06,-1.160
3.740E-06,-2.160
3.750E-06,-2.160
3.760E-06,-1.360
3.770E-06,0.480
3.780E-06,0.600
3.790E-06,0.280
3.800E-06,-0.400
3.810E-06,-1.200
3.820E-06,-0.640
3.830E-06,0.040
3.840E-06,0.680
3.850E-06,0.920
3.860E-06,0.160
3.870E-06,-0.360
3.880E-06,-0.560
3.890E-06,-0.520
3.900E-06,-0.160
3.910E-06,0.120
3.920E-06,0.120
3.930E-06,0.200
3.940E-06,0.040
3.950E-06,-0.040
3.960E-06,0.000
3.970E-06,-0.080
3.980E-06,-0.480
3.990E-06,-0.680
4.000E-06,-0.520
4.010E-06,-0.200
4.020E-06,0.840
4.030E-06,1.200
4.040E-06,1.680
4.050E-06,1.360
4.060E-06,0.160
4.070E-06,-0.040
4.080E-06,-0.560
4.090E-06,0.240
4.100E-06,0.960
4.110E-06,1.480
4.120E-06,1.280
4.130E-06,0.200
4.140E-06,-0.520
4.150E-06,-0.640
4.160E-06,0.000
4.170E-06,1.080
4.180E-06,1.480
4.190E-06,1.680
4.200E-06,1.320
4.210E-06,0.840
4.220E-06,0.680
4.230E-06,0.800
4.240E-06,0.960
4.250E-06,1.040
4.260E-06,0.920
4.270E-06,0.520
4.280E-06,0.080
4.290E-06,-0.360
4.300E-06,-0.760
4.310E-06,-1.200
4.320E-06,-1.400
4.330E-06,-1.520
4.340E-06,-1.520
4.350E-06,-1.520
4.360E-06,-1.640
4.370E-06,-1.800
4.380E-06,-1.880
4.390E-06,-1.840
4.400E-06,-1.520
4.410E-06,-1.200
4.420E-06,-0.800
4.430E-06,-0.560
4.440E-06,-0.360
4.450E-06,-0.320
4.460E-06,-0.240
4.470E-06,-0.120
4.480E-06,0.040
4.490E-06,0.240
4.500E-06,0.440
4.510E-06,0.520
4.520E-06,0.400
4.530E-06,0.160
4.540E-06,0.040
4.550E-06,-0.080
4.560E-06,-0.080
4.570E-06,-0.080
4.580E-06,-0.080
4.590E-06,-0.040
4.600E-06,-0.160
4.610E-06,-0.360
4.620E-06,-0.360
4.630E-06,-0.440
4.640E-06,-0.360
4.650E-06,-0.360
4.660E-06,-0.160
4.670E-06,-0.040
4.680E-06,-0.040
4.690E-06,0.080
4.700E-06,0.160
4.710E-06,0.200
4.720E-06,0.240
4.730E-06,0.320
4.740E-06,0.400
4.750E-06,0.440
4.760E-06,0.440
4.770E-06,0.520
4.780E-06,0.400
4.790E-06,0.440
4.800E-06,0.280
4.810E-06,0.120
4.820E-06,0.000
4.830E-06,0.000
4.840E-06,0.360
4.850E-06,-1.240
4.860E-06,-0.720
4.870E-06,-1.360
4.880E-06,-1.080
4.890E-06,-0.440
4.900E-06,-0.440
4.910E-06,-0.600
4.920E-06,-1.200
4.930E-06,-1.880
4.940E-06,-1.520
4.950E-06,-0.920
4.960E-06,-0.200
4.970E-06,0.400
4.980E-06,-0.240
4.990E-06,-0.720
5.000E-06,-1.160
5.010E-06,-1.200
5.020E-06,-0.400
5.030E-06,-0.120
5.040E-06,0.240
5.050E-06,0.240
5.060E-06,0.040
5.070E-06,-0.040
5.080E-06,0.080
5.090E-06,0.080
5.100E-06,0.200
5.110E-06,0.120
5.120E-06,0.080
5.130E-06,-0.040
5.140E-06,-0.160
5.150E-06,-0.400
5.160E-06,-0.640
5.170E-06,-0.760
5.180E-06,-0.840
5.190E-06,-0.880
5.200E-06,-0.880
5.210E-06,-0.960
5.220E-06,-0.880
5.230E-06,-0.920
5.240E-06,-0.760
5.250E-06,-0.720
5.260E-06,-0.640
5.270E-06,-0.520
5.280E-06,-0.320
5.290E-06,-0.080
5.300E-06,0.240
5.310E-06,0.440
5.320E-06,0.600
5.330E-06,0.720
5.340E-06,0.880
5.350E-06,0.960
5.360E-06,1.040
5.370E-06,1.040
5.380E-06,0.960
5.390E-06,0.840
5.400E-06,0.600
5.410E-06,0.360
5.420E-06,0.160
5.430E-06,0.240
5.440E-06,-0.240
5.450E-06,0.000
5.460E-06,-0.200
5.470E-06,-1.320
5.480E-06,-1.640
5.490E-06,-1.760
5.500E-06,-1.360
5.510E-06,0.200
5.520E-06,1.480
5.530E-06,2.000
5.540E-06,1.880
5.550E-06,0.560
5.560E-06,-1.080
5.570E-06,-1.240
5.580E-06,-0.960
5.590E-06,0.200
5.600E-06,1.440
5.610E-06,1.600
5.620E-06,1.400
5.630E-06,0.520
5.640E-06,-0.160
5.650E-06,-0.320
5.660E-06,-0.360
5.670E-06,0.360
5.680E-06,0.640
5.690E-06,0.920
5.700E-06,1.240
5.710E-06,1.080
5.720E-06,0.960
5.730E-06,0.480
5.740E-06,-0.080
5.750E-06,-0.520
5.760E-06,-0.720
5.770E-06,-0.840
5.780E-06,-1.000
5.790E-06,-1.200
5.800E-06,-1.680
5.810E-06,-1.840
5.820E-06,-2.000
5.830E-06,-2.080
5.840E-06,-1.920
5.850E-06,-1.800
5.860E-06,-1.720
5.870E-06,-1.640
5.880E-06,-1.360
5.890E-06,-1.080
5.900E-06,-0.680
5.910E-06,-0.160
5.920E-06,0.200
5.930E-06,0.600
5.940E-06,0.680
5.950E-06,0.720
5.960E-06,0.720
5.970E-06,0.800
5.980E-06,0.920
5.990E-06,0.960
6.000E-06,1.040
6.010E-06,1.040
6.020E-06,0.880
6.030E-06,0.680
6.040E-06,0.600
6.050E-06,0.640
6.060E-06,0.640
6.070E-06,0.680
6.080E-06,0.720
6.090E-06,0.720
6.100E-06,0.640
6.110E-06,0.600
6.120E-06,0.600
6.130E-06,0.440
6.140E-06,0.400
6.150E-06,0.400
6.160E-06,0.480
6.170E-06,0.680
6.180E-06,-0.240
6.190E-06,0.520
6.200E-06,-0.320
6.210E-06,-0.680
6.220E-06,-0.440
6.230E-06,0.440
6.240E-06,-1.680
6.250E-06,-1.160
6.260E-06,-1.160
6.270E-06,-1.160
6.280E-06,1.080
6.290E-06,1.160
6.300E-06,1.680
6.310E-06,0.000
6.320E-06,-1.960
6.330E-06,-1.840
6.340E-06,-1.000
6.350E-06,1.120
6.360E-06,2.200
6.370E-06,1.480
6.380E-06,0.800
6.390E-06,-0.240
6.400E-06,-0.400
6.410E-06,0.320
6.420E-06,0.440
6.430E-06,0.640
6.440E-06,0.480
6.450E-06,-0.120
6.460E-06,-0.320
6.470E-06,-0.640
6.480E-06,-1.200
6.490E-06,-1.520
6.500E-06,-1.560
6.510E-06,-1.480
6.520E-06,-1.200
6.530E-06,-1.320
6.540E-06,-1.560
6.550E-06,-1.840
6.560E-06,-2.000
6.570E-06,-1.640
6.580E-06,-0.920
6.590E-06,-0.360
6.600E-06,0.120
6.610E-06,0.200
6.620E-06,0.120
6.630E-06,0.080
6.640E-06,0.280
6.650E-06,0.640
6.660E-06,1.120
6.670E-06,1.440
6.680E-06,1.520
6.690E-06,1.360
6.700E-06,0.920
6.710E-06,0.480
6.720E-06,0.200
6.730E-06,0.240
6.740E-06,0.360
6.750E-06,0.600
6.760E-06,0.680
6.770E-06,0.680
6.780E-06,0.440
6.790E-06,0.200
6.800E-06,0.000
6.810E-06,0.200
6.820E-06,-0.080
6.830E-06,0.200
6.840E-06,0.600
6.850E-06,0.160
6.860E-06,-2.360
6.870E-06,-1.360
6.880E-06,-2.280
6.890E-06,-3.360
6.900E-06,-0.680
6.910E-06,-0.440
6.920E-06,0.080
6.930E-06,0.800
6.940E-06,0.000
6.950E-06,0.720
6.960E-06,0.200
6.970E-06,0.480
6.980E-06,0.640
6.990E-06,0.480
7.000E-06,1.240
7.010E-06,1.280
7.020E-06,1.040
7.030E-06,1.360
7.040E-06,0.680
7.050E-06,0.440
7.060E-06,0.560
7.070E-06,-0.040
7.080E-06,-0.160
7.090E-06,-0.520
7.100E-06,-1.040
7.110E-06,-1.000
7.120E-06,-1.040
7.130E-06,-1.240
7.140E-06,-1.160
7.150E-06,-1.520
7.160E-06,-1.800
7.170E-06,-1.680
7.180E-06,-1.720
7.190E-06,-1.400
7.200E-06,-1.120
7.210E-06,-0.800
7.220E-06,-0.400
7.230E-06,-0.040
7.240E-06,0.200
7.250E-06,0.680
7.260E-06,0.960
7.270E-06,1.200
7.280E-06,1.240
7.290E-06,1.120
7.300E-06,1.080
7.310E-06,0.960
7.320E-06,0.720
7.330E-06,0.640
7.340E-06,0.520
7.350E-06,0.160
7.360E-06,0.040
7.370E-06,0.080
7.380E-06,-0.120
7.390E-06,-0.240
7.400E-06,-0.480
7.410E-06,-0.560
7.420E-06,-0.840
7.430E-06,-0.600
7.440E-06,-0.840
7.450E-06,-1.240
7.460E-06,-1.360
7.470E-06,-2.200
7.480E-06,-2.360
7.490E-06,-1.480
7.500E-06,-1.240
7.510E-06,-0.200
7.520E-06,0.280
7.530E-06,-0.400
7.540E-06,-0.600
7.550E-06,-1.040
7.560E-06,-1.000
7.570E-06,-0.440
7.580E-06,0.000
7.590E-06,0.680
7.600E-06,0.680
7.610E-06,0.440
7.620E-06,0.240
7.630E-06,-0.200
7.640E-06,-0.040
7.650E-06,0.200
7.660E-06,0.440
7.670E-06,0.880
7.680E-06,0.800
7.690E-06,0.440
7.700E-06,0.200
7.710E-06,-0.200
7.720E-06,-0.320
7.730E-06,-0.160
7.740E-06,-0.120
7.750E-06,-0.160
7.760E-06,-0.440
7.770E-06,-0.760
7.780E-06,-1.120
7.790E-06,-1.280
7.800E-06,-1.360
7.810E-06,-1.320
7.820E-06,-1.160
7.830E-06,-1.240
7.840E-06,-1.320
7.850E-06,-1.400
7.860E-06,-1.560
7.870E-06,-1.520
7.880E-06,-1.440
7.890E-06,-1.200
7.900E-06,-0.880
7.910E-06,-0.720
7.920E-06,-0.640
7.930E-06,-0.640
7.940E-06,-0.640
7.950E-06,-0.680
7.960E-06,-0.720
7.970E-06,-0.680
7.980E-06,-0.680
7.990E-06,-0.640
8.000E-06,-0.680
8.010E-06,-0.840
