mediciones/5-27/-27.5/WaveData5166.csv

#timebase=2000000(ps)
,#voltbase=100000(mv/100)
#size=4000
-3.800E-06,0.012
-3.790E-06,0.020
-3.780E-06,0.044
-3.770E-06,0.036
-3.760E-06,0.016
-3.750E-06,-0.004
-3.740E-06,-0.028
-3.730E-06,-0.024
-3.720E-06,-0.016
-3.710E-06,-0.004
-3.700E-06,0.008
-3.690E-06,0.016
-3.680E-06,0.024
-3.670E-06,0.008
-3.660E-06,0.004
-3.650E-06,-0.020
-3.640E-06,-0.036
-3.630E-06,-0.040
-3.620E-06,-0.028
-3.610E-06,-0.004
-3.600E-06,0.016
-3.590E-06,0.020
-3.580E-06,0.020
-3.570E-06,0.016
-3.560E-06,0.000
-3.550E-06,-0.004
-3.540E-06,0.024
-3.530E-06,0.040
-3.520E-06,0.076
-3.510E-06,0.064
-3.500E-06,0.044
-3.490E-06,0.048
-3.480E-06,0.048
-3.470E-06,0.040
-3.460E-06,0.032
-3.450E-06,-0.012
-3.440E-06,-0.056
-3.430E-06,-0.056
-3.420E-06,-0.076
-3.410E-06,-0.068
-3.400E-06,-0.048
-3.390E-06,-0.052
-3.380E-06,-0.028
-3.370E-06,0.008
-3.360E-06,0.012
-3.350E-06,0.032
-3.340E-06,0.016
-3.330E-06,0.012
-3.320E-06,-0.016
-3.310E-06,-0.040
-3.300E-06,-0.028
-3.290E-06,0.004
-3.280E-06,0.028
-3.270E-06,0.036
-3.260E-06,0.028
-3.250E-06,-0.008
-3.240E-06,-0.020
-3.230E-06,-0.016
-3.220E-06,0.004
-3.210E-06,0.012
-3.200E-06,0.028
-3.190E-06,0.016
-3.180E-06,0.000
-3.170E-06,-0.008
-3.160E-06,0.000
-3.150E-06,0.012
-3.140E-06,0.024
-3.130E-06,0.032
-3.120E-06,0.044
-3.110E-06,0.048
-3.100E-06,0.044
-3.090E-06,0.056
-3.080E-06,0.036
-3.070E-06,0.008
-3.060E-06,-0.040
-3.050E-06,-0.072
-3.040E-06,-0.072
-3.030E-06,-0.024
-3.020E-06,0.028
-3.010E-06,0.064
-3.000E-06,0.076
-2.990E-06,0.028
-2.980E-06,-0.040
-2.970E-06,-0.076
-2.960E-06,-0.088
-2.950E-06,-0.040
-2.940E-06,-0.008
-2.930E-06,0.012
-2.920E-06,0.024
-2.910E-06,0.008
-2.900E-06,0.004
-2.890E-06,-0.008
-2.880E-06,-0.016
-2.870E-06,-0.008
-2.860E-06,-0.012
-2.850E-06,0.004
-2.840E-06,0.000
-2.830E-06,0.004
-2.820E-06,0.008
-2.810E-06,0.004
-2.800E-06,-0.004
-2.790E-06,0.000
-2.780E-06,0.004
-2.770E-06,0.004
-2.760E-06,0.012
-2.750E-06,0.004
-2.740E-06,0.004
-2.730E-06,0.000
-2.720E-06,0.004
-2.710E-06,0.004
-2.700E-06,0.020
-2.690E-06,0.024
-2.680E-06,0.020
-2.670E-06,0.004
-2.660E-06,-0.004
-2.650E-06,-0.004
-2.640E-06,0.004
-2.630E-06,0.016
-2.620E-06,0.024
-2.610E-06,0.040
-2.600E-06,0.044
-2.590E-06,0.044
-2.580E-06,0.044
-2.570E-06,0.052
-2.560E-06,0.056
-2.550E-06,0.056
-2.540E-06,0.060
-2.530E-06,0.044
-2.520E-06,0.020
-2.510E-06,-0.004
-2.500E-06,-0.024
-2.490E-06,-0.032
-2.480E-06,-0.032
-2.470E-06,-0.016
-2.460E-06,-0.004
-2.450E-06,0.012
-2.440E-06,0.020
-2.430E-06,0.016
-2.420E-06,0.012
-2.410E-06,0.008
-2.400E-06,0.000
-2.390E-06,0.000
-2.380E-06,-0.008
-2.370E-06,-0.016
-2.360E-06,-0.012
-2.350E-06,-0.004
-2.340E-06,0.008
-2.330E-06,0.024
-2.320E-06,0.036
-2.310E-06,0.040
-2.300E-06,0.028
-2.290E-06,0.028
-2.280E-06,0.032
-2.270E-06,0.048
-2.260E-06,0.060
-2.250E-06,0.064
-2.240E-06,0.056
-2.230E-06,0.052
-2.220E-06,0.048
-2.210E-06,0.052
-2.200E-06,0.064
-2.190E-06,0.096
-2.180E-06,0.100
-2.170E-06,0.108
-2.160E-06,0.088
-2.150E-06,0.056
-2.140E-06,0.032
-2.130E-06,0.028
-2.120E-06,0.040
-2.110E-06,0.012
-2.100E-06,-0.064
-2.090E-06,-0.212
-2.080E-06,-0.332
-2.070E-06,-0.332
-2.060E-06,-0.228
-2.050E-06,-0.048
-2.040E-06,0.088
-2.030E-06,0.132
-2.020E-06,0.108
-2.010E-06,-0.024
-2.000E-06,-0.104
-1.990E-06,-0.140
-1.980E-06,-0.076
-1.970E-06,0.016
-1.960E-06,0.076
-1.950E-06,0.096
-1.940E-06,0.044
-1.930E-06,-0.020
-1.920E-06,-0.060
-1.910E-06,-0.064
-1.900E-06,-0.024
-1.890E-06,0.020
-1.880E-06,0.040
-1.870E-06,0.040
-1.860E-06,0.012
-1.850E-06,-0.016
-1.840E-06,-0.032
-1.830E-06,-0.032
-1.820E-06,-0.008
-1.810E-06,0.016
-1.800E-06,0.032
-1.790E-06,0.024
-1.780E-06,0.012
-1.770E-06,-0.008
-1.760E-06,-0.024
-1.750E-06,-0.024
-1.740E-06,-0.004
-1.730E-06,0.012
-1.720E-06,0.020
-1.710E-06,0.024
-1.700E-06,0.004
-1.690E-06,-0.008
-1.680E-06,-0.024
-1.670E-06,-0.008
-1.660E-06,0.000
-1.650E-06,0.024
-1.640E-06,0.024
-1.630E-06,0.020
-1.620E-06,0.012
-1.610E-06,-0.004
-1.600E-06,-0.008
-1.590E-06,-0.008
-1.580E-06,0.000
-1.570E-06,0.012
-1.560E-06,0.024
-1.550E-06,0.028
-1.540E-06,0.024
-1.530E-06,0.016
-1.520E-06,0.012
-1.510E-06,0.012
-1.500E-06,0.020
-1.490E-06,0.028
-1.480E-06,0.048
-1.470E-06,0.060
-1.460E-06,0.068
-1.450E-06,0.076
-1.440E-06,0.092
-1.430E-06,0.100
-1.420E-06,0.108
-1.410E-06,0.104
-1.400E-06,0.096
-1.390E-06,0.088
-1.380E-06,0.056
-1.370E-06,0.028
-1.360E-06,-0.024
-1.350E-06,-0.056
-1.340E-06,-0.076
-1.330E-06,-0.056
-1.320E-06,-0.040
-1.310E-06,-0.032
-1.300E-06,-0.040
-1.290E-06,-0.044
-1.280E-06,-0.052
-1.270E-06,-0.036
-1.260E-06,-0.024
-1.250E-06,-0.008
-1.240E-06,-0.008
-1.230E-06,-0.028
-1.220E-06,-0.040
-1.210E-06,-0.036
-1.200E-06,-0.012
-1.190E-06,0.008
-1.180E-06,0.028
-1.170E-06,0.020
-1.160E-06,0.008
-1.150E-06,-0.012
-1.140E-06,-0.024
-1.130E-06,-0.004
-1.120E-06,0.000
-1.110E-06,0.024
-1.100E-06,0.024
-1.090E-06,0.032
-1.080E-06,0.028
-1.070E-06,0.024
-1.060E-06,0.036
-1.050E-06,0.048
-1.040E-06,0.076
-1.030E-06,0.100
-1.020E-06,0.108
-1.010E-06,0.108
-1.000E-06,0.108
-9.900E-07,0.100
-9.800E-07,0.084
-9.700E-07,0.064
-9.600E-07,0.036
-9.500E-07,-0.004
-9.400E-07,-0.036
-9.300E-07,-0.056
-9.200E-07,-0.060
-9.100E-07,-0.056
-9.000E-07,-0.040
-8.900E-07,-0.016
-8.800E-07,-0.008
-8.700E-07,-0.008
-8.600E-07,-0.016
-8.500E-07,-0.020
-8.400E-07,-0.040
-8.300E-07,-0.036
-8.200E-07,-0.036
-8.100E-07,-0.024
-8.000E-07,-0.008
-7.900E-07,-0.008
-7.800E-07,-0.004
-7.700E-07,-0.004
-7.600E-07,-0.004
-7.500E-07,0.008
-7.400E-07,0.016
-7.300E-07,0.028
-7.200E-07,0.028
-7.100E-07,0.028
-7.000E-07,0.040
-6.900E-07,0.044
-6.800E-07,0.056
-6.700E-07,0.076
-6.600E-07,0.100
-6.500E-07,0.116
-6.400E-07,0.124
-6.300E-07,0.116
-6.200E-07,0.108
-6.100E-07,0.096
-6.000E-07,0.064
-5.900E-07,0.032
-5.800E-07,0.000
-5.700E-07,-0.044
-5.600E-07,-0.088
-5.500E-07,-0.124
-5.400E-07,-0.144
-5.300E-07,-0.136
-5.200E-07,-0.120
-5.100E-07,-0.080
-5.000E-07,-0.064
-4.900E-07,-0.044
-4.800E-07,-0.044
-4.700E-07,-0.052
-4.600E-07,-0.052
-4.500E-07,-0.024
-4.400E-07,-0.008
-4.300E-07,0.016
-4.200E-07,0.032
-4.100E-07,0.028
-4.000E-07,0.016
-3.900E-07,0.024
-3.800E-07,0.044
-3.700E-07,0.060
-3.600E-07,0.072
-3.500E-07,0.084
-3.400E-07,0.092
-3.300E-07,0.104
-3.200E-07,0.112
-3.100E-07,0.116
-3.000E-07,0.112
-2.900E-07,0.108
-2.800E-07,0.100
-2.700E-07,0.096
-2.600E-07,0.092
-2.500E-07,0.104
-2.400E-07,0.112
-2.300E-07,0.124
-2.200E-07,0.128
-2.100E-07,0.124
-2.000E-07,0.128
-1.900E-07,0.124
-1.800E-07,0.112
-1.700E-07,0.124
-1.600E-07,0.124
-1.500E-07,0.140
-1.400E-07,0.144
-1.300E-07,0.164
-1.200E-07,0.176
-1.100E-07,0.148
-1.000E-07,0.132
-9.000E-08,0.020
-8.000E-08,-0.064
-7.000E-08,-0.164
-6.000E-08,-0.216
-5.000E-08,-0.040
-4.000E-08,-0.008
-3.000E-08,0.160
-2.000E-08,0.224
-1.000E-08,0.228
0.000E+00,0.228
1.000E-08,0.188
2.000E-08,0.124
3.000E-08,0.016
4.000E-08,-0.064
5.000E-08,-0.212
6.000E-08,-0.340
7.000E-08,-0.372
8.000E-08,-0.300
9.000E-08,-0.212
1.000E-07,-0.036
1.100E-07,0.128
1.200E-07,0.220
1.300E-07,0.164
1.400E-07,0.088
1.500E-07,-0.024
1.600E-07,-0.036
1.700E-07,-0.008
1.800E-07,0.056
1.900E-07,0.092
2.000E-07,0.028
2.100E-07,-0.036
2.200E-07,-0.132
2.300E-07,-0.208
2.400E-07,-0.184
2.500E-07,-0.060
2.600E-07,-0.100
2.700E-07,-0.036
2.800E-07,-0.168
2.900E-07,-0.296
3.000E-07,-0.332
3.100E-07,-0.288
3.200E-07,-0.136
3.300E-07,-0.020
3.400E-07,0.104
3.500E-07,0.144
3.600E-07,0.100
3.700E-07,0.028
3.800E-07,-0.008
3.900E-07,-0.044
4.000E-07,-0.048
4.100E-07,-0.040
4.200E-07,-0.036
4.300E-07,-0.032
4.400E-07,-0.028
4.500E-07,-0.028
4.600E-07,-0.044
4.700E-07,-0.024
4.800E-07,0.020
4.900E-07,0.060
5.000E-07,0.096
5.100E-07,0.124
5.200E-07,0.112
5.300E-07,0.068
5.400E-07,0.040
5.500E-07,0.016
5.600E-07,0.032
5.700E-07,0.052
5.800E-07,0.060
5.900E-07,0.088
6.000E-07,0.088
6.100E-07,0.100
6.200E-07,0.096
6.300E-07,0.092
6.400E-07,0.096
6.500E-07,0.096
6.600E-07,0.088
6.700E-07,0.092
6.800E-07,0.080
6.900E-07,0.084
7.000E-07,0.088
7.100E-07,0.096
7.200E-07,0.112
7.300E-07,0.120
7.400E-07,0.128
7.500E-07,0.108
7.600E-07,0.096
7.700E-07,0.108
7.800E-07,0.116
7.900E-07,0.136
8.000E-07,0.160
8.100E-07,0.180
8.200E-07,0.168
8.300E-07,0.156
8.400E-07,0.148
8.500E-07,0.136
8.600E-07,0.152
8.700E-07,0.112
8.800E-07,0.112
8.900E-07,0.092
9.000E-07,0.128
9.100E-07,0.168
9.200E-07,0.216
9.300E-07,0.228
9.400E-07,0.216
9.500E-07,0.164
9.600E-07,0.108
9.700E-07,0.100
9.800E-07,0.108
9.900E-07,0.160
1.000E-06,0.192
1.010E-06,0.196
1.020E-06,0.172
1.030E-06,0.156
1.040E-06,0.144
1.050E-06,0.156
1.060E-06,0.176
1.070E-06,0.192
1.080E-06,0.188
1.090E-06,0.176
1.100E-06,0.160
1.110E-06,0.144
1.120E-06,0.144
1.130E-06,0.140
1.140E-06,0.148
1.150E-06,0.156
1.160E-06,0.164
1.170E-06,0.164
1.180E-06,0.160
1.190E-06,0.152
1.200E-06,0.136
1.210E-06,0.136
1.220E-06,0.144
1.230E-06,0.152
1.240E-06,0.156
1.250E-06,0.160
1.260E-06,0.156
1.270E-06,0.144
1.280E-06,0.132
1.290E-06,0.136
1.300E-06,0.140
1.310E-06,0.148
1.320E-06,0.160
1.330E-06,0.160
1.340E-06,0.164
1.350E-06,0.152
1.360E-06,0.144
1.370E-06,0.144
1.380E-06,0.148
1.390E-06,0.148
1.400E-06,0.156
1.410E-06,0.168
1.420E-06,0.168
1.430E-06,0.168
1.440E-06,0.156
1.450E-06,0.144
1.460E-06,0.144
1.470E-06,0.148
1.480E-06,0.156
1.490E-06,0.156
1.500E-06,0.160
1.510E-06,0.160
1.520E-06,0.156
1.530E-06,0.156
1.540E-06,0.160
1.550E-06,0.156
1.560E-06,0.156
1.570E-06,0.160
1.580E-06,0.160
1.590E-06,0.160
1.600E-06,0.160
1.610E-06,0.160
1.620E-06,0.152
1.630E-06,0.152
1.640E-06,0.156
1.650E-06,0.152
1.660E-06,0.152
1.670E-06,0.148
1.680E-06,0.148
1.690E-06,0.148
1.700E-06,0.152
1.710E-06,0.160
1.720E-06,0.160
1.730E-06,0.156
1.740E-06,0.148
1.750E-06,0.152
1.760E-06,0.152
1.770E-06,0.152
1.780E-06,0.152
1.790E-06,0.152
1.800E-06,0.152
1.810E-06,0.152
1.820E-06,0.152
1.830E-06,0.152
1.840E-06,0.144
1.850E-06,0.144
1.860E-06,0.144
1.870E-06,0.148
1.880E-06,0.148
1.890E-06,0.144
1.900E-06,0.144
1.910E-06,0.152
1.920E-06,0.152
1.930E-06,0.152
1.940E-06,0.160
1.950E-06,0.156
1.960E-06,0.148
1.970E-06,0.152
1.980E-06,0.156
1.990E-06,0.152
2.000E-06,0.152
2.010E-06,0.144
2.020E-06,0.148
2.030E-06,0.144
2.040E-06,0.132
2.050E-06,0.132
2.060E-06,0.136
2.070E-06,0.136
2.080E-06,0.144
2.090E-06,0.148
2.100E-06,0.152
2.110E-06,0.152
2.120E-06,0.144
2.130E-06,0.144
2.140E-06,0.136
2.150E-06,0.136
2.160E-06,0.140
2.170E-06,0.136
2.180E-06,0.136
2.190E-06,0.132
2.200E-06,0.132
2.210E-06,0.128
2.220E-06,0.132
2.230E-06,0.136
2.240E-06,0.144
2.250E-06,0.148
2.260E-06,0.144
2.270E-06,0.144
2.280E-06,0.140
2.290E-06,0.144
2.300E-06,0.148
2.310E-06,0.140
2.320E-06,0.148
2.330E-06,0.148
2.340E-06,0.144
2.350E-06,0.144
2.360E-06,0.140
2.370E-06,0.136
2.380E-06,0.140
2.390E-06,0.136
2.400E-06,0.140
2.410E-06,0.140
2.420E-06,0.140
2.430E-06,0.140
2.440E-06,0.132
2.450E-06,0.128
2.460E-06,0.124
2.470E-06,0.128
2.480E-06,0.128
2.490E-06,0.140
2.500E-06,0.144
2.510E-06,0.140
2.520E-06,0.140
2.530E-06,0.132
2.540E-06,0.128
2.550E-06,0.128
2.560E-06,0.128
2.570E-06,0.140
2.580E-06,0.140
2.590E-06,0.140
2.600E-06,0.136
2.610E-06,0.140
2.620E-06,0.140
2.630E-06,0.136
2.640E-06,0.136
2.650E-06,0.144
2.660E-06,0.144
2.670E-06,0.140
2.680E-06,0.140
2.690E-06,0.140
2.700E-06,0.136
2.710E-06,0.136
2.720E-06,0.132
2.730E-06,0.136
2.740E-06,0.132
2.750E-06,0.136
2.760E-06,0.128
2.770E-06,0.124
2.780E-06,0.128
2.790E-06,0.132
2.800E-06,0.140
2.810E-06,0.136
2.820E-06,0.132
2.830E-06,0.128
2.840E-06,0.124
2.850E-06,0.124
2.860E-06,0.120
2.870E-06,0.124
2.880E-06,0.128
2.890E-06,0.128
2.900E-06,0.136
2.910E-06,0.132
2.920E-06,0.128
2.930E-06,0.124
2.940E-06,0.124
2.950E-06,0.124
2.960E-06,0.128
2.970E-06,0.128
2.980E-06,0.128
2.990E-06,0.128
3.000E-06,0.128
3.010E-06,0.128
3.020E-06,0.124
3.030E-06,0.128
3.040E-06,0.124
3.050E-06,0.128
3.060E-06,0.132
3.070E-06,0.128
3.080E-06,0.124
3.090E-06,0.120
3.100E-06,0.116
3.110E-06,0.116
3.120E-06,0.120
3.130E-06,0.124
3.140E-06,0.128
3.150E-06,0.124
3.160E-06,0.124
3.170E-06,0.124
3.180E-06,0.128
3.190E-06,0.124
3.200E-06,0.120
3.210E-06,0.120
3.220E-06,0.124
3.230E-06,0.120
3.240E-06,0.120
3.250E-06,0.116
3.260E-06,0.116
3.270E-06,0.112
3.280E-06,0.112
3.290E-06,0.120
3.300E-06,0.124
3.310E-06,0.120
3.320E-06,0.120
3.330E-06,0.108
3.340E-06,0.108
3.350E-06,0.112
3.360E-06,0.116
3.370E-06,0.120
3.380E-06,0.120
3.390E-06,0.124
3.400E-06,0.120
3.410E-06,0.112
3.420E-06,0.112
3.430E-06,0.112
3.440E-06,0.112
3.450E-06,0.112
3.460E-06,0.112
3.470E-06,0.116
3.480E-06,0.108
3.490E-06,0.108
3.500E-06,0.112
3.510E-06,0.112
3.520E-06,0.112
3.530E-06,0.112
3.540E-06,0.108
3.550E-06,0.112
3.560E-06,0.112
3.570E-06,0.108
3.580E-06,0.108
3.590E-06,0.108
3.600E-06,0.108
3.610E-06,0.108
3.620E-06,0.104
3.630E-06,0.104
3.640E-06,0.104
3.650E-06,0.108
3.660E-06,0.104
3.670E-06,0.104
3.680E-06,0.096
3.690E-06,0.100
3.700E-06,0.100
3.710E-06,0.096
3.720E-06,0.100
3.730E-06,0.096
3.740E-06,0.104
3.750E-06,0.096
3.760E-06,0.100
3.770E-06,0.096
3.780E-06,0.096
3.790E-06,0.100
3.800E-06,0.096
3.810E-06,0.096
3.820E-06,0.096
3.830E-06,0.092
3.840E-06,0.100
3.850E-06,0.100
3.860E-06,0.096
3.870E-06,0.096
3.880E-06,0.100
3.890E-06,0.096
3.900E-06,0.100
3.910E-06,0.096
3.920E-06,0.096
3.930E-06,0.092
3.940E-06,0.092
3.950E-06,0.092
3.960E-06,0.092
3.970E-06,0.092
3.980E-06,0.096
3.990E-06,0.092
4.000E-06,0.088
4.010E-06,0.092
4.020E-06,0.092
4.030E-06,0.096
4.040E-06,0.096
4.050E-06,0.092
4.060E-06,0.092
4.070E-06,0.088
4.080E-06,0.092
4.090E-06,0.088
4.100E-06,0.096
4.110E-06,0.092
4.120E-06,0.092
4.130E-06,0.092
4.140E-06,0.084
4.150E-06,0.084
4.160E-06,0.088
4.170E-06,0.092
4.180E-06,0.092
4.190E-06,0.096
4.200E-06,0.088
4.210E-06,0.088
4.220E-06,0.092
4.230E-06,0.092
4.240E-06,0.088
4.250E-06,0.088
4.260E-06,0.088
4.270E-06,0.088
4.280E-06,0.092
4.290E-06,0.084
4.300E-06,0.084
4.310E-06,0.088
4.320E-06,0.084
4.330E-06,0.088
4.340E-06,0.084
4.350E-06,0.092
4.360E-06,0.084
4.370E-06,0.088
4.380E-06,0.088
4.390E-06,0.088
4.400E-06,0.088
4.410E-06,0.088
4.420E-06,0.084
4.430E-06,0.088
4.440E-06,0.080
4.450E-06,0.084
4.460E-06,0.076
4.470E-06,0.076
4.480E-06,0.084
4.490E-06,0.080
4.500E-06,0.084
4.510E-06,0.080
4.520E-06,0.076
4.530E-06,0.080
4.540E-06,0.080
4.550E-06,0.072
4.560E-06,0.076
4.570E-06,0.076
4.580E-06,0.080
4.590E-06,0.076
4.600E-06,0.076
4.610E-06,0.076
4.620E-06,0.072
4.630E-06,0.072
4.640E-06,0.072
4.650E-06,0.068
4.660E-06,0.072
4.670E-06,0.072
4.680E-06,0.072
4.690E-06,0.072
4.700E-06,0.064
4.710E-06,0.072
4.720E-06,0.064
4.730E-06,0.064
4.740E-06,0.064
4.750E-06,0.064
4.760E-06,0.068
4.770E-06,0.068
4.780E-06,0.064
4.790E-06,0.068
4.800E-06,0.060
4.810E-06,0.060
4.820E-06,0.064
4.830E-06,0.064
4.840E-06,0.060
4.850E-06,0.060
4.860E-06,0.064
4.870E-06,0.068
4.880E-06,0.060
4.890E-06,0.060
4.900E-06,0.064
4.910E-06,0.064
4.920E-06,0.060
4.930E-06,0.060
4.940E-06,0.064
4.950E-06,0.056
4.960E-06,0.064
4.970E-06,0.056
4.980E-06,0.060
4.990E-06,0.060
5.000E-06,0.060
5.010E-06,0.060
5.020E-06,0.056
5.030E-06,0.056
5.040E-06,0.060
5.050E-06,0.060
5.060E-06,0.056
5.070E-06,0.056
5.080E-06,0.056
5.090E-06,0.060
5.100E-06,0.056
5.110E-06,0.060
5.120E-06,0.060
5.130E-06,0.056
5.140E-06,0.056
5.150E-06,0.060
5.160E-06,0.060
5.170E-06,0.056
5.180E-06,0.056
5.190E-06,0.056
5.200E-06,0.060
5.210E-06,0.056
5.220E-06,0.060
5.230E-06,0.056
5.240E-06,0.056
5.250E-06,0.060
5.260E-06,0.060
5.270E-06,0.052
5.280E-06,0.052
5.290E-06,0.060
5.300E-06,0.056
5.310E-06,0.056
5.320E-06,0.060
5.330E-06,0.056
5.340E-06,0.052
5.350E-06,0.056
5.360E-06,0.052
5.370E-06,0.056
5.380E-06,0.056
5.390E-06,0.052
5.400E-06,0.048
5.410E-06,0.044
5.420E-06,0.052
5.430E-06,0.056
5.440E-06,0.052
5.450E-06,0.056
5.460E-06,0.056
5.470E-06,0.052
5.480E-06,0.056
5.490E-06,0.044
5.500E-06,0.048
5.510E-06,0.044
5.520E-06,0.052
5.530E-06,0.052
5.540E-06,0.048
5.550E-06,0.056
5.560E-06,0.048
5.570E-06,0.048
5.580E-06,0.044
5.590E-06,0.048
5.600E-06,0.044
5.610E-06,0.044
5.620E-06,0.044
5.630E-06,0.040
5.640E-06,0.044
5.650E-06,0.048
5.660E-06,0.040
5.670E-06,0.044
5.680E-06,0.040
5.690E-06,0.040
5.700E-06,0.040
5.710E-06,0.044
5.720E-06,0.048
5.730E-06,0.044
5.740E-06,0.040
5.750E-06,0.040
5.760E-06,0.032
5.770E-06,0.036
5.780E-06,0.040
5.790E-06,0.036
5.800E-06,0.040
5.810E-06,0.036
5.820E-06,0.040
5.830E-06,0.040
5.840E-06,0.032
5.850E-06,0.036
5.860E-06,0.036
5.870E-06,0.036
5.880E-06,0.040
5.890E-06,0.036
5.900E-06,0.032
5.910E-06,0.028
5.920E-06,0.028
5.930E-06,0.032
5.940E-06,0.036
5.950E-06,0.028
5.960E-06,0.032
5.970E-06,0.040
5.980E-06,0.032
5.990E-06,0.028
6.000E-06,0.032
6.010E-06,0.032
6.020E-06,0.032
6.030E-06,0.032
6.040E-06,0.032
6.050E-06,0.036
6.060E-06,0.032
6.070E-06,0.028
6.080E-06,0.024
6.090E-06,0.028
6.100E-06,0.032
6.110E-06,0.032
6.120E-06,0.032
6.130E-06,0.032
6.140E-06,0.024
6.150E-06,0.028
6.160E-06,0.028
6.170E-06,0.032
6.180E-06,0.024
6.190E-06,0.020
6.200E-06,0.024
6.210E-06,0.020
6.220E-06,0.024
6.230E-06,0.024
6.240E-06,0.028
6.250E-06,0.020
6.260E-06,0.024
6.270E-06,0.020
6.280E-06,0.024
6.290E-06,0.028
6.300E-06,0.024
6.310E-06,0.020
6.320E-06,0.024
6.330E-06,0.024
6.340E-06,0.024
6.350E-06,0.024
6.360E-06,0.024
6.370E-06,0.028
6.380E-06,0.024
6.390E-06,0.028
6.400E-06,0.020
6.410E-06,0.020
6.420E-06,0.024
6.430E-06,0.028
6.440E-06,0.024
6.450E-06,0.016
6.460E-06,0.024
6.470E-06,0.024
6.480E-06,0.020
6.490E-06,0.024
6.500E-06,0.020
6.510E-06,0.020
6.520E-06,0.028
6.530E-06,0.020
6.540E-06,0.028
6.550E-06,0.020
6.560E-06,0.024
6.570E-06,0.028
6.580E-06,0.020
6.590E-06,0.012
6.600E-06,0.012
6.610E-06,0.016
6.620E-06,0.024
6.630E-06,0.028
6.640E-06,0.020
6.650E-06,0.012
6.660E-06,0.008
6.670E-06,0.008
6.680E-06,0.012
6.690E-06,0.020
6.700E-06,0.024
6.710E-06,0.028
6.720E-06,0.016
6.730E-06,0.004
6.740E-06,0.000
6.750E-06,0.008
6.760E-06,0.008
6.770E-06,0.016
6.780E-06,0.024
6.790E-06,0.020
6.800E-06,0.008
6.810E-06,0.012
6.820E-06,0.008
6.830E-06,0.008
6.840E-06,0.012
6.850E-06,0.008
6.860E-06,0.016
6.870E-06,0.016
6.880E-06,0.016
6.890E-06,0.004
6.900E-06,0.008
6.910E-06,0.008
6.920E-06,0.008
6.930E-06,0.008
6.940E-06,0.012
6.950E-06,0.012
6.960E-06,0.008
6.970E-06,0.008
6.980E-06,0.008
6.990E-06,0.008
7.000E-06,0.008
7.010E-06,0.008
7.020E-06,0.008
7.030E-06,0.008
7.040E-06,0.008
7.050E-06,0.008
7.060E-06,0.004
7.070E-06,0.008
7.080E-06,0.004
7.090E-06,0.004
7.100E-06,0.008
7.110E-06,0.004
7.120E-06,0.008
7.130E-06,0.004
7.140E-06,0.004
7.150E-06,0.008
7.160E-06,0.000
7.170E-06,0.004
7.180E-06,0.004
7.190E-06,0.004
7.200E-06,0.004
7.210E-06,0.000
7.220E-06,0.004
7.230E-06,0.004
7.240E-06,0.004
7.250E-06,0.004
7.260E-06,-0.004
7.270E-06,0.000
7.280E-06,0.000
7.290E-06,0.000
7.300E-06,0.000
7.310E-06,-0.004
7.320E-06,-0.004
7.330E-06,0.000
7.340E-06,0.004
7.350E-06,0.004
7.360E-06,-0.004
7.370E-06,0.000
7.380E-06,0.000
7.390E-06,-0.004
7.400E-06,0.000
7.410E-06,0.000
7.420E-06,0.000
7.430E-06,0.000
7.440E-06,0.000
7.450E-06,-0.004
7.460E-06,-0.004
7.470E-06,-0.004
7.480E-06,-0.004
7.490E-06,-0.004
7.500E-06,-0.004
7.510E-06,-0.004
7.520E-06,0.000
7.530E-06,-0.004
7.540E-06,-0.004
7.550E-06,-0.004
7.560E-06,-0.004
7.570E-06,0.000
7.580E-06,0.000
7.590E-06,-0.004
7.600E-06,0.000
7.610E-06,-0.004
7.620E-06,-0.004
7.630E-06,-0.004
7.640E-06,-0.008
7.650E-06,-0.004
7.660E-06,-0.008
7.670E-06,-0.008
7.680E-06,0.000
7.690E-06,0.000
7.700E-06,-0.004
7.710E-06,-0.004
7.720E-06,-0.004
7.730E-06,-0.004
7.740E-06,-0.008
7.750E-06,-0.004
7.760E-06,0.000
7.770E-06,-0.008
7.780E-06,-0.004
7.790E-06,-0.004
7.800E-06,-0.004
7.810E-06,-0.004
7.820E-06,-0.008
7.830E-06,-0.008
7.840E-06,-0.008
7.850E-06,-0.012
7.860E-06,-0.004
7.870E-06,-0.004
7.880E-06,-0.008
7.890E-06,-0.004
7.900E-06,-0.008
7.910E-06,-0.004
7.920E-06,-0.008
7.930E-06,-0.008
7.940E-06,-0.008
7.950E-06,-0.008
7.960E-06,-0.008
7.970E-06,-0.008
7.980E-06,-0.008
7.990E-06,-0.008
8.000E-06,-0.004
8.010E-06,-0.008
8.020E-06,-0.012
8.030E-06,-0.008
8.040E-06,-0.008
8.050E-06,-0.008
8.060E-06,-0.008
8.070E-06,-0.008
8.080E-06,-0.016
8.090E-06,-0.008
8.100E-06,-0.012
8.110E-06,-0.012
8.120E-06,-0.012
8.130E-06,-0.016
8.140E-06,-0.008
8.150E-06,-0.008
8.160E-06,-0.012
8.170E-06,-0.008
8.180E-06,-0.012
8.190E-06,-0.016
8.200E-06,-0.012
8.210E-06,-0.012
8.220E-06,-0.008
8.230E-06,-0.016
8.240E-06,-0.012
8.250E-06,-0.020
