mediciones/5-27/-27.5/WaveData5177.csv

#timebase=2000000(ps)
,#voltbase=1000000(mv/100)
#size=4000
-3.800E-06,-0.160
-3.790E-06,-0.320
-3.780E-06,-0.160
-3.770E-06,-0.360
-3.760E-06,-0.360
-3.750E-06,-0.520
-3.740E-06,-0.560
-3.730E-06,-0.640
-3.720E-06,-0.640
-3.710E-06,-0.600
-3.700E-06,-0.520
-3.690E-06,-0.480
-3.680E-06,-0.520
-3.670E-06,-0.480
-3.660E-06,-0.400
-3.650E-06,-0.360
-3.640E-06,-0.320
-3.630E-06,-0.240
-3.620E-06,-0.320
-3.610E-06,-0.360
-3.600E-06,-0.240
-3.590E-06,-0.320
-3.580E-06,-0.040
-3.570E-06,-0.040
-3.560E-06,0.280
-3.550E-06,0.280
-3.540E-06,0.320
-3.530E-06,0.520
-3.520E-06,0.560
-3.510E-06,0.600
-3.500E-06,0.560
-3.490E-06,0.680
-3.480E-06,0.560
-3.470E-06,0.880
-3.460E-06,0.920
-3.450E-06,1.000
-3.440E-06,0.840
-3.430E-06,0.560
-3.420E-06,0.160
-3.410E-06,0.680
-3.400E-06,0.440
-3.390E-06,0.760
-3.380E-06,0.640
-3.370E-06,0.360
-3.360E-06,0.520
-3.350E-06,0.600
-3.340E-06,0.720
-3.330E-06,0.840
-3.320E-06,0.560
-3.310E-06,0.200
-3.300E-06,0.080
-3.290E-06,-0.040
-3.280E-06,0.200
-3.270E-06,0.120
-3.260E-06,0.040
-3.250E-06,-0.320
-3.240E-06,-0.600
-3.230E-06,-0.720
-3.220E-06,-0.480
-3.210E-06,-0.280
-3.200E-06,-0.120
-3.190E-06,-0.120
-3.180E-06,-0.320
-3.170E-06,-0.480
-3.160E-06,-0.520
-3.150E-06,-0.280
-3.140E-06,0.000
-3.130E-06,0.160
-3.120E-06,0.080
-3.110E-06,-0.040
-3.100E-06,-0.280
-3.090E-06,-0.200
-3.080E-06,-0.120
-3.070E-06,0.080
-3.060E-06,0.160
-3.050E-06,0.160
-3.040E-06,0.080
-3.030E-06,-0.080
-3.020E-06,-0.160
-3.010E-06,-0.080
-3.000E-06,-0.040
-2.990E-06,0.040
-2.980E-06,0.160
-2.970E-06,0.080
-2.960E-06,-0.040
-2.950E-06,-0.040
-2.940E-06,-0.040
-2.930E-06,-0.080
-2.920E-06,-0.040
-2.910E-06,-0.080
-2.900E-06,-0.120
-2.890E-06,-0.080
-2.880E-06,-0.040
-2.870E-06,-0.200
-2.860E-06,0.160
-2.850E-06,-0.520
-2.840E-06,-0.120
-2.830E-06,-0.360
-2.820E-06,-0.120
-2.810E-06,0.720
-2.800E-06,0.840
-2.790E-06,1.080
-2.780E-06,0.680
-2.770E-06,0.080
-2.760E-06,-0.040
-2.750E-06,0.040
-2.740E-06,0.640
-2.730E-06,0.960
-2.720E-06,0.800
-2.710E-06,0.600
-2.700E-06,0.120
-2.690E-06,-0.120
-2.680E-06,-0.080
-2.670E-06,0.040
-2.660E-06,0.320
-2.650E-06,0.440
-2.640E-06,0.280
-2.630E-06,0.000
-2.620E-06,-0.120
-2.610E-06,-0.160
-2.600E-06,-0.040
-2.590E-06,0.040
-2.580E-06,-0.040
-2.570E-06,-0.040
-2.560E-06,-0.280
-2.550E-06,-0.360
-2.540E-06,-0.360
-2.530E-06,-0.360
-2.520E-06,-0.280
-2.510E-06,-0.200
-2.500E-06,-0.200
-2.490E-06,-0.240
-2.480E-06,-0.240
-2.470E-06,-0.240
-2.460E-06,-0.240
-2.450E-06,-0.240
-2.440E-06,-0.200
-2.430E-06,-0.160
-2.420E-06,-0.160
-2.410E-06,-0.080
-2.400E-06,-0.120
-2.390E-06,-0.200
-2.380E-06,-0.240
-2.370E-06,-0.200
-2.360E-06,-0.120
-2.350E-06,-0.040
-2.340E-06,0.000
-2.330E-06,0.040
-2.320E-06,0.080
-2.310E-06,0.120
-2.300E-06,-0.040
-2.290E-06,0.000
-2.280E-06,0.080
-2.270E-06,0.040
-2.260E-06,0.080
-2.250E-06,0.200
-2.240E-06,0.160
-2.230E-06,0.080
-2.220E-06,0.080
-2.210E-06,0.040
-2.200E-06,0.240
-2.190E-06,0.400
-2.180E-06,0.440
-2.170E-06,0.400
-2.160E-06,0.280
-2.150E-06,-0.040
-2.140E-06,0.120
-2.130E-06,0.360
-2.120E-06,0.400
-2.110E-06,0.680
-2.100E-06,0.640
-2.090E-06,0.640
-2.080E-06,0.600
-2.070E-06,0.400
-2.060E-06,0.680
-2.050E-06,0.440
-2.040E-06,0.440
-2.030E-06,0.440
-2.020E-06,0.320
-2.010E-06,0.360
-2.000E-06,0.280
-1.990E-06,0.240
-1.980E-06,0.120
-1.970E-06,0.040
-1.960E-06,0.040
-1.950E-06,0.000
-1.940E-06,0.000
-1.930E-06,-0.160
-1.920E-06,-0.200
-1.910E-06,-0.320
-1.900E-06,-0.360
-1.890E-06,-0.400
-1.880E-06,-0.360
-1.870E-06,-0.360
-1.860E-06,-0.360
-1.850E-06,-0.440
-1.840E-06,-0.440
-1.830E-06,-0.440
-1.820E-06,-0.480
-1.810E-06,-0.400
-1.800E-06,-0.400
-1.790E-06,-0.360
-1.780E-06,-0.280
-1.770E-06,-0.240
-1.760E-06,-0.160
-1.750E-06,-0.240
-1.740E-06,-0.360
-1.730E-06,-0.280
-1.720E-06,-0.240
-1.710E-06,-0.200
-1.700E-06,-0.160
-1.690E-06,-0.080
-1.680E-06,-0.040
-1.670E-06,0.000
-1.660E-06,0.000
-1.650E-06,0.000
-1.640E-06,0.000
-1.630E-06,0.120
-1.620E-06,0.080
-1.610E-06,0.120
-1.600E-06,0.120
-1.590E-06,0.000
-1.580E-06,0.000
-1.570E-06,0.080
-1.560E-06,0.200
-1.550E-06,0.320
-1.540E-06,0.320
-1.530E-06,0.360
-1.520E-06,0.240
-1.510E-06,0.160
-1.500E-06,0.320
-1.490E-06,0.400
-1.480E-06,0.520
-1.470E-06,0.600
-1.460E-06,0.480
-1.450E-06,0.440
-1.440E-06,0.320
-1.430E-06,0.360
-1.420E-06,0.480
-1.410E-06,0.520
-1.400E-06,0.640
-1.390E-06,0.640
-1.380E-06,0.480
-1.370E-06,0.440
-1.360E-06,0.360
-1.350E-06,0.360
-1.340E-06,0.400
-1.330E-06,0.400
-1.320E-06,0.360
-1.310E-06,0.360
-1.300E-06,0.200
-1.290E-06,0.080
-1.280E-06,0.000
-1.270E-06,-0.080
-1.260E-06,-0.160
-1.250E-06,-0.320
-1.240E-06,-0.480
-1.230E-06,-0.520
-1.220E-06,-0.360
-1.210E-06,-0.160
-1.200E-06,-0.160
-1.190E-06,-0.360
-1.180E-06,-0.560
-1.170E-06,-0.880
-1.160E-06,-0.840
-1.150E-06,-0.640
-1.140E-06,-0.360
-1.130E-06,0.080
-1.120E-06,-0.080
-1.110E-06,-0.040
-1.100E-06,-0.240
-1.090E-06,-0.360
-1.080E-06,-0.080
-1.070E-06,0.160
-1.060E-06,0.520
-1.050E-06,0.600
-1.040E-06,0.560
-1.030E-06,0.400
-1.020E-06,0.280
-1.010E-06,0.280
-1.000E-06,0.480
-9.900E-07,0.680
-9.800E-07,0.800
-9.700E-07,0.720
-9.600E-07,0.600
-9.500E-07,0.480
-9.400E-07,0.360
-9.300E-07,0.320
-9.200E-07,0.400
-9.100E-07,0.400
-9.000E-07,0.360
-8.900E-07,0.240
-8.800E-07,0.120
-8.700E-07,-0.040
-8.600E-07,-0.040
-8.500E-07,-0.040
-8.400E-07,-0.080
-8.300E-07,-0.160
-8.200E-07,-0.160
-8.100E-07,-0.200
-8.000E-07,-0.280
-7.900E-07,-0.320
-7.800E-07,-0.280
-7.700E-07,-0.200
-7.600E-07,-0.240
-7.500E-07,-0.200
-7.400E-07,-0.160
-7.300E-07,-0.160
-7.200E-07,-0.160
-7.100E-07,-0.200
-7.000E-07,-0.280
-6.900E-07,-0.440
-6.800E-07,-0.360
-6.700E-07,-0.520
-6.600E-07,-0.440
-6.500E-07,-0.400
-6.400E-07,-0.080
-6.300E-07,0.040
-6.200E-07,0.160
-6.100E-07,0.120
-6.000E-07,0.040
-5.900E-07,0.000
-5.800E-07,0.200
-5.700E-07,0.400
-5.600E-07,0.560
-5.500E-07,0.680
-5.400E-07,0.720
-5.300E-07,0.680
-5.200E-07,0.800
-5.100E-07,0.680
-5.000E-07,0.920
-4.900E-07,0.640
-4.800E-07,0.520
-4.700E-07,0.320
-4.600E-07,0.000
-4.500E-07,-0.200
-4.400E-07,0.160
-4.300E-07,0.480
-4.200E-07,0.720
-4.100E-07,0.800
-4.000E-07,0.560
-3.900E-07,0.240
-3.800E-07,0.240
-3.700E-07,0.600
-3.600E-07,0.960
-3.500E-07,1.200
-3.400E-07,1.000
-3.300E-07,0.760
-3.200E-07,0.480
-3.100E-07,0.400
-3.000E-07,0.440
-2.900E-07,0.400
-2.800E-07,0.560
-2.700E-07,0.720
-2.600E-07,0.880
-2.500E-07,1.000
-2.400E-07,0.840
-2.300E-07,0.520
-2.200E-07,0.160
-2.100E-07,0.160
-2.000E-07,0.240
-1.900E-07,0.400
-1.800E-07,0.440
-1.700E-07,0.360
-1.600E-07,0.200
-1.500E-07,0.000
-1.400E-07,0.200
-1.300E-07,0.280
-1.200E-07,0.560
-1.100E-07,0.600
-1.000E-07,0.680
-9.000E-08,0.600
-8.000E-08,0.120
-7.000E-08,0.360
-6.000E-08,-0.160
-5.000E-08,0.400
-4.000E-08,0.400
-3.000E-08,0.360
-2.000E-08,0.080
-1.000E-08,-0.440
0.000E+00,-0.400
1.000E-08,-0.200
2.000E-08,1.000
3.000E-08,1.160
4.000E-08,0.560
5.000E-08,0.000
6.000E-08,-1.120
7.000E-08,-0.080
8.000E-08,0.440
9.000E-08,0.760
1.000E-07,1.600
1.100E-07,0.440
1.200E-07,0.160
1.300E-07,0.640
1.400E-07,1.360
1.500E-07,2.400
1.600E-07,2.120
1.700E-07,1.360
1.800E-07,0.760
1.900E-07,0.360
2.000E-07,0.920
2.100E-07,1.360
2.200E-07,1.400
2.300E-07,1.120
2.400E-07,0.600
2.500E-07,0.000
2.600E-07,0.000
2.700E-07,-0.080
2.800E-07,0.040
2.900E-07,0.080
3.000E-07,-0.320
3.100E-07,-0.600
3.200E-07,-0.760
3.300E-07,-0.960
3.400E-07,-0.960
3.500E-07,-1.040
3.600E-07,-1.120
3.700E-07,-1.040
3.800E-07,-1.120
3.900E-07,-1.120
4.000E-07,-1.040
4.100E-07,-0.960
4.200E-07,-0.880
4.300E-07,-0.640
4.400E-07,-0.640
4.500E-07,-0.560
4.600E-07,-0.600
4.700E-07,-0.680
4.800E-07,-0.680
4.900E-07,-0.800
5.000E-07,-0.800
5.100E-07,-0.800
5.200E-07,-0.760
5.300E-07,-0.560
5.400E-07,-0.560
5.500E-07,-0.280
5.600E-07,-0.360
5.700E-07,0.080
5.800E-07,-0.440
5.900E-07,-0.640
6.000E-07,-0.240
6.100E-07,-0.320
6.200E-07,0.720
6.300E-07,1.480
6.400E-07,1.800
6.500E-07,1.680
6.600E-07,0.920
6.700E-07,0.480
6.800E-07,0.680
6.900E-07,1.280
7.000E-07,1.880
7.100E-07,1.880
7.200E-07,1.600
7.300E-07,0.960
7.400E-07,0.680
7.500E-07,0.680
7.600E-07,1.040
7.700E-07,1.400
7.800E-07,1.320
7.900E-07,1.000
8.000E-07,0.440
8.100E-07,0.080
8.200E-07,0.080
8.300E-07,0.000
8.400E-07,0.000
8.500E-07,-0.200
8.600E-07,-0.400
8.700E-07,-0.760
8.800E-07,-0.680
8.900E-07,-0.960
9.000E-07,-0.840
9.100E-07,-0.480
9.200E-07,-0.240
9.300E-07,0.080
9.400E-07,0.360
9.500E-07,0.400
9.600E-07,0.240
9.700E-07,0.040
9.800E-07,0.000
9.900E-07,0.240
1.000E-06,0.520
1.010E-06,0.680
1.020E-06,0.600
1.030E-06,0.400
1.040E-06,0.200
1.050E-06,0.080
1.060E-06,-0.080
1.070E-06,0.000
1.080E-06,-0.040
1.090E-06,-0.360
1.100E-06,-0.440
1.110E-06,-0.840
1.120E-06,-1.000
1.130E-06,-1.000
1.140E-06,-1.080
1.150E-06,-0.760
1.160E-06,-0.680
1.170E-06,-0.680
1.180E-06,-0.640
1.190E-06,-0.960
1.200E-06,-1.040
1.210E-06,-1.080
1.220E-06,-0.880
1.230E-06,-0.360
1.240E-06,0.000
1.250E-06,0.240
1.260E-06,0.200
1.270E-06,0.040
1.280E-06,0.080
1.290E-06,0.160
1.300E-06,0.680
1.310E-06,1.040
1.320E-06,1.280
1.330E-06,1.200
1.340E-06,0.960
1.350E-06,0.880
1.360E-06,0.640
1.370E-06,0.680
1.380E-06,0.760
1.390E-06,0.720
1.400E-06,0.680
1.410E-06,0.400
1.420E-06,-0.040
1.430E-06,0.040
1.440E-06,0.000
1.450E-06,0.160
1.460E-06,0.240
1.470E-06,0.160
1.480E-06,0.080
1.490E-06,-0.160
1.500E-06,-0.200
1.510E-06,-0.160
1.520E-06,-0.040
1.530E-06,0.080
1.540E-06,0.160
1.550E-06,0.080
1.560E-06,0.000
1.570E-06,0.080
1.580E-06,-0.040
1.590E-06,0.000
1.600E-06,0.080
1.610E-06,0.120
1.620E-06,0.240
1.630E-06,0.160
1.640E-06,0.240
1.650E-06,0.160
1.660E-06,0.000
1.670E-06,-0.120
1.680E-06,-0.240
1.690E-06,-0.160
1.700E-06,-0.320
1.710E-06,-0.240
1.720E-06,-0.240
1.730E-06,-0.240
1.740E-06,0.000
1.750E-06,-0.080
1.760E-06,0.080
1.770E-06,-0.040
1.780E-06,-0.080
1.790E-06,0.000
1.800E-06,0.120
1.810E-06,0.160
1.820E-06,0.320
1.830E-06,0.200
1.840E-06,0.240
1.850E-06,0.200
1.860E-06,0.320
1.870E-06,0.480
1.880E-06,0.400
1.890E-06,0.320
1.900E-06,0.000
1.910E-06,0.000
1.920E-06,-0.080
1.930E-06,-0.080
1.940E-06,0.160
1.950E-06,-0.160
1.960E-06,-0.160
1.970E-06,-0.240
1.980E-06,-0.120
1.990E-06,0.040
2.000E-06,0.480
2.010E-06,0.560
2.020E-06,0.760
2.030E-06,0.480
2.040E-06,0.440
2.050E-06,0.560
2.060E-06,0.680
2.070E-06,1.240
2.080E-06,1.400
2.090E-06,1.480
2.100E-06,1.280
2.110E-06,1.160
2.120E-06,1.000
2.130E-06,1.280
2.140E-06,1.600
2.150E-06,1.440
2.160E-06,1.480
2.170E-06,0.800
2.180E-06,0.280
2.190E-06,0.800
2.200E-06,1.360
2.210E-06,1.080
2.220E-06,0.760
2.230E-06,1.640
2.240E-06,1.120
2.250E-06,1.800
2.260E-06,2.000
2.270E-06,2.040
2.280E-06,1.680
2.290E-06,0.920
2.300E-06,0.720
2.310E-06,0.560
2.320E-06,0.680
2.330E-06,0.960
2.340E-06,0.880
2.350E-06,0.960
2.360E-06,0.760
2.370E-06,0.720
2.380E-06,0.480
2.390E-06,0.560
2.400E-06,0.480
2.410E-06,0.520
2.420E-06,0.440
2.430E-06,0.120
2.440E-06,0.120
2.450E-06,-0.240
2.460E-06,-0.400
2.470E-06,-0.560
2.480E-06,-0.760
2.490E-06,-0.800
2.500E-06,-0.960
2.510E-06,-0.960
2.520E-06,-1.000
2.530E-06,-1.040
2.540E-06,-0.960
2.550E-06,-0.840
2.560E-06,-0.840
2.570E-06,-0.760
2.580E-06,-0.800
2.590E-06,-0.720
2.600E-06,-0.600
2.610E-06,-0.480
2.620E-06,-0.440
2.630E-06,-0.360
2.640E-06,-0.320
2.650E-06,-0.440
2.660E-06,-0.320
2.670E-06,-0.440
2.680E-06,-0.360
2.690E-06,-0.240
2.700E-06,-0.040
2.710E-06,0.040
2.720E-06,0.440
2.730E-06,0.600
2.740E-06,0.640
2.750E-06,0.600
2.760E-06,0.400
2.770E-06,0.200
2.780E-06,0.120
2.790E-06,0.280
2.800E-06,0.360
2.810E-06,0.480
2.820E-06,0.400
2.830E-06,0.520
2.840E-06,0.720
2.850E-06,0.920
2.860E-06,1.240
2.870E-06,1.440
2.880E-06,1.440
2.890E-06,1.520
2.900E-06,1.520
2.910E-06,1.840
2.920E-06,1.760
2.930E-06,1.880
2.940E-06,1.880
2.950E-06,1.600
2.960E-06,1.560
2.970E-06,1.320
2.980E-06,1.280
2.990E-06,1.040
3.000E-06,1.040
3.010E-06,0.680
3.020E-06,0.640
3.030E-06,0.520
3.040E-06,0.360
3.050E-06,0.080
3.060E-06,-0.120
3.070E-06,-0.280
3.080E-06,-0.320
3.090E-06,-0.120
3.100E-06,0.080
3.110E-06,0.080
3.120E-06,0.160
3.130E-06,0.080
3.140E-06,0.080
3.150E-06,0.320
3.160E-06,0.480
3.170E-06,0.520
3.180E-06,0.480
3.190E-06,0.400
3.200E-06,0.200
3.210E-06,0.080
3.220E-06,-0.120
3.230E-06,-0.320
3.240E-06,-0.440
3.250E-06,-0.360
3.260E-06,-0.080
3.270E-06,0.200
3.280E-06,0.720
3.290E-06,1.200
3.300E-06,1.600
3.310E-06,1.560
3.320E-06,1.600
3.330E-06,1.280
3.340E-06,1.200
3.350E-06,1.400
3.360E-06,1.720
3.370E-06,2.000
3.380E-06,2.280
3.390E-06,1.920
3.400E-06,1.520
3.410E-06,1.120
3.420E-06,0.640
3.430E-06,0.400
3.440E-06,0.400
3.450E-06,0.200
3.460E-06,0.000
3.470E-06,0.360
3.480E-06,0.480
3.490E-06,1.320
3.500E-06,1.080
3.510E-06,0.640
3.520E-06,-0.080
3.530E-06,-1.200
3.540E-06,-1.200
3.550E-06,-0.640
3.560E-06,0.480
3.570E-06,1.280
3.580E-06,1.560
3.590E-06,1.080
3.600E-06,0.600
3.610E-06,0.520
3.620E-06,1.000
3.630E-06,1.840
3.640E-06,2.640
3.650E-06,2.960
3.660E-06,2.760
3.670E-06,2.280
3.680E-06,1.800
3.690E-06,1.560
3.700E-06,1.520
3.710E-06,1.720
3.720E-06,1.680
3.730E-06,1.520
3.740E-06,1.440
3.750E-06,0.920
3.760E-06,0.600
3.770E-06,0.200
3.780E-06,-0.240
3.790E-06,-0.120
3.800E-06,-0.160
3.810E-06,-0.080
3.820E-06,-0.200
3.830E-06,-0.400
3.840E-06,-0.520
3.850E-06,-0.600
3.860E-06,-0.560
3.870E-06,-0.200
3.880E-06,-0.120
3.890E-06,0.280
3.900E-06,0.440
3.910E-06,0.600
3.920E-06,0.600
3.930E-06,0.520
3.940E-06,0.560
3.950E-06,0.560
3.960E-06,0.560
3.970E-06,0.680
3.980E-06,0.640
3.990E-06,0.640
4.000E-06,0.480
4.010E-06,0.280
4.020E-06,0.160
4.030E-06,0.040
4.040E-06,0.040
4.050E-06,0.040
4.060E-06,-0.040
4.070E-06,-0.040
4.080E-06,-0.120
4.090E-06,-0.200
4.100E-06,-0.440
4.110E-06,-0.520
4.120E-06,-0.640
4.130E-06,-0.520
4.140E-06,-0.440
4.150E-06,-0.360
4.160E-06,-0.360
4.170E-06,-0.520
4.180E-06,-0.520
4.190E-06,-0.560
4.200E-06,-0.440
4.210E-06,-0.360
4.220E-06,-0.280
4.230E-06,-0.320
4.240E-06,-0.480
4.250E-06,-0.680
4.260E-06,-0.920
4.270E-06,-0.960
4.280E-06,-1.160
4.290E-06,-1.040
4.300E-06,-1.000
4.310E-06,-1.000
4.320E-06,-0.640
4.330E-06,-0.160
4.340E-06,0.120
4.350E-06,0.080
4.360E-06,0.000
4.370E-06,-0.280
4.380E-06,0.080
4.390E-06,0.160
4.400E-06,1.480
4.410E-06,1.800
4.420E-06,2.200
4.430E-06,1.560
4.440E-06,0.920
4.450E-06,0.160
4.460E-06,-0.480
4.470E-06,-0.480
4.480E-06,-0.480
4.490E-06,-0.280
4.500E-06,0.000
4.510E-06,0.120
4.520E-06,0.520
4.530E-06,0.800
4.540E-06,1.040
4.550E-06,1.520
4.560E-06,1.880
4.570E-06,2.120
4.580E-06,2.320
4.590E-06,2.360
4.600E-06,2.320
4.610E-06,2.200
4.620E-06,1.920
4.630E-06,1.800
4.640E-06,1.600
4.650E-06,1.560
4.660E-06,1.320
4.670E-06,1.120
4.680E-06,0.760
4.690E-06,0.360
4.700E-06,0.040
4.710E-06,-0.240
4.720E-06,-0.480
4.730E-06,-0.680
4.740E-06,-0.800
4.750E-06,-0.920
4.760E-06,-1.040
4.770E-06,-1.120
4.780E-06,-1.160
4.790E-06,-1.320
4.800E-06,-1.480
4.810E-06,-1.560
4.820E-06,-1.600
4.830E-06,-1.640
4.840E-06,-1.560
4.850E-06,-1.560
4.860E-06,-1.520
4.870E-06,-1.560
4.880E-06,-1.560
4.890E-06,-1.720
4.900E-06,-1.720
4.910E-06,-1.720
4.920E-06,-1.640
4.930E-06,-1.680
4.940E-06,-1.640
4.950E-06,-1.600
4.960E-06,-1.680
4.970E-06,-1.640
4.980E-06,-1.680
4.990E-06,-1.680
5.000E-06,-1.640
5.010E-06,-1.480
5.020E-06,-1.400
5.030E-06,-1.440
5.040E-06,-1.360
5.050E-06,-1.320
5.060E-06,-1.320
5.070E-06,-1.240
5.080E-06,-1.120
5.090E-06,-1.000
5.100E-06,-0.920
5.110E-06,-0.840
5.120E-06,-0.800
5.130E-06,-0.720
5.140E-06,-0.720
5.150E-06,-0.640
5.160E-06,-0.680
5.170E-06,-0.680
5.180E-06,-0.680
5.190E-06,-0.640
5.200E-06,-0.720
5.210E-06,-0.800
5.220E-06,-0.840
5.230E-06,-0.920
5.240E-06,-1.080
5.250E-06,-1.200
5.260E-06,-1.280
5.270E-06,-1.360
5.280E-06,-1.440
5.290E-06,-1.520
5.300E-06,-1.640
5.310E-06,-1.680
5.320E-06,-1.840
5.330E-06,-1.960
5.340E-06,-2.040
5.350E-06,-2.040
5.360E-06,-2.080
5.370E-06,-2.120
5.380E-06,-2.120
5.390E-06,-2.200
5.400E-06,-2.200
5.410E-06,-2.160
5.420E-06,-2.200
5.430E-06,-2.200
5.440E-06,-2.160
5.450E-06,-2.120
5.460E-06,-2.160
5.470E-06,-2.200
5.480E-06,-2.160
5.490E-06,-2.200
5.500E-06,-2.320
5.510E-06,-2.320
5.520E-06,-2.480
5.530E-06,-2.560
5.540E-06,-2.680
5.550E-06,-2.840
5.560E-06,-3.000
5.570E-06,-3.160
5.580E-06,-3.320
5.590E-06,-3.480
5.600E-06,-3.720
5.610E-06,-3.880
5.620E-06,-3.960
5.630E-06,-4.120
5.640E-06,-4.320
5.650E-06,-4.400
5.660E-06,-4.480
5.670E-06,-4.560
5.680E-06,-4.720
5.690E-06,-4.720
5.700E-06,-4.800
5.710E-06,-4.840
5.720E-06,-4.840
5.730E-06,-4.840
5.740E-06,-4.880
5.750E-06,-4.800
5.760E-06,-4.840
5.770E-06,-4.800
5.780E-06,-4.760
5.790E-06,-4.720
5.800E-06,-4.640
5.810E-06,-4.680
5.820E-06,-4.600
5.830E-06,-4.520
5.840E-06,-4.440
5.850E-06,-4.440
5.860E-06,-4.360
5.870E-06,-4.360
5.880E-06,-4.240
5.890E-06,-4.200
5.900E-06,-4.160
5.910E-06,-4.120
5.920E-06,-4.080
5.930E-06,-4.000
5.940E-06,-4.000
5.950E-06,-3.960
5.960E-06,-3.960
5.970E-06,-3.840
5.980E-06,-3.840
5.990E-06,-3.760
6.000E-06,-3.720
6.010E-06,-3.640
6.020E-06,-3.560
6.030E-06,-3.520
6.040E-06,-3.440
6.050E-06,-3.440
6.060E-06,-3.440
6.070E-06,-3.400
6.080E-06,-3.400
6.090E-06,-3.440
6.100E-06,-3.400
6.110E-06,-3.400
6.120E-06,-3.400
6.130E-06,-3.360
6.140E-06,-3.280
6.150E-06,-3.240
6.160E-06,-3.200
6.170E-06,-3.080
6.180E-06,-3.000
6.190E-06,-3.000
6.200E-06,-3.040
6.210E-06,-3.000
6.220E-06,-2.920
6.230E-06,-2.960
6.240E-06,-2.840
6.250E-06,-2.720
6.260E-06,-2.640
6.270E-06,-2.560
6.280E-06,-2.440
6.290E-06,-2.320
6.300E-06,-2.200
6.310E-06,-2.000
6.320E-06,-1.920
6.330E-06,-1.840
6.340E-06,-1.760
6.350E-06,-1.680
6.360E-06,-1.600
6.370E-06,-1.520
6.380E-06,-1.560
6.390E-06,-1.520
6.400E-06,-1.600
6.410E-06,-1.640
6.420E-06,-1.720
6.430E-06,-1.760
6.440E-06,-1.880
6.450E-06,-2.000
6.460E-06,-2.040
6.470E-06,-2.160
6.480E-06,-2.240
6.490E-06,-2.280
6.500E-06,-2.320
6.510E-06,-2.440
6.520E-06,-2.520
6.530E-06,-2.560
6.540E-06,-2.680
6.550E-06,-2.680
6.560E-06,-2.720
6.570E-06,-2.680
6.580E-06,-2.680
6.590E-06,-2.600
6.600E-06,-2.520
6.610E-06,-2.440
6.620E-06,-2.320
6.630E-06,-2.160
6.640E-06,-2.040
6.650E-06,-1.840
6.660E-06,-1.720
6.670E-06,-1.600
6.680E-06,-1.520
6.690E-06,-1.440
6.700E-06,-1.360
6.710E-06,-1.320
6.720E-06,-1.280
6.730E-06,-1.280
6.740E-06,-1.240
6.750E-06,-1.200
6.760E-06,-1.160
6.770E-06,-1.280
6.780E-06,-1.320
6.790E-06,-1.360
6.800E-06,-1.320
6.810E-06,-1.280
6.820E-06,-1.280
6.830E-06,-1.240
6.840E-06,-1.160
6.850E-06,-1.120
6.860E-06,-1.040
6.870E-06,-1.000
6.880E-06,-0.880
6.890E-06,-0.800
6.900E-06,-0.720
6.910E-06,-0.680
6.920E-06,-0.680
6.930E-06,-0.640
6.940E-06,-0.640
6.950E-06,-0.600
6.960E-06,-0.520
6.970E-06,-0.520
6.980E-06,-0.520
6.990E-06,-0.520
7.000E-06,-0.560
7.010E-06,-0.480
7.020E-06,-0.440
7.030E-06,-0.480
7.040E-06,-0.480
7.050E-06,-0.520
7.060E-06,-0.680
7.070E-06,-0.640
7.080E-06,-0.720
7.090E-06,-0.800
7.100E-06,-0.840
7.110E-06,-0.880
7.120E-06,-1.000
7.130E-06,-1.080
7.140E-06,-1.120
7.150E-06,-1.200
7.160E-06,-1.240
7.170E-06,-1.240
7.180E-06,-1.280
7.190E-06,-1.280
7.200E-06,-1.240
7.210E-06,-1.240
7.220E-06,-1.160
7.230E-06,-1.200
7.240E-06,-1.160
7.250E-06,-1.160
7.260E-06,-1.080
7.270E-06,-1.080
7.280E-06,-1.040
7.290E-06,-0.960
7.300E-06,-0.840
7.310E-06,-0.800
7.320E-06,-0.640
7.330E-06,-0.600
7.340E-06,-0.480
7.350E-06,-0.520
7.360E-06,-0.480
7.370E-06,-0.400
7.380E-06,-0.360
7.390E-06,-0.400
7.400E-06,-0.400
7.410E-06,-0.360
7.420E-06,-0.360
7.430E-06,-0.360
7.440E-06,-0.360
7.450E-06,-0.360
7.460E-06,-0.320
7.470E-06,-0.400
7.480E-06,-0.400
7.490E-06,-0.520
7.500E-06,-0.520
7.510E-06,-0.640
7.520E-06,-0.680
7.530E-06,-0.880
7.540E-06,-0.960
7.550E-06,-1.120
7.560E-06,-1.320
7.570E-06,-1.400
7.580E-06,-1.560
7.590E-06,-1.760
7.600E-06,-1.840
7.610E-06,-1.920
7.620E-06,-2.000
7.630E-06,-2.040
7.640E-06,-1.920
7.650E-06,-1.840
7.660E-06,-1.680
7.670E-06,-1.600
7.680E-06,-1.520
7.690E-06,-1.400
7.700E-06,-1.320
7.710E-06,-1.320
7.720E-06,-1.200
7.730E-06,-1.120
7.740E-06,-1.040
7.750E-06,-1.000
7.760E-06,-1.000
7.770E-06,-0.960
7.780E-06,-1.000
7.790E-06,-1.120
7.800E-06,-1.120
7.810E-06,-1.120
7.820E-06,-1.200
7.830E-06,-1.280
7.840E-06,-1.320
7.850E-06,-1.280
7.860E-06,-1.320
7.870E-06,-1.280
7.880E-06,-1.120
7.890E-06,-1.120
7.900E-06,-1.120
7.910E-06,-1.000
7.920E-06,-1.000
7.930E-06,-0.840
7.940E-06,-0.760
7.950E-06,-0.680
7.960E-06,-0.520
7.970E-06,-0.320
7.980E-06,-0.200
7.990E-06,0.000
8.000E-06,0.160
