mediciones/Mediciones filtradas (saque las feas)/6-10/47.4/WaveData55167.csv

#timebase=2000000(ps)
,#voltbase=500000(mv/100)
#size=4000
-4.250E-06,0.080
-4.240E-06,0.100
-4.230E-06,0.120
-4.220E-06,0.140
-4.210E-06,0.140
-4.200E-06,0.100
-4.190E-06,0.020
-4.180E-06,0.020
-4.170E-06,0.000
-4.160E-06,0.040
-4.150E-06,0.060
-4.140E-06,0.080
-4.130E-06,0.060
-4.120E-06,0.040
-4.110E-06,0.060
-4.100E-06,0.080
-4.090E-06,0.100
-4.080E-06,0.120
-4.070E-06,0.140
-4.060E-06,0.160
-4.050E-06,0.200
-4.040E-06,0.180
-4.030E-06,0.160
-4.020E-06,0.140
-4.010E-06,0.100
-4.000E-06,0.100
-3.990E-06,0.080
-3.980E-06,0.020
-3.970E-06,0.000
-3.960E-06,0.000
-3.950E-06,-0.020
-3.940E-06,-0.020
-3.930E-06,0.000
-3.920E-06,0.000
-3.910E-06,-0.020
-3.900E-06,0.020
-3.890E-06,0.020
-3.880E-06,0.080
-3.870E-06,0.120
-3.860E-06,0.200
-3.850E-06,0.260
-3.840E-06,0.240
-3.830E-06,0.300
-3.820E-06,0.280
-3.810E-06,0.260
-3.800E-06,0.240
-3.790E-06,0.220
-3.780E-06,0.260
-3.770E-06,0.260
-3.760E-06,0.220
-3.750E-06,0.200
-3.740E-06,0.140
-3.730E-06,0.140
-3.720E-06,0.120
-3.710E-06,0.080
-3.700E-06,0.100
-3.690E-06,0.080
-3.680E-06,0.060
-3.670E-06,0.060
-3.660E-06,-0.020
-3.650E-06,-0.020
-3.640E-06,0.020
-3.630E-06,0.020
-3.620E-06,0.060
-3.610E-06,0.040
-3.600E-06,0.080
-3.590E-06,0.120
-3.580E-06,0.140
-3.570E-06,0.180
-3.560E-06,0.200
-3.550E-06,0.220
-3.540E-06,0.160
-3.530E-06,0.180
-3.520E-06,0.160
-3.510E-06,0.220
-3.500E-06,0.240
-3.490E-06,0.260
-3.480E-06,0.280
-3.470E-06,0.200
-3.460E-06,0.100
-3.450E-06,-0.100
-3.440E-06,-0.360
-3.430E-06,-0.500
-3.420E-06,-0.480
-3.410E-06,-0.440
-3.400E-06,-0.100
-3.390E-06,0.240
-3.380E-06,0.500
-3.370E-06,0.620
-3.360E-06,0.460
-3.350E-06,0.380
-3.340E-06,0.300
-3.330E-06,0.400
-3.320E-06,0.520
-3.310E-06,0.640
-3.300E-06,0.780
-3.290E-06,0.660
-3.280E-06,0.560
-3.270E-06,0.520
-3.260E-06,0.400
-3.250E-06,0.420
-3.240E-06,0.460
-3.230E-06,0.440
-3.220E-06,0.500
-3.210E-06,0.580
-3.200E-06,0.500
-3.190E-06,0.760
-3.180E-06,0.700
-3.170E-06,0.420
-3.160E-06,0.400
-3.150E-06,-0.060
-3.140E-06,0.000
-3.130E-06,0.120
-3.120E-06,0.220
-3.110E-06,0.440
-3.100E-06,0.340
-3.090E-06,0.180
-3.080E-06,0.080
-3.070E-06,-0.060
-3.060E-06,0.040
-3.050E-06,0.220
-3.040E-06,0.240
-3.030E-06,0.240
-3.020E-06,0.160
-3.010E-06,0.000
-3.000E-06,0.000
-2.990E-06,0.000
-2.980E-06,0.100
-2.970E-06,0.160
-2.960E-06,0.200
-2.950E-06,0.180
-2.940E-06,0.040
-2.930E-06,0.040
-2.920E-06,0.100
-2.910E-06,0.020
-2.900E-06,0.060
-2.890E-06,-0.140
-2.880E-06,-0.140
-2.870E-06,-0.040
-2.860E-06,0.020
-2.850E-06,0.220
-2.840E-06,0.340
-2.830E-06,0.400
-2.820E-06,0.340
-2.810E-06,0.220
-2.800E-06,0.280
-2.790E-06,0.340
-2.780E-06,0.440
-2.770E-06,0.580
-2.760E-06,0.560
-2.750E-06,0.600
-2.740E-06,0.440
-2.730E-06,0.420
-2.720E-06,0.320
-2.710E-06,0.380
-2.700E-06,0.340
-2.690E-06,0.180
-2.680E-06,0.200
-2.670E-06,-0.020
-2.660E-06,0.040
-2.650E-06,0.100
-2.640E-06,0.140
-2.630E-06,0.320
-2.620E-06,0.260
-2.610E-06,0.320
-2.600E-06,0.340
-2.590E-06,0.340
-2.580E-06,0.320
-2.570E-06,0.340
-2.560E-06,0.320
-2.550E-06,0.380
-2.540E-06,0.460
-2.530E-06,0.500
-2.520E-06,0.540
-2.510E-06,0.500
-2.500E-06,0.400
-2.490E-06,0.320
-2.480E-06,0.220
-2.470E-06,0.220
-2.460E-06,0.400
-2.450E-06,0.440
-2.440E-06,0.400
-2.430E-06,0.480
-2.420E-06,0.200
-2.410E-06,0.100
-2.400E-06,0.140
-2.390E-06,0.120
-2.380E-06,0.160
-2.370E-06,0.140
-2.360E-06,0.260
-2.350E-06,0.020
-2.340E-06,0.320
-2.330E-06,-0.220
-2.320E-06,-0.260
-2.310E-06,0.820
-2.300E-06,0.080
-2.290E-06,0.800
-2.280E-06,0.720
-2.270E-06,-0.400
-2.260E-06,0.480
-2.250E-06,0.080
-2.240E-06,0.540
-2.230E-06,0.920
-2.220E-06,0.240
-2.210E-06,0.140
-2.200E-06,-0.220
-2.190E-06,-0.300
-2.180E-06,0.240
-2.170E-06,0.460
-2.160E-06,0.440
-2.150E-06,0.240
-2.140E-06,-0.240
-2.130E-06,-0.340
-2.120E-06,-0.340
-2.110E-06,0.020
-2.100E-06,0.320
-2.090E-06,0.340
-2.080E-06,0.240
-2.070E-06,0.060
-2.060E-06,0.000
-2.050E-06,0.040
-2.040E-06,0.140
-2.030E-06,0.080
-2.020E-06,0.000
-2.010E-06,-0.140
-2.000E-06,-0.240
-1.990E-06,-0.180
-1.980E-06,-0.160
-1.970E-06,-0.160
-1.960E-06,-0.160
-1.950E-06,-0.200
-1.940E-06,-0.220
-1.930E-06,-0.180
-1.920E-06,-0.180
-1.910E-06,-0.140
-1.900E-06,-0.080
-1.890E-06,-0.060
-1.880E-06,0.000
-1.870E-06,0.020
-1.860E-06,0.120
-1.850E-06,0.160
-1.840E-06,0.200
-1.830E-06,0.280
-1.820E-06,0.200
-1.810E-06,0.200
-1.800E-06,0.120
-1.790E-06,0.180
-1.780E-06,0.180
-1.770E-06,0.280
-1.760E-06,0.260
-1.750E-06,0.220
-1.740E-06,0.240
-1.730E-06,0.260
-1.720E-06,0.260
-1.710E-06,0.320
-1.700E-06,0.320
-1.690E-06,0.240
-1.680E-06,0.380
-1.670E-06,0.140
-1.660E-06,0.300
-1.650E-06,0.220
-1.640E-06,0.260
-1.630E-06,0.300
-1.620E-06,0.120
-1.610E-06,0.120
-1.600E-06,0.080
-1.590E-06,-0.040
-1.580E-06,0.000
-1.570E-06,-0.040
-1.560E-06,-0.080
-1.550E-06,-0.040
-1.540E-06,-0.080
-1.530E-06,-0.100
-1.520E-06,-0.120
-1.510E-06,-0.200
-1.500E-06,-0.120
-1.490E-06,-0.100
-1.480E-06,-0.100
-1.470E-06,0.020
-1.460E-06,0.040
-1.450E-06,0.120
-1.440E-06,0.240
-1.430E-06,0.240
-1.420E-06,0.700
-1.410E-06,-0.340
-1.400E-06,-0.120
-1.390E-06,-1.100
-1.380E-06,-1.000
-1.370E-06,-0.020
-1.360E-06,0.120
-1.350E-06,1.240
-1.340E-06,0.500
-1.330E-06,0.040
-1.320E-06,-0.480
-1.310E-06,-0.980
-1.300E-06,-0.320
-1.290E-06,0.180
-1.280E-06,0.760
-1.270E-06,0.740
-1.260E-06,0.340
-1.250E-06,0.160
-1.240E-06,-0.160
-1.230E-06,0.100
-1.220E-06,0.420
-1.210E-06,0.340
-1.200E-06,0.300
-1.190E-06,-0.080
-1.180E-06,-0.340
-1.170E-06,-0.320
-1.160E-06,-0.380
-1.150E-06,-0.100
-1.140E-06,0.560
-1.130E-06,0.220
-1.120E-06,-0.120
-1.110E-06,-0.320
-1.100E-06,-1.000
-1.090E-06,-0.480
-1.080E-06,-0.260
-1.070E-06,0.000
-1.060E-06,0.300
-1.050E-06,-0.160
-1.040E-06,-0.400
-1.030E-06,-0.620
-1.020E-06,-0.340
-1.010E-06,0.180
-1.000E-06,0.520
-9.900E-07,0.540
-9.800E-07,0.440
-9.700E-07,0.240
-9.600E-07,0.160
-9.500E-07,0.340
-9.400E-07,0.620
-9.300E-07,0.760
-9.200E-07,0.860
-9.100E-07,0.780
-9.000E-07,0.700
-8.900E-07,0.460
-8.800E-07,0.360
-8.700E-07,0.220
-8.600E-07,-0.060
-8.500E-07,-0.160
-8.400E-07,-0.220
-8.300E-07,-0.200
-8.200E-07,-0.220
-8.100E-07,-0.260
-8.000E-07,-0.300
-7.900E-07,0.100
-7.800E-07,0.000
-7.700E-07,-0.140
-7.600E-07,-0.040
-7.500E-07,-0.660
-7.400E-07,-0.720
-7.300E-07,-0.080
-7.200E-07,-0.020
-7.100E-07,0.260
-7.000E-07,0.600
-6.900E-07,0.220
-6.800E-07,-0.340
-6.700E-07,-0.500
-6.600E-07,-1.000
-6.500E-07,-0.480
-6.400E-07,0.080
-6.300E-07,0.280
-6.200E-07,0.760
-6.100E-07,0.560
-6.000E-07,0.180
-5.900E-07,0.200
-5.800E-07,0.100
-5.700E-07,0.240
-5.600E-07,0.360
-5.500E-07,0.200
-5.400E-07,0.200
-5.300E-07,0.120
-5.200E-07,0.040
-5.100E-07,-0.020
-5.000E-07,0.000
-4.900E-07,-0.140
-4.800E-07,-0.260
-4.700E-07,-0.120
-4.600E-07,-0.400
-4.500E-07,-0.340
-4.400E-07,-0.420
-4.300E-07,-0.520
-4.200E-07,-0.360
-4.100E-07,-0.500
-4.000E-07,-0.340
-3.900E-07,-0.480
-3.800E-07,-0.360
-3.700E-07,-0.180
-3.600E-07,-0.120
-3.500E-07,0.100
-3.400E-07,0.100
-3.300E-07,0.040
-3.200E-07,0.000
-3.100E-07,-0.180
-3.000E-07,-0.260
-2.900E-07,-0.340
-2.800E-07,-0.460
-2.700E-07,-0.420
-2.600E-07,-0.420
-2.500E-07,-0.480
-2.400E-07,-0.440
-2.300E-07,-0.580
-2.200E-07,-0.680
-2.100E-07,-0.740
-2.000E-07,-0.720
-1.900E-07,-0.600
-1.800E-07,-0.480
-1.700E-07,-0.400
-1.600E-07,-0.320
-1.500E-07,-0.500
-1.400E-07,-0.480
-1.300E-07,-0.620
-1.200E-07,-0.700
-1.100E-07,-0.560
-1.000E-07,-0.660
-9.000E-08,-0.420
-8.000E-08,-0.700
-7.000E-08,-0.700
-6.000E-08,-0.780
-5.000E-08,-1.000
-4.000E-08,-0.800
-3.000E-08,-1.300
-2.000E-08,-1.160
-1.000E-08,-2.380
0.000E+00,-2.640
1.000E-08,-0.840
2.000E-08,-1.620
3.000E-08,1.000
4.000E-08,0.280
5.000E-08,-1.460
6.000E-08,-0.880
7.000E-08,-2.660
8.000E-08,-2.660
9.000E-08,-1.040
1.000E-07,-0.840
1.100E-07,0.480
1.200E-07,0.460
1.300E-07,-0.980
1.400E-07,-1.220
1.500E-07,-1.920
1.600E-07,-1.540
1.700E-07,-0.820
1.800E-07,-0.180
1.900E-07,-0.180
2.000E-07,-0.420
2.100E-07,-0.600
2.200E-07,-1.080
2.300E-07,-0.960
2.400E-07,-0.980
2.500E-07,-0.940
2.600E-07,-0.720
2.700E-07,-0.660
2.800E-07,-0.680
2.900E-07,-0.700
3.000E-07,-0.760
3.100E-07,-0.880
3.200E-07,-0.900
3.300E-07,-0.720
3.400E-07,-0.600
3.500E-07,-0.480
3.600E-07,-0.360
3.700E-07,-0.460
3.800E-07,-0.580
3.900E-07,-0.680
4.000E-07,-0.740
4.100E-07,-0.640
4.200E-07,-0.380
4.300E-07,-0.160
4.400E-07,0.000
4.500E-07,0.140
4.600E-07,0.120
4.700E-07,0.240
4.800E-07,0.260
4.900E-07,0.300
5.000E-07,0.420
5.100E-07,0.340
5.200E-07,0.300
5.300E-07,0.340
5.400E-07,0.180
5.500E-07,0.160
5.600E-07,-0.080
5.700E-07,0.140
5.800E-07,0.240
5.900E-07,0.380
6.000E-07,0.420
6.100E-07,0.300
6.200E-07,0.060
6.300E-07,0.140
6.400E-07,0.200
6.500E-07,0.600
6.600E-07,0.980
6.700E-07,1.060
6.800E-07,1.020
6.900E-07,0.760
7.000E-07,0.480
7.100E-07,0.380
7.200E-07,0.440
7.300E-07,0.400
7.400E-07,0.520
7.500E-07,0.380
7.600E-07,0.220
7.700E-07,0.320
7.800E-07,0.160
7.900E-07,0.200
8.000E-07,0.340
8.100E-07,0.360
8.200E-07,0.300
8.300E-07,0.160
8.400E-07,-0.120
8.500E-07,-0.340
8.600E-07,-0.680
8.700E-07,-0.500
8.800E-07,-0.240
8.900E-07,-0.120
9.000E-07,-0.240
9.100E-07,-0.240
9.200E-07,-0.480
9.300E-07,-0.640
9.400E-07,-0.920
9.500E-07,-0.880
9.600E-07,-0.700
9.700E-07,-0.620
9.800E-07,-0.220
9.900E-07,-0.280
1.000E-06,0.120
1.010E-06,0.080
1.020E-06,-0.100
1.030E-06,0.400
1.040E-06,0.360
1.050E-06,0.940
1.060E-06,1.240
1.070E-06,1.160
1.080E-06,1.040
1.090E-06,0.780
1.100E-06,0.380
1.110E-06,0.240
1.120E-06,0.280
1.130E-06,0.360
1.140E-06,0.480
1.150E-06,0.380
1.160E-06,0.080
1.170E-06,-0.080
1.180E-06,-0.360
1.190E-06,-0.280
1.200E-06,-0.180
1.210E-06,0.000
1.220E-06,0.280
1.230E-06,0.280
1.240E-06,0.540
1.250E-06,0.420
1.260E-06,0.180
1.270E-06,0.160
1.280E-06,-0.160
1.290E-06,-0.340
1.300E-06,-0.220
1.310E-06,-0.160
1.320E-06,0.020
1.330E-06,0.100
1.340E-06,0.120
1.350E-06,0.160
1.360E-06,-0.020
1.370E-06,-0.020
1.380E-06,0.180
1.390E-06,0.300
1.400E-06,0.380
1.410E-06,0.760
1.420E-06,0.400
1.430E-06,0.380
1.440E-06,0.400
1.450E-06,0.040
1.460E-06,0.300
1.470E-06,0.240
1.480E-06,0.320
1.490E-06,0.440
1.500E-06,0.480
1.510E-06,0.520
1.520E-06,0.500
1.530E-06,0.500
1.540E-06,0.380
1.550E-06,0.300
1.560E-06,0.140
1.570E-06,-0.040
1.580E-06,-0.120
1.590E-06,-0.260
1.600E-06,-0.320
1.610E-06,-0.240
1.620E-06,-0.200
1.630E-06,-0.520
1.640E-06,-0.500
1.650E-06,-0.060
1.660E-06,0.160
1.670E-06,0.100
1.680E-06,0.180
1.690E-06,-0.180
1.700E-06,0.000
1.710E-06,-0.100
1.720E-06,-0.140
1.730E-06,0.220
1.740E-06,-0.060
1.750E-06,0.260
1.760E-06,0.600
1.770E-06,0.400
1.780E-06,0.840
1.790E-06,0.740
1.800E-06,0.500
1.810E-06,0.980
1.820E-06,0.880
1.830E-06,0.880
1.840E-06,1.260
1.850E-06,1.160
1.860E-06,1.240
1.870E-06,1.360
1.880E-06,1.160
1.890E-06,1.040
1.900E-06,1.020
1.910E-06,0.780
1.920E-06,0.700
1.930E-06,0.540
1.940E-06,0.420
1.950E-06,0.400
1.960E-06,0.480
1.970E-06,0.400
1.980E-06,0.400
1.990E-06,0.340
2.000E-06,-0.020
2.010E-06,-0.140
2.020E-06,-0.500
2.030E-06,-0.760
2.040E-06,-0.800
2.050E-06,-1.540
2.060E-06,-1.480
2.070E-06,-1.100
2.080E-06,-0.860
2.090E-06,-0.220
2.100E-06,0.040
2.110E-06,0.240
2.120E-06,0.500
2.130E-06,0.560
2.140E-06,0.660
2.150E-06,0.540
2.160E-06,0.320
2.170E-06,0.260
2.180E-06,0.180
2.190E-06,0.240
2.200E-06,0.360
2.210E-06,0.520
2.220E-06,0.620
2.230E-06,0.740
2.240E-06,0.740
2.250E-06,0.500
2.260E-06,0.420
2.270E-06,0.200
2.280E-06,0.540
2.290E-06,-0.220
2.300E-06,-0.200
2.310E-06,-0.200
2.320E-06,-1.060
2.330E-06,0.820
2.340E-06,-0.200
2.350E-06,1.420
2.360E-06,1.360
2.370E-06,1.060
2.380E-06,1.000
2.390E-06,-0.500
2.400E-06,-0.940
2.410E-06,-0.880
2.420E-06,-0.600
2.430E-06,-0.320
2.440E-06,-0.340
2.450E-06,0.100
2.460E-06,-0.120
2.470E-06,0.400
2.480E-06,0.460
2.490E-06,0.420
2.500E-06,-0.040
2.510E-06,-0.960
2.520E-06,-1.880
2.530E-06,-2.600
2.540E-06,-2.660
2.550E-06,-2.660
2.560E-06,-2.140
2.570E-06,-2.500
2.580E-06,-2.660
2.590E-06,-2.660
2.600E-06,-2.660
2.610E-06,-2.660
2.620E-06,-2.660
2.630E-06,-2.660
2.640E-06,-2.300
2.650E-06,-1.840
2.660E-06,-1.560
2.670E-06,-1.100
2.680E-06,-0.820
2.690E-06,-0.380
2.700E-06,0.000
2.710E-06,0.140
2.720E-06,0.280
2.730E-06,0.400
2.740E-06,0.320
2.750E-06,0.420
2.760E-06,0.580
2.770E-06,0.660
2.780E-06,0.500
2.790E-06,0.420
2.800E-06,0.120
2.810E-06,-0.060
2.820E-06,-0.280
2.830E-06,-0.480
2.840E-06,-0.560
2.850E-06,-0.640
2.860E-06,-0.700
2.870E-06,-0.720
2.880E-06,-0.700
2.890E-06,-0.720
2.900E-06,-0.700
2.910E-06,-0.740
2.920E-06,-0.740
2.930E-06,-0.680
2.940E-06,-0.760
2.950E-06,-0.720
2.960E-06,-0.780
2.970E-06,-0.860
2.980E-06,-0.860
2.990E-06,-1.040
3.000E-06,-1.180
3.010E-06,-1.020
3.020E-06,-1.360
3.030E-06,-1.140
3.040E-06,-1.500
3.050E-06,-2.500
3.060E-06,-1.260
3.070E-06,-1.240
3.080E-06,-0.360
3.090E-06,1.180
3.100E-06,0.560
3.110E-06,0.980
3.120E-06,1.160
3.130E-06,0.620
3.140E-06,1.300
3.150E-06,0.940
3.160E-06,0.840
3.170E-06,1.600
3.180E-06,1.060
3.190E-06,2.040
3.200E-06,1.580
3.210E-06,1.040
3.220E-06,1.020
3.230E-06,0.560
3.240E-06,1.420
3.250E-06,1.860
3.260E-06,1.840
3.270E-06,1.840
3.280E-06,1.040
3.290E-06,0.480
3.300E-06,0.300
3.310E-06,0.320
3.320E-06,0.360
3.330E-06,0.320
3.340E-06,-0.040
3.350E-06,-0.120
3.360E-06,-0.820
3.370E-06,-0.620
3.380E-06,0.160
3.390E-06,-0.520
3.400E-06,0.020
3.410E-06,0.160
3.420E-06,0.260
3.430E-06,1.440
3.440E-06,1.420
3.450E-06,1.600
3.460E-06,2.260
3.470E-06,0.860
3.480E-06,0.600
3.490E-06,0.080
3.500E-06,-0.520
3.510E-06,0.000
3.520E-06,-0.020
3.530E-06,0.260
3.540E-06,1.020
3.550E-06,1.060
3.560E-06,1.160
3.570E-06,1.240
3.580E-06,0.940
3.590E-06,0.980
3.600E-06,1.000
3.610E-06,0.920
3.620E-06,0.940
3.630E-06,0.860
3.640E-06,0.540
3.650E-06,0.260
3.660E-06,-0.240
3.670E-06,-0.620
3.680E-06,-0.940
3.690E-06,-1.040
3.700E-06,-1.120
3.710E-06,-1.240
3.720E-06,-1.360
3.730E-06,-1.460
3.740E-06,-1.480
3.750E-06,-1.440
3.760E-06,-1.320
3.770E-06,-1.240
3.780E-06,-1.160
3.790E-06,-0.980
3.800E-06,-0.900
3.810E-06,-0.780
3.820E-06,-0.640
3.830E-06,-0.600
3.840E-06,-0.440
3.850E-06,-0.260
3.860E-06,-0.100
3.870E-06,0.040
3.880E-06,0.120
3.890E-06,0.260
3.900E-06,0.360
3.910E-06,0.440
3.920E-06,0.480
3.930E-06,0.520
3.940E-06,0.560
3.950E-06,0.600
3.960E-06,0.600
3.970E-06,0.580
3.980E-06,0.460
3.990E-06,0.360
4.000E-06,0.240
4.010E-06,0.200
4.020E-06,0.080
4.030E-06,-0.080
4.040E-06,-0.240
4.050E-06,-0.380
4.060E-06,-0.500
4.070E-06,-0.560
4.080E-06,-0.660
4.090E-06,-0.720
4.100E-06,-0.760
4.110E-06,-0.800
4.120E-06,-0.740
4.130E-06,-0.660
4.140E-06,-0.620
4.150E-06,-0.480
4.160E-06,-0.320
4.170E-06,-0.160
4.180E-06,-0.060
4.190E-06,0.020
4.200E-06,0.080
4.210E-06,0.180
4.220E-06,0.220
4.230E-06,0.180
4.240E-06,0.180
4.250E-06,0.080
4.260E-06,0.000
4.270E-06,-0.080
4.280E-06,-0.120
4.290E-06,-0.200
4.300E-06,-0.260
4.310E-06,-0.340
4.320E-06,-0.440
4.330E-06,-0.500
4.340E-06,-0.580
4.350E-06,-0.600
4.360E-06,-0.640
4.370E-06,-0.600
4.380E-06,-0.560
4.390E-06,-0.520
4.400E-06,-0.420
4.410E-06,-0.340
4.420E-06,-0.280
4.430E-06,-0.180
4.440E-06,-0.140
4.450E-06,-0.080
4.460E-06,-0.060
4.470E-06,-0.020
4.480E-06,0.040
4.490E-06,0.100
4.500E-06,0.080
4.510E-06,0.060
4.520E-06,0.040
4.530E-06,0.000
4.540E-06,-0.100
4.550E-06,-0.160
4.560E-06,-0.280
4.570E-06,-0.340
4.580E-06,-0.380
4.590E-06,-0.480
4.600E-06,-0.540
4.610E-06,-0.580
4.620E-06,-0.600
4.630E-06,-0.540
4.640E-06,-0.420
4.650E-06,-0.380
4.660E-06,-0.340
4.670E-06,-0.300
4.680E-06,-0.280
4.690E-06,-0.200
4.700E-06,-0.140
4.710E-06,-0.140
4.720E-06,-0.140
4.730E-06,-0.120
4.740E-06,-0.120
4.750E-06,-0.140
4.760E-06,-0.120
4.770E-06,-0.100
4.780E-06,-0.080
4.790E-06,-0.080
4.800E-06,-0.100
4.810E-06,-0.100
4.820E-06,-0.100
4.830E-06,-0.120
4.840E-06,-0.120
4.850E-06,-0.040
4.860E-06,-0.060
4.870E-06,-0.140
4.880E-06,-0.200
4.890E-06,-0.240
4.900E-06,-0.240
4.910E-06,-0.200
4.920E-06,-0.200
4.930E-06,-0.180
4.940E-06,-0.180
4.950E-06,-0.180
4.960E-06,-0.120
4.970E-06,-0.040
4.980E-06,0.040
4.990E-06,0.100
5.000E-06,0.220
5.010E-06,0.260
5.020E-06,0.320
5.030E-06,0.400
5.040E-06,0.380
5.050E-06,0.420
5.060E-06,0.400
5.070E-06,0.360
5.080E-06,0.320
5.090E-06,0.220
5.100E-06,0.160
5.110E-06,0.100
5.120E-06,0.040
5.130E-06,0.000
5.140E-06,-0.040
5.150E-06,-0.160
5.160E-06,-0.180
5.170E-06,-0.220
5.180E-06,-0.240
5.190E-06,-0.160
5.200E-06,-0.260
5.210E-06,-0.340
5.220E-06,-0.340
5.230E-06,-0.400
5.240E-06,-0.400
5.250E-06,-0.380
5.260E-06,-0.380
5.270E-06,-0.340
5.280E-06,-0.240
5.290E-06,-0.260
5.300E-06,-0.220
5.310E-06,-0.220
5.320E-06,-0.240
5.330E-06,-0.260
5.340E-06,-0.260
5.350E-06,-0.220
5.360E-06,-0.240
5.370E-06,-0.220
5.380E-06,-0.200
5.390E-06,-0.180
5.400E-06,-0.180
5.410E-06,-0.180
5.420E-06,-0.060
5.430E-06,0.000
5.440E-06,0.080
5.450E-06,0.120
5.460E-06,0.180
5.470E-06,0.220
5.480E-06,0.320
5.490E-06,0.300
5.500E-06,0.300
5.510E-06,0.300
5.520E-06,0.300
5.530E-06,0.340
5.540E-06,0.400
5.550E-06,0.420
5.560E-06,0.480
5.570E-06,0.500
5.580E-06,0.500
5.590E-06,0.500
5.600E-06,0.520
5.610E-06,0.460
5.620E-06,0.420
5.630E-06,0.340
5.640E-06,0.280
5.650E-06,0.240
5.660E-06,0.220
5.670E-06,0.140
5.680E-06,0.100
5.690E-06,0.040
5.700E-06,0.040
5.710E-06,-0.040
5.720E-06,0.020
5.730E-06,-0.080
5.740E-06,-0.080
5.750E-06,-0.080
5.760E-06,-0.140
5.770E-06,-0.180
5.780E-06,-0.220
5.790E-06,-0.280
5.800E-06,-0.340
5.810E-06,-0.440
5.820E-06,-0.560
5.830E-06,-0.580
5.840E-06,-0.580
5.850E-06,-0.620
5.860E-06,-0.620
5.870E-06,-0.620
5.880E-06,-0.580
5.890E-06,-0.540
5.900E-06,-0.520
5.910E-06,-0.440
5.920E-06,-0.380
5.930E-06,-0.300
5.940E-06,-0.260
5.950E-06,-0.160
5.960E-06,-0.040
5.970E-06,0.040
5.980E-06,0.120
5.990E-06,0.160
6.000E-06,0.160
6.010E-06,0.100
6.020E-06,0.080
6.030E-06,0.060
6.040E-06,-0.040
6.050E-06,-0.080
6.060E-06,-0.080
6.070E-06,-0.060
6.080E-06,0.020
6.090E-06,0.080
6.100E-06,0.160
6.110E-06,0.260
6.120E-06,0.400
6.130E-06,0.480
6.140E-06,0.520
6.150E-06,0.580
6.160E-06,0.560
6.170E-06,0.460
6.180E-06,0.380
6.190E-06,0.280
6.200E-06,0.200
6.210E-06,0.200
6.220E-06,0.220
6.230E-06,0.280
6.240E-06,0.340
6.250E-06,0.380
6.260E-06,0.440
6.270E-06,0.380
6.280E-06,0.280
6.290E-06,0.180
6.300E-06,0.040
6.310E-06,0.000
6.320E-06,0.020
6.330E-06,0.080
6.340E-06,0.160
6.350E-06,0.200
6.360E-06,0.260
6.370E-06,0.320
6.380E-06,0.260
6.390E-06,0.280
6.400E-06,0.260
6.410E-06,0.220
6.420E-06,0.260
6.430E-06,0.280
6.440E-06,0.360
6.450E-06,0.420
6.460E-06,0.400
6.470E-06,0.440
6.480E-06,0.480
6.490E-06,0.520
6.500E-06,0.500
6.510E-06,0.560
6.520E-06,0.600
6.530E-06,0.680
6.540E-06,0.760
6.550E-06,0.800
6.560E-06,0.820
6.570E-06,0.800
6.580E-06,0.820
6.590E-06,0.760
6.600E-06,0.720
6.610E-06,0.780
6.620E-06,0.780
6.630E-06,0.780
6.640E-06,0.740
6.650E-06,0.720
6.660E-06,0.740
6.670E-06,0.640
6.680E-06,0.580
6.690E-06,0.540
6.700E-06,0.480
6.710E-06,0.460
6.720E-06,0.380
6.730E-06,0.300
6.740E-06,0.240
6.750E-06,0.160
6.760E-06,0.100
6.770E-06,0.020
6.780E-06,-0.060
6.790E-06,-0.180
6.800E-06,-0.240
6.810E-06,-0.280
6.820E-06,-0.300
6.830E-06,-0.280
6.840E-06,-0.240
6.850E-06,-0.200
6.860E-06,-0.200
6.870E-06,-0.200
6.880E-06,-0.120
6.890E-06,-0.100
6.900E-06,-0.060
6.910E-06,-0.020
6.920E-06,0.000
6.930E-06,0.060
6.940E-06,0.080
6.950E-06,0.160
6.960E-06,0.260
6.970E-06,0.340
6.980E-06,0.420
6.990E-06,0.520
7.000E-06,0.520
7.010E-06,0.560
7.020E-06,0.560
7.030E-06,0.540
7.040E-06,0.540
7.050E-06,0.540
7.060E-06,0.600
7.070E-06,0.620
7.080E-06,0.680
7.090E-06,0.720
7.100E-06,0.700
7.110E-06,0.780
7.120E-06,0.780
7.130E-06,0.760
7.140E-06,0.720
7.150E-06,0.660
7.160E-06,0.500
7.170E-06,0.420
7.180E-06,0.340
7.190E-06,0.240
7.200E-06,0.180
7.210E-06,0.140
7.220E-06,0.160
7.230E-06,0.220
7.240E-06,0.260
7.250E-06,0.380
7.260E-06,0.420
7.270E-06,0.480
7.280E-06,0.480
7.290E-06,0.420
7.300E-06,0.360
7.310E-06,0.300
7.320E-06,0.260
7.330E-06,0.220
7.340E-06,0.200
7.350E-06,0.260
7.360E-06,0.260
7.370E-06,0.260
7.380E-06,0.260
7.390E-06,0.340
7.400E-06,0.400
7.410E-06,0.440
7.420E-06,0.580
7.430E-06,0.640
7.440E-06,0.740
7.450E-06,0.780
7.460E-06,0.780
7.470E-06,0.760
7.480E-06,0.680
7.490E-06,0.640
7.500E-06,0.580
7.510E-06,0.540
7.520E-06,0.520
7.530E-06,0.480
7.540E-06,0.480
7.550E-06,0.520
7.560E-06,0.580
7.570E-06,0.660
7.580E-06,0.840
7.590E-06,1.140
7.600E-06,1.480
7.610E-06,1.920
7.620E-06,2.440
7.630E-06,2.780
7.640E-06,2.760
