mediciones/Mediciones filtradas (saque las feas)/6-10/47.4/WaveData55163.csv

#timebase=2000000(ps)
,#voltbase=500000(mv/100)
#size=4000
-4.250E-06,0.060
-4.240E-06,0.040
-4.230E-06,0.040
-4.220E-06,0.060
-4.210E-06,0.060
-4.200E-06,0.060
-4.190E-06,0.040
-4.180E-06,0.060
-4.170E-06,0.040
-4.160E-06,0.020
-4.150E-06,0.060
-4.140E-06,0.040
-4.130E-06,0.020
-4.120E-06,0.060
-4.110E-06,0.040
-4.100E-06,0.020
-4.090E-06,0.060
-4.080E-06,0.040
-4.070E-06,0.080
-4.060E-06,0.040
-4.050E-06,0.020
-4.040E-06,0.020
-4.030E-06,0.000
-4.020E-06,0.060
-4.010E-06,0.060
-4.000E-06,0.080
-3.990E-06,0.040
-3.980E-06,0.060
-3.970E-06,0.060
-3.960E-06,0.020
-3.950E-06,0.060
-3.940E-06,0.040
-3.930E-06,0.020
-3.920E-06,0.060
-3.910E-06,0.080
-3.900E-06,0.080
-3.890E-06,0.080
-3.880E-06,0.060
-3.870E-06,0.020
-3.860E-06,0.040
-3.850E-06,0.040
-3.840E-06,0.040
-3.830E-06,0.060
-3.820E-06,0.040
-3.810E-06,0.040
-3.800E-06,0.080
-3.790E-06,0.060
-3.780E-06,0.020
-3.770E-06,0.060
-3.760E-06,0.020
-3.750E-06,0.040
-3.740E-06,0.060
-3.730E-06,0.160
-3.720E-06,0.520
-3.710E-06,1.240
-3.700E-06,2.100
-3.690E-06,2.080
-3.680E-06,2.040
-3.670E-06,1.360
-3.660E-06,0.080
-3.650E-06,-0.660
-3.640E-06,-1.440
-3.630E-06,-1.660
-3.620E-06,-1.820
-3.610E-06,-2.000
-3.600E-06,-2.120
-3.590E-06,-2.060
-3.580E-06,-1.760
-3.570E-06,-1.260
-3.560E-06,-0.620
-3.550E-06,-0.200
-3.540E-06,0.040
-3.530E-06,0.160
-3.520E-06,0.140
-3.510E-06,0.180
-3.500E-06,0.300
-3.490E-06,0.340
-3.480E-06,0.340
-3.470E-06,0.340
-3.460E-06,0.480
-3.450E-06,0.540
-3.440E-06,0.940
-3.430E-06,1.100
-3.420E-06,1.040
-3.410E-06,1.040
-3.400E-06,0.800
-3.390E-06,0.640
-3.380E-06,0.500
-3.370E-06,0.300
-3.360E-06,0.160
-3.350E-06,-0.040
-3.340E-06,-0.320
-3.330E-06,-0.540
-3.320E-06,-0.600
-3.310E-06,-0.600
-3.300E-06,-0.360
-3.290E-06,-0.160
-3.280E-06,0.080
-3.270E-06,0.320
-3.260E-06,0.460
-3.250E-06,0.560
-3.240E-06,0.680
-3.230E-06,0.720
-3.220E-06,0.600
-3.210E-06,0.560
-3.200E-06,0.400
-3.190E-06,0.280
-3.180E-06,0.200
-3.170E-06,0.100
-3.160E-06,0.080
-3.150E-06,-0.020
-3.140E-06,-0.100
-3.130E-06,-0.200
-3.120E-06,-0.320
-3.110E-06,-0.540
-3.100E-06,-0.660
-3.090E-06,-0.700
-3.080E-06,-0.700
-3.070E-06,-0.860
-3.060E-06,-0.880
-3.050E-06,-0.820
-3.040E-06,-0.760
-3.030E-06,-0.540
-3.020E-06,-0.240
-3.010E-06,-0.100
-3.000E-06,0.100
-2.990E-06,0.180
-2.980E-06,0.300
-2.970E-06,0.500
-2.960E-06,0.600
-2.950E-06,0.760
-2.940E-06,0.780
-2.930E-06,0.680
-2.920E-06,0.580
-2.910E-06,0.440
-2.900E-06,0.340
-2.890E-06,0.320
-2.880E-06,0.260
-2.870E-06,0.180
-2.860E-06,0.100
-2.850E-06,0.000
-2.840E-06,-0.060
-2.830E-06,-0.040
-2.820E-06,-0.100
-2.810E-06,-0.140
-2.800E-06,-0.180
-2.790E-06,-0.220
-2.780E-06,-0.220
-2.770E-06,-0.300
-2.760E-06,-0.500
-2.750E-06,-0.280
-2.740E-06,-0.080
-2.730E-06,0.080
-2.720E-06,0.560
-2.710E-06,0.620
-2.700E-06,0.440
-2.690E-06,0.340
-2.680E-06,0.140
-2.670E-06,0.220
-2.660E-06,0.380
-2.650E-06,0.420
-2.640E-06,0.660
-2.630E-06,0.420
-2.620E-06,0.400
-2.610E-06,0.060
-2.600E-06,-0.180
-2.590E-06,-0.020
-2.580E-06,-0.240
-2.570E-06,0.220
-2.560E-06,0.040
-2.550E-06,0.120
-2.540E-06,0.020
-2.530E-06,-0.240
-2.520E-06,-0.200
-2.510E-06,-0.180
-2.500E-06,0.020
-2.490E-06,0.100
-2.480E-06,0.220
-2.470E-06,0.140
-2.460E-06,0.020
-2.450E-06,-0.020
-2.440E-06,0.000
-2.430E-06,0.000
-2.420E-06,0.120
-2.410E-06,0.120
-2.400E-06,0.100
-2.390E-06,0.140
-2.380E-06,0.140
-2.370E-06,0.240
-2.360E-06,0.320
-2.350E-06,0.340
-2.340E-06,0.320
-2.330E-06,0.320
-2.320E-06,0.280
-2.310E-06,0.280
-2.300E-06,0.280
-2.290E-06,0.300
-2.280E-06,0.220
-2.270E-06,0.220
-2.260E-06,0.220
-2.250E-06,0.180
-2.240E-06,0.240
-2.230E-06,0.220
-2.220E-06,0.220
-2.210E-06,0.200
-2.200E-06,0.120
-2.190E-06,0.100
-2.180E-06,0.080
-2.170E-06,0.120
-2.160E-06,0.180
-2.150E-06,0.180
-2.140E-06,0.140
-2.130E-06,0.120
-2.120E-06,0.160
-2.110E-06,0.200
-2.100E-06,0.300
-2.090E-06,0.340
-2.080E-06,0.320
-2.070E-06,0.220
-2.060E-06,-0.160
-2.050E-06,-0.180
-2.040E-06,-0.100
-2.030E-06,0.100
-2.020E-06,0.060
-2.010E-06,0.300
-2.000E-06,0.320
-1.990E-06,-0.240
-1.980E-06,0.840
-1.970E-06,-0.320
-1.960E-06,-0.460
-1.950E-06,0.100
-1.940E-06,-0.260
-1.930E-06,0.640
-1.920E-06,0.880
-1.910E-06,0.540
-1.900E-06,0.360
-1.890E-06,-0.160
-1.880E-06,-0.300
-1.870E-06,0.160
-1.860E-06,0.520
-1.850E-06,0.840
-1.840E-06,0.940
-1.830E-06,0.280
-1.820E-06,0.020
-1.810E-06,0.000
-1.800E-06,0.080
-1.790E-06,0.400
-1.780E-06,0.460
-1.770E-06,0.340
-1.760E-06,0.100
-1.750E-06,-0.080
-1.740E-06,-0.040
-1.730E-06,0.080
-1.720E-06,0.100
-1.710E-06,0.080
-1.700E-06,-0.060
-1.690E-06,-0.220
-1.680E-06,-0.200
-1.670E-06,-0.100
-1.660E-06,0.020
-1.650E-06,0.120
-1.640E-06,0.200
-1.630E-06,0.220
-1.620E-06,0.300
-1.610E-06,0.300
-1.600E-06,0.500
-1.590E-06,0.400
-1.580E-06,0.340
-1.570E-06,0.460
-1.560E-06,0.340
-1.550E-06,0.420
-1.540E-06,0.460
-1.530E-06,0.320
-1.520E-06,0.400
-1.510E-06,0.540
-1.500E-06,0.460
-1.490E-06,-0.040
-1.480E-06,0.380
-1.470E-06,-0.100
-1.460E-06,-0.020
-1.450E-06,0.520
-1.440E-06,0.060
-1.430E-06,0.340
-1.420E-06,0.080
-1.410E-06,-0.320
-1.400E-06,0.060
-1.390E-06,-0.180
-1.380E-06,-0.060
-1.370E-06,-0.040
-1.360E-06,-0.380
-1.350E-06,-0.260
-1.340E-06,-0.240
-1.330E-06,-0.160
-1.320E-06,0.220
-1.310E-06,0.200
-1.300E-06,0.280
-1.290E-06,0.180
-1.280E-06,0.120
-1.270E-06,0.080
-1.260E-06,0.100
-1.250E-06,0.200
-1.240E-06,0.240
-1.230E-06,0.260
-1.220E-06,0.320
-1.210E-06,0.460
-1.200E-06,0.620
-1.190E-06,0.640
-1.180E-06,0.640
-1.170E-06,0.420
-1.160E-06,0.220
-1.150E-06,0.000
-1.140E-06,-0.120
-1.130E-06,-0.280
-1.120E-06,-0.180
-1.110E-06,0.060
-1.100E-06,0.020
-1.090E-06,0.080
-1.080E-06,-0.020
-1.070E-06,-0.220
-1.060E-06,-0.100
-1.050E-06,0.100
-1.040E-06,0.320
-1.030E-06,0.300
-1.020E-06,0.120
-1.010E-06,-0.100
-1.000E-06,-0.220
-9.900E-07,-0.080
-9.800E-07,0.080
-9.700E-07,0.260
-9.600E-07,0.340
-9.500E-07,0.300
-9.400E-07,0.240
-9.300E-07,0.140
-9.200E-07,0.100
-9.100E-07,0.260
-9.000E-07,0.320
-8.900E-07,0.380
-8.800E-07,0.400
-8.700E-07,0.380
-8.600E-07,0.320
-8.500E-07,0.080
-8.400E-07,0.060
-8.300E-07,-0.280
-8.200E-07,-0.340
-8.100E-07,0.000
-8.000E-07,-0.040
-7.900E-07,0.300
-7.800E-07,0.340
-7.700E-07,-0.040
-7.600E-07,-0.100
-7.500E-07,-0.300
-7.400E-07,-0.180
-7.300E-07,0.160
-7.200E-07,0.280
-7.100E-07,0.380
-7.000E-07,0.320
-6.900E-07,0.180
-6.800E-07,0.180
-6.700E-07,0.260
-6.600E-07,0.300
-6.500E-07,0.320
-6.400E-07,0.320
-6.300E-07,0.160
-6.200E-07,0.100
-6.100E-07,0.000
-6.000E-07,0.020
-5.900E-07,0.020
-5.800E-07,-0.020
-5.700E-07,-0.120
-5.600E-07,-0.220
-5.500E-07,-0.240
-5.400E-07,-0.200
-5.300E-07,-0.040
-5.200E-07,0.020
-5.100E-07,0.120
-5.000E-07,0.100
-4.900E-07,0.080
-4.800E-07,0.080
-4.700E-07,0.160
-4.600E-07,0.260
-4.500E-07,0.360
-4.400E-07,0.360
-4.300E-07,0.420
-4.200E-07,0.400
-4.100E-07,0.380
-4.000E-07,0.360
-3.900E-07,0.340
-3.800E-07,0.240
-3.700E-07,0.240
-3.600E-07,0.180
-3.500E-07,0.140
-3.400E-07,0.080
-3.300E-07,0.080
-3.200E-07,0.000
-3.100E-07,0.000
-3.000E-07,-0.040
-2.900E-07,-0.040
-2.800E-07,0.000
-2.700E-07,0.020
-2.600E-07,0.080
-2.500E-07,0.100
-2.400E-07,0.140
-2.300E-07,0.160
-2.200E-07,0.120
-2.100E-07,0.140
-2.000E-07,0.180
-1.900E-07,0.160
-1.800E-07,0.300
-1.700E-07,0.260
-1.600E-07,0.180
-1.500E-07,0.140
-1.400E-07,0.000
-1.300E-07,0.160
-1.200E-07,0.220
-1.100E-07,0.200
-1.000E-07,0.440
-9.000E-08,0.400
-8.000E-08,0.360
-7.000E-08,0.380
-6.000E-08,0.180
-5.000E-08,-0.180
-4.000E-08,0.400
-3.000E-08,-0.240
-2.000E-08,-0.340
-1.000E-08,-0.060
0.000E+00,-0.560
1.000E-08,0.920
2.000E-08,1.020
3.000E-08,1.220
4.000E-08,0.920
5.000E-08,-0.100
6.000E-08,-0.700
7.000E-08,-0.920
8.000E-08,-0.240
9.000E-08,0.600
1.000E-07,1.180
1.100E-07,1.080
1.200E-07,-0.020
1.300E-07,-0.160
1.400E-07,-0.560
1.500E-07,-0.420
1.600E-07,0.420
1.700E-07,0.440
1.800E-07,0.280
1.900E-07,-0.300
2.000E-07,-1.140
2.100E-07,-0.860
2.200E-07,-0.480
2.300E-07,0.180
2.400E-07,0.540
2.500E-07,0.440
2.600E-07,-0.040
2.700E-07,-0.400
2.800E-07,-0.420
2.900E-07,-0.320
3.000E-07,0.160
3.100E-07,0.240
3.200E-07,0.380
3.300E-07,0.440
3.400E-07,0.260
3.500E-07,0.360
3.600E-07,0.540
3.700E-07,0.340
3.800E-07,0.000
3.900E-07,0.080
4.000E-07,-0.260
4.100E-07,0.020
4.200E-07,0.260
4.300E-07,0.260
4.400E-07,0.460
4.500E-07,0.220
4.600E-07,0.340
4.700E-07,0.300
4.800E-07,0.320
4.900E-07,-0.300
5.000E-07,-0.360
5.100E-07,-0.500
5.200E-07,-0.320
5.300E-07,0.480
5.400E-07,0.640
5.500E-07,0.740
5.600E-07,0.560
5.700E-07,0.020
5.800E-07,-0.280
5.900E-07,-0.300
6.000E-07,-0.320
6.100E-07,-0.120
6.200E-07,0.140
6.300E-07,0.060
6.400E-07,-0.080
6.500E-07,0.120
6.600E-07,-0.380
6.700E-07,-0.820
6.800E-07,-0.480
6.900E-07,-0.500
7.000E-07,0.020
7.100E-07,0.620
7.200E-07,0.340
7.300E-07,0.200
7.400E-07,0.000
7.500E-07,-0.620
7.600E-07,-0.140
7.700E-07,0.040
7.800E-07,0.260
7.900E-07,0.540
8.000E-07,0.260
8.100E-07,0.000
8.200E-07,-0.020
8.300E-07,-0.140
8.400E-07,-0.100
8.500E-07,0.040
8.600E-07,-0.080
8.700E-07,-0.220
8.800E-07,-0.260
8.900E-07,-0.400
9.000E-07,-0.340
9.100E-07,-0.340
9.200E-07,-0.260
9.300E-07,-0.500
9.400E-07,-0.500
9.500E-07,-0.480
9.600E-07,-0.540
9.700E-07,-0.340
9.800E-07,-0.440
9.900E-07,-0.400
1.000E-06,-0.180
1.010E-06,-0.080
1.020E-06,0.220
1.030E-06,0.380
1.040E-06,0.440
1.050E-06,0.460
1.060E-06,0.380
1.070E-06,0.320
1.080E-06,0.360
1.090E-06,0.500
1.100E-06,0.480
1.110E-06,0.540
1.120E-06,0.520
1.130E-06,0.420
1.140E-06,0.420
1.150E-06,0.340
1.160E-06,0.340
1.170E-06,0.320
1.180E-06,0.240
1.190E-06,0.200
1.200E-06,0.060
1.210E-06,0.000
1.220E-06,-0.140
1.230E-06,-0.200
1.240E-06,-0.300
1.250E-06,-0.380
1.260E-06,-0.380
1.270E-06,-0.440
1.280E-06,-0.420
1.290E-06,-0.420
1.300E-06,-0.500
1.310E-06,-0.500
1.320E-06,-0.540
1.330E-06,-0.540
1.340E-06,-0.520
1.350E-06,-0.440
1.360E-06,-0.320
1.370E-06,-0.220
1.380E-06,-0.160
1.390E-06,-0.140
1.400E-06,-0.080
1.410E-06,-0.080
1.420E-06,0.060
1.430E-06,0.140
1.440E-06,0.220
1.450E-06,0.260
1.460E-06,0.200
1.470E-06,0.260
1.480E-06,0.260
1.490E-06,0.260
1.500E-06,0.280
1.510E-06,0.220
1.520E-06,0.240
1.530E-06,0.200
1.540E-06,0.200
1.550E-06,0.260
1.560E-06,0.260
1.570E-06,0.280
1.580E-06,0.260
1.590E-06,0.320
1.600E-06,0.240
1.610E-06,0.220
1.620E-06,0.180
1.630E-06,0.200
1.640E-06,0.220
1.650E-06,0.160
1.660E-06,0.120
1.670E-06,0.100
1.680E-06,0.040
1.690E-06,0.000
1.700E-06,0.000
1.710E-06,-0.020
1.720E-06,-0.060
1.730E-06,-0.040
1.740E-06,-0.140
1.750E-06,-0.240
1.760E-06,-0.100
1.770E-06,-0.220
1.780E-06,-0.460
1.790E-06,-0.640
1.800E-06,0.000
1.810E-06,-0.020
1.820E-06,0.540
1.830E-06,-2.060
1.840E-06,-1.200
1.850E-06,-1.760
1.860E-06,-0.920
1.870E-06,0.560
1.880E-06,0.520
1.890E-06,0.760
1.900E-06,0.200
1.910E-06,-1.460
1.920E-06,-2.120
1.930E-06,-1.560
1.940E-06,-1.320
1.950E-06,-0.180
1.960E-06,0.100
1.970E-06,-1.040
1.980E-06,-1.140
1.990E-06,-1.780
2.000E-06,-2.140
2.010E-06,-1.660
2.020E-06,-1.680
2.030E-06,-1.660
2.040E-06,-1.680
2.050E-06,-1.800
2.060E-06,-1.780
2.070E-06,-1.720
2.080E-06,-1.800
2.090E-06,-1.880
2.100E-06,-1.820
2.110E-06,-1.680
2.120E-06,-1.500
2.130E-06,-1.200
2.140E-06,-1.100
2.150E-06,-1.040
2.160E-06,-0.800
2.170E-06,-1.000
2.180E-06,-0.380
2.190E-06,-0.420
2.200E-06,-0.340
2.210E-06,0.240
2.220E-06,0.080
2.230E-06,0.580
2.240E-06,0.560
2.250E-06,0.680
2.260E-06,0.260
2.270E-06,-0.260
2.280E-06,-0.140
2.290E-06,-0.540
2.300E-06,-0.160
2.310E-06,0.360
2.320E-06,0.780
2.330E-06,1.180
2.340E-06,1.100
2.350E-06,0.320
2.360E-06,0.060
2.370E-06,-0.580
2.380E-06,-0.180
2.390E-06,0.160
2.400E-06,0.340
2.410E-06,0.480
2.420E-06,0.300
2.430E-06,0.020
2.440E-06,-0.220
2.450E-06,-0.260
2.460E-06,-0.400
2.470E-06,-0.340
2.480E-06,-0.460
2.490E-06,-0.320
2.500E-06,-0.780
2.510E-06,-1.160
2.520E-06,-1.140
2.530E-06,-1.840
2.540E-06,-1.360
2.550E-06,-1.160
2.560E-06,-0.860
2.570E-06,-0.360
2.580E-06,-0.380
2.590E-06,-0.660
2.600E-06,-0.600
2.610E-06,-0.660
2.620E-06,-0.360
2.630E-06,0.080
2.640E-06,0.160
2.650E-06,0.280
2.660E-06,0.200
2.670E-06,0.080
2.680E-06,0.080
2.690E-06,0.180
2.700E-06,0.260
2.710E-06,0.280
2.720E-06,0.240
2.730E-06,0.200
2.740E-06,0.160
2.750E-06,0.100
2.760E-06,0.160
2.770E-06,0.040
2.780E-06,0.080
2.790E-06,0.000
2.800E-06,0.040
2.810E-06,0.200
2.820E-06,0.060
2.830E-06,-0.020
2.840E-06,-0.340
2.850E-06,-0.600
2.860E-06,-0.560
2.870E-06,-0.380
2.880E-06,0.040
2.890E-06,0.500
2.900E-06,0.680
2.910E-06,0.640
2.920E-06,0.420
2.930E-06,0.080
2.940E-06,0.100
2.950E-06,0.300
2.960E-06,0.560
2.970E-06,0.820
2.980E-06,0.800
2.990E-06,0.660
3.000E-06,0.480
3.010E-06,0.420
3.020E-06,0.340
3.030E-06,0.380
3.040E-06,0.560
3.050E-06,0.560
3.060E-06,0.560
3.070E-06,0.540
3.080E-06,0.400
3.090E-06,0.440
3.100E-06,0.320
3.110E-06,0.380
3.120E-06,0.140
3.130E-06,0.360
3.140E-06,0.340
3.150E-06,-0.340
3.160E-06,-1.140
3.170E-06,-1.160
3.180E-06,-0.600
3.190E-06,-0.040
3.200E-06,1.500
3.210E-06,1.020
3.220E-06,0.880
3.230E-06,-0.080
3.240E-06,-1.340
3.250E-06,-1.000
3.260E-06,-0.660
3.270E-06,0.160
3.280E-06,0.720
3.290E-06,0.700
3.300E-06,-0.200
3.310E-06,-0.960
3.320E-06,-0.840
3.330E-06,-1.220
3.340E-06,0.500
3.350E-06,1.100
3.360E-06,0.560
3.370E-06,0.580
3.380E-06,-0.460
3.390E-06,-1.100
3.400E-06,-0.340
3.410E-06,-0.060
3.420E-06,0.360
3.430E-06,1.180
3.440E-06,0.540
3.450E-06,0.440
3.460E-06,0.500
3.470E-06,0.180
3.480E-06,0.520
3.490E-06,0.800
3.500E-06,0.780
3.510E-06,1.040
3.520E-06,0.900
3.530E-06,0.540
3.540E-06,0.560
3.550E-06,0.380
3.560E-06,0.020
3.570E-06,0.240
3.580E-06,0.320
3.590E-06,0.460
3.600E-06,0.760
3.610E-06,0.620
3.620E-06,0.380
3.630E-06,0.200
3.640E-06,0.000
3.650E-06,0.100
3.660E-06,0.380
3.670E-06,0.360
3.680E-06,0.540
3.690E-06,0.320
3.700E-06,0.240
3.710E-06,0.100
3.720E-06,-0.120
3.730E-06,0.020
3.740E-06,0.220
3.750E-06,0.560
3.760E-06,0.860
3.770E-06,0.920
3.780E-06,0.940
3.790E-06,0.740
3.800E-06,0.480
3.810E-06,0.540
3.820E-06,0.240
3.830E-06,0.300
3.840E-06,0.460
3.850E-06,-0.440
3.860E-06,-1.480
3.870E-06,-1.540
3.880E-06,-2.080
3.890E-06,-0.640
3.900E-06,0.980
3.910E-06,1.320
3.920E-06,2.300
3.930E-06,1.040
3.940E-06,0.080
3.950E-06,0.040
3.960E-06,-0.260
3.970E-06,0.440
3.980E-06,0.820
3.990E-06,0.640
4.000E-06,0.520
4.010E-06,0.140
4.020E-06,-0.220
4.030E-06,-0.220
4.040E-06,-0.240
4.050E-06,-0.380
4.060E-06,-0.420
4.070E-06,-0.600
4.080E-06,-0.780
4.090E-06,-0.840
4.100E-06,-0.920
4.110E-06,-0.960
4.120E-06,-1.020
4.130E-06,-0.920
4.140E-06,-0.900
4.150E-06,-0.840
4.160E-06,-0.600
4.170E-06,-0.660
4.180E-06,-0.620
4.190E-06,-0.440
4.200E-06,-0.380
4.210E-06,-0.140
4.220E-06,0.040
4.230E-06,0.160
4.240E-06,0.320
4.250E-06,0.400
4.260E-06,0.340
4.270E-06,0.320
4.280E-06,0.380
4.290E-06,0.360
4.300E-06,0.500
4.310E-06,0.480
4.320E-06,0.420
4.330E-06,0.440
4.340E-06,0.420
4.350E-06,0.460
4.360E-06,0.580
4.370E-06,0.560
4.380E-06,0.740
4.390E-06,0.740
4.400E-06,0.800
4.410E-06,0.700
4.420E-06,0.500
4.430E-06,0.400
4.440E-06,0.180
4.450E-06,0.240
4.460E-06,0.120
4.470E-06,-0.060
4.480E-06,-0.120
4.490E-06,-0.220
4.500E-06,-0.140
4.510E-06,0.040
4.520E-06,0.320
4.530E-06,-0.140
4.540E-06,-0.440
4.550E-06,-1.880
4.560E-06,-1.700
4.570E-06,-1.040
4.580E-06,-2.220
4.590E-06,-1.380
4.600E-06,-2.020
4.610E-06,-2.340
4.620E-06,-0.040
4.630E-06,0.460
4.640E-06,1.520
4.650E-06,2.200
4.660E-06,0.200
4.670E-06,0.320
4.680E-06,-0.360
4.690E-06,0.160
4.700E-06,1.400
4.710E-06,1.160
4.720E-06,1.300
4.730E-06,1.060
4.740E-06,0.480
4.750E-06,0.560
4.760E-06,0.680
4.770E-06,0.720
4.780E-06,0.680
4.790E-06,0.360
4.800E-06,-0.100
4.810E-06,-0.180
4.820E-06,-0.560
4.830E-06,-0.620
4.840E-06,-0.780
4.850E-06,-0.940
4.860E-06,-0.940
4.870E-06,-0.880
4.880E-06,-0.860
4.890E-06,-0.680
4.900E-06,-0.760
4.910E-06,-0.700
4.920E-06,-0.300
4.930E-06,-0.180
4.940E-06,0.100
4.950E-06,0.300
4.960E-06,0.280
4.970E-06,0.680
4.980E-06,1.020
4.990E-06,1.180
5.000E-06,1.300
5.010E-06,1.160
5.020E-06,0.920
5.030E-06,0.760
5.040E-06,0.700
5.050E-06,0.660
5.060E-06,0.500
5.070E-06,0.460
5.080E-06,0.420
5.090E-06,0.380
5.100E-06,0.400
5.110E-06,0.340
5.120E-06,0.320
5.130E-06,0.260
5.140E-06,0.280
5.150E-06,0.240
5.160E-06,0.080
5.170E-06,-0.040
5.180E-06,-0.140
5.190E-06,-0.220
5.200E-06,-0.220
5.210E-06,-0.320
5.220E-06,-0.400
5.230E-06,-0.720
5.240E-06,-1.060
5.250E-06,-1.100
5.260E-06,-1.380
5.270E-06,-1.540
5.280E-06,-1.560
5.290E-06,-1.200
5.300E-06,-0.560
5.310E-06,-0.160
5.320E-06,0.520
5.330E-06,-0.900
5.340E-06,-1.240
5.350E-06,-2.400
5.360E-06,-2.340
5.370E-06,-2.240
5.380E-06,-1.480
5.390E-06,-0.960
5.400E-06,-1.500
5.410E-06,-1.000
5.420E-06,-0.420
5.430E-06,0.300
5.440E-06,1.540
5.450E-06,2.260
5.460E-06,2.280
5.470E-06,2.200
5.480E-06,0.800
5.490E-06,0.360
5.500E-06,-0.180
5.510E-06,-0.440
5.520E-06,-0.120
5.530E-06,0.080
5.540E-06,0.460
5.550E-06,0.320
5.560E-06,0.000
5.570E-06,-0.660
5.580E-06,-1.200
5.590E-06,-1.700
5.600E-06,-1.880
5.610E-06,-1.840
5.620E-06,-1.780
5.630E-06,-1.820
5.640E-06,-2.020
5.650E-06,-2.140
5.660E-06,-2.280
5.670E-06,-2.280
5.680E-06,-2.180
5.690E-06,-2.020
5.700E-06,-1.760
5.710E-06,-1.360
5.720E-06,-1.140
5.730E-06,-1.040
5.740E-06,-1.000
5.750E-06,-0.940
5.760E-06,-0.880
5.770E-06,-0.760
5.780E-06,-0.680
5.790E-06,-0.660
5.800E-06,-0.660
5.810E-06,-0.780
5.820E-06,-0.820
5.830E-06,-0.860
5.840E-06,-0.840
5.850E-06,-0.860
5.860E-06,-0.760
5.870E-06,-0.660
5.880E-06,-0.660
5.890E-06,-0.600
5.900E-06,-0.580
5.910E-06,-0.560
5.920E-06,-0.400
5.930E-06,-0.300
5.940E-06,-0.220
5.950E-06,-0.060
5.960E-06,0.100
5.970E-06,0.340
5.980E-06,0.540
5.990E-06,0.600
6.000E-06,0.560
6.010E-06,0.380
6.020E-06,0.380
6.030E-06,0.520
6.040E-06,0.700
6.050E-06,0.700
6.060E-06,0.620
6.070E-06,0.400
6.080E-06,0.260
6.090E-06,0.220
6.100E-06,0.260
6.110E-06,0.320
6.120E-06,0.360
6.130E-06,0.420
6.140E-06,0.440
6.150E-06,0.480
6.160E-06,0.480
6.170E-06,0.480
6.180E-06,0.480
6.190E-06,0.500
6.200E-06,0.480
6.210E-06,0.420
6.220E-06,0.320
6.230E-06,0.280
6.240E-06,0.200
6.250E-06,0.040
6.260E-06,-0.080
6.270E-06,-0.220
6.280E-06,-0.300
6.290E-06,-0.380
6.300E-06,-0.500
6.310E-06,-0.600
6.320E-06,-0.700
6.330E-06,-0.780
6.340E-06,-0.820
6.350E-06,-0.820
6.360E-06,-0.800
6.370E-06,-0.800
6.380E-06,-0.800
6.390E-06,-0.740
6.400E-06,-0.680
6.410E-06,-0.600
6.420E-06,-0.520
6.430E-06,-0.440
6.440E-06,-0.320
6.450E-06,-0.260
6.460E-06,-0.140
6.470E-06,-0.080
6.480E-06,0.000
6.490E-06,0.080
6.500E-06,0.180
6.510E-06,0.240
6.520E-06,0.220
6.530E-06,0.240
6.540E-06,0.280
6.550E-06,0.260
6.560E-06,0.300
6.570E-06,0.260
6.580E-06,0.220
6.590E-06,0.180
6.600E-06,0.160
6.610E-06,0.160
6.620E-06,0.120
6.630E-06,0.080
6.640E-06,0.080
6.650E-06,0.140
6.660E-06,0.140
6.670E-06,0.140
6.680E-06,0.180
6.690E-06,0.220
6.700E-06,0.260
6.710E-06,0.300
6.720E-06,0.340
6.730E-06,0.380
6.740E-06,0.420
6.750E-06,0.400
6.760E-06,0.420
6.770E-06,0.440
6.780E-06,0.460
6.790E-06,0.420
6.800E-06,0.460
6.810E-06,0.520
6.820E-06,0.520
6.830E-06,0.580
6.840E-06,0.600
6.850E-06,0.640
6.860E-06,0.660
6.870E-06,0.700
6.880E-06,0.740
6.890E-06,0.740
6.900E-06,0.760
6.910E-06,0.780
6.920E-06,0.820
6.930E-06,0.800
6.940E-06,0.780
6.950E-06,0.780
6.960E-06,0.680
6.970E-06,0.680
6.980E-06,0.620
6.990E-06,0.540
7.000E-06,0.500
7.010E-06,0.460
7.020E-06,0.340
7.030E-06,0.240
7.040E-06,0.180
7.050E-06,0.160
7.060E-06,0.180
7.070E-06,0.180
7.080E-06,0.180
7.090E-06,0.160
7.100E-06,0.140
7.110E-06,0.120
7.120E-06,0.100
7.130E-06,0.100
7.140E-06,0.080
7.150E-06,0.100
7.160E-06,0.040
7.170E-06,-0.080
7.180E-06,-0.140
7.190E-06,-0.160
7.200E-06,-0.160
7.210E-06,-0.140
7.220E-06,-0.140
7.230E-06,-0.160
7.240E-06,-0.140
7.250E-06,-0.080
7.260E-06,0.020
7.270E-06,0.160
7.280E-06,0.300
7.290E-06,0.260
7.300E-06,0.320
7.310E-06,0.460
7.320E-06,0.460
7.330E-06,0.480
7.340E-06,0.460
7.350E-06,0.420
7.360E-06,0.480
7.370E-06,0.540
7.380E-06,0.600
7.390E-06,0.560
7.400E-06,0.520
7.410E-06,0.520
7.420E-06,0.420
7.430E-06,0.460
7.440E-06,0.400
7.450E-06,0.360
7.460E-06,0.400
7.470E-06,0.400
7.480E-06,0.380
7.490E-06,0.280
7.500E-06,0.240
7.510E-06,0.160
7.520E-06,0.180
7.530E-06,0.260
7.540E-06,0.200
7.550E-06,0.200
7.560E-06,0.180
7.570E-06,0.280
7.580E-06,0.420
7.590E-06,0.520
7.600E-06,0.560
7.610E-06,0.580
7.620E-06,0.580
7.630E-06,0.540
7.640E-06,0.580
7.650E-06,0.600
7.660E-06,0.460
7.670E-06,0.480
