mediciones/Mediciones filtradas (saque las feas)/6-10/47.4/WaveData55166.csv

#timebase=2000000(ps)
,#voltbase=100000(mv/100)
#size=4000
-4.250E-06,0.000
-4.240E-06,0.008
-4.230E-06,0.004
-4.220E-06,0.004
-4.210E-06,0.008
-4.200E-06,0.016
-4.190E-06,0.008
-4.180E-06,0.004
-4.170E-06,0.012
-4.160E-06,0.008
-4.150E-06,0.012
-4.140E-06,0.008
-4.130E-06,-0.004
-4.120E-06,0.004
-4.110E-06,0.008
-4.100E-06,0.012
-4.090E-06,0.004
-4.080E-06,0.004
-4.070E-06,0.004
-4.060E-06,0.000
-4.050E-06,0.000
-4.040E-06,0.004
-4.030E-06,0.008
-4.020E-06,0.000
-4.010E-06,0.000
-4.000E-06,0.008
-3.990E-06,0.000
-3.980E-06,-0.004
-3.970E-06,0.004
-3.960E-06,-0.004
-3.950E-06,0.000
-3.940E-06,0.012
-3.930E-06,0.004
-3.920E-06,0.000
-3.910E-06,0.000
-3.900E-06,0.004
-3.890E-06,0.004
-3.880E-06,0.008
-3.870E-06,0.008
-3.860E-06,0.008
-3.850E-06,0.008
-3.840E-06,0.000
-3.830E-06,0.008
-3.820E-06,0.004
-3.810E-06,0.008
-3.800E-06,0.008
-3.790E-06,0.012
-3.780E-06,0.008
-3.770E-06,0.004
-3.760E-06,0.004
-3.750E-06,0.008
-3.740E-06,0.012
-3.730E-06,0.008
-3.720E-06,0.008
-3.710E-06,0.012
-3.700E-06,0.004
-3.690E-06,0.008
-3.680E-06,0.004
-3.670E-06,0.008
-3.660E-06,0.004
-3.650E-06,0.000
-3.640E-06,0.000
-3.630E-06,-0.004
-3.620E-06,0.008
-3.610E-06,0.008
-3.600E-06,0.012
-3.590E-06,0.012
-3.580E-06,0.004
-3.570E-06,0.000
-3.560E-06,0.000
-3.550E-06,0.000
-3.540E-06,0.012
-3.530E-06,0.028
-3.520E-06,0.028
-3.510E-06,0.024
-3.500E-06,0.032
-3.490E-06,0.024
-3.480E-06,0.020
-3.470E-06,0.024
-3.460E-06,0.024
-3.450E-06,0.040
-3.440E-06,0.052
-3.430E-06,0.080
-3.420E-06,0.064
-3.410E-06,0.088
-3.400E-06,0.036
-3.390E-06,-0.032
-3.380E-06,-0.068
-3.370E-06,-0.108
-3.360E-06,-0.072
-3.350E-06,-0.036
-3.340E-06,0.020
-3.330E-06,0.036
-3.320E-06,0.044
-3.310E-06,0.004
-3.300E-06,-0.032
-3.290E-06,-0.052
-3.280E-06,-0.036
-3.270E-06,-0.012
-3.260E-06,0.028
-3.250E-06,0.088
-3.240E-06,0.072
-3.230E-06,0.036
-3.220E-06,0.040
-3.210E-06,0.012
-3.200E-06,-0.040
-3.190E-06,-0.088
-3.180E-06,-0.144
-3.170E-06,-0.096
-3.160E-06,-0.008
-3.150E-06,0.056
-3.140E-06,0.092
-3.130E-06,0.068
-3.120E-06,0.000
-3.110E-06,-0.064
-3.100E-06,-0.100
-3.090E-06,-0.072
-3.080E-06,-0.004
-3.070E-06,0.056
-3.060E-06,0.080
-3.050E-06,0.056
-3.040E-06,0.016
-3.030E-06,-0.024
-3.020E-06,-0.040
-3.010E-06,-0.036
-3.000E-06,0.000
-2.990E-06,0.044
-2.980E-06,0.068
-2.970E-06,0.056
-2.960E-06,0.024
-2.950E-06,0.016
-2.940E-06,-0.024
-2.930E-06,-0.020
-2.920E-06,-0.048
-2.910E-06,-0.012
-2.900E-06,0.020
-2.890E-06,0.040
-2.880E-06,0.056
-2.870E-06,0.024
-2.860E-06,0.016
-2.850E-06,-0.024
-2.840E-06,-0.016
-2.830E-06,-0.004
-2.820E-06,0.024
-2.810E-06,0.060
-2.800E-06,0.076
-2.790E-06,0.056
-2.780E-06,0.032
-2.770E-06,0.000
-2.760E-06,-0.032
-2.750E-06,0.000
-2.740E-06,0.000
-2.730E-06,0.040
-2.720E-06,0.024
-2.710E-06,0.000
-2.700E-06,-0.044
-2.690E-06,-0.024
-2.680E-06,-0.024
-2.670E-06,-0.008
-2.660E-06,0.032
-2.650E-06,0.068
-2.640E-06,0.064
-2.630E-06,0.052
-2.620E-06,0.036
-2.610E-06,-0.004
-2.600E-06,-0.008
-2.590E-06,-0.004
-2.580E-06,0.040
-2.570E-06,0.068
-2.560E-06,0.108
-2.550E-06,0.092
-2.540E-06,0.056
-2.530E-06,0.004
-2.520E-06,-0.032
-2.510E-06,-0.044
-2.500E-06,-0.088
-2.490E-06,0.112
-2.480E-06,0.076
-2.470E-06,0.088
-2.460E-06,0.060
-2.450E-06,0.088
-2.440E-06,-0.028
-2.430E-06,-0.040
-2.420E-06,0.012
-2.410E-06,0.052
-2.400E-06,0.056
-2.390E-06,0.060
-2.380E-06,-0.008
-2.370E-06,-0.192
-2.360E-06,-0.160
-2.350E-06,-0.156
-2.340E-06,-0.040
-2.330E-06,-0.064
-2.320E-06,0.128
-2.310E-06,0.072
-2.300E-06,-0.088
-2.290E-06,-0.120
-2.280E-06,-0.168
-2.270E-06,0.032
-2.260E-06,0.068
-2.250E-06,-0.152
-2.240E-06,-0.056
-2.230E-06,-0.092
-2.220E-06,-0.036
-2.210E-06,-0.016
-2.200E-06,0.044
-2.190E-06,0.068
-2.180E-06,0.032
-2.170E-06,-0.008
-2.160E-06,-0.100
-2.150E-06,-0.080
-2.140E-06,0.008
-2.130E-06,0.056
-2.120E-06,0.080
-2.110E-06,0.060
-2.100E-06,0.016
-2.090E-06,-0.032
-2.080E-06,-0.048
-2.070E-06,-0.056
-2.060E-06,-0.028
-2.050E-06,0.012
-2.040E-06,0.024
-2.030E-06,0.032
-2.020E-06,0.032
-2.010E-06,0.016
-2.000E-06,-0.008
-1.990E-06,-0.012
-1.980E-06,-0.024
-1.970E-06,-0.008
-1.960E-06,0.004
-1.950E-06,0.020
-1.940E-06,0.028
-1.930E-06,0.028
-1.920E-06,0.004
-1.910E-06,-0.004
-1.900E-06,-0.008
-1.890E-06,0.000
-1.880E-06,0.012
-1.870E-06,0.036
-1.860E-06,0.032
-1.850E-06,0.020
-1.840E-06,0.024
-1.830E-06,0.000
-1.820E-06,-0.004
-1.810E-06,0.004
-1.800E-06,0.004
-1.790E-06,0.016
-1.780E-06,0.012
-1.770E-06,0.020
-1.760E-06,0.012
-1.750E-06,0.012
-1.740E-06,0.028
-1.730E-06,0.024
-1.720E-06,0.008
-1.710E-06,0.024
-1.700E-06,0.012
-1.690E-06,0.028
-1.680E-06,0.032
-1.670E-06,0.040
-1.660E-06,0.056
-1.650E-06,0.044
-1.640E-06,0.052
-1.630E-06,0.048
-1.620E-06,0.064
-1.610E-06,0.068
-1.600E-06,0.072
-1.590E-06,0.068
-1.580E-06,0.084
-1.570E-06,0.084
-1.560E-06,0.068
-1.550E-06,0.052
-1.540E-06,0.016
-1.530E-06,0.008
-1.520E-06,-0.016
-1.510E-06,-0.008
-1.500E-06,0.016
-1.490E-06,0.008
-1.480E-06,-0.012
-1.470E-06,0.024
-1.460E-06,0.096
-1.450E-06,0.032
-1.440E-06,-0.076
-1.430E-06,-0.352
-1.420E-06,-0.508
-1.410E-06,-0.204
-1.400E-06,-0.124
-1.390E-06,0.128
-1.380E-06,0.208
-1.370E-06,0.208
-1.360E-06,0.160
-1.350E-06,-0.064
-1.340E-06,-0.176
-1.330E-06,-0.196
-1.320E-06,-0.040
-1.310E-06,0.096
-1.300E-06,0.164
-1.290E-06,0.108
-1.280E-06,-0.024
-1.270E-06,-0.104
-1.260E-06,-0.144
-1.250E-06,-0.068
-1.240E-06,-0.004
-1.230E-06,0.096
-1.220E-06,0.076
-1.210E-06,0.060
-1.200E-06,0.000
-1.190E-06,-0.036
-1.180E-06,-0.032
-1.170E-06,0.036
-1.160E-06,0.040
-1.150E-06,-0.004
-1.140E-06,-0.120
-1.130E-06,-0.124
-1.120E-06,0.004
-1.110E-06,0.080
-1.100E-06,0.076
-1.090E-06,0.072
-1.080E-06,0.056
-1.070E-06,0.016
-1.060E-06,-0.044
-1.050E-06,-0.060
-1.040E-06,0.008
-1.030E-06,0.076
-1.020E-06,0.092
-1.010E-06,0.076
-1.000E-06,0.028
-9.900E-07,0.000
-9.800E-07,-0.012
-9.700E-07,0.036
-9.600E-07,0.072
-9.500E-07,0.124
-9.400E-07,0.124
-9.300E-07,0.128
-9.200E-07,0.112
-9.100E-07,0.104
-9.000E-07,0.096
-8.900E-07,0.060
-8.800E-07,0.020
-8.700E-07,0.000
-8.600E-07,-0.016
-8.500E-07,-0.008
-8.400E-07,-0.068
-8.300E-07,-0.040
-8.200E-07,-0.044
-8.100E-07,0.096
-8.000E-07,-0.052
-7.900E-07,-0.188
-7.800E-07,-0.264
-7.700E-07,-0.224
-7.600E-07,-0.128
-7.500E-07,0.020
-7.400E-07,0.144
-7.300E-07,0.120
-7.200E-07,0.132
-7.100E-07,-0.016
-7.000E-07,-0.236
-6.900E-07,-0.352
-6.800E-07,-0.100
-6.700E-07,0.092
-6.600E-07,0.216
-6.500E-07,0.232
-6.400E-07,0.108
-6.300E-07,-0.032
-6.200E-07,-0.156
-6.100E-07,-0.196
-6.000E-07,-0.164
-5.900E-07,0.012
-5.800E-07,0.140
-5.700E-07,0.192
-5.600E-07,0.132
-5.500E-07,0.024
-5.400E-07,-0.072
-5.300E-07,-0.096
-5.200E-07,-0.052
-5.100E-07,0.024
-5.000E-07,0.112
-4.900E-07,0.144
-4.800E-07,0.120
-4.700E-07,0.060
-4.600E-07,-0.020
-4.500E-07,-0.088
-4.400E-07,-0.100
-4.300E-07,-0.036
-4.200E-07,0.028
-4.100E-07,0.056
-4.000E-07,0.076
-3.900E-07,0.056
-3.800E-07,0.016
-3.700E-07,-0.036
-3.600E-07,-0.056
-3.500E-07,-0.052
-3.400E-07,-0.044
-3.300E-07,-0.004
-3.200E-07,0.004
-3.100E-07,0.000
-3.000E-07,0.020
-2.900E-07,0.028
-2.800E-07,0.024
-2.700E-07,0.016
-2.600E-07,0.016
-2.500E-07,0.020
-2.400E-07,0.056
-2.300E-07,0.076
-2.200E-07,0.104
-2.100E-07,0.100
-2.000E-07,0.092
-1.900E-07,0.076
-1.800E-07,0.072
-1.700E-07,0.064
-1.600E-07,0.076
-1.500E-07,0.088
-1.400E-07,0.092
-1.300E-07,0.088
-1.200E-07,0.088
-1.100E-07,0.068
-1.000E-07,0.056
-9.000E-08,0.060
-8.000E-08,0.060
-7.000E-08,-0.020
-6.000E-08,-0.168
-5.000E-08,-0.300
-4.000E-08,-0.476
-3.000E-08,-0.508
-2.000E-08,-0.136
-1.000E-08,0.064
0.000E+00,0.520
1.000E-08,0.292
2.000E-08,0.092
3.000E-08,-0.072
4.000E-08,-0.432
5.000E-08,-0.124
6.000E-08,-0.184
7.000E-08,0.092
8.000E-08,0.352
9.000E-08,0.332
1.000E-07,0.128
1.100E-07,-0.072
1.200E-07,-0.172
1.300E-07,-0.304
1.400E-07,-0.088
1.500E-07,0.112
1.600E-07,0.192
1.700E-07,0.128
1.800E-07,0.004
1.900E-07,-0.124
2.000E-07,-0.160
2.100E-07,-0.152
2.200E-07,-0.088
2.300E-07,0.032
2.400E-07,0.096
2.500E-07,0.120
2.600E-07,0.060
2.700E-07,0.000
2.800E-07,-0.112
2.900E-07,-0.100
3.000E-07,-0.060
3.100E-07,0.032
3.200E-07,0.088
3.300E-07,0.076
3.400E-07,0.044
3.500E-07,-0.016
3.600E-07,-0.044
3.700E-07,-0.052
3.800E-07,0.000
3.900E-07,0.044
4.000E-07,0.108
4.100E-07,0.124
4.200E-07,0.108
4.300E-07,0.044
4.400E-07,0.024
4.500E-07,0.020
4.600E-07,0.076
4.700E-07,0.124
4.800E-07,0.148
4.900E-07,0.168
5.000E-07,0.096
5.100E-07,0.000
5.200E-07,-0.060
5.300E-07,-0.132
5.400E-07,-0.052
5.500E-07,-0.056
5.600E-07,0.024
5.700E-07,-0.008
5.800E-07,-0.072
5.900E-07,-0.136
6.000E-07,-0.140
6.100E-07,-0.044
6.200E-07,0.040
6.300E-07,0.124
6.400E-07,0.096
6.500E-07,0.104
6.600E-07,0.028
6.700E-07,-0.040
6.800E-07,-0.044
6.900E-07,0.024
7.000E-07,0.068
7.100E-07,0.156
7.200E-07,0.176
7.300E-07,0.124
7.400E-07,0.072
7.500E-07,0.016
7.600E-07,0.004
7.700E-07,0.020
7.800E-07,0.108
7.900E-07,0.128
8.000E-07,0.092
8.100E-07,0.000
8.200E-07,-0.092
8.300E-07,-0.140
8.400E-07,-0.156
8.500E-07,-0.060
8.600E-07,0.000
8.700E-07,0.084
8.800E-07,0.080
8.900E-07,-0.060
9.000E-07,-0.064
9.100E-07,-0.176
9.200E-07,-0.200
9.300E-07,-0.248
9.400E-07,-0.076
9.500E-07,0.128
9.600E-07,0.088
9.700E-07,0.032
9.800E-07,-0.032
9.900E-07,-0.072
1.000E-06,-0.132
1.010E-06,-0.072
1.020E-06,0.076
1.030E-06,0.136
1.040E-06,0.160
1.050E-06,0.104
1.060E-06,0.040
1.070E-06,-0.048
1.080E-06,-0.056
1.090E-06,-0.020
1.100E-06,0.056
1.110E-06,0.176
1.120E-06,0.172
1.130E-06,0.104
1.140E-06,-0.072
1.150E-06,-0.148
1.160E-06,-0.180
1.170E-06,-0.072
1.180E-06,0.092
1.190E-06,0.160
1.200E-06,0.220
1.210E-06,0.224
1.220E-06,0.196
1.230E-06,0.104
1.240E-06,0.016
1.250E-06,-0.024
1.260E-06,-0.060
1.270E-06,-0.008
1.280E-06,0.000
1.290E-06,-0.004
1.300E-06,-0.128
1.310E-06,-0.196
1.320E-06,-0.232
1.330E-06,-0.168
1.340E-06,-0.088
1.350E-06,0.012
1.360E-06,0.072
1.370E-06,0.104
1.380E-06,0.076
1.390E-06,-0.032
1.400E-06,-0.076
1.410E-06,-0.076
1.420E-06,-0.012
1.430E-06,0.100
1.440E-06,0.188
1.450E-06,0.208
1.460E-06,0.188
1.470E-06,0.140
1.480E-06,0.100
1.490E-06,0.088
1.500E-06,0.128
1.510E-06,0.172
1.520E-06,0.200
1.530E-06,0.208
1.540E-06,0.172
1.550E-06,0.104
1.560E-06,0.012
1.570E-06,-0.068
1.580E-06,-0.104
1.590E-06,-0.132
1.600E-06,-0.076
1.610E-06,-0.012
1.620E-06,0.060
1.630E-06,-0.004
1.640E-06,-0.040
1.650E-06,-0.192
1.660E-06,-0.228
1.670E-06,-0.140
1.680E-06,-0.104
1.690E-06,-0.040
1.700E-06,0.044
1.710E-06,0.040
1.720E-06,-0.008
1.730E-06,-0.020
1.740E-06,-0.032
1.750E-06,-0.020
1.760E-06,-0.004
1.770E-06,0.012
1.780E-06,0.092
1.790E-06,0.096
1.800E-06,0.144
1.810E-06,0.124
1.820E-06,0.088
1.830E-06,0.104
1.840E-06,0.156
1.850E-06,0.200
1.860E-06,0.216
1.870E-06,0.212
1.880E-06,0.160
1.890E-06,0.124
1.900E-06,0.076
1.910E-06,0.056
1.920E-06,0.072
1.930E-06,0.136
1.940E-06,0.172
1.950E-06,0.192
1.960E-06,0.196
1.970E-06,0.132
1.980E-06,0.100
1.990E-06,0.052
2.000E-06,-0.004
2.010E-06,-0.132
2.020E-06,-0.204
2.030E-06,-0.196
2.040E-06,-0.180
2.050E-06,-0.152
2.060E-06,-0.072
2.070E-06,0.060
2.080E-06,0.080
2.090E-06,0.168
2.100E-06,0.060
2.110E-06,0.120
2.120E-06,0.064
2.130E-06,0.060
2.140E-06,0.120
2.150E-06,0.192
2.160E-06,0.212
2.170E-06,0.132
2.180E-06,0.160
2.190E-06,0.124
2.200E-06,0.092
2.210E-06,0.032
2.220E-06,-0.048
2.230E-06,-0.164
2.240E-06,-0.248
2.250E-06,-0.232
2.260E-06,-0.368
2.270E-06,-0.416
2.280E-06,-0.452
2.290E-06,-0.288
2.300E-06,0.092
2.310E-06,0.176
2.320E-06,0.464
2.330E-06,0.092
2.340E-06,0.208
2.350E-06,-0.012
2.360E-06,-0.100
2.370E-06,-0.196
2.380E-06,-0.084
2.390E-06,0.124
2.400E-06,0.088
2.410E-06,0.056
2.420E-06,-0.008
2.430E-06,-0.008
2.440E-06,0.012
2.450E-06,0.192
2.460E-06,0.304
2.470E-06,0.352
2.480E-06,0.204
2.490E-06,-0.040
2.500E-06,-0.220
2.510E-06,-0.312
2.520E-06,-0.228
2.530E-06,-0.156
2.540E-06,-0.056
2.550E-06,0.036
2.560E-06,-0.068
2.570E-06,-0.260
2.580E-06,-0.224
2.590E-06,-0.156
2.600E-06,-0.180
2.610E-06,-0.016
2.620E-06,0.048
2.630E-06,0.096
2.640E-06,0.056
2.650E-06,0.024
2.660E-06,0.000
2.670E-06,0.056
2.680E-06,0.108
2.690E-06,0.128
2.700E-06,0.200
2.710E-06,0.208
2.720E-06,0.216
2.730E-06,0.196
2.740E-06,0.204
2.750E-06,0.188
2.760E-06,0.164
2.770E-06,0.168
2.780E-06,0.184
2.790E-06,0.256
2.800E-06,0.228
2.810E-06,0.252
2.820E-06,0.196
2.830E-06,0.204
2.840E-06,0.192
2.850E-06,0.188
2.860E-06,0.204
2.870E-06,0.200
2.880E-06,0.212
2.890E-06,0.208
2.900E-06,0.212
2.910E-06,0.188
2.920E-06,0.188
2.930E-06,0.176
2.940E-06,0.192
2.950E-06,0.200
2.960E-06,0.228
2.970E-06,0.240
2.980E-06,0.228
2.990E-06,0.184
3.000E-06,0.096
3.010E-06,-0.012
3.020E-06,-0.208
3.030E-06,-0.140
3.040E-06,0.024
3.050E-06,-0.016
3.060E-06,0.224
3.070E-06,0.052
3.080E-06,0.032
3.090E-06,-0.084
3.100E-06,0.028
3.110E-06,-0.016
3.120E-06,-0.096
3.130E-06,0.136
3.140E-06,0.264
3.150E-06,0.100
3.160E-06,0.156
3.170E-06,0.036
3.180E-06,-0.040
3.190E-06,-0.152
3.200E-06,-0.100
3.210E-06,0.228
3.220E-06,0.356
3.230E-06,0.396
3.240E-06,0.288
3.250E-06,0.096
3.260E-06,-0.060
3.270E-06,-0.040
3.280E-06,0.012
3.290E-06,0.024
3.300E-06,0.064
3.310E-06,-0.036
3.320E-06,-0.184
3.330E-06,-0.272
3.340E-06,-0.452
3.350E-06,-0.428
3.360E-06,-0.336
3.370E-06,-0.152
3.380E-06,-0.060
3.390E-06,-0.052
3.400E-06,0.232
3.410E-06,0.128
3.420E-06,0.144
3.430E-06,0.340
3.440E-06,0.244
3.450E-06,0.212
3.460E-06,0.104
3.470E-06,0.140
3.480E-06,0.296
3.490E-06,0.336
3.500E-06,0.296
3.510E-06,0.224
3.520E-06,0.164
3.530E-06,0.124
3.540E-06,0.136
3.550E-06,0.140
3.560E-06,0.204
3.570E-06,0.236
3.580E-06,0.276
3.590E-06,0.276
3.600E-06,0.252
3.610E-06,0.176
3.620E-06,0.136
3.630E-06,0.140
3.640E-06,0.188
3.650E-06,0.244
3.660E-06,0.272
3.670E-06,0.272
3.680E-06,0.212
3.690E-06,0.168
3.700E-06,0.128
3.710E-06,0.116
3.720E-06,0.140
3.730E-06,0.188
3.740E-06,0.224
3.750E-06,0.236
3.760E-06,0.224
3.770E-06,0.192
3.780E-06,0.172
3.790E-06,0.164
3.800E-06,0.184
3.810E-06,0.224
3.820E-06,0.240
3.830E-06,0.244
3.840E-06,0.224
3.850E-06,0.196
3.860E-06,0.172
3.870E-06,0.160
3.880E-06,0.160
3.890E-06,0.192
3.900E-06,0.208
3.910E-06,0.228
3.920E-06,0.220
3.930E-06,0.204
3.940E-06,0.188
3.950E-06,0.172
3.960E-06,0.176
3.970E-06,0.192
3.980E-06,0.204
3.990E-06,0.220
4.000E-06,0.216
4.010E-06,0.204
4.020E-06,0.192
4.030E-06,0.176
4.040E-06,0.180
4.050E-06,0.192
4.060E-06,0.200
4.070E-06,0.212
4.080E-06,0.208
4.090E-06,0.208
4.100E-06,0.204
4.110E-06,0.192
4.120E-06,0.188
4.130E-06,0.192
4.140E-06,0.196
4.150E-06,0.204
4.160E-06,0.200
4.170E-06,0.196
4.180E-06,0.188
4.190E-06,0.188
4.200E-06,0.184
4.210E-06,0.184
4.220E-06,0.192
4.230E-06,0.192
4.240E-06,0.188
4.250E-06,0.196
4.260E-06,0.192
4.270E-06,0.196
4.280E-06,0.188
4.290E-06,0.188
4.300E-06,0.192
4.310E-06,0.188
4.320E-06,0.192
4.330E-06,0.188
4.340E-06,0.188
4.350E-06,0.192
4.360E-06,0.192
4.370E-06,0.176
4.380E-06,0.184
4.390E-06,0.192
4.400E-06,0.188
4.410E-06,0.188
4.420E-06,0.192
4.430E-06,0.188
4.440E-06,0.188
4.450E-06,0.184
4.460E-06,0.188
4.470E-06,0.192
4.480E-06,0.184
4.490E-06,0.180
4.500E-06,0.180
4.510E-06,0.176
4.520E-06,0.176
4.530E-06,0.184
4.540E-06,0.192
4.550E-06,0.180
4.560E-06,0.184
4.570E-06,0.180
4.580E-06,0.176
4.590E-06,0.176
4.600E-06,0.176
4.610E-06,0.180
4.620E-06,0.180
4.630E-06,0.180
4.640E-06,0.176
4.650E-06,0.176
4.660E-06,0.164
4.670E-06,0.168
4.680E-06,0.172
4.690E-06,0.176
4.700E-06,0.180
4.710E-06,0.180
4.720E-06,0.180
4.730E-06,0.180
4.740E-06,0.172
4.750E-06,0.172
4.760E-06,0.172
4.770E-06,0.176
4.780E-06,0.176
4.790E-06,0.172
4.800E-06,0.176
4.810E-06,0.176
4.820E-06,0.176
4.830E-06,0.160
4.840E-06,0.164
4.850E-06,0.160
4.860E-06,0.160
4.870E-06,0.168
4.880E-06,0.176
4.890E-06,0.180
4.900E-06,0.168
4.910E-06,0.164
4.920E-06,0.164
4.930E-06,0.164
4.940E-06,0.168
4.950E-06,0.160
4.960E-06,0.164
4.970E-06,0.164
4.980E-06,0.156
4.990E-06,0.156
5.000E-06,0.148
5.010E-06,0.152
5.020E-06,0.160
5.030E-06,0.156
5.040E-06,0.160
5.050E-06,0.160
5.060E-06,0.160
5.070E-06,0.160
5.080E-06,0.156
5.090E-06,0.152
5.100E-06,0.156
5.110E-06,0.156
5.120E-06,0.148
5.130E-06,0.148
5.140E-06,0.152
5.150E-06,0.152
5.160E-06,0.152
5.170E-06,0.160
5.180E-06,0.152
5.190E-06,0.156
5.200E-06,0.152
5.210E-06,0.160
5.220E-06,0.156
5.230E-06,0.164
5.240E-06,0.160
5.250E-06,0.164
5.260E-06,0.156
5.270E-06,0.156
5.280E-06,0.152
5.290E-06,0.152
5.300E-06,0.160
5.310E-06,0.160
5.320E-06,0.160
5.330E-06,0.160
5.340E-06,0.152
5.350E-06,0.156
5.360E-06,0.152
5.370E-06,0.152
5.380E-06,0.152
5.390E-06,0.152
5.400E-06,0.156
5.410E-06,0.152
5.420E-06,0.152
5.430E-06,0.152
5.440E-06,0.140
5.450E-06,0.140
5.460E-06,0.140
5.470E-06,0.140
5.480E-06,0.140
5.490E-06,0.144
5.500E-06,0.148
5.510E-06,0.140
5.520E-06,0.144
5.530E-06,0.140
5.540E-06,0.140
5.550E-06,0.136
5.560E-06,0.140
5.570E-06,0.144
5.580E-06,0.140
5.590E-06,0.140
5.600E-06,0.140
5.610E-06,0.140
5.620E-06,0.136
5.630E-06,0.136
5.640E-06,0.132
5.650E-06,0.140
5.660E-06,0.136
5.670E-06,0.136
5.680E-06,0.140
5.690E-06,0.136
5.700E-06,0.140
5.710E-06,0.132
5.720E-06,0.132
5.730E-06,0.132
5.740E-06,0.136
5.750E-06,0.136
5.760E-06,0.136
5.770E-06,0.136
5.780E-06,0.140
5.790E-06,0.140
5.800E-06,0.140
5.810E-06,0.136
5.820E-06,0.140
5.830E-06,0.140
5.840E-06,0.136
5.850E-06,0.132
5.860E-06,0.132
5.870E-06,0.132
5.880E-06,0.132
5.890E-06,0.132
5.900E-06,0.128
5.910E-06,0.132
5.920E-06,0.128
5.930E-06,0.132
5.940E-06,0.128
5.950E-06,0.132
5.960E-06,0.132
5.970E-06,0.132
5.980E-06,0.124
5.990E-06,0.124
6.000E-06,0.120
6.010E-06,0.124
6.020E-06,0.124
6.030E-06,0.124
6.040E-06,0.124
6.050E-06,0.128
6.060E-06,0.128
6.070E-06,0.120
6.080E-06,0.120
6.090E-06,0.124
6.100E-06,0.128
6.110E-06,0.124
6.120E-06,0.120
6.130E-06,0.120
6.140E-06,0.116
6.150E-06,0.116
6.160E-06,0.112
6.170E-06,0.116
6.180E-06,0.116
6.190E-06,0.116
6.200E-06,0.120
6.210E-06,0.120
6.220E-06,0.108
6.230E-06,0.104
6.240E-06,0.108
6.250E-06,0.112
6.260E-06,0.108
6.270E-06,0.112
6.280E-06,0.120
6.290E-06,0.120
6.300E-06,0.120
6.310E-06,0.112
6.320E-06,0.112
6.330E-06,0.104
6.340E-06,0.108
6.350E-06,0.108
6.360E-06,0.108
6.370E-06,0.108
6.380E-06,0.112
6.390E-06,0.112
6.400E-06,0.108
6.410E-06,0.100
6.420E-06,0.104
6.430E-06,0.100
6.440E-06,0.100
6.450E-06,0.096
6.460E-06,0.100
6.470E-06,0.108
6.480E-06,0.100
6.490E-06,0.096
6.500E-06,0.096
6.510E-06,0.096
6.520E-06,0.092
6.530E-06,0.092
6.540E-06,0.092
6.550E-06,0.092
6.560E-06,0.096
6.570E-06,0.100
6.580E-06,0.100
6.590E-06,0.096
6.600E-06,0.096
6.610E-06,0.100
6.620E-06,0.092
6.630E-06,0.096
6.640E-06,0.088
6.650E-06,0.092
6.660E-06,0.096
6.670E-06,0.096
6.680E-06,0.096
6.690E-06,0.088
6.700E-06,0.092
6.710E-06,0.088
6.720E-06,0.088
6.730E-06,0.092
6.740E-06,0.092
6.750E-06,0.088
6.760E-06,0.092
6.770E-06,0.088
6.780E-06,0.088
6.790E-06,0.088
6.800E-06,0.092
6.810E-06,0.088
6.820E-06,0.088
6.830E-06,0.092
6.840E-06,0.092
6.850E-06,0.084
6.860E-06,0.084
6.870E-06,0.088
6.880E-06,0.088
6.890E-06,0.092
6.900E-06,0.088
6.910E-06,0.092
6.920E-06,0.088
6.930E-06,0.084
6.940E-06,0.088
6.950E-06,0.084
6.960E-06,0.088
6.970E-06,0.080
6.980E-06,0.080
6.990E-06,0.076
7.000E-06,0.080
7.010E-06,0.084
7.020E-06,0.084
7.030E-06,0.076
7.040E-06,0.080
7.050E-06,0.084
7.060E-06,0.080
7.070E-06,0.076
7.080E-06,0.080
7.090E-06,0.076
7.100E-06,0.080
7.110E-06,0.072
7.120E-06,0.076
7.130E-06,0.072
7.140E-06,0.076
7.150E-06,0.076
7.160E-06,0.072
7.170E-06,0.076
7.180E-06,0.072
7.190E-06,0.072
7.200E-06,0.072
7.210E-06,0.072
7.220E-06,0.072
7.230E-06,0.072
7.240E-06,0.076
7.250E-06,0.072
7.260E-06,0.064
7.270E-06,0.068
7.280E-06,0.064
7.290E-06,0.068
7.300E-06,0.068
7.310E-06,0.076
7.320E-06,0.072
7.330E-06,0.068
7.340E-06,0.064
7.350E-06,0.068
7.360E-06,0.064
7.370E-06,0.064
7.380E-06,0.064
7.390E-06,0.072
7.400E-06,0.064
7.410E-06,0.068
7.420E-06,0.064
7.430E-06,0.056
7.440E-06,0.060
7.450E-06,0.064
7.460E-06,0.060
7.470E-06,0.064
7.480E-06,0.068
7.490E-06,0.068
7.500E-06,0.068
7.510E-06,0.060
7.520E-06,0.060
7.530E-06,0.060
7.540E-06,0.064
7.550E-06,0.060
7.560E-06,0.068
7.570E-06,0.068
7.580E-06,0.068
7.590E-06,0.064
7.600E-06,0.060
7.610E-06,0.064
7.620E-06,0.060
7.630E-06,0.056
7.640E-06,0.064
7.650E-06,0.064
7.660E-06,0.060
7.670E-06,0.060
7.680E-06,0.056
7.690E-06,0.056
7.700E-06,0.056
7.710E-06,0.056
7.720E-06,0.056
7.730E-06,0.056
7.740E-06,0.056
7.750E-06,0.060
7.760E-06,0.060
7.770E-06,0.056
