mediciones/Mediciones filtradas (saque las feas)/6-10/3.6/WaveData5637.csv

#timebase=2000000(ps)
,#voltbase=100000(mv/100)
#size=4000
-4.200E-06,-0.020
-4.190E-06,-0.004
-4.180E-06,0.008
-4.170E-06,0.024
-4.160E-06,0.024
-4.150E-06,0.016
-4.140E-06,0.004
-4.130E-06,-0.004
-4.120E-06,-0.004
-4.110E-06,-0.004
-4.100E-06,0.004
-4.090E-06,0.012
-4.080E-06,0.020
-4.070E-06,0.020
-4.060E-06,0.016
-4.050E-06,-0.004
-4.040E-06,0.000
-4.030E-06,0.008
-4.020E-06,0.016
-4.010E-06,0.028
-4.000E-06,0.044
-3.990E-06,0.056
-3.980E-06,0.056
-3.970E-06,0.044
-3.960E-06,-0.032
-3.950E-06,-0.020
-3.940E-06,-0.076
-3.930E-06,-0.024
-3.920E-06,0.040
-3.910E-06,0.008
-3.900E-06,0.068
-3.890E-06,-0.120
-3.880E-06,0.036
-3.870E-06,-0.068
-3.860E-06,0.004
-3.850E-06,-0.008
-3.840E-06,0.012
-3.830E-06,0.064
-3.820E-06,-0.092
-3.810E-06,-0.016
-3.800E-06,-0.028
-3.790E-06,0.016
-3.780E-06,0.008
-3.770E-06,0.044
-3.760E-06,-0.004
-3.750E-06,0.012
-3.740E-06,0.012
-3.730E-06,-0.004
-3.720E-06,0.012
-3.710E-06,-0.004
-3.700E-06,-0.004
-3.690E-06,-0.008
-3.680E-06,0.008
-3.670E-06,0.004
-3.660E-06,0.032
-3.650E-06,0.012
-3.640E-06,0.000
-3.630E-06,-0.004
-3.620E-06,-0.008
-3.610E-06,-0.008
-3.600E-06,-0.008
-3.590E-06,0.008
-3.580E-06,0.008
-3.570E-06,0.016
-3.560E-06,0.004
-3.550E-06,-0.004
-3.540E-06,-0.012
-3.530E-06,-0.004
-3.520E-06,0.004
-3.510E-06,0.016
-3.500E-06,0.020
-3.490E-06,0.008
-3.480E-06,0.008
-3.470E-06,-0.004
-3.460E-06,-0.008
-3.450E-06,-0.008
-3.440E-06,0.012
-3.430E-06,0.016
-3.420E-06,0.024
-3.410E-06,0.008
-3.400E-06,0.008
-3.390E-06,0.000
-3.380E-06,-0.004
-3.370E-06,-0.004
-3.360E-06,0.008
-3.350E-06,0.012
-3.340E-06,0.012
-3.330E-06,0.020
-3.320E-06,0.024
-3.310E-06,0.012
-3.300E-06,0.008
-3.290E-06,0.016
-3.280E-06,0.028
-3.270E-06,0.036
-3.260E-06,0.036
-3.250E-06,0.024
-3.240E-06,0.020
-3.230E-06,0.008
-3.220E-06,0.012
-3.210E-06,0.004
-3.200E-06,-0.036
-3.190E-06,-0.028
-3.180E-06,-0.052
-3.170E-06,-0.044
-3.160E-06,-0.024
-3.150E-06,0.028
-3.140E-06,0.068
-3.130E-06,0.012
-3.120E-06,0.008
-3.110E-06,-0.036
-3.100E-06,-0.032
-3.090E-06,-0.016
-3.080E-06,0.044
-3.070E-06,0.048
-3.060E-06,0.044
-3.050E-06,0.016
-3.040E-06,-0.040
-3.030E-06,-0.040
-3.020E-06,-0.040
-3.010E-06,0.004
-3.000E-06,0.032
-2.990E-06,0.032
-2.980E-06,0.016
-2.970E-06,-0.004
-2.960E-06,-0.008
-2.950E-06,-0.008
-2.940E-06,0.000
-2.930E-06,0.004
-2.920E-06,0.020
-2.910E-06,0.012
-2.900E-06,0.016
-2.890E-06,0.008
-2.880E-06,0.016
-2.870E-06,0.024
-2.860E-06,0.032
-2.850E-06,0.024
-2.840E-06,0.036
-2.830E-06,0.012
-2.820E-06,0.012
-2.810E-06,-0.012
-2.800E-06,0.036
-2.790E-06,-0.048
-2.780E-06,-0.040
-2.770E-06,-0.052
-2.760E-06,-0.024
-2.750E-06,-0.008
-2.740E-06,0.032
-2.730E-06,0.028
-2.720E-06,-0.012
-2.710E-06,0.000
-2.700E-06,-0.008
-2.690E-06,-0.024
-2.680E-06,-0.004
-2.670E-06,0.024
-2.660E-06,0.028
-2.650E-06,0.024
-2.640E-06,0.020
-2.630E-06,0.016
-2.620E-06,0.008
-2.610E-06,0.012
-2.600E-06,0.028
-2.590E-06,0.040
-2.580E-06,0.060
-2.570E-06,0.072
-2.560E-06,0.068
-2.550E-06,0.004
-2.540E-06,-0.016
-2.530E-06,-0.060
-2.520E-06,-0.040
-2.510E-06,-0.024
-2.500E-06,0.000
-2.490E-06,0.024
-2.480E-06,0.012
-2.470E-06,-0.012
-2.460E-06,-0.036
-2.450E-06,-0.044
-2.440E-06,-0.040
-2.430E-06,-0.004
-2.420E-06,0.008
-2.410E-06,0.012
-2.400E-06,0.008
-2.390E-06,-0.004
-2.380E-06,-0.008
-2.370E-06,-0.012
-2.360E-06,-0.008
-2.350E-06,0.000
-2.340E-06,0.012
-2.330E-06,0.012
-2.320E-06,0.008
-2.310E-06,0.008
-2.300E-06,-0.004
-2.290E-06,0.000
-2.280E-06,-0.008
-2.270E-06,0.000
-2.260E-06,0.012
-2.250E-06,0.024
-2.240E-06,0.016
-2.230E-06,0.016
-2.220E-06,0.012
-2.210E-06,0.012
-2.200E-06,0.008
-2.190E-06,0.012
-2.180E-06,0.016
-2.170E-06,0.028
-2.160E-06,0.028
-2.150E-06,0.032
-2.140E-06,0.028
-2.130E-06,0.032
-2.120E-06,0.040
-2.110E-06,0.044
-2.100E-06,0.056
-2.090E-06,0.068
-2.080E-06,0.072
-2.070E-06,0.076
-2.060E-06,0.072
-2.050E-06,0.084
-2.040E-06,0.096
-2.030E-06,0.076
-2.020E-06,0.056
-2.010E-06,-0.176
-2.000E-06,-0.300
-1.990E-06,-0.348
-1.980E-06,-0.292
-1.970E-06,0.004
-1.960E-06,0.160
-1.950E-06,0.256
-1.940E-06,0.224
-1.930E-06,-0.076
-1.920E-06,-0.272
-1.910E-06,-0.252
-1.900E-06,-0.092
-1.890E-06,0.104
-1.880E-06,0.196
-1.870E-06,0.144
-1.860E-06,0.012
-1.850E-06,-0.068
-1.840E-06,-0.080
-1.830E-06,-0.088
-1.820E-06,-0.020
-1.810E-06,0.048
-1.800E-06,0.096
-1.790E-06,0.072
-1.780E-06,0.008
-1.770E-06,-0.040
-1.760E-06,-0.056
-1.750E-06,-0.036
-1.740E-06,0.004
-1.730E-06,0.044
-1.720E-06,0.048
-1.710E-06,0.024
-1.700E-06,0.004
-1.690E-06,-0.024
-1.680E-06,-0.032
-1.670E-06,-0.016
-1.660E-06,0.004
-1.650E-06,0.024
-1.640E-06,0.024
-1.630E-06,0.024
-1.620E-06,0.004
-1.610E-06,-0.012
-1.600E-06,-0.016
-1.590E-06,-0.008
-1.580E-06,0.012
-1.570E-06,0.028
-1.560E-06,0.024
-1.550E-06,0.012
-1.540E-06,0.004
-1.530E-06,-0.004
-1.520E-06,-0.012
-1.510E-06,-0.008
-1.500E-06,0.008
-1.490E-06,0.024
-1.480E-06,0.032
-1.470E-06,0.032
-1.460E-06,0.008
-1.450E-06,0.000
-1.440E-06,-0.004
-1.430E-06,0.004
-1.420E-06,0.020
-1.410E-06,0.036
-1.400E-06,0.040
-1.390E-06,0.036
-1.380E-06,0.016
-1.370E-06,0.008
-1.360E-06,0.004
-1.350E-06,0.016
-1.340E-06,0.040
-1.330E-06,0.068
-1.320E-06,0.072
-1.310E-06,0.056
-1.300E-06,0.028
-1.290E-06,0.008
-1.280E-06,0.008
-1.270E-06,0.024
-1.260E-06,0.040
-1.250E-06,0.060
-1.240E-06,0.056
-1.230E-06,0.044
-1.220E-06,0.052
-1.210E-06,0.028
-1.200E-06,0.068
-1.190E-06,0.056
-1.180E-06,0.044
-1.170E-06,0.036
-1.160E-06,0.032
-1.150E-06,0.024
-1.140E-06,0.036
-1.130E-06,0.064
-1.120E-06,0.048
-1.110E-06,0.028
-1.100E-06,0.012
-1.090E-06,0.028
-1.080E-06,-0.012
-1.070E-06,-0.052
-1.060E-06,-0.108
-1.050E-06,-0.020
-1.040E-06,-0.024
-1.030E-06,0.020
-1.020E-06,0.048
-1.010E-06,0.020
-1.000E-06,0.012
-9.900E-07,-0.008
-9.800E-07,-0.020
-9.700E-07,-0.052
-9.600E-07,0.004
-9.500E-07,0.036
-9.400E-07,0.088
-9.300E-07,0.096
-9.200E-07,0.100
-9.100E-07,0.100
-9.000E-07,0.024
-8.900E-07,-0.088
-8.800E-07,-0.224
-8.700E-07,-0.224
-8.600E-07,-0.196
-8.500E-07,-0.100
-8.400E-07,-0.024
-8.300E-07,0.092
-8.200E-07,0.088
-8.100E-07,0.080
-8.000E-07,0.028
-7.900E-07,-0.072
-7.800E-07,-0.108
-7.700E-07,-0.020
-7.600E-07,0.084
-7.500E-07,0.156
-7.400E-07,0.168
-7.300E-07,0.124
-7.200E-07,0.096
-7.100E-07,0.008
-7.000E-07,-0.108
-6.900E-07,-0.248
-6.800E-07,-0.284
-6.700E-07,-0.216
-6.600E-07,-0.096
-6.500E-07,0.044
-6.400E-07,0.124
-6.300E-07,0.120
-6.200E-07,0.020
-6.100E-07,-0.044
-6.000E-07,-0.164
-5.900E-07,-0.144
-5.800E-07,-0.028
-5.700E-07,0.064
-5.600E-07,0.136
-5.500E-07,0.092
-5.400E-07,0.012
-5.300E-07,-0.068
-5.200E-07,-0.096
-5.100E-07,-0.092
-5.000E-07,-0.016
-4.900E-07,0.056
-4.800E-07,0.096
-4.700E-07,0.084
-4.600E-07,0.020
-4.500E-07,-0.040
-4.400E-07,-0.076
-4.300E-07,-0.064
-4.200E-07,-0.004
-4.100E-07,0.044
-4.000E-07,0.076
-3.900E-07,0.072
-3.800E-07,0.036
-3.700E-07,-0.020
-3.600E-07,-0.044
-3.500E-07,-0.040
-3.400E-07,0.000
-3.300E-07,0.048
-3.200E-07,0.080
-3.100E-07,0.084
-3.000E-07,0.064
-2.900E-07,0.032
-2.800E-07,0.016
-2.700E-07,0.028
-2.600E-07,0.084
-2.500E-07,0.132
-2.400E-07,0.164
-2.300E-07,0.176
-2.200E-07,0.156
-2.100E-07,0.128
-2.000E-07,0.092
-1.900E-07,0.096
-1.800E-07,0.128
-1.700E-07,0.168
-1.600E-07,0.196
-1.500E-07,0.196
-1.400E-07,0.196
-1.300E-07,0.156
-1.200E-07,0.144
-1.100E-07,0.192
-1.000E-07,-0.108
-9.000E-08,-0.512
-8.000E-08,-0.508
-7.000E-08,-0.332
-6.000E-08,-0.252
-5.000E-08,-0.272
-4.000E-08,-0.332
-3.000E-08,-0.144
-2.000E-08,0.044
-1.000E-08,0.052
0.000E+00,0.124
1.000E-08,0.220
2.000E-08,0.100
3.000E-08,-0.044
4.000E-08,-0.304
5.000E-08,-0.400
6.000E-08,0.032
7.000E-08,0.224
8.000E-08,0.224
9.000E-08,0.128
1.000E-07,0.000
1.100E-07,-0.076
1.200E-07,-0.036
1.300E-07,-0.100
1.400E-07,-0.104
1.500E-07,0.004
1.600E-07,0.060
1.700E-07,0.124
1.800E-07,0.140
1.900E-07,0.084
2.000E-07,-0.052
2.100E-07,-0.076
2.200E-07,-0.096
2.300E-07,-0.040
2.400E-07,0.012
2.500E-07,0.084
2.600E-07,0.112
2.700E-07,0.104
2.800E-07,0.060
2.900E-07,-0.004
3.000E-07,-0.024
3.100E-07,-0.040
3.200E-07,0.004
3.300E-07,0.076
3.400E-07,0.140
3.500E-07,0.168
3.600E-07,0.156
3.700E-07,0.124
3.800E-07,0.092
3.900E-07,0.088
4.000E-07,0.072
4.100E-07,0.024
4.200E-07,-0.092
4.300E-07,-0.080
4.400E-07,-0.176
4.500E-07,-0.116
4.600E-07,-0.036
4.700E-07,0.048
4.800E-07,0.080
4.900E-07,0.068
5.000E-07,0.012
5.100E-07,-0.072
5.200E-07,-0.068
5.300E-07,-0.028
5.400E-07,0.032
5.500E-07,0.088
5.600E-07,0.088
5.700E-07,0.040
5.800E-07,-0.020
5.900E-07,-0.056
6.000E-07,-0.020
6.100E-07,0.068
6.200E-07,0.064
6.300E-07,0.164
6.400E-07,0.216
6.500E-07,0.160
6.600E-07,0.004
6.700E-07,-0.196
6.800E-07,-0.340
6.900E-07,-0.288
7.000E-07,-0.108
7.100E-07,-0.036
7.200E-07,0.096
7.300E-07,0.180
7.400E-07,0.072
7.500E-07,-0.036
7.600E-07,-0.192
7.700E-07,-0.204
7.800E-07,-0.088
7.900E-07,0.016
8.000E-07,0.100
8.100E-07,0.136
8.200E-07,0.072
8.300E-07,-0.032
8.400E-07,-0.108
8.500E-07,-0.136
8.600E-07,-0.080
8.700E-07,0.004
8.800E-07,0.076
8.900E-07,0.120
9.000E-07,0.096
9.100E-07,0.004
9.200E-07,-0.064
9.300E-07,-0.084
9.400E-07,-0.056
9.500E-07,0.036
9.600E-07,0.116
9.700E-07,0.164
9.800E-07,0.140
9.900E-07,0.076
1.000E-06,0.012
1.010E-06,-0.024
1.020E-06,-0.004
1.030E-06,0.064
1.040E-06,0.136
1.050E-06,0.196
1.060E-06,0.196
1.070E-06,0.196
1.080E-06,0.148
1.090E-06,0.124
1.100E-06,0.088
1.110E-06,0.112
1.120E-06,0.156
1.130E-06,0.180
1.140E-06,0.192
1.150E-06,0.164
1.160E-06,0.132
1.170E-06,0.096
1.180E-06,0.088
1.190E-06,0.100
1.200E-06,0.132
1.210E-06,0.160
1.220E-06,0.220
1.230E-06,0.204
1.240E-06,0.100
1.250E-06,0.248
1.260E-06,-0.508
1.270E-06,-0.512
1.280E-06,-0.512
1.290E-06,-0.508
1.300E-06,-0.172
1.310E-06,0.544
1.320E-06,0.540
1.330E-06,0.520
1.340E-06,-0.012
1.350E-06,-0.496
1.360E-06,-0.508
1.370E-06,-0.512
1.380E-06,0.000
1.390E-06,0.544
1.400E-06,0.544
1.410E-06,0.540
1.420E-06,0.072
1.430E-06,-0.512
1.440E-06,-0.508
1.450E-06,-0.512
1.460E-06,-0.060
1.470E-06,0.420
1.480E-06,0.544
1.490E-06,0.356
1.500E-06,0.036
1.510E-06,-0.276
1.520E-06,-0.472
1.530E-06,-0.356
1.540E-06,-0.088
1.550E-06,0.292
1.560E-06,0.436
1.570E-06,0.328
1.580E-06,0.060
1.590E-06,-0.248
1.600E-06,-0.348
1.610E-06,-0.320
1.620E-06,-0.040
1.630E-06,0.208
1.640E-06,0.312
1.650E-06,0.284
1.660E-06,0.096
1.670E-06,-0.136
1.680E-06,-0.272
1.690E-06,-0.224
1.700E-06,-0.084
1.710E-06,0.104
1.720E-06,0.252
1.730E-06,0.240
1.740E-06,0.128
1.750E-06,-0.032
1.760E-06,-0.176
1.770E-06,-0.200
1.780E-06,-0.064
1.790E-06,0.128
1.800E-06,0.232
1.810E-06,0.272
1.820E-06,0.188
1.830E-06,0.060
1.840E-06,-0.044
1.850E-06,-0.036
1.860E-06,0.056
1.870E-06,0.204
1.880E-06,0.320
1.890E-06,0.372
1.900E-06,0.320
1.910E-06,0.208
1.920E-06,0.092
1.930E-06,0.032
1.940E-06,0.056
1.950E-06,0.164
1.960E-06,0.280
1.970E-06,0.344
1.980E-06,0.324
1.990E-06,0.236
2.000E-06,0.128
2.010E-06,0.056
2.020E-06,0.040
2.030E-06,0.116
2.040E-06,0.204
2.050E-06,0.272
2.060E-06,0.272
2.070E-06,0.172
2.080E-06,-0.024
2.090E-06,-0.200
2.100E-06,-0.312
2.110E-06,-0.212
2.120E-06,0.076
2.130E-06,0.164
2.140E-06,0.320
2.150E-06,0.168
2.160E-06,-0.024
2.170E-06,-0.200
2.180E-06,-0.248
2.190E-06,-0.064
2.200E-06,0.116
2.210E-06,0.348
2.220E-06,0.484
2.230E-06,0.300
2.240E-06,0.044
2.250E-06,-0.332
2.260E-06,-0.508
2.270E-06,-0.496
2.280E-06,-0.376
2.290E-06,-0.008
2.300E-06,0.164
2.310E-06,0.352
2.320E-06,0.372
2.330E-06,0.092
2.340E-06,-0.172
2.350E-06,-0.384
2.360E-06,-0.304
2.370E-06,-0.128
2.380E-06,0.144
2.390E-06,0.092
2.400E-06,0.160
2.410E-06,-0.164
2.420E-06,-0.296
2.430E-06,-0.472
2.440E-06,-0.328
2.450E-06,-0.040
2.460E-06,0.076
2.470E-06,0.244
2.480E-06,0.160
2.490E-06,0.036
2.500E-06,-0.072
2.510E-06,-0.072
2.520E-06,-0.040
2.530E-06,0.180
2.540E-06,0.300
2.550E-06,0.380
2.560E-06,0.336
2.570E-06,0.220
2.580E-06,0.120
2.590E-06,0.036
2.600E-06,0.060
2.610E-06,0.168
2.620E-06,0.316
2.630E-06,0.368
2.640E-06,0.356
2.650E-06,0.268
2.660E-06,0.160
2.670E-06,0.088
2.680E-06,0.088
2.690E-06,0.144
2.700E-06,0.240
2.710E-06,0.312
2.720E-06,0.328
2.730E-06,0.296
2.740E-06,0.208
2.750E-06,0.144
2.760E-06,0.112
2.770E-06,0.136
2.780E-06,0.188
2.790E-06,0.240
2.800E-06,0.256
2.810E-06,0.220
2.820E-06,0.168
2.830E-06,0.104
2.840E-06,0.068
2.850E-06,0.060
2.860E-06,0.068
2.870E-06,0.088
2.880E-06,0.072
2.890E-06,0.024
2.900E-06,0.000
2.910E-06,-0.012
2.920E-06,0.064
2.930E-06,0.128
2.940E-06,0.184
2.950E-06,0.244
2.960E-06,0.220
2.970E-06,0.144
2.980E-06,0.064
2.990E-06,0.064
3.000E-06,0.100
3.010E-06,0.172
3.020E-06,0.284
3.030E-06,0.324
3.040E-06,0.284
3.050E-06,0.208
3.060E-06,0.140
3.070E-06,0.112
3.080E-06,0.144
3.090E-06,0.204
3.100E-06,0.260
3.110E-06,0.288
3.120E-06,0.276
3.130E-06,0.220
3.140E-06,0.168
3.150E-06,0.140
3.160E-06,0.152
3.170E-06,0.208
3.180E-06,0.256
3.190E-06,0.280
3.200E-06,0.272
3.210E-06,0.228
3.220E-06,0.184
3.230E-06,0.156
3.240E-06,0.164
3.250E-06,0.188
3.260E-06,0.228
3.270E-06,0.252
3.280E-06,0.252
3.290E-06,0.224
3.300E-06,0.192
3.310E-06,0.172
3.320E-06,0.168
3.330E-06,0.180
3.340E-06,0.208
3.350E-06,0.232
3.360E-06,0.244
3.370E-06,0.232
3.380E-06,0.200
3.390E-06,0.188
3.400E-06,0.172
3.410E-06,0.172
3.420E-06,0.192
3.430E-06,0.220
3.440E-06,0.220
3.450E-06,0.220
3.460E-06,0.204
3.470E-06,0.192
3.480E-06,0.172
3.490E-06,0.168
3.500E-06,0.180
3.510E-06,0.204
3.520E-06,0.208
3.530E-06,0.208
3.540E-06,0.196
3.550E-06,0.184
3.560E-06,0.168
3.570E-06,0.172
3.580E-06,0.172
3.590E-06,0.192
3.600E-06,0.208
3.610E-06,0.216
3.620E-06,0.216
3.630E-06,0.204
3.640E-06,0.196
3.650E-06,0.176
3.660E-06,0.184
3.670E-06,0.192
3.680E-06,0.208
3.690E-06,0.208
3.700E-06,0.220
3.710E-06,0.204
3.720E-06,0.188
3.730E-06,0.176
3.740E-06,0.172
3.750E-06,0.176
3.760E-06,0.180
3.770E-06,0.192
3.780E-06,0.196
3.790E-06,0.188
3.800E-06,0.184
3.810E-06,0.172
3.820E-06,0.176
3.830E-06,0.176
3.840E-06,0.188
3.850E-06,0.192
3.860E-06,0.192
3.870E-06,0.196
3.880E-06,0.192
3.890E-06,0.184
3.900E-06,0.184
3.910E-06,0.176
3.920E-06,0.184
3.930E-06,0.188
3.940E-06,0.192
3.950E-06,0.188
3.960E-06,0.188
3.970E-06,0.184
3.980E-06,0.180
3.990E-06,0.180
4.000E-06,0.180
4.010E-06,0.184
4.020E-06,0.192
4.030E-06,0.192
4.040E-06,0.184
4.050E-06,0.172
4.060E-06,0.168
4.070E-06,0.168
4.080E-06,0.176
4.090E-06,0.184
4.100E-06,0.184
4.110E-06,0.192
4.120E-06,0.180
4.130E-06,0.164
4.140E-06,0.156
4.150E-06,0.160
4.160E-06,0.172
4.170E-06,0.168
4.180E-06,0.172
4.190E-06,0.168
4.200E-06,0.168
4.210E-06,0.164
4.220E-06,0.164
4.230E-06,0.156
4.240E-06,0.160
4.250E-06,0.168
4.260E-06,0.172
4.270E-06,0.184
4.280E-06,0.176
4.290E-06,0.160
4.300E-06,0.160
4.310E-06,0.164
4.320E-06,0.156
4.330E-06,0.168
4.340E-06,0.176
4.350E-06,0.180
4.360E-06,0.180
4.370E-06,0.172
4.380E-06,0.168
4.390E-06,0.164
4.400E-06,0.164
4.410E-06,0.168
4.420E-06,0.172
4.430E-06,0.172
4.440E-06,0.164
4.450E-06,0.160
4.460E-06,0.164
4.470E-06,0.160
4.480E-06,0.160
4.490E-06,0.164
4.500E-06,0.164
4.510E-06,0.156
4.520E-06,0.160
4.530E-06,0.156
4.540E-06,0.160
4.550E-06,0.164
4.560E-06,0.164
4.570E-06,0.156
4.580E-06,0.160
4.590E-06,0.164
4.600E-06,0.156
4.610E-06,0.152
4.620E-06,0.156
4.630E-06,0.160
4.640E-06,0.148
4.650E-06,0.148
4.660E-06,0.152
4.670E-06,0.152
4.680E-06,0.156
4.690E-06,0.160
4.700E-06,0.152
4.710E-06,0.156
4.720E-06,0.152
4.730E-06,0.144
4.740E-06,0.152
4.750E-06,0.152
4.760E-06,0.156
4.770E-06,0.148
4.780E-06,0.152
4.790E-06,0.152
4.800E-06,0.144
4.810E-06,0.144
4.820E-06,0.144
4.830E-06,0.148
4.840E-06,0.148
4.850E-06,0.148
4.860E-06,0.156
4.870E-06,0.148
4.880E-06,0.152
4.890E-06,0.144
4.900E-06,0.140
4.910E-06,0.140
4.920E-06,0.136
4.930E-06,0.144
4.940E-06,0.148
4.950E-06,0.144
4.960E-06,0.144
4.970E-06,0.132
4.980E-06,0.128
4.990E-06,0.128
5.000E-06,0.136
5.010E-06,0.136
5.020E-06,0.140
5.030E-06,0.144
5.040E-06,0.140
5.050E-06,0.132
5.060E-06,0.132
5.070E-06,0.128
5.080E-06,0.128
5.090E-06,0.136
5.100E-06,0.136
5.110E-06,0.140
5.120E-06,0.136
5.130E-06,0.128
5.140E-06,0.124
5.150E-06,0.124
5.160E-06,0.128
5.170E-06,0.132
5.180E-06,0.136
5.190E-06,0.136
5.200E-06,0.136
5.210E-06,0.128
5.220E-06,0.124
5.230E-06,0.124
5.240E-06,0.124
5.250E-06,0.124
5.260E-06,0.124
5.270E-06,0.128
5.280E-06,0.120
5.290E-06,0.120
5.300E-06,0.124
5.310E-06,0.124
5.320E-06,0.124
5.330E-06,0.124
5.340E-06,0.120
5.350E-06,0.120
5.360E-06,0.112
5.370E-06,0.112
5.380E-06,0.120
5.390E-06,0.124
5.400E-06,0.124
5.410E-06,0.124
5.420E-06,0.124
5.430E-06,0.124
5.440E-06,0.124
5.450E-06,0.108
5.460E-06,0.120
5.470E-06,0.120
5.480E-06,0.124
5.490E-06,0.124
5.500E-06,0.124
5.510E-06,0.108
5.520E-06,0.104
5.530E-06,0.104
5.540E-06,0.104
5.550E-06,0.108
5.560E-06,0.112
5.570E-06,0.108
5.580E-06,0.124
5.590E-06,0.112
5.600E-06,0.112
5.610E-06,0.108
5.620E-06,0.104
5.630E-06,0.112
5.640E-06,0.116
5.650E-06,0.116
5.660E-06,0.116
5.670E-06,0.108
5.680E-06,0.104
5.690E-06,0.104
5.700E-06,0.108
5.710E-06,0.104
5.720E-06,0.104
5.730E-06,0.108
5.740E-06,0.108
5.750E-06,0.108
5.760E-06,0.108
5.770E-06,0.112
5.780E-06,0.108
5.790E-06,0.112
5.800E-06,0.112
5.810E-06,0.112
5.820E-06,0.112
5.830E-06,0.108
5.840E-06,0.108
5.850E-06,0.104
5.860E-06,0.108
5.870E-06,0.108
5.880E-06,0.108
5.890E-06,0.104
5.900E-06,0.108
5.910E-06,0.108
5.920E-06,0.100
5.930E-06,0.100
5.940E-06,0.104
5.950E-06,0.104
5.960E-06,0.104
5.970E-06,0.104
5.980E-06,0.100
5.990E-06,0.104
6.000E-06,0.100
6.010E-06,0.092
6.020E-06,0.092
6.030E-06,0.096
6.040E-06,0.092
6.050E-06,0.092
6.060E-06,0.100
6.070E-06,0.096
6.080E-06,0.092
6.090E-06,0.092
6.100E-06,0.092
6.110E-06,0.088
6.120E-06,0.092
6.130E-06,0.088
6.140E-06,0.088
6.150E-06,0.092
6.160E-06,0.092
6.170E-06,0.092
6.180E-06,0.088
6.190E-06,0.088
6.200E-06,0.088
6.210E-06,0.088
6.220E-06,0.092
6.230E-06,0.092
6.240E-06,0.088
6.250E-06,0.084
6.260E-06,0.080
6.270E-06,0.080
6.280E-06,0.076
6.290E-06,0.076
6.300E-06,0.076
6.310E-06,0.084
6.320E-06,0.088
6.330E-06,0.084
6.340E-06,0.084
6.350E-06,0.080
6.360E-06,0.072
6.370E-06,0.076
6.380E-06,0.076
6.390E-06,0.080
6.400E-06,0.080
6.410E-06,0.080
6.420E-06,0.076
6.430E-06,0.076
6.440E-06,0.068
6.450E-06,0.068
6.460E-06,0.076
6.470E-06,0.080
6.480E-06,0.076
6.490E-06,0.088
6.500E-06,0.076
6.510E-06,0.076
6.520E-06,0.068
6.530E-06,0.060
6.540E-06,0.060
6.550E-06,0.068
6.560E-06,0.076
6.570E-06,0.080
6.580E-06,0.084
6.590E-06,0.076
6.600E-06,0.068
6.610E-06,0.064
6.620E-06,0.056
6.630E-06,0.060
6.640E-06,0.064
6.650E-06,0.072
6.660E-06,0.076
6.670E-06,0.076
6.680E-06,0.068
6.690E-06,0.060
6.700E-06,0.060
6.710E-06,0.060
6.720E-06,0.060
6.730E-06,0.064
6.740E-06,0.072
6.750E-06,0.068
6.760E-06,0.072
6.770E-06,0.064
6.780E-06,0.056
6.790E-06,0.060
6.800E-06,0.064
6.810E-06,0.064
6.820E-06,0.064
6.830E-06,0.072
6.840E-06,0.068
6.850E-06,0.064
6.860E-06,0.060
6.870E-06,0.060
6.880E-06,0.060
6.890E-06,0.056
6.900E-06,0.060
6.910E-06,0.064
6.920E-06,0.068
6.930E-06,0.064
6.940E-06,0.056
6.950E-06,0.056
6.960E-06,0.056
6.970E-06,0.056
6.980E-06,0.056
6.990E-06,0.064
7.000E-06,0.056
7.010E-06,0.056
7.020E-06,0.056
7.030E-06,0.056
7.040E-06,0.048
7.050E-06,0.056
7.060E-06,0.060
7.070E-06,0.056
7.080E-06,0.064
7.090E-06,0.060
7.100E-06,0.056
7.110E-06,0.052
7.120E-06,0.052
7.130E-06,0.056
7.140E-06,0.056
7.150E-06,0.052
7.160E-06,0.052
7.170E-06,0.048
7.180E-06,0.048
7.190E-06,0.048
7.200E-06,0.052
7.210E-06,0.048
7.220E-06,0.056
7.230E-06,0.052
7.240E-06,0.044
7.250E-06,0.040
7.260E-06,0.036
7.270E-06,0.044
7.280E-06,0.040
7.290E-06,0.056
7.300E-06,0.060
7.310E-06,0.056
7.320E-06,0.040
7.330E-06,0.032
7.340E-06,0.028
7.350E-06,0.036
7.360E-06,0.048
7.370E-06,0.052
7.380E-06,0.052
7.390E-06,0.052
7.400E-06,0.044
7.410E-06,0.036
7.420E-06,0.032
7.430E-06,0.036
7.440E-06,0.040
7.450E-06,0.044
7.460E-06,0.044
7.470E-06,0.048
7.480E-06,0.044
7.490E-06,0.036
7.500E-06,0.028
7.510E-06,0.032
7.520E-06,0.036
7.530E-06,0.036
7.540E-06,0.040
7.550E-06,0.040
7.560E-06,0.040
7.570E-06,0.036
7.580E-06,0.032
7.590E-06,0.028
7.600E-06,0.032
7.610E-06,0.032
7.620E-06,0.032
7.630E-06,0.040
7.640E-06,0.032
7.650E-06,0.036
7.660E-06,0.032
7.670E-06,0.036
7.680E-06,0.032
7.690E-06,0.036
7.700E-06,0.032
7.710E-06,0.032
7.720E-06,0.032
7.730E-06,0.032
7.740E-06,0.036
7.750E-06,0.032
7.760E-06,0.028
7.770E-06,0.028
7.780E-06,0.032
7.790E-06,0.028
7.800E-06,0.024
7.810E-06,0.028
7.820E-06,0.036
7.830E-06,0.036
