mediciones/Mediciones filtradas (saque las feas)/6-10/3.6/WaveData5640.csv

#timebase=2000000(ps)
,#voltbase=200000(mv/100)
#size=4000
-4.200E-06,0.064
-4.190E-06,0.072
-4.180E-06,0.040
-4.170E-06,0.040
-4.160E-06,0.064
-4.150E-06,0.064
-4.140E-06,0.080
-4.130E-06,0.056
-4.120E-06,0.048
-4.110E-06,0.048
-4.100E-06,0.056
-4.090E-06,0.072
-4.080E-06,0.064
-4.070E-06,0.024
-4.060E-06,0.008
-4.050E-06,0.024
-4.040E-06,0.000
-4.030E-06,0.032
-4.020E-06,0.048
-4.010E-06,0.016
-4.000E-06,0.008
-3.990E-06,-0.032
-3.980E-06,-0.056
-3.970E-06,-0.040
-3.960E-06,-0.024
-3.950E-06,-0.008
-3.940E-06,0.000
-3.930E-06,-0.008
-3.920E-06,-0.024
-3.910E-06,-0.048
-3.900E-06,-0.048
-3.890E-06,-0.024
-3.880E-06,-0.008
-3.870E-06,0.008
-3.860E-06,0.024
-3.850E-06,0.016
-3.840E-06,0.008
-3.830E-06,0.000
-3.820E-06,0.016
-3.810E-06,0.024
-3.800E-06,0.040
-3.790E-06,0.048
-3.780E-06,0.048
-3.770E-06,0.056
-3.760E-06,0.048
-3.750E-06,0.048
-3.740E-06,0.048
-3.730E-06,0.056
-3.720E-06,0.064
-3.710E-06,0.064
-3.700E-06,0.080
-3.690E-06,0.064
-3.680E-06,0.064
-3.670E-06,0.048
-3.660E-06,0.048
-3.650E-06,0.040
-3.640E-06,0.040
-3.630E-06,0.032
-3.620E-06,0.016
-3.610E-06,0.016
-3.600E-06,0.008
-3.590E-06,0.008
-3.580E-06,0.000
-3.570E-06,0.000
-3.560E-06,0.000
-3.550E-06,-0.008
-3.540E-06,-0.008
-3.530E-06,-0.008
-3.520E-06,-0.008
-3.510E-06,-0.008
-3.500E-06,-0.016
-3.490E-06,-0.008
-3.480E-06,-0.032
-3.470E-06,0.016
-3.460E-06,0.000
-3.450E-06,-0.040
-3.440E-06,-0.008
-3.430E-06,-0.088
-3.420E-06,0.088
-3.410E-06,-0.160
-3.400E-06,0.024
-3.390E-06,-0.008
-3.380E-06,-0.032
-3.370E-06,0.192
-3.360E-06,0.096
-3.350E-06,0.176
-3.340E-06,0.064
-3.330E-06,0.024
-3.320E-06,-0.008
-3.310E-06,0.024
-3.300E-06,0.064
-3.290E-06,0.112
-3.280E-06,0.056
-3.270E-06,0.024
-3.260E-06,0.008
-3.250E-06,-0.040
-3.240E-06,0.064
-3.230E-06,0.136
-3.220E-06,0.168
-3.210E-06,0.168
-3.200E-06,0.104
-3.190E-06,0.024
-3.180E-06,-0.016
-3.170E-06,-0.016
-3.160E-06,0.064
-3.150E-06,0.072
-3.140E-06,0.080
-3.130E-06,0.088
-3.120E-06,0.024
-3.110E-06,-0.032
-3.100E-06,-0.064
-3.090E-06,-0.080
-3.080E-06,-0.064
-3.070E-06,0.016
-3.060E-06,0.040
-3.050E-06,0.048
-3.040E-06,0.024
-3.030E-06,-0.032
-3.020E-06,-0.048
-3.010E-06,-0.056
-3.000E-06,-0.048
-2.990E-06,0.008
-2.980E-06,0.048
-2.970E-06,0.016
-2.960E-06,0.000
-2.950E-06,-0.032
-2.940E-06,-0.072
-2.930E-06,-0.024
-2.920E-06,-0.008
-2.910E-06,0.040
-2.900E-06,0.032
-2.890E-06,0.000
-2.880E-06,0.000
-2.870E-06,-0.008
-2.860E-06,0.000
-2.850E-06,0.016
-2.840E-06,0.024
-2.830E-06,0.032
-2.820E-06,0.048
-2.810E-06,0.024
-2.800E-06,0.024
-2.790E-06,0.016
-2.780E-06,-0.008
-2.770E-06,0.016
-2.760E-06,0.064
-2.750E-06,0.056
-2.740E-06,0.144
-2.730E-06,0.064
-2.720E-06,0.040
-2.710E-06,0.128
-2.700E-06,0.096
-2.690E-06,0.120
-2.680E-06,0.176
-2.670E-06,0.096
-2.660E-06,0.024
-2.650E-06,0.040
-2.640E-06,-0.008
-2.630E-06,0.096
-2.620E-06,0.120
-2.610E-06,0.096
-2.600E-06,0.112
-2.590E-06,0.016
-2.580E-06,-0.024
-2.570E-06,-0.016
-2.560E-06,0.024
-2.550E-06,0.024
-2.540E-06,0.064
-2.530E-06,0.040
-2.520E-06,0.000
-2.510E-06,-0.032
-2.500E-06,-0.056
-2.490E-06,-0.056
-2.480E-06,-0.040
-2.470E-06,-0.032
-2.460E-06,-0.032
-2.450E-06,-0.016
-2.440E-06,-0.024
-2.430E-06,-0.048
-2.420E-06,-0.064
-2.410E-06,-0.064
-2.400E-06,-0.040
-2.390E-06,-0.024
-2.380E-06,-0.008
-2.370E-06,0.016
-2.360E-06,0.032
-2.350E-06,0.040
-2.340E-06,0.000
-2.330E-06,0.104
-2.320E-06,0.000
-2.310E-06,0.032
-2.300E-06,0.040
-2.290E-06,0.000
-2.280E-06,0.080
-2.270E-06,0.064
-2.260E-06,0.080
-2.250E-06,0.096
-2.240E-06,0.064
-2.230E-06,0.072
-2.220E-06,0.064
-2.210E-06,0.048
-2.200E-06,0.056
-2.190E-06,0.064
-2.180E-06,0.048
-2.170E-06,0.048
-2.160E-06,0.040
-2.150E-06,0.024
-2.140E-06,0.032
-2.130E-06,0.024
-2.120E-06,0.016
-2.110E-06,0.024
-2.100E-06,0.008
-2.090E-06,0.016
-2.080E-06,0.008
-2.070E-06,0.008
-2.060E-06,-0.008
-2.050E-06,-0.024
-2.040E-06,-0.040
-2.030E-06,-0.024
-2.020E-06,-0.016
-2.010E-06,0.008
-2.000E-06,0.008
-1.990E-06,-0.008
-1.980E-06,-0.016
-1.970E-06,-0.016
-1.960E-06,0.024
-1.950E-06,-0.008
-1.940E-06,0.016
-1.930E-06,0.016
-1.920E-06,0.032
-1.910E-06,0.008
-1.900E-06,0.056
-1.890E-06,0.080
-1.880E-06,0.064
-1.870E-06,0.096
-1.860E-06,0.040
-1.850E-06,0.072
-1.840E-06,0.024
-1.830E-06,0.032
-1.820E-06,0.064
-1.810E-06,0.008
-1.800E-06,0.008
-1.790E-06,-0.040
-1.780E-06,-0.056
-1.770E-06,-0.088
-1.760E-06,-0.080
-1.750E-06,-0.056
-1.740E-06,-0.064
-1.730E-06,0.000
-1.720E-06,-0.024
-1.710E-06,0.000
-1.700E-06,-0.008
-1.690E-06,-0.024
-1.680E-06,0.000
-1.670E-06,-0.016
-1.660E-06,-0.008
-1.650E-06,-0.016
-1.640E-06,-0.008
-1.630E-06,0.008
-1.620E-06,0.016
-1.610E-06,0.040
-1.600E-06,0.056
-1.590E-06,0.016
-1.580E-06,0.024
-1.570E-06,0.016
-1.560E-06,0.008
-1.550E-06,0.032
-1.540E-06,0.024
-1.530E-06,0.032
-1.520E-06,0.016
-1.510E-06,-0.024
-1.500E-06,-0.016
-1.490E-06,-0.048
-1.480E-06,-0.040
-1.470E-06,-0.032
-1.460E-06,-0.008
-1.450E-06,0.008
-1.440E-06,0.024
-1.430E-06,0.016
-1.420E-06,0.000
-1.410E-06,-0.008
-1.400E-06,-0.008
-1.390E-06,0.024
-1.380E-06,0.056
-1.370E-06,0.080
-1.360E-06,0.072
-1.350E-06,0.064
-1.340E-06,0.072
-1.330E-06,0.048
-1.320E-06,0.072
-1.310E-06,0.080
-1.300E-06,0.088
-1.290E-06,0.104
-1.280E-06,0.064
-1.270E-06,0.064
-1.260E-06,0.064
-1.250E-06,0.032
-1.240E-06,0.072
-1.230E-06,0.024
-1.220E-06,0.040
-1.210E-06,0.008
-1.200E-06,0.000
-1.190E-06,0.000
-1.180E-06,-0.016
-1.170E-06,-0.008
-1.160E-06,-0.040
-1.150E-06,-0.032
-1.140E-06,-0.072
-1.130E-06,-0.104
-1.120E-06,-0.104
-1.110E-06,-0.096
-1.100E-06,-0.096
-1.090E-06,-0.080
-1.080E-06,-0.096
-1.070E-06,-0.096
-1.060E-06,-0.112
-1.050E-06,-0.104
-1.040E-06,-0.064
-1.030E-06,-0.048
-1.020E-06,-0.016
-1.010E-06,-0.016
-1.000E-06,0.000
-9.900E-07,-0.032
-9.800E-07,-0.048
-9.700E-07,-0.032
-9.600E-07,-0.016
-9.500E-07,0.032
-9.400E-07,0.056
-9.300E-07,0.080
-9.200E-07,0.080
-9.100E-07,0.064
-9.000E-07,0.056
-8.900E-07,0.056
-8.800E-07,0.040
-8.700E-07,0.056
-8.600E-07,0.080
-8.500E-07,0.088
-8.400E-07,0.104
-8.300E-07,0.104
-8.200E-07,0.080
-8.100E-07,0.048
-8.000E-07,0.056
-7.900E-07,0.032
-7.800E-07,0.040
-7.700E-07,0.072
-7.600E-07,0.040
-7.500E-07,0.048
-7.400E-07,0.024
-7.300E-07,0.024
-7.200E-07,0.016
-7.100E-07,0.016
-7.000E-07,0.024
-6.900E-07,0.048
-6.800E-07,0.048
-6.700E-07,0.064
-6.600E-07,0.040
-6.500E-07,0.024
-6.400E-07,0.032
-6.300E-07,0.016
-6.200E-07,0.064
-6.100E-07,0.024
-6.000E-07,0.088
-5.900E-07,0.032
-5.800E-07,0.016
-5.700E-07,0.032
-5.600E-07,0.040
-5.500E-07,0.040
-5.400E-07,-0.024
-5.300E-07,-0.024
-5.200E-07,-0.096
-5.100E-07,-0.056
-5.000E-07,-0.136
-4.900E-07,-0.040
-4.800E-07,0.008
-4.700E-07,0.040
-4.600E-07,0.112
-4.500E-07,0.096
-4.400E-07,0.112
-4.300E-07,0.080
-4.200E-07,0.088
-4.100E-07,0.096
-4.000E-07,0.136
-3.900E-07,0.168
-3.800E-07,0.208
-3.700E-07,0.200
-3.600E-07,0.200
-3.500E-07,0.144
-3.400E-07,0.216
-3.300E-07,0.280
-3.200E-07,0.288
-3.100E-07,0.312
-3.000E-07,0.344
-2.900E-07,0.264
-2.800E-07,0.264
-2.700E-07,0.256
-2.600E-07,0.280
-2.500E-07,0.328
-2.400E-07,0.392
-2.300E-07,0.368
-2.200E-07,0.304
-2.100E-07,0.296
-2.000E-07,0.184
-1.900E-07,0.200
-1.800E-07,0.192
-1.700E-07,0.168
-1.600E-07,0.224
-1.500E-07,0.168
-1.400E-07,0.200
-1.300E-07,0.176
-1.200E-07,0.096
-1.100E-07,0.112
-1.000E-07,0.032
-9.000E-08,0.016
-8.000E-08,0.104
-7.000E-08,0.032
-6.000E-08,0.112
-5.000E-08,0.168
-4.000E-08,0.040
-3.000E-08,-0.440
-2.000E-08,0.392
-1.000E-08,-1.040
0.000E+00,-0.400
1.000E-08,0.528
2.000E-08,-0.376
3.000E-08,1.080
4.000E-08,0.960
5.000E-08,-0.168
6.000E-08,-0.400
7.000E-08,-1.008
8.000E-08,-1.032
9.000E-08,1.080
1.000E-07,0.112
1.100E-07,1.072
1.200E-07,1.048
1.300E-07,-0.448
1.400E-07,0.024
1.500E-07,-0.832
1.600E-07,-0.208
1.700E-07,0.320
1.800E-07,0.568
1.900E-07,0.576
2.000E-07,0.760
2.100E-07,-0.224
2.200E-07,-0.360
2.300E-07,-0.400
2.400E-07,-0.264
2.500E-07,0.816
2.600E-07,0.776
2.700E-07,1.088
2.800E-07,0.016
2.900E-07,-0.016
3.000E-07,-0.952
3.100E-07,-1.040
3.200E-07,0.056
3.300E-07,0.472
3.400E-07,0.600
3.500E-07,0.936
3.600E-07,0.288
3.700E-07,-0.200
3.800E-07,-0.016
3.900E-07,-0.576
4.000E-07,-0.064
4.100E-07,0.200
4.200E-07,0.144
4.300E-07,0.736
4.400E-07,0.424
4.500E-07,0.168
4.600E-07,0.048
4.700E-07,-0.376
4.800E-07,-0.368
4.900E-07,-0.232
5.000E-07,-0.136
5.100E-07,0.152
5.200E-07,0.384
5.300E-07,-0.160
5.400E-07,0.128
5.500E-07,-0.216
5.600E-07,-0.184
5.700E-07,-0.312
5.800E-07,-0.224
5.900E-07,0.056
6.000E-07,0.432
6.100E-07,0.368
6.200E-07,0.248
6.300E-07,-0.128
6.400E-07,-0.448
6.500E-07,-0.312
6.600E-07,-0.064
6.700E-07,0.184
6.800E-07,0.336
6.900E-07,0.136
7.000E-07,-0.192
7.100E-07,-0.224
7.200E-07,-0.280
7.300E-07,-0.024
7.400E-07,0.232
7.500E-07,0.312
7.600E-07,0.440
7.700E-07,0.312
7.800E-07,0.192
7.900E-07,0.040
8.000E-07,-0.040
8.100E-07,-0.112
8.200E-07,-0.184
8.300E-07,-0.096
8.400E-07,-0.080
8.500E-07,-0.016
8.600E-07,0.032
8.700E-07,0.056
8.800E-07,-0.144
8.900E-07,-0.168
9.000E-07,-0.224
9.100E-07,-0.064
9.200E-07,0.096
9.300E-07,0.184
9.400E-07,0.304
9.500E-07,0.176
9.600E-07,0.136
9.700E-07,-0.048
9.800E-07,-0.096
9.900E-07,-0.144
1.000E-06,-0.064
1.010E-06,-0.136
1.020E-06,-0.096
1.030E-06,1.080
1.040E-06,-1.032
1.050E-06,-1.040
1.060E-06,-1.048
1.070E-06,-1.040
1.080E-06,1.080
1.090E-06,1.072
1.100E-06,1.080
1.110E-06,1.088
1.120E-06,-0.904
1.130E-06,-1.040
1.140E-06,-1.040
1.150E-06,0.288
1.160E-06,1.088
1.170E-06,1.080
1.180E-06,0.664
1.190E-06,-0.328
1.200E-06,-1.040
1.210E-06,-1.032
1.220E-06,-0.888
1.230E-06,0.368
1.240E-06,0.792
1.250E-06,0.944
1.260E-06,0.296
1.270E-06,-0.528
1.280E-06,-1.040
1.290E-06,-1.032
1.300E-06,-1.040
1.310E-06,-0.512
1.320E-06,0.128
1.330E-06,0.456
1.340E-06,0.352
1.350E-06,-0.096
1.360E-06,-0.536
1.370E-06,-0.752
1.380E-06,-0.496
1.390E-06,0.016
1.400E-06,0.432
1.410E-06,0.728
1.420E-06,0.896
1.430E-06,0.784
1.440E-06,0.576
1.450E-06,0.088
1.460E-06,-0.272
1.470E-06,-0.328
1.480E-06,0.032
1.490E-06,0.528
1.500E-06,0.424
1.510E-06,0.336
1.520E-06,-0.752
1.530E-06,-0.920
1.540E-06,-0.864
1.550E-06,-0.816
1.560E-06,0.360
1.570E-06,0.488
1.580E-06,0.704
1.590E-06,0.584
1.600E-06,-0.008
1.610E-06,-0.248
1.620E-06,-0.408
1.630E-06,-0.048
1.640E-06,0.264
1.650E-06,0.640
1.660E-06,0.344
1.670E-06,0.184
1.680E-06,-0.048
1.690E-06,-0.288
1.700E-06,0.112
1.710E-06,-0.328
1.720E-06,-0.208
1.730E-06,-0.008
1.740E-06,-0.192
1.750E-06,0.168
1.760E-06,0.232
1.770E-06,0.016
1.780E-06,-0.040
1.790E-06,-0.312
1.800E-06,-0.808
1.810E-06,-0.768
1.820E-06,-0.752
1.830E-06,-0.632
1.840E-06,0.168
1.850E-06,0.248
1.860E-06,0.264
1.870E-06,0.328
1.880E-06,-0.288
1.890E-06,0.048
1.900E-06,0.000
1.910E-06,0.128
1.920E-06,0.480
1.930E-06,0.512
1.940E-06,0.368
1.950E-06,0.304
1.960E-06,-0.056
1.970E-06,-0.304
1.980E-06,-0.312
1.990E-06,-0.312
2.000E-06,0.056
2.010E-06,0.280
2.020E-06,0.448
2.030E-06,0.344
2.040E-06,0.040
2.050E-06,-0.136
2.060E-06,-0.312
2.070E-06,-0.200
2.080E-06,0.240
2.090E-06,0.304
2.100E-06,0.632
2.110E-06,0.576
2.120E-06,0.144
2.130E-06,0.168
2.140E-06,-0.304
2.150E-06,-0.328
2.160E-06,-0.136
2.170E-06,-0.256
2.180E-06,0.160
2.190E-06,-0.032
2.200E-06,-0.056
2.210E-06,-0.104
2.220E-06,-0.336
2.230E-06,-0.280
2.240E-06,-0.296
2.250E-06,-0.192
2.260E-06,-0.136
2.270E-06,-0.160
2.280E-06,-0.192
2.290E-06,-0.712
2.300E-06,-0.488
2.310E-06,-0.712
2.320E-06,-0.656
2.330E-06,-0.776
2.340E-06,-0.328
2.350E-06,-0.232
2.360E-06,-0.680
2.370E-06,0.168
2.380E-06,-0.312
2.390E-06,-1.048
2.400E-06,-0.824
2.410E-06,-1.032
2.420E-06,0.136
2.430E-06,1.080
2.440E-06,0.496
2.450E-06,1.080
2.460E-06,-0.216
2.470E-06,0.128
2.480E-06,1.000
2.490E-06,1.080
2.500E-06,1.080
2.510E-06,1.048
2.520E-06,-0.400
2.530E-06,-0.440
2.540E-06,-0.072
2.550E-06,0.296
2.560E-06,0.928
2.570E-06,0.568
2.580E-06,0.032
2.590E-06,-0.560
2.600E-06,-0.992
2.610E-06,-1.040
2.620E-06,-0.752
2.630E-06,-0.856
2.640E-06,-0.624
2.650E-06,-0.912
2.660E-06,-0.960
2.670E-06,-1.032
2.680E-06,-1.040
2.690E-06,-1.048
2.700E-06,-1.048
2.710E-06,-0.976
2.720E-06,-0.704
2.730E-06,-0.472
2.740E-06,-0.488
2.750E-06,-0.640
2.760E-06,-0.928
2.770E-06,-0.880
2.780E-06,-0.912
2.790E-06,-0.816
2.800E-06,-1.040
2.810E-06,-1.040
2.820E-06,-1.048
2.830E-06,-1.040
2.840E-06,-1.032
2.850E-06,-1.032
2.860E-06,-1.040
2.870E-06,-1.040
2.880E-06,-1.040
2.890E-06,-1.040
2.900E-06,-1.040
2.910E-06,-1.048
2.920E-06,-1.040
2.930E-06,-1.032
2.940E-06,-1.040
2.950E-06,-1.032
2.960E-06,-1.032
2.970E-06,-1.040
2.980E-06,-1.032
2.990E-06,-1.040
3.000E-06,-1.040
3.010E-06,-1.048
3.020E-06,-1.040
3.030E-06,-1.032
3.040E-06,-1.040
3.050E-06,-1.040
3.060E-06,-1.048
3.070E-06,-1.040
3.080E-06,-1.040
3.090E-06,-1.040
3.100E-06,-1.048
3.110E-06,-1.040
3.120E-06,-1.032
3.130E-06,-1.040
3.140E-06,-1.048
3.150E-06,-0.848
3.160E-06,-1.032
3.170E-06,-0.088
3.180E-06,-1.032
3.190E-06,-1.040
3.200E-06,-0.320
3.210E-06,-1.048
3.220E-06,1.072
3.230E-06,1.080
3.240E-06,1.088
3.250E-06,1.080
3.260E-06,1.080
3.270E-06,1.080
3.280E-06,1.080
3.290E-06,1.072
3.300E-06,1.080
3.310E-06,1.088
3.320E-06,0.968
3.330E-06,1.080
3.340E-06,0.128
3.350E-06,0.440
3.360E-06,0.320
3.370E-06,0.008
3.380E-06,0.216
3.390E-06,0.328
3.400E-06,-0.456
3.410E-06,-0.312
3.420E-06,-0.840
3.430E-06,-1.040
3.440E-06,-1.040
3.450E-06,-1.040
3.460E-06,-1.048
3.470E-06,-1.040
3.480E-06,-1.032
3.490E-06,-1.040
3.500E-06,-1.032
3.510E-06,-1.040
3.520E-06,-1.048
3.530E-06,-1.040
3.540E-06,-0.864
3.550E-06,-0.680
3.560E-06,-0.552
3.570E-06,-0.448
3.580E-06,-0.576
3.590E-06,-0.640
3.600E-06,-0.712
3.610E-06,-0.608
3.620E-06,-0.768
3.630E-06,-0.720
3.640E-06,-0.896
3.650E-06,-0.744
3.660E-06,-0.720
3.670E-06,-0.448
3.680E-06,-0.344
3.690E-06,-0.184
3.700E-06,0.000
3.710E-06,0.216
3.720E-06,0.408
3.730E-06,0.552
3.740E-06,0.640
3.750E-06,0.712
3.760E-06,0.920
3.770E-06,1.056
3.780E-06,1.072
3.790E-06,1.080
3.800E-06,1.080
3.810E-06,1.064
3.820E-06,0.968
3.830E-06,0.864
3.840E-06,0.560
3.850E-06,0.400
3.860E-06,0.224
3.870E-06,0.032
3.880E-06,-0.112
3.890E-06,-0.424
3.900E-06,-0.800
3.910E-06,-1.016
3.920E-06,-1.040
3.930E-06,-1.048
3.940E-06,-1.040
3.950E-06,-1.032
3.960E-06,-1.024
3.970E-06,-0.712
3.980E-06,-0.208
3.990E-06,0.136
4.000E-06,0.080
4.010E-06,-0.032
4.020E-06,-0.216
4.030E-06,-0.552
4.040E-06,-0.408
4.050E-06,-0.264
4.060E-06,-0.248
4.070E-06,0.168
4.080E-06,-0.176
4.090E-06,-0.456
4.100E-06,-0.528
4.110E-06,-0.824
4.120E-06,-0.296
4.130E-06,0.000
4.140E-06,-0.024
4.150E-06,0.296
4.160E-06,-0.128
4.170E-06,-0.200
4.180E-06,-0.040
4.190E-06,-0.168
4.200E-06,0.224
4.210E-06,0.304
4.220E-06,0.168
4.230E-06,0.240
4.240E-06,0.024
4.250E-06,-0.088
4.260E-06,0.008
4.270E-06,0.000
4.280E-06,0.184
4.290E-06,0.352
4.300E-06,0.344
4.310E-06,0.424
4.320E-06,0.400
4.330E-06,0.312
4.340E-06,0.320
4.350E-06,0.256
4.360E-06,0.152
4.370E-06,0.112
4.380E-06,0.024
4.390E-06,-0.048
4.400E-06,-0.104
4.410E-06,-0.184
4.420E-06,-0.272
4.430E-06,-0.304
4.440E-06,-0.352
4.450E-06,-0.368
4.460E-06,-0.360
4.470E-06,-0.336
4.480E-06,-0.328
4.490E-06,-0.312
4.500E-06,-0.320
4.510E-06,-0.360
4.520E-06,-0.384
4.530E-06,-0.384
4.540E-06,-0.392
4.550E-06,-0.400
4.560E-06,-0.400
4.570E-06,-0.432
4.580E-06,-0.440
4.590E-06,-0.392
4.600E-06,-0.416
4.610E-06,-0.360
4.620E-06,-0.368
4.630E-06,-0.448
4.640E-06,-0.360
4.650E-06,-0.376
4.660E-06,-0.312
4.670E-06,-0.144
4.680E-06,-0.064
4.690E-06,0.056
4.700E-06,0.200
4.710E-06,0.224
4.720E-06,0.304
4.730E-06,0.312
4.740E-06,0.304
4.750E-06,0.360
4.760E-06,0.352
4.770E-06,0.360
4.780E-06,0.352
4.790E-06,0.296
4.800E-06,0.256
4.810E-06,0.184
4.820E-06,0.136
4.830E-06,0.096
4.840E-06,0.088
4.850E-06,0.064
4.860E-06,0.024
4.870E-06,-0.024
4.880E-06,-0.072
4.890E-06,-0.112
4.900E-06,-0.120
4.910E-06,-0.112
4.920E-06,-0.136
4.930E-06,-0.152
4.940E-06,-0.160
4.950E-06,-0.200
4.960E-06,-0.216
4.970E-06,-0.232
4.980E-06,-0.256
4.990E-06,-0.256
5.000E-06,-0.280
5.010E-06,-0.296
5.020E-06,-0.304
5.030E-06,-0.320
5.040E-06,-0.344
5.050E-06,-0.336
5.060E-06,-0.328
5.070E-06,-0.320
5.080E-06,-0.296
5.090E-06,-0.272
5.100E-06,-0.272
5.110E-06,-0.232
5.120E-06,-0.192
5.130E-06,-0.152
5.140E-06,-0.112
5.150E-06,-0.064
5.160E-06,-0.040
5.170E-06,-0.008
5.180E-06,0.016
5.190E-06,0.032
5.200E-06,0.072
5.210E-06,0.088
5.220E-06,0.104
5.230E-06,0.120
5.240E-06,0.112
5.250E-06,0.096
5.260E-06,0.080
5.270E-06,0.056
5.280E-06,0.056
5.290E-06,0.032
5.300E-06,0.024
5.310E-06,-0.008
5.320E-06,-0.032
5.330E-06,-0.064
5.340E-06,-0.088
5.350E-06,-0.120
5.360E-06,-0.128
5.370E-06,-0.128
5.380E-06,-0.128
5.390E-06,-0.120
5.400E-06,-0.136
5.410E-06,-0.120
5.420E-06,-0.120
5.430E-06,-0.104
5.440E-06,-0.104
5.450E-06,-0.104
5.460E-06,-0.112
5.470E-06,-0.104
5.480E-06,-0.112
5.490E-06,-0.112
5.500E-06,-0.136
5.510E-06,-0.128
5.520E-06,-0.144
5.530E-06,-0.128
5.540E-06,-0.112
5.550E-06,-0.104
5.560E-06,-0.104
5.570E-06,-0.104
5.580E-06,-0.088
5.590E-06,-0.064
5.600E-06,-0.048
5.610E-06,-0.024
5.620E-06,0.032
5.630E-06,0.040
5.640E-06,0.072
5.650E-06,0.080
5.660E-06,0.080
5.670E-06,0.080
5.680E-06,0.072
5.690E-06,0.064
5.700E-06,0.072
5.710E-06,0.096
5.720E-06,0.096
5.730E-06,0.112
5.740E-06,0.120
5.750E-06,0.120
5.760E-06,0.096
5.770E-06,0.080
5.780E-06,0.080
5.790E-06,0.048
5.800E-06,0.040
5.810E-06,0.000
5.820E-06,-0.040
5.830E-06,-0.080
5.840E-06,-0.112
5.850E-06,-0.128
5.860E-06,-0.136
5.870E-06,-0.144
5.880E-06,-0.160
5.890E-06,-0.144
5.900E-06,-0.128
5.910E-06,-0.112
5.920E-06,-0.104
5.930E-06,-0.088
5.940E-06,-0.064
5.950E-06,-0.056
5.960E-06,-0.032
5.970E-06,-0.032
5.980E-06,-0.064
5.990E-06,-0.088
6.000E-06,-0.080
6.010E-06,-0.072
6.020E-06,-0.056
6.030E-06,-0.048
6.040E-06,-0.048
6.050E-06,-0.064
6.060E-06,-0.080
6.070E-06,-0.088
6.080E-06,-0.088
6.090E-06,-0.040
6.100E-06,-0.008
6.110E-06,0.016
6.120E-06,0.040
6.130E-06,0.040
6.140E-06,0.032
6.150E-06,0.048
6.160E-06,0.072
6.170E-06,0.104
6.180E-06,0.128
6.190E-06,0.136
6.200E-06,0.136
6.210E-06,0.128
6.220E-06,0.120
6.230E-06,0.120
6.240E-06,0.112
6.250E-06,0.096
6.260E-06,0.072
6.270E-06,0.024
6.280E-06,0.000
6.290E-06,-0.048
6.300E-06,-0.064
6.310E-06,-0.088
6.320E-06,-0.120
6.330E-06,-0.128
6.340E-06,-0.160
6.350E-06,-0.168
6.360E-06,-0.176
6.370E-06,-0.176
6.380E-06,-0.160
6.390E-06,-0.160
6.400E-06,-0.176
6.410E-06,-0.184
6.420E-06,-0.184
6.430E-06,-0.176
6.440E-06,-0.160
6.450E-06,-0.144
6.460E-06,-0.128
6.470E-06,-0.120
6.480E-06,-0.128
6.490E-06,-0.144
6.500E-06,-0.136
6.510E-06,-0.120
6.520E-06,-0.096
6.530E-06,-0.040
6.540E-06,-0.016
6.550E-06,0.000
6.560E-06,0.024
6.570E-06,0.048
6.580E-06,0.056
6.590E-06,0.088
6.600E-06,0.104
6.610E-06,0.104
6.620E-06,0.120
6.630E-06,0.096
6.640E-06,0.088
6.650E-06,0.072
6.660E-06,0.056
6.670E-06,0.032
6.680E-06,0.008
6.690E-06,-0.008
6.700E-06,-0.016
6.710E-06,-0.016
6.720E-06,-0.032
6.730E-06,-0.056
6.740E-06,-0.088
6.750E-06,-0.096
6.760E-06,-0.096
6.770E-06,-0.088
6.780E-06,-0.064
6.790E-06,-0.056
6.800E-06,-0.024
6.810E-06,0.000
6.820E-06,0.000
6.830E-06,0.016
6.840E-06,0.032
6.850E-06,0.040
6.860E-06,0.040
6.870E-06,0.024
6.880E-06,0.024
6.890E-06,0.000
6.900E-06,0.000
6.910E-06,-0.008
6.920E-06,-0.016
6.930E-06,-0.016
6.940E-06,-0.024
6.950E-06,-0.056
6.960E-06,-0.056
6.970E-06,-0.064
6.980E-06,-0.056
6.990E-06,-0.056
7.000E-06,-0.032
7.010E-06,-0.024
7.020E-06,-0.016
7.030E-06,-0.008
7.040E-06,0.000
7.050E-06,-0.008
7.060E-06,0.000
7.070E-06,0.000
7.080E-06,0.000
7.090E-06,0.000
7.100E-06,0.000
7.110E-06,0.016
7.120E-06,0.048
7.130E-06,0.080
7.140E-06,0.104
7.150E-06,0.120
7.160E-06,0.120
7.170E-06,0.120
7.180E-06,0.096
7.190E-06,0.088
7.200E-06,0.064
7.210E-06,0.048
7.220E-06,0.032
7.230E-06,0.016
7.240E-06,0.000
7.250E-06,0.000
7.260E-06,0.000
7.270E-06,0.008
7.280E-06,0.016
7.290E-06,0.016
7.300E-06,0.024
7.310E-06,0.016
7.320E-06,0.040
7.330E-06,0.064
7.340E-06,0.096
7.350E-06,0.120
7.360E-06,0.136
7.370E-06,0.136
7.380E-06,0.152
7.390E-06,0.136
7.400E-06,0.136
7.410E-06,0.128
7.420E-06,0.112
7.430E-06,0.088
7.440E-06,0.064
7.450E-06,0.024
7.460E-06,0.000
7.470E-06,-0.024
7.480E-06,-0.008
7.490E-06,0.000
7.500E-06,0.000
7.510E-06,0.016
7.520E-06,0.024
7.530E-06,0.024
7.540E-06,0.064
7.550E-06,0.088
7.560E-06,0.128
7.570E-06,0.160
7.580E-06,0.200
7.590E-06,0.232
7.600E-06,0.280
7.610E-06,0.312
7.620E-06,0.336
7.630E-06,0.360
7.640E-06,0.368
