mediciones/Mediciones filtradas (saque las feas)/6-10/3.6/WaveData5635.csv

#timebase=2000000(ps)
,#voltbase=100000(mv/100)
#size=4000
-4.200E-06,-0.008
-4.190E-06,-0.004
-4.180E-06,0.004
-4.170E-06,0.016
-4.160E-06,0.024
-4.150E-06,0.016
-4.140E-06,0.020
-4.130E-06,0.008
-4.120E-06,0.012
-4.110E-06,0.004
-4.100E-06,-0.004
-4.090E-06,-0.004
-4.080E-06,0.008
-4.070E-06,0.012
-4.060E-06,0.016
-4.050E-06,0.008
-4.040E-06,0.004
-4.030E-06,0.008
-4.020E-06,0.000
-4.010E-06,0.004
-4.000E-06,0.004
-3.990E-06,0.004
-3.980E-06,0.016
-3.970E-06,0.020
-3.960E-06,0.032
-3.950E-06,0.040
-3.940E-06,0.032
-3.930E-06,0.040
-3.920E-06,0.060
-3.910E-06,0.044
-3.900E-06,0.048
-3.890E-06,0.064
-3.880E-06,-0.024
-3.870E-06,-0.104
-3.860E-06,-0.168
-3.850E-06,-0.204
-3.840E-06,-0.068
-3.830E-06,0.044
-3.820E-06,0.160
-3.810E-06,0.156
-3.800E-06,0.088
-3.790E-06,-0.040
-3.780E-06,-0.136
-3.770E-06,-0.160
-3.760E-06,-0.084
-3.750E-06,0.020
-3.740E-06,0.104
-3.730E-06,0.124
-3.720E-06,0.092
-3.710E-06,0.008
-3.700E-06,-0.056
-3.690E-06,-0.104
-3.680E-06,-0.052
-3.670E-06,0.044
-3.660E-06,0.132
-3.650E-06,0.128
-3.640E-06,0.068
-3.630E-06,-0.048
-3.620E-06,-0.128
-3.610E-06,-0.140
-3.600E-06,-0.092
-3.590E-06,0.064
-3.580E-06,0.076
-3.570E-06,0.156
-3.560E-06,0.044
-3.550E-06,0.008
-3.540E-06,-0.028
-3.530E-06,-0.064
-3.520E-06,-0.096
-3.510E-06,-0.088
-3.500E-06,-0.040
-3.490E-06,-0.008
-3.480E-06,0.036
-3.470E-06,0.036
-3.460E-06,0.012
-3.450E-06,-0.072
-3.440E-06,-0.052
-3.430E-06,-0.036
-3.420E-06,0.008
-3.410E-06,0.028
-3.400E-06,0.048
-3.390E-06,0.032
-3.380E-06,-0.008
-3.370E-06,-0.048
-3.360E-06,-0.060
-3.350E-06,-0.012
-3.340E-06,0.012
-3.330E-06,0.048
-3.320E-06,0.028
-3.310E-06,0.024
-3.300E-06,-0.008
-3.290E-06,-0.024
-3.280E-06,-0.028
-3.270E-06,-0.012
-3.260E-06,0.028
-3.250E-06,0.028
-3.240E-06,0.044
-3.230E-06,0.028
-3.220E-06,0.012
-3.210E-06,-0.008
-3.200E-06,-0.004
-3.190E-06,0.000
-3.180E-06,0.020
-3.170E-06,0.024
-3.160E-06,0.024
-3.150E-06,0.012
-3.140E-06,0.004
-3.130E-06,0.000
-3.120E-06,0.000
-3.110E-06,0.000
-3.100E-06,0.012
-3.090E-06,0.028
-3.080E-06,0.028
-3.070E-06,0.024
-3.060E-06,0.024
-3.050E-06,0.008
-3.040E-06,-0.020
-3.030E-06,-0.012
-3.020E-06,-0.028
-3.010E-06,0.020
-3.000E-06,0.040
-2.990E-06,-0.028
-2.980E-06,0.008
-2.970E-06,0.008
-2.960E-06,-0.016
-2.950E-06,-0.096
-2.940E-06,-0.020
-2.930E-06,0.052
-2.920E-06,0.064
-2.910E-06,0.080
-2.900E-06,-0.008
-2.890E-06,-0.052
-2.880E-06,-0.056
-2.870E-06,-0.036
-2.860E-06,-0.028
-2.850E-06,0.008
-2.840E-06,0.036
-2.830E-06,0.028
-2.820E-06,0.024
-2.810E-06,0.016
-2.800E-06,-0.008
-2.790E-06,-0.028
-2.780E-06,-0.032
-2.770E-06,-0.004
-2.760E-06,0.012
-2.750E-06,0.032
-2.740E-06,0.024
-2.730E-06,0.012
-2.720E-06,0.004
-2.710E-06,-0.012
-2.700E-06,-0.008
-2.690E-06,-0.004
-2.680E-06,0.012
-2.670E-06,0.040
-2.660E-06,0.040
-2.650E-06,0.032
-2.640E-06,0.016
-2.630E-06,-0.020
-2.620E-06,-0.020
-2.610E-06,-0.028
-2.600E-06,0.004
-2.590E-06,0.032
-2.580E-06,0.032
-2.570E-06,0.016
-2.560E-06,0.008
-2.550E-06,-0.012
-2.540E-06,-0.020
-2.530E-06,-0.016
-2.520E-06,-0.004
-2.510E-06,0.008
-2.500E-06,0.020
-2.490E-06,0.028
-2.480E-06,0.008
-2.470E-06,-0.008
-2.460E-06,-0.016
-2.450E-06,-0.008
-2.440E-06,-0.004
-2.430E-06,0.012
-2.420E-06,0.016
-2.410E-06,0.028
-2.400E-06,0.020
-2.390E-06,0.012
-2.380E-06,0.004
-2.370E-06,-0.004
-2.360E-06,-0.004
-2.350E-06,0.004
-2.340E-06,0.008
-2.330E-06,0.012
-2.320E-06,0.012
-2.310E-06,0.012
-2.300E-06,0.008
-2.290E-06,-0.004
-2.280E-06,0.004
-2.270E-06,0.012
-2.260E-06,0.020
-2.250E-06,0.024
-2.240E-06,0.008
-2.230E-06,0.008
-2.220E-06,-0.008
-2.210E-06,-0.004
-2.200E-06,0.000
-2.190E-06,0.008
-2.180E-06,0.028
-2.170E-06,0.024
-2.160E-06,0.028
-2.150E-06,0.020
-2.140E-06,0.012
-2.130E-06,0.008
-2.120E-06,0.004
-2.110E-06,0.020
-2.100E-06,0.016
-2.090E-06,0.028
-2.080E-06,0.028
-2.070E-06,0.036
-2.060E-06,0.036
-2.050E-06,0.024
-2.040E-06,-0.056
-2.030E-06,-0.124
-2.020E-06,-0.080
-2.010E-06,-0.052
-2.000E-06,0.044
-1.990E-06,0.052
-1.980E-06,0.032
-1.970E-06,0.012
-1.960E-06,-0.024
-1.950E-06,-0.052
-1.940E-06,-0.052
-1.930E-06,-0.036
-1.920E-06,0.012
-1.910E-06,0.000
-1.900E-06,-0.004
-1.890E-06,0.012
-1.880E-06,0.008
-1.870E-06,0.008
-1.860E-06,-0.008
-1.850E-06,-0.012
-1.840E-06,-0.024
-1.830E-06,-0.004
-1.820E-06,0.020
-1.810E-06,0.028
-1.800E-06,0.020
-1.790E-06,0.008
-1.780E-06,0.004
-1.770E-06,-0.012
-1.760E-06,-0.008
-1.750E-06,-0.020
-1.740E-06,0.000
-1.730E-06,0.016
-1.720E-06,0.024
-1.710E-06,0.024
-1.700E-06,0.016
-1.690E-06,0.004
-1.680E-06,-0.004
-1.670E-06,-0.012
-1.660E-06,0.004
-1.650E-06,0.012
-1.640E-06,0.020
-1.630E-06,0.024
-1.620E-06,0.032
-1.610E-06,0.032
-1.600E-06,0.012
-1.590E-06,-0.008
-1.580E-06,-0.008
-1.570E-06,-0.008
-1.560E-06,0.020
-1.550E-06,0.036
-1.540E-06,0.048
-1.530E-06,0.028
-1.520E-06,0.020
-1.510E-06,0.008
-1.500E-06,0.000
-1.490E-06,0.004
-1.480E-06,0.020
-1.470E-06,0.028
-1.460E-06,0.028
-1.450E-06,0.024
-1.440E-06,0.024
-1.430E-06,0.008
-1.420E-06,0.016
-1.410E-06,0.000
-1.400E-06,-0.020
-1.390E-06,-0.020
-1.380E-06,0.004
-1.370E-06,0.004
-1.360E-06,0.028
-1.350E-06,0.044
-1.340E-06,0.012
-1.330E-06,0.008
-1.320E-06,-0.012
-1.310E-06,-0.008
-1.300E-06,0.008
-1.290E-06,0.020
-1.280E-06,0.024
-1.270E-06,0.060
-1.260E-06,0.004
-1.250E-06,0.072
-1.240E-06,0.040
-1.230E-06,0.088
-1.220E-06,0.096
-1.210E-06,0.100
-1.200E-06,0.096
-1.190E-06,0.044
-1.180E-06,-0.152
-1.170E-06,-0.296
-1.160E-06,-0.408
-1.150E-06,-0.340
-1.140E-06,-0.052
-1.130E-06,0.268
-1.120E-06,0.368
-1.110E-06,0.236
-1.100E-06,0.076
-1.090E-06,-0.204
-1.080E-06,-0.308
-1.070E-06,-0.244
-1.060E-06,-0.032
-1.050E-06,0.196
-1.040E-06,0.276
-1.030E-06,0.172
-1.020E-06,-0.004
-1.010E-06,-0.120
-1.000E-06,-0.160
-9.900E-07,-0.124
-9.800E-07,-0.012
-9.700E-07,0.108
-9.600E-07,0.192
-9.500E-07,0.188
-9.400E-07,0.088
-9.300E-07,-0.040
-9.200E-07,-0.188
-9.100E-07,-0.176
-9.000E-07,-0.128
-8.900E-07,0.028
-8.800E-07,0.092
-8.700E-07,0.176
-8.600E-07,0.128
-8.500E-07,-0.008
-8.400E-07,-0.084
-8.300E-07,-0.148
-8.200E-07,-0.100
-8.100E-07,-0.004
-8.000E-07,0.092
-7.900E-07,0.100
-7.800E-07,0.064
-7.700E-07,-0.032
-7.600E-07,-0.104
-7.500E-07,-0.100
-7.400E-07,-0.056
-7.300E-07,0.040
-7.200E-07,0.096
-7.100E-07,0.112
-7.000E-07,0.040
-6.900E-07,-0.024
-6.800E-07,-0.096
-6.700E-07,-0.080
-6.600E-07,-0.024
-6.500E-07,0.048
-6.400E-07,0.096
-6.300E-07,0.092
-6.200E-07,0.052
-6.100E-07,-0.008
-6.000E-07,-0.044
-5.900E-07,-0.044
-5.800E-07,-0.004
-5.700E-07,0.060
-5.600E-07,0.096
-5.500E-07,0.112
-5.400E-07,0.048
-5.300E-07,0.024
-5.200E-07,-0.068
-5.100E-07,-0.056
-5.000E-07,-0.032
-4.900E-07,0.020
-4.800E-07,0.092
-4.700E-07,0.144
-4.600E-07,0.108
-4.500E-07,0.048
-4.400E-07,-0.040
-4.300E-07,-0.088
-4.200E-07,-0.072
-4.100E-07,-0.032
-4.000E-07,0.024
-3.900E-07,0.044
-3.800E-07,0.036
-3.700E-07,-0.004
-3.600E-07,-0.032
-3.500E-07,-0.072
-3.400E-07,-0.048
-3.300E-07,-0.008
-3.200E-07,0.044
-3.100E-07,0.056
-3.000E-07,0.068
-2.900E-07,0.036
-2.800E-07,0.012
-2.700E-07,-0.008
-2.600E-07,0.040
-2.500E-07,0.048
-2.400E-07,0.112
-2.300E-07,0.128
-2.200E-07,0.100
-2.100E-07,0.052
-2.000E-07,-0.060
-1.900E-07,-0.172
-1.800E-07,-0.184
-1.700E-07,-0.104
-1.600E-07,0.068
-1.500E-07,0.148
-1.400E-07,0.056
-1.300E-07,0.044
-1.200E-07,-0.108
-1.100E-07,-0.144
-1.000E-07,-0.072
-9.000E-08,0.028
-8.000E-08,0.104
-7.000E-08,0.164
-6.000E-08,0.096
-5.000E-08,-0.096
-4.000E-08,-0.168
-3.000E-08,-0.392
-2.000E-08,-0.368
-1.000E-08,-0.056
0.000E+00,0.420
1.000E-08,0.416
2.000E-08,0.164
3.000E-08,-0.120
4.000E-08,-0.224
5.000E-08,-0.160
6.000E-08,-0.108
7.000E-08,0.040
8.000E-08,0.168
9.000E-08,0.224
1.000E-07,0.100
1.100E-07,-0.136
1.200E-07,-0.332
1.300E-07,-0.300
1.400E-07,-0.128
1.500E-07,0.112
1.600E-07,0.216
1.700E-07,0.260
1.800E-07,0.060
1.900E-07,-0.120
2.000E-07,-0.208
2.100E-07,-0.168
2.200E-07,-0.004
2.300E-07,0.120
2.400E-07,0.156
2.500E-07,0.124
2.600E-07,0.028
2.700E-07,-0.076
2.800E-07,-0.128
2.900E-07,-0.108
3.000E-07,-0.016
3.100E-07,0.080
3.200E-07,0.128
3.300E-07,0.096
3.400E-07,0.028
3.500E-07,-0.044
3.600E-07,-0.084
3.700E-07,-0.060
3.800E-07,0.000
3.900E-07,0.072
4.000E-07,0.096
4.100E-07,0.092
4.200E-07,0.028
4.300E-07,-0.024
4.400E-07,-0.056
4.500E-07,-0.032
4.600E-07,0.012
4.700E-07,0.080
4.800E-07,0.100
4.900E-07,0.036
5.000E-07,-0.008
5.100E-07,-0.060
5.200E-07,-0.072
5.300E-07,-0.020
5.400E-07,0.072
5.500E-07,0.116
5.600E-07,0.144
5.700E-07,0.032
5.800E-07,-0.060
5.900E-07,-0.172
6.000E-07,-0.168
6.100E-07,-0.056
6.200E-07,0.032
6.300E-07,0.108
6.400E-07,0.112
6.500E-07,0.088
6.600E-07,-0.008
6.700E-07,-0.112
6.800E-07,-0.140
6.900E-07,-0.080
7.000E-07,0.008
7.100E-07,0.092
7.200E-07,0.092
7.300E-07,0.040
7.400E-07,-0.008
7.500E-07,-0.052
7.600E-07,-0.052
7.700E-07,-0.004
7.800E-07,0.044
7.900E-07,0.088
8.000E-07,0.088
8.100E-07,0.056
8.200E-07,0.012
8.300E-07,-0.024
8.400E-07,-0.124
8.500E-07,-0.056
8.600E-07,0.012
8.700E-07,0.104
8.800E-07,0.072
8.900E-07,0.028
9.000E-07,0.056
9.100E-07,-0.028
9.200E-07,0.012
9.300E-07,-0.056
9.400E-07,-0.036
9.500E-07,-0.004
9.600E-07,0.036
9.700E-07,0.016
9.800E-07,-0.012
9.900E-07,-0.056
1.000E-06,-0.020
1.010E-06,0.008
1.020E-06,0.032
1.030E-06,0.028
1.040E-06,0.012
1.050E-06,-0.004
1.060E-06,-0.040
1.070E-06,-0.036
1.080E-06,-0.028
1.090E-06,0.016
1.100E-06,0.052
1.110E-06,0.076
1.120E-06,0.060
1.130E-06,0.004
1.140E-06,-0.032
1.150E-06,-0.056
1.160E-06,-0.024
1.170E-06,0.024
1.180E-06,0.076
1.190E-06,0.100
1.200E-06,0.112
1.210E-06,0.112
1.220E-06,0.072
1.230E-06,0.000
1.240E-06,-0.060
1.250E-06,-0.052
1.260E-06,-0.028
1.270E-06,-0.024
1.280E-06,-0.012
1.290E-06,0.020
1.300E-06,0.004
1.310E-06,-0.008
1.320E-06,-0.012
1.330E-06,-0.040
1.340E-06,-0.080
1.350E-06,-0.036
1.360E-06,0.032
1.370E-06,0.060
1.380E-06,0.048
1.390E-06,-0.004
1.400E-06,-0.008
1.410E-06,-0.036
1.420E-06,-0.004
1.430E-06,0.024
1.440E-06,0.044
1.450E-06,0.060
1.460E-06,0.056
1.470E-06,0.040
1.480E-06,0.024
1.490E-06,0.028
1.500E-06,0.072
1.510E-06,0.108
1.520E-06,0.088
1.530E-06,0.148
1.540E-06,-0.036
1.550E-06,-0.120
1.560E-06,-0.296
1.570E-06,-0.232
1.580E-06,-0.060
1.590E-06,0.064
1.600E-06,0.124
1.610E-06,0.112
1.620E-06,0.092
1.630E-06,-0.028
1.640E-06,-0.088
1.650E-06,-0.136
1.660E-06,-0.088
1.670E-06,0.072
1.680E-06,0.140
1.690E-06,0.124
1.700E-06,0.060
1.710E-06,-0.008
1.720E-06,-0.036
1.730E-06,0.000
1.740E-06,0.024
1.750E-06,-0.008
1.760E-06,-0.052
1.770E-06,-0.088
1.780E-06,-0.140
1.790E-06,-0.004
1.800E-06,0.060
1.810E-06,0.096
1.820E-06,0.092
1.830E-06,0.064
1.840E-06,0.000
1.850E-06,-0.052
1.860E-06,-0.068
1.870E-06,-0.052
1.880E-06,0.020
1.890E-06,0.048
1.900E-06,0.092
1.910E-06,0.028
1.920E-06,0.024
1.930E-06,-0.020
1.940E-06,-0.008
1.950E-06,-0.008
1.960E-06,0.052
1.970E-06,0.092
1.980E-06,0.072
1.990E-06,0.056
2.000E-06,-0.008
2.010E-06,-0.016
2.020E-06,-0.008
2.030E-06,0.056
2.040E-06,0.100
2.050E-06,0.160
2.060E-06,0.124
2.070E-06,0.040
2.080E-06,-0.044
2.090E-06,-0.076
2.100E-06,-0.052
2.110E-06,-0.008
2.120E-06,0.060
2.130E-06,0.048
2.140E-06,0.088
2.150E-06,0.052
2.160E-06,-0.004
2.170E-06,-0.020
2.180E-06,-0.112
2.190E-06,-0.128
2.200E-06,-0.096
2.210E-06,0.012
2.220E-06,0.084
2.230E-06,0.120
2.240E-06,0.072
2.250E-06,0.020
2.260E-06,-0.008
2.270E-06,-0.004
2.280E-06,0.024
2.290E-06,0.092
2.300E-06,0.144
2.310E-06,0.144
2.320E-06,0.076
2.330E-06,-0.060
2.340E-06,-0.168
2.350E-06,-0.252
2.360E-06,-0.168
2.370E-06,-0.004
2.380E-06,0.160
2.390E-06,0.288
2.400E-06,0.240
2.410E-06,0.096
2.420E-06,-0.184
2.430E-06,-0.496
2.440E-06,-0.460
2.450E-06,-0.320
2.460E-06,0.068
2.470E-06,0.264
2.480E-06,0.312
2.490E-06,0.236
2.500E-06,-0.068
2.510E-06,-0.308
2.520E-06,-0.300
2.530E-06,-0.200
2.540E-06,0.088
2.550E-06,0.268
2.560E-06,0.280
2.570E-06,0.176
2.580E-06,0.012
2.590E-06,-0.112
2.600E-06,-0.124
2.610E-06,0.008
2.620E-06,0.120
2.630E-06,0.192
2.640E-06,0.092
2.650E-06,-0.116
2.660E-06,-0.292
2.670E-06,-0.268
2.680E-06,-0.136
2.690E-06,0.072
2.700E-06,0.188
2.710E-06,0.128
2.720E-06,0.124
2.730E-06,-0.040
2.740E-06,-0.188
2.750E-06,-0.212
2.760E-06,-0.120
2.770E-06,0.028
2.780E-06,0.148
2.790E-06,0.172
2.800E-06,0.088
2.810E-06,-0.024
2.820E-06,-0.124
2.830E-06,-0.136
2.840E-06,-0.084
2.850E-06,0.032
2.860E-06,0.092
2.870E-06,0.116
2.880E-06,0.072
2.890E-06,-0.008
2.900E-06,-0.068
2.910E-06,-0.092
2.920E-06,-0.068
2.930E-06,0.000
2.940E-06,0.080
2.950E-06,0.108
2.960E-06,0.080
2.970E-06,0.016
2.980E-06,-0.032
2.990E-06,-0.064
3.000E-06,-0.036
3.010E-06,0.004
3.020E-06,0.056
3.030E-06,0.088
3.040E-06,0.068
3.050E-06,0.036
3.060E-06,-0.004
3.070E-06,-0.020
3.080E-06,-0.016
3.090E-06,0.020
3.100E-06,0.056
3.110E-06,0.088
3.120E-06,0.100
3.130E-06,0.092
3.140E-06,0.076
3.150E-06,0.056
3.160E-06,0.064
3.170E-06,0.068
3.180E-06,0.072
3.190E-06,0.064
3.200E-06,0.056
3.210E-06,0.040
3.220E-06,0.028
3.230E-06,0.000
3.240E-06,0.004
3.250E-06,0.000
3.260E-06,0.020
3.270E-06,0.012
3.280E-06,0.044
3.290E-06,0.060
3.300E-06,0.092
3.310E-06,0.076
3.320E-06,0.072
3.330E-06,0.068
3.340E-06,0.072
3.350E-06,0.092
3.360E-06,0.100
3.370E-06,0.108
3.380E-06,0.088
3.390E-06,0.088
3.400E-06,0.088
3.410E-06,0.088
3.420E-06,0.068
3.430E-06,0.036
3.440E-06,0.148
3.450E-06,-0.096
3.460E-06,-0.244
3.470E-06,-0.364
3.480E-06,-0.204
3.490E-06,0.140
3.500E-06,0.252
3.510E-06,0.328
3.520E-06,0.076
3.530E-06,-0.052
3.540E-06,-0.476
3.550E-06,-0.512
3.560E-06,-0.512
3.570E-06,-0.512
3.580E-06,0.088
3.590E-06,0.540
3.600E-06,0.484
3.610E-06,0.240
3.620E-06,-0.140
3.630E-06,-0.480
3.640E-06,-0.496
3.650E-06,-0.240
3.660E-06,0.208
3.670E-06,0.384
3.680E-06,0.364
3.690E-06,0.108
3.700E-06,-0.092
3.710E-06,-0.296
3.720E-06,-0.256
3.730E-06,-0.136
3.740E-06,0.100
3.750E-06,0.248
3.760E-06,0.268
3.770E-06,0.124
3.780E-06,-0.064
3.790E-06,-0.196
3.800E-06,-0.212
3.810E-06,-0.060
3.820E-06,0.112
3.830E-06,0.212
3.840E-06,0.184
3.850E-06,0.092
3.860E-06,-0.052
3.870E-06,-0.136
3.880E-06,-0.124
3.890E-06,-0.052
3.900E-06,0.072
3.910E-06,0.172
3.920E-06,0.196
3.930E-06,0.088
3.940E-06,0.008
3.950E-06,-0.064
3.960E-06,-0.060
3.970E-06,0.004
3.980E-06,0.068
3.990E-06,0.156
4.000E-06,0.188
4.010E-06,0.140
4.020E-06,0.068
4.030E-06,-0.016
4.040E-06,-0.008
4.050E-06,0.044
4.060E-06,0.160
4.070E-06,0.236
4.080E-06,0.256
4.090E-06,0.232
4.100E-06,0.164
4.110E-06,0.124
4.120E-06,0.100
4.130E-06,0.128
4.140E-06,0.144
4.150E-06,0.164
4.160E-06,0.196
4.170E-06,0.096
4.180E-06,-0.012
4.190E-06,-0.116
4.200E-06,-0.328
4.210E-06,-0.384
4.220E-06,-0.284
4.230E-06,0.120
4.240E-06,0.508
4.250E-06,0.212
4.260E-06,-0.192
4.270E-06,-0.512
4.280E-06,-0.512
4.290E-06,-0.512
4.300E-06,-0.200
4.310E-06,0.516
4.320E-06,0.540
4.330E-06,0.540
4.340E-06,0.112
4.350E-06,-0.352
4.360E-06,-0.512
4.370E-06,-0.512
4.380E-06,-0.108
4.390E-06,0.364
4.400E-06,0.544
4.410E-06,0.504
4.420E-06,0.188
4.430E-06,-0.204
4.440E-06,-0.476
4.450E-06,-0.424
4.460E-06,-0.172
4.470E-06,0.160
4.480E-06,0.372
4.490E-06,0.336
4.500E-06,0.164
4.510E-06,-0.068
4.520E-06,-0.236
4.530E-06,-0.256
4.540E-06,-0.120
4.550E-06,0.060
4.560E-06,0.180
4.570E-06,0.268
4.580E-06,0.160
4.590E-06,0.032
4.600E-06,-0.192
4.610E-06,-0.176
4.620E-06,-0.132
4.630E-06,0.040
4.640E-06,0.168
4.650E-06,0.180
4.660E-06,0.156
4.670E-06,0.056
4.680E-06,0.008
4.690E-06,-0.072
4.700E-06,-0.100
4.710E-06,0.044
4.720E-06,0.140
4.730E-06,0.192
4.740E-06,0.192
4.750E-06,0.124
4.760E-06,0.060
4.770E-06,0.036
4.780E-06,0.060
4.790E-06,0.104
4.800E-06,0.180
4.810E-06,0.220
4.820E-06,0.216
4.830E-06,0.204
4.840E-06,0.160
4.850E-06,0.156
4.860E-06,0.132
4.870E-06,0.160
4.880E-06,0.176
4.890E-06,0.196
4.900E-06,0.192
4.910E-06,0.192
4.920E-06,0.160
4.930E-06,0.136
4.940E-06,0.140
4.950E-06,0.124
4.960E-06,0.132
4.970E-06,0.140
4.980E-06,0.160
4.990E-06,-0.008
5.000E-06,-0.068
5.010E-06,-0.416
5.020E-06,-0.508
5.030E-06,-0.300
5.040E-06,-0.156
5.050E-06,0.088
5.060E-06,0.092
5.070E-06,-0.508
5.080E-06,-0.120
5.090E-06,-0.512
5.100E-06,-0.512
5.110E-06,-0.508
5.120E-06,-0.084
5.130E-06,0.540
5.140E-06,0.540
5.150E-06,0.308
5.160E-06,-0.400
5.170E-06,-0.512
5.180E-06,-0.356
5.190E-06,-0.136
5.200E-06,0.128
5.210E-06,0.364
5.220E-06,0.368
5.230E-06,0.228
5.240E-06,-0.020
5.250E-06,-0.128
5.260E-06,-0.320
5.270E-06,-0.136
5.280E-06,0.052
5.290E-06,0.256
5.300E-06,0.352
5.310E-06,0.252
5.320E-06,0.112
5.330E-06,-0.064
5.340E-06,-0.080
5.350E-06,-0.072
5.360E-06,0.056
5.370E-06,0.172
5.380E-06,0.236
5.390E-06,0.236
5.400E-06,0.124
5.410E-06,0.052
5.420E-06,-0.024
5.430E-06,-0.036
5.440E-06,0.040
5.450E-06,0.132
5.460E-06,0.240
5.470E-06,0.240
5.480E-06,0.212
5.490E-06,0.136
5.500E-06,0.064
5.510E-06,0.060
5.520E-06,0.104
5.530E-06,0.172
5.540E-06,0.232
5.550E-06,0.264
5.560E-06,0.256
5.570E-06,0.188
5.580E-06,0.128
5.590E-06,0.100
5.600E-06,0.100
5.610E-06,0.136
5.620E-06,0.180
5.630E-06,0.216
5.640E-06,0.232
5.650E-06,0.216
5.660E-06,0.192
5.670E-06,0.160
5.680E-06,0.132
5.690E-06,0.140
5.700E-06,0.148
5.710E-06,0.176
5.720E-06,0.180
5.730E-06,0.156
5.740E-06,0.080
5.750E-06,0.020
5.760E-06,-0.064
5.770E-06,-0.108
5.780E-06,-0.164
5.790E-06,-0.256
5.800E-06,-0.316
5.810E-06,-0.308
5.820E-06,0.096
5.830E-06,0.276
5.840E-06,0.276
5.850E-06,0.224
5.860E-06,-0.124
5.870E-06,-0.076
5.880E-06,0.004
5.890E-06,-0.004
5.900E-06,0.096
5.910E-06,-0.028
5.920E-06,0.104
5.930E-06,-0.120
5.940E-06,-0.336
5.950E-06,-0.424
5.960E-06,-0.396
5.970E-06,-0.200
5.980E-06,0.004
5.990E-06,0.092
6.000E-06,0.000
6.010E-06,0.112
6.020E-06,-0.188
6.030E-06,-0.140
6.040E-06,-0.124
6.050E-06,-0.024
6.060E-06,0.252
6.070E-06,0.184
6.080E-06,0.260
6.090E-06,0.140
6.100E-06,0.112
6.110E-06,0.052
6.120E-06,-0.016
6.130E-06,0.100
6.140E-06,0.192
6.150E-06,0.308
6.160E-06,0.284
6.170E-06,0.228
6.180E-06,0.120
6.190E-06,0.084
6.200E-06,0.108
6.210E-06,0.176
6.220E-06,0.224
6.230E-06,0.268
6.240E-06,0.260
6.250E-06,0.228
6.260E-06,0.164
6.270E-06,0.124
6.280E-06,0.112
6.290E-06,0.140
6.300E-06,0.188
6.310E-06,0.220
6.320E-06,0.240
6.330E-06,0.220
6.340E-06,0.200
6.350E-06,0.152
6.360E-06,0.152
6.370E-06,0.152
6.380E-06,0.168
6.390E-06,0.192
6.400E-06,0.196
6.410E-06,0.192
6.420E-06,0.096
6.430E-06,0.052
6.440E-06,-0.028
6.450E-06,-0.068
6.460E-06,-0.068
6.470E-06,-0.052
6.480E-06,-0.020
6.490E-06,-0.024
6.500E-06,0.132
6.510E-06,0.020
6.520E-06,0.020
6.530E-06,0.032
6.540E-06,0.028
6.550E-06,0.132
6.560E-06,0.140
6.570E-06,0.220
6.580E-06,0.176
6.590E-06,0.184
6.600E-06,0.152
6.610E-06,0.096
6.620E-06,0.112
6.630E-06,0.100
6.640E-06,0.148
6.650E-06,0.200
6.660E-06,0.252
6.670E-06,0.252
6.680E-06,0.200
6.690E-06,0.152
6.700E-06,0.128
6.710E-06,0.124
6.720E-06,0.156
6.730E-06,0.204
6.740E-06,0.244
6.750E-06,0.248
6.760E-06,0.224
6.770E-06,0.172
6.780E-06,0.136
6.790E-06,0.128
6.800E-06,0.140
6.810E-06,0.184
6.820E-06,0.212
6.830E-06,0.232
6.840E-06,0.212
6.850E-06,0.184
6.860E-06,0.152
6.870E-06,0.132
6.880E-06,0.148
6.890E-06,0.160
6.900E-06,0.188
6.910E-06,0.208
6.920E-06,0.200
6.930E-06,0.176
6.940E-06,0.156
6.950E-06,0.144
6.960E-06,0.152
6.970E-06,0.164
6.980E-06,0.184
6.990E-06,0.192
7.000E-06,0.192
7.010E-06,0.188
7.020E-06,0.176
7.030E-06,0.160
7.040E-06,0.160
7.050E-06,0.168
7.060E-06,0.172
7.070E-06,0.180
7.080E-06,0.188
7.090E-06,0.192
7.100E-06,0.180
7.110E-06,0.164
7.120E-06,0.156
7.130E-06,0.164
7.140E-06,0.168
7.150E-06,0.172
7.160E-06,0.180
7.170E-06,0.192
7.180E-06,0.184
7.190E-06,0.176
7.200E-06,0.172
7.210E-06,0.164
7.220E-06,0.164
7.230E-06,0.176
7.240E-06,0.180
7.250E-06,0.176
7.260E-06,0.176
7.270E-06,0.172
7.280E-06,0.168
7.290E-06,0.160
7.300E-06,0.164
7.310E-06,0.160
7.320E-06,0.176
7.330E-06,0.176
7.340E-06,0.180
7.350E-06,0.176
7.360E-06,0.168
7.370E-06,0.164
7.380E-06,0.164
7.390E-06,0.160
7.400E-06,0.160
7.410E-06,0.168
7.420E-06,0.168
7.430E-06,0.164
7.440E-06,0.172
7.450E-06,0.168
7.460E-06,0.164
7.470E-06,0.160
7.480E-06,0.164
7.490E-06,0.164
7.500E-06,0.168
7.510E-06,0.168
7.520E-06,0.168
7.530E-06,0.172
7.540E-06,0.168
7.550E-06,0.156
7.560E-06,0.156
7.570E-06,0.160
7.580E-06,0.164
7.590E-06,0.164
7.600E-06,0.160
7.610E-06,0.164
7.620E-06,0.160
7.630E-06,0.152
7.640E-06,0.156
7.650E-06,0.160
7.660E-06,0.156
7.670E-06,0.160
7.680E-06,0.168
7.690E-06,0.160
7.700E-06,0.156
7.710E-06,0.156
7.720E-06,0.156
7.730E-06,0.152
