mediciones/Mediciones filtradas (saque las feas)/6-10/61.8/WaveData55198.csv

#timebase=2000000(ps)
,#voltbase=500000(mv/100)
#size=4000
-4.250E-06,0.060
-4.240E-06,0.040
-4.230E-06,0.060
-4.220E-06,0.040
-4.210E-06,0.080
-4.200E-06,0.100
-4.190E-06,0.040
-4.180E-06,0.080
-4.170E-06,0.020
-4.160E-06,0.060
-4.150E-06,0.060
-4.140E-06,0.060
-4.130E-06,0.120
-4.120E-06,0.020
-4.110E-06,0.140
-4.100E-06,0.060
-4.090E-06,0.000
-4.080E-06,0.100
-4.070E-06,0.020
-4.060E-06,0.020
-4.050E-06,0.100
-4.040E-06,-0.020
-4.030E-06,0.040
-4.020E-06,0.080
-4.010E-06,-0.020
-4.000E-06,0.040
-3.990E-06,0.100
-3.980E-06,0.080
-3.970E-06,0.080
-3.960E-06,0.080
-3.950E-06,0.080
-3.940E-06,0.040
-3.930E-06,0.080
-3.920E-06,0.100
-3.910E-06,0.120
-3.900E-06,0.080
-3.890E-06,0.100
-3.880E-06,0.120
-3.870E-06,0.100
-3.860E-06,0.080
-3.850E-06,0.120
-3.840E-06,0.140
-3.830E-06,0.020
-3.820E-06,0.080
-3.810E-06,0.120
-3.800E-06,0.040
-3.790E-06,0.080
-3.780E-06,0.100
-3.770E-06,0.000
-3.760E-06,0.100
-3.750E-06,0.120
-3.740E-06,0.040
-3.730E-06,0.180
-3.720E-06,0.060
-3.710E-06,-0.020
-3.700E-06,0.160
-3.690E-06,0.060
-3.680E-06,0.120
-3.670E-06,0.180
-3.660E-06,0.140
-3.650E-06,0.200
-3.640E-06,0.120
-3.630E-06,0.100
-3.620E-06,0.120
-3.610E-06,0.120
-3.600E-06,0.400
-3.590E-06,0.040
-3.580E-06,0.100
-3.570E-06,0.100
-3.560E-06,-0.040
-3.550E-06,0.000
-3.540E-06,0.320
-3.530E-06,0.340
-3.520E-06,0.240
-3.510E-06,0.240
-3.500E-06,-0.080
-3.490E-06,0.200
-3.480E-06,0.160
-3.470E-06,0.260
-3.460E-06,0.340
-3.450E-06,0.220
-3.440E-06,0.100
-3.430E-06,0.080
-3.420E-06,0.020
-3.410E-06,0.080
-3.400E-06,0.200
-3.390E-06,0.140
-3.380E-06,0.100
-3.370E-06,0.120
-3.360E-06,0.060
-3.350E-06,0.120
-3.340E-06,0.180
-3.330E-06,0.200
-3.320E-06,0.180
-3.310E-06,0.080
-3.300E-06,0.060
-3.290E-06,0.060
-3.280E-06,0.100
-3.270E-06,0.220
-3.260E-06,0.240
-3.250E-06,0.120
-3.240E-06,0.120
-3.230E-06,0.080
-3.220E-06,0.080
-3.210E-06,0.160
-3.200E-06,0.220
-3.190E-06,0.300
-3.180E-06,0.220
-3.170E-06,0.160
-3.160E-06,0.100
-3.150E-06,0.080
-3.140E-06,0.100
-3.130E-06,0.240
-3.120E-06,0.280
-3.110E-06,0.280
-3.100E-06,0.260
-3.090E-06,0.140
-3.080E-06,0.200
-3.070E-06,0.120
-3.060E-06,0.180
-3.050E-06,0.260
-3.040E-06,0.200
-3.030E-06,0.240
-3.020E-06,0.200
-3.010E-06,0.180
-3.000E-06,0.180
-2.990E-06,0.220
-2.980E-06,0.220
-2.970E-06,0.140
-2.960E-06,0.120
-2.950E-06,0.080
-2.940E-06,0.120
-2.930E-06,0.260
-2.920E-06,0.260
-2.910E-06,0.320
-2.900E-06,0.260
-2.890E-06,0.180
-2.880E-06,0.180
-2.870E-06,0.120
-2.860E-06,0.240
-2.850E-06,0.300
-2.840E-06,0.340
-2.830E-06,0.380
-2.820E-06,0.240
-2.810E-06,0.200
-2.800E-06,0.200
-2.790E-06,0.220
-2.780E-06,0.220
-2.770E-06,0.180
-2.760E-06,0.160
-2.750E-06,0.100
-2.740E-06,0.100
-2.730E-06,0.140
-2.720E-06,0.200
-2.710E-06,0.260
-2.700E-06,0.280
-2.690E-06,0.340
-2.680E-06,0.280
-2.670E-06,0.220
-2.660E-06,0.140
-2.650E-06,0.040
-2.640E-06,0.300
-2.630E-06,0.120
-2.620E-06,0.340
-2.610E-06,0.240
-2.600E-06,0.100
-2.590E-06,0.180
-2.580E-06,0.100
-2.570E-06,0.180
-2.560E-06,0.260
-2.550E-06,0.380
-2.540E-06,0.300
-2.530E-06,0.320
-2.520E-06,0.220
-2.510E-06,0.000
-2.500E-06,0.220
-2.490E-06,0.100
-2.480E-06,0.200
-2.470E-06,0.320
-2.460E-06,0.140
-2.450E-06,0.220
-2.440E-06,0.220
-2.430E-06,0.180
-2.420E-06,0.180
-2.410E-06,0.200
-2.400E-06,0.260
-2.390E-06,0.260
-2.380E-06,0.500
-2.370E-06,0.320
-2.360E-06,0.400
-2.350E-06,0.580
-2.340E-06,0.440
-2.330E-06,0.600
-2.320E-06,0.580
-2.310E-06,0.200
-2.300E-06,0.520
-2.290E-06,0.360
-2.280E-06,0.420
-2.270E-06,0.680
-2.260E-06,0.540
-2.250E-06,0.720
-2.240E-06,0.700
-2.230E-06,0.500
-2.220E-06,0.440
-2.210E-06,0.340
-2.200E-06,0.180
-2.190E-06,0.240
-2.180E-06,0.220
-2.170E-06,0.240
-2.160E-06,0.200
-2.150E-06,-0.080
-2.140E-06,-0.140
-2.130E-06,-0.220
-2.120E-06,-0.160
-2.110E-06,0.120
-2.100E-06,0.120
-2.090E-06,0.280
-2.080E-06,0.200
-2.070E-06,0.160
-2.060E-06,0.020
-2.050E-06,0.180
-2.040E-06,0.220
-2.030E-06,0.280
-2.020E-06,0.400
-2.010E-06,0.260
-2.000E-06,0.240
-1.990E-06,0.160
-1.980E-06,0.020
-1.970E-06,0.080
-1.960E-06,-0.020
-1.950E-06,-0.020
-1.940E-06,0.020
-1.930E-06,0.000
-1.920E-06,0.140
-1.910E-06,0.200
-1.900E-06,0.280
-1.890E-06,0.400
-1.880E-06,0.340
-1.870E-06,0.320
-1.860E-06,0.360
-1.850E-06,0.320
-1.840E-06,0.360
-1.830E-06,0.260
-1.820E-06,0.260
-1.810E-06,0.180
-1.800E-06,0.120
-1.790E-06,0.120
-1.780E-06,0.060
-1.770E-06,0.140
-1.760E-06,0.160
-1.750E-06,0.160
-1.740E-06,0.180
-1.730E-06,0.160
-1.720E-06,0.180
-1.710E-06,0.120
-1.700E-06,0.220
-1.690E-06,0.180
-1.680E-06,0.100
-1.670E-06,0.040
-1.660E-06,-0.160
-1.650E-06,0.040
-1.640E-06,0.200
-1.630E-06,0.400
-1.620E-06,0.720
-1.610E-06,0.620
-1.600E-06,0.560
-1.590E-06,0.340
-1.580E-06,0.120
-1.570E-06,0.160
-1.560E-06,0.160
-1.550E-06,0.240
-1.540E-06,0.260
-1.530E-06,0.240
-1.520E-06,0.260
-1.510E-06,0.200
-1.500E-06,0.240
-1.490E-06,0.340
-1.480E-06,0.420
-1.470E-06,0.340
-1.460E-06,0.240
-1.450E-06,0.120
-1.440E-06,-0.060
-1.430E-06,0.000
-1.420E-06,-0.060
-1.410E-06,-0.100
-1.400E-06,-0.040
-1.390E-06,-0.080
-1.380E-06,-0.100
-1.370E-06,-0.080
-1.360E-06,0.020
-1.350E-06,-0.060
-1.340E-06,0.020
-1.330E-06,0.040
-1.320E-06,-0.120
-1.310E-06,0.040
-1.300E-06,0.080
-1.290E-06,0.140
-1.280E-06,0.120
-1.270E-06,0.020
-1.260E-06,0.020
-1.250E-06,0.000
-1.240E-06,-0.020
-1.230E-06,0.140
-1.220E-06,0.220
-1.210E-06,0.240
-1.200E-06,0.280
-1.190E-06,0.240
-1.180E-06,0.400
-1.170E-06,0.300
-1.160E-06,0.260
-1.150E-06,0.260
-1.140E-06,0.040
-1.130E-06,0.100
-1.120E-06,-0.020
-1.110E-06,-0.040
-1.100E-06,0.100
-1.090E-06,0.120
-1.080E-06,0.200
-1.070E-06,0.280
-1.060E-06,0.240
-1.050E-06,0.180
-1.040E-06,0.160
-1.030E-06,0.100
-1.020E-06,0.180
-1.010E-06,0.120
-1.000E-06,0.180
-9.900E-07,0.060
-9.800E-07,-0.040
-9.700E-07,-0.100
-9.600E-07,-0.060
-9.500E-07,-0.020
-9.400E-07,0.060
-9.300E-07,0.100
-9.200E-07,0.060
-9.100E-07,0.040
-9.000E-07,-0.060
-8.900E-07,0.060
-8.800E-07,0.120
-8.700E-07,0.140
-8.600E-07,0.200
-8.500E-07,0.000
-8.400E-07,-0.020
-8.300E-07,-0.140
-8.200E-07,-0.260
-8.100E-07,-0.260
-8.000E-07,-0.080
-7.900E-07,-0.240
-7.800E-07,0.020
-7.700E-07,-0.020
-7.600E-07,-0.100
-7.500E-07,0.120
-7.400E-07,-0.080
-7.300E-07,0.100
-7.200E-07,0.100
-7.100E-07,0.040
-7.000E-07,0.120
-6.900E-07,0.080
-6.800E-07,0.060
-6.700E-07,0.020
-6.600E-07,0.080
-6.500E-07,-0.080
-6.400E-07,0.060
-6.300E-07,-0.040
-6.200E-07,0.020
-6.100E-07,0.120
-6.000E-07,0.180
-5.900E-07,0.300
-5.800E-07,0.340
-5.700E-07,0.360
-5.600E-07,0.400
-5.500E-07,0.400
-5.400E-07,0.420
-5.300E-07,0.360
-5.200E-07,0.480
-5.100E-07,0.360
-5.000E-07,0.280
-4.900E-07,0.360
-4.800E-07,0.160
-4.700E-07,0.160
-4.600E-07,-0.040
-4.500E-07,0.020
-4.400E-07,0.180
-4.300E-07,0.100
-4.200E-07,-0.560
-4.100E-07,-1.340
-4.000E-07,-1.180
-3.900E-07,-1.820
-3.800E-07,-1.640
-3.700E-07,-0.740
-3.600E-07,-2.680
-3.500E-07,-2.620
-3.400E-07,-2.660
-3.300E-07,-2.660
-3.200E-07,-2.660
-3.100E-07,-2.660
-3.000E-07,-2.660
-2.900E-07,-2.660
-2.800E-07,-2.660
-2.700E-07,-2.660
-2.600E-07,-2.640
-2.500E-07,-2.640
-2.400E-07,-2.660
-2.300E-07,-2.640
-2.200E-07,-2.660
-2.100E-07,-2.560
-2.000E-07,-2.420
-1.900E-07,-2.660
-1.800E-07,-1.900
-1.700E-07,-1.720
-1.600E-07,-1.160
-1.500E-07,-0.440
-1.400E-07,-0.180
-1.300E-07,-0.380
-1.200E-07,-0.300
-1.100E-07,-1.100
-1.000E-07,-1.180
-9.000E-08,-1.120
-8.000E-08,-1.400
-7.000E-08,-0.960
-6.000E-08,-0.860
-5.000E-08,-0.680
-4.000E-08,-0.820
-3.000E-08,-0.860
-2.000E-08,-1.020
-1.000E-08,-1.060
0.000E+00,-1.180
1.000E-08,-0.960
2.000E-08,-0.800
3.000E-08,-0.640
4.000E-08,-0.480
5.000E-08,-0.620
6.000E-08,-0.700
7.000E-08,-0.680
8.000E-08,-0.520
9.000E-08,-0.380
1.000E-07,-0.260
1.100E-07,-0.160
1.200E-07,-0.040
1.300E-07,-0.080
1.400E-07,-0.040
1.500E-07,0.020
1.600E-07,0.080
1.700E-07,0.220
1.800E-07,0.280
1.900E-07,0.380
2.000E-07,0.420
2.100E-07,0.400
2.200E-07,0.440
2.300E-07,0.440
2.400E-07,0.500
2.500E-07,0.580
2.600E-07,0.640
2.700E-07,0.660
2.800E-07,0.680
2.900E-07,0.620
3.000E-07,0.660
3.100E-07,0.580
3.200E-07,0.520
3.300E-07,0.500
3.400E-07,0.540
3.500E-07,0.780
3.600E-07,0.740
3.700E-07,0.860
3.800E-07,0.820
3.900E-07,0.720
4.000E-07,0.860
4.100E-07,0.740
4.200E-07,0.800
4.300E-07,0.760
4.400E-07,0.720
4.500E-07,0.580
4.600E-07,0.460
4.700E-07,0.360
4.800E-07,0.340
4.900E-07,0.460
5.000E-07,0.440
5.100E-07,0.500
5.200E-07,0.340
5.300E-07,0.200
5.400E-07,0.440
5.500E-07,0.120
5.600E-07,0.240
5.700E-07,-0.020
5.800E-07,-0.300
5.900E-07,-0.020
6.000E-07,-0.140
6.100E-07,0.300
6.200E-07,0.780
6.300E-07,0.260
6.400E-07,0.820
6.500E-07,0.140
6.600E-07,-0.140
6.700E-07,0.100
6.800E-07,0.180
6.900E-07,0.560
7.000E-07,1.060
7.100E-07,1.200
7.200E-07,1.100
7.300E-07,1.100
7.400E-07,0.780
7.500E-07,0.820
7.600E-07,0.800
7.700E-07,0.780
7.800E-07,0.860
7.900E-07,0.840
8.000E-07,0.680
8.100E-07,0.640
8.200E-07,0.560
8.300E-07,0.500
8.400E-07,0.640
8.500E-07,0.660
8.600E-07,0.680
8.700E-07,0.640
8.800E-07,0.600
8.900E-07,0.520
9.000E-07,0.440
9.100E-07,0.360
9.200E-07,0.260
9.300E-07,0.120
9.400E-07,-0.020
9.500E-07,-0.180
9.600E-07,-0.340
9.700E-07,-0.460
9.800E-07,-0.560
9.900E-07,-0.600
1.000E-06,-0.660
1.010E-06,-0.700
1.020E-06,-0.680
1.030E-06,-0.660
1.040E-06,-0.640
1.050E-06,-0.600
1.060E-06,-0.540
1.070E-06,-0.440
1.080E-06,-0.380
1.090E-06,-0.340
1.100E-06,-0.320
1.110E-06,-0.260
1.120E-06,-0.240
1.130E-06,-0.280
1.140E-06,-0.280
1.150E-06,-0.300
1.160E-06,-0.340
1.170E-06,-0.320
1.180E-06,-0.320
1.190E-06,-0.340
1.200E-06,-0.360
1.210E-06,-0.380
1.220E-06,-0.420
1.230E-06,-0.380
1.240E-06,-0.360
1.250E-06,-0.320
1.260E-06,-0.360
1.270E-06,-0.380
1.280E-06,-0.440
1.290E-06,-0.460
1.300E-06,-0.440
1.310E-06,-0.460
1.320E-06,-0.460
1.330E-06,-0.420
1.340E-06,-0.440
1.350E-06,-0.480
1.360E-06,-0.480
1.370E-06,-0.480
1.380E-06,-0.440
1.390E-06,-0.420
1.400E-06,-0.400
1.410E-06,-0.360
1.420E-06,-0.320
1.430E-06,-0.320
1.440E-06,-0.280
1.450E-06,-0.260
1.460E-06,-0.300
1.470E-06,-0.260
1.480E-06,-0.280
1.490E-06,-0.280
1.500E-06,-0.280
1.510E-06,-0.300
1.520E-06,-0.320
1.530E-06,-0.360
1.540E-06,-0.380
1.550E-06,-0.420
1.560E-06,-0.440
1.570E-06,-0.460
1.580E-06,-0.460
1.590E-06,-0.480
1.600E-06,-0.460
1.610E-06,-0.440
1.620E-06,-0.440
1.630E-06,-0.380
1.640E-06,-0.340
1.650E-06,-0.300
1.660E-06,-0.220
1.670E-06,-0.140
1.680E-06,-0.120
1.690E-06,-0.100
1.700E-06,-0.060
1.710E-06,0.000
1.720E-06,0.020
1.730E-06,0.080
1.740E-06,0.080
1.750E-06,0.120
1.760E-06,0.200
1.770E-06,0.260
1.780E-06,0.260
1.790E-06,0.260
1.800E-06,0.280
1.810E-06,0.300
1.820E-06,0.340
1.830E-06,0.340
1.840E-06,0.340
1.850E-06,0.300
1.860E-06,0.260
1.870E-06,0.300
1.880E-06,0.320
1.890E-06,0.320
1.900E-06,0.380
1.910E-06,0.340
1.920E-06,0.360
1.930E-06,0.360
1.940E-06,0.400
1.950E-06,0.360
1.960E-06,0.320
1.970E-06,0.340
1.980E-06,0.340
1.990E-06,0.420
2.000E-06,0.480
2.010E-06,0.480
2.020E-06,0.540
2.030E-06,0.440
2.040E-06,0.360
2.050E-06,0.400
2.060E-06,0.360
2.070E-06,0.380
2.080E-06,0.460
2.090E-06,0.400
2.100E-06,0.440
2.110E-06,0.500
2.120E-06,0.420
2.130E-06,0.500
2.140E-06,0.420
2.150E-06,0.420
2.160E-06,0.520
2.170E-06,0.480
2.180E-06,0.520
2.190E-06,0.580
2.200E-06,0.540
2.210E-06,0.600
2.220E-06,0.620
2.230E-06,0.600
2.240E-06,0.540
2.250E-06,0.500
2.260E-06,0.520
2.270E-06,0.460
2.280E-06,0.420
2.290E-06,0.360
2.300E-06,0.340
2.310E-06,0.300
2.320E-06,0.280
2.330E-06,0.200
2.340E-06,0.120
2.350E-06,0.120
2.360E-06,0.140
2.370E-06,0.140
2.380E-06,0.120
2.390E-06,0.120
2.400E-06,0.080
2.410E-06,0.120
2.420E-06,0.100
2.430E-06,0.080
2.440E-06,0.140
2.450E-06,0.160
2.460E-06,0.180
2.470E-06,0.160
2.480E-06,0.120
2.490E-06,0.180
2.500E-06,0.220
2.510E-06,0.180
2.520E-06,0.220
2.530E-06,0.220
2.540E-06,0.220
2.550E-06,0.240
2.560E-06,0.220
2.570E-06,0.200
2.580E-06,0.220
2.590E-06,0.220
2.600E-06,0.220
2.610E-06,0.220
2.620E-06,0.260
2.630E-06,0.340
2.640E-06,0.360
2.650E-06,0.440
2.660E-06,0.440
2.670E-06,0.500
2.680E-06,0.500
2.690E-06,0.420
2.700E-06,0.320
2.710E-06,0.160
2.720E-06,-0.020
2.730E-06,-0.280
2.740E-06,-0.420
2.750E-06,-0.500
2.760E-06,-0.500
2.770E-06,-0.360
2.780E-06,-0.200
2.790E-06,-0.040
2.800E-06,0.120
2.810E-06,0.160
2.820E-06,0.260
2.830E-06,0.280
2.840E-06,0.300
2.850E-06,0.340
2.860E-06,0.320
2.870E-06,0.320
2.880E-06,0.300
2.890E-06,0.280
2.900E-06,0.200
2.910E-06,0.160
2.920E-06,0.080
2.930E-06,0.040
2.940E-06,-0.020
2.950E-06,-0.100
2.960E-06,-0.080
2.970E-06,-0.160
2.980E-06,-0.180
2.990E-06,-0.180
3.000E-06,-0.200
3.010E-06,-0.140
3.020E-06,-0.100
3.030E-06,-0.060
3.040E-06,0.040
3.050E-06,0.080
3.060E-06,0.140
3.070E-06,0.100
3.080E-06,0.120
3.090E-06,0.100
3.100E-06,0.080
3.110E-06,0.100
3.120E-06,0.100
3.130E-06,0.040
3.140E-06,0.000
3.150E-06,-0.060
3.160E-06,-0.160
3.170E-06,-0.260
3.180E-06,-0.340
3.190E-06,-0.420
3.200E-06,-0.560
3.210E-06,-0.620
3.220E-06,-0.660
3.230E-06,-0.660
3.240E-06,-0.600
3.250E-06,-0.440
3.260E-06,-0.240
3.270E-06,-0.020
3.280E-06,0.180
3.290E-06,0.300
3.300E-06,0.480
3.310E-06,0.620
3.320E-06,0.800
3.330E-06,0.980
3.340E-06,1.080
3.350E-06,1.120
3.360E-06,1.140
3.370E-06,1.080
3.380E-06,1.000
3.390E-06,0.960
3.400E-06,0.880
3.410E-06,0.800
3.420E-06,0.760
3.430E-06,0.660
3.440E-06,0.540
3.450E-06,0.460
3.460E-06,0.420
3.470E-06,0.360
3.480E-06,0.260
3.490E-06,0.200
3.500E-06,0.120
3.510E-06,0.020
3.520E-06,-0.060
3.530E-06,-0.180
3.540E-06,-0.240
3.550E-06,-0.260
3.560E-06,-0.200
3.570E-06,-0.140
3.580E-06,0.000
3.590E-06,0.120
3.600E-06,0.320
3.610E-06,0.440
3.620E-06,0.500
3.630E-06,0.640
3.640E-06,0.720
3.650E-06,0.720
3.660E-06,0.740
3.670E-06,0.700
3.680E-06,0.660
3.690E-06,0.600
3.700E-06,0.560
3.710E-06,0.480
3.720E-06,0.480
3.730E-06,0.420
3.740E-06,0.420
3.750E-06,0.420
3.760E-06,0.380
3.770E-06,0.380
3.780E-06,0.400
3.790E-06,0.360
3.800E-06,0.360
3.810E-06,0.360
3.820E-06,0.360
3.830E-06,0.360
3.840E-06,0.320
3.850E-06,0.260
3.860E-06,0.220
3.870E-06,0.060
3.880E-06,0.000
3.890E-06,-0.120
3.900E-06,-0.220
3.910E-06,-0.280
3.920E-06,-0.340
3.930E-06,-0.400
3.940E-06,-0.380
3.950E-06,-0.440
3.960E-06,-0.440
3.970E-06,-0.420
3.980E-06,-0.420
3.990E-06,-0.480
4.000E-06,-0.560
4.010E-06,-0.580
4.020E-06,-0.580
4.030E-06,-0.600
4.040E-06,-0.520
4.050E-06,-0.480
4.060E-06,-0.380
4.070E-06,-0.240
4.080E-06,-0.140
4.090E-06,-0.040
4.100E-06,0.080
4.110E-06,0.200
4.120E-06,0.340
4.130E-06,0.420
4.140E-06,0.520
4.150E-06,0.680
4.160E-06,0.820
4.170E-06,0.960
4.180E-06,1.080
4.190E-06,1.160
4.200E-06,1.220
4.210E-06,1.300
4.220E-06,1.300
4.230E-06,1.360
4.240E-06,1.340
4.250E-06,1.300
4.260E-06,1.200
4.270E-06,1.140
4.280E-06,1.040
4.290E-06,0.960
4.300E-06,0.920
4.310E-06,0.940
4.320E-06,0.960
4.330E-06,1.000
4.340E-06,1.100
4.350E-06,1.180
4.360E-06,1.260
4.370E-06,1.340
4.380E-06,1.400
4.390E-06,1.420
4.400E-06,1.380
4.410E-06,1.220
4.420E-06,1.060
4.430E-06,0.940
4.440E-06,0.780
4.450E-06,0.600
4.460E-06,0.500
4.470E-06,0.420
4.480E-06,0.400
4.490E-06,0.420
4.500E-06,0.380
4.510E-06,0.340
4.520E-06,0.240
4.530E-06,0.140
4.540E-06,0.000
4.550E-06,-0.060
4.560E-06,-0.100
4.570E-06,-0.160
4.580E-06,-0.180
4.590E-06,-0.060
4.600E-06,-0.020
4.610E-06,0.080
4.620E-06,0.180
4.630E-06,0.240
4.640E-06,0.300
4.650E-06,0.320
4.660E-06,0.340
4.670E-06,0.340
4.680E-06,0.300
4.690E-06,0.340
4.700E-06,0.340
4.710E-06,0.400
4.720E-06,0.460
4.730E-06,0.540
4.740E-06,0.680
4.750E-06,0.740
4.760E-06,0.800
4.770E-06,0.860
4.780E-06,0.920
4.790E-06,0.980
4.800E-06,1.060
4.810E-06,1.120
4.820E-06,1.180
4.830E-06,1.180
4.840E-06,1.100
4.850E-06,1.080
4.860E-06,0.980
4.870E-06,0.920
4.880E-06,0.840
4.890E-06,0.780
4.900E-06,0.700
4.910E-06,0.620
4.920E-06,0.540
4.930E-06,0.500
4.940E-06,0.480
4.950E-06,0.420
4.960E-06,0.480
4.970E-06,0.560
4.980E-06,0.600
4.990E-06,0.680
5.000E-06,0.740
5.010E-06,0.780
5.020E-06,0.780
5.030E-06,0.800
5.040E-06,0.860
5.050E-06,0.860
5.060E-06,0.900
5.070E-06,0.900
5.080E-06,0.840
5.090E-06,0.820
5.100E-06,0.740
5.110E-06,0.700
5.120E-06,0.720
5.130E-06,0.760
5.140E-06,0.760
5.150E-06,0.760
5.160E-06,0.740
5.170E-06,0.760
5.180E-06,0.780
5.190E-06,0.820
5.200E-06,0.800
5.210E-06,0.840
5.220E-06,0.840
5.230E-06,0.880
5.240E-06,0.900
5.250E-06,0.880
5.260E-06,0.960
5.270E-06,1.000
5.280E-06,1.080
5.290E-06,1.140
5.300E-06,1.220
5.310E-06,1.420
5.320E-06,1.620
5.330E-06,1.920
5.340E-06,2.260
5.350E-06,2.620
5.360E-06,2.780
5.370E-06,2.760
5.380E-06,2.740
5.390E-06,2.760
5.400E-06,2.780
5.410E-06,2.760
5.420E-06,2.780
5.430E-06,2.780
5.440E-06,2.760
5.450E-06,2.780
5.460E-06,2.760
5.470E-06,2.740
5.480E-06,2.760
5.490E-06,2.780
5.500E-06,2.760
5.510E-06,2.760
5.520E-06,2.740
5.530E-06,2.760
5.540E-06,2.420
5.550E-06,2.080
5.560E-06,1.800
5.570E-06,1.620
5.580E-06,1.460
5.590E-06,1.320
5.600E-06,1.200
5.610E-06,1.100
5.620E-06,1.020
5.630E-06,0.900
5.640E-06,0.900
5.650E-06,0.880
5.660E-06,0.920
5.670E-06,0.920
5.680E-06,0.920
5.690E-06,0.900
5.700E-06,0.860
5.710E-06,0.820
5.720E-06,0.780
5.730E-06,0.740
5.740E-06,0.760
5.750E-06,0.740
5.760E-06,0.660
5.770E-06,0.660
5.780E-06,0.580
5.790E-06,0.520
5.800E-06,0.420
5.810E-06,0.340
5.820E-06,0.300
5.830E-06,0.280
5.840E-06,0.280
5.850E-06,0.300
5.860E-06,0.320
5.870E-06,0.400
5.880E-06,0.460
5.890E-06,0.500
5.900E-06,0.580
5.910E-06,0.620
5.920E-06,0.640
5.930E-06,0.660
5.940E-06,0.660
5.950E-06,0.600
5.960E-06,0.620
5.970E-06,0.640
5.980E-06,0.620
5.990E-06,0.620
6.000E-06,0.600
6.010E-06,0.620
6.020E-06,0.600
6.030E-06,0.620
6.040E-06,0.640
6.050E-06,0.660
6.060E-06,0.680
6.070E-06,0.660
6.080E-06,0.660
6.090E-06,0.640
6.100E-06,0.640
6.110E-06,0.660
6.120E-06,0.700
6.130E-06,0.660
6.140E-06,0.640
6.150E-06,0.620
6.160E-06,0.620
6.170E-06,0.580
6.180E-06,0.560
6.190E-06,0.500
6.200E-06,0.500
6.210E-06,0.440
6.220E-06,0.420
6.230E-06,0.440
6.240E-06,0.460
6.250E-06,0.480
6.260E-06,0.420
6.270E-06,0.480
6.280E-06,0.480
6.290E-06,0.440
6.300E-06,0.420
6.310E-06,0.420
6.320E-06,0.440
6.330E-06,0.420
6.340E-06,0.440
6.350E-06,0.440
6.360E-06,0.460
6.370E-06,0.480
6.380E-06,0.480
6.390E-06,0.520
6.400E-06,0.540
6.410E-06,0.520
6.420E-06,0.500
6.430E-06,0.520
6.440E-06,0.500
6.450E-06,0.520
6.460E-06,0.540
6.470E-06,0.560
6.480E-06,0.580
6.490E-06,0.640
6.500E-06,0.660
6.510E-06,0.660
6.520E-06,0.720
6.530E-06,0.700
6.540E-06,0.720
6.550E-06,0.720
6.560E-06,0.760
6.570E-06,0.760
6.580E-06,0.800
6.590E-06,0.820
6.600E-06,0.820
6.610E-06,0.860
6.620E-06,0.840
6.630E-06,0.880
6.640E-06,0.880
6.650E-06,0.880
6.660E-06,0.920
6.670E-06,0.900
6.680E-06,0.920
6.690E-06,0.920
6.700E-06,0.960
6.710E-06,0.980
6.720E-06,1.000
6.730E-06,1.020
6.740E-06,1.040
6.750E-06,1.040
6.760E-06,1.060
6.770E-06,1.120
6.780E-06,1.100
6.790E-06,1.120
6.800E-06,1.120
6.810E-06,1.120
6.820E-06,1.160
6.830E-06,1.180
6.840E-06,1.180
6.850E-06,1.160
6.860E-06,1.180
6.870E-06,1.220
6.880E-06,1.200
6.890E-06,1.240
6.900E-06,1.240
6.910E-06,1.260
6.920E-06,1.280
6.930E-06,1.280
6.940E-06,1.320
6.950E-06,1.320
6.960E-06,1.360
6.970E-06,1.360
6.980E-06,1.340
6.990E-06,1.340
7.000E-06,1.340
7.010E-06,1.360
7.020E-06,1.380
7.030E-06,1.360
7.040E-06,1.400
7.050E-06,1.400
7.060E-06,1.380
7.070E-06,1.420
7.080E-06,1.400
7.090E-06,1.420
7.100E-06,1.440
7.110E-06,1.440
7.120E-06,1.420
7.130E-06,1.420
7.140E-06,1.400
7.150E-06,1.400
7.160E-06,1.400
7.170E-06,1.420
7.180E-06,1.400
7.190E-06,1.400
7.200E-06,1.440
7.210E-06,1.480
7.220E-06,1.480
7.230E-06,1.520
7.240E-06,1.520
7.250E-06,1.560
7.260E-06,1.560
7.270E-06,1.580
7.280E-06,1.560
7.290E-06,1.540
7.300E-06,1.520
7.310E-06,1.540
7.320E-06,1.480
7.330E-06,1.460
7.340E-06,1.480
7.350E-06,1.440
7.360E-06,1.440
7.370E-06,1.440
7.380E-06,1.440
7.390E-06,1.480
7.400E-06,1.460
7.410E-06,1.500
7.420E-06,1.520
7.430E-06,1.540
7.440E-06,1.540
7.450E-06,1.540
7.460E-06,1.580
7.470E-06,1.580
7.480E-06,1.580
7.490E-06,1.540
7.500E-06,1.520
7.510E-06,1.520
7.520E-06,1.540
7.530E-06,1.540
7.540E-06,1.560
7.550E-06,1.580
7.560E-06,1.600
7.570E-06,1.580
7.580E-06,1.600
7.590E-06,1.620
7.600E-06,1.640
7.610E-06,1.600
7.620E-06,1.660
7.630E-06,1.660
7.640E-06,1.640
7.650E-06,1.660
7.660E-06,1.600
7.670E-06,1.580
7.680E-06,1.620
7.690E-06,1.600
7.700E-06,1.560
7.710E-06,1.560
7.720E-06,1.560
7.730E-06,1.560
7.740E-06,1.560
7.750E-06,1.520
7.760E-06,1.560
7.770E-06,1.540
7.780E-06,1.520
