mediciones/Mediciones filtradas (saque las feas)/6-10/61.8/WaveData55195.csv

#timebase=2000000(ps)
,#voltbase=100000(mv/100)
#size=4000
-4.250E-06,0.004
-4.240E-06,0.000
-4.230E-06,0.004
-4.220E-06,0.000
-4.210E-06,0.004
-4.200E-06,0.000
-4.190E-06,0.000
-4.180E-06,0.004
-4.170E-06,0.004
-4.160E-06,0.000
-4.150E-06,0.004
-4.140E-06,-0.004
-4.130E-06,0.000
-4.120E-06,0.000
-4.110E-06,0.004
-4.100E-06,0.004
-4.090E-06,0.004
-4.080E-06,0.004
-4.070E-06,-0.004
-4.060E-06,0.004
-4.050E-06,0.000
-4.040E-06,0.004
-4.030E-06,0.004
-4.020E-06,0.004
-4.010E-06,0.000
-4.000E-06,0.000
-3.990E-06,0.004
-3.980E-06,0.004
-3.970E-06,0.004
-3.960E-06,0.004
-3.950E-06,0.004
-3.940E-06,0.000
-3.930E-06,0.004
-3.920E-06,-0.004
-3.910E-06,0.004
-3.900E-06,0.000
-3.890E-06,0.004
-3.880E-06,0.000
-3.870E-06,0.000
-3.860E-06,0.008
-3.850E-06,0.004
-3.840E-06,0.000
-3.830E-06,0.000
-3.820E-06,0.004
-3.810E-06,0.004
-3.800E-06,0.004
-3.790E-06,0.008
-3.780E-06,0.000
-3.770E-06,0.004
-3.760E-06,0.004
-3.750E-06,0.004
-3.740E-06,0.004
-3.730E-06,0.000
-3.720E-06,0.000
-3.710E-06,0.004
-3.700E-06,0.004
-3.690E-06,0.004
-3.680E-06,0.004
-3.670E-06,0.004
-3.660E-06,0.004
-3.650E-06,0.000
-3.640E-06,0.004
-3.630E-06,0.000
-3.620E-06,0.000
-3.610E-06,0.004
-3.600E-06,0.000
-3.590E-06,0.004
-3.580E-06,0.004
-3.570E-06,0.004
-3.560E-06,0.004
-3.550E-06,0.000
-3.540E-06,0.000
-3.530E-06,0.000
-3.520E-06,0.000
-3.510E-06,-0.004
-3.500E-06,0.004
-3.490E-06,0.004
-3.480E-06,0.000
-3.470E-06,0.000
-3.460E-06,0.004
-3.450E-06,-0.004
-3.440E-06,0.000
-3.430E-06,0.004
-3.420E-06,0.000
-3.410E-06,0.004
-3.400E-06,0.004
-3.390E-06,0.012
-3.380E-06,0.028
-3.370E-06,0.060
-3.360E-06,0.068
-3.350E-06,-0.024
-3.340E-06,0.092
-3.330E-06,-0.088
-3.320E-06,-0.128
-3.310E-06,-0.040
-3.300E-06,-0.076
-3.290E-06,-0.020
-3.280E-06,0.104
-3.270E-06,0.124
-3.260E-06,-0.040
-3.250E-06,-0.024
-3.240E-06,0.028
-3.230E-06,-0.012
-3.220E-06,0.012
-3.210E-06,0.068
-3.200E-06,0.016
-3.190E-06,0.016
-3.180E-06,-0.004
-3.170E-06,-0.008
-3.160E-06,-0.044
-3.150E-06,-0.036
-3.140E-06,-0.004
-3.130E-06,0.012
-3.120E-06,0.044
-3.110E-06,0.032
-3.100E-06,0.040
-3.090E-06,0.008
-3.080E-06,0.012
-3.070E-06,-0.012
-3.060E-06,-0.016
-3.050E-06,-0.012
-3.040E-06,-0.008
-3.030E-06,0.004
-3.020E-06,0.008
-3.010E-06,-0.004
-3.000E-06,-0.016
-2.990E-06,-0.016
-2.980E-06,-0.020
-2.970E-06,0.000
-2.960E-06,0.028
-2.950E-06,0.044
-2.940E-06,0.036
-2.930E-06,0.028
-2.920E-06,0.020
-2.910E-06,-0.004
-2.900E-06,-0.008
-2.890E-06,-0.020
-2.880E-06,-0.012
-2.870E-06,0.004
-2.860E-06,0.004
-2.850E-06,-0.004
-2.840E-06,0.008
-2.830E-06,-0.004
-2.820E-06,0.000
-2.810E-06,0.000
-2.800E-06,0.004
-2.790E-06,0.008
-2.780E-06,0.024
-2.770E-06,0.028
-2.760E-06,0.020
-2.750E-06,0.004
-2.740E-06,-0.004
-2.730E-06,-0.012
-2.720E-06,-0.008
-2.710E-06,0.000
-2.700E-06,0.008
-2.690E-06,0.012
-2.680E-06,0.020
-2.670E-06,0.008
-2.660E-06,0.000
-2.650E-06,0.000
-2.640E-06,0.004
-2.630E-06,0.012
-2.620E-06,0.012
-2.610E-06,0.016
-2.600E-06,0.008
-2.590E-06,0.000
-2.580E-06,-0.004
-2.570E-06,-0.004
-2.560E-06,-0.008
-2.550E-06,0.000
-2.540E-06,0.004
-2.530E-06,0.008
-2.520E-06,0.012
-2.510E-06,0.008
-2.500E-06,0.008
-2.490E-06,-0.004
-2.480E-06,0.000
-2.470E-06,0.008
-2.460E-06,0.000
-2.450E-06,0.012
-2.440E-06,0.024
-2.430E-06,0.020
-2.420E-06,0.020
-2.410E-06,0.000
-2.400E-06,0.004
-2.390E-06,-0.004
-2.380E-06,0.012
-2.370E-06,0.008
-2.360E-06,0.004
-2.350E-06,0.020
-2.340E-06,-0.004
-2.330E-06,0.000
-2.320E-06,-0.004
-2.310E-06,-0.012
-2.300E-06,-0.028
-2.290E-06,-0.024
-2.280E-06,0.000
-2.270E-06,0.020
-2.260E-06,0.036
-2.250E-06,0.024
-2.240E-06,0.000
-2.230E-06,0.000
-2.220E-06,0.012
-2.210E-06,0.008
-2.200E-06,0.000
-2.190E-06,0.000
-2.180E-06,-0.012
-2.170E-06,0.000
-2.160E-06,0.020
-2.150E-06,0.024
-2.140E-06,0.016
-2.130E-06,0.004
-2.120E-06,-0.004
-2.110E-06,-0.004
-2.100E-06,0.004
-2.090E-06,0.008
-2.080E-06,0.020
-2.070E-06,0.008
-2.060E-06,0.008
-2.050E-06,0.000
-2.040E-06,-0.004
-2.030E-06,-0.004
-2.020E-06,-0.004
-2.010E-06,0.004
-2.000E-06,0.012
-1.990E-06,0.012
-1.980E-06,0.008
-1.970E-06,0.004
-1.960E-06,0.008
-1.950E-06,0.020
-1.940E-06,0.012
-1.930E-06,0.012
-1.920E-06,0.008
-1.910E-06,0.008
-1.900E-06,0.012
-1.890E-06,0.064
-1.880E-06,0.024
-1.870E-06,0.028
-1.860E-06,-0.004
-1.850E-06,-0.020
-1.840E-06,-0.036
-1.830E-06,0.020
-1.820E-06,0.056
-1.810E-06,0.036
-1.800E-06,-0.040
-1.790E-06,-0.080
-1.780E-06,-0.072
-1.770E-06,-0.024
-1.760E-06,-0.056
-1.750E-06,0.036
-1.740E-06,0.132
-1.730E-06,0.000
-1.720E-06,0.052
-1.710E-06,-0.132
-1.700E-06,-0.144
-1.690E-06,-0.096
-1.680E-06,-0.012
-1.670E-06,0.104
-1.660E-06,0.128
-1.650E-06,0.088
-1.640E-06,-0.016
-1.630E-06,-0.040
-1.620E-06,-0.072
-1.610E-06,-0.024
-1.600E-06,0.012
-1.590E-06,0.048
-1.580E-06,0.052
-1.570E-06,0.044
-1.560E-06,0.024
-1.550E-06,-0.004
-1.540E-06,-0.008
-1.530E-06,-0.024
-1.520E-06,0.004
-1.510E-06,0.020
-1.500E-06,0.056
-1.490E-06,0.048
-1.480E-06,0.060
-1.470E-06,0.040
-1.460E-06,0.020
-1.450E-06,-0.016
-1.440E-06,-0.036
-1.430E-06,-0.032
-1.420E-06,0.000
-1.410E-06,0.028
-1.400E-06,0.068
-1.390E-06,0.080
-1.380E-06,0.060
-1.370E-06,0.040
-1.360E-06,0.016
-1.350E-06,-0.004
-1.340E-06,-0.008
-1.330E-06,-0.008
-1.320E-06,0.008
-1.310E-06,0.032
-1.300E-06,0.056
-1.290E-06,0.048
-1.280E-06,0.060
-1.270E-06,0.040
-1.260E-06,0.048
-1.250E-06,0.060
-1.240E-06,0.080
-1.230E-06,0.088
-1.220E-06,0.040
-1.210E-06,0.044
-1.200E-06,-0.020
-1.190E-06,0.008
-1.180E-06,0.004
-1.170E-06,0.052
-1.160E-06,0.112
-1.150E-06,0.132
-1.140E-06,0.160
-1.130E-06,0.040
-1.120E-06,0.024
-1.110E-06,-0.044
-1.100E-06,-0.044
-1.090E-06,0.008
-1.080E-06,0.076
-1.070E-06,0.136
-1.060E-06,0.056
-1.050E-06,0.088
-1.040E-06,-0.004
-1.030E-06,-0.036
-1.020E-06,-0.008
-1.010E-06,-0.008
-1.000E-06,-0.032
-9.900E-07,-0.180
-9.800E-07,-0.280
-9.700E-07,-0.376
-9.600E-07,-0.140
-9.500E-07,0.112
-9.400E-07,0.060
-9.300E-07,0.164
-9.200E-07,0.032
-9.100E-07,-0.052
-9.000E-07,-0.152
-8.900E-07,-0.108
-8.800E-07,-0.044
-8.700E-07,0.104
-8.600E-07,0.224
-8.500E-07,0.100
-8.400E-07,-0.044
-8.300E-07,-0.116
-8.200E-07,-0.072
-8.100E-07,-0.052
-8.000E-07,-0.008
-7.900E-07,0.104
-7.800E-07,0.144
-7.700E-07,0.112
-7.600E-07,0.076
-7.500E-07,0.000
-7.400E-07,-0.036
-7.300E-07,-0.004
-7.200E-07,-0.016
-7.100E-07,0.068
-7.000E-07,0.072
-6.900E-07,0.024
-6.800E-07,0.072
-6.700E-07,0.012
-6.600E-07,0.044
-6.500E-07,0.020
-6.400E-07,0.092
-6.300E-07,0.148
-6.200E-07,0.164
-6.100E-07,0.140
-6.000E-07,0.068
-5.900E-07,-0.012
-5.800E-07,-0.076
-5.700E-07,-0.108
-5.600E-07,-0.072
-5.500E-07,0.008
-5.400E-07,0.056
-5.300E-07,0.064
-5.200E-07,0.056
-5.100E-07,0.044
-5.000E-07,0.020
-4.900E-07,0.036
-4.800E-07,0.032
-4.700E-07,0.060
-4.600E-07,0.088
-4.500E-07,0.104
-4.400E-07,0.092
-4.300E-07,0.108
-4.200E-07,0.092
-4.100E-07,0.064
-4.000E-07,0.068
-3.900E-07,0.056
-3.800E-07,0.076
-3.700E-07,0.096
-3.600E-07,0.132
-3.500E-07,0.124
-3.400E-07,0.096
-3.300E-07,0.048
-3.200E-07,-0.016
-3.100E-07,-0.020
-3.000E-07,-0.040
-2.900E-07,-0.028
-2.800E-07,0.020
-2.700E-07,0.060
-2.600E-07,0.064
-2.500E-07,0.056
-2.400E-07,0.036
-2.300E-07,0.008
-2.200E-07,0.012
-2.100E-07,0.044
-2.000E-07,0.128
-1.900E-07,0.152
-1.800E-07,0.180
-1.700E-07,0.176
-1.600E-07,0.176
-1.500E-07,0.176
-1.400E-07,0.144
-1.300E-07,0.112
-1.200E-07,0.128
-1.100E-07,0.156
-1.000E-07,0.168
-9.000E-08,0.128
-8.000E-08,0.128
-7.000E-08,0.068
-6.000E-08,-0.012
-5.000E-08,-0.080
-4.000E-08,-0.428
-3.000E-08,-0.300
-2.000E-08,-0.264
-1.000E-08,0.232
0.000E+00,0.540
1.000E-08,0.544
2.000E-08,0.424
3.000E-08,-0.036
4.000E-08,-0.364
5.000E-08,-0.388
6.000E-08,-0.216
7.000E-08,0.016
8.000E-08,0.316
9.000E-08,0.432
1.000E-07,0.484
1.100E-07,0.148
1.200E-07,-0.100
1.300E-07,-0.272
1.400E-07,-0.232
1.500E-07,-0.004
1.600E-07,0.256
1.700E-07,0.420
1.800E-07,0.352
1.900E-07,0.064
2.000E-07,-0.204
2.100E-07,-0.252
2.200E-07,-0.272
2.300E-07,-0.172
2.400E-07,-0.096
2.500E-07,-0.064
2.600E-07,0.044
2.700E-07,0.024
2.800E-07,-0.188
2.900E-07,-0.096
3.000E-07,-0.012
3.100E-07,0.040
3.200E-07,0.124
3.300E-07,0.156
3.400E-07,0.144
3.500E-07,-0.008
3.600E-07,-0.120
3.700E-07,-0.140
3.800E-07,-0.024
3.900E-07,0.168
4.000E-07,0.352
4.100E-07,0.444
4.200E-07,0.364
4.300E-07,0.212
4.400E-07,0.124
4.500E-07,0.224
4.600E-07,0.272
4.700E-07,0.076
4.800E-07,-0.056
4.900E-07,0.540
5.000E-07,-0.012
5.100E-07,0.456
5.200E-07,0.272
5.300E-07,-0.092
5.400E-07,0.020
5.500E-07,0.152
5.600E-07,0.324
5.700E-07,0.220
5.800E-07,0.336
5.900E-07,0.160
6.000E-07,0.156
6.100E-07,0.280
6.200E-07,0.180
6.300E-07,0.184
6.400E-07,0.208
6.500E-07,0.184
6.600E-07,0.248
6.700E-07,0.224
6.800E-07,0.240
6.900E-07,0.152
7.000E-07,0.180
7.100E-07,0.192
7.200E-07,0.204
7.300E-07,0.256
7.400E-07,0.228
7.500E-07,0.252
7.600E-07,0.196
7.700E-07,0.208
7.800E-07,0.172
7.900E-07,0.188
8.000E-07,0.200
8.100E-07,0.212
8.200E-07,0.228
8.300E-07,0.224
8.400E-07,0.232
8.500E-07,0.200
8.600E-07,0.204
8.700E-07,0.192
8.800E-07,0.208
8.900E-07,0.204
9.000E-07,0.224
9.100E-07,0.220
9.200E-07,0.220
9.300E-07,0.212
9.400E-07,0.196
9.500E-07,0.192
9.600E-07,0.188
9.700E-07,0.212
9.800E-07,0.208
9.900E-07,0.220
1.000E-06,0.212
1.010E-06,0.208
1.020E-06,0.200
1.030E-06,0.192
1.040E-06,0.196
1.050E-06,0.196
1.060E-06,0.208
1.070E-06,0.208
1.080E-06,0.208
1.090E-06,0.200
1.100E-06,0.200
1.110E-06,0.188
1.120E-06,0.192
1.130E-06,0.188
1.140E-06,0.196
1.150E-06,0.204
1.160E-06,0.208
1.170E-06,0.204
1.180E-06,0.192
1.190E-06,0.200
1.200E-06,0.196
1.210E-06,0.196
1.220E-06,0.192
1.230E-06,0.204
1.240E-06,0.200
1.250E-06,0.200
1.260E-06,0.192
1.270E-06,0.196
1.280E-06,0.196
1.290E-06,0.192
1.300E-06,0.192
1.310E-06,0.192
1.320E-06,0.196
1.330E-06,0.200
1.340E-06,0.196
1.350E-06,0.188
1.360E-06,0.192
1.370E-06,0.192
1.380E-06,0.188
1.390E-06,0.196
1.400E-06,0.200
1.410E-06,0.196
1.420E-06,0.196
1.430E-06,0.192
1.440E-06,0.196
1.450E-06,0.196
1.460E-06,0.188
1.470E-06,0.192
1.480E-06,0.192
1.490E-06,0.196
1.500E-06,0.196
1.510E-06,0.192
1.520E-06,0.192
1.530E-06,0.192
1.540E-06,0.192
1.550E-06,0.192
1.560E-06,0.192
1.570E-06,0.188
1.580E-06,0.188
1.590E-06,0.188
1.600E-06,0.192
1.610E-06,0.192
1.620E-06,0.188
1.630E-06,0.188
1.640E-06,0.192
1.650E-06,0.188
1.660E-06,0.184
1.670E-06,0.188
1.680E-06,0.192
1.690E-06,0.184
1.700E-06,0.184
1.710E-06,0.184
1.720E-06,0.188
1.730E-06,0.184
1.740E-06,0.184
1.750E-06,0.184
1.760E-06,0.180
1.770E-06,0.180
1.780E-06,0.180
1.790E-06,0.176
1.800E-06,0.184
1.810E-06,0.180
1.820E-06,0.176
1.830E-06,0.184
1.840E-06,0.184
1.850E-06,0.176
1.860E-06,0.176
1.870E-06,0.172
1.880E-06,0.176
1.890E-06,0.180
1.900E-06,0.176
1.910E-06,0.176
1.920E-06,0.180
1.930E-06,0.176
1.940E-06,0.172
1.950E-06,0.172
1.960E-06,0.168
1.970E-06,0.176
1.980E-06,0.176
1.990E-06,0.168
2.000E-06,0.164
2.010E-06,0.164
2.020E-06,0.168
2.030E-06,0.172
2.040E-06,0.172
2.050E-06,0.168
2.060E-06,0.172
2.070E-06,0.168
2.080E-06,0.172
2.090E-06,0.168
2.100E-06,0.164
2.110E-06,0.168
2.120E-06,0.172
2.130E-06,0.168
2.140E-06,0.164
2.150E-06,0.168
2.160E-06,0.164
2.170E-06,0.164
2.180E-06,0.160
2.190E-06,0.168
2.200E-06,0.164
2.210E-06,0.168
2.220E-06,0.168
2.230E-06,0.164
2.240E-06,0.160
2.250E-06,0.160
2.260E-06,0.164
2.270E-06,0.164
2.280E-06,0.160
2.290E-06,0.160
2.300E-06,0.164
2.310E-06,0.168
2.320E-06,0.164
2.330E-06,0.156
2.340E-06,0.156
2.350E-06,0.160
2.360E-06,0.164
2.370E-06,0.160
2.380E-06,0.156
2.390E-06,0.160
2.400E-06,0.164
2.410E-06,0.156
2.420E-06,0.156
2.430E-06,0.160
2.440E-06,0.156
2.450E-06,0.152
2.460E-06,0.156
2.470E-06,0.160
2.480E-06,0.160
2.490E-06,0.152
2.500E-06,0.156
2.510E-06,0.156
2.520E-06,0.152
2.530E-06,0.156
2.540E-06,0.152
2.550E-06,0.152
2.560E-06,0.152
2.570E-06,0.152
2.580E-06,0.152
2.590E-06,0.152
2.600E-06,0.152
2.610E-06,0.152
2.620E-06,0.144
2.630E-06,0.144
2.640E-06,0.144
2.650E-06,0.144
2.660E-06,0.144
2.670E-06,0.148
2.680E-06,0.148
2.690E-06,0.148
2.700E-06,0.148
2.710E-06,0.136
2.720E-06,0.140
2.730E-06,0.140
2.740E-06,0.144
2.750E-06,0.144
2.760E-06,0.136
2.770E-06,0.144
2.780E-06,0.144
2.790E-06,0.144
2.800E-06,0.136
2.810E-06,0.136
2.820E-06,0.132
2.830E-06,0.132
2.840E-06,0.136
2.850E-06,0.140
2.860E-06,0.140
2.870E-06,0.136
2.880E-06,0.136
2.890E-06,0.128
2.900E-06,0.128
2.910E-06,0.132
2.920E-06,0.136
2.930E-06,0.136
2.940E-06,0.136
2.950E-06,0.136
2.960E-06,0.132
2.970E-06,0.128
2.980E-06,0.128
2.990E-06,0.132
3.000E-06,0.132
3.010E-06,0.132
3.020E-06,0.132
3.030E-06,0.128
3.040E-06,0.132
3.050E-06,0.132
3.060E-06,0.128
3.070E-06,0.128
3.080E-06,0.124
3.090E-06,0.124
3.100E-06,0.124
3.110E-06,0.120
3.120E-06,0.128
3.130E-06,0.124
3.140E-06,0.124
3.150E-06,0.124
3.160E-06,0.124
3.170E-06,0.116
3.180E-06,0.112
3.190E-06,0.112
3.200E-06,0.116
3.210E-06,0.120
3.220E-06,0.124
3.230E-06,0.124
3.240E-06,0.120
3.250E-06,0.112
3.260E-06,0.112
3.270E-06,0.112
3.280E-06,0.112
3.290E-06,0.116
3.300E-06,0.116
3.310E-06,0.116
3.320E-06,0.112
3.330E-06,0.108
3.340E-06,0.112
3.350E-06,0.112
3.360E-06,0.112
3.370E-06,0.112
3.380E-06,0.108
3.390E-06,0.108
3.400E-06,0.108
3.410E-06,0.108
3.420E-06,0.108
3.430E-06,0.104
3.440E-06,0.104
3.450E-06,0.112
3.460E-06,0.108
3.470E-06,0.108
3.480E-06,0.108
3.490E-06,0.108
3.500E-06,0.108
3.510E-06,0.108
3.520E-06,0.108
3.530E-06,0.108
3.540E-06,0.104
3.550E-06,0.108
3.560E-06,0.108
3.570E-06,0.108
3.580E-06,0.100
3.590E-06,0.100
3.600E-06,0.100
3.610E-06,0.100
3.620E-06,0.100
3.630E-06,0.096
3.640E-06,0.096
3.650E-06,0.100
3.660E-06,0.096
3.670E-06,0.096
3.680E-06,0.096
3.690E-06,0.096
3.700E-06,0.092
3.710E-06,0.092
3.720E-06,0.096
3.730E-06,0.092
3.740E-06,0.092
3.750E-06,0.096
3.760E-06,0.092
3.770E-06,0.092
3.780E-06,0.096
3.790E-06,0.088
3.800E-06,0.096
3.810E-06,0.088
3.820E-06,0.096
3.830E-06,0.088
3.840E-06,0.092
3.850E-06,0.092
3.860E-06,0.088
3.870E-06,0.092
3.880E-06,0.088
3.890E-06,0.092
3.900E-06,0.092
3.910E-06,0.092
3.920E-06,0.096
3.930E-06,0.088
3.940E-06,0.080
3.950E-06,0.092
3.960E-06,0.092
3.970E-06,0.084
3.980E-06,0.088
3.990E-06,0.084
4.000E-06,0.084
4.010E-06,0.088
4.020E-06,0.084
4.030E-06,0.088
4.040E-06,0.084
4.050E-06,0.084
4.060E-06,0.080
4.070E-06,0.080
4.080E-06,0.084
4.090E-06,0.076
4.100E-06,0.076
4.110E-06,0.080
4.120E-06,0.076
4.130E-06,0.080
4.140E-06,0.076
4.150E-06,0.080
4.160E-06,0.072
4.170E-06,0.080
4.180E-06,0.076
4.190E-06,0.072
4.200E-06,0.076
4.210E-06,0.076
4.220E-06,0.076
4.230E-06,0.072
4.240E-06,0.076
4.250E-06,0.068
4.260E-06,0.068
4.270E-06,0.076
4.280E-06,0.076
4.290E-06,0.068
4.300E-06,0.068
4.310E-06,0.072
4.320E-06,0.068
4.330E-06,0.072
4.340E-06,0.064
4.350E-06,0.064
4.360E-06,0.068
4.370E-06,0.072
4.380E-06,0.068
4.390E-06,0.068
4.400E-06,0.068
4.410E-06,0.068
4.420E-06,0.068
4.430E-06,0.064
4.440E-06,0.068
4.450E-06,0.064
4.460E-06,0.064
4.470E-06,0.064
4.480E-06,0.068
4.490E-06,0.064
4.500E-06,0.060
4.510E-06,0.064
4.520E-06,0.060
4.530E-06,0.060
4.540E-06,0.060
4.550E-06,0.064
4.560E-06,0.060
4.570E-06,0.064
4.580E-06,0.060
4.590E-06,0.060
4.600E-06,0.060
4.610E-06,0.060
4.620E-06,0.056
4.630E-06,0.056
4.640E-06,0.060
4.650E-06,0.064
4.660E-06,0.056
4.670E-06,0.056
4.680E-06,0.060
4.690E-06,0.056
4.700E-06,0.056
4.710E-06,0.052
4.720E-06,0.060
4.730E-06,0.056
4.740E-06,0.060
4.750E-06,0.056
4.760E-06,0.056
4.770E-06,0.056
4.780E-06,0.056
4.790E-06,0.056
4.800E-06,0.052
4.810E-06,0.052
4.820E-06,0.056
4.830E-06,0.056
4.840E-06,0.056
4.850E-06,0.056
4.860E-06,0.060
4.870E-06,0.060
4.880E-06,0.052
4.890E-06,0.052
4.900E-06,0.056
4.910E-06,0.056
4.920E-06,0.052
4.930E-06,0.048
4.940E-06,0.048
4.950E-06,0.056
4.960E-06,0.048
4.970E-06,0.052
4.980E-06,0.044
4.990E-06,0.048
5.000E-06,0.048
5.010E-06,0.044
5.020E-06,0.044
5.030E-06,0.044
5.040E-06,0.044
5.050E-06,0.040
5.060E-06,0.044
5.070E-06,0.048
5.080E-06,0.048
5.090E-06,0.044
5.100E-06,0.048
5.110E-06,0.040
5.120E-06,0.044
5.130E-06,0.036
5.140E-06,0.044
5.150E-06,0.048
5.160E-06,0.044
5.170E-06,0.040
5.180E-06,0.036
5.190E-06,0.036
5.200E-06,0.032
5.210E-06,0.040
5.220E-06,0.040
5.230E-06,0.036
5.240E-06,0.032
5.250E-06,0.036
5.260E-06,0.040
5.270E-06,0.036
5.280E-06,0.036
5.290E-06,0.036
5.300E-06,0.036
5.310E-06,0.036
5.320E-06,0.040
5.330E-06,0.032
5.340E-06,0.032
5.350E-06,0.040
5.360E-06,0.040
5.370E-06,0.032
5.380E-06,0.036
5.390E-06,0.036
5.400E-06,0.036
5.410E-06,0.036
5.420E-06,0.036
5.430E-06,0.032
5.440E-06,0.032
5.450E-06,0.036
5.460E-06,0.032
5.470E-06,0.036
5.480E-06,0.032
5.490E-06,0.032
5.500E-06,0.028
5.510E-06,0.032
5.520E-06,0.024
5.530E-06,0.032
5.540E-06,0.036
5.550E-06,0.032
5.560E-06,0.032
5.570E-06,0.028
5.580E-06,0.020
5.590E-06,0.020
5.600E-06,0.028
5.610E-06,0.024
5.620E-06,0.028
5.630E-06,0.032
5.640E-06,0.028
5.650E-06,0.028
5.660E-06,0.024
5.670E-06,0.020
5.680E-06,0.024
5.690E-06,0.020
5.700E-06,0.024
5.710E-06,0.032
5.720E-06,0.028
5.730E-06,0.020
5.740E-06,0.024
5.750E-06,0.024
5.760E-06,0.020
5.770E-06,0.020
5.780E-06,0.024
5.790E-06,0.024
5.800E-06,0.028
5.810E-06,0.024
5.820E-06,0.016
5.830E-06,0.016
5.840E-06,0.016
5.850E-06,0.012
5.860E-06,0.020
5.870E-06,0.028
5.880E-06,0.024
5.890E-06,0.020
5.900E-06,0.016
5.910E-06,0.020
5.920E-06,0.008
5.930E-06,0.012
5.940E-06,0.020
5.950E-06,0.012
5.960E-06,0.020
5.970E-06,0.016
5.980E-06,0.012
5.990E-06,0.008
6.000E-06,0.012
6.010E-06,0.012
6.020E-06,0.016
6.030E-06,0.024
6.040E-06,0.020
6.050E-06,0.016
6.060E-06,0.012
6.070E-06,0.012
6.080E-06,0.008
6.090E-06,0.012
6.100E-06,0.016
6.110E-06,0.016
6.120E-06,0.020
6.130E-06,0.008
6.140E-06,0.008
6.150E-06,0.012
6.160E-06,0.016
6.170E-06,0.008
6.180E-06,0.012
6.190E-06,0.012
6.200E-06,0.012
6.210E-06,0.008
6.220E-06,0.008
6.230E-06,0.008
6.240E-06,0.008
6.250E-06,0.008
6.260E-06,0.008
6.270E-06,0.012
6.280E-06,0.012
6.290E-06,0.004
6.300E-06,0.004
6.310E-06,0.008
6.320E-06,0.004
6.330E-06,0.004
6.340E-06,0.008
6.350E-06,0.004
6.360E-06,0.004
6.370E-06,0.008
6.380E-06,0.004
6.390E-06,0.004
6.400E-06,0.008
6.410E-06,0.012
6.420E-06,0.012
6.430E-06,0.004
6.440E-06,0.004
6.450E-06,0.004
6.460E-06,0.004
6.470E-06,0.004
6.480E-06,0.004
6.490E-06,0.004
6.500E-06,0.004
6.510E-06,0.004
6.520E-06,0.008
6.530E-06,0.008
6.540E-06,0.004
6.550E-06,0.000
6.560E-06,0.004
6.570E-06,0.000
6.580E-06,0.000
6.590E-06,0.000
6.600E-06,0.004
6.610E-06,0.004
6.620E-06,0.000
6.630E-06,0.000
6.640E-06,0.000
6.650E-06,-0.004
6.660E-06,0.000
6.670E-06,0.000
6.680E-06,0.004
6.690E-06,0.000
6.700E-06,-0.004
6.710E-06,0.000
6.720E-06,-0.008
6.730E-06,-0.008
6.740E-06,0.000
6.750E-06,-0.004
6.760E-06,-0.004
6.770E-06,0.004
6.780E-06,0.000
6.790E-06,0.004
6.800E-06,-0.004
6.810E-06,0.000
6.820E-06,-0.004
6.830E-06,0.000
6.840E-06,-0.004
6.850E-06,-0.004
6.860E-06,-0.004
6.870E-06,-0.004
6.880E-06,-0.004
6.890E-06,-0.004
6.900E-06,-0.004
6.910E-06,-0.004
6.920E-06,-0.004
6.930E-06,-0.004
6.940E-06,-0.004
6.950E-06,-0.004
6.960E-06,-0.004
6.970E-06,-0.004
6.980E-06,-0.008
6.990E-06,-0.004
7.000E-06,-0.004
7.010E-06,0.000
7.020E-06,0.000
7.030E-06,-0.004
7.040E-06,-0.004
7.050E-06,-0.004
7.060E-06,-0.008
7.070E-06,-0.004
7.080E-06,0.000
7.090E-06,-0.008
7.100E-06,-0.004
7.110E-06,-0.008
7.120E-06,-0.012
7.130E-06,-0.012
7.140E-06,-0.004
7.150E-06,-0.008
7.160E-06,-0.008
7.170E-06,-0.008
7.180E-06,-0.008
7.190E-06,-0.008
7.200E-06,-0.008
7.210E-06,-0.008
7.220E-06,-0.012
7.230E-06,-0.004
7.240E-06,-0.008
7.250E-06,-0.012
7.260E-06,-0.012
7.270E-06,-0.012
7.280E-06,-0.008
7.290E-06,-0.012
7.300E-06,-0.008
7.310E-06,-0.008
7.320E-06,-0.012
7.330E-06,-0.008
7.340E-06,-0.012
7.350E-06,-0.012
7.360E-06,-0.012
7.370E-06,-0.012
7.380E-06,-0.012
7.390E-06,-0.012
7.400E-06,-0.016
7.410E-06,-0.012
7.420E-06,-0.016
7.430E-06,-0.012
7.440E-06,-0.012
7.450E-06,-0.016
7.460E-06,-0.020
7.470E-06,-0.016
7.480E-06,-0.024
7.490E-06,-0.024
7.500E-06,-0.012
7.510E-06,-0.008
7.520E-06,-0.016
7.530E-06,-0.016
7.540E-06,-0.020
7.550E-06,-0.016
7.560E-06,-0.020
7.570E-06,-0.016
7.580E-06,-0.020
7.590E-06,-0.012
7.600E-06,-0.016
7.610E-06,-0.024
7.620E-06,-0.016
7.630E-06,-0.020
7.640E-06,-0.016
7.650E-06,-0.020
7.660E-06,-0.028
7.670E-06,-0.020
7.680E-06,-0.016
7.690E-06,-0.020
7.700E-06,-0.020
7.710E-06,-0.020
7.720E-06,-0.024
7.730E-06,-0.020
7.740E-06,-0.024
7.750E-06,-0.024
7.760E-06,-0.024
7.770E-06,-0.024
7.780E-06,-0.024
