mediciones/5-15/22.5/WaveData47404.csv

#timebase=2000000(ps)
,#voltbase=500000(mv/100)
#size=4000
-8.400E-06,0.240
-8.390E-06,0.220
-8.380E-06,0.200
-8.370E-06,0.200
-8.360E-06,0.160
-8.350E-06,0.180
-8.340E-06,0.160
-8.330E-06,0.140
-8.320E-06,0.100
-8.310E-06,0.100
-8.300E-06,0.020
-8.290E-06,0.040
-8.280E-06,0.020
-8.270E-06,0.000
-8.260E-06,-0.020
-8.250E-06,-0.060
-8.240E-06,-0.080
-8.230E-06,-0.140
-8.220E-06,-0.120
-8.210E-06,-0.140
-8.200E-06,-0.120
-8.190E-06,-0.100
-8.180E-06,-0.120
-8.170E-06,-0.120
-8.160E-06,-0.080
-8.150E-06,-0.080
-8.140E-06,-0.060
-8.130E-06,-0.040
-8.120E-06,-0.020
-8.110E-06,0.000
-8.100E-06,0.000
-8.090E-06,0.020
-8.080E-06,0.020
-8.070E-06,0.080
-8.060E-06,0.100
-8.050E-06,0.080
-8.040E-06,0.080
-8.030E-06,0.120
-8.020E-06,0.100
-8.010E-06,0.100
-8.000E-06,0.120
-7.990E-06,0.160
-7.980E-06,0.180
-7.970E-06,0.180
-7.960E-06,0.180
-7.950E-06,0.180
-7.940E-06,0.180
-7.930E-06,0.180
-7.920E-06,0.180
-7.910E-06,0.160
-7.900E-06,0.140
-7.890E-06,0.100
-7.880E-06,0.080
-7.870E-06,0.060
-7.860E-06,0.040
-7.850E-06,0.020
-7.840E-06,0.000
-7.830E-06,0.020
-7.820E-06,0.080
-7.810E-06,0.080
-7.800E-06,0.040
-7.790E-06,0.020
-7.780E-06,-0.080
-7.770E-06,-0.140
-7.760E-06,-0.120
-7.750E-06,-0.120
-7.740E-06,-0.080
-7.730E-06,-0.040
-7.720E-06,-0.120
-7.710E-06,-0.100
-7.700E-06,-0.100
-7.690E-06,-0.060
-7.680E-06,-0.020
-7.670E-06,-0.020
-7.660E-06,0.000
-7.650E-06,-0.020
-7.640E-06,-0.020
-7.630E-06,0.060
-7.620E-06,0.080
-7.610E-06,0.160
-7.600E-06,0.120
-7.590E-06,0.140
-7.580E-06,0.120
-7.570E-06,0.120
-7.560E-06,0.140
-7.550E-06,0.180
-7.540E-06,0.180
-7.530E-06,0.160
-7.520E-06,0.160
-7.510E-06,0.140
-7.500E-06,0.120
-7.490E-06,0.120
-7.480E-06,0.160
-7.470E-06,0.140
-7.460E-06,0.100
-7.450E-06,0.080
-7.440E-06,0.060
-7.430E-06,0.100
-7.420E-06,0.100
-7.410E-06,0.060
-7.400E-06,0.040
-7.390E-06,0.020
-7.380E-06,0.000
-7.370E-06,0.000
-7.360E-06,0.000
-7.350E-06,0.000
-7.340E-06,0.000
-7.330E-06,0.000
-7.320E-06,-0.020
-7.310E-06,-0.020
-7.300E-06,-0.020
-7.290E-06,0.000
-7.280E-06,0.000
-7.270E-06,-0.020
-7.260E-06,0.000
-7.250E-06,0.000
-7.240E-06,0.000
-7.230E-06,0.020
-7.220E-06,0.040
-7.210E-06,0.020
-7.200E-06,0.060
-7.190E-06,0.060
-7.180E-06,0.040
-7.170E-06,0.020
-7.160E-06,0.020
-7.150E-06,0.020
-7.140E-06,0.020
-7.130E-06,0.020
-7.120E-06,0.000
-7.110E-06,0.020
-7.100E-06,0.000
-7.090E-06,-0.020
-7.080E-06,0.000
-7.070E-06,-0.020
-7.060E-06,-0.060
-7.050E-06,-0.040
-7.040E-06,-0.100
-7.030E-06,-0.080
-7.020E-06,-0.100
-7.010E-06,-0.120
-7.000E-06,-0.180
-6.990E-06,-0.160
-6.980E-06,-0.200
-6.970E-06,-0.160
-6.960E-06,-0.280
-6.950E-06,-0.240
-6.940E-06,-0.400
-6.930E-06,-0.320
-6.920E-06,-0.240
-6.910E-06,-0.180
-6.900E-06,-0.120
-6.890E-06,-0.140
-6.880E-06,-0.160
-6.870E-06,-0.120
-6.860E-06,-0.100
-6.850E-06,0.000
-6.840E-06,-0.020
-6.830E-06,0.000
-6.820E-06,0.000
-6.810E-06,0.020
-6.800E-06,0.060
-6.790E-06,0.080
-6.780E-06,0.120
-6.770E-06,0.100
-6.760E-06,0.080
-6.750E-06,0.120
-6.740E-06,0.160
-6.730E-06,0.200
-6.720E-06,0.240
-6.710E-06,0.220
-6.700E-06,0.180
-6.690E-06,0.180
-6.680E-06,0.160
-6.670E-06,0.180
-6.660E-06,0.160
-6.650E-06,0.140
-6.640E-06,0.120
-6.630E-06,0.060
-6.620E-06,0.020
-6.610E-06,0.020
-6.600E-06,-0.020
-6.590E-06,0.040
-6.580E-06,-0.020
-6.570E-06,0.000
-6.560E-06,-0.020
-6.550E-06,-0.100
-6.540E-06,-0.160
-6.530E-06,-0.180
-6.520E-06,-0.180
-6.510E-06,-0.140
-6.500E-06,-0.160
-6.490E-06,-0.220
-6.480E-06,-0.220
-6.470E-06,-0.200
-6.460E-06,-0.220
-6.450E-06,-0.140
-6.440E-06,-0.120
-6.430E-06,-0.080
-6.420E-06,0.000
-6.410E-06,0.040
-6.400E-06,0.120
-6.390E-06,0.160
-6.380E-06,0.140
-6.370E-06,0.160
-6.360E-06,0.140
-6.350E-06,0.160
-6.340E-06,0.160
-6.330E-06,0.160
-6.320E-06,0.160
-6.310E-06,0.120
-6.300E-06,0.120
-6.290E-06,0.140
-6.280E-06,0.140
-6.270E-06,0.160
-6.260E-06,0.120
-6.250E-06,0.140
-6.240E-06,0.100
-6.230E-06,0.140
-6.220E-06,0.140
-6.210E-06,0.100
-6.200E-06,0.140
-6.190E-06,0.140
-6.180E-06,0.080
-6.170E-06,0.080
-6.160E-06,0.060
-6.150E-06,0.060
-6.140E-06,0.020
-6.130E-06,0.020
-6.120E-06,0.020
-6.110E-06,-0.020
-6.100E-06,0.000
-6.090E-06,0.020
-6.080E-06,0.000
-6.070E-06,0.000
-6.060E-06,0.000
-6.050E-06,0.000
-6.040E-06,0.020
-6.030E-06,0.040
-6.020E-06,0.080
-6.010E-06,0.080
-6.000E-06,0.080
-5.990E-06,0.040
-5.980E-06,0.000
-5.970E-06,0.000
-5.960E-06,0.020
-5.950E-06,0.080
-5.940E-06,0.040
-5.930E-06,-0.020
-5.920E-06,0.000
-5.910E-06,0.020
-5.900E-06,0.040
-5.890E-06,0.040
-5.880E-06,0.080
-5.870E-06,0.040
-5.860E-06,0.000
-5.850E-06,0.020
-5.840E-06,0.040
-5.830E-06,0.080
-5.820E-06,0.060
-5.810E-06,0.040
-5.800E-06,0.060
-5.790E-06,0.020
-5.780E-06,0.040
-5.770E-06,0.060
-5.760E-06,0.080
-5.750E-06,0.080
-5.740E-06,0.080
-5.730E-06,0.060
-5.720E-06,0.040
-5.710E-06,0.060
-5.700E-06,0.060
-5.690E-06,0.020
-5.680E-06,0.040
-5.670E-06,0.060
-5.660E-06,0.020
-5.650E-06,0.020
-5.640E-06,0.000
-5.630E-06,0.020
-5.620E-06,0.000
-5.610E-06,0.000
-5.600E-06,-0.020
-5.590E-06,0.000
-5.580E-06,0.020
-5.570E-06,0.040
-5.560E-06,0.060
-5.550E-06,0.020
-5.540E-06,0.040
-5.530E-06,0.040
-5.520E-06,0.040
-5.510E-06,0.080
-5.500E-06,0.080
-5.490E-06,0.060
-5.480E-06,0.100
-5.470E-06,0.140
-5.460E-06,0.100
-5.450E-06,0.120
-5.440E-06,0.100
-5.430E-06,0.080
-5.420E-06,0.100
-5.410E-06,0.120
-5.400E-06,0.100
-5.390E-06,0.080
-5.380E-06,0.080
-5.370E-06,0.060
-5.360E-06,0.040
-5.350E-06,0.060
-5.340E-06,0.060
-5.330E-06,0.020
-5.320E-06,-0.020
-5.310E-06,0.000
-5.300E-06,0.000
-5.290E-06,0.020
-5.280E-06,0.060
-5.270E-06,0.100
-5.260E-06,0.060
-5.250E-06,0.020
-5.240E-06,-0.060
-5.230E-06,-0.040
-5.220E-06,-0.040
-5.210E-06,0.000
-5.200E-06,0.020
-5.190E-06,0.000
-5.180E-06,-0.020
-5.170E-06,-0.040
-5.160E-06,-0.060
-5.150E-06,-0.020
-5.140E-06,0.000
-5.130E-06,0.020
-5.120E-06,0.020
-5.110E-06,0.020
-5.100E-06,0.060
-5.090E-06,0.100
-5.080E-06,0.100
-5.070E-06,0.120
-5.060E-06,0.120
-5.050E-06,0.080
-5.040E-06,0.100
-5.030E-06,0.080
-5.020E-06,0.100
-5.010E-06,0.100
-5.000E-06,0.100
-4.990E-06,0.120
-4.980E-06,0.100
-4.970E-06,0.120
-4.960E-06,0.080
-4.950E-06,0.140
-4.940E-06,0.140
-4.930E-06,0.140
-4.920E-06,0.100
-4.910E-06,0.060
-4.900E-06,0.100
-4.890E-06,0.100
-4.880E-06,0.080
-4.870E-06,0.080
-4.860E-06,0.000
-4.850E-06,0.000
-4.840E-06,0.000
-4.830E-06,0.000
-4.820E-06,0.020
-4.810E-06,0.000
-4.800E-06,0.060
-4.790E-06,0.060
-4.780E-06,0.060
-4.770E-06,0.040
-4.760E-06,0.020
-4.750E-06,0.040
-4.740E-06,0.040
-4.730E-06,0.040
-4.720E-06,0.040
-4.710E-06,0.060
-4.700E-06,0.040
-4.690E-06,0.020
-4.680E-06,0.020
-4.670E-06,0.060
-4.660E-06,0.020
-4.650E-06,0.020
-4.640E-06,0.060
-4.630E-06,0.080
-4.620E-06,0.040
-4.610E-06,0.080
-4.600E-06,0.080
-4.590E-06,0.080
-4.580E-06,0.080
-4.570E-06,0.080
-4.560E-06,0.060
-4.550E-06,0.060
-4.540E-06,0.020
-4.530E-06,0.060
-4.520E-06,0.040
-4.510E-06,0.060
-4.500E-06,0.000
-4.490E-06,0.020
-4.480E-06,0.060
-4.470E-06,0.060
-4.460E-06,0.040
-4.450E-06,0.060
-4.440E-06,0.080
-4.430E-06,0.060
-4.420E-06,0.040
-4.410E-06,0.020
-4.400E-06,0.040
-4.390E-06,0.020
-4.380E-06,0.020
-4.370E-06,0.020
-4.360E-06,-0.020
-4.350E-06,0.000
-4.340E-06,-0.020
-4.330E-06,-0.060
-4.320E-06,-0.060
-4.310E-06,-0.020
-4.300E-06,0.000
-4.290E-06,0.020
-4.280E-06,0.000
-4.270E-06,-0.060
-4.260E-06,-0.040
-4.250E-06,-0.140
-4.240E-06,-0.120
-4.230E-06,-0.140
-4.220E-06,-0.160
-4.210E-06,-0.180
-4.200E-06,-0.180
-4.190E-06,-0.200
-4.180E-06,-0.200
-4.170E-06,-0.240
-4.160E-06,-0.180
-4.150E-06,-0.220
-4.140E-06,-0.160
-4.130E-06,-0.160
-4.120E-06,-0.080
-4.110E-06,-0.040
-4.100E-06,0.020
-4.090E-06,-0.020
-4.080E-06,-0.020
-4.070E-06,-0.020
-4.060E-06,0.000
-4.050E-06,0.000
-4.040E-06,0.040
-4.030E-06,0.000
-4.020E-06,0.000
-4.010E-06,0.000
-4.000E-06,0.000
-3.990E-06,0.100
-3.980E-06,0.080
-3.970E-06,0.120
-3.960E-06,0.100
-3.950E-06,0.140
-3.940E-06,0.160
-3.930E-06,0.180
-3.920E-06,0.180
-3.910E-06,0.180
-3.900E-06,0.160
-3.890E-06,0.080
-3.880E-06,0.100
-3.870E-06,0.060
-3.860E-06,0.020
-3.850E-06,0.000
-3.840E-06,0.000
-3.830E-06,-0.040
-3.820E-06,-0.020
-3.810E-06,0.000
-3.800E-06,0.020
-3.790E-06,0.020
-3.780E-06,0.020
-3.770E-06,0.020
-3.760E-06,0.020
-3.750E-06,0.040
-3.740E-06,0.060
-3.730E-06,0.040
-3.720E-06,0.020
-3.710E-06,0.020
-3.700E-06,-0.020
-3.690E-06,0.000
-3.680E-06,0.000
-3.670E-06,-0.020
-3.660E-06,-0.020
-3.650E-06,-0.040
-3.640E-06,-0.020
-3.630E-06,-0.040
-3.620E-06,-0.060
-3.610E-06,-0.060
-3.600E-06,-0.100
-3.590E-06,-0.140
-3.580E-06,-0.120
-3.570E-06,-0.160
-3.560E-06,-0.180
-3.550E-06,-0.160
-3.540E-06,-0.200
-3.530E-06,-0.220
-3.520E-06,-0.180
-3.510E-06,-0.200
-3.500E-06,-0.200
-3.490E-06,-0.200
-3.480E-06,-0.260
-3.470E-06,-0.280
-3.460E-06,-0.340
-3.450E-06,-0.340
-3.440E-06,-0.420
-3.430E-06,-0.440
-3.420E-06,-0.480
-3.410E-06,-0.160
-3.400E-06,-0.400
-3.390E-06,-0.180
-3.380E-06,-0.360
-3.370E-06,-0.460
-3.360E-06,-0.380
-3.350E-06,-0.360
-3.340E-06,-0.300
-3.330E-06,-0.160
-3.320E-06,-0.360
-3.310E-06,-0.380
-3.300E-06,-0.400
-3.290E-06,-0.340
-3.280E-06,-0.180
-3.270E-06,-0.120
-3.260E-06,-0.120
-3.250E-06,-0.140
-3.240E-06,-0.120
-3.230E-06,-0.040
-3.220E-06,0.000
-3.210E-06,0.060
-3.200E-06,0.060
-3.190E-06,0.040
-3.180E-06,0.020
-3.170E-06,0.000
-3.160E-06,0.000
-3.150E-06,0.080
-3.140E-06,0.100
-3.130E-06,0.100
-3.120E-06,0.120
-3.110E-06,0.180
-3.100E-06,0.180
-3.090E-06,0.220
-3.080E-06,0.220
-3.070E-06,0.240
-3.060E-06,0.220
-3.050E-06,0.180
-3.040E-06,0.180
-3.030E-06,0.120
-3.020E-06,0.080
-3.010E-06,0.040
-3.000E-06,-0.080
-2.990E-06,-0.120
-2.980E-06,-0.180
-2.970E-06,-0.200
-2.960E-06,-0.220
-2.950E-06,-0.180
-2.940E-06,-0.160
-2.930E-06,-0.120
-2.920E-06,-0.120
-2.910E-06,-0.120
-2.900E-06,-0.080
-2.890E-06,-0.100
-2.880E-06,-0.100
-2.870E-06,-0.040
-2.860E-06,-0.100
-2.850E-06,-0.100
-2.840E-06,-0.100
-2.830E-06,-0.180
-2.820E-06,-0.180
-2.810E-06,-0.220
-2.800E-06,-0.240
-2.790E-06,-0.320
-2.780E-06,-0.360
-2.770E-06,-0.420
-2.760E-06,-0.520
-2.750E-06,-0.520
-2.740E-06,-0.500
-2.730E-06,-0.480
-2.720E-06,-0.460
-2.710E-06,-0.520
-2.700E-06,-0.600
-2.690E-06,-0.680
-2.680E-06,-0.780
-2.670E-06,-0.840
-2.660E-06,-0.880
-2.650E-06,-0.820
-2.640E-06,-0.820
-2.630E-06,-0.740
-2.620E-06,-0.760
-2.610E-06,-0.700
-2.600E-06,-0.660
-2.590E-06,-0.620
-2.580E-06,-0.580
-2.570E-06,-0.540
-2.560E-06,-0.560
-2.550E-06,-0.520
-2.540E-06,-0.560
-2.530E-06,-0.500
-2.520E-06,-0.520
-2.510E-06,-0.540
-2.500E-06,-0.580
-2.490E-06,-0.580
-2.480E-06,-0.620
-2.470E-06,-0.640
-2.460E-06,-0.580
-2.450E-06,-0.600
-2.440E-06,-0.620
-2.430E-06,-0.660
-2.420E-06,-0.680
-2.410E-06,-0.720
-2.400E-06,-0.660
-2.390E-06,-0.620
-2.380E-06,-0.560
-2.370E-06,-0.520
-2.360E-06,-0.400
-2.350E-06,-0.260
-2.340E-06,-0.160
-2.330E-06,-0.120
-2.320E-06,-0.100
-2.310E-06,-0.120
-2.300E-06,-0.200
-2.290E-06,-0.240
-2.280E-06,-0.340
-2.270E-06,-0.420
-2.260E-06,-0.420
-2.250E-06,-0.420
-2.240E-06,-0.400
-2.230E-06,-0.360
-2.220E-06,-0.400
-2.210E-06,-0.360
-2.200E-06,-0.360
-2.190E-06,-0.360
-2.180E-06,-0.340
-2.170E-06,-0.340
-2.160E-06,-0.300
-2.150E-06,-0.280
-2.140E-06,-0.240
-2.130E-06,-0.220
-2.120E-06,-0.220
-2.110E-06,-0.200
-2.100E-06,-0.180
-2.090E-06,-0.120
-2.080E-06,-0.080
-2.070E-06,-0.080
-2.060E-06,-0.020
-2.050E-06,0.020
-2.040E-06,0.060
-2.030E-06,0.080
-2.020E-06,0.080
-2.010E-06,0.100
-2.000E-06,0.060
-1.990E-06,-0.020
-1.980E-06,-0.020
-1.970E-06,-0.140
-1.960E-06,-0.180
-1.950E-06,-0.260
-1.940E-06,-0.260
-1.930E-06,-0.320
-1.920E-06,-0.260
-1.910E-06,-0.260
-1.900E-06,0.320
-1.890E-06,0.360
-1.880E-06,0.700
-1.870E-06,0.420
-1.860E-06,0.160
-1.850E-06,-0.040
-1.840E-06,-0.160
-1.830E-06,-0.120
-1.820E-06,0.020
-1.810E-06,-0.180
-1.800E-06,-0.400
-1.790E-06,-0.500
-1.780E-06,-0.660
-1.770E-06,-0.380
-1.760E-06,-0.340
-1.750E-06,-0.480
-1.740E-06,-0.540
-1.730E-06,-0.320
-1.720E-06,-0.120
-1.710E-06,0.320
-1.700E-06,0.440
-1.690E-06,0.160
-1.680E-06,0.160
-1.670E-06,-0.060
-1.660E-06,-0.020
-1.650E-06,0.180
-1.640E-06,0.120
-1.630E-06,0.020
-1.620E-06,-0.060
-1.610E-06,-0.160
-1.600E-06,-0.160
-1.590E-06,-0.020
-1.580E-06,0.000
-1.570E-06,0.020
-1.560E-06,0.000
-1.550E-06,0.040
-1.540E-06,0.200
-1.530E-06,0.320
-1.520E-06,0.540
-1.510E-06,0.580
-1.500E-06,0.420
-1.490E-06,0.260
-1.480E-06,0.040
-1.470E-06,-0.100
-1.460E-06,-0.120
-1.450E-06,-0.220
-1.440E-06,-0.340
-1.430E-06,-0.400
-1.420E-06,-0.420
-1.410E-06,-0.360
-1.400E-06,-0.260
-1.390E-06,-0.240
-1.380E-06,-0.220
-1.370E-06,-0.220
-1.360E-06,-0.180
-1.350E-06,-0.140
-1.340E-06,-0.060
-1.330E-06,0.020
-1.320E-06,0.060
-1.310E-06,0.060
-1.300E-06,0.020
-1.290E-06,0.000
-1.280E-06,-0.020
-1.270E-06,-0.080
-1.260E-06,-0.100
-1.250E-06,-0.020
-1.240E-06,0.060
-1.230E-06,0.200
-1.220E-06,0.280
-1.210E-06,0.320
-1.200E-06,0.300
-1.190E-06,0.240
-1.180E-06,0.240
-1.170E-06,0.200
-1.160E-06,0.120
-1.150E-06,0.040
-1.140E-06,-0.120
-1.130E-06,-0.280
-1.120E-06,-0.440
-1.110E-06,-0.380
-1.100E-06,-0.280
-1.090E-06,-0.340
-1.080E-06,-0.320
-1.070E-06,-0.460
-1.060E-06,-0.640
-1.050E-06,-0.640
-1.040E-06,-0.720
-1.030E-06,-0.680
-1.020E-06,-0.680
-1.010E-06,-0.840
-1.000E-06,-0.900
-9.900E-07,-0.860
-9.800E-07,-0.820
-9.700E-07,-0.700
-9.600E-07,-0.580
-9.500E-07,-0.620
-9.400E-07,-0.540
-9.300E-07,-0.460
-9.200E-07,-0.340
-9.100E-07,-0.300
-9.000E-07,-0.280
-8.900E-07,-0.240
-8.800E-07,-0.160
-8.700E-07,-0.040
-8.600E-07,0.020
-8.500E-07,0.100
-8.400E-07,0.220
-8.300E-07,0.240
-8.200E-07,0.300
-8.100E-07,0.340
-8.000E-07,0.300
-7.900E-07,0.320
-7.800E-07,0.300
-7.700E-07,0.340
-7.600E-07,0.580
-7.500E-07,0.640
-7.400E-07,0.740
-7.300E-07,0.680
-7.200E-07,0.420
-7.100E-07,0.260
-7.000E-07,0.080
-6.900E-07,0.000
-6.800E-07,-0.060
-6.700E-07,-0.240
-6.600E-07,-0.340
-6.500E-07,-0.500
-6.400E-07,-0.540
-6.300E-07,-0.560
-6.200E-07,-0.520
-6.100E-07,-0.500
-6.000E-07,-0.480
-5.900E-07,-0.480
-5.800E-07,-0.360
-5.700E-07,-0.340
-5.600E-07,-0.360
-5.500E-07,-0.380
-5.400E-07,-0.340
-5.300E-07,-0.360
-5.200E-07,-0.360
-5.100E-07,-0.360
-5.000E-07,-0.400
-4.900E-07,-0.360
-4.800E-07,-0.160
-4.700E-07,0.000
-4.600E-07,0.200
-4.500E-07,0.380
-4.400E-07,0.380
-4.300E-07,0.360
-4.200E-07,0.300
-4.100E-07,0.320
-4.000E-07,0.500
-3.900E-07,0.520
-3.800E-07,0.640
-3.700E-07,0.440
-3.600E-07,0.240
-3.500E-07,0.100
-3.400E-07,-0.060
-3.300E-07,-0.260
-3.200E-07,-0.340
-3.100E-07,-0.500
-3.000E-07,-0.540
-2.900E-07,-0.560
-2.800E-07,-0.560
-2.700E-07,-0.400
-2.600E-07,-0.320
-2.500E-07,-0.300
-2.400E-07,-0.280
-2.300E-07,-0.220
-2.200E-07,-0.140
-2.100E-07,-0.080
-2.000E-07,-0.020
-1.900E-07,-0.020
-1.800E-07,0.000
-1.700E-07,0.040
-1.600E-07,0.040
-1.500E-07,0.020
-1.400E-07,0.020
-1.300E-07,0.080
-1.200E-07,0.040
-1.100E-07,0.020
-1.000E-07,0.000
-9.000E-08,-0.020
-8.000E-08,-0.020
-7.000E-08,-0.040
-6.000E-08,0.620
-5.000E-08,0.660
-4.000E-08,1.200
-3.000E-08,1.200
-2.000E-08,0.780
-1.000E-08,0.540
0.000E+00,0.200
1.000E-08,-0.020
2.000E-08,0.080
3.000E-08,-0.320
4.000E-08,-0.560
5.000E-08,-0.860
6.000E-08,-1.100
7.000E-08,-0.980
8.000E-08,-0.840
9.000E-08,-0.800
1.000E-07,-0.680
1.100E-07,-0.560
1.200E-07,-0.480
1.300E-07,-0.360
1.400E-07,-0.320
1.500E-07,-0.260
1.600E-07,-0.260
1.700E-07,-0.180
1.800E-07,-0.140
1.900E-07,-0.080
2.000E-07,0.000
2.100E-07,0.000
2.200E-07,0.100
2.300E-07,0.120
2.400E-07,0.160
2.500E-07,0.160
2.600E-07,0.180
2.700E-07,0.120
2.800E-07,0.180
2.900E-07,0.120
3.000E-07,0.220
3.100E-07,0.220
3.200E-07,0.180
3.300E-07,0.780
3.400E-07,0.980
3.500E-07,1.440
3.600E-07,1.520
3.700E-07,0.880
3.800E-07,0.400
3.900E-07,-0.020
4.000E-07,-0.480
4.100E-07,-0.420
4.200E-07,-0.780
4.300E-07,-1.340
4.400E-07,-1.740
4.500E-07,-2.180
4.600E-07,-2.280
4.700E-07,-2.100
4.800E-07,-2.380
4.900E-07,-1.720
5.000E-07,-1.600
5.100E-07,-0.500
5.200E-07,-0.040
5.300E-07,0.160
5.400E-07,0.160
5.500E-07,0.000
5.600E-07,-0.040
5.700E-07,0.240
5.800E-07,0.220
5.900E-07,0.080
6.000E-07,-0.200
6.100E-07,-0.400
6.200E-07,-0.380
6.300E-07,-0.340
6.400E-07,-0.240
6.500E-07,-0.140
6.600E-07,-0.040
6.700E-07,0.160
6.800E-07,0.320
6.900E-07,0.460
7.000E-07,0.520
7.100E-07,0.580
7.200E-07,0.660
7.300E-07,0.620
7.400E-07,0.520
7.500E-07,0.360
7.600E-07,0.200
7.700E-07,0.060
7.800E-07,-0.060
7.900E-07,-0.100
8.000E-07,-0.120
8.100E-07,-0.080
8.200E-07,-0.020
8.300E-07,0.080
8.400E-07,0.120
8.500E-07,0.220
8.600E-07,0.340
8.700E-07,0.500
8.800E-07,0.720
8.900E-07,0.860
9.000E-07,0.960
9.100E-07,1.020
9.200E-07,0.920
9.300E-07,0.840
9.400E-07,0.660
9.500E-07,0.520
9.600E-07,0.340
9.700E-07,0.220
9.800E-07,0.060
9.900E-07,-0.060
1.000E-06,-0.220
1.010E-06,-0.380
1.020E-06,-0.560
1.030E-06,-0.720
1.040E-06,-0.840
1.050E-06,-0.920
1.060E-06,-0.960
1.070E-06,-0.800
1.080E-06,-0.900
1.090E-06,-0.700
1.100E-06,-0.860
1.110E-06,-0.700
1.120E-06,-0.620
1.130E-06,-0.520
1.140E-06,-0.140
1.150E-06,-0.040
1.160E-06,0.060
1.170E-06,-0.140
1.180E-06,-0.340
1.190E-06,-0.500
1.200E-06,-0.700
1.210E-06,-0.760
1.220E-06,-1.100
1.230E-06,-1.340
1.240E-06,-1.560
1.250E-06,-1.640
1.260E-06,-1.620
1.270E-06,-1.640
1.280E-06,-1.440
1.290E-06,-1.340
1.300E-06,-0.860
1.310E-06,-0.480
1.320E-06,0.000
1.330E-06,0.300
1.340E-06,0.680
1.350E-06,0.700
1.360E-06,0.700
1.370E-06,0.560
1.380E-06,0.400
1.390E-06,0.280
1.400E-06,0.180
1.410E-06,-0.020
1.420E-06,-0.220
1.430E-06,-0.480
1.440E-06,-0.560
1.450E-06,-0.520
1.460E-06,-0.460
1.470E-06,-0.320
1.480E-06,-0.320
1.490E-06,-0.220
1.500E-06,-0.140
1.510E-06,-0.060
1.520E-06,-0.020
1.530E-06,-0.020
1.540E-06,-0.060
1.550E-06,-0.160
1.560E-06,-0.180
1.570E-06,-0.160
1.580E-06,-0.080
1.590E-06,0.120
1.600E-06,0.340
1.610E-06,0.500
1.620E-06,0.520
1.630E-06,0.540
1.640E-06,0.560
1.650E-06,0.660
1.660E-06,0.800
1.670E-06,0.820
1.680E-06,0.740
1.690E-06,0.500
1.700E-06,0.340
1.710E-06,0.120
1.720E-06,0.000
1.730E-06,-0.340
1.740E-06,-0.580
1.750E-06,-0.920
1.760E-06,-1.100
1.770E-06,-1.300
1.780E-06,-1.360
1.790E-06,-1.600
1.800E-06,-1.620
1.810E-06,-1.860
1.820E-06,-1.640
1.830E-06,-1.740
1.840E-06,-1.360
1.850E-06,-1.320
1.860E-06,-1.200
1.870E-06,-1.180
1.880E-06,-1.240
1.890E-06,-1.280
1.900E-06,-1.180
1.910E-06,-1.200
1.920E-06,-1.060
1.930E-06,-1.020
1.940E-06,-0.940
1.950E-06,-0.980
1.960E-06,-0.860
1.970E-06,-0.900
1.980E-06,-0.800
1.990E-06,-0.920
2.000E-06,-0.980
2.010E-06,-1.280
2.020E-06,-1.140
2.030E-06,-0.920
2.040E-06,-0.620
2.050E-06,0.100
2.060E-06,0.280
2.070E-06,0.300
2.080E-06,-0.020
2.090E-06,-0.760
2.100E-06,-1.280
2.110E-06,-1.920
2.120E-06,-2.080
2.130E-06,-1.980
2.140E-06,-1.680
2.150E-06,-1.400
2.160E-06,-1.240
2.170E-06,-1.280
2.180E-06,-1.680
2.190E-06,-2.100
2.200E-06,-2.520
2.210E-06,-2.620
2.220E-06,-2.660
2.230E-06,-2.500
2.240E-06,-2.280
2.250E-06,-2.040
2.260E-06,-1.520
2.270E-06,-1.260
2.280E-06,-0.860
2.290E-06,-0.780
2.300E-06,-0.300
2.310E-06,-0.420
2.320E-06,0.000
2.330E-06,-0.280
2.340E-06,-0.260
2.350E-06,-0.640
2.360E-06,-0.840
2.370E-06,-1.020
2.380E-06,-1.060
2.390E-06,-1.200
2.400E-06,-1.360
2.410E-06,-1.420
2.420E-06,-1.480
2.430E-06,-1.420
2.440E-06,-1.280
2.450E-06,-1.140
2.460E-06,-1.000
2.470E-06,-0.860
2.480E-06,-0.700
2.490E-06,-0.440
2.500E-06,-0.160
2.510E-06,0.040
2.520E-06,0.380
2.530E-06,0.580
2.540E-06,0.860
2.550E-06,0.920
2.560E-06,0.960
2.570E-06,0.920
2.580E-06,0.900
2.590E-06,0.860
2.600E-06,0.900
2.610E-06,0.940
2.620E-06,1.160
2.630E-06,1.220
2.640E-06,1.360
2.650E-06,1.280
2.660E-06,1.240
2.670E-06,1.100
2.680E-06,0.880
2.690E-06,0.660
2.700E-06,0.340
2.710E-06,-0.040
2.720E-06,-0.400
2.730E-06,-0.800
2.740E-06,-1.180
2.750E-06,-1.480
2.760E-06,-1.720
2.770E-06,-1.860
2.780E-06,-1.960
2.790E-06,-1.900
2.800E-06,-1.880
2.810E-06,-1.720
2.820E-06,-1.700
2.830E-06,-1.700
2.840E-06,-1.820
2.850E-06,-1.760
2.860E-06,-1.980
2.870E-06,-1.980
2.880E-06,-2.320
2.890E-06,-2.640
2.900E-06,-2.660
2.910E-06,-2.660
2.920E-06,-2.660
2.930E-06,-2.660
2.940E-06,-2.660
2.950E-06,-2.660
2.960E-06,-2.660
2.970E-06,-2.660
2.980E-06,-2.660
2.990E-06,-2.680
3.000E-06,-2.680
3.010E-06,-2.680
3.020E-06,-2.680
3.030E-06,-2.660
3.040E-06,-2.640
3.050E-06,-1.240
3.060E-06,-0.080
3.070E-06,0.940
3.080E-06,1.480
3.090E-06,1.140
3.100E-06,0.960
3.110E-06,-0.260
3.120E-06,-0.780
3.130E-06,-1.380
3.140E-06,-1.940
3.150E-06,-2.180
3.160E-06,-2.600
