mediciones/5-15/22.5/WaveData47393.csv

#timebase=2000000(ps)
,#voltbase=100000(mv/100)
#size=4000
-8.400E-06,-0.036
-8.390E-06,0.000
-8.380E-06,-0.056
-8.370E-06,-0.032
-8.360E-06,0.036
-8.350E-06,0.048
-8.340E-06,0.012
-8.330E-06,0.012
-8.320E-06,0.024
-8.310E-06,-0.036
-8.300E-06,-0.016
-8.290E-06,-0.020
-8.280E-06,0.004
-8.270E-06,0.012
-8.260E-06,0.044
-8.250E-06,0.000
-8.240E-06,0.012
-8.230E-06,0.000
-8.220E-06,-0.004
-8.210E-06,-0.036
-8.200E-06,-0.004
-8.190E-06,0.024
-8.180E-06,0.016
-8.170E-06,0.044
-8.160E-06,-0.044
-8.150E-06,0.036
-8.140E-06,0.016
-8.130E-06,-0.040
-8.120E-06,-0.044
-8.110E-06,0.024
-8.100E-06,0.048
-8.090E-06,0.032
-8.080E-06,0.020
-8.070E-06,-0.024
-8.060E-06,-0.036
-8.050E-06,-0.008
-8.040E-06,0.016
-8.030E-06,0.004
-8.020E-06,0.044
-8.010E-06,0.016
-8.000E-06,-0.008
-7.990E-06,-0.008
-7.980E-06,0.000
-7.970E-06,0.012
-7.960E-06,0.016
-7.950E-06,-0.004
-7.940E-06,-0.020
-7.930E-06,0.004
-7.920E-06,-0.028
-7.910E-06,0.056
-7.900E-06,0.044
-7.890E-06,-0.008
-7.880E-06,-0.008
-7.870E-06,-0.020
-7.860E-06,-0.036
-7.850E-06,-0.004
-7.840E-06,0.040
-7.830E-06,0.044
-7.820E-06,-0.004
-7.810E-06,0.008
-7.800E-06,0.000
-7.790E-06,-0.032
-7.780E-06,-0.024
-7.770E-06,0.016
-7.760E-06,0.036
-7.750E-06,-0.004
-7.740E-06,-0.048
-7.730E-06,-0.040
-7.720E-06,-0.028
-7.710E-06,0.076
-7.700E-06,0.124
-7.690E-06,0.056
-7.680E-06,-0.032
-7.670E-06,-0.008
-7.660E-06,-0.068
-7.650E-06,-0.072
-7.640E-06,0.004
-7.630E-06,0.016
-7.620E-06,0.056
-7.610E-06,0.092
-7.600E-06,0.040
-7.590E-06,-0.024
-7.580E-06,0.000
-7.570E-06,-0.056
-7.560E-06,-0.056
-7.550E-06,-0.044
-7.540E-06,-0.004
-7.530E-06,0.056
-7.520E-06,0.092
-7.510E-06,0.076
-7.500E-06,0.040
-7.490E-06,-0.040
-7.480E-06,-0.096
-7.470E-06,-0.068
-7.460E-06,-0.024
-7.450E-06,0.028
-7.440E-06,0.072
-7.430E-06,0.068
-7.420E-06,0.012
-7.410E-06,-0.020
-7.400E-06,-0.044
-7.390E-06,-0.044
-7.380E-06,0.004
-7.370E-06,0.028
-7.360E-06,0.048
-7.350E-06,0.048
-7.340E-06,0.032
-7.330E-06,0.008
-7.320E-06,0.000
-7.310E-06,-0.020
-7.300E-06,-0.028
-7.290E-06,-0.012
-7.280E-06,0.000
-7.270E-06,0.028
-7.260E-06,0.032
-7.250E-06,0.020
-7.240E-06,0.004
-7.230E-06,-0.020
-7.220E-06,-0.036
-7.210E-06,-0.020
-7.200E-06,0.000
-7.190E-06,0.024
-7.180E-06,0.028
-7.170E-06,0.024
-7.160E-06,0.004
-7.150E-06,-0.012
-7.140E-06,-0.020
-7.130E-06,-0.020
-7.120E-06,-0.004
-7.110E-06,0.012
-7.100E-06,0.016
-7.090E-06,0.020
-7.080E-06,0.012
-7.070E-06,0.000
-7.060E-06,-0.004
-7.050E-06,-0.004
-7.040E-06,0.000
-7.030E-06,0.004
-7.020E-06,0.012
-7.010E-06,0.016
-7.000E-06,0.020
-6.990E-06,0.012
-6.980E-06,0.004
-6.970E-06,-0.004
-6.960E-06,-0.008
-6.950E-06,-0.012
-6.940E-06,-0.004
-6.930E-06,0.000
-6.920E-06,0.008
-6.910E-06,0.004
-6.900E-06,0.004
-6.890E-06,-0.004
-6.880E-06,-0.004
-6.870E-06,-0.004
-6.860E-06,0.004
-6.850E-06,0.004
-6.840E-06,0.008
-6.830E-06,0.008
-6.820E-06,0.008
-6.810E-06,0.004
-6.800E-06,-0.004
-6.790E-06,0.000
-6.780E-06,0.008
-6.770E-06,0.008
-6.760E-06,-0.004
-6.750E-06,0.000
-6.740E-06,0.004
-6.730E-06,0.008
-6.720E-06,0.008
-6.710E-06,0.008
-6.700E-06,0.000
-6.690E-06,0.000
-6.680E-06,0.004
-6.670E-06,0.004
-6.660E-06,0.004
-6.650E-06,0.000
-6.640E-06,0.000
-6.630E-06,0.000
-6.620E-06,0.000
-6.610E-06,-0.004
-6.600E-06,-0.004
-6.590E-06,0.004
-6.580E-06,-0.004
-6.570E-06,0.000
-6.560E-06,0.000
-6.550E-06,0.000
-6.540E-06,0.004
-6.530E-06,0.004
-6.520E-06,0.008
-6.510E-06,0.012
-6.500E-06,0.008
-6.490E-06,0.008
-6.480E-06,0.000
-6.470E-06,0.004
-6.460E-06,0.004
-6.450E-06,0.004
-6.440E-06,0.008
-6.430E-06,0.008
-6.420E-06,0.004
-6.410E-06,0.004
-6.400E-06,-0.004
-6.390E-06,-0.004
-6.380E-06,0.004
-6.370E-06,0.008
-6.360E-06,0.008
-6.350E-06,0.008
-6.340E-06,0.000
-6.330E-06,0.000
-6.320E-06,0.004
-6.310E-06,0.004
-6.300E-06,0.000
-6.290E-06,0.000
-6.280E-06,0.004
-6.270E-06,0.000
-6.260E-06,0.004
-6.250E-06,0.000
-6.240E-06,-0.004
-6.230E-06,0.000
-6.220E-06,0.000
-6.210E-06,0.000
-6.200E-06,0.008
-6.190E-06,0.012
-6.180E-06,0.008
-6.170E-06,0.000
-6.160E-06,0.000
-6.150E-06,0.004
-6.140E-06,0.008
-6.130E-06,0.000
-6.120E-06,0.004
-6.110E-06,0.004
-6.100E-06,0.004
-6.090E-06,0.004
-6.080E-06,0.000
-6.070E-06,0.000
-6.060E-06,0.000
-6.050E-06,0.000
-6.040E-06,0.004
-6.030E-06,0.008
-6.020E-06,0.008
-6.010E-06,0.000
-6.000E-06,0.004
-5.990E-06,0.000
-5.980E-06,0.000
-5.970E-06,0.008
-5.960E-06,0.000
-5.950E-06,0.000
-5.940E-06,0.004
-5.930E-06,0.008
-5.920E-06,-0.004
-5.910E-06,0.000
-5.900E-06,0.004
-5.890E-06,0.000
-5.880E-06,0.004
-5.870E-06,0.004
-5.860E-06,0.004
-5.850E-06,0.008
-5.840E-06,0.000
-5.830E-06,0.004
-5.820E-06,0.004
-5.810E-06,0.004
-5.800E-06,0.000
-5.790E-06,0.004
-5.780E-06,0.004
-5.770E-06,0.004
-5.760E-06,0.004
-5.750E-06,0.004
-5.740E-06,0.004
-5.730E-06,0.004
-5.720E-06,-0.004
-5.710E-06,0.004
-5.700E-06,0.004
-5.690E-06,0.004
-5.680E-06,0.008
-5.670E-06,0.004
-5.660E-06,0.008
-5.650E-06,-0.004
-5.640E-06,-0.004
-5.630E-06,0.000
-5.620E-06,0.008
-5.610E-06,0.000
-5.600E-06,0.000
-5.590E-06,0.004
-5.580E-06,0.000
-5.570E-06,0.000
-5.560E-06,0.004
-5.550E-06,0.000
-5.540E-06,0.000
-5.530E-06,0.004
-5.520E-06,0.004
-5.510E-06,0.008
-5.500E-06,0.008
-5.490E-06,0.004
-5.480E-06,0.004
-5.470E-06,-0.004
-5.460E-06,0.000
-5.450E-06,0.004
-5.440E-06,0.004
-5.430E-06,0.004
-5.420E-06,0.004
-5.410E-06,0.004
-5.400E-06,0.004
-5.390E-06,0.000
-5.380E-06,0.000
-5.370E-06,0.000
-5.360E-06,0.000
-5.350E-06,0.008
-5.340E-06,0.016
-5.330E-06,0.028
-5.320E-06,0.036
-5.310E-06,0.044
-5.300E-06,0.036
-5.290E-06,0.008
-5.280E-06,-0.028
-5.270E-06,-0.072
-5.260E-06,-0.072
-5.250E-06,-0.052
-5.240E-06,-0.008
-5.230E-06,0.052
-5.220E-06,0.084
-5.210E-06,0.092
-5.200E-06,0.032
-5.190E-06,-0.032
-5.180E-06,-0.076
-5.170E-06,-0.056
-5.160E-06,-0.016
-5.150E-06,0.040
-5.140E-06,0.080
-5.130E-06,0.076
-5.120E-06,0.024
-5.110E-06,-0.032
-5.100E-06,-0.068
-5.090E-06,-0.068
-5.080E-06,-0.020
-5.070E-06,0.016
-5.060E-06,0.056
-5.050E-06,0.060
-5.040E-06,0.048
-5.030E-06,0.012
-5.020E-06,-0.012
-5.010E-06,-0.040
-5.000E-06,-0.036
-4.990E-06,-0.012
-4.980E-06,0.024
-4.970E-06,0.048
-4.960E-06,0.044
-4.950E-06,0.032
-4.940E-06,-0.004
-4.930E-06,-0.040
-4.920E-06,-0.056
-4.910E-06,-0.036
-4.900E-06,-0.004
-4.890E-06,0.028
-4.880E-06,0.060
-4.870E-06,0.044
-4.860E-06,0.020
-4.850E-06,-0.008
-4.840E-06,-0.024
-4.830E-06,-0.028
-4.820E-06,-0.008
-4.810E-06,0.008
-4.800E-06,0.032
-4.790E-06,0.032
-4.780E-06,0.020
-4.770E-06,-0.004
-4.760E-06,-0.024
-4.750E-06,-0.024
-4.740E-06,-0.020
-4.730E-06,0.004
-4.720E-06,0.024
-4.710E-06,0.040
-4.700E-06,0.028
-4.690E-06,0.024
-4.680E-06,-0.008
-4.670E-06,-0.024
-4.660E-06,-0.016
-4.650E-06,-0.008
-4.640E-06,0.008
-4.630E-06,0.024
-4.620E-06,0.032
-4.610E-06,0.016
-4.600E-06,-0.004
-4.590E-06,-0.016
-4.580E-06,-0.024
-4.570E-06,-0.008
-4.560E-06,0.000
-4.550E-06,0.024
-4.540E-06,0.028
-4.530E-06,0.020
-4.520E-06,0.004
-4.510E-06,-0.004
-4.500E-06,-0.004
-4.490E-06,-0.008
-4.480E-06,0.004
-4.470E-06,0.016
-4.460E-06,0.016
-4.450E-06,0.016
-4.440E-06,0.004
-4.430E-06,-0.004
-4.420E-06,-0.008
-4.410E-06,-0.008
-4.400E-06,0.000
-4.390E-06,0.008
-4.380E-06,0.012
-4.370E-06,0.008
-4.360E-06,0.012
-4.350E-06,0.008
-4.340E-06,-0.004
-4.330E-06,0.000
-4.320E-06,-0.004
-4.310E-06,-0.004
-4.300E-06,0.004
-4.290E-06,0.012
-4.280E-06,0.012
-4.270E-06,0.008
-4.260E-06,-0.008
-4.250E-06,0.000
-4.240E-06,-0.004
-4.230E-06,0.000
-4.220E-06,0.008
-4.210E-06,0.004
-4.200E-06,0.004
-4.190E-06,0.004
-4.180E-06,0.004
-4.170E-06,0.000
-4.160E-06,0.004
-4.150E-06,0.000
-4.140E-06,0.008
-4.130E-06,0.008
-4.120E-06,0.008
-4.110E-06,0.000
-4.100E-06,0.000
-4.090E-06,0.000
-4.080E-06,0.000
-4.070E-06,0.004
-4.060E-06,0.000
-4.050E-06,0.004
-4.040E-06,0.000
-4.030E-06,0.004
-4.020E-06,0.000
-4.010E-06,0.000
-4.000E-06,0.004
-3.990E-06,0.000
-3.980E-06,0.004
-3.970E-06,0.000
-3.960E-06,0.004
-3.950E-06,0.000
-3.940E-06,0.000
-3.930E-06,-0.008
-3.920E-06,-0.004
-3.910E-06,0.000
-3.900E-06,0.004
-3.890E-06,0.008
-3.880E-06,0.004
-3.870E-06,0.004
-3.860E-06,0.000
-3.850E-06,0.000
-3.840E-06,0.004
-3.830E-06,0.004
-3.820E-06,0.004
-3.810E-06,0.008
-3.800E-06,0.000
-3.790E-06,0.004
-3.780E-06,0.000
-3.770E-06,0.000
-3.760E-06,0.004
-3.750E-06,0.004
-3.740E-06,0.000
-3.730E-06,0.004
-3.720E-06,0.000
-3.710E-06,0.004
-3.700E-06,0.000
-3.690E-06,0.000
-3.680E-06,-0.004
-3.670E-06,0.004
-3.660E-06,0.000
-3.650E-06,0.004
-3.640E-06,0.008
-3.630E-06,0.004
-3.620E-06,0.000
-3.610E-06,0.000
-3.600E-06,0.000
-3.590E-06,0.000
-3.580E-06,0.004
-3.570E-06,0.004
-3.560E-06,0.008
-3.550E-06,0.004
-3.540E-06,0.000
-3.530E-06,0.000
-3.520E-06,0.000
-3.510E-06,0.000
-3.500E-06,0.000
-3.490E-06,0.004
-3.480E-06,0.008
-3.470E-06,0.008
-3.460E-06,0.004
-3.450E-06,0.004
-3.440E-06,0.004
-3.430E-06,0.004
-3.420E-06,-0.004
-3.410E-06,0.000
-3.400E-06,0.004
-3.390E-06,0.004
-3.380E-06,0.004
-3.370E-06,0.000
-3.360E-06,0.000
-3.350E-06,0.004
-3.340E-06,0.000
-3.330E-06,0.004
-3.320E-06,0.004
-3.310E-06,0.004
-3.300E-06,0.004
-3.290E-06,0.004
-3.280E-06,0.004
-3.270E-06,-0.004
-3.260E-06,0.000
-3.250E-06,0.004
-3.240E-06,0.004
-3.230E-06,0.004
-3.220E-06,0.004
-3.210E-06,0.008
-3.200E-06,0.004
-3.190E-06,0.000
-3.180E-06,0.000
-3.170E-06,0.000
-3.160E-06,0.000
-3.150E-06,0.004
-3.140E-06,0.008
-3.130E-06,0.012
-3.120E-06,0.000
-3.110E-06,0.004
-3.100E-06,0.000
-3.090E-06,0.000
-3.080E-06,0.000
-3.070E-06,0.004
-3.060E-06,0.008
-3.050E-06,0.008
-3.040E-06,0.004
-3.030E-06,0.004
-3.020E-06,0.000
-3.010E-06,0.000
-3.000E-06,-0.004
-2.990E-06,0.004
-2.980E-06,0.000
-2.970E-06,0.000
-2.960E-06,0.000
-2.950E-06,0.000
-2.940E-06,0.000
-2.930E-06,0.004
-2.920E-06,0.004
-2.910E-06,0.000
-2.900E-06,0.008
-2.890E-06,0.000
-2.880E-06,-0.004
-2.870E-06,0.004
-2.860E-06,0.012
-2.850E-06,0.012
-2.840E-06,0.000
-2.830E-06,0.000
-2.820E-06,0.000
-2.810E-06,0.000
-2.800E-06,0.008
-2.790E-06,0.008
-2.780E-06,0.008
-2.770E-06,0.004
-2.760E-06,0.000
-2.750E-06,0.004
-2.740E-06,-0.004
-2.730E-06,0.004
-2.720E-06,0.008
-2.710E-06,0.008
-2.700E-06,0.012
-2.690E-06,0.000
-2.680E-06,-0.004
-2.670E-06,0.000
-2.660E-06,0.000
-2.650E-06,0.004
-2.640E-06,0.008
-2.630E-06,0.004
-2.620E-06,0.004
-2.610E-06,0.004
-2.600E-06,0.000
-2.590E-06,-0.004
-2.580E-06,0.000
-2.570E-06,0.000
-2.560E-06,0.004
-2.550E-06,0.004
-2.540E-06,0.004
-2.530E-06,0.004
-2.520E-06,0.008
-2.510E-06,0.004
-2.500E-06,0.000
-2.490E-06,-0.008
-2.480E-06,-0.004
-2.470E-06,0.004
-2.460E-06,0.008
-2.450E-06,0.008
-2.440E-06,0.004
-2.430E-06,0.004
-2.420E-06,0.000
-2.410E-06,0.000
-2.400E-06,0.000
-2.390E-06,0.008
-2.380E-06,0.008
-2.370E-06,0.000
-2.360E-06,0.000
-2.350E-06,0.004
-2.340E-06,0.004
-2.330E-06,0.004
-2.320E-06,0.004
-2.310E-06,0.004
-2.300E-06,0.008
-2.290E-06,0.008
-2.280E-06,0.008
-2.270E-06,0.012
-2.260E-06,0.012
-2.250E-06,0.008
-2.240E-06,-0.008
-2.230E-06,-0.004
-2.220E-06,-0.004
-2.210E-06,0.000
-2.200E-06,0.004
-2.190E-06,0.016
-2.180E-06,0.020
-2.170E-06,-0.008
-2.160E-06,-0.020
-2.150E-06,-0.012
-2.140E-06,0.000
-2.130E-06,0.016
-2.120E-06,0.024
-2.110E-06,0.020
-2.100E-06,0.000
-2.090E-06,-0.004
-2.080E-06,-0.016
-2.070E-06,-0.016
-2.060E-06,-0.004
-2.050E-06,0.016
-2.040E-06,0.024
-2.030E-06,0.020
-2.020E-06,0.004
-2.010E-06,-0.004
-2.000E-06,-0.008
-1.990E-06,-0.008
-1.980E-06,-0.008
-1.970E-06,-0.008
-1.960E-06,0.008
-1.950E-06,0.012
-1.940E-06,0.020
-1.930E-06,0.020
-1.920E-06,0.012
-1.910E-06,-0.016
-1.900E-06,-0.028
-1.890E-06,-0.012
-1.880E-06,-0.004
-1.870E-06,0.020
-1.860E-06,0.044
-1.850E-06,0.028
-1.840E-06,0.000
-1.830E-06,-0.020
-1.820E-06,-0.032
-1.810E-06,-0.020
-1.800E-06,0.012
-1.790E-06,0.036
-1.780E-06,0.028
-1.770E-06,0.016
-1.760E-06,-0.008
-1.750E-06,-0.024
-1.740E-06,-0.020
-1.730E-06,-0.016
-1.720E-06,-0.024
-1.710E-06,-0.004
-1.700E-06,0.028
-1.690E-06,0.040
-1.680E-06,0.056
-1.670E-06,0.032
-1.660E-06,-0.004
-1.650E-06,-0.028
-1.640E-06,-0.040
-1.630E-06,-0.040
-1.620E-06,0.000
-1.610E-06,0.048
-1.600E-06,0.060
-1.590E-06,0.044
-1.580E-06,-0.004
-1.570E-06,-0.040
-1.560E-06,-0.044
-1.550E-06,-0.020
-1.540E-06,0.012
-1.530E-06,0.048
-1.520E-06,0.040
-1.510E-06,0.024
-1.500E-06,-0.008
-1.490E-06,-0.016
-1.480E-06,-0.012
-1.470E-06,-0.004
-1.460E-06,0.008
-1.450E-06,0.016
-1.440E-06,0.008
-1.430E-06,0.012
-1.420E-06,0.016
-1.410E-06,0.008
-1.400E-06,0.000
-1.390E-06,-0.008
-1.380E-06,-0.004
-1.370E-06,0.008
-1.360E-06,0.020
-1.350E-06,0.024
-1.340E-06,0.024
-1.330E-06,0.008
-1.320E-06,-0.008
-1.310E-06,0.000
-1.300E-06,0.012
-1.290E-06,0.040
-1.280E-06,0.036
-1.270E-06,0.004
-1.260E-06,-0.032
-1.250E-06,-0.036
-1.240E-06,-0.020
-1.230E-06,0.020
-1.220E-06,0.052
-1.210E-06,0.028
-1.200E-06,0.012
-1.190E-06,-0.004
-1.180E-06,-0.012
-1.170E-06,0.004
-1.160E-06,0.016
-1.150E-06,0.020
-1.140E-06,0.012
-1.130E-06,-0.004
-1.120E-06,-0.008
-1.110E-06,0.004
-1.100E-06,0.020
-1.090E-06,0.008
-1.080E-06,-0.004
-1.070E-06,-0.024
-1.060E-06,-0.028
-1.050E-06,-0.004
-1.040E-06,0.036
-1.030E-06,0.052
-1.020E-06,0.032
-1.010E-06,0.004
-1.000E-06,-0.024
-9.900E-07,-0.032
-9.800E-07,-0.004
-9.700E-07,0.024
-9.600E-07,0.040
-9.500E-07,0.044
-9.400E-07,0.028
-9.300E-07,0.000
-9.200E-07,-0.008
-9.100E-07,0.008
-9.000E-07,0.012
-8.900E-07,0.040
-8.800E-07,0.028
-8.700E-07,0.024
-8.600E-07,0.004
-8.500E-07,-0.004
-8.400E-07,-0.012
-8.300E-07,-0.036
-8.200E-07,-0.040
-8.100E-07,-0.032
-8.000E-07,0.012
-7.900E-07,0.060
-7.800E-07,0.084
-7.700E-07,0.040
-7.600E-07,-0.024
-7.500E-07,-0.068
-7.400E-07,-0.064
-7.300E-07,-0.008
-7.200E-07,0.032
-7.100E-07,0.072
-7.000E-07,0.064
-6.900E-07,0.048
-6.800E-07,-0.004
-6.700E-07,-0.044
-6.600E-07,-0.056
-6.500E-07,-0.016
-6.400E-07,0.036
-6.300E-07,0.056
-6.200E-07,0.056
-6.100E-07,0.028
-6.000E-07,-0.008
-5.900E-07,-0.020
-5.800E-07,-0.004
-5.700E-07,0.000
-5.600E-07,0.024
-5.500E-07,0.036
-5.400E-07,0.048
-5.300E-07,0.044
-5.200E-07,0.028
-5.100E-07,0.008
-5.000E-07,0.000
-4.900E-07,0.004
-4.800E-07,0.008
-4.700E-07,0.012
-4.600E-07,0.024
-4.500E-07,0.040
-4.400E-07,0.060
-4.300E-07,0.044
-4.200E-07,0.024
-4.100E-07,0.004
-4.000E-07,0.020
-3.900E-07,0.040
-3.800E-07,0.064
-3.700E-07,0.068
-3.600E-07,0.056
-3.500E-07,0.032
-3.400E-07,-0.012
-3.300E-07,-0.080
-3.200E-07,-0.136
-3.100E-07,-0.152
-3.000E-07,-0.136
-2.900E-07,-0.064
-2.800E-07,0.008
-2.700E-07,0.072
-2.600E-07,0.100
-2.500E-07,0.056
-2.400E-07,0.000
-2.300E-07,-0.056
-2.200E-07,-0.064
-2.100E-07,-0.028
-2.000E-07,0.048
-1.900E-07,0.124
-1.800E-07,0.164
-1.700E-07,0.160
-1.600E-07,0.108
-1.500E-07,0.060
-1.400E-07,0.024
-1.300E-07,0.028
-1.200E-07,0.060
-1.100E-07,0.112
-1.000E-07,0.124
-9.000E-08,0.104
-8.000E-08,0.064
-7.000E-08,0.028
-6.000E-08,-0.012
-5.000E-08,-0.184
-4.000E-08,-0.508
-3.000E-08,-0.512
-2.000E-08,-0.512
-1.000E-08,-0.008
0.000E+00,0.544
1.000E-08,0.540
2.000E-08,0.496
3.000E-08,-0.084
4.000E-08,-0.404
5.000E-08,-0.460
6.000E-08,-0.308
7.000E-08,0.000
8.000E-08,0.156
9.000E-08,0.124
1.000E-07,0.060
1.100E-07,0.000
1.200E-07,-0.012
1.300E-07,0.056
1.400E-07,0.128
1.500E-07,0.120
1.600E-07,0.076
1.700E-07,0.048
1.800E-07,0.088
1.900E-07,0.156
2.000E-07,0.188
2.100E-07,0.072
2.200E-07,-0.084
2.300E-07,-0.164
2.400E-07,-0.120
2.500E-07,0.032
2.600E-07,0.000
2.700E-07,-0.104
2.800E-07,-0.276
2.900E-07,-0.336
3.000E-07,-0.276
3.100E-07,-0.028
3.200E-07,0.236
3.300E-07,0.348
3.400E-07,0.244
3.500E-07,0.016
3.600E-07,-0.148
3.700E-07,-0.196
3.800E-07,-0.068
3.900E-07,0.064
4.000E-07,0.124
4.100E-07,0.052
4.200E-07,0.012
4.300E-07,0.024
4.400E-07,0.056
4.500E-07,0.032
4.600E-07,0.000
4.700E-07,-0.004
4.800E-07,0.016
4.900E-07,0.080
5.000E-07,0.108
5.100E-07,0.124
5.200E-07,0.068
5.300E-07,0.000
5.400E-07,-0.124
5.500E-07,-0.192
5.600E-07,-0.252
5.700E-07,-0.172
5.800E-07,0.004
5.900E-07,0.192
6.000E-07,0.272
6.100E-07,0.164
6.200E-07,0.048
6.300E-07,-0.104
6.400E-07,-0.224
6.500E-07,-0.196
6.600E-07,-0.024
6.700E-07,0.108
6.800E-07,0.208
6.900E-07,0.160
7.000E-07,0.044
7.100E-07,-0.048
7.200E-07,-0.076
7.300E-07,-0.040
7.400E-07,-0.004
7.500E-07,0.120
7.600E-07,0.108
7.700E-07,0.136
7.800E-07,0.140
7.900E-07,0.060
8.000E-07,-0.052
8.100E-07,-0.108
8.200E-07,-0.032
8.300E-07,0.092
8.400E-07,0.208
8.500E-07,0.224
8.600E-07,0.180
8.700E-07,0.072
8.800E-07,0.020
8.900E-07,0.008
9.000E-07,0.052
9.100E-07,0.132
9.200E-07,0.192
9.300E-07,0.228
9.400E-07,0.204
9.500E-07,0.176
9.600E-07,0.116
9.700E-07,0.092
9.800E-07,0.096
9.900E-07,0.144
1.000E-06,0.172
1.010E-06,0.200
1.020E-06,0.196
1.030E-06,-0.244
1.040E-06,-0.384
1.050E-06,-0.176
1.060E-06,0.432
1.070E-06,0.484
1.080E-06,0.320
1.090E-06,0.312
1.100E-06,-0.012
1.110E-06,-0.036
1.120E-06,-0.340
1.130E-06,-0.296
1.140E-06,0.020
1.150E-06,0.196
1.160E-06,0.488
1.170E-06,0.344
1.180E-06,0.084
1.190E-06,-0.288
1.200E-06,-0.204
1.210E-06,-0.080
1.220E-06,0.128
1.230E-06,0.216
1.240E-06,0.244
1.250E-06,0.128
1.260E-06,0.032
1.270E-06,-0.088
1.280E-06,-0.148
1.290E-06,-0.060
1.300E-06,0.100
1.310E-06,0.224
1.320E-06,0.224
1.330E-06,0.160
1.340E-06,-0.044
1.350E-06,-0.136
1.360E-06,-0.128
1.370E-06,-0.008
1.380E-06,0.144
1.390E-06,0.208
1.400E-06,0.204
1.410E-06,0.128
1.420E-06,-0.008
1.430E-06,-0.156
1.440E-06,-0.164
1.450E-06,-0.076
1.460E-06,0.068
1.470E-06,0.180
1.480E-06,0.216
1.490E-06,0.156
1.500E-06,0.032
1.510E-06,-0.060
1.520E-06,-0.100
1.530E-06,-0.068
1.540E-06,0.012
1.550E-06,0.124
1.560E-06,0.192
1.570E-06,0.184
1.580E-06,0.116
1.590E-06,0.036
1.600E-06,-0.012
1.610E-06,-0.008
1.620E-06,0.064
1.630E-06,0.164
1.640E-06,0.232
1.650E-06,0.252
1.660E-06,0.232
1.670E-06,0.156
1.680E-06,0.096
1.690E-06,0.064
1.700E-06,0.096
1.710E-06,0.164
1.720E-06,0.236
1.730E-06,0.260
1.740E-06,0.236
1.750E-06,0.172
1.760E-06,0.116
1.770E-06,0.080
1.780E-06,0.096
1.790E-06,0.152
1.800E-06,0.212
1.810E-06,0.256
1.820E-06,0.240
1.830E-06,0.196
1.840E-06,0.140
1.850E-06,0.100
1.860E-06,0.104
1.870E-06,0.136
1.880E-06,0.180
1.890E-06,0.204
1.900E-06,0.224
1.910E-06,0.208
1.920E-06,0.188
1.930E-06,0.164
1.940E-06,0.156
1.950E-06,0.148
1.960E-06,0.164
1.970E-06,0.188
1.980E-06,0.204
1.990E-06,0.208
2.000E-06,0.196
2.010E-06,0.180
2.020E-06,0.164
2.030E-06,0.156
2.040E-06,0.160
2.050E-06,0.180
2.060E-06,0.196
2.070E-06,0.204
2.080E-06,0.196
2.090E-06,0.176
2.100E-06,0.164
2.110E-06,0.160
2.120E-06,0.168
2.130E-06,0.180
2.140E-06,0.188
2.150E-06,0.196
2.160E-06,0.192
2.170E-06,0.184
2.180E-06,0.172
2.190E-06,0.168
2.200E-06,0.168
2.210E-06,0.172
2.220E-06,0.176
2.230E-06,0.188
2.240E-06,0.192
2.250E-06,0.188
2.260E-06,0.176
2.270E-06,0.172
2.280E-06,0.164
2.290E-06,0.172
2.300E-06,0.172
2.310E-06,0.180
2.320E-06,0.184
2.330E-06,0.180
2.340E-06,0.176
2.350E-06,0.176
2.360E-06,0.168
2.370E-06,0.164
2.380E-06,0.172
2.390E-06,0.180
2.400E-06,0.180
2.410E-06,0.172
2.420E-06,0.176
2.430E-06,0.172
2.440E-06,0.172
2.450E-06,0.168
2.460E-06,0.172
2.470E-06,0.172
2.480E-06,0.176
2.490E-06,0.172
2.500E-06,0.176
2.510E-06,0.172
2.520E-06,0.172
2.530E-06,0.164
2.540E-06,0.168
2.550E-06,0.168
2.560E-06,0.172
2.570E-06,0.176
2.580E-06,0.180
2.590E-06,0.172
2.600E-06,0.172
2.610E-06,0.168
2.620E-06,0.156
2.630E-06,0.160
2.640E-06,0.164
2.650E-06,0.172
2.660E-06,0.168
2.670E-06,0.164
2.680E-06,0.168
2.690E-06,0.168
2.700E-06,0.160
2.710E-06,0.164
2.720E-06,0.168
2.730E-06,0.164
2.740E-06,0.164
2.750E-06,0.168
2.760E-06,0.168
2.770E-06,0.172
2.780E-06,0.172
2.790E-06,0.168
2.800E-06,0.164
2.810E-06,0.164
2.820E-06,0.156
2.830E-06,0.160
2.840E-06,0.164
2.850E-06,0.156
2.860E-06,0.160
2.870E-06,0.160
2.880E-06,0.156
2.890E-06,0.160
2.900E-06,0.160
2.910E-06,0.152
2.920E-06,0.160
2.930E-06,0.160
2.940E-06,0.156
2.950E-06,0.152
2.960E-06,0.160
2.970E-06,0.164
2.980E-06,0.180
2.990E-06,0.176
3.000E-06,0.172
3.010E-06,0.156
3.020E-06,0.140
3.030E-06,0.136
3.040E-06,0.144
3.050E-06,0.160
3.060E-06,0.172
3.070E-06,0.176
3.080E-06,0.164
3.090E-06,0.156
3.100E-06,0.144
3.110E-06,0.132
3.120E-06,0.136
3.130E-06,0.136
3.140E-06,0.152
3.150E-06,0.164
3.160E-06,0.164
3.170E-06,0.160
3.180E-06,0.144
3.190E-06,0.140
3.200E-06,0.136
3.210E-06,0.140
3.220E-06,0.140
3.230E-06,0.152
3.240E-06,0.160
3.250E-06,0.152
3.260E-06,0.152
3.270E-06,0.136
3.280E-06,0.140
3.290E-06,0.136
3.300E-06,0.144
3.310E-06,0.152
3.320E-06,0.156
3.330E-06,0.160
3.340E-06,0.156
