mediciones/mediciones removidas por ser diferentes/-50/WaveData50207.csv

#timebase=2000000(ps)
,#voltbase=1000000(mv/100)
#size=4000
-8.400E-06,-0.160
-8.390E-06,-0.120
-8.380E-06,-0.120
-8.370E-06,0.120
-8.360E-06,0.160
-8.350E-06,0.080
-8.340E-06,0.000
-8.330E-06,-0.160
-8.320E-06,-0.120
-8.310E-06,-0.040
-8.300E-06,0.000
-8.290E-06,0.120
-8.280E-06,0.160
-8.270E-06,0.040
-8.260E-06,0.120
-8.250E-06,0.120
-8.240E-06,0.040
-8.230E-06,0.120
-8.220E-06,0.080
-8.210E-06,0.080
-8.200E-06,0.040
-8.190E-06,0.040
-8.180E-06,0.120
-8.170E-06,0.120
-8.160E-06,0.120
-8.150E-06,0.040
-8.140E-06,0.040
-8.130E-06,-0.040
-8.120E-06,0.040
-8.110E-06,0.120
-8.100E-06,0.040
-8.090E-06,0.040
-8.080E-06,0.000
-8.070E-06,0.000
-8.060E-06,-0.080
-8.050E-06,-0.040
-8.040E-06,0.000
-8.030E-06,0.000
-8.020E-06,-0.040
-8.010E-06,-0.080
-8.000E-06,-0.040
-7.990E-06,-0.080
-7.980E-06,0.000
-7.970E-06,0.000
-7.960E-06,0.080
-7.950E-06,0.080
-7.940E-06,0.080
-7.930E-06,0.040
-7.920E-06,0.000
-7.910E-06,0.000
-7.900E-06,0.080
-7.890E-06,0.120
-7.880E-06,0.160
-7.870E-06,0.200
-7.860E-06,0.000
-7.850E-06,0.000
-7.840E-06,0.000
-7.830E-06,0.000
-7.820E-06,0.160
-7.810E-06,0.160
-7.800E-06,0.160
-7.790E-06,0.160
-7.780E-06,0.080
-7.770E-06,0.040
-7.760E-06,0.040
-7.750E-06,0.120
-7.740E-06,0.120
-7.730E-06,0.200
-7.720E-06,0.040
-7.710E-06,0.040
-7.700E-06,0.000
-7.690E-06,0.000
-7.680E-06,0.000
-7.670E-06,0.000
-7.660E-06,-0.080
-7.650E-06,-0.080
-7.640E-06,-0.040
-7.630E-06,0.000
-7.620E-06,0.160
-7.610E-06,0.240
-7.600E-06,0.160
-7.590E-06,0.040
-7.580E-06,-0.040
-7.570E-06,0.000
-7.560E-06,0.000
-7.550E-06,0.120
-7.540E-06,0.200
-7.530E-06,0.120
-7.520E-06,0.000
-7.510E-06,0.000
-7.500E-06,-0.080
-7.490E-06,0.000
-7.480E-06,-0.040
-7.470E-06,0.040
-7.460E-06,0.040
-7.450E-06,0.080
-7.440E-06,0.040
-7.430E-06,0.040
-7.420E-06,-0.040
-7.410E-06,0.040
-7.400E-06,0.040
-7.390E-06,0.080
-7.380E-06,0.160
-7.370E-06,0.080
-7.360E-06,0.080
-7.350E-06,-0.040
-7.340E-06,0.000
-7.330E-06,0.040
-7.320E-06,-0.040
-7.310E-06,0.040
-7.300E-06,-0.040
-7.290E-06,-0.040
-7.280E-06,0.000
-7.270E-06,-0.040
-7.260E-06,0.040
-7.250E-06,0.000
-7.240E-06,0.080
-7.230E-06,0.000
-7.220E-06,0.120
-7.210E-06,0.160
-7.200E-06,0.200
-7.190E-06,0.240
-7.180E-06,0.080
-7.170E-06,0.080
-7.160E-06,0.080
-7.150E-06,0.080
-7.140E-06,0.160
-7.130E-06,0.120
-7.120E-06,0.160
-7.110E-06,0.120
-7.100E-06,-0.040
-7.090E-06,-0.040
-7.080E-06,0.000
-7.070E-06,-0.040
-7.060E-06,0.040
-7.050E-06,0.080
-7.040E-06,-0.080
-7.030E-06,-0.080
-7.020E-06,-0.120
-7.010E-06,-0.160
-7.000E-06,-0.040
-6.990E-06,-0.040
-6.980E-06,-0.040
-6.970E-06,0.000
-6.960E-06,-0.120
-6.950E-06,-0.080
-6.940E-06,0.000
-6.930E-06,0.120
-6.920E-06,0.160
-6.910E-06,0.120
-6.900E-06,0.080
-6.890E-06,0.040
-6.880E-06,0.040
-6.870E-06,0.080
-6.860E-06,0.160
-6.850E-06,0.200
-6.840E-06,0.200
-6.830E-06,0.080
-6.820E-06,-0.040
-6.810E-06,0.040
-6.800E-06,0.080
-6.790E-06,0.160
-6.780E-06,0.160
-6.770E-06,0.160
-6.760E-06,0.040
-6.750E-06,0.000
-6.740E-06,-0.040
-6.730E-06,0.000
-6.720E-06,0.040
-6.710E-06,0.040
-6.700E-06,0.000
-6.690E-06,-0.040
-6.680E-06,-0.120
-6.670E-06,0.000
-6.660E-06,-0.040
-6.650E-06,0.000
-6.640E-06,-0.120
-6.630E-06,-0.080
-6.620E-06,-0.160
-6.610E-06,-0.120
-6.600E-06,-0.080
-6.590E-06,-0.040
-6.580E-06,0.080
-6.570E-06,0.080
-6.560E-06,0.120
-6.550E-06,0.160
-6.540E-06,0.200
-6.530E-06,0.120
-6.520E-06,0.120
-6.510E-06,0.160
-6.500E-06,0.120
-6.490E-06,0.200
-6.480E-06,0.200
-6.470E-06,0.200
-6.460E-06,0.200
-6.450E-06,0.160
-6.440E-06,0.080
-6.430E-06,0.040
-6.420E-06,0.080
-6.410E-06,0.120
-6.400E-06,0.200
-6.390E-06,0.120
-6.380E-06,0.000
-6.370E-06,-0.040
-6.360E-06,-0.040
-6.350E-06,0.080
-6.340E-06,0.120
-6.330E-06,0.200
-6.320E-06,0.120
-6.310E-06,0.000
-6.300E-06,-0.160
-6.290E-06,-0.120
-6.280E-06,0.000
-6.270E-06,0.160
-6.260E-06,0.040
-6.250E-06,0.040
-6.240E-06,-0.160
-6.230E-06,-0.240
-6.220E-06,-0.240
-6.210E-06,-0.160
-6.200E-06,0.040
-6.190E-06,0.080
-6.180E-06,0.080
-6.170E-06,0.080
-6.160E-06,-0.080
-6.150E-06,0.000
-6.140E-06,0.000
-6.130E-06,0.000
-6.120E-06,0.080
-6.110E-06,0.160
-6.100E-06,0.160
-6.090E-06,0.120
-6.080E-06,0.160
-6.070E-06,0.080
-6.060E-06,0.040
-6.050E-06,0.080
-6.040E-06,0.040
-6.030E-06,0.120
-6.020E-06,0.200
-6.010E-06,0.160
-6.000E-06,0.120
-5.990E-06,0.000
-5.980E-06,-0.040
-5.970E-06,-0.040
-5.960E-06,0.080
-5.950E-06,0.000
-5.940E-06,0.000
-5.930E-06,0.080
-5.920E-06,0.040
-5.910E-06,-0.040
-5.900E-06,-0.040
-5.890E-06,0.000
-5.880E-06,0.000
-5.870E-06,-0.040
-5.860E-06,-0.040
-5.850E-06,0.040
-5.840E-06,-0.080
-5.830E-06,0.080
-5.820E-06,0.160
-5.810E-06,0.200
-5.800E-06,0.200
-5.790E-06,0.080
-5.780E-06,0.040
-5.770E-06,-0.040
-5.760E-06,0.040
-5.750E-06,0.120
-5.740E-06,0.200
-5.730E-06,0.080
-5.720E-06,-0.040
-5.710E-06,0.000
-5.700E-06,-0.080
-5.690E-06,-0.040
-5.680E-06,-0.040
-5.670E-06,0.000
-5.660E-06,0.080
-5.650E-06,0.000
-5.640E-06,0.080
-5.630E-06,0.080
-5.620E-06,0.200
-5.610E-06,0.200
-5.600E-06,0.120
-5.590E-06,0.200
-5.580E-06,0.080
-5.570E-06,0.040
-5.560E-06,0.080
-5.550E-06,0.040
-5.540E-06,0.200
-5.530E-06,0.160
-5.520E-06,0.080
-5.510E-06,0.080
-5.500E-06,-0.080
-5.490E-06,0.000
-5.480E-06,-0.120
-5.470E-06,-0.040
-5.460E-06,-0.080
-5.450E-06,-0.040
-5.440E-06,-0.080
-5.430E-06,-0.160
-5.420E-06,0.080
-5.410E-06,0.120
-5.400E-06,0.240
-5.390E-06,0.200
-5.380E-06,-0.040
-5.370E-06,-0.040
-5.360E-06,-0.160
-5.350E-06,0.000
-5.340E-06,0.240
-5.330E-06,0.320
-5.320E-06,0.280
-5.310E-06,0.040
-5.300E-06,-0.080
-5.290E-06,-0.160
-5.280E-06,-0.040
-5.270E-06,0.080
-5.260E-06,0.200
-5.250E-06,0.160
-5.240E-06,0.000
-5.230E-06,-0.040
-5.220E-06,-0.080
-5.210E-06,-0.040
-5.200E-06,0.000
-5.190E-06,0.040
-5.180E-06,-0.040
-5.170E-06,-0.160
-5.160E-06,-0.120
-5.150E-06,-0.080
-5.140E-06,0.000
-5.130E-06,0.160
-5.120E-06,0.040
-5.110E-06,0.120
-5.100E-06,0.000
-5.090E-06,-0.080
-5.080E-06,-0.040
-5.070E-06,0.000
-5.060E-06,0.160
-5.050E-06,0.120
-5.040E-06,0.120
-5.030E-06,0.080
-5.020E-06,0.040
-5.010E-06,0.000
-5.000E-06,0.040
-4.990E-06,0.120
-4.980E-06,0.160
-4.970E-06,0.080
-4.960E-06,0.080
-4.950E-06,0.040
-4.940E-06,0.000
-4.930E-06,-0.040
-4.920E-06,0.000
-4.910E-06,0.000
-4.900E-06,-0.040
-4.890E-06,0.000
-4.880E-06,0.000
-4.870E-06,0.000
-4.860E-06,0.080
-4.850E-06,0.080
-4.840E-06,0.080
-4.830E-06,0.000
-4.820E-06,0.080
-4.810E-06,0.160
-4.800E-06,0.120
-4.790E-06,0.160
-4.780E-06,0.200
-4.770E-06,0.120
-4.760E-06,0.080
-4.750E-06,0.120
-4.740E-06,0.120
-4.730E-06,0.120
-4.720E-06,0.240
-4.710E-06,0.160
-4.700E-06,0.080
-4.690E-06,0.080
-4.680E-06,0.080
-4.670E-06,0.080
-4.660E-06,0.080
-4.650E-06,0.080
-4.640E-06,0.000
-4.630E-06,0.040
-4.620E-06,0.000
-4.610E-06,0.000
-4.600E-06,0.000
-4.590E-06,-0.040
-4.580E-06,0.000
-4.570E-06,-0.040
-4.560E-06,0.000
-4.550E-06,0.000
-4.540E-06,0.000
-4.530E-06,-0.040
-4.520E-06,0.000
-4.510E-06,-0.040
-4.500E-06,-0.120
-4.490E-06,-0.080
-4.480E-06,-0.040
-4.470E-06,-0.040
-4.460E-06,0.040
-4.450E-06,0.000
-4.440E-06,-0.040
-4.430E-06,0.000
-4.420E-06,0.000
-4.410E-06,0.040
-4.400E-06,0.160
-4.390E-06,0.240
-4.380E-06,0.160
-4.370E-06,0.240
-4.360E-06,0.160
-4.350E-06,0.320
-4.340E-06,0.400
-4.330E-06,0.440
-4.320E-06,0.480
-4.310E-06,0.280
-4.300E-06,0.120
-4.290E-06,0.080
-4.280E-06,0.080
-4.270E-06,0.360
-4.260E-06,0.320
-4.250E-06,0.280
-4.240E-06,0.080
-4.230E-06,-0.040
-4.220E-06,-0.120
-4.210E-06,-0.080
-4.200E-06,0.000
-4.190E-06,0.040
-4.180E-06,-0.040
-4.170E-06,-0.080
-4.160E-06,-0.200
-4.150E-06,-0.320
-4.140E-06,-0.360
-4.130E-06,-0.160
-4.120E-06,-0.280
-4.110E-06,-0.120
-4.100E-06,-0.200
-4.090E-06,-0.160
-4.080E-06,-0.200
-4.070E-06,-0.240
-4.060E-06,-0.080
-4.050E-06,0.040
-4.040E-06,-0.160
-4.030E-06,0.000
-4.020E-06,-0.040
-4.010E-06,0.000
-4.000E-06,0.200
-3.990E-06,0.240
-3.980E-06,0.360
-3.970E-06,0.240
-3.960E-06,0.160
-3.950E-06,0.240
-3.940E-06,0.280
-3.930E-06,0.400
-3.920E-06,0.440
-3.910E-06,0.400
-3.900E-06,0.240
-3.890E-06,0.040
-3.880E-06,-0.040
-3.870E-06,0.080
-3.860E-06,0.120
-3.850E-06,0.200
-3.840E-06,0.120
-3.830E-06,-0.080
-3.820E-06,-0.040
-3.810E-06,-0.200
-3.800E-06,0.000
-3.790E-06,0.040
-3.780E-06,0.000
-3.770E-06,0.000
-3.760E-06,-0.160
-3.750E-06,-0.240
-3.740E-06,-0.200
-3.730E-06,-0.160
-3.720E-06,0.000
-3.710E-06,-0.040
-3.700E-06,-0.040
-3.690E-06,0.000
-3.680E-06,-0.040
-3.670E-06,-0.040
-3.660E-06,0.120
-3.650E-06,0.200
-3.640E-06,0.160
-3.630E-06,0.240
-3.620E-06,0.240
-3.610E-06,0.160
-3.600E-06,0.200
-3.590E-06,0.200
-3.580E-06,0.240
-3.570E-06,0.280
-3.560E-06,0.240
-3.550E-06,0.120
-3.540E-06,0.120
-3.530E-06,0.040
-3.520E-06,0.040
-3.510E-06,0.040
-3.500E-06,0.000
-3.490E-06,0.000
-3.480E-06,0.000
-3.470E-06,0.040
-3.460E-06,0.000
-3.450E-06,-0.040
-3.440E-06,-0.040
-3.430E-06,0.000
-3.420E-06,-0.040
-3.410E-06,0.000
-3.400E-06,0.000
-3.390E-06,0.000
-3.380E-06,-0.040
-3.370E-06,0.000
-3.360E-06,-0.040
-3.350E-06,-0.040
-3.340E-06,0.000
-3.330E-06,-0.040
-3.320E-06,0.080
-3.310E-06,0.120
-3.300E-06,0.120
-3.290E-06,0.160
-3.280E-06,0.080
-3.270E-06,0.000
-3.260E-06,0.040
-3.250E-06,0.080
-3.240E-06,0.120
-3.230E-06,0.280
-3.220E-06,0.320
-3.210E-06,0.320
-3.200E-06,0.320
-3.190E-06,0.240
-3.180E-06,0.280
-3.170E-06,0.360
-3.160E-06,0.320
-3.150E-06,0.320
-3.140E-06,0.240
-3.130E-06,0.320
-3.120E-06,0.280
-3.110E-06,0.360
-3.100E-06,0.360
-3.090E-06,0.280
-3.080E-06,0.360
-3.070E-06,0.200
-3.060E-06,0.240
-3.050E-06,0.160
-3.040E-06,0.080
-3.030E-06,0.040
-3.020E-06,0.080
-3.010E-06,0.120
-3.000E-06,0.200
-2.990E-06,0.160
-2.980E-06,0.160
-2.970E-06,0.160
-2.960E-06,0.120
-2.950E-06,0.160
-2.940E-06,0.200
-2.930E-06,0.280
-2.920E-06,0.240
-2.910E-06,0.280
-2.900E-06,0.200
-2.890E-06,0.120
-2.880E-06,0.160
-2.870E-06,0.160
-2.860E-06,0.200
-2.850E-06,0.200
-2.840E-06,0.240
-2.830E-06,0.280
-2.820E-06,0.280
-2.810E-06,0.240
-2.800E-06,0.200
-2.790E-06,0.240
-2.780E-06,0.200
-2.770E-06,0.240
-2.760E-06,0.200
-2.750E-06,0.120
-2.740E-06,0.200
-2.730E-06,0.200
-2.720E-06,0.120
-2.710E-06,0.120
-2.700E-06,0.160
-2.690E-06,0.120
-2.680E-06,0.200
-2.670E-06,0.120
-2.660E-06,0.160
-2.650E-06,0.120
-2.640E-06,0.160
-2.630E-06,0.200
-2.620E-06,0.200
-2.610E-06,0.240
-2.600E-06,0.200
-2.590E-06,0.160
-2.580E-06,0.120
-2.570E-06,0.160
-2.560E-06,0.160
-2.550E-06,0.200
-2.540E-06,0.240
-2.530E-06,0.240
-2.520E-06,0.240
-2.510E-06,0.240
-2.500E-06,0.160
-2.490E-06,0.240
-2.480E-06,0.280
-2.470E-06,0.280
-2.460E-06,0.320
-2.450E-06,0.320
-2.440E-06,0.240
-2.430E-06,0.240
-2.420E-06,0.200
-2.410E-06,0.240
-2.400E-06,0.320
-2.390E-06,0.400
-2.380E-06,0.400
-2.370E-06,0.440
-2.360E-06,0.400
-2.350E-06,0.400
-2.340E-06,0.480
-2.330E-06,0.560
-2.320E-06,0.680
-2.310E-06,0.680
-2.300E-06,0.680
-2.290E-06,0.760
-2.280E-06,0.880
-2.270E-06,0.880
-2.260E-06,0.920
-2.250E-06,0.880
-2.240E-06,0.840
-2.230E-06,0.720
-2.220E-06,0.560
-2.210E-06,0.480
-2.200E-06,0.480
-2.190E-06,0.560
-2.180E-06,0.600
-2.170E-06,0.560
-2.160E-06,0.480
-2.150E-06,0.520
-2.140E-06,0.600
-2.130E-06,0.520
-2.120E-06,0.640
-2.110E-06,0.680
-2.100E-06,0.680
-2.090E-06,0.640
-2.080E-06,0.480
-2.070E-06,0.600
-2.060E-06,0.520
-2.050E-06,0.480
-2.040E-06,0.480
-2.030E-06,0.440
-2.020E-06,0.520
-2.010E-06,0.560
-2.000E-06,0.560
-1.990E-06,0.560
-1.980E-06,0.560
-1.970E-06,0.480
-1.960E-06,0.600
-1.950E-06,0.640
-1.940E-06,0.680
-1.930E-06,0.680
-1.920E-06,0.600
-1.910E-06,0.520
-1.900E-06,0.480
-1.890E-06,0.400
-1.880E-06,0.400
-1.870E-06,0.360
-1.860E-06,0.360
-1.850E-06,0.320
-1.840E-06,0.120
-1.830E-06,0.120
-1.820E-06,0.040
-1.810E-06,-0.040
-1.800E-06,0.000
-1.790E-06,-0.040
-1.780E-06,-0.040
-1.770E-06,0.040
-1.760E-06,0.080
-1.750E-06,0.120
-1.740E-06,0.200
-1.730E-06,0.200
-1.720E-06,0.240
-1.710E-06,0.320
-1.700E-06,0.400
-1.690E-06,0.400
-1.680E-06,0.400
-1.670E-06,0.400
-1.660E-06,0.320
-1.650E-06,0.360
-1.640E-06,0.320
-1.630E-06,0.320
-1.620E-06,0.320
-1.610E-06,0.320
-1.600E-06,0.360
-1.590E-06,0.440
-1.580E-06,0.480
-1.570E-06,0.480
-1.560E-06,0.560
-1.550E-06,0.560
-1.540E-06,0.640
-1.530E-06,0.840
-1.520E-06,0.720
-1.510E-06,0.840
-1.500E-06,0.880
-1.490E-06,0.920
-1.480E-06,1.000
-1.470E-06,1.080
-1.460E-06,1.000
-1.450E-06,1.120
-1.440E-06,1.120
-1.430E-06,1.040
-1.420E-06,0.840
-1.410E-06,0.680
-1.400E-06,0.600
-1.390E-06,0.760
-1.380E-06,0.640
-1.370E-06,0.680
-1.360E-06,0.560
-1.350E-06,0.400
-1.340E-06,0.400
-1.330E-06,0.400
-1.320E-06,0.600
-1.310E-06,0.680
-1.300E-06,0.520
-1.290E-06,0.440
-1.280E-06,0.240
-1.270E-06,0.160
-1.260E-06,0.320
-1.250E-06,0.480
-1.240E-06,0.320
-1.230E-06,0.400
-1.220E-06,0.160
-1.210E-06,0.160
-1.200E-06,0.120
-1.190E-06,0.160
-1.180E-06,0.480
-1.170E-06,0.520
-1.160E-06,0.560
-1.150E-06,0.480
-1.140E-06,0.400
-1.130E-06,0.400
-1.120E-06,0.400
-1.110E-06,0.360
-1.100E-06,0.160
-1.090E-06,0.160
-1.080E-06,0.120
-1.070E-06,0.200
-1.060E-06,0.320
-1.050E-06,0.440
-1.040E-06,0.440
-1.030E-06,0.400
-1.020E-06,0.280
-1.010E-06,0.240
-1.000E-06,0.320
-9.900E-07,0.440
-9.800E-07,0.560
-9.700E-07,0.480
-9.600E-07,0.360
-9.500E-07,0.280
-9.400E-07,0.160
-9.300E-07,0.160
-9.200E-07,0.240
-9.100E-07,0.120
-9.000E-07,0.360
-8.900E-07,0.440
-8.800E-07,0.320
-8.700E-07,0.240
-8.600E-07,0.280
-8.500E-07,0.360
-8.400E-07,0.400
-8.300E-07,0.480
-8.200E-07,0.480
-8.100E-07,0.480
-8.000E-07,0.400
-7.900E-07,0.560
-7.800E-07,0.640
-7.700E-07,0.520
-7.600E-07,0.520
-7.500E-07,0.320
-7.400E-07,0.160
-7.300E-07,0.040
-7.200E-07,0.000
-7.100E-07,0.200
-7.000E-07,0.280
-6.900E-07,0.360
-6.800E-07,0.520
-6.700E-07,0.440
-6.600E-07,0.440
-6.500E-07,0.400
-6.400E-07,0.520
-6.300E-07,0.680
-6.200E-07,0.720
-6.100E-07,0.840
-6.000E-07,0.880
-5.900E-07,0.760
-5.800E-07,0.560
-5.700E-07,0.360
-5.600E-07,0.080
-5.500E-07,-0.080
-5.400E-07,-0.400
-5.300E-07,-0.560
-5.200E-07,-0.640
-5.100E-07,-0.600
-5.000E-07,-0.720
-4.900E-07,-0.760
-4.800E-07,-0.680
-4.700E-07,-0.960
-4.600E-07,-0.680
-4.500E-07,-0.760
-4.400E-07,-0.480
-4.300E-07,-0.240
-4.200E-07,0.000
-4.100E-07,0.240
-4.000E-07,0.320
-3.900E-07,0.240
-3.800E-07,0.240
-3.700E-07,0.480
-3.600E-07,0.600
-3.500E-07,0.800
-3.400E-07,0.920
-3.300E-07,1.000
-3.200E-07,1.080
-3.100E-07,1.120
-3.000E-07,1.160
-2.900E-07,1.200
-2.800E-07,1.120
-2.700E-07,1.160
-2.600E-07,1.200
-2.500E-07,1.120
-2.400E-07,1.040
-2.300E-07,1.040
-2.200E-07,0.840
-2.100E-07,0.680
-2.000E-07,0.680
-1.900E-07,0.520
-1.800E-07,0.400
-1.700E-07,0.240
-1.600E-07,0.200
-1.500E-07,0.040
-1.400E-07,-0.080
-1.300E-07,-0.080
-1.200E-07,-0.320
-1.100E-07,-0.480
-1.000E-07,-0.480
-9.000E-08,-0.960
-8.000E-08,-1.360
-7.000E-08,-1.080
-6.000E-08,-1.440
-5.000E-08,-2.080
-4.000E-08,-1.880
-3.000E-08,-2.720
-2.000E-08,-2.880
-1.000E-08,-2.440
0.000E+00,-2.160
1.000E-08,-1.560
2.000E-08,-1.240
3.000E-08,-1.080
4.000E-08,-0.960
5.000E-08,-1.360
6.000E-08,-0.880
7.000E-08,-1.840
8.000E-08,-1.360
9.000E-08,-1.680
1.000E-07,-1.560
1.100E-07,-1.400
1.200E-07,-0.840
1.300E-07,-0.480
1.400E-07,-0.600
1.500E-07,0.040
1.600E-07,-0.400
1.700E-07,0.120
1.800E-07,0.400
1.900E-07,0.640
2.000E-07,1.160
2.100E-07,1.280
2.200E-07,1.200
2.300E-07,0.640
2.400E-07,0.200
2.500E-07,-0.040
2.600E-07,-0.320
2.700E-07,-0.240
2.800E-07,0.040
2.900E-07,0.000
3.000E-07,-0.280
3.100E-07,-0.400
3.200E-07,-0.920
3.300E-07,-0.800
3.400E-07,-0.560
3.500E-07,-0.680
3.600E-07,0.000
3.700E-07,-0.040
3.800E-07,-0.080
3.900E-07,0.040
4.000E-07,-0.440
4.100E-07,-0.480
4.200E-07,-0.480
4.300E-07,-0.800
4.400E-07,-0.760
4.500E-07,-0.840
4.600E-07,-0.920
4.700E-07,-1.000
4.800E-07,-1.160
4.900E-07,-1.120
5.000E-07,-1.560
5.100E-07,-1.520
5.200E-07,-1.840
5.300E-07,-2.040
5.400E-07,-2.000
5.500E-07,-2.160
5.600E-07,-2.040
5.700E-07,-2.080
5.800E-07,-2.120
5.900E-07,-2.080
6.000E-07,-2.080
6.100E-07,-1.960
6.200E-07,-1.680
6.300E-07,-1.480
6.400E-07,-1.320
6.500E-07,-1.200
6.600E-07,-1.200
6.700E-07,-1.000
6.800E-07,-0.840
6.900E-07,-0.680
7.000E-07,-0.520
7.100E-07,-0.560
7.200E-07,-0.600
7.300E-07,-0.640
7.400E-07,-0.600
7.500E-07,-0.480
7.600E-07,-0.520
7.700E-07,-0.680
7.800E-07,-0.760
7.900E-07,-1.000
8.000E-07,-1.160
8.100E-07,-1.320
8.200E-07,-1.640
8.300E-07,-1.760
8.400E-07,-1.960
8.500E-07,-2.240
8.600E-07,-2.520
8.700E-07,-3.000
8.800E-07,-3.600
8.900E-07,-3.840
9.000E-07,-4.280
9.100E-07,-4.480
9.200E-07,-4.720
9.300E-07,-4.960
9.400E-07,-5.240
9.500E-07,-5.240
9.600E-07,-5.240
9.700E-07,-5.200
9.800E-07,-5.200
9.900E-07,-5.240
1.000E-06,-5.240
1.010E-06,-5.240
1.020E-06,-5.200
1.030E-06,-5.200
1.040E-06,-5.240
1.050E-06,-5.200
1.060E-06,-5.200
1.070E-06,-5.200
1.080E-06,-5.240
1.090E-06,-5.240
1.100E-06,-5.240
1.110E-06,-5.240
1.120E-06,-5.240
1.130E-06,-5.160
1.140E-06,-5.040
1.150E-06,-5.040
1.160E-06,-5.040
1.170E-06,-5.200
1.180E-06,-5.160
1.190E-06,-5.040
1.200E-06,-4.800
1.210E-06,-4.560
1.220E-06,-4.480
1.230E-06,-4.520
1.240E-06,-4.680
1.250E-06,-4.840
1.260E-06,-4.920
1.270E-06,-5.000
1.280E-06,-5.160
1.290E-06,-5.200
1.300E-06,-5.240
1.310E-06,-5.200
1.320E-06,-5.240
1.330E-06,-5.240
1.340E-06,-5.240
1.350E-06,-5.240
1.360E-06,-5.240
1.370E-06,-5.200
1.380E-06,-5.200
1.390E-06,-5.240
1.400E-06,-5.240
1.410E-06,-5.240
1.420E-06,-5.200
1.430E-06,-5.240
1.440E-06,-5.240
1.450E-06,-5.200
1.460E-06,-5.200
1.470E-06,-5.240
1.480E-06,-5.200
1.490E-06,-4.960
1.500E-06,-4.760
1.510E-06,-4.600
1.520E-06,-4.400
1.530E-06,-4.200
1.540E-06,-4.040
1.550E-06,-3.880
1.560E-06,-3.680
1.570E-06,-3.520
1.580E-06,-3.520
1.590E-06,-3.400
1.600E-06,-3.280
1.610E-06,-3.200
1.620E-06,-3.080
1.630E-06,-3.040
1.640E-06,-2.880
1.650E-06,-2.840
1.660E-06,-2.680
1.670E-06,-2.640
1.680E-06,-2.440
1.690E-06,-2.320
1.700E-06,-2.240
1.710E-06,-2.120
1.720E-06,-2.080
1.730E-06,-1.960
1.740E-06,-1.960
1.750E-06,-1.840
1.760E-06,-1.760
1.770E-06,-1.680
1.780E-06,-1.600
1.790E-06,-1.520
1.800E-06,-1.480
1.810E-06,-1.400
1.820E-06,-1.360
1.830E-06,-1.320
1.840E-06,-1.320
1.850E-06,-1.360
1.860E-06,-1.360
1.870E-06,-1.320
1.880E-06,-1.320
1.890E-06,-1.360
1.900E-06,-1.360
1.910E-06,-1.360
1.920E-06,-1.360
1.930E-06,-1.400
1.940E-06,-1.440
1.950E-06,-1.400
1.960E-06,-1.480
1.970E-06,-1.480
1.980E-06,-1.520
1.990E-06,-1.480
2.000E-06,-1.480
2.010E-06,-1.480
2.020E-06,-1.520
2.030E-06,-1.520
2.040E-06,-1.520
2.050E-06,-1.480
2.060E-06,-1.480
2.070E-06,-1.520
2.080E-06,-1.440
2.090E-06,-1.400
2.100E-06,-1.400
2.110E-06,-1.400
2.120E-06,-1.320
2.130E-06,-1.320
2.140E-06,-1.320
2.150E-06,-1.240
2.160E-06,-1.200
2.170E-06,-1.200
2.180E-06,-1.160
2.190E-06,-1.040
2.200E-06,-1.040
2.210E-06,-1.040
2.220E-06,-1.040
2.230E-06,-0.960
2.240E-06,-0.920
2.250E-06,-0.960
2.260E-06,-0.920
2.270E-06,-0.920
2.280E-06,-0.880
2.290E-06,-0.880
2.300E-06,-0.840
2.310E-06,-0.880
2.320E-06,-0.880
2.330E-06,-0.840
2.340E-06,-0.840
2.350E-06,-0.880
2.360E-06,-0.840
2.370E-06,-0.880
2.380E-06,-0.840
2.390E-06,-0.840
2.400E-06,-0.800
2.410E-06,-0.800
2.420E-06,-0.800
2.430E-06,-0.760
2.440E-06,-0.720
2.450E-06,-0.720
2.460E-06,-0.680
2.470E-06,-0.720
2.480E-06,-0.680
2.490E-06,-0.680
2.500E-06,-0.680
2.510E-06,-0.600
2.520E-06,-0.680
2.530E-06,-0.640
2.540E-06,-0.680
2.550E-06,-0.680
2.560E-06,-0.680
2.570E-06,-0.680
2.580E-06,-0.680
2.590E-06,-0.680
2.600E-06,-0.680
2.610E-06,-0.640
2.620E-06,-0.680
2.630E-06,-0.640
2.640E-06,-0.600
2.650E-06,-0.640
2.660E-06,-0.600
2.670E-06,-0.640
2.680E-06,-0.600
2.690E-06,-0.640
2.700E-06,-0.640
2.710E-06,-0.640
2.720E-06,-0.640
2.730E-06,-0.600
2.740E-06,-0.640
2.750E-06,-0.600
2.760E-06,-0.600
2.770E-06,-0.680
2.780E-06,-0.680
2.790E-06,-0.640
2.800E-06,-0.680
2.810E-06,-0.720
2.820E-06,-0.760
2.830E-06,-0.720
2.840E-06,-0.720
2.850E-06,-0.720
2.860E-06,-0.720
2.870E-06,-0.720
2.880E-06,-0.720
2.890E-06,-0.720
2.900E-06,-0.720
2.910E-06,-0.720
2.920E-06,-0.760
2.930E-06,-0.800
2.940E-06,-0.840
2.950E-06,-0.920
2.960E-06,-1.000
2.970E-06,-1.040
2.980E-06,-1.040
2.990E-06,-1.120
3.000E-06,-1.160
3.010E-06,-1.200
3.020E-06,-1.240
3.030E-06,-1.200
3.040E-06,-1.240
3.050E-06,-1.360
3.060E-06,-1.400
3.070E-06,-1.480
3.080E-06,-1.600
3.090E-06,-1.720
3.100E-06,-1.720
3.110E-06,-1.520
3.120E-06,-1.280
3.130E-06,-1.040
3.140E-06,-0.720
3.150E-06,-0.440
3.160E-06,-0.320
3.170E-06,-0.240
3.180E-06,-0.120
3.190E-06,-0.080
3.200E-06,0.000
3.210E-06,0.120
3.220E-06,0.160
3.230E-06,0.080
