mediciones/Mediciones filtradas (saque las feas)/6-10/38.8/WaveData55153.csv

#timebase=2000000(ps)
,#voltbase=500000(mv/100)
#size=4000
-4.250E-06,0.080
-4.240E-06,0.060
-4.230E-06,0.060
-4.220E-06,0.040
-4.210E-06,0.020
-4.200E-06,0.040
-4.190E-06,0.040
-4.180E-06,0.060
-4.170E-06,0.040
-4.160E-06,0.060
-4.150E-06,0.060
-4.140E-06,0.080
-4.130E-06,0.060
-4.120E-06,0.020
-4.110E-06,0.040
-4.100E-06,0.040
-4.090E-06,0.040
-4.080E-06,0.020
-4.070E-06,0.060
-4.060E-06,0.040
-4.050E-06,0.060
-4.040E-06,0.080
-4.030E-06,0.060
-4.020E-06,0.060
-4.010E-06,0.040
-4.000E-06,0.020
-3.990E-06,0.040
-3.980E-06,0.040
-3.970E-06,0.040
-3.960E-06,0.060
-3.950E-06,0.040
-3.940E-06,0.060
-3.930E-06,0.080
-3.920E-06,0.020
-3.910E-06,0.060
-3.900E-06,0.040
-3.890E-06,0.060
-3.880E-06,0.040
-3.870E-06,0.060
-3.860E-06,0.060
-3.850E-06,0.060
-3.840E-06,0.060
-3.830E-06,0.060
-3.820E-06,0.040
-3.810E-06,0.060
-3.800E-06,0.080
-3.790E-06,0.080
-3.780E-06,0.080
-3.770E-06,0.080
-3.760E-06,0.080
-3.750E-06,0.080
-3.740E-06,0.080
-3.730E-06,0.040
-3.720E-06,0.080
-3.710E-06,0.060
-3.700E-06,0.040
-3.690E-06,0.060
-3.680E-06,0.060
-3.670E-06,0.040
-3.660E-06,0.040
-3.650E-06,0.060
-3.640E-06,0.020
-3.630E-06,0.020
-3.620E-06,0.040
-3.610E-06,0.060
-3.600E-06,0.020
-3.590E-06,0.040
-3.580E-06,0.000
-3.570E-06,0.040
-3.560E-06,0.060
-3.550E-06,0.080
-3.540E-06,0.100
-3.530E-06,0.080
-3.520E-06,0.080
-3.510E-06,0.060
-3.500E-06,0.020
-3.490E-06,0.060
-3.480E-06,0.060
-3.470E-06,0.060
-3.460E-06,0.100
-3.450E-06,0.120
-3.440E-06,0.080
-3.430E-06,0.060
-3.420E-06,0.080
-3.410E-06,0.060
-3.400E-06,0.080
-3.390E-06,0.060
-3.380E-06,0.080
-3.370E-06,0.120
-3.360E-06,0.100
-3.350E-06,0.080
-3.340E-06,0.080
-3.330E-06,0.080
-3.320E-06,0.080
-3.310E-06,0.020
-3.300E-06,0.040
-3.290E-06,0.060
-3.280E-06,0.040
-3.270E-06,0.140
-3.260E-06,0.080
-3.250E-06,0.100
-3.240E-06,0.080
-3.230E-06,0.040
-3.220E-06,0.080
-3.210E-06,0.060
-3.200E-06,0.100
-3.190E-06,0.080
-3.180E-06,0.080
-3.170E-06,0.020
-3.160E-06,0.100
-3.150E-06,0.060
-3.140E-06,0.060
-3.130E-06,0.100
-3.120E-06,0.140
-3.110E-06,0.180
-3.100E-06,0.220
-3.090E-06,0.220
-3.080E-06,0.120
-3.070E-06,0.100
-3.060E-06,0.100
-3.050E-06,0.140
-3.040E-06,0.220
-3.030E-06,0.280
-3.020E-06,0.200
-3.010E-06,0.140
-3.000E-06,0.060
-2.990E-06,0.040
-2.980E-06,0.040
-2.970E-06,0.160
-2.960E-06,0.240
-2.950E-06,0.240
-2.940E-06,0.140
-2.930E-06,0.060
-2.920E-06,0.040
-2.910E-06,0.120
-2.900E-06,0.260
-2.890E-06,0.200
-2.880E-06,0.340
-2.870E-06,0.140
-2.860E-06,0.000
-2.850E-06,0.100
-2.840E-06,0.120
-2.830E-06,0.220
-2.820E-06,0.240
-2.810E-06,0.120
-2.800E-06,0.000
-2.790E-06,-0.020
-2.780E-06,0.020
-2.770E-06,0.220
-2.760E-06,0.360
-2.750E-06,0.360
-2.740E-06,0.400
-2.730E-06,0.180
-2.720E-06,-0.040
-2.710E-06,0.060
-2.700E-06,0.060
-2.690E-06,0.220
-2.680E-06,0.260
-2.670E-06,0.180
-2.660E-06,0.020
-2.650E-06,0.000
-2.640E-06,0.000
-2.630E-06,0.100
-2.620E-06,0.260
-2.610E-06,0.340
-2.600E-06,0.200
-2.590E-06,0.200
-2.580E-06,-0.020
-2.570E-06,0.180
-2.560E-06,0.140
-2.550E-06,0.380
-2.540E-06,0.460
-2.530E-06,0.220
-2.520E-06,0.180
-2.510E-06,-0.040
-2.500E-06,0.000
-2.490E-06,-0.020
-2.480E-06,0.100
-2.470E-06,0.220
-2.460E-06,0.160
-2.450E-06,-0.020
-2.440E-06,0.020
-2.430E-06,-0.140
-2.420E-06,0.060
-2.410E-06,0.240
-2.400E-06,0.260
-2.390E-06,0.300
-2.380E-06,0.100
-2.370E-06,0.080
-2.360E-06,-0.180
-2.350E-06,-0.040
-2.340E-06,0.160
-2.330E-06,0.280
-2.320E-06,0.380
-2.310E-06,0.180
-2.300E-06,0.000
-2.290E-06,-0.140
-2.280E-06,-0.260
-2.270E-06,-0.100
-2.260E-06,0.060
-2.250E-06,0.100
-2.240E-06,0.140
-2.230E-06,0.060
-2.220E-06,-0.100
-2.210E-06,-0.120
-2.200E-06,-0.060
-2.190E-06,0.000
-2.180E-06,0.100
-2.170E-06,0.080
-2.160E-06,0.040
-2.150E-06,0.020
-2.140E-06,0.020
-2.130E-06,-0.020
-2.120E-06,0.020
-2.110E-06,0.060
-2.100E-06,0.060
-2.090E-06,0.080
-2.080E-06,0.020
-2.070E-06,0.060
-2.060E-06,0.100
-2.050E-06,0.080
-2.040E-06,0.100
-2.030E-06,0.060
-2.020E-06,0.080
-2.010E-06,0.060
-2.000E-06,0.100
-1.990E-06,0.100
-1.980E-06,0.120
-1.970E-06,0.100
-1.960E-06,0.080
-1.950E-06,0.040
-1.940E-06,0.100
-1.930E-06,0.140
-1.920E-06,0.120
-1.910E-06,0.180
-1.900E-06,0.160
-1.890E-06,0.100
-1.880E-06,0.040
-1.870E-06,0.060
-1.860E-06,0.120
-1.850E-06,0.220
-1.840E-06,0.360
-1.830E-06,0.300
-1.820E-06,0.240
-1.810E-06,0.140
-1.800E-06,0.040
-1.790E-06,0.120
-1.780E-06,0.180
-1.770E-06,0.320
-1.760E-06,0.320
-1.750E-06,0.260
-1.740E-06,0.260
-1.730E-06,0.220
-1.720E-06,0.160
-1.710E-06,0.240
-1.700E-06,0.120
-1.690E-06,0.140
-1.680E-06,0.080
-1.670E-06,0.140
-1.660E-06,0.300
-1.650E-06,0.260
-1.640E-06,0.260
-1.630E-06,0.180
-1.620E-06,0.060
-1.610E-06,-0.020
-1.600E-06,0.040
-1.590E-06,0.060
-1.580E-06,0.060
-1.570E-06,0.060
-1.560E-06,0.000
-1.550E-06,-0.040
-1.540E-06,0.000
-1.530E-06,-0.040
-1.520E-06,-0.060
-1.510E-06,-0.060
-1.500E-06,-0.100
-1.490E-06,-0.040
-1.480E-06,-0.020
-1.470E-06,0.000
-1.460E-06,0.020
-1.450E-06,0.000
-1.440E-06,-0.060
-1.430E-06,0.000
-1.420E-06,0.000
-1.410E-06,0.040
-1.400E-06,0.080
-1.390E-06,0.040
-1.380E-06,0.120
-1.370E-06,0.020
-1.360E-06,0.080
-1.350E-06,0.040
-1.340E-06,0.100
-1.330E-06,0.180
-1.320E-06,0.060
-1.310E-06,0.160
-1.300E-06,0.080
-1.290E-06,-0.020
-1.280E-06,0.140
-1.270E-06,0.140
-1.260E-06,0.280
-1.250E-06,0.320
-1.240E-06,0.100
-1.230E-06,0.120
-1.220E-06,0.040
-1.210E-06,0.080
-1.200E-06,0.240
-1.190E-06,0.340
-1.180E-06,0.400
-1.170E-06,0.360
-1.160E-06,0.280
-1.150E-06,0.160
-1.140E-06,0.200
-1.130E-06,0.180
-1.120E-06,0.300
-1.110E-06,0.300
-1.100E-06,0.300
-1.090E-06,0.260
-1.080E-06,0.200
-1.070E-06,0.160
-1.060E-06,0.140
-1.050E-06,0.120
-1.040E-06,0.120
-1.030E-06,0.120
-1.020E-06,0.120
-1.010E-06,0.160
-1.000E-06,0.140
-9.900E-07,0.120
-9.800E-07,0.080
-9.700E-07,0.060
-9.600E-07,0.100
-9.500E-07,0.100
-9.400E-07,0.140
-9.300E-07,0.160
-9.200E-07,0.140
-9.100E-07,0.140
-9.000E-07,0.080
-8.900E-07,0.060
-8.800E-07,0.100
-8.700E-07,0.060
-8.600E-07,0.120
-8.500E-07,0.120
-8.400E-07,0.100
-8.300E-07,0.160
-8.200E-07,0.100
-8.100E-07,0.000
-8.000E-07,0.060
-7.900E-07,-0.040
-7.800E-07,-0.040
-7.700E-07,0.080
-7.600E-07,0.060
-7.500E-07,0.160
-7.400E-07,0.200
-7.300E-07,0.100
-7.200E-07,0.200
-7.100E-07,0.200
-7.000E-07,0.260
-6.900E-07,0.340
-6.800E-07,0.380
-6.700E-07,0.400
-6.600E-07,0.380
-6.500E-07,0.340
-6.400E-07,0.400
-6.300E-07,0.360
-6.200E-07,0.360
-6.100E-07,0.300
-6.000E-07,0.200
-5.900E-07,0.140
-5.800E-07,0.100
-5.700E-07,0.260
-5.600E-07,0.260
-5.500E-07,0.340
-5.400E-07,0.300
-5.300E-07,0.220
-5.200E-07,0.200
-5.100E-07,0.220
-5.000E-07,0.220
-4.900E-07,0.280
-4.800E-07,0.260
-4.700E-07,0.140
-4.600E-07,0.100
-4.500E-07,0.000
-4.400E-07,0.060
-4.300E-07,0.100
-4.200E-07,0.140
-4.100E-07,0.100
-4.000E-07,0.120
-3.900E-07,0.080
-3.800E-07,0.100
-3.700E-07,0.120
-3.600E-07,0.100
-3.500E-07,0.160
-3.400E-07,0.100
-3.300E-07,0.120
-3.200E-07,0.180
-3.100E-07,0.200
-3.000E-07,0.220
-2.900E-07,0.120
-2.800E-07,0.160
-2.700E-07,0.060
-2.600E-07,0.160
-2.500E-07,0.160
-2.400E-07,0.220
-2.300E-07,0.220
-2.200E-07,0.140
-2.100E-07,0.200
-2.000E-07,0.180
-1.900E-07,0.280
-1.800E-07,0.280
-1.700E-07,0.280
-1.600E-07,0.300
-1.500E-07,0.260
-1.400E-07,0.300
-1.300E-07,0.180
-1.200E-07,0.440
-1.100E-07,0.320
-1.000E-07,0.500
-9.000E-08,-0.140
-8.000E-08,0.740
-7.000E-08,0.160
-6.000E-08,-0.440
-5.000E-08,0.320
-4.000E-08,0.420
-3.000E-08,0.000
-2.000E-08,-0.500
-1.000E-08,-0.100
0.000E+00,-1.120
1.000E-08,-0.020
2.000E-08,1.420
3.000E-08,1.480
4.000E-08,2.420
5.000E-08,1.100
6.000E-08,-0.940
7.000E-08,-1.560
8.000E-08,-1.320
9.000E-08,-0.460
1.000E-07,1.980
1.100E-07,1.580
1.200E-07,1.520
1.300E-07,0.460
1.400E-07,-1.020
1.500E-07,-1.040
1.600E-07,-0.180
1.700E-07,0.680
1.800E-07,0.620
1.900E-07,0.680
2.000E-07,-0.400
2.100E-07,-0.880
2.200E-07,-0.320
2.300E-07,-0.040
2.400E-07,0.640
2.500E-07,0.720
2.600E-07,0.040
2.700E-07,-0.240
2.800E-07,-0.340
2.900E-07,-0.240
3.000E-07,0.440
3.100E-07,0.560
3.200E-07,0.360
3.300E-07,0.040
3.400E-07,-0.320
3.500E-07,-0.400
3.600E-07,-0.040
3.700E-07,0.280
3.800E-07,0.460
3.900E-07,0.440
4.000E-07,0.160
4.100E-07,0.000
4.200E-07,-0.100
4.300E-07,0.000
4.400E-07,0.080
4.500E-07,0.140
4.600E-07,0.080
4.700E-07,0.040
4.800E-07,0.060
4.900E-07,0.080
5.000E-07,0.060
5.100E-07,0.100
5.200E-07,0.160
5.300E-07,0.140
5.400E-07,0.180
5.500E-07,0.280
5.600E-07,0.340
5.700E-07,0.360
5.800E-07,0.340
5.900E-07,0.340
6.000E-07,0.220
6.100E-07,0.180
6.200E-07,0.260
6.300E-07,0.160
6.400E-07,0.360
6.500E-07,0.260
6.600E-07,0.220
6.700E-07,0.340
6.800E-07,0.240
6.900E-07,0.480
7.000E-07,0.420
7.100E-07,0.760
7.200E-07,0.580
7.300E-07,0.500
7.400E-07,0.560
7.500E-07,0.300
7.600E-07,0.560
7.700E-07,0.520
7.800E-07,0.800
7.900E-07,0.380
8.000E-07,0.300
8.100E-07,0.020
8.200E-07,-0.260
8.300E-07,-0.180
8.400E-07,0.200
8.500E-07,0.360
8.600E-07,0.680
8.700E-07,0.860
8.800E-07,0.220
8.900E-07,0.500
9.000E-07,0.000
9.100E-07,0.240
9.200E-07,0.480
9.300E-07,0.320
9.400E-07,0.600
9.500E-07,0.520
9.600E-07,0.340
9.700E-07,0.280
9.800E-07,0.260
9.900E-07,0.780
1.000E-06,-0.500
1.010E-06,-0.560
1.020E-06,0.020
1.030E-06,-1.140
1.040E-06,0.160
1.050E-06,0.100
1.060E-06,0.000
1.070E-06,0.680
1.080E-06,0.440
1.090E-06,0.300
1.100E-06,0.660
1.110E-06,0.420
1.120E-06,0.340
1.130E-06,0.240
1.140E-06,-0.200
1.150E-06,-0.020
1.160E-06,0.000
1.170E-06,0.460
1.180E-06,0.400
1.190E-06,0.700
1.200E-06,0.300
1.210E-06,0.040
1.220E-06,-0.120
1.230E-06,-0.240
1.240E-06,-0.160
1.250E-06,-0.040
1.260E-06,-0.180
1.270E-06,-0.260
1.280E-06,-0.220
1.290E-06,-0.380
1.300E-06,-0.240
1.310E-06,-0.320
1.320E-06,-0.260
1.330E-06,-0.320
1.340E-06,-0.260
1.350E-06,-0.280
1.360E-06,-0.160
1.370E-06,-0.100
1.380E-06,0.020
1.390E-06,0.180
1.400E-06,0.160
1.410E-06,0.100
1.420E-06,0.060
1.430E-06,0.100
1.440E-06,0.080
1.450E-06,0.120
1.460E-06,0.180
1.470E-06,0.180
1.480E-06,0.100
1.490E-06,0.100
1.500E-06,0.100
1.510E-06,0.100
1.520E-06,0.140
1.530E-06,0.200
1.540E-06,0.240
1.550E-06,0.180
1.560E-06,0.180
1.570E-06,0.180
1.580E-06,0.220
1.590E-06,0.260
1.600E-06,0.240
1.610E-06,0.180
1.620E-06,0.080
1.630E-06,0.120
1.640E-06,0.100
1.650E-06,0.220
1.660E-06,0.300
1.670E-06,0.340
1.680E-06,0.300
1.690E-06,0.320
1.700E-06,0.320
1.710E-06,0.320
1.720E-06,0.320
1.730E-06,0.320
1.740E-06,0.240
1.750E-06,0.200
1.760E-06,0.100
1.770E-06,0.040
1.780E-06,0.040
1.790E-06,0.100
1.800E-06,0.060
1.810E-06,0.080
1.820E-06,-0.100
1.830E-06,-0.040
1.840E-06,0.020
1.850E-06,0.000
1.860E-06,0.160
1.870E-06,0.180
1.880E-06,0.160
1.890E-06,0.180
1.900E-06,0.160
1.910E-06,0.200
1.920E-06,0.180
1.930E-06,0.080
1.940E-06,0.220
1.950E-06,0.020
1.960E-06,0.380
1.970E-06,0.480
1.980E-06,0.380
1.990E-06,0.240
2.000E-06,0.280
2.010E-06,0.500
2.020E-06,0.380
2.030E-06,0.840
2.040E-06,0.720
2.050E-06,0.400
2.060E-06,0.460
2.070E-06,0.940
2.080E-06,1.440
2.090E-06,1.360
2.100E-06,2.160
2.110E-06,1.080
2.120E-06,1.320
2.130E-06,0.720
2.140E-06,0.340
2.150E-06,1.520
2.160E-06,1.260
2.170E-06,1.960
2.180E-06,1.720
2.190E-06,1.800
2.200E-06,1.020
2.210E-06,1.200
2.220E-06,1.480
2.230E-06,1.040
2.240E-06,1.860
2.250E-06,1.340
2.260E-06,1.360
2.270E-06,1.300
2.280E-06,1.020
2.290E-06,0.700
2.300E-06,0.900
2.310E-06,0.500
2.320E-06,0.440
2.330E-06,0.600
2.340E-06,0.580
2.350E-06,1.420
2.360E-06,1.480
2.370E-06,1.600
2.380E-06,1.540
2.390E-06,1.180
2.400E-06,1.620
2.410E-06,1.480
2.420E-06,1.440
2.430E-06,1.440
2.440E-06,0.760
2.450E-06,0.500
2.460E-06,0.100
2.470E-06,-0.160
2.480E-06,-0.500
2.490E-06,-0.480
2.500E-06,-0.800
2.510E-06,-0.700
2.520E-06,-0.740
2.530E-06,-0.600
2.540E-06,-0.480
2.550E-06,-0.240
2.560E-06,-0.180
2.570E-06,-0.080
2.580E-06,0.060
2.590E-06,0.080
2.600E-06,0.160
2.610E-06,0.080
2.620E-06,0.040
2.630E-06,-0.060
2.640E-06,-0.020
2.650E-06,-0.160
2.660E-06,-0.260
2.670E-06,-0.440
2.680E-06,-0.580
2.690E-06,-0.700
2.700E-06,-0.740
2.710E-06,-0.800
2.720E-06,-0.860
2.730E-06,-0.920
2.740E-06,-0.900
2.750E-06,-0.820
2.760E-06,-0.840
2.770E-06,-0.820
2.780E-06,-0.880
2.790E-06,-0.940
2.800E-06,-1.020
2.810E-06,-1.100
2.820E-06,-1.260
2.830E-06,-1.480
2.840E-06,-1.780
2.850E-06,-2.080
2.860E-06,-2.500
2.870E-06,-2.660
2.880E-06,-2.680
2.890E-06,-2.660
2.900E-06,-2.660
2.910E-06,-2.660
2.920E-06,-2.680
2.930E-06,-2.660
2.940E-06,-2.660
2.950E-06,-2.660
2.960E-06,-2.660
2.970E-06,-2.660
2.980E-06,-2.640
2.990E-06,-2.640
3.000E-06,-2.640
3.010E-06,-2.660
3.020E-06,-2.660
3.030E-06,-2.680
3.040E-06,-2.680
3.050E-06,-2.660
3.060E-06,-2.660
3.070E-06,-2.660
3.080E-06,-2.560
3.090E-06,-2.460
3.100E-06,-2.280
3.110E-06,-2.000
3.120E-06,-1.700
3.130E-06,-1.380
3.140E-06,-1.000
3.150E-06,-0.720
3.160E-06,-0.520
3.170E-06,-0.340
3.180E-06,-0.260
3.190E-06,-0.240
3.200E-06,-0.220
3.210E-06,-0.220
3.220E-06,-0.220
3.230E-06,-0.240
3.240E-06,-0.320
3.250E-06,-0.360
3.260E-06,-0.400
3.270E-06,-0.500
3.280E-06,-0.580
3.290E-06,-0.700
3.300E-06,-0.780
3.310E-06,-0.840
3.320E-06,-0.880
3.330E-06,-0.880
3.340E-06,-0.880
3.350E-06,-0.820
3.360E-06,-0.720
3.370E-06,-0.660
3.380E-06,-0.520
3.390E-06,-0.420
3.400E-06,-0.300
3.410E-06,-0.140
3.420E-06,-0.040
3.430E-06,0.080
3.440E-06,0.240
3.450E-06,0.340
3.460E-06,0.480
3.470E-06,0.580
3.480E-06,0.640
3.490E-06,0.620
3.500E-06,0.580
3.510E-06,0.560
3.520E-06,0.520
3.530E-06,0.460
3.540E-06,0.380
3.550E-06,0.360
3.560E-06,0.280
3.570E-06,0.220
3.580E-06,0.220
3.590E-06,0.160
3.600E-06,0.160
3.610E-06,0.100
3.620E-06,0.080
3.630E-06,0.140
3.640E-06,0.200
3.650E-06,0.260
3.660E-06,0.320
3.670E-06,0.400
3.680E-06,0.460
3.690E-06,0.520
3.700E-06,0.560
3.710E-06,0.560
3.720E-06,0.560
3.730E-06,0.620
3.740E-06,0.720
3.750E-06,0.740
3.760E-06,0.760
3.770E-06,0.720
3.780E-06,0.660
3.790E-06,0.620
3.800E-06,0.540
3.810E-06,0.500
3.820E-06,0.360
3.830E-06,0.320
3.840E-06,0.280
3.850E-06,0.220
3.860E-06,0.180
3.870E-06,0.160
3.880E-06,0.180
3.890E-06,0.220
3.900E-06,0.260
3.910E-06,0.260
3.920E-06,0.320
3.930E-06,0.380
3.940E-06,0.500
3.950E-06,0.540
3.960E-06,0.560
3.970E-06,0.600
3.980E-06,0.600
3.990E-06,0.680
4.000E-06,0.660
4.010E-06,0.680
4.020E-06,0.580
4.030E-06,0.520
4.040E-06,0.480
4.050E-06,0.480
4.060E-06,0.400
4.070E-06,0.340
4.080E-06,0.320
4.090E-06,0.340
4.100E-06,0.440
4.110E-06,0.520
4.120E-06,0.460
4.130E-06,0.420
4.140E-06,0.440
4.150E-06,0.480
4.160E-06,0.560
4.170E-06,0.660
4.180E-06,0.780
4.190E-06,0.840
4.200E-06,0.780
4.210E-06,0.660
4.220E-06,0.580
4.230E-06,0.460
4.240E-06,0.420
4.250E-06,0.340
4.260E-06,0.260
4.270E-06,0.200
4.280E-06,0.180
4.290E-06,0.180
4.300E-06,0.220
4.310E-06,0.200
4.320E-06,0.220
4.330E-06,0.240
4.340E-06,0.320
4.350E-06,0.340
4.360E-06,0.340
4.370E-06,0.280
4.380E-06,0.260
4.390E-06,0.180
4.400E-06,0.120
4.410E-06,0.080
4.420E-06,0.020
4.430E-06,-0.020
4.440E-06,-0.100
4.450E-06,-0.140
4.460E-06,-0.180
4.470E-06,-0.240
4.480E-06,-0.220
4.490E-06,-0.260
4.500E-06,-0.320
4.510E-06,-0.280
4.520E-06,-0.240
4.530E-06,-0.160
4.540E-06,-0.160
4.550E-06,-0.120
4.560E-06,-0.060
4.570E-06,0.000
4.580E-06,0.060
4.590E-06,0.060
4.600E-06,0.120
4.610E-06,0.100
4.620E-06,0.080
4.630E-06,0.080
4.640E-06,0.040
4.650E-06,0.060
4.660E-06,0.080
4.670E-06,0.000
4.680E-06,-0.020
4.690E-06,-0.040
4.700E-06,-0.100
4.710E-06,-0.120
4.720E-06,-0.160
4.730E-06,-0.180
4.740E-06,-0.200
4.750E-06,-0.200
4.760E-06,-0.220
4.770E-06,-0.180
4.780E-06,-0.160
4.790E-06,-0.160
4.800E-06,-0.120
4.810E-06,-0.080
4.820E-06,-0.060
4.830E-06,-0.060
4.840E-06,-0.040
4.850E-06,0.000
4.860E-06,0.020
4.870E-06,0.100
4.880E-06,0.220
4.890E-06,0.320
4.900E-06,0.400
4.910E-06,0.500
4.920E-06,0.560
4.930E-06,0.580
4.940E-06,0.540
4.950E-06,0.520
4.960E-06,0.440
4.970E-06,0.340
4.980E-06,0.320
4.990E-06,0.160
5.000E-06,0.120
5.010E-06,0.040
5.020E-06,-0.100
5.030E-06,-0.120
5.040E-06,-0.220
5.050E-06,-0.280
5.060E-06,-0.340
5.070E-06,-0.440
5.080E-06,-0.460
5.090E-06,-0.440
5.100E-06,-0.460
5.110E-06,-0.380
5.120E-06,-0.360
5.130E-06,-0.300
5.140E-06,-0.180
5.150E-06,-0.060
5.160E-06,0.020
5.170E-06,0.140
5.180E-06,0.240
5.190E-06,0.260
5.200E-06,0.300
5.210E-06,0.260
5.220E-06,0.200
5.230E-06,0.160
5.240E-06,0.080
5.250E-06,0.060
5.260E-06,0.080
5.270E-06,0.140
5.280E-06,0.180
5.290E-06,0.260
5.300E-06,0.320
5.310E-06,0.380
5.320E-06,0.340
5.330E-06,0.260
5.340E-06,0.180
5.350E-06,-0.020
5.360E-06,-0.100
5.370E-06,-0.200
5.380E-06,-0.260
5.390E-06,-0.260
5.400E-06,-0.200
5.410E-06,-0.160
5.420E-06,-0.080
5.430E-06,-0.060
5.440E-06,-0.020
5.450E-06,0.040
5.460E-06,0.080
5.470E-06,0.060
5.480E-06,0.040
5.490E-06,0.040
5.500E-06,0.020
5.510E-06,0.000
5.520E-06,0.000
5.530E-06,-0.100
5.540E-06,-0.060
5.550E-06,0.000
5.560E-06,0.000
5.570E-06,0.100
5.580E-06,0.240
5.590E-06,0.320
5.600E-06,0.420
5.610E-06,0.460
5.620E-06,0.480
5.630E-06,0.480
5.640E-06,0.460
5.650E-06,0.460
5.660E-06,0.460
5.670E-06,0.480
5.680E-06,0.500
5.690E-06,0.560
5.700E-06,0.620
5.710E-06,0.740
5.720E-06,0.760
5.730E-06,0.800
5.740E-06,0.820
5.750E-06,0.840
5.760E-06,0.820
5.770E-06,0.800
5.780E-06,0.820
5.790E-06,0.780
5.800E-06,0.760
5.810E-06,0.660
5.820E-06,0.620
5.830E-06,0.560
5.840E-06,0.420
5.850E-06,0.380
5.860E-06,0.260
5.870E-06,0.180
5.880E-06,0.120
5.890E-06,0.100
5.900E-06,0.060
5.910E-06,0.020
5.920E-06,0.000
5.930E-06,-0.060
5.940E-06,-0.040
5.950E-06,-0.080
5.960E-06,-0.140
5.970E-06,-0.200
5.980E-06,-0.180
5.990E-06,-0.180
6.000E-06,-0.200
6.010E-06,-0.200
6.020E-06,-0.120
6.030E-06,-0.060
6.040E-06,0.040
6.050E-06,0.080
6.060E-06,0.180
6.070E-06,0.220
6.080E-06,0.220
6.090E-06,0.220
6.100E-06,0.240
6.110E-06,0.180
6.120E-06,0.220
6.130E-06,0.220
6.140E-06,0.300
6.150E-06,0.380
6.160E-06,0.440
6.170E-06,0.500
6.180E-06,0.560
6.190E-06,0.580
6.200E-06,0.620
6.210E-06,0.660
6.220E-06,0.660
6.230E-06,0.660
6.240E-06,0.560
6.250E-06,0.560
6.260E-06,0.560
6.270E-06,0.580
6.280E-06,0.620
6.290E-06,0.660
6.300E-06,0.740
6.310E-06,0.760
6.320E-06,0.740
6.330E-06,0.640
6.340E-06,0.540
6.350E-06,0.420
6.360E-06,0.300
6.370E-06,0.180
6.380E-06,0.080
6.390E-06,-0.040
6.400E-06,-0.080
6.410E-06,-0.160
6.420E-06,-0.240
6.430E-06,-0.260
6.440E-06,-0.280
6.450E-06,-0.260
6.460E-06,-0.240
6.470E-06,-0.140
6.480E-06,0.000
6.490E-06,0.180
6.500E-06,0.400
6.510E-06,0.520
6.520E-06,0.500
6.530E-06,0.500
6.540E-06,0.340
6.550E-06,0.160
6.560E-06,0.000
6.570E-06,-0.100
6.580E-06,-0.160
6.590E-06,-0.120
6.600E-06,-0.060
6.610E-06,0.040
6.620E-06,0.120
6.630E-06,0.180
6.640E-06,0.300
6.650E-06,0.300
6.660E-06,0.340
6.670E-06,0.340
6.680E-06,0.340
6.690E-06,0.300
6.700E-06,0.300
6.710E-06,0.220
6.720E-06,0.200
6.730E-06,0.180
6.740E-06,0.200
6.750E-06,0.240
6.760E-06,0.240
6.770E-06,0.320
6.780E-06,0.360
6.790E-06,0.320
6.800E-06,0.360
6.810E-06,0.400
6.820E-06,0.420
6.830E-06,0.480
6.840E-06,0.540
6.850E-06,0.640
6.860E-06,0.680
6.870E-06,0.700
6.880E-06,0.660
6.890E-06,0.620
6.900E-06,0.580
6.910E-06,0.500
6.920E-06,0.480
6.930E-06,0.480
6.940E-06,0.500
6.950E-06,0.560
6.960E-06,0.640
6.970E-06,0.740
6.980E-06,0.820
6.990E-06,0.960
7.000E-06,1.120
7.010E-06,1.300
7.020E-06,1.600
7.030E-06,1.940
7.040E-06,2.300
7.050E-06,2.700
7.060E-06,2.760
7.070E-06,2.760
7.080E-06,2.780
7.090E-06,2.780
7.100E-06,2.760
7.110E-06,2.760
7.120E-06,2.760
7.130E-06,2.780
7.140E-06,2.760
7.150E-06,2.760
7.160E-06,2.740
7.170E-06,2.760
7.180E-06,2.780
7.190E-06,2.500
7.200E-06,2.040
7.210E-06,1.660
7.220E-06,1.340
7.230E-06,1.040
7.240E-06,0.900
7.250E-06,0.800
7.260E-06,0.800
7.270E-06,0.760
7.280E-06,0.720
7.290E-06,0.700
7.300E-06,0.660
7.310E-06,0.660
7.320E-06,0.680
7.330E-06,0.700
7.340E-06,0.740
7.350E-06,0.780
7.360E-06,0.820
7.370E-06,0.800
7.380E-06,0.820
7.390E-06,0.800
7.400E-06,0.780
7.410E-06,0.760
7.420E-06,0.760
7.430E-06,0.700
7.440E-06,0.680
7.450E-06,0.620
7.460E-06,0.580
7.470E-06,0.540
7.480E-06,0.520
7.490E-06,0.500
7.500E-06,0.420
7.510E-06,0.420
7.520E-06,0.440
7.530E-06,0.420
7.540E-06,0.400
7.550E-06,0.420
7.560E-06,0.400
7.570E-06,0.360
7.580E-06,0.400
7.590E-06,0.400
7.600E-06,0.360
7.610E-06,0.360
7.620E-06,0.320
7.630E-06,0.240
7.640E-06,0.200
7.650E-06,0.220
7.660E-06,0.180
7.670E-06,0.160
7.680E-06,0.160
7.690E-06,0.160
7.700E-06,0.160
7.710E-06,0.220
7.720E-06,0.240
7.730E-06,0.260
7.740E-06,0.240
7.750E-06,0.220
7.760E-06,0.180
7.770E-06,0.140
7.780E-06,0.160
