mediciones/Mediciones filtradas (saque las feas)/6-10/38.8/WaveData55150.csv

#timebase=2000000(ps)
,#voltbase=100000(mv/100)
#size=4000
-4.250E-06,0.012
-4.240E-06,0.008
-4.230E-06,-0.004
-4.220E-06,-0.004
-4.210E-06,0.004
-4.200E-06,0.004
-4.190E-06,0.008
-4.180E-06,0.008
-4.170E-06,0.004
-4.160E-06,0.004
-4.150E-06,-0.004
-4.140E-06,0.000
-4.130E-06,-0.004
-4.120E-06,0.004
-4.110E-06,-0.004
-4.100E-06,0.000
-4.090E-06,0.008
-4.080E-06,0.004
-4.070E-06,0.004
-4.060E-06,0.004
-4.050E-06,0.000
-4.040E-06,0.000
-4.030E-06,0.004
-4.020E-06,0.004
-4.010E-06,0.000
-4.000E-06,0.008
-3.990E-06,0.004
-3.980E-06,0.000
-3.970E-06,0.004
-3.960E-06,0.000
-3.950E-06,0.000
-3.940E-06,0.008
-3.930E-06,0.016
-3.920E-06,0.004
-3.910E-06,0.004
-3.900E-06,0.000
-3.890E-06,0.004
-3.880E-06,-0.004
-3.870E-06,0.008
-3.860E-06,0.004
-3.850E-06,0.012
-3.840E-06,0.004
-3.830E-06,0.008
-3.820E-06,0.012
-3.810E-06,-0.004
-3.800E-06,0.008
-3.790E-06,0.008
-3.780E-06,0.012
-3.770E-06,0.016
-3.760E-06,0.016
-3.750E-06,0.008
-3.740E-06,0.012
-3.730E-06,0.012
-3.720E-06,0.016
-3.710E-06,0.024
-3.700E-06,0.020
-3.690E-06,0.044
-3.680E-06,0.056
-3.670E-06,0.044
-3.660E-06,0.024
-3.650E-06,0.020
-3.640E-06,-0.008
-3.630E-06,-0.056
-3.620E-06,-0.020
-3.610E-06,0.020
-3.600E-06,0.060
-3.590E-06,0.032
-3.580E-06,0.012
-3.570E-06,-0.040
-3.560E-06,-0.052
-3.550E-06,-0.040
-3.540E-06,-0.060
-3.530E-06,0.028
-3.520E-06,-0.024
-3.510E-06,-0.004
-3.500E-06,-0.024
-3.490E-06,0.004
-3.480E-06,-0.048
-3.470E-06,-0.004
-3.460E-06,0.032
-3.450E-06,0.036
-3.440E-06,0.008
-3.430E-06,-0.012
-3.420E-06,-0.016
-3.410E-06,-0.016
-3.400E-06,0.020
-3.390E-06,0.020
-3.380E-06,0.012
-3.370E-06,-0.004
-3.360E-06,0.004
-3.350E-06,0.012
-3.340E-06,0.008
-3.330E-06,0.000
-3.320E-06,-0.008
-3.310E-06,-0.004
-3.300E-06,0.004
-3.290E-06,0.024
-3.280E-06,0.012
-3.270E-06,0.012
-3.260E-06,0.000
-3.250E-06,0.004
-3.240E-06,0.004
-3.230E-06,0.004
-3.220E-06,0.012
-3.210E-06,0.004
-3.200E-06,0.044
-3.190E-06,0.040
-3.180E-06,0.076
-3.170E-06,0.084
-3.160E-06,-0.024
-3.150E-06,-0.040
-3.140E-06,-0.092
-3.130E-06,-0.104
-3.120E-06,-0.040
-3.110E-06,0.052
-3.100E-06,0.092
-3.090E-06,0.100
-3.080E-06,0.048
-3.070E-06,-0.040
-3.060E-06,-0.092
-3.050E-06,-0.072
-3.040E-06,-0.048
-3.030E-06,0.008
-3.020E-06,0.044
-3.010E-06,0.028
-3.000E-06,0.012
-2.990E-06,0.000
-2.980E-06,0.024
-2.970E-06,-0.012
-2.960E-06,-0.036
-2.950E-06,-0.008
-2.940E-06,-0.008
-2.930E-06,0.032
-2.920E-06,0.052
-2.910E-06,0.036
-2.900E-06,0.040
-2.890E-06,0.008
-2.880E-06,-0.024
-2.870E-06,-0.032
-2.860E-06,0.020
-2.850E-06,0.044
-2.840E-06,0.084
-2.830E-06,0.072
-2.820E-06,0.040
-2.810E-06,-0.016
-2.800E-06,-0.080
-2.790E-06,-0.096
-2.780E-06,-0.068
-2.770E-06,0.004
-2.760E-06,0.048
-2.750E-06,0.076
-2.740E-06,0.080
-2.730E-06,0.060
-2.720E-06,-0.004
-2.710E-06,-0.084
-2.700E-06,-0.108
-2.690E-06,-0.072
-2.680E-06,0.000
-2.670E-06,0.064
-2.660E-06,0.072
-2.650E-06,0.056
-2.640E-06,0.012
-2.630E-06,-0.040
-2.620E-06,-0.044
-2.610E-06,-0.024
-2.600E-06,0.016
-2.590E-06,0.056
-2.580E-06,0.076
-2.570E-06,0.048
-2.560E-06,0.024
-2.550E-06,0.000
-2.540E-06,-0.004
-2.530E-06,0.032
-2.520E-06,0.080
-2.510E-06,0.128
-2.500E-06,0.088
-2.490E-06,0.008
-2.480E-06,-0.116
-2.470E-06,-0.148
-2.460E-06,-0.116
-2.450E-06,-0.048
-2.440E-06,0.044
-2.430E-06,0.108
-2.420E-06,0.128
-2.410E-06,0.068
-2.400E-06,-0.020
-2.390E-06,-0.100
-2.380E-06,-0.136
-2.370E-06,-0.140
-2.360E-06,-0.044
-2.350E-06,0.052
-2.340E-06,0.116
-2.330E-06,0.092
-2.320E-06,0.020
-2.310E-06,-0.060
-2.300E-06,-0.100
-2.290E-06,-0.096
-2.280E-06,-0.020
-2.270E-06,0.024
-2.260E-06,0.064
-2.250E-06,0.076
-2.240E-06,0.032
-2.230E-06,-0.012
-2.220E-06,-0.048
-2.210E-06,-0.040
-2.200E-06,-0.016
-2.190E-06,0.024
-2.180E-06,0.048
-2.170E-06,0.064
-2.160E-06,0.044
-2.150E-06,0.020
-2.140E-06,-0.004
-2.130E-06,-0.028
-2.120E-06,-0.008
-2.110E-06,0.020
-2.100E-06,0.052
-2.090E-06,0.088
-2.080E-06,0.060
-2.070E-06,0.040
-2.060E-06,-0.008
-2.050E-06,-0.044
-2.040E-06,-0.040
-2.030E-06,-0.008
-2.020E-06,0.048
-2.010E-06,0.076
-2.000E-06,0.072
-1.990E-06,0.044
-1.980E-06,-0.004
-1.970E-06,-0.028
-1.960E-06,-0.044
-1.950E-06,-0.016
-1.940E-06,0.012
-1.930E-06,0.040
-1.920E-06,0.048
-1.910E-06,0.040
-1.900E-06,0.020
-1.890E-06,0.000
-1.880E-06,-0.004
-1.870E-06,0.012
-1.860E-06,0.036
-1.850E-06,0.056
-1.840E-06,0.056
-1.830E-06,0.040
-1.820E-06,0.012
-1.810E-06,-0.004
-1.800E-06,-0.008
-1.790E-06,0.000
-1.780E-06,0.012
-1.770E-06,0.048
-1.760E-06,0.080
-1.750E-06,0.092
-1.740E-06,0.108
-1.730E-06,0.092
-1.720E-06,0.072
-1.710E-06,0.064
-1.700E-06,0.028
-1.690E-06,-0.004
-1.680E-06,-0.080
-1.670E-06,-0.084
-1.660E-06,-0.092
-1.650E-06,-0.040
-1.640E-06,0.012
-1.630E-06,0.032
-1.620E-06,0.024
-1.610E-06,0.056
-1.600E-06,0.028
-1.590E-06,-0.024
-1.580E-06,-0.060
-1.570E-06,-0.084
-1.560E-06,-0.076
-1.550E-06,-0.056
-1.540E-06,0.008
-1.530E-06,0.040
-1.520E-06,0.044
-1.510E-06,0.080
-1.500E-06,-0.012
-1.490E-06,-0.040
-1.480E-06,-0.060
-1.470E-06,-0.080
-1.460E-06,-0.052
-1.450E-06,-0.040
-1.440E-06,0.064
-1.430E-06,0.128
-1.420E-06,0.052
-1.410E-06,-0.004
-1.400E-06,-0.056
-1.390E-06,-0.056
-1.380E-06,-0.016
-1.370E-06,0.020
-1.360E-06,0.072
-1.350E-06,0.096
-1.340E-06,0.076
-1.330E-06,0.072
-1.320E-06,0.016
-1.310E-06,-0.024
-1.300E-06,-0.068
-1.290E-06,-0.032
-1.280E-06,0.004
-1.270E-06,0.020
-1.260E-06,0.008
-1.250E-06,0.024
-1.240E-06,0.008
-1.230E-06,0.024
-1.220E-06,0.008
-1.210E-06,0.024
-1.200E-06,0.060
-1.190E-06,0.124
-1.180E-06,0.140
-1.170E-06,0.132
-1.160E-06,0.076
-1.150E-06,-0.012
-1.140E-06,-0.024
-1.130E-06,-0.020
-1.120E-06,0.008
-1.110E-06,0.036
-1.100E-06,0.092
-1.090E-06,0.132
-1.080E-06,0.140
-1.070E-06,0.112
-1.060E-06,0.088
-1.050E-06,0.064
-1.040E-06,0.056
-1.030E-06,0.060
-1.020E-06,0.076
-1.010E-06,0.076
-1.000E-06,0.096
-9.900E-07,0.092
-9.800E-07,0.108
-9.700E-07,0.060
-9.600E-07,0.108
-9.500E-07,-0.012
-9.400E-07,-0.104
-9.300E-07,-0.332
-9.200E-07,-0.392
-9.100E-07,-0.364
-9.000E-07,-0.300
-8.900E-07,-0.076
-8.800E-07,0.052
-8.700E-07,0.192
-8.600E-07,0.092
-8.500E-07,0.024
-8.400E-07,-0.172
-8.300E-07,-0.212
-8.200E-07,-0.172
-8.100E-07,-0.104
-8.000E-07,0.008
-7.900E-07,-0.004
-7.800E-07,0.076
-7.700E-07,0.104
-7.600E-07,0.012
-7.500E-07,-0.028
-7.400E-07,-0.036
-7.300E-07,-0.024
-7.200E-07,0.000
-7.100E-07,0.052
-7.000E-07,0.012
-6.900E-07,0.012
-6.800E-07,-0.076
-6.700E-07,-0.092
-6.600E-07,-0.056
-6.500E-07,-0.020
-6.400E-07,0.008
-6.300E-07,0.028
-6.200E-07,0.060
-6.100E-07,0.052
-6.000E-07,0.024
-5.900E-07,-0.020
-5.800E-07,-0.024
-5.700E-07,-0.032
-5.600E-07,0.020
-5.500E-07,0.060
-5.400E-07,0.092
-5.300E-07,0.076
-5.200E-07,0.036
-5.100E-07,0.044
-5.000E-07,0.056
-4.900E-07,0.068
-4.800E-07,0.072
-4.700E-07,0.088
-4.600E-07,0.080
-4.500E-07,0.092
-4.400E-07,0.088
-4.300E-07,0.088
-4.200E-07,0.116
-4.100E-07,0.124
-4.000E-07,0.132
-3.900E-07,0.120
-3.800E-07,0.144
-3.700E-07,0.144
-3.600E-07,0.164
-3.500E-07,0.156
-3.400E-07,0.164
-3.300E-07,0.180
-3.200E-07,0.172
-3.100E-07,0.172
-3.000E-07,0.144
-2.900E-07,0.180
-2.800E-07,0.148
-2.700E-07,0.176
-2.600E-07,0.152
-2.500E-07,0.124
-2.400E-07,0.112
-2.300E-07,0.120
-2.200E-07,0.104
-2.100E-07,0.072
-2.000E-07,0.012
-1.900E-07,-0.056
-1.800E-07,-0.048
-1.700E-07,-0.136
-1.600E-07,-0.140
-1.500E-07,-0.208
-1.400E-07,-0.172
-1.300E-07,-0.124
-1.200E-07,-0.216
-1.100E-07,-0.088
-1.000E-07,0.088
-9.000E-08,0.164
-8.000E-08,0.128
-7.000E-08,-0.044
-6.000E-08,-0.132
-5.000E-08,-0.284
-4.000E-08,-0.128
-3.000E-08,-0.036
-2.000E-08,0.064
-1.000E-08,0.236
0.000E+00,0.272
1.000E-08,0.312
2.000E-08,0.148
3.000E-08,0.072
4.000E-08,-0.132
5.000E-08,-0.132
6.000E-08,0.012
7.000E-08,0.192
8.000E-08,0.376
9.000E-08,0.356
1.000E-07,0.252
1.100E-07,0.100
1.200E-07,-0.012
1.300E-07,-0.072
1.400E-07,0.008
1.500E-07,0.160
1.600E-07,0.264
1.700E-07,0.288
1.800E-07,0.236
1.900E-07,0.132
2.000E-07,-0.004
2.100E-07,-0.012
2.200E-07,0.028
2.300E-07,0.132
2.400E-07,0.240
2.500E-07,0.308
2.600E-07,0.252
2.700E-07,0.160
2.800E-07,0.076
2.900E-07,0.036
3.000E-07,0.088
3.100E-07,0.164
3.200E-07,0.264
3.300E-07,0.304
3.400E-07,0.296
3.500E-07,0.216
3.600E-07,0.136
3.700E-07,0.068
3.800E-07,0.052
3.900E-07,0.060
4.000E-07,0.104
4.100E-07,0.160
4.200E-07,0.164
4.300E-07,0.124
4.400E-07,0.016
4.500E-07,-0.084
4.600E-07,-0.128
4.700E-07,-0.108
4.800E-07,-0.056
4.900E-07,0.136
5.000E-07,0.140
5.100E-07,0.184
5.200E-07,0.092
5.300E-07,0.032
5.400E-07,0.052
5.500E-07,0.140
5.600E-07,0.220
5.700E-07,0.252
5.800E-07,0.192
5.900E-07,0.204
6.000E-07,0.096
6.100E-07,0.084
6.200E-07,0.132
6.300E-07,0.176
6.400E-07,0.192
6.500E-07,0.200
6.600E-07,0.196
6.700E-07,0.160
6.800E-07,0.192
6.900E-07,0.184
7.000E-07,0.212
7.100E-07,0.204
7.200E-07,0.228
7.300E-07,0.216
7.400E-07,0.224
7.500E-07,0.212
7.600E-07,0.188
7.700E-07,0.184
7.800E-07,0.184
7.900E-07,0.200
8.000E-07,0.200
8.100E-07,0.220
8.200E-07,0.224
8.300E-07,0.220
8.400E-07,0.204
8.500E-07,0.196
8.600E-07,0.192
8.700E-07,0.188
8.800E-07,0.204
8.900E-07,0.212
9.000E-07,0.224
9.100E-07,0.212
9.200E-07,0.204
9.300E-07,0.196
9.400E-07,0.196
9.500E-07,0.192
9.600E-07,0.196
9.700E-07,0.204
9.800E-07,0.212
9.900E-07,0.216
1.000E-06,0.208
1.010E-06,0.208
1.020E-06,0.196
1.030E-06,0.192
1.040E-06,0.196
1.050E-06,0.204
1.060E-06,0.208
1.070E-06,0.220
1.080E-06,0.212
1.090E-06,0.204
1.100E-06,0.204
1.110E-06,0.196
1.120E-06,0.196
1.130E-06,0.196
1.140E-06,0.204
1.150E-06,0.204
1.160E-06,0.208
1.170E-06,0.208
1.180E-06,0.200
1.190E-06,0.192
1.200E-06,0.192
1.210E-06,0.196
1.220E-06,0.200
1.230E-06,0.204
1.240E-06,0.200
1.250E-06,0.200
1.260E-06,0.196
1.270E-06,0.196
1.280E-06,0.192
1.290E-06,0.196
1.300E-06,0.196
1.310E-06,0.192
1.320E-06,0.196
1.330E-06,0.200
1.340E-06,0.196
1.350E-06,0.192
1.360E-06,0.196
1.370E-06,0.192
1.380E-06,0.192
1.390E-06,0.192
1.400E-06,0.196
1.410E-06,0.200
1.420E-06,0.192
1.430E-06,0.192
1.440E-06,0.188
1.450E-06,0.192
1.460E-06,0.192
1.470E-06,0.188
1.480E-06,0.188
1.490E-06,0.192
1.500E-06,0.192
1.510E-06,0.188
1.520E-06,0.192
1.530E-06,0.192
1.540E-06,0.188
1.550E-06,0.188
1.560E-06,0.188
1.570E-06,0.184
1.580E-06,0.188
1.590E-06,0.192
1.600E-06,0.192
1.610E-06,0.188
1.620E-06,0.188
1.630E-06,0.184
1.640E-06,0.180
1.650E-06,0.188
1.660E-06,0.184
1.670E-06,0.188
1.680E-06,0.188
1.690E-06,0.188
1.700E-06,0.192
1.710E-06,0.184
1.720E-06,0.180
1.730E-06,0.176
1.740E-06,0.180
1.750E-06,0.172
1.760E-06,0.176
1.770E-06,0.180
1.780E-06,0.176
1.790E-06,0.176
1.800E-06,0.176
1.810E-06,0.180
1.820E-06,0.180
1.830E-06,0.176
1.840E-06,0.180
1.850E-06,0.180
1.860E-06,0.172
1.870E-06,0.172
1.880E-06,0.176
1.890E-06,0.180
1.900E-06,0.176
1.910E-06,0.176
1.920E-06,0.172
1.930E-06,0.168
1.940E-06,0.168
1.950E-06,0.168
1.960E-06,0.172
1.970E-06,0.168
1.980E-06,0.176
1.990E-06,0.172
2.000E-06,0.172
2.010E-06,0.172
2.020E-06,0.172
2.030E-06,0.168
2.040E-06,0.176
2.050E-06,0.176
2.060E-06,0.172
2.070E-06,0.176
2.080E-06,0.172
2.090E-06,0.172
2.100E-06,0.164
2.110E-06,0.172
2.120E-06,0.172
2.130E-06,0.172
2.140E-06,0.176
2.150E-06,0.176
2.160E-06,0.188
2.170E-06,0.196
2.180E-06,0.188
2.190E-06,0.184
2.200E-06,0.180
2.210E-06,0.164
2.220E-06,0.156
2.230E-06,0.156
2.240E-06,0.164
2.250E-06,0.172
2.260E-06,0.176
2.270E-06,0.172
2.280E-06,0.160
2.290E-06,0.156
2.300E-06,0.156
2.310E-06,0.152
2.320E-06,0.160
2.330E-06,0.164
2.340E-06,0.172
2.350E-06,0.172
2.360E-06,0.172
2.370E-06,0.156
2.380E-06,0.156
2.390E-06,0.148
2.400E-06,0.148
2.410E-06,0.152
2.420E-06,0.156
2.430E-06,0.164
2.440E-06,0.156
2.450E-06,0.160
2.460E-06,0.156
2.470E-06,0.152
2.480E-06,0.148
2.490E-06,0.152
2.500E-06,0.156
2.510E-06,0.160
2.520E-06,0.160
2.530E-06,0.152
2.540E-06,0.144
2.550E-06,0.140
2.560E-06,0.144
2.570E-06,0.148
2.580E-06,0.152
2.590E-06,0.160
2.600E-06,0.160
2.610E-06,0.148
2.620E-06,0.144
2.630E-06,0.148
2.640E-06,0.144
2.650E-06,0.144
2.660E-06,0.148
2.670E-06,0.148
2.680E-06,0.148
2.690E-06,0.148
2.700E-06,0.148
2.710E-06,0.136
2.720E-06,0.136
2.730E-06,0.136
2.740E-06,0.140
2.750E-06,0.140
2.760E-06,0.144
2.770E-06,0.140
2.780E-06,0.140
2.790E-06,0.136
2.800E-06,0.136
2.810E-06,0.136
2.820E-06,0.132
2.830E-06,0.136
2.840E-06,0.132
2.850E-06,0.132
2.860E-06,0.132
2.870E-06,0.128
2.880E-06,0.132
2.890E-06,0.128
2.900E-06,0.132
2.910E-06,0.132
2.920E-06,0.132
2.930E-06,0.136
2.940E-06,0.132
2.950E-06,0.132
2.960E-06,0.128
2.970E-06,0.128
2.980E-06,0.128
2.990E-06,0.128
3.000E-06,0.128
3.010E-06,0.128
3.020E-06,0.128
3.030E-06,0.124
3.040E-06,0.128
3.050E-06,0.132
3.060E-06,0.136
3.070E-06,0.132
3.080E-06,0.124
3.090E-06,0.124
3.100E-06,0.124
3.110E-06,0.124
3.120E-06,0.124
3.130E-06,0.128
3.140E-06,0.132
3.150E-06,0.132
3.160E-06,0.128
3.170E-06,0.120
3.180E-06,0.120
3.190E-06,0.112
3.200E-06,0.116
3.210E-06,0.116
3.220E-06,0.120
3.230E-06,0.124
3.240E-06,0.120
3.250E-06,0.120
3.260E-06,0.116
3.270E-06,0.116
3.280E-06,0.116
3.290E-06,0.120
3.300E-06,0.120
3.310E-06,0.116
3.320E-06,0.108
3.330E-06,0.112
3.340E-06,0.108
3.350E-06,0.112
3.360E-06,0.112
3.370E-06,0.108
3.380E-06,0.116
3.390E-06,0.112
3.400E-06,0.112
3.410E-06,0.108
3.420E-06,0.104
3.430E-06,0.100
3.440E-06,0.104
3.450E-06,0.108
3.460E-06,0.108
3.470E-06,0.108
3.480E-06,0.104
3.490E-06,0.100
3.500E-06,0.100
3.510E-06,0.100
3.520E-06,0.096
3.530E-06,0.104
3.540E-06,0.108
3.550E-06,0.108
3.560E-06,0.100
3.570E-06,0.096
3.580E-06,0.100
3.590E-06,0.096
3.600E-06,0.100
3.610E-06,0.104
3.620E-06,0.104
3.630E-06,0.100
3.640E-06,0.104
3.650E-06,0.104
3.660E-06,0.096
3.670E-06,0.100
3.680E-06,0.100
3.690E-06,0.096
3.700E-06,0.092
3.710E-06,0.100
3.720E-06,0.100
3.730E-06,0.092
3.740E-06,0.096
3.750E-06,0.100
3.760E-06,0.096
3.770E-06,0.092
3.780E-06,0.096
3.790E-06,0.092
3.800E-06,0.096
3.810E-06,0.096
3.820E-06,0.088
3.830E-06,0.088
3.840E-06,0.088
3.850E-06,0.092
3.860E-06,0.092
3.870E-06,0.088
3.880E-06,0.088
3.890E-06,0.096
3.900E-06,0.096
3.910E-06,0.088
3.920E-06,0.088
3.930E-06,0.080
3.940E-06,0.084
3.950E-06,0.084
3.960E-06,0.084
3.970E-06,0.092
3.980E-06,0.088
3.990E-06,0.088
4.000E-06,0.084
4.010E-06,0.076
4.020E-06,0.076
4.030E-06,0.080
4.040E-06,0.092
4.050E-06,0.092
4.060E-06,0.088
4.070E-06,0.088
4.080E-06,0.084
4.090E-06,0.088
4.100E-06,0.076
4.110E-06,0.076
4.120E-06,0.084
4.130E-06,0.088
4.140E-06,0.088
4.150E-06,0.092
4.160E-06,0.084
4.170E-06,0.084
4.180E-06,0.084
4.190E-06,0.080
4.200E-06,0.076
4.210E-06,0.076
4.220E-06,0.080
4.230E-06,0.080
4.240E-06,0.080
4.250E-06,0.080
4.260E-06,0.076
4.270E-06,0.076
4.280E-06,0.076
4.290E-06,0.072
4.300E-06,0.072
4.310E-06,0.072
4.320E-06,0.068
4.330E-06,0.072
4.340E-06,0.072
4.350E-06,0.072
4.360E-06,0.072
4.370E-06,0.068
4.380E-06,0.068
4.390E-06,0.068
4.400E-06,0.068
4.410E-06,0.068
4.420E-06,0.072
4.430E-06,0.072
4.440E-06,0.072
4.450E-06,0.072
4.460E-06,0.072
4.470E-06,0.064
4.480E-06,0.064
4.490E-06,0.064
4.500E-06,0.068
4.510E-06,0.060
4.520E-06,0.060
4.530E-06,0.060
4.540E-06,0.064
4.550E-06,0.064
4.560E-06,0.060
4.570E-06,0.064
4.580E-06,0.064
4.590E-06,0.064
4.600E-06,0.060
4.610E-06,0.056
4.620E-06,0.056
4.630E-06,0.056
4.640E-06,0.056
4.650E-06,0.060
4.660E-06,0.064
4.670E-06,0.060
4.680E-06,0.056
4.690E-06,0.056
4.700E-06,0.056
4.710E-06,0.056
4.720E-06,0.056
4.730E-06,0.060
4.740E-06,0.060
4.750E-06,0.056
4.760E-06,0.056
4.770E-06,0.056
4.780E-06,0.048
4.790E-06,0.052
4.800E-06,0.056
4.810E-06,0.052
4.820E-06,0.056
4.830E-06,0.056
4.840E-06,0.052
4.850E-06,0.048
4.860E-06,0.040
4.870E-06,0.044
4.880E-06,0.044
4.890E-06,0.048
4.900E-06,0.044
4.910E-06,0.052
4.920E-06,0.044
4.930E-06,0.044
4.940E-06,0.040
4.950E-06,0.044
4.960E-06,0.048
4.970E-06,0.048
4.980E-06,0.044
4.990E-06,0.048
5.000E-06,0.048
5.010E-06,0.044
5.020E-06,0.044
5.030E-06,0.040
5.040E-06,0.040
5.050E-06,0.040
5.060E-06,0.040
5.070E-06,0.044
5.080E-06,0.044
5.090E-06,0.040
5.100E-06,0.044
5.110E-06,0.044
5.120E-06,0.036
5.130E-06,0.040
5.140E-06,0.044
5.150E-06,0.044
5.160E-06,0.040
5.170E-06,0.044
5.180E-06,0.052
5.190E-06,0.044
5.200E-06,0.044
5.210E-06,0.040
5.220E-06,0.036
5.230E-06,0.040
5.240E-06,0.044
5.250E-06,0.048
5.260E-06,0.040
5.270E-06,0.040
5.280E-06,0.040
5.290E-06,0.036
5.300E-06,0.036
5.310E-06,0.036
5.320E-06,0.040
5.330E-06,0.044
5.340E-06,0.036
5.350E-06,0.032
5.360E-06,0.028
5.370E-06,0.036
5.380E-06,0.032
5.390E-06,0.036
5.400E-06,0.032
5.410E-06,0.032
5.420E-06,0.028
5.430E-06,0.028
5.440E-06,0.024
5.450E-06,0.028
5.460E-06,0.036
5.470E-06,0.036
5.480E-06,0.032
5.490E-06,0.032
5.500E-06,0.024
5.510E-06,0.020
5.520E-06,0.024
5.530E-06,0.024
5.540E-06,0.032
5.550E-06,0.036
5.560E-06,0.028
5.570E-06,0.032
5.580E-06,0.016
5.590E-06,0.016
5.600E-06,0.024
5.610E-06,0.020
5.620E-06,0.024
5.630E-06,0.028
5.640E-06,0.028
5.650E-06,0.024
5.660E-06,0.024
5.670E-06,0.024
5.680E-06,0.012
5.690E-06,0.024
5.700E-06,0.028
5.710E-06,0.028
5.720E-06,0.024
5.730E-06,0.028
5.740E-06,0.024
5.750E-06,0.020
5.760E-06,0.012
5.770E-06,0.020
5.780E-06,0.024
5.790E-06,0.024
5.800E-06,0.024
5.810E-06,0.020
5.820E-06,0.024
5.830E-06,0.020
5.840E-06,0.012
5.850E-06,0.016
5.860E-06,0.012
5.870E-06,0.024
5.880E-06,0.020
5.890E-06,0.020
5.900E-06,0.020
5.910E-06,0.020
5.920E-06,0.020
5.930E-06,0.016
5.940E-06,0.004
5.950E-06,0.012
5.960E-06,0.016
5.970E-06,0.020
5.980E-06,0.020
5.990E-06,0.016
6.000E-06,0.012
6.010E-06,0.012
6.020E-06,0.016
6.030E-06,0.008
6.040E-06,0.012
6.050E-06,0.020
6.060E-06,0.024
6.070E-06,0.020
6.080E-06,0.016
6.090E-06,0.008
6.100E-06,0.008
6.110E-06,0.008
6.120E-06,0.008
6.130E-06,0.016
6.140E-06,0.016
6.150E-06,0.016
6.160E-06,0.012
6.170E-06,0.016
6.180E-06,0.004
6.190E-06,0.004
6.200E-06,0.012
6.210E-06,0.008
6.220E-06,0.008
6.230E-06,0.012
6.240E-06,0.008
6.250E-06,0.008
6.260E-06,0.004
6.270E-06,0.004
6.280E-06,0.008
6.290E-06,0.008
6.300E-06,0.008
6.310E-06,0.008
6.320E-06,0.004
6.330E-06,0.008
6.340E-06,0.008
6.350E-06,0.008
6.360E-06,0.012
6.370E-06,0.008
6.380E-06,0.012
6.390E-06,0.012
6.400E-06,0.012
6.410E-06,0.004
6.420E-06,0.000
6.430E-06,0.000
6.440E-06,-0.004
6.450E-06,0.004
6.460E-06,0.000
6.470E-06,0.004
6.480E-06,0.008
6.490E-06,0.004
6.500E-06,0.000
6.510E-06,0.000
6.520E-06,-0.004
6.530E-06,0.004
6.540E-06,-0.004
6.550E-06,0.000
6.560E-06,-0.004
6.570E-06,0.008
6.580E-06,-0.004
6.590E-06,0.000
6.600E-06,-0.004
6.610E-06,0.000
6.620E-06,0.000
6.630E-06,0.000
6.640E-06,-0.004
6.650E-06,0.004
6.660E-06,0.004
6.670E-06,0.000
6.680E-06,-0.004
6.690E-06,-0.004
6.700E-06,0.004
6.710E-06,-0.008
6.720E-06,-0.008
6.730E-06,0.004
6.740E-06,0.004
6.750E-06,-0.008
6.760E-06,0.000
6.770E-06,-0.004
6.780E-06,-0.004
6.790E-06,-0.004
6.800E-06,-0.008
6.810E-06,0.000
6.820E-06,-0.004
6.830E-06,-0.004
6.840E-06,-0.008
6.850E-06,-0.008
6.860E-06,-0.004
6.870E-06,-0.008
6.880E-06,-0.004
6.890E-06,-0.008
6.900E-06,-0.004
6.910E-06,-0.004
6.920E-06,-0.012
6.930E-06,0.000
6.940E-06,-0.004
6.950E-06,-0.008
6.960E-06,-0.004
6.970E-06,-0.004
6.980E-06,-0.004
6.990E-06,-0.008
7.000E-06,-0.008
7.010E-06,-0.012
7.020E-06,-0.012
7.030E-06,-0.004
7.040E-06,-0.004
7.050E-06,-0.008
7.060E-06,-0.004
7.070E-06,-0.008
7.080E-06,-0.008
7.090E-06,-0.008
7.100E-06,-0.008
7.110E-06,-0.008
7.120E-06,-0.008
7.130E-06,-0.012
7.140E-06,-0.012
7.150E-06,-0.008
7.160E-06,-0.008
7.170E-06,-0.012
7.180E-06,-0.008
7.190E-06,-0.012
7.200E-06,-0.004
7.210E-06,-0.008
7.220E-06,-0.012
7.230E-06,-0.008
7.240E-06,-0.012
7.250E-06,-0.016
7.260E-06,-0.008
7.270E-06,-0.012
7.280E-06,-0.012
7.290E-06,-0.012
7.300E-06,-0.012
7.310E-06,-0.012
7.320E-06,-0.012
7.330E-06,-0.012
7.340E-06,-0.012
7.350E-06,-0.020
7.360E-06,-0.016
7.370E-06,-0.012
7.380E-06,-0.016
7.390E-06,-0.012
7.400E-06,-0.020
7.410E-06,-0.016
7.420E-06,-0.016
7.430E-06,-0.020
7.440E-06,-0.024
7.450E-06,-0.016
7.460E-06,-0.012
7.470E-06,-0.024
7.480E-06,-0.016
7.490E-06,-0.016
7.500E-06,-0.020
7.510E-06,-0.016
7.520E-06,-0.020
7.530E-06,-0.016
7.540E-06,-0.024
7.550E-06,-0.016
7.560E-06,-0.024
7.570E-06,-0.016
7.580E-06,-0.020
7.590E-06,-0.024
7.600E-06,-0.028
7.610E-06,-0.024
7.620E-06,-0.020
7.630E-06,-0.024
7.640E-06,-0.024
7.650E-06,-0.024
7.660E-06,-0.024
7.670E-06,-0.024
7.680E-06,-0.020
7.690E-06,-0.024
7.700E-06,-0.024
7.710E-06,-0.020
7.720E-06,-0.028
7.730E-06,-0.024
7.740E-06,-0.028
7.750E-06,-0.020
7.760E-06,-0.020
7.770E-06,-0.024
