mediciones/Mediciones filtradas (saque las feas)/6-10/38.8/WaveData55152.csv

#timebase=2000000(ps)
,#voltbase=100000(mv/100)
#size=4000
-4.250E-06,0.000
-4.240E-06,0.004
-4.230E-06,-0.004
-4.220E-06,0.008
-4.210E-06,0.000
-4.200E-06,0.000
-4.190E-06,0.004
-4.180E-06,0.004
-4.170E-06,0.000
-4.160E-06,0.004
-4.150E-06,0.000
-4.140E-06,0.004
-4.130E-06,0.008
-4.120E-06,0.012
-4.110E-06,-0.004
-4.100E-06,-0.004
-4.090E-06,0.008
-4.080E-06,0.004
-4.070E-06,0.004
-4.060E-06,0.004
-4.050E-06,0.004
-4.040E-06,0.004
-4.030E-06,0.004
-4.020E-06,0.000
-4.010E-06,0.000
-4.000E-06,0.008
-3.990E-06,0.000
-3.980E-06,0.000
-3.970E-06,0.004
-3.960E-06,0.008
-3.950E-06,0.008
-3.940E-06,0.000
-3.930E-06,0.000
-3.920E-06,0.000
-3.910E-06,0.008
-3.900E-06,0.000
-3.890E-06,0.000
-3.880E-06,0.000
-3.870E-06,0.004
-3.860E-06,0.000
-3.850E-06,0.000
-3.840E-06,0.004
-3.830E-06,0.004
-3.820E-06,0.000
-3.810E-06,0.012
-3.800E-06,0.008
-3.790E-06,0.000
-3.780E-06,0.004
-3.770E-06,0.004
-3.760E-06,0.000
-3.750E-06,0.012
-3.740E-06,0.008
-3.730E-06,0.012
-3.720E-06,0.012
-3.710E-06,0.008
-3.700E-06,0.000
-3.690E-06,-0.004
-3.680E-06,0.004
-3.670E-06,0.000
-3.660E-06,0.004
-3.650E-06,0.004
-3.640E-06,0.004
-3.630E-06,0.004
-3.620E-06,0.008
-3.610E-06,0.000
-3.600E-06,0.000
-3.590E-06,0.004
-3.580E-06,0.008
-3.570E-06,0.008
-3.560E-06,0.004
-3.550E-06,0.004
-3.540E-06,0.004
-3.530E-06,0.000
-3.520E-06,0.000
-3.510E-06,0.008
-3.500E-06,0.008
-3.490E-06,0.004
-3.480E-06,0.004
-3.470E-06,0.008
-3.460E-06,-0.004
-3.450E-06,0.000
-3.440E-06,0.004
-3.430E-06,0.004
-3.420E-06,0.000
-3.410E-06,0.008
-3.400E-06,0.008
-3.390E-06,0.008
-3.380E-06,0.004
-3.370E-06,0.008
-3.360E-06,0.000
-3.350E-06,0.008
-3.340E-06,0.004
-3.330E-06,0.012
-3.320E-06,0.004
-3.310E-06,0.008
-3.300E-06,0.000
-3.290E-06,0.024
-3.280E-06,0.016
-3.270E-06,-0.004
-3.260E-06,0.004
-3.250E-06,0.004
-3.240E-06,0.004
-3.230E-06,0.012
-3.220E-06,0.032
-3.210E-06,0.020
-3.200E-06,0.004
-3.190E-06,0.000
-3.180E-06,0.000
-3.170E-06,-0.004
-3.160E-06,0.000
-3.150E-06,0.000
-3.140E-06,0.024
-3.130E-06,0.032
-3.120E-06,0.028
-3.110E-06,0.000
-3.100E-06,-0.020
-3.090E-06,-0.032
-3.080E-06,-0.024
-3.070E-06,0.008
-3.060E-06,0.040
-3.050E-06,0.072
-3.040E-06,0.032
-3.030E-06,-0.012
-3.020E-06,-0.036
-3.010E-06,-0.036
-3.000E-06,-0.008
-2.990E-06,0.024
-2.980E-06,0.056
-2.970E-06,0.044
-2.960E-06,0.024
-2.950E-06,0.012
-2.940E-06,-0.004
-2.930E-06,0.008
-2.920E-06,0.016
-2.910E-06,0.004
-2.900E-06,0.028
-2.890E-06,-0.004
-2.880E-06,-0.024
-2.870E-06,-0.052
-2.860E-06,-0.028
-2.850E-06,-0.008
-2.840E-06,-0.012
-2.830E-06,0.012
-2.820E-06,0.020
-2.810E-06,0.024
-2.800E-06,0.016
-2.790E-06,0.008
-2.780E-06,0.016
-2.770E-06,0.016
-2.760E-06,-0.004
-2.750E-06,-0.020
-2.740E-06,0.000
-2.730E-06,0.012
-2.720E-06,0.020
-2.710E-06,0.024
-2.700E-06,0.000
-2.690E-06,-0.020
-2.680E-06,-0.016
-2.670E-06,-0.004
-2.660E-06,0.012
-2.650E-06,0.028
-2.640E-06,0.036
-2.630E-06,0.032
-2.620E-06,-0.004
-2.610E-06,0.000
-2.600E-06,-0.024
-2.590E-06,0.024
-2.580E-06,0.060
-2.570E-06,0.028
-2.560E-06,0.008
-2.550E-06,0.000
-2.540E-06,-0.020
-2.530E-06,-0.084
-2.520E-06,-0.068
-2.510E-06,-0.012
-2.500E-06,0.028
-2.490E-06,0.088
-2.480E-06,0.052
-2.470E-06,-0.032
-2.460E-06,-0.076
-2.450E-06,-0.040
-2.440E-06,0.012
-2.430E-06,0.012
-2.420E-06,0.040
-2.410E-06,0.016
-2.400E-06,0.016
-2.390E-06,-0.008
-2.380E-06,-0.052
-2.370E-06,-0.020
-2.360E-06,-0.012
-2.350E-06,0.012
-2.340E-06,-0.008
-2.330E-06,0.016
-2.320E-06,0.004
-2.310E-06,-0.004
-2.300E-06,-0.008
-2.290E-06,-0.004
-2.280E-06,0.008
-2.270E-06,0.016
-2.260E-06,0.008
-2.250E-06,-0.024
-2.240E-06,-0.008
-2.230E-06,-0.004
-2.220E-06,0.020
-2.210E-06,0.016
-2.200E-06,0.012
-2.190E-06,-0.008
-2.180E-06,-0.004
-2.170E-06,0.000
-2.160E-06,-0.004
-2.150E-06,0.016
-2.140E-06,0.016
-2.130E-06,0.020
-2.120E-06,0.000
-2.110E-06,0.000
-2.100E-06,-0.004
-2.090E-06,0.000
-2.080E-06,0.004
-2.070E-06,0.004
-2.060E-06,0.012
-2.050E-06,0.016
-2.040E-06,0.012
-2.030E-06,0.000
-2.020E-06,-0.004
-2.010E-06,-0.004
-2.000E-06,-0.004
-1.990E-06,0.004
-1.980E-06,0.012
-1.970E-06,0.024
-1.960E-06,0.028
-1.950E-06,0.032
-1.940E-06,0.016
-1.930E-06,0.012
-1.920E-06,0.008
-1.910E-06,-0.020
-1.900E-06,0.000
-1.890E-06,0.012
-1.880E-06,0.044
-1.870E-06,0.048
-1.860E-06,0.040
-1.850E-06,-0.020
-1.840E-06,-0.036
-1.830E-06,-0.036
-1.820E-06,-0.028
-1.810E-06,0.008
-1.800E-06,0.044
-1.790E-06,0.080
-1.780E-06,0.032
-1.770E-06,0.032
-1.760E-06,0.008
-1.750E-06,0.024
-1.740E-06,-0.008
-1.730E-06,-0.036
-1.720E-06,-0.040
-1.710E-06,-0.020
-1.700E-06,-0.032
-1.690E-06,-0.016
-1.680E-06,-0.004
-1.670E-06,-0.004
-1.660E-06,0.004
-1.650E-06,0.008
-1.640E-06,-0.008
-1.630E-06,-0.036
-1.620E-06,-0.020
-1.610E-06,-0.008
-1.600E-06,0.004
-1.590E-06,0.000
-1.580E-06,0.008
-1.570E-06,0.008
-1.560E-06,0.008
-1.550E-06,0.008
-1.540E-06,0.000
-1.530E-06,-0.004
-1.520E-06,-0.004
-1.510E-06,0.008
-1.500E-06,0.012
-1.490E-06,0.016
-1.480E-06,0.016
-1.470E-06,0.004
-1.460E-06,0.012
-1.450E-06,0.004
-1.440E-06,0.020
-1.430E-06,0.028
-1.420E-06,0.028
-1.410E-06,0.028
-1.400E-06,0.028
-1.390E-06,0.012
-1.380E-06,-0.004
-1.370E-06,0.032
-1.360E-06,0.048
-1.350E-06,0.032
-1.340E-06,0.024
-1.330E-06,-0.032
-1.320E-06,-0.036
-1.310E-06,-0.044
-1.300E-06,-0.048
-1.290E-06,0.036
-1.280E-06,0.052
-1.270E-06,0.024
-1.260E-06,-0.024
-1.250E-06,-0.024
-1.240E-06,-0.040
-1.230E-06,-0.016
-1.220E-06,0.028
-1.210E-06,0.024
-1.200E-06,0.032
-1.190E-06,0.012
-1.180E-06,-0.008
-1.170E-06,-0.032
-1.160E-06,-0.036
-1.150E-06,-0.012
-1.140E-06,0.004
-1.130E-06,0.036
-1.120E-06,0.040
-1.110E-06,0.028
-1.100E-06,0.000
-1.090E-06,-0.008
-1.080E-06,-0.020
-1.070E-06,-0.008
-1.060E-06,0.004
-1.050E-06,0.016
-1.040E-06,0.016
-1.030E-06,0.004
-1.020E-06,0.004
-1.010E-06,0.000
-1.000E-06,-0.004
-9.900E-07,-0.004
-9.800E-07,0.012
-9.700E-07,0.020
-9.600E-07,0.028
-9.500E-07,0.012
-9.400E-07,0.024
-9.300E-07,-0.012
-9.200E-07,0.008
-9.100E-07,0.012
-9.000E-07,0.032
-8.900E-07,0.048
-8.800E-07,0.060
-8.700E-07,0.068
-8.600E-07,0.060
-8.500E-07,0.036
-8.400E-07,0.008
-8.300E-07,-0.012
-8.200E-07,-0.024
-8.100E-07,-0.024
-8.000E-07,0.012
-7.900E-07,-0.004
-7.800E-07,0.012
-7.700E-07,-0.020
-7.600E-07,-0.032
-7.500E-07,-0.028
-7.400E-07,-0.040
-7.300E-07,-0.016
-7.200E-07,-0.016
-7.100E-07,0.004
-7.000E-07,0.012
-6.900E-07,0.008
-6.800E-07,-0.004
-6.700E-07,-0.012
-6.600E-07,-0.008
-6.500E-07,-0.004
-6.400E-07,0.004
-6.300E-07,0.016
-6.200E-07,0.012
-6.100E-07,0.000
-6.000E-07,0.016
-5.900E-07,0.008
-5.800E-07,-0.004
-5.700E-07,0.004
-5.600E-07,-0.004
-5.500E-07,0.012
-5.400E-07,0.028
-5.300E-07,0.024
-5.200E-07,0.024
-5.100E-07,0.016
-5.000E-07,0.008
-4.900E-07,-0.004
-4.800E-07,-0.004
-4.700E-07,0.016
-4.600E-07,0.036
-4.500E-07,0.044
-4.400E-07,0.044
-4.300E-07,0.036
-4.200E-07,0.024
-4.100E-07,0.028
-4.000E-07,0.044
-3.900E-07,0.044
-3.800E-07,0.048
-3.700E-07,0.044
-3.600E-07,0.036
-3.500E-07,0.028
-3.400E-07,0.032
-3.300E-07,0.032
-3.200E-07,0.024
-3.100E-07,0.012
-3.000E-07,0.024
-2.900E-07,0.048
-2.800E-07,0.056
-2.700E-07,0.040
-2.600E-07,0.028
-2.500E-07,-0.008
-2.400E-07,0.000
-2.300E-07,0.000
-2.200E-07,0.024
-2.100E-07,0.032
-2.000E-07,0.056
-1.900E-07,0.048
-1.800E-07,0.032
-1.700E-07,0.044
-1.600E-07,0.076
-1.500E-07,0.048
-1.400E-07,0.108
-1.300E-07,0.136
-1.200E-07,0.048
-1.100E-07,0.060
-1.000E-07,-0.044
-9.000E-08,-0.096
-8.000E-08,-0.072
-7.000E-08,0.244
-6.000E-08,0.148
-5.000E-08,-0.372
-4.000E-08,-0.508
-3.000E-08,-0.508
-2.000E-08,-0.348
-1.000E-08,0.208
0.000E+00,0.540
1.000E-08,0.540
2.000E-08,0.540
3.000E-08,0.164
4.000E-08,-0.512
5.000E-08,-0.512
6.000E-08,-0.512
7.000E-08,-0.024
8.000E-08,0.416
9.000E-08,0.540
1.000E-07,0.544
1.100E-07,0.144
1.200E-07,-0.300
1.300E-07,-0.512
1.400E-07,-0.468
1.500E-07,-0.204
1.600E-07,0.160
1.700E-07,0.276
1.800E-07,0.344
1.900E-07,0.252
2.000E-07,-0.012
2.100E-07,-0.204
2.200E-07,-0.304
2.300E-07,-0.240
2.400E-07,-0.084
2.500E-07,0.148
2.600E-07,0.244
2.700E-07,0.292
2.800E-07,0.128
2.900E-07,-0.052
3.000E-07,-0.220
3.100E-07,-0.272
3.200E-07,-0.148
3.300E-07,0.044
3.400E-07,0.228
3.500E-07,0.252
3.600E-07,0.172
3.700E-07,-0.016
3.800E-07,-0.136
3.900E-07,-0.192
4.000E-07,-0.124
4.100E-07,-0.004
4.200E-07,0.120
4.300E-07,0.164
4.400E-07,0.120
4.500E-07,0.044
4.600E-07,-0.060
4.700E-07,-0.100
4.800E-07,-0.072
4.900E-07,0.020
5.000E-07,0.108
5.100E-07,0.160
5.200E-07,0.148
5.300E-07,0.096
5.400E-07,0.056
5.500E-07,0.024
5.600E-07,0.040
5.700E-07,0.064
5.800E-07,0.112
5.900E-07,0.136
6.000E-07,0.092
6.100E-07,0.012
6.200E-07,-0.084
6.300E-07,-0.128
6.400E-07,-0.092
6.500E-07,-0.028
6.600E-07,0.056
6.700E-07,0.124
6.800E-07,0.104
6.900E-07,0.060
7.000E-07,0.024
7.100E-07,-0.004
7.200E-07,-0.024
7.300E-07,0.068
7.400E-07,0.092
7.500E-07,0.136
7.600E-07,0.096
7.700E-07,0.092
7.800E-07,-0.036
7.900E-07,-0.172
8.000E-07,-0.232
8.100E-07,-0.124
8.200E-07,0.088
8.300E-07,0.168
8.400E-07,0.160
8.500E-07,0.116
8.600E-07,0.024
8.700E-07,-0.108
8.800E-07,-0.172
8.900E-07,-0.136
9.000E-07,-0.004
9.100E-07,0.108
9.200E-07,0.156
9.300E-07,0.204
9.400E-07,0.144
9.500E-07,-0.004
9.600E-07,-0.052
9.700E-07,-0.244
9.800E-07,-0.308
9.900E-07,-0.264
1.000E-06,-0.052
1.010E-06,0.172
1.020E-06,0.104
1.030E-06,0.112
1.040E-06,0.092
1.050E-06,-0.124
1.060E-06,-0.068
1.070E-06,-0.208
1.080E-06,-0.152
1.090E-06,-0.040
1.100E-06,0.056
1.110E-06,0.056
1.120E-06,-0.044
1.130E-06,-0.040
1.140E-06,-0.100
1.150E-06,-0.036
1.160E-06,0.020
1.170E-06,0.064
1.180E-06,0.048
1.190E-06,0.044
1.200E-06,-0.012
1.210E-06,-0.044
1.220E-06,-0.044
1.230E-06,-0.044
1.240E-06,-0.004
1.250E-06,0.028
1.260E-06,0.044
1.270E-06,0.044
1.280E-06,0.032
1.290E-06,-0.016
1.300E-06,-0.040
1.310E-06,-0.048
1.320E-06,-0.016
1.330E-06,0.012
1.340E-06,0.032
1.350E-06,0.052
1.360E-06,0.040
1.370E-06,0.012
1.380E-06,-0.012
1.390E-06,-0.012
1.400E-06,-0.004
1.410E-06,0.024
1.420E-06,0.040
1.430E-06,0.060
1.440E-06,0.044
1.450E-06,0.028
1.460E-06,0.000
1.470E-06,-0.016
1.480E-06,0.004
1.490E-06,0.032
1.500E-06,0.060
1.510E-06,0.040
1.520E-06,0.032
1.530E-06,0.020
1.540E-06,0.032
1.550E-06,0.052
1.560E-06,0.092
1.570E-06,0.108
1.580E-06,0.112
1.590E-06,0.108
1.600E-06,0.108
1.610E-06,0.100
1.620E-06,0.108
1.630E-06,0.132
1.640E-06,0.140
1.650E-06,0.160
1.660E-06,0.176
1.670E-06,0.176
1.680E-06,0.152
1.690E-06,0.160
1.700E-06,0.136
1.710E-06,0.144
1.720E-06,0.144
1.730E-06,0.132
1.740E-06,0.136
1.750E-06,0.132
1.760E-06,0.124
1.770E-06,0.120
1.780E-06,0.116
1.790E-06,0.108
1.800E-06,0.128
1.810E-06,0.120
1.820E-06,0.144
1.830E-06,0.152
1.840E-06,0.136
1.850E-06,0.128
1.860E-06,0.104
1.870E-06,0.112
1.880E-06,0.092
1.890E-06,0.124
1.900E-06,0.128
1.910E-06,0.144
1.920E-06,0.164
1.930E-06,0.192
1.940E-06,0.220
1.950E-06,0.168
1.960E-06,0.136
1.970E-06,0.120
1.980E-06,0.080
1.990E-06,0.012
2.000E-06,-0.096
2.010E-06,-0.220
2.020E-06,-0.188
2.030E-06,-0.192
2.040E-06,0.128
2.050E-06,0.388
2.060E-06,0.484
2.070E-06,0.336
2.080E-06,0.096
2.090E-06,-0.256
2.100E-06,-0.408
2.110E-06,-0.508
2.120E-06,-0.368
2.130E-06,-0.076
2.140E-06,0.020
2.150E-06,0.208
2.160E-06,-0.144
2.170E-06,-0.164
2.180E-06,-0.508
2.190E-06,-0.312
2.200E-06,-0.268
2.210E-06,0.056
2.220E-06,0.032
2.230E-06,0.220
2.240E-06,0.316
2.250E-06,0.300
2.260E-06,0.088
2.270E-06,-0.164
2.280E-06,-0.140
2.290E-06,-0.160
2.300E-06,0.000
2.310E-06,0.072
2.320E-06,0.168
2.330E-06,0.076
2.340E-06,0.032
2.350E-06,-0.176
2.360E-06,-0.220
2.370E-06,-0.064
2.380E-06,-0.084
2.390E-06,0.100
2.400E-06,0.208
2.410E-06,0.260
2.420E-06,0.132
2.430E-06,0.032
2.440E-06,-0.024
2.450E-06,0.032
2.460E-06,0.148
2.470E-06,0.240
2.480E-06,0.320
2.490E-06,0.316
2.500E-06,0.264
2.510E-06,0.176
2.520E-06,0.160
2.530E-06,0.132
2.540E-06,0.176
2.550E-06,0.216
2.560E-06,0.280
2.570E-06,0.288
2.580E-06,0.248
2.590E-06,0.196
2.600E-06,0.156
2.610E-06,0.160
2.620E-06,0.184
2.630E-06,0.228
2.640E-06,0.256
2.650E-06,0.276
2.660E-06,0.240
2.670E-06,0.208
2.680E-06,0.172
2.690E-06,0.160
2.700E-06,0.176
2.710E-06,0.212
2.720E-06,0.244
2.730E-06,0.256
2.740E-06,0.260
2.750E-06,0.220
2.760E-06,0.192
2.770E-06,0.168
2.780E-06,0.180
2.790E-06,0.196
2.800E-06,0.220
2.810E-06,0.232
2.820E-06,0.232
2.830E-06,0.220
2.840E-06,0.192
2.850E-06,0.176
2.860E-06,0.176
2.870E-06,0.204
2.880E-06,0.208
2.890E-06,0.224
2.900E-06,0.228
2.910E-06,0.220
2.920E-06,0.196
2.930E-06,0.192
2.940E-06,0.192
2.950E-06,0.196
2.960E-06,0.216
2.970E-06,0.220
2.980E-06,0.228
2.990E-06,0.216
3.000E-06,0.204
3.010E-06,0.200
3.020E-06,0.196
3.030E-06,0.196
3.040E-06,0.204
3.050E-06,0.220
3.060E-06,0.228
3.070E-06,0.236
3.080E-06,0.224
3.090E-06,0.224
3.100E-06,0.220
3.110E-06,0.208
3.120E-06,0.204
3.130E-06,0.204
3.140E-06,0.212
3.150E-06,0.208
3.160E-06,0.212
3.170E-06,0.212
3.180E-06,0.204
3.190E-06,0.196
3.200E-06,0.192
3.210E-06,0.196
3.220E-06,0.196
3.230E-06,0.208
3.240E-06,0.208
3.250E-06,0.204
3.260E-06,0.200
3.270E-06,0.204
3.280E-06,0.200
3.290E-06,0.196
3.300E-06,0.196
3.310E-06,0.200
3.320E-06,0.200
3.330E-06,0.200
3.340E-06,0.208
3.350E-06,0.208
3.360E-06,0.200
3.370E-06,0.196
3.380E-06,0.200
3.390E-06,0.200
3.400E-06,0.196
3.410E-06,0.200
3.420E-06,0.200
3.430E-06,0.204
3.440E-06,0.204
3.450E-06,0.196
3.460E-06,0.196
3.470E-06,0.192
3.480E-06,0.188
3.490E-06,0.192
3.500E-06,0.196
3.510E-06,0.200
3.520E-06,0.196
3.530E-06,0.196
3.540E-06,0.196
3.550E-06,0.192
3.560E-06,0.188
3.570E-06,0.188
3.580E-06,0.188
3.590E-06,0.196
3.600E-06,0.192
3.610E-06,0.188
3.620E-06,0.188
3.630E-06,0.192
3.640E-06,0.196
3.650E-06,0.188
3.660E-06,0.188
3.670E-06,0.188
3.680E-06,0.176
3.690E-06,0.180
3.700E-06,0.184
3.710E-06,0.188
3.720E-06,0.188
3.730E-06,0.192
3.740E-06,0.188
3.750E-06,0.180
3.760E-06,0.172
3.770E-06,0.176
3.780E-06,0.184
3.790E-06,0.188
3.800E-06,0.184
3.810E-06,0.180
3.820E-06,0.176
3.830E-06,0.180
3.840E-06,0.176
3.850E-06,0.176
3.860E-06,0.184
3.870E-06,0.188
3.880E-06,0.184
3.890E-06,0.180
3.900E-06,0.180
3.910E-06,0.184
3.920E-06,0.176
3.930E-06,0.176
3.940E-06,0.184
3.950E-06,0.180
3.960E-06,0.184
3.970E-06,0.184
3.980E-06,0.180
3.990E-06,0.180
4.000E-06,0.172
4.010E-06,0.176
4.020E-06,0.176
4.030E-06,0.180
4.040E-06,0.176
4.050E-06,0.180
4.060E-06,0.180
4.070E-06,0.176
4.080E-06,0.180
4.090E-06,0.164
4.100E-06,0.164
4.110E-06,0.160
4.120E-06,0.164
4.130E-06,0.168
4.140E-06,0.176
4.150E-06,0.180
4.160E-06,0.176
4.170E-06,0.168
4.180E-06,0.164
4.190E-06,0.160
4.200E-06,0.156
4.210E-06,0.160
4.220E-06,0.164
4.230E-06,0.172
4.240E-06,0.172
4.250E-06,0.172
4.260E-06,0.164
4.270E-06,0.160
4.280E-06,0.164
4.290E-06,0.164
4.300E-06,0.160
4.310E-06,0.160
4.320E-06,0.160
4.330E-06,0.160
4.340E-06,0.164
4.350E-06,0.160
4.360E-06,0.152
4.370E-06,0.156
4.380E-06,0.156
4.390E-06,0.156
4.400E-06,0.160
4.410E-06,0.160
4.420E-06,0.152
4.430E-06,0.160
4.440E-06,0.160
4.450E-06,0.156
4.460E-06,0.156
4.470E-06,0.156
4.480E-06,0.156
4.490E-06,0.152
4.500E-06,0.152
4.510E-06,0.152
4.520E-06,0.160
4.530E-06,0.160
4.540E-06,0.152
4.550E-06,0.152
4.560E-06,0.156
4.570E-06,0.152
4.580E-06,0.148
4.590E-06,0.152
4.600E-06,0.148
4.610E-06,0.148
4.620E-06,0.148
4.630E-06,0.152
4.640E-06,0.148
4.650E-06,0.152
4.660E-06,0.148
4.670E-06,0.148
4.680E-06,0.148
4.690E-06,0.144
4.700E-06,0.144
4.710E-06,0.144
4.720E-06,0.144
4.730E-06,0.144
4.740E-06,0.140
4.750E-06,0.140
4.760E-06,0.136
4.770E-06,0.140
4.780E-06,0.140
4.790E-06,0.136
4.800E-06,0.136
4.810E-06,0.136
4.820E-06,0.140
4.830E-06,0.144
4.840E-06,0.136
4.850E-06,0.140
4.860E-06,0.144
4.870E-06,0.136
4.880E-06,0.140
4.890E-06,0.136
4.900E-06,0.136
4.910E-06,0.132
4.920E-06,0.132
4.930E-06,0.132
4.940E-06,0.132
4.950E-06,0.132
4.960E-06,0.132
4.970E-06,0.132
4.980E-06,0.136
4.990E-06,0.128
5.000E-06,0.132
5.010E-06,0.128
5.020E-06,0.128
5.030E-06,0.132
5.040E-06,0.128
5.050E-06,0.132
5.060E-06,0.132
5.070E-06,0.136
5.080E-06,0.128
5.090E-06,0.124
5.100E-06,0.124
5.110E-06,0.128
5.120E-06,0.128
5.130E-06,0.132
5.140E-06,0.132
5.150E-06,0.128
5.160E-06,0.124
5.170E-06,0.120
5.180E-06,0.120
5.190E-06,0.120
5.200E-06,0.128
5.210E-06,0.124
5.220E-06,0.124
5.230E-06,0.124
5.240E-06,0.108
5.250E-06,0.124
5.260E-06,0.120
5.270E-06,0.116
5.280E-06,0.116
5.290E-06,0.120
5.300E-06,0.116
5.310E-06,0.112
5.320E-06,0.108
5.330E-06,0.120
5.340E-06,0.120
5.350E-06,0.120
5.360E-06,0.124
5.370E-06,0.124
5.380E-06,0.120
5.390E-06,0.120
5.400E-06,0.116
5.410E-06,0.112
5.420E-06,0.112
5.430E-06,0.112
5.440E-06,0.120
5.450E-06,0.124
5.460E-06,0.112
5.470E-06,0.108
5.480E-06,0.108
5.490E-06,0.112
5.500E-06,0.108
5.510E-06,0.108
5.520E-06,0.112
5.530E-06,0.112
5.540E-06,0.124
5.550E-06,0.108
5.560E-06,0.108
5.570E-06,0.108
5.580E-06,0.108
5.590E-06,0.108
5.600E-06,0.104
5.610E-06,0.104
5.620E-06,0.108
5.630E-06,0.112
5.640E-06,0.112
5.650E-06,0.112
5.660E-06,0.108
5.670E-06,0.108
5.680E-06,0.104
5.690E-06,0.104
5.700E-06,0.108
5.710E-06,0.108
5.720E-06,0.104
5.730E-06,0.100
5.740E-06,0.100
5.750E-06,0.104
5.760E-06,0.108
5.770E-06,0.108
5.780E-06,0.108
5.790E-06,0.108
5.800E-06,0.096
5.810E-06,0.100
5.820E-06,0.096
5.830E-06,0.100
5.840E-06,0.096
5.850E-06,0.100
5.860E-06,0.096
5.870E-06,0.096
5.880E-06,0.092
5.890E-06,0.096
5.900E-06,0.100
5.910E-06,0.096
5.920E-06,0.096
5.930E-06,0.096
5.940E-06,0.092
5.950E-06,0.092
5.960E-06,0.096
5.970E-06,0.096
5.980E-06,0.092
5.990E-06,0.096
6.000E-06,0.088
6.010E-06,0.092
6.020E-06,0.092
6.030E-06,0.092
6.040E-06,0.092
6.050E-06,0.084
6.060E-06,0.092
6.070E-06,0.088
6.080E-06,0.084
6.090E-06,0.084
6.100E-06,0.088
6.110E-06,0.084
6.120E-06,0.088
6.130E-06,0.088
6.140E-06,0.084
6.150E-06,0.084
6.160E-06,0.080
6.170E-06,0.080
6.180E-06,0.084
6.190E-06,0.088
6.200E-06,0.080
6.210E-06,0.076
6.220E-06,0.076
6.230E-06,0.080
6.240E-06,0.076
6.250E-06,0.076
6.260E-06,0.084
6.270E-06,0.084
6.280E-06,0.076
6.290E-06,0.076
6.300E-06,0.076
6.310E-06,0.072
6.320E-06,0.068
6.330E-06,0.072
6.340E-06,0.076
6.350E-06,0.080
6.360E-06,0.076
6.370E-06,0.076
6.380E-06,0.076
6.390E-06,0.072
6.400E-06,0.064
6.410E-06,0.072
6.420E-06,0.072
6.430E-06,0.072
6.440E-06,0.072
6.450E-06,0.072
6.460E-06,0.076
6.470E-06,0.072
6.480E-06,0.064
6.490E-06,0.064
6.500E-06,0.068
6.510E-06,0.068
6.520E-06,0.064
6.530E-06,0.064
6.540E-06,0.072
6.550E-06,0.068
6.560E-06,0.068
6.570E-06,0.068
6.580E-06,0.064
6.590E-06,0.064
6.600E-06,0.064
6.610E-06,0.064
6.620E-06,0.060
6.630E-06,0.064
6.640E-06,0.072
6.650E-06,0.068
6.660E-06,0.060
6.670E-06,0.064
6.680E-06,0.060
6.690E-06,0.056
6.700E-06,0.060
6.710E-06,0.064
6.720E-06,0.060
6.730E-06,0.064
6.740E-06,0.060
6.750E-06,0.056
6.760E-06,0.056
6.770E-06,0.056
6.780E-06,0.060
6.790E-06,0.060
6.800E-06,0.060
6.810E-06,0.060
6.820E-06,0.064
6.830E-06,0.056
6.840E-06,0.056
6.850E-06,0.052
6.860E-06,0.056
6.870E-06,0.056
6.880E-06,0.056
6.890E-06,0.056
6.900E-06,0.060
6.910E-06,0.060
6.920E-06,0.060
6.930E-06,0.052
6.940E-06,0.052
6.950E-06,0.056
6.960E-06,0.056
6.970E-06,0.056
6.980E-06,0.056
6.990E-06,0.060
7.000E-06,0.056
7.010E-06,0.056
7.020E-06,0.056
7.030E-06,0.056
7.040E-06,0.056
7.050E-06,0.044
7.060E-06,0.052
7.070E-06,0.056
7.080E-06,0.052
7.090E-06,0.052
7.100E-06,0.052
7.110E-06,0.044
7.120E-06,0.044
7.130E-06,0.044
7.140E-06,0.048
7.150E-06,0.052
7.160E-06,0.044
7.170E-06,0.040
7.180E-06,0.044
7.190E-06,0.044
7.200E-06,0.040
7.210E-06,0.048
7.220E-06,0.052
7.230E-06,0.048
7.240E-06,0.048
7.250E-06,0.044
7.260E-06,0.036
7.270E-06,0.040
7.280E-06,0.036
7.290E-06,0.048
7.300E-06,0.048
7.310E-06,0.048
7.320E-06,0.048
7.330E-06,0.036
7.340E-06,0.032
7.350E-06,0.024
7.360E-06,0.032
7.370E-06,0.040
7.380E-06,0.048
7.390E-06,0.040
7.400E-06,0.044
7.410E-06,0.032
7.420E-06,0.028
7.430E-06,0.028
7.440E-06,0.024
7.450E-06,0.036
7.460E-06,0.040
7.470E-06,0.040
7.480E-06,0.040
7.490E-06,0.032
7.500E-06,0.032
7.510E-06,0.028
7.520E-06,0.028
7.530E-06,0.032
7.540E-06,0.032
7.550E-06,0.032
7.560E-06,0.036
7.570E-06,0.032
7.580E-06,0.036
7.590E-06,0.028
7.600E-06,0.028
7.610E-06,0.032
7.620E-06,0.028
7.630E-06,0.028
7.640E-06,0.032
7.650E-06,0.024
7.660E-06,0.028
7.670E-06,0.024
7.680E-06,0.020
7.690E-06,0.028
7.700E-06,0.024
7.710E-06,0.028
7.720E-06,0.024
7.730E-06,0.028
7.740E-06,0.028
7.750E-06,0.024
7.760E-06,0.020
7.770E-06,0.024
7.780E-06,0.024
7.790E-06,0.020
7.800E-06,0.020
