mediciones/5-27/-15/WaveData51144.csv

#timebase=2000000(ps)
,#voltbase=100000(mv/100)
#size=4000
-5.650E-06,0.004
-5.640E-06,0.008
-5.630E-06,0.004
-5.620E-06,-0.008
-5.610E-06,-0.008
-5.600E-06,0.000
-5.590E-06,0.000
-5.580E-06,0.008
-5.570E-06,0.008
-5.560E-06,0.004
-5.550E-06,-0.004
-5.540E-06,-0.004
-5.530E-06,0.000
-5.520E-06,0.012
-5.510E-06,0.016
-5.500E-06,0.012
-5.490E-06,-0.008
-5.480E-06,0.000
-5.470E-06,0.000
-5.460E-06,0.000
-5.450E-06,0.004
-5.440E-06,0.004
-5.430E-06,0.008
-5.420E-06,0.000
-5.410E-06,0.000
-5.400E-06,0.004
-5.390E-06,0.000
-5.380E-06,-0.004
-5.370E-06,0.008
-5.360E-06,0.004
-5.350E-06,0.004
-5.340E-06,0.008
-5.330E-06,0.004
-5.320E-06,0.000
-5.310E-06,0.004
-5.300E-06,0.000
-5.290E-06,0.000
-5.280E-06,0.000
-5.270E-06,0.004
-5.260E-06,0.008
-5.250E-06,0.008
-5.240E-06,0.004
-5.230E-06,-0.008
-5.220E-06,0.004
-5.210E-06,0.008
-5.200E-06,0.016
-5.190E-06,-0.004
-5.180E-06,0.004
-5.170E-06,0.000
-5.160E-06,-0.004
-5.150E-06,0.000
-5.140E-06,0.000
-5.130E-06,0.004
-5.120E-06,0.004
-5.110E-06,0.008
-5.100E-06,-0.004
-5.090E-06,0.000
-5.080E-06,0.000
-5.070E-06,0.004
-5.060E-06,0.008
-5.050E-06,0.008
-5.040E-06,0.004
-5.030E-06,0.004
-5.020E-06,0.000
-5.010E-06,0.000
-5.000E-06,-0.004
-4.990E-06,0.008
-4.980E-06,0.004
-4.970E-06,0.000
-4.960E-06,0.004
-4.950E-06,0.000
-4.940E-06,0.004
-4.930E-06,-0.004
-4.920E-06,0.004
-4.910E-06,0.004
-4.900E-06,0.008
-4.890E-06,0.004
-4.880E-06,0.004
-4.870E-06,0.004
-4.860E-06,0.000
-4.850E-06,0.004
-4.840E-06,0.004
-4.830E-06,0.008
-4.820E-06,0.004
-4.810E-06,-0.004
-4.800E-06,-0.004
-4.790E-06,0.008
-4.780E-06,-0.004
-4.770E-06,0.008
-4.760E-06,0.000
-4.750E-06,0.000
-4.740E-06,0.004
-4.730E-06,-0.004
-4.720E-06,0.004
-4.710E-06,0.004
-4.700E-06,0.008
-4.690E-06,0.008
-4.680E-06,0.008
-4.670E-06,0.004
-4.660E-06,0.004
-4.650E-06,0.000
-4.640E-06,0.004
-4.630E-06,0.012
-4.620E-06,0.004
-4.610E-06,0.000
-4.600E-06,-0.004
-4.590E-06,0.000
-4.580E-06,0.004
-4.570E-06,0.004
-4.560E-06,0.004
-4.550E-06,0.012
-4.540E-06,-0.004
-4.530E-06,0.004
-4.520E-06,0.000
-4.510E-06,0.000
-4.500E-06,0.004
-4.490E-06,0.008
-4.480E-06,0.004
-4.470E-06,0.000
-4.460E-06,0.000
-4.450E-06,0.000
-4.440E-06,0.004
-4.430E-06,0.004
-4.420E-06,0.008
-4.410E-06,0.000
-4.400E-06,0.004
-4.390E-06,0.004
-4.380E-06,0.000
-4.370E-06,0.008
-4.360E-06,0.008
-4.350E-06,0.008
-4.340E-06,0.008
-4.330E-06,0.008
-4.320E-06,0.004
-4.310E-06,0.004
-4.300E-06,0.008
-4.290E-06,0.012
-4.280E-06,0.012
-4.270E-06,0.004
-4.260E-06,0.000
-4.250E-06,0.000
-4.240E-06,0.004
-4.230E-06,-0.004
-4.220E-06,0.008
-4.210E-06,0.004
-4.200E-06,0.004
-4.190E-06,0.012
-4.180E-06,0.008
-4.170E-06,0.000
-4.160E-06,0.004
-4.150E-06,0.004
-4.140E-06,0.008
-4.130E-06,0.000
-4.120E-06,0.004
-4.110E-06,0.004
-4.100E-06,0.004
-4.090E-06,0.004
-4.080E-06,0.004
-4.070E-06,-0.004
-4.060E-06,0.004
-4.050E-06,0.004
-4.040E-06,0.008
-4.030E-06,0.004
-4.020E-06,0.008
-4.010E-06,0.004
-4.000E-06,-0.004
-3.990E-06,-0.004
-3.980E-06,0.008
-3.970E-06,0.008
-3.960E-06,0.004
-3.950E-06,0.008
-3.940E-06,0.008
-3.930E-06,0.000
-3.920E-06,-0.004
-3.910E-06,0.004
-3.900E-06,0.004
-3.890E-06,-0.004
-3.880E-06,0.016
-3.870E-06,0.000
-3.860E-06,-0.024
-3.850E-06,-0.012
-3.840E-06,-0.020
-3.830E-06,0.004
-3.820E-06,-0.004
-3.810E-06,0.020
-3.800E-06,0.012
-3.790E-06,0.012
-3.780E-06,0.008
-3.770E-06,0.008
-3.760E-06,0.000
-3.750E-06,0.008
-3.740E-06,0.012
-3.730E-06,0.000
-3.720E-06,0.012
-3.710E-06,0.008
-3.700E-06,0.012
-3.690E-06,0.004
-3.680E-06,0.008
-3.670E-06,0.008
-3.660E-06,0.012
-3.650E-06,0.012
-3.640E-06,0.016
-3.630E-06,0.012
-3.620E-06,0.016
-3.610E-06,0.012
-3.600E-06,0.012
-3.590E-06,0.024
-3.580E-06,0.028
-3.570E-06,0.044
-3.560E-06,0.020
-3.550E-06,-0.004
-3.540E-06,-0.040
-3.530E-06,-0.056
-3.520E-06,-0.024
-3.510E-06,0.004
-3.500E-06,0.024
-3.490E-06,0.024
-3.480E-06,0.016
-3.470E-06,0.000
-3.460E-06,-0.020
-3.450E-06,-0.020
-3.440E-06,-0.008
-3.430E-06,0.004
-3.420E-06,0.012
-3.410E-06,0.016
-3.400E-06,0.016
-3.390E-06,0.016
-3.380E-06,0.008
-3.370E-06,0.012
-3.360E-06,0.012
-3.350E-06,0.008
-3.340E-06,0.008
-3.330E-06,0.016
-3.320E-06,0.024
-3.310E-06,0.024
-3.300E-06,0.012
-3.290E-06,0.000
-3.280E-06,-0.016
-3.270E-06,-0.028
-3.260E-06,-0.020
-3.250E-06,-0.012
-3.240E-06,-0.004
-3.230E-06,0.004
-3.220E-06,0.000
-3.210E-06,-0.004
-3.200E-06,-0.008
-3.190E-06,-0.004
-3.180E-06,-0.004
-3.170E-06,0.000
-3.160E-06,0.008
-3.150E-06,0.012
-3.140E-06,0.008
-3.130E-06,0.004
-3.120E-06,0.008
-3.110E-06,0.012
-3.100E-06,0.020
-3.090E-06,0.024
-3.080E-06,0.020
-3.070E-06,0.028
-3.060E-06,0.024
-3.050E-06,0.016
-3.040E-06,0.020
-3.030E-06,0.020
-3.020E-06,0.016
-3.010E-06,0.024
-3.000E-06,0.028
-2.990E-06,0.020
-2.980E-06,0.024
-2.970E-06,0.032
-2.960E-06,0.032
-2.950E-06,0.032
-2.940E-06,0.020
-2.930E-06,0.008
-2.920E-06,0.008
-2.910E-06,0.012
-2.900E-06,0.016
-2.890E-06,0.008
-2.880E-06,0.004
-2.870E-06,0.008
-2.860E-06,0.008
-2.850E-06,0.024
-2.840E-06,0.036
-2.830E-06,0.040
-2.820E-06,0.036
-2.810E-06,0.036
-2.800E-06,0.036
-2.790E-06,0.036
-2.780E-06,0.044
-2.770E-06,0.032
-2.760E-06,-0.004
-2.750E-06,-0.040
-2.740E-06,-0.124
-2.730E-06,-0.148
-2.720E-06,-0.120
-2.710E-06,-0.012
-2.700E-06,0.068
-2.690E-06,0.112
-2.680E-06,0.092
-2.670E-06,0.016
-2.660E-06,-0.024
-2.650E-06,-0.048
-2.640E-06,-0.032
-2.630E-06,0.028
-2.620E-06,-0.004
-2.610E-06,-0.084
-2.600E-06,-0.124
-2.590E-06,-0.072
-2.580E-06,0.004
-2.570E-06,0.024
-2.560E-06,0.012
-2.550E-06,0.012
-2.540E-06,-0.016
-2.530E-06,-0.032
-2.520E-06,-0.008
-2.510E-06,-0.004
-2.500E-06,0.024
-2.490E-06,-0.008
-2.480E-06,-0.028
-2.470E-06,-0.016
-2.460E-06,-0.004
-2.450E-06,0.008
-2.440E-06,0.012
-2.430E-06,0.008
-2.420E-06,-0.008
-2.410E-06,-0.020
-2.400E-06,-0.020
-2.390E-06,0.000
-2.380E-06,0.016
-2.370E-06,0.028
-2.360E-06,0.016
-2.350E-06,0.000
-2.340E-06,0.000
-2.330E-06,-0.008
-2.320E-06,0.000
-2.310E-06,0.012
-2.300E-06,0.012
-2.290E-06,0.004
-2.280E-06,0.004
-2.270E-06,-0.008
-2.260E-06,-0.004
-2.250E-06,0.004
-2.240E-06,0.012
-2.230E-06,0.012
-2.220E-06,0.004
-2.210E-06,-0.004
-2.200E-06,-0.004
-2.190E-06,0.000
-2.180E-06,0.008
-2.170E-06,0.012
-2.160E-06,0.012
-2.150E-06,0.004
-2.140E-06,0.000
-2.130E-06,0.000
-2.120E-06,0.000
-2.110E-06,0.008
-2.100E-06,0.012
-2.090E-06,0.012
-2.080E-06,0.008
-2.070E-06,0.008
-2.060E-06,0.008
-2.050E-06,0.008
-2.040E-06,0.008
-2.030E-06,0.008
-2.020E-06,0.008
-2.010E-06,0.008
-2.000E-06,0.012
-1.990E-06,0.016
-1.980E-06,0.012
-1.970E-06,0.020
-1.960E-06,0.024
-1.950E-06,0.012
-1.940E-06,0.004
-1.930E-06,0.008
-1.920E-06,0.008
-1.910E-06,0.012
-1.900E-06,0.020
-1.890E-06,0.016
-1.880E-06,0.016
-1.870E-06,0.016
-1.860E-06,0.016
-1.850E-06,0.024
-1.840E-06,0.020
-1.830E-06,0.024
-1.820E-06,0.020
-1.810E-06,0.008
-1.800E-06,-0.004
-1.790E-06,-0.004
-1.780E-06,0.004
-1.770E-06,0.008
-1.760E-06,0.028
-1.750E-06,0.036
-1.740E-06,0.024
-1.730E-06,0.012
-1.720E-06,-0.008
-1.710E-06,-0.012
-1.700E-06,-0.008
-1.690E-06,0.008
-1.680E-06,0.012
-1.670E-06,0.008
-1.660E-06,0.020
-1.650E-06,0.032
-1.640E-06,0.048
-1.630E-06,0.056
-1.620E-06,0.072
-1.610E-06,0.080
-1.600E-06,0.096
-1.590E-06,0.096
-1.580E-06,0.072
-1.570E-06,0.052
-1.560E-06,-0.024
-1.550E-06,-0.024
-1.540E-06,-0.008
-1.530E-06,0.064
-1.520E-06,0.108
-1.510E-06,0.092
-1.500E-06,-0.032
-1.490E-06,-0.204
-1.480E-06,-0.332
-1.470E-06,-0.368
-1.460E-06,-0.208
-1.450E-06,0.008
-1.440E-06,0.172
-1.430E-06,0.188
-1.420E-06,0.112
-1.410E-06,-0.012
-1.400E-06,-0.120
-1.390E-06,-0.124
-1.380E-06,-0.068
-1.370E-06,0.024
-1.360E-06,0.064
-1.350E-06,0.072
-1.340E-06,0.028
-1.330E-06,0.008
-1.320E-06,0.000
-1.310E-06,0.020
-1.300E-06,0.044
-1.290E-06,0.088
-1.280E-06,0.068
-1.270E-06,0.060
-1.260E-06,-0.040
-1.250E-06,-0.152
-1.240E-06,-0.172
-1.230E-06,-0.168
-1.220E-06,-0.064
-1.210E-06,0.048
-1.200E-06,0.112
-1.190E-06,0.092
-1.180E-06,0.024
-1.170E-06,-0.032
-1.160E-06,-0.084
-1.150E-06,-0.068
-1.140E-06,-0.004
-1.130E-06,0.036
-1.120E-06,0.056
-1.110E-06,0.044
-1.100E-06,0.008
-1.090E-06,-0.008
-1.080E-06,-0.016
-1.070E-06,0.008
-1.060E-06,0.028
-1.050E-06,0.052
-1.040E-06,0.052
-1.030E-06,0.028
-1.020E-06,0.004
-1.010E-06,-0.020
-1.000E-06,-0.012
-9.900E-07,0.000
-9.800E-07,-0.008
-9.700E-07,-0.012
-9.600E-07,-0.016
-9.500E-07,-0.008
-9.400E-07,-0.012
-9.300E-07,-0.004
-9.200E-07,0.004
-9.100E-07,0.004
-9.000E-07,0.004
-8.900E-07,0.008
-8.800E-07,0.012
-8.700E-07,0.004
-8.600E-07,-0.004
-8.500E-07,-0.004
-8.400E-07,-0.004
-8.300E-07,0.004
-8.200E-07,0.012
-8.100E-07,0.012
-8.000E-07,0.008
-7.900E-07,0.004
-7.800E-07,-0.008
-7.700E-07,-0.008
-7.600E-07,-0.008
-7.500E-07,0.000
-7.400E-07,0.008
-7.300E-07,0.012
-7.200E-07,0.012
-7.100E-07,0.008
-7.000E-07,0.008
-6.900E-07,0.008
-6.800E-07,0.012
-6.700E-07,0.008
-6.600E-07,0.012
-6.500E-07,0.016
-6.400E-07,0.020
-6.300E-07,0.024
-6.200E-07,0.024
-6.100E-07,0.024
-6.000E-07,0.016
-5.900E-07,0.016
-5.800E-07,0.024
-5.700E-07,0.020
-5.600E-07,0.016
-5.500E-07,0.024
-5.400E-07,0.028
-5.300E-07,0.028
-5.200E-07,0.028
-5.100E-07,0.032
-5.000E-07,0.036
-4.900E-07,0.032
-4.800E-07,0.036
-4.700E-07,0.036
-4.600E-07,0.040
-4.500E-07,0.052
-4.400E-07,0.044
-4.300E-07,0.036
-4.200E-07,0.036
-4.100E-07,0.024
-4.000E-07,0.020
-3.900E-07,0.024
-3.800E-07,0.024
-3.700E-07,0.036
-3.600E-07,0.048
-3.500E-07,0.056
-3.400E-07,0.076
-3.300E-07,0.088
-3.200E-07,0.104
-3.100E-07,0.112
-3.000E-07,0.120
-2.900E-07,0.112
-2.800E-07,0.092
-2.700E-07,0.072
-2.600E-07,0.052
-2.500E-07,0.008
-2.400E-07,-0.040
-2.300E-07,-0.064
-2.200E-07,-0.088
-2.100E-07,-0.068
-2.000E-07,-0.028
-1.900E-07,-0.004
-1.800E-07,0.012
-1.700E-07,-0.012
-1.600E-07,-0.012
-1.500E-07,-0.028
-1.400E-07,-0.024
-1.300E-07,-0.004
-1.200E-07,0.056
-1.100E-07,0.124
-1.000E-07,0.128
-9.000E-08,0.064
-8.000E-08,0.004
-7.000E-08,-0.096
-6.000E-08,-0.176
-5.000E-08,-0.360
-4.000E-08,-0.392
-3.000E-08,-0.240
-2.000E-08,-0.012
-1.000E-08,0.264
0.000E+00,0.352
1.000E-08,0.296
2.000E-08,0.140
3.000E-08,-0.040
4.000E-08,-0.116
5.000E-08,-0.288
6.000E-08,-0.460
7.000E-08,-0.460
8.000E-08,-0.272
9.000E-08,0.000
1.000E-07,0.240
1.100E-07,0.340
1.200E-07,0.240
1.300E-07,0.004
1.400E-07,-0.164
1.500E-07,-0.236
1.600E-07,-0.188
1.700E-07,0.028
1.800E-07,0.148
1.900E-07,0.152
2.000E-07,0.088
2.100E-07,-0.040
2.200E-07,-0.104
2.300E-07,-0.088
2.400E-07,-0.028
2.500E-07,0.032
2.600E-07,0.068
2.700E-07,0.056
2.800E-07,0.012
2.900E-07,-0.028
3.000E-07,-0.032
3.100E-07,-0.016
3.200E-07,0.016
3.300E-07,0.024
3.400E-07,0.020
3.500E-07,0.000
3.600E-07,-0.020
3.700E-07,-0.028
3.800E-07,-0.008
3.900E-07,0.008
4.000E-07,0.040
4.100E-07,0.056
4.200E-07,0.052
4.300E-07,0.044
4.400E-07,0.024
4.500E-07,0.016
4.600E-07,0.028
4.700E-07,0.048
4.800E-07,0.084
4.900E-07,0.112
5.000E-07,0.112
5.100E-07,0.108
5.200E-07,0.028
5.300E-07,-0.036
5.400E-07,-0.084
5.500E-07,-0.088
5.600E-07,-0.060
5.700E-07,-0.036
5.800E-07,0.032
5.900E-07,0.056
6.000E-07,0.052
6.100E-07,0.008
6.200E-07,-0.024
6.300E-07,-0.032
6.400E-07,-0.008
6.500E-07,0.012
6.600E-07,0.028
6.700E-07,0.032
6.800E-07,0.028
6.900E-07,0.028
7.000E-07,0.024
7.100E-07,0.032
7.200E-07,0.040
7.300E-07,0.048
7.400E-07,0.044
7.500E-07,0.044
7.600E-07,-0.008
7.700E-07,-0.092
7.800E-07,-0.132
7.900E-07,-0.124
8.000E-07,-0.072
8.100E-07,0.024
8.200E-07,0.076
8.300E-07,0.092
8.400E-07,0.028
8.500E-07,-0.036
8.600E-07,-0.072
8.700E-07,-0.068
8.800E-07,-0.028
8.900E-07,0.016
9.000E-07,0.032
9.100E-07,0.028
9.200E-07,-0.008
9.300E-07,-0.072
9.400E-07,-0.052
9.500E-07,-0.056
9.600E-07,-0.020
9.700E-07,0.016
9.800E-07,0.004
9.900E-07,0.000
1.000E-06,-0.024
1.010E-06,-0.020
1.020E-06,-0.016
1.030E-06,0.008
1.040E-06,0.028
1.050E-06,0.032
1.060E-06,0.008
1.070E-06,-0.020
1.080E-06,-0.040
1.090E-06,-0.020
1.100E-06,0.012
1.110E-06,0.036
1.120E-06,0.052
1.130E-06,0.044
1.140E-06,0.020
1.150E-06,0.008
1.160E-06,0.008
1.170E-06,0.024
1.180E-06,0.052
1.190E-06,0.064
1.200E-06,0.080
1.210E-06,0.068
1.220E-06,0.080
1.230E-06,0.044
1.240E-06,0.008
1.250E-06,-0.072
1.260E-06,-0.132
1.270E-06,-0.116
1.280E-06,-0.036
1.290E-06,0.052
1.300E-06,0.108
1.310E-06,0.088
1.320E-06,0.024
1.330E-06,-0.048
1.340E-06,-0.088
1.350E-06,-0.072
1.360E-06,-0.012
1.370E-06,0.052
1.380E-06,0.076
1.390E-06,0.068
1.400E-06,0.044
1.410E-06,0.028
1.420E-06,0.020
1.430E-06,0.020
1.440E-06,0.028
1.450E-06,0.040
1.460E-06,0.040
1.470E-06,0.024
1.480E-06,0.024
1.490E-06,0.004
1.500E-06,-0.016
1.510E-06,-0.028
1.520E-06,-0.052
1.530E-06,-0.072
1.540E-06,-0.084
1.550E-06,-0.068
1.560E-06,-0.036
1.570E-06,-0.012
1.580E-06,-0.012
1.590E-06,-0.016
1.600E-06,-0.024
1.610E-06,-0.008
1.620E-06,-0.024
1.630E-06,-0.024
1.640E-06,-0.008
1.650E-06,0.008
1.660E-06,0.012
1.670E-06,0.004
1.680E-06,0.000
1.690E-06,0.004
1.700E-06,0.012
1.710E-06,-0.004
1.720E-06,0.008
1.730E-06,0.012
1.740E-06,0.012
1.750E-06,0.016
1.760E-06,0.012
1.770E-06,-0.004
1.780E-06,-0.004
1.790E-06,0.000
1.800E-06,0.004
1.810E-06,0.012
1.820E-06,0.020
1.830E-06,0.008
1.840E-06,0.012
1.850E-06,0.020
1.860E-06,0.016
1.870E-06,0.024
1.880E-06,0.024
1.890E-06,0.020
1.900E-06,0.028
1.910E-06,0.032
1.920E-06,0.048
1.930E-06,0.060
1.940E-06,0.064
1.950E-06,0.072
1.960E-06,0.076
1.970E-06,0.076
1.980E-06,0.068
1.990E-06,0.040
2.000E-06,0.012
2.010E-06,0.008
2.020E-06,0.004
2.030E-06,0.004
2.040E-06,-0.012
2.050E-06,-0.032
2.060E-06,-0.052
2.070E-06,-0.044
2.080E-06,-0.052
2.090E-06,-0.056
2.100E-06,-0.040
2.110E-06,-0.024
2.120E-06,-0.008
2.130E-06,-0.028
2.140E-06,-0.040
2.150E-06,-0.040
2.160E-06,-0.020
2.170E-06,-0.008
2.180E-06,0.008
2.190E-06,0.016
2.200E-06,0.004
2.210E-06,-0.004
2.220E-06,-0.032
2.230E-06,-0.032
2.240E-06,-0.016
2.250E-06,0.004
2.260E-06,0.020
2.270E-06,0.032
2.280E-06,0.028
2.290E-06,0.020
2.300E-06,0.012
2.310E-06,0.004
2.320E-06,-0.008
2.330E-06,-0.008
2.340E-06,0.004
2.350E-06,0.008
2.360E-06,0.016
2.370E-06,0.012
2.380E-06,0.016
2.390E-06,0.004
2.400E-06,0.012
2.410E-06,0.012
2.420E-06,0.012
2.430E-06,0.024
2.440E-06,0.024
2.450E-06,0.028
2.460E-06,0.028
2.470E-06,0.024
2.480E-06,0.024
2.490E-06,0.032
2.500E-06,0.048
2.510E-06,0.060
2.520E-06,0.068
2.530E-06,0.060
2.540E-06,0.044
2.550E-06,0.016
2.560E-06,0.000
2.570E-06,0.008
2.580E-06,0.024
2.590E-06,0.052
2.600E-06,0.072
2.610E-06,0.072
2.620E-06,0.072
2.630E-06,0.056
2.640E-06,0.032
2.650E-06,0.020
2.660E-06,0.028
2.670E-06,0.028
2.680E-06,0.040
2.690E-06,0.040
2.700E-06,0.028
2.710E-06,-0.008
2.720E-06,-0.032
2.730E-06,-0.044
2.740E-06,-0.028
2.750E-06,0.012
2.760E-06,0.040
2.770E-06,0.052
2.780E-06,0.072
2.790E-06,0.100
2.800E-06,0.096
2.810E-06,0.068
2.820E-06,-0.064
2.830E-06,-0.208
2.840E-06,-0.296
2.850E-06,-0.264
2.860E-06,-0.168
2.870E-06,0.012
2.880E-06,0.092
2.890E-06,0.096
2.900E-06,0.056
2.910E-06,-0.044
2.920E-06,-0.104
2.930E-06,-0.108
2.940E-06,-0.056
2.950E-06,0.008
2.960E-06,0.036
2.970E-06,0.020
2.980E-06,0.012
2.990E-06,-0.008
3.000E-06,-0.004
3.010E-06,0.004
3.020E-06,0.028
3.030E-06,0.056
3.040E-06,0.068
3.050E-06,0.068
3.060E-06,0.068
3.070E-06,0.088
3.080E-06,0.092
3.090E-06,0.092
3.100E-06,0.072
3.110E-06,0.028
3.120E-06,0.004
3.130E-06,-0.024
3.140E-06,-0.040
3.150E-06,-0.048
3.160E-06,-0.048
3.170E-06,-0.040
3.180E-06,-0.016
3.190E-06,-0.020
3.200E-06,-0.064
3.210E-06,-0.036
3.220E-06,-0.088
3.230E-06,-0.156
3.240E-06,-0.168
3.250E-06,-0.076
3.260E-06,0.012
3.270E-06,0.024
3.280E-06,0.028
3.290E-06,-0.004
3.300E-06,-0.032
3.310E-06,-0.040
3.320E-06,-0.036
3.330E-06,0.000
3.340E-06,0.024
3.350E-06,0.024
3.360E-06,0.004
3.370E-06,-0.008
3.380E-06,-0.016
3.390E-06,-0.008
3.400E-06,0.004
3.410E-06,0.024
3.420E-06,0.032
3.430E-06,0.036
3.440E-06,0.020
3.450E-06,0.020
3.460E-06,0.008
3.470E-06,0.016
3.480E-06,0.028
3.490E-06,0.036
3.500E-06,0.084
3.510E-06,0.092
3.520E-06,0.108
3.530E-06,0.076
3.540E-06,0.048
3.550E-06,-0.008
3.560E-06,-0.052
3.570E-06,-0.060
3.580E-06,-0.056
3.590E-06,-0.024
3.600E-06,-0.008
3.610E-06,-0.024
3.620E-06,-0.028
3.630E-06,-0.036
3.640E-06,-0.040
3.650E-06,-0.012
3.660E-06,0.028
3.670E-06,0.068
3.680E-06,0.072
3.690E-06,0.032
3.700E-06,0.004
3.710E-06,-0.028
3.720E-06,-0.020
3.730E-06,0.004
3.740E-06,0.036
3.750E-06,0.056
3.760E-06,0.044
3.770E-06,0.024
3.780E-06,0.004
3.790E-06,-0.004
3.800E-06,0.008
3.810E-06,0.040
3.820E-06,0.060
3.830E-06,0.064
3.840E-06,0.064
3.850E-06,0.048
3.860E-06,0.016
3.870E-06,-0.004
3.880E-06,-0.008
3.890E-06,0.004
3.900E-06,0.012
3.910E-06,0.024
3.920E-06,0.028
3.930E-06,0.032
3.940E-06,0.040
3.950E-06,0.052
3.960E-06,0.076
3.970E-06,0.088
3.980E-06,0.100
3.990E-06,0.100
4.000E-06,0.088
4.010E-06,0.040
4.020E-06,0.004
4.030E-06,-0.036
4.040E-06,-0.064
4.050E-06,-0.068
4.060E-06,-0.052
4.070E-06,-0.040
4.080E-06,-0.036
4.090E-06,-0.072
4.100E-06,-0.084
4.110E-06,-0.088
4.120E-06,-0.072
4.130E-06,-0.056
4.140E-06,-0.028
4.150E-06,0.000
4.160E-06,0.008
4.170E-06,0.020
4.180E-06,-0.008
4.190E-06,0.004
4.200E-06,0.016
4.210E-06,0.024
4.220E-06,0.036
4.230E-06,0.060
4.240E-06,0.076
4.250E-06,0.080
4.260E-06,0.072
4.270E-06,0.060
4.280E-06,0.060
4.290E-06,0.064
4.300E-06,0.092
4.310E-06,0.112
4.320E-06,0.128
4.330E-06,0.120
4.340E-06,0.100
4.350E-06,0.088
4.360E-06,0.056
4.370E-06,0.056
4.380E-06,0.044
4.390E-06,0.024
4.400E-06,0.004
4.410E-06,-0.036
4.420E-06,-0.092
4.430E-06,-0.148
4.440E-06,-0.160
4.450E-06,-0.140
4.460E-06,-0.076
4.470E-06,-0.020
4.480E-06,0.020
4.490E-06,0.044
4.500E-06,0.028
4.510E-06,-0.012
4.520E-06,-0.068
4.530E-06,-0.096
4.540E-06,-0.080
4.550E-06,-0.032
4.560E-06,0.032
4.570E-06,0.064
4.580E-06,0.072
4.590E-06,0.064
4.600E-06,0.036
4.610E-06,0.028
4.620E-06,0.020
4.630E-06,0.060
4.640E-06,0.100
4.650E-06,0.144
4.660E-06,0.136
4.670E-06,0.112
4.680E-06,0.052
4.690E-06,-0.020
4.700E-06,-0.052
4.710E-06,-0.044
4.720E-06,0.004
4.730E-06,0.044
4.740E-06,0.076
4.750E-06,0.060
4.760E-06,-0.020
4.770E-06,-0.088
4.780E-06,-0.168
4.790E-06,-0.164
4.800E-06,-0.108
4.810E-06,-0.048
4.820E-06,-0.088
4.830E-06,-0.120
4.840E-06,-0.136
4.850E-06,-0.112
4.860E-06,-0.068
4.870E-06,0.008
4.880E-06,0.060
4.890E-06,0.088
4.900E-06,0.048
4.910E-06,-0.004
4.920E-06,-0.056
4.930E-06,-0.024
4.940E-06,0.004
4.950E-06,0.048
4.960E-06,0.072
4.970E-06,0.088
4.980E-06,0.108
4.990E-06,0.096
5.000E-06,0.108
5.010E-06,0.120
5.020E-06,0.132
5.030E-06,0.144
5.040E-06,0.128
5.050E-06,0.116
5.060E-06,0.084
5.070E-06,0.072
5.080E-06,0.072
5.090E-06,0.060
5.100E-06,0.056
5.110E-06,0.032
5.120E-06,0.016
5.130E-06,0.008
5.140E-06,0.016
5.150E-06,0.032
5.160E-06,0.044
5.170E-06,0.052
5.180E-06,0.056
5.190E-06,0.064
5.200E-06,0.076
5.210E-06,0.108
5.220E-06,0.132
5.230E-06,0.140
5.240E-06,0.144
5.250E-06,0.124
5.260E-06,0.096
5.270E-06,0.064
5.280E-06,0.028
5.290E-06,0.028
5.300E-06,0.032
5.310E-06,0.032
5.320E-06,0.044
5.330E-06,0.040
5.340E-06,0.052
5.350E-06,0.060
5.360E-06,0.068
5.370E-06,0.088
5.380E-06,0.100
5.390E-06,0.124
5.400E-06,0.140
5.410E-06,0.136
5.420E-06,0.144
5.430E-06,0.108
5.440E-06,0.060
5.450E-06,0.024
5.460E-06,0.032
5.470E-06,0.092
5.480E-06,0.164
5.490E-06,0.208
5.500E-06,0.196
5.510E-06,0.120
5.520E-06,-0.012
5.530E-06,-0.156
5.540E-06,-0.220
5.550E-06,-0.140
5.560E-06,0.044
5.570E-06,0.224
5.580E-06,0.268
5.590E-06,0.160
5.600E-06,-0.040
5.610E-06,-0.188
5.620E-06,-0.212
5.630E-06,-0.100
5.640E-06,0.080
5.650E-06,0.264
5.660E-06,0.324
5.670E-06,0.268
5.680E-06,0.120
5.690E-06,-0.064
5.700E-06,-0.260
5.710E-06,-0.388
5.720E-06,-0.496
5.730E-06,-0.508
5.740E-06,-0.512
5.750E-06,-0.512
5.760E-06,-0.508
5.770E-06,-0.352
5.780E-06,-0.176
5.790E-06,0.012
5.800E-06,0.128
5.810E-06,0.204
5.820E-06,0.160
5.830E-06,0.000
5.840E-06,-0.156
5.850E-06,-0.232
5.860E-06,-0.236
5.870E-06,-0.140
5.880E-06,0.012
5.890E-06,0.124
5.900E-06,0.112
5.910E-06,0.052
5.920E-06,-0.008
5.930E-06,-0.072
5.940E-06,-0.048
5.950E-06,0.016
5.960E-06,0.112
5.970E-06,0.140
5.980E-06,0.140
5.990E-06,0.112
6.000E-06,0.068
6.010E-06,0.048
6.020E-06,0.080
6.030E-06,0.140
6.040E-06,0.188
6.050E-06,0.224
6.060E-06,0.200
6.070E-06,0.172
6.080E-06,0.148
6.090E-06,0.128
6.100E-06,0.140
6.110E-06,0.160
6.120E-06,0.188
6.130E-06,0.200
6.140E-06,0.196
6.150E-06,0.180
6.160E-06,0.160
6.170E-06,0.160
6.180E-06,0.160
6.190E-06,0.172
6.200E-06,0.180
6.210E-06,0.188
6.220E-06,0.192
6.230E-06,0.180
