mediciones/5-27/-15/WaveData51145.csv

#timebase=2000000(ps)
,#voltbase=1000000(mv/100)
#size=4000
-5.650E-06,-0.680
-5.640E-06,-0.680
-5.630E-06,-0.680
-5.620E-06,-0.560
-5.610E-06,-0.480
-5.600E-06,-0.480
-5.590E-06,-0.400
-5.580E-06,-0.360
-5.570E-06,-0.320
-5.560E-06,-0.200
-5.550E-06,0.000
-5.540E-06,0.080
-5.530E-06,0.240
-5.520E-06,0.200
-5.510E-06,0.160
-5.500E-06,0.240
-5.490E-06,0.320
-5.480E-06,0.320
-5.470E-06,0.320
-5.460E-06,0.280
-5.450E-06,0.160
-5.440E-06,0.080
-5.430E-06,0.040
-5.420E-06,0.000
-5.410E-06,-0.040
-5.400E-06,-0.080
-5.390E-06,-0.080
-5.380E-06,-0.200
-5.370E-06,-0.240
-5.360E-06,-0.240
-5.350E-06,-0.240
-5.340E-06,-0.160
-5.330E-06,-0.200
-5.320E-06,-0.160
-5.310E-06,-0.200
-5.300E-06,-0.200
-5.290E-06,-0.160
-5.280E-06,-0.080
-5.270E-06,-0.080
-5.260E-06,-0.040
-5.250E-06,0.000
-5.240E-06,0.000
-5.230E-06,0.080
-5.220E-06,0.160
-5.210E-06,0.200
-5.200E-06,0.280
-5.190E-06,0.320
-5.180E-06,0.280
-5.170E-06,0.240
-5.160E-06,0.360
-5.150E-06,0.200
-5.140E-06,0.240
-5.130E-06,0.120
-5.120E-06,0.000
-5.110E-06,0.000
-5.100E-06,-0.040
-5.090E-06,0.040
-5.080E-06,-0.040
-5.070E-06,-0.040
-5.060E-06,-0.200
-5.050E-06,-0.240
-5.040E-06,-0.080
-5.030E-06,-0.160
-5.020E-06,-0.080
-5.010E-06,-0.120
-5.000E-06,-0.040
-4.990E-06,-0.160
-4.980E-06,-0.240
-4.970E-06,-0.200
-4.960E-06,-0.120
-4.950E-06,-0.080
-4.940E-06,-0.040
-4.930E-06,-0.040
-4.920E-06,0.000
-4.910E-06,-0.040
-4.900E-06,0.080
-4.890E-06,0.120
-4.880E-06,0.080
-4.870E-06,0.160
-4.860E-06,0.200
-4.850E-06,0.200
-4.840E-06,0.280
-4.830E-06,0.280
-4.820E-06,0.320
-4.810E-06,0.320
-4.800E-06,0.240
-4.790E-06,0.280
-4.780E-06,0.160
-4.770E-06,0.160
-4.760E-06,0.120
-4.750E-06,0.160
-4.740E-06,0.080
-4.730E-06,0.080
-4.720E-06,0.000
-4.710E-06,0.000
-4.700E-06,-0.080
-4.690E-06,-0.040
-4.680E-06,-0.080
-4.670E-06,-0.040
-4.660E-06,-0.040
-4.650E-06,-0.040
-4.640E-06,0.000
-4.630E-06,-0.040
-4.620E-06,0.000
-4.610E-06,0.000
-4.600E-06,0.000
-4.590E-06,-0.040
-4.580E-06,0.000
-4.570E-06,0.080
-4.560E-06,0.080
-4.550E-06,0.040
-4.540E-06,0.120
-4.530E-06,0.200
-4.520E-06,0.240
-4.510E-06,0.240
-4.500E-06,0.280
-4.490E-06,0.280
-4.480E-06,0.200
-4.470E-06,0.320
-4.460E-06,0.320
-4.450E-06,0.320
-4.440E-06,0.280
-4.430E-06,0.240
-4.420E-06,0.200
-4.410E-06,0.200
-4.400E-06,0.200
-4.390E-06,0.240
-4.380E-06,0.200
-4.370E-06,0.200
-4.360E-06,0.200
-4.350E-06,0.080
-4.340E-06,0.040
-4.330E-06,0.120
-4.320E-06,0.120
-4.310E-06,0.120
-4.300E-06,0.120
-4.290E-06,0.040
-4.280E-06,0.040
-4.270E-06,0.040
-4.260E-06,0.000
-4.250E-06,0.040
-4.240E-06,0.000
-4.230E-06,0.040
-4.220E-06,0.000
-4.210E-06,0.000
-4.200E-06,0.000
-4.190E-06,-0.040
-4.180E-06,0.080
-4.170E-06,0.000
-4.160E-06,0.120
-4.150E-06,0.120
-4.140E-06,0.160
-4.130E-06,0.160
-4.120E-06,0.120
-4.110E-06,0.200
-4.100E-06,0.160
-4.090E-06,0.240
-4.080E-06,0.200
-4.070E-06,0.280
-4.060E-06,0.240
-4.050E-06,0.240
-4.040E-06,0.280
-4.030E-06,0.240
-4.020E-06,0.240
-4.010E-06,0.240
-4.000E-06,0.400
-3.990E-06,0.240
-3.980E-06,0.320
-3.970E-06,0.360
-3.960E-06,0.320
-3.950E-06,0.320
-3.940E-06,0.280
-3.930E-06,0.400
-3.920E-06,0.320
-3.910E-06,0.280
-3.900E-06,0.280
-3.890E-06,0.200
-3.880E-06,0.160
-3.870E-06,0.280
-3.860E-06,0.160
-3.850E-06,0.360
-3.840E-06,0.080
-3.830E-06,0.360
-3.820E-06,0.160
-3.810E-06,0.240
-3.800E-06,0.280
-3.790E-06,0.280
-3.780E-06,0.440
-3.770E-06,0.440
-3.760E-06,0.600
-3.750E-06,0.560
-3.740E-06,0.600
-3.730E-06,0.560
-3.720E-06,0.560
-3.710E-06,0.560
-3.700E-06,0.600
-3.690E-06,0.640
-3.680E-06,0.600
-3.670E-06,0.600
-3.660E-06,0.560
-3.650E-06,0.520
-3.640E-06,0.480
-3.630E-06,0.560
-3.620E-06,0.520
-3.610E-06,0.520
-3.600E-06,0.480
-3.590E-06,0.480
-3.580E-06,0.440
-3.570E-06,0.480
-3.560E-06,0.400
-3.550E-06,0.480
-3.540E-06,0.440
-3.530E-06,0.360
-3.520E-06,0.320
-3.510E-06,0.160
-3.500E-06,0.160
-3.490E-06,0.160
-3.480E-06,0.320
-3.470E-06,0.400
-3.460E-06,0.360
-3.450E-06,0.240
-3.440E-06,0.160
-3.430E-06,0.080
-3.420E-06,0.200
-3.410E-06,0.320
-3.400E-06,0.440
-3.390E-06,0.480
-3.380E-06,0.400
-3.370E-06,0.320
-3.360E-06,0.360
-3.350E-06,0.400
-3.340E-06,0.480
-3.330E-06,0.520
-3.320E-06,0.560
-3.310E-06,0.600
-3.300E-06,0.560
-3.290E-06,0.560
-3.280E-06,0.640
-3.270E-06,0.640
-3.260E-06,0.640
-3.250E-06,0.640
-3.240E-06,0.600
-3.230E-06,0.640
-3.220E-06,0.680
-3.210E-06,0.720
-3.200E-06,0.720
-3.190E-06,0.760
-3.180E-06,0.680
-3.170E-06,0.600
-3.160E-06,0.480
-3.150E-06,0.480
-3.140E-06,0.480
-3.130E-06,0.520
-3.120E-06,0.440
-3.110E-06,0.400
-3.100E-06,0.400
-3.090E-06,0.400
-3.080E-06,0.400
-3.070E-06,0.400
-3.060E-06,0.440
-3.050E-06,0.480
-3.040E-06,0.440
-3.030E-06,0.440
-3.020E-06,0.360
-3.010E-06,0.360
-3.000E-06,0.360
-2.990E-06,0.320
-2.980E-06,0.360
-2.970E-06,0.280
-2.960E-06,0.280
-2.950E-06,0.240
-2.940E-06,0.240
-2.930E-06,0.240
-2.920E-06,0.160
-2.910E-06,0.120
-2.900E-06,0.120
-2.890E-06,0.120
-2.880E-06,0.120
-2.870E-06,0.240
-2.860E-06,0.240
-2.850E-06,0.240
-2.840E-06,0.280
-2.830E-06,0.320
-2.820E-06,0.360
-2.810E-06,0.440
-2.800E-06,0.440
-2.790E-06,0.520
-2.780E-06,0.520
-2.770E-06,0.480
-2.760E-06,0.480
-2.750E-06,0.520
-2.740E-06,0.520
-2.730E-06,0.400
-2.720E-06,0.320
-2.710E-06,0.040
-2.700E-06,0.000
-2.690E-06,0.160
-2.680E-06,0.400
-2.670E-06,0.840
-2.660E-06,0.880
-2.650E-06,0.840
-2.640E-06,0.640
-2.630E-06,0.480
-2.620E-06,0.520
-2.610E-06,0.920
-2.600E-06,1.280
-2.590E-06,0.840
-2.580E-06,0.880
-2.570E-06,0.520
-2.560E-06,0.160
-2.550E-06,0.520
-2.540E-06,0.680
-2.530E-06,0.840
-2.520E-06,0.680
-2.510E-06,0.480
-2.500E-06,0.400
-2.490E-06,0.400
-2.480E-06,0.560
-2.470E-06,0.720
-2.460E-06,0.600
-2.450E-06,0.440
-2.440E-06,0.320
-2.430E-06,0.200
-2.420E-06,0.240
-2.410E-06,0.320
-2.400E-06,0.280
-2.390E-06,0.200
-2.380E-06,0.240
-2.370E-06,0.200
-2.360E-06,0.440
-2.350E-06,0.560
-2.340E-06,0.480
-2.330E-06,0.440
-2.320E-06,0.200
-2.310E-06,0.080
-2.300E-06,0.080
-2.290E-06,0.200
-2.280E-06,0.320
-2.270E-06,0.320
-2.260E-06,0.240
-2.250E-06,0.160
-2.240E-06,-0.040
-2.230E-06,0.000
-2.220E-06,0.080
-2.210E-06,0.160
-2.200E-06,0.200
-2.190E-06,0.320
-2.180E-06,0.200
-2.170E-06,0.120
-2.160E-06,0.120
-2.150E-06,0.080
-2.140E-06,0.160
-2.130E-06,0.160
-2.120E-06,0.200
-2.110E-06,0.200
-2.100E-06,0.120
-2.090E-06,0.160
-2.080E-06,0.200
-2.070E-06,0.160
-2.060E-06,0.160
-2.050E-06,0.040
-2.040E-06,0.080
-2.030E-06,0.040
-2.020E-06,0.040
-2.010E-06,0.080
-2.000E-06,0.080
-1.990E-06,0.080
-1.980E-06,0.120
-1.970E-06,0.040
-1.960E-06,0.120
-1.950E-06,0.120
-1.940E-06,0.200
-1.930E-06,0.240
-1.920E-06,0.240
-1.910E-06,0.240
-1.900E-06,0.160
-1.890E-06,0.120
-1.880E-06,0.160
-1.870E-06,0.240
-1.860E-06,0.280
-1.850E-06,0.240
-1.840E-06,0.240
-1.830E-06,0.240
-1.820E-06,0.280
-1.810E-06,0.360
-1.800E-06,0.400
-1.790E-06,0.480
-1.780E-06,0.480
-1.770E-06,0.440
-1.760E-06,0.440
-1.750E-06,0.400
-1.740E-06,0.320
-1.730E-06,0.320
-1.720E-06,0.200
-1.710E-06,0.120
-1.700E-06,0.040
-1.690E-06,-0.040
-1.680E-06,0.000
-1.670E-06,0.000
-1.660E-06,0.040
-1.650E-06,0.040
-1.640E-06,0.040
-1.630E-06,0.080
-1.620E-06,0.080
-1.610E-06,0.160
-1.600E-06,0.160
-1.590E-06,0.200
-1.580E-06,0.240
-1.570E-06,0.360
-1.560E-06,0.200
-1.550E-06,0.320
-1.540E-06,0.280
-1.530E-06,0.200
-1.520E-06,0.120
-1.510E-06,0.360
-1.500E-06,0.480
-1.490E-06,0.840
-1.480E-06,0.960
-1.470E-06,0.920
-1.460E-06,0.360
-1.450E-06,0.000
-1.440E-06,-0.320
-1.430E-06,0.200
-1.420E-06,0.760
-1.410E-06,1.480
-1.400E-06,1.560
-1.390E-06,1.120
-1.380E-06,0.440
-1.370E-06,0.000
-1.360E-06,-0.080
-1.350E-06,0.480
-1.340E-06,1.040
-1.330E-06,1.440
-1.320E-06,1.480
-1.310E-06,1.040
-1.300E-06,0.720
-1.290E-06,0.840
-1.280E-06,0.760
-1.270E-06,1.120
-1.260E-06,1.680
-1.250E-06,1.840
-1.240E-06,1.680
-1.230E-06,1.480
-1.220E-06,0.880
-1.210E-06,0.320
-1.200E-06,-0.120
-1.190E-06,-0.360
-1.180E-06,0.000
-1.170E-06,0.120
-1.160E-06,0.400
-1.150E-06,0.280
-1.140E-06,-0.200
-1.130E-06,-0.440
-1.120E-06,-0.480
-1.110E-06,-0.200
-1.100E-06,0.200
-1.090E-06,0.440
-1.080E-06,0.520
-1.070E-06,0.320
-1.060E-06,0.160
-1.050E-06,0.160
-1.040E-06,0.480
-1.030E-06,0.800
-1.020E-06,1.000
-1.010E-06,0.880
-1.000E-06,0.840
-9.900E-07,0.560
-9.800E-07,0.440
-9.700E-07,0.400
-9.600E-07,0.320
-9.500E-07,0.200
-9.400E-07,0.240
-9.300E-07,0.120
-9.200E-07,0.160
-9.100E-07,0.240
-9.000E-07,0.320
-8.900E-07,0.320
-8.800E-07,0.320
-8.700E-07,0.360
-8.600E-07,0.400
-8.500E-07,0.520
-8.400E-07,0.480
-8.300E-07,0.480
-8.200E-07,0.480
-8.100E-07,0.440
-8.000E-07,0.440
-7.900E-07,0.400
-7.800E-07,0.320
-7.700E-07,0.320
-7.600E-07,0.200
-7.500E-07,0.040
-7.400E-07,-0.040
-7.300E-07,-0.040
-7.200E-07,-0.080
-7.100E-07,-0.200
-7.000E-07,-0.320
-6.900E-07,-0.400
-6.800E-07,-0.440
-6.700E-07,-0.440
-6.600E-07,-0.480
-6.500E-07,-0.520
-6.400E-07,-0.520
-6.300E-07,-0.520
-6.200E-07,-0.480
-6.100E-07,-0.360
-6.000E-07,-0.320
-5.900E-07,-0.200
-5.800E-07,-0.080
-5.700E-07,0.000
-5.600E-07,0.080
-5.500E-07,0.160
-5.400E-07,0.200
-5.300E-07,0.240
-5.200E-07,0.320
-5.100E-07,0.360
-5.000E-07,0.400
-4.900E-07,0.400
-4.800E-07,0.400
-4.700E-07,0.360
-4.600E-07,0.320
-4.500E-07,0.320
-4.400E-07,0.320
-4.300E-07,0.280
-4.200E-07,0.320
-4.100E-07,0.200
-4.000E-07,0.160
-3.900E-07,0.080
-3.800E-07,-0.040
-3.700E-07,-0.040
-3.600E-07,-0.040
-3.500E-07,0.000
-3.400E-07,0.000
-3.300E-07,0.000
-3.200E-07,-0.040
-3.100E-07,0.040
-3.000E-07,0.080
-2.900E-07,0.080
-2.800E-07,0.120
-2.700E-07,0.200
-2.600E-07,0.240
-2.500E-07,0.360
-2.400E-07,0.360
-2.300E-07,0.240
-2.200E-07,0.280
-2.100E-07,0.160
-2.000E-07,0.240
-1.900E-07,0.200
-1.800E-07,0.320
-1.700E-07,0.440
-1.600E-07,0.680
-1.500E-07,0.720
-1.400E-07,0.840
-1.300E-07,0.960
-1.200E-07,0.880
-1.100E-07,1.040
-1.000E-07,1.080
-9.000E-08,1.240
-8.000E-08,1.360
-7.000E-08,1.560
-6.000E-08,1.320
-5.000E-08,2.160
-4.000E-08,0.080
-3.000E-08,1.240
-2.000E-08,-0.720
-1.000E-08,0.000
0.000E+00,0.040
1.000E-08,0.880
2.000E-08,1.760
3.000E-08,1.840
4.000E-08,1.720
5.000E-08,1.080
6.000E-08,0.880
7.000E-08,0.680
8.000E-08,1.040
9.000E-08,0.320
1.000E-07,0.080
1.100E-07,-0.600
1.200E-07,-0.480
1.300E-07,0.040
1.400E-07,0.840
1.500E-07,1.360
1.600E-07,0.720
1.700E-07,-0.120
1.800E-07,-0.480
1.900E-07,-0.240
2.000E-07,0.880
2.100E-07,1.720
2.200E-07,1.840
2.300E-07,1.480
2.400E-07,0.440
2.500E-07,0.040
2.600E-07,-0.080
2.700E-07,0.320
2.800E-07,0.920
2.900E-07,1.320
3.000E-07,1.360
3.100E-07,1.000
3.200E-07,0.600
3.300E-07,0.360
3.400E-07,0.240
3.500E-07,0.360
3.600E-07,0.360
3.700E-07,0.320
3.800E-07,0.240
3.900E-07,0.000
4.000E-07,-0.280
4.100E-07,-0.520
4.200E-07,-0.560
4.300E-07,-0.480
4.400E-07,-0.360
4.500E-07,-0.200
4.600E-07,-0.160
4.700E-07,-0.200
4.800E-07,-0.200
4.900E-07,-0.320
5.000E-07,-0.360
5.100E-07,-0.200
5.200E-07,-0.080
5.300E-07,-0.040
5.400E-07,0.160
5.500E-07,0.120
5.600E-07,0.200
5.700E-07,-0.360
5.800E-07,-0.200
5.900E-07,-0.560
6.000E-07,-0.440
6.100E-07,-0.360
6.200E-07,-0.160
6.300E-07,-0.200
6.400E-07,-0.360
6.500E-07,-0.200
6.600E-07,-0.120
6.700E-07,0.200
6.800E-07,0.480
6.900E-07,0.520
7.000E-07,0.640
7.100E-07,0.680
7.200E-07,0.760
7.300E-07,0.880
7.400E-07,0.960
7.500E-07,1.200
7.600E-07,1.200
7.700E-07,1.320
7.800E-07,1.120
7.900E-07,1.200
8.000E-07,0.440
8.100E-07,0.480
8.200E-07,-0.240
8.300E-07,-0.400
8.400E-07,-0.320
8.500E-07,-0.040
8.600E-07,0.160
8.700E-07,0.160
8.800E-07,-0.360
8.900E-07,-0.240
9.000E-07,-0.440
9.100E-07,-0.280
9.200E-07,0.080
9.300E-07,0.000
9.400E-07,0.000
9.500E-07,-0.040
9.600E-07,-1.000
9.700E-07,-0.760
9.800E-07,-1.360
9.900E-07,-0.640
1.000E-06,-0.160
1.010E-06,0.160
1.020E-06,0.440
1.030E-06,0.120
1.040E-06,-0.120
1.050E-06,-0.280
1.060E-06,-0.120
1.070E-06,0.240
1.080E-06,0.360
1.090E-06,0.360
1.100E-06,0.160
1.110E-06,-0.040
1.120E-06,-0.080
1.130E-06,0.000
1.140E-06,0.160
1.150E-06,0.240
1.160E-06,0.240
1.170E-06,0.120
1.180E-06,0.000
1.190E-06,-0.160
1.200E-06,-0.160
1.210E-06,-0.120
1.220E-06,-0.200
1.230E-06,-0.320
1.240E-06,-0.440
1.250E-06,-0.520
1.260E-06,-0.480
1.270E-06,-0.640
1.280E-06,-0.800
1.290E-06,-1.160
1.300E-06,-0.960
1.310E-06,-0.840
1.320E-06,-0.400
1.330E-06,0.080
1.340E-06,0.080
1.350E-06,-0.280
1.360E-06,-1.040
1.370E-06,-1.840
1.380E-06,-2.160
1.390E-06,-2.240
1.400E-06,-1.880
1.410E-06,-1.440
1.420E-06,-0.960
1.430E-06,-0.520
1.440E-06,-0.040
1.450E-06,0.520
1.460E-06,1.080
1.470E-06,1.520
1.480E-06,1.760
1.490E-06,1.880
1.500E-06,1.960
1.510E-06,1.960
1.520E-06,1.840
1.530E-06,1.760
1.540E-06,1.640
1.550E-06,1.360
1.560E-06,1.040
1.570E-06,0.640
1.580E-06,0.320
1.590E-06,0.160
1.600E-06,-0.320
1.610E-06,-0.440
1.620E-06,-0.680
1.630E-06,-0.840
1.640E-06,-0.800
1.650E-06,-0.800
1.660E-06,-0.640
1.670E-06,-0.480
1.680E-06,-0.280
1.690E-06,-0.080
1.700E-06,0.160
1.710E-06,0.400
1.720E-06,0.640
1.730E-06,0.720
1.740E-06,0.760
1.750E-06,0.840
1.760E-06,0.920
1.770E-06,0.960
1.780E-06,1.080
1.790E-06,0.960
1.800E-06,0.800
1.810E-06,0.520
1.820E-06,0.120
1.830E-06,-0.120
1.840E-06,-0.400
1.850E-06,-0.640
1.860E-06,-0.840
1.870E-06,-1.040
1.880E-06,-1.200
1.890E-06,-1.320
1.900E-06,-1.400
1.910E-06,-1.400
1.920E-06,-1.440
1.930E-06,-1.400
1.940E-06,-1.280
1.950E-06,-1.080
1.960E-06,-0.720
1.970E-06,-0.440
1.980E-06,-0.160
1.990E-06,0.040
2.000E-06,0.160
2.010E-06,0.360
2.020E-06,0.480
2.030E-06,0.560
2.040E-06,0.600
2.050E-06,0.760
2.060E-06,0.840
2.070E-06,0.840
2.080E-06,0.800
2.090E-06,0.560
2.100E-06,0.640
2.110E-06,0.280
2.120E-06,0.320
2.130E-06,0.120
2.140E-06,0.240
2.150E-06,0.200
2.160E-06,0.320
2.170E-06,0.080
2.180E-06,0.120
2.190E-06,0.040
2.200E-06,0.040
2.210E-06,0.200
2.220E-06,0.360
2.230E-06,0.520
2.240E-06,0.600
2.250E-06,0.600
2.260E-06,0.720
2.270E-06,0.800
2.280E-06,0.960
2.290E-06,1.120
2.300E-06,1.200
2.310E-06,1.360
2.320E-06,1.240
2.330E-06,1.120
2.340E-06,1.080
2.350E-06,0.880
2.360E-06,0.640
2.370E-06,0.480
2.380E-06,0.400
2.390E-06,0.200
2.400E-06,0.120
2.410E-06,-0.120
2.420E-06,-0.280
2.430E-06,-0.480
2.440E-06,-0.640
2.450E-06,-0.800
2.460E-06,-0.880
2.470E-06,-0.920
2.480E-06,-0.960
2.490E-06,-0.960
2.500E-06,-0.920
2.510E-06,-0.880
2.520E-06,-0.840
2.530E-06,-0.680
2.540E-06,-0.560
2.550E-06,-0.360
2.560E-06,-0.280
2.570E-06,-0.200
2.580E-06,-0.080
2.590E-06,-0.160
2.600E-06,-0.120
2.610E-06,-0.160
2.620E-06,0.000
2.630E-06,0.040
2.640E-06,0.120
2.650E-06,0.120
2.660E-06,-0.040
2.670E-06,0.000
2.680E-06,-0.120
2.690E-06,-0.080
2.700E-06,-0.160
2.710E-06,-0.040
2.720E-06,0.000
2.730E-06,0.000
2.740E-06,0.160
2.750E-06,0.000
2.760E-06,0.000
2.770E-06,0.040
2.780E-06,0.200
2.790E-06,0.480
2.800E-06,0.640
2.810E-06,0.760
2.820E-06,0.680
2.830E-06,0.680
2.840E-06,0.520
2.850E-06,0.320
2.860E-06,-0.120
2.870E-06,-0.480
2.880E-06,-0.760
2.890E-06,-0.720
2.900E-06,0.040
2.910E-06,0.440
2.920E-06,0.760
2.930E-06,0.480
2.940E-06,0.000
2.950E-06,-0.400
2.960E-06,-0.400
2.970E-06,0.120
2.980E-06,0.640
2.990E-06,0.960
3.000E-06,1.160
3.010E-06,0.960
3.020E-06,0.800
3.030E-06,0.680
3.040E-06,0.600
3.050E-06,0.720
3.060E-06,0.920
3.070E-06,0.920
3.080E-06,0.960
3.090E-06,0.800
3.100E-06,0.600
3.110E-06,0.400
3.120E-06,0.200
3.130E-06,0.080
3.140E-06,-0.160
3.150E-06,-0.240
3.160E-06,-0.680
3.170E-06,-0.720
3.180E-06,-1.360
3.190E-06,-1.000
3.200E-06,-1.360
3.210E-06,-1.240
3.220E-06,-1.320
3.230E-06,-1.240
3.240E-06,-1.040
3.250E-06,-1.240
3.260E-06,-1.000
3.270E-06,-0.920
3.280E-06,-0.320
3.290E-06,0.480
3.300E-06,1.080
3.310E-06,1.600
3.320E-06,1.440
3.330E-06,0.920
3.340E-06,0.680
3.350E-06,0.640
3.360E-06,0.960
3.370E-06,1.160
3.380E-06,1.160
3.390E-06,1.080
3.400E-06,0.720
3.410E-06,0.400
3.420E-06,0.000
3.430E-06,-0.040
3.440E-06,-0.280
3.450E-06,-0.440
3.460E-06,-0.520
3.470E-06,-0.880
3.480E-06,-1.040
3.490E-06,-1.440
3.500E-06,-1.760
3.510E-06,-2.000
3.520E-06,-2.000
3.530E-06,-1.840
3.540E-06,-1.520
3.550E-06,-1.320
3.560E-06,-1.320
3.570E-06,-1.520
3.580E-06,-1.760
3.590E-06,-2.000
3.600E-06,-2.000
3.610E-06,-1.760
3.620E-06,-1.280
3.630E-06,-0.800
3.640E-06,-0.520
3.650E-06,-0.200
3.660E-06,-0.280
3.670E-06,-0.200
3.680E-06,0.000
3.690E-06,0.440
3.700E-06,0.880
3.710E-06,1.400
3.720E-06,1.600
3.730E-06,1.640
3.740E-06,1.320
3.750E-06,1.200
3.760E-06,1.280
3.770E-06,1.440
3.780E-06,1.680
3.790E-06,1.560
3.800E-06,1.520
3.810E-06,1.120
3.820E-06,0.840
3.830E-06,0.640
3.840E-06,0.560
3.850E-06,0.560
3.860E-06,0.520
3.870E-06,0.400
3.880E-06,0.160
3.890E-06,-0.160
3.900E-06,-0.440
3.910E-06,-0.680
3.920E-06,-0.840
3.930E-06,-1.080
3.940E-06,-1.160
3.950E-06,-1.280
3.960E-06,-1.320
3.970E-06,-1.400
3.980E-06,-1.560
3.990E-06,-1.680
4.000E-06,-1.720
4.010E-06,-1.720
4.020E-06,-1.720
4.030E-06,-1.720
4.040E-06,-1.720
4.050E-06,-1.800
4.060E-06,-1.840
4.070E-06,-2.000
4.080E-06,-2.080
4.090E-06,-1.920
4.100E-06,-1.720
4.110E-06,-1.480
4.120E-06,-1.400
4.130E-06,-1.200
4.140E-06,-1.200
4.150E-06,-1.200
4.160E-06,-0.880
4.170E-06,-0.840
4.180E-06,-0.520
4.190E-06,-0.240
4.200E-06,-0.120
4.210E-06,0.120
4.220E-06,0.240
4.230E-06,0.320
4.240E-06,0.360
4.250E-06,0.240
4.260E-06,0.440
4.270E-06,0.520
4.280E-06,0.720
4.290E-06,0.840
4.300E-06,0.920
4.310E-06,1.000
4.320E-06,1.040
4.330E-06,1.040
4.340E-06,1.120
4.350E-06,1.120
4.360E-06,1.120
4.370E-06,0.960
4.380E-06,0.800
4.390E-06,0.520
4.400E-06,0.240
4.410E-06,0.160
4.420E-06,-0.120
4.430E-06,-0.360
4.440E-06,-0.640
4.450E-06,-1.120
4.460E-06,-1.440
4.470E-06,-1.600
4.480E-06,-1.880
4.490E-06,-1.760
4.500E-06,-1.680
4.510E-06,-1.440
4.520E-06,-1.120
4.530E-06,-1.040
4.540E-06,-0.960
4.550E-06,-1.080
4.560E-06,-1.320
4.570E-06,-1.320
4.580E-06,-1.280
4.590E-06,-1.040
4.600E-06,-0.520
4.610E-06,-0.080
4.620E-06,0.200
4.630E-06,0.440
4.640E-06,0.360
4.650E-06,0.400
4.660E-06,0.440
4.670E-06,0.760
4.680E-06,0.920
4.690E-06,1.240
4.700E-06,1.280
4.710E-06,1.160
4.720E-06,0.840
4.730E-06,0.560
4.740E-06,0.360
4.750E-06,0.320
4.760E-06,0.400
4.770E-06,0.480
4.780E-06,0.520
4.790E-06,0.320
4.800E-06,0.000
4.810E-06,-0.600
4.820E-06,-1.000
4.830E-06,-1.080
4.840E-06,-1.240
4.850E-06,-1.000
4.860E-06,-1.160
4.870E-06,-1.280
4.880E-06,-1.320
4.890E-06,-1.360
4.900E-06,-0.800
4.910E-06,-0.320
4.920E-06,0.200
4.930E-06,0.520
4.940E-06,0.400
4.950E-06,0.640
4.960E-06,0.640
4.970E-06,0.840
4.980E-06,1.000
4.990E-06,1.160
5.000E-06,1.280
5.010E-06,1.480
5.020E-06,1.560
5.030E-06,1.680
5.040E-06,1.680
5.050E-06,1.560
5.060E-06,1.360
5.070E-06,1.120
5.080E-06,0.720
5.090E-06,0.440
5.100E-06,0.120
5.110E-06,0.000
5.120E-06,-0.280
5.130E-06,-0.560
5.140E-06,-0.840
5.150E-06,-1.200
5.160E-06,-1.440
5.170E-06,-1.560
5.180E-06,-1.680
5.190E-06,-1.560
5.200E-06,-1.480
5.210E-06,-1.400
5.220E-06,-1.320
5.230E-06,-1.280
5.240E-06,-1.160
5.250E-06,-1.000
5.260E-06,-0.800
5.270E-06,-0.640
5.280E-06,-0.520
5.290E-06,-0.520
5.300E-06,-0.520
5.310E-06,-0.600
5.320E-06,-0.520
5.330E-06,-0.520
5.340E-06,-0.440
5.350E-06,-0.280
5.360E-06,-0.240
5.370E-06,-0.120
5.380E-06,-0.040
5.390E-06,-0.120
5.400E-06,-0.120
5.410E-06,-0.160
5.420E-06,-0.120
5.430E-06,-0.160
5.440E-06,-0.240
5.450E-06,-0.200
5.460E-06,-0.280
5.470E-06,-0.360
5.480E-06,-0.560
5.490E-06,-0.720
5.500E-06,-0.840
5.510E-06,-0.720
5.520E-06,-0.520
5.530E-06,-0.480
5.540E-06,-0.600
5.550E-06,-1.000
5.560E-06,-1.560
5.570E-06,-1.880
5.580E-06,-1.960
5.590E-06,-1.440
5.600E-06,-0.800
5.610E-06,-0.240
5.620E-06,0.040
5.630E-06,-0.320
5.640E-06,-1.120
5.650E-06,-1.720
5.660E-06,-1.800
5.670E-06,-1.240
5.680E-06,-0.320
5.690E-06,0.040
5.700E-06,-0.080
5.710E-06,-0.640
5.720E-06,-1.920
5.730E-06,-2.840
5.740E-06,-3.120
5.750E-06,-4.040
5.760E-06,-3.840
5.770E-06,-4.920
5.780E-06,-5.240
5.790E-06,-5.200
5.800E-06,-5.240
5.810E-06,-5.240
5.820E-06,-4.600
5.830E-06,-3.800
5.840E-06,-2.520
5.850E-06,-1.960
5.860E-06,-2.400
5.870E-06,-3.320
5.880E-06,-4.520
5.890E-06,-5.240
5.900E-06,-5.240
5.910E-06,-5.240
5.920E-06,-5.000
5.930E-06,-4.400
5.940E-06,-4.440
5.950E-06,-4.720
5.960E-06,-5.240
5.970E-06,-5.240
5.980E-06,-5.240
5.990E-06,-5.240
6.000E-06,-5.200
6.010E-06,-5.200
6.020E-06,-5.200
6.030E-06,-5.200
6.040E-06,-5.240
6.050E-06,-5.240
6.060E-06,-5.200
6.070E-06,-5.240
6.080E-06,-5.240
6.090E-06,-5.240
6.100E-06,-5.240
6.110E-06,-5.240
6.120E-06,-5.240
6.130E-06,-5.240
6.140E-06,-5.240
6.150E-06,-5.240
6.160E-06,-5.240
6.170E-06,-5.200
6.180E-06,-5.200
