mediciones/5-27/-15/WaveData51151.csv

#timebase=2000000(ps)
,#voltbase=1000000(mv/100)
#size=4000
-5.650E-06,0.080
-5.640E-06,0.040
-5.630E-06,0.120
-5.620E-06,0.000
-5.610E-06,0.040
-5.600E-06,0.040
-5.590E-06,0.080
-5.580E-06,0.080
-5.570E-06,0.080
-5.560E-06,0.040
-5.550E-06,0.080
-5.540E-06,0.040
-5.530E-06,0.040
-5.520E-06,0.080
-5.510E-06,0.080
-5.500E-06,0.080
-5.490E-06,0.080
-5.480E-06,0.080
-5.470E-06,0.080
-5.460E-06,0.120
-5.450E-06,0.080
-5.440E-06,0.040
-5.430E-06,0.040
-5.420E-06,0.040
-5.410E-06,0.080
-5.400E-06,0.000
-5.390E-06,0.080
-5.380E-06,0.040
-5.370E-06,0.040
-5.360E-06,0.040
-5.350E-06,0.040
-5.340E-06,0.000
-5.330E-06,0.040
-5.320E-06,0.000
-5.310E-06,0.040
-5.300E-06,0.080
-5.290E-06,0.040
-5.280E-06,0.040
-5.270E-06,0.040
-5.260E-06,0.000
-5.250E-06,0.040
-5.240E-06,0.000
-5.230E-06,0.040
-5.220E-06,0.080
-5.210E-06,0.120
-5.200E-06,0.000
-5.190E-06,0.120
-5.180E-06,-0.040
-5.170E-06,0.040
-5.160E-06,0.080
-5.150E-06,0.120
-5.140E-06,0.360
-5.130E-06,0.240
-5.120E-06,0.120
-5.110E-06,-0.040
-5.100E-06,-0.040
-5.090E-06,0.040
-5.080E-06,0.240
-5.070E-06,0.320
-5.060E-06,0.120
-5.050E-06,0.000
-5.040E-06,-0.120
-5.030E-06,-0.080
-5.020E-06,0.000
-5.010E-06,0.120
-5.000E-06,0.200
-4.990E-06,0.080
-4.980E-06,-0.040
-4.970E-06,-0.040
-4.960E-06,0.040
-4.950E-06,0.160
-4.940E-06,0.240
-4.930E-06,0.200
-4.920E-06,0.080
-4.910E-06,-0.040
-4.900E-06,0.040
-4.890E-06,0.280
-4.880E-06,0.440
-4.870E-06,0.600
-4.860E-06,0.440
-4.850E-06,0.280
-4.840E-06,0.000
-4.830E-06,0.080
-4.820E-06,0.320
-4.810E-06,0.560
-4.800E-06,0.760
-4.790E-06,0.600
-4.780E-06,0.440
-4.770E-06,0.160
-4.760E-06,0.200
-4.750E-06,0.360
-4.740E-06,0.480
-4.730E-06,0.560
-4.720E-06,0.480
-4.710E-06,0.360
-4.700E-06,0.160
-4.690E-06,0.120
-4.680E-06,0.280
-4.670E-06,0.360
-4.660E-06,0.240
-4.650E-06,0.160
-4.640E-06,0.080
-4.630E-06,0.000
-4.620E-06,-0.040
-4.610E-06,0.080
-4.600E-06,0.160
-4.590E-06,0.080
-4.580E-06,-0.040
-4.570E-06,-0.040
-4.560E-06,-0.160
-4.550E-06,-0.040
-4.540E-06,0.000
-4.530E-06,0.000
-4.520E-06,0.000
-4.510E-06,-0.080
-4.500E-06,-0.040
-4.490E-06,0.000
-4.480E-06,0.080
-4.470E-06,0.160
-4.460E-06,0.200
-4.450E-06,0.080
-4.440E-06,0.080
-4.430E-06,0.160
-4.420E-06,0.280
-4.410E-06,0.520
-4.400E-06,0.480
-4.390E-06,0.400
-4.380E-06,0.200
-4.370E-06,0.040
-4.360E-06,0.160
-4.350E-06,0.160
-4.340E-06,0.400
-4.330E-06,0.480
-4.320E-06,0.400
-4.310E-06,0.200
-4.300E-06,0.200
-4.290E-06,0.160
-4.280E-06,0.200
-4.270E-06,0.280
-4.260E-06,0.200
-4.250E-06,0.160
-4.240E-06,0.080
-4.230E-06,0.080
-4.220E-06,0.040
-4.210E-06,0.080
-4.200E-06,0.000
-4.190E-06,0.000
-4.180E-06,-0.040
-4.170E-06,-0.040
-4.160E-06,0.000
-4.150E-06,0.080
-4.140E-06,0.080
-4.130E-06,0.000
-4.120E-06,-0.080
-4.110E-06,-0.160
-4.100E-06,-0.080
-4.090E-06,-0.040
-4.080E-06,0.040
-4.070E-06,0.040
-4.060E-06,0.000
-4.050E-06,-0.080
-4.040E-06,-0.040
-4.030E-06,0.000
-4.020E-06,0.040
-4.010E-06,0.120
-4.000E-06,0.160
-3.990E-06,0.080
-3.980E-06,0.080
-3.970E-06,0.000
-3.960E-06,0.080
-3.950E-06,0.200
-3.940E-06,0.200
-3.930E-06,0.160
-3.920E-06,0.120
-3.910E-06,0.080
-3.900E-06,0.080
-3.890E-06,0.080
-3.880E-06,0.080
-3.870E-06,0.120
-3.860E-06,0.120
-3.850E-06,0.040
-3.840E-06,0.000
-3.830E-06,0.000
-3.820E-06,0.000
-3.810E-06,0.000
-3.800E-06,0.080
-3.790E-06,0.000
-3.780E-06,0.000
-3.770E-06,0.000
-3.760E-06,-0.040
-3.750E-06,-0.040
-3.740E-06,0.000
-3.730E-06,0.040
-3.720E-06,-0.040
-3.710E-06,0.000
-3.700E-06,0.040
-3.690E-06,0.040
-3.680E-06,0.000
-3.670E-06,0.000
-3.660E-06,0.040
-3.650E-06,-0.040
-3.640E-06,-0.040
-3.630E-06,0.040
-3.620E-06,0.080
-3.610E-06,0.080
-3.600E-06,0.080
-3.590E-06,0.080
-3.580E-06,0.080
-3.570E-06,0.080
-3.560E-06,0.080
-3.550E-06,0.080
-3.540E-06,0.120
-3.530E-06,0.120
-3.520E-06,0.080
-3.510E-06,0.080
-3.500E-06,0.080
-3.490E-06,0.080
-3.480E-06,0.080
-3.470E-06,0.120
-3.460E-06,0.160
-3.450E-06,0.120
-3.440E-06,0.120
-3.430E-06,0.120
-3.420E-06,0.080
-3.410E-06,0.040
-3.400E-06,0.040
-3.390E-06,0.040
-3.380E-06,0.000
-3.370E-06,0.000
-3.360E-06,-0.040
-3.350E-06,0.000
-3.340E-06,0.080
-3.330E-06,0.040
-3.320E-06,0.080
-3.310E-06,0.080
-3.300E-06,0.120
-3.290E-06,0.080
-3.280E-06,0.040
-3.270E-06,0.120
-3.260E-06,0.200
-3.250E-06,0.160
-3.240E-06,0.160
-3.230E-06,0.160
-3.220E-06,0.160
-3.210E-06,0.160
-3.200E-06,0.160
-3.190E-06,0.240
-3.180E-06,0.200
-3.170E-06,0.240
-3.160E-06,0.240
-3.150E-06,0.240
-3.140E-06,0.200
-3.130E-06,0.160
-3.120E-06,0.320
-3.110E-06,0.360
-3.100E-06,0.320
-3.090E-06,0.240
-3.080E-06,0.160
-3.070E-06,0.080
-3.060E-06,0.000
-3.050E-06,0.120
-3.040E-06,0.160
-3.030E-06,0.160
-3.020E-06,0.120
-3.010E-06,-0.040
-3.000E-06,-0.040
-2.990E-06,-0.040
-2.980E-06,-0.040
-2.970E-06,0.040
-2.960E-06,0.040
-2.950E-06,0.040
-2.940E-06,-0.040
-2.930E-06,-0.040
-2.920E-06,0.040
-2.910E-06,0.040
-2.900E-06,0.080
-2.890E-06,0.120
-2.880E-06,0.120
-2.870E-06,0.000
-2.860E-06,0.040
-2.850E-06,0.120
-2.840E-06,0.160
-2.830E-06,0.160
-2.820E-06,0.040
-2.810E-06,0.040
-2.800E-06,0.040
-2.790E-06,0.120
-2.780E-06,0.080
-2.770E-06,0.160
-2.760E-06,0.160
-2.750E-06,0.160
-2.740E-06,0.200
-2.730E-06,0.160
-2.720E-06,0.120
-2.710E-06,0.200
-2.700E-06,0.200
-2.690E-06,0.280
-2.680E-06,0.200
-2.670E-06,0.240
-2.660E-06,0.160
-2.650E-06,0.200
-2.640E-06,0.240
-2.630E-06,0.160
-2.620E-06,0.120
-2.610E-06,0.160
-2.600E-06,0.120
-2.590E-06,0.120
-2.580E-06,0.160
-2.570E-06,0.160
-2.560E-06,0.160
-2.550E-06,0.160
-2.540E-06,0.120
-2.530E-06,0.160
-2.520E-06,0.120
-2.510E-06,0.160
-2.500E-06,0.080
-2.490E-06,0.120
-2.480E-06,0.160
-2.470E-06,0.120
-2.460E-06,0.160
-2.450E-06,0.160
-2.440E-06,0.160
-2.430E-06,0.200
-2.420E-06,0.200
-2.410E-06,0.200
-2.400E-06,0.160
-2.390E-06,0.160
-2.380E-06,0.240
-2.370E-06,0.160
-2.360E-06,0.240
-2.350E-06,0.280
-2.340E-06,0.320
-2.330E-06,0.360
-2.320E-06,0.120
-2.310E-06,0.200
-2.300E-06,0.080
-2.290E-06,0.120
-2.280E-06,0.160
-2.270E-06,0.280
-2.260E-06,0.360
-2.250E-06,0.320
-2.240E-06,0.240
-2.230E-06,0.120
-2.220E-06,0.120
-2.210E-06,0.120
-2.200E-06,0.160
-2.190E-06,0.240
-2.180E-06,0.320
-2.170E-06,0.280
-2.160E-06,0.280
-2.150E-06,0.280
-2.140E-06,0.360
-2.130E-06,0.400
-2.120E-06,0.480
-2.110E-06,0.560
-2.100E-06,0.560
-2.090E-06,0.520
-2.080E-06,0.520
-2.070E-06,0.480
-2.060E-06,0.600
-2.050E-06,0.680
-2.040E-06,0.640
-2.030E-06,0.640
-2.020E-06,0.600
-2.010E-06,0.560
-2.000E-06,0.640
-1.990E-06,0.600
-1.980E-06,0.680
-1.970E-06,0.640
-1.960E-06,0.800
-1.950E-06,0.720
-1.940E-06,0.840
-1.930E-06,0.680
-1.920E-06,0.840
-1.910E-06,0.480
-1.900E-06,0.680
-1.890E-06,0.480
-1.880E-06,0.480
-1.870E-06,0.640
-1.860E-06,0.640
-1.850E-06,0.640
-1.840E-06,0.480
-1.830E-06,0.360
-1.820E-06,0.360
-1.810E-06,0.400
-1.800E-06,0.560
-1.790E-06,0.520
-1.780E-06,0.480
-1.770E-06,0.400
-1.760E-06,0.360
-1.750E-06,0.200
-1.740E-06,0.240
-1.730E-06,0.360
-1.720E-06,0.360
-1.710E-06,0.320
-1.700E-06,0.280
-1.690E-06,0.240
-1.680E-06,0.160
-1.670E-06,0.160
-1.660E-06,0.160
-1.650E-06,0.160
-1.640E-06,0.160
-1.630E-06,0.120
-1.620E-06,0.120
-1.610E-06,0.080
-1.600E-06,0.200
-1.590E-06,0.080
-1.580E-06,0.160
-1.570E-06,0.160
-1.560E-06,0.200
-1.550E-06,0.320
-1.540E-06,0.360
-1.530E-06,0.360
-1.520E-06,0.240
-1.510E-06,0.080
-1.500E-06,0.080
-1.490E-06,0.080
-1.480E-06,0.240
-1.470E-06,0.360
-1.460E-06,0.320
-1.450E-06,0.280
-1.440E-06,0.240
-1.430E-06,0.120
-1.420E-06,0.200
-1.410E-06,0.320
-1.400E-06,0.400
-1.390E-06,0.400
-1.380E-06,0.400
-1.370E-06,0.400
-1.360E-06,0.400
-1.350E-06,0.360
-1.340E-06,0.480
-1.330E-06,0.360
-1.320E-06,0.520
-1.310E-06,0.440
-1.300E-06,0.480
-1.290E-06,0.320
-1.280E-06,0.080
-1.270E-06,0.080
-1.260E-06,0.080
-1.250E-06,0.160
-1.240E-06,0.640
-1.230E-06,0.720
-1.220E-06,0.600
-1.210E-06,0.360
-1.200E-06,0.000
-1.190E-06,0.120
-1.180E-06,0.200
-1.170E-06,0.320
-1.160E-06,0.360
-1.150E-06,0.080
-1.140E-06,0.000
-1.130E-06,0.080
-1.120E-06,0.160
-1.110E-06,0.320
-1.100E-06,0.240
-1.090E-06,0.040
-1.080E-06,-0.160
-1.070E-06,-0.080
-1.060E-06,0.160
-1.050E-06,0.400
-1.040E-06,0.440
-1.030E-06,0.240
-1.020E-06,-0.080
-1.010E-06,-0.320
-1.000E-06,-0.160
-9.900E-07,0.080
-9.800E-07,0.320
-9.700E-07,0.320
-9.600E-07,0.200
-9.500E-07,-0.080
-9.400E-07,-0.160
-9.300E-07,-0.120
-9.200E-07,0.000
-9.100E-07,0.200
-9.000E-07,0.280
-8.900E-07,0.280
-8.800E-07,0.200
-8.700E-07,0.080
-8.600E-07,0.120
-8.500E-07,0.040
-8.400E-07,0.160
-8.300E-07,0.120
-8.200E-07,0.120
-8.100E-07,0.120
-8.000E-07,0.080
-7.900E-07,0.080
-7.800E-07,0.000
-7.700E-07,0.040
-7.600E-07,0.040
-7.500E-07,0.040
-7.400E-07,0.120
-7.300E-07,0.080
-7.200E-07,0.160
-7.100E-07,0.120
-7.000E-07,0.200
-6.900E-07,0.240
-6.800E-07,0.320
-6.700E-07,0.320
-6.600E-07,0.400
-6.500E-07,0.440
-6.400E-07,0.480
-6.300E-07,0.520
-6.200E-07,0.520
-6.100E-07,0.440
-6.000E-07,0.400
-5.900E-07,0.440
-5.800E-07,0.440
-5.700E-07,0.400
-5.600E-07,0.400
-5.500E-07,0.360
-5.400E-07,0.360
-5.300E-07,0.360
-5.200E-07,0.320
-5.100E-07,0.320
-5.000E-07,0.320
-4.900E-07,0.400
-4.800E-07,0.400
-4.700E-07,0.400
-4.600E-07,0.440
-4.500E-07,0.440
-4.400E-07,0.520
-4.300E-07,0.480
-4.200E-07,0.480
-4.100E-07,0.480
-4.000E-07,0.520
-3.900E-07,0.560
-3.800E-07,0.680
-3.700E-07,0.640
-3.600E-07,0.640
-3.500E-07,0.640
-3.400E-07,0.640
-3.300E-07,0.680
-3.200E-07,0.680
-3.100E-07,0.640
-3.000E-07,0.720
-2.900E-07,0.680
-2.800E-07,0.640
-2.700E-07,0.680
-2.600E-07,0.680
-2.500E-07,0.640
-2.400E-07,0.680
-2.300E-07,0.680
-2.200E-07,0.720
-2.100E-07,0.720
-2.000E-07,0.840
-1.900E-07,0.800
-1.800E-07,0.800
-1.700E-07,0.800
-1.600E-07,0.760
-1.500E-07,0.760
-1.400E-07,0.960
-1.300E-07,0.920
-1.200E-07,1.040
-1.100E-07,0.880
-1.000E-07,1.080
-9.000E-08,0.840
-8.000E-08,1.040
-7.000E-08,1.160
-6.000E-08,1.440
-5.000E-08,1.680
-4.000E-08,1.320
-3.000E-08,1.080
-2.000E-08,0.480
-1.000E-08,0.480
0.000E+00,0.560
1.000E-08,1.200
2.000E-08,1.560
3.000E-08,1.760
4.000E-08,1.440
5.000E-08,1.280
6.000E-08,0.400
7.000E-08,0.760
8.000E-08,0.400
9.000E-08,0.520
1.000E-07,0.680
1.100E-07,0.840
1.200E-07,0.960
1.300E-07,0.840
1.400E-07,0.640
1.500E-07,0.200
1.600E-07,0.360
1.700E-07,0.160
1.800E-07,0.400
1.900E-07,0.320
2.000E-07,0.120
2.100E-07,0.240
2.200E-07,0.120
2.300E-07,0.160
2.400E-07,0.280
2.500E-07,0.080
2.600E-07,-0.080
2.700E-07,-0.080
2.800E-07,-0.120
2.900E-07,0.080
3.000E-07,0.160
3.100E-07,0.240
3.200E-07,0.160
3.300E-07,-0.160
3.400E-07,-0.160
3.500E-07,-0.360
3.600E-07,-0.120
3.700E-07,0.240
3.800E-07,0.360
3.900E-07,0.440
4.000E-07,0.200
4.100E-07,0.000
4.200E-07,-0.240
4.300E-07,0.040
4.400E-07,0.240
4.500E-07,0.640
4.600E-07,0.720
4.700E-07,0.560
4.800E-07,0.280
4.900E-07,0.080
5.000E-07,-0.080
5.100E-07,0.080
5.200E-07,0.200
5.300E-07,0.240
5.400E-07,0.280
5.500E-07,0.160
5.600E-07,0.080
5.700E-07,0.000
5.800E-07,0.000
5.900E-07,0.040
6.000E-07,-0.040
6.100E-07,0.200
6.200E-07,0.200
6.300E-07,0.120
6.400E-07,0.080
6.500E-07,0.080
6.600E-07,-0.240
6.700E-07,0.080
6.800E-07,0.160
6.900E-07,0.360
7.000E-07,0.200
7.100E-07,0.240
7.200E-07,0.200
7.300E-07,0.240
7.400E-07,0.240
7.500E-07,0.360
7.600E-07,0.360
7.700E-07,0.520
7.800E-07,0.600
7.900E-07,0.720
8.000E-07,0.640
8.100E-07,0.520
8.200E-07,0.400
8.300E-07,0.400
8.400E-07,0.440
8.500E-07,0.440
8.600E-07,0.440
8.700E-07,0.320
8.800E-07,0.080
8.900E-07,0.000
9.000E-07,-0.240
9.100E-07,-0.440
9.200E-07,-0.480
9.300E-07,-0.400
9.400E-07,-0.360
9.500E-07,-0.280
9.600E-07,-0.240
9.700E-07,-0.400
9.800E-07,-0.400
9.900E-07,-0.400
1.000E-06,-0.320
1.010E-06,-0.160
1.020E-06,-0.080
1.030E-06,0.000
1.040E-06,-0.120
1.050E-06,-0.080
1.060E-06,0.200
1.070E-06,0.200
1.080E-06,0.520
1.090E-06,0.640
1.100E-06,0.600
1.110E-06,0.720
1.120E-06,0.720
1.130E-06,0.840
1.140E-06,1.000
1.150E-06,1.040
1.160E-06,1.040
1.170E-06,0.920
1.180E-06,0.840
1.190E-06,0.800
1.200E-06,0.560
1.210E-06,0.520
1.220E-06,0.480
1.230E-06,0.360
1.240E-06,0.360
1.250E-06,0.320
1.260E-06,0.360
1.270E-06,0.280
1.280E-06,0.160
1.290E-06,0.160
1.300E-06,0.200
1.310E-06,0.120
1.320E-06,0.160
1.330E-06,0.240
1.340E-06,0.280
1.350E-06,0.320
1.360E-06,0.400
1.370E-06,0.440
1.380E-06,0.520
1.390E-06,0.480
1.400E-06,0.400
1.410E-06,0.320
1.420E-06,0.280
1.430E-06,0.200
1.440E-06,0.120
1.450E-06,0.040
1.460E-06,0.000
1.470E-06,-0.160
1.480E-06,-0.200
1.490E-06,-0.200
1.500E-06,-0.360
1.510E-06,-0.520
1.520E-06,-0.440
1.530E-06,-0.080
1.540E-06,-1.560
1.550E-06,0.080
1.560E-06,-1.800
1.570E-06,0.360
1.580E-06,-0.360
1.590E-06,0.160
1.600E-06,0.480
1.610E-06,-0.880
1.620E-06,-0.120
1.630E-06,-1.800
1.640E-06,-1.200
1.650E-06,-0.840
1.660E-06,-0.600
1.670E-06,0.200
1.680E-06,-0.160
1.690E-06,0.080
1.700E-06,-0.680
1.710E-06,-0.880
1.720E-06,-1.200
1.730E-06,-0.720
1.740E-06,-0.120
1.750E-06,0.640
1.760E-06,0.920
1.770E-06,0.800
1.780E-06,0.480
1.790E-06,-0.040
1.800E-06,-0.080
1.810E-06,0.200
1.820E-06,0.520
1.830E-06,0.800
1.840E-06,0.760
1.850E-06,0.400
1.860E-06,0.160
1.870E-06,-0.080
1.880E-06,-0.120
1.890E-06,0.000
1.900E-06,0.160
1.910E-06,0.360
1.920E-06,0.400
1.930E-06,0.440
1.940E-06,0.280
1.950E-06,0.320
1.960E-06,0.240
1.970E-06,0.240
1.980E-06,0.360
1.990E-06,0.280
2.000E-06,0.280
2.010E-06,0.160
2.020E-06,0.040
2.030E-06,0.000
2.040E-06,-0.040
2.050E-06,-0.040
2.060E-06,-0.160
2.070E-06,-0.360
2.080E-06,-0.400
2.090E-06,-0.440
2.100E-06,-0.480
2.110E-06,-0.520
2.120E-06,-0.600
2.130E-06,-0.680
2.140E-06,-0.720
2.150E-06,-0.840
2.160E-06,-0.800
2.170E-06,-1.000
2.180E-06,-0.960
2.190E-06,-1.000
2.200E-06,-1.040
2.210E-06,-1.080
2.220E-06,-1.160
2.230E-06,-1.200
2.240E-06,-1.160
2.250E-06,-1.200
2.260E-06,-1.160
2.270E-06,-1.040
2.280E-06,-1.080
2.290E-06,-1.120
2.300E-06,-1.040
2.310E-06,-1.000
2.320E-06,-1.000
2.330E-06,-1.120
2.340E-06,-1.080
2.350E-06,-1.000
2.360E-06,-1.160
2.370E-06,-1.040
2.380E-06,-0.880
2.390E-06,-0.840
2.400E-06,-0.840
2.410E-06,-0.840
2.420E-06,-0.840
2.430E-06,-0.800
2.440E-06,-0.680
2.450E-06,-0.640
2.460E-06,-0.560
2.470E-06,-0.480
2.480E-06,-0.480
2.490E-06,-0.400
2.500E-06,-0.360
2.510E-06,-0.320
2.520E-06,-0.280
2.530E-06,-0.280
2.540E-06,-0.280
2.550E-06,-0.360
2.560E-06,-0.400
2.570E-06,-0.400
2.580E-06,-0.440
2.590E-06,-0.440
2.600E-06,-0.480
2.610E-06,-0.680
2.620E-06,-0.760
2.630E-06,-0.960
2.640E-06,-1.080
2.650E-06,-1.160
2.660E-06,-1.320
2.670E-06,-1.400
2.680E-06,-1.520
2.690E-06,-1.720
2.700E-06,-1.800
2.710E-06,-1.840
2.720E-06,-1.840
2.730E-06,-1.840
2.740E-06,-1.800
2.750E-06,-1.760
2.760E-06,-1.800
2.770E-06,-1.840
2.780E-06,-1.880
2.790E-06,-1.800
2.800E-06,-1.800
2.810E-06,-1.920
2.820E-06,-2.000
2.830E-06,-2.040
2.840E-06,-2.040
2.850E-06,-2.040
2.860E-06,-2.000
2.870E-06,-1.960
2.880E-06,-1.800
2.890E-06,-1.800
2.900E-06,-1.880
2.910E-06,-1.920
2.920E-06,-1.800
2.930E-06,-1.760
2.940E-06,-1.680
2.950E-06,-1.560
2.960E-06,-1.520
2.970E-06,-1.560
2.980E-06,-1.600
2.990E-06,-1.600
3.000E-06,-1.600
3.010E-06,-1.600
3.020E-06,-1.600
3.030E-06,-1.720
3.040E-06,-1.720
3.050E-06,-1.760
3.060E-06,-1.760
3.070E-06,-1.760
3.080E-06,-1.800
3.090E-06,-1.800
3.100E-06,-1.920
3.110E-06,-2.000
3.120E-06,-2.120
3.130E-06,-2.320
3.140E-06,-2.640
3.150E-06,-2.920
3.160E-06,-3.200
3.170E-06,-3.320
3.180E-06,-3.240
3.190E-06,-3.040
3.200E-06,-2.840
3.210E-06,-2.560
3.220E-06,-2.320
3.230E-06,-2.200
3.240E-06,-2.080
3.250E-06,-2.000
3.260E-06,-2.000
3.270E-06,-1.960
3.280E-06,-1.920
3.290E-06,-1.840
3.300E-06,-1.960
3.310E-06,-2.040
3.320E-06,-2.200
3.330E-06,-2.320
3.340E-06,-2.520
3.350E-06,-2.680
3.360E-06,-2.840
3.370E-06,-3.040
3.380E-06,-3.200
3.390E-06,-3.360
3.400E-06,-3.480
3.410E-06,-3.680
3.420E-06,-3.840
3.430E-06,-3.960
3.440E-06,-4.000
3.450E-06,-4.080
3.460E-06,-4.160
3.470E-06,-4.280
3.480E-06,-4.360
3.490E-06,-4.480
3.500E-06,-4.560
3.510E-06,-4.720
3.520E-06,-4.800
3.530E-06,-4.840
3.540E-06,-4.960
3.550E-06,-5.080
3.560E-06,-5.200
3.570E-06,-5.240
3.580E-06,-5.240
3.590E-06,-5.200
3.600E-06,-5.200
3.610E-06,-5.200
3.620E-06,-5.240
3.630E-06,-5.240
3.640E-06,-5.200
3.650E-06,-5.200
3.660E-06,-5.240
3.670E-06,-5.240
3.680E-06,-5.240
3.690E-06,-5.200
3.700E-06,-5.200
3.710E-06,-5.240
3.720E-06,-5.240
3.730E-06,-5.240
3.740E-06,-5.160
3.750E-06,-5.040
3.760E-06,-4.920
3.770E-06,-4.800
3.780E-06,-4.760
3.790E-06,-4.600
3.800E-06,-4.480
3.810E-06,-4.400
3.820E-06,-4.320
3.830E-06,-4.240
3.840E-06,-4.160
3.850E-06,-4.040
3.860E-06,-4.000
3.870E-06,-3.920
3.880E-06,-3.840
3.890E-06,-3.800
3.900E-06,-3.720
3.910E-06,-3.600
3.920E-06,-3.520
3.930E-06,-3.480
3.940E-06,-3.400
3.950E-06,-3.360
3.960E-06,-3.360
3.970E-06,-3.360
3.980E-06,-3.280
3.990E-06,-3.280
4.000E-06,-3.200
4.010E-06,-3.160
4.020E-06,-3.040
4.030E-06,-3.000
4.040E-06,-2.920
4.050E-06,-2.880
4.060E-06,-2.880
4.070E-06,-2.800
4.080E-06,-2.920
4.090E-06,-2.920
4.100E-06,-3.000
4.110E-06,-3.080
4.120E-06,-3.120
4.130E-06,-3.200
4.140E-06,-3.240
4.150E-06,-3.200
4.160E-06,-3.200
4.170E-06,-3.200
4.180E-06,-3.160
4.190E-06,-3.040
4.200E-06,-3.000
4.210E-06,-2.960
4.220E-06,-2.920
4.230E-06,-2.880
4.240E-06,-2.840
4.250E-06,-2.680
4.260E-06,-2.640
4.270E-06,-2.520
4.280E-06,-2.440
4.290E-06,-2.320
4.300E-06,-2.200
4.310E-06,-2.160
4.320E-06,-1.920
4.330E-06,-1.720
4.340E-06,-1.560
4.350E-06,-1.320
4.360E-06,-1.160
4.370E-06,-1.040
4.380E-06,-0.920
4.390E-06,-0.880
4.400E-06,-0.920
4.410E-06,-0.880
4.420E-06,-0.920
4.430E-06,-1.000
4.440E-06,-1.120
4.450E-06,-1.240
4.460E-06,-1.400
4.470E-06,-1.480
4.480E-06,-1.600
4.490E-06,-1.680
4.500E-06,-1.760
4.510E-06,-1.880
4.520E-06,-1.840
4.530E-06,-1.920
4.540E-06,-1.840
4.550E-06,-1.800
4.560E-06,-1.720
4.570E-06,-1.640
4.580E-06,-1.520
4.590E-06,-1.560
4.600E-06,-1.520
4.610E-06,-1.600
4.620E-06,-1.600
4.630E-06,-1.680
4.640E-06,-1.680
4.650E-06,-1.760
4.660E-06,-1.800
4.670E-06,-1.840
4.680E-06,-1.840
4.690E-06,-1.760
4.700E-06,-1.720
4.710E-06,-1.680
4.720E-06,-1.560
4.730E-06,-1.480
4.740E-06,-1.440
4.750E-06,-1.320
4.760E-06,-1.200
4.770E-06,-1.160
4.780E-06,-1.000
4.790E-06,-0.880
4.800E-06,-0.760
4.810E-06,-0.640
4.820E-06,-0.680
4.830E-06,-0.640
4.840E-06,-0.680
4.850E-06,-0.640
4.860E-06,-0.680
4.870E-06,-0.760
4.880E-06,-0.800
4.890E-06,-0.840
4.900E-06,-0.920
4.910E-06,-0.920
4.920E-06,-1.000
4.930E-06,-1.040
4.940E-06,-1.080
4.950E-06,-1.160
4.960E-06,-1.120
4.970E-06,-1.080
4.980E-06,-1.080
4.990E-06,-1.080
5.000E-06,-1.080
5.010E-06,-1.080
5.020E-06,-1.040
5.030E-06,-1.040
5.040E-06,-1.080
5.050E-06,-1.080
5.060E-06,-1.040
5.070E-06,-1.040
5.080E-06,-1.000
5.090E-06,-1.040
5.100E-06,-1.040
5.110E-06,-1.080
5.120E-06,-1.080
5.130E-06,-1.120
5.140E-06,-1.160
5.150E-06,-1.080
5.160E-06,-1.080
5.170E-06,-1.120
5.180E-06,-1.120
5.190E-06,-1.120
5.200E-06,-1.240
5.210E-06,-1.280
5.220E-06,-1.360
5.230E-06,-1.360
5.240E-06,-1.320
5.250E-06,-1.320
5.260E-06,-1.320
5.270E-06,-1.360
5.280E-06,-1.360
5.290E-06,-1.400
5.300E-06,-1.400
5.310E-06,-1.360
5.320E-06,-1.360
5.330E-06,-1.360
5.340E-06,-1.320
5.350E-06,-1.280
5.360E-06,-1.240
5.370E-06,-1.200
5.380E-06,-1.160
5.390E-06,-1.120
5.400E-06,-1.160
5.410E-06,-1.080
5.420E-06,-1.080
5.430E-06,-1.080
5.440E-06,-1.040
5.450E-06,-1.000
5.460E-06,-1.040
5.470E-06,-1.000
5.480E-06,-1.000
5.490E-06,-1.000
5.500E-06,-0.960
5.510E-06,-0.920
5.520E-06,-0.840
5.530E-06,-0.760
5.540E-06,-0.720
5.550E-06,-0.720
5.560E-06,-0.680
5.570E-06,-0.640
5.580E-06,-0.640
5.590E-06,-0.600
5.600E-06,-0.640
5.610E-06,-0.600
5.620E-06,-0.640
5.630E-06,-0.640
5.640E-06,-0.640
5.650E-06,-0.600
5.660E-06,-0.600
5.670E-06,-0.560
5.680E-06,-0.520
5.690E-06,-0.560
5.700E-06,-0.520
5.710E-06,-0.440
5.720E-06,-0.480
5.730E-06,-0.440
5.740E-06,-0.360
5.750E-06,-0.360
5.760E-06,-0.280
5.770E-06,-0.280
5.780E-06,-0.240
5.790E-06,-0.200
5.800E-06,-0.200
5.810E-06,-0.200
5.820E-06,-0.120
5.830E-06,-0.160
5.840E-06,-0.200
5.850E-06,-0.200
5.860E-06,-0.080
5.870E-06,-0.120
5.880E-06,0.000
5.890E-06,-0.040
5.900E-06,-0.080
5.910E-06,-0.160
5.920E-06,-0.160
5.930E-06,-0.080
5.940E-06,0.000
5.950E-06,0.160
5.960E-06,0.360
5.970E-06,0.440
5.980E-06,0.440
5.990E-06,0.360
6.000E-06,0.240
6.010E-06,-0.040
6.020E-06,-0.240
6.030E-06,-0.480
6.040E-06,-0.640
6.050E-06,-0.680
6.060E-06,-0.680
6.070E-06,-0.560
6.080E-06,-0.480
6.090E-06,-0.320
6.100E-06,-0.240
6.110E-06,-0.040
6.120E-06,0.000
6.130E-06,0.120
6.140E-06,0.200
