mediciones/5-27/-15/WaveData51156.csv

#timebase=2000000(ps)
,#voltbase=100000(mv/100)
#size=4000
-5.650E-06,0.004
-5.640E-06,0.000
-5.630E-06,0.004
-5.620E-06,0.000
-5.610E-06,0.000
-5.600E-06,0.004
-5.590E-06,0.008
-5.580E-06,0.004
-5.570E-06,0.004
-5.560E-06,0.000
-5.550E-06,0.000
-5.540E-06,0.000
-5.530E-06,0.000
-5.520E-06,0.004
-5.510E-06,0.008
-5.500E-06,0.000
-5.490E-06,0.000
-5.480E-06,0.004
-5.470E-06,0.004
-5.460E-06,0.008
-5.450E-06,-0.004
-5.440E-06,0.004
-5.430E-06,0.004
-5.420E-06,0.000
-5.410E-06,0.004
-5.400E-06,0.000
-5.390E-06,0.004
-5.380E-06,0.004
-5.370E-06,0.004
-5.360E-06,0.004
-5.350E-06,-0.004
-5.340E-06,0.004
-5.330E-06,0.004
-5.320E-06,0.004
-5.310E-06,0.004
-5.300E-06,0.004
-5.290E-06,0.004
-5.280E-06,0.004
-5.270E-06,0.000
-5.260E-06,0.004
-5.250E-06,0.000
-5.240E-06,0.004
-5.230E-06,0.000
-5.220E-06,0.004
-5.210E-06,0.000
-5.200E-06,0.004
-5.190E-06,0.004
-5.180E-06,0.004
-5.170E-06,0.000
-5.160E-06,0.004
-5.150E-06,0.000
-5.140E-06,0.004
-5.130E-06,0.004
-5.120E-06,0.000
-5.110E-06,0.004
-5.100E-06,0.004
-5.090E-06,0.004
-5.080E-06,-0.004
-5.070E-06,0.000
-5.060E-06,0.000
-5.050E-06,0.000
-5.040E-06,0.004
-5.030E-06,0.004
-5.020E-06,0.004
-5.010E-06,0.000
-5.000E-06,0.000
-4.990E-06,0.000
-4.980E-06,0.004
-4.970E-06,0.004
-4.960E-06,0.004
-4.950E-06,0.004
-4.940E-06,0.004
-4.930E-06,0.004
-4.920E-06,0.012
-4.910E-06,0.000
-4.900E-06,0.004
-4.890E-06,0.004
-4.880E-06,0.004
-4.870E-06,0.004
-4.860E-06,0.004
-4.850E-06,0.008
-4.840E-06,0.008
-4.830E-06,0.008
-4.820E-06,0.008
-4.810E-06,-0.004
-4.800E-06,0.004
-4.790E-06,0.004
-4.780E-06,0.004
-4.770E-06,0.004
-4.760E-06,0.004
-4.750E-06,0.004
-4.740E-06,0.004
-4.730E-06,0.004
-4.720E-06,0.000
-4.710E-06,0.004
-4.700E-06,0.004
-4.690E-06,0.004
-4.680E-06,-0.004
-4.670E-06,0.000
-4.660E-06,0.004
-4.650E-06,0.000
-4.640E-06,0.004
-4.630E-06,0.004
-4.620E-06,0.000
-4.610E-06,0.004
-4.600E-06,-0.004
-4.590E-06,0.004
-4.580E-06,0.008
-4.570E-06,0.004
-4.560E-06,0.004
-4.550E-06,0.004
-4.540E-06,0.000
-4.530E-06,0.000
-4.520E-06,0.004
-4.510E-06,0.004
-4.500E-06,0.004
-4.490E-06,0.004
-4.480E-06,0.004
-4.470E-06,0.004
-4.460E-06,0.004
-4.450E-06,0.004
-4.440E-06,0.000
-4.430E-06,0.004
-4.420E-06,0.004
-4.410E-06,0.004
-4.400E-06,0.004
-4.390E-06,0.004
-4.380E-06,0.004
-4.370E-06,0.004
-4.360E-06,0.004
-4.350E-06,0.004
-4.340E-06,0.004
-4.330E-06,0.008
-4.320E-06,0.000
-4.310E-06,0.004
-4.300E-06,0.004
-4.290E-06,0.000
-4.280E-06,0.004
-4.270E-06,0.000
-4.260E-06,0.004
-4.250E-06,0.000
-4.240E-06,0.004
-4.230E-06,-0.004
-4.220E-06,-0.004
-4.210E-06,0.004
-4.200E-06,0.000
-4.190E-06,0.004
-4.180E-06,0.004
-4.170E-06,0.004
-4.160E-06,0.004
-4.150E-06,0.000
-4.140E-06,0.004
-4.130E-06,0.004
-4.120E-06,0.004
-4.110E-06,0.000
-4.100E-06,0.000
-4.090E-06,0.004
-4.080E-06,0.004
-4.070E-06,0.004
-4.060E-06,0.008
-4.050E-06,0.000
-4.040E-06,-0.004
-4.030E-06,0.000
-4.020E-06,-0.004
-4.010E-06,0.000
-4.000E-06,0.008
-3.990E-06,0.004
-3.980E-06,0.004
-3.970E-06,0.004
-3.960E-06,0.004
-3.950E-06,0.004
-3.940E-06,0.004
-3.930E-06,0.004
-3.920E-06,0.004
-3.910E-06,0.004
-3.900E-06,0.004
-3.890E-06,0.008
-3.880E-06,0.008
-3.870E-06,0.004
-3.860E-06,0.004
-3.850E-06,0.008
-3.840E-06,0.004
-3.830E-06,0.000
-3.820E-06,0.008
-3.810E-06,0.004
-3.800E-06,0.004
-3.790E-06,0.004
-3.780E-06,0.000
-3.770E-06,0.004
-3.760E-06,0.004
-3.750E-06,0.004
-3.740E-06,-0.004
-3.730E-06,0.000
-3.720E-06,0.004
-3.710E-06,0.000
-3.700E-06,0.004
-3.690E-06,-0.004
-3.680E-06,0.000
-3.670E-06,-0.004
-3.660E-06,0.004
-3.650E-06,0.004
-3.640E-06,0.004
-3.630E-06,0.008
-3.620E-06,0.004
-3.610E-06,0.004
-3.600E-06,0.004
-3.590E-06,0.000
-3.580E-06,0.004
-3.570E-06,0.004
-3.560E-06,0.004
-3.550E-06,0.008
-3.540E-06,-0.004
-3.530E-06,0.004
-3.520E-06,0.004
-3.510E-06,0.004
-3.500E-06,0.008
-3.490E-06,0.004
-3.480E-06,0.000
-3.470E-06,0.004
-3.460E-06,0.008
-3.450E-06,0.000
-3.440E-06,0.000
-3.430E-06,0.004
-3.420E-06,0.000
-3.410E-06,0.000
-3.400E-06,0.000
-3.390E-06,0.000
-3.380E-06,0.004
-3.370E-06,0.004
-3.360E-06,0.004
-3.350E-06,0.008
-3.340E-06,0.008
-3.330E-06,0.004
-3.320E-06,-0.004
-3.310E-06,0.000
-3.300E-06,0.004
-3.290E-06,0.008
-3.280E-06,0.000
-3.270E-06,0.004
-3.260E-06,0.000
-3.250E-06,0.000
-3.240E-06,0.004
-3.230E-06,0.004
-3.220E-06,0.008
-3.210E-06,0.004
-3.200E-06,0.008
-3.190E-06,0.004
-3.180E-06,0.008
-3.170E-06,0.004
-3.160E-06,0.000
-3.150E-06,-0.004
-3.140E-06,0.000
-3.130E-06,0.000
-3.120E-06,0.004
-3.110E-06,0.000
-3.100E-06,0.004
-3.090E-06,0.008
-3.080E-06,0.008
-3.070E-06,0.008
-3.060E-06,0.000
-3.050E-06,0.000
-3.040E-06,0.000
-3.030E-06,0.004
-3.020E-06,0.004
-3.010E-06,0.004
-3.000E-06,0.004
-2.990E-06,0.004
-2.980E-06,0.004
-2.970E-06,0.004
-2.960E-06,0.004
-2.950E-06,0.004
-2.940E-06,0.000
-2.930E-06,0.004
-2.920E-06,0.004
-2.910E-06,0.008
-2.900E-06,0.008
-2.890E-06,0.008
-2.880E-06,0.008
-2.870E-06,0.000
-2.860E-06,0.000
-2.850E-06,0.000
-2.840E-06,0.004
-2.830E-06,0.008
-2.820E-06,0.008
-2.810E-06,0.004
-2.800E-06,0.004
-2.790E-06,-0.004
-2.780E-06,0.000
-2.770E-06,0.008
-2.760E-06,0.000
-2.750E-06,0.000
-2.740E-06,0.008
-2.730E-06,0.004
-2.720E-06,0.008
-2.710E-06,0.004
-2.700E-06,0.004
-2.690E-06,0.004
-2.680E-06,0.004
-2.670E-06,0.008
-2.660E-06,0.008
-2.650E-06,0.008
-2.640E-06,0.012
-2.630E-06,0.004
-2.620E-06,0.008
-2.610E-06,0.004
-2.600E-06,0.008
-2.590E-06,0.012
-2.580E-06,0.012
-2.570E-06,0.012
-2.560E-06,-0.004
-2.550E-06,-0.008
-2.540E-06,-0.008
-2.530E-06,-0.004
-2.520E-06,0.004
-2.510E-06,0.012
-2.500E-06,0.012
-2.490E-06,0.004
-2.480E-06,0.000
-2.470E-06,-0.008
-2.460E-06,-0.004
-2.450E-06,-0.004
-2.440E-06,0.008
-2.430E-06,0.004
-2.420E-06,0.004
-2.410E-06,0.000
-2.400E-06,0.000
-2.390E-06,0.000
-2.380E-06,0.000
-2.370E-06,0.000
-2.360E-06,0.000
-2.350E-06,0.000
-2.340E-06,0.004
-2.330E-06,0.012
-2.320E-06,0.004
-2.310E-06,0.004
-2.300E-06,0.004
-2.290E-06,0.004
-2.280E-06,0.004
-2.270E-06,0.008
-2.260E-06,0.012
-2.250E-06,0.008
-2.240E-06,0.012
-2.230E-06,0.012
-2.220E-06,0.008
-2.210E-06,0.012
-2.200E-06,0.008
-2.190E-06,0.020
-2.180E-06,0.028
-2.170E-06,0.024
-2.160E-06,0.016
-2.150E-06,-0.004
-2.140E-06,-0.032
-2.130E-06,-0.044
-2.120E-06,-0.040
-2.110E-06,-0.016
-2.100E-06,0.000
-2.090E-06,0.016
-2.080E-06,0.016
-2.070E-06,0.004
-2.060E-06,0.000
-2.050E-06,-0.008
-2.040E-06,-0.016
-2.030E-06,-0.012
-2.020E-06,-0.008
-2.010E-06,0.004
-2.000E-06,0.004
-1.990E-06,0.008
-1.980E-06,0.004
-1.970E-06,0.000
-1.960E-06,-0.004
-1.950E-06,-0.004
-1.940E-06,0.000
-1.930E-06,0.004
-1.920E-06,0.004
-1.910E-06,0.004
-1.900E-06,0.008
-1.890E-06,0.000
-1.880E-06,0.000
-1.870E-06,0.000
-1.860E-06,0.000
-1.850E-06,0.004
-1.840E-06,0.004
-1.830E-06,0.008
-1.820E-06,0.012
-1.810E-06,0.012
-1.800E-06,0.008
-1.790E-06,0.000
-1.780E-06,0.004
-1.770E-06,0.004
-1.760E-06,0.004
-1.750E-06,0.012
-1.740E-06,0.012
-1.730E-06,0.008
-1.720E-06,0.012
-1.710E-06,0.004
-1.700E-06,0.004
-1.690E-06,0.008
-1.680E-06,0.012
-1.670E-06,0.012
-1.660E-06,0.012
-1.650E-06,0.000
-1.640E-06,0.004
-1.630E-06,0.004
-1.620E-06,-0.008
-1.610E-06,-0.004
-1.600E-06,0.000
-1.590E-06,-0.004
-1.580E-06,0.004
-1.570E-06,0.012
-1.560E-06,0.008
-1.550E-06,0.008
-1.540E-06,0.012
-1.530E-06,0.004
-1.520E-06,0.004
-1.510E-06,0.008
-1.500E-06,0.016
-1.490E-06,0.012
-1.480E-06,0.008
-1.470E-06,0.008
-1.460E-06,0.016
-1.450E-06,0.016
-1.440E-06,0.004
-1.430E-06,0.000
-1.420E-06,-0.004
-1.410E-06,0.000
-1.400E-06,0.004
-1.390E-06,0.008
-1.380E-06,0.008
-1.370E-06,0.004
-1.360E-06,0.012
-1.350E-06,0.012
-1.340E-06,0.012
-1.330E-06,0.024
-1.320E-06,0.016
-1.310E-06,0.012
-1.300E-06,0.000
-1.290E-06,-0.008
-1.280E-06,-0.016
-1.270E-06,-0.004
-1.260E-06,0.000
-1.250E-06,0.008
-1.240E-06,0.016
-1.230E-06,0.008
-1.220E-06,0.008
-1.210E-06,0.004
-1.200E-06,0.008
-1.190E-06,0.012
-1.180E-06,0.024
-1.170E-06,0.028
-1.160E-06,0.024
-1.150E-06,0.004
-1.140E-06,-0.008
-1.130E-06,-0.028
-1.120E-06,-0.020
-1.110E-06,0.000
-1.100E-06,0.008
-1.090E-06,0.012
-1.080E-06,0.008
-1.070E-06,0.000
-1.060E-06,-0.008
-1.050E-06,-0.012
-1.040E-06,-0.012
-1.030E-06,0.000
-1.020E-06,0.004
-1.010E-06,0.008
-1.000E-06,0.008
-9.900E-07,0.004
-9.800E-07,0.004
-9.700E-07,0.008
-9.600E-07,0.000
-9.500E-07,0.000
-9.400E-07,0.012
-9.300E-07,0.020
-9.200E-07,0.020
-9.100E-07,0.016
-9.000E-07,0.024
-8.900E-07,0.020
-8.800E-07,0.016
-8.700E-07,0.020
-8.600E-07,0.016
-8.500E-07,0.012
-8.400E-07,0.012
-8.300E-07,0.008
-8.200E-07,0.008
-8.100E-07,0.012
-8.000E-07,0.012
-7.900E-07,0.012
-7.800E-07,0.008
-7.700E-07,0.004
-7.600E-07,-0.004
-7.500E-07,-0.008
-7.400E-07,-0.008
-7.300E-07,0.000
-7.200E-07,0.012
-7.100E-07,0.024
-7.000E-07,0.028
-6.900E-07,0.016
-6.800E-07,0.004
-6.700E-07,-0.004
-6.600E-07,0.000
-6.500E-07,0.012
-6.400E-07,0.020
-6.300E-07,0.020
-6.200E-07,0.024
-6.100E-07,0.016
-6.000E-07,0.012
-5.900E-07,0.008
-5.800E-07,0.008
-5.700E-07,0.012
-5.600E-07,0.016
-5.500E-07,0.024
-5.400E-07,0.024
-5.300E-07,0.028
-5.200E-07,0.024
-5.100E-07,0.028
-5.000E-07,0.024
-4.900E-07,0.024
-4.800E-07,0.028
-4.700E-07,0.032
-4.600E-07,0.024
-4.500E-07,0.032
-4.400E-07,0.044
-4.300E-07,0.040
-4.200E-07,0.028
-4.100E-07,0.032
-4.000E-07,0.024
-3.900E-07,0.020
-3.800E-07,0.020
-3.700E-07,0.028
-3.600E-07,0.032
-3.500E-07,0.036
-3.400E-07,0.028
-3.300E-07,0.028
-3.200E-07,0.032
-3.100E-07,0.028
-3.000E-07,0.036
-2.900E-07,0.048
-2.800E-07,0.048
-2.700E-07,0.052
-2.600E-07,0.044
-2.500E-07,0.032
-2.400E-07,0.044
-2.300E-07,0.048
-2.200E-07,0.056
-2.100E-07,0.068
-2.000E-07,0.068
-1.900E-07,0.072
-1.800E-07,0.068
-1.700E-07,0.072
-1.600E-07,0.076
-1.500E-07,0.076
-1.400E-07,0.084
-1.300E-07,0.080
-1.200E-07,0.068
-1.100E-07,0.056
-1.000E-07,0.020
-9.000E-08,0.016
-8.000E-08,0.016
-7.000E-08,-0.120
-6.000E-08,-0.316
-5.000E-08,-0.512
-4.000E-08,-0.508
-3.000E-08,-0.424
-2.000E-08,-0.124
-1.000E-08,0.224
0.000E+00,0.336
1.000E-08,0.320
2.000E-08,0.052
3.000E-08,-0.148
4.000E-08,-0.244
5.000E-08,-0.184
6.000E-08,-0.012
7.000E-08,0.116
8.000E-08,0.120
9.000E-08,0.064
1.000E-07,-0.024
1.100E-07,-0.056
1.200E-07,-0.036
1.300E-07,-0.008
1.400E-07,0.004
1.500E-07,-0.016
1.600E-07,-0.008
1.700E-07,-0.012
1.800E-07,0.004
1.900E-07,0.008
2.000E-07,0.020
2.100E-07,0.004
2.200E-07,-0.020
2.300E-07,-0.032
2.400E-07,-0.024
2.500E-07,0.000
2.600E-07,0.016
2.700E-07,0.012
2.800E-07,0.000
2.900E-07,-0.008
3.000E-07,-0.012
3.100E-07,-0.004
3.200E-07,0.004
3.300E-07,0.016
3.400E-07,0.016
3.500E-07,0.012
3.600E-07,0.004
3.700E-07,0.012
3.800E-07,0.016
3.900E-07,0.024
4.000E-07,0.028
4.100E-07,0.036
4.200E-07,0.028
4.300E-07,0.032
4.400E-07,0.028
4.500E-07,0.032
4.600E-07,0.032
4.700E-07,0.012
4.800E-07,0.008
4.900E-07,-0.004
5.000E-07,-0.008
5.100E-07,-0.008
5.200E-07,-0.012
5.300E-07,-0.012
5.400E-07,0.000
5.500E-07,0.008
5.600E-07,0.032
5.700E-07,0.044
5.800E-07,0.056
5.900E-07,0.068
6.000E-07,0.068
6.100E-07,0.068
6.200E-07,0.068
6.300E-07,0.072
6.400E-07,0.088
6.500E-07,0.092
6.600E-07,0.092
6.700E-07,0.088
6.800E-07,0.064
6.900E-07,0.052
7.000E-07,0.056
7.100E-07,0.060
7.200E-07,0.068
7.300E-07,0.072
7.400E-07,0.080
7.500E-07,0.068
7.600E-07,0.056
7.700E-07,0.052
7.800E-07,0.048
7.900E-07,0.060
8.000E-07,0.072
8.100E-07,0.076
8.200E-07,0.100
8.300E-07,0.116
8.400E-07,0.096
8.500E-07,0.096
8.600E-07,0.072
8.700E-07,0.052
8.800E-07,0.064
8.900E-07,0.052
9.000E-07,0.068
9.100E-07,0.104
9.200E-07,0.072
9.300E-07,0.056
9.400E-07,0.056
9.500E-07,-0.060
9.600E-07,-0.104
9.700E-07,-0.128
9.800E-07,-0.312
9.900E-07,-0.512
1.000E-06,-0.512
1.010E-06,-0.512
1.020E-06,-0.092
1.030E-06,0.368
1.040E-06,0.540
1.050E-06,0.320
1.060E-06,-0.028
1.070E-06,-0.460
1.080E-06,-0.512
1.090E-06,-0.376
1.100E-06,-0.040
1.110E-06,0.260
1.120E-06,0.292
1.130E-06,0.148
1.140E-06,-0.060
1.150E-06,-0.168
1.160E-06,-0.164
1.170E-06,-0.072
1.180E-06,0.020
1.190E-06,0.072
1.200E-06,0.056
1.210E-06,0.004
1.220E-06,-0.028
1.230E-06,-0.008
1.240E-06,0.012
1.250E-06,0.028
1.260E-06,0.028
1.270E-06,0.000
1.280E-06,-0.016
1.290E-06,-0.008
1.300E-06,-0.004
1.310E-06,0.020
1.320E-06,0.036
1.330E-06,0.032
1.340E-06,0.016
1.350E-06,-0.004
1.360E-06,-0.012
1.370E-06,-0.012
1.380E-06,-0.004
1.390E-06,0.012
1.400E-06,0.036
1.410E-06,0.040
1.420E-06,0.024
1.430E-06,0.024
1.440E-06,0.008
1.450E-06,0.008
1.460E-06,0.012
1.470E-06,0.032
1.480E-06,0.056
1.490E-06,0.068
1.500E-06,0.060
1.510E-06,0.060
1.520E-06,0.060
1.530E-06,0.076
1.540E-06,0.100
1.550E-06,0.128
1.560E-06,0.148
1.570E-06,0.152
1.580E-06,0.144
1.590E-06,0.120
1.600E-06,0.112
1.610E-06,0.100
1.620E-06,0.100
1.630E-06,0.128
1.640E-06,0.152
1.650E-06,0.156
1.660E-06,0.156
1.670E-06,0.136
1.680E-06,0.104
1.690E-06,0.076
1.700E-06,0.060
1.710E-06,0.092
1.720E-06,0.108
1.730E-06,0.160
1.740E-06,0.188
1.750E-06,0.232
1.760E-06,-0.116
1.770E-06,-0.512
1.780E-06,-0.512
1.790E-06,-0.508
1.800E-06,-0.508
1.810E-06,-0.164
1.820E-06,0.316
1.830E-06,0.544
1.840E-06,0.544
1.850E-06,0.088
1.860E-06,-0.404
1.870E-06,-0.512
1.880E-06,-0.372
1.890E-06,0.100
1.900E-06,0.436
1.910E-06,0.440
1.920E-06,0.196
1.930E-06,-0.104
1.940E-06,-0.308
1.950E-06,-0.180
1.960E-06,0.008
1.970E-06,0.188
1.980E-06,0.220
1.990E-06,0.132
2.000E-06,-0.040
2.010E-06,-0.140
2.020E-06,-0.148
2.030E-06,-0.072
2.040E-06,0.048
2.050E-06,0.124
2.060E-06,0.136
2.070E-06,0.088
2.080E-06,0.004
2.090E-06,-0.080
2.100E-06,-0.068
2.110E-06,-0.032
2.120E-06,0.060
2.130E-06,0.124
2.140E-06,0.152
2.150E-06,0.112
2.160E-06,0.040
2.170E-06,-0.020
2.180E-06,-0.024
2.190E-06,0.012
2.200E-06,0.072
2.210E-06,0.132
2.220E-06,0.152
2.230E-06,0.136
2.240E-06,0.068
2.250E-06,0.016
2.260E-06,-0.004
2.270E-06,0.024
2.280E-06,0.096
2.290E-06,0.160
2.300E-06,0.200
2.310E-06,0.196
2.320E-06,0.164
2.330E-06,0.124
2.340E-06,0.108
2.350E-06,0.100
2.360E-06,0.108
2.370E-06,0.112
2.380E-06,0.024
2.390E-06,-0.152
2.400E-06,-0.336
2.410E-06,-0.404
2.420E-06,-0.184
2.430E-06,0.148
2.440E-06,0.256
2.450E-06,0.220
2.460E-06,-0.096
2.470E-06,-0.512
2.480E-06,-0.512
2.490E-06,-0.508
2.500E-06,-0.336
2.510E-06,0.064
2.520E-06,0.344
2.530E-06,0.384
2.540E-06,0.156
2.550E-06,-0.096
2.560E-06,-0.212
2.570E-06,-0.196
2.580E-06,-0.060
2.590E-06,0.096
2.600E-06,0.152
2.610E-06,0.120
2.620E-06,0.040
2.630E-06,-0.020
2.640E-06,-0.048
2.650E-06,-0.028
2.660E-06,-0.004
2.670E-06,0.040
2.680E-06,0.064
2.690E-06,0.060
2.700E-06,0.028
2.710E-06,0.000
2.720E-06,-0.028
2.730E-06,-0.008
2.740E-06,0.032
2.750E-06,0.056
2.760E-06,0.072
2.770E-06,0.080
2.780E-06,0.080
2.790E-06,0.044
2.800E-06,0.044
2.810E-06,0.064
2.820E-06,0.088
2.830E-06,0.120
2.840E-06,0.148
2.850E-06,0.144
2.860E-06,0.128
2.870E-06,0.080
2.880E-06,0.028
2.890E-06,-0.020
2.900E-06,-0.056
2.910E-06,-0.068
2.920E-06,-0.076
2.930E-06,-0.064
2.940E-06,-0.064
2.950E-06,-0.040
2.960E-06,-0.008
2.970E-06,0.024
2.980E-06,0.064
2.990E-06,0.084
3.000E-06,0.092
3.010E-06,0.072
3.020E-06,0.072
3.030E-06,0.096
3.040E-06,0.112
3.050E-06,0.128
3.060E-06,0.160
3.070E-06,0.152
3.080E-06,0.148
3.090E-06,0.132
3.100E-06,0.128
3.110E-06,0.140
3.120E-06,0.148
3.130E-06,0.172
3.140E-06,0.176
3.150E-06,0.172
3.160E-06,0.156
3.170E-06,0.144
3.180E-06,0.128
3.190E-06,0.124
3.200E-06,0.124
3.210E-06,0.104
3.220E-06,0.096
3.230E-06,0.100
3.240E-06,0.092
3.250E-06,0.132
3.260E-06,0.096
3.270E-06,0.024
3.280E-06,-0.188
3.290E-06,-0.408
3.300E-06,-0.512
3.310E-06,-0.508
3.320E-06,-0.512
3.330E-06,-0.364
3.340E-06,0.108
3.350E-06,0.288
3.360E-06,0.236
3.370E-06,0.044
3.380E-06,-0.104
3.390E-06,-0.264
3.400E-06,-0.232
3.410E-06,-0.160
3.420E-06,-0.032
3.430E-06,0.016
3.440E-06,-0.016
3.450E-06,-0.080
3.460E-06,-0.160
3.470E-06,-0.136
3.480E-06,-0.080
3.490E-06,0.032
3.500E-06,0.076
3.510E-06,0.076
3.520E-06,0.040
3.530E-06,-0.020
3.540E-06,-0.048
3.550E-06,-0.088
3.560E-06,-0.020
3.570E-06,0.052
3.580E-06,0.120
3.590E-06,0.140
3.600E-06,0.100
3.610E-06,0.072
3.620E-06,0.028
3.630E-06,0.032
3.640E-06,0.064
3.650E-06,0.104
3.660E-06,0.136
3.670E-06,0.144
3.680E-06,0.120
3.690E-06,0.108
3.700E-06,0.080
3.710E-06,0.064
3.720E-06,0.088
3.730E-06,0.108
3.740E-06,0.128
3.750E-06,0.148
3.760E-06,0.140
3.770E-06,0.136
3.780E-06,0.124
3.790E-06,0.112
3.800E-06,0.124
3.810E-06,0.144
3.820E-06,0.168
3.830E-06,0.184
3.840E-06,0.184
3.850E-06,0.168
3.860E-06,0.156
3.870E-06,0.144
3.880E-06,0.140
3.890E-06,0.144
3.900E-06,0.156
3.910E-06,0.168
3.920E-06,0.168
3.930E-06,0.156
3.940E-06,0.152
3.950E-06,0.152
3.960E-06,0.148
3.970E-06,0.152
3.980E-06,0.152
3.990E-06,0.160
4.000E-06,0.168
4.010E-06,0.156
4.020E-06,0.136
4.030E-06,0.132
4.040E-06,0.128
4.050E-06,0.096
4.060E-06,0.088
4.070E-06,0.092
4.080E-06,0.096
4.090E-06,0.100
4.100E-06,0.080
4.110E-06,0.008
4.120E-06,-0.036
4.130E-06,-0.088
4.140E-06,-0.064
4.150E-06,0.060
4.160E-06,0.176
4.170E-06,0.248
4.180E-06,0.224
4.190E-06,0.152
4.200E-06,0.068
4.210E-06,0.024
4.220E-06,0.056
4.230E-06,0.108
4.240E-06,0.160
4.250E-06,0.196
4.260E-06,0.148
4.270E-06,0.088
4.280E-06,0.000
4.290E-06,-0.028
4.300E-06,-0.032
4.310E-06,-0.024
4.320E-06,0.020
4.330E-06,0.028
4.340E-06,0.044
4.350E-06,0.024
4.360E-06,0.016
4.370E-06,0.028
4.380E-06,0.052
4.390E-06,0.080
4.400E-06,0.092
4.410E-06,0.088
4.420E-06,0.096
4.430E-06,0.108
4.440E-06,0.120
4.450E-06,0.140
4.460E-06,0.160
4.470E-06,0.176
4.480E-06,0.164
4.490E-06,0.144
4.500E-06,0.124
4.510E-06,0.124
4.520E-06,0.136
4.530E-06,0.140
4.540E-06,0.156
4.550E-06,0.156
4.560E-06,0.156
4.570E-06,0.152
4.580E-06,0.148
4.590E-06,0.148
4.600E-06,0.152
4.610E-06,0.160
4.620E-06,0.160
4.630E-06,0.164
4.640E-06,0.160
4.650E-06,0.152
4.660E-06,0.152
4.670E-06,0.156
4.680E-06,0.160
4.690E-06,0.164
4.700E-06,0.156
4.710E-06,0.160
4.720E-06,0.164
4.730E-06,0.156
4.740E-06,0.160
4.750E-06,0.160
4.760E-06,0.156
4.770E-06,0.156
4.780E-06,0.160
4.790E-06,0.152
4.800E-06,0.156
4.810E-06,0.156
4.820E-06,0.160
4.830E-06,0.156
4.840E-06,0.152
4.850E-06,0.156
4.860E-06,0.156
4.870E-06,0.156
4.880E-06,0.156
4.890E-06,0.156
4.900E-06,0.160
4.910E-06,0.160
4.920E-06,0.156
4.930E-06,0.156
4.940E-06,0.164
4.950E-06,0.152
4.960E-06,0.152
4.970E-06,0.156
4.980E-06,0.156
4.990E-06,0.160
5.000E-06,0.156
5.010E-06,0.148
5.020E-06,0.148
5.030E-06,0.148
5.040E-06,0.152
5.050E-06,0.152
5.060E-06,0.152
5.070E-06,0.156
5.080E-06,0.148
5.090E-06,0.152
5.100E-06,0.152
5.110E-06,0.152
5.120E-06,0.148
5.130E-06,0.148
5.140E-06,0.152
5.150E-06,0.148
5.160E-06,0.152
5.170E-06,0.152
5.180E-06,0.156
5.190E-06,0.152
5.200E-06,0.152
5.210E-06,0.152
5.220E-06,0.152
5.230E-06,0.156
5.240E-06,0.152
5.250E-06,0.152
5.260E-06,0.152
5.270E-06,0.152
5.280E-06,0.148
5.290E-06,0.144
5.300E-06,0.152
5.310E-06,0.152
5.320E-06,0.152
5.330E-06,0.140
5.340E-06,0.144
5.350E-06,0.144
5.360E-06,0.144
5.370E-06,0.144
5.380E-06,0.144
5.390E-06,0.144
5.400E-06,0.144
5.410E-06,0.144
5.420E-06,0.144
5.430E-06,0.144
5.440E-06,0.144
5.450E-06,0.144
5.460E-06,0.144
5.470E-06,0.140
5.480E-06,0.144
5.490E-06,0.144
5.500E-06,0.144
5.510E-06,0.144
5.520E-06,0.140
5.530E-06,0.144
5.540E-06,0.144
5.550E-06,0.144
5.560E-06,0.144
5.570E-06,0.140
5.580E-06,0.132
5.590E-06,0.136
5.600E-06,0.140
5.610E-06,0.144
5.620E-06,0.136
5.630E-06,0.144
5.640E-06,0.140
5.650E-06,0.136
5.660E-06,0.140
5.670E-06,0.144
5.680E-06,0.144
5.690E-06,0.136
5.700E-06,0.140
5.710E-06,0.140
5.720E-06,0.140
5.730E-06,0.140
5.740E-06,0.132
5.750E-06,0.136
5.760E-06,0.136
5.770E-06,0.136
5.780E-06,0.140
5.790E-06,0.144
5.800E-06,0.144
5.810E-06,0.140
5.820E-06,0.140
5.830E-06,0.140
5.840E-06,0.136
5.850E-06,0.136
5.860E-06,0.140
5.870E-06,0.144
5.880E-06,0.136
5.890E-06,0.136
5.900E-06,0.128
5.910E-06,0.128
5.920E-06,0.132
5.930E-06,0.132
5.940E-06,0.132
5.950E-06,0.136
5.960E-06,0.132
5.970E-06,0.132
5.980E-06,0.132
5.990E-06,0.136
6.000E-06,0.128
6.010E-06,0.128
6.020E-06,0.128
6.030E-06,0.128
6.040E-06,0.132
6.050E-06,0.128
6.060E-06,0.128
6.070E-06,0.128
6.080E-06,0.128
6.090E-06,0.128
6.100E-06,0.128
6.110E-06,0.128
6.120E-06,0.128
6.130E-06,0.124
6.140E-06,0.124
6.150E-06,0.124
6.160E-06,0.128
6.170E-06,0.124
6.180E-06,0.120
6.190E-06,0.120
6.200E-06,0.120
6.210E-06,0.120
6.220E-06,0.120
6.230E-06,0.120
6.240E-06,0.124
6.250E-06,0.124
6.260E-06,0.124
6.270E-06,0.120
6.280E-06,0.128
6.290E-06,0.124
6.300E-06,0.128
6.310E-06,0.120
6.320E-06,0.124
6.330E-06,0.116
