mediciones/6-26/37.5/WaveData5929.csv

#timebase=2000000(ps)
,#voltbase=500000(mv/100)
#size=4000
-8.150E-06,0.040
-8.140E-06,0.060
-8.130E-06,0.060
-8.120E-06,0.080
-8.110E-06,0.060
-8.100E-06,0.080
-8.090E-06,0.080
-8.080E-06,0.060
-8.070E-06,0.040
-8.060E-06,0.060
-8.050E-06,0.060
-8.040E-06,0.040
-8.030E-06,0.060
-8.020E-06,0.040
-8.010E-06,0.020
-8.000E-06,0.040
-7.990E-06,0.080
-7.980E-06,0.080
-7.970E-06,0.040
-7.960E-06,0.040
-7.950E-06,0.080
-7.940E-06,0.060
-7.930E-06,0.040
-7.920E-06,0.060
-7.910E-06,0.040
-7.900E-06,0.060
-7.890E-06,0.060
-7.880E-06,0.080
-7.870E-06,0.060
-7.860E-06,0.060
-7.850E-06,0.060
-7.840E-06,0.040
-7.830E-06,0.140
-7.820E-06,0.380
-7.810E-06,0.940
-7.800E-06,1.540
-7.790E-06,2.120
-7.780E-06,2.460
-7.770E-06,2.340
-7.760E-06,1.900
-7.750E-06,1.000
-7.740E-06,-0.040
-7.730E-06,-1.100
-7.720E-06,-2.160
-7.710E-06,-2.660
-7.700E-06,-2.660
-7.690E-06,-2.660
-7.680E-06,-2.660
-7.670E-06,-2.660
-7.660E-06,-2.640
-7.650E-06,-1.780
-7.640E-06,-1.060
-7.630E-06,-0.500
-7.620E-06,-0.080
-7.610E-06,0.240
-7.600E-06,0.500
-7.590E-06,0.640
-7.580E-06,0.780
-7.570E-06,0.880
-7.560E-06,0.880
-7.550E-06,0.840
-7.540E-06,0.860
-7.530E-06,0.920
-7.520E-06,1.000
-7.510E-06,1.080
-7.500E-06,1.100
-7.490E-06,1.040
-7.480E-06,0.900
-7.470E-06,0.700
-7.460E-06,0.380
-7.450E-06,0.160
-7.440E-06,-0.080
-7.430E-06,-0.260
-7.420E-06,-0.340
-7.410E-06,-0.340
-7.400E-06,-0.300
-7.390E-06,-0.120
-7.380E-06,0.100
-7.370E-06,0.380
-7.360E-06,0.640
-7.350E-06,0.920
-7.340E-06,1.120
-7.330E-06,1.240
-7.320E-06,1.260
-7.310E-06,1.180
-7.300E-06,1.020
-7.290E-06,0.760
-7.280E-06,0.500
-7.270E-06,0.160
-7.260E-06,-0.180
-7.250E-06,-0.500
-7.240E-06,-0.780
-7.230E-06,-1.060
-7.220E-06,-1.320
-7.210E-06,-1.580
-7.200E-06,-1.740
-7.190E-06,-1.820
-7.180E-06,-1.800
-7.170E-06,-1.700
-7.160E-06,-1.460
-7.150E-06,-1.180
-7.140E-06,-0.840
-7.130E-06,-0.440
-7.120E-06,-0.100
-7.110E-06,0.300
-7.100E-06,0.600
-7.090E-06,0.860
-7.080E-06,1.040
-7.070E-06,1.120
-7.060E-06,1.120
-7.050E-06,1.040
-7.040E-06,0.920
-7.030E-06,0.740
-7.020E-06,0.540
-7.010E-06,0.380
-7.000E-06,0.200
-6.990E-06,0.040
-6.980E-06,0.000
-6.970E-06,-0.100
-6.960E-06,-0.160
-6.950E-06,-0.180
-6.940E-06,-0.220
-6.930E-06,-0.240
-6.920E-06,-0.280
-6.910E-06,-0.280
-6.900E-06,-0.320
-6.890E-06,-0.220
-6.880E-06,-0.180
-6.870E-06,-0.140
-6.860E-06,-0.080
-6.850E-06,0.060
-6.840E-06,0.160
-6.830E-06,0.260
-6.820E-06,0.360
-6.810E-06,0.400
-6.800E-06,0.400
-6.790E-06,0.400
-6.780E-06,0.340
-6.770E-06,0.280
-6.760E-06,0.160
-6.750E-06,0.080
-6.740E-06,0.000
-6.730E-06,-0.060
-6.720E-06,-0.140
-6.710E-06,-0.180
-6.700E-06,-0.140
-6.690E-06,-0.120
-6.680E-06,-0.100
-6.670E-06,-0.080
-6.660E-06,-0.060
-6.650E-06,-0.040
-6.640E-06,-0.020
-6.630E-06,0.000
-6.620E-06,0.060
-6.610E-06,0.020
-6.600E-06,0.040
-6.590E-06,0.040
-6.580E-06,0.060
-6.570E-06,0.040
-6.560E-06,0.000
-6.550E-06,0.040
-6.540E-06,0.040
-6.530E-06,0.040
-6.520E-06,0.040
-6.510E-06,0.080
-6.500E-06,0.120
-6.490E-06,0.120
-6.480E-06,0.140
-6.470E-06,0.140
-6.460E-06,0.100
-6.450E-06,0.080
-6.440E-06,0.040
-6.430E-06,0.100
-6.420E-06,0.140
-6.410E-06,0.120
-6.400E-06,0.060
-6.390E-06,0.000
-6.380E-06,0.000
-6.370E-06,0.000
-6.360E-06,0.000
-6.350E-06,0.060
-6.340E-06,0.080
-6.330E-06,0.080
-6.320E-06,0.100
-6.310E-06,0.080
-6.300E-06,0.100
-6.290E-06,0.160
-6.280E-06,0.160
-6.270E-06,0.200
-6.260E-06,0.220
-6.250E-06,0.180
-6.240E-06,0.200
-6.230E-06,0.160
-6.220E-06,0.200
-6.210E-06,0.180
-6.200E-06,0.180
-6.190E-06,0.160
-6.180E-06,0.160
-6.170E-06,0.100
-6.160E-06,0.080
-6.150E-06,0.080
-6.140E-06,0.040
-6.130E-06,-0.040
-6.120E-06,-0.020
-6.110E-06,-0.100
-6.100E-06,-0.140
-6.090E-06,-0.140
-6.080E-06,-0.140
-6.070E-06,-0.140
-6.060E-06,-0.100
-6.050E-06,-0.060
-6.040E-06,0.020
-6.030E-06,0.120
-6.020E-06,0.200
-6.010E-06,0.260
-6.000E-06,0.260
-5.990E-06,0.240
-5.980E-06,0.260
-5.970E-06,0.300
-5.960E-06,0.260
-5.950E-06,0.180
-5.940E-06,0.060
-5.930E-06,-0.060
-5.920E-06,-0.060
-5.910E-06,-0.020
-5.900E-06,0.140
-5.890E-06,0.260
-5.880E-06,0.360
-5.870E-06,0.320
-5.860E-06,0.340
-5.850E-06,0.200
-5.840E-06,0.140
-5.830E-06,0.200
-5.820E-06,0.280
-5.810E-06,0.400
-5.800E-06,0.480
-5.790E-06,0.500
-5.780E-06,0.480
-5.770E-06,0.320
-5.760E-06,0.200
-5.750E-06,0.240
-5.740E-06,0.260
-5.730E-06,0.340
-5.720E-06,0.400
-5.710E-06,0.400
-5.700E-06,0.260
-5.690E-06,0.160
-5.680E-06,0.080
-5.670E-06,0.080
-5.660E-06,0.060
-5.650E-06,0.080
-5.640E-06,0.100
-5.630E-06,0.020
-5.620E-06,0.000
-5.610E-06,-0.060
-5.600E-06,-0.080
-5.590E-06,-0.060
-5.580E-06,-0.020
-5.570E-06,-0.040
-5.560E-06,-0.060
-5.550E-06,-0.060
-5.540E-06,-0.080
-5.530E-06,-0.060
-5.520E-06,-0.080
-5.510E-06,-0.120
-5.500E-06,-0.040
-5.490E-06,-0.060
-5.480E-06,-0.040
-5.470E-06,-0.060
-5.460E-06,-0.020
-5.450E-06,0.000
-5.440E-06,0.000
-5.430E-06,0.000
-5.420E-06,0.080
-5.410E-06,0.060
-5.400E-06,0.120
-5.390E-06,0.240
-5.380E-06,0.260
-5.370E-06,0.300
-5.360E-06,0.340
-5.350E-06,0.340
-5.340E-06,0.400
-5.330E-06,0.400
-5.320E-06,0.420
-5.310E-06,0.420
-5.300E-06,0.440
-5.290E-06,0.380
-5.280E-06,0.360
-5.270E-06,0.340
-5.260E-06,0.360
-5.250E-06,0.340
-5.240E-06,0.320
-5.230E-06,0.320
-5.220E-06,0.440
-5.210E-06,0.680
-5.200E-06,0.460
-5.190E-06,0.160
-5.180E-06,0.300
-5.170E-06,0.220
-5.160E-06,0.660
-5.150E-06,1.020
-5.140E-06,1.020
-5.130E-06,0.800
-5.120E-06,0.380
-5.110E-06,-0.020
-5.100E-06,0.100
-5.090E-06,0.380
-5.080E-06,0.520
-5.070E-06,0.680
-5.060E-06,0.400
-5.050E-06,0.020
-5.040E-06,-0.220
-5.030E-06,-0.340
-5.020E-06,-0.280
-5.010E-06,-0.060
-5.000E-06,-0.040
-4.990E-06,-0.180
-4.980E-06,-0.340
-4.970E-06,-0.500
-4.960E-06,-0.540
-4.950E-06,-0.420
-4.940E-06,-0.360
-4.930E-06,-0.240
-4.920E-06,-0.240
-4.910E-06,-0.280
-4.900E-06,-0.340
-4.890E-06,-0.380
-4.880E-06,-0.400
-4.870E-06,-0.300
-4.860E-06,-0.240
-4.850E-06,-0.180
-4.840E-06,-0.100
-4.830E-06,-0.140
-4.820E-06,-0.180
-4.810E-06,-0.200
-4.800E-06,-0.160
-4.790E-06,-0.080
-4.780E-06,0.020
-4.770E-06,0.160
-4.760E-06,0.240
-4.750E-06,0.240
-4.740E-06,0.200
-4.730E-06,0.180
-4.720E-06,0.180
-4.710E-06,0.280
-4.700E-06,0.420
-4.690E-06,0.500
-4.680E-06,0.640
-4.670E-06,0.660
-4.660E-06,0.640
-4.650E-06,0.560
-4.640E-06,0.540
-4.630E-06,0.480
-4.620E-06,0.540
-4.610E-06,0.600
-4.600E-06,0.600
-4.590E-06,0.640
-4.580E-06,0.560
-4.570E-06,0.480
-4.560E-06,0.240
-4.550E-06,-0.040
-4.540E-06,-0.140
-4.530E-06,-0.240
-4.520E-06,-0.140
-4.510E-06,0.060
-4.500E-06,0.200
-4.490E-06,0.360
-4.480E-06,0.400
-4.470E-06,0.140
-4.460E-06,0.220
-4.450E-06,0.240
-4.440E-06,0.500
-4.430E-06,0.880
-4.420E-06,1.020
-4.410E-06,0.920
-4.400E-06,0.600
-4.390E-06,0.300
-4.380E-06,0.180
-4.370E-06,0.200
-4.360E-06,0.160
-4.350E-06,0.200
-4.340E-06,0.040
-4.330E-06,-0.180
-4.320E-06,-0.340
-4.310E-06,-0.460
-4.300E-06,-0.500
-4.290E-06,-0.440
-4.280E-06,-0.400
-4.270E-06,-0.380
-4.260E-06,-0.460
-4.250E-06,-0.540
-4.240E-06,-0.580
-4.230E-06,-0.540
-4.220E-06,-0.480
-4.210E-06,-0.380
-4.200E-06,-0.380
-4.190E-06,-0.320
-4.180E-06,-0.340
-4.170E-06,-0.360
-4.160E-06,-0.340
-4.150E-06,-0.300
-4.140E-06,-0.240
-4.130E-06,-0.180
-4.120E-06,-0.080
-4.110E-06,0.020
-4.100E-06,0.000
-4.090E-06,0.040
-4.080E-06,0.040
-4.070E-06,0.000
-4.060E-06,0.100
-4.050E-06,0.160
-4.040E-06,0.240
-4.030E-06,0.540
-4.020E-06,0.880
-4.010E-06,0.040
-4.000E-06,0.500
-3.990E-06,0.660
-3.980E-06,1.360
-3.970E-06,2.200
-3.960E-06,2.460
-3.950E-06,2.160
-3.940E-06,1.380
-3.930E-06,0.480
-3.920E-06,0.240
-3.910E-06,0.540
-3.900E-06,0.820
-3.890E-06,1.180
-3.880E-06,1.060
-3.870E-06,0.680
-3.860E-06,0.260
-3.850E-06,-0.160
-3.840E-06,-0.420
-3.830E-06,-0.320
-3.820E-06,-0.240
-3.810E-06,-0.260
-3.800E-06,-0.380
-3.790E-06,-0.600
-3.780E-06,-0.820
-3.770E-06,-0.900
-3.760E-06,-0.920
-3.750E-06,-0.920
-3.740E-06,-0.840
-3.730E-06,-0.800
-3.720E-06,-0.840
-3.710E-06,-0.940
-3.700E-06,-0.960
-3.690E-06,-1.020
-3.680E-06,-0.960
-3.670E-06,-0.840
-3.660E-06,-0.760
-3.650E-06,-0.740
-3.640E-06,-0.740
-3.630E-06,-0.760
-3.620E-06,-0.540
-3.610E-06,-0.080
-3.600E-06,0.360
-3.590E-06,0.360
-3.580E-06,1.000
-3.570E-06,1.400
-3.560E-06,2.120
-3.550E-06,2.780
-3.540E-06,2.620
-3.530E-06,2.280
-3.520E-06,1.680
-3.510E-06,1.000
-3.500E-06,1.100
-3.490E-06,1.320
-3.480E-06,1.360
-3.470E-06,1.360
-3.460E-06,0.940
-3.450E-06,0.460
-3.440E-06,0.140
-3.430E-06,-0.180
-3.420E-06,-0.180
-3.410E-06,-0.140
-3.400E-06,-0.160
-3.390E-06,-0.360
-3.380E-06,-0.560
-3.370E-06,-0.740
-3.360E-06,-0.800
-3.350E-06,-0.680
-3.340E-06,-0.640
-3.330E-06,-0.580
-3.320E-06,-0.600
-3.310E-06,-0.720
-3.300E-06,-0.860
-3.290E-06,-0.940
-3.280E-06,-0.920
-3.270E-06,-0.900
-3.260E-06,-0.860
-3.250E-06,-0.840
-3.240E-06,-0.860
-3.230E-06,-0.920
-3.220E-06,-0.920
-3.210E-06,-0.860
-3.200E-06,-0.740
-3.190E-06,-0.660
-3.180E-06,-0.480
-3.170E-06,-0.320
-3.160E-06,-0.200
-3.150E-06,0.000
-3.140E-06,0.280
-3.130E-06,0.540
-3.120E-06,0.720
-3.110E-06,0.720
-3.100E-06,0.780
-3.090E-06,0.860
-3.080E-06,0.980
-3.070E-06,1.160
-3.060E-06,1.320
-3.050E-06,1.260
-3.040E-06,1.140
-3.030E-06,0.960
-3.020E-06,0.820
-3.010E-06,0.820
-3.000E-06,0.920
-2.990E-06,1.020
-2.980E-06,1.120
-2.970E-06,1.080
-2.960E-06,0.940
-2.950E-06,0.740
-2.940E-06,0.500
-2.930E-06,0.440
-2.920E-06,0.400
-2.910E-06,0.340
-2.900E-06,0.000
-2.890E-06,0.300
-2.880E-06,0.520
-2.870E-06,1.120
-2.860E-06,1.980
-2.850E-06,1.960
-2.840E-06,1.660
-2.830E-06,1.060
-2.820E-06,0.120
-2.810E-06,0.040
-2.800E-06,0.120
-2.790E-06,-0.020
-2.780E-06,-0.040
-2.770E-06,-0.280
-2.760E-06,-0.640
-2.750E-06,-0.820
-2.740E-06,-1.080
-2.730E-06,-1.260
-2.720E-06,-1.340
-2.710E-06,-1.480
-2.700E-06,-2.280
-2.690E-06,-2.660
-2.680E-06,-2.660
-2.670E-06,-2.640
-2.660E-06,-2.480
-2.650E-06,-0.820
-2.640E-06,0.620
-2.630E-06,2.020
-2.620E-06,2.580
-2.610E-06,2.260
-2.600E-06,1.640
-2.590E-06,0.780
-2.580E-06,0.260
-2.570E-06,0.380
-2.560E-06,0.680
-2.550E-06,0.900
-2.540E-06,1.020
-2.530E-06,0.780
-2.520E-06,0.520
-2.510E-06,0.320
-2.500E-06,0.220
-2.490E-06,0.200
-2.480E-06,0.260
-2.470E-06,0.320
-2.460E-06,0.300
-2.450E-06,0.280
-2.440E-06,0.160
-2.430E-06,0.100
-2.420E-06,0.060
-2.410E-06,0.060
-2.400E-06,0.080
-2.390E-06,0.000
-2.380E-06,-0.040
-2.370E-06,-0.220
-2.360E-06,-0.280
-2.350E-06,-0.380
-2.340E-06,-0.420
-2.330E-06,-0.420
-2.320E-06,-0.420
-2.310E-06,-0.420
-2.300E-06,-0.500
-2.290E-06,-0.500
-2.280E-06,-0.520
-2.270E-06,-0.580
-2.260E-06,-0.580
-2.250E-06,-0.580
-2.240E-06,-0.560
-2.230E-06,-0.520
-2.220E-06,-0.480
-2.210E-06,-0.460
-2.200E-06,-0.380
-2.190E-06,-0.360
-2.180E-06,-0.380
-2.170E-06,-0.340
-2.160E-06,-0.300
-2.150E-06,-0.320
-2.140E-06,-0.360
-2.130E-06,-0.220
-2.120E-06,-0.120
-2.110E-06,-0.400
-2.100E-06,-0.440
-2.090E-06,0.100
-2.080E-06,0.620
-2.070E-06,1.880
-2.060E-06,2.760
-2.050E-06,2.760
-2.040E-06,2.760
-2.030E-06,2.260
-2.020E-06,1.120
-2.010E-06,0.700
-2.000E-06,0.780
-1.990E-06,0.720
-1.980E-06,0.960
-1.970E-06,0.960
-1.960E-06,0.460
-1.950E-06,0.200
-1.940E-06,-0.080
-1.930E-06,-0.340
-1.920E-06,-0.220
-1.910E-06,-0.180
-1.900E-06,-0.220
-1.890E-06,-0.340
-1.880E-06,-0.660
-1.870E-06,-1.040
-1.860E-06,-1.380
-1.850E-06,-1.840
-1.840E-06,-2.680
-1.830E-06,-2.680
-1.820E-06,-2.440
-1.810E-06,-1.760
-1.800E-06,-0.160
-1.790E-06,1.200
-1.780E-06,2.320
-1.770E-06,2.540
-1.760E-06,2.000
-1.750E-06,1.320
-1.740E-06,0.780
-1.730E-06,0.500
-1.720E-06,0.580
-1.710E-06,0.680
-1.700E-06,0.680
-1.690E-06,0.560
-1.680E-06,0.240
-1.670E-06,-0.060
-1.660E-06,-0.180
-1.650E-06,-0.280
-1.640E-06,-0.200
-1.630E-06,-0.200
-1.620E-06,-0.180
-1.610E-06,-0.280
-1.600E-06,-0.320
-1.590E-06,-0.400
-1.580E-06,-0.600
-1.570E-06,-0.720
-1.560E-06,-1.160
-1.550E-06,-1.680
-1.540E-06,-1.580
-1.530E-06,-1.180
-1.520E-06,-0.240
-1.510E-06,0.780
-1.500E-06,1.580
-1.490E-06,1.940
-1.480E-06,1.760
-1.470E-06,1.260
-1.460E-06,0.920
-1.450E-06,0.700
-1.440E-06,0.620
-1.430E-06,0.640
-1.420E-06,0.560
-1.410E-06,0.420
-1.400E-06,0.200
-1.390E-06,-0.020
-1.380E-06,-0.240
-1.370E-06,-0.320
-1.360E-06,-0.320
-1.350E-06,-0.300
-1.340E-06,-0.320
-1.330E-06,-0.360
-1.320E-06,-0.340
-1.310E-06,-0.340
-1.300E-06,-0.300
-1.290E-06,-0.300
-1.280E-06,-0.260
-1.270E-06,-0.280
-1.260E-06,-0.280
-1.250E-06,-0.260
-1.240E-06,-0.360
-1.230E-06,-0.500
-1.220E-06,-0.680
-1.210E-06,-1.320
-1.200E-06,-1.900
-1.190E-06,-2.660
-1.180E-06,-2.660
-1.170E-06,-2.660
-1.160E-06,-2.660
-1.150E-06,-2.160
-1.140E-06,-1.300
-1.130E-06,-0.360
-1.120E-06,-0.120
-1.110E-06,0.340
-1.100E-06,1.180
-1.090E-06,2.500
-1.080E-06,2.760
-1.070E-06,2.780
-1.060E-06,2.760
-1.050E-06,2.780
-1.040E-06,2.760
-1.030E-06,2.760
-1.020E-06,2.740
-1.010E-06,2.760
-1.000E-06,2.760
-9.900E-07,2.080
-9.800E-07,1.080
-9.700E-07,0.400
-9.600E-07,-0.480
-9.500E-07,-1.560
-9.400E-07,-2.320
-9.300E-07,-2.680
-9.200E-07,-2.680
-9.100E-07,-2.660
-9.000E-07,-2.660
-8.900E-07,-2.660
-8.800E-07,-2.460
-8.700E-07,-0.800
-8.600E-07,0.320
-8.500E-07,1.480
-8.400E-07,2.480
-8.300E-07,2.760
-8.200E-07,2.760
-8.100E-07,2.780
-8.000E-07,2.780
-7.900E-07,2.760
-7.800E-07,2.780
-7.700E-07,1.700
-7.600E-07,0.660
-7.500E-07,-0.360
-7.400E-07,-1.180
-7.300E-07,-1.520
-7.200E-07,-1.800
-7.100E-07,-1.980
-7.000E-07,-2.140
-6.900E-07,-2.380
-6.800E-07,-2.460
-6.700E-07,-2.460
-6.600E-07,-2.360
-6.500E-07,-2.300
-6.400E-07,-2.300
-6.300E-07,-2.420
-6.200E-07,-2.560
-6.100E-07,-2.660
-6.000E-07,-2.660
-5.900E-07,-2.660
-5.800E-07,-2.660
-5.700E-07,-2.660
-5.600E-07,-2.500
-5.500E-07,-2.000
-5.400E-07,-1.400
-5.300E-07,-0.300
-5.200E-07,0.940
-5.100E-07,2.120
-5.000E-07,2.780
-4.900E-07,2.760
-4.800E-07,2.780
-4.700E-07,2.760
-4.600E-07,2.760
-4.500E-07,2.760
-4.400E-07,2.780
-4.300E-07,2.760
-4.200E-07,2.760
-4.100E-07,1.880
-4.000E-07,1.000
-3.900E-07,0.160
-3.800E-07,-0.500
-3.700E-07,-1.180
-3.600E-07,-1.760
-3.500E-07,-2.180
-3.400E-07,-2.320
-3.300E-07,-2.100
-3.200E-07,-1.520
-3.100E-07,-0.740
-3.000E-07,-0.040
-2.900E-07,0.740
-2.800E-07,1.440
-2.700E-07,1.880
-2.600E-07,2.060
-2.500E-07,2.020
-2.400E-07,1.540
-2.300E-07,1.040
-2.200E-07,0.580
-2.100E-07,0.420
-2.000E-07,0.240
-1.900E-07,0.020
-1.800E-07,-0.100
-1.700E-07,-0.200
-1.600E-07,-0.080
-1.500E-07,-0.200
-1.400E-07,0.780
-1.300E-07,2.260
-1.200E-07,2.780
-1.100E-07,2.760
-1.000E-07,2.760
-9.000E-08,2.740
-8.000E-08,2.760
-7.000E-08,2.780
-6.000E-08,2.760
-5.000E-08,2.760
-4.000E-08,2.760
-3.000E-08,2.760
-2.000E-08,-2.660
-1.000E-08,-2.660
0.000E+00,-2.660
1.000E-08,-2.660
2.000E-08,-2.660
3.000E-08,-2.660
4.000E-08,-2.660
5.000E-08,-2.660
6.000E-08,-2.660
7.000E-08,-2.660
8.000E-08,-2.660
9.000E-08,-1.020
1.000E-07,0.660
1.100E-07,2.060
1.200E-07,2.740
1.300E-07,2.760
1.400E-07,2.780
1.500E-07,2.760
1.600E-07,2.440
1.700E-07,1.100
1.800E-07,-0.400
1.900E-07,-1.580
2.000E-07,-2.420
2.100E-07,-2.660
2.200E-07,-2.660
2.300E-07,-2.660
2.400E-07,-2.140
2.500E-07,-1.180
2.600E-07,-0.280
2.700E-07,0.640
2.800E-07,1.560
2.900E-07,2.220
3.000E-07,2.700
3.100E-07,2.760
3.200E-07,2.780
3.300E-07,2.760
3.400E-07,2.760
3.500E-07,2.760
3.600E-07,2.620
3.700E-07,2.240
3.800E-07,2.000
3.900E-07,1.580
4.000E-07,1.140
4.100E-07,0.840
4.200E-07,0.640
4.300E-07,0.740
4.400E-07,0.840
4.500E-07,1.060
4.600E-07,1.620
4.700E-07,2.160
4.800E-07,2.720
4.900E-07,2.780
5.000E-07,2.780
5.100E-07,2.760
5.200E-07,1.820
5.300E-07,0.660
5.400E-07,-0.660
5.500E-07,-1.760
5.600E-07,-2.520
5.700E-07,-2.640
5.800E-07,-2.660
5.900E-07,-2.660
6.000E-07,-2.360
6.100E-07,-1.380
6.200E-07,-0.100
6.300E-07,1.560
6.400E-07,2.760
6.500E-07,2.780
6.600E-07,2.780
6.700E-07,2.760
6.800E-07,2.780
6.900E-07,2.780
7.000E-07,1.900
7.100E-07,0.860
7.200E-07,0.080
7.300E-07,-0.360
7.400E-07,-0.740
7.500E-07,-0.940
7.600E-07,-1.060
7.700E-07,-0.900
7.800E-07,-0.600
7.900E-07,-0.300
8.000E-07,0.060
8.100E-07,0.520
8.200E-07,0.940
8.300E-07,1.300
8.400E-07,1.600
8.500E-07,1.880
8.600E-07,2.040
8.700E-07,2.260
8.800E-07,2.400
8.900E-07,2.440
9.000E-07,2.380
9.100E-07,2.140
9.200E-07,1.720
9.300E-07,1.280
9.400E-07,0.760
9.500E-07,0.260
9.600E-07,-0.140
9.700E-07,-0.560
9.800E-07,-0.840
9.900E-07,-1.040
1.000E-06,-1.100
1.010E-06,-1.120
1.020E-06,-0.980
1.030E-06,-0.720
1.040E-06,-0.480
1.050E-06,-0.180
1.060E-06,0.160
1.070E-06,0.460
1.080E-06,0.700
1.090E-06,0.960
1.100E-06,1.080
1.110E-06,1.220
1.120E-06,1.280
1.130E-06,1.240
1.140E-06,1.140
1.150E-06,1.040
1.160E-06,0.880
1.170E-06,0.720
1.180E-06,0.600
1.190E-06,0.480
1.200E-06,0.420
1.210E-06,0.360
1.220E-06,0.440
1.230E-06,0.520
1.240E-06,0.620
1.250E-06,0.760
1.260E-06,0.880
1.270E-06,0.960
1.280E-06,1.060
1.290E-06,1.060
1.300E-06,1.080
1.310E-06,1.000
1.320E-06,0.960
1.330E-06,0.880
1.340E-06,0.680
1.350E-06,0.440
1.360E-06,0.160
1.370E-06,-0.140
1.380E-06,-0.400
1.390E-06,-0.580
1.400E-06,-0.800
1.410E-06,-1.100
1.420E-06,-1.320
1.430E-06,-1.540
1.440E-06,-1.720
1.450E-06,-1.780
1.460E-06,-1.800
1.470E-06,-1.780
1.480E-06,-1.720
1.490E-06,-1.640
1.500E-06,-1.480
1.510E-06,-1.260
1.520E-06,-1.000
1.530E-06,-0.740
1.540E-06,-0.500
1.550E-06,-0.300
1.560E-06,-0.180
1.570E-06,-0.120
1.580E-06,-0.140
1.590E-06,-0.160
1.600E-06,-0.200
1.610E-06,-0.160
1.620E-06,-0.060
1.630E-06,0.020
1.640E-06,0.180
1.650E-06,0.280
1.660E-06,0.340
1.670E-06,0.300
1.680E-06,0.280
1.690E-06,0.240
1.700E-06,0.240
1.710E-06,0.220
1.720E-06,0.240
1.730E-06,0.280
1.740E-06,0.380
1.750E-06,0.460
1.760E-06,0.520
1.770E-06,0.640
1.780E-06,0.720
1.790E-06,0.720
1.800E-06,0.760
1.810E-06,0.680
1.820E-06,0.720
1.830E-06,0.820
1.840E-06,0.960
1.850E-06,1.020
1.860E-06,1.000
1.870E-06,0.940
1.880E-06,0.800
1.890E-06,0.680
1.900E-06,0.680
1.910E-06,0.540
1.920E-06,0.460
1.930E-06,0.360
1.940E-06,0.260
1.950E-06,0.200
1.960E-06,0.220
1.970E-06,0.220
1.980E-06,0.280
1.990E-06,0.320
2.000E-06,0.400
2.010E-06,0.380
2.020E-06,0.400
2.030E-06,0.400
2.040E-06,0.400
2.050E-06,0.380
2.060E-06,0.320
2.070E-06,0.340
2.080E-06,0.260
2.090E-06,0.220
2.100E-06,0.200
2.110E-06,0.160
2.120E-06,0.120
2.130E-06,0.080
2.140E-06,0.060
2.150E-06,0.000
2.160E-06,0.000
2.170E-06,0.000
2.180E-06,0.000
2.190E-06,0.000
2.200E-06,0.060
2.210E-06,0.080
2.220E-06,0.080
2.230E-06,0.140
2.240E-06,0.180
2.250E-06,0.180
2.260E-06,0.200
2.270E-06,0.220
2.280E-06,0.240
2.290E-06,0.260
2.300E-06,0.260
2.310E-06,0.280
2.320E-06,0.240
2.330E-06,0.280
2.340E-06,0.300
2.350E-06,0.300
2.360E-06,0.320
2.370E-06,0.320
2.380E-06,0.340
2.390E-06,0.400
2.400E-06,0.400
2.410E-06,0.460
2.420E-06,0.500
2.430E-06,0.520
2.440E-06,0.600
2.450E-06,0.620
2.460E-06,0.600
2.470E-06,0.600
2.480E-06,0.580
2.490E-06,0.520
2.500E-06,0.500
2.510E-06,0.460
2.520E-06,0.440
2.530E-06,0.420
2.540E-06,0.420
2.550E-06,0.400
2.560E-06,0.400
2.570E-06,0.420
2.580E-06,0.460
2.590E-06,0.440
2.600E-06,0.480
2.610E-06,0.500
2.620E-06,0.540
2.630E-06,0.560
2.640E-06,0.580
2.650E-06,0.600
2.660E-06,0.660
2.670E-06,0.680
2.680E-06,0.700
2.690E-06,0.720
2.700E-06,0.660
2.710E-06,0.660
2.720E-06,0.640
2.730E-06,0.640
2.740E-06,0.620
2.750E-06,0.600
2.760E-06,0.600
2.770E-06,0.560
2.780E-06,0.580
2.790E-06,0.540
2.800E-06,0.520
2.810E-06,0.540
2.820E-06,0.520
2.830E-06,0.500
2.840E-06,0.500
2.850E-06,0.460
2.860E-06,0.440
2.870E-06,0.380
2.880E-06,0.320
2.890E-06,0.280
2.900E-06,0.220
2.910E-06,0.120
2.920E-06,0.020
2.930E-06,-0.080
2.940E-06,-0.140
2.950E-06,-0.140
2.960E-06,-0.140
2.970E-06,-0.120
2.980E-06,-0.160
2.990E-06,-0.220
3.000E-06,-0.300
3.010E-06,-0.300
3.020E-06,-0.260
3.030E-06,-0.260
3.040E-06,-0.180
3.050E-06,-0.140
3.060E-06,-0.040
3.070E-06,0.060
3.080E-06,0.120
3.090E-06,0.160
3.100E-06,0.260
3.110E-06,0.340
3.120E-06,0.480
3.130E-06,0.600
3.140E-06,0.600
3.150E-06,0.560
3.160E-06,0.480
3.170E-06,0.380
3.180E-06,0.300
3.190E-06,0.220
3.200E-06,0.120
3.210E-06,0.060
3.220E-06,0.020
3.230E-06,0.060
3.240E-06,0.100
3.250E-06,0.120
3.260E-06,0.180
3.270E-06,0.200
3.280E-06,0.260
3.290E-06,0.260
3.300E-06,0.360
3.310E-06,0.320
3.320E-06,0.360
3.330E-06,0.360
3.340E-06,0.360
3.350E-06,0.360
3.360E-06,0.360
3.370E-06,0.340
3.380E-06,0.320
3.390E-06,0.300
3.400E-06,0.260
3.410E-06,0.240
3.420E-06,0.200
3.430E-06,0.180
3.440E-06,0.160
3.450E-06,0.120
3.460E-06,0.080
3.470E-06,0.100
3.480E-06,0.160
3.490E-06,0.180
3.500E-06,0.180
3.510E-06,0.240
3.520E-06,0.220
