mediciones/Mediciones filtradas (saque las feas)/6-10/28.5/WaveData55128.csv

#timebase=2000000(ps)
,#voltbase=100000(mv/100)
#size=4000
-4.250E-06,-0.004
-4.240E-06,0.000
-4.230E-06,0.008
-4.220E-06,0.012
-4.210E-06,0.012
-4.200E-06,-0.004
-4.190E-06,0.000
-4.180E-06,-0.004
-4.170E-06,-0.004
-4.160E-06,-0.008
-4.150E-06,0.000
-4.140E-06,0.004
-4.130E-06,0.020
-4.120E-06,0.024
-4.110E-06,0.016
-4.100E-06,0.000
-4.090E-06,-0.008
-4.080E-06,0.000
-4.070E-06,0.008
-4.060E-06,0.020
-4.050E-06,0.028
-4.040E-06,0.028
-4.030E-06,0.008
-4.020E-06,0.008
-4.010E-06,0.020
-4.000E-06,0.000
-3.990E-06,-0.024
-3.980E-06,-0.036
-3.970E-06,-0.020
-3.960E-06,0.004
-3.950E-06,0.028
-3.940E-06,0.032
-3.930E-06,0.020
-3.920E-06,0.004
-3.910E-06,-0.004
-3.900E-06,-0.024
-3.890E-06,0.000
-3.880E-06,0.012
-3.870E-06,0.084
-3.860E-06,0.104
-3.850E-06,0.092
-3.840E-06,-0.036
-3.830E-06,-0.024
-3.820E-06,-0.068
-3.810E-06,-0.056
-3.800E-06,-0.036
-3.790E-06,-0.020
-3.780E-06,0.068
-3.770E-06,0.052
-3.760E-06,0.108
-3.750E-06,-0.124
-3.740E-06,-0.076
-3.730E-06,-0.108
-3.720E-06,-0.016
-3.710E-06,0.036
-3.700E-06,0.044
-3.690E-06,0.108
-3.680E-06,0.032
-3.670E-06,-0.004
-3.660E-06,-0.072
-3.650E-06,-0.060
-3.640E-06,-0.036
-3.630E-06,0.032
-3.620E-06,0.024
-3.610E-06,0.036
-3.600E-06,0.020
-3.590E-06,0.008
-3.580E-06,0.000
-3.570E-06,-0.020
-3.560E-06,-0.024
-3.550E-06,-0.016
-3.540E-06,0.024
-3.530E-06,0.032
-3.520E-06,0.060
-3.510E-06,0.036
-3.500E-06,0.028
-3.490E-06,0.012
-3.480E-06,0.000
-3.470E-06,-0.032
-3.460E-06,0.000
-3.450E-06,-0.020
-3.440E-06,-0.004
-3.430E-06,-0.004
-3.420E-06,-0.004
-3.410E-06,0.020
-3.400E-06,0.004
-3.390E-06,0.024
-3.380E-06,0.024
-3.370E-06,0.024
-3.360E-06,0.040
-3.350E-06,-0.004
-3.340E-06,-0.052
-3.330E-06,-0.060
-3.320E-06,-0.024
-3.310E-06,0.000
-3.300E-06,0.056
-3.290E-06,0.064
-3.280E-06,0.004
-3.270E-06,-0.032
-3.260E-06,-0.044
-3.250E-06,0.016
-3.240E-06,-0.004
-3.230E-06,0.008
-3.220E-06,-0.008
-3.210E-06,0.000
-3.200E-06,-0.008
-3.190E-06,-0.004
-3.180E-06,-0.008
-3.170E-06,0.000
-3.160E-06,0.012
-3.150E-06,0.004
-3.140E-06,0.016
-3.130E-06,0.012
-3.120E-06,-0.008
-3.110E-06,-0.004
-3.100E-06,0.008
-3.090E-06,0.008
-3.080E-06,0.008
-3.070E-06,0.016
-3.060E-06,0.012
-3.050E-06,0.016
-3.040E-06,0.008
-3.030E-06,0.008
-3.020E-06,0.008
-3.010E-06,0.020
-3.000E-06,0.012
-2.990E-06,0.020
-2.980E-06,0.000
-2.970E-06,-0.020
-2.960E-06,-0.024
-2.950E-06,-0.008
-2.940E-06,0.032
-2.930E-06,0.092
-2.920E-06,0.100
-2.910E-06,0.124
-2.900E-06,0.124
-2.890E-06,0.072
-2.880E-06,-0.328
-2.870E-06,-0.248
-2.860E-06,-0.240
-2.850E-06,-0.072
-2.840E-06,0.236
-2.830E-06,0.240
-2.820E-06,0.200
-2.810E-06,-0.020
-2.800E-06,-0.136
-2.790E-06,-0.148
-2.780E-06,-0.196
-2.770E-06,-0.040
-2.760E-06,0.128
-2.750E-06,0.164
-2.740E-06,0.124
-2.730E-06,0.016
-2.720E-06,-0.068
-2.710E-06,-0.108
-2.700E-06,-0.084
-2.690E-06,-0.064
-2.680E-06,0.012
-2.670E-06,0.096
-2.660E-06,0.112
-2.650E-06,0.088
-2.640E-06,0.008
-2.630E-06,-0.072
-2.620E-06,-0.104
-2.610E-06,-0.068
-2.600E-06,-0.004
-2.590E-06,0.064
-2.580E-06,0.096
-2.570E-06,0.084
-2.560E-06,0.024
-2.550E-06,-0.040
-2.540E-06,-0.072
-2.530E-06,-0.064
-2.520E-06,-0.004
-2.510E-06,0.036
-2.500E-06,0.088
-2.490E-06,0.100
-2.480E-06,0.076
-2.470E-06,0.036
-2.460E-06,0.016
-2.450E-06,0.000
-2.440E-06,0.012
-2.430E-06,0.004
-2.420E-06,0.000
-2.410E-06,-0.028
-2.400E-06,-0.040
-2.390E-06,-0.028
-2.380E-06,-0.044
-2.370E-06,-0.008
-2.360E-06,0.036
-2.350E-06,0.076
-2.340E-06,0.088
-2.330E-06,0.004
-2.320E-06,-0.068
-2.310E-06,-0.100
-2.300E-06,-0.140
-2.290E-06,-0.024
-2.280E-06,0.012
-2.270E-06,0.084
-2.260E-06,0.080
-2.250E-06,0.056
-2.240E-06,0.008
-2.230E-06,-0.076
-2.220E-06,-0.108
-2.210E-06,-0.064
-2.200E-06,0.020
-2.190E-06,0.076
-2.180E-06,0.112
-2.170E-06,0.032
-2.160E-06,-0.036
-2.150E-06,-0.056
-2.140E-06,-0.040
-2.130E-06,-0.016
-2.120E-06,0.012
-2.110E-06,0.028
-2.100E-06,0.024
-2.090E-06,0.020
-2.080E-06,-0.004
-2.070E-06,-0.024
-2.060E-06,-0.024
-2.050E-06,-0.012
-2.040E-06,0.004
-2.030E-06,0.024
-2.020E-06,0.024
-2.010E-06,0.020
-2.000E-06,0.012
-1.990E-06,-0.004
-1.980E-06,-0.004
-1.970E-06,-0.004
-1.960E-06,0.012
-1.950E-06,0.020
-1.940E-06,0.036
-1.930E-06,0.040
-1.920E-06,0.044
-1.910E-06,0.016
-1.900E-06,0.068
-1.890E-06,0.016
-1.880E-06,0.036
-1.870E-06,0.056
-1.860E-06,0.056
-1.850E-06,0.048
-1.840E-06,0.012
-1.830E-06,-0.028
-1.820E-06,-0.024
-1.810E-06,-0.008
-1.800E-06,-0.008
-1.790E-06,0.016
-1.780E-06,-0.216
-1.770E-06,-0.216
-1.760E-06,-0.128
-1.750E-06,0.080
-1.740E-06,0.240
-1.730E-06,0.152
-1.720E-06,0.072
-1.710E-06,-0.080
-1.700E-06,-0.164
-1.690E-06,-0.172
-1.680E-06,-0.064
-1.670E-06,0.044
-1.660E-06,0.156
-1.650E-06,0.132
-1.640E-06,0.060
-1.630E-06,-0.016
-1.620E-06,-0.092
-1.610E-06,-0.084
-1.600E-06,-0.060
-1.590E-06,0.040
-1.580E-06,0.056
-1.570E-06,0.080
-1.560E-06,0.024
-1.550E-06,0.008
-1.540E-06,-0.012
-1.530E-06,-0.016
-1.520E-06,0.000
-1.510E-06,0.016
-1.500E-06,0.044
-1.490E-06,0.060
-1.480E-06,0.060
-1.470E-06,0.040
-1.460E-06,0.004
-1.450E-06,-0.120
-1.440E-06,-0.164
-1.430E-06,-0.164
-1.420E-06,-0.004
-1.410E-06,0.108
-1.400E-06,0.160
-1.390E-06,0.112
-1.380E-06,-0.008
-1.370E-06,-0.060
-1.360E-06,-0.108
-1.350E-06,-0.044
-1.340E-06,0.028
-1.330E-06,0.100
-1.320E-06,0.068
-1.310E-06,0.056
-1.300E-06,-0.020
-1.290E-06,-0.064
-1.280E-06,-0.076
-1.270E-06,-0.020
-1.260E-06,-0.012
-1.250E-06,0.040
-1.240E-06,0.056
-1.230E-06,0.024
-1.220E-06,0.016
-1.210E-06,-0.004
-1.200E-06,-0.004
-1.190E-06,0.004
-1.180E-06,0.016
-1.170E-06,-0.012
-1.160E-06,0.012
-1.150E-06,0.020
-1.140E-06,0.016
-1.130E-06,0.020
-1.120E-06,0.004
-1.110E-06,0.008
-1.100E-06,-0.004
-1.090E-06,-0.004
-1.080E-06,0.004
-1.070E-06,0.012
-1.060E-06,0.020
-1.050E-06,0.020
-1.040E-06,0.020
-1.030E-06,0.016
-1.020E-06,0.020
-1.010E-06,0.032
-1.000E-06,0.044
-9.900E-07,0.056
-9.800E-07,0.084
-9.700E-07,-0.004
-9.600E-07,-0.132
-9.500E-07,-0.208
-9.400E-07,-0.224
-9.300E-07,0.008
-9.200E-07,0.064
-9.100E-07,0.188
-9.000E-07,0.140
-8.900E-07,0.020
-8.800E-07,-0.072
-8.700E-07,-0.152
-8.600E-07,-0.128
-8.500E-07,-0.044
-8.400E-07,0.084
-8.300E-07,0.116
-8.200E-07,0.120
-8.100E-07,0.040
-8.000E-07,-0.048
-7.900E-07,-0.100
-7.800E-07,-0.088
-7.700E-07,-0.040
-7.600E-07,0.032
-7.500E-07,0.084
-7.400E-07,0.072
-7.300E-07,0.040
-7.200E-07,-0.012
-7.100E-07,-0.040
-7.000E-07,-0.056
-6.900E-07,-0.024
-6.800E-07,0.004
-6.700E-07,0.040
-6.600E-07,0.052
-6.500E-07,0.044
-6.400E-07,0.008
-6.300E-07,-0.028
-6.200E-07,-0.040
-6.100E-07,-0.040
-6.000E-07,-0.004
-5.900E-07,0.028
-5.800E-07,0.044
-5.700E-07,0.040
-5.600E-07,0.012
-5.500E-07,-0.012
-5.400E-07,-0.028
-5.300E-07,-0.024
-5.200E-07,0.000
-5.100E-07,0.024
-5.000E-07,0.036
-4.900E-07,0.032
-4.800E-07,0.008
-4.700E-07,-0.004
-4.600E-07,-0.020
-4.500E-07,-0.016
-4.400E-07,-0.004
-4.300E-07,0.008
-4.200E-07,0.024
-4.100E-07,0.028
-4.000E-07,0.012
-3.900E-07,0.004
-3.800E-07,-0.008
-3.700E-07,-0.012
-3.600E-07,0.000
-3.500E-07,0.012
-3.400E-07,0.028
-3.300E-07,0.024
-3.200E-07,0.028
-3.100E-07,0.016
-3.000E-07,0.004
-2.900E-07,0.004
-2.800E-07,0.012
-2.700E-07,0.020
-2.600E-07,0.032
-2.500E-07,0.036
-2.400E-07,0.036
-2.300E-07,0.020
-2.200E-07,0.012
-2.100E-07,0.016
-2.000E-07,0.032
-1.900E-07,0.056
-1.800E-07,0.064
-1.700E-07,0.088
-1.600E-07,0.048
-1.500E-07,0.044
-1.400E-07,0.020
-1.300E-07,0.012
-1.200E-07,0.024
-1.100E-07,0.060
-1.000E-07,0.080
-9.000E-08,0.092
-8.000E-08,0.048
-7.000E-08,0.048
-6.000E-08,-0.056
-5.000E-08,-0.152
-4.000E-08,-0.508
-3.000E-08,-0.456
-2.000E-08,-0.236
-1.000E-08,0.240
0.000E+00,0.348
1.000E-08,0.348
2.000E-08,0.160
3.000E-08,-0.120
4.000E-08,-0.288
5.000E-08,-0.332
6.000E-08,-0.132
7.000E-08,0.092
8.000E-08,0.324
9.000E-08,0.272
1.000E-07,0.140
1.100E-07,-0.068
1.200E-07,-0.172
1.300E-07,-0.180
1.400E-07,-0.144
1.500E-07,-0.004
1.600E-07,0.064
1.700E-07,0.176
1.800E-07,0.088
1.900E-07,0.048
2.000E-07,-0.056
2.100E-07,-0.112
2.200E-07,-0.112
2.300E-07,-0.052
2.400E-07,0.036
2.500E-07,0.100
2.600E-07,0.140
2.700E-07,0.052
2.800E-07,-0.024
2.900E-07,-0.104
3.000E-07,-0.096
3.100E-07,-0.060
3.200E-07,0.024
3.300E-07,0.084
3.400E-07,0.096
3.500E-07,0.060
3.600E-07,-0.016
3.700E-07,-0.056
3.800E-07,-0.076
3.900E-07,-0.040
4.000E-07,0.008
4.100E-07,0.068
4.200E-07,0.072
4.300E-07,0.056
4.400E-07,0.000
4.500E-07,-0.040
4.600E-07,-0.064
4.700E-07,-0.040
4.800E-07,-0.004
4.900E-07,0.036
5.000E-07,0.056
5.100E-07,0.048
5.200E-07,0.020
5.300E-07,-0.016
5.400E-07,-0.036
5.500E-07,-0.040
5.600E-07,-0.008
5.700E-07,0.028
5.800E-07,0.048
5.900E-07,0.052
6.000E-07,0.028
6.100E-07,0.000
6.200E-07,-0.028
6.300E-07,-0.032
6.400E-07,-0.008
6.500E-07,0.020
6.600E-07,0.044
6.700E-07,0.060
6.800E-07,0.048
6.900E-07,0.020
7.000E-07,0.000
7.100E-07,-0.012
7.200E-07,0.008
7.300E-07,0.032
7.400E-07,0.056
7.500E-07,0.080
7.600E-07,0.080
7.700E-07,0.064
7.800E-07,0.060
7.900E-07,0.064
8.000E-07,0.068
8.100E-07,0.120
8.200E-07,0.100
8.300E-07,0.108
8.400E-07,0.096
8.500E-07,0.076
8.600E-07,-0.048
8.700E-07,-0.096
8.800E-07,-0.124
8.900E-07,-0.008
9.000E-07,0.064
9.100E-07,0.104
9.200E-07,0.136
9.300E-07,0.128
9.400E-07,0.108
9.500E-07,0.096
9.600E-07,0.008
9.700E-07,-0.108
9.800E-07,-0.336
9.900E-07,-0.368
1.000E-06,-0.208
1.010E-06,0.040
1.020E-06,0.196
1.030E-06,0.240
1.040E-06,-0.004
1.050E-06,-0.288
1.060E-06,-0.504
1.070E-06,-0.108
1.080E-06,-0.008
1.090E-06,0.200
1.100E-06,0.196
1.110E-06,0.136
1.120E-06,0.028
1.130E-06,-0.136
1.140E-06,-0.192
1.150E-06,-0.172
1.160E-06,0.020
1.170E-06,0.088
1.180E-06,0.204
1.190E-06,0.108
1.200E-06,0.028
1.210E-06,-0.100
1.220E-06,-0.104
1.230E-06,-0.088
1.240E-06,-0.004
1.250E-06,0.044
1.260E-06,0.060
1.270E-06,0.092
1.280E-06,0.028
1.290E-06,0.012
1.300E-06,-0.056
1.310E-06,-0.040
1.320E-06,-0.052
1.330E-06,0.012
1.340E-06,0.036
1.350E-06,0.060
1.360E-06,0.040
1.370E-06,0.000
1.380E-06,-0.020
1.390E-06,-0.056
1.400E-06,-0.020
1.410E-06,-0.012
1.420E-06,0.032
1.430E-06,0.040
1.440E-06,0.044
1.450E-06,0.012
1.460E-06,-0.008
1.470E-06,-0.020
1.480E-06,-0.024
1.490E-06,-0.004
1.500E-06,0.012
1.510E-06,0.036
1.520E-06,0.032
1.530E-06,0.020
1.540E-06,-0.008
1.550E-06,-0.012
1.560E-06,-0.012
1.570E-06,0.000
1.580E-06,0.012
1.590E-06,0.020
1.600E-06,0.024
1.610E-06,0.008
1.620E-06,-0.004
1.630E-06,-0.008
1.640E-06,-0.004
1.650E-06,-0.004
1.660E-06,0.008
1.670E-06,0.020
1.680E-06,0.024
1.690E-06,0.020
1.700E-06,0.012
1.710E-06,0.008
1.720E-06,0.008
1.730E-06,0.020
1.740E-06,0.024
1.750E-06,0.024
1.760E-06,0.040
1.770E-06,0.052
1.780E-06,0.048
1.790E-06,0.052
1.800E-06,0.056
1.810E-06,0.064
1.820E-06,0.092
1.830E-06,0.108
1.840E-06,0.132
1.850E-06,0.148
1.860E-06,0.164
1.870E-06,0.156
1.880E-06,0.128
1.890E-06,0.116
1.900E-06,0.064
1.910E-06,0.008
1.920E-06,-0.004
1.930E-06,0.028
1.940E-06,0.084
1.950E-06,0.136
1.960E-06,0.124
1.970E-06,0.076
1.980E-06,-0.004
1.990E-06,-0.024
2.000E-06,-0.048
2.010E-06,-0.004
2.020E-06,0.064
2.030E-06,0.108
2.040E-06,0.112
2.050E-06,0.092
2.060E-06,0.064
2.070E-06,0.036
2.080E-06,0.056
2.090E-06,0.064
2.100E-06,0.084
2.110E-06,0.136
2.120E-06,0.160
2.130E-06,0.180
2.140E-06,0.108
2.150E-06,0.040
2.160E-06,-0.148
2.170E-06,-0.116
2.180E-06,-0.152
2.190E-06,-0.044
2.200E-06,0.072
2.210E-06,-0.028
2.220E-06,-0.488
2.230E-06,-0.512
2.240E-06,-0.508
2.250E-06,-0.244
2.260E-06,0.152
2.270E-06,0.392
2.280E-06,0.464
2.290E-06,0.196
2.300E-06,-0.084
2.310E-06,-0.456
2.320E-06,-0.428
2.330E-06,-0.020
2.340E-06,0.184
2.350E-06,0.336
2.360E-06,0.248
2.370E-06,0.088
2.380E-06,-0.192
2.390E-06,-0.292
2.400E-06,-0.164
2.410E-06,-0.460
2.420E-06,-0.036
2.430E-06,0.008
2.440E-06,0.160
2.450E-06,0.084
2.460E-06,0.004
2.470E-06,0.048
2.480E-06,-0.044
2.490E-06,-0.008
2.500E-06,-0.088
2.510E-06,-0.048
2.520E-06,0.028
2.530E-06,0.100
2.540E-06,0.052
2.550E-06,-0.012
2.560E-06,-0.040
2.570E-06,-0.076
2.580E-06,-0.040
2.590E-06,0.020
2.600E-06,0.060
2.610E-06,0.056
2.620E-06,0.060
2.630E-06,-0.004
2.640E-06,-0.020
2.650E-06,-0.032
2.660E-06,-0.012
2.670E-06,0.024
2.680E-06,0.076
2.690E-06,0.084
2.700E-06,0.056
2.710E-06,0.028
2.720E-06,-0.008
2.730E-06,-0.008
2.740E-06,-0.004
2.750E-06,0.064
2.760E-06,0.084
2.770E-06,0.112
2.780E-06,0.088
2.790E-06,0.076
2.800E-06,0.036
2.810E-06,0.028
2.820E-06,0.024
2.830E-06,0.044
2.840E-06,0.072
2.850E-06,0.068
2.860E-06,0.084
2.870E-06,0.084
2.880E-06,0.084
2.890E-06,0.080
2.900E-06,0.124
2.910E-06,0.160
2.920E-06,0.196
2.930E-06,0.192
2.940E-06,0.176
2.950E-06,0.176
2.960E-06,0.160
2.970E-06,0.164
2.980E-06,0.160
2.990E-06,0.168
3.000E-06,0.172
3.010E-06,0.188
3.020E-06,0.192
3.030E-06,0.144
3.040E-06,0.084
3.050E-06,0.016
3.060E-06,-0.040
3.070E-06,-0.080
3.080E-06,-0.240
3.090E-06,-0.216
3.100E-06,-0.160
3.110E-06,0.044
3.120E-06,0.332
3.130E-06,0.484
3.140E-06,0.488
3.150E-06,0.276
3.160E-06,-0.072
3.170E-06,-0.332
3.180E-06,-0.376
3.190E-06,-0.208
3.200E-06,-0.004
3.210E-06,-0.028
3.220E-06,-0.068
3.230E-06,-0.196
3.240E-06,-0.344
3.250E-06,-0.492
3.260E-06,-0.512
3.270E-06,-0.432
3.280E-06,-0.368
3.290E-06,0.028
3.300E-06,0.300
3.310E-06,0.152
3.320E-06,0.032
3.330E-06,-0.172
3.340E-06,-0.192
3.350E-06,-0.164
3.360E-06,-0.028
3.370E-06,0.096
3.380E-06,0.232
3.390E-06,0.276
3.400E-06,0.188
3.410E-06,0.104
3.420E-06,-0.028
3.430E-06,-0.072
3.440E-06,-0.108
3.450E-06,0.000
3.460E-06,0.060
3.470E-06,0.084
3.480E-06,0.064
3.490E-06,0.004
3.500E-06,-0.032
3.510E-06,0.040
3.520E-06,0.088
3.530E-06,0.228
3.540E-06,0.156
3.550E-06,0.144
3.560E-06,0.040
3.570E-06,-0.092
3.580E-06,-0.132
3.590E-06,-0.176
3.600E-06,-0.080
3.610E-06,-0.020
3.620E-06,0.092
3.630E-06,0.120
3.640E-06,0.040
3.650E-06,-0.040
3.660E-06,-0.072
3.670E-06,-0.068
3.680E-06,-0.028
3.690E-06,0.064
3.700E-06,0.100
3.710E-06,0.080
3.720E-06,0.032
3.730E-06,-0.004
3.740E-06,-0.004
3.750E-06,0.036
3.760E-06,0.092
3.770E-06,0.140
3.780E-06,0.168
3.790E-06,0.168
3.800E-06,0.148
3.810E-06,0.096
3.820E-06,0.076
3.830E-06,0.092
3.840E-06,0.136
3.850E-06,0.208
3.860E-06,0.244
3.870E-06,0.244
3.880E-06,0.192
3.890E-06,0.140
3.900E-06,0.092
3.910E-06,0.056
3.920E-06,0.056
3.930E-06,0.072
3.940E-06,0.128
3.950E-06,0.192
3.960E-06,0.216
3.970E-06,0.256
3.980E-06,0.224
3.990E-06,0.192
4.000E-06,0.176
4.010E-06,0.164
4.020E-06,0.192
4.030E-06,0.204
4.040E-06,0.228
4.050E-06,0.232
4.060E-06,0.208
4.070E-06,0.180
4.080E-06,0.132
4.090E-06,0.120
4.100E-06,0.112
4.110E-06,0.132
4.120E-06,0.168
4.130E-06,0.196
4.140E-06,0.204
4.150E-06,0.244
4.160E-06,0.232
4.170E-06,0.164
4.180E-06,0.096
4.190E-06,-0.016
4.200E-06,-0.032
4.210E-06,-0.128
4.220E-06,-0.028
4.230E-06,-0.084
4.240E-06,-0.264
4.250E-06,-0.340
4.260E-06,-0.508
4.270E-06,-0.508
4.280E-06,-0.508
4.290E-06,-0.140
4.300E-06,0.216
4.310E-06,0.224
4.320E-06,0.108
4.330E-06,-0.220
4.340E-06,-0.508
4.350E-06,-0.508
4.360E-06,-0.480
4.370E-06,-0.128
4.380E-06,0.072
4.390E-06,0.320
4.400E-06,0.228
4.410E-06,-0.032
4.420E-06,-0.336
4.430E-06,-0.396
4.440E-06,-0.120
4.450E-06,0.132
4.460E-06,0.304
4.470E-06,0.308
4.480E-06,0.388
4.490E-06,0.164
4.500E-06,-0.016
4.510E-06,-0.092
4.520E-06,0.012
4.530E-06,0.176
4.540E-06,0.340
4.550E-06,0.452
4.560E-06,0.376
4.570E-06,0.280
4.580E-06,0.112
4.590E-06,0.032
4.600E-06,0.008
4.610E-06,0.128
4.620E-06,0.252
4.630E-06,0.348
4.640E-06,0.368
4.650E-06,0.304
4.660E-06,0.200
4.670E-06,0.108
4.680E-06,0.100
4.690E-06,0.128
4.700E-06,0.232
4.710E-06,0.292
4.720E-06,0.328
4.730E-06,0.284
4.740E-06,0.216
4.750E-06,0.140
4.760E-06,0.108
4.770E-06,0.144
4.780E-06,0.196
4.790E-06,0.272
4.800E-06,0.292
4.810E-06,0.288
4.820E-06,0.232
4.830E-06,0.184
4.840E-06,0.140
4.850E-06,0.148
4.860E-06,0.184
4.870E-06,0.228
4.880E-06,0.268
4.890E-06,0.272
4.900E-06,0.240
4.910E-06,0.192
4.920E-06,0.152
4.930E-06,0.140
4.940E-06,0.168
4.950E-06,0.204
4.960E-06,0.240
4.970E-06,0.256
4.980E-06,0.244
4.990E-06,0.216
5.000E-06,0.176
5.010E-06,0.160
5.020E-06,0.156
5.030E-06,0.172
5.040E-06,0.196
5.050E-06,0.208
5.060E-06,0.208
5.070E-06,0.188
5.080E-06,0.160
5.090E-06,0.136
5.100E-06,0.132
5.110E-06,0.148
5.120E-06,0.180
5.130E-06,0.208
5.140E-06,0.220
5.150E-06,0.216
5.160E-06,0.196
5.170E-06,0.180
5.180E-06,0.176
5.190E-06,0.188
5.200E-06,0.204
5.210E-06,0.216
5.220E-06,0.232
5.230E-06,0.228
5.240E-06,0.208
5.250E-06,0.196
5.260E-06,0.184
5.270E-06,0.196
5.280E-06,0.196
5.290E-06,0.212
5.300E-06,0.224
5.310E-06,0.220
5.320E-06,0.212
5.330E-06,0.200
5.340E-06,0.196
5.350E-06,0.188
5.360E-06,0.188
5.370E-06,0.196
5.380E-06,0.208
5.390E-06,0.220
5.400E-06,0.212
5.410E-06,0.204
5.420E-06,0.196
5.430E-06,0.188
5.440E-06,0.188
5.450E-06,0.200
5.460E-06,0.204
5.470E-06,0.216
5.480E-06,0.212
5.490E-06,0.208
5.500E-06,0.196
5.510E-06,0.188
5.520E-06,0.188
5.530E-06,0.196
5.540E-06,0.196
5.550E-06,0.200
5.560E-06,0.204
5.570E-06,0.200
5.580E-06,0.192
5.590E-06,0.192
5.600E-06,0.188
5.610E-06,0.188
5.620E-06,0.192
5.630E-06,0.200
5.640E-06,0.204
5.650E-06,0.196
5.660E-06,0.192
5.670E-06,0.192
5.680E-06,0.184
5.690E-06,0.184
5.700E-06,0.188
5.710E-06,0.188
5.720E-06,0.192
5.730E-06,0.188
5.740E-06,0.192
5.750E-06,0.192
5.760E-06,0.176
5.770E-06,0.180
5.780E-06,0.180
5.790E-06,0.188
5.800E-06,0.188
5.810E-06,0.184
5.820E-06,0.188
5.830E-06,0.176
5.840E-06,0.180
5.850E-06,0.176
5.860E-06,0.176
5.870E-06,0.184
5.880E-06,0.192
5.890E-06,0.192
5.900E-06,0.184
5.910E-06,0.184
5.920E-06,0.176
5.930E-06,0.180
5.940E-06,0.176
5.950E-06,0.176
5.960E-06,0.180
5.970E-06,0.188
5.980E-06,0.176
5.990E-06,0.176
6.000E-06,0.176
6.010E-06,0.176
6.020E-06,0.172
6.030E-06,0.172
6.040E-06,0.176
6.050E-06,0.176
6.060E-06,0.172
6.070E-06,0.172
6.080E-06,0.172
6.090E-06,0.172
6.100E-06,0.172
6.110E-06,0.164
6.120E-06,0.164
6.130E-06,0.168
6.140E-06,0.168
6.150E-06,0.172
6.160E-06,0.172
6.170E-06,0.172
6.180E-06,0.160
6.190E-06,0.156
6.200E-06,0.160
6.210E-06,0.156
6.220E-06,0.164
6.230E-06,0.172
6.240E-06,0.172
6.250E-06,0.172
6.260E-06,0.164
6.270E-06,0.156
6.280E-06,0.156
6.290E-06,0.164
6.300E-06,0.156
6.310E-06,0.168
6.320E-06,0.172
6.330E-06,0.168
6.340E-06,0.160
6.350E-06,0.156
6.360E-06,0.160
6.370E-06,0.156
6.380E-06,0.156
6.390E-06,0.164
6.400E-06,0.172
6.410E-06,0.168
6.420E-06,0.160
6.430E-06,0.156
6.440E-06,0.156
6.450E-06,0.152
6.460E-06,0.156
6.470E-06,0.156
6.480E-06,0.160
6.490E-06,0.156
6.500E-06,0.152
6.510E-06,0.156
6.520E-06,0.156
6.530E-06,0.156
6.540E-06,0.156
6.550E-06,0.156
6.560E-06,0.160
6.570E-06,0.156
6.580E-06,0.160
6.590E-06,0.160
6.600E-06,0.164
6.610E-06,0.156
6.620E-06,0.156
6.630E-06,0.148
6.640E-06,0.152
6.650E-06,0.156
6.660E-06,0.148
6.670E-06,0.156
6.680E-06,0.156
6.690E-06,0.156
6.700E-06,0.156
6.710E-06,0.160
6.720E-06,0.148
6.730E-06,0.152
6.740E-06,0.152
6.750E-06,0.148
6.760E-06,0.148
6.770E-06,0.152
6.780E-06,0.148
6.790E-06,0.152
6.800E-06,0.148
6.810E-06,0.144
6.820E-06,0.148
6.830E-06,0.148
6.840E-06,0.140
6.850E-06,0.144
6.860E-06,0.144
6.870E-06,0.148
6.880E-06,0.144
6.890E-06,0.144
6.900E-06,0.140
6.910E-06,0.144
6.920E-06,0.144
6.930E-06,0.140
6.940E-06,0.144
6.950E-06,0.136
6.960E-06,0.140
6.970E-06,0.132
6.980E-06,0.132
6.990E-06,0.132
7.000E-06,0.136
7.010E-06,0.136
7.020E-06,0.136
7.030E-06,0.140
7.040E-06,0.136
7.050E-06,0.136
7.060E-06,0.132
7.070E-06,0.132
7.080E-06,0.132
7.090E-06,0.128
7.100E-06,0.128
7.110E-06,0.128
7.120E-06,0.124
7.130E-06,0.124
7.140E-06,0.124
7.150E-06,0.120
7.160E-06,0.128
7.170E-06,0.128
7.180E-06,0.132
7.190E-06,0.132
7.200E-06,0.128
7.210E-06,0.124
7.220E-06,0.120
7.230E-06,0.128
7.240E-06,0.124
7.250E-06,0.128
7.260E-06,0.124
7.270E-06,0.128
7.280E-06,0.124
7.290E-06,0.124
7.300E-06,0.124
7.310E-06,0.120
7.320E-06,0.124
7.330E-06,0.120
7.340E-06,0.120
7.350E-06,0.120
7.360E-06,0.120
7.370E-06,0.120
7.380E-06,0.124
7.390E-06,0.120
7.400E-06,0.120
7.410E-06,0.120
7.420E-06,0.120
7.430E-06,0.124
7.440E-06,0.124
7.450E-06,0.112
7.460E-06,0.112
7.470E-06,0.108
7.480E-06,0.104
7.490E-06,0.104
7.500E-06,0.104
7.510E-06,0.108
7.520E-06,0.108
7.530E-06,0.112
7.540E-06,0.104
7.550E-06,0.104
7.560E-06,0.100
7.570E-06,0.100
7.580E-06,0.100
7.590E-06,0.108
7.600E-06,0.112
7.610E-06,0.108
7.620E-06,0.100
7.630E-06,0.096
7.640E-06,0.088
7.650E-06,0.096
7.660E-06,0.092
7.670E-06,0.104
7.680E-06,0.108
7.690E-06,0.108
7.700E-06,0.100
7.710E-06,0.096
7.720E-06,0.096
7.730E-06,0.100
