mediciones/Mediciones filtradas (saque las feas)/6-10/28.5/WaveData55127.csv

#timebase=2000000(ps)
,#voltbase=500000(mv/100)
#size=4000
-4.250E-06,0.380
-4.240E-06,0.360
-4.230E-06,0.320
-4.220E-06,0.220
-4.210E-06,0.180
-4.200E-06,0.100
-4.190E-06,0.080
-4.180E-06,0.040
-4.170E-06,0.000
-4.160E-06,-0.020
-4.150E-06,-0.060
-4.140E-06,-0.080
-4.130E-06,-0.100
-4.120E-06,-0.100
-4.110E-06,-0.120
-4.100E-06,-0.120
-4.090E-06,-0.100
-4.080E-06,-0.200
-4.070E-06,-0.200
-4.060E-06,-0.080
-4.050E-06,-0.160
-4.040E-06,-0.040
-4.030E-06,0.000
-4.020E-06,-0.020
-4.010E-06,0.080
-4.000E-06,-0.060
-3.990E-06,0.060
-3.980E-06,0.120
-3.970E-06,0.140
-3.960E-06,0.320
-3.950E-06,0.340
-3.940E-06,0.240
-3.930E-06,0.340
-3.920E-06,0.220
-3.910E-06,0.260
-3.900E-06,0.260
-3.890E-06,0.220
-3.880E-06,0.240
-3.870E-06,0.200
-3.860E-06,0.140
-3.850E-06,0.140
-3.840E-06,0.100
-3.830E-06,0.080
-3.820E-06,0.080
-3.810E-06,0.060
-3.800E-06,0.000
-3.790E-06,-0.020
-3.780E-06,-0.040
-3.770E-06,0.000
-3.760E-06,-0.020
-3.750E-06,-0.020
-3.740E-06,-0.020
-3.730E-06,-0.040
-3.720E-06,-0.060
-3.710E-06,-0.120
-3.700E-06,-0.100
-3.690E-06,-0.020
-3.680E-06,-0.120
-3.670E-06,0.080
-3.660E-06,0.060
-3.650E-06,0.140
-3.640E-06,0.300
-3.630E-06,0.180
-3.620E-06,0.180
-3.610E-06,0.160
-3.600E-06,0.060
-3.590E-06,0.100
-3.580E-06,0.100
-3.570E-06,0.100
-3.560E-06,0.100
-3.550E-06,0.040
-3.540E-06,-0.040
-3.530E-06,-0.060
-3.520E-06,-0.020
-3.510E-06,-0.020
-3.500E-06,0.160
-3.490E-06,0.260
-3.480E-06,0.220
-3.470E-06,0.180
-3.460E-06,0.180
-3.450E-06,0.140
-3.440E-06,0.260
-3.430E-06,0.260
-3.420E-06,0.280
-3.410E-06,0.300
-3.400E-06,0.240
-3.390E-06,0.200
-3.380E-06,0.180
-3.370E-06,0.160
-3.360E-06,0.180
-3.350E-06,0.180
-3.340E-06,0.140
-3.330E-06,0.080
-3.320E-06,0.020
-3.310E-06,0.020
-3.300E-06,-0.020
-3.290E-06,-0.020
-3.280E-06,-0.040
-3.270E-06,-0.080
-3.260E-06,-0.080
-3.250E-06,-0.120
-3.240E-06,-0.120
-3.230E-06,-0.120
-3.220E-06,-0.100
-3.210E-06,-0.080
-3.200E-06,-0.080
-3.190E-06,-0.040
-3.180E-06,0.000
-3.170E-06,0.000
-3.160E-06,0.040
-3.150E-06,0.040
-3.140E-06,0.040
-3.130E-06,0.060
-3.120E-06,0.100
-3.110E-06,0.100
-3.100E-06,0.140
-3.090E-06,0.120
-3.080E-06,0.140
-3.070E-06,0.100
-3.060E-06,0.040
-3.050E-06,-0.020
-3.040E-06,-0.160
-3.030E-06,-0.240
-3.020E-06,-0.280
-3.010E-06,-0.260
-3.000E-06,-0.140
-2.990E-06,-0.060
-2.980E-06,0.060
-2.970E-06,0.160
-2.960E-06,0.220
-2.950E-06,0.240
-2.940E-06,0.220
-2.930E-06,0.300
-2.920E-06,0.340
-2.910E-06,0.420
-2.900E-06,0.420
-2.890E-06,0.460
-2.880E-06,0.440
-2.870E-06,0.420
-2.860E-06,0.400
-2.850E-06,0.360
-2.840E-06,0.240
-2.830E-06,0.220
-2.820E-06,0.180
-2.810E-06,0.120
-2.800E-06,0.100
-2.790E-06,0.060
-2.780E-06,0.040
-2.770E-06,0.020
-2.760E-06,-0.100
-2.750E-06,-0.080
-2.740E-06,-0.120
-2.730E-06,-0.120
-2.720E-06,-0.120
-2.710E-06,-0.120
-2.700E-06,-0.100
-2.690E-06,-0.080
-2.680E-06,-0.040
-2.670E-06,-0.020
-2.660E-06,0.020
-2.650E-06,0.080
-2.640E-06,0.080
-2.630E-06,0.080
-2.620E-06,0.040
-2.610E-06,0.020
-2.600E-06,0.000
-2.590E-06,-0.020
-2.580E-06,0.000
-2.570E-06,0.020
-2.560E-06,0.000
-2.550E-06,0.060
-2.540E-06,0.000
-2.530E-06,0.100
-2.520E-06,0.100
-2.510E-06,0.160
-2.500E-06,0.160
-2.490E-06,0.020
-2.480E-06,0.060
-2.470E-06,0.020
-2.460E-06,0.020
-2.450E-06,0.200
-2.440E-06,0.240
-2.430E-06,0.400
-2.420E-06,0.220
-2.410E-06,0.220
-2.400E-06,0.420
-2.390E-06,0.060
-2.380E-06,0.220
-2.370E-06,0.220
-2.360E-06,0.000
-2.350E-06,0.380
-2.340E-06,0.360
-2.330E-06,0.420
-2.320E-06,0.420
-2.310E-06,0.140
-2.300E-06,-0.040
-2.290E-06,-0.100
-2.280E-06,-0.120
-2.270E-06,-0.020
-2.260E-06,0.120
-2.250E-06,0.080
-2.240E-06,0.020
-2.230E-06,-0.020
-2.220E-06,-0.140
-2.210E-06,-0.080
-2.200E-06,-0.020
-2.190E-06,0.020
-2.180E-06,0.020
-2.170E-06,-0.020
-2.160E-06,-0.080
-2.150E-06,-0.120
-2.140E-06,0.000
-2.130E-06,-0.020
-2.120E-06,0.000
-2.110E-06,0.020
-2.100E-06,-0.020
-2.090E-06,0.020
-2.080E-06,0.040
-2.070E-06,0.060
-2.060E-06,0.000
-2.050E-06,0.040
-2.040E-06,0.080
-2.030E-06,0.100
-2.020E-06,0.080
-2.010E-06,0.180
-2.000E-06,0.220
-1.990E-06,0.260
-1.980E-06,0.300
-1.970E-06,0.240
-1.960E-06,0.300
-1.950E-06,0.260
-1.940E-06,0.300
-1.930E-06,0.280
-1.920E-06,0.180
-1.910E-06,0.160
-1.900E-06,0.200
-1.890E-06,0.260
-1.880E-06,0.340
-1.870E-06,0.340
-1.860E-06,0.260
-1.850E-06,0.260
-1.840E-06,0.140
-1.830E-06,-0.020
-1.820E-06,0.360
-1.810E-06,0.020
-1.800E-06,0.140
-1.790E-06,0.240
-1.780E-06,0.020
-1.770E-06,0.300
-1.760E-06,0.320
-1.750E-06,0.220
-1.740E-06,0.200
-1.730E-06,-0.020
-1.720E-06,-0.120
-1.710E-06,-0.120
-1.700E-06,-0.060
-1.690E-06,0.080
-1.680E-06,0.080
-1.670E-06,0.200
-1.660E-06,-0.320
-1.650E-06,-0.100
-1.640E-06,-0.040
-1.630E-06,-0.060
-1.620E-06,0.380
-1.610E-06,0.220
-1.600E-06,0.040
-1.590E-06,-0.060
-1.580E-06,-0.300
-1.570E-06,-0.200
-1.560E-06,0.040
-1.550E-06,0.080
-1.540E-06,0.120
-1.530E-06,0.080
-1.520E-06,-0.140
-1.510E-06,-0.060
-1.500E-06,0.000
-1.490E-06,0.080
-1.480E-06,0.220
-1.470E-06,0.220
-1.460E-06,0.100
-1.450E-06,0.080
-1.440E-06,0.080
-1.430E-06,0.160
-1.420E-06,0.280
-1.410E-06,0.300
-1.400E-06,0.240
-1.390E-06,0.160
-1.380E-06,0.120
-1.370E-06,0.120
-1.360E-06,0.160
-1.350E-06,0.220
-1.340E-06,0.200
-1.330E-06,0.140
-1.320E-06,0.140
-1.310E-06,0.080
-1.300E-06,0.220
-1.290E-06,0.140
-1.280E-06,0.160
-1.270E-06,0.120
-1.260E-06,0.000
-1.250E-06,0.000
-1.240E-06,-0.120
-1.230E-06,-0.140
-1.220E-06,-0.040
-1.210E-06,-0.020
-1.200E-06,0.060
-1.190E-06,0.100
-1.180E-06,0.080
-1.170E-06,0.080
-1.160E-06,0.020
-1.150E-06,0.020
-1.140E-06,0.020
-1.130E-06,0.040
-1.120E-06,0.120
-1.110E-06,0.200
-1.100E-06,0.300
-1.090E-06,0.260
-1.080E-06,0.260
-1.070E-06,0.100
-1.060E-06,-0.140
-1.050E-06,0.140
-1.040E-06,-0.100
-1.030E-06,0.020
-1.020E-06,0.320
-1.010E-06,0.060
-1.000E-06,0.360
-9.900E-07,0.180
-9.800E-07,0.080
-9.700E-07,0.060
-9.600E-07,-0.180
-9.500E-07,0.040
-9.400E-07,0.080
-9.300E-07,0.180
-9.200E-07,0.280
-9.100E-07,0.180
-9.000E-07,0.180
-8.900E-07,-0.020
-8.800E-07,0.180
-8.700E-07,0.160
-8.600E-07,0.100
-8.500E-07,0.440
-8.400E-07,0.040
-8.300E-07,0.160
-8.200E-07,0.120
-8.100E-07,0.040
-8.000E-07,0.220
-7.900E-07,0.200
-7.800E-07,0.140
-7.700E-07,0.080
-7.600E-07,0.000
-7.500E-07,-0.020
-7.400E-07,0.060
-7.300E-07,0.080
-7.200E-07,0.060
-7.100E-07,0.000
-7.000E-07,-0.120
-6.900E-07,-0.100
-6.800E-07,-0.060
-6.700E-07,0.020
-6.600E-07,0.040
-6.500E-07,0.020
-6.400E-07,-0.100
-6.300E-07,-0.180
-6.200E-07,-0.140
-6.100E-07,-0.060
-6.000E-07,0.000
-5.900E-07,0.040
-5.800E-07,0.080
-5.700E-07,0.020
-5.600E-07,0.000
-5.500E-07,0.000
-5.400E-07,0.020
-5.300E-07,0.080
-5.200E-07,0.100
-5.100E-07,0.100
-5.000E-07,0.100
-4.900E-07,0.080
-4.800E-07,0.080
-4.700E-07,0.120
-4.600E-07,0.100
-4.500E-07,0.120
-4.400E-07,0.060
-4.300E-07,0.060
-4.200E-07,0.060
-4.100E-07,0.080
-4.000E-07,0.140
-3.900E-07,0.180
-3.800E-07,0.120
-3.700E-07,0.100
-3.600E-07,0.080
-3.500E-07,0.060
-3.400E-07,0.080
-3.300E-07,0.140
-3.200E-07,0.120
-3.100E-07,0.160
-3.000E-07,0.100
-2.900E-07,0.100
-2.800E-07,0.080
-2.700E-07,0.080
-2.600E-07,0.100
-2.500E-07,0.120
-2.400E-07,0.120
-2.300E-07,0.100
-2.200E-07,0.080
-2.100E-07,0.080
-2.000E-07,0.080
-1.900E-07,0.140
-1.800E-07,0.160
-1.700E-07,0.160
-1.600E-07,0.160
-1.500E-07,0.080
-1.400E-07,-0.020
-1.300E-07,-0.100
-1.200E-07,-0.020
-1.100E-07,0.100
-1.000E-07,0.220
-9.000E-08,0.220
-8.000E-08,0.220
-7.000E-08,0.120
-6.000E-08,0.000
-5.000E-08,0.160
-4.000E-08,-0.040
-3.000E-08,-0.080
-2.000E-08,-0.640
-1.000E-08,-0.440
0.000E+00,-0.200
1.000E-08,-0.020
2.000E-08,1.460
3.000E-08,1.020
4.000E-08,0.640
5.000E-08,0.240
6.000E-08,-0.840
7.000E-08,-0.460
8.000E-08,0.000
9.000E-08,0.500
1.000E-07,0.940
1.100E-07,0.480
1.200E-07,0.000
1.300E-07,-0.160
1.400E-07,-0.240
1.500E-07,-0.020
1.600E-07,0.260
1.700E-07,0.240
1.800E-07,0.040
1.900E-07,-0.040
2.000E-07,-0.140
2.100E-07,-0.020
2.200E-07,0.140
2.300E-07,0.140
2.400E-07,-0.020
2.500E-07,-0.080
2.600E-07,-0.160
2.700E-07,-0.060
2.800E-07,0.020
2.900E-07,0.080
3.000E-07,0.020
3.100E-07,-0.060
3.200E-07,-0.100
3.300E-07,-0.180
3.400E-07,-0.100
3.500E-07,0.020
3.600E-07,0.080
3.700E-07,0.160
3.800E-07,0.120
3.900E-07,0.020
4.000E-07,-0.020
4.100E-07,-0.020
4.200E-07,0.020
4.300E-07,0.100
4.400E-07,0.120
4.500E-07,0.120
4.600E-07,0.100
4.700E-07,0.120
4.800E-07,0.120
4.900E-07,0.140
5.000E-07,0.160
5.100E-07,0.180
5.200E-07,0.160
5.300E-07,0.180
5.400E-07,0.180
5.500E-07,0.200
5.600E-07,0.240
5.700E-07,0.200
5.800E-07,0.180
5.900E-07,0.080
6.000E-07,0.120
6.100E-07,0.160
6.200E-07,0.160
6.300E-07,0.300
6.400E-07,0.340
6.500E-07,0.380
6.600E-07,0.300
6.700E-07,0.120
6.800E-07,0.100
6.900E-07,-0.020
7.000E-07,-0.180
7.100E-07,-0.120
7.200E-07,-0.220
7.300E-07,0.000
7.400E-07,0.200
7.500E-07,0.360
7.600E-07,0.440
7.700E-07,0.300
7.800E-07,0.220
7.900E-07,0.200
8.000E-07,0.240
8.100E-07,0.420
8.200E-07,0.480
8.300E-07,0.480
8.400E-07,0.700
8.500E-07,0.480
8.600E-07,-0.180
8.700E-07,-0.160
8.800E-07,-0.420
8.900E-07,-0.100
9.000E-07,0.600
9.100E-07,0.780
9.200E-07,0.820
9.300E-07,0.540
9.400E-07,-0.020
9.500E-07,-0.300
9.600E-07,-0.140
9.700E-07,0.380
9.800E-07,0.460
9.900E-07,0.880
1.000E-06,0.620
1.010E-06,0.340
1.020E-06,0.560
1.030E-06,0.400
1.040E-06,-0.120
1.050E-06,-0.140
1.060E-06,-0.740
1.070E-06,-0.560
1.080E-06,-0.040
1.090E-06,0.160
1.100E-06,0.500
1.110E-06,0.220
1.120E-06,-0.160
1.130E-06,-0.480
1.140E-06,-0.480
1.150E-06,-0.180
1.160E-06,0.080
1.170E-06,0.320
1.180E-06,0.320
1.190E-06,0.180
1.200E-06,0.120
1.210E-06,-0.060
1.220E-06,-0.040
1.230E-06,0.040
1.240E-06,-0.020
1.250E-06,0.100
1.260E-06,0.080
1.270E-06,-0.020
1.280E-06,-0.100
1.290E-06,-0.220
1.300E-06,-0.300
1.310E-06,-0.280
1.320E-06,-0.260
1.330E-06,-0.260
1.340E-06,-0.160
1.350E-06,-0.120
1.360E-06,-0.120
1.370E-06,-0.100
1.380E-06,-0.120
1.390E-06,-0.160
1.400E-06,-0.100
1.410E-06,0.020
1.420E-06,0.260
1.430E-06,0.420
1.440E-06,0.480
1.450E-06,0.340
1.460E-06,0.220
1.470E-06,0.160
1.480E-06,0.080
1.490E-06,0.160
1.500E-06,0.280
1.510E-06,0.240
1.520E-06,0.120
1.530E-06,0.060
1.540E-06,-0.140
1.550E-06,-0.100
1.560E-06,-0.100
1.570E-06,-0.020
1.580E-06,0.160
1.590E-06,0.140
1.600E-06,0.220
1.610E-06,0.220
1.620E-06,0.300
1.630E-06,0.360
1.640E-06,0.400
1.650E-06,0.460
1.660E-06,0.460
1.670E-06,0.500
1.680E-06,0.440
1.690E-06,0.380
1.700E-06,0.340
1.710E-06,0.180
1.720E-06,0.160
1.730E-06,0.200
1.740E-06,-0.020
1.750E-06,-0.200
1.760E-06,-0.340
1.770E-06,-0.760
1.780E-06,-0.580
1.790E-06,-0.580
1.800E-06,-0.260
1.810E-06,0.300
1.820E-06,0.140
1.830E-06,0.260
1.840E-06,0.080
1.850E-06,-0.480
1.860E-06,-0.400
1.870E-06,-0.300
1.880E-06,-0.280
1.890E-06,0.240
1.900E-06,0.320
1.910E-06,0.340
1.920E-06,0.200
1.930E-06,0.100
1.940E-06,-0.140
1.950E-06,0.000
1.960E-06,0.200
1.970E-06,0.060
1.980E-06,0.260
1.990E-06,0.100
2.000E-06,-0.040
2.010E-06,0.120
2.020E-06,-0.080
2.030E-06,0.000
2.040E-06,0.100
2.050E-06,0.100
2.060E-06,0.020
2.070E-06,-0.120
2.080E-06,-0.140
2.090E-06,-0.400
2.100E-06,-0.180
2.110E-06,0.040
2.120E-06,-0.040
2.130E-06,0.340
2.140E-06,0.160
2.150E-06,-0.160
2.160E-06,0.260
2.170E-06,-0.080
2.180E-06,0.140
2.190E-06,0.200
2.200E-06,0.020
2.210E-06,0.080
2.220E-06,0.080
2.230E-06,0.140
2.240E-06,0.200
2.250E-06,0.240
2.260E-06,-0.020
2.270E-06,-0.180
2.280E-06,-0.240
2.290E-06,-0.360
2.300E-06,-0.160
2.310E-06,-0.160
2.320E-06,-0.120
2.330E-06,-0.240
2.340E-06,-0.420
2.350E-06,-0.460
2.360E-06,-0.480
2.370E-06,-0.440
2.380E-06,-0.360
2.390E-06,-0.360
2.400E-06,-0.420
2.410E-06,-0.340
2.420E-06,-0.320
2.430E-06,-0.340
2.440E-06,-0.040
2.450E-06,-0.260
2.460E-06,-0.160
2.470E-06,-0.120
2.480E-06,-0.080
2.490E-06,0.080
2.500E-06,0.080
2.510E-06,0.120
2.520E-06,0.040
2.530E-06,0.120
2.540E-06,0.220
2.550E-06,0.340
2.560E-06,0.500
2.570E-06,0.480
2.580E-06,0.300
2.590E-06,0.280
2.600E-06,0.120
2.610E-06,0.240
2.620E-06,0.380
2.630E-06,0.360
2.640E-06,0.340
2.650E-06,0.260
2.660E-06,0.160
2.670E-06,0.160
2.680E-06,0.040
2.690E-06,0.100
2.700E-06,-0.040
2.710E-06,-0.280
2.720E-06,-0.480
2.730E-06,-0.680
2.740E-06,-0.720
2.750E-06,-0.520
2.760E-06,-0.300
2.770E-06,-0.320
2.780E-06,-0.260
2.790E-06,-0.320
2.800E-06,-0.460
2.810E-06,-0.360
2.820E-06,-0.340
2.830E-06,-0.260
2.840E-06,-0.060
2.850E-06,-0.040
2.860E-06,0.100
2.870E-06,0.160
2.880E-06,0.160
2.890E-06,0.180
2.900E-06,0.180
2.910E-06,0.260
2.920E-06,0.300
2.930E-06,0.280
2.940E-06,0.220
2.950E-06,0.260
2.960E-06,0.060
2.970E-06,-0.120
2.980E-06,-0.240
2.990E-06,-0.360
3.000E-06,-0.460
3.010E-06,-0.580
3.020E-06,-0.680
3.030E-06,-0.840
3.040E-06,-1.020
3.050E-06,-1.180
3.060E-06,-1.320
3.070E-06,-1.340
3.080E-06,-1.440
3.090E-06,-1.480
3.100E-06,-1.660
3.110E-06,-1.780
3.120E-06,-1.960
3.130E-06,-2.100
3.140E-06,-2.180
3.150E-06,-2.160
3.160E-06,-1.980
3.170E-06,-1.900
3.180E-06,-1.660
3.190E-06,-1.520
3.200E-06,-1.560
3.210E-06,-1.360
3.220E-06,-1.320
3.230E-06,-1.380
3.240E-06,-1.200
3.250E-06,-1.200
3.260E-06,-1.060
3.270E-06,-0.980
3.280E-06,-0.880
3.290E-06,-0.820
3.300E-06,-0.500
3.310E-06,-0.520
3.320E-06,-0.360
3.330E-06,0.000
3.340E-06,0.060
3.350E-06,0.500
3.360E-06,0.600
3.370E-06,0.500
3.380E-06,0.600
3.390E-06,0.560
3.400E-06,0.540
3.410E-06,0.600
3.420E-06,0.640
3.430E-06,0.700
3.440E-06,0.700
3.450E-06,0.460
3.460E-06,0.500
3.470E-06,0.500
3.480E-06,0.420
3.490E-06,0.460
3.500E-06,0.380
3.510E-06,0.340
3.520E-06,0.180
3.530E-06,0.060
3.540E-06,-0.140
3.550E-06,-0.100
3.560E-06,0.000
3.570E-06,0.000
3.580E-06,0.000
3.590E-06,0.020
3.600E-06,-0.180
3.610E-06,-0.280
3.620E-06,-0.480
3.630E-06,-0.760
3.640E-06,-0.420
3.650E-06,-0.420
3.660E-06,-0.240
3.670E-06,0.320
3.680E-06,0.600
3.690E-06,1.100
3.700E-06,0.860
3.710E-06,0.480
3.720E-06,0.360
3.730E-06,0.020
3.740E-06,0.120
3.750E-06,0.160
3.760E-06,0.220
3.770E-06,0.720
3.780E-06,0.480
3.790E-06,0.740
3.800E-06,0.740
3.810E-06,0.480
3.820E-06,0.400
3.830E-06,0.100
3.840E-06,0.160
3.850E-06,0.000
3.860E-06,0.000
3.870E-06,-0.220
3.880E-06,-0.260
3.890E-06,-0.380
3.900E-06,-0.580
3.910E-06,-0.600
3.920E-06,-0.700
3.930E-06,-0.800
3.940E-06,-0.760
3.950E-06,-0.860
3.960E-06,-0.760
3.970E-06,-0.640
3.980E-06,-0.560
3.990E-06,-0.420
4.000E-06,-0.320
4.010E-06,-0.180
4.020E-06,-0.240
4.030E-06,0.020
4.040E-06,0.140
4.050E-06,0.100
4.060E-06,0.020
4.070E-06,-0.020
4.080E-06,0.000
4.090E-06,-0.080
4.100E-06,-0.080
4.110E-06,-0.220
4.120E-06,-0.240
4.130E-06,-0.300
4.140E-06,-0.480
4.150E-06,-0.440
4.160E-06,-0.360
4.170E-06,-0.340
4.180E-06,-0.200
4.190E-06,-0.060
4.200E-06,-0.040
4.210E-06,0.200
4.220E-06,0.080
4.230E-06,0.120
4.240E-06,0.420
4.250E-06,0.400
4.260E-06,0.480
4.270E-06,0.600
4.280E-06,0.500
4.290E-06,0.440
4.300E-06,0.360
4.310E-06,0.320
4.320E-06,0.380
4.330E-06,0.300
4.340E-06,0.340
4.350E-06,0.260
4.360E-06,0.260
4.370E-06,0.260
4.380E-06,0.240
4.390E-06,0.260
4.400E-06,0.320
4.410E-06,0.360
4.420E-06,0.320
4.430E-06,0.340
4.440E-06,0.240
4.450E-06,0.240
4.460E-06,0.100
4.470E-06,0.000
4.480E-06,-0.040
4.490E-06,-0.120
4.500E-06,-0.080
4.510E-06,-0.080
4.520E-06,-0.120
4.530E-06,-0.020
4.540E-06,0.240
4.550E-06,0.380
4.560E-06,0.320
4.570E-06,0.200
4.580E-06,0.320
4.590E-06,0.160
4.600E-06,0.140
4.610E-06,0.260
4.620E-06,0.060
4.630E-06,0.260
4.640E-06,0.380
4.650E-06,0.560
4.660E-06,0.840
4.670E-06,0.880
4.680E-06,0.960
4.690E-06,0.980
4.700E-06,0.920
4.710E-06,0.580
4.720E-06,0.260
4.730E-06,-0.100
4.740E-06,-0.420
4.750E-06,-0.620
4.760E-06,-0.680
4.770E-06,-0.680
4.780E-06,-0.720
4.790E-06,-0.900
4.800E-06,-1.160
4.810E-06,-1.440
4.820E-06,-1.720
4.830E-06,-1.940
4.840E-06,-2.060
4.850E-06,-2.140
4.860E-06,-2.240
4.870E-06,-2.360
4.880E-06,-2.520
4.890E-06,-2.660
4.900E-06,-2.640
4.910E-06,-2.640
4.920E-06,-2.640
4.930E-06,-2.660
4.940E-06,-2.540
4.950E-06,-2.380
4.960E-06,-2.240
4.970E-06,-2.080
4.980E-06,-1.940
4.990E-06,-1.740
5.000E-06,-1.520
5.010E-06,-1.320
5.020E-06,-1.140
5.030E-06,-0.980
5.040E-06,-0.880
5.050E-06,-0.800
5.060E-06,-0.700
5.070E-06,-0.720
5.080E-06,-0.680
5.090E-06,-0.640
5.100E-06,-0.600
5.110E-06,-0.560
5.120E-06,-0.520
5.130E-06,-0.500
5.140E-06,-0.500
5.150E-06,-0.420
5.160E-06,-0.420
5.170E-06,-0.340
5.180E-06,-0.320
5.190E-06,-0.320
5.200E-06,-0.300
5.210E-06,-0.280
5.220E-06,-0.260
5.230E-06,-0.280
5.240E-06,-0.200
5.250E-06,-0.220
5.260E-06,-0.200
5.270E-06,-0.180
5.280E-06,-0.160
5.290E-06,-0.140
5.300E-06,-0.100
5.310E-06,-0.120
5.320E-06,-0.060
5.330E-06,-0.040
5.340E-06,-0.060
5.350E-06,-0.040
5.360E-06,0.000
5.370E-06,0.000
5.380E-06,-0.040
5.390E-06,-0.020
5.400E-06,-0.040
5.410E-06,-0.100
5.420E-06,-0.100
5.430E-06,-0.120
5.440E-06,-0.120
5.450E-06,-0.140
5.460E-06,-0.160
5.470E-06,-0.180
5.480E-06,-0.180
5.490E-06,-0.200
5.500E-06,-0.200
5.510E-06,-0.220
5.520E-06,-0.200
5.530E-06,-0.220
5.540E-06,-0.220
5.550E-06,-0.240
5.560E-06,-0.200
5.570E-06,-0.160
5.580E-06,-0.140
5.590E-06,-0.080
5.600E-06,-0.100
5.610E-06,-0.020
5.620E-06,0.020
5.630E-06,0.040
5.640E-06,0.100
5.650E-06,0.140
5.660E-06,0.140
5.670E-06,0.160
5.680E-06,0.160
5.690E-06,0.160
5.700E-06,0.160
5.710E-06,0.140
5.720E-06,0.120
5.730E-06,0.140
5.740E-06,0.180
5.750E-06,0.160
5.760E-06,0.180
5.770E-06,0.160
5.780E-06,0.160
5.790E-06,0.220
5.800E-06,0.220
5.810E-06,0.260
5.820E-06,0.320
5.830E-06,0.340
5.840E-06,0.380
5.850E-06,0.400
5.860E-06,0.420
5.870E-06,0.420
5.880E-06,0.420
5.890E-06,0.400
5.900E-06,0.440
5.910E-06,0.500
5.920E-06,0.520
5.930E-06,0.500
5.940E-06,0.480
5.950E-06,0.480
5.960E-06,0.460
5.970E-06,0.440
5.980E-06,0.440
5.990E-06,0.380
6.000E-06,0.340
6.010E-06,0.320
6.020E-06,0.320
6.030E-06,0.320
6.040E-06,0.320
6.050E-06,0.260
6.060E-06,0.180
6.070E-06,0.120
6.080E-06,0.060
6.090E-06,0.060
6.100E-06,0.080
6.110E-06,0.100
6.120E-06,0.080
6.130E-06,0.060
6.140E-06,0.020
6.150E-06,0.020
6.160E-06,0.080
6.170E-06,0.100
6.180E-06,0.080
6.190E-06,0.120
6.200E-06,0.100
6.210E-06,0.120
6.220E-06,0.080
6.230E-06,0.040
6.240E-06,0.020
6.250E-06,0.000
6.260E-06,-0.020
6.270E-06,-0.020
6.280E-06,-0.100
6.290E-06,-0.100
6.300E-06,-0.120
6.310E-06,-0.120
6.320E-06,-0.080
6.330E-06,-0.080
6.340E-06,-0.040
6.350E-06,-0.040
6.360E-06,-0.080
6.370E-06,-0.100
6.380E-06,-0.100
6.390E-06,-0.180
6.400E-06,-0.140
6.410E-06,-0.140
6.420E-06,-0.120
6.430E-06,-0.120
6.440E-06,-0.120
6.450E-06,-0.120
6.460E-06,-0.100
6.470E-06,-0.100
6.480E-06,-0.080
6.490E-06,-0.020
6.500E-06,-0.040
6.510E-06,-0.040
6.520E-06,-0.020
6.530E-06,0.080
6.540E-06,0.180
6.550E-06,0.260
6.560E-06,0.300
6.570E-06,0.300
6.580E-06,0.240
6.590E-06,0.200
6.600E-06,0.080
6.610E-06,0.020
6.620E-06,0.060
6.630E-06,0.060
6.640E-06,0.100
6.650E-06,0.180
6.660E-06,0.120
6.670E-06,0.140
6.680E-06,0.100
6.690E-06,0.100
6.700E-06,0.060
6.710E-06,0.120
6.720E-06,0.080
6.730E-06,0.120
6.740E-06,0.160
6.750E-06,0.180
6.760E-06,0.340
6.770E-06,0.300
6.780E-06,0.300
6.790E-06,0.280
6.800E-06,0.080
6.810E-06,0.000
6.820E-06,-0.020
6.830E-06,-0.120
6.840E-06,-0.120
6.850E-06,-0.180
6.860E-06,-0.200
6.870E-06,-0.260
6.880E-06,-0.300
6.890E-06,-0.260
6.900E-06,-0.300
6.910E-06,-0.240
6.920E-06,-0.240
6.930E-06,-0.200
6.940E-06,-0.180
6.950E-06,-0.200
6.960E-06,-0.180
6.970E-06,-0.160
6.980E-06,-0.160
6.990E-06,-0.100
7.000E-06,-0.040
7.010E-06,0.000
7.020E-06,0.060
7.030E-06,0.100
7.040E-06,0.180
7.050E-06,0.180
7.060E-06,0.260
7.070E-06,0.260
7.080E-06,0.300
7.090E-06,0.320
7.100E-06,0.340
7.110E-06,0.300
7.120E-06,0.280
7.130E-06,0.240
7.140E-06,0.260
7.150E-06,0.240
7.160E-06,0.220
7.170E-06,0.200
7.180E-06,0.240
7.190E-06,0.240
7.200E-06,0.260
7.210E-06,0.260
7.220E-06,0.240
7.230E-06,0.200
7.240E-06,0.220
7.250E-06,0.180
7.260E-06,0.160
7.270E-06,0.120
7.280E-06,0.100
7.290E-06,0.080
7.300E-06,0.060
7.310E-06,0.060
7.320E-06,0.080
7.330E-06,0.040
7.340E-06,0.020
7.350E-06,0.000
7.360E-06,0.000
7.370E-06,-0.020
7.380E-06,0.000
7.390E-06,0.000
7.400E-06,0.040
7.410E-06,0.060
7.420E-06,0.060
7.430E-06,0.100
7.440E-06,0.140
7.450E-06,0.140
7.460E-06,0.080
7.470E-06,0.080
7.480E-06,0.080
7.490E-06,0.080
7.500E-06,0.140
7.510E-06,0.180
7.520E-06,0.180
7.530E-06,0.220
7.540E-06,0.260
7.550E-06,0.240
7.560E-06,0.160
7.570E-06,0.100
7.580E-06,0.080
7.590E-06,0.080
7.600E-06,0.100
7.610E-06,0.160
7.620E-06,0.260
7.630E-06,0.300
7.640E-06,0.340
7.650E-06,0.340
