mediciones/Mediciones filtradas (saque las feas)/6-10/28.5/WaveData55124.csv

#timebase=2000000(ps)
,#voltbase=100000(mv/100)
#size=4000
-4.250E-06,0.000
-4.240E-06,-0.008
-4.230E-06,-0.008
-4.220E-06,-0.008
-4.210E-06,-0.004
-4.200E-06,0.012
-4.190E-06,-0.056
-4.180E-06,-0.040
-4.170E-06,-0.044
-4.160E-06,0.016
-4.150E-06,0.056
-4.140E-06,0.036
-4.130E-06,-0.008
-4.120E-06,-0.020
-4.110E-06,0.000
-4.100E-06,-0.028
-4.090E-06,-0.024
-4.080E-06,0.004
-4.070E-06,0.024
-4.060E-06,0.024
-4.050E-06,0.024
-4.040E-06,0.020
-4.030E-06,0.000
-4.020E-06,0.008
-4.010E-06,0.012
-4.000E-06,0.020
-3.990E-06,0.040
-3.980E-06,0.032
-3.970E-06,0.008
-3.960E-06,-0.048
-3.950E-06,-0.056
-3.940E-06,-0.028
-3.930E-06,0.000
-3.920E-06,0.052
-3.910E-06,0.040
-3.900E-06,0.008
-3.890E-06,0.008
-3.880E-06,-0.028
-3.870E-06,-0.020
-3.860E-06,-0.032
-3.850E-06,0.000
-3.840E-06,-0.008
-3.830E-06,0.008
-3.820E-06,0.012
-3.810E-06,0.012
-3.800E-06,0.016
-3.790E-06,-0.008
-3.780E-06,-0.020
-3.770E-06,-0.028
-3.760E-06,-0.004
-3.750E-06,0.008
-3.740E-06,0.028
-3.730E-06,0.024
-3.720E-06,0.012
-3.710E-06,-0.004
-3.700E-06,-0.020
-3.690E-06,-0.020
-3.680E-06,-0.004
-3.670E-06,0.016
-3.660E-06,0.028
-3.650E-06,0.028
-3.640E-06,0.012
-3.630E-06,-0.004
-3.620E-06,-0.012
-3.610E-06,-0.008
-3.600E-06,0.012
-3.590E-06,0.020
-3.580E-06,0.028
-3.570E-06,0.028
-3.560E-06,0.024
-3.550E-06,0.020
-3.540E-06,0.012
-3.530E-06,0.012
-3.520E-06,0.028
-3.510E-06,0.028
-3.500E-06,0.052
-3.490E-06,0.036
-3.480E-06,0.016
-3.470E-06,0.036
-3.460E-06,0.036
-3.450E-06,0.024
-3.440E-06,-0.008
-3.430E-06,0.104
-3.420E-06,-0.020
-3.410E-06,-0.064
-3.400E-06,-0.076
-3.390E-06,0.028
-3.380E-06,0.048
-3.370E-06,0.096
-3.360E-06,0.060
-3.350E-06,-0.008
-3.340E-06,-0.064
-3.330E-06,-0.072
-3.320E-06,-0.040
-3.310E-06,-0.004
-3.300E-06,0.048
-3.290E-06,0.060
-3.280E-06,0.064
-3.270E-06,0.028
-3.260E-06,-0.004
-3.250E-06,-0.020
-3.240E-06,-0.012
-3.230E-06,0.012
-3.220E-06,0.040
-3.210E-06,0.068
-3.200E-06,0.068
-3.190E-06,-0.092
-3.180E-06,-0.100
-3.170E-06,-0.120
-3.160E-06,-0.076
-3.150E-06,0.020
-3.140E-06,0.032
-3.130E-06,0.124
-3.120E-06,0.080
-3.110E-06,0.004
-3.100E-06,-0.072
-3.090E-06,-0.116
-3.080E-06,-0.072
-3.070E-06,0.004
-3.060E-06,0.040
-3.050E-06,0.068
-3.040E-06,0.052
-3.030E-06,0.024
-3.020E-06,-0.032
-3.010E-06,-0.056
-3.000E-06,-0.048
-2.990E-06,-0.020
-2.980E-06,0.032
-2.970E-06,0.044
-2.960E-06,0.052
-2.950E-06,0.016
-2.940E-06,-0.004
-2.930E-06,-0.032
-2.920E-06,-0.028
-2.910E-06,-0.004
-2.900E-06,0.012
-2.890E-06,0.044
-2.880E-06,0.040
-2.870E-06,0.036
-2.860E-06,0.012
-2.850E-06,-0.004
-2.840E-06,-0.008
-2.830E-06,-0.004
-2.820E-06,0.024
-2.810E-06,0.056
-2.800E-06,0.088
-2.790E-06,0.096
-2.780E-06,0.080
-2.770E-06,0.056
-2.760E-06,0.020
-2.750E-06,-0.004
-2.740E-06,-0.012
-2.730E-06,-0.012
-2.720E-06,-0.008
-2.710E-06,-0.012
-2.700E-06,-0.008
-2.690E-06,-0.008
-2.680E-06,-0.008
-2.670E-06,0.008
-2.660E-06,0.040
-2.650E-06,0.024
-2.640E-06,0.040
-2.630E-06,0.004
-2.620E-06,-0.024
-2.610E-06,-0.056
-2.600E-06,-0.192
-2.590E-06,-0.192
-2.580E-06,-0.124
-2.570E-06,0.016
-2.560E-06,0.056
-2.550E-06,0.088
-2.540E-06,0.096
-2.530E-06,0.004
-2.520E-06,-0.112
-2.510E-06,-0.120
-2.500E-06,-0.048
-2.490E-06,0.064
-2.480E-06,0.124
-2.470E-06,0.060
-2.460E-06,0.020
-2.450E-06,-0.020
-2.440E-06,-0.040
-2.430E-06,-0.044
-2.420E-06,-0.032
-2.410E-06,-0.004
-2.400E-06,0.028
-2.390E-06,0.048
-2.380E-06,0.028
-2.370E-06,0.024
-2.360E-06,-0.012
-2.350E-06,-0.028
-2.340E-06,-0.008
-2.330E-06,0.008
-2.320E-06,0.008
-2.310E-06,0.012
-2.300E-06,0.020
-2.290E-06,0.016
-2.280E-06,0.008
-2.270E-06,-0.004
-2.260E-06,-0.004
-2.250E-06,0.000
-2.240E-06,0.012
-2.230E-06,0.024
-2.220E-06,0.024
-2.210E-06,0.024
-2.200E-06,0.020
-2.190E-06,0.000
-2.180E-06,-0.008
-2.170E-06,-0.004
-2.160E-06,-0.004
-2.150E-06,0.012
-2.140E-06,0.004
-2.130E-06,0.008
-2.120E-06,0.008
-2.110E-06,0.008
-2.100E-06,0.008
-2.090E-06,0.008
-2.080E-06,0.024
-2.070E-06,0.032
-2.060E-06,0.036
-2.050E-06,0.020
-2.040E-06,0.020
-2.030E-06,0.024
-2.020E-06,0.048
-2.010E-06,0.060
-2.000E-06,0.056
-1.990E-06,0.060
-1.980E-06,0.064
-1.970E-06,0.056
-1.960E-06,0.036
-1.950E-06,0.036
-1.940E-06,0.028
-1.930E-06,0.052
-1.920E-06,0.064
-1.910E-06,0.072
-1.900E-06,0.088
-1.890E-06,0.096
-1.880E-06,0.092
-1.870E-06,0.060
-1.860E-06,0.012
-1.850E-06,-0.160
-1.840E-06,-0.260
-1.830E-06,-0.348
-1.820E-06,-0.260
-1.810E-06,-0.036
-1.800E-06,0.112
-1.790E-06,0.212
-1.780E-06,0.176
-1.770E-06,0.056
-1.760E-06,-0.136
-1.750E-06,-0.208
-1.740E-06,-0.148
-1.730E-06,-0.008
-1.720E-06,0.104
-1.710E-06,0.176
-1.700E-06,0.144
-1.690E-06,0.044
-1.680E-06,-0.028
-1.670E-06,-0.084
-1.660E-06,-0.036
-1.650E-06,0.024
-1.640E-06,0.128
-1.630E-06,0.156
-1.620E-06,0.192
-1.610E-06,0.076
-1.600E-06,-0.052
-1.590E-06,-0.136
-1.580E-06,-0.208
-1.570E-06,-0.108
-1.560E-06,-0.060
-1.550E-06,0.056
-1.540E-06,0.108
-1.530E-06,0.052
-1.520E-06,0.008
-1.510E-06,-0.104
-1.500E-06,-0.112
-1.490E-06,-0.092
-1.480E-06,0.016
-1.470E-06,0.060
-1.460E-06,0.096
-1.450E-06,0.076
-1.440E-06,0.016
-1.430E-06,-0.036
-1.420E-06,-0.072
-1.410E-06,-0.056
-1.400E-06,-0.004
-1.390E-06,0.092
-1.380E-06,0.124
-1.370E-06,0.108
-1.360E-06,0.100
-1.350E-06,0.068
-1.340E-06,0.048
-1.330E-06,0.040
-1.320E-06,-0.020
-1.310E-06,-0.052
-1.300E-06,-0.088
-1.290E-06,-0.104
-1.280E-06,-0.096
-1.270E-06,-0.040
-1.260E-06,-0.024
-1.250E-06,-0.016
-1.240E-06,-0.012
-1.230E-06,-0.032
-1.220E-06,-0.052
-1.210E-06,-0.032
-1.200E-06,0.000
-1.190E-06,0.000
-1.180E-06,-0.012
-1.170E-06,0.004
-1.160E-06,0.000
-1.150E-06,-0.004
-1.140E-06,0.004
-1.130E-06,0.004
-1.120E-06,-0.008
-1.110E-06,-0.004
-1.100E-06,-0.004
-1.090E-06,-0.004
-1.080E-06,0.008
-1.070E-06,0.004
-1.060E-06,0.008
-1.050E-06,0.024
-1.040E-06,0.032
-1.030E-06,0.032
-1.020E-06,0.036
-1.010E-06,0.040
-1.000E-06,0.056
-9.900E-07,0.064
-9.800E-07,0.080
-9.700E-07,0.088
-9.600E-07,0.100
-9.500E-07,0.096
-9.400E-07,0.080
-9.300E-07,0.008
-9.200E-07,-0.064
-9.100E-07,-0.136
-9.000E-07,-0.184
-8.900E-07,-0.164
-8.800E-07,-0.048
-8.700E-07,-0.012
-8.600E-07,0.096
-8.500E-07,0.108
-8.400E-07,0.060
-8.300E-07,-0.068
-8.200E-07,-0.108
-8.100E-07,-0.092
-8.000E-07,-0.040
-7.900E-07,0.012
-7.800E-07,0.064
-7.700E-07,0.056
-7.600E-07,0.016
-7.500E-07,-0.020
-7.400E-07,-0.048
-7.300E-07,-0.064
-7.200E-07,-0.028
-7.100E-07,0.024
-7.000E-07,0.076
-6.900E-07,0.060
-6.800E-07,0.032
-6.700E-07,-0.008
-6.600E-07,-0.036
-6.500E-07,-0.020
-6.400E-07,0.004
-6.300E-07,0.028
-6.200E-07,0.044
-6.100E-07,0.060
-6.000E-07,0.020
-5.900E-07,0.004
-5.800E-07,-0.020
-5.700E-07,-0.008
-5.600E-07,0.028
-5.500E-07,0.048
-5.400E-07,0.072
-5.300E-07,0.088
-5.200E-07,0.076
-5.100E-07,0.044
-5.000E-07,0.060
-4.900E-07,0.064
-4.800E-07,0.076
-4.700E-07,0.108
-4.600E-07,0.120
-4.500E-07,0.124
-4.400E-07,0.104
-4.300E-07,0.100
-4.200E-07,0.060
-4.100E-07,0.036
-4.000E-07,0.000
-3.900E-07,0.032
-3.800E-07,0.052
-3.700E-07,0.108
-3.600E-07,0.132
-3.500E-07,0.140
-3.400E-07,0.104
-3.300E-07,0.060
-3.200E-07,0.024
-3.100E-07,-0.048
-3.000E-07,-0.068
-2.900E-07,-0.056
-2.800E-07,0.020
-2.700E-07,0.064
-2.600E-07,0.096
-2.500E-07,0.072
-2.400E-07,0.052
-2.300E-07,-0.008
-2.200E-07,-0.040
-2.100E-07,-0.048
-2.000E-07,-0.036
-1.900E-07,-0.004
-1.800E-07,0.060
-1.700E-07,0.100
-1.600E-07,0.080
-1.500E-07,0.072
-1.400E-07,-0.044
-1.300E-07,-0.272
-1.200E-07,-0.392
-1.100E-07,-0.396
-1.000E-07,-0.316
-9.000E-08,0.024
-8.000E-08,-0.072
-7.000E-08,0.000
-6.000E-08,-0.136
-5.000E-08,-0.372
-4.000E-08,-0.216
-3.000E-08,-0.204
-2.000E-08,0.064
-1.000E-08,0.184
0.000E+00,0.296
1.000E-08,0.244
2.000E-08,-0.036
3.000E-08,-0.192
4.000E-08,-0.276
5.000E-08,-0.188
6.000E-08,-0.032
7.000E-08,0.148
8.000E-08,0.256
9.000E-08,0.176
1.000E-07,0.044
1.100E-07,-0.140
1.200E-07,-0.228
1.300E-07,-0.172
1.400E-07,-0.044
1.500E-07,0.108
1.600E-07,0.192
1.700E-07,0.172
1.800E-07,0.060
1.900E-07,-0.084
2.000E-07,-0.168
2.100E-07,-0.172
2.200E-07,-0.068
2.300E-07,0.060
2.400E-07,0.148
2.500E-07,0.156
2.600E-07,0.084
2.700E-07,-0.020
2.800E-07,-0.120
2.900E-07,-0.128
3.000E-07,-0.076
3.100E-07,0.032
3.200E-07,0.124
3.300E-07,0.144
3.400E-07,0.100
3.500E-07,0.012
3.600E-07,-0.072
3.700E-07,-0.108
3.800E-07,-0.072
3.900E-07,0.000
4.000E-07,0.080
4.100E-07,0.116
4.200E-07,0.096
4.300E-07,0.044
4.400E-07,-0.016
4.500E-07,-0.056
4.600E-07,-0.052
4.700E-07,0.000
4.800E-07,0.068
4.900E-07,0.108
5.000E-07,0.120
5.100E-07,0.092
5.200E-07,0.040
5.300E-07,0.008
5.400E-07,-0.008
5.500E-07,0.024
5.600E-07,0.076
5.700E-07,0.132
5.800E-07,0.156
5.900E-07,0.128
6.000E-07,0.108
6.100E-07,0.100
6.200E-07,0.108
6.300E-07,0.132
6.400E-07,0.168
6.500E-07,0.172
6.600E-07,0.200
6.700E-07,0.172
6.800E-07,0.068
6.900E-07,-0.136
7.000E-07,-0.340
7.100E-07,-0.304
7.200E-07,-0.176
7.300E-07,-0.068
7.400E-07,0.056
7.500E-07,0.136
7.600E-07,0.096
7.700E-07,0.012
7.800E-07,0.056
7.900E-07,0.056
8.000E-07,0.108
8.100E-07,0.232
8.200E-07,-0.012
8.300E-07,-0.264
8.400E-07,-0.392
8.500E-07,-0.272
8.600E-07,-0.024
8.700E-07,-0.004
8.800E-07,0.148
8.900E-07,0.108
9.000E-07,-0.140
9.100E-07,-0.192
9.200E-07,-0.120
9.300E-07,-0.032
9.400E-07,0.060
9.500E-07,-0.100
9.600E-07,0.168
9.700E-07,-0.080
9.800E-07,0.000
9.900E-07,0.000
1.000E-06,-0.040
1.010E-06,0.020
1.020E-06,0.044
1.030E-06,0.216
1.040E-06,0.068
1.050E-06,0.128
1.060E-06,0.016
1.070E-06,-0.112
1.080E-06,-0.252
1.090E-06,-0.220
1.100E-06,-0.084
1.110E-06,-0.072
1.120E-06,0.024
1.130E-06,0.116
1.140E-06,0.004
1.150E-06,-0.096
1.160E-06,-0.040
1.170E-06,-0.044
1.180E-06,0.024
1.190E-06,0.036
1.200E-06,0.040
1.210E-06,0.004
1.220E-06,0.008
1.230E-06,-0.004
1.240E-06,0.024
1.250E-06,0.036
1.260E-06,0.064
1.270E-06,0.040
1.280E-06,0.012
1.290E-06,0.016
1.300E-06,0.008
1.310E-06,0.016
1.320E-06,-0.004
1.330E-06,0.012
1.340E-06,0.024
1.350E-06,0.040
1.360E-06,0.036
1.370E-06,0.028
1.380E-06,0.040
1.390E-06,0.024
1.400E-06,0.016
1.410E-06,-0.004
1.420E-06,-0.024
1.430E-06,-0.020
1.440E-06,-0.012
1.450E-06,0.008
1.460E-06,0.000
1.470E-06,0.000
1.480E-06,0.024
1.490E-06,0.016
1.500E-06,0.020
1.510E-06,0.012
1.520E-06,0.008
1.530E-06,0.060
1.540E-06,0.052
1.550E-06,0.092
1.560E-06,0.064
1.570E-06,0.056
1.580E-06,0.064
1.590E-06,0.016
1.600E-06,0.048
1.610E-06,0.020
1.620E-06,-0.004
1.630E-06,-0.048
1.640E-06,-0.032
1.650E-06,0.012
1.660E-06,0.060
1.670E-06,0.068
1.680E-06,0.108
1.690E-06,0.072
1.700E-06,0.084
1.710E-06,0.104
1.720E-06,0.144
1.730E-06,0.140
1.740E-06,0.164
1.750E-06,0.156
1.760E-06,0.136
1.770E-06,0.060
1.780E-06,-0.052
1.790E-06,-0.152
1.800E-06,-0.216
1.810E-06,-0.168
1.820E-06,-0.036
1.830E-06,0.156
1.840E-06,0.220
1.850E-06,0.208
1.860E-06,0.188
1.870E-06,0.076
1.880E-06,0.024
1.890E-06,0.096
1.900E-06,0.188
1.910E-06,0.268
1.920E-06,0.240
1.930E-06,0.160
1.940E-06,-0.004
1.950E-06,-0.120
1.960E-06,-0.156
1.970E-06,-0.264
1.980E-06,-0.232
1.990E-06,-0.232
2.000E-06,0.068
2.010E-06,-0.124
2.020E-06,-0.104
2.030E-06,-0.416
2.040E-06,-0.264
2.050E-06,-0.112
2.060E-06,-0.004
2.070E-06,0.212
2.080E-06,0.304
2.090E-06,0.404
2.100E-06,0.408
2.110E-06,-0.124
2.120E-06,-0.428
2.130E-06,-0.512
2.140E-06,-0.508
2.150E-06,-0.336
2.160E-06,-0.064
2.170E-06,0.296
2.180E-06,0.356
2.190E-06,0.216
2.200E-06,0.040
2.210E-06,-0.344
2.220E-06,-0.344
2.230E-06,-0.252
2.240E-06,0.112
2.250E-06,0.292
2.260E-06,0.252
2.270E-06,0.256
2.280E-06,0.024
2.290E-06,-0.136
2.300E-06,-0.124
2.310E-06,-0.052
2.320E-06,0.036
2.330E-06,0.212
2.340E-06,0.264
2.350E-06,0.148
2.360E-06,0.032
2.370E-06,-0.048
2.380E-06,-0.076
2.390E-06,-0.004
2.400E-06,0.056
2.410E-06,0.188
2.420E-06,0.228
2.430E-06,0.248
2.440E-06,0.036
2.450E-06,-0.044
2.460E-06,-0.068
2.470E-06,-0.068
2.480E-06,0.040
2.490E-06,0.192
2.500E-06,0.188
2.510E-06,0.192
2.520E-06,0.056
2.530E-06,-0.044
2.540E-06,-0.072
2.550E-06,0.008
2.560E-06,0.120
2.570E-06,0.224
2.580E-06,0.288
2.590E-06,0.192
2.600E-06,0.100
2.610E-06,0.060
2.620E-06,0.012
2.630E-06,0.060
2.640E-06,0.144
2.650E-06,0.236
2.660E-06,0.256
2.670E-06,0.188
2.680E-06,0.092
2.690E-06,-0.052
2.700E-06,0.008
2.710E-06,0.012
2.720E-06,0.076
2.730E-06,-0.040
2.740E-06,-0.124
2.750E-06,-0.260
2.760E-06,-0.272
2.770E-06,-0.188
2.780E-06,0.028
2.790E-06,0.092
2.800E-06,0.088
2.810E-06,0.084
2.820E-06,0.044
2.830E-06,0.048
2.840E-06,0.036
2.850E-06,0.136
2.860E-06,0.188
2.870E-06,0.240
2.880E-06,0.140
2.890E-06,0.072
2.900E-06,-0.072
2.910E-06,-0.172
2.920E-06,-0.108
2.930E-06,-0.084
2.940E-06,-0.108
2.950E-06,-0.056
2.960E-06,-0.256
2.970E-06,-0.300
2.980E-06,-0.360
2.990E-06,-0.140
3.000E-06,0.096
3.010E-06,0.300
3.020E-06,0.152
3.030E-06,0.124
3.040E-06,-0.048
3.050E-06,-0.124
3.060E-06,-0.260
3.070E-06,-0.228
3.080E-06,0.088
3.090E-06,0.316
3.100E-06,0.336
3.110E-06,0.088
3.120E-06,0.008
3.130E-06,-0.096
3.140E-06,0.112
3.150E-06,0.180
3.160E-06,0.256
3.170E-06,0.260
3.180E-06,0.296
3.190E-06,0.280
3.200E-06,0.192
3.210E-06,0.156
3.220E-06,0.020
3.230E-06,0.116
3.240E-06,0.180
3.250E-06,0.292
3.260E-06,0.284
3.270E-06,0.288
3.280E-06,0.188
3.290E-06,0.148
3.300E-06,0.140
3.310E-06,0.148
3.320E-06,0.200
3.330E-06,0.212
3.340E-06,0.272
3.350E-06,0.252
3.360E-06,0.244
3.370E-06,0.172
3.380E-06,0.164
3.390E-06,0.160
3.400E-06,0.144
3.410E-06,0.236
3.420E-06,0.224
3.430E-06,0.272
3.440E-06,0.204
3.450E-06,0.208
3.460E-06,0.160
3.470E-06,0.148
3.480E-06,0.192
3.490E-06,0.188
3.500E-06,0.220
3.510E-06,0.224
3.520E-06,0.224
3.530E-06,0.200
3.540E-06,0.188
3.550E-06,0.172
3.560E-06,0.176
3.570E-06,0.188
3.580E-06,0.204
3.590E-06,0.212
3.600E-06,0.208
3.610E-06,0.188
3.620E-06,0.192
3.630E-06,0.176
3.640E-06,0.184
3.650E-06,0.188
3.660E-06,0.192
3.670E-06,0.180
3.680E-06,0.164
3.690E-06,0.156
3.700E-06,0.128
3.710E-06,0.128
3.720E-06,0.132
3.730E-06,0.164
3.740E-06,0.192
3.750E-06,0.224
3.760E-06,0.212
3.770E-06,0.204
3.780E-06,0.172
3.790E-06,0.164
3.800E-06,0.172
3.810E-06,0.188
3.820E-06,0.216
3.830E-06,0.224
3.840E-06,0.224
3.850E-06,0.204
3.860E-06,0.188
3.870E-06,0.176
3.880E-06,0.172
3.890E-06,0.192
3.900E-06,0.208
3.910E-06,0.216
3.920E-06,0.212
3.930E-06,0.208
3.940E-06,0.192
3.950E-06,0.188
3.960E-06,0.176
3.970E-06,0.196
3.980E-06,0.200
3.990E-06,0.208
4.000E-06,0.216
4.010E-06,0.200
4.020E-06,0.196
4.030E-06,0.188
4.040E-06,0.184
4.050E-06,0.188
4.060E-06,0.200
4.070E-06,0.200
4.080E-06,0.208
4.090E-06,0.204
4.100E-06,0.196
4.110E-06,0.196
4.120E-06,0.188
4.130E-06,0.192
4.140E-06,0.188
4.150E-06,0.200
4.160E-06,0.196
4.170E-06,0.196
4.180E-06,0.196
4.190E-06,0.188
4.200E-06,0.180
4.210E-06,0.180
4.220E-06,0.188
4.230E-06,0.192
4.240E-06,0.192
4.250E-06,0.196
4.260E-06,0.188
4.270E-06,0.184
4.280E-06,0.180
4.290E-06,0.188
4.300E-06,0.176
4.310E-06,0.180
4.320E-06,0.188
4.330E-06,0.184
4.340E-06,0.192
4.350E-06,0.192
4.360E-06,0.188
4.370E-06,0.176
4.380E-06,0.184
4.390E-06,0.180
4.400E-06,0.188
4.410E-06,0.196
4.420E-06,0.192
4.430E-06,0.180
4.440E-06,0.180
4.450E-06,0.180
4.460E-06,0.172
4.470E-06,0.176
4.480E-06,0.176
4.490E-06,0.188
4.500E-06,0.192
4.510E-06,0.180
4.520E-06,0.180
4.530E-06,0.180
4.540E-06,0.176
4.550E-06,0.176
4.560E-06,0.172
4.570E-06,0.172
4.580E-06,0.180
4.590E-06,0.172
4.600E-06,0.172
4.610E-06,0.172
4.620E-06,0.176
4.630E-06,0.172
4.640E-06,0.172
4.650E-06,0.176
4.660E-06,0.168
4.670E-06,0.176
4.680E-06,0.172
4.690E-06,0.156
4.700E-06,0.168
4.710E-06,0.164
4.720E-06,0.172
4.730E-06,0.168
4.740E-06,0.172
4.750E-06,0.176
4.760E-06,0.164
4.770E-06,0.172
4.780E-06,0.164
4.790E-06,0.164
4.800E-06,0.176
4.810E-06,0.168
4.820E-06,0.156
4.830E-06,0.156
4.840E-06,0.164
4.850E-06,0.152
4.860E-06,0.160
4.870E-06,0.164
4.880E-06,0.164
4.890E-06,0.160
4.900E-06,0.160
4.910E-06,0.152
4.920E-06,0.152
4.930E-06,0.156
4.940E-06,0.160
4.950E-06,0.164
4.960E-06,0.164
4.970E-06,0.160
4.980E-06,0.156
4.990E-06,0.156
5.000E-06,0.160
5.010E-06,0.156
5.020E-06,0.156
5.030E-06,0.156
5.040E-06,0.160
5.050E-06,0.152
5.060E-06,0.160
5.070E-06,0.156
5.080E-06,0.152
5.090E-06,0.152
5.100E-06,0.152
5.110E-06,0.156
5.120E-06,0.164
5.130E-06,0.160
5.140E-06,0.160
5.150E-06,0.152
5.160E-06,0.152
5.170E-06,0.164
5.180E-06,0.144
5.190E-06,0.164
5.200E-06,0.152
5.210E-06,0.164
5.220E-06,0.156
5.230E-06,0.156
5.240E-06,0.156
5.250E-06,0.152
5.260E-06,0.156
5.270E-06,0.160
5.280E-06,0.152
5.290E-06,0.152
5.300E-06,0.144
5.310E-06,0.148
5.320E-06,0.144
5.330E-06,0.140
5.340E-06,0.152
5.350E-06,0.156
5.360E-06,0.152
5.370E-06,0.144
5.380E-06,0.152
5.390E-06,0.140
5.400E-06,0.144
5.410E-06,0.140
5.420E-06,0.144
5.430E-06,0.144
5.440E-06,0.144
5.450E-06,0.148
5.460E-06,0.144
5.470E-06,0.144
5.480E-06,0.140
5.490E-06,0.140
5.500E-06,0.144
5.510E-06,0.140
5.520E-06,0.140
5.530E-06,0.136
5.540E-06,0.140
5.550E-06,0.148
5.560E-06,0.144
5.570E-06,0.136
5.580E-06,0.140
5.590E-06,0.140
5.600E-06,0.136
5.610E-06,0.136
5.620E-06,0.140
5.630E-06,0.136
5.640E-06,0.140
5.650E-06,0.136
5.660E-06,0.140
5.670E-06,0.132
5.680E-06,0.132
5.690E-06,0.132
5.700E-06,0.136
5.710E-06,0.140
5.720E-06,0.136
5.730E-06,0.140
5.740E-06,0.128
5.750E-06,0.136
5.760E-06,0.128
5.770E-06,0.124
5.780E-06,0.124
5.790E-06,0.124
5.800E-06,0.136
5.810E-06,0.128
5.820E-06,0.128
5.830E-06,0.128
5.840E-06,0.124
5.850E-06,0.128
5.860E-06,0.128
5.870E-06,0.128
5.880E-06,0.128
5.890E-06,0.124
5.900E-06,0.120
5.910E-06,0.112
5.920E-06,0.120
5.930E-06,0.124
5.940E-06,0.124
5.950E-06,0.120
5.960E-06,0.128
5.970E-06,0.120
5.980E-06,0.124
5.990E-06,0.120
6.000E-06,0.120
6.010E-06,0.120
6.020E-06,0.124
6.030E-06,0.120
6.040E-06,0.112
6.050E-06,0.112
6.060E-06,0.108
6.070E-06,0.112
6.080E-06,0.112
6.090E-06,0.108
6.100E-06,0.120
6.110E-06,0.120
6.120E-06,0.112
6.130E-06,0.108
6.140E-06,0.108
6.150E-06,0.108
6.160E-06,0.108
6.170E-06,0.108
6.180E-06,0.108
6.190E-06,0.104
6.200E-06,0.108
6.210E-06,0.104
6.220E-06,0.108
6.230E-06,0.104
6.240E-06,0.100
6.250E-06,0.104
6.260E-06,0.108
6.270E-06,0.108
6.280E-06,0.100
6.290E-06,0.104
6.300E-06,0.108
6.310E-06,0.108
6.320E-06,0.104
6.330E-06,0.104
6.340E-06,0.104
6.350E-06,0.104
6.360E-06,0.104
6.370E-06,0.104
6.380E-06,0.104
6.390E-06,0.104
6.400E-06,0.100
6.410E-06,0.096
6.420E-06,0.100
6.430E-06,0.096
6.440E-06,0.104
6.450E-06,0.100
6.460E-06,0.100
6.470E-06,0.104
6.480E-06,0.100
6.490E-06,0.092
6.500E-06,0.096
6.510E-06,0.100
6.520E-06,0.100
6.530E-06,0.104
6.540E-06,0.096
6.550E-06,0.096
6.560E-06,0.100
6.570E-06,0.100
6.580E-06,0.096
6.590E-06,0.100
6.600E-06,0.092
6.610E-06,0.100
6.620E-06,0.096
6.630E-06,0.096
6.640E-06,0.096
6.650E-06,0.096
6.660E-06,0.092
6.670E-06,0.096
6.680E-06,0.096
6.690E-06,0.092
6.700E-06,0.096
6.710E-06,0.096
6.720E-06,0.088
6.730E-06,0.092
6.740E-06,0.088
6.750E-06,0.088
6.760E-06,0.092
6.770E-06,0.092
6.780E-06,0.092
6.790E-06,0.092
6.800E-06,0.088
6.810E-06,0.088
6.820E-06,0.092
6.830E-06,0.092
6.840E-06,0.092
6.850E-06,0.084
6.860E-06,0.088
6.870E-06,0.088
6.880E-06,0.080
6.890E-06,0.084
6.900E-06,0.084
6.910E-06,0.084
6.920E-06,0.088
6.930E-06,0.080
6.940E-06,0.080
6.950E-06,0.084
6.960E-06,0.084
6.970E-06,0.080
6.980E-06,0.084
6.990E-06,0.080
7.000E-06,0.088
7.010E-06,0.088
7.020E-06,0.084
7.030E-06,0.076
7.040E-06,0.080
7.050E-06,0.072
7.060E-06,0.076
7.070E-06,0.080
7.080E-06,0.076
7.090E-06,0.080
7.100E-06,0.080
7.110E-06,0.072
7.120E-06,0.076
7.130E-06,0.068
7.140E-06,0.072
7.150E-06,0.072
7.160E-06,0.072
7.170E-06,0.072
7.180E-06,0.072
7.190E-06,0.068
7.200E-06,0.064
7.210E-06,0.064
7.220E-06,0.068
7.230E-06,0.072
7.240E-06,0.072
7.250E-06,0.072
7.260E-06,0.076
7.270E-06,0.072
7.280E-06,0.060
7.290E-06,0.060
7.300E-06,0.064
7.310E-06,0.068
7.320E-06,0.068
7.330E-06,0.072
7.340E-06,0.068
7.350E-06,0.072
7.360E-06,0.060
7.370E-06,0.056
7.380E-06,0.056
7.390E-06,0.060
7.400E-06,0.064
7.410E-06,0.064
7.420E-06,0.068
7.430E-06,0.060
7.440E-06,0.060
7.450E-06,0.056
7.460E-06,0.056
7.470E-06,0.060
7.480E-06,0.060
7.490E-06,0.060
7.500E-06,0.060
7.510E-06,0.056
7.520E-06,0.056
7.530E-06,0.056
7.540E-06,0.056
7.550E-06,0.060
7.560E-06,0.056
7.570E-06,0.056
7.580E-06,0.056
7.590E-06,0.060
7.600E-06,0.056
7.610E-06,0.052
7.620E-06,0.056
7.630E-06,0.052
7.640E-06,0.056
7.650E-06,0.056
7.660E-06,0.056
7.670E-06,0.052
7.680E-06,0.056
7.690E-06,0.052
7.700E-06,0.052
7.710E-06,0.048
7.720E-06,0.048
7.730E-06,0.052
7.740E-06,0.052
7.750E-06,0.056
7.760E-06,0.056
