mediciones/6-26/38.7/WaveData59170.csv

#timebase=2000000(ps)
,#voltbase=200000(mv/100)
#size=4000
-8.150E-06,0.000
-8.140E-06,0.008
-8.130E-06,0.008
-8.120E-06,0.000
-8.110E-06,0.008
-8.100E-06,0.008
-8.090E-06,0.008
-8.080E-06,-0.008
-8.070E-06,-0.008
-8.060E-06,0.008
-8.050E-06,0.008
-8.040E-06,0.000
-8.030E-06,0.000
-8.020E-06,0.016
-8.010E-06,0.016
-8.000E-06,-0.008
-7.990E-06,-0.008
-7.980E-06,0.008
-7.970E-06,0.000
-7.960E-06,0.008
-7.950E-06,0.000
-7.940E-06,0.000
-7.930E-06,-0.008
-7.920E-06,0.000
-7.910E-06,0.016
-7.900E-06,0.008
-7.890E-06,-0.008
-7.880E-06,0.000
-7.870E-06,0.000
-7.860E-06,0.000
-7.850E-06,0.008
-7.840E-06,0.000
-7.830E-06,-0.008
-7.820E-06,-0.008
-7.810E-06,0.008
-7.800E-06,0.000
-7.790E-06,0.000
-7.780E-06,0.008
-7.770E-06,0.008
-7.760E-06,0.000
-7.750E-06,-0.008
-7.740E-06,0.000
-7.730E-06,0.000
-7.720E-06,0.000
-7.710E-06,0.016
-7.700E-06,0.016
-7.690E-06,0.016
-7.680E-06,-0.008
-7.670E-06,-0.008
-7.660E-06,0.008
-7.650E-06,-0.008
-7.640E-06,-0.008
-7.630E-06,0.000
-7.620E-06,-0.008
-7.610E-06,-0.008
-7.600E-06,0.008
-7.590E-06,0.008
-7.580E-06,0.000
-7.570E-06,0.008
-7.560E-06,0.000
-7.550E-06,0.000
-7.540E-06,0.000
-7.530E-06,0.000
-7.520E-06,0.000
-7.510E-06,0.000
-7.500E-06,0.008
-7.490E-06,0.008
-7.480E-06,0.000
-7.470E-06,0.000
-7.460E-06,0.008
-7.450E-06,-0.008
-7.440E-06,0.000
-7.430E-06,0.008
-7.420E-06,0.000
-7.410E-06,0.000
-7.400E-06,0.008
-7.390E-06,0.008
-7.380E-06,0.000
-7.370E-06,0.000
-7.360E-06,0.000
-7.350E-06,0.000
-7.340E-06,0.000
-7.330E-06,0.008
-7.320E-06,0.008
-7.310E-06,0.000
-7.300E-06,0.008
-7.290E-06,0.000
-7.280E-06,0.000
-7.270E-06,0.008
-7.260E-06,0.000
-7.250E-06,0.000
-7.240E-06,-0.008
-7.230E-06,0.008
-7.220E-06,-0.008
-7.210E-06,0.000
-7.200E-06,0.008
-7.190E-06,0.008
-7.180E-06,-0.008
-7.170E-06,-0.008
-7.160E-06,0.000
-7.150E-06,0.008
-7.140E-06,0.000
-7.130E-06,0.008
-7.120E-06,0.008
-7.110E-06,-0.008
-7.100E-06,-0.008
-7.090E-06,0.008
-7.080E-06,0.000
-7.070E-06,0.008
-7.060E-06,0.008
-7.050E-06,0.000
-7.040E-06,0.000
-7.030E-06,0.000
-7.020E-06,0.008
-7.010E-06,0.016
-7.000E-06,0.000
-6.990E-06,-0.008
-6.980E-06,0.008
-6.970E-06,0.000
-6.960E-06,0.000
-6.950E-06,0.000
-6.940E-06,0.008
-6.930E-06,0.000
-6.920E-06,-0.008
-6.910E-06,0.008
-6.900E-06,0.000
-6.890E-06,0.008
-6.880E-06,0.008
-6.870E-06,0.000
-6.860E-06,0.000
-6.850E-06,0.000
-6.840E-06,0.000
-6.830E-06,0.000
-6.820E-06,0.008
-6.810E-06,0.008
-6.800E-06,0.008
-6.790E-06,0.008
-6.780E-06,0.008
-6.770E-06,-0.008
-6.760E-06,-0.008
-6.750E-06,0.000
-6.740E-06,0.000
-6.730E-06,0.008
-6.720E-06,0.008
-6.710E-06,0.080
-6.700E-06,0.104
-6.690E-06,0.104
-6.680E-06,0.056
-6.670E-06,-0.048
-6.660E-06,-0.128
-6.650E-06,-0.176
-6.640E-06,-0.112
-6.630E-06,0.024
-6.620E-06,0.152
-6.610E-06,0.192
-6.600E-06,0.112
-6.590E-06,-0.008
-6.580E-06,-0.112
-6.570E-06,-0.136
-6.560E-06,-0.080
-6.550E-06,0.056
-6.540E-06,0.120
-6.530E-06,0.160
-6.520E-06,0.056
-6.510E-06,-0.016
-6.500E-06,-0.128
-6.490E-06,-0.128
-6.480E-06,-0.072
-6.470E-06,0.024
-6.460E-06,0.112
-6.450E-06,0.128
-6.440E-06,0.112
-6.430E-06,0.024
-6.420E-06,-0.048
-6.410E-06,-0.080
-6.400E-06,-0.056
-6.390E-06,-0.016
-6.380E-06,0.040
-6.370E-06,0.064
-6.360E-06,0.048
-6.350E-06,0.000
-6.340E-06,-0.040
-6.330E-06,-0.048
-6.320E-06,-0.048
-6.310E-06,0.000
-6.300E-06,0.040
-6.290E-06,0.072
-6.280E-06,0.064
-6.270E-06,0.048
-6.260E-06,-0.008
-6.250E-06,-0.040
-6.240E-06,-0.040
-6.230E-06,-0.024
-6.220E-06,-0.008
-6.210E-06,0.024
-6.200E-06,0.048
-6.190E-06,0.032
-6.180E-06,0.016
-6.170E-06,-0.008
-6.160E-06,-0.016
-6.150E-06,-0.008
-6.140E-06,0.016
-6.130E-06,0.032
-6.120E-06,0.048
-6.110E-06,0.024
-6.100E-06,0.000
-6.090E-06,-0.016
-6.080E-06,-0.024
-6.070E-06,-0.016
-6.060E-06,-0.008
-6.050E-06,0.024
-6.040E-06,0.032
-6.030E-06,0.040
-6.020E-06,0.008
-6.010E-06,-0.008
-6.000E-06,-0.008
-5.990E-06,-0.016
-5.980E-06,0.000
-5.970E-06,0.024
-5.960E-06,0.032
-5.950E-06,0.032
-5.940E-06,0.024
-5.930E-06,-0.016
-5.920E-06,-0.024
-5.910E-06,-0.024
-5.900E-06,-0.016
-5.890E-06,0.000
-5.880E-06,0.024
-5.870E-06,0.024
-5.860E-06,0.016
-5.850E-06,0.000
-5.840E-06,-0.008
-5.830E-06,-0.008
-5.820E-06,0.000
-5.810E-06,0.008
-5.800E-06,0.016
-5.790E-06,0.016
-5.780E-06,0.016
-5.770E-06,-0.008
-5.760E-06,0.000
-5.750E-06,-0.008
-5.740E-06,0.008
-5.730E-06,0.000
-5.720E-06,0.000
-5.710E-06,-0.008
-5.700E-06,0.000
-5.690E-06,0.008
-5.680E-06,0.024
-5.670E-06,0.032
-5.660E-06,0.024
-5.650E-06,0.016
-5.640E-06,-0.016
-5.630E-06,-0.016
-5.620E-06,0.016
-5.610E-06,0.008
-5.600E-06,0.016
-5.590E-06,0.008
-5.580E-06,0.016
-5.570E-06,0.000
-5.560E-06,-0.008
-5.550E-06,-0.008
-5.540E-06,-0.008
-5.530E-06,0.008
-5.520E-06,0.016
-5.510E-06,0.024
-5.500E-06,0.016
-5.490E-06,-0.008
-5.480E-06,0.016
-5.470E-06,0.008
-5.460E-06,0.008
-5.450E-06,0.024
-5.440E-06,0.024
-5.430E-06,0.024
-5.420E-06,0.016
-5.410E-06,0.008
-5.400E-06,0.008
-5.390E-06,0.016
-5.380E-06,0.008
-5.370E-06,0.000
-5.360E-06,-0.016
-5.350E-06,-0.008
-5.340E-06,-0.008
-5.330E-06,0.032
-5.320E-06,0.016
-5.310E-06,0.040
-5.300E-06,-0.008
-5.290E-06,-0.008
-5.280E-06,0.024
-5.270E-06,-0.072
-5.260E-06,-0.056
-5.250E-06,-0.032
-5.240E-06,0.016
-5.230E-06,0.056
-5.220E-06,0.056
-5.210E-06,0.016
-5.200E-06,-0.056
-5.190E-06,-0.048
-5.180E-06,-0.040
-5.170E-06,0.000
-5.160E-06,0.032
-5.150E-06,0.064
-5.140E-06,0.040
-5.130E-06,0.008
-5.120E-06,-0.016
-5.110E-06,-0.040
-5.100E-06,-0.016
-5.090E-06,0.000
-5.080E-06,0.040
-5.070E-06,0.048
-5.060E-06,0.024
-5.050E-06,-0.008
-5.040E-06,-0.008
-5.030E-06,-0.024
-5.020E-06,0.000
-5.010E-06,0.008
-5.000E-06,0.024
-4.990E-06,0.032
-4.980E-06,0.024
-4.970E-06,0.008
-4.960E-06,-0.008
-4.950E-06,-0.008
-4.940E-06,0.008
-4.930E-06,0.024
-4.920E-06,0.032
-4.910E-06,0.024
-4.900E-06,-0.016
-4.890E-06,0.008
-4.880E-06,0.000
-4.870E-06,0.040
-4.860E-06,-0.008
-4.850E-06,-0.016
-4.840E-06,-0.016
-4.830E-06,-0.016
-4.820E-06,-0.016
-4.810E-06,0.024
-4.800E-06,0.056
-4.790E-06,0.040
-4.780E-06,0.032
-4.770E-06,-0.008
-4.760E-06,-0.024
-4.750E-06,-0.040
-4.740E-06,-0.008
-4.730E-06,0.048
-4.720E-06,0.048
-4.710E-06,0.040
-4.700E-06,0.024
-4.690E-06,-0.008
-4.680E-06,-0.016
-4.670E-06,-0.024
-4.660E-06,0.008
-4.650E-06,0.024
-4.640E-06,0.000
-4.630E-06,0.000
-4.620E-06,-0.040
-4.610E-06,-0.016
-4.600E-06,0.000
-4.590E-06,0.040
-4.580E-06,0.048
-4.570E-06,0.016
-4.560E-06,0.016
-4.550E-06,-0.048
-4.540E-06,-0.024
-4.530E-06,-0.032
-4.520E-06,0.024
-4.510E-06,0.024
-4.500E-06,0.032
-4.490E-06,0.008
-4.480E-06,-0.008
-4.470E-06,-0.016
-4.460E-06,-0.024
-4.450E-06,0.024
-4.440E-06,0.000
-4.430E-06,0.040
-4.420E-06,0.000
-4.410E-06,-0.008
-4.400E-06,-0.016
-4.390E-06,-0.016
-4.380E-06,0.008
-4.370E-06,0.008
-4.360E-06,0.008
-4.350E-06,-0.016
-4.340E-06,-0.008
-4.330E-06,-0.008
-4.320E-06,0.016
-4.310E-06,0.008
-4.300E-06,0.016
-4.290E-06,0.000
-4.280E-06,-0.016
-4.270E-06,-0.024
-4.260E-06,0.000
-4.250E-06,0.016
-4.240E-06,0.024
-4.230E-06,0.024
-4.220E-06,0.016
-4.210E-06,0.008
-4.200E-06,-0.008
-4.190E-06,-0.008
-4.180E-06,0.000
-4.170E-06,0.024
-4.160E-06,0.024
-4.150E-06,0.032
-4.140E-06,0.032
-4.130E-06,0.016
-4.120E-06,-0.008
-4.110E-06,-0.024
-4.100E-06,0.008
-4.090E-06,0.024
-4.080E-06,0.024
-4.070E-06,0.088
-4.060E-06,0.088
-4.050E-06,0.064
-4.040E-06,0.056
-4.030E-06,-0.144
-4.020E-06,-0.168
-4.010E-06,-0.152
-4.000E-06,0.000
-3.990E-06,0.112
-3.980E-06,0.128
-3.970E-06,0.176
-3.960E-06,0.072
-3.950E-06,-0.008
-3.940E-06,-0.136
-3.930E-06,-0.168
-3.920E-06,-0.096
-3.910E-06,0.080
-3.900E-06,0.208
-3.890E-06,0.152
-3.880E-06,0.008
-3.870E-06,-0.144
-3.860E-06,-0.216
-3.850E-06,-0.120
-3.840E-06,-0.072
-3.830E-06,0.048
-3.820E-06,0.136
-3.810E-06,0.120
-3.800E-06,0.048
-3.790E-06,-0.072
-3.780E-06,-0.104
-3.770E-06,-0.104
-3.760E-06,-0.032
-3.750E-06,0.024
-3.740E-06,0.072
-3.730E-06,0.080
-3.720E-06,0.048
-3.710E-06,0.008
-3.700E-06,-0.064
-3.690E-06,-0.072
-3.680E-06,-0.048
-3.670E-06,0.024
-3.660E-06,0.040
-3.650E-06,0.072
-3.640E-06,0.056
-3.630E-06,0.032
-3.620E-06,-0.008
-3.610E-06,-0.048
-3.600E-06,-0.040
-3.590E-06,-0.008
-3.580E-06,0.040
-3.570E-06,0.048
-3.560E-06,0.056
-3.550E-06,0.032
-3.540E-06,0.008
-3.530E-06,-0.016
-3.520E-06,-0.024
-3.510E-06,-0.008
-3.500E-06,0.016
-3.490E-06,0.032
-3.480E-06,0.048
-3.470E-06,0.040
-3.460E-06,0.016
-3.450E-06,0.000
-3.440E-06,0.000
-3.430E-06,0.000
-3.420E-06,0.024
-3.410E-06,0.048
-3.400E-06,0.048
-3.390E-06,0.024
-3.380E-06,0.024
-3.370E-06,0.016
-3.360E-06,-0.008
-3.350E-06,0.008
-3.340E-06,0.048
-3.330E-06,-0.016
-3.320E-06,-0.048
-3.310E-06,-0.016
-3.300E-06,0.080
-3.290E-06,-0.032
-3.280E-06,0.080
-3.270E-06,0.088
-3.260E-06,0.032
-3.250E-06,-0.032
-3.240E-06,-0.016
-3.230E-06,0.048
-3.220E-06,-0.056
-3.210E-06,-0.112
-3.200E-06,-0.208
-3.190E-06,-0.008
-3.180E-06,-0.016
-3.170E-06,0.160
-3.160E-06,0.112
-3.150E-06,0.144
-3.140E-06,0.048
-3.130E-06,-0.104
-3.120E-06,-0.200
-3.110E-06,-0.200
-3.100E-06,-0.016
-3.090E-06,0.128
-3.080E-06,0.192
-3.070E-06,0.144
-3.060E-06,0.040
-3.050E-06,-0.080
-3.040E-06,-0.128
-3.030E-06,-0.136
-3.020E-06,-0.040
-3.010E-06,0.056
-3.000E-06,0.144
-2.990E-06,0.128
-2.980E-06,0.056
-2.970E-06,-0.016
-2.960E-06,-0.080
-2.950E-06,-0.072
-2.940E-06,-0.032
-2.930E-06,0.072
-2.920E-06,0.120
-2.910E-06,0.152
-2.900E-06,0.088
-2.890E-06,0.024
-2.880E-06,-0.072
-2.870E-06,-0.080
-2.860E-06,-0.064
-2.850E-06,0.000
-2.840E-06,0.096
-2.830E-06,0.128
-2.820E-06,0.120
-2.810E-06,0.048
-2.800E-06,-0.016
-2.790E-06,-0.080
-2.780E-06,-0.072
-2.770E-06,0.000
-2.760E-06,0.064
-2.750E-06,0.144
-2.740E-06,0.136
-2.730E-06,0.112
-2.720E-06,0.024
-2.710E-06,-0.016
-2.700E-06,-0.024
-2.690E-06,-0.288
-2.680E-06,0.056
-2.670E-06,-0.056
-2.660E-06,-0.152
-2.650E-06,0.048
-2.640E-06,0.216
-2.630E-06,0.224
-2.620E-06,0.040
-2.610E-06,-0.008
-2.600E-06,-0.136
-2.590E-06,-0.056
-2.580E-06,0.016
-2.570E-06,0.088
-2.560E-06,0.104
-2.550E-06,0.056
-2.540E-06,-0.104
-2.530E-06,-0.192
-2.520E-06,-0.096
-2.510E-06,-0.152
-2.500E-06,-0.104
-2.490E-06,0.008
-2.480E-06,0.216
-2.470E-06,0.224
-2.460E-06,0.088
-2.450E-06,-0.024
-2.440E-06,-0.016
-2.430E-06,-0.200
-2.420E-06,-0.336
-2.410E-06,-0.200
-2.400E-06,-0.008
-2.390E-06,0.120
-2.380E-06,0.232
-2.370E-06,0.184
-2.360E-06,-0.008
-2.350E-06,-0.120
-2.340E-06,-0.200
-2.330E-06,-0.176
-2.320E-06,-0.032
-2.310E-06,0.096
-2.300E-06,0.192
-2.290E-06,0.184
-2.280E-06,0.056
-2.270E-06,-0.048
-2.260E-06,-0.128
-2.250E-06,-0.136
-2.240E-06,-0.040
-2.230E-06,0.056
-2.220E-06,0.136
-2.210E-06,0.144
-2.200E-06,0.112
-2.190E-06,0.024
-2.180E-06,-0.056
-2.170E-06,-0.096
-2.160E-06,-0.080
-2.150E-06,0.000
-2.140E-06,0.072
-2.130E-06,0.120
-2.120E-06,0.112
-2.110E-06,0.048
-2.100E-06,-0.024
-2.090E-06,-0.080
-2.080E-06,-0.072
-2.070E-06,-0.032
-2.060E-06,0.016
-2.050E-06,0.064
-2.040E-06,0.072
-2.030E-06,0.048
-2.020E-06,0.024
-2.010E-06,-0.024
-2.000E-06,-0.048
-1.990E-06,0.000
-1.980E-06,0.024
-1.970E-06,0.072
-1.960E-06,0.088
-1.950E-06,0.064
-1.940E-06,0.032
-1.930E-06,0.008
-1.920E-06,0.000
-1.910E-06,0.008
-1.900E-06,0.048
-1.890E-06,0.080
-1.880E-06,0.104
-1.870E-06,0.088
-1.860E-06,0.040
-1.850E-06,0.032
-1.840E-06,0.056
-1.830E-06,0.056
-1.820E-06,0.072
-1.810E-06,0.088
-1.800E-06,0.136
-1.790E-06,0.120
-1.780E-06,0.128
-1.770E-06,0.096
-1.760E-06,0.048
-1.750E-06,0.088
-1.740E-06,0.088
-1.730E-06,-0.112
-1.720E-06,-0.152
-1.710E-06,-0.384
-1.700E-06,-0.640
-1.690E-06,-0.440
-1.680E-06,0.040
-1.670E-06,0.344
-1.660E-06,0.368
-1.650E-06,0.288
-1.640E-06,0.112
-1.630E-06,-0.248
-1.620E-06,-0.328
-1.610E-06,-0.264
-1.600E-06,-0.144
-1.590E-06,0.128
-1.580E-06,0.312
-1.570E-06,0.208
-1.560E-06,0.088
-1.550E-06,-0.104
-1.540E-06,-0.224
-1.530E-06,-0.136
-1.520E-06,0.128
-1.510E-06,0.152
-1.500E-06,0.192
-1.490E-06,0.024
-1.480E-06,-0.112
-1.470E-06,-0.176
-1.460E-06,-0.232
-1.450E-06,-0.128
-1.440E-06,-0.040
-1.430E-06,0.152
-1.420E-06,0.224
-1.410E-06,0.272
-1.400E-06,0.072
-1.390E-06,-0.112
-1.380E-06,-0.112
-1.370E-06,-0.112
-1.360E-06,0.064
-1.350E-06,0.088
-1.340E-06,0.136
-1.330E-06,0.128
-1.320E-06,0.024
-1.310E-06,-0.024
-1.300E-06,-0.080
-1.290E-06,-0.040
-1.280E-06,0.024
-1.270E-06,0.096
-1.260E-06,0.144
-1.250E-06,0.112
-1.240E-06,0.096
-1.230E-06,0.008
-1.220E-06,0.000
-1.210E-06,0.016
-1.200E-06,0.032
-1.190E-06,0.088
-1.180E-06,0.160
-1.170E-06,0.168
-1.160E-06,0.168
-1.150E-06,0.120
-1.140E-06,0.080
-1.130E-06,0.088
-1.120E-06,0.152
-1.110E-06,0.176
-1.100E-06,0.224
-1.090E-06,0.248
-1.080E-06,0.248
-1.070E-06,0.216
-1.060E-06,0.176
-1.050E-06,0.104
-1.040E-06,0.056
-1.030E-06,0.112
-1.020E-06,0.152
-1.010E-06,0.120
-1.000E-06,0.136
-9.900E-07,-0.032
-9.800E-07,-0.184
-9.700E-07,-0.256
-9.600E-07,-0.088
-9.500E-07,-0.008
-9.400E-07,-0.264
-9.300E-07,-0.200
-9.200E-07,-0.160
-9.100E-07,-0.256
-9.000E-07,-0.536
-8.900E-07,-0.576
-8.800E-07,-0.480
-8.700E-07,-0.072
-8.600E-07,-0.016
-8.500E-07,0.176
-8.400E-07,0.008
-8.300E-07,0.000
-8.200E-07,0.128
-8.100E-07,-0.120
-8.000E-07,-0.040
-7.900E-07,-0.048
-7.800E-07,0.136
-7.700E-07,0.216
-7.600E-07,0.344
-7.500E-07,0.192
-7.400E-07,0.088
-7.300E-07,0.024
-7.200E-07,-0.048
-7.100E-07,0.072
-7.000E-07,0.080
-6.900E-07,0.096
-6.800E-07,0.120
-6.700E-07,0.152
-6.600E-07,0.104
-6.500E-07,0.128
-6.400E-07,0.160
-6.300E-07,0.112
-6.200E-07,0.080
-6.100E-07,0.072
-6.000E-07,0.072
-5.900E-07,0.008
-5.800E-07,-0.040
-5.700E-07,-0.024
-5.600E-07,-0.040
-5.500E-07,0.040
-5.400E-07,0.112
-5.300E-07,0.120
-5.200E-07,0.192
-5.100E-07,0.128
-5.000E-07,0.128
-4.900E-07,0.008
-4.800E-07,0.040
-4.700E-07,0.104
-4.600E-07,0.200
-4.500E-07,0.272
-4.400E-07,0.288
-4.300E-07,0.272
-4.200E-07,0.200
-4.100E-07,0.200
-4.000E-07,0.160
-3.900E-07,0.200
-3.800E-07,0.200
-3.700E-07,0.264
-3.600E-07,0.328
-3.500E-07,0.336
-3.400E-07,0.312
-3.300E-07,0.264
-3.200E-07,0.216
-3.100E-07,0.248
-3.000E-07,0.280
-2.900E-07,0.296
-2.800E-07,0.320
-2.700E-07,0.328
-2.600E-07,0.312
-2.500E-07,0.248
-2.400E-07,0.200
-2.300E-07,0.144
-2.200E-07,0.112
-2.100E-07,0.120
-2.000E-07,0.200
-1.900E-07,0.304
-1.800E-07,0.328
-1.700E-07,0.408
-1.600E-07,0.384
-1.500E-07,0.352
-1.400E-07,0.248
-1.300E-07,0.176
-1.200E-07,0.152
-1.100E-07,0.144
-1.000E-07,0.152
-9.000E-08,0.096
-8.000E-08,0.000
-7.000E-08,-0.152
-6.000E-08,-0.256
-5.000E-08,-0.328
-4.000E-08,-0.280
-3.000E-08,0.016
-2.000E-08,0.344
-1.000E-08,0.336
0.000E+00,0.360
1.000E-08,0.112
2.000E-08,0.088
3.000E-08,-0.208
4.000E-08,-0.360
5.000E-08,-0.112
6.000E-08,0.064
7.000E-08,0.336
8.000E-08,0.392
9.000E-08,0.336
1.000E-07,0.208
1.100E-07,-0.112
1.200E-07,-0.168
1.300E-07,-0.072
1.400E-07,0.112
1.500E-07,0.288
1.600E-07,0.312
1.700E-07,0.408
1.800E-07,0.280
1.900E-07,0.096
2.000E-07,0.024
2.100E-07,0.024
2.200E-07,0.160
2.300E-07,0.288
2.400E-07,0.424
2.500E-07,0.464
2.600E-07,0.416
2.700E-07,0.336
2.800E-07,0.248
2.900E-07,0.168
3.000E-07,0.192
3.100E-07,0.288
3.200E-07,0.368
3.300E-07,0.440
3.400E-07,0.440
3.500E-07,0.384
3.600E-07,0.312
3.700E-07,0.248
3.800E-07,0.216
3.900E-07,0.256
4.000E-07,0.336
4.100E-07,0.392
4.200E-07,0.400
4.300E-07,0.384
4.400E-07,0.320
4.500E-07,0.264
4.600E-07,0.232
4.700E-07,0.256
4.800E-07,0.288
4.900E-07,0.336
5.000E-07,0.376
5.100E-07,0.376
5.200E-07,0.336
5.300E-07,0.296
5.400E-07,0.264
5.500E-07,0.264
5.600E-07,0.288
5.700E-07,0.336
5.800E-07,0.352
5.900E-07,0.360
6.000E-07,0.344
6.100E-07,0.304
6.200E-07,0.272
6.300E-07,0.264
6.400E-07,0.272
6.500E-07,0.312
6.600E-07,0.344
6.700E-07,0.352
6.800E-07,0.344
6.900E-07,0.312
7.000E-07,0.288
7.100E-07,0.280
7.200E-07,0.288
7.300E-07,0.312
7.400E-07,0.320
7.500E-07,0.328
7.600E-07,0.328
7.700E-07,0.296
7.800E-07,0.288
7.900E-07,0.280
8.000E-07,0.280
8.100E-07,0.280
8.200E-07,0.312
8.300E-07,0.320
8.400E-07,0.312
8.500E-07,0.304
8.600E-07,0.288
8.700E-07,0.280
8.800E-07,0.280
8.900E-07,0.288
9.000E-07,0.304
9.100E-07,0.312
9.200E-07,0.320
9.300E-07,0.304
9.400E-07,0.288
9.500E-07,0.280
9.600E-07,0.280
9.700E-07,0.272
9.800E-07,0.288
9.900E-07,0.296
1.000E-06,0.304
1.010E-06,0.304
1.020E-06,0.296
1.030E-06,0.288
1.040E-06,0.288
1.050E-06,0.288
1.060E-06,0.280
1.070E-06,0.272
1.080E-06,0.296
1.090E-06,0.296
1.100E-06,0.296
1.110E-06,0.296
1.120E-06,0.288
1.130E-06,0.280
1.140E-06,0.288
1.150E-06,0.272
1.160E-06,0.288
1.170E-06,0.296
1.180E-06,0.296
1.190E-06,0.288
1.200E-06,0.280
1.210E-06,0.272
1.220E-06,0.272
1.230E-06,0.280
1.240E-06,0.288
1.250E-06,0.272
1.260E-06,0.280
1.270E-06,0.264
1.280E-06,0.256
1.290E-06,0.248
1.300E-06,0.248
1.310E-06,0.272
1.320E-06,0.288
1.330E-06,0.280
1.340E-06,0.280
1.350E-06,0.280
1.360E-06,0.280
1.370E-06,0.264
1.380E-06,0.256
1.390E-06,0.264
1.400E-06,0.272
1.410E-06,0.272
1.420E-06,0.272
1.430E-06,0.280
1.440E-06,0.288
1.450E-06,0.272
1.460E-06,0.264
1.470E-06,0.256
1.480E-06,0.264
1.490E-06,0.264
1.500E-06,0.272
1.510E-06,0.280
1.520E-06,0.272
1.530E-06,0.264
1.540E-06,0.256
1.550E-06,0.264
1.560E-06,0.264
1.570E-06,0.264
1.580E-06,0.272
1.590E-06,0.272
1.600E-06,0.264
1.610E-06,0.264
1.620E-06,0.256
1.630E-06,0.256
1.640E-06,0.248
1.650E-06,0.256
1.660E-06,0.256
1.670E-06,0.256
1.680E-06,0.256
1.690E-06,0.256
1.700E-06,0.256
1.710E-06,0.248
1.720E-06,0.248
1.730E-06,0.248
1.740E-06,0.248
1.750E-06,0.256
1.760E-06,0.256
1.770E-06,0.256
1.780E-06,0.256
1.790E-06,0.256
1.800E-06,0.264
1.810E-06,0.264
1.820E-06,0.256
1.830E-06,0.256
1.840E-06,0.248
1.850E-06,0.248
1.860E-06,0.248
1.870E-06,0.256
1.880E-06,0.256
1.890E-06,0.248
1.900E-06,0.248
1.910E-06,0.248
1.920E-06,0.248
1.930E-06,0.248
1.940E-06,0.248
1.950E-06,0.240
1.960E-06,0.240
1.970E-06,0.240
1.980E-06,0.248
1.990E-06,0.240
2.000E-06,0.248
2.010E-06,0.248
2.020E-06,0.240
2.030E-06,0.248
2.040E-06,0.248
2.050E-06,0.224
2.060E-06,0.216
2.070E-06,0.240
2.080E-06,0.232
2.090E-06,0.240
2.100E-06,0.224
2.110E-06,0.216
2.120E-06,0.216
2.130E-06,0.224
2.140E-06,0.224
2.150E-06,0.224
2.160E-06,0.216
2.170E-06,0.216
2.180E-06,0.216
2.190E-06,0.216
2.200E-06,0.224
2.210E-06,0.216
2.220E-06,0.208
2.230E-06,0.208
2.240E-06,0.216
2.250E-06,0.216
2.260E-06,0.216
2.270E-06,0.216
2.280E-06,0.216
2.290E-06,0.208
2.300E-06,0.208
2.310E-06,0.208
2.320E-06,0.208
2.330E-06,0.216
2.340E-06,0.208
2.350E-06,0.208
2.360E-06,0.216
2.370E-06,0.208
2.380E-06,0.200
2.390E-06,0.200
2.400E-06,0.200
2.410E-06,0.200
2.420E-06,0.208
2.430E-06,0.208
2.440E-06,0.200
2.450E-06,0.208
2.460E-06,0.200
2.470E-06,0.200
2.480E-06,0.200
2.490E-06,0.200
2.500E-06,0.200
2.510E-06,0.192
2.520E-06,0.200
2.530E-06,0.200
2.540E-06,0.192
2.550E-06,0.192
2.560E-06,0.192
2.570E-06,0.192
2.580E-06,0.184
2.590E-06,0.184
2.600E-06,0.192
2.610E-06,0.192
2.620E-06,0.184
2.630E-06,0.192
2.640E-06,0.184
2.650E-06,0.192
2.660E-06,0.192
2.670E-06,0.192
2.680E-06,0.184
2.690E-06,0.184
2.700E-06,0.192
2.710E-06,0.184
2.720E-06,0.184
2.730E-06,0.192
2.740E-06,0.192
2.750E-06,0.184
2.760E-06,0.192
2.770E-06,0.176
2.780E-06,0.176
2.790E-06,0.176
2.800E-06,0.184
2.810E-06,0.184
2.820E-06,0.176
2.830E-06,0.184
2.840E-06,0.184
2.850E-06,0.176
2.860E-06,0.168
2.870E-06,0.176
2.880E-06,0.176
2.890E-06,0.184
2.900E-06,0.176
2.910E-06,0.176
2.920E-06,0.176
2.930E-06,0.168
2.940E-06,0.160
2.950E-06,0.160
2.960E-06,0.176
2.970E-06,0.176
2.980E-06,0.168
2.990E-06,0.168
3.000E-06,0.168
3.010E-06,0.176
3.020E-06,0.160
3.030E-06,0.168
3.040E-06,0.160
3.050E-06,0.160
3.060E-06,0.168
3.070E-06,0.160
3.080E-06,0.160
3.090E-06,0.152
3.100E-06,0.160
3.110E-06,0.152
3.120E-06,0.160
3.130E-06,0.152
3.140E-06,0.160
3.150E-06,0.160
3.160E-06,0.152
3.170E-06,0.152
3.180E-06,0.144
3.190E-06,0.152
3.200E-06,0.152
3.210E-06,0.144
3.220E-06,0.144
3.230E-06,0.152
3.240E-06,0.152
3.250E-06,0.152
3.260E-06,0.144
3.270E-06,0.144
3.280E-06,0.152
3.290E-06,0.144
3.300E-06,0.144
3.310E-06,0.144
3.320E-06,0.144
3.330E-06,0.144
3.340E-06,0.152
3.350E-06,0.144
3.360E-06,0.136
3.370E-06,0.144
3.380E-06,0.136
3.390E-06,0.136
3.400E-06,0.144
3.410E-06,0.144
3.420E-06,0.136
3.430E-06,0.144
3.440E-06,0.128
3.450E-06,0.128
3.460E-06,0.136
3.470E-06,0.128
3.480E-06,0.128
3.490E-06,0.136
3.500E-06,0.128
3.510E-06,0.128
3.520E-06,0.128
3.530E-06,0.120
3.540E-06,0.128
3.550E-06,0.128
3.560E-06,0.136
3.570E-06,0.128
3.580E-06,0.120
3.590E-06,0.120
3.600E-06,0.128
3.610E-06,0.128
3.620E-06,0.128
