mediciones/6-26/38.7/WaveData59175.csv

#timebase=2000000(ps)
,#voltbase=500000(mv/100)
#size=4000
-8.150E-06,-0.100
-8.140E-06,-0.200
-8.130E-06,-0.300
-8.120E-06,-0.320
-8.110E-06,-0.340
-8.100E-06,-0.340
-8.090E-06,-0.260
-8.080E-06,-0.220
-8.070E-06,-0.220
-8.060E-06,-0.160
-8.050E-06,-0.160
-8.040E-06,-0.140
-8.030E-06,-0.180
-8.020E-06,-0.180
-8.010E-06,-0.160
-8.000E-06,-0.080
-7.990E-06,-0.020
-7.980E-06,-0.020
-7.970E-06,0.000
-7.960E-06,0.000
-7.950E-06,-0.020
-7.940E-06,0.000
-7.930E-06,0.060
-7.920E-06,0.100
-7.910E-06,0.160
-7.900E-06,0.160
-7.890E-06,0.160
-7.880E-06,0.160
-7.870E-06,0.160
-7.860E-06,0.200
-7.850E-06,0.220
-7.840E-06,0.200
-7.830E-06,0.180
-7.820E-06,0.180
-7.810E-06,0.160
-7.800E-06,0.180
-7.790E-06,0.220
-7.780E-06,0.240
-7.770E-06,0.200
-7.760E-06,0.200
-7.750E-06,0.120
-7.740E-06,0.080
-7.730E-06,0.040
-7.720E-06,0.020
-7.710E-06,0.000
-7.700E-06,-0.020
-7.690E-06,-0.040
-7.680E-06,-0.040
-7.670E-06,-0.180
-7.660E-06,-0.280
-7.650E-06,-0.220
-7.640E-06,-0.260
-7.630E-06,0.040
-7.620E-06,0.400
-7.610E-06,0.580
-7.600E-06,0.680
-7.590E-06,0.540
-7.580E-06,0.320
-7.570E-06,0.160
-7.560E-06,-0.020
-7.550E-06,0.000
-7.540E-06,0.240
-7.530E-06,0.300
-7.520E-06,0.280
-7.510E-06,0.160
-7.500E-06,-0.200
-7.490E-06,-0.280
-7.480E-06,-0.180
-7.470E-06,0.160
-7.460E-06,0.520
-7.450E-06,0.680
-7.440E-06,0.520
-7.430E-06,0.260
-7.420E-06,-0.040
-7.410E-06,-0.240
-7.400E-06,-0.120
-7.390E-06,0.000
-7.380E-06,0.100
-7.370E-06,0.080
-7.360E-06,-0.060
-7.350E-06,-0.240
-7.340E-06,-0.320
-7.330E-06,-0.320
-7.320E-06,-0.260
-7.310E-06,-0.100
-7.300E-06,-0.060
-7.290E-06,-0.080
-7.280E-06,-0.160
-7.270E-06,-0.280
-7.260E-06,-0.320
-7.250E-06,-0.280
-7.240E-06,-0.240
-7.230E-06,-0.100
-7.220E-06,-0.180
-7.210E-06,-0.260
-7.200E-06,-0.240
-7.190E-06,-0.300
-7.180E-06,-0.080
-7.170E-06,0.120
-7.160E-06,0.320
-7.150E-06,0.240
-7.140E-06,0.220
-7.130E-06,0.240
-7.120E-06,0.360
-7.110E-06,0.600
-7.100E-06,0.720
-7.090E-06,0.580
-7.080E-06,0.420
-7.070E-06,0.340
-7.060E-06,0.240
-7.050E-06,0.320
-7.040E-06,0.340
-7.030E-06,0.340
-7.020E-06,0.340
-7.010E-06,0.260
-7.000E-06,0.160
-6.990E-06,0.100
-6.980E-06,0.080
-6.970E-06,0.140
-6.960E-06,0.120
-6.950E-06,0.080
-6.940E-06,0.000
-6.930E-06,-0.040
-6.920E-06,-0.120
-6.910E-06,-0.120
-6.900E-06,-0.140
-6.890E-06,-0.180
-6.880E-06,-0.180
-6.870E-06,-0.160
-6.860E-06,-0.220
-6.850E-06,-0.240
-6.840E-06,-0.280
-6.830E-06,-0.320
-6.820E-06,-0.320
-6.810E-06,-0.240
-6.800E-06,-0.340
-6.790E-06,-0.380
-6.780E-06,-0.240
-6.770E-06,-0.140
-6.760E-06,0.140
-6.750E-06,0.240
-6.740E-06,0.160
-6.730E-06,0.000
-6.720E-06,-0.160
-6.710E-06,-0.140
-6.700E-06,0.080
-6.690E-06,0.240
-6.680E-06,0.360
-6.670E-06,0.340
-6.660E-06,0.280
-6.650E-06,0.220
-6.640E-06,0.160
-6.630E-06,0.160
-6.620E-06,0.180
-6.610E-06,0.200
-6.600E-06,0.160
-6.590E-06,0.160
-6.580E-06,0.140
-6.570E-06,0.180
-6.560E-06,0.200
-6.550E-06,0.200
-6.540E-06,0.140
-6.530E-06,-0.020
-6.520E-06,-0.180
-6.510E-06,-0.160
-6.500E-06,-0.100
-6.490E-06,0.040
-6.480E-06,0.160
-6.470E-06,0.120
-6.460E-06,0.040
-6.450E-06,0.020
-6.440E-06,0.100
-6.430E-06,0.360
-6.420E-06,0.620
-6.410E-06,0.820
-6.400E-06,0.760
-6.390E-06,0.500
-6.380E-06,0.240
-6.370E-06,0.160
-6.360E-06,0.140
-6.350E-06,0.200
-6.340E-06,0.260
-6.330E-06,0.200
-6.320E-06,0.060
-6.310E-06,-0.020
-6.300E-06,-0.180
-6.290E-06,-0.180
-6.280E-06,-0.180
-6.270E-06,-0.160
-6.260E-06,-0.140
-6.250E-06,-0.200
-6.240E-06,-0.240
-6.230E-06,-0.300
-6.220E-06,-0.320
-6.210E-06,-0.340
-6.200E-06,-0.300
-6.190E-06,-0.300
-6.180E-06,-0.320
-6.170E-06,-0.320
-6.160E-06,-0.260
-6.150E-06,-0.220
-6.140E-06,-0.160
-6.130E-06,-0.140
-6.120E-06,-0.100
-6.110E-06,-0.020
-6.100E-06,0.020
-6.090E-06,0.000
-6.080E-06,0.020
-6.070E-06,0.000
-6.060E-06,0.020
-6.050E-06,0.160
-6.040E-06,0.260
-6.030E-06,0.280
-6.020E-06,0.200
-6.010E-06,-0.020
-6.000E-06,0.020
-5.990E-06,0.540
-5.980E-06,0.940
-5.970E-06,1.460
-5.960E-06,1.420
-5.950E-06,0.980
-5.940E-06,0.480
-5.930E-06,0.180
-5.920E-06,0.180
-5.910E-06,0.400
-5.900E-06,0.520
-5.890E-06,0.500
-5.880E-06,0.360
-5.870E-06,0.260
-5.860E-06,0.240
-5.850E-06,0.200
-5.840E-06,0.180
-5.830E-06,0.080
-5.820E-06,0.040
-5.810E-06,-0.060
-5.800E-06,-0.100
-5.790E-06,-0.180
-5.780E-06,-0.220
-5.770E-06,-0.300
-5.760E-06,-0.320
-5.750E-06,-0.360
-5.740E-06,-0.380
-5.730E-06,-0.360
-5.720E-06,-0.400
-5.710E-06,-0.480
-5.700E-06,-0.540
-5.690E-06,-0.500
-5.680E-06,-0.520
-5.670E-06,-0.480
-5.660E-06,-0.420
-5.650E-06,-0.320
-5.640E-06,-0.580
-5.630E-06,-0.560
-5.620E-06,-0.260
-5.610E-06,0.000
-5.600E-06,0.460
-5.590E-06,0.640
-5.580E-06,0.620
-5.570E-06,0.340
-5.560E-06,0.080
-5.550E-06,0.060
-5.540E-06,0.280
-5.530E-06,0.340
-5.520E-06,0.440
-5.510E-06,0.380
-5.500E-06,0.300
-5.490E-06,0.220
-5.480E-06,0.180
-5.470E-06,0.140
-5.460E-06,0.160
-5.450E-06,0.140
-5.440E-06,0.080
-5.430E-06,0.120
-5.420E-06,0.080
-5.410E-06,0.000
-5.400E-06,0.060
-5.390E-06,0.040
-5.380E-06,0.020
-5.370E-06,-0.040
-5.360E-06,-0.080
-5.350E-06,-0.140
-5.340E-06,-0.260
-5.330E-06,-0.320
-5.320E-06,-0.360
-5.310E-06,-0.260
-5.300E-06,-0.160
-5.290E-06,0.000
-5.280E-06,0.180
-5.270E-06,0.020
-5.260E-06,-0.080
-5.250E-06,-0.080
-5.240E-06,-0.100
-5.230E-06,0.400
-5.220E-06,0.760
-5.210E-06,0.940
-5.200E-06,1.020
-5.190E-06,0.760
-5.180E-06,0.540
-5.170E-06,0.560
-5.160E-06,0.340
-5.150E-06,0.380
-5.140E-06,0.420
-5.130E-06,0.220
-5.120E-06,0.360
-5.110E-06,0.300
-5.100E-06,0.280
-5.090E-06,0.320
-5.080E-06,0.140
-5.070E-06,0.000
-5.060E-06,-0.040
-5.050E-06,-0.100
-5.040E-06,-0.060
-5.030E-06,-0.080
-5.020E-06,-0.180
-5.010E-06,-0.240
-5.000E-06,-0.360
-4.990E-06,-0.380
-4.980E-06,-0.360
-4.970E-06,-0.380
-4.960E-06,-0.360
-4.950E-06,-0.400
-4.940E-06,-0.440
-4.930E-06,-0.420
-4.920E-06,-0.380
-4.910E-06,-0.320
-4.900E-06,-0.300
-4.890E-06,-0.260
-4.880E-06,-0.240
-4.870E-06,-0.220
-4.860E-06,-0.180
-4.850E-06,-0.140
-4.840E-06,-0.140
-4.830E-06,0.020
-4.820E-06,0.020
-4.810E-06,0.120
-4.800E-06,0.180
-4.790E-06,0.180
-4.780E-06,0.160
-4.770E-06,0.180
-4.760E-06,0.220
-4.750E-06,0.300
-4.740E-06,0.320
-4.730E-06,0.340
-4.720E-06,0.240
-4.710E-06,0.160
-4.700E-06,0.120
-4.690E-06,0.080
-4.680E-06,0.060
-4.670E-06,0.120
-4.660E-06,0.060
-4.650E-06,-0.240
-4.640E-06,-0.060
-4.630E-06,-0.080
-4.620E-06,0.100
-4.610E-06,0.600
-4.600E-06,0.620
-4.590E-06,0.600
-4.580E-06,0.520
-4.570E-06,0.280
-4.560E-06,0.300
-4.550E-06,0.260
-4.540E-06,0.240
-4.530E-06,0.480
-4.520E-06,0.540
-4.510E-06,0.400
-4.500E-06,0.260
-4.490E-06,0.080
-4.480E-06,-0.200
-4.470E-06,-0.120
-4.460E-06,-0.220
-4.450E-06,-0.040
-4.440E-06,0.160
-4.430E-06,0.080
-4.420E-06,0.200
-4.410E-06,0.220
-4.400E-06,0.080
-4.390E-06,-0.060
-4.380E-06,-0.180
-4.370E-06,-0.160
-4.360E-06,-0.080
-4.350E-06,-0.120
-4.340E-06,-0.260
-4.330E-06,-0.260
-4.320E-06,-0.140
-4.310E-06,-0.640
-4.300E-06,-0.800
-4.290E-06,-0.800
-4.280E-06,-0.680
-4.270E-06,-0.020
-4.260E-06,0.540
-4.250E-06,0.620
-4.240E-06,0.500
-4.230E-06,0.020
-4.220E-06,-0.120
-4.210E-06,0.160
-4.200E-06,0.220
-4.190E-06,0.360
-4.180E-06,0.420
-4.170E-06,0.380
-4.160E-06,0.320
-4.150E-06,0.280
-4.140E-06,0.180
-4.130E-06,0.200
-4.120E-06,0.260
-4.110E-06,0.320
-4.100E-06,0.280
-4.090E-06,0.220
-4.080E-06,0.020
-4.070E-06,-0.080
-4.060E-06,-0.160
-4.050E-06,-0.140
-4.040E-06,-0.180
-4.030E-06,-0.180
-4.020E-06,-0.320
-4.010E-06,-0.480
-4.000E-06,-0.340
-3.990E-06,-0.260
-3.980E-06,0.040
-3.970E-06,0.100
-3.960E-06,0.000
-3.950E-06,-0.040
-3.940E-06,-0.100
-3.930E-06,-0.020
-3.920E-06,0.100
-3.910E-06,0.120
-3.900E-06,0.080
-3.890E-06,0.000
-3.880E-06,-0.040
-3.870E-06,0.020
-3.860E-06,0.180
-3.850E-06,0.040
-3.840E-06,-0.100
-3.830E-06,-0.100
-3.820E-06,0.020
-3.810E-06,0.380
-3.800E-06,0.740
-3.790E-06,0.760
-3.780E-06,0.500
-3.770E-06,0.100
-3.760E-06,-0.160
-3.750E-06,-0.140
-3.740E-06,0.200
-3.730E-06,0.380
-3.720E-06,0.160
-3.710E-06,0.260
-3.700E-06,0.360
-3.690E-06,0.320
-3.680E-06,0.620
-3.670E-06,0.520
-3.660E-06,0.460
-3.650E-06,0.500
-3.640E-06,0.380
-3.630E-06,0.420
-3.620E-06,0.420
-3.610E-06,0.080
-3.600E-06,-0.020
-3.590E-06,-0.020
-3.580E-06,-0.120
-3.570E-06,-0.060
-3.560E-06,-0.160
-3.550E-06,-0.320
-3.540E-06,-0.380
-3.530E-06,-0.520
-3.520E-06,-0.480
-3.510E-06,-0.500
-3.500E-06,-0.380
-3.490E-06,-0.380
-3.480E-06,-0.600
-3.470E-06,-0.700
-3.460E-06,-0.660
-3.450E-06,-0.420
-3.440E-06,-0.020
-3.430E-06,0.220
-3.420E-06,0.200
-3.410E-06,-0.040
-3.400E-06,-0.280
-3.390E-06,-0.320
-3.380E-06,-0.160
-3.370E-06,0.080
-3.360E-06,0.220
-3.350E-06,0.200
-3.340E-06,0.160
-3.330E-06,0.100
-3.320E-06,0.140
-3.310E-06,0.200
-3.300E-06,0.160
-3.290E-06,0.100
-3.280E-06,0.080
-3.270E-06,0.060
-3.260E-06,0.080
-3.250E-06,0.160
-3.240E-06,0.240
-3.230E-06,0.160
-3.220E-06,0.020
-3.210E-06,-0.080
-3.200E-06,-0.080
-3.190E-06,0.120
-3.180E-06,0.500
-3.170E-06,0.680
-3.160E-06,0.740
-3.150E-06,0.580
-3.140E-06,0.240
-3.130E-06,0.120
-3.120E-06,0.100
-3.110E-06,0.220
-3.100E-06,0.480
-3.090E-06,0.500
-3.080E-06,0.360
-3.070E-06,0.300
-3.060E-06,-0.060
-3.050E-06,0.040
-3.040E-06,0.020
-3.030E-06,0.680
-3.020E-06,1.040
-3.010E-06,1.120
-3.000E-06,0.980
-2.990E-06,0.500
-2.980E-06,0.200
-2.970E-06,0.060
-2.960E-06,0.180
-2.950E-06,0.340
-2.940E-06,0.180
-2.930E-06,-0.200
-2.920E-06,-0.440
-2.910E-06,-0.700
-2.900E-06,-0.720
-2.890E-06,-0.700
-2.880E-06,-0.820
-2.870E-06,-0.800
-2.860E-06,-0.680
-2.850E-06,-0.740
-2.840E-06,-0.700
-2.830E-06,-0.500
-2.820E-06,-0.500
-2.810E-06,-0.260
-2.800E-06,-0.120
-2.790E-06,0.000
-2.780E-06,-0.020
-2.770E-06,-0.080
-2.760E-06,-0.080
-2.750E-06,0.120
-2.740E-06,0.300
-2.730E-06,0.420
-2.720E-06,0.420
-2.710E-06,0.400
-2.700E-06,0.360
-2.690E-06,0.360
-2.680E-06,0.320
-2.670E-06,0.320
-2.660E-06,0.300
-2.650E-06,0.320
-2.640E-06,0.320
-2.630E-06,0.340
-2.620E-06,0.340
-2.610E-06,0.280
-2.600E-06,0.240
-2.590E-06,0.180
-2.580E-06,0.140
-2.570E-06,0.080
-2.560E-06,0.000
-2.550E-06,-0.120
-2.540E-06,-0.180
-2.530E-06,-0.220
-2.520E-06,-0.340
-2.510E-06,-0.640
-2.500E-06,-0.940
-2.490E-06,-1.020
-2.480E-06,-0.800
-2.470E-06,-0.180
-2.460E-06,-0.220
-2.450E-06,-0.160
-2.440E-06,0.040
-2.430E-06,-0.060
-2.420E-06,0.560
-2.410E-06,1.000
-2.400E-06,1.120
-2.390E-06,1.200
-2.380E-06,1.200
-2.370E-06,1.280
-2.360E-06,1.340
-2.350E-06,1.000
-2.340E-06,0.500
-2.330E-06,0.140
-2.320E-06,-0.140
-2.310E-06,-0.340
-2.300E-06,-0.300
-2.290E-06,0.160
-2.280E-06,0.720
-2.270E-06,1.200
-2.260E-06,1.220
-2.250E-06,0.700
-2.240E-06,-0.040
-2.230E-06,-0.460
-2.220E-06,-0.580
-2.210E-06,-0.340
-2.200E-06,-0.360
-2.190E-06,-0.540
-2.180E-06,-0.700
-2.170E-06,-0.760
-2.160E-06,-0.660
-2.150E-06,-0.500
-2.140E-06,-0.440
-2.130E-06,-0.600
-2.120E-06,-0.480
-2.110E-06,-0.580
-2.100E-06,-0.660
-2.090E-06,0.320
-2.080E-06,0.840
-2.070E-06,1.160
-2.060E-06,1.100
-2.050E-06,0.120
-2.040E-06,-0.700
-2.030E-06,-0.820
-2.020E-06,-0.740
-2.010E-06,-0.080
-2.000E-06,0.260
-1.990E-06,0.200
-1.980E-06,0.200
-1.970E-06,0.040
-1.960E-06,0.040
-1.950E-06,0.180
-1.940E-06,-0.060
-1.930E-06,0.300
-1.920E-06,0.040
-1.910E-06,-0.260
-1.900E-06,0.200
-1.890E-06,0.240
-1.880E-06,0.580
-1.870E-06,0.920
-1.860E-06,0.700
-1.850E-06,0.260
-1.840E-06,-0.180
-1.830E-06,-0.560
-1.820E-06,-0.240
-1.810E-06,-0.040
-1.800E-06,-0.060
-1.790E-06,-0.020
-1.780E-06,-0.140
-1.770E-06,-0.180
-1.760E-06,-0.140
-1.750E-06,-0.200
-1.740E-06,-0.220
-1.730E-06,-0.160
-1.720E-06,-0.160
-1.710E-06,-0.040
-1.700E-06,0.000
-1.690E-06,0.080
-1.680E-06,0.060
-1.670E-06,0.120
-1.660E-06,0.220
-1.650E-06,0.020
-1.640E-06,0.120
-1.630E-06,0.440
-1.620E-06,0.600
-1.610E-06,0.800
-1.600E-06,0.640
-1.590E-06,0.160
-1.580E-06,-0.500
-1.570E-06,-0.720
-1.560E-06,-0.300
-1.550E-06,0.260
-1.540E-06,0.500
-1.530E-06,0.500
-1.520E-06,0.260
-1.510E-06,0.040
-1.500E-06,-0.120
-1.490E-06,-0.060
-1.480E-06,0.040
-1.470E-06,0.040
-1.460E-06,0.040
-1.450E-06,0.040
-1.440E-06,-0.060
-1.430E-06,-0.080
-1.420E-06,-0.080
-1.410E-06,-0.120
-1.400E-06,-0.080
-1.390E-06,-0.040
-1.380E-06,-0.040
-1.370E-06,-0.060
-1.360E-06,-0.080
-1.350E-06,-0.140
-1.340E-06,-0.060
-1.330E-06,-0.040
-1.320E-06,-0.020
-1.310E-06,0.040
-1.300E-06,0.040
-1.290E-06,0.040
-1.280E-06,0.000
-1.270E-06,-0.020
-1.260E-06,0.000
-1.250E-06,0.040
-1.240E-06,0.040
-1.230E-06,0.060
-1.220E-06,0.020
-1.210E-06,0.060
-1.200E-06,0.040
-1.190E-06,0.080
-1.180E-06,0.080
-1.170E-06,0.080
-1.160E-06,0.040
-1.150E-06,0.060
-1.140E-06,0.100
-1.130E-06,0.100
-1.120E-06,0.040
-1.110E-06,-0.060
-1.100E-06,-0.100
-1.090E-06,-0.080
-1.080E-06,-0.020
-1.070E-06,-0.120
-1.060E-06,-0.300
-1.050E-06,-0.340
-1.040E-06,-0.240
-1.030E-06,-0.480
-1.020E-06,-0.320
-1.010E-06,0.080
-1.000E-06,0.400
-9.900E-07,0.940
-9.800E-07,1.040
-9.700E-07,1.000
-9.600E-07,0.500
-9.500E-07,-0.080
-9.400E-07,-0.160
-9.300E-07,0.020
-9.200E-07,0.360
-9.100E-07,0.460
-9.000E-07,0.420
-8.900E-07,0.160
-8.800E-07,-0.160
-8.700E-07,-0.320
-8.600E-07,-0.160
-8.500E-07,0.080
-8.400E-07,0.100
-8.300E-07,0.180
-8.200E-07,0.560
-8.100E-07,1.000
-8.000E-07,1.420
-7.900E-07,1.420
-7.800E-07,0.880
-7.700E-07,0.360
-7.600E-07,0.000
-7.500E-07,0.140
-7.400E-07,0.540
-7.300E-07,0.360
-7.200E-07,0.000
-7.100E-07,-0.420
-7.000E-07,-0.680
-6.900E-07,-0.580
-6.800E-07,-0.420
-6.700E-07,-0.420
-6.600E-07,-0.480
-6.500E-07,-0.520
-6.400E-07,-0.580
-6.300E-07,-0.540
-6.200E-07,-0.560
-6.100E-07,-0.580
-6.000E-07,-0.580
-5.900E-07,-0.600
-5.800E-07,-0.500
-5.700E-07,-0.820
-5.600E-07,-1.100
-5.500E-07,-0.920
-5.400E-07,-0.840
-5.300E-07,-0.140
-5.200E-07,0.480
-5.100E-07,0.500
-5.000E-07,0.360
-4.900E-07,-0.180
-4.800E-07,-0.540
-4.700E-07,-0.120
-4.600E-07,-0.140
-4.500E-07,0.140
-4.400E-07,0.500
-4.300E-07,0.680
-4.200E-07,1.320
-4.100E-07,1.660
-4.000E-07,1.660
-3.900E-07,1.420
-3.800E-07,0.980
-3.700E-07,0.640
-3.600E-07,0.700
-3.500E-07,0.640
-3.400E-07,0.480
-3.300E-07,0.240
-3.200E-07,0.080
-3.100E-07,0.000
-3.000E-07,-0.080
-2.900E-07,-0.140
-2.800E-07,-0.320
-2.700E-07,-0.440
-2.600E-07,-0.260
-2.500E-07,-0.400
-2.400E-07,-0.440
-2.300E-07,-0.500
-2.200E-07,-0.740
-2.100E-07,-0.660
-2.000E-07,-0.500
-1.900E-07,-0.480
-1.800E-07,-0.260
-1.700E-07,-0.200
-1.600E-07,-0.160
-1.500E-07,-0.120
-1.400E-07,-0.140
-1.300E-07,-0.140
-1.200E-07,-0.180
-1.100E-07,-0.120
-1.000E-07,-0.080
-9.000E-08,-0.020
-8.000E-08,-0.100
-7.000E-08,-0.180
-6.000E-08,-0.100
-5.000E-08,0.100
-4.000E-08,0.340
-3.000E-08,-0.760
-2.000E-08,-0.100
-1.000E-08,1.520
0.000E+00,1.500
1.000E-08,2.680
2.000E-08,2.280
3.000E-08,0.160
4.000E-08,-0.360
5.000E-08,-0.040
6.000E-08,0.820
7.000E-08,1.140
8.000E-08,0.660
9.000E-08,0.340
1.000E-07,1.580
1.100E-07,2.780
1.200E-07,2.760
1.300E-07,2.780
1.400E-07,0.980
1.500E-07,-1.020
1.600E-07,-1.280
1.700E-07,-0.940
1.800E-07,-0.640
1.900E-07,-0.540
2.000E-07,-0.840
2.100E-07,-0.940
2.200E-07,-0.720
2.300E-07,-0.580
2.400E-07,-0.640
2.500E-07,-0.700
2.600E-07,-0.780
2.700E-07,-0.620
2.800E-07,-0.280
2.900E-07,-0.160
3.000E-07,-0.200
3.100E-07,-0.220
3.200E-07,-0.320
3.300E-07,-0.240
3.400E-07,-0.180
3.500E-07,-0.140
3.600E-07,-0.200
3.700E-07,-0.260
3.800E-07,-0.300
3.900E-07,-0.280
4.000E-07,-0.300
4.100E-07,-0.300
4.200E-07,-0.300
4.300E-07,-0.240
4.400E-07,-0.220
4.500E-07,-0.220
4.600E-07,-0.100
4.700E-07,-0.020
4.800E-07,-0.040
4.900E-07,-0.020
5.000E-07,-0.020
5.100E-07,-0.060
5.200E-07,-0.040
5.300E-07,0.000
5.400E-07,-0.020
5.500E-07,-0.140
5.600E-07,-0.180
5.700E-07,-0.260
5.800E-07,-0.200
5.900E-07,-0.160
6.000E-07,-0.100
6.100E-07,-0.180
6.200E-07,-0.240
6.300E-07,-0.320
6.400E-07,-0.320
6.500E-07,-0.260
6.600E-07,-0.280
6.700E-07,-0.320
6.800E-07,-0.260
6.900E-07,-0.300
7.000E-07,0.040
7.100E-07,-0.380
7.200E-07,-0.200
7.300E-07,0.740
7.400E-07,1.940
7.500E-07,2.740
7.600E-07,2.760
7.700E-07,2.780
7.800E-07,2.760
7.900E-07,2.080
8.000E-07,0.400
8.100E-07,-0.200
8.200E-07,-0.940
8.300E-07,-1.600
8.400E-07,-1.840
8.500E-07,-1.640
8.600E-07,-1.400
8.700E-07,-1.040
8.800E-07,-0.800
8.900E-07,-0.860
9.000E-07,-0.460
9.100E-07,-0.080
9.200E-07,0.200
9.300E-07,0.460
9.400E-07,0.320
9.500E-07,0.400
9.600E-07,0.980
9.700E-07,1.120
9.800E-07,0.480
9.900E-07,-0.600
1.000E-06,-1.700
1.010E-06,-2.140
1.020E-06,-1.700
1.030E-06,-1.220
1.040E-06,-0.860
1.050E-06,-0.700
1.060E-06,-0.700
1.070E-06,-0.140
1.080E-06,0.900
1.090E-06,2.000
1.100E-06,2.620
1.110E-06,2.380
1.120E-06,1.400
1.130E-06,0.420
1.140E-06,-0.380
1.150E-06,-0.700
1.160E-06,-0.760
1.170E-06,-0.940
1.180E-06,-0.800
1.190E-06,-0.800
1.200E-06,-0.500
1.210E-06,-0.060
1.220E-06,0.200
1.230E-06,0.260
1.240E-06,0.080
1.250E-06,-0.220
1.260E-06,-0.240
1.270E-06,-0.300
1.280E-06,-0.220
1.290E-06,-0.140
1.300E-06,-0.040
1.310E-06,-0.020
1.320E-06,0.020
1.330E-06,-0.020
1.340E-06,-0.120
1.350E-06,-0.260
1.360E-06,-0.460
1.370E-06,-0.440
1.380E-06,-0.640
1.390E-06,-0.700
1.400E-06,-0.660
1.410E-06,-0.600
1.420E-06,-0.520
1.430E-06,-0.380
1.440E-06,-0.220
1.450E-06,-0.020
1.460E-06,0.060
1.470E-06,0.000
1.480E-06,0.180
1.490E-06,0.180
1.500E-06,0.280
1.510E-06,0.400
1.520E-06,0.500
1.530E-06,0.480
1.540E-06,1.540
1.550E-06,-1.260
1.560E-06,1.140
1.570E-06,2.780
1.580E-06,2.760
1.590E-06,2.780
1.600E-06,2.760
1.610E-06,0.560
1.620E-06,2.540
1.630E-06,2.780
1.640E-06,2.500
1.650E-06,1.380
1.660E-06,-2.680
1.670E-06,-2.680
1.680E-06,-2.680
1.690E-06,-2.420
1.700E-06,-0.940
1.710E-06,0.280
1.720E-06,0.920
1.730E-06,1.280
1.740E-06,2.540
1.750E-06,2.760
1.760E-06,2.760
1.770E-06,2.760
1.780E-06,2.760
1.790E-06,2.740
1.800E-06,2.760
1.810E-06,2.780
1.820E-06,2.760
1.830E-06,2.580
1.840E-06,2.400
1.850E-06,2.020
1.860E-06,1.480
1.870E-06,0.020
1.880E-06,-1.320
1.890E-06,-2.380
1.900E-06,-2.660
1.910E-06,-2.660
1.920E-06,-2.680
1.930E-06,-2.660
1.940E-06,-2.660
1.950E-06,-2.640
1.960E-06,-2.600
1.970E-06,-2.420
1.980E-06,-2.220
1.990E-06,-1.780
2.000E-06,-1.300
2.010E-06,-0.740
2.020E-06,-0.020
2.030E-06,0.380
2.040E-06,0.760
2.050E-06,0.980
2.060E-06,0.940
2.070E-06,0.780
2.080E-06,0.540
2.090E-06,0.220
2.100E-06,-0.100
2.110E-06,-0.200
2.120E-06,-0.160
2.130E-06,-0.020
2.140E-06,0.200
2.150E-06,0.480
2.160E-06,0.920
2.170E-06,1.280
2.180E-06,1.560
2.190E-06,1.840
2.200E-06,2.140
2.210E-06,1.900
2.220E-06,1.640
2.230E-06,1.680
2.240E-06,2.000
2.250E-06,2.760
2.260E-06,2.780
2.270E-06,2.760
2.280E-06,2.760
2.290E-06,2.780
2.300E-06,1.280
2.310E-06,-0.500
2.320E-06,-1.840
2.330E-06,-2.420
2.340E-06,-2.380
2.350E-06,-2.280
2.360E-06,-2.120
2.370E-06,-1.700
2.380E-06,-0.700
2.390E-06,0.560
2.400E-06,1.620
2.410E-06,2.560
2.420E-06,2.760
2.430E-06,2.780
2.440E-06,2.760
2.450E-06,2.740
2.460E-06,2.760
2.470E-06,2.760
2.480E-06,2.780
2.490E-06,2.760
2.500E-06,2.740
2.510E-06,2.760
2.520E-06,2.780
2.530E-06,2.760
2.540E-06,2.580
2.550E-06,0.560
2.560E-06,-1.720
2.570E-06,-2.660
2.580E-06,-2.660
2.590E-06,-2.660
2.600E-06,-2.660
2.610E-06,-2.660
2.620E-06,-2.660
2.630E-06,-2.660
2.640E-06,-2.640
2.650E-06,-2.640
2.660E-06,-2.660
2.670E-06,-2.660
2.680E-06,-1.900
2.690E-06,-0.640
2.700E-06,0.340
2.710E-06,1.160
2.720E-06,1.780
2.730E-06,2.240
2.740E-06,2.660
2.750E-06,2.780
2.760E-06,2.780
2.770E-06,2.760
2.780E-06,2.780
2.790E-06,2.760
2.800E-06,2.520
2.810E-06,1.900
2.820E-06,1.360
2.830E-06,0.940
2.840E-06,0.680
2.850E-06,0.520
2.860E-06,0.520
2.870E-06,0.540
2.880E-06,0.660
2.890E-06,0.860
2.900E-06,1.040
2.910E-06,1.300
2.920E-06,1.520
2.930E-06,1.680
2.940E-06,1.840
2.950E-06,1.980
2.960E-06,2.040
2.970E-06,2.080
2.980E-06,2.140
2.990E-06,2.060
3.000E-06,2.000
3.010E-06,1.860
3.020E-06,1.720
3.030E-06,1.460
3.040E-06,1.220
3.050E-06,0.960
3.060E-06,0.660
3.070E-06,0.420
3.080E-06,0.180
3.090E-06,-0.080
3.100E-06,-0.280
3.110E-06,-0.500
3.120E-06,-0.680
3.130E-06,-0.760
3.140E-06,-0.780
3.150E-06,-0.740
3.160E-06,-0.620
3.170E-06,-0.460
3.180E-06,-0.200
3.190E-06,0.040
3.200E-06,0.320
3.210E-06,0.600
3.220E-06,0.860
3.230E-06,1.080
3.240E-06,1.280
3.250E-06,1.400
3.260E-06,1.420
3.270E-06,1.340
3.280E-06,1.220
3.290E-06,0.960
3.300E-06,0.640
3.310E-06,0.360
3.320E-06,0.000
3.330E-06,-0.240
3.340E-06,-0.420
3.350E-06,-0.560
3.360E-06,-0.620
3.370E-06,-0.600
3.380E-06,-0.540
3.390E-06,-0.420
3.400E-06,-0.240
3.410E-06,-0.040
3.420E-06,0.160
3.430E-06,0.380
3.440E-06,0.580
3.450E-06,0.740
