mediciones/6-26/38.7/WaveData59167.csv

#timebase=2000000(ps)
,#voltbase=500000(mv/100)
#size=4000
-8.150E-06,0.040
-8.140E-06,0.080
-8.130E-06,0.080
-8.120E-06,0.080
-8.110E-06,0.020
-8.100E-06,0.020
-8.090E-06,0.040
-8.080E-06,0.040
-8.070E-06,0.040
-8.060E-06,0.080
-8.050E-06,0.040
-8.040E-06,0.060
-8.030E-06,0.080
-8.020E-06,0.060
-8.010E-06,0.020
-8.000E-06,0.040
-7.990E-06,0.020
-7.980E-06,0.060
-7.970E-06,0.040
-7.960E-06,0.060
-7.950E-06,0.040
-7.940E-06,0.020
-7.930E-06,0.040
-7.920E-06,0.040
-7.910E-06,0.040
-7.900E-06,0.080
-7.890E-06,0.080
-7.880E-06,0.020
-7.870E-06,0.060
-7.860E-06,0.060
-7.850E-06,0.080
-7.840E-06,0.060
-7.830E-06,0.020
-7.820E-06,0.040
-7.810E-06,0.040
-7.800E-06,0.080
-7.790E-06,0.040
-7.780E-06,0.040
-7.770E-06,0.060
-7.760E-06,0.060
-7.750E-06,0.060
-7.740E-06,0.060
-7.730E-06,0.060
-7.720E-06,0.060
-7.710E-06,0.060
-7.700E-06,0.040
-7.690E-06,0.040
-7.680E-06,0.060
-7.670E-06,0.040
-7.660E-06,0.060
-7.650E-06,0.040
-7.640E-06,0.080
-7.630E-06,0.060
-7.620E-06,0.080
-7.610E-06,0.080
-7.600E-06,0.040
-7.590E-06,0.040
-7.580E-06,0.040
-7.570E-06,0.040
-7.560E-06,0.060
-7.550E-06,0.080
-7.540E-06,0.040
-7.530E-06,0.020
-7.520E-06,0.040
-7.510E-06,0.040
-7.500E-06,0.080
-7.490E-06,0.060
-7.480E-06,0.060
-7.470E-06,0.060
-7.460E-06,0.040
-7.450E-06,0.020
-7.440E-06,0.040
-7.430E-06,0.060
-7.420E-06,0.040
-7.410E-06,0.040
-7.400E-06,0.060
-7.390E-06,0.060
-7.380E-06,0.040
-7.370E-06,0.060
-7.360E-06,0.040
-7.350E-06,0.060
-7.340E-06,0.080
-7.330E-06,0.060
-7.320E-06,0.060
-7.310E-06,0.040
-7.300E-06,0.040
-7.290E-06,0.060
-7.280E-06,0.080
-7.270E-06,0.040
-7.260E-06,0.040
-7.250E-06,0.080
-7.240E-06,0.040
-7.230E-06,0.040
-7.220E-06,0.040
-7.210E-06,0.080
-7.200E-06,0.060
-7.190E-06,0.040
-7.180E-06,0.040
-7.170E-06,0.080
-7.160E-06,0.060
-7.150E-06,0.020
-7.140E-06,0.020
-7.130E-06,0.060
-7.120E-06,0.060
-7.110E-06,0.040
-7.100E-06,0.060
-7.090E-06,0.080
-7.080E-06,0.060
-7.070E-06,0.040
-7.060E-06,0.060
-7.050E-06,0.040
-7.040E-06,0.040
-7.030E-06,0.040
-7.020E-06,0.040
-7.010E-06,0.040
-7.000E-06,0.060
-6.990E-06,0.020
-6.980E-06,0.040
-6.970E-06,0.060
-6.960E-06,0.060
-6.950E-06,0.040
-6.940E-06,0.020
-6.930E-06,0.060
-6.920E-06,0.060
-6.910E-06,0.040
-6.900E-06,0.060
-6.890E-06,0.060
-6.880E-06,0.040
-6.870E-06,0.060
-6.860E-06,0.060
-6.850E-06,0.080
-6.840E-06,0.060
-6.830E-06,0.080
-6.820E-06,0.040
-6.810E-06,0.060
-6.800E-06,0.040
-6.790E-06,0.060
-6.780E-06,0.100
-6.770E-06,0.040
-6.760E-06,0.060
-6.750E-06,0.060
-6.740E-06,0.080
-6.730E-06,0.060
-6.720E-06,0.040
-6.710E-06,0.060
-6.700E-06,0.060
-6.690E-06,0.040
-6.680E-06,0.080
-6.670E-06,0.060
-6.660E-06,0.060
-6.650E-06,0.080
-6.640E-06,0.040
-6.630E-06,0.080
-6.620E-06,0.040
-6.610E-06,0.020
-6.600E-06,0.060
-6.590E-06,0.040
-6.580E-06,0.060
-6.570E-06,0.020
-6.560E-06,0.060
-6.550E-06,0.060
-6.540E-06,0.040
-6.530E-06,0.040
-6.520E-06,0.040
-6.510E-06,0.040
-6.500E-06,0.040
-6.490E-06,0.060
-6.480E-06,0.040
-6.470E-06,0.060
-6.460E-06,0.080
-6.450E-06,0.060
-6.440E-06,0.020
-6.430E-06,0.040
-6.420E-06,0.060
-6.410E-06,0.040
-6.400E-06,0.040
-6.390E-06,0.060
-6.380E-06,0.040
-6.370E-06,0.060
-6.360E-06,0.060
-6.350E-06,0.020
-6.340E-06,0.060
-6.330E-06,0.040
-6.320E-06,0.060
-6.310E-06,0.060
-6.300E-06,0.060
-6.290E-06,0.060
-6.280E-06,0.080
-6.270E-06,0.060
-6.260E-06,0.060
-6.250E-06,0.040
-6.240E-06,0.040
-6.230E-06,0.060
-6.220E-06,0.060
-6.210E-06,0.060
-6.200E-06,0.060
-6.190E-06,0.060
-6.180E-06,0.080
-6.170E-06,0.040
-6.160E-06,0.040
-6.150E-06,0.060
-6.140E-06,0.040
-6.130E-06,0.020
-6.120E-06,0.040
-6.110E-06,0.060
-6.100E-06,0.080
-6.090E-06,0.040
-6.080E-06,0.060
-6.070E-06,0.060
-6.060E-06,0.040
-6.050E-06,0.060
-6.040E-06,0.040
-6.030E-06,0.040
-6.020E-06,0.040
-6.010E-06,0.040
-6.000E-06,0.060
-5.990E-06,0.020
-5.980E-06,0.060
-5.970E-06,0.060
-5.960E-06,0.080
-5.950E-06,0.060
-5.940E-06,0.040
-5.930E-06,0.060
-5.920E-06,0.040
-5.910E-06,0.060
-5.900E-06,0.060
-5.890E-06,0.060
-5.880E-06,0.060
-5.870E-06,0.060
-5.860E-06,0.060
-5.850E-06,0.060
-5.840E-06,0.040
-5.830E-06,0.060
-5.820E-06,0.060
-5.810E-06,0.060
-5.800E-06,0.060
-5.790E-06,0.040
-5.780E-06,0.080
-5.770E-06,0.040
-5.760E-06,0.040
-5.750E-06,0.060
-5.740E-06,0.080
-5.730E-06,0.060
-5.720E-06,0.020
-5.710E-06,0.040
-5.700E-06,0.080
-5.690E-06,0.060
-5.680E-06,0.040
-5.670E-06,0.040
-5.660E-06,0.040
-5.650E-06,0.040
-5.640E-06,0.040
-5.630E-06,0.060
-5.620E-06,0.060
-5.610E-06,0.060
-5.600E-06,0.060
-5.590E-06,0.060
-5.580E-06,0.080
-5.570E-06,0.060
-5.560E-06,0.020
-5.550E-06,0.040
-5.540E-06,0.040
-5.530E-06,0.040
-5.520E-06,0.040
-5.510E-06,0.060
-5.500E-06,0.060
-5.490E-06,0.080
-5.480E-06,0.060
-5.470E-06,0.020
-5.460E-06,0.060
-5.450E-06,0.080
-5.440E-06,0.080
-5.430E-06,0.080
-5.420E-06,0.080
-5.410E-06,0.020
-5.400E-06,0.040
-5.390E-06,0.040
-5.380E-06,0.040
-5.370E-06,0.060
-5.360E-06,0.020
-5.350E-06,0.040
-5.340E-06,0.060
-5.330E-06,0.060
-5.320E-06,0.080
-5.310E-06,0.060
-5.300E-06,0.020
-5.290E-06,0.060
-5.280E-06,0.040
-5.270E-06,0.060
-5.260E-06,0.060
-5.250E-06,0.080
-5.240E-06,0.080
-5.230E-06,0.060
-5.220E-06,0.060
-5.210E-06,0.040
-5.200E-06,0.060
-5.190E-06,0.060
-5.180E-06,0.080
-5.170E-06,0.040
-5.160E-06,0.080
-5.150E-06,0.080
-5.140E-06,0.080
-5.130E-06,0.080
-5.120E-06,0.080
-5.110E-06,0.040
-5.100E-06,0.040
-5.090E-06,0.060
-5.080E-06,0.020
-5.070E-06,0.040
-5.060E-06,0.060
-5.050E-06,0.040
-5.040E-06,0.080
-5.030E-06,0.060
-5.020E-06,0.020
-5.010E-06,0.060
-5.000E-06,0.080
-4.990E-06,0.040
-4.980E-06,0.040
-4.970E-06,0.060
-4.960E-06,0.040
-4.950E-06,0.060
-4.940E-06,0.080
-4.930E-06,0.040
-4.920E-06,0.020
-4.910E-06,0.060
-4.900E-06,0.060
-4.890E-06,0.060
-4.880E-06,0.080
-4.870E-06,0.060
-4.860E-06,0.060
-4.850E-06,0.040
-4.840E-06,0.040
-4.830E-06,0.060
-4.820E-06,0.020
-4.810E-06,0.060
-4.800E-06,0.060
-4.790E-06,0.020
-4.780E-06,0.020
-4.770E-06,0.060
-4.760E-06,0.040
-4.750E-06,0.080
-4.740E-06,0.060
-4.730E-06,0.040
-4.720E-06,0.060
-4.710E-06,0.040
-4.700E-06,0.060
-4.690E-06,0.020
-4.680E-06,0.040
-4.670E-06,0.040
-4.660E-06,0.020
-4.650E-06,0.060
-4.640E-06,0.080
-4.630E-06,0.060
-4.620E-06,0.040
-4.610E-06,0.060
-4.600E-06,0.040
-4.590E-06,0.040
-4.580E-06,0.060
-4.570E-06,0.020
-4.560E-06,0.040
-4.550E-06,0.040
-4.540E-06,0.060
-4.530E-06,0.060
-4.520E-06,0.080
-4.510E-06,0.060
-4.500E-06,0.020
-4.490E-06,0.020
-4.480E-06,0.060
-4.470E-06,0.040
-4.460E-06,0.040
-4.450E-06,0.080
-4.440E-06,0.040
-4.430E-06,0.040
-4.420E-06,0.040
-4.410E-06,0.040
-4.400E-06,0.040
-4.390E-06,0.060
-4.380E-06,0.040
-4.370E-06,0.040
-4.360E-06,0.060
-4.350E-06,0.060
-4.340E-06,0.060
-4.330E-06,0.060
-4.320E-06,0.040
-4.310E-06,0.060
-4.300E-06,0.060
-4.290E-06,0.020
-4.280E-06,0.040
-4.270E-06,0.060
-4.260E-06,0.020
-4.250E-06,0.060
-4.240E-06,0.060
-4.230E-06,0.080
-4.220E-06,0.040
-4.210E-06,0.040
-4.200E-06,0.040
-4.190E-06,0.060
-4.180E-06,0.060
-4.170E-06,0.080
-4.160E-06,0.040
-4.150E-06,0.040
-4.140E-06,0.060
-4.130E-06,0.040
-4.120E-06,0.040
-4.110E-06,0.060
-4.100E-06,0.060
-4.090E-06,0.040
-4.080E-06,0.060
-4.070E-06,0.080
-4.060E-06,0.060
-4.050E-06,0.040
-4.040E-06,0.040
-4.030E-06,0.040
-4.020E-06,0.060
-4.010E-06,0.080
-4.000E-06,0.060
-3.990E-06,0.080
-3.980E-06,0.080
-3.970E-06,0.020
-3.960E-06,0.040
-3.950E-06,0.040
-3.940E-06,0.060
-3.930E-06,0.080
-3.920E-06,0.080
-3.910E-06,0.020
-3.900E-06,0.040
-3.890E-06,0.040
-3.880E-06,0.080
-3.870E-06,0.080
-3.860E-06,0.020
-3.850E-06,0.040
-3.840E-06,0.060
-3.830E-06,0.040
-3.820E-06,0.020
-3.810E-06,0.020
-3.800E-06,0.040
-3.790E-06,0.040
-3.780E-06,0.040
-3.770E-06,0.060
-3.760E-06,0.040
-3.750E-06,0.060
-3.740E-06,0.060
-3.730E-06,0.060
-3.720E-06,0.020
-3.710E-06,0.040
-3.700E-06,0.060
-3.690E-06,0.060
-3.680E-06,0.060
-3.670E-06,0.060
-3.660E-06,0.060
-3.650E-06,0.040
-3.640E-06,0.080
-3.630E-06,0.020
-3.620E-06,0.060
-3.610E-06,0.060
-3.600E-06,0.060
-3.590E-06,0.060
-3.580E-06,0.060
-3.570E-06,0.060
-3.560E-06,0.040
-3.550E-06,0.100
-3.540E-06,0.040
-3.530E-06,0.060
-3.520E-06,0.040
-3.510E-06,0.040
-3.500E-06,0.060
-3.490E-06,0.040
-3.480E-06,0.020
-3.470E-06,0.040
-3.460E-06,0.040
-3.450E-06,0.060
-3.440E-06,0.080
-3.430E-06,0.060
-3.420E-06,0.020
-3.410E-06,0.000
-3.400E-06,0.020
-3.390E-06,0.240
-3.380E-06,0.780
-3.370E-06,1.520
-3.360E-06,2.220
-3.350E-06,2.540
-3.340E-06,2.120
-3.330E-06,1.020
-3.320E-06,-0.360
-3.310E-06,-1.580
-3.300E-06,-2.160
-3.290E-06,-2.180
-3.280E-06,-2.060
-3.270E-06,-2.100
-3.260E-06,-2.340
-3.250E-06,-2.460
-3.240E-06,-2.260
-3.230E-06,-1.440
-3.220E-06,-0.580
-3.210E-06,0.300
-3.200E-06,0.560
-3.190E-06,0.480
-3.180E-06,0.320
-3.170E-06,0.280
-3.160E-06,0.460
-3.150E-06,0.700
-3.140E-06,0.940
-3.130E-06,0.860
-3.120E-06,0.640
-3.110E-06,0.440
-3.100E-06,0.400
-3.090E-06,0.480
-3.080E-06,0.680
-3.070E-06,0.820
-3.060E-06,0.760
-3.050E-06,0.500
-3.040E-06,0.160
-3.030E-06,-0.100
-3.020E-06,-0.260
-3.010E-06,-0.260
-3.000E-06,-0.180
-2.990E-06,-0.120
-2.980E-06,-0.080
-2.970E-06,-0.120
-2.960E-06,-0.020
-2.950E-06,0.140
-2.940E-06,0.360
-2.930E-06,0.620
-2.920E-06,0.900
-2.910E-06,0.980
-2.900E-06,1.000
-2.890E-06,0.860
-2.880E-06,0.740
-2.870E-06,0.580
-2.860E-06,0.400
-2.850E-06,0.240
-2.840E-06,0.020
-2.830E-06,-0.200
-2.820E-06,-0.480
-2.810E-06,-0.760
-2.800E-06,-0.920
-2.790E-06,-1.080
-2.780E-06,-1.180
-2.770E-06,-1.200
-2.760E-06,-1.180
-2.750E-06,-1.100
-2.740E-06,-0.920
-2.730E-06,-0.660
-2.720E-06,-0.360
-2.710E-06,-0.140
-2.700E-06,0.180
-2.690E-06,0.460
-2.680E-06,0.660
-2.670E-06,0.860
-2.660E-06,1.000
-2.650E-06,0.940
-2.640E-06,0.740
-2.630E-06,0.780
-2.620E-06,0.580
-2.610E-06,0.680
-2.600E-06,0.780
-2.590E-06,0.560
-2.580E-06,0.320
-2.570E-06,-0.020
-2.560E-06,-0.180
-2.550E-06,-0.120
-2.540E-06,0.000
-2.530E-06,0.140
-2.520E-06,0.120
-2.510E-06,-0.100
-2.500E-06,-0.340
-2.490E-06,-0.500
-2.480E-06,-0.520
-2.470E-06,-0.460
-2.460E-06,-0.300
-2.450E-06,-0.160
-2.440E-06,-0.060
-2.430E-06,-0.060
-2.420E-06,-0.100
-2.410E-06,-0.080
-2.400E-06,0.000
-2.390E-06,0.080
-2.380E-06,0.220
-2.370E-06,0.220
-2.360E-06,0.160
-2.350E-06,0.060
-2.340E-06,-0.040
-2.330E-06,-0.100
-2.320E-06,-0.140
-2.310E-06,-0.100
-2.300E-06,-0.080
-2.290E-06,-0.080
-2.280E-06,-0.080
-2.270E-06,-0.080
-2.260E-06,-0.060
-2.250E-06,0.000
-2.240E-06,0.000
-2.230E-06,0.080
-2.220E-06,0.200
-2.210E-06,0.300
-2.200E-06,0.360
-2.190E-06,0.320
-2.180E-06,0.200
-2.170E-06,0.100
-2.160E-06,0.060
-2.150E-06,0.100
-2.140E-06,0.480
-2.130E-06,0.500
-2.120E-06,0.440
-2.110E-06,0.340
-2.100E-06,0.180
-2.090E-06,0.300
-2.080E-06,0.720
-2.070E-06,0.880
-2.060E-06,0.900
-2.050E-06,0.680
-2.040E-06,0.360
-2.030E-06,0.200
-2.020E-06,0.220
-2.010E-06,0.240
-2.000E-06,0.320
-1.990E-06,0.280
-1.980E-06,0.080
-1.970E-06,-0.120
-1.960E-06,-0.300
-1.950E-06,-0.360
-1.940E-06,-0.300
-1.930E-06,-0.220
-1.920E-06,-0.220
-1.910E-06,-0.220
-1.900E-06,-0.320
-1.890E-06,-0.420
-1.880E-06,-0.480
-1.870E-06,-0.420
-1.860E-06,-0.320
-1.850E-06,-0.320
-1.840E-06,-0.260
-1.830E-06,-0.240
-1.820E-06,-0.340
-1.810E-06,-0.340
-1.800E-06,-0.260
-1.790E-06,-0.160
-1.780E-06,0.000
-1.770E-06,0.060
-1.760E-06,0.080
-1.750E-06,0.040
-1.740E-06,0.000
-1.730E-06,-0.020
-1.720E-06,0.000
-1.710E-06,0.080
-1.700E-06,0.100
-1.690E-06,0.140
-1.680E-06,0.080
-1.670E-06,0.080
-1.660E-06,0.100
-1.650E-06,0.160
-1.640E-06,0.260
-1.630E-06,0.340
-1.620E-06,0.320
-1.610E-06,0.300
-1.600E-06,0.260
-1.590E-06,0.300
-1.580E-06,0.300
-1.570E-06,-0.100
-1.560E-06,0.400
-1.550E-06,0.360
-1.540E-06,0.840
-1.530E-06,1.240
-1.520E-06,1.240
-1.510E-06,0.960
-1.500E-06,0.620
-1.490E-06,0.160
-1.480E-06,0.160
-1.470E-06,0.300
-1.460E-06,0.320
-1.450E-06,0.460
-1.440E-06,0.280
-1.430E-06,0.020
-1.420E-06,-0.220
-1.410E-06,-0.400
-1.400E-06,-0.400
-1.390E-06,-0.240
-1.380E-06,-0.140
-1.370E-06,-0.120
-1.360E-06,-0.220
-1.350E-06,-0.340
-1.340E-06,-0.460
-1.330E-06,-0.440
-1.320E-06,-0.320
-1.310E-06,-0.280
-1.300E-06,-0.160
-1.290E-06,-0.160
-1.280E-06,-0.240
-1.270E-06,-0.320
-1.260E-06,-0.320
-1.250E-06,-0.320
-1.240E-06,-0.200
-1.230E-06,-0.180
-1.220E-06,-0.120
-1.210E-06,-0.080
-1.200E-06,-0.120
-1.190E-06,-0.160
-1.180E-06,-0.160
-1.170E-06,-0.120
-1.160E-06,-0.080
-1.150E-06,0.000
-1.140E-06,0.020
-1.130E-06,0.060
-1.120E-06,0.040
-1.110E-06,0.060
-1.100E-06,-0.040
-1.090E-06,-0.080
-1.080E-06,0.080
-1.070E-06,-0.200
-1.060E-06,-0.040
-1.050E-06,-0.100
-1.040E-06,-0.180
-1.030E-06,0.040
-1.020E-06,0.060
-1.010E-06,0.140
-1.000E-06,0.260
-9.900E-07,0.200
-9.800E-07,0.340
-9.700E-07,0.500
-9.600E-07,0.660
-9.500E-07,0.980
-9.400E-07,1.140
-9.300E-07,1.100
-9.200E-07,1.000
-9.100E-07,0.860
-9.000E-07,0.800
-8.900E-07,0.780
-8.800E-07,0.800
-8.700E-07,0.760
-8.600E-07,0.660
-8.500E-07,0.480
-8.400E-07,0.280
-8.300E-07,0.060
-8.200E-07,-0.020
-8.100E-07,-0.140
-8.000E-07,-0.220
-7.900E-07,-0.280
-7.800E-07,-0.400
-7.700E-07,-0.540
-7.600E-07,-0.560
-7.500E-07,-0.580
-7.400E-07,-0.560
-7.300E-07,-0.600
-7.200E-07,-0.580
-7.100E-07,-0.560
-7.000E-07,-0.540
-6.900E-07,-0.500
-6.800E-07,-0.380
-6.700E-07,-0.360
-6.600E-07,-0.280
-6.500E-07,-0.260
-6.400E-07,-0.240
-6.300E-07,-0.220
-6.200E-07,-0.200
-6.100E-07,-0.120
-6.000E-07,-0.040
-5.900E-07,0.000
-5.800E-07,0.060
-5.700E-07,0.100
-5.600E-07,0.120
-5.500E-07,0.120
-5.400E-07,0.120
-5.300E-07,0.180
-5.200E-07,0.260
-5.100E-07,0.260
-5.000E-07,0.360
-4.900E-07,0.400
-4.800E-07,0.360
-4.700E-07,0.360
-4.600E-07,0.420
-4.500E-07,0.500
-4.400E-07,0.580
-4.300E-07,0.680
-4.200E-07,0.680
-4.100E-07,0.600
-4.000E-07,0.580
-3.900E-07,0.600
-3.800E-07,0.640
-3.700E-07,0.660
-3.600E-07,0.540
-3.500E-07,0.200
-3.400E-07,0.060
-3.300E-07,-0.660
-3.200E-07,-0.760
-3.100E-07,-0.880
-3.000E-07,-0.940
-2.900E-07,-0.420
-2.800E-07,-0.080
-2.700E-07,0.320
-2.600E-07,0.400
-2.500E-07,0.160
-2.400E-07,-0.080
-2.300E-07,-0.280
-2.200E-07,-0.380
-2.100E-07,-0.180
-2.000E-07,0.100
-1.900E-07,0.160
-1.800E-07,0.260
-1.700E-07,0.160
-1.600E-07,-0.060
-1.500E-07,-0.160
-1.400E-07,-0.240
-1.300E-07,-0.280
-1.200E-07,-0.260
-1.100E-07,-0.040
-1.000E-07,0.120
-9.000E-08,0.240
-8.000E-08,0.260
-7.000E-08,0.540
-6.000E-08,0.820
-5.000E-08,-0.360
-4.000E-08,0.080
-3.000E-08,0.780
-2.000E-08,0.660
-1.000E-08,2.780
0.000E+00,2.760
1.000E-08,2.780
2.000E-08,2.760
3.000E-08,2.780
4.000E-08,2.500
5.000E-08,1.620
6.000E-08,0.900
7.000E-08,0.660
8.000E-08,0.820
9.000E-08,0.280
1.000E-07,-0.020
1.100E-07,-0.740
1.200E-07,-1.640
1.300E-07,-2.300
1.400E-07,-2.580
1.500E-07,-2.660
1.600E-07,-2.660
1.700E-07,-2.680
1.800E-07,-2.660
1.900E-07,-2.660
2.000E-07,-2.640
2.100E-07,-2.660
2.200E-07,-2.160
2.300E-07,0.260
2.400E-07,1.980
2.500E-07,2.760
2.600E-07,2.760
2.700E-07,2.440
2.800E-07,1.200
2.900E-07,0.440
3.000E-07,0.160
3.100E-07,0.500
3.200E-07,0.700
3.300E-07,0.120
3.400E-07,-0.660
3.500E-07,-1.300
3.600E-07,-1.600
3.700E-07,-0.660
3.800E-07,0.620
3.900E-07,2.100
4.000E-07,2.780
4.100E-07,2.760
4.200E-07,2.780
4.300E-07,2.760
4.400E-07,2.680
4.500E-07,1.860
4.600E-07,1.520
4.700E-07,1.320
4.800E-07,1.320
4.900E-07,0.980
5.000E-07,0.300
5.100E-07,-0.520
5.200E-07,-1.320
5.300E-07,-1.960
5.400E-07,-2.000
5.500E-07,-1.760
5.600E-07,-1.340
5.700E-07,-1.080
5.800E-07,-1.340
5.900E-07,-1.980
6.000E-07,-2.360
6.100E-07,-2.660
6.200E-07,-2.380
6.300E-07,-1.700
6.400E-07,-0.900
6.500E-07,-0.140
6.600E-07,0.140
6.700E-07,0.060
6.800E-07,-0.020
6.900E-07,-0.400
7.000E-07,-0.580
7.100E-07,-0.680
7.200E-07,-0.960
7.300E-07,-1.360
7.400E-07,-1.700
7.500E-07,-1.140
7.600E-07,-1.480
7.700E-07,0.120
7.800E-07,2.460
7.900E-07,2.740
8.000E-07,2.760
8.100E-07,2.760
8.200E-07,2.760
8.300E-07,2.260
8.400E-07,0.340
8.500E-07,-0.200
8.600E-07,0.520
8.700E-07,0.640
8.800E-07,0.500
8.900E-07,0.080
9.000E-07,-0.700
9.100E-07,-1.340
9.200E-07,-1.700
9.300E-07,-1.880
9.400E-07,-1.440
9.500E-07,-1.000
9.600E-07,-0.720
9.700E-07,-0.360
9.800E-07,-0.300
9.900E-07,-0.220
1.000E-06,-0.260
1.010E-06,-0.240
1.020E-06,-0.360
1.030E-06,-0.580
1.040E-06,-0.680
1.050E-06,-0.700
1.060E-06,-1.020
1.070E-06,-1.240
1.080E-06,-1.580
1.090E-06,-1.980
1.100E-06,-2.100
1.110E-06,-2.420
1.120E-06,-2.220
1.130E-06,-1.000
1.140E-06,0.220
1.150E-06,2.200
1.160E-06,2.760
1.170E-06,2.760
1.180E-06,2.740
1.190E-06,2.760
1.200E-06,2.220
1.210E-06,0.940
1.220E-06,-0.120
1.230E-06,-0.180
1.240E-06,0.200
1.250E-06,-0.060
1.260E-06,-0.500
1.270E-06,-1.200
1.280E-06,-1.820
1.290E-06,-1.980
1.300E-06,-1.760
1.310E-06,-1.260
1.320E-06,-0.880
1.330E-06,-0.680
1.340E-06,-1.100
1.350E-06,-1.840
1.360E-06,-2.380
1.370E-06,-2.660
1.380E-06,-2.660
1.390E-06,-2.020
1.400E-06,-1.220
1.410E-06,0.320
1.420E-06,2.160
1.430E-06,2.760
1.440E-06,2.760
1.450E-06,2.740
1.460E-06,2.760
1.470E-06,2.780
1.480E-06,2.180
1.490E-06,0.920
1.500E-06,0.260
1.510E-06,-0.120
1.520E-06,-0.300
1.530E-06,-0.560
1.540E-06,-1.000
1.550E-06,-1.360
1.560E-06,-1.780
1.570E-06,-2.120
1.580E-06,-2.160
1.590E-06,-1.980
1.600E-06,-1.880
1.610E-06,-2.140
1.620E-06,-2.340
1.630E-06,-2.560
1.640E-06,-2.520
1.650E-06,-2.020
1.660E-06,-1.460
1.670E-06,-0.620
1.680E-06,-0.080
1.690E-06,0.400
1.700E-06,0.580
1.710E-06,0.780
1.720E-06,0.960
1.730E-06,0.920
1.740E-06,1.020
1.750E-06,0.820
1.760E-06,0.160
1.770E-06,0.380
1.780E-06,-0.600
1.790E-06,-0.220
1.800E-06,2.380
1.810E-06,2.760
1.820E-06,2.780
1.830E-06,2.760
1.840E-06,1.160
1.850E-06,0.400
1.860E-06,0.420
1.870E-06,1.440
1.880E-06,2.780
1.890E-06,2.760
1.900E-06,2.760
1.910E-06,1.380
1.920E-06,-1.100
1.930E-06,-2.060
1.940E-06,-1.640
1.950E-06,-2.420
1.960E-06,-2.160
1.970E-06,-1.700
1.980E-06,-2.380
1.990E-06,-2.280
2.000E-06,-2.280
2.010E-06,-2.560
2.020E-06,-2.440
2.030E-06,-2.320
2.040E-06,-2.140
2.050E-06,-2.180
2.060E-06,-2.220
2.070E-06,-2.180
2.080E-06,-2.000
2.090E-06,-1.520
2.100E-06,-0.680
2.110E-06,-0.120
2.120E-06,0.300
2.130E-06,0.220
2.140E-06,0.000
2.150E-06,0.080
2.160E-06,0.340
2.170E-06,0.600
2.180E-06,0.900
2.190E-06,1.100
2.200E-06,1.260
2.210E-06,1.460
2.220E-06,1.800
2.230E-06,2.040
2.240E-06,2.240
2.250E-06,2.440
2.260E-06,2.420
2.270E-06,2.360
2.280E-06,2.460
2.290E-06,2.480
2.300E-06,2.420
2.310E-06,2.340
2.320E-06,1.940
2.330E-06,1.560
2.340E-06,1.100
2.350E-06,0.620
2.360E-06,0.400
2.370E-06,0.340
2.380E-06,0.600
2.390E-06,0.980
2.400E-06,1.480
2.410E-06,2.040
2.420E-06,2.440
2.430E-06,2.740
2.440E-06,2.780
2.450E-06,2.580
2.460E-06,2.220
2.470E-06,1.720
2.480E-06,1.180
2.490E-06,0.820
2.500E-06,0.500
2.510E-06,0.240
2.520E-06,0.020
2.530E-06,0.000
2.540E-06,0.140
2.550E-06,0.300
2.560E-06,0.440
2.570E-06,0.500
2.580E-06,0.540
2.590E-06,0.640
2.600E-06,0.720
2.610E-06,0.800
2.620E-06,0.880
2.630E-06,0.920
2.640E-06,0.940
2.650E-06,0.880
2.660E-06,0.760
2.670E-06,0.580
2.680E-06,0.420
2.690E-06,0.320
2.700E-06,0.320
2.710E-06,0.440
2.720E-06,0.580
2.730E-06,0.780
2.740E-06,0.940
2.750E-06,1.060
2.760E-06,1.180
2.770E-06,1.280
2.780E-06,1.360
2.790E-06,1.440
2.800E-06,1.460
2.810E-06,1.420
2.820E-06,1.320
2.830E-06,1.240
2.840E-06,1.080
2.850E-06,0.900
2.860E-06,0.740
2.870E-06,0.600
2.880E-06,0.520
2.890E-06,0.400
2.900E-06,0.420
2.910E-06,0.440
2.920E-06,0.480
2.930E-06,0.520
2.940E-06,0.580
2.950E-06,0.600
2.960E-06,0.660
2.970E-06,0.680
2.980E-06,0.740
2.990E-06,0.740
3.000E-06,0.720
3.010E-06,0.740
3.020E-06,0.740
3.030E-06,0.680
3.040E-06,0.600
3.050E-06,0.540
3.060E-06,0.420
3.070E-06,0.400
3.080E-06,0.340
3.090E-06,0.340
3.100E-06,0.320
3.110E-06,0.340
3.120E-06,0.360
3.130E-06,0.420
3.140E-06,0.440
3.150E-06,0.480
3.160E-06,0.480
3.170E-06,0.520
3.180E-06,0.540
3.190E-06,0.500
3.200E-06,0.500
3.210E-06,0.520
3.220E-06,0.520
3.230E-06,0.520
3.240E-06,0.560
3.250E-06,0.600
3.260E-06,0.680
3.270E-06,0.800
3.280E-06,0.880
3.290E-06,1.000
3.300E-06,1.020
3.310E-06,1.080
3.320E-06,1.120
3.330E-06,1.140
3.340E-06,1.120
3.350E-06,1.120
3.360E-06,1.080
3.370E-06,0.980
3.380E-06,0.900
3.390E-06,0.920
3.400E-06,0.900
3.410E-06,0.900
3.420E-06,0.800
3.430E-06,0.720
3.440E-06,0.660
3.450E-06,0.580
3.460E-06,0.540
3.470E-06,0.460
3.480E-06,0.360
3.490E-06,0.320
3.500E-06,0.280
3.510E-06,0.260
3.520E-06,0.260
3.530E-06,0.300
3.540E-06,0.340
3.550E-06,0.500
3.560E-06,0.620
3.570E-06,0.640
3.580E-06,0.560
3.590E-06,0.480
3.600E-06,0.380
3.610E-06,0.400
3.620E-06,0.460
