mediciones/6-26/25.0/WaveData5982.csv

#timebase=2000000(ps)
,#voltbase=200000(mv/100)
#size=4000
-8.150E-06,0.008
-8.140E-06,0.008
-8.130E-06,0.008
-8.120E-06,0.000
-8.110E-06,0.008
-8.100E-06,0.008
-8.090E-06,0.000
-8.080E-06,0.000
-8.070E-06,0.008
-8.060E-06,0.000
-8.050E-06,0.000
-8.040E-06,0.008
-8.030E-06,0.000
-8.020E-06,0.000
-8.010E-06,-0.008
-8.000E-06,0.000
-7.990E-06,0.008
-7.980E-06,0.000
-7.970E-06,0.000
-7.960E-06,0.000
-7.950E-06,0.000
-7.940E-06,-0.008
-7.930E-06,-0.008
-7.920E-06,0.000
-7.910E-06,0.016
-7.900E-06,0.016
-7.890E-06,0.008
-7.880E-06,0.016
-7.870E-06,0.000
-7.860E-06,0.000
-7.850E-06,0.008
-7.840E-06,0.000
-7.830E-06,0.000
-7.820E-06,0.008
-7.810E-06,-0.008
-7.800E-06,0.000
-7.790E-06,0.008
-7.780E-06,0.000
-7.770E-06,0.008
-7.760E-06,0.000
-7.750E-06,0.008
-7.740E-06,0.016
-7.730E-06,0.016
-7.720E-06,0.008
-7.710E-06,-0.008
-7.700E-06,0.000
-7.690E-06,0.008
-7.680E-06,0.000
-7.670E-06,0.008
-7.660E-06,0.000
-7.650E-06,0.000
-7.640E-06,0.008
-7.630E-06,0.000
-7.620E-06,0.008
-7.610E-06,0.000
-7.600E-06,0.000
-7.590E-06,-0.008
-7.580E-06,0.008
-7.570E-06,0.008
-7.560E-06,0.000
-7.550E-06,0.016
-7.540E-06,0.016
-7.530E-06,-0.008
-7.520E-06,0.000
-7.510E-06,0.008
-7.500E-06,0.008
-7.490E-06,0.000
-7.480E-06,0.008
-7.470E-06,0.000
-7.460E-06,0.000
-7.450E-06,0.008
-7.440E-06,0.000
-7.430E-06,0.000
-7.420E-06,0.000
-7.410E-06,0.000
-7.400E-06,0.008
-7.390E-06,0.000
-7.380E-06,0.008
-7.370E-06,0.008
-7.360E-06,0.008
-7.350E-06,0.000
-7.340E-06,0.008
-7.330E-06,0.000
-7.320E-06,0.008
-7.310E-06,0.000
-7.300E-06,0.000
-7.290E-06,0.000
-7.280E-06,0.008
-7.270E-06,0.000
-7.260E-06,0.008
-7.250E-06,0.000
-7.240E-06,0.008
-7.230E-06,0.000
-7.220E-06,0.000
-7.210E-06,0.008
-7.200E-06,0.008
-7.190E-06,0.000
-7.180E-06,-0.008
-7.170E-06,0.000
-7.160E-06,0.000
-7.150E-06,0.000
-7.140E-06,0.008
-7.130E-06,0.000
-7.120E-06,0.008
-7.110E-06,0.000
-7.100E-06,0.008
-7.090E-06,0.008
-7.080E-06,0.000
-7.070E-06,0.000
-7.060E-06,0.000
-7.050E-06,0.008
-7.040E-06,0.016
-7.030E-06,-0.008
-7.020E-06,-0.008
-7.010E-06,0.008
-7.000E-06,0.000
-6.990E-06,0.000
-6.980E-06,0.008
-6.970E-06,0.008
-6.960E-06,0.000
-6.950E-06,0.000
-6.940E-06,0.000
-6.930E-06,0.000
-6.920E-06,0.000
-6.910E-06,0.000
-6.900E-06,0.000
-6.890E-06,-0.008
-6.880E-06,-0.008
-6.870E-06,0.008
-6.860E-06,-0.008
-6.850E-06,0.008
-6.840E-06,0.000
-6.830E-06,0.000
-6.820E-06,0.016
-6.810E-06,0.008
-6.800E-06,-0.008
-6.790E-06,0.000
-6.780E-06,0.000
-6.770E-06,0.000
-6.760E-06,0.000
-6.750E-06,0.008
-6.740E-06,-0.008
-6.730E-06,0.000
-6.720E-06,0.000
-6.710E-06,0.000
-6.700E-06,0.000
-6.690E-06,0.000
-6.680E-06,0.008
-6.670E-06,0.008
-6.660E-06,0.000
-6.650E-06,0.008
-6.640E-06,0.000
-6.630E-06,0.000
-6.620E-06,0.000
-6.610E-06,0.000
-6.600E-06,0.008
-6.590E-06,-0.008
-6.580E-06,-0.008
-6.570E-06,0.000
-6.560E-06,0.000
-6.550E-06,0.000
-6.540E-06,0.008
-6.530E-06,0.008
-6.520E-06,0.008
-6.510E-06,0.016
-6.500E-06,0.008
-6.490E-06,0.008
-6.480E-06,0.016
-6.470E-06,-0.008
-6.460E-06,-0.008
-6.450E-06,0.008
-6.440E-06,0.008
-6.430E-06,0.000
-6.420E-06,0.008
-6.410E-06,0.008
-6.400E-06,0.008
-6.390E-06,0.000
-6.380E-06,0.008
-6.370E-06,0.008
-6.360E-06,0.008
-6.350E-06,0.000
-6.340E-06,-0.008
-6.330E-06,0.000
-6.320E-06,0.008
-6.310E-06,-0.008
-6.300E-06,0.000
-6.290E-06,0.000
-6.280E-06,-0.008
-6.270E-06,-0.008
-6.260E-06,0.000
-6.250E-06,0.008
-6.240E-06,0.000
-6.230E-06,0.008
-6.220E-06,0.000
-6.210E-06,0.008
-6.200E-06,0.000
-6.190E-06,0.008
-6.180E-06,0.008
-6.170E-06,0.000
-6.160E-06,0.000
-6.150E-06,0.008
-6.140E-06,0.000
-6.130E-06,0.000
-6.120E-06,0.000
-6.110E-06,0.000
-6.100E-06,0.000
-6.090E-06,-0.008
-6.080E-06,0.008
-6.070E-06,0.000
-6.060E-06,0.008
-6.050E-06,0.008
-6.040E-06,0.008
-6.030E-06,0.000
-6.020E-06,-0.008
-6.010E-06,-0.008
-6.000E-06,0.008
-5.990E-06,0.008
-5.980E-06,0.000
-5.970E-06,0.000
-5.960E-06,0.000
-5.950E-06,0.008
-5.940E-06,0.016
-5.930E-06,0.000
-5.920E-06,0.000
-5.910E-06,0.000
-5.900E-06,0.000
-5.890E-06,-0.008
-5.880E-06,0.000
-5.870E-06,0.000
-5.860E-06,0.000
-5.850E-06,0.000
-5.840E-06,0.000
-5.830E-06,-0.008
-5.820E-06,0.000
-5.810E-06,0.000
-5.800E-06,0.008
-5.790E-06,0.000
-5.780E-06,0.000
-5.770E-06,0.008
-5.760E-06,0.008
-5.750E-06,0.008
-5.740E-06,0.000
-5.730E-06,0.000
-5.720E-06,0.000
-5.710E-06,0.000
-5.700E-06,-0.008
-5.690E-06,0.008
-5.680E-06,0.000
-5.670E-06,0.000
-5.660E-06,0.000
-5.650E-06,0.008
-5.640E-06,0.008
-5.630E-06,0.000
-5.620E-06,0.000
-5.610E-06,-0.008
-5.600E-06,0.000
-5.590E-06,0.000
-5.580E-06,-0.008
-5.570E-06,0.008
-5.560E-06,0.000
-5.550E-06,0.000
-5.540E-06,0.008
-5.530E-06,0.008
-5.520E-06,0.016
-5.510E-06,0.016
-5.500E-06,0.008
-5.490E-06,0.016
-5.480E-06,0.000
-5.470E-06,0.008
-5.460E-06,0.000
-5.450E-06,0.008
-5.440E-06,0.008
-5.430E-06,0.008
-5.420E-06,0.000
-5.410E-06,0.016
-5.400E-06,0.000
-5.390E-06,0.008
-5.380E-06,0.008
-5.370E-06,0.008
-5.360E-06,0.000
-5.350E-06,0.016
-5.340E-06,0.008
-5.330E-06,0.000
-5.320E-06,0.000
-5.310E-06,0.000
-5.300E-06,0.000
-5.290E-06,0.000
-5.280E-06,0.008
-5.270E-06,0.008
-5.260E-06,0.000
-5.250E-06,0.008
-5.240E-06,0.008
-5.230E-06,0.008
-5.220E-06,0.008
-5.210E-06,0.000
-5.200E-06,0.000
-5.190E-06,0.000
-5.180E-06,0.008
-5.170E-06,0.000
-5.160E-06,0.008
-5.150E-06,0.000
-5.140E-06,0.008
-5.130E-06,0.000
-5.120E-06,-0.008
-5.110E-06,0.008
-5.100E-06,0.008
-5.090E-06,0.000
-5.080E-06,0.000
-5.070E-06,0.008
-5.060E-06,0.016
-5.050E-06,0.000
-5.040E-06,0.008
-5.030E-06,0.000
-5.020E-06,0.000
-5.010E-06,0.008
-5.000E-06,0.008
-4.990E-06,0.000
-4.980E-06,0.008
-4.970E-06,0.000
-4.960E-06,0.000
-4.950E-06,0.008
-4.940E-06,0.000
-4.930E-06,0.008
-4.920E-06,0.008
-4.910E-06,0.008
-4.900E-06,0.008
-4.890E-06,0.008
-4.880E-06,0.008
-4.870E-06,0.000
-4.860E-06,0.016
-4.850E-06,0.016
-4.840E-06,0.008
-4.830E-06,0.016
-4.820E-06,-0.008
-4.810E-06,-0.008
-4.800E-06,0.008
-4.790E-06,-0.008
-4.780E-06,0.000
-4.770E-06,0.000
-4.760E-06,-0.008
-4.750E-06,0.008
-4.740E-06,0.008
-4.730E-06,0.008
-4.720E-06,0.000
-4.710E-06,0.000
-4.700E-06,0.008
-4.690E-06,-0.008
-4.680E-06,0.008
-4.670E-06,0.000
-4.660E-06,0.008
-4.650E-06,0.008
-4.640E-06,0.016
-4.630E-06,-0.008
-4.620E-06,0.000
-4.610E-06,0.008
-4.600E-06,0.008
-4.590E-06,0.008
-4.580E-06,0.000
-4.570E-06,0.008
-4.560E-06,0.000
-4.550E-06,0.000
-4.540E-06,0.008
-4.530E-06,0.016
-4.520E-06,-0.008
-4.510E-06,0.008
-4.500E-06,0.008
-4.490E-06,0.008
-4.480E-06,0.008
-4.470E-06,0.008
-4.460E-06,0.000
-4.450E-06,0.000
-4.440E-06,0.008
-4.430E-06,0.000
-4.420E-06,0.008
-4.410E-06,0.000
-4.400E-06,0.008
-4.390E-06,0.008
-4.380E-06,0.008
-4.370E-06,0.008
-4.360E-06,0.000
-4.350E-06,0.008
-4.340E-06,0.008
-4.330E-06,0.000
-4.320E-06,0.008
-4.310E-06,0.000
-4.300E-06,-0.008
-4.290E-06,-0.008
-4.280E-06,0.008
-4.270E-06,-0.008
-4.260E-06,0.008
-4.250E-06,0.000
-4.240E-06,-0.008
-4.230E-06,0.008
-4.220E-06,0.008
-4.210E-06,0.000
-4.200E-06,0.000
-4.190E-06,0.008
-4.180E-06,0.008
-4.170E-06,0.016
-4.160E-06,0.016
-4.150E-06,0.008
-4.140E-06,0.008
-4.130E-06,0.000
-4.120E-06,-0.008
-4.110E-06,0.008
-4.100E-06,0.000
-4.090E-06,0.000
-4.080E-06,0.008
-4.070E-06,0.016
-4.060E-06,0.008
-4.050E-06,0.000
-4.040E-06,0.000
-4.030E-06,0.008
-4.020E-06,0.008
-4.010E-06,0.000
-4.000E-06,0.000
-3.990E-06,0.000
-3.980E-06,0.008
-3.970E-06,0.000
-3.960E-06,0.000
-3.950E-06,0.008
-3.940E-06,0.000
-3.930E-06,0.016
-3.920E-06,-0.008
-3.910E-06,0.008
-3.900E-06,0.008
-3.890E-06,0.008
-3.880E-06,-0.008
-3.870E-06,-0.008
-3.860E-06,0.000
-3.850E-06,0.008
-3.840E-06,0.000
-3.830E-06,0.008
-3.820E-06,0.008
-3.810E-06,0.000
-3.800E-06,0.008
-3.790E-06,0.008
-3.780E-06,0.000
-3.770E-06,0.008
-3.760E-06,0.008
-3.750E-06,0.008
-3.740E-06,-0.008
-3.730E-06,0.008
-3.720E-06,0.000
-3.710E-06,0.000
-3.700E-06,0.000
-3.690E-06,0.008
-3.680E-06,0.000
-3.670E-06,0.000
-3.660E-06,0.008
-3.650E-06,0.008
-3.640E-06,0.008
-3.630E-06,0.008
-3.620E-06,0.000
-3.610E-06,0.008
-3.600E-06,0.008
-3.590E-06,0.016
-3.580E-06,0.008
-3.570E-06,0.000
-3.560E-06,-0.008
-3.550E-06,0.008
-3.540E-06,0.000
-3.530E-06,0.008
-3.520E-06,0.000
-3.510E-06,0.008
-3.500E-06,0.008
-3.490E-06,0.000
-3.480E-06,0.000
-3.470E-06,0.016
-3.460E-06,-0.008
-3.450E-06,0.000
-3.440E-06,0.000
-3.430E-06,0.000
-3.420E-06,0.000
-3.410E-06,0.008
-3.400E-06,0.000
-3.390E-06,-0.008
-3.380E-06,0.008
-3.370E-06,0.008
-3.360E-06,0.008
-3.350E-06,0.000
-3.340E-06,0.000
-3.330E-06,0.000
-3.320E-06,0.008
-3.310E-06,0.008
-3.300E-06,-0.008
-3.290E-06,-0.008
-3.280E-06,0.000
-3.270E-06,-0.008
-3.260E-06,0.008
-3.250E-06,0.008
-3.240E-06,0.008
-3.230E-06,0.000
-3.220E-06,-0.008
-3.210E-06,0.008
-3.200E-06,0.008
-3.190E-06,0.008
-3.180E-06,0.008
-3.170E-06,0.008
-3.160E-06,0.032
-3.150E-06,0.096
-3.140E-06,0.112
-3.130E-06,0.088
-3.120E-06,0.088
-3.110E-06,-0.088
-3.100E-06,-0.088
-3.090E-06,-0.152
-3.080E-06,-0.120
-3.070E-06,0.048
-3.060E-06,0.080
-3.050E-06,0.112
-3.040E-06,0.064
-3.030E-06,0.024
-3.020E-06,-0.072
-3.010E-06,-0.016
-3.000E-06,0.008
-2.990E-06,0.080
-2.980E-06,0.080
-2.970E-06,0.056
-2.960E-06,-0.008
-2.950E-06,-0.056
-2.940E-06,-0.064
-2.930E-06,-0.064
-2.920E-06,-0.016
-2.910E-06,0.032
-2.900E-06,0.072
-2.890E-06,0.040
-2.880E-06,0.048
-2.870E-06,0.016
-2.860E-06,0.000
-2.850E-06,0.008
-2.840E-06,-0.016
-2.830E-06,0.000
-2.820E-06,0.000
-2.810E-06,0.000
-2.800E-06,-0.016
-2.790E-06,-0.024
-2.780E-06,-0.032
-2.770E-06,-0.024
-2.760E-06,0.008
-2.750E-06,0.008
-2.740E-06,0.032
-2.730E-06,0.048
-2.720E-06,0.040
-2.710E-06,0.016
-2.700E-06,0.016
-2.690E-06,-0.008
-2.680E-06,0.000
-2.670E-06,-0.008
-2.660E-06,0.008
-2.650E-06,-0.008
-2.640E-06,0.008
-2.630E-06,0.008
-2.620E-06,0.000
-2.610E-06,0.000
-2.600E-06,0.008
-2.590E-06,0.024
-2.580E-06,0.032
-2.570E-06,0.040
-2.560E-06,0.032
-2.550E-06,0.016
-2.540E-06,0.008
-2.530E-06,0.008
-2.520E-06,-0.008
-2.510E-06,-0.008
-2.500E-06,0.016
-2.490E-06,0.008
-2.480E-06,0.016
-2.470E-06,0.000
-2.460E-06,-0.008
-2.450E-06,-0.008
-2.440E-06,-0.008
-2.430E-06,0.024
-2.420E-06,-0.008
-2.410E-06,0.048
-2.400E-06,0.048
-2.390E-06,0.024
-2.380E-06,0.024
-2.370E-06,0.000
-2.360E-06,0.000
-2.350E-06,-0.016
-2.340E-06,-0.064
-2.330E-06,-0.008
-2.320E-06,-0.008
-2.310E-06,0.000
-2.300E-06,0.040
-2.290E-06,0.040
-2.280E-06,0.032
-2.270E-06,0.016
-2.260E-06,-0.024
-2.250E-06,-0.032
-2.240E-06,-0.008
-2.230E-06,0.008
-2.220E-06,0.024
-2.210E-06,0.040
-2.200E-06,0.048
-2.190E-06,0.032
-2.180E-06,-0.016
-2.170E-06,-0.016
-2.160E-06,-0.024
-2.150E-06,-0.008
-2.140E-06,0.024
-2.130E-06,0.056
-2.120E-06,0.048
-2.110E-06,0.016
-2.100E-06,0.008
-2.090E-06,-0.008
-2.080E-06,-0.008
-2.070E-06,0.000
-2.060E-06,0.024
-2.050E-06,0.032
-2.040E-06,0.040
-2.030E-06,0.016
-2.020E-06,0.000
-2.010E-06,-0.008
-2.000E-06,0.000
-1.990E-06,0.000
-1.980E-06,0.000
-1.970E-06,0.016
-1.960E-06,0.024
-1.950E-06,0.024
-1.940E-06,0.008
-1.930E-06,0.000
-1.920E-06,0.000
-1.910E-06,0.000
-1.900E-06,0.008
-1.890E-06,0.024
-1.880E-06,0.032
-1.870E-06,0.048
-1.860E-06,0.024
-1.850E-06,0.008
-1.840E-06,0.016
-1.830E-06,0.008
-1.820E-06,0.008
-1.810E-06,0.016
-1.800E-06,0.048
-1.790E-06,0.040
-1.780E-06,0.040
-1.770E-06,0.048
-1.760E-06,0.040
-1.750E-06,0.024
-1.740E-06,0.040
-1.730E-06,0.040
-1.720E-06,0.072
-1.710E-06,0.040
-1.700E-06,0.056
-1.690E-06,0.032
-1.680E-06,0.048
-1.670E-06,-0.024
-1.660E-06,-0.240
-1.650E-06,-0.280
-1.640E-06,-0.176
-1.630E-06,-0.120
-1.620E-06,0.208
-1.610E-06,0.280
-1.600E-06,0.272
-1.590E-06,0.024
-1.580E-06,-0.176
-1.570E-06,-0.352
-1.560E-06,-0.288
-1.550E-06,-0.048
-1.540E-06,0.136
-1.530E-06,0.360
-1.520E-06,0.272
-1.510E-06,0.152
-1.500E-06,-0.128
-1.490E-06,-0.264
-1.480E-06,-0.256
-1.470E-06,-0.120
-1.460E-06,0.064
-1.450E-06,0.216
-1.440E-06,0.280
-1.430E-06,0.104
-1.420E-06,-0.056
-1.410E-06,-0.224
-1.400E-06,-0.240
-1.390E-06,-0.104
-1.380E-06,0.072
-1.370E-06,0.184
-1.360E-06,0.184
-1.350E-06,0.096
-1.340E-06,-0.056
-1.330E-06,-0.128
-1.320E-06,-0.152
-1.310E-06,-0.080
-1.300E-06,0.032
-1.290E-06,0.128
-1.280E-06,0.168
-1.270E-06,0.120
-1.260E-06,0.008
-1.250E-06,-0.072
-1.240E-06,-0.104
-1.230E-06,-0.080
-1.220E-06,-0.024
-1.210E-06,0.056
-1.200E-06,0.128
-1.190E-06,0.136
-1.180E-06,0.088
-1.170E-06,-0.016
-1.160E-06,-0.080
-1.150E-06,-0.112
-1.140E-06,-0.072
-1.130E-06,0.024
-1.120E-06,0.080
-1.110E-06,0.152
-1.100E-06,0.168
-1.090E-06,0.144
-1.080E-06,0.080
-1.070E-06,-0.008
-1.060E-06,-0.048
-1.050E-06,0.024
-1.040E-06,-0.072
-1.030E-06,-0.168
-1.020E-06,-0.192
-1.010E-06,-0.048
-1.000E-06,0.064
-9.900E-07,0.088
-9.800E-07,0.064
-9.700E-07,0.088
-9.600E-07,0.032
-9.500E-07,-0.064
-9.400E-07,-0.080
-9.300E-07,-0.152
-9.200E-07,-0.056
-9.100E-07,0.056
-9.000E-07,0.152
-8.900E-07,0.160
-8.800E-07,0.104
-8.700E-07,0.016
-8.600E-07,-0.048
-8.500E-07,-0.080
-8.400E-07,-0.064
-8.300E-07,0.024
-8.200E-07,0.104
-8.100E-07,0.144
-8.000E-07,0.152
-7.900E-07,0.080
-7.800E-07,0.008
-7.700E-07,-0.072
-7.600E-07,-0.192
-7.500E-07,-0.112
-7.400E-07,-0.024
-7.300E-07,0.128
-7.200E-07,0.232
-7.100E-07,0.160
-7.000E-07,0.032
-6.900E-07,-0.088
-6.800E-07,-0.240
-6.700E-07,-0.160
-6.600E-07,-0.112
-6.500E-07,0.120
-6.400E-07,0.304
-6.300E-07,0.248
-6.200E-07,0.040
-6.100E-07,-0.128
-6.000E-07,-0.184
-5.900E-07,-0.064
-5.800E-07,0.024
-5.700E-07,0.160
-5.600E-07,0.240
-5.500E-07,0.184
-5.400E-07,0.048
-5.300E-07,-0.040
-5.200E-07,-0.072
-5.100E-07,-0.008
-5.000E-07,0.128
-4.900E-07,0.176
-4.800E-07,0.192
-4.700E-07,0.144
-4.600E-07,0.080
-4.500E-07,0.016
-4.400E-07,-0.016
-4.300E-07,0.000
-4.200E-07,0.016
-4.100E-07,0.144
-4.000E-07,0.168
-3.900E-07,0.216
-3.800E-07,0.216
-3.700E-07,0.144
-3.600E-07,0.008
-3.500E-07,-0.120
-3.400E-07,-0.120
-3.300E-07,-0.096
-3.200E-07,0.048
-3.100E-07,0.144
-3.000E-07,0.200
-2.900E-07,0.152
-2.800E-07,0.024
-2.700E-07,-0.104
-2.600E-07,-0.144
-2.500E-07,-0.032
-2.400E-07,0.120
-2.300E-07,0.248
-2.200E-07,0.328
-2.100E-07,0.256
-2.000E-07,0.192
-1.900E-07,0.056
-1.800E-07,-0.016
-1.700E-07,0.104
-1.600E-07,0.176
-1.500E-07,0.256
-1.400E-07,0.248
-1.300E-07,0.160
-1.200E-07,0.048
-1.100E-07,0.056
-1.000E-07,0.112
-9.000E-08,0.304
-8.000E-08,0.136
-7.000E-08,0.160
-6.000E-08,-0.408
-5.000E-08,-1.016
-4.000E-08,-1.024
-3.000E-08,-1.024
-2.000E-08,-0.808
-1.000E-08,0.624
0.000E+00,1.080
1.000E-08,1.080
2.000E-08,0.760
3.000E-08,-0.600
4.000E-08,-1.016
5.000E-08,-1.016
6.000E-08,-0.616
7.000E-08,0.656
8.000E-08,1.080
9.000E-08,1.088
1.000E-07,0.808
1.100E-07,-0.104
1.200E-07,-0.976
1.300E-07,-0.976
1.400E-07,-0.544
1.500E-07,0.472
1.600E-07,1.016
1.700E-07,1.088
1.800E-07,0.896
1.900E-07,0.032
2.000E-07,-0.680
2.100E-07,-1.024
2.200E-07,-0.792
2.300E-07,-0.096
2.400E-07,0.592
2.500E-07,0.968
2.600E-07,0.944
2.700E-07,0.560
2.800E-07,-0.008
2.900E-07,-0.424
3.000E-07,-0.440
3.100E-07,-0.088
3.200E-07,0.416
3.300E-07,0.760
3.400E-07,0.840
3.500E-07,0.608
3.600E-07,0.184
3.700E-07,-0.136
3.800E-07,-0.248
3.900E-07,-0.080
4.000E-07,0.224
4.100E-07,0.536
4.200E-07,0.616
4.300E-07,0.480
4.400E-07,0.232
4.500E-07,-0.064
4.600E-07,-0.192
4.700E-07,-0.136
4.800E-07,0.104
4.900E-07,0.328
5.000E-07,0.376
5.100E-07,0.288
5.200E-07,0.056
5.300E-07,-0.072
5.400E-07,-0.152
5.500E-07,-0.064
5.600E-07,0.160
5.700E-07,0.352
5.800E-07,0.480
5.900E-07,0.440
6.000E-07,0.312
6.100E-07,0.136
6.200E-07,0.072
6.300E-07,0.120
6.400E-07,0.248
6.500E-07,0.352
6.600E-07,0.416
6.700E-07,0.392
6.800E-07,0.288
6.900E-07,0.144
7.000E-07,0.056
7.100E-07,0.064
7.200E-07,0.176
7.300E-07,0.272
7.400E-07,0.336
7.500E-07,0.344
7.600E-07,0.352
7.700E-07,0.280
7.800E-07,0.272
7.900E-07,0.208
8.000E-07,0.232
8.100E-07,0.320
8.200E-07,0.344
8.300E-07,0.320
8.400E-07,0.272
8.500E-07,0.256
8.600E-07,0.152
8.700E-07,0.152
8.800E-07,0.128
8.900E-07,0.112
9.000E-07,0.080
9.100E-07,0.032
9.200E-07,0.072
9.300E-07,-0.040
9.400E-07,-0.104
9.500E-07,-0.264
9.600E-07,-0.224
9.700E-07,0.184
9.800E-07,0.192
9.900E-07,0.240
1.000E-06,0.296
1.010E-06,0.264
1.020E-06,0.240
1.030E-06,0.008
1.040E-06,-0.072
1.050E-06,0.136
1.060E-06,0.208
1.070E-06,0.376
1.080E-06,0.384
1.090E-06,0.320
1.100E-06,0.200
1.110E-06,0.152
1.120E-06,0.128
1.130E-06,0.168
1.140E-06,0.264
1.150E-06,0.360
1.160E-06,0.432
1.170E-06,0.432
1.180E-06,0.344
1.190E-06,0.232
1.200E-06,0.200
1.210E-06,0.200
1.220E-06,0.280
1.230E-06,0.352
1.240E-06,0.384
1.250E-06,0.392
1.260E-06,0.328
1.270E-06,0.264
1.280E-06,0.216
1.290E-06,0.232
1.300E-06,0.256
1.310E-06,0.312
1.320E-06,0.352
1.330E-06,0.376
1.340E-06,0.352
1.350E-06,0.304
1.360E-06,0.264
1.370E-06,0.248
1.380E-06,0.264
1.390E-06,0.280
1.400E-06,0.328
1.410E-06,0.336
1.420E-06,0.336
1.430E-06,0.304
1.440E-06,0.264
1.450E-06,0.256
1.460E-06,0.240
1.470E-06,0.272
1.480E-06,0.304
1.490E-06,0.312
1.500E-06,0.320
1.510E-06,0.320
1.520E-06,0.280
1.530E-06,0.272
1.540E-06,0.264
1.550E-06,0.280
1.560E-06,0.296
1.570E-06,0.312
1.580E-06,0.312
1.590E-06,0.304
1.600E-06,0.280
1.610E-06,0.272
1.620E-06,0.256
1.630E-06,0.272
1.640E-06,0.280
1.650E-06,0.280
1.660E-06,0.304
1.670E-06,0.288
1.680E-06,0.288
1.690E-06,0.288
1.700E-06,0.272
1.710E-06,0.272
1.720E-06,0.280
1.730E-06,0.280
1.740E-06,0.288
1.750E-06,0.288
1.760E-06,0.288
1.770E-06,0.272
1.780E-06,0.264
1.790E-06,0.264
1.800E-06,0.264
1.810E-06,0.272
1.820E-06,0.280
1.830E-06,0.288
1.840E-06,0.272
1.850E-06,0.264
1.860E-06,0.264
1.870E-06,0.264
1.880E-06,0.272
1.890E-06,0.288
1.900E-06,0.272
1.910E-06,0.272
1.920E-06,0.264
1.930E-06,0.272
1.940E-06,0.264
1.950E-06,0.264
1.960E-06,0.272
1.970E-06,0.272
1.980E-06,0.272
1.990E-06,0.272
2.000E-06,0.264
2.010E-06,0.256
2.020E-06,0.256
2.030E-06,0.264
2.040E-06,0.256
2.050E-06,0.264
2.060E-06,0.264
2.070E-06,0.256
2.080E-06,0.256
2.090E-06,0.256
2.100E-06,0.256
2.110E-06,0.248
2.120E-06,0.248
2.130E-06,0.264
2.140E-06,0.264
2.150E-06,0.256
2.160E-06,0.256
2.170E-06,0.256
2.180E-06,0.264
2.190E-06,0.256
2.200E-06,0.256
2.210E-06,0.248
2.220E-06,0.256
2.230E-06,0.256
2.240E-06,0.256
2.250E-06,0.248
2.260E-06,0.256
2.270E-06,0.256
2.280E-06,0.256
2.290E-06,0.248
2.300E-06,0.248
2.310E-06,0.248
2.320E-06,0.232
2.330E-06,0.240
2.340E-06,0.248
2.350E-06,0.256
2.360E-06,0.256
2.370E-06,0.256
2.380E-06,0.256
2.390E-06,0.248
2.400E-06,0.240
2.410E-06,0.248
2.420E-06,0.248
2.430E-06,0.256
2.440E-06,0.256
2.450E-06,0.248
2.460E-06,0.240
2.470E-06,0.240
2.480E-06,0.240
2.490E-06,0.232
2.500E-06,0.248
2.510E-06,0.248
2.520E-06,0.256
2.530E-06,0.240
2.540E-06,0.248
2.550E-06,0.248
2.560E-06,0.240
2.570E-06,0.232
2.580E-06,0.216
2.590E-06,0.224
2.600E-06,0.224
2.610E-06,0.224
2.620E-06,0.240
2.630E-06,0.248
2.640E-06,0.248
2.650E-06,0.240
2.660E-06,0.224
2.670E-06,0.216
2.680E-06,0.216
2.690E-06,0.224
2.700E-06,0.240
2.710E-06,0.248
2.720E-06,0.248
2.730E-06,0.240
2.740E-06,0.224
2.750E-06,0.200
2.760E-06,0.200
2.770E-06,0.216
2.780E-06,0.224
2.790E-06,0.248
2.800E-06,0.216
2.810E-06,0.224
2.820E-06,0.216
2.830E-06,0.208
2.840E-06,0.208
2.850E-06,0.208
2.860E-06,0.224
2.870E-06,0.232
2.880E-06,0.240
2.890E-06,0.224
2.900E-06,0.224
2.910E-06,0.208
2.920E-06,0.192
2.930E-06,0.184
2.940E-06,0.192
2.950E-06,0.216
2.960E-06,0.224
2.970E-06,0.232
2.980E-06,0.216
2.990E-06,0.208
3.000E-06,0.200
3.010E-06,0.192
3.020E-06,0.192
3.030E-06,0.208
3.040E-06,0.216
3.050E-06,0.216
3.060E-06,0.216
3.070E-06,0.200
3.080E-06,0.192
3.090E-06,0.192
3.100E-06,0.184
3.110E-06,0.200
3.120E-06,0.208
3.130E-06,0.208
3.140E-06,0.216
3.150E-06,0.208
3.160E-06,0.192
3.170E-06,0.192
3.180E-06,0.184
3.190E-06,0.184
3.200E-06,0.184
3.210E-06,0.184
3.220E-06,0.184
3.230E-06,0.184
3.240E-06,0.192
3.250E-06,0.192
3.260E-06,0.200
3.270E-06,0.200
3.280E-06,0.184
3.290E-06,0.176
3.300E-06,0.176
3.310E-06,0.184
3.320E-06,0.184
3.330E-06,0.192
3.340E-06,0.184
3.350E-06,0.184
3.360E-06,0.184
3.370E-06,0.184
3.380E-06,0.184
3.390E-06,0.176
3.400E-06,0.176
3.410E-06,0.184
3.420E-06,0.184
3.430E-06,0.184
3.440E-06,0.184
3.450E-06,0.176
3.460E-06,0.176
3.470E-06,0.184
3.480E-06,0.176
3.490E-06,0.176
3.500E-06,0.176
3.510E-06,0.168
3.520E-06,0.168
3.530E-06,0.176
3.540E-06,0.168
3.550E-06,0.168
3.560E-06,0.176
3.570E-06,0.176
3.580E-06,0.176
3.590E-06,0.184
3.600E-06,0.168
3.610E-06,0.152
3.620E-06,0.160
3.630E-06,0.152
3.640E-06,0.168
3.650E-06,0.168
3.660E-06,0.168
3.670E-06,0.184
