mediciones/6-26/25.0/WaveData5986.csv

#timebase=2000000(ps)
,#voltbase=200000(mv/100)
#size=4000
-8.150E-06,-0.008
-8.140E-06,-0.008
-8.130E-06,0.008
-8.120E-06,0.008
-8.110E-06,0.000
-8.100E-06,0.000
-8.090E-06,0.008
-8.080E-06,0.000
-8.070E-06,0.008
-8.060E-06,0.000
-8.050E-06,0.008
-8.040E-06,0.008
-8.030E-06,0.000
-8.020E-06,0.008
-8.010E-06,0.008
-8.000E-06,0.016
-7.990E-06,-0.008
-7.980E-06,0.000
-7.970E-06,0.008
-7.960E-06,0.000
-7.950E-06,0.000
-7.940E-06,0.008
-7.930E-06,0.000
-7.920E-06,0.000
-7.910E-06,0.000
-7.900E-06,0.000
-7.890E-06,-0.008
-7.880E-06,0.008
-7.870E-06,0.000
-7.860E-06,0.008
-7.850E-06,0.000
-7.840E-06,0.000
-7.830E-06,0.008
-7.820E-06,0.008
-7.810E-06,0.008
-7.800E-06,0.008
-7.790E-06,0.008
-7.780E-06,0.016
-7.770E-06,0.008
-7.760E-06,-0.008
-7.750E-06,0.008
-7.740E-06,0.000
-7.730E-06,0.008
-7.720E-06,0.008
-7.710E-06,0.000
-7.700E-06,0.000
-7.690E-06,0.000
-7.680E-06,0.008
-7.670E-06,0.000
-7.660E-06,0.000
-7.650E-06,0.008
-7.640E-06,-0.008
-7.630E-06,0.000
-7.620E-06,0.008
-7.610E-06,0.000
-7.600E-06,0.000
-7.590E-06,0.008
-7.580E-06,0.008
-7.570E-06,0.008
-7.560E-06,-0.008
-7.550E-06,0.008
-7.540E-06,-0.008
-7.530E-06,0.000
-7.520E-06,0.008
-7.510E-06,-0.008
-7.500E-06,0.000
-7.490E-06,0.000
-7.480E-06,0.000
-7.470E-06,0.000
-7.460E-06,0.008
-7.450E-06,0.008
-7.440E-06,0.000
-7.430E-06,0.008
-7.420E-06,-0.008
-7.410E-06,0.000
-7.400E-06,-0.008
-7.390E-06,0.008
-7.380E-06,0.000
-7.370E-06,0.000
-7.360E-06,0.000
-7.350E-06,0.000
-7.340E-06,0.008
-7.330E-06,0.000
-7.320E-06,0.000
-7.310E-06,0.000
-7.300E-06,0.000
-7.290E-06,0.000
-7.280E-06,0.000
-7.270E-06,0.000
-7.260E-06,0.008
-7.250E-06,0.016
-7.240E-06,0.000
-7.230E-06,0.008
-7.220E-06,0.008
-7.210E-06,0.000
-7.200E-06,0.008
-7.190E-06,0.000
-7.180E-06,0.008
-7.170E-06,0.008
-7.160E-06,0.000
-7.150E-06,0.000
-7.140E-06,0.000
-7.130E-06,0.008
-7.120E-06,-0.008
-7.110E-06,0.008
-7.100E-06,0.000
-7.090E-06,-0.008
-7.080E-06,0.000
-7.070E-06,0.008
-7.060E-06,0.008
-7.050E-06,0.000
-7.040E-06,-0.008
-7.030E-06,0.000
-7.020E-06,0.008
-7.010E-06,0.000
-7.000E-06,0.000
-6.990E-06,0.000
-6.980E-06,0.000
-6.970E-06,-0.008
-6.960E-06,0.008
-6.950E-06,0.000
-6.940E-06,0.008
-6.930E-06,-0.008
-6.920E-06,0.000
-6.910E-06,0.008
-6.900E-06,0.008
-6.890E-06,-0.008
-6.880E-06,0.008
-6.870E-06,-0.008
-6.860E-06,0.000
-6.850E-06,0.000
-6.840E-06,0.008
-6.830E-06,0.008
-6.820E-06,0.000
-6.810E-06,0.016
-6.800E-06,0.000
-6.790E-06,0.000
-6.780E-06,0.000
-6.770E-06,0.008
-6.760E-06,-0.008
-6.750E-06,0.000
-6.740E-06,0.000
-6.730E-06,0.008
-6.720E-06,0.000
-6.710E-06,0.008
-6.700E-06,0.008
-6.690E-06,0.008
-6.680E-06,0.008
-6.670E-06,0.008
-6.660E-06,0.008
-6.650E-06,0.008
-6.640E-06,-0.008
-6.630E-06,0.000
-6.620E-06,0.008
-6.610E-06,0.016
-6.600E-06,0.008
-6.590E-06,0.008
-6.580E-06,-0.008
-6.570E-06,0.000
-6.560E-06,0.000
-6.550E-06,0.008
-6.540E-06,0.008
-6.530E-06,0.008
-6.520E-06,0.008
-6.510E-06,0.008
-6.500E-06,0.000
-6.490E-06,0.000
-6.480E-06,0.000
-6.470E-06,0.008
-6.460E-06,0.000
-6.450E-06,0.000
-6.440E-06,0.000
-6.430E-06,0.000
-6.420E-06,0.000
-6.410E-06,0.000
-6.400E-06,0.008
-6.390E-06,0.000
-6.380E-06,0.008
-6.370E-06,0.000
-6.360E-06,0.000
-6.350E-06,0.000
-6.340E-06,0.000
-6.330E-06,0.000
-6.320E-06,-0.008
-6.310E-06,-0.008
-6.300E-06,0.008
-6.290E-06,0.008
-6.280E-06,0.008
-6.270E-06,0.008
-6.260E-06,0.000
-6.250E-06,-0.008
-6.240E-06,0.008
-6.230E-06,0.016
-6.220E-06,0.016
-6.210E-06,0.000
-6.200E-06,0.000
-6.190E-06,0.008
-6.180E-06,0.000
-6.170E-06,0.000
-6.160E-06,-0.008
-6.150E-06,0.008
-6.140E-06,0.000
-6.130E-06,-0.008
-6.120E-06,0.000
-6.110E-06,0.000
-6.100E-06,0.000
-6.090E-06,0.008
-6.080E-06,0.000
-6.070E-06,0.008
-6.060E-06,0.008
-6.050E-06,0.008
-6.040E-06,0.008
-6.030E-06,0.008
-6.020E-06,0.000
-6.010E-06,0.008
-6.000E-06,0.000
-5.990E-06,0.000
-5.980E-06,0.008
-5.970E-06,0.008
-5.960E-06,0.000
-5.950E-06,0.008
-5.940E-06,0.008
-5.930E-06,0.008
-5.920E-06,0.000
-5.910E-06,0.000
-5.900E-06,0.008
-5.890E-06,0.000
-5.880E-06,0.000
-5.870E-06,0.008
-5.860E-06,0.008
-5.850E-06,0.000
-5.840E-06,0.000
-5.830E-06,0.000
-5.820E-06,0.008
-5.810E-06,0.008
-5.800E-06,0.016
-5.790E-06,0.016
-5.780E-06,0.016
-5.770E-06,0.000
-5.760E-06,0.000
-5.750E-06,0.008
-5.740E-06,0.008
-5.730E-06,0.000
-5.720E-06,0.008
-5.710E-06,0.008
-5.700E-06,-0.008
-5.690E-06,-0.008
-5.680E-06,0.008
-5.670E-06,-0.008
-5.660E-06,0.000
-5.650E-06,0.000
-5.640E-06,0.016
-5.630E-06,0.016
-5.620E-06,0.016
-5.610E-06,0.000
-5.600E-06,0.000
-5.590E-06,0.008
-5.580E-06,0.000
-5.570E-06,0.016
-5.560E-06,0.000
-5.550E-06,0.000
-5.540E-06,0.008
-5.530E-06,0.008
-5.520E-06,0.000
-5.510E-06,-0.008
-5.500E-06,0.000
-5.490E-06,0.016
-5.480E-06,0.016
-5.470E-06,-0.008
-5.460E-06,0.000
-5.450E-06,0.008
-5.440E-06,0.008
-5.430E-06,0.000
-5.420E-06,0.000
-5.410E-06,0.008
-5.400E-06,0.000
-5.390E-06,0.008
-5.380E-06,0.008
-5.370E-06,0.000
-5.360E-06,0.008
-5.350E-06,0.008
-5.340E-06,0.008
-5.330E-06,0.000
-5.320E-06,0.000
-5.310E-06,0.008
-5.300E-06,0.008
-5.290E-06,0.008
-5.280E-06,0.008
-5.270E-06,0.000
-5.260E-06,0.000
-5.250E-06,-0.008
-5.240E-06,0.000
-5.230E-06,0.008
-5.220E-06,0.008
-5.210E-06,0.008
-5.200E-06,0.000
-5.190E-06,0.000
-5.180E-06,0.008
-5.170E-06,0.000
-5.160E-06,0.008
-5.150E-06,0.008
-5.140E-06,0.008
-5.130E-06,0.016
-5.120E-06,0.000
-5.110E-06,0.008
-5.100E-06,0.008
-5.090E-06,0.000
-5.080E-06,0.008
-5.070E-06,0.008
-5.060E-06,0.008
-5.050E-06,0.008
-5.040E-06,0.000
-5.030E-06,-0.008
-5.020E-06,0.000
-5.010E-06,0.008
-5.000E-06,0.016
-4.990E-06,0.000
-4.980E-06,0.008
-4.970E-06,0.008
-4.960E-06,0.008
-4.950E-06,0.000
-4.940E-06,0.000
-4.930E-06,0.008
-4.920E-06,0.000
-4.910E-06,0.008
-4.900E-06,0.000
-4.890E-06,0.008
-4.880E-06,0.000
-4.870E-06,0.008
-4.860E-06,0.008
-4.850E-06,-0.008
-4.840E-06,0.000
-4.830E-06,0.000
-4.820E-06,0.000
-4.810E-06,0.008
-4.800E-06,-0.008
-4.790E-06,0.008
-4.780E-06,0.008
-4.770E-06,0.000
-4.760E-06,0.008
-4.750E-06,0.008
-4.740E-06,-0.008
-4.730E-06,0.008
-4.720E-06,0.008
-4.710E-06,0.000
-4.700E-06,0.008
-4.690E-06,0.008
-4.680E-06,0.008
-4.670E-06,0.000
-4.660E-06,0.000
-4.650E-06,0.000
-4.640E-06,0.008
-4.630E-06,0.008
-4.620E-06,0.000
-4.610E-06,0.000
-4.600E-06,0.008
-4.590E-06,0.000
-4.580E-06,0.000
-4.570E-06,0.008
-4.560E-06,0.008
-4.550E-06,0.000
-4.540E-06,0.000
-4.530E-06,0.000
-4.520E-06,0.008
-4.510E-06,0.000
-4.500E-06,0.000
-4.490E-06,0.008
-4.480E-06,0.000
-4.470E-06,0.000
-4.460E-06,0.008
-4.450E-06,-0.008
-4.440E-06,0.000
-4.430E-06,0.000
-4.420E-06,0.008
-4.410E-06,-0.008
-4.400E-06,0.000
-4.390E-06,0.008
-4.380E-06,0.008
-4.370E-06,0.008
-4.360E-06,0.008
-4.350E-06,0.008
-4.340E-06,0.008
-4.330E-06,0.008
-4.320E-06,0.000
-4.310E-06,0.000
-4.300E-06,0.000
-4.290E-06,0.016
-4.280E-06,0.008
-4.270E-06,0.016
-4.260E-06,0.008
-4.250E-06,-0.008
-4.240E-06,0.000
-4.230E-06,0.000
-4.220E-06,-0.008
-4.210E-06,0.000
-4.200E-06,0.016
-4.190E-06,0.000
-4.180E-06,0.008
-4.170E-06,0.000
-4.160E-06,0.000
-4.150E-06,-0.008
-4.140E-06,-0.008
-4.130E-06,0.000
-4.120E-06,0.008
-4.110E-06,0.008
-4.100E-06,0.008
-4.090E-06,-0.008
-4.080E-06,-0.008
-4.070E-06,0.008
-4.060E-06,0.000
-4.050E-06,0.000
-4.040E-06,0.008
-4.030E-06,0.000
-4.020E-06,0.000
-4.010E-06,0.000
-4.000E-06,0.000
-3.990E-06,0.008
-3.980E-06,0.000
-3.970E-06,-0.008
-3.960E-06,0.008
-3.950E-06,0.016
-3.940E-06,0.000
-3.930E-06,-0.008
-3.920E-06,0.008
-3.910E-06,0.016
-3.900E-06,0.000
-3.890E-06,0.000
-3.880E-06,0.008
-3.870E-06,0.008
-3.860E-06,0.000
-3.850E-06,0.008
-3.840E-06,0.008
-3.830E-06,0.008
-3.820E-06,0.016
-3.810E-06,0.016
-3.800E-06,0.008
-3.790E-06,0.016
-3.780E-06,0.016
-3.770E-06,0.000
-3.760E-06,0.008
-3.750E-06,0.000
-3.740E-06,0.008
-3.730E-06,0.000
-3.720E-06,0.008
-3.710E-06,0.000
-3.700E-06,0.000
-3.690E-06,0.000
-3.680E-06,-0.008
-3.670E-06,0.008
-3.660E-06,0.008
-3.650E-06,0.000
-3.640E-06,0.000
-3.630E-06,-0.008
-3.620E-06,0.000
-3.610E-06,0.016
-3.600E-06,0.000
-3.590E-06,0.008
-3.580E-06,0.008
-3.570E-06,0.000
-3.560E-06,0.000
-3.550E-06,-0.008
-3.540E-06,0.008
-3.530E-06,0.000
-3.520E-06,0.008
-3.510E-06,0.008
-3.500E-06,0.040
-3.490E-06,0.112
-3.480E-06,0.128
-3.470E-06,0.120
-3.460E-06,0.064
-3.450E-06,-0.144
-3.440E-06,-0.208
-3.430E-06,-0.024
-3.420E-06,-0.168
-3.410E-06,0.112
-3.400E-06,0.088
-3.390E-06,0.184
-3.380E-06,0.056
-3.370E-06,-0.056
-3.360E-06,-0.112
-3.350E-06,-0.072
-3.340E-06,0.032
-3.330E-06,0.072
-3.320E-06,0.144
-3.310E-06,0.072
-3.300E-06,0.016
-3.290E-06,-0.096
-3.280E-06,-0.080
-3.270E-06,-0.096
-3.260E-06,-0.008
-3.250E-06,0.056
-3.240E-06,0.088
-3.230E-06,0.088
-3.220E-06,0.040
-3.210E-06,0.008
-3.200E-06,-0.040
-3.190E-06,-0.016
-3.180E-06,-0.016
-3.170E-06,0.016
-3.160E-06,0.000
-3.150E-06,0.016
-3.140E-06,-0.008
-3.130E-06,-0.032
-3.120E-06,-0.056
-3.110E-06,-0.048
-3.100E-06,0.000
-3.090E-06,0.024
-3.080E-06,0.056
-3.070E-06,0.064
-3.060E-06,0.048
-3.050E-06,0.008
-3.040E-06,-0.008
-3.030E-06,-0.016
-3.020E-06,-0.008
-3.010E-06,-0.008
-3.000E-06,-0.008
-2.990E-06,0.016
-2.980E-06,0.008
-2.970E-06,0.000
-2.960E-06,-0.008
-2.950E-06,-0.008
-2.940E-06,0.000
-2.930E-06,0.016
-2.920E-06,0.040
-2.910E-06,0.056
-2.900E-06,0.032
-2.890E-06,0.024
-2.880E-06,0.000
-2.870E-06,-0.008
-2.860E-06,0.000
-2.850E-06,-0.008
-2.840E-06,0.016
-2.830E-06,0.016
-2.820E-06,0.016
-2.810E-06,0.008
-2.800E-06,0.008
-2.790E-06,-0.008
-2.780E-06,0.000
-2.770E-06,0.008
-2.760E-06,0.024
-2.750E-06,0.032
-2.740E-06,0.024
-2.730E-06,0.024
-2.720E-06,0.000
-2.710E-06,0.000
-2.700E-06,-0.008
-2.690E-06,0.000
-2.680E-06,-0.008
-2.670E-06,0.008
-2.660E-06,0.008
-2.650E-06,0.008
-2.640E-06,0.008
-2.630E-06,0.016
-2.620E-06,0.016
-2.610E-06,0.008
-2.600E-06,0.008
-2.590E-06,0.008
-2.580E-06,-0.008
-2.570E-06,0.008
-2.560E-06,0.016
-2.550E-06,0.016
-2.540E-06,0.016
-2.530E-06,0.024
-2.520E-06,0.016
-2.510E-06,0.000
-2.500E-06,-0.008
-2.490E-06,-0.008
-2.480E-06,0.008
-2.470E-06,0.016
-2.460E-06,0.016
-2.450E-06,0.016
-2.440E-06,0.008
-2.430E-06,0.008
-2.420E-06,0.000
-2.410E-06,0.008
-2.400E-06,0.008
-2.390E-06,0.000
-2.380E-06,0.016
-2.370E-06,0.008
-2.360E-06,0.016
-2.350E-06,0.008
-2.340E-06,0.000
-2.330E-06,0.008
-2.320E-06,-0.008
-2.310E-06,0.000
-2.300E-06,0.024
-2.290E-06,0.016
-2.280E-06,0.040
-2.270E-06,0.024
-2.260E-06,0.040
-2.250E-06,0.048
-2.240E-06,0.024
-2.230E-06,0.048
-2.220E-06,0.032
-2.210E-06,0.000
-2.200E-06,-0.040
-2.190E-06,-0.112
-2.180E-06,-0.032
-2.170E-06,0.016
-2.160E-06,0.048
-2.150E-06,0.032
-2.140E-06,0.024
-2.130E-06,0.024
-2.120E-06,0.024
-2.110E-06,-0.008
-2.100E-06,-0.032
-2.090E-06,-0.016
-2.080E-06,0.000
-2.070E-06,0.040
-2.060E-06,0.048
-2.050E-06,0.032
-2.040E-06,0.008
-2.030E-06,-0.008
-2.020E-06,-0.024
-2.010E-06,-0.016
-2.000E-06,0.008
-1.990E-06,0.008
-1.980E-06,0.072
-1.970E-06,0.064
-1.960E-06,0.064
-1.950E-06,0.024
-1.940E-06,0.048
-1.930E-06,0.016
-1.920E-06,0.016
-1.910E-06,0.112
-1.900E-06,-0.016
-1.890E-06,-0.008
-1.880E-06,-0.184
-1.870E-06,-0.104
-1.860E-06,-0.104
-1.850E-06,-0.056
-1.840E-06,0.112
-1.830E-06,0.096
-1.820E-06,0.184
-1.810E-06,-0.072
-1.800E-06,-0.184
-1.790E-06,-0.104
-1.780E-06,0.000
-1.770E-06,0.080
-1.760E-06,0.120
-1.750E-06,0.096
-1.740E-06,0.048
-1.730E-06,0.016
-1.720E-06,-0.032
-1.710E-06,-0.064
-1.700E-06,-0.040
-1.690E-06,-0.008
-1.680E-06,0.080
-1.670E-06,0.128
-1.660E-06,0.112
-1.650E-06,0.056
-1.640E-06,0.032
-1.630E-06,-0.024
-1.620E-06,-0.056
-1.610E-06,-0.040
-1.600E-06,0.008
-1.590E-06,0.080
-1.580E-06,0.152
-1.570E-06,0.128
-1.560E-06,0.096
-1.550E-06,-0.040
-1.540E-06,-0.048
-1.530E-06,-0.088
-1.520E-06,0.024
-1.510E-06,0.152
-1.500E-06,0.168
-1.490E-06,0.152
-1.480E-06,-0.136
-1.470E-06,-0.304
-1.460E-06,-0.408
-1.450E-06,-0.248
-1.440E-06,-0.072
-1.430E-06,0.256
-1.420E-06,0.512
-1.410E-06,0.256
-1.400E-06,-0.016
-1.390E-06,-0.312
-1.380E-06,-0.408
-1.370E-06,-0.240
-1.360E-06,0.040
-1.350E-06,0.256
-1.340E-06,0.352
-1.330E-06,0.248
-1.320E-06,-0.008
-1.310E-06,-0.256
-1.300E-06,-0.368
-1.290E-06,-0.248
-1.280E-06,0.016
-1.270E-06,0.272
-1.260E-06,0.392
-1.250E-06,0.312
-1.240E-06,0.120
-1.230E-06,-0.168
-1.220E-06,-0.352
-1.210E-06,-0.304
-1.200E-06,-0.072
-1.190E-06,0.208
-1.180E-06,0.320
-1.170E-06,0.272
-1.160E-06,0.112
-1.150E-06,-0.104
-1.140E-06,-0.216
-1.130E-06,-0.240
-1.120E-06,-0.104
-1.110E-06,0.072
-1.100E-06,0.240
-1.090E-06,0.248
-1.080E-06,0.136
-1.070E-06,-0.008
-1.060E-06,-0.144
-1.050E-06,-0.144
-1.040E-06,-0.064
-1.030E-06,0.112
-1.020E-06,0.240
-1.010E-06,0.328
-1.000E-06,0.264
-9.900E-07,0.120
-9.800E-07,0.040
-9.700E-07,0.000
-9.600E-07,-0.008
-9.500E-07,0.064
-9.400E-07,0.080
-9.300E-07,0.136
-9.200E-07,0.040
-9.100E-07,-0.040
-9.000E-07,-0.216
-8.900E-07,-0.336
-8.800E-07,-0.080
-8.700E-07,-0.112
-8.600E-07,-0.080
-8.500E-07,0.000
-8.400E-07,0.016
-8.300E-07,0.184
-8.200E-07,0.112
-8.100E-07,0.032
-8.000E-07,0.056
-7.900E-07,-0.136
-7.800E-07,0.008
-7.700E-07,0.024
-7.600E-07,-0.048
-7.500E-07,0.048
-7.400E-07,0.112
-7.300E-07,0.136
-7.200E-07,0.120
-7.100E-07,0.120
-7.000E-07,0.024
-6.900E-07,0.000
-6.800E-07,0.024
-6.700E-07,0.072
-6.600E-07,0.224
-6.500E-07,0.344
-6.400E-07,0.320
-6.300E-07,0.208
-6.200E-07,0.072
-6.100E-07,0.024
-6.000E-07,-0.056
-5.900E-07,-0.080
-5.800E-07,0.088
-5.700E-07,0.224
-5.600E-07,0.208
-5.500E-07,0.128
-5.400E-07,0.056
-5.300E-07,0.064
-5.200E-07,-0.064
-5.100E-07,0.016
-5.000E-07,0.096
-4.900E-07,0.120
-4.800E-07,0.144
-4.700E-07,0.264
-4.600E-07,0.192
-4.500E-07,0.048
-4.400E-07,0.104
-4.300E-07,0.000
-4.200E-07,0.048
-4.100E-07,0.032
-4.000E-07,0.152
-3.900E-07,0.184
-3.800E-07,0.192
-3.700E-07,0.152
-3.600E-07,0.088
-3.500E-07,0.040
-3.400E-07,0.048
-3.300E-07,0.120
-3.200E-07,0.200
-3.100E-07,0.248
-3.000E-07,0.256
-2.900E-07,0.272
-2.800E-07,0.248
-2.700E-07,0.208
-2.600E-07,0.168
-2.500E-07,0.128
-2.400E-07,0.088
-2.300E-07,0.088
-2.200E-07,0.096
-2.100E-07,0.088
-2.000E-07,0.096
-1.900E-07,0.080
-1.800E-07,0.160
-1.700E-07,0.152
-1.600E-07,0.192
-1.500E-07,0.040
-1.400E-07,0.008
-1.300E-07,-0.112
-1.200E-07,-0.048
-1.100E-07,0.008
-1.000E-07,0.024
-9.000E-08,0.176
-8.000E-08,0.376
-7.000E-08,0.112
-6.000E-08,-0.088
-5.000E-08,-0.352
-4.000E-08,-0.504
-3.000E-08,-0.168
-2.000E-08,0.216
-1.000E-08,0.320
0.000E+00,0.440
1.000E-08,0.536
2.000E-08,0.264
3.000E-08,-0.048
4.000E-08,-0.248
5.000E-08,-0.344
6.000E-08,0.056
7.000E-08,0.448
8.000E-08,0.544
9.000E-08,0.504
1.000E-07,0.248
1.100E-07,0.080
1.200E-07,-0.224
1.300E-07,-0.200
1.400E-07,-0.128
1.500E-07,0.208
1.600E-07,0.408
1.700E-07,0.456
1.800E-07,0.392
1.900E-07,0.104
2.000E-07,-0.016
2.100E-07,-0.216
2.200E-07,-0.016
2.300E-07,0.088
2.400E-07,0.344
2.500E-07,0.464
2.600E-07,0.448
2.700E-07,0.328
2.800E-07,0.144
2.900E-07,0.096
3.000E-07,0.112
3.100E-07,0.264
3.200E-07,0.408
3.300E-07,0.488
3.400E-07,0.472
3.500E-07,0.360
3.600E-07,0.240
3.700E-07,0.160
3.800E-07,0.152
3.900E-07,0.232
4.000E-07,0.336
4.100E-07,0.416
4.200E-07,0.448
4.300E-07,0.384
4.400E-07,0.320
4.500E-07,0.240
4.600E-07,0.216
4.700E-07,0.248
4.800E-07,0.304
4.900E-07,0.368
5.000E-07,0.384
5.100E-07,0.368
5.200E-07,0.320
5.300E-07,0.264
5.400E-07,0.248
5.500E-07,0.264
5.600E-07,0.304
5.700E-07,0.344
5.800E-07,0.376
5.900E-07,0.360
6.000E-07,0.320
6.100E-07,0.272
6.200E-07,0.256
6.300E-07,0.256
6.400E-07,0.280
6.500E-07,0.304
6.600E-07,0.352
6.700E-07,0.352
6.800E-07,0.352
6.900E-07,0.304
7.000E-07,0.296
7.100E-07,0.264
7.200E-07,0.264
7.300E-07,0.296
7.400E-07,0.312
7.500E-07,0.344
7.600E-07,0.336
7.700E-07,0.320
7.800E-07,0.304
7.900E-07,0.288
8.000E-07,0.280
8.100E-07,0.280
8.200E-07,0.312
8.300E-07,0.336
8.400E-07,0.336
8.500E-07,0.320
8.600E-07,0.312
8.700E-07,0.296
8.800E-07,0.296
8.900E-07,0.272
9.000E-07,0.304
9.100E-07,0.320
9.200E-07,0.328
9.300E-07,0.328
9.400E-07,0.312
9.500E-07,0.296
9.600E-07,0.288
9.700E-07,0.280
9.800E-07,0.288
9.900E-07,0.296
1.000E-06,0.312
1.010E-06,0.304
1.020E-06,0.312
1.030E-06,0.304
1.040E-06,0.288
1.050E-06,0.280
1.060E-06,0.288
1.070E-06,0.304
1.080E-06,0.320
1.090E-06,0.312
1.100E-06,0.312
1.110E-06,0.304
1.120E-06,0.296
1.130E-06,0.288
1.140E-06,0.280
1.150E-06,0.288
1.160E-06,0.304
1.170E-06,0.304
1.180E-06,0.288
1.190E-06,0.288
1.200E-06,0.280
1.210E-06,0.288
1.220E-06,0.296
1.230E-06,0.296
1.240E-06,0.288
1.250E-06,0.288
1.260E-06,0.288
1.270E-06,0.272
1.280E-06,0.280
1.290E-06,0.272
1.300E-06,0.288
1.310E-06,0.288
1.320E-06,0.288
1.330E-06,0.288
1.340E-06,0.288
1.350E-06,0.280
1.360E-06,0.280
1.370E-06,0.256
1.380E-06,0.272
1.390E-06,0.280
1.400E-06,0.296
1.410E-06,0.296
1.420E-06,0.296
1.430E-06,0.288
1.440E-06,0.288
1.450E-06,0.272
1.460E-06,0.264
1.470E-06,0.264
1.480E-06,0.264
1.490E-06,0.280
1.500E-06,0.288
1.510E-06,0.272
1.520E-06,0.272
1.530E-06,0.280
1.540E-06,0.272
1.550E-06,0.264
1.560E-06,0.264
1.570E-06,0.272
1.580E-06,0.272
1.590E-06,0.272
1.600E-06,0.272
1.610E-06,0.264
1.620E-06,0.256
1.630E-06,0.272
1.640E-06,0.272
1.650E-06,0.280
1.660E-06,0.280
1.670E-06,0.280
1.680E-06,0.272
1.690E-06,0.248
1.700E-06,0.256
1.710E-06,0.256
1.720E-06,0.272
1.730E-06,0.280
1.740E-06,0.272
1.750E-06,0.264
1.760E-06,0.256
1.770E-06,0.256
1.780E-06,0.256
1.790E-06,0.256
1.800E-06,0.256
1.810E-06,0.264
1.820E-06,0.264
1.830E-06,0.264
1.840E-06,0.264
1.850E-06,0.256
1.860E-06,0.256
1.870E-06,0.240
1.880E-06,0.256
1.890E-06,0.256
1.900E-06,0.264
1.910E-06,0.256
1.920E-06,0.256
1.930E-06,0.248
1.940E-06,0.248
1.950E-06,0.240
1.960E-06,0.248
1.970E-06,0.248
1.980E-06,0.248
1.990E-06,0.248
2.000E-06,0.248
2.010E-06,0.248
2.020E-06,0.232
2.030E-06,0.232
2.040E-06,0.232
2.050E-06,0.240
2.060E-06,0.240
2.070E-06,0.248
2.080E-06,0.248
2.090E-06,0.248
2.100E-06,0.240
2.110E-06,0.240
2.120E-06,0.248
2.130E-06,0.248
2.140E-06,0.216
2.150E-06,0.248
2.160E-06,0.240
2.170E-06,0.240
2.180E-06,0.240
2.190E-06,0.232
2.200E-06,0.232
2.210E-06,0.232
2.220E-06,0.232
2.230E-06,0.232
2.240E-06,0.232
2.250E-06,0.232
2.260E-06,0.224
2.270E-06,0.224
2.280E-06,0.224
2.290E-06,0.224
2.300E-06,0.216
2.310E-06,0.224
2.320E-06,0.224
2.330E-06,0.224
2.340E-06,0.224
2.350E-06,0.216
2.360E-06,0.208
2.370E-06,0.208
2.380E-06,0.216
2.390E-06,0.216
2.400E-06,0.200
2.410E-06,0.208
2.420E-06,0.216
2.430E-06,0.216
2.440E-06,0.216
2.450E-06,0.224
2.460E-06,0.208
2.470E-06,0.208
2.480E-06,0.208
2.490E-06,0.208
2.500E-06,0.208
2.510E-06,0.200
2.520E-06,0.200
2.530E-06,0.200
2.540E-06,0.200
2.550E-06,0.208
2.560E-06,0.208
2.570E-06,0.200
2.580E-06,0.192
2.590E-06,0.192
2.600E-06,0.192
2.610E-06,0.208
2.620E-06,0.208
2.630E-06,0.208
2.640E-06,0.208
2.650E-06,0.200
2.660E-06,0.192
2.670E-06,0.184
2.680E-06,0.192
2.690E-06,0.200
2.700E-06,0.192
2.710E-06,0.208
2.720E-06,0.200
2.730E-06,0.200
2.740E-06,0.192
2.750E-06,0.192
2.760E-06,0.176
2.770E-06,0.192
2.780E-06,0.192
2.790E-06,0.192
2.800E-06,0.192
2.810E-06,0.192
2.820E-06,0.184
2.830E-06,0.192
2.840E-06,0.176
2.850E-06,0.176
2.860E-06,0.192
2.870E-06,0.192
2.880E-06,0.192
2.890E-06,0.184
2.900E-06,0.192
2.910E-06,0.184
2.920E-06,0.184
2.930E-06,0.184
2.940E-06,0.184
2.950E-06,0.192
2.960E-06,0.192
2.970E-06,0.184
2.980E-06,0.184
2.990E-06,0.184
3.000E-06,0.160
3.010E-06,0.168
3.020E-06,0.176
3.030E-06,0.176
3.040E-06,0.184
3.050E-06,0.192
3.060E-06,0.184
3.070E-06,0.176
3.080E-06,0.176
3.090E-06,0.160
3.100E-06,0.160
3.110E-06,0.168
3.120E-06,0.168
3.130E-06,0.176
3.140E-06,0.184
3.150E-06,0.176
3.160E-06,0.176
3.170E-06,0.160
3.180E-06,0.160
3.190E-06,0.160
3.200E-06,0.168
3.210E-06,0.176
3.220E-06,0.168
3.230E-06,0.176
3.240E-06,0.160
3.250E-06,0.168
3.260E-06,0.160
3.270E-06,0.152
3.280E-06,0.160
3.290E-06,0.152
3.300E-06,0.168
3.310E-06,0.168
3.320E-06,0.152
3.330E-06,0.160
3.340E-06,0.152
3.350E-06,0.152
3.360E-06,0.152
3.370E-06,0.152
3.380E-06,0.152
3.390E-06,0.160
3.400E-06,0.152
3.410E-06,0.152
3.420E-06,0.144
3.430E-06,0.152
3.440E-06,0.144
3.450E-06,0.144
3.460E-06,0.152
3.470E-06,0.144
3.480E-06,0.144
3.490E-06,0.144
3.500E-06,0.152
3.510E-06,0.144
3.520E-06,0.144
3.530E-06,0.144
3.540E-06,0.152
3.550E-06,0.152
3.560E-06,0.144
3.570E-06,0.136
3.580E-06,0.144
3.590E-06,0.144
3.600E-06,0.128
3.610E-06,0.136
3.620E-06,0.136
3.630E-06,0.136
3.640E-06,0.136
3.650E-06,0.136
3.660E-06,0.136
3.670E-06,0.128
3.680E-06,0.128
3.690E-06,0.128
