mediciones/6-26/25.0/WaveData5977.csv

#timebase=2000000(ps)
,#voltbase=200000(mv/100)
#size=4000
-8.150E-06,0.000
-8.140E-06,-0.008
-8.130E-06,0.000
-8.120E-06,0.016
-8.110E-06,0.000
-8.100E-06,0.000
-8.090E-06,-0.008
-8.080E-06,0.000
-8.070E-06,0.008
-8.060E-06,0.008
-8.050E-06,0.000
-8.040E-06,0.000
-8.030E-06,0.000
-8.020E-06,-0.008
-8.010E-06,-0.008
-8.000E-06,0.000
-7.990E-06,-0.008
-7.980E-06,0.000
-7.970E-06,0.008
-7.960E-06,0.008
-7.950E-06,0.008
-7.940E-06,0.000
-7.930E-06,-0.008
-7.920E-06,0.000
-7.910E-06,0.000
-7.900E-06,0.016
-7.890E-06,0.008
-7.880E-06,0.016
-7.870E-06,-0.008
-7.860E-06,-0.008
-7.850E-06,0.000
-7.840E-06,-0.008
-7.830E-06,0.000
-7.820E-06,0.008
-7.810E-06,0.008
-7.800E-06,0.008
-7.790E-06,-0.008
-7.780E-06,-0.008
-7.770E-06,0.000
-7.760E-06,-0.008
-7.750E-06,0.008
-7.740E-06,0.016
-7.730E-06,0.024
-7.720E-06,0.016
-7.710E-06,0.008
-7.700E-06,-0.008
-7.690E-06,0.000
-7.680E-06,0.000
-7.670E-06,0.008
-7.660E-06,0.008
-7.650E-06,0.000
-7.640E-06,-0.016
-7.630E-06,-0.008
-7.620E-06,0.000
-7.610E-06,0.000
-7.600E-06,0.008
-7.590E-06,0.008
-7.580E-06,0.016
-7.570E-06,0.000
-7.560E-06,-0.008
-7.550E-06,0.000
-7.540E-06,-0.008
-7.530E-06,-0.008
-7.520E-06,0.008
-7.510E-06,0.016
-7.500E-06,0.008
-7.490E-06,0.000
-7.480E-06,0.008
-7.470E-06,0.000
-7.460E-06,-0.008
-7.450E-06,0.008
-7.440E-06,0.000
-7.430E-06,0.016
-7.420E-06,0.008
-7.410E-06,-0.008
-7.400E-06,-0.008
-7.390E-06,0.000
-7.380E-06,0.000
-7.370E-06,0.008
-7.360E-06,0.016
-7.350E-06,0.000
-7.340E-06,0.000
-7.330E-06,-0.008
-7.320E-06,0.000
-7.310E-06,0.008
-7.300E-06,0.008
-7.290E-06,0.008
-7.280E-06,0.016
-7.270E-06,0.000
-7.260E-06,0.000
-7.250E-06,-0.008
-7.240E-06,-0.008
-7.230E-06,0.008
-7.220E-06,0.008
-7.210E-06,0.000
-7.200E-06,0.000
-7.190E-06,-0.016
-7.180E-06,-0.008
-7.170E-06,0.016
-7.160E-06,0.000
-7.150E-06,0.024
-7.140E-06,0.008
-7.130E-06,0.000
-7.120E-06,0.008
-7.110E-06,0.008
-7.100E-06,0.016
-7.090E-06,0.024
-7.080E-06,0.000
-7.070E-06,0.008
-7.060E-06,0.000
-7.050E-06,-0.008
-7.040E-06,0.000
-7.030E-06,0.008
-7.020E-06,0.008
-7.010E-06,0.008
-7.000E-06,0.008
-6.990E-06,0.016
-6.980E-06,-0.008
-6.970E-06,-0.008
-6.960E-06,0.000
-6.950E-06,0.000
-6.940E-06,0.008
-6.930E-06,0.008
-6.920E-06,0.008
-6.910E-06,0.000
-6.900E-06,-0.016
-6.890E-06,0.000
-6.880E-06,0.016
-6.870E-06,0.016
-6.860E-06,0.016
-6.850E-06,0.008
-6.840E-06,-0.008
-6.830E-06,-0.016
-6.820E-06,-0.008
-6.810E-06,0.000
-6.800E-06,0.008
-6.790E-06,0.008
-6.780E-06,0.000
-6.770E-06,-0.008
-6.760E-06,0.000
-6.750E-06,0.000
-6.740E-06,0.000
-6.730E-06,0.016
-6.720E-06,0.008
-6.710E-06,0.016
-6.700E-06,0.000
-6.690E-06,0.000
-6.680E-06,-0.008
-6.670E-06,-0.008
-6.660E-06,0.000
-6.650E-06,0.008
-6.640E-06,0.016
-6.630E-06,0.024
-6.620E-06,0.016
-6.610E-06,-0.008
-6.600E-06,0.000
-6.590E-06,0.000
-6.580E-06,0.000
-6.570E-06,0.008
-6.560E-06,0.016
-6.550E-06,-0.008
-6.540E-06,0.000
-6.530E-06,0.000
-6.520E-06,0.000
-6.510E-06,0.024
-6.500E-06,0.000
-6.490E-06,-0.008
-6.480E-06,0.000
-6.470E-06,0.016
-6.460E-06,0.016
-6.450E-06,0.016
-6.440E-06,-0.008
-6.430E-06,0.000
-6.420E-06,0.008
-6.410E-06,0.000
-6.400E-06,0.016
-6.390E-06,0.000
-6.380E-06,0.000
-6.370E-06,0.008
-6.360E-06,0.008
-6.350E-06,-0.008
-6.340E-06,0.000
-6.330E-06,0.008
-6.320E-06,0.008
-6.310E-06,-0.008
-6.300E-06,0.008
-6.290E-06,0.000
-6.280E-06,0.000
-6.270E-06,0.000
-6.260E-06,0.000
-6.250E-06,0.000
-6.240E-06,-0.008
-6.230E-06,0.000
-6.220E-06,0.008
-6.210E-06,0.016
-6.200E-06,0.024
-6.190E-06,-0.008
-6.180E-06,-0.008
-6.170E-06,-0.024
-6.160E-06,0.000
-6.150E-06,0.000
-6.140E-06,0.016
-6.130E-06,0.000
-6.120E-06,0.000
-6.110E-06,-0.008
-6.100E-06,-0.016
-6.090E-06,-0.008
-6.080E-06,0.016
-6.070E-06,0.024
-6.060E-06,0.016
-6.050E-06,-0.008
-6.040E-06,-0.008
-6.030E-06,-0.008
-6.020E-06,0.016
-6.010E-06,0.024
-6.000E-06,0.024
-5.990E-06,0.024
-5.980E-06,0.000
-5.970E-06,-0.016
-5.960E-06,-0.008
-5.950E-06,0.016
-5.940E-06,0.024
-5.930E-06,0.024
-5.920E-06,0.016
-5.910E-06,0.000
-5.900E-06,0.000
-5.890E-06,0.000
-5.880E-06,0.008
-5.870E-06,0.016
-5.860E-06,0.016
-5.850E-06,0.008
-5.840E-06,0.000
-5.830E-06,0.000
-5.820E-06,0.008
-5.810E-06,0.000
-5.800E-06,0.000
-5.790E-06,0.000
-5.780E-06,0.000
-5.770E-06,0.000
-5.760E-06,-0.008
-5.750E-06,0.008
-5.740E-06,0.000
-5.730E-06,-0.008
-5.720E-06,0.008
-5.710E-06,0.008
-5.700E-06,-0.008
-5.690E-06,-0.008
-5.680E-06,0.000
-5.670E-06,0.000
-5.660E-06,0.000
-5.650E-06,0.016
-5.640E-06,0.008
-5.630E-06,0.000
-5.620E-06,-0.016
-5.610E-06,-0.008
-5.600E-06,0.008
-5.590E-06,0.016
-5.580E-06,0.016
-5.570E-06,0.016
-5.560E-06,-0.008
-5.550E-06,-0.008
-5.540E-06,-0.008
-5.530E-06,0.016
-5.520E-06,0.016
-5.510E-06,0.024
-5.500E-06,0.008
-5.490E-06,0.000
-5.480E-06,0.016
-5.470E-06,0.000
-5.460E-06,0.008
-5.450E-06,0.008
-5.440E-06,-0.008
-5.430E-06,0.016
-5.420E-06,0.024
-5.410E-06,0.032
-5.400E-06,0.008
-5.390E-06,-0.024
-5.380E-06,-0.048
-5.370E-06,-0.016
-5.360E-06,0.000
-5.350E-06,0.024
-5.340E-06,0.048
-5.330E-06,-0.008
-5.320E-06,-0.040
-5.310E-06,-0.064
-5.300E-06,-0.040
-5.290E-06,-0.008
-5.280E-06,0.016
-5.270E-06,0.032
-5.260E-06,0.024
-5.250E-06,-0.008
-5.240E-06,-0.040
-5.230E-06,-0.024
-5.220E-06,-0.008
-5.210E-06,0.016
-5.200E-06,0.032
-5.190E-06,0.024
-5.180E-06,0.000
-5.170E-06,-0.008
-5.160E-06,-0.024
-5.150E-06,0.008
-5.140E-06,0.008
-5.130E-06,0.040
-5.120E-06,0.032
-5.110E-06,0.024
-5.100E-06,0.000
-5.090E-06,-0.008
-5.080E-06,0.000
-5.070E-06,0.024
-5.060E-06,0.032
-5.050E-06,0.024
-5.040E-06,0.016
-5.030E-06,0.016
-5.020E-06,0.000
-5.010E-06,0.000
-5.000E-06,0.024
-4.990E-06,0.032
-4.980E-06,0.024
-4.970E-06,0.016
-4.960E-06,0.016
-4.950E-06,-0.040
-4.940E-06,-0.024
-4.930E-06,0.072
-4.920E-06,0.072
-4.910E-06,0.056
-4.900E-06,0.000
-4.890E-06,-0.080
-4.880E-06,-0.008
-4.870E-06,0.008
-4.860E-06,0.064
-4.850E-06,0.104
-4.840E-06,0.048
-4.830E-06,-0.048
-4.820E-06,-0.016
-4.810E-06,-0.040
-4.800E-06,0.016
-4.790E-06,0.048
-4.780E-06,0.072
-4.770E-06,0.000
-4.760E-06,0.000
-4.750E-06,-0.016
-4.740E-06,0.000
-4.730E-06,0.016
-4.720E-06,0.024
-4.710E-06,0.008
-4.700E-06,-0.008
-4.690E-06,-0.040
-4.680E-06,-0.016
-4.670E-06,0.008
-4.660E-06,0.048
-4.650E-06,0.040
-4.640E-06,-0.008
-4.630E-06,-0.024
-4.620E-06,-0.032
-4.610E-06,-0.024
-4.600E-06,0.024
-4.590E-06,0.056
-4.580E-06,0.024
-4.570E-06,0.000
-4.560E-06,-0.048
-4.550E-06,-0.048
-4.540E-06,-0.024
-4.530E-06,0.008
-4.520E-06,0.048
-4.510E-06,0.032
-4.500E-06,-0.008
-4.490E-06,-0.072
-4.480E-06,-0.088
-4.470E-06,-0.032
-4.460E-06,0.000
-4.450E-06,0.024
-4.440E-06,0.024
-4.430E-06,-0.024
-4.420E-06,-0.072
-4.410E-06,-0.072
-4.400E-06,-0.032
-4.390E-06,0.008
-4.380E-06,0.032
-4.370E-06,0.032
-4.360E-06,0.008
-4.350E-06,-0.024
-4.340E-06,-0.016
-4.330E-06,-0.008
-4.320E-06,0.024
-4.310E-06,0.048
-4.300E-06,0.048
-4.290E-06,0.024
-4.280E-06,-0.008
-4.270E-06,-0.008
-4.260E-06,0.008
-4.250E-06,0.040
-4.240E-06,0.040
-4.230E-06,0.032
-4.220E-06,0.040
-4.210E-06,0.024
-4.200E-06,0.016
-4.190E-06,0.008
-4.180E-06,0.016
-4.170E-06,0.024
-4.160E-06,0.088
-4.150E-06,0.024
-4.140E-06,0.032
-4.130E-06,0.000
-4.120E-06,-0.024
-4.110E-06,0.032
-4.100E-06,0.056
-4.090E-06,0.032
-4.080E-06,0.016
-4.070E-06,-0.008
-4.060E-06,0.032
-4.050E-06,0.016
-4.040E-06,0.080
-4.030E-06,-0.016
-4.020E-06,-0.040
-4.010E-06,-0.016
-4.000E-06,0.024
-3.990E-06,0.016
-3.980E-06,0.152
-3.970E-06,0.224
-3.960E-06,0.160
-3.950E-06,0.080
-3.940E-06,-0.120
-3.930E-06,-0.080
-3.920E-06,-0.032
-3.910E-06,0.344
-3.900E-06,0.504
-3.890E-06,0.488
-3.880E-06,0.144
-3.870E-06,-0.024
-3.860E-06,-0.280
-3.850E-06,0.040
-3.840E-06,0.320
-3.830E-06,0.496
-3.820E-06,0.464
-3.810E-06,0.200
-3.800E-06,-0.104
-3.790E-06,-0.184
-3.780E-06,-0.080
-3.770E-06,0.128
-3.760E-06,0.288
-3.750E-06,0.280
-3.740E-06,0.096
-3.730E-06,-0.096
-3.720E-06,-0.168
-3.710E-06,-0.120
-3.700E-06,-0.032
-3.690E-06,0.080
-3.680E-06,0.088
-3.670E-06,-0.008
-3.660E-06,-0.088
-3.650E-06,-0.120
-3.640E-06,-0.128
-3.630E-06,-0.088
-3.620E-06,-0.040
-3.610E-06,-0.040
-3.600E-06,-0.040
-3.590E-06,-0.056
-3.580E-06,-0.096
-3.570E-06,-0.088
-3.560E-06,-0.096
-3.550E-06,-0.080
-3.540E-06,-0.064
-3.530E-06,-0.048
-3.520E-06,-0.040
-3.510E-06,-0.032
-3.500E-06,-0.016
-3.490E-06,-0.008
-3.480E-06,-0.008
-3.470E-06,-0.008
-3.460E-06,0.000
-3.450E-06,0.024
-3.440E-06,0.016
-3.430E-06,0.024
-3.420E-06,0.072
-3.410E-06,0.096
-3.400E-06,0.112
-3.390E-06,0.312
-3.380E-06,0.480
-3.370E-06,0.296
-3.360E-06,-0.008
-3.350E-06,-0.040
-3.340E-06,-0.456
-3.330E-06,0.048
-3.320E-06,0.512
-3.310E-06,0.848
-3.300E-06,0.616
-3.290E-06,0.224
-3.280E-06,-0.360
-3.270E-06,-0.448
-3.260E-06,-0.216
-3.250E-06,0.224
-3.240E-06,0.536
-3.230E-06,0.496
-3.220E-06,0.080
-3.210E-06,-0.240
-3.200E-06,-0.352
-3.190E-06,-0.256
-3.180E-06,0.016
-3.170E-06,0.240
-3.160E-06,0.264
-3.150E-06,0.184
-3.140E-06,-0.072
-3.130E-06,-0.176
-3.120E-06,-0.184
-3.110E-06,-0.088
-3.100E-06,-0.024
-3.090E-06,0.040
-3.080E-06,0.000
-3.070E-06,-0.152
-3.060E-06,-0.264
-3.050E-06,-0.256
-3.040E-06,-0.240
-3.030E-06,-0.112
-3.020E-06,-0.008
-3.010E-06,0.024
-3.000E-06,0.000
-2.990E-06,0.016
-2.980E-06,0.016
-2.970E-06,0.008
-2.960E-06,0.040
-2.950E-06,0.064
-2.940E-06,0.080
-2.930E-06,0.112
-2.920E-06,0.120
-2.910E-06,0.208
-2.900E-06,0.200
-2.890E-06,0.168
-2.880E-06,0.152
-2.870E-06,0.136
-2.860E-06,0.160
-2.850E-06,0.296
-2.840E-06,0.344
-2.830E-06,0.544
-2.820E-06,0.568
-2.810E-06,-0.416
-2.800E-06,-0.272
-2.790E-06,-0.496
-2.780E-06,-0.048
-2.770E-06,0.304
-2.760E-06,0.984
-2.750E-06,0.464
-2.740E-06,0.040
-2.730E-06,-0.264
-2.720E-06,-0.008
-2.710E-06,0.320
-2.700E-06,0.440
-2.690E-06,0.264
-2.680E-06,0.088
-2.670E-06,-0.296
-2.660E-06,-0.400
-2.650E-06,-0.256
-2.640E-06,-0.088
-2.630E-06,0.056
-2.620E-06,0.144
-2.610E-06,-0.008
-2.600E-06,-0.112
-2.590E-06,-0.200
-2.580E-06,-0.056
-2.570E-06,0.128
-2.560E-06,0.352
-2.550E-06,0.328
-2.540E-06,0.216
-2.530E-06,0.096
-2.520E-06,-0.096
-2.510E-06,-0.192
-2.500E-06,-0.128
-2.490E-06,-0.064
-2.480E-06,-0.080
-2.470E-06,0.112
-2.460E-06,0.152
-2.450E-06,0.424
-2.440E-06,0.440
-2.430E-06,0.352
-2.420E-06,0.008
-2.410E-06,-0.328
-2.400E-06,-0.624
-2.390E-06,-0.664
-2.380E-06,-0.672
-2.370E-06,-0.632
-2.360E-06,-0.632
-2.350E-06,-0.520
-2.340E-06,-0.792
-2.330E-06,-0.504
-2.320E-06,-0.752
-2.310E-06,-0.568
-2.300E-06,-0.576
-2.290E-06,-0.216
-2.280E-06,0.464
-2.270E-06,0.224
-2.260E-06,0.312
-2.250E-06,0.080
-2.240E-06,-0.448
-2.230E-06,0.232
-2.220E-06,1.080
-2.210E-06,1.080
-2.200E-06,1.072
-2.190E-06,1.080
-2.180E-06,0.872
-2.170E-06,1.088
-2.160E-06,1.080
-2.150E-06,1.088
-2.140E-06,1.080
-2.130E-06,1.088
-2.120E-06,1.080
-2.110E-06,0.864
-2.100E-06,0.576
-2.090E-06,0.488
-2.080E-06,0.496
-2.070E-06,0.456
-2.060E-06,0.264
-2.050E-06,-0.064
-2.040E-06,-0.400
-2.030E-06,-0.608
-2.020E-06,-0.704
-2.010E-06,-0.696
-2.000E-06,-0.752
-1.990E-06,-0.712
-1.980E-06,-0.880
-1.970E-06,-1.040
-1.960E-06,-1.040
-1.950E-06,-1.040
-1.940E-06,-1.040
-1.930E-06,-1.040
-1.920E-06,-1.040
-1.910E-06,-1.048
-1.900E-06,-1.040
-1.890E-06,-1.048
-1.880E-06,-1.032
-1.870E-06,-0.680
-1.860E-06,-0.352
-1.850E-06,-0.264
-1.840E-06,-0.248
-1.830E-06,-0.336
-1.820E-06,-0.624
-1.810E-06,-0.504
-1.800E-06,-0.504
-1.790E-06,-0.136
-1.780E-06,0.632
-1.770E-06,0.952
-1.760E-06,1.088
-1.750E-06,1.088
-1.740E-06,1.080
-1.730E-06,0.784
-1.720E-06,1.040
-1.710E-06,1.088
-1.700E-06,1.080
-1.690E-06,1.080
-1.680E-06,1.088
-1.670E-06,1.080
-1.660E-06,1.072
-1.650E-06,0.552
-1.640E-06,0.312
-1.630E-06,0.288
-1.620E-06,0.560
-1.610E-06,0.656
-1.600E-06,0.424
-1.590E-06,-0.040
-1.580E-06,-0.600
-1.570E-06,-1.000
-1.560E-06,-0.984
-1.550E-06,-0.816
-1.540E-06,-0.584
-1.530E-06,-0.568
-1.520E-06,-0.664
-1.510E-06,-0.936
-1.500E-06,-1.040
-1.490E-06,-1.040
-1.480E-06,-1.048
-1.470E-06,-0.920
-1.460E-06,-0.704
-1.450E-06,-0.752
-1.440E-06,-0.920
-1.430E-06,-1.040
-1.420E-06,-1.048
-1.410E-06,-1.040
-1.400E-06,-1.032
-1.390E-06,-1.040
-1.380E-06,-0.664
-1.370E-06,-0.136
-1.360E-06,0.200
-1.350E-06,0.360
-1.340E-06,0.280
-1.330E-06,0.200
-1.320E-06,0.168
-1.310E-06,0.224
-1.300E-06,0.328
-1.290E-06,0.456
-1.280E-06,0.504
-1.270E-06,0.416
-1.260E-06,0.168
-1.250E-06,-0.040
-1.240E-06,-0.232
-1.230E-06,-0.112
-1.220E-06,0.088
-1.210E-06,0.408
-1.200E-06,-0.088
-1.190E-06,-0.624
-1.180E-06,-1.032
-1.170E-06,-0.456
-1.160E-06,0.048
-1.150E-06,1.080
-1.140E-06,1.072
-1.130E-06,1.080
-1.120E-06,1.080
-1.110E-06,1.080
-1.100E-06,1.072
-1.090E-06,1.080
-1.080E-06,1.080
-1.070E-06,1.088
-1.060E-06,1.080
-1.050E-06,0.976
-1.040E-06,0.304
-1.030E-06,-0.224
-1.020E-06,-0.424
-1.010E-06,-0.432
-1.000E-06,-0.264
-9.900E-07,-0.328
-9.800E-07,-0.496
-9.700E-07,-0.720
-9.600E-07,-1.016
-9.500E-07,-1.040
-9.400E-07,-1.040
-9.300E-07,-1.040
-9.200E-07,-1.040
-9.100E-07,-1.048
-9.000E-07,-1.040
-8.900E-07,-1.048
-8.800E-07,-1.032
-8.700E-07,-1.032
-8.600E-07,-1.040
-8.500E-07,-1.048
-8.400E-07,-1.048
-8.300E-07,-0.504
-8.200E-07,0.360
-8.100E-07,0.824
-8.000E-07,1.088
-7.900E-07,1.080
-7.800E-07,1.072
-7.700E-07,1.080
-7.600E-07,1.088
-7.500E-07,1.080
-7.400E-07,1.080
-7.300E-07,1.072
-7.200E-07,0.752
-7.100E-07,0.568
-7.000E-07,0.456
-6.900E-07,0.208
-6.800E-07,0.056
-6.700E-07,-0.072
-6.600E-07,-0.064
-6.500E-07,0.144
-6.400E-07,0.352
-6.300E-07,0.424
-6.200E-07,0.264
-6.100E-07,-0.072
-6.000E-07,-0.352
-5.900E-07,-0.352
-5.800E-07,-0.280
-5.700E-07,-0.112
-5.600E-07,-0.104
-5.500E-07,-0.344
-5.400E-07,-0.720
-5.300E-07,-1.032
-5.200E-07,-1.048
-5.100E-07,-1.032
-5.000E-07,-0.960
-4.900E-07,-0.816
-4.800E-07,-0.736
-4.700E-07,-0.800
-4.600E-07,-0.904
-4.500E-07,-0.920
-4.400E-07,-0.864
-4.300E-07,-0.704
-4.200E-07,-0.504
-4.100E-07,-0.336
-4.000E-07,-0.248
-3.900E-07,-0.216
-3.800E-07,-0.240
-3.700E-07,-0.304
-3.600E-07,-0.328
-3.500E-07,-0.288
-3.400E-07,-0.312
-3.300E-07,-0.392
-3.200E-07,-0.488
-3.100E-07,-0.512
-3.000E-07,-0.496
-2.900E-07,-0.224
-2.800E-07,0.120
-2.700E-07,0.312
-2.600E-07,0.584
-2.500E-07,0.592
-2.400E-07,0.368
-2.300E-07,0.080
-2.200E-07,-0.240
-2.100E-07,-0.480
-2.000E-07,-0.680
-1.900E-07,-0.896
-1.800E-07,-0.976
-1.700E-07,-1.040
-1.600E-07,-1.048
-1.500E-07,-0.952
-1.400E-07,-0.696
-1.300E-07,-0.448
-1.200E-07,0.144
-1.100E-07,0.096
-1.000E-07,0.664
-9.000E-08,0.528
-8.000E-08,0.784
-7.000E-08,0.816
-6.000E-08,0.912
-5.000E-08,1.072
-4.000E-08,0.296
-3.000E-08,-0.584
-2.000E-08,-1.048
-1.000E-08,-1.040
0.000E+00,-0.672
1.000E-08,1.088
2.000E-08,1.080
3.000E-08,1.088
4.000E-08,1.080
5.000E-08,1.088
6.000E-08,1.080
7.000E-08,1.080
8.000E-08,0.192
9.000E-08,-0.376
1.000E-07,-0.248
1.100E-07,0.216
1.200E-07,0.768
1.300E-07,1.088
1.400E-07,1.080
1.500E-07,1.080
1.600E-07,0.888
1.700E-07,0.888
1.800E-07,0.880
1.900E-07,0.800
2.000E-07,0.400
2.100E-07,0.136
2.200E-07,-0.056
2.300E-07,-0.008
2.400E-07,0.312
2.500E-07,0.536
2.600E-07,0.616
2.700E-07,0.568
2.800E-07,0.448
2.900E-07,0.096
3.000E-07,-0.400
3.100E-07,-0.640
3.200E-07,-1.032
3.300E-07,-1.040
3.400E-07,-1.040
3.500E-07,-1.040
3.600E-07,-1.040
3.700E-07,-1.040
3.800E-07,-1.040
3.900E-07,-1.048
4.000E-07,-1.040
4.100E-07,-1.032
4.200E-07,-1.040
4.300E-07,-1.040
4.400E-07,-0.456
4.500E-07,-0.368
4.600E-07,0.008
4.700E-07,0.864
4.800E-07,1.088
4.900E-07,1.088
5.000E-07,1.080
5.100E-07,1.080
5.200E-07,1.080
5.300E-07,1.072
5.400E-07,1.080
5.500E-07,1.088
5.600E-07,0.136
5.700E-07,-0.672
5.800E-07,-1.040
5.900E-07,-1.040
6.000E-07,-1.048
6.100E-07,-1.040
6.200E-07,-1.032
6.300E-07,-1.040
6.400E-07,-1.048
6.500E-07,-1.040
6.600E-07,-0.120
6.700E-07,0.720
6.800E-07,1.088
6.900E-07,0.752
7.000E-07,-0.144
7.100E-07,-1.040
7.200E-07,-1.048
7.300E-07,-1.040
7.400E-07,-1.040
7.500E-07,-1.040
7.600E-07,-1.040
7.700E-07,-1.040
7.800E-07,-0.264
7.900E-07,1.024
8.000E-07,1.088
8.100E-07,1.088
8.200E-07,1.080
8.300E-07,1.080
8.400E-07,1.080
8.500E-07,1.080
8.600E-07,1.008
8.700E-07,0.640
8.800E-07,0.288
8.900E-07,-0.016
9.000E-07,-0.384
9.100E-07,-0.440
9.200E-07,-0.328
9.300E-07,-0.048
9.400E-07,0.440
9.500E-07,0.976
9.600E-07,1.080
9.700E-07,1.088
9.800E-07,1.080
9.900E-07,1.072
1.000E-06,1.080
1.010E-06,1.080
1.020E-06,1.088
1.030E-06,1.088
1.040E-06,1.080
1.050E-06,1.088
1.060E-06,1.088
1.070E-06,1.080
1.080E-06,1.080
1.090E-06,1.000
1.100E-06,0.856
1.110E-06,0.632
1.120E-06,0.432
1.130E-06,0.304
1.140E-06,0.264
1.150E-06,0.400
1.160E-06,0.728
1.170E-06,1.040
1.180E-06,1.088
1.190E-06,1.088
1.200E-06,1.080
1.210E-06,1.080
1.220E-06,1.080
1.230E-06,1.080
1.240E-06,1.080
1.250E-06,1.088
1.260E-06,1.080
1.270E-06,1.000
1.280E-06,0.704
1.290E-06,0.600
1.300E-06,0.568
1.310E-06,0.552
1.320E-06,0.528
1.330E-06,0.528
1.340E-06,0.472
1.350E-06,0.480
1.360E-06,0.472
1.370E-06,0.464
1.380E-06,0.400
1.390E-06,0.264
1.400E-06,0.040
1.410E-06,-0.176
1.420E-06,-0.336
1.430E-06,-0.328
1.440E-06,-0.112
1.450E-06,0.264
1.460E-06,0.680
1.470E-06,0.976
1.480E-06,1.088
1.490E-06,1.080
1.500E-06,1.072
1.510E-06,1.080
1.520E-06,1.088
1.530E-06,1.080
1.540E-06,1.088
1.550E-06,1.064
1.560E-06,1.032
1.570E-06,1.008
1.580E-06,1.024
1.590E-06,1.040
1.600E-06,1.056
1.610E-06,1.008
1.620E-06,0.864
1.630E-06,0.664
1.640E-06,0.352
1.650E-06,0.064
1.660E-06,-0.120
1.670E-06,-0.240
1.680E-06,-0.312
1.690E-06,-0.128
1.700E-06,0.144
1.710E-06,0.600
1.720E-06,1.072
1.730E-06,1.080
1.740E-06,1.080
1.750E-06,1.072
1.760E-06,1.080
1.770E-06,1.088
1.780E-06,1.080
1.790E-06,1.072
1.800E-06,1.080
1.810E-06,1.080
1.820E-06,1.088
1.830E-06,0.824
1.840E-06,0.560
1.850E-06,0.344
1.860E-06,0.152
1.870E-06,0.072
1.880E-06,0.080
1.890E-06,0.144
1.900E-06,0.240
1.910E-06,0.360
1.920E-06,0.472
1.930E-06,0.536
1.940E-06,0.544
1.950E-06,0.536
1.960E-06,0.576
1.970E-06,0.616
1.980E-06,0.664
1.990E-06,0.648
2.000E-06,0.608
2.010E-06,0.520
2.020E-06,0.392
2.030E-06,0.224
2.040E-06,0.064
2.050E-06,-0.112
2.060E-06,-0.176
2.070E-06,-0.224
2.080E-06,-0.200
2.090E-06,-0.088
2.100E-06,0.048
2.110E-06,0.192
2.120E-06,0.384
2.130E-06,0.528
2.140E-06,0.616
2.150E-06,0.664
2.160E-06,0.712
2.170E-06,0.760
2.180E-06,0.824
2.190E-06,0.840
2.200E-06,0.824
2.210E-06,0.752
2.220E-06,0.672
2.230E-06,0.560
2.240E-06,0.464
2.250E-06,0.360
2.260E-06,0.288
2.270E-06,0.192
2.280E-06,0.128
2.290E-06,0.096
2.300E-06,0.064
2.310E-06,0.080
2.320E-06,0.168
2.330E-06,0.232
2.340E-06,0.264
2.350E-06,0.288
2.360E-06,0.264
2.370E-06,0.224
2.380E-06,0.152
2.390E-06,0.096
2.400E-06,0.144
2.410E-06,0.312
2.420E-06,0.328
2.430E-06,0.256
2.440E-06,0.208
2.450E-06,0.320
2.460E-06,0.568
2.470E-06,0.824
2.480E-06,0.992
2.490E-06,1.080
2.500E-06,1.088
2.510E-06,1.088
2.520E-06,1.080
2.530E-06,1.080
2.540E-06,1.040
2.550E-06,0.904
2.560E-06,0.720
2.570E-06,0.536
2.580E-06,0.384
2.590E-06,0.264
2.600E-06,0.168
2.610E-06,0.072
2.620E-06,0.000
2.630E-06,-0.040
2.640E-06,-0.120
2.650E-06,-0.136
2.660E-06,-0.168
2.670E-06,-0.160
2.680E-06,-0.128
2.690E-06,-0.088
2.700E-06,-0.032
2.710E-06,0.048
2.720E-06,0.128
2.730E-06,0.128
2.740E-06,0.008
2.750E-06,-0.104
2.760E-06,-0.112
2.770E-06,0.008
2.780E-06,0.112
2.790E-06,0.176
2.800E-06,0.160
2.810E-06,0.184
2.820E-06,0.248
2.830E-06,0.256
2.840E-06,0.168
2.850E-06,0.072
2.860E-06,0.016
2.870E-06,-0.040
2.880E-06,-0.168
2.890E-06,-0.344
2.900E-06,-0.464
2.910E-06,-0.464
2.920E-06,-0.376
2.930E-06,-0.272
2.940E-06,-0.168
2.950E-06,-0.088
2.960E-06,-0.056
2.970E-06,-0.056
2.980E-06,-0.120
2.990E-06,-0.176
3.000E-06,-0.216
3.010E-06,-0.232
3.020E-06,-0.264
3.030E-06,-0.264
3.040E-06,-0.248
3.050E-06,-0.216
3.060E-06,-0.152
3.070E-06,-0.112
3.080E-06,-0.040
3.090E-06,0.040
3.100E-06,0.080
3.110E-06,0.112
3.120E-06,0.128
3.130E-06,0.184
3.140E-06,0.248
3.150E-06,0.280
3.160E-06,0.264
3.170E-06,0.256
3.180E-06,0.304
3.190E-06,0.312
3.200E-06,0.264
3.210E-06,0.176
3.220E-06,0.064
3.230E-06,0.056
3.240E-06,0.048
3.250E-06,0.072
3.260E-06,0.088
3.270E-06,0.064
3.280E-06,0.072
3.290E-06,0.040
3.300E-06,-0.064
3.310E-06,-0.160
3.320E-06,-0.232
3.330E-06,-0.280
3.340E-06,-0.240
3.350E-06,-0.144
3.360E-06,-0.008
3.370E-06,0.120
3.380E-06,0.184
3.390E-06,0.120
3.400E-06,0.000
3.410E-06,-0.144
3.420E-06,-0.280
3.430E-06,-0.416
3.440E-06,-0.544
3.450E-06,-0.568
3.460E-06,-0.520
3.470E-06,-0.440
3.480E-06,-0.344
3.490E-06,-0.280
3.500E-06,-0.224
3.510E-06,-0.128
3.520E-06,0.000
