mediciones/6-26/25.0/WaveData5980.csv

#timebase=2000000(ps)
,#voltbase=200000(mv/100)
#size=4000
-8.150E-06,0.008
-8.140E-06,-0.008
-8.130E-06,0.008
-8.120E-06,0.000
-8.110E-06,0.008
-8.100E-06,0.008
-8.090E-06,0.000
-8.080E-06,0.000
-8.070E-06,-0.008
-8.060E-06,0.008
-8.050E-06,-0.008
-8.040E-06,0.000
-8.030E-06,0.008
-8.020E-06,0.008
-8.010E-06,0.000
-8.000E-06,0.016
-7.990E-06,0.000
-7.980E-06,0.000
-7.970E-06,0.000
-7.960E-06,0.000
-7.950E-06,0.000
-7.940E-06,0.000
-7.930E-06,0.008
-7.920E-06,0.000
-7.910E-06,0.008
-7.900E-06,0.016
-7.890E-06,0.008
-7.880E-06,0.000
-7.870E-06,0.000
-7.860E-06,0.008
-7.850E-06,-0.008
-7.840E-06,-0.008
-7.830E-06,0.008
-7.820E-06,0.016
-7.810E-06,-0.008
-7.800E-06,0.000
-7.790E-06,0.000
-7.780E-06,-0.008
-7.770E-06,0.000
-7.760E-06,0.008
-7.750E-06,0.000
-7.740E-06,0.000
-7.730E-06,0.008
-7.720E-06,0.008
-7.710E-06,0.008
-7.700E-06,0.008
-7.690E-06,0.016
-7.680E-06,0.000
-7.670E-06,-0.008
-7.660E-06,0.000
-7.650E-06,0.000
-7.640E-06,0.000
-7.630E-06,0.000
-7.620E-06,0.000
-7.610E-06,0.000
-7.600E-06,0.008
-7.590E-06,-0.008
-7.580E-06,0.008
-7.570E-06,0.008
-7.560E-06,0.008
-7.550E-06,0.008
-7.540E-06,-0.008
-7.530E-06,0.000
-7.520E-06,0.008
-7.510E-06,0.016
-7.500E-06,-0.008
-7.490E-06,0.008
-7.480E-06,0.000
-7.470E-06,0.008
-7.460E-06,0.008
-7.450E-06,0.000
-7.440E-06,0.000
-7.430E-06,0.000
-7.420E-06,0.008
-7.410E-06,0.000
-7.400E-06,0.000
-7.390E-06,0.008
-7.380E-06,0.000
-7.370E-06,0.008
-7.360E-06,0.000
-7.350E-06,0.008
-7.340E-06,0.000
-7.330E-06,0.000
-7.320E-06,0.008
-7.310E-06,0.000
-7.300E-06,0.000
-7.290E-06,0.008
-7.280E-06,0.008
-7.270E-06,0.008
-7.260E-06,0.000
-7.250E-06,0.000
-7.240E-06,0.000
-7.230E-06,0.000
-7.220E-06,-0.008
-7.210E-06,-0.008
-7.200E-06,0.008
-7.190E-06,-0.008
-7.180E-06,0.008
-7.170E-06,0.008
-7.160E-06,0.008
-7.150E-06,0.000
-7.140E-06,0.008
-7.130E-06,0.008
-7.120E-06,0.008
-7.110E-06,0.000
-7.100E-06,0.000
-7.090E-06,0.000
-7.080E-06,0.008
-7.070E-06,-0.008
-7.060E-06,0.000
-7.050E-06,0.008
-7.040E-06,0.000
-7.030E-06,0.008
-7.020E-06,0.008
-7.010E-06,0.000
-7.000E-06,0.008
-6.990E-06,0.008
-6.980E-06,0.000
-6.970E-06,-0.008
-6.960E-06,0.000
-6.950E-06,0.000
-6.940E-06,0.000
-6.930E-06,0.000
-6.920E-06,0.000
-6.910E-06,0.000
-6.900E-06,0.008
-6.890E-06,0.000
-6.880E-06,0.000
-6.870E-06,0.000
-6.860E-06,0.000
-6.850E-06,0.000
-6.840E-06,0.008
-6.830E-06,0.000
-6.820E-06,0.000
-6.810E-06,0.008
-6.800E-06,0.000
-6.790E-06,0.000
-6.780E-06,0.000
-6.770E-06,0.000
-6.760E-06,0.000
-6.750E-06,0.000
-6.740E-06,0.008
-6.730E-06,-0.008
-6.720E-06,-0.008
-6.710E-06,0.000
-6.700E-06,0.000
-6.690E-06,0.008
-6.680E-06,0.008
-6.670E-06,-0.008
-6.660E-06,0.000
-6.650E-06,-0.008
-6.640E-06,0.000
-6.630E-06,0.008
-6.620E-06,0.008
-6.610E-06,0.008
-6.600E-06,-0.008
-6.590E-06,0.000
-6.580E-06,0.000
-6.570E-06,0.000
-6.560E-06,-0.008
-6.550E-06,0.000
-6.540E-06,0.000
-6.530E-06,0.000
-6.520E-06,0.008
-6.510E-06,0.000
-6.500E-06,-0.008
-6.490E-06,0.000
-6.480E-06,-0.008
-6.470E-06,0.000
-6.460E-06,0.008
-6.450E-06,0.000
-6.440E-06,0.000
-6.430E-06,0.000
-6.420E-06,0.008
-6.410E-06,0.000
-6.400E-06,-0.008
-6.390E-06,0.000
-6.380E-06,-0.008
-6.370E-06,-0.008
-6.360E-06,0.000
-6.350E-06,-0.008
-6.340E-06,0.008
-6.330E-06,0.000
-6.320E-06,0.000
-6.310E-06,0.000
-6.300E-06,-0.008
-6.290E-06,0.008
-6.280E-06,0.000
-6.270E-06,0.008
-6.260E-06,0.000
-6.250E-06,-0.008
-6.240E-06,0.000
-6.230E-06,-0.008
-6.220E-06,0.000
-6.210E-06,0.000
-6.200E-06,0.008
-6.190E-06,-0.008
-6.180E-06,0.000
-6.170E-06,0.000
-6.160E-06,0.000
-6.150E-06,0.000
-6.140E-06,0.000
-6.130E-06,0.008
-6.120E-06,0.008
-6.110E-06,0.000
-6.100E-06,0.008
-6.090E-06,0.000
-6.080E-06,0.008
-6.070E-06,0.000
-6.060E-06,0.000
-6.050E-06,0.000
-6.040E-06,0.008
-6.030E-06,0.008
-6.020E-06,0.016
-6.010E-06,0.008
-6.000E-06,0.000
-5.990E-06,0.000
-5.980E-06,0.000
-5.970E-06,0.008
-5.960E-06,0.008
-5.950E-06,-0.008
-5.940E-06,0.008
-5.930E-06,0.000
-5.920E-06,0.000
-5.910E-06,0.000
-5.900E-06,0.008
-5.890E-06,-0.008
-5.880E-06,0.008
-5.870E-06,-0.008
-5.860E-06,0.000
-5.850E-06,0.000
-5.840E-06,0.008
-5.830E-06,-0.008
-5.820E-06,0.000
-5.810E-06,0.000
-5.800E-06,0.000
-5.790E-06,0.000
-5.780E-06,0.008
-5.770E-06,0.000
-5.760E-06,0.000
-5.750E-06,0.008
-5.740E-06,0.000
-5.730E-06,-0.008
-5.720E-06,0.008
-5.710E-06,0.008
-5.700E-06,0.008
-5.690E-06,0.000
-5.680E-06,0.000
-5.670E-06,0.008
-5.660E-06,0.000
-5.650E-06,0.016
-5.640E-06,-0.008
-5.630E-06,0.008
-5.620E-06,0.008
-5.610E-06,0.000
-5.600E-06,0.016
-5.590E-06,0.000
-5.580E-06,0.000
-5.570E-06,0.000
-5.560E-06,0.000
-5.550E-06,0.000
-5.540E-06,0.000
-5.530E-06,0.008
-5.520E-06,0.000
-5.510E-06,0.008
-5.500E-06,0.000
-5.490E-06,0.000
-5.480E-06,0.000
-5.470E-06,0.008
-5.460E-06,0.000
-5.450E-06,0.000
-5.440E-06,0.000
-5.430E-06,0.000
-5.420E-06,0.008
-5.410E-06,0.000
-5.400E-06,0.000
-5.390E-06,0.000
-5.380E-06,0.000
-5.370E-06,0.000
-5.360E-06,0.008
-5.350E-06,0.008
-5.340E-06,-0.008
-5.330E-06,0.000
-5.320E-06,0.000
-5.310E-06,0.008
-5.300E-06,0.000
-5.290E-06,0.000
-5.280E-06,0.000
-5.270E-06,0.016
-5.260E-06,0.008
-5.250E-06,-0.008
-5.240E-06,0.008
-5.230E-06,0.000
-5.220E-06,0.000
-5.210E-06,0.000
-5.200E-06,0.008
-5.190E-06,0.000
-5.180E-06,0.000
-5.170E-06,0.008
-5.160E-06,0.000
-5.150E-06,0.008
-5.140E-06,0.008
-5.130E-06,0.000
-5.120E-06,0.000
-5.110E-06,0.008
-5.100E-06,0.000
-5.090E-06,0.008
-5.080E-06,-0.008
-5.070E-06,0.008
-5.060E-06,0.008
-5.050E-06,0.008
-5.040E-06,0.008
-5.030E-06,-0.008
-5.020E-06,0.008
-5.010E-06,0.000
-5.000E-06,-0.008
-4.990E-06,0.008
-4.980E-06,0.000
-4.970E-06,0.000
-4.960E-06,0.008
-4.950E-06,0.000
-4.940E-06,0.008
-4.930E-06,0.000
-4.920E-06,0.008
-4.910E-06,0.000
-4.900E-06,0.008
-4.890E-06,0.000
-4.880E-06,0.000
-4.870E-06,0.000
-4.860E-06,0.000
-4.850E-06,-0.008
-4.840E-06,0.000
-4.830E-06,0.000
-4.820E-06,-0.008
-4.810E-06,0.000
-4.800E-06,0.016
-4.790E-06,0.008
-4.780E-06,0.000
-4.770E-06,-0.008
-4.760E-06,0.000
-4.750E-06,-0.008
-4.740E-06,0.008
-4.730E-06,0.008
-4.720E-06,0.000
-4.710E-06,0.000
-4.700E-06,0.008
-4.690E-06,0.000
-4.680E-06,0.008
-4.670E-06,0.008
-4.660E-06,0.008
-4.650E-06,0.008
-4.640E-06,0.008
-4.630E-06,0.000
-4.620E-06,0.000
-4.610E-06,0.000
-4.600E-06,0.008
-4.590E-06,0.008
-4.580E-06,0.000
-4.570E-06,-0.008
-4.560E-06,-0.008
-4.550E-06,0.008
-4.540E-06,0.000
-4.530E-06,0.000
-4.520E-06,0.000
-4.510E-06,0.008
-4.500E-06,0.008
-4.490E-06,0.008
-4.480E-06,0.008
-4.470E-06,0.008
-4.460E-06,0.000
-4.450E-06,-0.008
-4.440E-06,0.000
-4.430E-06,0.000
-4.420E-06,0.008
-4.410E-06,0.000
-4.400E-06,0.016
-4.390E-06,0.000
-4.380E-06,0.000
-4.370E-06,0.000
-4.360E-06,0.000
-4.350E-06,0.008
-4.340E-06,0.008
-4.330E-06,0.008
-4.320E-06,0.008
-4.310E-06,0.000
-4.300E-06,0.008
-4.290E-06,0.016
-4.280E-06,-0.008
-4.270E-06,0.000
-4.260E-06,0.000
-4.250E-06,0.000
-4.240E-06,0.000
-4.230E-06,0.000
-4.220E-06,0.008
-4.210E-06,0.008
-4.200E-06,0.000
-4.190E-06,0.008
-4.180E-06,0.008
-4.170E-06,0.008
-4.160E-06,0.000
-4.150E-06,0.000
-4.140E-06,0.000
-4.130E-06,0.000
-4.120E-06,0.008
-4.110E-06,0.000
-4.100E-06,0.008
-4.090E-06,0.008
-4.080E-06,-0.008
-4.070E-06,0.000
-4.060E-06,0.016
-4.050E-06,0.000
-4.040E-06,0.008
-4.030E-06,0.008
-4.020E-06,0.000
-4.010E-06,0.008
-4.000E-06,-0.008
-3.990E-06,-0.008
-3.980E-06,0.000
-3.970E-06,0.000
-3.960E-06,0.000
-3.950E-06,0.000
-3.940E-06,0.000
-3.930E-06,0.000
-3.920E-06,-0.008
-3.910E-06,0.000
-3.900E-06,0.000
-3.890E-06,0.000
-3.880E-06,0.000
-3.870E-06,0.008
-3.860E-06,0.000
-3.850E-06,0.008
-3.840E-06,0.056
-3.830E-06,0.112
-3.820E-06,0.128
-3.810E-06,0.128
-3.800E-06,0.016
-3.790E-06,-0.112
-3.780E-06,-0.208
-3.770E-06,-0.208
-3.760E-06,-0.216
-3.750E-06,0.176
-3.740E-06,0.104
-3.730E-06,0.304
-3.720E-06,0.008
-3.710E-06,0.000
-3.700E-06,0.024
-3.690E-06,-0.168
-3.680E-06,-0.112
-3.670E-06,-0.024
-3.660E-06,0.160
-3.650E-06,0.112
-3.640E-06,0.160
-3.630E-06,0.000
-3.620E-06,-0.088
-3.610E-06,-0.168
-3.600E-06,-0.120
-3.590E-06,-0.024
-3.580E-06,0.072
-3.570E-06,0.184
-3.560E-06,0.136
-3.550E-06,0.104
-3.540E-06,-0.048
-3.530E-06,-0.064
-3.520E-06,-0.128
-3.510E-06,-0.048
-3.500E-06,-0.008
-3.490E-06,0.064
-3.480E-06,0.072
-3.470E-06,0.032
-3.460E-06,-0.008
-3.450E-06,-0.072
-3.440E-06,-0.048
-3.430E-06,-0.008
-3.420E-06,0.040
-3.410E-06,0.064
-3.400E-06,0.088
-3.390E-06,0.048
-3.380E-06,0.024
-3.370E-06,-0.032
-3.360E-06,-0.056
-3.350E-06,-0.040
-3.340E-06,-0.024
-3.330E-06,0.016
-3.320E-06,0.024
-3.310E-06,0.040
-3.300E-06,0.024
-3.290E-06,0.008
-3.280E-06,-0.024
-3.270E-06,0.000
-3.260E-06,0.000
-3.250E-06,0.024
-3.240E-06,0.056
-3.230E-06,0.048
-3.220E-06,0.008
-3.210E-06,0.000
-3.200E-06,-0.016
-3.190E-06,-0.040
-3.180E-06,-0.008
-3.170E-06,0.000
-3.160E-06,0.024
-3.150E-06,0.024
-3.140E-06,0.040
-3.130E-06,0.000
-3.120E-06,-0.008
-3.110E-06,0.000
-3.100E-06,0.000
-3.090E-06,0.008
-3.080E-06,0.016
-3.070E-06,0.024
-3.060E-06,0.000
-3.050E-06,0.016
-3.040E-06,-0.008
-3.030E-06,-0.008
-3.020E-06,-0.008
-3.010E-06,0.016
-3.000E-06,0.016
-2.990E-06,0.016
-2.980E-06,0.008
-2.970E-06,0.008
-2.960E-06,0.016
-2.950E-06,0.008
-2.940E-06,0.016
-2.930E-06,0.000
-2.920E-06,0.016
-2.910E-06,0.024
-2.900E-06,0.024
-2.890E-06,0.016
-2.880E-06,0.000
-2.870E-06,0.000
-2.860E-06,0.000
-2.850E-06,-0.008
-2.840E-06,-0.008
-2.830E-06,0.008
-2.820E-06,0.032
-2.810E-06,0.008
-2.800E-06,0.000
-2.790E-06,0.016
-2.780E-06,0.000
-2.770E-06,0.008
-2.760E-06,-0.008
-2.750E-06,0.000
-2.740E-06,0.024
-2.730E-06,0.032
-2.720E-06,0.032
-2.710E-06,0.008
-2.700E-06,0.000
-2.690E-06,0.016
-2.680E-06,0.000
-2.670E-06,0.000
-2.660E-06,0.008
-2.650E-06,0.032
-2.640E-06,0.016
-2.630E-06,0.024
-2.620E-06,0.000
-2.610E-06,0.000
-2.600E-06,0.008
-2.590E-06,0.016
-2.580E-06,0.024
-2.570E-06,0.032
-2.560E-06,0.032
-2.550E-06,0.000
-2.540E-06,0.048
-2.530E-06,0.040
-2.520E-06,0.056
-2.510E-06,0.040
-2.500E-06,0.080
-2.490E-06,0.112
-2.480E-06,0.088
-2.470E-06,0.048
-2.460E-06,-0.024
-2.450E-06,-0.072
-2.440E-06,-0.120
-2.430E-06,-0.088
-2.420E-06,-0.016
-2.410E-06,0.016
-2.400E-06,0.064
-2.390E-06,0.056
-2.380E-06,0.000
-2.370E-06,-0.056
-2.360E-06,-0.072
-2.350E-06,-0.048
-2.340E-06,0.008
-2.330E-06,0.048
-2.320E-06,0.056
-2.310E-06,0.024
-2.300E-06,-0.008
-2.290E-06,-0.008
-2.280E-06,-0.040
-2.270E-06,-0.008
-2.260E-06,0.016
-2.250E-06,0.056
-2.240E-06,0.048
-2.230E-06,0.048
-2.220E-06,0.024
-2.210E-06,0.000
-2.200E-06,0.008
-2.190E-06,0.016
-2.180E-06,0.032
-2.170E-06,0.048
-2.160E-06,0.064
-2.150E-06,0.072
-2.140E-06,0.032
-2.130E-06,0.016
-2.120E-06,0.008
-2.110E-06,0.000
-2.100E-06,0.008
-2.090E-06,0.048
-2.080E-06,0.040
-2.070E-06,0.088
-2.060E-06,0.120
-2.050E-06,0.000
-2.040E-06,0.160
-2.030E-06,-0.128
-2.020E-06,-0.144
-2.010E-06,-0.280
-2.000E-06,-0.440
-1.990E-06,-0.080
-1.980E-06,-0.080
-1.970E-06,0.304
-1.960E-06,0.184
-1.950E-06,-0.008
-1.940E-06,-0.096
-1.930E-06,-0.056
-1.920E-06,-0.064
-1.910E-06,0.040
-1.900E-06,0.048
-1.890E-06,0.064
-1.880E-06,0.200
-1.870E-06,0.136
-1.860E-06,0.072
-1.850E-06,-0.088
-1.840E-06,-0.040
-1.830E-06,-0.016
-1.820E-06,0.048
-1.810E-06,0.104
-1.800E-06,0.032
-1.790E-06,0.040
-1.780E-06,-0.032
-1.770E-06,-0.104
-1.760E-06,-0.168
-1.750E-06,-0.128
-1.740E-06,-0.032
-1.730E-06,0.088
-1.720E-06,0.096
-1.710E-06,0.080
-1.700E-06,-0.072
-1.690E-06,-0.088
-1.680E-06,-0.136
-1.670E-06,-0.080
-1.660E-06,0.080
-1.650E-06,0.144
-1.640E-06,0.184
-1.630E-06,0.096
-1.620E-06,-0.016
-1.610E-06,-0.152
-1.600E-06,-0.160
-1.590E-06,-0.080
-1.580E-06,0.088
-1.570E-06,0.200
-1.560E-06,0.144
-1.550E-06,0.016
-1.540E-06,-0.080
-1.530E-06,-0.168
-1.520E-06,-0.176
-1.510E-06,-0.048
-1.500E-06,0.064
-1.490E-06,0.136
-1.480E-06,0.080
-1.470E-06,0.000
-1.460E-06,-0.072
-1.450E-06,-0.104
-1.440E-06,-0.048
-1.430E-06,0.016
-1.420E-06,0.104
-1.410E-06,0.120
-1.400E-06,0.080
-1.390E-06,0.016
-1.380E-06,-0.024
-1.370E-06,-0.040
-1.360E-06,0.000
-1.350E-06,0.040
-1.340E-06,0.080
-1.330E-06,0.088
-1.320E-06,0.072
-1.310E-06,0.048
-1.300E-06,0.024
-1.290E-06,0.024
-1.280E-06,0.024
-1.270E-06,0.048
-1.260E-06,0.072
-1.250E-06,0.088
-1.240E-06,0.064
-1.230E-06,0.056
-1.220E-06,0.056
-1.210E-06,0.016
-1.200E-06,0.024
-1.190E-06,0.080
-1.180E-06,0.112
-1.170E-06,0.128
-1.160E-06,0.120
-1.150E-06,0.096
-1.140E-06,0.032
-1.130E-06,0.048
-1.120E-06,0.056
-1.110E-06,0.088
-1.100E-06,0.112
-1.090E-06,0.144
-1.080E-06,0.144
-1.070E-06,0.136
-1.060E-06,0.184
-1.050E-06,0.152
-1.040E-06,0.160
-1.030E-06,0.216
-1.020E-06,0.224
-1.010E-06,0.240
-1.000E-06,0.000
-9.900E-07,0.000
-9.800E-07,-0.128
-9.700E-07,-0.152
-9.600E-07,-0.080
-9.500E-07,-0.200
-9.400E-07,-0.160
-9.300E-07,-0.208
-9.200E-07,-0.008
-9.100E-07,0.280
-9.000E-07,0.176
-8.900E-07,-0.128
-8.800E-07,-0.176
-8.700E-07,-0.240
-8.600E-07,-0.112
-8.500E-07,-0.144
-8.400E-07,0.184
-8.300E-07,0.520
-8.200E-07,0.632
-8.100E-07,0.424
-8.000E-07,0.224
-7.900E-07,-0.088
-7.800E-07,-0.232
-7.700E-07,-0.152
-7.600E-07,0.160
-7.500E-07,0.416
-7.400E-07,0.600
-7.300E-07,0.544
-7.200E-07,0.352
-7.100E-07,0.120
-7.000E-07,-0.112
-6.900E-07,-0.336
-6.800E-07,-0.400
-6.700E-07,-0.352
-6.600E-07,-0.320
-6.500E-07,-0.344
-6.400E-07,-0.256
-6.300E-07,-0.168
-6.200E-07,-0.176
-6.100E-07,-0.072
-6.000E-07,0.120
-5.900E-07,0.128
-5.800E-07,0.184
-5.700E-07,0.240
-5.600E-07,0.184
-5.500E-07,0.200
-5.400E-07,0.096
-5.300E-07,-0.040
-5.200E-07,-0.240
-5.100E-07,-0.168
-5.000E-07,0.032
-4.900E-07,0.176
-4.800E-07,0.416
-4.700E-07,0.520
-4.600E-07,0.520
-4.500E-07,0.360
-4.400E-07,0.176
-4.300E-07,0.008
-4.200E-07,0.080
-4.100E-07,0.184
-4.000E-07,0.344
-3.900E-07,0.448
-3.800E-07,0.416
-3.700E-07,0.320
-3.600E-07,0.136
-3.500E-07,0.064
-3.400E-07,0.048
-3.300E-07,0.072
-3.200E-07,0.200
-3.100E-07,0.320
-3.000E-07,0.376
-2.900E-07,0.288
-2.800E-07,0.208
-2.700E-07,0.160
-2.600E-07,0.088
-2.500E-07,0.128
-2.400E-07,0.256
-2.300E-07,0.392
-2.200E-07,0.432
-2.100E-07,0.448
-2.000E-07,0.376
-1.900E-07,0.200
-1.800E-07,0.112
-1.700E-07,0.128
-1.600E-07,0.224
-1.500E-07,0.320
-1.400E-07,0.400
-1.300E-07,0.440
-1.200E-07,0.392
-1.100E-07,0.248
-1.000E-07,0.152
-9.000E-08,0.064
-8.000E-08,0.064
-7.000E-08,0.024
-6.000E-08,-0.008
-5.000E-08,-0.024
-4.000E-08,-0.096
-3.000E-08,0.072
-2.000E-08,0.352
-1.000E-08,0.656
0.000E+00,0.728
1.000E-08,0.488
2.000E-08,0.224
3.000E-08,0.024
4.000E-08,-0.120
5.000E-08,-0.072
6.000E-08,0.160
7.000E-08,0.280
8.000E-08,0.352
9.000E-08,0.264
1.000E-07,0.144
1.100E-07,0.112
1.200E-07,0.168
1.300E-07,0.296
1.400E-07,0.416
1.500E-07,0.456
1.600E-07,0.424
1.700E-07,0.320
1.800E-07,0.216
1.900E-07,0.184
2.000E-07,0.184
2.100E-07,0.256
2.200E-07,0.288
2.300E-07,0.320
2.400E-07,0.336
2.500E-07,0.296
2.600E-07,0.256
2.700E-07,0.216
2.800E-07,0.248
2.900E-07,0.272
3.000E-07,0.328
3.100E-07,0.344
3.200E-07,0.368
3.300E-07,0.336
3.400E-07,0.288
3.500E-07,0.272
3.600E-07,0.264
3.700E-07,0.280
3.800E-07,0.304
3.900E-07,0.352
4.000E-07,0.320
4.100E-07,0.288
4.200E-07,0.240
4.300E-07,0.232
4.400E-07,0.224
4.500E-07,0.256
4.600E-07,0.312
4.700E-07,0.352
4.800E-07,0.352
4.900E-07,0.328
5.000E-07,0.296
5.100E-07,0.256
5.200E-07,0.256
5.300E-07,0.272
5.400E-07,0.304
5.500E-07,0.336
5.600E-07,0.336
5.700E-07,0.312
5.800E-07,0.272
5.900E-07,0.256
6.000E-07,0.256
6.100E-07,0.264
6.200E-07,0.288
6.300E-07,0.320
6.400E-07,0.320
6.500E-07,0.328
6.600E-07,0.288
6.700E-07,0.272
6.800E-07,0.264
6.900E-07,0.272
7.000E-07,0.280
7.100E-07,0.312
7.200E-07,0.320
7.300E-07,0.304
7.400E-07,0.288
7.500E-07,0.280
7.600E-07,0.272
7.700E-07,0.264
7.800E-07,0.272
7.900E-07,0.280
8.000E-07,0.288
8.100E-07,0.296
8.200E-07,0.288
8.300E-07,0.280
8.400E-07,0.272
8.500E-07,0.272
8.600E-07,0.280
8.700E-07,0.272
8.800E-07,0.288
8.900E-07,0.296
9.000E-07,0.288
9.100E-07,0.280
9.200E-07,0.280
9.300E-07,0.280
9.400E-07,0.280
9.500E-07,0.280
9.600E-07,0.288
9.700E-07,0.288
9.800E-07,0.280
9.900E-07,0.280
1.000E-06,0.264
1.010E-06,0.264
1.020E-06,0.272
1.030E-06,0.280
1.040E-06,0.280
1.050E-06,0.280
1.060E-06,0.280
1.070E-06,0.272
1.080E-06,0.256
1.090E-06,0.264
1.100E-06,0.272
1.110E-06,0.280
1.120E-06,0.288
1.130E-06,0.296
1.140E-06,0.288
1.150E-06,0.272
1.160E-06,0.272
1.170E-06,0.256
1.180E-06,0.264
1.190E-06,0.264
1.200E-06,0.272
1.210E-06,0.280
1.220E-06,0.272
1.230E-06,0.264
1.240E-06,0.264
1.250E-06,0.256
1.260E-06,0.264
1.270E-06,0.264
1.280E-06,0.264
1.290E-06,0.272
1.300E-06,0.256
1.310E-06,0.272
1.320E-06,0.264
1.330E-06,0.256
1.340E-06,0.264
1.350E-06,0.264
1.360E-06,0.264
1.370E-06,0.264
1.380E-06,0.248
1.390E-06,0.248
1.400E-06,0.256
1.410E-06,0.256
1.420E-06,0.256
1.430E-06,0.256
1.440E-06,0.256
1.450E-06,0.256
1.460E-06,0.256
1.470E-06,0.248
1.480E-06,0.248
1.490E-06,0.248
1.500E-06,0.248
1.510E-06,0.248
1.520E-06,0.256
1.530E-06,0.256
1.540E-06,0.256
1.550E-06,0.256
1.560E-06,0.248
1.570E-06,0.248
1.580E-06,0.248
1.590E-06,0.248
1.600E-06,0.248
1.610E-06,0.248
1.620E-06,0.248
1.630E-06,0.248
1.640E-06,0.240
1.650E-06,0.248
1.660E-06,0.248
1.670E-06,0.248
1.680E-06,0.248
1.690E-06,0.248
1.700E-06,0.248
1.710E-06,0.248
1.720E-06,0.240
1.730E-06,0.232
1.740E-06,0.232
1.750E-06,0.232
1.760E-06,0.216
1.770E-06,0.232
1.780E-06,0.232
1.790E-06,0.232
1.800E-06,0.240
1.810E-06,0.240
1.820E-06,0.240
1.830E-06,0.224
1.840E-06,0.224
1.850E-06,0.216
1.860E-06,0.240
1.870E-06,0.240
1.880E-06,0.248
1.890E-06,0.240
1.900E-06,0.224
1.910E-06,0.208
1.920E-06,0.192
1.930E-06,0.208
1.940E-06,0.208
1.950E-06,0.216
1.960E-06,0.240
1.970E-06,0.240
1.980E-06,0.232
1.990E-06,0.216
2.000E-06,0.208
2.010E-06,0.192
2.020E-06,0.208
2.030E-06,0.216
2.040E-06,0.232
2.050E-06,0.232
2.060E-06,0.232
2.070E-06,0.216
2.080E-06,0.216
2.090E-06,0.208
2.100E-06,0.200
2.110E-06,0.208
2.120E-06,0.224
2.130E-06,0.224
2.140E-06,0.216
2.150E-06,0.208
2.160E-06,0.192
2.170E-06,0.200
2.180E-06,0.200
2.190E-06,0.216
2.200E-06,0.216
2.210E-06,0.216
2.220E-06,0.208
2.230E-06,0.192
2.240E-06,0.192
2.250E-06,0.184
2.260E-06,0.200
2.270E-06,0.208
2.280E-06,0.208
2.290E-06,0.208
2.300E-06,0.192
2.310E-06,0.184
2.320E-06,0.192
2.330E-06,0.184
2.340E-06,0.192
2.350E-06,0.192
2.360E-06,0.200
2.370E-06,0.192
2.380E-06,0.192
2.390E-06,0.192
2.400E-06,0.192
2.410E-06,0.184
2.420E-06,0.192
2.430E-06,0.192
2.440E-06,0.184
2.450E-06,0.192
2.460E-06,0.184
2.470E-06,0.176
2.480E-06,0.176
2.490E-06,0.176
2.500E-06,0.192
2.510E-06,0.184
2.520E-06,0.184
2.530E-06,0.184
2.540E-06,0.184
2.550E-06,0.176
2.560E-06,0.176
2.570E-06,0.176
2.580E-06,0.184
2.590E-06,0.176
2.600E-06,0.176
2.610E-06,0.176
2.620E-06,0.176
2.630E-06,0.176
2.640E-06,0.184
2.650E-06,0.184
2.660E-06,0.184
2.670E-06,0.184
2.680E-06,0.184
2.690E-06,0.176
2.700E-06,0.176
2.710E-06,0.168
2.720E-06,0.176
2.730E-06,0.168
2.740E-06,0.176
2.750E-06,0.176
2.760E-06,0.176
2.770E-06,0.168
2.780E-06,0.176
2.790E-06,0.160
2.800E-06,0.176
2.810E-06,0.176
2.820E-06,0.168
2.830E-06,0.152
2.840E-06,0.152
2.850E-06,0.144
2.860E-06,0.144
2.870E-06,0.144
2.880E-06,0.176
2.890E-06,0.176
2.900E-06,0.176
2.910E-06,0.160
2.920E-06,0.144
2.930E-06,0.136
2.940E-06,0.136
2.950E-06,0.152
2.960E-06,0.160
2.970E-06,0.184
2.980E-06,0.176
2.990E-06,0.152
3.000E-06,0.152
3.010E-06,0.144
3.020E-06,0.144
3.030E-06,0.152
3.040E-06,0.152
3.050E-06,0.160
3.060E-06,0.152
3.070E-06,0.152
3.080E-06,0.152
3.090E-06,0.144
3.100E-06,0.144
3.110E-06,0.144
3.120E-06,0.152
3.130E-06,0.144
3.140E-06,0.144
3.150E-06,0.152
3.160E-06,0.152
3.170E-06,0.144
3.180E-06,0.144
3.190E-06,0.136
3.200E-06,0.136
3.210E-06,0.136
3.220E-06,0.136
3.230E-06,0.136
3.240E-06,0.128
3.250E-06,0.128
3.260E-06,0.128
3.270E-06,0.136
3.280E-06,0.144
3.290E-06,0.144
3.300E-06,0.144
3.310E-06,0.136
3.320E-06,0.128
3.330E-06,0.120
3.340E-06,0.120
3.350E-06,0.128
3.360E-06,0.136
3.370E-06,0.136
3.380E-06,0.144
3.390E-06,0.136
3.400E-06,0.128
3.410E-06,0.120
3.420E-06,0.120
3.430E-06,0.128
3.440E-06,0.128
3.450E-06,0.120
3.460E-06,0.128
3.470E-06,0.128
3.480E-06,0.112
3.490E-06,0.112
3.500E-06,0.120
3.510E-06,0.136
3.520E-06,0.136
3.530E-06,0.128
3.540E-06,0.128
3.550E-06,0.120
3.560E-06,0.112
3.570E-06,0.112
3.580E-06,0.120
3.590E-06,0.120
3.600E-06,0.128
3.610E-06,0.128
3.620E-06,0.112
3.630E-06,0.112
3.640E-06,0.120
3.650E-06,0.112
3.660E-06,0.112
3.670E-06,0.120
3.680E-06,0.112
