mediciones/6-26/25.0/WaveData5987.csv

#timebase=2000000(ps)
,#voltbase=200000(mv/100)
#size=4000
-8.150E-06,0.000
-8.140E-06,0.000
-8.130E-06,0.000
-8.120E-06,0.000
-8.110E-06,0.000
-8.100E-06,0.000
-8.090E-06,-0.008
-8.080E-06,-0.008
-8.070E-06,0.000
-8.060E-06,0.000
-8.050E-06,0.000
-8.040E-06,0.000
-8.030E-06,0.000
-8.020E-06,0.000
-8.010E-06,-0.008
-8.000E-06,0.000
-7.990E-06,0.000
-7.980E-06,0.000
-7.970E-06,-0.008
-7.960E-06,0.000
-7.950E-06,-0.008
-7.940E-06,0.000
-7.930E-06,0.000
-7.920E-06,0.000
-7.910E-06,0.000
-7.900E-06,0.000
-7.890E-06,-0.008
-7.880E-06,0.000
-7.870E-06,0.000
-7.860E-06,0.000
-7.850E-06,-0.008
-7.840E-06,-0.008
-7.830E-06,0.000
-7.820E-06,0.008
-7.810E-06,0.008
-7.800E-06,-0.008
-7.790E-06,-0.008
-7.780E-06,0.000
-7.770E-06,-0.008
-7.760E-06,0.000
-7.750E-06,0.000
-7.740E-06,0.000
-7.730E-06,0.000
-7.720E-06,0.000
-7.710E-06,-0.008
-7.700E-06,0.000
-7.690E-06,0.000
-7.680E-06,0.000
-7.670E-06,0.000
-7.660E-06,0.000
-7.650E-06,-0.008
-7.640E-06,0.000
-7.630E-06,0.008
-7.620E-06,-0.008
-7.610E-06,0.000
-7.600E-06,0.000
-7.590E-06,0.000
-7.580E-06,0.000
-7.570E-06,-0.008
-7.560E-06,-0.008
-7.550E-06,0.000
-7.540E-06,-0.008
-7.530E-06,0.000
-7.520E-06,0.000
-7.510E-06,0.000
-7.500E-06,0.000
-7.490E-06,0.000
-7.480E-06,0.000
-7.470E-06,0.000
-7.460E-06,0.000
-7.450E-06,0.000
-7.440E-06,-0.008
-7.430E-06,0.000
-7.420E-06,0.000
-7.410E-06,0.000
-7.400E-06,-0.008
-7.390E-06,-0.008
-7.380E-06,0.000
-7.370E-06,0.008
-7.360E-06,-0.008
-7.350E-06,0.000
-7.340E-06,0.000
-7.330E-06,0.000
-7.320E-06,-0.008
-7.310E-06,0.000
-7.300E-06,0.000
-7.290E-06,0.000
-7.280E-06,0.000
-7.270E-06,0.000
-7.260E-06,-0.008
-7.250E-06,0.000
-7.240E-06,-0.008
-7.230E-06,-0.008
-7.220E-06,0.000
-7.210E-06,0.000
-7.200E-06,0.008
-7.190E-06,0.000
-7.180E-06,0.000
-7.170E-06,-0.008
-7.160E-06,0.000
-7.150E-06,0.000
-7.140E-06,0.000
-7.130E-06,0.000
-7.120E-06,0.000
-7.110E-06,-0.008
-7.100E-06,0.000
-7.090E-06,0.000
-7.080E-06,0.000
-7.070E-06,0.000
-7.060E-06,-0.008
-7.050E-06,0.000
-7.040E-06,-0.008
-7.030E-06,0.000
-7.020E-06,-0.008
-7.010E-06,0.000
-7.000E-06,0.000
-6.990E-06,0.000
-6.980E-06,0.000
-6.970E-06,0.008
-6.960E-06,-0.008
-6.950E-06,-0.008
-6.940E-06,0.000
-6.930E-06,-0.008
-6.920E-06,-0.008
-6.910E-06,0.000
-6.900E-06,0.008
-6.890E-06,0.008
-6.880E-06,-0.008
-6.870E-06,0.000
-6.860E-06,0.000
-6.850E-06,0.000
-6.840E-06,0.000
-6.830E-06,0.000
-6.820E-06,-0.008
-6.810E-06,0.000
-6.800E-06,0.000
-6.790E-06,0.000
-6.780E-06,0.000
-6.770E-06,0.000
-6.760E-06,0.000
-6.750E-06,0.000
-6.740E-06,-0.008
-6.730E-06,0.000
-6.720E-06,-0.008
-6.710E-06,0.000
-6.700E-06,-0.008
-6.690E-06,-0.008
-6.680E-06,0.000
-6.670E-06,-0.008
-6.660E-06,0.000
-6.650E-06,-0.008
-6.640E-06,0.000
-6.630E-06,0.000
-6.620E-06,0.000
-6.610E-06,-0.008
-6.600E-06,-0.008
-6.590E-06,0.000
-6.580E-06,-0.008
-6.570E-06,-0.008
-6.560E-06,0.000
-6.550E-06,0.008
-6.540E-06,0.008
-6.530E-06,0.008
-6.520E-06,-0.008
-6.510E-06,0.000
-6.500E-06,0.000
-6.490E-06,0.000
-6.480E-06,0.000
-6.470E-06,0.000
-6.460E-06,0.000
-6.450E-06,0.000
-6.440E-06,0.008
-6.430E-06,0.000
-6.420E-06,0.000
-6.410E-06,0.000
-6.400E-06,0.008
-6.390E-06,-0.008
-6.380E-06,0.000
-6.370E-06,0.000
-6.360E-06,0.000
-6.350E-06,0.008
-6.340E-06,-0.008
-6.330E-06,0.000
-6.320E-06,0.000
-6.310E-06,0.000
-6.300E-06,0.000
-6.290E-06,0.008
-6.280E-06,0.000
-6.270E-06,0.000
-6.260E-06,-0.008
-6.250E-06,0.000
-6.240E-06,-0.008
-6.230E-06,0.000
-6.220E-06,0.000
-6.210E-06,0.000
-6.200E-06,0.000
-6.190E-06,0.000
-6.180E-06,-0.008
-6.170E-06,-0.008
-6.160E-06,0.000
-6.150E-06,0.000
-6.140E-06,0.000
-6.130E-06,0.000
-6.120E-06,0.008
-6.110E-06,0.000
-6.100E-06,0.000
-6.090E-06,-0.008
-6.080E-06,0.000
-6.070E-06,-0.008
-6.060E-06,0.000
-6.050E-06,0.008
-6.040E-06,-0.008
-6.030E-06,-0.008
-6.020E-06,0.000
-6.010E-06,0.000
-6.000E-06,0.000
-5.990E-06,0.000
-5.980E-06,0.000
-5.970E-06,0.000
-5.960E-06,-0.008
-5.950E-06,-0.008
-5.940E-06,0.000
-5.930E-06,-0.008
-5.920E-06,0.000
-5.910E-06,-0.008
-5.900E-06,0.000
-5.890E-06,0.000
-5.880E-06,0.000
-5.870E-06,0.000
-5.860E-06,0.000
-5.850E-06,0.000
-5.840E-06,0.008
-5.830E-06,0.016
-5.820E-06,0.008
-5.810E-06,0.008
-5.800E-06,0.008
-5.790E-06,0.008
-5.780E-06,0.008
-5.770E-06,0.016
-5.760E-06,0.016
-5.750E-06,0.008
-5.740E-06,0.008
-5.730E-06,-0.008
-5.720E-06,0.000
-5.710E-06,0.000
-5.700E-06,-0.008
-5.690E-06,0.008
-5.680E-06,0.000
-5.670E-06,0.000
-5.660E-06,0.000
-5.650E-06,0.000
-5.640E-06,0.000
-5.630E-06,0.008
-5.620E-06,0.000
-5.610E-06,0.000
-5.600E-06,0.000
-5.590E-06,0.000
-5.580E-06,-0.008
-5.570E-06,0.000
-5.560E-06,0.008
-5.550E-06,0.008
-5.540E-06,-0.008
-5.530E-06,0.000
-5.520E-06,0.000
-5.510E-06,0.000
-5.500E-06,0.000
-5.490E-06,0.000
-5.480E-06,0.000
-5.470E-06,0.000
-5.460E-06,-0.008
-5.450E-06,0.008
-5.440E-06,0.000
-5.430E-06,0.008
-5.420E-06,0.000
-5.410E-06,0.000
-5.400E-06,0.008
-5.390E-06,0.000
-5.380E-06,0.000
-5.370E-06,0.000
-5.360E-06,0.000
-5.350E-06,0.008
-5.340E-06,0.000
-5.330E-06,0.008
-5.320E-06,0.000
-5.310E-06,-0.008
-5.300E-06,0.000
-5.290E-06,0.008
-5.280E-06,-0.008
-5.270E-06,-0.008
-5.260E-06,0.000
-5.250E-06,0.000
-5.240E-06,0.000
-5.230E-06,0.000
-5.220E-06,0.000
-5.210E-06,0.000
-5.200E-06,-0.008
-5.190E-06,0.008
-5.180E-06,0.008
-5.170E-06,0.008
-5.160E-06,0.008
-5.150E-06,-0.008
-5.140E-06,0.000
-5.130E-06,0.000
-5.120E-06,0.000
-5.110E-06,0.000
-5.100E-06,0.000
-5.090E-06,0.000
-5.080E-06,0.000
-5.070E-06,0.000
-5.060E-06,0.000
-5.050E-06,0.000
-5.040E-06,0.000
-5.030E-06,0.008
-5.020E-06,-0.008
-5.010E-06,-0.008
-5.000E-06,0.000
-4.990E-06,-0.008
-4.980E-06,0.000
-4.970E-06,0.000
-4.960E-06,0.000
-4.950E-06,0.000
-4.940E-06,0.000
-4.930E-06,0.000
-4.920E-06,-0.008
-4.910E-06,0.000
-4.900E-06,0.008
-4.890E-06,0.000
-4.880E-06,-0.008
-4.870E-06,-0.008
-4.860E-06,0.000
-4.850E-06,0.016
-4.840E-06,0.008
-4.830E-06,0.008
-4.820E-06,0.008
-4.810E-06,0.008
-4.800E-06,-0.008
-4.790E-06,0.000
-4.780E-06,0.000
-4.770E-06,0.000
-4.760E-06,0.000
-4.750E-06,0.000
-4.740E-06,-0.008
-4.730E-06,0.000
-4.720E-06,-0.008
-4.710E-06,0.000
-4.700E-06,0.000
-4.690E-06,0.000
-4.680E-06,0.000
-4.670E-06,-0.008
-4.660E-06,-0.008
-4.650E-06,0.008
-4.640E-06,0.000
-4.630E-06,0.000
-4.620E-06,0.000
-4.610E-06,0.000
-4.600E-06,0.008
-4.590E-06,0.000
-4.580E-06,0.000
-4.570E-06,0.008
-4.560E-06,-0.008
-4.550E-06,-0.008
-4.540E-06,0.000
-4.530E-06,-0.008
-4.520E-06,0.000
-4.510E-06,0.000
-4.500E-06,0.000
-4.490E-06,0.008
-4.480E-06,0.000
-4.470E-06,-0.008
-4.460E-06,0.000
-4.450E-06,-0.008
-4.440E-06,-0.008
-4.430E-06,0.000
-4.420E-06,-0.008
-4.410E-06,-0.008
-4.400E-06,0.000
-4.390E-06,0.000
-4.380E-06,0.008
-4.370E-06,0.000
-4.360E-06,-0.008
-4.350E-06,0.000
-4.340E-06,-0.008
-4.330E-06,0.000
-4.320E-06,0.000
-4.310E-06,0.000
-4.300E-06,0.008
-4.290E-06,0.000
-4.280E-06,0.000
-4.270E-06,-0.008
-4.260E-06,0.000
-4.250E-06,-0.008
-4.240E-06,0.008
-4.230E-06,-0.008
-4.220E-06,0.008
-4.210E-06,0.008
-4.200E-06,0.008
-4.190E-06,0.008
-4.180E-06,0.008
-4.170E-06,-0.008
-4.160E-06,0.000
-4.150E-06,0.000
-4.140E-06,0.000
-4.130E-06,0.000
-4.120E-06,0.000
-4.110E-06,0.000
-4.100E-06,0.000
-4.090E-06,0.000
-4.080E-06,0.000
-4.070E-06,0.008
-4.060E-06,-0.008
-4.050E-06,0.008
-4.040E-06,0.008
-4.030E-06,0.008
-4.020E-06,-0.008
-4.010E-06,-0.008
-4.000E-06,0.000
-3.990E-06,0.016
-3.980E-06,0.008
-3.970E-06,0.000
-3.960E-06,0.000
-3.950E-06,0.000
-3.940E-06,0.000
-3.930E-06,0.000
-3.920E-06,0.000
-3.910E-06,0.000
-3.900E-06,0.000
-3.890E-06,0.000
-3.880E-06,0.000
-3.870E-06,-0.008
-3.860E-06,0.000
-3.850E-06,0.000
-3.840E-06,0.000
-3.830E-06,0.008
-3.820E-06,-0.008
-3.810E-06,-0.008
-3.800E-06,0.000
-3.790E-06,-0.008
-3.780E-06,0.008
-3.770E-06,0.008
-3.760E-06,0.008
-3.750E-06,-0.008
-3.740E-06,0.000
-3.730E-06,0.000
-3.720E-06,0.000
-3.710E-06,0.008
-3.700E-06,0.000
-3.690E-06,0.000
-3.680E-06,-0.008
-3.670E-06,0.000
-3.660E-06,-0.008
-3.650E-06,0.000
-3.640E-06,0.000
-3.630E-06,0.000
-3.620E-06,0.000
-3.610E-06,0.000
-3.600E-06,0.000
-3.590E-06,0.000
-3.580E-06,-0.008
-3.570E-06,0.000
-3.560E-06,-0.008
-3.550E-06,0.000
-3.540E-06,0.008
-3.530E-06,0.008
-3.520E-06,-0.008
-3.510E-06,0.000
-3.500E-06,-0.032
-3.490E-06,0.000
-3.480E-06,0.096
-3.470E-06,0.496
-3.460E-06,1.080
-3.450E-06,1.072
-3.440E-06,1.080
-3.430E-06,1.088
-3.420E-06,1.080
-3.410E-06,0.456
-3.400E-06,-0.696
-3.390E-06,-1.048
-3.380E-06,-1.040
-3.370E-06,-1.032
-3.360E-06,-1.040
-3.350E-06,-1.040
-3.340E-06,-1.040
-3.330E-06,-1.048
-3.320E-06,-1.040
-3.310E-06,-1.032
-3.300E-06,-0.632
-3.290E-06,-0.256
-3.280E-06,0.048
-3.270E-06,0.272
-3.260E-06,0.360
-3.250E-06,0.496
-3.240E-06,0.632
-3.230E-06,0.696
-3.220E-06,0.696
-3.210E-06,0.656
-3.200E-06,0.584
-3.190E-06,0.600
-3.180E-06,0.648
-3.170E-06,0.704
-3.160E-06,0.728
-3.150E-06,0.696
-3.140E-06,0.600
-3.130E-06,0.400
-3.120E-06,0.224
-3.110E-06,0.024
-3.100E-06,-0.120
-3.090E-06,-0.240
-3.080E-06,-0.240
-3.070E-06,-0.240
-3.060E-06,-0.192
-3.050E-06,-0.080
-3.040E-06,0.080
-3.030E-06,0.288
-3.020E-06,0.504
-3.010E-06,0.704
-3.000E-06,0.872
-2.990E-06,0.952
-2.980E-06,0.968
-2.970E-06,0.880
-2.960E-06,0.736
-2.950E-06,0.520
-2.940E-06,0.288
-2.930E-06,0.040
-2.920E-06,-0.208
-2.910E-06,-0.440
-2.900E-06,-0.680
-2.890E-06,-0.912
-2.880E-06,-1.040
-2.870E-06,-1.040
-2.860E-06,-1.048
-2.850E-06,-1.040
-2.840E-06,-1.032
-2.830E-06,-1.040
-2.820E-06,-1.048
-2.810E-06,-0.808
-2.800E-06,-0.496
-2.790E-06,-0.200
-2.780E-06,0.080
-2.770E-06,0.344
-2.760E-06,0.536
-2.750E-06,0.688
-2.740E-06,0.776
-2.730E-06,0.768
-2.720E-06,0.752
-2.710E-06,0.688
-2.700E-06,0.576
-2.690E-06,0.440
-2.680E-06,0.296
-2.670E-06,0.192
-2.660E-06,0.104
-2.650E-06,0.056
-2.640E-06,0.032
-2.630E-06,0.000
-2.620E-06,-0.016
-2.610E-06,-0.024
-2.600E-06,-0.040
-2.590E-06,-0.088
-2.580E-06,-0.144
-2.570E-06,-0.224
-2.560E-06,-0.264
-2.550E-06,-0.248
-2.540E-06,-0.176
-2.530E-06,-0.056
-2.520E-06,0.072
-2.510E-06,0.192
-2.500E-06,0.280
-2.490E-06,0.336
-2.480E-06,0.368
-2.470E-06,0.384
-2.460E-06,0.384
-2.450E-06,0.368
-2.440E-06,0.328
-2.430E-06,0.240
-2.420E-06,0.168
-2.410E-06,0.072
-2.400E-06,-0.008
-2.390E-06,-0.064
-2.380E-06,-0.120
-2.370E-06,-0.144
-2.360E-06,-0.144
-2.350E-06,-0.144
-2.340E-06,-0.128
-2.330E-06,-0.104
-2.320E-06,-0.104
-2.310E-06,-0.064
-2.300E-06,-0.040
-2.290E-06,-0.032
-2.280E-06,0.040
-2.270E-06,0.032
-2.260E-06,0.048
-2.250E-06,0.072
-2.240E-06,0.064
-2.230E-06,0.032
-2.220E-06,0.064
-2.210E-06,0.080
-2.200E-06,0.232
-2.190E-06,0.112
-2.180E-06,0.224
-2.170E-06,0.248
-2.160E-06,0.280
-2.150E-06,0.432
-2.140E-06,0.336
-2.130E-06,0.288
-2.120E-06,0.240
-2.110E-06,0.184
-2.100E-06,0.224
-2.090E-06,0.280
-2.080E-06,0.232
-2.070E-06,0.192
-2.060E-06,0.112
-2.050E-06,0.032
-2.040E-06,0.000
-2.030E-06,0.000
-2.020E-06,0.040
-2.010E-06,0.072
-2.000E-06,0.048
-1.990E-06,0.016
-1.980E-06,-0.056
-1.970E-06,-0.080
-1.960E-06,-0.008
-1.950E-06,0.024
-1.940E-06,0.088
-1.930E-06,0.128
-1.920E-06,0.104
-1.910E-06,0.184
-1.900E-06,0.240
-1.890E-06,0.264
-1.880E-06,0.048
-1.870E-06,0.528
-1.860E-06,-0.160
-1.850E-06,-0.136
-1.840E-06,0.416
-1.830E-06,0.112
-1.820E-06,0.736
-1.810E-06,1.072
-1.800E-06,0.632
-1.790E-06,0.400
-1.780E-06,-0.048
-1.770E-06,-0.208
-1.760E-06,0.360
-1.750E-06,0.488
-1.740E-06,0.584
-1.730E-06,0.488
-1.720E-06,0.112
-1.710E-06,-0.192
-1.700E-06,-0.256
-1.690E-06,-0.328
-1.680E-06,-0.208
-1.670E-06,-0.184
-1.660E-06,-0.192
-1.650E-06,-0.184
-1.640E-06,-0.200
-1.630E-06,-0.240
-1.620E-06,-0.320
-1.610E-06,-0.408
-1.600E-06,-0.496
-1.590E-06,-0.480
-1.580E-06,-0.368
-1.570E-06,-0.160
-1.560E-06,0.072
-1.550E-06,0.216
-1.540E-06,0.544
-1.530E-06,0.448
-1.520E-06,0.296
-1.510E-06,0.312
-1.500E-06,0.296
-1.490E-06,0.464
-1.480E-06,0.552
-1.470E-06,1.080
-1.460E-06,0.872
-1.450E-06,0.568
-1.440E-06,0.224
-1.430E-06,-0.368
-1.420E-06,0.304
-1.410E-06,1.080
-1.400E-06,1.080
-1.390E-06,1.080
-1.380E-06,1.072
-1.370E-06,0.952
-1.360E-06,0.584
-1.350E-06,0.344
-1.340E-06,0.696
-1.330E-06,1.080
-1.320E-06,1.080
-1.310E-06,1.080
-1.300E-06,0.592
-1.290E-06,-0.024
-1.280E-06,-0.312
-1.270E-06,-0.344
-1.260E-06,-0.168
-1.250E-06,-0.080
-1.240E-06,-0.064
-1.230E-06,-0.528
-1.220E-06,-0.952
-1.210E-06,-1.040
-1.200E-06,-1.048
-1.190E-06,-1.040
-1.180E-06,-0.672
-1.170E-06,-0.424
-1.160E-06,-0.344
-1.150E-06,-0.504
-1.140E-06,-0.672
-1.130E-06,-0.704
-1.120E-06,-0.840
-1.110E-06,-0.744
-1.100E-06,-0.632
-1.090E-06,-0.512
-1.080E-06,-0.432
-1.070E-06,-0.328
-1.060E-06,-0.368
-1.050E-06,-0.320
-1.040E-06,-0.336
-1.030E-06,-0.264
-1.020E-06,-0.056
-1.010E-06,0.208
-1.000E-06,0.400
-9.900E-07,0.544
-9.800E-07,0.864
-9.700E-07,0.912
-9.600E-07,1.040
-9.500E-07,1.080
-9.400E-07,1.088
-9.300E-07,1.080
-9.200E-07,1.080
-9.100E-07,1.080
-9.000E-07,1.080
-8.900E-07,0.816
-8.800E-07,0.608
-8.700E-07,0.416
-8.600E-07,0.576
-8.500E-07,1.080
-8.400E-07,1.072
-8.300E-07,1.080
-8.200E-07,1.080
-8.100E-07,1.072
-8.000E-07,1.080
-7.900E-07,1.080
-7.800E-07,1.080
-7.700E-07,1.072
-7.600E-07,0.616
-7.500E-07,0.280
-7.400E-07,-0.048
-7.300E-07,-0.120
-7.200E-07,0.128
-7.100E-07,0.728
-7.000E-07,1.080
-6.900E-07,1.080
-6.800E-07,0.624
-6.700E-07,-0.608
-6.600E-07,-1.040
-6.500E-07,-1.032
-6.400E-07,-1.032
-6.300E-07,-1.040
-6.200E-07,-0.824
-6.100E-07,-0.488
-6.000E-07,0.016
-5.900E-07,0.032
-5.800E-07,-0.264
-5.700E-07,-0.608
-5.600E-07,-0.648
-5.500E-07,-0.464
-5.400E-07,-0.256
-5.300E-07,0.008
-5.200E-07,0.152
-5.100E-07,0.368
-5.000E-07,0.440
-4.900E-07,0.680
-4.800E-07,1.032
-4.700E-07,1.080
-4.600E-07,1.088
-4.500E-07,1.080
-4.400E-07,1.088
-4.300E-07,1.080
-4.200E-07,1.072
-4.100E-07,1.080
-4.000E-07,1.080
-3.900E-07,1.088
-3.800E-07,1.088
-3.700E-07,1.080
-3.600E-07,1.088
-3.500E-07,1.088
-3.400E-07,1.080
-3.300E-07,1.080
-3.200E-07,1.032
-3.100E-07,0.872
-3.000E-07,1.080
-2.900E-07,1.088
-2.800E-07,1.088
-2.700E-07,1.080
-2.600E-07,1.080
-2.500E-07,1.072
-2.400E-07,1.080
-2.300E-07,1.088
-2.200E-07,1.088
-2.100E-07,0.864
-2.000E-07,0.600
-1.900E-07,0.352
-1.800E-07,0.072
-1.700E-07,0.128
-1.600E-07,0.264
-1.500E-07,0.576
-1.400E-07,0.784
-1.300E-07,0.808
-1.200E-07,0.976
-1.100E-07,0.712
-1.000E-07,0.536
-9.000E-08,0.336
-8.000E-08,0.528
-7.000E-08,0.744
-6.000E-08,0.728
-5.000E-08,0.800
-4.000E-08,0.608
-3.000E-08,-0.040
-2.000E-08,-0.232
-1.000E-08,-0.568
0.000E+00,-0.080
1.000E-08,0.696
2.000E-08,1.088
3.000E-08,1.080
4.000E-08,1.088
5.000E-08,1.080
6.000E-08,1.080
7.000E-08,1.072
8.000E-08,1.080
9.000E-08,1.080
1.000E-07,1.072
1.100E-07,1.080
1.200E-07,1.088
1.300E-07,1.080
1.400E-07,1.072
1.500E-07,1.080
1.600E-07,0.552
1.700E-07,0.136
1.800E-07,0.200
1.900E-07,0.456
2.000E-07,0.984
2.100E-07,1.072
2.200E-07,1.080
2.300E-07,0.920
2.400E-07,0.752
2.500E-07,0.728
2.600E-07,0.864
2.700E-07,1.080
2.800E-07,1.080
2.900E-07,1.080
3.000E-07,1.088
3.100E-07,1.088
3.200E-07,1.080
3.300E-07,1.080
3.400E-07,1.088
3.500E-07,1.088
3.600E-07,1.080
3.700E-07,1.080
3.800E-07,0.720
3.900E-07,0.128
4.000E-07,-0.408
4.100E-07,-1.048
4.200E-07,-1.040
4.300E-07,-1.032
4.400E-07,-1.040
4.500E-07,-1.048
4.600E-07,-1.048
4.700E-07,-1.048
4.800E-07,-1.048
4.900E-07,-1.048
5.000E-07,-1.048
5.100E-07,-1.048
5.200E-07,-1.032
5.300E-07,-1.040
5.400E-07,-1.048
5.500E-07,-1.040
5.600E-07,-1.040
5.700E-07,-1.040
5.800E-07,-1.048
5.900E-07,-1.040
6.000E-07,-1.040
6.100E-07,-1.040
6.200E-07,-1.040
6.300E-07,-1.048
6.400E-07,-1.040
6.500E-07,-1.048
6.600E-07,-1.048
6.700E-07,-1.032
6.800E-07,-1.032
6.900E-07,-0.944
7.000E-07,-0.448
7.100E-07,0.056
7.200E-07,0.664
7.300E-07,1.008
7.400E-07,1.080
7.500E-07,1.088
7.600E-07,1.088
7.700E-07,1.080
7.800E-07,1.088
7.900E-07,1.080
8.000E-07,1.088
8.100E-07,1.080
8.200E-07,1.072
8.300E-07,1.080
8.400E-07,1.080
8.500E-07,1.080
8.600E-07,1.080
8.700E-07,1.080
8.800E-07,1.080
8.900E-07,1.080
9.000E-07,1.080
9.100E-07,1.080
9.200E-07,1.080
9.300E-07,1.072
9.400E-07,1.080
9.500E-07,1.088
9.600E-07,1.064
9.700E-07,1.024
9.800E-07,0.968
9.900E-07,0.912
1.000E-06,0.864
1.010E-06,0.840
1.020E-06,0.816
1.030E-06,0.784
1.040E-06,0.752
1.050E-06,0.696
1.060E-06,0.616
1.070E-06,0.536
1.080E-06,0.448
1.090E-06,0.400
1.100E-06,0.368
1.110E-06,0.376
1.120E-06,0.392
1.130E-06,0.424
1.140E-06,0.448
1.150E-06,0.440
1.160E-06,0.440
1.170E-06,0.472
1.180E-06,0.504
1.190E-06,0.504
1.200E-06,0.504
1.210E-06,0.496
1.220E-06,0.440
1.230E-06,0.416
1.240E-06,0.408
1.250E-06,0.400
1.260E-06,0.400
1.270E-06,0.432
1.280E-06,0.544
1.290E-06,0.664
1.300E-06,0.760
1.310E-06,0.864
1.320E-06,0.952
1.330E-06,1.048
1.340E-06,1.024
1.350E-06,0.832
1.360E-06,0.600
1.370E-06,0.376
1.380E-06,0.192
1.390E-06,0.088
1.400E-06,-0.016
1.410E-06,-0.064
1.420E-06,-0.056
1.430E-06,0.000
1.440E-06,0.040
1.450E-06,0.112
1.460E-06,0.160
1.470E-06,0.192
1.480E-06,0.240
1.490E-06,0.280
1.500E-06,0.304
1.510E-06,0.344
1.520E-06,0.416
1.530E-06,0.504
1.540E-06,0.600
1.550E-06,0.648
1.560E-06,0.656
1.570E-06,0.592
1.580E-06,0.480
1.590E-06,0.328
1.600E-06,0.184
1.610E-06,0.072
1.620E-06,-0.024
1.630E-06,-0.096
1.640E-06,-0.192
1.650E-06,-0.272
1.660E-06,-0.312
1.670E-06,-0.336
1.680E-06,-0.344
1.690E-06,-0.312
1.700E-06,-0.280
1.710E-06,-0.216
1.720E-06,-0.152
1.730E-06,-0.104
1.740E-06,-0.064
1.750E-06,-0.040
1.760E-06,-0.056
1.770E-06,-0.088
1.780E-06,-0.128
1.790E-06,-0.160
1.800E-06,-0.208
1.810E-06,-0.256
1.820E-06,-0.288
1.830E-06,-0.312
1.840E-06,-0.312
1.850E-06,-0.312
1.860E-06,-0.296
1.870E-06,-0.272
1.880E-06,-0.240
1.890E-06,-0.200
1.900E-06,-0.144
1.910E-06,-0.136
1.920E-06,-0.112
1.930E-06,-0.104
1.940E-06,-0.088
1.950E-06,-0.064
1.960E-06,-0.072
1.970E-06,-0.112
1.980E-06,-0.168
1.990E-06,-0.224
2.000E-06,-0.272
2.010E-06,-0.312
2.020E-06,-0.328
2.030E-06,-0.336
2.040E-06,-0.328
2.050E-06,-0.304
2.060E-06,-0.264
2.070E-06,-0.224
2.080E-06,-0.168
2.090E-06,-0.112
2.100E-06,-0.064
2.110E-06,-0.048
2.120E-06,-0.032
2.130E-06,-0.024
2.140E-06,-0.032
2.150E-06,-0.040
2.160E-06,-0.064
2.170E-06,-0.088
2.180E-06,-0.104
2.190E-06,-0.136
2.200E-06,-0.160
2.210E-06,-0.176
2.220E-06,-0.200
2.230E-06,-0.200
2.240E-06,-0.200
2.250E-06,-0.200
2.260E-06,-0.168
2.270E-06,-0.144
2.280E-06,-0.104
2.290E-06,-0.064
2.300E-06,0.000
2.310E-06,0.072
2.320E-06,0.176
2.330E-06,0.288
2.340E-06,0.360
2.350E-06,0.384
2.360E-06,0.376
2.370E-06,0.352
2.380E-06,0.312
2.390E-06,0.232
2.400E-06,0.136
2.410E-06,0.024
2.420E-06,-0.088
2.430E-06,-0.176
2.440E-06,-0.224
2.450E-06,-0.240
2.460E-06,-0.272
2.470E-06,-0.312
2.480E-06,-0.312
2.490E-06,-0.288
2.500E-06,-0.240
2.510E-06,-0.168
2.520E-06,-0.168
2.530E-06,-0.200
2.540E-06,-0.200
2.550E-06,-0.144
2.560E-06,-0.080
2.570E-06,-0.040
2.580E-06,-0.048
2.590E-06,-0.064
2.600E-06,-0.064
2.610E-06,-0.048
2.620E-06,-0.040
2.630E-06,-0.064
2.640E-06,-0.096
2.650E-06,-0.112
2.660E-06,-0.136
2.670E-06,-0.112
2.680E-06,-0.088
2.690E-06,-0.032
2.700E-06,0.000
2.710E-06,0.032
2.720E-06,0.040
2.730E-06,0.056
2.740E-06,0.040
2.750E-06,0.024
2.760E-06,0.032
2.770E-06,0.040
2.780E-06,0.072
2.790E-06,0.120
2.800E-06,0.184
2.810E-06,0.240
2.820E-06,0.312
2.830E-06,0.368
2.840E-06,0.416
2.850E-06,0.488
2.860E-06,0.560
2.870E-06,0.608
2.880E-06,0.640
2.890E-06,0.600
2.900E-06,0.528
2.910E-06,0.432
2.920E-06,0.376
2.930E-06,0.336
2.940E-06,0.328
2.950E-06,0.320
2.960E-06,0.336
2.970E-06,0.336
2.980E-06,0.336
2.990E-06,0.320
3.000E-06,0.304
3.010E-06,0.240
3.020E-06,0.176
3.030E-06,0.120
3.040E-06,0.056
3.050E-06,0.024
3.060E-06,0.008
3.070E-06,-0.024
3.080E-06,-0.056
3.090E-06,-0.104
3.100E-06,-0.144
3.110E-06,-0.176
3.120E-06,-0.192
3.130E-06,-0.200
3.140E-06,-0.200
3.150E-06,-0.176
3.160E-06,-0.160
3.170E-06,-0.128
3.180E-06,-0.104
3.190E-06,-0.064
3.200E-06,-0.048
3.210E-06,-0.008
3.220E-06,0.032
3.230E-06,0.048
3.240E-06,0.080
3.250E-06,0.096
3.260E-06,0.128
3.270E-06,0.160
3.280E-06,0.176
3.290E-06,0.200
3.300E-06,0.216
3.310E-06,0.248
3.320E-06,0.280
3.330E-06,0.312
3.340E-06,0.360
3.350E-06,0.416
3.360E-06,0.440
3.370E-06,0.488
3.380E-06,0.528
3.390E-06,0.552
3.400E-06,0.568
3.410E-06,0.600
3.420E-06,0.600
3.430E-06,0.576
3.440E-06,0.552
3.450E-06,0.504
3.460E-06,0.424
3.470E-06,0.360
3.480E-06,0.272
3.490E-06,0.184
3.500E-06,0.120
3.510E-06,0.072
3.520E-06,0.040
3.530E-06,0.008
3.540E-06,-0.008
3.550E-06,-0.024
