mediciones/6-26/25.0/WaveData5975.csv

#timebase=2000000(ps)
,#voltbase=200000(mv/100)
#size=4000
-8.150E-06,0.000
-8.140E-06,0.000
-8.130E-06,0.000
-8.120E-06,0.000
-8.110E-06,0.008
-8.100E-06,0.008
-8.090E-06,0.008
-8.080E-06,-0.008
-8.070E-06,0.000
-8.060E-06,0.000
-8.050E-06,0.000
-8.040E-06,0.008
-8.030E-06,0.000
-8.020E-06,0.000
-8.010E-06,0.000
-8.000E-06,0.008
-7.990E-06,0.000
-7.980E-06,0.008
-7.970E-06,0.008
-7.960E-06,0.016
-7.950E-06,0.008
-7.940E-06,0.008
-7.930E-06,-0.008
-7.920E-06,0.000
-7.910E-06,0.000
-7.900E-06,0.000
-7.890E-06,0.000
-7.880E-06,0.000
-7.870E-06,0.000
-7.860E-06,0.008
-7.850E-06,0.008
-7.840E-06,-0.008
-7.830E-06,0.000
-7.820E-06,0.000
-7.810E-06,0.000
-7.800E-06,-0.008
-7.790E-06,-0.008
-7.780E-06,0.000
-7.770E-06,0.008
-7.760E-06,0.008
-7.750E-06,-0.008
-7.740E-06,-0.008
-7.730E-06,0.000
-7.720E-06,-0.008
-7.710E-06,0.000
-7.700E-06,-0.008
-7.690E-06,0.000
-7.680E-06,0.000
-7.670E-06,0.000
-7.660E-06,-0.008
-7.650E-06,0.000
-7.640E-06,0.000
-7.630E-06,0.000
-7.620E-06,0.000
-7.610E-06,0.000
-7.600E-06,0.000
-7.590E-06,0.008
-7.580E-06,0.008
-7.570E-06,-0.008
-7.560E-06,-0.008
-7.550E-06,0.000
-7.540E-06,0.008
-7.530E-06,0.008
-7.520E-06,-0.008
-7.510E-06,0.000
-7.500E-06,0.000
-7.490E-06,0.000
-7.480E-06,0.000
-7.470E-06,-0.008
-7.460E-06,0.000
-7.450E-06,0.000
-7.440E-06,0.000
-7.430E-06,0.000
-7.420E-06,-0.008
-7.410E-06,0.000
-7.400E-06,0.000
-7.390E-06,0.000
-7.380E-06,0.000
-7.370E-06,0.000
-7.360E-06,0.000
-7.350E-06,-0.008
-7.340E-06,0.000
-7.330E-06,0.008
-7.320E-06,0.008
-7.310E-06,-0.008
-7.300E-06,0.000
-7.290E-06,0.000
-7.280E-06,0.000
-7.270E-06,0.000
-7.260E-06,0.000
-7.250E-06,0.000
-7.240E-06,0.000
-7.230E-06,0.000
-7.220E-06,0.000
-7.210E-06,0.000
-7.200E-06,0.000
-7.190E-06,0.000
-7.180E-06,0.000
-7.170E-06,0.008
-7.160E-06,0.000
-7.150E-06,0.000
-7.140E-06,0.008
-7.130E-06,0.008
-7.120E-06,0.008
-7.110E-06,0.008
-7.100E-06,0.008
-7.090E-06,-0.008
-7.080E-06,0.000
-7.070E-06,0.000
-7.060E-06,0.000
-7.050E-06,0.000
-7.040E-06,-0.008
-7.030E-06,0.000
-7.020E-06,0.008
-7.010E-06,0.016
-7.000E-06,-0.008
-6.990E-06,0.008
-6.980E-06,0.000
-6.970E-06,0.000
-6.960E-06,-0.008
-6.950E-06,0.000
-6.940E-06,0.000
-6.930E-06,0.000
-6.920E-06,0.000
-6.910E-06,0.000
-6.900E-06,0.000
-6.890E-06,0.016
-6.880E-06,0.008
-6.870E-06,0.000
-6.860E-06,-0.008
-6.850E-06,-0.008
-6.840E-06,0.000
-6.830E-06,0.024
-6.820E-06,0.040
-6.810E-06,0.008
-6.800E-06,0.000
-6.790E-06,-0.024
-6.780E-06,0.000
-6.770E-06,0.016
-6.760E-06,0.032
-6.750E-06,0.032
-6.740E-06,-0.008
-6.730E-06,-0.008
-6.720E-06,-0.024
-6.710E-06,-0.008
-6.700E-06,0.016
-6.690E-06,0.016
-6.680E-06,0.008
-6.670E-06,-0.024
-6.660E-06,-0.008
-6.650E-06,0.000
-6.640E-06,0.008
-6.630E-06,0.016
-6.620E-06,0.008
-6.610E-06,-0.008
-6.600E-06,-0.008
-6.590E-06,-0.008
-6.580E-06,0.016
-6.570E-06,-0.008
-6.560E-06,0.000
-6.550E-06,0.024
-6.540E-06,0.000
-6.530E-06,0.000
-6.520E-06,-0.008
-6.510E-06,0.000
-6.500E-06,0.008
-6.490E-06,0.016
-6.480E-06,0.016
-6.470E-06,0.016
-6.460E-06,0.024
-6.450E-06,0.016
-6.440E-06,0.000
-6.430E-06,0.016
-6.420E-06,0.024
-6.410E-06,0.032
-6.400E-06,0.032
-6.390E-06,0.032
-6.380E-06,0.016
-6.370E-06,0.008
-6.360E-06,-0.008
-6.350E-06,-0.008
-6.340E-06,0.016
-6.330E-06,0.024
-6.320E-06,0.008
-6.310E-06,0.008
-6.300E-06,-0.008
-6.290E-06,-0.008
-6.280E-06,0.008
-6.270E-06,0.008
-6.260E-06,0.016
-6.250E-06,0.000
-6.240E-06,0.000
-6.230E-06,-0.016
-6.220E-06,-0.008
-6.210E-06,0.000
-6.200E-06,0.008
-6.190E-06,0.000
-6.180E-06,-0.008
-6.170E-06,-0.008
-6.160E-06,0.000
-6.150E-06,0.000
-6.140E-06,0.008
-6.130E-06,0.008
-6.120E-06,-0.016
-6.110E-06,-0.024
-6.100E-06,0.000
-6.090E-06,-0.008
-6.080E-06,0.000
-6.070E-06,0.008
-6.060E-06,0.008
-6.050E-06,0.008
-6.040E-06,0.000
-6.030E-06,-0.008
-6.020E-06,0.008
-6.010E-06,0.000
-6.000E-06,0.016
-5.990E-06,0.008
-5.980E-06,0.008
-5.970E-06,-0.008
-5.960E-06,0.000
-5.950E-06,-0.008
-5.940E-06,0.000
-5.930E-06,0.008
-5.920E-06,0.008
-5.910E-06,0.008
-5.900E-06,0.000
-5.890E-06,0.008
-5.880E-06,0.000
-5.870E-06,0.000
-5.860E-06,0.000
-5.850E-06,0.000
-5.840E-06,0.000
-5.830E-06,0.000
-5.820E-06,0.000
-5.810E-06,0.000
-5.800E-06,-0.008
-5.790E-06,-0.008
-5.780E-06,-0.008
-5.770E-06,0.000
-5.760E-06,0.000
-5.750E-06,0.000
-5.740E-06,0.000
-5.730E-06,0.000
-5.720E-06,-0.008
-5.710E-06,-0.008
-5.700E-06,-0.008
-5.690E-06,0.008
-5.680E-06,-0.008
-5.670E-06,0.000
-5.660E-06,-0.008
-5.650E-06,0.000
-5.640E-06,-0.008
-5.630E-06,0.000
-5.620E-06,0.000
-5.610E-06,0.016
-5.600E-06,0.000
-5.590E-06,0.000
-5.580E-06,0.000
-5.570E-06,0.008
-5.560E-06,-0.008
-5.550E-06,0.000
-5.540E-06,0.000
-5.530E-06,0.016
-5.520E-06,0.016
-5.510E-06,0.016
-5.500E-06,0.008
-5.490E-06,-0.008
-5.480E-06,0.000
-5.470E-06,0.000
-5.460E-06,0.016
-5.450E-06,0.024
-5.440E-06,0.008
-5.430E-06,0.000
-5.420E-06,0.000
-5.410E-06,-0.008
-5.400E-06,0.000
-5.390E-06,0.008
-5.380E-06,0.008
-5.370E-06,0.008
-5.360E-06,0.000
-5.350E-06,-0.008
-5.340E-06,0.000
-5.330E-06,0.000
-5.320E-06,0.000
-5.310E-06,0.008
-5.300E-06,-0.008
-5.290E-06,0.000
-5.280E-06,-0.024
-5.270E-06,-0.008
-5.260E-06,0.000
-5.250E-06,0.000
-5.240E-06,0.008
-5.230E-06,0.000
-5.220E-06,-0.016
-5.210E-06,0.000
-5.200E-06,-0.008
-5.190E-06,0.000
-5.180E-06,0.008
-5.170E-06,0.008
-5.160E-06,0.000
-5.150E-06,0.000
-5.140E-06,0.000
-5.130E-06,-0.008
-5.120E-06,0.000
-5.110E-06,-0.008
-5.100E-06,0.000
-5.090E-06,-0.008
-5.080E-06,0.000
-5.070E-06,-0.008
-5.060E-06,0.000
-5.050E-06,0.008
-5.040E-06,0.000
-5.030E-06,0.000
-5.020E-06,0.000
-5.010E-06,0.000
-5.000E-06,0.016
-4.990E-06,-0.008
-4.980E-06,0.008
-4.970E-06,0.008
-4.960E-06,0.000
-4.950E-06,0.000
-4.940E-06,0.000
-4.930E-06,0.000
-4.920E-06,0.000
-4.910E-06,0.008
-4.900E-06,0.000
-4.890E-06,0.000
-4.880E-06,0.000
-4.870E-06,0.000
-4.860E-06,0.000
-4.850E-06,0.000
-4.840E-06,0.000
-4.830E-06,0.008
-4.820E-06,-0.008
-4.810E-06,-0.008
-4.800E-06,-0.008
-4.790E-06,0.008
-4.780E-06,0.008
-4.770E-06,0.008
-4.760E-06,0.008
-4.750E-06,-0.008
-4.740E-06,-0.008
-4.730E-06,0.000
-4.720E-06,0.000
-4.710E-06,0.000
-4.700E-06,0.000
-4.690E-06,0.000
-4.680E-06,-0.016
-4.670E-06,-0.008
-4.660E-06,-0.008
-4.650E-06,0.000
-4.640E-06,-0.008
-4.630E-06,0.008
-4.620E-06,0.008
-4.610E-06,-0.016
-4.600E-06,-0.008
-4.590E-06,-0.008
-4.580E-06,0.000
-4.570E-06,0.000
-4.560E-06,-0.008
-4.550E-06,-0.008
-4.540E-06,0.000
-4.530E-06,0.000
-4.520E-06,0.000
-4.510E-06,0.000
-4.500E-06,0.000
-4.490E-06,0.000
-4.480E-06,-0.008
-4.470E-06,0.000
-4.460E-06,-0.008
-4.450E-06,0.008
-4.440E-06,0.016
-4.430E-06,0.000
-4.420E-06,0.008
-4.410E-06,0.008
-4.400E-06,0.008
-4.390E-06,0.008
-4.380E-06,0.008
-4.370E-06,-0.008
-4.360E-06,0.000
-4.350E-06,0.000
-4.340E-06,0.000
-4.330E-06,0.000
-4.320E-06,0.000
-4.310E-06,0.000
-4.300E-06,0.000
-4.290E-06,0.008
-4.280E-06,-0.008
-4.270E-06,0.000
-4.260E-06,0.000
-4.250E-06,0.000
-4.240E-06,0.008
-4.230E-06,0.008
-4.220E-06,-0.008
-4.210E-06,-0.008
-4.200E-06,0.000
-4.190E-06,-0.008
-4.180E-06,0.000
-4.170E-06,0.000
-4.160E-06,-0.008
-4.150E-06,0.000
-4.140E-06,0.000
-4.130E-06,-0.008
-4.120E-06,0.008
-4.110E-06,-0.008
-4.100E-06,0.000
-4.090E-06,0.000
-4.080E-06,0.000
-4.070E-06,-0.008
-4.060E-06,0.000
-4.050E-06,0.008
-4.040E-06,-0.008
-4.030E-06,0.000
-4.020E-06,0.000
-4.010E-06,0.000
-4.000E-06,0.000
-3.990E-06,0.008
-3.980E-06,0.000
-3.970E-06,0.000
-3.960E-06,0.000
-3.950E-06,0.000
-3.940E-06,0.008
-3.930E-06,0.000
-3.920E-06,0.000
-3.910E-06,0.000
-3.900E-06,0.000
-3.890E-06,0.000
-3.880E-06,-0.008
-3.870E-06,0.000
-3.860E-06,0.008
-3.850E-06,0.000
-3.840E-06,0.000
-3.830E-06,0.000
-3.820E-06,0.000
-3.810E-06,-0.008
-3.800E-06,0.000
-3.790E-06,0.000
-3.780E-06,0.000
-3.770E-06,0.008
-3.760E-06,0.008
-3.750E-06,0.000
-3.740E-06,0.000
-3.730E-06,0.000
-3.720E-06,-0.008
-3.710E-06,0.000
-3.700E-06,0.016
-3.690E-06,0.008
-3.680E-06,0.008
-3.670E-06,-0.008
-3.660E-06,-0.008
-3.650E-06,0.000
-3.640E-06,0.016
-3.630E-06,-0.008
-3.620E-06,0.000
-3.610E-06,-0.008
-3.600E-06,0.000
-3.590E-06,0.000
-3.580E-06,0.008
-3.570E-06,0.008
-3.560E-06,0.000
-3.550E-06,0.000
-3.540E-06,-0.008
-3.530E-06,0.000
-3.520E-06,0.016
-3.510E-06,-0.008
-3.500E-06,-0.008
-3.490E-06,0.000
-3.480E-06,0.000
-3.470E-06,0.000
-3.460E-06,0.000
-3.450E-06,0.000
-3.440E-06,-0.008
-3.430E-06,0.000
-3.420E-06,0.008
-3.410E-06,0.016
-3.400E-06,0.000
-3.390E-06,0.008
-3.380E-06,-0.016
-3.370E-06,-0.008
-3.360E-06,0.000
-3.350E-06,0.016
-3.340E-06,0.016
-3.330E-06,0.000
-3.320E-06,0.000
-3.310E-06,0.000
-3.300E-06,0.000
-3.290E-06,0.016
-3.280E-06,0.016
-3.270E-06,0.008
-3.260E-06,0.000
-3.250E-06,0.000
-3.240E-06,-0.008
-3.230E-06,0.008
-3.220E-06,0.008
-3.210E-06,0.000
-3.200E-06,0.008
-3.190E-06,0.000
-3.180E-06,0.000
-3.170E-06,0.000
-3.160E-06,0.000
-3.150E-06,-0.008
-3.140E-06,0.000
-3.130E-06,0.000
-3.120E-06,0.000
-3.110E-06,-0.008
-3.100E-06,-0.008
-3.090E-06,0.000
-3.080E-06,-0.016
-3.070E-06,0.008
-3.060E-06,-0.008
-3.050E-06,0.000
-3.040E-06,-0.016
-3.030E-06,0.000
-3.020E-06,0.000
-3.010E-06,0.008
-3.000E-06,0.000
-2.990E-06,-0.008
-2.980E-06,0.000
-2.970E-06,0.000
-2.960E-06,-0.008
-2.950E-06,0.000
-2.940E-06,0.016
-2.930E-06,0.008
-2.920E-06,0.008
-2.910E-06,0.000
-2.900E-06,-0.008
-2.890E-06,-0.008
-2.880E-06,0.000
-2.870E-06,0.008
-2.860E-06,0.016
-2.850E-06,0.008
-2.840E-06,0.000
-2.830E-06,0.000
-2.820E-06,-0.008
-2.810E-06,-0.008
-2.800E-06,0.000
-2.790E-06,0.008
-2.780E-06,0.008
-2.770E-06,0.016
-2.760E-06,0.000
-2.750E-06,-0.008
-2.740E-06,-0.008
-2.730E-06,0.000
-2.720E-06,0.016
-2.710E-06,0.024
-2.700E-06,-0.008
-2.690E-06,-0.008
-2.680E-06,-0.016
-2.670E-06,0.008
-2.660E-06,-0.008
-2.650E-06,0.016
-2.640E-06,0.008
-2.630E-06,0.000
-2.620E-06,-0.008
-2.610E-06,-0.008
-2.600E-06,0.000
-2.590E-06,0.008
-2.580E-06,0.024
-2.570E-06,-0.008
-2.560E-06,0.000
-2.550E-06,-0.008
-2.540E-06,0.000
-2.530E-06,0.000
-2.520E-06,0.008
-2.510E-06,0.016
-2.500E-06,0.000
-2.490E-06,-0.008
-2.480E-06,0.000
-2.470E-06,-0.008
-2.460E-06,0.000
-2.450E-06,0.016
-2.440E-06,0.016
-2.430E-06,0.008
-2.420E-06,0.000
-2.410E-06,0.000
-2.400E-06,0.008
-2.390E-06,0.000
-2.380E-06,0.024
-2.370E-06,0.008
-2.360E-06,0.000
-2.350E-06,0.000
-2.340E-06,0.000
-2.330E-06,0.024
-2.320E-06,0.024
-2.310E-06,0.008
-2.300E-06,0.000
-2.290E-06,-0.008
-2.280E-06,-0.008
-2.270E-06,0.008
-2.260E-06,0.008
-2.250E-06,0.016
-2.240E-06,0.000
-2.230E-06,-0.008
-2.220E-06,-0.008
-2.210E-06,-0.016
-2.200E-06,0.008
-2.190E-06,0.016
-2.180E-06,-0.008
-2.170E-06,0.000
-2.160E-06,-0.008
-2.150E-06,-0.008
-2.140E-06,0.000
-2.130E-06,0.000
-2.120E-06,0.008
-2.110E-06,0.016
-2.100E-06,0.000
-2.090E-06,-0.008
-2.080E-06,-0.016
-2.070E-06,-0.008
-2.060E-06,0.024
-2.050E-06,0.016
-2.040E-06,0.008
-2.030E-06,0.000
-2.020E-06,0.000
-2.010E-06,0.000
-2.000E-06,0.008
-1.990E-06,0.008
-1.980E-06,-0.008
-1.970E-06,-0.008
-1.960E-06,0.016
-1.950E-06,0.024
-1.940E-06,0.016
-1.930E-06,0.008
-1.920E-06,0.016
-1.910E-06,0.016
-1.900E-06,0.016
-1.890E-06,0.016
-1.880E-06,0.000
-1.870E-06,-0.008
-1.860E-06,0.008
-1.850E-06,0.008
-1.840E-06,0.008
-1.830E-06,0.000
-1.820E-06,0.000
-1.810E-06,0.000
-1.800E-06,0.000
-1.790E-06,0.008
-1.780E-06,0.008
-1.770E-06,0.000
-1.760E-06,0.000
-1.750E-06,0.000
-1.740E-06,0.000
-1.730E-06,0.000
-1.720E-06,0.000
-1.710E-06,0.008
-1.700E-06,0.000
-1.690E-06,-0.008
-1.680E-06,0.000
-1.670E-06,-0.008
-1.660E-06,-0.008
-1.650E-06,0.008
-1.640E-06,0.008
-1.630E-06,0.008
-1.620E-06,0.000
-1.610E-06,0.008
-1.600E-06,-0.016
-1.590E-06,-0.008
-1.580E-06,-0.008
-1.570E-06,0.016
-1.560E-06,0.008
-1.550E-06,0.008
-1.540E-06,0.008
-1.530E-06,0.000
-1.520E-06,0.000
-1.510E-06,0.024
-1.500E-06,-0.008
-1.490E-06,0.016
-1.480E-06,0.016
-1.470E-06,0.024
-1.460E-06,0.024
-1.450E-06,-0.016
-1.440E-06,-0.008
-1.430E-06,0.000
-1.420E-06,0.024
-1.410E-06,0.032
-1.400E-06,0.016
-1.390E-06,0.000
-1.380E-06,0.024
-1.370E-06,-0.048
-1.360E-06,0.056
-1.350E-06,0.000
-1.340E-06,-0.016
-1.330E-06,0.008
-1.320E-06,0.032
-1.310E-06,-0.008
-1.300E-06,0.048
-1.290E-06,0.016
-1.280E-06,-0.040
-1.270E-06,0.016
-1.260E-06,-0.008
-1.250E-06,0.048
-1.240E-06,0.032
-1.230E-06,0.024
-1.220E-06,0.000
-1.210E-06,-0.016
-1.200E-06,0.016
-1.190E-06,0.016
-1.180E-06,0.104
-1.170E-06,0.136
-1.160E-06,0.184
-1.150E-06,0.224
-1.140E-06,0.144
-1.130E-06,0.056
-1.120E-06,0.000
-1.110E-06,0.104
-1.100E-06,0.200
-1.090E-06,0.368
-1.080E-06,0.368
-1.070E-06,0.304
-1.060E-06,0.144
-1.050E-06,0.048
-1.040E-06,0.104
-1.030E-06,0.176
-1.020E-06,0.232
-1.010E-06,0.280
-1.000E-06,0.160
-9.900E-07,0.024
-9.800E-07,-0.056
-9.700E-07,-0.056
-9.600E-07,0.000
-9.500E-07,0.072
-9.400E-07,0.040
-9.300E-07,0.000
-9.200E-07,-0.032
-9.100E-07,-0.096
-9.000E-07,-0.064
-8.900E-07,0.000
-8.800E-07,-0.024
-8.700E-07,0.000
-8.600E-07,-0.032
-8.500E-07,-0.096
-8.400E-07,-0.096
-8.300E-07,-0.104
-8.200E-07,-0.096
-8.100E-07,-0.040
-8.000E-07,-0.024
-7.900E-07,0.000
-7.800E-07,0.000
-7.700E-07,-0.040
-7.600E-07,-0.056
-7.500E-07,-0.080
-7.400E-07,-0.056
-7.300E-07,-0.016
-7.200E-07,-0.016
-7.100E-07,0.000
-7.000E-07,-0.016
-6.900E-07,-0.032
-6.800E-07,-0.024
-6.700E-07,-0.016
-6.600E-07,0.008
-6.500E-07,0.032
-6.400E-07,0.064
-6.300E-07,0.104
-6.200E-07,0.136
-6.100E-07,0.128
-6.000E-07,0.128
-5.900E-07,0.104
-5.800E-07,0.088
-5.700E-07,0.088
-5.600E-07,0.112
-5.500E-07,0.152
-5.400E-07,0.168
-5.300E-07,0.200
-5.200E-07,0.168
-5.100E-07,0.080
-5.000E-07,0.072
-4.900E-07,0.120
-4.800E-07,-0.080
-4.700E-07,-0.920
-4.600E-07,-0.024
-4.500E-07,-0.400
-4.400E-07,0.280
-4.300E-07,0.936
-4.200E-07,0.352
-4.100E-07,-0.080
-4.000E-07,-0.392
-3.900E-07,-0.600
-3.800E-07,0.008
-3.700E-07,0.152
-3.600E-07,0.336
-3.500E-07,0.272
-3.400E-07,-0.096
-3.300E-07,-0.416
-3.200E-07,-0.304
-3.100E-07,-0.224
-3.000E-07,0.104
-2.900E-07,0.144
-2.800E-07,0.168
-2.700E-07,0.032
-2.600E-07,-0.064
-2.500E-07,-0.112
-2.400E-07,-0.080
-2.300E-07,0.008
-2.200E-07,0.088
-2.100E-07,0.112
-2.000E-07,0.112
-1.900E-07,0.024
-1.800E-07,-0.056
-1.700E-07,-0.104
-1.600E-07,-0.040
-1.500E-07,0.000
-1.400E-07,0.080
-1.300E-07,0.192
-1.200E-07,0.224
-1.100E-07,0.080
-1.000E-07,0.008
-9.000E-08,-0.096
-8.000E-08,-0.008
-7.000E-08,0.208
-6.000E-08,0.272
-5.000E-08,0.392
-4.000E-08,0.264
-3.000E-08,0.304
-2.000E-08,-0.096
-1.000E-08,-0.864
0.000E+00,-0.232
1.000E-08,-0.960
2.000E-08,0.264
3.000E-08,1.080
4.000E-08,0.744
5.000E-08,0.568
6.000E-08,-0.296
7.000E-08,-0.776
8.000E-08,-0.232
9.000E-08,0.120
1.000E-07,0.696
1.100E-07,0.664
1.200E-07,0.144
1.300E-07,-0.400
1.400E-07,-0.520
1.500E-07,-0.504
1.600E-07,-0.016
1.700E-07,0.160
1.800E-07,0.288
1.900E-07,-0.016
2.000E-07,-0.272
2.100E-07,-0.368
2.200E-07,-0.304
2.300E-07,-0.080
2.400E-07,0.120
2.500E-07,0.144
2.600E-07,0.216
2.700E-07,0.088
2.800E-07,0.072
2.900E-07,0.096
3.000E-07,0.384
3.100E-07,0.584
3.200E-07,0.512
3.300E-07,0.408
3.400E-07,0.096
3.500E-07,-0.080
3.600E-07,-0.136
3.700E-07,-0.072
3.800E-07,0.224
3.900E-07,0.232
4.000E-07,0.392
4.100E-07,0.520
4.200E-07,0.368
4.300E-07,0.432
4.400E-07,0.320
4.500E-07,0.416
4.600E-07,0.392
4.700E-07,0.336
4.800E-07,0.296
4.900E-07,0.280
5.000E-07,0.256
5.100E-07,0.384
5.200E-07,0.224
5.300E-07,0.072
5.400E-07,-0.016
5.500E-07,-0.128
5.600E-07,0.288
5.700E-07,0.304
5.800E-07,0.248
5.900E-07,0.304
6.000E-07,-0.344
6.100E-07,-0.168
6.200E-07,0.096
6.300E-07,0.376
6.400E-07,0.832
6.500E-07,0.896
6.600E-07,0.680
6.700E-07,0.312
6.800E-07,-0.080
6.900E-07,-0.280
7.000E-07,-0.112
7.100E-07,-0.064
7.200E-07,-0.072
7.300E-07,0.160
7.400E-07,0.432
7.500E-07,0.504
7.600E-07,0.496
7.700E-07,0.592
7.800E-07,0.752
7.900E-07,0.192
8.000E-07,0.000
8.100E-07,-0.320
8.200E-07,-0.536
8.300E-07,-0.064
8.400E-07,0.384
8.500E-07,0.840
8.600E-07,0.928
8.700E-07,0.664
8.800E-07,0.096
8.900E-07,-0.296
9.000E-07,-0.720
9.100E-07,-0.664
9.200E-07,-0.376
9.300E-07,0.032
9.400E-07,0.264
9.500E-07,0.336
9.600E-07,0.280
9.700E-07,0.336
9.800E-07,0.360
9.900E-07,0.336
1.000E-06,0.360
1.010E-06,0.304
1.020E-06,0.368
1.030E-06,0.456
1.040E-06,0.176
1.050E-06,-0.160
1.060E-06,-0.728
1.070E-06,-0.536
1.080E-06,-0.880
1.090E-06,-1.040
1.100E-06,-1.040
1.110E-06,-1.040
1.120E-06,-1.048
1.130E-06,-1.040
1.140E-06,-1.048
1.150E-06,-1.032
1.160E-06,-0.688
1.170E-06,-0.776
1.180E-06,-0.056
1.190E-06,0.736
1.200E-06,1.080
1.210E-06,1.088
1.220E-06,1.088
1.230E-06,1.080
1.240E-06,1.088
1.250E-06,1.088
1.260E-06,1.080
1.270E-06,1.088
1.280E-06,1.088
1.290E-06,1.080
1.300E-06,1.088
1.310E-06,1.080
1.320E-06,1.080
1.330E-06,1.072
1.340E-06,0.024
1.350E-06,-1.040
1.360E-06,-1.040
1.370E-06,-1.040
1.380E-06,-0.040
1.390E-06,1.080
1.400E-06,1.088
1.410E-06,1.080
1.420E-06,0.912
1.430E-06,-0.016
1.440E-06,-0.832
1.450E-06,-1.048
1.460E-06,-1.048
1.470E-06,-1.048
1.480E-06,-1.048
1.490E-06,-1.032
1.500E-06,-1.040
1.510E-06,-1.048
1.520E-06,-1.040
1.530E-06,-1.048
1.540E-06,-1.048
1.550E-06,-0.384
1.560E-06,0.992
1.570E-06,1.088
1.580E-06,1.080
1.590E-06,1.088
1.600E-06,1.080
1.610E-06,1.080
1.620E-06,1.080
1.630E-06,1.072
1.640E-06,0.904
1.650E-06,-0.112
1.660E-06,-1.032
1.670E-06,-1.040
1.680E-06,-1.040
1.690E-06,-1.048
1.700E-06,-1.040
1.710E-06,-1.040
1.720E-06,-1.048
1.730E-06,-1.040
1.740E-06,-1.032
1.750E-06,-1.040
1.760E-06,-1.048
1.770E-06,-0.368
1.780E-06,0.216
1.790E-06,0.712
1.800E-06,0.904
1.810E-06,1.080
1.820E-06,1.080
1.830E-06,1.072
1.840E-06,1.080
1.850E-06,1.088
1.860E-06,1.088
1.870E-06,1.080
1.880E-06,1.088
1.890E-06,1.080
1.900E-06,1.080
1.910E-06,1.072
1.920E-06,1.080
1.930E-06,1.080
1.940E-06,1.080
1.950E-06,1.088
1.960E-06,1.088
1.970E-06,1.080
1.980E-06,1.056
1.990E-06,0.728
2.000E-06,0.304
2.010E-06,-0.240
2.020E-06,-0.504
2.030E-06,-0.648
2.040E-06,-0.648
2.050E-06,-0.472
2.060E-06,-0.232
2.070E-06,0.088
2.080E-06,0.392
2.090E-06,0.568
2.100E-06,0.608
2.110E-06,0.488
2.120E-06,0.208
2.130E-06,-0.256
2.140E-06,-0.616
2.150E-06,-0.576
2.160E-06,-0.040
2.170E-06,0.896
2.180E-06,1.080
2.190E-06,1.080
2.200E-06,1.080
2.210E-06,1.072
2.220E-06,1.080
2.230E-06,1.088
2.240E-06,1.088
2.250E-06,1.080
2.260E-06,1.000
2.270E-06,0.296
2.280E-06,-0.272
2.290E-06,-0.776
2.300E-06,-1.040
2.310E-06,-1.040
2.320E-06,-1.040
2.330E-06,-1.048
2.340E-06,-1.040
2.350E-06,-0.696
2.360E-06,-0.344
2.370E-06,0.016
2.380E-06,0.296
2.390E-06,0.464
2.400E-06,0.600
2.410E-06,0.752
2.420E-06,0.872
2.430E-06,0.928
2.440E-06,0.872
2.450E-06,0.720
2.460E-06,0.480
2.470E-06,0.216
2.480E-06,-0.048
2.490E-06,-0.296
2.500E-06,-0.504
2.510E-06,-0.600
2.520E-06,-0.632
2.530E-06,-0.544
2.540E-06,-0.344
2.550E-06,-0.136
2.560E-06,0.128
2.570E-06,0.392
2.580E-06,0.632
2.590E-06,0.888
2.600E-06,1.080
2.610E-06,1.080
2.620E-06,1.080
2.630E-06,1.080
2.640E-06,1.088
2.650E-06,1.088
2.660E-06,1.080
2.670E-06,1.080
2.680E-06,1.080
2.690E-06,0.920
2.700E-06,0.648
2.710E-06,0.400
2.720E-06,0.160
2.730E-06,0.024
2.740E-06,-0.032
2.750E-06,-0.056
2.760E-06,-0.032
2.770E-06,0.000
2.780E-06,0.056
2.790E-06,0.128
2.800E-06,0.184
2.810E-06,0.224
2.820E-06,0.248
2.830E-06,0.208
2.840E-06,0.136
2.850E-06,0.024
2.860E-06,-0.104
2.870E-06,-0.216
2.880E-06,-0.328
2.890E-06,-0.416
2.900E-06,-0.456
2.910E-06,-0.488
2.920E-06,-0.472
2.930E-06,-0.432
2.940E-06,-0.328
2.950E-06,-0.232
2.960E-06,-0.112
2.970E-06,-0.008
2.980E-06,0.096
2.990E-06,0.152
3.000E-06,0.208
3.010E-06,0.216
3.020E-06,0.184
3.030E-06,0.128
3.040E-06,0.064
3.050E-06,-0.024
3.060E-06,-0.096
3.070E-06,-0.160
3.080E-06,-0.208
3.090E-06,-0.224
3.100E-06,-0.168
3.110E-06,-0.088
3.120E-06,0.024
3.130E-06,0.128
3.140E-06,0.264
3.150E-06,0.432
3.160E-06,0.568
3.170E-06,0.672
3.180E-06,0.680
3.190E-06,0.696
3.200E-06,0.696
3.210E-06,0.672
3.220E-06,0.624
3.230E-06,0.528
3.240E-06,0.440
3.250E-06,0.376
3.260E-06,0.296
3.270E-06,0.200
3.280E-06,0.128
3.290E-06,0.072
3.300E-06,0.024
3.310E-06,-0.016
3.320E-06,-0.024
3.330E-06,0.000
3.340E-06,0.064
3.350E-06,0.128
3.360E-06,0.176
3.370E-06,0.216
3.380E-06,0.224
3.390E-06,0.192
3.400E-06,0.144
3.410E-06,0.096
3.420E-06,0.056
3.430E-06,0.032
3.440E-06,0.016
3.450E-06,0.024
3.460E-06,0.048
3.470E-06,0.088
3.480E-06,0.128
3.490E-06,0.120
3.500E-06,0.128
3.510E-06,0.096
3.520E-06,0.040
3.530E-06,-0.056
3.540E-06,-0.168
3.550E-06,-0.280
3.560E-06,-0.344
3.570E-06,-0.384
