mediciones/6-26/47.4/WaveData59329.csv

#timebase=2000000(ps)
,#voltbase=500000(mv/100)
#size=4000
-8.150E-06,0.060
-8.140E-06,0.060
-8.130E-06,0.080
-8.120E-06,0.060
-8.110E-06,0.020
-8.100E-06,0.040
-8.090E-06,0.080
-8.080E-06,0.040
-8.070E-06,0.080
-8.060E-06,0.060
-8.050E-06,0.060
-8.040E-06,0.060
-8.030E-06,0.080
-8.020E-06,0.060
-8.010E-06,0.060
-8.000E-06,0.080
-7.990E-06,0.020
-7.980E-06,0.060
-7.970E-06,0.060
-7.960E-06,0.060
-7.950E-06,0.080
-7.940E-06,0.080
-7.930E-06,0.020
-7.920E-06,0.040
-7.910E-06,0.060
-7.900E-06,0.060
-7.890E-06,0.060
-7.880E-06,0.080
-7.870E-06,0.060
-7.860E-06,0.080
-7.850E-06,0.040
-7.840E-06,0.020
-7.830E-06,0.060
-7.820E-06,0.020
-7.810E-06,0.060
-7.800E-06,0.060
-7.790E-06,0.040
-7.780E-06,0.080
-7.770E-06,0.080
-7.760E-06,0.060
-7.750E-06,0.040
-7.740E-06,0.040
-7.730E-06,0.080
-7.720E-06,0.060
-7.710E-06,0.040
-7.700E-06,0.040
-7.690E-06,0.060
-7.680E-06,0.060
-7.670E-06,0.080
-7.660E-06,0.080
-7.650E-06,0.020
-7.640E-06,0.020
-7.630E-06,0.060
-7.620E-06,0.080
-7.610E-06,0.060
-7.600E-06,0.040
-7.590E-06,0.060
-7.580E-06,0.040
-7.570E-06,0.020
-7.560E-06,0.060
-7.550E-06,0.040
-7.540E-06,0.060
-7.530E-06,0.040
-7.520E-06,0.040
-7.510E-06,0.040
-7.500E-06,0.060
-7.490E-06,0.080
-7.480E-06,0.080
-7.470E-06,0.040
-7.460E-06,0.060
-7.450E-06,0.080
-7.440E-06,0.040
-7.430E-06,0.060
-7.420E-06,0.080
-7.410E-06,0.020
-7.400E-06,0.060
-7.390E-06,0.080
-7.380E-06,0.060
-7.370E-06,0.020
-7.360E-06,0.060
-7.350E-06,0.060
-7.340E-06,0.060
-7.330E-06,0.040
-7.320E-06,0.020
-7.310E-06,0.040
-7.300E-06,0.020
-7.290E-06,0.040
-7.280E-06,0.060
-7.270E-06,0.080
-7.260E-06,0.080
-7.250E-06,0.020
-7.240E-06,0.040
-7.230E-06,0.060
-7.220E-06,0.060
-7.210E-06,0.060
-7.200E-06,0.080
-7.190E-06,0.060
-7.180E-06,0.060
-7.170E-06,0.060
-7.160E-06,0.060
-7.150E-06,0.040
-7.140E-06,0.060
-7.130E-06,0.080
-7.120E-06,0.060
-7.110E-06,0.040
-7.100E-06,0.040
-7.090E-06,0.080
-7.080E-06,0.040
-7.070E-06,0.040
-7.060E-06,0.060
-7.050E-06,0.080
-7.040E-06,0.060
-7.030E-06,0.080
-7.020E-06,0.040
-7.010E-06,0.040
-7.000E-06,0.080
-6.990E-06,0.040
-6.980E-06,0.060
-6.970E-06,0.100
-6.960E-06,0.040
-6.950E-06,0.080
-6.940E-06,0.060
-6.930E-06,0.020
-6.920E-06,0.040
-6.910E-06,0.060
-6.900E-06,0.080
-6.890E-06,0.060
-6.880E-06,0.060
-6.870E-06,0.040
-6.860E-06,0.040
-6.850E-06,0.080
-6.840E-06,0.040
-6.830E-06,0.060
-6.820E-06,0.040
-6.810E-06,0.060
-6.800E-06,0.080
-6.790E-06,0.040
-6.780E-06,0.060
-6.770E-06,0.040
-6.760E-06,0.060
-6.750E-06,0.060
-6.740E-06,0.080
-6.730E-06,0.020
-6.720E-06,0.020
-6.710E-06,0.040
-6.700E-06,0.040
-6.690E-06,0.060
-6.680E-06,0.060
-6.670E-06,0.060
-6.660E-06,0.080
-6.650E-06,0.060
-6.640E-06,0.040
-6.630E-06,0.040
-6.620E-06,0.060
-6.610E-06,0.060
-6.600E-06,0.060
-6.590E-06,0.040
-6.580E-06,0.080
-6.570E-06,0.060
-6.560E-06,0.060
-6.550E-06,0.040
-6.540E-06,0.080
-6.530E-06,0.080
-6.520E-06,0.060
-6.510E-06,0.060
-6.500E-06,0.020
-6.490E-06,0.060
-6.480E-06,0.080
-6.470E-06,0.040
-6.460E-06,0.020
-6.450E-06,0.040
-6.440E-06,0.080
-6.430E-06,0.040
-6.420E-06,0.060
-6.410E-06,0.060
-6.400E-06,0.060
-6.390E-06,0.040
-6.380E-06,0.060
-6.370E-06,0.080
-6.360E-06,0.060
-6.350E-06,0.060
-6.340E-06,0.060
-6.330E-06,0.060
-6.320E-06,0.060
-6.310E-06,0.100
-6.300E-06,0.060
-6.290E-06,0.040
-6.280E-06,0.060
-6.270E-06,0.020
-6.260E-06,0.040
-6.250E-06,0.080
-6.240E-06,0.080
-6.230E-06,0.040
-6.220E-06,0.060
-6.210E-06,0.060
-6.200E-06,0.040
-6.190E-06,0.060
-6.180E-06,0.080
-6.170E-06,0.060
-6.160E-06,0.040
-6.150E-06,0.040
-6.140E-06,0.040
-6.130E-06,0.060
-6.120E-06,0.060
-6.110E-06,0.080
-6.100E-06,0.060
-6.090E-06,0.040
-6.080E-06,0.040
-6.070E-06,0.080
-6.060E-06,0.080
-6.050E-06,0.080
-6.040E-06,0.060
-6.030E-06,0.080
-6.020E-06,0.040
-6.010E-06,0.040
-6.000E-06,0.080
-5.990E-06,0.060
-5.980E-06,0.040
-5.970E-06,0.060
-5.960E-06,0.060
-5.950E-06,0.060
-5.940E-06,0.080
-5.930E-06,0.040
-5.920E-06,0.040
-5.910E-06,0.060
-5.900E-06,0.040
-5.890E-06,0.060
-5.880E-06,0.040
-5.870E-06,0.060
-5.860E-06,0.040
-5.850E-06,0.080
-5.840E-06,0.040
-5.830E-06,0.020
-5.820E-06,0.080
-5.810E-06,0.080
-5.800E-06,0.060
-5.790E-06,0.020
-5.780E-06,0.040
-5.770E-06,0.040
-5.760E-06,0.060
-5.750E-06,0.040
-5.740E-06,0.040
-5.730E-06,0.060
-5.720E-06,0.080
-5.710E-06,0.060
-5.700E-06,0.060
-5.690E-06,0.060
-5.680E-06,0.040
-5.670E-06,0.040
-5.660E-06,0.040
-5.650E-06,0.060
-5.640E-06,0.080
-5.630E-06,0.080
-5.620E-06,0.080
-5.610E-06,0.080
-5.600E-06,0.040
-5.590E-06,0.040
-5.580E-06,0.060
-5.570E-06,0.040
-5.560E-06,0.040
-5.550E-06,0.020
-5.540E-06,0.060
-5.530E-06,0.080
-5.520E-06,0.040
-5.510E-06,0.020
-5.500E-06,0.040
-5.490E-06,0.020
-5.480E-06,0.040
-5.470E-06,0.040
-5.460E-06,0.080
-5.450E-06,0.040
-5.440E-06,0.060
-5.430E-06,0.040
-5.420E-06,0.040
-5.410E-06,0.060
-5.400E-06,0.040
-5.390E-06,0.060
-5.380E-06,0.060
-5.370E-06,0.060
-5.360E-06,0.060
-5.350E-06,0.040
-5.340E-06,0.040
-5.330E-06,0.060
-5.320E-06,0.060
-5.310E-06,0.040
-5.300E-06,0.020
-5.290E-06,0.060
-5.280E-06,0.060
-5.270E-06,0.040
-5.260E-06,0.060
-5.250E-06,0.100
-5.240E-06,0.060
-5.230E-06,0.080
-5.220E-06,0.040
-5.210E-06,0.060
-5.200E-06,0.060
-5.190E-06,0.060
-5.180E-06,0.060
-5.170E-06,0.080
-5.160E-06,0.040
-5.150E-06,0.060
-5.140E-06,0.060
-5.130E-06,0.080
-5.120E-06,0.060
-5.110E-06,0.060
-5.100E-06,0.040
-5.090E-06,0.080
-5.080E-06,0.060
-5.070E-06,0.040
-5.060E-06,0.060
-5.050E-06,0.040
-5.040E-06,0.020
-5.030E-06,0.040
-5.020E-06,0.060
-5.010E-06,0.080
-5.000E-06,0.040
-4.990E-06,0.080
-4.980E-06,0.060
-4.970E-06,0.080
-4.960E-06,0.040
-4.950E-06,0.060
-4.940E-06,0.060
-4.930E-06,0.060
-4.920E-06,0.020
-4.910E-06,0.060
-4.900E-06,0.040
-4.890E-06,0.060
-4.880E-06,0.080
-4.870E-06,0.080
-4.860E-06,0.060
-4.850E-06,0.080
-4.840E-06,0.080
-4.830E-06,0.060
-4.820E-06,0.080
-4.810E-06,0.060
-4.800E-06,0.080
-4.790E-06,0.040
-4.780E-06,0.040
-4.770E-06,0.040
-4.760E-06,0.060
-4.750E-06,0.080
-4.740E-06,0.040
-4.730E-06,0.080
-4.720E-06,0.060
-4.710E-06,0.040
-4.700E-06,0.060
-4.690E-06,0.060
-4.680E-06,0.080
-4.670E-06,0.060
-4.660E-06,0.060
-4.650E-06,0.060
-4.640E-06,0.060
-4.630E-06,0.060
-4.620E-06,0.060
-4.610E-06,0.080
-4.600E-06,0.060
-4.590E-06,0.020
-4.580E-06,0.040
-4.570E-06,0.040
-4.560E-06,0.060
-4.550E-06,0.020
-4.540E-06,0.060
-4.530E-06,0.060
-4.520E-06,0.060
-4.510E-06,0.080
-4.500E-06,0.040
-4.490E-06,0.040
-4.480E-06,0.080
-4.470E-06,0.040
-4.460E-06,0.040
-4.450E-06,0.060
-4.440E-06,0.060
-4.430E-06,0.080
-4.420E-06,0.060
-4.410E-06,0.040
-4.400E-06,0.060
-4.390E-06,0.040
-4.380E-06,0.060
-4.370E-06,0.060
-4.360E-06,0.040
-4.350E-06,0.060
-4.340E-06,0.060
-4.330E-06,0.080
-4.320E-06,0.060
-4.310E-06,0.040
-4.300E-06,0.040
-4.290E-06,0.020
-4.280E-06,0.040
-4.270E-06,0.060
-4.260E-06,0.080
-4.250E-06,0.040
-4.240E-06,0.040
-4.230E-06,0.040
-4.220E-06,0.040
-4.210E-06,0.020
-4.200E-06,0.040
-4.190E-06,0.060
-4.180E-06,0.080
-4.170E-06,0.040
-4.160E-06,0.060
-4.150E-06,0.080
-4.140E-06,0.060
-4.130E-06,0.080
-4.120E-06,0.040
-4.110E-06,0.040
-4.100E-06,0.060
-4.090E-06,0.060
-4.080E-06,0.060
-4.070E-06,0.060
-4.060E-06,0.060
-4.050E-06,0.040
-4.040E-06,0.060
-4.030E-06,0.080
-4.020E-06,0.040
-4.010E-06,0.040
-4.000E-06,0.040
-3.990E-06,0.060
-3.980E-06,0.040
-3.970E-06,0.020
-3.960E-06,0.020
-3.950E-06,0.060
-3.940E-06,0.040
-3.930E-06,0.040
-3.920E-06,0.020
-3.910E-06,0.060
-3.900E-06,0.080
-3.890E-06,0.040
-3.880E-06,0.040
-3.870E-06,0.060
-3.860E-06,0.040
-3.850E-06,0.080
-3.840E-06,0.040
-3.830E-06,0.060
-3.820E-06,0.020
-3.810E-06,0.040
-3.800E-06,0.060
-3.790E-06,0.060
-3.780E-06,0.020
-3.770E-06,0.060
-3.760E-06,0.060
-3.750E-06,0.060
-3.740E-06,0.060
-3.730E-06,0.040
-3.720E-06,0.060
-3.710E-06,0.040
-3.700E-06,0.060
-3.690E-06,0.080
-3.680E-06,0.040
-3.670E-06,0.060
-3.660E-06,0.080
-3.650E-06,0.080
-3.640E-06,0.060
-3.630E-06,0.040
-3.620E-06,0.040
-3.610E-06,0.040
-3.600E-06,0.060
-3.590E-06,0.040
-3.580E-06,0.040
-3.570E-06,0.060
-3.560E-06,0.040
-3.550E-06,0.080
-3.540E-06,0.060
-3.530E-06,0.040
-3.520E-06,0.040
-3.510E-06,0.060
-3.500E-06,0.040
-3.490E-06,0.060
-3.480E-06,0.080
-3.470E-06,0.080
-3.460E-06,0.040
-3.450E-06,0.040
-3.440E-06,0.060
-3.430E-06,0.040
-3.420E-06,0.040
-3.410E-06,0.040
-3.400E-06,0.040
-3.390E-06,0.060
-3.380E-06,0.060
-3.370E-06,0.020
-3.360E-06,0.080
-3.350E-06,0.060
-3.340E-06,0.080
-3.330E-06,0.040
-3.320E-06,0.040
-3.310E-06,0.040
-3.300E-06,0.080
-3.290E-06,0.040
-3.280E-06,0.020
-3.270E-06,0.060
-3.260E-06,0.040
-3.250E-06,0.080
-3.240E-06,0.040
-3.230E-06,0.040
-3.220E-06,0.040
-3.210E-06,0.060
-3.200E-06,0.040
-3.190E-06,0.060
-3.180E-06,0.100
-3.170E-06,0.040
-3.160E-06,0.060
-3.150E-06,0.080
-3.140E-06,0.080
-3.130E-06,0.040
-3.120E-06,0.060
-3.110E-06,0.080
-3.100E-06,0.040
-3.090E-06,0.060
-3.080E-06,0.080
-3.070E-06,0.040
-3.060E-06,0.040
-3.050E-06,0.060
-3.040E-06,0.060
-3.030E-06,0.080
-3.020E-06,0.060
-3.010E-06,0.060
-3.000E-06,0.060
-2.990E-06,0.040
-2.980E-06,0.040
-2.970E-06,0.060
-2.960E-06,0.040
-2.950E-06,0.040
-2.940E-06,0.060
-2.930E-06,0.060
-2.920E-06,0.040
-2.910E-06,0.020
-2.900E-06,0.040
-2.890E-06,0.060
-2.880E-06,0.060
-2.870E-06,0.040
-2.860E-06,0.040
-2.850E-06,0.040
-2.840E-06,0.020
-2.830E-06,0.020
-2.820E-06,0.060
-2.810E-06,0.060
-2.800E-06,0.060
-2.790E-06,0.040
-2.780E-06,0.040
-2.770E-06,0.040
-2.760E-06,0.060
-2.750E-06,0.040
-2.740E-06,0.040
-2.730E-06,0.020
-2.720E-06,0.040
-2.710E-06,0.080
-2.700E-06,0.040
-2.690E-06,0.020
-2.680E-06,0.060
-2.670E-06,0.040
-2.660E-06,0.040
-2.650E-06,0.080
-2.640E-06,0.080
-2.630E-06,0.060
-2.620E-06,0.060
-2.610E-06,0.080
-2.600E-06,0.020
-2.590E-06,0.020
-2.580E-06,0.060
-2.570E-06,0.080
-2.560E-06,0.040
-2.550E-06,0.020
-2.540E-06,0.060
-2.530E-06,0.060
-2.520E-06,0.060
-2.510E-06,0.040
-2.500E-06,0.060
-2.490E-06,0.080
-2.480E-06,0.060
-2.470E-06,0.020
-2.460E-06,0.060
-2.450E-06,0.080
-2.440E-06,0.060
-2.430E-06,0.020
-2.420E-06,0.040
-2.410E-06,0.080
-2.400E-06,0.060
-2.390E-06,0.040
-2.380E-06,0.060
-2.370E-06,0.040
-2.360E-06,0.080
-2.350E-06,0.060
-2.340E-06,0.060
-2.330E-06,0.040
-2.320E-06,0.040
-2.310E-06,0.060
-2.300E-06,0.040
-2.290E-06,0.080
-2.280E-06,0.040
-2.270E-06,0.040
-2.260E-06,0.060
-2.250E-06,0.040
-2.240E-06,0.040
-2.230E-06,0.060
-2.220E-06,0.060
-2.210E-06,0.040
-2.200E-06,0.040
-2.190E-06,0.060
-2.180E-06,0.040
-2.170E-06,0.060
-2.160E-06,0.060
-2.150E-06,0.040
-2.140E-06,0.040
-2.130E-06,0.040
-2.120E-06,0.080
-2.110E-06,0.020
-2.100E-06,0.040
-2.090E-06,0.040
-2.080E-06,0.040
-2.070E-06,0.080
-2.060E-06,0.040
-2.050E-06,0.040
-2.040E-06,0.060
-2.030E-06,0.060
-2.020E-06,0.060
-2.010E-06,0.040
-2.000E-06,0.080
-1.990E-06,0.020
-1.980E-06,0.020
-1.970E-06,0.060
-1.960E-06,0.060
-1.950E-06,0.020
-1.940E-06,0.060
-1.930E-06,0.080
-1.920E-06,0.040
-1.910E-06,0.040
-1.900E-06,0.060
-1.890E-06,0.060
-1.880E-06,0.060
-1.870E-06,0.060
-1.860E-06,0.060
-1.850E-06,0.080
-1.840E-06,0.080
-1.830E-06,0.020
-1.820E-06,0.020
-1.810E-06,0.040
-1.800E-06,0.040
-1.790E-06,0.040
-1.780E-06,0.060
-1.770E-06,0.040
-1.760E-06,0.040
-1.750E-06,0.060
-1.740E-06,0.060
-1.730E-06,0.060
-1.720E-06,0.040
-1.710E-06,0.060
-1.700E-06,0.080
-1.690E-06,0.040
-1.680E-06,0.020
-1.670E-06,0.060
-1.660E-06,0.080
-1.650E-06,0.060
-1.640E-06,0.060
-1.630E-06,0.060
-1.620E-06,0.020
-1.610E-06,0.060
-1.600E-06,0.080
-1.590E-06,0.100
-1.580E-06,0.040
-1.570E-06,0.060
-1.560E-06,0.000
-1.550E-06,-0.040
-1.540E-06,-0.060
-1.530E-06,-0.020
-1.520E-06,0.060
-1.510E-06,0.040
-1.500E-06,0.080
-1.490E-06,0.040
-1.480E-06,0.040
-1.470E-06,0.060
-1.460E-06,0.060
-1.450E-06,0.100
-1.440E-06,0.120
-1.430E-06,0.120
-1.420E-06,0.140
-1.410E-06,0.120
-1.400E-06,0.100
-1.390E-06,0.100
-1.380E-06,0.100
-1.370E-06,0.080
-1.360E-06,0.080
-1.350E-06,0.080
-1.340E-06,0.060
-1.330E-06,0.040
-1.320E-06,0.040
-1.310E-06,0.040
-1.300E-06,0.020
-1.290E-06,0.040
-1.280E-06,0.000
-1.270E-06,0.040
-1.260E-06,0.040
-1.250E-06,0.020
-1.240E-06,0.040
-1.230E-06,0.060
-1.220E-06,0.080
-1.210E-06,0.080
-1.200E-06,0.040
-1.190E-06,0.060
-1.180E-06,0.100
-1.170E-06,0.060
-1.160E-06,0.040
-1.150E-06,0.060
-1.140E-06,0.080
-1.130E-06,0.060
-1.120E-06,0.040
-1.110E-06,0.060
-1.100E-06,0.020
-1.090E-06,0.000
-1.080E-06,0.000
-1.070E-06,0.040
-1.060E-06,0.020
-1.050E-06,0.020
-1.040E-06,0.060
-1.030E-06,0.020
-1.020E-06,0.040
-1.010E-06,0.060
-1.000E-06,0.060
-9.900E-07,0.060
-9.800E-07,0.080
-9.700E-07,0.120
-9.600E-07,0.100
-9.500E-07,0.120
-9.400E-07,0.140
-9.300E-07,0.140
-9.200E-07,0.120
-9.100E-07,0.140
-9.000E-07,0.120
-8.900E-07,0.060
-8.800E-07,0.060
-8.700E-07,0.020
-8.600E-07,0.000
-8.500E-07,0.040
-8.400E-07,0.160
-8.300E-07,0.240
-8.200E-07,0.220
-8.100E-07,0.160
-8.000E-07,0.040
-7.900E-07,0.000
-7.800E-07,-0.020
-7.700E-07,0.000
-7.600E-07,-0.220
-7.500E-07,-0.020
-7.400E-07,-0.220
-7.300E-07,0.020
-7.200E-07,0.340
-7.100E-07,0.480
-7.000E-07,0.560
-6.900E-07,0.340
-6.800E-07,0.080
-6.700E-07,-0.140
-6.600E-07,-0.100
-6.500E-07,0.120
-6.400E-07,0.300
-6.300E-07,0.380
-6.200E-07,0.300
-6.100E-07,0.120
-6.000E-07,-0.020
-5.900E-07,-0.060
-5.800E-07,-0.060
-5.700E-07,0.060
-5.600E-07,0.060
-5.500E-07,0.000
-5.400E-07,0.240
-5.300E-07,-0.180
-5.200E-07,-0.300
-5.100E-07,-0.220
-5.000E-07,-0.420
-4.900E-07,-0.140
-4.800E-07,0.300
-4.700E-07,0.480
-4.600E-07,0.520
-4.500E-07,0.180
-4.400E-07,-0.100
-4.300E-07,-0.180
-4.200E-07,-0.060
-4.100E-07,0.180
-4.000E-07,0.400
-3.900E-07,0.400
-3.800E-07,0.260
-3.700E-07,0.080
-3.600E-07,-0.020
-3.500E-07,0.040
-3.400E-07,0.100
-3.300E-07,0.200
-3.200E-07,0.220
-3.100E-07,0.120
-3.000E-07,0.020
-2.900E-07,0.000
-2.800E-07,-0.020
-2.700E-07,0.060
-2.600E-07,0.100
-2.500E-07,0.160
-2.400E-07,0.160
-2.300E-07,0.140
-2.200E-07,0.180
-2.100E-07,0.080
-2.000E-07,0.100
-1.900E-07,0.160
-1.800E-07,0.180
-1.700E-07,0.280
-1.600E-07,0.280
-1.500E-07,0.240
-1.400E-07,0.340
-1.300E-07,0.260
-1.200E-07,0.060
-1.100E-07,0.040
-1.000E-07,-0.200
-9.000E-08,-0.180
-8.000E-08,0.060
-7.000E-08,0.280
-6.000E-08,0.560
-5.000E-08,0.820
-4.000E-08,0.720
-3.000E-08,0.580
-2.000E-08,0.460
-1.000E-08,0.440
0.000E+00,0.360
1.000E-08,0.080
2.000E-08,0.900
3.000E-08,0.740
4.000E-08,-0.360
5.000E-08,-2.560
6.000E-08,-0.880
7.000E-08,-2.120
8.000E-08,1.020
9.000E-08,2.780
1.000E-07,2.760
1.100E-07,2.760
1.200E-07,0.240
1.300E-07,-0.900
1.400E-07,-0.860
1.500E-07,-0.020
1.600E-07,1.160
1.700E-07,1.900
1.800E-07,1.900
1.900E-07,1.260
2.000E-07,0.620
2.100E-07,0.080
2.200E-07,0.360
2.300E-07,0.340
2.400E-07,0.840
2.500E-07,0.760
2.600E-07,0.680
2.700E-07,0.480
2.800E-07,0.320
2.900E-07,0.420
3.000E-07,0.500
3.100E-07,0.640
3.200E-07,0.860
3.300E-07,0.760
3.400E-07,0.680
3.500E-07,0.460
3.600E-07,0.560
3.700E-07,0.500
3.800E-07,0.860
3.900E-07,0.940
4.000E-07,1.060
4.100E-07,0.960
4.200E-07,0.540
4.300E-07,0.640
4.400E-07,0.660
4.500E-07,0.780
4.600E-07,1.820
4.700E-07,1.280
4.800E-07,1.660
4.900E-07,1.400
5.000E-07,0.920
5.100E-07,0.660
5.200E-07,0.420
5.300E-07,0.080
5.400E-07,0.360
5.500E-07,0.340
5.600E-07,0.380
5.700E-07,0.300
5.800E-07,0.220
5.900E-07,0.020
6.000E-07,0.100
6.100E-07,0.300
6.200E-07,0.580
6.300E-07,0.920
6.400E-07,1.180
6.500E-07,1.240
6.600E-07,1.200
6.700E-07,1.180
6.800E-07,1.100
6.900E-07,1.200
7.000E-07,1.240
7.100E-07,1.320
7.200E-07,1.280
7.300E-07,1.260
7.400E-07,1.160
7.500E-07,1.120
7.600E-07,1.040
7.700E-07,0.980
7.800E-07,0.900
7.900E-07,0.800
8.000E-07,0.680
8.100E-07,0.720
8.200E-07,0.760
8.300E-07,0.840
8.400E-07,0.880
8.500E-07,0.960
8.600E-07,0.940
8.700E-07,0.940
8.800E-07,1.020
8.900E-07,1.120
9.000E-07,1.200
9.100E-07,1.220
9.200E-07,1.320
9.300E-07,1.300
9.400E-07,1.280
9.500E-07,1.240
9.600E-07,1.160
9.700E-07,1.120
9.800E-07,1.040
9.900E-07,1.000
1.000E-06,0.900
1.010E-06,0.800
1.020E-06,0.720
1.030E-06,0.620
1.040E-06,0.620
1.050E-06,0.560
1.060E-06,0.580
1.070E-06,0.640
1.080E-06,0.700
1.090E-06,0.740
1.100E-06,0.840
1.110E-06,0.920
1.120E-06,1.040
1.130E-06,1.200
1.140E-06,1.280
1.150E-06,1.360
1.160E-06,1.380
1.170E-06,1.500
1.180E-06,1.560
1.190E-06,1.620
1.200E-06,1.660
1.210E-06,1.700
1.220E-06,1.740
1.230E-06,1.720
1.240E-06,1.720
1.250E-06,1.720
1.260E-06,1.720
1.270E-06,1.680
1.280E-06,1.600
1.290E-06,1.500
1.300E-06,1.360
1.310E-06,1.260
1.320E-06,1.200
1.330E-06,1.220
1.340E-06,1.300
1.350E-06,1.400
1.360E-06,1.480
1.370E-06,1.700
1.380E-06,1.860
1.390E-06,1.860
1.400E-06,1.800
1.410E-06,1.680
1.420E-06,1.580
1.430E-06,1.400
1.440E-06,1.240
1.450E-06,1.040
1.460E-06,0.940
1.470E-06,0.900
1.480E-06,0.860
1.490E-06,0.780
1.500E-06,0.660
1.510E-06,0.520
1.520E-06,0.500
1.530E-06,0.380
1.540E-06,0.320
1.550E-06,0.220
1.560E-06,0.180
1.570E-06,0.120
1.580E-06,0.140
1.590E-06,0.160
1.600E-06,0.120
1.610E-06,0.060
1.620E-06,0.000
1.630E-06,-0.120
1.640E-06,-0.140
1.650E-06,-0.160
1.660E-06,-0.200
1.670E-06,-0.260
1.680E-06,-0.260
1.690E-06,-0.300
1.700E-06,-0.260
1.710E-06,-0.320
1.720E-06,-0.280
1.730E-06,-0.280
1.740E-06,-0.340
1.750E-06,-0.340
1.760E-06,-0.300
1.770E-06,-0.260
1.780E-06,-0.120
1.790E-06,-0.080
1.800E-06,0.000
1.810E-06,0.080
1.820E-06,0.160
1.830E-06,0.200
1.840E-06,0.100
1.850E-06,-0.080
1.860E-06,-0.200
1.870E-06,-0.300
1.880E-06,-0.320
1.890E-06,-0.340
1.900E-06,-0.420
1.910E-06,-0.460
1.920E-06,-0.500
1.930E-06,-0.520
1.940E-06,-0.520
1.950E-06,-0.480
1.960E-06,-0.420
1.970E-06,-0.360
1.980E-06,-0.220
1.990E-06,-0.160
2.000E-06,-0.080
2.010E-06,-0.180
2.020E-06,-0.220
2.030E-06,-0.260
2.040E-06,-0.360
2.050E-06,-0.460
2.060E-06,-0.420
2.070E-06,-0.400
2.080E-06,-0.420
2.090E-06,-0.460
2.100E-06,-0.560
2.110E-06,-0.640
2.120E-06,-0.620
2.130E-06,-0.560
2.140E-06,-0.580
2.150E-06,-0.560
2.160E-06,-0.500
2.170E-06,-0.480
2.180E-06,-0.380
2.190E-06,-0.340
2.200E-06,-0.340
2.210E-06,-0.320
2.220E-06,-0.320
2.230E-06,-0.380
2.240E-06,-0.360
2.250E-06,-0.420
2.260E-06,-0.380
2.270E-06,-0.340
2.280E-06,-0.380
2.290E-06,-0.500
2.300E-06,-0.600
2.310E-06,-0.680
2.320E-06,-0.700
2.330E-06,-0.740
2.340E-06,-0.740
2.350E-06,-0.760
2.360E-06,-0.740
2.370E-06,-0.600
2.380E-06,-0.380
2.390E-06,-0.260
2.400E-06,-0.300
2.410E-06,-0.340
2.420E-06,-0.280
2.430E-06,-0.080
2.440E-06,0.100
2.450E-06,0.140
2.460E-06,0.040
2.470E-06,-0.120
2.480E-06,-0.220
2.490E-06,-0.260
2.500E-06,-0.260
2.510E-06,-0.280
2.520E-06,-0.280
2.530E-06,-0.300
2.540E-06,-0.300
2.550E-06,-0.260
2.560E-06,-0.240
2.570E-06,-0.220
2.580E-06,-0.220
2.590E-06,-0.200
2.600E-06,-0.220
2.610E-06,-0.260
2.620E-06,-0.260
2.630E-06,-0.280
2.640E-06,-0.260
2.650E-06,-0.200
2.660E-06,-0.160
2.670E-06,-0.080
2.680E-06,0.000
2.690E-06,0.060
2.700E-06,0.080
2.710E-06,0.080
2.720E-06,0.000
2.730E-06,0.000
2.740E-06,-0.060
2.750E-06,-0.060
2.760E-06,-0.060
2.770E-06,-0.040
2.780E-06,-0.060
2.790E-06,-0.100
2.800E-06,-0.060
2.810E-06,-0.020
2.820E-06,0.020
2.830E-06,0.060
2.840E-06,0.120
2.850E-06,0.160
2.860E-06,0.220
2.870E-06,0.300
2.880E-06,0.340
2.890E-06,0.400
2.900E-06,0.380
2.910E-06,0.300
2.920E-06,0.300
2.930E-06,0.280
2.940E-06,0.280
2.950E-06,0.260
2.960E-06,0.240
2.970E-06,0.220
2.980E-06,0.220
2.990E-06,0.180
3.000E-06,0.160
3.010E-06,0.140
3.020E-06,0.080
3.030E-06,0.020
3.040E-06,-0.020
3.050E-06,-0.020
3.060E-06,-0.040
3.070E-06,-0.080
3.080E-06,-0.100
3.090E-06,-0.100
3.100E-06,-0.080
3.110E-06,-0.060
3.120E-06,-0.080
3.130E-06,-0.060
3.140E-06,-0.040
3.150E-06,0.020
3.160E-06,0.000
3.170E-06,0.060
3.180E-06,0.100
3.190E-06,0.160
3.200E-06,0.200
3.210E-06,0.180
3.220E-06,0.220
3.230E-06,0.240
3.240E-06,0.220
3.250E-06,0.200
3.260E-06,0.160
3.270E-06,0.100
3.280E-06,0.100
3.290E-06,0.020
3.300E-06,-0.060
3.310E-06,-0.120
3.320E-06,-0.180
3.330E-06,-0.160
3.340E-06,-0.180
3.350E-06,-0.160
3.360E-06,-0.160
3.370E-06,-0.160
3.380E-06,-0.100
3.390E-06,-0.080
3.400E-06,-0.020
3.410E-06,0.020
3.420E-06,0.060
3.430E-06,0.100
3.440E-06,0.080
3.450E-06,0.100
3.460E-06,0.060
3.470E-06,0.080
3.480E-06,0.140
3.490E-06,0.160
3.500E-06,0.220
3.510E-06,0.280
3.520E-06,0.320
3.530E-06,0.320
3.540E-06,0.380
3.550E-06,0.400
3.560E-06,0.460
3.570E-06,0.480
3.580E-06,0.420
3.590E-06,0.400
3.600E-06,0.320
3.610E-06,0.220
3.620E-06,0.160
3.630E-06,0.100
3.640E-06,0.040
3.650E-06,0.040
3.660E-06,0.020
3.670E-06,0.020
3.680E-06,0.080
3.690E-06,0.120
