mediciones/Mediciones filtradas (saque las feas)/6-10/10/WaveData5564.csv

#timebase=2000000(ps)
,#voltbase=100000(mv/100)
#size=4000
-4.250E-06,0.004
-4.240E-06,0.008
-4.230E-06,0.000
-4.220E-06,0.000
-4.210E-06,0.004
-4.200E-06,0.008
-4.190E-06,0.008
-4.180E-06,0.008
-4.170E-06,0.008
-4.160E-06,0.000
-4.150E-06,0.004
-4.140E-06,0.000
-4.130E-06,0.004
-4.120E-06,0.004
-4.110E-06,0.008
-4.100E-06,0.008
-4.090E-06,0.012
-4.080E-06,0.000
-4.070E-06,0.000
-4.060E-06,0.004
-4.050E-06,0.000
-4.040E-06,0.004
-4.030E-06,0.000
-4.020E-06,0.004
-4.010E-06,0.004
-4.000E-06,0.008
-3.990E-06,0.004
-3.980E-06,0.000
-3.970E-06,0.004
-3.960E-06,0.000
-3.950E-06,0.004
-3.940E-06,0.004
-3.930E-06,0.004
-3.920E-06,0.008
-3.910E-06,0.004
-3.900E-06,0.008
-3.890E-06,0.008
-3.880E-06,-0.004
-3.870E-06,0.000
-3.860E-06,0.004
-3.850E-06,0.004
-3.840E-06,0.004
-3.830E-06,0.008
-3.820E-06,0.004
-3.810E-06,0.000
-3.800E-06,0.004
-3.790E-06,0.008
-3.780E-06,0.000
-3.770E-06,-0.004
-3.760E-06,0.004
-3.750E-06,0.004
-3.740E-06,0.000
-3.730E-06,0.004
-3.720E-06,0.004
-3.710E-06,0.004
-3.700E-06,0.000
-3.690E-06,0.004
-3.680E-06,0.004
-3.670E-06,0.004
-3.660E-06,0.000
-3.650E-06,0.000
-3.640E-06,0.004
-3.630E-06,0.004
-3.620E-06,0.000
-3.610E-06,0.004
-3.600E-06,0.004
-3.590E-06,0.004
-3.580E-06,-0.004
-3.570E-06,-0.004
-3.560E-06,0.004
-3.550E-06,0.000
-3.540E-06,0.004
-3.530E-06,0.004
-3.520E-06,0.000
-3.510E-06,0.004
-3.500E-06,0.008
-3.490E-06,0.008
-3.480E-06,0.008
-3.470E-06,0.008
-3.460E-06,0.004
-3.450E-06,0.008
-3.440E-06,0.000
-3.430E-06,0.000
-3.420E-06,0.000
-3.410E-06,0.000
-3.400E-06,0.004
-3.390E-06,0.004
-3.380E-06,0.000
-3.370E-06,0.004
-3.360E-06,0.004
-3.350E-06,0.004
-3.340E-06,0.004
-3.330E-06,0.004
-3.320E-06,0.004
-3.310E-06,0.004
-3.300E-06,0.000
-3.290E-06,0.004
-3.280E-06,0.004
-3.270E-06,0.004
-3.260E-06,-0.004
-3.250E-06,0.004
-3.240E-06,0.012
-3.230E-06,0.004
-3.220E-06,0.004
-3.210E-06,0.004
-3.200E-06,0.008
-3.190E-06,0.000
-3.180E-06,0.000
-3.170E-06,0.000
-3.160E-06,0.004
-3.150E-06,-0.004
-3.140E-06,0.000
-3.130E-06,0.004
-3.120E-06,0.004
-3.110E-06,0.004
-3.100E-06,0.004
-3.090E-06,0.004
-3.080E-06,0.004
-3.070E-06,0.000
-3.060E-06,0.008
-3.050E-06,-0.004
-3.040E-06,0.004
-3.030E-06,0.004
-3.020E-06,0.004
-3.010E-06,0.000
-3.000E-06,0.000
-2.990E-06,0.000
-2.980E-06,0.004
-2.970E-06,0.004
-2.960E-06,0.004
-2.950E-06,0.004
-2.940E-06,0.000
-2.930E-06,0.004
-2.920E-06,0.004
-2.910E-06,0.004
-2.900E-06,0.000
-2.890E-06,0.004
-2.880E-06,0.004
-2.870E-06,0.000
-2.860E-06,0.000
-2.850E-06,0.008
-2.840E-06,0.004
-2.830E-06,0.000
-2.820E-06,0.004
-2.810E-06,0.004
-2.800E-06,0.004
-2.790E-06,0.004
-2.780E-06,0.004
-2.770E-06,0.004
-2.760E-06,0.004
-2.750E-06,0.004
-2.740E-06,0.004
-2.730E-06,0.000
-2.720E-06,0.004
-2.710E-06,0.008
-2.700E-06,0.008
-2.690E-06,0.008
-2.680E-06,0.000
-2.670E-06,0.004
-2.660E-06,0.012
-2.650E-06,0.040
-2.640E-06,0.064
-2.630E-06,0.060
-2.620E-06,0.028
-2.610E-06,-0.028
-2.600E-06,-0.080
-2.590E-06,-0.108
-2.580E-06,-0.080
-2.570E-06,0.004
-2.560E-06,0.072
-2.550E-06,0.120
-2.540E-06,0.088
-2.530E-06,0.012
-2.520E-06,-0.024
-2.510E-06,-0.100
-2.500E-06,-0.052
-2.490E-06,0.060
-2.480E-06,0.060
-2.470E-06,0.056
-2.460E-06,0.068
-2.450E-06,-0.088
-2.440E-06,-0.060
-2.430E-06,-0.056
-2.420E-06,-0.008
-2.410E-06,-0.004
-2.400E-06,0.056
-2.390E-06,0.068
-2.380E-06,0.032
-2.370E-06,0.040
-2.360E-06,0.000
-2.350E-06,-0.032
-2.340E-06,-0.052
-2.330E-06,-0.004
-2.320E-06,0.004
-2.310E-06,0.024
-2.300E-06,0.012
-2.290E-06,-0.004
-2.280E-06,-0.008
-2.270E-06,-0.024
-2.260E-06,-0.020
-2.250E-06,-0.008
-2.240E-06,0.020
-2.230E-06,0.032
-2.220E-06,0.052
-2.210E-06,0.048
-2.200E-06,0.020
-2.190E-06,-0.012
-2.180E-06,-0.020
-2.170E-06,-0.032
-2.160E-06,-0.016
-2.150E-06,0.008
-2.140E-06,0.012
-2.130E-06,0.016
-2.120E-06,0.004
-2.110E-06,0.004
-2.100E-06,0.000
-2.090E-06,0.000
-2.080E-06,0.012
-2.070E-06,0.016
-2.060E-06,0.024
-2.050E-06,0.020
-2.040E-06,0.012
-2.030E-06,0.000
-2.020E-06,0.004
-2.010E-06,-0.012
-2.000E-06,0.000
-1.990E-06,0.004
-1.980E-06,0.008
-1.970E-06,0.016
-1.960E-06,0.012
-1.950E-06,0.012
-1.940E-06,0.004
-1.930E-06,0.004
-1.920E-06,0.008
-1.910E-06,0.016
-1.900E-06,0.024
-1.890E-06,0.052
-1.880E-06,0.040
-1.870E-06,0.040
-1.860E-06,-0.020
-1.850E-06,-0.052
-1.840E-06,-0.072
-1.830E-06,-0.076
-1.820E-06,-0.016
-1.810E-06,0.020
-1.800E-06,0.088
-1.790E-06,0.044
-1.780E-06,-0.024
-1.770E-06,-0.040
-1.760E-06,-0.028
-1.750E-06,-0.020
-1.740E-06,0.020
-1.730E-06,0.040
-1.720E-06,0.028
-1.710E-06,0.040
-1.700E-06,0.012
-1.690E-06,0.004
-1.680E-06,-0.024
-1.670E-06,-0.016
-1.660E-06,-0.008
-1.650E-06,0.056
-1.640E-06,0.044
-1.630E-06,0.016
-1.620E-06,-0.024
-1.610E-06,-0.020
-1.600E-06,-0.036
-1.590E-06,-0.028
-1.580E-06,-0.008
-1.570E-06,0.008
-1.560E-06,0.036
-1.550E-06,0.028
-1.540E-06,0.020
-1.530E-06,-0.020
-1.520E-06,-0.028
-1.510E-06,-0.036
-1.500E-06,-0.008
-1.490E-06,0.008
-1.480E-06,0.028
-1.470E-06,0.024
-1.460E-06,0.024
-1.450E-06,0.012
-1.440E-06,-0.024
-1.430E-06,-0.024
-1.420E-06,-0.020
-1.410E-06,0.012
-1.400E-06,0.024
-1.390E-06,0.028
-1.380E-06,0.012
-1.370E-06,0.000
-1.360E-06,-0.008
-1.350E-06,-0.012
-1.340E-06,-0.008
-1.330E-06,0.004
-1.320E-06,0.016
-1.310E-06,0.012
-1.300E-06,0.020
-1.290E-06,0.008
-1.280E-06,0.000
-1.270E-06,-0.008
-1.260E-06,0.000
-1.250E-06,-0.004
-1.240E-06,0.000
-1.230E-06,0.016
-1.220E-06,0.020
-1.210E-06,0.012
-1.200E-06,0.008
-1.190E-06,-0.004
-1.180E-06,-0.008
-1.170E-06,-0.004
-1.160E-06,0.004
-1.150E-06,0.012
-1.140E-06,0.016
-1.130E-06,0.020
-1.120E-06,0.004
-1.110E-06,0.000
-1.100E-06,-0.004
-1.090E-06,-0.008
-1.080E-06,0.016
-1.070E-06,0.016
-1.060E-06,0.016
-1.050E-06,0.016
-1.040E-06,0.016
-1.030E-06,0.008
-1.020E-06,0.000
-1.010E-06,0.008
-1.000E-06,0.000
-9.900E-07,0.012
-9.800E-07,0.016
-9.700E-07,0.012
-9.600E-07,0.016
-9.500E-07,0.024
-9.400E-07,0.016
-9.300E-07,0.016
-9.200E-07,0.004
-9.100E-07,0.020
-9.000E-07,0.000
-8.900E-07,0.016
-8.800E-07,0.028
-8.700E-07,0.028
-8.600E-07,0.020
-8.500E-07,0.024
-8.400E-07,0.020
-8.300E-07,0.028
-8.200E-07,0.060
-8.100E-07,0.076
-8.000E-07,0.108
-7.900E-07,0.080
-7.800E-07,0.092
-7.700E-07,0.000
-7.600E-07,-0.008
-7.500E-07,-0.132
-7.400E-07,-0.184
-7.300E-07,-0.152
-7.200E-07,-0.040
-7.100E-07,0.096
-7.000E-07,0.124
-6.900E-07,0.108
-6.800E-07,0.016
-6.700E-07,-0.068
-6.600E-07,-0.116
-6.500E-07,-0.076
-6.400E-07,-0.040
-6.300E-07,0.028
-6.200E-07,0.076
-6.100E-07,0.080
-6.000E-07,0.040
-5.900E-07,-0.012
-5.800E-07,-0.068
-5.700E-07,-0.072
-5.600E-07,-0.064
-5.500E-07,0.020
-5.400E-07,0.060
-5.300E-07,0.080
-5.200E-07,0.040
-5.100E-07,-0.008
-5.000E-07,-0.044
-4.900E-07,-0.076
-4.800E-07,-0.020
-4.700E-07,-0.032
-4.600E-07,0.012
-4.500E-07,0.056
-4.400E-07,0.060
-4.300E-07,0.020
-4.200E-07,-0.024
-4.100E-07,-0.060
-4.000E-07,-0.072
-3.900E-07,-0.028
-3.800E-07,0.028
-3.700E-07,0.068
-3.600E-07,0.088
-3.500E-07,0.060
-3.400E-07,0.012
-3.300E-07,-0.032
-3.200E-07,-0.044
-3.100E-07,-0.036
-3.000E-07,0.004
-2.900E-07,0.040
-2.800E-07,0.068
-2.700E-07,0.064
-2.600E-07,0.048
-2.500E-07,0.020
-2.400E-07,0.008
-2.300E-07,0.020
-2.200E-07,0.024
-2.100E-07,0.072
-2.000E-07,0.092
-1.900E-07,0.092
-1.800E-07,0.080
-1.700E-07,0.072
-1.600E-07,-0.032
-1.500E-07,0.140
-1.400E-07,-0.060
-1.300E-07,0.100
-1.200E-07,0.104
-1.100E-07,0.020
-1.000E-07,0.108
-9.000E-08,0.096
-8.000E-08,0.028
-7.000E-08,-0.036
-6.000E-08,-0.192
-5.000E-08,-0.288
-4.000E-08,-0.340
-3.000E-08,-0.204
-2.000E-08,-0.024
-1.000E-08,0.212
0.000E+00,0.280
1.000E-08,0.224
2.000E-08,0.036
3.000E-08,-0.188
4.000E-08,-0.224
5.000E-08,-0.172
6.000E-08,0.064
7.000E-08,0.232
8.000E-08,0.272
9.000E-08,0.208
1.000E-07,0.092
1.100E-07,-0.044
1.200E-07,-0.160
1.300E-07,-0.256
1.400E-07,-0.196
1.500E-07,-0.036
1.600E-07,0.140
1.700E-07,0.160
1.800E-07,0.132
1.900E-07,0.032
2.000E-07,-0.080
2.100E-07,-0.144
2.200E-07,-0.112
2.300E-07,-0.012
2.400E-07,0.080
2.500E-07,0.148
2.600E-07,0.120
2.700E-07,0.036
2.800E-07,-0.040
2.900E-07,-0.092
3.000E-07,-0.076
3.100E-07,-0.016
3.200E-07,0.052
3.300E-07,0.104
3.400E-07,0.104
3.500E-07,0.072
3.600E-07,0.044
3.700E-07,0.000
3.800E-07,-0.020
3.900E-07,-0.068
4.000E-07,-0.036
4.100E-07,-0.024
4.200E-07,-0.004
4.300E-07,0.004
4.400E-07,0.012
4.500E-07,0.028
4.600E-07,0.004
4.700E-07,0.008
4.800E-07,-0.032
4.900E-07,-0.032
5.000E-07,-0.008
5.100E-07,0.012
5.200E-07,0.056
5.300E-07,0.040
5.400E-07,0.016
5.500E-07,0.016
5.600E-07,-0.012
5.700E-07,-0.004
5.800E-07,0.016
5.900E-07,0.044
6.000E-07,0.084
6.100E-07,0.096
6.200E-07,0.072
6.300E-07,0.060
6.400E-07,0.056
6.500E-07,0.040
6.600E-07,0.056
6.700E-07,0.080
6.800E-07,0.080
6.900E-07,0.088
7.000E-07,0.072
7.100E-07,0.068
7.200E-07,0.060
7.300E-07,0.076
7.400E-07,0.060
7.500E-07,0.076
7.600E-07,0.088
7.700E-07,0.088
7.800E-07,0.088
7.900E-07,0.080
8.000E-07,0.064
8.100E-07,0.036
8.200E-07,0.004
8.300E-07,-0.044
8.400E-07,-0.156
8.500E-07,-0.152
8.600E-07,-0.152
8.700E-07,0.060
8.800E-07,0.144
8.900E-07,0.092
9.000E-07,-0.104
9.100E-07,-0.244
9.200E-07,-0.212
9.300E-07,-0.104
9.400E-07,-0.132
9.500E-07,-0.120
9.600E-07,-0.112
9.700E-07,0.032
9.800E-07,-0.056
9.900E-07,-0.112
1.000E-06,-0.124
1.010E-06,-0.040
1.020E-06,0.048
1.030E-06,0.032
1.040E-06,0.024
1.050E-06,-0.024
1.060E-06,-0.012
1.070E-06,-0.028
1.080E-06,-0.004
1.090E-06,0.020
1.100E-06,0.064
1.110E-06,0.032
1.120E-06,0.032
1.130E-06,-0.016
1.140E-06,-0.036
1.150E-06,-0.036
1.160E-06,-0.016
1.170E-06,0.020
1.180E-06,0.008
1.190E-06,0.036
1.200E-06,0.044
1.210E-06,0.056
1.220E-06,0.028
1.230E-06,0.008
1.240E-06,-0.012
1.250E-06,-0.020
1.260E-06,-0.012
1.270E-06,-0.008
1.280E-06,0.008
1.290E-06,-0.004
1.300E-06,-0.020
1.310E-06,-0.024
1.320E-06,-0.028
1.330E-06,-0.008
1.340E-06,0.020
1.350E-06,0.044
1.360E-06,0.056
1.370E-06,0.040
1.380E-06,0.000
1.390E-06,-0.012
1.400E-06,0.000
1.410E-06,0.036
1.420E-06,0.052
1.430E-06,0.080
1.440E-06,0.088
1.450E-06,0.080
1.460E-06,0.084
1.470E-06,0.084
1.480E-06,0.080
1.490E-06,0.072
1.500E-06,0.096
1.510E-06,0.092
1.520E-06,0.108
1.530E-06,0.120
1.540E-06,0.124
1.550E-06,0.136
1.560E-06,0.132
1.570E-06,0.124
1.580E-06,0.124
1.590E-06,0.128
1.600E-06,0.132
1.610E-06,0.144
1.620E-06,0.144
1.630E-06,0.132
1.640E-06,0.108
1.650E-06,0.128
1.660E-06,0.096
1.670E-06,0.024
1.680E-06,0.052
1.690E-06,-0.056
1.700E-06,-0.304
1.710E-06,-0.512
1.720E-06,-0.512
1.730E-06,-0.512
1.740E-06,-0.420
1.750E-06,0.308
1.760E-06,0.160
1.770E-06,0.244
1.780E-06,0.320
1.790E-06,0.088
1.800E-06,-0.320
1.810E-06,-0.428
1.820E-06,-0.160
1.830E-06,0.096
1.840E-06,0.332
1.850E-06,0.244
1.860E-06,0.052
1.870E-06,-0.140
1.880E-06,-0.288
1.890E-06,-0.188
1.900E-06,-0.100
1.910E-06,0.060
1.920E-06,0.160
1.930E-06,0.244
1.940E-06,0.108
1.950E-06,-0.048
1.960E-06,-0.176
1.970E-06,-0.220
1.980E-06,-0.088
1.990E-06,0.056
2.000E-06,0.184
2.010E-06,0.196
2.020E-06,0.152
2.030E-06,0.016
2.040E-06,-0.056
2.050E-06,-0.092
2.060E-06,-0.044
2.070E-06,0.064
2.080E-06,0.156
2.090E-06,0.232
2.100E-06,0.220
2.110E-06,0.152
2.120E-06,0.076
2.130E-06,0.032
2.140E-06,0.072
2.150E-06,0.152
2.160E-06,0.224
2.170E-06,0.224
2.180E-06,0.136
2.190E-06,-0.040
2.200E-06,-0.152
2.210E-06,-0.216
2.220E-06,-0.176
2.230E-06,-0.132
2.240E-06,-0.008
2.250E-06,0.072
2.260E-06,-0.052
2.270E-06,-0.144
2.280E-06,-0.304
2.290E-06,-0.272
2.300E-06,-0.152
2.310E-06,-0.020
2.320E-06,0.100
2.330E-06,0.092
2.340E-06,0.060
2.350E-06,-0.040
2.360E-06,-0.120
2.370E-06,-0.164
2.380E-06,-0.076
2.390E-06,0.036
2.400E-06,0.160
2.410E-06,0.160
2.420E-06,0.124
2.430E-06,0.032
2.440E-06,-0.024
2.450E-06,0.008
2.460E-06,0.012
2.470E-06,0.072
2.480E-06,0.088
2.490E-06,0.144
2.500E-06,0.128
2.510E-06,0.120
2.520E-06,0.060
2.530E-06,0.048
2.540E-06,0.052
2.550E-06,0.084
2.560E-06,0.088
2.570E-06,0.100
2.580E-06,0.104
2.590E-06,0.132
2.600E-06,0.140
2.610E-06,0.128
2.620E-06,0.132
2.630E-06,0.080
2.640E-06,0.028
2.650E-06,-0.004
2.660E-06,-0.044
2.670E-06,-0.072
2.680E-06,-0.084
2.690E-06,-0.072
2.700E-06,-0.064
2.710E-06,-0.052
2.720E-06,-0.060
2.730E-06,-0.052
2.740E-06,-0.040
2.750E-06,-0.004
2.760E-06,0.096
2.770E-06,0.092
2.780E-06,0.136
2.790E-06,0.152
2.800E-06,0.204
2.810E-06,0.188
2.820E-06,0.176
2.830E-06,0.160
2.840E-06,0.112
2.850E-06,0.120
2.860E-06,0.104
2.870E-06,0.156
2.880E-06,0.156
2.890E-06,0.244
2.900E-06,0.204
2.910E-06,0.216
2.920E-06,0.184
2.930E-06,0.112
2.940E-06,0.108
2.950E-06,0.060
2.960E-06,0.084
2.970E-06,0.136
2.980E-06,0.204
2.990E-06,0.260
3.000E-06,0.200
3.010E-06,0.128
3.020E-06,0.000
3.030E-06,-0.052
3.040E-06,0.044
3.050E-06,0.040
3.060E-06,0.064
3.070E-06,-0.036
3.080E-06,0.024
3.090E-06,-0.196
3.100E-06,0.028
3.110E-06,0.048
3.120E-06,-0.508
3.130E-06,-0.512
3.140E-06,-0.508
3.150E-06,-0.508
3.160E-06,-0.508
3.170E-06,-0.080
3.180E-06,0.396
3.190E-06,0.544
3.200E-06,0.544
3.210E-06,-0.160
3.220E-06,-0.472
3.230E-06,-0.512
3.240E-06,-0.296
3.250E-06,0.040
3.260E-06,0.408
3.270E-06,0.520
3.280E-06,0.464
3.290E-06,0.188
3.300E-06,-0.036
3.310E-06,-0.184
3.320E-06,-0.144
3.330E-06,0.072
3.340E-06,0.236
3.350E-06,0.360
3.360E-06,0.340
3.370E-06,0.272
3.380E-06,0.044
3.390E-06,-0.008
3.400E-06,-0.044
3.410E-06,0.076
3.420E-06,0.164
3.430E-06,0.288
3.440E-06,0.300
3.450E-06,0.204
3.460E-06,0.136
3.470E-06,0.028
3.480E-06,0.088
3.490E-06,0.120
3.500E-06,0.208
3.510E-06,0.244
3.520E-06,0.228
3.530E-06,0.144
3.540E-06,0.020
3.550E-06,-0.028
3.560E-06,-0.068
3.570E-06,-0.040
3.580E-06,-0.028
3.590E-06,0.004
3.600E-06,0.076
3.610E-06,0.140
3.620E-06,0.160
3.630E-06,0.088
3.640E-06,-0.012
3.650E-06,-0.092
3.660E-06,0.028
3.670E-06,-0.012
3.680E-06,0.060
3.690E-06,0.084
3.700E-06,0.080
3.710E-06,0.028
3.720E-06,-0.160
3.730E-06,-0.200
3.740E-06,-0.140
3.750E-06,-0.064
3.760E-06,-0.016
3.770E-06,-0.004
3.780E-06,0.084
3.790E-06,0.252
3.800E-06,0.120
3.810E-06,0.028
3.820E-06,-0.064
3.830E-06,-0.108
3.840E-06,-0.136
3.850E-06,-0.144
3.860E-06,0.032
3.870E-06,0.044
3.880E-06,0.164
3.890E-06,0.152
3.900E-06,0.140
3.910E-06,-0.028
3.920E-06,0.056
3.930E-06,0.152
3.940E-06,0.184
3.950E-06,0.288
3.960E-06,0.320
3.970E-06,0.288
3.980E-06,0.188
3.990E-06,0.124
4.000E-06,0.120
4.010E-06,0.152
4.020E-06,0.236
4.030E-06,0.300
4.040E-06,0.300
4.050E-06,0.288
4.060E-06,0.208
4.070E-06,0.152
4.080E-06,0.124
4.090E-06,0.140
4.100E-06,0.200
4.110E-06,0.260
4.120E-06,0.300
4.130E-06,0.284
4.140E-06,0.252
4.150E-06,0.192
4.160E-06,0.160
4.170E-06,0.152
4.180E-06,0.192
4.190E-06,0.240
4.200E-06,0.268
4.210E-06,0.276
4.220E-06,0.240
4.230E-06,0.204
4.240E-06,0.172
4.250E-06,0.168
4.260E-06,0.176
4.270E-06,0.208
4.280E-06,0.236
4.290E-06,0.252
4.300E-06,0.228
4.310E-06,0.196
4.320E-06,0.176
4.330E-06,0.144
4.340E-06,0.152
4.350E-06,0.172
4.360E-06,0.208
4.370E-06,0.232
4.380E-06,0.244
4.390E-06,0.228
4.400E-06,0.204
4.410E-06,0.180
4.420E-06,0.176
4.430E-06,0.192
4.440E-06,0.208
4.450E-06,0.240
4.460E-06,0.244
4.470E-06,0.236
4.480E-06,0.216
4.490E-06,0.192
4.500E-06,0.180
4.510E-06,0.180
4.520E-06,0.188
4.530E-06,0.212
4.540E-06,0.232
4.550E-06,0.228
4.560E-06,0.216
4.570E-06,0.192
4.580E-06,0.192
4.590E-06,0.192
4.600E-06,0.200
4.610E-06,0.220
4.620E-06,0.236
4.630E-06,0.244
4.640E-06,0.228
4.650E-06,0.208
4.660E-06,0.200
4.670E-06,0.188
4.680E-06,0.196
4.690E-06,0.208
4.700E-06,0.220
4.710E-06,0.224
4.720E-06,0.216
4.730E-06,0.204
4.740E-06,0.196
4.750E-06,0.196
4.760E-06,0.204
4.770E-06,0.204
4.780E-06,0.216
4.790E-06,0.220
4.800E-06,0.220
4.810E-06,0.204
4.820E-06,0.200
4.830E-06,0.192
4.840E-06,0.192
4.850E-06,0.200
4.860E-06,0.204
4.870E-06,0.208
4.880E-06,0.208
4.890E-06,0.200
4.900E-06,0.196
4.910E-06,0.188
4.920E-06,0.188
4.930E-06,0.196
4.940E-06,0.204
4.950E-06,0.208
4.960E-06,0.204
4.970E-06,0.204
4.980E-06,0.196
4.990E-06,0.192
5.000E-06,0.192
5.010E-06,0.192
5.020E-06,0.196
5.030E-06,0.196
5.040E-06,0.196
5.050E-06,0.200
5.060E-06,0.196
5.070E-06,0.188
5.080E-06,0.192
5.090E-06,0.192
5.100E-06,0.196
5.110E-06,0.192
5.120E-06,0.192
5.130E-06,0.192
5.140E-06,0.188
5.150E-06,0.188
5.160E-06,0.192
5.170E-06,0.192
5.180E-06,0.188
5.190E-06,0.188
5.200E-06,0.188
5.210E-06,0.188
5.220E-06,0.184
5.230E-06,0.184
5.240E-06,0.184
5.250E-06,0.180
5.260E-06,0.180
5.270E-06,0.184
5.280E-06,0.184
5.290E-06,0.184
5.300E-06,0.188
5.310E-06,0.184
5.320E-06,0.180
5.330E-06,0.176
5.340E-06,0.168
5.350E-06,0.172
5.360E-06,0.172
5.370E-06,0.176
5.380E-06,0.184
5.390E-06,0.184
5.400E-06,0.176
5.410E-06,0.168
5.420E-06,0.160
5.430E-06,0.156
5.440E-06,0.168
5.450E-06,0.172
5.460E-06,0.184
5.470E-06,0.180
5.480E-06,0.180
5.490E-06,0.168
5.500E-06,0.164
5.510E-06,0.168
5.520E-06,0.168
5.530E-06,0.176
5.540E-06,0.180
5.550E-06,0.184
5.560E-06,0.172
5.570E-06,0.168
5.580E-06,0.164
5.590E-06,0.160
5.600E-06,0.160
5.610E-06,0.168
5.620E-06,0.172
5.630E-06,0.172
5.640E-06,0.168
5.650E-06,0.160
5.660E-06,0.164
5.670E-06,0.160
5.680E-06,0.160
5.690E-06,0.168
5.700E-06,0.172
5.710E-06,0.180
5.720E-06,0.164
5.730E-06,0.168
5.740E-06,0.156
5.750E-06,0.160
5.760E-06,0.152
5.770E-06,0.156
5.780E-06,0.168
5.790E-06,0.160
5.800E-06,0.164
5.810E-06,0.152
5.820E-06,0.152
5.830E-06,0.156
5.840E-06,0.152
5.850E-06,0.156
5.860E-06,0.152
5.870E-06,0.156
5.880E-06,0.160
5.890E-06,0.156
5.900E-06,0.152
5.910E-06,0.152
5.920E-06,0.148
5.930E-06,0.140
5.940E-06,0.140
5.950E-06,0.140
5.960E-06,0.144
5.970E-06,0.156
5.980E-06,0.152
5.990E-06,0.148
6.000E-06,0.148
6.010E-06,0.152
6.020E-06,0.140
6.030E-06,0.144
6.040E-06,0.144
6.050E-06,0.144
6.060E-06,0.160
6.070E-06,0.160
6.080E-06,0.152
6.090E-06,0.148
6.100E-06,0.144
6.110E-06,0.140
6.120E-06,0.144
6.130E-06,0.152
6.140E-06,0.148
6.150E-06,0.156
6.160E-06,0.156
6.170E-06,0.160
6.180E-06,0.152
6.190E-06,0.148
6.200E-06,0.148
6.210E-06,0.148
6.220E-06,0.144
6.230E-06,0.144
6.240E-06,0.144
6.250E-06,0.144
6.260E-06,0.144
6.270E-06,0.144
6.280E-06,0.148
6.290E-06,0.148
6.300E-06,0.136
6.310E-06,0.140
6.320E-06,0.140
6.330E-06,0.136
6.340E-06,0.140
6.350E-06,0.140
6.360E-06,0.136
6.370E-06,0.136
6.380E-06,0.132
6.390E-06,0.136
6.400E-06,0.132
6.410E-06,0.140
6.420E-06,0.136
6.430E-06,0.136
6.440E-06,0.132
6.450E-06,0.132
6.460E-06,0.136
6.470E-06,0.132
6.480E-06,0.136
6.490E-06,0.136
6.500E-06,0.136
6.510E-06,0.136
6.520E-06,0.136
6.530E-06,0.140
6.540E-06,0.140
6.550E-06,0.140
6.560E-06,0.128
6.570E-06,0.128
6.580E-06,0.128
6.590E-06,0.128
6.600E-06,0.128
6.610E-06,0.124
6.620E-06,0.124
6.630E-06,0.132
6.640E-06,0.128
6.650E-06,0.124
6.660E-06,0.124
6.670E-06,0.124
6.680E-06,0.124
6.690E-06,0.124
6.700E-06,0.128
6.710E-06,0.124
6.720E-06,0.124
6.730E-06,0.124
6.740E-06,0.124
6.750E-06,0.120
6.760E-06,0.116
6.770E-06,0.120
6.780E-06,0.124
6.790E-06,0.128
6.800E-06,0.128
6.810E-06,0.128
6.820E-06,0.124
6.830E-06,0.120
6.840E-06,0.120
6.850E-06,0.120
6.860E-06,0.116
6.870E-06,0.116
6.880E-06,0.108
6.890E-06,0.112
6.900E-06,0.116
6.910E-06,0.120
6.920E-06,0.120
6.930E-06,0.124
6.940E-06,0.112
6.950E-06,0.112
6.960E-06,0.108
6.970E-06,0.108
6.980E-06,0.108
6.990E-06,0.112
7.000E-06,0.108
7.010E-06,0.100
7.020E-06,0.108
7.030E-06,0.104
7.040E-06,0.104
7.050E-06,0.108
7.060E-06,0.112
7.070E-06,0.112
7.080E-06,0.108
7.090E-06,0.100
7.100E-06,0.092
7.110E-06,0.096
7.120E-06,0.096
7.130E-06,0.100
7.140E-06,0.108
7.150E-06,0.104
7.160E-06,0.092
7.170E-06,0.092
7.180E-06,0.092
7.190E-06,0.092
7.200E-06,0.088
7.210E-06,0.096
7.220E-06,0.096
7.230E-06,0.096
7.240E-06,0.096
7.250E-06,0.092
7.260E-06,0.088
7.270E-06,0.092
7.280E-06,0.088
7.290E-06,0.092
7.300E-06,0.092
7.310E-06,0.096
7.320E-06,0.092
7.330E-06,0.092
7.340E-06,0.084
7.350E-06,0.088
7.360E-06,0.092
7.370E-06,0.088
7.380E-06,0.092
7.390E-06,0.096
7.400E-06,0.092
7.410E-06,0.092
7.420E-06,0.088
7.430E-06,0.092
7.440E-06,0.084
7.450E-06,0.088
7.460E-06,0.088
7.470E-06,0.092
7.480E-06,0.092
7.490E-06,0.084
7.500E-06,0.080
7.510E-06,0.080
7.520E-06,0.088
7.530E-06,0.088
7.540E-06,0.092
7.550E-06,0.092
7.560E-06,0.088
7.570E-06,0.084
7.580E-06,0.080
7.590E-06,0.084
7.600E-06,0.080
7.610E-06,0.080
7.620E-06,0.088
7.630E-06,0.088
7.640E-06,0.088
7.650E-06,0.084
7.660E-06,0.080
7.670E-06,0.080
7.680E-06,0.076
7.690E-06,0.076
7.700E-06,0.088
7.710E-06,0.080
7.720E-06,0.076
7.730E-06,0.076
7.740E-06,0.076
7.750E-06,0.080
7.760E-06,0.080
7.770E-06,0.076
7.780E-06,0.076
