mediciones/5-15/7.5/WaveData47161.csv

#timebase=2000000(ps)
,#voltbase=100000(mv/100)
#size=4000
-8.400E-06,-0.004
-8.390E-06,0.004
-8.380E-06,0.000
-8.370E-06,0.004
-8.360E-06,0.000
-8.350E-06,0.004
-8.340E-06,0.000
-8.330E-06,0.004
-8.320E-06,0.000
-8.310E-06,-0.004
-8.300E-06,0.000
-8.290E-06,0.008
-8.280E-06,0.004
-8.270E-06,0.000
-8.260E-06,0.000
-8.250E-06,0.008
-8.240E-06,0.004
-8.230E-06,-0.004
-8.220E-06,0.000
-8.210E-06,0.004
-8.200E-06,0.004
-8.190E-06,0.000
-8.180E-06,-0.004
-8.170E-06,0.000
-8.160E-06,0.008
-8.150E-06,0.008
-8.140E-06,0.008
-8.130E-06,0.000
-8.120E-06,0.000
-8.110E-06,0.000
-8.100E-06,0.000
-8.090E-06,0.000
-8.080E-06,0.004
-8.070E-06,0.008
-8.060E-06,0.004
-8.050E-06,0.000
-8.040E-06,0.004
-8.030E-06,0.000
-8.020E-06,0.000
-8.010E-06,0.008
-8.000E-06,0.008
-7.990E-06,0.008
-7.980E-06,0.000
-7.970E-06,0.004
-7.960E-06,0.004
-7.950E-06,0.004
-7.940E-06,0.004
-7.930E-06,0.000
-7.920E-06,0.004
-7.910E-06,0.000
-7.900E-06,0.004
-7.890E-06,-0.004
-7.880E-06,0.004
-7.870E-06,0.008
-7.860E-06,0.004
-7.850E-06,0.000
-7.840E-06,-0.004
-7.830E-06,0.000
-7.820E-06,0.004
-7.810E-06,0.004
-7.800E-06,0.004
-7.790E-06,0.000
-7.780E-06,-0.004
-7.770E-06,0.000
-7.760E-06,0.004
-7.750E-06,0.008
-7.740E-06,0.008
-7.730E-06,0.008
-7.720E-06,0.004
-7.710E-06,-0.004
-7.700E-06,-0.004
-7.690E-06,0.004
-7.680E-06,0.004
-7.670E-06,0.004
-7.660E-06,0.008
-7.650E-06,0.004
-7.640E-06,0.004
-7.630E-06,0.004
-7.620E-06,-0.004
-7.610E-06,0.000
-7.600E-06,0.004
-7.590E-06,0.004
-7.580E-06,0.004
-7.570E-06,0.000
-7.560E-06,0.004
-7.550E-06,-0.004
-7.540E-06,-0.004
-7.530E-06,0.004
-7.520E-06,0.000
-7.510E-06,0.000
-7.500E-06,0.004
-7.490E-06,0.004
-7.480E-06,0.008
-7.470E-06,-0.004
-7.460E-06,0.000
-7.450E-06,0.004
-7.440E-06,-0.004
-7.430E-06,0.000
-7.420E-06,0.004
-7.410E-06,0.004
-7.400E-06,0.004
-7.390E-06,0.004
-7.380E-06,0.004
-7.370E-06,0.004
-7.360E-06,0.000
-7.350E-06,-0.004
-7.340E-06,0.004
-7.330E-06,0.000
-7.320E-06,0.004
-7.310E-06,0.000
-7.300E-06,0.004
-7.290E-06,-0.004
-7.280E-06,-0.004
-7.270E-06,0.004
-7.260E-06,0.000
-7.250E-06,0.008
-7.240E-06,0.008
-7.230E-06,0.004
-7.220E-06,-0.004
-7.210E-06,0.000
-7.200E-06,0.000
-7.190E-06,0.004
-7.180E-06,0.004
-7.170E-06,0.004
-7.160E-06,0.004
-7.150E-06,0.000
-7.140E-06,0.000
-7.130E-06,-0.004
-7.120E-06,0.004
-7.110E-06,0.000
-7.100E-06,0.004
-7.090E-06,0.004
-7.080E-06,0.004
-7.070E-06,0.008
-7.060E-06,0.008
-7.050E-06,-0.004
-7.040E-06,0.004
-7.030E-06,0.004
-7.020E-06,0.000
-7.010E-06,0.004
-7.000E-06,0.004
-6.990E-06,0.004
-6.980E-06,-0.004
-6.970E-06,0.004
-6.960E-06,0.004
-6.950E-06,0.000
-6.940E-06,0.008
-6.930E-06,0.000
-6.920E-06,0.004
-6.910E-06,0.008
-6.900E-06,-0.004
-6.890E-06,0.004
-6.880E-06,0.004
-6.870E-06,0.008
-6.860E-06,0.004
-6.850E-06,0.004
-6.840E-06,0.004
-6.830E-06,-0.004
-6.820E-06,0.000
-6.810E-06,0.004
-6.800E-06,0.008
-6.790E-06,0.004
-6.780E-06,0.004
-6.770E-06,0.004
-6.760E-06,0.000
-6.750E-06,0.000
-6.740E-06,0.004
-6.730E-06,0.008
-6.720E-06,0.008
-6.710E-06,0.004
-6.700E-06,0.004
-6.690E-06,0.004
-6.680E-06,0.000
-6.670E-06,0.000
-6.660E-06,0.004
-6.650E-06,0.004
-6.640E-06,0.008
-6.630E-06,0.000
-6.620E-06,0.004
-6.610E-06,0.000
-6.600E-06,-0.004
-6.590E-06,0.000
-6.580E-06,0.000
-6.570E-06,0.004
-6.560E-06,0.004
-6.550E-06,0.004
-6.540E-06,0.004
-6.530E-06,0.004
-6.520E-06,0.004
-6.510E-06,0.004
-6.500E-06,-0.004
-6.490E-06,0.000
-6.480E-06,0.004
-6.470E-06,0.004
-6.460E-06,0.004
-6.450E-06,0.004
-6.440E-06,0.000
-6.430E-06,0.000
-6.420E-06,0.004
-6.410E-06,0.000
-6.400E-06,0.004
-6.390E-06,0.000
-6.380E-06,0.000
-6.370E-06,0.004
-6.360E-06,0.000
-6.350E-06,0.000
-6.340E-06,0.008
-6.330E-06,0.000
-6.320E-06,0.000
-6.310E-06,-0.004
-6.300E-06,0.000
-6.290E-06,0.004
-6.280E-06,0.008
-6.270E-06,0.008
-6.260E-06,0.004
-6.250E-06,0.004
-6.240E-06,-0.004
-6.230E-06,0.000
-6.220E-06,-0.004
-6.210E-06,0.004
-6.200E-06,0.008
-6.190E-06,0.008
-6.180E-06,0.000
-6.170E-06,-0.004
-6.160E-06,0.004
-6.150E-06,0.008
-6.140E-06,0.004
-6.130E-06,0.000
-6.120E-06,0.004
-6.110E-06,-0.004
-6.100E-06,0.000
-6.090E-06,0.004
-6.080E-06,0.004
-6.070E-06,0.008
-6.060E-06,0.004
-6.050E-06,0.000
-6.040E-06,0.004
-6.030E-06,0.000
-6.020E-06,0.000
-6.010E-06,0.004
-6.000E-06,0.000
-5.990E-06,0.004
-5.980E-06,0.012
-5.970E-06,0.000
-5.960E-06,0.000
-5.950E-06,0.000
-5.940E-06,0.000
-5.930E-06,0.004
-5.920E-06,0.004
-5.910E-06,0.000
-5.900E-06,0.004
-5.890E-06,0.004
-5.880E-06,0.008
-5.870E-06,0.004
-5.860E-06,0.000
-5.850E-06,0.000
-5.840E-06,0.000
-5.830E-06,0.004
-5.820E-06,0.004
-5.810E-06,0.004
-5.800E-06,0.000
-5.790E-06,0.000
-5.780E-06,0.000
-5.770E-06,0.000
-5.760E-06,0.004
-5.750E-06,0.004
-5.740E-06,0.004
-5.730E-06,0.008
-5.720E-06,0.004
-5.710E-06,0.008
-5.700E-06,-0.004
-5.690E-06,-0.004
-5.680E-06,0.000
-5.670E-06,0.000
-5.660E-06,0.004
-5.650E-06,0.000
-5.640E-06,0.004
-5.630E-06,0.004
-5.620E-06,0.004
-5.610E-06,0.004
-5.600E-06,0.008
-5.590E-06,0.004
-5.580E-06,0.004
-5.570E-06,0.000
-5.560E-06,-0.004
-5.550E-06,0.008
-5.540E-06,0.008
-5.530E-06,0.004
-5.520E-06,0.000
-5.510E-06,0.000
-5.500E-06,0.000
-5.490E-06,0.004
-5.480E-06,0.004
-5.470E-06,0.008
-5.460E-06,0.008
-5.450E-06,0.004
-5.440E-06,-0.004
-5.430E-06,0.000
-5.420E-06,0.004
-5.410E-06,0.000
-5.400E-06,0.008
-5.390E-06,0.004
-5.380E-06,0.000
-5.370E-06,-0.008
-5.360E-06,-0.008
-5.350E-06,0.000
-5.340E-06,0.004
-5.330E-06,0.008
-5.320E-06,0.004
-5.310E-06,0.004
-5.300E-06,-0.004
-5.290E-06,-0.004
-5.280E-06,0.000
-5.270E-06,0.000
-5.260E-06,0.004
-5.250E-06,0.008
-5.240E-06,0.004
-5.230E-06,-0.004
-5.220E-06,-0.004
-5.210E-06,-0.012
-5.200E-06,0.000
-5.190E-06,0.004
-5.180E-06,0.012
-5.170E-06,0.012
-5.160E-06,0.008
-5.150E-06,-0.004
-5.140E-06,0.000
-5.130E-06,-0.004
-5.120E-06,0.000
-5.110E-06,0.004
-5.100E-06,0.008
-5.090E-06,0.008
-5.080E-06,0.004
-5.070E-06,0.000
-5.060E-06,-0.004
-5.050E-06,-0.004
-5.040E-06,0.000
-5.030E-06,0.008
-5.020E-06,0.000
-5.010E-06,0.008
-5.000E-06,0.008
-4.990E-06,0.004
-4.980E-06,0.000
-4.970E-06,0.000
-4.960E-06,0.004
-4.950E-06,0.004
-4.940E-06,0.008
-4.930E-06,-0.004
-4.920E-06,0.000
-4.910E-06,0.004
-4.900E-06,0.000
-4.890E-06,0.004
-4.880E-06,0.000
-4.870E-06,0.000
-4.860E-06,0.000
-4.850E-06,0.004
-4.840E-06,0.004
-4.830E-06,0.004
-4.820E-06,0.004
-4.810E-06,0.008
-4.800E-06,-0.004
-4.790E-06,0.000
-4.780E-06,0.000
-4.770E-06,0.004
-4.760E-06,0.004
-4.750E-06,0.008
-4.740E-06,0.012
-4.730E-06,0.008
-4.720E-06,0.004
-4.710E-06,-0.008
-4.700E-06,-0.008
-4.690E-06,-0.004
-4.680E-06,0.008
-4.670E-06,0.008
-4.660E-06,0.008
-4.650E-06,0.008
-4.640E-06,0.000
-4.630E-06,0.004
-4.620E-06,0.004
-4.610E-06,0.004
-4.600E-06,0.004
-4.590E-06,0.004
-4.580E-06,0.004
-4.570E-06,0.004
-4.560E-06,0.012
-4.550E-06,-0.004
-4.540E-06,0.000
-4.530E-06,0.000
-4.520E-06,0.004
-4.510E-06,0.008
-4.500E-06,0.008
-4.490E-06,0.008
-4.480E-06,0.004
-4.470E-06,-0.004
-4.460E-06,0.000
-4.450E-06,-0.004
-4.440E-06,0.000
-4.430E-06,0.004
-4.420E-06,0.012
-4.410E-06,0.008
-4.400E-06,0.004
-4.390E-06,0.000
-4.380E-06,-0.004
-4.370E-06,-0.004
-4.360E-06,0.000
-4.350E-06,0.012
-4.340E-06,0.008
-4.330E-06,0.008
-4.320E-06,0.008
-4.310E-06,0.008
-4.300E-06,0.008
-4.290E-06,0.000
-4.280E-06,0.000
-4.270E-06,0.004
-4.260E-06,0.004
-4.250E-06,0.008
-4.240E-06,0.004
-4.230E-06,0.008
-4.220E-06,0.008
-4.210E-06,0.008
-4.200E-06,0.004
-4.190E-06,0.004
-4.180E-06,0.008
-4.170E-06,0.016
-4.160E-06,0.016
-4.150E-06,0.012
-4.140E-06,0.012
-4.130E-06,0.012
-4.120E-06,0.016
-4.110E-06,0.012
-4.100E-06,0.008
-4.090E-06,0.004
-4.080E-06,0.008
-4.070E-06,0.008
-4.060E-06,0.004
-4.050E-06,0.000
-4.040E-06,0.000
-4.030E-06,0.000
-4.020E-06,0.000
-4.010E-06,0.004
-4.000E-06,0.020
-3.990E-06,0.012
-3.980E-06,0.004
-3.970E-06,-0.008
-3.960E-06,-0.016
-3.950E-06,-0.020
-3.940E-06,0.004
-3.930E-06,0.016
-3.920E-06,0.028
-3.910E-06,0.016
-3.900E-06,0.000
-3.890E-06,-0.024
-3.880E-06,-0.032
-3.870E-06,-0.016
-3.860E-06,0.004
-3.850E-06,0.024
-3.840E-06,0.024
-3.830E-06,0.004
-3.820E-06,-0.012
-3.810E-06,-0.028
-3.800E-06,-0.012
-3.790E-06,0.004
-3.780E-06,0.012
-3.770E-06,0.016
-3.760E-06,0.012
-3.750E-06,0.004
-3.740E-06,-0.008
-3.730E-06,-0.004
-3.720E-06,-0.004
-3.710E-06,0.008
-3.700E-06,0.012
-3.690E-06,0.012
-3.680E-06,0.008
-3.670E-06,0.004
-3.660E-06,0.000
-3.650E-06,0.000
-3.640E-06,0.000
-3.630E-06,0.004
-3.620E-06,0.008
-3.610E-06,0.008
-3.600E-06,0.016
-3.590E-06,0.016
-3.580E-06,0.008
-3.570E-06,0.000
-3.560E-06,-0.004
-3.550E-06,0.000
-3.540E-06,0.012
-3.530E-06,0.020
-3.520E-06,0.028
-3.510E-06,0.016
-3.500E-06,0.008
-3.490E-06,0.004
-3.480E-06,0.008
-3.470E-06,0.000
-3.460E-06,-0.004
-3.450E-06,-0.004
-3.440E-06,-0.008
-3.430E-06,0.000
-3.420E-06,0.000
-3.410E-06,-0.004
-3.400E-06,-0.004
-3.390E-06,0.004
-3.380E-06,0.012
-3.370E-06,0.008
-3.360E-06,0.004
-3.350E-06,-0.004
-3.340E-06,-0.004
-3.330E-06,0.004
-3.320E-06,0.008
-3.310E-06,0.012
-3.300E-06,0.008
-3.290E-06,0.020
-3.280E-06,0.024
-3.270E-06,0.028
-3.260E-06,0.012
-3.250E-06,0.012
-3.240E-06,0.004
-3.230E-06,0.000
-3.220E-06,0.000
-3.210E-06,0.000
-3.200E-06,0.004
-3.190E-06,0.008
-3.180E-06,0.012
-3.170E-06,0.012
-3.160E-06,0.012
-3.150E-06,0.012
-3.140E-06,0.012
-3.130E-06,0.016
-3.120E-06,0.016
-3.110E-06,0.004
-3.100E-06,0.004
-3.090E-06,0.004
-3.080E-06,0.000
-3.070E-06,0.016
-3.060E-06,0.020
-3.050E-06,0.012
-3.040E-06,-0.008
-3.030E-06,-0.024
-3.020E-06,-0.024
-3.010E-06,-0.012
-3.000E-06,0.008
-2.990E-06,0.028
-2.980E-06,0.024
-2.970E-06,0.012
-2.960E-06,-0.004
-2.950E-06,-0.012
-2.940E-06,-0.008
-2.930E-06,0.008
-2.920E-06,0.024
-2.910E-06,0.028
-2.900E-06,0.012
-2.890E-06,0.004
-2.880E-06,0.008
-2.870E-06,0.024
-2.860E-06,0.028
-2.850E-06,0.016
-2.840E-06,0.000
-2.830E-06,-0.008
-2.820E-06,-0.008
-2.810E-06,0.008
-2.800E-06,0.020
-2.790E-06,0.028
-2.780E-06,0.012
-2.770E-06,0.000
-2.760E-06,-0.020
-2.750E-06,-0.012
-2.740E-06,0.000
-2.730E-06,0.012
-2.720E-06,0.012
-2.710E-06,0.004
-2.700E-06,-0.008
-2.690E-06,-0.008
-2.680E-06,0.000
-2.670E-06,0.020
-2.660E-06,0.036
-2.650E-06,0.032
-2.640E-06,0.024
-2.630E-06,0.012
-2.620E-06,0.008
-2.610E-06,0.016
-2.600E-06,0.032
-2.590E-06,0.048
-2.580E-06,0.044
-2.570E-06,0.040
-2.560E-06,0.028
-2.550E-06,0.004
-2.540E-06,-0.020
-2.530E-06,-0.036
-2.520E-06,-0.048
-2.510E-06,-0.040
-2.500E-06,-0.016
-2.490E-06,-0.004
-2.480E-06,0.012
-2.470E-06,0.004
-2.460E-06,-0.004
-2.450E-06,-0.012
-2.440E-06,-0.016
-2.430E-06,-0.012
-2.420E-06,-0.004
-2.410E-06,0.008
-2.400E-06,0.024
-2.390E-06,0.020
-2.380E-06,0.020
-2.370E-06,0.008
-2.360E-06,-0.008
-2.350E-06,-0.008
-2.340E-06,0.004
-2.330E-06,0.024
-2.320E-06,0.056
-2.310E-06,0.048
-2.300E-06,0.032
-2.290E-06,0.016
-2.280E-06,0.004
-2.270E-06,0.000
-2.260E-06,0.012
-2.250E-06,0.024
-2.240E-06,0.028
-2.230E-06,0.048
-2.220E-06,0.056
-2.210E-06,0.048
-2.200E-06,0.032
-2.190E-06,0.020
-2.180E-06,0.012
-2.170E-06,0.012
-2.160E-06,0.028
-2.150E-06,0.052
-2.140E-06,0.064
-2.130E-06,0.060
-2.120E-06,0.048
-2.110E-06,0.024
-2.100E-06,0.016
-2.090E-06,0.040
-2.080E-06,0.076
-2.070E-06,0.096
-2.060E-06,0.088
-2.050E-06,0.060
-2.040E-06,0.008
-2.030E-06,-0.032
-2.020E-06,-0.044
-2.010E-06,-0.020
-2.000E-06,0.012
-1.990E-06,0.024
-1.980E-06,0.044
-1.970E-06,0.028
-1.960E-06,0.024
-1.950E-06,0.020
-1.940E-06,0.024
-1.930E-06,0.032
-1.920E-06,0.060
-1.910E-06,0.080
-1.900E-06,0.072
-1.890E-06,0.052
-1.880E-06,0.020
-1.870E-06,0.000
-1.860E-06,-0.016
-1.850E-06,-0.008
-1.840E-06,-0.008
-1.830E-06,0.000
-1.820E-06,0.000
-1.810E-06,0.004
-1.800E-06,0.004
-1.790E-06,-0.012
-1.780E-06,0.012
-1.770E-06,0.008
-1.760E-06,0.028
-1.750E-06,0.032
-1.740E-06,0.040
-1.730E-06,0.036
-1.720E-06,0.028
-1.710E-06,0.032
-1.700E-06,0.028
-1.690E-06,0.012
-1.680E-06,-0.004
-1.670E-06,0.012
-1.660E-06,0.020
-1.650E-06,0.024
-1.640E-06,0.012
-1.630E-06,0.016
-1.620E-06,-0.008
-1.610E-06,-0.060
-1.600E-06,-0.088
-1.590E-06,-0.076
-1.580E-06,-0.056
-1.570E-06,-0.032
-1.560E-06,-0.008
-1.550E-06,0.008
-1.540E-06,0.012
-1.530E-06,0.000
-1.520E-06,-0.008
-1.510E-06,-0.004
-1.500E-06,0.008
-1.490E-06,0.040
-1.480E-06,0.056
-1.470E-06,0.064
-1.460E-06,0.060
-1.450E-06,0.056
-1.440E-06,0.056
-1.430E-06,0.060
-1.420E-06,0.072
-1.410E-06,0.068
-1.400E-06,0.072
-1.390E-06,0.064
-1.380E-06,0.060
-1.370E-06,0.056
-1.360E-06,0.068
-1.350E-06,0.080
-1.340E-06,0.088
-1.330E-06,0.092
-1.320E-06,0.072
-1.310E-06,0.048
-1.300E-06,0.032
-1.290E-06,0.024
-1.280E-06,0.028
-1.270E-06,0.056
-1.260E-06,0.064
-1.250E-06,0.072
-1.240E-06,0.056
-1.230E-06,0.056
-1.220E-06,0.060
-1.210E-06,0.060
-1.200E-06,0.056
-1.190E-06,0.048
-1.180E-06,0.040
-1.170E-06,0.044
-1.160E-06,0.044
-1.150E-06,0.008
-1.140E-06,0.020
-1.130E-06,0.032
-1.120E-06,0.052
-1.110E-06,0.052
-1.100E-06,0.060
-1.090E-06,0.076
-1.080E-06,0.076
-1.070E-06,0.092
-1.060E-06,0.088
-1.050E-06,0.092
-1.040E-06,0.100
-1.030E-06,0.084
-1.020E-06,0.068
-1.010E-06,0.072
-1.000E-06,0.076
-9.900E-07,0.064
-9.800E-07,0.092
-9.700E-07,0.100
-9.600E-07,0.076
-9.500E-07,0.056
-9.400E-07,0.060
-9.300E-07,0.064
-9.200E-07,0.076
-9.100E-07,0.088
-9.000E-07,0.088
-8.900E-07,0.096
-8.800E-07,0.088
-8.700E-07,0.076
-8.600E-07,0.080
-8.500E-07,0.092
-8.400E-07,0.092
-8.300E-07,0.108
-8.200E-07,0.132
-8.100E-07,0.136
-8.000E-07,0.140
-7.900E-07,0.144
-7.800E-07,0.144
-7.700E-07,0.152
-7.600E-07,0.164
-7.500E-07,0.176
-7.400E-07,0.196
-7.300E-07,0.212
-7.200E-07,0.200
-7.100E-07,0.196
-7.000E-07,0.156
-6.900E-07,0.156
-6.800E-07,0.140
-6.700E-07,0.164
-6.600E-07,0.160
-6.500E-07,0.196
-6.400E-07,0.172
-6.300E-07,0.064
-6.200E-07,0.052
-6.100E-07,0.076
-6.000E-07,0.180
-5.900E-07,0.296
-5.800E-07,0.392
-5.700E-07,0.364
-5.600E-07,0.256
-5.500E-07,0.096
-5.400E-07,0.020
-5.300E-07,0.060
-5.200E-07,0.184
-5.100E-07,0.296
-5.000E-07,0.196
-4.900E-07,0.040
-4.800E-07,-0.032
-4.700E-07,-0.052
-4.600E-07,0.020
-4.500E-07,0.196
-4.400E-07,0.328
-4.300E-07,0.268
-4.200E-07,0.048
-4.100E-07,-0.180
-4.000E-07,-0.428
-3.900E-07,-0.420
-3.800E-07,-0.436
-3.700E-07,-0.332
-3.600E-07,-0.180
-3.500E-07,-0.080
-3.400E-07,-0.032
-3.300E-07,-0.156
-3.200E-07,-0.360
-3.100E-07,-0.468
-3.000E-07,-0.440
-2.900E-07,-0.508
-2.800E-07,-0.512
-2.700E-07,-0.508
-2.600E-07,-0.508
-2.500E-07,-0.292
-2.400E-07,0.128
-2.300E-07,0.220
-2.200E-07,-0.024
-2.100E-07,-0.296
-2.000E-07,-0.448
-1.900E-07,-0.304
-1.800E-07,-0.156
-1.700E-07,0.096
-1.600E-07,0.136
-1.500E-07,0.124
-1.400E-07,-0.084
-1.300E-07,-0.248
-1.200E-07,-0.268
-1.100E-07,-0.160
-1.000E-07,0.092
-9.000E-08,0.232
-8.000E-08,0.316
-7.000E-08,0.208
-6.000E-08,0.100
-5.000E-08,-0.056
-4.000E-08,-0.056
-3.000E-08,0.024
-2.000E-08,0.192
-1.000E-08,0.344
0.000E+00,0.412
1.000E-08,0.372
2.000E-08,0.228
3.000E-08,0.124
4.000E-08,0.060
5.000E-08,0.140
6.000E-08,0.236
7.000E-08,0.356
8.000E-08,0.380
9.000E-08,0.352
1.000E-07,0.256
1.100E-07,0.168
1.200E-07,0.128
1.300E-07,0.136
1.400E-07,0.220
1.500E-07,0.288
1.600E-07,0.336
1.700E-07,0.308
1.800E-07,0.232
1.900E-07,0.140
2.000E-07,0.076
2.100E-07,0.092
2.200E-07,0.168
2.300E-07,0.260
2.400E-07,0.316
2.500E-07,0.340
2.600E-07,0.312
2.700E-07,0.236
2.800E-07,0.176
2.900E-07,0.148
3.000E-07,0.164
3.100E-07,0.224
3.200E-07,0.268
3.300E-07,0.276
3.400E-07,0.252
3.500E-07,0.188
3.600E-07,0.120
3.700E-07,0.060
3.800E-07,0.052
3.900E-07,0.072
4.000E-07,0.124
4.100E-07,0.176
4.200E-07,0.208
4.300E-07,0.236
4.400E-07,0.224
4.500E-07,0.196
4.600E-07,0.144
4.700E-07,0.124
4.800E-07,0.136
4.900E-07,0.164
5.000E-07,0.224
5.100E-07,0.240
5.200E-07,0.236
5.300E-07,0.196
5.400E-07,0.160
5.500E-07,0.108
5.600E-07,0.108
5.700E-07,0.148
5.800E-07,0.172
5.900E-07,0.192
6.000E-07,0.180
6.100E-07,0.168
6.200E-07,0.152
6.300E-07,0.156
6.400E-07,0.168
6.500E-07,0.192
6.600E-07,0.204
6.700E-07,0.204
6.800E-07,0.196
6.900E-07,0.192
7.000E-07,0.188
7.100E-07,0.180
7.200E-07,0.192
7.300E-07,0.192
7.400E-07,0.208
7.500E-07,0.212
7.600E-07,0.216
7.700E-07,0.212
7.800E-07,0.216
7.900E-07,0.208
8.000E-07,0.204
8.100E-07,0.212
8.200E-07,0.216
8.300E-07,0.228
8.400E-07,0.224
8.500E-07,0.220
8.600E-07,0.212
8.700E-07,0.208
8.800E-07,0.204
8.900E-07,0.212
9.000E-07,0.216
9.100E-07,0.220
9.200E-07,0.224
9.300E-07,0.220
9.400E-07,0.208
9.500E-07,0.200
9.600E-07,0.204
9.700E-07,0.208
9.800E-07,0.212
9.900E-07,0.216
1.000E-06,0.216
1.010E-06,0.216
1.020E-06,0.212
1.030E-06,0.204
1.040E-06,0.208
1.050E-06,0.212
1.060E-06,0.208
1.070E-06,0.212
1.080E-06,0.212
1.090E-06,0.208
1.100E-06,0.208
1.110E-06,0.208
1.120E-06,0.208
1.130E-06,0.200
1.140E-06,0.200
1.150E-06,0.208
1.160E-06,0.204
1.170E-06,0.196
1.180E-06,0.192
1.190E-06,0.192
1.200E-06,0.196
1.210E-06,0.192
1.220E-06,0.192
1.230E-06,0.188
1.240E-06,0.188
1.250E-06,0.188
1.260E-06,0.192
1.270E-06,0.192
1.280E-06,0.192
1.290E-06,0.192
1.300E-06,0.192
1.310E-06,0.196
1.320E-06,0.196
1.330E-06,0.196
1.340E-06,0.192
1.350E-06,0.192
1.360E-06,0.192
1.370E-06,0.188
1.380E-06,0.192
1.390E-06,0.196
1.400E-06,0.196
1.410E-06,0.188
1.420E-06,0.192
1.430E-06,0.192
1.440E-06,0.192
1.450E-06,0.192
1.460E-06,0.196
1.470E-06,0.196
1.480E-06,0.200
1.490E-06,0.200
1.500E-06,0.192
1.510E-06,0.192
1.520E-06,0.188
1.530E-06,0.188
1.540E-06,0.192
1.550E-06,0.196
1.560E-06,0.196
1.570E-06,0.200
1.580E-06,0.196
1.590E-06,0.188
1.600E-06,0.184
1.610E-06,0.188
1.620E-06,0.188
1.630E-06,0.192
1.640E-06,0.188
1.650E-06,0.188
1.660E-06,0.188
1.670E-06,0.188
1.680E-06,0.188
1.690E-06,0.184
1.700E-06,0.180
1.710E-06,0.188
1.720E-06,0.192
1.730E-06,0.188
1.740E-06,0.188
1.750E-06,0.188
1.760E-06,0.184
1.770E-06,0.188
1.780E-06,0.176
1.790E-06,0.180
1.800E-06,0.184
1.810E-06,0.188
1.820E-06,0.184
1.830E-06,0.180
1.840E-06,0.180
1.850E-06,0.180
1.860E-06,0.172
1.870E-06,0.176
1.880E-06,0.176
1.890E-06,0.176
1.900E-06,0.184
1.910E-06,0.184
1.920E-06,0.176
1.930E-06,0.172
1.940E-06,0.160
1.950E-06,0.164
1.960E-06,0.168
1.970E-06,0.172
1.980E-06,0.188
1.990E-06,0.188
2.000E-06,0.184
2.010E-06,0.176
2.020E-06,0.160
2.030E-06,0.156
2.040E-06,0.160
2.050E-06,0.160
2.060E-06,0.156
2.070E-06,0.164
2.080E-06,0.176
2.090E-06,0.172
2.100E-06,0.168
2.110E-06,0.160
2.120E-06,0.160
2.130E-06,0.156
2.140E-06,0.160
2.150E-06,0.168
2.160E-06,0.164
2.170E-06,0.172
2.180E-06,0.172
2.190E-06,0.172
2.200E-06,0.164
2.210E-06,0.156
2.220E-06,0.160
2.230E-06,0.168
2.240E-06,0.172
2.250E-06,0.172
2.260E-06,0.168
2.270E-06,0.156
2.280E-06,0.156
2.290E-06,0.160
2.300E-06,0.156
2.310E-06,0.152
2.320E-06,0.156
2.330E-06,0.156
2.340E-06,0.152
2.350E-06,0.152
2.360E-06,0.144
2.370E-06,0.144
2.380E-06,0.152
2.390E-06,0.160
2.400E-06,0.160
2.410E-06,0.152
2.420E-06,0.156
2.430E-06,0.152
2.440E-06,0.152
2.450E-06,0.152
2.460E-06,0.152
2.470E-06,0.152
2.480E-06,0.152
2.490E-06,0.148
2.500E-06,0.152
2.510E-06,0.156
2.520E-06,0.160
2.530E-06,0.160
2.540E-06,0.152
2.550E-06,0.148
2.560E-06,0.144
2.570E-06,0.148
2.580E-06,0.148
2.590E-06,0.148
2.600E-06,0.156
2.610E-06,0.148
2.620E-06,0.144
2.630E-06,0.140
2.640E-06,0.140
2.650E-06,0.148
2.660E-06,0.152
2.670E-06,0.152
2.680E-06,0.152
2.690E-06,0.152
2.700E-06,0.144
2.710E-06,0.148
2.720E-06,0.148
2.730E-06,0.148
2.740E-06,0.148
2.750E-06,0.140
2.760E-06,0.136
2.770E-06,0.136
2.780E-06,0.136
2.790E-06,0.140
2.800E-06,0.140
2.810E-06,0.140
2.820E-06,0.140
2.830E-06,0.140
2.840E-06,0.140
2.850E-06,0.140
2.860E-06,0.144
2.870E-06,0.140
2.880E-06,0.144
2.890E-06,0.140
2.900E-06,0.140
2.910E-06,0.132
2.920E-06,0.128
2.930E-06,0.128
2.940E-06,0.132
2.950E-06,0.140
2.960E-06,0.140
2.970E-06,0.140
2.980E-06,0.136
2.990E-06,0.128
3.000E-06,0.124
3.010E-06,0.128
3.020E-06,0.132
3.030E-06,0.136
3.040E-06,0.144
3.050E-06,0.140
3.060E-06,0.132
3.070E-06,0.124
3.080E-06,0.124
3.090E-06,0.124
3.100E-06,0.124
3.110E-06,0.124
3.120E-06,0.128
3.130E-06,0.128
3.140E-06,0.128
3.150E-06,0.124
3.160E-06,0.124
3.170E-06,0.120
3.180E-06,0.120
3.190E-06,0.120
3.200E-06,0.120
3.210E-06,0.128
3.220E-06,0.124
3.230E-06,0.128
3.240E-06,0.124
3.250E-06,0.108
3.260E-06,0.108
3.270E-06,0.108
3.280E-06,0.108
3.290E-06,0.124
3.300E-06,0.124
3.310E-06,0.124
3.320E-06,0.112
3.330E-06,0.104
3.340E-06,0.108
3.350E-06,0.112
3.360E-06,0.120
3.370E-06,0.124
3.380E-06,0.124
3.390E-06,0.120
3.400E-06,0.108
3.410E-06,0.108
3.420E-06,0.112
3.430E-06,0.112
