mediciones/5-15/7.5/WaveData47173.csv

#timebase=2000000(ps)
,#voltbase=100000(mv/100)
#size=4000
-8.400E-06,-0.028
-8.390E-06,-0.024
-8.380E-06,0.008
-8.370E-06,0.028
-8.360E-06,0.032
-8.350E-06,0.024
-8.340E-06,0.004
-8.330E-06,-0.020
-8.320E-06,-0.028
-8.310E-06,-0.016
-8.300E-06,0.008
-8.290E-06,0.028
-8.280E-06,0.024
-8.270E-06,0.016
-8.260E-06,0.004
-8.250E-06,-0.008
-8.240E-06,-0.016
-8.230E-06,-0.008
-8.220E-06,0.000
-8.210E-06,0.012
-8.200E-06,0.020
-8.190E-06,0.020
-8.180E-06,0.004
-8.170E-06,-0.004
-8.160E-06,-0.008
-8.150E-06,-0.008
-8.140E-06,0.000
-8.130E-06,0.012
-8.120E-06,0.024
-8.110E-06,0.020
-8.100E-06,0.008
-8.090E-06,-0.004
-8.080E-06,-0.012
-8.070E-06,-0.012
-8.060E-06,-0.004
-8.050E-06,0.008
-8.040E-06,0.020
-8.030E-06,0.020
-8.020E-06,0.012
-8.010E-06,0.004
-8.000E-06,0.000
-7.990E-06,-0.004
-7.980E-06,0.000
-7.970E-06,0.012
-7.960E-06,0.024
-7.950E-06,0.028
-7.940E-06,0.016
-7.930E-06,-0.004
-7.920E-06,-0.024
-7.910E-06,-0.028
-7.900E-06,-0.008
-7.890E-06,0.016
-7.880E-06,0.036
-7.870E-06,0.032
-7.860E-06,0.000
-7.850E-06,-0.028
-7.840E-06,-0.032
-7.830E-06,-0.032
-7.820E-06,-0.004
-7.810E-06,0.024
-7.800E-06,0.060
-7.790E-06,0.032
-7.780E-06,-0.008
-7.770E-06,-0.052
-7.760E-06,-0.064
-7.750E-06,-0.040
-7.740E-06,0.004
-7.730E-06,0.060
-7.720E-06,0.072
-7.710E-06,0.048
-7.700E-06,0.000
-7.690E-06,-0.048
-7.680E-06,-0.064
-7.670E-06,-0.032
-7.660E-06,0.012
-7.650E-06,0.048
-7.640E-06,0.052
-7.630E-06,0.032
-7.620E-06,-0.004
-7.610E-06,-0.028
-7.600E-06,-0.028
-7.590E-06,-0.024
-7.580E-06,0.008
-7.570E-06,0.016
-7.560E-06,0.020
-7.550E-06,0.020
-7.540E-06,0.008
-7.530E-06,-0.004
-7.520E-06,-0.008
-7.510E-06,-0.008
-7.500E-06,-0.008
-7.490E-06,0.004
-7.480E-06,0.012
-7.470E-06,0.020
-7.460E-06,0.016
-7.450E-06,0.000
-7.440E-06,0.000
-7.430E-06,-0.008
-7.420E-06,-0.004
-7.410E-06,0.008
-7.400E-06,0.016
-7.390E-06,0.012
-7.380E-06,0.008
-7.370E-06,0.000
-7.360E-06,-0.008
-7.350E-06,-0.008
-7.340E-06,0.012
-7.330E-06,0.020
-7.320E-06,0.016
-7.310E-06,0.008
-7.300E-06,0.004
-7.290E-06,0.000
-7.280E-06,-0.008
-7.270E-06,-0.004
-7.260E-06,0.004
-7.250E-06,0.016
-7.240E-06,0.020
-7.230E-06,0.012
-7.220E-06,0.004
-7.210E-06,0.000
-7.200E-06,-0.004
-7.190E-06,0.000
-7.180E-06,0.012
-7.170E-06,0.016
-7.160E-06,0.020
-7.150E-06,0.000
-7.140E-06,0.000
-7.130E-06,-0.008
-7.120E-06,-0.004
-7.110E-06,0.004
-7.100E-06,0.012
-7.090E-06,0.020
-7.080E-06,0.016
-7.070E-06,0.008
-7.060E-06,-0.008
-7.050E-06,-0.036
-7.040E-06,-0.040
-7.030E-06,-0.036
-7.020E-06,-0.008
-7.010E-06,0.024
-7.000E-06,0.056
-6.990E-06,0.056
-6.980E-06,0.016
-6.970E-06,-0.032
-6.960E-06,-0.068
-6.950E-06,-0.052
-6.940E-06,0.000
-6.930E-06,0.056
-6.920E-06,0.068
-6.910E-06,0.052
-6.900E-06,-0.004
-6.890E-06,-0.044
-6.880E-06,-0.064
-6.870E-06,-0.028
-6.860E-06,0.012
-6.850E-06,0.044
-6.840E-06,0.060
-6.830E-06,0.032
-6.820E-06,0.004
-6.810E-06,-0.024
-6.800E-06,-0.032
-6.790E-06,-0.020
-6.780E-06,0.004
-6.770E-06,0.024
-6.760E-06,0.032
-6.750E-06,0.020
-6.740E-06,0.012
-6.730E-06,-0.004
-6.720E-06,-0.012
-6.710E-06,-0.016
-6.700E-06,-0.004
-6.690E-06,0.008
-6.680E-06,0.020
-6.670E-06,0.020
-6.660E-06,0.012
-6.650E-06,0.004
-6.640E-06,-0.008
-6.630E-06,-0.008
-6.620E-06,-0.004
-6.610E-06,0.008
-6.600E-06,0.012
-6.590E-06,0.016
-6.580E-06,0.012
-6.570E-06,-0.004
-6.560E-06,-0.008
-6.550E-06,-0.008
-6.540E-06,-0.004
-6.530E-06,0.008
-6.520E-06,0.016
-6.510E-06,0.012
-6.500E-06,0.008
-6.490E-06,-0.004
-6.480E-06,-0.004
-6.470E-06,-0.004
-6.460E-06,0.000
-6.450E-06,0.008
-6.440E-06,0.016
-6.430E-06,0.008
-6.420E-06,0.012
-6.410E-06,0.000
-6.400E-06,0.004
-6.390E-06,0.004
-6.380E-06,0.012
-6.370E-06,0.020
-6.360E-06,0.024
-6.350E-06,0.028
-6.340E-06,0.012
-6.330E-06,0.012
-6.320E-06,-0.028
-6.310E-06,-0.036
-6.300E-06,-0.032
-6.290E-06,0.016
-6.280E-06,0.028
-6.270E-06,0.060
-6.260E-06,0.016
-6.250E-06,-0.032
-6.240E-06,-0.052
-6.230E-06,-0.024
-6.220E-06,0.028
-6.210E-06,0.040
-6.200E-06,0.044
-6.190E-06,0.008
-6.180E-06,-0.024
-6.170E-06,-0.056
-6.160E-06,-0.008
-6.150E-06,0.024
-6.140E-06,0.036
-6.130E-06,0.012
-6.120E-06,-0.028
-6.110E-06,-0.056
-6.100E-06,-0.040
-6.090E-06,0.012
-6.080E-06,0.036
-6.070E-06,0.052
-6.060E-06,0.036
-6.050E-06,-0.008
-6.040E-06,-0.048
-6.030E-06,-0.040
-6.020E-06,-0.008
-6.010E-06,0.032
-6.000E-06,0.044
-5.990E-06,0.028
-5.980E-06,-0.012
-5.970E-06,-0.028
-5.960E-06,-0.016
-5.950E-06,-0.004
-5.940E-06,0.012
-5.930E-06,0.024
-5.920E-06,0.024
-5.910E-06,0.016
-5.900E-06,0.008
-5.890E-06,0.004
-5.880E-06,0.004
-5.870E-06,0.004
-5.860E-06,-0.012
-5.850E-06,-0.008
-5.840E-06,0.000
-5.830E-06,0.004
-5.820E-06,0.016
-5.810E-06,0.016
-5.800E-06,0.012
-5.790E-06,0.008
-5.780E-06,-0.008
-5.770E-06,-0.020
-5.760E-06,-0.012
-5.750E-06,0.004
-5.740E-06,0.024
-5.730E-06,0.040
-5.720E-06,0.028
-5.710E-06,0.000
-5.700E-06,-0.016
-5.690E-06,-0.020
-5.680E-06,-0.016
-5.670E-06,0.000
-5.660E-06,0.016
-5.650E-06,0.024
-5.640E-06,0.012
-5.630E-06,0.008
-5.620E-06,0.000
-5.610E-06,-0.004
-5.600E-06,-0.004
-5.590E-06,0.000
-5.580E-06,0.008
-5.570E-06,0.016
-5.560E-06,0.008
-5.550E-06,0.008
-5.540E-06,0.000
-5.530E-06,0.000
-5.520E-06,0.008
-5.510E-06,0.000
-5.500E-06,0.000
-5.490E-06,0.000
-5.480E-06,0.004
-5.470E-06,0.012
-5.460E-06,0.012
-5.450E-06,0.008
-5.440E-06,0.008
-5.430E-06,0.000
-5.420E-06,-0.004
-5.410E-06,0.000
-5.400E-06,0.000
-5.390E-06,0.004
-5.380E-06,0.008
-5.370E-06,0.012
-5.360E-06,0.004
-5.350E-06,0.004
-5.340E-06,0.008
-5.330E-06,0.008
-5.320E-06,0.012
-5.310E-06,0.012
-5.300E-06,0.008
-5.290E-06,0.008
-5.280E-06,-0.004
-5.270E-06,0.000
-5.260E-06,0.012
-5.250E-06,0.004
-5.240E-06,0.004
-5.230E-06,-0.012
-5.220E-06,-0.052
-5.210E-06,-0.064
-5.200E-06,-0.052
-5.190E-06,0.028
-5.180E-06,0.072
-5.170E-06,0.092
-5.160E-06,0.064
-5.150E-06,-0.004
-5.140E-06,-0.108
-5.130E-06,-0.136
-5.120E-06,-0.052
-5.110E-06,0.048
-5.100E-06,0.096
-5.090E-06,0.108
-5.080E-06,0.056
-5.070E-06,-0.048
-5.060E-06,-0.096
-5.050E-06,-0.076
-5.040E-06,-0.008
-5.030E-06,0.044
-5.020E-06,0.076
-5.010E-06,0.060
-5.000E-06,0.012
-4.990E-06,-0.028
-4.980E-06,-0.040
-4.970E-06,-0.032
-4.960E-06,0.000
-4.950E-06,0.016
-4.940E-06,0.028
-4.930E-06,0.028
-4.920E-06,0.020
-4.910E-06,0.012
-4.900E-06,-0.012
-4.890E-06,-0.024
-4.880E-06,-0.012
-4.870E-06,-0.004
-4.860E-06,0.020
-4.850E-06,0.024
-4.840E-06,0.020
-4.830E-06,0.012
-4.820E-06,0.000
-4.810E-06,-0.008
-4.800E-06,0.000
-4.790E-06,0.012
-4.780E-06,0.032
-4.770E-06,0.028
-4.760E-06,0.016
-4.750E-06,0.004
-4.740E-06,-0.016
-4.730E-06,-0.032
-4.720E-06,-0.044
-4.710E-06,-0.008
-4.700E-06,0.040
-4.690E-06,0.060
-4.680E-06,0.044
-4.670E-06,-0.004
-4.660E-06,-0.040
-4.650E-06,-0.064
-4.640E-06,-0.044
-4.630E-06,0.012
-4.620E-06,0.060
-4.610E-06,0.068
-4.600E-06,0.032
-4.590E-06,-0.012
-4.580E-06,-0.052
-4.570E-06,-0.064
-4.560E-06,-0.052
-4.550E-06,-0.020
-4.540E-06,0.024
-4.530E-06,0.068
-4.520E-06,0.072
-4.510E-06,0.048
-4.500E-06,-0.008
-4.490E-06,-0.056
-4.480E-06,-0.072
-4.470E-06,-0.048
-4.460E-06,0.008
-4.450E-06,0.064
-4.440E-06,0.080
-4.430E-06,0.056
-4.420E-06,-0.008
-4.410E-06,-0.056
-4.400E-06,-0.068
-4.390E-06,-0.036
-4.380E-06,0.012
-4.370E-06,0.060
-4.360E-06,0.060
-4.350E-06,0.036
-4.340E-06,0.000
-4.330E-06,-0.028
-4.320E-06,-0.040
-4.310E-06,-0.024
-4.300E-06,0.004
-4.290E-06,0.032
-4.280E-06,0.044
-4.270E-06,0.028
-4.260E-06,0.008
-4.250E-06,-0.016
-4.240E-06,-0.028
-4.230E-06,-0.020
-4.220E-06,0.000
-4.210E-06,0.028
-4.200E-06,0.032
-4.190E-06,0.028
-4.180E-06,0.004
-4.170E-06,-0.004
-4.160E-06,-0.020
-4.150E-06,-0.012
-4.140E-06,-0.004
-4.130E-06,0.020
-4.120E-06,0.032
-4.110E-06,0.028
-4.100E-06,0.004
-4.090E-06,-0.004
-4.080E-06,-0.020
-4.070E-06,-0.008
-4.060E-06,0.000
-4.050E-06,0.020
-4.040E-06,0.024
-4.030E-06,0.028
-4.020E-06,0.024
-4.010E-06,0.008
-4.000E-06,-0.004
-3.990E-06,-0.008
-3.980E-06,0.000
-3.970E-06,0.008
-3.960E-06,0.012
-3.950E-06,0.008
-3.940E-06,0.008
-3.930E-06,0.016
-3.920E-06,0.012
-3.910E-06,0.012
-3.900E-06,0.004
-3.890E-06,-0.004
-3.880E-06,0.004
-3.870E-06,-0.020
-3.860E-06,-0.028
-3.850E-06,-0.020
-3.840E-06,0.028
-3.830E-06,0.036
-3.820E-06,0.028
-3.810E-06,-0.004
-3.800E-06,-0.064
-3.790E-06,-0.088
-3.780E-06,-0.056
-3.770E-06,-0.004
-3.760E-06,0.096
-3.750E-06,0.124
-3.740E-06,0.076
-3.730E-06,-0.024
-3.720E-06,-0.104
-3.710E-06,-0.132
-3.700E-06,-0.080
-3.690E-06,0.032
-3.680E-06,0.120
-3.670E-06,0.124
-3.660E-06,0.056
-3.650E-06,-0.020
-3.640E-06,-0.096
-3.630E-06,-0.088
-3.620E-06,-0.032
-3.610E-06,0.040
-3.600E-06,0.072
-3.590E-06,0.064
-3.580E-06,0.032
-3.570E-06,-0.004
-3.560E-06,-0.036
-3.550E-06,-0.044
-3.540E-06,-0.020
-3.530E-06,0.004
-3.520E-06,0.032
-3.510E-06,0.044
-3.500E-06,0.036
-3.490E-06,0.008
-3.480E-06,-0.020
-3.470E-06,-0.036
-3.460E-06,-0.024
-3.450E-06,0.000
-3.440E-06,0.028
-3.430E-06,0.048
-3.420E-06,0.028
-3.410E-06,0.004
-3.400E-06,-0.024
-3.390E-06,-0.032
-3.380E-06,-0.020
-3.370E-06,0.008
-3.360E-06,0.036
-3.350E-06,0.044
-3.340E-06,0.024
-3.330E-06,0.000
-3.320E-06,-0.024
-3.310E-06,-0.028
-3.300E-06,-0.020
-3.290E-06,0.008
-3.280E-06,0.036
-3.270E-06,0.040
-3.260E-06,0.028
-3.250E-06,0.004
-3.240E-06,-0.028
-3.230E-06,-0.032
-3.220E-06,-0.028
-3.210E-06,0.000
-3.200E-06,0.028
-3.190E-06,0.044
-3.180E-06,0.032
-3.170E-06,0.016
-3.160E-06,-0.008
-3.150E-06,-0.020
-3.140E-06,-0.024
-3.130E-06,-0.004
-3.120E-06,0.024
-3.110E-06,0.036
-3.100E-06,0.040
-3.090E-06,0.024
-3.080E-06,0.008
-3.070E-06,-0.008
-3.060E-06,-0.012
-3.050E-06,-0.004
-3.040E-06,0.012
-3.030E-06,0.040
-3.020E-06,0.056
-3.010E-06,0.060
-3.000E-06,0.040
-2.990E-06,0.020
-2.980E-06,0.004
-2.970E-06,-0.004
-2.960E-06,-0.024
-2.950E-06,-0.020
-2.940E-06,-0.040
-2.930E-06,-0.048
-2.920E-06,-0.028
-2.910E-06,-0.088
-2.900E-06,-0.092
-2.890E-06,-0.008
-2.880E-06,0.028
-2.870E-06,0.060
-2.860E-06,0.088
-2.850E-06,0.052
-2.840E-06,0.004
-2.830E-06,-0.044
-2.820E-06,-0.100
-2.810E-06,-0.104
-2.800E-06,0.000
-2.790E-06,0.088
-2.780E-06,0.108
-2.770E-06,0.068
-2.760E-06,-0.008
-2.750E-06,-0.072
-2.740E-06,-0.088
-2.730E-06,-0.040
-2.720E-06,0.012
-2.710E-06,0.056
-2.700E-06,0.064
-2.690E-06,0.044
-2.680E-06,0.008
-2.670E-06,-0.032
-2.660E-06,-0.048
-2.650E-06,-0.028
-2.640E-06,-0.004
-2.630E-06,0.028
-2.620E-06,0.048
-2.610E-06,0.040
-2.600E-06,0.024
-2.590E-06,-0.012
-2.580E-06,-0.028
-2.570E-06,-0.024
-2.560E-06,-0.012
-2.550E-06,0.008
-2.540E-06,0.036
-2.530E-06,0.040
-2.520E-06,0.020
-2.510E-06,0.000
-2.500E-06,-0.016
-2.490E-06,-0.016
-2.480E-06,-0.004
-2.470E-06,0.008
-2.460E-06,0.028
-2.450E-06,0.028
-2.440E-06,0.012
-2.430E-06,0.000
-2.420E-06,-0.008
-2.410E-06,-0.004
-2.400E-06,0.008
-2.390E-06,0.020
-2.380E-06,0.028
-2.370E-06,0.028
-2.360E-06,0.020
-2.350E-06,0.004
-2.340E-06,0.004
-2.330E-06,0.012
-2.320E-06,0.024
-2.310E-06,0.060
-2.300E-06,-0.016
-2.290E-06,-0.032
-2.280E-06,-0.088
-2.270E-06,-0.084
-2.260E-06,0.020
-2.250E-06,0.100
-2.240E-06,0.116
-2.230E-06,0.000
-2.220E-06,-0.068
-2.210E-06,-0.116
-2.200E-06,-0.080
-2.190E-06,0.012
-2.180E-06,0.088
-2.170E-06,0.100
-2.160E-06,0.048
-2.150E-06,-0.020
-2.140E-06,-0.080
-2.130E-06,-0.068
-2.120E-06,-0.016
-2.110E-06,0.056
-2.100E-06,0.068
-2.090E-06,0.044
-2.080E-06,0.000
-2.070E-06,-0.020
-2.060E-06,-0.028
-2.050E-06,-0.004
-2.040E-06,0.012
-2.030E-06,0.024
-2.020E-06,0.024
-2.010E-06,0.012
-2.000E-06,0.012
-1.990E-06,0.000
-1.980E-06,0.004
-1.970E-06,0.000
-1.960E-06,0.008
-1.950E-06,0.012
-1.940E-06,0.012
-1.930E-06,0.016
-1.920E-06,0.016
-1.910E-06,0.008
-1.900E-06,0.008
-1.890E-06,0.008
-1.880E-06,0.024
-1.870E-06,0.036
-1.860E-06,0.036
-1.850E-06,0.028
-1.840E-06,0.024
-1.830E-06,0.020
-1.820E-06,0.008
-1.810E-06,0.016
-1.800E-06,0.028
-1.790E-06,0.016
-1.780E-06,0.024
-1.770E-06,0.008
-1.760E-06,-0.020
-1.750E-06,-0.048
-1.740E-06,-0.064
-1.730E-06,-0.084
-1.720E-06,-0.112
-1.710E-06,-0.088
-1.700E-06,-0.012
-1.690E-06,0.100
-1.680E-06,0.180
-1.670E-06,0.128
-1.660E-06,0.040
-1.650E-06,-0.120
-1.640E-06,-0.168
-1.630E-06,-0.120
-1.620E-06,0.064
-1.610E-06,0.220
-1.600E-06,0.232
-1.590E-06,0.032
-1.580E-06,-0.172
-1.570E-06,-0.292
-1.560E-06,-0.184
-1.550E-06,0.084
-1.540E-06,0.276
-1.530E-06,0.296
-1.520E-06,0.096
-1.510E-06,-0.080
-1.500E-06,-0.220
-1.490E-06,-0.164
-1.480E-06,-0.008
-1.470E-06,0.148
-1.460E-06,0.196
-1.450E-06,0.136
-1.440E-06,0.024
-1.430E-06,-0.084
-1.420E-06,-0.188
-1.410E-06,-0.160
-1.400E-06,-0.012
-1.390E-06,0.112
-1.380E-06,0.140
-1.370E-06,0.144
-1.360E-06,0.040
-1.350E-06,-0.084
-1.340E-06,-0.124
-1.330E-06,-0.072
-1.320E-06,0.020
-1.310E-06,0.108
-1.300E-06,0.136
-1.290E-06,0.104
-1.280E-06,0.040
-1.270E-06,-0.024
-1.260E-06,-0.100
-1.250E-06,-0.132
-1.240E-06,-0.084
-1.230E-06,-0.008
-1.220E-06,0.040
-1.210E-06,0.052
-1.200E-06,0.068
-1.190E-06,0.032
-1.180E-06,0.012
-1.170E-06,-0.036
-1.160E-06,-0.048
-1.150E-06,-0.040
-1.140E-06,0.012
-1.130E-06,0.064
-1.120E-06,0.092
-1.110E-06,0.080
-1.100E-06,0.044
-1.090E-06,0.000
-1.080E-06,-0.020
-1.070E-06,-0.004
-1.060E-06,0.044
-1.050E-06,0.040
-1.040E-06,0.028
-1.030E-06,-0.008
-1.020E-06,0.008
-1.010E-06,-0.152
-1.000E-06,-0.340
-9.900E-07,-0.296
-9.800E-07,-0.024
-9.700E-07,0.216
-9.600E-07,0.280
-9.500E-07,0.272
-9.400E-07,0.072
-9.300E-07,-0.172
-9.200E-07,-0.292
-9.100E-07,-0.240
-9.000E-07,-0.040
-8.900E-07,0.180
-8.800E-07,0.284
-8.700E-07,0.220
-8.600E-07,0.020
-8.500E-07,-0.176
-8.400E-07,-0.208
-8.300E-07,-0.116
-8.200E-07,0.040
-8.100E-07,0.140
-8.000E-07,0.172
-7.900E-07,0.120
-7.800E-07,0.032
-7.700E-07,-0.040
-7.600E-07,-0.068
-7.500E-07,-0.004
-7.400E-07,0.084
-7.300E-07,0.124
-7.200E-07,0.100
-7.100E-07,0.000
-7.000E-07,-0.096
-6.900E-07,-0.144
-6.800E-07,-0.176
-6.700E-07,-0.104
-6.600E-07,-0.004
-6.500E-07,0.104
-6.400E-07,0.136
-6.300E-07,0.088
-6.200E-07,-0.004
-6.100E-07,-0.140
-6.000E-07,-0.156
-5.900E-07,-0.080
-5.800E-07,0.044
-5.700E-07,0.144
-5.600E-07,0.156
-5.500E-07,0.064
-5.400E-07,-0.064
-5.300E-07,-0.124
-5.200E-07,-0.112
-5.100E-07,-0.024
-5.000E-07,0.076
-4.900E-07,0.128
-4.800E-07,0.112
-4.700E-07,0.056
-4.600E-07,-0.036
-4.500E-07,-0.080
-4.400E-07,-0.076
-4.300E-07,-0.020
-4.200E-07,0.064
-4.100E-07,0.128
-4.000E-07,0.156
-3.900E-07,0.124
-3.800E-07,0.076
-3.700E-07,0.020
-3.600E-07,-0.048
-3.500E-07,-0.144
-3.400E-07,-0.136
-3.300E-07,-0.088
-3.200E-07,0.044
-3.100E-07,0.152
-3.000E-07,0.188
-2.900E-07,0.124
-2.800E-07,-0.028
-2.700E-07,-0.088
-2.600E-07,-0.084
-2.500E-07,0.032
-2.400E-07,0.124
-2.300E-07,0.144
-2.200E-07,0.072
-2.100E-07,-0.024
-2.000E-07,-0.116
-1.900E-07,-0.144
-1.800E-07,-0.068
-1.700E-07,0.044
-1.600E-07,0.136
-1.500E-07,0.152
-1.400E-07,0.120
-1.300E-07,0.032
-1.200E-07,-0.056
-1.100E-07,-0.084
-1.000E-07,-0.032
-9.000E-08,0.044
-8.000E-08,0.128
-7.000E-08,0.192
-6.000E-08,0.144
-5.000E-08,-0.180
-4.000E-08,-0.512
-3.000E-08,-0.508
-2.000E-08,-0.444
-1.000E-08,0.028
0.000E+00,0.520
1.000E-08,0.536
2.000E-08,0.440
3.000E-08,-0.084
4.000E-08,-0.512
5.000E-08,-0.512
6.000E-08,-0.316
7.000E-08,0.172
8.000E-08,0.440
9.000E-08,0.444
1.000E-07,0.240
1.100E-07,-0.068
1.200E-07,-0.320
1.300E-07,-0.332
1.400E-07,-0.196
1.500E-07,0.080
1.600E-07,0.308
1.700E-07,0.360
1.800E-07,0.204
1.900E-07,-0.060
2.000E-07,-0.296
2.100E-07,-0.336
2.200E-07,-0.172
2.300E-07,0.092
2.400E-07,0.352
2.500E-07,0.456
2.600E-07,0.272
2.700E-07,-0.028
2.800E-07,-0.304
2.900E-07,-0.372
3.000E-07,-0.172
3.100E-07,0.172
3.200E-07,0.368
3.300E-07,0.164
3.400E-07,-0.048
3.500E-07,-0.344
3.600E-07,-0.464
3.700E-07,-0.308
3.800E-07,0.120
3.900E-07,0.396
4.000E-07,0.424
4.100E-07,0.212
4.200E-07,-0.140
4.300E-07,-0.328
4.400E-07,-0.308
4.500E-07,-0.100
4.600E-07,0.092
4.700E-07,0.244
4.800E-07,0.224
4.900E-07,0.124
5.000E-07,-0.040
5.100E-07,-0.156
5.200E-07,-0.176
5.300E-07,-0.112
5.400E-07,0.024
5.500E-07,0.136
5.600E-07,0.196
5.700E-07,0.144
5.800E-07,0.060
5.900E-07,-0.052
6.000E-07,-0.092
6.100E-07,-0.072
6.200E-07,0.016
6.300E-07,0.108
6.400E-07,0.168
6.500E-07,0.172
6.600E-07,0.128
6.700E-07,0.040
6.800E-07,-0.072
6.900E-07,-0.140
7.000E-07,-0.164
7.100E-07,-0.136
7.200E-07,-0.024
7.300E-07,-0.004
7.400E-07,-0.128
7.500E-07,-0.236
7.600E-07,-0.104
7.700E-07,0.040
7.800E-07,0.092
7.900E-07,0.100
8.000E-07,-0.028
8.100E-07,-0.056
8.200E-07,-0.052
8.300E-07,-0.016
8.400E-07,0.000
8.500E-07,0.036
8.600E-07,0.032
8.700E-07,0.004
8.800E-07,-0.012
8.900E-07,-0.036
9.000E-07,0.000
9.100E-07,0.016
9.200E-07,0.036
9.300E-07,0.000
9.400E-07,-0.004
9.500E-07,-0.016
9.600E-07,0.004
9.700E-07,0.020
9.800E-07,0.016
9.900E-07,0.016
1.000E-06,0.004
1.010E-06,0.008
1.020E-06,-0.012
1.030E-06,0.000
1.040E-06,-0.008
1.050E-06,0.008
1.060E-06,0.012
1.070E-06,0.020
1.080E-06,0.008
1.090E-06,-0.004
1.100E-06,-0.012
1.110E-06,-0.012
1.120E-06,0.008
1.130E-06,0.028
1.140E-06,0.048
1.150E-06,0.036
1.160E-06,0.028
1.170E-06,-0.004
1.180E-06,-0.024
1.190E-06,-0.028
1.200E-06,-0.008
1.210E-06,0.020
1.220E-06,0.044
1.230E-06,0.048
1.240E-06,0.032
1.250E-06,0.012
1.260E-06,-0.012
1.270E-06,-0.008
1.280E-06,0.004
1.290E-06,0.032
1.300E-06,0.064
1.310E-06,0.084
1.320E-06,0.080
1.330E-06,0.052
1.340E-06,0.036
1.350E-06,0.016
1.360E-06,0.028
1.370E-06,0.044
1.380E-06,0.072
1.390E-06,0.080
1.400E-06,0.084
1.410E-06,0.060
1.420E-06,0.036
1.430E-06,0.024
1.440E-06,0.024
1.450E-06,0.028
1.460E-06,0.048
1.470E-06,0.072
1.480E-06,0.048
1.490E-06,-0.032
1.500E-06,-0.112
1.510E-06,-0.152
1.520E-06,-0.164
1.530E-06,-0.080
1.540E-06,-0.004
1.550E-06,0.016
1.560E-06,0.036
1.570E-06,0.008
1.580E-06,-0.008
1.590E-06,-0.012
1.600E-06,-0.028
1.610E-06,-0.044
1.620E-06,0.000
1.630E-06,0.060
1.640E-06,0.100
1.650E-06,0.152
1.660E-06,0.136
1.670E-06,0.028
1.680E-06,0.000
1.690E-06,-0.008
1.700E-06,0.004
1.710E-06,-0.288
1.720E-06,-0.396
1.730E-06,-0.340
1.740E-06,-0.112
1.750E-06,0.176
1.760E-06,0.404
1.770E-06,0.392
1.780E-06,-0.036
1.790E-06,-0.336
1.800E-06,-0.472
1.810E-06,-0.180
1.820E-06,0.136
1.830E-06,0.396
1.840E-06,0.304
1.850E-06,0.052
1.860E-06,-0.188
1.870E-06,-0.292
1.880E-06,-0.152
1.890E-06,0.008
1.900E-06,0.192
1.910E-06,0.176
1.920E-06,0.156
1.930E-06,-0.008
1.940E-06,-0.084
1.950E-06,-0.148
1.960E-06,-0.108
1.970E-06,-0.004
1.980E-06,0.108
1.990E-06,0.176
2.000E-06,0.124
2.010E-06,0.040
2.020E-06,-0.080
2.030E-06,-0.096
2.040E-06,-0.072
2.050E-06,0.024
2.060E-06,0.084
2.070E-06,0.120
2.080E-06,0.084
2.090E-06,0.016
2.100E-06,-0.032
2.110E-06,-0.052
2.120E-06,0.004
2.130E-06,0.060
2.140E-06,0.120
2.150E-06,0.108
2.160E-06,0.060
2.170E-06,-0.024
2.180E-06,-0.040
2.190E-06,-0.028
2.200E-06,-0.028
2.210E-06,-0.064
2.220E-06,-0.120
2.230E-06,-0.136
2.240E-06,-0.016
2.250E-06,0.060
2.260E-06,0.064
2.270E-06,0.056
2.280E-06,-0.100
2.290E-06,-0.140
2.300E-06,-0.072
2.310E-06,0.112
2.320E-06,0.188
2.330E-06,0.176
2.340E-06,0.108
2.350E-06,0.056
2.360E-06,0.040
2.370E-06,0.028
2.380E-06,-0.060
2.390E-06,-0.232
2.400E-06,-0.452
2.410E-06,-0.480
2.420E-06,-0.172
2.430E-06,0.216
2.440E-06,0.532
2.450E-06,0.396
2.460E-06,0.072
2.470E-06,-0.260
2.480E-06,-0.376
2.490E-06,-0.252
2.500E-06,0.000
2.510E-06,0.208
2.520E-06,0.276
2.530E-06,0.204
2.540E-06,0.008
2.550E-06,-0.152
2.560E-06,-0.252
2.570E-06,-0.184
2.580E-06,-0.064
2.590E-06,0.104
2.600E-06,0.192
2.610E-06,0.172
2.620E-06,0.084
2.630E-06,-0.056
2.640E-06,-0.140
2.650E-06,-0.160
2.660E-06,-0.068
2.670E-06,0.048
2.680E-06,0.148
2.690E-06,0.156
2.700E-06,0.088
2.710E-06,-0.012
2.720E-06,-0.088
2.730E-06,-0.104
2.740E-06,-0.068
2.750E-06,0.000
2.760E-06,0.060
2.770E-06,0.088
2.780E-06,0.064
2.790E-06,0.024
2.800E-06,-0.032
2.810E-06,-0.056
2.820E-06,-0.040
2.830E-06,-0.008
2.840E-06,0.028
2.850E-06,0.048
2.860E-06,0.044
2.870E-06,0.012
2.880E-06,-0.008
2.890E-06,-0.032
2.900E-06,-0.028
2.910E-06,-0.004
2.920E-06,0.012
2.930E-06,0.024
2.940E-06,0.024
2.950E-06,0.008
2.960E-06,0.000
2.970E-06,0.000
2.980E-06,0.000
2.990E-06,0.008
3.000E-06,0.012
3.010E-06,0.012
3.020E-06,0.008
3.030E-06,0.008
3.040E-06,-0.004
3.050E-06,-0.008
3.060E-06,-0.020
3.070E-06,-0.024
3.080E-06,-0.024
3.090E-06,-0.004
3.100E-06,0.008
3.110E-06,0.024
3.120E-06,0.028
3.130E-06,0.024
3.140E-06,0.016
3.150E-06,0.004
3.160E-06,-0.008
3.170E-06,-0.016
3.180E-06,-0.008
3.190E-06,-0.004
3.200E-06,0.024
3.210E-06,0.028
3.220E-06,0.024
3.230E-06,0.024
