mediciones/5-15/7.5/WaveData47160.csv

#timebase=2000000(ps)
,#voltbase=1000000(mv/100)
#size=4000
-8.400E-06,0.000
-8.390E-06,0.040
-8.380E-06,0.080
-8.370E-06,0.120
-8.360E-06,0.000
-8.350E-06,0.040
-8.340E-06,0.040
-8.330E-06,-0.040
-8.320E-06,0.000
-8.310E-06,-0.040
-8.300E-06,0.000
-8.290E-06,-0.040
-8.280E-06,0.000
-8.270E-06,-0.040
-8.260E-06,0.000
-8.250E-06,0.000
-8.240E-06,0.000
-8.230E-06,0.000
-8.220E-06,0.000
-8.210E-06,0.000
-8.200E-06,0.000
-8.190E-06,0.000
-8.180E-06,0.000
-8.170E-06,0.000
-8.160E-06,0.000
-8.150E-06,0.000
-8.140E-06,-0.040
-8.130E-06,-0.040
-8.120E-06,0.000
-8.110E-06,0.000
-8.100E-06,0.000
-8.090E-06,0.000
-8.080E-06,0.000
-8.070E-06,-0.040
-8.060E-06,-0.040
-8.050E-06,0.000
-8.040E-06,0.000
-8.030E-06,0.000
-8.020E-06,0.000
-8.010E-06,-0.040
-8.000E-06,0.000
-7.990E-06,-0.040
-7.980E-06,0.000
-7.970E-06,0.000
-7.960E-06,0.000
-7.950E-06,0.040
-7.940E-06,0.040
-7.930E-06,-0.040
-7.920E-06,-0.040
-7.910E-06,0.000
-7.900E-06,0.000
-7.890E-06,-0.040
-7.880E-06,0.000
-7.870E-06,0.000
-7.860E-06,0.000
-7.850E-06,-0.040
-7.840E-06,-0.080
-7.830E-06,-0.040
-7.820E-06,0.000
-7.810E-06,0.000
-7.800E-06,-0.040
-7.790E-06,-0.040
-7.780E-06,-0.040
-7.770E-06,-0.040
-7.760E-06,0.000
-7.750E-06,0.000
-7.740E-06,0.040
-7.730E-06,-0.040
-7.720E-06,0.000
-7.710E-06,0.000
-7.700E-06,0.000
-7.690E-06,0.000
-7.680E-06,-0.040
-7.670E-06,0.000
-7.660E-06,-0.120
-7.650E-06,-0.120
-7.640E-06,-0.120
-7.630E-06,-0.120
-7.620E-06,-0.080
-7.610E-06,-0.080
-7.600E-06,-0.120
-7.590E-06,-0.160
-7.580E-06,-0.160
-7.570E-06,-0.120
-7.560E-06,-0.080
-7.550E-06,-0.080
-7.540E-06,-0.080
-7.530E-06,-0.120
-7.520E-06,-0.120
-7.510E-06,-0.080
-7.500E-06,-0.080
-7.490E-06,-0.040
-7.480E-06,0.000
-7.470E-06,0.000
-7.460E-06,-0.080
-7.450E-06,-0.080
-7.440E-06,0.000
-7.430E-06,0.000
-7.420E-06,0.000
-7.410E-06,0.040
-7.400E-06,0.000
-7.390E-06,0.040
-7.380E-06,0.000
-7.370E-06,-0.040
-7.360E-06,-0.040
-7.350E-06,0.000
-7.340E-06,0.000
-7.330E-06,-0.040
-7.320E-06,0.000
-7.310E-06,-0.040
-7.300E-06,0.000
-7.290E-06,0.000
-7.280E-06,0.000
-7.270E-06,0.000
-7.260E-06,-0.040
-7.250E-06,0.000
-7.240E-06,0.000
-7.230E-06,0.000
-7.220E-06,0.000
-7.210E-06,0.000
-7.200E-06,0.000
-7.190E-06,0.040
-7.180E-06,0.040
-7.170E-06,0.040
-7.160E-06,-0.040
-7.150E-06,0.000
-7.140E-06,-0.080
-7.130E-06,-0.120
-7.120E-06,-0.120
-7.110E-06,-0.080
-7.100E-06,-0.120
-7.090E-06,-0.120
-7.080E-06,-0.080
-7.070E-06,-0.080
-7.060E-06,-0.040
-7.050E-06,-0.080
-7.040E-06,-0.080
-7.030E-06,-0.080
-7.020E-06,-0.160
-7.010E-06,-0.200
-7.000E-06,-0.240
-6.990E-06,-0.160
-6.980E-06,-0.120
-6.970E-06,-0.080
-6.960E-06,-0.160
-6.950E-06,-0.120
-6.940E-06,-0.080
-6.930E-06,-0.080
-6.920E-06,-0.080
-6.910E-06,-0.080
-6.900E-06,-0.160
-6.890E-06,-0.160
-6.880E-06,-0.200
-6.870E-06,-0.200
-6.860E-06,-0.200
-6.850E-06,-0.160
-6.840E-06,-0.080
-6.830E-06,-0.160
-6.820E-06,-0.200
-6.810E-06,-0.120
-6.800E-06,-0.080
-6.790E-06,-0.080
-6.780E-06,-0.040
-6.770E-06,-0.040
-6.760E-06,-0.080
-6.750E-06,-0.040
-6.740E-06,-0.080
-6.730E-06,0.000
-6.720E-06,0.000
-6.710E-06,0.040
-6.700E-06,0.040
-6.690E-06,0.040
-6.680E-06,0.040
-6.670E-06,-0.040
-6.660E-06,0.040
-6.650E-06,0.000
-6.640E-06,0.040
-6.630E-06,0.000
-6.620E-06,0.000
-6.610E-06,0.000
-6.600E-06,0.000
-6.590E-06,-0.040
-6.580E-06,0.000
-6.570E-06,0.000
-6.560E-06,0.000
-6.550E-06,-0.040
-6.540E-06,-0.120
-6.530E-06,-0.080
-6.520E-06,-0.040
-6.510E-06,-0.040
-6.500E-06,0.000
-6.490E-06,-0.080
-6.480E-06,-0.040
-6.470E-06,-0.120
-6.460E-06,-0.160
-6.450E-06,-0.160
-6.440E-06,-0.160
-6.430E-06,-0.240
-6.420E-06,-0.280
-6.410E-06,-0.240
-6.400E-06,-0.240
-6.390E-06,-0.240
-6.380E-06,-0.200
-6.370E-06,-0.240
-6.360E-06,-0.160
-6.350E-06,-0.160
-6.340E-06,-0.160
-6.330E-06,-0.120
-6.320E-06,-0.040
-6.310E-06,-0.120
-6.300E-06,-0.120
-6.290E-06,-0.240
-6.280E-06,-0.360
-6.270E-06,-0.200
-6.260E-06,-0.200
-6.250E-06,-0.120
-6.240E-06,-0.080
-6.230E-06,-0.120
-6.220E-06,-0.080
-6.210E-06,-0.080
-6.200E-06,-0.040
-6.190E-06,0.040
-6.180E-06,-0.040
-6.170E-06,-0.040
-6.160E-06,-0.040
-6.150E-06,-0.040
-6.140E-06,0.000
-6.130E-06,0.080
-6.120E-06,0.080
-6.110E-06,0.080
-6.100E-06,0.080
-6.090E-06,0.000
-6.080E-06,0.000
-6.070E-06,0.040
-6.060E-06,0.080
-6.050E-06,0.080
-6.040E-06,0.000
-6.030E-06,0.000
-6.020E-06,0.000
-6.010E-06,0.000
-6.000E-06,-0.040
-5.990E-06,0.000
-5.980E-06,-0.040
-5.970E-06,-0.040
-5.960E-06,0.000
-5.950E-06,-0.040
-5.940E-06,0.000
-5.930E-06,0.000
-5.920E-06,-0.040
-5.910E-06,-0.040
-5.900E-06,-0.120
-5.890E-06,-0.160
-5.880E-06,-0.080
-5.870E-06,-0.080
-5.860E-06,-0.120
-5.850E-06,-0.080
-5.840E-06,-0.120
-5.830E-06,-0.040
-5.820E-06,-0.080
-5.810E-06,-0.160
-5.800E-06,-0.120
-5.790E-06,-0.160
-5.780E-06,-0.200
-5.770E-06,-0.120
-5.760E-06,-0.160
-5.750E-06,-0.080
-5.740E-06,-0.080
-5.730E-06,-0.080
-5.720E-06,-0.160
-5.710E-06,-0.120
-5.700E-06,-0.160
-5.690E-06,-0.200
-5.680E-06,-0.160
-5.670E-06,-0.080
-5.660E-06,-0.120
-5.650E-06,-0.160
-5.640E-06,-0.040
-5.630E-06,-0.080
-5.620E-06,-0.040
-5.610E-06,-0.040
-5.600E-06,0.000
-5.590E-06,-0.040
-5.580E-06,0.000
-5.570E-06,0.000
-5.560E-06,0.040
-5.550E-06,0.000
-5.540E-06,0.040
-5.530E-06,0.000
-5.520E-06,0.000
-5.510E-06,0.040
-5.500E-06,0.080
-5.490E-06,0.040
-5.480E-06,-0.040
-5.470E-06,-0.040
-5.460E-06,0.000
-5.450E-06,-0.040
-5.440E-06,0.000
-5.430E-06,0.000
-5.420E-06,-0.080
-5.410E-06,-0.080
-5.400E-06,-0.040
-5.390E-06,-0.040
-5.380E-06,-0.040
-5.370E-06,-0.040
-5.360E-06,-0.040
-5.350E-06,-0.080
-5.340E-06,-0.080
-5.330E-06,-0.080
-5.320E-06,-0.080
-5.310E-06,-0.080
-5.300E-06,-0.080
-5.290E-06,-0.160
-5.280E-06,-0.080
-5.270E-06,-0.080
-5.260E-06,-0.080
-5.250E-06,-0.080
-5.240E-06,-0.120
-5.230E-06,-0.120
-5.220E-06,-0.080
-5.210E-06,0.040
-5.200E-06,-0.040
-5.190E-06,0.000
-5.180E-06,0.000
-5.170E-06,0.000
-5.160E-06,0.000
-5.150E-06,-0.040
-5.140E-06,0.000
-5.130E-06,-0.040
-5.120E-06,-0.120
-5.110E-06,-0.160
-5.100E-06,-0.040
-5.090E-06,-0.040
-5.080E-06,0.000
-5.070E-06,-0.040
-5.060E-06,-0.120
-5.050E-06,-0.080
-5.040E-06,-0.080
-5.030E-06,-0.040
-5.020E-06,0.000
-5.010E-06,-0.080
-5.000E-06,-0.160
-4.990E-06,-0.120
-4.980E-06,-0.160
-4.970E-06,-0.160
-4.960E-06,-0.120
-4.950E-06,-0.080
-4.940E-06,-0.120
-4.930E-06,-0.160
-4.920E-06,-0.120
-4.910E-06,-0.160
-4.900E-06,-0.080
-4.890E-06,0.000
-4.880E-06,-0.040
-4.870E-06,-0.040
-4.860E-06,0.000
-4.850E-06,0.000
-4.840E-06,0.040
-4.830E-06,0.080
-4.820E-06,0.120
-4.810E-06,0.040
-4.800E-06,0.000
-4.790E-06,0.040
-4.780E-06,0.040
-4.770E-06,0.080
-4.760E-06,0.080
-4.750E-06,0.040
-4.740E-06,0.040
-4.730E-06,0.000
-4.720E-06,0.000
-4.710E-06,-0.040
-4.700E-06,0.000
-4.690E-06,0.000
-4.680E-06,-0.040
-4.670E-06,-0.080
-4.660E-06,-0.080
-4.650E-06,-0.120
-4.640E-06,-0.120
-4.630E-06,-0.160
-4.620E-06,-0.160
-4.610E-06,-0.160
-4.600E-06,-0.200
-4.590E-06,-0.160
-4.580E-06,-0.160
-4.570E-06,-0.160
-4.560E-06,-0.120
-4.550E-06,-0.120
-4.540E-06,-0.080
-4.530E-06,-0.080
-4.520E-06,-0.080
-4.510E-06,-0.080
-4.500E-06,-0.120
-4.490E-06,-0.120
-4.480E-06,-0.160
-4.470E-06,-0.120
-4.460E-06,-0.120
-4.450E-06,-0.160
-4.440E-06,-0.120
-4.430E-06,-0.160
-4.420E-06,-0.200
-4.410E-06,-0.200
-4.400E-06,-0.120
-4.390E-06,-0.120
-4.380E-06,-0.160
-4.370E-06,-0.160
-4.360E-06,-0.200
-4.350E-06,-0.120
-4.340E-06,-0.120
-4.330E-06,-0.160
-4.320E-06,-0.200
-4.310E-06,-0.080
-4.300E-06,-0.120
-4.290E-06,-0.160
-4.280E-06,-0.200
-4.270E-06,-0.200
-4.260E-06,-0.240
-4.250E-06,-0.320
-4.240E-06,-0.320
-4.230E-06,-0.320
-4.220E-06,-0.360
-4.210E-06,-0.320
-4.200E-06,-0.400
-4.190E-06,-0.440
-4.180E-06,-0.400
-4.170E-06,-0.440
-4.160E-06,-0.440
-4.150E-06,-0.400
-4.140E-06,-0.440
-4.130E-06,-0.480
-4.120E-06,-0.480
-4.110E-06,-0.520
-4.100E-06,-0.520
-4.090E-06,-0.440
-4.080E-06,-0.440
-4.070E-06,-0.480
-4.060E-06,-0.520
-4.050E-06,-0.560
-4.040E-06,-0.600
-4.030E-06,-0.520
-4.020E-06,-0.560
-4.010E-06,-0.480
-4.000E-06,-0.480
-3.990E-06,-0.520
-3.980E-06,-0.480
-3.970E-06,-0.480
-3.960E-06,-0.480
-3.950E-06,-0.520
-3.940E-06,-0.520
-3.930E-06,-0.560
-3.920E-06,-0.600
-3.910E-06,-0.600
-3.900E-06,-0.560
-3.890E-06,-0.520
-3.880E-06,-0.480
-3.870E-06,-0.480
-3.860E-06,-0.480
-3.850E-06,-0.480
-3.840E-06,-0.480
-3.830E-06,-0.520
-3.820E-06,-0.480
-3.810E-06,-0.400
-3.800E-06,-0.400
-3.790E-06,-0.360
-3.780E-06,-0.320
-3.770E-06,-0.320
-3.760E-06,-0.360
-3.750E-06,-0.440
-3.740E-06,-0.520
-3.730E-06,-0.520
-3.720E-06,-0.560
-3.710E-06,-0.680
-3.700E-06,-0.680
-3.690E-06,-0.680
-3.680E-06,-0.640
-3.670E-06,-0.680
-3.660E-06,-0.720
-3.650E-06,-0.800
-3.640E-06,-0.840
-3.630E-06,-0.960
-3.620E-06,-1.040
-3.610E-06,-1.000
-3.600E-06,-1.080
-3.590E-06,-1.040
-3.580E-06,-1.040
-3.570E-06,-0.880
-3.560E-06,-0.800
-3.550E-06,-0.720
-3.540E-06,-0.600
-3.530E-06,-0.600
-3.520E-06,-0.560
-3.510E-06,-0.480
-3.500E-06,-0.480
-3.490E-06,-0.520
-3.480E-06,-0.600
-3.470E-06,-0.600
-3.460E-06,-0.520
-3.450E-06,-0.480
-3.440E-06,-0.520
-3.430E-06,-0.480
-3.420E-06,-0.400
-3.410E-06,-0.400
-3.400E-06,-0.400
-3.390E-06,-0.400
-3.380E-06,-0.400
-3.370E-06,-0.400
-3.360E-06,-0.400
-3.350E-06,-0.360
-3.340E-06,-0.400
-3.330E-06,-0.360
-3.320E-06,-0.320
-3.310E-06,-0.360
-3.300E-06,-0.240
-3.290E-06,-0.280
-3.280E-06,-0.240
-3.270E-06,-0.200
-3.260E-06,-0.240
-3.250E-06,-0.280
-3.240E-06,-0.240
-3.230E-06,-0.320
-3.220E-06,-0.280
-3.210E-06,-0.320
-3.200E-06,-0.320
-3.190E-06,-0.400
-3.180E-06,-0.440
-3.170E-06,-0.440
-3.160E-06,-0.480
-3.150E-06,-0.520
-3.140E-06,-0.560
-3.130E-06,-0.600
-3.120E-06,-0.640
-3.110E-06,-0.600
-3.100E-06,-0.640
-3.090E-06,-0.680
-3.080E-06,-0.640
-3.070E-06,-0.720
-3.060E-06,-0.720
-3.050E-06,-0.760
-3.040E-06,-0.720
-3.030E-06,-0.800
-3.020E-06,-0.840
-3.010E-06,-0.960
-3.000E-06,-1.040
-2.990E-06,-1.120
-2.980E-06,-1.120
-2.970E-06,-1.120
-2.960E-06,-1.160
-2.950E-06,-1.120
-2.940E-06,-1.120
-2.930E-06,-1.080
-2.920E-06,-1.040
-2.910E-06,-1.160
-2.900E-06,-1.280
-2.890E-06,-1.400
-2.880E-06,-1.520
-2.870E-06,-1.640
-2.860E-06,-1.720
-2.850E-06,-1.840
-2.840E-06,-1.720
-2.830E-06,-1.560
-2.820E-06,-1.240
-2.810E-06,-0.840
-2.800E-06,-0.520
-2.790E-06,-0.520
-2.780E-06,-0.600
-2.770E-06,-0.560
-2.760E-06,-0.680
-2.750E-06,-0.600
-2.740E-06,-0.680
-2.730E-06,-0.840
-2.720E-06,-1.000
-2.710E-06,-1.400
-2.700E-06,-1.640
-2.690E-06,-1.840
-2.680E-06,-2.000
-2.670E-06,-2.160
-2.660E-06,-2.200
-2.650E-06,-2.240
-2.640E-06,-2.240
-2.630E-06,-2.320
-2.620E-06,-2.360
-2.610E-06,-2.480
-2.600E-06,-2.600
-2.590E-06,-2.680
-2.580E-06,-2.640
-2.570E-06,-2.680
-2.560E-06,-2.680
-2.550E-06,-2.840
-2.540E-06,-2.720
-2.530E-06,-2.760
-2.520E-06,-2.600
-2.510E-06,-2.480
-2.500E-06,-2.400
-2.490E-06,-2.200
-2.480E-06,-2.120
-2.470E-06,-1.600
-2.460E-06,-1.440
-2.450E-06,-1.040
-2.440E-06,-1.000
-2.430E-06,-1.000
-2.420E-06,-1.000
-2.410E-06,-0.920
-2.400E-06,-0.960
-2.390E-06,-1.120
-2.380E-06,-1.240
-2.370E-06,-1.520
-2.360E-06,-1.440
-2.350E-06,-1.520
-2.340E-06,-1.520
-2.330E-06,-1.480
-2.320E-06,-1.440
-2.310E-06,-1.320
-2.300E-06,-1.200
-2.290E-06,-1.080
-2.280E-06,-1.000
-2.270E-06,-0.880
-2.260E-06,-0.760
-2.250E-06,-0.680
-2.240E-06,-0.600
-2.230E-06,-0.560
-2.220E-06,-0.480
-2.210E-06,-0.480
-2.200E-06,-0.400
-2.190E-06,-0.400
-2.180E-06,-0.360
-2.170E-06,-0.320
-2.160E-06,-0.200
-2.150E-06,-0.200
-2.140E-06,-0.120
-2.130E-06,-0.120
-2.120E-06,-0.080
-2.110E-06,-0.080
-2.100E-06,-0.160
-2.090E-06,-0.120
-2.080E-06,-0.120
-2.070E-06,-0.200
-2.060E-06,-0.280
-2.050E-06,-0.320
-2.040E-06,-0.400
-2.030E-06,-0.480
-2.020E-06,-0.480
-2.010E-06,-0.520
-2.000E-06,-0.560
-1.990E-06,-0.600
-1.980E-06,-0.560
-1.970E-06,-0.680
-1.960E-06,-0.680
-1.950E-06,-0.680
-1.940E-06,-0.720
-1.930E-06,-0.800
-1.920E-06,-0.880
-1.910E-06,-0.920
-1.900E-06,-0.920
-1.890E-06,-1.000
-1.880E-06,-1.160
-1.870E-06,-1.280
-1.860E-06,-1.320
-1.850E-06,-1.520
-1.840E-06,-1.520
-1.830E-06,-1.680
-1.820E-06,-1.760
-1.810E-06,-1.840
-1.800E-06,-1.800
-1.790E-06,-1.960
-1.780E-06,-2.000
-1.770E-06,-2.240
-1.760E-06,-2.320
-1.750E-06,-2.360
-1.740E-06,-2.360
-1.730E-06,-2.280
-1.720E-06,-2.240
-1.710E-06,-2.240
-1.700E-06,-2.120
-1.690E-06,-2.080
-1.680E-06,-2.040
-1.670E-06,-2.000
-1.660E-06,-2.040
-1.650E-06,-2.200
-1.640E-06,-2.240
-1.630E-06,-2.400
-1.620E-06,-2.600
-1.610E-06,-2.600
-1.600E-06,-2.600
-1.590E-06,-2.600
-1.580E-06,-2.520
-1.570E-06,-2.480
-1.560E-06,-2.560
-1.550E-06,-2.520
-1.540E-06,-2.600
-1.530E-06,-2.720
-1.520E-06,-2.680
-1.510E-06,-2.840
-1.500E-06,-2.840
-1.490E-06,-2.720
-1.480E-06,-2.680
-1.470E-06,-2.400
-1.460E-06,-2.160
-1.450E-06,-2.040
-1.440E-06,-1.920
-1.430E-06,-1.760
-1.420E-06,-1.680
-1.410E-06,-1.560
-1.400E-06,-1.520
-1.390E-06,-1.560
-1.380E-06,-1.800
-1.370E-06,-1.840
-1.360E-06,-2.160
-1.350E-06,-2.320
-1.340E-06,-2.600
-1.330E-06,-2.880
-1.320E-06,-3.160
-1.310E-06,-3.360
-1.300E-06,-3.600
-1.290E-06,-3.680
-1.280E-06,-3.720
-1.270E-06,-3.840
-1.260E-06,-3.920
-1.250E-06,-3.960
-1.240E-06,-4.000
-1.230E-06,-3.960
-1.220E-06,-4.000
-1.210E-06,-3.840
-1.200E-06,-3.800
-1.190E-06,-3.680
-1.180E-06,-3.640
-1.170E-06,-3.720
-1.160E-06,-3.480
-1.150E-06,-3.560
-1.140E-06,-3.440
-1.130E-06,-3.480
-1.120E-06,-3.400
-1.110E-06,-3.280
-1.100E-06,-3.120
-1.090E-06,-2.960
-1.080E-06,-2.880
-1.070E-06,-2.720
-1.060E-06,-2.680
-1.050E-06,-2.600
-1.040E-06,-2.520
-1.030E-06,-2.400
-1.020E-06,-2.360
-1.010E-06,-2.360
-1.000E-06,-2.320
-9.900E-07,-2.600
-9.800E-07,-2.720
-9.700E-07,-2.920
-9.600E-07,-3.160
-9.500E-07,-3.360
-9.400E-07,-3.560
-9.300E-07,-3.640
-9.200E-07,-3.640
-9.100E-07,-3.640
-9.000E-07,-3.640
-8.900E-07,-3.560
-8.800E-07,-3.520
-8.700E-07,-3.440
-8.600E-07,-3.280
-8.500E-07,-3.240
-8.400E-07,-3.000
-8.300E-07,-2.920
-8.200E-07,-2.840
-8.100E-07,-2.720
-8.000E-07,-2.480
-7.900E-07,-2.360
-7.800E-07,-2.240
-7.700E-07,-2.280
-7.600E-07,-2.320
-7.500E-07,-2.360
-7.400E-07,-2.320
-7.300E-07,-2.320
-7.200E-07,-2.400
-7.100E-07,-2.480
-7.000E-07,-2.560
-6.900E-07,-2.600
-6.800E-07,-2.720
-6.700E-07,-2.760
-6.600E-07,-2.840
-6.500E-07,-3.080
-6.400E-07,-3.160
-6.300E-07,-3.280
-6.200E-07,-3.360
-6.100E-07,-3.320
-6.000E-07,-3.440
-5.900E-07,-3.520
-5.800E-07,-3.680
-5.700E-07,-3.680
-5.600E-07,-3.800
-5.500E-07,-3.880
-5.400E-07,-3.840
-5.300E-07,-3.840
-5.200E-07,-3.720
-5.100E-07,-3.640
-5.000E-07,-3.520
-4.900E-07,-3.400
-4.800E-07,-3.280
-4.700E-07,-3.080
-4.600E-07,-2.920
-4.500E-07,-2.760
-4.400E-07,-2.680
-4.300E-07,-2.600
-4.200E-07,-2.600
-4.100E-07,-2.720
-4.000E-07,-2.760
-3.900E-07,-2.840
-3.800E-07,-3.040
-3.700E-07,-3.200
-3.600E-07,-3.440
-3.500E-07,-3.600
-3.400E-07,-3.840
-3.300E-07,-3.760
-3.200E-07,-3.640
-3.100E-07,-3.560
-3.000E-07,-3.640
-2.900E-07,-3.600
-2.800E-07,-3.840
-2.700E-07,-4.400
-2.600E-07,-4.960
-2.500E-07,-5.240
-2.400E-07,-5.240
-2.300E-07,-5.240
-2.200E-07,-5.200
-2.100E-07,-5.200
-2.000E-07,-5.200
-1.900E-07,-5.200
-1.800E-07,-5.200
-1.700E-07,-5.240
-1.600E-07,-5.200
-1.500E-07,-5.200
-1.400E-07,-5.200
-1.300E-07,-5.240
-1.200E-07,-5.240
-1.100E-07,-5.240
-1.000E-07,-5.240
-9.000E-08,-5.200
-8.000E-08,-5.200
-7.000E-08,-5.240
-6.000E-08,-5.240
-5.000E-08,-5.200
-4.000E-08,-5.240
-3.000E-08,-5.240
-2.000E-08,-5.200
-1.000E-08,-5.200
0.000E+00,-5.240
1.000E-08,-5.200
2.000E-08,-5.200
3.000E-08,-5.240
4.000E-08,-5.240
5.000E-08,-5.200
6.000E-08,-5.200
7.000E-08,-5.240
8.000E-08,-4.920
9.000E-08,-4.360
1.000E-07,-3.680
1.100E-07,-3.160
1.200E-07,-2.680
1.300E-07,-2.360
1.400E-07,-2.120
1.500E-07,-1.840
1.600E-07,-1.800
1.700E-07,-1.720
1.800E-07,-1.640
1.900E-07,-1.640
2.000E-07,-1.600
2.100E-07,-1.480
2.200E-07,-1.360
2.300E-07,-1.240
2.400E-07,-1.000
2.500E-07,-0.760
2.600E-07,-0.520
2.700E-07,-0.240
2.800E-07,0.080
2.900E-07,0.360
3.000E-07,0.640
3.100E-07,0.800
3.200E-07,0.880
3.300E-07,0.920
3.400E-07,0.920
3.500E-07,0.840
3.600E-07,0.680
3.700E-07,0.560
3.800E-07,0.480
3.900E-07,0.360
4.000E-07,0.320
4.100E-07,0.320
4.200E-07,0.360
4.300E-07,0.320
4.400E-07,0.320
4.500E-07,0.320
4.600E-07,0.200
4.700E-07,0.160
4.800E-07,0.120
4.900E-07,0.000
5.000E-07,-0.120
5.100E-07,-0.240
5.200E-07,-0.360
5.300E-07,-0.320
5.400E-07,-0.320
5.500E-07,-0.320
5.600E-07,-0.160
5.700E-07,-0.120
5.800E-07,-0.080
5.900E-07,0.000
6.000E-07,0.080
6.100E-07,0.200
6.200E-07,0.120
6.300E-07,0.160
6.400E-07,0.160
6.500E-07,0.120
6.600E-07,0.000
6.700E-07,-0.080
6.800E-07,-0.200
6.900E-07,-0.280
7.000E-07,-0.320
7.100E-07,-0.400
7.200E-07,-0.440
7.300E-07,-0.440
7.400E-07,-0.320
7.500E-07,-0.240
7.600E-07,-0.120
7.700E-07,-0.040
7.800E-07,0.120
7.900E-07,0.160
8.000E-07,0.360
8.100E-07,0.400
8.200E-07,0.480
8.300E-07,0.520
8.400E-07,0.520
8.500E-07,0.480
8.600E-07,0.480
8.700E-07,0.480
8.800E-07,0.480
8.900E-07,0.400
9.000E-07,0.360
9.100E-07,0.360
9.200E-07,0.360
9.300E-07,0.280
9.400E-07,0.200
9.500E-07,0.200
9.600E-07,0.160
9.700E-07,0.160
9.800E-07,0.120
9.900E-07,0.080
1.000E-06,0.040
1.010E-06,0.040
1.020E-06,0.040
1.030E-06,0.080
1.040E-06,0.160
1.050E-06,0.200
1.060E-06,0.280
1.070E-06,0.360
1.080E-06,0.520
1.090E-06,0.560
1.100E-06,0.640
1.110E-06,0.720
1.120E-06,0.720
1.130E-06,0.760
1.140E-06,0.760
1.150E-06,0.800
1.160E-06,0.760
1.170E-06,0.760
1.180E-06,0.680
1.190E-06,0.640
1.200E-06,0.600
1.210E-06,0.560
1.220E-06,0.640
1.230E-06,0.600
1.240E-06,0.680
1.250E-06,0.680
1.260E-06,0.680
1.270E-06,0.680
1.280E-06,0.720
1.290E-06,0.680
1.300E-06,0.640
1.310E-06,0.640
1.320E-06,0.560
1.330E-06,0.480
1.340E-06,0.480
1.350E-06,0.440
1.360E-06,0.360
1.370E-06,0.320
1.380E-06,0.280
1.390E-06,0.280
1.400E-06,0.160
1.410E-06,0.080
1.420E-06,0.040
1.430E-06,-0.040
1.440E-06,-0.040
1.450E-06,-0.120
1.460E-06,-0.080
1.470E-06,-0.160
1.480E-06,-0.200
1.490E-06,-0.160
1.500E-06,-0.080
1.510E-06,-0.080
1.520E-06,-0.040
1.530E-06,-0.040
1.540E-06,0.040
1.550E-06,0.080
1.560E-06,0.160
1.570E-06,0.320
1.580E-06,0.440
1.590E-06,0.480
1.600E-06,0.640
1.610E-06,0.680
1.620E-06,0.760
1.630E-06,0.840
1.640E-06,0.880
1.650E-06,0.880
1.660E-06,0.880
1.670E-06,0.840
1.680E-06,0.840
1.690E-06,0.800
1.700E-06,0.760
1.710E-06,0.760
1.720E-06,0.760
1.730E-06,0.720
1.740E-06,0.640
1.750E-06,0.640
1.760E-06,0.600
1.770E-06,0.520
1.780E-06,0.480
1.790E-06,0.440
1.800E-06,0.360
1.810E-06,0.200
1.820E-06,0.240
1.830E-06,0.360
1.840E-06,0.400
1.850E-06,0.400
1.860E-06,0.480
1.870E-06,0.640
1.880E-06,0.720
1.890E-06,0.800
1.900E-06,0.880
1.910E-06,0.960
1.920E-06,1.120
1.930E-06,1.160
1.940E-06,1.160
1.950E-06,1.200
1.960E-06,1.240
1.970E-06,1.280
1.980E-06,1.280
1.990E-06,1.240
2.000E-06,1.240
2.010E-06,1.200
2.020E-06,1.240
2.030E-06,1.200
2.040E-06,1.120
2.050E-06,1.120
2.060E-06,1.120
2.070E-06,1.000
2.080E-06,1.080
2.090E-06,1.160
2.100E-06,1.160
2.110E-06,1.160
2.120E-06,1.200
2.130E-06,1.200
2.140E-06,1.160
2.150E-06,1.120
2.160E-06,1.040
2.170E-06,1.000
2.180E-06,1.000
2.190E-06,1.040
2.200E-06,1.000
2.210E-06,1.040
2.220E-06,1.040
2.230E-06,1.120
2.240E-06,1.200
2.250E-06,1.320
2.260E-06,1.360
2.270E-06,1.400
2.280E-06,1.520
2.290E-06,1.480
2.300E-06,1.520
2.310E-06,1.560
2.320E-06,1.520
2.330E-06,1.560
2.340E-06,1.640
2.350E-06,1.640
2.360E-06,1.640
2.370E-06,1.680
2.380E-06,1.680
2.390E-06,1.640
2.400E-06,1.520
2.410E-06,1.480
2.420E-06,1.400
2.430E-06,1.280
2.440E-06,1.240
2.450E-06,1.120
2.460E-06,1.000
2.470E-06,0.960
2.480E-06,0.840
2.490E-06,0.680
2.500E-06,0.600
2.510E-06,0.560
2.520E-06,0.480
2.530E-06,0.520
2.540E-06,0.560
2.550E-06,0.600
2.560E-06,0.760
2.570E-06,0.840
2.580E-06,0.880
2.590E-06,0.960
2.600E-06,1.040
2.610E-06,1.000
2.620E-06,0.960
2.630E-06,0.960
2.640E-06,0.920
2.650E-06,0.880
2.660E-06,0.840
2.670E-06,0.800
2.680E-06,0.800
2.690E-06,0.760
2.700E-06,0.760
2.710E-06,0.760
2.720E-06,0.760
2.730E-06,0.760
2.740E-06,0.720
2.750E-06,0.720
2.760E-06,0.680
2.770E-06,0.600
2.780E-06,0.600
2.790E-06,0.560
2.800E-06,0.480
2.810E-06,0.480
2.820E-06,0.440
2.830E-06,0.400
2.840E-06,0.360
2.850E-06,0.400
2.860E-06,0.360
2.870E-06,0.240
2.880E-06,0.200
2.890E-06,0.160
2.900E-06,0.080
2.910E-06,0.080
2.920E-06,0.120
2.930E-06,0.120
2.940E-06,0.240
2.950E-06,0.320
2.960E-06,0.440
2.970E-06,0.560
2.980E-06,0.680
2.990E-06,0.720
3.000E-06,0.800
3.010E-06,0.840
3.020E-06,0.840
3.030E-06,0.800
3.040E-06,0.840
3.050E-06,0.720
3.060E-06,0.720
