mediciones/5-15/7.5/WaveData47181.csv

#timebase=2000000(ps)
,#voltbase=100000(mv/100)
#size=4000
-8.400E-06,0.000
-8.390E-06,0.004
-8.380E-06,0.012
-8.370E-06,0.004
-8.360E-06,0.000
-8.350E-06,0.000
-8.340E-06,0.000
-8.330E-06,-0.004
-8.320E-06,0.000
-8.310E-06,0.004
-8.300E-06,0.008
-8.290E-06,0.008
-8.280E-06,0.004
-8.270E-06,0.000
-8.260E-06,0.000
-8.250E-06,0.000
-8.240E-06,0.004
-8.230E-06,0.004
-8.220E-06,0.000
-8.210E-06,0.004
-8.200E-06,0.008
-8.190E-06,0.004
-8.180E-06,0.004
-8.170E-06,0.004
-8.160E-06,0.000
-8.150E-06,0.004
-8.140E-06,0.004
-8.130E-06,0.008
-8.120E-06,0.000
-8.110E-06,0.004
-8.100E-06,0.000
-8.090E-06,0.000
-8.080E-06,0.000
-8.070E-06,0.000
-8.060E-06,0.000
-8.050E-06,0.004
-8.040E-06,0.000
-8.030E-06,0.004
-8.020E-06,0.008
-8.010E-06,0.008
-8.000E-06,0.004
-7.990E-06,0.004
-7.980E-06,-0.004
-7.970E-06,0.004
-7.960E-06,0.008
-7.950E-06,0.008
-7.940E-06,0.004
-7.930E-06,0.004
-7.920E-06,-0.004
-7.910E-06,-0.004
-7.900E-06,0.004
-7.890E-06,0.000
-7.880E-06,0.004
-7.870E-06,0.004
-7.860E-06,0.000
-7.850E-06,-0.004
-7.840E-06,0.004
-7.830E-06,0.004
-7.820E-06,0.004
-7.810E-06,0.004
-7.800E-06,0.004
-7.790E-06,0.000
-7.780E-06,0.000
-7.770E-06,0.004
-7.760E-06,0.004
-7.750E-06,0.004
-7.740E-06,0.004
-7.730E-06,0.004
-7.720E-06,0.004
-7.710E-06,0.008
-7.700E-06,0.012
-7.690E-06,0.008
-7.680E-06,0.000
-7.670E-06,0.000
-7.660E-06,0.000
-7.650E-06,-0.004
-7.640E-06,0.004
-7.630E-06,0.008
-7.620E-06,0.012
-7.610E-06,0.008
-7.600E-06,0.008
-7.590E-06,-0.004
-7.580E-06,0.000
-7.570E-06,0.000
-7.560E-06,0.000
-7.550E-06,0.008
-7.540E-06,0.000
-7.530E-06,0.000
-7.520E-06,0.008
-7.510E-06,0.008
-7.500E-06,0.000
-7.490E-06,0.004
-7.480E-06,0.000
-7.470E-06,0.000
-7.460E-06,0.004
-7.450E-06,-0.004
-7.440E-06,0.004
-7.430E-06,0.008
-7.420E-06,0.000
-7.410E-06,0.000
-7.400E-06,0.004
-7.390E-06,0.004
-7.380E-06,-0.004
-7.370E-06,0.000
-7.360E-06,0.008
-7.350E-06,0.004
-7.340E-06,0.004
-7.330E-06,-0.004
-7.320E-06,0.000
-7.310E-06,-0.004
-7.300E-06,0.004
-7.290E-06,0.000
-7.280E-06,0.004
-7.270E-06,0.000
-7.260E-06,0.008
-7.250E-06,0.004
-7.240E-06,0.004
-7.230E-06,0.000
-7.220E-06,0.000
-7.210E-06,0.004
-7.200E-06,0.004
-7.190E-06,0.004
-7.180E-06,0.004
-7.170E-06,0.008
-7.160E-06,0.008
-7.150E-06,0.012
-7.140E-06,0.008
-7.130E-06,0.008
-7.120E-06,0.000
-7.110E-06,0.000
-7.100E-06,0.008
-7.090E-06,0.000
-7.080E-06,0.000
-7.070E-06,0.004
-7.060E-06,0.004
-7.050E-06,0.000
-7.040E-06,0.004
-7.030E-06,0.000
-7.020E-06,0.000
-7.010E-06,0.000
-7.000E-06,0.000
-6.990E-06,0.000
-6.980E-06,0.004
-6.970E-06,0.000
-6.960E-06,0.004
-6.950E-06,-0.004
-6.940E-06,0.000
-6.930E-06,-0.004
-6.920E-06,-0.004
-6.910E-06,0.000
-6.900E-06,-0.004
-6.890E-06,0.000
-6.880E-06,0.008
-6.870E-06,0.008
-6.860E-06,0.000
-6.850E-06,0.004
-6.840E-06,0.000
-6.830E-06,0.000
-6.820E-06,0.004
-6.810E-06,0.000
-6.800E-06,0.000
-6.790E-06,0.004
-6.780E-06,0.000
-6.770E-06,-0.004
-6.760E-06,0.004
-6.750E-06,0.004
-6.740E-06,0.000
-6.730E-06,0.008
-6.720E-06,0.004
-6.710E-06,0.000
-6.700E-06,0.000
-6.690E-06,0.004
-6.680E-06,-0.004
-6.670E-06,0.004
-6.660E-06,0.012
-6.650E-06,0.008
-6.640E-06,0.004
-6.630E-06,0.008
-6.620E-06,0.000
-6.610E-06,0.000
-6.600E-06,0.004
-6.590E-06,-0.004
-6.580E-06,0.004
-6.570E-06,0.004
-6.560E-06,0.004
-6.550E-06,0.004
-6.540E-06,0.004
-6.530E-06,0.000
-6.520E-06,0.000
-6.510E-06,0.000
-6.500E-06,0.000
-6.490E-06,0.004
-6.480E-06,0.004
-6.470E-06,-0.004
-6.460E-06,0.000
-6.450E-06,0.004
-6.440E-06,0.008
-6.430E-06,0.004
-6.420E-06,0.004
-6.410E-06,0.000
-6.400E-06,0.000
-6.390E-06,0.000
-6.380E-06,0.004
-6.370E-06,0.008
-6.360E-06,0.008
-6.350E-06,0.008
-6.340E-06,0.000
-6.330E-06,0.000
-6.320E-06,0.000
-6.310E-06,0.000
-6.300E-06,0.000
-6.290E-06,0.008
-6.280E-06,0.004
-6.270E-06,0.004
-6.260E-06,0.004
-6.250E-06,-0.004
-6.240E-06,-0.004
-6.230E-06,0.004
-6.220E-06,0.008
-6.210E-06,0.008
-6.200E-06,0.000
-6.190E-06,0.000
-6.180E-06,0.008
-6.170E-06,0.000
-6.160E-06,0.004
-6.150E-06,-0.004
-6.140E-06,0.000
-6.130E-06,0.000
-6.120E-06,0.004
-6.110E-06,0.012
-6.100E-06,0.008
-6.090E-06,-0.008
-6.080E-06,0.000
-6.070E-06,-0.004
-6.060E-06,0.000
-6.050E-06,0.008
-6.040E-06,0.012
-6.030E-06,0.008
-6.020E-06,0.004
-6.010E-06,0.004
-6.000E-06,-0.004
-5.990E-06,-0.004
-5.980E-06,0.004
-5.970E-06,0.008
-5.960E-06,0.012
-5.950E-06,0.012
-5.940E-06,0.004
-5.930E-06,-0.004
-5.920E-06,0.000
-5.910E-06,0.004
-5.900E-06,0.004
-5.890E-06,0.004
-5.880E-06,0.008
-5.870E-06,0.004
-5.860E-06,0.000
-5.850E-06,0.008
-5.840E-06,0.012
-5.830E-06,-0.008
-5.820E-06,-0.008
-5.810E-06,-0.004
-5.800E-06,0.012
-5.790E-06,0.012
-5.780E-06,0.008
-5.770E-06,0.000
-5.760E-06,0.000
-5.750E-06,-0.004
-5.740E-06,0.004
-5.730E-06,0.008
-5.720E-06,0.004
-5.710E-06,0.004
-5.700E-06,0.000
-5.690E-06,0.004
-5.680E-06,-0.004
-5.670E-06,-0.004
-5.660E-06,0.008
-5.650E-06,0.004
-5.640E-06,0.008
-5.630E-06,0.000
-5.620E-06,-0.004
-5.610E-06,0.000
-5.600E-06,0.000
-5.590E-06,0.000
-5.580E-06,0.004
-5.570E-06,0.008
-5.560E-06,0.004
-5.550E-06,-0.004
-5.540E-06,0.004
-5.530E-06,-0.004
-5.520E-06,0.008
-5.510E-06,0.004
-5.500E-06,0.012
-5.490E-06,0.004
-5.480E-06,0.004
-5.470E-06,-0.004
-5.460E-06,-0.004
-5.450E-06,0.004
-5.440E-06,0.008
-5.430E-06,-0.004
-5.420E-06,0.004
-5.410E-06,0.008
-5.400E-06,0.000
-5.390E-06,0.004
-5.380E-06,0.004
-5.370E-06,0.004
-5.360E-06,0.004
-5.350E-06,0.004
-5.340E-06,0.004
-5.330E-06,0.004
-5.320E-06,0.004
-5.310E-06,0.004
-5.300E-06,0.004
-5.290E-06,0.004
-5.280E-06,0.000
-5.270E-06,0.000
-5.260E-06,0.008
-5.250E-06,0.004
-5.240E-06,0.004
-5.230E-06,0.004
-5.220E-06,0.000
-5.210E-06,0.004
-5.200E-06,0.004
-5.190E-06,0.000
-5.180E-06,0.004
-5.170E-06,0.008
-5.160E-06,0.004
-5.150E-06,0.008
-5.140E-06,0.000
-5.130E-06,0.008
-5.120E-06,0.004
-5.110E-06,0.012
-5.100E-06,-0.004
-5.090E-06,0.008
-5.080E-06,0.008
-5.070E-06,-0.004
-5.060E-06,0.004
-5.050E-06,0.008
-5.040E-06,0.012
-5.030E-06,-0.004
-5.020E-06,-0.008
-5.010E-06,0.004
-5.000E-06,-0.008
-4.990E-06,0.016
-4.980E-06,0.008
-4.970E-06,0.008
-4.960E-06,-0.004
-4.950E-06,0.000
-4.940E-06,-0.004
-4.930E-06,0.000
-4.920E-06,0.000
-4.910E-06,0.008
-4.900E-06,0.008
-4.890E-06,0.012
-4.880E-06,0.000
-4.870E-06,-0.004
-4.860E-06,-0.008
-4.850E-06,0.008
-4.840E-06,0.008
-4.830E-06,0.004
-4.820E-06,-0.004
-4.810E-06,0.000
-4.800E-06,0.000
-4.790E-06,0.000
-4.780E-06,0.008
-4.770E-06,-0.004
-4.760E-06,-0.008
-4.750E-06,0.064
-4.740E-06,0.032
-4.730E-06,-0.040
-4.720E-06,-0.040
-4.710E-06,-0.064
-4.700E-06,0.068
-4.690E-06,0.080
-4.680E-06,0.008
-4.670E-06,-0.052
-4.660E-06,0.024
-4.650E-06,0.008
-4.640E-06,-0.032
-4.630E-06,0.016
-4.620E-06,0.020
-4.610E-06,-0.004
-4.600E-06,-0.004
-4.590E-06,0.032
-4.580E-06,0.000
-4.570E-06,-0.012
-4.560E-06,0.000
-4.550E-06,0.016
-4.540E-06,0.000
-4.530E-06,0.008
-4.520E-06,0.008
-4.510E-06,0.000
-4.500E-06,0.004
-4.490E-06,0.004
-4.480E-06,-0.004
-4.470E-06,-0.004
-4.460E-06,0.008
-4.450E-06,0.000
-4.440E-06,0.012
-4.430E-06,0.000
-4.420E-06,0.000
-4.410E-06,0.000
-4.400E-06,0.000
-4.390E-06,0.004
-4.380E-06,0.000
-4.370E-06,0.008
-4.360E-06,0.008
-4.350E-06,0.012
-4.340E-06,0.004
-4.330E-06,0.004
-4.320E-06,-0.004
-4.310E-06,0.000
-4.300E-06,0.000
-4.290E-06,0.012
-4.280E-06,0.008
-4.270E-06,0.008
-4.260E-06,0.000
-4.250E-06,0.000
-4.240E-06,-0.004
-4.230E-06,-0.004
-4.220E-06,0.004
-4.210E-06,0.008
-4.200E-06,0.012
-4.190E-06,0.008
-4.180E-06,0.004
-4.170E-06,0.000
-4.160E-06,0.000
-4.150E-06,0.000
-4.140E-06,0.000
-4.130E-06,0.004
-4.120E-06,0.004
-4.110E-06,0.004
-4.100E-06,0.004
-4.090E-06,0.004
-4.080E-06,0.008
-4.070E-06,0.004
-4.060E-06,0.004
-4.050E-06,-0.004
-4.040E-06,0.000
-4.030E-06,0.012
-4.020E-06,0.016
-4.010E-06,0.016
-4.000E-06,0.008
-3.990E-06,0.000
-3.980E-06,-0.004
-3.970E-06,-0.008
-3.960E-06,-0.004
-3.950E-06,0.004
-3.940E-06,0.012
-3.930E-06,0.008
-3.920E-06,0.008
-3.910E-06,0.000
-3.900E-06,-0.004
-3.890E-06,-0.004
-3.880E-06,0.000
-3.870E-06,0.004
-3.860E-06,0.008
-3.850E-06,0.008
-3.840E-06,0.008
-3.830E-06,0.008
-3.820E-06,0.000
-3.810E-06,0.000
-3.800E-06,0.000
-3.790E-06,0.000
-3.780E-06,0.004
-3.770E-06,0.004
-3.760E-06,0.012
-3.750E-06,0.008
-3.740E-06,0.008
-3.730E-06,0.000
-3.720E-06,0.000
-3.710E-06,0.000
-3.700E-06,0.008
-3.690E-06,0.012
-3.680E-06,0.016
-3.670E-06,0.008
-3.660E-06,0.004
-3.650E-06,0.000
-3.640E-06,0.000
-3.630E-06,0.000
-3.620E-06,0.008
-3.610E-06,0.012
-3.600E-06,0.012
-3.590E-06,0.012
-3.580E-06,0.012
-3.570E-06,0.016
-3.560E-06,0.004
-3.550E-06,0.004
-3.540E-06,0.004
-3.530E-06,0.000
-3.520E-06,0.000
-3.510E-06,0.004
-3.500E-06,0.012
-3.490E-06,0.008
-3.480E-06,0.008
-3.470E-06,0.004
-3.460E-06,-0.004
-3.450E-06,0.004
-3.440E-06,0.012
-3.430E-06,0.024
-3.420E-06,0.020
-3.410E-06,0.008
-3.400E-06,0.000
-3.390E-06,-0.004
-3.380E-06,0.004
-3.370E-06,0.016
-3.360E-06,0.016
-3.350E-06,0.008
-3.340E-06,0.004
-3.330E-06,-0.004
-3.320E-06,-0.008
-3.310E-06,-0.004
-3.300E-06,0.012
-3.290E-06,0.028
-3.280E-06,0.020
-3.270E-06,0.008
-3.260E-06,0.000
-3.250E-06,-0.004
-3.240E-06,-0.004
-3.230E-06,0.004
-3.220E-06,0.012
-3.210E-06,0.028
-3.200E-06,0.032
-3.190E-06,0.032
-3.180E-06,0.020
-3.170E-06,0.012
-3.160E-06,0.000
-3.150E-06,0.008
-3.140E-06,0.012
-3.130E-06,0.012
-3.120E-06,0.004
-3.110E-06,0.012
-3.100E-06,0.020
-3.090E-06,0.024
-3.080E-06,0.012
-3.070E-06,0.004
-3.060E-06,0.008
-3.050E-06,0.016
-3.040E-06,0.040
-3.030E-06,0.040
-3.020E-06,0.008
-3.010E-06,0.000
-3.000E-06,0.008
-2.990E-06,0.036
-2.980E-06,0.028
-2.970E-06,0.000
-2.960E-06,0.000
-2.950E-06,0.020
-2.940E-06,0.004
-2.930E-06,0.004
-2.920E-06,-0.008
-2.910E-06,-0.012
-2.900E-06,0.000
-2.890E-06,0.004
-2.880E-06,-0.004
-2.870E-06,-0.012
-2.860E-06,0.000
-2.850E-06,0.024
-2.840E-06,0.036
-2.830E-06,0.028
-2.820E-06,0.012
-2.810E-06,0.016
-2.800E-06,0.028
-2.790E-06,0.024
-2.780E-06,0.024
-2.770E-06,0.040
-2.760E-06,0.064
-2.750E-06,0.028
-2.740E-06,0.008
-2.730E-06,-0.056
-2.720E-06,-0.048
-2.710E-06,-0.044
-2.700E-06,-0.048
-2.690E-06,-0.068
-2.680E-06,-0.052
-2.670E-06,0.024
-2.660E-06,0.056
-2.650E-06,0.072
-2.640E-06,0.012
-2.630E-06,-0.044
-2.620E-06,-0.068
-2.610E-06,-0.024
-2.600E-06,0.016
-2.590E-06,0.064
-2.580E-06,0.072
-2.570E-06,0.032
-2.560E-06,-0.036
-2.550E-06,-0.076
-2.540E-06,-0.056
-2.530E-06,0.012
-2.520E-06,0.064
-2.510E-06,0.036
-2.500E-06,-0.008
-2.490E-06,-0.068
-2.480E-06,-0.080
-2.470E-06,-0.040
-2.460E-06,0.020
-2.450E-06,0.080
-2.440E-06,0.076
-2.430E-06,0.028
-2.420E-06,-0.020
-2.410E-06,-0.032
-2.400E-06,-0.028
-2.390E-06,-0.004
-2.380E-06,0.016
-2.370E-06,0.028
-2.360E-06,0.028
-2.350E-06,0.020
-2.340E-06,0.016
-2.330E-06,0.016
-2.320E-06,0.036
-2.310E-06,0.044
-2.300E-06,0.016
-2.290E-06,0.004
-2.280E-06,-0.008
-2.270E-06,-0.040
-2.260E-06,-0.040
-2.250E-06,-0.040
-2.240E-06,-0.004
-2.230E-06,0.012
-2.220E-06,0.036
-2.210E-06,0.028
-2.200E-06,-0.012
-2.190E-06,-0.032
-2.180E-06,-0.024
-2.170E-06,-0.004
-2.160E-06,0.020
-2.150E-06,0.048
-2.140E-06,0.048
-2.130E-06,0.036
-2.120E-06,0.016
-2.110E-06,-0.008
-2.100E-06,-0.004
-2.090E-06,0.016
-2.080E-06,0.044
-2.070E-06,0.072
-2.060E-06,0.072
-2.050E-06,0.056
-2.040E-06,0.032
-2.030E-06,0.016
-2.020E-06,0.012
-2.010E-06,0.020
-2.000E-06,0.060
-1.990E-06,0.068
-1.980E-06,0.052
-1.970E-06,0.024
-1.960E-06,-0.024
-1.950E-06,-0.044
-1.940E-06,-0.028
-1.930E-06,0.024
-1.920E-06,0.080
-1.910E-06,0.092
-1.900E-06,0.080
-1.890E-06,0.024
-1.880E-06,-0.024
-1.870E-06,-0.052
-1.860E-06,-0.052
-1.850E-06,-0.004
-1.840E-06,0.056
-1.830E-06,0.072
-1.820E-06,0.068
-1.810E-06,0.032
-1.800E-06,-0.008
-1.790E-06,-0.056
-1.780E-06,-0.052
-1.770E-06,-0.024
-1.760E-06,0.044
-1.750E-06,0.068
-1.740E-06,0.060
-1.730E-06,0.036
-1.720E-06,-0.008
-1.710E-06,-0.032
-1.700E-06,-0.036
-1.690E-06,-0.008
-1.680E-06,0.028
-1.670E-06,0.060
-1.660E-06,0.056
-1.650E-06,0.028
-1.640E-06,-0.008
-1.630E-06,0.000
-1.620E-06,0.012
-1.610E-06,0.028
-1.600E-06,0.048
-1.590E-06,0.044
-1.580E-06,0.048
-1.570E-06,0.036
-1.560E-06,0.032
-1.550E-06,0.012
-1.540E-06,0.036
-1.530E-06,0.072
-1.520E-06,0.092
-1.510E-06,0.088
-1.500E-06,0.080
-1.490E-06,0.056
-1.480E-06,0.028
-1.470E-06,0.020
-1.460E-06,0.036
-1.450E-06,0.072
-1.440E-06,0.088
-1.430E-06,0.088
-1.420E-06,0.084
-1.410E-06,0.064
-1.400E-06,0.036
-1.390E-06,0.024
-1.380E-06,0.016
-1.370E-06,0.004
-1.360E-06,0.064
-1.350E-06,0.104
-1.340E-06,0.100
-1.330E-06,0.084
-1.320E-06,0.028
-1.310E-06,0.004
-1.300E-06,-0.060
-1.290E-06,-0.060
-1.280E-06,-0.024
-1.270E-06,0.020
-1.260E-06,0.056
-1.250E-06,0.016
-1.240E-06,0.000
-1.230E-06,-0.008
-1.220E-06,-0.004
-1.210E-06,0.028
-1.200E-06,0.088
-1.190E-06,0.100
-1.180E-06,0.092
-1.170E-06,0.048
-1.160E-06,0.020
-1.150E-06,0.008
-1.140E-06,0.024
-1.130E-06,0.056
-1.120E-06,0.060
-1.110E-06,0.060
-1.100E-06,0.024
-1.090E-06,0.020
-1.080E-06,0.012
-1.070E-06,0.020
-1.060E-06,0.028
-1.050E-06,0.060
-1.040E-06,0.048
-1.030E-06,0.056
-1.020E-06,0.068
-1.010E-06,0.092
-1.000E-06,0.100
-9.900E-07,0.100
-9.800E-07,0.120
-9.700E-07,0.120
-9.600E-07,0.140
-9.500E-07,0.148
-9.400E-07,0.164
-9.300E-07,0.156
-9.200E-07,0.160
-9.100E-07,0.156
-9.000E-07,0.144
-8.900E-07,0.136
-8.800E-07,0.128
-8.700E-07,0.140
-8.600E-07,0.148
-8.500E-07,0.156
-8.400E-07,0.148
-8.300E-07,0.156
-8.200E-07,0.140
-8.100E-07,0.124
-8.000E-07,0.128
-7.900E-07,0.128
-7.800E-07,0.132
-7.700E-07,0.128
-7.600E-07,0.120
-7.500E-07,0.092
-7.400E-07,0.072
-7.300E-07,0.068
-7.200E-07,0.064
-7.100E-07,0.068
-7.000E-07,0.116
-6.900E-07,0.136
-6.800E-07,0.164
-6.700E-07,0.200
-6.600E-07,0.208
-6.500E-07,0.204
-6.400E-07,0.224
-6.300E-07,0.284
-6.200E-07,0.276
-6.100E-07,0.256
-6.000E-07,0.216
-5.900E-07,0.156
-5.800E-07,0.128
-5.700E-07,0.116
-5.600E-07,0.180
-5.500E-07,0.184
-5.400E-07,0.208
-5.300E-07,0.144
-5.200E-07,0.136
-5.100E-07,0.052
-5.000E-07,-0.028
-4.900E-07,-0.032
-4.800E-07,-0.056
-4.700E-07,-0.052
-4.600E-07,-0.004
-4.500E-07,-0.036
-4.400E-07,0.032
-4.300E-07,0.212
-4.200E-07,0.340
-4.100E-07,0.392
-4.000E-07,0.336
-3.900E-07,0.224
-3.800E-07,0.092
-3.700E-07,0.040
-3.600E-07,-0.008
-3.500E-07,-0.068
-3.400E-07,-0.228
-3.300E-07,-0.396
-3.200E-07,-0.512
-3.100E-07,-0.512
-3.000E-07,-0.512
-2.900E-07,-0.512
-2.800E-07,-0.512
-2.700E-07,-0.476
-2.600E-07,-0.240
-2.500E-07,-0.304
-2.400E-07,-0.380
-2.300E-07,-0.388
-2.200E-07,-0.312
-2.100E-07,-0.288
-2.000E-07,-0.276
-1.900E-07,-0.124
-1.800E-07,0.056
-1.700E-07,0.260
-1.600E-07,0.232
-1.500E-07,0.136
-1.400E-07,-0.104
-1.300E-07,-0.164
-1.200E-07,-0.132
-1.100E-07,0.036
-1.000E-07,0.180
-9.000E-08,0.264
-8.000E-08,0.276
-7.000E-08,0.172
-6.000E-08,0.120
-5.000E-08,0.064
-4.000E-08,0.124
-3.000E-08,0.192
-2.000E-08,0.312
-1.000E-08,0.372
0.000E+00,0.404
1.000E-08,0.348
2.000E-08,0.256
3.000E-08,0.176
4.000E-08,0.144
5.000E-08,0.196
6.000E-08,0.260
7.000E-08,0.340
8.000E-08,0.352
9.000E-08,0.332
1.000E-07,0.256
1.100E-07,0.204
1.200E-07,0.168
1.300E-07,0.188
1.400E-07,0.232
1.500E-07,0.288
1.600E-07,0.332
1.700E-07,0.324
1.800E-07,0.284
1.900E-07,0.228
2.000E-07,0.192
2.100E-07,0.184
2.200E-07,0.220
2.300E-07,0.260
2.400E-07,0.280
2.500E-07,0.288
2.600E-07,0.264
2.700E-07,0.216
2.800E-07,0.180
2.900E-07,0.176
3.000E-07,0.192
3.100E-07,0.228
3.200E-07,0.272
3.300E-07,0.292
3.400E-07,0.276
3.500E-07,0.236
3.600E-07,0.192
3.700E-07,0.164
3.800E-07,0.168
3.900E-07,0.200
4.000E-07,0.240
4.100E-07,0.268
4.200E-07,0.268
4.300E-07,0.236
4.400E-07,0.200
4.500E-07,0.176
4.600E-07,0.172
4.700E-07,0.196
4.800E-07,0.228
4.900E-07,0.256
5.000E-07,0.260
5.100E-07,0.244
5.200E-07,0.220
5.300E-07,0.204
5.400E-07,0.192
5.500E-07,0.204
5.600E-07,0.224
5.700E-07,0.240
5.800E-07,0.248
5.900E-07,0.252
6.000E-07,0.232
6.100E-07,0.220
6.200E-07,0.208
6.300E-07,0.212
6.400E-07,0.216
6.500E-07,0.220
6.600E-07,0.224
6.700E-07,0.212
6.800E-07,0.204
6.900E-07,0.188
7.000E-07,0.180
7.100E-07,0.180
7.200E-07,0.200
7.300E-07,0.212
7.400E-07,0.220
7.500E-07,0.224
7.600E-07,0.208
7.700E-07,0.196
7.800E-07,0.188
7.900E-07,0.192
8.000E-07,0.200
8.100E-07,0.224
8.200E-07,0.240
8.300E-07,0.244
8.400E-07,0.232
8.500E-07,0.212
8.600E-07,0.208
8.700E-07,0.212
8.800E-07,0.224
8.900E-07,0.240
9.000E-07,0.252
9.100E-07,0.244
9.200E-07,0.236
9.300E-07,0.220
9.400E-07,0.212
9.500E-07,0.204
9.600E-07,0.220
9.700E-07,0.228
9.800E-07,0.244
9.900E-07,0.244
1.000E-06,0.236
1.010E-06,0.220
1.020E-06,0.204
1.030E-06,0.208
1.040E-06,0.212
1.050E-06,0.220
1.060E-06,0.224
1.070E-06,0.228
1.080E-06,0.220
1.090E-06,0.208
1.100E-06,0.204
1.110E-06,0.196
1.120E-06,0.200
1.130E-06,0.208
1.140E-06,0.216
1.150E-06,0.216
1.160E-06,0.216
1.170E-06,0.208
1.180E-06,0.200
1.190E-06,0.192
1.200E-06,0.196
1.210E-06,0.200
1.220E-06,0.208
1.230E-06,0.212
1.240E-06,0.208
1.250E-06,0.208
1.260E-06,0.196
1.270E-06,0.196
1.280E-06,0.200
1.290E-06,0.200
1.300E-06,0.204
1.310E-06,0.208
1.320E-06,0.208
1.330E-06,0.200
1.340E-06,0.196
1.350E-06,0.196
1.360E-06,0.200
1.370E-06,0.200
1.380E-06,0.208
1.390E-06,0.208
1.400E-06,0.204
1.410E-06,0.204
1.420E-06,0.196
1.430E-06,0.196
1.440E-06,0.196
1.450E-06,0.200
1.460E-06,0.204
1.470E-06,0.208
1.480E-06,0.204
1.490E-06,0.208
1.500E-06,0.196
1.510E-06,0.196
1.520E-06,0.192
1.530E-06,0.200
1.540E-06,0.196
1.550E-06,0.200
1.560E-06,0.192
1.570E-06,0.188
1.580E-06,0.184
1.590E-06,0.184
1.600E-06,0.188
1.610E-06,0.192
1.620E-06,0.188
1.630E-06,0.196
1.640E-06,0.188
1.650E-06,0.184
1.660E-06,0.184
1.670E-06,0.184
1.680E-06,0.188
1.690E-06,0.188
1.700E-06,0.192
1.710E-06,0.196
1.720E-06,0.188
1.730E-06,0.188
1.740E-06,0.192
1.750E-06,0.192
1.760E-06,0.188
1.770E-06,0.188
1.780E-06,0.192
1.790E-06,0.192
1.800E-06,0.188
1.810E-06,0.188
1.820E-06,0.192
1.830E-06,0.188
1.840E-06,0.188
1.850E-06,0.192
1.860E-06,0.184
1.870E-06,0.188
1.880E-06,0.188
1.890E-06,0.188
1.900E-06,0.180
1.910E-06,0.184
1.920E-06,0.176
1.930E-06,0.168
1.940E-06,0.172
1.950E-06,0.172
1.960E-06,0.172
1.970E-06,0.180
1.980E-06,0.180
1.990E-06,0.176
2.000E-06,0.180
2.010E-06,0.176
2.020E-06,0.176
2.030E-06,0.172
2.040E-06,0.176
2.050E-06,0.176
2.060E-06,0.176
2.070E-06,0.180
2.080E-06,0.172
2.090E-06,0.176
2.100E-06,0.172
2.110E-06,0.176
2.120E-06,0.176
2.130E-06,0.172
2.140E-06,0.176
2.150E-06,0.176
2.160E-06,0.172
2.170E-06,0.176
2.180E-06,0.176
2.190E-06,0.172
2.200E-06,0.180
2.210E-06,0.176
2.220E-06,0.176
2.230E-06,0.176
2.240E-06,0.168
2.250E-06,0.172
2.260E-06,0.160
2.270E-06,0.160
2.280E-06,0.168
2.290E-06,0.168
2.300E-06,0.172
2.310E-06,0.172
2.320E-06,0.164
2.330E-06,0.156
2.340E-06,0.156
2.350E-06,0.160
2.360E-06,0.164
2.370E-06,0.172
2.380E-06,0.176
2.390E-06,0.172
2.400E-06,0.156
2.410E-06,0.152
2.420E-06,0.156
2.430E-06,0.156
2.440E-06,0.164
2.450E-06,0.176
2.460E-06,0.168
2.470E-06,0.160
2.480E-06,0.160
2.490E-06,0.160
2.500E-06,0.152
2.510E-06,0.148
2.520E-06,0.156
2.530E-06,0.160
2.540E-06,0.156
2.550E-06,0.152
2.560E-06,0.152
2.570E-06,0.148
2.580E-06,0.148
2.590E-06,0.152
2.600E-06,0.156
2.610E-06,0.160
2.620E-06,0.156
2.630E-06,0.152
2.640E-06,0.156
2.650E-06,0.152
2.660E-06,0.148
2.670E-06,0.140
2.680E-06,0.152
2.690E-06,0.160
2.700E-06,0.156
2.710E-06,0.160
2.720E-06,0.156
2.730E-06,0.152
2.740E-06,0.140
2.750E-06,0.144
2.760E-06,0.148
2.770E-06,0.152
2.780E-06,0.148
2.790E-06,0.140
2.800E-06,0.140
2.810E-06,0.128
2.820E-06,0.132
2.830E-06,0.136
2.840E-06,0.136
2.850E-06,0.144
2.860E-06,0.144
2.870E-06,0.140
2.880E-06,0.144
2.890E-06,0.132
2.900E-06,0.128
2.910E-06,0.128
2.920E-06,0.128
2.930E-06,0.140
2.940E-06,0.140
2.950E-06,0.144
2.960E-06,0.140
2.970E-06,0.136
2.980E-06,0.132
2.990E-06,0.132
3.000E-06,0.128
3.010E-06,0.132
3.020E-06,0.132
3.030E-06,0.136
3.040E-06,0.136
3.050E-06,0.136
3.060E-06,0.136
3.070E-06,0.132
3.080E-06,0.128
3.090E-06,0.124
3.100E-06,0.128
3.110E-06,0.128
3.120E-06,0.132
3.130E-06,0.136
3.140E-06,0.132
3.150E-06,0.128
3.160E-06,0.124
3.170E-06,0.120
3.180E-06,0.124
3.190E-06,0.128
3.200E-06,0.132
3.210E-06,0.132
3.220E-06,0.128
3.230E-06,0.128
3.240E-06,0.124
3.250E-06,0.120
3.260E-06,0.120
3.270E-06,0.128
3.280E-06,0.128
3.290E-06,0.128
3.300E-06,0.128
3.310E-06,0.128
3.320E-06,0.128
3.330E-06,0.124
3.340E-06,0.124
3.350E-06,0.120
3.360E-06,0.124
3.370E-06,0.124
3.380E-06,0.128
3.390E-06,0.128
3.400E-06,0.128
3.410E-06,0.124
3.420E-06,0.124
