mediciones/5-15/7.5/WaveData47180.csv

#timebase=2000000(ps)
,#voltbase=1000000(mv/100)
#size=4000
-8.400E-06,0.120
-8.390E-06,0.080
-8.380E-06,0.080
-8.370E-06,0.080
-8.360E-06,0.080
-8.350E-06,0.080
-8.340E-06,0.000
-8.330E-06,0.040
-8.320E-06,0.000
-8.310E-06,0.000
-8.300E-06,0.000
-8.290E-06,-0.040
-8.280E-06,0.000
-8.270E-06,-0.040
-8.260E-06,-0.040
-8.250E-06,0.000
-8.240E-06,0.000
-8.230E-06,0.000
-8.220E-06,0.000
-8.210E-06,0.000
-8.200E-06,0.000
-8.190E-06,0.000
-8.180E-06,-0.040
-8.170E-06,-0.040
-8.160E-06,0.000
-8.150E-06,0.000
-8.140E-06,0.000
-8.130E-06,0.000
-8.120E-06,0.000
-8.110E-06,0.000
-8.100E-06,0.000
-8.090E-06,0.040
-8.080E-06,0.080
-8.070E-06,0.040
-8.060E-06,0.040
-8.050E-06,0.080
-8.040E-06,0.080
-8.030E-06,0.120
-8.020E-06,0.200
-8.010E-06,0.200
-8.000E-06,0.200
-7.990E-06,0.120
-7.980E-06,0.120
-7.970E-06,0.120
-7.960E-06,0.080
-7.950E-06,0.080
-7.940E-06,0.120
-7.930E-06,0.160
-7.920E-06,0.040
-7.910E-06,0.080
-7.900E-06,0.080
-7.890E-06,0.040
-7.880E-06,0.120
-7.870E-06,0.040
-7.860E-06,0.040
-7.850E-06,0.080
-7.840E-06,0.080
-7.830E-06,0.080
-7.820E-06,0.080
-7.810E-06,0.080
-7.800E-06,0.040
-7.790E-06,0.040
-7.780E-06,0.080
-7.770E-06,0.040
-7.760E-06,0.080
-7.750E-06,0.040
-7.740E-06,0.080
-7.730E-06,0.080
-7.720E-06,0.080
-7.710E-06,0.080
-7.700E-06,0.080
-7.690E-06,0.040
-7.680E-06,0.080
-7.670E-06,0.120
-7.660E-06,0.120
-7.650E-06,0.040
-7.640E-06,0.080
-7.630E-06,0.080
-7.620E-06,0.080
-7.610E-06,0.040
-7.600E-06,0.000
-7.590E-06,0.040
-7.580E-06,0.000
-7.570E-06,0.040
-7.560E-06,0.040
-7.550E-06,0.040
-7.540E-06,0.040
-7.530E-06,0.040
-7.520E-06,0.040
-7.510E-06,0.040
-7.500E-06,0.040
-7.490E-06,0.040
-7.480E-06,0.040
-7.470E-06,0.040
-7.460E-06,0.080
-7.450E-06,0.120
-7.440E-06,0.160
-7.430E-06,0.160
-7.420E-06,0.120
-7.410E-06,0.040
-7.400E-06,0.040
-7.390E-06,0.040
-7.380E-06,0.000
-7.370E-06,0.000
-7.360E-06,0.000
-7.350E-06,-0.040
-7.340E-06,-0.040
-7.330E-06,0.040
-7.320E-06,0.080
-7.310E-06,0.000
-7.300E-06,0.040
-7.290E-06,0.000
-7.280E-06,0.040
-7.270E-06,0.000
-7.260E-06,0.000
-7.250E-06,0.040
-7.240E-06,0.040
-7.230E-06,0.000
-7.220E-06,-0.040
-7.210E-06,-0.080
-7.200E-06,-0.120
-7.190E-06,-0.120
-7.180E-06,-0.120
-7.170E-06,-0.120
-7.160E-06,-0.080
-7.150E-06,-0.080
-7.140E-06,-0.040
-7.130E-06,-0.040
-7.120E-06,-0.040
-7.110E-06,0.000
-7.100E-06,0.000
-7.090E-06,0.080
-7.080E-06,0.080
-7.070E-06,0.040
-7.060E-06,0.120
-7.050E-06,0.200
-7.040E-06,0.160
-7.030E-06,0.120
-7.020E-06,0.160
-7.010E-06,0.160
-7.000E-06,0.200
-6.990E-06,0.160
-6.980E-06,0.200
-6.970E-06,0.200
-6.960E-06,0.160
-6.950E-06,0.200
-6.940E-06,0.200
-6.930E-06,0.240
-6.920E-06,0.200
-6.910E-06,0.240
-6.900E-06,0.200
-6.890E-06,0.200
-6.880E-06,0.160
-6.870E-06,0.160
-6.860E-06,0.120
-6.850E-06,0.040
-6.840E-06,0.040
-6.830E-06,0.040
-6.820E-06,0.000
-6.810E-06,0.000
-6.800E-06,0.000
-6.790E-06,0.000
-6.780E-06,0.000
-6.770E-06,-0.040
-6.760E-06,0.000
-6.750E-06,0.000
-6.740E-06,0.000
-6.730E-06,-0.040
-6.720E-06,-0.040
-6.710E-06,-0.040
-6.700E-06,-0.040
-6.690E-06,-0.040
-6.680E-06,-0.040
-6.670E-06,-0.040
-6.660E-06,-0.040
-6.650E-06,-0.040
-6.640E-06,-0.040
-6.630E-06,0.000
-6.620E-06,-0.040
-6.610E-06,0.000
-6.600E-06,0.040
-6.590E-06,-0.040
-6.580E-06,-0.040
-6.570E-06,0.040
-6.560E-06,0.000
-6.550E-06,0.040
-6.540E-06,0.080
-6.530E-06,0.040
-6.520E-06,0.080
-6.510E-06,0.080
-6.500E-06,0.080
-6.490E-06,0.000
-6.480E-06,0.000
-6.470E-06,0.040
-6.460E-06,0.000
-6.450E-06,0.040
-6.440E-06,0.040
-6.430E-06,0.040
-6.420E-06,0.080
-6.410E-06,0.080
-6.400E-06,0.080
-6.390E-06,0.080
-6.380E-06,0.080
-6.370E-06,0.080
-6.360E-06,0.040
-6.350E-06,0.080
-6.340E-06,0.080
-6.330E-06,0.080
-6.320E-06,0.080
-6.310E-06,0.080
-6.300E-06,0.080
-6.290E-06,0.040
-6.280E-06,0.080
-6.270E-06,0.080
-6.260E-06,0.080
-6.250E-06,0.080
-6.240E-06,0.040
-6.230E-06,0.120
-6.220E-06,0.040
-6.210E-06,0.040
-6.200E-06,0.040
-6.190E-06,0.040
-6.180E-06,0.080
-6.170E-06,0.080
-6.160E-06,0.080
-6.150E-06,0.040
-6.140E-06,0.080
-6.130E-06,0.120
-6.120E-06,0.120
-6.110E-06,0.120
-6.100E-06,0.080
-6.090E-06,0.080
-6.080E-06,0.040
-6.070E-06,0.000
-6.060E-06,0.040
-6.050E-06,0.040
-6.040E-06,0.040
-6.030E-06,0.040
-6.020E-06,0.040
-6.010E-06,-0.040
-6.000E-06,0.000
-5.990E-06,0.000
-5.980E-06,0.000
-5.970E-06,0.000
-5.960E-06,0.040
-5.950E-06,-0.040
-5.940E-06,-0.040
-5.930E-06,0.000
-5.920E-06,0.000
-5.910E-06,0.040
-5.900E-06,0.080
-5.890E-06,0.040
-5.880E-06,0.040
-5.870E-06,0.080
-5.860E-06,0.080
-5.850E-06,0.120
-5.840E-06,0.120
-5.830E-06,0.160
-5.820E-06,0.120
-5.810E-06,0.080
-5.800E-06,0.120
-5.790E-06,0.160
-5.780E-06,0.120
-5.770E-06,0.160
-5.760E-06,0.160
-5.750E-06,0.160
-5.740E-06,0.120
-5.730E-06,0.120
-5.720E-06,0.120
-5.710E-06,0.120
-5.700E-06,0.120
-5.690E-06,0.080
-5.680E-06,0.120
-5.670E-06,0.000
-5.660E-06,0.040
-5.650E-06,0.040
-5.640E-06,0.040
-5.630E-06,0.040
-5.620E-06,0.040
-5.610E-06,0.000
-5.600E-06,0.040
-5.590E-06,-0.040
-5.580E-06,0.040
-5.570E-06,0.040
-5.560E-06,0.000
-5.550E-06,0.040
-5.540E-06,0.000
-5.530E-06,0.000
-5.520E-06,0.040
-5.510E-06,0.000
-5.500E-06,0.040
-5.490E-06,0.040
-5.480E-06,0.080
-5.470E-06,0.080
-5.460E-06,0.120
-5.450E-06,0.040
-5.440E-06,0.080
-5.430E-06,0.040
-5.420E-06,0.080
-5.410E-06,0.120
-5.400E-06,0.040
-5.390E-06,0.080
-5.380E-06,0.080
-5.370E-06,0.040
-5.360E-06,0.080
-5.350E-06,0.080
-5.340E-06,0.080
-5.330E-06,0.040
-5.320E-06,0.080
-5.310E-06,0.080
-5.300E-06,0.120
-5.290E-06,0.160
-5.280E-06,0.160
-5.270E-06,0.080
-5.260E-06,0.000
-5.250E-06,-0.040
-5.240E-06,-0.040
-5.230E-06,-0.040
-5.220E-06,-0.040
-5.210E-06,-0.120
-5.200E-06,-0.160
-5.190E-06,-0.080
-5.180E-06,-0.040
-5.170E-06,-0.080
-5.160E-06,0.000
-5.150E-06,-0.040
-5.140E-06,0.000
-5.130E-06,0.040
-5.120E-06,-0.040
-5.110E-06,-0.040
-5.100E-06,0.080
-5.090E-06,0.120
-5.080E-06,0.080
-5.070E-06,0.120
-5.060E-06,0.200
-5.050E-06,0.120
-5.040E-06,0.160
-5.030E-06,0.160
-5.020E-06,0.200
-5.010E-06,0.160
-5.000E-06,0.240
-4.990E-06,0.240
-4.980E-06,0.240
-4.970E-06,0.240
-4.960E-06,0.160
-4.950E-06,0.160
-4.940E-06,0.160
-4.930E-06,0.120
-4.920E-06,0.120
-4.910E-06,0.120
-4.900E-06,0.080
-4.890E-06,0.120
-4.880E-06,0.080
-4.870E-06,0.040
-4.860E-06,-0.040
-4.850E-06,-0.040
-4.840E-06,0.000
-4.830E-06,-0.040
-4.820E-06,0.000
-4.810E-06,0.000
-4.800E-06,0.000
-4.790E-06,0.000
-4.780E-06,-0.040
-4.770E-06,0.000
-4.760E-06,0.000
-4.750E-06,0.000
-4.740E-06,0.000
-4.730E-06,0.000
-4.720E-06,0.040
-4.710E-06,-0.040
-4.700E-06,-0.040
-4.690E-06,0.000
-4.680E-06,0.000
-4.670E-06,0.040
-4.660E-06,0.000
-4.650E-06,0.000
-4.640E-06,0.040
-4.630E-06,0.080
-4.620E-06,-0.040
-4.610E-06,0.040
-4.600E-06,0.080
-4.590E-06,0.040
-4.580E-06,0.080
-4.570E-06,0.080
-4.560E-06,0.080
-4.550E-06,0.080
-4.540E-06,0.080
-4.530E-06,0.080
-4.520E-06,0.040
-4.510E-06,0.080
-4.500E-06,0.080
-4.490E-06,0.080
-4.480E-06,0.080
-4.470E-06,0.080
-4.460E-06,0.080
-4.450E-06,0.120
-4.440E-06,0.040
-4.430E-06,0.040
-4.420E-06,0.080
-4.410E-06,0.040
-4.400E-06,0.000
-4.390E-06,0.040
-4.380E-06,0.000
-4.370E-06,0.000
-4.360E-06,0.000
-4.350E-06,0.080
-4.340E-06,-0.040
-4.330E-06,0.040
-4.320E-06,0.040
-4.310E-06,0.040
-4.300E-06,0.000
-4.290E-06,0.040
-4.280E-06,0.040
-4.270E-06,0.040
-4.260E-06,0.040
-4.250E-06,0.040
-4.240E-06,0.080
-4.230E-06,0.080
-4.220E-06,0.040
-4.210E-06,0.040
-4.200E-06,0.080
-4.190E-06,0.080
-4.180E-06,0.080
-4.170E-06,0.080
-4.160E-06,0.080
-4.150E-06,0.080
-4.140E-06,0.000
-4.130E-06,-0.040
-4.120E-06,0.000
-4.110E-06,0.080
-4.100E-06,0.080
-4.090E-06,0.080
-4.080E-06,0.000
-4.070E-06,0.040
-4.060E-06,0.000
-4.050E-06,0.000
-4.040E-06,0.000
-4.030E-06,0.000
-4.020E-06,0.040
-4.010E-06,0.000
-4.000E-06,0.040
-3.990E-06,0.000
-3.980E-06,-0.040
-3.970E-06,0.040
-3.960E-06,0.080
-3.950E-06,0.080
-3.940E-06,0.120
-3.930E-06,0.040
-3.920E-06,0.080
-3.910E-06,0.120
-3.900E-06,0.040
-3.890E-06,0.080
-3.880E-06,0.080
-3.870E-06,0.080
-3.860E-06,0.080
-3.850E-06,0.120
-3.840E-06,0.080
-3.830E-06,0.040
-3.820E-06,0.080
-3.810E-06,0.040
-3.800E-06,0.080
-3.790E-06,0.080
-3.780E-06,0.040
-3.770E-06,0.080
-3.760E-06,0.040
-3.750E-06,0.040
-3.740E-06,0.080
-3.730E-06,0.080
-3.720E-06,0.080
-3.710E-06,0.080
-3.700E-06,0.000
-3.690E-06,0.040
-3.680E-06,0.000
-3.670E-06,0.000
-3.660E-06,0.040
-3.650E-06,0.040
-3.640E-06,0.040
-3.630E-06,0.080
-3.620E-06,0.080
-3.610E-06,0.000
-3.600E-06,0.040
-3.590E-06,0.120
-3.580E-06,0.080
-3.570E-06,0.120
-3.560E-06,0.120
-3.550E-06,0.080
-3.540E-06,0.040
-3.530E-06,0.040
-3.520E-06,0.000
-3.510E-06,0.000
-3.500E-06,0.000
-3.490E-06,0.000
-3.480E-06,-0.040
-3.470E-06,-0.040
-3.460E-06,-0.040
-3.450E-06,0.000
-3.440E-06,-0.040
-3.430E-06,0.000
-3.420E-06,0.000
-3.410E-06,0.040
-3.400E-06,0.040
-3.390E-06,0.040
-3.380E-06,0.040
-3.370E-06,0.120
-3.360E-06,0.120
-3.350E-06,0.040
-3.340E-06,0.040
-3.330E-06,0.080
-3.320E-06,0.160
-3.310E-06,0.120
-3.300E-06,0.160
-3.290E-06,0.160
-3.280E-06,0.160
-3.270E-06,0.160
-3.260E-06,0.080
-3.250E-06,0.080
-3.240E-06,0.160
-3.230E-06,0.160
-3.220E-06,0.160
-3.210E-06,0.120
-3.200E-06,0.080
-3.190E-06,0.040
-3.180E-06,0.080
-3.170E-06,0.080
-3.160E-06,0.080
-3.150E-06,0.080
-3.140E-06,0.080
-3.130E-06,0.080
-3.120E-06,0.040
-3.110E-06,0.040
-3.100E-06,0.000
-3.090E-06,0.000
-3.080E-06,-0.040
-3.070E-06,0.040
-3.060E-06,0.000
-3.050E-06,0.000
-3.040E-06,0.000
-3.030E-06,0.040
-3.020E-06,0.040
-3.010E-06,0.080
-3.000E-06,0.040
-2.990E-06,-0.040
-2.980E-06,-0.040
-2.970E-06,0.000
-2.960E-06,-0.040
-2.950E-06,0.000
-2.940E-06,0.000
-2.930E-06,0.040
-2.920E-06,0.040
-2.910E-06,0.080
-2.900E-06,0.040
-2.890E-06,0.080
-2.880E-06,0.080
-2.870E-06,0.040
-2.860E-06,0.040
-2.850E-06,0.040
-2.840E-06,0.040
-2.830E-06,0.080
-2.820E-06,0.000
-2.810E-06,0.080
-2.800E-06,0.040
-2.790E-06,0.080
-2.780E-06,0.080
-2.770E-06,0.120
-2.760E-06,0.040
-2.750E-06,0.080
-2.740E-06,0.080
-2.730E-06,0.080
-2.720E-06,0.160
-2.710E-06,0.240
-2.700E-06,0.160
-2.690E-06,0.240
-2.680E-06,0.040
-2.670E-06,0.040
-2.660E-06,-0.080
-2.650E-06,0.000
-2.640E-06,0.000
-2.630E-06,0.000
-2.620E-06,-0.080
-2.610E-06,-0.080
-2.600E-06,-0.120
-2.590E-06,-0.120
-2.580E-06,-0.080
-2.570E-06,-0.040
-2.560E-06,-0.080
-2.550E-06,0.000
-2.540E-06,0.000
-2.530E-06,0.040
-2.520E-06,0.080
-2.510E-06,0.080
-2.500E-06,0.120
-2.490E-06,0.080
-2.480E-06,0.120
-2.470E-06,0.080
-2.460E-06,0.120
-2.450E-06,0.080
-2.440E-06,0.120
-2.430E-06,0.200
-2.420E-06,0.240
-2.410E-06,0.240
-2.400E-06,0.240
-2.390E-06,0.240
-2.380E-06,0.160
-2.370E-06,0.120
-2.360E-06,0.080
-2.350E-06,0.080
-2.340E-06,0.080
-2.330E-06,0.040
-2.320E-06,0.000
-2.310E-06,-0.080
-2.300E-06,-0.160
-2.290E-06,-0.120
-2.280E-06,-0.160
-2.270E-06,-0.120
-2.260E-06,-0.120
-2.250E-06,-0.120
-2.240E-06,-0.080
-2.230E-06,-0.040
-2.220E-06,-0.040
-2.210E-06,0.000
-2.200E-06,-0.040
-2.190E-06,0.000
-2.180E-06,-0.040
-2.170E-06,0.000
-2.160E-06,0.000
-2.150E-06,0.080
-2.140E-06,0.120
-2.130E-06,0.080
-2.120E-06,0.080
-2.110E-06,0.120
-2.100E-06,0.120
-2.090E-06,0.160
-2.080E-06,0.200
-2.070E-06,0.120
-2.060E-06,0.120
-2.050E-06,0.160
-2.040E-06,0.120
-2.030E-06,0.160
-2.020E-06,0.200
-2.010E-06,0.240
-2.000E-06,0.280
-1.990E-06,0.200
-1.980E-06,0.200
-1.970E-06,0.000
-1.960E-06,0.000
-1.950E-06,-0.040
-1.940E-06,-0.120
-1.930E-06,-0.040
-1.920E-06,-0.080
-1.910E-06,-0.200
-1.900E-06,-0.240
-1.890E-06,-0.240
-1.880E-06,-0.240
-1.870E-06,-0.280
-1.860E-06,-0.280
-1.850E-06,-0.360
-1.840E-06,-0.360
-1.830E-06,-0.360
-1.820E-06,-0.360
-1.810E-06,-0.320
-1.800E-06,-0.320
-1.790E-06,-0.320
-1.780E-06,-0.320
-1.770E-06,-0.320
-1.760E-06,-0.320
-1.750E-06,-0.320
-1.740E-06,-0.360
-1.730E-06,-0.400
-1.720E-06,-0.320
-1.710E-06,-0.360
-1.700E-06,-0.360
-1.690E-06,-0.320
-1.680E-06,-0.320
-1.670E-06,-0.320
-1.660E-06,-0.320
-1.650E-06,-0.320
-1.640E-06,-0.280
-1.630E-06,-0.240
-1.620E-06,-0.120
-1.610E-06,-0.080
-1.600E-06,-0.080
-1.590E-06,-0.120
-1.580E-06,-0.160
-1.570E-06,-0.200
-1.560E-06,-0.160
-1.550E-06,-0.240
-1.540E-06,-0.280
-1.530E-06,-0.320
-1.520E-06,-0.360
-1.510E-06,-0.400
-1.500E-06,-0.480
-1.490E-06,-0.480
-1.480E-06,-0.400
-1.470E-06,-0.400
-1.460E-06,-0.400
-1.450E-06,-0.440
-1.440E-06,-0.400
-1.430E-06,-0.400
-1.420E-06,-0.400
-1.410E-06,-0.400
-1.400E-06,-0.320
-1.390E-06,-0.360
-1.380E-06,-0.320
-1.370E-06,-0.320
-1.360E-06,-0.320
-1.350E-06,-0.360
-1.340E-06,-0.400
-1.330E-06,-0.360
-1.320E-06,-0.400
-1.310E-06,-0.440
-1.300E-06,-0.440
-1.290E-06,-0.480
-1.280E-06,-0.440
-1.270E-06,-0.480
-1.260E-06,-0.520
-1.250E-06,-0.560
-1.240E-06,-0.640
-1.230E-06,-0.680
-1.220E-06,-0.720
-1.210E-06,-0.760
-1.200E-06,-0.760
-1.190E-06,-0.760
-1.180E-06,-0.720
-1.170E-06,-0.720
-1.160E-06,-0.840
-1.150E-06,-0.840
-1.140E-06,-0.880
-1.130E-06,-0.880
-1.120E-06,-0.960
-1.110E-06,-0.920
-1.100E-06,-0.960
-1.090E-06,-1.040
-1.080E-06,-1.120
-1.070E-06,-1.160
-1.060E-06,-1.160
-1.050E-06,-1.160
-1.040E-06,-1.080
-1.030E-06,-1.080
-1.020E-06,-1.080
-1.010E-06,-1.040
-1.000E-06,-1.080
-9.900E-07,-1.000
-9.800E-07,-1.000
-9.700E-07,-1.040
-9.600E-07,-0.960
-9.500E-07,-0.880
-9.400E-07,-0.920
-9.300E-07,-0.840
-9.200E-07,-0.840
-9.100E-07,-0.800
-9.000E-07,-0.760
-8.900E-07,-0.760
-8.800E-07,-0.720
-8.700E-07,-0.680
-8.600E-07,-0.680
-8.500E-07,-0.680
-8.400E-07,-0.640
-8.300E-07,-0.640
-8.200E-07,-0.640
-8.100E-07,-0.640
-8.000E-07,-0.600
-7.900E-07,-0.600
-7.800E-07,-0.600
-7.700E-07,-0.640
-7.600E-07,-0.640
-7.500E-07,-0.640
-7.400E-07,-0.680
-7.300E-07,-0.640
-7.200E-07,-0.600
-7.100E-07,-0.560
-7.000E-07,-0.520
-6.900E-07,-0.560
-6.800E-07,-0.600
-6.700E-07,-0.600
-6.600E-07,-0.480
-6.500E-07,-0.600
-6.400E-07,-0.400
-6.300E-07,-0.520
-6.200E-07,-0.440
-6.100E-07,-0.480
-6.000E-07,-0.480
-5.900E-07,-0.440
-5.800E-07,-0.480
-5.700E-07,-0.520
-5.600E-07,-0.480
-5.500E-07,-0.520
-5.400E-07,-0.560
-5.300E-07,-0.640
-5.200E-07,-0.600
-5.100E-07,-0.680
-5.000E-07,-0.760
-4.900E-07,-0.800
-4.800E-07,-0.920
-4.700E-07,-1.000
-4.600E-07,-1.000
-4.500E-07,-1.040
-4.400E-07,-1.040
-4.300E-07,-0.960
-4.200E-07,-1.120
-4.100E-07,-1.080
-4.000E-07,-1.080
-3.900E-07,-1.120
-3.800E-07,-1.080
-3.700E-07,-1.120
-3.600E-07,-1.080
-3.500E-07,-1.000
-3.400E-07,-0.920
-3.300E-07,-0.880
-3.200E-07,-0.800
-3.100E-07,-0.760
-3.000E-07,-0.720
-2.900E-07,-0.720
-2.800E-07,-0.720
-2.700E-07,-0.760
-2.600E-07,-0.880
-2.500E-07,-0.720
-2.400E-07,-0.840
-2.300E-07,-0.800
-2.200E-07,-0.880
-2.100E-07,-0.960
-2.000E-07,-1.040
-1.900E-07,-1.040
-1.800E-07,-1.200
-1.700E-07,-1.280
-1.600E-07,-1.320
-1.500E-07,-1.360
-1.400E-07,-1.440
-1.300E-07,-1.480
-1.200E-07,-1.600
-1.100E-07,-1.720
-1.000E-07,-1.680
-9.000E-08,-1.720
-8.000E-08,-1.760
-7.000E-08,-1.720
-6.000E-08,-1.760
-5.000E-08,-1.600
-4.000E-08,-1.360
-3.000E-08,-1.320
-2.000E-08,-1.200
-1.000E-08,-1.360
0.000E+00,-1.600
1.000E-08,-1.720
2.000E-08,-1.800
3.000E-08,-1.560
4.000E-08,-1.440
5.000E-08,-1.320
6.000E-08,-1.320
7.000E-08,-1.320
8.000E-08,-1.440
9.000E-08,-1.440
1.000E-07,-1.440
1.100E-07,-1.520
1.200E-07,-1.440
1.300E-07,-1.360
1.400E-07,-1.160
1.500E-07,-1.000
1.600E-07,-1.080
1.700E-07,-0.800
1.800E-07,-0.880
1.900E-07,-0.840
2.000E-07,-0.960
2.100E-07,-1.080
2.200E-07,-0.960
2.300E-07,-1.000
2.400E-07,-0.800
2.500E-07,-1.000
2.600E-07,-0.240
2.700E-07,-0.360
2.800E-07,-0.120
2.900E-07,-0.200
3.000E-07,-0.680
3.100E-07,-1.160
3.200E-07,-1.440
3.300E-07,-1.720
3.400E-07,-1.280
3.500E-07,-1.040
3.600E-07,-1.160
3.700E-07,-1.040
3.800E-07,-1.320
3.900E-07,-1.440
4.000E-07,-1.320
4.100E-07,-1.480
4.200E-07,-1.520
4.300E-07,-1.480
4.400E-07,-1.400
4.500E-07,-1.360
4.600E-07,-1.320
4.700E-07,-0.920
4.800E-07,-0.720
4.900E-07,-0.240
5.000E-07,0.000
5.100E-07,0.160
5.200E-07,0.320
5.300E-07,0.400
5.400E-07,0.360
5.500E-07,0.360
5.600E-07,0.160
5.700E-07,0.120
5.800E-07,0.000
5.900E-07,-0.120
6.000E-07,-0.200
6.100E-07,-0.320
6.200E-07,-0.440
6.300E-07,-0.440
6.400E-07,-0.360
6.500E-07,-0.360
6.600E-07,-0.280
6.700E-07,-0.280
6.800E-07,-0.240
6.900E-07,-0.200
7.000E-07,-0.120
7.100E-07,-0.200
7.200E-07,-0.160
7.300E-07,-0.200
7.400E-07,-0.080
7.500E-07,-0.160
7.600E-07,-0.120
7.700E-07,-0.200
7.800E-07,-0.200
7.900E-07,-0.160
8.000E-07,-0.160
8.100E-07,-0.160
8.200E-07,-0.120
8.300E-07,-0.040
8.400E-07,0.000
8.500E-07,0.120
8.600E-07,0.160
8.700E-07,0.160
8.800E-07,0.160
8.900E-07,0.160
9.000E-07,0.040
9.100E-07,0.000
9.200E-07,0.000
9.300E-07,0.000
9.400E-07,-0.040
9.500E-07,-0.120
9.600E-07,-0.160
9.700E-07,-0.160
9.800E-07,-0.080
9.900E-07,0.000
1.000E-06,0.000
1.010E-06,0.040
1.020E-06,0.080
1.030E-06,0.080
1.040E-06,0.120
1.050E-06,0.160
1.060E-06,0.160
1.070E-06,0.280
1.080E-06,0.280
1.090E-06,0.320
1.100E-06,0.360
1.110E-06,0.280
1.120E-06,0.240
1.130E-06,0.200
1.140E-06,0.120
1.150E-06,0.040
1.160E-06,0.040
1.170E-06,-0.040
1.180E-06,0.000
1.190E-06,-0.080
1.200E-06,-0.040
1.210E-06,-0.120
1.220E-06,-0.160
1.230E-06,-0.160
1.240E-06,-0.200
1.250E-06,-0.120
1.260E-06,-0.080
1.270E-06,-0.120
1.280E-06,0.000
1.290E-06,-0.080
1.300E-06,0.000
1.310E-06,-0.120
1.320E-06,-0.040
1.330E-06,-0.160
1.340E-06,-0.200
1.350E-06,-0.120
1.360E-06,-0.200
1.370E-06,-0.240
1.380E-06,-0.200
1.390E-06,-0.240
1.400E-06,-0.280
1.410E-06,-0.320
1.420E-06,-0.320
1.430E-06,-0.480
1.440E-06,-0.160
1.450E-06,0.480
1.460E-06,0.720
1.470E-06,1.240
1.480E-06,0.960
1.490E-06,0.520
1.500E-06,0.000
1.510E-06,-0.280
1.520E-06,-0.440
1.530E-06,-0.320
1.540E-06,-0.640
1.550E-06,-1.120
1.560E-06,-1.480
1.570E-06,-1.680
1.580E-06,-1.440
1.590E-06,-1.320
1.600E-06,-1.280
1.610E-06,-1.160
1.620E-06,-1.120
1.630E-06,-0.360
1.640E-06,0.120
1.650E-06,0.920
1.660E-06,0.840
1.670E-06,1.000
1.680E-06,0.600
1.690E-06,0.560
1.700E-06,0.160
1.710E-06,0.320
1.720E-06,0.120
1.730E-06,0.080
1.740E-06,-0.080
1.750E-06,-0.200
1.760E-06,-0.360
1.770E-06,-0.360
1.780E-06,-0.320
1.790E-06,-0.400
1.800E-06,-0.400
1.810E-06,-0.320
1.820E-06,-0.280
1.830E-06,-0.120
1.840E-06,-0.120
1.850E-06,-0.120
1.860E-06,-0.240
1.870E-06,-0.120
1.880E-06,-0.400
1.890E-06,-0.440
1.900E-06,-0.600
1.910E-06,-0.640
1.920E-06,-0.600
1.930E-06,-0.480
1.940E-06,-0.360
1.950E-06,-0.240
1.960E-06,-0.200
1.970E-06,-0.120
1.980E-06,0.040
1.990E-06,0.200
2.000E-06,0.360
2.010E-06,0.560
2.020E-06,0.760
2.030E-06,0.840
2.040E-06,0.840
2.050E-06,0.680
2.060E-06,0.560
2.070E-06,0.360
2.080E-06,0.040
2.090E-06,-0.080
2.100E-06,-0.360
2.110E-06,-0.440
2.120E-06,-0.600
2.130E-06,-0.600
2.140E-06,-0.680
2.150E-06,-0.600
2.160E-06,-0.640
2.170E-06,-0.520
2.180E-06,-0.480
2.190E-06,-0.440
2.200E-06,-0.400
2.210E-06,-0.320
2.220E-06,-0.240
2.230E-06,-0.240
2.240E-06,-0.160
2.250E-06,-0.120
2.260E-06,-0.200
2.270E-06,-0.160
2.280E-06,-0.240
2.290E-06,-0.240
2.300E-06,-0.240
2.310E-06,-0.240
2.320E-06,-0.280
2.330E-06,-0.240
2.340E-06,-0.280
2.350E-06,-0.320
2.360E-06,-0.360
2.370E-06,-0.320
2.380E-06,-0.400
2.390E-06,-0.520
2.400E-06,-0.520
2.410E-06,-0.600
2.420E-06,-0.720
2.430E-06,-0.840
2.440E-06,-0.880
2.450E-06,-0.960
2.460E-06,-1.000
2.470E-06,-0.960
2.480E-06,-1.000
2.490E-06,-1.120
2.500E-06,-1.200
2.510E-06,-1.360
2.520E-06,-1.640
2.530E-06,-1.800
2.540E-06,-2.120
2.550E-06,-2.360
2.560E-06,-2.600
2.570E-06,-2.760
2.580E-06,-2.800
2.590E-06,-2.920
2.600E-06,-2.960
2.610E-06,-3.000
2.620E-06,-3.000
2.630E-06,-2.920
2.640E-06,-2.800
2.650E-06,-2.760
2.660E-06,-2.640
2.670E-06,-2.600
2.680E-06,-2.520
2.690E-06,-2.440
2.700E-06,-2.280
2.710E-06,-2.240
2.720E-06,-2.040
2.730E-06,-1.960
2.740E-06,-1.880
2.750E-06,-2.040
2.760E-06,-1.840
2.770E-06,-1.920
2.780E-06,-1.840
2.790E-06,-2.000
2.800E-06,-1.960
2.810E-06,-1.920
2.820E-06,-1.840
2.830E-06,-1.760
2.840E-06,-1.640
2.850E-06,-1.640
2.860E-06,-1.520
2.870E-06,-1.520
2.880E-06,-0.960
2.890E-06,-0.440
2.900E-06,0.360
2.910E-06,0.680
2.920E-06,0.800
2.930E-06,0.040
2.940E-06,-0.680
2.950E-06,-1.600
2.960E-06,-1.840
2.970E-06,-1.880
2.980E-06,-2.120
2.990E-06,-2.360
3.000E-06,-2.880
3.010E-06,-3.080
3.020E-06,-3.120
3.030E-06,-2.760
3.040E-06,-2.200
3.050E-06,-1.680
3.060E-06,-1.000
3.070E-06,-0.560
3.080E-06,-0.120
3.090E-06,-0.040
3.100E-06,-0.120
3.110E-06,-0.360
3.120E-06,-0.600
3.130E-06,-0.640
3.140E-06,-0.800
3.150E-06,-0.760
3.160E-06,-0.840
3.170E-06,-0.800
3.180E-06,-0.800
3.190E-06,-0.680
