mediciones/5-15/7.5/WaveData47155.csv

#timebase=2000000(ps)
,#voltbase=100000(mv/100)
#size=4000
-8.400E-06,0.032
-8.390E-06,0.040
-8.380E-06,0.012
-8.370E-06,-0.016
-8.360E-06,-0.024
-8.350E-06,-0.008
-8.340E-06,0.004
-8.330E-06,0.016
-8.320E-06,0.028
-8.310E-06,0.020
-8.300E-06,0.004
-8.290E-06,-0.008
-8.280E-06,0.000
-8.270E-06,-0.004
-8.260E-06,0.008
-8.250E-06,0.000
-8.240E-06,-0.004
-8.230E-06,0.012
-8.220E-06,-0.036
-8.210E-06,-0.036
-8.200E-06,0.000
-8.190E-06,0.028
-8.180E-06,0.024
-8.170E-06,0.048
-8.160E-06,0.004
-8.150E-06,-0.028
-8.140E-06,-0.020
-8.130E-06,-0.012
-8.120E-06,0.024
-8.110E-06,0.040
-8.100E-06,0.032
-8.090E-06,-0.008
-8.080E-06,-0.036
-8.070E-06,-0.028
-8.060E-06,0.012
-8.050E-06,0.028
-8.040E-06,0.024
-8.030E-06,-0.008
-8.020E-06,0.008
-8.010E-06,0.012
-8.000E-06,-0.024
-7.990E-06,-0.004
-7.980E-06,0.024
-7.970E-06,-0.004
-7.960E-06,-0.008
-7.950E-06,0.016
-7.940E-06,-0.008
-7.930E-06,0.008
-7.920E-06,0.028
-7.910E-06,0.008
-7.900E-06,-0.004
-7.890E-06,-0.012
-7.880E-06,0.000
-7.870E-06,0.000
-7.860E-06,0.020
-7.850E-06,0.020
-7.840E-06,0.012
-7.830E-06,0.004
-7.820E-06,-0.012
-7.810E-06,0.000
-7.800E-06,0.000
-7.790E-06,0.008
-7.780E-06,0.024
-7.770E-06,0.008
-7.760E-06,0.004
-7.750E-06,-0.004
-7.740E-06,-0.008
-7.730E-06,-0.012
-7.720E-06,0.000
-7.710E-06,0.012
-7.700E-06,0.012
-7.690E-06,0.012
-7.680E-06,0.012
-7.670E-06,0.004
-7.660E-06,-0.004
-7.650E-06,0.000
-7.640E-06,0.000
-7.630E-06,-0.004
-7.620E-06,-0.008
-7.610E-06,0.008
-7.600E-06,0.004
-7.590E-06,0.028
-7.580E-06,0.016
-7.570E-06,-0.020
-7.560E-06,-0.032
-7.550E-06,-0.016
-7.540E-06,-0.008
-7.530E-06,0.000
-7.520E-06,0.028
-7.510E-06,0.032
-7.500E-06,0.012
-7.490E-06,0.000
-7.480E-06,-0.020
-7.470E-06,-0.020
-7.460E-06,-0.004
-7.450E-06,0.008
-7.440E-06,0.020
-7.430E-06,0.024
-7.420E-06,0.016
-7.410E-06,0.004
-7.400E-06,-0.008
-7.390E-06,-0.008
-7.380E-06,-0.008
-7.370E-06,0.004
-7.360E-06,0.012
-7.350E-06,0.016
-7.340E-06,0.008
-7.330E-06,0.012
-7.320E-06,-0.008
-7.310E-06,-0.004
-7.300E-06,-0.008
-7.290E-06,0.008
-7.280E-06,0.000
-7.270E-06,0.008
-7.260E-06,0.004
-7.250E-06,0.012
-7.240E-06,0.016
-7.230E-06,0.016
-7.220E-06,0.020
-7.210E-06,0.020
-7.200E-06,0.008
-7.190E-06,-0.020
-7.180E-06,-0.012
-7.170E-06,-0.028
-7.160E-06,-0.020
-7.150E-06,0.004
-7.140E-06,0.024
-7.130E-06,0.028
-7.120E-06,0.028
-7.110E-06,0.040
-7.100E-06,0.004
-7.090E-06,-0.004
-7.080E-06,-0.004
-7.070E-06,0.032
-7.060E-06,0.028
-7.050E-06,0.016
-7.040E-06,-0.020
-7.030E-06,-0.020
-7.020E-06,-0.016
-7.010E-06,-0.040
-7.000E-06,-0.032
-6.990E-06,-0.028
-6.980E-06,0.024
-6.970E-06,0.040
-6.960E-06,0.072
-6.950E-06,0.036
-6.940E-06,-0.020
-6.930E-06,-0.052
-6.920E-06,-0.036
-6.910E-06,-0.004
-6.900E-06,0.036
-6.890E-06,0.056
-6.880E-06,0.036
-6.870E-06,0.012
-6.860E-06,-0.024
-6.850E-06,-0.040
-6.840E-06,-0.036
-6.830E-06,0.012
-6.820E-06,0.028
-6.810E-06,0.032
-6.800E-06,0.024
-6.790E-06,0.012
-6.780E-06,-0.008
-6.770E-06,-0.012
-6.760E-06,0.000
-6.750E-06,0.000
-6.740E-06,0.012
-6.730E-06,0.016
-6.720E-06,0.028
-6.710E-06,0.020
-6.700E-06,0.012
-6.690E-06,-0.004
-6.680E-06,-0.008
-6.670E-06,-0.024
-6.660E-06,-0.016
-6.650E-06,0.004
-6.640E-06,0.024
-6.630E-06,0.012
-6.620E-06,0.004
-6.610E-06,0.000
-6.600E-06,-0.004
-6.590E-06,0.012
-6.580E-06,0.008
-6.570E-06,0.012
-6.560E-06,0.004
-6.550E-06,0.004
-6.540E-06,0.024
-6.530E-06,0.028
-6.520E-06,0.000
-6.510E-06,-0.036
-6.500E-06,-0.044
-6.490E-06,-0.028
-6.480E-06,-0.004
-6.470E-06,0.028
-6.460E-06,0.044
-6.450E-06,0.028
-6.440E-06,0.000
-6.430E-06,-0.040
-6.420E-06,-0.052
-6.410E-06,-0.020
-6.400E-06,0.024
-6.390E-06,0.048
-6.380E-06,0.044
-6.370E-06,0.012
-6.360E-06,-0.020
-6.350E-06,-0.040
-6.340E-06,-0.048
-6.330E-06,-0.004
-6.320E-06,0.048
-6.310E-06,0.060
-6.300E-06,0.024
-6.290E-06,0.008
-6.280E-06,-0.024
-6.270E-06,-0.044
-6.260E-06,-0.036
-6.250E-06,-0.004
-6.240E-06,0.016
-6.230E-06,0.044
-6.220E-06,0.036
-6.210E-06,0.012
-6.200E-06,-0.008
-6.190E-06,-0.020
-6.180E-06,-0.008
-6.170E-06,-0.004
-6.160E-06,0.016
-6.150E-06,0.012
-6.140E-06,0.012
-6.130E-06,0.004
-6.120E-06,0.012
-6.110E-06,0.004
-6.100E-06,-0.008
-6.090E-06,-0.004
-6.080E-06,0.000
-6.070E-06,0.000
-6.060E-06,-0.016
-6.050E-06,-0.008
-6.040E-06,0.008
-6.030E-06,0.016
-6.020E-06,0.020
-6.010E-06,0.020
-6.000E-06,0.024
-5.990E-06,0.008
-5.980E-06,-0.012
-5.970E-06,-0.024
-5.960E-06,0.004
-5.950E-06,0.032
-5.940E-06,0.052
-5.930E-06,0.040
-5.920E-06,0.020
-5.910E-06,-0.004
-5.900E-06,-0.012
-5.890E-06,-0.004
-5.880E-06,0.000
-5.870E-06,0.000
-5.860E-06,0.000
-5.850E-06,-0.040
-5.840E-06,-0.044
-5.830E-06,-0.024
-5.820E-06,0.024
-5.810E-06,0.056
-5.800E-06,0.064
-5.790E-06,0.024
-5.780E-06,-0.024
-5.770E-06,-0.056
-5.760E-06,-0.044
-5.750E-06,-0.004
-5.740E-06,0.032
-5.730E-06,0.056
-5.720E-06,0.032
-5.710E-06,0.028
-5.700E-06,-0.004
-5.690E-06,-0.048
-5.680E-06,-0.036
-5.670E-06,0.004
-5.660E-06,0.012
-5.650E-06,0.016
-5.640E-06,0.040
-5.630E-06,0.024
-5.620E-06,0.000
-5.610E-06,-0.024
-5.600E-06,-0.004
-5.590E-06,-0.024
-5.580E-06,-0.016
-5.570E-06,0.016
-5.560E-06,0.032
-5.550E-06,0.036
-5.540E-06,0.012
-5.530E-06,-0.004
-5.520E-06,-0.028
-5.510E-06,-0.020
-5.500E-06,-0.016
-5.490E-06,0.004
-5.480E-06,0.020
-5.470E-06,0.036
-5.460E-06,0.024
-5.450E-06,0.008
-5.440E-06,-0.008
-5.430E-06,-0.004
-5.420E-06,-0.008
-5.410E-06,-0.012
-5.400E-06,0.004
-5.390E-06,0.008
-5.380E-06,0.020
-5.370E-06,-0.008
-5.360E-06,-0.024
-5.350E-06,-0.028
-5.340E-06,0.000
-5.330E-06,0.044
-5.320E-06,0.056
-5.310E-06,0.028
-5.300E-06,-0.020
-5.290E-06,-0.044
-5.280E-06,-0.032
-5.270E-06,-0.004
-5.260E-06,0.024
-5.250E-06,0.060
-5.240E-06,0.056
-5.230E-06,0.028
-5.220E-06,0.000
-5.210E-06,-0.016
-5.200E-06,-0.032
-5.190E-06,-0.020
-5.180E-06,0.012
-5.170E-06,0.048
-5.160E-06,0.056
-5.150E-06,0.024
-5.140E-06,-0.020
-5.130E-06,-0.052
-5.120E-06,-0.048
-5.110E-06,-0.028
-5.100E-06,0.012
-5.090E-06,0.040
-5.080E-06,0.036
-5.070E-06,0.020
-5.060E-06,0.000
-5.050E-06,-0.024
-5.040E-06,-0.032
-5.030E-06,-0.012
-5.020E-06,0.000
-5.010E-06,0.020
-5.000E-06,0.028
-4.990E-06,0.028
-4.980E-06,0.024
-4.970E-06,0.004
-4.960E-06,-0.016
-4.950E-06,-0.024
-4.940E-06,-0.012
-4.930E-06,0.000
-4.920E-06,0.016
-4.910E-06,0.024
-4.900E-06,0.012
-4.890E-06,-0.008
-4.880E-06,-0.024
-4.870E-06,-0.008
-4.860E-06,-0.004
-4.850E-06,0.012
-4.840E-06,0.020
-4.830E-06,0.024
-4.820E-06,0.012
-4.810E-06,0.004
-4.800E-06,0.000
-4.790E-06,-0.004
-4.780E-06,0.000
-4.770E-06,0.008
-4.760E-06,0.020
-4.750E-06,0.024
-4.740E-06,0.016
-4.730E-06,0.024
-4.720E-06,0.024
-4.710E-06,0.020
-4.700E-06,0.036
-4.690E-06,0.044
-4.680E-06,0.032
-4.670E-06,-0.104
-4.660E-06,-0.116
-4.650E-06,-0.076
-4.640E-06,-0.028
-4.630E-06,0.028
-4.620E-06,0.104
-4.610E-06,0.132
-4.600E-06,0.036
-4.590E-06,-0.028
-4.580E-06,-0.108
-4.570E-06,-0.124
-4.560E-06,-0.044
-4.550E-06,0.060
-4.540E-06,0.112
-4.530E-06,0.096
-4.520E-06,0.028
-4.510E-06,-0.056
-4.500E-06,-0.084
-4.490E-06,-0.072
-4.480E-06,-0.008
-4.470E-06,0.028
-4.460E-06,0.072
-4.450E-06,0.056
-4.440E-06,0.028
-4.430E-06,-0.008
-4.420E-06,-0.044
-4.410E-06,-0.044
-4.400E-06,-0.020
-4.390E-06,0.008
-4.380E-06,0.040
-4.370E-06,0.044
-4.360E-06,0.028
-4.350E-06,0.004
-4.340E-06,-0.024
-4.330E-06,-0.028
-4.320E-06,-0.024
-4.310E-06,-0.004
-4.300E-06,0.024
-4.290E-06,0.036
-4.280E-06,0.024
-4.270E-06,0.004
-4.260E-06,-0.012
-4.250E-06,-0.024
-4.240E-06,-0.012
-4.230E-06,0.004
-4.220E-06,0.016
-4.210E-06,0.024
-4.200E-06,0.016
-4.190E-06,0.004
-4.180E-06,-0.008
-4.170E-06,-0.020
-4.160E-06,-0.016
-4.150E-06,-0.004
-4.140E-06,0.012
-4.130E-06,0.024
-4.120E-06,0.020
-4.110E-06,0.008
-4.100E-06,-0.008
-4.090E-06,-0.020
-4.080E-06,-0.008
-4.070E-06,0.004
-4.060E-06,0.020
-4.050E-06,0.028
-4.040E-06,0.028
-4.030E-06,0.008
-4.020E-06,-0.008
-4.010E-06,-0.012
-4.000E-06,-0.008
-3.990E-06,0.000
-3.980E-06,0.008
-3.970E-06,0.008
-3.960E-06,0.012
-3.950E-06,0.012
-3.940E-06,0.000
-3.930E-06,-0.004
-3.920E-06,-0.008
-3.910E-06,0.000
-3.900E-06,0.004
-3.890E-06,0.008
-3.880E-06,0.012
-3.870E-06,0.004
-3.860E-06,-0.004
-3.850E-06,-0.012
-3.840E-06,-0.008
-3.830E-06,0.000
-3.820E-06,0.008
-3.810E-06,0.020
-3.800E-06,0.020
-3.790E-06,0.012
-3.780E-06,0.000
-3.770E-06,-0.004
-3.760E-06,-0.008
-3.750E-06,0.004
-3.740E-06,0.004
-3.730E-06,0.012
-3.720E-06,0.020
-3.710E-06,0.016
-3.700E-06,-0.004
-3.690E-06,-0.004
-3.680E-06,-0.004
-3.670E-06,0.004
-3.660E-06,0.012
-3.650E-06,0.024
-3.640E-06,0.012
-3.630E-06,0.004
-3.620E-06,0.000
-3.610E-06,-0.004
-3.600E-06,0.000
-3.590E-06,0.012
-3.580E-06,0.008
-3.570E-06,0.012
-3.560E-06,0.012
-3.550E-06,0.004
-3.540E-06,0.004
-3.530E-06,0.004
-3.520E-06,0.008
-3.510E-06,0.008
-3.500E-06,0.004
-3.490E-06,-0.004
-3.480E-06,-0.004
-3.470E-06,0.000
-3.460E-06,0.004
-3.450E-06,0.008
-3.440E-06,0.008
-3.430E-06,0.016
-3.420E-06,0.016
-3.410E-06,0.004
-3.400E-06,0.004
-3.390E-06,-0.004
-3.380E-06,0.008
-3.370E-06,0.016
-3.360E-06,0.024
-3.350E-06,0.024
-3.340E-06,0.024
-3.330E-06,0.016
-3.320E-06,0.012
-3.310E-06,0.004
-3.300E-06,0.012
-3.290E-06,0.016
-3.280E-06,0.024
-3.270E-06,0.032
-3.260E-06,0.040
-3.250E-06,0.040
-3.240E-06,0.032
-3.230E-06,0.032
-3.220E-06,0.024
-3.210E-06,0.008
-3.200E-06,-0.008
-3.190E-06,-0.024
-3.180E-06,-0.024
-3.170E-06,-0.008
-3.160E-06,0.012
-3.150E-06,0.056
-3.140E-06,0.028
-3.130E-06,-0.084
-3.120E-06,-0.148
-3.110E-06,-0.164
-3.100E-06,-0.072
-3.090E-06,0.024
-3.080E-06,0.160
-3.070E-06,0.140
-3.060E-06,0.016
-3.050E-06,-0.084
-3.040E-06,-0.128
-3.030E-06,-0.084
-3.020E-06,0.000
-3.010E-06,0.076
-3.000E-06,0.080
-2.990E-06,0.060
-2.980E-06,-0.004
-2.970E-06,-0.036
-2.960E-06,-0.056
-2.950E-06,-0.036
-2.940E-06,-0.004
-2.930E-06,0.028
-2.920E-06,0.044
-2.910E-06,0.036
-2.900E-06,0.024
-2.890E-06,0.000
-2.880E-06,-0.012
-2.870E-06,-0.028
-2.860E-06,-0.012
-2.850E-06,-0.008
-2.840E-06,0.024
-2.830E-06,0.028
-2.820E-06,0.020
-2.810E-06,0.008
-2.800E-06,-0.008
-2.790E-06,-0.016
-2.780E-06,-0.020
-2.770E-06,0.000
-2.760E-06,0.008
-2.750E-06,0.020
-2.740E-06,0.016
-2.730E-06,0.012
-2.720E-06,0.012
-2.710E-06,0.008
-2.700E-06,0.008
-2.690E-06,0.004
-2.680E-06,0.012
-2.670E-06,0.012
-2.660E-06,0.012
-2.650E-06,0.012
-2.640E-06,0.000
-2.630E-06,0.004
-2.620E-06,0.012
-2.610E-06,0.024
-2.600E-06,0.044
-2.590E-06,0.032
-2.580E-06,0.016
-2.570E-06,-0.020
-2.560E-06,-0.028
-2.550E-06,-0.004
-2.540E-06,0.024
-2.530E-06,0.080
-2.520E-06,0.100
-2.510E-06,0.108
-2.500E-06,0.068
-2.490E-06,0.012
-2.480E-06,-0.088
-2.470E-06,-0.156
-2.460E-06,-0.164
-2.450E-06,-0.052
-2.440E-06,0.044
-2.430E-06,0.120
-2.420E-06,0.108
-2.410E-06,0.024
-2.400E-06,-0.076
-2.390E-06,-0.140
-2.380E-06,-0.112
-2.370E-06,-0.028
-2.360E-06,0.064
-2.350E-06,0.104
-2.340E-06,0.092
-2.330E-06,0.024
-2.320E-06,-0.044
-2.310E-06,-0.088
-2.300E-06,-0.076
-2.290E-06,-0.040
-2.280E-06,0.020
-2.270E-06,0.064
-2.260E-06,0.068
-2.250E-06,0.044
-2.240E-06,-0.004
-2.230E-06,-0.044
-2.220E-06,-0.060
-2.210E-06,-0.036
-2.200E-06,0.000
-2.190E-06,0.040
-2.180E-06,0.060
-2.170E-06,0.044
-2.160E-06,0.012
-2.150E-06,-0.016
-2.140E-06,-0.040
-2.130E-06,-0.040
-2.120E-06,-0.004
-2.110E-06,0.024
-2.100E-06,0.040
-2.090E-06,0.040
-2.080E-06,0.020
-2.070E-06,-0.004
-2.060E-06,-0.020
-2.050E-06,-0.020
-2.040E-06,-0.004
-2.030E-06,0.020
-2.020E-06,0.040
-2.010E-06,0.036
-2.000E-06,0.020
-1.990E-06,0.008
-1.980E-06,0.000
-1.970E-06,0.008
-1.960E-06,0.004
-1.950E-06,0.016
-1.940E-06,0.024
-1.930E-06,0.040
-1.920E-06,0.036
-1.910E-06,0.044
-1.900E-06,0.048
-1.890E-06,0.032
-1.880E-06,0.028
-1.870E-06,0.008
-1.860E-06,0.000
-1.850E-06,-0.024
-1.840E-06,-0.008
-1.830E-06,0.024
-1.820E-06,0.020
-1.810E-06,-0.012
-1.800E-06,-0.036
-1.790E-06,-0.056
-1.780E-06,-0.052
-1.770E-06,-0.008
-1.760E-06,0.028
-1.750E-06,0.044
-1.740E-06,0.024
-1.730E-06,-0.012
-1.720E-06,-0.040
-1.710E-06,-0.064
-1.700E-06,-0.044
-1.690E-06,-0.004
-1.680E-06,0.032
-1.670E-06,0.052
-1.660E-06,0.032
-1.650E-06,-0.004
-1.640E-06,-0.028
-1.630E-06,-0.040
-1.620E-06,-0.024
-1.610E-06,0.000
-1.600E-06,0.024
-1.590E-06,0.028
-1.580E-06,0.024
-1.570E-06,0.008
-1.560E-06,-0.004
-1.550E-06,-0.020
-1.540E-06,-0.004
-1.530E-06,0.000
-1.520E-06,0.020
-1.510E-06,0.028
-1.500E-06,0.028
-1.490E-06,0.016
-1.480E-06,0.000
-1.470E-06,-0.008
-1.460E-06,-0.004
-1.450E-06,0.008
-1.440E-06,0.028
-1.430E-06,0.036
-1.420E-06,0.036
-1.410E-06,0.028
-1.400E-06,0.020
-1.390E-06,0.008
-1.380E-06,0.016
-1.370E-06,0.024
-1.360E-06,0.044
-1.350E-06,0.056
-1.340E-06,0.056
-1.330E-06,0.060
-1.320E-06,0.048
-1.310E-06,0.048
-1.300E-06,0.056
-1.290E-06,0.076
-1.280E-06,0.108
-1.270E-06,0.124
-1.260E-06,0.124
-1.250E-06,0.100
-1.240E-06,0.064
-1.230E-06,0.044
-1.220E-06,0.024
-1.210E-06,0.028
-1.200E-06,0.020
-1.190E-06,0.000
-1.180E-06,-0.036
-1.170E-06,-0.092
-1.160E-06,-0.148
-1.150E-06,-0.168
-1.140E-06,-0.136
-1.130E-06,-0.072
-1.120E-06,-0.008
-1.110E-06,0.032
-1.100E-06,0.020
-1.090E-06,-0.024
-1.080E-06,-0.056
-1.070E-06,-0.072
-1.060E-06,-0.056
-1.050E-06,-0.008
-1.040E-06,0.032
-1.030E-06,0.060
-1.020E-06,0.040
-1.010E-06,-0.012
-1.000E-06,-0.032
-9.900E-07,-0.036
-9.800E-07,-0.040
-9.700E-07,-0.008
-9.600E-07,0.028
-9.500E-07,0.040
-9.400E-07,0.044
-9.300E-07,0.028
-9.200E-07,0.004
-9.100E-07,-0.004
-9.000E-07,-0.004
-8.900E-07,0.016
-8.800E-07,0.044
-8.700E-07,0.084
-8.600E-07,0.092
-8.500E-07,0.088
-8.400E-07,0.068
-8.300E-07,0.044
-8.200E-07,0.044
-8.100E-07,0.056
-8.000E-07,0.100
-7.900E-07,0.128
-7.800E-07,0.136
-7.700E-07,0.128
-7.600E-07,0.124
-7.500E-07,0.108
-7.400E-07,0.120
-7.300E-07,0.128
-7.200E-07,0.140
-7.100E-07,0.112
-7.000E-07,0.092
-6.900E-07,0.020
-6.800E-07,-0.024
-6.700E-07,-0.060
-6.600E-07,-0.108
-6.500E-07,-0.132
-6.400E-07,-0.176
-6.300E-07,-0.204
-6.200E-07,-0.200
-6.100E-07,-0.128
-6.000E-07,-0.032
-5.900E-07,0.060
-5.800E-07,0.104
-5.700E-07,0.092
-5.600E-07,0.012
-5.500E-07,-0.068
-5.400E-07,-0.080
-5.300E-07,-0.040
-5.200E-07,0.044
-5.100E-07,0.128
-5.000E-07,0.176
-4.900E-07,0.156
-4.800E-07,0.064
-4.700E-07,-0.028
-4.600E-07,-0.048
-4.500E-07,-0.004
-4.400E-07,0.084
-4.300E-07,0.172
-4.200E-07,0.220
-4.100E-07,0.192
-4.000E-07,0.156
-3.900E-07,0.104
-3.800E-07,0.080
-3.700E-07,0.096
-3.600E-07,0.152
-3.500E-07,0.208
-3.400E-07,0.224
-3.300E-07,0.200
-3.200E-07,0.108
-3.100E-07,-0.008
-3.000E-07,-0.088
-2.900E-07,-0.048
-2.800E-07,0.056
-2.700E-07,0.176
-2.600E-07,0.244
-2.500E-07,0.196
-2.400E-07,0.076
-2.300E-07,-0.056
-2.200E-07,-0.108
-2.100E-07,-0.084
-2.000E-07,0.028
-1.900E-07,0.104
-1.800E-07,0.164
-1.700E-07,0.156
-1.600E-07,0.124
-1.500E-07,0.068
-1.400E-07,0.104
-1.300E-07,0.140
-1.200E-07,0.164
-1.100E-07,0.232
-1.000E-07,0.104
-9.000E-08,-0.068
-8.000E-08,-0.196
-7.000E-08,-0.300
-6.000E-08,-0.488
-5.000E-08,-0.512
-4.000E-08,-0.512
-3.000E-08,-0.512
-2.000E-08,-0.156
-1.000E-08,0.192
0.000E+00,0.404
1.000E-08,0.364
2.000E-08,0.036
3.000E-08,-0.508
4.000E-08,-0.512
5.000E-08,-0.508
6.000E-08,-0.172
7.000E-08,0.396
8.000E-08,0.540
9.000E-08,0.440
1.000E-07,0.016
1.100E-07,-0.324
1.200E-07,-0.512
1.300E-07,-0.436
1.400E-07,-0.148
1.500E-07,0.216
1.600E-07,0.432
1.700E-07,0.452
1.800E-07,0.184
1.900E-07,-0.128
2.000E-07,-0.396
2.100E-07,-0.400
2.200E-07,-0.180
2.300E-07,0.128
2.400E-07,0.364
2.500E-07,0.344
2.600E-07,0.184
2.700E-07,-0.056
2.800E-07,-0.232
2.900E-07,-0.312
3.000E-07,-0.196
3.100E-07,0.044
3.200E-07,0.244
3.300E-07,0.292
3.400E-07,0.176
3.500E-07,0.016
3.600E-07,-0.168
3.700E-07,-0.208
3.800E-07,-0.104
3.900E-07,0.044
4.000E-07,0.160
4.100E-07,0.260
4.200E-07,0.228
4.300E-07,0.108
4.400E-07,-0.048
4.500E-07,-0.136
4.600E-07,-0.108
4.700E-07,0.028
4.800E-07,0.176
4.900E-07,0.260
5.000E-07,0.260
5.100E-07,0.156
5.200E-07,0.072
5.300E-07,0.044
5.400E-07,0.100
5.500E-07,0.188
5.600E-07,0.256
5.700E-07,0.292
5.800E-07,0.296
5.900E-07,0.236
6.000E-07,0.188
6.100E-07,0.156
6.200E-07,0.160
6.300E-07,0.200
6.400E-07,0.248
6.500E-07,0.288
6.600E-07,0.296
6.700E-07,0.256
6.800E-07,0.204
6.900E-07,0.164
7.000E-07,0.136
7.100E-07,0.144
7.200E-07,0.180
7.300E-07,0.260
7.400E-07,0.340
7.500E-07,0.364
7.600E-07,0.332
7.700E-07,0.164
7.800E-07,-0.056
7.900E-07,-0.084
8.000E-07,-0.004
8.100E-07,0.132
8.200E-07,0.228
8.300E-07,0.288
8.400E-07,0.132
8.500E-07,-0.020
8.600E-07,-0.076
8.700E-07,0.044
8.800E-07,0.184
8.900E-07,0.252
9.000E-07,0.220
9.100E-07,-0.012
9.200E-07,-0.368
9.300E-07,-0.508
9.400E-07,-0.508
9.500E-07,-0.512
9.600E-07,-0.484
9.700E-07,-0.064
9.800E-07,0.360
9.900E-07,0.400
1.000E-06,0.032
1.010E-06,-0.308
1.020E-06,-0.288
1.030E-06,-0.284
1.040E-06,0.000
1.050E-06,0.308
1.060E-06,0.348
1.070E-06,0.076
1.080E-06,-0.228
1.090E-06,-0.468
1.100E-06,-0.508
1.110E-06,-0.348
1.120E-06,-0.072
1.130E-06,0.236
1.140E-06,0.368
1.150E-06,0.332
1.160E-06,0.116
1.170E-06,-0.128
1.180E-06,-0.256
1.190E-06,-0.152
1.200E-06,0.124
1.210E-06,0.396
1.220E-06,0.504
1.230E-06,0.428
1.240E-06,0.240
1.250E-06,0.032
1.260E-06,-0.036
1.270E-06,0.040
1.280E-06,0.228
1.290E-06,0.392
1.300E-06,0.480
1.310E-06,0.432
1.320E-06,0.280
1.330E-06,0.124
1.340E-06,0.016
1.350E-06,0.044
1.360E-06,0.168
1.370E-06,0.324
1.380E-06,0.420
1.390E-06,0.424
1.400E-06,0.328
1.410E-06,0.204
1.420E-06,0.108
1.430E-06,0.096
1.440E-06,0.160
1.450E-06,0.276
1.460E-06,0.376
1.470E-06,0.392
1.480E-06,0.344
1.490E-06,0.236
1.500E-06,0.156
1.510E-06,0.120
1.520E-06,0.164
1.530E-06,0.240
1.540E-06,0.324
1.550E-06,0.356
1.560E-06,0.324
1.570E-06,0.256
1.580E-06,0.172
1.590E-06,0.136
1.600E-06,0.148
1.610E-06,0.196
1.620E-06,0.268
1.630E-06,0.308
1.640E-06,0.316
1.650E-06,0.272
1.660E-06,0.200
1.670E-06,0.144
1.680E-06,0.128
1.690E-06,0.160
1.700E-06,0.216
1.710E-06,0.276
1.720E-06,0.296
1.730E-06,0.272
1.740E-06,0.228
1.750E-06,0.188
1.760E-06,0.160
1.770E-06,0.168
1.780E-06,0.208
1.790E-06,0.248
1.800E-06,0.284
1.810E-06,0.284
1.820E-06,0.256
1.830E-06,0.208
1.840E-06,0.184
1.850E-06,0.176
1.860E-06,0.192
1.870E-06,0.228
1.880E-06,0.260
1.890E-06,0.276
1.900E-06,0.268
1.910E-06,0.244
1.920E-06,0.216
1.930E-06,0.208
1.940E-06,0.212
1.950E-06,0.232
1.960E-06,0.252
1.970E-06,0.264
1.980E-06,0.268
1.990E-06,0.256
2.000E-06,0.232
2.010E-06,0.216
2.020E-06,0.212
2.030E-06,0.220
2.040E-06,0.240
2.050E-06,0.256
2.060E-06,0.264
2.070E-06,0.260
2.080E-06,0.232
2.090E-06,0.224
2.100E-06,0.220
2.110E-06,0.224
2.120E-06,0.236
2.130E-06,0.244
2.140E-06,0.248
2.150E-06,0.248
2.160E-06,0.240
2.170E-06,0.228
2.180E-06,0.220
2.190E-06,0.216
2.200E-06,0.224
2.210E-06,0.232
2.220E-06,0.244
2.230E-06,0.240
2.240E-06,0.236
2.250E-06,0.224
2.260E-06,0.216
2.270E-06,0.216
2.280E-06,0.220
2.290E-06,0.224
2.300E-06,0.232
2.310E-06,0.232
2.320E-06,0.232
2.330E-06,0.228
2.340E-06,0.220
2.350E-06,0.220
2.360E-06,0.220
2.370E-06,0.224
2.380E-06,0.224
2.390E-06,0.228
2.400E-06,0.232
2.410E-06,0.224
2.420E-06,0.220
2.430E-06,0.220
2.440E-06,0.220
2.450E-06,0.216
2.460E-06,0.224
2.470E-06,0.224
2.480E-06,0.224
2.490E-06,0.220
2.500E-06,0.216
2.510E-06,0.212
2.520E-06,0.212
2.530E-06,0.208
2.540E-06,0.208
2.550E-06,0.216
2.560E-06,0.212
2.570E-06,0.204
2.580E-06,0.204
2.590E-06,0.204
2.600E-06,0.204
2.610E-06,0.204
2.620E-06,0.212
2.630E-06,0.212
2.640E-06,0.208
2.650E-06,0.212
2.660E-06,0.204
2.670E-06,0.200
2.680E-06,0.204
2.690E-06,0.204
2.700E-06,0.212
2.710E-06,0.216
2.720E-06,0.208
2.730E-06,0.208
2.740E-06,0.208
2.750E-06,0.200
2.760E-06,0.200
2.770E-06,0.208
2.780E-06,0.216
2.790E-06,0.216
2.800E-06,0.212
2.810E-06,0.204
2.820E-06,0.204
2.830E-06,0.196
2.840E-06,0.196
2.850E-06,0.200
2.860E-06,0.208
2.870E-06,0.212
2.880E-06,0.208
2.890E-06,0.208
2.900E-06,0.200
2.910E-06,0.192
2.920E-06,0.196
2.930E-06,0.192
2.940E-06,0.204
2.950E-06,0.204
2.960E-06,0.200
2.970E-06,0.196
2.980E-06,0.192
2.990E-06,0.188
3.000E-06,0.192
3.010E-06,0.192
3.020E-06,0.192
3.030E-06,0.200
3.040E-06,0.196
3.050E-06,0.196
3.060E-06,0.196
3.070E-06,0.192
3.080E-06,0.188
3.090E-06,0.196
3.100E-06,0.204
3.110E-06,0.208
3.120E-06,0.220
3.130E-06,0.212
3.140E-06,0.196
3.150E-06,0.180
3.160E-06,0.164
3.170E-06,0.156
3.180E-06,0.176
3.190E-06,0.192
3.200E-06,0.196
3.210E-06,0.196
3.220E-06,0.192
3.230E-06,0.176
3.240E-06,0.172
3.250E-06,0.160
3.260E-06,0.172
3.270E-06,0.188
3.280E-06,0.192
3.290E-06,0.196
3.300E-06,0.188
