mediciones/Mediciones filtradas (saque las feas)/5-27/-15/WaveData51148.csv

#timebase=2000000(ps)
,#voltbase=100000(mv/100)
#size=4000
-5.650E-06,0.000
-5.640E-06,0.008
-5.630E-06,0.004
-5.620E-06,0.004
-5.610E-06,0.000
-5.600E-06,0.004
-5.590E-06,0.000
-5.580E-06,0.000
-5.570E-06,0.004
-5.560E-06,0.000
-5.550E-06,0.004
-5.540E-06,0.004
-5.530E-06,0.004
-5.520E-06,0.004
-5.510E-06,0.004
-5.500E-06,0.004
-5.490E-06,0.004
-5.480E-06,0.004
-5.470E-06,0.004
-5.460E-06,0.004
-5.450E-06,0.004
-5.440E-06,0.004
-5.430E-06,0.000
-5.420E-06,0.000
-5.410E-06,0.004
-5.400E-06,0.004
-5.390E-06,0.004
-5.380E-06,0.008
-5.370E-06,0.004
-5.360E-06,0.000
-5.350E-06,0.008
-5.340E-06,0.012
-5.330E-06,0.008
-5.320E-06,0.000
-5.310E-06,0.008
-5.300E-06,-0.004
-5.290E-06,-0.008
-5.280E-06,-0.004
-5.270E-06,0.008
-5.260E-06,0.020
-5.250E-06,0.024
-5.240E-06,0.012
-5.230E-06,-0.004
-5.220E-06,-0.012
-5.210E-06,-0.016
-5.200E-06,-0.004
-5.190E-06,0.012
-5.180E-06,0.024
-5.170E-06,0.024
-5.160E-06,0.012
-5.150E-06,-0.012
-5.140E-06,-0.012
-5.130E-06,-0.008
-5.120E-06,0.004
-5.110E-06,0.012
-5.100E-06,0.008
-5.090E-06,0.004
-5.080E-06,-0.004
-5.070E-06,-0.004
-5.060E-06,0.000
-5.050E-06,0.004
-5.040E-06,0.012
-5.030E-06,0.004
-5.020E-06,0.004
-5.010E-06,-0.004
-5.000E-06,-0.004
-4.990E-06,-0.004
-4.980E-06,0.004
-4.970E-06,0.008
-4.960E-06,0.004
-4.950E-06,0.004
-4.940E-06,0.008
-4.930E-06,-0.004
-4.920E-06,0.004
-4.910E-06,0.008
-4.900E-06,0.008
-4.890E-06,0.004
-4.880E-06,0.004
-4.870E-06,0.004
-4.860E-06,0.008
-4.850E-06,0.012
-4.840E-06,0.012
-4.830E-06,0.004
-4.820E-06,0.000
-4.810E-06,0.004
-4.800E-06,0.004
-4.790E-06,0.012
-4.780E-06,0.008
-4.770E-06,0.000
-4.760E-06,-0.036
-4.750E-06,-0.020
-4.740E-06,-0.024
-4.730E-06,0.012
-4.720E-06,0.024
-4.710E-06,0.032
-4.700E-06,0.020
-4.690E-06,-0.008
-4.680E-06,-0.024
-4.670E-06,-0.032
-4.660E-06,-0.004
-4.650E-06,0.016
-4.640E-06,0.032
-4.630E-06,0.024
-4.620E-06,0.000
-4.610E-06,-0.016
-4.600E-06,-0.012
-4.590E-06,0.000
-4.580E-06,0.012
-4.570E-06,0.012
-4.560E-06,0.008
-4.550E-06,0.000
-4.540E-06,-0.008
-4.530E-06,-0.004
-4.520E-06,0.004
-4.510E-06,0.016
-4.500E-06,0.012
-4.490E-06,0.004
-4.480E-06,-0.004
-4.470E-06,-0.004
-4.460E-06,-0.004
-4.450E-06,0.008
-4.440E-06,0.016
-4.430E-06,0.016
-4.420E-06,0.012
-4.410E-06,-0.004
-4.400E-06,0.000
-4.390E-06,-0.004
-4.380E-06,0.004
-4.370E-06,0.008
-4.360E-06,0.008
-4.350E-06,0.000
-4.340E-06,0.004
-4.330E-06,0.004
-4.320E-06,0.008
-4.310E-06,0.004
-4.300E-06,0.000
-4.290E-06,-0.004
-4.280E-06,-0.004
-4.270E-06,0.000
-4.260E-06,0.008
-4.250E-06,0.008
-4.240E-06,0.004
-4.230E-06,0.004
-4.220E-06,-0.008
-4.210E-06,-0.008
-4.200E-06,-0.004
-4.190E-06,0.004
-4.180E-06,0.012
-4.170E-06,0.016
-4.160E-06,0.004
-4.150E-06,-0.004
-4.140E-06,-0.004
-4.130E-06,-0.004
-4.120E-06,0.008
-4.110E-06,0.008
-4.100E-06,0.008
-4.090E-06,0.000
-4.080E-06,0.000
-4.070E-06,-0.004
-4.060E-06,0.004
-4.050E-06,0.012
-4.040E-06,0.012
-4.030E-06,0.012
-4.020E-06,0.000
-4.010E-06,-0.004
-4.000E-06,0.000
-3.990E-06,0.004
-3.980E-06,0.012
-3.970E-06,0.004
-3.960E-06,0.008
-3.950E-06,0.008
-3.940E-06,0.000
-3.930E-06,-0.004
-3.920E-06,0.004
-3.910E-06,0.012
-3.900E-06,0.008
-3.890E-06,0.008
-3.880E-06,0.008
-3.870E-06,-0.004
-3.860E-06,-0.004
-3.850E-06,-0.008
-3.840E-06,-0.004
-3.830E-06,0.000
-3.820E-06,0.008
-3.810E-06,0.008
-3.800E-06,0.008
-3.790E-06,0.008
-3.780E-06,0.008
-3.770E-06,0.004
-3.760E-06,-0.004
-3.750E-06,0.000
-3.740E-06,0.008
-3.730E-06,0.004
-3.720E-06,0.008
-3.710E-06,0.008
-3.700E-06,0.012
-3.690E-06,0.008
-3.680E-06,0.000
-3.670E-06,0.012
-3.660E-06,0.012
-3.650E-06,0.016
-3.640E-06,0.012
-3.630E-06,0.008
-3.620E-06,0.004
-3.610E-06,0.000
-3.600E-06,0.000
-3.590E-06,0.000
-3.580E-06,0.000
-3.570E-06,0.004
-3.560E-06,0.004
-3.550E-06,0.004
-3.540E-06,0.008
-3.530E-06,0.000
-3.520E-06,0.012
-3.510E-06,0.016
-3.500E-06,0.012
-3.490E-06,0.004
-3.480E-06,-0.004
-3.470E-06,-0.024
-3.460E-06,-0.020
-3.450E-06,-0.004
-3.440E-06,0.000
-3.430E-06,0.012
-3.420E-06,0.008
-3.410E-06,0.008
-3.400E-06,0.004
-3.390E-06,-0.008
-3.380E-06,-0.008
-3.370E-06,0.000
-3.360E-06,0.004
-3.350E-06,0.004
-3.340E-06,0.008
-3.330E-06,0.008
-3.320E-06,0.004
-3.310E-06,0.000
-3.300E-06,0.000
-3.290E-06,0.000
-3.280E-06,-0.004
-3.270E-06,0.000
-3.260E-06,0.008
-3.250E-06,0.000
-3.240E-06,0.004
-3.230E-06,0.000
-3.220E-06,0.000
-3.210E-06,0.000
-3.200E-06,0.000
-3.190E-06,0.000
-3.180E-06,0.004
-3.170E-06,0.004
-3.160E-06,0.008
-3.150E-06,0.004
-3.140E-06,0.008
-3.130E-06,0.004
-3.120E-06,0.008
-3.110E-06,0.012
-3.100E-06,0.012
-3.090E-06,0.004
-3.080E-06,0.000
-3.070E-06,0.000
-3.060E-06,-0.008
-3.050E-06,0.000
-3.040E-06,-0.004
-3.030E-06,0.000
-3.020E-06,0.008
-3.010E-06,0.004
-3.000E-06,0.008
-2.990E-06,0.004
-2.980E-06,0.000
-2.970E-06,0.004
-2.960E-06,0.004
-2.950E-06,0.008
-2.940E-06,0.012
-2.930E-06,0.000
-2.920E-06,0.000
-2.910E-06,0.004
-2.900E-06,0.004
-2.890E-06,0.004
-2.880E-06,0.008
-2.870E-06,0.008
-2.860E-06,0.008
-2.850E-06,0.008
-2.840E-06,0.012
-2.830E-06,0.004
-2.820E-06,0.004
-2.810E-06,0.008
-2.800E-06,0.008
-2.790E-06,0.008
-2.780E-06,0.012
-2.770E-06,0.012
-2.760E-06,0.012
-2.750E-06,0.012
-2.740E-06,0.020
-2.730E-06,0.008
-2.720E-06,0.008
-2.710E-06,0.004
-2.700E-06,0.000
-2.690E-06,0.000
-2.680E-06,0.004
-2.670E-06,0.008
-2.660E-06,0.008
-2.650E-06,0.008
-2.640E-06,0.012
-2.630E-06,0.000
-2.620E-06,0.008
-2.610E-06,0.008
-2.600E-06,0.012
-2.590E-06,0.012
-2.580E-06,0.008
-2.570E-06,0.008
-2.560E-06,0.012
-2.550E-06,0.012
-2.540E-06,0.012
-2.530E-06,0.012
-2.520E-06,0.012
-2.510E-06,0.016
-2.500E-06,0.016
-2.490E-06,0.016
-2.480E-06,0.016
-2.470E-06,0.028
-2.460E-06,0.024
-2.450E-06,0.028
-2.440E-06,0.024
-2.430E-06,0.028
-2.420E-06,0.040
-2.410E-06,0.032
-2.400E-06,0.036
-2.390E-06,0.028
-2.380E-06,0.020
-2.370E-06,0.020
-2.360E-06,0.020
-2.350E-06,0.016
-2.340E-06,0.008
-2.330E-06,0.008
-2.320E-06,0.000
-2.310E-06,0.000
-2.300E-06,0.008
-2.290E-06,0.012
-2.280E-06,0.008
-2.270E-06,0.000
-2.260E-06,-0.004
-2.250E-06,0.000
-2.240E-06,-0.004
-2.230E-06,0.012
-2.220E-06,0.028
-2.210E-06,0.028
-2.200E-06,0.040
-2.190E-06,0.048
-2.180E-06,0.056
-2.170E-06,0.060
-2.160E-06,0.072
-2.150E-06,0.068
-2.140E-06,0.056
-2.130E-06,0.048
-2.120E-06,0.036
-2.110E-06,0.032
-2.100E-06,0.032
-2.090E-06,0.032
-2.080E-06,0.020
-2.070E-06,0.016
-2.060E-06,0.008
-2.050E-06,0.012
-2.040E-06,0.020
-2.030E-06,0.036
-2.020E-06,0.056
-2.010E-06,0.068
-2.000E-06,0.060
-1.990E-06,0.064
-1.980E-06,0.040
-1.970E-06,0.016
-1.960E-06,-0.020
-1.950E-06,-0.036
-1.940E-06,-0.056
-1.930E-06,-0.084
-1.920E-06,-0.072
-1.910E-06,-0.084
-1.900E-06,-0.052
-1.890E-06,-0.072
-1.880E-06,-0.096
-1.870E-06,-0.076
-1.860E-06,-0.068
-1.850E-06,-0.024
-1.840E-06,0.000
-1.830E-06,0.012
-1.820E-06,0.020
-1.810E-06,0.004
-1.800E-06,-0.024
-1.790E-06,-0.024
-1.780E-06,-0.008
-1.770E-06,0.016
-1.760E-06,0.012
-1.750E-06,0.012
-1.740E-06,0.004
-1.730E-06,-0.004
-1.720E-06,0.000
-1.710E-06,-0.008
-1.700E-06,0.004
-1.690E-06,0.000
-1.680E-06,-0.004
-1.670E-06,0.000
-1.660E-06,0.016
-1.650E-06,0.024
-1.640E-06,0.048
-1.630E-06,0.072
-1.620E-06,0.076
-1.610E-06,0.076
-1.600E-06,0.076
-1.590E-06,0.064
-1.580E-06,0.048
-1.570E-06,0.036
-1.560E-06,0.032
-1.550E-06,0.036
-1.540E-06,0.028
-1.530E-06,0.020
-1.520E-06,0.004
-1.510E-06,-0.020
-1.500E-06,-0.024
-1.490E-06,-0.012
-1.480E-06,0.032
-1.470E-06,0.060
-1.460E-06,0.060
-1.450E-06,0.048
-1.440E-06,0.024
-1.430E-06,0.000
-1.420E-06,-0.004
-1.410E-06,0.040
-1.400E-06,0.088
-1.390E-06,0.140
-1.380E-06,0.156
-1.370E-06,0.164
-1.360E-06,0.152
-1.350E-06,0.140
-1.340E-06,0.132
-1.330E-06,0.124
-1.320E-06,0.092
-1.310E-06,0.060
-1.300E-06,0.028
-1.290E-06,0.028
-1.280E-06,0.036
-1.270E-06,0.040
-1.260E-06,0.028
-1.250E-06,0.016
-1.240E-06,0.024
-1.230E-06,0.028
-1.220E-06,0.064
-1.210E-06,0.096
-1.200E-06,0.104
-1.190E-06,0.064
-1.180E-06,0.004
-1.170E-06,-0.088
-1.160E-06,-0.140
-1.150E-06,-0.140
-1.140E-06,-0.100
-1.130E-06,-0.048
-1.120E-06,-0.004
-1.110E-06,0.040
-1.100E-06,0.056
-1.090E-06,0.088
-1.080E-06,0.108
-1.070E-06,0.128
-1.060E-06,0.132
-1.050E-06,0.120
-1.040E-06,0.072
-1.030E-06,0.032
-1.020E-06,-0.008
-1.010E-06,-0.032
-1.000E-06,-0.052
-9.900E-07,-0.076
-9.800E-07,-0.076
-9.700E-07,-0.064
-9.600E-07,-0.048
-9.500E-07,-0.068
-9.400E-07,-0.104
-9.300E-07,-0.120
-9.200E-07,-0.120
-9.100E-07,-0.120
-9.000E-07,-0.080
-8.900E-07,-0.024
-8.800E-07,0.040
-8.700E-07,0.080
-8.600E-07,0.124
-8.500E-07,0.144
-8.400E-07,0.152
-8.300E-07,0.156
-8.200E-07,0.112
-8.100E-07,0.072
-8.000E-07,0.020
-7.900E-07,0.000
-7.800E-07,-0.008
-7.700E-07,0.008
-7.600E-07,0.016
-7.500E-07,0.024
-7.400E-07,0.024
-7.300E-07,0.020
-7.200E-07,0.020
-7.100E-07,0.048
-7.000E-07,0.108
-6.900E-07,0.144
-6.800E-07,0.168
-6.700E-07,0.160
-6.600E-07,0.120
-6.500E-07,0.064
-6.400E-07,-0.004
-6.300E-07,-0.112
-6.200E-07,-0.168
-6.100E-07,-0.156
-6.000E-07,-0.112
-5.900E-07,-0.020
-5.800E-07,0.108
-5.700E-07,0.044
-5.600E-07,-0.036
-5.500E-07,-0.056
-5.400E-07,-0.008
-5.300E-07,-0.028
-5.200E-07,0.108
-5.100E-07,0.136
-5.000E-07,0.120
-4.900E-07,0.020
-4.800E-07,-0.012
-4.700E-07,-0.100
-4.600E-07,-0.076
-4.500E-07,-0.072
-4.400E-07,-0.072
-4.300E-07,-0.008
-4.200E-07,-0.012
-4.100E-07,0.004
-4.000E-07,0.068
-3.900E-07,0.100
-3.800E-07,0.112
-3.700E-07,0.088
-3.600E-07,0.052
-3.500E-07,0.072
-3.400E-07,0.124
-3.300E-07,0.140
-3.200E-07,0.176
-3.100E-07,0.164
-3.000E-07,0.132
-2.900E-07,0.096
-2.800E-07,0.088
-2.700E-07,0.096
-2.600E-07,0.108
-2.500E-07,0.092
-2.400E-07,0.064
-2.300E-07,0.020
-2.200E-07,0.028
-2.100E-07,0.020
-2.000E-07,0.088
-1.900E-07,0.120
-1.800E-07,0.144
-1.700E-07,0.156
-1.600E-07,0.148
-1.500E-07,0.144
-1.400E-07,0.136
-1.300E-07,0.140
-1.200E-07,0.136
-1.100E-07,0.140
-1.000E-07,0.120
-9.000E-08,0.108
-8.000E-08,0.092
-7.000E-08,0.080
-6.000E-08,0.020
-5.000E-08,-0.024
-4.000E-08,-0.120
-3.000E-08,-0.112
-2.000E-08,0.016
-1.000E-08,0.168
0.000E+00,0.324
1.000E-08,0.352
2.000E-08,0.280
3.000E-08,0.124
4.000E-08,-0.044
5.000E-08,-0.252
6.000E-08,-0.340
7.000E-08,-0.404
8.000E-08,-0.512
9.000E-08,-0.172
1.000E-07,-0.136
1.100E-07,0.296
1.200E-07,0.404
1.300E-07,0.516
1.400E-07,0.368
1.500E-07,0.212
1.600E-07,-0.072
1.700E-07,-0.152
1.800E-07,0.044
1.900E-07,0.192
2.000E-07,0.368
2.100E-07,0.340
2.200E-07,0.224
2.300E-07,0.052
2.400E-07,0.016
2.500E-07,0.028
2.600E-07,0.152
2.700E-07,0.260
2.800E-07,0.268
2.900E-07,0.240
3.000E-07,0.144
3.100E-07,0.088
3.200E-07,0.072
3.300E-07,0.140
3.400E-07,0.196
3.500E-07,0.260
3.600E-07,0.252
3.700E-07,0.212
3.800E-07,0.152
3.900E-07,0.104
4.000E-07,0.120
4.100E-07,0.152
4.200E-07,0.196
4.300E-07,0.220
4.400E-07,0.216
4.500E-07,0.176
4.600E-07,0.148
4.700E-07,0.116
4.800E-07,0.128
4.900E-07,0.160
5.000E-07,0.196
5.100E-07,0.220
5.200E-07,0.220
5.300E-07,0.192
5.400E-07,0.160
5.500E-07,0.132
5.600E-07,0.124
5.700E-07,0.148
5.800E-07,0.172
5.900E-07,0.192
6.000E-07,0.200
6.100E-07,0.188
6.200E-07,0.160
6.300E-07,0.148
6.400E-07,0.144
6.500E-07,0.156
6.600E-07,0.168
6.700E-07,0.188
6.800E-07,0.196
6.900E-07,0.188
7.000E-07,0.180
7.100E-07,0.156
7.200E-07,0.156
7.300E-07,0.156
7.400E-07,0.168
7.500E-07,0.172
7.600E-07,0.172
7.700E-07,0.172
7.800E-07,0.164
7.900E-07,0.156
8.000E-07,0.160
8.100E-07,0.156
8.200E-07,0.160
8.300E-07,0.168
8.400E-07,0.176
8.500E-07,0.176
8.600E-07,0.172
8.700E-07,0.160
8.800E-07,0.160
8.900E-07,0.160
9.000E-07,0.156
9.100E-07,0.156
9.200E-07,0.164
9.300E-07,0.168
9.400E-07,0.164
9.500E-07,0.168
9.600E-07,0.156
9.700E-07,0.156
9.800E-07,0.156
9.900E-07,0.156
1.000E-06,0.164
1.010E-06,0.164
1.020E-06,0.164
1.030E-06,0.164
1.040E-06,0.160
1.050E-06,0.160
1.060E-06,0.164
1.070E-06,0.160
1.080E-06,0.160
1.090E-06,0.160
1.100E-06,0.164
1.110E-06,0.160
1.120E-06,0.160
1.130E-06,0.160
1.140E-06,0.156
1.150E-06,0.152
1.160E-06,0.156
1.170E-06,0.160
1.180E-06,0.156
1.190E-06,0.156
1.200E-06,0.160
1.210E-06,0.160
1.220E-06,0.160
1.230E-06,0.160
1.240E-06,0.152
1.250E-06,0.152
1.260E-06,0.156
1.270E-06,0.152
1.280E-06,0.156
1.290E-06,0.156
1.300E-06,0.152
1.310E-06,0.156
1.320E-06,0.152
1.330E-06,0.156
1.340E-06,0.148
1.350E-06,0.156
1.360E-06,0.148
1.370E-06,0.152
1.380E-06,0.160
1.390E-06,0.152
1.400E-06,0.148
1.410E-06,0.152
1.420E-06,0.152
1.430E-06,0.152
1.440E-06,0.148
1.450E-06,0.148
1.460E-06,0.152
1.470E-06,0.148
1.480E-06,0.148
1.490E-06,0.144
1.500E-06,0.144
1.510E-06,0.148
1.520E-06,0.156
1.530E-06,0.152
1.540E-06,0.140
1.550E-06,0.148
1.560E-06,0.144
1.570E-06,0.148
1.580E-06,0.140
1.590E-06,0.144
1.600E-06,0.148
1.610E-06,0.148
1.620E-06,0.140
1.630E-06,0.140
1.640E-06,0.140
1.650E-06,0.144
1.660E-06,0.144
1.670E-06,0.144
1.680E-06,0.148
1.690E-06,0.148
1.700E-06,0.140
1.710E-06,0.140
1.720E-06,0.140
1.730E-06,0.144
1.740E-06,0.144
1.750E-06,0.140
1.760E-06,0.140
1.770E-06,0.140
1.780E-06,0.140
1.790E-06,0.144
1.800E-06,0.144
1.810E-06,0.136
1.820E-06,0.136
1.830E-06,0.136
1.840E-06,0.136
1.850E-06,0.136
1.860E-06,0.136
1.870E-06,0.136
1.880E-06,0.136
1.890E-06,0.136
1.900E-06,0.136
1.910E-06,0.132
1.920E-06,0.132
1.930E-06,0.132
1.940E-06,0.128
1.950E-06,0.132
1.960E-06,0.132
1.970E-06,0.136
1.980E-06,0.136
1.990E-06,0.128
2.000E-06,0.128
2.010E-06,0.128
2.020E-06,0.128
2.030E-06,0.128
2.040E-06,0.132
2.050E-06,0.132
2.060E-06,0.132
2.070E-06,0.132
2.080E-06,0.132
2.090E-06,0.132
2.100E-06,0.132
2.110E-06,0.128
2.120E-06,0.128
2.130E-06,0.128
2.140E-06,0.124
2.150E-06,0.132
2.160E-06,0.128
2.170E-06,0.128
2.180E-06,0.128
2.190E-06,0.124
2.200E-06,0.124
2.210E-06,0.124
2.220E-06,0.128
2.230E-06,0.128
2.240E-06,0.132
2.250E-06,0.124
2.260E-06,0.124
2.270E-06,0.124
2.280E-06,0.132
2.290E-06,0.128
2.300E-06,0.124
2.310E-06,0.120
2.320E-06,0.124
2.330E-06,0.124
2.340E-06,0.124
2.350E-06,0.124
2.360E-06,0.120
2.370E-06,0.120
2.380E-06,0.120
2.390E-06,0.112
2.400E-06,0.124
2.410E-06,0.124
2.420E-06,0.128
2.430E-06,0.124
2.440E-06,0.120
2.450E-06,0.124
2.460E-06,0.120
2.470E-06,0.112
2.480E-06,0.112
2.490E-06,0.116
2.500E-06,0.116
2.510E-06,0.120
2.520E-06,0.116
2.530E-06,0.112
2.540E-06,0.112
2.550E-06,0.112
2.560E-06,0.112
2.570E-06,0.116
2.580E-06,0.120
2.590E-06,0.124
2.600E-06,0.124
2.610E-06,0.120
2.620E-06,0.112
2.630E-06,0.108
2.640E-06,0.104
2.650E-06,0.108
2.660E-06,0.112
2.670E-06,0.112
2.680E-06,0.112
2.690E-06,0.108
2.700E-06,0.112
2.710E-06,0.108
2.720E-06,0.108
2.730E-06,0.108
2.740E-06,0.104
2.750E-06,0.108
2.760E-06,0.104
2.770E-06,0.108
2.780E-06,0.108
2.790E-06,0.108
2.800E-06,0.104
2.810E-06,0.104
2.820E-06,0.104
2.830E-06,0.096
2.840E-06,0.104
2.850E-06,0.100
2.860E-06,0.100
2.870E-06,0.096
2.880E-06,0.100
2.890E-06,0.096
2.900E-06,0.104
2.910E-06,0.096
2.920E-06,0.104
2.930E-06,0.096
2.940E-06,0.100
2.950E-06,0.096
2.960E-06,0.100
2.970E-06,0.096
2.980E-06,0.096
2.990E-06,0.096
3.000E-06,0.092
3.010E-06,0.092
3.020E-06,0.096
3.030E-06,0.100
3.040E-06,0.100
3.050E-06,0.100
3.060E-06,0.100
3.070E-06,0.096
3.080E-06,0.096
3.090E-06,0.096
3.100E-06,0.100
3.110E-06,0.096
3.120E-06,0.100
3.130E-06,0.100
3.140E-06,0.096
3.150E-06,0.100
3.160E-06,0.100
3.170E-06,0.096
3.180E-06,0.100
3.190E-06,0.092
3.200E-06,0.092
3.210E-06,0.096
3.220E-06,0.092
3.230E-06,0.096
3.240E-06,0.092
3.250E-06,0.096
3.260E-06,0.088
3.270E-06,0.092
3.280E-06,0.088
3.290E-06,0.092
3.300E-06,0.092
3.310E-06,0.088
3.320E-06,0.088
3.330E-06,0.092
3.340E-06,0.088
3.350E-06,0.092
3.360E-06,0.080
3.370E-06,0.084
3.380E-06,0.088
3.390E-06,0.084
3.400E-06,0.084
3.410E-06,0.084
3.420E-06,0.084
3.430E-06,0.084
3.440E-06,0.084
3.450E-06,0.080
3.460E-06,0.084
3.470E-06,0.076
3.480E-06,0.076
3.490E-06,0.076
3.500E-06,0.076
3.510E-06,0.080
3.520E-06,0.080
3.530E-06,0.080
3.540E-06,0.080
3.550E-06,0.076
3.560E-06,0.076
3.570E-06,0.080
3.580E-06,0.080
3.590E-06,0.080
3.600E-06,0.076
3.610E-06,0.076
3.620E-06,0.076
3.630E-06,0.076
3.640E-06,0.084
3.650E-06,0.080
3.660E-06,0.076
3.670E-06,0.076
3.680E-06,0.080
3.690E-06,0.080
3.700E-06,0.072
3.710E-06,0.076
3.720E-06,0.076
3.730E-06,0.076
3.740E-06,0.072
3.750E-06,0.076
3.760E-06,0.072
3.770E-06,0.072
3.780E-06,0.072
3.790E-06,0.068
3.800E-06,0.076
3.810E-06,0.072
3.820E-06,0.072
3.830E-06,0.068
3.840E-06,0.072
3.850E-06,0.076
3.860E-06,0.072
3.870E-06,0.072
3.880E-06,0.068
3.890E-06,0.068
3.900E-06,0.072
3.910E-06,0.076
3.920E-06,0.072
3.930E-06,0.072
3.940E-06,0.068
3.950E-06,0.068
3.960E-06,0.064
3.970E-06,0.072
3.980E-06,0.072
3.990E-06,0.068
4.000E-06,0.068
4.010E-06,0.072
4.020E-06,0.064
4.030E-06,0.064
4.040E-06,0.064
4.050E-06,0.064
4.060E-06,0.068
4.070E-06,0.060
4.080E-06,0.060
4.090E-06,0.060
4.100E-06,0.060
4.110E-06,0.064
4.120E-06,0.060
4.130E-06,0.060
4.140E-06,0.064
4.150E-06,0.064
4.160E-06,0.060
4.170E-06,0.060
4.180E-06,0.060
4.190E-06,0.064
4.200E-06,0.064
4.210E-06,0.060
4.220E-06,0.056
4.230E-06,0.060
4.240E-06,0.064
4.250E-06,0.060
4.260E-06,0.060
4.270E-06,0.060
4.280E-06,0.056
4.290E-06,0.060
4.300E-06,0.060
4.310E-06,0.056
4.320E-06,0.060
4.330E-06,0.060
4.340E-06,0.056
4.350E-06,0.056
4.360E-06,0.060
4.370E-06,0.060
4.380E-06,0.056
4.390E-06,0.056
4.400E-06,0.056
4.410E-06,0.060
4.420E-06,0.060
4.430E-06,0.056
4.440E-06,0.056
4.450E-06,0.056
4.460E-06,0.060
4.470E-06,0.056
4.480E-06,0.056
4.490E-06,0.056
4.500E-06,0.056
4.510E-06,0.056
4.520E-06,0.056
4.530E-06,0.056
4.540E-06,0.056
4.550E-06,0.052
4.560E-06,0.056
4.570E-06,0.056
4.580E-06,0.052
4.590E-06,0.052
4.600E-06,0.056
4.610E-06,0.056
4.620E-06,0.052
4.630E-06,0.048
4.640E-06,0.052
4.650E-06,0.044
4.660E-06,0.052
4.670E-06,0.052
4.680E-06,0.048
4.690E-06,0.044
4.700E-06,0.044
4.710E-06,0.052
4.720E-06,0.048
4.730E-06,0.044
4.740E-06,0.048
4.750E-06,0.044
4.760E-06,0.044
4.770E-06,0.040
4.780E-06,0.044
4.790E-06,0.040
4.800E-06,0.044
4.810E-06,0.044
4.820E-06,0.044
4.830E-06,0.048
4.840E-06,0.048
4.850E-06,0.044
4.860E-06,0.048
4.870E-06,0.040
4.880E-06,0.044
4.890E-06,0.044
4.900E-06,0.044
4.910E-06,0.044
4.920E-06,0.040
4.930E-06,0.044
4.940E-06,0.048
4.950E-06,0.044
4.960E-06,0.048
4.970E-06,0.048
4.980E-06,0.044
4.990E-06,0.044
5.000E-06,0.044
5.010E-06,0.044
5.020E-06,0.040
5.030E-06,0.040
5.040E-06,0.044
5.050E-06,0.040
5.060E-06,0.036
5.070E-06,0.040
5.080E-06,0.040
5.090E-06,0.036
5.100E-06,0.032
5.110E-06,0.032
5.120E-06,0.032
5.130E-06,0.032
5.140E-06,0.028
5.150E-06,0.032
5.160E-06,0.032
5.170E-06,0.032
5.180E-06,0.036
5.190E-06,0.028
5.200E-06,0.024
5.210E-06,0.024
5.220E-06,0.028
5.230E-06,0.024
5.240E-06,0.028
5.250E-06,0.032
5.260E-06,0.028
5.270E-06,0.028
5.280E-06,0.024
5.290E-06,0.032
5.300E-06,0.028
5.310E-06,0.032
5.320E-06,0.032
5.330E-06,0.024
5.340E-06,0.028
5.350E-06,0.032
5.360E-06,0.024
5.370E-06,0.020
5.380E-06,0.028
5.390E-06,0.020
5.400E-06,0.028
5.410E-06,0.020
5.420E-06,0.024
5.430E-06,0.028
5.440E-06,0.024
5.450E-06,0.020
5.460E-06,0.024
5.470E-06,0.028
5.480E-06,0.028
5.490E-06,0.028
5.500E-06,0.020
5.510E-06,0.020
5.520E-06,0.024
5.530E-06,0.028
5.540E-06,0.020
5.550E-06,0.020
5.560E-06,0.020
5.570E-06,0.020
5.580E-06,0.020
5.590E-06,0.020
5.600E-06,0.028
5.610E-06,0.024
5.620E-06,0.016
5.630E-06,0.016
5.640E-06,0.020
5.650E-06,0.024
5.660E-06,0.024
5.670E-06,0.024
5.680E-06,0.016
5.690E-06,0.016
5.700E-06,0.020
5.710E-06,0.012
5.720E-06,0.020
5.730E-06,0.024
5.740E-06,0.020
5.750E-06,0.016
5.760E-06,0.016
5.770E-06,0.016
5.780E-06,0.012
5.790E-06,0.016
5.800E-06,0.016
5.810E-06,0.012
5.820E-06,0.016
5.830E-06,0.008
5.840E-06,0.012
5.850E-06,0.012
5.860E-06,0.012
5.870E-06,0.012
5.880E-06,0.012
5.890E-06,0.016
5.900E-06,0.016
5.910E-06,0.016
5.920E-06,0.008
5.930E-06,0.008
5.940E-06,0.012
5.950E-06,0.008
5.960E-06,0.008
5.970E-06,0.012
5.980E-06,0.008
5.990E-06,0.012
6.000E-06,0.012
6.010E-06,0.012
6.020E-06,0.012
6.030E-06,0.012
6.040E-06,0.008
6.050E-06,0.008
6.060E-06,0.012
6.070E-06,0.012
6.080E-06,0.012
6.090E-06,0.012
6.100E-06,0.004
6.110E-06,0.004
6.120E-06,0.008
6.130E-06,0.012
6.140E-06,0.012
6.150E-06,0.004
6.160E-06,0.004
6.170E-06,0.008
6.180E-06,0.008
6.190E-06,0.008
6.200E-06,0.008
6.210E-06,0.004
6.220E-06,0.004
6.230E-06,0.004
6.240E-06,0.004
6.250E-06,0.008
6.260E-06,0.008
6.270E-06,0.008
6.280E-06,0.008
6.290E-06,0.008
6.300E-06,0.008
6.310E-06,0.008
6.320E-06,0.004
6.330E-06,0.004
6.340E-06,0.008
6.350E-06,0.012
6.360E-06,0.000
