mediciones/Mediciones filtradas (saque las feas)/5-27/-15/WaveData51154.csv

#timebase=2000000(ps)
,#voltbase=100000(mv/100)
#size=4000
-5.650E-06,0.044
-5.640E-06,0.052
-5.630E-06,0.032
-5.620E-06,0.008
-5.610E-06,-0.024
-5.600E-06,-0.048
-5.590E-06,-0.064
-5.580E-06,-0.044
-5.570E-06,-0.008
-5.560E-06,0.024
-5.550E-06,0.036
-5.540E-06,0.016
-5.530E-06,0.004
-5.520E-06,-0.008
-5.510E-06,-0.008
-5.500E-06,0.012
-5.490E-06,0.036
-5.480E-06,0.056
-5.470E-06,0.056
-5.460E-06,0.048
-5.450E-06,0.032
-5.440E-06,0.024
-5.430E-06,0.040
-5.420E-06,0.048
-5.410E-06,0.060
-5.400E-06,0.056
-5.390E-06,0.048
-5.380E-06,0.032
-5.370E-06,0.016
-5.360E-06,0.008
-5.350E-06,0.008
-5.340E-06,0.028
-5.330E-06,0.036
-5.320E-06,0.056
-5.310E-06,0.060
-5.300E-06,0.040
-5.290E-06,0.008
-5.280E-06,-0.028
-5.270E-06,-0.088
-5.260E-06,-0.160
-5.250E-06,-0.236
-5.240E-06,-0.224
-5.230E-06,-0.160
-5.220E-06,-0.052
-5.210E-06,0.072
-5.200E-06,0.124
-5.190E-06,0.096
-5.180E-06,0.020
-5.170E-06,-0.040
-5.160E-06,-0.076
-5.150E-06,-0.072
-5.140E-06,-0.008
-5.130E-06,0.036
-5.120E-06,0.072
-5.110E-06,0.044
-5.100E-06,0.008
-5.090E-06,-0.008
-5.080E-06,-0.008
-5.070E-06,0.012
-5.060E-06,0.028
-5.050E-06,0.032
-5.040E-06,0.024
-5.030E-06,0.000
-5.020E-06,-0.028
-5.010E-06,-0.076
-5.000E-06,-0.104
-4.990E-06,-0.096
-4.980E-06,-0.064
-4.970E-06,0.036
-4.960E-06,0.104
-4.950E-06,0.072
-4.940E-06,0.044
-4.930E-06,-0.028
-4.920E-06,-0.036
-4.910E-06,-0.052
-4.900E-06,-0.012
-4.890E-06,0.044
-4.880E-06,0.072
-4.870E-06,0.052
-4.860E-06,0.008
-4.850E-06,-0.024
-4.840E-06,-0.020
-4.830E-06,0.008
-4.820E-06,0.048
-4.810E-06,0.072
-4.800E-06,0.068
-4.790E-06,0.052
-4.780E-06,0.032
-4.770E-06,0.024
-4.760E-06,0.044
-4.750E-06,0.060
-4.740E-06,0.044
-4.730E-06,-0.020
-4.720E-06,-0.080
-4.710E-06,-0.104
-4.700E-06,-0.096
-4.690E-06,-0.032
-4.680E-06,0.016
-4.670E-06,0.052
-4.660E-06,0.056
-4.650E-06,0.020
-4.640E-06,-0.028
-4.630E-06,-0.056
-4.620E-06,-0.052
-4.610E-06,-0.004
-4.600E-06,0.032
-4.590E-06,0.028
-4.580E-06,0.024
-4.570E-06,0.000
-4.560E-06,0.000
-4.550E-06,-0.008
-4.540E-06,0.004
-4.530E-06,0.032
-4.520E-06,0.032
-4.510E-06,0.012
-4.500E-06,0.004
-4.490E-06,-0.004
-4.480E-06,0.004
-4.470E-06,0.012
-4.460E-06,0.024
-4.450E-06,0.028
-4.440E-06,0.004
-4.430E-06,-0.004
-4.420E-06,-0.004
-4.410E-06,0.004
-4.400E-06,0.036
-4.390E-06,0.072
-4.380E-06,0.088
-4.370E-06,0.088
-4.360E-06,0.064
-4.350E-06,0.028
-4.340E-06,-0.012
-4.330E-06,-0.056
-4.320E-06,-0.076
-4.310E-06,-0.076
-4.300E-06,-0.052
-4.290E-06,-0.020
-4.280E-06,0.004
-4.270E-06,0.012
-4.260E-06,0.008
-4.250E-06,-0.012
-4.240E-06,-0.020
-4.230E-06,-0.028
-4.220E-06,-0.012
-4.210E-06,0.000
-4.200E-06,0.020
-4.190E-06,0.004
-4.180E-06,0.012
-4.170E-06,0.008
-4.160E-06,0.000
-4.150E-06,-0.004
-4.140E-06,-0.004
-4.130E-06,0.012
-4.120E-06,0.008
-4.110E-06,0.012
-4.100E-06,0.028
-4.090E-06,0.036
-4.080E-06,0.048
-4.070E-06,0.044
-4.060E-06,0.052
-4.050E-06,0.048
-4.040E-06,0.056
-4.030E-06,0.048
-4.020E-06,0.044
-4.010E-06,0.044
-4.000E-06,0.044
-3.990E-06,0.036
-3.980E-06,0.040
-3.970E-06,0.032
-3.960E-06,0.032
-3.950E-06,0.040
-3.940E-06,0.032
-3.930E-06,0.036
-3.920E-06,0.028
-3.910E-06,0.044
-3.900E-06,0.056
-3.890E-06,0.072
-3.880E-06,0.060
-3.870E-06,0.052
-3.860E-06,0.028
-3.850E-06,0.020
-3.840E-06,0.012
-3.830E-06,0.008
-3.820E-06,-0.024
-3.810E-06,-0.052
-3.800E-06,-0.068
-3.790E-06,-0.084
-3.780E-06,-0.068
-3.770E-06,-0.040
-3.760E-06,-0.004
-3.750E-06,0.020
-3.740E-06,0.028
-3.730E-06,0.032
-3.720E-06,0.044
-3.710E-06,0.060
-3.700E-06,0.072
-3.690E-06,0.064
-3.680E-06,0.092
-3.670E-06,0.080
-3.660E-06,0.072
-3.650E-06,0.064
-3.640E-06,0.076
-3.630E-06,0.072
-3.620E-06,0.092
-3.610E-06,0.088
-3.600E-06,0.020
-3.590E-06,-0.052
-3.580E-06,-0.136
-3.570E-06,-0.176
-3.560E-06,-0.148
-3.550E-06,-0.052
-3.540E-06,0.028
-3.530E-06,0.064
-3.520E-06,0.048
-3.510E-06,-0.024
-3.500E-06,-0.092
-3.490E-06,-0.120
-3.480E-06,-0.096
-3.470E-06,-0.024
-3.460E-06,0.028
-3.450E-06,0.068
-3.440E-06,0.052
-3.430E-06,0.044
-3.420E-06,0.028
-3.410E-06,0.052
-3.400E-06,0.076
-3.390E-06,0.108
-3.380E-06,0.116
-3.370E-06,0.060
-3.360E-06,-0.020
-3.350E-06,-0.072
-3.340E-06,-0.092
-3.330E-06,-0.080
-3.320E-06,-0.072
-3.310E-06,-0.072
-3.300E-06,-0.064
-3.290E-06,-0.044
-3.280E-06,-0.024
-3.270E-06,0.020
-3.260E-06,0.040
-3.250E-06,0.072
-3.240E-06,0.076
-3.230E-06,0.036
-3.220E-06,0.036
-3.210E-06,0.020
-3.200E-06,0.044
-3.190E-06,0.060
-3.180E-06,0.048
-3.170E-06,0.008
-3.160E-06,-0.040
-3.150E-06,-0.088
-3.140E-06,-0.160
-3.130E-06,-0.172
-3.120E-06,-0.136
-3.110E-06,-0.056
-3.100E-06,0.032
-3.090E-06,0.060
-3.080E-06,0.000
-3.070E-06,-0.108
-3.060E-06,-0.188
-3.050E-06,-0.172
-3.040E-06,-0.100
-3.030E-06,0.040
-3.020E-06,0.100
-3.010E-06,0.144
-3.000E-06,0.056
-2.990E-06,-0.024
-2.980E-06,-0.040
-2.970E-06,-0.008
-2.960E-06,0.024
-2.950E-06,0.064
-2.940E-06,0.040
-2.930E-06,-0.044
-2.920E-06,-0.076
-2.910E-06,-0.104
-2.900E-06,-0.032
-2.890E-06,-0.012
-2.880E-06,0.024
-2.870E-06,0.012
-2.860E-06,0.008
-2.850E-06,-0.004
-2.840E-06,-0.004
-2.830E-06,-0.008
-2.820E-06,-0.008
-2.810E-06,0.008
-2.800E-06,0.004
-2.790E-06,0.016
-2.780E-06,0.016
-2.770E-06,0.024
-2.760E-06,0.016
-2.750E-06,0.016
-2.740E-06,0.000
-2.730E-06,0.004
-2.720E-06,0.004
-2.710E-06,0.012
-2.700E-06,0.020
-2.690E-06,0.020
-2.680E-06,0.016
-2.670E-06,0.000
-2.660E-06,0.008
-2.650E-06,-0.004
-2.640E-06,0.008
-2.630E-06,0.012
-2.620E-06,0.028
-2.610E-06,0.028
-2.600E-06,0.020
-2.590E-06,0.008
-2.580E-06,0.012
-2.570E-06,0.024
-2.560E-06,0.028
-2.550E-06,0.028
-2.540E-06,0.016
-2.530E-06,0.032
-2.520E-06,0.032
-2.510E-06,0.036
-2.500E-06,0.044
-2.490E-06,0.060
-2.480E-06,0.064
-2.470E-06,0.060
-2.460E-06,0.048
-2.450E-06,0.060
-2.440E-06,0.068
-2.430E-06,0.088
-2.420E-06,0.088
-2.410E-06,0.076
-2.400E-06,0.068
-2.390E-06,0.052
-2.380E-06,0.040
-2.370E-06,0.032
-2.360E-06,0.032
-2.350E-06,0.036
-2.340E-06,0.044
-2.330E-06,0.052
-2.320E-06,0.060
-2.310E-06,0.056
-2.300E-06,0.060
-2.290E-06,0.064
-2.280E-06,0.068
-2.270E-06,0.056
-2.260E-06,0.024
-2.250E-06,-0.012
-2.240E-06,-0.016
-2.230E-06,0.008
-2.220E-06,0.068
-2.210E-06,0.088
-2.200E-06,0.100
-2.190E-06,-0.004
-2.180E-06,-0.152
-2.170E-06,-0.368
-2.160E-06,-0.452
-2.150E-06,-0.456
-2.140E-06,-0.284
-2.130E-06,-0.092
-2.120E-06,0.088
-2.110E-06,0.180
-2.100E-06,0.120
-2.090E-06,0.024
-2.080E-06,-0.084
-2.070E-06,-0.080
-2.060E-06,-0.040
-2.050E-06,0.072
-2.040E-06,0.156
-2.030E-06,0.164
-2.020E-06,0.088
-2.010E-06,-0.040
-2.000E-06,-0.108
-1.990E-06,-0.156
-1.980E-06,-0.136
-1.970E-06,-0.068
-1.960E-06,-0.008
-1.950E-06,0.044
-1.940E-06,0.024
-1.930E-06,0.008
-1.920E-06,-0.004
-1.910E-06,-0.012
-1.900E-06,0.004
-1.890E-06,0.004
-1.880E-06,0.012
-1.870E-06,0.012
-1.860E-06,0.004
-1.850E-06,-0.008
-1.840E-06,-0.032
-1.830E-06,-0.028
-1.820E-06,-0.028
-1.810E-06,-0.016
-1.800E-06,-0.004
-1.790E-06,0.016
-1.780E-06,0.008
-1.770E-06,0.020
-1.760E-06,0.012
-1.750E-06,0.020
-1.740E-06,0.028
-1.730E-06,0.028
-1.720E-06,0.012
-1.710E-06,0.008
-1.700E-06,0.004
-1.690E-06,-0.004
-1.680E-06,0.004
-1.670E-06,0.012
-1.660E-06,0.016
-1.650E-06,0.008
-1.640E-06,0.008
-1.630E-06,-0.004
-1.620E-06,-0.004
-1.610E-06,0.008
-1.600E-06,0.016
-1.590E-06,0.028
-1.580E-06,0.032
-1.570E-06,0.016
-1.560E-06,0.012
-1.550E-06,0.004
-1.540E-06,0.000
-1.530E-06,0.000
-1.520E-06,0.008
-1.510E-06,0.012
-1.500E-06,0.024
-1.490E-06,0.016
-1.480E-06,0.020
-1.470E-06,0.024
-1.460E-06,0.028
-1.450E-06,0.032
-1.440E-06,0.036
-1.430E-06,0.052
-1.420E-06,0.064
-1.410E-06,0.072
-1.400E-06,0.080
-1.390E-06,0.092
-1.380E-06,0.108
-1.370E-06,0.112
-1.360E-06,0.124
-1.350E-06,0.124
-1.340E-06,0.128
-1.330E-06,0.112
-1.320E-06,0.096
-1.310E-06,0.052
-1.300E-06,-0.024
-1.290E-06,-0.080
-1.280E-06,-0.104
-1.270E-06,-0.132
-1.260E-06,-0.148
-1.250E-06,-0.160
-1.240E-06,-0.168
-1.230E-06,-0.140
-1.220E-06,-0.088
-1.210E-06,-0.044
-1.200E-06,0.028
-1.190E-06,0.072
-1.180E-06,0.144
-1.170E-06,0.156
-1.160E-06,0.160
-1.150E-06,0.120
-1.140E-06,0.020
-1.130E-06,-0.136
-1.120E-06,-0.228
-1.110E-06,-0.244
-1.100E-06,-0.160
-1.090E-06,-0.048
-1.080E-06,0.024
-1.070E-06,0.064
-1.060E-06,0.028
-1.050E-06,-0.056
-1.040E-06,-0.100
-1.030E-06,-0.072
-1.020E-06,-0.012
-1.010E-06,0.044
-1.000E-06,0.068
-9.900E-07,0.044
-9.800E-07,-0.008
-9.700E-07,-0.028
-9.600E-07,-0.016
-9.500E-07,-0.008
-9.400E-07,0.024
-9.300E-07,0.036
-9.200E-07,0.028
-9.100E-07,0.016
-9.000E-07,-0.008
-8.900E-07,-0.028
-8.800E-07,-0.028
-8.700E-07,0.008
-8.600E-07,0.032
-8.500E-07,0.056
-8.400E-07,0.060
-8.300E-07,0.068
-8.200E-07,0.060
-8.100E-07,0.064
-8.000E-07,0.080
-7.900E-07,0.084
-7.800E-07,0.092
-7.700E-07,0.100
-7.600E-07,0.060
-7.500E-07,0.024
-7.400E-07,-0.040
-7.300E-07,-0.076
-7.200E-07,-0.096
-7.100E-07,-0.100
-7.000E-07,-0.064
-6.900E-07,-0.020
-6.800E-07,-0.008
-6.700E-07,-0.004
-6.600E-07,-0.008
-6.500E-07,-0.028
-6.400E-07,-0.040
-6.300E-07,-0.020
-6.200E-07,0.008
-6.100E-07,0.044
-6.000E-07,0.028
-5.900E-07,0.020
-5.800E-07,-0.008
-5.700E-07,-0.004
-5.600E-07,-0.004
-5.500E-07,0.024
-5.400E-07,0.056
-5.300E-07,0.080
-5.200E-07,0.060
-5.100E-07,0.040
-5.000E-07,0.032
-4.900E-07,0.024
-4.800E-07,0.044
-4.700E-07,0.076
-4.600E-07,0.084
-4.500E-07,0.096
-4.400E-07,0.088
-4.300E-07,0.088
-4.200E-07,0.080
-4.100E-07,0.080
-4.000E-07,0.092
-3.900E-07,0.112
-3.800E-07,0.128
-3.700E-07,0.136
-3.600E-07,0.128
-3.500E-07,0.128
-3.400E-07,0.108
-3.300E-07,0.092
-3.200E-07,0.080
-3.100E-07,0.080
-3.000E-07,0.088
-2.900E-07,0.124
-2.800E-07,0.140
-2.700E-07,0.172
-2.600E-07,0.180
-2.500E-07,0.172
-2.400E-07,0.152
-2.300E-07,0.124
-2.200E-07,0.112
-2.100E-07,0.120
-2.000E-07,0.132
-1.900E-07,0.144
-1.800E-07,0.148
-1.700E-07,0.144
-1.600E-07,0.132
-1.500E-07,0.124
-1.400E-07,0.124
-1.300E-07,0.124
-1.200E-07,0.136
-1.100E-07,0.132
-1.000E-07,0.132
-9.000E-08,0.100
-8.000E-08,0.056
-7.000E-08,0.000
-6.000E-08,-0.024
-5.000E-08,-0.044
-4.000E-08,-0.024
-3.000E-08,0.056
-2.000E-08,0.144
-1.000E-08,0.204
0.000E+00,0.220
1.000E-08,0.152
2.000E-08,0.044
3.000E-08,-0.024
4.000E-08,-0.044
5.000E-08,-0.056
6.000E-08,-0.136
7.000E-08,-0.272
8.000E-08,-0.496
9.000E-08,-0.512
1.000E-07,-0.512
1.100E-07,-0.512
1.200E-07,-0.512
1.300E-07,-0.288
1.400E-07,-0.040
1.500E-07,0.060
1.600E-07,0.096
1.700E-07,-0.020
1.800E-07,-0.052
1.900E-07,-0.036
2.000E-07,-0.008
2.100E-07,0.048
2.200E-07,0.072
2.300E-07,0.060
2.400E-07,0.040
2.500E-07,0.028
2.600E-07,0.028
2.700E-07,0.040
2.800E-07,0.072
2.900E-07,0.096
3.000E-07,0.088
3.100E-07,0.056
3.200E-07,0.040
3.300E-07,0.012
3.400E-07,0.020
3.500E-07,0.048
3.600E-07,0.068
3.700E-07,0.092
3.800E-07,0.092
3.900E-07,0.076
4.000E-07,0.056
4.100E-07,0.060
4.200E-07,0.076
4.300E-07,0.100
4.400E-07,0.116
4.500E-07,0.128
4.600E-07,0.144
4.700E-07,0.132
4.800E-07,0.140
4.900E-07,0.136
5.000E-07,0.144
5.100E-07,0.168
5.200E-07,0.176
5.300E-07,0.192
5.400E-07,0.188
5.500E-07,0.168
5.600E-07,0.160
5.700E-07,0.156
5.800E-07,0.156
5.900E-07,0.164
6.000E-07,0.168
6.100E-07,0.172
6.200E-07,0.168
6.300E-07,0.160
6.400E-07,0.152
6.500E-07,0.156
6.600E-07,0.156
6.700E-07,0.160
6.800E-07,0.156
6.900E-07,0.152
7.000E-07,0.144
7.100E-07,0.144
7.200E-07,0.140
7.300E-07,0.144
7.400E-07,0.148
7.500E-07,0.136
7.600E-07,0.108
7.700E-07,0.092
7.800E-07,0.076
7.900E-07,0.076
8.000E-07,0.088
8.100E-07,0.108
8.200E-07,0.124
8.300E-07,0.136
8.400E-07,0.128
8.500E-07,0.108
8.600E-07,0.092
8.700E-07,0.060
8.800E-07,0.048
8.900E-07,0.056
9.000E-07,0.076
9.100E-07,0.076
9.200E-07,0.068
9.300E-07,0.036
9.400E-07,-0.016
9.500E-07,-0.068
9.600E-07,-0.104
9.700E-07,-0.108
9.800E-07,-0.064
9.900E-07,-0.028
1.000E-06,0.036
1.010E-06,0.060
1.020E-06,0.012
1.030E-06,-0.028
1.040E-06,-0.084
1.050E-06,-0.076
1.060E-06,-0.028
1.070E-06,0.028
1.080E-06,0.096
1.090E-06,0.160
1.100E-06,0.172
1.110E-06,0.136
1.120E-06,0.104
1.130E-06,0.092
1.140E-06,0.108
1.150E-06,0.140
1.160E-06,0.176
1.170E-06,0.192
1.180E-06,0.196
1.190E-06,0.180
1.200E-06,0.160
1.210E-06,0.152
1.220E-06,0.144
1.230E-06,0.152
1.240E-06,0.180
1.250E-06,0.176
1.260E-06,0.180
1.270E-06,0.172
1.280E-06,0.160
1.290E-06,0.160
1.300E-06,0.152
1.310E-06,0.160
1.320E-06,0.168
1.330E-06,0.172
1.340E-06,0.168
1.350E-06,0.168
1.360E-06,0.164
1.370E-06,0.156
1.380E-06,0.152
1.390E-06,0.156
1.400E-06,0.160
1.410E-06,0.164
1.420E-06,0.164
1.430E-06,0.164
1.440E-06,0.156
1.450E-06,0.156
1.460E-06,0.156
1.470E-06,0.160
1.480E-06,0.160
1.490E-06,0.164
1.500E-06,0.164
1.510E-06,0.156
1.520E-06,0.156
1.530E-06,0.160
1.540E-06,0.156
1.550E-06,0.160
1.560E-06,0.160
1.570E-06,0.160
1.580E-06,0.160
1.590E-06,0.152
1.600E-06,0.152
1.610E-06,0.152
1.620E-06,0.152
1.630E-06,0.152
1.640E-06,0.160
1.650E-06,0.152
1.660E-06,0.152
1.670E-06,0.156
1.680E-06,0.156
1.690E-06,0.144
1.700E-06,0.136
1.710E-06,0.140
1.720E-06,0.140
1.730E-06,0.152
1.740E-06,0.152
1.750E-06,0.152
1.760E-06,0.148
1.770E-06,0.144
1.780E-06,0.140
1.790E-06,0.148
1.800E-06,0.152
1.810E-06,0.156
1.820E-06,0.160
1.830E-06,0.152
1.840E-06,0.148
1.850E-06,0.148
1.860E-06,0.148
1.870E-06,0.152
1.880E-06,0.156
1.890E-06,0.156
1.900E-06,0.148
1.910E-06,0.144
1.920E-06,0.148
1.930E-06,0.140
1.940E-06,0.140
1.950E-06,0.144
1.960E-06,0.140
1.970E-06,0.148
1.980E-06,0.144
1.990E-06,0.140
2.000E-06,0.144
2.010E-06,0.140
2.020E-06,0.144
2.030E-06,0.140
2.040E-06,0.144
2.050E-06,0.144
2.060E-06,0.144
2.070E-06,0.144
2.080E-06,0.148
2.090E-06,0.148
2.100E-06,0.140
2.110E-06,0.136
2.120E-06,0.144
2.130E-06,0.140
2.140E-06,0.144
2.150E-06,0.144
2.160E-06,0.144
2.170E-06,0.140
2.180E-06,0.144
2.190E-06,0.144
2.200E-06,0.144
2.210E-06,0.136
2.220E-06,0.136
2.230E-06,0.136
2.240E-06,0.136
2.250E-06,0.132
2.260E-06,0.136
2.270E-06,0.136
2.280E-06,0.140
2.290E-06,0.132
2.300E-06,0.136
2.310E-06,0.132
2.320E-06,0.136
2.330E-06,0.140
2.340E-06,0.140
2.350E-06,0.136
2.360E-06,0.140
2.370E-06,0.132
2.380E-06,0.128
2.390E-06,0.128
2.400E-06,0.132
2.410E-06,0.128
2.420E-06,0.132
2.430E-06,0.128
2.440E-06,0.128
2.450E-06,0.132
2.460E-06,0.128
2.470E-06,0.128
2.480E-06,0.128
2.490E-06,0.132
2.500E-06,0.132
2.510E-06,0.136
2.520E-06,0.136
2.530E-06,0.128
2.540E-06,0.128
2.550E-06,0.128
2.560E-06,0.128
2.570E-06,0.132
2.580E-06,0.132
2.590E-06,0.132
2.600E-06,0.128
2.610E-06,0.128
2.620E-06,0.128
2.630E-06,0.128
2.640E-06,0.128
2.650E-06,0.132
2.660E-06,0.128
2.670E-06,0.132
2.680E-06,0.128
2.690E-06,0.128
2.700E-06,0.128
2.710E-06,0.124
2.720E-06,0.124
2.730E-06,0.128
2.740E-06,0.128
2.750E-06,0.124
2.760E-06,0.128
2.770E-06,0.124
2.780E-06,0.124
2.790E-06,0.120
2.800E-06,0.120
2.810E-06,0.120
2.820E-06,0.120
2.830E-06,0.128
2.840E-06,0.128
2.850E-06,0.128
2.860E-06,0.124
2.870E-06,0.124
2.880E-06,0.124
2.890E-06,0.128
2.900E-06,0.128
2.910E-06,0.128
2.920E-06,0.128
2.930E-06,0.124
2.940E-06,0.124
2.950E-06,0.124
2.960E-06,0.128
2.970E-06,0.124
2.980E-06,0.128
2.990E-06,0.124
3.000E-06,0.128
3.010E-06,0.120
3.020E-06,0.120
3.030E-06,0.116
3.040E-06,0.116
3.050E-06,0.120
3.060E-06,0.120
3.070E-06,0.124
3.080E-06,0.124
3.090E-06,0.120
3.100E-06,0.116
3.110E-06,0.112
3.120E-06,0.112
3.130E-06,0.112
3.140E-06,0.108
3.150E-06,0.112
3.160E-06,0.116
3.170E-06,0.112
3.180E-06,0.116
3.190E-06,0.112
3.200E-06,0.112
3.210E-06,0.116
3.220E-06,0.116
3.230E-06,0.108
3.240E-06,0.112
3.250E-06,0.112
3.260E-06,0.120
3.270E-06,0.112
3.280E-06,0.108
3.290E-06,0.116
3.300E-06,0.112
3.310E-06,0.112
3.320E-06,0.108
3.330E-06,0.108
3.340E-06,0.108
3.350E-06,0.108
3.360E-06,0.108
3.370E-06,0.108
3.380E-06,0.104
3.390E-06,0.104
3.400E-06,0.104
3.410E-06,0.104
3.420E-06,0.108
3.430E-06,0.104
3.440E-06,0.108
3.450E-06,0.108
3.460E-06,0.100
3.470E-06,0.100
3.480E-06,0.100
3.490E-06,0.096
3.500E-06,0.104
3.510E-06,0.104
3.520E-06,0.104
3.530E-06,0.104
3.540E-06,0.100
3.550E-06,0.100
3.560E-06,0.096
3.570E-06,0.100
3.580E-06,0.100
3.590E-06,0.096
3.600E-06,0.100
3.610E-06,0.096
3.620E-06,0.100
3.630E-06,0.096
3.640E-06,0.096
3.650E-06,0.100
3.660E-06,0.100
3.670E-06,0.096
3.680E-06,0.092
3.690E-06,0.092
3.700E-06,0.096
3.710E-06,0.096
3.720E-06,0.096
3.730E-06,0.096
3.740E-06,0.092
3.750E-06,0.092
3.760E-06,0.092
3.770E-06,0.092
3.780E-06,0.092
3.790E-06,0.092
3.800E-06,0.096
3.810E-06,0.096
3.820E-06,0.096
3.830E-06,0.096
3.840E-06,0.096
3.850E-06,0.092
3.860E-06,0.088
3.870E-06,0.092
3.880E-06,0.096
3.890E-06,0.088
3.900E-06,0.088
3.910E-06,0.092
3.920E-06,0.092
3.930E-06,0.092
3.940E-06,0.088
3.950E-06,0.092
3.960E-06,0.092
3.970E-06,0.088
3.980E-06,0.088
3.990E-06,0.088
4.000E-06,0.092
4.010E-06,0.088
4.020E-06,0.092
4.030E-06,0.092
4.040E-06,0.092
4.050E-06,0.092
4.060E-06,0.088
4.070E-06,0.088
4.080E-06,0.092
4.090E-06,0.088
4.100E-06,0.092
4.110E-06,0.088
4.120E-06,0.084
4.130E-06,0.088
4.140E-06,0.084
4.150E-06,0.088
4.160E-06,0.084
4.170E-06,0.084
4.180E-06,0.080
4.190E-06,0.076
4.200E-06,0.080
4.210E-06,0.080
4.220E-06,0.088
4.230E-06,0.084
4.240E-06,0.084
4.250E-06,0.088
4.260E-06,0.080
4.270E-06,0.084
4.280E-06,0.076
4.290E-06,0.076
4.300E-06,0.080
4.310E-06,0.084
4.320E-06,0.080
4.330E-06,0.080
4.340E-06,0.076
4.350E-06,0.076
4.360E-06,0.080
4.370E-06,0.080
4.380E-06,0.076
4.390E-06,0.080
4.400E-06,0.080
4.410E-06,0.072
4.420E-06,0.080
4.430E-06,0.076
4.440E-06,0.072
4.450E-06,0.076
4.460E-06,0.072
4.470E-06,0.072
4.480E-06,0.076
4.490E-06,0.072
4.500E-06,0.072
4.510E-06,0.072
4.520E-06,0.072
4.530E-06,0.072
4.540E-06,0.068
4.550E-06,0.072
4.560E-06,0.068
4.570E-06,0.072
4.580E-06,0.072
4.590E-06,0.072
4.600E-06,0.076
4.610E-06,0.076
4.620E-06,0.068
4.630E-06,0.072
4.640E-06,0.072
4.650E-06,0.068
4.660E-06,0.068
4.670E-06,0.068
4.680E-06,0.068
4.690E-06,0.064
4.700E-06,0.068
4.710E-06,0.068
4.720E-06,0.064
4.730E-06,0.064
4.740E-06,0.064
4.750E-06,0.064
4.760E-06,0.060
4.770E-06,0.068
4.780E-06,0.060
4.790E-06,0.064
4.800E-06,0.060
4.810E-06,0.060
4.820E-06,0.060
4.830E-06,0.060
4.840E-06,0.064
4.850E-06,0.060
4.860E-06,0.060
4.870E-06,0.060
4.880E-06,0.060
4.890E-06,0.064
4.900E-06,0.064
4.910E-06,0.060
4.920E-06,0.060
4.930E-06,0.060
4.940E-06,0.060
4.950E-06,0.064
4.960E-06,0.064
4.970E-06,0.056
4.980E-06,0.056
4.990E-06,0.064
5.000E-06,0.064
5.010E-06,0.056
5.020E-06,0.056
5.030E-06,0.056
5.040E-06,0.060
5.050E-06,0.060
5.060E-06,0.052
5.070E-06,0.056
5.080E-06,0.060
5.090E-06,0.056
5.100E-06,0.056
5.110E-06,0.052
5.120E-06,0.052
5.130E-06,0.052
5.140E-06,0.056
5.150E-06,0.056
5.160E-06,0.052
5.170E-06,0.056
5.180E-06,0.048
5.190E-06,0.052
5.200E-06,0.052
5.210E-06,0.056
5.220E-06,0.056
5.230E-06,0.052
5.240E-06,0.052
5.250E-06,0.052
5.260E-06,0.052
5.270E-06,0.048
5.280E-06,0.056
5.290E-06,0.052
5.300E-06,0.052
5.310E-06,0.052
5.320E-06,0.048
5.330E-06,0.048
5.340E-06,0.052
5.350E-06,0.044
5.360E-06,0.048
5.370E-06,0.044
5.380E-06,0.044
5.390E-06,0.048
5.400E-06,0.048
5.410E-06,0.048
5.420E-06,0.044
5.430E-06,0.048
5.440E-06,0.044
5.450E-06,0.044
5.460E-06,0.048
5.470E-06,0.048
5.480E-06,0.044
5.490E-06,0.048
5.500E-06,0.040
5.510E-06,0.040
5.520E-06,0.044
5.530E-06,0.044
5.540E-06,0.044
5.550E-06,0.044
5.560E-06,0.040
5.570E-06,0.040
5.580E-06,0.040
5.590E-06,0.036
5.600E-06,0.040
5.610E-06,0.044
5.620E-06,0.040
5.630E-06,0.044
5.640E-06,0.040
5.650E-06,0.040
5.660E-06,0.044
5.670E-06,0.040
5.680E-06,0.044
5.690E-06,0.040
5.700E-06,0.044
5.710E-06,0.040
5.720E-06,0.044
5.730E-06,0.040
5.740E-06,0.032
5.750E-06,0.040
5.760E-06,0.040
5.770E-06,0.036
5.780E-06,0.036
5.790E-06,0.036
5.800E-06,0.032
5.810E-06,0.036
5.820E-06,0.040
5.830E-06,0.036
5.840E-06,0.040
5.850E-06,0.032
5.860E-06,0.036
5.870E-06,0.040
5.880E-06,0.036
5.890E-06,0.036
5.900E-06,0.032
5.910E-06,0.036
5.920E-06,0.040
5.930E-06,0.040
5.940E-06,0.032
5.950E-06,0.036
5.960E-06,0.032
5.970E-06,0.028
5.980E-06,0.032
5.990E-06,0.032
6.000E-06,0.032
6.010E-06,0.032
6.020E-06,0.036
6.030E-06,0.032
6.040E-06,0.024
6.050E-06,0.024
6.060E-06,0.028
6.070E-06,0.028
6.080E-06,0.032
6.090E-06,0.028
6.100E-06,0.032
6.110E-06,0.024
6.120E-06,0.028
6.130E-06,0.028
6.140E-06,0.032
6.150E-06,0.028
6.160E-06,0.036
6.170E-06,0.032
6.180E-06,0.024
6.190E-06,0.024
6.200E-06,0.028
6.210E-06,0.032
6.220E-06,0.024
6.230E-06,0.028
6.240E-06,0.028
6.250E-06,0.028
6.260E-06,0.028
6.270E-06,0.024
6.280E-06,0.028
6.290E-06,0.024
6.300E-06,0.024
6.310E-06,0.032
6.320E-06,0.028
