mediciones/Mediciones filtradas (saque las feas)/5-27/-15/WaveData51155.csv

#timebase=2000000(ps)
,#voltbase=1000000(mv/100)
#size=4000
-5.650E-06,0.160
-5.640E-06,0.200
-5.630E-06,0.280
-5.620E-06,0.360
-5.610E-06,0.360
-5.600E-06,0.400
-5.590E-06,0.440
-5.580E-06,0.320
-5.570E-06,0.280
-5.560E-06,0.240
-5.550E-06,0.280
-5.540E-06,0.400
-5.530E-06,0.560
-5.520E-06,0.720
-5.510E-06,0.720
-5.500E-06,0.680
-5.490E-06,0.640
-5.480E-06,0.680
-5.470E-06,0.760
-5.460E-06,0.960
-5.450E-06,1.000
-5.440E-06,1.040
-5.430E-06,0.960
-5.420E-06,0.920
-5.410E-06,0.840
-5.400E-06,0.840
-5.390E-06,0.840
-5.380E-06,0.880
-5.370E-06,0.880
-5.360E-06,0.880
-5.350E-06,0.640
-5.340E-06,0.560
-5.330E-06,0.560
-5.320E-06,0.440
-5.310E-06,0.440
-5.300E-06,0.480
-5.290E-06,0.440
-5.280E-06,0.360
-5.270E-06,0.240
-5.260E-06,0.280
-5.250E-06,-0.160
-5.240E-06,-0.160
-5.230E-06,-0.520
-5.220E-06,-0.480
-5.210E-06,-0.640
-5.200E-06,-0.680
-5.190E-06,-0.080
-5.180E-06,0.280
-5.170E-06,1.040
-5.160E-06,1.280
-5.150E-06,1.080
-5.140E-06,0.880
-5.130E-06,0.440
-5.120E-06,0.480
-5.110E-06,0.840
-5.100E-06,1.120
-5.090E-06,1.440
-5.080E-06,1.280
-5.070E-06,0.960
-5.060E-06,0.480
-5.050E-06,0.120
-5.040E-06,0.120
-5.030E-06,-0.040
-5.020E-06,-0.200
-5.010E-06,-0.480
-5.000E-06,-1.120
-4.990E-06,-1.160
-4.980E-06,-1.720
-4.970E-06,-2.160
-4.960E-06,-2.360
-4.950E-06,-2.480
-4.940E-06,-1.960
-4.930E-06,-1.360
-4.920E-06,-0.840
-4.910E-06,-0.560
-4.900E-06,-0.720
-4.890E-06,-0.840
-4.880E-06,-0.840
-4.870E-06,-0.560
-4.860E-06,-0.040
-4.850E-06,0.360
-4.840E-06,0.480
-4.830E-06,0.400
-4.820E-06,0.240
-4.810E-06,0.080
-4.800E-06,0.160
-4.790E-06,0.240
-4.780E-06,0.360
-4.770E-06,0.360
-4.760E-06,0.400
-4.750E-06,0.080
-4.740E-06,0.000
-4.730E-06,-0.160
-4.720E-06,-0.440
-4.710E-06,-0.200
-4.700E-06,-0.680
-4.690E-06,-0.600
-4.680E-06,-1.000
-4.670E-06,-1.160
-4.660E-06,-0.920
-4.650E-06,-1.000
-4.640E-06,-0.800
-4.630E-06,-0.640
-4.620E-06,-0.880
-4.610E-06,-1.080
-4.600E-06,-1.080
-4.590E-06,-1.120
-4.580E-06,-0.560
-4.570E-06,-0.320
-4.560E-06,0.040
-4.550E-06,0.280
-4.540E-06,0.280
-4.530E-06,0.400
-4.520E-06,0.440
-4.510E-06,0.600
-4.500E-06,0.760
-4.490E-06,0.880
-4.480E-06,0.880
-4.470E-06,0.960
-4.460E-06,0.840
-4.450E-06,0.800
-4.440E-06,0.760
-4.430E-06,0.680
-4.420E-06,0.640
-4.410E-06,0.440
-4.400E-06,0.200
-4.390E-06,0.040
-4.380E-06,-0.120
-4.370E-06,-0.280
-4.360E-06,-0.360
-4.350E-06,-0.480
-4.340E-06,-0.680
-4.330E-06,-0.920
-4.320E-06,-1.160
-4.310E-06,-1.400
-4.300E-06,-1.680
-4.290E-06,-1.920
-4.280E-06,-2.040
-4.270E-06,-2.120
-4.260E-06,-2.000
-4.250E-06,-1.920
-4.240E-06,-1.840
-4.230E-06,-1.800
-4.220E-06,-1.800
-4.210E-06,-1.800
-4.200E-06,-1.640
-4.190E-06,-1.400
-4.180E-06,-1.200
-4.170E-06,-1.120
-4.160E-06,-1.080
-4.150E-06,-0.960
-4.140E-06,-0.960
-4.130E-06,-0.720
-4.120E-06,-0.480
-4.110E-06,-0.320
-4.100E-06,0.000
-4.090E-06,0.120
-4.080E-06,0.320
-4.070E-06,0.480
-4.060E-06,0.600
-4.050E-06,0.720
-4.040E-06,0.800
-4.030E-06,0.800
-4.020E-06,0.840
-4.010E-06,0.760
-4.000E-06,0.640
-3.990E-06,0.640
-3.980E-06,0.640
-3.970E-06,0.520
-3.960E-06,0.400
-3.950E-06,0.080
-3.940E-06,-0.080
-3.930E-06,-0.360
-3.920E-06,-0.480
-3.910E-06,-0.520
-3.900E-06,-0.680
-3.890E-06,-0.720
-3.880E-06,-0.840
-3.870E-06,-0.960
-3.860E-06,-1.080
-3.850E-06,-1.080
-3.840E-06,-1.160
-3.830E-06,-1.160
-3.820E-06,-1.240
-3.810E-06,-1.120
-3.800E-06,-1.120
-3.790E-06,-1.000
-3.780E-06,-1.120
-3.770E-06,-1.080
-3.760E-06,-1.120
-3.750E-06,-1.080
-3.740E-06,-0.840
-3.730E-06,-0.680
-3.720E-06,-0.520
-3.710E-06,-0.440
-3.700E-06,-0.360
-3.690E-06,-0.400
-3.680E-06,-0.280
-3.670E-06,-0.280
-3.660E-06,-0.040
-3.650E-06,0.000
-3.640E-06,0.240
-3.630E-06,0.360
-3.620E-06,0.360
-3.610E-06,0.440
-3.600E-06,0.440
-3.590E-06,0.440
-3.580E-06,0.520
-3.570E-06,0.680
-3.560E-06,0.320
-3.550E-06,0.360
-3.540E-06,-0.080
-3.530E-06,-0.040
-3.520E-06,0.080
-3.510E-06,0.400
-3.500E-06,0.680
-3.490E-06,0.760
-3.480E-06,0.480
-3.470E-06,0.200
-3.460E-06,-0.040
-3.450E-06,0.000
-3.440E-06,0.280
-3.430E-06,0.480
-3.420E-06,0.480
-3.410E-06,0.600
-3.400E-06,0.320
-3.390E-06,0.200
-3.380E-06,0.080
-3.370E-06,0.200
-3.360E-06,0.320
-3.350E-06,0.440
-3.340E-06,0.520
-3.330E-06,0.400
-3.320E-06,0.200
-3.310E-06,0.160
-3.300E-06,-0.080
-3.290E-06,0.320
-3.280E-06,-0.080
-3.270E-06,0.320
-3.260E-06,-0.120
-3.250E-06,-0.360
-3.240E-06,-0.280
-3.230E-06,-0.440
-3.220E-06,-0.160
-3.210E-06,-0.200
-3.200E-06,-0.360
-3.190E-06,-0.360
-3.180E-06,-0.440
-3.170E-06,-0.360
-3.160E-06,-0.400
-3.150E-06,-0.520
-3.140E-06,-0.520
-3.130E-06,-0.920
-3.120E-06,-0.800
-3.110E-06,-1.160
-3.100E-06,-0.960
-3.090E-06,-0.960
-3.080E-06,-0.560
-3.070E-06,-0.200
-3.060E-06,-0.080
-3.050E-06,-0.040
-3.040E-06,-0.960
-3.030E-06,-1.080
-3.020E-06,-1.400
-3.010E-06,-0.680
-3.000E-06,0.360
-2.990E-06,1.360
-2.980E-06,1.680
-2.970E-06,1.280
-2.960E-06,0.400
-2.950E-06,0.160
-2.940E-06,-0.040
-2.930E-06,0.360
-2.920E-06,0.320
-2.910E-06,0.080
-2.900E-06,-0.440
-2.890E-06,-0.720
-2.880E-06,-0.880
-2.870E-06,-0.600
-2.860E-06,-0.360
-2.850E-06,-0.200
-2.840E-06,-0.320
-2.830E-06,-0.480
-2.820E-06,-0.680
-2.810E-06,-0.800
-2.800E-06,-0.880
-2.790E-06,-1.240
-2.780E-06,-1.520
-2.770E-06,-1.880
-2.760E-06,-2.200
-2.750E-06,-2.360
-2.740E-06,-2.520
-2.730E-06,-2.560
-2.720E-06,-2.680
-2.710E-06,-2.720
-2.700E-06,-2.800
-2.690E-06,-2.840
-2.680E-06,-2.800
-2.670E-06,-2.760
-2.660E-06,-2.720
-2.650E-06,-2.640
-2.640E-06,-2.720
-2.630E-06,-2.760
-2.620E-06,-2.840
-2.610E-06,-3.040
-2.600E-06,-3.040
-2.590E-06,-3.160
-2.580E-06,-3.160
-2.570E-06,-3.320
-2.560E-06,-3.400
-2.550E-06,-3.440
-2.540E-06,-3.360
-2.530E-06,-3.360
-2.520E-06,-3.280
-2.510E-06,-3.320
-2.500E-06,-3.320
-2.490E-06,-3.240
-2.480E-06,-3.200
-2.470E-06,-3.120
-2.460E-06,-2.960
-2.450E-06,-2.800
-2.440E-06,-2.800
-2.430E-06,-2.840
-2.420E-06,-2.720
-2.410E-06,-2.600
-2.400E-06,-2.560
-2.390E-06,-2.440
-2.380E-06,-2.400
-2.370E-06,-2.400
-2.360E-06,-2.480
-2.350E-06,-2.520
-2.340E-06,-2.480
-2.330E-06,-2.520
-2.320E-06,-2.520
-2.310E-06,-2.520
-2.300E-06,-2.560
-2.290E-06,-2.480
-2.280E-06,-2.520
-2.270E-06,-2.560
-2.260E-06,-2.480
-2.250E-06,-2.440
-2.240E-06,-2.320
-2.230E-06,-2.200
-2.220E-06,-2.360
-2.210E-06,-2.160
-2.200E-06,-2.320
-2.190E-06,-2.240
-2.180E-06,-2.160
-2.170E-06,-2.240
-2.160E-06,-2.160
-2.150E-06,-2.840
-2.140E-06,-3.520
-2.130E-06,-4.240
-2.120E-06,-4.800
-2.110E-06,-4.880
-2.100E-06,-4.560
-2.090E-06,-3.800
-2.080E-06,-3.160
-2.070E-06,-2.640
-2.060E-06,-2.520
-2.050E-06,-2.280
-2.040E-06,-1.920
-2.030E-06,-1.400
-2.020E-06,-0.200
-2.010E-06,0.720
-2.000E-06,1.560
-1.990E-06,2.040
-1.980E-06,1.520
-1.970E-06,1.360
-1.960E-06,0.800
-1.950E-06,0.440
-1.940E-06,0.320
-1.930E-06,0.160
-1.920E-06,0.000
-1.910E-06,-0.400
-1.900E-06,-0.600
-1.890E-06,-0.920
-1.880E-06,-1.280
-1.870E-06,-1.360
-1.860E-06,-1.880
-1.850E-06,-2.040
-1.840E-06,-2.200
-1.830E-06,-2.480
-1.820E-06,-2.520
-1.810E-06,-2.560
-1.800E-06,-2.560
-1.790E-06,-2.240
-1.780E-06,-1.960
-1.770E-06,-1.520
-1.760E-06,-1.320
-1.750E-06,-1.200
-1.740E-06,-1.200
-1.730E-06,-1.160
-1.720E-06,-0.920
-1.710E-06,-0.680
-1.700E-06,-0.520
-1.690E-06,-0.400
-1.680E-06,-0.480
-1.670E-06,-0.720
-1.660E-06,-1.000
-1.650E-06,-1.160
-1.640E-06,-1.360
-1.630E-06,-1.400
-1.620E-06,-1.640
-1.610E-06,-1.800
-1.600E-06,-1.960
-1.590E-06,-2.160
-1.580E-06,-2.160
-1.570E-06,-2.160
-1.560E-06,-2.120
-1.550E-06,-1.960
-1.540E-06,-1.920
-1.530E-06,-1.840
-1.520E-06,-1.840
-1.510E-06,-1.680
-1.500E-06,-1.560
-1.490E-06,-1.400
-1.480E-06,-1.280
-1.470E-06,-1.080
-1.460E-06,-0.920
-1.450E-06,-0.720
-1.440E-06,-0.560
-1.430E-06,-0.520
-1.420E-06,-0.320
-1.410E-06,-0.360
-1.400E-06,-0.240
-1.390E-06,-0.200
-1.380E-06,-0.120
-1.370E-06,-0.160
-1.360E-06,-0.240
-1.350E-06,-0.320
-1.340E-06,-0.360
-1.330E-06,-0.480
-1.320E-06,-0.640
-1.310E-06,-0.800
-1.300E-06,-1.080
-1.290E-06,-1.120
-1.280E-06,-1.240
-1.270E-06,-1.480
-1.260E-06,-1.560
-1.250E-06,-1.680
-1.240E-06,-1.680
-1.230E-06,-1.440
-1.220E-06,-1.280
-1.210E-06,-1.240
-1.200E-06,-1.160
-1.190E-06,-1.360
-1.180E-06,-1.360
-1.170E-06,-1.000
-1.160E-06,-0.960
-1.150E-06,-0.640
-1.140E-06,-0.600
-1.130E-06,-0.600
-1.120E-06,-0.480
-1.110E-06,-0.640
-1.100E-06,-0.960
-1.090E-06,-1.440
-1.080E-06,-1.680
-1.070E-06,-1.640
-1.060E-06,-1.160
-1.050E-06,-0.640
-1.040E-06,-0.440
-1.030E-06,-0.640
-1.020E-06,-1.360
-1.010E-06,-1.560
-1.000E-06,-1.680
-9.900E-07,-1.240
-9.800E-07,-0.720
-9.700E-07,-0.440
-9.600E-07,-0.400
-9.500E-07,-0.560
-9.400E-07,-0.760
-9.300E-07,-0.800
-9.200E-07,-0.800
-9.100E-07,-0.680
-9.000E-07,-0.600
-8.900E-07,-0.560
-8.800E-07,-0.440
-8.700E-07,-0.520
-8.600E-07,-0.640
-8.500E-07,-0.840
-8.400E-07,-0.960
-8.300E-07,-0.920
-8.200E-07,-0.800
-8.100E-07,-0.640
-8.000E-07,-0.560
-7.900E-07,-0.400
-7.800E-07,-0.560
-7.700E-07,-0.520
-7.600E-07,-0.560
-7.500E-07,-0.560
-7.400E-07,-0.440
-7.300E-07,-0.520
-7.200E-07,-0.360
-7.100E-07,-0.400
-7.000E-07,-0.640
-6.900E-07,-0.840
-6.800E-07,-1.120
-6.700E-07,-1.240
-6.600E-07,-1.200
-6.500E-07,-1.200
-6.400E-07,-0.960
-6.300E-07,-0.800
-6.200E-07,-0.760
-6.100E-07,-0.760
-6.000E-07,-0.600
-5.900E-07,-0.360
-5.800E-07,-0.040
-5.700E-07,0.160
-5.600E-07,0.360
-5.500E-07,0.440
-5.400E-07,0.440
-5.300E-07,0.320
-5.200E-07,0.600
-5.100E-07,0.680
-5.000E-07,0.840
-4.900E-07,0.840
-4.800E-07,0.720
-4.700E-07,0.600
-4.600E-07,0.320
-4.500E-07,0.320
-4.400E-07,0.240
-4.300E-07,0.160
-4.200E-07,0.120
-4.100E-07,-0.080
-4.000E-07,-0.240
-3.900E-07,-0.440
-3.800E-07,-0.600
-3.700E-07,-0.720
-3.600E-07,-0.760
-3.500E-07,-0.840
-3.400E-07,-0.800
-3.300E-07,-0.720
-3.200E-07,-0.720
-3.100E-07,-0.680
-3.000E-07,-0.720
-2.900E-07,-0.680
-2.800E-07,-0.600
-2.700E-07,-0.400
-2.600E-07,-0.240
-2.500E-07,0.040
-2.400E-07,0.120
-2.300E-07,0.120
-2.200E-07,0.040
-2.100E-07,-0.200
-2.000E-07,-0.480
-1.900E-07,-0.680
-1.800E-07,-0.840
-1.700E-07,-0.880
-1.600E-07,-0.880
-1.500E-07,-0.840
-1.400E-07,-0.920
-1.300E-07,-0.920
-1.200E-07,-1.000
-1.100E-07,-1.080
-1.000E-07,-1.120
-9.000E-08,-1.040
-8.000E-08,-1.000
-7.000E-08,-0.840
-6.000E-08,-0.800
-5.000E-08,-0.720
-4.000E-08,-0.680
-3.000E-08,-0.720
-2.000E-08,-0.520
-1.000E-08,-0.440
0.000E+00,-0.120
1.000E-08,0.320
2.000E-08,0.520
3.000E-08,0.840
4.000E-08,0.480
5.000E-08,0.000
6.000E-08,-0.600
7.000E-08,-1.160
8.000E-08,-1.040
9.000E-08,-0.880
1.000E-07,-1.040
1.100E-07,-1.120
1.200E-07,-2.840
1.300E-07,-3.840
1.400E-07,-4.480
1.500E-07,-4.480
1.600E-07,-3.240
1.700E-07,-1.920
1.800E-07,-1.000
1.900E-07,-0.080
2.000E-07,0.240
2.100E-07,0.200
2.200E-07,0.880
2.300E-07,1.000
2.400E-07,1.360
2.500E-07,1.600
2.600E-07,1.440
2.700E-07,1.560
2.800E-07,1.320
2.900E-07,1.360
3.000E-07,1.560
3.100E-07,1.720
3.200E-07,1.920
3.300E-07,1.760
3.400E-07,1.320
3.500E-07,0.880
3.600E-07,0.280
3.700E-07,-0.120
3.800E-07,-0.160
3.900E-07,-0.240
4.000E-07,-0.240
4.100E-07,-0.400
4.200E-07,-0.640
4.300E-07,-1.000
4.400E-07,-1.160
4.500E-07,-1.320
4.600E-07,-1.400
4.700E-07,-1.440
4.800E-07,-1.440
4.900E-07,-1.360
5.000E-07,-1.320
5.100E-07,-1.280
5.200E-07,-1.160
5.300E-07,-0.960
5.400E-07,-0.840
5.500E-07,-0.640
5.600E-07,-0.440
5.700E-07,-0.280
5.800E-07,-0.240
5.900E-07,-0.280
6.000E-07,-0.280
6.100E-07,-0.400
6.200E-07,-0.440
6.300E-07,-0.440
6.400E-07,-0.520
6.500E-07,-0.680
6.600E-07,-0.840
6.700E-07,-1.000
6.800E-07,-1.120
6.900E-07,-1.280
7.000E-07,-1.360
7.100E-07,-1.400
7.200E-07,-1.400
7.300E-07,-1.400
7.400E-07,-1.320
7.500E-07,-1.200
7.600E-07,-1.160
7.700E-07,-1.000
7.800E-07,-0.920
7.900E-07,-0.840
8.000E-07,-0.840
8.100E-07,-0.800
8.200E-07,-0.720
8.300E-07,-0.600
8.400E-07,-0.520
8.500E-07,-0.440
8.600E-07,-0.320
8.700E-07,-0.440
8.800E-07,-0.440
8.900E-07,-0.640
9.000E-07,-0.640
9.100E-07,-0.800
9.200E-07,-0.800
9.300E-07,-0.800
9.400E-07,-0.800
9.500E-07,-0.720
9.600E-07,-0.800
9.700E-07,-0.800
9.800E-07,-1.040
9.900E-07,-1.000
1.000E-06,-1.040
1.010E-06,-0.680
1.020E-06,-0.520
1.030E-06,-0.120
1.040E-06,0.320
1.050E-06,0.200
1.060E-06,0.480
1.070E-06,0.240
1.080E-06,0.240
1.090E-06,0.360
1.100E-06,0.360
1.110E-06,0.800
1.120E-06,0.880
1.130E-06,1.000
1.140E-06,0.800
1.150E-06,0.320
1.160E-06,0.000
1.170E-06,-0.320
1.180E-06,-0.360
1.190E-06,-0.240
1.200E-06,-0.120
1.210E-06,0.000
1.220E-06,0.080
1.230E-06,0.120
1.240E-06,0.160
1.250E-06,0.200
1.260E-06,0.280
1.270E-06,0.320
1.280E-06,0.400
1.290E-06,0.480
1.300E-06,0.480
1.310E-06,0.400
1.320E-06,0.280
1.330E-06,0.080
1.340E-06,-0.080
1.350E-06,-0.360
1.360E-06,-0.480
1.370E-06,-0.680
1.380E-06,-0.800
1.390E-06,-1.040
1.400E-06,-1.240
1.410E-06,-1.320
1.420E-06,-1.480
1.430E-06,-1.520
1.440E-06,-1.600
1.450E-06,-1.600
1.460E-06,-1.600
1.470E-06,-1.560
1.480E-06,-1.520
1.490E-06,-1.480
1.500E-06,-1.360
1.510E-06,-1.240
1.520E-06,-1.120
1.530E-06,-0.960
1.540E-06,-0.840
1.550E-06,-0.760
1.560E-06,-0.640
1.570E-06,-0.600
1.580E-06,-0.520
1.590E-06,-0.480
1.600E-06,-0.480
1.610E-06,-0.480
1.620E-06,-0.480
1.630E-06,-0.480
1.640E-06,-0.520
1.650E-06,-0.520
1.660E-06,-0.600
1.670E-06,-0.600
1.680E-06,-0.640
1.690E-06,-0.600
1.700E-06,-0.640
1.710E-06,-0.680
1.720E-06,-0.720
1.730E-06,-0.760
1.740E-06,-0.800
1.750E-06,-0.840
1.760E-06,-0.800
1.770E-06,-0.840
1.780E-06,-0.800
1.790E-06,-0.880
1.800E-06,-0.960
1.810E-06,-1.040
1.820E-06,-1.120
1.830E-06,-1.160
1.840E-06,-1.200
1.850E-06,-1.280
1.860E-06,-1.320
1.870E-06,-1.320
1.880E-06,-1.400
1.890E-06,-1.400
1.900E-06,-1.520
1.910E-06,-1.480
1.920E-06,-1.520
1.930E-06,-1.520
1.940E-06,-1.520
1.950E-06,-1.560
1.960E-06,-1.560
1.970E-06,-1.520
1.980E-06,-1.560
1.990E-06,-1.600
2.000E-06,-1.640
2.010E-06,-1.680
2.020E-06,-1.640
2.030E-06,-1.680
2.040E-06,-1.720
2.050E-06,-1.760
2.060E-06,-1.760
2.070E-06,-1.800
2.080E-06,-1.800
2.090E-06,-1.800
2.100E-06,-1.800
2.110E-06,-1.800
2.120E-06,-1.800
2.130E-06,-1.760
2.140E-06,-1.720
2.150E-06,-1.600
2.160E-06,-1.520
2.170E-06,-1.480
2.180E-06,-1.360
2.190E-06,-1.320
2.200E-06,-1.280
2.210E-06,-1.200
2.220E-06,-1.240
2.230E-06,-1.160
2.240E-06,-1.200
2.250E-06,-1.160
2.260E-06,-1.200
2.270E-06,-1.320
2.280E-06,-1.320
2.290E-06,-1.320
2.300E-06,-1.400
2.310E-06,-1.440
2.320E-06,-1.560
2.330E-06,-1.560
2.340E-06,-1.600
2.350E-06,-1.680
2.360E-06,-1.720
2.370E-06,-1.720
2.380E-06,-1.840
2.390E-06,-1.840
2.400E-06,-1.800
2.410E-06,-1.840
2.420E-06,-1.800
2.430E-06,-1.760
2.440E-06,-1.800
2.450E-06,-1.720
2.460E-06,-1.680
2.470E-06,-1.680
2.480E-06,-1.680
2.490E-06,-1.680
2.500E-06,-1.720
2.510E-06,-1.680
2.520E-06,-1.680
2.530E-06,-1.720
2.540E-06,-1.720
2.550E-06,-1.760
2.560E-06,-1.800
2.570E-06,-1.920
2.580E-06,-2.000
2.590E-06,-2.000
2.600E-06,-1.960
2.610E-06,-2.000
2.620E-06,-2.040
2.630E-06,-2.000
2.640E-06,-2.000
2.650E-06,-2.000
2.660E-06,-1.840
2.670E-06,-1.800
2.680E-06,-1.680
2.690E-06,-1.600
2.700E-06,-1.520
2.710E-06,-1.400
2.720E-06,-1.320
2.730E-06,-1.240
2.740E-06,-1.240
2.750E-06,-1.160
2.760E-06,-1.120
2.770E-06,-1.120
2.780E-06,-1.200
2.790E-06,-1.160
2.800E-06,-1.200
2.810E-06,-1.240
2.820E-06,-1.280
2.830E-06,-1.360
2.840E-06,-1.400
2.850E-06,-1.520
2.860E-06,-1.560
2.870E-06,-1.640
2.880E-06,-1.760
2.890E-06,-1.840
2.900E-06,-1.840
2.910E-06,-1.880
2.920E-06,-1.920
2.930E-06,-1.880
2.940E-06,-1.920
2.950E-06,-1.840
2.960E-06,-1.880
2.970E-06,-1.880
2.980E-06,-1.840
2.990E-06,-1.720
3.000E-06,-1.680
3.010E-06,-1.560
3.020E-06,-1.440
3.030E-06,-1.360
3.040E-06,-1.320
3.050E-06,-1.280
3.060E-06,-1.240
3.070E-06,-1.280
3.080E-06,-1.240
3.090E-06,-1.200
3.100E-06,-1.160
3.110E-06,-1.120
3.120E-06,-1.160
3.130E-06,-1.040
3.140E-06,-0.960
3.150E-06,-1.000
3.160E-06,-1.040
3.170E-06,-1.080
3.180E-06,-1.120
3.190E-06,-1.120
3.200E-06,-1.120
3.210E-06,-1.200
3.220E-06,-1.320
3.230E-06,-1.320
3.240E-06,-1.360
3.250E-06,-1.400
3.260E-06,-1.360
3.270E-06,-1.320
3.280E-06,-1.320
3.290E-06,-1.360
3.300E-06,-1.240
3.310E-06,-1.200
3.320E-06,-1.120
3.330E-06,-1.160
3.340E-06,-1.120
3.350E-06,-1.160
3.360E-06,-1.080
3.370E-06,-1.120
3.380E-06,-1.000
3.390E-06,-0.960
3.400E-06,-1.000
3.410E-06,-0.960
3.420E-06,-1.040
3.430E-06,-1.120
3.440E-06,-1.120
3.450E-06,-1.160
3.460E-06,-1.160
3.470E-06,-1.160
3.480E-06,-1.160
3.490E-06,-1.080
3.500E-06,-1.040
3.510E-06,-0.920
3.520E-06,-0.880
3.530E-06,-0.840
3.540E-06,-0.840
3.550E-06,-0.840
3.560E-06,-0.800
3.570E-06,-0.840
3.580E-06,-0.880
3.590E-06,-0.880
3.600E-06,-0.880
3.610E-06,-0.960
3.620E-06,-0.960
3.630E-06,-1.000
3.640E-06,-1.000
3.650E-06,-1.040
3.660E-06,-0.920
3.670E-06,-0.880
3.680E-06,-0.840
3.690E-06,-0.760
3.700E-06,-0.720
3.710E-06,-0.720
3.720E-06,-0.720
3.730E-06,-0.720
3.740E-06,-0.720
3.750E-06,-0.720
3.760E-06,-0.720
3.770E-06,-0.720
3.780E-06,-0.720
3.790E-06,-0.720
3.800E-06,-0.720
3.810E-06,-0.680
3.820E-06,-0.680
3.830E-06,-0.640
3.840E-06,-0.600
3.850E-06,-0.560
3.860E-06,-0.520
3.870E-06,-0.520
3.880E-06,-0.480
3.890E-06,-0.440
3.900E-06,-0.440
3.910E-06,-0.520
3.920E-06,-0.640
3.930E-06,-0.680
3.940E-06,-0.800
3.950E-06,-0.920
3.960E-06,-0.920
3.970E-06,-0.960
3.980E-06,-1.000
3.990E-06,-0.920
4.000E-06,-0.840
4.010E-06,-0.800
4.020E-06,-0.680
4.030E-06,-0.600
4.040E-06,-0.520
4.050E-06,-0.440
4.060E-06,-0.400
4.070E-06,-0.400
4.080E-06,-0.440
4.090E-06,-0.440
4.100E-06,-0.520
4.110E-06,-0.640
4.120E-06,-0.760
4.130E-06,-0.920
4.140E-06,-1.040
4.150E-06,-1.160
4.160E-06,-1.200
4.170E-06,-1.120
4.180E-06,-1.080
4.190E-06,-0.880
4.200E-06,-0.760
4.210E-06,-0.680
4.220E-06,-0.480
4.230E-06,-0.400
4.240E-06,-0.280
4.250E-06,-0.160
4.260E-06,-0.120
4.270E-06,-0.120
4.280E-06,-0.040
4.290E-06,-0.080
4.300E-06,-0.080
4.310E-06,-0.080
4.320E-06,-0.120
4.330E-06,-0.080
4.340E-06,-0.120
4.350E-06,-0.160
4.360E-06,-0.120
4.370E-06,-0.160
4.380E-06,-0.080
4.390E-06,-0.080
4.400E-06,-0.120
4.410E-06,-0.040
4.420E-06,-0.080
4.430E-06,-0.120
4.440E-06,-0.040
4.450E-06,-0.040
4.460E-06,-0.120
4.470E-06,-0.120
4.480E-06,-0.160
4.490E-06,-0.160
4.500E-06,-0.040
4.510E-06,-0.120
4.520E-06,-0.200
4.530E-06,-0.240
4.540E-06,-0.240
4.550E-06,-0.320
4.560E-06,-0.440
4.570E-06,-0.480
4.580E-06,-0.560
4.590E-06,-0.640
4.600E-06,-0.760
4.610E-06,-0.800
4.620E-06,-0.840
4.630E-06,-0.840
4.640E-06,-0.840
4.650E-06,-0.840
4.660E-06,-0.720
4.670E-06,-0.680
4.680E-06,-0.600
4.690E-06,-0.560
4.700E-06,-0.520
4.710E-06,-0.480
4.720E-06,-0.440
4.730E-06,-0.360
4.740E-06,-0.240
4.750E-06,-0.120
4.760E-06,0.000
4.770E-06,0.120
4.780E-06,0.240
4.790E-06,0.360
4.800E-06,0.360
4.810E-06,0.440
4.820E-06,0.440
4.830E-06,0.440
4.840E-06,0.480
4.850E-06,0.520
4.860E-06,0.480
4.870E-06,0.480
4.880E-06,0.520
4.890E-06,0.520
4.900E-06,0.520
4.910E-06,0.520
4.920E-06,0.480
4.930E-06,0.480
4.940E-06,0.400
4.950E-06,0.360
4.960E-06,0.320
4.970E-06,0.360
4.980E-06,0.240
4.990E-06,0.240
5.000E-06,0.240
5.010E-06,0.120
5.020E-06,0.160
5.030E-06,0.160
5.040E-06,0.080
5.050E-06,0.040
5.060E-06,-0.040
5.070E-06,0.000
5.080E-06,-0.040
5.090E-06,-0.160
5.100E-06,-0.160
5.110E-06,-0.240
5.120E-06,-0.240
5.130E-06,-0.320
5.140E-06,-0.400
5.150E-06,-0.400
5.160E-06,-0.480
5.170E-06,-0.560
5.180E-06,-0.680
5.190E-06,-0.680
5.200E-06,-0.800
5.210E-06,-0.840
5.220E-06,-0.840
5.230E-06,-0.800
5.240E-06,-0.640
5.250E-06,-0.480
5.260E-06,-0.320
5.270E-06,-0.200
5.280E-06,0.000
5.290E-06,0.080
5.300E-06,0.200
5.310E-06,0.200
5.320E-06,0.200
5.330E-06,0.360
5.340E-06,0.360
5.350E-06,0.400
5.360E-06,0.520
5.370E-06,0.720
5.380E-06,0.840
5.390E-06,0.920
5.400E-06,1.080
5.410E-06,1.120
5.420E-06,1.240
5.430E-06,1.320
5.440E-06,1.360
5.450E-06,1.360
5.460E-06,1.360
5.470E-06,1.400
5.480E-06,1.360
5.490E-06,1.280
5.500E-06,1.240
5.510E-06,1.160
5.520E-06,1.120
5.530E-06,1.040
5.540E-06,1.040
5.550E-06,1.000
5.560E-06,1.040
5.570E-06,0.960
5.580E-06,0.960
5.590E-06,1.000
5.600E-06,0.960
5.610E-06,0.920
5.620E-06,0.800
5.630E-06,0.800
5.640E-06,0.680
5.650E-06,0.480
5.660E-06,0.400
5.670E-06,0.240
5.680E-06,0.120
5.690E-06,0.000
5.700E-06,-0.120
5.710E-06,-0.320
5.720E-06,-0.320
5.730E-06,-0.360
5.740E-06,-0.320
5.750E-06,-0.240
5.760E-06,-0.160
5.770E-06,-0.040
5.780E-06,0.080
5.790E-06,0.160
5.800E-06,0.240
5.810E-06,0.320
5.820E-06,0.400
5.830E-06,0.480
5.840E-06,0.520
5.850E-06,0.520
5.860E-06,0.560
5.870E-06,0.560
5.880E-06,0.680
5.890E-06,0.680
5.900E-06,0.600
5.910E-06,0.640
