mediciones/5-22/-0.01/WaveData4911.csv

#timebase=2000000(ps)
,#voltbase=1000000(mv/100)
#size=4000
-8.400E-06,0.200
-8.390E-06,0.200
-8.380E-06,0.200
-8.370E-06,0.120
-8.360E-06,0.000
-8.350E-06,0.000
-8.340E-06,-0.040
-8.330E-06,-0.040
-8.320E-06,0.000
-8.310E-06,-0.040
-8.300E-06,-0.080
-8.290E-06,-0.080
-8.280E-06,-0.040
-8.270E-06,-0.040
-8.260E-06,0.040
-8.250E-06,0.040
-8.240E-06,-0.040
-8.230E-06,-0.040
-8.220E-06,-0.080
-8.210E-06,0.000
-8.200E-06,-0.040
-8.190E-06,-0.040
-8.180E-06,0.000
-8.170E-06,0.000
-8.160E-06,0.000
-8.150E-06,0.000
-8.140E-06,0.040
-8.130E-06,0.080
-8.120E-06,0.080
-8.110E-06,0.080
-8.100E-06,0.080
-8.090E-06,0.080
-8.080E-06,0.120
-8.070E-06,0.160
-8.060E-06,0.160
-8.050E-06,0.160
-8.040E-06,0.200
-8.030E-06,0.160
-8.020E-06,0.160
-8.010E-06,0.200
-8.000E-06,0.200
-7.990E-06,0.120
-7.980E-06,0.160
-7.970E-06,0.080
-7.960E-06,0.120
-7.950E-06,0.080
-7.940E-06,0.080
-7.930E-06,0.120
-7.920E-06,0.040
-7.910E-06,0.040
-7.900E-06,0.040
-7.890E-06,0.000
-7.880E-06,0.040
-7.870E-06,0.000
-7.860E-06,-0.040
-7.850E-06,-0.040
-7.840E-06,0.000
-7.830E-06,0.000
-7.820E-06,-0.040
-7.810E-06,-0.040
-7.800E-06,0.000
-7.790E-06,0.080
-7.780E-06,0.120
-7.770E-06,0.080
-7.760E-06,0.160
-7.750E-06,0.080
-7.740E-06,0.040
-7.730E-06,0.120
-7.720E-06,0.120
-7.710E-06,0.160
-7.700E-06,0.160
-7.690E-06,0.200
-7.680E-06,0.120
-7.670E-06,0.160
-7.660E-06,0.160
-7.650E-06,0.120
-7.640E-06,0.160
-7.630E-06,0.120
-7.620E-06,0.080
-7.610E-06,0.120
-7.600E-06,0.120
-7.590E-06,0.160
-7.580E-06,0.200
-7.570E-06,0.120
-7.560E-06,0.120
-7.550E-06,0.120
-7.540E-06,0.160
-7.530E-06,0.160
-7.520E-06,0.160
-7.510E-06,0.160
-7.500E-06,0.160
-7.490E-06,0.120
-7.480E-06,0.080
-7.470E-06,0.120
-7.460E-06,0.040
-7.450E-06,0.040
-7.440E-06,0.000
-7.430E-06,0.000
-7.420E-06,0.080
-7.410E-06,0.080
-7.400E-06,0.160
-7.390E-06,0.160
-7.380E-06,0.120
-7.370E-06,0.040
-7.360E-06,0.040
-7.350E-06,0.120
-7.340E-06,0.160
-7.330E-06,0.200
-7.320E-06,0.160
-7.310E-06,0.120
-7.300E-06,0.200
-7.290E-06,0.320
-7.280E-06,0.400
-7.270E-06,0.480
-7.260E-06,0.400
-7.250E-06,0.360
-7.240E-06,0.360
-7.230E-06,0.360
-7.220E-06,0.480
-7.210E-06,0.480
-7.200E-06,0.440
-7.190E-06,0.480
-7.180E-06,0.400
-7.170E-06,0.440
-7.160E-06,0.480
-7.150E-06,0.520
-7.140E-06,0.560
-7.130E-06,0.480
-7.120E-06,0.480
-7.110E-06,0.440
-7.100E-06,0.520
-7.090E-06,0.640
-7.080E-06,0.600
-7.070E-06,0.440
-7.060E-06,0.320
-7.050E-06,0.240
-7.040E-06,0.320
-7.030E-06,0.400
-7.020E-06,0.520
-7.010E-06,0.480
-7.000E-06,0.360
-6.990E-06,0.320
-6.980E-06,0.200
-6.970E-06,0.280
-6.960E-06,0.360
-6.950E-06,0.400
-6.940E-06,0.400
-6.930E-06,0.360
-6.920E-06,0.360
-6.910E-06,0.280
-6.900E-06,0.320
-6.890E-06,0.360
-6.880E-06,0.360
-6.870E-06,0.440
-6.860E-06,0.400
-6.850E-06,0.360
-6.840E-06,0.240
-6.830E-06,0.320
-6.820E-06,0.320
-6.810E-06,0.360
-6.800E-06,0.320
-6.790E-06,0.320
-6.780E-06,0.200
-6.770E-06,0.320
-6.760E-06,0.360
-6.750E-06,0.360
-6.740E-06,0.360
-6.730E-06,0.360
-6.720E-06,0.320
-6.710E-06,0.360
-6.700E-06,0.400
-6.690E-06,0.440
-6.680E-06,0.440
-6.670E-06,0.400
-6.660E-06,0.400
-6.650E-06,0.480
-6.640E-06,0.440
-6.630E-06,0.480
-6.620E-06,0.480
-6.610E-06,0.520
-6.600E-06,0.560
-6.590E-06,0.560
-6.580E-06,0.520
-6.570E-06,0.480
-6.560E-06,0.440
-6.550E-06,0.520
-6.540E-06,0.520
-6.530E-06,0.480
-6.520E-06,0.560
-6.510E-06,0.520
-6.500E-06,0.560
-6.490E-06,0.640
-6.480E-06,0.640
-6.470E-06,0.720
-6.460E-06,0.720
-6.450E-06,0.840
-6.440E-06,0.880
-6.430E-06,0.840
-6.420E-06,0.840
-6.410E-06,0.880
-6.400E-06,0.640
-6.390E-06,0.720
-6.380E-06,0.840
-6.370E-06,1.000
-6.360E-06,1.080
-6.350E-06,1.000
-6.340E-06,1.080
-6.330E-06,0.880
-6.320E-06,0.880
-6.310E-06,0.960
-6.300E-06,0.800
-6.290E-06,0.560
-6.280E-06,0.600
-6.270E-06,0.480
-6.260E-06,0.440
-6.250E-06,0.600
-6.240E-06,0.680
-6.230E-06,0.640
-6.220E-06,0.680
-6.210E-06,0.600
-6.200E-06,0.440
-6.190E-06,0.400
-6.180E-06,0.400
-6.170E-06,0.320
-6.160E-06,0.440
-6.150E-06,0.400
-6.140E-06,0.280
-6.130E-06,0.160
-6.120E-06,0.160
-6.110E-06,0.080
-6.100E-06,0.040
-6.090E-06,0.080
-6.080E-06,0.000
-6.070E-06,-0.120
-6.060E-06,-0.080
-6.050E-06,-0.160
-6.040E-06,-0.160
-6.030E-06,0.000
-6.020E-06,0.040
-6.010E-06,0.080
-6.000E-06,0.040
-5.990E-06,0.040
-5.980E-06,0.040
-5.970E-06,0.040
-5.960E-06,0.120
-5.950E-06,0.120
-5.940E-06,0.320
-5.930E-06,0.480
-5.920E-06,0.520
-5.910E-06,0.520
-5.900E-06,0.560
-5.890E-06,0.600
-5.880E-06,0.680
-5.870E-06,0.720
-5.860E-06,0.720
-5.850E-06,0.800
-5.840E-06,0.840
-5.830E-06,0.840
-5.820E-06,0.840
-5.810E-06,0.720
-5.800E-06,0.800
-5.790E-06,0.800
-5.780E-06,0.880
-5.770E-06,0.080
-5.760E-06,0.640
-5.750E-06,0.640
-5.740E-06,0.840
-5.730E-06,1.720
-5.720E-06,1.720
-5.710E-06,0.880
-5.700E-06,0.880
-5.690E-06,0.720
-5.680E-06,0.240
-5.670E-06,0.480
-5.660E-06,0.760
-5.650E-06,0.440
-5.640E-06,0.360
-5.630E-06,0.280
-5.620E-06,-0.200
-5.610E-06,-0.360
-5.600E-06,-0.320
-5.590E-06,-0.520
-5.580E-06,-0.600
-5.570E-06,-0.640
-5.560E-06,-0.840
-5.550E-06,-1.000
-5.540E-06,-1.040
-5.530E-06,-1.200
-5.520E-06,-1.360
-5.510E-06,-1.280
-5.500E-06,-1.120
-5.490E-06,-1.280
-5.480E-06,-1.120
-5.470E-06,-0.840
-5.460E-06,-0.720
-5.450E-06,-0.480
-5.440E-06,-0.120
-5.430E-06,-0.160
-5.420E-06,-0.200
-5.410E-06,-0.040
-5.400E-06,0.000
-5.390E-06,0.200
-5.380E-06,0.480
-5.370E-06,0.560
-5.360E-06,0.600
-5.350E-06,0.680
-5.340E-06,0.880
-5.330E-06,0.920
-5.320E-06,0.800
-5.310E-06,1.080
-5.300E-06,0.960
-5.290E-06,0.920
-5.280E-06,1.400
-5.270E-06,1.480
-5.260E-06,1.360
-5.250E-06,1.640
-5.240E-06,1.400
-5.230E-06,0.880
-5.220E-06,0.840
-5.210E-06,0.720
-5.200E-06,0.560
-5.190E-06,0.800
-5.180E-06,0.680
-5.170E-06,0.520
-5.160E-06,0.400
-5.150E-06,0.320
-5.140E-06,0.040
-5.130E-06,0.000
-5.120E-06,0.000
-5.110E-06,-0.160
-5.100E-06,-0.080
-5.090E-06,-0.120
-5.080E-06,-0.200
-5.070E-06,-0.280
-5.060E-06,-0.360
-5.050E-06,-0.560
-5.040E-06,-0.680
-5.030E-06,-0.600
-5.020E-06,-0.560
-5.010E-06,-0.200
-5.000E-06,0.040
-4.990E-06,0.200
-4.980E-06,0.520
-4.970E-06,0.600
-4.960E-06,0.440
-4.950E-06,0.560
-4.940E-06,0.600
-4.930E-06,0.680
-4.920E-06,0.840
-4.910E-06,0.880
-4.900E-06,0.760
-4.890E-06,0.760
-4.880E-06,0.600
-4.870E-06,0.480
-4.860E-06,0.440
-4.850E-06,0.360
-4.840E-06,0.200
-4.830E-06,0.080
-4.820E-06,0.000
-4.810E-06,-0.200
-4.800E-06,-0.240
-4.790E-06,-0.360
-4.780E-06,-0.480
-4.770E-06,-0.640
-4.760E-06,-0.560
-4.750E-06,-0.640
-4.740E-06,-0.560
-4.730E-06,-0.560
-4.720E-06,-0.680
-4.710E-06,-0.760
-4.700E-06,-0.840
-4.690E-06,-0.960
-4.680E-06,-1.000
-4.670E-06,-0.840
-4.660E-06,-0.720
-4.650E-06,-0.600
-4.640E-06,-0.360
-4.630E-06,-0.320
-4.620E-06,-0.280
-4.610E-06,-0.080
-4.600E-06,0.000
-4.590E-06,0.360
-4.580E-06,0.440
-4.570E-06,0.440
-4.560E-06,0.560
-4.550E-06,0.680
-4.540E-06,0.920
-4.530E-06,1.200
-4.520E-06,0.640
-4.510E-06,1.000
-4.500E-06,1.080
-4.490E-06,1.520
-4.480E-06,2.680
-4.470E-06,3.320
-4.460E-06,2.760
-4.450E-06,3.040
-4.440E-06,2.840
-4.430E-06,1.920
-4.420E-06,1.120
-4.410E-06,1.680
-4.400E-06,1.040
-4.390E-06,1.040
-4.380E-06,1.440
-4.370E-06,0.480
-4.360E-06,-0.400
-4.350E-06,-0.440
-4.340E-06,-0.840
-4.330E-06,-1.240
-4.320E-06,-0.560
-4.310E-06,-0.760
-4.300E-06,-0.880
-4.290E-06,-1.000
-4.280E-06,-1.440
-4.270E-06,-1.040
-4.260E-06,-0.240
-4.250E-06,0.640
-4.240E-06,1.080
-4.230E-06,1.040
-4.220E-06,0.600
-4.210E-06,0.200
-4.200E-06,0.040
-4.190E-06,0.080
-4.180E-06,0.240
-4.170E-06,0.520
-4.160E-06,0.520
-4.150E-06,0.280
-4.140E-06,0.040
-4.130E-06,-0.200
-4.120E-06,-0.320
-4.110E-06,-0.360
-4.100E-06,-0.360
-4.090E-06,-0.360
-4.080E-06,-0.400
-4.070E-06,-0.520
-4.060E-06,-0.560
-4.050E-06,-0.640
-4.040E-06,-0.640
-4.030E-06,-0.720
-4.020E-06,-0.720
-4.010E-06,-0.800
-4.000E-06,-0.800
-3.990E-06,-0.800
-3.980E-06,-0.840
-3.970E-06,-1.000
-3.960E-06,-1.120
-3.950E-06,-1.160
-3.940E-06,-1.120
-3.930E-06,-1.120
-3.920E-06,-1.840
-3.910E-06,-1.200
-3.900E-06,-0.920
-3.890E-06,-0.400
-3.880E-06,0.960
-3.870E-06,1.280
-3.860E-06,0.520
-3.850E-06,0.640
-3.840E-06,0.240
-3.830E-06,-0.240
-3.820E-06,0.320
-3.810E-06,0.880
-3.800E-06,0.840
-3.790E-06,1.040
-3.780E-06,1.040
-3.770E-06,0.440
-3.760E-06,0.080
-3.750E-06,0.040
-3.740E-06,-0.360
-3.730E-06,-0.160
-3.720E-06,0.200
-3.710E-06,0.360
-3.700E-06,0.600
-3.690E-06,0.600
-3.680E-06,0.240
-3.670E-06,-0.040
-3.660E-06,-0.240
-3.650E-06,-0.440
-3.640E-06,-0.400
-3.630E-06,-0.240
-3.620E-06,-0.200
-3.610E-06,-0.320
-3.600E-06,-0.480
-3.590E-06,-0.720
-3.580E-06,-0.960
-3.570E-06,-1.040
-3.560E-06,-1.080
-3.550E-06,-1.160
-3.540E-06,-1.160
-3.530E-06,-1.120
-3.520E-06,-1.120
-3.510E-06,-0.960
-3.500E-06,-1.000
-3.490E-06,-0.880
-3.480E-06,-0.840
-3.470E-06,-0.840
-3.460E-06,-0.800
-3.450E-06,-0.640
-3.440E-06,-0.480
-3.430E-06,-0.320
-3.420E-06,-0.160
-3.410E-06,-0.160
-3.400E-06,-0.160
-3.390E-06,-0.160
-3.380E-06,-0.160
-3.370E-06,-0.200
-3.360E-06,-0.160
-3.350E-06,0.000
-3.340E-06,-0.080
-3.330E-06,-0.040
-3.320E-06,-0.080
-3.310E-06,-0.160
-3.300E-06,-0.240
-3.290E-06,-0.240
-3.280E-06,-0.200
-3.270E-06,-0.280
-3.260E-06,-0.280
-3.250E-06,-0.320
-3.240E-06,-0.320
-3.230E-06,-0.320
-3.220E-06,-0.320
-3.210E-06,-0.320
-3.200E-06,-0.320
-3.190E-06,-0.360
-3.180E-06,-0.400
-3.170E-06,-0.400
-3.160E-06,-0.360
-3.150E-06,-0.360
-3.140E-06,-0.320
-3.130E-06,-0.360
-3.120E-06,-0.320
-3.110E-06,-0.320
-3.100E-06,-0.320
-3.090E-06,-0.360
-3.080E-06,-0.360
-3.070E-06,-0.360
-3.060E-06,-0.320
-3.050E-06,-0.240
-3.040E-06,-0.160
-3.030E-06,-0.040
-3.020E-06,0.000
-3.010E-06,0.000
-3.000E-06,0.040
-2.990E-06,0.080
-2.980E-06,0.080
-2.970E-06,0.200
-2.960E-06,0.080
-2.950E-06,-0.160
-2.940E-06,0.120
-2.930E-06,0.160
-2.920E-06,0.320
-2.910E-06,0.880
-2.900E-06,0.840
-2.890E-06,1.000
-2.880E-06,1.360
-2.870E-06,1.240
-2.860E-06,1.520
-2.850E-06,1.680
-2.840E-06,1.480
-2.830E-06,1.160
-2.820E-06,1.040
-2.810E-06,0.800
-2.800E-06,0.680
-2.790E-06,0.720
-2.780E-06,0.600
-2.770E-06,0.360
-2.760E-06,0.200
-2.750E-06,-0.040
-2.740E-06,-0.360
-2.730E-06,-0.480
-2.720E-06,-0.600
-2.710E-06,-0.640
-2.700E-06,-0.720
-2.690E-06,-0.840
-2.680E-06,-0.960
-2.670E-06,-0.960
-2.660E-06,-1.120
-2.650E-06,-1.200
-2.640E-06,-1.240
-2.630E-06,-1.320
-2.620E-06,-1.360
-2.610E-06,-1.400
-2.600E-06,-1.440
-2.590E-06,-1.440
-2.580E-06,-1.440
-2.570E-06,-1.320
-2.560E-06,-1.280
-2.550E-06,-1.240
-2.540E-06,-1.240
-2.530E-06,-1.120
-2.520E-06,-0.960
-2.510E-06,-0.960
-2.500E-06,-0.840
-2.490E-06,-0.720
-2.480E-06,-0.560
-2.470E-06,-0.320
-2.460E-06,0.000
-2.450E-06,0.160
-2.440E-06,0.200
-2.430E-06,0.360
-2.420E-06,0.440
-2.410E-06,0.480
-2.400E-06,0.600
-2.390E-06,0.760
-2.380E-06,0.800
-2.370E-06,0.960
-2.360E-06,1.200
-2.350E-06,1.360
-2.340E-06,1.680
-2.330E-06,1.760
-2.320E-06,1.880
-2.310E-06,1.840
-2.300E-06,1.760
-2.290E-06,1.480
-2.280E-06,1.320
-2.270E-06,1.240
-2.260E-06,1.080
-2.250E-06,0.920
-2.240E-06,0.800
-2.230E-06,0.640
-2.220E-06,0.440
-2.210E-06,0.160
-2.200E-06,-0.040
-2.190E-06,-0.200
-2.180E-06,-0.360
-2.170E-06,-0.480
-2.160E-06,-0.560
-2.150E-06,-0.680
-2.140E-06,-0.720
-2.130E-06,-0.800
-2.120E-06,-0.920
-2.110E-06,-0.920
-2.100E-06,-0.880
-2.090E-06,-0.880
-2.080E-06,-0.920
-2.070E-06,-0.840
-2.060E-06,-0.640
-2.050E-06,-0.400
-2.040E-06,-0.280
-2.030E-06,-0.200
-2.020E-06,-0.120
-2.010E-06,-0.240
-2.000E-06,-0.160
-1.990E-06,-0.200
-1.980E-06,-0.080
-1.970E-06,-0.200
-1.960E-06,0.200
-1.950E-06,0.280
-1.940E-06,0.240
-1.930E-06,0.440
-1.920E-06,0.360
-1.910E-06,0.200
-1.900E-06,0.480
-1.890E-06,0.880
-1.880E-06,1.080
-1.870E-06,1.680
-1.860E-06,1.800
-1.850E-06,1.720
-1.840E-06,1.760
-1.830E-06,1.480
-1.820E-06,1.280
-1.810E-06,1.400
-1.800E-06,1.400
-1.790E-06,1.440
-1.780E-06,1.600
-1.770E-06,1.440
-1.760E-06,1.160
-1.750E-06,0.960
-1.740E-06,0.480
-1.730E-06,0.400
-1.720E-06,0.320
-1.710E-06,0.160
-1.700E-06,0.120
-1.690E-06,0.200
-1.680E-06,-0.040
-1.670E-06,0.080
-1.660E-06,0.240
-1.650E-06,0.240
-1.640E-06,0.320
-1.630E-06,0.520
-1.620E-06,0.480
-1.610E-06,0.560
-1.600E-06,0.640
-1.590E-06,0.520
-1.580E-06,0.360
-1.570E-06,0.320
-1.560E-06,0.160
-1.550E-06,-0.040
-1.540E-06,-0.120
-1.530E-06,-0.120
-1.520E-06,0.000
-1.510E-06,0.000
-1.500E-06,0.080
-1.490E-06,0.080
-1.480E-06,-0.160
-1.470E-06,-0.120
-1.460E-06,-0.320
-1.450E-06,-0.480
-1.440E-06,-0.360
-1.430E-06,-0.200
-1.420E-06,-0.040
-1.410E-06,0.160
-1.400E-06,0.200
-1.390E-06,0.160
-1.380E-06,0.240
-1.370E-06,0.200
-1.360E-06,0.120
-1.350E-06,0.360
-1.340E-06,0.520
-1.330E-06,0.640
-1.320E-06,0.760
-1.310E-06,0.720
-1.300E-06,0.720
-1.290E-06,0.640
-1.280E-06,0.520
-1.270E-06,0.480
-1.260E-06,0.440
-1.250E-06,0.480
-1.240E-06,0.480
-1.230E-06,0.480
-1.220E-06,0.440
-1.210E-06,0.480
-1.200E-06,0.520
-1.190E-06,0.480
-1.180E-06,0.480
-1.170E-06,0.400
-1.160E-06,0.440
-1.150E-06,0.440
-1.140E-06,0.280
-1.130E-06,0.120
-1.120E-06,0.040
-1.110E-06,0.000
-1.100E-06,-0.040
-1.090E-06,0.040
-1.080E-06,0.000
-1.070E-06,0.080
-1.060E-06,0.320
-1.050E-06,0.400
-1.040E-06,0.440
-1.030E-06,0.040
-1.020E-06,-0.040
-1.010E-06,-0.800
-1.000E-06,-0.600
-9.900E-07,-0.480
-9.800E-07,-0.240
-9.700E-07,-0.480
-9.600E-07,-0.480
-9.500E-07,-0.880
-9.400E-07,-0.760
-9.300E-07,0.120
-9.200E-07,0.080
-9.100E-07,0.160
-9.000E-07,0.200
-8.900E-07,-0.160
-8.800E-07,0.080
-8.700E-07,0.800
-8.600E-07,1.480
-8.500E-07,1.840
-8.400E-07,2.240
-8.300E-07,2.200
-8.200E-07,1.840
-8.100E-07,1.600
-8.000E-07,1.680
-7.900E-07,1.720
-7.800E-07,1.800
-7.700E-07,1.840
-7.600E-07,1.560
-7.500E-07,1.160
-7.400E-07,0.400
-7.300E-07,-0.160
-7.200E-07,-0.800
-7.100E-07,-0.920
-7.000E-07,-0.320
-6.900E-07,0.520
-6.800E-07,0.720
-6.700E-07,0.600
-6.600E-07,0.160
-6.500E-07,-0.360
-6.400E-07,-0.840
-6.300E-07,-0.840
-6.200E-07,-0.640
-6.100E-07,-0.520
-6.000E-07,-0.360
-5.900E-07,-0.320
-5.800E-07,-0.520
-5.700E-07,-0.760
-5.600E-07,-1.160
-5.500E-07,-1.680
-5.400E-07,-1.960
-5.300E-07,-1.960
-5.200E-07,-1.840
-5.100E-07,-1.520
-5.000E-07,-1.280
-4.900E-07,-1.120
-4.800E-07,-0.960
-4.700E-07,-0.880
-4.600E-07,-1.040
-4.500E-07,-1.000
-4.400E-07,-0.960
-4.300E-07,-0.960
-4.200E-07,-0.840
-4.100E-07,-0.640
-4.000E-07,-0.440
-3.900E-07,-0.280
-3.800E-07,-0.040
-3.700E-07,-0.080
-3.600E-07,-0.120
-3.500E-07,-0.240
-3.400E-07,-0.280
-3.300E-07,-0.240
-3.200E-07,-0.120
-3.100E-07,-0.080
-3.000E-07,-0.040
-2.900E-07,-0.120
-2.800E-07,-0.240
-2.700E-07,-0.400
-2.600E-07,-0.520
-2.500E-07,-0.760
-2.400E-07,-0.800
-2.300E-07,-0.840
-2.200E-07,-0.840
-2.100E-07,-0.760
-2.000E-07,-0.560
-1.900E-07,-0.480
-1.800E-07,-0.480
-1.700E-07,-0.400
-1.600E-07,-0.360
-1.500E-07,-0.360
-1.400E-07,-0.120
-1.300E-07,-0.040
-1.200E-07,-0.080
-1.100E-07,-0.080
-1.000E-07,-0.200
-9.000E-08,-0.240
-8.000E-08,0.080
-7.000E-08,-1.080
-6.000E-08,-1.040
-5.000E-08,-1.400
-4.000E-08,-1.800
-3.000E-08,-3.000
-2.000E-08,-3.360
-1.000E-08,-5.240
0.000E+00,-5.200
1.000E-08,-5.200
2.000E-08,-5.240
3.000E-08,-3.440
4.000E-08,-0.960
5.000E-08,1.320
6.000E-08,3.080
7.000E-08,3.360
8.000E-08,1.960
9.000E-08,2.240
1.000E-07,1.560
1.100E-07,1.240
1.200E-07,2.200
1.300E-07,2.280
1.400E-07,1.800
1.500E-07,1.560
1.600E-07,0.680
1.700E-07,-0.680
1.800E-07,-1.560
1.900E-07,-2.320
2.000E-07,-3.240
2.100E-07,-3.320
2.200E-07,-3.720
2.300E-07,-3.920
2.400E-07,-4.200
2.500E-07,-4.480
2.600E-07,-4.920
2.700E-07,-5.080
2.800E-07,-5.160
2.900E-07,-5.040
3.000E-07,-4.760
3.100E-07,-4.400
3.200E-07,-4.120
3.300E-07,-4.000
3.400E-07,-4.000
3.500E-07,-4.120
3.600E-07,-4.200
3.700E-07,-4.200
3.800E-07,-4.120
3.900E-07,-3.960
4.000E-07,-3.600
4.100E-07,-3.240
4.200E-07,-3.160
4.300E-07,-3.040
4.400E-07,-3.040
4.500E-07,-3.000
4.600E-07,-2.640
4.700E-07,-2.360
4.800E-07,-2.000
4.900E-07,-1.760
5.000E-07,-1.520
5.100E-07,-1.160
5.200E-07,-1.000
5.300E-07,-0.800
5.400E-07,-0.680
5.500E-07,-0.680
5.600E-07,-0.760
5.700E-07,-0.800
5.800E-07,-0.960
5.900E-07,-1.320
6.000E-07,-1.600
6.100E-07,-1.920
6.200E-07,-2.240
6.300E-07,-2.520
6.400E-07,-2.800
6.500E-07,-2.960
6.600E-07,-3.080
6.700E-07,-3.160
6.800E-07,-3.200
6.900E-07,-3.360
7.000E-07,-3.560
7.100E-07,-3.880
7.200E-07,-4.040
7.300E-07,-4.360
7.400E-07,-4.720
7.500E-07,-4.800
7.600E-07,-5.040
7.700E-07,-5.240
7.800E-07,-5.240
7.900E-07,-5.200
8.000E-07,-4.800
8.100E-07,-4.520
8.200E-07,-4.000
8.300E-07,-3.680
8.400E-07,-3.080
8.500E-07,-1.920
8.600E-07,-0.680
8.700E-07,0.880
8.800E-07,2.200
8.900E-07,2.720
9.000E-07,2.480
9.100E-07,1.840
9.200E-07,1.080
9.300E-07,0.520
9.400E-07,0.480
9.500E-07,0.120
9.600E-07,-0.520
9.700E-07,-1.160
9.800E-07,-1.640
9.900E-07,-2.360
1.000E-06,-2.440
1.010E-06,-2.040
1.020E-06,-1.600
1.030E-06,-1.000
1.040E-06,-0.120
1.050E-06,0.320
1.060E-06,0.680
1.070E-06,1.360
1.080E-06,1.800
1.090E-06,2.120
1.100E-06,2.520
1.110E-06,2.720
1.120E-06,2.640
1.130E-06,2.600
1.140E-06,2.360
1.150E-06,2.080
1.160E-06,1.960
1.170E-06,1.600
1.180E-06,1.080
1.190E-06,0.680
1.200E-06,0.080
1.210E-06,-0.440
1.220E-06,-0.960
1.230E-06,-1.400
1.240E-06,-1.800
1.250E-06,-2.040
1.260E-06,-2.280
1.270E-06,-2.560
1.280E-06,-2.840
1.290E-06,-3.040
1.300E-06,-3.240
1.310E-06,-3.440
1.320E-06,-3.560
1.330E-06,-3.760
1.340E-06,-3.920
1.350E-06,-4.120
1.360E-06,-4.360
1.370E-06,-4.520
1.380E-06,-4.720
1.390E-06,-4.920
1.400E-06,-5.040
1.410E-06,-5.120
1.420E-06,-5.200
1.430E-06,-5.240
1.440E-06,-5.200
1.450E-06,-5.240
1.460E-06,-5.200
1.470E-06,-5.120
1.480E-06,-4.920
1.490E-06,-4.760
1.500E-06,-4.440
1.510E-06,-4.080
1.520E-06,-3.800
1.530E-06,-3.440
1.540E-06,-3.160
1.550E-06,-2.760
1.560E-06,-2.480
1.570E-06,-2.200
1.580E-06,-1.960
1.590E-06,-1.840
1.600E-06,-1.800
1.610E-06,-1.720
1.620E-06,-1.720
1.630E-06,-1.680
1.640E-06,-1.760
1.650E-06,-1.880
1.660E-06,-2.040
1.670E-06,-2.240
1.680E-06,-2.320
1.690E-06,-2.360
1.700E-06,-2.480
1.710E-06,-2.440
1.720E-06,-2.400
1.730E-06,-2.400
1.740E-06,-2.320
1.750E-06,-2.360
1.760E-06,-2.240
1.770E-06,-2.280
1.780E-06,-2.240
1.790E-06,-2.200
1.800E-06,-2.200
1.810E-06,-2.200
1.820E-06,-2.200
1.830E-06,-2.240
1.840E-06,-2.200
1.850E-06,-2.200
1.860E-06,-2.240
1.870E-06,-2.240
1.880E-06,-2.320
1.890E-06,-2.400
1.900E-06,-2.400
1.910E-06,-2.480
1.920E-06,-2.560
1.930E-06,-2.600
1.940E-06,-2.640
1.950E-06,-2.640
1.960E-06,-2.680
1.970E-06,-2.680
1.980E-06,-2.680
1.990E-06,-2.720
2.000E-06,-2.760
2.010E-06,-2.640
2.020E-06,-2.640
2.030E-06,-2.520
2.040E-06,-2.520
2.050E-06,-2.480
2.060E-06,-2.400
2.070E-06,-2.360
2.080E-06,-2.360
2.090E-06,-2.240
2.100E-06,-2.200
2.110E-06,-2.160
2.120E-06,-2.160
2.130E-06,-2.160
2.140E-06,-2.080
2.150E-06,-2.080
2.160E-06,-2.080
2.170E-06,-2.040
2.180E-06,-1.960
2.190E-06,-1.920
2.200E-06,-1.880
2.210E-06,-1.880
2.220E-06,-1.760
2.230E-06,-1.760
2.240E-06,-1.680
2.250E-06,-1.640
2.260E-06,-1.640
2.270E-06,-1.640
2.280E-06,-1.560
2.290E-06,-1.520
2.300E-06,-1.520
2.310E-06,-1.440
2.320E-06,-1.440
2.330E-06,-1.480
2.340E-06,-1.480
2.350E-06,-1.520
2.360E-06,-1.560
2.370E-06,-1.560
2.380E-06,-1.520
2.390E-06,-1.560
2.400E-06,-1.600
2.410E-06,-1.600
2.420E-06,-1.640
2.430E-06,-1.680
2.440E-06,-1.680
2.450E-06,-1.640
2.460E-06,-1.680
2.470E-06,-1.680
2.480E-06,-1.680
2.490E-06,-1.680
2.500E-06,-1.640
2.510E-06,-1.600
2.520E-06,-1.480
2.530E-06,-1.400
2.540E-06,-1.400
2.550E-06,-1.360
2.560E-06,-1.320
2.570E-06,-1.360
2.580E-06,-1.360
2.590E-06,-1.400
2.600E-06,-1.440
2.610E-06,-1.520
2.620E-06,-1.480
2.630E-06,-1.560
2.640E-06,-1.560
2.650E-06,-1.560
2.660E-06,-1.560
2.670E-06,-1.600
2.680E-06,-1.520
2.690E-06,-1.560
2.700E-06,-1.480
2.710E-06,-1.480
2.720E-06,-1.480
2.730E-06,-1.440
2.740E-06,-1.480
2.750E-06,-1.440
2.760E-06,-1.440
2.770E-06,-1.400
2.780E-06,-1.400
2.790E-06,-1.480
2.800E-06,-1.520
2.810E-06,-1.480
2.820E-06,-1.560
2.830E-06,-1.560
2.840E-06,-1.520
2.850E-06,-1.520
2.860E-06,-1.480
2.870E-06,-1.400
2.880E-06,-1.400
2.890E-06,-1.400
2.900E-06,-1.400
2.910E-06,-1.400
2.920E-06,-1.360
2.930E-06,-1.240
2.940E-06,-1.200
2.950E-06,-1.120
2.960E-06,-1.040
2.970E-06,-1.040
2.980E-06,-1.040
2.990E-06,-0.960
3.000E-06,-0.840
3.010E-06,-0.800
3.020E-06,-0.760
3.030E-06,-0.720
3.040E-06,-0.800
3.050E-06,-0.840
3.060E-06,-0.960
3.070E-06,-1.000
3.080E-06,-1.120
3.090E-06,-1.160
3.100E-06,-1.160
3.110E-06,-1.280
3.120E-06,-1.400
3.130E-06,-1.480
3.140E-06,-1.520
3.150E-06,-1.480
