mediciones/5-22/-0.01/WaveData4929.csv

#timebase=2000000(ps)
,#voltbase=1000000(mv/100)
#size=4000
-8.400E-06,0.000
-8.390E-06,0.040
-8.380E-06,0.080
-8.370E-06,0.040
-8.360E-06,0.040
-8.350E-06,0.080
-8.340E-06,0.040
-8.330E-06,0.040
-8.320E-06,0.000
-8.310E-06,0.040
-8.300E-06,0.120
-8.290E-06,0.120
-8.280E-06,0.000
-8.270E-06,0.040
-8.260E-06,0.080
-8.250E-06,0.080
-8.240E-06,0.000
-8.230E-06,0.080
-8.220E-06,0.120
-8.210E-06,0.040
-8.200E-06,0.040
-8.190E-06,0.080
-8.180E-06,0.080
-8.170E-06,0.040
-8.160E-06,0.040
-8.150E-06,0.040
-8.140E-06,0.120
-8.130E-06,0.080
-8.120E-06,0.040
-8.110E-06,0.040
-8.100E-06,0.040
-8.090E-06,0.080
-8.080E-06,0.080
-8.070E-06,0.080
-8.060E-06,0.040
-8.050E-06,0.120
-8.040E-06,0.080
-8.030E-06,0.040
-8.020E-06,0.000
-8.010E-06,0.080
-8.000E-06,0.000
-7.990E-06,0.040
-7.980E-06,0.120
-7.970E-06,0.040
-7.960E-06,0.040
-7.950E-06,0.080
-7.940E-06,0.080
-7.930E-06,0.120
-7.920E-06,0.040
-7.910E-06,0.080
-7.900E-06,0.080
-7.890E-06,0.080
-7.880E-06,0.040
-7.870E-06,0.000
-7.860E-06,0.040
-7.850E-06,0.040
-7.840E-06,0.000
-7.830E-06,0.080
-7.820E-06,0.000
-7.810E-06,0.040
-7.800E-06,0.040
-7.790E-06,0.040
-7.780E-06,0.040
-7.770E-06,0.040
-7.760E-06,0.040
-7.750E-06,0.040
-7.740E-06,0.080
-7.730E-06,0.080
-7.720E-06,0.000
-7.710E-06,0.040
-7.700E-06,0.040
-7.690E-06,0.040
-7.680E-06,0.040
-7.670E-06,0.040
-7.660E-06,0.040
-7.650E-06,0.040
-7.640E-06,0.080
-7.630E-06,0.040
-7.620E-06,0.000
-7.610E-06,0.080
-7.600E-06,0.040
-7.590E-06,0.080
-7.580E-06,0.080
-7.570E-06,0.040
-7.560E-06,0.040
-7.550E-06,0.000
-7.540E-06,0.000
-7.530E-06,0.040
-7.520E-06,0.000
-7.510E-06,0.000
-7.500E-06,0.040
-7.490E-06,0.040
-7.480E-06,0.040
-7.470E-06,-0.040
-7.460E-06,0.040
-7.450E-06,0.080
-7.440E-06,0.040
-7.430E-06,0.000
-7.420E-06,0.040
-7.410E-06,0.040
-7.400E-06,0.040
-7.390E-06,0.040
-7.380E-06,0.040
-7.370E-06,0.000
-7.360E-06,0.040
-7.350E-06,0.040
-7.340E-06,0.080
-7.330E-06,0.000
-7.320E-06,0.080
-7.310E-06,0.040
-7.300E-06,0.040
-7.290E-06,0.040
-7.280E-06,0.040
-7.270E-06,0.040
-7.260E-06,0.000
-7.250E-06,0.080
-7.240E-06,0.040
-7.230E-06,0.040
-7.220E-06,0.040
-7.210E-06,0.000
-7.200E-06,0.000
-7.190E-06,0.040
-7.180E-06,0.080
-7.170E-06,0.000
-7.160E-06,0.000
-7.150E-06,0.080
-7.140E-06,0.000
-7.130E-06,0.040
-7.120E-06,0.080
-7.110E-06,0.080
-7.100E-06,0.000
-7.090E-06,0.000
-7.080E-06,0.040
-7.070E-06,0.040
-7.060E-06,0.080
-7.050E-06,0.120
-7.040E-06,0.000
-7.030E-06,0.000
-7.020E-06,0.080
-7.010E-06,0.000
-7.000E-06,0.080
-6.990E-06,0.080
-6.980E-06,0.040
-6.970E-06,0.080
-6.960E-06,0.080
-6.950E-06,0.040
-6.940E-06,0.000
-6.930E-06,0.000
-6.920E-06,0.040
-6.910E-06,0.080
-6.900E-06,0.000
-6.890E-06,0.000
-6.880E-06,0.040
-6.870E-06,0.080
-6.860E-06,0.080
-6.850E-06,0.080
-6.840E-06,0.080
-6.830E-06,0.120
-6.820E-06,0.080
-6.810E-06,0.040
-6.800E-06,0.000
-6.790E-06,0.040
-6.780E-06,0.080
-6.770E-06,0.080
-6.760E-06,0.080
-6.750E-06,0.040
-6.740E-06,0.000
-6.730E-06,0.040
-6.720E-06,0.080
-6.710E-06,0.040
-6.700E-06,0.040
-6.690E-06,0.040
-6.680E-06,0.000
-6.670E-06,0.040
-6.660E-06,0.000
-6.650E-06,0.000
-6.640E-06,0.040
-6.630E-06,0.000
-6.620E-06,0.080
-6.610E-06,0.040
-6.600E-06,0.040
-6.590E-06,0.080
-6.580E-06,0.080
-6.570E-06,0.040
-6.560E-06,0.040
-6.550E-06,0.080
-6.540E-06,0.080
-6.530E-06,0.120
-6.520E-06,0.160
-6.510E-06,0.360
-6.500E-06,0.720
-6.490E-06,1.320
-6.480E-06,2.120
-6.470E-06,2.720
-6.460E-06,2.760
-6.450E-06,2.120
-6.440E-06,0.920
-6.430E-06,-0.360
-6.420E-06,-1.280
-6.410E-06,-1.680
-6.400E-06,-1.760
-6.390E-06,-1.840
-6.380E-06,-2.040
-6.370E-06,-2.240
-6.360E-06,-2.440
-6.350E-06,-2.280
-6.340E-06,-1.800
-6.330E-06,-1.400
-6.320E-06,-1.200
-6.310E-06,-0.960
-6.300E-06,-1.080
-6.290E-06,-1.120
-6.280E-06,-1.000
-6.270E-06,-0.840
-6.260E-06,-0.640
-6.250E-06,-0.440
-6.240E-06,-0.240
-6.230E-06,0.000
-6.220E-06,0.440
-6.210E-06,0.880
-6.200E-06,1.120
-6.190E-06,1.280
-6.180E-06,1.280
-6.170E-06,1.080
-6.160E-06,1.000
-6.150E-06,0.920
-6.140E-06,0.840
-6.130E-06,0.720
-6.120E-06,0.480
-6.110E-06,0.200
-6.100E-06,0.000
-6.090E-06,-0.280
-6.080E-06,-0.320
-6.070E-06,-0.160
-6.060E-06,-0.040
-6.050E-06,0.040
-6.040E-06,0.160
-6.030E-06,0.120
-6.020E-06,0.160
-6.010E-06,0.280
-6.000E-06,0.200
-5.990E-06,0.240
-5.980E-06,0.200
-5.970E-06,0.080
-5.960E-06,0.040
-5.950E-06,0.080
-5.940E-06,0.080
-5.930E-06,0.040
-5.920E-06,-0.120
-5.910E-06,-0.120
-5.900E-06,-0.160
-5.890E-06,-0.280
-5.880E-06,-0.160
-5.870E-06,-0.160
-5.860E-06,-0.120
-5.850E-06,-0.240
-5.840E-06,-0.360
-5.830E-06,-0.480
-5.820E-06,-0.480
-5.810E-06,-0.480
-5.800E-06,-0.520
-5.790E-06,-0.480
-5.780E-06,-0.480
-5.770E-06,-0.520
-5.760E-06,-0.520
-5.750E-06,-0.440
-5.740E-06,-0.320
-5.730E-06,-0.120
-5.720E-06,-0.040
-5.710E-06,0.040
-5.700E-06,0.160
-5.690E-06,0.200
-5.680E-06,0.200
-5.670E-06,0.360
-5.660E-06,0.360
-5.650E-06,0.280
-5.640E-06,0.240
-5.630E-06,0.160
-5.620E-06,0.040
-5.610E-06,-0.040
-5.600E-06,0.000
-5.590E-06,-0.040
-5.580E-06,-0.040
-5.570E-06,-0.080
-5.560E-06,-0.040
-5.550E-06,-0.120
-5.540E-06,-0.120
-5.530E-06,-0.080
-5.520E-06,-0.080
-5.510E-06,-0.080
-5.500E-06,-0.080
-5.490E-06,-0.160
-5.480E-06,-0.120
-5.470E-06,-0.120
-5.460E-06,-0.160
-5.450E-06,-0.080
-5.440E-06,-0.080
-5.430E-06,-0.080
-5.420E-06,-0.080
-5.410E-06,0.000
-5.400E-06,0.000
-5.390E-06,0.040
-5.380E-06,0.040
-5.370E-06,0.160
-5.360E-06,0.120
-5.350E-06,0.120
-5.340E-06,0.120
-5.330E-06,0.160
-5.320E-06,0.120
-5.310E-06,0.080
-5.300E-06,0.120
-5.290E-06,0.080
-5.280E-06,0.080
-5.270E-06,0.080
-5.260E-06,0.200
-5.250E-06,0.400
-5.240E-06,0.240
-5.230E-06,0.040
-5.220E-06,0.200
-5.210E-06,-0.080
-5.200E-06,0.080
-5.190E-06,0.600
-5.180E-06,0.600
-5.170E-06,0.200
-5.160E-06,0.440
-5.150E-06,0.360
-5.140E-06,-0.120
-5.130E-06,0.160
-5.120E-06,0.600
-5.110E-06,0.360
-5.100E-06,0.360
-5.090E-06,0.480
-5.080E-06,0.080
-5.070E-06,-0.040
-5.060E-06,0.400
-5.050E-06,0.360
-5.040E-06,0.240
-5.030E-06,0.440
-5.020E-06,0.320
-5.010E-06,0.240
-5.000E-06,0.400
-4.990E-06,0.400
-4.980E-06,0.320
-4.970E-06,0.400
-4.960E-06,0.360
-4.950E-06,0.160
-4.940E-06,0.200
-4.930E-06,0.240
-4.920E-06,0.120
-4.910E-06,0.240
-4.900E-06,0.200
-4.890E-06,0.000
-4.880E-06,0.000
-4.870E-06,0.040
-4.860E-06,0.000
-4.850E-06,0.000
-4.840E-06,0.040
-4.830E-06,0.000
-4.820E-06,0.000
-4.810E-06,-0.040
-4.800E-06,-0.040
-4.790E-06,0.000
-4.780E-06,0.080
-4.770E-06,0.080
-4.760E-06,0.080
-4.750E-06,0.080
-4.740E-06,0.080
-4.730E-06,0.200
-4.720E-06,0.200
-4.710E-06,0.240
-4.700E-06,0.240
-4.690E-06,0.200
-4.680E-06,0.240
-4.670E-06,0.280
-4.660E-06,0.360
-4.650E-06,0.320
-4.640E-06,0.400
-4.630E-06,0.360
-4.620E-06,0.320
-4.610E-06,0.240
-4.600E-06,0.240
-4.590E-06,0.280
-4.580E-06,0.320
-4.570E-06,0.280
-4.560E-06,0.240
-4.550E-06,0.240
-4.540E-06,0.160
-4.530E-06,0.160
-4.520E-06,0.160
-4.510E-06,0.240
-4.500E-06,0.200
-4.490E-06,0.120
-4.480E-06,0.160
-4.470E-06,0.120
-4.460E-06,0.160
-4.450E-06,0.200
-4.440E-06,0.120
-4.430E-06,0.120
-4.420E-06,0.160
-4.410E-06,0.120
-4.400E-06,0.120
-4.390E-06,0.200
-4.380E-06,0.160
-4.370E-06,0.120
-4.360E-06,0.160
-4.350E-06,0.120
-4.340E-06,0.160
-4.330E-06,0.120
-4.320E-06,0.160
-4.310E-06,0.160
-4.300E-06,0.200
-4.290E-06,0.160
-4.280E-06,0.200
-4.270E-06,0.160
-4.260E-06,0.160
-4.250E-06,0.160
-4.240E-06,0.200
-4.230E-06,0.240
-4.220E-06,0.240
-4.210E-06,0.240
-4.200E-06,0.240
-4.190E-06,0.240
-4.180E-06,0.240
-4.170E-06,0.240
-4.160E-06,0.280
-4.150E-06,0.320
-4.140E-06,0.280
-4.130E-06,0.320
-4.120E-06,0.320
-4.110E-06,0.320
-4.100E-06,0.360
-4.090E-06,0.400
-4.080E-06,0.360
-4.070E-06,0.400
-4.060E-06,0.400
-4.050E-06,0.360
-4.040E-06,0.440
-4.030E-06,0.400
-4.020E-06,0.440
-4.010E-06,0.520
-4.000E-06,0.520
-3.990E-06,0.440
-3.980E-06,0.280
-3.970E-06,0.080
-3.960E-06,0.000
-3.950E-06,0.000
-3.940E-06,0.280
-3.930E-06,0.480
-3.920E-06,0.480
-3.910E-06,0.520
-3.900E-06,0.320
-3.890E-06,0.080
-3.880E-06,0.040
-3.870E-06,0.160
-3.860E-06,0.200
-3.850E-06,0.400
-3.840E-06,0.480
-3.830E-06,0.360
-3.820E-06,0.280
-3.810E-06,0.400
-3.800E-06,0.360
-3.790E-06,0.480
-3.780E-06,0.480
-3.770E-06,0.560
-3.760E-06,0.520
-3.750E-06,0.480
-3.740E-06,0.520
-3.730E-06,0.520
-3.720E-06,0.680
-3.710E-06,0.840
-3.700E-06,0.880
-3.690E-06,0.920
-3.680E-06,0.960
-3.670E-06,1.040
-3.660E-06,1.080
-3.650E-06,1.240
-3.640E-06,1.520
-3.630E-06,1.800
-3.620E-06,2.080
-3.610E-06,2.000
-3.600E-06,1.920
-3.590E-06,1.840
-3.580E-06,1.760
-3.570E-06,1.880
-3.560E-06,2.200
-3.550E-06,2.560
-3.540E-06,2.720
-3.530E-06,2.880
-3.520E-06,2.480
-3.510E-06,2.400
-3.500E-06,2.200
-3.490E-06,2.320
-3.480E-06,2.360
-3.470E-06,2.880
-3.460E-06,2.840
-3.450E-06,2.680
-3.440E-06,2.600
-3.430E-06,2.400
-3.420E-06,2.240
-3.410E-06,2.400
-3.400E-06,2.360
-3.390E-06,2.160
-3.380E-06,2.200
-3.370E-06,2.240
-3.360E-06,2.120
-3.350E-06,2.240
-3.340E-06,2.040
-3.330E-06,1.720
-3.320E-06,1.680
-3.310E-06,1.720
-3.300E-06,1.600
-3.290E-06,1.640
-3.280E-06,1.680
-3.270E-06,1.480
-3.260E-06,1.360
-3.250E-06,1.240
-3.240E-06,1.040
-3.230E-06,1.080
-3.220E-06,1.120
-3.210E-06,1.120
-3.200E-06,1.120
-3.190E-06,1.040
-3.180E-06,1.040
-3.170E-06,1.000
-3.160E-06,1.040
-3.150E-06,1.120
-3.140E-06,1.080
-3.130E-06,1.120
-3.120E-06,1.240
-3.110E-06,1.280
-3.100E-06,1.440
-3.090E-06,1.520
-3.080E-06,1.560
-3.070E-06,1.520
-3.060E-06,1.520
-3.050E-06,1.560
-3.040E-06,1.480
-3.030E-06,1.600
-3.020E-06,1.640
-3.010E-06,1.640
-3.000E-06,1.760
-2.990E-06,1.720
-2.980E-06,1.680
-2.970E-06,1.680
-2.960E-06,1.640
-2.950E-06,1.560
-2.940E-06,1.560
-2.930E-06,1.440
-2.920E-06,1.360
-2.910E-06,1.200
-2.900E-06,1.080
-2.890E-06,0.880
-2.880E-06,0.720
-2.870E-06,0.480
-2.860E-06,0.560
-2.850E-06,0.480
-2.840E-06,0.680
-2.830E-06,0.840
-2.820E-06,1.040
-2.810E-06,1.040
-2.800E-06,1.080
-2.790E-06,0.960
-2.780E-06,0.840
-2.770E-06,0.960
-2.760E-06,0.920
-2.750E-06,0.920
-2.740E-06,1.000
-2.730E-06,0.960
-2.720E-06,0.720
-2.710E-06,0.960
-2.700E-06,0.840
-2.690E-06,0.640
-2.680E-06,1.120
-2.670E-06,0.560
-2.660E-06,0.880
-2.650E-06,0.880
-2.640E-06,1.160
-2.630E-06,1.760
-2.620E-06,2.040
-2.610E-06,1.880
-2.600E-06,1.560
-2.590E-06,1.360
-2.580E-06,1.160
-2.570E-06,1.120
-2.560E-06,1.160
-2.550E-06,1.400
-2.540E-06,1.760
-2.530E-06,2.000
-2.520E-06,2.200
-2.510E-06,2.000
-2.500E-06,1.800
-2.490E-06,1.480
-2.480E-06,1.400
-2.470E-06,1.240
-2.460E-06,1.320
-2.450E-06,1.360
-2.440E-06,1.200
-2.430E-06,1.080
-2.420E-06,0.880
-2.410E-06,0.640
-2.400E-06,0.440
-2.390E-06,0.400
-2.380E-06,0.360
-2.370E-06,0.320
-2.360E-06,0.240
-2.350E-06,0.200
-2.340E-06,0.240
-2.330E-06,-0.040
-2.320E-06,-0.160
-2.310E-06,-0.320
-2.300E-06,-0.400
-2.290E-06,-0.320
-2.280E-06,-0.160
-2.270E-06,-0.120
-2.260E-06,0.000
-2.250E-06,0.040
-2.240E-06,-0.040
-2.230E-06,-0.120
-2.220E-06,-0.120
-2.210E-06,-0.160
-2.200E-06,0.000
-2.190E-06,0.040
-2.180E-06,0.120
-2.170E-06,0.160
-2.160E-06,0.200
-2.150E-06,0.280
-2.140E-06,0.280
-2.130E-06,0.320
-2.120E-06,0.400
-2.110E-06,0.320
-2.100E-06,0.360
-2.090E-06,0.440
-2.080E-06,0.560
-2.070E-06,0.600
-2.060E-06,0.880
-2.050E-06,0.880
-2.040E-06,0.880
-2.030E-06,0.800
-2.020E-06,0.800
-2.010E-06,0.760
-2.000E-06,0.840
-1.990E-06,1.120
-1.980E-06,0.800
-1.970E-06,0.840
-1.960E-06,0.480
-1.950E-06,0.480
-1.940E-06,0.480
-1.930E-06,1.000
-1.920E-06,0.880
-1.910E-06,1.160
-1.900E-06,1.120
-1.890E-06,1.040
-1.880E-06,1.000
-1.870E-06,1.360
-1.860E-06,1.560
-1.850E-06,1.600
-1.840E-06,1.760
-1.830E-06,1.760
-1.820E-06,1.600
-1.810E-06,1.640
-1.800E-06,1.680
-1.790E-06,1.640
-1.780E-06,1.760
-1.770E-06,1.880
-1.760E-06,2.000
-1.750E-06,2.080
-1.740E-06,2.280
-1.730E-06,2.360
-1.720E-06,2.400
-1.710E-06,2.440
-1.700E-06,2.520
-1.690E-06,2.480
-1.680E-06,2.440
-1.670E-06,2.360
-1.660E-06,2.120
-1.650E-06,1.720
-1.640E-06,1.320
-1.630E-06,1.240
-1.620E-06,1.240
-1.610E-06,1.480
-1.600E-06,1.560
-1.590E-06,1.400
-1.580E-06,1.080
-1.570E-06,1.000
-1.560E-06,0.960
-1.550E-06,1.040
-1.540E-06,1.240
-1.530E-06,1.400
-1.520E-06,1.560
-1.510E-06,1.560
-1.500E-06,1.600
-1.490E-06,1.600
-1.480E-06,1.680
-1.470E-06,1.760
-1.460E-06,1.760
-1.450E-06,1.880
-1.440E-06,1.880
-1.430E-06,1.840
-1.420E-06,1.840
-1.410E-06,1.840
-1.400E-06,1.760
-1.390E-06,2.040
-1.380E-06,2.000
-1.370E-06,2.040
-1.360E-06,2.120
-1.350E-06,2.200
-1.340E-06,2.120
-1.330E-06,2.080
-1.320E-06,1.920
-1.310E-06,1.600
-1.300E-06,1.240
-1.290E-06,1.000
-1.280E-06,0.760
-1.270E-06,0.720
-1.260E-06,0.840
-1.250E-06,0.800
-1.240E-06,0.920
-1.230E-06,0.920
-1.220E-06,0.640
-1.210E-06,0.680
-1.200E-06,0.600
-1.190E-06,0.720
-1.180E-06,0.920
-1.170E-06,0.960
-1.160E-06,0.920
-1.150E-06,0.960
-1.140E-06,1.000
-1.130E-06,1.120
-1.120E-06,1.240
-1.110E-06,1.360
-1.100E-06,1.520
-1.090E-06,1.760
-1.080E-06,1.800
-1.070E-06,1.600
-1.060E-06,1.440
-1.050E-06,1.320
-1.040E-06,1.120
-1.030E-06,1.000
-1.020E-06,0.960
-1.010E-06,0.960
-1.000E-06,0.840
-9.900E-07,0.920
-9.800E-07,0.960
-9.700E-07,0.960
-9.600E-07,1.040
-9.500E-07,1.080
-9.400E-07,1.000
-9.300E-07,1.400
-9.200E-07,1.720
-9.100E-07,1.960
-9.000E-07,2.120
-8.900E-07,2.080
-8.800E-07,1.800
-8.700E-07,1.440
-8.600E-07,1.160
-8.500E-07,0.800
-8.400E-07,0.640
-8.300E-07,0.560
-8.200E-07,0.560
-8.100E-07,0.720
-8.000E-07,0.880
-7.900E-07,0.840
-7.800E-07,0.920
-7.700E-07,1.040
-7.600E-07,1.080
-7.500E-07,1.160
-7.400E-07,1.240
-7.300E-07,1.160
-7.200E-07,1.080
-7.100E-07,1.080
-7.000E-07,1.120
-6.900E-07,1.320
-6.800E-07,1.720
-6.700E-07,2.000
-6.600E-07,2.000
-6.500E-07,2.120
-6.400E-07,2.040
-6.300E-07,1.760
-6.200E-07,1.800
-6.100E-07,2.000
-6.000E-07,2.120
-5.900E-07,2.400
-5.800E-07,2.520
-5.700E-07,2.520
-5.600E-07,2.360
-5.500E-07,2.400
-5.400E-07,2.200
-5.300E-07,2.040
-5.200E-07,2.120
-5.100E-07,2.080
-5.000E-07,2.120
-4.900E-07,2.080
-4.800E-07,1.880
-4.700E-07,1.640
-4.600E-07,1.400
-4.500E-07,1.240
-4.400E-07,0.440
-4.300E-07,-0.040
-4.200E-07,-0.720
-4.100E-07,-0.880
-4.000E-07,-0.480
-3.900E-07,0.000
-3.800E-07,0.560
-3.700E-07,1.240
-3.600E-07,1.520
-3.500E-07,1.680
-3.400E-07,1.840
-3.300E-07,2.000
-3.200E-07,1.760
-3.100E-07,1.840
-3.000E-07,1.680
-2.900E-07,1.440
-2.800E-07,1.560
-2.700E-07,1.920
-2.600E-07,1.960
-2.500E-07,2.480
-2.400E-07,2.560
-2.300E-07,2.480
-2.200E-07,2.480
-2.100E-07,2.520
-2.000E-07,2.440
-1.900E-07,2.560
-1.800E-07,2.680
-1.700E-07,2.360
-1.600E-07,2.080
-1.500E-07,1.720
-1.400E-07,1.240
-1.300E-07,0.760
-1.200E-07,0.640
-1.100E-07,-0.280
-1.000E-07,-1.200
-9.000E-08,-1.760
-8.000E-08,-2.760
-7.000E-08,-2.400
-6.000E-08,-2.000
-5.000E-08,-1.520
-4.000E-08,-1.160
-3.000E-08,-1.360
-2.000E-08,-2.480
-1.000E-08,-3.000
0.000E+00,-3.640
1.000E-08,-3.560
2.000E-08,-3.080
3.000E-08,-3.000
4.000E-08,-3.320
5.000E-08,-3.480
6.000E-08,-4.200
7.000E-08,-4.840
8.000E-08,-4.960
9.000E-08,-5.200
1.000E-07,-5.200
1.100E-07,-5.240
1.200E-07,-5.200
1.300E-07,-5.240
1.400E-07,-5.240
1.500E-07,-5.200
1.600E-07,-5.200
1.700E-07,-5.200
1.800E-07,-5.240
1.900E-07,-5.240
2.000E-07,-5.240
2.100E-07,-5.240
2.200E-07,-5.240
2.300E-07,-5.240
2.400E-07,-5.200
2.500E-07,-5.200
2.600E-07,-5.200
2.700E-07,-5.240
2.800E-07,-5.240
2.900E-07,-5.240
3.000E-07,-5.240
3.100E-07,-5.200
3.200E-07,-5.200
3.300E-07,-5.200
3.400E-07,-5.200
3.500E-07,-5.200
3.600E-07,-5.240
3.700E-07,-5.240
3.800E-07,-5.240
3.900E-07,-5.200
4.000E-07,-5.240
4.100E-07,-5.200
4.200E-07,-5.200
4.300E-07,-5.200
4.400E-07,-5.240
4.500E-07,-5.240
4.600E-07,-5.240
4.700E-07,-5.240
4.800E-07,-5.200
4.900E-07,-5.200
5.000E-07,-5.080
5.100E-07,-5.000
5.200E-07,-4.880
5.300E-07,-4.600
5.400E-07,-4.640
5.500E-07,-4.440
5.600E-07,-4.080
5.700E-07,-3.920
5.800E-07,-3.600
5.900E-07,-3.440
6.000E-07,-3.720
6.100E-07,-4.040
6.200E-07,-4.440
6.300E-07,-4.960
6.400E-07,-5.200
6.500E-07,-5.200
6.600E-07,-5.240
6.700E-07,-5.240
6.800E-07,-5.200
6.900E-07,-4.560
7.000E-07,-3.680
7.100E-07,-2.760
7.200E-07,-1.920
7.300E-07,-1.200
7.400E-07,-0.400
7.500E-07,0.160
7.600E-07,0.800
7.700E-07,1.200
7.800E-07,1.320
7.900E-07,1.160
8.000E-07,1.160
8.100E-07,1.000
8.200E-07,0.680
8.300E-07,0.640
8.400E-07,0.400
8.500E-07,0.040
8.600E-07,-0.240
8.700E-07,-0.440
8.800E-07,-0.640
8.900E-07,-0.520
9.000E-07,-0.200
9.100E-07,0.120
9.200E-07,0.160
9.300E-07,0.480
9.400E-07,0.520
9.500E-07,0.440
9.600E-07,0.600
9.700E-07,0.600
9.800E-07,0.680
9.900E-07,0.800
1.000E-06,1.000
1.010E-06,1.080
1.020E-06,1.000
1.030E-06,0.760
1.040E-06,0.360
1.050E-06,-0.200
1.060E-06,-0.680
1.070E-06,-1.240
1.080E-06,-1.560
1.090E-06,-1.920
1.100E-06,-2.280
1.110E-06,-2.520
1.120E-06,-2.840
1.130E-06,-3.040
1.140E-06,-3.040
1.150E-06,-3.080
1.160E-06,-2.880
1.170E-06,-2.520
1.180E-06,-2.120
1.190E-06,-1.560
1.200E-06,-0.880
1.210E-06,-0.240
1.220E-06,0.160
1.230E-06,0.400
1.240E-06,0.560
1.250E-06,0.680
1.260E-06,0.840
1.270E-06,1.160
1.280E-06,1.520
1.290E-06,1.760
1.300E-06,2.040
1.310E-06,2.040
1.320E-06,2.000
1.330E-06,1.920
1.340E-06,1.800
1.350E-06,1.760
1.360E-06,1.880
1.370E-06,1.880
1.380E-06,1.880
1.390E-06,1.800
1.400E-06,1.560
1.410E-06,1.320
1.420E-06,0.880
1.430E-06,0.480
1.440E-06,0.480
1.450E-06,-0.040
1.460E-06,-0.800
1.470E-06,-2.000
1.480E-06,-3.000
1.490E-06,-5.120
1.500E-06,-4.880
1.510E-06,-5.240
1.520E-06,-5.240
1.530E-06,-5.200
1.540E-06,-2.920
1.550E-06,-0.120
1.560E-06,3.800
1.570E-06,5.400
1.580E-06,4.920
1.590E-06,4.720
1.600E-06,4.480
1.610E-06,3.400
1.620E-06,4.000
1.630E-06,5.080
1.640E-06,4.920
1.650E-06,4.520
1.660E-06,3.640
1.670E-06,2.000
1.680E-06,1.000
1.690E-06,0.560
1.700E-06,-0.360
1.710E-06,-0.880
1.720E-06,-0.880
1.730E-06,-1.400
1.740E-06,-1.960
1.750E-06,-2.240
1.760E-06,-2.680
1.770E-06,-2.840
1.780E-06,-2.720
1.790E-06,-2.600
1.800E-06,-2.680
1.810E-06,-2.680
1.820E-06,-2.720
1.830E-06,-2.800
1.840E-06,-2.840
1.850E-06,-2.840
1.860E-06,-2.760
1.870E-06,-2.640
1.880E-06,-2.520
1.890E-06,-2.400
1.900E-06,-2.400
1.910E-06,-2.240
1.920E-06,-2.040
1.930E-06,-2.000
1.940E-06,-1.680
1.950E-06,-1.120
1.960E-06,-0.560
1.970E-06,0.120
1.980E-06,0.840
1.990E-06,1.280
2.000E-06,1.640
2.010E-06,1.840
2.020E-06,1.880
2.030E-06,1.880
2.040E-06,1.800
2.050E-06,1.480
2.060E-06,1.040
2.070E-06,0.560
2.080E-06,-0.240
2.090E-06,-1.040
2.100E-06,-1.800
2.110E-06,-2.480
2.120E-06,-2.880
2.130E-06,-3.040
2.140E-06,-2.960
2.150E-06,-2.480
2.160E-06,-1.920
2.170E-06,-1.360
2.180E-06,-0.600
2.190E-06,0.040
2.200E-06,0.520
2.210E-06,1.120
2.220E-06,1.640
2.230E-06,1.960
2.240E-06,2.360
2.250E-06,2.720
2.260E-06,2.480
2.270E-06,2.320
2.280E-06,2.320
2.290E-06,2.000
2.300E-06,1.880
2.310E-06,1.800
2.320E-06,1.680
2.330E-06,1.520
2.340E-06,1.520
2.350E-06,1.440
2.360E-06,1.240
2.370E-06,1.240
2.380E-06,1.480
2.390E-06,1.720
2.400E-06,2.040
2.410E-06,2.480
2.420E-06,2.800
2.430E-06,2.920
2.440E-06,2.920
2.450E-06,2.880
2.460E-06,2.640
2.470E-06,2.320
2.480E-06,1.880
2.490E-06,1.440
2.500E-06,0.800
2.510E-06,0.080
2.520E-06,-0.760
2.530E-06,-1.840
2.540E-06,-3.000
2.550E-06,-4.240
2.560E-06,-5.200
2.570E-06,-5.200
2.580E-06,-5.240
2.590E-06,-5.240
2.600E-06,-4.720
2.610E-06,-4.000
2.620E-06,-3.120
2.630E-06,-1.800
2.640E-06,-0.520
2.650E-06,0.640
2.660E-06,1.480
2.670E-06,1.920
2.680E-06,1.440
2.690E-06,0.480
2.700E-06,-1.160
2.710E-06,-3.280
2.720E-06,-4.520
2.730E-06,-5.160
2.740E-06,-3.920
2.750E-06,-3.160
2.760E-06,-1.680
2.770E-06,-0.240
2.780E-06,-0.840
2.790E-06,-1.720
2.800E-06,-2.320
2.810E-06,-3.840
2.820E-06,-3.720
2.830E-06,-1.600
2.840E-06,0.520
2.850E-06,3.560
2.860E-06,5.440
2.870E-06,5.400
2.880E-06,5.440
2.890E-06,5.480
2.900E-06,1.440
2.910E-06,-1.880
2.920E-06,-2.000
2.930E-06,-1.520
2.940E-06,-0.040
2.950E-06,2.320
2.960E-06,3.960
2.970E-06,4.520
2.980E-06,5.160
2.990E-06,5.080
3.000E-06,4.720
3.010E-06,4.520
3.020E-06,4.800
3.030E-06,4.560
3.040E-06,4.440
3.050E-06,4.400
3.060E-06,4.160
3.070E-06,3.720
3.080E-06,3.280
3.090E-06,2.800
3.100E-06,2.080
3.110E-06,1.720
3.120E-06,1.400
3.130E-06,0.920
3.140E-06,0.680
3.150E-06,0.560
3.160E-06,0.360
3.170E-06,0.160
3.180E-06,0.080
3.190E-06,-0.200
3.200E-06,-0.480
3.210E-06,-0.680
3.220E-06,-0.920
3.230E-06,-1.160
3.240E-06,-1.200
3.250E-06,-1.320
3.260E-06,-1.320
3.270E-06,-1.320
3.280E-06,-1.360
3.290E-06,-1.320
3.300E-06,-1.360
3.310E-06,-1.360
3.320E-06,-1.440
3.330E-06,-1.520
3.340E-06,-1.440
