mediciones/5-22/-0.01/WaveData4923.csv

#timebase=2000000(ps)
,#voltbase=1000000(mv/100)
#size=4000
-8.400E-06,0.120
-8.390E-06,0.080
-8.380E-06,-0.040
-8.370E-06,-0.040
-8.360E-06,-0.040
-8.350E-06,-0.040
-8.340E-06,-0.040
-8.330E-06,-0.080
-8.320E-06,-0.160
-8.310E-06,-0.240
-8.300E-06,-0.360
-8.290E-06,-0.360
-8.280E-06,-0.320
-8.270E-06,-0.400
-8.260E-06,-0.360
-8.250E-06,-0.320
-8.240E-06,-0.400
-8.230E-06,-0.480
-8.220E-06,-0.560
-8.210E-06,-0.600
-8.200E-06,-0.680
-8.190E-06,-0.640
-8.180E-06,-0.560
-8.170E-06,-0.520
-8.160E-06,-0.240
-8.150E-06,-0.160
-8.140E-06,-0.200
-8.130E-06,-0.240
-8.120E-06,-0.200
-8.110E-06,-0.200
-8.100E-06,-0.080
-8.090E-06,0.040
-8.080E-06,0.080
-8.070E-06,0.160
-8.060E-06,0.240
-8.050E-06,0.240
-8.040E-06,0.360
-8.030E-06,0.440
-8.020E-06,0.520
-8.010E-06,0.600
-8.000E-06,0.600
-7.990E-06,0.680
-7.980E-06,0.760
-7.970E-06,0.840
-7.960E-06,0.920
-7.950E-06,0.960
-7.940E-06,0.880
-7.930E-06,0.880
-7.920E-06,0.920
-7.910E-06,0.960
-7.900E-06,1.040
-7.890E-06,1.040
-7.880E-06,0.960
-7.870E-06,0.960
-7.860E-06,0.960
-7.850E-06,0.880
-7.840E-06,0.920
-7.830E-06,0.960
-7.820E-06,0.920
-7.810E-06,0.800
-7.800E-06,0.680
-7.790E-06,0.640
-7.780E-06,0.560
-7.770E-06,0.480
-7.760E-06,0.480
-7.750E-06,0.400
-7.740E-06,0.400
-7.730E-06,0.280
-7.720E-06,0.160
-7.710E-06,0.080
-7.700E-06,0.120
-7.690E-06,-0.040
-7.680E-06,-0.120
-7.670E-06,-0.320
-7.660E-06,-0.400
-7.650E-06,-0.520
-7.640E-06,-0.520
-7.630E-06,-0.480
-7.620E-06,-0.520
-7.610E-06,-0.640
-7.600E-06,-0.560
-7.590E-06,-0.480
-7.580E-06,-0.320
-7.570E-06,-0.040
-7.560E-06,0.080
-7.550E-06,0.120
-7.540E-06,0.160
-7.530E-06,0.120
-7.520E-06,0.080
-7.510E-06,0.240
-7.500E-06,0.400
-7.490E-06,0.440
-7.480E-06,0.400
-7.470E-06,0.320
-7.460E-06,0.120
-7.450E-06,0.000
-7.440E-06,0.160
-7.430E-06,0.120
-7.420E-06,0.200
-7.410E-06,0.240
-7.400E-06,0.160
-7.390E-06,0.080
-7.380E-06,0.160
-7.370E-06,0.240
-7.360E-06,0.320
-7.350E-06,0.560
-7.340E-06,0.800
-7.330E-06,0.800
-7.320E-06,0.880
-7.310E-06,0.800
-7.300E-06,0.640
-7.290E-06,0.600
-7.280E-06,0.520
-7.270E-06,0.440
-7.260E-06,0.360
-7.250E-06,0.240
-7.240E-06,0.200
-7.230E-06,0.080
-7.220E-06,0.080
-7.210E-06,-0.080
-7.200E-06,-0.120
-7.190E-06,-0.080
-7.180E-06,-0.120
-7.170E-06,-0.400
-7.160E-06,-0.360
-7.150E-06,-0.400
-7.140E-06,-0.400
-7.130E-06,-0.280
-7.120E-06,-0.040
-7.110E-06,-0.160
-7.100E-06,-0.120
-7.090E-06,-0.120
-7.080E-06,-0.080
-7.070E-06,0.160
-7.060E-06,0.480
-7.050E-06,0.640
-7.040E-06,0.720
-7.030E-06,0.760
-7.020E-06,0.600
-7.010E-06,0.480
-7.000E-06,0.320
-6.990E-06,0.320
-6.980E-06,0.240
-6.970E-06,0.360
-6.960E-06,0.360
-6.950E-06,0.400
-6.940E-06,0.320
-6.930E-06,0.360
-6.920E-06,-0.040
-6.910E-06,0.040
-6.900E-06,0.240
-6.890E-06,0.520
-6.880E-06,0.840
-6.870E-06,0.720
-6.860E-06,0.560
-6.850E-06,0.520
-6.840E-06,0.640
-6.830E-06,0.800
-6.820E-06,0.880
-6.810E-06,0.960
-6.800E-06,0.880
-6.790E-06,0.840
-6.780E-06,0.640
-6.770E-06,0.520
-6.760E-06,0.400
-6.750E-06,0.360
-6.740E-06,0.240
-6.730E-06,0.080
-6.720E-06,-0.080
-6.710E-06,0.000
-6.700E-06,0.040
-6.690E-06,0.040
-6.680E-06,0.040
-6.670E-06,0.160
-6.660E-06,0.000
-6.650E-06,0.160
-6.640E-06,0.320
-6.630E-06,0.200
-6.620E-06,0.000
-6.610E-06,0.000
-6.600E-06,-0.160
-6.590E-06,-0.280
-6.580E-06,-0.320
-6.570E-06,-0.400
-6.560E-06,-0.640
-6.550E-06,-0.720
-6.540E-06,-0.920
-6.530E-06,-1.040
-6.520E-06,-1.040
-6.510E-06,-0.920
-6.500E-06,-0.760
-6.490E-06,-0.720
-6.480E-06,-0.720
-6.470E-06,-0.720
-6.460E-06,-0.880
-6.450E-06,-0.880
-6.440E-06,-0.880
-6.430E-06,-0.840
-6.420E-06,-0.600
-6.410E-06,-0.360
-6.400E-06,-0.240
-6.390E-06,-0.160
-6.380E-06,-0.240
-6.370E-06,-0.360
-6.360E-06,-0.320
-6.350E-06,-0.400
-6.340E-06,-0.480
-6.330E-06,-0.360
-6.320E-06,-0.280
-6.310E-06,-0.240
-6.300E-06,-0.200
-6.290E-06,-0.120
-6.280E-06,-0.120
-6.270E-06,-0.080
-6.260E-06,0.040
-6.250E-06,0.120
-6.240E-06,0.120
-6.230E-06,0.240
-6.220E-06,0.320
-6.210E-06,0.320
-6.200E-06,0.320
-6.190E-06,0.320
-6.180E-06,0.360
-6.170E-06,0.280
-6.160E-06,0.160
-6.150E-06,0.120
-6.140E-06,0.080
-6.130E-06,0.000
-6.120E-06,0.000
-6.110E-06,-0.040
-6.100E-06,-0.120
-6.090E-06,-0.240
-6.080E-06,-0.320
-6.070E-06,-0.360
-6.060E-06,-0.440
-6.050E-06,-0.440
-6.040E-06,-0.480
-6.030E-06,-0.520
-6.020E-06,-0.560
-6.010E-06,-0.520
-6.000E-06,-0.520
-5.990E-06,-0.520
-5.980E-06,-0.560
-5.970E-06,-0.560
-5.960E-06,-0.600
-5.950E-06,-0.640
-5.940E-06,-0.600
-5.930E-06,-0.600
-5.920E-06,-0.600
-5.910E-06,-0.560
-5.900E-06,-0.520
-5.890E-06,-0.520
-5.880E-06,-0.480
-5.870E-06,-0.480
-5.860E-06,-0.480
-5.850E-06,-0.440
-5.840E-06,-0.440
-5.830E-06,-0.400
-5.820E-06,-0.360
-5.810E-06,-0.400
-5.800E-06,-0.320
-5.790E-06,-0.360
-5.780E-06,-0.320
-5.770E-06,-0.200
-5.760E-06,-0.240
-5.750E-06,-0.440
-5.740E-06,-0.240
-5.730E-06,-0.160
-5.720E-06,-0.120
-5.710E-06,0.000
-5.700E-06,-0.120
-5.690E-06,-0.520
-5.680E-06,-0.680
-5.670E-06,-0.520
-5.660E-06,-0.280
-5.650E-06,0.000
-5.640E-06,0.360
-5.630E-06,0.400
-5.620E-06,0.120
-5.610E-06,-0.160
-5.600E-06,-0.320
-5.590E-06,-0.320
-5.580E-06,-0.360
-5.570E-06,-0.440
-5.560E-06,-0.480
-5.550E-06,-0.800
-5.540E-06,-0.960
-5.530E-06,-1.000
-5.520E-06,-1.000
-5.510E-06,-0.880
-5.500E-06,-0.760
-5.490E-06,-0.760
-5.480E-06,-0.840
-5.470E-06,-0.800
-5.460E-06,-0.720
-5.450E-06,-0.640
-5.440E-06,-0.440
-5.430E-06,-0.360
-5.420E-06,-0.280
-5.410E-06,-0.160
-5.400E-06,-0.080
-5.390E-06,0.040
-5.380E-06,0.280
-5.370E-06,0.320
-5.360E-06,0.440
-5.350E-06,0.440
-5.340E-06,0.520
-5.330E-06,0.560
-5.320E-06,0.680
-5.310E-06,0.800
-5.300E-06,0.880
-5.290E-06,1.000
-5.280E-06,1.040
-5.270E-06,1.040
-5.260E-06,0.880
-5.250E-06,0.880
-5.240E-06,0.880
-5.230E-06,0.840
-5.220E-06,0.760
-5.210E-06,0.840
-5.200E-06,0.800
-5.190E-06,0.800
-5.180E-06,0.720
-5.170E-06,0.680
-5.160E-06,0.560
-5.150E-06,0.520
-5.140E-06,0.440
-5.130E-06,0.440
-5.120E-06,0.360
-5.110E-06,0.320
-5.100E-06,0.080
-5.090E-06,-0.160
-5.080E-06,-0.360
-5.070E-06,-0.400
-5.060E-06,-0.200
-5.050E-06,0.000
-5.040E-06,0.080
-5.030E-06,0.040
-5.020E-06,0.000
-5.010E-06,-0.160
-5.000E-06,-0.320
-4.990E-06,-0.120
-4.980E-06,-0.160
-4.970E-06,0.120
-4.960E-06,0.640
-4.950E-06,0.840
-4.940E-06,1.120
-4.930E-06,1.080
-4.920E-06,0.880
-4.910E-06,0.760
-4.900E-06,0.680
-4.890E-06,0.640
-4.880E-06,0.480
-4.870E-06,0.440
-4.860E-06,0.240
-4.850E-06,0.000
-4.840E-06,-0.200
-4.830E-06,-0.240
-4.820E-06,-0.120
-4.810E-06,-0.160
-4.800E-06,-0.240
-4.790E-06,-0.320
-4.780E-06,-0.480
-4.770E-06,-0.480
-4.760E-06,-0.240
-4.750E-06,0.000
-4.740E-06,0.080
-4.730E-06,0.160
-4.720E-06,-0.040
-4.710E-06,0.000
-4.700E-06,0.000
-4.690E-06,-0.080
-4.680E-06,0.000
-4.670E-06,0.160
-4.660E-06,0.320
-4.650E-06,0.520
-4.640E-06,0.720
-4.630E-06,0.840
-4.620E-06,0.800
-4.610E-06,0.880
-4.600E-06,0.800
-4.590E-06,0.800
-4.580E-06,0.800
-4.570E-06,0.880
-4.560E-06,0.880
-4.550E-06,0.920
-4.540E-06,0.960
-4.530E-06,0.640
-4.520E-06,0.360
-4.510E-06,0.120
-4.500E-06,-0.080
-4.490E-06,-0.080
-4.480E-06,0.080
-4.470E-06,0.160
-4.460E-06,0.160
-4.450E-06,-0.120
-4.440E-06,-0.320
-4.430E-06,-0.440
-4.420E-06,-0.480
-4.410E-06,-0.440
-4.400E-06,-0.360
-4.390E-06,-0.440
-4.380E-06,-0.480
-4.370E-06,-0.680
-4.360E-06,-0.880
-4.350E-06,-0.960
-4.340E-06,-1.000
-4.330E-06,-0.960
-4.320E-06,-0.840
-4.310E-06,-0.960
-4.300E-06,-0.680
-4.290E-06,-0.600
-4.280E-06,-0.240
-4.270E-06,0.120
-4.260E-06,0.240
-4.250E-06,0.000
-4.240E-06,-0.040
-4.230E-06,-0.160
-4.220E-06,-0.200
-4.210E-06,0.160
-4.200E-06,0.400
-4.190E-06,0.480
-4.180E-06,0.600
-4.170E-06,0.520
-4.160E-06,0.360
-4.150E-06,0.480
-4.140E-06,0.680
-4.130E-06,0.840
-4.120E-06,1.040
-4.110E-06,1.200
-4.100E-06,1.240
-4.090E-06,1.160
-4.080E-06,1.080
-4.070E-06,0.840
-4.060E-06,0.760
-4.050E-06,0.640
-4.040E-06,0.600
-4.030E-06,0.520
-4.020E-06,0.480
-4.010E-06,0.360
-4.000E-06,0.160
-3.990E-06,-0.040
-3.980E-06,-0.280
-3.970E-06,-0.480
-3.960E-06,-0.560
-3.950E-06,-0.600
-3.940E-06,-0.600
-3.930E-06,-0.720
-3.920E-06,-0.920
-3.910E-06,-1.160
-3.900E-06,-1.320
-3.890E-06,-1.480
-3.880E-06,-1.480
-3.870E-06,-1.360
-3.860E-06,-1.200
-3.850E-06,-1.080
-3.840E-06,-1.080
-3.830E-06,-1.040
-3.820E-06,-0.800
-3.810E-06,-0.600
-3.800E-06,-0.320
-3.790E-06,-0.320
-3.780E-06,-0.400
-3.770E-06,-0.440
-3.760E-06,-0.360
-3.750E-06,-0.240
-3.740E-06,0.080
-3.730E-06,0.360
-3.720E-06,0.600
-3.710E-06,0.920
-3.700E-06,1.040
-3.690E-06,1.040
-3.680E-06,1.120
-3.670E-06,1.120
-3.660E-06,1.120
-3.650E-06,1.200
-3.640E-06,1.240
-3.630E-06,1.240
-3.620E-06,1.280
-3.610E-06,1.200
-3.600E-06,1.040
-3.590E-06,0.920
-3.580E-06,0.840
-3.570E-06,0.640
-3.560E-06,0.520
-3.550E-06,0.360
-3.540E-06,0.120
-3.530E-06,0.040
-3.520E-06,-0.120
-3.510E-06,-0.440
-3.500E-06,-0.720
-3.490E-06,-1.080
-3.480E-06,-1.400
-3.470E-06,-1.680
-3.460E-06,-1.840
-3.450E-06,-1.760
-3.440E-06,-1.680
-3.430E-06,-1.560
-3.420E-06,-1.400
-3.410E-06,-1.400
-3.400E-06,-1.360
-3.390E-06,-1.360
-3.380E-06,-1.400
-3.370E-06,-1.240
-3.360E-06,-1.080
-3.350E-06,-0.760
-3.340E-06,-0.520
-3.330E-06,-0.360
-3.320E-06,-0.120
-3.310E-06,-0.040
-3.300E-06,0.200
-3.290E-06,0.320
-3.280E-06,0.440
-3.270E-06,0.440
-3.260E-06,0.560
-3.250E-06,0.680
-3.240E-06,0.880
-3.230E-06,1.120
-3.220E-06,1.400
-3.210E-06,1.440
-3.200E-06,1.480
-3.190E-06,1.440
-3.180E-06,1.360
-3.170E-06,1.320
-3.160E-06,1.320
-3.150E-06,1.280
-3.140E-06,1.200
-3.130E-06,1.240
-3.120E-06,1.160
-3.110E-06,1.120
-3.100E-06,1.000
-3.090E-06,0.880
-3.080E-06,0.840
-3.070E-06,0.840
-3.060E-06,0.800
-3.050E-06,0.760
-3.040E-06,0.680
-3.030E-06,0.600
-3.020E-06,0.520
-3.010E-06,0.440
-3.000E-06,0.400
-2.990E-06,0.400
-2.980E-06,0.280
-2.970E-06,0.240
-2.960E-06,0.080
-2.950E-06,-0.120
-2.940E-06,-0.200
-2.930E-06,-0.440
-2.920E-06,-0.680
-2.910E-06,-1.040
-2.900E-06,-1.320
-2.890E-06,-1.480
-2.880E-06,-1.560
-2.870E-06,-1.480
-2.860E-06,-1.520
-2.850E-06,-1.640
-2.840E-06,-1.760
-2.830E-06,-1.800
-2.820E-06,-2.000
-2.810E-06,-1.800
-2.800E-06,-1.760
-2.790E-06,-1.640
-2.780E-06,-1.360
-2.770E-06,-1.160
-2.760E-06,-1.000
-2.750E-06,-0.720
-2.740E-06,-0.480
-2.730E-06,-0.440
-2.720E-06,-0.240
-2.710E-06,-0.280
-2.700E-06,-0.280
-2.690E-06,0.040
-2.680E-06,0.120
-2.670E-06,0.320
-2.660E-06,0.480
-2.650E-06,0.600
-2.640E-06,0.680
-2.630E-06,0.880
-2.620E-06,0.960
-2.610E-06,1.080
-2.600E-06,1.160
-2.590E-06,1.400
-2.580E-06,1.480
-2.570E-06,1.520
-2.560E-06,1.560
-2.550E-06,1.480
-2.540E-06,1.440
-2.530E-06,1.520
-2.520E-06,1.520
-2.510E-06,1.200
-2.500E-06,1.040
-2.490E-06,0.880
-2.480E-06,0.760
-2.470E-06,0.800
-2.460E-06,0.840
-2.450E-06,0.680
-2.440E-06,0.760
-2.430E-06,0.680
-2.420E-06,0.600
-2.410E-06,0.520
-2.400E-06,0.560
-2.390E-06,0.360
-2.380E-06,0.160
-2.370E-06,-0.160
-2.360E-06,-0.360
-2.350E-06,-0.440
-2.340E-06,-0.400
-2.330E-06,-0.440
-2.320E-06,-0.400
-2.310E-06,-0.520
-2.300E-06,-0.720
-2.290E-06,-1.120
-2.280E-06,-1.320
-2.270E-06,-1.400
-2.260E-06,-1.320
-2.250E-06,-0.880
-2.240E-06,-0.640
-2.230E-06,-0.360
-2.220E-06,-0.200
-2.210E-06,-0.240
-2.200E-06,-0.320
-2.190E-06,-0.440
-2.180E-06,-0.640
-2.170E-06,-0.720
-2.160E-06,-0.640
-2.150E-06,-0.600
-2.140E-06,-0.320
-2.130E-06,0.000
-2.120E-06,0.400
-2.110E-06,0.640
-2.100E-06,0.640
-2.090E-06,0.600
-2.080E-06,0.320
-2.070E-06,0.280
-2.060E-06,0.080
-2.050E-06,0.160
-2.040E-06,0.360
-2.030E-06,0.600
-2.020E-06,0.800
-2.010E-06,0.920
-2.000E-06,0.920
-1.990E-06,0.960
-1.980E-06,0.840
-1.970E-06,0.760
-1.960E-06,0.600
-1.950E-06,0.400
-1.940E-06,0.400
-1.930E-06,0.400
-1.920E-06,0.400
-1.910E-06,0.440
-1.900E-06,0.320
-1.890E-06,0.200
-1.880E-06,-0.040
-1.870E-06,-0.240
-1.860E-06,-0.480
-1.850E-06,-0.520
-1.840E-06,-0.600
-1.830E-06,-0.680
-1.820E-06,-0.600
-1.810E-06,-0.680
-1.800E-06,-0.600
-1.790E-06,-0.680
-1.780E-06,-0.720
-1.770E-06,-0.800
-1.760E-06,-0.760
-1.750E-06,-0.760
-1.740E-06,-0.680
-1.730E-06,-0.720
-1.720E-06,-0.800
-1.710E-06,-0.880
-1.700E-06,-0.960
-1.690E-06,-1.000
-1.680E-06,-1.200
-1.670E-06,-1.320
-1.660E-06,-1.440
-1.650E-06,-1.640
-1.640E-06,-1.600
-1.630E-06,-1.600
-1.620E-06,-1.560
-1.610E-06,-1.560
-1.600E-06,-1.480
-1.590E-06,-1.600
-1.580E-06,-1.680
-1.570E-06,-1.840
-1.560E-06,-2.040
-1.550E-06,-2.120
-1.540E-06,-2.040
-1.530E-06,-1.880
-1.520E-06,-1.400
-1.510E-06,-1.000
-1.500E-06,-0.760
-1.490E-06,-0.520
-1.480E-06,-0.480
-1.470E-06,-0.520
-1.460E-06,-0.520
-1.450E-06,-0.480
-1.440E-06,-0.400
-1.430E-06,-0.040
-1.420E-06,0.320
-1.410E-06,0.480
-1.400E-06,0.640
-1.390E-06,0.840
-1.380E-06,0.920
-1.370E-06,1.080
-1.360E-06,1.360
-1.350E-06,1.520
-1.340E-06,1.600
-1.330E-06,1.560
-1.320E-06,1.400
-1.310E-06,1.200
-1.300E-06,0.880
-1.290E-06,0.680
-1.280E-06,0.360
-1.270E-06,0.120
-1.260E-06,-0.160
-1.250E-06,-0.520
-1.240E-06,-0.920
-1.230E-06,-1.280
-1.220E-06,-1.720
-1.210E-06,-2.000
-1.200E-06,-2.200
-1.190E-06,-2.280
-1.180E-06,-2.280
-1.170E-06,-2.120
-1.160E-06,-2.120
-1.150E-06,-2.120
-1.140E-06,-2.240
-1.130E-06,-2.520
-1.120E-06,-2.800
-1.110E-06,-3.080
-1.100E-06,-3.240
-1.090E-06,-3.320
-1.080E-06,-3.120
-1.070E-06,-3.240
-1.060E-06,-3.160
-1.050E-06,-2.960
-1.040E-06,-2.840
-1.030E-06,-2.440
-1.020E-06,-2.080
-1.010E-06,-2.200
-1.000E-06,-2.000
-9.900E-07,-1.360
-9.800E-07,-1.000
-9.700E-07,-0.160
-9.600E-07,0.400
-9.500E-07,0.480
-9.400E-07,0.640
-9.300E-07,0.880
-9.200E-07,1.040
-9.100E-07,1.320
-9.000E-07,1.680
-8.900E-07,1.840
-8.800E-07,2.040
-8.700E-07,2.200
-8.600E-07,2.200
-8.500E-07,2.360
-8.400E-07,2.480
-8.300E-07,2.480
-8.200E-07,2.320
-8.100E-07,2.200
-8.000E-07,1.840
-7.900E-07,1.480
-7.800E-07,1.160
-7.700E-07,0.800
-7.600E-07,0.360
-7.500E-07,0.000
-7.400E-07,-0.360
-7.300E-07,-0.920
-7.200E-07,-1.520
-7.100E-07,-2.120
-7.000E-07,-2.920
-6.900E-07,-3.480
-6.800E-07,-3.920
-6.700E-07,-4.400
-6.600E-07,-4.760
-6.500E-07,-5.120
-6.400E-07,-5.240
-6.300E-07,-5.240
-6.200E-07,-5.200
-6.100E-07,-5.240
-6.000E-07,-5.040
-5.900E-07,-4.720
-5.800E-07,-4.360
-5.700E-07,-3.680
-5.600E-07,-3.240
-5.500E-07,-2.600
-5.400E-07,-2.240
-5.300E-07,-1.840
-5.200E-07,-1.600
-5.100E-07,-1.360
-5.000E-07,-1.120
-4.900E-07,-0.640
-4.800E-07,-0.440
-4.700E-07,-0.040
-4.600E-07,0.480
-4.500E-07,0.720
-4.400E-07,1.040
-4.300E-07,1.240
-4.200E-07,1.120
-4.100E-07,1.040
-4.000E-07,0.840
-3.900E-07,0.320
-3.800E-07,-0.280
-3.700E-07,-0.760
-3.600E-07,-1.520
-3.500E-07,-2.200
-3.400E-07,-3.040
-3.300E-07,-4.160
-3.200E-07,-5.240
-3.100E-07,-5.240
-3.000E-07,-5.240
-2.900E-07,-5.200
-2.800E-07,-5.240
-2.700E-07,-5.240
-2.600E-07,-5.240
-2.500E-07,-5.200
-2.400E-07,-5.240
-2.300E-07,-4.640
-2.200E-07,-3.120
-2.100E-07,-1.680
-2.000E-07,0.000
-1.900E-07,0.800
-1.800E-07,1.080
-1.700E-07,0.960
-1.600E-07,0.880
-1.500E-07,0.960
-1.400E-07,1.280
-1.300E-07,1.400
-1.200E-07,1.120
-1.100E-07,0.400
-1.000E-07,-0.480
-9.000E-08,-1.280
-8.000E-08,-2.040
-7.000E-08,-2.600
-6.000E-08,-2.960
-5.000E-08,-3.160
-4.000E-08,-3.080
-3.000E-08,-2.840
-2.000E-08,-2.240
-1.000E-08,-1.640
0.000E+00,-0.800
1.000E-08,0.160
2.000E-08,1.080
3.000E-08,1.720
4.000E-08,1.840
5.000E-08,1.520
6.000E-08,0.560
7.000E-08,-0.480
8.000E-08,-1.320
9.000E-08,-2.080
1.000E-07,-2.600
1.100E-07,-2.920
1.200E-07,-3.240
1.300E-07,-3.560
1.400E-07,-3.720
1.500E-07,-3.840
1.600E-07,-3.800
1.700E-07,-3.720
1.800E-07,-3.440
1.900E-07,-3.200
2.000E-07,-3.000
2.100E-07,-2.680
2.200E-07,-2.280
2.300E-07,-1.920
2.400E-07,-1.320
2.500E-07,-0.640
2.600E-07,-0.120
2.700E-07,0.200
2.800E-07,0.360
2.900E-07,0.120
3.000E-07,-0.200
3.100E-07,-0.720
3.200E-07,-1.280
3.300E-07,-1.800
3.400E-07,-2.160
3.500E-07,-2.640
3.600E-07,-3.040
3.700E-07,-3.480
3.800E-07,-3.800
3.900E-07,-4.120
4.000E-07,-4.360
4.100E-07,-4.480
4.200E-07,-4.400
4.300E-07,-4.360
4.400E-07,-4.280
4.500E-07,-4.280
4.600E-07,-4.240
4.700E-07,-4.200
4.800E-07,-4.200
4.900E-07,-4.120
5.000E-07,-3.960
5.100E-07,-3.840
5.200E-07,-3.720
5.300E-07,-3.640
5.400E-07,-3.560
5.500E-07,-3.640
5.600E-07,-3.840
5.700E-07,-4.080
5.800E-07,-4.320
5.900E-07,-4.520
6.000E-07,-4.720
6.100E-07,-5.000
6.200E-07,-5.200
6.300E-07,-5.200
6.400E-07,-5.160
6.500E-07,-4.760
6.600E-07,-4.360
6.700E-07,-3.960
6.800E-07,-3.760
6.900E-07,-3.440
7.000E-07,-2.960
7.100E-07,-2.120
7.200E-07,-1.240
7.300E-07,-0.480
7.400E-07,0.160
7.500E-07,0.440
7.600E-07,0.440
7.700E-07,0.240
7.800E-07,0.120
7.900E-07,0.040
8.000E-07,0.360
8.100E-07,0.680
8.200E-07,0.880
8.300E-07,0.840
8.400E-07,0.440
8.500E-07,-0.080
8.600E-07,-0.680
8.700E-07,-1.200
8.800E-07,-1.640
8.900E-07,-2.080
9.000E-07,-2.400
9.100E-07,-2.760
9.200E-07,-2.800
9.300E-07,-2.600
9.400E-07,-2.280
9.500E-07,-1.920
9.600E-07,-1.680
9.700E-07,-1.560
9.800E-07,-1.480
9.900E-07,-1.360
1.000E-06,-1.320
1.010E-06,-1.200
1.020E-06,-1.080
1.030E-06,-0.960
1.040E-06,-0.880
1.050E-06,-1.040
1.060E-06,-1.160
1.070E-06,-1.320
1.080E-06,-1.480
1.090E-06,-1.640
1.100E-06,-1.680
1.110E-06,-1.640
1.120E-06,-1.680
1.130E-06,-1.680
1.140E-06,-1.680
1.150E-06,-1.680
1.160E-06,-1.640
1.170E-06,-1.560
1.180E-06,-1.400
1.190E-06,-1.320
1.200E-06,-1.200
1.210E-06,-1.120
1.220E-06,-1.120
1.230E-06,-1.160
1.240E-06,-1.200
1.250E-06,-1.160
1.260E-06,-1.160
1.270E-06,-1.200
1.280E-06,-1.240
1.290E-06,-1.280
1.300E-06,-1.360
1.310E-06,-1.440
1.320E-06,-1.480
1.330E-06,-1.560
1.340E-06,-1.600
1.350E-06,-1.600
1.360E-06,-1.640
1.370E-06,-1.560
1.380E-06,-1.600
1.390E-06,-1.560
1.400E-06,-1.480
1.410E-06,-1.400
1.420E-06,-1.360
1.430E-06,-1.200
1.440E-06,-1.120
1.450E-06,-1.080
1.460E-06,-0.960
1.470E-06,-0.880
1.480E-06,-0.800
1.490E-06,-0.760
1.500E-06,-0.720
1.510E-06,-0.760
1.520E-06,-0.760
1.530E-06,-0.720
1.540E-06,-0.800
1.550E-06,-0.720
1.560E-06,-0.800
1.570E-06,-0.800
1.580E-06,-0.880
1.590E-06,-0.960
1.600E-06,-1.000
1.610E-06,-0.960
1.620E-06,-1.040
1.630E-06,-1.040
1.640E-06,-1.040
1.650E-06,-1.000
1.660E-06,-0.960
1.670E-06,-1.080
1.680E-06,-1.120
1.690E-06,-1.160
1.700E-06,-1.160
1.710E-06,-1.200
1.720E-06,-1.200
1.730E-06,-1.160
1.740E-06,-1.160
1.750E-06,-1.080
1.760E-06,-1.000
1.770E-06,-1.040
1.780E-06,-1.040
1.790E-06,-1.080
1.800E-06,-1.120
1.810E-06,-1.160
1.820E-06,-1.080
1.830E-06,-1.040
1.840E-06,-1.040
1.850E-06,-0.960
1.860E-06,-1.000
1.870E-06,-0.920
1.880E-06,-1.000
1.890E-06,-0.920
1.900E-06,-0.960
1.910E-06,-0.920
1.920E-06,-0.880
1.930E-06,-0.840
1.940E-06,-0.800
1.950E-06,-0.760
1.960E-06,-0.720
1.970E-06,-0.680
1.980E-06,-0.760
1.990E-06,-0.760
2.000E-06,-0.800
2.010E-06,-0.840
2.020E-06,-0.840
2.030E-06,-0.840
2.040E-06,-0.880
2.050E-06,-0.920
2.060E-06,-0.960
2.070E-06,-0.960
2.080E-06,-0.960
2.090E-06,-0.960
2.100E-06,-0.920
2.110E-06,-0.920
2.120E-06,-0.880
2.130E-06,-0.840
2.140E-06,-0.840
2.150E-06,-0.760
2.160E-06,-0.720
2.170E-06,-0.680
2.180E-06,-0.680
2.190E-06,-0.600
2.200E-06,-0.600
2.210E-06,-0.640
2.220E-06,-0.640
2.230E-06,-0.640
2.240E-06,-0.640
2.250E-06,-0.600
2.260E-06,-0.600
2.270E-06,-0.640
2.280E-06,-0.640
2.290E-06,-0.680
2.300E-06,-0.720
2.310E-06,-0.680
2.320E-06,-0.720
2.330E-06,-0.800
2.340E-06,-0.840
2.350E-06,-0.880
2.360E-06,-0.920
2.370E-06,-0.960
2.380E-06,-1.000
2.390E-06,-1.040
2.400E-06,-1.000
2.410E-06,-0.960
2.420E-06,-1.000
2.430E-06,-0.880
2.440E-06,-0.920
2.450E-06,-0.960
2.460E-06,-0.960
2.470E-06,-0.880
2.480E-06,-0.880
2.490E-06,-0.880
2.500E-06,-0.840
2.510E-06,-0.840
2.520E-06,-0.840
2.530E-06,-0.800
2.540E-06,-0.760
2.550E-06,-0.720
2.560E-06,-0.680
2.570E-06,-0.640
2.580E-06,-0.680
2.590E-06,-0.640
2.600E-06,-0.640
2.610E-06,-0.640
2.620E-06,-0.680
2.630E-06,-0.720
2.640E-06,-0.680
2.650E-06,-0.680
2.660E-06,-0.720
2.670E-06,-0.680
2.680E-06,-0.640
2.690E-06,-0.640
2.700E-06,-0.680
2.710E-06,-0.720
2.720E-06,-0.720
2.730E-06,-0.720
2.740E-06,-0.840
2.750E-06,-0.840
2.760E-06,-0.800
2.770E-06,-0.800
2.780E-06,-0.800
2.790E-06,-0.840
2.800E-06,-0.840
2.810E-06,-0.840
2.820E-06,-0.840
2.830E-06,-0.840
2.840E-06,-0.880
2.850E-06,-0.920
2.860E-06,-1.000
2.870E-06,-1.040
2.880E-06,-1.040
2.890E-06,-1.000
2.900E-06,-1.080
2.910E-06,-1.120
2.920E-06,-1.080
2.930E-06,-1.040
2.940E-06,-1.080
2.950E-06,-1.160
2.960E-06,-1.200
2.970E-06,-1.200
2.980E-06,-1.280
2.990E-06,-1.360
3.000E-06,-1.320
3.010E-06,-1.240
3.020E-06,-1.160
3.030E-06,-1.040
3.040E-06,-1.000
3.050E-06,-0.960
3.060E-06,-0.840
3.070E-06,-0.800
