mediciones/5-22/-0.01/WaveData4924.csv

#timebase=2000000(ps)
,#voltbase=100000(mv/100)
#size=4000
-8.400E-06,0.008
-8.390E-06,0.004
-8.380E-06,0.000
-8.370E-06,-0.004
-8.360E-06,0.004
-8.350E-06,0.004
-8.340E-06,0.004
-8.330E-06,0.000
-8.320E-06,0.004
-8.310E-06,-0.004
-8.300E-06,0.000
-8.290E-06,0.004
-8.280E-06,0.004
-8.270E-06,0.008
-8.260E-06,0.008
-8.250E-06,0.008
-8.240E-06,0.008
-8.230E-06,0.004
-8.220E-06,0.004
-8.210E-06,0.000
-8.200E-06,0.000
-8.190E-06,-0.004
-8.180E-06,0.000
-8.170E-06,0.008
-8.160E-06,0.008
-8.150E-06,-0.004
-8.140E-06,0.004
-8.130E-06,0.004
-8.120E-06,0.000
-8.110E-06,0.004
-8.100E-06,0.008
-8.090E-06,0.000
-8.080E-06,0.004
-8.070E-06,0.004
-8.060E-06,0.004
-8.050E-06,0.004
-8.040E-06,0.004
-8.030E-06,0.012
-8.020E-06,-0.008
-8.010E-06,0.012
-8.000E-06,0.012
-7.990E-06,-0.012
-7.980E-06,-0.004
-7.970E-06,0.020
-7.960E-06,-0.008
-7.950E-06,0.016
-7.940E-06,0.008
-7.930E-06,-0.004
-7.920E-06,0.000
-7.910E-06,0.012
-7.900E-06,-0.008
-7.890E-06,-0.004
-7.880E-06,0.016
-7.870E-06,0.004
-7.860E-06,0.008
-7.850E-06,0.000
-7.840E-06,0.004
-7.830E-06,-0.012
-7.820E-06,0.008
-7.810E-06,0.000
-7.800E-06,0.004
-7.790E-06,0.008
-7.780E-06,0.008
-7.770E-06,-0.008
-7.760E-06,-0.004
-7.750E-06,0.004
-7.740E-06,-0.008
-7.730E-06,0.012
-7.720E-06,0.004
-7.710E-06,-0.004
-7.700E-06,0.000
-7.690E-06,0.020
-7.680E-06,-0.004
-7.670E-06,-0.004
-7.660E-06,0.000
-7.650E-06,0.016
-7.640E-06,0.008
-7.630E-06,-0.012
-7.620E-06,0.000
-7.610E-06,0.004
-7.600E-06,0.020
-7.590E-06,0.016
-7.580E-06,0.000
-7.570E-06,0.000
-7.560E-06,0.004
-7.550E-06,-0.012
-7.540E-06,0.000
-7.530E-06,0.008
-7.520E-06,0.000
-7.510E-06,0.008
-7.500E-06,0.008
-7.490E-06,-0.008
-7.480E-06,-0.008
-7.470E-06,0.004
-7.460E-06,0.000
-7.450E-06,0.008
-7.440E-06,0.012
-7.430E-06,0.008
-7.420E-06,0.004
-7.410E-06,0.000
-7.400E-06,0.000
-7.390E-06,0.000
-7.380E-06,0.008
-7.370E-06,0.004
-7.360E-06,0.000
-7.350E-06,0.000
-7.340E-06,0.000
-7.330E-06,0.004
-7.320E-06,0.004
-7.310E-06,0.000
-7.300E-06,0.000
-7.290E-06,0.000
-7.280E-06,0.004
-7.270E-06,0.004
-7.260E-06,0.004
-7.250E-06,0.004
-7.240E-06,-0.004
-7.230E-06,-0.004
-7.220E-06,0.004
-7.210E-06,0.000
-7.200E-06,0.004
-7.190E-06,0.008
-7.180E-06,0.004
-7.170E-06,0.004
-7.160E-06,0.000
-7.150E-06,-0.004
-7.140E-06,0.004
-7.130E-06,0.004
-7.120E-06,0.004
-7.110E-06,0.008
-7.100E-06,0.000
-7.090E-06,0.004
-7.080E-06,0.004
-7.070E-06,0.004
-7.060E-06,0.004
-7.050E-06,0.012
-7.040E-06,0.012
-7.030E-06,0.000
-7.020E-06,0.004
-7.010E-06,0.004
-7.000E-06,0.004
-6.990E-06,0.004
-6.980E-06,0.004
-6.970E-06,0.004
-6.960E-06,0.004
-6.950E-06,0.004
-6.940E-06,0.004
-6.930E-06,0.000
-6.920E-06,0.004
-6.910E-06,-0.004
-6.900E-06,0.004
-6.890E-06,0.004
-6.880E-06,0.004
-6.870E-06,0.004
-6.860E-06,0.008
-6.850E-06,0.000
-6.840E-06,0.000
-6.830E-06,0.004
-6.820E-06,0.000
-6.810E-06,0.004
-6.800E-06,0.004
-6.790E-06,0.004
-6.780E-06,0.004
-6.770E-06,0.004
-6.760E-06,0.008
-6.750E-06,0.008
-6.740E-06,-0.004
-6.730E-06,-0.004
-6.720E-06,0.000
-6.710E-06,-0.004
-6.700E-06,0.004
-6.690E-06,0.000
-6.680E-06,0.004
-6.670E-06,0.008
-6.660E-06,0.004
-6.650E-06,0.004
-6.640E-06,0.004
-6.630E-06,0.008
-6.620E-06,0.000
-6.610E-06,0.004
-6.600E-06,0.008
-6.590E-06,0.004
-6.580E-06,0.004
-6.570E-06,0.000
-6.560E-06,0.004
-6.550E-06,0.008
-6.540E-06,0.012
-6.530E-06,0.008
-6.520E-06,0.008
-6.510E-06,0.004
-6.500E-06,-0.004
-6.490E-06,-0.008
-6.480E-06,0.004
-6.470E-06,-0.004
-6.460E-06,0.000
-6.450E-06,0.000
-6.440E-06,-0.008
-6.430E-06,-0.016
-6.420E-06,-0.020
-6.410E-06,-0.008
-6.400E-06,-0.004
-6.390E-06,0.016
-6.380E-06,0.032
-6.370E-06,0.036
-6.360E-06,0.020
-6.350E-06,0.004
-6.340E-06,-0.008
-6.330E-06,-0.004
-6.320E-06,-0.004
-6.310E-06,0.004
-6.300E-06,0.012
-6.290E-06,0.016
-6.280E-06,0.004
-6.270E-06,-0.008
-6.260E-06,-0.008
-6.250E-06,-0.008
-6.240E-06,-0.004
-6.230E-06,0.008
-6.220E-06,0.008
-6.210E-06,0.012
-6.200E-06,0.004
-6.190E-06,0.008
-6.180E-06,-0.008
-6.170E-06,-0.004
-6.160E-06,-0.008
-6.150E-06,-0.004
-6.140E-06,0.016
-6.130E-06,0.016
-6.120E-06,0.012
-6.110E-06,0.008
-6.100E-06,-0.004
-6.090E-06,-0.012
-6.080E-06,-0.008
-6.070E-06,0.004
-6.060E-06,0.012
-6.050E-06,0.028
-6.040E-06,0.032
-6.030E-06,0.028
-6.020E-06,0.004
-6.010E-06,-0.004
-6.000E-06,-0.008
-5.990E-06,-0.004
-5.980E-06,0.004
-5.970E-06,0.008
-5.960E-06,0.008
-5.950E-06,0.004
-5.940E-06,0.000
-5.930E-06,-0.004
-5.920E-06,-0.004
-5.910E-06,-0.008
-5.900E-06,0.004
-5.890E-06,0.012
-5.880E-06,0.012
-5.870E-06,0.004
-5.860E-06,0.008
-5.850E-06,0.004
-5.840E-06,0.000
-5.830E-06,-0.004
-5.820E-06,-0.004
-5.810E-06,0.000
-5.800E-06,0.008
-5.790E-06,0.008
-5.780E-06,0.008
-5.770E-06,0.000
-5.760E-06,-0.004
-5.750E-06,-0.004
-5.740E-06,-0.004
-5.730E-06,0.000
-5.720E-06,0.008
-5.710E-06,0.004
-5.700E-06,0.008
-5.690E-06,0.000
-5.680E-06,0.000
-5.670E-06,0.000
-5.660E-06,-0.004
-5.650E-06,0.000
-5.640E-06,0.004
-5.630E-06,0.004
-5.620E-06,0.004
-5.610E-06,0.000
-5.600E-06,0.000
-5.590E-06,0.004
-5.580E-06,0.004
-5.570E-06,0.008
-5.560E-06,0.008
-5.550E-06,0.012
-5.540E-06,0.004
-5.530E-06,0.004
-5.520E-06,0.008
-5.510E-06,0.004
-5.500E-06,0.008
-5.490E-06,-0.004
-5.480E-06,0.004
-5.470E-06,0.004
-5.460E-06,0.008
-5.450E-06,0.000
-5.440E-06,0.004
-5.430E-06,0.000
-5.420E-06,0.000
-5.410E-06,0.004
-5.400E-06,-0.004
-5.390E-06,0.000
-5.380E-06,0.004
-5.370E-06,0.004
-5.360E-06,0.004
-5.350E-06,0.004
-5.340E-06,0.000
-5.330E-06,0.000
-5.320E-06,0.004
-5.310E-06,0.020
-5.300E-06,0.052
-5.290E-06,0.076
-5.280E-06,0.088
-5.270E-06,0.080
-5.260E-06,0.020
-5.250E-06,-0.052
-5.240E-06,-0.112
-5.230E-06,-0.120
-5.220E-06,-0.064
-5.210E-06,0.016
-5.200E-06,0.088
-5.190E-06,0.100
-5.180E-06,0.052
-5.170E-06,-0.020
-5.160E-06,-0.068
-5.150E-06,-0.056
-5.140E-06,-0.008
-5.130E-06,0.060
-5.120E-06,0.092
-5.110E-06,0.060
-5.100E-06,0.004
-5.090E-06,-0.056
-5.080E-06,-0.076
-5.070E-06,-0.048
-5.060E-06,0.000
-5.050E-06,0.040
-5.040E-06,0.060
-5.030E-06,0.056
-5.020E-06,0.020
-5.010E-06,-0.040
-5.000E-06,-0.020
-4.990E-06,-0.036
-4.980E-06,-0.028
-4.970E-06,0.004
-4.960E-06,0.052
-4.950E-06,0.076
-4.940E-06,0.000
-4.930E-06,-0.020
-4.920E-06,-0.052
-4.910E-06,-0.060
-4.900E-06,-0.056
-4.890E-06,0.004
-4.880E-06,0.024
-4.870E-06,0.036
-4.860E-06,0.036
-4.850E-06,0.016
-4.840E-06,0.000
-4.830E-06,-0.004
-4.820E-06,-0.004
-4.810E-06,-0.004
-4.800E-06,0.028
-4.790E-06,0.016
-4.780E-06,0.012
-4.770E-06,0.012
-4.760E-06,-0.004
-4.750E-06,-0.008
-4.740E-06,-0.008
-4.730E-06,-0.008
-4.720E-06,-0.008
-4.710E-06,0.016
-4.700E-06,0.008
-4.690E-06,0.012
-4.680E-06,0.012
-4.670E-06,0.012
-4.660E-06,-0.004
-4.650E-06,0.000
-4.640E-06,-0.004
-4.630E-06,0.012
-4.620E-06,0.008
-4.610E-06,0.008
-4.600E-06,0.008
-4.590E-06,-0.004
-4.580E-06,-0.008
-4.570E-06,-0.012
-4.560E-06,-0.008
-4.550E-06,0.012
-4.540E-06,0.016
-4.530E-06,0.016
-4.520E-06,0.020
-4.510E-06,0.012
-4.500E-06,0.008
-4.490E-06,0.012
-4.480E-06,0.000
-4.470E-06,0.000
-4.460E-06,0.004
-4.450E-06,0.004
-4.440E-06,0.008
-4.430E-06,0.004
-4.420E-06,-0.008
-4.410E-06,0.000
-4.400E-06,0.000
-4.390E-06,-0.004
-4.380E-06,0.004
-4.370E-06,0.008
-4.360E-06,0.008
-4.350E-06,0.004
-4.340E-06,0.004
-4.330E-06,0.000
-4.320E-06,-0.004
-4.310E-06,0.004
-4.300E-06,0.000
-4.290E-06,0.004
-4.280E-06,0.008
-4.270E-06,0.004
-4.260E-06,0.000
-4.250E-06,0.000
-4.240E-06,0.000
-4.230E-06,0.000
-4.220E-06,0.004
-4.210E-06,-0.004
-4.200E-06,-0.004
-4.190E-06,0.000
-4.180E-06,0.008
-4.170E-06,0.004
-4.160E-06,0.008
-4.150E-06,0.004
-4.140E-06,0.008
-4.130E-06,-0.004
-4.120E-06,-0.004
-4.110E-06,0.004
-4.100E-06,-0.004
-4.090E-06,0.000
-4.080E-06,0.004
-4.070E-06,0.004
-4.060E-06,0.000
-4.050E-06,0.000
-4.040E-06,0.000
-4.030E-06,0.008
-4.020E-06,0.008
-4.010E-06,0.008
-4.000E-06,0.000
-3.990E-06,0.004
-3.980E-06,0.000
-3.970E-06,0.000
-3.960E-06,0.000
-3.950E-06,0.000
-3.940E-06,0.000
-3.930E-06,0.000
-3.920E-06,0.004
-3.910E-06,0.004
-3.900E-06,0.008
-3.890E-06,0.004
-3.880E-06,0.000
-3.870E-06,-0.004
-3.860E-06,0.000
-3.850E-06,0.004
-3.840E-06,0.008
-3.830E-06,0.012
-3.820E-06,0.008
-3.810E-06,0.008
-3.800E-06,0.000
-3.790E-06,-0.004
-3.780E-06,-0.004
-3.770E-06,-0.004
-3.760E-06,0.008
-3.750E-06,0.004
-3.740E-06,0.004
-3.730E-06,0.004
-3.720E-06,0.000
-3.710E-06,-0.008
-3.700E-06,-0.004
-3.690E-06,0.000
-3.680E-06,0.008
-3.670E-06,0.012
-3.660E-06,0.016
-3.650E-06,0.004
-3.640E-06,0.000
-3.630E-06,0.000
-3.620E-06,0.004
-3.610E-06,0.004
-3.600E-06,0.008
-3.590E-06,0.008
-3.580E-06,0.000
-3.570E-06,0.008
-3.560E-06,0.008
-3.550E-06,-0.004
-3.540E-06,0.004
-3.530E-06,0.008
-3.520E-06,0.008
-3.510E-06,0.012
-3.500E-06,0.000
-3.490E-06,0.000
-3.480E-06,0.000
-3.470E-06,-0.004
-3.460E-06,0.008
-3.450E-06,0.008
-3.440E-06,0.008
-3.430E-06,0.008
-3.420E-06,-0.004
-3.410E-06,-0.004
-3.400E-06,0.000
-3.390E-06,0.004
-3.380E-06,0.004
-3.370E-06,0.004
-3.360E-06,0.004
-3.350E-06,0.004
-3.340E-06,0.004
-3.330E-06,0.000
-3.320E-06,0.000
-3.310E-06,0.004
-3.300E-06,0.004
-3.290E-06,-0.004
-3.280E-06,0.004
-3.270E-06,0.000
-3.260E-06,0.004
-3.250E-06,0.004
-3.240E-06,0.008
-3.230E-06,0.008
-3.220E-06,0.004
-3.210E-06,0.000
-3.200E-06,0.004
-3.190E-06,0.008
-3.180E-06,0.008
-3.170E-06,0.008
-3.160E-06,0.004
-3.150E-06,0.004
-3.140E-06,0.004
-3.130E-06,0.000
-3.120E-06,0.004
-3.110E-06,0.000
-3.100E-06,0.004
-3.090E-06,0.008
-3.080E-06,0.004
-3.070E-06,0.004
-3.060E-06,0.012
-3.050E-06,0.004
-3.040E-06,0.004
-3.030E-06,0.000
-3.020E-06,-0.004
-3.010E-06,-0.008
-3.000E-06,-0.008
-2.990E-06,0.004
-2.980E-06,0.004
-2.970E-06,0.008
-2.960E-06,0.008
-2.950E-06,0.000
-2.940E-06,-0.004
-2.930E-06,0.000
-2.920E-06,-0.004
-2.910E-06,0.004
-2.900E-06,0.004
-2.890E-06,0.004
-2.880E-06,0.000
-2.870E-06,0.000
-2.860E-06,0.004
-2.850E-06,0.008
-2.840E-06,0.004
-2.830E-06,0.004
-2.820E-06,0.004
-2.810E-06,0.000
-2.800E-06,0.004
-2.790E-06,0.008
-2.780E-06,0.004
-2.770E-06,0.008
-2.760E-06,0.004
-2.750E-06,0.000
-2.740E-06,0.004
-2.730E-06,0.004
-2.720E-06,0.008
-2.710E-06,0.012
-2.700E-06,0.012
-2.690E-06,0.004
-2.680E-06,0.004
-2.670E-06,-0.004
-2.660E-06,0.000
-2.650E-06,0.004
-2.640E-06,0.004
-2.630E-06,0.012
-2.620E-06,0.012
-2.610E-06,0.016
-2.600E-06,0.000
-2.590E-06,0.008
-2.580E-06,0.004
-2.570E-06,0.008
-2.560E-06,0.008
-2.550E-06,0.016
-2.540E-06,0.012
-2.530E-06,0.012
-2.520E-06,0.012
-2.510E-06,0.000
-2.500E-06,0.008
-2.490E-06,0.004
-2.480E-06,0.008
-2.470E-06,0.000
-2.460E-06,0.012
-2.450E-06,0.008
-2.440E-06,0.012
-2.430E-06,0.012
-2.420E-06,0.008
-2.410E-06,0.000
-2.400E-06,0.000
-2.390E-06,-0.004
-2.380E-06,-0.008
-2.370E-06,-0.008
-2.360E-06,-0.008
-2.350E-06,0.004
-2.340E-06,0.024
-2.330E-06,0.028
-2.320E-06,0.044
-2.310E-06,0.044
-2.300E-06,0.024
-2.290E-06,0.004
-2.280E-06,-0.008
-2.270E-06,-0.012
-2.260E-06,0.000
-2.250E-06,0.016
-2.240E-06,0.032
-2.230E-06,0.024
-2.220E-06,0.008
-2.210E-06,-0.008
-2.200E-06,-0.016
-2.190E-06,-0.012
-2.180E-06,0.000
-2.170E-06,0.016
-2.160E-06,0.012
-2.150E-06,0.024
-2.140E-06,0.012
-2.130E-06,-0.004
-2.120E-06,-0.020
-2.110E-06,-0.024
-2.100E-06,-0.016
-2.090E-06,0.000
-2.080E-06,0.020
-2.070E-06,0.036
-2.060E-06,0.024
-2.050E-06,0.024
-2.040E-06,0.008
-2.030E-06,-0.012
-2.020E-06,0.000
-2.010E-06,0.008
-2.000E-06,0.028
-1.990E-06,0.036
-1.980E-06,0.036
-1.970E-06,0.020
-1.960E-06,-0.004
-1.950E-06,-0.012
-1.940E-06,-0.008
-1.930E-06,0.000
-1.920E-06,0.024
-1.910E-06,0.036
-1.900E-06,0.028
-1.890E-06,0.008
-1.880E-06,-0.012
-1.870E-06,-0.020
-1.860E-06,-0.012
-1.850E-06,0.004
-1.840E-06,0.028
-1.830E-06,0.036
-1.820E-06,0.032
-1.810E-06,0.024
-1.800E-06,0.012
-1.790E-06,0.004
-1.780E-06,0.004
-1.770E-06,0.020
-1.760E-06,0.024
-1.750E-06,0.036
-1.740E-06,0.032
-1.730E-06,0.024
-1.720E-06,0.016
-1.710E-06,0.004
-1.700E-06,-0.008
-1.690E-06,-0.004
-1.680E-06,-0.004
-1.670E-06,0.000
-1.660E-06,0.004
-1.650E-06,0.032
-1.640E-06,0.020
-1.630E-06,0.004
-1.620E-06,-0.016
-1.610E-06,-0.032
-1.600E-06,-0.020
-1.590E-06,-0.012
-1.580E-06,0.024
-1.570E-06,0.020
-1.560E-06,0.028
-1.550E-06,0.020
-1.540E-06,0.000
-1.530E-06,-0.012
-1.520E-06,-0.004
-1.510E-06,0.000
-1.500E-06,0.012
-1.490E-06,0.024
-1.480E-06,0.028
-1.470E-06,0.024
-1.460E-06,0.008
-1.450E-06,0.016
-1.440E-06,0.024
-1.430E-06,0.028
-1.420E-06,0.032
-1.410E-06,0.036
-1.400E-06,0.020
-1.390E-06,0.004
-1.380E-06,0.008
-1.370E-06,0.012
-1.360E-06,0.016
-1.350E-06,0.024
-1.340E-06,0.028
-1.330E-06,0.028
-1.320E-06,0.008
-1.310E-06,0.012
-1.300E-06,0.012
-1.290E-06,0.016
-1.280E-06,0.020
-1.270E-06,0.024
-1.260E-06,0.028
-1.250E-06,0.020
-1.240E-06,0.024
-1.230E-06,0.032
-1.220E-06,0.040
-1.210E-06,0.044
-1.200E-06,0.040
-1.190E-06,0.024
-1.180E-06,0.008
-1.170E-06,0.012
-1.160E-06,0.012
-1.150E-06,0.024
-1.140E-06,0.040
-1.130E-06,0.048
-1.120E-06,0.036
-1.110E-06,0.024
-1.100E-06,0.016
-1.090E-06,0.016
-1.080E-06,0.012
-1.070E-06,0.020
-1.060E-06,0.024
-1.050E-06,0.028
-1.040E-06,0.012
-1.030E-06,0.004
-1.020E-06,0.008
-1.010E-06,0.000
-1.000E-06,0.000
-9.900E-07,-0.004
-9.800E-07,-0.004
-9.700E-07,0.008
-9.600E-07,0.008
-9.500E-07,0.020
-9.400E-07,0.028
-9.300E-07,0.016
-9.200E-07,0.012
-9.100E-07,0.004
-9.000E-07,0.008
-8.900E-07,0.016
-8.800E-07,0.028
-8.700E-07,0.048
-8.600E-07,0.044
-8.500E-07,0.040
-8.400E-07,0.028
-8.300E-07,0.008
-8.200E-07,0.020
-8.100E-07,0.020
-8.000E-07,0.044
-7.900E-07,0.060
-7.800E-07,0.060
-7.700E-07,0.064
-7.600E-07,0.048
-7.500E-07,0.036
-7.400E-07,0.044
-7.300E-07,0.056
-7.200E-07,0.056
-7.100E-07,0.068
-7.000E-07,0.072
-6.900E-07,0.064
-6.800E-07,0.056
-6.700E-07,0.044
-6.600E-07,0.052
-6.500E-07,0.064
-6.400E-07,0.080
-6.300E-07,0.084
-6.200E-07,0.092
-6.100E-07,0.088
-6.000E-07,0.076
-5.900E-07,0.068
-5.800E-07,0.068
-5.700E-07,0.076
-5.600E-07,0.080
-5.500E-07,0.080
-5.400E-07,0.072
-5.300E-07,0.064
-5.200E-07,0.056
-5.100E-07,0.052
-5.000E-07,0.060
-4.900E-07,0.064
-4.800E-07,0.076
-4.700E-07,0.096
-4.600E-07,0.104
-4.500E-07,0.100
-4.400E-07,0.076
-4.300E-07,0.060
-4.200E-07,0.064
-4.100E-07,0.076
-4.000E-07,0.092
-3.900E-07,0.108
-3.800E-07,0.124
-3.700E-07,0.104
-3.600E-07,0.080
-3.500E-07,0.068
-3.400E-07,0.072
-3.300E-07,0.088
-3.200E-07,0.112
-3.100E-07,0.120
-3.000E-07,0.108
-2.900E-07,0.096
-2.800E-07,0.080
-2.700E-07,0.080
-2.600E-07,0.088
-2.500E-07,0.096
-2.400E-07,0.096
-2.300E-07,0.080
-2.200E-07,0.076
-2.100E-07,0.084
-2.000E-07,0.112
-1.900E-07,0.144
-1.800E-07,0.160
-1.700E-07,0.152
-1.600E-07,0.104
-1.500E-07,0.072
-1.400E-07,0.056
-1.300E-07,0.072
-1.200E-07,0.124
-1.100E-07,0.160
-1.000E-07,0.144
-9.000E-08,0.056
-8.000E-08,-0.148
-7.000E-08,-0.256
-6.000E-08,-0.248
-5.000E-08,-0.240
-4.000E-08,-0.172
-3.000E-08,0.144
-2.000E-08,0.172
-1.000E-08,0.328
0.000E+00,-0.004
1.000E-08,-0.004
2.000E-08,-0.060
3.000E-08,0.024
4.000E-08,0.120
5.000E-08,-0.056
6.000E-08,0.112
7.000E-08,0.076
8.000E-08,0.000
9.000E-08,0.020
1.000E-07,-0.020
1.100E-07,-0.012
1.200E-07,0.024
1.300E-07,0.040
1.400E-07,0.032
1.500E-07,0.068
1.600E-07,0.044
1.700E-07,-0.008
1.800E-07,0.008
1.900E-07,0.012
2.000E-07,0.016
2.100E-07,0.060
2.200E-07,0.076
2.300E-07,0.080
2.400E-07,0.092
2.500E-07,0.088
2.600E-07,0.072
2.700E-07,0.076
2.800E-07,0.076
2.900E-07,0.072
3.000E-07,0.096
3.100E-07,0.100
3.200E-07,0.104
3.300E-07,0.104
3.400E-07,0.108
3.500E-07,0.092
3.600E-07,0.084
3.700E-07,0.084
3.800E-07,0.100
3.900E-07,0.124
4.000E-07,0.136
4.100E-07,0.136
4.200E-07,0.124
4.300E-07,0.096
4.400E-07,0.088
4.500E-07,0.092
4.600E-07,0.108
4.700E-07,0.136
4.800E-07,0.152
4.900E-07,0.136
5.000E-07,0.124
5.100E-07,0.092
5.200E-07,0.056
5.300E-07,0.060
5.400E-07,0.088
5.500E-07,0.116
5.600E-07,0.140
5.700E-07,0.128
5.800E-07,0.104
5.900E-07,0.068
6.000E-07,0.044
6.100E-07,0.056
6.200E-07,0.080
6.300E-07,0.104
6.400E-07,0.108
6.500E-07,0.056
6.600E-07,0.052
6.700E-07,0.032
6.800E-07,0.052
6.900E-07,0.076
7.000E-07,0.108
7.100E-07,0.120
7.200E-07,0.084
7.300E-07,0.056
7.400E-07,0.036
7.500E-07,0.052
7.600E-07,0.072
7.700E-07,0.112
7.800E-07,0.132
7.900E-07,0.136
8.000E-07,0.124
8.100E-07,0.108
8.200E-07,0.096
8.300E-07,0.088
8.400E-07,0.104
8.500E-07,0.124
8.600E-07,0.128
8.700E-07,0.128
8.800E-07,0.128
8.900E-07,0.112
9.000E-07,0.100
9.100E-07,0.092
9.200E-07,0.096
9.300E-07,0.112
9.400E-07,0.132
9.500E-07,0.136
9.600E-07,0.132
9.700E-07,0.124
9.800E-07,0.112
9.900E-07,0.108
1.000E-06,0.108
1.010E-06,0.112
1.020E-06,0.120
1.030E-06,0.124
1.040E-06,0.124
1.050E-06,0.124
1.060E-06,0.112
1.070E-06,0.104
1.080E-06,0.096
1.090E-06,0.092
1.100E-06,0.088
1.110E-06,0.088
1.120E-06,0.092
1.130E-06,0.104
1.140E-06,0.116
1.150E-06,0.124
1.160E-06,0.124
1.170E-06,0.124
1.180E-06,0.108
1.190E-06,0.100
1.200E-06,0.104
1.210E-06,0.108
1.220E-06,0.108
1.230E-06,0.112
1.240E-06,0.120
1.250E-06,0.120
1.260E-06,0.112
1.270E-06,0.108
1.280E-06,0.108
1.290E-06,0.100
1.300E-06,0.104
1.310E-06,0.104
1.320E-06,0.108
1.330E-06,0.112
1.340E-06,0.104
1.350E-06,0.108
1.360E-06,0.104
1.370E-06,0.108
1.380E-06,0.108
1.390E-06,0.112
1.400E-06,0.112
1.410E-06,0.112
1.420E-06,0.120
1.430E-06,0.116
1.440E-06,0.116
1.450E-06,0.112
1.460E-06,0.112
1.470E-06,0.108
1.480E-06,0.116
1.490E-06,0.120
1.500E-06,0.120
1.510E-06,0.120
1.520E-06,0.120
1.530E-06,0.120
1.540E-06,0.108
1.550E-06,0.116
1.560E-06,0.116
1.570E-06,0.116
1.580E-06,0.116
1.590E-06,0.112
1.600E-06,0.108
1.610E-06,0.112
1.620E-06,0.112
1.630E-06,0.112
1.640E-06,0.116
1.650E-06,0.116
1.660E-06,0.120
1.670E-06,0.124
1.680E-06,0.112
1.690E-06,0.112
1.700E-06,0.112
1.710E-06,0.108
1.720E-06,0.112
1.730E-06,0.112
1.740E-06,0.108
1.750E-06,0.108
1.760E-06,0.108
1.770E-06,0.108
1.780E-06,0.112
1.790E-06,0.104
1.800E-06,0.112
1.810E-06,0.112
1.820E-06,0.108
1.830E-06,0.112
1.840E-06,0.108
1.850E-06,0.108
1.860E-06,0.108
1.870E-06,0.108
1.880E-06,0.108
1.890E-06,0.108
1.900E-06,0.108
1.910E-06,0.112
1.920E-06,0.104
1.930E-06,0.104
1.940E-06,0.104
1.950E-06,0.104
1.960E-06,0.100
1.970E-06,0.104
1.980E-06,0.108
1.990E-06,0.112
2.000E-06,0.104
2.010E-06,0.108
2.020E-06,0.108
2.030E-06,0.104
2.040E-06,0.100
2.050E-06,0.104
2.060E-06,0.108
2.070E-06,0.108
2.080E-06,0.108
2.090E-06,0.104
2.100E-06,0.104
2.110E-06,0.104
2.120E-06,0.096
2.130E-06,0.104
2.140E-06,0.100
2.150E-06,0.100
2.160E-06,0.104
2.170E-06,0.100
2.180E-06,0.100
2.190E-06,0.104
2.200E-06,0.104
2.210E-06,0.104
2.220E-06,0.104
2.230E-06,0.108
2.240E-06,0.104
2.250E-06,0.104
2.260E-06,0.100
2.270E-06,0.104
2.280E-06,0.100
2.290E-06,0.104
2.300E-06,0.100
2.310E-06,0.104
2.320E-06,0.100
2.330E-06,0.096
2.340E-06,0.096
2.350E-06,0.096
2.360E-06,0.100
2.370E-06,0.096
2.380E-06,0.104
2.390E-06,0.104
2.400E-06,0.096
2.410E-06,0.096
2.420E-06,0.100
2.430E-06,0.096
2.440E-06,0.100
2.450E-06,0.100
2.460E-06,0.092
2.470E-06,0.096
2.480E-06,0.096
2.490E-06,0.096
2.500E-06,0.092
2.510E-06,0.096
2.520E-06,0.096
2.530E-06,0.092
2.540E-06,0.092
2.550E-06,0.092
2.560E-06,0.092
2.570E-06,0.092
2.580E-06,0.092
2.590E-06,0.096
2.600E-06,0.092
2.610E-06,0.092
2.620E-06,0.092
2.630E-06,0.092
2.640E-06,0.096
2.650E-06,0.096
2.660E-06,0.096
2.670E-06,0.092
2.680E-06,0.092
2.690E-06,0.096
2.700E-06,0.096
2.710E-06,0.092
2.720E-06,0.096
2.730E-06,0.096
2.740E-06,0.096
2.750E-06,0.092
2.760E-06,0.092
2.770E-06,0.092
2.780E-06,0.092
2.790E-06,0.092
2.800E-06,0.096
2.810E-06,0.092
2.820E-06,0.092
2.830E-06,0.096
2.840E-06,0.096
2.850E-06,0.092
2.860E-06,0.096
2.870E-06,0.096
2.880E-06,0.092
2.890E-06,0.092
2.900E-06,0.088
2.910E-06,0.088
2.920E-06,0.092
2.930E-06,0.092
2.940E-06,0.092
2.950E-06,0.092
2.960E-06,0.092
2.970E-06,0.092
2.980E-06,0.092
2.990E-06,0.092
3.000E-06,0.092
3.010E-06,0.092
3.020E-06,0.092
3.030E-06,0.088
3.040E-06,0.088
3.050E-06,0.092
3.060E-06,0.092
3.070E-06,0.092
3.080E-06,0.088
3.090E-06,0.088
3.100E-06,0.084
3.110E-06,0.088
3.120E-06,0.084
3.130E-06,0.088
3.140E-06,0.092
3.150E-06,0.092
3.160E-06,0.092
3.170E-06,0.088
3.180E-06,0.092
3.190E-06,0.088
3.200E-06,0.088
3.210E-06,0.084
3.220E-06,0.092
3.230E-06,0.088
3.240E-06,0.084
3.250E-06,0.088
3.260E-06,0.084
3.270E-06,0.084
3.280E-06,0.088
3.290E-06,0.084
3.300E-06,0.080
3.310E-06,0.080
3.320E-06,0.084
3.330E-06,0.076
3.340E-06,0.080
3.350E-06,0.080
3.360E-06,0.084
3.370E-06,0.084
3.380E-06,0.080
3.390E-06,0.076
3.400E-06,0.080
3.410E-06,0.084
3.420E-06,0.080
