mediciones/5-22/-0.01/WaveData4932.csv

#timebase=2000000(ps)
,#voltbase=100000(mv/100)
#size=4000
-8.400E-06,0.004
-8.390E-06,0.004
-8.380E-06,0.004
-8.370E-06,0.004
-8.360E-06,0.004
-8.350E-06,0.004
-8.340E-06,0.004
-8.330E-06,0.004
-8.320E-06,-0.004
-8.310E-06,0.004
-8.300E-06,0.000
-8.290E-06,0.000
-8.280E-06,0.004
-8.270E-06,0.004
-8.260E-06,0.000
-8.250E-06,0.004
-8.240E-06,0.004
-8.230E-06,0.008
-8.220E-06,0.008
-8.210E-06,0.000
-8.200E-06,0.004
-8.190E-06,0.004
-8.180E-06,0.004
-8.170E-06,-0.004
-8.160E-06,0.004
-8.150E-06,0.004
-8.140E-06,0.000
-8.130E-06,0.004
-8.120E-06,0.004
-8.110E-06,0.000
-8.100E-06,0.004
-8.090E-06,0.000
-8.080E-06,0.004
-8.070E-06,0.004
-8.060E-06,0.004
-8.050E-06,0.008
-8.040E-06,0.008
-8.030E-06,0.008
-8.020E-06,0.000
-8.010E-06,0.000
-8.000E-06,0.004
-7.990E-06,0.004
-7.980E-06,0.000
-7.970E-06,0.004
-7.960E-06,0.004
-7.950E-06,0.004
-7.940E-06,0.004
-7.930E-06,0.004
-7.920E-06,0.004
-7.910E-06,0.000
-7.900E-06,0.004
-7.890E-06,0.000
-7.880E-06,-0.004
-7.870E-06,0.000
-7.860E-06,0.004
-7.850E-06,0.004
-7.840E-06,0.004
-7.830E-06,0.008
-7.820E-06,0.008
-7.810E-06,0.008
-7.800E-06,0.000
-7.790E-06,0.000
-7.780E-06,0.004
-7.770E-06,0.000
-7.760E-06,0.004
-7.750E-06,0.000
-7.740E-06,0.000
-7.730E-06,0.004
-7.720E-06,0.008
-7.710E-06,0.008
-7.700E-06,0.008
-7.690E-06,0.008
-7.680E-06,0.000
-7.670E-06,0.004
-7.660E-06,0.000
-7.650E-06,0.004
-7.640E-06,0.008
-7.630E-06,0.000
-7.620E-06,0.004
-7.610E-06,0.004
-7.600E-06,0.000
-7.590E-06,0.000
-7.580E-06,0.004
-7.570E-06,-0.004
-7.560E-06,0.004
-7.550E-06,0.008
-7.540E-06,0.000
-7.530E-06,0.000
-7.520E-06,0.000
-7.510E-06,0.004
-7.500E-06,0.000
-7.490E-06,0.004
-7.480E-06,0.008
-7.470E-06,0.008
-7.460E-06,0.000
-7.450E-06,0.000
-7.440E-06,0.004
-7.430E-06,0.000
-7.420E-06,0.000
-7.410E-06,0.000
-7.400E-06,0.004
-7.390E-06,0.004
-7.380E-06,0.000
-7.370E-06,0.008
-7.360E-06,0.008
-7.350E-06,0.000
-7.340E-06,0.004
-7.330E-06,0.004
-7.320E-06,0.004
-7.310E-06,0.004
-7.300E-06,0.008
-7.290E-06,0.008
-7.280E-06,0.000
-7.270E-06,0.000
-7.260E-06,0.004
-7.250E-06,0.004
-7.240E-06,0.000
-7.230E-06,0.000
-7.220E-06,0.004
-7.210E-06,0.000
-7.200E-06,0.004
-7.190E-06,0.000
-7.180E-06,0.004
-7.170E-06,0.004
-7.160E-06,0.000
-7.150E-06,0.004
-7.140E-06,0.000
-7.130E-06,0.004
-7.120E-06,0.004
-7.110E-06,0.000
-7.100E-06,0.000
-7.090E-06,0.004
-7.080E-06,0.004
-7.070E-06,0.004
-7.060E-06,0.000
-7.050E-06,0.004
-7.040E-06,0.000
-7.030E-06,0.004
-7.020E-06,0.004
-7.010E-06,0.000
-7.000E-06,0.000
-6.990E-06,0.004
-6.980E-06,0.000
-6.970E-06,0.004
-6.960E-06,0.004
-6.950E-06,0.004
-6.940E-06,0.000
-6.930E-06,0.004
-6.920E-06,0.000
-6.910E-06,0.000
-6.900E-06,0.004
-6.890E-06,0.000
-6.880E-06,0.000
-6.870E-06,0.000
-6.860E-06,0.000
-6.850E-06,0.000
-6.840E-06,0.004
-6.830E-06,0.000
-6.820E-06,0.004
-6.810E-06,0.000
-6.800E-06,0.004
-6.790E-06,0.000
-6.780E-06,0.004
-6.770E-06,0.000
-6.760E-06,0.004
-6.750E-06,-0.004
-6.740E-06,0.004
-6.730E-06,0.000
-6.720E-06,0.004
-6.710E-06,0.000
-6.700E-06,0.000
-6.690E-06,0.004
-6.680E-06,0.000
-6.670E-06,-0.004
-6.660E-06,0.004
-6.650E-06,0.000
-6.640E-06,0.004
-6.630E-06,0.008
-6.620E-06,-0.004
-6.610E-06,-0.004
-6.600E-06,0.004
-6.590E-06,0.000
-6.580E-06,0.000
-6.570E-06,0.004
-6.560E-06,-0.004
-6.550E-06,0.004
-6.540E-06,0.004
-6.530E-06,0.008
-6.520E-06,0.000
-6.510E-06,-0.004
-6.500E-06,0.004
-6.490E-06,0.000
-6.480E-06,0.004
-6.470E-06,0.000
-6.460E-06,0.004
-6.450E-06,0.000
-6.440E-06,0.004
-6.430E-06,0.004
-6.420E-06,0.004
-6.410E-06,0.004
-6.400E-06,0.004
-6.390E-06,0.004
-6.380E-06,0.004
-6.370E-06,0.000
-6.360E-06,0.004
-6.350E-06,0.000
-6.340E-06,0.000
-6.330E-06,0.008
-6.320E-06,0.008
-6.310E-06,-0.004
-6.300E-06,0.004
-6.290E-06,0.000
-6.280E-06,0.004
-6.270E-06,0.000
-6.260E-06,0.000
-6.250E-06,0.004
-6.240E-06,0.004
-6.230E-06,0.000
-6.220E-06,0.004
-6.210E-06,0.000
-6.200E-06,0.000
-6.190E-06,0.004
-6.180E-06,0.004
-6.170E-06,0.000
-6.160E-06,0.004
-6.150E-06,0.000
-6.140E-06,0.004
-6.130E-06,0.000
-6.120E-06,0.004
-6.110E-06,0.008
-6.100E-06,0.008
-6.090E-06,0.000
-6.080E-06,0.000
-6.070E-06,0.000
-6.060E-06,-0.004
-6.050E-06,0.004
-6.040E-06,0.000
-6.030E-06,0.004
-6.020E-06,-0.004
-6.010E-06,-0.004
-6.000E-06,0.004
-5.990E-06,0.000
-5.980E-06,0.004
-5.970E-06,0.004
-5.960E-06,0.004
-5.950E-06,0.004
-5.940E-06,0.004
-5.930E-06,0.004
-5.920E-06,0.004
-5.910E-06,0.004
-5.900E-06,0.000
-5.890E-06,-0.004
-5.880E-06,0.000
-5.870E-06,-0.004
-5.860E-06,0.000
-5.850E-06,0.000
-5.840E-06,0.000
-5.830E-06,0.004
-5.820E-06,0.008
-5.810E-06,0.000
-5.800E-06,0.000
-5.790E-06,0.000
-5.780E-06,0.000
-5.770E-06,0.004
-5.760E-06,0.004
-5.750E-06,0.000
-5.740E-06,0.004
-5.730E-06,0.004
-5.720E-06,0.004
-5.710E-06,0.000
-5.700E-06,-0.004
-5.690E-06,0.004
-5.680E-06,0.000
-5.670E-06,-0.004
-5.660E-06,0.000
-5.650E-06,0.000
-5.640E-06,0.004
-5.630E-06,-0.004
-5.620E-06,0.004
-5.610E-06,0.004
-5.600E-06,0.004
-5.590E-06,0.004
-5.580E-06,0.000
-5.570E-06,0.000
-5.560E-06,0.000
-5.550E-06,0.000
-5.540E-06,0.004
-5.530E-06,0.000
-5.520E-06,0.000
-5.510E-06,0.004
-5.500E-06,0.004
-5.490E-06,0.004
-5.480E-06,0.000
-5.470E-06,0.000
-5.460E-06,0.000
-5.450E-06,0.004
-5.440E-06,0.004
-5.430E-06,0.004
-5.420E-06,0.004
-5.410E-06,0.004
-5.400E-06,0.004
-5.390E-06,0.004
-5.380E-06,0.000
-5.370E-06,0.004
-5.360E-06,0.000
-5.350E-06,0.004
-5.340E-06,0.000
-5.330E-06,0.004
-5.320E-06,0.004
-5.310E-06,0.000
-5.300E-06,0.000
-5.290E-06,0.000
-5.280E-06,-0.004
-5.270E-06,0.004
-5.260E-06,0.000
-5.250E-06,0.004
-5.240E-06,0.004
-5.230E-06,0.000
-5.220E-06,0.004
-5.210E-06,0.000
-5.200E-06,0.004
-5.190E-06,0.000
-5.180E-06,0.004
-5.170E-06,0.000
-5.160E-06,0.000
-5.150E-06,0.004
-5.140E-06,0.004
-5.130E-06,0.000
-5.120E-06,0.004
-5.110E-06,0.004
-5.100E-06,0.004
-5.090E-06,0.000
-5.080E-06,0.004
-5.070E-06,0.004
-5.060E-06,0.000
-5.050E-06,0.004
-5.040E-06,0.008
-5.030E-06,0.008
-5.020E-06,0.008
-5.010E-06,0.008
-5.000E-06,0.000
-4.990E-06,0.004
-4.980E-06,0.004
-4.970E-06,0.004
-4.960E-06,0.000
-4.950E-06,0.004
-4.940E-06,0.004
-4.930E-06,0.004
-4.920E-06,0.004
-4.910E-06,0.004
-4.900E-06,0.004
-4.890E-06,0.000
-4.880E-06,0.004
-4.870E-06,0.000
-4.860E-06,-0.004
-4.850E-06,0.004
-4.840E-06,0.008
-4.830E-06,0.000
-4.820E-06,0.000
-4.810E-06,0.004
-4.800E-06,0.004
-4.790E-06,0.008
-4.780E-06,0.000
-4.770E-06,0.004
-4.760E-06,0.004
-4.750E-06,0.004
-4.740E-06,0.004
-4.730E-06,0.000
-4.720E-06,0.000
-4.710E-06,0.008
-4.700E-06,0.008
-4.690E-06,0.008
-4.680E-06,0.000
-4.670E-06,0.004
-4.660E-06,0.004
-4.650E-06,0.000
-4.640E-06,0.008
-4.630E-06,0.000
-4.620E-06,0.004
-4.610E-06,0.004
-4.600E-06,0.000
-4.590E-06,0.008
-4.580E-06,0.008
-4.570E-06,0.008
-4.560E-06,0.008
-4.550E-06,0.008
-4.540E-06,0.000
-4.530E-06,0.000
-4.520E-06,0.000
-4.510E-06,0.000
-4.500E-06,0.008
-4.490E-06,0.032
-4.480E-06,0.068
-4.470E-06,0.072
-4.460E-06,0.060
-4.450E-06,0.000
-4.440E-06,-0.056
-4.430E-06,-0.112
-4.420E-06,-0.088
-4.410E-06,-0.012
-4.400E-06,0.032
-4.390E-06,0.088
-4.380E-06,0.076
-4.370E-06,0.008
-4.360E-06,-0.048
-4.350E-06,-0.056
-4.340E-06,-0.040
-4.330E-06,0.024
-4.320E-06,0.076
-4.310E-06,0.076
-4.300E-06,0.028
-4.290E-06,-0.016
-4.280E-06,-0.060
-4.270E-06,-0.060
-4.260E-06,-0.020
-4.250E-06,0.008
-4.240E-06,0.040
-4.230E-06,0.044
-4.220E-06,0.024
-4.210E-06,0.004
-4.200E-06,-0.008
-4.190E-06,-0.008
-4.180E-06,-0.008
-4.170E-06,0.004
-4.160E-06,0.012
-4.150E-06,0.020
-4.140E-06,0.024
-4.130E-06,0.012
-4.120E-06,-0.012
-4.110E-06,-0.028
-4.100E-06,-0.036
-4.090E-06,-0.020
-4.080E-06,0.000
-4.070E-06,0.016
-4.060E-06,0.020
-4.050E-06,0.028
-4.040E-06,0.016
-4.030E-06,-0.008
-4.020E-06,-0.012
-4.010E-06,-0.008
-4.000E-06,0.004
-3.990E-06,0.012
-3.980E-06,0.016
-3.970E-06,0.012
-3.960E-06,-0.004
-3.950E-06,-0.008
-3.940E-06,-0.012
-3.930E-06,-0.004
-3.920E-06,0.000
-3.910E-06,0.008
-3.900E-06,0.012
-3.890E-06,0.008
-3.880E-06,0.008
-3.870E-06,0.012
-3.860E-06,0.008
-3.850E-06,0.000
-3.840E-06,-0.004
-3.830E-06,-0.004
-3.820E-06,0.000
-3.810E-06,0.008
-3.800E-06,0.008
-3.790E-06,0.008
-3.780E-06,0.004
-3.770E-06,-0.004
-3.760E-06,-0.008
-3.750E-06,-0.008
-3.740E-06,0.000
-3.730E-06,0.008
-3.720E-06,0.016
-3.710E-06,0.016
-3.700E-06,0.000
-3.690E-06,-0.004
-3.680E-06,-0.004
-3.670E-06,-0.004
-3.660E-06,0.004
-3.650E-06,0.008
-3.640E-06,0.004
-3.630E-06,0.000
-3.620E-06,-0.004
-3.610E-06,-0.004
-3.600E-06,-0.004
-3.590E-06,0.004
-3.580E-06,0.008
-3.570E-06,0.008
-3.560E-06,0.004
-3.550E-06,0.000
-3.540E-06,0.000
-3.530E-06,0.000
-3.520E-06,0.008
-3.510E-06,0.008
-3.500E-06,0.004
-3.490E-06,0.000
-3.480E-06,0.000
-3.470E-06,-0.004
-3.460E-06,0.000
-3.450E-06,0.000
-3.440E-06,0.000
-3.430E-06,0.000
-3.420E-06,0.004
-3.410E-06,0.000
-3.400E-06,0.000
-3.390E-06,0.004
-3.380E-06,0.004
-3.370E-06,0.008
-3.360E-06,0.008
-3.350E-06,0.004
-3.340E-06,0.004
-3.330E-06,-0.008
-3.320E-06,0.004
-3.310E-06,0.008
-3.300E-06,0.004
-3.290E-06,0.004
-3.280E-06,0.004
-3.270E-06,0.000
-3.260E-06,-0.004
-3.250E-06,-0.004
-3.240E-06,0.000
-3.230E-06,0.000
-3.220E-06,0.004
-3.210E-06,0.008
-3.200E-06,0.004
-3.190E-06,0.000
-3.180E-06,0.000
-3.170E-06,-0.004
-3.160E-06,0.000
-3.150E-06,0.000
-3.140E-06,0.004
-3.130E-06,0.008
-3.120E-06,0.008
-3.110E-06,0.004
-3.100E-06,0.000
-3.090E-06,-0.004
-3.080E-06,0.000
-3.070E-06,0.004
-3.060E-06,0.012
-3.050E-06,0.004
-3.040E-06,0.000
-3.030E-06,0.000
-3.020E-06,-0.004
-3.010E-06,0.000
-3.000E-06,0.000
-2.990E-06,0.004
-2.980E-06,0.008
-2.970E-06,0.008
-2.960E-06,0.000
-2.950E-06,0.000
-2.940E-06,0.000
-2.930E-06,0.004
-2.920E-06,0.004
-2.910E-06,0.008
-2.900E-06,0.004
-2.890E-06,0.004
-2.880E-06,0.004
-2.870E-06,0.000
-2.860E-06,0.000
-2.850E-06,0.000
-2.840E-06,0.004
-2.830E-06,0.004
-2.820E-06,0.000
-2.810E-06,0.000
-2.800E-06,-0.004
-2.790E-06,0.004
-2.780E-06,0.000
-2.770E-06,0.004
-2.760E-06,0.008
-2.750E-06,0.008
-2.740E-06,0.000
-2.730E-06,0.004
-2.720E-06,0.000
-2.710E-06,0.004
-2.700E-06,0.000
-2.690E-06,0.008
-2.680E-06,0.004
-2.670E-06,0.000
-2.660E-06,0.008
-2.650E-06,0.000
-2.640E-06,0.000
-2.630E-06,0.000
-2.620E-06,0.000
-2.610E-06,0.000
-2.600E-06,0.004
-2.590E-06,-0.004
-2.580E-06,0.000
-2.570E-06,0.000
-2.560E-06,0.004
-2.550E-06,0.004
-2.540E-06,0.000
-2.530E-06,0.004
-2.520E-06,0.000
-2.510E-06,0.004
-2.500E-06,0.000
-2.490E-06,0.000
-2.480E-06,-0.004
-2.470E-06,0.004
-2.460E-06,0.008
-2.450E-06,0.008
-2.440E-06,0.004
-2.430E-06,0.000
-2.420E-06,-0.004
-2.410E-06,-0.004
-2.400E-06,0.004
-2.390E-06,0.012
-2.380E-06,0.004
-2.370E-06,0.008
-2.360E-06,0.004
-2.350E-06,-0.008
-2.340E-06,-0.004
-2.330E-06,-0.008
-2.320E-06,0.004
-2.310E-06,0.008
-2.300E-06,0.012
-2.290E-06,0.004
-2.280E-06,0.004
-2.270E-06,-0.004
-2.260E-06,-0.008
-2.250E-06,0.000
-2.240E-06,0.004
-2.230E-06,0.016
-2.220E-06,0.004
-2.210E-06,0.000
-2.200E-06,-0.004
-2.190E-06,0.000
-2.180E-06,-0.008
-2.170E-06,0.004
-2.160E-06,0.012
-2.150E-06,0.012
-2.140E-06,0.008
-2.130E-06,-0.004
-2.120E-06,0.000
-2.110E-06,0.004
-2.100E-06,0.000
-2.090E-06,0.004
-2.080E-06,0.012
-2.070E-06,0.008
-2.060E-06,0.008
-2.050E-06,-0.008
-2.040E-06,0.004
-2.030E-06,-0.004
-2.020E-06,0.004
-2.010E-06,0.012
-2.000E-06,0.004
-1.990E-06,0.000
-1.980E-06,0.000
-1.970E-06,-0.004
-1.960E-06,-0.004
-1.950E-06,0.008
-1.940E-06,0.000
-1.930E-06,-0.004
-1.920E-06,0.000
-1.910E-06,-0.004
-1.900E-06,0.008
-1.890E-06,0.012
-1.880E-06,0.012
-1.870E-06,0.000
-1.860E-06,-0.004
-1.850E-06,-0.004
-1.840E-06,-0.008
-1.830E-06,-0.004
-1.820E-06,0.000
-1.810E-06,0.012
-1.800E-06,0.012
-1.790E-06,0.004
-1.780E-06,-0.008
-1.770E-06,-0.004
-1.760E-06,0.004
-1.750E-06,0.008
-1.740E-06,0.004
-1.730E-06,-0.004
-1.720E-06,0.000
-1.710E-06,0.004
-1.700E-06,0.000
-1.690E-06,-0.012
-1.680E-06,-0.012
-1.670E-06,-0.004
-1.660E-06,0.008
-1.650E-06,0.012
-1.640E-06,0.024
-1.630E-06,0.012
-1.620E-06,0.016
-1.610E-06,-0.012
-1.600E-06,-0.016
-1.590E-06,-0.012
-1.580E-06,0.008
-1.570E-06,0.000
-1.560E-06,-0.004
-1.550E-06,-0.012
-1.540E-06,-0.024
-1.530E-06,0.000
-1.520E-06,0.008
-1.510E-06,0.040
-1.500E-06,0.024
-1.490E-06,0.000
-1.480E-06,0.000
-1.470E-06,-0.016
-1.460E-06,-0.024
-1.450E-06,0.008
-1.440E-06,0.028
-1.430E-06,0.024
-1.420E-06,0.016
-1.410E-06,-0.008
-1.400E-06,-0.016
-1.390E-06,-0.012
-1.380E-06,0.008
-1.370E-06,0.016
-1.360E-06,0.020
-1.350E-06,0.016
-1.340E-06,0.004
-1.330E-06,-0.004
-1.320E-06,-0.004
-1.310E-06,0.008
-1.300E-06,0.004
-1.290E-06,0.012
-1.280E-06,0.012
-1.270E-06,0.000
-1.260E-06,0.000
-1.250E-06,0.008
-1.240E-06,0.008
-1.230E-06,0.008
-1.220E-06,-0.008
-1.210E-06,-0.008
-1.200E-06,-0.008
-1.190E-06,0.000
-1.180E-06,0.008
-1.170E-06,0.012
-1.160E-06,0.012
-1.150E-06,0.008
-1.140E-06,0.004
-1.130E-06,0.004
-1.120E-06,0.008
-1.110E-06,0.008
-1.100E-06,0.012
-1.090E-06,0.012
-1.080E-06,0.016
-1.070E-06,0.012
-1.060E-06,0.020
-1.050E-06,0.028
-1.040E-06,0.024
-1.030E-06,0.024
-1.020E-06,0.008
-1.010E-06,0.008
-1.000E-06,0.004
-9.900E-07,0.000
-9.800E-07,-0.020
-9.700E-07,-0.052
-9.600E-07,-0.100
-9.500E-07,-0.056
-9.400E-07,-0.044
-9.300E-07,-0.008
-9.200E-07,0.076
-9.100E-07,0.056
-9.000E-07,0.020
-8.900E-07,0.012
-8.800E-07,-0.020
-8.700E-07,-0.064
-8.600E-07,-0.012
-8.500E-07,0.036
-8.400E-07,0.008
-8.300E-07,0.024
-8.200E-07,0.040
-8.100E-07,-0.016
-8.000E-07,-0.008
-7.900E-07,-0.004
-7.800E-07,-0.008
-7.700E-07,0.004
-7.600E-07,0.020
-7.500E-07,0.008
-7.400E-07,0.004
-7.300E-07,0.012
-7.200E-07,-0.004
-7.100E-07,0.000
-7.000E-07,0.004
-6.900E-07,0.000
-6.800E-07,-0.004
-6.700E-07,0.008
-6.600E-07,0.008
-6.500E-07,0.012
-6.400E-07,0.004
-6.300E-07,0.000
-6.200E-07,0.000
-6.100E-07,-0.004
-6.000E-07,0.000
-5.900E-07,0.008
-5.800E-07,0.012
-5.700E-07,0.012
-5.600E-07,0.012
-5.500E-07,0.008
-5.400E-07,0.004
-5.300E-07,-0.004
-5.200E-07,0.004
-5.100E-07,0.012
-5.000E-07,0.008
-4.900E-07,0.008
-4.800E-07,0.004
-4.700E-07,0.008
-4.600E-07,0.008
-4.500E-07,0.008
-4.400E-07,0.008
-4.300E-07,0.008
-4.200E-07,0.008
-4.100E-07,0.012
-4.000E-07,0.012
-3.900E-07,0.024
-3.800E-07,0.024
-3.700E-07,0.024
-3.600E-07,0.008
-3.500E-07,-0.008
-3.400E-07,-0.004
-3.300E-07,0.000
-3.200E-07,0.008
-3.100E-07,0.016
-3.000E-07,0.020
-2.900E-07,0.016
-2.800E-07,0.012
-2.700E-07,0.004
-2.600E-07,0.004
-2.500E-07,0.004
-2.400E-07,0.016
-2.300E-07,0.024
-2.200E-07,0.036
-2.100E-07,0.040
-2.000E-07,0.044
-1.900E-07,0.040
-1.800E-07,0.048
-1.700E-07,0.060
-1.600E-07,0.072
-1.500E-07,0.088
-1.400E-07,0.084
-1.300E-07,0.032
-1.200E-07,-0.036
-1.100E-07,-0.060
-1.000E-07,-0.052
-9.000E-08,-0.012
-8.000E-08,-0.004
-7.000E-08,-0.004
-6.000E-08,-0.080
-5.000E-08,-0.256
-4.000E-08,-0.276
-3.000E-08,-0.200
-2.000E-08,0.084
-1.000E-08,0.236
0.000E+00,0.304
1.000E-08,0.136
2.000E-08,-0.044
3.000E-08,-0.140
4.000E-08,-0.168
5.000E-08,-0.104
6.000E-08,0.084
7.000E-08,0.084
8.000E-08,0.000
9.000E-08,-0.032
1.000E-07,-0.072
1.100E-07,-0.032
1.200E-07,0.000
1.300E-07,0.044
1.400E-07,0.016
1.500E-07,0.020
1.600E-07,-0.020
1.700E-07,-0.036
1.800E-07,-0.004
1.900E-07,0.024
2.000E-07,0.016
2.100E-07,-0.004
2.200E-07,-0.004
2.300E-07,-0.020
2.400E-07,0.012
2.500E-07,0.016
2.600E-07,0.032
2.700E-07,0.012
2.800E-07,-0.004
2.900E-07,-0.024
3.000E-07,-0.024
3.100E-07,0.004
3.200E-07,0.024
3.300E-07,0.032
3.400E-07,0.016
3.500E-07,-0.004
3.600E-07,-0.024
3.700E-07,-0.008
3.800E-07,0.008
3.900E-07,0.024
4.000E-07,0.020
4.100E-07,0.012
4.200E-07,-0.004
4.300E-07,-0.016
4.400E-07,-0.008
4.500E-07,0.008
4.600E-07,0.028
4.700E-07,0.028
4.800E-07,0.016
4.900E-07,0.004
5.000E-07,0.000
5.100E-07,-0.004
5.200E-07,0.012
5.300E-07,0.020
5.400E-07,0.024
5.500E-07,0.008
5.600E-07,0.008
5.700E-07,0.008
5.800E-07,0.008
5.900E-07,0.016
6.000E-07,0.020
6.100E-07,0.016
6.200E-07,0.012
6.300E-07,0.008
6.400E-07,0.008
6.500E-07,0.020
6.600E-07,0.036
6.700E-07,0.036
6.800E-07,0.044
6.900E-07,0.036
7.000E-07,0.036
7.100E-07,0.036
7.200E-07,0.056
7.300E-07,0.072
7.400E-07,0.104
7.500E-07,0.112
7.600E-07,0.112
7.700E-07,0.060
7.800E-07,-0.020
7.900E-07,-0.104
8.000E-07,-0.160
8.100E-07,-0.160
8.200E-07,-0.064
8.300E-07,0.028
8.400E-07,0.108
8.500E-07,0.124
8.600E-07,0.072
8.700E-07,-0.036
8.800E-07,-0.120
8.900E-07,-0.136
9.000E-07,-0.076
9.100E-07,0.016
9.200E-07,0.084
9.300E-07,0.084
9.400E-07,0.056
9.500E-07,0.012
9.600E-07,-0.036
9.700E-07,-0.040
9.800E-07,-0.020
9.900E-07,0.028
1.000E-06,0.052
1.010E-06,0.068
1.020E-06,0.052
1.030E-06,0.048
1.040E-06,0.024
1.050E-06,0.040
1.060E-06,0.056
1.070E-06,0.064
1.080E-06,0.056
1.090E-06,0.028
1.100E-06,-0.024
1.110E-06,-0.052
1.120E-06,-0.044
1.130E-06,-0.016
1.140E-06,0.008
1.150E-06,0.036
1.160E-06,0.060
1.170E-06,0.040
1.180E-06,0.024
1.190E-06,0.032
1.200E-06,0.020
1.210E-06,0.012
1.220E-06,-0.112
1.230E-06,-0.280
1.240E-06,-0.304
1.250E-06,-0.192
1.260E-06,-0.004
1.270E-06,0.184
1.280E-06,0.264
1.290E-06,0.200
1.300E-06,0.024
1.310E-06,-0.148
1.320E-06,-0.248
1.330E-06,-0.160
1.340E-06,0.064
1.350E-06,0.180
1.360E-06,0.252
1.370E-06,0.120
1.380E-06,-0.076
1.390E-06,-0.236
1.400E-06,-0.288
1.410E-06,-0.152
1.420E-06,-0.012
1.430E-06,0.196
1.440E-06,0.188
1.450E-06,0.112
1.460E-06,-0.028
1.470E-06,-0.148
1.480E-06,-0.172
1.490E-06,-0.088
1.500E-06,0.020
1.510E-06,0.096
1.520E-06,0.124
1.530E-06,0.068
1.540E-06,0.004
1.550E-06,-0.068
1.560E-06,-0.076
1.570E-06,-0.068
1.580E-06,-0.008
1.590E-06,0.036
1.600E-06,0.060
1.610E-06,0.056
1.620E-06,0.024
1.630E-06,-0.012
1.640E-06,-0.040
1.650E-06,-0.040
1.660E-06,-0.020
1.670E-06,0.012
1.680E-06,0.048
1.690E-06,0.060
1.700E-06,0.032
1.710E-06,0.004
1.720E-06,-0.024
1.730E-06,-0.028
1.740E-06,-0.016
1.750E-06,0.012
1.760E-06,0.032
1.770E-06,0.036
1.780E-06,0.024
1.790E-06,-0.004
1.800E-06,-0.016
1.810E-06,-0.008
1.820E-06,0.000
1.830E-06,0.020
1.840E-06,0.040
1.850E-06,0.040
1.860E-06,0.024
1.870E-06,0.008
1.880E-06,-0.004
1.890E-06,-0.004
1.900E-06,0.008
1.910E-06,0.020
1.920E-06,0.028
1.930E-06,0.028
1.940E-06,0.024
1.950E-06,0.024
1.960E-06,0.020
1.970E-06,0.024
1.980E-06,0.024
1.990E-06,0.032
2.000E-06,0.032
2.010E-06,0.040
2.020E-06,0.040
2.030E-06,0.044
2.040E-06,0.056
2.050E-06,0.060
2.060E-06,0.068
2.070E-06,0.068
2.080E-06,0.060
2.090E-06,0.064
2.100E-06,0.056
2.110E-06,0.044
2.120E-06,0.036
2.130E-06,0.016
2.140E-06,-0.080
2.150E-06,-0.160
2.160E-06,-0.208
2.170E-06,-0.284
2.180E-06,-0.160
2.190E-06,-0.004
2.200E-06,0.120
2.210E-06,0.192
2.220E-06,0.188
2.230E-06,0.100
2.240E-06,-0.064
2.250E-06,-0.076
2.260E-06,-0.020
2.270E-06,0.012
2.280E-06,0.072
2.290E-06,-0.116
2.300E-06,-0.276
2.310E-06,-0.276
2.320E-06,-0.148
2.330E-06,0.076
2.340E-06,0.284
2.350E-06,0.336
2.360E-06,0.168
2.370E-06,-0.072
2.380E-06,-0.312
2.390E-06,-0.372
2.400E-06,-0.188
2.410E-06,0.076
2.420E-06,0.224
2.430E-06,0.276
2.440E-06,0.160
2.450E-06,-0.028
2.460E-06,-0.152
2.470E-06,-0.208
2.480E-06,-0.136
2.490E-06,0.004
2.500E-06,0.128
2.510E-06,0.152
2.520E-06,0.124
2.530E-06,0.024
2.540E-06,-0.072
2.550E-06,-0.108
2.560E-06,-0.088
2.570E-06,-0.020
2.580E-06,0.056
2.590E-06,0.112
2.600E-06,0.100
2.610E-06,0.056
2.620E-06,-0.012
2.630E-06,-0.068
2.640E-06,-0.060
2.650E-06,-0.028
2.660E-06,0.024
2.670E-06,0.072
2.680E-06,0.088
2.690E-06,0.056
2.700E-06,0.008
2.710E-06,-0.028
2.720E-06,-0.028
2.730E-06,-0.008
2.740E-06,0.028
2.750E-06,0.064
2.760E-06,0.060
2.770E-06,0.040
2.780E-06,0.044
2.790E-06,0.000
2.800E-06,-0.044
2.810E-06,-0.076
2.820E-06,-0.072
2.830E-06,-0.044
2.840E-06,0.008
2.850E-06,0.064
2.860E-06,0.076
2.870E-06,0.064
2.880E-06,0.012
2.890E-06,-0.056
2.900E-06,-0.072
2.910E-06,-0.040
2.920E-06,0.024
2.930E-06,0.088
2.940E-06,0.108
2.950E-06,0.072
2.960E-06,0.028
2.970E-06,-0.012
2.980E-06,-0.024
2.990E-06,0.000
3.000E-06,0.060
3.010E-06,0.092
3.020E-06,0.100
3.030E-06,0.088
3.040E-06,0.056
3.050E-06,0.024
3.060E-06,0.024
3.070E-06,0.032
3.080E-06,0.044
3.090E-06,0.076
3.100E-06,0.092
3.110E-06,0.088
3.120E-06,0.080
3.130E-06,0.072
3.140E-06,0.072
3.150E-06,0.080
3.160E-06,0.108
3.170E-06,0.124
3.180E-06,0.132
3.190E-06,0.132
3.200E-06,0.116
3.210E-06,0.100
3.220E-06,0.092
3.230E-06,0.072
3.240E-06,0.068
3.250E-06,0.064
3.260E-06,0.060
3.270E-06,0.012
3.280E-06,-0.076
3.290E-06,-0.156
3.300E-06,-0.204
3.310E-06,-0.156
3.320E-06,-0.060
3.330E-06,0.064
3.340E-06,0.136
3.350E-06,0.168
3.360E-06,0.096
