mediciones/6-26/33.7/WaveData59197.csv

#timebase=2000000(ps)
,#voltbase=200000(mv/100)
#size=4000
-8.150E-06,0.016
-8.140E-06,-0.008
-8.130E-06,0.000
-8.120E-06,0.000
-8.110E-06,0.008
-8.100E-06,0.008
-8.090E-06,0.008
-8.080E-06,0.016
-8.070E-06,0.016
-8.060E-06,-0.008
-8.050E-06,0.000
-8.040E-06,0.016
-8.030E-06,0.008
-8.020E-06,0.016
-8.010E-06,0.000
-8.000E-06,-0.008
-7.990E-06,0.016
-7.980E-06,0.000
-7.970E-06,0.008
-7.960E-06,0.024
-7.950E-06,0.008
-7.940E-06,0.016
-7.930E-06,0.000
-7.920E-06,0.000
-7.910E-06,0.016
-7.900E-06,0.008
-7.890E-06,0.008
-7.880E-06,0.016
-7.870E-06,0.016
-7.860E-06,0.024
-7.850E-06,0.032
-7.840E-06,0.008
-7.830E-06,0.024
-7.820E-06,0.016
-7.810E-06,0.000
-7.800E-06,0.016
-7.790E-06,0.024
-7.780E-06,0.024
-7.770E-06,0.000
-7.760E-06,0.000
-7.750E-06,0.016
-7.740E-06,0.000
-7.730E-06,0.016
-7.720E-06,0.008
-7.710E-06,0.000
-7.700E-06,0.008
-7.690E-06,0.008
-7.680E-06,0.008
-7.670E-06,0.016
-7.660E-06,0.024
-7.650E-06,0.016
-7.640E-06,0.016
-7.630E-06,0.008
-7.620E-06,0.000
-7.610E-06,0.000
-7.600E-06,0.016
-7.590E-06,0.024
-7.580E-06,0.016
-7.570E-06,0.016
-7.560E-06,-0.008
-7.550E-06,0.008
-7.540E-06,0.016
-7.530E-06,0.016
-7.520E-06,0.016
-7.510E-06,0.024
-7.500E-06,0.024
-7.490E-06,0.016
-7.480E-06,0.024
-7.470E-06,-0.008
-7.460E-06,0.008
-7.450E-06,0.000
-7.440E-06,0.016
-7.430E-06,0.032
-7.420E-06,0.008
-7.410E-06,0.000
-7.400E-06,0.008
-7.390E-06,-0.008
-7.380E-06,0.000
-7.370E-06,0.024
-7.360E-06,0.032
-7.350E-06,0.040
-7.340E-06,0.032
-7.330E-06,0.008
-7.320E-06,-0.008
-7.310E-06,0.000
-7.300E-06,0.008
-7.290E-06,0.016
-7.280E-06,0.024
-7.270E-06,0.008
-7.260E-06,0.008
-7.250E-06,0.016
-7.240E-06,0.008
-7.230E-06,0.016
-7.220E-06,-0.016
-7.210E-06,0.000
-7.200E-06,0.000
-7.190E-06,0.016
-7.180E-06,0.016
-7.170E-06,0.016
-7.160E-06,0.008
-7.150E-06,0.008
-7.140E-06,0.008
-7.130E-06,0.016
-7.120E-06,0.024
-7.110E-06,0.008
-7.100E-06,0.008
-7.090E-06,0.000
-7.080E-06,0.016
-7.070E-06,0.016
-7.060E-06,0.016
-7.050E-06,0.024
-7.040E-06,0.024
-7.030E-06,-0.008
-7.020E-06,0.024
-7.010E-06,0.008
-7.000E-06,-0.016
-6.990E-06,0.032
-6.980E-06,-0.008
-6.970E-06,0.000
-6.960E-06,0.000
-6.950E-06,-0.008
-6.940E-06,0.000
-6.930E-06,0.016
-6.920E-06,0.000
-6.910E-06,0.008
-6.900E-06,0.016
-6.890E-06,-0.016
-6.880E-06,0.008
-6.870E-06,-0.008
-6.860E-06,0.000
-6.850E-06,0.016
-6.840E-06,0.008
-6.830E-06,0.000
-6.820E-06,0.000
-6.810E-06,0.000
-6.800E-06,0.000
-6.790E-06,-0.008
-6.780E-06,0.024
-6.770E-06,-0.016
-6.760E-06,0.032
-6.750E-06,0.000
-6.740E-06,0.000
-6.730E-06,0.000
-6.720E-06,0.024
-6.710E-06,-0.008
-6.700E-06,0.016
-6.690E-06,0.000
-6.680E-06,0.000
-6.670E-06,0.008
-6.660E-06,0.000
-6.650E-06,0.008
-6.640E-06,0.016
-6.630E-06,0.000
-6.620E-06,0.000
-6.610E-06,0.008
-6.600E-06,0.024
-6.590E-06,0.000
-6.580E-06,0.016
-6.570E-06,0.008
-6.560E-06,0.008
-6.550E-06,0.000
-6.540E-06,0.008
-6.530E-06,0.016
-6.520E-06,0.016
-6.510E-06,0.024
-6.500E-06,0.016
-6.490E-06,0.016
-6.480E-06,0.000
-6.470E-06,0.000
-6.460E-06,0.008
-6.450E-06,0.032
-6.440E-06,0.000
-6.430E-06,0.016
-6.420E-06,0.016
-6.410E-06,-0.016
-6.400E-06,0.024
-6.390E-06,0.000
-6.380E-06,0.016
-6.370E-06,0.016
-6.360E-06,0.016
-6.350E-06,0.000
-6.340E-06,0.008
-6.330E-06,-0.008
-6.320E-06,0.008
-6.310E-06,0.008
-6.300E-06,0.008
-6.290E-06,0.016
-6.280E-06,0.000
-6.270E-06,0.008
-6.260E-06,0.008
-6.250E-06,0.000
-6.240E-06,0.000
-6.230E-06,0.008
-6.220E-06,0.000
-6.210E-06,0.016
-6.200E-06,0.000
-6.190E-06,0.008
-6.180E-06,0.008
-6.170E-06,0.000
-6.160E-06,0.016
-6.150E-06,0.016
-6.140E-06,0.000
-6.130E-06,0.000
-6.120E-06,0.016
-6.110E-06,0.000
-6.100E-06,0.016
-6.090E-06,0.008
-6.080E-06,0.016
-6.070E-06,0.000
-6.060E-06,0.008
-6.050E-06,0.024
-6.040E-06,0.024
-6.030E-06,0.008
-6.020E-06,0.024
-6.010E-06,0.016
-6.000E-06,0.008
-5.990E-06,0.008
-5.980E-06,0.016
-5.970E-06,0.008
-5.960E-06,0.016
-5.950E-06,0.008
-5.940E-06,0.016
-5.930E-06,0.000
-5.920E-06,0.016
-5.910E-06,0.024
-5.900E-06,0.032
-5.890E-06,0.024
-5.880E-06,0.016
-5.870E-06,0.016
-5.860E-06,-0.008
-5.850E-06,0.008
-5.840E-06,0.024
-5.830E-06,0.032
-5.820E-06,-0.016
-5.810E-06,0.024
-5.800E-06,-0.008
-5.790E-06,0.016
-5.780E-06,0.064
-5.770E-06,0.040
-5.760E-06,0.016
-5.750E-06,0.016
-5.740E-06,-0.008
-5.730E-06,0.008
-5.720E-06,0.032
-5.710E-06,0.024
-5.700E-06,0.024
-5.690E-06,0.016
-5.680E-06,-0.008
-5.670E-06,0.000
-5.660E-06,0.000
-5.650E-06,0.008
-5.640E-06,0.008
-5.630E-06,0.008
-5.620E-06,0.000
-5.610E-06,0.008
-5.600E-06,0.000
-5.590E-06,-0.008
-5.580E-06,0.008
-5.570E-06,0.008
-5.560E-06,0.000
-5.550E-06,-0.016
-5.540E-06,0.024
-5.530E-06,-0.048
-5.520E-06,0.040
-5.510E-06,0.000
-5.500E-06,0.000
-5.490E-06,0.032
-5.480E-06,0.000
-5.470E-06,0.000
-5.460E-06,0.000
-5.450E-06,0.000
-5.440E-06,0.000
-5.430E-06,0.016
-5.420E-06,0.000
-5.410E-06,0.008
-5.400E-06,0.008
-5.390E-06,0.000
-5.380E-06,0.008
-5.370E-06,0.000
-5.360E-06,0.040
-5.350E-06,-0.008
-5.340E-06,0.000
-5.330E-06,0.016
-5.320E-06,-0.008
-5.310E-06,0.008
-5.300E-06,0.032
-5.290E-06,0.032
-5.280E-06,0.016
-5.270E-06,0.000
-5.260E-06,0.000
-5.250E-06,0.000
-5.240E-06,0.016
-5.230E-06,0.040
-5.220E-06,0.048
-5.210E-06,0.016
-5.200E-06,0.016
-5.190E-06,0.000
-5.180E-06,0.008
-5.170E-06,0.008
-5.160E-06,0.024
-5.150E-06,0.040
-5.140E-06,0.024
-5.130E-06,0.000
-5.120E-06,0.000
-5.110E-06,0.000
-5.100E-06,0.008
-5.090E-06,0.040
-5.080E-06,0.032
-5.070E-06,0.024
-5.060E-06,0.008
-5.050E-06,0.016
-5.040E-06,-0.016
-5.030E-06,-0.008
-5.020E-06,0.016
-5.010E-06,0.040
-5.000E-06,0.040
-4.990E-06,0.032
-4.980E-06,0.040
-4.970E-06,0.008
-4.960E-06,0.008
-4.950E-06,0.008
-4.940E-06,0.016
-4.930E-06,0.024
-4.920E-06,0.024
-4.910E-06,0.016
-4.900E-06,0.016
-4.890E-06,0.016
-4.880E-06,-0.008
-4.870E-06,0.016
-4.860E-06,0.016
-4.850E-06,0.032
-4.840E-06,0.024
-4.830E-06,0.008
-4.820E-06,-0.008
-4.810E-06,-0.024
-4.800E-06,-0.024
-4.790E-06,0.016
-4.780E-06,0.008
-4.770E-06,0.024
-4.760E-06,0.016
-4.750E-06,0.000
-4.740E-06,0.008
-4.730E-06,-0.008
-4.720E-06,0.016
-4.710E-06,0.016
-4.700E-06,0.016
-4.690E-06,0.024
-4.680E-06,0.024
-4.670E-06,0.024
-4.660E-06,0.032
-4.650E-06,0.000
-4.640E-06,0.008
-4.630E-06,0.016
-4.620E-06,0.008
-4.610E-06,0.024
-4.600E-06,0.032
-4.590E-06,0.024
-4.580E-06,0.016
-4.570E-06,0.016
-4.560E-06,0.016
-4.550E-06,0.008
-4.540E-06,0.008
-4.530E-06,0.024
-4.520E-06,0.008
-4.510E-06,0.024
-4.500E-06,0.008
-4.490E-06,0.008
-4.480E-06,0.024
-4.470E-06,0.016
-4.460E-06,0.008
-4.450E-06,0.016
-4.440E-06,0.016
-4.430E-06,0.016
-4.420E-06,0.016
-4.410E-06,0.000
-4.400E-06,0.008
-4.390E-06,0.008
-4.380E-06,0.016
-4.370E-06,0.016
-4.360E-06,0.016
-4.350E-06,0.000
-4.340E-06,0.000
-4.330E-06,0.000
-4.320E-06,0.008
-4.310E-06,0.016
-4.300E-06,0.016
-4.290E-06,0.016
-4.280E-06,0.008
-4.270E-06,0.008
-4.260E-06,0.016
-4.250E-06,0.048
-4.240E-06,0.056
-4.230E-06,0.056
-4.220E-06,0.040
-4.210E-06,0.016
-4.200E-06,0.024
-4.190E-06,0.048
-4.180E-06,0.048
-4.170E-06,0.064
-4.160E-06,0.048
-4.150E-06,0.040
-4.140E-06,0.016
-4.130E-06,0.008
-4.120E-06,0.024
-4.110E-06,0.032
-4.100E-06,0.032
-4.090E-06,0.048
-4.080E-06,0.016
-4.070E-06,0.000
-4.060E-06,-0.008
-4.050E-06,0.000
-4.040E-06,0.016
-4.030E-06,0.024
-4.020E-06,0.024
-4.010E-06,0.000
-4.000E-06,-0.008
-3.990E-06,-0.008
-3.980E-06,0.000
-3.970E-06,0.032
-3.960E-06,0.048
-3.950E-06,0.040
-3.940E-06,0.016
-3.930E-06,-0.008
-3.920E-06,-0.008
-3.910E-06,-0.008
-3.900E-06,0.032
-3.890E-06,0.048
-3.880E-06,0.056
-3.870E-06,0.056
-3.860E-06,0.056
-3.850E-06,0.056
-3.840E-06,0.056
-3.830E-06,0.072
-3.820E-06,0.080
-3.810E-06,0.104
-3.800E-06,0.096
-3.790E-06,0.168
-3.780E-06,0.048
-3.770E-06,0.136
-3.760E-06,0.160
-3.750E-06,0.168
-3.740E-06,0.352
-3.730E-06,0.400
-3.720E-06,0.312
-3.710E-06,0.168
-3.700E-06,-0.016
-3.690E-06,-0.040
-3.680E-06,0.088
-3.670E-06,0.144
-3.660E-06,0.192
-3.650E-06,0.176
-3.640E-06,0.064
-3.630E-06,-0.064
-3.620E-06,-0.056
-3.610E-06,-0.120
-3.600E-06,-0.056
-3.590E-06,0.000
-3.580E-06,-0.008
-3.570E-06,-0.008
-3.560E-06,-0.040
-3.550E-06,-0.080
-3.540E-06,-0.080
-3.530E-06,-0.096
-3.520E-06,-0.096
-3.510E-06,-0.032
-3.500E-06,-0.016
-3.490E-06,-0.016
-3.480E-06,-0.048
-3.470E-06,-0.056
-3.460E-06,-0.056
-3.450E-06,-0.048
-3.440E-06,-0.016
-3.430E-06,0.016
-3.420E-06,0.040
-3.410E-06,0.040
-3.400E-06,0.008
-3.390E-06,0.008
-3.380E-06,0.000
-3.370E-06,0.016
-3.360E-06,0.024
-3.350E-06,0.040
-3.340E-06,0.056
-3.330E-06,0.072
-3.320E-06,0.056
-3.310E-06,0.040
-3.300E-06,0.024
-3.290E-06,0.056
-3.280E-06,0.088
-3.270E-06,0.128
-3.260E-06,0.160
-3.250E-06,0.128
-3.240E-06,0.112
-3.230E-06,0.072
-3.220E-06,0.048
-3.210E-06,0.048
-3.200E-06,0.080
-3.190E-06,0.096
-3.180E-06,0.104
-3.170E-06,0.080
-3.160E-06,0.032
-3.150E-06,0.024
-3.140E-06,0.088
-3.130E-06,0.048
-3.120E-06,0.008
-3.110E-06,0.040
-3.100E-06,0.088
-3.090E-06,0.176
-3.080E-06,0.376
-3.070E-06,0.400
-3.060E-06,0.312
-3.050E-06,0.152
-3.040E-06,0.024
-3.030E-06,0.048
-3.020E-06,0.136
-3.010E-06,0.200
-3.000E-06,0.240
-2.990E-06,0.152
-2.980E-06,0.064
-2.970E-06,-0.024
-2.960E-06,-0.048
-2.950E-06,-0.016
-2.940E-06,0.024
-2.930E-06,0.016
-2.920E-06,0.000
-2.910E-06,-0.072
-2.900E-06,-0.136
-2.890E-06,-0.144
-2.880E-06,-0.120
-2.870E-06,-0.096
-2.860E-06,-0.088
-2.850E-06,-0.064
-2.840E-06,-0.080
-2.830E-06,-0.104
-2.820E-06,-0.112
-2.810E-06,-0.120
-2.800E-06,-0.088
-2.790E-06,-0.072
-2.780E-06,-0.024
-2.770E-06,-0.024
-2.760E-06,-0.040
-2.750E-06,-0.048
-2.740E-06,-0.064
-2.730E-06,-0.056
-2.720E-06,-0.032
-2.710E-06,0.024
-2.700E-06,0.064
-2.690E-06,0.104
-2.680E-06,0.136
-2.670E-06,0.096
-2.660E-06,0.048
-2.650E-06,0.104
-2.640E-06,0.248
-2.630E-06,0.216
-2.620E-06,0.256
-2.610E-06,0.280
-2.600E-06,0.168
-2.590E-06,0.472
-2.580E-06,0.608
-2.570E-06,0.576
-2.560E-06,0.440
-2.550E-06,0.184
-2.540E-06,0.056
-2.530E-06,0.208
-2.520E-06,0.296
-2.510E-06,0.384
-2.500E-06,0.360
-2.490E-06,0.224
-2.480E-06,0.088
-2.470E-06,-0.024
-2.460E-06,-0.088
-2.450E-06,-0.024
-2.440E-06,0.024
-2.430E-06,-0.008
-2.420E-06,-0.080
-2.410E-06,-0.200
-2.400E-06,-0.272
-2.390E-06,-0.296
-2.380E-06,-0.264
-2.370E-06,-0.240
-2.360E-06,-0.216
-2.350E-06,-0.184
-2.340E-06,-0.192
-2.330E-06,-0.184
-2.320E-06,-0.160
-2.310E-06,-0.144
-2.300E-06,-0.112
-2.290E-06,-0.040
-2.280E-06,-0.032
-2.270E-06,-0.008
-2.260E-06,0.024
-2.250E-06,0.048
-2.240E-06,0.088
-2.230E-06,0.104
-2.220E-06,0.120
-2.210E-06,0.168
-2.200E-06,0.224
-2.190E-06,0.264
-2.180E-06,0.328
-2.170E-06,0.400
-2.160E-06,0.296
-2.150E-06,0.288
-2.140E-06,0.408
-2.130E-06,1.080
-2.120E-06,0.288
-2.110E-06,0.392
-2.100E-06,0.256
-2.090E-06,-0.248
-2.080E-06,0.912
-2.070E-06,1.080
-2.060E-06,1.088
-2.050E-06,1.080
-2.040E-06,0.760
-2.030E-06,0.136
-2.020E-06,0.328
-2.010E-06,0.280
-2.000E-06,0.672
-1.990E-06,0.848
-1.980E-06,0.304
-1.970E-06,0.000
-1.960E-06,-0.272
-1.950E-06,-0.448
-1.940E-06,-0.120
-1.930E-06,-0.040
-1.920E-06,0.048
-1.910E-06,-0.136
-1.900E-06,-0.448
-1.890E-06,-0.544
-1.880E-06,-0.584
-1.870E-06,-0.600
-1.860E-06,-0.480
-1.850E-06,-0.448
-1.840E-06,-0.376
-1.830E-06,-0.392
-1.820E-06,-0.504
-1.810E-06,-0.488
-1.800E-06,-0.432
-1.790E-06,-0.336
-1.780E-06,-0.240
-1.770E-06,-0.160
-1.760E-06,-0.056
-1.750E-06,-0.064
-1.740E-06,-0.112
-1.730E-06,-0.112
-1.720E-06,-0.104
-1.710E-06,-0.040
-1.700E-06,0.024
-1.690E-06,0.064
-1.680E-06,-0.040
-1.670E-06,0.088
-1.660E-06,-0.064
-1.650E-06,0.056
-1.640E-06,0.152
-1.630E-06,0.280
-1.620E-06,0.488
-1.610E-06,0.552
-1.600E-06,0.536
-1.590E-06,0.456
-1.580E-06,0.344
-1.570E-06,0.400
-1.560E-06,0.576
-1.550E-06,0.696
-1.540E-06,0.840
-1.530E-06,0.680
-1.520E-06,0.408
-1.510E-06,0.248
-1.500E-06,0.008
-1.490E-06,-0.064
-1.480E-06,0.136
-1.470E-06,0.312
-1.460E-06,0.504
-1.450E-06,0.600
-1.440E-06,0.440
-1.430E-06,0.240
-1.420E-06,0.008
-1.410E-06,-0.120
-1.400E-06,-0.032
-1.390E-06,0.072
-1.380E-06,0.040
-1.370E-06,-0.040
-1.360E-06,-0.320
-1.350E-06,-0.376
-1.340E-06,-0.552
-1.330E-06,-0.392
-1.320E-06,-0.328
-1.310E-06,-0.192
-1.300E-06,-0.048
-1.290E-06,0.072
-1.280E-06,0.072
-1.270E-06,0.000
-1.260E-06,-0.112
-1.250E-06,-0.200
-1.240E-06,-0.152
-1.230E-06,-0.136
-1.220E-06,-0.064
-1.210E-06,-0.048
-1.200E-06,-0.064
-1.190E-06,-0.088
-1.180E-06,-0.096
-1.170E-06,-0.064
-1.160E-06,0.064
-1.150E-06,0.144
-1.140E-06,0.264
-1.130E-06,0.344
-1.120E-06,0.424
-1.110E-06,0.424
-1.100E-06,0.512
-1.090E-06,0.600
-1.080E-06,0.704
-1.070E-06,0.720
-1.060E-06,0.648
-1.050E-06,0.424
-1.040E-06,0.184
-1.030E-06,0.000
-1.020E-06,-0.056
-1.010E-06,-0.016
-1.000E-06,0.024
-9.900E-07,0.064
-9.800E-07,0.032
-9.700E-07,-0.056
-9.600E-07,-0.184
-9.500E-07,-0.264
-9.400E-07,-0.328
-9.300E-07,-0.280
-9.200E-07,-0.200
-9.100E-07,-0.184
-9.000E-07,-0.176
-8.900E-07,-0.240
-8.800E-07,-0.304
-8.700E-07,-0.256
-8.600E-07,-0.048
-8.500E-07,0.160
-8.400E-07,0.456
-8.300E-07,0.536
-8.200E-07,0.592
-8.100E-07,0.528
-8.000E-07,0.424
-7.900E-07,0.464
-7.800E-07,0.672
-7.700E-07,0.848
-7.600E-07,0.888
-7.500E-07,0.912
-7.400E-07,1.032
-7.300E-07,1.048
-7.200E-07,1.072
-7.100E-07,1.080
-7.000E-07,1.088
-6.900E-07,1.080
-6.800E-07,1.080
-6.700E-07,1.072
-6.600E-07,1.080
-6.500E-07,1.080
-6.400E-07,1.072
-6.300E-07,1.080
-6.200E-07,1.080
-6.100E-07,1.072
-6.000E-07,0.808
-5.900E-07,0.096
-5.800E-07,-0.040
-5.700E-07,0.120
-5.600E-07,0.360
-5.500E-07,1.072
-5.400E-07,1.080
-5.300E-07,1.080
-5.200E-07,1.080
-5.100E-07,1.080
-5.000E-07,1.080
-4.900E-07,1.080
-4.800E-07,1.088
-4.700E-07,-0.136
-4.600E-07,-0.608
-4.500E-07,-1.024
-4.400E-07,-1.032
-4.300E-07,-1.040
-4.200E-07,-1.040
-4.100E-07,-1.048
-4.000E-07,-1.040
-3.900E-07,-1.032
-3.800E-07,-1.040
-3.700E-07,-1.048
-3.600E-07,-1.040
-3.500E-07,-1.032
-3.400E-07,-0.480
-3.300E-07,0.408
-3.200E-07,1.088
-3.100E-07,1.080
-3.000E-07,1.088
-2.900E-07,1.080
-2.800E-07,1.072
-2.700E-07,0.432
-2.600E-07,0.160
-2.500E-07,0.176
-2.400E-07,0.224
-2.300E-07,0.560
-2.200E-07,0.928
-2.100E-07,1.088
-2.000E-07,1.088
-1.900E-07,1.080
-1.800E-07,1.088
-1.700E-07,1.088
-1.600E-07,1.080
-1.500E-07,1.088
-1.400E-07,1.080
-1.300E-07,1.080
-1.200E-07,0.672
-1.100E-07,-0.448
-1.000E-07,-1.048
-9.000E-08,-0.960
-8.000E-08,0.576
-7.000E-08,1.088
-6.000E-08,1.080
-5.000E-08,1.080
-4.000E-08,1.080
-3.000E-08,1.088
-2.000E-08,1.080
-1.000E-08,1.072
0.000E+00,1.080
1.000E-08,1.088
2.000E-08,-0.288
3.000E-08,-0.680
4.000E-08,-0.768
5.000E-08,-1.048
6.000E-08,-1.032
7.000E-08,-1.040
8.000E-08,-1.040
9.000E-08,-1.048
1.000E-07,-1.040
1.100E-07,-1.032
1.200E-07,-1.040
1.300E-07,-1.040
1.400E-07,-1.048
1.500E-07,-1.040
1.600E-07,-1.048
1.700E-07,-0.104
1.800E-07,0.864
1.900E-07,1.072
2.000E-07,1.080
2.100E-07,1.080
2.200E-07,1.088
2.300E-07,1.088
2.400E-07,0.944
2.500E-07,0.872
2.600E-07,0.840
2.700E-07,0.944
2.800E-07,0.888
2.900E-07,0.696
3.000E-07,0.440
3.100E-07,0.368
3.200E-07,0.520
3.300E-07,1.080
3.400E-07,1.088
3.500E-07,1.088
3.600E-07,1.080
3.700E-07,1.080
3.800E-07,1.072
3.900E-07,1.080
4.000E-07,1.088
4.100E-07,1.080
4.200E-07,1.088
4.300E-07,1.088
4.400E-07,1.080
4.500E-07,1.080
4.600E-07,1.080
4.700E-07,1.080
4.800E-07,1.072
4.900E-07,1.080
5.000E-07,1.088
5.100E-07,1.080
5.200E-07,1.088
5.300E-07,1.080
5.400E-07,1.032
5.500E-07,0.776
5.600E-07,0.440
5.700E-07,-0.032
5.800E-07,-0.768
5.900E-07,-1.040
6.000E-07,-1.040
6.100E-07,-1.040
6.200E-07,-1.048
6.300E-07,-1.040
6.400E-07,-1.040
6.500E-07,-1.040
6.600E-07,-1.040
6.700E-07,-1.040
6.800E-07,-1.048
6.900E-07,-1.040
7.000E-07,-1.040
7.100E-07,-1.048
7.200E-07,-1.040
7.300E-07,-1.032
7.400E-07,-1.040
7.500E-07,-1.032
7.600E-07,-1.040
7.700E-07,-1.032
7.800E-07,-1.032
7.900E-07,-1.040
8.000E-07,-1.032
8.100E-07,-1.032
8.200E-07,-1.040
8.300E-07,-1.040
8.400E-07,-1.048
8.500E-07,-0.872
8.600E-07,-0.576
8.700E-07,-0.200
8.800E-07,0.032
8.900E-07,0.264
9.000E-07,0.600
9.100E-07,0.968
9.200E-07,1.080
9.300E-07,1.088
9.400E-07,1.088
9.500E-07,1.080
9.600E-07,1.080
9.700E-07,1.072
9.800E-07,1.080
9.900E-07,1.088
1.000E-06,1.080
1.010E-06,1.088
1.020E-06,1.080
1.030E-06,1.080
1.040E-06,1.072
1.050E-06,1.080
1.060E-06,1.080
1.070E-06,1.080
1.080E-06,1.088
1.090E-06,1.088
1.100E-06,1.080
1.110E-06,1.088
1.120E-06,1.080
1.130E-06,1.080
1.140E-06,1.080
1.150E-06,1.072
1.160E-06,1.080
1.170E-06,1.080
1.180E-06,1.088
1.190E-06,1.088
1.200E-06,1.080
1.210E-06,1.080
1.220E-06,1.088
1.230E-06,1.088
1.240E-06,1.080
1.250E-06,1.088
1.260E-06,1.080
1.270E-06,1.088
1.280E-06,1.080
1.290E-06,1.080
1.300E-06,1.088
1.310E-06,1.080
1.320E-06,1.080
1.330E-06,1.080
1.340E-06,1.080
1.350E-06,1.072
1.360E-06,1.080
1.370E-06,1.088
1.380E-06,1.080
1.390E-06,1.088
1.400E-06,1.088
1.410E-06,1.080
1.420E-06,1.088
1.430E-06,1.080
1.440E-06,1.088
1.450E-06,1.080
1.460E-06,1.064
1.470E-06,0.888
1.480E-06,0.728
1.490E-06,0.552
1.500E-06,0.328
1.510E-06,0.232
1.520E-06,0.200
1.530E-06,0.304
1.540E-06,0.488
1.550E-06,0.568
1.560E-06,0.528
1.570E-06,0.408
1.580E-06,0.320
1.590E-06,0.352
1.600E-06,0.408
1.610E-06,0.424
1.620E-06,0.440
1.630E-06,0.432
1.640E-06,0.408
1.650E-06,0.328
1.660E-06,0.232
1.670E-06,0.144
1.680E-06,0.040
1.690E-06,-0.032
1.700E-06,-0.128
1.710E-06,-0.152
1.720E-06,-0.112
1.730E-06,-0.072
1.740E-06,0.032
1.750E-06,0.144
1.760E-06,0.264
1.770E-06,0.400
1.780E-06,0.512
1.790E-06,0.552
1.800E-06,0.576
1.810E-06,0.528
1.820E-06,0.512
1.830E-06,0.464
1.840E-06,0.424
1.850E-06,0.336
1.860E-06,0.208
1.870E-06,0.208
1.880E-06,0.240
1.890E-06,0.352
1.900E-06,0.416
1.910E-06,0.416
1.920E-06,0.344
1.930E-06,0.360
1.940E-06,0.328
1.950E-06,0.264
1.960E-06,0.136
1.970E-06,-0.080
1.980E-06,-0.200
1.990E-06,-0.208
2.000E-06,-0.136
2.010E-06,-0.040
2.020E-06,0.048
2.030E-06,0.192
2.040E-06,0.216
2.050E-06,0.208
2.060E-06,0.176
2.070E-06,0.144
2.080E-06,0.104
2.090E-06,0.048
2.100E-06,-0.056
2.110E-06,-0.176
2.120E-06,-0.256
2.130E-06,-0.288
2.140E-06,-0.264
2.150E-06,-0.208
2.160E-06,-0.144
2.170E-06,-0.088
2.180E-06,-0.064
2.190E-06,-0.040
2.200E-06,-0.072
2.210E-06,-0.096
2.220E-06,-0.152
2.230E-06,-0.192
2.240E-06,-0.216
2.250E-06,-0.232
2.260E-06,-0.224
2.270E-06,-0.208
2.280E-06,-0.200
2.290E-06,-0.160
2.300E-06,-0.136
2.310E-06,-0.112
2.320E-06,-0.064
2.330E-06,-0.024
2.340E-06,0.072
2.350E-06,0.224
2.360E-06,0.344
2.370E-06,0.424
2.380E-06,0.384
2.390E-06,0.336
2.400E-06,0.280
2.410E-06,0.240
2.420E-06,0.216
2.430E-06,0.168
2.440E-06,0.088
2.450E-06,0.000
2.460E-06,-0.080
2.470E-06,-0.120
2.480E-06,-0.112
2.490E-06,-0.096
2.500E-06,-0.040
2.510E-06,0.016
2.520E-06,0.048
2.530E-06,0.064
2.540E-06,0.064
2.550E-06,0.056
2.560E-06,0.032
2.570E-06,-0.008
2.580E-06,-0.032
2.590E-06,-0.056
2.600E-06,-0.080
2.610E-06,-0.096
2.620E-06,-0.088
2.630E-06,-0.080
2.640E-06,-0.064
2.650E-06,-0.048
2.660E-06,0.000
2.670E-06,0.032
2.680E-06,0.056
2.690E-06,0.072
2.700E-06,0.032
2.710E-06,0.008
2.720E-06,-0.008
2.730E-06,-0.056
2.740E-06,-0.096
2.750E-06,-0.144
2.760E-06,-0.144
2.770E-06,-0.096
2.780E-06,-0.032
2.790E-06,0.056
2.800E-06,0.152
2.810E-06,0.256
2.820E-06,0.360
2.830E-06,0.424
2.840E-06,0.488
2.850E-06,0.480
2.860E-06,0.432
2.870E-06,0.368
2.880E-06,0.256
2.890E-06,0.152
2.900E-06,0.072
2.910E-06,0.024
2.920E-06,-0.024
2.930E-06,-0.080
2.940E-06,-0.096
2.950E-06,-0.112
2.960E-06,-0.064
2.970E-06,0.016
2.980E-06,0.128
2.990E-06,0.272
3.000E-06,0.416
3.010E-06,0.528
3.020E-06,0.624
3.030E-06,0.728
3.040E-06,0.768
3.050E-06,0.792
3.060E-06,0.752
3.070E-06,0.656
3.080E-06,0.528
3.090E-06,0.392
3.100E-06,0.264
3.110E-06,0.144
3.120E-06,0.032
3.130E-06,-0.072
3.140E-06,-0.160
3.150E-06,-0.256
3.160E-06,-0.296
3.170E-06,-0.312
3.180E-06,-0.344
3.190E-06,-0.368
3.200E-06,-0.384
3.210E-06,-0.368
3.220E-06,-0.344
3.230E-06,-0.320
3.240E-06,-0.264
3.250E-06,-0.224
3.260E-06,-0.152
3.270E-06,-0.096
3.280E-06,-0.056
3.290E-06,-0.048
3.300E-06,-0.064
3.310E-06,-0.104
3.320E-06,-0.144
3.330E-06,-0.176
3.340E-06,-0.192
3.350E-06,-0.168
3.360E-06,-0.136
3.370E-06,-0.064
3.380E-06,0.000
3.390E-06,0.128
3.400E-06,0.208
3.410E-06,0.280
3.420E-06,0.272
3.430E-06,0.256
3.440E-06,0.240
3.450E-06,0.272
3.460E-06,0.280
3.470E-06,0.208
3.480E-06,0.152
3.490E-06,0.136
3.500E-06,0.176
3.510E-06,0.232
3.520E-06,0.264
3.530E-06,0.240
3.540E-06,0.232
3.550E-06,0.208
3.560E-06,0.144
3.570E-06,0.096
3.580E-06,0.080
3.590E-06,0.096
