mediciones/6-26/33.7/WaveData59199.csv

#timebase=2000000(ps)
,#voltbase=200000(mv/100)
#size=4000
-8.150E-06,0.000
-8.140E-06,0.000
-8.130E-06,0.000
-8.120E-06,0.000
-8.110E-06,-0.008
-8.100E-06,0.000
-8.090E-06,-0.008
-8.080E-06,0.000
-8.070E-06,-0.008
-8.060E-06,-0.008
-8.050E-06,0.000
-8.040E-06,-0.008
-8.030E-06,-0.008
-8.020E-06,0.000
-8.010E-06,-0.008
-8.000E-06,0.000
-7.990E-06,0.000
-7.980E-06,0.000
-7.970E-06,-0.008
-7.960E-06,0.000
-7.950E-06,-0.008
-7.940E-06,0.000
-7.930E-06,0.000
-7.920E-06,0.000
-7.910E-06,0.000
-7.900E-06,0.000
-7.890E-06,0.000
-7.880E-06,0.000
-7.870E-06,-0.008
-7.860E-06,0.000
-7.850E-06,-0.008
-7.840E-06,-0.008
-7.830E-06,0.000
-7.820E-06,0.008
-7.810E-06,0.008
-7.800E-06,0.008
-7.790E-06,-0.008
-7.780E-06,-0.008
-7.770E-06,0.000
-7.760E-06,0.000
-7.750E-06,0.000
-7.740E-06,0.000
-7.730E-06,0.000
-7.720E-06,0.000
-7.710E-06,0.000
-7.700E-06,0.000
-7.690E-06,-0.008
-7.680E-06,0.000
-7.670E-06,-0.008
-7.660E-06,0.000
-7.650E-06,0.000
-7.640E-06,0.000
-7.630E-06,0.000
-7.620E-06,0.000
-7.610E-06,0.008
-7.600E-06,-0.008
-7.590E-06,0.000
-7.580E-06,0.000
-7.570E-06,0.000
-7.560E-06,-0.008
-7.550E-06,0.000
-7.540E-06,0.008
-7.530E-06,0.008
-7.520E-06,-0.008
-7.510E-06,-0.008
-7.500E-06,0.000
-7.490E-06,0.000
-7.480E-06,0.000
-7.470E-06,0.000
-7.460E-06,0.000
-7.450E-06,0.008
-7.440E-06,-0.008
-7.430E-06,0.000
-7.420E-06,0.000
-7.410E-06,0.000
-7.400E-06,0.000
-7.390E-06,0.000
-7.380E-06,0.000
-7.370E-06,0.000
-7.360E-06,0.000
-7.350E-06,0.000
-7.340E-06,0.000
-7.330E-06,0.000
-7.320E-06,0.000
-7.310E-06,0.000
-7.300E-06,0.000
-7.290E-06,0.000
-7.280E-06,-0.008
-7.270E-06,0.000
-7.260E-06,0.000
-7.250E-06,0.016
-7.240E-06,0.008
-7.230E-06,0.000
-7.220E-06,0.000
-7.210E-06,-0.008
-7.200E-06,-0.008
-7.190E-06,0.000
-7.180E-06,0.016
-7.170E-06,0.016
-7.160E-06,0.000
-7.150E-06,0.000
-7.140E-06,-0.008
-7.130E-06,-0.008
-7.120E-06,0.000
-7.110E-06,0.000
-7.100E-06,0.008
-7.090E-06,0.000
-7.080E-06,0.008
-7.070E-06,0.008
-7.060E-06,0.000
-7.050E-06,0.000
-7.040E-06,0.000
-7.030E-06,0.000
-7.020E-06,0.000
-7.010E-06,0.000
-7.000E-06,-0.008
-6.990E-06,0.000
-6.980E-06,-0.008
-6.970E-06,0.000
-6.960E-06,0.000
-6.950E-06,0.000
-6.940E-06,0.000
-6.930E-06,0.000
-6.920E-06,0.000
-6.910E-06,0.000
-6.900E-06,0.000
-6.890E-06,0.000
-6.880E-06,0.008
-6.870E-06,0.000
-6.860E-06,0.000
-6.850E-06,0.008
-6.840E-06,0.008
-6.830E-06,0.008
-6.820E-06,0.008
-6.810E-06,-0.008
-6.800E-06,-0.008
-6.790E-06,0.000
-6.780E-06,-0.008
-6.770E-06,0.000
-6.760E-06,-0.016
-6.750E-06,-0.024
-6.740E-06,0.000
-6.730E-06,0.000
-6.720E-06,0.000
-6.710E-06,0.000
-6.700E-06,-0.008
-6.690E-06,0.000
-6.680E-06,-0.008
-6.670E-06,0.000
-6.660E-06,0.000
-6.650E-06,0.008
-6.640E-06,0.008
-6.630E-06,0.016
-6.620E-06,0.016
-6.610E-06,0.016
-6.600E-06,0.000
-6.590E-06,0.008
-6.580E-06,0.000
-6.570E-06,0.000
-6.560E-06,-0.008
-6.550E-06,-0.008
-6.540E-06,0.000
-6.530E-06,-0.008
-6.520E-06,0.000
-6.510E-06,0.000
-6.500E-06,0.000
-6.490E-06,0.000
-6.480E-06,-0.008
-6.470E-06,0.000
-6.460E-06,-0.008
-6.450E-06,0.000
-6.440E-06,0.000
-6.430E-06,0.000
-6.420E-06,0.008
-6.410E-06,-0.008
-6.400E-06,-0.008
-6.390E-06,0.000
-6.380E-06,-0.008
-6.370E-06,0.000
-6.360E-06,0.000
-6.350E-06,0.000
-6.340E-06,0.000
-6.330E-06,-0.008
-6.320E-06,0.000
-6.310E-06,0.000
-6.300E-06,0.000
-6.290E-06,-0.008
-6.280E-06,0.000
-6.270E-06,-0.008
-6.260E-06,0.000
-6.250E-06,0.000
-6.240E-06,0.000
-6.230E-06,0.008
-6.220E-06,0.008
-6.210E-06,0.008
-6.200E-06,-0.008
-6.190E-06,-0.008
-6.180E-06,0.000
-6.170E-06,-0.008
-6.160E-06,0.000
-6.150E-06,0.008
-6.140E-06,-0.008
-6.130E-06,0.008
-6.120E-06,0.000
-6.110E-06,0.008
-6.100E-06,0.008
-6.090E-06,0.008
-6.080E-06,0.000
-6.070E-06,-0.008
-6.060E-06,0.000
-6.050E-06,0.000
-6.040E-06,0.000
-6.030E-06,0.000
-6.020E-06,0.008
-6.010E-06,0.008
-6.000E-06,0.000
-5.990E-06,0.000
-5.980E-06,0.000
-5.970E-06,-0.008
-5.960E-06,0.000
-5.950E-06,0.000
-5.940E-06,0.000
-5.930E-06,0.000
-5.920E-06,0.000
-5.910E-06,0.000
-5.900E-06,0.000
-5.890E-06,0.000
-5.880E-06,0.000
-5.870E-06,-0.008
-5.860E-06,0.000
-5.850E-06,0.000
-5.840E-06,0.000
-5.830E-06,0.000
-5.820E-06,0.008
-5.810E-06,-0.008
-5.800E-06,0.000
-5.790E-06,0.000
-5.780E-06,0.000
-5.770E-06,0.000
-5.760E-06,0.000
-5.750E-06,0.000
-5.740E-06,0.000
-5.730E-06,0.008
-5.720E-06,0.008
-5.710E-06,0.008
-5.700E-06,-0.008
-5.690E-06,0.000
-5.680E-06,0.000
-5.670E-06,0.000
-5.660E-06,0.000
-5.650E-06,0.000
-5.640E-06,-0.008
-5.630E-06,-0.008
-5.620E-06,0.000
-5.610E-06,0.008
-5.600E-06,0.008
-5.590E-06,0.008
-5.580E-06,0.008
-5.570E-06,-0.008
-5.560E-06,-0.008
-5.550E-06,0.000
-5.540E-06,-0.008
-5.530E-06,0.000
-5.520E-06,0.008
-5.510E-06,-0.008
-5.500E-06,-0.008
-5.490E-06,0.000
-5.480E-06,-0.008
-5.470E-06,0.000
-5.460E-06,-0.008
-5.450E-06,0.000
-5.440E-06,0.000
-5.430E-06,0.000
-5.420E-06,0.000
-5.410E-06,-0.008
-5.400E-06,-0.008
-5.390E-06,0.000
-5.380E-06,-0.008
-5.370E-06,-0.008
-5.360E-06,0.000
-5.350E-06,0.000
-5.340E-06,0.008
-5.330E-06,0.000
-5.320E-06,0.000
-5.310E-06,0.008
-5.300E-06,-0.008
-5.290E-06,-0.008
-5.280E-06,0.000
-5.270E-06,0.000
-5.260E-06,0.000
-5.250E-06,0.000
-5.240E-06,0.000
-5.230E-06,0.000
-5.220E-06,0.000
-5.210E-06,0.000
-5.200E-06,0.000
-5.190E-06,0.000
-5.180E-06,0.000
-5.170E-06,0.000
-5.160E-06,0.000
-5.150E-06,0.000
-5.140E-06,0.000
-5.130E-06,0.000
-5.120E-06,0.008
-5.110E-06,-0.008
-5.100E-06,0.000
-5.090E-06,0.000
-5.080E-06,0.000
-5.070E-06,0.000
-5.060E-06,0.008
-5.050E-06,0.008
-5.040E-06,0.008
-5.030E-06,0.008
-5.020E-06,-0.008
-5.010E-06,0.000
-5.000E-06,0.000
-4.990E-06,0.000
-4.980E-06,0.000
-4.970E-06,0.000
-4.960E-06,0.000
-4.950E-06,0.000
-4.940E-06,0.000
-4.930E-06,0.000
-4.920E-06,-0.008
-4.910E-06,-0.008
-4.900E-06,0.000
-4.890E-06,-0.008
-4.880E-06,-0.008
-4.870E-06,0.000
-4.860E-06,-0.008
-4.850E-06,0.000
-4.840E-06,0.000
-4.830E-06,0.000
-4.820E-06,0.000
-4.810E-06,0.008
-4.800E-06,0.008
-4.790E-06,-0.008
-4.780E-06,0.000
-4.770E-06,0.000
-4.760E-06,0.000
-4.750E-06,0.008
-4.740E-06,0.000
-4.730E-06,0.000
-4.720E-06,-0.008
-4.710E-06,0.000
-4.700E-06,0.000
-4.690E-06,0.000
-4.680E-06,0.000
-4.670E-06,-0.008
-4.660E-06,0.000
-4.650E-06,-0.008
-4.640E-06,0.000
-4.630E-06,0.008
-4.620E-06,0.008
-4.610E-06,0.008
-4.600E-06,-0.008
-4.590E-06,-0.008
-4.580E-06,0.000
-4.570E-06,-0.008
-4.560E-06,0.000
-4.550E-06,-0.008
-4.540E-06,0.000
-4.530E-06,-0.008
-4.520E-06,0.000
-4.510E-06,0.000
-4.500E-06,0.000
-4.490E-06,0.000
-4.480E-06,-0.008
-4.470E-06,0.000
-4.460E-06,0.000
-4.450E-06,0.000
-4.440E-06,0.000
-4.430E-06,0.000
-4.420E-06,0.000
-4.410E-06,0.000
-4.400E-06,0.000
-4.390E-06,0.000
-4.380E-06,0.008
-4.370E-06,-0.008
-4.360E-06,0.000
-4.350E-06,0.000
-4.340E-06,0.000
-4.330E-06,0.000
-4.320E-06,-0.008
-4.310E-06,0.000
-4.300E-06,-0.008
-4.290E-06,0.000
-4.280E-06,0.008
-4.270E-06,-0.008
-4.260E-06,0.000
-4.250E-06,0.000
-4.240E-06,0.000
-4.230E-06,0.000
-4.220E-06,0.000
-4.210E-06,0.000
-4.200E-06,-0.008
-4.190E-06,0.000
-4.180E-06,-0.008
-4.170E-06,0.000
-4.160E-06,-0.008
-4.150E-06,0.000
-4.140E-06,0.000
-4.130E-06,0.000
-4.120E-06,0.000
-4.110E-06,0.008
-4.100E-06,-0.008
-4.090E-06,0.000
-4.080E-06,0.000
-4.070E-06,0.000
-4.060E-06,0.000
-4.050E-06,0.000
-4.040E-06,0.000
-4.030E-06,0.000
-4.020E-06,0.000
-4.010E-06,0.008
-4.000E-06,0.008
-3.990E-06,-0.008
-3.980E-06,0.000
-3.970E-06,0.000
-3.960E-06,0.000
-3.950E-06,-0.008
-3.940E-06,-0.008
-3.930E-06,0.000
-3.920E-06,0.000
-3.910E-06,0.000
-3.900E-06,0.000
-3.890E-06,-0.008
-3.880E-06,0.000
-3.870E-06,-0.008
-3.860E-06,0.000
-3.850E-06,-0.008
-3.840E-06,0.000
-3.830E-06,0.000
-3.820E-06,0.000
-3.810E-06,-0.008
-3.800E-06,-0.008
-3.790E-06,0.000
-3.780E-06,-0.008
-3.770E-06,0.000
-3.760E-06,-0.008
-3.750E-06,-0.008
-3.740E-06,0.000
-3.730E-06,0.008
-3.720E-06,-0.008
-3.710E-06,0.000
-3.700E-06,0.000
-3.690E-06,0.000
-3.680E-06,0.000
-3.670E-06,0.008
-3.660E-06,0.008
-3.650E-06,0.008
-3.640E-06,-0.008
-3.630E-06,0.000
-3.620E-06,0.000
-3.610E-06,0.000
-3.600E-06,-0.008
-3.590E-06,0.000
-3.580E-06,0.000
-3.570E-06,0.000
-3.560E-06,0.000
-3.550E-06,0.000
-3.540E-06,0.000
-3.530E-06,0.008
-3.520E-06,0.008
-3.510E-06,0.008
-3.500E-06,-0.008
-3.490E-06,0.000
-3.480E-06,0.000
-3.470E-06,0.000
-3.460E-06,0.000
-3.450E-06,0.008
-3.440E-06,0.008
-3.430E-06,0.008
-3.420E-06,-0.008
-3.410E-06,-0.008
-3.400E-06,0.000
-3.390E-06,0.008
-3.380E-06,0.008
-3.370E-06,-0.008
-3.360E-06,0.000
-3.350E-06,0.000
-3.340E-06,0.000
-3.330E-06,0.000
-3.320E-06,0.000
-3.310E-06,0.008
-3.300E-06,-0.008
-3.290E-06,-0.008
-3.280E-06,0.000
-3.270E-06,-0.008
-3.260E-06,0.000
-3.250E-06,0.000
-3.240E-06,0.000
-3.230E-06,-0.008
-3.220E-06,0.000
-3.210E-06,-0.008
-3.200E-06,0.000
-3.190E-06,0.000
-3.180E-06,0.000
-3.170E-06,0.000
-3.160E-06,0.000
-3.150E-06,-0.008
-3.140E-06,0.000
-3.130E-06,-0.008
-3.120E-06,0.000
-3.110E-06,0.008
-3.100E-06,-0.008
-3.090E-06,0.000
-3.080E-06,0.000
-3.070E-06,0.008
-3.060E-06,0.008
-3.050E-06,-0.008
-3.040E-06,-0.008
-3.030E-06,0.000
-3.020E-06,0.008
-3.010E-06,0.008
-3.000E-06,-0.008
-2.990E-06,-0.008
-2.980E-06,0.000
-2.970E-06,-0.008
-2.960E-06,0.000
-2.950E-06,-0.008
-2.940E-06,0.000
-2.930E-06,-0.008
-2.920E-06,0.000
-2.910E-06,-0.016
-2.900E-06,-0.024
-2.890E-06,-0.008
-2.880E-06,0.096
-2.870E-06,0.512
-2.860E-06,1.088
-2.850E-06,1.088
-2.840E-06,1.080
-2.830E-06,1.080
-2.820E-06,1.080
-2.810E-06,0.608
-2.800E-06,-0.448
-2.790E-06,-1.032
-2.780E-06,-1.040
-2.770E-06,-1.040
-2.760E-06,-1.048
-2.750E-06,-1.040
-2.740E-06,-1.040
-2.730E-06,-1.048
-2.720E-06,-1.040
-2.710E-06,-1.032
-2.700E-06,-0.832
-2.690E-06,-0.376
-2.680E-06,-0.080
-2.670E-06,0.256
-2.660E-06,0.376
-2.650E-06,0.464
-2.640E-06,0.568
-2.630E-06,0.600
-2.620E-06,0.624
-2.610E-06,0.600
-2.600E-06,0.584
-2.590E-06,0.632
-2.580E-06,0.672
-2.570E-06,0.768
-2.560E-06,0.808
-2.550E-06,0.744
-2.540E-06,0.672
-2.530E-06,0.464
-2.520E-06,0.256
-2.510E-06,0.088
-2.500E-06,-0.112
-2.490E-06,-0.248
-2.480E-06,-0.296
-2.470E-06,-0.304
-2.460E-06,-0.232
-2.450E-06,-0.104
-2.440E-06,0.064
-2.430E-06,0.256
-2.420E-06,0.456
-2.410E-06,0.664
-2.400E-06,0.856
-2.390E-06,0.968
-2.380E-06,1.008
-2.370E-06,0.928
-2.360E-06,0.808
-2.350E-06,0.608
-2.340E-06,0.344
-2.330E-06,0.096
-2.320E-06,-0.160
-2.310E-06,-0.416
-2.300E-06,-0.664
-2.290E-06,-0.904
-2.280E-06,-1.032
-2.270E-06,-1.040
-2.260E-06,-1.040
-2.250E-06,-1.048
-2.240E-06,-1.040
-2.230E-06,-1.032
-2.220E-06,-1.040
-2.210E-06,-0.936
-2.200E-06,-0.648
-2.190E-06,-0.352
-2.180E-06,-0.056
-2.170E-06,0.224
-2.160E-06,0.464
-2.150E-06,0.640
-2.140E-06,0.768
-2.130E-06,0.800
-2.120E-06,0.776
-2.110E-06,0.704
-2.100E-06,0.600
-2.090E-06,0.472
-2.080E-06,0.352
-2.070E-06,0.232
-2.060E-06,0.128
-2.050E-06,0.064
-2.040E-06,0.008
-2.030E-06,-0.016
-2.020E-06,-0.040
-2.010E-06,-0.112
-2.000E-06,-0.176
-1.990E-06,-0.208
-1.980E-06,-0.208
-1.970E-06,-0.264
-1.960E-06,-0.200
-1.950E-06,-0.384
-1.940E-06,-0.400
-1.930E-06,-0.232
-1.920E-06,-0.256
-1.910E-06,0.088
-1.900E-06,0.336
-1.890E-06,0.288
-1.880E-06,0.464
-1.870E-06,0.368
-1.860E-06,0.400
-1.850E-06,0.416
-1.840E-06,0.376
-1.830E-06,0.400
-1.820E-06,0.280
-1.810E-06,0.160
-1.800E-06,0.040
-1.790E-06,-0.032
-1.780E-06,-0.120
-1.770E-06,-0.136
-1.760E-06,-0.160
-1.750E-06,-0.120
-1.740E-06,-0.104
-1.730E-06,-0.160
-1.720E-06,-0.280
-1.710E-06,-0.072
-1.700E-06,-0.256
-1.690E-06,-0.104
-1.680E-06,-0.160
-1.670E-06,-0.192
-1.660E-06,-0.112
-1.650E-06,0.016
-1.640E-06,0.072
-1.630E-06,0.168
-1.620E-06,-0.016
-1.610E-06,-0.112
-1.600E-06,-0.112
-1.590E-06,-0.072
-1.580E-06,0.048
-1.570E-06,0.128
-1.560E-06,0.176
-1.550E-06,0.128
-1.540E-06,0.088
-1.530E-06,0.040
-1.520E-06,-0.008
-1.510E-06,-0.088
-1.500E-06,0.152
-1.490E-06,-0.008
-1.480E-06,0.008
-1.470E-06,-0.088
-1.460E-06,-0.208
-1.450E-06,0.040
-1.440E-06,0.024
-1.430E-06,0.160
-1.420E-06,0.312
-1.410E-06,0.152
-1.400E-06,0.288
-1.390E-06,0.344
-1.380E-06,0.216
-1.370E-06,0.312
-1.360E-06,0.160
-1.350E-06,0.200
-1.340E-06,0.312
-1.330E-06,0.232
-1.320E-06,0.216
-1.310E-06,0.160
-1.300E-06,0.072
-1.290E-06,0.056
-1.280E-06,0.104
-1.270E-06,0.096
-1.260E-06,0.104
-1.250E-06,0.056
-1.240E-06,0.000
-1.230E-06,-0.024
-1.220E-06,-0.072
-1.210E-06,-0.072
-1.200E-06,-0.064
-1.190E-06,-0.112
-1.180E-06,-0.168
-1.170E-06,-0.216
-1.160E-06,-0.240
-1.150E-06,-0.288
-1.140E-06,-0.296
-1.130E-06,-0.288
-1.120E-06,-0.240
-1.110E-06,-0.208
-1.100E-06,-0.160
-1.090E-06,-0.096
-1.080E-06,-0.040
-1.070E-06,0.016
-1.060E-06,0.064
-1.050E-06,0.112
-1.040E-06,0.136
-1.030E-06,0.136
-1.020E-06,0.136
-1.010E-06,0.096
-1.000E-06,-0.032
-9.900E-07,-0.112
-9.800E-07,-0.184
-9.700E-07,-0.160
-9.600E-07,-0.048
-9.500E-07,0.080
-9.400E-07,0.200
-9.300E-07,0.256
-9.200E-07,0.256
-9.100E-07,0.248
-9.000E-07,0.240
-8.900E-07,0.264
-8.800E-07,0.296
-8.700E-07,0.352
-8.600E-07,0.368
-8.500E-07,0.360
-8.400E-07,0.336
-8.300E-07,0.304
-8.200E-07,0.296
-8.100E-07,0.288
-8.000E-07,0.264
-7.900E-07,0.224
-7.800E-07,0.200
-7.700E-07,0.208
-7.600E-07,0.216
-7.500E-07,0.240
-7.400E-07,0.280
-7.300E-07,0.304
-7.200E-07,0.408
-7.100E-07,0.296
-7.000E-07,0.224
-6.900E-07,0.104
-6.800E-07,-0.008
-6.700E-07,-0.032
-6.600E-07,0.080
-6.500E-07,0.200
-6.400E-07,0.256
-6.300E-07,0.136
-6.200E-07,0.008
-6.100E-07,-0.104
-6.000E-07,-0.008
-5.900E-07,0.352
-5.800E-07,0.088
-5.700E-07,0.248
-5.600E-07,0.176
-5.500E-07,0.136
-5.400E-07,0.368
-5.300E-07,0.416
-5.200E-07,0.432
-5.100E-07,0.320
-5.000E-07,0.104
-4.900E-07,0.144
-4.800E-07,0.352
-4.700E-07,0.448
-4.600E-07,0.592
-4.500E-07,0.552
-4.400E-07,0.392
-4.300E-07,0.296
-4.200E-07,0.224
-4.100E-07,0.200
-4.000E-07,0.224
-3.900E-07,0.176
-3.800E-07,0.088
-3.700E-07,-0.040
-3.600E-07,-0.176
-3.500E-07,-0.272
-3.400E-07,-0.304
-3.300E-07,-0.320
-3.200E-07,-0.368
-3.100E-07,-0.416
-3.000E-07,-0.464
-2.900E-07,-0.504
-2.800E-07,-0.552
-2.700E-07,-0.536
-2.600E-07,-0.504
-2.500E-07,-0.424
-2.400E-07,-0.376
-2.300E-07,-0.280
-2.200E-07,-0.256
-2.100E-07,-0.264
-2.000E-07,-0.336
-1.900E-07,-0.432
-1.800E-07,-0.416
-1.700E-07,-0.600
-1.600E-07,-0.336
-1.500E-07,-0.200
-1.400E-07,-0.008
-1.300E-07,0.240
-1.200E-07,0.400
-1.100E-07,0.616
-1.000E-07,0.768
-9.000E-08,0.768
-8.000E-08,0.656
-7.000E-08,0.704
-6.000E-08,0.824
-5.000E-08,0.696
-4.000E-08,1.080
-3.000E-08,-0.304
-2.000E-08,0.576
-1.000E-08,0.408
0.000E+00,0.448
1.000E-08,1.080
2.000E-08,1.080
3.000E-08,1.080
4.000E-08,1.072
5.000E-08,0.528
6.000E-08,0.472
7.000E-08,0.728
8.000E-08,0.248
9.000E-08,0.752
1.000E-07,0.744
1.100E-07,0.224
1.200E-07,-0.088
1.300E-07,-0.384
1.400E-07,-0.752
1.500E-07,-0.576
1.600E-07,-0.712
1.700E-07,-0.784
1.800E-07,-0.896
1.900E-07,-0.984
2.000E-07,-1.048
2.100E-07,-1.040
2.200E-07,-1.040
2.300E-07,-1.048
2.400E-07,-1.000
2.500E-07,-0.896
2.600E-07,-0.984
2.700E-07,-1.040
2.800E-07,-1.032
2.900E-07,-1.032
3.000E-07,-0.896
3.100E-07,-0.808
3.200E-07,-0.656
3.300E-07,-0.672
3.400E-07,-0.744
3.500E-07,-1.032
3.600E-07,-1.000
3.700E-07,-0.928
3.800E-07,-0.648
3.900E-07,-0.144
4.000E-07,0.296
4.100E-07,0.576
4.200E-07,0.592
4.300E-07,0.432
4.400E-07,0.744
4.500E-07,1.080
4.600E-07,1.072
4.700E-07,1.080
4.800E-07,0.792
4.900E-07,0.424
5.000E-07,0.504
5.100E-07,0.600
5.200E-07,0.936
5.300E-07,1.088
5.400E-07,1.080
5.500E-07,1.088
5.600E-07,1.088
5.700E-07,1.080
5.800E-07,1.088
5.900E-07,0.968
6.000E-07,0.800
6.100E-07,0.664
6.200E-07,0.648
6.300E-07,0.552
6.400E-07,0.464
6.500E-07,0.312
6.600E-07,0.064
6.700E-07,-0.184
6.800E-07,-0.400
6.900E-07,-0.568
7.000E-07,-0.640
7.100E-07,-0.704
7.200E-07,-0.792
7.300E-07,-0.864
7.400E-07,-0.904
7.500E-07,-0.920
7.600E-07,-0.920
7.700E-07,-0.952
7.800E-07,-0.952
7.900E-07,-0.952
8.000E-07,-0.968
8.100E-07,-0.928
8.200E-07,-0.904
8.300E-07,-0.768
8.400E-07,-0.632
8.500E-07,-0.464
8.600E-07,-0.248
8.700E-07,-0.104
8.800E-07,-0.064
8.900E-07,-0.160
9.000E-07,-0.264
9.100E-07,-0.328
9.200E-07,-0.224
9.300E-07,-0.016
9.400E-07,0.296
9.500E-07,0.520
9.600E-07,0.712
9.700E-07,0.824
9.800E-07,0.856
9.900E-07,0.928
1.000E-06,0.952
1.010E-06,0.896
1.020E-06,0.832
1.030E-06,0.808
1.040E-06,0.768
1.050E-06,0.784
1.060E-06,0.624
1.070E-06,0.536
1.080E-06,0.336
1.090E-06,0.200
1.100E-06,-0.232
1.110E-06,-0.024
1.120E-06,-0.856
1.130E-06,-1.040
1.140E-06,-0.680
1.150E-06,-0.784
1.160E-06,0.832
1.170E-06,1.080
1.180E-06,1.072
1.190E-06,1.080
1.200E-06,0.560
1.210E-06,0.392
1.220E-06,1.080
1.230E-06,1.072
1.240E-06,1.080
1.250E-06,1.080
1.260E-06,1.080
1.270E-06,1.072
1.280E-06,1.080
1.290E-06,1.080
1.300E-06,1.080
1.310E-06,0.280
1.320E-06,-0.496
1.330E-06,-1.048
1.340E-06,-1.048
1.350E-06,-1.032
1.360E-06,-1.040
1.370E-06,-1.048
1.380E-06,-1.040
1.390E-06,-1.048
1.400E-06,-1.048
1.410E-06,-1.048
1.420E-06,-1.032
1.430E-06,-1.032
1.440E-06,-1.040
1.450E-06,-1.040
1.460E-06,-1.048
1.470E-06,-1.040
1.480E-06,-1.048
1.490E-06,-1.032
1.500E-06,-1.032
1.510E-06,-1.008
1.520E-06,-0.872
1.530E-06,-0.736
1.540E-06,-0.656
1.550E-06,-0.576
1.560E-06,-0.512
1.570E-06,-0.416
1.580E-06,-0.344
1.590E-06,-0.200
1.600E-06,-0.024
1.610E-06,0.096
1.620E-06,0.240
1.630E-06,0.392
1.640E-06,0.456
1.650E-06,0.536
1.660E-06,0.512
1.670E-06,0.360
1.680E-06,0.208
1.690E-06,0.168
1.700E-06,0.208
1.710E-06,0.288
1.720E-06,0.488
1.730E-06,0.360
1.740E-06,0.280
1.750E-06,0.216
1.760E-06,0.032
1.770E-06,0.216
1.780E-06,0.368
1.790E-06,0.424
1.800E-06,0.536
1.810E-06,0.480
1.820E-06,0.424
1.830E-06,0.416
1.840E-06,0.440
1.850E-06,0.216
1.860E-06,0.144
1.870E-06,-0.040
1.880E-06,0.072
1.890E-06,0.368
1.900E-06,0.760
1.910E-06,1.080
1.920E-06,1.088
1.930E-06,1.080
1.940E-06,1.080
1.950E-06,1.064
1.960E-06,0.976
1.970E-06,0.848
1.980E-06,0.600
1.990E-06,0.312
2.000E-06,0.048
2.010E-06,-0.192
2.020E-06,-0.336
2.030E-06,-0.432
2.040E-06,-0.568
2.050E-06,-0.736
2.060E-06,-0.896
2.070E-06,-1.032
2.080E-06,-1.040
2.090E-06,-1.032
2.100E-06,-1.032
2.110E-06,-1.040
2.120E-06,-1.032
2.130E-06,-1.040
2.140E-06,-1.032
2.150E-06,-1.040
2.160E-06,-1.032
2.170E-06,-1.032
2.180E-06,-1.040
2.190E-06,-1.032
2.200E-06,0.064
2.210E-06,1.080
2.220E-06,1.088
2.230E-06,1.080
2.240E-06,1.072
2.250E-06,1.080
2.260E-06,1.088
2.270E-06,1.080
2.280E-06,1.072
2.290E-06,1.080
2.300E-06,1.080
2.310E-06,1.088
2.320E-06,1.080
2.330E-06,1.072
2.340E-06,0.968
2.350E-06,0.376
2.360E-06,-0.112
2.370E-06,-0.448
2.380E-06,-0.728
2.390E-06,-0.992
2.400E-06,-1.040
2.410E-06,-1.048
2.420E-06,-1.040
2.430E-06,-1.040
2.440E-06,-1.000
2.450E-06,-0.976
2.460E-06,-0.976
2.470E-06,-1.000
2.480E-06,-0.992
2.490E-06,-0.984
2.500E-06,-0.912
2.510E-06,-0.808
2.520E-06,-0.728
2.530E-06,-0.664
2.540E-06,-0.568
2.550E-06,-0.424
2.560E-06,-0.360
2.570E-06,-0.288
2.580E-06,-0.296
2.590E-06,-0.288
2.600E-06,-0.240
2.610E-06,-0.192
2.620E-06,-0.080
2.630E-06,0.064
2.640E-06,0.176
2.650E-06,0.232
2.660E-06,0.296
2.670E-06,0.312
2.680E-06,0.360
2.690E-06,0.408
2.700E-06,0.496
2.710E-06,0.704
2.720E-06,1.080
2.730E-06,1.080
2.740E-06,1.080
2.750E-06,1.072
2.760E-06,1.080
2.770E-06,1.080
2.780E-06,1.088
2.790E-06,1.088
2.800E-06,1.080
2.810E-06,1.088
2.820E-06,1.088
2.830E-06,1.080
2.840E-06,1.000
2.850E-06,0.784
2.860E-06,0.640
2.870E-06,0.560
2.880E-06,0.600
2.890E-06,0.616
2.900E-06,0.800
2.910E-06,1.008
2.920E-06,1.072
2.930E-06,1.080
2.940E-06,1.080
2.950E-06,1.080
2.960E-06,1.088
2.970E-06,1.080
2.980E-06,1.080
2.990E-06,0.888
3.000E-06,0.600
3.010E-06,0.320
3.020E-06,0.064
3.030E-06,-0.104
3.040E-06,-0.280
3.050E-06,-0.368
3.060E-06,-0.344
3.070E-06,-0.240
3.080E-06,-0.032
3.090E-06,0.208
3.100E-06,0.408
3.110E-06,0.520
3.120E-06,0.464
3.130E-06,0.248
3.140E-06,0.000
3.150E-06,-0.296
3.160E-06,-0.560
3.170E-06,-0.768
3.180E-06,-0.928
3.190E-06,-1.032
3.200E-06,-1.000
3.210E-06,-0.808
3.220E-06,-0.512
3.230E-06,-0.056
3.240E-06,0.464
3.250E-06,1.080
3.260E-06,1.088
3.270E-06,1.080
3.280E-06,1.088
3.290E-06,1.088
3.300E-06,1.080
3.310E-06,1.088
3.320E-06,1.088
3.330E-06,1.080
3.340E-06,1.080
3.350E-06,1.072
3.360E-06,0.600
3.370E-06,-0.120
3.380E-06,-0.712
3.390E-06,-1.032
3.400E-06,-1.040
3.410E-06,-1.040
3.420E-06,-1.040
3.430E-06,-1.040
3.440E-06,-0.744
3.450E-06,-0.296
3.460E-06,0.176
3.470E-06,0.608
3.480E-06,0.928
3.490E-06,1.080
3.500E-06,1.080
3.510E-06,1.080
3.520E-06,1.080
3.530E-06,0.904
