mediciones/6-26/33.7/WaveData59192.csv

#timebase=2000000(ps)
,#voltbase=200000(mv/100)
#size=4000
-8.150E-06,0.008
-8.140E-06,0.000
-8.130E-06,0.000
-8.120E-06,0.000
-8.110E-06,-0.008
-8.100E-06,0.008
-8.090E-06,0.008
-8.080E-06,0.008
-8.070E-06,0.008
-8.060E-06,-0.008
-8.050E-06,0.000
-8.040E-06,0.000
-8.030E-06,0.000
-8.020E-06,0.000
-8.010E-06,0.008
-8.000E-06,0.000
-7.990E-06,0.000
-7.980E-06,0.000
-7.970E-06,0.000
-7.960E-06,-0.008
-7.950E-06,0.000
-7.940E-06,0.008
-7.930E-06,0.000
-7.920E-06,0.000
-7.910E-06,0.008
-7.900E-06,0.000
-7.890E-06,0.000
-7.880E-06,0.008
-7.870E-06,0.000
-7.860E-06,0.008
-7.850E-06,0.016
-7.840E-06,0.008
-7.830E-06,0.000
-7.820E-06,0.000
-7.810E-06,0.000
-7.800E-06,0.000
-7.790E-06,-0.008
-7.780E-06,0.016
-7.770E-06,0.008
-7.760E-06,0.008
-7.750E-06,0.000
-7.740E-06,0.000
-7.730E-06,0.000
-7.720E-06,0.000
-7.710E-06,0.008
-7.700E-06,0.000
-7.690E-06,0.000
-7.680E-06,0.008
-7.670E-06,0.008
-7.660E-06,0.000
-7.650E-06,0.000
-7.640E-06,0.008
-7.630E-06,0.000
-7.620E-06,0.000
-7.610E-06,0.008
-7.600E-06,0.000
-7.590E-06,0.016
-7.580E-06,0.016
-7.570E-06,0.008
-7.560E-06,-0.008
-7.550E-06,0.000
-7.540E-06,0.016
-7.530E-06,0.008
-7.520E-06,0.000
-7.510E-06,0.008
-7.500E-06,0.008
-7.490E-06,0.000
-7.480E-06,-0.008
-7.470E-06,0.008
-7.460E-06,0.016
-7.450E-06,0.016
-7.440E-06,-0.008
-7.430E-06,-0.008
-7.420E-06,0.008
-7.410E-06,0.008
-7.400E-06,-0.008
-7.390E-06,-0.008
-7.380E-06,0.008
-7.370E-06,0.016
-7.360E-06,0.000
-7.350E-06,0.008
-7.340E-06,0.008
-7.330E-06,0.008
-7.320E-06,0.008
-7.310E-06,0.000
-7.300E-06,0.000
-7.290E-06,0.008
-7.280E-06,0.016
-7.270E-06,0.008
-7.260E-06,0.016
-7.250E-06,0.008
-7.240E-06,-0.008
-7.230E-06,0.000
-7.220E-06,0.000
-7.210E-06,0.008
-7.200E-06,0.016
-7.190E-06,0.016
-7.180E-06,0.000
-7.170E-06,-0.008
-7.160E-06,0.000
-7.150E-06,0.000
-7.140E-06,0.000
-7.130E-06,0.008
-7.120E-06,0.008
-7.110E-06,0.016
-7.100E-06,-0.008
-7.090E-06,-0.008
-7.080E-06,0.000
-7.070E-06,-0.008
-7.060E-06,0.008
-7.050E-06,0.008
-7.040E-06,0.008
-7.030E-06,0.000
-7.020E-06,0.000
-7.010E-06,0.000
-7.000E-06,0.000
-6.990E-06,0.000
-6.980E-06,-0.008
-6.970E-06,0.008
-6.960E-06,-0.008
-6.950E-06,-0.008
-6.940E-06,0.008
-6.930E-06,0.000
-6.920E-06,0.000
-6.910E-06,0.016
-6.900E-06,0.008
-6.890E-06,0.008
-6.880E-06,-0.008
-6.870E-06,0.000
-6.860E-06,0.008
-6.850E-06,-0.008
-6.840E-06,0.000
-6.830E-06,-0.008
-6.820E-06,0.016
-6.810E-06,0.016
-6.800E-06,0.000
-6.790E-06,0.000
-6.780E-06,0.000
-6.770E-06,0.000
-6.760E-06,0.000
-6.750E-06,0.000
-6.740E-06,0.008
-6.730E-06,0.008
-6.720E-06,0.000
-6.710E-06,0.008
-6.700E-06,0.008
-6.690E-06,0.000
-6.680E-06,0.008
-6.670E-06,0.000
-6.660E-06,0.008
-6.650E-06,0.000
-6.640E-06,0.000
-6.630E-06,0.000
-6.620E-06,0.008
-6.610E-06,0.008
-6.600E-06,0.008
-6.590E-06,0.000
-6.580E-06,0.000
-6.570E-06,0.008
-6.560E-06,0.000
-6.550E-06,0.008
-6.540E-06,0.008
-6.530E-06,0.008
-6.520E-06,0.000
-6.510E-06,0.000
-6.500E-06,0.000
-6.490E-06,0.008
-6.480E-06,0.008
-6.470E-06,0.008
-6.460E-06,0.000
-6.450E-06,-0.008
-6.440E-06,0.008
-6.430E-06,0.008
-6.420E-06,0.000
-6.410E-06,0.008
-6.400E-06,-0.008
-6.390E-06,0.008
-6.380E-06,0.008
-6.370E-06,0.008
-6.360E-06,0.008
-6.350E-06,0.008
-6.340E-06,0.008
-6.330E-06,0.000
-6.320E-06,0.000
-6.310E-06,0.000
-6.300E-06,0.008
-6.290E-06,-0.008
-6.280E-06,0.000
-6.270E-06,0.016
-6.260E-06,0.008
-6.250E-06,-0.008
-6.240E-06,0.000
-6.230E-06,0.008
-6.220E-06,0.008
-6.210E-06,0.008
-6.200E-06,0.000
-6.190E-06,0.008
-6.180E-06,0.008
-6.170E-06,0.008
-6.160E-06,0.008
-6.150E-06,0.000
-6.140E-06,0.000
-6.130E-06,0.000
-6.120E-06,0.008
-6.110E-06,-0.008
-6.100E-06,0.008
-6.090E-06,-0.008
-6.080E-06,0.008
-6.070E-06,0.008
-6.060E-06,0.008
-6.050E-06,0.000
-6.040E-06,0.008
-6.030E-06,0.000
-6.020E-06,0.008
-6.010E-06,0.008
-6.000E-06,0.000
-5.990E-06,0.000
-5.980E-06,0.000
-5.970E-06,0.008
-5.960E-06,0.000
-5.950E-06,0.000
-5.940E-06,0.008
-5.930E-06,-0.008
-5.920E-06,0.000
-5.910E-06,0.008
-5.900E-06,0.008
-5.890E-06,0.008
-5.880E-06,0.008
-5.870E-06,0.016
-5.860E-06,0.016
-5.850E-06,0.016
-5.840E-06,0.008
-5.830E-06,0.000
-5.820E-06,0.008
-5.810E-06,0.000
-5.800E-06,0.008
-5.790E-06,0.000
-5.780E-06,0.008
-5.770E-06,0.000
-5.760E-06,0.008
-5.750E-06,0.000
-5.740E-06,0.008
-5.730E-06,0.000
-5.720E-06,0.000
-5.710E-06,0.000
-5.700E-06,0.000
-5.690E-06,0.000
-5.680E-06,0.000
-5.670E-06,0.008
-5.660E-06,0.008
-5.650E-06,0.008
-5.640E-06,0.000
-5.630E-06,-0.008
-5.620E-06,0.008
-5.610E-06,0.008
-5.600E-06,0.000
-5.590E-06,0.008
-5.580E-06,0.016
-5.570E-06,0.008
-5.560E-06,0.000
-5.550E-06,0.008
-5.540E-06,0.000
-5.530E-06,0.000
-5.520E-06,0.000
-5.510E-06,0.008
-5.500E-06,0.000
-5.490E-06,0.000
-5.480E-06,0.008
-5.470E-06,0.000
-5.460E-06,0.016
-5.450E-06,0.000
-5.440E-06,-0.008
-5.430E-06,-0.008
-5.420E-06,0.016
-5.410E-06,0.016
-5.400E-06,0.016
-5.390E-06,-0.008
-5.380E-06,0.000
-5.370E-06,0.008
-5.360E-06,0.008
-5.350E-06,0.000
-5.340E-06,0.008
-5.330E-06,0.000
-5.320E-06,0.000
-5.310E-06,0.000
-5.300E-06,0.000
-5.290E-06,0.000
-5.280E-06,0.008
-5.270E-06,0.016
-5.260E-06,0.016
-5.250E-06,0.016
-5.240E-06,0.008
-5.230E-06,-0.008
-5.220E-06,-0.008
-5.210E-06,0.008
-5.200E-06,0.016
-5.190E-06,0.016
-5.180E-06,0.000
-5.170E-06,0.000
-5.160E-06,0.000
-5.150E-06,-0.008
-5.140E-06,0.008
-5.130E-06,0.000
-5.120E-06,0.000
-5.110E-06,0.008
-5.100E-06,0.000
-5.090E-06,0.008
-5.080E-06,-0.008
-5.070E-06,0.000
-5.060E-06,0.000
-5.050E-06,0.008
-5.040E-06,0.008
-5.030E-06,0.008
-5.020E-06,0.016
-5.010E-06,0.000
-5.000E-06,0.000
-4.990E-06,0.000
-4.980E-06,0.016
-4.970E-06,0.008
-4.960E-06,0.016
-4.950E-06,0.016
-4.940E-06,0.016
-4.930E-06,0.000
-4.920E-06,0.000
-4.910E-06,0.008
-4.900E-06,0.008
-4.890E-06,0.008
-4.880E-06,0.008
-4.870E-06,0.008
-4.860E-06,-0.008
-4.850E-06,-0.008
-4.840E-06,0.008
-4.830E-06,0.008
-4.820E-06,0.016
-4.810E-06,0.008
-4.800E-06,0.008
-4.790E-06,0.008
-4.780E-06,0.000
-4.770E-06,0.008
-4.760E-06,0.016
-4.750E-06,0.000
-4.740E-06,0.000
-4.730E-06,0.016
-4.720E-06,0.016
-4.710E-06,0.000
-4.700E-06,0.000
-4.690E-06,-0.008
-4.680E-06,0.000
-4.670E-06,0.008
-4.660E-06,0.008
-4.650E-06,0.016
-4.640E-06,0.016
-4.630E-06,0.008
-4.620E-06,0.008
-4.610E-06,-0.008
-4.600E-06,-0.008
-4.590E-06,0.000
-4.580E-06,0.008
-4.570E-06,-0.008
-4.560E-06,-0.024
-4.550E-06,-0.088
-4.540E-06,-0.072
-4.530E-06,0.080
-4.520E-06,0.040
-4.510E-06,0.080
-4.500E-06,0.048
-4.490E-06,0.000
-4.480E-06,-0.064
-4.470E-06,-0.056
-4.460E-06,-0.056
-4.450E-06,0.000
-4.440E-06,0.072
-4.430E-06,0.088
-4.420E-06,0.040
-4.410E-06,-0.008
-4.400E-06,-0.048
-4.390E-06,-0.056
-4.380E-06,0.000
-4.370E-06,0.008
-4.360E-06,0.064
-4.350E-06,0.040
-4.340E-06,0.048
-4.330E-06,0.008
-4.320E-06,-0.024
-4.310E-06,-0.024
-4.300E-06,-0.016
-4.290E-06,0.016
-4.280E-06,0.040
-4.270E-06,0.056
-4.260E-06,0.024
-4.250E-06,0.024
-4.240E-06,-0.008
-4.230E-06,-0.024
-4.220E-06,-0.024
-4.210E-06,-0.008
-4.200E-06,0.024
-4.190E-06,0.048
-4.180E-06,0.048
-4.170E-06,0.032
-4.160E-06,0.016
-4.150E-06,-0.008
-4.140E-06,-0.016
-4.130E-06,0.000
-4.120E-06,0.032
-4.110E-06,0.048
-4.100E-06,0.080
-4.090E-06,0.080
-4.080E-06,0.056
-4.070E-06,0.032
-4.060E-06,0.024
-4.050E-06,0.008
-4.040E-06,0.032
-4.030E-06,0.056
-4.020E-06,0.056
-4.010E-06,0.016
-4.000E-06,0.000
-3.990E-06,-0.008
-3.980E-06,0.008
-3.970E-06,0.032
-3.960E-06,0.032
-3.950E-06,0.032
-3.940E-06,0.024
-3.930E-06,0.000
-3.920E-06,0.016
-3.910E-06,0.048
-3.900E-06,-0.048
-3.890E-06,0.000
-3.880E-06,0.000
-3.870E-06,-0.064
-3.860E-06,-0.104
-3.850E-06,-0.312
-3.840E-06,-0.144
-3.830E-06,-0.040
-3.820E-06,0.104
-3.810E-06,0.120
-3.800E-06,0.096
-3.790E-06,-0.024
-3.780E-06,-0.088
-3.770E-06,-0.096
-3.760E-06,-0.056
-3.750E-06,0.032
-3.740E-06,0.088
-3.730E-06,0.120
-3.720E-06,0.056
-3.710E-06,-0.016
-3.700E-06,-0.072
-3.690E-06,-0.056
-3.680E-06,-0.016
-3.670E-06,0.024
-3.660E-06,0.048
-3.650E-06,0.040
-3.640E-06,0.048
-3.630E-06,0.016
-3.620E-06,-0.008
-3.610E-06,-0.048
-3.600E-06,0.000
-3.590E-06,-0.024
-3.580E-06,0.048
-3.570E-06,0.048
-3.560E-06,0.000
-3.550E-06,0.000
-3.540E-06,-0.008
-3.530E-06,0.000
-3.520E-06,0.000
-3.510E-06,0.024
-3.500E-06,0.048
-3.490E-06,0.040
-3.480E-06,0.016
-3.470E-06,-0.040
-3.460E-06,-0.064
-3.450E-06,-0.048
-3.440E-06,-0.008
-3.430E-06,0.064
-3.420E-06,0.088
-3.410E-06,0.048
-3.400E-06,0.024
-3.390E-06,-0.024
-3.380E-06,-0.048
-3.370E-06,-0.048
-3.360E-06,-0.016
-3.350E-06,0.032
-3.340E-06,0.088
-3.330E-06,0.080
-3.320E-06,0.056
-3.310E-06,0.048
-3.300E-06,0.016
-3.290E-06,0.032
-3.280E-06,0.048
-3.270E-06,0.024
-3.260E-06,0.000
-3.250E-06,-0.016
-3.240E-06,0.000
-3.230E-06,-0.040
-3.220E-06,-0.008
-3.210E-06,-0.008
-3.200E-06,-0.120
-3.190E-06,-0.144
-3.180E-06,-0.072
-3.170E-06,-0.128
-3.160E-06,-0.008
-3.150E-06,0.128
-3.140E-06,0.152
-3.130E-06,0.112
-3.120E-06,0.024
-3.110E-06,-0.080
-3.100E-06,-0.144
-3.090E-06,-0.080
-3.080E-06,-0.048
-3.070E-06,0.064
-3.060E-06,0.112
-3.050E-06,0.088
-3.040E-06,0.032
-3.030E-06,-0.040
-3.020E-06,-0.080
-3.010E-06,-0.080
-3.000E-06,-0.016
-2.990E-06,0.024
-2.980E-06,0.072
-2.970E-06,0.088
-2.960E-06,0.064
-2.950E-06,0.016
-2.940E-06,-0.016
-2.930E-06,-0.008
-2.920E-06,0.016
-2.910E-06,0.040
-2.900E-06,0.048
-2.890E-06,0.008
-2.880E-06,-0.216
-2.870E-06,-0.080
-2.860E-06,0.088
-2.850E-06,0.080
-2.840E-06,0.096
-2.830E-06,0.008
-2.820E-06,-0.008
-2.810E-06,-0.024
-2.800E-06,-0.072
-2.790E-06,-0.056
-2.780E-06,-0.032
-2.770E-06,0.048
-2.760E-06,0.104
-2.750E-06,0.104
-2.740E-06,0.000
-2.730E-06,-0.040
-2.720E-06,-0.040
-2.710E-06,-0.032
-2.700E-06,-0.008
-2.690E-06,0.016
-2.680E-06,0.032
-2.670E-06,0.040
-2.660E-06,0.048
-2.650E-06,0.024
-2.640E-06,-0.024
-2.630E-06,-0.048
-2.620E-06,-0.024
-2.610E-06,0.024
-2.600E-06,0.024
-2.590E-06,0.040
-2.580E-06,0.032
-2.570E-06,0.024
-2.560E-06,0.000
-2.550E-06,-0.016
-2.540E-06,-0.016
-2.530E-06,0.008
-2.520E-06,0.024
-2.510E-06,0.040
-2.500E-06,0.032
-2.490E-06,0.008
-2.480E-06,-0.008
-2.470E-06,-0.008
-2.460E-06,0.000
-2.450E-06,0.000
-2.440E-06,0.024
-2.430E-06,0.032
-2.420E-06,0.016
-2.410E-06,0.032
-2.400E-06,-0.040
-2.390E-06,-0.032
-2.380E-06,0.056
-2.370E-06,0.056
-2.360E-06,0.016
-2.350E-06,-0.016
-2.340E-06,-0.072
-2.330E-06,-0.072
-2.320E-06,-0.016
-2.310E-06,0.056
-2.300E-06,0.096
-2.290E-06,0.072
-2.280E-06,0.032
-2.270E-06,-0.024
-2.260E-06,-0.064
-2.250E-06,-0.040
-2.240E-06,0.000
-2.230E-06,0.040
-2.220E-06,0.040
-2.210E-06,0.048
-2.200E-06,0.000
-2.190E-06,-0.032
-2.180E-06,-0.040
-2.170E-06,-0.032
-2.160E-06,0.000
-2.150E-06,0.040
-2.140E-06,0.048
-2.130E-06,0.048
-2.120E-06,0.024
-2.110E-06,0.000
-2.100E-06,-0.024
-2.090E-06,-0.008
-2.080E-06,0.000
-2.070E-06,0.024
-2.060E-06,0.040
-2.050E-06,0.024
-2.040E-06,0.016
-2.030E-06,0.000
-2.020E-06,-0.016
-2.010E-06,-0.008
-2.000E-06,-0.008
-1.990E-06,0.016
-1.980E-06,0.016
-1.970E-06,0.024
-1.960E-06,0.024
-1.950E-06,0.016
-1.940E-06,-0.016
-1.930E-06,-0.024
-1.920E-06,0.000
-1.910E-06,0.040
-1.900E-06,0.072
-1.890E-06,0.088
-1.880E-06,0.088
-1.870E-06,0.008
-1.860E-06,-0.024
-1.850E-06,-0.064
-1.840E-06,-0.056
-1.830E-06,-0.024
-1.820E-06,-0.016
-1.810E-06,0.016
-1.800E-06,0.048
-1.790E-06,0.008
-1.780E-06,0.024
-1.770E-06,0.000
-1.760E-06,-0.016
-1.750E-06,-0.016
-1.740E-06,0.000
-1.730E-06,0.008
-1.720E-06,0.016
-1.710E-06,0.024
-1.700E-06,0.000
-1.690E-06,-0.016
-1.680E-06,-0.016
-1.670E-06,0.000
-1.660E-06,0.008
-1.650E-06,0.024
-1.640E-06,0.000
-1.630E-06,0.000
-1.620E-06,-0.008
-1.610E-06,-0.024
-1.600E-06,-0.016
-1.590E-06,0.000
-1.580E-06,0.016
-1.570E-06,0.024
-1.560E-06,0.008
-1.550E-06,0.016
-1.540E-06,0.000
-1.530E-06,-0.008
-1.520E-06,-0.008
-1.510E-06,0.008
-1.500E-06,0.024
-1.490E-06,0.016
-1.480E-06,0.024
-1.470E-06,0.016
-1.460E-06,-0.008
-1.450E-06,-0.008
-1.440E-06,0.000
-1.430E-06,0.000
-1.420E-06,0.000
-1.410E-06,0.024
-1.400E-06,0.024
-1.390E-06,0.016
-1.380E-06,0.008
-1.370E-06,-0.008
-1.360E-06,0.000
-1.350E-06,0.008
-1.340E-06,0.016
-1.330E-06,0.016
-1.320E-06,0.024
-1.310E-06,0.016
-1.300E-06,0.016
-1.290E-06,0.024
-1.280E-06,0.000
-1.270E-06,0.000
-1.260E-06,0.016
-1.250E-06,0.008
-1.240E-06,0.024
-1.230E-06,0.032
-1.220E-06,0.016
-1.210E-06,0.024
-1.200E-06,0.024
-1.190E-06,0.016
-1.180E-06,0.024
-1.170E-06,0.032
-1.160E-06,0.032
-1.150E-06,0.040
-1.140E-06,0.040
-1.130E-06,0.048
-1.120E-06,0.032
-1.110E-06,0.016
-1.100E-06,0.024
-1.090E-06,0.040
-1.080E-06,0.080
-1.070E-06,0.112
-1.060E-06,0.160
-1.050E-06,0.152
-1.040E-06,0.136
-1.030E-06,0.104
-1.020E-06,0.064
-1.010E-06,0.016
-1.000E-06,-0.008
-9.900E-07,-0.008
-9.800E-07,-0.040
-9.700E-07,0.016
-9.600E-07,0.072
-9.500E-07,0.088
-9.400E-07,0.096
-9.300E-07,-0.008
-9.200E-07,0.008
-9.100E-07,-0.024
-9.000E-07,0.000
-8.900E-07,-0.040
-8.800E-07,-0.056
-8.700E-07,-0.008
-8.600E-07,-0.144
-8.500E-07,0.000
-8.400E-07,-0.176
-8.300E-07,-0.168
-8.200E-07,-0.104
-8.100E-07,-0.032
-8.000E-07,0.096
-7.900E-07,0.080
-7.800E-07,0.096
-7.700E-07,-0.040
-7.600E-07,-0.040
-7.500E-07,-0.056
-7.400E-07,-0.056
-7.300E-07,0.000
-7.200E-07,0.056
-7.100E-07,0.120
-7.000E-07,0.112
-6.900E-07,0.048
-6.800E-07,-0.024
-6.700E-07,-0.080
-6.600E-07,-0.040
-6.500E-07,0.032
-6.400E-07,0.136
-6.300E-07,0.200
-6.200E-07,0.216
-6.100E-07,0.152
-6.000E-07,0.056
-5.900E-07,-0.016
-5.800E-07,-0.040
-5.700E-07,-0.016
-5.600E-07,0.008
-5.500E-07,0.072
-5.400E-07,0.096
-5.300E-07,0.088
-5.200E-07,0.024
-5.100E-07,-0.016
-5.000E-07,-0.024
-4.900E-07,-0.032
-4.800E-07,-0.016
-4.700E-07,0.040
-4.600E-07,0.120
-4.500E-07,0.152
-4.400E-07,0.120
-4.300E-07,0.064
-4.200E-07,0.000
-4.100E-07,0.008
-4.000E-07,0.040
-3.900E-07,0.088
-3.800E-07,0.136
-3.700E-07,0.184
-3.600E-07,0.184
-3.500E-07,0.120
-3.400E-07,0.080
-3.300E-07,0.064
-3.200E-07,0.064
-3.100E-07,0.144
-3.000E-07,0.176
-2.900E-07,0.216
-2.800E-07,0.152
-2.700E-07,0.144
-2.600E-07,0.088
-2.500E-07,0.088
-2.400E-07,0.104
-2.300E-07,0.152
-2.200E-07,0.152
-2.100E-07,0.168
-2.000E-07,0.216
-1.900E-07,0.128
-1.800E-07,0.104
-1.700E-07,0.056
-1.600E-07,0.136
-1.500E-07,0.184
-1.400E-07,0.192
-1.300E-07,0.248
-1.200E-07,0.160
-1.100E-07,0.128
-1.000E-07,0.064
-9.000E-08,0.056
-8.000E-08,0.080
-7.000E-08,0.080
-6.000E-08,0.008
-5.000E-08,-0.352
-4.000E-08,-1.024
-3.000E-08,-1.016
-2.000E-08,-0.864
-1.000E-08,-0.216
0.000E+00,0.432
1.000E-08,1.080
2.000E-08,1.088
3.000E-08,0.256
4.000E-08,-0.624
5.000E-08,-1.024
6.000E-08,-0.768
7.000E-08,-0.064
8.000E-08,0.592
9.000E-08,1.080
1.000E-07,1.088
1.100E-07,1.000
1.200E-07,-0.072
1.300E-07,-0.576
1.400E-07,-0.968
1.500E-07,-0.248
1.600E-07,0.392
1.700E-07,1.032
1.800E-07,1.080
1.900E-07,0.800
2.000E-07,0.224
2.100E-07,-0.280
2.200E-07,-0.400
2.300E-07,-0.328
2.400E-07,0.128
2.500E-07,0.520
2.600E-07,0.800
2.700E-07,0.696
2.800E-07,0.312
2.900E-07,-0.200
3.000E-07,-0.480
3.100E-07,-0.392
3.200E-07,-0.112
3.300E-07,0.344
3.400E-07,0.544
3.500E-07,0.624
3.600E-07,0.304
3.700E-07,-0.040
3.800E-07,-0.336
3.900E-07,-0.440
4.000E-07,-0.280
4.100E-07,0.056
4.200E-07,0.376
4.300E-07,0.624
4.400E-07,0.664
4.500E-07,0.432
4.600E-07,0.072
4.700E-07,-0.208
4.800E-07,-0.280
4.900E-07,-0.152
5.000E-07,0.144
5.100E-07,0.448
5.200E-07,0.632
5.300E-07,0.560
5.400E-07,0.376
5.500E-07,0.104
5.600E-07,-0.080
5.700E-07,-0.064
5.800E-07,0.120
5.900E-07,0.376
6.000E-07,0.520
6.100E-07,0.536
6.200E-07,0.384
6.300E-07,0.192
6.400E-07,0.024
6.500E-07,-0.016
6.600E-07,0.056
6.700E-07,0.240
6.800E-07,0.384
6.900E-07,0.408
7.000E-07,0.320
7.100E-07,0.176
7.200E-07,0.032
7.300E-07,-0.016
7.400E-07,0.032
7.500E-07,0.160
7.600E-07,0.352
7.700E-07,0.472
7.800E-07,0.400
7.900E-07,0.216
8.000E-07,0.056
8.100E-07,-0.064
8.200E-07,-0.032
8.300E-07,0.144
8.400E-07,0.304
8.500E-07,0.424
8.600E-07,0.392
8.700E-07,0.264
8.800E-07,0.080
8.900E-07,-0.064
9.000E-07,-0.056
9.100E-07,0.048
9.200E-07,0.216
9.300E-07,0.360
9.400E-07,0.416
9.500E-07,0.400
9.600E-07,0.288
9.700E-07,0.176
9.800E-07,0.120
9.900E-07,0.152
1.000E-06,0.264
1.010E-06,0.344
1.020E-06,0.392
1.030E-06,0.368
1.040E-06,0.288
1.050E-06,0.192
1.060E-06,0.144
1.070E-06,0.136
1.080E-06,0.200
1.090E-06,0.280
1.100E-06,0.352
1.110E-06,0.360
1.120E-06,0.320
1.130E-06,0.256
1.140E-06,0.200
1.150E-06,0.192
1.160E-06,0.216
1.170E-06,0.272
1.180E-06,0.320
1.190E-06,0.344
1.200E-06,0.328
1.210E-06,0.272
1.220E-06,0.224
1.230E-06,0.192
1.240E-06,0.192
1.250E-06,0.248
1.260E-06,0.280
1.270E-06,0.296
1.280E-06,0.296
1.290E-06,0.256
1.300E-06,0.224
1.310E-06,0.200
1.320E-06,0.200
1.330E-06,0.248
1.340E-06,0.288
1.350E-06,0.304
1.360E-06,0.312
1.370E-06,0.280
1.380E-06,0.256
1.390E-06,0.208
1.400E-06,0.216
1.410E-06,0.216
1.420E-06,0.256
1.430E-06,0.272
1.440E-06,0.272
1.450E-06,0.264
1.460E-06,0.248
1.470E-06,0.216
1.480E-06,0.216
1.490E-06,0.224
1.500E-06,0.256
1.510E-06,0.272
1.520E-06,0.288
1.530E-06,0.280
1.540E-06,0.248
1.550E-06,0.224
1.560E-06,0.208
1.570E-06,0.224
1.580E-06,0.240
1.590E-06,0.256
1.600E-06,0.264
1.610E-06,0.264
1.620E-06,0.248
1.630E-06,0.224
1.640E-06,0.208
1.650E-06,0.224
1.660E-06,0.240
1.670E-06,0.256
1.680E-06,0.264
1.690E-06,0.264
1.700E-06,0.256
1.710E-06,0.256
1.720E-06,0.216
1.730E-06,0.216
1.740E-06,0.240
1.750E-06,0.248
1.760E-06,0.264
1.770E-06,0.256
1.780E-06,0.248
1.790E-06,0.248
1.800E-06,0.232
1.810E-06,0.224
1.820E-06,0.224
1.830E-06,0.248
1.840E-06,0.240
1.850E-06,0.248
1.860E-06,0.240
1.870E-06,0.240
1.880E-06,0.248
1.890E-06,0.248
1.900E-06,0.240
1.910E-06,0.248
1.920E-06,0.248
1.930E-06,0.248
1.940E-06,0.248
1.950E-06,0.240
1.960E-06,0.232
1.970E-06,0.224
1.980E-06,0.224
1.990E-06,0.224
2.000E-06,0.224
2.010E-06,0.224
2.020E-06,0.232
2.030E-06,0.224
2.040E-06,0.224
2.050E-06,0.224
2.060E-06,0.232
2.070E-06,0.224
2.080E-06,0.232
2.090E-06,0.224
2.100E-06,0.216
2.110E-06,0.216
2.120E-06,0.232
2.130E-06,0.224
2.140E-06,0.232
2.150E-06,0.216
2.160E-06,0.216
2.170E-06,0.224
2.180E-06,0.216
2.190E-06,0.224
2.200E-06,0.224
2.210E-06,0.216
2.220E-06,0.216
2.230E-06,0.224
2.240E-06,0.224
2.250E-06,0.224
2.260E-06,0.216
2.270E-06,0.208
2.280E-06,0.208
2.290E-06,0.208
2.300E-06,0.208
2.310E-06,0.208
2.320E-06,0.216
2.330E-06,0.224
2.340E-06,0.224
2.350E-06,0.216
2.360E-06,0.224
2.370E-06,0.208
2.380E-06,0.208
2.390E-06,0.216
2.400E-06,0.216
2.410E-06,0.216
2.420E-06,0.208
2.430E-06,0.208
2.440E-06,0.216
2.450E-06,0.216
2.460E-06,0.200
2.470E-06,0.200
2.480E-06,0.208
2.490E-06,0.208
2.500E-06,0.200
2.510E-06,0.208
2.520E-06,0.208
2.530E-06,0.208
2.540E-06,0.200
2.550E-06,0.200
2.560E-06,0.208
2.570E-06,0.200
2.580E-06,0.208
2.590E-06,0.208
2.600E-06,0.208
2.610E-06,0.200
2.620E-06,0.208
2.630E-06,0.200
2.640E-06,0.200
2.650E-06,0.192
2.660E-06,0.192
2.670E-06,0.192
2.680E-06,0.200
2.690E-06,0.208
2.700E-06,0.208
2.710E-06,0.200
2.720E-06,0.200
2.730E-06,0.184
2.740E-06,0.192
2.750E-06,0.184
2.760E-06,0.192
2.770E-06,0.184
2.780E-06,0.192
2.790E-06,0.192
2.800E-06,0.184
2.810E-06,0.184
2.820E-06,0.192
2.830E-06,0.184
2.840E-06,0.200
2.850E-06,0.192
2.860E-06,0.184
2.870E-06,0.192
2.880E-06,0.192
2.890E-06,0.176
2.900E-06,0.184
2.910E-06,0.184
2.920E-06,0.184
2.930E-06,0.184
2.940E-06,0.184
2.950E-06,0.176
2.960E-06,0.184
2.970E-06,0.176
2.980E-06,0.184
2.990E-06,0.184
3.000E-06,0.184
3.010E-06,0.184
3.020E-06,0.184
3.030E-06,0.184
3.040E-06,0.176
3.050E-06,0.184
3.060E-06,0.168
3.070E-06,0.176
3.080E-06,0.168
3.090E-06,0.184
3.100E-06,0.176
3.110E-06,0.184
3.120E-06,0.176
3.130E-06,0.168
3.140E-06,0.176
3.150E-06,0.168
3.160E-06,0.176
3.170E-06,0.176
3.180E-06,0.176
3.190E-06,0.176
3.200E-06,0.176
3.210E-06,0.168
3.220E-06,0.176
3.230E-06,0.176
3.240E-06,0.168
3.250E-06,0.176
3.260E-06,0.168
3.270E-06,0.176
3.280E-06,0.176
3.290E-06,0.168
3.300E-06,0.160
3.310E-06,0.160
3.320E-06,0.152
3.330E-06,0.160
3.340E-06,0.168
3.350E-06,0.160
3.360E-06,0.152
3.370E-06,0.144
3.380E-06,0.152
3.390E-06,0.136
3.400E-06,0.144
3.410E-06,0.168
3.420E-06,0.176
3.430E-06,0.168
3.440E-06,0.176
3.450E-06,0.152
3.460E-06,0.144
3.470E-06,0.152
3.480E-06,0.144
3.490E-06,0.160
3.500E-06,0.152
3.510E-06,0.168
3.520E-06,0.160
3.530E-06,0.160
3.540E-06,0.144
3.550E-06,0.136
3.560E-06,0.144
3.570E-06,0.152
3.580E-06,0.144
3.590E-06,0.152
3.600E-06,0.152
3.610E-06,0.144
3.620E-06,0.144
3.630E-06,0.128
3.640E-06,0.144
3.650E-06,0.136
