mediciones/5-15/-64.25/WaveData47618.csv

#timebase=2000000(ps)
,#voltbase=100000(mv/100)
#size=4000
-8.400E-06,0.036
-8.390E-06,-0.004
-8.380E-06,-0.016
-8.370E-06,-0.044
-8.360E-06,-0.020
-8.350E-06,0.008
-8.340E-06,0.048
-8.330E-06,0.024
-8.320E-06,0.020
-8.310E-06,0.012
-8.300E-06,0.008
-8.290E-06,-0.004
-8.280E-06,-0.008
-8.270E-06,-0.008
-8.260E-06,-0.008
-8.250E-06,0.032
-8.240E-06,0.028
-8.230E-06,0.024
-8.220E-06,-0.004
-8.210E-06,-0.016
-8.200E-06,-0.040
-8.190E-06,-0.016
-8.180E-06,0.012
-8.170E-06,0.024
-8.160E-06,0.036
-8.150E-06,0.024
-8.140E-06,0.004
-8.130E-06,-0.040
-8.120E-06,-0.052
-8.110E-06,-0.048
-8.100E-06,0.012
-8.090E-06,0.056
-8.080E-06,0.052
-8.070E-06,0.020
-8.060E-06,0.000
-8.050E-06,-0.060
-8.040E-06,-0.092
-8.030E-06,-0.020
-8.020E-06,0.040
-8.010E-06,0.048
-8.000E-06,0.072
-7.990E-06,0.052
-7.980E-06,-0.032
-7.970E-06,-0.108
-7.960E-06,-0.088
-7.950E-06,-0.032
-7.940E-06,0.080
-7.930E-06,0.140
-7.920E-06,0.100
-7.910E-06,-0.012
-7.900E-06,-0.084
-7.890E-06,-0.112
-7.880E-06,-0.072
-7.870E-06,0.020
-7.860E-06,0.088
-7.850E-06,0.100
-7.840E-06,0.056
-7.830E-06,0.000
-7.820E-06,-0.052
-7.810E-06,-0.076
-7.800E-06,-0.044
-7.790E-06,0.008
-7.780E-06,0.060
-7.770E-06,0.072
-7.760E-06,0.052
-7.750E-06,0.008
-7.740E-06,-0.020
-7.730E-06,-0.060
-7.720E-06,-0.056
-7.710E-06,-0.032
-7.700E-06,0.024
-7.690E-06,0.068
-7.680E-06,0.068
-7.670E-06,0.036
-7.660E-06,-0.008
-7.650E-06,-0.040
-7.640E-06,-0.052
-7.630E-06,-0.036
-7.620E-06,0.008
-7.610E-06,0.052
-7.600E-06,0.056
-7.590E-06,0.044
-7.580E-06,-0.004
-7.570E-06,-0.024
-7.560E-06,-0.040
-7.550E-06,-0.016
-7.540E-06,0.020
-7.530E-06,0.044
-7.520E-06,0.060
-7.510E-06,0.040
-7.500E-06,0.004
-7.490E-06,-0.028
-7.480E-06,-0.032
-7.470E-06,-0.048
-7.460E-06,0.008
-7.450E-06,0.016
-7.440E-06,0.044
-7.430E-06,0.040
-7.420E-06,0.052
-7.410E-06,0.000
-7.400E-06,-0.044
-7.390E-06,-0.036
-7.380E-06,-0.008
-7.370E-06,0.020
-7.360E-06,0.036
-7.350E-06,0.052
-7.340E-06,0.032
-7.330E-06,-0.012
-7.320E-06,-0.020
-7.310E-06,-0.024
-7.300E-06,-0.028
-7.290E-06,-0.004
-7.280E-06,0.000
-7.270E-06,0.016
-7.260E-06,0.020
-7.250E-06,0.020
-7.240E-06,0.000
-7.230E-06,-0.028
-7.220E-06,-0.004
-7.210E-06,-0.004
-7.200E-06,0.028
-7.190E-06,0.028
-7.180E-06,0.028
-7.170E-06,-0.012
-7.160E-06,-0.020
-7.150E-06,-0.008
-7.140E-06,0.020
-7.130E-06,0.012
-7.120E-06,0.000
-7.110E-06,0.000
-7.100E-06,0.020
-7.090E-06,0.040
-7.080E-06,-0.008
-7.070E-06,-0.016
-7.060E-06,-0.020
-7.050E-06,-0.024
-7.040E-06,-0.024
-7.030E-06,0.032
-7.020E-06,0.064
-7.010E-06,0.012
-7.000E-06,-0.008
-6.990E-06,-0.024
-6.980E-06,-0.040
-6.970E-06,-0.004
-6.960E-06,0.012
-6.950E-06,0.012
-6.940E-06,0.020
-6.930E-06,0.016
-6.920E-06,0.000
-6.910E-06,-0.008
-6.900E-06,0.000
-6.890E-06,0.000
-6.880E-06,0.004
-6.870E-06,0.000
-6.860E-06,0.000
-6.850E-06,0.000
-6.840E-06,0.004
-6.830E-06,0.008
-6.820E-06,0.000
-6.810E-06,0.000
-6.800E-06,-0.008
-6.790E-06,-0.012
-6.780E-06,0.004
-6.770E-06,0.028
-6.760E-06,0.028
-6.750E-06,0.020
-6.740E-06,0.004
-6.730E-06,-0.008
-6.720E-06,-0.036
-6.710E-06,-0.024
-6.700E-06,0.004
-6.690E-06,0.016
-6.680E-06,0.024
-6.670E-06,0.020
-6.660E-06,0.012
-6.650E-06,-0.004
-6.640E-06,0.012
-6.630E-06,0.040
-6.620E-06,0.048
-6.610E-06,0.056
-6.600E-06,0.052
-6.590E-06,0.040
-6.580E-06,-0.028
-6.570E-06,-0.072
-6.560E-06,-0.096
-6.550E-06,-0.104
-6.540E-06,-0.012
-6.530E-06,0.044
-6.520E-06,0.072
-6.510E-06,0.072
-6.500E-06,0.052
-6.490E-06,-0.032
-6.480E-06,-0.104
-6.470E-06,-0.084
-6.460E-06,-0.008
-6.450E-06,0.080
-6.440E-06,0.108
-6.430E-06,0.068
-6.420E-06,-0.024
-6.410E-06,-0.076
-6.400E-06,-0.080
-6.390E-06,-0.016
-6.380E-06,0.032
-6.370E-06,0.060
-6.360E-06,0.056
-6.350E-06,0.028
-6.340E-06,-0.012
-6.330E-06,-0.040
-6.320E-06,-0.036
-6.310E-06,-0.012
-6.300E-06,0.020
-6.290E-06,0.048
-6.280E-06,0.048
-6.270E-06,0.020
-6.260E-06,0.000
-6.250E-06,-0.016
-6.240E-06,-0.020
-6.230E-06,-0.008
-6.220E-06,0.004
-6.210E-06,0.024
-6.200E-06,0.048
-6.190E-06,0.032
-6.180E-06,0.000
-6.170E-06,-0.036
-6.160E-06,-0.032
-6.150E-06,-0.012
-6.140E-06,0.016
-6.130E-06,0.020
-6.120E-06,0.028
-6.110E-06,0.012
-6.100E-06,-0.004
-6.090E-06,-0.020
-6.080E-06,0.000
-6.070E-06,-0.004
-6.060E-06,0.016
-6.050E-06,0.012
-6.040E-06,0.012
-6.030E-06,0.008
-6.020E-06,-0.004
-6.010E-06,-0.012
-6.000E-06,-0.008
-5.990E-06,0.000
-5.980E-06,0.020
-5.970E-06,0.020
-5.960E-06,0.024
-5.950E-06,0.012
-5.940E-06,0.000
-5.930E-06,0.000
-5.920E-06,-0.004
-5.910E-06,-0.020
-5.900E-06,-0.024
-5.890E-06,-0.012
-5.880E-06,0.020
-5.870E-06,0.028
-5.860E-06,0.008
-5.850E-06,-0.024
-5.840E-06,-0.036
-5.830E-06,-0.020
-5.820E-06,0.000
-5.810E-06,0.020
-5.800E-06,0.024
-5.790E-06,0.024
-5.780E-06,0.024
-5.770E-06,0.032
-5.760E-06,0.008
-5.750E-06,-0.004
-5.740E-06,-0.020
-5.730E-06,-0.004
-5.720E-06,0.064
-5.710E-06,0.072
-5.700E-06,0.024
-5.690E-06,-0.024
-5.680E-06,-0.036
-5.670E-06,-0.056
-5.660E-06,-0.036
-5.650E-06,0.020
-5.640E-06,0.068
-5.630E-06,0.068
-5.620E-06,0.048
-5.610E-06,0.016
-5.600E-06,-0.052
-5.590E-06,-0.076
-5.580E-06,-0.060
-5.570E-06,-0.068
-5.560E-06,-0.012
-5.550E-06,0.084
-5.540E-06,0.096
-5.530E-06,0.092
-5.520E-06,0.032
-5.510E-06,-0.080
-5.500E-06,-0.140
-5.490E-06,-0.120
-5.480E-06,-0.016
-5.470E-06,0.104
-5.460E-06,0.168
-5.450E-06,0.116
-5.440E-06,-0.024
-5.430E-06,-0.140
-5.420E-06,-0.148
-5.410E-06,-0.064
-5.400E-06,0.048
-5.390E-06,0.140
-5.380E-06,0.112
-5.370E-06,0.024
-5.360E-06,-0.044
-5.350E-06,-0.072
-5.340E-06,-0.072
-5.330E-06,-0.040
-5.320E-06,0.028
-5.310E-06,0.072
-5.300E-06,0.060
-5.290E-06,0.040
-5.280E-06,0.008
-5.270E-06,-0.032
-5.260E-06,-0.048
-5.250E-06,-0.040
-5.240E-06,0.000
-5.230E-06,0.004
-5.220E-06,0.028
-5.210E-06,0.076
-5.200E-06,0.056
-5.190E-06,-0.028
-5.180E-06,-0.072
-5.170E-06,-0.036
-5.160E-06,-0.008
-5.150E-06,0.028
-5.140E-06,0.044
-5.130E-06,0.052
-5.120E-06,0.020
-5.110E-06,-0.012
-5.100E-06,-0.028
-5.090E-06,-0.032
-5.080E-06,0.000
-5.070E-06,0.036
-5.060E-06,0.040
-5.050E-06,0.008
-5.040E-06,0.000
-5.030E-06,-0.028
-5.020E-06,-0.012
-5.010E-06,-0.004
-5.000E-06,-0.004
-4.990E-06,0.004
-4.980E-06,0.012
-4.970E-06,0.024
-4.960E-06,0.016
-4.950E-06,0.008
-4.940E-06,-0.008
-4.930E-06,-0.020
-4.920E-06,-0.028
-4.910E-06,-0.004
-4.900E-06,0.028
-4.890E-06,0.048
-4.880E-06,0.040
-4.870E-06,0.012
-4.860E-06,-0.016
-4.850E-06,-0.036
-4.840E-06,-0.024
-4.830E-06,0.000
-4.820E-06,0.028
-4.810E-06,0.044
-4.800E-06,0.040
-4.790E-06,0.012
-4.780E-06,-0.020
-4.770E-06,-0.036
-4.760E-06,-0.024
-4.750E-06,0.016
-4.740E-06,0.016
-4.730E-06,0.028
-4.720E-06,0.036
-4.710E-06,0.044
-4.700E-06,0.012
-4.690E-06,-0.024
-4.680E-06,-0.028
-4.670E-06,-0.020
-4.660E-06,0.004
-4.650E-06,0.028
-4.640E-06,0.036
-4.630E-06,0.028
-4.620E-06,0.000
-4.610E-06,-0.024
-4.600E-06,-0.040
-4.590E-06,-0.040
-4.580E-06,-0.012
-4.570E-06,0.008
-4.560E-06,0.032
-4.550E-06,0.032
-4.540E-06,0.028
-4.530E-06,0.008
-4.520E-06,-0.036
-4.510E-06,-0.048
-4.500E-06,-0.036
-4.490E-06,-0.004
-4.480E-06,0.032
-4.470E-06,0.060
-4.460E-06,0.056
-4.450E-06,0.024
-4.440E-06,-0.040
-4.430E-06,-0.060
-4.420E-06,-0.056
-4.410E-06,-0.020
-4.400E-06,0.048
-4.390E-06,0.076
-4.380E-06,0.048
-4.370E-06,-0.008
-4.360E-06,-0.040
-4.350E-06,-0.044
-4.340E-06,-0.016
-4.330E-06,0.016
-4.320E-06,0.040
-4.310E-06,0.028
-4.300E-06,0.008
-4.290E-06,-0.004
-4.280E-06,-0.004
-4.270E-06,-0.004
-4.260E-06,-0.004
-4.250E-06,-0.004
-4.240E-06,0.008
-4.230E-06,0.020
-4.220E-06,0.024
-4.210E-06,0.024
-4.200E-06,0.024
-4.190E-06,-0.008
-4.180E-06,-0.004
-4.170E-06,-0.040
-4.160E-06,-0.040
-4.150E-06,0.000
-4.140E-06,0.056
-4.130E-06,0.040
-4.120E-06,0.004
-4.110E-06,-0.020
-4.100E-06,-0.008
-4.090E-06,0.000
-4.080E-06,0.000
-4.070E-06,0.016
-4.060E-06,0.028
-4.050E-06,0.020
-4.040E-06,0.008
-4.030E-06,-0.008
-4.020E-06,-0.012
-4.010E-06,-0.008
-4.000E-06,0.004
-3.990E-06,0.016
-3.980E-06,0.004
-3.970E-06,0.004
-3.960E-06,0.000
-3.950E-06,0.012
-3.940E-06,0.004
-3.930E-06,-0.008
-3.920E-06,-0.004
-3.910E-06,0.024
-3.900E-06,0.020
-3.890E-06,0.012
-3.880E-06,0.016
-3.870E-06,0.008
-3.860E-06,-0.008
-3.850E-06,-0.012
-3.840E-06,0.008
-3.830E-06,0.020
-3.820E-06,0.016
-3.810E-06,-0.012
-3.800E-06,-0.032
-3.790E-06,-0.004
-3.780E-06,0.008
-3.770E-06,0.024
-3.760E-06,0.024
-3.750E-06,0.016
-3.740E-06,0.008
-3.730E-06,0.008
-3.720E-06,0.008
-3.710E-06,-0.008
-3.700E-06,-0.008
-3.690E-06,-0.020
-3.680E-06,-0.036
-3.670E-06,-0.020
-3.660E-06,0.036
-3.650E-06,0.044
-3.640E-06,0.028
-3.630E-06,0.008
-3.620E-06,-0.016
-3.610E-06,-0.064
-3.600E-06,-0.076
-3.590E-06,-0.012
-3.580E-06,0.080
-3.570E-06,0.108
-3.560E-06,0.056
-3.550E-06,-0.020
-3.540E-06,-0.076
-3.530E-06,-0.076
-3.520E-06,-0.024
-3.510E-06,0.048
-3.500E-06,0.076
-3.490E-06,0.060
-3.480E-06,0.008
-3.470E-06,-0.024
-3.460E-06,-0.040
-3.450E-06,-0.040
-3.440E-06,-0.004
-3.430E-06,0.020
-3.420E-06,0.044
-3.410E-06,0.044
-3.400E-06,0.016
-3.390E-06,-0.016
-3.380E-06,-0.048
-3.370E-06,-0.040
-3.360E-06,0.016
-3.350E-06,0.024
-3.340E-06,0.012
-3.330E-06,0.008
-3.320E-06,0.028
-3.310E-06,0.000
-3.300E-06,-0.032
-3.290E-06,-0.032
-3.280E-06,-0.012
-3.270E-06,0.012
-3.260E-06,0.024
-3.250E-06,0.036
-3.240E-06,0.024
-3.230E-06,0.000
-3.220E-06,-0.040
-3.210E-06,-0.024
-3.200E-06,-0.012
-3.190E-06,0.008
-3.180E-06,0.032
-3.170E-06,0.052
-3.160E-06,0.012
-3.150E-06,-0.004
-3.140E-06,-0.040
-3.130E-06,-0.024
-3.120E-06,-0.020
-3.110E-06,0.012
-3.100E-06,0.016
-3.090E-06,0.064
-3.080E-06,0.048
-3.070E-06,-0.016
-3.060E-06,-0.056
-3.050E-06,-0.040
-3.040E-06,-0.016
-3.030E-06,0.024
-3.020E-06,0.040
-3.010E-06,0.040
-3.000E-06,0.036
-2.990E-06,-0.004
-2.980E-06,-0.032
-2.970E-06,-0.056
-2.960E-06,-0.008
-2.950E-06,0.016
-2.940E-06,0.032
-2.930E-06,0.036
-2.920E-06,0.044
-2.910E-06,0.012
-2.900E-06,-0.024
-2.890E-06,-0.032
-2.880E-06,-0.016
-2.870E-06,0.000
-2.860E-06,0.016
-2.850E-06,0.040
-2.840E-06,0.028
-2.830E-06,0.024
-2.820E-06,0.000
-2.810E-06,-0.016
-2.800E-06,-0.024
-2.790E-06,-0.004
-2.780E-06,0.004
-2.770E-06,0.028
-2.760E-06,0.040
-2.750E-06,0.044
-2.740E-06,0.032
-2.730E-06,0.024
-2.720E-06,0.004
-2.710E-06,-0.008
-2.700E-06,-0.028
-2.690E-06,-0.036
-2.680E-06,-0.024
-2.670E-06,-0.004
-2.660E-06,0.028
-2.650E-06,0.048
-2.640E-06,0.044
-2.630E-06,0.024
-2.620E-06,-0.012
-2.610E-06,-0.028
-2.600E-06,-0.028
-2.590E-06,-0.008
-2.580E-06,0.012
-2.570E-06,0.032
-2.560E-06,0.028
-2.550E-06,0.012
-2.540E-06,0.000
-2.530E-06,-0.012
-2.520E-06,-0.012
-2.510E-06,-0.004
-2.500E-06,0.016
-2.490E-06,0.028
-2.480E-06,0.028
-2.470E-06,0.024
-2.460E-06,0.000
-2.450E-06,-0.020
-2.440E-06,-0.028
-2.430E-06,-0.004
-2.420E-06,0.024
-2.410E-06,0.044
-2.400E-06,0.048
-2.390E-06,0.040
-2.380E-06,0.012
-2.370E-06,-0.016
-2.360E-06,-0.008
-2.350E-06,-0.012
-2.340E-06,-0.008
-2.330E-06,0.012
-2.320E-06,0.040
-2.310E-06,0.056
-2.300E-06,0.060
-2.290E-06,0.040
-2.280E-06,0.008
-2.270E-06,-0.056
-2.260E-06,-0.176
-2.250E-06,-0.144
-2.240E-06,-0.068
-2.230E-06,0.076
-2.220E-06,0.148
-2.210E-06,0.160
-2.200E-06,0.064
-2.190E-06,-0.092
-2.180E-06,-0.172
-2.170E-06,-0.164
-2.160E-06,-0.040
-2.150E-06,0.092
-2.140E-06,0.180
-2.130E-06,0.140
-2.120E-06,0.040
-2.110E-06,-0.076
-2.100E-06,-0.136
-2.090E-06,-0.124
-2.080E-06,-0.028
-2.070E-06,0.076
-2.060E-06,0.132
-2.050E-06,0.128
-2.040E-06,0.048
-2.030E-06,-0.024
-2.020E-06,-0.104
-2.010E-06,-0.148
-2.000E-06,-0.072
-1.990E-06,0.012
-1.980E-06,0.076
-1.970E-06,0.140
-1.960E-06,0.120
-1.950E-06,0.032
-1.940E-06,-0.072
-1.930E-06,-0.108
-1.920E-06,-0.084
-1.910E-06,0.000
-1.900E-06,0.076
-1.890E-06,0.076
-1.880E-06,0.036
-1.870E-06,-0.032
-1.860E-06,-0.068
-1.850E-06,-0.072
-1.840E-06,-0.032
-1.830E-06,0.024
-1.820E-06,0.068
-1.810E-06,0.064
-1.800E-06,0.012
-1.790E-06,-0.036
-1.780E-06,-0.060
-1.770E-06,-0.036
-1.760E-06,0.012
-1.750E-06,0.036
-1.740E-06,0.028
-1.730E-06,0.012
-1.720E-06,-0.016
-1.710E-06,-0.016
-1.700E-06,0.000
-1.690E-06,-0.008
-1.680E-06,0.000
-1.670E-06,0.024
-1.660E-06,0.032
-1.650E-06,-0.004
-1.640E-06,-0.008
-1.630E-06,0.000
-1.620E-06,0.000
-1.610E-06,0.000
-1.600E-06,0.012
-1.590E-06,0.008
-1.580E-06,0.008
-1.570E-06,0.020
-1.560E-06,0.000
-1.550E-06,-0.012
-1.540E-06,-0.032
-1.530E-06,-0.012
-1.520E-06,0.020
-1.510E-06,0.040
-1.500E-06,0.016
-1.490E-06,-0.004
-1.480E-06,0.004
-1.470E-06,0.000
-1.460E-06,-0.004
-1.450E-06,0.008
-1.440E-06,0.028
-1.430E-06,0.040
-1.420E-06,0.032
-1.410E-06,0.012
-1.400E-06,-0.016
-1.390E-06,-0.032
-1.380E-06,-0.020
-1.370E-06,0.004
-1.360E-06,0.032
-1.350E-06,0.040
-1.340E-06,0.024
-1.330E-06,0.000
-1.320E-06,-0.024
-1.310E-06,-0.012
-1.300E-06,-0.008
-1.290E-06,0.004
-1.280E-06,0.020
-1.270E-06,0.024
-1.260E-06,0.028
-1.250E-06,0.028
-1.240E-06,0.008
-1.230E-06,-0.016
-1.220E-06,-0.024
-1.210E-06,-0.024
-1.200E-06,-0.004
-1.190E-06,0.020
-1.180E-06,0.028
-1.170E-06,0.024
-1.160E-06,0.004
-1.150E-06,-0.024
-1.140E-06,-0.032
-1.130E-06,-0.016
-1.120E-06,0.004
-1.110E-06,0.024
-1.100E-06,0.020
-1.090E-06,0.012
-1.080E-06,0.000
-1.070E-06,-0.020
-1.060E-06,-0.012
-1.050E-06,-0.028
-1.040E-06,-0.004
-1.030E-06,0.028
-1.020E-06,0.036
-1.010E-06,0.008
-1.000E-06,-0.008
-9.900E-07,-0.012
-9.800E-07,-0.016
-9.700E-07,-0.012
-9.600E-07,-0.008
-9.500E-07,0.020
-9.400E-07,0.012
-9.300E-07,0.024
-9.200E-07,0.012
-9.100E-07,0.004
-9.000E-07,-0.004
-8.900E-07,-0.008
-8.800E-07,0.004
-8.700E-07,0.008
-8.600E-07,0.020
-8.500E-07,0.024
-8.400E-07,0.024
-8.300E-07,0.012
-8.200E-07,0.008
-8.100E-07,0.004
-8.000E-07,0.000
-7.900E-07,0.004
-7.800E-07,0.000
-7.700E-07,0.000
-7.600E-07,0.008
-7.500E-07,0.044
-7.400E-07,0.068
-7.300E-07,0.052
-7.200E-07,0.012
-7.100E-07,-0.028
-7.000E-07,-0.044
-6.900E-07,-0.016
-6.800E-07,0.044
-6.700E-07,0.096
-6.600E-07,0.092
-6.500E-07,0.056
-6.400E-07,0.008
-6.300E-07,-0.084
-6.200E-07,-0.136
-6.100E-07,-0.100
-6.000E-07,-0.032
-5.900E-07,0.052
-5.800E-07,0.104
-5.700E-07,0.096
-5.600E-07,0.016
-5.500E-07,-0.060
-5.400E-07,-0.104
-5.300E-07,-0.088
-5.200E-07,-0.020
-5.100E-07,0.056
-5.000E-07,0.096
-4.900E-07,0.076
-4.800E-07,0.016
-4.700E-07,-0.044
-4.600E-07,-0.072
-4.500E-07,-0.068
-4.400E-07,-0.008
-4.300E-07,0.040
-4.200E-07,0.072
-4.100E-07,0.068
-4.000E-07,0.032
-3.900E-07,-0.012
-3.800E-07,-0.048
-3.700E-07,-0.052
-3.600E-07,-0.028
-3.500E-07,0.016
-3.400E-07,0.056
-3.300E-07,0.064
-3.200E-07,0.044
-3.100E-07,0.012
-3.000E-07,-0.020
-2.900E-07,-0.032
-2.800E-07,-0.012
-2.700E-07,0.020
-2.600E-07,0.056
-2.500E-07,0.068
-2.400E-07,0.056
-2.300E-07,0.028
-2.200E-07,0.008
-2.100E-07,-0.008
-2.000E-07,0.008
-1.900E-07,0.028
-1.800E-07,0.064
-1.700E-07,0.060
-1.600E-07,0.056
-1.500E-07,0.012
-1.400E-07,-0.056
-1.300E-07,-0.116
-1.200E-07,-0.112
-1.100E-07,-0.040
-1.000E-07,0.048
-9.000E-08,0.132
-8.000E-08,0.132
-7.000E-08,0.048
-6.000E-08,-0.144
-5.000E-08,-0.256
-4.000E-08,-0.252
-3.000E-08,-0.040
-2.000E-08,0.248
-1.000E-08,0.408
0.000E+00,0.340
1.000E-08,0.084
2.000E-08,-0.244
3.000E-08,-0.440
4.000E-08,-0.352
5.000E-08,-0.060
6.000E-08,0.276
7.000E-08,0.416
8.000E-08,0.296
9.000E-08,-0.076
1.000E-07,-0.352
1.100E-07,-0.464
1.200E-07,-0.340
1.300E-07,0.052
1.400E-07,0.428
1.500E-07,0.504
1.600E-07,0.200
1.700E-07,-0.132
1.800E-07,-0.388
1.900E-07,-0.440
2.000E-07,-0.176
2.100E-07,0.196
2.200E-07,0.388
2.300E-07,0.312
2.400E-07,0.112
2.500E-07,-0.136
2.600E-07,-0.252
2.700E-07,-0.200
2.800E-07,-0.044
2.900E-07,0.092
3.000E-07,0.136
3.100E-07,0.096
3.200E-07,0.036
3.300E-07,-0.016
3.400E-07,-0.064
3.500E-07,-0.064
3.600E-07,-0.048
3.700E-07,-0.008
3.800E-07,0.032
3.900E-07,0.088
4.000E-07,0.072
4.100E-07,0.016
4.200E-07,-0.044
4.300E-07,-0.076
4.400E-07,-0.076
4.500E-07,-0.028
4.600E-07,0.040
4.700E-07,0.076
4.800E-07,0.072
4.900E-07,0.016
5.000E-07,-0.024
5.100E-07,-0.048
5.200E-07,-0.028
5.300E-07,0.008
5.400E-07,0.052
5.500E-07,0.056
5.600E-07,0.040
5.700E-07,0.020
5.800E-07,0.004
5.900E-07,0.000
6.000E-07,0.004
6.100E-07,0.024
6.200E-07,0.036
6.300E-07,0.048
6.400E-07,0.040
6.500E-07,0.012
6.600E-07,-0.036
6.700E-07,-0.052
6.800E-07,-0.036
6.900E-07,0.000
7.000E-07,0.036
7.100E-07,0.044
7.200E-07,0.012
7.300E-07,-0.016
7.400E-07,-0.032
7.500E-07,-0.024
7.600E-07,0.000
7.700E-07,0.004
7.800E-07,0.000
7.900E-07,-0.004
8.000E-07,-0.004
8.100E-07,-0.004
8.200E-07,0.004
8.300E-07,-0.004
8.400E-07,0.000
8.500E-07,-0.008
8.600E-07,-0.008
8.700E-07,0.008
8.800E-07,0.008
8.900E-07,0.008
9.000E-07,0.012
9.100E-07,0.004
9.200E-07,-0.004
9.300E-07,0.008
9.400E-07,0.024
9.500E-07,0.032
9.600E-07,0.028
9.700E-07,0.008
9.800E-07,-0.008
9.900E-07,-0.024
1.000E-06,-0.008
1.010E-06,0.024
1.020E-06,0.056
1.030E-06,0.064
1.040E-06,0.056
1.050E-06,0.040
1.060E-06,0.024
1.070E-06,0.056
1.080E-06,0.072
1.090E-06,0.084
1.100E-06,0.060
1.110E-06,-0.004
1.120E-06,-0.108
1.130E-06,-0.144
1.140E-06,-0.136
1.150E-06,-0.036
1.160E-06,0.112
1.170E-06,0.176
1.180E-06,0.124
1.190E-06,0.008
1.200E-06,-0.088
1.210E-06,-0.160
1.220E-06,-0.120
1.230E-06,0.012
1.240E-06,0.144
1.250E-06,0.192
1.260E-06,0.156
1.270E-06,0.060
1.280E-06,-0.036
1.290E-06,-0.120
1.300E-06,-0.056
1.310E-06,-0.036
1.320E-06,0.044
1.330E-06,0.112
1.340E-06,-0.040
1.350E-06,-0.136
1.360E-06,-0.264
1.370E-06,-0.324
1.380E-06,-0.172
1.390E-06,0.136
1.400E-06,0.328
1.410E-06,0.276
1.420E-06,0.084
1.430E-06,-0.184
1.440E-06,-0.316
1.450E-06,-0.260
1.460E-06,-0.012
1.470E-06,0.200
1.480E-06,0.272
1.490E-06,0.148
1.500E-06,-0.028
1.510E-06,-0.172
1.520E-06,-0.180
1.530E-06,-0.076
1.540E-06,0.056
1.550E-06,0.136
1.560E-06,0.136
1.570E-06,0.080
1.580E-06,-0.008
1.590E-06,-0.080
1.600E-06,-0.108
1.610E-06,-0.072
1.620E-06,-0.008
1.630E-06,0.076
1.640E-06,0.112
1.650E-06,0.088
1.660E-06,0.016
1.670E-06,-0.068
1.680E-06,-0.104
1.690E-06,-0.080
1.700E-06,-0.004
1.710E-06,0.068
1.720E-06,0.104
1.730E-06,0.080
1.740E-06,0.020
1.750E-06,-0.044
1.760E-06,-0.076
1.770E-06,-0.060
1.780E-06,-0.004
1.790E-06,0.064
1.800E-06,0.096
1.810E-06,0.072
1.820E-06,0.016
1.830E-06,-0.036
1.840E-06,-0.064
1.850E-06,-0.040
1.860E-06,0.008
1.870E-06,0.064
1.880E-06,0.092
1.890E-06,0.076
1.900E-06,0.028
1.910E-06,-0.012
1.920E-06,-0.036
1.930E-06,-0.020
1.940E-06,0.016
1.950E-06,0.068
1.960E-06,0.100
1.970E-06,0.092
1.980E-06,0.052
1.990E-06,0.004
2.000E-06,-0.036
2.010E-06,-0.024
2.020E-06,-0.020
2.030E-06,-0.020
2.040E-06,-0.032
2.050E-06,-0.040
2.060E-06,-0.044
2.070E-06,0.008
2.080E-06,0.056
2.090E-06,0.088
2.100E-06,0.072
2.110E-06,0.012
2.120E-06,-0.028
2.130E-06,-0.004
2.140E-06,0.064
2.150E-06,0.120
2.160E-06,0.048
2.170E-06,-0.056
2.180E-06,-0.184
2.190E-06,-0.276
2.200E-06,-0.180
2.210E-06,0.036
2.220E-06,0.196
2.230E-06,0.212
2.240E-06,0.140
2.250E-06,-0.004
2.260E-06,-0.112
2.270E-06,-0.120
2.280E-06,-0.048
2.290E-06,0.088
2.300E-06,0.156
2.310E-06,0.128
2.320E-06,-0.068
2.330E-06,-0.252
2.340E-06,-0.280
2.350E-06,-0.168
2.360E-06,0.028
2.370E-06,0.236
2.380E-06,0.264
2.390E-06,0.068
2.400E-06,-0.168
2.410E-06,-0.268
2.420E-06,-0.204
2.430E-06,0.012
2.440E-06,0.224
2.450E-06,0.228
2.460E-06,0.080
2.470E-06,-0.088
2.480E-06,-0.152
2.490E-06,-0.116
2.500E-06,-0.004
2.510E-06,0.088
2.520E-06,0.104
2.530E-06,0.048
2.540E-06,-0.008
2.550E-06,-0.056
2.560E-06,-0.056
2.570E-06,-0.032
2.580E-06,0.008
2.590E-06,0.056
2.600E-06,0.056
2.610E-06,0.048
2.620E-06,0.012
2.630E-06,-0.024
2.640E-06,-0.048
2.650E-06,-0.036
2.660E-06,0.004
2.670E-06,0.052
2.680E-06,0.072
2.690E-06,0.048
2.700E-06,-0.004
2.710E-06,-0.052
2.720E-06,-0.060
2.730E-06,-0.016
2.740E-06,0.028
2.750E-06,0.080
2.760E-06,0.076
2.770E-06,0.048
2.780E-06,-0.004
2.790E-06,-0.036
2.800E-06,-0.028
2.810E-06,0.024
2.820E-06,0.084
2.830E-06,0.108
2.840E-06,0.072
2.850E-06,-0.012
2.860E-06,-0.072
2.870E-06,-0.056
2.880E-06,0.004
2.890E-06,0.100
2.900E-06,0.160
2.910E-06,0.124
2.920E-06,0.036
2.930E-06,-0.096
2.940E-06,-0.172
2.950E-06,-0.140
2.960E-06,-0.036
2.970E-06,0.036
2.980E-06,0.076
2.990E-06,0.040
3.000E-06,-0.032
3.010E-06,-0.060
3.020E-06,-0.044
3.030E-06,-0.024
3.040E-06,-0.004
3.050E-06,0.000
3.060E-06,-0.004
3.070E-06,-0.004
3.080E-06,0.000
3.090E-06,0.012
3.100E-06,0.012
3.110E-06,0.000
3.120E-06,-0.008
3.130E-06,-0.020
3.140E-06,-0.012
3.150E-06,0.008
3.160E-06,0.032
3.170E-06,0.040
3.180E-06,0.024
3.190E-06,0.004
3.200E-06,-0.020
3.210E-06,-0.028
