mediciones/5-15/-64.25/WaveData47625.csv

#timebase=2000000(ps)
,#voltbase=100000(mv/100)
#size=4000
-8.400E-06,0.000
-8.390E-06,0.004
-8.380E-06,0.004
-8.370E-06,0.000
-8.360E-06,0.004
-8.350E-06,0.004
-8.340E-06,0.004
-8.330E-06,0.004
-8.320E-06,-0.004
-8.310E-06,0.004
-8.300E-06,0.004
-8.290E-06,0.004
-8.280E-06,0.000
-8.270E-06,0.000
-8.260E-06,0.004
-8.250E-06,0.000
-8.240E-06,0.000
-8.230E-06,0.004
-8.220E-06,0.000
-8.210E-06,0.000
-8.200E-06,0.004
-8.190E-06,0.004
-8.180E-06,0.004
-8.170E-06,0.004
-8.160E-06,0.004
-8.150E-06,0.004
-8.140E-06,0.000
-8.130E-06,0.004
-8.120E-06,0.004
-8.110E-06,0.004
-8.100E-06,0.000
-8.090E-06,0.004
-8.080E-06,0.004
-8.070E-06,0.004
-8.060E-06,0.004
-8.050E-06,0.004
-8.040E-06,0.000
-8.030E-06,0.004
-8.020E-06,0.004
-8.010E-06,0.004
-8.000E-06,0.004
-7.990E-06,0.000
-7.980E-06,0.004
-7.970E-06,0.000
-7.960E-06,0.004
-7.950E-06,-0.004
-7.940E-06,0.000
-7.930E-06,0.004
-7.920E-06,-0.004
-7.910E-06,0.000
-7.900E-06,0.000
-7.890E-06,0.004
-7.880E-06,0.004
-7.870E-06,0.004
-7.860E-06,0.004
-7.850E-06,0.004
-7.840E-06,0.004
-7.830E-06,0.000
-7.820E-06,0.004
-7.810E-06,0.004
-7.800E-06,0.000
-7.790E-06,0.004
-7.780E-06,0.004
-7.770E-06,0.000
-7.760E-06,0.004
-7.750E-06,0.004
-7.740E-06,0.004
-7.730E-06,0.000
-7.720E-06,0.008
-7.710E-06,0.008
-7.700E-06,0.004
-7.690E-06,-0.004
-7.680E-06,0.000
-7.670E-06,0.004
-7.660E-06,0.004
-7.650E-06,0.004
-7.640E-06,0.004
-7.630E-06,0.008
-7.620E-06,0.008
-7.610E-06,0.008
-7.600E-06,0.008
-7.590E-06,0.004
-7.580E-06,0.004
-7.570E-06,0.008
-7.560E-06,0.000
-7.550E-06,0.000
-7.540E-06,0.004
-7.530E-06,0.000
-7.520E-06,0.004
-7.510E-06,0.000
-7.500E-06,0.004
-7.490E-06,-0.004
-7.480E-06,0.004
-7.470E-06,0.004
-7.460E-06,0.000
-7.450E-06,0.004
-7.440E-06,0.004
-7.430E-06,0.004
-7.420E-06,0.004
-7.410E-06,0.004
-7.400E-06,0.004
-7.390E-06,0.000
-7.380E-06,0.004
-7.370E-06,0.004
-7.360E-06,0.008
-7.350E-06,0.004
-7.340E-06,0.000
-7.330E-06,0.004
-7.320E-06,0.004
-7.310E-06,0.004
-7.300E-06,0.000
-7.290E-06,0.000
-7.280E-06,0.004
-7.270E-06,0.004
-7.260E-06,0.004
-7.250E-06,0.008
-7.240E-06,0.008
-7.230E-06,0.008
-7.220E-06,0.008
-7.210E-06,0.008
-7.200E-06,0.008
-7.190E-06,0.000
-7.180E-06,0.000
-7.170E-06,0.004
-7.160E-06,0.004
-7.150E-06,0.004
-7.140E-06,0.004
-7.130E-06,0.000
-7.120E-06,0.004
-7.110E-06,0.000
-7.100E-06,0.004
-7.090E-06,0.004
-7.080E-06,0.004
-7.070E-06,0.004
-7.060E-06,0.004
-7.050E-06,0.000
-7.040E-06,0.004
-7.030E-06,0.004
-7.020E-06,0.000
-7.010E-06,0.004
-7.000E-06,0.000
-6.990E-06,0.004
-6.980E-06,0.008
-6.970E-06,0.000
-6.960E-06,0.000
-6.950E-06,0.004
-6.940E-06,0.008
-6.930E-06,0.008
-6.920E-06,0.004
-6.910E-06,0.000
-6.900E-06,0.000
-6.890E-06,0.000
-6.880E-06,-0.004
-6.870E-06,0.004
-6.860E-06,-0.004
-6.850E-06,0.004
-6.840E-06,0.008
-6.830E-06,0.008
-6.820E-06,0.000
-6.810E-06,-0.004
-6.800E-06,0.004
-6.790E-06,-0.004
-6.780E-06,0.000
-6.770E-06,0.004
-6.760E-06,0.004
-6.750E-06,0.004
-6.740E-06,0.000
-6.730E-06,0.004
-6.720E-06,0.000
-6.710E-06,0.004
-6.700E-06,0.000
-6.690E-06,0.004
-6.680E-06,0.004
-6.670E-06,0.000
-6.660E-06,0.004
-6.650E-06,-0.004
-6.640E-06,0.000
-6.630E-06,0.004
-6.620E-06,0.000
-6.610E-06,0.004
-6.600E-06,0.000
-6.590E-06,0.004
-6.580E-06,0.000
-6.570E-06,0.004
-6.560E-06,0.000
-6.550E-06,0.004
-6.540E-06,0.000
-6.530E-06,0.000
-6.520E-06,0.000
-6.510E-06,0.000
-6.500E-06,0.004
-6.490E-06,0.000
-6.480E-06,0.000
-6.470E-06,0.004
-6.460E-06,0.004
-6.450E-06,-0.004
-6.440E-06,0.004
-6.430E-06,0.004
-6.420E-06,0.004
-6.410E-06,0.004
-6.400E-06,0.004
-6.390E-06,0.004
-6.380E-06,0.004
-6.370E-06,0.004
-6.360E-06,0.004
-6.350E-06,0.004
-6.340E-06,0.004
-6.330E-06,-0.004
-6.320E-06,-0.004
-6.310E-06,0.004
-6.300E-06,0.000
-6.290E-06,0.004
-6.280E-06,0.008
-6.270E-06,0.008
-6.260E-06,0.004
-6.250E-06,0.004
-6.240E-06,0.000
-6.230E-06,-0.004
-6.220E-06,0.004
-6.210E-06,0.000
-6.200E-06,0.004
-6.190E-06,0.008
-6.180E-06,0.004
-6.170E-06,-0.004
-6.160E-06,0.004
-6.150E-06,0.004
-6.140E-06,0.000
-6.130E-06,-0.004
-6.120E-06,0.004
-6.110E-06,0.004
-6.100E-06,0.004
-6.090E-06,0.000
-6.080E-06,-0.004
-6.070E-06,0.004
-6.060E-06,0.004
-6.050E-06,0.004
-6.040E-06,0.004
-6.030E-06,0.004
-6.020E-06,0.004
-6.010E-06,0.008
-6.000E-06,0.008
-5.990E-06,0.008
-5.980E-06,0.008
-5.970E-06,0.000
-5.960E-06,0.004
-5.950E-06,0.004
-5.940E-06,0.004
-5.930E-06,0.004
-5.920E-06,0.004
-5.910E-06,0.000
-5.900E-06,0.000
-5.890E-06,0.000
-5.880E-06,0.004
-5.870E-06,0.004
-5.860E-06,0.004
-5.850E-06,0.004
-5.840E-06,0.008
-5.830E-06,0.008
-5.820E-06,0.000
-5.810E-06,0.000
-5.800E-06,0.000
-5.790E-06,0.000
-5.780E-06,-0.004
-5.770E-06,0.004
-5.760E-06,-0.004
-5.750E-06,0.004
-5.740E-06,0.004
-5.730E-06,0.004
-5.720E-06,0.004
-5.710E-06,0.004
-5.700E-06,0.004
-5.690E-06,0.004
-5.680E-06,0.000
-5.670E-06,0.004
-5.660E-06,0.004
-5.650E-06,0.004
-5.640E-06,0.000
-5.630E-06,-0.004
-5.620E-06,0.004
-5.610E-06,0.000
-5.600E-06,0.004
-5.590E-06,0.004
-5.580E-06,0.000
-5.570E-06,0.004
-5.560E-06,0.004
-5.550E-06,0.004
-5.540E-06,0.004
-5.530E-06,0.004
-5.520E-06,0.000
-5.510E-06,0.004
-5.500E-06,0.008
-5.490E-06,0.008
-5.480E-06,0.000
-5.470E-06,0.000
-5.460E-06,0.004
-5.450E-06,0.004
-5.440E-06,0.000
-5.430E-06,0.004
-5.420E-06,0.004
-5.410E-06,0.004
-5.400E-06,0.004
-5.390E-06,0.004
-5.380E-06,0.004
-5.370E-06,0.004
-5.360E-06,0.004
-5.350E-06,0.004
-5.340E-06,0.004
-5.330E-06,0.004
-5.320E-06,0.000
-5.310E-06,0.004
-5.300E-06,0.004
-5.290E-06,0.004
-5.280E-06,-0.004
-5.270E-06,0.004
-5.260E-06,0.004
-5.250E-06,0.004
-5.240E-06,0.004
-5.230E-06,0.000
-5.220E-06,0.004
-5.210E-06,0.000
-5.200E-06,-0.004
-5.190E-06,0.000
-5.180E-06,0.000
-5.170E-06,0.004
-5.160E-06,0.004
-5.150E-06,0.008
-5.140E-06,-0.004
-5.130E-06,0.004
-5.120E-06,0.004
-5.110E-06,0.004
-5.100E-06,0.000
-5.090E-06,0.004
-5.080E-06,0.000
-5.070E-06,0.004
-5.060E-06,0.008
-5.050E-06,0.008
-5.040E-06,0.008
-5.030E-06,0.000
-5.020E-06,0.004
-5.010E-06,0.004
-5.000E-06,0.000
-4.990E-06,0.004
-4.980E-06,0.004
-4.970E-06,0.004
-4.960E-06,0.000
-4.950E-06,0.004
-4.940E-06,0.004
-4.930E-06,0.004
-4.920E-06,0.008
-4.910E-06,0.008
-4.900E-06,0.004
-4.890E-06,0.008
-4.880E-06,0.000
-4.870E-06,0.000
-4.860E-06,0.004
-4.850E-06,0.000
-4.840E-06,0.004
-4.830E-06,0.008
-4.820E-06,0.000
-4.810E-06,0.000
-4.800E-06,0.004
-4.790E-06,-0.004
-4.780E-06,0.004
-4.770E-06,0.004
-4.760E-06,0.004
-4.750E-06,0.004
-4.740E-06,0.004
-4.730E-06,0.004
-4.720E-06,0.000
-4.710E-06,0.000
-4.700E-06,0.004
-4.690E-06,0.008
-4.680E-06,-0.004
-4.670E-06,0.000
-4.660E-06,0.004
-4.650E-06,0.000
-4.640E-06,0.004
-4.630E-06,0.000
-4.620E-06,0.004
-4.610E-06,0.004
-4.600E-06,0.000
-4.590E-06,0.000
-4.580E-06,-0.004
-4.570E-06,0.004
-4.560E-06,0.008
-4.550E-06,0.000
-4.540E-06,0.000
-4.530E-06,0.004
-4.520E-06,-0.004
-4.510E-06,0.004
-4.500E-06,-0.004
-4.490E-06,-0.004
-4.480E-06,0.004
-4.470E-06,0.000
-4.460E-06,0.000
-4.450E-06,0.000
-4.440E-06,0.000
-4.430E-06,0.004
-4.420E-06,-0.004
-4.410E-06,0.000
-4.400E-06,0.004
-4.390E-06,0.008
-4.380E-06,0.000
-4.370E-06,0.004
-4.360E-06,0.000
-4.350E-06,0.004
-4.340E-06,0.004
-4.330E-06,0.004
-4.320E-06,0.008
-4.310E-06,0.004
-4.300E-06,0.000
-4.290E-06,0.004
-4.280E-06,0.004
-4.270E-06,0.004
-4.260E-06,-0.004
-4.250E-06,0.004
-4.240E-06,0.004
-4.230E-06,0.000
-4.220E-06,0.000
-4.210E-06,0.000
-4.200E-06,-0.004
-4.190E-06,0.004
-4.180E-06,0.000
-4.170E-06,0.004
-4.160E-06,0.000
-4.150E-06,0.004
-4.140E-06,0.004
-4.130E-06,0.004
-4.120E-06,0.004
-4.110E-06,0.004
-4.100E-06,0.004
-4.090E-06,0.000
-4.080E-06,0.004
-4.070E-06,0.004
-4.060E-06,0.004
-4.050E-06,0.004
-4.040E-06,0.004
-4.030E-06,0.004
-4.020E-06,0.008
-4.010E-06,0.020
-4.000E-06,0.076
-3.990E-06,0.120
-3.980E-06,0.120
-3.970E-06,0.028
-3.960E-06,-0.104
-3.950E-06,-0.236
-3.940E-06,-0.224
-3.930E-06,-0.072
-3.920E-06,0.140
-3.910E-06,0.288
-3.900E-06,0.260
-3.890E-06,0.080
-3.880E-06,-0.144
-3.870E-06,-0.268
-3.860E-06,-0.204
-3.850E-06,-0.032
-3.840E-06,0.152
-3.830E-06,0.244
-3.820E-06,0.176
-3.810E-06,0.044
-3.800E-06,-0.096
-3.790E-06,-0.176
-3.780E-06,-0.160
-3.770E-06,-0.072
-3.760E-06,0.024
-3.750E-06,0.112
-3.740E-06,0.144
-3.730E-06,0.132
-3.720E-06,0.056
-3.710E-06,-0.052
-3.700E-06,-0.124
-3.690E-06,-0.140
-3.680E-06,-0.084
-3.670E-06,0.036
-3.660E-06,0.132
-3.650E-06,0.168
-3.640E-06,0.092
-3.630E-06,-0.036
-3.620E-06,-0.140
-3.610E-06,-0.172
-3.600E-06,-0.116
-3.590E-06,0.000
-3.580E-06,0.108
-3.570E-06,0.152
-3.560E-06,0.112
-3.550E-06,0.028
-3.540E-06,-0.060
-3.530E-06,-0.100
-3.520E-06,-0.072
-3.510E-06,-0.012
-3.500E-06,0.040
-3.490E-06,0.084
-3.480E-06,0.088
-3.470E-06,0.036
-3.460E-06,-0.020
-3.450E-06,-0.064
-3.440E-06,-0.072
-3.430E-06,-0.056
-3.420E-06,0.000
-3.410E-06,0.056
-3.400E-06,0.080
-3.390E-06,0.072
-3.380E-06,0.028
-3.370E-06,-0.028
-3.360E-06,-0.060
-3.350E-06,-0.048
-3.340E-06,-0.016
-3.330E-06,0.024
-3.320E-06,0.052
-3.310E-06,0.048
-3.300E-06,0.024
-3.290E-06,-0.012
-3.280E-06,-0.044
-3.270E-06,-0.052
-3.260E-06,-0.016
-3.250E-06,0.012
-3.240E-06,0.036
-3.230E-06,0.040
-3.220E-06,0.024
-3.210E-06,0.000
-3.200E-06,-0.028
-3.190E-06,-0.024
-3.180E-06,-0.012
-3.170E-06,0.012
-3.160E-06,0.020
-3.150E-06,0.028
-3.140E-06,0.020
-3.130E-06,-0.004
-3.120E-06,-0.028
-3.110E-06,-0.024
-3.100E-06,-0.016
-3.090E-06,0.004
-3.080E-06,0.024
-3.070E-06,0.028
-3.060E-06,0.012
-3.050E-06,-0.004
-3.040E-06,-0.008
-3.030E-06,-0.008
-3.020E-06,0.000
-3.010E-06,0.008
-3.000E-06,0.012
-2.990E-06,0.016
-2.980E-06,0.000
-2.970E-06,0.000
-2.960E-06,-0.004
-2.950E-06,-0.008
-2.940E-06,-0.004
-2.930E-06,0.000
-2.920E-06,0.008
-2.910E-06,0.008
-2.900E-06,0.008
-2.890E-06,0.004
-2.880E-06,0.000
-2.870E-06,-0.004
-2.860E-06,0.004
-2.850E-06,0.004
-2.840E-06,0.008
-2.830E-06,0.004
-2.820E-06,0.004
-2.810E-06,0.008
-2.800E-06,0.000
-2.790E-06,0.000
-2.780E-06,0.000
-2.770E-06,0.008
-2.760E-06,0.000
-2.750E-06,0.004
-2.740E-06,0.008
-2.730E-06,0.012
-2.720E-06,0.004
-2.710E-06,-0.004
-2.700E-06,0.000
-2.690E-06,0.004
-2.680E-06,0.008
-2.670E-06,0.008
-2.660E-06,0.024
-2.650E-06,0.016
-2.640E-06,0.004
-2.630E-06,-0.004
-2.620E-06,0.000
-2.610E-06,-0.008
-2.600E-06,0.000
-2.590E-06,0.020
-2.580E-06,0.024
-2.570E-06,0.020
-2.560E-06,0.004
-2.550E-06,-0.004
-2.540E-06,0.000
-2.530E-06,0.016
-2.520E-06,0.016
-2.510E-06,0.004
-2.500E-06,0.004
-2.490E-06,-0.004
-2.480E-06,0.004
-2.470E-06,0.012
-2.460E-06,0.004
-2.450E-06,-0.020
-2.440E-06,-0.020
-2.430E-06,-0.008
-2.420E-06,0.012
-2.410E-06,0.028
-2.400E-06,0.028
-2.390E-06,0.004
-2.380E-06,-0.036
-2.370E-06,-0.036
-2.360E-06,-0.016
-2.350E-06,0.008
-2.340E-06,0.044
-2.330E-06,0.044
-2.320E-06,0.008
-2.310E-06,-0.020
-2.300E-06,-0.036
-2.290E-06,-0.024
-2.280E-06,0.004
-2.270E-06,0.020
-2.260E-06,0.024
-2.250E-06,0.012
-2.240E-06,0.000
-2.230E-06,-0.004
-2.220E-06,-0.012
-2.210E-06,-0.008
-2.200E-06,0.000
-2.190E-06,0.008
-2.180E-06,0.008
-2.170E-06,0.012
-2.160E-06,0.004
-2.150E-06,0.004
-2.140E-06,0.004
-2.130E-06,-0.008
-2.120E-06,-0.012
-2.110E-06,-0.012
-2.100E-06,0.004
-2.090E-06,0.012
-2.080E-06,0.016
-2.070E-06,0.008
-2.060E-06,0.000
-2.050E-06,-0.012
-2.040E-06,-0.004
-2.030E-06,0.000
-2.020E-06,0.012
-2.010E-06,0.024
-2.000E-06,0.012
-1.990E-06,0.000
-1.980E-06,-0.008
-1.970E-06,-0.008
-1.960E-06,-0.004
-1.950E-06,0.008
-1.940E-06,0.016
-1.930E-06,0.016
-1.920E-06,0.012
-1.910E-06,0.000
-1.900E-06,-0.004
-1.890E-06,-0.008
-1.880E-06,0.000
-1.870E-06,0.004
-1.860E-06,0.012
-1.850E-06,0.012
-1.840E-06,0.012
-1.830E-06,0.000
-1.820E-06,-0.004
-1.810E-06,0.000
-1.800E-06,-0.004
-1.790E-06,0.008
-1.780E-06,0.008
-1.770E-06,0.012
-1.760E-06,0.008
-1.750E-06,0.008
-1.740E-06,0.000
-1.730E-06,0.000
-1.720E-06,0.000
-1.710E-06,0.004
-1.700E-06,0.008
-1.690E-06,0.016
-1.680E-06,0.016
-1.670E-06,0.012
-1.660E-06,0.012
-1.650E-06,0.008
-1.640E-06,0.008
-1.630E-06,0.000
-1.620E-06,0.008
-1.610E-06,0.024
-1.600E-06,0.016
-1.590E-06,0.020
-1.580E-06,0.020
-1.570E-06,0.012
-1.560E-06,0.008
-1.550E-06,0.008
-1.540E-06,0.000
-1.530E-06,0.012
-1.520E-06,0.020
-1.510E-06,0.028
-1.500E-06,0.024
-1.490E-06,0.020
-1.480E-06,0.016
-1.470E-06,0.012
-1.460E-06,0.008
-1.450E-06,0.008
-1.440E-06,0.024
-1.430E-06,0.036
-1.420E-06,0.044
-1.410E-06,0.044
-1.400E-06,0.048
-1.390E-06,0.036
-1.380E-06,0.064
-1.370E-06,0.076
-1.360E-06,0.068
-1.350E-06,0.056
-1.340E-06,0.040
-1.330E-06,0.028
-1.320E-06,0.012
-1.310E-06,0.016
-1.300E-06,0.024
-1.290E-06,0.028
-1.280E-06,0.044
-1.270E-06,0.020
-1.260E-06,-0.016
-1.250E-06,-0.072
-1.240E-06,-0.144
-1.230E-06,-0.144
-1.220E-06,-0.064
-1.210E-06,0.012
-1.200E-06,0.072
-1.190E-06,0.088
-1.180E-06,0.032
-1.170E-06,-0.056
-1.160E-06,-0.112
-1.150E-06,-0.108
-1.140E-06,-0.044
-1.130E-06,0.020
-1.120E-06,0.076
-1.110E-06,0.080
-1.100E-06,0.056
-1.090E-06,0.000
-1.080E-06,-0.032
-1.070E-06,-0.052
-1.060E-06,-0.032
-1.050E-06,0.012
-1.040E-06,0.072
-1.030E-06,0.104
-1.020E-06,0.120
-1.010E-06,0.100
-1.000E-06,0.040
-9.900E-07,-0.004
-9.800E-07,-0.028
-9.700E-07,-0.012
-9.600E-07,0.004
-9.500E-07,0.060
-9.400E-07,0.080
-9.300E-07,0.060
-9.200E-07,0.032
-9.100E-07,0.004
-9.000E-07,-0.016
-8.900E-07,-0.016
-8.800E-07,0.000
-8.700E-07,0.004
-8.600E-07,0.000
-8.500E-07,-0.044
-8.400E-07,-0.068
-8.300E-07,-0.096
-8.200E-07,-0.092
-8.100E-07,-0.052
-8.000E-07,-0.008
-7.900E-07,0.012
-7.800E-07,0.016
-7.700E-07,0.000
-7.600E-07,-0.028
-7.500E-07,-0.032
-7.400E-07,-0.032
-7.300E-07,-0.020
-7.200E-07,0.000
-7.100E-07,0.016
-7.000E-07,0.024
-6.900E-07,0.020
-6.800E-07,0.004
-6.700E-07,-0.004
-6.600E-07,-0.024
-6.500E-07,-0.028
-6.400E-07,-0.004
-6.300E-07,0.016
-6.200E-07,0.020
-6.100E-07,0.016
-6.000E-07,0.012
-5.900E-07,0.000
-5.800E-07,-0.008
-5.700E-07,-0.008
-5.600E-07,0.004
-5.500E-07,0.016
-5.400E-07,0.024
-5.300E-07,0.016
-5.200E-07,0.016
-5.100E-07,0.012
-5.000E-07,0.016
-4.900E-07,0.012
-4.800E-07,0.020
-4.700E-07,0.028
-4.600E-07,0.032
-4.500E-07,0.044
-4.400E-07,0.048
-4.300E-07,0.048
-4.200E-07,0.056
-4.100E-07,0.060
-4.000E-07,0.064
-3.900E-07,0.072
-3.800E-07,0.064
-3.700E-07,0.060
-3.600E-07,0.056
-3.500E-07,0.068
-3.400E-07,0.084
-3.300E-07,0.096
-3.200E-07,0.100
-3.100E-07,0.096
-3.000E-07,0.092
-2.900E-07,0.088
-2.800E-07,0.092
-2.700E-07,0.096
-2.600E-07,0.104
-2.500E-07,0.100
-2.400E-07,0.096
-2.300E-07,0.100
-2.200E-07,0.092
-2.100E-07,0.104
-2.000E-07,0.104
-1.900E-07,0.096
-1.800E-07,0.088
-1.700E-07,0.088
-1.600E-07,0.092
-1.500E-07,0.092
-1.400E-07,0.104
-1.300E-07,0.092
-1.200E-07,0.092
-1.100E-07,0.080
-1.000E-07,0.092
-9.000E-08,0.096
-8.000E-08,0.080
-7.000E-08,0.020
-6.000E-08,-0.064
-5.000E-08,-0.108
-4.000E-08,-0.124
-3.000E-08,-0.008
-2.000E-08,0.152
-1.000E-08,0.332
0.000E+00,0.424
1.000E-08,0.140
2.000E-08,-0.308
3.000E-08,-0.512
4.000E-08,-0.508
5.000E-08,-0.508
6.000E-08,-0.460
7.000E-08,0.112
8.000E-08,0.456
9.000E-08,0.452
1.000E-07,0.148
1.100E-07,-0.284
1.200E-07,-0.512
1.300E-07,-0.448
1.400E-07,-0.124
1.500E-07,0.252
1.600E-07,0.448
1.700E-07,0.396
1.800E-07,0.140
1.900E-07,-0.124
2.000E-07,-0.280
2.100E-07,-0.260
2.200E-07,-0.084
2.300E-07,0.136
2.400E-07,0.304
2.500E-07,0.324
2.600E-07,0.192
2.700E-07,-0.028
2.800E-07,-0.212
2.900E-07,-0.244
3.000E-07,-0.132
3.100E-07,0.068
3.200E-07,0.244
3.300E-07,0.304
3.400E-07,0.224
3.500E-07,0.056
3.600E-07,-0.100
3.700E-07,-0.160
3.800E-07,-0.100
3.900E-07,0.060
4.000E-07,0.212
4.100E-07,0.300
4.200E-07,0.272
4.300E-07,0.160
4.400E-07,0.020
4.500E-07,-0.064
4.600E-07,-0.020
4.700E-07,0.120
4.800E-07,0.260
4.900E-07,0.336
5.000E-07,0.324
5.100E-07,0.240
5.200E-07,0.144
5.300E-07,0.064
5.400E-07,0.064
5.500E-07,0.132
5.600E-07,0.216
5.700E-07,0.272
5.800E-07,0.256
5.900E-07,0.204
6.000E-07,0.148
6.100E-07,0.136
6.200E-07,0.172
6.300E-07,0.228
6.400E-07,0.272
6.500E-07,0.288
6.600E-07,0.268
6.700E-07,0.224
6.800E-07,0.188
6.900E-07,0.168
7.000E-07,0.188
7.100E-07,0.248
7.200E-07,0.284
7.300E-07,0.244
7.400E-07,0.140
7.500E-07,-0.052
7.600E-07,-0.340
7.700E-07,-0.508
7.800E-07,-0.508
7.900E-07,-0.512
8.000E-07,-0.288
8.100E-07,0.544
8.200E-07,0.540
8.300E-07,0.540
8.400E-07,0.540
8.500E-07,-0.160
8.600E-07,-0.512
8.700E-07,-0.512
8.800E-07,-0.368
8.900E-07,0.248
9.000E-07,0.540
9.100E-07,0.540
9.200E-07,0.224
9.300E-07,-0.492
9.400E-07,-0.508
9.500E-07,-0.508
9.600E-07,-0.500
9.700E-07,-0.112
9.800E-07,0.304
9.900E-07,0.472
1.000E-06,0.228
1.010E-06,-0.060
1.020E-06,-0.208
1.030E-06,-0.232
1.040E-06,-0.040
1.050E-06,0.344
1.060E-06,0.540
1.070E-06,0.536
1.080E-06,0.360
1.090E-06,0.060
1.100E-06,-0.160
1.110E-06,-0.192
1.120E-06,-0.012
1.130E-06,0.168
1.140E-06,0.340
1.150E-06,0.328
1.160E-06,0.152
1.170E-06,-0.080
1.180E-06,-0.256
1.190E-06,-0.300
1.200E-06,-0.236
1.210E-06,-0.036
1.220E-06,0.128
1.230E-06,0.156
1.240E-06,0.088
1.250E-06,-0.056
1.260E-06,-0.220
1.270E-06,-0.256
1.280E-06,-0.124
1.290E-06,0.092
1.300E-06,0.296
1.310E-06,0.444
1.320E-06,0.472
1.330E-06,0.376
1.340E-06,0.212
1.350E-06,0.056
1.360E-06,0.032
1.370E-06,0.124
1.380E-06,0.256
1.390E-06,0.384
1.400E-06,0.420
1.410E-06,0.352
1.420E-06,0.224
1.430E-06,0.120
1.440E-06,0.072
1.450E-06,0.120
1.460E-06,0.224
1.470E-06,0.348
1.480E-06,0.404
1.490E-06,0.380
1.500E-06,0.288
1.510E-06,0.192
1.520E-06,0.128
1.530E-06,0.132
1.540E-06,0.208
1.550E-06,0.308
1.560E-06,0.368
1.570E-06,0.364
1.580E-06,0.316
1.590E-06,0.232
1.600E-06,0.168
1.610E-06,0.148
1.620E-06,0.192
1.630E-06,0.260
1.640E-06,0.316
1.650E-06,0.336
1.660E-06,0.312
1.670E-06,0.260
1.680E-06,0.208
1.690E-06,0.176
1.700E-06,0.192
1.710E-06,0.240
1.720E-06,0.288
1.730E-06,0.312
1.740E-06,0.308
1.750E-06,0.276
1.760E-06,0.232
1.770E-06,0.204
1.780E-06,0.204
1.790E-06,0.228
1.800E-06,0.264
1.810E-06,0.284
1.820E-06,0.292
1.830E-06,0.276
1.840E-06,0.240
1.850E-06,0.224
1.860E-06,0.216
1.870E-06,0.224
1.880E-06,0.252
1.890E-06,0.272
1.900E-06,0.284
1.910E-06,0.272
1.920E-06,0.256
1.930E-06,0.232
1.940E-06,0.224
1.950E-06,0.224
1.960E-06,0.236
1.970E-06,0.256
1.980E-06,0.260
1.990E-06,0.260
2.000E-06,0.256
2.010E-06,0.236
2.020E-06,0.228
2.030E-06,0.228
2.040E-06,0.232
2.050E-06,0.248
2.060E-06,0.252
2.070E-06,0.260
2.080E-06,0.252
2.090E-06,0.240
2.100E-06,0.228
2.110E-06,0.224
2.120E-06,0.232
2.130E-06,0.240
2.140E-06,0.240
2.150E-06,0.252
2.160E-06,0.244
2.170E-06,0.240
2.180E-06,0.228
2.190E-06,0.224
2.200E-06,0.228
2.210E-06,0.228
2.220E-06,0.236
2.230E-06,0.244
2.240E-06,0.244
2.250E-06,0.240
2.260E-06,0.228
2.270E-06,0.228
2.280E-06,0.220
2.290E-06,0.224
2.300E-06,0.232
2.310E-06,0.240
2.320E-06,0.240
2.330E-06,0.240
2.340E-06,0.228
2.350E-06,0.220
2.360E-06,0.224
2.370E-06,0.224
2.380E-06,0.224
2.390E-06,0.232
2.400E-06,0.236
2.410E-06,0.228
2.420E-06,0.228
2.430E-06,0.224
2.440E-06,0.220
2.450E-06,0.220
2.460E-06,0.224
2.470E-06,0.224
2.480E-06,0.228
2.490E-06,0.228
2.500E-06,0.224
2.510E-06,0.220
2.520E-06,0.212
2.530E-06,0.216
2.540E-06,0.208
2.550E-06,0.220
2.560E-06,0.216
2.570E-06,0.216
2.580E-06,0.220
2.590E-06,0.220
2.600E-06,0.220
2.610E-06,0.212
2.620E-06,0.208
2.630E-06,0.208
2.640E-06,0.212
2.650E-06,0.212
2.660E-06,0.216
2.670E-06,0.216
2.680E-06,0.212
2.690E-06,0.212
2.700E-06,0.208
2.710E-06,0.208
2.720E-06,0.208
2.730E-06,0.208
2.740E-06,0.212
2.750E-06,0.212
2.760E-06,0.208
2.770E-06,0.212
2.780E-06,0.208
2.790E-06,0.212
2.800E-06,0.220
2.810E-06,0.224
2.820E-06,0.232
2.830E-06,0.240
2.840E-06,0.240
2.850E-06,0.228
2.860E-06,0.204
2.870E-06,0.196
2.880E-06,0.180
2.890E-06,0.192
2.900E-06,0.212
2.910E-06,0.224
2.920E-06,0.236
2.930E-06,0.224
2.940E-06,0.208
2.950E-06,0.196
2.960E-06,0.184
2.970E-06,0.180
2.980E-06,0.192
2.990E-06,0.212
3.000E-06,0.220
3.010E-06,0.224
3.020E-06,0.220
3.030E-06,0.200
3.040E-06,0.188
3.050E-06,0.184
3.060E-06,0.180
3.070E-06,0.192
3.080E-06,0.204
3.090E-06,0.212
3.100E-06,0.212
3.110E-06,0.204
3.120E-06,0.188
3.130E-06,0.184
3.140E-06,0.188
3.150E-06,0.192
3.160E-06,0.196
3.170E-06,0.212
3.180E-06,0.208
3.190E-06,0.200
3.200E-06,0.192
3.210E-06,0.188
3.220E-06,0.176
3.230E-06,0.180
3.240E-06,0.180
3.250E-06,0.192
3.260E-06,0.196
3.270E-06,0.196
3.280E-06,0.192
3.290E-06,0.188
3.300E-06,0.188
3.310E-06,0.184
3.320E-06,0.184
3.330E-06,0.192
3.340E-06,0.192
3.350E-06,0.192
3.360E-06,0.188
3.370E-06,0.184
3.380E-06,0.180
3.390E-06,0.172
3.400E-06,0.168
