mediciones/5-15/-64.25/WaveData47623.csv

#timebase=2000000(ps)
,#voltbase=100000(mv/100)
#size=4000
-8.400E-06,-0.032
-8.390E-06,-0.040
-8.380E-06,-0.040
-8.370E-06,-0.012
-8.360E-06,0.012
-8.350E-06,0.020
-8.340E-06,0.036
-8.330E-06,0.024
-8.320E-06,0.000
-8.310E-06,-0.032
-8.300E-06,-0.032
-8.290E-06,-0.028
-8.280E-06,0.004
-8.270E-06,0.040
-8.260E-06,0.060
-8.250E-06,0.032
-8.240E-06,0.000
-8.230E-06,-0.028
-8.220E-06,-0.032
-8.210E-06,-0.016
-8.200E-06,0.012
-8.190E-06,0.028
-8.180E-06,0.036
-8.170E-06,0.028
-8.160E-06,0.016
-8.150E-06,-0.004
-8.140E-06,-0.008
-8.130E-06,0.008
-8.120E-06,0.036
-8.110E-06,0.064
-8.100E-06,0.028
-8.090E-06,-0.016
-8.080E-06,-0.060
-8.070E-06,-0.068
-8.060E-06,-0.024
-8.050E-06,0.032
-8.040E-06,0.056
-8.030E-06,0.044
-8.020E-06,0.036
-8.010E-06,-0.004
-8.000E-06,-0.044
-7.990E-06,-0.048
-7.980E-06,-0.044
-7.970E-06,-0.028
-7.960E-06,0.008
-7.950E-06,0.056
-7.940E-06,0.080
-7.930E-06,0.056
-7.920E-06,0.024
-7.910E-06,-0.028
-7.900E-06,-0.052
-7.890E-06,-0.040
-7.880E-06,0.004
-7.870E-06,0.040
-7.860E-06,0.060
-7.850E-06,0.056
-7.840E-06,0.024
-7.830E-06,0.012
-7.820E-06,0.004
-7.810E-06,0.012
-7.800E-06,0.016
-7.790E-06,0.028
-7.780E-06,-0.004
-7.770E-06,-0.044
-7.760E-06,-0.064
-7.750E-06,-0.052
-7.740E-06,0.000
-7.730E-06,0.088
-7.720E-06,0.132
-7.710E-06,0.084
-7.700E-06,-0.004
-7.690E-06,-0.096
-7.680E-06,-0.124
-7.670E-06,-0.060
-7.660E-06,0.044
-7.650E-06,0.120
-7.640E-06,0.088
-7.630E-06,-0.004
-7.620E-06,-0.084
-7.610E-06,-0.108
-7.600E-06,-0.068
-7.590E-06,0.044
-7.580E-06,0.132
-7.570E-06,0.156
-7.560E-06,0.120
-7.550E-06,0.024
-7.540E-06,-0.036
-7.530E-06,-0.044
-7.520E-06,-0.032
-7.510E-06,0.012
-7.500E-06,0.020
-7.490E-06,-0.024
-7.480E-06,-0.060
-7.470E-06,-0.040
-7.460E-06,-0.028
-7.450E-06,-0.016
-7.440E-06,0.016
-7.430E-06,0.020
-7.420E-06,0.004
-7.410E-06,-0.028
-7.400E-06,-0.040
-7.390E-06,-0.036
-7.380E-06,-0.020
-7.370E-06,-0.020
-7.360E-06,0.028
-7.350E-06,0.068
-7.340E-06,0.056
-7.330E-06,0.028
-7.320E-06,-0.008
-7.310E-06,-0.036
-7.300E-06,-0.048
-7.290E-06,0.000
-7.280E-06,0.044
-7.270E-06,0.056
-7.260E-06,0.000
-7.250E-06,-0.104
-7.240E-06,-0.124
-7.230E-06,-0.008
-7.220E-06,0.076
-7.210E-06,0.104
-7.200E-06,0.028
-7.190E-06,-0.008
-7.180E-06,-0.008
-7.170E-06,-0.024
-7.160E-06,-0.004
-7.150E-06,0.040
-7.140E-06,0.044
-7.130E-06,-0.004
-7.120E-06,-0.020
-7.110E-06,-0.036
-7.100E-06,-0.024
-7.090E-06,-0.004
-7.080E-06,0.020
-7.070E-06,0.032
-7.060E-06,0.028
-7.050E-06,-0.004
-7.040E-06,-0.020
-7.030E-06,-0.004
-7.020E-06,0.016
-7.010E-06,0.024
-7.000E-06,0.032
-6.990E-06,0.016
-6.980E-06,-0.032
-6.970E-06,-0.060
-6.960E-06,-0.044
-6.950E-06,-0.004
-6.940E-06,0.020
-6.930E-06,0.044
-6.920E-06,0.068
-6.910E-06,0.036
-6.900E-06,0.000
-6.890E-06,-0.020
-6.880E-06,-0.012
-6.870E-06,-0.036
-6.860E-06,-0.024
-6.850E-06,-0.004
-6.840E-06,-0.012
-6.830E-06,0.008
-6.820E-06,0.040
-6.810E-06,0.040
-6.800E-06,0.004
-6.790E-06,-0.020
-6.780E-06,-0.036
-6.770E-06,-0.044
-6.760E-06,-0.016
-6.750E-06,0.028
-6.740E-06,0.036
-6.730E-06,0.012
-6.720E-06,-0.008
-6.710E-06,-0.012
-6.700E-06,-0.008
-6.690E-06,0.004
-6.680E-06,0.024
-6.670E-06,0.016
-6.660E-06,-0.008
-6.650E-06,-0.024
-6.640E-06,-0.020
-6.630E-06,0.000
-6.620E-06,0.016
-6.610E-06,0.032
-6.600E-06,0.024
-6.590E-06,0.012
-6.580E-06,-0.004
-6.570E-06,-0.012
-6.560E-06,-0.012
-6.550E-06,-0.004
-6.540E-06,0.012
-6.530E-06,0.040
-6.520E-06,0.036
-6.510E-06,0.020
-6.500E-06,0.008
-6.490E-06,-0.016
-6.480E-06,-0.020
-6.470E-06,-0.012
-6.460E-06,0.008
-6.450E-06,0.032
-6.440E-06,0.036
-6.430E-06,0.032
-6.420E-06,0.016
-6.410E-06,0.000
-6.400E-06,-0.028
-6.390E-06,-0.040
-6.380E-06,-0.044
-6.370E-06,-0.016
-6.360E-06,0.024
-6.350E-06,0.076
-6.340E-06,0.100
-6.330E-06,0.060
-6.320E-06,-0.008
-6.310E-06,-0.072
-6.300E-06,-0.092
-6.290E-06,-0.024
-6.280E-06,0.072
-6.270E-06,0.132
-6.260E-06,0.120
-6.250E-06,0.056
-6.240E-06,-0.012
-6.230E-06,-0.060
-6.220E-06,-0.060
-6.210E-06,-0.016
-6.200E-06,0.032
-6.190E-06,0.064
-6.180E-06,0.076
-6.170E-06,0.056
-6.160E-06,0.020
-6.150E-06,-0.040
-6.140E-06,-0.084
-6.130E-06,-0.076
-6.120E-06,-0.036
-6.110E-06,0.044
-6.100E-06,0.108
-6.090E-06,0.128
-6.080E-06,0.052
-6.070E-06,-0.100
-6.060E-06,-0.268
-6.050E-06,-0.256
-6.040E-06,-0.044
-6.030E-06,0.168
-6.020E-06,0.220
-6.010E-06,0.144
-6.000E-06,0.036
-5.990E-06,-0.104
-5.980E-06,-0.176
-5.970E-06,-0.140
-5.960E-06,-0.028
-5.950E-06,0.092
-5.940E-06,0.112
-5.930E-06,0.096
-5.920E-06,0.040
-5.910E-06,-0.028
-5.900E-06,-0.068
-5.890E-06,-0.044
-5.880E-06,-0.008
-5.870E-06,0.020
-5.860E-06,0.016
-5.850E-06,0.028
-5.840E-06,0.008
-5.830E-06,-0.016
-5.820E-06,-0.028
-5.810E-06,-0.048
-5.800E-06,-0.044
-5.790E-06,0.012
-5.780E-06,0.056
-5.770E-06,0.056
-5.760E-06,0.056
-5.750E-06,0.044
-5.740E-06,-0.008
-5.730E-06,-0.096
-5.720E-06,-0.108
-5.710E-06,-0.068
-5.700E-06,0.012
-5.690E-06,0.120
-5.680E-06,0.116
-5.670E-06,0.024
-5.660E-06,-0.056
-5.650E-06,-0.056
-5.640E-06,-0.008
-5.630E-06,0.008
-5.620E-06,0.028
-5.610E-06,0.004
-5.600E-06,-0.008
-5.590E-06,-0.004
-5.580E-06,-0.004
-5.570E-06,-0.012
-5.560E-06,-0.016
-5.550E-06,0.004
-5.540E-06,0.000
-5.530E-06,0.004
-5.520E-06,0.016
-5.510E-06,0.004
-5.500E-06,-0.004
-5.490E-06,0.000
-5.480E-06,-0.004
-5.470E-06,-0.004
-5.460E-06,-0.012
-5.450E-06,0.004
-5.440E-06,0.012
-5.430E-06,0.016
-5.420E-06,0.040
-5.410E-06,0.040
-5.400E-06,0.004
-5.390E-06,-0.020
-5.380E-06,-0.032
-5.370E-06,-0.024
-5.360E-06,0.000
-5.350E-06,0.036
-5.340E-06,0.048
-5.330E-06,0.024
-5.320E-06,-0.004
-5.310E-06,-0.028
-5.300E-06,-0.044
-5.290E-06,-0.032
-5.280E-06,-0.004
-5.270E-06,0.028
-5.260E-06,0.044
-5.250E-06,0.036
-5.240E-06,0.020
-5.230E-06,-0.012
-5.220E-06,-0.044
-5.210E-06,-0.032
-5.200E-06,-0.012
-5.190E-06,0.028
-5.180E-06,0.040
-5.170E-06,0.028
-5.160E-06,0.004
-5.150E-06,-0.020
-5.140E-06,-0.032
-5.130E-06,-0.024
-5.120E-06,0.012
-5.110E-06,0.040
-5.100E-06,0.056
-5.090E-06,0.040
-5.080E-06,0.012
-5.070E-06,-0.020
-5.060E-06,-0.032
-5.050E-06,-0.012
-5.040E-06,-0.004
-5.030E-06,-0.008
-5.020E-06,-0.004
-5.010E-06,0.008
-5.000E-06,0.016
-4.990E-06,0.028
-4.980E-06,0.024
-4.970E-06,0.016
-4.960E-06,-0.004
-4.950E-06,-0.016
-4.940E-06,-0.020
-4.930E-06,0.004
-4.920E-06,0.040
-4.910E-06,0.028
-4.900E-06,0.000
-4.890E-06,-0.040
-4.880E-06,-0.064
-4.870E-06,-0.032
-4.860E-06,0.024
-4.850E-06,0.088
-4.840E-06,0.104
-4.830E-06,0.056
-4.820E-06,-0.008
-4.810E-06,-0.060
-4.800E-06,-0.068
-4.790E-06,-0.020
-4.780E-06,0.028
-4.770E-06,0.084
-4.760E-06,0.080
-4.750E-06,0.044
-4.740E-06,-0.004
-4.730E-06,-0.052
-4.720E-06,-0.056
-4.710E-06,-0.032
-4.700E-06,0.016
-4.690E-06,0.060
-4.680E-06,0.092
-4.670E-06,0.072
-4.660E-06,0.032
-4.650E-06,-0.036
-4.640E-06,-0.076
-4.630E-06,-0.124
-4.620E-06,-0.112
-4.610E-06,-0.024
-4.600E-06,0.088
-4.590E-06,0.152
-4.580E-06,0.104
-4.570E-06,0.000
-4.560E-06,-0.088
-4.550E-06,-0.108
-4.540E-06,-0.052
-4.530E-06,0.016
-4.520E-06,0.072
-4.510E-06,0.060
-4.500E-06,0.020
-4.490E-06,-0.024
-4.480E-06,-0.044
-4.470E-06,-0.040
-4.460E-06,-0.024
-4.450E-06,0.012
-4.440E-06,0.032
-4.430E-06,0.020
-4.420E-06,-0.004
-4.410E-06,0.000
-4.400E-06,0.000
-4.390E-06,0.000
-4.380E-06,0.004
-4.370E-06,0.012
-4.360E-06,0.012
-4.350E-06,0.016
-4.340E-06,0.028
-4.330E-06,0.036
-4.320E-06,0.024
-4.310E-06,-0.004
-4.300E-06,-0.036
-4.290E-06,-0.064
-4.280E-06,-0.060
-4.270E-06,-0.028
-4.260E-06,0.028
-4.250E-06,0.056
-4.240E-06,0.044
-4.230E-06,-0.020
-4.220E-06,-0.024
-4.210E-06,0.016
-4.200E-06,0.024
-4.190E-06,0.016
-4.180E-06,-0.008
-4.170E-06,-0.036
-4.160E-06,-0.032
-4.150E-06,0.008
-4.140E-06,0.040
-4.130E-06,0.036
-4.120E-06,0.032
-4.110E-06,0.004
-4.100E-06,-0.008
-4.090E-06,-0.012
-4.080E-06,-0.004
-4.070E-06,-0.004
-4.060E-06,-0.028
-4.050E-06,0.004
-4.040E-06,0.008
-4.030E-06,0.016
-4.020E-06,0.032
-4.010E-06,0.000
-4.000E-06,-0.056
-3.990E-06,-0.068
-3.980E-06,-0.020
-3.970E-06,0.024
-3.960E-06,0.068
-3.950E-06,0.064
-3.940E-06,0.000
-3.930E-06,-0.068
-3.920E-06,-0.084
-3.910E-06,-0.024
-3.900E-06,0.028
-3.890E-06,0.076
-3.880E-06,0.048
-3.870E-06,-0.004
-3.860E-06,-0.020
-3.850E-06,-0.036
-3.840E-06,-0.024
-3.830E-06,0.024
-3.820E-06,0.032
-3.810E-06,0.016
-3.800E-06,0.000
-3.790E-06,0.000
-3.780E-06,-0.008
-3.770E-06,-0.008
-3.760E-06,0.004
-3.750E-06,0.008
-3.740E-06,0.000
-3.730E-06,-0.004
-3.720E-06,0.000
-3.710E-06,0.008
-3.700E-06,0.008
-3.690E-06,0.000
-3.680E-06,-0.004
-3.670E-06,-0.008
-3.660E-06,-0.004
-3.650E-06,0.000
-3.640E-06,0.004
-3.630E-06,0.004
-3.620E-06,0.004
-3.610E-06,0.008
-3.600E-06,-0.004
-3.590E-06,0.000
-3.580E-06,-0.008
-3.570E-06,-0.004
-3.560E-06,-0.004
-3.550E-06,0.000
-3.540E-06,0.012
-3.530E-06,0.012
-3.520E-06,0.008
-3.510E-06,0.000
-3.500E-06,0.000
-3.490E-06,-0.004
-3.480E-06,-0.008
-3.470E-06,0.000
-3.460E-06,0.008
-3.450E-06,0.012
-3.440E-06,0.016
-3.430E-06,0.008
-3.420E-06,0.008
-3.410E-06,-0.004
-3.400E-06,-0.008
-3.390E-06,-0.012
-3.380E-06,0.004
-3.370E-06,0.012
-3.360E-06,0.020
-3.350E-06,0.020
-3.340E-06,0.008
-3.330E-06,0.004
-3.320E-06,-0.004
-3.310E-06,-0.004
-3.300E-06,0.000
-3.290E-06,0.008
-3.280E-06,0.016
-3.270E-06,0.016
-3.260E-06,0.016
-3.250E-06,0.004
-3.240E-06,0.004
-3.230E-06,-0.064
-3.220E-06,-0.048
-3.210E-06,0.008
-3.200E-06,0.064
-3.190E-06,0.172
-3.180E-06,0.128
-3.170E-06,0.016
-3.160E-06,-0.104
-3.150E-06,-0.148
-3.140E-06,-0.076
-3.130E-06,0.072
-3.120E-06,0.180
-3.110E-06,0.132
-3.100E-06,0.020
-3.090E-06,-0.076
-3.080E-06,-0.112
-3.070E-06,-0.044
-3.060E-06,0.032
-3.050E-06,0.056
-3.040E-06,0.032
-3.030E-06,-0.004
-3.020E-06,-0.032
-3.010E-06,-0.032
-3.000E-06,-0.004
-2.990E-06,0.008
-2.980E-06,0.016
-2.970E-06,0.032
-2.960E-06,0.032
-2.950E-06,0.028
-2.940E-06,0.024
-2.930E-06,0.020
-2.920E-06,0.008
-2.910E-06,0.004
-2.900E-06,-0.024
-2.890E-06,-0.040
-2.880E-06,-0.040
-2.870E-06,-0.036
-2.860E-06,-0.004
-2.850E-06,0.036
-2.840E-06,0.056
-2.830E-06,0.044
-2.820E-06,0.020
-2.810E-06,-0.008
-2.800E-06,-0.008
-2.790E-06,0.008
-2.780E-06,0.028
-2.770E-06,0.012
-2.760E-06,-0.008
-2.750E-06,-0.012
-2.740E-06,0.004
-2.730E-06,0.020
-2.720E-06,0.016
-2.710E-06,0.008
-2.700E-06,0.000
-2.690E-06,-0.004
-2.680E-06,0.016
-2.670E-06,0.044
-2.660E-06,0.060
-2.650E-06,0.060
-2.640E-06,0.028
-2.630E-06,0.008
-2.620E-06,-0.076
-2.610E-06,-0.108
-2.600E-06,-0.136
-2.590E-06,-0.080
-2.580E-06,0.004
-2.570E-06,0.064
-2.560E-06,0.132
-2.550E-06,0.124
-2.540E-06,0.024
-2.530E-06,-0.120
-2.520E-06,-0.204
-2.510E-06,-0.120
-2.500E-06,0.036
-2.490E-06,0.176
-2.480E-06,0.172
-2.470E-06,0.044
-2.460E-06,-0.064
-2.450E-06,-0.100
-2.440E-06,-0.108
-2.430E-06,-0.024
-2.420E-06,0.000
-2.410E-06,0.000
-2.400E-06,0.052
-2.390E-06,0.096
-2.380E-06,0.044
-2.370E-06,-0.052
-2.360E-06,-0.076
-2.350E-06,-0.068
-2.340E-06,-0.028
-2.330E-06,0.056
-2.320E-06,0.096
-2.310E-06,0.052
-2.300E-06,-0.024
-2.290E-06,-0.056
-2.280E-06,-0.056
-2.270E-06,-0.036
-2.260E-06,0.012
-2.250E-06,0.048
-2.240E-06,0.048
-2.230E-06,0.016
-2.220E-06,-0.020
-2.210E-06,-0.020
-2.200E-06,-0.020
-2.190E-06,-0.008
-2.180E-06,0.016
-2.170E-06,0.032
-2.160E-06,0.028
-2.150E-06,0.012
-2.140E-06,0.000
-2.130E-06,-0.020
-2.120E-06,-0.016
-2.110E-06,-0.004
-2.100E-06,0.016
-2.090E-06,0.020
-2.080E-06,0.020
-2.070E-06,0.008
-2.060E-06,-0.008
-2.050E-06,-0.020
-2.040E-06,-0.012
-2.030E-06,0.008
-2.020E-06,0.028
-2.010E-06,0.036
-2.000E-06,0.020
-1.990E-06,0.004
-1.980E-06,-0.028
-1.970E-06,-0.028
-1.960E-06,-0.012
-1.950E-06,0.008
-1.940E-06,0.032
-1.930E-06,0.032
-1.920E-06,0.024
-1.910E-06,0.008
-1.900E-06,-0.016
-1.890E-06,-0.024
-1.880E-06,-0.020
-1.870E-06,-0.004
-1.860E-06,0.024
-1.850E-06,0.036
-1.840E-06,0.036
-1.830E-06,0.020
-1.820E-06,0.012
-1.810E-06,0.024
-1.800E-06,0.048
-1.790E-06,0.064
-1.780E-06,0.068
-1.770E-06,0.016
-1.760E-06,-0.072
-1.750E-06,-0.084
-1.740E-06,-0.032
-1.730E-06,0.064
-1.720E-06,0.144
-1.710E-06,0.156
-1.700E-06,0.096
-1.690E-06,-0.004
-1.680E-06,-0.120
-1.670E-06,-0.136
-1.660E-06,-0.108
-1.650E-06,-0.048
-1.640E-06,0.036
-1.630E-06,0.116
-1.620E-06,0.124
-1.610E-06,0.080
-1.600E-06,0.000
-1.590E-06,-0.068
-1.580E-06,-0.108
-1.570E-06,-0.056
-1.560E-06,0.052
-1.550E-06,0.112
-1.540E-06,0.068
-1.530E-06,-0.004
-1.520E-06,-0.076
-1.510E-06,-0.120
-1.500E-06,-0.080
-1.490E-06,0.004
-1.480E-06,0.068
-1.470E-06,0.088
-1.460E-06,0.052
-1.450E-06,0.000
-1.440E-06,-0.040
-1.430E-06,-0.056
-1.420E-06,-0.040
-1.410E-06,0.000
-1.400E-06,0.028
-1.390E-06,0.064
-1.380E-06,0.076
-1.370E-06,0.052
-1.360E-06,0.016
-1.350E-06,-0.008
-1.340E-06,-0.020
-1.330E-06,-0.004
-1.320E-06,0.016
-1.310E-06,0.044
-1.300E-06,0.032
-1.290E-06,0.012
-1.280E-06,-0.056
-1.270E-06,-0.116
-1.260E-06,-0.112
-1.250E-06,-0.040
-1.240E-06,0.036
-1.230E-06,0.080
-1.220E-06,0.072
-1.210E-06,0.012
-1.200E-06,-0.048
-1.190E-06,-0.076
-1.180E-06,-0.068
-1.170E-06,-0.024
-1.160E-06,0.024
-1.150E-06,0.044
-1.140E-06,0.044
-1.130E-06,0.016
-1.120E-06,0.000
-1.110E-06,-0.028
-1.100E-06,-0.040
-1.090E-06,-0.036
-1.080E-06,-0.008
-1.070E-06,0.024
-1.060E-06,0.036
-1.050E-06,0.040
-1.040E-06,0.020
-1.030E-06,-0.004
-1.020E-06,-0.028
-1.010E-06,-0.028
-1.000E-06,-0.004
-9.900E-07,0.020
-9.800E-07,0.036
-9.700E-07,0.040
-9.600E-07,0.024
-9.500E-07,0.004
-9.400E-07,-0.012
-9.300E-07,-0.016
-9.200E-07,0.000
-9.100E-07,0.012
-9.000E-07,0.032
-8.900E-07,0.036
-8.800E-07,0.036
-8.700E-07,0.036
-8.600E-07,0.028
-8.500E-07,0.016
-8.400E-07,0.008
-8.300E-07,0.008
-8.200E-07,0.012
-8.100E-07,0.016
-8.000E-07,0.012
-7.900E-07,0.008
-7.800E-07,0.008
-7.700E-07,0.000
-7.600E-07,-0.008
-7.500E-07,-0.020
-7.400E-07,-0.036
-7.300E-07,-0.036
-7.200E-07,-0.032
-7.100E-07,-0.016
-7.000E-07,0.024
-6.900E-07,0.056
-6.800E-07,0.068
-6.700E-07,0.056
-6.600E-07,0.012
-6.500E-07,-0.028
-6.400E-07,-0.028
-6.300E-07,0.004
-6.200E-07,0.036
-6.100E-07,0.068
-6.000E-07,0.060
-5.900E-07,0.044
-5.800E-07,0.012
-5.700E-07,-0.004
-5.600E-07,-0.004
-5.500E-07,0.004
-5.400E-07,0.012
-5.300E-07,0.028
-5.200E-07,0.036
-5.100E-07,0.032
-5.000E-07,0.032
-4.900E-07,0.036
-4.800E-07,0.036
-4.700E-07,0.048
-4.600E-07,0.072
-4.500E-07,0.096
-4.400E-07,0.116
-4.300E-07,0.120
-4.200E-07,0.112
-4.100E-07,0.100
-4.000E-07,0.084
-3.900E-07,0.072
-3.800E-07,0.056
-3.700E-07,0.056
-3.600E-07,0.056
-3.500E-07,0.072
-3.400E-07,0.040
-3.300E-07,0.024
-3.200E-07,-0.012
-3.100E-07,-0.096
-3.000E-07,-0.192
-2.900E-07,-0.272
-2.800E-07,-0.264
-2.700E-07,-0.192
-2.600E-07,-0.016
-2.500E-07,0.124
-2.400E-07,0.148
-2.300E-07,0.092
-2.200E-07,-0.044
-2.100E-07,-0.136
-2.000E-07,-0.172
-1.900E-07,-0.076
-1.800E-07,0.056
-1.700E-07,0.144
-1.600E-07,0.152
-1.500E-07,0.096
-1.400E-07,-0.024
-1.300E-07,-0.124
-1.200E-07,-0.088
-1.100E-07,0.008
-1.000E-07,0.144
-9.000E-08,0.240
-8.000E-08,0.216
-7.000E-08,-0.016
-6.000E-08,-0.324
-5.000E-08,-0.512
-4.000E-08,-0.512
-3.000E-08,-0.284
-2.000E-08,0.132
-1.000E-08,0.480
0.000E+00,0.540
1.000E-08,0.284
2.000E-08,-0.092
3.000E-08,-0.404
4.000E-08,-0.476
5.000E-08,-0.272
6.000E-08,0.076
7.000E-08,0.344
8.000E-08,0.436
9.000E-08,0.276
1.000E-07,-0.036
1.100E-07,-0.236
1.200E-07,-0.260
1.300E-07,-0.164
1.400E-07,0.064
1.500E-07,0.284
1.600E-07,0.296
1.700E-07,0.176
1.800E-07,-0.080
1.900E-07,-0.332
2.000E-07,-0.324
2.100E-07,-0.108
2.200E-07,0.096
2.300E-07,0.208
2.400E-07,0.204
2.500E-07,0.092
2.600E-07,-0.012
2.700E-07,-0.088
2.800E-07,-0.112
2.900E-07,-0.116
3.000E-07,-0.068
3.100E-07,0.020
3.200E-07,0.140
3.300E-07,0.168
3.400E-07,0.096
3.500E-07,0.000
3.600E-07,-0.080
3.700E-07,-0.120
3.800E-07,-0.060
3.900E-07,0.092
4.000E-07,0.184
4.100E-07,0.180
4.200E-07,0.092
4.300E-07,-0.024
4.400E-07,-0.080
4.500E-07,-0.076
4.600E-07,0.012
4.700E-07,0.152
4.800E-07,0.248
4.900E-07,0.220
5.000E-07,0.156
5.100E-07,0.076
5.200E-07,-0.004
5.300E-07,-0.020
5.400E-07,0.040
5.500E-07,0.120
5.600E-07,0.180
5.700E-07,0.192
5.800E-07,0.140
5.900E-07,0.064
6.000E-07,0.000
6.100E-07,-0.024
6.200E-07,-0.004
6.300E-07,0.056
6.400E-07,0.076
6.500E-07,0.096
6.600E-07,0.060
6.700E-07,-0.024
6.800E-07,-0.108
6.900E-07,-0.152
7.000E-07,-0.136
7.100E-07,-0.060
7.200E-07,0.060
7.300E-07,0.128
7.400E-07,0.136
7.500E-07,0.108
7.600E-07,0.048
7.700E-07,0.004
7.800E-07,0.028
7.900E-07,0.104
8.000E-07,0.184
8.100E-07,0.204
8.200E-07,-0.036
8.300E-07,-0.280
8.400E-07,-0.396
8.500E-07,-0.220
8.600E-07,-0.132
8.700E-07,-0.184
8.800E-07,-0.232
8.900E-07,-0.204
9.000E-07,-0.104
9.100E-07,0.164
9.200E-07,0.368
9.300E-07,0.100
9.400E-07,-0.120
9.500E-07,-0.108
9.600E-07,-0.008
9.700E-07,0.180
9.800E-07,0.260
9.900E-07,-0.028
1.000E-06,-0.468
1.010E-06,-0.512
1.020E-06,-0.500
1.030E-06,-0.108
1.040E-06,0.240
1.050E-06,0.428
1.060E-06,0.304
1.070E-06,-0.024
1.080E-06,-0.336
1.090E-06,-0.412
1.100E-06,-0.240
1.110E-06,0.064
1.120E-06,0.388
1.130E-06,0.460
1.140E-06,0.272
1.150E-06,-0.064
1.160E-06,-0.324
1.170E-06,-0.420
1.180E-06,-0.252
1.190E-06,0.028
1.200E-06,0.244
1.210E-06,0.300
1.220E-06,0.208
1.230E-06,-0.008
1.240E-06,-0.256
1.250E-06,-0.340
1.260E-06,-0.244
1.270E-06,0.000
1.280E-06,0.240
1.290E-06,0.356
1.300E-06,0.256
1.310E-06,0.016
1.320E-06,-0.212
1.330E-06,-0.288
1.340E-06,-0.196
1.350E-06,-0.008
1.360E-06,0.204
1.370E-06,0.292
1.380E-06,0.232
1.390E-06,0.028
1.400E-06,-0.148
1.410E-06,-0.236
1.420E-06,-0.172
1.430E-06,-0.024
1.440E-06,0.156
1.450E-06,0.248
1.460E-06,0.208
1.470E-06,0.068
1.480E-06,-0.100
1.490E-06,-0.172
1.500E-06,-0.148
1.510E-06,-0.020
1.520E-06,0.128
1.530E-06,0.220
1.540E-06,0.196
1.550E-06,0.096
1.560E-06,-0.040
1.570E-06,-0.108
1.580E-06,-0.084
1.590E-06,0.024
1.600E-06,0.152
1.610E-06,0.232
1.620E-06,0.228
1.630E-06,0.156
1.640E-06,0.064
1.650E-06,-0.012
1.660E-06,-0.008
1.670E-06,0.052
1.680E-06,0.144
1.690E-06,0.204
1.700E-06,0.212
1.710E-06,0.164
1.720E-06,0.132
1.730E-06,0.104
1.740E-06,0.104
1.750E-06,0.140
1.760E-06,0.188
1.770E-06,0.228
1.780E-06,0.232
1.790E-06,0.188
1.800E-06,0.120
1.810E-06,0.068
1.820E-06,0.060
1.830E-06,0.064
1.840E-06,0.092
1.850E-06,0.108
1.860E-06,0.112
1.870E-06,0.100
1.880E-06,0.064
1.890E-06,0.040
1.900E-06,-0.024
1.910E-06,-0.136
1.920E-06,-0.104
1.930E-06,-0.232
1.940E-06,-0.208
1.950E-06,-0.512
1.960E-06,-0.508
1.970E-06,-0.512
1.980E-06,-0.300
1.990E-06,-0.240
2.000E-06,0.044
2.010E-06,-0.032
2.020E-06,-0.120
2.030E-06,-0.088
2.040E-06,-0.104
2.050E-06,-0.120
2.060E-06,-0.144
2.070E-06,-0.084
2.080E-06,0.104
2.090E-06,0.228
2.100E-06,0.060
2.110E-06,-0.096
2.120E-06,-0.196
2.130E-06,-0.168
2.140E-06,-0.064
2.150E-06,0.156
2.160E-06,0.208
2.170E-06,0.192
2.180E-06,0.068
2.190E-06,-0.080
2.200E-06,-0.204
2.210E-06,-0.228
2.220E-06,-0.092
2.230E-06,0.092
2.240E-06,0.256
2.250E-06,0.248
2.260E-06,0.144
2.270E-06,-0.052
2.280E-06,-0.188
2.290E-06,-0.204
2.300E-06,-0.120
2.310E-06,0.036
2.320E-06,0.176
2.330E-06,0.220
2.340E-06,0.128
2.350E-06,-0.004
2.360E-06,-0.140
2.370E-06,-0.172
2.380E-06,-0.112
2.390E-06,0.028
2.400E-06,0.144
2.410E-06,0.196
2.420E-06,0.156
2.430E-06,0.028
2.440E-06,-0.088
2.450E-06,-0.140
2.460E-06,-0.084
2.470E-06,0.040
2.480E-06,0.176
2.490E-06,0.208
2.500E-06,0.156
2.510E-06,0.080
2.520E-06,-0.016
2.530E-06,-0.060
2.540E-06,-0.028
2.550E-06,0.048
2.560E-06,0.164
2.570E-06,0.240
2.580E-06,0.240
2.590E-06,0.176
2.600E-06,0.068
2.610E-06,0.008
2.620E-06,0.036
2.630E-06,0.136
2.640E-06,0.240
2.650E-06,0.284
2.660E-06,0.280
2.670E-06,0.236
2.680E-06,0.176
2.690E-06,0.124
2.700E-06,0.120
2.710E-06,0.160
2.720E-06,0.204
2.730E-06,0.256
2.740E-06,0.264
2.750E-06,0.228
2.760E-06,0.160
2.770E-06,0.088
2.780E-06,0.028
2.790E-06,0.008
2.800E-06,0.004
2.810E-06,0.032
2.820E-06,0.060
2.830E-06,0.080
2.840E-06,0.076
2.850E-06,0.068
2.860E-06,0.068
2.870E-06,0.072
2.880E-06,0.120
2.890E-06,0.164
2.900E-06,0.184
2.910E-06,0.160
2.920E-06,0.136
2.930E-06,0.160
2.940E-06,0.216
2.950E-06,0.260
2.960E-06,0.272
2.970E-06,0.224
2.980E-06,0.136
2.990E-06,-0.032
3.000E-06,-0.156
3.010E-06,-0.256
3.020E-06,-0.320
3.030E-06,-0.372
3.040E-06,-0.308
3.050E-06,-0.168
3.060E-06,-0.072
3.070E-06,0.016
3.080E-06,-0.292
3.090E-06,-0.380
3.100E-06,-0.400
3.110E-06,-0.512
3.120E-06,-0.512
3.130E-06,-0.220
3.140E-06,0.244
3.150E-06,0.544
3.160E-06,0.544
3.170E-06,0.272
3.180E-06,-0.112
3.190E-06,-0.512
3.200E-06,-0.512
3.210E-06,-0.512
