mediciones/mediciones removidas por ser diferentes/-27.5/WaveData5184.csv

#timebase=2000000(ps)
,#voltbase=100000(mv/100)
#size=4000
-3.800E-06,0.000
-3.790E-06,0.004
-3.780E-06,0.004
-3.770E-06,0.004
-3.760E-06,0.004
-3.750E-06,0.000
-3.740E-06,0.004
-3.730E-06,0.000
-3.720E-06,0.004
-3.710E-06,0.000
-3.700E-06,0.004
-3.690E-06,0.004
-3.680E-06,0.004
-3.670E-06,0.004
-3.660E-06,0.004
-3.650E-06,0.004
-3.640E-06,-0.004
-3.630E-06,0.004
-3.620E-06,0.004
-3.610E-06,0.004
-3.600E-06,0.004
-3.590E-06,0.008
-3.580E-06,0.000
-3.570E-06,0.004
-3.560E-06,0.004
-3.550E-06,0.004
-3.540E-06,0.008
-3.530E-06,0.048
-3.520E-06,0.072
-3.510E-06,0.076
-3.500E-06,0.056
-3.490E-06,-0.012
-3.480E-06,-0.072
-3.470E-06,-0.104
-3.460E-06,-0.080
-3.450E-06,-0.020
-3.440E-06,0.044
-3.430E-06,0.076
-3.420E-06,0.044
-3.410E-06,-0.008
-3.400E-06,-0.028
-3.390E-06,-0.028
-3.380E-06,0.008
-3.370E-06,0.044
-3.360E-06,0.056
-3.350E-06,0.036
-3.340E-06,0.000
-3.330E-06,-0.020
-3.320E-06,-0.032
-3.310E-06,-0.016
-3.300E-06,0.004
-3.290E-06,0.008
-3.280E-06,0.020
-3.270E-06,0.012
-3.260E-06,0.012
-3.250E-06,0.008
-3.240E-06,0.012
-3.230E-06,0.012
-3.220E-06,0.012
-3.210E-06,0.008
-3.200E-06,0.000
-3.190E-06,-0.004
-3.180E-06,-0.004
-3.170E-06,-0.004
-3.160E-06,-0.008
-3.150E-06,-0.016
-3.140E-06,-0.016
-3.130E-06,-0.012
-3.120E-06,-0.008
-3.110E-06,0.008
-3.100E-06,0.008
-3.090E-06,0.016
-3.080E-06,0.016
-3.070E-06,0.012
-3.060E-06,0.016
-3.050E-06,0.012
-3.040E-06,0.012
-3.030E-06,0.012
-3.020E-06,0.012
-3.010E-06,0.000
-3.000E-06,-0.008
-2.990E-06,-0.012
-2.980E-06,-0.008
-2.970E-06,0.004
-2.960E-06,0.008
-2.950E-06,0.012
-2.940E-06,0.020
-2.930E-06,0.016
-2.920E-06,-0.004
-2.910E-06,-0.008
-2.900E-06,-0.004
-2.890E-06,0.004
-2.880E-06,0.020
-2.870E-06,0.008
-2.860E-06,0.008
-2.850E-06,0.000
-2.840E-06,-0.004
-2.830E-06,-0.008
-2.820E-06,-0.012
-2.810E-06,0.004
-2.800E-06,0.004
-2.790E-06,0.008
-2.780E-06,0.008
-2.770E-06,0.008
-2.760E-06,0.008
-2.750E-06,0.004
-2.740E-06,0.004
-2.730E-06,0.000
-2.720E-06,-0.004
-2.710E-06,0.000
-2.700E-06,0.004
-2.690E-06,0.008
-2.680E-06,0.008
-2.670E-06,0.008
-2.660E-06,0.000
-2.650E-06,-0.004
-2.640E-06,-0.004
-2.630E-06,-0.004
-2.620E-06,0.004
-2.610E-06,0.004
-2.600E-06,0.004
-2.590E-06,0.008
-2.580E-06,0.008
-2.570E-06,0.008
-2.560E-06,0.012
-2.550E-06,0.012
-2.540E-06,0.000
-2.530E-06,0.000
-2.520E-06,0.000
-2.510E-06,0.000
-2.500E-06,0.004
-2.490E-06,0.008
-2.480E-06,0.008
-2.470E-06,0.000
-2.460E-06,0.000
-2.450E-06,0.000
-2.440E-06,0.004
-2.430E-06,0.004
-2.420E-06,0.012
-2.410E-06,0.008
-2.400E-06,0.012
-2.390E-06,0.016
-2.380E-06,0.012
-2.370E-06,0.016
-2.360E-06,0.008
-2.350E-06,0.004
-2.340E-06,0.004
-2.330E-06,0.012
-2.320E-06,0.020
-2.310E-06,-0.004
-2.300E-06,-0.016
-2.290E-06,-0.032
-2.280E-06,-0.032
-2.270E-06,-0.008
-2.260E-06,0.008
-2.250E-06,0.040
-2.240E-06,0.032
-2.230E-06,0.004
-2.220E-06,-0.012
-2.210E-06,-0.028
-2.200E-06,-0.012
-2.190E-06,0.008
-2.180E-06,0.028
-2.170E-06,0.032
-2.160E-06,0.012
-2.150E-06,-0.004
-2.140E-06,-0.024
-2.130E-06,-0.024
-2.120E-06,-0.008
-2.110E-06,0.008
-2.100E-06,0.016
-2.090E-06,0.012
-2.080E-06,0.004
-2.070E-06,-0.008
-2.060E-06,-0.008
-2.050E-06,0.012
-2.040E-06,0.008
-2.030E-06,0.004
-2.020E-06,-0.004
-2.010E-06,-0.004
-2.000E-06,0.004
-1.990E-06,0.016
-1.980E-06,0.024
-1.970E-06,0.028
-1.960E-06,0.028
-1.950E-06,0.040
-1.940E-06,0.048
-1.930E-06,0.012
-1.920E-06,-0.016
-1.910E-06,-0.040
-1.900E-06,-0.056
-1.890E-06,-0.024
-1.880E-06,0.000
-1.870E-06,0.032
-1.860E-06,0.036
-1.850E-06,0.012
-1.840E-06,0.000
-1.830E-06,-0.024
-1.820E-06,-0.020
-1.810E-06,-0.004
-1.800E-06,0.008
-1.790E-06,0.012
-1.780E-06,0.012
-1.770E-06,0.008
-1.760E-06,0.008
-1.750E-06,0.000
-1.740E-06,0.000
-1.730E-06,0.004
-1.720E-06,0.008
-1.710E-06,0.008
-1.700E-06,0.008
-1.690E-06,0.008
-1.680E-06,0.008
-1.670E-06,0.028
-1.660E-06,0.032
-1.650E-06,0.036
-1.640E-06,0.016
-1.630E-06,-0.028
-1.620E-06,-0.036
-1.610E-06,-0.048
-1.600E-06,-0.024
-1.590E-06,0.008
-1.580E-06,0.028
-1.570E-06,0.028
-1.560E-06,0.012
-1.550E-06,-0.004
-1.540E-06,-0.020
-1.530E-06,-0.016
-1.520E-06,0.008
-1.510E-06,0.024
-1.500E-06,0.016
-1.490E-06,0.012
-1.480E-06,0.008
-1.470E-06,0.000
-1.460E-06,0.008
-1.450E-06,0.016
-1.440E-06,0.024
-1.430E-06,0.028
-1.420E-06,0.020
-1.410E-06,0.024
-1.400E-06,0.032
-1.390E-06,0.036
-1.380E-06,0.044
-1.370E-06,0.044
-1.360E-06,0.052
-1.350E-06,0.036
-1.340E-06,0.020
-1.330E-06,-0.008
-1.320E-06,-0.032
-1.310E-06,-0.040
-1.300E-06,-0.028
-1.290E-06,0.016
-1.280E-06,0.052
-1.270E-06,0.068
-1.260E-06,0.056
-1.250E-06,0.032
-1.240E-06,0.036
-1.230E-06,-0.024
-1.220E-06,-0.008
-1.210E-06,-0.008
-1.200E-06,0.020
-1.190E-06,-0.044
-1.180E-06,-0.156
-1.170E-06,-0.180
-1.160E-06,-0.156
-1.150E-06,-0.012
-1.140E-06,0.080
-1.130E-06,0.128
-1.120E-06,0.096
-1.110E-06,0.020
-1.100E-06,-0.052
-1.090E-06,-0.096
-1.080E-06,-0.072
-1.070E-06,-0.004
-1.060E-06,0.044
-1.050E-06,0.056
-1.040E-06,0.040
-1.030E-06,0.000
-1.020E-06,-0.016
-1.010E-06,-0.024
-1.000E-06,-0.020
-9.900E-07,-0.004
-9.800E-07,0.008
-9.700E-07,0.012
-9.600E-07,0.008
-9.500E-07,0.012
-9.400E-07,0.012
-9.300E-07,0.004
-9.200E-07,0.000
-9.100E-07,-0.004
-9.000E-07,-0.004
-8.900E-07,0.004
-8.800E-07,0.008
-8.700E-07,0.008
-8.600E-07,0.012
-8.500E-07,0.000
-8.400E-07,0.000
-8.300E-07,0.000
-8.200E-07,0.008
-8.100E-07,0.016
-8.000E-07,0.024
-7.900E-07,0.032
-7.800E-07,0.032
-7.700E-07,0.032
-7.600E-07,0.044
-7.500E-07,0.060
-7.400E-07,0.076
-7.300E-07,0.088
-7.200E-07,0.088
-7.100E-07,0.084
-7.000E-07,0.084
-6.900E-07,0.076
-6.800E-07,0.076
-6.700E-07,0.072
-6.600E-07,0.052
-6.500E-07,0.028
-6.400E-07,-0.012
-6.300E-07,-0.036
-6.200E-07,-0.040
-6.100E-07,-0.028
-6.000E-07,-0.016
-5.900E-07,-0.008
-5.800E-07,0.020
-5.700E-07,0.048
-5.600E-07,0.048
-5.500E-07,0.056
-5.400E-07,-0.008
-5.300E-07,-0.084
-5.200E-07,-0.152
-5.100E-07,-0.188
-5.000E-07,-0.168
-4.900E-07,-0.104
-4.800E-07,-0.008
-4.700E-07,0.044
-4.600E-07,0.060
-4.500E-07,0.032
-4.400E-07,-0.012
-4.300E-07,-0.040
-4.200E-07,-0.044
-4.100E-07,-0.024
-4.000E-07,0.000
-3.900E-07,0.020
-3.800E-07,0.020
-3.700E-07,0.012
-3.600E-07,-0.004
-3.500E-07,-0.020
-3.400E-07,-0.028
-3.300E-07,-0.016
-3.200E-07,0.000
-3.100E-07,0.012
-3.000E-07,0.012
-2.900E-07,0.008
-2.800E-07,0.008
-2.700E-07,-0.004
-2.600E-07,0.004
-2.500E-07,0.012
-2.400E-07,0.016
-2.300E-07,0.016
-2.200E-07,0.016
-2.100E-07,0.012
-2.000E-07,0.012
-1.900E-07,0.012
-1.800E-07,0.024
-1.700E-07,0.024
-1.600E-07,0.024
-1.500E-07,0.024
-1.400E-07,0.032
-1.300E-07,0.036
-1.200E-07,0.044
-1.100E-07,0.052
-1.000E-07,0.068
-9.000E-08,0.072
-8.000E-08,0.096
-7.000E-08,0.100
-6.000E-08,0.048
-5.000E-08,-0.044
-4.000E-08,-0.508
-3.000E-08,-0.512
-2.000E-08,-0.400
-1.000E-08,0.128
0.000E+00,0.540
1.000E-08,0.540
2.000E-08,0.324
3.000E-08,-0.092
4.000E-08,-0.292
5.000E-08,-0.404
6.000E-08,-0.156
7.000E-08,0.176
8.000E-08,0.476
9.000E-08,0.352
1.000E-07,-0.056
1.100E-07,-0.380
1.200E-07,-0.480
1.300E-07,-0.348
1.400E-07,-0.004
1.500E-07,0.168
1.600E-07,0.292
1.700E-07,0.228
1.800E-07,0.008
1.900E-07,-0.132
2.000E-07,-0.236
2.100E-07,-0.120
2.200E-07,0.008
2.300E-07,0.124
2.400E-07,0.140
2.500E-07,0.064
2.600E-07,-0.004
2.700E-07,-0.068
2.800E-07,-0.068
2.900E-07,-0.036
3.000E-07,0.020
3.100E-07,0.056
3.200E-07,0.064
3.300E-07,0.016
3.400E-07,0.004
3.500E-07,-0.016
3.600E-07,-0.032
3.700E-07,-0.008
3.800E-07,0.004
3.900E-07,0.012
4.000E-07,0.036
4.100E-07,0.044
4.200E-07,0.024
4.300E-07,0.024
4.400E-07,0.012
4.500E-07,0.028
4.600E-07,0.048
4.700E-07,0.000
4.800E-07,-0.056
4.900E-07,-0.108
5.000E-07,-0.120
5.100E-07,-0.036
5.200E-07,0.032
5.300E-07,0.072
5.400E-07,0.088
5.500E-07,0.032
5.600E-07,-0.008
5.700E-07,-0.044
5.800E-07,-0.032
5.900E-07,-0.012
6.000E-07,0.012
6.100E-07,0.012
6.200E-07,0.012
6.300E-07,0.008
6.400E-07,0.000
6.500E-07,-0.004
6.600E-07,-0.004
6.700E-07,0.000
6.800E-07,0.000
6.900E-07,0.004
7.000E-07,-0.008
7.100E-07,-0.004
7.200E-07,0.008
7.300E-07,0.020
7.400E-07,0.032
7.500E-07,0.024
7.600E-07,0.008
7.700E-07,-0.008
7.800E-07,-0.016
7.900E-07,-0.024
8.000E-07,-0.004
8.100E-07,0.008
8.200E-07,0.028
8.300E-07,0.020
8.400E-07,0.012
8.500E-07,0.000
8.600E-07,-0.012
8.700E-07,-0.020
8.800E-07,-0.004
8.900E-07,0.012
9.000E-07,0.028
9.100E-07,0.024
9.200E-07,0.020
9.300E-07,0.004
9.400E-07,-0.004
9.500E-07,-0.016
9.600E-07,-0.016
9.700E-07,-0.004
9.800E-07,0.012
9.900E-07,0.024
1.000E-06,0.032
1.010E-06,0.024
1.020E-06,0.008
1.030E-06,-0.004
1.040E-06,0.000
1.050E-06,0.004
1.060E-06,0.020
1.070E-06,0.040
1.080E-06,0.044
1.090E-06,0.040
1.100E-06,0.028
1.110E-06,0.024
1.120E-06,0.016
1.130E-06,0.024
1.140E-06,0.036
1.150E-06,-0.040
1.160E-06,-0.100
1.170E-06,-0.136
1.180E-06,-0.100
1.190E-06,-0.004
1.200E-06,0.096
1.210E-06,0.144
1.220E-06,0.096
1.230E-06,0.036
1.240E-06,-0.044
1.250E-06,-0.052
1.260E-06,-0.040
1.270E-06,0.020
1.280E-06,0.020
1.290E-06,0.004
1.300E-06,-0.024
1.310E-06,-0.056
1.320E-06,-0.032
1.330E-06,-0.020
1.340E-06,0.000
1.350E-06,-0.004
1.360E-06,-0.004
1.370E-06,-0.012
1.380E-06,-0.012
1.390E-06,0.004
1.400E-06,0.000
1.410E-06,0.016
1.420E-06,0.012
1.430E-06,0.016
1.440E-06,0.000
1.450E-06,0.008
1.460E-06,-0.004
1.470E-06,-0.004
1.480E-06,-0.004
1.490E-06,0.000
1.500E-06,0.004
1.510E-06,0.012
1.520E-06,0.012
1.530E-06,0.012
1.540E-06,0.004
1.550E-06,-0.004
1.560E-06,-0.008
1.570E-06,-0.008
1.580E-06,0.000
1.590E-06,0.012
1.600E-06,0.020
1.610E-06,0.020
1.620E-06,0.016
1.630E-06,0.004
1.640E-06,-0.004
1.650E-06,-0.008
1.660E-06,-0.004
1.670E-06,0.008
1.680E-06,0.016
1.690E-06,0.020
1.700E-06,0.024
1.710E-06,0.012
1.720E-06,0.008
1.730E-06,0.000
1.740E-06,0.000
1.750E-06,-0.004
1.760E-06,0.000
1.770E-06,0.004
1.780E-06,0.012
1.790E-06,0.016
1.800E-06,0.028
1.810E-06,0.024
1.820E-06,0.028
1.830E-06,0.024
1.840E-06,0.024
1.850E-06,0.048
1.860E-06,0.056
1.870E-06,0.068
1.880E-06,0.072
1.890E-06,0.068
1.900E-06,0.072
1.910E-06,0.080
1.920E-06,0.080
1.930E-06,0.056
1.940E-06,0.012
1.950E-06,-0.032
1.960E-06,-0.060
1.970E-06,-0.056
1.980E-06,-0.012
1.990E-06,0.040
2.000E-06,0.080
2.010E-06,0.100
2.020E-06,0.072
2.030E-06,0.020
2.040E-06,-0.012
2.050E-06,-0.024
2.060E-06,0.004
2.070E-06,0.008
2.080E-06,0.020
2.090E-06,0.000
2.100E-06,-0.008
2.110E-06,0.000
2.120E-06,0.032
2.130E-06,0.064
2.140E-06,0.056
2.150E-06,0.048
2.160E-06,-0.028
2.170E-06,-0.104
2.180E-06,-0.148
2.190E-06,-0.148
2.200E-06,-0.116
2.210E-06,-0.064
2.220E-06,0.008
2.230E-06,0.020
2.240E-06,0.036
2.250E-06,0.016
2.260E-06,-0.012
2.270E-06,-0.028
2.280E-06,-0.028
2.290E-06,-0.004
2.300E-06,0.020
2.310E-06,0.048
2.320E-06,0.040
2.330E-06,0.028
2.340E-06,0.020
2.350E-06,0.016
2.360E-06,0.028
2.370E-06,0.072
2.380E-06,0.108
2.390E-06,0.136
2.400E-06,0.112
2.410E-06,0.056
2.420E-06,-0.024
2.430E-06,-0.112
2.440E-06,-0.168
2.450E-06,-0.152
2.460E-06,-0.124
2.470E-06,-0.056
2.480E-06,0.004
2.490E-06,0.048
2.500E-06,0.044
2.510E-06,0.008
2.520E-06,-0.032
2.530E-06,-0.056
2.540E-06,-0.040
2.550E-06,-0.016
2.560E-06,-0.004
2.570E-06,0.016
2.580E-06,0.028
2.590E-06,0.016
2.600E-06,0.000
2.610E-06,-0.004
2.620E-06,-0.004
2.630E-06,0.008
2.640E-06,0.016
2.650E-06,0.024
2.660E-06,0.032
2.670E-06,0.028
2.680E-06,0.036
2.690E-06,0.040
2.700E-06,0.044
2.710E-06,0.044
2.720E-06,0.052
2.730E-06,0.048
2.740E-06,0.052
2.750E-06,0.044
2.760E-06,0.044
2.770E-06,0.044
2.780E-06,0.064
2.790E-06,0.080
2.800E-06,0.100
2.810E-06,0.108
2.820E-06,0.104
2.830E-06,0.092
2.840E-06,0.072
2.850E-06,0.076
2.860E-06,0.076
2.870E-06,0.088
2.880E-06,0.092
2.890E-06,0.100
2.900E-06,0.092
2.910E-06,0.096
2.920E-06,0.096
2.930E-06,0.120
2.940E-06,0.128
2.950E-06,0.128
2.960E-06,0.048
2.970E-06,-0.128
2.980E-06,-0.300
2.990E-06,-0.368
3.000E-06,-0.280
3.010E-06,-0.132
3.020E-06,-0.036
3.030E-06,0.020
3.040E-06,-0.012
3.050E-06,-0.124
3.060E-06,-0.236
3.070E-06,-0.272
3.080E-06,-0.164
3.090E-06,0.020
3.100E-06,0.124
3.110E-06,0.116
3.120E-06,0.036
3.130E-06,-0.032
3.140E-06,-0.076
3.150E-06,-0.132
3.160E-06,-0.068
3.170E-06,-0.004
3.180E-06,0.056
3.190E-06,0.064
3.200E-06,0.040
3.210E-06,0.004
3.220E-06,-0.044
3.230E-06,-0.064
3.240E-06,-0.044
3.250E-06,-0.008
3.260E-06,0.032
3.270E-06,0.044
3.280E-06,0.036
3.290E-06,0.008
3.300E-06,-0.028
3.310E-06,-0.052
3.320E-06,-0.024
3.330E-06,0.008
3.340E-06,0.044
3.350E-06,0.060
3.360E-06,0.044
3.370E-06,0.016
3.380E-06,-0.020
3.390E-06,-0.028
3.400E-06,-0.012
3.410E-06,0.008
3.420E-06,0.032
3.430E-06,0.048
3.440E-06,0.048
3.450E-06,0.028
3.460E-06,0.004
3.470E-06,-0.004
3.480E-06,0.000
3.490E-06,0.008
3.500E-06,0.020
3.510E-06,0.028
3.520E-06,0.036
3.530E-06,0.028
3.540E-06,0.024
3.550E-06,0.028
3.560E-06,0.020
3.570E-06,0.008
3.580E-06,0.032
3.590E-06,0.048
3.600E-06,0.076
3.610E-06,0.096
3.620E-06,0.120
3.630E-06,0.136
3.640E-06,0.132
3.650E-06,0.124
3.660E-06,0.108
3.670E-06,0.100
3.680E-06,0.076
3.690E-06,0.044
3.700E-06,0.004
3.710E-06,-0.008
3.720E-06,-0.012
3.730E-06,-0.008
3.740E-06,-0.008
3.750E-06,-0.024
3.760E-06,-0.048
3.770E-06,-0.060
3.780E-06,-0.044
3.790E-06,-0.004
3.800E-06,0.040
3.810E-06,0.060
3.820E-06,0.084
3.830E-06,0.100
3.840E-06,0.100
3.850E-06,0.108
3.860E-06,0.120
3.870E-06,0.136
3.880E-06,0.024
3.890E-06,-0.124
3.900E-06,-0.332
3.910E-06,-0.420
3.920E-06,-0.412
3.930E-06,-0.284
3.940E-06,-0.052
3.950E-06,0.108
3.960E-06,0.108
3.970E-06,0.064
3.980E-06,-0.084
3.990E-06,-0.160
4.000E-06,-0.140
4.010E-06,-0.064
4.020E-06,0.044
4.030E-06,0.092
4.040E-06,0.096
4.050E-06,0.028
4.060E-06,-0.036
4.070E-06,-0.072
4.080E-06,-0.064
4.090E-06,-0.004
4.100E-06,0.064
4.110E-06,0.088
4.120E-06,0.080
4.130E-06,0.040
4.140E-06,-0.008
4.150E-06,-0.020
4.160E-06,-0.020
4.170E-06,0.028
4.180E-06,0.076
4.190E-06,0.088
4.200E-06,0.072
4.210E-06,0.024
4.220E-06,-0.040
4.230E-06,-0.064
4.240E-06,-0.072
4.250E-06,-0.052
4.260E-06,-0.008
4.270E-06,0.028
4.280E-06,0.044
4.290E-06,0.012
4.300E-06,-0.008
4.310E-06,-0.044
4.320E-06,-0.036
4.330E-06,-0.012
4.340E-06,0.012
4.350E-06,0.060
4.360E-06,0.068
4.370E-06,0.056
4.380E-06,0.028
4.390E-06,0.012
4.400E-06,0.012
4.410E-06,0.024
4.420E-06,0.052
4.430E-06,0.080
4.440E-06,0.092
4.450E-06,0.092
4.460E-06,0.076
4.470E-06,0.052
4.480E-06,0.036
4.490E-06,0.020
4.500E-06,0.032
4.510E-06,0.040
4.520E-06,0.068
4.530E-06,0.092
4.540E-06,0.092
4.550E-06,0.100
4.560E-06,0.080
4.570E-06,0.040
4.580E-06,-0.016
4.590E-06,-0.076
4.600E-06,-0.104
4.610E-06,-0.100
4.620E-06,-0.052
4.630E-06,-0.016
4.640E-06,0.020
4.650E-06,0.004
4.660E-06,-0.012
4.670E-06,-0.016
4.680E-06,-0.056
4.690E-06,-0.004
4.700E-06,-0.020
4.710E-06,-0.004
4.720E-06,-0.024
4.730E-06,-0.068
4.740E-06,-0.088
4.750E-06,-0.080
4.760E-06,-0.040
4.770E-06,-0.008
4.780E-06,0.024
4.790E-06,0.044
4.800E-06,0.060
4.810E-06,0.040
4.820E-06,0.036
4.830E-06,0.036
4.840E-06,0.068
4.850E-06,0.104
4.860E-06,0.136
4.870E-06,0.108
4.880E-06,0.044
4.890E-06,-0.024
4.900E-06,-0.100
4.910E-06,-0.136
4.920E-06,-0.132
4.930E-06,-0.136
4.940E-06,-0.064
4.950E-06,-0.024
4.960E-06,-0.016
4.970E-06,-0.044
4.980E-06,-0.056
4.990E-06,-0.068
5.000E-06,-0.052
5.010E-06,-0.028
5.020E-06,-0.036
5.030E-06,-0.008
5.040E-06,-0.004
5.050E-06,0.000
5.060E-06,-0.008
5.070E-06,-0.004
5.080E-06,0.000
5.090E-06,-0.008
5.100E-06,0.000
5.110E-06,-0.004
5.120E-06,0.012
5.130E-06,0.012
5.140E-06,0.016
5.150E-06,0.004
5.160E-06,-0.004
5.170E-06,-0.004
5.180E-06,0.008
5.190E-06,0.024
5.200E-06,0.036
5.210E-06,0.040
5.220E-06,0.024
5.230E-06,0.020
5.240E-06,0.016
5.250E-06,0.004
5.260E-06,0.012
5.270E-06,0.012
5.280E-06,0.016
5.290E-06,0.016
5.300E-06,0.024
5.310E-06,0.020
5.320E-06,0.020
5.330E-06,0.032
5.340E-06,0.044
5.350E-06,0.060
5.360E-06,0.072
5.370E-06,0.088
5.380E-06,0.096
5.390E-06,0.092
5.400E-06,0.096
5.410E-06,0.100
5.420E-06,0.100
5.430E-06,0.100
5.440E-06,0.104
5.450E-06,0.104
5.460E-06,0.104
5.470E-06,0.096
5.480E-06,0.100
5.490E-06,0.088
5.500E-06,0.084
5.510E-06,0.076
5.520E-06,0.072
5.530E-06,0.064
5.540E-06,0.060
5.550E-06,0.052
5.560E-06,0.048
5.570E-06,0.048
5.580E-06,0.040
5.590E-06,0.024
5.600E-06,0.036
5.610E-06,0.056
5.620E-06,0.092
5.630E-06,0.108
5.640E-06,0.132
5.650E-06,0.124
5.660E-06,0.076
5.670E-06,0.056
5.680E-06,0.024
5.690E-06,0.044
5.700E-06,0.056
5.710E-06,0.016
5.720E-06,0.000
5.730E-06,-0.104
5.740E-06,-0.080
5.750E-06,-0.024
5.760E-06,0.104
5.770E-06,0.000
5.780E-06,-0.248
5.790E-06,-0.512
5.800E-06,-0.512
5.810E-06,-0.512
5.820E-06,-0.460
5.830E-06,-0.040
5.840E-06,0.240
5.850E-06,0.276
5.860E-06,0.112
5.870E-06,-0.180
5.880E-06,-0.344
5.890E-06,-0.280
5.900E-06,-0.072
5.910E-06,0.192
5.920E-06,0.328
5.930E-06,0.288
5.940E-06,0.124
5.950E-06,-0.120
5.960E-06,-0.272
5.970E-06,-0.228
5.980E-06,-0.040
5.990E-06,0.128
6.000E-06,0.160
6.010E-06,0.104
6.020E-06,-0.004
6.030E-06,-0.120
6.040E-06,-0.164
6.050E-06,-0.084
6.060E-06,0.040
6.070E-06,0.160
6.080E-06,0.148
6.090E-06,0.032
6.100E-06,-0.076
6.110E-06,-0.152
6.120E-06,-0.124
6.130E-06,-0.044
6.140E-06,0.044
6.150E-06,0.092
6.160E-06,0.100
6.170E-06,0.036
6.180E-06,-0.036
6.190E-06,-0.080
6.200E-06,-0.064
6.210E-06,-0.020
6.220E-06,0.024
6.230E-06,0.108
6.240E-06,0.124
6.250E-06,0.088
6.260E-06,0.024
6.270E-06,-0.024
6.280E-06,-0.052
6.290E-06,-0.032
6.300E-06,0.024
6.310E-06,0.068
6.320E-06,0.104
6.330E-06,0.080
6.340E-06,0.040
6.350E-06,0.008
6.360E-06,-0.008
6.370E-06,0.020
6.380E-06,0.060
6.390E-06,0.120
6.400E-06,0.136
6.410E-06,0.136
6.420E-06,0.112
6.430E-06,0.080
6.440E-06,0.060
6.450E-06,0.068
6.460E-06,0.104
6.470E-06,0.148
6.480E-06,0.152
6.490E-06,0.148
6.500E-06,0.132
6.510E-06,0.124
6.520E-06,0.124
6.530E-06,0.124
6.540E-06,0.148
6.550E-06,0.144
6.560E-06,0.120
6.570E-06,0.104
6.580E-06,0.060
6.590E-06,-0.104
6.600E-06,-0.248
6.610E-06,-0.480
6.620E-06,-0.384
6.630E-06,-0.340
6.640E-06,-0.288
6.650E-06,-0.240
6.660E-06,-0.208
6.670E-06,-0.172
6.680E-06,-0.124
6.690E-06,-0.140
6.700E-06,-0.152
6.710E-06,-0.108
6.720E-06,-0.064
6.730E-06,0.024
6.740E-06,0.040
6.750E-06,0.088
6.760E-06,0.060
6.770E-06,0.008
6.780E-06,0.048
6.790E-06,0.016
6.800E-06,0.004
6.810E-06,-0.032
6.820E-06,-0.008
6.830E-06,0.032
6.840E-06,0.060
6.850E-06,0.060
6.860E-06,0.032
6.870E-06,-0.004
6.880E-06,-0.024
6.890E-06,-0.008
6.900E-06,0.008
6.910E-06,0.060
6.920E-06,0.076
6.930E-06,0.064
6.940E-06,0.044
6.950E-06,0.012
6.960E-06,-0.016
6.970E-06,-0.016
6.980E-06,0.004
6.990E-06,0.024
7.000E-06,0.048
7.010E-06,0.056
7.020E-06,0.040
7.030E-06,0.028
7.040E-06,0.004
7.050E-06,0.008
7.060E-06,0.024
7.070E-06,0.044
7.080E-06,0.076
7.090E-06,0.088
7.100E-06,0.076
7.110E-06,0.060
7.120E-06,0.024
7.130E-06,0.048
7.140E-06,0.060
7.150E-06,0.076
7.160E-06,0.084
7.170E-06,0.100
7.180E-06,0.108
7.190E-06,0.100
7.200E-06,0.100
7.210E-06,0.104
7.220E-06,0.128
7.230E-06,0.152
7.240E-06,0.164
7.250E-06,0.160
7.260E-06,0.140
7.270E-06,0.128
7.280E-06,0.032
7.290E-06,-0.200
7.300E-06,-0.300
7.310E-06,-0.364
7.320E-06,-0.216
7.330E-06,-0.388
7.340E-06,-0.468
7.350E-06,-0.432
7.360E-06,-0.356
7.370E-06,-0.124
7.380E-06,0.012
7.390E-06,0.176
7.400E-06,0.184
7.410E-06,0.084
7.420E-06,-0.040
7.430E-06,-0.040
7.440E-06,0.116
7.450E-06,0.108
7.460E-06,0.020
7.470E-06,-0.072
7.480E-06,-0.036
7.490E-06,0.048
7.500E-06,0.128
7.510E-06,0.112
7.520E-06,0.056
7.530E-06,-0.032
7.540E-06,-0.088
7.550E-06,-0.072
7.560E-06,-0.020
7.570E-06,0.088
7.580E-06,0.128
7.590E-06,0.128
7.600E-06,0.076
7.610E-06,0.020
7.620E-06,-0.044
7.630E-06,-0.064
7.640E-06,-0.016
7.650E-06,0.044
7.660E-06,0.120
7.670E-06,0.156
7.680E-06,0.136
7.690E-06,0.080
7.700E-06,0.024
7.710E-06,0.000
7.720E-06,0.028
7.730E-06,0.100
7.740E-06,0.188
7.750E-06,0.216
7.760E-06,0.184
7.770E-06,0.104
7.780E-06,0.024
7.790E-06,-0.004
7.800E-06,0.016
7.810E-06,0.076
7.820E-06,0.140
7.830E-06,0.188
7.840E-06,0.180
7.850E-06,0.108
7.860E-06,0.028
7.870E-06,-0.036
7.880E-06,-0.032
7.890E-06,0.044
7.900E-06,0.140
7.910E-06,0.224
7.920E-06,0.244
7.930E-06,0.200
7.940E-06,0.136
7.950E-06,-0.020
7.960E-06,-0.260
7.970E-06,-0.512
7.980E-06,-0.508
7.990E-06,-0.408
8.000E-06,-0.232
8.010E-06,-0.176
8.020E-06,-0.020
8.030E-06,-0.200
8.040E-06,-0.184
8.050E-06,-0.272
8.060E-06,-0.068
8.070E-06,0.108
8.080E-06,0.188
8.090E-06,0.120
8.100E-06,-0.076
8.110E-06,-0.092
8.120E-06,-0.076
8.130E-06,-0.060
8.140E-06,-0.004
8.150E-06,0.060
8.160E-06,0.040
