mediciones/mediciones removidas por ser diferentes/-27.5/WaveData5185.csv

#timebase=2000000(ps)
,#voltbase=1000000(mv/100)
#size=4000
-3.800E-06,0.040
-3.790E-06,0.040
-3.780E-06,0.040
-3.770E-06,0.040
-3.760E-06,0.000
-3.750E-06,0.040
-3.740E-06,0.040
-3.730E-06,0.040
-3.720E-06,0.040
-3.710E-06,0.000
-3.700E-06,0.040
-3.690E-06,0.000
-3.680E-06,0.040
-3.670E-06,0.040
-3.660E-06,0.000
-3.650E-06,-0.040
-3.640E-06,0.000
-3.630E-06,0.040
-3.620E-06,0.040
-3.610E-06,0.040
-3.600E-06,0.000
-3.590E-06,0.040
-3.580E-06,0.000
-3.570E-06,0.040
-3.560E-06,0.000
-3.550E-06,0.040
-3.540E-06,0.120
-3.530E-06,0.120
-3.520E-06,0.360
-3.510E-06,0.800
-3.500E-06,1.600
-3.490E-06,2.520
-3.480E-06,3.240
-3.470E-06,3.520
-3.460E-06,3.160
-3.450E-06,2.080
-3.440E-06,0.760
-3.430E-06,-0.440
-3.420E-06,-1.200
-3.410E-06,-1.680
-3.400E-06,-2.040
-3.390E-06,-2.480
-3.380E-06,-2.880
-3.370E-06,-3.160
-3.360E-06,-3.080
-3.350E-06,-2.840
-3.340E-06,-2.360
-3.330E-06,-1.920
-3.320E-06,-1.680
-3.310E-06,-1.560
-3.300E-06,-1.520
-3.290E-06,-1.360
-3.280E-06,-1.160
-3.270E-06,-0.840
-3.260E-06,-0.680
-3.250E-06,-0.360
-3.240E-06,-0.040
-3.230E-06,0.360
-3.220E-06,0.840
-3.210E-06,1.200
-3.200E-06,1.520
-3.190E-06,1.600
-3.180E-06,1.560
-3.170E-06,1.440
-3.160E-06,1.360
-3.150E-06,1.160
-3.140E-06,1.080
-3.130E-06,0.880
-3.120E-06,0.600
-3.110E-06,0.400
-3.100E-06,0.200
-3.090E-06,0.120
-3.080E-06,0.080
-3.070E-06,0.080
-3.060E-06,0.200
-3.050E-06,0.200
-3.040E-06,0.240
-3.030E-06,0.280
-3.020E-06,0.240
-3.010E-06,0.160
-3.000E-06,0.080
-2.990E-06,0.040
-2.980E-06,-0.040
-2.970E-06,-0.080
-2.960E-06,-0.120
-2.950E-06,-0.120
-2.940E-06,-0.040
-2.930E-06,0.160
-2.920E-06,0.240
-2.910E-06,0.160
-2.900E-06,0.080
-2.890E-06,-0.080
-2.880E-06,-0.280
-2.870E-06,-0.360
-2.860E-06,-0.440
-2.850E-06,-0.600
-2.840E-06,-0.680
-2.830E-06,-0.800
-2.820E-06,-0.840
-2.810E-06,-0.880
-2.800E-06,-0.880
-2.790E-06,-0.800
-2.780E-06,-0.680
-2.770E-06,-0.560
-2.760E-06,-0.440
-2.750E-06,-0.320
-2.740E-06,-0.200
-2.730E-06,-0.120
-2.720E-06,0.080
-2.710E-06,0.120
-2.700E-06,0.240
-2.690E-06,0.200
-2.680E-06,0.200
-2.670E-06,0.280
-2.660E-06,0.320
-2.650E-06,0.320
-2.640E-06,0.320
-2.630E-06,0.360
-2.620E-06,0.200
-2.610E-06,0.160
-2.600E-06,0.160
-2.590E-06,0.120
-2.580E-06,0.040
-2.570E-06,0.000
-2.560E-06,-0.040
-2.550E-06,-0.040
-2.540E-06,-0.080
-2.530E-06,-0.120
-2.520E-06,-0.120
-2.510E-06,-0.200
-2.500E-06,-0.240
-2.490E-06,-0.200
-2.480E-06,-0.200
-2.470E-06,-0.120
-2.460E-06,-0.120
-2.450E-06,-0.120
-2.440E-06,-0.120
-2.430E-06,-0.120
-2.420E-06,-0.080
-2.410E-06,0.040
-2.400E-06,-0.040
-2.390E-06,0.120
-2.380E-06,0.200
-2.370E-06,0.200
-2.360E-06,0.200
-2.350E-06,0.200
-2.340E-06,0.280
-2.330E-06,0.160
-2.320E-06,0.080
-2.310E-06,0.040
-2.300E-06,0.080
-2.290E-06,0.000
-2.280E-06,0.000
-2.270E-06,0.080
-2.260E-06,-0.040
-2.250E-06,0.000
-2.240E-06,0.080
-2.230E-06,0.120
-2.220E-06,0.200
-2.210E-06,0.120
-2.200E-06,0.040
-2.190E-06,-0.080
-2.180E-06,-0.120
-2.170E-06,-0.120
-2.160E-06,0.040
-2.150E-06,0.040
-2.140E-06,-0.040
-2.130E-06,-0.160
-2.120E-06,-0.320
-2.110E-06,-0.320
-2.100E-06,-0.120
-2.090E-06,0.000
-2.080E-06,0.160
-2.070E-06,0.160
-2.060E-06,0.080
-2.050E-06,0.000
-2.040E-06,0.000
-2.030E-06,0.080
-2.020E-06,0.160
-2.010E-06,0.320
-2.000E-06,0.360
-1.990E-06,0.200
-1.980E-06,0.080
-1.970E-06,0.040
-1.960E-06,0.080
-1.950E-06,0.160
-1.940E-06,0.240
-1.930E-06,0.120
-1.920E-06,0.160
-1.910E-06,0.080
-1.900E-06,0.000
-1.890E-06,0.000
-1.880E-06,0.000
-1.870E-06,-0.080
-1.860E-06,0.080
-1.850E-06,0.080
-1.840E-06,0.160
-1.830E-06,0.160
-1.820E-06,0.080
-1.810E-06,0.120
-1.800E-06,0.040
-1.790E-06,0.160
-1.780E-06,0.200
-1.770E-06,0.240
-1.760E-06,0.240
-1.750E-06,0.160
-1.740E-06,0.160
-1.730E-06,0.160
-1.720E-06,0.160
-1.710E-06,0.160
-1.700E-06,0.280
-1.690E-06,0.280
-1.680E-06,0.240
-1.670E-06,0.240
-1.660E-06,0.240
-1.650E-06,0.240
-1.640E-06,0.200
-1.630E-06,0.320
-1.620E-06,0.360
-1.610E-06,0.240
-1.600E-06,0.160
-1.590E-06,0.040
-1.580E-06,-0.040
-1.570E-06,0.040
-1.560E-06,0.200
-1.550E-06,0.320
-1.540E-06,0.360
-1.530E-06,0.200
-1.520E-06,0.080
-1.510E-06,0.040
-1.500E-06,0.120
-1.490E-06,0.200
-1.480E-06,0.320
-1.470E-06,0.360
-1.460E-06,0.200
-1.450E-06,0.160
-1.440E-06,0.120
-1.430E-06,0.200
-1.420E-06,0.200
-1.410E-06,0.200
-1.400E-06,0.240
-1.390E-06,0.200
-1.380E-06,0.200
-1.370E-06,0.200
-1.360E-06,0.240
-1.350E-06,0.280
-1.340E-06,0.320
-1.330E-06,0.280
-1.320E-06,0.160
-1.310E-06,0.160
-1.300E-06,0.080
-1.290E-06,0.040
-1.280E-06,0.040
-1.270E-06,0.000
-1.260E-06,0.200
-1.250E-06,0.320
-1.240E-06,0.440
-1.230E-06,0.240
-1.220E-06,0.320
-1.210E-06,0.240
-1.200E-06,0.120
-1.190E-06,0.160
-1.180E-06,0.320
-1.170E-06,0.200
-1.160E-06,-0.160
-1.150E-06,-0.520
-1.140E-06,-0.640
-1.130E-06,-0.760
-1.120E-06,-0.520
-1.110E-06,-0.120
-1.100E-06,0.200
-1.090E-06,0.280
-1.080E-06,0.080
-1.070E-06,0.000
-1.060E-06,-0.040
-1.050E-06,0.200
-1.040E-06,0.560
-1.030E-06,0.720
-1.020E-06,0.840
-1.010E-06,0.840
-1.000E-06,0.800
-9.900E-07,0.800
-9.800E-07,0.880
-9.700E-07,0.880
-9.600E-07,0.920
-9.500E-07,0.880
-9.400E-07,0.720
-9.300E-07,0.640
-9.200E-07,0.640
-9.100E-07,0.640
-9.000E-07,0.560
-8.900E-07,0.520
-8.800E-07,0.360
-8.700E-07,0.320
-8.600E-07,0.160
-8.500E-07,0.200
-8.400E-07,0.240
-8.300E-07,0.240
-8.200E-07,0.240
-8.100E-07,0.240
-8.000E-07,0.200
-7.900E-07,0.200
-7.800E-07,0.320
-7.700E-07,0.400
-7.600E-07,0.480
-7.500E-07,0.440
-7.400E-07,0.520
-7.300E-07,0.560
-7.200E-07,0.640
-7.100E-07,0.680
-7.000E-07,0.760
-6.900E-07,0.720
-6.800E-07,0.680
-6.700E-07,0.600
-6.600E-07,0.480
-6.500E-07,0.360
-6.400E-07,0.320
-6.300E-07,0.160
-6.200E-07,0.040
-6.100E-07,-0.120
-6.000E-07,-0.400
-5.900E-07,-0.480
-5.800E-07,-0.640
-5.700E-07,-0.680
-5.600E-07,-0.640
-5.500E-07,-0.520
-5.400E-07,-0.280
-5.300E-07,-0.120
-5.200E-07,0.160
-5.100E-07,0.160
-5.000E-07,0.040
-4.900E-07,0.080
-4.800E-07,-0.200
-4.700E-07,0.080
-4.600E-07,0.320
-4.500E-07,0.760
-4.400E-07,1.080
-4.300E-07,1.040
-4.200E-07,1.080
-4.100E-07,1.040
-4.000E-07,0.880
-3.900E-07,0.960
-3.800E-07,1.080
-3.700E-07,1.160
-3.600E-07,1.320
-3.500E-07,1.320
-3.400E-07,1.320
-3.300E-07,1.200
-3.200E-07,1.040
-3.100E-07,0.880
-3.000E-07,0.840
-2.900E-07,0.800
-2.800E-07,0.800
-2.700E-07,0.720
-2.600E-07,0.720
-2.500E-07,0.640
-2.400E-07,0.600
-2.300E-07,0.520
-2.200E-07,0.480
-2.100E-07,0.480
-2.000E-07,0.480
-1.900E-07,0.440
-1.800E-07,0.440
-1.700E-07,0.480
-1.600E-07,0.480
-1.500E-07,0.480
-1.400E-07,0.520
-1.300E-07,0.480
-1.200E-07,0.320
-1.100E-07,0.040
-1.000E-07,0.280
-9.000E-08,0.360
-8.000E-08,0.200
-7.000E-08,0.240
-6.000E-08,-0.240
-5.000E-08,-0.160
-4.000E-08,-0.880
-3.000E-08,0.120
-2.000E-08,-0.960
-1.000E-08,-1.280
0.000E+00,-1.440
1.000E-08,-1.000
2.000E-08,-0.480
3.000E-08,1.360
4.000E-08,1.800
5.000E-08,1.320
6.000E-08,0.400
7.000E-08,-1.320
8.000E-08,-1.160
9.000E-08,-0.400
1.000E-07,0.800
1.100E-07,2.320
1.200E-07,2.040
1.300E-07,0.480
1.400E-07,0.800
1.500E-07,-1.120
1.600E-07,-0.320
1.700E-07,0.680
1.800E-07,1.040
1.900E-07,1.760
2.000E-07,1.160
2.100E-07,-0.080
2.200E-07,-0.440
2.300E-07,-1.160
2.400E-07,-0.520
2.500E-07,0.120
2.600E-07,0.120
2.700E-07,0.600
2.800E-07,0.200
2.900E-07,-0.040
3.000E-07,-0.040
3.100E-07,-0.240
3.200E-07,0.040
3.300E-07,0.320
3.400E-07,0.320
3.500E-07,0.320
3.600E-07,0.360
3.700E-07,0.120
3.800E-07,0.080
3.900E-07,0.080
4.000E-07,-0.080
4.100E-07,-0.040
4.200E-07,-0.200
4.300E-07,-0.120
4.400E-07,-0.040
4.500E-07,-0.120
4.600E-07,-0.040
4.700E-07,0.000
4.800E-07,-0.120
4.900E-07,0.160
5.000E-07,-0.240
5.100E-07,-0.200
5.200E-07,-0.360
5.300E-07,-0.640
5.400E-07,-0.200
5.500E-07,0.000
5.600E-07,0.280
5.700E-07,0.320
5.800E-07,0.200
5.900E-07,0.000
6.000E-07,-0.120
6.100E-07,0.040
6.200E-07,0.280
6.300E-07,0.320
6.400E-07,0.440
6.500E-07,0.320
6.600E-07,0.160
6.700E-07,0.080
6.800E-07,0.000
6.900E-07,0.160
7.000E-07,0.160
7.100E-07,0.240
7.200E-07,0.160
7.300E-07,0.000
7.400E-07,-0.160
7.500E-07,-0.280
7.600E-07,-0.240
7.700E-07,-0.160
7.800E-07,-0.040
7.900E-07,-0.080
8.000E-07,-0.240
8.100E-07,-0.400
8.200E-07,-0.600
8.300E-07,-0.680
8.400E-07,-0.680
8.500E-07,-0.640
8.600E-07,-0.480
8.700E-07,-0.400
8.800E-07,-0.400
8.900E-07,-0.480
9.000E-07,-0.560
9.100E-07,-0.520
9.200E-07,-0.480
9.300E-07,-0.360
9.400E-07,-0.120
9.500E-07,-0.080
9.600E-07,0.040
9.700E-07,-0.080
9.800E-07,-0.160
9.900E-07,-0.160
1.000E-06,-0.200
1.010E-06,-0.200
1.020E-06,-0.040
1.030E-06,0.080
1.040E-06,0.160
1.050E-06,0.160
1.060E-06,0.080
1.070E-06,-0.040
1.080E-06,-0.080
1.090E-06,-0.040
1.100E-06,0.000
1.110E-06,0.040
1.120E-06,0.120
1.130E-06,0.000
1.140E-06,0.000
1.150E-06,-0.160
1.160E-06,0.200
1.170E-06,-0.040
1.180E-06,-0.040
1.190E-06,-0.240
1.200E-06,-0.480
1.210E-06,-0.520
1.220E-06,-0.320
1.230E-06,0.200
1.240E-06,0.440
1.250E-06,0.600
1.260E-06,0.080
1.270E-06,-0.440
1.280E-06,-0.480
1.290E-06,-0.600
1.300E-06,-0.200
1.310E-06,-0.120
1.320E-06,-0.200
1.330E-06,-0.240
1.340E-06,-0.480
1.350E-06,-0.440
1.360E-06,-0.440
1.370E-06,-0.480
1.380E-06,-0.400
1.390E-06,-0.520
1.400E-06,-0.560
1.410E-06,-0.400
1.420E-06,-0.360
1.430E-06,-0.160
1.440E-06,-0.120
1.450E-06,-0.160
1.460E-06,-0.200
1.470E-06,-0.160
1.480E-06,-0.200
1.490E-06,-0.120
1.500E-06,-0.240
1.510E-06,-0.240
1.520E-06,-0.320
1.530E-06,-0.320
1.540E-06,-0.320
1.550E-06,-0.240
1.560E-06,-0.280
1.570E-06,-0.280
1.580E-06,-0.280
1.590E-06,-0.360
1.600E-06,-0.360
1.610E-06,-0.360
1.620E-06,-0.320
1.630E-06,-0.280
1.640E-06,-0.160
1.650E-06,-0.120
1.660E-06,-0.120
1.670E-06,-0.160
1.680E-06,-0.200
1.690E-06,-0.240
1.700E-06,-0.160
1.710E-06,-0.120
1.720E-06,-0.120
1.730E-06,-0.040
1.740E-06,-0.080
1.750E-06,-0.080
1.760E-06,-0.160
1.770E-06,-0.160
1.780E-06,-0.160
1.790E-06,-0.280
1.800E-06,-0.360
1.810E-06,-0.280
1.820E-06,-0.240
1.830E-06,-0.080
1.840E-06,-0.080
1.850E-06,-0.160
1.860E-06,-0.160
1.870E-06,-0.120
1.880E-06,-0.160
1.890E-06,-0.160
1.900E-06,0.000
1.910E-06,0.040
1.920E-06,0.120
1.930E-06,0.160
1.940E-06,0.120
1.950E-06,0.080
1.960E-06,0.040
1.970E-06,0.000
1.980E-06,-0.040
1.990E-06,-0.080
2.000E-06,-0.160
2.010E-06,0.000
2.020E-06,0.120
2.030E-06,0.280
2.040E-06,0.560
2.050E-06,0.400
2.060E-06,0.360
2.070E-06,0.160
2.080E-06,0.080
2.090E-06,0.200
2.100E-06,0.200
2.110E-06,0.280
2.120E-06,0.240
2.130E-06,0.120
2.140E-06,0.240
2.150E-06,0.360
2.160E-06,0.440
2.170E-06,0.680
2.180E-06,0.600
2.190E-06,0.480
2.200E-06,0.200
2.210E-06,-0.080
2.220E-06,-0.320
2.230E-06,-0.280
2.240E-06,-0.320
2.250E-06,0.000
2.260E-06,0.200
2.270E-06,0.320
2.280E-06,0.440
2.290E-06,0.320
2.300E-06,0.480
2.310E-06,0.520
2.320E-06,0.640
2.330E-06,0.840
2.340E-06,1.000
2.350E-06,1.000
2.360E-06,1.120
2.370E-06,1.280
2.380E-06,1.200
2.390E-06,1.360
2.400E-06,1.520
2.410E-06,1.400
2.420E-06,1.360
2.430E-06,1.200
2.440E-06,0.880
2.450E-06,0.640
2.460E-06,0.360
2.470E-06,0.160
2.480E-06,0.360
2.490E-06,0.080
2.500E-06,0.000
2.510E-06,-0.120
2.520E-06,-0.360
2.530E-06,-0.560
2.540E-06,-0.680
2.550E-06,-0.720
2.560E-06,-0.680
2.570E-06,-0.600
2.580E-06,-0.360
2.590E-06,-0.160
2.600E-06,0.000
2.610E-06,0.240
2.620E-06,0.320
2.630E-06,0.520
2.640E-06,0.640
2.650E-06,0.840
2.660E-06,1.000
2.670E-06,1.080
2.680E-06,1.160
2.690E-06,1.040
2.700E-06,0.920
2.710E-06,0.760
2.720E-06,0.600
2.730E-06,0.400
2.740E-06,0.320
2.750E-06,0.120
2.760E-06,0.080
2.770E-06,0.040
2.780E-06,-0.120
2.790E-06,-0.240
2.800E-06,-0.360
2.810E-06,-0.320
2.820E-06,-0.320
2.830E-06,-0.320
2.840E-06,-0.200
2.850E-06,-0.120
2.860E-06,-0.160
2.870E-06,-0.160
2.880E-06,-0.080
2.890E-06,-0.040
2.900E-06,0.040
2.910E-06,0.040
2.920E-06,0.320
2.930E-06,0.280
2.940E-06,0.280
2.950E-06,0.240
2.960E-06,0.040
2.970E-06,-0.040
2.980E-06,0.000
2.990E-06,-0.240
3.000E-06,-0.480
3.010E-06,-0.960
3.020E-06,-1.320
3.030E-06,-1.200
3.040E-06,-0.840
3.050E-06,-0.600
3.060E-06,-0.280
3.070E-06,-0.440
3.080E-06,-1.000
3.090E-06,-1.200
3.100E-06,-1.520
3.110E-06,-0.920
3.120E-06,-0.360
3.130E-06,0.000
3.140E-06,0.280
3.150E-06,0.200
3.160E-06,0.200
3.170E-06,0.120
3.180E-06,0.080
3.190E-06,0.320
3.200E-06,0.440
3.210E-06,0.600
3.220E-06,0.960
3.230E-06,0.960
3.240E-06,1.000
3.250E-06,0.800
3.260E-06,0.560
3.270E-06,0.280
3.280E-06,0.200
3.290E-06,0.160
3.300E-06,0.200
3.310E-06,0.200
3.320E-06,-0.040
3.330E-06,-0.280
3.340E-06,-0.480
3.350E-06,-0.680
3.360E-06,-0.720
3.370E-06,-0.600
3.380E-06,-0.400
3.390E-06,-0.280
3.400E-06,-0.280
3.410E-06,-0.360
3.420E-06,-0.320
3.430E-06,-0.320
3.440E-06,-0.240
3.450E-06,-0.040
3.460E-06,0.080
3.470E-06,0.240
3.480E-06,0.280
3.490E-06,0.320
3.500E-06,0.160
3.510E-06,0.120
3.520E-06,-0.080
3.530E-06,-0.200
3.540E-06,-0.320
3.550E-06,-0.360
3.560E-06,-0.320
3.570E-06,-0.520
3.580E-06,-0.200
3.590E-06,-0.120
3.600E-06,-0.080
3.610E-06,0.080
3.620E-06,-0.080
3.630E-06,0.000
3.640E-06,0.080
3.650E-06,0.120
3.660E-06,0.280
3.670E-06,0.080
3.680E-06,0.040
3.690E-06,-0.040
3.700E-06,-0.080
3.710E-06,-0.040
3.720E-06,-0.120
3.730E-06,-0.160
3.740E-06,-0.160
3.750E-06,-0.160
3.760E-06,-0.040
3.770E-06,-0.120
3.780E-06,-0.200
3.790E-06,-0.240
3.800E-06,-0.320
3.810E-06,-0.160
3.820E-06,-0.040
3.830E-06,0.200
3.840E-06,0.360
3.850E-06,0.320
3.860E-06,0.160
3.870E-06,0.080
3.880E-06,-0.080
3.890E-06,0.000
3.900E-06,0.040
3.910E-06,0.040
3.920E-06,-0.160
3.930E-06,-0.640
3.940E-06,-1.560
3.950E-06,-1.400
3.960E-06,-2.000
3.970E-06,-1.200
3.980E-06,-0.440
3.990E-06,-0.440
4.000E-06,-0.040
4.010E-06,-0.480
4.020E-06,-0.440
4.030E-06,-0.160
4.040E-06,0.160
4.050E-06,0.960
4.060E-06,1.400
4.070E-06,1.760
4.080E-06,1.800
4.090E-06,1.520
4.100E-06,1.320
4.110E-06,1.120
4.120E-06,1.080
4.130E-06,1.160
4.140E-06,1.240
4.150E-06,1.160
4.160E-06,1.080
4.170E-06,0.640
4.180E-06,0.360
4.190E-06,-0.080
4.200E-06,-0.360
4.210E-06,-0.320
4.220E-06,-0.520
4.230E-06,-0.560
4.240E-06,-0.680
4.250E-06,-0.960
4.260E-06,-1.040
4.270E-06,-1.320
4.280E-06,-1.280
4.290E-06,-1.320
4.300E-06,-1.080
4.310E-06,-0.840
4.320E-06,-0.760
4.330E-06,-0.480
4.340E-06,-0.520
4.350E-06,-0.520
4.360E-06,-0.480
4.370E-06,-0.320
4.380E-06,0.000
4.390E-06,0.080
4.400E-06,0.200
4.410E-06,0.200
4.420E-06,0.160
4.430E-06,0.000
4.440E-06,-0.160
4.450E-06,-0.360
4.460E-06,-0.440
4.470E-06,-0.480
4.480E-06,-0.520
4.490E-06,-0.520
4.500E-06,-0.520
4.510E-06,-0.560
4.520E-06,-0.600
4.530E-06,-0.600
4.540E-06,-0.520
4.550E-06,-0.440
4.560E-06,-0.280
4.570E-06,0.000
4.580E-06,0.160
4.590E-06,0.200
4.600E-06,0.200
4.610E-06,-0.120
4.620E-06,-0.240
4.630E-06,-0.440
4.640E-06,-0.400
4.650E-06,-0.080
4.660E-06,0.240
4.670E-06,0.560
4.680E-06,0.720
4.690E-06,0.800
4.700E-06,0.520
4.710E-06,0.440
4.720E-06,0.440
4.730E-06,0.400
4.740E-06,0.560
4.750E-06,0.480
4.760E-06,-0.080
4.770E-06,-0.160
4.780E-06,-0.520
4.790E-06,-0.560
4.800E-06,-0.320
4.810E-06,-0.080
4.820E-06,0.320
4.830E-06,0.680
4.840E-06,0.800
4.850E-06,0.920
4.860E-06,1.080
4.870E-06,1.160
4.880E-06,1.400
4.890E-06,1.360
4.900E-06,1.480
4.910E-06,1.440
4.920E-06,1.160
4.930E-06,0.960
4.940E-06,0.440
4.950E-06,-0.120
4.960E-06,0.040
4.970E-06,-0.360
4.980E-06,0.080
4.990E-06,0.000
5.000E-06,0.080
5.010E-06,0.360
5.020E-06,0.360
5.030E-06,0.600
5.040E-06,0.800
5.050E-06,0.720
5.060E-06,0.880
5.070E-06,0.720
5.080E-06,0.840
5.090E-06,0.920
5.100E-06,0.960
5.110E-06,0.960
5.120E-06,0.680
5.130E-06,0.560
5.140E-06,0.440
5.150E-06,0.360
5.160E-06,0.400
5.170E-06,0.280
5.180E-06,0.120
5.190E-06,-0.120
5.200E-06,-0.400
5.210E-06,-0.680
5.220E-06,-0.840
5.230E-06,-1.040
5.240E-06,-1.120
5.250E-06,-1.280
5.260E-06,-1.400
5.270E-06,-1.560
5.280E-06,-1.720
5.290E-06,-1.760
5.300E-06,-1.720
5.310E-06,-1.680
5.320E-06,-1.640
5.330E-06,-1.520
5.340E-06,-1.360
5.350E-06,-1.280
5.360E-06,-1.120
5.370E-06,-1.040
5.380E-06,-0.840
5.390E-06,-0.680
5.400E-06,-0.480
5.410E-06,-0.400
5.420E-06,-0.240
5.430E-06,-0.240
5.440E-06,-0.120
5.450E-06,-0.160
5.460E-06,-0.360
5.470E-06,-0.360
5.480E-06,-0.480
5.490E-06,-0.560
5.500E-06,-0.600
5.510E-06,-0.720
5.520E-06,-0.800
5.530E-06,-0.880
5.540E-06,-0.960
5.550E-06,-1.040
5.560E-06,-1.200
5.570E-06,-1.280
5.580E-06,-1.320
5.590E-06,-1.360
5.600E-06,-1.320
5.610E-06,-1.240
5.620E-06,-1.200
5.630E-06,-1.240
5.640E-06,-1.160
5.650E-06,-1.160
5.660E-06,-1.000
5.670E-06,-0.880
5.680E-06,-0.840
5.690E-06,-0.840
5.700E-06,-0.800
5.710E-06,-1.160
5.720E-06,-1.000
5.730E-06,-0.920
5.740E-06,-0.960
5.750E-06,-0.640
5.760E-06,-0.760
5.770E-06,-1.120
5.780E-06,-0.960
5.790E-06,-0.760
5.800E-06,-0.520
5.810E-06,-0.680
5.820E-06,-1.400
5.830E-06,-2.840
5.840E-06,-3.280
5.850E-06,-3.280
5.860E-06,-1.880
5.870E-06,0.520
5.880E-06,1.520
5.890E-06,1.640
5.900E-06,0.000
5.910E-06,-1.800
5.920E-06,-2.480
5.930E-06,-2.560
5.940E-06,-0.680
5.950E-06,0.840
5.960E-06,2.080
5.970E-06,2.160
5.980E-06,1.000
5.990E-06,0.120
6.000E-06,-0.280
6.010E-06,0.080
6.020E-06,0.920
6.030E-06,1.800
6.040E-06,1.840
6.050E-06,1.440
6.060E-06,0.160
6.070E-06,-0.960
6.080E-06,-1.680
6.090E-06,-2.160
6.100E-06,-2.200
6.110E-06,-2.360
6.120E-06,-2.480
6.130E-06,-2.840
6.140E-06,-2.920
6.150E-06,-2.840
6.160E-06,-2.520
6.170E-06,-2.360
6.180E-06,-2.160
6.190E-06,-2.040
6.200E-06,-1.920
6.210E-06,-1.800
6.220E-06,-1.720
6.230E-06,-1.560
6.240E-06,-1.360
6.250E-06,-1.200
6.260E-06,-0.720
6.270E-06,-0.360
6.280E-06,-0.040
6.290E-06,-0.040
6.300E-06,-0.200
6.310E-06,-0.640
6.320E-06,-0.880
6.330E-06,-1.200
6.340E-06,-1.280
6.350E-06,-1.240
6.360E-06,-1.280
6.370E-06,-1.240
6.380E-06,-1.360
6.390E-06,-1.480
6.400E-06,-1.560
6.410E-06,-1.680
6.420E-06,-1.600
6.430E-06,-1.480
6.440E-06,-1.360
6.450E-06,-1.240
6.460E-06,-1.200
6.470E-06,-1.120
6.480E-06,-1.240
6.490E-06,-1.240
6.500E-06,-1.240
6.510E-06,-1.280
6.520E-06,-1.080
6.530E-06,-1.000
6.540E-06,-0.840
6.550E-06,-0.760
6.560E-06,-0.720
6.570E-06,-0.720
6.580E-06,-0.840
6.590E-06,-1.400
6.600E-06,-1.400
6.610E-06,-2.000
6.620E-06,-2.240
6.630E-06,-2.760
6.640E-06,-2.840
6.650E-06,-3.200
6.660E-06,-2.720
6.670E-06,-4.480
6.680E-06,-2.240
6.690E-06,-3.200
6.700E-06,-2.920
6.710E-06,-1.880
6.720E-06,-2.360
6.730E-06,-1.480
6.740E-06,-1.800
6.750E-06,-1.720
6.760E-06,-1.360
6.770E-06,-1.880
6.780E-06,-1.560
6.790E-06,-1.400
6.800E-06,-1.040
6.810E-06,0.080
6.820E-06,0.000
6.830E-06,-0.080
6.840E-06,-0.360
6.850E-06,-0.760
6.860E-06,-0.680
6.870E-06,-0.480
6.880E-06,-0.480
6.890E-06,-0.520
6.900E-06,-0.800
6.910E-06,-1.320
6.920E-06,-1.640
6.930E-06,-1.880
6.940E-06,-2.080
6.950E-06,-2.160
6.960E-06,-2.360
6.970E-06,-2.440
6.980E-06,-2.560
6.990E-06,-2.720
7.000E-06,-2.760
7.010E-06,-2.720
7.020E-06,-2.560
7.030E-06,-2.320
7.040E-06,-1.960
7.050E-06,-1.600
7.060E-06,-1.240
7.070E-06,-0.960
7.080E-06,-0.680
7.090E-06,-0.320
7.100E-06,-0.160
7.110E-06,0.240
7.120E-06,0.440
7.130E-06,0.520
7.140E-06,0.480
7.150E-06,0.360
7.160E-06,0.160
7.170E-06,0.040
7.180E-06,-0.040
7.190E-06,-0.040
7.200E-06,-0.120
7.210E-06,-0.080
7.220E-06,-0.240
7.230E-06,-0.360
7.240E-06,-0.400
7.250E-06,-0.520
7.260E-06,-0.520
7.270E-06,-0.520
7.280E-06,-0.600
7.290E-06,-0.720
7.300E-06,-0.720
7.310E-06,-1.160
7.320E-06,-1.600
7.330E-06,-2.440
7.340E-06,-1.720
7.350E-06,-1.320
7.360E-06,-2.960
7.370E-06,-0.960
7.380E-06,-0.840
7.390E-06,0.520
7.400E-06,1.000
7.410E-06,1.440
7.420E-06,1.200
7.430E-06,-0.520
7.440E-06,-1.440
7.450E-06,-1.040
7.460E-06,0.000
7.470E-06,1.680
7.480E-06,1.560
7.490E-06,0.720
7.500E-06,-0.320
7.510E-06,-0.960
7.520E-06,-0.880
7.530E-06,-0.400
7.540E-06,0.000
7.550E-06,0.000
7.560E-06,-0.480
7.570E-06,-1.080
7.580E-06,-1.480
7.590E-06,-1.800
7.600E-06,-1.960
7.610E-06,-2.000
7.620E-06,-1.880
7.630E-06,-1.800
7.640E-06,-1.720
7.650E-06,-1.960
7.660E-06,-2.280
7.670E-06,-2.480
7.680E-06,-2.440
7.690E-06,-2.120
7.700E-06,-1.400
7.710E-06,-0.880
7.720E-06,-0.560
7.730E-06,-0.480
7.740E-06,-0.440
7.750E-06,-0.480
7.760E-06,-0.280
7.770E-06,0.160
7.780E-06,0.600
7.790E-06,1.000
7.800E-06,0.960
7.810E-06,0.920
7.820E-06,0.480
7.830E-06,0.080
7.840E-06,-0.080
7.850E-06,-0.160
7.860E-06,0.000
7.870E-06,0.000
7.880E-06,-0.160
7.890E-06,-0.320
7.900E-06,-0.680
7.910E-06,-0.920
7.920E-06,-1.000
7.930E-06,-0.920
7.940E-06,-0.520
7.950E-06,-0.080
7.960E-06,-0.080
7.970E-06,0.400
7.980E-06,-0.320
7.990E-06,-1.400
8.000E-06,-2.360
8.010E-06,-2.400
8.020E-06,-1.760
8.030E-06,-2.160
