mediciones/5-15 mala escala/42.3/WaveData4658.csv

#timebase=2000000(ps)
,#voltbase=100000(mv/100)
#size=4000
-8.400E-06,0.008
-8.390E-06,0.008
-8.380E-06,0.016
-8.370E-06,0.012
-8.360E-06,0.004
-8.350E-06,-0.012
-8.340E-06,-0.004
-8.330E-06,0.000
-8.320E-06,0.008
-8.310E-06,0.008
-8.300E-06,0.008
-8.290E-06,0.008
-8.280E-06,0.008
-8.270E-06,-0.004
-8.260E-06,0.000
-8.250E-06,0.004
-8.240E-06,-0.004
-8.230E-06,0.000
-8.220E-06,0.000
-8.210E-06,0.008
-8.200E-06,0.008
-8.190E-06,0.012
-8.180E-06,0.000
-8.170E-06,-0.008
-8.160E-06,-0.004
-8.150E-06,0.000
-8.140E-06,0.000
-8.130E-06,0.004
-8.120E-06,0.012
-8.110E-06,0.012
-8.100E-06,0.008
-8.090E-06,-0.004
-8.080E-06,0.000
-8.070E-06,-0.008
-8.060E-06,0.008
-8.050E-06,0.004
-8.040E-06,0.004
-8.030E-06,0.008
-8.020E-06,0.000
-8.010E-06,0.000
-8.000E-06,-0.004
-7.990E-06,0.004
-7.980E-06,-0.004
-7.970E-06,-0.008
-7.960E-06,-0.004
-7.950E-06,0.000
-7.940E-06,0.008
-7.930E-06,0.012
-7.920E-06,0.012
-7.910E-06,0.008
-7.900E-06,-0.016
-7.890E-06,-0.008
-7.880E-06,0.000
-7.870E-06,0.012
-7.860E-06,0.012
-7.850E-06,0.012
-7.840E-06,0.000
-7.830E-06,-0.016
-7.820E-06,-0.012
-7.810E-06,0.004
-7.800E-06,0.024
-7.790E-06,0.028
-7.780E-06,0.016
-7.770E-06,-0.012
-7.760E-06,-0.020
-7.750E-06,-0.008
-7.740E-06,0.008
-7.730E-06,0.024
-7.720E-06,0.028
-7.710E-06,0.008
-7.700E-06,0.000
-7.690E-06,-0.008
-7.680E-06,-0.008
-7.670E-06,-0.004
-7.660E-06,0.008
-7.650E-06,0.016
-7.640E-06,0.008
-7.630E-06,0.004
-7.620E-06,0.000
-7.610E-06,0.000
-7.600E-06,0.000
-7.590E-06,0.000
-7.580E-06,0.004
-7.570E-06,0.004
-7.560E-06,0.012
-7.550E-06,0.012
-7.540E-06,0.008
-7.530E-06,0.000
-7.520E-06,-0.008
-7.510E-06,-0.008
-7.500E-06,0.000
-7.490E-06,0.008
-7.480E-06,0.012
-7.470E-06,0.012
-7.460E-06,0.012
-7.450E-06,-0.004
-7.440E-06,-0.008
-7.430E-06,-0.004
-7.420E-06,0.000
-7.410E-06,0.008
-7.400E-06,0.012
-7.390E-06,0.012
-7.380E-06,0.008
-7.370E-06,0.000
-7.360E-06,-0.004
-7.350E-06,-0.008
-7.340E-06,0.000
-7.330E-06,0.012
-7.320E-06,0.024
-7.310E-06,0.020
-7.300E-06,0.008
-7.290E-06,-0.004
-7.280E-06,-0.012
-7.270E-06,0.000
-7.260E-06,0.000
-7.250E-06,0.012
-7.240E-06,0.012
-7.230E-06,0.008
-7.220E-06,0.000
-7.210E-06,0.000
-7.200E-06,0.000
-7.190E-06,0.004
-7.180E-06,0.000
-7.170E-06,0.008
-7.160E-06,-0.024
-7.150E-06,-0.004
-7.140E-06,-0.004
-7.130E-06,-0.004
-7.120E-06,0.024
-7.110E-06,0.032
-7.100E-06,0.024
-7.090E-06,-0.020
-7.080E-06,-0.040
-7.070E-06,-0.040
-7.060E-06,0.008
-7.050E-06,0.040
-7.040E-06,0.056
-7.030E-06,0.036
-7.020E-06,0.000
-7.010E-06,-0.036
-7.000E-06,-0.040
-6.990E-06,-0.008
-6.980E-06,0.020
-6.970E-06,0.044
-6.960E-06,0.040
-6.950E-06,0.032
-6.940E-06,-0.016
-6.930E-06,-0.028
-6.920E-06,-0.036
-6.910E-06,-0.020
-6.900E-06,-0.008
-6.890E-06,0.008
-6.880E-06,0.020
-6.870E-06,0.028
-6.860E-06,0.040
-6.850E-06,0.040
-6.840E-06,0.000
-6.830E-06,-0.044
-6.820E-06,-0.112
-6.810E-06,-0.012
-6.800E-06,0.028
-6.790E-06,0.120
-6.780E-06,0.064
-6.770E-06,0.020
-6.760E-06,0.004
-6.750E-06,-0.060
-6.740E-06,-0.128
-6.730E-06,-0.064
-6.720E-06,0.088
-6.710E-06,0.092
-6.700E-06,0.084
-6.690E-06,0.020
-6.680E-06,-0.020
-6.670E-06,-0.076
-6.660E-06,-0.068
-6.650E-06,-0.028
-6.640E-06,0.028
-6.630E-06,0.072
-6.620E-06,0.072
-6.610E-06,0.048
-6.600E-06,-0.024
-6.590E-06,-0.056
-6.580E-06,-0.056
-6.570E-06,-0.008
-6.560E-06,0.024
-6.550E-06,0.052
-6.540E-06,0.040
-6.530E-06,0.020
-6.520E-06,-0.008
-6.510E-06,-0.036
-6.500E-06,-0.032
-6.490E-06,-0.020
-6.480E-06,-0.004
-6.470E-06,0.004
-6.460E-06,0.040
-6.450E-06,0.040
-6.440E-06,0.024
-6.430E-06,-0.008
-6.420E-06,-0.044
-6.410E-06,-0.048
-6.400E-06,-0.024
-6.390E-06,0.024
-6.380E-06,0.048
-6.370E-06,0.060
-6.360E-06,0.016
-6.350E-06,-0.016
-6.340E-06,-0.048
-6.330E-06,-0.032
-6.320E-06,-0.004
-6.310E-06,0.036
-6.300E-06,0.052
-6.290E-06,0.024
-6.280E-06,0.000
-6.270E-06,-0.016
-6.260E-06,-0.024
-6.250E-06,-0.008
-6.240E-06,0.008
-6.230E-06,0.024
-6.220E-06,0.028
-6.210E-06,0.016
-6.200E-06,0.000
-6.190E-06,-0.004
-6.180E-06,-0.008
-6.170E-06,-0.012
-6.160E-06,-0.004
-6.150E-06,0.012
-6.140E-06,0.020
-6.130E-06,0.028
-6.120E-06,0.016
-6.110E-06,-0.004
-6.100E-06,-0.008
-6.090E-06,-0.012
-6.080E-06,-0.004
-6.070E-06,0.008
-6.060E-06,0.020
-6.050E-06,0.024
-6.040E-06,0.024
-6.030E-06,0.012
-6.020E-06,-0.008
-6.010E-06,-0.004
-6.000E-06,-0.008
-5.990E-06,-0.004
-5.980E-06,0.004
-5.970E-06,0.004
-5.960E-06,0.004
-5.950E-06,0.008
-5.940E-06,0.000
-5.930E-06,0.000
-5.920E-06,-0.008
-5.910E-06,-0.016
-5.900E-06,-0.004
-5.890E-06,0.020
-5.880E-06,0.036
-5.870E-06,0.020
-5.860E-06,0.012
-5.850E-06,-0.012
-5.840E-06,-0.040
-5.830E-06,-0.040
-5.820E-06,-0.008
-5.810E-06,0.040
-5.800E-06,0.056
-5.790E-06,0.040
-5.780E-06,-0.004
-5.770E-06,-0.040
-5.760E-06,-0.052
-5.750E-06,-0.028
-5.740E-06,0.012
-5.730E-06,0.044
-5.720E-06,0.048
-5.710E-06,0.020
-5.700E-06,-0.004
-5.690E-06,-0.024
-5.680E-06,-0.032
-5.670E-06,-0.012
-5.660E-06,0.008
-5.650E-06,0.024
-5.640E-06,0.028
-5.630E-06,0.016
-5.620E-06,0.004
-5.610E-06,0.000
-5.600E-06,-0.008
-5.590E-06,-0.012
-5.580E-06,-0.004
-5.570E-06,0.008
-5.560E-06,0.016
-5.550E-06,0.024
-5.540E-06,0.016
-5.530E-06,0.004
-5.520E-06,-0.004
-5.510E-06,-0.004
-5.500E-06,-0.004
-5.490E-06,0.016
-5.480E-06,0.016
-5.470E-06,0.024
-5.460E-06,0.024
-5.450E-06,0.008
-5.440E-06,-0.004
-5.430E-06,-0.012
-5.420E-06,-0.020
-5.410E-06,-0.020
-5.400E-06,0.008
-5.390E-06,0.028
-5.380E-06,0.044
-5.370E-06,0.040
-5.360E-06,0.012
-5.350E-06,-0.028
-5.340E-06,-0.036
-5.330E-06,-0.028
-5.320E-06,0.004
-5.310E-06,0.040
-5.300E-06,0.044
-5.290E-06,0.028
-5.280E-06,-0.004
-5.270E-06,-0.036
-5.260E-06,-0.032
-5.250E-06,-0.008
-5.240E-06,0.024
-5.230E-06,0.052
-5.220E-06,0.032
-5.210E-06,0.000
-5.200E-06,-0.032
-5.190E-06,-0.028
-5.180E-06,-0.008
-5.170E-06,0.004
-5.160E-06,0.024
-5.150E-06,0.000
-5.140E-06,-0.004
-5.130E-06,-0.008
-5.120E-06,0.000
-5.110E-06,0.008
-5.100E-06,0.004
-5.090E-06,-0.008
-5.080E-06,-0.012
-5.070E-06,-0.012
-5.060E-06,0.000
-5.050E-06,0.008
-5.040E-06,0.024
-5.030E-06,0.016
-5.020E-06,-0.008
-5.010E-06,-0.004
-5.000E-06,0.000
-4.990E-06,0.008
-4.980E-06,0.020
-4.970E-06,0.032
-4.960E-06,0.016
-4.950E-06,0.000
-4.940E-06,-0.020
-4.930E-06,-0.024
-4.920E-06,-0.004
-4.910E-06,0.008
-4.900E-06,0.024
-4.890E-06,0.016
-4.880E-06,0.004
-4.870E-06,-0.008
-4.860E-06,-0.012
-4.850E-06,-0.004
-4.840E-06,0.004
-4.830E-06,0.012
-4.820E-06,0.016
-4.810E-06,0.012
-4.800E-06,0.008
-4.790E-06,-0.004
-4.780E-06,-0.004
-4.770E-06,0.000
-4.760E-06,0.008
-4.750E-06,0.016
-4.740E-06,0.016
-4.730E-06,0.016
-4.720E-06,0.004
-4.710E-06,0.004
-4.700E-06,0.004
-4.690E-06,0.008
-4.680E-06,-0.004
-4.670E-06,0.000
-4.660E-06,-0.004
-4.650E-06,0.000
-4.640E-06,0.004
-4.630E-06,0.008
-4.620E-06,0.000
-4.610E-06,-0.024
-4.600E-06,0.004
-4.590E-06,-0.008
-4.580E-06,0.008
-4.570E-06,0.028
-4.560E-06,0.040
-4.550E-06,-0.012
-4.540E-06,-0.064
-4.530E-06,-0.036
-4.520E-06,-0.008
-4.510E-06,0.056
-4.500E-06,0.056
-4.490E-06,0.044
-4.480E-06,-0.024
-4.470E-06,-0.052
-4.460E-06,-0.044
-4.450E-06,-0.004
-4.440E-06,0.040
-4.430E-06,0.060
-4.420E-06,0.040
-4.410E-06,-0.004
-4.400E-06,-0.016
-4.390E-06,-0.032
-4.380E-06,-0.008
-4.370E-06,0.024
-4.360E-06,0.032
-4.350E-06,0.024
-4.340E-06,0.004
-4.330E-06,-0.028
-4.320E-06,-0.024
-4.310E-06,0.000
-4.300E-06,0.016
-4.290E-06,0.020
-4.280E-06,0.012
-4.270E-06,0.012
-4.260E-06,-0.004
-4.250E-06,0.000
-4.240E-06,0.000
-4.230E-06,0.008
-4.220E-06,0.004
-4.210E-06,0.000
-4.200E-06,0.000
-4.190E-06,0.004
-4.180E-06,0.012
-4.170E-06,0.004
-4.160E-06,0.000
-4.150E-06,-0.004
-4.140E-06,-0.008
-4.130E-06,-0.004
-4.120E-06,0.020
-4.110E-06,0.020
-4.100E-06,0.024
-4.090E-06,0.012
-4.080E-06,-0.008
-4.070E-06,-0.008
-4.060E-06,-0.004
-4.050E-06,0.004
-4.040E-06,0.012
-4.030E-06,0.024
-4.020E-06,0.012
-4.010E-06,0.000
-4.000E-06,-0.008
-3.990E-06,-0.012
-3.980E-06,-0.008
-3.970E-06,0.008
-3.960E-06,0.024
-3.950E-06,0.000
-3.940E-06,-0.012
-3.930E-06,-0.016
-3.920E-06,0.000
-3.910E-06,0.028
-3.900E-06,0.044
-3.890E-06,0.036
-3.880E-06,-0.004
-3.870E-06,-0.020
-3.860E-06,-0.032
-3.850E-06,-0.004
-3.840E-06,0.020
-3.830E-06,0.040
-3.820E-06,0.028
-3.810E-06,-0.008
-3.800E-06,-0.044
-3.790E-06,-0.040
-3.780E-06,-0.008
-3.770E-06,0.032
-3.760E-06,0.064
-3.750E-06,0.044
-3.740E-06,0.008
-3.730E-06,-0.060
-3.720E-06,-0.064
-3.710E-06,-0.040
-3.700E-06,0.024
-3.690E-06,0.072
-3.680E-06,0.068
-3.670E-06,0.036
-3.660E-06,-0.020
-3.650E-06,-0.068
-3.640E-06,-0.084
-3.630E-06,-0.032
-3.620E-06,0.020
-3.610E-06,0.068
-3.600E-06,0.060
-3.590E-06,0.036
-3.580E-06,-0.020
-3.570E-06,-0.044
-3.560E-06,-0.040
-3.550E-06,-0.024
-3.540E-06,0.024
-3.530E-06,0.036
-3.520E-06,0.040
-3.510E-06,0.020
-3.500E-06,0.000
-3.490E-06,-0.024
-3.480E-06,-0.020
-3.470E-06,-0.008
-3.460E-06,0.004
-3.450E-06,0.012
-3.440E-06,0.016
-3.430E-06,0.016
-3.420E-06,0.008
-3.410E-06,0.000
-3.400E-06,-0.008
-3.390E-06,-0.008
-3.380E-06,-0.004
-3.370E-06,0.008
-3.360E-06,0.024
-3.350E-06,0.024
-3.340E-06,0.016
-3.330E-06,-0.008
-3.320E-06,-0.016
-3.310E-06,-0.024
-3.300E-06,0.000
-3.290E-06,0.012
-3.280E-06,0.032
-3.270E-06,0.036
-3.260E-06,0.036
-3.250E-06,0.012
-3.240E-06,-0.016
-3.230E-06,-0.040
-3.220E-06,-0.048
-3.210E-06,-0.004
-3.200E-06,0.044
-3.190E-06,0.068
-3.180E-06,0.056
-3.170E-06,0.016
-3.160E-06,-0.024
-3.150E-06,-0.060
-3.140E-06,-0.040
-3.130E-06,-0.004
-3.120E-06,0.036
-3.110E-06,0.056
-3.100E-06,0.032
-3.090E-06,-0.004
-3.080E-06,-0.028
-3.070E-06,-0.032
-3.060E-06,-0.024
-3.050E-06,0.000
-3.040E-06,0.032
-3.030E-06,0.040
-3.020E-06,0.032
-3.010E-06,-0.004
-3.000E-06,-0.032
-2.990E-06,-0.036
-2.980E-06,-0.020
-2.970E-06,0.012
-2.960E-06,0.032
-2.950E-06,0.040
-2.940E-06,0.020
-2.930E-06,0.000
-2.920E-06,-0.028
-2.910E-06,-0.024
-2.900E-06,-0.008
-2.890E-06,0.008
-2.880E-06,0.024
-2.870E-06,0.028
-2.860E-06,0.016
-2.850E-06,0.008
-2.840E-06,-0.012
-2.830E-06,-0.004
-2.820E-06,-0.008
-2.810E-06,0.004
-2.800E-06,0.012
-2.790E-06,0.024
-2.780E-06,0.012
-2.770E-06,0.012
-2.760E-06,0.004
-2.750E-06,0.000
-2.740E-06,0.000
-2.730E-06,0.008
-2.720E-06,0.000
-2.710E-06,0.004
-2.700E-06,0.008
-2.690E-06,0.004
-2.680E-06,0.000
-2.670E-06,0.004
-2.660E-06,0.004
-2.650E-06,-0.004
-2.640E-06,0.000
-2.630E-06,0.004
-2.620E-06,0.008
-2.610E-06,0.016
-2.600E-06,0.024
-2.590E-06,0.012
-2.580E-06,-0.004
-2.570E-06,-0.004
-2.560E-06,-0.004
-2.550E-06,0.000
-2.540E-06,0.008
-2.530E-06,0.016
-2.520E-06,0.012
-2.510E-06,0.008
-2.500E-06,0.008
-2.490E-06,0.008
-2.480E-06,0.012
-2.470E-06,0.020
-2.460E-06,0.008
-2.450E-06,0.008
-2.440E-06,-0.008
-2.430E-06,-0.016
-2.420E-06,-0.004
-2.410E-06,-0.004
-2.400E-06,0.008
-2.390E-06,0.012
-2.380E-06,0.008
-2.370E-06,0.008
-2.360E-06,0.016
-2.350E-06,0.008
-2.340E-06,0.000
-2.330E-06,-0.008
-2.320E-06,-0.008
-2.310E-06,0.012
-2.300E-06,0.020
-2.290E-06,0.028
-2.280E-06,0.024
-2.270E-06,0.008
-2.260E-06,0.008
-2.250E-06,-0.008
-2.240E-06,-0.008
-2.230E-06,-0.004
-2.220E-06,0.008
-2.210E-06,0.008
-2.200E-06,0.008
-2.190E-06,0.008
-2.180E-06,0.000
-2.170E-06,0.000
-2.160E-06,0.008
-2.150E-06,0.012
-2.140E-06,0.016
-2.130E-06,0.012
-2.120E-06,0.012
-2.110E-06,0.012
-2.100E-06,0.012
-2.090E-06,0.004
-2.080E-06,0.000
-2.070E-06,-0.008
-2.060E-06,-0.004
-2.050E-06,0.000
-2.040E-06,0.004
-2.030E-06,0.004
-2.020E-06,0.012
-2.010E-06,0.012
-2.000E-06,0.012
-1.990E-06,0.012
-1.980E-06,0.000
-1.970E-06,0.004
-1.960E-06,0.012
-1.950E-06,0.028
-1.940E-06,0.040
-1.930E-06,0.040
-1.920E-06,0.032
-1.910E-06,0.028
-1.900E-06,0.016
-1.890E-06,0.028
-1.880E-06,0.064
-1.870E-06,0.088
-1.860E-06,0.080
-1.850E-06,0.032
-1.840E-06,-0.016
-1.830E-06,-0.040
-1.820E-06,-0.028
-1.810E-06,0.016
-1.800E-06,0.060
-1.790E-06,0.072
-1.780E-06,0.048
-1.770E-06,-0.008
-1.760E-06,-0.072
-1.750E-06,-0.104
-1.740E-06,-0.092
-1.730E-06,-0.036
-1.720E-06,0.032
-1.710E-06,0.100
-1.700E-06,0.096
-1.690E-06,0.060
-1.680E-06,0.004
-1.670E-06,-0.096
-1.660E-06,-0.144
-1.650E-06,-0.188
-1.640E-06,-0.128
-1.630E-06,0.004
-1.620E-06,0.132
-1.610E-06,0.156
-1.600E-06,0.060
-1.590E-06,-0.072
-1.580E-06,-0.144
-1.570E-06,-0.112
-1.560E-06,-0.020
-1.550E-06,0.072
-1.540E-06,0.112
-1.530E-06,0.100
-1.520E-06,0.072
-1.510E-06,0.044
-1.500E-06,0.004
-1.490E-06,-0.040
-1.480E-06,-0.072
-1.470E-06,-0.064
-1.460E-06,-0.024
-1.450E-06,0.024
-1.440E-06,0.056
-1.430E-06,0.056
-1.420E-06,0.028
-1.410E-06,-0.008
-1.400E-06,-0.052
-1.390E-06,-0.044
-1.380E-06,-0.004
-1.370E-06,0.036
-1.360E-06,0.060
-1.350E-06,0.076
-1.340E-06,0.056
-1.330E-06,0.024
-1.320E-06,0.024
-1.310E-06,0.060
-1.300E-06,0.076
-1.290E-06,0.056
-1.280E-06,0.024
-1.270E-06,-0.024
-1.260E-06,-0.020
-1.250E-06,0.004
-1.240E-06,0.040
-1.230E-06,0.052
-1.220E-06,0.060
-1.210E-06,0.040
-1.200E-06,0.036
-1.190E-06,0.048
-1.180E-06,0.032
-1.170E-06,0.028
-1.160E-06,0.000
-1.150E-06,-0.004
-1.140E-06,0.000
-1.130E-06,0.064
-1.120E-06,0.112
-1.110E-06,0.156
-1.100E-06,0.136
-1.090E-06,0.060
-1.080E-06,-0.020
-1.070E-06,-0.136
-1.060E-06,-0.144
-1.050E-06,-0.124
-1.040E-06,-0.032
-1.030E-06,0.028
-1.020E-06,0.072
-1.010E-06,0.096
-1.000E-06,0.020
-9.900E-07,-0.016
-9.800E-07,-0.044
-9.700E-07,-0.096
-9.600E-07,-0.096
-9.500E-07,-0.064
-9.400E-07,-0.056
-9.300E-07,-0.016
-9.200E-07,0.000
-9.100E-07,0.004
-9.000E-07,-0.036
-8.900E-07,-0.088
-8.800E-07,-0.128
-8.700E-07,-0.044
-8.600E-07,0.076
-8.500E-07,0.136
-8.400E-07,0.124
-8.300E-07,0.044
-8.200E-07,-0.036
-8.100E-07,-0.084
-8.000E-07,-0.084
-7.900E-07,-0.024
-7.800E-07,0.068
-7.700E-07,0.140
-7.600E-07,0.168
-7.500E-07,0.148
-7.400E-07,0.088
-7.300E-07,0.004
-7.200E-07,-0.060
-7.100E-07,-0.096
-7.000E-07,-0.080
-6.900E-07,-0.028
-6.800E-07,0.044
-6.700E-07,0.144
-6.600E-07,0.200
-6.500E-07,0.196
-6.400E-07,0.124
-6.300E-07,0.028
-6.200E-07,-0.072
-6.100E-07,-0.116
-6.000E-07,-0.100
-5.900E-07,-0.040
-5.800E-07,-0.036
-5.700E-07,-0.028
-5.600E-07,-0.072
-5.500E-07,-0.076
-5.400E-07,-0.020
-5.300E-07,0.000
-5.200E-07,0.040
-5.100E-07,0.024
-5.000E-07,-0.008
-4.900E-07,-0.056
-4.800E-07,-0.056
-4.700E-07,-0.016
-4.600E-07,0.020
-4.500E-07,0.052
-4.400E-07,0.060
-4.300E-07,0.040
-4.200E-07,0.024
-4.100E-07,0.032
-4.000E-07,0.024
-3.900E-07,0.048
-3.800E-07,0.076
-3.700E-07,0.100
-3.600E-07,0.092
-3.500E-07,0.088
-3.400E-07,0.064
-3.300E-07,0.064
-3.200E-07,0.080
-3.100E-07,0.088
-3.000E-07,0.088
-2.900E-07,0.076
-2.800E-07,0.064
-2.700E-07,0.076
-2.600E-07,0.112
-2.500E-07,0.144
-2.400E-07,0.180
-2.300E-07,0.176
-2.200E-07,0.156
-2.100E-07,0.128
-2.000E-07,0.084
-1.900E-07,0.044
-1.800E-07,-0.004
-1.700E-07,-0.012
-1.600E-07,-0.028
-1.500E-07,-0.020
-1.400E-07,-0.008
-1.300E-07,-0.004
-1.200E-07,0.024
-1.100E-07,0.056
-1.000E-07,0.128
-9.000E-08,0.124
-8.000E-08,0.164
-7.000E-08,0.152
-6.000E-08,-0.044
-5.000E-08,-0.504
-4.000E-08,-0.508
-3.000E-08,-0.512
-2.000E-08,-0.508
-1.000E-08,0.164
0.000E+00,0.536
1.000E-08,0.540
2.000E-08,0.452
3.000E-08,-0.176
4.000E-08,-0.508
5.000E-08,-0.512
6.000E-08,-0.360
7.000E-08,0.220
8.000E-08,0.544
9.000E-08,0.544
1.000E-07,0.352
1.100E-07,-0.080
1.200E-07,-0.408
1.300E-07,-0.404
1.400E-07,-0.232
1.500E-07,-0.016
1.600E-07,0.216
1.700E-07,0.280
1.800E-07,0.196
1.900E-07,0.012
2.000E-07,-0.132
2.100E-07,-0.308
2.200E-07,-0.296
2.300E-07,-0.128
2.400E-07,0.088
2.500E-07,0.216
2.600E-07,0.264
2.700E-07,0.136
2.800E-07,-0.036
2.900E-07,-0.160
3.000E-07,-0.140
3.100E-07,-0.028
3.200E-07,0.096
3.300E-07,0.176
3.400E-07,0.128
3.500E-07,0.060
3.600E-07,-0.028
3.700E-07,-0.056
3.800E-07,-0.056
3.900E-07,-0.012
4.000E-07,0.028
4.100E-07,0.036
4.200E-07,0.032
4.300E-07,0.052
4.400E-07,0.076
4.500E-07,0.024
4.600E-07,0.040
4.700E-07,0.048
4.800E-07,0.104
4.900E-07,0.156
5.000E-07,0.220
5.100E-07,0.244
5.200E-07,0.240
5.300E-07,0.200
5.400E-07,0.164
5.500E-07,0.136
5.600E-07,0.104
5.700E-07,0.124
5.800E-07,0.144
5.900E-07,0.176
6.000E-07,0.156
6.100E-07,0.128
6.200E-07,0.096
6.300E-07,0.100
6.400E-07,0.088
6.500E-07,0.108
6.600E-07,0.152
6.700E-07,0.152
6.800E-07,0.204
6.900E-07,0.132
7.000E-07,0.004
7.100E-07,-0.108
7.200E-07,-0.376
7.300E-07,-0.508
7.400E-07,-0.512
7.500E-07,-0.476
7.600E-07,-0.304
7.700E-07,-0.024
7.800E-07,0.344
7.900E-07,0.364
8.000E-07,0.276
8.100E-07,0.060
8.200E-07,-0.512
8.300E-07,-0.512
8.400E-07,-0.388
8.500E-07,0.168
8.600E-07,0.404
8.700E-07,0.304
8.800E-07,-0.084
8.900E-07,-0.468
9.000E-07,-0.508
9.100E-07,-0.376
9.200E-07,-0.072
9.300E-07,0.168
9.400E-07,0.324
9.500E-07,0.288
9.600E-07,0.136
9.700E-07,-0.100
9.800E-07,-0.236
9.900E-07,-0.288
1.000E-06,-0.164
1.010E-06,0.092
1.020E-06,0.284
1.030E-06,0.340
1.040E-06,0.180
1.050E-06,-0.068
1.060E-06,-0.288
1.070E-06,-0.260
1.080E-06,-0.108
1.090E-06,0.044
1.100E-06,0.200
1.110E-06,0.296
1.120E-06,0.232
1.130E-06,0.028
1.140E-06,-0.088
1.150E-06,-0.100
1.160E-06,-0.004
1.170E-06,0.076
1.180E-06,0.200
1.190E-06,0.236
1.200E-06,0.168
1.210E-06,0.004
1.220E-06,-0.124
1.230E-06,-0.112
1.240E-06,-0.024
1.250E-06,0.156
1.260E-06,0.276
1.270E-06,0.328
1.280E-06,0.268
1.290E-06,0.192
1.300E-06,0.108
1.310E-06,0.056
1.320E-06,0.080
1.330E-06,0.152
1.340E-06,0.256
1.350E-06,0.292
1.360E-06,0.260
1.370E-06,0.172
1.380E-06,0.136
1.390E-06,0.128
1.400E-06,0.168
1.410E-06,0.256
1.420E-06,0.320
1.430E-06,0.332
1.440E-06,0.304
1.450E-06,0.236
1.460E-06,0.168
1.470E-06,0.144
1.480E-06,0.104
1.490E-06,0.076
1.500E-06,0.060
1.510E-06,0.128
1.520E-06,0.148
1.530E-06,0.200
1.540E-06,0.144
1.550E-06,0.024
1.560E-06,-0.224
1.570E-06,-0.384
1.580E-06,-0.456
1.590E-06,-0.244
1.600E-06,-0.088
1.610E-06,-0.132
1.620E-06,-0.044
1.630E-06,-0.288
1.640E-06,-0.364
1.650E-06,-0.436
1.660E-06,-0.152
1.670E-06,0.076
1.680E-06,0.220
1.690E-06,0.168
1.700E-06,0.000
1.710E-06,-0.308
1.720E-06,-0.508
1.730E-06,-0.512
1.740E-06,-0.512
1.750E-06,-0.304
1.760E-06,0.000
1.770E-06,0.272
1.780E-06,0.276
1.790E-06,0.136
1.800E-06,-0.088
1.810E-06,-0.252
1.820E-06,-0.160
1.830E-06,0.040
1.840E-06,0.316
1.850E-06,0.428
1.860E-06,0.440
1.870E-06,0.220
1.880E-06,0.056
1.890E-06,-0.100
1.900E-06,-0.036
1.910E-06,0.096
1.920E-06,0.276
1.930E-06,0.384
1.940E-06,0.372
1.950E-06,0.320
1.960E-06,0.188
1.970E-06,0.104
1.980E-06,0.024
1.990E-06,0.108
2.000E-06,0.224
2.010E-06,0.376
2.020E-06,0.432
2.030E-06,0.408
2.040E-06,0.312
2.050E-06,0.192
2.060E-06,0.132
2.070E-06,0.120
2.080E-06,0.192
2.090E-06,0.276
2.100E-06,0.340
2.110E-06,0.308
2.120E-06,0.248
2.130E-06,0.160
2.140E-06,0.072
2.150E-06,0.048
2.160E-06,0.076
2.170E-06,0.136
2.180E-06,0.152
2.190E-06,0.136
2.200E-06,0.080
2.210E-06,0.036
2.220E-06,0.020
2.230E-06,0.036
2.240E-06,0.028
2.250E-06,0.000
2.260E-06,0.024
2.270E-06,0.024
2.280E-06,0.036
2.290E-06,0.072
2.300E-06,0.128
2.310E-06,0.112
2.320E-06,0.140
2.330E-06,0.124
2.340E-06,0.132
2.350E-06,0.120
2.360E-06,0.140
2.370E-06,0.180
2.380E-06,0.268
2.390E-06,0.324
2.400E-06,0.320
2.410E-06,0.300
2.420E-06,0.240
2.430E-06,0.224
2.440E-06,0.212
2.450E-06,0.256
2.460E-06,0.268
2.470E-06,0.296
2.480E-06,0.304
2.490E-06,0.284
2.500E-06,0.244
2.510E-06,0.208
2.520E-06,0.192
2.530E-06,0.208
2.540E-06,0.248
2.550E-06,0.276
2.560E-06,0.304
2.570E-06,0.288
2.580E-06,0.276
2.590E-06,0.248
2.600E-06,0.236
2.610E-06,0.236
2.620E-06,0.256
2.630E-06,0.276
2.640E-06,0.292
2.650E-06,0.308
2.660E-06,0.288
2.670E-06,0.272
2.680E-06,0.244
2.690E-06,0.244
2.700E-06,0.244
2.710E-06,0.256
2.720E-06,0.276
2.730E-06,0.288
2.740E-06,0.284
2.750E-06,0.268
2.760E-06,0.264
2.770E-06,0.252
2.780E-06,0.256
2.790E-06,0.256
2.800E-06,0.272
2.810E-06,0.276
2.820E-06,0.288
2.830E-06,0.288
2.840E-06,0.276
2.850E-06,0.264
2.860E-06,0.256
2.870E-06,0.256
2.880E-06,0.260
2.890E-06,0.276
2.900E-06,0.280
2.910E-06,0.272
2.920E-06,0.272
2.930E-06,0.268
2.940E-06,0.260
2.950E-06,0.256
2.960E-06,0.256
2.970E-06,0.260
2.980E-06,0.268
2.990E-06,0.268
3.000E-06,0.272
3.010E-06,0.280
3.020E-06,0.272
3.030E-06,0.276
3.040E-06,0.280
3.050E-06,0.272
3.060E-06,0.260
3.070E-06,0.248
3.080E-06,0.244
3.090E-06,0.244
3.100E-06,0.252
3.110E-06,0.264
3.120E-06,0.272
3.130E-06,0.268
3.140E-06,0.264
3.150E-06,0.248
3.160E-06,0.236
3.170E-06,0.232
3.180E-06,0.240
3.190E-06,0.252
3.200E-06,0.260
3.210E-06,0.260
3.220E-06,0.256
3.230E-06,0.244
3.240E-06,0.232
3.250E-06,0.228
3.260E-06,0.224
3.270E-06,0.232
3.280E-06,0.240
3.290E-06,0.248
