mediciones/5-15 mala escala/42.3/WaveData4648.csv

#timebase=2000000(ps)
,#voltbase=100000(mv/100)
#size=4000
-8.400E-06,0.000
-8.390E-06,-0.004
-8.380E-06,0.008
-8.370E-06,0.012
-8.360E-06,0.004
-8.350E-06,-0.004
-8.340E-06,0.000
-8.330E-06,0.004
-8.320E-06,0.012
-8.310E-06,0.000
-8.300E-06,0.004
-8.290E-06,0.000
-8.280E-06,0.000
-8.270E-06,0.000
-8.260E-06,0.004
-8.250E-06,0.008
-8.240E-06,0.008
-8.230E-06,0.004
-8.220E-06,0.000
-8.210E-06,-0.004
-8.200E-06,0.000
-8.190E-06,0.000
-8.180E-06,0.012
-8.170E-06,0.008
-8.160E-06,0.008
-8.150E-06,-0.004
-8.140E-06,-0.008
-8.130E-06,-0.004
-8.120E-06,0.004
-8.110E-06,0.008
-8.100E-06,0.004
-8.090E-06,-0.004
-8.080E-06,-0.008
-8.070E-06,-0.008
-8.060E-06,0.008
-8.050E-06,0.020
-8.040E-06,0.024
-8.030E-06,0.008
-8.020E-06,-0.004
-8.010E-06,-0.008
-8.000E-06,-0.008
-7.990E-06,0.000
-7.980E-06,0.012
-7.970E-06,0.012
-7.960E-06,0.008
-7.950E-06,0.004
-7.940E-06,-0.008
-7.930E-06,-0.008
-7.920E-06,0.000
-7.910E-06,0.004
-7.900E-06,0.008
-7.890E-06,0.000
-7.880E-06,0.000
-7.870E-06,0.000
-7.860E-06,0.008
-7.850E-06,0.008
-7.840E-06,0.008
-7.830E-06,0.008
-7.820E-06,0.004
-7.810E-06,0.004
-7.800E-06,-0.004
-7.790E-06,-0.008
-7.780E-06,0.012
-7.770E-06,0.000
-7.760E-06,0.012
-7.750E-06,0.016
-7.740E-06,0.004
-7.730E-06,-0.008
-7.720E-06,-0.008
-7.710E-06,0.000
-7.700E-06,0.000
-7.690E-06,0.016
-7.680E-06,0.008
-7.670E-06,0.004
-7.660E-06,-0.008
-7.650E-06,0.008
-7.640E-06,0.004
-7.630E-06,0.008
-7.620E-06,0.000
-7.610E-06,0.004
-7.600E-06,0.008
-7.590E-06,0.004
-7.580E-06,0.000
-7.570E-06,-0.004
-7.560E-06,0.000
-7.550E-06,-0.004
-7.540E-06,0.008
-7.530E-06,0.004
-7.520E-06,0.008
-7.510E-06,0.004
-7.500E-06,0.004
-7.490E-06,-0.004
-7.480E-06,0.004
-7.470E-06,0.000
-7.460E-06,0.004
-7.450E-06,0.008
-7.440E-06,0.004
-7.430E-06,0.000
-7.420E-06,0.004
-7.410E-06,0.000
-7.400E-06,0.000
-7.390E-06,0.008
-7.380E-06,0.000
-7.370E-06,0.000
-7.360E-06,0.004
-7.350E-06,0.008
-7.340E-06,0.008
-7.330E-06,0.000
-7.320E-06,-0.004
-7.310E-06,-0.008
-7.300E-06,-0.004
-7.290E-06,0.008
-7.280E-06,0.012
-7.270E-06,0.012
-7.260E-06,0.008
-7.250E-06,-0.004
-7.240E-06,-0.004
-7.230E-06,0.000
-7.220E-06,0.008
-7.210E-06,0.004
-7.200E-06,0.008
-7.190E-06,0.000
-7.180E-06,0.000
-7.170E-06,0.004
-7.160E-06,0.008
-7.150E-06,0.008
-7.140E-06,0.000
-7.130E-06,0.000
-7.120E-06,-0.008
-7.110E-06,-0.008
-7.100E-06,0.000
-7.090E-06,0.008
-7.080E-06,0.008
-7.070E-06,0.004
-7.060E-06,0.004
-7.050E-06,0.000
-7.040E-06,-0.004
-7.030E-06,0.004
-7.020E-06,0.008
-7.010E-06,0.008
-7.000E-06,0.004
-6.990E-06,0.000
-6.980E-06,0.004
-6.970E-06,0.004
-6.960E-06,0.000
-6.950E-06,0.000
-6.940E-06,0.004
-6.930E-06,0.008
-6.920E-06,0.008
-6.910E-06,0.004
-6.900E-06,0.004
-6.890E-06,0.004
-6.880E-06,0.004
-6.870E-06,0.004
-6.860E-06,0.004
-6.850E-06,0.012
-6.840E-06,0.004
-6.830E-06,0.008
-6.820E-06,0.004
-6.810E-06,0.000
-6.800E-06,0.000
-6.790E-06,-0.004
-6.780E-06,0.000
-6.770E-06,-0.004
-6.760E-06,-0.008
-6.750E-06,0.000
-6.740E-06,0.000
-6.730E-06,0.004
-6.720E-06,0.016
-6.710E-06,0.012
-6.700E-06,0.004
-6.690E-06,-0.008
-6.680E-06,-0.004
-6.670E-06,-0.004
-6.660E-06,0.012
-6.650E-06,0.008
-6.640E-06,0.012
-6.630E-06,0.004
-6.620E-06,0.000
-6.610E-06,0.004
-6.600E-06,-0.004
-6.590E-06,0.000
-6.580E-06,0.008
-6.570E-06,0.008
-6.560E-06,0.008
-6.550E-06,0.004
-6.540E-06,-0.004
-6.530E-06,0.004
-6.520E-06,0.004
-6.510E-06,0.004
-6.500E-06,0.000
-6.490E-06,0.004
-6.480E-06,0.004
-6.470E-06,0.004
-6.460E-06,0.000
-6.450E-06,0.004
-6.440E-06,0.004
-6.430E-06,-0.004
-6.420E-06,0.000
-6.410E-06,0.000
-6.400E-06,0.008
-6.390E-06,0.012
-6.380E-06,0.012
-6.370E-06,-0.004
-6.360E-06,-0.008
-6.350E-06,-0.008
-6.340E-06,-0.004
-6.330E-06,0.016
-6.320E-06,0.012
-6.310E-06,0.012
-6.300E-06,0.004
-6.290E-06,0.000
-6.280E-06,-0.020
-6.270E-06,-0.004
-6.260E-06,0.000
-6.250E-06,0.016
-6.240E-06,0.016
-6.230E-06,0.020
-6.220E-06,0.004
-6.210E-06,-0.008
-6.200E-06,-0.004
-6.190E-06,-0.012
-6.180E-06,-0.004
-6.170E-06,0.008
-6.160E-06,0.024
-6.150E-06,0.016
-6.140E-06,0.000
-6.130E-06,-0.008
-6.120E-06,-0.004
-6.110E-06,-0.008
-6.100E-06,0.000
-6.090E-06,0.012
-6.080E-06,0.016
-6.070E-06,0.016
-6.060E-06,0.004
-6.050E-06,-0.004
-6.040E-06,-0.008
-6.030E-06,-0.012
-6.020E-06,-0.008
-6.010E-06,0.012
-6.000E-06,0.016
-5.990E-06,0.008
-5.980E-06,0.008
-5.970E-06,-0.008
-5.960E-06,-0.008
-5.950E-06,-0.004
-5.940E-06,0.004
-5.930E-06,0.012
-5.920E-06,0.020
-5.910E-06,0.008
-5.900E-06,0.000
-5.890E-06,-0.004
-5.880E-06,-0.008
-5.870E-06,0.004
-5.860E-06,0.016
-5.850E-06,0.008
-5.840E-06,0.008
-5.830E-06,0.012
-5.820E-06,0.000
-5.810E-06,-0.008
-5.800E-06,-0.004
-5.790E-06,0.004
-5.780E-06,0.016
-5.770E-06,0.028
-5.760E-06,0.016
-5.750E-06,0.000
-5.740E-06,-0.016
-5.730E-06,-0.012
-5.720E-06,0.008
-5.710E-06,0.016
-5.700E-06,0.016
-5.690E-06,0.004
-5.680E-06,0.000
-5.670E-06,0.000
-5.660E-06,0.000
-5.650E-06,-0.004
-5.640E-06,0.000
-5.630E-06,0.008
-5.620E-06,0.008
-5.610E-06,0.004
-5.600E-06,0.008
-5.590E-06,0.004
-5.580E-06,-0.004
-5.570E-06,0.000
-5.560E-06,-0.004
-5.550E-06,0.000
-5.540E-06,0.008
-5.530E-06,0.012
-5.520E-06,0.012
-5.510E-06,0.008
-5.500E-06,-0.004
-5.490E-06,-0.008
-5.480E-06,-0.008
-5.470E-06,0.004
-5.460E-06,0.008
-5.450E-06,0.012
-5.440E-06,0.004
-5.430E-06,0.008
-5.420E-06,0.004
-5.410E-06,0.000
-5.400E-06,0.004
-5.390E-06,0.008
-5.380E-06,0.000
-5.370E-06,0.000
-5.360E-06,0.004
-5.350E-06,0.000
-5.340E-06,-0.004
-5.330E-06,0.008
-5.320E-06,0.008
-5.310E-06,0.004
-5.300E-06,0.000
-5.290E-06,0.000
-5.280E-06,0.000
-5.270E-06,0.008
-5.260E-06,0.008
-5.250E-06,0.008
-5.240E-06,0.004
-5.230E-06,-0.008
-5.220E-06,0.004
-5.210E-06,-0.004
-5.200E-06,-0.004
-5.190E-06,0.000
-5.180E-06,-0.004
-5.170E-06,0.008
-5.160E-06,0.008
-5.150E-06,0.008
-5.140E-06,0.004
-5.130E-06,0.004
-5.120E-06,0.008
-5.110E-06,0.004
-5.100E-06,0.004
-5.090E-06,0.000
-5.080E-06,-0.004
-5.070E-06,-0.004
-5.060E-06,0.000
-5.050E-06,0.000
-5.040E-06,0.004
-5.030E-06,0.020
-5.020E-06,0.024
-5.010E-06,0.004
-5.000E-06,-0.004
-4.990E-06,-0.012
-4.980E-06,-0.012
-4.970E-06,0.004
-4.960E-06,0.020
-4.950E-06,0.024
-4.940E-06,0.020
-4.930E-06,-0.004
-4.920E-06,-0.012
-4.910E-06,-0.012
-4.900E-06,0.000
-4.890E-06,0.016
-4.880E-06,0.016
-4.870E-06,0.012
-4.860E-06,-0.004
-4.850E-06,-0.016
-4.840E-06,-0.008
-4.830E-06,-0.004
-4.820E-06,0.008
-4.810E-06,0.024
-4.800E-06,0.020
-4.790E-06,0.008
-4.780E-06,-0.008
-4.770E-06,-0.020
-4.760E-06,-0.008
-4.750E-06,0.008
-4.740E-06,0.020
-4.730E-06,0.012
-4.720E-06,0.004
-4.710E-06,0.004
-4.700E-06,-0.008
-4.690E-06,-0.004
-4.680E-06,0.000
-4.670E-06,0.000
-4.660E-06,0.008
-4.650E-06,0.024
-4.640E-06,0.024
-4.630E-06,0.012
-4.620E-06,0.000
-4.610E-06,-0.004
-4.600E-06,-0.008
-4.590E-06,0.000
-4.580E-06,0.024
-4.570E-06,0.032
-4.560E-06,0.008
-4.550E-06,-0.004
-4.540E-06,-0.028
-4.530E-06,-0.020
-4.520E-06,-0.008
-4.510E-06,0.020
-4.500E-06,0.024
-4.490E-06,0.008
-4.480E-06,0.004
-4.470E-06,-0.012
-4.460E-06,-0.020
-4.450E-06,-0.008
-4.440E-06,0.004
-4.430E-06,0.016
-4.420E-06,0.052
-4.410E-06,0.012
-4.400E-06,-0.020
-4.390E-06,-0.008
-4.380E-06,-0.008
-4.370E-06,-0.004
-4.360E-06,0.008
-4.350E-06,0.036
-4.340E-06,0.020
-4.330E-06,0.000
-4.320E-06,0.000
-4.310E-06,0.000
-4.300E-06,-0.004
-4.290E-06,0.016
-4.280E-06,-0.012
-4.270E-06,0.008
-4.260E-06,-0.036
-4.250E-06,0.012
-4.240E-06,0.040
-4.230E-06,0.056
-4.220E-06,-0.008
-4.210E-06,0.004
-4.200E-06,0.000
-4.190E-06,-0.040
-4.180E-06,-0.032
-4.170E-06,0.016
-4.160E-06,0.088
-4.150E-06,0.056
-4.140E-06,0.004
-4.130E-06,-0.044
-4.120E-06,-0.040
-4.110E-06,-0.020
-4.100E-06,-0.016
-4.090E-06,0.048
-4.080E-06,0.060
-4.070E-06,0.024
-4.060E-06,-0.008
-4.050E-06,0.000
-4.040E-06,-0.020
-4.030E-06,-0.036
-4.020E-06,-0.008
-4.010E-06,0.016
-4.000E-06,0.024
-3.990E-06,0.020
-3.980E-06,0.024
-3.970E-06,-0.004
-3.960E-06,-0.008
-3.950E-06,-0.020
-3.940E-06,-0.020
-3.930E-06,-0.016
-3.920E-06,0.012
-3.910E-06,0.024
-3.900E-06,0.028
-3.890E-06,0.020
-3.880E-06,0.008
-3.870E-06,-0.008
-3.860E-06,-0.032
-3.850E-06,-0.028
-3.840E-06,-0.020
-3.830E-06,0.016
-3.820E-06,0.032
-3.810E-06,0.040
-3.800E-06,0.020
-3.790E-06,-0.008
-3.780E-06,-0.028
-3.770E-06,-0.032
-3.760E-06,-0.012
-3.750E-06,0.012
-3.740E-06,0.036
-3.730E-06,0.028
-3.720E-06,0.020
-3.710E-06,0.000
-3.700E-06,-0.008
-3.690E-06,-0.012
-3.680E-06,-0.004
-3.670E-06,0.008
-3.660E-06,0.024
-3.650E-06,0.024
-3.640E-06,0.020
-3.630E-06,0.012
-3.620E-06,-0.008
-3.610E-06,-0.020
-3.600E-06,-0.016
-3.590E-06,-0.008
-3.580E-06,0.004
-3.570E-06,0.032
-3.560E-06,0.056
-3.550E-06,0.048
-3.540E-06,0.012
-3.530E-06,-0.028
-3.520E-06,-0.040
-3.510E-06,-0.036
-3.500E-06,-0.008
-3.490E-06,0.028
-3.480E-06,0.040
-3.470E-06,0.024
-3.460E-06,0.008
-3.450E-06,-0.008
-3.440E-06,-0.024
-3.430E-06,-0.024
-3.420E-06,-0.008
-3.410E-06,0.012
-3.400E-06,0.028
-3.390E-06,0.032
-3.380E-06,0.020
-3.370E-06,0.004
-3.360E-06,-0.012
-3.350E-06,-0.016
-3.340E-06,-0.008
-3.330E-06,0.008
-3.320E-06,0.016
-3.310E-06,0.024
-3.300E-06,0.020
-3.290E-06,0.012
-3.280E-06,-0.004
-3.270E-06,-0.012
-3.260E-06,-0.012
-3.250E-06,0.008
-3.240E-06,0.020
-3.230E-06,0.032
-3.220E-06,0.020
-3.210E-06,-0.012
-3.200E-06,-0.032
-3.190E-06,-0.024
-3.180E-06,-0.004
-3.170E-06,0.028
-3.160E-06,0.048
-3.150E-06,0.040
-3.140E-06,0.000
-3.130E-06,-0.032
-3.120E-06,-0.044
-3.110E-06,-0.020
-3.100E-06,0.012
-3.090E-06,0.044
-3.080E-06,0.044
-3.070E-06,0.028
-3.060E-06,0.016
-3.050E-06,0.000
-3.040E-06,-0.004
-3.030E-06,-0.008
-3.020E-06,-0.004
-3.010E-06,0.008
-3.000E-06,0.012
-2.990E-06,0.020
-2.980E-06,0.024
-2.970E-06,0.012
-2.960E-06,0.000
-2.950E-06,0.008
-2.940E-06,0.000
-2.930E-06,0.008
-2.920E-06,0.016
-2.910E-06,0.000
-2.900E-06,0.024
-2.890E-06,-0.004
-2.880E-06,-0.004
-2.870E-06,0.000
-2.860E-06,-0.004
-2.850E-06,-0.024
-2.840E-06,-0.048
-2.830E-06,-0.004
-2.820E-06,0.032
-2.810E-06,0.076
-2.800E-06,0.044
-2.790E-06,0.000
-2.780E-06,-0.076
-2.770E-06,-0.080
-2.760E-06,-0.052
-2.750E-06,0.024
-2.740E-06,0.080
-2.730E-06,0.072
-2.720E-06,0.020
-2.710E-06,-0.032
-2.700E-06,-0.060
-2.690E-06,-0.048
-2.680E-06,0.000
-2.670E-06,0.024
-2.660E-06,0.044
-2.650E-06,0.028
-2.640E-06,0.016
-2.630E-06,0.000
-2.620E-06,-0.004
-2.610E-06,0.000
-2.600E-06,0.000
-2.590E-06,0.004
-2.580E-06,0.008
-2.570E-06,0.016
-2.560E-06,0.016
-2.550E-06,0.004
-2.540E-06,-0.008
-2.530E-06,-0.008
-2.520E-06,0.000
-2.510E-06,0.008
-2.500E-06,0.020
-2.490E-06,0.024
-2.480E-06,0.000
-2.470E-06,-0.008
-2.460E-06,-0.020
-2.450E-06,-0.020
-2.440E-06,0.000
-2.430E-06,0.032
-2.420E-06,0.040
-2.410E-06,0.028
-2.400E-06,0.016
-2.390E-06,-0.008
-2.380E-06,-0.024
-2.370E-06,-0.012
-2.360E-06,0.008
-2.350E-06,0.032
-2.340E-06,0.032
-2.330E-06,0.028
-2.320E-06,0.012
-2.310E-06,-0.008
-2.300E-06,-0.008
-2.290E-06,-0.008
-2.280E-06,0.008
-2.270E-06,0.028
-2.260E-06,0.032
-2.250E-06,0.016
-2.240E-06,0.008
-2.230E-06,-0.012
-2.220E-06,-0.012
-2.210E-06,0.000
-2.200E-06,0.012
-2.190E-06,0.024
-2.180E-06,0.028
-2.170E-06,0.032
-2.160E-06,0.032
-2.150E-06,0.012
-2.140E-06,-0.004
-2.130E-06,-0.012
-2.120E-06,-0.024
-2.110E-06,-0.012
-2.100E-06,0.008
-2.090E-06,0.040
-2.080E-06,0.044
-2.070E-06,0.024
-2.060E-06,0.000
-2.050E-06,-0.020
-2.040E-06,-0.020
-2.030E-06,0.000
-2.020E-06,0.024
-2.010E-06,0.036
-2.000E-06,0.032
-1.990E-06,0.020
-1.980E-06,0.008
-1.970E-06,-0.004
-1.960E-06,-0.008
-1.950E-06,0.004
-1.940E-06,0.012
-1.930E-06,0.040
-1.920E-06,0.052
-1.910E-06,0.056
-1.900E-06,0.036
-1.890E-06,0.008
-1.880E-06,0.000
-1.870E-06,0.000
-1.860E-06,0.028
-1.850E-06,0.060
-1.840E-06,0.084
-1.830E-06,0.092
-1.820E-06,0.072
-1.810E-06,0.056
-1.800E-06,0.048
-1.790E-06,0.056
-1.780E-06,0.076
-1.770E-06,0.056
-1.760E-06,-0.048
-1.750E-06,-0.256
-1.740E-06,-0.352
-1.730E-06,-0.300
-1.720E-06,-0.096
-1.710E-06,0.128
-1.700E-06,0.324
-1.690E-06,0.288
-1.680E-06,0.064
-1.670E-06,-0.188
-1.660E-06,-0.300
-1.650E-06,-0.228
-1.640E-06,-0.008
-1.630E-06,0.176
-1.620E-06,0.224
-1.610E-06,0.140
-1.600E-06,-0.020
-1.590E-06,-0.136
-1.580E-06,-0.164
-1.570E-06,-0.080
-1.560E-06,0.024
-1.550E-06,0.124
-1.540E-06,0.132
-1.530E-06,0.104
-1.520E-06,0.036
-1.510E-06,-0.024
-1.500E-06,-0.064
-1.490E-06,-0.084
-1.480E-06,-0.060
-1.470E-06,0.024
-1.460E-06,0.128
-1.450E-06,0.140
-1.440E-06,0.056
-1.430E-06,-0.092
-1.420E-06,-0.152
-1.410E-06,-0.120
-1.400E-06,-0.004
-1.390E-06,0.092
-1.380E-06,0.132
-1.370E-06,0.060
-1.360E-06,-0.020
-1.350E-06,-0.076
-1.340E-06,-0.068
-1.330E-06,-0.036
-1.320E-06,-0.004
-1.310E-06,0.020
-1.300E-06,0.028
-1.290E-06,0.048
-1.280E-06,0.024
-1.270E-06,0.008
-1.260E-06,-0.032
-1.250E-06,-0.052
-1.240E-06,-0.044
-1.230E-06,0.000
-1.220E-06,0.036
-1.210E-06,0.060
-1.200E-06,0.060
-1.190E-06,0.024
-1.180E-06,-0.004
-1.170E-06,-0.024
-1.160E-06,0.000
-1.150E-06,0.004
-1.140E-06,0.024
-1.130E-06,0.024
-1.120E-06,0.008
-1.110E-06,-0.004
-1.100E-06,-0.008
-1.090E-06,-0.004
-1.080E-06,0.008
-1.070E-06,0.016
-1.060E-06,0.024
-1.050E-06,0.020
-1.040E-06,0.024
-1.030E-06,0.000
-1.020E-06,-0.020
-1.010E-06,-0.036
-1.000E-06,-0.036
-9.900E-07,0.004
-9.800E-07,0.024
-9.700E-07,0.028
-9.600E-07,0.000
-9.500E-07,-0.008
-9.400E-07,-0.020
-9.300E-07,-0.004
-9.200E-07,0.008
-9.100E-07,0.016
-9.000E-07,0.004
-8.900E-07,-0.016
-8.800E-07,-0.020
-8.700E-07,-0.008
-8.600E-07,0.012
-8.500E-07,0.056
-8.400E-07,0.080
-8.300E-07,0.068
-8.200E-07,0.028
-8.100E-07,-0.004
-8.000E-07,-0.016
-7.900E-07,-0.008
-7.800E-07,0.028
-7.700E-07,0.060
-7.600E-07,0.084
-7.500E-07,0.072
-7.400E-07,0.056
-7.300E-07,0.020
-7.200E-07,0.008
-7.100E-07,0.012
-7.000E-07,0.020
-6.900E-07,0.036
-6.800E-07,0.040
-6.700E-07,0.036
-6.600E-07,0.040
-6.500E-07,0.032
-6.400E-07,0.028
-6.300E-07,0.020
-6.200E-07,0.004
-6.100E-07,0.020
-6.000E-07,0.032
-5.900E-07,0.056
-5.800E-07,0.056
-5.700E-07,0.072
-5.600E-07,0.076
-5.500E-07,0.080
-5.400E-07,0.100
-5.300E-07,0.112
-5.200E-07,0.140
-5.100E-07,0.136
-5.000E-07,0.116
-4.900E-07,0.084
-4.800E-07,0.040
-4.700E-07,-0.008
-4.600E-07,-0.012
-4.500E-07,0.012
-4.400E-07,0.016
-4.300E-07,0.028
-4.200E-07,0.032
-4.100E-07,0.040
-4.000E-07,0.024
-3.900E-07,0.012
-3.800E-07,0.000
-3.700E-07,-0.008
-3.600E-07,0.004
-3.500E-07,0.044
-3.400E-07,0.080
-3.300E-07,0.076
-3.200E-07,0.068
-3.100E-07,0.020
-3.000E-07,0.024
-2.900E-07,0.072
-2.800E-07,0.164
-2.700E-07,0.188
-2.600E-07,0.176
-2.500E-07,0.088
-2.400E-07,-0.008
-2.300E-07,-0.108
-2.200E-07,-0.104
-2.100E-07,-0.032
-2.000E-07,0.056
-1.900E-07,0.160
-1.800E-07,0.164
-1.700E-07,0.116
-1.600E-07,0.032
-1.500E-07,-0.004
-1.400E-07,-0.016
-1.300E-07,0.104
-1.200E-07,0.280
-1.100E-07,0.372
-1.000E-07,0.408
-9.000E-08,0.284
-8.000E-08,0.072
-7.000E-08,-0.216
-6.000E-08,-0.512
-5.000E-08,-0.512
-4.000E-08,-0.508
-3.000E-08,-0.512
-2.000E-08,0.044
-1.000E-08,0.404
0.000E+00,0.540
1.000E-08,0.540
2.000E-08,0.536
3.000E-08,-0.284
4.000E-08,-0.512
5.000E-08,-0.512
6.000E-08,-0.512
7.000E-08,-0.040
8.000E-08,0.424
9.000E-08,0.544
1.000E-07,0.208
1.100E-07,-0.056
1.200E-07,-0.360
1.300E-07,-0.436
1.400E-07,-0.368
1.500E-07,-0.008
1.600E-07,0.372
1.700E-07,0.484
1.800E-07,0.284
1.900E-07,-0.156
2.000E-07,-0.392
2.100E-07,-0.412
2.200E-07,-0.120
2.300E-07,0.128
2.400E-07,0.376
2.500E-07,0.340
2.600E-07,0.176
2.700E-07,-0.056
2.800E-07,-0.188
2.900E-07,-0.192
3.000E-07,-0.192
3.100E-07,-0.032
3.200E-07,0.108
3.300E-07,0.232
3.400E-07,0.108
3.500E-07,-0.064
3.600E-07,-0.236
3.700E-07,-0.204
3.800E-07,-0.024
3.900E-07,0.156
4.000E-07,0.284
4.100E-07,0.236
4.200E-07,0.116
4.300E-07,-0.120
4.400E-07,-0.228
4.500E-07,-0.220
4.600E-07,-0.024
4.700E-07,0.120
4.800E-07,0.256
4.900E-07,0.256
5.000E-07,0.160
5.100E-07,0.032
5.200E-07,-0.076
5.300E-07,-0.092
5.400E-07,-0.040
5.500E-07,0.168
5.600E-07,0.324
5.700E-07,0.412
5.800E-07,0.328
5.900E-07,0.180
6.000E-07,0.040
6.100E-07,0.000
6.200E-07,0.068
6.300E-07,0.212
6.400E-07,0.372
6.500E-07,0.412
6.600E-07,0.352
6.700E-07,0.228
6.800E-07,0.096
6.900E-07,0.012
7.000E-07,-0.012
7.100E-07,0.036
7.200E-07,0.108
7.300E-07,0.276
7.400E-07,0.360
7.500E-07,0.404
7.600E-07,0.208
7.700E-07,-0.100
7.800E-07,-0.508
7.900E-07,-0.512
8.000E-07,-0.508
8.100E-07,-0.472
8.200E-07,-0.232
8.300E-07,-0.208
8.400E-07,-0.328
8.500E-07,-0.448
8.600E-07,-0.468
8.700E-07,-0.324
8.800E-07,-0.108
8.900E-07,-0.024
9.000E-07,-0.036
9.100E-07,0.064
9.200E-07,0.212
9.300E-07,0.276
9.400E-07,0.208
9.500E-07,-0.064
9.600E-07,-0.280
9.700E-07,-0.380
9.800E-07,-0.200
9.900E-07,0.052
1.000E-06,0.284
1.010E-06,0.336
1.020E-06,0.204
1.030E-06,-0.020
1.040E-06,-0.216
1.050E-06,-0.264
1.060E-06,-0.152
1.070E-06,0.092
1.080E-06,0.292
1.090E-06,0.372
1.100E-06,0.288
1.110E-06,0.108
1.120E-06,-0.128
1.130E-06,-0.216
1.140E-06,-0.164
1.150E-06,0.020
1.160E-06,0.252
1.170E-06,0.372
1.180E-06,0.356
1.190E-06,0.208
1.200E-06,0.044
1.210E-06,-0.040
1.220E-06,0.000
1.230E-06,0.112
1.240E-06,0.236
1.250E-06,0.316
1.260E-06,0.312
1.270E-06,0.220
1.280E-06,0.108
1.290E-06,0.032
1.300E-06,0.052
1.310E-06,0.144
1.320E-06,0.256
1.330E-06,0.348
1.340E-06,0.376
1.350E-06,0.340
1.360E-06,0.244
1.370E-06,0.140
1.380E-06,0.084
1.390E-06,0.124
1.400E-06,0.228
1.410E-06,0.332
1.420E-06,0.388
1.430E-06,0.364
1.440E-06,0.284
1.450E-06,0.204
1.460E-06,0.136
1.470E-06,0.112
1.480E-06,0.140
1.490E-06,0.204
1.500E-06,0.260
1.510E-06,0.324
1.520E-06,0.320
1.530E-06,0.272
1.540E-06,0.196
1.550E-06,0.128
1.560E-06,0.096
1.570E-06,0.160
1.580E-06,0.236
1.590E-06,0.296
1.600E-06,0.276
1.610E-06,0.188
1.620E-06,0.040
1.630E-06,-0.100
1.640E-06,-0.204
1.650E-06,-0.208
1.660E-06,-0.148
1.670E-06,-0.108
1.680E-06,-0.072
1.690E-06,-0.024
1.700E-06,0.032
1.710E-06,0.104
1.720E-06,0.192
1.730E-06,0.260
1.740E-06,0.308
1.750E-06,0.280
1.760E-06,0.208
1.770E-06,0.124
1.780E-06,0.068
1.790E-06,0.108
1.800E-06,0.228
1.810E-06,0.360
1.820E-06,0.420
1.830E-06,0.360
1.840E-06,0.224
1.850E-06,0.096
1.860E-06,0.028
1.870E-06,0.064
1.880E-06,0.164
1.890E-06,0.272
1.900E-06,0.312
1.910E-06,0.268
1.920E-06,0.152
1.930E-06,0.028
1.940E-06,-0.048
1.950E-06,-0.052
1.960E-06,0.012
1.970E-06,0.108
1.980E-06,0.200
1.990E-06,0.228
2.000E-06,0.216
2.010E-06,0.168
2.020E-06,0.148
2.030E-06,0.188
2.040E-06,0.260
2.050E-06,0.340
2.060E-06,0.384
2.070E-06,0.368
2.080E-06,0.312
2.090E-06,0.228
2.100E-06,0.172
2.110E-06,0.180
2.120E-06,0.232
2.130E-06,0.304
2.140E-06,0.344
2.150E-06,0.336
2.160E-06,0.288
2.170E-06,0.236
2.180E-06,0.200
2.190E-06,0.200
2.200E-06,0.232
2.210E-06,0.276
2.220E-06,0.304
2.230E-06,0.300
2.240E-06,0.272
2.250E-06,0.240
2.260E-06,0.216
2.270E-06,0.228
2.280E-06,0.256
2.290E-06,0.284
2.300E-06,0.296
2.310E-06,0.292
2.320E-06,0.264
2.330E-06,0.240
2.340E-06,0.224
2.350E-06,0.220
2.360E-06,0.244
2.370E-06,0.272
2.380E-06,0.288
2.390E-06,0.284
2.400E-06,0.260
2.410E-06,0.240
2.420E-06,0.224
2.430E-06,0.228
2.440E-06,0.248
2.450E-06,0.268
2.460E-06,0.288
2.470E-06,0.284
2.480E-06,0.268
2.490E-06,0.244
2.500E-06,0.228
2.510E-06,0.224
2.520E-06,0.228
2.530E-06,0.248
2.540E-06,0.264
2.550E-06,0.268
2.560E-06,0.248
2.570E-06,0.240
2.580E-06,0.232
2.590E-06,0.224
2.600E-06,0.232
2.610E-06,0.248
2.620E-06,0.256
2.630E-06,0.260
2.640E-06,0.260
2.650E-06,0.256
2.660E-06,0.244
2.670E-06,0.240
2.680E-06,0.240
2.690E-06,0.252
2.700E-06,0.256
2.710E-06,0.252
2.720E-06,0.256
2.730E-06,0.248
2.740E-06,0.240
2.750E-06,0.240
2.760E-06,0.240
2.770E-06,0.240
2.780E-06,0.244
2.790E-06,0.244
2.800E-06,0.248
2.810E-06,0.248
2.820E-06,0.252
2.830E-06,0.244
2.840E-06,0.240
2.850E-06,0.236
2.860E-06,0.240
2.870E-06,0.240
2.880E-06,0.240
2.890E-06,0.240
2.900E-06,0.240
2.910E-06,0.240
2.920E-06,0.232
2.930E-06,0.232
2.940E-06,0.228
2.950E-06,0.232
2.960E-06,0.224
2.970E-06,0.232
2.980E-06,0.232
2.990E-06,0.228
3.000E-06,0.224
3.010E-06,0.224
3.020E-06,0.220
3.030E-06,0.228
3.040E-06,0.228
3.050E-06,0.232
3.060E-06,0.228
3.070E-06,0.228
3.080E-06,0.228
3.090E-06,0.224
3.100E-06,0.224
3.110E-06,0.220
3.120E-06,0.228
3.130E-06,0.224
3.140E-06,0.224
3.150E-06,0.224
3.160E-06,0.224
3.170E-06,0.220
3.180E-06,0.220
3.190E-06,0.224
3.200E-06,0.220
3.210E-06,0.224
3.220E-06,0.220
3.230E-06,0.212
3.240E-06,0.208
3.250E-06,0.208
3.260E-06,0.208
3.270E-06,0.208
3.280E-06,0.220
3.290E-06,0.216
3.300E-06,0.216
3.310E-06,0.212
3.320E-06,0.208
