mediciones/5-15 mala escala/42.3/WaveData4659.csv

#timebase=2000000(ps)
,#voltbase=1000000(mv/100)
#size=4000
-8.400E-06,-0.080
-8.390E-06,-0.120
-8.380E-06,-0.160
-8.370E-06,-0.160
-8.360E-06,-0.120
-8.350E-06,-0.160
-8.340E-06,-0.160
-8.330E-06,-0.160
-8.320E-06,-0.120
-8.310E-06,-0.080
-8.300E-06,-0.080
-8.290E-06,-0.080
-8.280E-06,-0.040
-8.270E-06,-0.080
-8.260E-06,-0.040
-8.250E-06,-0.080
-8.240E-06,-0.040
-8.230E-06,-0.040
-8.220E-06,0.000
-8.210E-06,-0.040
-8.200E-06,0.000
-8.190E-06,-0.040
-8.180E-06,-0.040
-8.170E-06,-0.040
-8.160E-06,0.000
-8.150E-06,0.040
-8.140E-06,0.080
-8.130E-06,0.000
-8.120E-06,0.000
-8.110E-06,0.040
-8.100E-06,0.000
-8.090E-06,0.040
-8.080E-06,-0.040
-8.070E-06,-0.040
-8.060E-06,0.000
-8.050E-06,-0.080
-8.040E-06,0.000
-8.030E-06,-0.080
-8.020E-06,-0.080
-8.010E-06,-0.120
-8.000E-06,-0.120
-7.990E-06,-0.200
-7.980E-06,-0.160
-7.970E-06,-0.200
-7.960E-06,-0.080
-7.950E-06,-0.160
-7.940E-06,-0.200
-7.930E-06,-0.160
-7.920E-06,-0.120
-7.910E-06,-0.160
-7.900E-06,-0.080
-7.890E-06,-0.120
-7.880E-06,-0.160
-7.870E-06,-0.200
-7.860E-06,-0.200
-7.850E-06,-0.200
-7.840E-06,-0.160
-7.830E-06,-0.080
-7.820E-06,-0.040
-7.810E-06,-0.040
-7.800E-06,0.000
-7.790E-06,0.000
-7.780E-06,0.000
-7.770E-06,0.040
-7.760E-06,0.080
-7.750E-06,0.040
-7.740E-06,0.040
-7.730E-06,0.040
-7.720E-06,0.080
-7.710E-06,0.040
-7.700E-06,0.080
-7.690E-06,0.120
-7.680E-06,0.000
-7.670E-06,0.000
-7.660E-06,0.000
-7.650E-06,0.040
-7.640E-06,0.040
-7.630E-06,0.040
-7.620E-06,0.040
-7.610E-06,-0.040
-7.600E-06,-0.040
-7.590E-06,0.000
-7.580E-06,0.040
-7.570E-06,-0.040
-7.560E-06,-0.040
-7.550E-06,0.000
-7.540E-06,0.040
-7.530E-06,0.000
-7.520E-06,-0.040
-7.510E-06,0.000
-7.500E-06,-0.040
-7.490E-06,0.000
-7.480E-06,-0.040
-7.470E-06,0.000
-7.460E-06,0.040
-7.450E-06,-0.080
-7.440E-06,0.040
-7.430E-06,0.040
-7.420E-06,0.040
-7.410E-06,0.040
-7.400E-06,-0.040
-7.390E-06,-0.040
-7.380E-06,0.000
-7.370E-06,0.000
-7.360E-06,0.000
-7.350E-06,0.000
-7.340E-06,0.000
-7.330E-06,0.000
-7.320E-06,0.000
-7.310E-06,0.000
-7.300E-06,0.000
-7.290E-06,-0.040
-7.280E-06,0.000
-7.270E-06,-0.040
-7.260E-06,-0.040
-7.250E-06,-0.040
-7.240E-06,-0.040
-7.230E-06,-0.040
-7.220E-06,0.000
-7.210E-06,-0.040
-7.200E-06,-0.040
-7.190E-06,-0.080
-7.180E-06,-0.080
-7.170E-06,-0.120
-7.160E-06,-0.160
-7.150E-06,0.040
-7.140E-06,-0.080
-7.130E-06,0.080
-7.120E-06,-0.200
-7.110E-06,-0.200
-7.100E-06,-0.200
-7.090E-06,-0.160
-7.080E-06,-0.200
-7.070E-06,-0.200
-7.060E-06,-0.120
-7.050E-06,-0.120
-7.040E-06,-0.200
-7.030E-06,-0.120
-7.020E-06,-0.120
-7.010E-06,-0.040
-7.000E-06,-0.040
-6.990E-06,-0.040
-6.980E-06,-0.040
-6.970E-06,0.000
-6.960E-06,0.000
-6.950E-06,0.040
-6.940E-06,0.080
-6.930E-06,0.160
-6.920E-06,0.000
-6.910E-06,0.080
-6.900E-06,0.160
-6.890E-06,0.240
-6.880E-06,0.120
-6.870E-06,0.120
-6.860E-06,0.000
-6.850E-06,-0.040
-6.840E-06,-0.280
-6.830E-06,0.000
-6.820E-06,-0.080
-6.810E-06,-0.040
-6.800E-06,0.000
-6.790E-06,-0.120
-6.780E-06,-0.120
-6.770E-06,-0.200
-6.760E-06,-0.160
-6.750E-06,-0.040
-6.740E-06,-0.080
-6.730E-06,-0.040
-6.720E-06,-0.080
-6.710E-06,-0.160
-6.700E-06,-0.160
-6.690E-06,-0.240
-6.680E-06,-0.200
-6.670E-06,-0.080
-6.660E-06,0.000
-6.650E-06,-0.040
-6.640E-06,0.000
-6.630E-06,-0.040
-6.620E-06,-0.120
-6.610E-06,-0.080
-6.600E-06,-0.080
-6.590E-06,-0.040
-6.580E-06,0.000
-6.570E-06,-0.080
-6.560E-06,-0.080
-6.550E-06,-0.040
-6.540E-06,-0.040
-6.530E-06,0.000
-6.520E-06,0.000
-6.510E-06,0.000
-6.500E-06,0.040
-6.490E-06,-0.040
-6.480E-06,0.120
-6.470E-06,0.000
-6.460E-06,0.000
-6.450E-06,0.040
-6.440E-06,-0.040
-6.430E-06,-0.080
-6.420E-06,-0.080
-6.410E-06,-0.120
-6.400E-06,-0.040
-6.390E-06,-0.160
-6.380E-06,-0.200
-6.370E-06,-0.160
-6.360E-06,-0.160
-6.350E-06,-0.080
-6.340E-06,-0.080
-6.330E-06,-0.040
-6.320E-06,-0.080
-6.310E-06,-0.160
-6.300E-06,-0.120
-6.290E-06,-0.120
-6.280E-06,0.000
-6.270E-06,-0.040
-6.260E-06,0.000
-6.250E-06,0.000
-6.240E-06,0.000
-6.230E-06,0.000
-6.220E-06,0.040
-6.210E-06,0.040
-6.200E-06,-0.040
-6.190E-06,0.000
-6.180E-06,0.000
-6.170E-06,0.000
-6.160E-06,-0.040
-6.150E-06,0.040
-6.140E-06,0.000
-6.130E-06,0.000
-6.120E-06,0.000
-6.110E-06,0.040
-6.100E-06,0.040
-6.090E-06,-0.040
-6.080E-06,-0.040
-6.070E-06,0.000
-6.060E-06,-0.040
-6.050E-06,0.000
-6.040E-06,-0.040
-6.030E-06,-0.040
-6.020E-06,-0.040
-6.010E-06,-0.080
-6.000E-06,-0.040
-5.990E-06,-0.040
-5.980E-06,0.000
-5.970E-06,0.000
-5.960E-06,0.000
-5.950E-06,0.000
-5.940E-06,-0.040
-5.930E-06,-0.080
-5.920E-06,-0.040
-5.910E-06,0.000
-5.900E-06,-0.080
-5.890E-06,-0.160
-5.880E-06,-0.240
-5.870E-06,-0.320
-5.860E-06,-0.360
-5.850E-06,-0.360
-5.840E-06,-0.320
-5.830E-06,-0.320
-5.820E-06,-0.320
-5.810E-06,-0.280
-5.800E-06,-0.320
-5.790E-06,-0.240
-5.780E-06,-0.240
-5.770E-06,-0.160
-5.760E-06,-0.080
-5.750E-06,-0.120
-5.740E-06,-0.040
-5.730E-06,-0.080
-5.720E-06,-0.080
-5.710E-06,0.040
-5.700E-06,0.040
-5.690E-06,0.040
-5.680E-06,0.040
-5.670E-06,0.040
-5.660E-06,-0.040
-5.650E-06,-0.040
-5.640E-06,0.040
-5.630E-06,0.000
-5.620E-06,0.000
-5.610E-06,0.080
-5.600E-06,0.080
-5.590E-06,0.040
-5.580E-06,0.080
-5.570E-06,0.040
-5.560E-06,0.080
-5.550E-06,0.040
-5.540E-06,0.000
-5.530E-06,-0.040
-5.520E-06,0.000
-5.510E-06,0.000
-5.500E-06,-0.040
-5.490E-06,-0.040
-5.480E-06,-0.040
-5.470E-06,-0.120
-5.460E-06,-0.160
-5.450E-06,-0.200
-5.440E-06,-0.200
-5.430E-06,-0.200
-5.420E-06,-0.080
-5.410E-06,-0.040
-5.400E-06,0.000
-5.390E-06,-0.080
-5.380E-06,0.000
-5.370E-06,-0.080
-5.360E-06,-0.120
-5.350E-06,-0.160
-5.340E-06,-0.120
-5.330E-06,-0.160
-5.320E-06,-0.160
-5.310E-06,-0.160
-5.300E-06,-0.160
-5.290E-06,-0.200
-5.280E-06,-0.240
-5.270E-06,-0.240
-5.260E-06,-0.200
-5.250E-06,-0.240
-5.240E-06,-0.240
-5.230E-06,-0.200
-5.220E-06,-0.240
-5.210E-06,-0.200
-5.200E-06,-0.240
-5.190E-06,-0.280
-5.180E-06,-0.360
-5.170E-06,-0.480
-5.160E-06,-0.400
-5.150E-06,-0.400
-5.140E-06,-0.400
-5.130E-06,-0.320
-5.120E-06,-0.400
-5.110E-06,-0.360
-5.100E-06,-0.320
-5.090E-06,-0.320
-5.080E-06,-0.200
-5.070E-06,-0.160
-5.060E-06,-0.160
-5.050E-06,-0.080
-5.040E-06,0.000
-5.030E-06,0.000
-5.020E-06,0.000
-5.010E-06,-0.040
-5.000E-06,0.000
-4.990E-06,0.040
-4.980E-06,0.000
-4.970E-06,0.000
-4.960E-06,0.000
-4.950E-06,0.040
-4.940E-06,0.040
-4.930E-06,0.080
-4.920E-06,0.080
-4.910E-06,0.080
-4.900E-06,0.160
-4.890E-06,0.080
-4.880E-06,0.080
-4.870E-06,0.120
-4.860E-06,0.080
-4.850E-06,0.080
-4.840E-06,0.040
-4.830E-06,-0.040
-4.820E-06,0.000
-4.810E-06,-0.080
-4.800E-06,-0.120
-4.790E-06,-0.160
-4.780E-06,-0.240
-4.770E-06,-0.240
-4.760E-06,-0.200
-4.750E-06,-0.240
-4.740E-06,-0.320
-4.730E-06,-0.200
-4.720E-06,-0.240
-4.710E-06,-0.240
-4.700E-06,-0.280
-4.690E-06,-0.240
-4.680E-06,-0.280
-4.670E-06,-0.280
-4.660E-06,-0.240
-4.650E-06,-0.160
-4.640E-06,-0.120
-4.630E-06,-0.160
-4.620E-06,-0.160
-4.610E-06,-0.040
-4.600E-06,0.000
-4.590E-06,-0.160
-4.580E-06,-0.040
-4.570E-06,-0.400
-4.560E-06,-0.320
-4.550E-06,-0.320
-4.540E-06,-0.320
-4.530E-06,-0.320
-4.520E-06,-0.320
-4.510E-06,-0.360
-4.500E-06,-0.320
-4.490E-06,-0.360
-4.480E-06,-0.280
-4.470E-06,-0.240
-4.460E-06,-0.200
-4.450E-06,-0.200
-4.440E-06,-0.160
-4.430E-06,-0.160
-4.420E-06,-0.120
-4.410E-06,-0.080
-4.400E-06,-0.040
-4.390E-06,-0.040
-4.380E-06,0.000
-4.370E-06,-0.040
-4.360E-06,-0.080
-4.350E-06,0.000
-4.340E-06,0.000
-4.330E-06,0.040
-4.320E-06,0.080
-4.310E-06,0.080
-4.300E-06,0.040
-4.290E-06,0.000
-4.280E-06,0.080
-4.270E-06,0.080
-4.260E-06,0.120
-4.250E-06,0.120
-4.240E-06,0.080
-4.230E-06,-0.040
-4.220E-06,-0.040
-4.210E-06,0.000
-4.200E-06,-0.080
-4.190E-06,0.000
-4.180E-06,-0.080
-4.170E-06,-0.120
-4.160E-06,-0.160
-4.150E-06,-0.160
-4.140E-06,-0.080
-4.130E-06,-0.120
-4.120E-06,-0.120
-4.110E-06,-0.160
-4.100E-06,-0.200
-4.090E-06,-0.160
-4.080E-06,-0.200
-4.070E-06,-0.200
-4.060E-06,-0.200
-4.050E-06,-0.200
-4.040E-06,-0.120
-4.030E-06,-0.120
-4.020E-06,-0.160
-4.010E-06,-0.040
-4.000E-06,-0.040
-3.990E-06,-0.040
-3.980E-06,-0.080
-3.970E-06,-0.280
-3.960E-06,-0.240
-3.950E-06,-0.240
-3.940E-06,-0.160
-3.930E-06,-0.160
-3.920E-06,-0.240
-3.910E-06,-0.280
-3.900E-06,-0.320
-3.890E-06,-0.320
-3.880E-06,-0.280
-3.870E-06,-0.160
-3.860E-06,-0.160
-3.850E-06,-0.160
-3.840E-06,-0.240
-3.830E-06,-0.240
-3.820E-06,-0.160
-3.810E-06,-0.160
-3.800E-06,-0.080
-3.790E-06,0.080
-3.780E-06,-0.040
-3.770E-06,0.040
-3.760E-06,-0.040
-3.750E-06,-0.120
-3.740E-06,-0.040
-3.730E-06,-0.080
-3.720E-06,-0.040
-3.710E-06,-0.040
-3.700E-06,-0.080
-3.690E-06,-0.120
-3.680E-06,-0.160
-3.670E-06,-0.120
-3.660E-06,0.040
-3.650E-06,-0.040
-3.640E-06,0.040
-3.630E-06,0.040
-3.620E-06,0.080
-3.610E-06,0.040
-3.600E-06,0.000
-3.590E-06,-0.040
-3.580E-06,-0.160
-3.570E-06,-0.120
-3.560E-06,-0.160
-3.550E-06,-0.240
-3.540E-06,-0.240
-3.530E-06,-0.240
-3.520E-06,-0.200
-3.510E-06,-0.240
-3.500E-06,-0.120
-3.490E-06,-0.200
-3.480E-06,-0.160
-3.470E-06,-0.240
-3.460E-06,-0.160
-3.450E-06,-0.160
-3.440E-06,-0.120
-3.430E-06,-0.120
-3.420E-06,-0.120
-3.410E-06,-0.160
-3.400E-06,-0.160
-3.390E-06,-0.120
-3.380E-06,-0.080
-3.370E-06,-0.120
-3.360E-06,-0.120
-3.350E-06,-0.200
-3.340E-06,-0.120
-3.330E-06,-0.160
-3.320E-06,-0.040
-3.310E-06,-0.040
-3.300E-06,0.000
-3.290E-06,0.000
-3.280E-06,-0.040
-3.270E-06,-0.120
-3.260E-06,-0.040
-3.250E-06,0.000
-3.240E-06,-0.040
-3.230E-06,0.040
-3.220E-06,0.040
-3.210E-06,0.080
-3.200E-06,0.000
-3.190E-06,0.000
-3.180E-06,0.000
-3.170E-06,-0.040
-3.160E-06,0.000
-3.150E-06,0.000
-3.140E-06,-0.080
-3.130E-06,-0.080
-3.120E-06,-0.200
-3.110E-06,-0.200
-3.100E-06,-0.280
-3.090E-06,-0.240
-3.080E-06,-0.240
-3.070E-06,-0.160
-3.060E-06,-0.160
-3.050E-06,-0.200
-3.040E-06,-0.160
-3.030E-06,-0.200
-3.020E-06,-0.240
-3.010E-06,-0.240
-3.000E-06,-0.200
-2.990E-06,-0.240
-2.980E-06,-0.240
-2.970E-06,-0.160
-2.960E-06,-0.240
-2.950E-06,-0.200
-2.940E-06,-0.240
-2.930E-06,-0.160
-2.920E-06,-0.120
-2.910E-06,-0.160
-2.900E-06,-0.200
-2.890E-06,-0.080
-2.880E-06,-0.120
-2.870E-06,-0.080
-2.860E-06,-0.080
-2.850E-06,-0.040
-2.840E-06,-0.080
-2.830E-06,-0.080
-2.820E-06,-0.080
-2.810E-06,-0.080
-2.800E-06,-0.080
-2.790E-06,-0.080
-2.780E-06,-0.080
-2.770E-06,-0.080
-2.760E-06,-0.080
-2.750E-06,-0.120
-2.740E-06,-0.160
-2.730E-06,-0.160
-2.720E-06,-0.200
-2.710E-06,-0.160
-2.700E-06,-0.080
-2.690E-06,-0.080
-2.680E-06,-0.080
-2.670E-06,-0.080
-2.660E-06,-0.200
-2.650E-06,-0.080
-2.640E-06,-0.120
-2.630E-06,-0.080
-2.620E-06,-0.160
-2.610E-06,-0.200
-2.600E-06,-0.200
-2.590E-06,-0.160
-2.580E-06,-0.200
-2.570E-06,-0.240
-2.560E-06,-0.160
-2.550E-06,-0.160
-2.540E-06,-0.280
-2.530E-06,-0.240
-2.520E-06,-0.240
-2.510E-06,-0.280
-2.500E-06,-0.280
-2.490E-06,-0.280
-2.480E-06,-0.320
-2.470E-06,-0.280
-2.460E-06,-0.280
-2.450E-06,-0.320
-2.440E-06,-0.200
-2.430E-06,-0.200
-2.420E-06,-0.200
-2.410E-06,-0.200
-2.400E-06,-0.240
-2.390E-06,-0.200
-2.380E-06,-0.240
-2.370E-06,-0.240
-2.360E-06,-0.200
-2.350E-06,-0.280
-2.340E-06,-0.360
-2.330E-06,-0.280
-2.320E-06,-0.320
-2.310E-06,-0.320
-2.300E-06,-0.320
-2.290E-06,-0.400
-2.280E-06,-0.360
-2.270E-06,-0.400
-2.260E-06,-0.440
-2.250E-06,-0.440
-2.240E-06,-0.400
-2.230E-06,-0.400
-2.220E-06,-0.440
-2.210E-06,-0.360
-2.200E-06,-0.360
-2.190E-06,-0.320
-2.180E-06,-0.320
-2.170E-06,-0.320
-2.160E-06,-0.320
-2.150E-06,-0.320
-2.140E-06,-0.280
-2.130E-06,-0.240
-2.120E-06,-0.160
-2.110E-06,-0.120
-2.100E-06,-0.120
-2.090E-06,-0.080
-2.080E-06,-0.080
-2.070E-06,-0.040
-2.060E-06,-0.080
-2.050E-06,0.000
-2.040E-06,0.000
-2.030E-06,-0.080
-2.020E-06,-0.040
-2.010E-06,-0.160
-2.000E-06,-0.240
-1.990E-06,-0.360
-1.980E-06,-0.360
-1.970E-06,-0.520
-1.960E-06,-0.520
-1.950E-06,-0.560
-1.940E-06,-0.640
-1.930E-06,-0.760
-1.920E-06,-0.760
-1.910E-06,-0.800
-1.900E-06,-0.800
-1.890E-06,-0.840
-1.880E-06,-0.960
-1.870E-06,-1.040
-1.860E-06,-1.120
-1.850E-06,-1.200
-1.840E-06,-1.160
-1.830E-06,-1.120
-1.820E-06,-1.200
-1.810E-06,-1.200
-1.800E-06,-1.240
-1.790E-06,-1.240
-1.780E-06,-1.280
-1.770E-06,-1.280
-1.760E-06,-1.240
-1.750E-06,-1.240
-1.740E-06,-1.280
-1.730E-06,-1.280
-1.720E-06,-1.320
-1.710E-06,-1.320
-1.700E-06,-1.560
-1.690E-06,-1.560
-1.680E-06,-1.640
-1.670E-06,-1.560
-1.660E-06,-1.320
-1.650E-06,-1.120
-1.640E-06,-1.040
-1.630E-06,-0.840
-1.620E-06,-0.800
-1.610E-06,-0.760
-1.600E-06,-0.600
-1.590E-06,-0.560
-1.580E-06,-0.480
-1.570E-06,-0.600
-1.560E-06,-0.680
-1.550E-06,-0.760
-1.540E-06,-0.800
-1.530E-06,-0.800
-1.520E-06,-0.880
-1.510E-06,-0.880
-1.500E-06,-0.880
-1.490E-06,-0.920
-1.480E-06,-0.800
-1.470E-06,-0.760
-1.460E-06,-0.680
-1.450E-06,-0.680
-1.440E-06,-0.600
-1.430E-06,-0.600
-1.420E-06,-0.520
-1.410E-06,-0.480
-1.400E-06,-0.320
-1.390E-06,-0.280
-1.380E-06,-0.280
-1.370E-06,-0.280
-1.360E-06,-0.280
-1.350E-06,-0.200
-1.340E-06,-0.160
-1.330E-06,-0.160
-1.320E-06,-0.120
-1.310E-06,-0.160
-1.300E-06,-0.240
-1.290E-06,-0.280
-1.280E-06,-0.280
-1.270E-06,-0.320
-1.260E-06,-0.360
-1.250E-06,-0.440
-1.240E-06,-0.480
-1.230E-06,-0.600
-1.220E-06,-0.560
-1.210E-06,-0.520
-1.200E-06,-0.560
-1.190E-06,-0.600
-1.180E-06,-0.680
-1.170E-06,-0.760
-1.160E-06,-0.720
-1.150E-06,-0.840
-1.140E-06,-0.840
-1.130E-06,-0.880
-1.120E-06,-1.040
-1.110E-06,-1.120
-1.100E-06,-1.280
-1.090E-06,-1.240
-1.080E-06,-1.320
-1.070E-06,-1.360
-1.060E-06,-1.360
-1.050E-06,-1.520
-1.040E-06,-1.680
-1.030E-06,-1.720
-1.020E-06,-1.840
-1.010E-06,-1.960
-1.000E-06,-2.240
-9.900E-07,-2.360
-9.800E-07,-2.400
-9.700E-07,-2.520
-9.600E-07,-2.320
-9.500E-07,-2.320
-9.400E-07,-2.080
-9.300E-07,-2.120
-9.200E-07,-1.880
-9.100E-07,-1.720
-9.000E-07,-1.560
-8.900E-07,-1.280
-8.800E-07,-1.120
-8.700E-07,-1.080
-8.600E-07,-1.040
-8.500E-07,-1.080
-8.400E-07,-1.040
-8.300E-07,-1.120
-8.200E-07,-1.200
-8.100E-07,-1.160
-8.000E-07,-1.320
-7.900E-07,-1.440
-7.800E-07,-1.480
-7.700E-07,-1.440
-7.600E-07,-1.440
-7.500E-07,-1.400
-7.400E-07,-1.400
-7.300E-07,-1.440
-7.200E-07,-1.480
-7.100E-07,-1.400
-7.000E-07,-1.240
-6.900E-07,-1.160
-6.800E-07,-0.960
-6.700E-07,-0.920
-6.600E-07,-0.800
-6.500E-07,-0.880
-6.400E-07,-0.840
-6.300E-07,-1.040
-6.200E-07,-0.960
-6.100E-07,-1.160
-6.000E-07,-1.160
-5.900E-07,-1.200
-5.800E-07,-1.120
-5.700E-07,-0.880
-5.600E-07,-0.760
-5.500E-07,-0.520
-5.400E-07,-0.440
-5.300E-07,-0.440
-5.200E-07,-0.360
-5.100E-07,-0.320
-5.000E-07,-0.440
-4.900E-07,-0.520
-4.800E-07,-0.720
-4.700E-07,-0.960
-4.600E-07,-1.120
-4.500E-07,-1.320
-4.400E-07,-1.320
-4.300E-07,-1.480
-4.200E-07,-1.520
-4.100E-07,-1.520
-4.000E-07,-1.520
-3.900E-07,-1.560
-3.800E-07,-1.600
-3.700E-07,-1.640
-3.600E-07,-1.680
-3.500E-07,-1.680
-3.400E-07,-1.680
-3.300E-07,-1.680
-3.200E-07,-1.720
-3.100E-07,-1.680
-3.000E-07,-1.600
-2.900E-07,-1.560
-2.800E-07,-1.560
-2.700E-07,-1.600
-2.600E-07,-1.560
-2.500E-07,-1.600
-2.400E-07,-1.600
-2.300E-07,-1.640
-2.200E-07,-1.560
-2.100E-07,-1.600
-2.000E-07,-1.680
-1.900E-07,-1.680
-1.800E-07,-1.720
-1.700E-07,-1.640
-1.600E-07,-1.640
-1.500E-07,-1.680
-1.400E-07,-1.720
-1.300E-07,-1.840
-1.200E-07,-1.880
-1.100E-07,-1.960
-1.000E-07,-2.120
-9.000E-08,-2.240
-8.000E-08,-2.240
-7.000E-08,-2.640
-6.000E-08,-2.520
-5.000E-08,-1.600
-4.000E-08,-0.520
-3.000E-08,0.440
-2.000E-08,1.160
-1.000E-08,0.480
0.000E+00,0.000
1.000E-08,-0.760
2.000E-08,-1.240
3.000E-08,-1.400
4.000E-08,-1.760
5.000E-08,-2.080
6.000E-08,-2.360
7.000E-08,-2.960
8.000E-08,-2.920
9.000E-08,-2.840
1.000E-07,-2.680
1.100E-07,-2.400
1.200E-07,-2.240
1.300E-07,-2.000
1.400E-07,-1.920
1.500E-07,-1.680
1.600E-07,-1.600
1.700E-07,-1.280
1.800E-07,-1.280
1.900E-07,-1.240
2.000E-07,-1.240
2.100E-07,-1.000
2.200E-07,-1.000
2.300E-07,-0.640
2.400E-07,-0.680
2.500E-07,-0.520
2.600E-07,-0.360
2.700E-07,-0.200
2.800E-07,-0.120
2.900E-07,0.000
3.000E-07,-0.120
3.100E-07,-0.320
3.200E-07,-0.400
3.300E-07,-0.400
3.400E-07,-0.520
3.500E-07,-0.320
3.600E-07,-0.680
3.700E-07,-0.680
3.800E-07,-0.960
3.900E-07,-0.960
4.000E-07,-1.160
4.100E-07,-1.040
4.200E-07,-0.960
4.300E-07,-0.840
4.400E-07,-0.680
4.500E-07,-0.480
4.600E-07,-0.400
4.700E-07,-0.320
4.800E-07,-0.320
4.900E-07,-0.360
5.000E-07,-0.440
5.100E-07,-0.520
5.200E-07,-0.680
5.300E-07,-0.920
5.400E-07,-1.120
5.500E-07,-1.320
5.600E-07,-1.480
5.700E-07,-1.760
5.800E-07,-2.040
5.900E-07,-2.440
6.000E-07,-2.680
6.100E-07,-2.880
6.200E-07,-3.120
6.300E-07,-3.360
6.400E-07,-3.600
6.500E-07,-3.720
6.600E-07,-3.840
6.700E-07,-4.000
6.800E-07,-3.840
6.900E-07,-4.120
7.000E-07,-3.920
7.100E-07,-3.840
7.200E-07,-3.800
7.300E-07,-2.720
7.400E-07,-2.440
7.500E-07,-1.360
7.600E-07,-0.640
7.700E-07,-0.840
7.800E-07,-0.760
7.900E-07,-1.400
8.000E-07,-2.000
8.100E-07,-1.680
8.200E-07,-1.800
8.300E-07,-1.600
8.400E-07,-1.680
8.500E-07,-2.160
8.600E-07,-2.360
8.700E-07,-2.360
8.800E-07,-2.320
8.900E-07,-2.520
9.000E-07,-2.760
9.100E-07,-3.160
9.200E-07,-3.360
9.300E-07,-3.600
9.400E-07,-3.720
9.500E-07,-4.040
9.600E-07,-4.120
9.700E-07,-4.440
9.800E-07,-4.200
9.900E-07,-3.920
1.000E-06,-3.680
1.010E-06,-3.240
1.020E-06,-3.240
1.030E-06,-2.800
1.040E-06,-2.800
1.050E-06,-2.480
1.060E-06,-2.480
1.070E-06,-2.320
1.080E-06,-2.480
1.090E-06,-2.360
1.100E-06,-2.560
1.110E-06,-2.400
1.120E-06,-2.480
1.130E-06,-2.520
1.140E-06,-2.520
1.150E-06,-2.680
1.160E-06,-2.680
1.170E-06,-2.880
1.180E-06,-2.920
1.190E-06,-3.160
1.200E-06,-3.080
1.210E-06,-3.160
1.220E-06,-3.160
1.230E-06,-3.360
1.240E-06,-3.520
1.250E-06,-3.760
1.260E-06,-4.000
1.270E-06,-4.280
1.280E-06,-4.560
1.290E-06,-4.800
1.300E-06,-5.000
1.310E-06,-5.040
1.320E-06,-5.040
1.330E-06,-4.960
1.340E-06,-4.880
1.350E-06,-4.680
1.360E-06,-4.520
1.370E-06,-4.400
1.380E-06,-4.240
1.390E-06,-4.120
1.400E-06,-4.080
1.410E-06,-4.160
1.420E-06,-4.280
1.430E-06,-4.400
1.440E-06,-4.480
1.450E-06,-4.760
1.460E-06,-4.840
1.470E-06,-4.960
1.480E-06,-5.000
1.490E-06,-4.880
1.500E-06,-4.720
1.510E-06,-4.520
1.520E-06,-4.440
1.530E-06,-4.240
1.540E-06,-4.360
1.550E-06,-4.280
1.560E-06,-4.240
1.570E-06,-3.760
1.580E-06,-3.600
1.590E-06,-2.960
1.600E-06,-3.240
1.610E-06,-2.640
1.620E-06,-2.680
1.630E-06,-2.520
1.640E-06,-2.320
1.650E-06,-2.600
1.660E-06,-2.840
1.670E-06,-3.040
1.680E-06,-3.520
1.690E-06,-3.520
1.700E-06,-3.400
1.710E-06,-3.280
1.720E-06,-3.200
1.730E-06,-2.800
1.740E-06,-2.960
1.750E-06,-2.840
1.760E-06,-3.240
1.770E-06,-3.840
1.780E-06,-4.400
1.790E-06,-4.680
1.800E-06,-4.840
1.810E-06,-4.640
1.820E-06,-4.560
1.830E-06,-4.400
1.840E-06,-4.280
1.850E-06,-3.960
1.860E-06,-3.560
1.870E-06,-3.000
1.880E-06,-2.640
1.890E-06,-2.360
1.900E-06,-2.160
1.910E-06,-1.880
1.920E-06,-1.840
1.930E-06,-1.640
1.940E-06,-1.680
1.950E-06,-1.680
1.960E-06,-1.800
1.970E-06,-1.720
1.980E-06,-1.840
1.990E-06,-1.800
2.000E-06,-1.880
2.010E-06,-2.000
2.020E-06,-2.080
2.030E-06,-2.240
2.040E-06,-2.480
2.050E-06,-2.680
2.060E-06,-2.920
2.070E-06,-3.160
2.080E-06,-3.360
2.090E-06,-3.480
2.100E-06,-3.720
2.110E-06,-3.840
2.120E-06,-3.960
2.130E-06,-4.000
2.140E-06,-4.000
2.150E-06,-3.920
2.160E-06,-4.000
2.170E-06,-3.800
2.180E-06,-3.720
2.190E-06,-3.440
2.200E-06,-3.320
2.210E-06,-3.200
2.220E-06,-3.160
2.230E-06,-3.160
2.240E-06,-3.280
2.250E-06,-3.240
2.260E-06,-3.520
2.270E-06,-3.640
2.280E-06,-3.880
2.290E-06,-4.080
2.300E-06,-4.480
2.310E-06,-4.640
2.320E-06,-5.000
2.330E-06,-5.240
2.340E-06,-5.200
2.350E-06,-5.240
2.360E-06,-5.240
2.370E-06,-5.200
2.380E-06,-5.200
2.390E-06,-5.200
2.400E-06,-5.240
2.410E-06,-5.200
2.420E-06,-5.240
2.430E-06,-5.240
2.440E-06,-5.240
2.450E-06,-5.240
2.460E-06,-5.240
2.470E-06,-5.200
2.480E-06,-5.200
2.490E-06,-4.960
2.500E-06,-4.680
2.510E-06,-4.400
2.520E-06,-4.120
2.530E-06,-3.840
2.540E-06,-3.600
2.550E-06,-3.480
2.560E-06,-3.280
2.570E-06,-3.280
2.580E-06,-3.240
2.590E-06,-3.280
2.600E-06,-3.360
2.610E-06,-3.400
2.620E-06,-3.480
2.630E-06,-3.520
2.640E-06,-3.480
2.650E-06,-3.480
2.660E-06,-3.440
2.670E-06,-3.400
2.680E-06,-3.360
2.690E-06,-3.240
2.700E-06,-3.240
2.710E-06,-3.160
2.720E-06,-3.120
2.730E-06,-3.040
2.740E-06,-2.920
2.750E-06,-2.920
2.760E-06,-2.920
2.770E-06,-2.800
2.780E-06,-2.760
2.790E-06,-2.640
2.800E-06,-2.560
2.810E-06,-2.440
2.820E-06,-2.360
2.830E-06,-2.160
2.840E-06,-2.040
2.850E-06,-1.840
2.860E-06,-1.720
2.870E-06,-1.520
2.880E-06,-1.400
2.890E-06,-1.240
2.900E-06,-1.040
2.910E-06,-0.880
2.920E-06,-0.760
2.930E-06,-0.560
