mediciones/5-15 mala escala/42.3/WaveData4673.csv

#timebase=2000000(ps)
,#voltbase=1000000(mv/100)
#size=4000
-8.400E-06,0.040
-8.390E-06,0.080
-8.380E-06,0.080
-8.370E-06,0.040
-8.360E-06,0.080
-8.350E-06,0.000
-8.340E-06,0.000
-8.330E-06,0.040
-8.320E-06,0.120
-8.310E-06,0.080
-8.300E-06,0.120
-8.290E-06,0.120
-8.280E-06,0.080
-8.270E-06,0.080
-8.260E-06,0.000
-8.250E-06,0.040
-8.240E-06,0.080
-8.230E-06,0.040
-8.220E-06,0.000
-8.210E-06,0.000
-8.200E-06,0.040
-8.190E-06,0.000
-8.180E-06,0.040
-8.170E-06,0.040
-8.160E-06,0.040
-8.150E-06,0.040
-8.140E-06,0.080
-8.130E-06,0.120
-8.120E-06,0.000
-8.110E-06,0.040
-8.100E-06,0.080
-8.090E-06,0.040
-8.080E-06,0.080
-8.070E-06,0.000
-8.060E-06,0.040
-8.050E-06,0.080
-8.040E-06,0.000
-8.030E-06,0.080
-8.020E-06,0.040
-8.010E-06,0.080
-8.000E-06,0.040
-7.990E-06,0.040
-7.980E-06,0.080
-7.970E-06,0.040
-7.960E-06,0.080
-7.950E-06,0.000
-7.940E-06,0.040
-7.930E-06,0.000
-7.920E-06,0.080
-7.910E-06,0.000
-7.900E-06,0.040
-7.890E-06,0.080
-7.880E-06,0.040
-7.870E-06,0.080
-7.860E-06,0.040
-7.850E-06,0.040
-7.840E-06,0.080
-7.830E-06,0.080
-7.820E-06,0.080
-7.810E-06,0.040
-7.800E-06,0.040
-7.790E-06,0.040
-7.780E-06,0.040
-7.770E-06,0.040
-7.760E-06,0.080
-7.750E-06,0.040
-7.740E-06,0.040
-7.730E-06,0.040
-7.720E-06,0.040
-7.710E-06,0.040
-7.700E-06,0.000
-7.690E-06,0.040
-7.680E-06,0.080
-7.670E-06,0.040
-7.660E-06,0.080
-7.650E-06,0.000
-7.640E-06,0.040
-7.630E-06,0.000
-7.620E-06,0.080
-7.610E-06,0.040
-7.600E-06,0.040
-7.590E-06,0.040
-7.580E-06,0.080
-7.570E-06,0.040
-7.560E-06,0.040
-7.550E-06,0.040
-7.540E-06,0.040
-7.530E-06,0.040
-7.520E-06,0.040
-7.510E-06,0.040
-7.500E-06,0.040
-7.490E-06,0.040
-7.480E-06,0.040
-7.470E-06,0.080
-7.460E-06,0.000
-7.450E-06,0.080
-7.440E-06,0.000
-7.430E-06,0.080
-7.420E-06,0.000
-7.410E-06,0.040
-7.400E-06,0.080
-7.390E-06,0.000
-7.380E-06,0.040
-7.370E-06,0.040
-7.360E-06,0.040
-7.350E-06,0.080
-7.340E-06,0.080
-7.330E-06,0.040
-7.320E-06,0.040
-7.310E-06,0.040
-7.300E-06,0.040
-7.290E-06,0.080
-7.280E-06,0.000
-7.270E-06,0.080
-7.260E-06,0.040
-7.250E-06,0.040
-7.240E-06,0.000
-7.230E-06,0.040
-7.220E-06,0.040
-7.210E-06,0.040
-7.200E-06,0.080
-7.190E-06,0.040
-7.180E-06,0.080
-7.170E-06,0.000
-7.160E-06,0.000
-7.150E-06,0.040
-7.140E-06,0.000
-7.130E-06,0.040
-7.120E-06,0.080
-7.110E-06,0.120
-7.100E-06,0.080
-7.090E-06,0.000
-7.080E-06,0.000
-7.070E-06,0.080
-7.060E-06,0.080
-7.050E-06,0.080
-7.040E-06,0.040
-7.030E-06,0.000
-7.020E-06,0.040
-7.010E-06,0.040
-7.000E-06,0.040
-6.990E-06,0.040
-6.980E-06,0.040
-6.970E-06,0.040
-6.960E-06,0.040
-6.950E-06,0.040
-6.940E-06,0.080
-6.930E-06,0.040
-6.920E-06,0.000
-6.910E-06,0.080
-6.900E-06,0.040
-6.890E-06,0.040
-6.880E-06,0.000
-6.870E-06,0.080
-6.860E-06,0.080
-6.850E-06,0.040
-6.840E-06,0.040
-6.830E-06,0.080
-6.820E-06,0.000
-6.810E-06,0.040
-6.800E-06,0.000
-6.790E-06,0.080
-6.780E-06,0.000
-6.770E-06,0.040
-6.760E-06,0.080
-6.750E-06,0.080
-6.740E-06,0.120
-6.730E-06,0.000
-6.720E-06,0.040
-6.710E-06,0.040
-6.700E-06,0.040
-6.690E-06,0.040
-6.680E-06,0.040
-6.670E-06,0.040
-6.660E-06,0.080
-6.650E-06,0.040
-6.640E-06,0.080
-6.630E-06,0.080
-6.620E-06,0.040
-6.610E-06,0.080
-6.600E-06,0.040
-6.590E-06,0.080
-6.580E-06,0.080
-6.570E-06,0.040
-6.560E-06,0.120
-6.550E-06,0.120
-6.540E-06,0.080
-6.530E-06,0.120
-6.520E-06,0.040
-6.510E-06,0.040
-6.500E-06,0.080
-6.490E-06,0.000
-6.480E-06,0.080
-6.470E-06,0.040
-6.460E-06,0.080
-6.450E-06,0.000
-6.440E-06,0.040
-6.430E-06,0.120
-6.420E-06,0.040
-6.410E-06,0.000
-6.400E-06,0.040
-6.390E-06,0.040
-6.380E-06,0.040
-6.370E-06,0.000
-6.360E-06,0.040
-6.350E-06,0.000
-6.340E-06,0.080
-6.330E-06,0.040
-6.320E-06,0.040
-6.310E-06,0.080
-6.300E-06,0.040
-6.290E-06,0.040
-6.280E-06,0.040
-6.270E-06,0.040
-6.260E-06,0.040
-6.250E-06,0.040
-6.240E-06,0.040
-6.230E-06,0.040
-6.220E-06,0.040
-6.210E-06,0.080
-6.200E-06,0.000
-6.190E-06,0.040
-6.180E-06,0.080
-6.170E-06,0.040
-6.160E-06,0.040
-6.150E-06,0.000
-6.140E-06,0.040
-6.130E-06,0.040
-6.120E-06,0.040
-6.110E-06,0.080
-6.100E-06,0.040
-6.090E-06,0.040
-6.080E-06,0.080
-6.070E-06,0.080
-6.060E-06,0.080
-6.050E-06,0.080
-6.040E-06,0.080
-6.030E-06,0.080
-6.020E-06,0.040
-6.010E-06,0.080
-6.000E-06,0.080
-5.990E-06,0.120
-5.980E-06,0.080
-5.970E-06,0.120
-5.960E-06,0.080
-5.950E-06,0.080
-5.940E-06,0.120
-5.930E-06,0.080
-5.920E-06,0.120
-5.910E-06,0.120
-5.900E-06,0.080
-5.890E-06,0.080
-5.880E-06,0.080
-5.870E-06,0.040
-5.860E-06,0.080
-5.850E-06,0.080
-5.840E-06,0.080
-5.830E-06,0.080
-5.820E-06,0.080
-5.810E-06,-0.040
-5.800E-06,0.000
-5.790E-06,0.000
-5.780E-06,0.000
-5.770E-06,0.040
-5.760E-06,0.000
-5.750E-06,0.000
-5.740E-06,0.000
-5.730E-06,0.040
-5.720E-06,0.040
-5.710E-06,0.040
-5.700E-06,0.040
-5.690E-06,0.040
-5.680E-06,0.040
-5.670E-06,0.000
-5.660E-06,0.040
-5.650E-06,0.040
-5.640E-06,0.040
-5.630E-06,0.040
-5.620E-06,0.040
-5.610E-06,0.040
-5.600E-06,0.040
-5.590E-06,0.040
-5.580E-06,0.040
-5.570E-06,0.040
-5.560E-06,0.000
-5.550E-06,0.040
-5.540E-06,0.000
-5.530E-06,0.000
-5.520E-06,0.040
-5.510E-06,0.000
-5.500E-06,0.000
-5.490E-06,0.000
-5.480E-06,0.000
-5.470E-06,0.040
-5.460E-06,0.000
-5.450E-06,0.000
-5.440E-06,0.040
-5.430E-06,0.080
-5.420E-06,0.120
-5.410E-06,0.000
-5.400E-06,0.040
-5.390E-06,0.040
-5.380E-06,0.080
-5.370E-06,0.080
-5.360E-06,0.080
-5.350E-06,0.080
-5.340E-06,0.080
-5.330E-06,0.040
-5.320E-06,0.040
-5.310E-06,0.040
-5.300E-06,0.080
-5.290E-06,0.080
-5.280E-06,0.040
-5.270E-06,0.000
-5.260E-06,0.080
-5.250E-06,0.040
-5.240E-06,0.080
-5.230E-06,0.080
-5.220E-06,0.040
-5.210E-06,0.080
-5.200E-06,0.080
-5.190E-06,0.040
-5.180E-06,0.040
-5.170E-06,0.080
-5.160E-06,0.040
-5.150E-06,0.040
-5.140E-06,0.080
-5.130E-06,0.080
-5.120E-06,0.080
-5.110E-06,0.040
-5.100E-06,0.040
-5.090E-06,0.040
-5.080E-06,0.040
-5.070E-06,0.000
-5.060E-06,0.040
-5.050E-06,-0.040
-5.040E-06,0.000
-5.030E-06,0.000
-5.020E-06,0.040
-5.010E-06,0.040
-5.000E-06,0.040
-4.990E-06,0.040
-4.980E-06,0.040
-4.970E-06,0.040
-4.960E-06,0.040
-4.950E-06,0.000
-4.940E-06,-0.040
-4.930E-06,0.000
-4.920E-06,0.000
-4.910E-06,0.040
-4.900E-06,0.040
-4.890E-06,0.000
-4.880E-06,0.040
-4.870E-06,0.040
-4.860E-06,0.040
-4.850E-06,0.040
-4.840E-06,0.080
-4.830E-06,0.080
-4.820E-06,0.080
-4.810E-06,0.080
-4.800E-06,0.080
-4.790E-06,0.080
-4.780E-06,0.040
-4.770E-06,0.040
-4.760E-06,0.120
-4.750E-06,0.040
-4.740E-06,0.080
-4.730E-06,0.040
-4.720E-06,0.080
-4.710E-06,0.080
-4.700E-06,0.080
-4.690E-06,0.120
-4.680E-06,0.120
-4.670E-06,0.000
-4.660E-06,0.080
-4.650E-06,0.080
-4.640E-06,0.040
-4.630E-06,0.040
-4.620E-06,0.040
-4.610E-06,0.080
-4.600E-06,0.040
-4.590E-06,0.040
-4.580E-06,0.040
-4.570E-06,0.040
-4.560E-06,0.040
-4.550E-06,0.000
-4.540E-06,0.040
-4.530E-06,0.040
-4.520E-06,0.080
-4.510E-06,0.040
-4.500E-06,0.040
-4.490E-06,0.040
-4.480E-06,0.040
-4.470E-06,0.040
-4.460E-06,0.000
-4.450E-06,0.040
-4.440E-06,0.040
-4.430E-06,0.040
-4.420E-06,0.040
-4.410E-06,0.040
-4.400E-06,0.080
-4.390E-06,0.000
-4.380E-06,0.080
-4.370E-06,0.040
-4.360E-06,0.040
-4.350E-06,0.040
-4.340E-06,0.080
-4.330E-06,0.040
-4.320E-06,0.080
-4.310E-06,0.040
-4.300E-06,0.040
-4.290E-06,0.040
-4.280E-06,-0.120
-4.270E-06,-0.560
-4.260E-06,-1.400
-4.250E-06,-2.600
-4.240E-06,-3.800
-4.230E-06,-4.800
-4.220E-06,-5.240
-4.210E-06,-5.200
-4.200E-06,-4.560
-4.190E-06,-3.320
-4.180E-06,-1.840
-4.170E-06,-0.080
-4.160E-06,1.600
-4.150E-06,3.120
-4.140E-06,4.200
-4.130E-06,4.920
-4.120E-06,5.040
-4.110E-06,4.680
-4.100E-06,4.200
-4.090E-06,3.600
-4.080E-06,3.160
-4.070E-06,2.640
-4.060E-06,2.360
-4.050E-06,2.080
-4.040E-06,1.880
-4.030E-06,1.800
-4.020E-06,1.800
-4.010E-06,1.640
-4.000E-06,1.360
-3.990E-06,0.800
-3.980E-06,0.080
-3.970E-06,-0.760
-3.960E-06,-1.600
-3.950E-06,-2.360
-3.940E-06,-2.880
-3.930E-06,-3.360
-3.920E-06,-3.560
-3.910E-06,-3.520
-3.900E-06,-3.240
-3.890E-06,-2.840
-3.880E-06,-2.160
-3.870E-06,-1.440
-3.860E-06,-0.640
-3.850E-06,0.000
-3.840E-06,0.640
-3.830E-06,0.960
-3.820E-06,1.320
-3.810E-06,1.320
-3.800E-06,1.160
-3.790E-06,0.840
-3.780E-06,0.520
-3.770E-06,0.160
-3.760E-06,-0.200
-3.750E-06,-0.360
-3.740E-06,-0.480
-3.730E-06,-0.480
-3.720E-06,-0.480
-3.710E-06,-0.320
-3.700E-06,-0.120
-3.690E-06,-0.040
-3.680E-06,0.080
-3.670E-06,0.120
-3.660E-06,0.200
-3.650E-06,0.120
-3.640E-06,0.040
-3.630E-06,0.000
-3.620E-06,-0.040
-3.610E-06,-0.160
-3.600E-06,-0.080
-3.590E-06,0.000
-3.580E-06,0.080
-3.570E-06,0.280
-3.560E-06,0.480
-3.550E-06,0.720
-3.540E-06,0.960
-3.530E-06,1.160
-3.520E-06,1.360
-3.510E-06,1.480
-3.500E-06,1.400
-3.490E-06,1.360
-3.480E-06,1.160
-3.470E-06,0.960
-3.460E-06,0.720
-3.450E-06,0.400
-3.440E-06,0.120
-3.430E-06,-0.200
-3.420E-06,-0.360
-3.410E-06,-0.480
-3.400E-06,-0.520
-3.390E-06,-0.480
-3.380E-06,-0.400
-3.370E-06,-0.240
-3.360E-06,-0.120
-3.350E-06,0.040
-3.340E-06,0.160
-3.330E-06,0.160
-3.320E-06,0.240
-3.310E-06,0.320
-3.300E-06,0.280
-3.290E-06,0.320
-3.280E-06,0.280
-3.270E-06,0.240
-3.260E-06,0.200
-3.250E-06,0.240
-3.240E-06,0.120
-3.230E-06,0.200
-3.220E-06,0.200
-3.210E-06,0.240
-3.200E-06,0.240
-3.190E-06,0.200
-3.180E-06,0.160
-3.170E-06,0.160
-3.160E-06,0.000
-3.150E-06,0.000
-3.140E-06,-0.120
-3.130E-06,-0.240
-3.120E-06,-0.280
-3.110E-06,-0.320
-3.100E-06,-0.360
-3.090E-06,-0.400
-3.080E-06,-0.400
-3.070E-06,-0.360
-3.060E-06,-0.320
-3.050E-06,-0.240
-3.040E-06,-0.120
-3.030E-06,-0.040
-3.020E-06,0.000
-3.010E-06,0.080
-3.000E-06,0.200
-2.990E-06,0.280
-2.980E-06,0.360
-2.970E-06,0.400
-2.960E-06,0.480
-2.950E-06,0.520
-2.940E-06,0.520
-2.930E-06,0.560
-2.920E-06,0.520
-2.910E-06,0.520
-2.900E-06,0.480
-2.890E-06,0.440
-2.880E-06,0.480
-2.870E-06,0.400
-2.860E-06,0.400
-2.850E-06,0.320
-2.840E-06,0.280
-2.830E-06,0.280
-2.820E-06,0.200
-2.810E-06,0.200
-2.800E-06,0.080
-2.790E-06,-0.040
-2.780E-06,-0.040
-2.770E-06,-0.120
-2.760E-06,-0.120
-2.750E-06,-0.240
-2.740E-06,-0.400
-2.730E-06,-0.480
-2.720E-06,-0.520
-2.710E-06,-0.560
-2.700E-06,-0.520
-2.690E-06,-0.520
-2.680E-06,-0.520
-2.670E-06,-0.440
-2.660E-06,-0.440
-2.650E-06,-0.360
-2.640E-06,-0.280
-2.630E-06,-0.280
-2.620E-06,-0.120
-2.610E-06,-0.120
-2.600E-06,-0.120
-2.590E-06,-0.080
-2.580E-06,0.040
-2.570E-06,-0.040
-2.560E-06,0.040
-2.550E-06,0.080
-2.540E-06,0.120
-2.530E-06,0.080
-2.520E-06,0.120
-2.510E-06,0.080
-2.500E-06,0.080
-2.490E-06,0.120
-2.480E-06,0.080
-2.470E-06,0.080
-2.460E-06,0.080
-2.450E-06,0.080
-2.440E-06,-0.040
-2.430E-06,-0.040
-2.420E-06,-0.040
-2.410E-06,0.000
-2.400E-06,0.040
-2.390E-06,0.200
-2.380E-06,0.360
-2.370E-06,0.520
-2.360E-06,0.680
-2.350E-06,0.760
-2.340E-06,0.720
-2.330E-06,0.640
-2.320E-06,0.480
-2.310E-06,0.400
-2.300E-06,0.160
-2.290E-06,0.040
-2.280E-06,-0.040
-2.270E-06,-0.240
-2.260E-06,-0.320
-2.250E-06,-0.440
-2.240E-06,-0.600
-2.230E-06,-0.720
-2.220E-06,-0.840
-2.210E-06,-0.920
-2.200E-06,-0.880
-2.190E-06,-0.960
-2.180E-06,-0.920
-2.170E-06,-0.960
-2.160E-06,-0.920
-2.150E-06,-0.880
-2.140E-06,-0.720
-2.130E-06,-0.680
-2.120E-06,-0.680
-2.110E-06,-0.560
-2.100E-06,-0.440
-2.090E-06,-0.400
-2.080E-06,-0.280
-2.070E-06,-0.240
-2.060E-06,-0.120
-2.050E-06,-0.040
-2.040E-06,-0.040
-2.030E-06,-0.080
-2.020E-06,-0.080
-2.010E-06,-0.200
-2.000E-06,-0.320
-1.990E-06,-0.400
-1.980E-06,-0.520
-1.970E-06,-0.600
-1.960E-06,-0.720
-1.950E-06,-0.880
-1.940E-06,-0.880
-1.930E-06,-0.960
-1.920E-06,-1.040
-1.910E-06,-1.080
-1.900E-06,-1.040
-1.890E-06,-1.000
-1.880E-06,-1.080
-1.870E-06,-0.960
-1.860E-06,-0.960
-1.850E-06,-1.000
-1.840E-06,-0.920
-1.830E-06,-0.800
-1.820E-06,-0.720
-1.810E-06,-0.560
-1.800E-06,-0.520
-1.790E-06,-0.520
-1.780E-06,-0.600
-1.770E-06,-0.640
-1.760E-06,-0.720
-1.750E-06,-0.760
-1.740E-06,-0.840
-1.730E-06,-0.880
-1.720E-06,-0.960
-1.710E-06,-1.120
-1.700E-06,-1.240
-1.690E-06,-1.320
-1.680E-06,-1.320
-1.670E-06,-1.360
-1.660E-06,-1.320
-1.650E-06,-1.400
-1.640E-06,-1.440
-1.630E-06,-1.400
-1.620E-06,-1.400
-1.610E-06,-1.400
-1.600E-06,-1.400
-1.590E-06,-1.520
-1.580E-06,-1.560
-1.570E-06,-1.640
-1.560E-06,-1.680
-1.550E-06,-1.760
-1.540E-06,-1.720
-1.530E-06,-1.680
-1.520E-06,-1.600
-1.510E-06,-1.560
-1.500E-06,-1.360
-1.490E-06,-1.320
-1.480E-06,-1.200
-1.470E-06,-1.080
-1.460E-06,-1.080
-1.450E-06,-0.920
-1.440E-06,-0.840
-1.430E-06,-0.840
-1.420E-06,-0.760
-1.410E-06,-0.760
-1.400E-06,-0.800
-1.390E-06,-0.840
-1.380E-06,-0.920
-1.370E-06,-0.960
-1.360E-06,-1.040
-1.350E-06,-1.040
-1.340E-06,-1.000
-1.330E-06,-0.960
-1.320E-06,-1.000
-1.310E-06,-1.000
-1.300E-06,-1.040
-1.290E-06,-0.960
-1.280E-06,-0.920
-1.270E-06,-0.920
-1.260E-06,-0.880
-1.250E-06,-0.880
-1.240E-06,-0.840
-1.230E-06,-0.800
-1.220E-06,-0.840
-1.210E-06,-0.720
-1.200E-06,-0.760
-1.190E-06,-0.720
-1.180E-06,-0.720
-1.170E-06,-0.680
-1.160E-06,-0.680
-1.150E-06,-0.560
-1.140E-06,-0.520
-1.130E-06,-0.560
-1.120E-06,-0.600
-1.110E-06,-0.600
-1.100E-06,-0.680
-1.090E-06,-0.640
-1.080E-06,-0.960
-1.070E-06,-0.800
-1.060E-06,-1.000
-1.050E-06,-0.880
-1.040E-06,-0.840
-1.030E-06,-0.960
-1.020E-06,-0.640
-1.010E-06,-0.800
-1.000E-06,-0.560
-9.900E-07,-0.800
-9.800E-07,-0.880
-9.700E-07,-1.200
-9.600E-07,-1.440
-9.500E-07,-1.680
-9.400E-07,-1.680
-9.300E-07,-1.640
-9.200E-07,-1.360
-9.100E-07,-1.240
-9.000E-07,-1.200
-8.900E-07,-1.280
-8.800E-07,-1.280
-8.700E-07,-1.600
-8.600E-07,-1.440
-8.500E-07,-1.680
-8.400E-07,-1.520
-8.300E-07,-1.640
-8.200E-07,-1.680
-8.100E-07,-1.600
-8.000E-07,-1.560
-7.900E-07,-1.520
-7.800E-07,-1.480
-7.700E-07,-1.480
-7.600E-07,-1.440
-7.500E-07,-1.400
-7.400E-07,-1.320
-7.300E-07,-1.240
-7.200E-07,-1.120
-7.100E-07,-1.160
-7.000E-07,-1.000
-6.900E-07,-0.960
-6.800E-07,-0.800
-6.700E-07,-0.680
-6.600E-07,-0.640
-6.500E-07,-0.560
-6.400E-07,-0.480
-6.300E-07,-0.400
-6.200E-07,-0.360
-6.100E-07,-0.360
-6.000E-07,-0.440
-5.900E-07,-0.320
-5.800E-07,-0.480
-5.700E-07,-0.440
-5.600E-07,-0.480
-5.500E-07,-0.600
-5.400E-07,-0.680
-5.300E-07,-0.760
-5.200E-07,-0.880
-5.100E-07,-1.080
-5.000E-07,-1.280
-4.900E-07,-1.440
-4.800E-07,-1.440
-4.700E-07,-1.680
-4.600E-07,-1.720
-4.500E-07,-2.040
-4.400E-07,-2.200
-4.300E-07,-2.240
-4.200E-07,-2.200
-4.100E-07,-2.360
-4.000E-07,-2.320
-3.900E-07,-2.320
-3.800E-07,-2.480
-3.700E-07,-2.400
-3.600E-07,-2.480
-3.500E-07,-2.680
-3.400E-07,-2.840
-3.300E-07,-3.000
-3.200E-07,-3.160
-3.100E-07,-3.120
-3.000E-07,-3.200
-2.900E-07,-3.120
-2.800E-07,-3.280
-2.700E-07,-3.320
-2.600E-07,-3.400
-2.500E-07,-3.320
-2.400E-07,-3.440
-2.300E-07,-3.520
-2.200E-07,-3.720
-2.100E-07,-3.680
-2.000E-07,-3.680
-1.900E-07,-3.680
-1.800E-07,-3.640
-1.700E-07,-3.600
-1.600E-07,-3.520
-1.500E-07,-3.520
-1.400E-07,-3.440
-1.300E-07,-3.440
-1.200E-07,-3.400
-1.100E-07,-3.280
-1.000E-07,-3.320
-9.000E-08,-3.200
-8.000E-08,-3.200
-7.000E-08,-3.160
-6.000E-08,-4.000
-5.000E-08,-1.760
-4.000E-08,2.840
-3.000E-08,4.200
-2.000E-08,5.400
-1.000E-08,5.120
0.000E+00,2.720
1.000E-08,0.200
2.000E-08,-1.360
3.000E-08,-0.320
4.000E-08,0.600
5.000E-08,-0.440
6.000E-08,-1.480
7.000E-08,-2.680
8.000E-08,-2.960
9.000E-08,-2.720
1.000E-07,-3.080
1.100E-07,-4.120
1.200E-07,-4.520
1.300E-07,-4.120
1.400E-07,-3.720
1.500E-07,-3.360
1.600E-07,-3.320
1.700E-07,-3.040
1.800E-07,-2.280
1.900E-07,-1.320
2.000E-07,-1.080
2.100E-07,-0.840
2.200E-07,-0.800
2.300E-07,-0.440
2.400E-07,-0.160
2.500E-07,0.000
2.600E-07,0.200
2.700E-07,0.480
2.800E-07,0.920
2.900E-07,1.200
3.000E-07,1.000
3.100E-07,0.840
3.200E-07,0.680
3.300E-07,0.560
3.400E-07,0.440
3.500E-07,0.280
3.600E-07,0.160
3.700E-07,-0.160
3.800E-07,-0.560
3.900E-07,-1.240
4.000E-07,-1.760
4.100E-07,-2.120
4.200E-07,-2.040
4.300E-07,-1.920
4.400E-07,-1.760
4.500E-07,-1.880
4.600E-07,-1.840
4.700E-07,-1.880
4.800E-07,-2.040
4.900E-07,-1.800
5.000E-07,-1.800
5.100E-07,-1.480
5.200E-07,-1.480
5.300E-07,-1.480
5.400E-07,-1.520
5.500E-07,-1.640
5.600E-07,-1.760
5.700E-07,-1.880
5.800E-07,-2.080
5.900E-07,-2.280
6.000E-07,-2.680
6.100E-07,-2.760
6.200E-07,-3.040
6.300E-07,-3.120
6.400E-07,-3.200
6.500E-07,-3.320
6.600E-07,-3.360
6.700E-07,-3.360
6.800E-07,-3.360
6.900E-07,-3.400
7.000E-07,-3.400
7.100E-07,-3.520
7.200E-07,-3.600
7.300E-07,-3.720
7.400E-07,-3.640
7.500E-07,-3.760
7.600E-07,-3.800
7.700E-07,-3.800
7.800E-07,-3.840
7.900E-07,-3.800
8.000E-07,-3.560
8.100E-07,-3.480
8.200E-07,-3.240
8.300E-07,-3.200
8.400E-07,-3.200
8.500E-07,-3.200
8.600E-07,-3.240
8.700E-07,-3.240
8.800E-07,-3.280
8.900E-07,-3.440
9.000E-07,-3.520
9.100E-07,-3.640
9.200E-07,-3.760
9.300E-07,-3.960
9.400E-07,-4.040
9.500E-07,-4.040
9.600E-07,-3.840
9.700E-07,-3.800
9.800E-07,-3.600
9.900E-07,-3.520
1.000E-06,-3.560
1.010E-06,-3.680
1.020E-06,-3.960
1.030E-06,-3.920
1.040E-06,-3.720
1.050E-06,-2.400
1.060E-06,-1.720
1.070E-06,0.560
1.080E-06,0.960
1.090E-06,2.320
1.100E-06,1.800
1.110E-06,2.200
1.120E-06,1.800
1.130E-06,2.120
1.140E-06,1.760
1.150E-06,1.800
1.160E-06,0.760
1.170E-06,0.000
1.180E-06,-1.040
1.190E-06,-1.960
1.200E-06,-2.560
1.210E-06,-2.920
1.220E-06,-3.400
1.230E-06,-3.720
1.240E-06,-4.120
1.250E-06,-4.320
1.260E-06,-4.440
1.270E-06,-4.480
1.280E-06,-4.280
1.290E-06,-3.920
1.300E-06,-3.280
1.310E-06,-2.800
1.320E-06,-2.480
1.330E-06,-2.200
1.340E-06,-2.000
1.350E-06,-1.840
1.360E-06,-1.520
1.370E-06,-1.320
1.380E-06,-0.920
1.390E-06,-0.560
1.400E-06,-0.360
1.410E-06,-0.240
1.420E-06,-0.120
1.430E-06,-0.080
1.440E-06,0.000
1.450E-06,0.160
1.460E-06,0.360
1.470E-06,0.400
1.480E-06,0.080
1.490E-06,-0.320
1.500E-06,-0.880
1.510E-06,-1.400
1.520E-06,-1.840
1.530E-06,-2.040
1.540E-06,-2.160
1.550E-06,-2.120
1.560E-06,-1.960
1.570E-06,-1.640
1.580E-06,-1.360
1.590E-06,-1.000
1.600E-06,-0.480
1.610E-06,-0.080
1.620E-06,0.440
1.630E-06,0.680
1.640E-06,0.920
1.650E-06,1.040
1.660E-06,1.000
1.670E-06,0.960
1.680E-06,0.880
1.690E-06,0.680
1.700E-06,0.560
1.710E-06,0.440
1.720E-06,0.320
1.730E-06,0.080
1.740E-06,-0.160
1.750E-06,-0.600
1.760E-06,-1.200
1.770E-06,-1.720
1.780E-06,-2.040
1.790E-06,-1.680
1.800E-06,-0.720
1.810E-06,0.080
1.820E-06,1.400
1.830E-06,2.040
1.840E-06,2.320
1.850E-06,2.320
1.860E-06,1.800
1.870E-06,0.680
1.880E-06,-0.440
1.890E-06,-2.280
1.900E-06,-3.640
1.910E-06,-5.000
1.920E-06,-5.200
1.930E-06,-5.240
1.940E-06,-5.240
1.950E-06,-5.240
1.960E-06,-5.240
1.970E-06,-5.200
1.980E-06,-5.240
1.990E-06,-5.240
2.000E-06,-5.240
2.010E-06,-5.240
2.020E-06,-5.240
2.030E-06,-5.200
2.040E-06,-5.200
2.050E-06,-4.800
2.060E-06,-4.320
2.070E-06,-3.760
2.080E-06,-3.320
2.090E-06,-2.720
2.100E-06,-2.160
2.110E-06,-1.680
2.120E-06,-1.200
2.130E-06,-0.800
2.140E-06,-0.520
2.150E-06,-0.240
2.160E-06,-0.080
2.170E-06,0.000
2.180E-06,0.000
2.190E-06,0.000
2.200E-06,0.040
2.210E-06,0.000
2.220E-06,-0.080
2.230E-06,-0.280
2.240E-06,-0.280
2.250E-06,-0.040
2.260E-06,-0.040
2.270E-06,0.160
2.280E-06,0.160
2.290E-06,0.200
2.300E-06,0.160
2.310E-06,0.120
2.320E-06,0.040
2.330E-06,0.000
2.340E-06,-0.360
2.350E-06,-0.400
2.360E-06,-0.400
2.370E-06,-0.400
2.380E-06,-0.320
2.390E-06,-0.240
2.400E-06,-0.200
2.410E-06,0.040
2.420E-06,0.280
2.430E-06,0.720
2.440E-06,1.040
2.450E-06,1.320
2.460E-06,1.520
2.470E-06,1.680
2.480E-06,1.800
2.490E-06,1.520
2.500E-06,1.040
2.510E-06,0.360
2.520E-06,-0.400
2.530E-06,-1.120
2.540E-06,-1.720
2.550E-06,-2.160
2.560E-06,-2.360
2.570E-06,-2.440
2.580E-06,-2.360
2.590E-06,-2.160
2.600E-06,-2.000
2.610E-06,-1.840
2.620E-06,-1.600
2.630E-06,-1.440
2.640E-06,-1.280
2.650E-06,-1.040
2.660E-06,-0.880
2.670E-06,-0.760
2.680E-06,-0.560
2.690E-06,-0.520
2.700E-06,-0.480
2.710E-06,-0.480
2.720E-06,-0.600
2.730E-06,-0.720
2.740E-06,-0.840
2.750E-06,-0.960
2.760E-06,-1.160
2.770E-06,-1.200
2.780E-06,-1.280
2.790E-06,-1.200
2.800E-06,-1.160
2.810E-06,-0.880
2.820E-06,-0.640
2.830E-06,-0.360
2.840E-06,-0.040
2.850E-06,0.240
2.860E-06,0.520
2.870E-06,0.800
2.880E-06,0.960
2.890E-06,1.120
2.900E-06,1.240
2.910E-06,1.240
2.920E-06,1.240
2.930E-06,1.040
2.940E-06,0.960
2.950E-06,0.760
2.960E-06,0.640
2.970E-06,0.440
2.980E-06,0.320
2.990E-06,0.240
3.000E-06,0.200
3.010E-06,0.120
3.020E-06,0.120
3.030E-06,0.080
3.040E-06,0.040
3.050E-06,0.000
3.060E-06,0.000
3.070E-06,-0.040
3.080E-06,-0.080
3.090E-06,-0.160
3.100E-06,-0.240
3.110E-06,-0.280
3.120E-06,-0.280
3.130E-06,-0.360
3.140E-06,-0.320
3.150E-06,-0.240
3.160E-06,-0.280
3.170E-06,-0.200
3.180E-06,-0.120
3.190E-06,-0.080
