mediciones/5-15 mala escala/42.3/WaveData4649.csv

#timebase=2000000(ps)
,#voltbase=1000000(mv/100)
#size=4000
-8.400E-06,0.040
-8.390E-06,0.080
-8.380E-06,0.000
-8.370E-06,0.040
-8.360E-06,0.040
-8.350E-06,0.080
-8.340E-06,0.080
-8.330E-06,0.080
-8.320E-06,0.080
-8.310E-06,0.120
-8.300E-06,0.120
-8.290E-06,0.040
-8.280E-06,0.040
-8.270E-06,0.080
-8.260E-06,0.040
-8.250E-06,0.040
-8.240E-06,0.120
-8.230E-06,0.000
-8.220E-06,0.080
-8.210E-06,0.080
-8.200E-06,0.080
-8.190E-06,0.120
-8.180E-06,0.120
-8.170E-06,0.000
-8.160E-06,0.080
-8.150E-06,0.040
-8.140E-06,0.080
-8.130E-06,0.040
-8.120E-06,0.000
-8.110E-06,0.040
-8.100E-06,0.000
-8.090E-06,0.080
-8.080E-06,0.040
-8.070E-06,0.080
-8.060E-06,0.000
-8.050E-06,0.000
-8.040E-06,0.040
-8.030E-06,0.000
-8.020E-06,0.040
-8.010E-06,0.080
-8.000E-06,0.040
-7.990E-06,0.080
-7.980E-06,0.000
-7.970E-06,0.040
-7.960E-06,0.080
-7.950E-06,0.040
-7.940E-06,0.040
-7.930E-06,0.040
-7.920E-06,0.040
-7.910E-06,0.080
-7.900E-06,0.040
-7.890E-06,0.080
-7.880E-06,0.080
-7.870E-06,0.080
-7.860E-06,0.040
-7.850E-06,0.040
-7.840E-06,0.080
-7.830E-06,0.080
-7.820E-06,0.080
-7.810E-06,0.080
-7.800E-06,0.080
-7.790E-06,0.080
-7.780E-06,0.080
-7.770E-06,0.040
-7.760E-06,0.040
-7.750E-06,0.040
-7.740E-06,0.080
-7.730E-06,0.040
-7.720E-06,0.040
-7.710E-06,0.040
-7.700E-06,0.000
-7.690E-06,0.080
-7.680E-06,0.000
-7.670E-06,0.040
-7.660E-06,0.080
-7.650E-06,0.040
-7.640E-06,0.080
-7.630E-06,0.080
-7.620E-06,0.080
-7.610E-06,0.040
-7.600E-06,0.000
-7.590E-06,0.040
-7.580E-06,0.000
-7.570E-06,0.080
-7.560E-06,0.080
-7.550E-06,0.080
-7.540E-06,0.080
-7.530E-06,0.040
-7.520E-06,0.080
-7.510E-06,0.120
-7.500E-06,0.120
-7.490E-06,0.040
-7.480E-06,0.040
-7.470E-06,0.040
-7.460E-06,0.040
-7.450E-06,0.040
-7.440E-06,0.040
-7.430E-06,0.040
-7.420E-06,0.040
-7.410E-06,0.080
-7.400E-06,0.040
-7.390E-06,0.040
-7.380E-06,0.080
-7.370E-06,0.040
-7.360E-06,0.040
-7.350E-06,0.040
-7.340E-06,0.040
-7.330E-06,0.120
-7.320E-06,0.040
-7.310E-06,0.040
-7.300E-06,0.040
-7.290E-06,0.040
-7.280E-06,0.040
-7.270E-06,0.040
-7.260E-06,0.080
-7.250E-06,0.080
-7.240E-06,0.040
-7.230E-06,0.040
-7.220E-06,0.000
-7.210E-06,0.040
-7.200E-06,0.040
-7.190E-06,0.080
-7.180E-06,0.080
-7.170E-06,0.080
-7.160E-06,0.040
-7.150E-06,0.080
-7.140E-06,0.120
-7.130E-06,0.040
-7.120E-06,0.040
-7.110E-06,0.080
-7.100E-06,0.080
-7.090E-06,0.040
-7.080E-06,0.080
-7.070E-06,0.040
-7.060E-06,0.000
-7.050E-06,0.040
-7.040E-06,0.000
-7.030E-06,0.000
-7.020E-06,0.040
-7.010E-06,0.040
-7.000E-06,0.080
-6.990E-06,0.040
-6.980E-06,0.040
-6.970E-06,0.080
-6.960E-06,0.040
-6.950E-06,0.040
-6.940E-06,0.040
-6.930E-06,0.040
-6.920E-06,0.040
-6.910E-06,0.120
-6.900E-06,0.000
-6.890E-06,0.000
-6.880E-06,0.040
-6.870E-06,0.080
-6.860E-06,0.120
-6.850E-06,0.000
-6.840E-06,0.040
-6.830E-06,0.080
-6.820E-06,0.080
-6.810E-06,0.080
-6.800E-06,0.080
-6.790E-06,0.080
-6.780E-06,0.040
-6.770E-06,0.120
-6.760E-06,0.160
-6.750E-06,0.040
-6.740E-06,0.080
-6.730E-06,0.080
-6.720E-06,0.040
-6.710E-06,0.080
-6.700E-06,0.040
-6.690E-06,0.000
-6.680E-06,0.040
-6.670E-06,-0.040
-6.660E-06,0.000
-6.650E-06,0.000
-6.640E-06,0.000
-6.630E-06,0.040
-6.620E-06,0.040
-6.610E-06,0.040
-6.600E-06,0.040
-6.590E-06,0.000
-6.580E-06,0.000
-6.570E-06,0.080
-6.560E-06,0.120
-6.550E-06,0.040
-6.540E-06,0.040
-6.530E-06,0.080
-6.520E-06,0.040
-6.510E-06,0.080
-6.500E-06,0.040
-6.490E-06,0.040
-6.480E-06,0.080
-6.470E-06,0.040
-6.460E-06,0.080
-6.450E-06,0.080
-6.440E-06,0.080
-6.430E-06,0.160
-6.420E-06,0.080
-6.410E-06,0.080
-6.400E-06,0.080
-6.390E-06,0.080
-6.380E-06,0.000
-6.370E-06,-0.040
-6.360E-06,0.040
-6.350E-06,0.000
-6.340E-06,0.000
-6.330E-06,0.000
-6.320E-06,0.000
-6.310E-06,-0.040
-6.300E-06,0.000
-6.290E-06,0.040
-6.280E-06,0.040
-6.270E-06,0.120
-6.260E-06,0.080
-6.250E-06,0.120
-6.240E-06,0.040
-6.230E-06,0.040
-6.220E-06,0.080
-6.210E-06,0.040
-6.200E-06,0.080
-6.190E-06,0.080
-6.180E-06,0.120
-6.170E-06,0.120
-6.160E-06,0.080
-6.150E-06,0.080
-6.140E-06,0.120
-6.130E-06,0.080
-6.120E-06,0.080
-6.110E-06,0.040
-6.100E-06,0.040
-6.090E-06,0.040
-6.080E-06,0.080
-6.070E-06,0.080
-6.060E-06,0.080
-6.050E-06,0.000
-6.040E-06,0.000
-6.030E-06,0.080
-6.020E-06,0.040
-6.010E-06,0.080
-6.000E-06,0.040
-5.990E-06,0.080
-5.980E-06,0.080
-5.970E-06,0.080
-5.960E-06,0.160
-5.950E-06,0.120
-5.940E-06,0.120
-5.930E-06,0.000
-5.920E-06,0.040
-5.910E-06,0.040
-5.900E-06,0.040
-5.890E-06,0.080
-5.880E-06,0.120
-5.870E-06,0.040
-5.860E-06,0.000
-5.850E-06,0.040
-5.840E-06,-0.040
-5.830E-06,0.000
-5.820E-06,0.080
-5.810E-06,0.000
-5.800E-06,0.080
-5.790E-06,0.040
-5.780E-06,0.080
-5.770E-06,0.040
-5.760E-06,0.040
-5.750E-06,0.120
-5.740E-06,0.040
-5.730E-06,0.040
-5.720E-06,0.080
-5.710E-06,0.000
-5.700E-06,0.040
-5.690E-06,0.040
-5.680E-06,0.040
-5.670E-06,0.080
-5.660E-06,0.080
-5.650E-06,0.040
-5.640E-06,0.040
-5.630E-06,0.040
-5.620E-06,0.080
-5.610E-06,0.040
-5.600E-06,0.080
-5.590E-06,0.080
-5.580E-06,0.040
-5.570E-06,0.080
-5.560E-06,0.040
-5.550E-06,0.040
-5.540E-06,0.080
-5.530E-06,0.040
-5.520E-06,0.040
-5.510E-06,0.040
-5.500E-06,0.080
-5.490E-06,0.040
-5.480E-06,0.080
-5.470E-06,0.000
-5.460E-06,0.040
-5.450E-06,0.080
-5.440E-06,0.080
-5.430E-06,0.000
-5.420E-06,0.040
-5.410E-06,0.040
-5.400E-06,0.040
-5.390E-06,-0.040
-5.380E-06,0.040
-5.370E-06,0.080
-5.360E-06,0.000
-5.350E-06,0.000
-5.340E-06,0.040
-5.330E-06,0.080
-5.320E-06,0.080
-5.310E-06,0.080
-5.300E-06,0.080
-5.290E-06,0.120
-5.280E-06,0.120
-5.270E-06,0.040
-5.260E-06,0.080
-5.250E-06,0.080
-5.240E-06,0.120
-5.230E-06,0.040
-5.220E-06,0.080
-5.210E-06,0.120
-5.200E-06,0.160
-5.190E-06,0.120
-5.180E-06,0.120
-5.170E-06,0.080
-5.160E-06,0.120
-5.150E-06,0.040
-5.140E-06,0.080
-5.130E-06,0.040
-5.120E-06,0.080
-5.110E-06,0.040
-5.100E-06,0.040
-5.090E-06,0.040
-5.080E-06,0.000
-5.070E-06,0.080
-5.060E-06,0.040
-5.050E-06,0.080
-5.040E-06,0.040
-5.030E-06,0.000
-5.020E-06,-0.040
-5.010E-06,0.000
-5.000E-06,0.040
-4.990E-06,0.000
-4.980E-06,0.000
-4.970E-06,0.000
-4.960E-06,0.000
-4.950E-06,0.000
-4.940E-06,0.000
-4.930E-06,0.000
-4.920E-06,0.000
-4.910E-06,0.080
-4.900E-06,0.000
-4.890E-06,0.080
-4.880E-06,0.080
-4.870E-06,0.120
-4.860E-06,0.040
-4.850E-06,0.120
-4.840E-06,0.160
-4.830E-06,0.120
-4.820E-06,0.080
-4.810E-06,0.000
-4.800E-06,0.040
-4.790E-06,0.040
-4.780E-06,0.040
-4.770E-06,0.000
-4.760E-06,0.000
-4.750E-06,0.000
-4.740E-06,0.040
-4.730E-06,0.000
-4.720E-06,0.040
-4.710E-06,0.040
-4.700E-06,0.040
-4.690E-06,0.040
-4.680E-06,0.000
-4.670E-06,0.040
-4.660E-06,0.080
-4.650E-06,0.080
-4.640E-06,0.160
-4.630E-06,0.080
-4.620E-06,0.040
-4.610E-06,0.080
-4.600E-06,0.080
-4.590E-06,0.080
-4.580E-06,0.080
-4.570E-06,0.080
-4.560E-06,0.160
-4.550E-06,0.160
-4.540E-06,0.120
-4.530E-06,0.080
-4.520E-06,0.080
-4.510E-06,0.040
-4.500E-06,0.080
-4.490E-06,0.040
-4.480E-06,0.160
-4.470E-06,0.120
-4.460E-06,0.160
-4.450E-06,0.160
-4.440E-06,0.160
-4.430E-06,0.120
-4.420E-06,0.080
-4.410E-06,0.080
-4.400E-06,0.080
-4.390E-06,0.080
-4.380E-06,0.040
-4.370E-06,0.040
-4.360E-06,0.080
-4.350E-06,0.080
-4.340E-06,0.080
-4.330E-06,0.080
-4.320E-06,0.080
-4.310E-06,0.040
-4.300E-06,0.000
-4.290E-06,0.080
-4.280E-06,0.000
-4.270E-06,0.080
-4.260E-06,0.080
-4.250E-06,0.080
-4.240E-06,0.080
-4.230E-06,0.080
-4.220E-06,0.000
-4.210E-06,0.080
-4.200E-06,0.000
-4.190E-06,0.080
-4.180E-06,0.080
-4.170E-06,0.080
-4.160E-06,0.000
-4.150E-06,0.080
-4.140E-06,0.040
-4.130E-06,0.120
-4.120E-06,0.120
-4.110E-06,0.120
-4.100E-06,0.080
-4.090E-06,0.080
-4.080E-06,0.040
-4.070E-06,0.080
-4.060E-06,-0.040
-4.050E-06,0.000
-4.040E-06,-0.080
-4.030E-06,-0.040
-4.020E-06,-0.080
-4.010E-06,0.000
-4.000E-06,-0.080
-3.990E-06,0.040
-3.980E-06,-0.040
-3.970E-06,0.000
-3.960E-06,0.000
-3.950E-06,0.040
-3.940E-06,0.080
-3.930E-06,0.080
-3.920E-06,0.040
-3.910E-06,0.080
-3.900E-06,0.120
-3.890E-06,0.080
-3.880E-06,0.120
-3.870E-06,0.160
-3.860E-06,0.160
-3.850E-06,0.200
-3.840E-06,0.200
-3.830E-06,0.160
-3.820E-06,0.120
-3.810E-06,0.120
-3.800E-06,0.160
-3.790E-06,0.040
-3.780E-06,0.120
-3.770E-06,0.080
-3.760E-06,0.080
-3.750E-06,0.120
-3.740E-06,0.120
-3.730E-06,0.120
-3.720E-06,0.040
-3.710E-06,0.080
-3.700E-06,0.080
-3.690E-06,0.080
-3.680E-06,0.080
-3.670E-06,0.080
-3.660E-06,0.040
-3.650E-06,0.080
-3.640E-06,0.000
-3.630E-06,0.040
-3.620E-06,0.080
-3.610E-06,0.080
-3.600E-06,0.120
-3.590E-06,0.040
-3.580E-06,0.040
-3.570E-06,0.080
-3.560E-06,0.000
-3.550E-06,0.000
-3.540E-06,0.000
-3.530E-06,0.000
-3.520E-06,-0.040
-3.510E-06,0.000
-3.500E-06,0.040
-3.490E-06,0.040
-3.480E-06,0.080
-3.470E-06,0.040
-3.460E-06,0.080
-3.450E-06,0.080
-3.440E-06,0.040
-3.430E-06,0.040
-3.420E-06,0.040
-3.410E-06,0.000
-3.400E-06,0.000
-3.390E-06,0.040
-3.380E-06,0.080
-3.370E-06,0.080
-3.360E-06,0.000
-3.350E-06,0.040
-3.340E-06,0.080
-3.330E-06,0.080
-3.320E-06,0.040
-3.310E-06,0.040
-3.300E-06,0.120
-3.290E-06,0.160
-3.280E-06,0.080
-3.270E-06,0.080
-3.260E-06,0.120
-3.250E-06,0.120
-3.240E-06,0.160
-3.230E-06,0.080
-3.220E-06,0.080
-3.210E-06,0.120
-3.200E-06,0.200
-3.190E-06,0.120
-3.180E-06,0.080
-3.170E-06,0.080
-3.160E-06,0.080
-3.150E-06,-0.040
-3.140E-06,0.040
-3.130E-06,0.040
-3.120E-06,0.040
-3.110E-06,0.000
-3.100E-06,0.040
-3.090E-06,0.000
-3.080E-06,0.000
-3.070E-06,0.000
-3.060E-06,0.000
-3.050E-06,-0.080
-3.040E-06,-0.080
-3.030E-06,-0.080
-3.020E-06,0.000
-3.010E-06,0.000
-3.000E-06,0.000
-2.990E-06,0.040
-2.980E-06,0.080
-2.970E-06,0.040
-2.960E-06,0.000
-2.950E-06,0.000
-2.940E-06,0.000
-2.930E-06,-0.040
-2.920E-06,-0.080
-2.910E-06,-0.040
-2.900E-06,0.040
-2.890E-06,-0.160
-2.880E-06,0.000
-2.870E-06,-0.280
-2.860E-06,-0.160
-2.850E-06,-0.200
-2.840E-06,-0.040
-2.830E-06,-0.040
-2.820E-06,-0.040
-2.810E-06,-0.120
-2.800E-06,-0.160
-2.790E-06,-0.080
-2.780E-06,0.040
-2.770E-06,0.000
-2.760E-06,0.000
-2.750E-06,0.000
-2.740E-06,0.040
-2.730E-06,0.120
-2.720E-06,0.080
-2.710E-06,0.160
-2.700E-06,0.200
-2.690E-06,0.120
-2.680E-06,0.080
-2.670E-06,0.120
-2.660E-06,0.120
-2.650E-06,0.160
-2.640E-06,0.200
-2.630E-06,0.160
-2.620E-06,0.120
-2.610E-06,0.120
-2.600E-06,0.160
-2.590E-06,0.200
-2.580E-06,0.160
-2.570E-06,0.200
-2.560E-06,0.200
-2.550E-06,0.240
-2.540E-06,0.160
-2.530E-06,0.120
-2.520E-06,0.160
-2.510E-06,0.120
-2.500E-06,0.080
-2.490E-06,0.040
-2.480E-06,0.040
-2.470E-06,-0.080
-2.460E-06,-0.080
-2.450E-06,-0.080
-2.440E-06,-0.080
-2.430E-06,0.040
-2.420E-06,0.000
-2.410E-06,0.000
-2.400E-06,-0.080
-2.390E-06,-0.080
-2.380E-06,-0.080
-2.370E-06,-0.080
-2.360E-06,-0.080
-2.350E-06,0.000
-2.340E-06,-0.040
-2.330E-06,-0.040
-2.320E-06,0.000
-2.310E-06,0.000
-2.300E-06,0.000
-2.290E-06,0.000
-2.280E-06,0.000
-2.270E-06,0.000
-2.260E-06,0.000
-2.250E-06,0.000
-2.240E-06,-0.040
-2.230E-06,-0.040
-2.220E-06,0.000
-2.210E-06,0.000
-2.200E-06,0.000
-2.190E-06,-0.040
-2.180E-06,-0.120
-2.170E-06,-0.160
-2.160E-06,-0.120
-2.150E-06,-0.200
-2.140E-06,-0.280
-2.130E-06,-0.360
-2.120E-06,-0.320
-2.110E-06,-0.320
-2.100E-06,-0.360
-2.090E-06,-0.400
-2.080E-06,-0.440
-2.070E-06,-0.480
-2.060E-06,-0.440
-2.050E-06,-0.440
-2.040E-06,-0.440
-2.030E-06,-0.480
-2.020E-06,-0.440
-2.010E-06,-0.480
-2.000E-06,-0.520
-1.990E-06,-0.480
-1.980E-06,-0.480
-1.970E-06,-0.560
-1.960E-06,-0.560
-1.950E-06,-0.600
-1.940E-06,-0.560
-1.930E-06,-0.600
-1.920E-06,-0.560
-1.910E-06,-0.640
-1.900E-06,-0.600
-1.890E-06,-0.640
-1.880E-06,-0.600
-1.870E-06,-0.680
-1.860E-06,-0.680
-1.850E-06,-0.680
-1.840E-06,-0.720
-1.830E-06,-0.720
-1.820E-06,-0.800
-1.810E-06,-0.840
-1.800E-06,-0.840
-1.790E-06,-0.840
-1.780E-06,-0.880
-1.770E-06,-0.920
-1.760E-06,-0.880
-1.750E-06,-0.560
-1.740E-06,-0.280
-1.730E-06,-0.040
-1.720E-06,0.000
-1.710E-06,-0.040
-1.700E-06,-0.280
-1.690E-06,-0.360
-1.680E-06,-0.320
-1.670E-06,-0.280
-1.660E-06,-0.280
-1.650E-06,-0.320
-1.640E-06,-0.440
-1.630E-06,-0.480
-1.620E-06,-0.440
-1.610E-06,-0.360
-1.600E-06,-0.160
-1.590E-06,-0.240
-1.580E-06,-0.200
-1.570E-06,-0.280
-1.560E-06,-0.280
-1.550E-06,-0.240
-1.540E-06,-0.240
-1.530E-06,-0.200
-1.520E-06,-0.160
-1.510E-06,-0.320
-1.500E-06,-0.160
-1.490E-06,0.000
-1.480E-06,0.000
-1.470E-06,0.120
-1.460E-06,0.040
-1.450E-06,0.120
-1.440E-06,0.080
-1.430E-06,0.360
-1.420E-06,0.320
-1.410E-06,0.360
-1.400E-06,0.240
-1.390E-06,0.080
-1.380E-06,-0.040
-1.370E-06,-0.040
-1.360E-06,0.000
-1.350E-06,-0.040
-1.340E-06,-0.200
-1.330E-06,-0.280
-1.320E-06,-0.280
-1.310E-06,-0.320
-1.300E-06,-0.320
-1.290E-06,-0.360
-1.280E-06,-0.360
-1.270E-06,-0.320
-1.260E-06,-0.240
-1.250E-06,-0.200
-1.240E-06,-0.120
-1.230E-06,-0.040
-1.220E-06,-0.080
-1.210E-06,-0.040
-1.200E-06,0.000
-1.190E-06,0.000
-1.180E-06,0.000
-1.170E-06,0.000
-1.160E-06,0.000
-1.150E-06,0.040
-1.140E-06,0.000
-1.130E-06,0.160
-1.120E-06,0.160
-1.110E-06,0.280
-1.100E-06,0.320
-1.090E-06,0.320
-1.080E-06,0.400
-1.070E-06,0.360
-1.060E-06,0.400
-1.050E-06,0.400
-1.040E-06,0.360
-1.030E-06,0.240
-1.020E-06,0.200
-1.010E-06,0.120
-1.000E-06,0.000
-9.900E-07,-0.080
-9.800E-07,-0.200
-9.700E-07,-0.160
-9.600E-07,-0.200
-9.500E-07,-0.080
-9.400E-07,-0.080
-9.300E-07,-0.160
-9.200E-07,-0.160
-9.100E-07,-0.280
-9.000E-07,-0.240
-8.900E-07,-0.200
-8.800E-07,-0.160
-8.700E-07,-0.160
-8.600E-07,-0.160
-8.500E-07,-0.080
-8.400E-07,-0.200
-8.300E-07,-0.120
-8.200E-07,-0.160
-8.100E-07,-0.240
-8.000E-07,-0.360
-7.900E-07,-0.480
-7.800E-07,-0.640
-7.700E-07,-0.680
-7.600E-07,-0.640
-7.500E-07,-0.600
-7.400E-07,-0.560
-7.300E-07,-0.560
-7.200E-07,-0.600
-7.100E-07,-0.640
-7.000E-07,-0.680
-6.900E-07,-0.760
-6.800E-07,-0.800
-6.700E-07,-0.800
-6.600E-07,-0.760
-6.500E-07,-0.720
-6.400E-07,-0.680
-6.300E-07,-0.640
-6.200E-07,-0.600
-6.100E-07,-0.520
-6.000E-07,-0.520
-5.900E-07,-0.480
-5.800E-07,-0.480
-5.700E-07,-0.400
-5.600E-07,-0.360
-5.500E-07,-0.320
-5.400E-07,-0.240
-5.300E-07,-0.320
-5.200E-07,-0.320
-5.100E-07,-0.360
-5.000E-07,-0.360
-4.900E-07,-0.400
-4.800E-07,-0.400
-4.700E-07,-0.400
-4.600E-07,-0.440
-4.500E-07,-0.520
-4.400E-07,-0.600
-4.300E-07,-0.640
-4.200E-07,-0.720
-4.100E-07,-0.800
-4.000E-07,-0.920
-3.900E-07,-1.040
-3.800E-07,-1.200
-3.700E-07,-1.320
-3.600E-07,-1.280
-3.500E-07,-1.440
-3.400E-07,-1.520
-3.300E-07,-1.760
-3.200E-07,-1.880
-3.100E-07,-2.000
-3.000E-07,-2.120
-2.900E-07,-2.240
-2.800E-07,-2.320
-2.700E-07,-2.480
-2.600E-07,-2.520
-2.500E-07,-2.560
-2.400E-07,-2.520
-2.300E-07,-2.520
-2.200E-07,-2.440
-2.100E-07,-2.440
-2.000E-07,-2.520
-1.900E-07,-2.360
-1.800E-07,-2.520
-1.700E-07,-2.520
-1.600E-07,-2.640
-1.500E-07,-2.480
-1.400E-07,-2.480
-1.300E-07,-2.320
-1.200E-07,-2.560
-1.100E-07,-2.680
-1.000E-07,-2.880
-9.000E-08,-3.080
-8.000E-08,-3.080
-7.000E-08,-3.200
-6.000E-08,-3.120
-5.000E-08,-2.600
-4.000E-08,-1.800
-3.000E-08,-0.880
-2.000E-08,-0.240
-1.000E-08,-0.400
0.000E+00,-0.960
1.000E-08,-1.280
2.000E-08,-1.800
3.000E-08,-1.720
4.000E-08,-1.520
5.000E-08,-1.520
6.000E-08,-1.000
7.000E-08,-0.560
8.000E-08,-0.720
9.000E-08,-0.200
1.000E-07,-0.880
1.100E-07,-0.640
1.200E-07,-1.280
1.300E-07,-1.000
1.400E-07,-1.280
1.500E-07,-1.280
1.600E-07,-1.520
1.700E-07,-1.440
1.800E-07,-1.200
1.900E-07,-0.840
2.000E-07,-0.800
2.100E-07,-0.680
2.200E-07,-0.840
2.300E-07,-1.000
2.400E-07,-0.960
2.500E-07,-1.200
2.600E-07,-1.280
2.700E-07,-1.200
2.800E-07,-1.400
2.900E-07,-1.080
3.000E-07,-0.880
3.100E-07,-0.440
3.200E-07,-0.280
3.300E-07,-0.040
3.400E-07,0.120
3.500E-07,0.360
3.600E-07,0.360
3.700E-07,0.400
3.800E-07,-0.040
3.900E-07,-0.160
4.000E-07,-0.640
4.100E-07,-0.560
4.200E-07,-0.920
4.300E-07,-0.720
4.400E-07,-0.920
4.500E-07,-0.640
4.600E-07,-0.600
4.700E-07,-0.520
4.800E-07,-0.360
4.900E-07,-0.320
5.000E-07,-0.360
5.100E-07,-0.320
5.200E-07,-0.320
5.300E-07,-0.360
5.400E-07,-0.240
5.500E-07,-0.360
5.600E-07,-0.400
5.700E-07,-0.480
5.800E-07,-0.600
5.900E-07,-0.760
6.000E-07,-0.760
6.100E-07,-0.840
6.200E-07,-0.800
6.300E-07,-0.800
6.400E-07,-0.720
6.500E-07,-0.800
6.600E-07,-0.760
6.700E-07,-0.840
6.800E-07,-0.760
6.900E-07,-1.000
7.000E-07,-0.880
7.100E-07,-0.960
7.200E-07,-0.880
7.300E-07,-0.880
7.400E-07,-0.960
7.500E-07,-1.400
7.600E-07,-1.680
7.700E-07,-1.680
7.800E-07,-1.560
7.900E-07,-1.160
8.000E-07,-1.080
8.100E-07,-0.600
8.200E-07,-0.360
8.300E-07,0.400
8.400E-07,1.720
8.500E-07,1.800
8.600E-07,2.160
8.700E-07,1.080
8.800E-07,0.600
8.900E-07,0.360
9.000E-07,-0.240
9.100E-07,-0.320
9.200E-07,-1.160
9.300E-07,-1.520
9.400E-07,-2.160
9.500E-07,-2.240
9.600E-07,-2.360
9.700E-07,-2.240
9.800E-07,-2.120
9.900E-07,-2.040
1.000E-06,-1.880
1.010E-06,-1.680
1.020E-06,-1.560
1.030E-06,-1.440
1.040E-06,-1.400
1.050E-06,-1.320
1.060E-06,-1.200
1.070E-06,-1.080
1.080E-06,-0.840
1.090E-06,-0.800
1.100E-06,-0.600
1.110E-06,-0.520
1.120E-06,-0.240
1.130E-06,0.000
1.140E-06,0.280
1.150E-06,0.280
1.160E-06,0.440
1.170E-06,0.440
1.180E-06,0.440
1.190E-06,0.440
1.200E-06,0.240
1.210E-06,0.200
1.220E-06,-0.040
1.230E-06,-0.360
1.240E-06,-0.640
1.250E-06,-0.800
1.260E-06,-1.120
1.270E-06,-1.280
1.280E-06,-1.440
1.290E-06,-1.480
1.300E-06,-1.440
1.310E-06,-1.280
1.320E-06,-1.120
1.330E-06,-0.960
1.340E-06,-0.840
1.350E-06,-0.880
1.360E-06,-0.880
1.370E-06,-0.880
1.380E-06,-1.000
1.390E-06,-1.000
1.400E-06,-1.120
1.410E-06,-1.120
1.420E-06,-1.200
1.430E-06,-1.200
1.440E-06,-1.280
1.450E-06,-1.320
1.460E-06,-1.520
1.470E-06,-1.560
1.480E-06,-1.640
1.490E-06,-1.640
1.500E-06,-1.640
1.510E-06,-1.640
1.520E-06,-1.680
1.530E-06,-1.800
1.540E-06,-1.800
1.550E-06,-1.800
1.560E-06,-1.840
1.570E-06,-1.800
1.580E-06,-1.840
1.590E-06,-1.880
1.600E-06,-1.960
1.610E-06,-1.880
1.620E-06,-1.800
1.630E-06,-1.560
1.640E-06,-1.480
1.650E-06,-1.200
1.660E-06,-1.000
1.670E-06,-0.760
1.680E-06,-0.680
1.690E-06,-0.720
1.700E-06,-0.880
1.710E-06,-1.160
1.720E-06,-1.600
1.730E-06,-2.160
1.740E-06,-2.440
1.750E-06,-3.000
1.760E-06,-3.200
1.770E-06,-3.440
1.780E-06,-3.560
1.790E-06,-3.600
1.800E-06,-3.680
1.810E-06,-3.800
1.820E-06,-3.880
1.830E-06,-3.960
1.840E-06,-3.960
1.850E-06,-3.840
1.860E-06,-3.720
1.870E-06,-3.560
1.880E-06,-3.200
1.890E-06,-2.960
1.900E-06,-2.680
1.910E-06,-2.400
1.920E-06,-2.160
1.930E-06,-1.920
1.940E-06,-1.680
1.950E-06,-1.480
1.960E-06,-1.400
1.970E-06,-1.280
1.980E-06,-1.160
1.990E-06,-1.120
2.000E-06,-1.080
2.010E-06,-1.080
2.020E-06,-0.960
2.030E-06,-1.000
2.040E-06,-1.000
2.050E-06,-1.040
2.060E-06,-1.080
2.070E-06,-1.240
2.080E-06,-1.360
2.090E-06,-1.600
2.100E-06,-1.760
2.110E-06,-2.080
2.120E-06,-2.320
2.130E-06,-2.680
2.140E-06,-3.080
2.150E-06,-3.320
2.160E-06,-3.600
2.170E-06,-3.800
2.180E-06,-4.000
2.190E-06,-4.120
2.200E-06,-4.200
2.210E-06,-4.400
2.220E-06,-4.560
2.230E-06,-4.680
2.240E-06,-4.720
2.250E-06,-4.880
2.260E-06,-5.000
2.270E-06,-5.120
2.280E-06,-5.160
2.290E-06,-5.160
2.300E-06,-5.200
2.310E-06,-5.200
2.320E-06,-5.240
2.330E-06,-5.240
2.340E-06,-5.160
2.350E-06,-5.080
2.360E-06,-5.000
2.370E-06,-4.880
2.380E-06,-4.760
2.390E-06,-4.640
2.400E-06,-4.520
2.410E-06,-4.360
2.420E-06,-4.200
2.430E-06,-4.120
2.440E-06,-3.960
2.450E-06,-3.840
2.460E-06,-3.640
2.470E-06,-3.400
2.480E-06,-3.200
2.490E-06,-3.040
2.500E-06,-2.720
2.510E-06,-2.440
2.520E-06,-2.160
2.530E-06,-1.880
2.540E-06,-1.600
2.550E-06,-1.320
2.560E-06,-1.040
2.570E-06,-0.640
2.580E-06,-0.400
2.590E-06,-0.200
2.600E-06,-0.040
2.610E-06,0.040
2.620E-06,0.160
2.630E-06,0.280
2.640E-06,0.240
2.650E-06,0.320
2.660E-06,0.360
2.670E-06,0.480
2.680E-06,0.640
2.690E-06,0.760
2.700E-06,0.960
2.710E-06,1.200
2.720E-06,1.360
2.730E-06,1.560
2.740E-06,1.720
2.750E-06,1.800
2.760E-06,1.760
2.770E-06,1.760
2.780E-06,1.800
2.790E-06,1.720
2.800E-06,1.640
2.810E-06,1.560
2.820E-06,1.480
2.830E-06,1.400
2.840E-06,1.240
2.850E-06,1.200
2.860E-06,1.120
2.870E-06,1.080
2.880E-06,1.040
2.890E-06,1.000
2.900E-06,0.920
2.910E-06,0.920
2.920E-06,0.880
2.930E-06,0.880
2.940E-06,0.880
2.950E-06,0.840
2.960E-06,0.840
2.970E-06,0.880
2.980E-06,0.840
2.990E-06,0.840
3.000E-06,0.840
3.010E-06,0.880
3.020E-06,0.880
3.030E-06,0.920
3.040E-06,0.960
3.050E-06,1.040
3.060E-06,1.000
3.070E-06,0.920
3.080E-06,0.960
3.090E-06,1.000
3.100E-06,1.040
3.110E-06,1.040
3.120E-06,1.040
3.130E-06,0.960
3.140E-06,0.960
3.150E-06,0.960
3.160E-06,0.920
3.170E-06,0.880
3.180E-06,0.880
3.190E-06,0.840
3.200E-06,0.840
3.210E-06,0.800
3.220E-06,0.800
3.230E-06,0.800
