mediciones/5-15 mala escala/42.3/WaveData4681.csv

#timebase=2000000(ps)
,#voltbase=1000000(mv/100)
#size=4000
-8.400E-06,-0.040
-8.390E-06,0.080
-8.380E-06,0.080
-8.370E-06,0.080
-8.360E-06,0.080
-8.350E-06,0.040
-8.340E-06,0.080
-8.330E-06,0.000
-8.320E-06,0.040
-8.310E-06,0.040
-8.300E-06,0.000
-8.290E-06,-0.040
-8.280E-06,0.000
-8.270E-06,0.000
-8.260E-06,0.000
-8.250E-06,0.000
-8.240E-06,-0.040
-8.230E-06,0.000
-8.220E-06,-0.040
-8.210E-06,0.040
-8.200E-06,-0.040
-8.190E-06,0.040
-8.180E-06,0.080
-8.170E-06,0.080
-8.160E-06,0.160
-8.150E-06,0.120
-8.140E-06,0.080
-8.130E-06,0.080
-8.120E-06,0.040
-8.110E-06,0.080
-8.100E-06,0.040
-8.090E-06,0.080
-8.080E-06,0.120
-8.070E-06,0.120
-8.060E-06,0.120
-8.050E-06,0.040
-8.040E-06,0.080
-8.030E-06,0.080
-8.020E-06,0.080
-8.010E-06,0.040
-8.000E-06,0.080
-7.990E-06,0.040
-7.980E-06,0.040
-7.970E-06,0.040
-7.960E-06,0.000
-7.950E-06,0.000
-7.940E-06,0.000
-7.930E-06,0.040
-7.920E-06,-0.040
-7.910E-06,0.000
-7.900E-06,0.000
-7.890E-06,0.000
-7.880E-06,-0.080
-7.870E-06,0.120
-7.860E-06,0.120
-7.850E-06,0.160
-7.840E-06,0.080
-7.830E-06,0.000
-7.820E-06,0.000
-7.810E-06,-0.040
-7.800E-06,0.000
-7.790E-06,0.080
-7.780E-06,0.080
-7.770E-06,0.040
-7.760E-06,0.040
-7.750E-06,0.040
-7.740E-06,-0.040
-7.730E-06,-0.040
-7.720E-06,0.040
-7.710E-06,0.000
-7.700E-06,0.000
-7.690E-06,-0.040
-7.680E-06,0.000
-7.670E-06,0.000
-7.660E-06,0.080
-7.650E-06,0.040
-7.640E-06,0.080
-7.630E-06,0.080
-7.620E-06,0.040
-7.610E-06,0.000
-7.600E-06,0.040
-7.590E-06,0.080
-7.580E-06,0.080
-7.570E-06,0.120
-7.560E-06,0.120
-7.550E-06,0.160
-7.540E-06,0.160
-7.530E-06,0.200
-7.520E-06,0.080
-7.510E-06,0.120
-7.500E-06,0.160
-7.490E-06,0.200
-7.480E-06,0.200
-7.470E-06,0.160
-7.460E-06,0.200
-7.450E-06,0.160
-7.440E-06,0.120
-7.430E-06,0.160
-7.420E-06,0.080
-7.410E-06,0.080
-7.400E-06,0.040
-7.390E-06,0.000
-7.380E-06,0.000
-7.370E-06,0.040
-7.360E-06,0.080
-7.350E-06,0.040
-7.340E-06,0.040
-7.330E-06,-0.080
-7.320E-06,-0.080
-7.310E-06,-0.160
-7.300E-06,-0.160
-7.290E-06,0.000
-7.280E-06,-0.040
-7.270E-06,0.000
-7.260E-06,-0.080
-7.250E-06,-0.040
-7.240E-06,0.000
-7.230E-06,0.040
-7.220E-06,0.040
-7.210E-06,0.040
-7.200E-06,0.040
-7.190E-06,0.040
-7.180E-06,0.080
-7.170E-06,0.120
-7.160E-06,0.200
-7.150E-06,0.160
-7.140E-06,0.200
-7.130E-06,0.120
-7.120E-06,0.080
-7.110E-06,0.160
-7.100E-06,0.120
-7.090E-06,0.200
-7.080E-06,0.160
-7.070E-06,0.160
-7.060E-06,0.120
-7.050E-06,0.160
-7.040E-06,0.160
-7.030E-06,0.160
-7.020E-06,0.160
-7.010E-06,0.200
-7.000E-06,0.200
-6.990E-06,0.160
-6.980E-06,0.160
-6.970E-06,0.160
-6.960E-06,0.120
-6.950E-06,0.080
-6.940E-06,0.080
-6.930E-06,0.040
-6.920E-06,0.000
-6.910E-06,0.000
-6.900E-06,0.000
-6.890E-06,0.000
-6.880E-06,0.040
-6.870E-06,0.000
-6.860E-06,0.040
-6.850E-06,0.040
-6.840E-06,0.000
-6.830E-06,0.040
-6.820E-06,0.000
-6.810E-06,0.000
-6.800E-06,-0.040
-6.790E-06,-0.080
-6.780E-06,-0.040
-6.770E-06,0.000
-6.760E-06,-0.040
-6.750E-06,0.040
-6.740E-06,-0.120
-6.730E-06,-0.040
-6.720E-06,0.000
-6.710E-06,0.000
-6.700E-06,0.160
-6.690E-06,0.200
-6.680E-06,0.080
-6.670E-06,0.040
-6.660E-06,0.000
-6.650E-06,0.000
-6.640E-06,0.080
-6.630E-06,0.080
-6.620E-06,0.040
-6.610E-06,0.000
-6.600E-06,0.000
-6.590E-06,-0.040
-6.580E-06,0.040
-6.570E-06,0.080
-6.560E-06,0.080
-6.550E-06,0.040
-6.540E-06,0.040
-6.530E-06,0.080
-6.520E-06,0.120
-6.510E-06,0.160
-6.500E-06,0.160
-6.490E-06,0.160
-6.480E-06,0.200
-6.470E-06,0.120
-6.460E-06,0.160
-6.450E-06,0.160
-6.440E-06,0.200
-6.430E-06,0.080
-6.420E-06,0.120
-6.410E-06,0.080
-6.400E-06,0.080
-6.390E-06,0.040
-6.380E-06,0.080
-6.370E-06,0.040
-6.360E-06,0.040
-6.350E-06,0.080
-6.340E-06,0.080
-6.330E-06,0.080
-6.320E-06,0.080
-6.310E-06,0.080
-6.300E-06,0.080
-6.290E-06,0.080
-6.280E-06,0.040
-6.270E-06,-0.040
-6.260E-06,-0.040
-6.250E-06,0.000
-6.240E-06,0.000
-6.230E-06,0.040
-6.220E-06,0.040
-6.210E-06,0.040
-6.200E-06,0.080
-6.190E-06,0.080
-6.180E-06,0.040
-6.170E-06,0.000
-6.160E-06,-0.080
-6.150E-06,0.080
-6.140E-06,0.000
-6.130E-06,0.080
-6.120E-06,0.000
-6.110E-06,-0.080
-6.100E-06,-0.080
-6.090E-06,-0.120
-6.080E-06,-0.160
-6.070E-06,-0.040
-6.060E-06,-0.120
-6.050E-06,-0.160
-6.040E-06,-0.160
-6.030E-06,-0.200
-6.020E-06,-0.080
-6.010E-06,-0.080
-6.000E-06,0.040
-5.990E-06,-0.040
-5.980E-06,0.000
-5.970E-06,0.000
-5.960E-06,0.000
-5.950E-06,0.080
-5.940E-06,0.080
-5.930E-06,0.080
-5.920E-06,0.120
-5.910E-06,0.040
-5.900E-06,0.080
-5.890E-06,0.040
-5.880E-06,0.160
-5.870E-06,0.160
-5.860E-06,0.200
-5.850E-06,0.200
-5.840E-06,0.200
-5.830E-06,0.160
-5.820E-06,0.120
-5.810E-06,0.240
-5.800E-06,0.280
-5.790E-06,0.360
-5.780E-06,0.120
-5.770E-06,0.120
-5.760E-06,0.080
-5.750E-06,0.040
-5.740E-06,0.080
-5.730E-06,0.080
-5.720E-06,0.080
-5.710E-06,-0.040
-5.700E-06,-0.040
-5.690E-06,-0.040
-5.680E-06,-0.040
-5.670E-06,0.000
-5.660E-06,0.000
-5.650E-06,-0.040
-5.640E-06,-0.040
-5.630E-06,0.000
-5.620E-06,-0.040
-5.610E-06,-0.040
-5.600E-06,0.040
-5.590E-06,0.040
-5.580E-06,0.120
-5.570E-06,0.080
-5.560E-06,0.040
-5.550E-06,0.000
-5.540E-06,-0.040
-5.530E-06,0.080
-5.520E-06,0.120
-5.510E-06,0.080
-5.500E-06,0.080
-5.490E-06,0.000
-5.480E-06,0.040
-5.470E-06,0.080
-5.460E-06,0.080
-5.450E-06,0.080
-5.440E-06,0.080
-5.430E-06,0.080
-5.420E-06,0.000
-5.410E-06,0.040
-5.400E-06,0.080
-5.390E-06,0.000
-5.380E-06,0.080
-5.370E-06,0.120
-5.360E-06,-0.040
-5.350E-06,-0.040
-5.340E-06,0.000
-5.330E-06,0.000
-5.320E-06,0.040
-5.310E-06,0.040
-5.300E-06,0.040
-5.290E-06,0.040
-5.280E-06,0.040
-5.270E-06,0.080
-5.260E-06,0.080
-5.250E-06,0.080
-5.240E-06,0.160
-5.230E-06,0.120
-5.220E-06,0.120
-5.210E-06,0.160
-5.200E-06,0.240
-5.190E-06,0.240
-5.180E-06,0.200
-5.170E-06,0.160
-5.160E-06,0.000
-5.150E-06,0.000
-5.140E-06,-0.080
-5.130E-06,-0.080
-5.120E-06,0.000
-5.110E-06,0.000
-5.100E-06,-0.080
-5.090E-06,-0.120
-5.080E-06,-0.160
-5.070E-06,-0.120
-5.060E-06,0.000
-5.050E-06,-0.040
-5.040E-06,0.000
-5.030E-06,0.000
-5.020E-06,-0.040
-5.010E-06,0.000
-5.000E-06,0.000
-4.990E-06,0.000
-4.980E-06,0.040
-4.970E-06,0.040
-4.960E-06,0.000
-4.950E-06,0.040
-4.940E-06,0.040
-4.930E-06,0.040
-4.920E-06,0.080
-4.910E-06,0.080
-4.900E-06,0.080
-4.890E-06,0.120
-4.880E-06,0.120
-4.870E-06,0.160
-4.860E-06,0.120
-4.850E-06,0.080
-4.840E-06,0.080
-4.830E-06,0.120
-4.820E-06,0.200
-4.810E-06,0.120
-4.800E-06,0.120
-4.790E-06,0.320
-4.780E-06,0.200
-4.770E-06,0.320
-4.760E-06,0.200
-4.750E-06,0.160
-4.740E-06,0.080
-4.730E-06,-0.040
-4.720E-06,0.000
-4.710E-06,0.000
-4.700E-06,-0.080
-4.690E-06,-0.040
-4.680E-06,-0.120
-4.670E-06,-0.200
-4.660E-06,-0.080
-4.650E-06,-0.040
-4.640E-06,-0.040
-4.630E-06,-0.080
-4.620E-06,-0.080
-4.610E-06,-0.040
-4.600E-06,-0.080
-4.590E-06,-0.040
-4.580E-06,0.000
-4.570E-06,0.040
-4.560E-06,-0.040
-4.550E-06,0.000
-4.540E-06,0.040
-4.530E-06,0.040
-4.520E-06,0.080
-4.510E-06,0.080
-4.500E-06,0.040
-4.490E-06,0.080
-4.480E-06,0.040
-4.470E-06,0.120
-4.460E-06,0.160
-4.450E-06,0.200
-4.440E-06,0.160
-4.430E-06,0.160
-4.420E-06,0.120
-4.410E-06,0.160
-4.400E-06,0.200
-4.390E-06,0.160
-4.380E-06,0.160
-4.370E-06,0.120
-4.360E-06,0.200
-4.350E-06,0.080
-4.340E-06,0.280
-4.330E-06,0.120
-4.320E-06,0.120
-4.310E-06,0.040
-4.300E-06,0.000
-4.290E-06,0.000
-4.280E-06,0.040
-4.270E-06,0.000
-4.260E-06,0.000
-4.250E-06,-0.080
-4.240E-06,-0.120
-4.230E-06,-0.200
-4.220E-06,-0.080
-4.210E-06,-0.040
-4.200E-06,-0.040
-4.190E-06,-0.040
-4.180E-06,-0.080
-4.170E-06,-0.080
-4.160E-06,-0.040
-4.150E-06,0.000
-4.140E-06,0.000
-4.130E-06,0.080
-4.120E-06,0.040
-4.110E-06,-0.040
-4.100E-06,-0.040
-4.090E-06,0.000
-4.080E-06,0.040
-4.070E-06,0.120
-4.060E-06,0.200
-4.050E-06,0.160
-4.040E-06,0.160
-4.030E-06,0.200
-4.020E-06,0.200
-4.010E-06,0.200
-4.000E-06,0.160
-3.990E-06,0.160
-3.980E-06,0.200
-3.970E-06,0.080
-3.960E-06,0.040
-3.950E-06,0.080
-3.940E-06,0.000
-3.930E-06,0.040
-3.920E-06,0.040
-3.910E-06,0.040
-3.900E-06,0.040
-3.890E-06,-0.040
-3.880E-06,0.000
-3.870E-06,0.000
-3.860E-06,0.000
-3.850E-06,0.040
-3.840E-06,0.000
-3.830E-06,-0.040
-3.820E-06,-0.040
-3.810E-06,0.000
-3.800E-06,0.000
-3.790E-06,0.000
-3.780E-06,0.000
-3.770E-06,0.080
-3.760E-06,0.040
-3.750E-06,0.040
-3.740E-06,0.080
-3.730E-06,0.080
-3.720E-06,0.120
-3.710E-06,0.160
-3.700E-06,0.240
-3.690E-06,0.200
-3.680E-06,0.160
-3.670E-06,0.200
-3.660E-06,0.120
-3.650E-06,-0.040
-3.640E-06,0.000
-3.630E-06,-0.040
-3.620E-06,0.000
-3.610E-06,-0.040
-3.600E-06,-0.040
-3.590E-06,-0.160
-3.580E-06,-0.160
-3.570E-06,-0.160
-3.560E-06,-0.200
-3.550E-06,-0.120
-3.540E-06,0.040
-3.530E-06,0.040
-3.520E-06,0.000
-3.510E-06,-0.040
-3.500E-06,0.000
-3.490E-06,0.040
-3.480E-06,0.040
-3.470E-06,0.080
-3.460E-06,0.160
-3.450E-06,0.040
-3.440E-06,0.000
-3.430E-06,0.040
-3.420E-06,0.000
-3.410E-06,0.080
-3.400E-06,0.120
-3.390E-06,0.200
-3.380E-06,0.160
-3.370E-06,0.120
-3.360E-06,0.120
-3.350E-06,0.120
-3.340E-06,0.120
-3.330E-06,0.120
-3.320E-06,0.240
-3.310E-06,0.280
-3.300E-06,0.360
-3.290E-06,0.280
-3.280E-06,0.120
-3.270E-06,0.120
-3.260E-06,-0.040
-3.250E-06,-0.040
-3.240E-06,0.040
-3.230E-06,0.040
-3.220E-06,0.000
-3.210E-06,0.000
-3.200E-06,-0.080
-3.190E-06,0.000
-3.180E-06,0.000
-3.170E-06,-0.040
-3.160E-06,-0.040
-3.150E-06,-0.040
-3.140E-06,0.000
-3.130E-06,0.040
-3.120E-06,0.040
-3.110E-06,0.040
-3.100E-06,0.040
-3.090E-06,0.040
-3.080E-06,-0.040
-3.070E-06,0.000
-3.060E-06,0.040
-3.050E-06,0.080
-3.040E-06,0.040
-3.030E-06,0.040
-3.020E-06,0.080
-3.010E-06,0.120
-3.000E-06,0.120
-2.990E-06,0.040
-2.980E-06,0.120
-2.970E-06,0.160
-2.960E-06,0.120
-2.950E-06,0.160
-2.940E-06,0.160
-2.930E-06,0.200
-2.920E-06,0.080
-2.910E-06,0.120
-2.900E-06,0.120
-2.890E-06,0.080
-2.880E-06,0.080
-2.870E-06,0.080
-2.860E-06,0.040
-2.850E-06,-0.040
-2.840E-06,-0.040
-2.830E-06,0.000
-2.820E-06,0.040
-2.810E-06,0.040
-2.800E-06,0.040
-2.790E-06,-0.040
-2.780E-06,0.080
-2.770E-06,0.080
-2.760E-06,0.160
-2.750E-06,0.320
-2.740E-06,0.160
-2.730E-06,0.200
-2.720E-06,0.040
-2.710E-06,-0.040
-2.700E-06,-0.120
-2.690E-06,-0.080
-2.680E-06,-0.080
-2.670E-06,-0.120
-2.660E-06,-0.040
-2.650E-06,-0.120
-2.640E-06,-0.280
-2.630E-06,-0.200
-2.620E-06,-0.200
-2.610E-06,-0.080
-2.600E-06,-0.040
-2.590E-06,-0.080
-2.580E-06,0.000
-2.570E-06,-0.040
-2.560E-06,-0.040
-2.550E-06,0.040
-2.540E-06,0.120
-2.530E-06,0.040
-2.520E-06,0.040
-2.510E-06,0.080
-2.500E-06,0.080
-2.490E-06,0.040
-2.480E-06,0.120
-2.470E-06,0.080
-2.460E-06,0.160
-2.450E-06,0.120
-2.440E-06,0.160
-2.430E-06,0.160
-2.420E-06,0.080
-2.410E-06,0.120
-2.400E-06,0.160
-2.390E-06,0.240
-2.380E-06,0.360
-2.370E-06,0.400
-2.360E-06,0.360
-2.350E-06,0.360
-2.340E-06,0.240
-2.330E-06,0.120
-2.320E-06,0.080
-2.310E-06,0.000
-2.300E-06,0.000
-2.290E-06,-0.080
-2.280E-06,-0.120
-2.270E-06,-0.120
-2.260E-06,-0.080
-2.250E-06,-0.120
-2.240E-06,-0.160
-2.230E-06,-0.160
-2.220E-06,-0.160
-2.210E-06,-0.160
-2.200E-06,-0.040
-2.190E-06,-0.040
-2.180E-06,-0.040
-2.170E-06,0.000
-2.160E-06,0.000
-2.150E-06,-0.040
-2.140E-06,0.000
-2.130E-06,0.000
-2.120E-06,0.040
-2.110E-06,0.040
-2.100E-06,0.080
-2.090E-06,0.040
-2.080E-06,0.080
-2.070E-06,0.160
-2.060E-06,0.120
-2.050E-06,0.120
-2.040E-06,0.080
-2.030E-06,0.040
-2.020E-06,0.000
-2.010E-06,0.000
-2.000E-06,0.040
-1.990E-06,0.040
-1.980E-06,0.000
-1.970E-06,-0.080
-1.960E-06,-0.240
-1.950E-06,-0.360
-1.940E-06,-0.480
-1.930E-06,-0.600
-1.920E-06,-0.680
-1.910E-06,-0.680
-1.900E-06,-0.720
-1.890E-06,-0.800
-1.880E-06,-0.720
-1.870E-06,-0.720
-1.860E-06,-0.600
-1.850E-06,-0.600
-1.840E-06,-0.480
-1.830E-06,-0.400
-1.820E-06,-0.360
-1.810E-06,-0.360
-1.800E-06,-0.320
-1.790E-06,-0.320
-1.780E-06,-0.320
-1.770E-06,-0.360
-1.760E-06,-0.360
-1.750E-06,-0.240
-1.740E-06,-0.320
-1.730E-06,-0.240
-1.720E-06,-0.240
-1.710E-06,-0.160
-1.700E-06,-0.200
-1.690E-06,-0.280
-1.680E-06,-0.200
-1.670E-06,-0.360
-1.660E-06,-0.360
-1.650E-06,-0.320
-1.640E-06,-0.280
-1.630E-06,-0.360
-1.620E-06,-0.160
-1.610E-06,-0.280
-1.600E-06,-0.240
-1.590E-06,-0.240
-1.580E-06,-0.320
-1.570E-06,-0.360
-1.560E-06,-0.400
-1.550E-06,-0.440
-1.540E-06,-0.520
-1.530E-06,-0.560
-1.520E-06,-0.560
-1.510E-06,-0.680
-1.500E-06,-0.680
-1.490E-06,-0.720
-1.480E-06,-0.800
-1.470E-06,-0.840
-1.460E-06,-0.880
-1.450E-06,-0.880
-1.440E-06,-0.880
-1.430E-06,-0.840
-1.420E-06,-0.760
-1.410E-06,-0.800
-1.400E-06,-0.760
-1.390E-06,-0.640
-1.380E-06,-0.640
-1.370E-06,-0.600
-1.360E-06,-0.600
-1.350E-06,-0.560
-1.340E-06,-0.600
-1.330E-06,-0.720
-1.320E-06,-0.840
-1.310E-06,-0.880
-1.300E-06,-0.880
-1.290E-06,-1.000
-1.280E-06,-1.160
-1.270E-06,-1.240
-1.260E-06,-1.320
-1.250E-06,-1.360
-1.240E-06,-1.360
-1.230E-06,-1.360
-1.220E-06,-1.280
-1.210E-06,-1.240
-1.200E-06,-1.280
-1.190E-06,-1.360
-1.180E-06,-1.560
-1.170E-06,-1.720
-1.160E-06,-1.960
-1.150E-06,-2.120
-1.140E-06,-2.280
-1.130E-06,-2.360
-1.120E-06,-2.480
-1.110E-06,-2.560
-1.100E-06,-2.680
-1.090E-06,-2.760
-1.080E-06,-2.800
-1.070E-06,-2.920
-1.060E-06,-3.040
-1.050E-06,-3.000
-1.040E-06,-3.160
-1.030E-06,-3.160
-1.020E-06,-3.160
-1.010E-06,-3.280
-1.000E-06,-3.120
-9.900E-07,-3.280
-9.800E-07,-3.080
-9.700E-07,-3.200
-9.600E-07,-3.280
-9.500E-07,-3.240
-9.400E-07,-3.160
-9.300E-07,-3.040
-9.200E-07,-2.920
-9.100E-07,-3.000
-9.000E-07,-3.000
-8.900E-07,-3.000
-8.800E-07,-3.040
-8.700E-07,-3.000
-8.600E-07,-2.960
-8.500E-07,-2.880
-8.400E-07,-2.680
-8.300E-07,-2.640
-8.200E-07,-2.400
-8.100E-07,-2.480
-8.000E-07,-2.480
-7.900E-07,-2.640
-7.800E-07,-2.680
-7.700E-07,-2.640
-7.600E-07,-2.880
-7.500E-07,-3.160
-7.400E-07,-3.440
-7.300E-07,-3.720
-7.200E-07,-3.840
-7.100E-07,-4.000
-7.000E-07,-3.960
-6.900E-07,-3.920
-6.800E-07,-3.800
-6.700E-07,-3.680
-6.600E-07,-3.600
-6.500E-07,-3.480
-6.400E-07,-3.360
-6.300E-07,-3.280
-6.200E-07,-3.200
-6.100E-07,-3.080
-6.000E-07,-3.000
-5.900E-07,-2.880
-5.800E-07,-2.840
-5.700E-07,-2.920
-5.600E-07,-2.920
-5.500E-07,-3.000
-5.400E-07,-3.000
-5.300E-07,-3.040
-5.200E-07,-3.120
-5.100E-07,-3.240
-5.000E-07,-3.360
-4.900E-07,-3.560
-4.800E-07,-3.480
-4.700E-07,-3.400
-4.600E-07,-3.520
-4.500E-07,-3.760
-4.400E-07,-3.640
-4.300E-07,-3.800
-4.200E-07,-3.680
-4.100E-07,-3.640
-4.000E-07,-3.840
-3.900E-07,-3.840
-3.800E-07,-4.240
-3.700E-07,-4.240
-3.600E-07,-4.440
-3.500E-07,-4.480
-3.400E-07,-4.600
-3.300E-07,-4.640
-3.200E-07,-4.640
-3.100E-07,-4.760
-3.000E-07,-4.720
-2.900E-07,-4.720
-2.800E-07,-4.720
-2.700E-07,-4.720
-2.600E-07,-4.640
-2.500E-07,-4.520
-2.400E-07,-4.480
-2.300E-07,-4.400
-2.200E-07,-4.440
-2.100E-07,-4.360
-2.000E-07,-4.240
-1.900E-07,-4.080
-1.800E-07,-4.000
-1.700E-07,-3.880
-1.600E-07,-3.960
-1.500E-07,-3.840
-1.400E-07,-3.960
-1.300E-07,-3.840
-1.200E-07,-4.000
-1.100E-07,-3.960
-1.000E-07,-4.000
-9.000E-08,-4.080
-8.000E-08,-4.240
-7.000E-08,-4.320
-6.000E-08,-4.280
-5.000E-08,-4.240
-4.000E-08,-4.200
-3.000E-08,-4.160
-2.000E-08,-4.240
-1.000E-08,-4.320
0.000E+00,-4.280
1.000E-08,-4.240
2.000E-08,-4.080
3.000E-08,-4.040
4.000E-08,-3.920
5.000E-08,-3.880
6.000E-08,-3.760
7.000E-08,-3.680
8.000E-08,-3.600
9.000E-08,-3.600
1.000E-07,-3.560
1.100E-07,-3.640
1.200E-07,-3.560
1.300E-07,-3.600
1.400E-07,-3.560
1.500E-07,-3.680
1.600E-07,-3.680
1.700E-07,-3.680
1.800E-07,-3.880
1.900E-07,-3.840
2.000E-07,-3.960
2.100E-07,-3.800
2.200E-07,-4.080
2.300E-07,-4.200
2.400E-07,-4.240
2.500E-07,-4.280
2.600E-07,-3.920
2.700E-07,-3.680
2.800E-07,-3.320
2.900E-07,-3.200
3.000E-07,-3.080
3.100E-07,-3.000
3.200E-07,-3.000
3.300E-07,-3.080
3.400E-07,-3.240
3.500E-07,-3.320
3.600E-07,-3.520
3.700E-07,-3.600
3.800E-07,-3.640
3.900E-07,-3.560
4.000E-07,-3.600
4.100E-07,-3.560
4.200E-07,-3.520
4.300E-07,-3.280
4.400E-07,-3.080
4.500E-07,-2.800
4.600E-07,-2.560
4.700E-07,-2.320
4.800E-07,-2.040
4.900E-07,-1.880
5.000E-07,-1.840
5.100E-07,-2.040
5.200E-07,-2.080
5.300E-07,-2.240
5.400E-07,-2.280
5.500E-07,-2.440
5.600E-07,-2.680
5.700E-07,-3.120
5.800E-07,-3.480
5.900E-07,-3.960
6.000E-07,-4.360
6.100E-07,-4.840
6.200E-07,-5.240
6.300E-07,-5.240
6.400E-07,-5.240
6.500E-07,-5.200
6.600E-07,-5.240
6.700E-07,-5.240
6.800E-07,-5.240
6.900E-07,-5.240
7.000E-07,-5.240
7.100E-07,-5.200
7.200E-07,-5.240
7.300E-07,-5.240
7.400E-07,-5.240
7.500E-07,-5.200
7.600E-07,-5.240
7.700E-07,-5.240
7.800E-07,-5.240
7.900E-07,-5.240
8.000E-07,-5.240
8.100E-07,-5.240
8.200E-07,-5.200
8.300E-07,-5.240
8.400E-07,-5.240
8.500E-07,-5.200
8.600E-07,-5.240
8.700E-07,-5.240
8.800E-07,-5.240
8.900E-07,-5.200
9.000E-07,-5.240
9.100E-07,-5.240
9.200E-07,-5.240
9.300E-07,-5.200
9.400E-07,-4.960
9.500E-07,-4.720
9.600E-07,-4.400
9.700E-07,-4.160
9.800E-07,-3.920
9.900E-07,-3.600
1.000E-06,-3.360
1.010E-06,-3.120
1.020E-06,-2.800
1.030E-06,-2.480
1.040E-06,-2.200
1.050E-06,-1.960
1.060E-06,-1.720
1.070E-06,-1.400
1.080E-06,-1.120
1.090E-06,-0.920
1.100E-06,-0.720
1.110E-06,-0.480
1.120E-06,-0.280
1.130E-06,0.000
1.140E-06,0.120
1.150E-06,0.360
1.160E-06,0.480
1.170E-06,0.600
1.180E-06,0.760
1.190E-06,0.840
1.200E-06,0.960
1.210E-06,0.920
1.220E-06,1.000
1.230E-06,0.960
1.240E-06,1.000
1.250E-06,0.960
1.260E-06,0.920
1.270E-06,0.880
1.280E-06,0.840
1.290E-06,0.680
1.300E-06,0.640
1.310E-06,0.560
1.320E-06,0.440
1.330E-06,0.320
1.340E-06,0.120
1.350E-06,0.080
1.360E-06,-0.040
1.370E-06,-0.080
1.380E-06,-0.160
1.390E-06,-0.200
1.400E-06,-0.280
1.410E-06,-0.280
1.420E-06,-0.240
1.430E-06,-0.240
1.440E-06,-0.160
1.450E-06,-0.120
1.460E-06,-0.040
1.470E-06,0.040
1.480E-06,0.160
1.490E-06,0.160
1.500E-06,0.240
1.510E-06,0.240
1.520E-06,0.320
1.530E-06,0.400
1.540E-06,0.400
1.550E-06,0.400
1.560E-06,0.440
1.570E-06,0.480
1.580E-06,0.440
1.590E-06,0.440
1.600E-06,0.480
1.610E-06,0.440
1.620E-06,0.480
1.630E-06,0.400
1.640E-06,0.440
1.650E-06,0.320
1.660E-06,0.320
1.670E-06,0.320
1.680E-06,0.320
1.690E-06,0.320
1.700E-06,0.320
1.710E-06,0.400
1.720E-06,0.440
1.730E-06,0.440
1.740E-06,0.480
1.750E-06,0.560
1.760E-06,0.600
1.770E-06,0.640
1.780E-06,0.640
1.790E-06,0.680
1.800E-06,0.680
1.810E-06,0.680
1.820E-06,0.640
1.830E-06,0.640
1.840E-06,0.640
1.850E-06,0.600
1.860E-06,0.600
1.870E-06,0.640
1.880E-06,0.640
1.890E-06,0.680
1.900E-06,0.640
1.910E-06,0.680
1.920E-06,0.680
1.930E-06,0.760
1.940E-06,0.760
1.950E-06,0.800
1.960E-06,0.840
1.970E-06,0.840
1.980E-06,0.840
1.990E-06,0.880
2.000E-06,0.840
2.010E-06,0.840
2.020E-06,0.880
2.030E-06,0.880
2.040E-06,0.840
2.050E-06,0.800
2.060E-06,0.760
2.070E-06,0.680
2.080E-06,0.640
2.090E-06,0.640
2.100E-06,0.600
2.110E-06,0.560
2.120E-06,0.600
2.130E-06,0.560
2.140E-06,0.520
2.150E-06,0.520
2.160E-06,0.520
2.170E-06,0.560
2.180E-06,0.600
2.190E-06,0.720
2.200E-06,0.800
2.210E-06,0.840
2.220E-06,0.920
2.230E-06,1.040
2.240E-06,1.040
2.250E-06,1.040
2.260E-06,1.040
2.270E-06,1.080
2.280E-06,1.080
2.290E-06,1.040
2.300E-06,1.080
2.310E-06,1.040
2.320E-06,1.160
2.330E-06,1.160
2.340E-06,1.200
2.350E-06,1.120
2.360E-06,1.120
2.370E-06,1.160
2.380E-06,1.080
2.390E-06,1.080
2.400E-06,1.000
2.410E-06,1.040
2.420E-06,1.000
2.430E-06,0.920
2.440E-06,0.960
2.450E-06,0.960
2.460E-06,1.040
2.470E-06,0.960
2.480E-06,0.920
2.490E-06,0.920
2.500E-06,0.920
2.510E-06,0.920
2.520E-06,0.920
2.530E-06,0.880
2.540E-06,0.840
2.550E-06,0.840
2.560E-06,0.840
2.570E-06,0.840
2.580E-06,0.880
2.590E-06,1.000
2.600E-06,1.080
2.610E-06,1.160
2.620E-06,1.200
2.630E-06,1.320
2.640E-06,1.360
2.650E-06,1.320
2.660E-06,1.320
2.670E-06,1.360
2.680E-06,1.360
2.690E-06,1.360
2.700E-06,1.320
2.710E-06,1.440
2.720E-06,1.480
2.730E-06,1.520
2.740E-06,1.560
2.750E-06,1.680
2.760E-06,1.720
2.770E-06,1.760
2.780E-06,1.760
2.790E-06,1.760
2.800E-06,1.680
2.810E-06,1.600
2.820E-06,1.520
2.830E-06,1.400
2.840E-06,1.360
2.850E-06,1.280
2.860E-06,1.320
2.870E-06,1.360
2.880E-06,1.400
2.890E-06,1.520
2.900E-06,1.600
2.910E-06,1.720
2.920E-06,1.800
2.930E-06,1.800
2.940E-06,1.920
2.950E-06,1.920
2.960E-06,2.000
2.970E-06,2.040
2.980E-06,2.000
2.990E-06,2.040
3.000E-06,2.000
3.010E-06,2.080
3.020E-06,2.120
3.030E-06,2.040
3.040E-06,2.000
3.050E-06,2.000
3.060E-06,2.000
3.070E-06,1.960
3.080E-06,1.920
3.090E-06,1.960
3.100E-06,1.920
3.110E-06,2.000
3.120E-06,1.920
3.130E-06,2.000
3.140E-06,1.960
3.150E-06,1.880
3.160E-06,1.840
3.170E-06,1.760
3.180E-06,1.680
3.190E-06,1.560
3.200E-06,1.400
3.210E-06,1.360
3.220E-06,1.280
3.230E-06,1.320
3.240E-06,1.280
