mediciones/5-15 mala escala/42.3/WaveData4680.csv

#timebase=2000000(ps)
,#voltbase=100000(mv/100)
#size=4000
-8.400E-06,0.008
-8.390E-06,-0.016
-8.380E-06,-0.024
-8.370E-06,-0.020
-8.360E-06,0.004
-8.350E-06,0.024
-8.340E-06,0.028
-8.330E-06,0.028
-8.320E-06,0.016
-8.310E-06,-0.008
-8.300E-06,-0.012
-8.290E-06,-0.012
-8.280E-06,0.000
-8.270E-06,0.004
-8.260E-06,0.012
-8.250E-06,0.016
-8.240E-06,0.012
-8.230E-06,0.012
-8.220E-06,-0.004
-8.210E-06,-0.004
-8.200E-06,-0.008
-8.190E-06,-0.004
-8.180E-06,-0.004
-8.170E-06,0.008
-8.160E-06,0.012
-8.150E-06,0.016
-8.140E-06,0.016
-8.130E-06,0.008
-8.120E-06,0.000
-8.110E-06,-0.004
-8.100E-06,-0.008
-8.090E-06,-0.004
-8.080E-06,0.008
-8.070E-06,0.016
-8.060E-06,0.016
-8.050E-06,0.012
-8.040E-06,-0.004
-8.030E-06,-0.008
-8.020E-06,-0.012
-8.010E-06,-0.008
-8.000E-06,0.004
-7.990E-06,0.012
-7.980E-06,0.012
-7.970E-06,0.004
-7.960E-06,0.000
-7.950E-06,0.000
-7.940E-06,0.008
-7.930E-06,0.000
-7.920E-06,0.004
-7.910E-06,0.000
-7.900E-06,0.004
-7.890E-06,0.008
-7.880E-06,0.024
-7.870E-06,-0.008
-7.860E-06,-0.016
-7.850E-06,-0.008
-7.840E-06,0.000
-7.830E-06,0.008
-7.820E-06,0.032
-7.810E-06,0.024
-7.800E-06,-0.012
-7.790E-06,-0.028
-7.780E-06,-0.024
-7.770E-06,0.004
-7.760E-06,0.020
-7.750E-06,0.040
-7.740E-06,0.024
-7.730E-06,-0.004
-7.720E-06,-0.028
-7.710E-06,-0.028
-7.700E-06,-0.008
-7.690E-06,0.024
-7.680E-06,0.032
-7.670E-06,0.028
-7.660E-06,0.012
-7.650E-06,-0.008
-7.640E-06,-0.004
-7.630E-06,-0.004
-7.620E-06,-0.004
-7.610E-06,0.004
-7.600E-06,0.012
-7.590E-06,0.012
-7.580E-06,0.008
-7.570E-06,0.008
-7.560E-06,0.004
-7.550E-06,0.000
-7.540E-06,0.000
-7.530E-06,0.004
-7.520E-06,0.008
-7.510E-06,0.008
-7.500E-06,0.000
-7.490E-06,0.000
-7.480E-06,-0.004
-7.470E-06,-0.004
-7.460E-06,-0.004
-7.450E-06,0.004
-7.440E-06,0.012
-7.430E-06,0.012
-7.420E-06,0.008
-7.410E-06,0.008
-7.400E-06,-0.008
-7.390E-06,0.000
-7.380E-06,-0.008
-7.370E-06,-0.032
-7.360E-06,-0.020
-7.350E-06,0.000
-7.340E-06,0.020
-7.330E-06,0.032
-7.320E-06,0.044
-7.310E-06,0.008
-7.300E-06,-0.036
-7.290E-06,-0.056
-7.280E-06,-0.028
-7.270E-06,0.024
-7.260E-06,0.056
-7.250E-06,0.056
-7.240E-06,0.028
-7.230E-06,-0.028
-7.220E-06,-0.052
-7.210E-06,-0.028
-7.200E-06,0.000
-7.190E-06,0.040
-7.180E-06,0.036
-7.170E-06,0.024
-7.160E-06,0.000
-7.150E-06,-0.012
-7.140E-06,-0.024
-7.130E-06,-0.004
-7.120E-06,0.008
-7.110E-06,0.016
-7.100E-06,0.028
-7.090E-06,0.020
-7.080E-06,0.008
-7.070E-06,0.000
-7.060E-06,-0.004
-7.050E-06,-0.004
-7.040E-06,0.004
-7.030E-06,0.012
-7.020E-06,0.004
-7.010E-06,0.008
-7.000E-06,0.000
-6.990E-06,0.000
-6.980E-06,0.004
-6.970E-06,0.012
-6.960E-06,0.008
-6.950E-06,0.008
-6.940E-06,0.008
-6.930E-06,-0.004
-6.920E-06,-0.004
-6.910E-06,0.000
-6.900E-06,0.008
-6.890E-06,0.008
-6.880E-06,0.004
-6.870E-06,0.008
-6.860E-06,0.008
-6.850E-06,0.004
-6.840E-06,0.000
-6.830E-06,-0.008
-6.820E-06,-0.020
-6.810E-06,0.004
-6.800E-06,0.020
-6.790E-06,0.020
-6.780E-06,0.008
-6.770E-06,-0.004
-6.760E-06,-0.012
-6.750E-06,-0.008
-6.740E-06,0.016
-6.730E-06,0.020
-6.720E-06,-0.004
-6.710E-06,-0.028
-6.700E-06,-0.028
-6.690E-06,-0.008
-6.680E-06,0.016
-6.670E-06,0.044
-6.660E-06,0.028
-6.650E-06,-0.008
-6.640E-06,-0.028
-6.630E-06,-0.036
-6.620E-06,-0.012
-6.610E-06,0.028
-6.600E-06,0.044
-6.590E-06,0.024
-6.580E-06,-0.004
-6.570E-06,-0.024
-6.560E-06,-0.028
-6.550E-06,-0.004
-6.540E-06,0.024
-6.530E-06,0.028
-6.520E-06,0.016
-6.510E-06,0.000
-6.500E-06,-0.008
-6.490E-06,-0.008
-6.480E-06,0.004
-6.470E-06,0.008
-6.460E-06,0.004
-6.450E-06,0.008
-6.440E-06,0.008
-6.430E-06,0.008
-6.420E-06,0.008
-6.410E-06,0.008
-6.400E-06,-0.004
-6.390E-06,-0.004
-6.380E-06,0.000
-6.370E-06,0.000
-6.360E-06,0.004
-6.350E-06,0.016
-6.340E-06,0.008
-6.330E-06,0.004
-6.320E-06,0.000
-6.310E-06,0.000
-6.300E-06,0.000
-6.290E-06,0.008
-6.280E-06,0.024
-6.270E-06,0.020
-6.260E-06,0.016
-6.250E-06,0.008
-6.240E-06,0.000
-6.230E-06,-0.004
-6.220E-06,-0.004
-6.210E-06,-0.004
-6.200E-06,0.004
-6.190E-06,0.024
-6.180E-06,0.012
-6.170E-06,0.008
-6.160E-06,0.004
-6.150E-06,-0.040
-6.140E-06,-0.040
-6.130E-06,-0.040
-6.120E-06,0.004
-6.110E-06,0.028
-6.100E-06,0.064
-6.090E-06,0.028
-6.080E-06,-0.008
-6.070E-06,-0.036
-6.060E-06,-0.040
-6.050E-06,-0.004
-6.040E-06,0.020
-6.030E-06,0.044
-6.020E-06,0.028
-6.010E-06,0.008
-6.000E-06,-0.020
-5.990E-06,-0.020
-5.980E-06,-0.008
-5.970E-06,0.012
-5.960E-06,0.012
-5.950E-06,0.016
-5.940E-06,0.016
-5.930E-06,0.008
-5.920E-06,0.008
-5.910E-06,0.008
-5.900E-06,0.008
-5.890E-06,0.004
-5.880E-06,-0.004
-5.870E-06,-0.020
-5.860E-06,-0.012
-5.850E-06,0.012
-5.840E-06,0.028
-5.830E-06,0.040
-5.820E-06,0.008
-5.810E-06,-0.020
-5.800E-06,-0.036
-5.790E-06,-0.036
-5.780E-06,-0.004
-5.770E-06,0.040
-5.760E-06,0.052
-5.750E-06,0.024
-5.740E-06,-0.008
-5.730E-06,-0.036
-5.720E-06,-0.020
-5.710E-06,0.008
-5.700E-06,0.028
-5.690E-06,0.020
-5.680E-06,0.004
-5.670E-06,-0.008
-5.660E-06,-0.008
-5.650E-06,0.008
-5.640E-06,0.008
-5.630E-06,0.016
-5.620E-06,0.012
-5.610E-06,-0.004
-5.600E-06,-0.028
-5.590E-06,-0.024
-5.580E-06,-0.008
-5.570E-06,0.012
-5.560E-06,0.032
-5.550E-06,0.032
-5.540E-06,0.004
-5.530E-06,-0.024
-5.520E-06,-0.032
-5.510E-06,-0.012
-5.500E-06,0.008
-5.490E-06,0.024
-5.480E-06,0.028
-5.470E-06,0.016
-5.460E-06,-0.008
-5.450E-06,-0.024
-5.440E-06,-0.024
-5.430E-06,-0.012
-5.420E-06,0.016
-5.410E-06,0.024
-5.400E-06,0.016
-5.390E-06,0.008
-5.380E-06,0.008
-5.370E-06,-0.004
-5.360E-06,-0.004
-5.350E-06,0.000
-5.340E-06,-0.004
-5.330E-06,0.004
-5.320E-06,0.016
-5.310E-06,0.024
-5.300E-06,0.012
-5.290E-06,0.004
-5.280E-06,-0.004
-5.270E-06,-0.008
-5.260E-06,-0.008
-5.250E-06,-0.004
-5.240E-06,0.020
-5.230E-06,0.024
-5.220E-06,0.012
-5.210E-06,-0.004
-5.200E-06,-0.040
-5.190E-06,-0.044
-5.180E-06,-0.016
-5.170E-06,0.024
-5.160E-06,0.052
-5.150E-06,0.060
-5.140E-06,0.008
-5.130E-06,-0.040
-5.120E-06,-0.056
-5.110E-06,-0.032
-5.100E-06,0.008
-5.090E-06,0.056
-5.080E-06,0.060
-5.070E-06,0.024
-5.060E-06,-0.012
-5.050E-06,-0.044
-5.040E-06,-0.040
-5.030E-06,-0.008
-5.020E-06,0.024
-5.010E-06,0.040
-5.000E-06,0.036
-4.990E-06,0.012
-4.980E-06,-0.008
-4.970E-06,-0.024
-4.960E-06,-0.020
-4.950E-06,0.004
-4.940E-06,0.016
-4.930E-06,0.020
-4.920E-06,0.024
-4.910E-06,0.016
-4.900E-06,0.000
-4.890E-06,-0.012
-4.880E-06,-0.012
-4.870E-06,0.008
-4.860E-06,0.012
-4.850E-06,0.020
-4.840E-06,0.024
-4.830E-06,0.016
-4.820E-06,-0.020
-4.810E-06,-0.020
-4.800E-06,-0.008
-4.790E-06,-0.008
-4.780E-06,0.000
-4.770E-06,0.008
-4.760E-06,0.040
-4.750E-06,0.036
-4.740E-06,0.020
-4.730E-06,-0.020
-4.720E-06,-0.040
-4.710E-06,-0.036
-4.700E-06,-0.008
-4.690E-06,0.036
-4.680E-06,0.052
-4.670E-06,0.036
-4.660E-06,0.008
-4.650E-06,-0.028
-4.640E-06,-0.048
-4.630E-06,-0.028
-4.620E-06,0.004
-4.610E-06,0.044
-4.600E-06,0.036
-4.590E-06,0.024
-4.580E-06,0.000
-4.570E-06,-0.020
-4.560E-06,-0.024
-4.550E-06,-0.004
-4.540E-06,0.008
-4.530E-06,0.028
-4.520E-06,0.024
-4.510E-06,0.016
-4.500E-06,0.012
-4.490E-06,0.000
-4.480E-06,-0.004
-4.470E-06,-0.008
-4.460E-06,0.000
-4.450E-06,0.008
-4.440E-06,0.020
-4.430E-06,0.016
-4.420E-06,0.004
-4.410E-06,-0.004
-4.400E-06,-0.004
-4.390E-06,-0.004
-4.380E-06,0.008
-4.370E-06,0.012
-4.360E-06,0.012
-4.350E-06,-0.008
-4.340E-06,-0.040
-4.330E-06,-0.020
-4.320E-06,0.016
-4.310E-06,0.056
-4.300E-06,0.028
-4.290E-06,-0.004
-4.280E-06,-0.032
-4.270E-06,-0.024
-4.260E-06,-0.008
-4.250E-06,0.020
-4.240E-06,0.036
-4.230E-06,0.024
-4.220E-06,-0.004
-4.210E-06,-0.020
-4.200E-06,-0.020
-4.190E-06,-0.008
-4.180E-06,0.024
-4.170E-06,0.020
-4.160E-06,0.020
-4.150E-06,0.000
-4.140E-06,-0.012
-4.130E-06,-0.004
-4.120E-06,0.008
-4.110E-06,0.016
-4.100E-06,0.024
-4.090E-06,0.020
-4.080E-06,-0.008
-4.070E-06,-0.024
-4.060E-06,-0.016
-4.050E-06,-0.008
-4.040E-06,0.012
-4.030E-06,0.028
-4.020E-06,0.028
-4.010E-06,0.008
-4.000E-06,-0.004
-3.990E-06,-0.012
-3.980E-06,-0.016
-3.970E-06,-0.012
-3.960E-06,0.004
-3.950E-06,0.024
-3.940E-06,0.024
-3.930E-06,0.020
-3.920E-06,0.012
-3.910E-06,-0.004
-3.900E-06,-0.012
-3.890E-06,-0.008
-3.880E-06,0.000
-3.870E-06,0.008
-3.860E-06,0.012
-3.850E-06,0.020
-3.840E-06,0.008
-3.830E-06,0.004
-3.820E-06,-0.004
-3.810E-06,-0.008
-3.800E-06,-0.008
-3.790E-06,0.004
-3.780E-06,0.012
-3.770E-06,0.016
-3.760E-06,0.016
-3.750E-06,0.008
-3.740E-06,0.004
-3.730E-06,-0.016
-3.720E-06,-0.004
-3.710E-06,-0.008
-3.700E-06,0.008
-3.690E-06,0.024
-3.680E-06,0.024
-3.670E-06,0.012
-3.660E-06,0.012
-3.650E-06,-0.004
-3.640E-06,-0.016
-3.630E-06,-0.036
-3.620E-06,-0.020
-3.610E-06,0.004
-3.600E-06,0.036
-3.590E-06,0.052
-3.580E-06,0.036
-3.570E-06,-0.004
-3.560E-06,-0.020
-3.550E-06,-0.036
-3.540E-06,-0.020
-3.530E-06,0.000
-3.520E-06,0.024
-3.510E-06,0.036
-3.500E-06,0.036
-3.490E-06,0.020
-3.480E-06,-0.020
-3.470E-06,-0.052
-3.460E-06,-0.040
-3.450E-06,0.000
-3.440E-06,0.044
-3.430E-06,0.060
-3.420E-06,0.032
-3.410E-06,0.004
-3.400E-06,-0.036
-3.390E-06,-0.040
-3.380E-06,-0.020
-3.370E-06,0.004
-3.360E-06,0.036
-3.350E-06,0.044
-3.340E-06,0.024
-3.330E-06,0.000
-3.320E-06,-0.052
-3.310E-06,-0.056
-3.300E-06,-0.032
-3.290E-06,0.016
-3.280E-06,0.052
-3.270E-06,0.072
-3.260E-06,0.032
-3.250E-06,-0.032
-3.240E-06,-0.060
-3.230E-06,-0.060
-3.220E-06,-0.004
-3.210E-06,0.040
-3.200E-06,0.068
-3.190E-06,0.044
-3.180E-06,0.012
-3.170E-06,-0.036
-3.160E-06,-0.036
-3.150E-06,-0.020
-3.140E-06,0.008
-3.130E-06,0.024
-3.120E-06,0.028
-3.110E-06,0.028
-3.100E-06,0.004
-3.090E-06,-0.004
-3.080E-06,-0.020
-3.070E-06,-0.016
-3.060E-06,-0.012
-3.050E-06,0.000
-3.040E-06,0.024
-3.030E-06,0.032
-3.020E-06,0.020
-3.010E-06,0.004
-3.000E-06,-0.012
-2.990E-06,-0.024
-2.980E-06,-0.016
-2.970E-06,0.004
-2.960E-06,0.024
-2.950E-06,0.020
-2.940E-06,0.020
-2.930E-06,0.008
-2.920E-06,0.000
-2.910E-06,-0.012
-2.900E-06,-0.012
-2.890E-06,0.004
-2.880E-06,0.016
-2.870E-06,0.024
-2.860E-06,0.020
-2.850E-06,0.028
-2.840E-06,0.024
-2.830E-06,0.004
-2.820E-06,0.008
-2.810E-06,0.008
-2.800E-06,0.012
-2.790E-06,-0.004
-2.780E-06,-0.016
-2.770E-06,-0.004
-2.760E-06,-0.100
-2.750E-06,-0.040
-2.740E-06,-0.008
-2.730E-06,0.076
-2.720E-06,0.060
-2.710E-06,0.072
-2.700E-06,0.040
-2.690E-06,-0.044
-2.680E-06,-0.072
-2.670E-06,-0.100
-2.660E-06,-0.020
-2.650E-06,0.040
-2.640E-06,0.108
-2.630E-06,0.076
-2.620E-06,0.008
-2.610E-06,-0.060
-2.600E-06,-0.064
-2.590E-06,-0.036
-2.580E-06,0.004
-2.570E-06,0.040
-2.560E-06,0.044
-2.550E-06,0.036
-2.540E-06,0.004
-2.530E-06,-0.008
-2.520E-06,-0.024
-2.510E-06,-0.012
-2.500E-06,-0.004
-2.490E-06,0.020
-2.480E-06,0.024
-2.470E-06,0.028
-2.460E-06,0.024
-2.450E-06,0.016
-2.440E-06,0.004
-2.430E-06,-0.004
-2.420E-06,0.012
-2.410E-06,0.008
-2.400E-06,0.012
-2.390E-06,-0.008
-2.380E-06,-0.024
-2.370E-06,-0.028
-2.360E-06,0.008
-2.350E-06,0.040
-2.340E-06,0.032
-2.330E-06,0.008
-2.320E-06,-0.012
-2.310E-06,-0.024
-2.300E-06,-0.024
-2.290E-06,0.008
-2.280E-06,0.012
-2.270E-06,0.016
-2.260E-06,0.012
-2.250E-06,0.000
-2.240E-06,-0.008
-2.230E-06,-0.004
-2.220E-06,-0.004
-2.210E-06,-0.004
-2.200E-06,0.012
-2.190E-06,0.020
-2.180E-06,0.008
-2.170E-06,0.008
-2.160E-06,0.024
-2.150E-06,0.016
-2.140E-06,0.004
-2.130E-06,-0.012
-2.120E-06,-0.012
-2.110E-06,0.004
-2.100E-06,0.000
-2.090E-06,0.024
-2.080E-06,0.028
-2.070E-06,0.040
-2.060E-06,0.008
-2.050E-06,0.004
-2.040E-06,0.016
-2.030E-06,0.040
-2.020E-06,0.068
-2.010E-06,0.048
-2.000E-06,-0.028
-1.990E-06,-0.108
-1.980E-06,-0.104
-1.970E-06,-0.028
-1.960E-06,0.060
-1.950E-06,0.088
-1.940E-06,0.092
-1.930E-06,0.060
-1.920E-06,0.004
-1.910E-06,-0.064
-1.900E-06,-0.052
-1.890E-06,-0.020
-1.880E-06,0.032
-1.870E-06,0.084
-1.860E-06,0.080
-1.850E-06,0.040
-1.840E-06,-0.032
-1.830E-06,-0.072
-1.820E-06,-0.096
-1.810E-06,-0.036
-1.800E-06,0.040
-1.790E-06,0.096
-1.780E-06,0.076
-1.770E-06,0.036
-1.760E-06,-0.040
-1.750E-06,-0.072
-1.740E-06,-0.072
-1.730E-06,-0.024
-1.720E-06,0.000
-1.710E-06,0.028
-1.700E-06,0.052
-1.690E-06,0.048
-1.680E-06,0.024
-1.670E-06,0.000
-1.660E-06,-0.024
-1.650E-06,-0.032
-1.640E-06,-0.020
-1.630E-06,0.012
-1.620E-06,0.064
-1.610E-06,0.072
-1.600E-06,0.032
-1.590E-06,-0.008
-1.580E-06,-0.036
-1.570E-06,-0.020
-1.560E-06,0.012
-1.550E-06,0.072
-1.540E-06,0.088
-1.530E-06,0.092
-1.520E-06,0.092
-1.510E-06,0.072
-1.500E-06,0.048
-1.490E-06,0.044
-1.480E-06,0.060
-1.470E-06,0.108
-1.460E-06,0.136
-1.450E-06,0.136
-1.440E-06,0.120
-1.430E-06,0.088
-1.420E-06,0.072
-1.410E-06,0.060
-1.400E-06,0.056
-1.390E-06,0.044
-1.380E-06,0.044
-1.370E-06,0.016
-1.360E-06,0.020
-1.350E-06,0.008
-1.340E-06,0.028
-1.330E-06,0.044
-1.320E-06,0.084
-1.310E-06,0.120
-1.300E-06,0.136
-1.290E-06,0.160
-1.280E-06,0.152
-1.270E-06,0.144
-1.260E-06,0.100
-1.250E-06,0.048
-1.240E-06,-0.044
-1.230E-06,-0.116
-1.220E-06,-0.172
-1.210E-06,-0.156
-1.200E-06,-0.124
-1.190E-06,-0.052
-1.180E-06,0.028
-1.170E-06,0.040
-1.160E-06,0.012
-1.150E-06,-0.036
-1.140E-06,-0.064
-1.130E-06,-0.048
-1.120E-06,0.020
-1.110E-06,0.096
-1.100E-06,0.140
-1.090E-06,0.156
-1.080E-06,0.128
-1.070E-06,0.060
-1.060E-06,0.020
-1.050E-06,0.016
-1.040E-06,0.008
-1.030E-06,0.016
-1.020E-06,0.024
-1.010E-06,-0.004
-1.000E-06,0.020
-9.900E-07,0.020
-9.800E-07,0.072
-9.700E-07,0.124
-9.600E-07,0.144
-9.500E-07,0.128
-9.400E-07,0.056
-9.300E-07,0.008
-9.200E-07,0.000
-9.100E-07,0.080
-9.000E-07,0.176
-8.900E-07,0.260
-8.800E-07,0.240
-8.700E-07,0.136
-8.600E-07,-0.056
-8.500E-07,-0.204
-8.400E-07,-0.296
-8.300E-07,-0.284
-8.200E-07,-0.188
-8.100E-07,-0.052
-8.000E-07,0.028
-7.900E-07,0.060
-7.800E-07,0.040
-7.700E-07,-0.064
-7.600E-07,-0.140
-7.500E-07,-0.088
-7.400E-07,0.048
-7.300E-07,0.212
-7.200E-07,0.320
-7.100E-07,0.308
-7.000E-07,0.240
-6.900E-07,0.156
-6.800E-07,0.092
-6.700E-07,0.108
-6.600E-07,0.148
-6.500E-07,0.228
-6.400E-07,0.292
-6.300E-07,0.308
-6.200E-07,0.268
-6.100E-07,0.184
-6.000E-07,0.088
-5.900E-07,0.012
-5.800E-07,-0.012
-5.700E-07,0.012
-5.600E-07,0.036
-5.500E-07,0.028
-5.400E-07,-0.008
-5.300E-07,-0.072
-5.200E-07,-0.104
-5.100E-07,-0.084
-5.000E-07,-0.040
-4.900E-07,-0.044
-4.800E-07,-0.092
-4.700E-07,-0.164
-4.600E-07,-0.276
-4.500E-07,-0.288
-4.400E-07,-0.172
-4.300E-07,-0.036
-4.200E-07,0.052
-4.100E-07,0.076
-4.000E-07,0.052
-3.900E-07,0.012
-3.800E-07,-0.028
-3.700E-07,-0.012
-3.600E-07,0.060
-3.500E-07,0.180
-3.400E-07,0.288
-3.300E-07,0.336
-3.200E-07,0.300
-3.100E-07,0.224
-3.000E-07,0.172
-2.900E-07,0.136
-2.800E-07,0.136
-2.700E-07,0.192
-2.600E-07,0.224
-2.500E-07,0.256
-2.400E-07,0.224
-2.300E-07,0.128
-2.200E-07,0.012
-2.100E-07,-0.068
-2.000E-07,-0.080
-1.900E-07,-0.004
-1.800E-07,0.056
-1.700E-07,0.132
-1.600E-07,0.148
-1.500E-07,0.052
-1.400E-07,-0.080
-1.300E-07,-0.184
-1.200E-07,-0.264
-1.100E-07,-0.264
-1.000E-07,-0.164
-9.000E-08,-0.068
-8.000E-08,-0.024
-7.000E-08,-0.028
-6.000E-08,-0.080
-5.000E-08,-0.104
-4.000E-08,-0.068
-3.000E-08,0.084
-2.000E-08,0.280
-1.000E-08,0.408
0.000E+00,0.436
1.000E-08,0.392
2.000E-08,0.276
3.000E-08,0.168
4.000E-08,0.076
5.000E-08,0.064
6.000E-08,0.104
7.000E-08,0.168
8.000E-08,0.216
9.000E-08,0.172
1.000E-07,0.096
1.100E-07,-0.036
1.200E-07,-0.120
1.300E-07,-0.184
1.400E-07,-0.176
1.500E-07,-0.100
1.600E-07,-0.040
1.700E-07,-0.072
1.800E-07,-0.124
1.900E-07,-0.136
2.000E-07,-0.176
2.100E-07,-0.104
2.200E-07,0.060
2.300E-07,0.124
2.400E-07,0.152
2.500E-07,0.132
2.600E-07,0.036
2.700E-07,-0.112
2.800E-07,-0.136
2.900E-07,-0.016
3.000E-07,0.112
3.100E-07,0.244
3.200E-07,0.280
3.300E-07,0.296
3.400E-07,0.272
3.500E-07,0.260
3.600E-07,0.240
3.700E-07,0.224
3.800E-07,0.224
3.900E-07,0.220
4.000E-07,0.220
4.100E-07,0.200
4.200E-07,0.160
4.300E-07,0.092
4.400E-07,0.040
4.500E-07,-0.020
4.600E-07,-0.076
4.700E-07,-0.104
4.800E-07,-0.036
4.900E-07,0.028
5.000E-07,0.104
5.100E-07,0.104
5.200E-07,0.056
5.300E-07,-0.044
5.400E-07,-0.096
5.500E-07,-0.064
5.600E-07,0.004
5.700E-07,0.100
5.800E-07,0.120
5.900E-07,0.100
6.000E-07,0.036
6.100E-07,-0.004
6.200E-07,-0.020
6.300E-07,0.068
6.400E-07,0.204
6.500E-07,0.300
6.600E-07,0.328
6.700E-07,0.292
6.800E-07,0.240
6.900E-07,0.196
7.000E-07,0.180
7.100E-07,0.192
7.200E-07,0.240
7.300E-07,0.284
7.400E-07,0.288
7.500E-07,0.260
7.600E-07,0.204
7.700E-07,0.156
7.800E-07,0.116
7.900E-07,0.112
8.000E-07,0.136
8.100E-07,0.180
8.200E-07,0.216
8.300E-07,0.232
8.400E-07,0.216
8.500E-07,0.160
8.600E-07,0.108
8.700E-07,0.064
8.800E-07,0.080
8.900E-07,0.124
9.000E-07,0.192
9.100E-07,0.256
9.200E-07,0.288
9.300E-07,0.272
9.400E-07,0.244
9.500E-07,0.216
9.600E-07,0.204
9.700E-07,0.224
9.800E-07,0.272
9.900E-07,0.320
1.000E-06,0.336
1.010E-06,0.304
1.020E-06,0.256
1.030E-06,0.208
1.040E-06,0.188
1.050E-06,0.200
1.060E-06,0.240
1.070E-06,0.276
1.080E-06,0.292
1.090E-06,0.272
1.100E-06,0.244
1.110E-06,0.216
1.120E-06,0.204
1.130E-06,0.216
1.140E-06,0.248
1.150E-06,0.272
1.160E-06,0.284
1.170E-06,0.276
1.180E-06,0.248
1.190E-06,0.224
1.200E-06,0.216
1.210E-06,0.224
1.220E-06,0.248
1.230E-06,0.272
1.240E-06,0.280
1.250E-06,0.272
1.260E-06,0.248
1.270E-06,0.240
1.280E-06,0.228
1.290E-06,0.228
1.300E-06,0.244
1.310E-06,0.260
1.320E-06,0.264
1.330E-06,0.264
1.340E-06,0.260
1.350E-06,0.252
1.360E-06,0.236
1.370E-06,0.236
1.380E-06,0.240
1.390E-06,0.256
1.400E-06,0.260
1.410E-06,0.260
1.420E-06,0.256
1.430E-06,0.244
1.440E-06,0.236
1.450E-06,0.240
1.460E-06,0.240
1.470E-06,0.248
1.480E-06,0.252
1.490E-06,0.252
1.500E-06,0.244
1.510E-06,0.240
1.520E-06,0.236
1.530E-06,0.240
1.540E-06,0.240
1.550E-06,0.236
1.560E-06,0.244
1.570E-06,0.244
1.580E-06,0.244
1.590E-06,0.240
1.600E-06,0.232
1.610E-06,0.232
1.620E-06,0.232
1.630E-06,0.240
1.640E-06,0.240
1.650E-06,0.244
1.660E-06,0.236
1.670E-06,0.232
1.680E-06,0.228
1.690E-06,0.232
1.700E-06,0.224
1.710E-06,0.232
1.720E-06,0.228
1.730E-06,0.232
1.740E-06,0.232
1.750E-06,0.224
1.760E-06,0.228
1.770E-06,0.224
1.780E-06,0.220
1.790E-06,0.228
1.800E-06,0.224
1.810E-06,0.228
1.820E-06,0.232
1.830E-06,0.228
1.840E-06,0.224
1.850E-06,0.228
1.860E-06,0.228
1.870E-06,0.224
1.880E-06,0.228
1.890E-06,0.224
1.900E-06,0.228
1.910E-06,0.228
1.920E-06,0.224
1.930E-06,0.220
1.940E-06,0.224
1.950E-06,0.224
1.960E-06,0.220
1.970E-06,0.224
1.980E-06,0.220
1.990E-06,0.224
2.000E-06,0.224
2.010E-06,0.220
2.020E-06,0.216
2.030E-06,0.212
2.040E-06,0.220
2.050E-06,0.216
2.060E-06,0.212
2.070E-06,0.212
2.080E-06,0.212
2.090E-06,0.212
2.100E-06,0.208
2.110E-06,0.204
2.120E-06,0.204
2.130E-06,0.196
2.140E-06,0.196
2.150E-06,0.200
2.160E-06,0.204
2.170E-06,0.212
2.180E-06,0.204
2.190E-06,0.204
2.200E-06,0.196
2.210E-06,0.200
2.220E-06,0.200
2.230E-06,0.204
2.240E-06,0.212
2.250E-06,0.208
2.260E-06,0.204
2.270E-06,0.204
2.280E-06,0.208
2.290E-06,0.208
2.300E-06,0.204
2.310E-06,0.200
2.320E-06,0.204
2.330E-06,0.208
2.340E-06,0.204
2.350E-06,0.204
2.360E-06,0.204
2.370E-06,0.196
2.380E-06,0.188
2.390E-06,0.192
2.400E-06,0.196
2.410E-06,0.200
2.420E-06,0.204
2.430E-06,0.208
2.440E-06,0.196
2.450E-06,0.188
2.460E-06,0.180
2.470E-06,0.176
2.480E-06,0.180
2.490E-06,0.188
2.500E-06,0.196
2.510E-06,0.192
2.520E-06,0.180
2.530E-06,0.172
2.540E-06,0.176
2.550E-06,0.184
2.560E-06,0.192
2.570E-06,0.196
2.580E-06,0.196
2.590E-06,0.188
2.600E-06,0.184
2.610E-06,0.184
2.620E-06,0.184
2.630E-06,0.188
2.640E-06,0.180
2.650E-06,0.180
2.660E-06,0.184
2.670E-06,0.192
2.680E-06,0.184
2.690E-06,0.180
2.700E-06,0.172
2.710E-06,0.176
2.720E-06,0.180
2.730E-06,0.188
2.740E-06,0.196
2.750E-06,0.192
2.760E-06,0.188
2.770E-06,0.180
2.780E-06,0.176
2.790E-06,0.176
2.800E-06,0.172
2.810E-06,0.180
2.820E-06,0.184
2.830E-06,0.180
2.840E-06,0.172
2.850E-06,0.176
2.860E-06,0.180
2.870E-06,0.180
2.880E-06,0.172
2.890E-06,0.176
2.900E-06,0.176
2.910E-06,0.180
2.920E-06,0.176
2.930E-06,0.172
2.940E-06,0.164
2.950E-06,0.164
2.960E-06,0.164
2.970E-06,0.164
2.980E-06,0.172
2.990E-06,0.168
3.000E-06,0.172
3.010E-06,0.172
3.020E-06,0.172
3.030E-06,0.172
3.040E-06,0.168
3.050E-06,0.156
3.060E-06,0.160
3.070E-06,0.160
3.080E-06,0.168
3.090E-06,0.168
3.100E-06,0.172
3.110E-06,0.176
3.120E-06,0.164
3.130E-06,0.164
3.140E-06,0.152
3.150E-06,0.152
3.160E-06,0.152
3.170E-06,0.156
3.180E-06,0.156
3.190E-06,0.160
3.200E-06,0.164
3.210E-06,0.156
3.220E-06,0.152
3.230E-06,0.156
3.240E-06,0.148
3.250E-06,0.156
3.260E-06,0.160
3.270E-06,0.152
3.280E-06,0.156
3.290E-06,0.156
3.300E-06,0.152
3.310E-06,0.144
