mediciones/5-15 mala escala/42.3/WaveData4646.csv

#timebase=2000000(ps)
,#voltbase=100000(mv/100)
#size=4000
-8.400E-06,0.004
-8.390E-06,0.004
-8.380E-06,0.004
-8.370E-06,-0.004
-8.360E-06,0.004
-8.350E-06,0.004
-8.340E-06,0.000
-8.330E-06,0.000
-8.320E-06,0.004
-8.310E-06,-0.004
-8.300E-06,0.000
-8.290E-06,0.000
-8.280E-06,0.000
-8.270E-06,0.000
-8.260E-06,0.000
-8.250E-06,0.000
-8.240E-06,0.004
-8.230E-06,0.004
-8.220E-06,0.000
-8.210E-06,0.008
-8.200E-06,0.000
-8.190E-06,0.000
-8.180E-06,0.000
-8.170E-06,0.000
-8.160E-06,-0.004
-8.150E-06,0.000
-8.140E-06,0.004
-8.130E-06,0.008
-8.120E-06,0.004
-8.110E-06,0.004
-8.100E-06,0.004
-8.090E-06,0.000
-8.080E-06,0.000
-8.070E-06,0.004
-8.060E-06,0.000
-8.050E-06,0.000
-8.040E-06,0.004
-8.030E-06,0.004
-8.020E-06,0.004
-8.010E-06,0.000
-8.000E-06,0.004
-7.990E-06,0.004
-7.980E-06,0.004
-7.970E-06,0.004
-7.960E-06,-0.004
-7.950E-06,0.004
-7.940E-06,0.004
-7.930E-06,0.000
-7.920E-06,0.008
-7.910E-06,0.000
-7.900E-06,0.000
-7.890E-06,0.000
-7.880E-06,0.000
-7.870E-06,0.004
-7.860E-06,0.000
-7.850E-06,0.000
-7.840E-06,0.000
-7.830E-06,0.004
-7.820E-06,0.004
-7.810E-06,0.000
-7.800E-06,0.004
-7.790E-06,-0.004
-7.780E-06,0.000
-7.770E-06,0.000
-7.760E-06,0.000
-7.750E-06,0.004
-7.740E-06,0.008
-7.730E-06,0.000
-7.720E-06,0.004
-7.710E-06,0.004
-7.700E-06,0.000
-7.690E-06,0.004
-7.680E-06,0.000
-7.670E-06,0.004
-7.660E-06,0.004
-7.650E-06,0.004
-7.640E-06,0.004
-7.630E-06,0.000
-7.620E-06,-0.004
-7.610E-06,0.000
-7.600E-06,0.004
-7.590E-06,0.000
-7.580E-06,0.008
-7.570E-06,0.004
-7.560E-06,0.004
-7.550E-06,0.004
-7.540E-06,-0.004
-7.530E-06,0.000
-7.520E-06,0.004
-7.510E-06,0.008
-7.500E-06,0.008
-7.490E-06,0.004
-7.480E-06,-0.004
-7.470E-06,0.000
-7.460E-06,0.000
-7.450E-06,0.004
-7.440E-06,0.004
-7.430E-06,0.004
-7.420E-06,0.000
-7.410E-06,0.000
-7.400E-06,0.004
-7.390E-06,0.000
-7.380E-06,0.008
-7.370E-06,0.008
-7.360E-06,-0.008
-7.350E-06,-0.008
-7.340E-06,0.008
-7.330E-06,0.004
-7.320E-06,0.008
-7.310E-06,0.004
-7.300E-06,0.004
-7.290E-06,-0.008
-7.280E-06,-0.008
-7.270E-06,0.004
-7.260E-06,0.008
-7.250E-06,0.012
-7.240E-06,0.012
-7.230E-06,0.004
-7.220E-06,-0.004
-7.210E-06,0.000
-7.200E-06,-0.008
-7.190E-06,-0.004
-7.180E-06,0.000
-7.170E-06,0.004
-7.160E-06,0.012
-7.150E-06,0.004
-7.140E-06,0.004
-7.130E-06,0.000
-7.120E-06,0.000
-7.110E-06,0.000
-7.100E-06,-0.004
-7.090E-06,0.000
-7.080E-06,0.012
-7.070E-06,0.012
-7.060E-06,0.008
-7.050E-06,0.008
-7.040E-06,0.008
-7.030E-06,0.000
-7.020E-06,-0.004
-7.010E-06,0.004
-7.000E-06,0.008
-6.990E-06,0.008
-6.980E-06,0.004
-6.970E-06,-0.004
-6.960E-06,-0.004
-6.950E-06,0.004
-6.940E-06,0.004
-6.930E-06,0.004
-6.920E-06,0.000
-6.910E-06,0.000
-6.900E-06,0.004
-6.890E-06,0.000
-6.880E-06,0.000
-6.870E-06,0.008
-6.860E-06,0.016
-6.850E-06,0.004
-6.840E-06,0.000
-6.830E-06,-0.004
-6.820E-06,-0.004
-6.810E-06,-0.004
-6.800E-06,0.004
-6.790E-06,0.012
-6.780E-06,0.008
-6.770E-06,0.000
-6.760E-06,-0.004
-6.750E-06,-0.004
-6.740E-06,0.000
-6.730E-06,0.004
-6.720E-06,0.008
-6.710E-06,0.008
-6.700E-06,0.004
-6.690E-06,0.000
-6.680E-06,-0.004
-6.670E-06,0.004
-6.660E-06,-0.004
-6.650E-06,0.000
-6.640E-06,0.004
-6.630E-06,0.000
-6.620E-06,0.004
-6.610E-06,0.004
-6.600E-06,0.000
-6.590E-06,0.000
-6.580E-06,0.000
-6.570E-06,0.000
-6.560E-06,0.004
-6.550E-06,0.004
-6.540E-06,0.008
-6.530E-06,0.012
-6.520E-06,0.008
-6.510E-06,-0.004
-6.500E-06,-0.004
-6.490E-06,0.000
-6.480E-06,-0.004
-6.470E-06,0.000
-6.460E-06,0.004
-6.450E-06,0.008
-6.440E-06,0.008
-6.430E-06,0.008
-6.420E-06,-0.004
-6.410E-06,0.000
-6.400E-06,0.000
-6.390E-06,0.004
-6.380E-06,0.004
-6.370E-06,0.008
-6.360E-06,0.008
-6.350E-06,0.000
-6.340E-06,0.000
-6.330E-06,-0.004
-6.320E-06,-0.004
-6.310E-06,0.004
-6.300E-06,0.004
-6.290E-06,0.008
-6.280E-06,0.004
-6.270E-06,0.000
-6.260E-06,-0.004
-6.250E-06,-0.004
-6.240E-06,0.004
-6.230E-06,0.008
-6.220E-06,0.012
-6.210E-06,0.004
-6.200E-06,0.000
-6.190E-06,-0.004
-6.180E-06,-0.004
-6.170E-06,0.004
-6.160E-06,0.004
-6.150E-06,0.000
-6.140E-06,0.004
-6.130E-06,0.000
-6.120E-06,0.000
-6.110E-06,0.000
-6.100E-06,-0.004
-6.090E-06,0.000
-6.080E-06,0.000
-6.070E-06,0.004
-6.060E-06,0.000
-6.050E-06,0.008
-6.040E-06,0.000
-6.030E-06,0.004
-6.020E-06,-0.004
-6.010E-06,0.000
-6.000E-06,0.000
-5.990E-06,0.004
-5.980E-06,0.004
-5.970E-06,0.004
-5.960E-06,0.000
-5.950E-06,0.008
-5.940E-06,0.012
-5.930E-06,-0.004
-5.920E-06,-0.004
-5.910E-06,0.000
-5.900E-06,0.004
-5.890E-06,0.008
-5.880E-06,0.012
-5.870E-06,0.004
-5.860E-06,0.004
-5.850E-06,0.000
-5.840E-06,-0.004
-5.830E-06,-0.004
-5.820E-06,0.000
-5.810E-06,0.008
-5.800E-06,0.012
-5.790E-06,0.012
-5.780E-06,-0.004
-5.770E-06,0.000
-5.760E-06,0.000
-5.750E-06,0.008
-5.740E-06,-0.004
-5.730E-06,0.004
-5.720E-06,0.004
-5.710E-06,0.004
-5.700E-06,0.008
-5.690E-06,0.000
-5.680E-06,-0.004
-5.670E-06,0.000
-5.660E-06,0.004
-5.650E-06,0.000
-5.640E-06,0.004
-5.630E-06,0.008
-5.620E-06,0.008
-5.610E-06,0.008
-5.600E-06,0.008
-5.590E-06,-0.004
-5.580E-06,0.000
-5.570E-06,0.000
-5.560E-06,0.004
-5.550E-06,0.000
-5.540E-06,0.004
-5.530E-06,0.004
-5.520E-06,0.004
-5.510E-06,0.008
-5.500E-06,0.012
-5.490E-06,-0.004
-5.480E-06,0.000
-5.470E-06,0.004
-5.460E-06,0.000
-5.450E-06,0.000
-5.440E-06,0.008
-5.430E-06,0.012
-5.420E-06,-0.008
-5.410E-06,0.000
-5.400E-06,-0.004
-5.390E-06,0.004
-5.380E-06,0.012
-5.370E-06,0.004
-5.360E-06,0.000
-5.350E-06,0.000
-5.340E-06,-0.004
-5.330E-06,0.004
-5.320E-06,0.004
-5.310E-06,0.004
-5.300E-06,0.004
-5.290E-06,0.004
-5.280E-06,0.000
-5.270E-06,0.000
-5.260E-06,0.008
-5.250E-06,0.004
-5.240E-06,0.000
-5.230E-06,0.000
-5.220E-06,0.000
-5.210E-06,0.004
-5.200E-06,0.008
-5.190E-06,0.004
-5.180E-06,0.004
-5.170E-06,0.004
-5.160E-06,0.000
-5.150E-06,0.004
-5.140E-06,0.004
-5.130E-06,0.004
-5.120E-06,0.000
-5.110E-06,0.004
-5.100E-06,0.004
-5.090E-06,0.004
-5.080E-06,0.004
-5.070E-06,0.000
-5.060E-06,0.000
-5.050E-06,0.004
-5.040E-06,0.008
-5.030E-06,0.008
-5.020E-06,0.008
-5.010E-06,0.008
-5.000E-06,0.004
-4.990E-06,0.008
-4.980E-06,0.000
-4.970E-06,0.000
-4.960E-06,0.004
-4.950E-06,0.004
-4.940E-06,0.004
-4.930E-06,-0.004
-4.920E-06,0.004
-4.910E-06,-0.004
-4.900E-06,0.008
-4.890E-06,0.008
-4.880E-06,0.004
-4.870E-06,0.000
-4.860E-06,0.000
-4.850E-06,-0.004
-4.840E-06,0.000
-4.830E-06,0.004
-4.820E-06,0.004
-4.810E-06,0.008
-4.800E-06,0.004
-4.790E-06,0.004
-4.780E-06,0.008
-4.770E-06,0.004
-4.760E-06,-0.004
-4.750E-06,0.000
-4.740E-06,0.004
-4.730E-06,0.000
-4.720E-06,0.004
-4.710E-06,0.008
-4.700E-06,0.008
-4.690E-06,0.004
-4.680E-06,0.004
-4.670E-06,0.000
-4.660E-06,0.004
-4.650E-06,0.000
-4.640E-06,0.004
-4.630E-06,0.004
-4.620E-06,0.008
-4.610E-06,0.004
-4.600E-06,0.004
-4.590E-06,-0.004
-4.580E-06,0.000
-4.570E-06,0.000
-4.560E-06,0.004
-4.550E-06,0.004
-4.540E-06,0.004
-4.530E-06,0.008
-4.520E-06,0.000
-4.510E-06,0.000
-4.500E-06,0.004
-4.490E-06,0.004
-4.480E-06,0.000
-4.470E-06,0.004
-4.460E-06,0.004
-4.450E-06,0.004
-4.440E-06,0.012
-4.430E-06,-0.004
-4.420E-06,0.008
-4.410E-06,-0.004
-4.400E-06,0.008
-4.390E-06,-0.004
-4.380E-06,0.000
-4.370E-06,-0.004
-4.360E-06,0.000
-4.350E-06,0.012
-4.340E-06,0.000
-4.330E-06,-0.004
-4.320E-06,-0.004
-4.310E-06,0.000
-4.300E-06,0.008
-4.290E-06,0.008
-4.280E-06,0.008
-4.270E-06,0.000
-4.260E-06,0.004
-4.250E-06,-0.008
-4.240E-06,-0.016
-4.230E-06,0.028
-4.220E-06,-0.008
-4.210E-06,0.028
-4.200E-06,-0.004
-4.190E-06,0.024
-4.180E-06,0.032
-4.170E-06,-0.020
-4.160E-06,-0.004
-4.150E-06,-0.040
-4.140E-06,0.024
-4.130E-06,0.024
-4.120E-06,0.012
-4.110E-06,0.004
-4.100E-06,0.044
-4.090E-06,0.012
-4.080E-06,-0.032
-4.070E-06,-0.004
-4.060E-06,-0.016
-4.050E-06,-0.012
-4.040E-06,0.016
-4.030E-06,0.044
-4.020E-06,0.024
-4.010E-06,0.000
-4.000E-06,-0.008
-3.990E-06,-0.028
-3.980E-06,0.008
-3.970E-06,0.000
-3.960E-06,0.012
-3.950E-06,0.008
-3.940E-06,0.016
-3.930E-06,-0.004
-3.920E-06,0.008
-3.910E-06,0.008
-3.900E-06,-0.004
-3.890E-06,-0.004
-3.880E-06,0.008
-3.870E-06,0.008
-3.860E-06,0.008
-3.850E-06,0.020
-3.840E-06,0.008
-3.830E-06,-0.004
-3.820E-06,-0.012
-3.810E-06,-0.008
-3.800E-06,0.004
-3.790E-06,0.008
-3.780E-06,0.008
-3.770E-06,0.000
-3.760E-06,0.000
-3.750E-06,0.000
-3.740E-06,0.012
-3.730E-06,-0.004
-3.720E-06,0.008
-3.710E-06,-0.008
-3.700E-06,0.012
-3.690E-06,0.012
-3.680E-06,0.012
-3.670E-06,0.000
-3.660E-06,-0.004
-3.650E-06,0.008
-3.640E-06,-0.004
-3.630E-06,0.008
-3.620E-06,0.012
-3.610E-06,0.008
-3.600E-06,0.000
-3.590E-06,0.008
-3.580E-06,0.008
-3.570E-06,0.004
-3.560E-06,0.000
-3.550E-06,0.004
-3.540E-06,0.012
-3.530E-06,0.008
-3.520E-06,0.016
-3.510E-06,0.008
-3.500E-06,0.000
-3.490E-06,-0.004
-3.480E-06,-0.004
-3.470E-06,0.000
-3.460E-06,0.008
-3.450E-06,0.012
-3.440E-06,0.008
-3.430E-06,0.012
-3.420E-06,0.004
-3.410E-06,0.008
-3.400E-06,0.004
-3.390E-06,0.008
-3.380E-06,0.012
-3.370E-06,0.008
-3.360E-06,0.012
-3.350E-06,0.012
-3.340E-06,0.004
-3.330E-06,-0.004
-3.320E-06,-0.008
-3.310E-06,-0.008
-3.300E-06,-0.004
-3.290E-06,0.000
-3.280E-06,0.008
-3.270E-06,0.020
-3.260E-06,0.012
-3.250E-06,-0.004
-3.240E-06,-0.012
-3.230E-06,-0.008
-3.220E-06,-0.004
-3.210E-06,0.012
-3.200E-06,0.028
-3.190E-06,0.016
-3.180E-06,0.008
-3.170E-06,-0.004
-3.160E-06,-0.008
-3.150E-06,0.000
-3.140E-06,0.004
-3.130E-06,0.012
-3.120E-06,0.012
-3.110E-06,0.008
-3.100E-06,0.012
-3.090E-06,0.008
-3.080E-06,0.000
-3.070E-06,0.000
-3.060E-06,-0.004
-3.050E-06,0.004
-3.040E-06,0.012
-3.030E-06,0.020
-3.020E-06,0.020
-3.010E-06,0.020
-3.000E-06,0.012
-2.990E-06,0.008
-2.980E-06,0.008
-2.970E-06,-0.004
-2.960E-06,-0.012
-2.950E-06,-0.004
-2.940E-06,0.000
-2.930E-06,0.004
-2.920E-06,0.008
-2.910E-06,0.012
-2.900E-06,0.000
-2.890E-06,-0.004
-2.880E-06,-0.004
-2.870E-06,0.000
-2.860E-06,0.024
-2.850E-06,0.004
-2.840E-06,-0.008
-2.830E-06,-0.024
-2.820E-06,-0.028
-2.810E-06,-0.020
-2.800E-06,-0.008
-2.790E-06,0.028
-2.780E-06,0.024
-2.770E-06,0.004
-2.760E-06,-0.036
-2.750E-06,-0.056
-2.740E-06,-0.048
-2.730E-06,-0.012
-2.720E-06,0.040
-2.710E-06,0.072
-2.700E-06,0.060
-2.690E-06,0.008
-2.680E-06,-0.040
-2.670E-06,-0.080
-2.660E-06,-0.072
-2.650E-06,-0.028
-2.640E-06,0.044
-2.630E-06,0.088
-2.620E-06,0.084
-2.610E-06,0.032
-2.600E-06,-0.032
-2.590E-06,-0.084
-2.580E-06,-0.088
-2.570E-06,-0.024
-2.560E-06,0.044
-2.550E-06,0.096
-2.540E-06,0.088
-2.530E-06,0.032
-2.520E-06,-0.024
-2.510E-06,-0.068
-2.500E-06,-0.072
-2.490E-06,-0.024
-2.480E-06,0.032
-2.470E-06,0.068
-2.460E-06,0.068
-2.450E-06,0.024
-2.440E-06,0.000
-2.430E-06,-0.032
-2.420E-06,-0.036
-2.410E-06,0.000
-2.400E-06,0.032
-2.390E-06,0.052
-2.380E-06,0.048
-2.370E-06,0.020
-2.360E-06,-0.020
-2.350E-06,-0.040
-2.340E-06,-0.040
-2.330E-06,-0.008
-2.320E-06,0.012
-2.310E-06,0.028
-2.300E-06,0.044
-2.290E-06,0.028
-2.280E-06,0.016
-2.270E-06,-0.008
-2.260E-06,-0.032
-2.250E-06,-0.024
-2.240E-06,0.000
-2.230E-06,0.024
-2.220E-06,0.052
-2.210E-06,0.060
-2.200E-06,0.032
-2.190E-06,0.004
-2.180E-06,-0.020
-2.170E-06,-0.032
-2.160E-06,-0.012
-2.150E-06,0.012
-2.140E-06,0.052
-2.130E-06,0.068
-2.120E-06,0.056
-2.110E-06,0.032
-2.100E-06,-0.004
-2.090E-06,-0.028
-2.080E-06,-0.012
-2.070E-06,0.024
-2.060E-06,0.044
-2.050E-06,0.060
-2.040E-06,0.044
-2.030E-06,0.012
-2.020E-06,-0.024
-2.010E-06,-0.036
-2.000E-06,-0.008
-1.990E-06,0.008
-1.980E-06,0.048
-1.970E-06,0.072
-1.960E-06,0.084
-1.950E-06,0.076
-1.940E-06,0.076
-1.930E-06,0.064
-1.920E-06,0.036
-1.910E-06,0.004
-1.900E-06,-0.016
-1.890E-06,-0.016
-1.880E-06,-0.008
-1.870E-06,-0.008
-1.860E-06,-0.040
-1.850E-06,-0.060
-1.840E-06,-0.056
-1.830E-06,-0.012
-1.820E-06,0.036
-1.810E-06,0.080
-1.800E-06,0.088
-1.790E-06,0.072
-1.780E-06,0.036
-1.770E-06,-0.004
-1.760E-06,-0.028
-1.750E-06,-0.040
-1.740E-06,-0.032
-1.730E-06,-0.008
-1.720E-06,0.012
-1.710E-06,0.020
-1.700E-06,0.008
-1.690E-06,0.000
-1.680E-06,-0.004
-1.670E-06,-0.004
-1.660E-06,0.004
-1.650E-06,0.012
-1.640E-06,0.024
-1.630E-06,0.044
-1.620E-06,0.056
-1.610E-06,0.040
-1.600E-06,0.032
-1.590E-06,0.036
-1.580E-06,0.044
-1.570E-06,0.076
-1.560E-06,0.096
-1.550E-06,0.096
-1.540E-06,0.080
-1.530E-06,0.060
-1.520E-06,0.044
-1.510E-06,0.024
-1.500E-06,0.032
-1.490E-06,0.048
-1.480E-06,0.068
-1.470E-06,0.068
-1.460E-06,0.072
-1.450E-06,0.068
-1.440E-06,0.048
-1.430E-06,0.012
-1.420E-06,-0.008
-1.410E-06,-0.004
-1.400E-06,0.024
-1.390E-06,0.036
-1.380E-06,0.036
-1.370E-06,-0.004
-1.360E-06,-0.048
-1.350E-06,-0.048
-1.340E-06,-0.016
-1.330E-06,0.040
-1.320E-06,0.108
-1.310E-06,0.068
-1.300E-06,-0.008
-1.290E-06,-0.140
-1.280E-06,-0.192
-1.270E-06,-0.164
-1.260E-06,-0.072
-1.250E-06,0.028
-1.240E-06,0.088
-1.230E-06,0.092
-1.220E-06,0.008
-1.210E-06,-0.024
-1.200E-06,-0.028
-1.190E-06,0.004
-1.180E-06,0.040
-1.170E-06,0.052
-1.160E-06,0.036
-1.150E-06,0.052
-1.140E-06,0.036
-1.130E-06,0.064
-1.120E-06,0.076
-1.110E-06,0.096
-1.100E-06,0.064
-1.090E-06,0.028
-1.080E-06,-0.020
-1.070E-06,-0.072
-1.060E-06,-0.060
-1.050E-06,-0.028
-1.040E-06,0.072
-1.030E-06,0.148
-1.020E-06,0.188
-1.010E-06,0.152
-1.000E-06,0.064
-9.900E-07,-0.056
-9.800E-07,-0.152
-9.700E-07,-0.184
-9.600E-07,-0.112
-9.500E-07,-0.008
-9.400E-07,0.088
-9.300E-07,0.172
-9.200E-07,0.160
-9.100E-07,0.052
-9.000E-07,-0.056
-8.900E-07,-0.096
-8.800E-07,-0.080
-8.700E-07,0.008
-8.600E-07,0.140
-8.500E-07,0.228
-8.400E-07,0.232
-8.300E-07,0.136
-8.200E-07,0.036
-8.100E-07,-0.036
-8.000E-07,-0.036
-7.900E-07,-0.028
-7.800E-07,0.020
-7.700E-07,0.044
-7.600E-07,0.060
-7.500E-07,0.008
-7.400E-07,-0.032
-7.300E-07,-0.072
-7.200E-07,-0.136
-7.100E-07,-0.180
-7.000E-07,-0.128
-6.900E-07,-0.024
-6.800E-07,0.076
-6.700E-07,0.168
-6.600E-07,0.160
-6.500E-07,0.100
-6.400E-07,0.024
-6.300E-07,0.008
-6.200E-07,0.044
-6.100E-07,0.128
-6.000E-07,0.188
-5.900E-07,0.204
-5.800E-07,0.184
-5.700E-07,0.108
-5.600E-07,0.040
-5.500E-07,0.012
-5.400E-07,0.040
-5.300E-07,0.088
-5.200E-07,0.160
-5.100E-07,0.196
-5.000E-07,0.188
-4.900E-07,0.144
-4.800E-07,0.096
-4.700E-07,0.092
-4.600E-07,0.108
-4.500E-07,0.152
-4.400E-07,0.208
-4.300E-07,0.236
-4.200E-07,0.220
-4.100E-07,0.188
-4.000E-07,0.144
-3.900E-07,0.128
-3.800E-07,0.136
-3.700E-07,0.160
-3.600E-07,0.196
-3.500E-07,0.208
-3.400E-07,0.204
-3.300E-07,0.168
-3.200E-07,0.148
-3.100E-07,0.136
-3.000E-07,0.148
-2.900E-07,0.184
-2.800E-07,0.220
-2.700E-07,0.232
-2.600E-07,0.220
-2.500E-07,0.180
-2.400E-07,0.140
-2.300E-07,0.120
-2.200E-07,0.124
-2.100E-07,0.164
-2.000E-07,0.196
-1.900E-07,0.228
-1.800E-07,0.224
-1.700E-07,0.208
-1.600E-07,0.168
-1.500E-07,0.136
-1.400E-07,0.136
-1.300E-07,0.144
-1.200E-07,0.144
-1.100E-07,0.112
-1.000E-07,0.056
-9.000E-08,-0.028
-8.000E-08,-0.164
-7.000E-08,-0.332
-6.000E-08,-0.400
-5.000E-08,-0.392
-4.000E-08,-0.244
-3.000E-08,0.004
-2.000E-08,0.256
-1.000E-08,0.488
0.000E+00,0.528
1.000E-08,0.440
2.000E-08,0.224
3.000E-08,-0.004
4.000E-08,-0.112
5.000E-08,-0.100
6.000E-08,0.068
7.000E-08,0.272
8.000E-08,0.392
9.000E-08,0.276
1.000E-07,-0.052
1.100E-07,-0.504
1.200E-07,-0.512
1.300E-07,-0.508
1.400E-07,-0.512
1.500E-07,-0.512
1.600E-07,-0.348
1.700E-07,-0.232
1.800E-07,-0.388
1.900E-07,-0.512
2.000E-07,-0.508
2.100E-07,-0.512
2.200E-07,-0.512
2.300E-07,-0.292
2.400E-07,-0.008
2.500E-07,0.088
2.600E-07,0.156
2.700E-07,0.136
2.800E-07,0.044
2.900E-07,-0.176
3.000E-07,-0.176
3.100E-07,-0.064
3.200E-07,0.108
3.300E-07,0.224
3.400E-07,0.320
3.500E-07,0.312
3.600E-07,0.240
3.700E-07,0.140
3.800E-07,0.064
3.900E-07,0.116
4.000E-07,0.192
4.100E-07,0.340
4.200E-07,0.420
4.300E-07,0.436
4.400E-07,0.352
4.500E-07,0.252
4.600E-07,0.164
4.700E-07,0.152
4.800E-07,0.196
4.900E-07,0.268
5.000E-07,0.340
5.100E-07,0.360
5.200E-07,0.336
5.300E-07,0.260
5.400E-07,0.208
5.500E-07,0.160
5.600E-07,0.192
5.700E-07,0.244
5.800E-07,0.296
5.900E-07,0.320
6.000E-07,0.304
6.100E-07,0.264
6.200E-07,0.216
6.300E-07,0.200
6.400E-07,0.212
6.500E-07,0.244
6.600E-07,0.268
6.700E-07,0.272
6.800E-07,0.240
6.900E-07,0.208
7.000E-07,0.188
7.100E-07,0.176
7.200E-07,0.188
7.300E-07,0.188
7.400E-07,0.200
7.500E-07,0.192
7.600E-07,0.192
7.700E-07,0.212
7.800E-07,0.240
7.900E-07,0.260
8.000E-07,0.264
8.100E-07,0.256
8.200E-07,0.232
8.300E-07,0.208
8.400E-07,0.192
8.500E-07,0.216
8.600E-07,0.240
8.700E-07,0.268
8.800E-07,0.260
8.900E-07,0.244
9.000E-07,0.208
9.100E-07,0.184
9.200E-07,0.184
9.300E-07,0.208
9.400E-07,0.236
9.500E-07,0.248
9.600E-07,0.224
9.700E-07,0.180
9.800E-07,0.140
9.900E-07,0.120
1.000E-06,0.132
1.010E-06,0.152
1.020E-06,0.176
1.030E-06,0.176
1.040E-06,0.164
1.050E-06,0.176
1.060E-06,0.184
1.070E-06,0.208
1.080E-06,0.240
1.090E-06,0.256
1.100E-06,0.244
1.110E-06,0.224
1.120E-06,0.204
1.130E-06,0.196
1.140E-06,0.204
1.150E-06,0.220
1.160E-06,0.236
1.170E-06,0.240
1.180E-06,0.244
1.190E-06,0.228
1.200E-06,0.212
1.210E-06,0.208
1.220E-06,0.208
1.230E-06,0.224
1.240E-06,0.240
1.250E-06,0.248
1.260E-06,0.244
1.270E-06,0.232
1.280E-06,0.216
1.290E-06,0.208
1.300E-06,0.216
1.310E-06,0.232
1.320E-06,0.240
1.330E-06,0.260
1.340E-06,0.244
1.350E-06,0.232
1.360E-06,0.220
1.370E-06,0.216
1.380E-06,0.208
1.390E-06,0.220
1.400E-06,0.228
1.410E-06,0.240
1.420E-06,0.240
1.430E-06,0.232
1.440E-06,0.224
1.450E-06,0.216
1.460E-06,0.212
1.470E-06,0.216
1.480E-06,0.224
1.490E-06,0.232
1.500E-06,0.228
1.510E-06,0.228
1.520E-06,0.220
1.530E-06,0.208
1.540E-06,0.204
1.550E-06,0.212
1.560E-06,0.212
1.570E-06,0.220
1.580E-06,0.224
1.590E-06,0.224
1.600E-06,0.224
1.610E-06,0.212
1.620E-06,0.204
1.630E-06,0.208
1.640E-06,0.208
1.650E-06,0.216
1.660E-06,0.220
1.670E-06,0.220
1.680E-06,0.220
1.690E-06,0.212
1.700E-06,0.212
1.710E-06,0.208
1.720E-06,0.204
1.730E-06,0.208
1.740E-06,0.212
1.750E-06,0.224
1.760E-06,0.224
1.770E-06,0.216
1.780E-06,0.212
1.790E-06,0.204
1.800E-06,0.208
1.810E-06,0.204
1.820E-06,0.208
1.830E-06,0.212
1.840E-06,0.216
1.850E-06,0.212
1.860E-06,0.208
1.870E-06,0.200
1.880E-06,0.200
1.890E-06,0.200
1.900E-06,0.204
1.910E-06,0.200
1.920E-06,0.204
1.930E-06,0.196
1.940E-06,0.196
1.950E-06,0.192
1.960E-06,0.192
1.970E-06,0.200
1.980E-06,0.204
1.990E-06,0.204
2.000E-06,0.208
2.010E-06,0.200
2.020E-06,0.196
2.030E-06,0.192
2.040E-06,0.192
2.050E-06,0.196
2.060E-06,0.204
2.070E-06,0.208
2.080E-06,0.200
2.090E-06,0.204
2.100E-06,0.196
2.110E-06,0.196
2.120E-06,0.196
2.130E-06,0.196
2.140E-06,0.200
2.150E-06,0.204
2.160E-06,0.204
2.170E-06,0.196
2.180E-06,0.196
2.190E-06,0.188
2.200E-06,0.184
2.210E-06,0.192
2.220E-06,0.196
2.230E-06,0.200
2.240E-06,0.204
2.250E-06,0.200
2.260E-06,0.192
2.270E-06,0.176
2.280E-06,0.176
2.290E-06,0.184
2.300E-06,0.192
2.310E-06,0.192
2.320E-06,0.192
2.330E-06,0.184
2.340E-06,0.172
2.350E-06,0.172
2.360E-06,0.172
2.370E-06,0.176
2.380E-06,0.176
2.390E-06,0.184
2.400E-06,0.184
2.410E-06,0.176
2.420E-06,0.168
2.430E-06,0.160
2.440E-06,0.164
2.450E-06,0.168
2.460E-06,0.168
2.470E-06,0.176
2.480E-06,0.184
2.490E-06,0.180
2.500E-06,0.184
2.510E-06,0.176
2.520E-06,0.176
2.530E-06,0.168
2.540E-06,0.164
2.550E-06,0.172
2.560E-06,0.180
2.570E-06,0.188
2.580E-06,0.188
2.590E-06,0.184
2.600E-06,0.176
2.610E-06,0.172
2.620E-06,0.172
2.630E-06,0.168
2.640E-06,0.176
2.650E-06,0.184
2.660E-06,0.184
2.670E-06,0.180
2.680E-06,0.180
2.690E-06,0.164
2.700E-06,0.156
2.710E-06,0.164
2.720E-06,0.172
2.730E-06,0.180
2.740E-06,0.188
2.750E-06,0.176
2.760E-06,0.168
2.770E-06,0.172
2.780E-06,0.172
2.790E-06,0.172
2.800E-06,0.172
2.810E-06,0.172
2.820E-06,0.168
2.830E-06,0.160
2.840E-06,0.160
2.850E-06,0.156
2.860E-06,0.160
2.870E-06,0.156
2.880E-06,0.160
2.890E-06,0.160
2.900E-06,0.156
2.910E-06,0.160
2.920E-06,0.152
2.930E-06,0.152
2.940E-06,0.152
2.950E-06,0.156
2.960E-06,0.160
2.970E-06,0.156
2.980E-06,0.164
2.990E-06,0.164
3.000E-06,0.164
3.010E-06,0.152
3.020E-06,0.156
3.030E-06,0.152
3.040E-06,0.148
3.050E-06,0.148
3.060E-06,0.152
3.070E-06,0.152
3.080E-06,0.156
3.090E-06,0.156
3.100E-06,0.148
3.110E-06,0.144
3.120E-06,0.144
3.130E-06,0.144
3.140E-06,0.140
3.150E-06,0.144
3.160E-06,0.156
3.170E-06,0.156
3.180E-06,0.152
3.190E-06,0.144
3.200E-06,0.132
3.210E-06,0.128
3.220E-06,0.140
3.230E-06,0.152
3.240E-06,0.156
3.250E-06,0.152
3.260E-06,0.144
3.270E-06,0.136
3.280E-06,0.128
3.290E-06,0.132
3.300E-06,0.140
3.310E-06,0.152
3.320E-06,0.156
3.330E-06,0.148
3.340E-06,0.144
3.350E-06,0.136
3.360E-06,0.128
3.370E-06,0.128
3.380E-06,0.128
3.390E-06,0.140
