mediciones/5-15 mala escala/42.3/WaveData4660.csv

#timebase=2000000(ps)
,#voltbase=100000(mv/100)
#size=4000
-8.400E-06,0.004
-8.390E-06,0.004
-8.380E-06,0.004
-8.370E-06,0.000
-8.360E-06,0.004
-8.350E-06,0.004
-8.340E-06,0.000
-8.330E-06,0.000
-8.320E-06,0.004
-8.310E-06,0.004
-8.300E-06,0.004
-8.290E-06,0.004
-8.280E-06,0.000
-8.270E-06,0.004
-8.260E-06,0.008
-8.250E-06,0.008
-8.240E-06,0.008
-8.230E-06,0.004
-8.220E-06,0.000
-8.210E-06,-0.004
-8.200E-06,0.004
-8.190E-06,0.000
-8.180E-06,0.004
-8.170E-06,0.004
-8.160E-06,0.004
-8.150E-06,0.004
-8.140E-06,0.000
-8.130E-06,0.000
-8.120E-06,0.000
-8.110E-06,0.000
-8.100E-06,0.004
-8.090E-06,0.000
-8.080E-06,0.000
-8.070E-06,0.000
-8.060E-06,0.000
-8.050E-06,0.000
-8.040E-06,-0.004
-8.030E-06,0.004
-8.020E-06,0.004
-8.010E-06,0.004
-8.000E-06,0.004
-7.990E-06,-0.004
-7.980E-06,0.004
-7.970E-06,0.000
-7.960E-06,0.004
-7.950E-06,0.004
-7.940E-06,0.000
-7.930E-06,0.000
-7.920E-06,0.000
-7.910E-06,0.000
-7.900E-06,0.000
-7.890E-06,0.004
-7.880E-06,-0.004
-7.870E-06,0.000
-7.860E-06,0.000
-7.850E-06,0.004
-7.840E-06,0.000
-7.830E-06,0.004
-7.820E-06,0.004
-7.810E-06,0.004
-7.800E-06,0.004
-7.790E-06,0.008
-7.780E-06,0.000
-7.770E-06,0.004
-7.760E-06,0.004
-7.750E-06,0.004
-7.740E-06,0.004
-7.730E-06,0.004
-7.720E-06,0.008
-7.710E-06,0.008
-7.700E-06,0.000
-7.690E-06,0.004
-7.680E-06,0.004
-7.670E-06,0.004
-7.660E-06,0.004
-7.650E-06,0.004
-7.640E-06,0.004
-7.630E-06,0.004
-7.620E-06,-0.004
-7.610E-06,0.004
-7.600E-06,-0.004
-7.590E-06,0.004
-7.580E-06,0.000
-7.570E-06,0.004
-7.560E-06,-0.004
-7.550E-06,0.004
-7.540E-06,0.000
-7.530E-06,0.000
-7.520E-06,0.004
-7.510E-06,0.000
-7.500E-06,0.004
-7.490E-06,0.004
-7.480E-06,0.004
-7.470E-06,0.004
-7.460E-06,0.004
-7.450E-06,0.004
-7.440E-06,0.000
-7.430E-06,0.000
-7.420E-06,0.000
-7.410E-06,0.000
-7.400E-06,0.004
-7.390E-06,0.000
-7.380E-06,0.004
-7.370E-06,0.000
-7.360E-06,0.004
-7.350E-06,0.004
-7.340E-06,0.000
-7.330E-06,0.000
-7.320E-06,0.008
-7.310E-06,0.004
-7.300E-06,0.004
-7.290E-06,0.008
-7.280E-06,0.008
-7.270E-06,0.000
-7.260E-06,0.000
-7.250E-06,0.004
-7.240E-06,0.000
-7.230E-06,-0.004
-7.220E-06,0.004
-7.210E-06,0.004
-7.200E-06,0.004
-7.190E-06,0.000
-7.180E-06,0.004
-7.170E-06,0.000
-7.160E-06,0.004
-7.150E-06,0.004
-7.140E-06,0.000
-7.130E-06,0.004
-7.120E-06,0.004
-7.110E-06,0.004
-7.100E-06,0.004
-7.090E-06,0.004
-7.080E-06,0.004
-7.070E-06,0.000
-7.060E-06,0.008
-7.050E-06,0.000
-7.040E-06,0.000
-7.030E-06,0.004
-7.020E-06,0.004
-7.010E-06,0.008
-7.000E-06,0.008
-6.990E-06,0.000
-6.980E-06,0.004
-6.970E-06,0.004
-6.960E-06,0.004
-6.950E-06,0.004
-6.940E-06,0.000
-6.930E-06,0.004
-6.920E-06,0.004
-6.910E-06,0.004
-6.900E-06,0.000
-6.890E-06,0.004
-6.880E-06,0.000
-6.870E-06,0.000
-6.860E-06,0.004
-6.850E-06,0.000
-6.840E-06,0.004
-6.830E-06,0.000
-6.820E-06,0.004
-6.810E-06,0.004
-6.800E-06,0.004
-6.790E-06,0.004
-6.780E-06,0.000
-6.770E-06,0.000
-6.760E-06,0.004
-6.750E-06,0.000
-6.740E-06,0.004
-6.730E-06,0.004
-6.720E-06,0.004
-6.710E-06,0.004
-6.700E-06,0.008
-6.690E-06,0.000
-6.680E-06,0.000
-6.670E-06,0.004
-6.660E-06,-0.004
-6.650E-06,0.004
-6.640E-06,0.008
-6.630E-06,0.000
-6.620E-06,0.000
-6.610E-06,0.004
-6.600E-06,0.008
-6.590E-06,0.008
-6.580E-06,0.000
-6.570E-06,-0.004
-6.560E-06,0.004
-6.550E-06,0.000
-6.540E-06,0.004
-6.530E-06,-0.004
-6.520E-06,0.000
-6.510E-06,0.004
-6.500E-06,0.008
-6.490E-06,0.008
-6.480E-06,0.000
-6.470E-06,0.004
-6.460E-06,0.000
-6.450E-06,0.004
-6.440E-06,0.000
-6.430E-06,0.000
-6.420E-06,0.008
-6.410E-06,0.000
-6.400E-06,0.004
-6.390E-06,0.004
-6.380E-06,0.004
-6.370E-06,0.004
-6.360E-06,0.004
-6.350E-06,0.004
-6.340E-06,0.000
-6.330E-06,0.004
-6.320E-06,0.000
-6.310E-06,0.004
-6.300E-06,0.004
-6.290E-06,0.004
-6.280E-06,0.004
-6.270E-06,0.004
-6.260E-06,0.000
-6.250E-06,0.004
-6.240E-06,0.004
-6.230E-06,0.004
-6.220E-06,0.004
-6.210E-06,0.000
-6.200E-06,0.004
-6.190E-06,0.000
-6.180E-06,0.004
-6.170E-06,0.000
-6.160E-06,0.004
-6.150E-06,0.000
-6.140E-06,0.000
-6.130E-06,0.000
-6.120E-06,0.004
-6.110E-06,0.004
-6.100E-06,0.004
-6.090E-06,0.004
-6.080E-06,0.004
-6.070E-06,0.000
-6.060E-06,0.004
-6.050E-06,0.008
-6.040E-06,0.000
-6.030E-06,0.004
-6.020E-06,0.004
-6.010E-06,0.004
-6.000E-06,0.004
-5.990E-06,0.004
-5.980E-06,0.000
-5.970E-06,0.000
-5.960E-06,0.004
-5.950E-06,0.004
-5.940E-06,0.004
-5.930E-06,0.000
-5.920E-06,0.000
-5.910E-06,0.004
-5.900E-06,0.004
-5.890E-06,0.000
-5.880E-06,0.000
-5.870E-06,0.004
-5.860E-06,0.000
-5.850E-06,0.000
-5.840E-06,0.004
-5.830E-06,0.000
-5.820E-06,0.004
-5.810E-06,0.004
-5.800E-06,0.000
-5.790E-06,0.004
-5.780E-06,0.000
-5.770E-06,0.004
-5.760E-06,0.004
-5.750E-06,0.000
-5.740E-06,0.004
-5.730E-06,0.000
-5.720E-06,0.004
-5.710E-06,0.000
-5.700E-06,0.004
-5.690E-06,0.000
-5.680E-06,0.004
-5.670E-06,0.000
-5.660E-06,0.004
-5.650E-06,0.004
-5.640E-06,0.004
-5.630E-06,0.000
-5.620E-06,-0.004
-5.610E-06,0.000
-5.600E-06,0.000
-5.590E-06,0.004
-5.580E-06,0.004
-5.570E-06,0.004
-5.560E-06,0.004
-5.550E-06,0.008
-5.540E-06,-0.004
-5.530E-06,0.004
-5.520E-06,0.004
-5.510E-06,0.000
-5.500E-06,0.004
-5.490E-06,0.004
-5.480E-06,0.004
-5.470E-06,0.004
-5.460E-06,0.000
-5.450E-06,0.004
-5.440E-06,0.004
-5.430E-06,0.004
-5.420E-06,0.004
-5.410E-06,0.004
-5.400E-06,0.004
-5.390E-06,0.004
-5.380E-06,0.004
-5.370E-06,0.000
-5.360E-06,0.000
-5.350E-06,0.004
-5.340E-06,0.004
-5.330E-06,0.004
-5.320E-06,0.004
-5.310E-06,0.008
-5.300E-06,0.000
-5.290E-06,0.004
-5.280E-06,0.004
-5.270E-06,0.004
-5.260E-06,0.008
-5.250E-06,0.008
-5.240E-06,0.008
-5.230E-06,0.000
-5.220E-06,0.000
-5.210E-06,0.004
-5.200E-06,0.004
-5.190E-06,-0.004
-5.180E-06,0.004
-5.170E-06,0.004
-5.160E-06,0.000
-5.150E-06,0.000
-5.140E-06,0.004
-5.130E-06,0.008
-5.120E-06,0.008
-5.110E-06,0.000
-5.100E-06,0.000
-5.090E-06,0.004
-5.080E-06,0.008
-5.070E-06,0.000
-5.060E-06,0.000
-5.050E-06,0.004
-5.040E-06,0.008
-5.030E-06,-0.004
-5.020E-06,0.000
-5.010E-06,0.004
-5.000E-06,0.004
-4.990E-06,0.004
-4.980E-06,0.004
-4.970E-06,0.004
-4.960E-06,0.004
-4.950E-06,0.008
-4.940E-06,0.008
-4.930E-06,0.012
-4.920E-06,0.008
-4.910E-06,0.000
-4.900E-06,0.004
-4.890E-06,0.004
-4.880E-06,0.004
-4.870E-06,0.008
-4.860E-06,0.008
-4.850E-06,0.000
-4.840E-06,0.000
-4.830E-06,0.004
-4.820E-06,0.000
-4.810E-06,0.004
-4.800E-06,0.004
-4.790E-06,0.004
-4.780E-06,0.008
-4.770E-06,0.000
-4.760E-06,0.000
-4.750E-06,0.004
-4.740E-06,0.000
-4.730E-06,0.004
-4.720E-06,0.004
-4.710E-06,0.000
-4.700E-06,0.000
-4.690E-06,0.004
-4.680E-06,0.004
-4.670E-06,0.004
-4.660E-06,0.004
-4.650E-06,0.000
-4.640E-06,0.000
-4.630E-06,0.000
-4.620E-06,0.000
-4.610E-06,0.004
-4.600E-06,0.000
-4.590E-06,0.004
-4.580E-06,0.008
-4.570E-06,0.008
-4.560E-06,0.008
-4.550E-06,-0.004
-4.540E-06,0.000
-4.530E-06,0.004
-4.520E-06,0.000
-4.510E-06,0.004
-4.500E-06,0.000
-4.490E-06,0.000
-4.480E-06,0.004
-4.470E-06,0.000
-4.460E-06,0.004
-4.450E-06,0.004
-4.440E-06,0.004
-4.430E-06,0.000
-4.420E-06,0.004
-4.410E-06,0.000
-4.400E-06,0.000
-4.390E-06,0.004
-4.380E-06,0.004
-4.370E-06,0.000
-4.360E-06,0.000
-4.350E-06,0.004
-4.340E-06,0.000
-4.330E-06,0.004
-4.320E-06,0.000
-4.310E-06,0.004
-4.300E-06,0.004
-4.290E-06,0.004
-4.280E-06,0.004
-4.270E-06,0.004
-4.260E-06,0.004
-4.250E-06,0.004
-4.240E-06,0.000
-4.230E-06,0.000
-4.220E-06,0.004
-4.210E-06,0.004
-4.200E-06,0.004
-4.190E-06,0.004
-4.180E-06,0.004
-4.170E-06,0.004
-4.160E-06,0.004
-4.150E-06,0.004
-4.140E-06,0.008
-4.130E-06,0.000
-4.120E-06,0.000
-4.110E-06,0.004
-4.100E-06,0.004
-4.090E-06,0.004
-4.080E-06,0.000
-4.070E-06,0.000
-4.060E-06,0.004
-4.050E-06,0.004
-4.040E-06,0.004
-4.030E-06,0.004
-4.020E-06,0.000
-4.010E-06,0.004
-4.000E-06,0.004
-3.990E-06,0.004
-3.980E-06,0.004
-3.970E-06,0.004
-3.960E-06,-0.004
-3.950E-06,0.000
-3.940E-06,0.008
-3.930E-06,0.004
-3.920E-06,-0.004
-3.910E-06,0.000
-3.900E-06,0.004
-3.890E-06,0.004
-3.880E-06,0.004
-3.870E-06,0.004
-3.860E-06,0.004
-3.850E-06,0.004
-3.840E-06,0.004
-3.830E-06,0.000
-3.820E-06,0.004
-3.810E-06,0.004
-3.800E-06,0.000
-3.790E-06,0.004
-3.780E-06,0.000
-3.770E-06,0.004
-3.760E-06,0.000
-3.750E-06,0.004
-3.740E-06,0.004
-3.730E-06,0.004
-3.720E-06,0.000
-3.710E-06,0.004
-3.700E-06,-0.004
-3.690E-06,0.004
-3.680E-06,0.000
-3.670E-06,0.000
-3.660E-06,0.004
-3.650E-06,0.004
-3.640E-06,0.004
-3.630E-06,0.000
-3.620E-06,-0.004
-3.610E-06,0.000
-3.600E-06,-0.004
-3.590E-06,-0.004
-3.580E-06,0.000
-3.570E-06,0.008
-3.560E-06,0.004
-3.550E-06,0.008
-3.540E-06,0.008
-3.530E-06,0.008
-3.520E-06,0.004
-3.510E-06,0.008
-3.500E-06,-0.004
-3.490E-06,0.004
-3.480E-06,0.004
-3.470E-06,0.004
-3.460E-06,0.004
-3.450E-06,0.004
-3.440E-06,-0.004
-3.430E-06,0.000
-3.420E-06,0.004
-3.410E-06,0.004
-3.400E-06,0.000
-3.390E-06,0.004
-3.380E-06,0.004
-3.370E-06,0.000
-3.360E-06,0.000
-3.350E-06,0.004
-3.340E-06,0.000
-3.330E-06,0.004
-3.320E-06,0.000
-3.310E-06,0.004
-3.300E-06,0.000
-3.290E-06,0.004
-3.280E-06,0.004
-3.270E-06,0.004
-3.260E-06,0.004
-3.250E-06,0.004
-3.240E-06,0.008
-3.230E-06,0.000
-3.220E-06,0.004
-3.210E-06,0.004
-3.200E-06,0.000
-3.190E-06,0.000
-3.180E-06,0.004
-3.170E-06,0.000
-3.160E-06,0.004
-3.150E-06,0.004
-3.140E-06,0.004
-3.130E-06,0.004
-3.120E-06,0.004
-3.110E-06,0.000
-3.100E-06,0.004
-3.090E-06,0.008
-3.080E-06,0.008
-3.070E-06,0.008
-3.060E-06,0.000
-3.050E-06,0.004
-3.040E-06,0.004
-3.030E-06,0.004
-3.020E-06,0.000
-3.010E-06,0.004
-3.000E-06,-0.004
-2.990E-06,0.000
-2.980E-06,0.004
-2.970E-06,0.004
-2.960E-06,0.004
-2.950E-06,0.004
-2.940E-06,0.008
-2.930E-06,0.004
-2.920E-06,0.004
-2.910E-06,0.004
-2.900E-06,0.000
-2.890E-06,0.000
-2.880E-06,0.004
-2.870E-06,0.008
-2.860E-06,0.008
-2.850E-06,0.000
-2.840E-06,0.000
-2.830E-06,0.000
-2.820E-06,0.012
-2.810E-06,0.072
-2.800E-06,0.136
-2.790E-06,0.184
-2.780E-06,0.140
-2.770E-06,-0.020
-2.760E-06,-0.252
-2.750E-06,-0.364
-2.740E-06,-0.272
-2.730E-06,-0.004
-2.720E-06,0.296
-2.710E-06,0.436
-2.700E-06,0.280
-2.690E-06,-0.012
-2.680E-06,-0.268
-2.670E-06,-0.352
-2.660E-06,-0.212
-2.650E-06,0.044
-2.640E-06,0.272
-2.630E-06,0.316
-2.620E-06,0.196
-2.610E-06,-0.012
-2.600E-06,-0.180
-2.590E-06,-0.256
-2.580E-06,-0.200
-2.570E-06,-0.056
-2.560E-06,0.092
-2.550E-06,0.192
-2.540E-06,0.208
-2.530E-06,0.144
-2.520E-06,0.016
-2.510E-06,-0.108
-2.500E-06,-0.192
-2.490E-06,-0.176
-2.480E-06,-0.060
-2.470E-06,0.108
-2.460E-06,0.208
-2.450E-06,0.196
-2.440E-06,0.064
-2.430E-06,-0.104
-2.420E-06,-0.216
-2.410E-06,-0.216
-2.400E-06,-0.100
-2.390E-06,0.060
-2.380E-06,0.180
-2.370E-06,0.192
-2.360E-06,0.112
-2.350E-06,-0.008
-2.340E-06,-0.100
-2.330E-06,-0.112
-2.320E-06,-0.060
-2.310E-06,0.020
-2.300E-06,0.088
-2.290E-06,0.108
-2.280E-06,0.072
-2.270E-06,0.024
-2.260E-06,-0.040
-2.250E-06,-0.068
-2.240E-06,-0.068
-2.230E-06,-0.024
-2.220E-06,0.024
-2.210E-06,0.052
-2.200E-06,0.072
-2.190E-06,0.048
-2.180E-06,0.016
-2.170E-06,-0.020
-2.160E-06,-0.052
-2.150E-06,-0.060
-2.140E-06,-0.020
-2.130E-06,0.040
-2.120E-06,0.068
-2.110E-06,0.060
-2.100E-06,0.020
-2.090E-06,-0.036
-2.080E-06,-0.072
-2.070E-06,-0.064
-2.060E-06,-0.024
-2.050E-06,0.028
-2.040E-06,0.060
-2.030E-06,0.056
-2.020E-06,0.020
-2.010E-06,-0.008
-2.000E-06,-0.028
-1.990E-06,-0.024
-1.980E-06,0.000
-1.970E-06,0.020
-1.960E-06,0.032
-1.950E-06,0.028
-1.940E-06,0.012
-1.930E-06,-0.004
-1.920E-06,-0.020
-1.910E-06,-0.024
-1.900E-06,-0.008
-1.890E-06,0.008
-1.880E-06,0.020
-1.870E-06,0.028
-1.860E-06,0.020
-1.850E-06,0.008
-1.840E-06,-0.004
-1.830E-06,-0.008
-1.820E-06,-0.004
-1.810E-06,0.008
-1.800E-06,0.020
-1.790E-06,0.024
-1.780E-06,0.008
-1.770E-06,0.000
-1.760E-06,-0.012
-1.750E-06,-0.012
-1.740E-06,0.004
-1.730E-06,0.020
-1.720E-06,0.024
-1.710E-06,0.024
-1.700E-06,0.020
-1.690E-06,0.012
-1.680E-06,-0.004
-1.670E-06,0.008
-1.660E-06,0.028
-1.650E-06,0.040
-1.640E-06,0.048
-1.630E-06,0.052
-1.620E-06,0.044
-1.610E-06,0.028
-1.600E-06,0.008
-1.590E-06,0.000
-1.580E-06,0.008
-1.570E-06,0.028
-1.560E-06,0.056
-1.550E-06,0.080
-1.540E-06,0.092
-1.530E-06,0.060
-1.520E-06,0.012
-1.510E-06,-0.020
-1.500E-06,-0.024
-1.490E-06,0.020
-1.480E-06,0.072
-1.470E-06,0.120
-1.460E-06,0.120
-1.450E-06,0.020
-1.440E-06,-0.200
-1.430E-06,-0.312
-1.420E-06,-0.300
-1.410E-06,-0.164
-1.400E-06,0.128
-1.390E-06,0.340
-1.380E-06,0.360
-1.370E-06,0.148
-1.360E-06,-0.128
-1.350E-06,-0.284
-1.340E-06,-0.364
-1.330E-06,-0.172
-1.320E-06,0.104
-1.310E-06,0.256
-1.300E-06,0.192
-1.290E-06,0.032
-1.280E-06,-0.072
-1.270E-06,-0.136
-1.260E-06,-0.124
-1.250E-06,-0.068
-1.240E-06,-0.004
-1.230E-06,0.048
-1.220E-06,0.092
-1.210E-06,0.076
-1.200E-06,0.048
-1.190E-06,-0.004
-1.180E-06,-0.048
-1.170E-06,-0.076
-1.160E-06,-0.072
-1.150E-06,-0.024
-1.140E-06,0.056
-1.130E-06,0.124
-1.120E-06,0.124
-1.110E-06,0.052
-1.100E-06,-0.052
-1.090E-06,-0.108
-1.080E-06,-0.092
-1.070E-06,-0.020
-1.060E-06,0.072
-1.050E-06,0.128
-1.040E-06,0.112
-1.030E-06,0.040
-1.020E-06,-0.024
-1.010E-06,-0.056
-1.000E-06,-0.040
-9.900E-07,0.000
-9.800E-07,0.056
-9.700E-07,0.064
-9.600E-07,0.044
-9.500E-07,0.036
-9.400E-07,0.044
-9.300E-07,0.036
-9.200E-07,0.040
-9.100E-07,0.028
-9.000E-07,0.028
-8.900E-07,0.028
-8.800E-07,0.072
-8.700E-07,0.120
-8.600E-07,0.144
-8.500E-07,0.136
-8.400E-07,0.104
-8.300E-07,-0.020
-8.200E-07,-0.076
-8.100E-07,-0.004
-8.000E-07,-0.140
-7.900E-07,-0.136
-7.800E-07,-0.076
-7.700E-07,-0.008
-7.600E-07,-0.160
-7.500E-07,-0.072
-7.400E-07,-0.008
-7.300E-07,-0.036
-7.200E-07,0.048
-7.100E-07,0.044
-7.000E-07,-0.056
-6.900E-07,-0.152
-6.800E-07,0.012
-6.700E-07,-0.032
-6.600E-07,0.044
-6.500E-07,0.088
-6.400E-07,-0.008
-6.300E-07,-0.104
-6.200E-07,-0.184
-6.100E-07,-0.056
-6.000E-07,0.064
-5.900E-07,0.196
-5.800E-07,0.152
-5.700E-07,0.040
-5.600E-07,-0.132
-5.500E-07,-0.176
-5.400E-07,-0.156
-5.300E-07,-0.024
-5.200E-07,0.144
-5.100E-07,0.204
-5.000E-07,0.156
-4.900E-07,-0.020
-4.800E-07,-0.128
-4.700E-07,-0.188
-4.600E-07,-0.080
-4.500E-07,0.044
-4.400E-07,0.164
-4.300E-07,0.172
-4.200E-07,0.096
-4.100E-07,0.000
-4.000E-07,-0.080
-3.900E-07,-0.068
-3.800E-07,-0.012
-3.700E-07,0.088
-3.600E-07,0.160
-3.500E-07,0.200
-3.400E-07,0.180
-3.300E-07,0.152
-3.200E-07,0.128
-3.100E-07,0.036
-3.000E-07,-0.072
-2.900E-07,-0.176
-2.800E-07,-0.204
-2.700E-07,-0.152
-2.600E-07,0.020
-2.500E-07,0.204
-2.400E-07,0.288
-2.300E-07,0.220
-2.200E-07,0.036
-2.100E-07,-0.156
-2.000E-07,-0.200
-1.900E-07,-0.104
-1.800E-07,0.088
-1.700E-07,0.228
-1.600E-07,0.272
-1.500E-07,0.176
-1.400E-07,0.020
-1.300E-07,-0.108
-1.200E-07,-0.128
-1.100E-07,-0.040
-1.000E-07,0.096
-9.000E-08,0.224
-8.000E-08,0.264
-7.000E-08,0.112
-6.000E-08,-0.284
-5.000E-08,-0.512
-4.000E-08,-0.512
-3.000E-08,-0.212
-2.000E-08,0.072
-1.000E-08,0.328
0.000E+00,0.340
1.000E-08,0.188
2.000E-08,-0.036
3.000E-08,-0.200
4.000E-08,-0.244
5.000E-08,-0.364
6.000E-08,-0.216
7.000E-08,-0.060
8.000E-08,0.212
9.000E-08,0.216
1.000E-07,0.156
1.100E-07,-0.096
1.200E-07,-0.304
1.300E-07,-0.360
1.400E-07,-0.232
1.500E-07,0.140
1.600E-07,0.312
1.700E-07,0.316
1.800E-07,0.032
1.900E-07,-0.172
2.000E-07,-0.280
2.100E-07,-0.156
2.200E-07,0.016
2.300E-07,0.172
2.400E-07,0.196
2.500E-07,0.108
2.600E-07,-0.004
2.700E-07,-0.104
2.800E-07,-0.100
2.900E-07,-0.068
3.000E-07,0.048
3.100E-07,0.096
3.200E-07,0.116
3.300E-07,0.056
3.400E-07,-0.008
3.500E-07,-0.056
3.600E-07,-0.060
3.700E-07,-0.012
3.800E-07,0.040
3.900E-07,0.088
4.000E-07,0.060
4.100E-07,0.016
4.200E-07,-0.036
4.300E-07,-0.040
4.400E-07,-0.012
4.500E-07,0.068
4.600E-07,0.136
4.700E-07,0.160
4.800E-07,0.140
4.900E-07,0.092
5.000E-07,0.080
5.100E-07,0.096
5.200E-07,0.152
5.300E-07,0.212
5.400E-07,0.244
5.500E-07,0.200
5.600E-07,0.120
5.700E-07,0.036
5.800E-07,-0.008
5.900E-07,0.012
6.000E-07,0.068
6.100E-07,0.120
6.200E-07,0.096
6.300E-07,0.072
6.400E-07,0.072
6.500E-07,0.076
6.600E-07,0.064
6.700E-07,0.044
6.800E-07,0.068
6.900E-07,0.020
7.000E-07,-0.004
7.100E-07,-0.072
7.200E-07,-0.080
7.300E-07,-0.056
7.400E-07,-0.032
7.500E-07,-0.016
7.600E-07,-0.056
7.700E-07,-0.052
7.800E-07,-0.044
7.900E-07,0.024
8.000E-07,0.088
8.100E-07,0.176
8.200E-07,0.188
8.300E-07,-0.028
8.400E-07,-0.264
8.500E-07,-0.512
8.600E-07,-0.508
8.700E-07,-0.512
8.800E-07,0.120
8.900E-07,0.540
9.000E-07,0.540
9.100E-07,0.352
9.200E-07,-0.124
9.300E-07,-0.508
9.400E-07,-0.512
9.500E-07,-0.512
9.600E-07,-0.120
9.700E-07,0.304
9.800E-07,0.504
9.900E-07,0.392
1.000E-06,0.020
1.010E-06,-0.396
1.020E-06,-0.512
1.030E-06,-0.416
1.040E-06,-0.048
1.050E-06,0.268
1.060E-06,0.408
1.070E-06,0.312
1.080E-06,0.040
1.090E-06,-0.248
1.100E-06,-0.360
1.110E-06,-0.264
1.120E-06,0.004
1.130E-06,0.232
1.140E-06,0.308
1.150E-06,0.192
1.160E-06,-0.020
1.170E-06,-0.196
1.180E-06,-0.244
1.190E-06,-0.124
1.200E-06,0.060
1.210E-06,0.208
1.220E-06,0.244
1.230E-06,0.144
1.240E-06,-0.024
1.250E-06,-0.156
1.260E-06,-0.172
1.270E-06,-0.076
1.280E-06,0.096
1.290E-06,0.224
1.300E-06,0.268
1.310E-06,0.188
1.320E-06,0.064
1.330E-06,-0.008
1.340E-06,0.020
1.350E-06,0.156
1.360E-06,0.308
1.370E-06,0.424
1.380E-06,0.420
1.390E-06,0.332
1.400E-06,0.216
1.410E-06,0.128
1.420E-06,0.120
1.430E-06,0.196
1.440E-06,0.308
1.450E-06,0.388
1.460E-06,0.392
1.470E-06,0.324
1.480E-06,0.236
1.490E-06,0.160
1.500E-06,0.124
1.510E-06,0.164
1.520E-06,0.236
1.530E-06,0.292
1.540E-06,0.304
1.550E-06,0.276
1.560E-06,0.216
1.570E-06,0.160
1.580E-06,0.140
1.590E-06,0.164
1.600E-06,0.228
1.610E-06,0.228
1.620E-06,0.212
1.630E-06,0.048
1.640E-06,-0.184
1.650E-06,-0.268
1.660E-06,-0.312
1.670E-06,-0.112
1.680E-06,-0.100
1.690E-06,0.008
1.700E-06,-0.128
1.710E-06,-0.284
1.720E-06,-0.388
1.730E-06,-0.508
1.740E-06,-0.508
1.750E-06,-0.508
1.760E-06,-0.512
1.770E-06,-0.156
1.780E-06,0.388
1.790E-06,0.280
1.800E-06,0.000
1.810E-06,-0.368
1.820E-06,-0.512
1.830E-06,-0.512
1.840E-06,-0.484
1.850E-06,0.068
1.860E-06,0.280
1.870E-06,0.456
1.880E-06,0.180
1.890E-06,-0.052
1.900E-06,-0.340
1.910E-06,-0.376
1.920E-06,-0.320
1.930E-06,-0.032
1.940E-06,0.324
1.950E-06,0.464
1.960E-06,0.472
1.970E-06,0.144
1.980E-06,-0.140
1.990E-06,-0.324
2.000E-06,-0.140
2.010E-06,0.072
2.020E-06,0.312
2.030E-06,0.408
2.040E-06,0.372
2.050E-06,0.220
2.060E-06,0.040
2.070E-06,-0.024
2.080E-06,-0.064
2.090E-06,0.064
2.100E-06,0.196
2.110E-06,0.376
2.120E-06,0.396
2.130E-06,0.336
2.140E-06,0.176
2.150E-06,0.096
2.160E-06,0.096
2.170E-06,0.184
2.180E-06,0.324
2.190E-06,0.404
2.200E-06,0.452
2.210E-06,0.388
2.220E-06,0.320
2.230E-06,0.204
2.240E-06,0.172
2.250E-06,0.180
2.260E-06,0.268
2.270E-06,0.356
2.280E-06,0.408
2.290E-06,0.396
2.300E-06,0.324
2.310E-06,0.248
2.320E-06,0.184
2.330E-06,0.184
2.340E-06,0.220
2.350E-06,0.300
2.360E-06,0.336
2.370E-06,0.352
2.380E-06,0.312
2.390E-06,0.252
2.400E-06,0.184
2.410E-06,0.164
2.420E-06,0.204
2.430E-06,0.284
2.440E-06,0.344
2.450E-06,0.344
2.460E-06,0.316
2.470E-06,0.244
2.480E-06,0.192
2.490E-06,0.152
2.500E-06,0.176
2.510E-06,0.224
2.520E-06,0.272
2.530E-06,0.292
2.540E-06,0.296
2.550E-06,0.256
2.560E-06,0.192
2.570E-06,0.136
2.580E-06,0.064
2.590E-06,0.060
2.600E-06,0.092
2.610E-06,0.140
2.620E-06,0.192
2.630E-06,0.264
2.640E-06,0.324
2.650E-06,0.312
2.660E-06,0.264
2.670E-06,0.176
2.680E-06,0.120
2.690E-06,0.128
2.700E-06,0.208
2.710E-06,0.316
2.720E-06,0.384
2.730E-06,0.396
2.740E-06,0.328
2.750E-06,0.240
2.760E-06,0.152
2.770E-06,0.132
2.780E-06,0.180
2.790E-06,0.268
2.800E-06,0.348
2.810E-06,0.372
2.820E-06,0.328
2.830E-06,0.244
2.840E-06,0.176
2.850E-06,0.144
2.860E-06,0.188
2.870E-06,0.264
2.880E-06,0.340
2.890E-06,0.368
2.900E-06,0.356
2.910E-06,0.288
2.920E-06,0.228
2.930E-06,0.192
2.940E-06,0.204
2.950E-06,0.252
2.960E-06,0.312
2.970E-06,0.344
2.980E-06,0.336
2.990E-06,0.304
3.000E-06,0.260
3.010E-06,0.224
3.020E-06,0.220
3.030E-06,0.240
3.040E-06,0.292
3.050E-06,0.316
3.060E-06,0.328
3.070E-06,0.304
3.080E-06,0.272
3.090E-06,0.240
3.100E-06,0.232
3.110E-06,0.240
3.120E-06,0.276
3.130E-06,0.304
3.140E-06,0.312
3.150E-06,0.308
3.160E-06,0.276
3.170E-06,0.256
3.180E-06,0.240
3.190E-06,0.244
3.200E-06,0.260
3.210E-06,0.284
3.220E-06,0.296
3.230E-06,0.296
3.240E-06,0.140
3.250E-06,0.316
3.260E-06,0.372
3.270E-06,0.140
3.280E-06,0.228
3.290E-06,0.268
3.300E-06,0.308
3.310E-06,0.300
3.320E-06,0.348
3.330E-06,0.196
3.340E-06,0.192
3.350E-06,0.340
3.360E-06,0.224
3.370E-06,0.312
3.380E-06,0.220
