mediciones/5-15 mala escala/42.3/WaveData4652.csv

#timebase=2000000(ps)
,#voltbase=100000(mv/100)
#size=4000
-8.400E-06,0.000
-8.390E-06,0.008
-8.380E-06,0.024
-8.370E-06,0.016
-8.360E-06,-0.008
-8.350E-06,-0.020
-8.340E-06,-0.028
-8.330E-06,-0.004
-8.320E-06,0.016
-8.310E-06,0.044
-8.300E-06,0.032
-8.290E-06,0.008
-8.280E-06,-0.008
-8.270E-06,-0.020
-8.260E-06,-0.008
-8.250E-06,0.000
-8.240E-06,0.004
-8.230E-06,0.000
-8.220E-06,0.004
-8.210E-06,0.004
-8.200E-06,0.008
-8.190E-06,0.000
-8.180E-06,-0.008
-8.170E-06,0.000
-8.160E-06,-0.004
-8.150E-06,0.004
-8.140E-06,0.012
-8.130E-06,0.016
-8.120E-06,0.008
-8.110E-06,-0.004
-8.100E-06,0.000
-8.090E-06,-0.004
-8.080E-06,-0.004
-8.070E-06,-0.004
-8.060E-06,0.000
-8.050E-06,0.004
-8.040E-06,0.016
-8.030E-06,0.024
-8.020E-06,0.024
-8.010E-06,0.008
-8.000E-06,0.000
-7.990E-06,-0.008
-7.980E-06,-0.008
-7.970E-06,-0.004
-7.960E-06,0.012
-7.950E-06,0.024
-7.940E-06,0.024
-7.930E-06,0.000
-7.920E-06,-0.020
-7.910E-06,-0.024
-7.900E-06,-0.008
-7.890E-06,0.012
-7.880E-06,0.044
-7.870E-06,0.020
-7.860E-06,-0.024
-7.850E-06,-0.044
-7.840E-06,-0.020
-7.830E-06,0.024
-7.820E-06,0.040
-7.810E-06,0.072
-7.800E-06,-0.004
-7.790E-06,-0.060
-7.780E-06,-0.084
-7.770E-06,-0.032
-7.760E-06,0.044
-7.750E-06,0.112
-7.740E-06,0.084
-7.730E-06,-0.016
-7.720E-06,-0.084
-7.710E-06,-0.112
-7.700E-06,-0.028
-7.690E-06,0.060
-7.680E-06,0.108
-7.670E-06,0.056
-7.660E-06,-0.004
-7.650E-06,-0.068
-7.640E-06,-0.072
-7.630E-06,-0.040
-7.620E-06,0.020
-7.610E-06,0.060
-7.600E-06,0.044
-7.590E-06,0.020
-7.580E-06,-0.012
-7.570E-06,-0.020
-7.560E-06,-0.024
-7.550E-06,0.000
-7.540E-06,0.008
-7.530E-06,0.008
-7.520E-06,0.012
-7.510E-06,0.012
-7.500E-06,0.016
-7.490E-06,0.004
-7.480E-06,0.000
-7.470E-06,-0.008
-7.460E-06,-0.004
-7.450E-06,0.000
-7.440E-06,0.016
-7.430E-06,0.024
-7.420E-06,0.028
-7.410E-06,0.004
-7.400E-06,-0.024
-7.390E-06,-0.032
-7.380E-06,-0.008
-7.370E-06,0.008
-7.360E-06,0.032
-7.350E-06,0.036
-7.340E-06,0.016
-7.330E-06,-0.004
-7.320E-06,-0.028
-7.310E-06,-0.020
-7.300E-06,-0.004
-7.290E-06,0.012
-7.280E-06,0.012
-7.270E-06,0.028
-7.260E-06,-0.008
-7.250E-06,-0.024
-7.240E-06,-0.024
-7.230E-06,0.028
-7.220E-06,0.012
-7.210E-06,-0.028
-7.200E-06,-0.024
-7.190E-06,0.000
-7.180E-06,0.040
-7.170E-06,0.044
-7.160E-06,0.020
-7.150E-06,-0.020
-7.140E-06,-0.048
-7.130E-06,-0.036
-7.120E-06,0.004
-7.110E-06,0.040
-7.100E-06,0.056
-7.090E-06,0.040
-7.080E-06,-0.004
-7.070E-06,-0.036
-7.060E-06,-0.056
-7.050E-06,-0.036
-7.040E-06,0.004
-7.030E-06,0.048
-7.020E-06,0.052
-7.010E-06,0.036
-7.000E-06,0.000
-6.990E-06,-0.028
-6.980E-06,-0.036
-6.970E-06,-0.016
-6.960E-06,-0.004
-6.950E-06,0.020
-6.940E-06,0.028
-6.930E-06,0.028
-6.920E-06,0.024
-6.910E-06,-0.004
-6.900E-06,-0.020
-6.890E-06,-0.020
-6.880E-06,-0.004
-6.870E-06,0.024
-6.860E-06,0.040
-6.850E-06,0.036
-6.840E-06,0.016
-6.830E-06,-0.008
-6.820E-06,-0.024
-6.810E-06,-0.024
-6.800E-06,0.000
-6.790E-06,0.024
-6.780E-06,0.044
-6.770E-06,0.044
-6.760E-06,0.024
-6.750E-06,-0.004
-6.740E-06,-0.028
-6.730E-06,-0.032
-6.720E-06,-0.020
-6.710E-06,0.008
-6.700E-06,0.032
-6.690E-06,0.040
-6.680E-06,0.028
-6.670E-06,0.008
-6.660E-06,-0.020
-6.650E-06,-0.028
-6.640E-06,-0.012
-6.630E-06,0.008
-6.620E-06,0.024
-6.610E-06,0.028
-6.600E-06,0.008
-6.590E-06,-0.004
-6.580E-06,-0.020
-6.570E-06,-0.016
-6.560E-06,0.000
-6.550E-06,0.028
-6.540E-06,0.044
-6.530E-06,0.036
-6.520E-06,0.028
-6.510E-06,-0.020
-6.500E-06,-0.040
-6.490E-06,-0.044
-6.480E-06,-0.004
-6.470E-06,-0.004
-6.460E-06,-0.012
-6.450E-06,0.016
-6.440E-06,0.036
-6.430E-06,0.036
-6.420E-06,0.012
-6.410E-06,-0.016
-6.400E-06,-0.060
-6.390E-06,-0.052
-6.380E-06,-0.036
-6.370E-06,0.028
-6.360E-06,0.060
-6.350E-06,0.064
-6.340E-06,0.028
-6.330E-06,-0.012
-6.320E-06,-0.048
-6.310E-06,-0.052
-6.300E-06,-0.012
-6.290E-06,0.028
-6.280E-06,0.060
-6.270E-06,0.060
-6.260E-06,0.032
-6.250E-06,-0.004
-6.240E-06,-0.028
-6.230E-06,-0.036
-6.220E-06,-0.016
-6.210E-06,0.008
-6.200E-06,0.036
-6.190E-06,0.040
-6.180E-06,0.028
-6.170E-06,0.004
-6.160E-06,-0.024
-6.150E-06,-0.028
-6.140E-06,-0.012
-6.130E-06,0.016
-6.120E-06,0.040
-6.110E-06,0.036
-6.100E-06,0.024
-6.090E-06,0.000
-6.080E-06,-0.012
-6.070E-06,-0.012
-6.060E-06,-0.004
-6.050E-06,0.004
-6.040E-06,0.024
-6.030E-06,0.028
-6.020E-06,0.028
-6.010E-06,0.020
-6.000E-06,-0.008
-5.990E-06,-0.028
-5.980E-06,-0.040
-5.970E-06,-0.020
-5.960E-06,0.008
-5.950E-06,0.032
-5.940E-06,0.048
-5.930E-06,0.016
-5.920E-06,-0.008
-5.910E-06,-0.036
-5.900E-06,-0.032
-5.890E-06,0.004
-5.880E-06,0.028
-5.870E-06,0.040
-5.860E-06,0.032
-5.850E-06,0.020
-5.840E-06,0.000
-5.830E-06,-0.008
-5.820E-06,0.000
-5.810E-06,0.020
-5.800E-06,0.028
-5.790E-06,0.032
-5.780E-06,0.028
-5.770E-06,0.024
-5.760E-06,0.028
-5.750E-06,0.028
-5.740E-06,-0.040
-5.730E-06,-0.176
-5.720E-06,-0.208
-5.710E-06,-0.096
-5.700E-06,0.060
-5.690E-06,0.144
-5.680E-06,0.224
-5.670E-06,0.092
-5.660E-06,-0.088
-5.650E-06,-0.196
-5.640E-06,-0.160
-5.630E-06,-0.004
-5.620E-06,0.128
-5.610E-06,0.184
-5.600E-06,0.096
-5.590E-06,-0.024
-5.580E-06,-0.128
-5.570E-06,-0.108
-5.560E-06,-0.036
-5.550E-06,0.064
-5.540E-06,0.100
-5.530E-06,0.072
-5.520E-06,0.008
-5.510E-06,-0.040
-5.500E-06,-0.056
-5.490E-06,-0.036
-5.480E-06,0.000
-5.470E-06,0.028
-5.460E-06,0.052
-5.450E-06,0.036
-5.440E-06,0.008
-5.430E-06,-0.020
-5.420E-06,-0.040
-5.410E-06,-0.036
-5.400E-06,-0.004
-5.390E-06,0.016
-5.380E-06,0.036
-5.370E-06,0.036
-5.360E-06,0.016
-5.350E-06,-0.012
-5.340E-06,-0.028
-5.330E-06,-0.024
-5.320E-06,0.000
-5.310E-06,0.028
-5.300E-06,0.044
-5.290E-06,0.040
-5.280E-06,0.012
-5.270E-06,-0.016
-5.260E-06,-0.020
-5.250E-06,-0.020
-5.240E-06,0.004
-5.230E-06,0.032
-5.220E-06,0.044
-5.210E-06,0.032
-5.200E-06,0.004
-5.190E-06,-0.020
-5.180E-06,-0.024
-5.170E-06,-0.004
-5.160E-06,0.028
-5.150E-06,0.044
-5.140E-06,0.056
-5.130E-06,0.020
-5.120E-06,-0.004
-5.110E-06,-0.012
-5.100E-06,-0.028
-5.090E-06,-0.004
-5.080E-06,0.024
-5.070E-06,0.064
-5.060E-06,0.044
-5.050E-06,-0.052
-5.040E-06,-0.108
-5.030E-06,-0.136
-5.020E-06,-0.040
-5.010E-06,0.060
-5.000E-06,0.140
-4.990E-06,0.112
-4.980E-06,0.012
-4.970E-06,-0.108
-4.960E-06,-0.152
-4.950E-06,-0.076
-4.940E-06,0.028
-4.930E-06,0.128
-4.920E-06,0.104
-4.910E-06,0.028
-4.900E-06,-0.072
-4.890E-06,-0.088
-4.880E-06,-0.056
-4.870E-06,0.032
-4.860E-06,0.080
-4.850E-06,0.072
-4.840E-06,0.024
-4.830E-06,-0.020
-4.820E-06,-0.040
-4.810E-06,-0.032
-4.800E-06,0.000
-4.790E-06,0.024
-4.780E-06,0.040
-4.770E-06,0.040
-4.760E-06,0.024
-4.750E-06,-0.004
-4.740E-06,-0.012
-4.730E-06,-0.016
-4.720E-06,-0.012
-4.710E-06,0.004
-4.700E-06,0.024
-4.690E-06,0.036
-4.680E-06,0.032
-4.670E-06,0.016
-4.660E-06,-0.004
-4.650E-06,-0.016
-4.640E-06,-0.012
-4.630E-06,0.020
-4.620E-06,0.040
-4.610E-06,0.056
-4.600E-06,0.052
-4.590E-06,0.020
-4.580E-06,0.012
-4.570E-06,0.008
-4.560E-06,0.008
-4.550E-06,0.024
-4.540E-06,0.052
-4.530E-06,0.040
-4.520E-06,0.024
-4.510E-06,0.000
-4.500E-06,-0.080
-4.490E-06,-0.176
-4.480E-06,-0.100
-4.470E-06,-0.088
-4.460E-06,0.000
-4.450E-06,0.136
-4.440E-06,0.224
-4.430E-06,0.060
-4.420E-06,-0.192
-4.410E-06,-0.220
-4.400E-06,-0.148
-4.390E-06,0.060
-4.380E-06,0.172
-4.370E-06,0.184
-4.360E-06,0.052
-4.350E-06,-0.072
-4.340E-06,-0.144
-4.330E-06,-0.124
-4.320E-06,-0.008
-4.310E-06,0.096
-4.300E-06,0.140
-4.290E-06,0.092
-4.280E-06,0.012
-4.270E-06,-0.064
-4.260E-06,-0.072
-4.250E-06,-0.036
-4.240E-06,0.024
-4.230E-06,0.064
-4.220E-06,0.068
-4.210E-06,0.036
-4.200E-06,0.000
-4.190E-06,-0.028
-4.180E-06,-0.028
-4.170E-06,-0.004
-4.160E-06,0.016
-4.150E-06,0.052
-4.140E-06,0.064
-4.130E-06,0.060
-4.120E-06,0.028
-4.110E-06,-0.004
-4.100E-06,-0.036
-4.090E-06,-0.044
-4.080E-06,-0.036
-4.070E-06,0.048
-4.060E-06,0.016
-4.050E-06,-0.008
-4.040E-06,-0.040
-4.030E-06,-0.060
-4.020E-06,-0.048
-4.010E-06,0.000
-4.000E-06,0.104
-3.990E-06,0.092
-3.980E-06,0.028
-3.970E-06,-0.052
-3.960E-06,-0.060
-3.950E-06,-0.064
-3.940E-06,-0.044
-3.930E-06,-0.008
-3.920E-06,0.028
-3.910E-06,0.080
-3.900E-06,0.056
-3.890E-06,0.040
-3.880E-06,-0.016
-3.870E-06,-0.040
-3.860E-06,-0.072
-3.850E-06,-0.040
-3.840E-06,0.016
-3.830E-06,0.080
-3.820E-06,0.104
-3.810E-06,0.080
-3.800E-06,0.016
-3.790E-06,-0.056
-3.780E-06,-0.088
-3.770E-06,-0.076
-3.760E-06,-0.004
-3.750E-06,0.060
-3.740E-06,0.124
-3.730E-06,0.112
-3.720E-06,0.044
-3.710E-06,-0.040
-3.700E-06,-0.088
-3.690E-06,-0.068
-3.680E-06,-0.024
-3.670E-06,0.052
-3.660E-06,0.092
-3.650E-06,0.124
-3.640E-06,0.008
-3.630E-06,-0.088
-3.620E-06,-0.136
-3.610E-06,-0.152
-3.600E-06,-0.044
-3.590E-06,0.064
-3.580E-06,0.156
-3.570E-06,0.144
-3.560E-06,0.092
-3.550E-06,-0.008
-3.540E-06,-0.100
-3.530E-06,-0.140
-3.520E-06,-0.116
-3.510E-06,-0.020
-3.500E-06,0.060
-3.490E-06,0.112
-3.480E-06,0.088
-3.470E-06,0.048
-3.460E-06,-0.012
-3.450E-06,-0.040
-3.440E-06,-0.036
-3.430E-06,0.016
-3.420E-06,0.052
-3.410E-06,0.032
-3.400E-06,0.000
-3.390E-06,-0.072
-3.380E-06,-0.040
-3.370E-06,0.000
-3.360E-06,0.040
-3.350E-06,-0.036
-3.340E-06,-0.076
-3.330E-06,-0.040
-3.320E-06,0.044
-3.310E-06,0.124
-3.300E-06,0.080
-3.290E-06,-0.004
-3.280E-06,-0.096
-3.270E-06,-0.088
-3.260E-06,-0.048
-3.250E-06,0.040
-3.240E-06,0.088
-3.230E-06,0.092
-3.220E-06,0.036
-3.210E-06,-0.036
-3.200E-06,-0.092
-3.190E-06,-0.088
-3.180E-06,-0.016
-3.170E-06,0.044
-3.160E-06,0.088
-3.150E-06,0.068
-3.140E-06,0.012
-3.130E-06,-0.040
-3.120E-06,-0.056
-3.110E-06,-0.048
-3.100E-06,-0.008
-3.090E-06,0.024
-3.080E-06,0.044
-3.070E-06,0.048
-3.060E-06,0.028
-3.050E-06,0.004
-3.040E-06,-0.020
-3.030E-06,-0.032
-3.020E-06,-0.032
-3.010E-06,0.004
-3.000E-06,0.040
-2.990E-06,0.064
-2.980E-06,0.064
-2.970E-06,0.024
-2.960E-06,-0.024
-2.950E-06,-0.060
-2.940E-06,-0.056
-2.930E-06,-0.020
-2.920E-06,0.048
-2.910E-06,0.076
-2.900E-06,0.068
-2.890E-06,0.024
-2.880E-06,-0.032
-2.870E-06,-0.068
-2.860E-06,-0.056
-2.850E-06,-0.020
-2.840E-06,0.040
-2.830E-06,0.084
-2.820E-06,0.080
-2.810E-06,0.060
-2.800E-06,0.000
-2.790E-06,-0.008
-2.780E-06,-0.040
-2.770E-06,-0.032
-2.760E-06,-0.040
-2.750E-06,-0.072
-2.740E-06,-0.032
-2.730E-06,0.028
-2.720E-06,0.060
-2.710E-06,0.020
-2.700E-06,0.000
-2.690E-06,-0.044
-2.680E-06,-0.020
-2.670E-06,-0.012
-2.660E-06,0.012
-2.650E-06,0.012
-2.640E-06,0.012
-2.630E-06,0.008
-2.620E-06,0.008
-2.610E-06,0.012
-2.600E-06,-0.012
-2.590E-06,-0.024
-2.580E-06,-0.012
-2.570E-06,0.004
-2.560E-06,0.012
-2.550E-06,0.020
-2.540E-06,0.012
-2.530E-06,0.008
-2.520E-06,0.000
-2.510E-06,-0.004
-2.500E-06,-0.008
-2.490E-06,-0.004
-2.480E-06,0.008
-2.470E-06,0.012
-2.460E-06,0.016
-2.450E-06,0.008
-2.440E-06,0.004
-2.430E-06,-0.004
-2.420E-06,0.000
-2.410E-06,-0.004
-2.400E-06,0.000
-2.390E-06,0.012
-2.380E-06,0.024
-2.370E-06,0.016
-2.360E-06,0.008
-2.350E-06,0.004
-2.340E-06,-0.004
-2.330E-06,-0.004
-2.320E-06,-0.004
-2.310E-06,0.004
-2.300E-06,0.012
-2.290E-06,0.024
-2.280E-06,0.016
-2.270E-06,0.008
-2.260E-06,-0.004
-2.250E-06,-0.012
-2.240E-06,0.004
-2.230E-06,0.024
-2.220E-06,0.040
-2.210E-06,0.048
-2.200E-06,0.044
-2.190E-06,0.028
-2.180E-06,0.024
-2.170E-06,0.012
-2.160E-06,0.004
-2.150E-06,-0.028
-2.140E-06,-0.040
-2.130E-06,-0.064
-2.120E-06,-0.056
-2.110E-06,-0.016
-2.100E-06,0.068
-2.090E-06,0.116
-2.080E-06,0.120
-2.070E-06,0.064
-2.060E-06,-0.032
-2.050E-06,-0.072
-2.040E-06,-0.052
-2.030E-06,0.012
-2.020E-06,0.044
-2.010E-06,0.044
-2.000E-06,-0.012
-1.990E-06,-0.056
-1.980E-06,-0.060
-1.970E-06,-0.040
-1.960E-06,-0.056
-1.950E-06,-0.020
-1.940E-06,0.020
-1.930E-06,0.068
-1.920E-06,0.060
-1.910E-06,0.012
-1.900E-06,-0.040
-1.890E-06,-0.088
-1.880E-06,-0.072
-1.870E-06,-0.020
-1.860E-06,0.056
-1.850E-06,0.096
-1.840E-06,0.084
-1.830E-06,0.012
-1.820E-06,-0.060
-1.810E-06,-0.100
-1.800E-06,-0.068
-1.790E-06,0.000
-1.780E-06,0.072
-1.770E-06,0.100
-1.760E-06,0.072
-1.750E-06,0.004
-1.740E-06,-0.060
-1.730E-06,-0.076
-1.720E-06,-0.048
-1.710E-06,0.008
-1.700E-06,0.072
-1.690E-06,0.104
-1.680E-06,0.084
-1.670E-06,0.024
-1.660E-06,-0.040
-1.650E-06,-0.076
-1.640E-06,-0.060
-1.630E-06,-0.008
-1.620E-06,0.052
-1.610E-06,0.084
-1.600E-06,0.076
-1.590E-06,0.032
-1.580E-06,-0.024
-1.570E-06,-0.060
-1.560E-06,-0.056
-1.550E-06,-0.008
-1.540E-06,0.060
-1.530E-06,0.104
-1.520E-06,0.108
-1.510E-06,0.052
-1.500E-06,-0.032
-1.490E-06,-0.092
-1.480E-06,-0.140
-1.470E-06,-0.104
-1.460E-06,-0.032
-1.450E-06,0.036
-1.440E-06,0.092
-1.430E-06,0.108
-1.420E-06,0.080
-1.410E-06,-0.004
-1.400E-06,-0.056
-1.390E-06,-0.080
-1.380E-06,-0.040
-1.370E-06,0.040
-1.360E-06,0.144
-1.350E-06,0.196
-1.340E-06,0.128
-1.330E-06,-0.028
-1.320E-06,-0.136
-1.310E-06,-0.188
-1.300E-06,-0.160
-1.290E-06,-0.052
-1.280E-06,0.088
-1.270E-06,0.144
-1.260E-06,0.108
-1.250E-06,0.012
-1.240E-06,-0.084
-1.230E-06,-0.132
-1.220E-06,-0.104
-1.210E-06,-0.012
-1.200E-06,0.080
-1.190E-06,0.132
-1.180E-06,0.092
-1.170E-06,0.016
-1.160E-06,-0.072
-1.150E-06,-0.108
-1.140E-06,-0.084
-1.130E-06,-0.008
-1.120E-06,0.064
-1.110E-06,0.092
-1.100E-06,0.076
-1.090E-06,0.004
-1.080E-06,-0.044
-1.070E-06,-0.068
-1.060E-06,-0.040
-1.050E-06,0.004
-1.040E-06,0.048
-1.030E-06,0.068
-1.020E-06,0.064
-1.010E-06,0.024
-1.000E-06,-0.012
-9.900E-07,-0.032
-9.800E-07,-0.028
-9.700E-07,0.000
-9.600E-07,0.028
-9.500E-07,0.060
-9.400E-07,0.048
-9.300E-07,0.028
-9.200E-07,0.008
-9.100E-07,0.000
-9.000E-07,-0.004
-8.900E-07,0.020
-8.800E-07,0.052
-8.700E-07,0.072
-8.600E-07,0.064
-8.500E-07,0.048
-8.400E-07,0.040
-8.300E-07,0.028
-8.200E-07,0.032
-8.100E-07,0.028
-8.000E-07,0.036
-7.900E-07,0.064
-7.800E-07,0.040
-7.700E-07,0.016
-7.600E-07,-0.056
-7.500E-07,-0.136
-7.400E-07,-0.128
-7.300E-07,-0.052
-7.200E-07,0.048
-7.100E-07,0.128
-7.000E-07,0.128
-6.900E-07,0.072
-6.800E-07,-0.020
-6.700E-07,-0.096
-6.600E-07,-0.068
-6.500E-07,0.024
-6.400E-07,0.092
-6.300E-07,0.096
-6.200E-07,0.020
-6.100E-07,-0.076
-6.000E-07,-0.176
-5.900E-07,-0.108
-5.800E-07,0.012
-5.700E-07,0.124
-5.600E-07,0.096
-5.500E-07,0.080
-5.400E-07,0.008
-5.300E-07,-0.060
-5.200E-07,-0.076
-5.100E-07,-0.020
-5.000E-07,0.056
-4.900E-07,0.096
-4.800E-07,0.076
-4.700E-07,-0.012
-4.600E-07,-0.060
-4.500E-07,-0.088
-4.400E-07,-0.012
-4.300E-07,0.060
-4.200E-07,0.128
-4.100E-07,0.132
-4.000E-07,0.088
-3.900E-07,0.012
-3.800E-07,-0.056
-3.700E-07,-0.064
-3.600E-07,-0.076
-3.500E-07,-0.024
-3.400E-07,0.032
-3.300E-07,0.068
-3.200E-07,0.060
-3.100E-07,0.052
-3.000E-07,0.008
-2.900E-07,-0.024
-2.800E-07,-0.016
-2.700E-07,0.020
-2.600E-07,0.068
-2.500E-07,0.100
-2.400E-07,0.096
-2.300E-07,0.060
-2.200E-07,0.012
-2.100E-07,-0.004
-2.000E-07,0.028
-1.900E-07,0.068
-1.800E-07,0.124
-1.700E-07,0.128
-1.600E-07,0.108
-1.500E-07,0.092
-1.400E-07,0.072
-1.300E-07,0.072
-1.200E-07,0.088
-1.100E-07,0.104
-1.000E-07,0.132
-9.000E-08,0.184
-8.000E-08,0.172
-7.000E-08,0.024
-6.000E-08,0.016
-5.000E-08,-0.504
-4.000E-08,-0.512
-3.000E-08,-0.512
-2.000E-08,-0.508
-1.000E-08,0.320
0.000E+00,0.540
1.000E-08,0.540
2.000E-08,0.204
3.000E-08,-0.512
4.000E-08,-0.508
5.000E-08,-0.508
6.000E-08,0.148
7.000E-08,0.540
8.000E-08,0.540
9.000E-08,0.308
1.000E-07,-0.272
1.100E-07,-0.512
1.200E-07,-0.368
1.300E-07,-0.056
1.400E-07,0.332
1.500E-07,0.288
1.600E-07,0.268
1.700E-07,-0.068
1.800E-07,-0.124
1.900E-07,-0.204
2.000E-07,-0.072
2.100E-07,0.024
2.200E-07,0.152
2.300E-07,0.196
2.400E-07,0.100
2.500E-07,0.012
2.600E-07,-0.164
2.700E-07,-0.128
2.800E-07,-0.076
2.900E-07,0.128
3.000E-07,0.176
3.100E-07,0.192
3.200E-07,0.044
3.300E-07,-0.076
3.400E-07,-0.120
3.500E-07,-0.040
3.600E-07,0.124
3.700E-07,0.252
3.800E-07,0.320
3.900E-07,0.276
4.000E-07,0.108
4.100E-07,-0.140
4.200E-07,-0.340
4.300E-07,-0.512
4.400E-07,-0.412
4.500E-07,-0.160
4.600E-07,0.220
4.700E-07,0.480
4.800E-07,0.408
4.900E-07,0.072
5.000E-07,-0.336
5.100E-07,-0.468
5.200E-07,-0.340
5.300E-07,0.032
5.400E-07,0.364
5.500E-07,0.516
5.600E-07,0.332
5.700E-07,0.000
5.800E-07,-0.304
5.900E-07,-0.376
6.000E-07,-0.176
6.100E-07,0.152
6.200E-07,0.384
6.300E-07,0.412
6.400E-07,0.256
6.500E-07,-0.072
6.600E-07,-0.316
6.700E-07,-0.364
6.800E-07,-0.172
6.900E-07,0.108
7.000E-07,0.332
7.100E-07,0.384
7.200E-07,0.284
7.300E-07,0.060
7.400E-07,-0.108
7.500E-07,-0.104
7.600E-07,0.036
7.700E-07,0.232
7.800E-07,0.296
7.900E-07,0.244
8.000E-07,0.072
8.100E-07,-0.132
8.200E-07,-0.288
8.300E-07,-0.284
8.400E-07,-0.168
8.500E-07,-0.024
8.600E-07,0.136
8.700E-07,0.184
8.800E-07,0.092
8.900E-07,0.008
9.000E-07,-0.096
9.100E-07,-0.124
9.200E-07,-0.048
9.300E-07,0.120
9.400E-07,0.288
9.500E-07,0.360
9.600E-07,0.344
9.700E-07,0.224
9.800E-07,0.160
9.900E-07,0.076
1.000E-06,0.112
1.010E-06,0.104
1.020E-06,-0.008
1.030E-06,-0.316
1.040E-06,-0.508
1.050E-06,-0.512
1.060E-06,-0.288
1.070E-06,0.228
1.080E-06,0.540
1.090E-06,0.540
1.100E-06,0.188
1.110E-06,-0.124
1.120E-06,-0.304
1.130E-06,-0.136
1.140E-06,0.160
1.150E-06,0.412
1.160E-06,0.468
1.170E-06,0.328
1.180E-06,0.064
1.190E-06,-0.304
1.200E-06,-0.512
1.210E-06,-0.512
1.220E-06,-0.512
1.230E-06,-0.064
1.240E-06,0.536
1.250E-06,0.540
1.260E-06,0.540
1.270E-06,0.092
1.280E-06,-0.508
1.290E-06,-0.512
1.300E-06,-0.512
1.310E-06,-0.240
1.320E-06,0.396
1.330E-06,0.540
1.340E-06,0.476
1.350E-06,0.088
1.360E-06,-0.360
1.370E-06,-0.508
1.380E-06,-0.396
1.390E-06,-0.040
1.400E-06,0.404
1.410E-06,0.540
1.420E-06,0.540
1.430E-06,0.308
1.440E-06,-0.084
1.450E-06,-0.332
1.460E-06,-0.292
1.470E-06,-0.096
1.480E-06,0.124
1.490E-06,0.140
1.500E-06,0.044
1.510E-06,-0.192
1.520E-06,-0.412
1.530E-06,-0.400
1.540E-06,-0.284
1.550E-06,-0.120
1.560E-06,0.052
1.570E-06,0.164
1.580E-06,0.144
1.590E-06,0.136
1.600E-06,0.060
1.610E-06,-0.028
1.620E-06,-0.120
1.630E-06,-0.148
1.640E-06,-0.060
1.650E-06,0.076
1.660E-06,0.144
1.670E-06,0.136
1.680E-06,0.100
1.690E-06,-0.008
1.700E-06,-0.040
1.710E-06,-0.040
1.720E-06,0.044
1.730E-06,0.128
1.740E-06,0.112
1.750E-06,0.100
1.760E-06,0.088
1.770E-06,0.068
1.780E-06,0.072
1.790E-06,0.144
1.800E-06,0.208
1.810E-06,0.260
1.820E-06,0.292
1.830E-06,0.288
1.840E-06,0.256
1.850E-06,0.184
1.860E-06,0.120
1.870E-06,0.104
1.880E-06,0.128
1.890E-06,0.168
1.900E-06,0.188
1.910E-06,0.140
1.920E-06,0.044
1.930E-06,-0.076
1.940E-06,-0.152
1.950E-06,-0.160
1.960E-06,-0.128
1.970E-06,-0.080
1.980E-06,-0.060
1.990E-06,0.004
2.000E-06,0.016
2.010E-06,-0.044
2.020E-06,-0.040
2.030E-06,-0.060
2.040E-06,0.084
2.050E-06,0.172
2.060E-06,0.256
2.070E-06,0.256
2.080E-06,0.236
2.090E-06,0.188
2.100E-06,0.168
2.110E-06,0.240
2.120E-06,0.288
2.130E-06,0.328
2.140E-06,0.272
2.150E-06,0.240
2.160E-06,0.220
2.170E-06,0.252
2.180E-06,0.256
2.190E-06,0.284
2.200E-06,0.292
2.210E-06,0.284
2.220E-06,0.272
2.230E-06,0.244
2.240E-06,0.232
2.250E-06,0.208
2.260E-06,0.224
2.270E-06,0.244
2.280E-06,0.276
2.290E-06,0.292
2.300E-06,0.308
2.310E-06,0.284
2.320E-06,0.244
2.330E-06,0.208
2.340E-06,0.192
2.350E-06,0.232
2.360E-06,0.268
2.370E-06,0.308
2.380E-06,0.260
2.390E-06,0.188
2.400E-06,0.132
2.410E-06,0.140
2.420E-06,0.164
2.430E-06,0.224
2.440E-06,0.256
2.450E-06,0.228
2.460E-06,0.188
2.470E-06,0.124
2.480E-06,0.084
2.490E-06,0.056
2.500E-06,0.068
2.510E-06,0.076
2.520E-06,0.060
2.530E-06,0.060
2.540E-06,0.140
2.550E-06,0.160
2.560E-06,0.108
2.570E-06,0.052
2.580E-06,-0.008
2.590E-06,-0.004
2.600E-06,-0.040
2.610E-06,0.000
2.620E-06,-0.036
2.630E-06,-0.044
2.640E-06,-0.072
2.650E-06,0.024
2.660E-06,0.164
2.670E-06,0.336
2.680E-06,0.388
2.690E-06,0.304
2.700E-06,0.208
2.710E-06,0.124
2.720E-06,0.164
2.730E-06,0.236
2.740E-06,0.372
2.750E-06,0.416
2.760E-06,0.420
2.770E-06,0.320
2.780E-06,0.224
2.790E-06,0.152
2.800E-06,0.160
2.810E-06,0.224
2.820E-06,0.304
2.830E-06,0.372
2.840E-06,0.364
2.850E-06,0.328
2.860E-06,0.228
2.870E-06,0.176
2.880E-06,0.164
2.890E-06,0.220
2.900E-06,0.284
2.910E-06,0.344
2.920E-06,0.352
2.930E-06,0.328
2.940E-06,0.276
2.950E-06,0.224
2.960E-06,0.208
2.970E-06,0.220
2.980E-06,0.268
2.990E-06,0.308
3.000E-06,0.332
3.010E-06,0.304
3.020E-06,0.272
3.030E-06,0.232
3.040E-06,0.212
3.050E-06,0.232
3.060E-06,0.268
3.070E-06,0.320
3.080E-06,0.340
3.090E-06,0.328
3.100E-06,0.284
3.110E-06,0.232
3.120E-06,0.204
3.130E-06,0.208
3.140E-06,0.240
3.150E-06,0.288
3.160E-06,0.316
3.170E-06,0.308
3.180E-06,0.284
3.190E-06,0.244
3.200E-06,0.212
3.210E-06,0.204
3.220E-06,0.228
3.230E-06,0.264
3.240E-06,0.292
