mediciones/5-15/56.1/WaveData47527.csv

#timebase=2000000(ps)
,#voltbase=100000(mv/100)
#size=4000
-8.400E-06,-0.004
-8.390E-06,-0.004
-8.380E-06,0.000
-8.370E-06,0.004
-8.360E-06,0.000
-8.350E-06,0.012
-8.340E-06,0.008
-8.330E-06,-0.004
-8.320E-06,0.000
-8.310E-06,0.004
-8.300E-06,-0.004
-8.290E-06,0.004
-8.280E-06,0.008
-8.270E-06,0.000
-8.260E-06,0.000
-8.250E-06,0.004
-8.240E-06,0.008
-8.230E-06,0.004
-8.220E-06,0.000
-8.210E-06,0.000
-8.200E-06,0.000
-8.190E-06,0.004
-8.180E-06,0.000
-8.170E-06,0.000
-8.160E-06,0.000
-8.150E-06,0.004
-8.140E-06,0.008
-8.130E-06,0.004
-8.120E-06,0.000
-8.110E-06,0.000
-8.100E-06,0.004
-8.090E-06,0.008
-8.080E-06,0.004
-8.070E-06,0.004
-8.060E-06,0.000
-8.050E-06,0.000
-8.040E-06,0.000
-8.030E-06,-0.004
-8.020E-06,0.000
-8.010E-06,0.008
-8.000E-06,0.004
-7.990E-06,0.000
-7.980E-06,0.004
-7.970E-06,-0.004
-7.960E-06,-0.004
-7.950E-06,0.004
-7.940E-06,0.000
-7.930E-06,0.000
-7.920E-06,0.008
-7.910E-06,0.008
-7.900E-06,-0.004
-7.890E-06,-0.004
-7.880E-06,0.000
-7.870E-06,0.004
-7.860E-06,0.000
-7.850E-06,0.000
-7.840E-06,0.004
-7.830E-06,0.004
-7.820E-06,0.008
-7.810E-06,0.004
-7.800E-06,-0.004
-7.790E-06,0.000
-7.780E-06,0.004
-7.770E-06,0.008
-7.760E-06,0.012
-7.750E-06,0.012
-7.740E-06,0.008
-7.730E-06,0.004
-7.720E-06,0.000
-7.710E-06,0.000
-7.700E-06,0.004
-7.690E-06,0.004
-7.680E-06,0.008
-7.670E-06,0.004
-7.660E-06,0.004
-7.650E-06,0.000
-7.640E-06,-0.004
-7.630E-06,0.000
-7.620E-06,0.004
-7.610E-06,0.008
-7.600E-06,0.004
-7.590E-06,-0.004
-7.580E-06,0.000
-7.570E-06,0.000
-7.560E-06,0.008
-7.550E-06,0.004
-7.540E-06,0.000
-7.530E-06,0.000
-7.520E-06,0.000
-7.510E-06,-0.004
-7.500E-06,0.008
-7.490E-06,0.000
-7.480E-06,0.004
-7.470E-06,0.000
-7.460E-06,0.004
-7.450E-06,0.000
-7.440E-06,0.004
-7.430E-06,0.004
-7.420E-06,-0.004
-7.410E-06,0.004
-7.400E-06,0.008
-7.390E-06,0.008
-7.380E-06,-0.004
-7.370E-06,0.004
-7.360E-06,0.000
-7.350E-06,0.000
-7.340E-06,0.004
-7.330E-06,0.004
-7.320E-06,0.004
-7.310E-06,0.000
-7.300E-06,0.004
-7.290E-06,0.008
-7.280E-06,0.004
-7.270E-06,0.004
-7.260E-06,0.004
-7.250E-06,0.004
-7.240E-06,0.000
-7.230E-06,0.008
-7.220E-06,0.008
-7.210E-06,-0.004
-7.200E-06,0.000
-7.190E-06,0.004
-7.180E-06,0.004
-7.170E-06,0.004
-7.160E-06,0.004
-7.150E-06,0.000
-7.140E-06,-0.008
-7.130E-06,0.008
-7.120E-06,0.004
-7.110E-06,0.000
-7.100E-06,0.004
-7.090E-06,0.000
-7.080E-06,0.000
-7.070E-06,-0.004
-7.060E-06,0.004
-7.050E-06,0.008
-7.040E-06,0.008
-7.030E-06,0.000
-7.020E-06,-0.004
-7.010E-06,0.004
-7.000E-06,0.000
-6.990E-06,0.000
-6.980E-06,0.000
-6.970E-06,0.008
-6.960E-06,0.000
-6.950E-06,0.004
-6.940E-06,0.004
-6.930E-06,0.004
-6.920E-06,0.004
-6.910E-06,0.000
-6.900E-06,0.000
-6.890E-06,0.004
-6.880E-06,0.004
-6.870E-06,0.008
-6.860E-06,0.004
-6.850E-06,0.000
-6.840E-06,-0.004
-6.830E-06,0.000
-6.820E-06,0.000
-6.810E-06,0.000
-6.800E-06,0.004
-6.790E-06,0.004
-6.780E-06,0.004
-6.770E-06,0.004
-6.760E-06,0.004
-6.750E-06,0.000
-6.740E-06,0.000
-6.730E-06,0.004
-6.720E-06,0.008
-6.710E-06,0.008
-6.700E-06,0.004
-6.690E-06,0.004
-6.680E-06,0.004
-6.670E-06,0.004
-6.660E-06,-0.004
-6.650E-06,-0.004
-6.640E-06,0.004
-6.630E-06,-0.004
-6.620E-06,0.004
-6.610E-06,0.008
-6.600E-06,0.004
-6.590E-06,0.000
-6.580E-06,0.004
-6.570E-06,0.004
-6.560E-06,0.000
-6.550E-06,0.000
-6.540E-06,0.000
-6.530E-06,0.004
-6.520E-06,0.012
-6.510E-06,0.000
-6.500E-06,0.000
-6.490E-06,0.004
-6.480E-06,0.004
-6.470E-06,0.004
-6.460E-06,0.004
-6.450E-06,-0.004
-6.440E-06,0.000
-6.430E-06,0.004
-6.420E-06,0.004
-6.410E-06,-0.004
-6.400E-06,0.004
-6.390E-06,-0.004
-6.380E-06,0.000
-6.370E-06,0.008
-6.360E-06,0.004
-6.350E-06,-0.004
-6.340E-06,0.004
-6.330E-06,0.000
-6.320E-06,0.000
-6.310E-06,0.000
-6.300E-06,0.000
-6.290E-06,0.000
-6.280E-06,0.008
-6.270E-06,0.012
-6.260E-06,0.000
-6.250E-06,0.000
-6.240E-06,0.000
-6.230E-06,0.004
-6.220E-06,-0.004
-6.210E-06,0.004
-6.200E-06,0.004
-6.190E-06,0.004
-6.180E-06,0.000
-6.170E-06,0.004
-6.160E-06,0.008
-6.150E-06,0.000
-6.140E-06,-0.004
-6.130E-06,0.000
-6.120E-06,0.008
-6.110E-06,0.008
-6.100E-06,0.004
-6.090E-06,-0.004
-6.080E-06,0.004
-6.070E-06,-0.008
-6.060E-06,-0.004
-6.050E-06,0.008
-6.040E-06,0.004
-6.030E-06,0.000
-6.020E-06,0.008
-6.010E-06,0.004
-6.000E-06,-0.004
-5.990E-06,0.004
-5.980E-06,0.000
-5.970E-06,0.004
-5.960E-06,0.008
-5.950E-06,0.008
-5.940E-06,0.000
-5.930E-06,-0.004
-5.920E-06,0.000
-5.910E-06,-0.004
-5.900E-06,0.008
-5.890E-06,-0.004
-5.880E-06,0.000
-5.870E-06,0.000
-5.860E-06,0.004
-5.850E-06,0.000
-5.840E-06,0.000
-5.830E-06,0.004
-5.820E-06,0.004
-5.810E-06,0.004
-5.800E-06,-0.004
-5.790E-06,0.008
-5.780E-06,0.008
-5.770E-06,-0.004
-5.760E-06,-0.004
-5.750E-06,0.000
-5.740E-06,0.000
-5.730E-06,0.004
-5.720E-06,0.012
-5.710E-06,0.008
-5.700E-06,0.000
-5.690E-06,0.000
-5.680E-06,0.000
-5.670E-06,0.000
-5.660E-06,0.004
-5.650E-06,0.004
-5.640E-06,0.004
-5.630E-06,0.008
-5.620E-06,0.000
-5.610E-06,0.000
-5.600E-06,-0.004
-5.590E-06,-0.004
-5.580E-06,0.004
-5.570E-06,0.004
-5.560E-06,0.004
-5.550E-06,0.000
-5.540E-06,0.000
-5.530E-06,0.000
-5.520E-06,-0.004
-5.510E-06,-0.004
-5.500E-06,0.004
-5.490E-06,0.004
-5.480E-06,0.000
-5.470E-06,0.000
-5.460E-06,0.004
-5.450E-06,0.000
-5.440E-06,0.004
-5.430E-06,0.000
-5.420E-06,0.000
-5.410E-06,0.000
-5.400E-06,0.000
-5.390E-06,0.004
-5.380E-06,0.004
-5.370E-06,0.004
-5.360E-06,0.004
-5.350E-06,-0.004
-5.340E-06,-0.004
-5.330E-06,-0.004
-5.320E-06,0.008
-5.310E-06,0.008
-5.300E-06,0.008
-5.290E-06,0.008
-5.280E-06,0.000
-5.270E-06,-0.004
-5.260E-06,-0.004
-5.250E-06,0.000
-5.240E-06,0.000
-5.230E-06,0.004
-5.220E-06,0.000
-5.210E-06,0.000
-5.200E-06,0.004
-5.190E-06,0.000
-5.180E-06,0.000
-5.170E-06,0.004
-5.160E-06,0.000
-5.150E-06,0.000
-5.140E-06,0.008
-5.130E-06,0.004
-5.120E-06,0.004
-5.110E-06,0.004
-5.100E-06,0.000
-5.090E-06,0.000
-5.080E-06,0.004
-5.070E-06,0.008
-5.060E-06,0.004
-5.050E-06,0.004
-5.040E-06,0.008
-5.030E-06,0.000
-5.020E-06,-0.004
-5.010E-06,0.000
-5.000E-06,0.004
-4.990E-06,0.008
-4.980E-06,0.004
-4.970E-06,0.012
-4.960E-06,0.004
-4.950E-06,0.004
-4.940E-06,0.000
-4.930E-06,0.000
-4.920E-06,0.000
-4.910E-06,0.000
-4.900E-06,0.004
-4.890E-06,0.012
-4.880E-06,0.000
-4.870E-06,0.000
-4.860E-06,0.000
-4.850E-06,0.000
-4.840E-06,0.004
-4.830E-06,0.004
-4.820E-06,0.004
-4.810E-06,0.008
-4.800E-06,0.008
-4.790E-06,0.004
-4.780E-06,-0.004
-4.770E-06,0.000
-4.760E-06,0.008
-4.750E-06,-0.004
-4.740E-06,0.004
-4.730E-06,0.008
-4.720E-06,0.004
-4.710E-06,0.000
-4.700E-06,0.008
-4.690E-06,0.000
-4.680E-06,0.000
-4.670E-06,0.004
-4.660E-06,0.004
-4.650E-06,0.000
-4.640E-06,0.004
-4.630E-06,0.004
-4.620E-06,0.004
-4.610E-06,0.004
-4.600E-06,0.004
-4.590E-06,0.000
-4.580E-06,0.000
-4.570E-06,0.000
-4.560E-06,0.004
-4.550E-06,0.008
-4.540E-06,0.004
-4.530E-06,0.004
-4.520E-06,0.004
-4.510E-06,0.000
-4.500E-06,0.000
-4.490E-06,0.000
-4.480E-06,0.000
-4.470E-06,0.004
-4.460E-06,0.004
-4.450E-06,0.004
-4.440E-06,0.004
-4.430E-06,0.004
-4.420E-06,-0.004
-4.410E-06,-0.004
-4.400E-06,0.004
-4.390E-06,0.000
-4.380E-06,0.004
-4.370E-06,0.004
-4.360E-06,0.004
-4.350E-06,0.004
-4.340E-06,0.008
-4.330E-06,0.004
-4.320E-06,0.004
-4.310E-06,0.000
-4.300E-06,0.000
-4.290E-06,0.008
-4.280E-06,0.000
-4.270E-06,-0.004
-4.260E-06,0.000
-4.250E-06,0.000
-4.240E-06,0.004
-4.230E-06,0.004
-4.220E-06,0.004
-4.210E-06,0.004
-4.200E-06,0.008
-4.190E-06,-0.004
-4.180E-06,-0.004
-4.170E-06,0.004
-4.160E-06,0.004
-4.150E-06,0.004
-4.140E-06,0.000
-4.130E-06,0.000
-4.120E-06,0.000
-4.110E-06,-0.004
-4.100E-06,0.004
-4.090E-06,0.008
-4.080E-06,0.008
-4.070E-06,0.004
-4.060E-06,0.004
-4.050E-06,0.004
-4.040E-06,0.000
-4.030E-06,0.004
-4.020E-06,0.004
-4.010E-06,0.004
-4.000E-06,0.000
-3.990E-06,-0.004
-3.980E-06,0.000
-3.970E-06,0.004
-3.960E-06,0.004
-3.950E-06,0.008
-3.940E-06,0.004
-3.930E-06,0.000
-3.920E-06,0.000
-3.910E-06,0.000
-3.900E-06,0.004
-3.890E-06,0.008
-3.880E-06,0.008
-3.870E-06,0.008
-3.860E-06,0.000
-3.850E-06,0.008
-3.840E-06,0.004
-3.830E-06,0.004
-3.820E-06,0.004
-3.810E-06,0.004
-3.800E-06,0.008
-3.790E-06,0.004
-3.780E-06,-0.004
-3.770E-06,0.000
-3.760E-06,0.000
-3.750E-06,0.008
-3.740E-06,0.012
-3.730E-06,0.012
-3.720E-06,0.012
-3.710E-06,0.000
-3.700E-06,-0.004
-3.690E-06,0.000
-3.680E-06,0.008
-3.670E-06,0.000
-3.660E-06,0.004
-3.650E-06,0.008
-3.640E-06,0.004
-3.630E-06,0.008
-3.620E-06,0.000
-3.610E-06,-0.004
-3.600E-06,-0.004
-3.590E-06,0.000
-3.580E-06,0.008
-3.570E-06,0.020
-3.560E-06,0.016
-3.550E-06,0.008
-3.540E-06,-0.004
-3.530E-06,0.000
-3.520E-06,0.000
-3.510E-06,0.004
-3.500E-06,0.012
-3.490E-06,0.024
-3.480E-06,0.008
-3.470E-06,0.000
-3.460E-06,-0.008
-3.450E-06,0.000
-3.440E-06,0.008
-3.430E-06,0.020
-3.420E-06,0.020
-3.410E-06,0.012
-3.400E-06,0.004
-3.390E-06,-0.004
-3.380E-06,0.000
-3.370E-06,0.008
-3.360E-06,0.016
-3.350E-06,0.008
-3.340E-06,0.000
-3.330E-06,0.008
-3.320E-06,0.016
-3.310E-06,0.016
-3.300E-06,-0.004
-3.290E-06,-0.008
-3.280E-06,-0.024
-3.270E-06,-0.008
-3.260E-06,0.008
-3.250E-06,0.012
-3.240E-06,0.012
-3.230E-06,0.000
-3.220E-06,-0.008
-3.210E-06,-0.024
-3.200E-06,-0.012
-3.190E-06,0.004
-3.180E-06,0.028
-3.170E-06,0.020
-3.160E-06,0.008
-3.150E-06,-0.016
-3.140E-06,-0.028
-3.130E-06,-0.016
-3.120E-06,0.004
-3.110E-06,0.024
-3.100E-06,0.028
-3.090E-06,0.012
-3.080E-06,-0.012
-3.070E-06,-0.032
-3.060E-06,-0.016
-3.050E-06,0.004
-3.040E-06,0.004
-3.030E-06,0.024
-3.020E-06,0.024
-3.010E-06,-0.008
-3.000E-06,-0.012
-2.990E-06,0.024
-2.980E-06,0.028
-2.970E-06,-0.016
-2.960E-06,-0.004
-2.950E-06,0.000
-2.940E-06,0.000
-2.930E-06,0.016
-2.920E-06,0.032
-2.910E-06,0.024
-2.900E-06,-0.004
-2.890E-06,-0.008
-2.880E-06,-0.008
-2.870E-06,-0.004
-2.860E-06,0.012
-2.850E-06,0.024
-2.840E-06,0.016
-2.830E-06,0.008
-2.820E-06,-0.004
-2.810E-06,0.008
-2.800E-06,0.004
-2.790E-06,0.016
-2.780E-06,0.020
-2.770E-06,0.008
-2.760E-06,-0.004
-2.750E-06,0.008
-2.740E-06,0.024
-2.730E-06,0.024
-2.720E-06,0.032
-2.710E-06,0.016
-2.700E-06,0.000
-2.690E-06,-0.020
-2.680E-06,-0.024
-2.670E-06,-0.008
-2.660E-06,0.028
-2.650E-06,0.040
-2.640E-06,0.020
-2.630E-06,0.008
-2.620E-06,-0.008
-2.610E-06,-0.036
-2.600E-06,-0.032
-2.590E-06,-0.016
-2.580E-06,-0.012
-2.570E-06,0.004
-2.560E-06,0.028
-2.550E-06,0.020
-2.540E-06,0.004
-2.530E-06,0.000
-2.520E-06,-0.012
-2.510E-06,-0.020
-2.500E-06,-0.012
-2.490E-06,0.004
-2.480E-06,0.012
-2.470E-06,0.012
-2.460E-06,0.012
-2.450E-06,0.008
-2.440E-06,0.008
-2.430E-06,0.004
-2.420E-06,0.000
-2.410E-06,-0.004
-2.400E-06,-0.004
-2.390E-06,0.000
-2.380E-06,0.012
-2.370E-06,0.016
-2.360E-06,0.012
-2.350E-06,0.004
-2.340E-06,0.000
-2.330E-06,0.008
-2.320E-06,0.012
-2.310E-06,0.012
-2.300E-06,0.012
-2.290E-06,0.008
-2.280E-06,-0.004
-2.270E-06,-0.004
-2.260E-06,0.004
-2.250E-06,0.016
-2.240E-06,0.012
-2.230E-06,0.012
-2.220E-06,0.012
-2.210E-06,0.004
-2.200E-06,0.000
-2.190E-06,0.012
-2.180E-06,0.024
-2.170E-06,0.024
-2.160E-06,0.028
-2.150E-06,0.028
-2.140E-06,0.036
-2.130E-06,0.032
-2.120E-06,0.028
-2.110E-06,0.028
-2.100E-06,0.028
-2.090E-06,0.024
-2.080E-06,0.028
-2.070E-06,0.028
-2.060E-06,0.024
-2.050E-06,0.024
-2.040E-06,0.012
-2.030E-06,-0.004
-2.020E-06,-0.024
-2.010E-06,-0.040
-2.000E-06,-0.040
-1.990E-06,-0.024
-1.980E-06,0.012
-1.970E-06,0.024
-1.960E-06,0.024
-1.950E-06,0.008
-1.940E-06,-0.004
-1.930E-06,-0.012
-1.920E-06,-0.008
-1.910E-06,-0.008
-1.900E-06,0.012
-1.890E-06,0.044
-1.880E-06,0.036
-1.870E-06,0.016
-1.860E-06,-0.028
-1.850E-06,-0.044
-1.840E-06,-0.040
-1.830E-06,-0.032
-1.820E-06,-0.008
-1.810E-06,0.012
-1.800E-06,0.028
-1.790E-06,0.012
-1.780E-06,-0.008
-1.770E-06,-0.016
-1.760E-06,-0.016
-1.750E-06,-0.008
-1.740E-06,0.012
-1.730E-06,0.024
-1.720E-06,0.024
-1.710E-06,0.012
-1.700E-06,0.004
-1.690E-06,0.008
-1.680E-06,0.008
-1.670E-06,0.024
-1.660E-06,0.020
-1.650E-06,0.020
-1.640E-06,0.000
-1.630E-06,0.000
-1.620E-06,-0.008
-1.610E-06,0.004
-1.600E-06,0.028
-1.590E-06,0.040
-1.580E-06,0.028
-1.570E-06,0.012
-1.560E-06,-0.008
-1.550E-06,-0.020
-1.540E-06,-0.008
-1.530E-06,0.024
-1.520E-06,0.060
-1.510E-06,0.080
-1.500E-06,0.064
-1.490E-06,0.028
-1.480E-06,-0.004
-1.470E-06,-0.024
-1.460E-06,-0.004
-1.450E-06,0.036
-1.440E-06,0.072
-1.430E-06,0.092
-1.420E-06,0.088
-1.410E-06,0.056
-1.400E-06,0.028
-1.390E-06,0.016
-1.380E-06,0.024
-1.370E-06,0.048
-1.360E-06,0.068
-1.350E-06,0.072
-1.340E-06,0.060
-1.330E-06,0.024
-1.320E-06,0.008
-1.310E-06,0.024
-1.300E-06,0.052
-1.290E-06,0.072
-1.280E-06,0.088
-1.270E-06,0.088
-1.260E-06,0.068
-1.250E-06,0.060
-1.240E-06,0.068
-1.230E-06,0.076
-1.220E-06,0.076
-1.210E-06,0.048
-1.200E-06,0.028
-1.190E-06,0.024
-1.180E-06,0.024
-1.170E-06,0.044
-1.160E-06,0.056
-1.150E-06,0.028
-1.140E-06,-0.008
-1.130E-06,-0.040
-1.120E-06,-0.024
-1.110E-06,-0.004
-1.100E-06,0.012
-1.090E-06,0.012
-1.080E-06,-0.024
-1.070E-06,-0.064
-1.060E-06,-0.076
-1.050E-06,-0.068
-1.040E-06,-0.044
-1.030E-06,-0.004
-1.020E-06,-0.008
-1.010E-06,-0.028
-1.000E-06,-0.088
-9.900E-07,-0.104
-9.800E-07,-0.092
-9.700E-07,-0.016
-9.600E-07,0.044
-9.500E-07,0.088
-9.400E-07,0.072
-9.300E-07,0.044
-9.200E-07,0.004
-9.100E-07,-0.004
-9.000E-07,0.028
-8.900E-07,0.056
-8.800E-07,0.076
-8.700E-07,0.076
-8.600E-07,0.064
-8.500E-07,0.028
-8.400E-07,0.008
-8.300E-07,0.012
-8.200E-07,0.028
-8.100E-07,0.060
-8.000E-07,0.088
-7.900E-07,0.128
-7.800E-07,0.116
-7.700E-07,0.084
-7.600E-07,0.048
-7.500E-07,0.032
-7.400E-07,0.048
-7.300E-07,0.092
-7.200E-07,0.116
-7.100E-07,0.124
-7.000E-07,0.096
-6.900E-07,0.048
-6.800E-07,0.000
-6.700E-07,-0.008
-6.600E-07,0.004
-6.500E-07,0.036
-6.400E-07,0.064
-6.300E-07,0.072
-6.200E-07,0.076
-6.100E-07,0.068
-6.000E-07,0.068
-5.900E-07,0.060
-5.800E-07,0.036
-5.700E-07,0.012
-5.600E-07,0.012
-5.500E-07,0.028
-5.400E-07,0.028
-5.300E-07,0.028
-5.200E-07,0.000
-5.100E-07,-0.032
-5.000E-07,-0.060
-4.900E-07,-0.044
-4.800E-07,0.008
-4.700E-07,0.044
-4.600E-07,0.068
-4.500E-07,0.052
-4.400E-07,0.024
-4.300E-07,-0.008
-4.200E-07,0.016
-4.100E-07,0.036
-4.000E-07,0.060
-3.900E-07,0.088
-3.800E-07,0.088
-3.700E-07,0.080
-3.600E-07,0.068
-3.500E-07,0.068
-3.400E-07,0.064
-3.300E-07,0.076
-3.200E-07,0.128
-3.100E-07,0.160
-3.000E-07,0.176
-2.900E-07,0.176
-2.800E-07,0.160
-2.700E-07,0.152
-2.600E-07,0.144
-2.500E-07,0.148
-2.400E-07,0.176
-2.300E-07,0.188
-2.200E-07,0.196
-2.100E-07,0.192
-2.000E-07,0.196
-1.900E-07,0.180
-1.800E-07,0.180
-1.700E-07,0.176
-1.600E-07,0.164
-1.500E-07,0.132
-1.400E-07,0.092
-1.300E-07,0.080
-1.200E-07,-0.096
-1.100E-07,-0.188
-1.000E-07,-0.476
-9.000E-08,-0.512
-8.000E-08,-0.512
-7.000E-08,-0.508
-6.000E-08,-0.436
-5.000E-08,-0.512
-4.000E-08,-0.508
-3.000E-08,-0.512
-2.000E-08,-0.484
-1.000E-08,0.124
0.000E+00,0.540
1.000E-08,0.544
2.000E-08,0.164
3.000E-08,-0.292
4.000E-08,-0.496
5.000E-08,-0.428
6.000E-08,-0.180
7.000E-08,0.040
8.000E-08,0.284
9.000E-08,0.464
1.000E-07,0.300
1.100E-07,0.056
1.200E-07,-0.196
1.300E-07,-0.276
1.400E-07,-0.272
1.500E-07,-0.060
1.600E-07,0.168
1.700E-07,0.368
1.800E-07,0.376
1.900E-07,0.180
2.000E-07,-0.080
2.100E-07,-0.272
2.200E-07,-0.256
2.300E-07,-0.128
2.400E-07,0.124
2.500E-07,0.264
2.600E-07,0.292
2.700E-07,0.172
2.800E-07,0.008
2.900E-07,-0.176
3.000E-07,-0.248
3.100E-07,-0.180
3.200E-07,0.004
3.300E-07,0.212
3.400E-07,0.288
3.500E-07,0.240
3.600E-07,0.104
3.700E-07,-0.032
3.800E-07,-0.136
3.900E-07,-0.136
4.000E-07,0.000
4.100E-07,0.168
4.200E-07,0.288
4.300E-07,0.320
4.400E-07,0.252
4.500E-07,0.108
4.600E-07,-0.008
4.700E-07,-0.024
4.800E-07,0.080
4.900E-07,0.216
5.000E-07,0.352
5.100E-07,0.404
5.200E-07,0.364
5.300E-07,0.256
5.400E-07,0.144
5.500E-07,0.096
5.600E-07,0.112
5.700E-07,0.192
5.800E-07,0.284
5.900E-07,0.340
6.000E-07,0.336
6.100E-07,0.264
6.200E-07,0.168
6.300E-07,0.092
6.400E-07,0.060
6.500E-07,0.084
6.600E-07,0.012
6.700E-07,-0.120
6.800E-07,-0.396
6.900E-07,-0.512
7.000E-07,-0.508
7.100E-07,-0.508
7.200E-07,-0.284
7.300E-07,0.160
7.400E-07,0.524
7.500E-07,0.436
7.600E-07,0.224
7.700E-07,-0.144
7.800E-07,-0.272
7.900E-07,-0.308
8.000E-07,-0.012
8.100E-07,0.304
8.200E-07,0.376
8.300E-07,0.280
8.400E-07,-0.056
8.500E-07,-0.332
8.600E-07,-0.512
8.700E-07,-0.368
8.800E-07,0.024
8.900E-07,0.424
9.000E-07,0.456
9.100E-07,0.292
9.200E-07,-0.040
9.300E-07,-0.268
9.400E-07,-0.292
9.500E-07,-0.180
9.600E-07,0.160
9.700E-07,0.392
9.800E-07,0.528
9.900E-07,0.324
1.000E-06,0.080
1.010E-06,-0.220
1.020E-06,-0.288
1.030E-06,-0.176
1.040E-06,0.024
1.050E-06,0.264
1.060E-06,0.384
1.070E-06,0.360
1.080E-06,0.112
1.090E-06,-0.120
1.100E-06,-0.268
1.110E-06,-0.204
1.120E-06,-0.036
1.130E-06,0.204
1.140E-06,0.336
1.150E-06,0.352
1.160E-06,0.224
1.170E-06,0.056
1.180E-06,-0.044
1.190E-06,-0.040
1.200E-06,0.116
1.210E-06,0.288
1.220E-06,0.432
1.230E-06,0.440
1.240E-06,0.348
1.250E-06,0.172
1.260E-06,0.048
1.270E-06,0.000
1.280E-06,0.080
1.290E-06,0.228
1.300E-06,0.364
1.310E-06,0.416
1.320E-06,0.336
1.330E-06,0.188
1.340E-06,0.028
1.350E-06,-0.036
1.360E-06,-0.028
1.370E-06,0.044
1.380E-06,0.132
1.390E-06,0.156
1.400E-06,0.136
1.410E-06,0.028
1.420E-06,-0.080
1.430E-06,-0.120
1.440E-06,-0.040
1.450E-06,0.068
1.460E-06,0.180
1.470E-06,0.212
1.480E-06,0.156
1.490E-06,0.052
1.500E-06,-0.012
1.510E-06,0.036
1.520E-06,0.156
1.530E-06,0.308
1.540E-06,0.368
1.550E-06,0.340
1.560E-06,0.192
1.570E-06,0.052
1.580E-06,-0.020
1.590E-06,0.020
1.600E-06,0.164
1.610E-06,0.288
1.620E-06,0.360
1.630E-06,0.320
1.640E-06,0.224
1.650E-06,0.096
1.660E-06,0.032
1.670E-06,0.024
1.680E-06,0.128
1.690E-06,0.220
1.700E-06,0.292
1.710E-06,0.288
1.720E-06,0.224
1.730E-06,0.144
1.740E-06,0.096
1.750E-06,0.092
1.760E-06,0.136
1.770E-06,0.204
1.780E-06,0.220
1.790E-06,0.204
1.800E-06,0.120
1.810E-06,0.024
1.820E-06,-0.068
1.830E-06,-0.100
1.840E-06,-0.072
1.850E-06,-0.004
1.860E-06,0.092
1.870E-06,0.156
1.880E-06,0.196
1.890E-06,0.208
1.900E-06,0.224
1.910E-06,0.232
1.920E-06,0.260
1.930E-06,0.276
1.940E-06,0.268
1.950E-06,0.228
1.960E-06,0.188
1.970E-06,0.164
1.980E-06,0.188
1.990E-06,0.224
2.000E-06,0.244
2.010E-06,0.252
2.020E-06,0.228
2.030E-06,0.196
2.040E-06,0.188
2.050E-06,0.184
2.060E-06,0.196
2.070E-06,0.216
2.080E-06,0.232
2.090E-06,0.232
2.100E-06,0.228
2.110E-06,0.208
2.120E-06,0.188
2.130E-06,0.172
2.140E-06,0.184
2.150E-06,0.200
2.160E-06,0.220
2.170E-06,0.236
2.180E-06,0.228
2.190E-06,0.216
2.200E-06,0.196
2.210E-06,0.188
2.220E-06,0.192
2.230E-06,0.212
2.240E-06,0.228
2.250E-06,0.240
2.260E-06,0.236
2.270E-06,0.220
2.280E-06,0.208
2.290E-06,0.196
2.300E-06,0.204
2.310E-06,0.208
2.320E-06,0.220
2.330E-06,0.228
2.340E-06,0.232
2.350E-06,0.216
2.360E-06,0.204
2.370E-06,0.196
2.380E-06,0.188
2.390E-06,0.192
2.400E-06,0.200
2.410E-06,0.208
2.420E-06,0.212
2.430E-06,0.204
2.440E-06,0.196
2.450E-06,0.188
2.460E-06,0.188
2.470E-06,0.200
2.480E-06,0.212
2.490E-06,0.224
2.500E-06,0.220
2.510E-06,0.216
2.520E-06,0.208
2.530E-06,0.204
2.540E-06,0.204
2.550E-06,0.204
2.560E-06,0.204
2.570E-06,0.208
2.580E-06,0.208
2.590E-06,0.204
2.600E-06,0.208
2.610E-06,0.200
2.620E-06,0.204
2.630E-06,0.204
2.640E-06,0.208
2.650E-06,0.212
2.660E-06,0.212
2.670E-06,0.204
2.680E-06,0.204
2.690E-06,0.204
2.700E-06,0.204
2.710E-06,0.204
2.720E-06,0.200
2.730E-06,0.204
2.740E-06,0.204
2.750E-06,0.200
2.760E-06,0.196
2.770E-06,0.192
2.780E-06,0.196
2.790E-06,0.192
2.800E-06,0.192
2.810E-06,0.196
2.820E-06,0.204
2.830E-06,0.204
2.840E-06,0.204
2.850E-06,0.196
2.860E-06,0.188
2.870E-06,0.188
2.880E-06,0.188
2.890E-06,0.196
2.900E-06,0.208
2.910E-06,0.208
2.920E-06,0.204
2.930E-06,0.204
2.940E-06,0.192
2.950E-06,0.188
2.960E-06,0.192
2.970E-06,0.200
2.980E-06,0.200
2.990E-06,0.200
3.000E-06,0.200
3.010E-06,0.196
3.020E-06,0.188
3.030E-06,0.188
3.040E-06,0.192
3.050E-06,0.192
3.060E-06,0.192
3.070E-06,0.196
3.080E-06,0.192
3.090E-06,0.192
3.100E-06,0.188
3.110E-06,0.192
3.120E-06,0.192
3.130E-06,0.188
3.140E-06,0.192
3.150E-06,0.188
3.160E-06,0.188
3.170E-06,0.188
3.180E-06,0.184
3.190E-06,0.188
3.200E-06,0.180
3.210E-06,0.176
3.220E-06,0.184
3.230E-06,0.184
3.240E-06,0.188
3.250E-06,0.180
3.260E-06,0.184
3.270E-06,0.176
3.280E-06,0.176
3.290E-06,0.184
3.300E-06,0.180
3.310E-06,0.188
3.320E-06,0.184
3.330E-06,0.184
3.340E-06,0.176
3.350E-06,0.176
3.360E-06,0.176
3.370E-06,0.172
3.380E-06,0.172
3.390E-06,0.176
