mediciones/Mediciones filtradas (saque las feas)/6-10/55/WaveData55178.csv

#timebase=2000000(ps)
,#voltbase=100000(mv/100)
#size=4000
-4.250E-06,-0.024
-4.240E-06,-0.064
-4.230E-06,-0.060
-4.220E-06,-0.028
-4.210E-06,0.028
-4.200E-06,0.092
-4.190E-06,0.072
-4.180E-06,0.012
-4.170E-06,-0.044
-4.160E-06,-0.056
-4.150E-06,-0.052
-4.140E-06,-0.024
-4.130E-06,0.012
-4.120E-06,0.072
-4.110E-06,0.016
-4.100E-06,0.008
-4.090E-06,-0.028
-4.080E-06,-0.032
-4.070E-06,-0.044
-4.060E-06,0.012
-4.050E-06,0.008
-4.040E-06,-0.008
-4.030E-06,0.032
-4.020E-06,0.008
-4.010E-06,-0.004
-4.000E-06,-0.008
-3.990E-06,-0.020
-3.980E-06,-0.016
-3.970E-06,-0.008
-3.960E-06,0.004
-3.950E-06,0.012
-3.940E-06,0.032
-3.930E-06,0.032
-3.920E-06,0.016
-3.910E-06,-0.012
-3.900E-06,-0.028
-3.890E-06,-0.028
-3.880E-06,0.000
-3.870E-06,0.004
-3.860E-06,0.036
-3.850E-06,0.024
-3.840E-06,-0.004
-3.830E-06,-0.016
-3.820E-06,-0.008
-3.810E-06,-0.016
-3.800E-06,-0.004
-3.790E-06,0.024
-3.780E-06,0.028
-3.770E-06,-0.004
-3.760E-06,0.048
-3.750E-06,0.016
-3.740E-06,-0.004
-3.730E-06,0.012
-3.720E-06,0.032
-3.710E-06,0.040
-3.700E-06,0.012
-3.690E-06,0.048
-3.680E-06,0.076
-3.670E-06,0.024
-3.660E-06,0.028
-3.650E-06,0.048
-3.640E-06,0.024
-3.630E-06,-0.004
-3.620E-06,0.020
-3.610E-06,-0.008
-3.600E-06,-0.064
-3.590E-06,-0.088
-3.580E-06,-0.164
-3.570E-06,-0.040
-3.560E-06,0.060
-3.550E-06,0.076
-3.540E-06,0.168
-3.530E-06,0.052
-3.520E-06,-0.052
-3.510E-06,-0.168
-3.500E-06,-0.152
-3.490E-06,-0.076
-3.480E-06,0.092
-3.470E-06,0.144
-3.460E-06,0.124
-3.450E-06,0.008
-3.440E-06,-0.092
-3.430E-06,-0.092
-3.420E-06,-0.092
-3.410E-06,0.012
-3.400E-06,0.060
-3.390E-06,0.096
-3.380E-06,0.060
-3.370E-06,0.008
-3.360E-06,-0.056
-3.350E-06,-0.060
-3.340E-06,-0.024
-3.330E-06,0.012
-3.320E-06,0.052
-3.310E-06,0.052
-3.300E-06,0.040
-3.290E-06,0.000
-3.280E-06,-0.008
-3.270E-06,-0.028
-3.260E-06,-0.008
-3.250E-06,0.000
-3.240E-06,0.008
-3.230E-06,0.016
-3.220E-06,0.032
-3.210E-06,0.020
-3.200E-06,0.000
-3.190E-06,-0.004
-3.180E-06,-0.012
-3.170E-06,0.000
-3.160E-06,0.012
-3.150E-06,0.028
-3.140E-06,0.032
-3.130E-06,0.024
-3.120E-06,0.008
-3.110E-06,0.008
-3.100E-06,0.012
-3.090E-06,0.028
-3.080E-06,0.036
-3.070E-06,0.048
-3.060E-06,0.052
-3.050E-06,-0.012
-3.040E-06,-0.104
-3.030E-06,-0.140
-3.020E-06,-0.068
-3.010E-06,0.020
-3.000E-06,0.092
-2.990E-06,0.104
-2.980E-06,0.064
-2.970E-06,-0.004
-2.960E-06,-0.072
-2.950E-06,-0.092
-2.940E-06,-0.068
-2.930E-06,0.004
-2.920E-06,0.068
-2.910E-06,0.092
-2.900E-06,0.064
-2.890E-06,0.000
-2.880E-06,-0.040
-2.870E-06,-0.056
-2.860E-06,-0.048
-2.850E-06,-0.004
-2.840E-06,0.040
-2.830E-06,0.072
-2.820E-06,0.080
-2.810E-06,0.060
-2.800E-06,-0.068
-2.790E-06,-0.072
-2.780E-06,-0.068
-2.770E-06,-0.020
-2.760E-06,-0.020
-2.750E-06,0.020
-2.740E-06,0.068
-2.730E-06,0.080
-2.720E-06,0.016
-2.710E-06,-0.040
-2.700E-06,-0.068
-2.690E-06,-0.040
-2.680E-06,0.000
-2.670E-06,0.012
-2.660E-06,0.024
-2.650E-06,0.024
-2.640E-06,0.024
-2.630E-06,0.004
-2.620E-06,-0.004
-2.610E-06,-0.024
-2.600E-06,-0.024
-2.590E-06,0.004
-2.580E-06,0.028
-2.570E-06,0.040
-2.560E-06,0.024
-2.550E-06,0.004
-2.540E-06,-0.012
-2.530E-06,-0.012
-2.520E-06,-0.008
-2.510E-06,0.008
-2.500E-06,0.012
-2.490E-06,0.016
-2.480E-06,0.012
-2.470E-06,0.004
-2.460E-06,-0.004
-2.450E-06,-0.004
-2.440E-06,0.000
-2.430E-06,0.012
-2.420E-06,0.024
-2.410E-06,0.028
-2.400E-06,0.028
-2.390E-06,0.020
-2.380E-06,0.028
-2.370E-06,0.024
-2.360E-06,0.016
-2.350E-06,-0.004
-2.340E-06,-0.004
-2.330E-06,-0.008
-2.320E-06,-0.024
-2.310E-06,-0.040
-2.300E-06,-0.024
-2.290E-06,-0.016
-2.280E-06,0.004
-2.270E-06,0.044
-2.260E-06,0.040
-2.250E-06,0.024
-2.240E-06,-0.004
-2.230E-06,-0.028
-2.220E-06,-0.036
-2.210E-06,-0.016
-2.200E-06,0.024
-2.190E-06,0.044
-2.180E-06,0.036
-2.170E-06,0.016
-2.160E-06,-0.008
-2.150E-06,-0.028
-2.140E-06,-0.024
-2.130E-06,-0.004
-2.120E-06,0.024
-2.110E-06,0.040
-2.100E-06,0.032
-2.090E-06,0.008
-2.080E-06,-0.004
-2.070E-06,-0.012
-2.060E-06,0.008
-2.050E-06,0.016
-2.040E-06,0.044
-2.030E-06,0.060
-2.020E-06,0.064
-2.010E-06,0.044
-2.000E-06,0.040
-1.990E-06,0.036
-1.980E-06,0.020
-1.970E-06,-0.004
-1.960E-06,-0.024
-1.950E-06,-0.036
-1.940E-06,-0.052
-1.930E-06,-0.044
-1.920E-06,-0.004
-1.910E-06,0.008
-1.900E-06,0.024
-1.890E-06,0.012
-1.880E-06,0.000
-1.870E-06,0.000
-1.860E-06,-0.008
-1.850E-06,-0.004
-1.840E-06,0.012
-1.830E-06,0.036
-1.820E-06,0.044
-1.810E-06,0.056
-1.800E-06,0.060
-1.790E-06,0.052
-1.780E-06,0.028
-1.770E-06,-0.004
-1.760E-06,-0.012
-1.750E-06,0.000
-1.740E-06,0.032
-1.730E-06,0.052
-1.720E-06,0.084
-1.710E-06,0.104
-1.700E-06,0.068
-1.690E-06,0.008
-1.680E-06,-0.040
-1.670E-06,-0.068
-1.660E-06,-0.040
-1.650E-06,-0.032
-1.640E-06,-0.012
-1.630E-06,0.020
-1.620E-06,0.040
-1.610E-06,0.028
-1.600E-06,0.012
-1.590E-06,-0.004
-1.580E-06,-0.004
-1.570E-06,0.024
-1.560E-06,0.068
-1.550E-06,0.124
-1.540E-06,0.096
-1.530E-06,0.056
-1.520E-06,0.012
-1.510E-06,-0.068
-1.500E-06,-0.040
-1.490E-06,-0.040
-1.480E-06,-0.080
-1.470E-06,-0.088
-1.460E-06,-0.084
-1.450E-06,-0.128
-1.440E-06,-0.056
-1.430E-06,-0.024
-1.420E-06,0.036
-1.410E-06,0.040
-1.400E-06,0.040
-1.390E-06,-0.008
-1.380E-06,-0.032
-1.370E-06,-0.024
-1.360E-06,-0.008
-1.350E-06,0.044
-1.340E-06,0.076
-1.330E-06,0.092
-1.320E-06,0.072
-1.310E-06,0.040
-1.300E-06,0.024
-1.290E-06,0.004
-1.280E-06,0.020
-1.270E-06,0.044
-1.260E-06,0.048
-1.250E-06,0.108
-1.240E-06,0.104
-1.230E-06,0.088
-1.220E-06,0.016
-1.210E-06,-0.048
-1.200E-06,-0.104
-1.190E-06,-0.144
-1.180E-06,-0.124
-1.170E-06,-0.064
-1.160E-06,-0.004
-1.150E-06,0.024
-1.140E-06,0.048
-1.130E-06,-0.004
-1.120E-06,-0.036
-1.110E-06,-0.040
-1.100E-06,-0.012
-1.090E-06,0.008
-1.080E-06,0.020
-1.070E-06,0.028
-1.060E-06,-0.024
-1.050E-06,-0.028
-1.040E-06,-0.044
-1.030E-06,-0.016
-1.020E-06,0.016
-1.010E-06,0.040
-1.000E-06,0.048
-9.900E-07,0.040
-9.800E-07,0.028
-9.700E-07,-0.008
-9.600E-07,0.024
-9.500E-07,0.036
-9.400E-07,0.056
-9.300E-07,0.064
-9.200E-07,0.072
-9.100E-07,0.064
-9.000E-07,0.064
-8.900E-07,0.064
-8.800E-07,0.068
-8.700E-07,0.084
-8.600E-07,0.100
-8.500E-07,0.116
-8.400E-07,0.120
-8.300E-07,0.128
-8.200E-07,0.128
-8.100E-07,0.104
-8.000E-07,0.052
-7.900E-07,0.032
-7.800E-07,0.000
-7.700E-07,-0.044
-7.600E-07,-0.136
-7.500E-07,-0.280
-7.400E-07,-0.288
-7.300E-07,-0.352
-7.200E-07,-0.320
-7.100E-07,-0.144
-7.000E-07,0.124
-6.900E-07,0.244
-6.800E-07,0.148
-6.700E-07,0.112
-6.600E-07,-0.056
-6.500E-07,-0.200
-6.400E-07,-0.224
-6.300E-07,-0.096
-6.200E-07,0.028
-6.100E-07,0.208
-6.000E-07,0.192
-5.900E-07,0.072
-5.800E-07,-0.068
-5.700E-07,-0.168
-5.600E-07,-0.168
-5.500E-07,-0.080
-5.400E-07,0.056
-5.300E-07,0.068
-5.200E-07,0.100
-5.100E-07,0.096
-5.000E-07,0.008
-4.900E-07,-0.060
-4.800E-07,-0.096
-4.700E-07,-0.076
-4.600E-07,-0.008
-4.500E-07,0.084
-4.400E-07,0.092
-4.300E-07,0.068
-4.200E-07,0.012
-4.100E-07,-0.032
-4.000E-07,-0.068
-3.900E-07,-0.048
-3.800E-07,0.000
-3.700E-07,0.048
-3.600E-07,0.076
-3.500E-07,0.080
-3.400E-07,0.056
-3.300E-07,-0.004
-3.200E-07,-0.020
-3.100E-07,-0.028
-3.000E-07,0.004
-2.900E-07,0.052
-2.800E-07,0.076
-2.700E-07,0.088
-2.600E-07,0.060
-2.500E-07,0.020
-2.400E-07,0.000
-2.300E-07,0.012
-2.200E-07,0.048
-2.100E-07,0.092
-2.000E-07,0.140
-1.900E-07,0.168
-1.800E-07,0.136
-1.700E-07,0.112
-1.600E-07,0.076
-1.500E-07,-0.036
-1.400E-07,-0.124
-1.300E-07,-0.340
-1.200E-07,-0.332
-1.100E-07,-0.324
-1.000E-07,-0.024
-9.000E-08,0.012
-8.000E-08,0.292
-7.000E-08,0.188
-6.000E-08,-0.056
-5.000E-08,-0.292
-4.000E-08,-0.388
-3.000E-08,-0.028
-2.000E-08,0.164
-1.000E-08,0.280
0.000E+00,0.244
1.000E-08,0.108
2.000E-08,0.060
3.000E-08,-0.088
4.000E-08,-0.164
5.000E-08,-0.060
6.000E-08,0.076
7.000E-08,0.176
8.000E-08,0.316
9.000E-08,0.212
1.000E-07,-0.004
1.100E-07,-0.172
1.200E-07,-0.212
1.300E-07,-0.208
1.400E-07,-0.076
1.500E-07,0.008
1.600E-07,0.112
1.700E-07,0.128
1.800E-07,0.032
1.900E-07,-0.084
2.000E-07,-0.180
2.100E-07,-0.164
2.200E-07,-0.048
2.300E-07,0.128
2.400E-07,0.204
2.500E-07,0.152
2.600E-07,0.060
2.700E-07,-0.032
2.800E-07,-0.096
2.900E-07,-0.060
3.000E-07,-0.016
3.100E-07,0.112
3.200E-07,0.160
3.300E-07,0.188
3.400E-07,0.052
3.500E-07,-0.068
3.600E-07,-0.156
3.700E-07,-0.132
3.800E-07,-0.040
3.900E-07,-0.004
4.000E-07,0.096
4.100E-07,0.120
4.200E-07,0.100
4.300E-07,0.032
4.400E-07,-0.024
4.500E-07,-0.044
4.600E-07,0.004
4.700E-07,0.128
4.800E-07,0.128
4.900E-07,0.136
5.000E-07,0.048
5.100E-07,-0.056
5.200E-07,-0.076
5.300E-07,-0.056
5.400E-07,0.044
5.500E-07,0.172
5.600E-07,0.248
5.700E-07,0.204
5.800E-07,0.088
5.900E-07,-0.104
6.000E-07,-0.256
6.100E-07,-0.240
6.200E-07,-0.172
6.300E-07,-0.056
6.400E-07,-0.008
6.500E-07,0.040
6.600E-07,-0.084
6.700E-07,-0.180
6.800E-07,-0.220
6.900E-07,-0.192
7.000E-07,-0.072
7.100E-07,0.052
7.200E-07,0.100
7.300E-07,0.104
7.400E-07,0.016
7.500E-07,-0.044
7.600E-07,-0.096
7.700E-07,-0.112
7.800E-07,-0.036
7.900E-07,0.028
8.000E-07,0.068
8.100E-07,0.072
8.200E-07,0.044
8.300E-07,-0.040
8.400E-07,-0.036
8.500E-07,-0.056
8.600E-07,0.004
8.700E-07,0.060
8.800E-07,0.072
8.900E-07,0.076
9.000E-07,0.044
9.100E-07,0.036
9.200E-07,-0.004
9.300E-07,0.000
9.400E-07,0.020
9.500E-07,0.036
9.600E-07,0.052
9.700E-07,0.060
9.800E-07,0.096
9.900E-07,0.060
1.000E-06,0.032
1.010E-06,0.048
1.020E-06,0.064
1.030E-06,0.088
1.040E-06,0.096
1.050E-06,0.124
1.060E-06,0.128
1.070E-06,0.132
1.080E-06,0.084
1.090E-06,0.044
1.100E-06,0.004
1.110E-06,-0.012
1.120E-06,-0.008
1.130E-06,0.008
1.140E-06,0.016
1.150E-06,0.048
1.160E-06,0.020
1.170E-06,0.008
1.180E-06,0.044
1.190E-06,0.040
1.200E-06,0.040
1.210E-06,0.000
1.220E-06,-0.100
1.230E-06,-0.272
1.240E-06,-0.388
1.250E-06,-0.360
1.260E-06,-0.060
1.270E-06,0.152
1.280E-06,0.316
1.290E-06,0.288
1.300E-06,0.044
1.310E-06,-0.172
1.320E-06,-0.204
1.330E-06,-0.100
1.340E-06,0.012
1.350E-06,0.072
1.360E-06,0.196
1.370E-06,-0.040
1.380E-06,-0.056
1.390E-06,-0.172
1.400E-06,-0.220
1.410E-06,0.020
1.420E-06,0.080
1.430E-06,0.228
1.440E-06,0.152
1.450E-06,0.048
1.460E-06,-0.216
1.470E-06,-0.252
1.480E-06,-0.188
1.490E-06,-0.104
1.500E-06,0.028
1.510E-06,0.012
1.520E-06,0.156
1.530E-06,0.076
1.540E-06,0.008
1.550E-06,-0.120
1.560E-06,-0.168
1.570E-06,-0.112
1.580E-06,0.048
1.590E-06,0.032
1.600E-06,0.140
1.610E-06,0.084
1.620E-06,0.020
1.630E-06,-0.004
1.640E-06,-0.048
1.650E-06,-0.028
1.660E-06,0.068
1.670E-06,0.104
1.680E-06,0.136
1.690E-06,0.132
1.700E-06,0.064
1.710E-06,-0.040
1.720E-06,-0.040
1.730E-06,0.032
1.740E-06,0.064
1.750E-06,0.172
1.760E-06,0.240
1.770E-06,0.256
1.780E-06,0.192
1.790E-06,0.072
1.800E-06,0.000
1.810E-06,-0.052
1.820E-06,-0.044
1.830E-06,-0.008
1.840E-06,0.000
1.850E-06,-0.012
1.860E-06,-0.044
1.870E-06,-0.064
1.880E-06,-0.068
1.890E-06,-0.068
1.900E-06,0.000
1.910E-06,0.044
1.920E-06,0.040
1.930E-06,0.020
1.940E-06,-0.052
1.950E-06,-0.036
1.960E-06,-0.056
1.970E-06,-0.008
1.980E-06,0.020
1.990E-06,0.040
2.000E-06,0.056
2.010E-06,0.012
2.020E-06,0.024
2.030E-06,0.020
2.040E-06,0.032
2.050E-06,0.052
2.060E-06,0.088
2.070E-06,0.096
2.080E-06,0.108
2.090E-06,0.080
2.100E-06,0.052
2.110E-06,0.060
2.120E-06,0.072
2.130E-06,0.128
2.140E-06,0.116
2.150E-06,0.124
2.160E-06,0.112
2.170E-06,0.120
2.180E-06,0.108
2.190E-06,0.148
2.200E-06,0.164
2.210E-06,0.192
2.220E-06,0.212
2.230E-06,0.204
2.240E-06,0.192
2.250E-06,0.160
2.260E-06,0.164
2.270E-06,0.152
2.280E-06,0.164
2.290E-06,0.176
2.300E-06,0.192
2.310E-06,0.180
2.320E-06,0.164
2.330E-06,-0.056
2.340E-06,-0.164
2.350E-06,-0.452
2.360E-06,-0.260
2.370E-06,-0.232
2.380E-06,-0.136
2.390E-06,0.148
2.400E-06,-0.124
2.410E-06,-0.160
2.420E-06,-0.512
2.430E-06,-0.312
2.440E-06,-0.108
2.450E-06,-0.240
2.460E-06,-0.348
2.470E-06,-0.512
2.480E-06,-0.336
2.490E-06,-0.352
2.500E-06,-0.008
2.510E-06,0.056
2.520E-06,0.264
2.530E-06,0.032
2.540E-06,0.004
2.550E-06,-0.176
2.560E-06,-0.156
2.570E-06,-0.020
2.580E-06,-0.028
2.590E-06,0.076
2.600E-06,0.120
2.610E-06,0.228
2.620E-06,0.092
2.630E-06,0.104
2.640E-06,0.044
2.650E-06,0.080
2.660E-06,0.072
2.670E-06,0.124
2.680E-06,0.132
2.690E-06,0.152
2.700E-06,0.204
2.710E-06,0.152
2.720E-06,0.132
2.730E-06,0.072
2.740E-06,0.076
2.750E-06,0.096
2.760E-06,0.172
2.770E-06,0.168
2.780E-06,0.196
2.790E-06,0.184
2.800E-06,0.176
2.810E-06,0.152
2.820E-06,0.128
2.830E-06,0.132
2.840E-06,0.132
2.850E-06,0.196
2.860E-06,0.224
2.870E-06,0.252
2.880E-06,0.236
2.890E-06,0.216
2.900E-06,0.160
2.910E-06,0.148
2.920E-06,0.144
2.930E-06,0.164
2.940E-06,0.192
2.950E-06,0.228
2.960E-06,0.232
2.970E-06,0.188
2.980E-06,0.188
2.990E-06,0.132
3.000E-06,0.136
3.010E-06,0.156
3.020E-06,0.208
3.030E-06,0.208
3.040E-06,0.180
3.050E-06,0.100
3.060E-06,-0.080
3.070E-06,-0.192
3.080E-06,-0.296
3.090E-06,-0.368
3.100E-06,-0.140
3.110E-06,-0.264
3.120E-06,-0.252
3.130E-06,-0.512
3.140E-06,-0.508
3.150E-06,-0.512
3.160E-06,-0.180
3.170E-06,-0.132
3.180E-06,0.000
3.190E-06,-0.128
3.200E-06,-0.264
3.210E-06,-0.512
3.220E-06,-0.512
3.230E-06,-0.068
3.240E-06,0.144
3.250E-06,0.108
3.260E-06,0.200
3.270E-06,0.308
3.280E-06,0.068
3.290E-06,0.032
3.300E-06,-0.016
3.310E-06,-0.028
3.320E-06,0.092
3.330E-06,0.316
3.340E-06,0.328
3.350E-06,0.324
3.360E-06,0.236
3.370E-06,0.156
3.380E-06,0.148
3.390E-06,0.132
3.400E-06,0.184
3.410E-06,0.212
3.420E-06,0.300
3.430E-06,0.284
3.440E-06,0.284
3.450E-06,0.208
3.460E-06,0.156
3.470E-06,0.132
3.480E-06,0.168
3.490E-06,0.220
3.500E-06,0.260
3.510E-06,0.308
3.520E-06,0.272
3.530E-06,0.240
3.540E-06,0.172
3.550E-06,0.152
3.560E-06,0.148
3.570E-06,0.184
3.580E-06,0.192
3.590E-06,0.220
3.600E-06,0.224
3.610E-06,0.192
3.620E-06,0.160
3.630E-06,0.112
3.640E-06,0.072
3.650E-06,0.028
3.660E-06,0.044
3.670E-06,0.096
3.680E-06,0.056
3.690E-06,0.072
3.700E-06,-0.032
3.710E-06,-0.052
3.720E-06,-0.092
3.730E-06,0.076
3.740E-06,0.320
3.750E-06,0.244
3.760E-06,0.276
3.770E-06,0.208
3.780E-06,0.032
3.790E-06,-0.148
3.800E-06,-0.172
3.810E-06,-0.072
3.820E-06,-0.008
3.830E-06,0.172
3.840E-06,0.304
3.850E-06,0.316
3.860E-06,0.208
3.870E-06,0.132
3.880E-06,0.000
3.890E-06,0.044
3.900E-06,0.096
3.910E-06,0.144
3.920E-06,0.212
3.930E-06,0.184
3.940E-06,0.108
3.950E-06,-0.020
3.960E-06,-0.072
3.970E-06,-0.024
3.980E-06,0.104
3.990E-06,0.184
4.000E-06,0.368
4.010E-06,0.364
4.020E-06,0.288
4.030E-06,0.152
4.040E-06,0.092
4.050E-06,0.088
4.060E-06,0.108
4.070E-06,0.220
4.080E-06,0.300
4.090E-06,0.320
4.100E-06,0.272
4.110E-06,0.224
4.120E-06,0.140
4.130E-06,0.100
4.140E-06,0.116
4.150E-06,0.188
4.160E-06,0.260
4.170E-06,0.288
4.180E-06,0.280
4.190E-06,0.212
4.200E-06,0.164
4.210E-06,0.120
4.220E-06,0.132
4.230E-06,0.164
4.240E-06,0.228
4.250E-06,0.256
4.260E-06,0.256
4.270E-06,0.220
4.280E-06,0.176
4.290E-06,0.144
4.300E-06,0.128
4.310E-06,0.156
4.320E-06,0.184
4.330E-06,0.220
4.340E-06,0.228
4.350E-06,0.224
4.360E-06,0.200
4.370E-06,0.180
4.380E-06,0.164
4.390E-06,0.172
4.400E-06,0.188
4.410E-06,0.208
4.420E-06,0.224
4.430E-06,0.228
4.440E-06,0.212
4.450E-06,0.188
4.460E-06,0.168
4.470E-06,0.160
4.480E-06,0.172
4.490E-06,0.192
4.500E-06,0.204
4.510E-06,0.208
4.520E-06,0.212
4.530E-06,0.192
4.540E-06,0.192
4.550E-06,0.172
4.560E-06,0.176
4.570E-06,0.192
4.580E-06,0.200
4.590E-06,0.208
4.600E-06,0.200
4.610E-06,0.196
4.620E-06,0.180
4.630E-06,0.176
4.640E-06,0.180
4.650E-06,0.180
4.660E-06,0.192
4.670E-06,0.200
4.680E-06,0.204
4.690E-06,0.200
4.700E-06,0.188
4.710E-06,0.176
4.720E-06,0.168
4.730E-06,0.180
4.740E-06,0.184
4.750E-06,0.188
4.760E-06,0.196
4.770E-06,0.188
4.780E-06,0.184
4.790E-06,0.180
4.800E-06,0.172
4.810E-06,0.160
4.820E-06,0.164
4.830E-06,0.176
4.840E-06,0.188
4.850E-06,0.188
4.860E-06,0.192
4.870E-06,0.184
4.880E-06,0.180
4.890E-06,0.172
4.900E-06,0.176
4.910E-06,0.180
4.920E-06,0.180
4.930E-06,0.192
4.940E-06,0.188
4.950E-06,0.184
4.960E-06,0.176
4.970E-06,0.168
4.980E-06,0.164
4.990E-06,0.168
5.000E-06,0.172
5.010E-06,0.168
5.020E-06,0.176
5.030E-06,0.176
5.040E-06,0.176
5.050E-06,0.176
5.060E-06,0.172
5.070E-06,0.172
5.080E-06,0.160
5.090E-06,0.168
5.100E-06,0.172
5.110E-06,0.180
5.120E-06,0.180
5.130E-06,0.176
5.140E-06,0.176
5.150E-06,0.168
5.160E-06,0.164
5.170E-06,0.172
5.180E-06,0.180
5.190E-06,0.176
5.200E-06,0.176
5.210E-06,0.168
5.220E-06,0.172
5.230E-06,0.168
5.240E-06,0.164
5.250E-06,0.160
5.260E-06,0.160
5.270E-06,0.164
5.280E-06,0.160
5.290E-06,0.164
5.300E-06,0.164
5.310E-06,0.160
5.320E-06,0.160
5.330E-06,0.168
5.340E-06,0.156
5.350E-06,0.160
5.360E-06,0.164
5.370E-06,0.168
5.380E-06,0.160
5.390E-06,0.160
5.400E-06,0.160
5.410E-06,0.156
5.420E-06,0.164
5.430E-06,0.164
5.440E-06,0.160
5.450E-06,0.152
5.460E-06,0.156
5.470E-06,0.152
5.480E-06,0.156
5.490E-06,0.160
5.500E-06,0.164
5.510E-06,0.168
5.520E-06,0.160
5.530E-06,0.160
5.540E-06,0.160
5.550E-06,0.160
5.560E-06,0.160
5.570E-06,0.152
5.580E-06,0.156
5.590E-06,0.156
5.600E-06,0.164
5.610E-06,0.160
5.620E-06,0.152
5.630E-06,0.152
5.640E-06,0.152
5.650E-06,0.148
5.660E-06,0.148
5.670E-06,0.148
5.680E-06,0.152
5.690E-06,0.152
5.700E-06,0.148
5.710E-06,0.144
5.720E-06,0.140
5.730E-06,0.140
5.740E-06,0.144
5.750E-06,0.144
5.760E-06,0.140
5.770E-06,0.148
5.780E-06,0.140
5.790E-06,0.144
5.800E-06,0.140
5.810E-06,0.140
5.820E-06,0.140
5.830E-06,0.148
5.840E-06,0.140
5.850E-06,0.144
5.860E-06,0.144
5.870E-06,0.144
5.880E-06,0.136
5.890E-06,0.136
5.900E-06,0.140
5.910E-06,0.144
5.920E-06,0.136
5.930E-06,0.132
5.940E-06,0.132
5.950E-06,0.132
5.960E-06,0.128
5.970E-06,0.132
5.980E-06,0.136
5.990E-06,0.140
6.000E-06,0.140
6.010E-06,0.140
6.020E-06,0.136
6.030E-06,0.136
6.040E-06,0.136
6.050E-06,0.140
6.060E-06,0.140
6.070E-06,0.140
6.080E-06,0.140
6.090E-06,0.132
6.100E-06,0.128
6.110E-06,0.124
6.120E-06,0.128
6.130E-06,0.128
6.140E-06,0.132
6.150E-06,0.132
6.160E-06,0.132
6.170E-06,0.132
6.180E-06,0.128
6.190E-06,0.128
6.200E-06,0.128
6.210E-06,0.128
6.220E-06,0.132
6.230E-06,0.132
6.240E-06,0.128
6.250E-06,0.128
6.260E-06,0.124
6.270E-06,0.124
6.280E-06,0.124
6.290E-06,0.124
6.300E-06,0.124
6.310E-06,0.128
6.320E-06,0.128
6.330E-06,0.128
6.340E-06,0.128
6.350E-06,0.124
6.360E-06,0.112
6.370E-06,0.112
6.380E-06,0.120
6.390E-06,0.120
6.400E-06,0.124
6.410E-06,0.124
6.420E-06,0.120
6.430E-06,0.116
6.440E-06,0.112
6.450E-06,0.112
6.460E-06,0.112
6.470E-06,0.116
6.480E-06,0.120
6.490E-06,0.120
6.500E-06,0.116
6.510E-06,0.116
6.520E-06,0.116
6.530E-06,0.116
6.540E-06,0.116
6.550E-06,0.116
6.560E-06,0.116
6.570E-06,0.112
6.580E-06,0.108
6.590E-06,0.112
6.600E-06,0.112
6.610E-06,0.112
6.620E-06,0.112
6.630E-06,0.112
6.640E-06,0.108
6.650E-06,0.108
6.660E-06,0.104
6.670E-06,0.104
6.680E-06,0.108
6.690E-06,0.108
6.700E-06,0.112
6.710E-06,0.108
6.720E-06,0.108
6.730E-06,0.104
6.740E-06,0.104
6.750E-06,0.104
6.760E-06,0.108
6.770E-06,0.108
6.780E-06,0.108
6.790E-06,0.104
6.800E-06,0.104
6.810E-06,0.100
6.820E-06,0.104
6.830E-06,0.096
6.840E-06,0.100
6.850E-06,0.100
6.860E-06,0.096
6.870E-06,0.096
6.880E-06,0.096
6.890E-06,0.100
6.900E-06,0.100
6.910E-06,0.096
6.920E-06,0.096
6.930E-06,0.092
6.940E-06,0.092
6.950E-06,0.092
6.960E-06,0.088
6.970E-06,0.092
6.980E-06,0.092
6.990E-06,0.096
7.000E-06,0.096
7.010E-06,0.092
7.020E-06,0.092
7.030E-06,0.092
7.040E-06,0.092
7.050E-06,0.092
7.060E-06,0.088
7.070E-06,0.088
7.080E-06,0.092
7.090E-06,0.092
7.100E-06,0.092
7.110E-06,0.088
7.120E-06,0.092
7.130E-06,0.092
7.140E-06,0.088
7.150E-06,0.084
7.160E-06,0.088
7.170E-06,0.092
7.180E-06,0.088
7.190E-06,0.088
7.200E-06,0.084
7.210E-06,0.076
7.220E-06,0.076
7.230E-06,0.072
7.240E-06,0.084
7.250E-06,0.084
7.260E-06,0.092
7.270E-06,0.088
7.280E-06,0.084
7.290E-06,0.076
7.300E-06,0.076
7.310E-06,0.072
7.320E-06,0.072
7.330E-06,0.080
7.340E-06,0.088
7.350E-06,0.088
7.360E-06,0.080
7.370E-06,0.076
7.380E-06,0.072
7.390E-06,0.072
7.400E-06,0.068
7.410E-06,0.072
7.420E-06,0.076
7.430E-06,0.076
7.440E-06,0.076
7.450E-06,0.076
7.460E-06,0.072
7.470E-06,0.064
7.480E-06,0.068
7.490E-06,0.068
7.500E-06,0.068
7.510E-06,0.072
7.520E-06,0.076
7.530E-06,0.072
7.540E-06,0.068
7.550E-06,0.068
7.560E-06,0.068
7.570E-06,0.068
7.580E-06,0.068
7.590E-06,0.076
7.600E-06,0.076
7.610E-06,0.068
7.620E-06,0.060
7.630E-06,0.060
7.640E-06,0.060
7.650E-06,0.068
7.660E-06,0.072
7.670E-06,0.072
7.680E-06,0.072
7.690E-06,0.068
7.700E-06,0.060
7.710E-06,0.064
7.720E-06,0.064
7.730E-06,0.060
7.740E-06,0.060
