mediciones/Mediciones filtradas (saque las feas)/6-10/55/WaveData55176.csv

#timebase=2000000(ps)
,#voltbase=100000(mv/100)
#size=4000
-4.250E-06,0.096
-4.240E-06,-0.028
-4.230E-06,0.020
-4.220E-06,-0.012
-4.210E-06,-0.024
-4.200E-06,-0.024
-4.190E-06,0.032
-4.180E-06,0.016
-4.170E-06,-0.008
-4.160E-06,0.028
-4.150E-06,-0.012
-4.140E-06,0.012
-4.130E-06,-0.024
-4.120E-06,0.056
-4.110E-06,0.048
-4.100E-06,0.028
-4.090E-06,0.060
-4.080E-06,0.068
-4.070E-06,0.052
-4.060E-06,0.024
-4.050E-06,0.060
-4.040E-06,0.080
-4.030E-06,0.068
-4.020E-06,0.076
-4.010E-06,0.028
-4.000E-06,-0.040
-3.990E-06,-0.076
-3.980E-06,-0.084
-3.970E-06,-0.068
-3.960E-06,-0.012
-3.950E-06,0.020
-3.940E-06,0.068
-3.930E-06,0.044
-3.920E-06,0.028
-3.910E-06,-0.144
-3.900E-06,-0.140
-3.890E-06,-0.040
-3.880E-06,0.024
-3.870E-06,0.048
-3.860E-06,0.048
-3.850E-06,0.092
-3.840E-06,0.012
-3.830E-06,-0.028
-3.820E-06,-0.064
-3.810E-06,-0.056
-3.800E-06,0.012
-3.790E-06,0.052
-3.780E-06,0.036
-3.770E-06,0.024
-3.760E-06,0.004
-3.750E-06,0.000
-3.740E-06,0.000
-3.730E-06,-0.004
-3.720E-06,0.008
-3.710E-06,0.000
-3.700E-06,0.000
-3.690E-06,-0.008
-3.680E-06,-0.016
-3.670E-06,-0.020
-3.660E-06,-0.004
-3.650E-06,0.000
-3.640E-06,-0.004
-3.630E-06,0.012
-3.620E-06,0.012
-3.610E-06,0.016
-3.600E-06,-0.004
-3.590E-06,0.000
-3.580E-06,-0.004
-3.570E-06,0.016
-3.560E-06,0.016
-3.550E-06,0.024
-3.540E-06,0.020
-3.530E-06,0.012
-3.520E-06,0.004
-3.510E-06,0.000
-3.500E-06,0.008
-3.490E-06,0.024
-3.480E-06,0.024
-3.470E-06,0.036
-3.460E-06,0.016
-3.450E-06,0.000
-3.440E-06,-0.012
-3.430E-06,-0.020
-3.420E-06,0.008
-3.410E-06,0.044
-3.400E-06,0.080
-3.390E-06,0.092
-3.380E-06,0.092
-3.370E-06,0.024
-3.360E-06,-0.076
-3.350E-06,-0.188
-3.340E-06,-0.176
-3.330E-06,-0.172
-3.320E-06,-0.036
-3.310E-06,0.152
-3.300E-06,0.176
-3.290E-06,0.104
-3.280E-06,0.012
-3.270E-06,-0.076
-3.260E-06,-0.132
-3.250E-06,-0.092
-3.240E-06,0.024
-3.230E-06,0.140
-3.220E-06,0.128
-3.210E-06,0.064
-3.200E-06,-0.016
-3.190E-06,-0.052
-3.180E-06,-0.056
-3.170E-06,0.000
-3.160E-06,-0.068
-3.150E-06,0.004
-3.140E-06,0.100
-3.130E-06,0.044
-3.120E-06,-0.024
-3.110E-06,-0.028
-3.100E-06,-0.056
-3.090E-06,-0.056
-3.080E-06,-0.040
-3.070E-06,0.032
-3.060E-06,0.040
-3.050E-06,0.032
-3.040E-06,0.000
-3.030E-06,-0.036
-3.020E-06,-0.052
-3.010E-06,-0.008
-3.000E-06,0.032
-2.990E-06,0.040
-2.980E-06,0.032
-2.970E-06,0.008
-2.960E-06,-0.016
-2.950E-06,-0.036
-2.940E-06,-0.024
-2.930E-06,-0.012
-2.920E-06,0.032
-2.910E-06,0.040
-2.900E-06,0.036
-2.890E-06,0.012
-2.880E-06,-0.004
-2.870E-06,-0.024
-2.860E-06,-0.032
-2.850E-06,-0.008
-2.840E-06,0.012
-2.830E-06,0.032
-2.820E-06,0.036
-2.810E-06,0.032
-2.800E-06,0.008
-2.790E-06,-0.004
-2.780E-06,-0.008
-2.770E-06,0.000
-2.760E-06,0.012
-2.750E-06,0.028
-2.740E-06,0.028
-2.730E-06,0.024
-2.720E-06,0.012
-2.710E-06,-0.004
-2.700E-06,-0.008
-2.690E-06,0.004
-2.680E-06,0.016
-2.670E-06,0.028
-2.660E-06,0.036
-2.650E-06,0.028
-2.640E-06,0.020
-2.630E-06,0.008
-2.620E-06,0.000
-2.610E-06,0.012
-2.600E-06,0.028
-2.590E-06,0.044
-2.580E-06,0.056
-2.570E-06,0.060
-2.560E-06,0.056
-2.550E-06,0.044
-2.540E-06,0.040
-2.530E-06,0.056
-2.520E-06,0.052
-2.510E-06,0.060
-2.500E-06,0.060
-2.490E-06,0.036
-2.480E-06,0.028
-2.470E-06,0.020
-2.460E-06,0.008
-2.450E-06,0.008
-2.440E-06,-0.024
-2.430E-06,-0.064
-2.420E-06,-0.008
-2.410E-06,0.028
-2.400E-06,0.060
-2.390E-06,0.056
-2.380E-06,0.124
-2.370E-06,0.116
-2.360E-06,-0.108
-2.350E-06,-0.268
-2.340E-06,-0.436
-2.330E-06,-0.364
-2.320E-06,-0.128
-2.310E-06,0.164
-2.300E-06,0.140
-2.290E-06,0.224
-2.280E-06,0.108
-2.270E-06,-0.108
-2.260E-06,-0.216
-2.250E-06,-0.176
-2.240E-06,0.028
-2.230E-06,0.096
-2.220E-06,0.140
-2.210E-06,0.088
-2.200E-06,0.032
-2.190E-06,-0.056
-2.180E-06,-0.068
-2.170E-06,-0.068
-2.160E-06,-0.024
-2.150E-06,0.056
-2.140E-06,0.060
-2.130E-06,0.076
-2.120E-06,0.016
-2.110E-06,-0.004
-2.100E-06,-0.052
-2.090E-06,-0.036
-2.080E-06,-0.032
-2.070E-06,-0.004
-2.060E-06,0.020
-2.050E-06,0.056
-2.040E-06,0.048
-2.030E-06,0.012
-2.020E-06,-0.016
-2.010E-06,-0.044
-2.000E-06,-0.024
-1.990E-06,0.000
-1.980E-06,0.036
-1.970E-06,0.040
-1.960E-06,0.044
-1.950E-06,0.012
-1.940E-06,-0.012
-1.930E-06,-0.020
-1.920E-06,-0.016
-1.910E-06,-0.004
-1.900E-06,0.016
-1.890E-06,0.040
-1.880E-06,0.036
-1.870E-06,0.028
-1.860E-06,-0.008
-1.850E-06,-0.016
-1.840E-06,-0.016
-1.830E-06,-0.004
-1.820E-06,0.024
-1.810E-06,0.024
-1.800E-06,0.036
-1.790E-06,0.008
-1.780E-06,0.004
-1.770E-06,-0.012
-1.760E-06,-0.012
-1.750E-06,-0.004
-1.740E-06,0.020
-1.730E-06,0.040
-1.720E-06,0.052
-1.710E-06,0.044
-1.700E-06,0.032
-1.690E-06,0.024
-1.680E-06,0.036
-1.670E-06,0.060
-1.660E-06,0.076
-1.650E-06,0.092
-1.640E-06,0.104
-1.630E-06,0.104
-1.620E-06,0.120
-1.610E-06,0.112
-1.600E-06,0.092
-1.590E-06,0.124
-1.580E-06,0.120
-1.570E-06,0.116
-1.560E-06,0.072
-1.550E-06,0.032
-1.540E-06,-0.004
-1.530E-06,-0.024
-1.520E-06,-0.012
-1.510E-06,-0.060
-1.500E-06,-0.072
-1.490E-06,-0.056
-1.480E-06,-0.136
-1.470E-06,-0.084
-1.460E-06,-0.072
-1.450E-06,-0.120
-1.440E-06,-0.048
-1.430E-06,-0.068
-1.420E-06,-0.044
-1.410E-06,-0.472
-1.400E-06,-0.080
-1.390E-06,-0.160
-1.380E-06,-0.136
-1.370E-06,-0.016
-1.360E-06,0.144
-1.350E-06,0.284
-1.340E-06,0.096
-1.330E-06,-0.036
-1.320E-06,-0.252
-1.310E-06,-0.156
-1.300E-06,-0.076
-1.290E-06,0.152
-1.280E-06,0.204
-1.270E-06,0.132
-1.260E-06,-0.004
-1.250E-06,-0.116
-1.240E-06,-0.084
-1.230E-06,-0.112
-1.220E-06,-0.008
-1.210E-06,0.060
-1.200E-06,0.136
-1.190E-06,0.084
-1.180E-06,0.032
-1.170E-06,-0.040
-1.160E-06,-0.108
-1.150E-06,-0.092
-1.140E-06,-0.040
-1.130E-06,0.064
-1.120E-06,0.092
-1.110E-06,0.132
-1.100E-06,0.052
-1.090E-06,0.004
-1.080E-06,-0.076
-1.070E-06,-0.072
-1.060E-06,-0.036
-1.050E-06,0.032
-1.040E-06,0.088
-1.030E-06,0.100
-1.020E-06,0.084
-1.010E-06,0.012
-1.000E-06,-0.028
-9.900E-07,-0.056
-9.800E-07,-0.004
-9.700E-07,0.008
-9.600E-07,0.084
-9.500E-07,0.092
-9.400E-07,0.104
-9.300E-07,0.044
-9.200E-07,0.024
-9.100E-07,-0.004
-9.000E-07,-0.004
-8.900E-07,0.024
-8.800E-07,0.100
-8.700E-07,0.100
-8.600E-07,0.088
-8.500E-07,0.088
-8.400E-07,0.016
-8.300E-07,-0.008
-8.200E-07,-0.028
-8.100E-07,0.012
-8.000E-07,0.056
-7.900E-07,0.076
-7.800E-07,0.112
-7.700E-07,0.080
-7.600E-07,0.092
-7.500E-07,0.056
-7.400E-07,0.040
-7.300E-07,0.048
-7.200E-07,-0.104
-7.100E-07,-0.204
-7.000E-07,-0.320
-6.900E-07,-0.340
-6.800E-07,-0.224
-6.700E-07,-0.048
-6.600E-07,0.132
-6.500E-07,0.200
-6.400E-07,0.136
-6.300E-07,0.024
-6.200E-07,-0.136
-6.100E-07,-0.244
-6.000E-07,-0.164
-5.900E-07,-0.008
-5.800E-07,0.156
-5.700E-07,0.260
-5.600E-07,0.188
-5.500E-07,0.040
-5.400E-07,-0.088
-5.300E-07,-0.140
-5.200E-07,-0.100
-5.100E-07,0.028
-5.000E-07,0.096
-4.900E-07,0.136
-4.800E-07,0.080
-4.700E-07,-0.004
-4.600E-07,-0.092
-4.500E-07,-0.128
-4.400E-07,-0.072
-4.300E-07,-0.040
-4.200E-07,0.084
-4.100E-07,0.060
-4.000E-07,0.084
-3.900E-07,0.036
-3.800E-07,-0.020
-3.700E-07,-0.028
-3.600E-07,-0.044
-3.500E-07,0.032
-3.400E-07,0.072
-3.300E-07,0.140
-3.200E-07,0.128
-3.100E-07,0.084
-3.000E-07,0.016
-2.900E-07,0.004
-2.800E-07,0.032
-2.700E-07,0.072
-2.600E-07,0.160
-2.500E-07,0.184
-2.400E-07,0.220
-2.300E-07,0.184
-2.200E-07,0.152
-2.100E-07,0.112
-2.000E-07,0.060
-1.900E-07,-0.008
-1.800E-07,-0.036
-1.700E-07,-0.104
-1.600E-07,-0.160
-1.500E-07,-0.220
-1.400E-07,-0.152
-1.300E-07,-0.020
-1.200E-07,-0.040
-1.100E-07,0.084
-1.000E-07,0.096
-9.000E-08,0.092
-8.000E-08,0.108
-7.000E-08,0.016
-6.000E-08,-0.064
-5.000E-08,-0.328
-4.000E-08,-0.260
-3.000E-08,-0.088
-2.000E-08,0.120
-1.000E-08,0.132
0.000E+00,0.140
1.000E-08,0.040
2.000E-08,-0.488
3.000E-08,-0.512
4.000E-08,-0.484
5.000E-08,0.164
6.000E-08,0.184
7.000E-08,0.312
8.000E-08,0.528
9.000E-08,0.180
1.000E-07,-0.244
1.100E-07,-0.436
1.200E-07,-0.360
1.300E-07,-0.088
1.400E-07,0.224
1.500E-07,0.156
1.600E-07,0.076
1.700E-07,-0.004
1.800E-07,-0.168
1.900E-07,-0.120
2.000E-07,-0.072
2.100E-07,0.068
2.200E-07,0.132
2.300E-07,0.140
2.400E-07,0.036
2.500E-07,-0.048
2.600E-07,-0.120
2.700E-07,-0.120
2.800E-07,-0.024
2.900E-07,0.080
3.000E-07,0.144
3.100E-07,0.116
3.200E-07,0.064
3.300E-07,-0.040
3.400E-07,-0.052
3.500E-07,-0.072
3.600E-07,0.020
3.700E-07,0.072
3.800E-07,0.156
3.900E-07,0.140
4.000E-07,0.096
4.100E-07,0.084
4.200E-07,0.084
4.300E-07,0.140
4.400E-07,0.108
4.500E-07,0.164
4.600E-07,0.088
4.700E-07,0.056
4.800E-07,-0.004
4.900E-07,-0.036
5.000E-07,-0.100
5.100E-07,-0.028
5.200E-07,0.092
5.300E-07,0.084
5.400E-07,0.128
5.500E-07,0.112
5.600E-07,-0.172
5.700E-07,-0.372
5.800E-07,-0.444
5.900E-07,-0.316
6.000E-07,0.040
6.100E-07,0.104
6.200E-07,0.384
6.300E-07,0.304
6.400E-07,0.220
6.500E-07,-0.020
6.600E-07,-0.508
6.700E-07,-0.508
6.800E-07,-0.488
6.900E-07,0.236
7.000E-07,0.524
7.100E-07,0.208
7.200E-07,0.216
7.300E-07,-0.072
7.400E-07,-0.312
7.500E-07,-0.388
7.600E-07,-0.228
7.700E-07,-0.004
7.800E-07,0.136
7.900E-07,0.316
8.000E-07,0.264
8.100E-07,0.136
8.200E-07,-0.164
8.300E-07,-0.284
8.400E-07,-0.232
8.500E-07,-0.072
8.600E-07,0.152
8.700E-07,0.252
8.800E-07,0.256
8.900E-07,0.032
9.000E-07,-0.052
9.100E-07,-0.128
9.200E-07,-0.104
9.300E-07,-0.024
9.400E-07,0.104
9.500E-07,0.188
9.600E-07,0.196
9.700E-07,0.064
9.800E-07,0.016
9.900E-07,-0.088
1.000E-06,-0.128
1.010E-06,0.000
1.020E-06,0.020
1.030E-06,0.156
1.040E-06,0.184
1.050E-06,0.204
1.060E-06,0.056
1.070E-06,0.044
1.080E-06,-0.044
1.090E-06,0.008
1.100E-06,0.100
1.110E-06,0.060
1.120E-06,0.120
1.130E-06,0.108
1.140E-06,0.156
1.150E-06,0.104
1.160E-06,0.064
1.170E-06,-0.140
1.180E-06,-0.384
1.190E-06,-0.508
1.200E-06,-0.508
1.210E-06,0.124
1.220E-06,-0.104
1.230E-06,0.340
1.240E-06,0.124
1.250E-06,0.016
1.260E-06,-0.148
1.270E-06,-0.172
1.280E-06,-0.076
1.290E-06,-0.136
1.300E-06,0.256
1.310E-06,0.232
1.320E-06,0.128
1.330E-06,-0.008
1.340E-06,-0.124
1.350E-06,-0.152
1.360E-06,-0.188
1.370E-06,0.088
1.380E-06,0.144
1.390E-06,0.176
1.400E-06,0.092
1.410E-06,0.036
1.420E-06,-0.124
1.430E-06,-0.128
1.440E-06,-0.056
1.450E-06,-0.020
1.460E-06,0.068
1.470E-06,0.112
1.480E-06,0.100
1.490E-06,0.040
1.500E-06,0.012
1.510E-06,-0.060
1.520E-06,-0.016
1.530E-06,0.020
1.540E-06,0.144
1.550E-06,0.140
1.560E-06,0.128
1.570E-06,0.136
1.580E-06,0.064
1.590E-06,0.064
1.600E-06,0.096
1.610E-06,0.148
1.620E-06,0.204
1.630E-06,0.188
1.640E-06,0.192
1.650E-06,0.144
1.660E-06,0.088
1.670E-06,0.024
1.680E-06,-0.012
1.690E-06,-0.056
1.700E-06,-0.084
1.710E-06,-0.124
1.720E-06,-0.236
1.730E-06,-0.236
1.740E-06,-0.324
1.750E-06,-0.228
1.760E-06,0.084
1.770E-06,0.212
1.780E-06,0.244
1.790E-06,0.160
1.800E-06,0.168
1.810E-06,0.008
1.820E-06,-0.080
1.830E-06,0.044
1.840E-06,0.092
1.850E-06,0.212
1.860E-06,0.260
1.870E-06,0.192
1.880E-06,0.068
1.890E-06,0.032
1.900E-06,0.012
1.910E-06,0.076
1.920E-06,0.188
1.930E-06,0.268
1.940E-06,0.308
1.950E-06,0.264
1.960E-06,0.184
1.970E-06,0.088
1.980E-06,0.052
1.990E-06,0.080
2.000E-06,0.160
2.010E-06,0.140
2.020E-06,0.104
2.030E-06,0.192
2.040E-06,0.188
2.050E-06,0.264
2.060E-06,0.268
2.070E-06,0.164
2.080E-06,0.124
2.090E-06,0.064
2.100E-06,0.108
2.110E-06,-0.056
2.120E-06,-0.172
2.130E-06,-0.400
2.140E-06,-0.512
2.150E-06,-0.512
2.160E-06,-0.512
2.170E-06,-0.112
2.180E-06,0.544
2.190E-06,0.544
2.200E-06,0.540
2.210E-06,-0.180
2.220E-06,-0.508
2.230E-06,-0.508
2.240E-06,-0.508
2.250E-06,-0.340
2.260E-06,0.400
2.270E-06,0.536
2.280E-06,0.540
2.290E-06,0.384
2.300E-06,-0.400
2.310E-06,-0.508
2.320E-06,-0.512
2.330E-06,-0.296
2.340E-06,0.204
2.350E-06,0.540
2.360E-06,0.540
2.370E-06,0.440
2.380E-06,0.008
2.390E-06,-0.356
2.400E-06,-0.408
2.410E-06,-0.188
2.420E-06,0.248
2.430E-06,0.540
2.440E-06,0.540
2.450E-06,0.540
2.460E-06,0.228
2.470E-06,-0.104
2.480E-06,-0.308
2.490E-06,-0.184
2.500E-06,0.124
2.510E-06,0.452
2.520E-06,0.540
2.530E-06,0.536
2.540E-06,0.296
2.550E-06,0.008
2.560E-06,-0.136
2.570E-06,-0.120
2.580E-06,0.100
2.590E-06,0.300
2.600E-06,0.376
2.610E-06,0.268
2.620E-06,0.096
2.630E-06,-0.224
2.640E-06,-0.468
2.650E-06,-0.404
2.660E-06,-0.256
2.670E-06,0.192
2.680E-06,0.472
2.690E-06,0.476
2.700E-06,0.184
2.710E-06,-0.236
2.720E-06,-0.400
2.730E-06,-0.432
2.740E-06,-0.168
2.750E-06,0.012
2.760E-06,0.336
2.770E-06,0.216
2.780E-06,0.048
2.790E-06,-0.348
2.800E-06,-0.460
2.810E-06,-0.372
2.820E-06,-0.284
2.830E-06,-0.048
2.840E-06,0.172
2.850E-06,0.364
2.860E-06,0.340
2.870E-06,0.156
2.880E-06,-0.076
2.890E-06,-0.172
2.900E-06,-0.084
2.910E-06,0.128
2.920E-06,0.384
2.930E-06,0.516
2.940E-06,0.484
2.950E-06,0.304
2.960E-06,0.124
2.970E-06,-0.060
2.980E-06,-0.056
2.990E-06,0.068
3.000E-06,0.308
3.010E-06,0.436
3.020E-06,0.452
3.030E-06,0.320
3.040E-06,0.156
3.050E-06,0.036
3.060E-06,0.000
3.070E-06,0.108
3.080E-06,0.228
3.090E-06,0.356
3.100E-06,0.380
3.110E-06,0.336
3.120E-06,0.204
3.130E-06,0.092
3.140E-06,0.036
3.150E-06,0.064
3.160E-06,0.156
3.170E-06,0.236
3.180E-06,0.288
3.190E-06,0.256
3.200E-06,0.180
3.210E-06,0.096
3.220E-06,0.056
3.230E-06,0.064
3.240E-06,0.132
3.250E-06,0.184
3.260E-06,0.212
3.270E-06,0.180
3.280E-06,0.112
3.290E-06,0.056
3.300E-06,0.024
3.310E-06,0.104
3.320E-06,0.200
3.330E-06,0.312
3.340E-06,0.356
3.350E-06,0.276
3.360E-06,0.212
3.370E-06,0.120
3.380E-06,0.096
3.390E-06,0.128
3.400E-06,0.204
3.410E-06,0.280
3.420E-06,0.308
3.430E-06,0.264
3.440E-06,0.192
3.450E-06,0.140
3.460E-06,0.108
3.470E-06,0.128
3.480E-06,0.184
3.490E-06,0.236
3.500E-06,0.276
3.510E-06,0.264
3.520E-06,0.224
3.530E-06,0.180
3.540E-06,0.152
3.550E-06,0.152
3.560E-06,0.188
3.570E-06,0.228
3.580E-06,0.260
3.590E-06,0.256
3.600E-06,0.228
3.610E-06,0.200
3.620E-06,0.160
3.630E-06,0.160
3.640E-06,0.180
3.650E-06,0.212
3.660E-06,0.232
3.670E-06,0.240
3.680E-06,0.232
3.690E-06,0.208
3.700E-06,0.176
3.710E-06,0.168
3.720E-06,0.180
3.730E-06,0.208
3.740E-06,0.224
3.750E-06,0.224
3.760E-06,0.220
3.770E-06,0.204
3.780E-06,0.184
3.790E-06,0.172
3.800E-06,0.176
3.810E-06,0.188
3.820E-06,0.208
3.830E-06,0.220
3.840E-06,0.216
3.850E-06,0.208
3.860E-06,0.196
3.870E-06,0.184
3.880E-06,0.184
3.890E-06,0.188
3.900E-06,0.200
3.910E-06,0.208
3.920E-06,0.204
3.930E-06,0.204
3.940E-06,0.192
3.950E-06,0.176
3.960E-06,0.172
3.970E-06,0.172
3.980E-06,0.188
3.990E-06,0.200
4.000E-06,0.200
4.010E-06,0.196
4.020E-06,0.192
4.030E-06,0.184
4.040E-06,0.176
4.050E-06,0.168
4.060E-06,0.184
4.070E-06,0.192
4.080E-06,0.192
4.090E-06,0.192
4.100E-06,0.192
4.110E-06,0.180
4.120E-06,0.176
4.130E-06,0.176
4.140E-06,0.184
4.150E-06,0.192
4.160E-06,0.192
4.170E-06,0.196
4.180E-06,0.192
4.190E-06,0.192
4.200E-06,0.184
4.210E-06,0.180
4.220E-06,0.180
4.230E-06,0.188
4.240E-06,0.192
4.250E-06,0.192
4.260E-06,0.188
4.270E-06,0.184
4.280E-06,0.176
4.290E-06,0.176
4.300E-06,0.184
4.310E-06,0.188
4.320E-06,0.184
4.330E-06,0.188
4.340E-06,0.192
4.350E-06,0.184
4.360E-06,0.176
4.370E-06,0.172
4.380E-06,0.172
4.390E-06,0.176
4.400E-06,0.180
4.410E-06,0.184
4.420E-06,0.180
4.430E-06,0.180
4.440E-06,0.176
4.450E-06,0.176
4.460E-06,0.172
4.470E-06,0.176
4.480E-06,0.176
4.490E-06,0.176
4.500E-06,0.176
4.510E-06,0.176
4.520E-06,0.176
4.530E-06,0.168
4.540E-06,0.164
4.550E-06,0.164
4.560E-06,0.164
4.570E-06,0.164
4.580E-06,0.172
4.590E-06,0.172
4.600E-06,0.180
4.610E-06,0.172
4.620E-06,0.164
4.630E-06,0.160
4.640E-06,0.164
4.650E-06,0.168
4.660E-06,0.172
4.670E-06,0.168
4.680E-06,0.168
4.690E-06,0.168
4.700E-06,0.164
4.710E-06,0.160
4.720E-06,0.164
4.730E-06,0.168
4.740E-06,0.164
4.750E-06,0.156
4.760E-06,0.156
4.770E-06,0.160
4.780E-06,0.160
4.790E-06,0.164
4.800E-06,0.160
4.810E-06,0.156
4.820E-06,0.160
4.830E-06,0.160
4.840E-06,0.156
4.850E-06,0.156
4.860E-06,0.160
4.870E-06,0.164
4.880E-06,0.160
4.890E-06,0.156
4.900E-06,0.156
4.910E-06,0.156
4.920E-06,0.152
4.930E-06,0.156
4.940E-06,0.152
4.950E-06,0.156
4.960E-06,0.160
4.970E-06,0.152
4.980E-06,0.152
4.990E-06,0.156
5.000E-06,0.156
5.010E-06,0.156
5.020E-06,0.148
5.030E-06,0.152
5.040E-06,0.148
5.050E-06,0.148
5.060E-06,0.152
5.070E-06,0.148
5.080E-06,0.144
5.090E-06,0.140
5.100E-06,0.144
5.110E-06,0.148
5.120E-06,0.140
5.130E-06,0.144
5.140E-06,0.144
5.150E-06,0.144
5.160E-06,0.148
5.170E-06,0.140
5.180E-06,0.144
5.190E-06,0.144
5.200E-06,0.140
5.210E-06,0.140
5.220E-06,0.140
5.230E-06,0.136
5.240E-06,0.132
5.250E-06,0.136
5.260E-06,0.140
5.270E-06,0.136
5.280E-06,0.140
5.290E-06,0.136
5.300E-06,0.132
5.310E-06,0.128
5.320E-06,0.132
5.330E-06,0.140
5.340E-06,0.136
5.350E-06,0.144
5.360E-06,0.140
5.370E-06,0.136
5.380E-06,0.132
5.390E-06,0.124
5.400E-06,0.124
5.410E-06,0.132
5.420E-06,0.132
5.430E-06,0.132
5.440E-06,0.136
5.450E-06,0.128
5.460E-06,0.128
5.470E-06,0.124
5.480E-06,0.120
5.490E-06,0.124
5.500E-06,0.128
5.510E-06,0.128
5.520E-06,0.132
5.530E-06,0.136
5.540E-06,0.128
5.550E-06,0.128
5.560E-06,0.128
5.570E-06,0.124
5.580E-06,0.132
5.590E-06,0.132
5.600E-06,0.128
5.610E-06,0.132
5.620E-06,0.128
5.630E-06,0.124
5.640E-06,0.124
5.650E-06,0.128
5.660E-06,0.124
5.670E-06,0.128
5.680E-06,0.132
5.690E-06,0.132
5.700E-06,0.124
5.710E-06,0.128
5.720E-06,0.124
5.730E-06,0.124
5.740E-06,0.120
5.750E-06,0.124
5.760E-06,0.124
5.770E-06,0.120
5.780E-06,0.124
5.790E-06,0.120
5.800E-06,0.112
5.810E-06,0.120
5.820E-06,0.116
5.830E-06,0.124
5.840E-06,0.124
5.850E-06,0.124
5.860E-06,0.112
5.870E-06,0.112
5.880E-06,0.116
5.890E-06,0.108
5.900E-06,0.116
5.910E-06,0.120
5.920E-06,0.112
5.930E-06,0.116
5.940E-06,0.112
5.950E-06,0.108
5.960E-06,0.104
5.970E-06,0.108
5.980E-06,0.112
5.990E-06,0.120
6.000E-06,0.120
6.010E-06,0.120
6.020E-06,0.120
6.030E-06,0.112
6.040E-06,0.112
6.050E-06,0.104
6.060E-06,0.104
6.070E-06,0.104
6.080E-06,0.108
6.090E-06,0.108
6.100E-06,0.112
6.110E-06,0.108
6.120E-06,0.104
6.130E-06,0.104
6.140E-06,0.100
6.150E-06,0.100
6.160E-06,0.100
6.170E-06,0.108
6.180E-06,0.104
6.190E-06,0.104
6.200E-06,0.100
6.210E-06,0.100
6.220E-06,0.096
6.230E-06,0.096
6.240E-06,0.100
6.250E-06,0.100
6.260E-06,0.100
6.270E-06,0.104
6.280E-06,0.100
6.290E-06,0.096
6.300E-06,0.096
6.310E-06,0.096
6.320E-06,0.096
6.330E-06,0.092
6.340E-06,0.092
6.350E-06,0.096
6.360E-06,0.096
6.370E-06,0.096
6.380E-06,0.092
6.390E-06,0.088
6.400E-06,0.092
6.410E-06,0.096
6.420E-06,0.100
6.430E-06,0.096
6.440E-06,0.096
6.450E-06,0.092
6.460E-06,0.092
6.470E-06,0.088
6.480E-06,0.092
6.490E-06,0.088
6.500E-06,0.096
6.510E-06,0.092
6.520E-06,0.092
6.530E-06,0.092
6.540E-06,0.084
6.550E-06,0.076
6.560E-06,0.076
6.570E-06,0.080
6.580E-06,0.084
6.590E-06,0.084
6.600E-06,0.088
6.610E-06,0.088
6.620E-06,0.084
6.630E-06,0.076
6.640E-06,0.076
6.650E-06,0.076
6.660E-06,0.076
6.670E-06,0.080
6.680E-06,0.084
6.690E-06,0.084
6.700E-06,0.084
6.710E-06,0.076
6.720E-06,0.076
6.730E-06,0.076
6.740E-06,0.072
6.750E-06,0.076
6.760E-06,0.076
6.770E-06,0.076
6.780E-06,0.072
6.790E-06,0.072
6.800E-06,0.068
6.810E-06,0.072
6.820E-06,0.064
6.830E-06,0.072
6.840E-06,0.068
6.850E-06,0.072
6.860E-06,0.072
6.870E-06,0.072
6.880E-06,0.072
6.890E-06,0.064
6.900E-06,0.068
6.910E-06,0.064
6.920E-06,0.068
6.930E-06,0.072
6.940E-06,0.072
6.950E-06,0.068
6.960E-06,0.064
6.970E-06,0.064
6.980E-06,0.060
6.990E-06,0.060
7.000E-06,0.064
7.010E-06,0.060
7.020E-06,0.068
7.030E-06,0.064
7.040E-06,0.064
7.050E-06,0.064
7.060E-06,0.068
7.070E-06,0.064
7.080E-06,0.056
7.090E-06,0.056
7.100E-06,0.056
7.110E-06,0.060
7.120E-06,0.060
7.130E-06,0.068
7.140E-06,0.068
7.150E-06,0.064
7.160E-06,0.060
7.170E-06,0.060
7.180E-06,0.064
7.190E-06,0.064
7.200E-06,0.068
7.210E-06,0.068
7.220E-06,0.064
7.230E-06,0.064
7.240E-06,0.056
7.250E-06,0.052
7.260E-06,0.056
7.270E-06,0.060
7.280E-06,0.056
7.290E-06,0.068
7.300E-06,0.064
7.310E-06,0.068
7.320E-06,0.064
7.330E-06,0.052
7.340E-06,0.044
7.350E-06,0.040
7.360E-06,0.048
7.370E-06,0.064
7.380E-06,0.076
7.390E-06,0.076
7.400E-06,0.068
7.410E-06,0.056
7.420E-06,0.040
7.430E-06,0.032
7.440E-06,0.044
7.450E-06,0.056
7.460E-06,0.064
7.470E-06,0.072
7.480E-06,0.064
7.490E-06,0.052
7.500E-06,0.044
7.510E-06,0.032
7.520E-06,0.036
7.530E-06,0.052
7.540E-06,0.060
7.550E-06,0.060
7.560E-06,0.056
7.570E-06,0.052
7.580E-06,0.044
7.590E-06,0.040
7.600E-06,0.032
7.610E-06,0.040
7.620E-06,0.052
7.630E-06,0.056
7.640E-06,0.056
7.650E-06,0.052
7.660E-06,0.048
7.670E-06,0.040
7.680E-06,0.032
7.690E-06,0.040
7.700E-06,0.044
7.710E-06,0.040
7.720E-06,0.048
7.730E-06,0.052
7.740E-06,0.044
7.750E-06,0.044
7.760E-06,0.036
