mediciones/5-15/47.5/WaveData47141.csv

#timebase=2000000(ps)
,#voltbase=100000(mv/100)
#size=4000
-8.400E-06,0.000
-8.390E-06,0.000
-8.380E-06,0.004
-8.370E-06,0.000
-8.360E-06,0.004
-8.350E-06,0.004
-8.340E-06,0.004
-8.330E-06,0.004
-8.320E-06,0.004
-8.310E-06,0.000
-8.300E-06,0.004
-8.290E-06,0.004
-8.280E-06,0.004
-8.270E-06,0.004
-8.260E-06,0.004
-8.250E-06,0.004
-8.240E-06,0.004
-8.230E-06,0.008
-8.220E-06,-0.004
-8.210E-06,-0.004
-8.200E-06,0.004
-8.190E-06,0.000
-8.180E-06,0.000
-8.170E-06,0.004
-8.160E-06,0.008
-8.150E-06,0.000
-8.140E-06,0.000
-8.130E-06,0.004
-8.120E-06,0.000
-8.110E-06,0.004
-8.100E-06,0.004
-8.090E-06,0.004
-8.080E-06,0.000
-8.070E-06,0.004
-8.060E-06,0.004
-8.050E-06,0.004
-8.040E-06,0.004
-8.030E-06,0.008
-8.020E-06,0.008
-8.010E-06,0.000
-8.000E-06,0.000
-7.990E-06,0.000
-7.980E-06,0.000
-7.970E-06,0.004
-7.960E-06,0.004
-7.950E-06,0.004
-7.940E-06,0.004
-7.930E-06,0.004
-7.920E-06,0.004
-7.910E-06,0.004
-7.900E-06,0.004
-7.890E-06,0.000
-7.880E-06,0.004
-7.870E-06,0.004
-7.860E-06,0.004
-7.850E-06,0.004
-7.840E-06,0.000
-7.830E-06,0.004
-7.820E-06,0.004
-7.810E-06,0.004
-7.800E-06,0.008
-7.790E-06,0.008
-7.780E-06,0.008
-7.770E-06,0.008
-7.760E-06,0.000
-7.750E-06,0.000
-7.740E-06,0.004
-7.730E-06,0.004
-7.720E-06,0.000
-7.710E-06,0.004
-7.700E-06,0.004
-7.690E-06,0.000
-7.680E-06,0.000
-7.670E-06,0.004
-7.660E-06,0.000
-7.650E-06,0.000
-7.640E-06,0.004
-7.630E-06,0.004
-7.620E-06,0.004
-7.610E-06,0.004
-7.600E-06,0.004
-7.590E-06,0.004
-7.580E-06,0.000
-7.570E-06,0.004
-7.560E-06,0.000
-7.550E-06,0.004
-7.540E-06,0.004
-7.530E-06,0.000
-7.520E-06,0.004
-7.510E-06,0.004
-7.500E-06,0.004
-7.490E-06,0.004
-7.480E-06,0.004
-7.470E-06,0.004
-7.460E-06,0.004
-7.450E-06,0.004
-7.440E-06,0.004
-7.430E-06,0.008
-7.420E-06,0.000
-7.410E-06,0.000
-7.400E-06,0.004
-7.390E-06,0.008
-7.380E-06,0.000
-7.370E-06,0.000
-7.360E-06,0.004
-7.350E-06,0.004
-7.340E-06,0.000
-7.330E-06,0.004
-7.320E-06,0.000
-7.310E-06,0.004
-7.300E-06,0.004
-7.290E-06,0.004
-7.280E-06,0.008
-7.270E-06,0.008
-7.260E-06,0.008
-7.250E-06,0.000
-7.240E-06,0.004
-7.230E-06,0.000
-7.220E-06,0.004
-7.210E-06,0.000
-7.200E-06,0.000
-7.190E-06,0.004
-7.180E-06,0.004
-7.170E-06,0.004
-7.160E-06,0.004
-7.150E-06,0.008
-7.140E-06,0.008
-7.130E-06,0.008
-7.120E-06,0.008
-7.110E-06,0.000
-7.100E-06,0.004
-7.090E-06,0.004
-7.080E-06,0.004
-7.070E-06,0.004
-7.060E-06,0.000
-7.050E-06,-0.004
-7.040E-06,0.004
-7.030E-06,0.000
-7.020E-06,0.004
-7.010E-06,0.000
-7.000E-06,0.000
-6.990E-06,0.004
-6.980E-06,0.000
-6.970E-06,0.004
-6.960E-06,0.004
-6.950E-06,0.004
-6.940E-06,0.004
-6.930E-06,0.008
-6.920E-06,0.008
-6.910E-06,0.008
-6.900E-06,0.008
-6.890E-06,0.000
-6.880E-06,0.000
-6.870E-06,0.004
-6.860E-06,0.004
-6.850E-06,0.004
-6.840E-06,0.000
-6.830E-06,0.004
-6.820E-06,0.004
-6.810E-06,0.004
-6.800E-06,0.004
-6.790E-06,0.000
-6.780E-06,0.000
-6.770E-06,0.004
-6.760E-06,-0.004
-6.750E-06,0.004
-6.740E-06,0.004
-6.730E-06,0.004
-6.720E-06,0.004
-6.710E-06,0.000
-6.700E-06,0.004
-6.690E-06,0.004
-6.680E-06,0.004
-6.670E-06,0.000
-6.660E-06,0.000
-6.650E-06,0.004
-6.640E-06,0.004
-6.630E-06,0.004
-6.620E-06,0.000
-6.610E-06,-0.004
-6.600E-06,0.004
-6.590E-06,0.000
-6.580E-06,0.004
-6.570E-06,0.004
-6.560E-06,0.008
-6.550E-06,-0.004
-6.540E-06,0.004
-6.530E-06,0.004
-6.520E-06,0.004
-6.510E-06,0.000
-6.500E-06,0.004
-6.490E-06,0.004
-6.480E-06,0.004
-6.470E-06,0.008
-6.460E-06,0.000
-6.450E-06,0.004
-6.440E-06,0.004
-6.430E-06,0.004
-6.420E-06,0.004
-6.410E-06,-0.004
-6.400E-06,0.004
-6.390E-06,0.004
-6.380E-06,0.008
-6.370E-06,0.000
-6.360E-06,0.000
-6.350E-06,0.004
-6.340E-06,-0.004
-6.330E-06,0.004
-6.320E-06,0.000
-6.310E-06,0.004
-6.300E-06,0.004
-6.290E-06,0.004
-6.280E-06,0.004
-6.270E-06,0.004
-6.260E-06,0.004
-6.250E-06,0.004
-6.240E-06,0.004
-6.230E-06,0.000
-6.220E-06,0.004
-6.210E-06,0.000
-6.200E-06,0.000
-6.190E-06,0.000
-6.180E-06,0.004
-6.170E-06,0.004
-6.160E-06,0.004
-6.150E-06,0.000
-6.140E-06,0.004
-6.130E-06,0.004
-6.120E-06,0.004
-6.110E-06,0.004
-6.100E-06,0.000
-6.090E-06,0.004
-6.080E-06,0.004
-6.070E-06,0.004
-6.060E-06,0.000
-6.050E-06,0.000
-6.040E-06,0.004
-6.030E-06,0.008
-6.020E-06,0.008
-6.010E-06,0.008
-6.000E-06,0.000
-5.990E-06,0.004
-5.980E-06,0.000
-5.970E-06,0.004
-5.960E-06,-0.004
-5.950E-06,0.000
-5.940E-06,0.000
-5.930E-06,0.000
-5.920E-06,0.000
-5.910E-06,0.004
-5.900E-06,0.000
-5.890E-06,0.004
-5.880E-06,0.008
-5.870E-06,0.008
-5.860E-06,0.000
-5.850E-06,0.004
-5.840E-06,0.004
-5.830E-06,0.004
-5.820E-06,0.004
-5.810E-06,0.004
-5.800E-06,0.004
-5.790E-06,0.004
-5.780E-06,0.008
-5.770E-06,0.000
-5.760E-06,0.004
-5.750E-06,0.004
-5.740E-06,0.004
-5.730E-06,0.000
-5.720E-06,0.008
-5.710E-06,0.000
-5.700E-06,0.000
-5.690E-06,0.000
-5.680E-06,0.000
-5.670E-06,0.004
-5.660E-06,0.000
-5.650E-06,0.004
-5.640E-06,0.004
-5.630E-06,0.004
-5.620E-06,0.000
-5.610E-06,0.004
-5.600E-06,0.000
-5.590E-06,0.004
-5.580E-06,0.004
-5.570E-06,0.000
-5.560E-06,0.000
-5.550E-06,0.004
-5.540E-06,0.008
-5.530E-06,0.008
-5.520E-06,0.000
-5.510E-06,0.004
-5.500E-06,0.004
-5.490E-06,0.004
-5.480E-06,0.004
-5.470E-06,0.004
-5.460E-06,0.008
-5.450E-06,0.008
-5.440E-06,0.000
-5.430E-06,-0.004
-5.420E-06,0.004
-5.410E-06,0.000
-5.400E-06,0.004
-5.390E-06,0.004
-5.380E-06,0.000
-5.370E-06,0.004
-5.360E-06,0.000
-5.350E-06,0.004
-5.340E-06,0.000
-5.330E-06,0.004
-5.320E-06,0.004
-5.310E-06,0.004
-5.300E-06,0.000
-5.290E-06,0.004
-5.280E-06,0.004
-5.270E-06,0.000
-5.260E-06,0.004
-5.250E-06,-0.004
-5.240E-06,0.004
-5.230E-06,0.004
-5.220E-06,0.004
-5.210E-06,0.004
-5.200E-06,0.000
-5.190E-06,0.004
-5.180E-06,0.004
-5.170E-06,0.004
-5.160E-06,0.004
-5.150E-06,0.004
-5.140E-06,0.004
-5.130E-06,0.004
-5.120E-06,0.008
-5.110E-06,0.008
-5.100E-06,0.000
-5.090E-06,0.004
-5.080E-06,0.004
-5.070E-06,0.000
-5.060E-06,0.000
-5.050E-06,0.000
-5.040E-06,0.004
-5.030E-06,0.000
-5.020E-06,0.004
-5.010E-06,-0.004
-5.000E-06,0.000
-4.990E-06,0.004
-4.980E-06,0.000
-4.970E-06,0.004
-4.960E-06,0.000
-4.950E-06,0.004
-4.940E-06,0.004
-4.930E-06,0.004
-4.920E-06,0.008
-4.910E-06,0.008
-4.900E-06,0.008
-4.890E-06,0.000
-4.880E-06,-0.004
-4.870E-06,0.000
-4.860E-06,0.008
-4.850E-06,0.008
-4.840E-06,0.004
-4.830E-06,0.000
-4.820E-06,0.004
-4.810E-06,0.000
-4.800E-06,0.004
-4.790E-06,0.008
-4.780E-06,0.004
-4.770E-06,0.000
-4.760E-06,-0.004
-4.750E-06,0.004
-4.740E-06,0.000
-4.730E-06,0.000
-4.720E-06,0.000
-4.710E-06,0.008
-4.700E-06,0.008
-4.690E-06,-0.004
-4.680E-06,-0.004
-4.670E-06,0.004
-4.660E-06,0.000
-4.650E-06,0.004
-4.640E-06,0.004
-4.630E-06,0.000
-4.620E-06,0.000
-4.610E-06,0.004
-4.600E-06,0.004
-4.590E-06,0.004
-4.580E-06,0.004
-4.570E-06,0.004
-4.560E-06,0.004
-4.550E-06,0.004
-4.540E-06,0.000
-4.530E-06,0.000
-4.520E-06,0.000
-4.510E-06,0.000
-4.500E-06,0.000
-4.490E-06,0.004
-4.480E-06,0.008
-4.470E-06,0.008
-4.460E-06,0.004
-4.450E-06,0.012
-4.440E-06,0.048
-4.430E-06,0.104
-4.420E-06,0.136
-4.410E-06,0.060
-4.400E-06,-0.036
-4.390E-06,-0.236
-4.380E-06,-0.208
-4.370E-06,-0.176
-4.360E-06,0.064
-4.350E-06,0.260
-4.340E-06,0.328
-4.330E-06,0.144
-4.320E-06,-0.136
-4.310E-06,-0.268
-4.300E-06,-0.248
-4.290E-06,-0.020
-4.280E-06,0.144
-4.270E-06,0.248
-4.260E-06,0.160
-4.250E-06,0.060
-4.240E-06,-0.092
-4.230E-06,-0.152
-4.220E-06,-0.144
-4.210E-06,-0.076
-4.200E-06,0.024
-4.190E-06,0.072
-4.180E-06,0.132
-4.170E-06,0.100
-4.160E-06,0.076
-4.150E-06,-0.036
-4.140E-06,-0.088
-4.130E-06,-0.120
-4.120E-06,-0.072
-4.110E-06,0.008
-4.100E-06,0.112
-4.090E-06,0.144
-4.080E-06,0.084
-4.070E-06,-0.004
-4.060E-06,-0.120
-4.050E-06,-0.136
-4.040E-06,-0.120
-4.030E-06,-0.012
-4.020E-06,0.084
-4.010E-06,0.140
-4.000E-06,0.092
-3.990E-06,0.012
-3.980E-06,-0.044
-3.970E-06,-0.072
-3.960E-06,-0.040
-3.950E-06,0.004
-3.940E-06,0.052
-3.930E-06,0.044
-3.920E-06,0.044
-3.910E-06,0.012
-3.900E-06,-0.004
-3.890E-06,-0.036
-3.880E-06,-0.040
-3.870E-06,-0.032
-3.860E-06,-0.016
-3.850E-06,0.016
-3.840E-06,0.044
-3.830E-06,0.068
-3.820E-06,0.044
-3.810E-06,0.008
-3.800E-06,-0.032
-3.790E-06,-0.048
-3.780E-06,-0.036
-3.770E-06,0.004
-3.760E-06,0.044
-3.750E-06,0.056
-3.740E-06,0.036
-3.730E-06,-0.012
-3.720E-06,-0.032
-3.710E-06,-0.044
-3.700E-06,-0.024
-3.690E-06,0.008
-3.680E-06,0.036
-3.670E-06,0.032
-3.660E-06,0.024
-3.650E-06,0.008
-3.640E-06,-0.008
-3.630E-06,-0.004
-3.620E-06,-0.004
-3.610E-06,0.008
-3.600E-06,0.016
-3.590E-06,0.024
-3.580E-06,0.012
-3.570E-06,0.004
-3.560E-06,-0.004
-3.550E-06,-0.008
-3.540E-06,-0.008
-3.530E-06,-0.012
-3.520E-06,0.008
-3.510E-06,0.016
-3.500E-06,0.024
-3.490E-06,0.020
-3.480E-06,0.008
-3.470E-06,0.000
-3.460E-06,0.000
-3.450E-06,-0.004
-3.440E-06,0.008
-3.430E-06,0.012
-3.420E-06,0.016
-3.410E-06,0.012
-3.400E-06,0.008
-3.390E-06,0.000
-3.380E-06,0.000
-3.370E-06,0.004
-3.360E-06,0.012
-3.350E-06,0.024
-3.340E-06,0.024
-3.330E-06,0.016
-3.320E-06,0.020
-3.310E-06,0.016
-3.300E-06,0.024
-3.290E-06,0.036
-3.280E-06,0.036
-3.270E-06,0.012
-3.260E-06,-0.020
-3.250E-06,-0.060
-3.240E-06,-0.076
-3.230E-06,-0.056
-3.220E-06,0.000
-3.210E-06,0.044
-3.200E-06,0.040
-3.190E-06,0.020
-3.180E-06,-0.008
-3.170E-06,-0.044
-3.160E-06,-0.040
-3.150E-06,-0.012
-3.140E-06,0.016
-3.130E-06,0.020
-3.120E-06,0.028
-3.110E-06,0.024
-3.100E-06,0.004
-3.090E-06,-0.008
-3.080E-06,-0.020
-3.070E-06,-0.004
-3.060E-06,0.000
-3.050E-06,0.012
-3.040E-06,0.020
-3.030E-06,0.028
-3.020E-06,0.012
-3.010E-06,0.000
-3.000E-06,-0.004
-2.990E-06,-0.008
-2.980E-06,0.008
-2.970E-06,0.004
-2.960E-06,0.008
-2.950E-06,0.008
-2.940E-06,0.004
-2.930E-06,0.000
-2.920E-06,0.000
-2.910E-06,0.000
-2.900E-06,0.000
-2.890E-06,0.008
-2.880E-06,0.004
-2.870E-06,0.008
-2.860E-06,0.012
-2.850E-06,0.016
-2.840E-06,0.008
-2.830E-06,0.020
-2.820E-06,0.036
-2.810E-06,0.036
-2.800E-06,0.012
-2.790E-06,-0.004
-2.780E-06,-0.028
-2.770E-06,-0.028
-2.760E-06,0.004
-2.750E-06,0.024
-2.740E-06,0.016
-2.730E-06,0.004
-2.720E-06,-0.012
-2.710E-06,-0.008
-2.700E-06,0.012
-2.690E-06,0.032
-2.680E-06,0.024
-2.670E-06,-0.012
-2.660E-06,-0.028
-2.650E-06,-0.032
-2.640E-06,0.020
-2.630E-06,0.036
-2.620E-06,0.044
-2.610E-06,-0.012
-2.600E-06,-0.044
-2.590E-06,-0.060
-2.580E-06,-0.024
-2.570E-06,0.024
-2.560E-06,0.060
-2.550E-06,0.064
-2.540E-06,0.024
-2.530E-06,-0.028
-2.520E-06,-0.068
-2.510E-06,-0.060
-2.500E-06,-0.012
-2.490E-06,0.052
-2.480E-06,0.076
-2.470E-06,0.048
-2.460E-06,-0.004
-2.450E-06,-0.044
-2.440E-06,-0.044
-2.430E-06,-0.020
-2.420E-06,0.028
-2.410E-06,0.044
-2.400E-06,0.048
-2.390E-06,0.032
-2.380E-06,0.008
-2.370E-06,-0.024
-2.360E-06,-0.040
-2.350E-06,-0.032
-2.340E-06,-0.012
-2.330E-06,0.032
-2.320E-06,0.060
-2.310E-06,0.060
-2.300E-06,0.032
-2.290E-06,-0.020
-2.280E-06,-0.060
-2.270E-06,-0.068
-2.260E-06,-0.020
-2.250E-06,0.036
-2.240E-06,0.068
-2.230E-06,0.060
-2.220E-06,0.020
-2.210E-06,-0.020
-2.200E-06,-0.052
-2.190E-06,-0.056
-2.180E-06,-0.024
-2.170E-06,0.012
-2.160E-06,0.040
-2.150E-06,0.048
-2.140E-06,0.028
-2.130E-06,0.008
-2.120E-06,-0.016
-2.110E-06,-0.024
-2.100E-06,-0.020
-2.090E-06,-0.004
-2.080E-06,0.012
-2.070E-06,0.024
-2.060E-06,0.028
-2.050E-06,0.024
-2.040E-06,0.004
-2.030E-06,-0.008
-2.020E-06,-0.016
-2.010E-06,-0.020
-2.000E-06,-0.004
-1.990E-06,0.020
-1.980E-06,0.040
-1.970E-06,0.044
-1.960E-06,0.036
-1.950E-06,0.008
-1.940E-06,-0.020
-1.930E-06,-0.032
-1.920E-06,-0.016
-1.910E-06,0.000
-1.900E-06,0.020
-1.890E-06,0.032
-1.880E-06,0.028
-1.870E-06,0.016
-1.860E-06,-0.004
-1.850E-06,-0.020
-1.840E-06,-0.016
-1.830E-06,0.000
-1.820E-06,0.012
-1.810E-06,0.032
-1.800E-06,0.024
-1.790E-06,0.012
-1.780E-06,-0.004
-1.770E-06,-0.012
-1.760E-06,-0.012
-1.750E-06,0.000
-1.740E-06,0.004
-1.730E-06,0.020
-1.720E-06,0.016
-1.710E-06,0.012
-1.700E-06,0.012
-1.690E-06,0.000
-1.680E-06,0.004
-1.670E-06,0.000
-1.660E-06,0.004
-1.650E-06,0.008
-1.640E-06,0.004
-1.630E-06,0.012
-1.620E-06,0.024
-1.610E-06,0.024
-1.600E-06,0.012
-1.590E-06,0.000
-1.580E-06,-0.008
-1.570E-06,-0.004
-1.560E-06,0.004
-1.550E-06,0.028
-1.540E-06,0.048
-1.530E-06,0.044
-1.520E-06,0.028
-1.510E-06,0.008
-1.500E-06,-0.008
-1.490E-06,-0.008
-1.480E-06,-0.004
-1.470E-06,0.008
-1.460E-06,0.020
-1.450E-06,0.032
-1.440E-06,0.028
-1.430E-06,0.012
-1.420E-06,-0.004
-1.410E-06,-0.008
-1.400E-06,-0.004
-1.390E-06,-0.004
-1.380E-06,0.012
-1.370E-06,0.020
-1.360E-06,0.020
-1.350E-06,0.020
-1.340E-06,0.012
-1.330E-06,0.012
-1.320E-06,-0.008
-1.310E-06,-0.024
-1.300E-06,-0.028
-1.290E-06,-0.024
-1.280E-06,-0.008
-1.270E-06,0.004
-1.260E-06,0.020
-1.250E-06,0.016
-1.240E-06,0.000
-1.230E-06,-0.016
-1.220E-06,-0.024
-1.210E-06,-0.012
-1.200E-06,-0.004
-1.190E-06,0.008
-1.180E-06,0.012
-1.170E-06,0.012
-1.160E-06,0.008
-1.150E-06,-0.004
-1.140E-06,-0.004
-1.130E-06,-0.008
-1.120E-06,0.000
-1.110E-06,0.020
-1.100E-06,0.020
-1.090E-06,0.020
-1.080E-06,0.020
-1.070E-06,0.012
-1.060E-06,0.008
-1.050E-06,0.004
-1.040E-06,0.008
-1.030E-06,0.016
-1.020E-06,0.028
-1.010E-06,0.028
-1.000E-06,0.024
-9.900E-07,0.024
-9.800E-07,0.012
-9.700E-07,-0.008
-9.600E-07,-0.008
-9.500E-07,0.008
-9.400E-07,0.036
-9.300E-07,0.060
-9.200E-07,0.056
-9.100E-07,0.028
-9.000E-07,0.000
-8.900E-07,-0.012
-8.800E-07,-0.008
-8.700E-07,0.008
-8.600E-07,0.028
-8.500E-07,0.056
-8.400E-07,0.048
-8.300E-07,0.028
-8.200E-07,0.012
-8.100E-07,0.004
-8.000E-07,0.008
-7.900E-07,0.016
-7.800E-07,0.032
-7.700E-07,0.040
-7.600E-07,0.056
-7.500E-07,0.060
-7.400E-07,0.044
-7.300E-07,0.024
-7.200E-07,0.008
-7.100E-07,0.008
-7.000E-07,0.012
-6.900E-07,0.036
-6.800E-07,0.056
-6.700E-07,0.056
-6.600E-07,0.036
-6.500E-07,0.008
-6.400E-07,-0.004
-6.300E-07,-0.004
-6.200E-07,0.008
-6.100E-07,0.020
-6.000E-07,0.040
-5.900E-07,0.040
-5.800E-07,0.028
-5.700E-07,0.016
-5.600E-07,-0.004
-5.500E-07,-0.008
-5.400E-07,-0.008
-5.300E-07,0.000
-5.200E-07,0.020
-5.100E-07,0.028
-5.000E-07,0.024
-4.900E-07,0.008
-4.800E-07,0.000
-4.700E-07,-0.020
-4.600E-07,-0.020
-4.500E-07,-0.004
-4.400E-07,0.024
-4.300E-07,0.052
-4.200E-07,0.056
-4.100E-07,0.036
-4.000E-07,0.016
-3.900E-07,0.016
-3.800E-07,0.028
-3.700E-07,0.016
-3.600E-07,0.044
-3.500E-07,0.080
-3.400E-07,0.068
-3.300E-07,0.056
-3.200E-07,0.056
-3.100E-07,0.048
-3.000E-07,0.052
-2.900E-07,0.092
-2.800E-07,0.096
-2.700E-07,0.092
-2.600E-07,0.092
-2.500E-07,0.092
-2.400E-07,0.088
-2.300E-07,0.104
-2.200E-07,0.108
-2.100E-07,0.096
-2.000E-07,0.092
-1.900E-07,0.088
-1.800E-07,0.096
-1.700E-07,0.120
-1.600E-07,0.128
-1.500E-07,0.112
-1.400E-07,0.088
-1.300E-07,0.084
-1.200E-07,0.092
-1.100E-07,0.132
-1.000E-07,0.140
-9.000E-08,0.124
-8.000E-08,0.124
-7.000E-08,0.080
-6.000E-08,0.028
-5.000E-08,-0.252
-4.000E-08,-0.512
-3.000E-08,-0.512
-2.000E-08,-0.508
-1.000E-08,-0.200
0.000E+00,0.540
1.000E-08,0.540
2.000E-08,-0.004
3.000E-08,-0.512
4.000E-08,-0.512
5.000E-08,-0.508
6.000E-08,0.068
7.000E-08,0.540
8.000E-08,0.540
9.000E-08,0.536
1.000E-07,-0.004
1.100E-07,-0.512
1.200E-07,-0.512
1.300E-07,-0.512
1.400E-07,-0.044
1.500E-07,0.540
1.600E-07,0.540
1.700E-07,0.540
1.800E-07,0.136
1.900E-07,-0.376
2.000E-07,-0.512
2.100E-07,-0.512
2.200E-07,-0.200
2.300E-07,0.256
2.400E-07,0.540
2.500E-07,0.540
2.600E-07,0.324
2.700E-07,-0.092
2.800E-07,-0.404
2.900E-07,-0.436
3.000E-07,-0.188
3.100E-07,0.160
3.200E-07,0.408
3.300E-07,0.420
3.400E-07,0.276
3.500E-07,0.012
3.600E-07,-0.192
3.700E-07,-0.268
3.800E-07,-0.156
3.900E-07,0.084
4.000E-07,0.324
4.100E-07,0.468
4.200E-07,0.440
4.300E-07,0.304
4.400E-07,0.112
4.500E-07,-0.016
4.600E-07,-0.108
4.700E-07,-0.152
4.800E-07,-0.204
4.900E-07,-0.280
5.000E-07,-0.360
5.100E-07,-0.336
5.200E-07,-0.208
5.300E-07,-0.044
5.400E-07,0.108
5.500E-07,0.176
5.600E-07,0.176
5.700E-07,0.000
5.800E-07,-0.136
5.900E-07,-0.188
6.000E-07,-0.068
6.100E-07,0.124
6.200E-07,0.272
6.300E-07,0.332
6.400E-07,0.248
6.500E-07,0.076
6.600E-07,-0.052
6.700E-07,-0.188
6.800E-07,-0.268
6.900E-07,-0.336
7.000E-07,-0.272
7.100E-07,-0.144
7.200E-07,0.092
7.300E-07,0.188
7.400E-07,0.184
7.500E-07,0.156
7.600E-07,0.044
7.700E-07,-0.036
7.800E-07,-0.064
7.900E-07,-0.008
8.000E-07,0.000
8.100E-07,-0.024
8.200E-07,-0.108
8.300E-07,-0.120
8.400E-07,-0.080
8.500E-07,0.080
8.600E-07,0.204
8.700E-07,0.272
8.800E-07,0.256
8.900E-07,0.168
9.000E-07,0.104
9.100E-07,0.064
9.200E-07,0.032
9.300E-07,-0.008
9.400E-07,0.008
9.500E-07,0.004
9.600E-07,-0.092
9.700E-07,-0.236
9.800E-07,-0.204
9.900E-07,-0.176
1.000E-06,-0.052
1.010E-06,-0.020
1.020E-06,0.016
1.030E-06,0.052
1.040E-06,-0.004
1.050E-06,0.020
1.060E-06,-0.040
1.070E-06,-0.008
1.080E-06,-0.012
1.090E-06,-0.052
1.100E-06,-0.100
1.110E-06,-0.124
1.120E-06,-0.036
1.130E-06,0.088
1.140E-06,0.180
1.150E-06,0.028
1.160E-06,-0.116
1.170E-06,-0.192
1.180E-06,-0.068
1.190E-06,0.124
1.200E-06,0.268
1.210E-06,0.244
1.220E-06,0.100
1.230E-06,0.012
1.240E-06,-0.024
1.250E-06,0.056
1.260E-06,0.008
1.270E-06,-0.012
1.280E-06,-0.100
1.290E-06,-0.100
1.300E-06,-0.108
1.310E-06,-0.016
1.320E-06,0.004
1.330E-06,0.052
1.340E-06,0.156
1.350E-06,0.180
1.360E-06,0.140
1.370E-06,0.024
1.380E-06,-0.176
1.390E-06,-0.332
1.400E-06,-0.296
1.410E-06,-0.184
1.420E-06,-0.024
1.430E-06,0.092
1.440E-06,0.088
1.450E-06,0.016
1.460E-06,-0.028
1.470E-06,-0.060
1.480E-06,-0.064
1.490E-06,-0.064
1.500E-06,-0.036
1.510E-06,0.020
1.520E-06,0.112
1.530E-06,0.160
1.540E-06,0.144
1.550E-06,0.116
1.560E-06,0.092
1.570E-06,0.132
1.580E-06,0.144
1.590E-06,0.172
1.600E-06,0.128
1.610E-06,0.096
1.620E-06,0.028
1.630E-06,0.000
1.640E-06,0.008
1.650E-06,-0.008
1.660E-06,-0.008
1.670E-06,-0.140
1.680E-06,-0.264
1.690E-06,-0.308
1.700E-06,-0.112
1.710E-06,0.124
1.720E-06,0.216
1.730E-06,0.152
1.740E-06,-0.008
1.750E-06,-0.116
1.760E-06,-0.124
1.770E-06,-0.056
1.780E-06,0.072
1.790E-06,0.192
1.800E-06,0.180
1.810E-06,0.180
1.820E-06,0.096
1.830E-06,-0.036
1.840E-06,-0.076
1.850E-06,-0.036
1.860E-06,0.056
1.870E-06,0.144
1.880E-06,0.156
1.890E-06,-0.032
1.900E-06,-0.204
1.910E-06,-0.304
1.920E-06,-0.272
1.930E-06,-0.104
1.940E-06,0.156
1.950E-06,0.304
1.960E-06,0.320
1.970E-06,0.180
1.980E-06,-0.008
1.990E-06,-0.136
2.000E-06,-0.104
2.010E-06,0.064
2.020E-06,0.180
2.030E-06,0.176
2.040E-06,0.108
2.050E-06,0.008
2.060E-06,-0.080
2.070E-06,-0.132
2.080E-06,-0.092
2.090E-06,-0.048
2.100E-06,0.044
2.110E-06,0.108
2.120E-06,0.100
2.130E-06,0.028
2.140E-06,-0.044
2.150E-06,-0.092
2.160E-06,-0.092
2.170E-06,-0.052
2.180E-06,0.000
2.190E-06,0.056
2.200E-06,0.076
2.210E-06,0.076
2.220E-06,0.016
2.230E-06,-0.024
2.240E-06,0.004
2.250E-06,0.056
2.260E-06,0.092
2.270E-06,0.148
2.280E-06,0.168
2.290E-06,0.164
2.300E-06,0.140
2.310E-06,0.116
2.320E-06,0.092
2.330E-06,0.092
2.340E-06,0.132
2.350E-06,0.164
2.360E-06,0.184
2.370E-06,0.180
2.380E-06,0.160
2.390E-06,0.128
2.400E-06,0.116
2.410E-06,0.124
2.420E-06,0.148
2.430E-06,0.172
2.440E-06,0.196
2.450E-06,0.212
2.460E-06,0.208
2.470E-06,0.204
2.480E-06,0.192
2.490E-06,0.180
2.500E-06,0.140
2.510E-06,0.136
2.520E-06,0.156
2.530E-06,0.176
2.540E-06,0.192
2.550E-06,0.204
2.560E-06,0.196
2.570E-06,0.160
2.580E-06,0.136
2.590E-06,0.092
2.600E-06,0.108
2.610E-06,0.172
2.620E-06,0.232
2.630E-06,0.276
2.640E-06,0.280
2.650E-06,0.276
2.660E-06,0.212
2.670E-06,0.164
2.680E-06,0.124
2.690E-06,0.044
2.700E-06,0.008
2.710E-06,0.044
2.720E-06,0.156
2.730E-06,0.300
2.740E-06,0.368
2.750E-06,0.344
2.760E-06,-0.004
2.770E-06,-0.456
2.780E-06,-0.508
2.790E-06,-0.508
2.800E-06,-0.188
2.810E-06,0.204
2.820E-06,0.420
2.830E-06,-0.068
2.840E-06,-0.512
2.850E-06,-0.508
2.860E-06,-0.512
2.870E-06,-0.508
2.880E-06,-0.308
2.890E-06,-0.452
2.900E-06,-0.508
2.910E-06,-0.168
2.920E-06,-0.252
2.930E-06,-0.432
2.940E-06,-0.376
2.950E-06,-0.308
2.960E-06,-0.096
2.970E-06,0.284
2.980E-06,0.364
2.990E-06,0.048
3.000E-06,-0.368
3.010E-06,-0.508
3.020E-06,-0.320
3.030E-06,0.156
3.040E-06,0.512
3.050E-06,0.540
3.060E-06,0.416
3.070E-06,0.016
3.080E-06,-0.280
3.090E-06,-0.348
3.100E-06,-0.120
3.110E-06,0.232
3.120E-06,0.504
3.130E-06,0.540
3.140E-06,0.456
3.150E-06,0.212
3.160E-06,-0.144
3.170E-06,-0.276
3.180E-06,-0.164
3.190E-06,0.124
3.200E-06,0.380
3.210E-06,0.520
3.220E-06,0.404
3.230E-06,0.160
3.240E-06,-0.064
3.250E-06,-0.160
3.260E-06,-0.068
3.270E-06,0.144
3.280E-06,0.376
3.290E-06,0.508
3.300E-06,0.492
3.310E-06,0.300
3.320E-06,0.108
3.330E-06,-0.008
3.340E-06,0.028
