mediciones/5-15/47.5/WaveData47110.csv

#timebase=2000000(ps)
,#voltbase=100000(mv/100)
#size=4000
-8.400E-06,0.004
-8.390E-06,0.000
-8.380E-06,-0.004
-8.370E-06,0.004
-8.360E-06,0.008
-8.350E-06,0.008
-8.340E-06,0.004
-8.330E-06,0.000
-8.320E-06,0.000
-8.310E-06,-0.004
-8.300E-06,0.000
-8.290E-06,0.000
-8.280E-06,0.008
-8.270E-06,0.004
-8.260E-06,0.004
-8.250E-06,0.004
-8.240E-06,0.000
-8.230E-06,0.000
-8.220E-06,-0.004
-8.210E-06,0.004
-8.200E-06,0.000
-8.190E-06,0.008
-8.180E-06,0.004
-8.170E-06,0.004
-8.160E-06,0.000
-8.150E-06,0.004
-8.140E-06,0.004
-8.130E-06,-0.004
-8.120E-06,0.004
-8.110E-06,0.008
-8.100E-06,0.008
-8.090E-06,0.004
-8.080E-06,0.004
-8.070E-06,0.004
-8.060E-06,-0.004
-8.050E-06,0.004
-8.040E-06,0.004
-8.030E-06,0.008
-8.020E-06,0.004
-8.010E-06,0.000
-8.000E-06,-0.004
-7.990E-06,-0.004
-7.980E-06,0.000
-7.970E-06,0.008
-7.960E-06,0.016
-7.950E-06,0.004
-7.940E-06,0.004
-7.930E-06,-0.004
-7.920E-06,-0.004
-7.910E-06,-0.004
-7.900E-06,0.004
-7.890E-06,0.012
-7.880E-06,0.008
-7.870E-06,0.008
-7.860E-06,0.004
-7.850E-06,-0.004
-7.840E-06,-0.004
-7.830E-06,0.000
-7.820E-06,0.004
-7.810E-06,0.008
-7.800E-06,0.008
-7.790E-06,0.004
-7.780E-06,0.004
-7.770E-06,-0.004
-7.760E-06,-0.004
-7.750E-06,0.000
-7.740E-06,0.000
-7.730E-06,0.000
-7.720E-06,0.004
-7.710E-06,0.008
-7.700E-06,0.004
-7.690E-06,0.000
-7.680E-06,0.000
-7.670E-06,0.000
-7.660E-06,0.000
-7.650E-06,0.000
-7.640E-06,0.000
-7.630E-06,0.004
-7.620E-06,0.000
-7.610E-06,0.004
-7.600E-06,0.008
-7.590E-06,-0.004
-7.580E-06,0.004
-7.570E-06,0.004
-7.560E-06,0.000
-7.550E-06,0.000
-7.540E-06,0.000
-7.530E-06,0.004
-7.520E-06,0.004
-7.510E-06,0.008
-7.500E-06,0.012
-7.490E-06,0.004
-7.480E-06,-0.004
-7.470E-06,-0.004
-7.460E-06,-0.004
-7.450E-06,0.000
-7.440E-06,0.004
-7.430E-06,0.004
-7.420E-06,0.008
-7.410E-06,0.004
-7.400E-06,0.000
-7.390E-06,-0.004
-7.380E-06,-0.004
-7.370E-06,-0.004
-7.360E-06,0.000
-7.350E-06,0.008
-7.340E-06,0.008
-7.330E-06,0.008
-7.320E-06,0.000
-7.310E-06,0.004
-7.300E-06,-0.004
-7.290E-06,-0.004
-7.280E-06,0.000
-7.270E-06,0.000
-7.260E-06,0.004
-7.250E-06,0.008
-7.240E-06,0.008
-7.230E-06,0.004
-7.220E-06,0.000
-7.210E-06,-0.004
-7.200E-06,-0.004
-7.190E-06,0.000
-7.180E-06,0.004
-7.170E-06,0.004
-7.160E-06,0.004
-7.150E-06,0.008
-7.140E-06,0.008
-7.130E-06,0.000
-7.120E-06,0.000
-7.110E-06,0.000
-7.100E-06,-0.004
-7.090E-06,0.004
-7.080E-06,0.008
-7.070E-06,0.008
-7.060E-06,0.004
-7.050E-06,-0.004
-7.040E-06,-0.004
-7.030E-06,-0.008
-7.020E-06,-0.004
-7.010E-06,0.004
-7.000E-06,0.012
-6.990E-06,0.012
-6.980E-06,0.008
-6.970E-06,0.008
-6.960E-06,0.000
-6.950E-06,0.000
-6.940E-06,0.000
-6.930E-06,0.000
-6.920E-06,0.008
-6.910E-06,0.004
-6.900E-06,0.004
-6.890E-06,0.004
-6.880E-06,0.000
-6.870E-06,-0.008
-6.860E-06,-0.004
-6.850E-06,0.000
-6.840E-06,0.004
-6.830E-06,0.004
-6.820E-06,0.004
-6.810E-06,0.004
-6.800E-06,0.004
-6.790E-06,0.004
-6.780E-06,-0.004
-6.770E-06,0.000
-6.760E-06,0.004
-6.750E-06,0.004
-6.740E-06,0.004
-6.730E-06,0.004
-6.720E-06,0.000
-6.710E-06,0.004
-6.700E-06,-0.004
-6.690E-06,0.000
-6.680E-06,0.004
-6.670E-06,0.004
-6.660E-06,0.004
-6.650E-06,0.000
-6.640E-06,0.004
-6.630E-06,-0.004
-6.620E-06,0.000
-6.610E-06,0.004
-6.600E-06,0.004
-6.590E-06,0.000
-6.580E-06,0.004
-6.570E-06,0.000
-6.560E-06,0.000
-6.550E-06,0.000
-6.540E-06,0.000
-6.530E-06,0.004
-6.520E-06,0.008
-6.510E-06,0.008
-6.500E-06,0.008
-6.490E-06,0.004
-6.480E-06,0.004
-6.470E-06,0.000
-6.460E-06,-0.004
-6.450E-06,0.000
-6.440E-06,0.000
-6.430E-06,0.008
-6.420E-06,0.004
-6.410E-06,0.008
-6.400E-06,0.000
-6.390E-06,-0.004
-6.380E-06,0.000
-6.370E-06,0.004
-6.360E-06,0.004
-6.350E-06,0.012
-6.340E-06,0.016
-6.330E-06,0.008
-6.320E-06,0.004
-6.310E-06,0.000
-6.300E-06,0.000
-6.290E-06,0.000
-6.280E-06,-0.004
-6.270E-06,0.004
-6.260E-06,0.004
-6.250E-06,0.004
-6.240E-06,0.000
-6.230E-06,0.004
-6.220E-06,0.000
-6.210E-06,0.004
-6.200E-06,0.004
-6.190E-06,0.000
-6.180E-06,0.004
-6.170E-06,0.008
-6.160E-06,0.004
-6.150E-06,-0.004
-6.140E-06,-0.004
-6.130E-06,0.000
-6.120E-06,0.008
-6.110E-06,0.004
-6.100E-06,0.008
-6.090E-06,0.004
-6.080E-06,0.000
-6.070E-06,-0.008
-6.060E-06,-0.008
-6.050E-06,0.008
-6.040E-06,0.000
-6.030E-06,0.000
-6.020E-06,-0.004
-6.010E-06,-0.004
-6.000E-06,-0.008
-5.990E-06,0.004
-5.980E-06,0.020
-5.970E-06,0.020
-5.960E-06,-0.004
-5.950E-06,-0.012
-5.940E-06,-0.024
-5.930E-06,-0.012
-5.920E-06,0.016
-5.910E-06,0.028
-5.900E-06,0.020
-5.890E-06,0.004
-5.880E-06,-0.008
-5.870E-06,-0.008
-5.860E-06,-0.008
-5.850E-06,0.000
-5.840E-06,0.012
-5.830E-06,0.016
-5.820E-06,0.012
-5.810E-06,0.004
-5.800E-06,-0.004
-5.790E-06,0.000
-5.780E-06,0.000
-5.770E-06,0.000
-5.760E-06,0.008
-5.750E-06,0.008
-5.740E-06,0.008
-5.730E-06,0.004
-5.720E-06,0.004
-5.710E-06,0.004
-5.700E-06,0.000
-5.690E-06,-0.004
-5.680E-06,0.000
-5.670E-06,0.008
-5.660E-06,0.012
-5.650E-06,0.012
-5.640E-06,0.000
-5.630E-06,0.000
-5.620E-06,0.000
-5.610E-06,0.000
-5.600E-06,0.004
-5.590E-06,0.004
-5.580E-06,0.004
-5.570E-06,0.008
-5.560E-06,0.008
-5.550E-06,0.000
-5.540E-06,0.000
-5.530E-06,0.000
-5.520E-06,0.008
-5.510E-06,0.004
-5.500E-06,0.008
-5.490E-06,0.008
-5.480E-06,0.000
-5.470E-06,0.000
-5.460E-06,0.000
-5.450E-06,-0.004
-5.440E-06,0.004
-5.430E-06,0.012
-5.420E-06,0.012
-5.410E-06,0.012
-5.400E-06,0.008
-5.390E-06,-0.004
-5.380E-06,0.000
-5.370E-06,0.000
-5.360E-06,0.004
-5.350E-06,0.008
-5.340E-06,0.008
-5.330E-06,0.004
-5.320E-06,0.000
-5.310E-06,0.004
-5.300E-06,-0.004
-5.290E-06,0.000
-5.280E-06,-0.004
-5.270E-06,0.004
-5.260E-06,0.004
-5.250E-06,0.004
-5.240E-06,0.004
-5.230E-06,0.000
-5.220E-06,0.004
-5.210E-06,0.004
-5.200E-06,0.008
-5.190E-06,0.008
-5.180E-06,0.000
-5.170E-06,0.008
-5.160E-06,0.008
-5.150E-06,0.008
-5.140E-06,0.000
-5.130E-06,0.000
-5.120E-06,0.004
-5.110E-06,0.004
-5.100E-06,-0.004
-5.090E-06,-0.004
-5.080E-06,0.000
-5.070E-06,0.004
-5.060E-06,0.012
-5.050E-06,0.012
-5.040E-06,0.004
-5.030E-06,0.008
-5.020E-06,0.008
-5.010E-06,0.008
-5.000E-06,0.000
-4.990E-06,0.004
-4.980E-06,-0.004
-4.970E-06,0.000
-4.960E-06,0.000
-4.950E-06,0.000
-4.940E-06,0.000
-4.930E-06,-0.004
-4.920E-06,0.000
-4.910E-06,0.004
-4.900E-06,0.008
-4.890E-06,-0.008
-4.880E-06,0.000
-4.870E-06,0.000
-4.860E-06,0.008
-4.850E-06,0.016
-4.840E-06,0.016
-4.830E-06,0.012
-4.820E-06,-0.012
-4.810E-06,-0.004
-4.800E-06,-0.008
-4.790E-06,0.008
-4.780E-06,0.024
-4.770E-06,0.024
-4.760E-06,0.008
-4.750E-06,-0.008
-4.740E-06,-0.036
-4.730E-06,-0.036
-4.720E-06,-0.024
-4.710E-06,-0.008
-4.700E-06,0.024
-4.690E-06,0.048
-4.680E-06,0.048
-4.670E-06,0.028
-4.660E-06,-0.008
-4.650E-06,-0.048
-4.640E-06,-0.056
-4.630E-06,-0.012
-4.620E-06,0.036
-4.610E-06,0.060
-4.600E-06,0.040
-4.590E-06,0.008
-4.580E-06,-0.024
-4.570E-06,-0.040
-4.560E-06,-0.028
-4.550E-06,-0.004
-4.540E-06,0.028
-4.530E-06,0.032
-4.520E-06,0.024
-4.510E-06,0.008
-4.500E-06,-0.008
-4.490E-06,-0.016
-4.480E-06,-0.004
-4.470E-06,-0.004
-4.460E-06,0.008
-4.450E-06,0.020
-4.440E-06,0.020
-4.430E-06,0.012
-4.420E-06,0.000
-4.410E-06,-0.008
-4.400E-06,-0.008
-4.390E-06,0.000
-4.380E-06,0.008
-4.370E-06,0.012
-4.360E-06,0.012
-4.350E-06,0.008
-4.340E-06,-0.004
-4.330E-06,-0.008
-4.320E-06,-0.008
-4.310E-06,0.008
-4.300E-06,0.016
-4.290E-06,0.012
-4.280E-06,0.012
-4.270E-06,0.004
-4.260E-06,-0.004
-4.250E-06,-0.004
-4.240E-06,-0.004
-4.230E-06,0.004
-4.220E-06,0.016
-4.210E-06,0.016
-4.200E-06,0.012
-4.190E-06,0.004
-4.180E-06,-0.012
-4.170E-06,-0.012
-4.160E-06,-0.008
-4.150E-06,0.016
-4.140E-06,0.020
-4.130E-06,0.028
-4.120E-06,0.028
-4.110E-06,0.008
-4.100E-06,-0.008
-4.090E-06,-0.012
-4.080E-06,0.000
-4.070E-06,0.008
-4.060E-06,0.012
-4.050E-06,0.016
-4.040E-06,0.012
-4.030E-06,0.008
-4.020E-06,0.004
-4.010E-06,-0.008
-4.000E-06,-0.016
-3.990E-06,-0.036
-3.980E-06,-0.032
-3.970E-06,-0.008
-3.960E-06,0.016
-3.950E-06,0.044
-3.940E-06,0.036
-3.930E-06,0.012
-3.920E-06,-0.012
-3.910E-06,-0.028
-3.900E-06,-0.020
-3.890E-06,-0.004
-3.880E-06,0.012
-3.870E-06,0.024
-3.860E-06,0.020
-3.850E-06,0.012
-3.840E-06,0.000
-3.830E-06,-0.012
-3.820E-06,-0.016
-3.810E-06,-0.004
-3.800E-06,0.004
-3.790E-06,0.016
-3.780E-06,0.028
-3.770E-06,0.024
-3.760E-06,-0.004
-3.750E-06,-0.020
-3.740E-06,-0.024
-3.730E-06,-0.012
-3.720E-06,0.008
-3.710E-06,0.044
-3.700E-06,0.048
-3.690E-06,0.024
-3.680E-06,-0.008
-3.670E-06,-0.028
-3.660E-06,-0.024
-3.650E-06,-0.008
-3.640E-06,0.012
-3.630E-06,0.020
-3.620E-06,0.024
-3.610E-06,0.020
-3.600E-06,0.008
-3.590E-06,0.000
-3.580E-06,-0.004
-3.570E-06,-0.008
-3.560E-06,-0.004
-3.550E-06,0.008
-3.540E-06,0.024
-3.530E-06,0.020
-3.520E-06,0.012
-3.510E-06,0.000
-3.500E-06,-0.012
-3.490E-06,-0.020
-3.480E-06,-0.004
-3.470E-06,0.012
-3.460E-06,0.032
-3.450E-06,0.020
-3.440E-06,0.012
-3.430E-06,0.000
-3.420E-06,-0.004
-3.410E-06,-0.004
-3.400E-06,0.004
-3.390E-06,0.008
-3.380E-06,0.004
-3.370E-06,0.004
-3.360E-06,0.012
-3.350E-06,0.016
-3.340E-06,0.008
-3.330E-06,-0.004
-3.320E-06,-0.028
-3.310E-06,-0.020
-3.300E-06,-0.008
-3.290E-06,0.012
-3.280E-06,0.040
-3.270E-06,0.024
-3.260E-06,0.008
-3.250E-06,-0.004
-3.240E-06,-0.024
-3.230E-06,-0.024
-3.220E-06,-0.008
-3.210E-06,0.008
-3.200E-06,0.020
-3.190E-06,0.020
-3.180E-06,0.004
-3.170E-06,0.000
-3.160E-06,-0.008
-3.150E-06,-0.012
-3.140E-06,-0.004
-3.130E-06,0.000
-3.120E-06,0.004
-3.110E-06,0.004
-3.100E-06,0.012
-3.090E-06,0.012
-3.080E-06,0.004
-3.070E-06,-0.004
-3.060E-06,-0.008
-3.050E-06,-0.008
-3.040E-06,-0.004
-3.030E-06,0.008
-3.020E-06,0.020
-3.010E-06,0.012
-3.000E-06,0.012
-2.990E-06,-0.004
-2.980E-06,-0.008
-2.970E-06,-0.008
-2.960E-06,0.000
-2.950E-06,0.008
-2.940E-06,0.012
-2.930E-06,0.012
-2.920E-06,0.000
-2.910E-06,0.000
-2.900E-06,0.000
-2.890E-06,0.000
-2.880E-06,0.004
-2.870E-06,0.008
-2.860E-06,0.008
-2.850E-06,0.004
-2.840E-06,-0.004
-2.830E-06,0.000
-2.820E-06,0.000
-2.810E-06,0.000
-2.800E-06,0.004
-2.790E-06,0.008
-2.780E-06,0.008
-2.770E-06,0.004
-2.760E-06,0.004
-2.750E-06,-0.008
-2.740E-06,0.008
-2.730E-06,0.012
-2.720E-06,0.004
-2.710E-06,0.008
-2.700E-06,0.004
-2.690E-06,0.000
-2.680E-06,0.004
-2.670E-06,0.004
-2.660E-06,0.004
-2.650E-06,0.008
-2.640E-06,0.004
-2.630E-06,0.008
-2.620E-06,0.004
-2.610E-06,0.004
-2.600E-06,0.000
-2.590E-06,0.008
-2.580E-06,0.000
-2.570E-06,0.008
-2.560E-06,0.008
-2.550E-06,0.004
-2.540E-06,0.008
-2.530E-06,0.008
-2.520E-06,0.008
-2.510E-06,0.012
-2.500E-06,0.000
-2.490E-06,0.008
-2.480E-06,0.008
-2.470E-06,0.000
-2.460E-06,-0.008
-2.450E-06,-0.004
-2.440E-06,0.000
-2.430E-06,0.008
-2.420E-06,0.020
-2.410E-06,0.008
-2.400E-06,0.004
-2.390E-06,0.000
-2.380E-06,-0.004
-2.370E-06,-0.004
-2.360E-06,0.004
-2.350E-06,0.008
-2.340E-06,0.008
-2.330E-06,0.008
-2.320E-06,0.000
-2.310E-06,0.000
-2.300E-06,-0.004
-2.290E-06,0.000
-2.280E-06,0.000
-2.270E-06,0.008
-2.260E-06,0.008
-2.250E-06,0.008
-2.240E-06,0.004
-2.230E-06,-0.004
-2.220E-06,-0.004
-2.210E-06,-0.004
-2.200E-06,0.008
-2.190E-06,0.008
-2.180E-06,0.008
-2.170E-06,0.008
-2.160E-06,0.008
-2.150E-06,-0.004
-2.140E-06,0.000
-2.130E-06,0.004
-2.120E-06,0.008
-2.110E-06,0.012
-2.100E-06,0.004
-2.090E-06,0.004
-2.080E-06,0.008
-2.070E-06,0.012
-2.060E-06,0.008
-2.050E-06,0.012
-2.040E-06,0.012
-2.030E-06,0.012
-2.020E-06,0.004
-2.010E-06,0.012
-2.000E-06,0.012
-1.990E-06,0.012
-1.980E-06,0.004
-1.970E-06,-0.004
-1.960E-06,0.004
-1.950E-06,0.000
-1.940E-06,0.008
-1.930E-06,0.012
-1.920E-06,0.012
-1.910E-06,0.012
-1.900E-06,0.008
-1.890E-06,0.004
-1.880E-06,-0.008
-1.870E-06,-0.024
-1.860E-06,-0.028
-1.850E-06,-0.016
-1.840E-06,0.000
-1.830E-06,0.020
-1.820E-06,0.032
-1.810E-06,0.020
-1.800E-06,0.000
-1.790E-06,-0.020
-1.780E-06,-0.024
-1.770E-06,-0.004
-1.760E-06,0.008
-1.750E-06,0.024
-1.740E-06,0.024
-1.730E-06,0.008
-1.720E-06,0.000
-1.710E-06,-0.020
-1.700E-06,-0.016
-1.690E-06,-0.004
-1.680E-06,0.016
-1.670E-06,0.024
-1.660E-06,0.024
-1.650E-06,0.008
-1.640E-06,0.000
-1.630E-06,-0.008
-1.620E-06,-0.008
-1.610E-06,0.000
-1.600E-06,0.012
-1.590E-06,0.020
-1.580E-06,0.020
-1.570E-06,0.004
-1.560E-06,-0.004
-1.550E-06,-0.012
-1.540E-06,-0.004
-1.530E-06,0.008
-1.520E-06,0.016
-1.510E-06,0.024
-1.500E-06,0.020
-1.490E-06,0.004
-1.480E-06,0.000
-1.470E-06,-0.004
-1.460E-06,-0.004
-1.450E-06,0.008
-1.440E-06,0.016
-1.430E-06,0.008
-1.420E-06,0.004
-1.410E-06,0.012
-1.400E-06,0.000
-1.390E-06,0.000
-1.380E-06,0.000
-1.370E-06,0.008
-1.360E-06,0.004
-1.350E-06,0.008
-1.340E-06,0.012
-1.330E-06,0.004
-1.320E-06,0.004
-1.310E-06,0.004
-1.300E-06,0.004
-1.290E-06,0.008
-1.280E-06,0.012
-1.270E-06,0.012
-1.260E-06,0.008
-1.250E-06,0.004
-1.240E-06,0.008
-1.230E-06,0.004
-1.220E-06,0.012
-1.210E-06,0.020
-1.200E-06,0.024
-1.190E-06,0.016
-1.180E-06,0.008
-1.170E-06,-0.004
-1.160E-06,0.000
-1.150E-06,-0.004
-1.140E-06,0.012
-1.130E-06,0.020
-1.120E-06,0.028
-1.110E-06,0.020
-1.100E-06,0.016
-1.090E-06,0.012
-1.080E-06,0.008
-1.070E-06,0.012
-1.060E-06,0.012
-1.050E-06,0.012
-1.040E-06,0.012
-1.030E-06,0.008
-1.020E-06,0.000
-1.010E-06,-0.004
-1.000E-06,-0.004
-9.900E-07,0.008
-9.800E-07,0.012
-9.700E-07,0.016
-9.600E-07,0.008
-9.500E-07,0.008
-9.400E-07,0.000
-9.300E-07,-0.004
-9.200E-07,-0.008
-9.100E-07,-0.008
-9.000E-07,0.004
-8.900E-07,0.008
-8.800E-07,0.012
-8.700E-07,0.008
-8.600E-07,0.004
-8.500E-07,0.004
-8.400E-07,0.008
-8.300E-07,0.000
-8.200E-07,0.004
-8.100E-07,0.008
-8.000E-07,0.016
-7.900E-07,0.016
-7.800E-07,0.016
-7.700E-07,0.012
-7.600E-07,0.012
-7.500E-07,0.004
-7.400E-07,0.004
-7.300E-07,0.008
-7.200E-07,0.012
-7.100E-07,0.016
-7.000E-07,0.020
-6.900E-07,0.020
-6.800E-07,0.016
-6.700E-07,0.008
-6.600E-07,0.008
-6.500E-07,0.012
-6.400E-07,0.012
-6.300E-07,0.012
-6.200E-07,0.004
-6.100E-07,0.008
-6.000E-07,0.012
-5.900E-07,0.020
-5.800E-07,0.020
-5.700E-07,0.008
-5.600E-07,0.008
-5.500E-07,0.012
-5.400E-07,0.012
-5.300E-07,0.016
-5.200E-07,0.020
-5.100E-07,0.016
-5.000E-07,0.020
-4.900E-07,0.012
-4.800E-07,0.008
-4.700E-07,0.012
-4.600E-07,0.012
-4.500E-07,0.016
-4.400E-07,0.016
-4.300E-07,0.024
-4.200E-07,0.016
-4.100E-07,0.020
-4.000E-07,0.012
-3.900E-07,0.012
-3.800E-07,0.012
-3.700E-07,0.016
-3.600E-07,0.028
-3.500E-07,0.024
-3.400E-07,0.028
-3.300E-07,0.028
-3.200E-07,0.016
-3.100E-07,0.004
-3.000E-07,0.008
-2.900E-07,0.008
-2.800E-07,0.024
-2.700E-07,0.024
-2.600E-07,0.032
-2.500E-07,0.032
-2.400E-07,0.012
-2.300E-07,0.004
-2.200E-07,-0.004
-2.100E-07,0.012
-2.000E-07,0.020
-1.900E-07,0.028
-1.800E-07,0.028
-1.700E-07,0.020
-1.600E-07,0.012
-1.500E-07,0.012
-1.400E-07,0.020
-1.300E-07,0.024
-1.200E-07,0.024
-1.100E-07,0.020
-1.000E-07,0.012
-9.000E-08,-0.004
-8.000E-08,-0.044
-7.000E-08,-0.316
-6.000E-08,-0.512
-5.000E-08,-0.512
-4.000E-08,-0.332
-3.000E-08,0.128
-2.000E-08,0.408
-1.000E-08,0.540
0.000E+00,0.284
1.000E-08,-0.136
2.000E-08,-0.432
3.000E-08,-0.436
4.000E-08,-0.152
5.000E-08,0.152
6.000E-08,0.344
7.000E-08,0.304
8.000E-08,0.172
9.000E-08,-0.076
1.000E-07,-0.232
1.100E-07,-0.268
1.200E-07,-0.112
1.300E-07,0.068
1.400E-07,0.232
1.500E-07,0.268
1.600E-07,0.184
1.700E-07,0.036
1.800E-07,-0.104
1.900E-07,-0.128
2.000E-07,-0.088
2.100E-07,0.052
2.200E-07,0.164
2.300E-07,0.232
2.400E-07,0.168
2.500E-07,0.048
2.600E-07,-0.052
2.700E-07,-0.092
2.800E-07,-0.052
2.900E-07,0.004
3.000E-07,0.084
3.100E-07,0.120
3.200E-07,0.108
3.300E-07,0.056
3.400E-07,-0.004
3.500E-07,-0.044
3.600E-07,-0.020
3.700E-07,0.024
3.800E-07,0.072
3.900E-07,0.096
4.000E-07,0.080
4.100E-07,0.040
4.200E-07,0.000
4.300E-07,-0.012
4.400E-07,0.000
4.500E-07,0.016
4.600E-07,0.020
4.700E-07,0.000
4.800E-07,-0.052
4.900E-07,-0.152
5.000E-07,-0.208
5.100E-07,-0.144
5.200E-07,-0.020
5.300E-07,0.104
5.400E-07,0.240
5.500E-07,0.236
5.600E-07,0.088
5.700E-07,-0.188
5.800E-07,-0.492
5.900E-07,-0.512
6.000E-07,-0.456
6.100E-07,-0.036
6.200E-07,0.316
6.300E-07,0.484
6.400E-07,0.356
6.500E-07,0.048
6.600E-07,-0.256
6.700E-07,-0.376
6.800E-07,-0.268
6.900E-07,-0.008
7.000E-07,0.240
7.100E-07,0.336
7.200E-07,0.268
7.300E-07,0.060
7.400E-07,-0.132
7.500E-07,-0.216
7.600E-07,-0.152
7.700E-07,-0.020
7.800E-07,0.132
7.900E-07,0.216
8.000E-07,0.208
8.100E-07,0.124
8.200E-07,-0.016
8.300E-07,-0.112
8.400E-07,-0.116
8.500E-07,-0.024
8.600E-07,0.084
8.700E-07,0.164
8.800E-07,0.168
8.900E-07,0.104
9.000E-07,0.008
9.100E-07,-0.036
9.200E-07,-0.048
9.300E-07,-0.008
9.400E-07,0.048
9.500E-07,0.072
9.600E-07,0.044
9.700E-07,-0.036
9.800E-07,-0.100
9.900E-07,-0.124
1.000E-06,-0.064
1.010E-06,0.060
1.020E-06,0.144
1.030E-06,0.168
1.040E-06,0.112
1.050E-06,0.008
1.060E-06,-0.084
1.070E-06,-0.160
1.080E-06,-0.156
1.090E-06,-0.064
1.100E-06,0.044
1.110E-06,0.120
1.120E-06,0.148
1.130E-06,0.120
1.140E-06,0.028
1.150E-06,-0.040
1.160E-06,-0.072
1.170E-06,-0.040
1.180E-06,0.032
1.190E-06,0.100
1.200E-06,0.132
1.210E-06,0.084
1.220E-06,0.008
1.230E-06,-0.052
1.240E-06,-0.076
1.250E-06,-0.056
1.260E-06,-0.024
1.270E-06,0.000
1.280E-06,0.000
1.290E-06,0.008
1.300E-06,0.020
1.310E-06,0.036
1.320E-06,0.008
1.330E-06,-0.032
1.340E-06,-0.160
1.350E-06,-0.224
1.360E-06,-0.228
1.370E-06,-0.160
1.380E-06,-0.032
1.390E-06,0.176
1.400E-06,0.268
1.410E-06,0.236
1.420E-06,0.072
1.430E-06,-0.108
1.440E-06,-0.284
1.450E-06,-0.328
1.460E-06,-0.296
1.470E-06,-0.120
1.480E-06,0.132
1.490E-06,0.300
1.500E-06,0.316
1.510E-06,0.140
1.520E-06,-0.060
1.530E-06,-0.208
1.540E-06,-0.172
1.550E-06,-0.064
1.560E-06,0.108
1.570E-06,0.212
1.580E-06,0.208
1.590E-06,0.092
1.600E-06,-0.112
1.610E-06,-0.264
1.620E-06,-0.300
1.630E-06,-0.180
1.640E-06,-0.020
1.650E-06,0.152
1.660E-06,0.220
1.670E-06,0.188
1.680E-06,0.060
1.690E-06,-0.092
1.700E-06,-0.212
1.710E-06,-0.216
1.720E-06,-0.104
1.730E-06,0.060
1.740E-06,0.176
1.750E-06,0.188
1.760E-06,0.112
1.770E-06,-0.024
1.780E-06,-0.108
1.790E-06,-0.128
1.800E-06,-0.072
1.810E-06,0.020
1.820E-06,0.112
1.830E-06,0.144
1.840E-06,0.124
1.850E-06,0.060
1.860E-06,-0.016
1.870E-06,-0.056
1.880E-06,-0.056
1.890E-06,-0.008
1.900E-06,0.064
1.910E-06,0.124
1.920E-06,0.136
1.930E-06,0.100
1.940E-06,0.040
1.950E-06,-0.016
1.960E-06,-0.040
1.970E-06,-0.024
1.980E-06,0.028
1.990E-06,0.072
2.000E-06,0.108
2.010E-06,0.104
2.020E-06,0.064
2.030E-06,0.016
2.040E-06,-0.020
2.050E-06,-0.024
2.060E-06,0.004
2.070E-06,0.044
2.080E-06,0.080
2.090E-06,0.084
2.100E-06,0.056
2.110E-06,0.008
2.120E-06,-0.036
2.130E-06,-0.088
2.140E-06,-0.140
2.150E-06,-0.164
2.160E-06,-0.148
2.170E-06,-0.080
2.180E-06,-0.012
2.190E-06,0.060
2.200E-06,0.080
2.210E-06,0.048
2.220E-06,-0.016
2.230E-06,-0.072
2.240E-06,-0.044
2.250E-06,0.012
2.260E-06,0.060
2.270E-06,0.072
2.280E-06,0.084
2.290E-06,0.048
2.300E-06,0.020
2.310E-06,0.004
2.320E-06,0.004
2.330E-06,0.024
2.340E-06,0.072
2.350E-06,0.096
2.360E-06,0.100
2.370E-06,0.076
2.380E-06,0.032
2.390E-06,-0.004
2.400E-06,-0.032
2.410E-06,-0.024
2.420E-06,0.012
2.430E-06,0.068
2.440E-06,0.108
2.450E-06,0.108
2.460E-06,0.072
2.470E-06,-0.008
2.480E-06,-0.056
2.490E-06,-0.096
2.500E-06,-0.068
2.510E-06,-0.020
2.520E-06,0.040
2.530E-06,0.076
2.540E-06,0.076
2.550E-06,0.060
2.560E-06,0.028
2.570E-06,0.004
2.580E-06,0.008
2.590E-06,0.020
2.600E-06,0.024
2.610E-06,0.024
2.620E-06,0.032
2.630E-06,0.060
2.640E-06,0.076
2.650E-06,0.072
2.660E-06,0.056
2.670E-06,0.012
2.680E-06,-0.032
2.690E-06,-0.180
2.700E-06,-0.388
2.710E-06,-0.508
2.720E-06,-0.508
2.730E-06,-0.316
2.740E-06,0.140
2.750E-06,0.464
2.760E-06,0.428
2.770E-06,0.192
2.780E-06,-0.076
2.790E-06,-0.260
2.800E-06,-0.224
2.810E-06,-0.088
2.820E-06,0.056
2.830E-06,0.140
2.840E-06,0.144
2.850E-06,0.020
2.860E-06,-0.088
2.870E-06,-0.148
2.880E-06,-0.108
2.890E-06,-0.024
2.900E-06,0.072
2.910E-06,0.120
2.920E-06,0.096
2.930E-06,0.060
2.940E-06,-0.012
2.950E-06,-0.056
2.960E-06,-0.048
2.970E-06,0.004
2.980E-06,0.068
2.990E-06,0.104
3.000E-06,0.092
3.010E-06,0.060
3.020E-06,0.040
3.030E-06,0.024
3.040E-06,0.040
3.050E-06,0.044
3.060E-06,0.064
3.070E-06,0.068
3.080E-06,0.040
3.090E-06,-0.012
3.100E-06,-0.052
3.110E-06,-0.088
3.120E-06,-0.096
3.130E-06,-0.068
3.140E-06,-0.020
3.150E-06,-0.020
3.160E-06,-0.040
3.170E-06,-0.044
3.180E-06,-0.072
3.190E-06,-0.068
3.200E-06,-0.028
3.210E-06,0.012
3.220E-06,0.012
3.230E-06,0.008
3.240E-06,-0.004
3.250E-06,0.000
3.260E-06,0.012
3.270E-06,0.008
3.280E-06,-0.004
3.290E-06,0.000
3.300E-06,-0.008
3.310E-06,0.000
3.320E-06,0.012
