mediciones/5-15/47.5/WaveData47131.csv

#timebase=2000000(ps)
,#voltbase=100000(mv/100)
#size=4000
-8.400E-06,0.004
-8.390E-06,0.008
-8.380E-06,-0.004
-8.370E-06,0.004
-8.360E-06,0.000
-8.350E-06,0.004
-8.340E-06,0.008
-8.330E-06,-0.004
-8.320E-06,-0.004
-8.310E-06,0.004
-8.300E-06,0.004
-8.290E-06,0.008
-8.280E-06,0.012
-8.270E-06,0.012
-8.260E-06,0.008
-8.250E-06,0.004
-8.240E-06,-0.004
-8.230E-06,-0.012
-8.220E-06,-0.004
-8.210E-06,0.000
-8.200E-06,0.016
-8.190E-06,0.020
-8.180E-06,0.012
-8.170E-06,0.000
-8.160E-06,-0.024
-8.150E-06,-0.004
-8.140E-06,-0.004
-8.130E-06,0.012
-8.120E-06,0.012
-8.110E-06,0.016
-8.100E-06,0.012
-8.090E-06,-0.004
-8.080E-06,-0.008
-8.070E-06,0.000
-8.060E-06,0.004
-8.050E-06,0.016
-8.040E-06,0.000
-8.030E-06,0.000
-8.020E-06,0.004
-8.010E-06,-0.008
-8.000E-06,0.012
-7.990E-06,0.012
-7.980E-06,0.008
-7.970E-06,-0.008
-7.960E-06,-0.008
-7.950E-06,-0.008
-7.940E-06,0.000
-7.930E-06,0.008
-7.920E-06,0.012
-7.910E-06,0.008
-7.900E-06,0.000
-7.890E-06,0.000
-7.880E-06,-0.008
-7.870E-06,0.004
-7.860E-06,0.004
-7.850E-06,0.008
-7.840E-06,0.004
-7.830E-06,0.008
-7.820E-06,-0.004
-7.810E-06,-0.004
-7.800E-06,0.004
-7.790E-06,0.004
-7.780E-06,0.004
-7.770E-06,0.000
-7.760E-06,0.008
-7.750E-06,-0.004
-7.740E-06,0.004
-7.730E-06,0.008
-7.720E-06,-0.004
-7.710E-06,0.000
-7.700E-06,-0.004
-7.690E-06,0.008
-7.680E-06,0.008
-7.670E-06,0.012
-7.660E-06,0.012
-7.650E-06,-0.008
-7.640E-06,0.000
-7.630E-06,0.000
-7.620E-06,0.000
-7.610E-06,0.000
-7.600E-06,0.012
-7.590E-06,0.008
-7.580E-06,0.008
-7.570E-06,0.000
-7.560E-06,-0.004
-7.550E-06,0.000
-7.540E-06,0.000
-7.530E-06,0.004
-7.520E-06,0.012
-7.510E-06,0.012
-7.500E-06,0.004
-7.490E-06,-0.004
-7.480E-06,-0.008
-7.470E-06,0.004
-7.460E-06,0.000
-7.450E-06,0.004
-7.440E-06,0.012
-7.430E-06,0.012
-7.420E-06,0.004
-7.410E-06,-0.004
-7.400E-06,0.000
-7.390E-06,0.000
-7.380E-06,0.008
-7.370E-06,0.008
-7.360E-06,0.008
-7.350E-06,0.004
-7.340E-06,0.004
-7.330E-06,0.008
-7.320E-06,0.000
-7.310E-06,0.004
-7.300E-06,0.004
-7.290E-06,0.008
-7.280E-06,0.004
-7.270E-06,0.008
-7.260E-06,0.004
-7.250E-06,0.008
-7.240E-06,0.004
-7.230E-06,0.008
-7.220E-06,0.004
-7.210E-06,0.004
-7.200E-06,0.004
-7.190E-06,0.004
-7.180E-06,0.004
-7.170E-06,0.008
-7.160E-06,0.012
-7.150E-06,0.012
-7.140E-06,0.004
-7.130E-06,0.008
-7.120E-06,0.000
-7.110E-06,-0.004
-7.100E-06,-0.004
-7.090E-06,0.008
-7.080E-06,0.012
-7.070E-06,0.008
-7.060E-06,0.008
-7.050E-06,0.008
-7.040E-06,0.000
-7.030E-06,0.004
-7.020E-06,0.004
-7.010E-06,0.012
-7.000E-06,0.020
-6.990E-06,0.024
-6.980E-06,0.024
-6.970E-06,0.012
-6.960E-06,0.000
-6.950E-06,-0.012
-6.940E-06,-0.024
-6.930E-06,-0.020
-6.920E-06,0.000
-6.910E-06,0.032
-6.900E-06,0.040
-6.890E-06,0.036
-6.880E-06,0.008
-6.870E-06,-0.008
-6.860E-06,-0.012
-6.850E-06,-0.008
-6.840E-06,0.024
-6.830E-06,0.028
-6.820E-06,0.020
-6.810E-06,0.008
-6.800E-06,-0.008
-6.790E-06,-0.036
-6.780E-06,-0.036
-6.770E-06,-0.008
-6.760E-06,0.020
-6.750E-06,0.040
-6.740E-06,0.048
-6.730E-06,0.024
-6.720E-06,-0.008
-6.710E-06,-0.040
-6.700E-06,-0.040
-6.690E-06,-0.016
-6.680E-06,0.012
-6.670E-06,0.048
-6.660E-06,0.048
-6.650E-06,0.020
-6.640E-06,-0.004
-6.630E-06,-0.032
-6.620E-06,-0.024
-6.610E-06,-0.004
-6.600E-06,0.016
-6.590E-06,0.028
-6.580E-06,0.020
-6.570E-06,0.012
-6.560E-06,0.000
-6.550E-06,-0.004
-6.540E-06,-0.004
-6.530E-06,0.012
-6.520E-06,0.016
-6.510E-06,0.020
-6.500E-06,0.020
-6.490E-06,0.008
-6.480E-06,-0.004
-6.470E-06,-0.004
-6.460E-06,0.000
-6.450E-06,0.012
-6.440E-06,0.024
-6.430E-06,0.040
-6.420E-06,0.044
-6.410E-06,0.032
-6.400E-06,0.032
-6.390E-06,0.020
-6.380E-06,0.020
-6.370E-06,0.028
-6.360E-06,0.044
-6.350E-06,0.056
-6.340E-06,0.068
-6.330E-06,0.036
-6.320E-06,-0.004
-6.310E-06,-0.064
-6.300E-06,-0.104
-6.290E-06,-0.220
-6.280E-06,-0.156
-6.270E-06,-0.076
-6.260E-06,0.052
-6.250E-06,0.140
-6.240E-06,0.148
-6.230E-06,0.068
-6.220E-06,-0.084
-6.210E-06,-0.132
-6.200E-06,-0.108
-6.190E-06,0.000
-6.180E-06,0.068
-6.170E-06,0.108
-6.160E-06,0.056
-6.150E-06,0.004
-6.140E-06,-0.040
-6.130E-06,-0.040
-6.120E-06,-0.024
-6.110E-06,-0.004
-6.100E-06,0.028
-6.090E-06,0.032
-6.080E-06,0.032
-6.070E-06,0.016
-6.060E-06,0.012
-6.050E-06,-0.012
-6.040E-06,-0.016
-6.030E-06,-0.028
-6.020E-06,-0.020
-6.010E-06,0.008
-6.000E-06,0.024
-5.990E-06,0.028
-5.980E-06,0.016
-5.970E-06,0.004
-5.960E-06,-0.020
-5.950E-06,-0.012
-5.940E-06,0.000
-5.930E-06,0.024
-5.920E-06,0.036
-5.910E-06,0.036
-5.900E-06,0.024
-5.890E-06,0.020
-5.880E-06,0.032
-5.870E-06,0.012
-5.860E-06,-0.008
-5.850E-06,-0.020
-5.840E-06,-0.028
-5.830E-06,-0.024
-5.820E-06,0.016
-5.810E-06,0.048
-5.800E-06,0.044
-5.790E-06,0.028
-5.780E-06,-0.008
-5.770E-06,-0.024
-5.760E-06,-0.036
-5.750E-06,-0.020
-5.740E-06,-0.004
-5.730E-06,0.036
-5.720E-06,0.060
-5.710E-06,0.072
-5.700E-06,0.068
-5.690E-06,-0.024
-5.680E-06,-0.072
-5.670E-06,-0.112
-5.660E-06,-0.100
-5.650E-06,-0.052
-5.640E-06,0.056
-5.630E-06,0.100
-5.620E-06,0.068
-5.610E-06,0.028
-5.600E-06,-0.028
-5.590E-06,-0.056
-5.580E-06,-0.068
-5.570E-06,-0.036
-5.560E-06,0.020
-5.550E-06,0.056
-5.540E-06,0.056
-5.530E-06,0.040
-5.520E-06,0.012
-5.510E-06,-0.020
-5.500E-06,-0.052
-5.490E-06,-0.048
-5.480E-06,-0.016
-5.470E-06,0.024
-5.460E-06,0.056
-5.450E-06,0.052
-5.440E-06,0.028
-5.430E-06,-0.004
-5.420E-06,-0.044
-5.410E-06,-0.044
-5.400E-06,-0.036
-5.390E-06,0.000
-5.380E-06,0.028
-5.370E-06,0.052
-5.360E-06,0.052
-5.350E-06,0.024
-5.340E-06,-0.012
-5.330E-06,-0.032
-5.320E-06,-0.036
-5.310E-06,-0.008
-5.300E-06,0.028
-5.290E-06,0.040
-5.280E-06,0.048
-5.270E-06,0.028
-5.260E-06,0.000
-5.250E-06,-0.024
-5.240E-06,-0.032
-5.230E-06,-0.008
-5.220E-06,0.024
-5.210E-06,0.048
-5.200E-06,0.056
-5.190E-06,0.036
-5.180E-06,0.012
-5.170E-06,-0.008
-5.160E-06,-0.020
-5.150E-06,0.000
-5.140E-06,0.020
-5.130E-06,0.028
-5.120E-06,0.032
-5.110E-06,0.016
-5.100E-06,0.000
-5.090E-06,-0.004
-5.080E-06,0.000
-5.070E-06,0.016
-5.060E-06,0.028
-5.050E-06,0.028
-5.040E-06,0.020
-5.030E-06,0.016
-5.020E-06,0.016
-5.010E-06,0.016
-5.000E-06,0.048
-4.990E-06,0.012
-4.980E-06,-0.088
-4.970E-06,-0.104
-4.960E-06,-0.144
-4.950E-06,-0.052
-4.940E-06,0.060
-4.930E-06,0.096
-4.920E-06,0.072
-4.910E-06,-0.040
-4.900E-06,-0.064
-4.890E-06,-0.096
-4.880E-06,-0.044
-4.870E-06,0.012
-4.860E-06,0.060
-4.850E-06,0.064
-4.840E-06,0.024
-4.830E-06,-0.028
-4.820E-06,-0.056
-4.810E-06,-0.016
-4.800E-06,0.000
-4.790E-06,0.036
-4.780E-06,0.016
-4.770E-06,0.012
-4.760E-06,-0.004
-4.750E-06,0.012
-4.740E-06,0.004
-4.730E-06,0.000
-4.720E-06,-0.004
-4.710E-06,-0.008
-4.700E-06,0.004
-4.690E-06,0.012
-4.680E-06,0.028
-4.670E-06,0.024
-4.660E-06,0.016
-4.650E-06,-0.008
-4.640E-06,-0.008
-4.630E-06,-0.012
-4.620E-06,0.004
-4.610E-06,0.020
-4.600E-06,0.028
-4.590E-06,0.032
-4.580E-06,0.020
-4.570E-06,0.016
-4.560E-06,0.012
-4.550E-06,0.016
-4.540E-06,0.016
-4.530E-06,0.028
-4.520E-06,0.024
-4.510E-06,0.028
-4.500E-06,0.044
-4.490E-06,0.044
-4.480E-06,0.052
-4.470E-06,0.036
-4.460E-06,0.028
-4.450E-06,0.028
-4.440E-06,0.028
-4.430E-06,0.024
-4.420E-06,0.028
-4.410E-06,0.028
-4.400E-06,0.032
-4.390E-06,0.044
-4.380E-06,0.024
-4.370E-06,-0.068
-4.360E-06,-0.100
-4.350E-06,-0.128
-4.340E-06,-0.064
-4.330E-06,-0.080
-4.320E-06,-0.024
-4.310E-06,-0.060
-4.300E-06,-0.120
-4.290E-06,-0.024
-4.280E-06,0.108
-4.270E-06,0.220
-4.260E-06,0.052
-4.250E-06,-0.112
-4.240E-06,-0.220
-4.230E-06,-0.148
-4.220E-06,0.008
-4.210E-06,0.184
-4.200E-06,0.200
-4.190E-06,0.100
-4.180E-06,-0.048
-4.170E-06,-0.168
-4.160E-06,-0.160
-4.150E-06,-0.076
-4.140E-06,0.088
-4.130E-06,0.144
-4.120E-06,0.148
-4.110E-06,0.044
-4.100E-06,-0.040
-4.090E-06,-0.104
-4.080E-06,-0.096
-4.070E-06,-0.032
-4.060E-06,0.032
-4.050E-06,0.092
-4.040E-06,0.084
-4.030E-06,0.060
-4.020E-06,-0.012
-4.010E-06,-0.060
-4.000E-06,-0.072
-3.990E-06,-0.028
-3.980E-06,0.024
-3.970E-06,0.088
-3.960E-06,0.100
-3.950E-06,0.060
-3.940E-06,0.012
-3.930E-06,-0.036
-3.920E-06,-0.040
-3.910E-06,0.000
-3.900E-06,0.056
-3.890E-06,0.100
-3.880E-06,0.124
-3.870E-06,0.080
-3.860E-06,0.020
-3.850E-06,-0.032
-3.840E-06,-0.036
-3.830E-06,-0.016
-3.820E-06,0.024
-3.810E-06,0.068
-3.800E-06,0.076
-3.790E-06,-0.492
-3.780E-06,-0.380
-3.770E-06,-0.268
-3.760E-06,0.232
-3.750E-06,0.264
-3.740E-06,0.324
-3.730E-06,0.144
-3.720E-06,-0.140
-3.710E-06,-0.132
-3.700E-06,-0.240
-3.690E-06,-0.020
-3.680E-06,0.000
-3.670E-06,0.188
-3.660E-06,0.092
-3.650E-06,0.152
-3.640E-06,0.000
-3.630E-06,-0.064
-3.620E-06,-0.132
-3.610E-06,-0.100
-3.600E-06,0.008
-3.590E-06,0.044
-3.580E-06,0.164
-3.570E-06,0.088
-3.560E-06,0.088
-3.550E-06,-0.072
-3.540E-06,-0.080
-3.530E-06,-0.136
-3.520E-06,-0.064
-3.510E-06,-0.008
-3.500E-06,0.072
-3.490E-06,0.116
-3.480E-06,0.080
-3.470E-06,0.040
-3.460E-06,-0.068
-3.450E-06,-0.088
-3.440E-06,-0.116
-3.430E-06,-0.020
-3.420E-06,0.028
-3.410E-06,0.100
-3.400E-06,0.072
-3.390E-06,0.024
-3.380E-06,-0.036
-3.370E-06,-0.076
-3.360E-06,-0.060
-3.350E-06,-0.036
-3.340E-06,0.032
-3.330E-06,0.044
-3.320E-06,0.076
-3.310E-06,0.032
-3.300E-06,0.012
-3.290E-06,-0.040
-3.280E-06,-0.056
-3.270E-06,-0.048
-3.260E-06,-0.008
-3.250E-06,0.036
-3.240E-06,0.056
-3.230E-06,0.060
-3.220E-06,0.020
-3.210E-06,-0.008
-3.200E-06,-0.048
-3.190E-06,-0.040
-3.180E-06,-0.024
-3.170E-06,0.024
-3.160E-06,0.052
-3.150E-06,0.056
-3.140E-06,0.040
-3.130E-06,-0.004
-3.120E-06,-0.024
-3.110E-06,-0.040
-3.100E-06,-0.020
-3.090E-06,0.004
-3.080E-06,0.036
-3.070E-06,0.048
-3.060E-06,0.044
-3.050E-06,0.028
-3.040E-06,-0.004
-3.030E-06,-0.020
-3.020E-06,-0.024
-3.010E-06,0.000
-3.000E-06,0.028
-2.990E-06,0.056
-2.980E-06,0.060
-2.970E-06,0.052
-2.960E-06,0.024
-2.950E-06,-0.004
-2.940E-06,-0.008
-2.930E-06,-0.012
-2.920E-06,0.000
-2.910E-06,0.008
-2.900E-06,-0.012
-2.890E-06,0.000
-2.880E-06,-0.104
-2.870E-06,-0.072
-2.860E-06,0.004
-2.850E-06,0.056
-2.840E-06,0.068
-2.830E-06,0.012
-2.820E-06,-0.008
-2.810E-06,-0.052
-2.800E-06,-0.028
-2.790E-06,-0.004
-2.780E-06,0.036
-2.770E-06,0.024
-2.760E-06,0.008
-2.750E-06,-0.008
-2.740E-06,-0.040
-2.730E-06,-0.040
-2.720E-06,-0.012
-2.710E-06,0.032
-2.700E-06,0.036
-2.690E-06,0.036
-2.680E-06,0.000
-2.670E-06,-0.004
-2.660E-06,-0.028
-2.650E-06,-0.012
-2.640E-06,0.000
-2.630E-06,0.028
-2.620E-06,0.032
-2.610E-06,0.028
-2.600E-06,0.020
-2.590E-06,-0.008
-2.580E-06,-0.012
-2.570E-06,-0.016
-2.560E-06,0.004
-2.550E-06,0.024
-2.540E-06,0.032
-2.530E-06,0.028
-2.520E-06,0.012
-2.510E-06,-0.004
-2.500E-06,-0.008
-2.490E-06,-0.004
-2.480E-06,0.016
-2.470E-06,0.036
-2.460E-06,0.032
-2.450E-06,0.020
-2.440E-06,0.012
-2.430E-06,0.004
-2.420E-06,0.004
-2.410E-06,0.012
-2.400E-06,0.020
-2.390E-06,0.016
-2.380E-06,0.016
-2.370E-06,0.012
-2.360E-06,0.016
-2.350E-06,0.000
-2.340E-06,0.004
-2.330E-06,0.004
-2.320E-06,0.008
-2.310E-06,0.008
-2.300E-06,0.020
-2.290E-06,0.032
-2.280E-06,0.028
-2.270E-06,0.024
-2.260E-06,0.012
-2.250E-06,-0.004
-2.240E-06,0.000
-2.230E-06,0.020
-2.220E-06,0.032
-2.210E-06,0.052
-2.200E-06,0.056
-2.190E-06,0.040
-2.180E-06,0.032
-2.170E-06,0.000
-2.160E-06,-0.012
-2.150E-06,0.008
-2.140E-06,0.044
-2.130E-06,0.076
-2.120E-06,0.100
-2.110E-06,0.084
-2.100E-06,0.020
-2.090E-06,-0.044
-2.080E-06,-0.068
-2.070E-06,-0.044
-2.060E-06,-0.028
-2.050E-06,0.016
-2.040E-06,0.012
-2.030E-06,0.008
-2.020E-06,-0.032
-2.010E-06,-0.052
-2.000E-06,-0.052
-1.990E-06,-0.056
-1.980E-06,-0.064
-1.970E-06,-0.028
-1.960E-06,0.020
-1.950E-06,0.056
-1.940E-06,0.044
-1.930E-06,0.008
-1.920E-06,-0.004
-1.910E-06,-0.068
-1.900E-06,-0.080
-1.890E-06,-0.056
-1.880E-06,-0.004
-1.870E-06,0.028
-1.860E-06,0.044
-1.850E-06,0.024
-1.840E-06,-0.016
-1.830E-06,-0.020
-1.820E-06,-0.032
-1.810E-06,-0.008
-1.800E-06,0.016
-1.790E-06,0.036
-1.780E-06,0.044
-1.770E-06,0.052
-1.760E-06,0.044
-1.750E-06,0.024
-1.740E-06,0.012
-1.730E-06,0.004
-1.720E-06,0.008
-1.710E-06,0.020
-1.700E-06,0.032
-1.690E-06,0.036
-1.680E-06,0.032
-1.670E-06,0.036
-1.660E-06,0.032
-1.650E-06,0.040
-1.640E-06,0.044
-1.630E-06,0.056
-1.620E-06,0.056
-1.610E-06,0.064
-1.600E-06,0.060
-1.590E-06,0.056
-1.580E-06,0.044
-1.570E-06,0.044
-1.560E-06,0.052
-1.550E-06,0.056
-1.540E-06,0.052
-1.530E-06,0.060
-1.520E-06,0.028
-1.510E-06,0.016
-1.500E-06,0.016
-1.490E-06,0.024
-1.480E-06,0.040
-1.470E-06,0.056
-1.460E-06,0.064
-1.450E-06,0.068
-1.440E-06,0.072
-1.430E-06,0.068
-1.420E-06,0.072
-1.410E-06,0.076
-1.400E-06,0.060
-1.390E-06,0.048
-1.380E-06,0.052
-1.370E-06,0.056
-1.360E-06,0.088
-1.350E-06,0.136
-1.340E-06,0.180
-1.330E-06,0.192
-1.320E-06,0.180
-1.310E-06,0.168
-1.300E-06,0.064
-1.290E-06,-0.144
-1.280E-06,-0.348
-1.270E-06,-0.512
-1.260E-06,-0.512
-1.250E-06,-0.428
-1.240E-06,-0.204
-1.230E-06,0.044
-1.220E-06,0.228
-1.210E-06,0.224
-1.200E-06,-0.004
-1.190E-06,-0.240
-1.180E-06,-0.284
-1.170E-06,-0.152
-1.160E-06,0.052
-1.150E-06,0.188
-1.140E-06,0.212
-1.130E-06,0.132
-1.120E-06,0.016
-1.110E-06,-0.060
-1.100E-06,-0.104
-1.090E-06,-0.056
-1.080E-06,-0.040
-1.070E-06,0.024
-1.060E-06,0.072
-1.050E-06,0.032
-1.040E-06,-0.044
-1.030E-06,-0.028
-1.020E-06,-0.036
-1.010E-06,0.000
-1.000E-06,0.100
-9.900E-07,0.168
-9.800E-07,0.076
-9.700E-07,0.108
-9.600E-07,0.120
-9.500E-07,0.036
-9.400E-07,-0.052
-9.300E-07,-0.144
-9.200E-07,-0.208
-9.100E-07,-0.204
-9.000E-07,-0.120
-8.900E-07,-0.084
-8.800E-07,0.036
-8.700E-07,0.112
-8.600E-07,0.120
-8.500E-07,-0.040
-8.400E-07,-0.124
-8.300E-07,-0.136
-8.200E-07,-0.048
-8.100E-07,0.044
-8.000E-07,0.080
-7.900E-07,0.088
-7.800E-07,0.040
-7.700E-07,0.024
-7.600E-07,-0.040
-7.500E-07,0.000
-7.400E-07,-0.004
-7.300E-07,0.060
-7.200E-07,0.064
-7.100E-07,0.068
-7.000E-07,0.044
-6.900E-07,0.036
-6.800E-07,0.044
-6.700E-07,0.068
-6.600E-07,0.108
-6.500E-07,0.112
-6.400E-07,0.140
-6.300E-07,0.100
-6.200E-07,0.088
-6.100E-07,0.064
-6.000E-07,0.096
-5.900E-07,0.128
-5.800E-07,0.160
-5.700E-07,0.160
-5.600E-07,0.120
-5.500E-07,0.084
-5.400E-07,0.048
-5.300E-07,0.076
-5.200E-07,0.128
-5.100E-07,0.188
-5.000E-07,0.216
-4.900E-07,0.224
-4.800E-07,0.164
-4.700E-07,0.064
-4.600E-07,-0.060
-4.500E-07,-0.164
-4.400E-07,-0.264
-4.300E-07,-0.336
-4.200E-07,-0.348
-4.100E-07,-0.272
-4.000E-07,-0.136
-3.900E-07,0.000
-3.800E-07,0.108
-3.700E-07,0.152
-3.600E-07,0.104
-3.500E-07,0.036
-3.400E-07,0.000
-3.300E-07,0.024
-3.200E-07,0.132
-3.100E-07,0.204
-3.000E-07,0.256
-2.900E-07,0.244
-2.800E-07,0.208
-2.700E-07,0.176
-2.600E-07,0.140
-2.500E-07,0.088
-2.400E-07,-0.004
-2.300E-07,-0.044
-2.200E-07,-0.036
-2.100E-07,-0.012
-2.000E-07,0.052
-1.900E-07,0.108
-1.800E-07,0.124
-1.700E-07,0.076
-1.600E-07,0.076
-1.500E-07,0.056
-1.400E-07,0.088
-1.300E-07,0.080
-1.200E-07,0.128
-1.100E-07,0.160
-1.000E-07,0.124
-9.000E-08,0.152
-8.000E-08,-0.004
-7.000E-08,-0.284
-6.000E-08,-0.400
-5.000E-08,-0.472
-4.000E-08,-0.508
-3.000E-08,-0.476
-2.000E-08,-0.012
-1.000E-08,0.312
0.000E+00,0.540
1.000E-08,0.152
2.000E-08,-0.512
3.000E-08,-0.512
4.000E-08,-0.508
5.000E-08,-0.512
6.000E-08,0.028
7.000E-08,0.456
8.000E-08,0.540
9.000E-08,0.472
1.000E-07,-0.016
1.100E-07,-0.352
1.200E-07,-0.508
1.300E-07,-0.380
1.400E-07,-0.164
1.500E-07,0.192
1.600E-07,0.332
1.700E-07,0.336
1.800E-07,0.196
1.900E-07,-0.016
2.000E-07,-0.212
2.100E-07,-0.316
2.200E-07,-0.196
2.300E-07,0.000
2.400E-07,0.248
2.500E-07,0.320
2.600E-07,0.268
2.700E-07,0.088
2.800E-07,-0.056
2.900E-07,-0.180
3.000E-07,-0.184
3.100E-07,-0.068
3.200E-07,0.092
3.300E-07,0.224
3.400E-07,0.232
3.500E-07,0.172
3.600E-07,0.020
3.700E-07,-0.108
3.800E-07,-0.168
3.900E-07,-0.112
4.000E-07,0.012
4.100E-07,0.156
4.200E-07,0.244
4.300E-07,0.264
4.400E-07,0.156
4.500E-07,0.008
4.600E-07,-0.076
4.700E-07,-0.084
4.800E-07,0.000
4.900E-07,0.132
5.000E-07,0.260
5.100E-07,0.304
5.200E-07,0.244
5.300E-07,0.132
5.400E-07,0.032
5.500E-07,-0.004
5.600E-07,0.060
5.700E-07,0.196
5.800E-07,0.300
5.900E-07,0.368
6.000E-07,0.320
6.100E-07,0.244
6.200E-07,0.132
6.300E-07,0.092
6.400E-07,0.096
6.500E-07,0.192
6.600E-07,0.280
6.700E-07,0.320
6.800E-07,0.324
6.900E-07,0.276
7.000E-07,0.192
7.100E-07,0.128
7.200E-07,0.136
7.300E-07,0.168
7.400E-07,0.240
7.500E-07,0.308
7.600E-07,0.328
7.700E-07,0.296
7.800E-07,0.256
7.900E-07,0.176
8.000E-07,0.024
8.100E-07,-0.080
8.200E-07,-0.200
8.300E-07,-0.376
8.400E-07,-0.248
8.500E-07,-0.080
8.600E-07,0.224
8.700E-07,0.300
8.800E-07,0.320
8.900E-07,0.064
9.000E-07,-0.300
9.100E-07,-0.408
9.200E-07,-0.356
9.300E-07,-0.132
9.400E-07,0.128
9.500E-07,0.216
9.600E-07,-0.064
9.700E-07,-0.316
9.800E-07,-0.456
9.900E-07,-0.272
1.000E-06,-0.088
1.010E-06,0.012
1.020E-06,-0.132
1.030E-06,-0.416
1.040E-06,-0.512
1.050E-06,-0.512
1.060E-06,-0.512
1.070E-06,-0.400
1.080E-06,-0.068
1.090E-06,0.108
1.100E-06,0.236
1.110E-06,0.128
1.120E-06,-0.004
1.130E-06,-0.152
1.140E-06,-0.184
1.150E-06,-0.084
1.160E-06,0.032
1.170E-06,0.224
1.180E-06,0.232
1.190E-06,0.204
1.200E-06,0.104
1.210E-06,0.064
1.220E-06,-0.004
1.230E-06,0.040
1.240E-06,0.100
1.250E-06,0.192
1.260E-06,0.260
1.270E-06,0.268
1.280E-06,0.220
1.290E-06,0.120
1.300E-06,0.092
1.310E-06,0.092
1.320E-06,0.192
1.330E-06,0.260
1.340E-06,0.324
1.350E-06,0.300
1.360E-06,0.272
1.370E-06,0.232
1.380E-06,0.216
1.390E-06,0.228
1.400E-06,0.252
1.410E-06,0.292
1.420E-06,0.296
1.430E-06,0.304
1.440E-06,0.268
1.450E-06,0.256
1.460E-06,0.236
1.470E-06,0.244
1.480E-06,0.260
1.490E-06,0.276
1.500E-06,0.284
1.510E-06,0.268
1.520E-06,0.264
1.530E-06,0.244
1.540E-06,0.236
1.550E-06,0.232
1.560E-06,0.248
1.570E-06,0.248
1.580E-06,0.260
1.590E-06,0.260
1.600E-06,0.260
1.610E-06,0.244
1.620E-06,0.244
1.630E-06,0.240
1.640E-06,0.236
1.650E-06,0.240
1.660E-06,0.244
1.670E-06,0.240
1.680E-06,0.240
1.690E-06,0.240
1.700E-06,0.232
1.710E-06,0.240
1.720E-06,0.240
1.730E-06,0.240
1.740E-06,0.236
1.750E-06,0.240
1.760E-06,0.248
1.770E-06,0.248
1.780E-06,0.260
1.790E-06,0.256
1.800E-06,0.260
1.810E-06,0.260
1.820E-06,0.260
1.830E-06,0.244
1.840E-06,0.236
1.850E-06,0.228
1.860E-06,0.228
1.870E-06,0.240
1.880E-06,0.252
1.890E-06,0.260
1.900E-06,0.264
1.910E-06,0.260
1.920E-06,0.244
1.930E-06,0.228
1.940E-06,0.224
1.950E-06,0.228
1.960E-06,0.240
1.970E-06,0.260
1.980E-06,0.268
1.990E-06,0.264
2.000E-06,0.256
2.010E-06,0.244
2.020E-06,0.228
2.030E-06,0.224
2.040E-06,0.236
2.050E-06,0.248
2.060E-06,0.256
2.070E-06,0.260
2.080E-06,0.252
2.090E-06,0.240
2.100E-06,0.232
2.110E-06,0.224
2.120E-06,0.228
2.130E-06,0.244
2.140E-06,0.260
2.150E-06,0.268
2.160E-06,0.260
2.170E-06,0.248
2.180E-06,0.228
2.190E-06,0.220
2.200E-06,0.220
2.210E-06,0.224
2.220E-06,0.240
2.230E-06,0.244
2.240E-06,0.240
2.250E-06,0.228
2.260E-06,0.220
2.270E-06,0.208
2.280E-06,0.216
2.290E-06,0.228
2.300E-06,0.232
2.310E-06,0.244
2.320E-06,0.244
2.330E-06,0.240
2.340E-06,0.236
2.350E-06,0.228
2.360E-06,0.228
2.370E-06,0.228
2.380E-06,0.232
2.390E-06,0.240
2.400E-06,0.236
2.410E-06,0.236
2.420E-06,0.236
2.430E-06,0.232
2.440E-06,0.224
2.450E-06,0.224
2.460E-06,0.224
2.470E-06,0.228
2.480E-06,0.228
2.490E-06,0.232
2.500E-06,0.228
2.510E-06,0.228
2.520E-06,0.228
2.530E-06,0.224
2.540E-06,0.228
2.550E-06,0.228
2.560E-06,0.224
2.570E-06,0.220
2.580E-06,0.220
2.590E-06,0.216
2.600E-06,0.220
2.610E-06,0.228
2.620E-06,0.224
2.630E-06,0.228
2.640E-06,0.220
2.650E-06,0.224
2.660E-06,0.216
2.670E-06,0.212
2.680E-06,0.212
2.690E-06,0.216
2.700E-06,0.220
2.710E-06,0.220
2.720E-06,0.216
2.730E-06,0.208
2.740E-06,0.204
2.750E-06,0.200
2.760E-06,0.212
2.770E-06,0.212
2.780E-06,0.216
2.790E-06,0.216
2.800E-06,0.208
2.810E-06,0.208
2.820E-06,0.212
2.830E-06,0.212
2.840E-06,0.212
2.850E-06,0.216
2.860E-06,0.220
2.870E-06,0.220
2.880E-06,0.220
2.890E-06,0.208
2.900E-06,0.204
2.910E-06,0.208
2.920E-06,0.204
2.930E-06,0.208
2.940E-06,0.208
2.950E-06,0.204
2.960E-06,0.204
2.970E-06,0.196
2.980E-06,0.192
2.990E-06,0.188
3.000E-06,0.192
3.010E-06,0.204
3.020E-06,0.208
3.030E-06,0.212
3.040E-06,0.204
3.050E-06,0.196
3.060E-06,0.188
3.070E-06,0.188
3.080E-06,0.192
3.090E-06,0.192
3.100E-06,0.200
3.110E-06,0.204
3.120E-06,0.200
3.130E-06,0.192
3.140E-06,0.180
3.150E-06,0.176
3.160E-06,0.184
3.170E-06,0.192
3.180E-06,0.196
3.190E-06,0.200
3.200E-06,0.192
3.210E-06,0.188
3.220E-06,0.192
3.230E-06,0.188
3.240E-06,0.192
3.250E-06,0.192
3.260E-06,0.192
3.270E-06,0.196
3.280E-06,0.196
3.290E-06,0.196
3.300E-06,0.192
3.310E-06,0.192
3.320E-06,0.192
