mediciones/5-15/47.5/WaveData47123.csv

#timebase=2000000(ps)
,#voltbase=2000000(mv/100)
#size=4000
-8.400E-06,0.080
-8.390E-06,0.080
-8.380E-06,0.080
-8.370E-06,0.080
-8.360E-06,0.080
-8.350E-06,0.160
-8.340E-06,0.000
-8.330E-06,0.000
-8.320E-06,0.080
-8.310E-06,0.160
-8.300E-06,0.160
-8.290E-06,0.160
-8.280E-06,0.000
-8.270E-06,0.000
-8.260E-06,0.080
-8.250E-06,0.160
-8.240E-06,0.000
-8.230E-06,0.000
-8.220E-06,0.080
-8.210E-06,0.080
-8.200E-06,0.080
-8.190E-06,0.000
-8.180E-06,0.000
-8.170E-06,0.080
-8.160E-06,0.000
-8.150E-06,0.000
-8.140E-06,0.080
-8.130E-06,0.160
-8.120E-06,0.000
-8.110E-06,0.000
-8.100E-06,0.080
-8.090E-06,0.000
-8.080E-06,0.080
-8.070E-06,0.000
-8.060E-06,0.080
-8.050E-06,0.000
-8.040E-06,0.080
-8.030E-06,0.080
-8.020E-06,0.080
-8.010E-06,0.080
-8.000E-06,0.160
-7.990E-06,0.000
-7.980E-06,0.000
-7.970E-06,0.080
-7.960E-06,0.080
-7.950E-06,0.080
-7.940E-06,0.160
-7.930E-06,0.240
-7.920E-06,0.320
-7.910E-06,0.160
-7.900E-06,0.240
-7.890E-06,0.240
-7.880E-06,0.160
-7.870E-06,0.240
-7.860E-06,0.160
-7.850E-06,0.160
-7.840E-06,0.240
-7.830E-06,0.160
-7.820E-06,0.080
-7.810E-06,0.080
-7.800E-06,0.000
-7.790E-06,-0.080
-7.780E-06,-0.080
-7.770E-06,0.000
-7.760E-06,-0.080
-7.750E-06,-0.160
-7.740E-06,-0.240
-7.730E-06,-0.080
-7.720E-06,0.000
-7.710E-06,0.000
-7.700E-06,0.080
-7.690E-06,-0.080
-7.680E-06,0.000
-7.670E-06,0.000
-7.660E-06,0.000
-7.650E-06,0.080
-7.640E-06,0.080
-7.630E-06,0.160
-7.620E-06,0.080
-7.610E-06,0.000
-7.600E-06,0.160
-7.590E-06,0.160
-7.580E-06,0.240
-7.570E-06,0.160
-7.560E-06,0.240
-7.550E-06,0.160
-7.540E-06,0.320
-7.530E-06,0.240
-7.520E-06,0.240
-7.510E-06,0.320
-7.500E-06,0.240
-7.490E-06,0.160
-7.480E-06,0.240
-7.470E-06,0.160
-7.460E-06,0.160
-7.450E-06,0.160
-7.440E-06,0.240
-7.430E-06,0.160
-7.420E-06,0.160
-7.410E-06,0.160
-7.400E-06,0.000
-7.390E-06,0.000
-7.380E-06,0.000
-7.370E-06,0.000
-7.360E-06,-0.080
-7.350E-06,0.000
-7.340E-06,0.000
-7.330E-06,0.000
-7.320E-06,0.080
-7.310E-06,0.160
-7.300E-06,0.080
-7.290E-06,0.000
-7.280E-06,0.000
-7.270E-06,0.000
-7.260E-06,-0.080
-7.250E-06,0.000
-7.240E-06,0.080
-7.230E-06,0.080
-7.220E-06,0.080
-7.210E-06,0.080
-7.200E-06,0.080
-7.190E-06,0.160
-7.180E-06,0.160
-7.170E-06,0.000
-7.160E-06,0.000
-7.150E-06,0.160
-7.140E-06,0.000
-7.130E-06,0.080
-7.120E-06,0.160
-7.110E-06,0.160
-7.100E-06,0.160
-7.090E-06,0.160
-7.080E-06,0.000
-7.070E-06,0.000
-7.060E-06,0.080
-7.050E-06,0.080
-7.040E-06,0.080
-7.030E-06,0.240
-7.020E-06,0.080
-7.010E-06,0.000
-7.000E-06,0.080
-6.990E-06,0.080
-6.980E-06,0.000
-6.970E-06,-0.080
-6.960E-06,0.000
-6.950E-06,0.080
-6.940E-06,0.080
-6.930E-06,0.000
-6.920E-06,0.080
-6.910E-06,0.000
-6.900E-06,-0.080
-6.890E-06,0.000
-6.880E-06,0.000
-6.870E-06,0.000
-6.860E-06,0.000
-6.850E-06,0.080
-6.840E-06,0.080
-6.830E-06,-0.080
-6.820E-06,0.080
-6.810E-06,0.080
-6.800E-06,0.160
-6.790E-06,0.080
-6.780E-06,0.240
-6.770E-06,0.080
-6.760E-06,0.160
-6.750E-06,0.240
-6.740E-06,0.240
-6.730E-06,0.160
-6.720E-06,0.000
-6.710E-06,0.080
-6.700E-06,0.080
-6.690E-06,0.000
-6.680E-06,0.080
-6.670E-06,0.160
-6.660E-06,0.160
-6.650E-06,0.000
-6.640E-06,0.000
-6.630E-06,0.080
-6.620E-06,0.000
-6.610E-06,0.000
-6.600E-06,0.160
-6.590E-06,0.160
-6.580E-06,0.240
-6.570E-06,0.160
-6.560E-06,0.000
-6.550E-06,0.080
-6.540E-06,0.080
-6.530E-06,0.080
-6.520E-06,0.080
-6.510E-06,0.080
-6.500E-06,0.000
-6.490E-06,0.000
-6.480E-06,0.080
-6.470E-06,-0.080
-6.460E-06,0.000
-6.450E-06,-0.080
-6.440E-06,0.080
-6.430E-06,0.080
-6.420E-06,0.000
-6.410E-06,0.000
-6.400E-06,0.080
-6.390E-06,0.080
-6.380E-06,0.080
-6.370E-06,0.080
-6.360E-06,0.080
-6.350E-06,0.000
-6.340E-06,0.000
-6.330E-06,0.080
-6.320E-06,-0.080
-6.310E-06,0.160
-6.300E-06,0.160
-6.290E-06,0.160
-6.280E-06,0.160
-6.270E-06,0.080
-6.260E-06,0.080
-6.250E-06,0.000
-6.240E-06,0.080
-6.230E-06,0.080
-6.220E-06,0.000
-6.210E-06,-0.080
-6.200E-06,0.000
-6.190E-06,0.080
-6.180E-06,0.080
-6.170E-06,0.080
-6.160E-06,0.080
-6.150E-06,-0.080
-6.140E-06,-0.080
-6.130E-06,0.000
-6.120E-06,0.080
-6.110E-06,0.080
-6.100E-06,0.000
-6.090E-06,0.080
-6.080E-06,0.080
-6.070E-06,0.080
-6.060E-06,0.080
-6.050E-06,0.160
-6.040E-06,0.080
-6.030E-06,0.160
-6.020E-06,0.080
-6.010E-06,0.240
-6.000E-06,0.080
-5.990E-06,0.240
-5.980E-06,0.320
-5.970E-06,0.240
-5.960E-06,0.160
-5.950E-06,0.240
-5.940E-06,0.240
-5.930E-06,0.240
-5.920E-06,0.320
-5.910E-06,0.240
-5.900E-06,0.080
-5.890E-06,0.160
-5.880E-06,0.240
-5.870E-06,0.080
-5.860E-06,0.000
-5.850E-06,0.080
-5.840E-06,0.160
-5.830E-06,0.080
-5.820E-06,-0.080
-5.810E-06,-0.080
-5.800E-06,0.000
-5.790E-06,-0.080
-5.780E-06,0.000
-5.770E-06,0.000
-5.760E-06,0.000
-5.750E-06,0.000
-5.740E-06,0.080
-5.730E-06,0.080
-5.720E-06,-0.080
-5.710E-06,0.000
-5.700E-06,0.000
-5.690E-06,0.000
-5.680E-06,0.000
-5.670E-06,-0.080
-5.660E-06,0.080
-5.650E-06,-0.080
-5.640E-06,0.080
-5.630E-06,0.080
-5.620E-06,0.000
-5.610E-06,0.000
-5.600E-06,-0.080
-5.590E-06,0.080
-5.580E-06,0.080
-5.570E-06,0.080
-5.560E-06,0.080
-5.550E-06,0.160
-5.540E-06,0.240
-5.530E-06,0.080
-5.520E-06,0.160
-5.510E-06,0.000
-5.500E-06,0.080
-5.490E-06,0.080
-5.480E-06,0.000
-5.470E-06,0.080
-5.460E-06,0.160
-5.450E-06,0.000
-5.440E-06,0.160
-5.430E-06,0.080
-5.420E-06,0.080
-5.410E-06,0.080
-5.400E-06,0.000
-5.390E-06,0.000
-5.380E-06,0.080
-5.370E-06,0.080
-5.360E-06,0.160
-5.350E-06,0.080
-5.340E-06,0.080
-5.330E-06,0.080
-5.320E-06,0.160
-5.310E-06,0.160
-5.300E-06,0.160
-5.290E-06,0.240
-5.280E-06,0.080
-5.270E-06,0.160
-5.260E-06,0.080
-5.250E-06,0.080
-5.240E-06,0.160
-5.230E-06,0.000
-5.220E-06,0.000
-5.210E-06,0.160
-5.200E-06,0.160
-5.190E-06,0.080
-5.180E-06,0.080
-5.170E-06,0.000
-5.160E-06,0.000
-5.150E-06,0.000
-5.140E-06,-0.080
-5.130E-06,0.000
-5.120E-06,-0.080
-5.110E-06,-0.160
-5.100E-06,-0.160
-5.090E-06,-0.160
-5.080E-06,-0.080
-5.070E-06,-0.080
-5.060E-06,0.000
-5.050E-06,-0.080
-5.040E-06,0.000
-5.030E-06,0.000
-5.020E-06,0.000
-5.010E-06,0.080
-5.000E-06,0.000
-4.990E-06,0.080
-4.980E-06,0.080
-4.970E-06,0.080
-4.960E-06,0.080
-4.950E-06,0.160
-4.940E-06,0.160
-4.930E-06,0.160
-4.920E-06,0.160
-4.910E-06,0.320
-4.900E-06,0.240
-4.890E-06,0.240
-4.880E-06,0.320
-4.870E-06,0.240
-4.860E-06,0.160
-4.850E-06,0.160
-4.840E-06,0.240
-4.830E-06,0.320
-4.820E-06,0.320
-4.810E-06,0.160
-4.800E-06,0.160
-4.790E-06,0.080
-4.780E-06,0.080
-4.770E-06,0.080
-4.760E-06,-0.080
-4.750E-06,0.000
-4.740E-06,-0.080
-4.730E-06,0.000
-4.720E-06,-0.080
-4.710E-06,0.000
-4.700E-06,0.000
-4.690E-06,0.000
-4.680E-06,0.080
-4.670E-06,0.000
-4.660E-06,0.080
-4.650E-06,0.000
-4.640E-06,-0.080
-4.630E-06,0.000
-4.620E-06,0.080
-4.610E-06,0.080
-4.600E-06,0.000
-4.590E-06,0.080
-4.580E-06,0.080
-4.570E-06,0.000
-4.560E-06,0.080
-4.550E-06,0.080
-4.540E-06,0.080
-4.530E-06,0.080
-4.520E-06,0.080
-4.510E-06,0.160
-4.500E-06,0.000
-4.490E-06,0.080
-4.480E-06,0.080
-4.470E-06,0.080
-4.460E-06,0.080
-4.450E-06,0.000
-4.440E-06,0.000
-4.430E-06,0.080
-4.420E-06,0.000
-4.410E-06,0.000
-4.400E-06,0.080
-4.390E-06,0.000
-4.380E-06,0.000
-4.370E-06,0.000
-4.360E-06,0.000
-4.350E-06,0.080
-4.340E-06,0.000
-4.330E-06,0.000
-4.320E-06,-0.080
-4.310E-06,0.080
-4.300E-06,0.080
-4.290E-06,0.240
-4.280E-06,0.160
-4.270E-06,0.160
-4.260E-06,0.160
-4.250E-06,0.240
-4.240E-06,0.160
-4.230E-06,0.080
-4.220E-06,0.080
-4.210E-06,0.240
-4.200E-06,0.080
-4.190E-06,0.080
-4.180E-06,0.160
-4.170E-06,0.000
-4.160E-06,0.160
-4.150E-06,0.160
-4.140E-06,0.240
-4.130E-06,0.240
-4.120E-06,0.000
-4.110E-06,0.080
-4.100E-06,0.000
-4.090E-06,0.000
-4.080E-06,0.000
-4.070E-06,-0.080
-4.060E-06,-0.080
-4.050E-06,0.000
-4.040E-06,-0.080
-4.030E-06,0.000
-4.020E-06,0.000
-4.010E-06,0.000
-4.000E-06,0.160
-3.990E-06,0.000
-3.980E-06,0.080
-3.970E-06,0.160
-3.960E-06,0.240
-3.950E-06,0.160
-3.940E-06,0.000
-3.930E-06,0.000
-3.920E-06,-0.080
-3.910E-06,-0.160
-3.900E-06,-0.240
-3.890E-06,-0.320
-3.880E-06,-0.240
-3.870E-06,-0.320
-3.860E-06,-0.320
-3.850E-06,-0.320
-3.840E-06,-0.320
-3.830E-06,-0.320
-3.820E-06,-0.160
-3.810E-06,-0.160
-3.800E-06,-0.080
-3.790E-06,0.000
-3.780E-06,0.000
-3.770E-06,-0.080
-3.760E-06,0.000
-3.750E-06,0.000
-3.740E-06,0.080
-3.730E-06,0.000
-3.720E-06,0.080
-3.710E-06,0.080
-3.700E-06,0.160
-3.690E-06,0.240
-3.680E-06,0.240
-3.670E-06,0.320
-3.660E-06,0.400
-3.650E-06,0.400
-3.640E-06,0.320
-3.630E-06,0.320
-3.620E-06,0.400
-3.610E-06,0.400
-3.600E-06,0.400
-3.590E-06,0.400
-3.580E-06,0.160
-3.570E-06,0.240
-3.560E-06,0.160
-3.550E-06,0.240
-3.540E-06,0.080
-3.530E-06,0.080
-3.520E-06,0.080
-3.510E-06,-0.080
-3.500E-06,-0.080
-3.490E-06,0.000
-3.480E-06,-0.080
-3.470E-06,0.000
-3.460E-06,0.000
-3.450E-06,0.000
-3.440E-06,0.080
-3.430E-06,0.080
-3.420E-06,0.080
-3.410E-06,0.080
-3.400E-06,0.000
-3.390E-06,0.000
-3.380E-06,0.000
-3.370E-06,0.000
-3.360E-06,-0.080
-3.350E-06,0.000
-3.340E-06,0.000
-3.330E-06,0.000
-3.320E-06,0.000
-3.310E-06,0.080
-3.300E-06,0.000
-3.290E-06,0.000
-3.280E-06,0.080
-3.270E-06,0.160
-3.260E-06,0.160
-3.250E-06,0.160
-3.240E-06,0.240
-3.230E-06,0.240
-3.220E-06,0.240
-3.210E-06,0.240
-3.200E-06,0.240
-3.190E-06,0.080
-3.180E-06,0.080
-3.170E-06,0.160
-3.160E-06,0.240
-3.150E-06,0.080
-3.140E-06,0.080
-3.130E-06,0.160
-3.120E-06,0.160
-3.110E-06,0.160
-3.100E-06,0.160
-3.090E-06,0.160
-3.080E-06,0.080
-3.070E-06,0.160
-3.060E-06,0.080
-3.050E-06,0.160
-3.040E-06,0.240
-3.030E-06,0.240
-3.020E-06,0.000
-3.010E-06,0.080
-3.000E-06,0.000
-2.990E-06,0.080
-2.980E-06,0.000
-2.970E-06,0.000
-2.960E-06,-0.080
-2.950E-06,0.000
-2.940E-06,0.000
-2.930E-06,-0.080
-2.920E-06,0.000
-2.910E-06,0.000
-2.900E-06,-0.080
-2.890E-06,-0.080
-2.880E-06,-0.080
-2.870E-06,0.000
-2.860E-06,-0.080
-2.850E-06,0.000
-2.840E-06,-0.080
-2.830E-06,-0.080
-2.820E-06,0.000
-2.810E-06,0.080
-2.800E-06,-0.080
-2.790E-06,-0.080
-2.780E-06,0.000
-2.770E-06,0.080
-2.760E-06,0.080
-2.750E-06,0.080
-2.740E-06,0.000
-2.730E-06,0.080
-2.720E-06,0.080
-2.710E-06,0.160
-2.700E-06,0.240
-2.690E-06,0.160
-2.680E-06,0.240
-2.670E-06,0.080
-2.660E-06,0.160
-2.650E-06,0.240
-2.640E-06,0.160
-2.630E-06,0.080
-2.620E-06,0.160
-2.610E-06,0.080
-2.600E-06,0.240
-2.590E-06,0.080
-2.580E-06,0.160
-2.570E-06,0.240
-2.560E-06,0.160
-2.550E-06,0.160
-2.540E-06,0.240
-2.530E-06,0.160
-2.520E-06,0.160
-2.510E-06,0.160
-2.500E-06,-0.080
-2.490E-06,0.000
-2.480E-06,0.080
-2.470E-06,0.080
-2.460E-06,-0.080
-2.450E-06,-0.080
-2.440E-06,0.000
-2.430E-06,0.000
-2.420E-06,0.000
-2.410E-06,0.000
-2.400E-06,0.080
-2.390E-06,-0.080
-2.380E-06,0.000
-2.370E-06,0.000
-2.360E-06,0.000
-2.350E-06,0.080
-2.340E-06,0.080
-2.330E-06,-0.080
-2.320E-06,0.000
-2.310E-06,0.080
-2.300E-06,0.080
-2.290E-06,0.080
-2.280E-06,-0.080
-2.270E-06,0.080
-2.260E-06,0.080
-2.250E-06,0.000
-2.240E-06,-0.080
-2.230E-06,0.000
-2.220E-06,-0.080
-2.210E-06,-0.080
-2.200E-06,0.000
-2.190E-06,-0.080
-2.180E-06,-0.080
-2.170E-06,0.000
-2.160E-06,-0.080
-2.150E-06,-0.080
-2.140E-06,-0.160
-2.130E-06,-0.160
-2.120E-06,-0.080
-2.110E-06,-0.080
-2.100E-06,0.000
-2.090E-06,0.000
-2.080E-06,-0.160
-2.070E-06,-0.080
-2.060E-06,-0.240
-2.050E-06,-0.240
-2.040E-06,-0.160
-2.030E-06,-0.560
-2.020E-06,-0.560
-2.010E-06,-0.480
-2.000E-06,-0.480
-1.990E-06,-0.480
-1.980E-06,-0.400
-1.970E-06,-0.400
-1.960E-06,-0.320
-1.950E-06,-0.320
-1.940E-06,-0.240
-1.930E-06,-0.160
-1.920E-06,-0.080
-1.910E-06,-0.080
-1.900E-06,0.000
-1.890E-06,0.000
-1.880E-06,-0.080
-1.870E-06,0.080
-1.860E-06,0.160
-1.850E-06,0.240
-1.840E-06,0.320
-1.830E-06,0.240
-1.820E-06,0.320
-1.810E-06,0.320
-1.800E-06,0.400
-1.790E-06,0.400
-1.780E-06,0.480
-1.770E-06,0.480
-1.760E-06,0.480
-1.750E-06,0.560
-1.740E-06,0.560
-1.730E-06,0.560
-1.720E-06,0.480
-1.710E-06,0.560
-1.700E-06,0.480
-1.690E-06,0.240
-1.680E-06,0.240
-1.670E-06,0.240
-1.660E-06,0.000
-1.650E-06,0.000
-1.640E-06,0.000
-1.630E-06,0.000
-1.620E-06,-0.080
-1.610E-06,-0.080
-1.600E-06,-0.080
-1.590E-06,-0.080
-1.580E-06,-0.160
-1.570E-06,-0.160
-1.560E-06,-0.160
-1.550E-06,-0.240
-1.540E-06,-0.240
-1.530E-06,-0.320
-1.520E-06,-0.480
-1.510E-06,-0.480
-1.500E-06,-0.400
-1.490E-06,-0.560
-1.480E-06,-0.480
-1.470E-06,-0.480
-1.460E-06,-0.480
-1.450E-06,-0.560
-1.440E-06,-0.560
-1.430E-06,-0.400
-1.420E-06,-0.400
-1.410E-06,-0.480
-1.400E-06,-0.320
-1.390E-06,-0.400
-1.380E-06,-0.400
-1.370E-06,-0.320
-1.360E-06,-0.320
-1.350E-06,-0.320
-1.340E-06,-0.080
-1.330E-06,-0.160
-1.320E-06,-0.240
-1.310E-06,-0.080
-1.300E-06,-0.160
-1.290E-06,-0.080
-1.280E-06,-0.080
-1.270E-06,0.000
-1.260E-06,-0.080
-1.250E-06,0.000
-1.240E-06,0.080
-1.230E-06,0.000
-1.220E-06,0.000
-1.210E-06,-0.080
-1.200E-06,0.000
-1.190E-06,0.000
-1.180E-06,-0.080
-1.170E-06,0.000
-1.160E-06,-0.080
-1.150E-06,-0.080
-1.140E-06,-0.240
-1.130E-06,-0.160
-1.120E-06,-0.320
-1.110E-06,-0.160
-1.100E-06,-0.320
-1.090E-06,-0.320
-1.080E-06,-0.240
-1.070E-06,-0.320
-1.060E-06,-0.320
-1.050E-06,-0.400
-1.040E-06,-0.400
-1.030E-06,-0.480
-1.020E-06,-0.560
-1.010E-06,-0.720
-1.000E-06,-0.720
-9.900E-07,-0.720
-9.800E-07,-0.880
-9.700E-07,-0.960
-9.600E-07,-1.040
-9.500E-07,-1.040
-9.400E-07,-1.120
-9.300E-07,-1.120
-9.200E-07,-1.040
-9.100E-07,-1.200
-9.000E-07,-1.360
-8.900E-07,-1.200
-8.800E-07,-1.360
-8.700E-07,-1.280
-8.600E-07,-1.360
-8.500E-07,-1.440
-8.400E-07,-1.360
-8.300E-07,-1.360
-8.200E-07,-1.440
-8.100E-07,-1.280
-8.000E-07,-1.200
-7.900E-07,-1.280
-7.800E-07,-1.200
-7.700E-07,-1.200
-7.600E-07,-1.120
-7.500E-07,-1.040
-7.400E-07,-1.040
-7.300E-07,-1.040
-7.200E-07,-0.880
-7.100E-07,-0.880
-7.000E-07,-0.800
-6.900E-07,-0.560
-6.800E-07,-0.560
-6.700E-07,-0.560
-6.600E-07,-0.480
-6.500E-07,-0.320
-6.400E-07,-0.320
-6.300E-07,-0.160
-6.200E-07,-0.160
-6.100E-07,-0.400
-6.000E-07,-0.160
-5.900E-07,-0.240
-5.800E-07,-0.160
-5.700E-07,-0.160
-5.600E-07,-0.160
-5.500E-07,-0.240
-5.400E-07,-0.160
-5.300E-07,0.000
-5.200E-07,0.000
-5.100E-07,0.000
-5.000E-07,-0.080
-4.900E-07,0.000
-4.800E-07,-0.080
-4.700E-07,0.000
-4.600E-07,0.000
-4.500E-07,-0.080
-4.400E-07,-0.080
-4.300E-07,-0.240
-4.200E-07,-0.080
-4.100E-07,-0.160
-4.000E-07,-0.320
-3.900E-07,-0.320
-3.800E-07,-0.320
-3.700E-07,-0.320
-3.600E-07,-0.400
-3.500E-07,-0.400
-3.400E-07,-0.480
-3.300E-07,-0.400
-3.200E-07,-0.480
-3.100E-07,-0.480
-3.000E-07,-0.640
-2.900E-07,-0.560
-2.800E-07,-0.640
-2.700E-07,-0.640
-2.600E-07,-0.640
-2.500E-07,-0.720
-2.400E-07,-0.720
-2.300E-07,-0.720
-2.200E-07,-0.720
-2.100E-07,-0.640
-2.000E-07,-0.640
-1.900E-07,-0.720
-1.800E-07,-0.560
-1.700E-07,-0.720
-1.600E-07,-0.720
-1.500E-07,-0.720
-1.400E-07,-0.720
-1.300E-07,-0.800
-1.200E-07,-0.880
-1.100E-07,-0.880
-1.000E-07,-0.960
-9.000E-08,-0.880
-8.000E-08,-0.960
-7.000E-08,-1.120
-6.000E-08,-1.040
-5.000E-08,-1.120
-4.000E-08,-1.200
-3.000E-08,-1.040
-2.000E-08,-1.280
-1.000E-08,-1.440
0.000E+00,-1.760
1.000E-08,-2.080
2.000E-08,-1.520
3.000E-08,-0.240
4.000E-08,0.000
5.000E-08,0.560
6.000E-08,-0.240
7.000E-08,-1.120
8.000E-08,-1.840
9.000E-08,-2.240
1.000E-07,-2.480
1.100E-07,-2.560
1.200E-07,-3.120
1.300E-07,-3.440
1.400E-07,-3.680
1.500E-07,-3.360
1.600E-07,-3.200
1.700E-07,-3.040
1.800E-07,-2.720
1.900E-07,-2.480
2.000E-07,-2.000
2.100E-07,-1.680
2.200E-07,-1.440
2.300E-07,-1.200
2.400E-07,-0.960
2.500E-07,-0.720
2.600E-07,-0.480
2.700E-07,-0.240
2.800E-07,0.000
2.900E-07,0.320
3.000E-07,0.560
3.100E-07,0.720
3.200E-07,0.640
3.300E-07,0.800
3.400E-07,1.120
3.500E-07,1.280
3.600E-07,1.360
3.700E-07,1.280
3.800E-07,1.200
3.900E-07,1.120
4.000E-07,1.200
4.100E-07,1.040
4.200E-07,1.280
4.300E-07,1.360
4.400E-07,1.520
4.500E-07,1.680
4.600E-07,1.600
4.700E-07,1.440
4.800E-07,1.360
4.900E-07,0.880
5.000E-07,0.640
5.100E-07,0.400
5.200E-07,0.080
5.300E-07,0.000
5.400E-07,-0.160
5.500E-07,-0.400
5.600E-07,-0.640
5.700E-07,-0.720
5.800E-07,-0.800
5.900E-07,-0.880
6.000E-07,-0.960
6.100E-07,-0.880
6.200E-07,-0.960
6.300E-07,-0.960
6.400E-07,-1.040
6.500E-07,-1.040
6.600E-07,-0.960
6.700E-07,-0.880
6.800E-07,-0.800
6.900E-07,-0.640
7.000E-07,-0.640
7.100E-07,-0.720
7.200E-07,-0.720
7.300E-07,-0.640
7.400E-07,-0.640
7.500E-07,-0.640
7.600E-07,-0.720
7.700E-07,-0.640
7.800E-07,-0.640
7.900E-07,-0.640
8.000E-07,-0.800
8.100E-07,-0.880
8.200E-07,-0.800
8.300E-07,-0.880
8.400E-07,-0.880
8.500E-07,-0.720
8.600E-07,-0.800
8.700E-07,-0.720
8.800E-07,-0.800
8.900E-07,-0.960
9.000E-07,-0.880
9.100E-07,-1.040
9.200E-07,-0.960
9.300E-07,-1.040
9.400E-07,-0.960
9.500E-07,-1.040
9.600E-07,-1.200
9.700E-07,-1.360
9.800E-07,-1.360
9.900E-07,-1.600
1.000E-06,-1.520
1.010E-06,-1.680
1.020E-06,-1.760
1.030E-06,-1.760
1.040E-06,-2.000
1.050E-06,-1.920
1.060E-06,-2.160
1.070E-06,-2.160
1.080E-06,-2.160
1.090E-06,-1.760
1.100E-06,-1.840
1.110E-06,-1.920
1.120E-06,-2.000
1.130E-06,-2.320
1.140E-06,-2.880
1.150E-06,-3.200
1.160E-06,-3.520
1.170E-06,-3.360
1.180E-06,-3.360
1.190E-06,-3.280
1.200E-06,-2.560
1.210E-06,-0.080
1.220E-06,-0.400
1.230E-06,1.040
1.240E-06,-1.040
1.250E-06,-2.720
1.260E-06,-3.840
1.270E-06,-4.640
1.280E-06,-4.640
1.290E-06,-4.080
1.300E-06,-4.800
1.310E-06,-5.280
1.320E-06,-5.040
1.330E-06,-4.000
1.340E-06,-2.960
1.350E-06,-2.240
1.360E-06,-1.920
1.370E-06,-1.680
1.380E-06,-0.960
1.390E-06,-0.640
1.400E-06,-0.160
1.410E-06,-0.240
1.420E-06,-0.320
1.430E-06,-0.080
1.440E-06,0.000
1.450E-06,0.000
1.460E-06,0.080
1.470E-06,0.320
1.480E-06,0.400
1.490E-06,0.720
1.500E-06,0.960
1.510E-06,1.120
1.520E-06,1.280
1.530E-06,1.440
1.540E-06,1.360
1.550E-06,1.200
1.560E-06,1.040
1.570E-06,0.720
1.580E-06,0.640
1.590E-06,0.560
1.600E-06,0.320
1.610E-06,0.240
1.620E-06,0.000
1.630E-06,-0.160
1.640E-06,-0.560
1.650E-06,-0.640
1.660E-06,-0.560
1.670E-06,-0.480
1.680E-06,-0.080
1.690E-06,0.240
1.700E-06,0.320
1.710E-06,0.400
1.720E-06,0.480
1.730E-06,0.480
1.740E-06,0.400
1.750E-06,0.320
1.760E-06,0.400
1.770E-06,0.080
1.780E-06,0.160
1.790E-06,0.000
1.800E-06,-0.320
1.810E-06,-0.640
1.820E-06,-0.960
1.830E-06,-1.040
1.840E-06,-1.360
1.850E-06,-1.440
1.860E-06,-1.520
1.870E-06,-1.760
1.880E-06,-1.920
1.890E-06,-1.760
1.900E-06,-1.840
1.910E-06,-1.680
1.920E-06,-1.440
1.930E-06,-1.200
1.940E-06,-1.040
1.950E-06,-0.960
1.960E-06,-0.880
1.970E-06,-1.040
1.980E-06,-1.040
1.990E-06,-1.440
2.000E-06,-1.520
2.010E-06,-2.000
2.020E-06,-1.920
2.030E-06,-2.400
2.040E-06,-2.400
2.050E-06,-2.720
2.060E-06,-2.800
2.070E-06,-3.120
2.080E-06,-3.120
2.090E-06,-3.440
2.100E-06,-3.200
2.110E-06,-3.280
2.120E-06,-3.280
2.130E-06,-3.120
2.140E-06,-2.800
2.150E-06,-2.400
2.160E-06,-2.080
2.170E-06,-1.760
2.180E-06,-1.520
2.190E-06,-1.200
2.200E-06,-1.040
2.210E-06,-0.640
2.220E-06,-0.480
2.230E-06,-0.160
2.240E-06,-0.080
2.250E-06,0.000
2.260E-06,0.080
2.270E-06,0.160
2.280E-06,0.320
2.290E-06,0.000
2.300E-06,0.080
2.310E-06,0.000
2.320E-06,-0.080
2.330E-06,-0.240
2.340E-06,-0.400
2.350E-06,-0.640
2.360E-06,-0.640
2.370E-06,-0.880
2.380E-06,-0.800
2.390E-06,-0.960
2.400E-06,-0.960
2.410E-06,-1.120
2.420E-06,-1.040
2.430E-06,-1.120
2.440E-06,-1.120
2.450E-06,-1.280
2.460E-06,-1.200
2.470E-06,-0.640
2.480E-06,0.560
2.490E-06,1.120
2.500E-06,1.440
2.510E-06,0.400
2.520E-06,-1.520
2.530E-06,-2.720
2.540E-06,-3.760
2.550E-06,-3.760
2.560E-06,-4.320
2.570E-06,-4.640
2.580E-06,-5.600
2.590E-06,-5.680
2.600E-06,-5.600
2.610E-06,-4.560
2.620E-06,-3.920
2.630E-06,-3.360
2.640E-06,-2.720
2.650E-06,-1.840
2.660E-06,-1.200
2.670E-06,-0.720
2.680E-06,-0.640
2.690E-06,-0.640
2.700E-06,-0.560
2.710E-06,-0.320
2.720E-06,-0.320
2.730E-06,-0.240
2.740E-06,-0.400
2.750E-06,-0.400
2.760E-06,-0.400
2.770E-06,-0.160
2.780E-06,0.000
2.790E-06,0.320
2.800E-06,0.480
2.810E-06,0.560
2.820E-06,0.480
2.830E-06,0.320
2.840E-06,0.000
2.850E-06,-0.160
2.860E-06,-0.560
2.870E-06,-0.880
2.880E-06,-1.200
2.890E-06,-1.600
2.900E-06,-1.920
2.910E-06,-2.320
2.920E-06,-2.640
2.930E-06,-2.560
2.940E-06,-2.480
2.950E-06,-2.400
2.960E-06,-2.080
2.970E-06,-1.680
2.980E-06,-1.440
2.990E-06,-1.280
3.000E-06,-1.200
3.010E-06,-0.960
3.020E-06,-0.880
3.030E-06,-0.800
3.040E-06,-0.720
3.050E-06,-0.880
3.060E-06,-0.960
3.070E-06,-1.040
3.080E-06,-1.040
3.090E-06,-0.960
3.100E-06,-0.960
3.110E-06,-0.800
3.120E-06,-0.720
3.130E-06,-0.720
3.140E-06,-0.480
3.150E-06,-0.400
3.160E-06,-0.320
3.170E-06,-0.160
3.180E-06,-0.080
3.190E-06,-0.160
3.200E-06,-0.240
3.210E-06,-0.560
