mediciones/5-15/47.5/WaveData47112.csv

#timebase=2000000(ps)
,#voltbase=100000(mv/100)
#size=4000
-8.400E-06,-0.020
-8.390E-06,0.024
-8.380E-06,0.044
-8.370E-06,0.028
-8.360E-06,0.004
-8.350E-06,-0.024
-8.340E-06,-0.024
-8.330E-06,-0.016
-8.320E-06,0.008
-8.310E-06,0.008
-8.300E-06,0.012
-8.290E-06,0.004
-8.280E-06,0.000
-8.270E-06,0.000
-8.260E-06,0.008
-8.250E-06,0.020
-8.240E-06,0.016
-8.230E-06,0.004
-8.220E-06,0.000
-8.210E-06,0.004
-8.200E-06,0.000
-8.190E-06,0.004
-8.180E-06,0.008
-8.170E-06,0.016
-8.160E-06,0.016
-8.150E-06,0.012
-8.140E-06,0.000
-8.130E-06,-0.004
-8.120E-06,-0.008
-8.110E-06,0.000
-8.100E-06,-0.004
-8.090E-06,-0.004
-8.080E-06,0.000
-8.070E-06,0.008
-8.060E-06,0.020
-8.050E-06,0.028
-8.040E-06,0.020
-8.030E-06,0.016
-8.020E-06,0.020
-8.010E-06,-0.036
-8.000E-06,-0.024
-7.990E-06,-0.012
-7.980E-06,-0.008
-7.970E-06,-0.020
-7.960E-06,0.056
-7.950E-06,0.036
-7.940E-06,-0.044
-7.930E-06,-0.056
-7.920E-06,-0.024
-7.910E-06,0.024
-7.900E-06,0.052
-7.890E-06,0.064
-7.880E-06,-0.008
-7.870E-06,-0.060
-7.860E-06,-0.064
-7.850E-06,-0.012
-7.840E-06,0.036
-7.830E-06,0.064
-7.820E-06,0.044
-7.810E-06,0.008
-7.800E-06,-0.020
-7.790E-06,-0.044
-7.780E-06,-0.036
-7.770E-06,-0.008
-7.760E-06,0.024
-7.750E-06,0.036
-7.740E-06,0.040
-7.730E-06,0.024
-7.720E-06,-0.008
-7.710E-06,-0.020
-7.700E-06,-0.020
-7.690E-06,-0.012
-7.680E-06,0.004
-7.670E-06,0.024
-7.660E-06,0.024
-7.650E-06,0.028
-7.640E-06,0.004
-7.630E-06,-0.008
-7.620E-06,-0.024
-7.610E-06,-0.008
-7.600E-06,0.004
-7.590E-06,0.020
-7.580E-06,0.028
-7.570E-06,0.024
-7.560E-06,0.012
-7.550E-06,0.008
-7.540E-06,0.008
-7.530E-06,-0.004
-7.520E-06,-0.036
-7.510E-06,-0.060
-7.500E-06,-0.004
-7.490E-06,0.028
-7.480E-06,0.028
-7.470E-06,0.036
-7.460E-06,0.000
-7.450E-06,-0.040
-7.440E-06,-0.056
-7.430E-06,-0.028
-7.420E-06,0.024
-7.410E-06,0.060
-7.400E-06,0.060
-7.390E-06,0.012
-7.380E-06,-0.036
-7.370E-06,-0.064
-7.360E-06,-0.032
-7.350E-06,0.020
-7.340E-06,0.052
-7.330E-06,0.036
-7.320E-06,0.012
-7.310E-06,-0.012
-7.300E-06,-0.028
-7.290E-06,-0.024
-7.280E-06,-0.004
-7.270E-06,0.016
-7.260E-06,0.024
-7.250E-06,0.024
-7.240E-06,0.012
-7.230E-06,-0.008
-7.220E-06,-0.020
-7.210E-06,-0.016
-7.200E-06,0.000
-7.190E-06,0.008
-7.180E-06,0.024
-7.170E-06,0.024
-7.160E-06,0.024
-7.150E-06,-0.008
-7.140E-06,-0.020
-7.130E-06,-0.040
-7.120E-06,-0.028
-7.110E-06,-0.004
-7.100E-06,0.040
-7.090E-06,0.056
-7.080E-06,0.044
-7.070E-06,0.008
-7.060E-06,-0.036
-7.050E-06,-0.048
-7.040E-06,-0.028
-7.030E-06,0.000
-7.020E-06,0.036
-7.010E-06,0.052
-7.000E-06,0.036
-6.990E-06,0.012
-6.980E-06,-0.012
-6.970E-06,-0.024
-6.960E-06,-0.008
-6.950E-06,0.016
-6.940E-06,0.024
-6.930E-06,0.016
-6.920E-06,-0.004
-6.910E-06,-0.008
-6.900E-06,-0.012
-6.890E-06,-0.020
-6.880E-06,-0.024
-6.870E-06,-0.004
-6.860E-06,0.016
-6.850E-06,0.032
-6.840E-06,0.024
-6.830E-06,0.008
-6.820E-06,-0.012
-6.810E-06,-0.036
-6.800E-06,-0.024
-6.790E-06,0.000
-6.780E-06,0.024
-6.770E-06,0.036
-6.760E-06,0.024
-6.750E-06,0.012
-6.740E-06,-0.004
-6.730E-06,-0.012
-6.720E-06,-0.008
-6.710E-06,0.000
-6.700E-06,0.012
-6.690E-06,0.020
-6.680E-06,0.016
-6.670E-06,0.012
-6.660E-06,0.004
-6.650E-06,0.000
-6.640E-06,-0.004
-6.630E-06,0.000
-6.620E-06,0.008
-6.610E-06,0.008
-6.600E-06,0.008
-6.590E-06,0.000
-6.580E-06,-0.004
-6.570E-06,-0.004
-6.560E-06,0.000
-6.550E-06,0.000
-6.540E-06,0.004
-6.530E-06,0.012
-6.520E-06,0.008
-6.510E-06,0.008
-6.500E-06,0.004
-6.490E-06,-0.004
-6.480E-06,0.004
-6.470E-06,0.012
-6.460E-06,0.012
-6.450E-06,0.012
-6.440E-06,0.016
-6.430E-06,0.020
-6.420E-06,0.016
-6.410E-06,0.016
-6.400E-06,0.008
-6.390E-06,0.012
-6.380E-06,-0.004
-6.370E-06,-0.012
-6.360E-06,-0.024
-6.350E-06,-0.008
-6.340E-06,0.008
-6.330E-06,0.032
-6.320E-06,0.032
-6.310E-06,0.004
-6.300E-06,-0.040
-6.290E-06,-0.048
-6.280E-06,-0.024
-6.270E-06,-0.004
-6.260E-06,0.016
-6.250E-06,0.024
-6.240E-06,0.028
-6.230E-06,0.000
-6.220E-06,-0.004
-6.210E-06,-0.048
-6.200E-06,-0.028
-6.190E-06,-0.004
-6.180E-06,0.028
-6.170E-06,0.048
-6.160E-06,0.020
-6.150E-06,0.000
-6.140E-06,-0.028
-6.130E-06,-0.032
-6.120E-06,-0.016
-6.110E-06,0.004
-6.100E-06,0.024
-6.090E-06,0.036
-6.080E-06,0.016
-6.070E-06,0.000
-6.060E-06,-0.016
-6.050E-06,-0.020
-6.040E-06,-0.008
-6.030E-06,0.008
-6.020E-06,0.024
-6.010E-06,0.028
-6.000E-06,0.016
-5.990E-06,0.004
-5.980E-06,-0.008
-5.970E-06,-0.004
-5.960E-06,0.004
-5.950E-06,0.012
-5.940E-06,0.024
-5.930E-06,0.020
-5.920E-06,0.012
-5.910E-06,-0.008
-5.900E-06,-0.016
-5.890E-06,-0.020
-5.880E-06,-0.008
-5.870E-06,0.008
-5.860E-06,0.020
-5.850E-06,0.028
-5.840E-06,0.020
-5.830E-06,0.004
-5.820E-06,-0.008
-5.810E-06,-0.016
-5.800E-06,-0.008
-5.790E-06,0.004
-5.780E-06,0.028
-5.770E-06,0.032
-5.760E-06,0.028
-5.750E-06,0.008
-5.740E-06,-0.012
-5.730E-06,-0.024
-5.720E-06,-0.028
-5.710E-06,-0.028
-5.700E-06,-0.008
-5.690E-06,0.020
-5.680E-06,0.020
-5.670E-06,0.016
-5.660E-06,0.012
-5.650E-06,0.008
-5.640E-06,-0.024
-5.630E-06,-0.028
-5.620E-06,-0.012
-5.610E-06,0.008
-5.600E-06,0.028
-5.590E-06,0.028
-5.580E-06,0.016
-5.570E-06,-0.004
-5.560E-06,-0.020
-5.550E-06,-0.020
-5.540E-06,0.000
-5.530E-06,0.012
-5.520E-06,0.020
-5.510E-06,0.024
-5.500E-06,0.008
-5.490E-06,-0.004
-5.480E-06,-0.008
-5.470E-06,-0.012
-5.460E-06,-0.004
-5.450E-06,0.012
-5.440E-06,0.020
-5.430E-06,0.024
-5.420E-06,0.012
-5.410E-06,0.000
-5.400E-06,-0.008
-5.390E-06,-0.004
-5.380E-06,0.000
-5.370E-06,0.008
-5.360E-06,0.024
-5.350E-06,0.016
-5.340E-06,0.012
-5.330E-06,-0.004
-5.320E-06,-0.004
-5.310E-06,-0.008
-5.300E-06,0.004
-5.290E-06,0.016
-5.280E-06,0.020
-5.270E-06,0.008
-5.260E-06,0.008
-5.250E-06,0.000
-5.240E-06,-0.004
-5.230E-06,0.000
-5.220E-06,0.004
-5.210E-06,0.008
-5.200E-06,0.012
-5.190E-06,0.012
-5.180E-06,0.004
-5.170E-06,-0.004
-5.160E-06,-0.012
-5.150E-06,-0.008
-5.140E-06,0.004
-5.130E-06,0.000
-5.120E-06,0.012
-5.110E-06,0.016
-5.100E-06,0.024
-5.090E-06,0.012
-5.080E-06,0.008
-5.070E-06,-0.008
-5.060E-06,-0.012
-5.050E-06,0.000
-5.040E-06,0.004
-5.030E-06,0.020
-5.020E-06,0.024
-5.010E-06,0.016
-5.000E-06,0.000
-4.990E-06,-0.016
-4.980E-06,-0.020
-4.970E-06,-0.004
-4.960E-06,0.012
-4.950E-06,0.024
-4.940E-06,0.028
-4.930E-06,0.012
-4.920E-06,0.004
-4.910E-06,-0.004
-4.900E-06,-0.004
-4.890E-06,0.012
-4.880E-06,0.028
-4.870E-06,0.028
-4.860E-06,0.024
-4.850E-06,0.032
-4.840E-06,0.020
-4.830E-06,0.012
-4.820E-06,-0.004
-4.810E-06,-0.024
-4.800E-06,-0.028
-4.790E-06,-0.016
-4.780E-06,-0.004
-4.770E-06,0.008
-4.760E-06,0.016
-4.750E-06,0.012
-4.740E-06,0.008
-4.730E-06,-0.004
-4.720E-06,-0.008
-4.710E-06,-0.004
-4.700E-06,0.004
-4.690E-06,0.016
-4.680E-06,0.008
-4.670E-06,0.004
-4.660E-06,-0.004
-4.650E-06,0.016
-4.640E-06,0.028
-4.630E-06,0.012
-4.620E-06,0.000
-4.610E-06,-0.008
-4.600E-06,-0.008
-4.590E-06,-0.008
-4.580E-06,0.000
-4.570E-06,0.008
-4.560E-06,-0.004
-4.550E-06,0.004
-4.540E-06,-0.008
-4.530E-06,-0.016
-4.520E-06,0.004
-4.510E-06,0.004
-4.500E-06,-0.004
-4.490E-06,-0.024
-4.480E-06,-0.008
-4.470E-06,0.012
-4.460E-06,0.024
-4.450E-06,0.020
-4.440E-06,0.000
-4.430E-06,-0.008
-4.420E-06,-0.008
-4.410E-06,0.012
-4.400E-06,0.024
-4.390E-06,0.032
-4.380E-06,0.012
-4.370E-06,0.000
-4.360E-06,-0.024
-4.350E-06,-0.028
-4.340E-06,-0.008
-4.330E-06,-0.004
-4.320E-06,0.020
-4.310E-06,0.024
-4.300E-06,0.024
-4.290E-06,0.004
-4.280E-06,-0.008
-4.270E-06,-0.008
-4.260E-06,-0.008
-4.250E-06,0.012
-4.240E-06,0.028
-4.230E-06,0.028
-4.220E-06,0.016
-4.210E-06,0.008
-4.200E-06,-0.008
-4.190E-06,-0.004
-4.180E-06,0.000
-4.170E-06,0.008
-4.160E-06,0.028
-4.150E-06,0.044
-4.140E-06,0.036
-4.130E-06,0.008
-4.120E-06,-0.028
-4.110E-06,-0.036
-4.100E-06,-0.028
-4.090E-06,0.000
-4.080E-06,0.024
-4.070E-06,0.040
-4.060E-06,0.040
-4.050E-06,0.024
-4.040E-06,0.012
-4.030E-06,-0.020
-4.020E-06,-0.040
-4.010E-06,-0.036
-4.000E-06,-0.008
-3.990E-06,0.028
-3.980E-06,0.040
-3.970E-06,0.040
-3.960E-06,0.012
-3.950E-06,-0.028
-3.940E-06,-0.040
-3.930E-06,-0.040
-3.920E-06,-0.012
-3.910E-06,0.032
-3.900E-06,0.060
-3.890E-06,0.060
-3.880E-06,0.036
-3.870E-06,-0.004
-3.860E-06,-0.028
-3.850E-06,-0.028
-3.840E-06,0.000
-3.830E-06,0.040
-3.820E-06,0.056
-3.810E-06,0.044
-3.800E-06,0.012
-3.790E-06,-0.024
-3.780E-06,-0.040
-3.770E-06,-0.040
-3.760E-06,-0.012
-3.750E-06,0.028
-3.740E-06,0.048
-3.730E-06,0.028
-3.720E-06,0.000
-3.710E-06,-0.036
-3.700E-06,-0.040
-3.690E-06,-0.024
-3.680E-06,0.008
-3.670E-06,0.036
-3.660E-06,0.056
-3.650E-06,0.056
-3.640E-06,0.032
-3.630E-06,-0.004
-3.620E-06,-0.020
-3.610E-06,0.012
-3.600E-06,0.024
-3.590E-06,0.032
-3.580E-06,-0.004
-3.570E-06,-0.036
-3.560E-06,-0.044
-3.550E-06,-0.028
-3.540E-06,-0.020
-3.530E-06,-0.008
-3.520E-06,0.016
-3.510E-06,0.060
-3.500E-06,0.060
-3.490E-06,0.028
-3.480E-06,-0.020
-3.470E-06,-0.056
-3.460E-06,-0.032
-3.450E-06,0.004
-3.440E-06,0.048
-3.430E-06,0.060
-3.420E-06,0.040
-3.410E-06,-0.008
-3.400E-06,-0.052
-3.390E-06,-0.072
-3.380E-06,-0.048
-3.370E-06,-0.004
-3.360E-06,0.048
-3.350E-06,0.068
-3.340E-06,0.048
-3.330E-06,0.012
-3.320E-06,-0.028
-3.310E-06,-0.052
-3.300E-06,-0.032
-3.290E-06,0.012
-3.280E-06,0.060
-3.270E-06,0.088
-3.260E-06,0.068
-3.250E-06,0.040
-3.240E-06,-0.004
-3.230E-06,-0.016
-3.220E-06,-0.012
-3.210E-06,0.020
-3.200E-06,0.056
-3.190E-06,0.072
-3.180E-06,0.064
-3.170E-06,0.052
-3.160E-06,0.016
-3.150E-06,-0.020
-3.140E-06,-0.036
-3.130E-06,-0.028
-3.120E-06,0.008
-3.110E-06,0.044
-3.100E-06,0.084
-3.090E-06,0.084
-3.080E-06,0.060
-3.070E-06,0.032
-3.060E-06,0.032
-3.050E-06,-0.004
-3.040E-06,-0.232
-3.030E-06,-0.268
-3.020E-06,-0.164
-3.010E-06,0.040
-3.000E-06,0.120
-2.990E-06,0.272
-2.980E-06,0.096
-2.970E-06,-0.292
-2.960E-06,-0.420
-2.950E-06,-0.248
-2.940E-06,0.100
-2.930E-06,0.228
-2.920E-06,0.344
-2.910E-06,0.144
-2.900E-06,-0.064
-2.890E-06,-0.248
-2.880E-06,-0.236
-2.870E-06,-0.128
-2.860E-06,0.064
-2.850E-06,0.212
-2.840E-06,0.180
-2.830E-06,0.100
-2.820E-06,-0.064
-2.810E-06,-0.120
-2.800E-06,-0.136
-2.790E-06,-0.024
-2.780E-06,0.048
-2.770E-06,0.128
-2.760E-06,0.084
-2.750E-06,0.000
-2.740E-06,-0.072
-2.730E-06,-0.096
-2.720E-06,-0.040
-2.710E-06,0.032
-2.700E-06,0.076
-2.690E-06,0.044
-2.680E-06,0.024
-2.670E-06,-0.032
-2.660E-06,-0.028
-2.650E-06,-0.016
-2.640E-06,0.028
-2.630E-06,0.028
-2.620E-06,0.020
-2.610E-06,0.008
-2.600E-06,-0.004
-2.590E-06,-0.008
-2.580E-06,-0.004
-2.570E-06,0.004
-2.560E-06,0.012
-2.550E-06,0.032
-2.540E-06,0.036
-2.530E-06,0.040
-2.520E-06,0.016
-2.510E-06,-0.008
-2.500E-06,-0.036
-2.490E-06,-0.028
-2.480E-06,0.004
-2.470E-06,0.056
-2.460E-06,0.088
-2.450E-06,0.084
-2.440E-06,0.056
-2.430E-06,0.008
-2.420E-06,-0.024
-2.410E-06,-0.024
-2.400E-06,0.016
-2.390E-06,0.068
-2.380E-06,0.092
-2.370E-06,0.088
-2.360E-06,0.056
-2.350E-06,0.012
-2.340E-06,-0.036
-2.330E-06,-0.040
-2.320E-06,-0.020
-2.310E-06,0.016
-2.300E-06,0.060
-2.290E-06,0.084
-2.280E-06,0.060
-2.270E-06,0.008
-2.260E-06,-0.140
-2.250E-06,-0.228
-2.240E-06,-0.152
-2.230E-06,-0.012
-2.220E-06,0.064
-2.210E-06,0.164
-2.200E-06,0.148
-2.190E-06,0.028
-2.180E-06,-0.088
-2.170E-06,-0.140
-2.160E-06,-0.056
-2.150E-06,0.028
-2.140E-06,0.100
-2.130E-06,0.092
-2.120E-06,0.044
-2.110E-06,-0.032
-2.100E-06,0.016
-2.090E-06,0.028
-2.080E-06,0.076
-2.070E-06,-0.064
-2.060E-06,-0.180
-2.050E-06,-0.172
-2.040E-06,-0.060
-2.030E-06,0.068
-2.020E-06,0.092
-2.010E-06,0.096
-2.000E-06,0.020
-1.990E-06,-0.020
-1.980E-06,-0.072
-1.970E-06,-0.056
-1.960E-06,-0.032
-1.950E-06,0.028
-1.940E-06,0.056
-1.930E-06,0.052
-1.920E-06,0.048
-1.910E-06,0.016
-1.900E-06,-0.008
-1.890E-06,-0.044
-1.880E-06,-0.036
-1.870E-06,-0.032
-1.860E-06,0.008
-1.850E-06,0.036
-1.840E-06,0.048
-1.830E-06,0.024
-1.820E-06,0.000
-1.810E-06,-0.008
-1.800E-06,-0.012
-1.790E-06,-0.008
-1.780E-06,0.016
-1.770E-06,0.040
-1.760E-06,0.060
-1.750E-06,0.060
-1.740E-06,0.040
-1.730E-06,0.016
-1.720E-06,-0.008
-1.710E-06,-0.008
-1.700E-06,0.000
-1.690E-06,0.040
-1.680E-06,0.068
-1.670E-06,0.092
-1.660E-06,0.072
-1.650E-06,0.036
-1.640E-06,0.008
-1.630E-06,-0.008
-1.620E-06,0.008
-1.610E-06,0.028
-1.600E-06,0.060
-1.590E-06,0.064
-1.580E-06,0.052
-1.570E-06,0.016
-1.560E-06,-0.020
-1.550E-06,0.012
-1.540E-06,0.068
-1.530E-06,0.108
-1.520E-06,0.008
-1.510E-06,-0.160
-1.500E-06,-0.296
-1.490E-06,-0.296
-1.480E-06,-0.156
-1.470E-06,0.004
-1.460E-06,0.164
-1.450E-06,0.240
-1.440E-06,0.108
-1.430E-06,-0.128
-1.420E-06,-0.220
-1.410E-06,-0.164
-1.400E-06,-0.032
-1.390E-06,0.100
-1.380E-06,0.156
-1.370E-06,0.128
-1.360E-06,0.028
-1.350E-06,-0.064
-1.340E-06,-0.108
-1.330E-06,-0.072
-1.320E-06,-0.004
-1.310E-06,0.092
-1.300E-06,0.136
-1.290E-06,0.124
-1.280E-06,0.052
-1.270E-06,-0.024
-1.260E-06,-0.056
-1.250E-06,-0.028
-1.240E-06,0.040
-1.230E-06,0.124
-1.220E-06,0.176
-1.210E-06,0.168
-1.200E-06,0.124
-1.190E-06,0.092
-1.180E-06,0.064
-1.170E-06,0.008
-1.160E-06,-0.028
-1.150E-06,-0.068
-1.140E-06,-0.076
-1.130E-06,-0.056
-1.120E-06,-0.004
-1.110E-06,0.012
-1.100E-06,0.024
-1.090E-06,-0.020
-1.080E-06,-0.072
-1.070E-06,-0.120
-1.060E-06,-0.104
-1.050E-06,0.016
-1.040E-06,0.092
-1.030E-06,0.100
-1.020E-06,0.020
-1.010E-06,-0.036
-1.000E-06,-0.072
-9.900E-07,-0.016
-9.800E-07,0.116
-9.700E-07,0.192
-9.600E-07,0.252
-9.500E-07,0.204
-9.400E-07,0.132
-9.300E-07,0.028
-9.200E-07,-0.004
-9.100E-07,-0.060
-9.000E-07,-0.020
-8.900E-07,-0.012
-8.800E-07,-0.036
-8.700E-07,-0.032
-8.600E-07,-0.056
-8.500E-07,-0.128
-8.400E-07,-0.240
-8.300E-07,-0.168
-8.200E-07,-0.080
-8.100E-07,-0.024
-8.000E-07,-0.004
-7.900E-07,0.028
-7.800E-07,-0.004
-7.700E-07,-0.076
-7.600E-07,-0.068
-7.500E-07,0.008
-7.400E-07,-0.016
-7.300E-07,-0.040
-7.200E-07,0.020
-7.100E-07,0.088
-7.000E-07,0.108
-6.900E-07,0.020
-6.800E-07,-0.056
-6.700E-07,-0.096
-6.600E-07,-0.020
-6.500E-07,0.092
-6.400E-07,0.220
-6.300E-07,0.272
-6.200E-07,0.256
-6.100E-07,0.164
-6.000E-07,0.064
-5.900E-07,-0.056
-5.800E-07,-0.144
-5.700E-07,-0.128
-5.600E-07,-0.088
-5.500E-07,-0.036
-5.400E-07,-0.004
-5.300E-07,0.000
-5.200E-07,-0.040
-5.100E-07,-0.040
-5.000E-07,-0.056
-4.900E-07,-0.072
-4.800E-07,-0.028
-4.700E-07,0.036
-4.600E-07,0.088
-4.500E-07,0.052
-4.400E-07,0.012
-4.300E-07,-0.024
-4.200E-07,-0.004
-4.100E-07,0.076
-4.000E-07,0.108
-3.900E-07,0.060
-3.800E-07,-0.020
-3.700E-07,-0.044
-3.600E-07,-0.024
-3.500E-07,-0.004
-3.400E-07,0.024
-3.300E-07,-0.008
-3.200E-07,-0.024
-3.100E-07,-0.048
-3.000E-07,-0.052
-2.900E-07,0.028
-2.800E-07,0.064
-2.700E-07,0.112
-2.600E-07,0.172
-2.500E-07,0.152
-2.400E-07,0.076
-2.300E-07,0.048
-2.200E-07,0.076
-2.100E-07,0.108
-2.000E-07,0.148
-1.900E-07,0.140
-1.800E-07,0.120
-1.700E-07,0.104
-1.600E-07,0.088
-1.500E-07,0.024
-1.400E-07,-0.028
-1.300E-07,-0.064
-1.200E-07,-0.088
-1.100E-07,-0.064
-1.000E-07,-0.028
-9.000E-08,0.072
-8.000E-08,0.160
-7.000E-08,0.168
-6.000E-08,-0.036
-5.000E-08,-0.428
-4.000E-08,-0.508
-3.000E-08,-0.508
-2.000E-08,-0.512
-1.000E-08,0.092
0.000E+00,0.544
1.000E-08,0.540
2.000E-08,0.164
3.000E-08,-0.468
4.000E-08,-0.512
5.000E-08,-0.332
6.000E-08,0.108
7.000E-08,0.368
8.000E-08,0.308
9.000E-08,0.104
1.000E-07,-0.140
1.100E-07,-0.132
1.200E-07,-0.096
1.300E-07,0.020
1.400E-07,0.008
1.500E-07,0.088
1.600E-07,0.056
1.700E-07,0.064
1.800E-07,0.020
1.900E-07,-0.036
2.000E-07,-0.056
2.100E-07,-0.024
2.200E-07,0.084
2.300E-07,0.108
2.400E-07,0.096
2.500E-07,-0.032
2.600E-07,-0.076
2.700E-07,-0.080
2.800E-07,0.016
2.900E-07,0.060
3.000E-07,0.064
3.100E-07,0.020
3.200E-07,-0.044
3.300E-07,-0.060
3.400E-07,-0.076
3.500E-07,0.000
3.600E-07,0.056
3.700E-07,0.124
3.800E-07,0.108
3.900E-07,0.040
4.000E-07,-0.044
4.100E-07,-0.104
4.200E-07,-0.092
4.300E-07,-0.004
4.400E-07,0.088
4.500E-07,0.152
4.600E-07,0.132
4.700E-07,0.052
4.800E-07,-0.032
4.900E-07,-0.092
5.000E-07,-0.100
5.100E-07,-0.012
5.200E-07,0.112
5.300E-07,0.180
5.400E-07,0.160
5.500E-07,0.076
5.600E-07,-0.024
5.700E-07,-0.076
5.800E-07,-0.072
5.900E-07,0.012
6.000E-07,0.120
6.100E-07,0.180
6.200E-07,0.188
6.300E-07,0.160
6.400E-07,0.092
6.500E-07,0.036
6.600E-07,0.052
6.700E-07,0.096
6.800E-07,0.168
6.900E-07,0.204
7.000E-07,0.200
7.100E-07,0.152
7.200E-07,0.044
7.300E-07,-0.108
7.400E-07,-0.232
7.500E-07,-0.324
7.600E-07,-0.348
7.700E-07,-0.248
7.800E-07,-0.104
7.900E-07,0.072
8.000E-07,0.208
8.100E-07,0.192
8.200E-07,0.012
8.300E-07,-0.056
8.400E-07,0.040
8.500E-07,0.192
8.600E-07,0.160
8.700E-07,-0.072
8.800E-07,-0.512
8.900E-07,-0.512
9.000E-07,-0.508
9.100E-07,-0.468
9.200E-07,0.220
9.300E-07,0.540
9.400E-07,0.536
9.500E-07,0.216
9.600E-07,-0.212
9.700E-07,-0.452
9.800E-07,-0.332
9.900E-07,-0.044
1.000E-06,0.148
1.010E-06,0.232
1.020E-06,0.144
1.030E-06,0.044
1.040E-06,-0.060
1.050E-06,-0.056
1.060E-06,-0.052
1.070E-06,-0.004
1.080E-06,0.012
1.090E-06,0.044
1.100E-06,0.040
1.110E-06,0.028
1.120E-06,0.000
1.130E-06,-0.020
1.140E-06,0.004
1.150E-06,0.016
1.160E-06,0.032
1.170E-06,0.004
1.180E-06,-0.012
1.190E-06,-0.040
1.200E-06,0.000
1.210E-06,0.032
1.220E-06,0.056
1.230E-06,0.036
1.240E-06,-0.012
1.250E-06,-0.036
1.260E-06,-0.060
1.270E-06,-0.036
1.280E-06,0.016
1.290E-06,0.088
1.300E-06,0.112
1.310E-06,0.104
1.320E-06,0.052
1.330E-06,-0.024
1.340E-06,-0.088
1.350E-06,-0.056
1.360E-06,0.012
1.370E-06,0.112
1.380E-06,0.176
1.390E-06,0.160
1.400E-06,0.100
1.410E-06,0.016
1.420E-06,-0.032
1.430E-06,-0.008
1.440E-06,0.060
1.450E-06,0.156
1.460E-06,0.228
1.470E-06,0.204
1.480E-06,0.120
1.490E-06,0.056
1.500E-06,0.000
1.510E-06,-0.004
1.520E-06,0.028
1.530E-06,0.108
1.540E-06,0.224
1.550E-06,0.240
1.560E-06,0.128
1.570E-06,-0.012
1.580E-06,-0.268
1.590E-06,-0.412
1.600E-06,-0.472
1.610E-06,-0.216
1.620E-06,-0.012
1.630E-06,0.104
1.640E-06,0.232
1.650E-06,-0.028
1.660E-06,-0.212
1.670E-06,-0.264
1.680E-06,-0.176
1.690E-06,-0.052
1.700E-06,0.152
1.710E-06,0.244
1.720E-06,0.256
1.730E-06,0.144
1.740E-06,-0.044
1.750E-06,-0.184
1.760E-06,-0.272
1.770E-06,-0.216
1.780E-06,-0.068
1.790E-06,0.104
1.800E-06,0.128
1.810E-06,0.120
1.820E-06,-0.016
1.830E-06,-0.124
1.840E-06,-0.196
1.850E-06,-0.148
1.860E-06,0.004
1.870E-06,0.136
1.880E-06,0.260
1.890E-06,0.212
1.900E-06,0.108
1.910E-06,-0.096
1.920E-06,-0.184
1.930E-06,-0.140
1.940E-06,0.012
1.950E-06,0.168
1.960E-06,0.296
1.970E-06,0.304
1.980E-06,0.200
1.990E-06,0.044
2.000E-06,-0.088
2.010E-06,-0.088
2.020E-06,-0.004
2.030E-06,0.144
2.040E-06,0.272
2.050E-06,0.316
2.060E-06,0.236
2.070E-06,0.036
2.080E-06,-0.192
2.090E-06,-0.336
2.100E-06,-0.356
2.110E-06,-0.248
2.120E-06,-0.036
2.130E-06,0.132
2.140E-06,0.184
2.150E-06,0.088
2.160E-06,-0.108
2.170E-06,-0.232
2.180E-06,-0.204
2.190E-06,-0.024
2.200E-06,0.164
2.210E-06,0.260
2.220E-06,0.216
2.230E-06,0.080
2.240E-06,-0.040
2.250E-06,-0.108
2.260E-06,-0.104
2.270E-06,-0.004
2.280E-06,0.164
2.290E-06,0.260
2.300E-06,0.248
2.310E-06,0.140
2.320E-06,0.012
2.330E-06,-0.044
2.340E-06,-0.020
2.350E-06,0.072
2.360E-06,0.176
2.370E-06,0.260
2.380E-06,0.256
2.390E-06,0.200
2.400E-06,0.124
2.410E-06,0.060
2.420E-06,0.028
2.430E-06,0.068
2.440E-06,0.148
2.450E-06,0.224
2.460E-06,0.272
2.470E-06,0.256
2.480E-06,0.192
2.490E-06,0.124
2.500E-06,0.080
2.510E-06,0.092
2.520E-06,0.164
2.530E-06,0.240
2.540E-06,0.208
2.550E-06,0.144
2.560E-06,-0.008
2.570E-06,-0.108
2.580E-06,-0.052
2.590E-06,0.136
2.600E-06,0.364
2.610E-06,0.488
2.620E-06,0.508
2.630E-06,0.176
2.640E-06,0.096
2.650E-06,-0.276
2.660E-06,-0.508
2.670E-06,-0.512
2.680E-06,-0.512
2.690E-06,-0.508
2.700E-06,-0.508
2.710E-06,0.024
2.720E-06,0.544
2.730E-06,0.544
2.740E-06,0.104
2.750E-06,-0.304
2.760E-06,-0.504
2.770E-06,-0.120
2.780E-06,0.148
2.790E-06,0.260
2.800E-06,-0.072
2.810E-06,-0.448
2.820E-06,-0.512
2.830E-06,-0.460
2.840E-06,0.020
2.850E-06,0.288
2.860E-06,0.524
2.870E-06,0.384
2.880E-06,0.148
2.890E-06,-0.352
2.900E-06,-0.512
2.910E-06,-0.480
2.920E-06,-0.132
2.930E-06,0.320
2.940E-06,0.536
2.950E-06,0.536
2.960E-06,0.240
2.970E-06,-0.208
2.980E-06,-0.512
2.990E-06,-0.500
3.000E-06,-0.168
3.010E-06,0.344
3.020E-06,0.540
3.030E-06,0.540
3.040E-06,0.272
3.050E-06,-0.108
3.060E-06,-0.320
3.070E-06,-0.320
3.080E-06,-0.016
3.090E-06,0.324
3.100E-06,0.540
3.110E-06,0.540
3.120E-06,0.372
3.130E-06,-0.004
3.140E-06,-0.220
3.150E-06,-0.200
3.160E-06,0.056
3.170E-06,0.412
3.180E-06,0.540
3.190E-06,0.540
3.200E-06,0.440
3.210E-06,0.156
3.220E-06,-0.080
