mediciones/5-15/47.5/WaveData47145.csv

#timebase=2000000(ps)
,#voltbase=100000(mv/100)
#size=4000
-8.400E-06,0.000
-8.390E-06,0.004
-8.380E-06,0.004
-8.370E-06,-0.008
-8.360E-06,0.004
-8.350E-06,0.000
-8.340E-06,0.000
-8.330E-06,0.004
-8.320E-06,0.004
-8.310E-06,0.004
-8.300E-06,0.000
-8.290E-06,0.000
-8.280E-06,0.000
-8.270E-06,0.000
-8.260E-06,0.004
-8.250E-06,0.008
-8.240E-06,0.004
-8.230E-06,0.004
-8.220E-06,0.000
-8.210E-06,0.000
-8.200E-06,0.004
-8.190E-06,0.004
-8.180E-06,0.000
-8.170E-06,0.008
-8.160E-06,0.008
-8.150E-06,0.000
-8.140E-06,0.004
-8.130E-06,0.000
-8.120E-06,0.000
-8.110E-06,0.000
-8.100E-06,-0.004
-8.090E-06,0.000
-8.080E-06,0.008
-8.070E-06,0.008
-8.060E-06,0.000
-8.050E-06,0.000
-8.040E-06,0.000
-8.030E-06,-0.004
-8.020E-06,0.004
-8.010E-06,0.000
-8.000E-06,0.004
-7.990E-06,0.004
-7.980E-06,0.004
-7.970E-06,0.000
-7.960E-06,-0.004
-7.950E-06,0.000
-7.940E-06,0.004
-7.930E-06,0.000
-7.920E-06,0.000
-7.910E-06,0.004
-7.900E-06,0.000
-7.890E-06,0.004
-7.880E-06,0.000
-7.870E-06,0.000
-7.860E-06,-0.004
-7.850E-06,0.004
-7.840E-06,0.000
-7.830E-06,0.000
-7.820E-06,0.004
-7.810E-06,0.004
-7.800E-06,0.000
-7.790E-06,0.000
-7.780E-06,0.000
-7.770E-06,0.004
-7.760E-06,0.004
-7.750E-06,0.004
-7.740E-06,0.004
-7.730E-06,0.004
-7.720E-06,0.000
-7.710E-06,0.004
-7.700E-06,0.000
-7.690E-06,0.004
-7.680E-06,0.008
-7.670E-06,0.000
-7.660E-06,0.004
-7.650E-06,0.004
-7.640E-06,0.004
-7.630E-06,0.004
-7.620E-06,0.004
-7.610E-06,0.004
-7.600E-06,0.000
-7.590E-06,0.000
-7.580E-06,0.004
-7.570E-06,0.004
-7.560E-06,0.000
-7.550E-06,0.000
-7.540E-06,0.000
-7.530E-06,0.000
-7.520E-06,0.008
-7.510E-06,0.008
-7.500E-06,0.004
-7.490E-06,0.004
-7.480E-06,0.000
-7.470E-06,-0.004
-7.460E-06,0.004
-7.450E-06,0.000
-7.440E-06,0.004
-7.430E-06,0.004
-7.420E-06,0.008
-7.410E-06,0.004
-7.400E-06,0.000
-7.390E-06,0.000
-7.380E-06,0.000
-7.370E-06,0.004
-7.360E-06,-0.004
-7.350E-06,0.008
-7.340E-06,0.004
-7.330E-06,0.004
-7.320E-06,-0.004
-7.310E-06,0.000
-7.300E-06,0.004
-7.290E-06,0.004
-7.280E-06,0.004
-7.270E-06,0.000
-7.260E-06,0.000
-7.250E-06,0.008
-7.240E-06,0.000
-7.230E-06,0.000
-7.220E-06,0.000
-7.210E-06,0.000
-7.200E-06,0.004
-7.190E-06,0.004
-7.180E-06,0.000
-7.170E-06,0.000
-7.160E-06,0.000
-7.150E-06,0.004
-7.140E-06,0.012
-7.130E-06,0.000
-7.120E-06,-0.004
-7.110E-06,0.004
-7.100E-06,0.004
-7.090E-06,0.000
-7.080E-06,0.004
-7.070E-06,0.012
-7.060E-06,0.012
-7.050E-06,-0.004
-7.040E-06,-0.004
-7.030E-06,0.000
-7.020E-06,-0.004
-7.010E-06,0.000
-7.000E-06,0.012
-6.990E-06,0.004
-6.980E-06,0.012
-6.970E-06,0.000
-6.960E-06,-0.008
-6.950E-06,-0.008
-6.940E-06,0.004
-6.930E-06,0.008
-6.920E-06,0.004
-6.910E-06,0.004
-6.900E-06,0.000
-6.890E-06,0.008
-6.880E-06,0.000
-6.870E-06,0.004
-6.860E-06,0.004
-6.850E-06,0.008
-6.840E-06,0.004
-6.830E-06,0.000
-6.820E-06,0.000
-6.810E-06,0.000
-6.800E-06,0.008
-6.790E-06,0.000
-6.780E-06,0.004
-6.770E-06,0.000
-6.760E-06,0.004
-6.750E-06,0.004
-6.740E-06,0.004
-6.730E-06,0.000
-6.720E-06,0.004
-6.710E-06,0.000
-6.700E-06,0.004
-6.690E-06,0.004
-6.680E-06,0.008
-6.670E-06,0.000
-6.660E-06,0.000
-6.650E-06,0.004
-6.640E-06,0.004
-6.630E-06,0.004
-6.620E-06,0.008
-6.610E-06,0.000
-6.600E-06,0.000
-6.590E-06,0.004
-6.580E-06,0.004
-6.570E-06,0.000
-6.560E-06,0.004
-6.550E-06,0.004
-6.540E-06,0.004
-6.530E-06,0.000
-6.520E-06,0.004
-6.510E-06,0.000
-6.500E-06,0.004
-6.490E-06,0.004
-6.480E-06,0.004
-6.470E-06,0.004
-6.460E-06,0.004
-6.450E-06,0.000
-6.440E-06,0.004
-6.430E-06,0.004
-6.420E-06,0.004
-6.410E-06,0.000
-6.400E-06,0.000
-6.390E-06,0.000
-6.380E-06,0.004
-6.370E-06,0.004
-6.360E-06,0.000
-6.350E-06,0.000
-6.340E-06,0.004
-6.330E-06,-0.004
-6.320E-06,0.004
-6.310E-06,0.000
-6.300E-06,0.004
-6.290E-06,0.000
-6.280E-06,0.004
-6.270E-06,0.004
-6.260E-06,0.004
-6.250E-06,0.004
-6.240E-06,0.004
-6.230E-06,0.008
-6.220E-06,0.004
-6.210E-06,0.004
-6.200E-06,0.008
-6.190E-06,0.008
-6.180E-06,0.008
-6.170E-06,0.000
-6.160E-06,-0.004
-6.150E-06,0.004
-6.140E-06,-0.004
-6.130E-06,0.000
-6.120E-06,0.004
-6.110E-06,0.008
-6.100E-06,0.008
-6.090E-06,0.000
-6.080E-06,0.004
-6.070E-06,0.004
-6.060E-06,0.004
-6.050E-06,0.004
-6.040E-06,-0.004
-6.030E-06,0.004
-6.020E-06,0.004
-6.010E-06,0.004
-6.000E-06,0.004
-5.990E-06,0.004
-5.980E-06,0.000
-5.970E-06,0.004
-5.960E-06,0.004
-5.950E-06,0.004
-5.940E-06,0.004
-5.930E-06,0.004
-5.920E-06,-0.004
-5.910E-06,0.004
-5.900E-06,0.000
-5.890E-06,0.000
-5.880E-06,0.004
-5.870E-06,0.004
-5.860E-06,0.000
-5.850E-06,0.004
-5.840E-06,0.004
-5.830E-06,0.004
-5.820E-06,0.000
-5.810E-06,0.004
-5.800E-06,0.000
-5.790E-06,0.000
-5.780E-06,0.004
-5.770E-06,0.000
-5.760E-06,0.000
-5.750E-06,0.000
-5.740E-06,0.000
-5.730E-06,0.004
-5.720E-06,0.004
-5.710E-06,0.004
-5.700E-06,0.008
-5.690E-06,-0.004
-5.680E-06,0.000
-5.670E-06,0.000
-5.660E-06,0.000
-5.650E-06,0.008
-5.640E-06,0.008
-5.630E-06,0.000
-5.620E-06,0.004
-5.610E-06,0.004
-5.600E-06,0.004
-5.590E-06,0.004
-5.580E-06,0.000
-5.570E-06,0.000
-5.560E-06,0.000
-5.550E-06,0.004
-5.540E-06,0.000
-5.530E-06,0.004
-5.520E-06,0.000
-5.510E-06,0.000
-5.500E-06,0.004
-5.490E-06,-0.004
-5.480E-06,0.004
-5.470E-06,0.000
-5.460E-06,0.000
-5.450E-06,0.004
-5.440E-06,0.004
-5.430E-06,0.004
-5.420E-06,0.004
-5.410E-06,0.000
-5.400E-06,0.000
-5.390E-06,0.000
-5.380E-06,0.004
-5.370E-06,0.000
-5.360E-06,0.000
-5.350E-06,0.004
-5.340E-06,0.000
-5.330E-06,0.004
-5.320E-06,0.000
-5.310E-06,0.000
-5.300E-06,0.004
-5.290E-06,0.000
-5.280E-06,0.000
-5.270E-06,0.000
-5.260E-06,0.004
-5.250E-06,0.000
-5.240E-06,0.000
-5.230E-06,0.000
-5.220E-06,0.004
-5.210E-06,0.004
-5.200E-06,0.004
-5.190E-06,-0.004
-5.180E-06,0.000
-5.170E-06,0.004
-5.160E-06,0.012
-5.150E-06,0.000
-5.140E-06,0.000
-5.130E-06,0.000
-5.120E-06,0.004
-5.110E-06,-0.004
-5.100E-06,0.004
-5.090E-06,0.004
-5.080E-06,0.004
-5.070E-06,0.004
-5.060E-06,0.000
-5.050E-06,0.004
-5.040E-06,0.004
-5.030E-06,0.000
-5.020E-06,0.000
-5.010E-06,0.004
-5.000E-06,0.004
-4.990E-06,0.000
-4.980E-06,0.004
-4.970E-06,0.004
-4.960E-06,0.000
-4.950E-06,0.000
-4.940E-06,0.004
-4.930E-06,-0.004
-4.920E-06,0.004
-4.910E-06,0.000
-4.900E-06,0.000
-4.890E-06,0.004
-4.880E-06,0.008
-4.870E-06,0.008
-4.860E-06,0.004
-4.850E-06,-0.004
-4.840E-06,0.000
-4.830E-06,0.008
-4.820E-06,0.008
-4.810E-06,0.000
-4.800E-06,0.000
-4.790E-06,0.004
-4.780E-06,0.004
-4.770E-06,0.004
-4.760E-06,0.004
-4.750E-06,0.000
-4.740E-06,0.000
-4.730E-06,0.000
-4.720E-06,0.000
-4.710E-06,0.004
-4.700E-06,0.004
-4.690E-06,0.004
-4.680E-06,0.004
-4.670E-06,0.004
-4.660E-06,0.000
-4.650E-06,0.000
-4.640E-06,-0.004
-4.630E-06,0.004
-4.620E-06,0.004
-4.610E-06,0.000
-4.600E-06,0.008
-4.590E-06,0.000
-4.580E-06,0.004
-4.570E-06,0.000
-4.560E-06,0.000
-4.550E-06,0.000
-4.540E-06,0.004
-4.530E-06,0.008
-4.520E-06,0.000
-4.510E-06,0.004
-4.500E-06,0.000
-4.490E-06,0.004
-4.480E-06,0.000
-4.470E-06,0.004
-4.460E-06,0.004
-4.450E-06,0.004
-4.440E-06,0.004
-4.430E-06,0.004
-4.420E-06,0.004
-4.410E-06,0.000
-4.400E-06,0.000
-4.390E-06,0.004
-4.380E-06,0.004
-4.370E-06,0.000
-4.360E-06,0.004
-4.350E-06,0.008
-4.340E-06,0.008
-4.330E-06,0.008
-4.320E-06,-0.004
-4.310E-06,0.000
-4.300E-06,0.000
-4.290E-06,0.000
-4.280E-06,0.004
-4.270E-06,0.004
-4.260E-06,0.004
-4.250E-06,0.008
-4.240E-06,0.000
-4.230E-06,-0.004
-4.220E-06,0.004
-4.210E-06,0.004
-4.200E-06,-0.004
-4.190E-06,0.000
-4.180E-06,0.004
-4.170E-06,0.000
-4.160E-06,0.000
-4.150E-06,0.004
-4.140E-06,0.000
-4.130E-06,0.000
-4.120E-06,0.000
-4.110E-06,0.004
-4.100E-06,0.008
-4.090E-06,0.008
-4.080E-06,0.008
-4.070E-06,0.000
-4.060E-06,-0.004
-4.050E-06,0.000
-4.040E-06,0.000
-4.030E-06,-0.008
-4.020E-06,-0.004
-4.010E-06,-0.016
-4.000E-06,-0.048
-3.990E-06,-0.040
-3.980E-06,-0.004
-3.970E-06,0.040
-3.960E-06,0.080
-3.950E-06,0.088
-3.940E-06,0.064
-3.930E-06,-0.036
-3.920E-06,-0.044
-3.910E-06,-0.172
-3.900E-06,-0.108
-3.890E-06,-0.004
-3.880E-06,0.132
-3.870E-06,0.192
-3.860E-06,0.108
-3.850E-06,-0.044
-3.840E-06,-0.140
-3.830E-06,-0.084
-3.820E-06,-0.076
-3.810E-06,0.040
-3.800E-06,0.128
-3.790E-06,0.124
-3.780E-06,0.012
-3.770E-06,-0.008
-3.760E-06,-0.040
-3.750E-06,-0.076
-3.740E-06,-0.032
-3.730E-06,0.016
-3.720E-06,0.064
-3.710E-06,0.036
-3.700E-06,0.040
-3.690E-06,0.008
-3.680E-06,-0.004
-3.670E-06,-0.024
-3.660E-06,-0.020
-3.650E-06,-0.012
-3.640E-06,0.012
-3.630E-06,0.028
-3.620E-06,0.024
-3.610E-06,0.024
-3.600E-06,-0.004
-3.590E-06,-0.012
-3.580E-06,-0.020
-3.570E-06,-0.008
-3.560E-06,0.004
-3.550E-06,0.024
-3.540E-06,0.032
-3.530E-06,0.032
-3.520E-06,0.016
-3.510E-06,0.020
-3.500E-06,0.016
-3.490E-06,0.008
-3.480E-06,0.004
-3.470E-06,-0.012
-3.460E-06,-0.024
-3.450E-06,-0.016
-3.440E-06,0.000
-3.430E-06,0.028
-3.420E-06,0.040
-3.410E-06,0.024
-3.400E-06,-0.004
-3.390E-06,-0.028
-3.380E-06,-0.032
-3.370E-06,-0.012
-3.360E-06,0.016
-3.350E-06,0.040
-3.340E-06,0.044
-3.330E-06,0.028
-3.320E-06,0.008
-3.310E-06,0.004
-3.300E-06,0.008
-3.290E-06,0.016
-3.280E-06,0.036
-3.270E-06,0.056
-3.260E-06,0.068
-3.250E-06,0.040
-3.240E-06,0.012
-3.230E-06,-0.016
-3.220E-06,-0.016
-3.210E-06,0.000
-3.200E-06,0.004
-3.190E-06,0.004
-3.180E-06,0.000
-3.170E-06,0.016
-3.160E-06,0.020
-3.150E-06,0.044
-3.140E-06,0.040
-3.130E-06,0.024
-3.120E-06,0.004
-3.110E-06,-0.004
-3.100E-06,0.004
-3.090E-06,0.020
-3.080E-06,0.056
-3.070E-06,0.056
-3.060E-06,0.040
-3.050E-06,0.032
-3.040E-06,0.000
-3.030E-06,-0.012
-3.020E-06,-0.008
-3.010E-06,-0.020
-3.000E-06,-0.004
-2.990E-06,-0.004
-2.980E-06,0.032
-2.970E-06,0.048
-2.960E-06,0.016
-2.950E-06,-0.024
-2.940E-06,-0.120
-2.930E-06,-0.152
-2.920E-06,-0.208
-2.910E-06,-0.128
-2.900E-06,-0.036
-2.890E-06,0.116
-2.880E-06,0.180
-2.870E-06,0.096
-2.860E-06,-0.004
-2.850E-06,-0.140
-2.840E-06,-0.152
-2.830E-06,-0.084
-2.820E-06,0.020
-2.810E-06,0.108
-2.800E-06,0.132
-2.790E-06,0.076
-2.780E-06,-0.024
-2.770E-06,-0.100
-2.760E-06,-0.100
-2.750E-06,-0.036
-2.740E-06,0.024
-2.730E-06,0.072
-2.720E-06,0.068
-2.710E-06,0.044
-2.700E-06,0.004
-2.690E-06,-0.020
-2.680E-06,-0.040
-2.670E-06,-0.048
-2.660E-06,-0.028
-2.650E-06,0.012
-2.640E-06,0.040
-2.630E-06,0.056
-2.620E-06,0.056
-2.610E-06,0.028
-2.600E-06,-0.012
-2.590E-06,-0.036
-2.580E-06,-0.044
-2.570E-06,-0.036
-2.560E-06,0.000
-2.550E-06,0.028
-2.540E-06,0.060
-2.530E-06,0.060
-2.520E-06,0.036
-2.510E-06,0.008
-2.500E-06,-0.040
-2.490E-06,-0.040
-2.480E-06,-0.028
-2.470E-06,0.012
-2.460E-06,0.028
-2.450E-06,0.056
-2.440E-06,0.052
-2.430E-06,0.044
-2.420E-06,0.024
-2.410E-06,0.008
-2.400E-06,-0.016
-2.390E-06,-0.044
-2.380E-06,-0.032
-2.370E-06,-0.028
-2.360E-06,-0.008
-2.350E-06,0.012
-2.340E-06,0.048
-2.330E-06,0.044
-2.320E-06,0.028
-2.310E-06,-0.004
-2.300E-06,-0.028
-2.290E-06,-0.024
-2.280E-06,0.008
-2.270E-06,0.044
-2.260E-06,0.068
-2.250E-06,0.044
-2.240E-06,-0.024
-2.230E-06,-0.072
-2.220E-06,-0.084
-2.210E-06,-0.044
-2.200E-06,0.000
-2.190E-06,0.044
-2.180E-06,0.060
-2.170E-06,0.028
-2.160E-06,-0.004
-2.150E-06,-0.040
-2.140E-06,-0.020
-2.130E-06,-0.008
-2.120E-06,-0.008
-2.110E-06,0.008
-2.100E-06,0.008
-2.090E-06,0.000
-2.080E-06,-0.012
-2.070E-06,-0.020
-2.060E-06,-0.024
-2.050E-06,-0.016
-2.040E-06,0.012
-2.030E-06,0.008
-2.020E-06,0.000
-2.010E-06,0.000
-2.000E-06,0.000
-1.990E-06,-0.004
-1.980E-06,-0.008
-1.970E-06,0.008
-1.960E-06,0.004
-1.950E-06,0.004
-1.940E-06,0.012
-1.930E-06,0.004
-1.920E-06,-0.004
-1.910E-06,-0.004
-1.900E-06,0.008
-1.890E-06,0.016
-1.880E-06,0.024
-1.870E-06,0.012
-1.860E-06,0.008
-1.850E-06,0.000
-1.840E-06,-0.004
-1.830E-06,0.000
-1.820E-06,0.012
-1.810E-06,0.028
-1.800E-06,0.028
-1.790E-06,0.028
-1.780E-06,0.024
-1.770E-06,0.028
-1.760E-06,0.024
-1.750E-06,0.028
-1.740E-06,0.040
-1.730E-06,0.012
-1.720E-06,-0.028
-1.710E-06,-0.056
-1.700E-06,-0.068
-1.690E-06,-0.020
-1.680E-06,0.056
-1.670E-06,0.128
-1.660E-06,0.132
-1.650E-06,0.068
-1.640E-06,-0.024
-1.630E-06,-0.084
-1.620E-06,-0.088
-1.610E-06,-0.032
-1.600E-06,0.024
-1.590E-06,0.064
-1.580E-06,0.060
-1.570E-06,0.016
-1.560E-06,-0.020
-1.550E-06,-0.036
-1.540E-06,-0.040
-1.530E-06,-0.036
-1.520E-06,-0.008
-1.510E-06,0.008
-1.500E-06,0.024
-1.490E-06,0.032
-1.480E-06,0.024
-1.470E-06,0.008
-1.460E-06,-0.008
-1.450E-06,-0.028
-1.440E-06,-0.028
-1.430E-06,-0.012
-1.420E-06,0.016
-1.410E-06,0.044
-1.400E-06,0.048
-1.390E-06,0.036
-1.380E-06,0.008
-1.370E-06,-0.016
-1.360E-06,-0.024
-1.350E-06,-0.008
-1.340E-06,0.028
-1.330E-06,0.052
-1.320E-06,0.064
-1.310E-06,0.056
-1.300E-06,0.036
-1.290E-06,0.012
-1.280E-06,0.012
-1.270E-06,0.016
-1.260E-06,0.032
-1.250E-06,0.044
-1.240E-06,0.056
-1.230E-06,0.048
-1.220E-06,0.040
-1.210E-06,0.020
-1.200E-06,0.012
-1.190E-06,0.012
-1.180E-06,0.012
-1.170E-06,0.020
-1.160E-06,0.020
-1.150E-06,0.024
-1.140E-06,0.028
-1.130E-06,0.036
-1.120E-06,0.036
-1.110E-06,0.040
-1.100E-06,0.048
-1.090E-06,0.036
-1.080E-06,0.040
-1.070E-06,0.040
-1.060E-06,0.040
-1.050E-06,0.028
-1.040E-06,0.052
-1.030E-06,0.072
-1.020E-06,0.068
-1.010E-06,0.048
-1.000E-06,0.064
-9.900E-07,0.100
-9.800E-07,0.100
-9.700E-07,0.076
-9.600E-07,0.056
-9.500E-07,-0.020
-9.400E-07,-0.072
-9.300E-07,-0.104
-9.200E-07,-0.092
-9.100E-07,-0.060
-9.000E-07,-0.004
-8.900E-07,0.028
-8.800E-07,-0.020
-8.700E-07,-0.100
-8.600E-07,-0.176
-8.500E-07,-0.164
-8.400E-07,-0.132
-8.300E-07,-0.016
-8.200E-07,0.056
-8.100E-07,0.060
-8.000E-07,0.024
-7.900E-07,-0.016
-7.800E-07,-0.060
-7.700E-07,-0.084
-7.600E-07,-0.052
-7.500E-07,-0.012
-7.400E-07,0.040
-7.300E-07,0.044
-7.200E-07,0.036
-7.100E-07,0.008
-7.000E-07,0.008
-6.900E-07,0.020
-6.800E-07,0.020
-6.700E-07,0.040
-6.600E-07,0.036
-6.500E-07,0.028
-6.400E-07,0.024
-6.300E-07,0.068
-6.200E-07,0.056
-6.100E-07,0.052
-6.000E-07,0.040
-5.900E-07,0.044
-5.800E-07,0.056
-5.700E-07,0.064
-5.600E-07,0.088
-5.500E-07,0.076
-5.400E-07,0.068
-5.300E-07,0.028
-5.200E-07,0.020
-5.100E-07,-0.008
-5.000E-07,-0.044
-4.900E-07,-0.044
-4.800E-07,-0.024
-4.700E-07,0.020
-4.600E-07,0.064
-4.500E-07,0.096
-4.400E-07,0.088
-4.300E-07,0.052
-4.200E-07,-0.012
-4.100E-07,-0.088
-4.000E-07,-0.108
-3.900E-07,-0.084
-3.800E-07,-0.004
-3.700E-07,0.064
-3.600E-07,0.112
-3.500E-07,0.088
-3.400E-07,0.028
-3.300E-07,-0.008
-3.200E-07,0.000
-3.100E-07,0.044
-3.000E-07,0.112
-2.900E-07,0.152
-2.800E-07,0.156
-2.700E-07,0.120
-2.600E-07,0.044
-2.500E-07,-0.008
-2.400E-07,-0.052
-2.300E-07,-0.028
-2.200E-07,0.008
-2.100E-07,0.064
-2.000E-07,0.124
-1.900E-07,0.144
-1.800E-07,0.120
-1.700E-07,0.064
-1.600E-07,0.040
-1.500E-07,0.040
-1.400E-07,0.056
-1.300E-07,0.088
-1.200E-07,0.116
-1.100E-07,0.128
-1.000E-07,0.116
-9.000E-08,0.092
-8.000E-08,0.072
-7.000E-08,-0.024
-6.000E-08,-0.196
-5.000E-08,-0.340
-4.000E-08,-0.360
-3.000E-08,-0.148
-2.000E-08,0.140
-1.000E-08,0.460
0.000E+00,0.464
1.000E-08,0.144
2.000E-08,-0.300
3.000E-08,-0.508
4.000E-08,-0.508
5.000E-08,-0.512
6.000E-08,-0.088
7.000E-08,0.440
8.000E-08,0.540
9.000E-08,0.536
1.000E-07,0.200
1.100E-07,-0.336
1.200E-07,-0.512
1.300E-07,-0.436
1.400E-07,-0.028
1.500E-07,0.420
1.600E-07,0.524
1.700E-07,0.392
1.800E-07,0.044
1.900E-07,-0.404
2.000E-07,-0.512
2.100E-07,-0.504
2.200E-07,-0.104
2.300E-07,0.328
2.400E-07,0.492
2.500E-07,0.284
2.600E-07,-0.392
2.700E-07,-0.512
2.800E-07,-0.512
2.900E-07,-0.336
3.000E-07,0.220
3.100E-07,0.544
3.200E-07,0.544
3.300E-07,0.208
3.400E-07,-0.268
3.500E-07,-0.512
3.600E-07,-0.464
3.700E-07,-0.120
3.800E-07,0.240
3.900E-07,0.392
4.000E-07,0.312
4.100E-07,0.076
4.200E-07,-0.136
4.300E-07,-0.256
4.400E-07,-0.228
4.500E-07,-0.060
4.600E-07,0.128
4.700E-07,0.236
4.800E-07,0.260
4.900E-07,0.144
5.000E-07,0.004
5.100E-07,-0.048
5.200E-07,-0.012
5.300E-07,0.060
5.400E-07,0.124
5.500E-07,0.028
5.600E-07,-0.104
5.700E-07,-0.140
5.800E-07,-0.104
5.900E-07,-0.092
6.000E-07,0.068
6.100E-07,0.188
6.200E-07,0.204
6.300E-07,0.080
6.400E-07,-0.076
6.500E-07,-0.144
6.600E-07,-0.056
6.700E-07,0.124
6.800E-07,0.252
6.900E-07,0.288
7.000E-07,0.204
7.100E-07,0.104
7.200E-07,-0.024
7.300E-07,-0.060
7.400E-07,-0.084
7.500E-07,-0.008
7.600E-07,0.088
7.700E-07,0.140
7.800E-07,0.172
7.900E-07,0.132
8.000E-07,0.060
8.100E-07,0.012
8.200E-07,0.024
8.300E-07,0.028
8.400E-07,0.028
8.500E-07,-0.008
8.600E-07,-0.088
8.700E-07,-0.236
8.800E-07,-0.336
8.900E-07,-0.352
9.000E-07,-0.240
9.100E-07,0.060
9.200E-07,0.156
9.300E-07,0.140
9.400E-07,0.028
9.500E-07,-0.076
9.600E-07,-0.156
9.700E-07,-0.136
9.800E-07,-0.040
9.900E-07,0.044
1.000E-06,0.160
1.010E-06,0.164
1.020E-06,0.148
1.030E-06,0.040
1.040E-06,-0.024
1.050E-06,0.012
1.060E-06,0.124
1.070E-06,0.172
1.080E-06,0.164
1.090E-06,0.128
1.100E-06,0.068
1.110E-06,0.048
1.120E-06,0.024
1.130E-06,0.072
1.140E-06,0.164
1.150E-06,0.224
1.160E-06,0.168
1.170E-06,0.096
1.180E-06,-0.036
1.190E-06,-0.124
1.200E-06,-0.136
1.210E-06,-0.072
1.220E-06,0.044
1.230E-06,0.124
1.240E-06,0.172
1.250E-06,0.128
1.260E-06,0.072
1.270E-06,-0.008
1.280E-06,0.008
1.290E-06,0.076
1.300E-06,0.204
1.310E-06,0.276
1.320E-06,0.296
1.330E-06,0.256
1.340E-06,0.136
1.350E-06,0.048
1.360E-06,0.020
1.370E-06,0.092
1.380E-06,0.172
1.390E-06,0.272
1.400E-06,0.280
1.410E-06,0.220
1.420E-06,0.128
1.430E-06,0.036
1.440E-06,0.004
1.450E-06,-0.128
1.460E-06,-0.332
1.470E-06,-0.512
1.480E-06,-0.512
1.490E-06,-0.512
1.500E-06,-0.332
1.510E-06,0.068
1.520E-06,0.396
1.530E-06,0.404
1.540E-06,0.092
1.550E-06,-0.252
1.560E-06,-0.412
1.570E-06,-0.264
1.580E-06,0.112
1.590E-06,0.484
1.600E-06,0.540
1.610E-06,0.540
1.620E-06,0.280
1.630E-06,-0.048
1.640E-06,-0.216
1.650E-06,-0.224
1.660E-06,-0.076
1.670E-06,0.072
1.680E-06,0.152
1.690E-06,0.088
1.700E-06,-0.036
1.710E-06,-0.156
1.720E-06,-0.208
1.730E-06,-0.172
1.740E-06,-0.040
1.750E-06,0.124
1.760E-06,0.260
1.770E-06,0.328
1.780E-06,0.316
1.790E-06,0.228
1.800E-06,0.092
1.810E-06,-0.032
1.820E-06,-0.080
1.830E-06,-0.060
1.840E-06,0.044
1.850E-06,0.152
1.860E-06,0.224
1.870E-06,0.252
1.880E-06,0.228
1.890E-06,0.168
1.900E-06,0.116
1.910E-06,0.056
1.920E-06,0.000
1.930E-06,-0.040
1.940E-06,-0.084
1.950E-06,-0.124
1.960E-06,-0.132
1.970E-06,-0.208
1.980E-06,-0.368
1.990E-06,-0.452
2.000E-06,-0.440
2.010E-06,-0.436
2.020E-06,-0.328
2.030E-06,-0.152
2.040E-06,0.008
2.050E-06,0.084
2.060E-06,-0.004
2.070E-06,-0.072
2.080E-06,-0.084
2.090E-06,-0.008
2.100E-06,0.148
2.110E-06,0.280
2.120E-06,0.360
2.130E-06,0.368
2.140E-06,0.296
2.150E-06,0.172
2.160E-06,0.064
2.170E-06,0.012
2.180E-06,0.016
2.190E-06,0.056
2.200E-06,0.084
2.210E-06,0.052
2.220E-06,-0.012
2.230E-06,-0.120
2.240E-06,-0.172
2.250E-06,-0.148
2.260E-06,-0.056
2.270E-06,0.032
2.280E-06,0.124
2.290E-06,0.164
2.300E-06,0.160
2.310E-06,0.124
2.320E-06,0.104
2.330E-06,0.104
2.340E-06,0.136
2.350E-06,0.204
2.360E-06,0.284
2.370E-06,0.328
2.380E-06,0.344
2.390E-06,0.304
2.400E-06,0.244
2.410E-06,0.196
2.420E-06,0.168
2.430E-06,0.200
2.440E-06,0.252
2.450E-06,0.304
2.460E-06,0.316
2.470E-06,0.300
2.480E-06,0.256
2.490E-06,0.204
2.500E-06,0.184
2.510E-06,0.192
2.520E-06,0.220
2.530E-06,0.260
2.540E-06,0.288
2.550E-06,0.288
2.560E-06,0.256
2.570E-06,0.216
2.580E-06,0.180
2.590E-06,0.172
2.600E-06,0.200
2.610E-06,0.248
2.620E-06,0.284
2.630E-06,0.308
2.640E-06,0.296
2.650E-06,0.256
2.660E-06,0.208
2.670E-06,0.188
2.680E-06,0.196
2.690E-06,0.228
2.700E-06,0.272
2.710E-06,0.292
2.720E-06,0.272
2.730E-06,0.240
2.740E-06,0.196
2.750E-06,0.168
2.760E-06,0.172
2.770E-06,0.212
2.780E-06,0.256
2.790E-06,0.288
2.800E-06,0.280
2.810E-06,0.256
2.820E-06,0.216
2.830E-06,0.196
2.840E-06,0.196
2.850E-06,0.220
2.860E-06,0.260
2.870E-06,0.276
2.880E-06,0.276
2.890E-06,0.256
2.900E-06,0.224
2.910E-06,0.192
2.920E-06,0.156
2.930E-06,0.092
2.940E-06,0.012
2.950E-06,-0.132
2.960E-06,-0.248
2.970E-06,-0.276
2.980E-06,-0.192
2.990E-06,0.040
3.000E-06,0.212
3.010E-06,0.268
3.020E-06,0.156
3.030E-06,-0.024
3.040E-06,-0.140
3.050E-06,-0.184
3.060E-06,-0.052
3.070E-06,0.152
3.080E-06,0.308
3.090E-06,0.312
3.100E-06,0.224
3.110E-06,0.084
3.120E-06,0.048
3.130E-06,0.096
3.140E-06,0.220
3.150E-06,0.360
3.160E-06,0.436
3.170E-06,0.412
3.180E-06,0.288
3.190E-06,0.180
3.200E-06,0.100
3.210E-06,0.128
3.220E-06,0.208
3.230E-06,0.312
3.240E-06,0.364
3.250E-06,0.352
3.260E-06,0.292
3.270E-06,0.216
3.280E-06,0.160
3.290E-06,0.152
3.300E-06,0.200
3.310E-06,0.260
3.320E-06,0.316
3.330E-06,0.312
3.340E-06,0.292
3.350E-06,0.224
