mediciones/Mediciones filtradas (saque las feas)/6-10/42.7/WaveData55156.csv

#timebase=2000000(ps)
,#voltbase=100000(mv/100)
#size=4000
-4.250E-06,0.024
-4.240E-06,0.008
-4.230E-06,0.008
-4.220E-06,0.004
-4.210E-06,0.016
-4.200E-06,-0.004
-4.190E-06,0.004
-4.180E-06,-0.032
-4.170E-06,-0.008
-4.160E-06,0.016
-4.150E-06,0.036
-4.140E-06,0.044
-4.130E-06,0.004
-4.120E-06,-0.012
-4.110E-06,-0.020
-4.100E-06,-0.024
-4.090E-06,0.008
-4.080E-06,0.016
-4.070E-06,-0.036
-4.060E-06,-0.036
-4.050E-06,-0.024
-4.040E-06,0.048
-4.030E-06,0.044
-4.020E-06,0.024
-4.010E-06,-0.024
-4.000E-06,-0.052
-3.990E-06,-0.024
-3.980E-06,0.004
-3.970E-06,0.020
-3.960E-06,0.024
-3.950E-06,0.036
-3.940E-06,0.016
-3.930E-06,0.000
-3.920E-06,-0.020
-3.910E-06,-0.016
-3.900E-06,0.000
-3.890E-06,0.024
-3.880E-06,0.040
-3.870E-06,0.024
-3.860E-06,0.016
-3.850E-06,-0.012
-3.840E-06,0.028
-3.830E-06,-0.044
-3.820E-06,-0.040
-3.810E-06,-0.044
-3.800E-06,-0.024
-3.790E-06,0.020
-3.780E-06,0.032
-3.770E-06,0.076
-3.760E-06,0.024
-3.750E-06,-0.012
-3.740E-06,-0.036
-3.730E-06,-0.064
-3.720E-06,-0.008
-3.710E-06,0.032
-3.700E-06,0.040
-3.690E-06,0.004
-3.680E-06,0.004
-3.670E-06,-0.004
-3.660E-06,0.004
-3.650E-06,0.000
-3.640E-06,-0.004
-3.630E-06,-0.012
-3.620E-06,-0.008
-3.610E-06,0.008
-3.600E-06,0.008
-3.590E-06,0.020
-3.580E-06,0.000
-3.570E-06,-0.004
-3.560E-06,-0.012
-3.550E-06,-0.008
-3.540E-06,-0.008
-3.530E-06,0.012
-3.520E-06,0.016
-3.510E-06,0.008
-3.500E-06,0.008
-3.490E-06,-0.004
-3.480E-06,-0.008
-3.470E-06,-0.008
-3.460E-06,0.008
-3.450E-06,0.004
-3.440E-06,0.004
-3.430E-06,0.012
-3.420E-06,0.016
-3.410E-06,0.000
-3.400E-06,0.000
-3.390E-06,0.020
-3.380E-06,-0.004
-3.370E-06,0.000
-3.360E-06,0.024
-3.350E-06,0.008
-3.340E-06,-0.020
-3.330E-06,0.016
-3.320E-06,0.008
-3.310E-06,-0.004
-3.300E-06,0.000
-3.290E-06,0.028
-3.280E-06,-0.012
-3.270E-06,0.004
-3.260E-06,0.024
-3.250E-06,-0.012
-3.240E-06,0.004
-3.230E-06,-0.004
-3.220E-06,0.000
-3.210E-06,0.000
-3.200E-06,0.008
-3.190E-06,0.008
-3.180E-06,0.008
-3.170E-06,0.012
-3.160E-06,0.000
-3.150E-06,0.004
-3.140E-06,0.008
-3.130E-06,0.000
-3.120E-06,0.012
-3.110E-06,0.016
-3.100E-06,0.012
-3.090E-06,0.000
-3.080E-06,0.004
-3.070E-06,0.004
-3.060E-06,0.004
-3.050E-06,0.016
-3.040E-06,0.012
-3.030E-06,0.012
-3.020E-06,0.008
-3.010E-06,0.012
-3.000E-06,0.004
-2.990E-06,0.012
-2.980E-06,0.012
-2.970E-06,0.020
-2.960E-06,0.016
-2.950E-06,0.008
-2.940E-06,0.016
-2.930E-06,-0.004
-2.920E-06,-0.088
-2.910E-06,-0.044
-2.900E-06,-0.004
-2.890E-06,0.044
-2.880E-06,0.020
-2.870E-06,-0.024
-2.860E-06,0.004
-2.850E-06,0.000
-2.840E-06,0.016
-2.830E-06,0.000
-2.820E-06,0.012
-2.810E-06,0.008
-2.800E-06,0.032
-2.790E-06,0.000
-2.780E-06,-0.004
-2.770E-06,0.000
-2.760E-06,-0.004
-2.750E-06,0.020
-2.740E-06,-0.004
-2.730E-06,-0.004
-2.720E-06,-0.020
-2.710E-06,0.008
-2.700E-06,0.012
-2.690E-06,0.040
-2.680E-06,0.040
-2.670E-06,0.032
-2.660E-06,0.008
-2.650E-06,-0.004
-2.640E-06,0.004
-2.630E-06,0.012
-2.620E-06,0.040
-2.610E-06,0.040
-2.600E-06,0.044
-2.590E-06,0.028
-2.580E-06,0.008
-2.570E-06,0.000
-2.560E-06,-0.040
-2.550E-06,-0.036
-2.540E-06,-0.032
-2.530E-06,-0.024
-2.520E-06,-0.008
-2.510E-06,0.008
-2.500E-06,0.028
-2.490E-06,0.024
-2.480E-06,0.000
-2.470E-06,-0.024
-2.460E-06,-0.028
-2.450E-06,-0.012
-2.440E-06,0.004
-2.430E-06,0.016
-2.420E-06,0.024
-2.410E-06,0.012
-2.400E-06,0.004
-2.390E-06,0.000
-2.380E-06,-0.004
-2.370E-06,-0.004
-2.360E-06,0.008
-2.350E-06,0.020
-2.340E-06,0.020
-2.330E-06,0.028
-2.320E-06,0.020
-2.310E-06,0.004
-2.300E-06,0.000
-2.290E-06,0.008
-2.280E-06,0.024
-2.270E-06,0.036
-2.260E-06,0.036
-2.250E-06,0.040
-2.240E-06,0.048
-2.230E-06,0.040
-2.220E-06,0.056
-2.210E-06,0.036
-2.200E-06,-0.024
-2.190E-06,-0.032
-2.180E-06,-0.068
-2.170E-06,-0.056
-2.160E-06,-0.040
-2.150E-06,0.008
-2.140E-06,0.032
-2.130E-06,0.040
-2.120E-06,0.008
-2.110E-06,-0.036
-2.100E-06,-0.056
-2.090E-06,-0.032
-2.080E-06,0.000
-2.070E-06,0.020
-2.060E-06,0.032
-2.050E-06,0.020
-2.040E-06,0.000
-2.030E-06,-0.008
-2.020E-06,-0.020
-2.010E-06,-0.024
-2.000E-06,-0.004
-1.990E-06,0.012
-1.980E-06,0.024
-1.970E-06,0.020
-1.960E-06,0.016
-1.950E-06,-0.004
-1.940E-06,-0.004
-1.930E-06,-0.008
-1.920E-06,0.000
-1.910E-06,0.008
-1.900E-06,0.020
-1.890E-06,0.016
-1.880E-06,0.012
-1.870E-06,0.008
-1.860E-06,0.004
-1.850E-06,-0.004
-1.840E-06,-0.004
-1.830E-06,0.004
-1.820E-06,0.016
-1.810E-06,0.016
-1.800E-06,0.024
-1.790E-06,0.020
-1.780E-06,0.008
-1.770E-06,0.016
-1.760E-06,0.020
-1.750E-06,0.028
-1.740E-06,0.036
-1.730E-06,0.048
-1.720E-06,0.056
-1.710E-06,0.056
-1.700E-06,0.056
-1.690E-06,0.060
-1.680E-06,0.064
-1.670E-06,0.072
-1.660E-06,0.064
-1.650E-06,0.064
-1.640E-06,0.056
-1.630E-06,0.044
-1.620E-06,0.052
-1.610E-06,0.048
-1.600E-06,0.044
-1.590E-06,0.024
-1.580E-06,0.024
-1.570E-06,-0.004
-1.560E-06,-0.036
-1.550E-06,-0.072
-1.540E-06,-0.108
-1.530E-06,-0.120
-1.520E-06,-0.072
-1.510E-06,0.000
-1.500E-06,0.036
-1.490E-06,0.060
-1.480E-06,0.044
-1.470E-06,0.016
-1.460E-06,-0.032
-1.450E-06,-0.044
-1.440E-06,-0.008
-1.430E-06,0.020
-1.420E-06,0.044
-1.410E-06,0.056
-1.400E-06,0.064
-1.390E-06,0.064
-1.380E-06,0.044
-1.370E-06,0.020
-1.360E-06,-0.008
-1.350E-06,0.008
-1.340E-06,0.076
-1.330E-06,0.096
-1.320E-06,-0.044
-1.310E-06,-0.120
-1.300E-06,-0.248
-1.290E-06,-0.200
-1.280E-06,-0.152
-1.270E-06,-0.028
-1.260E-06,0.100
-1.250E-06,0.140
-1.240E-06,0.092
-1.230E-06,-0.032
-1.220E-06,-0.132
-1.210E-06,-0.164
-1.200E-06,-0.064
-1.190E-06,0.012
-1.180E-06,0.088
-1.170E-06,0.100
-1.160E-06,0.064
-1.150E-06,0.000
-1.140E-06,-0.052
-1.130E-06,-0.080
-1.120E-06,-0.060
-1.110E-06,-0.004
-1.100E-06,0.036
-1.090E-06,0.068
-1.080E-06,0.056
-1.070E-06,0.024
-1.060E-06,-0.012
-1.050E-06,-0.028
-1.040E-06,-0.032
-1.030E-06,-0.004
-1.020E-06,0.028
-1.010E-06,0.056
-1.000E-06,0.064
-9.900E-07,0.044
-9.800E-07,0.024
-9.700E-07,0.004
-9.600E-07,0.012
-9.500E-07,0.036
-9.400E-07,0.072
-9.300E-07,0.108
-9.200E-07,0.124
-9.100E-07,0.128
-9.000E-07,0.108
-8.900E-07,0.080
-8.800E-07,0.000
-8.700E-07,-0.048
-8.600E-07,-0.124
-8.500E-07,-0.152
-8.400E-07,-0.152
-8.300E-07,-0.068
-8.200E-07,-0.032
-8.100E-07,0.036
-8.000E-07,0.036
-7.900E-07,0.032
-7.800E-07,0.008
-7.700E-07,-0.020
-7.600E-07,-0.024
-7.500E-07,-0.032
-7.400E-07,-0.004
-7.300E-07,0.000
-7.200E-07,0.012
-7.100E-07,0.016
-7.000E-07,0.012
-6.900E-07,0.000
-6.800E-07,-0.020
-6.700E-07,-0.008
-6.600E-07,-0.016
-6.500E-07,-0.008
-6.400E-07,-0.008
-6.300E-07,-0.004
-6.200E-07,-0.004
-6.100E-07,0.012
-6.000E-07,-0.004
-5.900E-07,-0.012
-5.800E-07,-0.024
-5.700E-07,-0.012
-5.600E-07,0.004
-5.500E-07,0.000
-5.400E-07,0.020
-5.300E-07,0.012
-5.200E-07,0.016
-5.100E-07,0.000
-5.000E-07,0.004
-4.900E-07,0.012
-4.800E-07,0.016
-4.700E-07,0.024
-4.600E-07,0.024
-4.500E-07,0.020
-4.400E-07,0.016
-4.300E-07,0.008
-4.200E-07,0.012
-4.100E-07,0.020
-4.000E-07,0.028
-3.900E-07,0.032
-3.800E-07,0.028
-3.700E-07,0.032
-3.600E-07,0.040
-3.500E-07,0.048
-3.400E-07,0.056
-3.300E-07,0.060
-3.200E-07,0.060
-3.100E-07,0.048
-3.000E-07,0.044
-2.900E-07,0.036
-2.800E-07,0.044
-2.700E-07,0.064
-2.600E-07,0.084
-2.500E-07,0.096
-2.400E-07,0.108
-2.300E-07,0.100
-2.200E-07,0.100
-2.100E-07,0.104
-2.000E-07,0.104
-1.900E-07,0.124
-1.800E-07,0.144
-1.700E-07,0.160
-1.600E-07,0.164
-1.500E-07,0.156
-1.400E-07,0.112
-1.300E-07,0.056
-1.200E-07,0.044
-1.100E-07,0.020
-1.000E-07,0.084
-9.000E-08,0.144
-8.000E-08,0.208
-7.000E-08,0.124
-6.000E-08,-0.132
-5.000E-08,-0.368
-4.000E-08,-0.512
-3.000E-08,-0.512
-2.000E-08,-0.196
-1.000E-08,0.236
0.000E+00,0.380
1.000E-08,0.064
2.000E-08,-0.192
3.000E-08,-0.508
4.000E-08,-0.508
5.000E-08,-0.296
6.000E-08,-0.040
7.000E-08,0.448
8.000E-08,0.216
9.000E-08,0.156
1.000E-07,0.000
1.100E-07,-0.268
1.200E-07,-0.236
1.300E-07,-0.204
1.400E-07,-0.028
1.500E-07,0.212
1.600E-07,0.312
1.700E-07,0.224
1.800E-07,0.040
1.900E-07,-0.140
2.000E-07,-0.252
2.100E-07,-0.204
2.200E-07,-0.048
2.300E-07,0.108
2.400E-07,0.236
2.500E-07,0.236
2.600E-07,0.128
2.700E-07,-0.004
2.800E-07,-0.140
2.900E-07,-0.168
3.000E-07,-0.112
3.100E-07,0.032
3.200E-07,0.144
3.300E-07,0.192
3.400E-07,0.160
3.500E-07,0.072
3.600E-07,-0.024
3.700E-07,-0.068
3.800E-07,-0.040
3.900E-07,0.024
4.000E-07,0.128
4.100E-07,0.180
4.200E-07,0.188
4.300E-07,0.128
4.400E-07,0.056
4.500E-07,0.008
4.600E-07,0.024
4.700E-07,0.084
4.800E-07,0.168
4.900E-07,0.228
5.000E-07,0.260
5.100E-07,0.244
5.200E-07,0.184
5.300E-07,0.108
5.400E-07,0.076
5.500E-07,0.092
5.600E-07,0.144
5.700E-07,0.200
5.800E-07,0.260
5.900E-07,0.272
6.000E-07,0.216
6.100E-07,0.092
6.200E-07,0.012
6.300E-07,-0.016
6.400E-07,0.076
6.500E-07,0.196
6.600E-07,0.316
6.700E-07,0.356
6.800E-07,0.280
6.900E-07,0.160
7.000E-07,0.036
7.100E-07,-0.244
7.200E-07,-0.360
7.300E-07,-0.384
7.400E-07,-0.300
7.500E-07,0.048
7.600E-07,0.240
7.700E-07,0.484
7.800E-07,0.452
7.900E-07,0.216
8.000E-07,0.044
8.100E-07,-0.204
8.200E-07,-0.272
8.300E-07,-0.308
8.400E-07,-0.084
8.500E-07,0.068
8.600E-07,0.104
8.700E-07,-0.128
8.800E-07,-0.324
8.900E-07,-0.468
9.000E-07,-0.216
9.100E-07,0.232
9.200E-07,0.344
9.300E-07,0.432
9.400E-07,0.108
9.500E-07,-0.204
9.600E-07,-0.512
9.700E-07,-0.508
9.800E-07,-0.392
9.900E-07,0.008
1.000E-06,0.244
1.010E-06,0.308
1.020E-06,0.080
1.030E-06,-0.036
1.040E-06,-0.276
1.050E-06,-0.220
1.060E-06,-0.064
1.070E-06,0.116
1.080E-06,0.384
1.090E-06,0.308
1.100E-06,0.280
1.110E-06,0.088
1.120E-06,0.060
1.130E-06,0.004
1.140E-06,0.064
1.150E-06,0.224
1.160E-06,0.296
1.170E-06,0.316
1.180E-06,0.300
1.190E-06,0.224
1.200E-06,0.140
1.210E-06,0.108
1.220E-06,0.144
1.230E-06,0.188
1.240E-06,0.244
1.250E-06,0.296
1.260E-06,0.264
1.270E-06,0.240
1.280E-06,0.180
1.290E-06,0.152
1.300E-06,0.148
1.310E-06,0.200
1.320E-06,0.232
1.330E-06,0.264
1.340E-06,0.256
1.350E-06,0.208
1.360E-06,0.160
1.370E-06,0.112
1.380E-06,0.092
1.390E-06,0.088
1.400E-06,0.112
1.410E-06,0.128
1.420E-06,0.160
1.430E-06,0.196
1.440E-06,0.228
1.450E-06,0.240
1.460E-06,0.188
1.470E-06,0.156
1.480E-06,0.104
1.490E-06,0.120
1.500E-06,0.160
1.510E-06,0.208
1.520E-06,0.248
1.530E-06,0.268
1.540E-06,0.232
1.550E-06,0.172
1.560E-06,0.132
1.570E-06,0.096
1.580E-06,0.100
1.590E-06,0.116
1.600E-06,0.168
1.610E-06,0.196
1.620E-06,0.200
1.630E-06,0.188
1.640E-06,0.156
1.650E-06,0.168
1.660E-06,0.200
1.670E-06,0.232
1.680E-06,0.240
1.690E-06,0.236
1.700E-06,0.216
1.710E-06,0.192
1.720E-06,0.184
1.730E-06,0.188
1.740E-06,0.192
1.750E-06,0.220
1.760E-06,0.224
1.770E-06,0.228
1.780E-06,0.212
1.790E-06,0.196
1.800E-06,0.192
1.810E-06,0.192
1.820E-06,0.208
1.830E-06,0.212
1.840E-06,0.224
1.850E-06,0.220
1.860E-06,0.212
1.870E-06,0.200
1.880E-06,0.196
1.890E-06,0.200
1.900E-06,0.204
1.910E-06,0.208
1.920E-06,0.220
1.930E-06,0.220
1.940E-06,0.208
1.950E-06,0.204
1.960E-06,0.200
1.970E-06,0.196
1.980E-06,0.196
1.990E-06,0.204
2.000E-06,0.208
2.010E-06,0.212
2.020E-06,0.208
2.030E-06,0.204
2.040E-06,0.200
2.050E-06,0.196
2.060E-06,0.196
2.070E-06,0.204
2.080E-06,0.204
2.090E-06,0.200
2.100E-06,0.204
2.110E-06,0.208
2.120E-06,0.200
2.130E-06,0.196
2.140E-06,0.192
2.150E-06,0.200
2.160E-06,0.200
2.170E-06,0.204
2.180E-06,0.200
2.190E-06,0.196
2.200E-06,0.200
2.210E-06,0.192
2.220E-06,0.192
2.230E-06,0.192
2.240E-06,0.200
2.250E-06,0.200
2.260E-06,0.192
2.270E-06,0.192
2.280E-06,0.192
2.290E-06,0.192
2.300E-06,0.188
2.310E-06,0.192
2.320E-06,0.192
2.330E-06,0.196
2.340E-06,0.200
2.350E-06,0.192
2.360E-06,0.196
2.370E-06,0.192
2.380E-06,0.192
2.390E-06,0.188
2.400E-06,0.192
2.410E-06,0.192
2.420E-06,0.196
2.430E-06,0.192
2.440E-06,0.196
2.450E-06,0.192
2.460E-06,0.188
2.470E-06,0.192
2.480E-06,0.188
2.490E-06,0.188
2.500E-06,0.184
2.510E-06,0.184
2.520E-06,0.184
2.530E-06,0.180
2.540E-06,0.180
2.550E-06,0.184
2.560E-06,0.180
2.570E-06,0.188
2.580E-06,0.184
2.590E-06,0.188
2.600E-06,0.188
2.610E-06,0.184
2.620E-06,0.180
2.630E-06,0.180
2.640E-06,0.180
2.650E-06,0.184
2.660E-06,0.184
2.670E-06,0.176
2.680E-06,0.176
2.690E-06,0.168
2.700E-06,0.172
2.710E-06,0.176
2.720E-06,0.176
2.730E-06,0.168
2.740E-06,0.168
2.750E-06,0.176
2.760E-06,0.176
2.770E-06,0.176
2.780E-06,0.172
2.790E-06,0.180
2.800E-06,0.184
2.810E-06,0.176
2.820E-06,0.168
2.830E-06,0.168
2.840E-06,0.172
2.850E-06,0.172
2.860E-06,0.168
2.870E-06,0.164
2.880E-06,0.168
2.890E-06,0.172
2.900E-06,0.176
2.910E-06,0.164
2.920E-06,0.164
2.930E-06,0.156
2.940E-06,0.156
2.950E-06,0.164
2.960E-06,0.172
2.970E-06,0.176
2.980E-06,0.172
2.990E-06,0.180
3.000E-06,0.168
3.010E-06,0.168
3.020E-06,0.164
3.030E-06,0.164
3.040E-06,0.164
3.050E-06,0.164
3.060E-06,0.164
3.070E-06,0.164
3.080E-06,0.160
3.090E-06,0.164
3.100E-06,0.164
3.110E-06,0.172
3.120E-06,0.168
3.130E-06,0.168
3.140E-06,0.160
3.150E-06,0.160
3.160E-06,0.160
3.170E-06,0.164
3.180E-06,0.164
3.190E-06,0.164
3.200E-06,0.164
3.210E-06,0.164
3.220E-06,0.152
3.230E-06,0.156
3.240E-06,0.152
3.250E-06,0.152
3.260E-06,0.160
3.270E-06,0.156
3.280E-06,0.164
3.290E-06,0.152
3.300E-06,0.152
3.310E-06,0.156
3.320E-06,0.152
3.330E-06,0.160
3.340E-06,0.152
3.350E-06,0.148
3.360E-06,0.152
3.370E-06,0.156
3.380E-06,0.152
3.390E-06,0.148
3.400E-06,0.148
3.410E-06,0.144
3.420E-06,0.140
3.430E-06,0.144
3.440E-06,0.148
3.450E-06,0.148
3.460E-06,0.144
3.470E-06,0.148
3.480E-06,0.148
3.490E-06,0.148
3.500E-06,0.140
3.510E-06,0.140
3.520E-06,0.144
3.530E-06,0.144
3.540E-06,0.148
3.550E-06,0.144
3.560E-06,0.148
3.570E-06,0.144
3.580E-06,0.140
3.590E-06,0.144
3.600E-06,0.140
3.610E-06,0.144
3.620E-06,0.148
3.630E-06,0.148
3.640E-06,0.140
3.650E-06,0.140
3.660E-06,0.140
3.670E-06,0.136
3.680E-06,0.136
3.690E-06,0.144
3.700E-06,0.136
3.710E-06,0.140
3.720E-06,0.136
3.730E-06,0.140
3.740E-06,0.140
3.750E-06,0.140
3.760E-06,0.132
3.770E-06,0.136
3.780E-06,0.136
3.790E-06,0.136
3.800E-06,0.136
3.810E-06,0.136
3.820E-06,0.136
3.830E-06,0.136
3.840E-06,0.132
3.850E-06,0.132
3.860E-06,0.132
3.870E-06,0.128
3.880E-06,0.128
3.890E-06,0.124
3.900E-06,0.128
3.910E-06,0.132
3.920E-06,0.128
3.930E-06,0.124
3.940E-06,0.124
3.950E-06,0.124
3.960E-06,0.128
3.970E-06,0.124
3.980E-06,0.124
3.990E-06,0.128
4.000E-06,0.124
4.010E-06,0.124
4.020E-06,0.120
4.030E-06,0.120
4.040E-06,0.124
4.050E-06,0.124
4.060E-06,0.124
4.070E-06,0.120
4.080E-06,0.120
4.090E-06,0.112
4.100E-06,0.112
4.110E-06,0.120
4.120E-06,0.116
4.130E-06,0.120
4.140E-06,0.112
4.150E-06,0.112
4.160E-06,0.112
4.170E-06,0.112
4.180E-06,0.112
4.190E-06,0.112
4.200E-06,0.120
4.210E-06,0.112
4.220E-06,0.112
4.230E-06,0.116
4.240E-06,0.112
4.250E-06,0.108
4.260E-06,0.108
4.270E-06,0.120
4.280E-06,0.116
4.290E-06,0.112
4.300E-06,0.108
4.310E-06,0.108
4.320E-06,0.108
4.330E-06,0.104
4.340E-06,0.108
4.350E-06,0.108
4.360E-06,0.112
4.370E-06,0.112
4.380E-06,0.112
4.390E-06,0.112
4.400E-06,0.112
4.410E-06,0.108
4.420E-06,0.108
4.430E-06,0.112
4.440E-06,0.112
4.450E-06,0.108
4.460E-06,0.104
4.470E-06,0.100
4.480E-06,0.100
4.490E-06,0.104
4.500E-06,0.108
4.510E-06,0.112
4.520E-06,0.108
4.530E-06,0.112
4.540E-06,0.104
4.550E-06,0.104
4.560E-06,0.104
4.570E-06,0.104
4.580E-06,0.100
4.590E-06,0.104
4.600E-06,0.104
4.610E-06,0.100
4.620E-06,0.104
4.630E-06,0.104
4.640E-06,0.100
4.650E-06,0.096
4.660E-06,0.096
4.670E-06,0.096
4.680E-06,0.100
4.690E-06,0.096
4.700E-06,0.100
4.710E-06,0.100
4.720E-06,0.100
4.730E-06,0.096
4.740E-06,0.088
4.750E-06,0.096
4.760E-06,0.092
4.770E-06,0.092
4.780E-06,0.092
4.790E-06,0.096
4.800E-06,0.096
4.810E-06,0.088
4.820E-06,0.088
4.830E-06,0.088
4.840E-06,0.088
4.850E-06,0.088
4.860E-06,0.092
4.870E-06,0.092
4.880E-06,0.092
4.890E-06,0.084
4.900E-06,0.084
4.910E-06,0.084
4.920E-06,0.088
4.930E-06,0.084
4.940E-06,0.088
4.950E-06,0.084
4.960E-06,0.084
4.970E-06,0.084
4.980E-06,0.076
4.990E-06,0.080
5.000E-06,0.084
5.010E-06,0.080
5.020E-06,0.080
5.030E-06,0.076
5.040E-06,0.076
5.050E-06,0.076
5.060E-06,0.076
5.070E-06,0.076
5.080E-06,0.076
5.090E-06,0.080
5.100E-06,0.080
5.110E-06,0.076
5.120E-06,0.076
5.130E-06,0.076
5.140E-06,0.072
5.150E-06,0.072
5.160E-06,0.072
5.170E-06,0.076
5.180E-06,0.072
5.190E-06,0.072
5.200E-06,0.076
5.210E-06,0.076
5.220E-06,0.072
5.230E-06,0.076
5.240E-06,0.076
5.250E-06,0.068
5.260E-06,0.068
5.270E-06,0.072
5.280E-06,0.068
5.290E-06,0.072
5.300E-06,0.064
5.310E-06,0.064
5.320E-06,0.068
5.330E-06,0.068
5.340E-06,0.068
5.350E-06,0.064
5.360E-06,0.068
5.370E-06,0.064
5.380E-06,0.060
5.390E-06,0.060
5.400E-06,0.064
5.410E-06,0.064
5.420E-06,0.056
5.430E-06,0.064
5.440E-06,0.068
5.450E-06,0.060
5.460E-06,0.060
5.470E-06,0.064
5.480E-06,0.064
5.490E-06,0.064
5.500E-06,0.064
5.510E-06,0.064
5.520E-06,0.068
5.530E-06,0.064
5.540E-06,0.060
5.550E-06,0.060
5.560E-06,0.060
5.570E-06,0.056
5.580E-06,0.056
5.590E-06,0.060
5.600E-06,0.060
5.610E-06,0.056
5.620E-06,0.056
5.630E-06,0.052
5.640E-06,0.056
5.650E-06,0.052
5.660E-06,0.052
5.670E-06,0.056
5.680E-06,0.060
5.690E-06,0.056
5.700E-06,0.060
5.710E-06,0.056
5.720E-06,0.052
5.730E-06,0.052
5.740E-06,0.052
5.750E-06,0.056
5.760E-06,0.052
5.770E-06,0.052
5.780E-06,0.052
5.790E-06,0.052
5.800E-06,0.052
5.810E-06,0.048
5.820E-06,0.048
5.830E-06,0.048
5.840E-06,0.052
5.850E-06,0.044
5.860E-06,0.048
5.870E-06,0.048
5.880E-06,0.052
5.890E-06,0.044
5.900E-06,0.044
5.910E-06,0.040
5.920E-06,0.044
5.930E-06,0.044
5.940E-06,0.040
5.950E-06,0.048
5.960E-06,0.044
5.970E-06,0.044
5.980E-06,0.036
5.990E-06,0.044
6.000E-06,0.040
6.010E-06,0.044
6.020E-06,0.044
6.030E-06,0.048
6.040E-06,0.040
6.050E-06,0.032
6.060E-06,0.040
6.070E-06,0.040
6.080E-06,0.048
6.090E-06,0.044
6.100E-06,0.040
6.110E-06,0.044
6.120E-06,0.044
6.130E-06,0.036
6.140E-06,0.036
6.150E-06,0.040
6.160E-06,0.040
6.170E-06,0.036
6.180E-06,0.040
6.190E-06,0.044
6.200E-06,0.040
6.210E-06,0.036
6.220E-06,0.032
6.230E-06,0.036
6.240E-06,0.036
6.250E-06,0.040
6.260E-06,0.036
6.270E-06,0.036
6.280E-06,0.036
6.290E-06,0.028
6.300E-06,0.032
6.310E-06,0.032
6.320E-06,0.040
6.330E-06,0.040
6.340E-06,0.036
6.350E-06,0.036
6.360E-06,0.032
6.370E-06,0.024
6.380E-06,0.032
6.390E-06,0.036
6.400E-06,0.032
6.410E-06,0.028
6.420E-06,0.028
6.430E-06,0.032
6.440E-06,0.036
6.450E-06,0.028
6.460E-06,0.024
6.470E-06,0.024
6.480E-06,0.028
6.490E-06,0.028
6.500E-06,0.028
6.510E-06,0.032
6.520E-06,0.028
6.530E-06,0.032
6.540E-06,0.028
6.550E-06,0.028
6.560E-06,0.028
6.570E-06,0.020
6.580E-06,0.020
6.590E-06,0.028
6.600E-06,0.020
6.610E-06,0.024
6.620E-06,0.028
6.630E-06,0.024
6.640E-06,0.024
6.650E-06,0.028
6.660E-06,0.024
6.670E-06,0.020
6.680E-06,0.020
6.690E-06,0.024
6.700E-06,0.016
6.710E-06,0.024
6.720E-06,0.016
6.730E-06,0.020
6.740E-06,0.016
6.750E-06,0.024
6.760E-06,0.024
6.770E-06,0.028
6.780E-06,0.024
6.790E-06,0.016
6.800E-06,0.020
6.810E-06,0.024
6.820E-06,0.016
6.830E-06,0.020
6.840E-06,0.020
6.850E-06,0.024
6.860E-06,0.024
6.870E-06,0.024
6.880E-06,0.020
6.890E-06,0.012
6.900E-06,0.012
6.910E-06,0.020
6.920E-06,0.020
6.930E-06,0.024
6.940E-06,0.016
6.950E-06,0.020
6.960E-06,0.024
6.970E-06,0.016
6.980E-06,0.020
6.990E-06,0.020
7.000E-06,0.020
7.010E-06,0.020
7.020E-06,0.016
7.030E-06,0.012
7.040E-06,0.008
7.050E-06,0.012
7.060E-06,0.012
7.070E-06,0.012
7.080E-06,0.016
7.090E-06,0.012
7.100E-06,0.016
7.110E-06,0.016
7.120E-06,0.008
7.130E-06,0.008
7.140E-06,0.008
7.150E-06,0.012
7.160E-06,0.012
7.170E-06,0.012
7.180E-06,0.012
7.190E-06,0.012
7.200E-06,0.012
7.210E-06,0.008
7.220E-06,0.008
7.230E-06,0.012
7.240E-06,0.008
7.250E-06,0.012
7.260E-06,0.012
7.270E-06,0.004
7.280E-06,0.004
7.290E-06,0.008
7.300E-06,0.008
7.310E-06,0.008
7.320E-06,0.008
7.330E-06,0.012
7.340E-06,0.008
7.350E-06,0.008
7.360E-06,0.008
7.370E-06,0.004
7.380E-06,0.004
7.390E-06,0.008
7.400E-06,0.004
7.410E-06,0.008
7.420E-06,0.008
7.430E-06,0.004
7.440E-06,0.000
7.450E-06,0.008
7.460E-06,0.000
7.470E-06,0.004
7.480E-06,0.004
7.490E-06,0.004
7.500E-06,0.004
7.510E-06,0.004
7.520E-06,0.004
7.530E-06,0.004
7.540E-06,0.000
7.550E-06,0.004
7.560E-06,0.004
7.570E-06,0.000
7.580E-06,0.000
7.590E-06,0.000
7.600E-06,0.004
7.610E-06,0.000
7.620E-06,0.000
7.630E-06,0.000
7.640E-06,0.000
7.650E-06,0.000
7.660E-06,-0.004
7.670E-06,0.000
7.680E-06,0.000
7.690E-06,0.000
7.700E-06,0.000
7.710E-06,-0.004
7.720E-06,0.004
7.730E-06,0.000
7.740E-06,-0.004
7.750E-06,-0.004
7.760E-06,-0.004
7.770E-06,-0.004
7.780E-06,-0.004
7.790E-06,-0.008
7.800E-06,0.000
7.810E-06,0.000
7.820E-06,-0.004
