mediciones/Mediciones filtradas (saque las feas)/6-10/42.7/WaveData55158.csv

#timebase=2000000(ps)
,#voltbase=100000(mv/100)
#size=4000
-4.250E-06,0.004
-4.240E-06,0.012
-4.230E-06,0.016
-4.220E-06,0.012
-4.210E-06,0.004
-4.200E-06,-0.004
-4.190E-06,0.000
-4.180E-06,-0.008
-4.170E-06,-0.008
-4.160E-06,0.008
-4.150E-06,0.004
-4.140E-06,0.008
-4.130E-06,0.008
-4.120E-06,-0.004
-4.110E-06,0.000
-4.100E-06,-0.004
-4.090E-06,0.004
-4.080E-06,0.008
-4.070E-06,0.012
-4.060E-06,0.012
-4.050E-06,0.000
-4.040E-06,0.008
-4.030E-06,0.000
-4.020E-06,0.000
-4.010E-06,-0.004
-4.000E-06,0.004
-3.990E-06,0.004
-3.980E-06,0.000
-3.970E-06,0.000
-3.960E-06,0.008
-3.950E-06,0.004
-3.940E-06,0.000
-3.930E-06,0.000
-3.920E-06,0.000
-3.910E-06,0.008
-3.900E-06,0.012
-3.890E-06,0.004
-3.880E-06,0.004
-3.870E-06,0.008
-3.860E-06,0.004
-3.850E-06,-0.004
-3.840E-06,-0.004
-3.830E-06,0.004
-3.820E-06,0.000
-3.810E-06,0.004
-3.800E-06,0.008
-3.790E-06,0.008
-3.780E-06,0.000
-3.770E-06,0.004
-3.760E-06,0.008
-3.750E-06,0.000
-3.740E-06,0.004
-3.730E-06,0.012
-3.720E-06,0.004
-3.710E-06,0.008
-3.700E-06,0.008
-3.690E-06,0.000
-3.680E-06,-0.004
-3.670E-06,-0.004
-3.660E-06,0.004
-3.650E-06,0.016
-3.640E-06,0.004
-3.630E-06,0.000
-3.620E-06,0.004
-3.610E-06,0.004
-3.600E-06,-0.008
-3.590E-06,-0.004
-3.580E-06,0.000
-3.570E-06,0.008
-3.560E-06,0.012
-3.550E-06,0.012
-3.540E-06,0.000
-3.530E-06,-0.008
-3.520E-06,-0.012
-3.510E-06,-0.012
-3.500E-06,-0.004
-3.490E-06,0.004
-3.480E-06,0.020
-3.470E-06,0.008
-3.460E-06,0.008
-3.450E-06,-0.004
-3.440E-06,-0.004
-3.430E-06,-0.004
-3.420E-06,0.004
-3.410E-06,0.008
-3.400E-06,0.008
-3.390E-06,0.008
-3.380E-06,0.004
-3.370E-06,0.000
-3.360E-06,-0.004
-3.350E-06,0.000
-3.340E-06,-0.004
-3.330E-06,0.008
-3.320E-06,0.004
-3.310E-06,0.008
-3.300E-06,0.012
-3.290E-06,0.004
-3.280E-06,-0.004
-3.270E-06,-0.004
-3.260E-06,0.004
-3.250E-06,0.000
-3.240E-06,0.000
-3.230E-06,0.008
-3.220E-06,0.008
-3.210E-06,0.004
-3.200E-06,0.000
-3.190E-06,0.004
-3.180E-06,0.000
-3.170E-06,0.004
-3.160E-06,0.004
-3.150E-06,0.008
-3.140E-06,0.008
-3.130E-06,0.008
-3.120E-06,0.004
-3.110E-06,0.000
-3.100E-06,0.000
-3.090E-06,-0.004
-3.080E-06,0.004
-3.070E-06,0.008
-3.060E-06,0.000
-3.050E-06,0.012
-3.040E-06,0.004
-3.030E-06,0.004
-3.020E-06,-0.004
-3.010E-06,0.000
-3.000E-06,0.000
-2.990E-06,0.004
-2.980E-06,0.008
-2.970E-06,0.008
-2.960E-06,0.000
-2.950E-06,0.008
-2.940E-06,-0.004
-2.930E-06,0.000
-2.920E-06,0.004
-2.910E-06,0.008
-2.900E-06,0.008
-2.890E-06,0.008
-2.880E-06,0.008
-2.870E-06,0.004
-2.860E-06,0.004
-2.850E-06,0.000
-2.840E-06,0.000
-2.830E-06,0.004
-2.820E-06,-0.004
-2.810E-06,0.004
-2.800E-06,0.008
-2.790E-06,0.008
-2.780E-06,0.012
-2.770E-06,0.012
-2.760E-06,0.004
-2.750E-06,0.004
-2.740E-06,0.008
-2.730E-06,0.004
-2.720E-06,0.000
-2.710E-06,0.000
-2.700E-06,0.004
-2.690E-06,0.008
-2.680E-06,0.008
-2.670E-06,0.004
-2.660E-06,0.004
-2.650E-06,0.012
-2.640E-06,0.020
-2.630E-06,0.024
-2.620E-06,0.028
-2.610E-06,0.020
-2.600E-06,0.000
-2.590E-06,-0.012
-2.580E-06,-0.024
-2.570E-06,-0.028
-2.560E-06,-0.004
-2.550E-06,0.024
-2.540E-06,0.020
-2.530E-06,0.012
-2.520E-06,0.004
-2.510E-06,-0.012
-2.500E-06,-0.020
-2.490E-06,0.008
-2.480E-06,0.008
-2.470E-06,0.016
-2.460E-06,0.016
-2.450E-06,0.024
-2.440E-06,-0.004
-2.430E-06,-0.004
-2.420E-06,-0.004
-2.410E-06,0.012
-2.400E-06,0.028
-2.390E-06,0.020
-2.380E-06,0.044
-2.370E-06,0.044
-2.360E-06,0.016
-2.350E-06,-0.036
-2.340E-06,-0.072
-2.330E-06,-0.132
-2.320E-06,-0.072
-2.310E-06,-0.012
-2.300E-06,0.076
-2.290E-06,0.100
-2.280E-06,0.036
-2.270E-06,-0.024
-2.260E-06,-0.072
-2.250E-06,-0.064
-2.240E-06,-0.040
-2.230E-06,0.016
-2.220E-06,0.056
-2.210E-06,0.080
-2.200E-06,0.044
-2.190E-06,-0.004
-2.180E-06,-0.048
-2.170E-06,-0.048
-2.160E-06,-0.020
-2.150E-06,0.012
-2.140E-06,0.052
-2.130E-06,0.044
-2.120E-06,0.040
-2.110E-06,0.004
-2.100E-06,-0.008
-2.090E-06,-0.008
-2.080E-06,0.012
-2.070E-06,0.040
-2.060E-06,0.052
-2.050E-06,0.020
-2.040E-06,-0.028
-2.030E-06,-0.040
-2.020E-06,-0.044
-2.010E-06,-0.020
-2.000E-06,0.024
-1.990E-06,0.052
-1.980E-06,0.040
-1.970E-06,0.012
-1.960E-06,-0.004
-1.950E-06,-0.032
-1.940E-06,-0.036
-1.930E-06,-0.004
-1.920E-06,0.036
-1.910E-06,0.036
-1.900E-06,0.040
-1.890E-06,0.012
-1.880E-06,-0.008
-1.870E-06,-0.028
-1.860E-06,-0.012
-1.850E-06,0.000
-1.840E-06,0.024
-1.830E-06,0.028
-1.820E-06,0.024
-1.810E-06,0.000
-1.800E-06,-0.004
-1.790E-06,-0.016
-1.780E-06,0.004
-1.770E-06,0.008
-1.760E-06,0.020
-1.750E-06,0.028
-1.740E-06,0.008
-1.730E-06,-0.004
-1.720E-06,-0.016
-1.710E-06,-0.028
-1.700E-06,-0.032
-1.690E-06,-0.024
-1.680E-06,-0.016
-1.670E-06,-0.004
-1.660E-06,-0.004
-1.650E-06,0.024
-1.640E-06,0.012
-1.630E-06,-0.004
-1.620E-06,0.008
-1.610E-06,0.024
-1.600E-06,0.024
-1.590E-06,-0.004
-1.580E-06,-0.036
-1.570E-06,-0.028
-1.560E-06,0.004
-1.550E-06,0.032
-1.540E-06,0.032
-1.530E-06,0.016
-1.520E-06,-0.004
-1.510E-06,-0.008
-1.500E-06,-0.012
-1.490E-06,0.000
-1.480E-06,0.004
-1.470E-06,0.028
-1.460E-06,0.024
-1.450E-06,0.024
-1.440E-06,0.008
-1.430E-06,-0.004
-1.420E-06,-0.008
-1.410E-06,0.012
-1.400E-06,0.028
-1.390E-06,0.040
-1.380E-06,0.048
-1.370E-06,0.044
-1.360E-06,0.028
-1.350E-06,-0.012
-1.340E-06,-0.028
-1.330E-06,-0.060
-1.320E-06,-0.032
-1.310E-06,0.000
-1.300E-06,0.032
-1.290E-06,0.056
-1.280E-06,0.040
-1.270E-06,0.020
-1.260E-06,-0.028
-1.250E-06,-0.052
-1.240E-06,-0.036
-1.230E-06,-0.012
-1.220E-06,0.020
-1.210E-06,0.040
-1.200E-06,0.048
-1.190E-06,0.020
-1.180E-06,0.000
-1.170E-06,-0.032
-1.160E-06,-0.036
-1.150E-06,-0.024
-1.140E-06,0.008
-1.130E-06,0.040
-1.120E-06,0.056
-1.110E-06,0.056
-1.100E-06,0.032
-1.090E-06,-0.008
-1.080E-06,-0.024
-1.070E-06,-0.036
-1.060E-06,-0.008
-1.050E-06,0.016
-1.040E-06,0.044
-1.030E-06,0.044
-1.020E-06,0.024
-1.010E-06,-0.008
-1.000E-06,-0.020
-9.900E-07,-0.024
-9.800E-07,-0.008
-9.700E-07,0.024
-9.600E-07,0.032
-9.500E-07,0.044
-9.400E-07,0.032
-9.300E-07,0.016
-9.200E-07,0.008
-9.100E-07,0.012
-9.000E-07,0.020
-8.900E-07,0.044
-8.800E-07,0.052
-8.700E-07,0.064
-8.600E-07,0.056
-8.500E-07,0.036
-8.400E-07,-0.008
-8.300E-07,0.004
-8.200E-07,0.008
-8.100E-07,0.020
-8.000E-07,0.036
-7.900E-07,0.016
-7.800E-07,-0.004
-7.700E-07,-0.048
-7.600E-07,-0.076
-7.500E-07,-0.084
-7.400E-07,-0.036
-7.300E-07,0.012
-7.200E-07,0.024
-7.100E-07,0.028
-7.000E-07,0.008
-6.900E-07,0.004
-6.800E-07,-0.008
-6.700E-07,-0.024
-6.600E-07,-0.004
-6.500E-07,-0.020
-6.400E-07,0.016
-6.300E-07,0.024
-6.200E-07,0.040
-6.100E-07,0.008
-6.000E-07,-0.004
-5.900E-07,-0.004
-5.800E-07,0.008
-5.700E-07,0.012
-5.600E-07,0.016
-5.500E-07,0.036
-5.400E-07,0.036
-5.300E-07,0.060
-5.200E-07,0.056
-5.100E-07,0.076
-5.000E-07,0.088
-4.900E-07,0.096
-4.800E-07,0.076
-4.700E-07,0.044
-4.600E-07,-0.020
-4.500E-07,-0.068
-4.400E-07,-0.080
-4.300E-07,-0.048
-4.200E-07,0.000
-4.100E-07,0.060
-4.000E-07,0.064
-3.900E-07,0.056
-3.800E-07,0.036
-3.700E-07,-0.008
-3.600E-07,-0.004
-3.500E-07,-0.004
-3.400E-07,0.008
-3.300E-07,0.024
-3.200E-07,0.004
-3.100E-07,-0.008
-3.000E-07,-0.008
-2.900E-07,-0.020
-2.800E-07,0.052
-2.700E-07,0.056
-2.600E-07,0.108
-2.500E-07,0.140
-2.400E-07,0.120
-2.300E-07,0.092
-2.200E-07,0.076
-2.100E-07,-0.036
-2.000E-07,-0.052
-1.900E-07,-0.036
-1.800E-07,-0.044
-1.700E-07,0.032
-1.600E-07,-0.036
-1.500E-07,-0.060
-1.400E-07,-0.104
-1.300E-07,-0.072
-1.200E-07,0.056
-1.100E-07,0.000
-1.000E-07,0.068
-9.000E-08,0.044
-8.000E-08,0.084
-7.000E-08,-0.036
-6.000E-08,-0.364
-5.000E-08,-0.396
-4.000E-08,-0.484
-3.000E-08,-0.104
-2.000E-08,0.136
-1.000E-08,0.324
0.000E+00,0.340
1.000E-08,0.136
2.000E-08,-0.136
3.000E-08,-0.320
4.000E-08,-0.264
5.000E-08,-0.088
6.000E-08,0.128
7.000E-08,0.248
8.000E-08,0.268
9.000E-08,0.108
1.000E-07,-0.040
1.100E-07,-0.172
1.200E-07,-0.176
1.300E-07,-0.120
1.400E-07,0.008
1.500E-07,0.144
1.600E-07,0.176
1.700E-07,0.148
1.800E-07,0.008
1.900E-07,-0.072
2.000E-07,-0.124
2.100E-07,-0.088
2.200E-07,0.004
2.300E-07,0.064
2.400E-07,0.136
2.500E-07,0.100
2.600E-07,0.052
2.700E-07,-0.036
2.800E-07,-0.060
2.900E-07,-0.052
3.000E-07,0.004
3.100E-07,0.072
3.200E-07,0.116
3.300E-07,0.108
3.400E-07,0.056
3.500E-07,0.020
3.600E-07,-0.024
3.700E-07,0.004
3.800E-07,0.044
3.900E-07,0.128
4.000E-07,0.172
4.100E-07,0.180
4.200E-07,0.148
4.300E-07,0.088
4.400E-07,0.056
4.500E-07,0.036
4.600E-07,0.076
4.700E-07,0.132
4.800E-07,0.156
4.900E-07,0.128
5.000E-07,0.044
5.100E-07,-0.040
5.200E-07,-0.152
5.300E-07,-0.112
5.400E-07,0.024
5.500E-07,0.144
5.600E-07,0.220
5.700E-07,0.200
5.800E-07,0.112
5.900E-07,-0.036
6.000E-07,-0.072
6.100E-07,-0.072
6.200E-07,-0.304
6.300E-07,-0.300
6.400E-07,-0.292
6.500E-07,-0.012
6.600E-07,0.080
6.700E-07,0.396
6.800E-07,0.540
6.900E-07,-0.172
7.000E-07,-0.512
7.100E-07,-0.508
7.200E-07,-0.512
7.300E-07,-0.164
7.400E-07,0.408
7.500E-07,0.540
7.600E-07,0.540
7.700E-07,0.072
7.800E-07,-0.348
7.900E-07,-0.512
8.000E-07,-0.512
8.100E-07,-0.096
8.200E-07,0.368
8.300E-07,0.540
8.400E-07,0.392
8.500E-07,0.088
8.600E-07,-0.292
8.700E-07,-0.372
8.800E-07,-0.388
8.900E-07,-0.044
9.000E-07,0.196
9.100E-07,0.312
9.200E-07,0.324
9.300E-07,0.128
9.400E-07,-0.052
9.500E-07,-0.272
9.600E-07,-0.208
9.700E-07,-0.120
9.800E-07,0.068
9.900E-07,0.232
1.000E-06,0.256
1.010E-06,0.172
1.020E-06,-0.032
1.030E-06,-0.132
1.040E-06,-0.192
1.050E-06,-0.084
1.060E-06,0.072
1.070E-06,0.184
1.080E-06,0.232
1.090E-06,0.192
1.100E-06,0.060
1.110E-06,-0.060
1.120E-06,-0.108
1.130E-06,-0.076
1.140E-06,0.068
1.150E-06,0.180
1.160E-06,0.264
1.170E-06,0.228
1.180E-06,0.144
1.190E-06,0.052
1.200E-06,0.020
1.210E-06,0.052
1.220E-06,0.124
1.230E-06,0.228
1.240E-06,0.264
1.250E-06,0.284
1.260E-06,0.164
1.270E-06,0.004
1.280E-06,-0.284
1.290E-06,-0.488
1.300E-06,-0.512
1.310E-06,-0.184
1.320E-06,0.208
1.330E-06,0.544
1.340E-06,0.544
1.350E-06,0.528
1.360E-06,0.164
1.370E-06,-0.192
1.380E-06,-0.308
1.390E-06,-0.324
1.400E-06,-0.036
1.410E-06,0.288
1.420E-06,0.376
1.430E-06,0.244
1.440E-06,-0.192
1.450E-06,-0.512
1.460E-06,-0.512
1.470E-06,-0.508
1.480E-06,-0.512
1.490E-06,0.008
1.500E-06,0.540
1.510E-06,0.508
1.520E-06,0.160
1.530E-06,-0.416
1.540E-06,-0.360
1.550E-06,-0.400
1.560E-06,-0.328
1.570E-06,0.136
1.580E-06,0.432
1.590E-06,0.520
1.600E-06,0.288
1.610E-06,-0.124
1.620E-06,-0.408
1.630E-06,-0.400
1.640E-06,-0.236
1.650E-06,0.072
1.660E-06,0.292
1.670E-06,0.340
1.680E-06,0.212
1.690E-06,0.012
1.700E-06,-0.136
1.710E-06,-0.264
1.720E-06,-0.196
1.730E-06,-0.024
1.740E-06,0.172
1.750E-06,0.300
1.760E-06,0.228
1.770E-06,0.084
1.780E-06,-0.140
1.790E-06,-0.200
1.800E-06,-0.164
1.810E-06,-0.012
1.820E-06,0.120
1.830E-06,0.200
1.840E-06,0.204
1.850E-06,0.128
1.860E-06,0.032
1.870E-06,-0.020
1.880E-06,-0.044
1.890E-06,0.028
1.900E-06,0.100
1.910E-06,0.192
1.920E-06,0.248
1.930E-06,0.228
1.940E-06,0.176
1.950E-06,0.080
1.960E-06,0.052
1.970E-06,0.076
1.980E-06,0.164
1.990E-06,0.220
2.000E-06,0.264
2.010E-06,0.272
2.020E-06,0.244
2.030E-06,0.180
2.040E-06,0.120
2.050E-06,0.060
2.060E-06,0.040
2.070E-06,0.052
2.080E-06,-0.052
2.090E-06,0.076
2.100E-06,-0.372
2.110E-06,-0.508
2.120E-06,-0.512
2.130E-06,-0.512
2.140E-06,-0.248
2.150E-06,-0.004
2.160E-06,0.388
2.170E-06,0.468
2.180E-06,0.352
2.190E-06,-0.016
2.200E-06,-0.332
2.210E-06,-0.436
2.220E-06,-0.160
2.230E-06,0.164
2.240E-06,0.464
2.250E-06,0.440
2.260E-06,0.212
2.270E-06,-0.028
2.280E-06,-0.216
2.290E-06,-0.244
2.300E-06,-0.168
2.310E-06,0.056
2.320E-06,0.196
2.330E-06,0.308
2.340E-06,0.200
2.350E-06,0.040
2.360E-06,-0.108
2.370E-06,-0.136
2.380E-06,-0.036
2.390E-06,0.052
2.400E-06,0.208
2.410E-06,0.248
2.420E-06,0.228
2.430E-06,0.100
2.440E-06,-0.004
2.450E-06,-0.008
2.460E-06,0.080
2.470E-06,0.212
2.480E-06,0.304
2.490E-06,0.320
2.500E-06,0.252
2.510E-06,0.128
2.520E-06,0.000
2.530E-06,-0.012
2.540E-06,0.012
2.550E-06,0.084
2.560E-06,0.160
2.570E-06,0.172
2.580E-06,0.076
2.590E-06,-0.068
2.600E-06,-0.152
2.610E-06,-0.264
2.620E-06,-0.164
2.630E-06,-0.028
2.640E-06,0.092
2.650E-06,0.172
2.660E-06,0.172
2.670E-06,0.176
2.680E-06,0.108
2.690E-06,0.160
2.700E-06,0.156
2.710E-06,0.224
2.720E-06,0.216
2.730E-06,0.136
2.740E-06,0.108
2.750E-06,0.060
2.760E-06,0.052
2.770E-06,0.020
2.780E-06,-0.020
2.790E-06,-0.012
2.800E-06,-0.048
2.810E-06,-0.076
2.820E-06,-0.096
2.830E-06,0.012
2.840E-06,0.056
2.850E-06,-0.064
2.860E-06,-0.124
2.870E-06,-0.288
2.880E-06,-0.240
2.890E-06,-0.208
2.900E-06,-0.096
2.910E-06,0.032
2.920E-06,0.224
2.930E-06,0.356
2.940E-06,0.388
2.950E-06,0.304
2.960E-06,0.192
2.970E-06,0.032
2.980E-06,-0.012
2.990E-06,0.036
3.000E-06,0.044
3.010E-06,0.072
3.020E-06,-0.052
3.030E-06,-0.164
3.040E-06,-0.264
3.050E-06,-0.280
3.060E-06,-0.292
3.070E-06,-0.108
3.080E-06,0.072
3.090E-06,0.140
3.100E-06,0.124
3.110E-06,0.036
3.120E-06,-0.024
3.130E-06,-0.036
3.140E-06,0.016
3.150E-06,0.144
3.160E-06,0.328
3.170E-06,0.408
3.180E-06,0.388
3.190E-06,0.280
3.200E-06,0.136
3.210E-06,0.028
3.220E-06,0.048
3.230E-06,0.132
3.240E-06,0.232
3.250E-06,0.308
3.260E-06,0.304
3.270E-06,0.256
3.280E-06,0.156
3.290E-06,0.092
3.300E-06,0.092
3.310E-06,0.144
3.320E-06,0.224
3.330E-06,0.288
3.340E-06,0.304
3.350E-06,0.272
3.360E-06,0.200
3.370E-06,0.132
3.380E-06,0.116
3.390E-06,0.136
3.400E-06,0.196
3.410E-06,0.240
3.420E-06,0.272
3.430E-06,0.252
3.440E-06,0.208
3.450E-06,0.156
3.460E-06,0.140
3.470E-06,0.148
3.480E-06,0.192
3.490E-06,0.232
3.500E-06,0.256
3.510E-06,0.256
3.520E-06,0.220
3.530E-06,0.188
3.540E-06,0.156
3.550E-06,0.144
3.560E-06,0.148
3.570E-06,0.172
3.580E-06,0.196
3.590E-06,0.228
3.600E-06,0.220
3.610E-06,0.208
3.620E-06,0.188
3.630E-06,0.176
3.640E-06,0.172
3.650E-06,0.172
3.660E-06,0.200
3.670E-06,0.224
3.680E-06,0.220
3.690E-06,0.204
3.700E-06,0.188
3.710E-06,0.172
3.720E-06,0.168
3.730E-06,0.180
3.740E-06,0.200
3.750E-06,0.208
3.760E-06,0.200
3.770E-06,0.188
3.780E-06,0.160
3.790E-06,0.160
3.800E-06,0.160
3.810E-06,0.188
3.820E-06,0.204
3.830E-06,0.208
3.840E-06,0.208
3.850E-06,0.192
3.860E-06,0.188
3.870E-06,0.180
3.880E-06,0.172
3.890E-06,0.188
3.900E-06,0.196
3.910E-06,0.192
3.920E-06,0.188
3.930E-06,0.168
3.940E-06,0.160
3.950E-06,0.156
3.960E-06,0.156
3.970E-06,0.164
3.980E-06,0.164
3.990E-06,0.180
4.000E-06,0.188
4.010E-06,0.196
4.020E-06,0.192
4.030E-06,0.180
4.040E-06,0.188
4.050E-06,0.180
4.060E-06,0.188
4.070E-06,0.188
4.080E-06,0.192
4.090E-06,0.196
4.100E-06,0.192
4.110E-06,0.188
4.120E-06,0.188
4.130E-06,0.192
4.140E-06,0.192
4.150E-06,0.188
4.160E-06,0.192
4.170E-06,0.192
4.180E-06,0.188
4.190E-06,0.184
4.200E-06,0.180
4.210E-06,0.180
4.220E-06,0.180
4.230E-06,0.176
4.240E-06,0.180
4.250E-06,0.176
4.260E-06,0.172
4.270E-06,0.176
4.280E-06,0.180
4.290E-06,0.180
4.300E-06,0.176
4.310E-06,0.188
4.320E-06,0.184
4.330E-06,0.184
4.340E-06,0.180
4.350E-06,0.176
4.360E-06,0.180
4.370E-06,0.180
4.380E-06,0.176
4.390E-06,0.184
4.400E-06,0.180
4.410E-06,0.176
4.420E-06,0.176
4.430E-06,0.172
4.440E-06,0.172
4.450E-06,0.180
4.460E-06,0.180
4.470E-06,0.180
4.480E-06,0.176
4.490E-06,0.172
4.500E-06,0.164
4.510E-06,0.164
4.520E-06,0.164
4.530E-06,0.164
4.540E-06,0.176
4.550E-06,0.180
4.560E-06,0.176
4.570E-06,0.168
4.580E-06,0.172
4.590E-06,0.164
4.600E-06,0.164
4.610E-06,0.168
4.620E-06,0.164
4.630E-06,0.172
4.640E-06,0.164
4.650E-06,0.168
4.660E-06,0.164
4.670E-06,0.164
4.680E-06,0.172
4.690E-06,0.168
4.700E-06,0.164
4.710E-06,0.172
4.720E-06,0.164
4.730E-06,0.160
4.740E-06,0.160
4.750E-06,0.164
4.760E-06,0.164
4.770E-06,0.168
4.780E-06,0.172
4.790E-06,0.168
4.800E-06,0.168
4.810E-06,0.164
4.820E-06,0.160
4.830E-06,0.164
4.840E-06,0.160
4.850E-06,0.164
4.860E-06,0.164
4.870E-06,0.164
4.880E-06,0.156
4.890E-06,0.156
4.900E-06,0.152
4.910E-06,0.156
4.920E-06,0.152
4.930E-06,0.152
4.940E-06,0.156
4.950E-06,0.156
4.960E-06,0.152
4.970E-06,0.148
4.980E-06,0.152
4.990E-06,0.160
5.000E-06,0.160
5.010E-06,0.156
5.020E-06,0.156
5.030E-06,0.156
5.040E-06,0.148
5.050E-06,0.148
5.060E-06,0.152
5.070E-06,0.148
5.080E-06,0.156
5.090E-06,0.156
5.100E-06,0.156
5.110E-06,0.152
5.120E-06,0.144
5.130E-06,0.140
5.140E-06,0.144
5.150E-06,0.152
5.160E-06,0.152
5.170E-06,0.152
5.180E-06,0.152
5.190E-06,0.144
5.200E-06,0.144
5.210E-06,0.144
5.220E-06,0.140
5.230E-06,0.140
5.240E-06,0.140
5.250E-06,0.140
5.260E-06,0.140
5.270E-06,0.144
5.280E-06,0.140
5.290E-06,0.144
5.300E-06,0.140
5.310E-06,0.136
5.320E-06,0.140
5.330E-06,0.140
5.340E-06,0.144
5.350E-06,0.144
5.360E-06,0.140
5.370E-06,0.144
5.380E-06,0.140
5.390E-06,0.128
5.400E-06,0.136
5.410E-06,0.132
5.420E-06,0.144
5.430E-06,0.136
5.440E-06,0.144
5.450E-06,0.144
5.460E-06,0.140
5.470E-06,0.136
5.480E-06,0.132
5.490E-06,0.132
5.500E-06,0.132
5.510E-06,0.136
5.520E-06,0.136
5.530E-06,0.140
5.540E-06,0.140
5.550E-06,0.140
5.560E-06,0.132
5.570E-06,0.128
5.580E-06,0.132
5.590E-06,0.132
5.600E-06,0.132
5.610E-06,0.132
5.620E-06,0.132
5.630E-06,0.132
5.640E-06,0.128
5.650E-06,0.128
5.660E-06,0.128
5.670E-06,0.128
5.680E-06,0.128
5.690E-06,0.132
5.700E-06,0.128
5.710E-06,0.132
5.720E-06,0.128
5.730E-06,0.128
5.740E-06,0.128
5.750E-06,0.132
5.760E-06,0.128
5.770E-06,0.128
5.780E-06,0.124
5.790E-06,0.128
5.800E-06,0.128
5.810E-06,0.124
5.820E-06,0.124
5.830E-06,0.124
5.840E-06,0.124
5.850E-06,0.124
5.860E-06,0.120
5.870E-06,0.124
5.880E-06,0.124
5.890E-06,0.128
5.900E-06,0.120
5.910E-06,0.120
5.920E-06,0.112
5.930E-06,0.112
5.940E-06,0.108
5.950E-06,0.124
5.960E-06,0.112
5.970E-06,0.124
5.980E-06,0.124
5.990E-06,0.120
6.000E-06,0.108
6.010E-06,0.108
6.020E-06,0.108
6.030E-06,0.112
6.040E-06,0.120
6.050E-06,0.112
6.060E-06,0.116
6.070E-06,0.108
6.080E-06,0.108
6.090E-06,0.112
6.100E-06,0.112
6.110E-06,0.108
6.120E-06,0.112
6.130E-06,0.112
6.140E-06,0.108
6.150E-06,0.108
6.160E-06,0.112
6.170E-06,0.108
6.180E-06,0.104
6.190E-06,0.108
6.200E-06,0.108
6.210E-06,0.104
6.220E-06,0.104
6.230E-06,0.108
6.240E-06,0.104
6.250E-06,0.108
6.260E-06,0.104
6.270E-06,0.100
6.280E-06,0.104
6.290E-06,0.100
6.300E-06,0.104
6.310E-06,0.104
6.320E-06,0.108
6.330E-06,0.100
6.340E-06,0.100
6.350E-06,0.100
6.360E-06,0.096
6.370E-06,0.096
6.380E-06,0.100
6.390E-06,0.100
6.400E-06,0.100
6.410E-06,0.104
6.420E-06,0.100
6.430E-06,0.100
6.440E-06,0.096
6.450E-06,0.092
6.460E-06,0.096
6.470E-06,0.096
6.480E-06,0.096
6.490E-06,0.092
6.500E-06,0.100
6.510E-06,0.092
6.520E-06,0.096
6.530E-06,0.092
6.540E-06,0.096
6.550E-06,0.088
6.560E-06,0.088
6.570E-06,0.088
6.580E-06,0.092
6.590E-06,0.088
6.600E-06,0.088
6.610E-06,0.088
6.620E-06,0.088
6.630E-06,0.088
6.640E-06,0.084
6.650E-06,0.088
6.660E-06,0.092
6.670E-06,0.088
6.680E-06,0.092
6.690E-06,0.084
6.700E-06,0.076
6.710E-06,0.084
6.720E-06,0.076
6.730E-06,0.084
6.740E-06,0.076
6.750E-06,0.084
6.760E-06,0.088
6.770E-06,0.092
6.780E-06,0.092
6.790E-06,0.088
6.800E-06,0.080
6.810E-06,0.076
6.820E-06,0.076
6.830E-06,0.076
6.840E-06,0.084
6.850E-06,0.088
6.860E-06,0.084
6.870E-06,0.084
6.880E-06,0.076
6.890E-06,0.076
6.900E-06,0.072
6.910E-06,0.076
6.920E-06,0.084
6.930E-06,0.084
6.940E-06,0.092
6.950E-06,0.088
6.960E-06,0.088
6.970E-06,0.076
6.980E-06,0.076
6.990E-06,0.080
7.000E-06,0.080
7.010E-06,0.076
7.020E-06,0.076
7.030E-06,0.076
7.040E-06,0.076
7.050E-06,0.072
7.060E-06,0.072
7.070E-06,0.076
7.080E-06,0.076
7.090E-06,0.072
7.100E-06,0.072
7.110E-06,0.068
7.120E-06,0.064
7.130E-06,0.064
7.140E-06,0.064
7.150E-06,0.068
7.160E-06,0.068
7.170E-06,0.068
7.180E-06,0.068
7.190E-06,0.064
7.200E-06,0.060
7.210E-06,0.060
7.220E-06,0.060
7.230E-06,0.060
7.240E-06,0.072
7.250E-06,0.072
7.260E-06,0.064
7.270E-06,0.060
7.280E-06,0.056
7.290E-06,0.056
7.300E-06,0.056
7.310E-06,0.064
7.320E-06,0.064
7.330E-06,0.060
7.340E-06,0.068
7.350E-06,0.060
7.360E-06,0.056
7.370E-06,0.056
7.380E-06,0.060
7.390E-06,0.056
7.400E-06,0.064
7.410E-06,0.060
7.420E-06,0.060
7.430E-06,0.056
7.440E-06,0.056
7.450E-06,0.056
7.460E-06,0.056
7.470E-06,0.060
7.480E-06,0.060
7.490E-06,0.056
7.500E-06,0.056
7.510E-06,0.060
7.520E-06,0.056
7.530E-06,0.056
7.540E-06,0.056
7.550E-06,0.060
7.560E-06,0.060
7.570E-06,0.056
7.580E-06,0.056
7.590E-06,0.056
7.600E-06,0.060
7.610E-06,0.052
7.620E-06,0.056
7.630E-06,0.056
7.640E-06,0.056
7.650E-06,0.056
7.660E-06,0.052
7.670E-06,0.052
7.680E-06,0.060
7.690E-06,0.052
7.700E-06,0.056
7.710E-06,0.052
7.720E-06,0.052
7.730E-06,0.048
7.740E-06,0.052
7.750E-06,0.052
7.760E-06,0.052
7.770E-06,0.052
