mediciones/Mediciones filtradas (saque las feas)/6-10/42.7/WaveData55157.csv

#timebase=2000000(ps)
,#voltbase=500000(mv/100)
#size=4000
-4.250E-06,0.220
-4.240E-06,0.180
-4.230E-06,0.240
-4.220E-06,0.260
-4.210E-06,0.300
-4.200E-06,0.320
-4.190E-06,0.200
-4.180E-06,0.180
-4.170E-06,0.000
-4.160E-06,0.040
-4.150E-06,0.240
-4.140E-06,0.240
-4.130E-06,0.440
-4.120E-06,0.320
-4.110E-06,0.120
-4.100E-06,-0.060
-4.090E-06,-0.200
-4.080E-06,-0.200
-4.070E-06,-0.100
-4.060E-06,0.180
-4.050E-06,0.000
-4.040E-06,0.080
-4.030E-06,0.080
-4.020E-06,0.100
-4.010E-06,0.360
-4.000E-06,0.340
-3.990E-06,0.360
-3.980E-06,0.160
-3.970E-06,-0.100
-3.960E-06,-0.200
-3.950E-06,-0.080
-3.940E-06,0.080
-3.930E-06,0.320
-3.920E-06,0.220
-3.910E-06,0.000
-3.900E-06,-0.140
-3.890E-06,-0.180
-3.880E-06,-0.120
-3.870E-06,0.040
-3.860E-06,0.100
-3.850E-06,0.020
-3.840E-06,-0.120
-3.830E-06,-0.260
-3.820E-06,-0.100
-3.810E-06,-0.120
-3.800E-06,-0.160
-3.790E-06,0.000
-3.780E-06,0.040
-3.770E-06,0.120
-3.760E-06,0.520
-3.750E-06,0.320
-3.740E-06,0.340
-3.730E-06,0.100
-3.720E-06,-0.160
-3.710E-06,0.080
-3.700E-06,0.080
-3.690E-06,0.360
-3.680E-06,0.420
-3.670E-06,0.160
-3.660E-06,0.000
-3.650E-06,-0.040
-3.640E-06,-0.020
-3.630E-06,0.140
-3.620E-06,0.220
-3.610E-06,0.180
-3.600E-06,0.120
-3.590E-06,0.040
-3.580E-06,0.000
-3.570E-06,0.040
-3.560E-06,0.080
-3.550E-06,0.120
-3.540E-06,0.060
-3.530E-06,0.000
-3.520E-06,-0.020
-3.510E-06,-0.020
-3.500E-06,0.060
-3.490E-06,0.020
-3.480E-06,0.020
-3.470E-06,-0.020
-3.460E-06,-0.040
-3.450E-06,-0.060
-3.440E-06,-0.060
-3.430E-06,0.020
-3.420E-06,0.040
-3.410E-06,-0.020
-3.400E-06,0.000
-3.390E-06,-0.020
-3.380E-06,0.000
-3.370E-06,0.000
-3.360E-06,0.000
-3.350E-06,0.080
-3.340E-06,0.080
-3.330E-06,0.100
-3.320E-06,0.080
-3.310E-06,0.080
-3.300E-06,0.140
-3.290E-06,0.120
-3.280E-06,0.120
-3.270E-06,0.080
-3.260E-06,0.100
-3.250E-06,0.120
-3.240E-06,0.160
-3.230E-06,0.120
-3.220E-06,0.120
-3.210E-06,0.080
-3.200E-06,0.080
-3.190E-06,0.080
-3.180E-06,0.080
-3.170E-06,0.080
-3.160E-06,0.040
-3.150E-06,0.060
-3.140E-06,0.080
-3.130E-06,0.000
-3.120E-06,0.020
-3.110E-06,0.040
-3.100E-06,0.000
-3.090E-06,0.080
-3.080E-06,0.100
-3.070E-06,0.100
-3.060E-06,0.100
-3.050E-06,0.080
-3.040E-06,0.060
-3.030E-06,0.060
-3.020E-06,0.080
-3.010E-06,0.160
-3.000E-06,0.120
-2.990E-06,0.260
-2.980E-06,0.240
-2.970E-06,0.220
-2.960E-06,0.260
-2.950E-06,0.180
-2.940E-06,0.120
-2.930E-06,0.260
-2.920E-06,-0.020
-2.910E-06,0.260
-2.900E-06,0.000
-2.890E-06,-0.100
-2.880E-06,0.520
-2.870E-06,0.200
-2.860E-06,0.580
-2.850E-06,0.340
-2.840E-06,-0.040
-2.830E-06,-0.160
-2.820E-06,-0.320
-2.810E-06,-0.160
-2.800E-06,0.120
-2.790E-06,0.200
-2.780E-06,0.200
-2.770E-06,0.000
-2.760E-06,-0.240
-2.750E-06,-0.140
-2.740E-06,0.000
-2.730E-06,0.140
-2.720E-06,0.220
-2.710E-06,0.160
-2.700E-06,-0.020
-2.690E-06,-0.040
-2.680E-06,-0.040
-2.670E-06,0.080
-2.660E-06,0.180
-2.650E-06,0.200
-2.640E-06,0.120
-2.630E-06,-0.040
-2.620E-06,-0.040
-2.610E-06,-0.080
-2.600E-06,-0.040
-2.590E-06,0.080
-2.580E-06,0.040
-2.570E-06,0.100
-2.560E-06,0.180
-2.550E-06,0.220
-2.540E-06,0.260
-2.530E-06,0.220
-2.520E-06,0.220
-2.510E-06,0.260
-2.500E-06,0.240
-2.490E-06,0.300
-2.480E-06,0.360
-2.470E-06,0.360
-2.460E-06,0.440
-2.450E-06,0.320
-2.440E-06,0.360
-2.430E-06,0.260
-2.420E-06,0.260
-2.410E-06,0.320
-2.400E-06,0.280
-2.390E-06,0.300
-2.380E-06,0.260
-2.370E-06,0.200
-2.360E-06,0.180
-2.350E-06,0.200
-2.340E-06,0.100
-2.330E-06,0.040
-2.320E-06,0.000
-2.310E-06,0.000
-2.300E-06,0.000
-2.290E-06,0.020
-2.280E-06,0.000
-2.270E-06,0.040
-2.260E-06,0.080
-2.250E-06,0.160
-2.240E-06,0.240
-2.230E-06,0.220
-2.220E-06,0.260
-2.210E-06,0.260
-2.200E-06,0.240
-2.190E-06,0.380
-2.180E-06,0.220
-2.170E-06,0.100
-2.160E-06,-0.020
-2.150E-06,-0.180
-2.140E-06,-0.020
-2.130E-06,0.100
-2.120E-06,0.260
-2.110E-06,0.340
-2.100E-06,0.320
-2.090E-06,0.160
-2.080E-06,0.100
-2.070E-06,0.060
-2.060E-06,0.160
-2.050E-06,0.280
-2.040E-06,0.320
-2.030E-06,0.340
-2.020E-06,0.280
-2.010E-06,0.220
-2.000E-06,0.220
-1.990E-06,0.240
-1.980E-06,0.260
-1.970E-06,0.340
-1.960E-06,0.340
-1.950E-06,0.340
-1.940E-06,0.340
-1.930E-06,0.260
-1.920E-06,0.260
-1.910E-06,0.220
-1.900E-06,0.240
-1.890E-06,0.200
-1.880E-06,0.220
-1.870E-06,0.180
-1.860E-06,0.180
-1.850E-06,0.160
-1.840E-06,0.140
-1.830E-06,0.140
-1.820E-06,0.120
-1.810E-06,0.140
-1.800E-06,0.120
-1.790E-06,0.080
-1.780E-06,0.100
-1.770E-06,0.080
-1.760E-06,0.080
-1.750E-06,0.060
-1.740E-06,0.020
-1.730E-06,0.020
-1.720E-06,0.060
-1.710E-06,0.080
-1.700E-06,0.080
-1.690E-06,0.120
-1.680E-06,0.140
-1.670E-06,0.160
-1.660E-06,0.160
-1.650E-06,0.160
-1.640E-06,0.140
-1.630E-06,0.060
-1.620E-06,0.040
-1.610E-06,0.020
-1.600E-06,0.060
-1.590E-06,0.080
-1.580E-06,0.140
-1.570E-06,0.140
-1.560E-06,0.160
-1.550E-06,0.180
-1.540E-06,0.200
-1.530E-06,0.080
-1.520E-06,-0.040
-1.510E-06,-0.080
-1.500E-06,-0.160
-1.490E-06,0.000
-1.480E-06,0.280
-1.470E-06,0.500
-1.460E-06,0.680
-1.450E-06,0.560
-1.440E-06,0.500
-1.430E-06,0.440
-1.420E-06,0.520
-1.410E-06,0.580
-1.400E-06,0.660
-1.390E-06,0.680
-1.380E-06,0.560
-1.370E-06,0.580
-1.360E-06,0.540
-1.350E-06,0.620
-1.340E-06,0.640
-1.330E-06,0.560
-1.320E-06,0.420
-1.310E-06,0.820
-1.300E-06,0.660
-1.290E-06,0.300
-1.280E-06,0.300
-1.270E-06,-0.240
-1.260E-06,-0.020
-1.250E-06,0.180
-1.240E-06,0.600
-1.230E-06,0.900
-1.220E-06,0.940
-1.210E-06,0.480
-1.200E-06,0.080
-1.190E-06,-0.060
-1.180E-06,-0.080
-1.170E-06,0.340
-1.160E-06,0.500
-1.150E-06,0.520
-1.140E-06,0.420
-1.130E-06,0.180
-1.120E-06,0.020
-1.110E-06,0.040
-1.100E-06,0.040
-1.090E-06,0.100
-1.080E-06,0.120
-1.070E-06,0.000
-1.060E-06,-0.020
-1.050E-06,-0.060
-1.040E-06,-0.100
-1.030E-06,-0.160
-1.020E-06,-0.160
-1.010E-06,-0.200
-1.000E-06,-0.140
-9.900E-07,-0.080
-9.800E-07,0.000
-9.700E-07,-0.020
-9.600E-07,0.000
-9.500E-07,-0.020
-9.400E-07,0.000
-9.300E-07,0.080
-9.200E-07,0.120
-9.100E-07,0.240
-9.000E-07,0.320
-8.900E-07,0.440
-8.800E-07,0.460
-8.700E-07,0.480
-8.600E-07,0.340
-8.500E-07,0.260
-8.400E-07,0.060
-8.300E-07,0.040
-8.200E-07,-0.400
-8.100E-07,-0.280
-8.000E-07,0.020
-7.900E-07,0.160
-7.800E-07,0.480
-7.700E-07,0.440
-7.600E-07,0.460
-7.500E-07,0.280
-7.400E-07,0.400
-7.300E-07,0.500
-7.200E-07,0.600
-7.100E-07,0.720
-7.000E-07,0.580
-6.900E-07,0.640
-6.800E-07,0.480
-6.700E-07,0.540
-6.600E-07,0.740
-6.500E-07,0.860
-6.400E-07,0.840
-6.300E-07,0.720
-6.200E-07,0.580
-6.100E-07,0.480
-6.000E-07,0.360
-5.900E-07,0.320
-5.800E-07,0.340
-5.700E-07,0.160
-5.600E-07,0.200
-5.500E-07,0.060
-5.400E-07,-0.060
-5.300E-07,-0.080
-5.200E-07,-0.220
-5.100E-07,-0.180
-5.000E-07,-0.220
-4.900E-07,-0.300
-4.800E-07,-0.240
-4.700E-07,-0.180
-4.600E-07,-0.100
-4.500E-07,-0.060
-4.400E-07,-0.020
-4.300E-07,-0.040
-4.200E-07,-0.120
-4.100E-07,-0.160
-4.000E-07,-0.160
-3.900E-07,-0.080
-3.800E-07,-0.040
-3.700E-07,0.000
-3.600E-07,0.080
-3.500E-07,0.040
-3.400E-07,0.000
-3.300E-07,-0.020
-3.200E-07,-0.020
-3.100E-07,0.000
-3.000E-07,0.000
-2.900E-07,0.080
-2.800E-07,0.080
-2.700E-07,0.040
-2.600E-07,0.080
-2.500E-07,0.120
-2.400E-07,0.140
-2.300E-07,0.200
-2.200E-07,0.200
-2.100E-07,0.260
-2.000E-07,0.260
-1.900E-07,0.280
-1.800E-07,0.320
-1.700E-07,0.300
-1.600E-07,0.280
-1.500E-07,0.240
-1.400E-07,0.300
-1.300E-07,0.240
-1.200E-07,0.300
-1.100E-07,0.200
-1.000E-07,0.180
-9.000E-08,0.040
-8.000E-08,-0.100
-7.000E-08,0.000
-6.000E-08,0.020
-5.000E-08,0.100
-4.000E-08,0.360
-3.000E-08,-0.020
-2.000E-08,-0.840
-1.000E-08,-0.460
0.000E+00,-0.560
1.000E-08,0.840
2.000E-08,1.360
3.000E-08,2.000
4.000E-08,-0.360
5.000E-08,-0.240
6.000E-08,-1.600
7.000E-08,-1.320
8.000E-08,1.180
9.000E-08,0.420
1.000E-07,1.820
1.100E-07,0.680
1.200E-07,-0.360
1.300E-07,0.320
1.400E-07,0.200
1.500E-07,1.020
1.600E-07,1.340
1.700E-07,0.740
1.800E-07,0.520
1.900E-07,0.420
2.000E-07,0.360
2.100E-07,0.640
2.200E-07,0.620
2.300E-07,0.280
2.400E-07,-0.180
2.500E-07,-0.420
2.600E-07,-0.640
2.700E-07,-0.440
2.800E-07,-0.340
2.900E-07,-0.360
3.000E-07,-0.400
3.100E-07,-0.460
3.200E-07,-0.420
3.300E-07,-0.400
3.400E-07,-0.420
3.500E-07,-0.360
3.600E-07,-0.300
3.700E-07,-0.140
3.800E-07,0.140
3.900E-07,0.160
4.000E-07,0.220
4.100E-07,0.260
4.200E-07,0.260
4.300E-07,0.360
4.400E-07,0.420
4.500E-07,0.420
4.600E-07,0.360
4.700E-07,0.260
4.800E-07,0.280
4.900E-07,0.320
5.000E-07,0.300
5.100E-07,0.360
5.200E-07,0.480
5.300E-07,0.220
5.400E-07,0.320
5.500E-07,0.260
5.600E-07,0.160
5.700E-07,0.200
5.800E-07,0.120
5.900E-07,0.040
6.000E-07,0.100
6.100E-07,0.140
6.200E-07,0.340
6.300E-07,0.240
6.400E-07,0.120
6.500E-07,0.040
6.600E-07,-0.240
6.700E-07,-0.060
6.800E-07,0.160
6.900E-07,0.440
7.000E-07,0.520
7.100E-07,0.640
7.200E-07,-0.060
7.300E-07,0.380
7.400E-07,-0.240
7.500E-07,-0.380
7.600E-07,0.000
7.700E-07,-0.360
7.800E-07,0.740
7.900E-07,1.480
8.000E-07,1.920
8.100E-07,1.860
8.200E-07,1.040
8.300E-07,0.280
8.400E-07,-0.300
8.500E-07,-0.500
8.600E-07,-0.600
8.700E-07,0.240
8.800E-07,0.720
8.900E-07,0.760
9.000E-07,1.280
9.100E-07,-0.200
9.200E-07,0.760
9.300E-07,0.400
9.400E-07,1.360
9.500E-07,2.440
9.600E-07,1.700
9.700E-07,2.140
9.800E-07,-0.040
9.900E-07,-0.080
1.000E-06,-0.180
1.010E-06,-0.240
1.020E-06,1.440
1.030E-06,1.360
1.040E-06,1.420
1.050E-06,1.460
1.060E-06,0.780
1.070E-06,1.020
1.080E-06,1.340
1.090E-06,1.680
1.100E-06,1.860
1.110E-06,1.860
1.120E-06,1.320
1.130E-06,1.220
1.140E-06,0.880
1.150E-06,0.740
1.160E-06,0.740
1.170E-06,0.540
1.180E-06,0.680
1.190E-06,0.540
1.200E-06,0.460
1.210E-06,0.320
1.220E-06,0.100
1.230E-06,0.060
1.240E-06,-0.060
1.250E-06,0.040
1.260E-06,-0.080
1.270E-06,-0.080
1.280E-06,-0.160
1.290E-06,-0.280
1.300E-06,-0.280
1.310E-06,-0.360
1.320E-06,-0.460
1.330E-06,-0.520
1.340E-06,-0.520
1.350E-06,-0.640
1.360E-06,-0.700
1.370E-06,-0.860
1.380E-06,-1.060
1.390E-06,-1.220
1.400E-06,-1.260
1.410E-06,-1.320
1.420E-06,-1.380
1.430E-06,-1.480
1.440E-06,-1.740
1.450E-06,-1.760
1.460E-06,-1.800
1.470E-06,-1.820
1.480E-06,-1.840
1.490E-06,-2.200
1.500E-06,-2.640
1.510E-06,-2.660
1.520E-06,-2.680
1.530E-06,-2.680
1.540E-06,-2.680
1.550E-06,-2.680
1.560E-06,-2.660
1.570E-06,-2.660
1.580E-06,-2.640
1.590E-06,-2.660
1.600E-06,-2.660
1.610E-06,-2.660
1.620E-06,-2.660
1.630E-06,-2.660
1.640E-06,-2.680
1.650E-06,-2.680
1.660E-06,-2.660
1.670E-06,-2.660
1.680E-06,-2.660
1.690E-06,-2.540
1.700E-06,-2.440
1.710E-06,-2.440
1.720E-06,-2.440
1.730E-06,-2.360
1.740E-06,-2.340
1.750E-06,-2.140
1.760E-06,-1.860
1.770E-06,-1.600
1.780E-06,-1.260
1.790E-06,-1.160
1.800E-06,-1.080
1.810E-06,-1.000
1.820E-06,-0.920
1.830E-06,-0.720
1.840E-06,-0.660
1.850E-06,-0.560
1.860E-06,-0.520
1.870E-06,-0.540
1.880E-06,-0.560
1.890E-06,-0.660
1.900E-06,-0.760
1.910E-06,-0.840
1.920E-06,-0.880
1.930E-06,-0.920
1.940E-06,-0.960
1.950E-06,-0.960
1.960E-06,-1.000
1.970E-06,-1.000
1.980E-06,-0.960
1.990E-06,-0.920
2.000E-06,-0.840
2.010E-06,-0.800
2.020E-06,-0.680
2.030E-06,-0.580
2.040E-06,-0.420
2.050E-06,-0.340
2.060E-06,-0.220
2.070E-06,-0.140
2.080E-06,-0.060
2.090E-06,0.020
2.100E-06,0.100
2.110E-06,0.140
2.120E-06,0.160
2.130E-06,0.180
2.140E-06,0.240
2.150E-06,0.300
2.160E-06,0.340
2.170E-06,0.360
2.180E-06,0.440
2.190E-06,0.420
2.200E-06,0.440
2.210E-06,0.480
2.220E-06,0.480
2.230E-06,0.460
2.240E-06,0.440
2.250E-06,0.420
2.260E-06,0.420
2.270E-06,0.400
2.280E-06,0.400
2.290E-06,0.420
2.300E-06,0.420
2.310E-06,0.400
2.320E-06,0.420
2.330E-06,0.440
2.340E-06,0.460
2.350E-06,0.480
2.360E-06,0.520
2.370E-06,0.560
2.380E-06,0.560
2.390E-06,0.600
2.400E-06,0.640
2.410E-06,0.620
2.420E-06,0.600
2.430E-06,0.560
2.440E-06,0.560
2.450E-06,0.600
2.460E-06,0.640
2.470E-06,0.680
2.480E-06,0.760
2.490E-06,0.860
2.500E-06,0.880
2.510E-06,0.920
2.520E-06,0.920
2.530E-06,0.860
2.540E-06,0.780
2.550E-06,0.720
2.560E-06,0.580
2.570E-06,0.500
2.580E-06,0.420
2.590E-06,0.340
2.600E-06,0.340
2.610E-06,0.280
2.620E-06,0.220
2.630E-06,0.160
2.640E-06,0.080
2.650E-06,0.060
2.660E-06,0.080
2.670E-06,0.100
2.680E-06,0.100
2.690E-06,0.140
2.700E-06,0.160
2.710E-06,0.180
2.720E-06,0.240
2.730E-06,0.260
2.740E-06,0.300
2.750E-06,0.260
2.760E-06,0.240
2.770E-06,0.120
2.780E-06,0.040
2.790E-06,0.040
2.800E-06,0.060
2.810E-06,0.100
2.820E-06,0.100
2.830E-06,0.100
2.840E-06,0.140
2.850E-06,0.180
2.860E-06,0.140
2.870E-06,0.160
2.880E-06,0.180
2.890E-06,0.120
2.900E-06,0.100
2.910E-06,0.140
2.920E-06,0.100
2.930E-06,0.240
2.940E-06,0.360
2.950E-06,0.340
2.960E-06,0.320
2.970E-06,0.320
2.980E-06,0.240
2.990E-06,0.300
3.000E-06,0.300
3.010E-06,0.260
3.020E-06,0.200
3.030E-06,0.120
3.040E-06,0.180
3.050E-06,0.100
3.060E-06,0.060
3.070E-06,0.020
3.080E-06,0.000
3.090E-06,0.020
3.100E-06,0.040
3.110E-06,0.000
3.120E-06,0.040
3.130E-06,0.120
3.140E-06,0.160
3.150E-06,0.180
3.160E-06,0.160
3.170E-06,0.160
3.180E-06,0.160
3.190E-06,0.160
3.200E-06,0.220
3.210E-06,0.220
3.220E-06,0.260
3.230E-06,0.260
3.240E-06,0.300
3.250E-06,0.240
3.260E-06,0.220
3.270E-06,0.160
3.280E-06,0.100
3.290E-06,0.080
3.300E-06,-0.040
3.310E-06,0.020
3.320E-06,0.000
3.330E-06,-0.020
3.340E-06,0.020
3.350E-06,0.000
3.360E-06,0.000
3.370E-06,0.020
3.380E-06,0.000
3.390E-06,0.080
3.400E-06,0.100
3.410E-06,0.100
3.420E-06,0.120
3.430E-06,0.140
3.440E-06,0.120
3.450E-06,0.120
3.460E-06,0.120
3.470E-06,0.100
3.480E-06,0.060
3.490E-06,0.080
3.500E-06,0.020
3.510E-06,0.000
3.520E-06,-0.060
3.530E-06,-0.060
3.540E-06,-0.080
3.550E-06,-0.100
3.560E-06,-0.140
3.570E-06,-0.140
3.580E-06,-0.160
3.590E-06,-0.160
3.600E-06,-0.120
3.610E-06,-0.160
3.620E-06,-0.100
3.630E-06,-0.100
3.640E-06,-0.040
3.650E-06,0.020
3.660E-06,0.040
3.670E-06,0.100
3.680E-06,0.140
3.690E-06,0.180
3.700E-06,0.260
3.710E-06,0.240
3.720E-06,0.300
3.730E-06,0.300
3.740E-06,0.340
3.750E-06,0.340
3.760E-06,0.380
3.770E-06,0.320
3.780E-06,0.340
3.790E-06,0.300
3.800E-06,0.280
3.810E-06,0.260
3.820E-06,0.240
3.830E-06,0.180
3.840E-06,0.120
3.850E-06,0.100
3.860E-06,0.080
3.870E-06,0.060
3.880E-06,0.040
3.890E-06,0.040
3.900E-06,0.040
3.910E-06,0.080
3.920E-06,0.060
3.930E-06,0.080
3.940E-06,0.020
3.950E-06,0.040
3.960E-06,0.020
3.970E-06,0.020
3.980E-06,-0.020
3.990E-06,0.020
4.000E-06,0.060
4.010E-06,0.040
4.020E-06,0.000
4.030E-06,0.000
4.040E-06,0.000
4.050E-06,-0.020
4.060E-06,-0.020
4.070E-06,-0.020
4.080E-06,0.000
4.090E-06,0.060
4.100E-06,0.100
4.110E-06,0.160
4.120E-06,0.220
4.130E-06,0.280
4.140E-06,0.320
4.150E-06,0.380
4.160E-06,0.420
4.170E-06,0.420
4.180E-06,0.340
4.190E-06,0.280
4.200E-06,0.180
4.210E-06,0.080
4.220E-06,-0.020
4.230E-06,-0.160
4.240E-06,-0.280
4.250E-06,-0.380
4.260E-06,-0.440
4.270E-06,-0.420
4.280E-06,-0.420
4.290E-06,-0.320
4.300E-06,-0.160
4.310E-06,-0.040
4.320E-06,0.160
4.330E-06,0.340
4.340E-06,0.420
4.350E-06,0.500
4.360E-06,0.540
4.370E-06,0.500
4.380E-06,0.460
4.390E-06,0.320
4.400E-06,0.240
4.410E-06,0.100
4.420E-06,0.000
4.430E-06,-0.020
4.440E-06,0.000
4.450E-06,0.040
4.460E-06,0.180
4.470E-06,0.220
4.480E-06,0.240
4.490E-06,0.220
4.500E-06,0.160
4.510E-06,0.100
4.520E-06,0.000
4.530E-06,-0.020
4.540E-06,-0.080
4.550E-06,-0.020
4.560E-06,-0.020
4.570E-06,0.120
4.580E-06,0.160
4.590E-06,0.260
4.600E-06,0.300
4.610E-06,0.380
4.620E-06,0.400
4.630E-06,0.420
4.640E-06,0.500
4.650E-06,0.540
4.660E-06,0.560
4.670E-06,0.600
4.680E-06,0.620
4.690E-06,0.640
4.700E-06,0.660
4.710E-06,0.600
4.720E-06,0.600
4.730E-06,0.560
4.740E-06,0.540
4.750E-06,0.500
4.760E-06,0.480
4.770E-06,0.460
4.780E-06,0.460
4.790E-06,0.460
4.800E-06,0.460
4.810E-06,0.480
4.820E-06,0.440
4.830E-06,0.440
4.840E-06,0.460
4.850E-06,0.420
4.860E-06,0.460
4.870E-06,0.420
4.880E-06,0.400
4.890E-06,0.400
4.900E-06,0.400
4.910E-06,0.360
4.920E-06,0.320
4.930E-06,0.320
4.940E-06,0.260
4.950E-06,0.240
4.960E-06,0.220
4.970E-06,0.160
4.980E-06,0.160
4.990E-06,0.140
5.000E-06,0.160
5.010E-06,0.220
5.020E-06,0.280
5.030E-06,0.380
5.040E-06,0.420
5.050E-06,0.520
5.060E-06,0.600
5.070E-06,0.640
5.080E-06,0.680
5.090E-06,0.620
5.100E-06,0.620
5.110E-06,0.600
5.120E-06,0.580
5.130E-06,0.560
5.140E-06,0.580
5.150E-06,0.620
5.160E-06,0.640
5.170E-06,0.640
5.180E-06,0.640
5.190E-06,0.660
5.200E-06,0.640
5.210E-06,0.620
5.220E-06,0.580
5.230E-06,0.600
5.240E-06,0.580
5.250E-06,0.540
5.260E-06,0.560
5.270E-06,0.520
5.280E-06,0.520
5.290E-06,0.560
5.300E-06,0.560
5.310E-06,0.540
5.320E-06,0.540
5.330E-06,0.500
5.340E-06,0.520
5.350E-06,0.500
5.360E-06,0.540
5.370E-06,0.600
5.380E-06,0.660
5.390E-06,0.780
5.400E-06,0.820
5.410E-06,0.880
5.420E-06,0.920
5.430E-06,0.980
5.440E-06,1.020
5.450E-06,1.020
5.460E-06,1.060
5.470E-06,1.040
5.480E-06,1.120
5.490E-06,1.200
5.500E-06,1.280
5.510E-06,1.460
5.520E-06,1.780
5.530E-06,2.100
5.540E-06,2.460
5.550E-06,2.760
5.560E-06,2.760
5.570E-06,2.760
5.580E-06,2.780
5.590E-06,2.780
5.600E-06,2.760
5.610E-06,2.760
5.620E-06,2.760
5.630E-06,2.780
5.640E-06,2.780
5.650E-06,2.760
5.660E-06,2.760
5.670E-06,2.780
5.680E-06,2.620
5.690E-06,2.240
5.700E-06,1.880
5.710E-06,1.560
5.720E-06,1.280
5.730E-06,1.020
5.740E-06,0.860
5.750E-06,0.720
5.760E-06,0.600
5.770E-06,0.520
5.780E-06,0.400
5.790E-06,0.360
5.800E-06,0.300
5.810E-06,0.200
5.820E-06,0.180
5.830E-06,0.160
5.840E-06,0.180
5.850E-06,0.200
5.860E-06,0.240
5.870E-06,0.300
5.880E-06,0.360
5.890E-06,0.400
5.900E-06,0.480
5.910E-06,0.500
5.920E-06,0.460
5.930E-06,0.460
5.940E-06,0.480
5.950E-06,0.480
5.960E-06,0.460
5.970E-06,0.460
5.980E-06,0.440
5.990E-06,0.440
6.000E-06,0.400
6.010E-06,0.400
6.020E-06,0.360
6.030E-06,0.400
6.040E-06,0.420
6.050E-06,0.420
6.060E-06,0.400
6.070E-06,0.420
6.080E-06,0.440
6.090E-06,0.440
6.100E-06,0.480
6.110E-06,0.480
6.120E-06,0.520
6.130E-06,0.500
6.140E-06,0.500
6.150E-06,0.520
6.160E-06,0.460
6.170E-06,0.420
6.180E-06,0.420
6.190E-06,0.420
6.200E-06,0.440
6.210E-06,0.380
6.220E-06,0.400
6.230E-06,0.400
6.240E-06,0.400
6.250E-06,0.400
6.260E-06,0.420
6.270E-06,0.460
6.280E-06,0.420
6.290E-06,0.400
6.300E-06,0.400
6.310E-06,0.420
6.320E-06,0.440
6.330E-06,0.400
6.340E-06,0.380
6.350E-06,0.420
6.360E-06,0.400
6.370E-06,0.400
6.380E-06,0.400
6.390E-06,0.420
6.400E-06,0.440
6.410E-06,0.440
6.420E-06,0.480
6.430E-06,0.520
6.440E-06,0.500
6.450E-06,0.560
6.460E-06,0.600
6.470E-06,0.660
6.480E-06,0.660
6.490E-06,0.680
6.500E-06,0.680
6.510E-06,0.680
6.520E-06,0.660
6.530E-06,0.640
6.540E-06,0.620
6.550E-06,0.620
6.560E-06,0.580
6.570E-06,0.520
6.580E-06,0.500
6.590E-06,0.420
6.600E-06,0.420
6.610E-06,0.380
6.620E-06,0.360
6.630E-06,0.400
6.640E-06,0.360
6.650E-06,0.340
6.660E-06,0.360
6.670E-06,0.380
6.680E-06,0.420
6.690E-06,0.440
6.700E-06,0.480
6.710E-06,0.480
6.720E-06,0.480
6.730E-06,0.460
6.740E-06,0.420
6.750E-06,0.420
6.760E-06,0.380
6.770E-06,0.400
6.780E-06,0.360
6.790E-06,0.360
6.800E-06,0.360
6.810E-06,0.400
6.820E-06,0.400
6.830E-06,0.460
6.840E-06,0.480
6.850E-06,0.500
6.860E-06,0.540
6.870E-06,0.600
6.880E-06,0.660
6.890E-06,0.720
6.900E-06,0.780
6.910E-06,0.860
6.920E-06,0.840
6.930E-06,0.880
6.940E-06,0.900
6.950E-06,0.920
6.960E-06,0.900
6.970E-06,0.940
6.980E-06,0.920
6.990E-06,0.960
7.000E-06,0.980
7.010E-06,0.980
7.020E-06,1.020
7.030E-06,1.020
7.040E-06,1.040
7.050E-06,1.040
7.060E-06,1.020
7.070E-06,1.040
7.080E-06,1.000
7.090E-06,1.020
7.100E-06,1.040
7.110E-06,1.060
7.120E-06,1.080
7.130E-06,1.080
7.140E-06,1.080
7.150E-06,1.120
7.160E-06,1.120
7.170E-06,1.120
7.180E-06,1.080
7.190E-06,1.120
7.200E-06,1.100
7.210E-06,1.040
7.220E-06,1.020
7.230E-06,1.000
7.240E-06,0.940
7.250E-06,0.940
7.260E-06,0.940
7.270E-06,0.920
7.280E-06,0.920
7.290E-06,0.960
7.300E-06,0.940
7.310E-06,0.960
7.320E-06,1.000
7.330E-06,1.000
7.340E-06,1.000
7.350E-06,1.020
7.360E-06,1.000
7.370E-06,1.020
7.380E-06,1.020
7.390E-06,1.040
7.400E-06,1.040
7.410E-06,1.040
7.420E-06,1.040
7.430E-06,1.000
7.440E-06,1.020
7.450E-06,0.980
7.460E-06,0.980
7.470E-06,0.980
7.480E-06,0.980
7.490E-06,0.940
7.500E-06,0.940
7.510E-06,0.900
7.520E-06,0.940
7.530E-06,0.920
7.540E-06,0.940
7.550E-06,0.980
7.560E-06,1.000
7.570E-06,1.020
7.580E-06,1.000
7.590E-06,1.040
7.600E-06,1.080
7.610E-06,1.060
7.620E-06,1.100
7.630E-06,1.080
7.640E-06,1.140
7.650E-06,1.160
7.660E-06,1.200
7.670E-06,1.220
7.680E-06,1.220
7.690E-06,1.260
7.700E-06,1.260
7.710E-06,1.280
7.720E-06,1.280
7.730E-06,1.280
7.740E-06,1.360
7.750E-06,1.340
7.760E-06,1.340
7.770E-06,1.320
7.780E-06,1.340
