mediciones/6-26/28.6/WaveData59215.csv

#timebase=2000000(ps)
,#voltbase=200000(mv/100)
#size=4000
-8.150E-06,-0.008
-8.140E-06,0.000
-8.130E-06,-0.008
-8.120E-06,0.008
-8.110E-06,0.000
-8.100E-06,0.000
-8.090E-06,0.008
-8.080E-06,-0.008
-8.070E-06,0.000
-8.060E-06,0.008
-8.050E-06,0.000
-8.040E-06,0.008
-8.030E-06,0.008
-8.020E-06,0.008
-8.010E-06,0.000
-8.000E-06,0.008
-7.990E-06,0.000
-7.980E-06,0.000
-7.970E-06,0.000
-7.960E-06,0.000
-7.950E-06,0.008
-7.940E-06,-0.008
-7.930E-06,0.008
-7.920E-06,0.000
-7.910E-06,0.000
-7.900E-06,0.008
-7.890E-06,-0.008
-7.880E-06,0.000
-7.870E-06,0.008
-7.860E-06,0.000
-7.850E-06,0.000
-7.840E-06,0.000
-7.830E-06,0.008
-7.820E-06,0.016
-7.810E-06,-0.008
-7.800E-06,0.000
-7.790E-06,0.000
-7.780E-06,0.000
-7.770E-06,0.000
-7.760E-06,0.000
-7.750E-06,0.008
-7.740E-06,0.008
-7.730E-06,-0.008
-7.720E-06,0.000
-7.710E-06,0.008
-7.700E-06,0.000
-7.690E-06,0.000
-7.680E-06,0.000
-7.670E-06,0.008
-7.660E-06,-0.008
-7.650E-06,0.000
-7.640E-06,0.000
-7.630E-06,0.000
-7.620E-06,-0.008
-7.610E-06,0.008
-7.600E-06,0.000
-7.590E-06,0.000
-7.580E-06,0.000
-7.570E-06,-0.008
-7.560E-06,0.000
-7.550E-06,0.008
-7.540E-06,0.000
-7.530E-06,0.000
-7.520E-06,0.000
-7.510E-06,0.000
-7.500E-06,0.000
-7.490E-06,0.000
-7.480E-06,0.000
-7.470E-06,-0.008
-7.460E-06,0.000
-7.450E-06,-0.008
-7.440E-06,0.008
-7.430E-06,0.000
-7.420E-06,-0.008
-7.410E-06,0.000
-7.400E-06,0.008
-7.390E-06,0.008
-7.380E-06,0.008
-7.370E-06,0.008
-7.360E-06,-0.008
-7.350E-06,-0.008
-7.340E-06,0.008
-7.330E-06,-0.008
-7.320E-06,0.000
-7.310E-06,-0.008
-7.300E-06,0.008
-7.290E-06,0.000
-7.280E-06,0.000
-7.270E-06,-0.008
-7.260E-06,0.000
-7.250E-06,-0.008
-7.240E-06,0.000
-7.230E-06,0.000
-7.220E-06,0.000
-7.210E-06,0.000
-7.200E-06,0.008
-7.190E-06,0.008
-7.180E-06,-0.008
-7.170E-06,-0.008
-7.160E-06,0.000
-7.150E-06,0.008
-7.140E-06,-0.008
-7.130E-06,0.000
-7.120E-06,0.000
-7.110E-06,0.000
-7.100E-06,0.016
-7.090E-06,0.008
-7.080E-06,0.008
-7.070E-06,-0.008
-7.060E-06,0.000
-7.050E-06,0.000
-7.040E-06,0.000
-7.030E-06,0.008
-7.020E-06,-0.008
-7.010E-06,-0.008
-7.000E-06,0.000
-6.990E-06,-0.008
-6.980E-06,0.008
-6.970E-06,0.008
-6.960E-06,0.008
-6.950E-06,0.008
-6.940E-06,0.008
-6.930E-06,-0.008
-6.920E-06,-0.008
-6.910E-06,0.000
-6.900E-06,-0.008
-6.890E-06,0.008
-6.880E-06,-0.008
-6.870E-06,0.000
-6.860E-06,-0.008
-6.850E-06,0.000
-6.840E-06,0.000
-6.830E-06,0.000
-6.820E-06,-0.008
-6.810E-06,0.008
-6.800E-06,0.000
-6.790E-06,0.000
-6.780E-06,0.008
-6.770E-06,0.000
-6.760E-06,0.008
-6.750E-06,0.000
-6.740E-06,0.008
-6.730E-06,-0.008
-6.720E-06,-0.008
-6.710E-06,0.000
-6.700E-06,0.008
-6.690E-06,0.016
-6.680E-06,0.016
-6.670E-06,0.000
-6.660E-06,0.000
-6.650E-06,0.000
-6.640E-06,0.000
-6.630E-06,0.000
-6.620E-06,0.000
-6.610E-06,-0.008
-6.600E-06,0.000
-6.590E-06,0.008
-6.580E-06,-0.008
-6.570E-06,-0.008
-6.560E-06,0.000
-6.550E-06,0.008
-6.540E-06,-0.008
-6.530E-06,0.000
-6.520E-06,0.000
-6.510E-06,0.000
-6.500E-06,0.000
-6.490E-06,-0.008
-6.480E-06,-0.008
-6.470E-06,0.000
-6.460E-06,0.008
-6.450E-06,0.008
-6.440E-06,0.008
-6.430E-06,0.008
-6.420E-06,-0.008
-6.410E-06,0.000
-6.400E-06,0.000
-6.390E-06,0.000
-6.380E-06,0.000
-6.370E-06,0.000
-6.360E-06,-0.008
-6.350E-06,-0.008
-6.340E-06,0.008
-6.330E-06,-0.008
-6.320E-06,0.000
-6.310E-06,-0.008
-6.300E-06,0.000
-6.290E-06,-0.008
-6.280E-06,-0.008
-6.270E-06,0.000
-6.260E-06,0.000
-6.250E-06,0.000
-6.240E-06,0.008
-6.230E-06,0.016
-6.220E-06,0.008
-6.210E-06,-0.008
-6.200E-06,0.000
-6.190E-06,0.000
-6.180E-06,0.008
-6.170E-06,-0.008
-6.160E-06,-0.008
-6.150E-06,0.000
-6.140E-06,0.008
-6.130E-06,-0.008
-6.120E-06,0.000
-6.110E-06,0.008
-6.100E-06,0.000
-6.090E-06,0.016
-6.080E-06,0.008
-6.070E-06,-0.008
-6.060E-06,0.000
-6.050E-06,0.000
-6.040E-06,0.000
-6.030E-06,-0.008
-6.020E-06,0.000
-6.010E-06,-0.008
-6.000E-06,-0.008
-5.990E-06,0.008
-5.980E-06,-0.008
-5.970E-06,0.000
-5.960E-06,-0.008
-5.950E-06,-0.008
-5.940E-06,0.000
-5.930E-06,0.008
-5.920E-06,0.008
-5.910E-06,-0.008
-5.900E-06,-0.008
-5.890E-06,0.000
-5.880E-06,-0.008
-5.870E-06,0.000
-5.860E-06,0.008
-5.850E-06,0.008
-5.840E-06,-0.008
-5.830E-06,0.000
-5.820E-06,0.000
-5.810E-06,0.000
-5.800E-06,0.008
-5.790E-06,0.000
-5.780E-06,0.008
-5.770E-06,0.008
-5.760E-06,0.000
-5.750E-06,0.000
-5.740E-06,0.008
-5.730E-06,0.008
-5.720E-06,0.000
-5.710E-06,0.000
-5.700E-06,0.016
-5.690E-06,-0.008
-5.680E-06,-0.008
-5.670E-06,0.008
-5.660E-06,0.008
-5.650E-06,0.000
-5.640E-06,0.008
-5.630E-06,0.000
-5.620E-06,-0.008
-5.610E-06,0.000
-5.600E-06,0.000
-5.590E-06,0.000
-5.580E-06,0.000
-5.570E-06,0.000
-5.560E-06,0.000
-5.550E-06,0.008
-5.540E-06,0.008
-5.530E-06,0.000
-5.520E-06,-0.008
-5.510E-06,-0.008
-5.500E-06,0.000
-5.490E-06,-0.008
-5.480E-06,0.000
-5.470E-06,0.000
-5.460E-06,0.000
-5.450E-06,0.000
-5.440E-06,0.000
-5.430E-06,0.000
-5.420E-06,0.000
-5.410E-06,0.000
-5.400E-06,-0.008
-5.390E-06,0.000
-5.380E-06,0.000
-5.370E-06,0.000
-5.360E-06,0.000
-5.350E-06,0.008
-5.340E-06,0.008
-5.330E-06,0.008
-5.320E-06,-0.008
-5.310E-06,0.000
-5.300E-06,0.000
-5.290E-06,0.000
-5.280E-06,0.000
-5.270E-06,0.000
-5.260E-06,0.000
-5.250E-06,0.016
-5.240E-06,0.008
-5.230E-06,0.008
-5.220E-06,0.008
-5.210E-06,0.008
-5.200E-06,0.008
-5.190E-06,0.008
-5.180E-06,0.008
-5.170E-06,-0.008
-5.160E-06,0.000
-5.150E-06,0.000
-5.140E-06,0.000
-5.130E-06,0.008
-5.120E-06,0.008
-5.110E-06,-0.008
-5.100E-06,0.000
-5.090E-06,0.000
-5.080E-06,0.000
-5.070E-06,0.000
-5.060E-06,0.000
-5.050E-06,0.000
-5.040E-06,0.008
-5.030E-06,-0.008
-5.020E-06,-0.008
-5.010E-06,0.000
-5.000E-06,-0.008
-4.990E-06,-0.008
-4.980E-06,0.000
-4.970E-06,-0.008
-4.960E-06,0.000
-4.950E-06,0.008
-4.940E-06,0.008
-4.930E-06,-0.008
-4.920E-06,0.000
-4.910E-06,0.000
-4.900E-06,0.000
-4.890E-06,-0.008
-4.880E-06,0.000
-4.870E-06,0.000
-4.860E-06,0.000
-4.850E-06,0.008
-4.840E-06,0.000
-4.830E-06,0.064
-4.820E-06,0.056
-4.810E-06,0.024
-4.800E-06,0.000
-4.790E-06,-0.048
-4.780E-06,0.000
-4.770E-06,0.080
-4.760E-06,0.128
-4.750E-06,0.112
-4.740E-06,0.040
-4.730E-06,-0.040
-4.720E-06,-0.064
-4.710E-06,0.032
-4.700E-06,0.120
-4.690E-06,0.136
-4.680E-06,0.136
-4.670E-06,0.016
-4.660E-06,-0.032
-4.650E-06,-0.048
-4.640E-06,0.008
-4.630E-06,0.064
-4.620E-06,0.096
-4.610E-06,0.040
-4.600E-06,0.000
-4.590E-06,-0.024
-4.580E-06,-0.056
-4.570E-06,-0.016
-4.560E-06,0.016
-4.550E-06,0.032
-4.540E-06,0.024
-4.530E-06,0.000
-4.520E-06,-0.016
-4.510E-06,-0.032
-4.500E-06,-0.008
-4.490E-06,0.000
-4.480E-06,0.000
-4.470E-06,0.016
-4.460E-06,0.000
-4.450E-06,0.000
-4.440E-06,-0.008
-4.430E-06,-0.016
-4.420E-06,0.008
-4.410E-06,0.008
-4.400E-06,-0.008
-4.390E-06,0.000
-4.380E-06,0.000
-4.370E-06,-0.016
-4.360E-06,0.000
-4.350E-06,-0.024
-4.340E-06,0.000
-4.330E-06,0.000
-4.320E-06,0.000
-4.310E-06,0.024
-4.300E-06,0.016
-4.290E-06,0.024
-4.280E-06,0.008
-4.270E-06,0.000
-4.260E-06,0.016
-4.250E-06,0.016
-4.240E-06,0.016
-4.230E-06,0.032
-4.220E-06,0.048
-4.210E-06,0.016
-4.200E-06,0.008
-4.190E-06,0.008
-4.180E-06,0.008
-4.170E-06,0.016
-4.160E-06,0.024
-4.150E-06,0.032
-4.140E-06,0.024
-4.130E-06,0.000
-4.120E-06,0.000
-4.110E-06,-0.008
-4.100E-06,0.000
-4.090E-06,0.008
-4.080E-06,0.008
-4.070E-06,0.008
-4.060E-06,-0.008
-4.050E-06,-0.024
-4.040E-06,0.000
-4.030E-06,-0.008
-4.020E-06,0.008
-4.010E-06,0.016
-4.000E-06,0.000
-3.990E-06,0.000
-3.980E-06,0.000
-3.970E-06,0.000
-3.960E-06,0.008
-3.950E-06,0.000
-3.940E-06,0.016
-3.930E-06,0.016
-3.920E-06,0.008
-3.910E-06,0.008
-3.900E-06,0.016
-3.890E-06,0.016
-3.880E-06,0.008
-3.870E-06,0.008
-3.860E-06,0.008
-3.850E-06,0.000
-3.840E-06,0.016
-3.830E-06,0.016
-3.820E-06,0.016
-3.810E-06,0.008
-3.800E-06,0.000
-3.790E-06,0.008
-3.780E-06,0.016
-3.770E-06,0.008
-3.760E-06,0.024
-3.750E-06,-0.008
-3.740E-06,0.000
-3.730E-06,0.000
-3.720E-06,0.000
-3.710E-06,0.008
-3.700E-06,0.000
-3.690E-06,0.000
-3.680E-06,0.008
-3.670E-06,-0.008
-3.660E-06,0.000
-3.650E-06,-0.008
-3.640E-06,0.000
-3.630E-06,0.008
-3.620E-06,0.016
-3.610E-06,0.000
-3.600E-06,-0.008
-3.590E-06,0.000
-3.580E-06,-0.008
-3.570E-06,0.000
-3.560E-06,-0.008
-3.550E-06,0.008
-3.540E-06,0.008
-3.530E-06,-0.008
-3.520E-06,0.000
-3.510E-06,0.000
-3.500E-06,0.008
-3.490E-06,0.016
-3.480E-06,0.000
-3.470E-06,0.000
-3.460E-06,0.000
-3.450E-06,0.000
-3.440E-06,0.008
-3.430E-06,0.016
-3.420E-06,0.008
-3.410E-06,0.016
-3.400E-06,0.000
-3.390E-06,0.008
-3.380E-06,0.000
-3.370E-06,0.008
-3.360E-06,0.008
-3.350E-06,0.016
-3.340E-06,0.008
-3.330E-06,0.000
-3.320E-06,0.000
-3.310E-06,-0.008
-3.300E-06,0.000
-3.290E-06,0.000
-3.280E-06,0.008
-3.270E-06,0.000
-3.260E-06,0.000
-3.250E-06,-0.008
-3.240E-06,0.000
-3.230E-06,0.000
-3.220E-06,0.000
-3.210E-06,-0.008
-3.200E-06,-0.008
-3.190E-06,0.000
-3.180E-06,0.000
-3.170E-06,0.000
-3.160E-06,0.008
-3.150E-06,0.016
-3.140E-06,0.016
-3.130E-06,-0.008
-3.120E-06,-0.008
-3.110E-06,0.000
-3.100E-06,0.016
-3.090E-06,0.008
-3.080E-06,0.016
-3.070E-06,0.016
-3.060E-06,0.016
-3.050E-06,0.000
-3.040E-06,0.008
-3.030E-06,0.008
-3.020E-06,0.008
-3.010E-06,0.000
-3.000E-06,0.000
-2.990E-06,0.008
-2.980E-06,0.000
-2.970E-06,-0.008
-2.960E-06,0.000
-2.950E-06,0.000
-2.940E-06,0.008
-2.930E-06,0.008
-2.920E-06,0.016
-2.910E-06,0.000
-2.900E-06,0.000
-2.890E-06,0.000
-2.880E-06,0.000
-2.870E-06,0.008
-2.860E-06,0.008
-2.850E-06,0.000
-2.840E-06,0.000
-2.830E-06,-0.008
-2.820E-06,0.000
-2.810E-06,0.016
-2.800E-06,0.000
-2.790E-06,0.008
-2.780E-06,0.000
-2.770E-06,0.000
-2.760E-06,-0.008
-2.750E-06,0.000
-2.740E-06,0.008
-2.730E-06,0.016
-2.720E-06,0.000
-2.710E-06,0.000
-2.700E-06,0.000
-2.690E-06,0.000
-2.680E-06,0.008
-2.670E-06,0.000
-2.660E-06,0.016
-2.650E-06,0.008
-2.640E-06,0.000
-2.630E-06,0.008
-2.620E-06,-0.008
-2.610E-06,0.008
-2.600E-06,0.000
-2.590E-06,0.008
-2.580E-06,0.008
-2.570E-06,0.016
-2.560E-06,0.008
-2.550E-06,0.000
-2.540E-06,0.008
-2.530E-06,0.008
-2.520E-06,0.000
-2.510E-06,0.000
-2.500E-06,0.008
-2.490E-06,0.000
-2.480E-06,0.000
-2.470E-06,0.008
-2.460E-06,-0.008
-2.450E-06,-0.008
-2.440E-06,0.008
-2.430E-06,0.000
-2.420E-06,0.008
-2.410E-06,0.000
-2.400E-06,0.000
-2.390E-06,-0.008
-2.380E-06,-0.008
-2.370E-06,0.008
-2.360E-06,-0.008
-2.350E-06,-0.008
-2.340E-06,-0.008
-2.330E-06,0.000
-2.320E-06,0.000
-2.310E-06,0.008
-2.300E-06,0.016
-2.290E-06,0.016
-2.280E-06,0.000
-2.270E-06,0.000
-2.260E-06,-0.008
-2.250E-06,0.000
-2.240E-06,0.008
-2.230E-06,0.008
-2.220E-06,0.016
-2.210E-06,0.016
-2.200E-06,0.008
-2.190E-06,-0.008
-2.180E-06,-0.008
-2.170E-06,0.000
-2.160E-06,0.008
-2.150E-06,0.016
-2.140E-06,0.008
-2.130E-06,0.024
-2.120E-06,0.008
-2.110E-06,0.008
-2.100E-06,0.016
-2.090E-06,0.024
-2.080E-06,0.016
-2.070E-06,0.016
-2.060E-06,-0.016
-2.050E-06,-0.008
-2.040E-06,0.008
-2.030E-06,0.024
-2.020E-06,0.024
-2.010E-06,0.008
-2.000E-06,0.008
-1.990E-06,0.000
-1.980E-06,0.000
-1.970E-06,0.032
-1.960E-06,0.024
-1.950E-06,0.000
-1.940E-06,0.000
-1.930E-06,-0.024
-1.920E-06,-0.008
-1.910E-06,0.000
-1.900E-06,0.024
-1.890E-06,0.016
-1.880E-06,0.016
-1.870E-06,0.024
-1.860E-06,0.024
-1.850E-06,0.040
-1.840E-06,0.040
-1.830E-06,0.024
-1.820E-06,-0.008
-1.810E-06,-0.008
-1.800E-06,0.080
-1.790E-06,0.184
-1.780E-06,0.368
-1.770E-06,0.416
-1.760E-06,0.200
-1.750E-06,0.064
-1.740E-06,-0.040
-1.730E-06,0.096
-1.720E-06,0.248
-1.710E-06,0.616
-1.700E-06,0.504
-1.690E-06,0.416
-1.680E-06,0.184
-1.670E-06,0.048
-1.660E-06,0.136
-1.650E-06,0.280
-1.640E-06,0.304
-1.630E-06,0.392
-1.620E-06,0.272
-1.610E-06,0.088
-1.600E-06,0.008
-1.590E-06,0.000
-1.580E-06,-0.008
-1.570E-06,0.096
-1.560E-06,0.104
-1.550E-06,0.088
-1.540E-06,0.056
-1.530E-06,-0.072
-1.520E-06,-0.112
-1.510E-06,-0.080
-1.500E-06,-0.024
-1.490E-06,0.016
-1.480E-06,0.040
-1.470E-06,0.000
-1.460E-06,-0.080
-1.450E-06,-0.120
-1.440E-06,-0.112
-1.430E-06,-0.088
-1.420E-06,-0.048
-1.410E-06,-0.040
-1.400E-06,-0.040
-1.390E-06,-0.088
-1.380E-06,-0.080
-1.370E-06,-0.104
-1.360E-06,-0.120
-1.350E-06,-0.104
-1.340E-06,-0.104
-1.330E-06,-0.040
-1.320E-06,0.088
-1.310E-06,0.120
-1.300E-06,0.200
-1.290E-06,0.152
-1.280E-06,0.040
-1.270E-06,0.112
-1.260E-06,0.080
-1.250E-06,0.168
-1.240E-06,0.072
-1.230E-06,0.176
-1.220E-06,0.120
-1.210E-06,0.320
-1.200E-06,0.728
-1.190E-06,0.456
-1.180E-06,0.216
-1.170E-06,-0.032
-1.160E-06,-0.112
-1.150E-06,0.152
-1.140E-06,0.464
-1.130E-06,0.448
-1.120E-06,0.336
-1.110E-06,0.024
-1.100E-06,-0.200
-1.090E-06,-0.120
-1.080E-06,-0.024
-1.070E-06,0.160
-1.060E-06,0.192
-1.050E-06,0.136
-1.040E-06,-0.008
-1.030E-06,-0.072
-1.020E-06,-0.096
-1.010E-06,0.000
-1.000E-06,0.064
-9.900E-07,0.096
-9.800E-07,0.064
-9.700E-07,0.048
-9.600E-07,0.000
-9.500E-07,0.000
-9.400E-07,-0.008
-9.300E-07,0.040
-9.200E-07,0.056
-9.100E-07,0.120
-9.000E-07,0.112
-8.900E-07,0.120
-8.800E-07,0.048
-8.700E-07,-0.024
-8.600E-07,-0.024
-8.500E-07,-0.008
-8.400E-07,0.056
-8.300E-07,0.112
-8.200E-07,0.096
-8.100E-07,0.064
-8.000E-07,0.056
-7.900E-07,0.064
-7.800E-07,0.064
-7.700E-07,0.072
-7.600E-07,0.048
-7.500E-07,-0.008
-7.400E-07,0.032
-7.300E-07,0.064
-7.200E-07,0.112
-7.100E-07,0.104
-7.000E-07,0.304
-6.900E-07,0.064
-6.800E-07,-0.224
-6.700E-07,-0.184
-6.600E-07,-0.288
-6.500E-07,0.072
-6.400E-07,0.696
-6.300E-07,0.664
-6.200E-07,0.368
-6.100E-07,-0.080
-6.000E-07,-0.584
-5.900E-07,-0.264
-5.800E-07,0.104
-5.700E-07,0.504
-5.600E-07,0.720
-5.500E-07,0.408
-5.400E-07,-0.040
-5.300E-07,-0.144
-5.200E-07,-0.288
-5.100E-07,0.024
-5.000E-07,0.328
-4.900E-07,0.456
-4.800E-07,0.384
-4.700E-07,0.264
-4.600E-07,0.088
-4.500E-07,0.136
-4.400E-07,0.224
-4.300E-07,0.392
-4.200E-07,0.448
-4.100E-07,0.456
-4.000E-07,0.392
-3.900E-07,0.304
-3.800E-07,0.240
-3.700E-07,0.216
-3.600E-07,0.208
-3.500E-07,0.240
-3.400E-07,0.232
-3.300E-07,0.200
-3.200E-07,0.152
-3.100E-07,0.056
-3.000E-07,-0.008
-2.900E-07,-0.096
-2.800E-07,-0.136
-2.700E-07,-0.152
-2.600E-07,-0.168
-2.500E-07,-0.168
-2.400E-07,-0.152
-2.300E-07,-0.168
-2.200E-07,-0.192
-2.100E-07,-0.208
-2.000E-07,-0.224
-1.900E-07,-0.216
-1.800E-07,-0.168
-1.700E-07,-0.112
-1.600E-07,-0.072
-1.500E-07,-0.088
-1.400E-07,-0.112
-1.300E-07,-0.120
-1.200E-07,-0.120
-1.100E-07,-0.112
-1.000E-07,-0.072
-9.000E-08,-0.032
-8.000E-08,-0.008
-7.000E-08,-0.168
-6.000E-08,-0.272
-5.000E-08,-0.160
-4.000E-08,-0.472
-3.000E-08,0.376
-2.000E-08,0.488
-1.000E-08,-0.920
0.000E+00,-1.040
1.000E-08,0.456
2.000E-08,0.872
3.000E-08,1.080
4.000E-08,1.080
5.000E-08,1.080
6.000E-08,0.920
7.000E-08,-0.440
8.000E-08,-0.112
9.000E-08,1.088
1.000E-07,0.768
1.100E-07,1.080
1.200E-07,0.800
1.300E-07,-0.152
1.400E-07,-0.624
1.500E-07,-0.592
1.600E-07,-0.432
1.700E-07,0.368
1.800E-07,0.336
1.900E-07,0.208
2.000E-07,-0.072
2.100E-07,-0.264
2.200E-07,-0.368
2.300E-07,-0.320
2.400E-07,-0.184
2.500E-07,-0.136
2.600E-07,-0.192
2.700E-07,-0.200
2.800E-07,-0.496
2.900E-07,-0.552
3.000E-07,-0.664
3.100E-07,-0.608
3.200E-07,-0.472
3.300E-07,-0.488
3.400E-07,-0.328
3.500E-07,-0.352
3.600E-07,-0.496
3.700E-07,-0.768
3.800E-07,-1.040
3.900E-07,-1.048
4.000E-07,-0.696
4.100E-07,-0.400
4.200E-07,-0.792
4.300E-07,-0.760
4.400E-07,0.104
4.500E-07,0.360
4.600E-07,1.080
4.700E-07,1.080
4.800E-07,1.088
4.900E-07,1.080
5.000E-07,-0.680
5.100E-07,0.144
5.200E-07,1.080
5.300E-07,1.080
5.400E-07,1.080
5.500E-07,1.080
5.600E-07,1.088
5.700E-07,0.896
5.800E-07,0.112
5.900E-07,0.384
6.000E-07,0.728
6.100E-07,1.032
6.200E-07,0.904
6.300E-07,0.592
6.400E-07,0.192
6.500E-07,-0.120
6.600E-07,-0.120
6.700E-07,-0.128
6.800E-07,-0.056
6.900E-07,-0.184
7.000E-07,-0.240
7.100E-07,-0.400
7.200E-07,-0.496
7.300E-07,-0.648
7.400E-07,-0.632
7.500E-07,-0.576
7.600E-07,-0.432
7.700E-07,-0.376
7.800E-07,-0.360
7.900E-07,-0.440
8.000E-07,-0.504
8.100E-07,-0.536
8.200E-07,-0.288
8.300E-07,-0.216
8.400E-07,-0.152
8.500E-07,0.000
8.600E-07,-0.200
8.700E-07,-0.288
8.800E-07,-0.344
8.900E-07,-0.488
9.000E-07,-0.520
9.100E-07,-0.520
9.200E-07,-0.608
9.300E-07,-0.280
9.400E-07,-0.200
9.500E-07,-0.064
9.600E-07,0.064
9.700E-07,-0.024
9.800E-07,0.200
9.900E-07,0.848
1.000E-06,1.080
1.010E-06,1.072
1.020E-06,1.080
1.030E-06,1.080
1.040E-06,1.080
1.050E-06,1.080
1.060E-06,1.080
1.070E-06,1.080
1.080E-06,1.072
1.090E-06,1.080
1.100E-06,0.752
1.110E-06,0.400
1.120E-06,0.096
1.130E-06,-0.456
1.140E-06,-0.568
1.150E-06,-0.680
1.160E-06,-0.696
1.170E-06,-0.688
1.180E-06,-0.680
1.190E-06,-0.704
1.200E-06,-0.688
1.210E-06,-0.720
1.220E-06,-0.696
1.230E-06,-0.688
1.240E-06,-0.664
1.250E-06,-0.672
1.260E-06,-0.688
1.270E-06,-0.688
1.280E-06,-0.704
1.290E-06,-0.648
1.300E-06,-0.600
1.310E-06,-0.520
1.320E-06,-0.464
1.330E-06,-0.440
1.340E-06,-0.408
1.350E-06,-0.416
1.360E-06,-0.360
1.370E-06,-0.328
1.380E-06,-0.296
1.390E-06,-0.304
1.400E-06,-0.280
1.410E-06,-0.272
1.420E-06,-0.192
1.430E-06,-0.144
1.440E-06,-0.064
1.450E-06,-0.056
1.460E-06,-0.064
1.470E-06,-0.072
1.480E-06,-0.104
1.490E-06,-0.056
1.500E-06,-0.072
1.510E-06,-0.040
1.520E-06,-0.096
1.530E-06,-0.104
1.540E-06,-0.064
1.550E-06,0.000
1.560E-06,0.144
1.570E-06,0.288
1.580E-06,0.248
1.590E-06,0.048
1.600E-06,-0.256
1.610E-06,-0.672
1.620E-06,-0.632
1.630E-06,-0.376
1.640E-06,0.288
1.650E-06,1.088
1.660E-06,1.080
1.670E-06,1.080
1.680E-06,1.080
1.690E-06,1.072
1.700E-06,1.080
1.710E-06,1.080
1.720E-06,1.088
1.730E-06,1.032
1.740E-06,0.856
1.750E-06,0.832
1.760E-06,0.600
1.770E-06,0.232
1.780E-06,-0.200
1.790E-06,-0.712
1.800E-06,-1.032
1.810E-06,-1.040
1.820E-06,-1.040
1.830E-06,-1.040
1.840E-06,-1.048
1.850E-06,-1.040
1.860E-06,-1.048
1.870E-06,-1.048
1.880E-06,-1.032
1.890E-06,-1.032
1.900E-06,-1.040
1.910E-06,0.920
1.920E-06,1.088
1.930E-06,1.088
1.940E-06,1.080
1.950E-06,1.080
1.960E-06,1.072
1.970E-06,1.080
1.980E-06,1.088
1.990E-06,1.088
2.000E-06,1.080
2.010E-06,1.080
2.020E-06,1.080
2.030E-06,1.088
2.040E-06,0.816
2.050E-06,0.400
2.060E-06,-0.072
2.070E-06,-0.616
2.080E-06,-1.040
2.090E-06,-1.032
2.100E-06,-1.032
2.110E-06,-1.040
2.120E-06,-1.032
2.130E-06,-1.040
2.140E-06,-1.040
2.150E-06,-1.040
2.160E-06,-1.040
2.170E-06,-0.560
2.180E-06,0.688
2.190E-06,1.080
2.200E-06,1.080
2.210E-06,1.072
2.220E-06,0.640
2.230E-06,0.240
2.240E-06,-0.256
2.250E-06,-0.568
2.260E-06,-0.984
2.270E-06,-1.040
2.280E-06,-1.040
2.290E-06,-1.040
2.300E-06,-1.040
2.310E-06,-1.040
2.320E-06,-1.048
2.330E-06,-1.040
2.340E-06,-1.040
2.350E-06,-1.040
2.360E-06,-1.040
2.370E-06,-1.048
2.380E-06,-0.952
2.390E-06,-0.696
2.400E-06,-0.368
2.410E-06,-0.224
2.420E-06,-0.160
2.430E-06,-0.184
2.440E-06,-0.288
2.450E-06,-0.768
2.460E-06,-1.040
2.470E-06,-1.032
2.480E-06,-1.040
2.490E-06,-1.040
2.500E-06,-1.048
2.510E-06,-1.040
2.520E-06,0.072
2.530E-06,1.080
2.540E-06,1.072
2.550E-06,1.080
2.560E-06,1.088
2.570E-06,1.080
2.580E-06,1.080
2.590E-06,1.080
2.600E-06,1.080
2.610E-06,1.072
2.620E-06,1.080
2.630E-06,1.080
2.640E-06,0.224
2.650E-06,-0.688
2.660E-06,-1.040
2.670E-06,-1.040
2.680E-06,-1.048
2.690E-06,-1.040
2.700E-06,-1.032
2.710E-06,-1.040
2.720E-06,-1.040
2.730E-06,-1.048
2.740E-06,-1.040
2.750E-06,-1.040
2.760E-06,-1.048
2.770E-06,-1.040
2.780E-06,-1.048
2.790E-06,-1.048
2.800E-06,-1.032
2.810E-06,-1.032
2.820E-06,-1.040
2.830E-06,-0.896
2.840E-06,-0.200
2.850E-06,0.584
2.860E-06,1.080
2.870E-06,1.072
2.880E-06,1.080
2.890E-06,1.080
2.900E-06,1.080
2.910E-06,1.072
2.920E-06,1.080
2.930E-06,1.080
2.940E-06,1.088
2.950E-06,1.088
2.960E-06,1.080
2.970E-06,1.088
2.980E-06,1.080
2.990E-06,1.008
3.000E-06,0.224
3.010E-06,-0.152
3.020E-06,-0.296
3.030E-06,0.136
3.040E-06,0.168
3.050E-06,0.968
3.060E-06,1.088
3.070E-06,1.080
3.080E-06,1.072
3.090E-06,0.376
3.100E-06,-0.520
3.110E-06,-1.040
3.120E-06,-1.040
3.130E-06,-0.656
3.140E-06,0.464
3.150E-06,1.080
3.160E-06,1.088
3.170E-06,1.088
3.180E-06,1.080
3.190E-06,1.088
3.200E-06,1.080
3.210E-06,1.080
3.220E-06,1.072
3.230E-06,1.080
3.240E-06,1.080
3.250E-06,1.088
3.260E-06,0.336
3.270E-06,-0.568
3.280E-06,-1.040
3.290E-06,-1.032
3.300E-06,-1.040
3.310E-06,-1.008
3.320E-06,-0.400
3.330E-06,0.256
3.340E-06,0.672
3.350E-06,0.792
3.360E-06,0.576
3.370E-06,0.168
3.380E-06,-0.384
3.390E-06,-0.928
3.400E-06,-1.040
3.410E-06,-1.040
3.420E-06,-1.040
3.430E-06,-1.048
3.440E-06,-1.040
3.450E-06,-1.048
3.460E-06,-1.048
3.470E-06,-1.048
3.480E-06,-1.032
3.490E-06,-1.040
3.500E-06,-1.040
3.510E-06,-1.048
3.520E-06,-1.040
3.530E-06,-1.032
