mediciones/6-26/28.6/WaveData59210.csv

#timebase=2000000(ps)
,#voltbase=200000(mv/100)
#size=4000
-8.150E-06,-0.160
-8.140E-06,-0.056
-8.130E-06,-0.032
-8.120E-06,0.032
-8.110E-06,0.080
-8.100E-06,0.096
-8.090E-06,0.080
-8.080E-06,0.000
-8.070E-06,-0.080
-8.060E-06,-0.120
-8.050E-06,-0.048
-8.040E-06,0.056
-8.030E-06,0.080
-8.020E-06,0.056
-8.010E-06,0.024
-8.000E-06,-0.016
-7.990E-06,-0.048
-7.980E-06,-0.040
-7.970E-06,-0.008
-7.960E-06,0.024
-7.950E-06,0.064
-7.940E-06,0.048
-7.930E-06,0.040
-7.920E-06,-0.008
-7.910E-06,-0.024
-7.900E-06,-0.024
-7.890E-06,0.000
-7.880E-06,0.024
-7.870E-06,0.040
-7.860E-06,0.040
-7.850E-06,0.024
-7.840E-06,0.016
-7.830E-06,0.000
-7.820E-06,0.000
-7.810E-06,0.000
-7.800E-06,0.024
-7.790E-06,0.016
-7.780E-06,0.032
-7.770E-06,0.024
-7.760E-06,0.016
-7.750E-06,0.016
-7.740E-06,0.000
-7.730E-06,0.008
-7.720E-06,0.024
-7.710E-06,0.056
-7.700E-06,0.056
-7.690E-06,0.064
-7.680E-06,0.072
-7.670E-06,0.032
-7.660E-06,0.016
-7.650E-06,0.000
-7.640E-06,0.024
-7.630E-06,-0.128
-7.620E-06,-0.368
-7.610E-06,-0.336
-7.600E-06,-0.176
-7.590E-06,0.264
-7.580E-06,0.384
-7.570E-06,0.312
-7.560E-06,0.208
-7.550E-06,-0.136
-7.540E-06,-0.360
-7.530E-06,-0.376
-7.520E-06,-0.160
-7.510E-06,0.160
-7.500E-06,0.360
-7.490E-06,0.336
-7.480E-06,0.128
-7.470E-06,-0.152
-7.460E-06,-0.240
-7.450E-06,-0.200
-7.440E-06,-0.040
-7.430E-06,0.136
-7.420E-06,0.328
-7.410E-06,0.248
-7.400E-06,0.112
-7.390E-06,-0.176
-7.380E-06,-0.496
-7.370E-06,-0.152
-7.360E-06,0.128
-7.350E-06,-0.024
-7.340E-06,0.336
-7.330E-06,0.216
-7.320E-06,0.112
-7.310E-06,-0.112
-7.300E-06,-0.200
-7.290E-06,-0.168
-7.280E-06,-0.072
-7.270E-06,0.216
-7.260E-06,0.168
-7.250E-06,0.072
-7.240E-06,-0.112
-7.230E-06,-0.096
-7.220E-06,-0.112
-7.210E-06,-0.008
-7.200E-06,0.032
-7.190E-06,0.024
-7.180E-06,0.056
-7.170E-06,0.040
-7.160E-06,0.152
-7.150E-06,-0.016
-7.140E-06,-0.216
-7.130E-06,-0.120
-7.120E-06,-0.152
-7.110E-06,0.032
-7.100E-06,0.072
-7.090E-06,0.128
-7.080E-06,0.088
-7.070E-06,0.056
-7.060E-06,-0.024
-7.050E-06,-0.128
-7.040E-06,-0.120
-7.030E-06,-0.016
-7.020E-06,0.016
-7.010E-06,0.112
-7.000E-06,0.128
-6.990E-06,0.056
-6.980E-06,0.024
-6.970E-06,-0.048
-6.960E-06,-0.056
-6.950E-06,-0.072
-6.940E-06,-0.016
-6.930E-06,0.040
-6.920E-06,0.104
-6.910E-06,0.096
-6.900E-06,0.048
-6.890E-06,-0.008
-6.880E-06,-0.040
-6.870E-06,-0.056
-6.860E-06,-0.024
-6.850E-06,0.008
-6.840E-06,0.040
-6.830E-06,0.080
-6.820E-06,0.048
-6.810E-06,0.040
-6.800E-06,-0.016
-6.790E-06,-0.016
-6.780E-06,-0.008
-6.770E-06,0.024
-6.760E-06,0.056
-6.750E-06,0.072
-6.740E-06,0.072
-6.730E-06,0.048
-6.720E-06,0.048
-6.710E-06,0.000
-6.700E-06,0.016
-6.690E-06,0.016
-6.680E-06,0.064
-6.670E-06,-0.008
-6.660E-06,-0.176
-6.650E-06,-0.504
-6.640E-06,-0.280
-6.630E-06,0.200
-6.620E-06,0.200
-6.610E-06,0.384
-6.600E-06,0.192
-6.590E-06,-0.064
-6.580E-06,-0.280
-6.570E-06,-0.288
-6.560E-06,-0.232
-6.550E-06,-0.032
-6.540E-06,0.224
-6.530E-06,0.320
-6.520E-06,0.256
-6.510E-06,0.024
-6.500E-06,-0.184
-6.490E-06,-0.256
-6.480E-06,-0.176
-6.470E-06,-0.024
-6.460E-06,0.136
-6.450E-06,0.200
-6.440E-06,0.184
-6.430E-06,0.072
-6.420E-06,-0.048
-6.410E-06,-0.144
-6.400E-06,-0.120
-6.390E-06,-0.016
-6.380E-06,0.120
-6.370E-06,0.208
-6.360E-06,0.184
-6.350E-06,0.112
-6.340E-06,-0.008
-6.330E-06,-0.152
-6.320E-06,-0.224
-6.310E-06,-0.136
-6.300E-06,0.000
-6.290E-06,0.128
-6.280E-06,0.176
-6.270E-06,0.144
-6.260E-06,0.104
-6.250E-06,0.024
-6.240E-06,-0.048
-6.230E-06,-0.096
-6.220E-06,-0.032
-6.210E-06,0.000
-6.200E-06,-0.048
-6.190E-06,-0.248
-6.180E-06,-0.008
-6.170E-06,-0.056
-6.160E-06,0.168
-6.150E-06,0.080
-6.140E-06,0.064
-6.130E-06,0.080
-6.120E-06,-0.256
-6.110E-06,-0.248
-6.100E-06,-0.144
-6.090E-06,0.064
-6.080E-06,0.224
-6.070E-06,0.152
-6.060E-06,0.128
-6.050E-06,-0.016
-6.040E-06,-0.056
-6.030E-06,-0.096
-6.020E-06,-0.104
-6.010E-06,-0.048
-6.000E-06,0.056
-5.990E-06,0.136
-5.980E-06,0.136
-5.970E-06,0.064
-5.960E-06,-0.040
-5.950E-06,-0.104
-5.940E-06,-0.088
-5.930E-06,-0.016
-5.920E-06,0.056
-5.910E-06,0.096
-5.900E-06,0.104
-5.890E-06,0.064
-5.880E-06,-0.008
-5.870E-06,-0.048
-5.860E-06,-0.064
-5.850E-06,-0.024
-5.840E-06,0.040
-5.830E-06,0.096
-5.820E-06,0.120
-5.810E-06,0.088
-5.800E-06,0.048
-5.790E-06,-0.016
-5.780E-06,-0.032
-5.770E-06,0.000
-5.760E-06,0.040
-5.750E-06,0.096
-5.740E-06,0.128
-5.730E-06,0.088
-5.720E-06,0.056
-5.710E-06,-0.344
-5.700E-06,-0.280
-5.690E-06,-0.184
-5.680E-06,-0.120
-5.670E-06,0.152
-5.660E-06,0.296
-5.650E-06,0.360
-5.640E-06,0.096
-5.630E-06,-0.160
-5.620E-06,-0.352
-5.610E-06,-0.272
-5.600E-06,-0.048
-5.590E-06,0.032
-5.580E-06,0.184
-5.570E-06,0.224
-5.560E-06,0.136
-5.550E-06,0.016
-5.540E-06,-0.168
-5.530E-06,-0.184
-5.520E-06,-0.104
-5.510E-06,0.072
-5.500E-06,0.176
-5.490E-06,0.224
-5.480E-06,0.136
-5.470E-06,-0.008
-5.460E-06,-0.104
-5.450E-06,-0.088
-5.440E-06,-0.128
-5.430E-06,-0.048
-5.420E-06,0.088
-5.410E-06,0.048
-5.400E-06,0.168
-5.390E-06,0.040
-5.380E-06,0.032
-5.370E-06,0.000
-5.360E-06,-0.024
-5.350E-06,-0.048
-5.340E-06,-0.024
-5.330E-06,0.056
-5.320E-06,-0.032
-5.310E-06,-0.056
-5.300E-06,-0.048
-5.290E-06,0.024
-5.280E-06,0.008
-5.270E-06,0.048
-5.260E-06,0.048
-5.250E-06,-0.016
-5.240E-06,0.040
-5.230E-06,0.008
-5.220E-06,-0.080
-5.210E-06,-0.024
-5.200E-06,-0.056
-5.190E-06,-0.016
-5.180E-06,0.008
-5.170E-06,0.072
-5.160E-06,0.128
-5.150E-06,0.048
-5.140E-06,-0.048
-5.130E-06,-0.136
-5.120E-06,-0.016
-5.110E-06,-0.072
-5.100E-06,-0.016
-5.090E-06,0.056
-5.080E-06,0.024
-5.070E-06,0.056
-5.060E-06,-0.008
-5.050E-06,-0.008
-5.040E-06,-0.040
-5.030E-06,0.000
-5.020E-06,0.048
-5.010E-06,0.032
-5.000E-06,0.024
-4.990E-06,0.000
-4.980E-06,0.000
-4.970E-06,0.008
-4.960E-06,0.016
-4.950E-06,0.000
-4.940E-06,0.000
-4.930E-06,0.016
-4.920E-06,0.016
-4.910E-06,0.016
-4.900E-06,0.024
-4.890E-06,0.032
-4.880E-06,0.024
-4.870E-06,0.008
-4.860E-06,0.008
-4.850E-06,0.024
-4.840E-06,0.032
-4.830E-06,0.048
-4.820E-06,0.056
-4.810E-06,0.072
-4.800E-06,0.048
-4.790E-06,0.024
-4.780E-06,0.032
-4.770E-06,-0.024
-4.760E-06,0.024
-4.750E-06,0.016
-4.740E-06,-0.216
-4.730E-06,-0.256
-4.720E-06,-0.136
-4.710E-06,-0.032
-4.700E-06,-0.032
-4.690E-06,0.296
-4.680E-06,0.280
-4.670E-06,0.056
-4.660E-06,-0.016
-4.650E-06,-0.224
-4.640E-06,-0.176
-4.630E-06,-0.040
-4.620E-06,0.064
-4.610E-06,0.088
-4.600E-06,0.136
-4.590E-06,0.104
-4.580E-06,0.024
-4.570E-06,-0.032
-4.560E-06,-0.080
-4.550E-06,-0.080
-4.540E-06,-0.008
-4.530E-06,0.048
-4.520E-06,0.112
-4.510E-06,0.112
-4.500E-06,0.072
-4.490E-06,0.024
-4.480E-06,-0.008
-4.470E-06,0.016
-4.460E-06,0.016
-4.450E-06,0.016
-4.440E-06,0.000
-4.430E-06,0.096
-4.420E-06,-0.040
-4.410E-06,-0.088
-4.400E-06,-0.008
-4.390E-06,0.056
-4.380E-06,0.112
-4.370E-06,0.024
-4.360E-06,-0.024
-4.350E-06,-0.072
-4.340E-06,-0.136
-4.330E-06,-0.016
-4.320E-06,0.032
-4.310E-06,-0.072
-4.300E-06,0.048
-4.290E-06,0.072
-4.280E-06,-0.032
-4.270E-06,-0.048
-4.260E-06,-0.080
-4.250E-06,-0.048
-4.240E-06,0.096
-4.230E-06,0.128
-4.220E-06,0.096
-4.210E-06,0.064
-4.200E-06,-0.072
-4.190E-06,-0.088
-4.180E-06,-0.008
-4.170E-06,-0.016
-4.160E-06,0.024
-4.150E-06,0.000
-4.140E-06,-0.008
-4.130E-06,0.104
-4.120E-06,-0.096
-4.110E-06,-0.016
-4.100E-06,0.000
-4.090E-06,0.048
-4.080E-06,0.056
-4.070E-06,-0.008
-4.060E-06,-0.008
-4.050E-06,-0.032
-4.040E-06,0.048
-4.030E-06,0.064
-4.020E-06,0.000
-4.010E-06,-0.008
-4.000E-06,-0.016
-3.990E-06,0.016
-3.980E-06,0.040
-3.970E-06,0.056
-3.960E-06,0.056
-3.950E-06,0.048
-3.940E-06,0.016
-3.930E-06,-0.008
-3.920E-06,-0.040
-3.910E-06,-0.040
-3.900E-06,-0.008
-3.890E-06,0.000
-3.880E-06,0.024
-3.870E-06,0.056
-3.860E-06,0.056
-3.850E-06,0.048
-3.840E-06,0.024
-3.830E-06,-0.008
-3.820E-06,-0.152
-3.810E-06,-0.152
-3.800E-06,-0.040
-3.790E-06,-0.016
-3.780E-06,0.024
-3.770E-06,0.072
-3.760E-06,0.152
-3.750E-06,0.000
-3.740E-06,-0.016
-3.730E-06,-0.048
-3.720E-06,-0.056
-3.710E-06,0.024
-3.700E-06,0.048
-3.690E-06,0.000
-3.680E-06,0.000
-3.670E-06,0.016
-3.660E-06,0.016
-3.650E-06,0.032
-3.640E-06,0.016
-3.630E-06,-0.016
-3.620E-06,-0.008
-3.610E-06,0.000
-3.600E-06,0.008
-3.590E-06,0.024
-3.580E-06,0.056
-3.570E-06,0.048
-3.560E-06,0.048
-3.550E-06,0.040
-3.540E-06,0.016
-3.530E-06,0.024
-3.520E-06,0.016
-3.510E-06,-0.008
-3.500E-06,0.000
-3.490E-06,0.000
-3.480E-06,0.048
-3.470E-06,0.040
-3.460E-06,0.032
-3.450E-06,0.048
-3.440E-06,0.024
-3.430E-06,-0.064
-3.420E-06,-0.240
-3.410E-06,-0.080
-3.400E-06,-0.232
-3.390E-06,0.224
-3.380E-06,0.160
-3.370E-06,0.104
-3.360E-06,0.048
-3.350E-06,-0.136
-3.340E-06,-0.200
-3.330E-06,-0.184
-3.320E-06,0.048
-3.310E-06,0.184
-3.300E-06,0.072
-3.290E-06,-0.040
-3.280E-06,-0.040
-3.270E-06,-0.040
-3.260E-06,0.072
-3.250E-06,0.040
-3.240E-06,-0.056
-3.230E-06,-0.056
-3.220E-06,0.032
-3.210E-06,0.064
-3.200E-06,0.064
-3.190E-06,0.016
-3.180E-06,-0.032
-3.170E-06,0.000
-3.160E-06,-0.008
-3.150E-06,0.008
-3.140E-06,0.000
-3.130E-06,0.032
-3.120E-06,0.032
-3.110E-06,0.024
-3.100E-06,0.016
-3.090E-06,-0.008
-3.080E-06,-0.016
-3.070E-06,0.008
-3.060E-06,0.024
-3.050E-06,0.056
-3.040E-06,0.048
-3.030E-06,0.056
-3.020E-06,0.048
-3.010E-06,0.024
-3.000E-06,0.008
-2.990E-06,0.008
-2.980E-06,0.016
-2.970E-06,0.032
-2.960E-06,0.048
-2.950E-06,0.072
-2.940E-06,-0.032
-2.930E-06,-0.024
-2.920E-06,-0.048
-2.910E-06,-0.088
-2.900E-06,0.024
-2.890E-06,0.160
-2.880E-06,0.160
-2.870E-06,0.016
-2.860E-06,-0.080
-2.850E-06,-0.152
-2.840E-06,-0.240
-2.830E-06,-0.112
-2.820E-06,-0.104
-2.810E-06,0.168
-2.800E-06,0.112
-2.790E-06,0.120
-2.780E-06,0.032
-2.770E-06,-0.136
-2.760E-06,-0.032
-2.750E-06,-0.008
-2.740E-06,0.056
-2.730E-06,0.120
-2.720E-06,0.032
-2.710E-06,0.016
-2.700E-06,0.024
-2.690E-06,-0.096
-2.680E-06,-0.104
-2.670E-06,-0.008
-2.660E-06,0.136
-2.650E-06,0.120
-2.640E-06,0.056
-2.630E-06,0.056
-2.620E-06,-0.152
-2.610E-06,-0.016
-2.600E-06,-0.128
-2.590E-06,-0.112
-2.580E-06,-0.048
-2.570E-06,0.072
-2.560E-06,0.064
-2.550E-06,0.040
-2.540E-06,-0.080
-2.530E-06,-0.056
-2.520E-06,-0.008
-2.510E-06,0.064
-2.500E-06,0.024
-2.490E-06,0.016
-2.480E-06,0.008
-2.470E-06,0.016
-2.460E-06,0.056
-2.450E-06,0.000
-2.440E-06,-0.040
-2.430E-06,-0.016
-2.420E-06,0.008
-2.410E-06,0.024
-2.400E-06,0.056
-2.390E-06,0.040
-2.380E-06,0.016
-2.370E-06,0.016
-2.360E-06,0.008
-2.350E-06,0.000
-2.340E-06,0.000
-2.330E-06,0.040
-2.320E-06,0.056
-2.310E-06,0.064
-2.300E-06,0.064
-2.290E-06,0.056
-2.280E-06,0.048
-2.270E-06,0.048
-2.260E-06,0.048
-2.250E-06,0.064
-2.240E-06,0.056
-2.230E-06,0.056
-2.220E-06,0.048
-2.210E-06,-0.112
-2.200E-06,-0.016
-2.190E-06,-0.048
-2.180E-06,-0.120
-2.170E-06,-0.184
-2.160E-06,-0.144
-2.150E-06,0.128
-2.140E-06,-0.024
-2.130E-06,0.120
-2.120E-06,0.080
-2.110E-06,-0.048
-2.100E-06,-0.056
-2.090E-06,0.048
-2.080E-06,-0.144
-2.070E-06,0.008
-2.060E-06,-0.016
-2.050E-06,-0.104
-2.040E-06,-0.048
-2.030E-06,0.056
-2.020E-06,0.160
-2.010E-06,0.064
-2.000E-06,0.024
-1.990E-06,-0.128
-1.980E-06,-0.080
-1.970E-06,0.000
-1.960E-06,0.048
-1.950E-06,0.072
-1.940E-06,0.064
-1.930E-06,0.040
-1.920E-06,-0.008
-1.910E-06,0.000
-1.900E-06,-0.040
-1.890E-06,-0.008
-1.880E-06,0.016
-1.870E-06,0.056
-1.860E-06,0.072
-1.850E-06,0.048
-1.840E-06,0.024
-1.830E-06,0.000
-1.820E-06,0.000
-1.810E-06,0.008
-1.800E-06,0.040
-1.790E-06,0.072
-1.780E-06,0.088
-1.770E-06,0.088
-1.760E-06,0.048
-1.750E-06,0.024
-1.740E-06,-0.016
-1.730E-06,0.024
-1.720E-06,0.040
-1.710E-06,0.112
-1.700E-06,0.056
-1.690E-06,-0.184
-1.680E-06,-0.240
-1.670E-06,-0.168
-1.660E-06,-0.272
-1.650E-06,-0.040
-1.640E-06,0.192
-1.630E-06,0.280
-1.620E-06,0.136
-1.610E-06,-0.112
-1.600E-06,-0.144
-1.590E-06,-0.104
-1.580E-06,0.088
-1.570E-06,0.072
-1.560E-06,0.016
-1.550E-06,-0.040
-1.540E-06,-0.008
-1.530E-06,0.024
-1.520E-06,0.072
-1.510E-06,0.056
-1.500E-06,-0.008
-1.490E-06,0.040
-1.480E-06,-0.008
-1.470E-06,-0.056
-1.460E-06,-0.008
-1.450E-06,0.024
-1.440E-06,0.032
-1.430E-06,0.024
-1.420E-06,0.024
-1.410E-06,-0.008
-1.400E-06,-0.080
-1.390E-06,-0.112
-1.380E-06,-0.080
-1.370E-06,0.088
-1.360E-06,0.144
-1.350E-06,0.168
-1.340E-06,0.024
-1.330E-06,-0.016
-1.320E-06,-0.008
-1.310E-06,-0.008
-1.300E-06,0.040
-1.290E-06,0.040
-1.280E-06,0.064
-1.270E-06,0.104
-1.260E-06,0.096
-1.250E-06,0.056
-1.240E-06,-0.008
-1.230E-06,0.016
-1.220E-06,0.016
-1.210E-06,0.000
-1.200E-06,-0.016
-1.190E-06,-0.152
-1.180E-06,0.024
-1.170E-06,-0.072
-1.160E-06,0.144
-1.150E-06,0.040
-1.140E-06,-0.096
-1.130E-06,0.072
-1.120E-06,0.008
-1.110E-06,0.128
-1.100E-06,0.032
-1.090E-06,-0.088
-1.080E-06,-0.112
-1.070E-06,-0.160
-1.060E-06,-0.112
-1.050E-06,0.016
-1.040E-06,0.056
-1.030E-06,0.176
-1.020E-06,0.088
-1.010E-06,0.024
-1.000E-06,-0.008
-9.900E-07,0.032
-9.800E-07,0.040
-9.700E-07,-0.072
-9.600E-07,-0.064
-9.500E-07,-0.144
-9.400E-07,0.056
-9.300E-07,-0.048
-9.200E-07,0.040
-9.100E-07,0.248
-9.000E-07,-0.016
-8.900E-07,0.088
-8.800E-07,0.016
-8.700E-07,0.184
-8.600E-07,-0.304
-8.500E-07,-0.024
-8.400E-07,-0.200
-8.300E-07,-0.264
-8.200E-07,-0.024
-8.100E-07,0.248
-8.000E-07,0.432
-7.900E-07,0.064
-7.800E-07,-0.056
-7.700E-07,-0.320
-7.600E-07,-0.280
-7.500E-07,-0.008
-7.400E-07,0.160
-7.300E-07,0.064
-7.200E-07,0.064
-7.100E-07,0.096
-7.000E-07,-0.088
-6.900E-07,-0.056
-6.800E-07,-0.040
-6.700E-07,0.008
-6.600E-07,0.176
-6.500E-07,0.064
-6.400E-07,-0.040
-6.300E-07,-0.040
-6.200E-07,-0.056
-6.100E-07,0.040
-6.000E-07,-0.048
-5.900E-07,0.008
-5.800E-07,-0.024
-5.700E-07,-0.008
-5.600E-07,0.024
-5.500E-07,-0.008
-5.400E-07,0.040
-5.300E-07,0.008
-5.200E-07,0.048
-5.100E-07,0.008
-5.000E-07,0.016
-4.900E-07,-0.008
-4.800E-07,0.032
-4.700E-07,0.048
-4.600E-07,0.112
-4.500E-07,0.128
-4.400E-07,0.136
-4.300E-07,0.016
-4.200E-07,0.016
-4.100E-07,-0.048
-4.000E-07,-0.136
-3.900E-07,-0.056
-3.800E-07,0.024
-3.700E-07,0.184
-3.600E-07,0.120
-3.500E-07,0.056
-3.400E-07,-0.064
-3.300E-07,-0.040
-3.200E-07,0.024
-3.100E-07,0.056
-3.000E-07,0.120
-2.900E-07,0.088
-2.800E-07,0.136
-2.700E-07,0.104
-2.600E-07,0.096
-2.500E-07,0.040
-2.400E-07,0.040
-2.300E-07,0.096
-2.200E-07,0.136
-2.100E-07,0.184
-2.000E-07,0.128
-1.900E-07,0.128
-1.800E-07,0.088
-1.700E-07,0.064
-1.600E-07,0.000
-1.500E-07,-0.208
-1.400E-07,-0.192
-1.300E-07,-0.224
-1.200E-07,-0.112
-1.100E-07,-0.016
-1.000E-07,0.176
-9.000E-08,0.496
-8.000E-08,0.280
-7.000E-08,0.072
-6.000E-08,-0.240
-5.000E-08,-0.232
-4.000E-08,-0.152
-3.000E-08,-0.464
-2.000E-08,0.504
-1.000E-08,0.696
0.000E+00,-0.408
1.000E-08,0.080
2.000E-08,-0.312
3.000E-08,0.072
4.000E-08,0.480
5.000E-08,0.440
6.000E-08,0.384
7.000E-08,0.304
8.000E-08,-0.112
9.000E-08,-0.440
1.000E-07,-0.480
1.100E-07,-0.400
1.200E-07,-0.336
1.300E-07,-0.216
1.400E-07,0.088
1.500E-07,0.176
1.600E-07,0.160
1.700E-07,0.040
1.800E-07,-0.088
1.900E-07,-0.016
2.000E-07,-0.080
2.100E-07,-0.064
2.200E-07,0.032
2.300E-07,0.032
2.400E-07,0.056
2.500E-07,0.040
2.600E-07,-0.008
2.700E-07,-0.144
2.800E-07,-0.112
2.900E-07,-0.200
3.000E-07,-0.048
3.100E-07,0.160
3.200E-07,0.192
3.300E-07,0.168
3.400E-07,0.224
3.500E-07,0.184
3.600E-07,0.104
3.700E-07,0.016
3.800E-07,0.000
3.900E-07,0.112
4.000E-07,0.064
4.100E-07,0.144
4.200E-07,0.088
4.300E-07,0.032
4.400E-07,0.112
4.500E-07,0.152
4.600E-07,0.232
4.700E-07,0.200
4.800E-07,0.136
4.900E-07,0.040
5.000E-07,-0.104
5.100E-07,-0.120
5.200E-07,-0.088
5.300E-07,-0.032
5.400E-07,0.016
5.500E-07,0.088
5.600E-07,0.112
5.700E-07,0.024
5.800E-07,0.072
5.900E-07,-0.016
6.000E-07,-0.016
6.100E-07,0.032
6.200E-07,0.024
6.300E-07,0.088
6.400E-07,0.088
6.500E-07,0.152
6.600E-07,0.176
6.700E-07,0.168
6.800E-07,0.216
6.900E-07,0.168
7.000E-07,0.208
7.100E-07,0.232
7.200E-07,0.232
7.300E-07,0.280
7.400E-07,0.304
7.500E-07,0.248
7.600E-07,0.280
7.700E-07,0.256
7.800E-07,0.256
7.900E-07,0.280
8.000E-07,0.280
8.100E-07,0.304
8.200E-07,0.304
8.300E-07,0.296
8.400E-07,0.272
8.500E-07,0.256
8.600E-07,0.264
8.700E-07,0.248
8.800E-07,0.272
8.900E-07,0.288
9.000E-07,0.296
9.100E-07,0.288
9.200E-07,0.256
9.300E-07,0.192
9.400E-07,0.176
9.500E-07,0.192
9.600E-07,0.192
9.700E-07,0.152
9.800E-07,0.328
9.900E-07,0.352
1.000E-06,0.184
1.010E-06,0.112
1.020E-06,0.064
1.030E-06,0.032
1.040E-06,0.120
1.050E-06,0.128
1.060E-06,0.064
1.070E-06,0.416
1.080E-06,0.040
1.090E-06,-0.048
1.100E-06,-0.208
1.110E-06,-0.112
1.120E-06,0.104
1.130E-06,0.072
1.140E-06,0.184
1.150E-06,0.184
1.160E-06,0.320
1.170E-06,0.272
1.180E-06,0.200
1.190E-06,0.184
1.200E-06,0.120
1.210E-06,0.224
1.220E-06,0.336
1.230E-06,0.288
1.240E-06,0.392
1.250E-06,0.216
1.260E-06,0.240
1.270E-06,0.136
1.280E-06,0.160
1.290E-06,0.280
1.300E-06,0.312
1.310E-06,0.384
1.320E-06,0.384
1.330E-06,0.328
1.340E-06,0.272
1.350E-06,0.216
1.360E-06,0.224
1.370E-06,0.264
1.380E-06,0.328
1.390E-06,0.352
1.400E-06,0.352
1.410E-06,0.312
1.420E-06,0.280
1.430E-06,0.256
1.440E-06,0.240
1.450E-06,0.280
1.460E-06,0.304
1.470E-06,0.344
1.480E-06,0.352
1.490E-06,0.320
1.500E-06,0.288
1.510E-06,0.256
1.520E-06,0.256
1.530E-06,0.280
1.540E-06,0.312
1.550E-06,0.344
1.560E-06,0.336
1.570E-06,0.320
1.580E-06,0.272
1.590E-06,0.240
1.600E-06,0.224
1.610E-06,0.232
1.620E-06,0.256
1.630E-06,0.328
1.640E-06,0.384
1.650E-06,0.376
1.660E-06,0.360
1.670E-06,0.296
1.680E-06,0.272
1.690E-06,0.256
1.700E-06,0.256
1.710E-06,0.288
1.720E-06,0.328
1.730E-06,0.352
1.740E-06,0.344
1.750E-06,0.328
1.760E-06,0.272
1.770E-06,0.256
1.780E-06,0.256
1.790E-06,0.288
1.800E-06,0.304
1.810E-06,0.336
1.820E-06,0.328
1.830E-06,0.320
1.840E-06,0.288
1.850E-06,0.272
1.860E-06,0.280
1.870E-06,0.272
1.880E-06,0.304
1.890E-06,0.320
1.900E-06,0.328
1.910E-06,0.320
1.920E-06,0.288
1.930E-06,0.272
1.940E-06,0.264
1.950E-06,0.264
1.960E-06,0.280
1.970E-06,0.296
1.980E-06,0.296
1.990E-06,0.304
2.000E-06,0.280
2.010E-06,0.280
2.020E-06,0.264
2.030E-06,0.272
2.040E-06,0.272
2.050E-06,0.288
2.060E-06,0.304
2.070E-06,0.296
2.080E-06,0.280
2.090E-06,0.280
2.100E-06,0.272
2.110E-06,0.272
2.120E-06,0.272
2.130E-06,0.272
2.140E-06,0.288
2.150E-06,0.280
2.160E-06,0.280
2.170E-06,0.256
2.180E-06,0.264
2.190E-06,0.264
2.200E-06,0.280
2.210E-06,0.288
2.220E-06,0.296
2.230E-06,0.288
2.240E-06,0.264
2.250E-06,0.256
2.260E-06,0.248
2.270E-06,0.256
2.280E-06,0.280
2.290E-06,0.288
2.300E-06,0.288
2.310E-06,0.272
2.320E-06,0.272
2.330E-06,0.248
2.340E-06,0.240
2.350E-06,0.248
2.360E-06,0.248
2.370E-06,0.272
2.380E-06,0.272
2.390E-06,0.272
2.400E-06,0.272
2.410E-06,0.272
2.420E-06,0.264
2.430E-06,0.248
2.440E-06,0.256
2.450E-06,0.264
2.460E-06,0.272
2.470E-06,0.256
2.480E-06,0.256
2.490E-06,0.256
2.500E-06,0.256
2.510E-06,0.248
2.520E-06,0.248
2.530E-06,0.248
2.540E-06,0.248
2.550E-06,0.240
2.560E-06,0.240
2.570E-06,0.240
2.580E-06,0.240
2.590E-06,0.248
2.600E-06,0.248
2.610E-06,0.248
2.620E-06,0.240
2.630E-06,0.240
2.640E-06,0.256
2.650E-06,0.264
2.660E-06,0.256
2.670E-06,0.256
2.680E-06,0.256
2.690E-06,0.248
2.700E-06,0.240
2.710E-06,0.232
2.720E-06,0.240
2.730E-06,0.248
2.740E-06,0.248
2.750E-06,0.248
2.760E-06,0.256
2.770E-06,0.240
2.780E-06,0.224
2.790E-06,0.224
2.800E-06,0.232
2.810E-06,0.248
2.820E-06,0.248
2.830E-06,0.240
2.840E-06,0.240
2.850E-06,0.224
2.860E-06,0.224
2.870E-06,0.224
2.880E-06,0.248
2.890E-06,0.248
2.900E-06,0.248
2.910E-06,0.240
2.920E-06,0.216
2.930E-06,0.216
2.940E-06,0.224
2.950E-06,0.224
2.960E-06,0.224
2.970E-06,0.232
2.980E-06,0.232
2.990E-06,0.224
3.000E-06,0.208
3.010E-06,0.208
3.020E-06,0.208
3.030E-06,0.216
3.040E-06,0.216
3.050E-06,0.216
3.060E-06,0.232
3.070E-06,0.232
3.080E-06,0.224
3.090E-06,0.216
3.100E-06,0.208
3.110E-06,0.216
3.120E-06,0.216
3.130E-06,0.216
3.140E-06,0.216
3.150E-06,0.200
3.160E-06,0.200
3.170E-06,0.200
3.180E-06,0.208
3.190E-06,0.216
3.200E-06,0.216
3.210E-06,0.208
3.220E-06,0.208
3.230E-06,0.200
3.240E-06,0.208
3.250E-06,0.216
3.260E-06,0.216
3.270E-06,0.216
3.280E-06,0.208
3.290E-06,0.192
3.300E-06,0.184
3.310E-06,0.192
3.320E-06,0.200
3.330E-06,0.208
3.340E-06,0.216
3.350E-06,0.216
3.360E-06,0.192
3.370E-06,0.184
3.380E-06,0.184
3.390E-06,0.176
3.400E-06,0.192
3.410E-06,0.192
3.420E-06,0.208
3.430E-06,0.216
3.440E-06,0.208
3.450E-06,0.216
3.460E-06,0.184
3.470E-06,0.184
3.480E-06,0.184
3.490E-06,0.176
3.500E-06,0.192
3.510E-06,0.208
3.520E-06,0.208
3.530E-06,0.200
3.540E-06,0.184
3.550E-06,0.176
3.560E-06,0.168
3.570E-06,0.168
