mediciones/6-26/28.6/WaveData59211.csv

#timebase=2000000(ps)
,#voltbase=200000(mv/100)
#size=4000
-8.150E-06,0.304
-8.140E-06,0.016
-8.130E-06,-0.016
-8.120E-06,-0.200
-8.110E-06,-0.008
-8.100E-06,0.296
-8.090E-06,0.632
-8.080E-06,0.768
-8.070E-06,0.688
-8.060E-06,0.392
-8.050E-06,0.200
-8.040E-06,0.136
-8.030E-06,0.168
-8.020E-06,0.264
-8.010E-06,0.368
-8.000E-06,0.288
-7.990E-06,0.112
-7.980E-06,-0.080
-7.970E-06,-0.224
-7.960E-06,-0.280
-7.950E-06,-0.192
-7.940E-06,-0.104
-7.930E-06,-0.080
-7.920E-06,-0.120
-7.910E-06,-0.224
-7.900E-06,-0.264
-7.890E-06,-0.272
-7.880E-06,-0.240
-7.870E-06,-0.144
-7.860E-06,-0.104
-7.850E-06,-0.136
-7.840E-06,-0.192
-7.830E-06,-0.248
-7.820E-06,-0.232
-7.810E-06,-0.184
-7.800E-06,-0.104
-7.790E-06,-0.040
-7.780E-06,-0.016
-7.770E-06,-0.032
-7.760E-06,-0.080
-7.750E-06,-0.104
-7.740E-06,-0.088
-7.730E-06,-0.064
-7.720E-06,-0.048
-7.710E-06,-0.032
-7.700E-06,-0.056
-7.690E-06,-0.056
-7.680E-06,-0.040
-7.670E-06,-0.040
-7.660E-06,-0.016
-7.650E-06,-0.008
-7.640E-06,0.040
-7.630E-06,0.152
-7.620E-06,0.552
-7.610E-06,0.656
-7.600E-06,-0.232
-7.590E-06,-0.040
-7.580E-06,0.176
-7.570E-06,0.688
-7.560E-06,1.088
-7.550E-06,1.080
-7.540E-06,1.080
-7.530E-06,1.080
-7.520E-06,0.688
-7.510E-06,0.192
-7.500E-06,0.344
-7.490E-06,0.504
-7.480E-06,0.944
-7.470E-06,1.024
-7.460E-06,0.496
-7.450E-06,-0.120
-7.440E-06,-0.600
-7.430E-06,-0.792
-7.420E-06,-0.584
-7.410E-06,-0.496
-7.400E-06,-0.384
-7.390E-06,-0.552
-7.380E-06,-1.000
-7.370E-06,-1.048
-7.360E-06,-1.040
-7.350E-06,-0.848
-7.340E-06,0.232
-7.330E-06,0.968
-7.320E-06,1.088
-7.310E-06,0.984
-7.300E-06,0.064
-7.290E-06,-0.648
-7.280E-06,-0.792
-7.270E-06,-0.536
-7.260E-06,-0.008
-7.250E-06,0.152
-7.240E-06,-0.400
-7.230E-06,-0.840
-7.220E-06,-1.048
-7.210E-06,-1.040
-7.200E-06,-0.336
-7.190E-06,0.656
-7.180E-06,1.080
-7.170E-06,1.080
-7.160E-06,0.600
-7.150E-06,0.088
-7.140E-06,0.504
-7.130E-06,0.088
-7.120E-06,0.552
-7.110E-06,1.088
-7.100E-06,1.080
-7.090E-06,1.080
-7.080E-06,1.072
-7.070E-06,0.512
-7.060E-06,0.160
-7.050E-06,0.064
-7.040E-06,0.224
-7.030E-06,0.648
-7.020E-06,0.504
-7.010E-06,0.328
-7.000E-06,0.200
-6.990E-06,-0.160
-6.980E-06,-0.352
-6.970E-06,-0.424
-6.960E-06,-0.368
-6.950E-06,-0.192
-6.940E-06,-0.128
-6.930E-06,-0.248
-6.920E-06,-0.360
-6.910E-06,-0.408
-6.900E-06,-0.472
-6.890E-06,-0.424
-6.880E-06,-0.328
-6.870E-06,-0.232
-6.860E-06,-0.200
-6.850E-06,-0.184
-6.840E-06,-0.272
-6.830E-06,-0.336
-6.820E-06,-0.312
-6.810E-06,-0.240
-6.800E-06,-0.112
-6.790E-06,-0.024
-6.780E-06,0.016
-6.770E-06,0.016
-6.760E-06,-0.040
-6.750E-06,-0.120
-6.740E-06,-0.168
-6.730E-06,-0.208
-6.720E-06,-0.200
-6.710E-06,-0.200
-6.700E-06,-0.216
-6.690E-06,-0.336
-6.680E-06,-0.376
-6.670E-06,-0.376
-6.660E-06,-0.320
-6.650E-06,-0.360
-6.640E-06,-0.496
-6.630E-06,-0.040
-6.620E-06,0.264
-6.610E-06,1.088
-6.600E-06,1.080
-6.590E-06,1.088
-6.580E-06,1.080
-6.570E-06,1.088
-6.560E-06,1.080
-6.550E-06,1.080
-6.540E-06,1.048
-6.530E-06,0.976
-6.520E-06,1.080
-6.510E-06,1.080
-6.500E-06,0.744
-6.490E-06,0.328
-6.480E-06,-0.016
-6.470E-06,-0.208
-6.460E-06,-0.176
-6.450E-06,-0.152
-6.440E-06,-0.104
-6.430E-06,-0.160
-6.420E-06,-0.320
-6.410E-06,-0.536
-6.400E-06,-0.672
-6.390E-06,-0.720
-6.380E-06,-0.704
-6.370E-06,-0.728
-6.360E-06,-0.808
-6.350E-06,-0.816
-6.340E-06,-0.824
-6.330E-06,-0.848
-6.320E-06,-0.608
-6.310E-06,-0.160
-6.300E-06,0.160
-6.290E-06,0.696
-6.280E-06,0.568
-6.270E-06,0.304
-6.260E-06,-0.168
-6.250E-06,-0.328
-6.240E-06,-0.264
-6.230E-06,0.000
-6.220E-06,0.016
-6.210E-06,-0.064
-6.200E-06,-0.440
-6.190E-06,-0.456
-6.180E-06,-1.040
-6.170E-06,-1.032
-6.160E-06,-0.872
-6.150E-06,-0.400
-6.140E-06,0.952
-6.130E-06,1.088
-6.120E-06,1.080
-6.110E-06,1.088
-6.100E-06,1.080
-6.090E-06,1.080
-6.080E-06,1.072
-6.070E-06,1.080
-6.060E-06,1.040
-6.050E-06,0.896
-6.040E-06,0.856
-6.030E-06,0.920
-6.020E-06,0.640
-6.010E-06,0.280
-6.000E-06,0.128
-5.990E-06,-0.072
-5.980E-06,-0.192
-5.970E-06,-0.200
-5.960E-06,-0.224
-5.950E-06,-0.288
-5.940E-06,-0.320
-5.930E-06,-0.424
-5.920E-06,-0.512
-5.910E-06,-0.488
-5.900E-06,-0.464
-5.890E-06,-0.416
-5.880E-06,-0.440
-5.870E-06,-0.440
-5.860E-06,-0.504
-5.850E-06,-0.472
-5.840E-06,-0.440
-5.830E-06,-0.432
-5.820E-06,-0.432
-5.810E-06,-0.424
-5.800E-06,-0.432
-5.790E-06,-0.456
-5.780E-06,-0.496
-5.770E-06,-0.536
-5.760E-06,-0.568
-5.750E-06,-0.592
-5.740E-06,-0.624
-5.730E-06,-0.616
-5.720E-06,-0.616
-5.710E-06,-0.624
-5.700E-06,-0.264
-5.690E-06,-0.784
-5.680E-06,-0.280
-5.670E-06,0.200
-5.660E-06,0.888
-5.650E-06,1.080
-5.640E-06,1.072
-5.630E-06,1.080
-5.620E-06,1.088
-5.610E-06,1.080
-5.600E-06,1.080
-5.590E-06,1.080
-5.580E-06,1.008
-5.570E-06,1.080
-5.560E-06,1.072
-5.550E-06,1.080
-5.540E-06,0.912
-5.530E-06,0.472
-5.520E-06,0.128
-5.510E-06,-0.056
-5.500E-06,-0.048
-5.490E-06,-0.040
-5.480E-06,-0.200
-5.470E-06,-0.288
-5.460E-06,-0.568
-5.450E-06,-0.896
-5.440E-06,-0.968
-5.430E-06,-0.672
-5.420E-06,-0.592
-5.410E-06,-0.264
-5.400E-06,-0.104
-5.390E-06,-0.136
-5.380E-06,0.024
-5.370E-06,0.136
-5.360E-06,0.144
-5.350E-06,0.000
-5.340E-06,-0.200
-5.330E-06,-0.400
-5.320E-06,-0.400
-5.310E-06,-0.392
-5.300E-06,-0.464
-5.290E-06,-0.664
-5.280E-06,-0.256
-5.270E-06,0.016
-5.260E-06,0.520
-5.250E-06,0.712
-5.240E-06,0.640
-5.230E-06,0.384
-5.220E-06,0.128
-5.210E-06,0.096
-5.200E-06,0.016
-5.190E-06,-0.064
-5.180E-06,0.152
-5.170E-06,0.400
-5.160E-06,0.472
-5.150E-06,0.664
-5.140E-06,0.376
-5.130E-06,0.056
-5.120E-06,-0.272
-5.110E-06,-0.200
-5.100E-06,0.224
-5.090E-06,0.720
-5.080E-06,0.800
-5.070E-06,1.088
-5.060E-06,0.576
-5.050E-06,-0.024
-5.040E-06,-0.240
-5.030E-06,-0.360
-5.020E-06,-0.064
-5.010E-06,0.224
-5.000E-06,0.168
-4.990E-06,0.008
-4.980E-06,-0.200
-4.970E-06,-0.408
-4.960E-06,-0.328
-4.950E-06,-0.256
-4.940E-06,-0.144
-4.930E-06,-0.072
-4.920E-06,-0.096
-4.910E-06,-0.168
-4.900E-06,-0.224
-4.890E-06,-0.256
-4.880E-06,-0.200
-4.870E-06,-0.088
-4.860E-06,-0.024
-4.850E-06,-0.032
-4.840E-06,-0.040
-4.830E-06,-0.096
-4.820E-06,-0.160
-4.810E-06,-0.232
-4.800E-06,-0.296
-4.790E-06,-0.344
-4.780E-06,-0.344
-4.770E-06,-0.472
-4.760E-06,-0.544
-4.750E-06,-0.576
-4.740E-06,-0.344
-4.730E-06,0.360
-4.720E-06,-0.296
-4.710E-06,0.240
-4.700E-06,0.856
-4.690E-06,0.952
-4.680E-06,1.080
-4.670E-06,1.072
-4.660E-06,1.080
-4.650E-06,0.800
-4.640E-06,0.464
-4.630E-06,0.704
-4.620E-06,1.088
-4.610E-06,0.984
-4.600E-06,0.880
-4.590E-06,0.624
-4.580E-06,0.264
-4.570E-06,0.096
-4.560E-06,0.040
-4.550E-06,0.064
-4.540E-06,0.144
-4.530E-06,0.096
-4.520E-06,-0.032
-4.510E-06,-0.232
-4.500E-06,-0.336
-4.490E-06,-0.488
-4.480E-06,-0.544
-4.470E-06,-0.648
-4.460E-06,-0.816
-4.450E-06,-0.824
-4.440E-06,-0.864
-4.430E-06,-0.928
-4.420E-06,-0.928
-4.410E-06,-0.648
-4.400E-06,-0.072
-4.390E-06,0.416
-4.380E-06,0.720
-4.370E-06,0.608
-4.360E-06,0.312
-4.350E-06,-0.024
-4.340E-06,-0.096
-4.330E-06,0.016
-4.320E-06,0.088
-4.310E-06,0.288
-4.300E-06,0.544
-4.290E-06,0.624
-4.280E-06,0.864
-4.270E-06,0.792
-4.260E-06,0.592
-4.250E-06,0.424
-4.240E-06,0.288
-4.230E-06,0.144
-4.220E-06,0.160
-4.210E-06,0.040
-4.200E-06,-0.120
-4.190E-06,0.144
-4.180E-06,-0.112
-4.170E-06,-0.008
-4.160E-06,0.440
-4.150E-06,0.312
-4.140E-06,0.720
-4.130E-06,0.256
-4.120E-06,-0.120
-4.110E-06,-0.088
-4.100E-06,-0.032
-4.090E-06,0.248
-4.080E-06,0.808
-4.070E-06,0.360
-4.060E-06,-0.152
-4.050E-06,-0.440
-4.040E-06,-0.664
-4.030E-06,-0.320
-4.020E-06,-0.136
-4.010E-06,-0.136
-4.000E-06,-0.176
-3.990E-06,-0.304
-3.980E-06,-0.440
-3.970E-06,-0.320
-3.960E-06,-0.280
-3.950E-06,-0.184
-3.940E-06,-0.112
-3.930E-06,-0.144
-3.920E-06,-0.160
-3.910E-06,-0.104
-3.900E-06,-0.136
-3.890E-06,-0.096
-3.880E-06,-0.016
-3.870E-06,0.272
-3.860E-06,0.464
-3.850E-06,0.624
-3.840E-06,0.480
-3.830E-06,0.176
-3.820E-06,-0.208
-3.810E-06,0.032
-3.800E-06,-0.264
-3.790E-06,-0.048
-3.780E-06,0.744
-3.770E-06,0.864
-3.760E-06,1.080
-3.750E-06,0.760
-3.740E-06,-0.112
-3.730E-06,-0.704
-3.720E-06,-0.712
-3.710E-06,-0.232
-3.700E-06,0.576
-3.690E-06,0.696
-3.680E-06,0.488
-3.670E-06,0.280
-3.660E-06,-0.096
-3.650E-06,-0.224
-3.640E-06,-0.136
-3.630E-06,0.024
-3.620E-06,0.240
-3.610E-06,0.312
-3.600E-06,0.208
-3.590E-06,0.008
-3.580E-06,-0.080
-3.570E-06,-0.128
-3.560E-06,-0.088
-3.550E-06,-0.064
-3.540E-06,-0.088
-3.530E-06,-0.112
-3.520E-06,-0.192
-3.510E-06,-0.312
-3.500E-06,-0.368
-3.490E-06,-0.368
-3.480E-06,-0.144
-3.470E-06,0.128
-3.460E-06,0.240
-3.450E-06,0.152
-3.440E-06,-0.080
-3.430E-06,-0.264
-3.420E-06,-0.152
-3.410E-06,-0.400
-3.400E-06,-0.200
-3.390E-06,0.192
-3.380E-06,0.432
-3.370E-06,0.840
-3.360E-06,1.080
-3.350E-06,-0.032
-3.340E-06,-0.872
-3.330E-06,-0.800
-3.320E-06,-0.384
-3.310E-06,0.936
-3.300E-06,1.072
-3.290E-06,1.080
-3.280E-06,0.488
-3.270E-06,-0.128
-3.260E-06,-0.368
-3.250E-06,0.512
-3.240E-06,0.520
-3.230E-06,0.384
-3.220E-06,0.336
-3.210E-06,0.032
-3.200E-06,-0.096
-3.190E-06,0.016
-3.180E-06,-0.128
-3.170E-06,0.064
-3.160E-06,0.104
-3.150E-06,0.016
-3.140E-06,-0.056
-3.130E-06,-0.088
-3.120E-06,-0.152
-3.110E-06,-0.152
-3.100E-06,-0.160
-3.090E-06,-0.096
-3.080E-06,-0.080
-3.070E-06,-0.008
-3.060E-06,-0.048
-3.050E-06,-0.184
-3.040E-06,-0.264
-3.030E-06,-0.296
-3.020E-06,-0.264
-3.010E-06,-0.200
-3.000E-06,-0.168
-2.990E-06,-0.200
-2.980E-06,-0.264
-2.970E-06,-0.288
-2.960E-06,-0.248
-2.950E-06,-0.200
-2.940E-06,-0.136
-2.930E-06,0.128
-2.920E-06,-0.016
-2.910E-06,-0.128
-2.900E-06,-0.168
-2.890E-06,0.040
-2.880E-06,0.464
-2.870E-06,1.072
-2.860E-06,1.088
-2.850E-06,0.584
-2.840E-06,0.144
-2.830E-06,-0.280
-2.820E-06,-0.120
-2.810E-06,0.584
-2.800E-06,1.080
-2.790E-06,1.088
-2.780E-06,1.080
-2.770E-06,0.384
-2.760E-06,-0.096
-2.750E-06,-0.184
-2.740E-06,-0.280
-2.730E-06,-0.032
-2.720E-06,0.088
-2.710E-06,0.224
-2.700E-06,-0.160
-2.690E-06,-0.432
-2.680E-06,-0.760
-2.670E-06,-0.648
-2.660E-06,-0.288
-2.650E-06,0.112
-2.640E-06,0.448
-2.630E-06,0.080
-2.620E-06,-0.512
-2.610E-06,-0.368
-2.600E-06,-0.440
-2.590E-06,-0.240
-2.580E-06,0.136
-2.570E-06,0.544
-2.560E-06,0.952
-2.550E-06,0.688
-2.540E-06,0.416
-2.530E-06,0.064
-2.520E-06,-0.224
-2.510E-06,0.008
-2.500E-06,0.344
-2.490E-06,0.264
-2.480E-06,0.000
-2.470E-06,-0.184
-2.460E-06,-0.096
-2.450E-06,0.080
-2.440E-06,0.128
-2.430E-06,0.072
-2.420E-06,0.064
-2.410E-06,0.056
-2.400E-06,0.040
-2.390E-06,-0.016
-2.380E-06,-0.088
-2.370E-06,-0.120
-2.360E-06,-0.128
-2.350E-06,-0.096
-2.340E-06,-0.032
-2.330E-06,-0.048
-2.320E-06,-0.080
-2.310E-06,-0.136
-2.300E-06,-0.184
-2.290E-06,-0.272
-2.280E-06,-0.320
-2.270E-06,-0.272
-2.260E-06,-0.248
-2.250E-06,-0.248
-2.240E-06,-0.272
-2.230E-06,-0.264
-2.220E-06,-0.400
-2.210E-06,-0.088
-2.200E-06,-0.280
-2.190E-06,-0.536
-2.180E-06,-0.400
-2.170E-06,-0.152
-2.160E-06,0.048
-2.150E-06,0.728
-2.140E-06,1.080
-2.130E-06,1.088
-2.120E-06,1.080
-2.110E-06,0.672
-2.100E-06,0.112
-2.090E-06,0.256
-2.080E-06,0.208
-2.070E-06,1.072
-2.060E-06,1.080
-2.050E-06,1.080
-2.040E-06,1.072
-2.030E-06,0.304
-2.020E-06,0.120
-2.010E-06,0.768
-2.000E-06,0.944
-1.990E-06,0.512
-1.980E-06,0.096
-1.970E-06,-0.400
-1.960E-06,-0.368
-1.950E-06,-0.288
-1.940E-06,-0.232
-1.930E-06,-0.208
-1.920E-06,-0.288
-1.910E-06,-0.376
-1.900E-06,-0.424
-1.890E-06,-0.544
-1.880E-06,-0.528
-1.870E-06,-0.480
-1.860E-06,-0.464
-1.850E-06,-0.432
-1.840E-06,-0.400
-1.830E-06,-0.408
-1.820E-06,-0.424
-1.810E-06,-0.488
-1.800E-06,-0.568
-1.790E-06,-0.600
-1.780E-06,-0.544
-1.770E-06,-0.432
-1.760E-06,-0.400
-1.750E-06,-0.376
-1.740E-06,-0.432
-1.730E-06,-0.504
-1.720E-06,-0.472
-1.710E-06,-0.368
-1.700E-06,-0.208
-1.690E-06,0.160
-1.680E-06,0.816
-1.670E-06,-0.136
-1.660E-06,0.168
-1.650E-06,0.576
-1.640E-06,0.992
-1.630E-06,1.080
-1.620E-06,1.080
-1.610E-06,1.072
-1.600E-06,0.040
-1.590E-06,-0.760
-1.580E-06,-0.456
-1.570E-06,1.080
-1.560E-06,1.088
-1.550E-06,1.080
-1.540E-06,1.024
-1.530E-06,0.200
-1.520E-06,-0.176
-1.510E-06,0.064
-1.500E-06,0.000
-1.490E-06,0.320
-1.480E-06,0.152
-1.470E-06,-0.128
-1.460E-06,-0.072
-1.450E-06,-0.360
-1.440E-06,-0.760
-1.430E-06,-0.480
-1.420E-06,-0.248
-1.410E-06,0.328
-1.400E-06,0.656
-1.390E-06,0.360
-1.380E-06,-0.168
-1.370E-06,-0.664
-1.360E-06,-0.704
-1.350E-06,-0.088
-1.340E-06,-0.024
-1.330E-06,-0.176
-1.320E-06,-0.392
-1.310E-06,-0.704
-1.300E-06,-0.592
-1.290E-06,-0.384
-1.280E-06,-0.336
-1.270E-06,-0.216
-1.260E-06,-0.304
-1.250E-06,-0.352
-1.240E-06,-0.200
-1.230E-06,-0.136
-1.220E-06,-0.192
-1.210E-06,-0.240
-1.200E-06,-0.184
-1.190E-06,-0.184
-1.180E-06,-0.208
-1.170E-06,-0.056
-1.160E-06,0.176
-1.150E-06,0.184
-1.140E-06,0.624
-1.130E-06,0.480
-1.120E-06,0.512
-1.110E-06,0.560
-1.100E-06,0.584
-1.090E-06,0.832
-1.080E-06,0.712
-1.070E-06,0.280
-1.060E-06,-0.032
-1.050E-06,0.480
-1.040E-06,1.056
-1.030E-06,1.080
-1.020E-06,1.088
-1.010E-06,1.080
-1.000E-06,0.144
-9.900E-07,-0.728
-9.800E-07,-1.008
-9.700E-07,-0.280
-9.600E-07,0.272
-9.500E-07,0.240
-9.400E-07,0.312
-9.300E-07,0.032
-9.200E-07,0.736
-9.100E-07,0.664
-9.000E-07,0.144
-8.900E-07,-0.144
-8.800E-07,-0.920
-8.700E-07,-0.632
-8.600E-07,-0.072
-8.500E-07,0.968
-8.400E-07,-0.544
-8.300E-07,-0.872
-8.200E-07,-1.016
-8.100E-07,-0.736
-8.000E-07,0.792
-7.900E-07,1.080
-7.800E-07,0.752
-7.700E-07,-0.496
-7.600E-07,-1.048
-7.500E-07,-1.040
-7.400E-07,-0.128
-7.300E-07,0.520
-7.200E-07,1.080
-7.100E-07,1.088
-7.000E-07,-0.256
-6.900E-07,-0.776
-6.800E-07,-1.040
-6.700E-07,-0.592
-6.600E-07,0.320
-6.500E-07,0.544
-6.400E-07,0.368
-6.300E-07,-0.248
-6.200E-07,-0.728
-6.100E-07,-0.472
-6.000E-07,-0.128
-5.900E-07,0.336
-5.800E-07,1.008
-5.700E-07,0.944
-5.600E-07,0.648
-5.500E-07,0.040
-5.400E-07,-0.480
-5.300E-07,-0.448
-5.200E-07,-0.136
-5.100E-07,0.160
-5.000E-07,0.360
-4.900E-07,0.256
-4.800E-07,0.016
-4.700E-07,-0.248
-4.600E-07,-0.392
-4.500E-07,-0.432
-4.400E-07,-0.336
-4.300E-07,-0.272
-4.200E-07,0.016
-4.100E-07,-0.032
-4.000E-07,-0.328
-3.900E-07,-0.392
-3.800E-07,-0.416
-3.700E-07,0.000
-3.600E-07,0.944
-3.500E-07,1.080
-3.400E-07,1.080
-3.300E-07,0.472
-3.200E-07,-0.288
-3.100E-07,-0.416
-3.000E-07,-0.208
-2.900E-07,0.080
-2.800E-07,0.176
-2.700E-07,0.056
-2.600E-07,-0.072
-2.500E-07,-0.152
-2.400E-07,-0.184
-2.300E-07,-0.272
-2.200E-07,-0.368
-2.100E-07,-0.432
-2.000E-07,-0.424
-1.900E-07,-0.320
-1.800E-07,-0.256
-1.700E-07,-0.312
-1.600E-07,-0.336
-1.500E-07,-0.240
-1.400E-07,-0.192
-1.300E-07,-0.696
-1.200E-07,-0.448
-1.100E-07,-0.648
-1.000E-07,-0.400
-9.000E-08,-0.072
-8.000E-08,0.256
-7.000E-08,0.392
-6.000E-08,-0.136
-5.000E-08,-0.152
-4.000E-08,-0.808
-3.000E-08,-0.072
-2.000E-08,0.120
-1.000E-08,0.400
0.000E+00,1.088
1.000E-08,1.088
2.000E-08,1.080
3.000E-08,1.080
4.000E-08,1.080
5.000E-08,1.088
6.000E-08,1.088
7.000E-08,1.080
8.000E-08,0.528
9.000E-08,-0.200
1.000E-07,-1.032
1.100E-07,-0.472
1.200E-07,0.848
1.300E-07,1.088
1.400E-07,1.080
1.500E-07,1.088
1.600E-07,0.352
1.700E-07,-0.128
1.800E-07,0.208
1.900E-07,1.080
2.000E-07,1.088
2.100E-07,1.088
2.200E-07,1.080
2.300E-07,0.752
2.400E-07,-0.016
2.500E-07,-0.776
2.600E-07,-0.896
2.700E-07,-1.032
2.800E-07,-0.552
2.900E-07,0.000
3.000E-07,-0.024
3.100E-07,-0.088
3.200E-07,-0.704
3.300E-07,-1.040
3.400E-07,-1.040
3.500E-07,-1.048
3.600E-07,-1.040
3.700E-07,-1.048
3.800E-07,-1.032
3.900E-07,-1.032
4.000E-07,-1.040
4.100E-07,-1.032
4.200E-07,-1.032
4.300E-07,-1.040
4.400E-07,-0.200
4.500E-07,0.584
4.600E-07,1.088
4.700E-07,1.080
4.800E-07,1.080
4.900E-07,1.080
5.000E-07,0.784
5.100E-07,0.488
5.200E-07,0.832
5.300E-07,1.080
5.400E-07,1.088
5.500E-07,1.088
5.600E-07,1.080
5.700E-07,1.088
5.800E-07,1.080
5.900E-07,0.704
6.000E-07,0.192
6.100E-07,-0.008
6.200E-07,-0.312
6.300E-07,-0.736
6.400E-07,-1.032
6.500E-07,-1.040
6.600E-07,-1.048
6.700E-07,-1.040
6.800E-07,-1.048
6.900E-07,-1.048
7.000E-07,-1.048
7.100E-07,-1.032
7.200E-07,-0.944
7.300E-07,-0.672
7.400E-07,-0.480
7.500E-07,-0.280
7.600E-07,-0.016
7.700E-07,0.192
7.800E-07,0.320
7.900E-07,0.440
8.000E-07,0.520
8.100E-07,0.680
8.200E-07,0.952
8.300E-07,1.080
8.400E-07,1.072
8.500E-07,1.080
8.600E-07,1.088
8.700E-07,1.080
8.800E-07,1.080
8.900E-07,1.072
9.000E-07,1.080
9.100E-07,1.088
9.200E-07,1.088
9.300E-07,1.080
9.400E-07,1.080
9.500E-07,1.080
9.600E-07,1.080
9.700E-07,1.080
9.800E-07,1.072
9.900E-07,1.080
1.000E-06,1.088
1.010E-06,1.080
1.020E-06,1.088
1.030E-06,1.080
1.040E-06,1.024
1.050E-06,0.968
1.060E-06,0.696
1.070E-06,0.256
1.080E-06,0.296
1.090E-06,-0.456
1.100E-06,-1.032
1.110E-06,-1.040
1.120E-06,-1.040
1.130E-06,-1.048
1.140E-06,-1.040
1.150E-06,-1.048
1.160E-06,-1.032
1.170E-06,-1.040
1.180E-06,-0.912
1.190E-06,-0.280
1.200E-06,1.080
1.210E-06,1.088
1.220E-06,1.088
1.230E-06,1.080
1.240E-06,1.088
1.250E-06,1.080
1.260E-06,1.080
1.270E-06,1.080
1.280E-06,1.080
1.290E-06,1.080
1.300E-06,1.088
1.310E-06,1.080
1.320E-06,1.080
1.330E-06,1.072
1.340E-06,1.080
1.350E-06,1.088
1.360E-06,1.080
1.370E-06,0.808
1.380E-06,0.624
1.390E-06,0.616
1.400E-06,0.576
1.410E-06,0.576
1.420E-06,0.568
1.430E-06,0.616
1.440E-06,0.544
1.450E-06,0.600
1.460E-06,0.664
1.470E-06,0.840
1.480E-06,0.992
1.490E-06,1.080
1.500E-06,1.080
1.510E-06,1.088
1.520E-06,1.080
1.530E-06,1.072
1.540E-06,1.080
1.550E-06,1.080
1.560E-06,1.064
1.570E-06,1.072
1.580E-06,1.040
1.590E-06,1.024
1.600E-06,0.880
1.610E-06,0.704
1.620E-06,0.504
1.630E-06,0.448
1.640E-06,0.440
1.650E-06,0.560
1.660E-06,0.792
1.670E-06,1.080
1.680E-06,1.080
1.690E-06,1.080
1.700E-06,1.080
1.710E-06,1.080
1.720E-06,1.080
1.730E-06,1.072
1.740E-06,1.080
1.750E-06,1.088
1.760E-06,1.080
1.770E-06,1.088
1.780E-06,1.080
1.790E-06,1.080
1.800E-06,0.960
1.810E-06,0.768
1.820E-06,0.600
1.830E-06,0.488
1.840E-06,0.264
1.850E-06,0.200
1.860E-06,0.136
1.870E-06,0.136
1.880E-06,0.136
1.890E-06,0.144
1.900E-06,0.168
1.910E-06,0.192
1.920E-06,0.224
1.930E-06,0.312
1.940E-06,0.384
1.950E-06,0.464
1.960E-06,0.576
1.970E-06,0.680
1.980E-06,0.800
1.990E-06,0.872
2.000E-06,0.920
2.010E-06,0.936
2.020E-06,0.928
2.030E-06,0.904
2.040E-06,0.824
2.050E-06,0.720
2.060E-06,0.632
2.070E-06,0.544
2.080E-06,0.464
2.090E-06,0.448
2.100E-06,0.440
2.110E-06,0.456
2.120E-06,0.480
2.130E-06,0.528
2.140E-06,0.560
2.150E-06,0.568
2.160E-06,0.576
2.170E-06,0.600
2.180E-06,0.704
2.190E-06,0.768
2.200E-06,0.816
2.210E-06,0.912
2.220E-06,1.056
2.230E-06,1.088
2.240E-06,1.080
2.250E-06,1.016
2.260E-06,0.848
2.270E-06,0.576
2.280E-06,0.200
2.290E-06,-0.216
2.300E-06,-0.600
2.310E-06,-0.944
2.320E-06,-1.040
2.330E-06,-1.048
2.340E-06,-1.032
2.350E-06,-1.040
2.360E-06,-1.040
2.370E-06,-1.048
2.380E-06,-1.040
2.390E-06,-1.040
2.400E-06,-1.040
2.410E-06,-1.048
2.420E-06,-1.040
2.430E-06,-1.032
2.440E-06,-0.680
2.450E-06,-0.168
2.460E-06,0.384
2.470E-06,0.720
2.480E-06,0.936
2.490E-06,1.056
2.500E-06,1.080
2.510E-06,1.080
2.520E-06,1.000
2.530E-06,0.808
2.540E-06,0.552
2.550E-06,0.312
2.560E-06,0.056
2.570E-06,-0.200
2.580E-06,-0.168
2.590E-06,-0.104
2.600E-06,0.000
2.610E-06,0.128
2.620E-06,0.248
2.630E-06,0.536
2.640E-06,0.984
2.650E-06,1.080
2.660E-06,1.080
2.670E-06,1.080
2.680E-06,1.088
2.690E-06,1.088
2.700E-06,1.080
2.710E-06,1.088
2.720E-06,1.080
2.730E-06,1.080
2.740E-06,1.072
2.750E-06,1.080
2.760E-06,1.088
2.770E-06,0.920
2.780E-06,0.712
2.790E-06,0.568
2.800E-06,0.384
2.810E-06,0.368
2.820E-06,0.320
2.830E-06,0.320
2.840E-06,0.328
2.850E-06,0.328
2.860E-06,0.496
2.870E-06,0.440
2.880E-06,0.368
2.890E-06,0.168
2.900E-06,-0.088
2.910E-06,-0.200
2.920E-06,-0.200
2.930E-06,-0.144
2.940E-06,-0.096
2.950E-06,-0.024
2.960E-06,0.032
2.970E-06,0.000
2.980E-06,-0.048
2.990E-06,-0.024
3.000E-06,0.016
3.010E-06,0.048
3.020E-06,-0.072
3.030E-06,-0.184
3.040E-06,-0.168
3.050E-06,-0.152
3.060E-06,-0.144
3.070E-06,-0.200
3.080E-06,-0.264
3.090E-06,-0.248
3.100E-06,-0.168
3.110E-06,-0.128
3.120E-06,-0.080
3.130E-06,-0.048
3.140E-06,0.000
3.150E-06,0.112
3.160E-06,0.192
3.170E-06,0.224
3.180E-06,0.168
3.190E-06,0.088
3.200E-06,0.032
3.210E-06,0.088
3.220E-06,0.112
3.230E-06,0.152
3.240E-06,0.208
3.250E-06,0.240
3.260E-06,0.232
3.270E-06,0.232
3.280E-06,0.216
3.290E-06,0.184
3.300E-06,0.152
3.310E-06,0.096
3.320E-06,0.032
3.330E-06,-0.008
3.340E-06,0.016
3.350E-06,0.024
3.360E-06,-0.064
3.370E-06,0.104
3.380E-06,-0.112
3.390E-06,-0.136
3.400E-06,-0.208
3.410E-06,-0.304
3.420E-06,-0.304
3.430E-06,-0.208
