mediciones/6-26/28.6/WaveData59217.csv

#timebase=2000000(ps)
,#voltbase=200000(mv/100)
#size=4000
-8.150E-06,0.000
-8.140E-06,0.000
-8.130E-06,0.000
-8.120E-06,0.000
-8.110E-06,0.000
-8.100E-06,0.008
-8.090E-06,0.000
-8.080E-06,0.000
-8.070E-06,0.000
-8.060E-06,0.000
-8.050E-06,0.000
-8.040E-06,0.000
-8.030E-06,0.008
-8.020E-06,0.008
-8.010E-06,0.008
-8.000E-06,-0.008
-7.990E-06,0.000
-7.980E-06,0.008
-7.970E-06,0.008
-7.960E-06,0.000
-7.950E-06,-0.008
-7.940E-06,0.000
-7.930E-06,0.000
-7.920E-06,0.000
-7.910E-06,0.008
-7.900E-06,0.008
-7.890E-06,-0.008
-7.880E-06,-0.008
-7.870E-06,0.000
-7.860E-06,-0.008
-7.850E-06,0.008
-7.840E-06,0.000
-7.830E-06,0.008
-7.820E-06,0.000
-7.810E-06,-0.008
-7.800E-06,0.000
-7.790E-06,0.008
-7.780E-06,-0.008
-7.770E-06,0.000
-7.760E-06,0.008
-7.750E-06,0.000
-7.740E-06,-0.008
-7.730E-06,0.000
-7.720E-06,0.000
-7.710E-06,0.000
-7.700E-06,0.008
-7.690E-06,0.000
-7.680E-06,-0.008
-7.670E-06,0.000
-7.660E-06,0.008
-7.650E-06,0.008
-7.640E-06,-0.008
-7.630E-06,0.000
-7.620E-06,0.008
-7.610E-06,0.000
-7.600E-06,0.008
-7.590E-06,0.008
-7.580E-06,0.000
-7.570E-06,-0.008
-7.560E-06,0.000
-7.550E-06,0.000
-7.540E-06,0.000
-7.530E-06,0.000
-7.520E-06,0.000
-7.510E-06,0.000
-7.500E-06,0.016
-7.490E-06,-0.008
-7.480E-06,0.008
-7.470E-06,0.000
-7.460E-06,0.000
-7.450E-06,0.000
-7.440E-06,0.008
-7.430E-06,0.000
-7.420E-06,0.008
-7.410E-06,0.008
-7.400E-06,0.008
-7.390E-06,-0.008
-7.380E-06,0.000
-7.370E-06,0.000
-7.360E-06,0.000
-7.350E-06,0.000
-7.340E-06,-0.008
-7.330E-06,0.000
-7.320E-06,0.000
-7.310E-06,0.000
-7.300E-06,0.008
-7.290E-06,0.008
-7.280E-06,0.008
-7.270E-06,0.016
-7.260E-06,-0.008
-7.250E-06,0.000
-7.240E-06,0.000
-7.230E-06,0.000
-7.220E-06,0.000
-7.210E-06,0.000
-7.200E-06,0.000
-7.190E-06,0.000
-7.180E-06,0.000
-7.170E-06,0.008
-7.160E-06,-0.008
-7.150E-06,0.000
-7.140E-06,0.008
-7.130E-06,-0.008
-7.120E-06,0.008
-7.110E-06,0.000
-7.100E-06,0.008
-7.090E-06,0.016
-7.080E-06,0.008
-7.070E-06,-0.008
-7.060E-06,0.000
-7.050E-06,0.000
-7.040E-06,0.008
-7.030E-06,0.000
-7.020E-06,-0.008
-7.010E-06,-0.008
-7.000E-06,0.000
-6.990E-06,0.000
-6.980E-06,0.008
-6.970E-06,0.008
-6.960E-06,-0.008
-6.950E-06,0.000
-6.940E-06,0.000
-6.930E-06,0.008
-6.920E-06,0.000
-6.910E-06,0.000
-6.900E-06,0.000
-6.890E-06,0.008
-6.880E-06,-0.008
-6.870E-06,0.000
-6.860E-06,0.000
-6.850E-06,0.000
-6.840E-06,-0.008
-6.830E-06,0.000
-6.820E-06,-0.008
-6.810E-06,0.000
-6.800E-06,0.000
-6.790E-06,0.000
-6.780E-06,0.000
-6.770E-06,0.000
-6.760E-06,0.008
-6.750E-06,0.000
-6.740E-06,-0.008
-6.730E-06,0.000
-6.720E-06,0.000
-6.710E-06,0.000
-6.700E-06,0.000
-6.690E-06,0.000
-6.680E-06,-0.008
-6.670E-06,0.000
-6.660E-06,-0.008
-6.650E-06,0.000
-6.640E-06,-0.008
-6.630E-06,-0.008
-6.620E-06,0.000
-6.610E-06,-0.008
-6.600E-06,0.008
-6.590E-06,-0.008
-6.580E-06,0.008
-6.570E-06,0.000
-6.560E-06,0.000
-6.550E-06,0.000
-6.540E-06,0.000
-6.530E-06,0.000
-6.520E-06,0.000
-6.510E-06,-0.008
-6.500E-06,0.000
-6.490E-06,0.008
-6.480E-06,0.008
-6.470E-06,0.008
-6.460E-06,0.008
-6.450E-06,0.000
-6.440E-06,-0.008
-6.430E-06,0.000
-6.420E-06,0.000
-6.410E-06,0.000
-6.400E-06,0.000
-6.390E-06,0.000
-6.380E-06,0.000
-6.370E-06,0.000
-6.360E-06,-0.008
-6.350E-06,0.000
-6.340E-06,-0.008
-6.330E-06,0.000
-6.320E-06,0.008
-6.310E-06,0.000
-6.300E-06,0.000
-6.290E-06,0.000
-6.280E-06,0.000
-6.270E-06,0.000
-6.260E-06,0.000
-6.250E-06,0.000
-6.240E-06,0.000
-6.230E-06,-0.008
-6.220E-06,0.000
-6.210E-06,0.000
-6.200E-06,0.000
-6.190E-06,-0.008
-6.180E-06,0.008
-6.170E-06,0.008
-6.160E-06,0.008
-6.150E-06,-0.008
-6.140E-06,0.000
-6.130E-06,0.000
-6.120E-06,0.000
-6.110E-06,-0.008
-6.100E-06,0.000
-6.090E-06,0.000
-6.080E-06,0.000
-6.070E-06,-0.008
-6.060E-06,0.000
-6.050E-06,0.000
-6.040E-06,0.000
-6.030E-06,0.000
-6.020E-06,0.000
-6.010E-06,-0.008
-6.000E-06,0.000
-5.990E-06,0.000
-5.980E-06,0.008
-5.970E-06,0.000
-5.960E-06,0.000
-5.950E-06,0.000
-5.940E-06,0.000
-5.930E-06,0.000
-5.920E-06,-0.008
-5.910E-06,-0.008
-5.900E-06,0.000
-5.890E-06,0.000
-5.880E-06,-0.008
-5.870E-06,0.008
-5.860E-06,0.008
-5.850E-06,-0.008
-5.840E-06,0.008
-5.830E-06,0.000
-5.820E-06,0.008
-5.810E-06,0.008
-5.800E-06,0.008
-5.790E-06,0.000
-5.780E-06,0.000
-5.770E-06,0.000
-5.760E-06,0.000
-5.750E-06,0.000
-5.740E-06,0.000
-5.730E-06,-0.008
-5.720E-06,-0.008
-5.710E-06,0.008
-5.700E-06,-0.008
-5.690E-06,0.000
-5.680E-06,-0.008
-5.670E-06,-0.008
-5.660E-06,0.000
-5.650E-06,-0.008
-5.640E-06,0.000
-5.630E-06,-0.008
-5.620E-06,0.000
-5.610E-06,0.008
-5.600E-06,0.008
-5.590E-06,0.008
-5.580E-06,0.008
-5.570E-06,0.016
-5.560E-06,-0.008
-5.550E-06,-0.008
-5.540E-06,0.008
-5.530E-06,-0.008
-5.520E-06,0.000
-5.510E-06,0.008
-5.500E-06,0.000
-5.490E-06,0.000
-5.480E-06,0.000
-5.470E-06,0.000
-5.460E-06,0.000
-5.450E-06,0.000
-5.440E-06,0.000
-5.430E-06,-0.008
-5.420E-06,0.008
-5.410E-06,-0.008
-5.400E-06,0.000
-5.390E-06,-0.008
-5.380E-06,0.000
-5.370E-06,0.000
-5.360E-06,0.000
-5.350E-06,0.008
-5.340E-06,0.000
-5.330E-06,0.008
-5.320E-06,0.000
-5.310E-06,0.000
-5.300E-06,-0.008
-5.290E-06,0.000
-5.280E-06,0.008
-5.270E-06,0.008
-5.260E-06,0.000
-5.250E-06,0.000
-5.240E-06,0.000
-5.230E-06,0.000
-5.220E-06,0.000
-5.210E-06,-0.008
-5.200E-06,0.000
-5.190E-06,0.008
-5.180E-06,-0.008
-5.170E-06,-0.008
-5.160E-06,0.000
-5.150E-06,-0.008
-5.140E-06,0.008
-5.130E-06,0.000
-5.120E-06,0.000
-5.110E-06,0.008
-5.100E-06,0.000
-5.090E-06,0.000
-5.080E-06,0.000
-5.070E-06,0.000
-5.060E-06,0.008
-5.050E-06,0.008
-5.040E-06,-0.008
-5.030E-06,-0.008
-5.020E-06,0.000
-5.010E-06,-0.008
-5.000E-06,0.000
-4.990E-06,0.000
-4.980E-06,0.008
-4.970E-06,0.000
-4.960E-06,0.000
-4.950E-06,0.000
-4.940E-06,0.000
-4.930E-06,-0.008
-4.920E-06,-0.008
-4.910E-06,0.000
-4.900E-06,-0.008
-4.890E-06,0.000
-4.880E-06,-0.008
-4.870E-06,0.000
-4.860E-06,0.000
-4.850E-06,0.000
-4.840E-06,0.000
-4.830E-06,0.008
-4.820E-06,0.008
-4.810E-06,0.008
-4.800E-06,0.008
-4.790E-06,0.016
-4.780E-06,-0.008
-4.770E-06,0.008
-4.760E-06,0.008
-4.750E-06,0.000
-4.740E-06,0.000
-4.730E-06,0.008
-4.720E-06,0.016
-4.710E-06,0.016
-4.700E-06,0.008
-4.690E-06,-0.008
-4.680E-06,0.000
-4.670E-06,0.000
-4.660E-06,0.000
-4.650E-06,-0.008
-4.640E-06,0.000
-4.630E-06,0.000
-4.620E-06,0.000
-4.610E-06,0.000
-4.600E-06,0.000
-4.590E-06,-0.008
-4.580E-06,-0.008
-4.570E-06,0.000
-4.560E-06,0.016
-4.550E-06,-0.008
-4.540E-06,0.000
-4.530E-06,0.000
-4.520E-06,0.000
-4.510E-06,0.000
-4.500E-06,-0.008
-4.490E-06,-0.008
-4.480E-06,0.000
-4.470E-06,0.008
-4.460E-06,-0.008
-4.450E-06,-0.008
-4.440E-06,0.000
-4.430E-06,-0.008
-4.420E-06,0.000
-4.410E-06,0.000
-4.400E-06,0.000
-4.390E-06,0.000
-4.380E-06,0.000
-4.370E-06,0.000
-4.360E-06,-0.008
-4.350E-06,0.008
-4.340E-06,0.008
-4.330E-06,0.016
-4.320E-06,-0.008
-4.310E-06,0.000
-4.300E-06,0.008
-4.290E-06,0.016
-4.280E-06,0.000
-4.270E-06,0.008
-4.260E-06,0.008
-4.250E-06,0.016
-4.240E-06,0.000
-4.230E-06,-0.008
-4.220E-06,0.008
-4.210E-06,0.008
-4.200E-06,0.000
-4.190E-06,0.000
-4.180E-06,0.000
-4.170E-06,0.008
-4.160E-06,0.008
-4.150E-06,0.016
-4.140E-06,0.016
-4.130E-06,0.008
-4.120E-06,0.008
-4.110E-06,-0.008
-4.100E-06,0.000
-4.090E-06,0.008
-4.080E-06,0.008
-4.070E-06,0.000
-4.060E-06,0.000
-4.050E-06,0.000
-4.040E-06,0.000
-4.030E-06,-0.008
-4.020E-06,0.000
-4.010E-06,0.008
-4.000E-06,0.000
-3.990E-06,0.008
-3.980E-06,-0.008
-3.970E-06,0.000
-3.960E-06,0.000
-3.950E-06,0.000
-3.940E-06,0.000
-3.930E-06,-0.024
-3.920E-06,-0.016
-3.910E-06,0.072
-3.900E-06,0.472
-3.890E-06,1.072
-3.880E-06,1.080
-3.870E-06,1.088
-3.860E-06,1.088
-3.850E-06,0.952
-3.840E-06,-0.176
-3.830E-06,-1.040
-3.820E-06,-1.048
-3.810E-06,-1.040
-3.800E-06,-1.032
-3.790E-06,-1.032
-3.780E-06,-1.040
-3.770E-06,-1.040
-3.760E-06,-1.040
-3.750E-06,-1.040
-3.740E-06,-0.736
-3.730E-06,-0.096
-3.720E-06,0.328
-3.710E-06,0.440
-3.700E-06,0.368
-3.690E-06,0.272
-3.680E-06,0.264
-3.670E-06,0.368
-3.660E-06,0.488
-3.650E-06,0.568
-3.640E-06,0.544
-3.630E-06,0.456
-3.620E-06,0.376
-3.610E-06,0.352
-3.600E-06,0.400
-3.590E-06,0.448
-3.580E-06,0.456
-3.570E-06,0.376
-3.560E-06,0.224
-3.550E-06,0.032
-3.540E-06,-0.112
-3.530E-06,-0.200
-3.520E-06,-0.216
-3.510E-06,-0.160
-3.500E-06,-0.120
-3.490E-06,-0.048
-3.480E-06,0.040
-3.470E-06,0.136
-3.460E-06,0.264
-3.450E-06,0.416
-3.440E-06,0.568
-3.430E-06,0.672
-3.420E-06,0.712
-3.410E-06,0.688
-3.400E-06,0.592
-3.390E-06,0.472
-3.380E-06,0.312
-3.370E-06,0.136
-3.360E-06,-0.064
-3.350E-06,-0.248
-3.340E-06,-0.432
-3.330E-06,-0.600
-3.320E-06,-0.776
-3.310E-06,-0.936
-3.300E-06,-1.032
-3.290E-06,-1.040
-3.280E-06,-1.032
-3.270E-06,-1.032
-3.260E-06,-0.904
-3.250E-06,-0.656
-3.240E-06,-0.416
-3.230E-06,-0.192
-3.220E-06,-0.008
-3.210E-06,0.192
-3.200E-06,0.368
-3.190E-06,0.496
-3.180E-06,0.600
-3.170E-06,0.640
-3.160E-06,0.608
-3.150E-06,0.536
-3.140E-06,0.424
-3.130E-06,0.312
-3.120E-06,0.208
-3.110E-06,0.120
-3.100E-06,0.040
-3.090E-06,-0.024
-3.080E-06,-0.064
-3.070E-06,-0.096
-3.060E-06,-0.104
-3.050E-06,-0.120
-3.040E-06,-0.136
-3.030E-06,-0.160
-3.020E-06,-0.192
-3.010E-06,-0.224
-3.000E-06,-0.232
-2.990E-06,-0.232
-2.980E-06,-0.200
-2.970E-06,-0.136
-2.960E-06,-0.056
-2.950E-06,0.016
-2.940E-06,0.096
-2.930E-06,0.152
-2.920E-06,0.200
-2.910E-06,0.248
-2.900E-06,0.264
-2.890E-06,0.256
-2.880E-06,0.232
-2.870E-06,0.184
-2.860E-06,0.128
-2.850E-06,0.064
-2.840E-06,0.008
-2.830E-06,-0.032
-2.820E-06,-0.072
-2.810E-06,-0.088
-2.800E-06,-0.096
-2.790E-06,-0.104
-2.780E-06,-0.088
-2.770E-06,-0.064
-2.760E-06,-0.056
-2.750E-06,-0.032
-2.740E-06,-0.040
-2.730E-06,-0.016
-2.720E-06,-0.032
-2.710E-06,-0.040
-2.700E-06,0.040
-2.690E-06,0.200
-2.680E-06,0.016
-2.670E-06,-0.184
-2.660E-06,-0.304
-2.650E-06,-0.080
-2.640E-06,-0.272
-2.630E-06,0.368
-2.620E-06,0.384
-2.610E-06,0.136
-2.600E-06,-0.016
-2.590E-06,-0.200
-2.580E-06,-0.152
-2.570E-06,0.048
-2.560E-06,0.208
-2.550E-06,0.264
-2.540E-06,0.248
-2.530E-06,-0.040
-2.520E-06,-0.144
-2.510E-06,-0.168
-2.500E-06,-0.088
-2.490E-06,0.064
-2.480E-06,0.096
-2.470E-06,0.104
-2.460E-06,0.000
-2.450E-06,-0.072
-2.440E-06,-0.104
-2.430E-06,-0.048
-2.420E-06,0.024
-2.410E-06,0.088
-2.400E-06,0.120
-2.390E-06,0.112
-2.380E-06,0.040
-2.370E-06,0.008
-2.360E-06,0.008
-2.350E-06,0.048
-2.340E-06,0.064
-2.330E-06,0.128
-2.320E-06,0.104
-2.310E-06,0.088
-2.300E-06,0.040
-2.290E-06,0.016
-2.280E-06,0.016
-2.270E-06,0.016
-2.260E-06,0.016
-2.250E-06,-0.008
-2.240E-06,-0.008
-2.230E-06,-0.032
-2.220E-06,-0.064
-2.210E-06,-0.096
-2.200E-06,-0.104
-2.190E-06,-0.128
-2.180E-06,-0.120
-2.170E-06,-0.072
-2.160E-06,-0.040
-2.150E-06,0.016
-2.140E-06,0.048
-2.130E-06,0.040
-2.120E-06,0.064
-2.110E-06,0.088
-2.100E-06,0.120
-2.090E-06,0.184
-2.080E-06,0.216
-2.070E-06,0.240
-2.060E-06,0.216
-2.050E-06,0.184
-2.040E-06,0.144
-2.030E-06,0.120
-2.020E-06,0.104
-2.010E-06,0.104
-2.000E-06,0.080
-1.990E-06,0.056
-1.980E-06,0.008
-1.970E-06,-0.040
-1.960E-06,-0.056
-1.950E-06,-0.064
-1.940E-06,-0.056
-1.930E-06,-0.048
-1.920E-06,-0.032
-1.910E-06,-0.048
-1.900E-06,-0.064
-1.890E-06,-0.064
-1.880E-06,-0.040
-1.870E-06,-0.024
-1.860E-06,-0.008
-1.850E-06,0.000
-1.840E-06,0.008
-1.830E-06,0.008
-1.820E-06,0.024
-1.810E-06,0.032
-1.800E-06,0.040
-1.790E-06,0.072
-1.780E-06,0.064
-1.770E-06,0.072
-1.760E-06,0.064
-1.750E-06,0.048
-1.740E-06,0.032
-1.730E-06,0.040
-1.720E-06,0.032
-1.710E-06,0.032
-1.700E-06,0.016
-1.690E-06,0.016
-1.680E-06,0.000
-1.670E-06,0.016
-1.660E-06,0.024
-1.650E-06,0.040
-1.640E-06,0.032
-1.630E-06,0.040
-1.620E-06,0.072
-1.610E-06,0.080
-1.600E-06,0.120
-1.590E-06,0.144
-1.580E-06,0.160
-1.570E-06,0.160
-1.560E-06,0.136
-1.550E-06,0.064
-1.540E-06,-0.024
-1.530E-06,-0.144
-1.520E-06,-0.224
-1.510E-06,-0.216
-1.500E-06,-0.136
-1.490E-06,0.032
-1.480E-06,0.224
-1.470E-06,0.368
-1.460E-06,0.432
-1.450E-06,0.432
-1.440E-06,0.416
-1.430E-06,0.448
-1.420E-06,0.504
-1.410E-06,0.608
-1.400E-06,0.680
-1.390E-06,0.728
-1.380E-06,0.704
-1.370E-06,0.640
-1.360E-06,0.616
-1.350E-06,0.600
-1.340E-06,0.616
-1.330E-06,0.632
-1.320E-06,0.648
-1.310E-06,0.648
-1.300E-06,0.648
-1.290E-06,0.632
-1.280E-06,0.648
-1.270E-06,0.656
-1.260E-06,0.704
-1.250E-06,0.800
-1.240E-06,0.832
-1.230E-06,0.904
-1.220E-06,0.968
-1.210E-06,0.984
-1.200E-06,1.080
-1.190E-06,1.088
-1.180E-06,1.000
-1.170E-06,1.008
-1.160E-06,0.992
-1.150E-06,1.032
-1.140E-06,1.024
-1.130E-06,1.064
-1.120E-06,0.768
-1.110E-06,0.688
-1.100E-06,0.568
-1.090E-06,0.424
-1.080E-06,0.536
-1.070E-06,0.296
-1.060E-06,0.312
-1.050E-06,0.352
-1.040E-06,0.192
-1.030E-06,0.432
-1.020E-06,0.280
-1.010E-06,0.296
-1.000E-06,0.416
-9.900E-07,0.360
-9.800E-07,0.408
-9.700E-07,0.432
-9.600E-07,0.512
-9.500E-07,0.624
-9.400E-07,0.672
-9.300E-07,0.624
-9.200E-07,0.640
-9.100E-07,0.712
-9.000E-07,0.720
-8.900E-07,0.776
-8.800E-07,0.792
-8.700E-07,0.808
-8.600E-07,1.000
-8.500E-07,1.016
-8.400E-07,0.632
-8.300E-07,0.816
-8.200E-07,0.776
-8.100E-07,0.264
-8.000E-07,0.392
-7.900E-07,0.224
-7.800E-07,-0.304
-7.700E-07,-0.072
-7.600E-07,-0.296
-7.500E-07,-0.608
-7.400E-07,-0.056
-7.300E-07,-0.328
-7.200E-07,-0.368
-7.100E-07,-0.112
-7.000E-07,-0.632
-6.900E-07,-0.664
-6.800E-07,-0.528
-6.700E-07,-0.200
-6.600E-07,0.592
-6.500E-07,0.632
-6.400E-07,0.608
-6.300E-07,0.600
-6.200E-07,0.344
-6.100E-07,0.016
-6.000E-07,-0.224
-5.900E-07,-0.112
-5.800E-07,0.160
-5.700E-07,0.456
-5.600E-07,0.464
-5.500E-07,0.168
-5.400E-07,0.000
-5.300E-07,-0.080
-5.200E-07,-0.160
-5.100E-07,-0.160
-5.000E-07,-0.200
-4.900E-07,-0.256
-4.800E-07,-0.120
-4.700E-07,0.168
-4.600E-07,0.632
-4.500E-07,1.080
-4.400E-07,1.088
-4.300E-07,1.088
-4.200E-07,1.080
-4.100E-07,1.088
-4.000E-07,1.080
-3.900E-07,1.080
-3.800E-07,1.080
-3.700E-07,1.080
-3.600E-07,1.080
-3.500E-07,0.704
-3.400E-07,0.240
-3.300E-07,0.664
-3.200E-07,0.392
-3.100E-07,0.864
-3.000E-07,0.832
-2.900E-07,0.944
-2.800E-07,1.064
-2.700E-07,1.080
-2.600E-07,1.080
-2.500E-07,1.080
-2.400E-07,1.080
-2.300E-07,1.072
-2.200E-07,1.080
-2.100E-07,1.088
-2.000E-07,1.088
-1.900E-07,1.080
-1.800E-07,1.080
-1.700E-07,1.072
-1.600E-07,1.080
-1.500E-07,1.088
-1.400E-07,1.080
-1.300E-07,1.080
-1.200E-07,1.088
-1.100E-07,0.904
-1.000E-07,0.840
-9.000E-08,0.856
-8.000E-08,1.032
-7.000E-08,1.008
-6.000E-08,1.064
-5.000E-08,0.288
-4.000E-08,-1.032
-3.000E-08,-0.992
-2.000E-08,-1.040
-1.000E-08,-1.048
0.000E+00,-1.040
1.000E-08,-1.040
2.000E-08,-0.496
3.000E-08,1.080
4.000E-08,1.080
5.000E-08,1.072
6.000E-08,1.080
7.000E-08,1.088
8.000E-08,1.088
9.000E-08,1.080
1.000E-07,1.080
1.100E-07,1.072
1.200E-07,1.080
1.300E-07,1.080
1.400E-07,1.088
1.500E-07,1.080
1.600E-07,1.072
1.700E-07,1.080
1.800E-07,1.048
1.900E-07,0.984
2.000E-07,1.008
2.100E-07,0.904
2.200E-07,0.880
2.300E-07,0.848
2.400E-07,0.960
2.500E-07,1.072
2.600E-07,1.080
2.700E-07,1.088
2.800E-07,1.040
2.900E-07,1.032
3.000E-07,1.056
3.100E-07,1.088
3.200E-07,1.088
3.300E-07,1.080
3.400E-07,1.080
3.500E-07,1.080
3.600E-07,1.080
3.700E-07,1.072
3.800E-07,1.080
3.900E-07,1.080
4.000E-07,1.072
4.100E-07,0.808
4.200E-07,0.256
4.300E-07,-0.312
4.400E-07,-0.864
4.500E-07,-1.040
4.600E-07,-1.040
4.700E-07,-1.040
4.800E-07,-0.992
4.900E-07,-0.584
5.000E-07,-0.184
5.100E-07,0.192
5.200E-07,0.512
5.300E-07,0.856
5.400E-07,1.088
5.500E-07,1.080
5.600E-07,1.072
5.700E-07,1.080
5.800E-07,1.088
5.900E-07,1.080
6.000E-07,1.072
6.100E-07,1.080
6.200E-07,1.088
6.300E-07,0.504
6.400E-07,-0.192
6.500E-07,-1.048
6.600E-07,-1.032
6.700E-07,-1.032
6.800E-07,-1.040
6.900E-07,-1.040
7.000E-07,-1.040
7.100E-07,-1.040
7.200E-07,-1.048
7.300E-07,-1.040
7.400E-07,-1.048
7.500E-07,-1.048
7.600E-07,-1.032
7.700E-07,-1.032
7.800E-07,-1.040
7.900E-07,-1.032
8.000E-07,-1.040
8.100E-07,-1.040
8.200E-07,-1.040
8.300E-07,-1.040
8.400E-07,-1.048
8.500E-07,-1.040
8.600E-07,-1.032
8.700E-07,-1.040
8.800E-07,-1.040
8.900E-07,-1.048
9.000E-07,-1.040
9.100E-07,-1.032
9.200E-07,-1.040
9.300E-07,-0.904
9.400E-07,-0.576
9.500E-07,-0.168
9.600E-07,0.056
9.700E-07,0.272
9.800E-07,0.464
9.900E-07,0.608
1.000E-06,0.728
1.010E-06,0.848
1.020E-06,0.968
1.030E-06,1.088
1.040E-06,1.080
1.050E-06,1.080
1.060E-06,1.088
1.070E-06,1.080
1.080E-06,1.080
1.090E-06,1.080
1.100E-06,1.072
1.110E-06,1.080
1.120E-06,1.088
1.130E-06,1.080
1.140E-06,1.088
1.150E-06,1.080
1.160E-06,1.080
1.170E-06,1.088
1.180E-06,1.088
1.190E-06,1.080
1.200E-06,1.088
1.210E-06,1.088
1.220E-06,1.080
1.230E-06,1.080
1.240E-06,1.080
1.250E-06,1.024
1.260E-06,0.992
1.270E-06,0.968
1.280E-06,1.024
1.290E-06,1.080
1.300E-06,1.080
1.310E-06,1.072
1.320E-06,1.080
1.330E-06,1.080
1.340E-06,1.072
1.350E-06,0.880
1.360E-06,0.696
1.370E-06,0.496
1.380E-06,0.296
1.390E-06,0.104
1.400E-06,-0.088
1.410E-06,-0.264
1.420E-06,-0.400
1.430E-06,-0.536
1.440E-06,-0.608
1.450E-06,-0.632
1.460E-06,-0.624
1.470E-06,-0.536
1.480E-06,-0.464
1.490E-06,-0.392
1.500E-06,-0.336
1.510E-06,-0.304
1.520E-06,-0.272
1.530E-06,-0.192
1.540E-06,-0.144
1.550E-06,-0.144
1.560E-06,-0.160
1.570E-06,-0.184
1.580E-06,-0.168
1.590E-06,-0.096
1.600E-06,0.008
1.610E-06,0.128
1.620E-06,0.208
1.630E-06,0.240
1.640E-06,0.224
1.650E-06,0.200
1.660E-06,0.160
1.670E-06,0.152
1.680E-06,0.136
1.690E-06,0.120
1.700E-06,0.104
1.710E-06,0.128
1.720E-06,0.136
1.730E-06,0.136
1.740E-06,0.168
1.750E-06,0.224
1.760E-06,0.248
1.770E-06,0.240
1.780E-06,0.224
1.790E-06,0.176
1.800E-06,0.136
1.810E-06,0.112
1.820E-06,0.096
1.830E-06,0.080
1.840E-06,0.064
1.850E-06,0.048
1.860E-06,0.032
1.870E-06,0.008
1.880E-06,-0.016
1.890E-06,-0.024
1.900E-06,-0.008
1.910E-06,0.000
1.920E-06,0.024
1.930E-06,0.024
1.940E-06,0.032
1.950E-06,0.040
1.960E-06,0.048
1.970E-06,0.016
1.980E-06,0.008
1.990E-06,0.008
2.000E-06,0.008
2.010E-06,0.000
2.020E-06,-0.008
2.030E-06,-0.024
2.040E-06,-0.048
2.050E-06,-0.064
2.060E-06,-0.064
2.070E-06,-0.064
2.080E-06,-0.064
2.090E-06,-0.048
2.100E-06,-0.040
2.110E-06,-0.024
2.120E-06,-0.024
2.130E-06,-0.008
2.140E-06,0.000
2.150E-06,0.016
2.160E-06,0.016
2.170E-06,0.016
2.180E-06,0.000
2.190E-06,-0.024
2.200E-06,-0.064
2.210E-06,-0.112
2.220E-06,-0.144
2.230E-06,-0.160
2.240E-06,-0.136
2.250E-06,-0.040
2.260E-06,0.096
2.270E-06,0.200
2.280E-06,0.312
2.290E-06,0.344
2.300E-06,0.344
2.310E-06,0.328
2.320E-06,0.280
2.330E-06,0.208
2.340E-06,0.152
2.350E-06,0.080
2.360E-06,0.008
2.370E-06,-0.056
2.380E-06,-0.104
2.390E-06,-0.136
2.400E-06,-0.152
2.410E-06,-0.152
2.420E-06,-0.128
2.430E-06,-0.112
2.440E-06,-0.072
2.450E-06,-0.056
2.460E-06,-0.040
2.470E-06,-0.040
2.480E-06,-0.048
2.490E-06,-0.056
2.500E-06,-0.112
2.510E-06,-0.160
2.520E-06,-0.224
2.530E-06,-0.256
2.540E-06,-0.280
2.550E-06,-0.280
2.560E-06,-0.264
2.570E-06,-0.240
2.580E-06,-0.200
2.590E-06,-0.152
2.600E-06,-0.112
2.610E-06,-0.088
2.620E-06,-0.040
2.630E-06,-0.008
2.640E-06,-0.008
2.650E-06,-0.008
2.660E-06,-0.008
2.670E-06,-0.016
2.680E-06,0.008
2.690E-06,0.008
2.700E-06,0.016
2.710E-06,0.016
2.720E-06,0.000
2.730E-06,-0.032
2.740E-06,-0.064
2.750E-06,-0.128
2.760E-06,-0.200
2.770E-06,-0.272
2.780E-06,-0.304
2.790E-06,-0.304
2.800E-06,-0.256
2.810E-06,-0.200
2.820E-06,-0.128
2.830E-06,-0.056
2.840E-06,0.000
2.850E-06,0.024
2.860E-06,0.048
2.870E-06,0.048
2.880E-06,0.040
2.890E-06,0.024
2.900E-06,0.008
2.910E-06,-0.016
2.920E-06,-0.048
2.930E-06,-0.088
2.940E-06,-0.120
2.950E-06,-0.160
2.960E-06,-0.192
2.970E-06,-0.216
2.980E-06,-0.248
2.990E-06,-0.272
3.000E-06,-0.304
3.010E-06,-0.312
3.020E-06,-0.320
3.030E-06,-0.320
3.040E-06,-0.288
3.050E-06,-0.264
3.060E-06,-0.248
3.070E-06,-0.208
3.080E-06,-0.136
3.090E-06,-0.104
3.100E-06,-0.088
3.110E-06,-0.072
3.120E-06,-0.024
3.130E-06,-0.024
3.140E-06,-0.024
3.150E-06,-0.080
3.160E-06,-0.144
3.170E-06,-0.208
3.180E-06,-0.224
3.190E-06,-0.232
3.200E-06,-0.208
3.210E-06,-0.136
3.220E-06,-0.064
3.230E-06,0.000
3.240E-06,0.040
3.250E-06,0.080
3.260E-06,0.056
3.270E-06,0.008
3.280E-06,-0.056
3.290E-06,-0.160
3.300E-06,-0.264
3.310E-06,-0.328
3.320E-06,-0.384
3.330E-06,-0.416
3.340E-06,-0.424
3.350E-06,-0.408
3.360E-06,-0.360
3.370E-06,-0.288
3.380E-06,-0.200
3.390E-06,-0.128
3.400E-06,-0.040
3.410E-06,0.000
3.420E-06,0.016
3.430E-06,0.016
3.440E-06,0.008
3.450E-06,0.000
3.460E-06,-0.016
3.470E-06,-0.008
3.480E-06,-0.024
3.490E-06,-0.032
3.500E-06,-0.032
3.510E-06,-0.024
3.520E-06,-0.016
3.530E-06,0.000
3.540E-06,0.000
