mediciones/6-10/15/WaveData5557.csv

#timebase=2000000(ps)
,#voltbase=500000(mv/100)
#size=4000
-4.250E-06,-0.560
-4.240E-06,-0.240
-4.230E-06,-0.180
-4.220E-06,-0.080
-4.210E-06,-0.220
-4.200E-06,-0.440
-4.190E-06,-0.500
-4.180E-06,-0.320
-4.170E-06,-0.100
-4.160E-06,0.060
-4.150E-06,-0.020
-4.140E-06,-0.220
-4.130E-06,-0.260
-4.120E-06,-0.200
-4.110E-06,-0.020
-4.100E-06,0.220
-4.090E-06,0.280
-4.080E-06,0.180
-4.070E-06,0.080
-4.060E-06,-0.020
-4.050E-06,0.020
-4.040E-06,0.160
-4.030E-06,0.240
-4.020E-06,0.240
-4.010E-06,0.180
-4.000E-06,0.080
-3.990E-06,0.020
-3.980E-06,0.080
-3.970E-06,0.120
-3.960E-06,0.100
-3.950E-06,0.080
-3.940E-06,-0.020
-3.930E-06,-0.040
-3.920E-06,-0.060
-3.910E-06,0.000
-3.900E-06,-0.020
-3.890E-06,0.000
-3.880E-06,-0.020
-3.870E-06,-0.080
-3.860E-06,-0.100
-3.850E-06,-0.160
-3.840E-06,-0.100
-3.830E-06,-0.020
-3.820E-06,0.000
-3.810E-06,0.060
-3.800E-06,0.020
-3.790E-06,-0.060
-3.780E-06,-0.020
-3.770E-06,0.000
-3.760E-06,0.100
-3.750E-06,0.160
-3.740E-06,0.180
-3.730E-06,0.160
-3.720E-06,0.140
-3.710E-06,0.180
-3.700E-06,0.160
-3.690E-06,0.200
-3.680E-06,0.240
-3.670E-06,0.200
-3.660E-06,0.200
-3.650E-06,0.140
-3.640E-06,0.080
-3.630E-06,0.080
-3.620E-06,0.080
-3.610E-06,0.100
-3.600E-06,0.140
-3.590E-06,0.120
-3.580E-06,0.160
-3.570E-06,0.180
-3.560E-06,0.160
-3.550E-06,0.100
-3.540E-06,0.080
-3.530E-06,0.020
-3.520E-06,0.080
-3.510E-06,0.120
-3.500E-06,0.160
-3.490E-06,0.200
-3.480E-06,0.100
-3.470E-06,0.040
-3.460E-06,-0.040
-3.450E-06,0.000
-3.440E-06,0.000
-3.430E-06,0.100
-3.420E-06,0.100
-3.410E-06,-0.040
-3.400E-06,0.100
-3.390E-06,0.040
-3.380E-06,0.080
-3.370E-06,0.220
-3.360E-06,-0.040
-3.350E-06,0.000
-3.340E-06,-0.120
-3.330E-06,-0.140
-3.320E-06,0.020
-3.310E-06,0.060
-3.300E-06,0.100
-3.290E-06,0.060
-3.280E-06,-0.020
-3.270E-06,-0.080
-3.260E-06,-0.080
-3.250E-06,0.000
-3.240E-06,0.080
-3.230E-06,0.140
-3.220E-06,0.080
-3.210E-06,0.000
-3.200E-06,-0.020
-3.190E-06,0.000
-3.180E-06,0.040
-3.170E-06,0.100
-3.160E-06,0.080
-3.150E-06,0.020
-3.140E-06,0.000
-3.130E-06,0.000
-3.120E-06,0.000
-3.110E-06,0.020
-3.100E-06,0.040
-3.090E-06,0.040
-3.080E-06,0.020
-3.070E-06,0.040
-3.060E-06,0.000
-3.050E-06,0.020
-3.040E-06,0.060
-3.030E-06,0.060
-3.020E-06,0.020
-3.010E-06,-0.060
-3.000E-06,-0.060
-2.990E-06,-0.080
-2.980E-06,-0.040
-2.970E-06,-0.020
-2.960E-06,-0.120
-2.950E-06,-0.060
-2.940E-06,-0.160
-2.930E-06,0.220
-2.920E-06,-0.140
-2.910E-06,0.060
-2.900E-06,0.500
-2.890E-06,0.180
-2.880E-06,1.000
-2.870E-06,0.640
-2.860E-06,0.580
-2.850E-06,0.420
-2.840E-06,0.020
-2.830E-06,0.020
-2.820E-06,0.220
-2.810E-06,0.380
-2.800E-06,0.620
-2.790E-06,0.520
-2.780E-06,0.160
-2.770E-06,-0.040
-2.760E-06,-0.220
-2.750E-06,-0.180
-2.740E-06,-0.040
-2.730E-06,-0.020
-2.720E-06,-0.120
-2.710E-06,-0.280
-2.700E-06,-0.360
-2.690E-06,-0.300
-2.680E-06,-0.380
-2.670E-06,-0.580
-2.660E-06,-0.200
-2.650E-06,-0.460
-2.640E-06,-0.020
-2.630E-06,0.040
-2.620E-06,-0.080
-2.610E-06,-0.040
-2.600E-06,-0.460
-2.590E-06,-0.400
-2.580E-06,-0.220
-2.570E-06,-0.360
-2.560E-06,0.020
-2.550E-06,0.120
-2.540E-06,0.000
-2.530E-06,0.340
-2.520E-06,0.240
-2.510E-06,0.440
-2.500E-06,0.440
-2.490E-06,0.400
-2.480E-06,0.460
-2.470E-06,0.520
-2.460E-06,0.580
-2.450E-06,0.600
-2.440E-06,0.560
-2.430E-06,0.420
-2.420E-06,0.300
-2.410E-06,0.280
-2.400E-06,0.300
-2.390E-06,0.340
-2.380E-06,0.400
-2.370E-06,0.260
-2.360E-06,0.120
-2.350E-06,-0.040
-2.340E-06,-0.080
-2.330E-06,-0.140
-2.320E-06,-0.180
-2.310E-06,-0.240
-2.300E-06,-0.320
-2.290E-06,-0.280
-2.280E-06,-0.320
-2.270E-06,-0.320
-2.260E-06,-0.540
-2.250E-06,-0.520
-2.240E-06,-0.540
-2.230E-06,-0.340
-2.220E-06,0.000
-2.210E-06,0.080
-2.200E-06,0.140
-2.190E-06,0.000
-2.180E-06,-0.180
-2.170E-06,-0.200
-2.160E-06,-0.060
-2.150E-06,0.180
-2.140E-06,0.360
-2.130E-06,0.380
-2.120E-06,0.280
-2.110E-06,0.180
-2.100E-06,0.140
-2.090E-06,0.180
-2.080E-06,0.320
-2.070E-06,0.400
-2.060E-06,0.360
-2.050E-06,0.300
-2.040E-06,0.160
-2.030E-06,0.180
-2.020E-06,0.220
-2.010E-06,0.260
-2.000E-06,0.240
-1.990E-06,0.180
-1.980E-06,0.180
-1.970E-06,0.120
-1.960E-06,0.100
-1.950E-06,0.080
-1.940E-06,0.040
-1.930E-06,-0.040
-1.920E-06,-0.060
-1.910E-06,-0.020
-1.900E-06,-0.020
-1.890E-06,-0.060
-1.880E-06,-0.060
-1.870E-06,-0.140
-1.860E-06,-0.160
-1.850E-06,-0.100
-1.840E-06,-0.060
-1.830E-06,-0.060
-1.820E-06,-0.060
-1.810E-06,-0.100
-1.800E-06,-0.100
-1.790E-06,-0.140
-1.780E-06,-0.080
-1.770E-06,-0.020
-1.760E-06,0.000
-1.750E-06,0.000
-1.740E-06,0.000
-1.730E-06,-0.020
-1.720E-06,-0.020
-1.710E-06,0.000
-1.700E-06,0.020
-1.690E-06,0.000
-1.680E-06,0.020
-1.670E-06,0.060
-1.660E-06,0.080
-1.650E-06,0.120
-1.640E-06,0.080
-1.630E-06,0.060
-1.620E-06,0.080
-1.610E-06,0.060
-1.600E-06,0.100
-1.590E-06,0.020
-1.580E-06,0.100
-1.570E-06,0.120
-1.560E-06,0.120
-1.550E-06,0.180
-1.540E-06,0.180
-1.530E-06,0.120
-1.520E-06,0.100
-1.510E-06,0.000
-1.500E-06,0.000
-1.490E-06,-0.080
-1.480E-06,0.040
-1.470E-06,0.080
-1.460E-06,0.160
-1.450E-06,0.180
-1.440E-06,0.140
-1.430E-06,0.100
-1.420E-06,-0.060
-1.410E-06,0.060
-1.400E-06,0.180
-1.390E-06,0.140
-1.380E-06,0.360
-1.370E-06,0.400
-1.360E-06,0.300
-1.350E-06,0.600
-1.340E-06,0.340
-1.330E-06,0.420
-1.320E-06,0.340
-1.310E-06,0.040
-1.300E-06,0.160
-1.290E-06,0.140
-1.280E-06,0.260
-1.270E-06,0.400
-1.260E-06,0.320
-1.250E-06,0.240
-1.240E-06,0.080
-1.230E-06,0.000
-1.220E-06,0.000
-1.210E-06,0.040
-1.200E-06,0.040
-1.190E-06,0.020
-1.180E-06,-0.060
-1.170E-06,-0.140
-1.160E-06,-0.160
-1.150E-06,-0.160
-1.140E-06,-0.220
-1.130E-06,-0.200
-1.120E-06,-0.240
-1.110E-06,-0.240
-1.100E-06,-0.240
-1.090E-06,-0.260
-1.080E-06,-0.220
-1.070E-06,-0.160
-1.060E-06,-0.160
-1.050E-06,-0.140
-1.040E-06,-0.140
-1.030E-06,-0.080
-1.020E-06,-0.060
-1.010E-06,-0.020
-1.000E-06,0.020
-9.900E-07,0.060
-9.800E-07,0.080
-9.700E-07,0.160
-9.600E-07,0.140
-9.500E-07,0.080
-9.400E-07,0.000
-9.300E-07,0.000
-9.200E-07,-0.020
-9.100E-07,0.100
-9.000E-07,0.180
-8.900E-07,0.300
-8.800E-07,0.440
-8.700E-07,0.500
-8.600E-07,0.380
-8.500E-07,0.200
-8.400E-07,0.060
-8.300E-07,0.200
-8.200E-07,0.280
-8.100E-07,0.600
-8.000E-07,0.820
-7.900E-07,0.660
-7.800E-07,0.480
-7.700E-07,0.160
-7.600E-07,0.080
-7.500E-07,0.220
-7.400E-07,0.380
-7.300E-07,0.540
-7.200E-07,0.480
-7.100E-07,0.260
-7.000E-07,0.140
-6.900E-07,0.060
-6.800E-07,0.140
-6.700E-07,0.280
-6.600E-07,0.220
-6.500E-07,0.140
-6.400E-07,0.040
-6.300E-07,-0.100
-6.200E-07,-0.140
-6.100E-07,-0.120
-6.000E-07,-0.080
-5.900E-07,-0.160
-5.800E-07,-0.200
-5.700E-07,-0.260
-5.600E-07,-0.220
-5.500E-07,-0.200
-5.400E-07,-0.240
-5.300E-07,-0.300
-5.200E-07,-0.360
-5.100E-07,-0.360
-5.000E-07,-0.360
-4.900E-07,-0.340
-4.800E-07,-0.280
-4.700E-07,-0.500
-4.600E-07,-0.480
-4.500E-07,-0.480
-4.400E-07,-0.340
-4.300E-07,0.120
-4.200E-07,0.240
-4.100E-07,0.560
-4.000E-07,0.520
-3.900E-07,0.300
-3.800E-07,0.180
-3.700E-07,0.100
-3.600E-07,0.320
-3.500E-07,0.500
-3.400E-07,0.660
-3.300E-07,0.620
-3.200E-07,0.580
-3.100E-07,0.440
-3.000E-07,0.320
-2.900E-07,0.380
-2.800E-07,0.400
-2.700E-07,0.400
-2.600E-07,0.400
-2.500E-07,0.280
-2.400E-07,0.220
-2.300E-07,0.240
-2.200E-07,0.180
-2.100E-07,0.200
-2.000E-07,0.140
-1.900E-07,0.080
-1.800E-07,0.080
-1.700E-07,0.040
-1.600E-07,0.080
-1.500E-07,0.060
-1.400E-07,0.000
-1.300E-07,-0.060
-1.200E-07,-0.120
-1.100E-07,-0.140
-1.000E-07,-0.080
-9.000E-08,-0.040
-8.000E-08,-0.020
-7.000E-08,0.080
-6.000E-08,0.040
-5.000E-08,-0.260
-4.000E-08,0.280
-3.000E-08,-0.360
-2.000E-08,-0.800
-1.000E-08,-0.760
0.000E+00,-1.240
1.000E-08,0.660
2.000E-08,0.600
3.000E-08,0.240
4.000E-08,2.140
5.000E-08,0.260
6.000E-08,0.100
7.000E-08,0.500
8.000E-08,-1.020
9.000E-08,0.520
1.000E-07,0.740
1.100E-07,0.500
1.200E-07,1.440
1.300E-07,0.840
1.400E-07,0.180
1.500E-07,0.260
1.600E-07,-0.400
1.700E-07,-0.420
1.800E-07,-0.140
1.900E-07,-0.380
2.000E-07,-0.460
2.100E-07,-0.320
2.200E-07,-0.500
2.300E-07,-0.560
2.400E-07,-0.520
2.500E-07,-0.680
2.600E-07,-0.660
2.700E-07,-0.460
2.800E-07,-0.360
2.900E-07,-0.120
3.000E-07,0.140
3.100E-07,0.240
3.200E-07,0.340
3.300E-07,0.180
3.400E-07,-0.320
3.500E-07,-0.180
3.600E-07,-0.440
3.700E-07,0.280
3.800E-07,0.780
3.900E-07,1.040
4.000E-07,1.460
4.100E-07,0.900
4.200E-07,0.900
4.300E-07,0.560
4.400E-07,0.680
4.500E-07,1.000
4.600E-07,1.020
4.700E-07,1.220
4.800E-07,0.920
4.900E-07,0.760
5.000E-07,0.600
5.100E-07,0.480
5.200E-07,0.540
5.300E-07,0.460
5.400E-07,0.440
5.500E-07,0.460
5.600E-07,0.420
5.700E-07,0.380
5.800E-07,0.220
5.900E-07,0.100
6.000E-07,-0.120
6.100E-07,-0.320
6.200E-07,-0.380
6.300E-07,-0.600
6.400E-07,-0.620
6.500E-07,-0.580
6.600E-07,-0.600
6.700E-07,-0.260
6.800E-07,-0.260
6.900E-07,-0.220
7.000E-07,0.040
7.100E-07,-0.020
7.200E-07,0.360
7.300E-07,0.580
7.400E-07,0.580
7.500E-07,0.700
7.600E-07,0.500
7.700E-07,0.260
7.800E-07,0.060
7.900E-07,0.120
8.000E-07,0.160
8.100E-07,0.480
8.200E-07,0.780
8.300E-07,0.820
8.400E-07,0.940
8.500E-07,0.780
8.600E-07,0.540
8.700E-07,0.380
8.800E-07,0.160
8.900E-07,0.300
9.000E-07,0.340
9.100E-07,0.440
9.200E-07,0.460
9.300E-07,0.460
9.400E-07,0.300
9.500E-07,0.260
9.600E-07,0.380
9.700E-07,0.340
9.800E-07,0.440
9.900E-07,0.560
1.000E-06,0.620
1.010E-06,-0.060
1.020E-06,-0.100
1.030E-06,-0.700
1.040E-06,-0.680
1.050E-06,-0.400
1.060E-06,0.080
1.070E-06,1.060
1.080E-06,1.880
1.090E-06,2.200
1.100E-06,1.660
1.110E-06,0.860
1.120E-06,0.120
1.130E-06,-0.200
1.140E-06,0.520
1.150E-06,0.400
1.160E-06,0.820
1.170E-06,0.420
1.180E-06,-1.120
1.190E-06,-0.240
1.200E-06,-0.040
1.210E-06,0.460
1.220E-06,1.380
1.230E-06,0.460
1.240E-06,0.360
1.250E-06,0.480
1.260E-06,0.560
1.270E-06,2.080
1.280E-06,2.100
1.290E-06,1.760
1.300E-06,1.240
1.310E-06,0.200
1.320E-06,0.080
1.330E-06,0.300
1.340E-06,0.520
1.350E-06,0.700
1.360E-06,0.500
1.370E-06,0.100
1.380E-06,-0.240
1.390E-06,-0.580
1.400E-06,-0.680
1.410E-06,-0.760
1.420E-06,-0.840
1.430E-06,-0.840
1.440E-06,-0.760
1.450E-06,-0.720
1.460E-06,-0.740
1.470E-06,-0.820
1.480E-06,-0.900
1.490E-06,-0.860
1.500E-06,-0.740
1.510E-06,-0.440
1.520E-06,-0.220
1.530E-06,-0.080
1.540E-06,0.060
1.550E-06,0.200
1.560E-06,0.300
1.570E-06,0.320
1.580E-06,0.440
1.590E-06,0.380
1.600E-06,0.480
1.610E-06,0.440
1.620E-06,0.340
1.630E-06,0.260
1.640E-06,0.080
1.650E-06,-0.060
1.660E-06,-0.080
1.670E-06,-0.040
1.680E-06,-0.080
1.690E-06,-0.080
1.700E-06,-0.160
1.710E-06,-0.220
1.720E-06,-0.240
1.730E-06,-0.320
1.740E-06,-0.160
1.750E-06,-0.120
1.760E-06,-0.020
1.770E-06,0.060
1.780E-06,0.000
1.790E-06,0.080
1.800E-06,0.100
1.810E-06,0.080
1.820E-06,0.020
1.830E-06,-0.020
1.840E-06,-0.080
1.850E-06,-0.060
1.860E-06,0.080
1.870E-06,-0.060
1.880E-06,-0.120
1.890E-06,-0.100
1.900E-06,-0.180
1.910E-06,-0.220
1.920E-06,-0.060
1.930E-06,0.160
1.940E-06,0.200
1.950E-06,0.420
1.960E-06,0.160
1.970E-06,0.260
1.980E-06,0.340
1.990E-06,0.160
2.000E-06,0.320
2.010E-06,0.440
2.020E-06,0.340
2.030E-06,0.580
2.040E-06,0.580
2.050E-06,0.560
2.060E-06,0.560
2.070E-06,0.380
2.080E-06,0.280
2.090E-06,0.220
2.100E-06,0.180
2.110E-06,0.180
2.120E-06,0.240
2.130E-06,0.340
2.140E-06,0.340
2.150E-06,0.220
2.160E-06,0.080
2.170E-06,-0.120
2.180E-06,-0.180
2.190E-06,-0.300
2.200E-06,-0.320
2.210E-06,-0.300
2.220E-06,-0.300
2.230E-06,-0.260
2.240E-06,-0.320
2.250E-06,-0.360
2.260E-06,-0.380
2.270E-06,-0.400
2.280E-06,-0.360
2.290E-06,-0.360
2.300E-06,-0.360
2.310E-06,-0.340
2.320E-06,-0.340
2.330E-06,-0.360
2.340E-06,-0.320
2.350E-06,-0.320
2.360E-06,-0.360
2.370E-06,-0.360
2.380E-06,-0.400
2.390E-06,-0.360
2.400E-06,-0.360
2.410E-06,-0.340
2.420E-06,-0.340
2.430E-06,-0.340
2.440E-06,-0.320
2.450E-06,-0.300
2.460E-06,-0.300
2.470E-06,-0.300
2.480E-06,-0.320
2.490E-06,-0.320
2.500E-06,-0.340
2.510E-06,-0.380
2.520E-06,-0.400
2.530E-06,-0.380
2.540E-06,-0.380
2.550E-06,-0.420
2.560E-06,-0.440
2.570E-06,-0.500
2.580E-06,-0.500
2.590E-06,-0.560
2.600E-06,-0.560
2.610E-06,-0.560
2.620E-06,-0.600
2.630E-06,-0.580
2.640E-06,-0.600
2.650E-06,-0.560
2.660E-06,-0.560
2.670E-06,-0.580
2.680E-06,-0.560
2.690E-06,-0.620
2.700E-06,-0.620
2.710E-06,-0.660
2.720E-06,-0.660
2.730E-06,-0.780
2.740E-06,-0.840
2.750E-06,-0.960
2.760E-06,-1.080
2.770E-06,-1.260
2.780E-06,-1.500
2.790E-06,-1.800
2.800E-06,-2.160
2.810E-06,-2.440
2.820E-06,-2.660
2.830E-06,-2.660
2.840E-06,-2.680
2.850E-06,-2.680
2.860E-06,-2.680
2.870E-06,-2.680
2.880E-06,-2.680
2.890E-06,-2.660
2.900E-06,-2.660
2.910E-06,-2.660
2.920E-06,-2.660
2.930E-06,-2.660
2.940E-06,-2.660
2.950E-06,-2.680
2.960E-06,-2.680
2.970E-06,-2.680
2.980E-06,-2.660
2.990E-06,-2.640
3.000E-06,-2.440
3.010E-06,-2.260
3.020E-06,-2.060
3.030E-06,-1.860
3.040E-06,-1.660
3.050E-06,-1.500
3.060E-06,-1.260
3.070E-06,-1.100
3.080E-06,-0.940
3.090E-06,-0.840
3.100E-06,-0.740
3.110E-06,-0.660
3.120E-06,-0.540
3.130E-06,-0.420
3.140E-06,-0.360
3.150E-06,-0.340
3.160E-06,-0.320
3.170E-06,-0.280
3.180E-06,-0.240
3.190E-06,-0.200
3.200E-06,-0.160
3.210E-06,-0.160
3.220E-06,-0.160
3.230E-06,-0.180
3.240E-06,-0.220
3.250E-06,-0.260
3.260E-06,-0.260
3.270E-06,-0.280
3.280E-06,-0.280
3.290E-06,-0.300
3.300E-06,-0.320
3.310E-06,-0.340
3.320E-06,-0.340
3.330E-06,-0.360
3.340E-06,-0.360
3.350E-06,-0.340
3.360E-06,-0.340
3.370E-06,-0.340
3.380E-06,-0.340
3.390E-06,-0.320
3.400E-06,-0.300
3.410E-06,-0.300
3.420E-06,-0.240
3.430E-06,-0.240
3.440E-06,-0.180
3.450E-06,-0.180
3.460E-06,-0.200
3.470E-06,-0.160
3.480E-06,-0.160
3.490E-06,-0.140
3.500E-06,-0.100
3.510E-06,-0.080
3.520E-06,-0.060
3.530E-06,-0.060
3.540E-06,-0.060
3.550E-06,-0.080
3.560E-06,-0.040
3.570E-06,-0.060
3.580E-06,-0.020
3.590E-06,-0.040
3.600E-06,-0.060
3.610E-06,-0.040
3.620E-06,0.020
3.630E-06,0.020
3.640E-06,0.040
3.650E-06,0.080
3.660E-06,0.060
3.670E-06,0.120
3.680E-06,0.160
3.690E-06,0.180
3.700E-06,0.160
3.710E-06,0.160
3.720E-06,0.180
3.730E-06,0.160
3.740E-06,0.220
3.750E-06,0.180
3.760E-06,0.200
3.770E-06,0.200
3.780E-06,0.180
3.790E-06,0.160
3.800E-06,0.140
3.810E-06,0.160
3.820E-06,0.180
3.830E-06,0.140
3.840E-06,0.100
3.850E-06,0.060
3.860E-06,0.080
3.870E-06,0.060
3.880E-06,0.020
3.890E-06,0.040
3.900E-06,0.040
3.910E-06,0.020
3.920E-06,0.000
3.930E-06,0.020
3.940E-06,0.000
3.950E-06,-0.020
3.960E-06,0.000
3.970E-06,0.000
3.980E-06,0.020
3.990E-06,0.000
4.000E-06,0.020
4.010E-06,-0.020
4.020E-06,-0.020
4.030E-06,-0.040
4.040E-06,-0.060
4.050E-06,-0.080
4.060E-06,-0.100
4.070E-06,-0.160
4.080E-06,-0.140
4.090E-06,-0.160
4.100E-06,-0.160
4.110E-06,-0.160
4.120E-06,-0.180
4.130E-06,-0.220
4.140E-06,-0.260
4.150E-06,-0.280
4.160E-06,-0.280
4.170E-06,-0.300
4.180E-06,-0.300
4.190E-06,-0.300
4.200E-06,-0.300
4.210E-06,-0.260
4.220E-06,-0.240
4.230E-06,-0.260
4.240E-06,-0.260
4.250E-06,-0.220
4.260E-06,-0.220
4.270E-06,-0.180
4.280E-06,-0.180
4.290E-06,-0.160
4.300E-06,-0.160
4.310E-06,-0.100
4.320E-06,-0.120
4.330E-06,-0.060
4.340E-06,-0.020
4.350E-06,0.000
4.360E-06,0.000
4.370E-06,0.000
4.380E-06,0.000
4.390E-06,0.020
4.400E-06,0.040
4.410E-06,0.080
4.420E-06,0.080
4.430E-06,0.060
4.440E-06,0.100
4.450E-06,0.100
4.460E-06,0.100
4.470E-06,0.120
4.480E-06,0.080
4.490E-06,0.100
4.500E-06,0.040
4.510E-06,0.080
4.520E-06,0.060
4.530E-06,0.020
4.540E-06,0.020
4.550E-06,0.000
4.560E-06,0.000
4.570E-06,-0.020
4.580E-06,-0.060
4.590E-06,-0.060
4.600E-06,-0.060
4.610E-06,-0.060
4.620E-06,-0.080
4.630E-06,-0.060
4.640E-06,-0.080
4.650E-06,-0.100
4.660E-06,-0.080
4.670E-06,-0.080
4.680E-06,-0.040
4.690E-06,-0.040
4.700E-06,-0.060
4.710E-06,-0.060
4.720E-06,-0.060
4.730E-06,-0.040
4.740E-06,-0.080
4.750E-06,-0.040
4.760E-06,-0.020
4.770E-06,-0.060
4.780E-06,-0.020
4.790E-06,-0.040
4.800E-06,-0.040
4.810E-06,-0.040
4.820E-06,-0.040
4.830E-06,-0.020
4.840E-06,-0.020
4.850E-06,0.000
4.860E-06,0.000
4.870E-06,0.000
4.880E-06,0.000
4.890E-06,-0.020
4.900E-06,0.000
4.910E-06,-0.020
4.920E-06,-0.020
4.930E-06,-0.020
4.940E-06,0.000
4.950E-06,0.000
4.960E-06,0.000
4.970E-06,0.000
4.980E-06,0.000
4.990E-06,0.000
5.000E-06,-0.020
5.010E-06,0.000
5.020E-06,-0.020
5.030E-06,-0.040
5.040E-06,-0.020
5.050E-06,-0.040
5.060E-06,-0.060
5.070E-06,-0.040
5.080E-06,-0.020
5.090E-06,0.020
5.100E-06,0.000
5.110E-06,0.040
5.120E-06,0.080
5.130E-06,0.100
5.140E-06,0.080
5.150E-06,0.100
5.160E-06,0.100
5.170E-06,0.100
5.180E-06,0.080
5.190E-06,0.040
5.200E-06,0.040
5.210E-06,0.040
5.220E-06,0.020
5.230E-06,0.020
5.240E-06,0.000
5.250E-06,0.040
5.260E-06,0.020
5.270E-06,0.040
5.280E-06,0.020
5.290E-06,0.000
5.300E-06,0.020
5.310E-06,0.040
5.320E-06,0.020
5.330E-06,0.060
5.340E-06,0.100
5.350E-06,0.140
5.360E-06,0.160
5.370E-06,0.200
5.380E-06,0.220
5.390E-06,0.240
5.400E-06,0.240
5.410E-06,0.260
5.420E-06,0.240
5.430E-06,0.200
5.440E-06,0.160
5.450E-06,0.180
5.460E-06,0.180
5.470E-06,0.160
5.480E-06,0.160
5.490E-06,0.120
5.500E-06,0.080
5.510E-06,0.080
5.520E-06,0.100
5.530E-06,0.080
5.540E-06,0.120
5.550E-06,0.160
5.560E-06,0.260
5.570E-06,0.320
5.580E-06,0.380
5.590E-06,0.400
5.600E-06,0.420
5.610E-06,0.420
5.620E-06,0.360
5.630E-06,0.240
5.640E-06,0.160
5.650E-06,0.140
5.660E-06,0.040
5.670E-06,0.020
5.680E-06,-0.040
5.690E-06,-0.080
5.700E-06,-0.040
5.710E-06,-0.040
5.720E-06,0.000
5.730E-06,0.100
5.740E-06,0.180
5.750E-06,0.220
5.760E-06,0.280
5.770E-06,0.240
5.780E-06,0.240
5.790E-06,0.200
5.800E-06,0.180
5.810E-06,0.180
5.820E-06,0.140
5.830E-06,0.080
5.840E-06,0.080
5.850E-06,0.080
5.860E-06,0.100
5.870E-06,0.140
5.880E-06,0.240
5.890E-06,0.280
5.900E-06,0.320
5.910E-06,0.280
5.920E-06,0.260
5.930E-06,0.180
5.940E-06,0.120
5.950E-06,0.000
5.960E-06,-0.040
5.970E-06,-0.160
5.980E-06,-0.200
5.990E-06,-0.180
6.000E-06,-0.180
6.010E-06,-0.120
6.020E-06,-0.020
6.030E-06,0.060
6.040E-06,0.160
6.050E-06,0.200
6.060E-06,0.260
6.070E-06,0.280
6.080E-06,0.320
6.090E-06,0.340
6.100E-06,0.400
6.110E-06,0.400
6.120E-06,0.480
6.130E-06,0.520
6.140E-06,0.520
6.150E-06,0.540
6.160E-06,0.540
6.170E-06,0.560
6.180E-06,0.540
6.190E-06,0.580
6.200E-06,0.600
6.210E-06,0.580
6.220E-06,0.560
6.230E-06,0.600
6.240E-06,0.580
6.250E-06,0.540
6.260E-06,0.540
6.270E-06,0.500
6.280E-06,0.480
6.290E-06,0.480
6.300E-06,0.500
6.310E-06,0.500
6.320E-06,0.520
6.330E-06,0.500
6.340E-06,0.500
6.350E-06,0.540
6.360E-06,0.540
6.370E-06,0.580
6.380E-06,0.580
6.390E-06,0.560
6.400E-06,0.580
6.410E-06,0.520
6.420E-06,0.520
6.430E-06,0.480
6.440E-06,0.420
6.450E-06,0.400
6.460E-06,0.340
6.470E-06,0.320
6.480E-06,0.260
6.490E-06,0.220
6.500E-06,0.220
6.510E-06,0.200
6.520E-06,0.220
6.530E-06,0.160
6.540E-06,0.160
6.550E-06,0.200
6.560E-06,0.240
6.570E-06,0.260
6.580E-06,0.300
6.590E-06,0.380
6.600E-06,0.440
6.610E-06,0.520
6.620E-06,0.600
6.630E-06,0.680
6.640E-06,0.820
6.650E-06,0.880
6.660E-06,1.020
6.670E-06,1.140
6.680E-06,1.320
6.690E-06,1.580
6.700E-06,1.860
6.710E-06,2.280
6.720E-06,2.640
6.730E-06,2.780
6.740E-06,2.780
6.750E-06,2.760
6.760E-06,2.780
6.770E-06,2.760
6.780E-06,2.760
6.790E-06,2.760
6.800E-06,2.760
6.810E-06,2.740
6.820E-06,2.760
6.830E-06,2.780
6.840E-06,2.780
6.850E-06,2.760
6.860E-06,2.500
6.870E-06,2.000
6.880E-06,1.620
6.890E-06,1.260
6.900E-06,1.000
6.910E-06,0.800
6.920E-06,0.720
6.930E-06,0.660
6.940E-06,0.580
6.950E-06,0.540
6.960E-06,0.500
6.970E-06,0.460
6.980E-06,0.420
6.990E-06,0.440
7.000E-06,0.400
7.010E-06,0.440
7.020E-06,0.460
7.030E-06,0.460
7.040E-06,0.480
7.050E-06,0.480
7.060E-06,0.500
7.070E-06,0.480
7.080E-06,0.520
7.090E-06,0.520
7.100E-06,0.500
7.110E-06,0.500
7.120E-06,0.500
7.130E-06,0.500
7.140E-06,0.440
7.150E-06,0.440
7.160E-06,0.440
7.170E-06,0.400
7.180E-06,0.420
7.190E-06,0.420
7.200E-06,0.400
7.210E-06,0.420
7.220E-06,0.420
7.230E-06,0.420
7.240E-06,0.440
7.250E-06,0.420
7.260E-06,0.440
7.270E-06,0.460
7.280E-06,0.480
7.290E-06,0.460
7.300E-06,0.460
7.310E-06,0.460
7.320E-06,0.440
7.330E-06,0.420
7.340E-06,0.400
7.350E-06,0.380
7.360E-06,0.400
7.370E-06,0.360
7.380E-06,0.380
7.390E-06,0.340
7.400E-06,0.340
7.410E-06,0.340
7.420E-06,0.320
7.430E-06,0.300
7.440E-06,0.320
7.450E-06,0.340
7.460E-06,0.320
7.470E-06,0.340
7.480E-06,0.340
7.490E-06,0.340
7.500E-06,0.340
7.510E-06,0.320
7.520E-06,0.320
7.530E-06,0.260
7.540E-06,0.260
7.550E-06,0.240
7.560E-06,0.240
7.570E-06,0.200
7.580E-06,0.180
7.590E-06,0.180
7.600E-06,0.180
7.610E-06,0.160
7.620E-06,0.160
7.630E-06,0.180
7.640E-06,0.160
7.650E-06,0.160
