mediciones/6-10/15/WaveData5559.csv

#timebase=2000000(ps)
,#voltbase=500000(mv/100)
#size=4000
-4.250E-06,0.060
-4.240E-06,0.060
-4.230E-06,0.000
-4.220E-06,0.040
-4.210E-06,0.100
-4.200E-06,0.000
-4.190E-06,0.060
-4.180E-06,0.100
-4.170E-06,0.020
-4.160E-06,0.040
-4.150E-06,0.060
-4.140E-06,0.000
-4.130E-06,0.040
-4.120E-06,0.040
-4.110E-06,0.060
-4.100E-06,0.040
-4.090E-06,0.040
-4.080E-06,0.020
-4.070E-06,0.100
-4.060E-06,0.040
-4.050E-06,0.000
-4.040E-06,0.060
-4.030E-06,0.040
-4.020E-06,0.080
-4.010E-06,0.100
-4.000E-06,0.080
-3.990E-06,0.020
-3.980E-06,0.040
-3.970E-06,0.040
-3.960E-06,0.040
-3.950E-06,0.060
-3.940E-06,0.060
-3.930E-06,0.040
-3.920E-06,0.020
-3.910E-06,0.040
-3.900E-06,0.020
-3.890E-06,0.040
-3.880E-06,0.040
-3.870E-06,0.060
-3.860E-06,0.040
-3.850E-06,0.060
-3.840E-06,0.020
-3.830E-06,0.060
-3.820E-06,0.040
-3.810E-06,0.060
-3.800E-06,0.060
-3.790E-06,0.020
-3.780E-06,0.040
-3.770E-06,0.080
-3.760E-06,0.000
-3.750E-06,0.140
-3.740E-06,0.100
-3.730E-06,0.080
-3.720E-06,0.080
-3.710E-06,0.080
-3.700E-06,0.020
-3.690E-06,0.100
-3.680E-06,0.080
-3.670E-06,0.060
-3.660E-06,0.080
-3.650E-06,0.000
-3.640E-06,0.020
-3.630E-06,0.040
-3.620E-06,0.040
-3.610E-06,0.020
-3.600E-06,0.020
-3.590E-06,0.040
-3.580E-06,0.000
-3.570E-06,0.040
-3.560E-06,0.020
-3.550E-06,0.060
-3.540E-06,0.080
-3.530E-06,0.060
-3.520E-06,0.020
-3.510E-06,0.080
-3.500E-06,-0.040
-3.490E-06,0.040
-3.480E-06,0.060
-3.470E-06,-0.020
-3.460E-06,0.100
-3.450E-06,0.040
-3.440E-06,0.020
-3.430E-06,0.060
-3.420E-06,0.020
-3.410E-06,0.020
-3.400E-06,0.100
-3.390E-06,0.080
-3.380E-06,0.040
-3.370E-06,0.040
-3.360E-06,-0.040
-3.350E-06,0.020
-3.340E-06,0.040
-3.330E-06,0.040
-3.320E-06,0.100
-3.310E-06,0.100
-3.300E-06,0.080
-3.290E-06,0.080
-3.280E-06,0.000
-3.270E-06,0.040
-3.260E-06,0.100
-3.250E-06,0.080
-3.240E-06,0.140
-3.230E-06,0.040
-3.220E-06,0.000
-3.210E-06,0.040
-3.200E-06,0.060
-3.190E-06,0.060
-3.180E-06,0.080
-3.170E-06,0.040
-3.160E-06,0.040
-3.150E-06,0.020
-3.140E-06,0.040
-3.130E-06,0.060
-3.120E-06,0.060
-3.110E-06,0.040
-3.100E-06,0.040
-3.090E-06,0.040
-3.080E-06,0.040
-3.070E-06,0.020
-3.060E-06,0.080
-3.050E-06,0.060
-3.040E-06,0.020
-3.030E-06,0.100
-3.020E-06,0.000
-3.010E-06,0.000
-3.000E-06,0.080
-2.990E-06,0.060
-2.980E-06,0.020
-2.970E-06,0.140
-2.960E-06,0.060
-2.950E-06,0.060
-2.940E-06,0.020
-2.930E-06,-0.020
-2.920E-06,0.040
-2.910E-06,0.040
-2.900E-06,0.080
-2.890E-06,0.120
-2.880E-06,0.060
-2.870E-06,0.040
-2.860E-06,0.020
-2.850E-06,0.060
-2.840E-06,0.020
-2.830E-06,0.100
-2.820E-06,0.080
-2.810E-06,0.060
-2.800E-06,0.080
-2.790E-06,0.060
-2.780E-06,0.000
-2.770E-06,0.060
-2.760E-06,0.040
-2.750E-06,0.040
-2.740E-06,0.040
-2.730E-06,0.060
-2.720E-06,0.080
-2.710E-06,0.080
-2.700E-06,0.040
-2.690E-06,0.060
-2.680E-06,0.080
-2.670E-06,0.040
-2.660E-06,0.020
-2.650E-06,0.040
-2.640E-06,0.040
-2.630E-06,0.060
-2.620E-06,0.060
-2.610E-06,0.020
-2.600E-06,0.000
-2.590E-06,0.000
-2.580E-06,0.040
-2.570E-06,0.080
-2.560E-06,0.040
-2.550E-06,0.080
-2.540E-06,0.100
-2.530E-06,0.100
-2.520E-06,0.040
-2.510E-06,0.080
-2.500E-06,0.100
-2.490E-06,0.060
-2.480E-06,0.040
-2.470E-06,0.060
-2.460E-06,0.080
-2.450E-06,0.040
-2.440E-06,0.080
-2.430E-06,0.040
-2.420E-06,0.040
-2.410E-06,-0.020
-2.400E-06,0.040
-2.390E-06,0.040
-2.380E-06,0.060
-2.370E-06,0.060
-2.360E-06,0.000
-2.350E-06,0.040
-2.340E-06,0.080
-2.330E-06,0.080
-2.320E-06,0.080
-2.310E-06,0.080
-2.300E-06,0.080
-2.290E-06,0.020
-2.280E-06,0.040
-2.270E-06,0.080
-2.260E-06,0.060
-2.250E-06,0.040
-2.240E-06,0.060
-2.230E-06,0.080
-2.220E-06,0.060
-2.210E-06,0.040
-2.200E-06,0.000
-2.190E-06,0.040
-2.180E-06,0.080
-2.170E-06,0.080
-2.160E-06,0.080
-2.150E-06,0.040
-2.140E-06,0.060
-2.130E-06,0.080
-2.120E-06,0.080
-2.110E-06,0.080
-2.100E-06,0.080
-2.090E-06,0.020
-2.080E-06,0.020
-2.070E-06,0.080
-2.060E-06,0.140
-2.050E-06,0.140
-2.040E-06,0.180
-2.030E-06,0.080
-2.020E-06,0.040
-2.010E-06,0.000
-2.000E-06,0.020
-1.990E-06,0.060
-1.980E-06,0.100
-1.970E-06,0.060
-1.960E-06,0.080
-1.950E-06,0.080
-1.940E-06,0.000
-1.930E-06,0.020
-1.920E-06,0.020
-1.910E-06,0.000
-1.900E-06,0.140
-1.890E-06,0.100
-1.880E-06,0.120
-1.870E-06,0.120
-1.860E-06,0.000
-1.850E-06,0.040
-1.840E-06,0.000
-1.830E-06,-0.020
-1.820E-06,0.120
-1.810E-06,0.180
-1.800E-06,0.200
-1.790E-06,0.200
-1.780E-06,0.160
-1.770E-06,0.160
-1.760E-06,0.140
-1.750E-06,0.120
-1.740E-06,0.220
-1.730E-06,0.160
-1.720E-06,0.120
-1.710E-06,0.120
-1.700E-06,0.000
-1.690E-06,0.060
-1.680E-06,0.020
-1.670E-06,0.080
-1.660E-06,0.100
-1.650E-06,0.020
-1.640E-06,0.060
-1.630E-06,0.060
-1.620E-06,0.040
-1.610E-06,0.040
-1.600E-06,0.040
-1.590E-06,0.040
-1.580E-06,0.020
-1.570E-06,0.020
-1.560E-06,0.020
-1.550E-06,0.000
-1.540E-06,0.060
-1.530E-06,0.000
-1.520E-06,0.040
-1.510E-06,0.080
-1.500E-06,0.040
-1.490E-06,0.020
-1.480E-06,0.000
-1.470E-06,-0.020
-1.460E-06,0.000
-1.450E-06,0.060
-1.440E-06,0.100
-1.430E-06,0.180
-1.420E-06,0.220
-1.410E-06,0.160
-1.400E-06,0.120
-1.390E-06,0.080
-1.380E-06,0.060
-1.370E-06,0.140
-1.360E-06,0.220
-1.350E-06,0.260
-1.340E-06,0.200
-1.330E-06,0.180
-1.320E-06,0.120
-1.310E-06,0.220
-1.300E-06,0.260
-1.290E-06,0.280
-1.280E-06,0.300
-1.270E-06,0.220
-1.260E-06,0.140
-1.250E-06,0.200
-1.240E-06,0.180
-1.230E-06,0.260
-1.220E-06,0.180
-1.210E-06,-0.020
-1.200E-06,-0.020
-1.190E-06,-0.120
-1.180E-06,0.100
-1.170E-06,0.260
-1.160E-06,0.240
-1.150E-06,0.240
-1.140E-06,0.020
-1.130E-06,-0.060
-1.120E-06,-0.060
-1.110E-06,-0.020
-1.100E-06,0.120
-1.090E-06,0.160
-1.080E-06,0.120
-1.070E-06,0.060
-1.060E-06,0.040
-1.050E-06,0.000
-1.040E-06,0.060
-1.030E-06,0.060
-1.020E-06,0.060
-1.010E-06,0.080
-1.000E-06,0.080
-9.900E-07,0.140
-9.800E-07,0.120
-9.700E-07,0.160
-9.600E-07,0.200
-9.500E-07,0.080
-9.400E-07,0.060
-9.300E-07,0.000
-9.200E-07,0.000
-9.100E-07,0.160
-9.000E-07,0.240
-8.900E-07,0.340
-8.800E-07,0.340
-8.700E-07,0.240
-8.600E-07,0.240
-8.500E-07,0.180
-8.400E-07,0.020
-8.300E-07,0.060
-8.200E-07,0.060
-8.100E-07,0.080
-8.000E-07,0.280
-7.900E-07,0.240
-7.800E-07,0.320
-7.700E-07,0.180
-7.600E-07,0.080
-7.500E-07,0.080
-7.400E-07,0.100
-7.300E-07,0.220
-7.200E-07,0.340
-7.100E-07,0.400
-7.000E-07,0.300
-6.900E-07,0.180
-6.800E-07,0.120
-6.700E-07,0.000
-6.600E-07,0.020
-6.500E-07,0.040
-6.400E-07,0.020
-6.300E-07,0.120
-6.200E-07,0.160
-6.100E-07,0.160
-6.000E-07,0.200
-5.900E-07,0.080
-5.800E-07,0.160
-5.700E-07,0.220
-5.600E-07,0.200
-5.500E-07,0.340
-5.400E-07,0.320
-5.300E-07,0.240
-5.200E-07,0.260
-5.100E-07,0.200
-5.000E-07,0.180
-4.900E-07,0.220
-4.800E-07,0.180
-4.700E-07,0.180
-4.600E-07,0.220
-4.500E-07,0.220
-4.400E-07,0.220
-4.300E-07,0.200
-4.200E-07,0.120
-4.100E-07,0.080
-4.000E-07,0.020
-3.900E-07,0.060
-3.800E-07,0.160
-3.700E-07,0.260
-3.600E-07,0.360
-3.500E-07,0.360
-3.400E-07,0.500
-3.300E-07,0.500
-3.200E-07,0.540
-3.100E-07,0.620
-3.000E-07,0.480
-2.900E-07,0.480
-2.800E-07,0.400
-2.700E-07,0.320
-2.600E-07,0.360
-2.500E-07,0.400
-2.400E-07,0.440
-2.300E-07,0.340
-2.200E-07,0.300
-2.100E-07,0.300
-2.000E-07,0.240
-1.900E-07,0.280
-1.800E-07,0.260
-1.700E-07,0.340
-1.600E-07,0.440
-1.500E-07,0.400
-1.400E-07,0.500
-1.300E-07,0.380
-1.200E-07,0.500
-1.100E-07,0.420
-1.000E-07,0.440
-9.000E-08,0.280
-8.000E-08,0.560
-7.000E-08,0.240
-6.000E-08,0.760
-5.000E-08,0.140
-4.000E-08,0.740
-3.000E-08,0.400
-2.000E-08,-0.360
-1.000E-08,-0.620
0.000E+00,-1.320
1.000E-08,-1.100
2.000E-08,0.960
3.000E-08,0.900
4.000E-08,1.320
5.000E-08,0.680
6.000E-08,-0.660
7.000E-08,-0.760
8.000E-08,-0.540
9.000E-08,-0.060
1.000E-07,0.840
1.100E-07,0.720
1.200E-07,0.480
1.300E-07,0.040
1.400E-07,-0.160
1.500E-07,-0.340
1.600E-07,0.080
1.700E-07,0.220
1.800E-07,0.420
1.900E-07,0.500
2.000E-07,0.320
2.100E-07,0.020
2.200E-07,0.200
2.300E-07,0.020
2.400E-07,0.080
2.500E-07,0.080
2.600E-07,-0.100
2.700E-07,-0.160
2.800E-07,-0.040
2.900E-07,-0.120
3.000E-07,-0.020
3.100E-07,0.060
3.200E-07,-0.080
3.300E-07,0.060
3.400E-07,0.040
3.500E-07,-0.020
3.600E-07,0.060
3.700E-07,0.180
3.800E-07,0.300
3.900E-07,0.300
4.000E-07,0.140
4.100E-07,-0.260
4.200E-07,-0.180
4.300E-07,-0.080
4.400E-07,-0.080
4.500E-07,0.320
4.600E-07,0.200
4.700E-07,0.260
4.800E-07,0.320
4.900E-07,0.160
5.000E-07,0.180
5.100E-07,0.240
5.200E-07,0.040
5.300E-07,0.080
5.400E-07,0.080
5.500E-07,0.060
5.600E-07,0.220
5.700E-07,0.320
5.800E-07,0.200
5.900E-07,0.360
6.000E-07,0.180
6.100E-07,0.160
6.200E-07,0.100
6.300E-07,0.140
6.400E-07,0.160
6.500E-07,0.240
6.600E-07,0.260
6.700E-07,0.140
6.800E-07,0.200
6.900E-07,0.200
7.000E-07,0.200
7.100E-07,0.200
7.200E-07,0.300
7.300E-07,0.080
7.400E-07,0.080
7.500E-07,0.280
7.600E-07,0.240
7.700E-07,0.260
7.800E-07,0.640
7.900E-07,0.540
8.000E-07,0.760
8.100E-07,0.860
8.200E-07,0.460
8.300E-07,0.780
8.400E-07,1.000
8.500E-07,1.140
8.600E-07,1.540
8.700E-07,1.240
8.800E-07,0.660
8.900E-07,0.500
9.000E-07,0.060
9.100E-07,0.380
9.200E-07,0.000
9.300E-07,0.240
9.400E-07,-0.040
9.500E-07,0.080
9.600E-07,0.180
9.700E-07,0.180
9.800E-07,-0.020
9.900E-07,-0.080
1.000E-06,0.840
1.010E-06,0.400
1.020E-06,0.800
1.030E-06,0.920
1.040E-06,0.500
1.050E-06,0.820
1.060E-06,0.600
1.070E-06,0.740
1.080E-06,0.760
1.090E-06,0.060
1.100E-06,0.340
1.110E-06,0.260
1.120E-06,-0.300
1.130E-06,0.160
1.140E-06,-0.480
1.150E-06,-0.540
1.160E-06,-0.400
1.170E-06,-0.700
1.180E-06,-0.400
1.190E-06,-0.180
1.200E-06,-0.180
1.210E-06,0.020
1.220E-06,0.080
1.230E-06,0.000
1.240E-06,0.160
1.250E-06,0.160
1.260E-06,0.260
1.270E-06,0.340
1.280E-06,0.320
1.290E-06,0.200
1.300E-06,0.160
1.310E-06,0.000
1.320E-06,-0.100
1.330E-06,-0.220
1.340E-06,-0.360
1.350E-06,-0.460
1.360E-06,-0.480
1.370E-06,-0.500
1.380E-06,-0.520
1.390E-06,-0.560
1.400E-06,-0.520
1.410E-06,-0.560
1.420E-06,-0.500
1.430E-06,-0.520
1.440E-06,-0.480
1.450E-06,-0.380
1.460E-06,-0.300
1.470E-06,-0.220
1.480E-06,-0.160
1.490E-06,-0.220
1.500E-06,-0.320
1.510E-06,-0.260
1.520E-06,-0.260
1.530E-06,-0.200
1.540E-06,-0.160
1.550E-06,-0.240
1.560E-06,-0.260
1.570E-06,-0.240
1.580E-06,-0.320
1.590E-06,-0.300
1.600E-06,-0.380
1.610E-06,-0.440
1.620E-06,-0.400
1.630E-06,-0.380
1.640E-06,-0.480
1.650E-06,-0.560
1.660E-06,-0.700
1.670E-06,-0.840
1.680E-06,-1.020
1.690E-06,-1.280
1.700E-06,-1.520
1.710E-06,-1.900
1.720E-06,-2.360
1.730E-06,-2.660
1.740E-06,-2.660
1.750E-06,-2.660
1.760E-06,-2.660
1.770E-06,-2.660
1.780E-06,-2.660
1.790E-06,-2.660
1.800E-06,-2.660
1.810E-06,-2.640
1.820E-06,-2.640
1.830E-06,-2.660
1.840E-06,-2.660
1.850E-06,-2.680
1.860E-06,-2.680
1.870E-06,-2.660
1.880E-06,-2.660
1.890E-06,-2.660
1.900E-06,-2.660
1.910E-06,-2.680
1.920E-06,-2.680
1.930E-06,-2.680
1.940E-06,-2.540
1.950E-06,-2.360
1.960E-06,-2.220
1.970E-06,-2.040
1.980E-06,-1.920
1.990E-06,-1.780
2.000E-06,-1.680
2.010E-06,-1.600
2.020E-06,-1.520
2.030E-06,-1.480
2.040E-06,-1.420
2.050E-06,-1.360
2.060E-06,-1.280
2.070E-06,-1.260
2.080E-06,-1.200
2.090E-06,-1.180
2.100E-06,-1.100
2.110E-06,-1.080
2.120E-06,-1.040
2.130E-06,-1.000
2.140E-06,-1.020
2.150E-06,-0.980
2.160E-06,-0.920
2.170E-06,-0.900
2.180E-06,-0.860
2.190E-06,-0.840
2.200E-06,-0.800
2.210E-06,-0.720
2.220E-06,-0.720
2.230E-06,-0.660
2.240E-06,-0.600
2.250E-06,-0.560
2.260E-06,-0.500
2.270E-06,-0.480
2.280E-06,-0.380
2.290E-06,-0.280
2.300E-06,-0.160
2.310E-06,0.000
2.320E-06,0.060
2.330E-06,0.120
2.340E-06,0.180
2.350E-06,0.260
2.360E-06,0.320
2.370E-06,0.340
2.380E-06,0.420
2.390E-06,0.440
2.400E-06,0.460
2.410E-06,0.420
2.420E-06,0.460
2.430E-06,0.460
2.440E-06,0.420
2.450E-06,0.420
2.460E-06,0.400
2.470E-06,0.360
2.480E-06,0.320
2.490E-06,0.280
2.500E-06,0.160
2.510E-06,0.120
2.520E-06,0.040
2.530E-06,0.000
2.540E-06,-0.060
2.550E-06,-0.100
2.560E-06,-0.120
2.570E-06,-0.200
2.580E-06,-0.260
2.590E-06,-0.280
2.600E-06,-0.320
2.610E-06,-0.340
2.620E-06,-0.340
2.630E-06,-0.400
2.640E-06,-0.360
2.650E-06,-0.380
2.660E-06,-0.400
2.670E-06,-0.340
2.680E-06,-0.340
2.690E-06,-0.340
2.700E-06,-0.340
2.710E-06,-0.380
2.720E-06,-0.340
2.730E-06,-0.340
2.740E-06,-0.300
2.750E-06,-0.340
2.760E-06,-0.380
2.770E-06,-0.420
2.780E-06,-0.460
2.790E-06,-0.480
2.800E-06,-0.380
2.810E-06,-0.360
2.820E-06,-0.300
2.830E-06,-0.320
2.840E-06,-0.300
2.850E-06,-0.260
2.860E-06,-0.280
2.870E-06,-0.240
2.880E-06,-0.200
2.890E-06,-0.160
2.900E-06,-0.180
2.910E-06,-0.120
2.920E-06,-0.100
2.930E-06,-0.080
2.940E-06,-0.100
2.950E-06,-0.080
2.960E-06,-0.080
2.970E-06,-0.020
2.980E-06,0.000
2.990E-06,0.060
3.000E-06,0.140
3.010E-06,0.160
3.020E-06,0.160
3.030E-06,0.200
3.040E-06,0.260
3.050E-06,0.240
3.060E-06,0.260
3.070E-06,0.260
3.080E-06,0.220
3.090E-06,0.240
3.100E-06,0.180
3.110E-06,0.080
3.120E-06,-0.100
3.130E-06,-0.240
3.140E-06,-0.340
3.150E-06,-0.300
3.160E-06,-0.180
3.170E-06,0.040
3.180E-06,0.240
3.190E-06,0.420
3.200E-06,0.500
3.210E-06,0.520
3.220E-06,0.540
3.230E-06,0.560
3.240E-06,0.520
3.250E-06,0.500
3.260E-06,0.520
3.270E-06,0.500
3.280E-06,0.440
3.290E-06,0.340
3.300E-06,0.280
3.310E-06,0.240
3.320E-06,0.160
3.330E-06,0.080
3.340E-06,0.040
3.350E-06,-0.020
3.360E-06,-0.080
3.370E-06,-0.140
3.380E-06,-0.160
3.390E-06,-0.220
3.400E-06,-0.220
3.410E-06,-0.200
3.420E-06,-0.160
3.430E-06,-0.160
3.440E-06,-0.060
3.450E-06,-0.020
3.460E-06,0.080
3.470E-06,0.100
3.480E-06,0.080
3.490E-06,0.100
3.500E-06,0.120
3.510E-06,0.120
3.520E-06,0.100
3.530E-06,0.020
3.540E-06,-0.080
3.550E-06,-0.180
3.560E-06,-0.220
3.570E-06,-0.320
3.580E-06,-0.440
3.590E-06,-0.500
3.600E-06,-0.580
3.610E-06,-0.620
3.620E-06,-0.660
3.630E-06,-0.680
3.640E-06,-0.680
3.650E-06,-0.660
3.660E-06,-0.600
3.670E-06,-0.520
3.680E-06,-0.440
3.690E-06,-0.360
3.700E-06,-0.260
3.710E-06,-0.160
3.720E-06,-0.140
3.730E-06,-0.020
3.740E-06,0.020
3.750E-06,0.080
3.760E-06,0.180
3.770E-06,0.260
3.780E-06,0.340
3.790E-06,0.420
3.800E-06,0.400
3.810E-06,0.380
3.820E-06,0.260
3.830E-06,0.220
3.840E-06,0.060
3.850E-06,-0.080
3.860E-06,-0.220
3.870E-06,-0.340
3.880E-06,-0.420
3.890E-06,-0.440
3.900E-06,-0.460
3.910E-06,-0.400
3.920E-06,-0.300
3.930E-06,-0.200
3.940E-06,-0.120
3.950E-06,0.000
3.960E-06,0.080
3.970E-06,0.160
3.980E-06,0.180
3.990E-06,0.220
4.000E-06,0.200
4.010E-06,0.160
4.020E-06,0.160
4.030E-06,0.140
4.040E-06,0.100
4.050E-06,0.120
4.060E-06,0.120
4.070E-06,0.140
4.080E-06,0.140
4.090E-06,0.160
4.100E-06,0.160
4.110E-06,0.200
4.120E-06,0.260
4.130E-06,0.320
4.140E-06,0.340
4.150E-06,0.320
4.160E-06,0.260
4.170E-06,0.260
4.180E-06,0.260
4.190E-06,0.240
4.200E-06,0.240
4.210E-06,0.240
4.220E-06,0.240
4.230E-06,0.180
4.240E-06,0.120
4.250E-06,0.120
4.260E-06,0.120
4.270E-06,0.160
4.280E-06,0.180
4.290E-06,0.240
4.300E-06,0.240
4.310E-06,0.200
4.320E-06,0.240
4.330E-06,0.200
4.340E-06,0.160
4.350E-06,0.140
4.360E-06,0.080
4.370E-06,-0.020
4.380E-06,-0.040
4.390E-06,-0.080
4.400E-06,-0.080
4.410E-06,-0.040
4.420E-06,-0.020
4.430E-06,0.060
4.440E-06,0.120
4.450E-06,0.160
4.460E-06,0.160
4.470E-06,0.140
4.480E-06,0.140
4.490E-06,0.160
4.500E-06,0.180
4.510E-06,0.200
4.520E-06,0.260
4.530E-06,0.320
4.540E-06,0.340
4.550E-06,0.340
4.560E-06,0.340
4.570E-06,0.320
4.580E-06,0.320
4.590E-06,0.320
4.600E-06,0.280
4.610E-06,0.260
4.620E-06,0.220
4.630E-06,0.160
4.640E-06,0.120
4.650E-06,0.080
4.660E-06,0.020
4.670E-06,-0.020
4.680E-06,0.000
4.690E-06,0.020
4.700E-06,0.020
4.710E-06,0.020
4.720E-06,0.060
4.730E-06,0.100
4.740E-06,0.180
4.750E-06,0.240
4.760E-06,0.300
4.770E-06,0.340
4.780E-06,0.400
4.790E-06,0.420
4.800E-06,0.440
4.810E-06,0.460
4.820E-06,0.500
4.830E-06,0.520
4.840E-06,0.540
4.850E-06,0.580
4.860E-06,0.600
4.870E-06,0.640
4.880E-06,0.700
4.890E-06,0.600
4.900E-06,0.620
4.910E-06,0.580
4.920E-06,0.580
4.930E-06,0.560
4.940E-06,0.600
4.950E-06,0.600
4.960E-06,0.600
4.970E-06,0.580
4.980E-06,0.540
4.990E-06,0.520
5.000E-06,0.420
5.010E-06,0.380
5.020E-06,0.320
5.030E-06,0.260
5.040E-06,0.220
5.050E-06,0.180
5.060E-06,0.140
5.070E-06,0.040
5.080E-06,0.000
5.090E-06,-0.120
5.100E-06,-0.160
5.110E-06,-0.260
5.120E-06,-0.320
5.130E-06,-0.360
5.140E-06,-0.400
5.150E-06,-0.380
5.160E-06,-0.400
5.170E-06,-0.340
5.180E-06,-0.280
5.190E-06,-0.220
5.200E-06,-0.120
5.210E-06,-0.100
5.220E-06,-0.080
5.230E-06,-0.080
5.240E-06,0.000
5.250E-06,-0.020
5.260E-06,0.040
5.270E-06,0.080
5.280E-06,0.160
5.290E-06,0.260
5.300E-06,0.300
5.310E-06,0.360
5.320E-06,0.420
5.330E-06,0.460
5.340E-06,0.500
5.350E-06,0.500
5.360E-06,0.560
5.370E-06,0.600
5.380E-06,0.660
5.390E-06,0.720
5.400E-06,0.720
5.410E-06,0.720
5.420E-06,0.680
5.430E-06,0.700
5.440E-06,0.640
5.450E-06,0.580
5.460E-06,0.500
5.470E-06,0.440
5.480E-06,0.420
5.490E-06,0.420
5.500E-06,0.360
5.510E-06,0.440
5.520E-06,0.520
5.530E-06,0.560
5.540E-06,0.660
5.550E-06,0.680
5.560E-06,0.700
5.570E-06,0.740
5.580E-06,0.720
5.590E-06,0.660
5.600E-06,0.620
5.610E-06,0.600
5.620E-06,0.540
5.630E-06,0.520
5.640E-06,0.560
5.650E-06,0.560
5.660E-06,0.600
5.670E-06,0.640
5.680E-06,0.680
5.690E-06,0.700
5.700E-06,0.740
5.710E-06,0.860
5.720E-06,1.020
5.730E-06,1.280
5.740E-06,1.600
5.750E-06,1.940
5.760E-06,2.360
5.770E-06,2.700
5.780E-06,2.760
5.790E-06,2.760
5.800E-06,2.760
5.810E-06,2.740
5.820E-06,2.760
5.830E-06,2.760
5.840E-06,2.780
5.850E-06,2.760
5.860E-06,2.740
5.870E-06,2.760
5.880E-06,2.780
5.890E-06,2.760
5.900E-06,2.760
5.910E-06,2.760
5.920E-06,2.760
5.930E-06,2.740
5.940E-06,2.760
5.950E-06,2.760
5.960E-06,2.760
5.970E-06,2.620
5.980E-06,2.360
5.990E-06,2.100
6.000E-06,1.800
6.010E-06,1.580
6.020E-06,1.320
6.030E-06,1.100
6.040E-06,0.940
6.050E-06,0.840
6.060E-06,0.700
6.070E-06,0.640
6.080E-06,0.560
6.090E-06,0.560
6.100E-06,0.520
6.110E-06,0.500
6.120E-06,0.440
6.130E-06,0.400
6.140E-06,0.400
6.150E-06,0.420
6.160E-06,0.420
6.170E-06,0.440
6.180E-06,0.500
6.190E-06,0.580
6.200E-06,0.580
6.210E-06,0.620
6.220E-06,0.640
6.230E-06,0.600
6.240E-06,0.560
6.250E-06,0.580
6.260E-06,0.560
6.270E-06,0.540
6.280E-06,0.520
6.290E-06,0.540
6.300E-06,0.500
6.310E-06,0.500
6.320E-06,0.500
6.330E-06,0.480
6.340E-06,0.440
6.350E-06,0.420
6.360E-06,0.400
6.370E-06,0.420
6.380E-06,0.400
6.390E-06,0.400
6.400E-06,0.400
6.410E-06,0.420
6.420E-06,0.360
6.430E-06,0.400
6.440E-06,0.420
6.450E-06,0.400
6.460E-06,0.380
6.470E-06,0.380
6.480E-06,0.420
6.490E-06,0.400
6.500E-06,0.400
6.510E-06,0.360
6.520E-06,0.380
6.530E-06,0.380
6.540E-06,0.360
6.550E-06,0.340
6.560E-06,0.320
6.570E-06,0.320
6.580E-06,0.300
6.590E-06,0.320
6.600E-06,0.320
6.610E-06,0.340
6.620E-06,0.380
6.630E-06,0.360
6.640E-06,0.380
6.650E-06,0.400
6.660E-06,0.420
6.670E-06,0.400
6.680E-06,0.420
6.690E-06,0.400
6.700E-06,0.420
6.710E-06,0.460
6.720E-06,0.440
6.730E-06,0.440
6.740E-06,0.420
6.750E-06,0.420
6.760E-06,0.460
6.770E-06,0.500
6.780E-06,0.500
6.790E-06,0.500
6.800E-06,0.500
6.810E-06,0.520
6.820E-06,0.540
6.830E-06,0.540
6.840E-06,0.520
6.850E-06,0.500
6.860E-06,0.520
6.870E-06,0.520
6.880E-06,0.500
6.890E-06,0.540
6.900E-06,0.560
6.910E-06,0.560
6.920E-06,0.600
6.930E-06,0.580
6.940E-06,0.560
6.950E-06,0.540
6.960E-06,0.500
6.970E-06,0.480
6.980E-06,0.440
6.990E-06,0.380
7.000E-06,0.360
7.010E-06,0.320
7.020E-06,0.300
7.030E-06,0.280
7.040E-06,0.280
7.050E-06,0.260
7.060E-06,0.300
7.070E-06,0.340
7.080E-06,0.340
7.090E-06,0.340
7.100E-06,0.340
7.110E-06,0.320
7.120E-06,0.320
7.130E-06,0.320
7.140E-06,0.300
7.150E-06,0.300
7.160E-06,0.280
7.170E-06,0.260
7.180E-06,0.280
7.190E-06,0.280
7.200E-06,0.260
7.210E-06,0.280
7.220E-06,0.280
7.230E-06,0.260
7.240E-06,0.260
7.250E-06,0.240
7.260E-06,0.240
7.270E-06,0.280
7.280E-06,0.280
7.290E-06,0.260
7.300E-06,0.260
7.310E-06,0.280
7.320E-06,0.280
7.330E-06,0.260
7.340E-06,0.300
7.350E-06,0.320
7.360E-06,0.300
7.370E-06,0.320
7.380E-06,0.320
7.390E-06,0.300
7.400E-06,0.320
7.410E-06,0.320
7.420E-06,0.300
7.430E-06,0.300
7.440E-06,0.300
7.450E-06,0.260
7.460E-06,0.280
7.470E-06,0.260
7.480E-06,0.260
7.490E-06,0.260
7.500E-06,0.240
7.510E-06,0.260
7.520E-06,0.280
7.530E-06,0.280
7.540E-06,0.280
7.550E-06,0.280
7.560E-06,0.260
7.570E-06,0.280
7.580E-06,0.280
7.590E-06,0.280
7.600E-06,0.300
7.610E-06,0.300
7.620E-06,0.320
7.630E-06,0.320
7.640E-06,0.340
7.650E-06,0.360
7.660E-06,0.360
7.670E-06,0.400
7.680E-06,0.360
7.690E-06,0.420
7.700E-06,0.400
7.710E-06,0.420
7.720E-06,0.420
7.730E-06,0.460
7.740E-06,0.480
7.750E-06,0.440
7.760E-06,0.460
7.770E-06,0.420
