mediciones/6-26/12.6/WaveData59127.csv

#timebase=2000000(ps)
,#voltbase=100000(mv/100)
#size=4000
-8.150E-06,0.004
-8.140E-06,0.000
-8.130E-06,0.000
-8.120E-06,0.004
-8.110E-06,0.000
-8.100E-06,0.000
-8.090E-06,0.000
-8.080E-06,0.000
-8.070E-06,0.004
-8.060E-06,0.000
-8.050E-06,0.000
-8.040E-06,0.000
-8.030E-06,0.004
-8.020E-06,0.004
-8.010E-06,0.004
-8.000E-06,0.008
-7.990E-06,0.000
-7.980E-06,0.004
-7.970E-06,0.004
-7.960E-06,0.000
-7.950E-06,0.000
-7.940E-06,0.004
-7.930E-06,0.000
-7.920E-06,0.004
-7.910E-06,0.004
-7.900E-06,0.004
-7.890E-06,0.004
-7.880E-06,0.004
-7.870E-06,0.000
-7.860E-06,0.004
-7.850E-06,0.000
-7.840E-06,0.000
-7.830E-06,0.000
-7.820E-06,0.004
-7.810E-06,0.000
-7.800E-06,0.000
-7.790E-06,0.000
-7.780E-06,0.004
-7.770E-06,0.008
-7.760E-06,0.000
-7.750E-06,0.000
-7.740E-06,0.004
-7.730E-06,0.000
-7.720E-06,0.004
-7.710E-06,0.000
-7.700E-06,0.000
-7.690E-06,0.004
-7.680E-06,0.000
-7.670E-06,0.004
-7.660E-06,0.004
-7.650E-06,0.004
-7.640E-06,-0.004
-7.630E-06,0.000
-7.620E-06,0.000
-7.610E-06,0.004
-7.600E-06,0.004
-7.590E-06,0.004
-7.580E-06,0.004
-7.570E-06,0.000
-7.560E-06,0.004
-7.550E-06,0.004
-7.540E-06,0.000
-7.530E-06,0.004
-7.520E-06,0.008
-7.510E-06,0.008
-7.500E-06,-0.004
-7.490E-06,0.000
-7.480E-06,0.004
-7.470E-06,0.008
-7.460E-06,0.004
-7.450E-06,0.000
-7.440E-06,0.004
-7.430E-06,0.004
-7.420E-06,0.004
-7.410E-06,0.000
-7.400E-06,0.000
-7.390E-06,0.004
-7.380E-06,0.000
-7.370E-06,0.000
-7.360E-06,0.004
-7.350E-06,0.000
-7.340E-06,0.004
-7.330E-06,0.004
-7.320E-06,0.004
-7.310E-06,0.008
-7.300E-06,0.008
-7.290E-06,0.000
-7.280E-06,0.004
-7.270E-06,0.000
-7.260E-06,0.000
-7.250E-06,0.008
-7.240E-06,0.000
-7.230E-06,-0.004
-7.220E-06,0.004
-7.210E-06,0.004
-7.200E-06,0.000
-7.190E-06,0.000
-7.180E-06,-0.004
-7.170E-06,0.000
-7.160E-06,0.000
-7.150E-06,-0.004
-7.140E-06,-0.004
-7.130E-06,0.000
-7.120E-06,-0.004
-7.110E-06,0.004
-7.100E-06,0.004
-7.090E-06,0.004
-7.080E-06,0.004
-7.070E-06,0.000
-7.060E-06,0.000
-7.050E-06,0.004
-7.040E-06,0.004
-7.030E-06,0.008
-7.020E-06,0.004
-7.010E-06,0.004
-7.000E-06,0.004
-6.990E-06,0.000
-6.980E-06,0.004
-6.970E-06,0.008
-6.960E-06,0.000
-6.950E-06,0.000
-6.940E-06,0.004
-6.930E-06,0.000
-6.920E-06,0.004
-6.910E-06,0.004
-6.900E-06,0.004
-6.890E-06,0.000
-6.880E-06,0.000
-6.870E-06,0.000
-6.860E-06,-0.004
-6.850E-06,0.004
-6.840E-06,0.008
-6.830E-06,0.004
-6.820E-06,0.000
-6.810E-06,-0.004
-6.800E-06,0.000
-6.790E-06,0.000
-6.780E-06,0.008
-6.770E-06,0.000
-6.760E-06,0.000
-6.750E-06,0.004
-6.740E-06,0.004
-6.730E-06,0.004
-6.720E-06,0.004
-6.710E-06,0.004
-6.700E-06,0.004
-6.690E-06,0.004
-6.680E-06,0.004
-6.670E-06,0.004
-6.660E-06,0.008
-6.650E-06,0.000
-6.640E-06,0.000
-6.630E-06,0.004
-6.620E-06,0.000
-6.610E-06,0.000
-6.600E-06,0.004
-6.590E-06,0.004
-6.580E-06,0.004
-6.570E-06,0.004
-6.560E-06,0.004
-6.550E-06,0.004
-6.540E-06,0.004
-6.530E-06,0.004
-6.520E-06,0.004
-6.510E-06,0.000
-6.500E-06,0.004
-6.490E-06,0.000
-6.480E-06,0.004
-6.470E-06,0.000
-6.460E-06,0.004
-6.450E-06,0.000
-6.440E-06,0.004
-6.430E-06,0.004
-6.420E-06,0.004
-6.410E-06,0.004
-6.400E-06,0.004
-6.390E-06,0.000
-6.380E-06,0.000
-6.370E-06,-0.004
-6.360E-06,0.004
-6.350E-06,0.008
-6.340E-06,0.008
-6.330E-06,0.008
-6.320E-06,0.004
-6.310E-06,0.000
-6.300E-06,0.004
-6.290E-06,0.004
-6.280E-06,0.004
-6.270E-06,0.008
-6.260E-06,0.008
-6.250E-06,0.000
-6.240E-06,-0.004
-6.230E-06,0.004
-6.220E-06,0.000
-6.210E-06,0.004
-6.200E-06,0.000
-6.190E-06,0.004
-6.180E-06,0.008
-6.170E-06,0.000
-6.160E-06,0.000
-6.150E-06,0.004
-6.140E-06,0.000
-6.130E-06,0.004
-6.120E-06,0.008
-6.110E-06,0.004
-6.100E-06,0.008
-6.090E-06,0.004
-6.080E-06,0.004
-6.070E-06,0.004
-6.060E-06,-0.004
-6.050E-06,0.000
-6.040E-06,0.008
-6.030E-06,-0.004
-6.020E-06,-0.004
-6.010E-06,0.004
-6.000E-06,0.000
-5.990E-06,-0.004
-5.980E-06,0.004
-5.970E-06,-0.004
-5.960E-06,0.004
-5.950E-06,0.000
-5.940E-06,0.004
-5.930E-06,0.004
-5.920E-06,0.004
-5.910E-06,0.008
-5.900E-06,0.008
-5.890E-06,0.000
-5.880E-06,0.004
-5.870E-06,0.004
-5.860E-06,0.004
-5.850E-06,0.004
-5.840E-06,0.004
-5.830E-06,0.000
-5.820E-06,0.004
-5.810E-06,0.004
-5.800E-06,0.004
-5.790E-06,0.004
-5.780E-06,0.000
-5.770E-06,0.004
-5.760E-06,0.004
-5.750E-06,0.004
-5.740E-06,0.008
-5.730E-06,0.008
-5.720E-06,0.004
-5.710E-06,0.004
-5.700E-06,0.004
-5.690E-06,0.008
-5.680E-06,0.008
-5.670E-06,0.000
-5.660E-06,0.004
-5.650E-06,0.000
-5.640E-06,0.004
-5.630E-06,0.000
-5.620E-06,0.004
-5.610E-06,0.008
-5.600E-06,0.008
-5.590E-06,0.000
-5.580E-06,0.004
-5.570E-06,0.004
-5.560E-06,0.000
-5.550E-06,-0.004
-5.540E-06,0.004
-5.530E-06,0.008
-5.520E-06,0.008
-5.510E-06,0.000
-5.500E-06,0.004
-5.490E-06,0.004
-5.480E-06,0.004
-5.470E-06,0.004
-5.460E-06,0.000
-5.450E-06,0.008
-5.440E-06,0.008
-5.430E-06,0.000
-5.420E-06,0.004
-5.410E-06,0.004
-5.400E-06,0.004
-5.390E-06,0.004
-5.380E-06,0.004
-5.370E-06,0.000
-5.360E-06,0.004
-5.350E-06,0.000
-5.340E-06,0.004
-5.330E-06,0.000
-5.320E-06,0.004
-5.310E-06,0.000
-5.300E-06,0.004
-5.290E-06,0.000
-5.280E-06,0.004
-5.270E-06,0.004
-5.260E-06,0.004
-5.250E-06,0.004
-5.240E-06,0.004
-5.230E-06,0.000
-5.220E-06,0.004
-5.210E-06,0.000
-5.200E-06,0.004
-5.190E-06,0.004
-5.180E-06,0.004
-5.170E-06,0.004
-5.160E-06,0.004
-5.150E-06,0.004
-5.140E-06,0.000
-5.130E-06,0.004
-5.120E-06,0.008
-5.110E-06,0.008
-5.100E-06,0.000
-5.090E-06,0.000
-5.080E-06,0.004
-5.070E-06,0.004
-5.060E-06,0.004
-5.050E-06,0.004
-5.040E-06,0.004
-5.030E-06,0.004
-5.020E-06,0.004
-5.010E-06,0.004
-5.000E-06,0.004
-4.990E-06,0.004
-4.980E-06,0.004
-4.970E-06,0.004
-4.960E-06,0.004
-4.950E-06,0.004
-4.940E-06,0.004
-4.930E-06,0.004
-4.920E-06,0.008
-4.910E-06,0.008
-4.900E-06,0.000
-4.890E-06,0.000
-4.880E-06,0.004
-4.870E-06,0.004
-4.860E-06,0.004
-4.850E-06,0.004
-4.840E-06,0.004
-4.830E-06,0.004
-4.820E-06,0.000
-4.810E-06,0.000
-4.800E-06,0.000
-4.790E-06,0.004
-4.780E-06,0.004
-4.770E-06,0.004
-4.760E-06,0.004
-4.750E-06,0.004
-4.740E-06,0.004
-4.730E-06,0.004
-4.720E-06,0.004
-4.710E-06,0.012
-4.700E-06,0.008
-4.690E-06,0.008
-4.680E-06,0.008
-4.670E-06,-0.004
-4.660E-06,0.000
-4.650E-06,0.004
-4.640E-06,0.000
-4.630E-06,0.004
-4.620E-06,0.000
-4.610E-06,0.004
-4.600E-06,0.000
-4.590E-06,0.000
-4.580E-06,0.004
-4.570E-06,-0.004
-4.560E-06,0.000
-4.550E-06,0.004
-4.540E-06,0.000
-4.530E-06,0.004
-4.520E-06,0.004
-4.510E-06,0.004
-4.500E-06,0.004
-4.490E-06,0.004
-4.480E-06,0.004
-4.470E-06,0.004
-4.460E-06,0.004
-4.450E-06,0.004
-4.440E-06,0.004
-4.430E-06,0.004
-4.420E-06,0.004
-4.410E-06,0.004
-4.400E-06,0.000
-4.390E-06,0.004
-4.380E-06,0.004
-4.370E-06,0.004
-4.360E-06,0.004
-4.350E-06,0.004
-4.340E-06,0.004
-4.330E-06,0.000
-4.320E-06,0.004
-4.310E-06,-0.004
-4.300E-06,0.004
-4.290E-06,0.004
-4.280E-06,0.004
-4.270E-06,0.004
-4.260E-06,0.000
-4.250E-06,0.004
-4.240E-06,0.000
-4.230E-06,0.000
-4.220E-06,0.000
-4.210E-06,0.000
-4.200E-06,0.004
-4.190E-06,0.004
-4.180E-06,0.004
-4.170E-06,0.000
-4.160E-06,0.004
-4.150E-06,0.000
-4.140E-06,0.004
-4.130E-06,0.000
-4.120E-06,0.004
-4.110E-06,0.008
-4.100E-06,0.008
-4.090E-06,0.000
-4.080E-06,0.000
-4.070E-06,0.000
-4.060E-06,-0.004
-4.050E-06,0.004
-4.040E-06,0.000
-4.030E-06,0.004
-4.020E-06,0.004
-4.010E-06,0.004
-4.000E-06,0.000
-3.990E-06,0.004
-3.980E-06,-0.004
-3.970E-06,0.004
-3.960E-06,0.004
-3.950E-06,0.004
-3.940E-06,0.008
-3.930E-06,0.008
-3.920E-06,0.008
-3.910E-06,0.000
-3.900E-06,0.000
-3.890E-06,0.004
-3.880E-06,-0.004
-3.870E-06,0.000
-3.860E-06,0.004
-3.850E-06,0.008
-3.840E-06,0.000
-3.830E-06,0.000
-3.820E-06,0.004
-3.810E-06,0.004
-3.800E-06,0.004
-3.790E-06,0.004
-3.780E-06,0.000
-3.770E-06,0.004
-3.760E-06,0.000
-3.750E-06,0.004
-3.740E-06,0.000
-3.730E-06,0.004
-3.720E-06,0.000
-3.710E-06,0.008
-3.700E-06,0.008
-3.690E-06,0.008
-3.680E-06,0.004
-3.670E-06,-0.004
-3.660E-06,0.000
-3.650E-06,0.000
-3.640E-06,0.004
-3.630E-06,0.004
-3.620E-06,0.000
-3.610E-06,0.000
-3.600E-06,0.004
-3.590E-06,0.000
-3.580E-06,0.000
-3.570E-06,0.000
-3.560E-06,0.000
-3.550E-06,0.000
-3.540E-06,-0.004
-3.530E-06,0.004
-3.520E-06,0.004
-3.510E-06,0.004
-3.500E-06,0.004
-3.490E-06,0.004
-3.480E-06,0.008
-3.470E-06,-0.004
-3.460E-06,-0.004
-3.450E-06,-0.016
-3.440E-06,-0.004
-3.430E-06,0.052
-3.420E-06,0.304
-3.410E-06,0.540
-3.400E-06,0.540
-3.390E-06,0.540
-3.380E-06,0.540
-3.370E-06,0.540
-3.360E-06,0.232
-3.350E-06,-0.520
-3.340E-06,-0.524
-3.330E-06,-0.520
-3.320E-06,-0.520
-3.310E-06,-0.520
-3.300E-06,-0.524
-3.290E-06,-0.520
-3.280E-06,-0.516
-3.270E-06,-0.520
-3.260E-06,-0.520
-3.250E-06,-0.284
-3.240E-06,0.088
-3.230E-06,0.260
-3.220E-06,0.228
-3.210E-06,0.180
-3.200E-06,0.272
-3.190E-06,0.484
-3.180E-06,0.540
-3.170E-06,0.536
-3.160E-06,0.540
-3.150E-06,0.504
-3.140E-06,0.540
-3.130E-06,0.540
-3.120E-06,0.540
-3.110E-06,0.540
-3.100E-06,0.536
-3.090E-06,0.540
-3.080E-06,0.332
-3.070E-06,0.072
-3.060E-06,-0.168
-3.050E-06,-0.324
-3.040E-06,-0.432
-3.030E-06,-0.404
-3.020E-06,-0.384
-3.010E-06,-0.276
-3.000E-06,-0.140
-2.990E-06,0.068
-2.980E-06,0.320
-2.970E-06,0.540
-2.960E-06,0.536
-2.950E-06,0.540
-2.940E-06,0.540
-2.930E-06,0.540
-2.920E-06,0.536
-2.910E-06,0.540
-2.900E-06,0.412
-2.890E-06,0.208
-2.880E-06,-0.008
-2.870E-06,-0.212
-2.860E-06,-0.388
-2.850E-06,-0.516
-2.840E-06,-0.520
-2.830E-06,-0.524
-2.820E-06,-0.524
-2.810E-06,-0.524
-2.800E-06,-0.524
-2.790E-06,-0.516
-2.780E-06,-0.520
-2.770E-06,-0.524
-2.760E-06,-0.520
-2.750E-06,-0.472
-2.740E-06,-0.240
-2.730E-06,0.008
-2.720E-06,0.244
-2.710E-06,0.484
-2.700E-06,0.540
-2.690E-06,0.544
-2.680E-06,0.540
-2.670E-06,0.540
-2.660E-06,0.540
-2.650E-06,0.472
-2.640E-06,0.372
-2.630E-06,0.268
-2.620E-06,0.156
-2.610E-06,0.036
-2.600E-06,-0.064
-2.590E-06,-0.136
-2.580E-06,-0.168
-2.570E-06,-0.164
-2.560E-06,-0.168
-2.550E-06,-0.172
-2.540E-06,-0.196
-2.530E-06,-0.236
-2.520E-06,-0.252
-2.510E-06,-0.252
-2.500E-06,-0.204
-2.490E-06,-0.144
-2.480E-06,-0.048
-2.470E-06,0.040
-2.460E-06,0.136
-2.450E-06,0.196
-2.440E-06,0.252
-2.430E-06,0.288
-2.420E-06,0.304
-2.410E-06,0.292
-2.400E-06,0.256
-2.390E-06,0.228
-2.380E-06,0.172
-2.370E-06,0.160
-2.360E-06,0.116
-2.350E-06,0.072
-2.340E-06,-0.004
-2.330E-06,0.024
-2.320E-06,-0.028
-2.310E-06,0.004
-2.300E-06,0.020
-2.290E-06,0.044
-2.280E-06,0.044
-2.270E-06,0.164
-2.260E-06,0.168
-2.250E-06,0.092
-2.240E-06,0.048
-2.230E-06,-0.052
-2.220E-06,-0.020
-2.210E-06,0.024
-2.200E-06,0.044
-2.190E-06,0.088
-2.180E-06,0.024
-2.170E-06,-0.028
-2.160E-06,-0.060
-2.150E-06,-0.076
-2.140E-06,-0.056
-2.130E-06,-0.004
-2.120E-06,0.004
-2.110E-06,-0.004
-2.100E-06,-0.020
-2.090E-06,-0.060
-2.080E-06,-0.060
-2.070E-06,-0.052
-2.060E-06,-0.064
-2.050E-06,-0.064
-2.040E-06,-0.076
-2.030E-06,-0.104
-2.020E-06,-0.128
-2.010E-06,-0.116
-2.000E-06,-0.128
-1.990E-06,-0.100
-1.980E-06,-0.096
-1.970E-06,-0.084
-1.960E-06,-0.072
-1.950E-06,-0.032
-1.940E-06,0.008
-1.930E-06,0.072
-1.920E-06,0.084
-1.910E-06,0.112
-1.900E-06,0.116
-1.890E-06,0.120
-1.880E-06,0.156
-1.870E-06,0.184
-1.860E-06,0.200
-1.850E-06,0.240
-1.840E-06,0.236
-1.830E-06,0.244
-1.820E-06,0.244
-1.810E-06,0.244
-1.800E-06,0.260
-1.790E-06,0.256
-1.780E-06,0.240
-1.770E-06,0.208
-1.760E-06,0.200
-1.750E-06,0.176
-1.740E-06,0.176
-1.730E-06,0.160
-1.720E-06,0.148
-1.710E-06,0.148
-1.700E-06,0.136
-1.690E-06,0.148
-1.680E-06,0.164
-1.670E-06,0.176
-1.660E-06,0.264
-1.650E-06,0.280
-1.640E-06,0.348
-1.630E-06,0.428
-1.620E-06,0.424
-1.610E-06,0.440
-1.600E-06,0.500
-1.590E-06,0.032
-1.580E-06,-0.372
-1.570E-06,-0.048
-1.560E-06,-0.100
-1.550E-06,0.540
-1.540E-06,0.544
-1.530E-06,0.540
-1.520E-06,0.536
-1.510E-06,-0.096
-1.500E-06,-0.372
-1.490E-06,0.028
-1.480E-06,0.428
-1.470E-06,0.540
-1.460E-06,0.540
-1.450E-06,0.140
-1.440E-06,-0.324
-1.430E-06,-0.524
-1.420E-06,-0.516
-1.410E-06,-0.188
-1.400E-06,0.060
-1.390E-06,0.176
-1.380E-06,-0.008
-1.370E-06,-0.372
-1.360E-06,-0.488
-1.350E-06,-0.524
-1.340E-06,-0.408
-1.330E-06,-0.204
-1.320E-06,-0.220
-1.310E-06,-0.120
-1.300E-06,-0.244
-1.290E-06,-0.372
-1.280E-06,-0.404
-1.270E-06,-0.344
-1.260E-06,-0.268
-1.250E-06,-0.148
-1.240E-06,-0.108
-1.230E-06,-0.084
-1.220E-06,-0.116
-1.210E-06,-0.172
-1.200E-06,-0.188
-1.190E-06,-0.196
-1.180E-06,-0.200
-1.170E-06,-0.172
-1.160E-06,-0.196
-1.150E-06,-0.264
-1.140E-06,-0.292
-1.130E-06,-0.288
-1.120E-06,-0.268
-1.110E-06,-0.200
-1.100E-06,-0.212
-1.090E-06,-0.224
-1.080E-06,-0.276
-1.070E-06,-0.304
-1.060E-06,-0.164
-1.050E-06,0.024
-1.040E-06,0.184
-1.030E-06,0.332
-1.020E-06,0.428
-1.010E-06,0.492
-1.000E-06,0.484
-9.900E-07,0.540
-9.800E-07,0.540
-9.700E-07,0.544
-9.600E-07,0.540
-9.500E-07,0.540
-9.400E-07,0.540
-9.300E-07,0.536
-9.200E-07,0.540
-9.100E-07,0.540
-9.000E-07,0.536
-8.900E-07,0.444
-8.800E-07,0.412
-8.700E-07,0.364
-8.600E-07,0.256
-8.500E-07,0.080
-8.400E-07,-0.144
-8.300E-07,-0.344
-8.200E-07,-0.464
-8.100E-07,-0.500
-8.000E-07,-0.476
-7.900E-07,-0.436
-7.800E-07,-0.436
-7.700E-07,-0.476
-7.600E-07,-0.520
-7.500E-07,-0.520
-7.400E-07,-0.520
-7.300E-07,-0.520
-7.200E-07,-0.520
-7.100E-07,-0.524
-7.000E-07,-0.520
-6.900E-07,-0.516
-6.800E-07,-0.520
-6.700E-07,-0.520
-6.600E-07,-0.524
-6.500E-07,-0.520
-6.400E-07,-0.516
-6.300E-07,-0.520
-6.200E-07,-0.520
-6.100E-07,-0.520
-6.000E-07,-0.396
-5.900E-07,-0.280
-5.800E-07,-0.244
-5.700E-07,-0.284
-5.600E-07,-0.268
-5.500E-07,-0.140
-5.400E-07,0.104
-5.300E-07,0.384
-5.200E-07,0.540
-5.100E-07,0.540
-5.000E-07,0.536
-4.900E-07,0.540
-4.800E-07,0.540
-4.700E-07,0.540
-4.600E-07,0.536
-4.500E-07,0.540
-4.400E-07,0.540
-4.300E-07,0.536
-4.200E-07,0.540
-4.100E-07,0.540
-4.000E-07,0.540
-3.900E-07,0.540
-3.800E-07,0.476
-3.700E-07,0.352
-3.600E-07,0.228
-3.500E-07,0.212
-3.400E-07,0.220
-3.300E-07,0.216
-3.200E-07,0.212
-3.100E-07,0.156
-3.000E-07,0.108
-2.900E-07,0.068
-2.800E-07,0.088
-2.700E-07,0.100
-2.600E-07,0.140
-2.500E-07,0.168
-2.400E-07,0.148
-2.300E-07,0.108
-2.200E-07,0.064
-2.100E-07,0.068
-2.000E-07,0.124
-1.900E-07,0.196
-1.800E-07,0.268
-1.700E-07,0.308
-1.600E-07,0.424
-1.500E-07,0.424
-1.400E-07,0.328
-1.300E-07,0.216
-1.200E-07,-0.116
-1.100E-07,-0.024
-1.000E-07,-0.420
-9.000E-08,-0.524
-8.000E-08,-0.128
-7.000E-08,0.000
-6.000E-08,0.540
-5.000E-08,0.544
-4.000E-08,-0.308
-3.000E-08,-0.516
-2.000E-08,-0.516
-1.000E-08,-0.520
0.000E+00,0.536
1.000E-08,0.540
2.000E-08,0.544
3.000E-08,0.540
4.000E-08,0.536
5.000E-08,0.540
6.000E-08,0.540
7.000E-08,0.316
8.000E-08,0.388
9.000E-08,0.544
1.000E-07,0.372
1.100E-07,0.232
1.200E-07,-0.396
1.300E-07,-0.520
1.400E-07,-0.520
1.500E-07,-0.520
1.600E-07,-0.524
1.700E-07,-0.520
1.800E-07,-0.520
1.900E-07,-0.524
2.000E-07,-0.520
2.100E-07,-0.516
2.200E-07,-0.520
2.300E-07,-0.520
2.400E-07,-0.520
2.500E-07,-0.520
2.600E-07,-0.524
2.700E-07,-0.520
2.800E-07,0.172
2.900E-07,0.540
3.000E-07,0.536
3.100E-07,0.540
3.200E-07,0.544
3.300E-07,0.540
3.400E-07,0.540
3.500E-07,0.536
3.600E-07,0.540
3.700E-07,0.540
3.800E-07,0.544
3.900E-07,0.544
4.000E-07,0.540
4.100E-07,0.408
4.200E-07,0.088
4.300E-07,-0.164
4.400E-07,-0.404
4.500E-07,-0.516
4.600E-07,-0.520
4.700E-07,-0.520
4.800E-07,-0.520
4.900E-07,-0.520
5.000E-07,-0.500
5.100E-07,-0.520
5.200E-07,-0.516
5.300E-07,-0.520
5.400E-07,-0.516
5.500E-07,-0.520
5.600E-07,-0.516
5.700E-07,-0.516
5.800E-07,-0.520
5.900E-07,-0.520
6.000E-07,-0.520
6.100E-07,-0.328
6.200E-07,0.280
6.300E-07,0.540
6.400E-07,0.544
6.500E-07,0.544
6.600E-07,0.540
6.700E-07,0.540
6.800E-07,0.536
6.900E-07,0.312
7.000E-07,0.136
7.100E-07,0.036
7.200E-07,0.084
7.300E-07,0.052
7.400E-07,-0.116
7.500E-07,-0.436
7.600E-07,-0.520
7.700E-07,-0.520
7.800E-07,-0.520
7.900E-07,-0.524
8.000E-07,-0.520
8.100E-07,-0.516
8.200E-07,-0.520
8.300E-07,-0.520
8.400E-07,-0.524
8.500E-07,-0.520
8.600E-07,-0.516
8.700E-07,-0.516
8.800E-07,-0.520
8.900E-07,-0.516
9.000E-07,-0.516
9.100E-07,-0.520
9.200E-07,-0.516
9.300E-07,-0.516
9.400E-07,-0.520
9.500E-07,-0.524
9.600E-07,-0.524
9.700E-07,-0.516
9.800E-07,-0.516
9.900E-07,0.124
1.000E-06,0.540
1.010E-06,0.540
1.020E-06,0.540
1.030E-06,0.540
1.040E-06,0.540
1.050E-06,0.540
1.060E-06,0.544
1.070E-06,0.544
1.080E-06,0.540
1.090E-06,0.540
1.100E-06,0.540
1.110E-06,0.540
1.120E-06,0.540
1.130E-06,0.540
1.140E-06,0.368
1.150E-06,-0.436
1.160E-06,-0.520
1.170E-06,-0.524
1.180E-06,-0.520
1.190E-06,-0.516
1.200E-06,-0.520
1.210E-06,-0.516
1.220E-06,-0.516
1.230E-06,-0.520
1.240E-06,-0.520
1.250E-06,-0.524
1.260E-06,-0.520
1.270E-06,-0.516
1.280E-06,-0.520
1.290E-06,-0.520
1.300E-06,-0.524
1.310E-06,-0.520
1.320E-06,-0.516
1.330E-06,-0.520
1.340E-06,-0.516
1.350E-06,-0.520
1.360E-06,-0.512
1.370E-06,0.068
1.380E-06,0.540
1.390E-06,0.540
1.400E-06,0.540
1.410E-06,0.540
1.420E-06,0.536
1.430E-06,0.540
1.440E-06,0.540
1.450E-06,0.536
1.460E-06,0.540
1.470E-06,0.540
1.480E-06,0.540
1.490E-06,0.540
1.500E-06,0.544
1.510E-06,0.544
1.520E-06,0.540
1.530E-06,0.540
1.540E-06,0.540
1.550E-06,0.544
1.560E-06,0.544
1.570E-06,0.540
1.580E-06,0.540
1.590E-06,0.540
1.600E-06,0.540
1.610E-06,0.540
1.620E-06,0.536
1.630E-06,0.540
1.640E-06,0.540
1.650E-06,0.184
1.660E-06,-0.520
1.670E-06,-0.520
1.680E-06,-0.520
1.690E-06,-0.516
1.700E-06,-0.520
1.710E-06,-0.520
1.720E-06,-0.524
1.730E-06,-0.520
1.740E-06,-0.516
1.750E-06,-0.516
1.760E-06,-0.520
1.770E-06,-0.516
1.780E-06,-0.520
1.790E-06,-0.524
1.800E-06,-0.524
1.810E-06,-0.516
1.820E-06,-0.520
1.830E-06,-0.524
1.840E-06,-0.520
1.850E-06,-0.512
1.860E-06,0.172
1.870E-06,0.540
1.880E-06,0.540
1.890E-06,0.540
1.900E-06,0.536
1.910E-06,0.540
1.920E-06,0.540
1.930E-06,0.544
1.940E-06,0.540
1.950E-06,0.536
1.960E-06,0.540
1.970E-06,0.540
1.980E-06,0.540
1.990E-06,0.404
2.000E-06,-0.472
2.010E-06,-0.524
2.020E-06,-0.520
2.030E-06,-0.516
2.040E-06,-0.520
2.050E-06,-0.520
2.060E-06,-0.524
2.070E-06,-0.520
2.080E-06,-0.516
2.090E-06,0.540
2.100E-06,0.540
2.110E-06,0.536
2.120E-06,0.540
2.130E-06,0.544
2.140E-06,0.540
2.150E-06,0.540
2.160E-06,0.544
2.170E-06,0.544
2.180E-06,0.540
2.190E-06,0.544
2.200E-06,0.540
2.210E-06,-0.480
2.220E-06,-0.520
2.230E-06,-0.520
2.240E-06,-0.524
2.250E-06,-0.520
2.260E-06,-0.520
2.270E-06,-0.524
2.280E-06,-0.520
2.290E-06,-0.524
2.300E-06,-0.516
2.310E-06,-0.516
2.320E-06,-0.520
2.330E-06,-0.480
2.340E-06,0.544
2.350E-06,0.544
2.360E-06,0.540
2.370E-06,0.540
2.380E-06,0.536
2.390E-06,0.540
2.400E-06,0.540
2.410E-06,0.536
2.420E-06,0.540
2.430E-06,0.544
2.440E-06,0.540
2.450E-06,0.544
2.460E-06,0.544
2.470E-06,0.540
2.480E-06,0.480
2.490E-06,0.500
2.500E-06,0.496
2.510E-06,0.540
2.520E-06,0.540
2.530E-06,0.540
2.540E-06,0.544
2.550E-06,0.544
2.560E-06,0.540
2.570E-06,0.544
2.580E-06,0.540
2.590E-06,0.540
2.600E-06,0.536
2.610E-06,0.540
2.620E-06,0.544
2.630E-06,0.472
2.640E-06,0.392
2.650E-06,0.352
2.660E-06,0.324
2.670E-06,0.324
2.680E-06,0.336
2.690E-06,0.344
2.700E-06,0.344
2.710E-06,0.332
2.720E-06,0.328
2.730E-06,0.276
2.740E-06,0.208
2.750E-06,0.120
2.760E-06,0.036
2.770E-06,-0.036
2.780E-06,-0.068
2.790E-06,-0.084
2.800E-06,-0.044
2.810E-06,0.056
2.820E-06,0.216
2.830E-06,0.384
2.840E-06,0.544
2.850E-06,0.540
2.860E-06,0.536
2.870E-06,0.540
2.880E-06,0.544
2.890E-06,0.540
2.900E-06,0.544
2.910E-06,0.540
2.920E-06,0.540
2.930E-06,0.540
2.940E-06,0.540
2.950E-06,0.512
2.960E-06,0.364
2.970E-06,0.232
2.980E-06,0.120
2.990E-06,0.028
3.000E-06,-0.020
3.010E-06,-0.048
3.020E-06,-0.048
3.030E-06,-0.024
3.040E-06,0.024
3.050E-06,0.072
3.060E-06,0.136
3.070E-06,0.200
3.080E-06,0.272
3.090E-06,0.340
3.100E-06,0.396
3.110E-06,0.440
3.120E-06,0.460
3.130E-06,0.464
3.140E-06,0.456
3.150E-06,0.436
3.160E-06,0.412
3.170E-06,0.380
3.180E-06,0.332
3.190E-06,0.284
3.200E-06,0.212
3.210E-06,0.160
3.220E-06,0.092
3.230E-06,0.032
3.240E-06,-0.012
3.250E-06,-0.044
3.260E-06,-0.056
3.270E-06,-0.048
3.280E-06,-0.024
3.290E-06,0.004
3.300E-06,0.020
3.310E-06,0.060
3.320E-06,0.092
3.330E-06,0.128
3.340E-06,0.156
3.350E-06,0.168
3.360E-06,0.160
3.370E-06,0.148
3.380E-06,0.132
3.390E-06,0.112
3.400E-06,0.088
3.410E-06,0.052
3.420E-06,0.008
3.430E-06,-0.024
3.440E-06,-0.040
3.450E-06,-0.056
3.460E-06,-0.068
3.470E-06,-0.104
3.480E-06,-0.132
3.490E-06,-0.152
3.500E-06,-0.168
3.510E-06,-0.188
3.520E-06,-0.228
3.530E-06,-0.288
3.540E-06,-0.364
3.550E-06,-0.452
3.560E-06,-0.516
3.570E-06,-0.520
3.580E-06,-0.520
