mediciones/6-26/12.6/WaveData59129.csv

#timebase=2000000(ps)
,#voltbase=100000(mv/100)
#size=4000
-8.150E-06,0.000
-8.140E-06,0.000
-8.130E-06,0.000
-8.120E-06,0.000
-8.110E-06,0.000
-8.100E-06,0.000
-8.090E-06,0.000
-8.080E-06,0.000
-8.070E-06,-0.004
-8.060E-06,0.000
-8.050E-06,-0.004
-8.040E-06,0.000
-8.030E-06,0.000
-8.020E-06,0.000
-8.010E-06,0.000
-8.000E-06,0.000
-7.990E-06,-0.004
-7.980E-06,0.000
-7.970E-06,-0.004
-7.960E-06,0.000
-7.950E-06,0.000
-7.940E-06,0.000
-7.930E-06,0.000
-7.920E-06,0.004
-7.910E-06,0.008
-7.900E-06,-0.004
-7.890E-06,0.000
-7.880E-06,0.004
-7.870E-06,0.000
-7.860E-06,0.000
-7.850E-06,0.004
-7.840E-06,0.004
-7.830E-06,-0.004
-7.820E-06,0.000
-7.810E-06,0.000
-7.800E-06,0.000
-7.790E-06,0.000
-7.780E-06,-0.004
-7.770E-06,0.000
-7.760E-06,-0.004
-7.750E-06,0.000
-7.740E-06,-0.004
-7.730E-06,0.000
-7.720E-06,0.000
-7.710E-06,0.000
-7.700E-06,0.000
-7.690E-06,0.000
-7.680E-06,0.004
-7.670E-06,0.004
-7.660E-06,-0.004
-7.650E-06,0.000
-7.640E-06,0.000
-7.630E-06,0.000
-7.620E-06,0.000
-7.610E-06,0.000
-7.600E-06,0.000
-7.590E-06,0.004
-7.580E-06,0.000
-7.570E-06,0.000
-7.560E-06,-0.004
-7.550E-06,0.000
-7.540E-06,0.000
-7.530E-06,0.000
-7.520E-06,0.000
-7.510E-06,0.000
-7.500E-06,0.000
-7.490E-06,0.000
-7.480E-06,0.000
-7.470E-06,0.000
-7.460E-06,0.000
-7.450E-06,0.000
-7.440E-06,0.000
-7.430E-06,0.000
-7.420E-06,0.000
-7.410E-06,0.004
-7.400E-06,0.000
-7.390E-06,0.000
-7.380E-06,0.000
-7.370E-06,-0.004
-7.360E-06,0.000
-7.350E-06,0.000
-7.340E-06,0.000
-7.330E-06,0.004
-7.320E-06,0.000
-7.310E-06,0.000
-7.300E-06,0.000
-7.290E-06,0.000
-7.280E-06,-0.004
-7.270E-06,0.000
-7.260E-06,0.004
-7.250E-06,0.000
-7.240E-06,-0.004
-7.230E-06,0.000
-7.220E-06,0.000
-7.210E-06,0.000
-7.200E-06,0.000
-7.190E-06,0.000
-7.180E-06,0.000
-7.170E-06,0.000
-7.160E-06,0.000
-7.150E-06,0.000
-7.140E-06,0.000
-7.130E-06,0.000
-7.120E-06,-0.004
-7.110E-06,0.000
-7.100E-06,0.004
-7.090E-06,0.000
-7.080E-06,0.000
-7.070E-06,0.004
-7.060E-06,0.000
-7.050E-06,0.000
-7.040E-06,0.000
-7.030E-06,0.000
-7.020E-06,0.000
-7.010E-06,0.000
-7.000E-06,0.000
-6.990E-06,0.000
-6.980E-06,0.000
-6.970E-06,0.000
-6.960E-06,-0.004
-6.950E-06,0.000
-6.940E-06,0.004
-6.930E-06,0.004
-6.920E-06,0.004
-6.910E-06,-0.004
-6.900E-06,-0.004
-6.890E-06,0.000
-6.880E-06,0.000
-6.870E-06,0.000
-6.860E-06,0.000
-6.850E-06,0.000
-6.840E-06,0.004
-6.830E-06,0.000
-6.820E-06,0.004
-6.810E-06,0.000
-6.800E-06,0.000
-6.790E-06,-0.004
-6.780E-06,0.000
-6.770E-06,0.004
-6.760E-06,0.004
-6.750E-06,0.000
-6.740E-06,0.004
-6.730E-06,0.004
-6.720E-06,0.004
-6.710E-06,-0.004
-6.700E-06,0.000
-6.690E-06,0.004
-6.680E-06,0.004
-6.670E-06,-0.004
-6.660E-06,0.000
-6.650E-06,0.004
-6.640E-06,-0.004
-6.630E-06,0.000
-6.620E-06,-0.004
-6.610E-06,0.000
-6.600E-06,0.000
-6.590E-06,0.004
-6.580E-06,0.000
-6.570E-06,0.004
-6.560E-06,0.000
-6.550E-06,0.004
-6.540E-06,0.004
-6.530E-06,0.004
-6.520E-06,0.004
-6.510E-06,0.008
-6.500E-06,0.004
-6.490E-06,-0.004
-6.480E-06,0.000
-6.470E-06,0.000
-6.460E-06,0.000
-6.450E-06,0.004
-6.440E-06,0.000
-6.430E-06,0.000
-6.420E-06,0.000
-6.410E-06,0.004
-6.400E-06,-0.004
-6.390E-06,0.000
-6.380E-06,0.004
-6.370E-06,0.000
-6.360E-06,0.004
-6.350E-06,0.004
-6.340E-06,0.000
-6.330E-06,0.004
-6.320E-06,0.004
-6.310E-06,0.004
-6.300E-06,0.004
-6.290E-06,0.000
-6.280E-06,0.000
-6.270E-06,0.000
-6.260E-06,0.008
-6.250E-06,0.004
-6.240E-06,0.004
-6.230E-06,0.004
-6.220E-06,0.008
-6.210E-06,0.004
-6.200E-06,0.000
-6.190E-06,0.004
-6.180E-06,0.004
-6.170E-06,0.000
-6.160E-06,0.008
-6.150E-06,0.004
-6.140E-06,-0.004
-6.130E-06,-0.004
-6.120E-06,0.000
-6.110E-06,0.004
-6.100E-06,0.008
-6.090E-06,-0.004
-6.080E-06,-0.004
-6.070E-06,0.004
-6.060E-06,0.000
-6.050E-06,-0.004
-6.040E-06,0.000
-6.030E-06,-0.004
-6.020E-06,0.004
-6.010E-06,0.000
-6.000E-06,0.000
-5.990E-06,-0.004
-5.980E-06,0.000
-5.970E-06,0.000
-5.960E-06,0.004
-5.950E-06,0.000
-5.940E-06,0.000
-5.930E-06,0.000
-5.920E-06,0.004
-5.910E-06,0.004
-5.900E-06,0.004
-5.890E-06,0.004
-5.880E-06,0.004
-5.870E-06,0.004
-5.860E-06,0.000
-5.850E-06,0.000
-5.840E-06,0.000
-5.830E-06,0.004
-5.820E-06,0.008
-5.810E-06,0.000
-5.800E-06,0.000
-5.790E-06,0.000
-5.780E-06,0.000
-5.770E-06,0.004
-5.760E-06,-0.004
-5.750E-06,0.000
-5.740E-06,0.004
-5.730E-06,0.000
-5.720E-06,0.000
-5.710E-06,0.000
-5.700E-06,0.000
-5.690E-06,0.004
-5.680E-06,0.004
-5.670E-06,0.004
-5.660E-06,0.000
-5.650E-06,0.000
-5.640E-06,0.000
-5.630E-06,0.000
-5.620E-06,0.004
-5.610E-06,0.004
-5.600E-06,-0.004
-5.590E-06,0.000
-5.580E-06,0.000
-5.570E-06,-0.004
-5.560E-06,0.000
-5.550E-06,-0.004
-5.540E-06,0.004
-5.530E-06,0.000
-5.520E-06,0.000
-5.510E-06,0.004
-5.500E-06,0.004
-5.490E-06,0.000
-5.480E-06,0.000
-5.470E-06,0.000
-5.460E-06,-0.004
-5.450E-06,0.004
-5.440E-06,0.004
-5.430E-06,0.008
-5.420E-06,0.008
-5.410E-06,0.008
-5.400E-06,0.008
-5.390E-06,0.000
-5.380E-06,-0.004
-5.370E-06,0.000
-5.360E-06,0.004
-5.350E-06,0.004
-5.340E-06,-0.004
-5.330E-06,-0.004
-5.320E-06,0.000
-5.310E-06,-0.004
-5.300E-06,0.004
-5.290E-06,0.004
-5.280E-06,0.000
-5.270E-06,0.000
-5.260E-06,0.000
-5.250E-06,0.004
-5.240E-06,0.000
-5.230E-06,0.000
-5.220E-06,0.004
-5.210E-06,0.004
-5.200E-06,0.000
-5.190E-06,0.004
-5.180E-06,0.000
-5.170E-06,0.000
-5.160E-06,0.000
-5.150E-06,-0.004
-5.140E-06,0.000
-5.130E-06,-0.004
-5.120E-06,0.000
-5.110E-06,0.004
-5.100E-06,0.004
-5.090E-06,-0.004
-5.080E-06,0.000
-5.070E-06,0.004
-5.060E-06,0.000
-5.050E-06,0.000
-5.040E-06,0.000
-5.030E-06,-0.004
-5.020E-06,0.004
-5.010E-06,0.008
-5.000E-06,-0.004
-4.990E-06,0.004
-4.980E-06,0.000
-4.970E-06,0.000
-4.960E-06,0.000
-4.950E-06,-0.004
-4.940E-06,0.004
-4.930E-06,0.000
-4.920E-06,0.000
-4.910E-06,0.000
-4.900E-06,0.000
-4.890E-06,0.000
-4.880E-06,0.000
-4.870E-06,0.000
-4.860E-06,0.004
-4.850E-06,0.000
-4.840E-06,0.000
-4.830E-06,-0.004
-4.820E-06,0.000
-4.810E-06,-0.004
-4.800E-06,0.000
-4.790E-06,0.000
-4.780E-06,0.000
-4.770E-06,-0.004
-4.760E-06,-0.004
-4.750E-06,0.000
-4.740E-06,0.004
-4.730E-06,0.004
-4.720E-06,-0.004
-4.710E-06,0.000
-4.700E-06,0.000
-4.690E-06,0.000
-4.680E-06,-0.004
-4.670E-06,0.000
-4.660E-06,0.004
-4.650E-06,0.004
-4.640E-06,0.004
-4.630E-06,0.000
-4.620E-06,0.004
-4.610E-06,0.000
-4.600E-06,0.000
-4.590E-06,0.000
-4.580E-06,-0.004
-4.570E-06,0.000
-4.560E-06,0.004
-4.550E-06,0.000
-4.540E-06,0.000
-4.530E-06,0.000
-4.520E-06,0.000
-4.510E-06,-0.004
-4.500E-06,0.000
-4.490E-06,0.004
-4.480E-06,0.004
-4.470E-06,-0.004
-4.460E-06,0.004
-4.450E-06,0.000
-4.440E-06,0.004
-4.430E-06,-0.004
-4.420E-06,0.000
-4.410E-06,-0.004
-4.400E-06,0.000
-4.390E-06,-0.004
-4.380E-06,-0.020
-4.370E-06,-0.016
-4.360E-06,0.048
-4.350E-06,0.336
-4.340E-06,0.540
-4.330E-06,0.540
-4.320E-06,0.540
-4.310E-06,0.540
-4.300E-06,0.536
-4.290E-06,0.540
-4.280E-06,-0.520
-4.270E-06,-0.520
-4.260E-06,-0.524
-4.250E-06,-0.520
-4.240E-06,-0.516
-4.230E-06,-0.520
-4.220E-06,-0.520
-4.210E-06,-0.524
-4.200E-06,-0.520
-4.190E-06,-0.524
-4.180E-06,-0.524
-4.170E-06,0.008
-4.160E-06,0.384
-4.150E-06,0.492
-4.140E-06,0.412
-4.130E-06,0.328
-4.120E-06,0.328
-4.110E-06,0.392
-4.100E-06,0.488
-4.090E-06,0.540
-4.080E-06,0.540
-4.070E-06,0.540
-4.060E-06,0.536
-4.050E-06,0.540
-4.040E-06,0.540
-4.030E-06,0.540
-4.020E-06,0.540
-4.010E-06,0.468
-4.000E-06,0.224
-3.990E-06,-0.040
-3.980E-06,-0.268
-3.970E-06,-0.392
-3.960E-06,-0.400
-3.950E-06,-0.304
-3.940E-06,-0.176
-3.930E-06,-0.004
-3.920E-06,0.164
-3.910E-06,0.324
-3.900E-06,0.500
-3.890E-06,0.536
-3.880E-06,0.540
-3.870E-06,0.544
-3.860E-06,0.540
-3.850E-06,0.544
-3.840E-06,0.540
-3.830E-06,0.368
-3.820E-06,0.132
-3.810E-06,-0.076
-3.800E-06,-0.276
-3.790E-06,-0.456
-3.780E-06,-0.520
-3.770E-06,-0.524
-3.760E-06,-0.516
-3.750E-06,-0.516
-3.740E-06,-0.520
-3.730E-06,-0.520
-3.720E-06,-0.520
-3.710E-06,-0.524
-3.700E-06,-0.520
-3.690E-06,-0.520
-3.680E-06,-0.300
-3.670E-06,-0.076
-3.660E-06,0.096
-3.650E-06,0.224
-3.640E-06,0.364
-3.630E-06,0.528
-3.620E-06,0.540
-3.610E-06,0.540
-3.600E-06,0.544
-3.590E-06,0.540
-3.580E-06,0.464
-3.570E-06,0.324
-3.560E-06,0.196
-3.550E-06,0.128
-3.540E-06,0.064
-3.530E-06,0.020
-3.520E-06,-0.036
-3.510E-06,-0.092
-3.500E-06,-0.140
-3.490E-06,-0.156
-3.480E-06,-0.148
-3.470E-06,-0.152
-3.460E-06,-0.164
-3.450E-06,-0.184
-3.440E-06,-0.204
-3.430E-06,-0.208
-3.420E-06,-0.168
-3.410E-06,-0.096
-3.400E-06,-0.004
-3.390E-06,0.092
-3.380E-06,0.164
-3.370E-06,0.212
-3.360E-06,0.248
-3.350E-06,0.248
-3.340E-06,0.244
-3.330E-06,0.216
-3.320E-06,0.176
-3.310E-06,0.124
-3.300E-06,0.060
-3.290E-06,0.012
-3.280E-06,-0.044
-3.270E-06,-0.088
-3.260E-06,-0.116
-3.250E-06,-0.132
-3.240E-06,-0.124
-3.230E-06,-0.108
-3.220E-06,-0.096
-3.210E-06,-0.052
-3.200E-06,-0.040
-3.190E-06,-0.020
-3.180E-06,-0.020
-3.170E-06,-0.004
-3.160E-06,-0.004
-3.150E-06,-0.008
-3.140E-06,0.024
-3.130E-06,0.016
-3.120E-06,0.128
-3.110E-06,0.036
-3.100E-06,-0.020
-3.090E-06,0.032
-3.080E-06,-0.032
-3.070E-06,0.164
-3.060E-06,0.316
-3.050E-06,0.296
-3.040E-06,0.252
-3.030E-06,0.084
-3.020E-06,-0.016
-3.010E-06,0.048
-3.000E-06,0.084
-2.990E-06,0.184
-2.980E-06,0.176
-2.970E-06,0.092
-2.960E-06,-0.008
-2.950E-06,-0.092
-2.940E-06,-0.116
-2.930E-06,-0.032
-2.920E-06,-0.012
-2.910E-06,0.032
-2.900E-06,-0.032
-2.890E-06,-0.124
-2.880E-06,-0.144
-2.870E-06,-0.120
-2.860E-06,-0.004
-2.850E-06,0.092
-2.840E-06,0.140
-2.830E-06,0.092
-2.820E-06,0.068
-2.810E-06,-0.012
-2.800E-06,-0.028
-2.790E-06,0.004
-2.780E-06,0.028
-2.770E-06,0.076
-2.760E-06,0.172
-2.750E-06,0.176
-2.740E-06,0.152
-2.730E-06,0.096
-2.720E-06,0.012
-2.710E-06,0.008
-2.700E-06,0.016
-2.690E-06,0.028
-2.680E-06,0.048
-2.670E-06,0.016
-2.660E-06,-0.020
-2.650E-06,-0.072
-2.640E-06,-0.104
-2.630E-06,-0.108
-2.620E-06,-0.080
-2.610E-06,-0.068
-2.600E-06,-0.056
-2.590E-06,-0.028
-2.580E-06,-0.012
-2.570E-06,0.016
-2.560E-06,0.040
-2.550E-06,0.060
-2.540E-06,0.080
-2.530E-06,0.072
-2.520E-06,0.084
-2.510E-06,0.072
-2.500E-06,0.064
-2.490E-06,0.024
-2.480E-06,0.032
-2.470E-06,-0.056
-2.460E-06,-0.100
-2.450E-06,-0.044
-2.440E-06,-0.056
-2.430E-06,0.120
-2.420E-06,0.256
-2.410E-06,0.212
-2.400E-06,0.140
-2.390E-06,-0.020
-2.380E-06,-0.132
-2.370E-06,-0.008
-2.360E-06,0.068
-2.350E-06,0.156
-2.340E-06,0.192
-2.330E-06,0.116
-2.320E-06,0.012
-2.310E-06,-0.044
-2.300E-06,-0.048
-2.290E-06,0.000
-2.280E-06,0.084
-2.270E-06,0.128
-2.260E-06,0.092
-2.250E-06,0.032
-2.240E-06,-0.008
-2.230E-06,-0.032
-2.220E-06,-0.004
-2.210E-06,-0.024
-2.200E-06,-0.028
-2.190E-06,-0.060
-2.180E-06,-0.080
-2.170E-06,-0.112
-2.160E-06,-0.100
-2.150E-06,-0.112
-2.140E-06,-0.116
-2.130E-06,-0.116
-2.120E-06,-0.088
-2.110E-06,-0.060
-2.100E-06,-0.056
-2.090E-06,-0.048
-2.080E-06,-0.084
-2.070E-06,-0.188
-2.060E-06,-0.364
-2.050E-06,-0.520
-2.040E-06,-0.520
-2.030E-06,-0.524
-2.020E-06,-0.520
-2.010E-06,-0.516
-2.000E-06,-0.132
-1.990E-06,0.292
-1.980E-06,0.544
-1.970E-06,0.540
-1.960E-06,0.544
-1.950E-06,0.540
-1.940E-06,0.536
-1.930E-06,0.540
-1.920E-06,0.540
-1.910E-06,0.544
-1.900E-06,0.540
-1.890E-06,0.536
-1.880E-06,0.540
-1.870E-06,0.380
-1.860E-06,0.184
-1.850E-06,-0.016
-1.840E-06,-0.196
-1.830E-06,-0.324
-1.820E-06,-0.380
-1.810E-06,-0.384
-1.800E-06,-0.360
-1.790E-06,-0.300
-1.780E-06,-0.324
-1.770E-06,-0.312
-1.760E-06,-0.304
-1.750E-06,-0.288
-1.740E-06,-0.184
-1.730E-06,-0.072
-1.720E-06,0.032
-1.710E-06,0.160
-1.700E-06,0.216
-1.690E-06,0.248
-1.680E-06,0.256
-1.670E-06,0.236
-1.660E-06,0.196
-1.650E-06,0.156
-1.640E-06,0.084
-1.630E-06,0.016
-1.620E-06,-0.064
-1.610E-06,-0.164
-1.600E-06,-0.256
-1.590E-06,-0.320
-1.580E-06,-0.376
-1.570E-06,-0.384
-1.560E-06,-0.344
-1.550E-06,-0.284
-1.540E-06,-0.192
-1.530E-06,-0.120
-1.520E-06,-0.040
-1.510E-06,0.064
-1.500E-06,0.168
-1.490E-06,0.300
-1.480E-06,0.448
-1.470E-06,0.544
-1.460E-06,0.540
-1.450E-06,0.536
-1.440E-06,0.540
-1.430E-06,0.544
-1.420E-06,0.544
-1.410E-06,0.540
-1.400E-06,0.540
-1.390E-06,0.488
-1.380E-06,0.480
-1.370E-06,0.436
-1.360E-06,0.384
-1.350E-06,0.348
-1.340E-06,0.544
-1.330E-06,-0.144
-1.320E-06,-0.272
-1.310E-06,0.036
-1.300E-06,-0.008
-1.290E-06,0.540
-1.280E-06,0.540
-1.270E-06,0.540
-1.260E-06,0.536
-1.250E-06,-0.100
-1.240E-06,-0.520
-1.230E-06,-0.200
-1.220E-06,0.308
-1.210E-06,0.544
-1.200E-06,0.540
-1.190E-06,0.540
-1.180E-06,0.364
-1.170E-06,0.040
-1.160E-06,-0.520
-1.150E-06,-0.524
-1.140E-06,-0.384
-1.130E-06,-0.272
-1.120E-06,-0.096
-1.110E-06,-0.188
-1.100E-06,-0.388
-1.090E-06,-0.516
-1.080E-06,-0.520
-1.070E-06,-0.516
-1.060E-06,-0.520
-1.050E-06,-0.524
-1.040E-06,-0.472
-1.030E-06,-0.520
-1.020E-06,-0.524
-1.010E-06,-0.408
-1.000E-06,-0.288
-9.900E-07,-0.084
-9.800E-07,-0.084
-9.700E-07,-0.064
-9.600E-07,-0.100
-9.500E-07,-0.100
-9.400E-07,-0.112
-9.300E-07,-0.060
-9.200E-07,-0.052
-9.100E-07,0.000
-9.000E-07,-0.004
-8.900E-07,0.000
-8.800E-07,0.044
-8.700E-07,0.100
-8.600E-07,0.144
-8.500E-07,0.184
-8.400E-07,0.188
-8.300E-07,0.216
-8.200E-07,0.268
-8.100E-07,0.104
-8.000E-07,0.112
-7.900E-07,-0.024
-7.800E-07,-0.268
-7.700E-07,-0.332
-7.600E-07,-0.508
-7.500E-07,-0.520
-7.400E-07,-0.476
-7.300E-07,-0.392
-7.200E-07,-0.288
-7.100E-07,-0.144
-7.000E-07,-0.208
-6.900E-07,-0.200
-6.800E-07,-0.132
-6.700E-07,0.212
-6.600E-07,0.136
-6.500E-07,0.256
-6.400E-07,0.408
-6.300E-07,0.540
-6.200E-07,0.540
-6.100E-07,0.540
-6.000E-07,0.540
-5.900E-07,0.540
-5.800E-07,0.544
-5.700E-07,0.540
-5.600E-07,0.024
-5.500E-07,-0.080
-5.400E-07,-0.292
-5.300E-07,-0.048
-5.200E-07,0.544
-5.100E-07,0.540
-5.000E-07,0.540
-4.900E-07,0.536
-4.800E-07,0.540
-4.700E-07,-0.524
-4.600E-07,-0.520
-4.500E-07,-0.328
-4.400E-07,0.540
-4.300E-07,0.540
-4.200E-07,0.544
-4.100E-07,0.540
-4.000E-07,0.164
-3.900E-07,0.156
-3.800E-07,0.540
-3.700E-07,0.540
-3.600E-07,0.420
-3.500E-07,-0.520
-3.400E-07,-0.520
-3.300E-07,-0.520
-3.200E-07,-0.524
-3.100E-07,-0.520
-3.000E-07,-0.520
-2.900E-07,-0.224
-2.800E-07,-0.272
-2.700E-07,-0.464
-2.600E-07,-0.520
-2.500E-07,-0.180
-2.400E-07,0.540
-2.300E-07,0.540
-2.200E-07,0.540
-2.100E-07,0.296
-2.000E-07,-0.520
-1.900E-07,-0.524
-1.800E-07,-0.520
-1.700E-07,-0.516
-1.600E-07,0.052
-1.500E-07,0.544
-1.400E-07,0.540
-1.300E-07,0.540
-1.200E-07,0.536
-1.100E-07,0.540
-1.000E-07,0.540
-9.000E-08,0.536
-8.000E-08,0.540
-7.000E-08,0.544
-6.000E-08,0.540
-5.000E-08,0.540
-4.000E-08,0.540
-3.000E-08,0.540
-2.000E-08,0.280
-1.000E-08,-0.400
0.000E+00,-0.516
1.000E-08,-0.520
2.000E-08,-0.516
3.000E-08,-0.520
4.000E-08,-0.524
5.000E-08,-0.044
6.000E-08,0.384
7.000E-08,0.196
8.000E-08,0.304
9.000E-08,0.512
1.000E-07,0.128
1.100E-07,-0.336
1.200E-07,-0.520
1.300E-07,-0.524
1.400E-07,-0.520
1.500E-07,-0.516
1.600E-07,-0.516
1.700E-07,-0.520
1.800E-07,0.040
1.900E-07,0.540
2.000E-07,0.536
2.100E-07,0.540
2.200E-07,0.544
2.300E-07,0.540
2.400E-07,0.544
2.500E-07,0.540
2.600E-07,0.544
2.700E-07,0.540
2.800E-07,0.540
2.900E-07,0.540
3.000E-07,0.540
3.100E-07,0.540
3.200E-07,0.536
3.300E-07,0.540
3.400E-07,0.540
3.500E-07,0.536
3.600E-07,0.540
3.700E-07,0.540
3.800E-07,0.540
3.900E-07,0.048
4.000E-07,-0.524
4.100E-07,-0.524
4.200E-07,-0.516
4.300E-07,-0.516
4.400E-07,-0.520
4.500E-07,-0.516
4.600E-07,-0.520
4.700E-07,-0.520
4.800E-07,-0.520
4.900E-07,-0.524
5.000E-07,-0.520
5.100E-07,-0.144
5.200E-07,0.184
5.300E-07,0.080
5.400E-07,-0.488
5.500E-07,-0.520
5.600E-07,-0.524
5.700E-07,-0.520
5.800E-07,-0.516
5.900E-07,-0.520
6.000E-07,-0.516
6.100E-07,-0.520
6.200E-07,-0.356
6.300E-07,0.156
6.400E-07,0.544
6.500E-07,0.540
6.600E-07,0.544
6.700E-07,0.540
6.800E-07,0.536
6.900E-07,0.540
7.000E-07,0.540
7.100E-07,0.536
7.200E-07,0.540
7.300E-07,0.540
7.400E-07,0.536
7.500E-07,0.540
7.600E-07,0.544
7.700E-07,0.540
7.800E-07,0.540
7.900E-07,0.536
8.000E-07,0.540
8.100E-07,0.544
8.200E-07,0.540
8.300E-07,0.540
8.400E-07,0.540
8.500E-07,0.540
8.600E-07,0.540
8.700E-07,0.544
8.800E-07,0.540
8.900E-07,0.540
9.000E-07,0.540
9.100E-07,0.536
9.200E-07,0.540
9.300E-07,0.268
9.400E-07,-0.132
9.500E-07,-0.520
9.600E-07,-0.524
9.700E-07,-0.520
9.800E-07,-0.516
9.900E-07,-0.520
1.000E-06,-0.516
1.010E-06,-0.516
1.020E-06,-0.520
1.030E-06,-0.240
1.040E-06,0.540
1.050E-06,0.540
1.060E-06,0.540
1.070E-06,0.544
1.080E-06,0.540
1.090E-06,0.536
1.100E-06,0.540
1.110E-06,0.544
1.120E-06,0.544
1.130E-06,0.472
1.140E-06,0.080
1.150E-06,-0.268
1.160E-06,-0.520
1.170E-06,-0.524
1.180E-06,-0.520
1.190E-06,-0.388
1.200E-06,-0.184
1.210E-06,0.024
1.220E-06,0.248
1.230E-06,0.416
1.240E-06,0.540
1.250E-06,0.540
1.260E-06,0.540
1.270E-06,0.536
1.280E-06,0.540
1.290E-06,0.476
1.300E-06,0.372
1.310E-06,0.288
1.320E-06,0.184
1.330E-06,0.032
1.340E-06,-0.136
1.350E-06,-0.320
1.360E-06,-0.516
1.370E-06,-0.520
1.380E-06,-0.516
1.390E-06,-0.520
1.400E-06,-0.520
1.410E-06,-0.520
1.420E-06,-0.172
1.430E-06,0.236
1.440E-06,0.524
1.450E-06,0.544
1.460E-06,0.540
1.470E-06,0.544
1.480E-06,0.540
1.490E-06,0.540
1.500E-06,0.544
1.510E-06,0.540
1.520E-06,0.540
1.530E-06,0.536
1.540E-06,0.540
1.550E-06,0.540
1.560E-06,0.544
1.570E-06,0.516
1.580E-06,0.504
1.590E-06,0.524
1.600E-06,0.528
1.610E-06,0.540
1.620E-06,0.544
1.630E-06,0.540
1.640E-06,0.536
1.650E-06,0.416
1.660E-06,0.252
1.670E-06,0.052
1.680E-06,-0.184
1.690E-06,-0.424
1.700E-06,-0.516
1.710E-06,-0.520
1.720E-06,-0.524
1.730E-06,-0.520
1.740E-06,-0.524
1.750E-06,-0.516
1.760E-06,-0.340
1.770E-06,-0.172
1.780E-06,-0.040
1.790E-06,0.040
1.800E-06,0.056
1.810E-06,0.028
1.820E-06,-0.048
1.830E-06,-0.152
1.840E-06,-0.280
1.850E-06,-0.416
1.860E-06,-0.520
1.870E-06,-0.520
1.880E-06,-0.524
1.890E-06,-0.520
1.900E-06,-0.524
1.910E-06,-0.516
1.920E-06,-0.520
1.930E-06,-0.524
1.940E-06,-0.520
1.950E-06,-0.520
1.960E-06,-0.520
1.970E-06,-0.524
1.980E-06,-0.472
1.990E-06,-0.356
2.000E-06,-0.248
2.010E-06,-0.224
2.020E-06,-0.268
2.030E-06,-0.384
2.040E-06,-0.480
2.050E-06,-0.520
2.060E-06,-0.516
2.070E-06,-0.516
2.080E-06,-0.520
2.090E-06,-0.516
2.100E-06,-0.516
2.110E-06,-0.476
2.120E-06,-0.396
2.130E-06,-0.344
2.140E-06,-0.328
2.150E-06,-0.316
2.160E-06,-0.300
2.170E-06,-0.292
2.180E-06,-0.296
2.190E-06,-0.296
2.200E-06,-0.292
2.210E-06,-0.264
2.220E-06,-0.172
2.230E-06,-0.132
2.240E-06,-0.156
2.250E-06,-0.220
2.260E-06,-0.292
2.270E-06,-0.300
2.280E-06,-0.264
2.290E-06,-0.232
2.300E-06,-0.196
2.310E-06,-0.132
2.320E-06,-0.064
2.330E-06,0.000
2.340E-06,0.020
2.350E-06,0.016
2.360E-06,-0.032
2.370E-06,-0.116
2.380E-06,-0.204
2.390E-06,-0.288
2.400E-06,-0.360
2.410E-06,-0.424
2.420E-06,-0.460
2.430E-06,-0.480
2.440E-06,-0.488
2.450E-06,-0.484
2.460E-06,-0.500
2.470E-06,-0.504
2.480E-06,-0.516
2.490E-06,-0.520
2.500E-06,-0.516
2.510E-06,-0.520
2.520E-06,-0.524
2.530E-06,-0.524
2.540E-06,-0.524
2.550E-06,-0.464
2.560E-06,-0.384
2.570E-06,-0.312
2.580E-06,-0.288
2.590E-06,-0.272
2.600E-06,-0.268
2.610E-06,-0.268
2.620E-06,-0.260
2.630E-06,-0.260
2.640E-06,-0.260
2.650E-06,-0.268
2.660E-06,-0.276
2.670E-06,-0.292
2.680E-06,-0.304
2.690E-06,-0.308
2.700E-06,-0.288
2.710E-06,-0.240
2.720E-06,-0.200
2.730E-06,-0.172
2.740E-06,-0.152
2.750E-06,-0.124
2.760E-06,-0.104
2.770E-06,-0.080
2.780E-06,-0.068
2.790E-06,-0.052
2.800E-06,-0.020
2.810E-06,-0.004
2.820E-06,0.004
2.830E-06,-0.004
2.840E-06,-0.068
2.850E-06,-0.156
2.860E-06,-0.244
2.870E-06,-0.284
2.880E-06,-0.308
2.890E-06,-0.332
2.900E-06,-0.396
2.910E-06,-0.460
2.920E-06,-0.500
2.930E-06,-0.512
2.940E-06,-0.504
2.950E-06,-0.456
2.960E-06,-0.384
2.970E-06,-0.248
2.980E-06,-0.068
2.990E-06,0.072
3.000E-06,0.152
3.010E-06,0.152
3.020E-06,0.108
3.030E-06,0.080
3.040E-06,0.044
3.050E-06,-0.008
3.060E-06,-0.068
3.070E-06,-0.132
3.080E-06,-0.180
3.090E-06,-0.208
3.100E-06,-0.232
3.110E-06,-0.240
3.120E-06,-0.244
3.130E-06,-0.240
3.140E-06,-0.244
3.150E-06,-0.252
3.160E-06,-0.264
3.170E-06,-0.268
3.180E-06,-0.284
3.190E-06,-0.300
3.200E-06,-0.312
3.210E-06,-0.312
3.220E-06,-0.300
3.230E-06,-0.276
3.240E-06,-0.248
3.250E-06,-0.224
3.260E-06,-0.196
3.270E-06,-0.172
3.280E-06,-0.156
3.290E-06,-0.156
3.300E-06,-0.156
3.310E-06,-0.168
3.320E-06,-0.184
3.330E-06,-0.200
3.340E-06,-0.208
3.350E-06,-0.220
3.360E-06,-0.224
3.370E-06,-0.228
3.380E-06,-0.228
3.390E-06,-0.232
3.400E-06,-0.220
3.410E-06,-0.224
3.420E-06,-0.232
3.430E-06,-0.252
3.440E-06,-0.268
3.450E-06,-0.288
3.460E-06,-0.300
3.470E-06,-0.316
3.480E-06,-0.320
