mediciones/6-26/12.6/WaveData59133.csv

#timebase=2000000(ps)
,#voltbase=100000(mv/100)
#size=4000
-8.150E-06,0.000
-8.140E-06,0.008
-8.130E-06,0.008
-8.120E-06,0.024
-8.110E-06,0.104
-8.100E-06,0.052
-8.090E-06,0.004
-8.080E-06,-0.064
-8.070E-06,-0.052
-8.060E-06,-0.068
-8.050E-06,0.100
-8.040E-06,0.164
-8.030E-06,0.108
-8.020E-06,0.036
-8.010E-06,-0.064
-8.000E-06,-0.108
-7.990E-06,-0.044
-7.980E-06,0.040
-7.970E-06,0.104
-7.960E-06,0.120
-7.950E-06,0.012
-7.940E-06,-0.040
-7.930E-06,-0.072
-7.920E-06,-0.056
-7.910E-06,0.016
-7.900E-06,0.052
-7.890E-06,0.048
-7.880E-06,0.040
-7.870E-06,-0.016
-7.860E-06,-0.012
-7.850E-06,0.000
-7.840E-06,0.004
-7.830E-06,0.028
-7.820E-06,0.016
-7.810E-06,0.008
-7.800E-06,0.008
-7.790E-06,0.012
-7.780E-06,0.000
-7.770E-06,-0.004
-7.760E-06,-0.020
-7.750E-06,-0.016
-7.740E-06,-0.008
-7.730E-06,0.016
-7.720E-06,0.044
-7.710E-06,-0.008
-7.700E-06,-0.036
-7.690E-06,-0.032
-7.680E-06,-0.036
-7.670E-06,0.020
-7.660E-06,0.064
-7.650E-06,0.044
-7.640E-06,0.024
-7.630E-06,-0.052
-7.620E-06,-0.032
-7.610E-06,-0.056
-7.600E-06,0.032
-7.590E-06,0.064
-7.580E-06,-0.016
-7.570E-06,0.020
-7.560E-06,-0.060
-7.550E-06,0.012
-7.540E-06,0.100
-7.530E-06,0.168
-7.520E-06,0.148
-7.510E-06,0.088
-7.500E-06,0.000
-7.490E-06,0.016
-7.480E-06,0.044
-7.470E-06,0.068
-7.460E-06,0.012
-7.450E-06,0.152
-7.440E-06,-0.056
-7.430E-06,-0.084
-7.420E-06,-0.028
-7.410E-06,-0.076
-7.400E-06,0.068
-7.390E-06,0.200
-7.380E-06,0.156
-7.370E-06,0.120
-7.360E-06,-0.008
-7.350E-06,-0.068
-7.340E-06,0.000
-7.330E-06,-0.028
-7.320E-06,0.052
-7.310E-06,0.052
-7.300E-06,0.020
-7.290E-06,0.008
-7.280E-06,-0.004
-7.270E-06,-0.156
-7.260E-06,-0.080
-7.250E-06,-0.124
-7.240E-06,-0.068
-7.230E-06,0.116
-7.220E-06,0.076
-7.210E-06,0.040
-7.200E-06,0.036
-7.190E-06,-0.068
-7.180E-06,0.044
-7.170E-06,0.132
-7.160E-06,0.176
-7.150E-06,0.228
-7.140E-06,0.124
-7.130E-06,0.012
-7.120E-06,0.012
-7.110E-06,-0.004
-7.100E-06,0.048
-7.090E-06,0.096
-7.080E-06,0.084
-7.070E-06,0.044
-7.060E-06,0.000
-7.050E-06,-0.032
-7.040E-06,-0.024
-7.030E-06,-0.076
-7.020E-06,-0.100
-7.010E-06,-0.120
-7.000E-06,-0.072
-6.990E-06,0.060
-6.980E-06,0.096
-6.970E-06,0.104
-6.960E-06,0.000
-6.950E-06,-0.116
-6.940E-06,-0.088
-6.930E-06,0.004
-6.920E-06,0.088
-6.910E-06,0.164
-6.900E-06,0.112
-6.890E-06,-0.004
-6.880E-06,-0.016
-6.870E-06,-0.080
-6.860E-06,-0.068
-6.850E-06,0.032
-6.840E-06,0.016
-6.830E-06,0.100
-6.820E-06,0.064
-6.810E-06,0.000
-6.800E-06,-0.020
-6.790E-06,-0.052
-6.780E-06,-0.020
-6.770E-06,0.064
-6.760E-06,0.072
-6.750E-06,0.084
-6.740E-06,0.040
-6.730E-06,0.000
-6.720E-06,-0.012
-6.710E-06,-0.044
-6.700E-06,-0.008
-6.690E-06,0.036
-6.680E-06,0.048
-6.670E-06,0.064
-6.660E-06,0.020
-6.650E-06,-0.012
-6.640E-06,-0.024
-6.630E-06,-0.028
-6.620E-06,0.016
-6.610E-06,0.028
-6.600E-06,0.012
-6.590E-06,-0.020
-6.580E-06,-0.060
-6.570E-06,-0.052
-6.560E-06,-0.080
-6.550E-06,-0.096
-6.540E-06,-0.124
-6.530E-06,-0.076
-6.520E-06,-0.056
-6.510E-06,-0.024
-6.500E-06,0.060
-6.490E-06,-0.068
-6.480E-06,-0.068
-6.470E-06,0.004
-6.460E-06,0.088
-6.450E-06,0.216
-6.440E-06,0.248
-6.430E-06,0.172
-6.420E-06,0.108
-6.410E-06,0.040
-6.400E-06,0.044
-6.390E-06,0.088
-6.380E-06,0.112
-6.370E-06,0.168
-6.360E-06,0.112
-6.350E-06,0.040
-6.340E-06,-0.044
-6.330E-06,-0.072
-6.320E-06,-0.028
-6.310E-06,-0.020
-6.300E-06,0.068
-6.290E-06,0.016
-6.280E-06,-0.044
-6.270E-06,-0.060
-6.260E-06,-0.100
-6.250E-06,-0.124
-6.240E-06,-0.100
-6.230E-06,-0.180
-6.220E-06,-0.128
-6.210E-06,-0.132
-6.200E-06,-0.032
-6.190E-06,0.072
-6.180E-06,0.160
-6.170E-06,0.152
-6.160E-06,0.144
-6.150E-06,0.052
-6.140E-06,0.060
-6.130E-06,0.056
-6.120E-06,0.096
-6.110E-06,0.116
-6.100E-06,0.088
-6.090E-06,0.116
-6.080E-06,0.080
-6.070E-06,0.040
-6.060E-06,0.032
-6.050E-06,-0.016
-6.040E-06,0.000
-6.030E-06,0.036
-6.020E-06,0.000
-6.010E-06,0.016
-6.000E-06,-0.052
-5.990E-06,-0.060
-5.980E-06,-0.052
-5.970E-06,-0.064
-5.960E-06,-0.004
-5.950E-06,0.036
-5.940E-06,0.008
-5.930E-06,0.028
-5.920E-06,0.008
-5.910E-06,-0.004
-5.900E-06,0.008
-5.890E-06,-0.028
-5.880E-06,-0.032
-5.870E-06,-0.076
-5.860E-06,-0.112
-5.850E-06,-0.104
-5.840E-06,-0.084
-5.830E-06,-0.028
-5.820E-06,0.016
-5.810E-06,0.032
-5.800E-06,0.040
-5.790E-06,-0.008
-5.780E-06,0.004
-5.770E-06,0.048
-5.760E-06,0.088
-5.750E-06,0.112
-5.740E-06,0.108
-5.730E-06,0.080
-5.720E-06,0.076
-5.710E-06,0.064
-5.700E-06,0.060
-5.690E-06,0.052
-5.680E-06,0.048
-5.670E-06,0.052
-5.660E-06,0.048
-5.650E-06,0.056
-5.640E-06,0.056
-5.630E-06,0.048
-5.620E-06,0.048
-5.610E-06,0.040
-5.600E-06,0.008
-5.590E-06,0.008
-5.580E-06,0.000
-5.570E-06,-0.004
-5.560E-06,0.000
-5.550E-06,-0.028
-5.540E-06,-0.032
-5.530E-06,0.036
-5.520E-06,-0.076
-5.510E-06,-0.052
-5.500E-06,-0.036
-5.490E-06,-0.008
-5.480E-06,0.136
-5.470E-06,0.200
-5.460E-06,0.196
-5.450E-06,0.108
-5.440E-06,-0.036
-5.430E-06,-0.108
-5.420E-06,-0.044
-5.410E-06,0.008
-5.400E-06,0.120
-5.390E-06,0.088
-5.380E-06,-0.024
-5.370E-06,-0.100
-5.360E-06,-0.180
-5.350E-06,-0.176
-5.340E-06,-0.044
-5.330E-06,0.000
-5.320E-06,0.132
-5.310E-06,0.168
-5.300E-06,0.116
-5.290E-06,0.112
-5.280E-06,0.004
-5.270E-06,-0.156
-5.260E-06,-0.064
-5.250E-06,-0.052
-5.240E-06,0.060
-5.230E-06,0.228
-5.220E-06,0.144
-5.210E-06,0.056
-5.200E-06,-0.028
-5.190E-06,-0.112
-5.180E-06,0.016
-5.170E-06,0.140
-5.160E-06,0.188
-5.150E-06,0.232
-5.140E-06,0.168
-5.130E-06,0.016
-5.120E-06,-0.012
-5.110E-06,-0.068
-5.100E-06,-0.032
-5.090E-06,0.056
-5.080E-06,0.096
-5.070E-06,0.088
-5.060E-06,0.032
-5.050E-06,-0.072
-5.040E-06,-0.128
-5.030E-06,-0.116
-5.020E-06,-0.068
-5.010E-06,-0.024
-5.000E-06,0.012
-4.990E-06,-0.016
-4.980E-06,-0.080
-4.970E-06,-0.140
-4.960E-06,-0.184
-4.950E-06,-0.180
-4.940E-06,-0.128
-4.930E-06,-0.064
-4.920E-06,-0.004
-4.910E-06,0.020
-4.900E-06,0.000
-4.890E-06,-0.032
-4.880E-06,-0.068
-4.870E-06,-0.060
-4.860E-06,-0.024
-4.850E-06,0.024
-4.840E-06,0.060
-4.830E-06,0.052
-4.820E-06,0.024
-4.810E-06,-0.016
-4.800E-06,-0.068
-4.790E-06,-0.048
-4.780E-06,-0.012
-4.770E-06,0.016
-4.760E-06,0.040
-4.750E-06,0.020
-4.740E-06,0.024
-4.730E-06,0.048
-4.720E-06,0.148
-4.710E-06,0.216
-4.700E-06,0.264
-4.690E-06,0.244
-4.680E-06,0.188
-4.670E-06,0.160
-4.660E-06,0.144
-4.650E-06,0.140
-4.640E-06,0.152
-4.630E-06,0.136
-4.620E-06,0.112
-4.610E-06,0.080
-4.600E-06,0.016
-4.590E-06,-0.032
-4.580E-06,-0.080
-4.570E-06,-0.116
-4.560E-06,-0.120
-4.550E-06,-0.108
-4.540E-06,-0.100
-4.530E-06,-0.096
-4.520E-06,-0.108
-4.510E-06,-0.116
-4.500E-06,-0.144
-4.490E-06,-0.172
-4.480E-06,-0.184
-4.470E-06,-0.032
-4.460E-06,-0.168
-4.450E-06,-0.140
-4.440E-06,0.008
-4.430E-06,-0.132
-4.420E-06,0.164
-4.410E-06,0.304
-4.400E-06,0.304
-4.390E-06,0.336
-4.380E-06,0.200
-4.370E-06,0.080
-4.360E-06,0.176
-4.350E-06,0.168
-4.340E-06,0.260
-4.330E-06,0.284
-4.320E-06,0.176
-4.310E-06,0.052
-4.300E-06,-0.008
-4.290E-06,-0.068
-4.280E-06,-0.024
-4.270E-06,0.004
-4.260E-06,-0.004
-4.250E-06,-0.044
-4.240E-06,-0.092
-4.230E-06,-0.132
-4.220E-06,-0.140
-4.210E-06,-0.136
-4.200E-06,-0.136
-4.190E-06,-0.148
-4.180E-06,-0.164
-4.170E-06,-0.172
-4.160E-06,-0.212
-4.150E-06,-0.220
-4.140E-06,-0.236
-4.130E-06,-0.184
-4.120E-06,-0.164
-4.110E-06,-0.140
-4.100E-06,-0.088
-4.090E-06,-0.068
-4.080E-06,0.004
-4.070E-06,0.036
-4.060E-06,0.000
-4.050E-06,-0.040
-4.040E-06,-0.076
-4.030E-06,-0.072
-4.020E-06,0.016
-4.010E-06,0.092
-4.000E-06,0.116
-3.990E-06,0.116
-3.980E-06,0.068
-3.970E-06,0.044
-3.960E-06,0.032
-3.950E-06,0.064
-3.940E-06,0.120
-3.930E-06,0.228
-3.920E-06,0.268
-3.910E-06,0.228
-3.900E-06,0.056
-3.890E-06,-0.076
-3.880E-06,-0.040
-3.870E-06,0.128
-3.860E-06,0.400
-3.850E-06,0.516
-3.840E-06,0.400
-3.830E-06,0.264
-3.820E-06,0.144
-3.810E-06,0.152
-3.800E-06,0.336
-3.790E-06,0.328
-3.780E-06,0.200
-3.770E-06,0.100
-3.760E-06,-0.060
-3.750E-06,-0.060
-3.740E-06,-0.044
-3.730E-06,-0.120
-3.720E-06,-0.172
-3.710E-06,-0.268
-3.700E-06,-0.336
-3.690E-06,-0.352
-3.680E-06,-0.308
-3.670E-06,-0.200
-3.660E-06,-0.136
-3.650E-06,-0.080
-3.640E-06,-0.036
-3.630E-06,0.000
-3.620E-06,0.032
-3.610E-06,-0.004
-3.600E-06,-0.092
-3.590E-06,-0.120
-3.580E-06,-0.100
-3.570E-06,-0.024
-3.560E-06,0.056
-3.550E-06,0.052
-3.540E-06,-0.004
-3.530E-06,-0.056
-3.520E-06,-0.100
-3.510E-06,-0.112
-3.500E-06,-0.096
-3.490E-06,-0.096
-3.480E-06,-0.068
-3.470E-06,-0.060
-3.460E-06,-0.048
-3.450E-06,-0.036
-3.440E-06,-0.004
-3.430E-06,-0.032
-3.420E-06,-0.012
-3.410E-06,-0.052
-3.400E-06,0.008
-3.390E-06,0.108
-3.380E-06,0.140
-3.370E-06,-0.060
-3.360E-06,-0.224
-3.350E-06,-0.376
-3.340E-06,-0.360
-3.330E-06,-0.032
-3.320E-06,0.260
-3.310E-06,0.408
-3.300E-06,0.416
-3.290E-06,0.180
-3.280E-06,0.004
-3.270E-06,0.068
-3.260E-06,0.268
-3.250E-06,0.256
-3.240E-06,0.540
-3.230E-06,0.524
-3.220E-06,0.540
-3.210E-06,0.540
-3.200E-06,0.544
-3.190E-06,0.544
-3.180E-06,0.540
-3.170E-06,0.352
-3.160E-06,0.092
-3.150E-06,0.140
-3.140E-06,0.212
-3.130E-06,0.424
-3.120E-06,0.372
-3.110E-06,0.144
-3.100E-06,-0.060
-3.090E-06,-0.268
-3.080E-06,-0.416
-3.070E-06,-0.412
-3.060E-06,-0.412
-3.050E-06,-0.380
-3.040E-06,-0.400
-3.030E-06,-0.500
-3.020E-06,-0.520
-3.010E-06,-0.516
-3.000E-06,-0.516
-2.990E-06,-0.520
-2.980E-06,-0.524
-2.970E-06,-0.516
-2.960E-06,-0.520
-2.950E-06,-0.520
-2.940E-06,-0.524
-2.930E-06,-0.520
-2.920E-06,-0.516
-2.910E-06,-0.520
-2.900E-06,-0.444
-2.890E-06,-0.520
-2.880E-06,-0.368
-2.870E-06,-0.332
-2.860E-06,-0.096
-2.850E-06,0.536
-2.840E-06,0.540
-2.830E-06,0.540
-2.820E-06,0.544
-2.810E-06,0.544
-2.800E-06,0.540
-2.790E-06,0.540
-2.780E-06,0.536
-2.770E-06,0.540
-2.760E-06,0.540
-2.750E-06,0.544
-2.740E-06,0.540
-2.730E-06,0.536
-2.720E-06,0.348
-2.710E-06,0.232
-2.700E-06,0.044
-2.690E-06,0.048
-2.680E-06,0.024
-2.670E-06,0.052
-2.660E-06,-0.008
-2.650E-06,-0.096
-2.640E-06,-0.196
-2.630E-06,-0.332
-2.620E-06,-0.348
-2.610E-06,-0.300
-2.600E-06,-0.268
-2.590E-06,-0.304
-2.580E-06,-0.468
-2.570E-06,-0.516
-2.560E-06,-0.520
-2.550E-06,-0.524
-2.540E-06,-0.524
-2.530E-06,-0.516
-2.520E-06,-0.520
-2.510E-06,-0.036
-2.500E-06,0.544
-2.490E-06,0.540
-2.480E-06,0.540
-2.470E-06,0.372
-2.460E-06,-0.092
-2.450E-06,0.028
-2.440E-06,0.328
-2.430E-06,0.448
-2.420E-06,0.516
-2.410E-06,0.384
-2.400E-06,0.216
-2.390E-06,0.108
-2.380E-06,0.044
-2.370E-06,0.028
-2.360E-06,0.100
-2.350E-06,0.096
-2.340E-06,0.076
-2.330E-06,0.036
-2.320E-06,0.008
-2.310E-06,-0.064
-2.300E-06,-0.148
-2.290E-06,-0.236
-2.280E-06,-0.224
-2.270E-06,-0.224
-2.260E-06,-0.212
-2.250E-06,-0.232
-2.240E-06,-0.300
-2.230E-06,-0.312
-2.220E-06,-0.304
-2.210E-06,-0.296
-2.200E-06,-0.312
-2.190E-06,-0.320
-2.180E-06,-0.300
-2.170E-06,-0.264
-2.160E-06,-0.276
-2.150E-06,-0.276
-2.140E-06,-0.316
-2.130E-06,-0.304
-2.120E-06,-0.284
-2.110E-06,-0.204
-2.100E-06,-0.100
-2.090E-06,-0.044
-2.080E-06,-0.008
-2.070E-06,-0.040
-2.060E-06,-0.028
-2.050E-06,0.028
-2.040E-06,0.080
-2.030E-06,0.156
-2.020E-06,0.200
-2.010E-06,0.184
-2.000E-06,0.152
-1.990E-06,0.076
-1.980E-06,0.176
-1.970E-06,0.208
-1.960E-06,0.540
-1.950E-06,0.536
-1.940E-06,0.540
-1.930E-06,0.540
-1.920E-06,0.412
-1.910E-06,0.540
-1.900E-06,0.544
-1.890E-06,0.544
-1.880E-06,0.540
-1.870E-06,0.512
-1.860E-06,0.124
-1.850E-06,0.084
-1.840E-06,-0.084
-1.830E-06,0.000
-1.820E-06,0.008
-1.810E-06,-0.196
-1.800E-06,-0.324
-1.790E-06,-0.524
-1.780E-06,-0.456
-1.770E-06,-0.076
-1.760E-06,0.308
-1.750E-06,0.540
-1.740E-06,0.516
-1.730E-06,0.056
-1.720E-06,-0.316
-1.710E-06,-0.404
-1.700E-06,-0.224
-1.690E-06,-0.060
-1.680E-06,-0.068
-1.670E-06,-0.172
-1.660E-06,-0.332
-1.650E-06,-0.488
-1.640E-06,-0.516
-1.630E-06,-0.520
-1.620E-06,-0.516
-1.610E-06,-0.520
-1.600E-06,-0.516
-1.590E-06,-0.504
-1.580E-06,-0.520
-1.570E-06,-0.516
-1.560E-06,-0.520
-1.550E-06,-0.520
-1.540E-06,-0.520
-1.530E-06,-0.508
-1.520E-06,-0.504
-1.510E-06,-0.484
-1.500E-06,-0.332
-1.490E-06,-0.200
-1.480E-06,0.052
-1.470E-06,0.268
-1.460E-06,0.332
-1.450E-06,0.376
-1.440E-06,0.236
-1.430E-06,0.108
-1.420E-06,0.044
-1.410E-06,0.312
-1.400E-06,0.428
-1.390E-06,0.540
-1.380E-06,0.540
-1.370E-06,0.472
-1.360E-06,0.176
-1.350E-06,0.288
-1.340E-06,0.304
-1.330E-06,0.424
-1.320E-06,0.484
-1.310E-06,0.540
-1.300E-06,0.540
-1.290E-06,0.432
-1.280E-06,0.296
-1.270E-06,0.320
-1.260E-06,0.536
-1.250E-06,0.540
-1.240E-06,0.544
-1.230E-06,0.544
-1.220E-06,0.540
-1.210E-06,0.532
-1.200E-06,0.352
-1.190E-06,0.272
-1.180E-06,0.244
-1.170E-06,0.060
-1.160E-06,-0.124
-1.150E-06,-0.304
-1.140E-06,-0.492
-1.130E-06,-0.516
-1.120E-06,-0.520
-1.110E-06,-0.516
-1.100E-06,-0.520
-1.090E-06,-0.520
-1.080E-06,-0.520
-1.070E-06,-0.520
-1.060E-06,-0.524
-1.050E-06,-0.520
-1.040E-06,-0.516
-1.030E-06,-0.520
-1.020E-06,-0.524
-1.010E-06,-0.524
-1.000E-06,-0.524
-9.900E-07,-0.524
-9.800E-07,-0.524
-9.700E-07,-0.524
-9.600E-07,-0.524
-9.500E-07,0.164
-9.400E-07,0.536
-9.300E-07,0.540
-9.200E-07,0.540
-9.100E-07,0.540
-9.000E-07,0.540
-8.900E-07,0.544
-8.800E-07,0.544
-8.700E-07,0.540
-8.600E-07,0.540
-8.500E-07,0.540
-8.400E-07,0.540
-8.300E-07,0.544
-8.200E-07,0.540
-8.100E-07,0.280
-8.000E-07,-0.052
-7.900E-07,-0.248
-7.800E-07,-0.416
-7.700E-07,-0.516
-7.600E-07,-0.516
-7.500E-07,-0.520
-7.400E-07,-0.516
-7.300E-07,-0.516
-7.200E-07,-0.520
-7.100E-07,-0.524
-7.000E-07,-0.524
-6.900E-07,-0.524
-6.800E-07,-0.424
-6.700E-07,0.540
-6.600E-07,0.540
-6.500E-07,0.540
-6.400E-07,0.540
-6.300E-07,0.536
-6.200E-07,0.168
-6.100E-07,-0.520
-6.000E-07,-0.524
-5.900E-07,0.048
-5.800E-07,-0.048
-5.700E-07,-0.192
-5.600E-07,-0.516
-5.500E-07,-0.516
-5.400E-07,-0.520
-5.300E-07,-0.516
-5.200E-07,-0.520
-5.100E-07,-0.524
-5.000E-07,-0.520
-4.900E-07,-0.520
-4.800E-07,-0.524
-4.700E-07,-0.520
-4.600E-07,-0.520
-4.500E-07,0.012
-4.400E-07,0.544
-4.300E-07,0.540
-4.200E-07,0.540
-4.100E-07,0.544
-4.000E-07,0.544
-3.900E-07,0.056
-3.800E-07,-0.280
-3.700E-07,-0.240
-3.600E-07,-0.040
-3.500E-07,0.052
-3.400E-07,0.068
-3.300E-07,-0.156
-3.200E-07,-0.472
-3.100E-07,-0.524
-3.000E-07,-0.520
-2.900E-07,-0.524
-2.800E-07,-0.516
-2.700E-07,-0.516
-2.600E-07,-0.308
-2.500E-07,-0.124
-2.400E-07,-0.144
-2.300E-07,-0.236
-2.200E-07,-0.288
-2.100E-07,-0.248
-2.000E-07,-0.100
-1.900E-07,-0.032
-1.800E-07,0.012
-1.700E-07,0.068
-1.600E-07,0.112
-1.500E-07,0.300
-1.400E-07,0.528
-1.300E-07,0.540
-1.200E-07,0.544
-1.100E-07,0.540
-1.000E-07,0.544
-9.000E-08,0.120
-8.000E-08,-0.236
-7.000E-08,-0.520
-6.000E-08,-0.520
-5.000E-08,-0.520
-4.000E-08,-0.520
-3.000E-08,-0.520
-2.000E-08,-0.524
-1.000E-08,0.540
0.000E+00,0.540
1.000E-08,0.536
2.000E-08,0.540
3.000E-08,0.540
4.000E-08,0.212
5.000E-08,-0.520
6.000E-08,-0.072
7.000E-08,0.544
8.000E-08,0.540
9.000E-08,0.540
1.000E-07,0.540
1.100E-07,0.032
1.200E-07,-0.520
1.300E-07,-0.524
1.400E-07,-0.520
1.500E-07,-0.516
1.600E-07,-0.516
1.700E-07,-0.520
1.800E-07,-0.516
1.900E-07,-0.520
2.000E-07,-0.516
2.100E-07,-0.520
2.200E-07,-0.524
2.300E-07,-0.520
2.400E-07,-0.516
2.500E-07,-0.520
2.600E-07,-0.520
2.700E-07,-0.524
2.800E-07,-0.520
2.900E-07,-0.524
3.000E-07,-0.524
3.100E-07,-0.524
3.200E-07,-0.404
3.300E-07,0.536
3.400E-07,0.540
3.500E-07,0.540
3.600E-07,0.540
3.700E-07,0.540
3.800E-07,0.540
3.900E-07,0.540
4.000E-07,0.540
4.100E-07,0.540
4.200E-07,0.432
4.300E-07,0.408
4.400E-07,0.360
4.500E-07,0.040
4.600E-07,-0.116
4.700E-07,-0.384
4.800E-07,-0.516
4.900E-07,-0.516
5.000E-07,-0.520
5.100E-07,-0.520
5.200E-07,-0.520
5.300E-07,-0.520
5.400E-07,-0.524
5.500E-07,-0.520
5.600E-07,-0.520
5.700E-07,-0.524
5.800E-07,-0.520
5.900E-07,-0.524
6.000E-07,-0.516
6.100E-07,-0.516
6.200E-07,-0.520
6.300E-07,-0.520
6.400E-07,-0.520
6.500E-07,-0.332
6.600E-07,0.540
6.700E-07,0.544
6.800E-07,0.544
6.900E-07,0.540
7.000E-07,0.540
7.100E-07,0.536
7.200E-07,0.200
7.300E-07,-0.160
7.400E-07,-0.432
7.500E-07,-0.476
7.600E-07,-0.300
7.700E-07,-0.112
7.800E-07,-0.200
7.900E-07,-0.268
8.000E-07,-0.428
8.100E-07,-0.520
8.200E-07,-0.308
8.300E-07,-0.052
8.400E-07,0.064
8.500E-07,0.104
8.600E-07,0.016
8.700E-07,-0.160
8.800E-07,-0.216
8.900E-07,-0.184
9.000E-07,-0.176
9.100E-07,-0.172
9.200E-07,-0.312
9.300E-07,-0.456
9.400E-07,-0.516
9.500E-07,-0.520
9.600E-07,-0.516
9.700E-07,-0.520
9.800E-07,-0.516
9.900E-07,-0.520
1.000E-06,-0.520
1.010E-06,-0.524
1.020E-06,-0.520
1.030E-06,-0.524
1.040E-06,-0.524
1.050E-06,-0.524
1.060E-06,-0.516
1.070E-06,-0.520
1.080E-06,-0.524
1.090E-06,-0.452
1.100E-06,-0.096
1.110E-06,0.064
1.120E-06,0.272
1.130E-06,0.320
1.140E-06,0.376
1.150E-06,0.432
1.160E-06,0.236
1.170E-06,0.316
1.180E-06,0.368
1.190E-06,0.480
1.200E-06,0.452
1.210E-06,0.540
1.220E-06,0.540
1.230E-06,0.536
1.240E-06,0.540
1.250E-06,0.544
1.260E-06,0.540
1.270E-06,0.540
1.280E-06,0.540
1.290E-06,0.544
1.300E-06,0.540
1.310E-06,0.540
1.320E-06,0.536
1.330E-06,0.540
1.340E-06,0.544
1.350E-06,0.540
1.360E-06,0.544
1.370E-06,-0.016
1.380E-06,-0.032
1.390E-06,0.048
1.400E-06,-0.520
1.410E-06,-0.524
1.420E-06,-0.520
1.430E-06,-0.520
1.440E-06,-0.524
1.450E-06,-0.520
1.460E-06,-0.520
1.470E-06,0.544
1.480E-06,0.544
1.490E-06,0.464
1.500E-06,0.352
1.510E-06,-0.316
1.520E-06,-0.276
1.530E-06,-0.172
1.540E-06,-0.524
1.550E-06,-0.520
1.560E-06,-0.520
1.570E-06,-0.520
1.580E-06,-0.520
1.590E-06,-0.520
1.600E-06,-0.520
1.610E-06,-0.520
1.620E-06,-0.520
1.630E-06,-0.520
1.640E-06,-0.524
1.650E-06,-0.520
1.660E-06,-0.500
1.670E-06,-0.284
1.680E-06,0.148
1.690E-06,0.400
1.700E-06,0.540
1.710E-06,0.544
1.720E-06,0.540
1.730E-06,0.540
1.740E-06,0.476
1.750E-06,0.168
1.760E-06,-0.148
1.770E-06,-0.464
1.780E-06,-0.516
1.790E-06,-0.520
1.800E-06,-0.524
1.810E-06,-0.516
1.820E-06,-0.520
1.830E-06,-0.520
1.840E-06,-0.520
1.850E-06,-0.520
1.860E-06,-0.520
1.870E-06,-0.524
1.880E-06,-0.520
1.890E-06,-0.524
1.900E-06,-0.516
1.910E-06,-0.516
1.920E-06,-0.476
1.930E-06,-0.412
1.940E-06,-0.408
1.950E-06,-0.400
1.960E-06,-0.392
1.970E-06,-0.380
1.980E-06,-0.348
1.990E-06,-0.320
2.000E-06,-0.296
2.010E-06,-0.268
2.020E-06,-0.232
2.030E-06,-0.196
2.040E-06,-0.140
2.050E-06,-0.084
2.060E-06,-0.048
2.070E-06,-0.012
2.080E-06,0.032
2.090E-06,0.060
2.100E-06,0.068
2.110E-06,0.080
2.120E-06,0.100
2.130E-06,0.112
2.140E-06,0.104
2.150E-06,0.080
2.160E-06,0.056
2.170E-06,0.024
2.180E-06,-0.016
2.190E-06,-0.080
2.200E-06,-0.148
2.210E-06,-0.180
2.220E-06,-0.140
2.230E-06,-0.004
2.240E-06,0.188
2.250E-06,0.396
2.260E-06,0.544
2.270E-06,0.540
2.280E-06,0.536
2.290E-06,0.540
2.300E-06,0.544
2.310E-06,0.540
2.320E-06,0.540
2.330E-06,0.544
2.340E-06,0.544
2.350E-06,0.516
2.360E-06,0.316
2.370E-06,0.076
2.380E-06,-0.116
2.390E-06,-0.268
2.400E-06,-0.328
2.410E-06,-0.308
2.420E-06,-0.208
2.430E-06,-0.088
2.440E-06,0.060
2.450E-06,0.224
2.460E-06,0.388
2.470E-06,0.536
2.480E-06,0.536
2.490E-06,0.540
2.500E-06,0.540
2.510E-06,0.540
2.520E-06,0.536
2.530E-06,0.540
2.540E-06,0.540
2.550E-06,0.544
2.560E-06,0.516
2.570E-06,0.400
2.580E-06,0.264
2.590E-06,0.100
2.600E-06,-0.040
2.610E-06,-0.160
2.620E-06,-0.248
2.630E-06,-0.328
2.640E-06,-0.396
2.650E-06,-0.444
2.660E-06,-0.432
2.670E-06,-0.364
2.680E-06,-0.264
2.690E-06,-0.144
2.700E-06,-0.040
2.710E-06,0.068
2.720E-06,0.204
2.730E-06,0.380
2.740E-06,0.544
2.750E-06,0.544
2.760E-06,0.540
2.770E-06,0.540
2.780E-06,0.540
2.790E-06,0.544
2.800E-06,0.540
2.810E-06,0.536
2.820E-06,0.352
2.830E-06,0.136
2.840E-06,-0.020
2.850E-06,-0.124
2.860E-06,-0.200
2.870E-06,-0.248
2.880E-06,-0.216
2.890E-06,-0.156
2.900E-06,-0.072
2.910E-06,0.004
2.920E-06,0.068
2.930E-06,0.140
2.940E-06,0.196
2.950E-06,0.256
2.960E-06,0.316
2.970E-06,0.352
2.980E-06,0.396
2.990E-06,0.432
3.000E-06,0.468
3.010E-06,0.512
3.020E-06,0.540
3.030E-06,0.540
3.040E-06,0.540
3.050E-06,0.540
3.060E-06,0.512
3.070E-06,0.488
3.080E-06,0.468
3.090E-06,0.448
3.100E-06,0.440
3.110E-06,0.436
3.120E-06,0.424
3.130E-06,0.412
3.140E-06,0.424
3.150E-06,0.440
3.160E-06,0.460
3.170E-06,0.468
3.180E-06,0.480
3.190E-06,0.468
3.200E-06,0.448
3.210E-06,0.392
3.220E-06,0.336
3.230E-06,0.264
3.240E-06,0.208
3.250E-06,0.164
3.260E-06,0.148
3.270E-06,0.148
3.280E-06,0.160
3.290E-06,0.172
3.300E-06,0.192
3.310E-06,0.216
3.320E-06,0.232
3.330E-06,0.248
3.340E-06,0.256
3.350E-06,0.268
3.360E-06,0.264
3.370E-06,0.260
3.380E-06,0.260
3.390E-06,0.252
3.400E-06,0.244
3.410E-06,0.228
3.420E-06,0.212
3.430E-06,0.216
3.440E-06,0.232
