mediciones/6-26/12.6/WaveData59132.csv

#timebase=2000000(ps)
,#voltbase=200000(mv/100)
#size=4000
-8.150E-06,0.000
-8.140E-06,0.008
-8.130E-06,-0.008
-8.120E-06,0.024
-8.110E-06,-0.032
-8.100E-06,-0.024
-8.090E-06,0.024
-8.080E-06,0.016
-8.070E-06,0.048
-8.060E-06,0.016
-8.050E-06,-0.008
-8.040E-06,-0.048
-8.030E-06,-0.024
-8.020E-06,-0.008
-8.010E-06,0.016
-8.000E-06,0.040
-7.990E-06,0.056
-7.980E-06,0.032
-7.970E-06,-0.024
-7.960E-06,-0.016
-7.950E-06,-0.040
-7.940E-06,-0.008
-7.930E-06,0.024
-7.920E-06,0.040
-7.910E-06,0.024
-7.900E-06,0.024
-7.890E-06,-0.008
-7.880E-06,-0.016
-7.870E-06,-0.016
-7.860E-06,-0.008
-7.850E-06,0.008
-7.840E-06,0.032
-7.830E-06,0.032
-7.820E-06,0.008
-7.810E-06,0.016
-7.800E-06,-0.008
-7.790E-06,-0.016
-7.780E-06,-0.008
-7.770E-06,0.008
-7.760E-06,0.008
-7.750E-06,0.032
-7.740E-06,0.032
-7.730E-06,0.000
-7.720E-06,-0.008
-7.710E-06,-0.016
-7.700E-06,-0.008
-7.690E-06,0.000
-7.680E-06,0.008
-7.670E-06,0.032
-7.660E-06,0.000
-7.650E-06,0.008
-7.640E-06,0.000
-7.630E-06,-0.008
-7.620E-06,0.000
-7.610E-06,-0.008
-7.600E-06,0.000
-7.590E-06,0.016
-7.580E-06,0.008
-7.570E-06,0.032
-7.560E-06,0.024
-7.550E-06,0.016
-7.540E-06,0.000
-7.530E-06,-0.016
-7.520E-06,-0.016
-7.510E-06,-0.008
-7.500E-06,0.032
-7.490E-06,0.048
-7.480E-06,0.016
-7.470E-06,0.008
-7.460E-06,-0.056
-7.450E-06,-0.032
-7.440E-06,0.000
-7.430E-06,0.024
-7.420E-06,0.024
-7.410E-06,0.016
-7.400E-06,0.040
-7.390E-06,0.000
-7.380E-06,-0.016
-7.370E-06,-0.016
-7.360E-06,-0.016
-7.350E-06,0.008
-7.340E-06,0.032
-7.330E-06,0.032
-7.320E-06,0.024
-7.310E-06,0.024
-7.300E-06,-0.008
-7.290E-06,-0.032
-7.280E-06,-0.008
-7.270E-06,-0.016
-7.260E-06,0.008
-7.250E-06,0.016
-7.240E-06,0.000
-7.230E-06,-0.008
-7.220E-06,-0.016
-7.210E-06,0.000
-7.200E-06,0.016
-7.190E-06,0.016
-7.180E-06,0.016
-7.170E-06,0.008
-7.160E-06,0.000
-7.150E-06,0.000
-7.140E-06,-0.016
-7.130E-06,0.008
-7.120E-06,0.016
-7.110E-06,0.016
-7.100E-06,0.024
-7.090E-06,0.008
-7.080E-06,0.000
-7.070E-06,0.008
-7.060E-06,-0.008
-7.050E-06,-0.008
-7.040E-06,-0.008
-7.030E-06,0.000
-7.020E-06,0.024
-7.010E-06,0.016
-7.000E-06,0.008
-6.990E-06,0.008
-6.980E-06,-0.008
-6.970E-06,-0.016
-6.960E-06,-0.008
-6.950E-06,0.008
-6.940E-06,0.024
-6.930E-06,0.048
-6.920E-06,0.000
-6.910E-06,-0.008
-6.900E-06,-0.016
-6.890E-06,-0.024
-6.880E-06,-0.008
-6.870E-06,0.016
-6.860E-06,0.024
-6.850E-06,0.032
-6.840E-06,0.000
-6.830E-06,-0.008
-6.820E-06,-0.024
-6.810E-06,-0.016
-6.800E-06,0.000
-6.790E-06,0.016
-6.780E-06,0.040
-6.770E-06,0.024
-6.760E-06,0.016
-6.750E-06,-0.016
-6.740E-06,-0.016
-6.730E-06,-0.016
-6.720E-06,0.000
-6.710E-06,0.008
-6.700E-06,0.032
-6.690E-06,0.032
-6.680E-06,0.016
-6.670E-06,0.008
-6.660E-06,-0.024
-6.650E-06,-0.016
-6.640E-06,-0.008
-6.630E-06,0.016
-6.620E-06,0.024
-6.610E-06,0.024
-6.600E-06,0.024
-6.590E-06,0.016
-6.580E-06,0.000
-6.570E-06,0.000
-6.560E-06,0.008
-6.550E-06,-0.008
-6.540E-06,-0.048
-6.530E-06,-0.032
-6.520E-06,0.024
-6.510E-06,0.000
-6.500E-06,0.032
-6.490E-06,0.024
-6.480E-06,0.048
-6.470E-06,0.016
-6.460E-06,-0.016
-6.450E-06,-0.048
-6.440E-06,-0.032
-6.430E-06,-0.008
-6.420E-06,0.040
-6.410E-06,0.048
-6.400E-06,0.048
-6.390E-06,0.024
-6.380E-06,0.000
-6.370E-06,-0.008
-6.360E-06,-0.032
-6.350E-06,-0.008
-6.340E-06,0.000
-6.330E-06,0.016
-6.320E-06,0.048
-6.310E-06,0.024
-6.300E-06,0.016
-6.290E-06,-0.016
-6.280E-06,-0.008
-6.270E-06,-0.016
-6.260E-06,-0.008
-6.250E-06,0.000
-6.240E-06,0.008
-6.230E-06,0.016
-6.220E-06,0.016
-6.210E-06,0.016
-6.200E-06,-0.008
-6.190E-06,0.000
-6.180E-06,-0.008
-6.170E-06,0.000
-6.160E-06,0.008
-6.150E-06,0.016
-6.140E-06,0.024
-6.130E-06,0.024
-6.120E-06,0.016
-6.110E-06,0.000
-6.100E-06,-0.008
-6.090E-06,0.000
-6.080E-06,-0.008
-6.070E-06,0.016
-6.060E-06,0.024
-6.050E-06,0.024
-6.040E-06,0.016
-6.030E-06,0.000
-6.020E-06,-0.016
-6.010E-06,-0.008
-6.000E-06,-0.008
-5.990E-06,0.008
-5.980E-06,0.024
-5.970E-06,0.016
-5.960E-06,0.008
-5.950E-06,-0.008
-5.940E-06,0.000
-5.930E-06,0.000
-5.920E-06,-0.008
-5.910E-06,0.008
-5.900E-06,0.008
-5.890E-06,0.016
-5.880E-06,0.008
-5.870E-06,0.000
-5.860E-06,0.000
-5.850E-06,0.016
-5.840E-06,0.000
-5.830E-06,-0.008
-5.820E-06,0.000
-5.810E-06,0.000
-5.800E-06,0.008
-5.790E-06,0.016
-5.780E-06,0.008
-5.770E-06,0.008
-5.760E-06,-0.008
-5.750E-06,-0.016
-5.740E-06,-0.016
-5.730E-06,0.008
-5.720E-06,0.000
-5.710E-06,0.016
-5.700E-06,0.016
-5.690E-06,0.024
-5.680E-06,-0.008
-5.670E-06,0.000
-5.660E-06,0.000
-5.650E-06,-0.008
-5.640E-06,0.008
-5.630E-06,0.008
-5.620E-06,0.016
-5.610E-06,0.000
-5.600E-06,0.000
-5.590E-06,0.008
-5.580E-06,0.000
-5.570E-06,0.016
-5.560E-06,0.032
-5.550E-06,0.000
-5.540E-06,-0.008
-5.530E-06,-0.008
-5.520E-06,-0.016
-5.510E-06,0.000
-5.500E-06,0.000
-5.490E-06,0.000
-5.480E-06,0.016
-5.470E-06,0.008
-5.460E-06,0.016
-5.450E-06,0.000
-5.440E-06,0.000
-5.430E-06,0.016
-5.420E-06,0.040
-5.410E-06,0.008
-5.400E-06,-0.008
-5.390E-06,-0.024
-5.380E-06,-0.016
-5.370E-06,-0.008
-5.360E-06,0.000
-5.350E-06,0.016
-5.340E-06,0.040
-5.330E-06,0.048
-5.320E-06,0.024
-5.310E-06,-0.008
-5.300E-06,-0.040
-5.290E-06,-0.048
-5.280E-06,-0.016
-5.270E-06,0.024
-5.260E-06,0.056
-5.250E-06,0.040
-5.240E-06,0.032
-5.230E-06,-0.024
-5.220E-06,-0.040
-5.210E-06,-0.040
-5.200E-06,-0.008
-5.190E-06,0.024
-5.180E-06,0.056
-5.170E-06,0.048
-5.160E-06,0.016
-5.150E-06,-0.016
-5.140E-06,-0.040
-5.130E-06,-0.032
-5.120E-06,-0.016
-5.110E-06,0.016
-5.100E-06,0.032
-5.090E-06,0.048
-5.080E-06,0.016
-5.070E-06,0.000
-5.060E-06,-0.008
-5.050E-06,-0.024
-5.040E-06,0.000
-5.030E-06,0.024
-5.020E-06,0.032
-5.010E-06,0.040
-5.000E-06,0.024
-4.990E-06,0.000
-4.980E-06,-0.016
-4.970E-06,-0.008
-4.960E-06,0.000
-4.950E-06,0.008
-4.940E-06,0.032
-4.930E-06,0.016
-4.920E-06,0.008
-4.910E-06,-0.008
-4.900E-06,-0.024
-4.890E-06,-0.024
-4.880E-06,-0.016
-4.870E-06,0.024
-4.860E-06,0.016
-4.850E-06,0.032
-4.840E-06,0.024
-4.830E-06,0.000
-4.820E-06,0.000
-4.810E-06,0.008
-4.800E-06,0.024
-4.790E-06,0.024
-4.780E-06,0.008
-4.770E-06,-0.008
-4.760E-06,-0.016
-4.750E-06,0.000
-4.740E-06,0.016
-4.730E-06,0.024
-4.720E-06,0.024
-4.710E-06,0.000
-4.700E-06,-0.008
-4.690E-06,-0.008
-4.680E-06,-0.008
-4.670E-06,0.000
-4.660E-06,0.000
-4.650E-06,0.016
-4.640E-06,0.024
-4.630E-06,0.016
-4.620E-06,0.000
-4.610E-06,-0.008
-4.600E-06,-0.016
-4.590E-06,-0.008
-4.580E-06,0.016
-4.570E-06,0.016
-4.560E-06,0.016
-4.550E-06,0.008
-4.540E-06,0.016
-4.530E-06,0.000
-4.520E-06,0.008
-4.510E-06,0.016
-4.500E-06,0.008
-4.490E-06,0.032
-4.480E-06,-0.088
-4.470E-06,0.016
-4.460E-06,-0.016
-4.450E-06,-0.048
-4.440E-06,-0.024
-4.430E-06,0.024
-4.420E-06,0.072
-4.410E-06,0.008
-4.400E-06,-0.016
-4.390E-06,-0.072
-4.380E-06,-0.032
-4.370E-06,0.016
-4.360E-06,0.056
-4.350E-06,0.040
-4.340E-06,0.016
-4.330E-06,0.008
-4.320E-06,-0.016
-4.310E-06,-0.008
-4.300E-06,-0.008
-4.290E-06,0.016
-4.280E-06,0.032
-4.270E-06,0.048
-4.260E-06,0.024
-4.250E-06,-0.008
-4.240E-06,-0.016
-4.230E-06,-0.008
-4.220E-06,0.008
-4.210E-06,0.016
-4.200E-06,0.016
-4.190E-06,0.016
-4.180E-06,0.024
-4.170E-06,0.016
-4.160E-06,0.008
-4.150E-06,0.008
-4.140E-06,0.016
-4.130E-06,0.008
-4.120E-06,-0.008
-4.110E-06,-0.008
-4.100E-06,-0.008
-4.090E-06,-0.008
-4.080E-06,0.000
-4.070E-06,0.016
-4.060E-06,0.016
-4.050E-06,0.040
-4.040E-06,0.040
-4.030E-06,0.024
-4.020E-06,0.000
-4.010E-06,0.000
-4.000E-06,0.000
-3.990E-06,0.016
-3.980E-06,0.024
-3.970E-06,0.032
-3.960E-06,0.056
-3.950E-06,0.048
-3.940E-06,0.008
-3.930E-06,-0.008
-3.920E-06,-0.048
-3.910E-06,0.000
-3.900E-06,0.024
-3.890E-06,0.024
-3.880E-06,0.040
-3.870E-06,0.000
-3.860E-06,-0.024
-3.850E-06,-0.088
-3.840E-06,-0.048
-3.830E-06,-0.008
-3.820E-06,0.032
-3.810E-06,0.040
-3.800E-06,0.048
-3.790E-06,0.008
-3.780E-06,-0.008
-3.770E-06,-0.016
-3.760E-06,-0.040
-3.750E-06,-0.024
-3.740E-06,0.000
-3.730E-06,0.024
-3.720E-06,0.056
-3.710E-06,0.056
-3.700E-06,0.024
-3.690E-06,0.000
-3.680E-06,-0.008
-3.670E-06,-0.024
-3.660E-06,-0.024
-3.650E-06,-0.016
-3.640E-06,0.016
-3.630E-06,0.024
-3.620E-06,0.024
-3.610E-06,0.000
-3.600E-06,0.000
-3.590E-06,-0.016
-3.580E-06,-0.016
-3.570E-06,0.000
-3.560E-06,0.024
-3.550E-06,0.008
-3.540E-06,0.016
-3.530E-06,0.032
-3.520E-06,0.008
-3.510E-06,0.008
-3.500E-06,0.000
-3.490E-06,0.008
-3.480E-06,0.000
-3.470E-06,0.024
-3.460E-06,0.032
-3.450E-06,0.032
-3.440E-06,0.040
-3.430E-06,0.040
-3.420E-06,0.048
-3.410E-06,0.048
-3.400E-06,0.080
-3.390E-06,0.064
-3.380E-06,-0.064
-3.370E-06,-0.160
-3.360E-06,-0.104
-3.350E-06,-0.048
-3.340E-06,0.080
-3.330E-06,0.120
-3.320E-06,0.080
-3.310E-06,0.008
-3.300E-06,-0.040
-3.290E-06,-0.008
-3.280E-06,-0.024
-3.270E-06,0.024
-3.260E-06,0.072
-3.250E-06,0.016
-3.240E-06,0.000
-3.230E-06,-0.088
-3.220E-06,-0.128
-3.210E-06,-0.080
-3.200E-06,-0.056
-3.190E-06,0.024
-3.180E-06,0.032
-3.170E-06,0.080
-3.160E-06,0.088
-3.150E-06,0.048
-3.140E-06,-0.008
-3.130E-06,-0.096
-3.120E-06,-0.112
-3.110E-06,-0.056
-3.100E-06,0.056
-3.090E-06,0.080
-3.080E-06,0.088
-3.070E-06,0.064
-3.060E-06,0.016
-3.050E-06,-0.048
-3.040E-06,-0.072
-3.030E-06,-0.048
-3.020E-06,0.024
-3.010E-06,0.080
-3.000E-06,0.104
-2.990E-06,0.088
-2.980E-06,0.056
-2.970E-06,0.000
-2.960E-06,-0.024
-2.950E-06,-0.024
-2.940E-06,0.016
-2.930E-06,0.104
-2.920E-06,0.112
-2.910E-06,-0.016
-2.900E-06,-0.168
-2.890E-06,-0.144
-2.880E-06,-0.176
-2.870E-06,-0.048
-2.860E-06,0.104
-2.850E-06,0.184
-2.840E-06,0.176
-2.830E-06,0.056
-2.820E-06,-0.112
-2.810E-06,-0.208
-2.800E-06,-0.136
-2.790E-06,-0.048
-2.780E-06,0.088
-2.770E-06,0.176
-2.760E-06,0.120
-2.750E-06,0.064
-2.740E-06,-0.024
-2.730E-06,-0.104
-2.720E-06,-0.112
-2.710E-06,-0.040
-2.700E-06,0.040
-2.690E-06,0.120
-2.680E-06,0.120
-2.670E-06,0.064
-2.660E-06,-0.016
-2.650E-06,-0.056
-2.640E-06,-0.072
-2.630E-06,-0.048
-2.620E-06,0.024
-2.610E-06,0.096
-2.600E-06,0.096
-2.590E-06,0.112
-2.580E-06,0.080
-2.570E-06,0.008
-2.560E-06,-0.056
-2.550E-06,-0.240
-2.540E-06,-0.136
-2.530E-06,-0.040
-2.520E-06,0.064
-2.510E-06,0.088
-2.500E-06,0.096
-2.490E-06,0.032
-2.480E-06,-0.024
-2.470E-06,-0.104
-2.460E-06,-0.088
-2.450E-06,0.000
-2.440E-06,0.064
-2.430E-06,0.088
-2.420E-06,0.064
-2.410E-06,0.024
-2.400E-06,-0.032
-2.390E-06,-0.040
-2.380E-06,-0.040
-2.370E-06,-0.016
-2.360E-06,0.024
-2.350E-06,0.048
-2.340E-06,0.040
-2.330E-06,0.024
-2.320E-06,0.008
-2.310E-06,-0.016
-2.300E-06,-0.016
-2.290E-06,-0.008
-2.280E-06,0.016
-2.270E-06,0.040
-2.260E-06,0.040
-2.250E-06,0.016
-2.240E-06,-0.016
-2.230E-06,0.000
-2.220E-06,-0.008
-2.210E-06,0.016
-2.200E-06,0.032
-2.190E-06,0.056
-2.180E-06,0.048
-2.170E-06,0.024
-2.160E-06,0.008
-2.150E-06,-0.008
-2.140E-06,0.000
-2.130E-06,0.032
-2.120E-06,0.048
-2.110E-06,0.056
-2.100E-06,0.048
-2.090E-06,0.024
-2.080E-06,0.008
-2.070E-06,-0.008
-2.060E-06,-0.008
-2.050E-06,-0.016
-2.040E-06,0.024
-2.030E-06,0.024
-2.020E-06,0.040
-2.010E-06,0.056
-2.000E-06,0.048
-1.990E-06,0.056
-1.980E-06,0.016
-1.970E-06,-0.008
-1.960E-06,-0.056
-1.950E-06,-0.152
-1.940E-06,-0.128
-1.930E-06,-0.120
-1.920E-06,0.056
-1.910E-06,0.168
-1.900E-06,0.064
-1.890E-06,0.048
-1.880E-06,-0.040
-1.870E-06,-0.080
-1.860E-06,0.008
-1.850E-06,0.024
-1.840E-06,0.104
-1.830E-06,0.112
-1.820E-06,0.080
-1.810E-06,-0.080
-1.800E-06,-0.080
-1.790E-06,-0.112
-1.780E-06,-0.112
-1.770E-06,0.024
-1.760E-06,0.072
-1.750E-06,0.080
-1.740E-06,0.016
-1.730E-06,-0.048
-1.720E-06,-0.056
-1.710E-06,-0.024
-1.700E-06,-0.024
-1.690E-06,-0.016
-1.680E-06,0.008
-1.670E-06,0.040
-1.660E-06,0.048
-1.650E-06,0.032
-1.640E-06,0.016
-1.630E-06,-0.008
-1.620E-06,0.000
-1.610E-06,0.008
-1.600E-06,0.024
-1.590E-06,0.048
-1.580E-06,0.088
-1.570E-06,0.096
-1.560E-06,0.072
-1.550E-06,0.056
-1.540E-06,-0.008
-1.530E-06,-0.056
-1.520E-06,-0.056
-1.510E-06,-0.016
-1.500E-06,0.000
-1.490E-06,0.136
-1.480E-06,0.144
-1.470E-06,0.200
-1.460E-06,-0.016
-1.450E-06,-0.152
-1.440E-06,-0.160
-1.430E-06,-0.168
-1.420E-06,-0.048
-1.410E-06,-0.024
-1.400E-06,0.128
-1.390E-06,0.168
-1.380E-06,0.144
-1.370E-06,0.048
-1.360E-06,-0.016
-1.350E-06,-0.016
-1.340E-06,-0.040
-1.330E-06,0.056
-1.320E-06,0.016
-1.310E-06,-0.016
-1.300E-06,-0.008
-1.290E-06,-0.080
-1.280E-06,-0.128
-1.270E-06,-0.080
-1.260E-06,-0.040
-1.250E-06,0.008
-1.240E-06,0.048
-1.230E-06,0.008
-1.220E-06,-0.016
-1.210E-06,0.000
-1.200E-06,-0.016
-1.190E-06,0.016
-1.180E-06,0.016
-1.170E-06,0.016
-1.160E-06,0.048
-1.150E-06,0.056
-1.140E-06,0.056
-1.130E-06,0.040
-1.120E-06,0.024
-1.110E-06,0.032
-1.100E-06,0.064
-1.090E-06,0.048
-1.080E-06,0.072
-1.070E-06,0.088
-1.060E-06,0.048
-1.050E-06,0.024
-1.040E-06,0.056
-1.030E-06,0.088
-1.020E-06,0.104
-1.010E-06,-0.008
-1.000E-06,0.024
-9.900E-07,0.008
-9.800E-07,-0.056
-9.700E-07,-0.072
-9.600E-07,-0.088
-9.500E-07,0.024
-9.400E-07,0.072
-9.300E-07,0.000
-9.200E-07,-0.128
-9.100E-07,-0.112
-9.000E-07,-0.048
-8.900E-07,0.008
-8.800E-07,0.040
-8.700E-07,0.120
-8.600E-07,0.088
-8.500E-07,0.088
-8.400E-07,0.056
-8.300E-07,-0.032
-8.200E-07,-0.024
-8.100E-07,0.048
-8.000E-07,0.104
-7.900E-07,0.168
-7.800E-07,0.184
-7.700E-07,0.120
-7.600E-07,0.112
-7.500E-07,0.136
-7.400E-07,0.136
-7.300E-07,0.016
-7.200E-07,-0.024
-7.100E-07,-0.440
-7.000E-07,-0.464
-6.900E-07,-0.560
-6.800E-07,-0.376
-6.700E-07,-0.040
-6.600E-07,0.048
-6.500E-07,0.512
-6.400E-07,0.192
-6.300E-07,0.016
-6.200E-07,-0.200
-6.100E-07,-0.232
-6.000E-07,-0.040
-5.900E-07,0.056
-5.800E-07,0.136
-5.700E-07,0.112
-5.600E-07,0.216
-5.500E-07,0.176
-5.400E-07,0.088
-5.300E-07,0.000
-5.200E-07,-0.056
-5.100E-07,-0.056
-5.000E-07,0.032
-4.900E-07,0.008
-4.800E-07,0.016
-4.700E-07,0.016
-4.600E-07,-0.056
-4.500E-07,-0.016
-4.400E-07,-0.080
-4.300E-07,-0.040
-4.200E-07,0.000
-4.100E-07,0.008
-4.000E-07,0.056
-3.900E-07,0.048
-3.800E-07,0.024
-3.700E-07,-0.008
-3.600E-07,0.000
-3.500E-07,-0.016
-3.400E-07,0.032
-3.300E-07,0.064
-3.200E-07,0.104
-3.100E-07,0.096
-3.000E-07,0.104
-2.900E-07,0.096
-2.800E-07,0.056
-2.700E-07,0.056
-2.600E-07,0.048
-2.500E-07,0.040
-2.400E-07,0.080
-2.300E-07,0.152
-2.200E-07,0.184
-2.100E-07,0.080
-2.000E-07,0.040
-1.900E-07,0.016
-1.800E-07,-0.024
-1.700E-07,-0.088
-1.600E-07,0.008
-1.500E-07,0.096
-1.400E-07,0.152
-1.300E-07,0.136
-1.200E-07,0.168
-1.100E-07,0.040
-1.000E-07,0.048
-9.000E-08,0.032
-8.000E-08,-0.008
-7.000E-08,0.224
-6.000E-08,-0.432
-5.000E-08,-1.024
-4.000E-08,-0.624
-3.000E-08,-0.912
-2.000E-08,-0.056
-1.000E-08,0.672
0.000E+00,1.080
1.000E-08,1.080
2.000E-08,-0.168
3.000E-08,-0.552
4.000E-08,-1.024
5.000E-08,-0.808
6.000E-08,-0.056
7.000E-08,0.472
8.000E-08,0.632
9.000E-08,0.608
1.000E-07,0.280
1.100E-07,-0.224
1.200E-07,-0.312
1.300E-07,-0.472
1.400E-07,-0.168
1.500E-07,0.208
1.600E-07,0.480
1.700E-07,0.480
1.800E-07,0.320
1.900E-07,0.072
2.000E-07,-0.184
2.100E-07,-0.216
2.200E-07,-0.056
2.300E-07,0.136
2.400E-07,0.296
2.500E-07,0.456
2.600E-07,0.336
2.700E-07,0.224
2.800E-07,-0.088
2.900E-07,-0.440
3.000E-07,-0.576
3.100E-07,-0.640
3.200E-07,-0.424
3.300E-07,0.072
3.400E-07,0.312
3.500E-07,0.376
3.600E-07,0.120
3.700E-07,-0.208
3.800E-07,-0.312
3.900E-07,-0.312
4.000E-07,-0.080
4.100E-07,0.152
4.200E-07,0.240
4.300E-07,0.248
4.400E-07,0.120
4.500E-07,-0.080
4.600E-07,-0.168
4.700E-07,-0.184
4.800E-07,-0.056
4.900E-07,0.112
5.000E-07,0.224
5.100E-07,0.256
5.200E-07,0.176
5.300E-07,0.088
5.400E-07,-0.024
5.500E-07,-0.024
5.600E-07,0.016
5.700E-07,0.136
5.800E-07,0.248
5.900E-07,0.248
6.000E-07,0.144
6.100E-07,0.000
6.200E-07,-0.168
6.300E-07,-0.256
6.400E-07,-0.192
6.500E-07,-0.072
6.600E-07,0.048
6.700E-07,0.112
6.800E-07,0.184
6.900E-07,0.056
7.000E-07,0.024
7.100E-07,-0.056
7.200E-07,-0.088
7.300E-07,-0.032
7.400E-07,0.040
7.500E-07,0.112
7.600E-07,0.128
7.700E-07,0.112
7.800E-07,0.032
7.900E-07,-0.040
8.000E-07,-0.008
8.100E-07,-0.016
8.200E-07,0.048
8.300E-07,0.152
8.400E-07,0.152
8.500E-07,0.120
8.600E-07,0.048
8.700E-07,0.016
8.800E-07,0.024
8.900E-07,-0.016
9.000E-07,0.064
9.100E-07,0.072
9.200E-07,0.136
9.300E-07,0.176
9.400E-07,0.128
9.500E-07,0.104
9.600E-07,0.048
9.700E-07,0.088
9.800E-07,0.152
9.900E-07,0.168
1.000E-06,0.192
1.010E-06,0.184
1.020E-06,0.176
1.030E-06,0.192
1.040E-06,0.144
1.050E-06,0.168
1.060E-06,0.176
1.070E-06,0.176
1.080E-06,0.240
1.090E-06,0.240
1.100E-06,0.256
1.110E-06,0.184
1.120E-06,0.208
1.130E-06,0.264
1.140E-06,0.200
1.150E-06,0.280
1.160E-06,0.280
1.170E-06,0.320
1.180E-06,0.304
1.190E-06,0.280
1.200E-06,0.272
1.210E-06,0.240
1.220E-06,0.304
1.230E-06,0.320
1.240E-06,0.304
1.250E-06,0.320
1.260E-06,0.312
1.270E-06,0.288
1.280E-06,0.272
1.290E-06,0.208
1.300E-06,0.200
1.310E-06,0.184
1.320E-06,0.048
1.330E-06,0.048
1.340E-06,0.032
1.350E-06,-0.240
1.360E-06,-0.520
1.370E-06,-0.384
1.380E-06,-0.064
1.390E-06,-0.328
1.400E-06,0.024
1.410E-06,0.368
1.420E-06,0.176
1.430E-06,0.592
1.440E-06,0.352
1.450E-06,-0.072
1.460E-06,0.160
1.470E-06,0.128
1.480E-06,0.144
1.490E-06,0.192
1.500E-06,0.400
1.510E-06,0.448
1.520E-06,0.312
1.530E-06,0.184
1.540E-06,0.016
1.550E-06,0.040
1.560E-06,0.048
1.570E-06,0.256
1.580E-06,0.288
1.590E-06,0.336
1.600E-06,0.296
1.610E-06,0.248
1.620E-06,0.144
1.630E-06,0.064
1.640E-06,0.104
1.650E-06,0.184
1.660E-06,0.344
1.670E-06,0.416
1.680E-06,0.464
1.690E-06,0.384
1.700E-06,0.304
1.710E-06,0.192
1.720E-06,0.200
1.730E-06,0.208
1.740E-06,0.288
1.750E-06,0.384
1.760E-06,0.408
1.770E-06,0.416
1.780E-06,0.328
1.790E-06,0.280
1.800E-06,0.240
1.810E-06,0.248
1.820E-06,0.280
1.830E-06,0.336
1.840E-06,0.376
1.850E-06,0.376
1.860E-06,0.360
1.870E-06,0.304
1.880E-06,0.264
1.890E-06,0.256
1.900E-06,0.280
1.910E-06,0.312
1.920E-06,0.360
1.930E-06,0.368
1.940E-06,0.344
1.950E-06,0.312
1.960E-06,0.296
1.970E-06,0.272
1.980E-06,0.288
1.990E-06,0.320
2.000E-06,0.336
2.010E-06,0.344
2.020E-06,0.352
2.030E-06,0.328
2.040E-06,0.304
2.050E-06,0.288
2.060E-06,0.288
2.070E-06,0.304
2.080E-06,0.328
2.090E-06,0.352
2.100E-06,0.352
2.110E-06,0.336
2.120E-06,0.312
2.130E-06,0.288
2.140E-06,0.288
2.150E-06,0.288
2.160E-06,0.320
2.170E-06,0.320
2.180E-06,0.344
2.190E-06,0.352
2.200E-06,0.352
2.210E-06,0.328
2.220E-06,0.304
2.230E-06,0.304
2.240E-06,0.304
2.250E-06,0.320
2.260E-06,0.328
2.270E-06,0.328
2.280E-06,0.328
2.290E-06,0.312
2.300E-06,0.296
2.310E-06,0.280
2.320E-06,0.272
2.330E-06,0.288
2.340E-06,0.304
2.350E-06,0.320
2.360E-06,0.320
2.370E-06,0.312
2.380E-06,0.304
2.390E-06,0.296
2.400E-06,0.280
2.410E-06,0.288
2.420E-06,0.280
2.430E-06,0.296
2.440E-06,0.296
2.450E-06,0.304
2.460E-06,0.312
2.470E-06,0.296
2.480E-06,0.288
2.490E-06,0.280
2.500E-06,0.288
2.510E-06,0.312
2.520E-06,0.304
2.530E-06,0.312
2.540E-06,0.320
2.550E-06,0.304
2.560E-06,0.280
2.570E-06,0.272
2.580E-06,0.280
2.590E-06,0.280
2.600E-06,0.288
2.610E-06,0.296
2.620E-06,0.296
2.630E-06,0.280
2.640E-06,0.288
2.650E-06,0.280
2.660E-06,0.288
2.670E-06,0.288
2.680E-06,0.288
2.690E-06,0.296
2.700E-06,0.288
2.710E-06,0.288
2.720E-06,0.288
2.730E-06,0.280
2.740E-06,0.272
2.750E-06,0.280
2.760E-06,0.272
2.770E-06,0.280
2.780E-06,0.280
2.790E-06,0.280
2.800E-06,0.272
2.810E-06,0.272
2.820E-06,0.256
2.830E-06,0.256
2.840E-06,0.272
2.850E-06,0.280
2.860E-06,0.280
2.870E-06,0.280
2.880E-06,0.280
2.890E-06,0.272
2.900E-06,0.264
2.910E-06,0.264
2.920E-06,0.256
2.930E-06,0.272
2.940E-06,0.272
2.950E-06,0.272
2.960E-06,0.272
2.970E-06,0.272
2.980E-06,0.256
2.990E-06,0.256
3.000E-06,0.256
3.010E-06,0.264
3.020E-06,0.272
3.030E-06,0.264
3.040E-06,0.264
3.050E-06,0.264
3.060E-06,0.256
3.070E-06,0.256
3.080E-06,0.256
3.090E-06,0.256
3.100E-06,0.256
3.110E-06,0.264
3.120E-06,0.264
3.130E-06,0.264
3.140E-06,0.256
3.150E-06,0.256
3.160E-06,0.256
3.170E-06,0.256
3.180E-06,0.256
3.190E-06,0.256
3.200E-06,0.256
3.210E-06,0.256
3.220E-06,0.256
3.230E-06,0.248
3.240E-06,0.256
3.250E-06,0.248
3.260E-06,0.248
3.270E-06,0.248
3.280E-06,0.256
3.290E-06,0.248
3.300E-06,0.248
3.310E-06,0.248
3.320E-06,0.248
3.330E-06,0.256
3.340E-06,0.256
3.350E-06,0.248
3.360E-06,0.248
3.370E-06,0.248
3.380E-06,0.248
3.390E-06,0.240
3.400E-06,0.248
3.410E-06,0.248
3.420E-06,0.248
3.430E-06,0.248
3.440E-06,0.248
3.450E-06,0.248
3.460E-06,0.240
3.470E-06,0.240
3.480E-06,0.224
3.490E-06,0.232
3.500E-06,0.232
3.510E-06,0.240
3.520E-06,0.240
3.530E-06,0.240
3.540E-06,0.224
3.550E-06,0.232
3.560E-06,0.224
3.570E-06,0.224
3.580E-06,0.216
