mediciones/mediciones removidas por ser diferentes/-12.5/WaveData5312.csv

#timebase=2000000(ps)
,#voltbase=100000(mv/100)
#size=4000
-2.250E-06,0.164
-2.240E-06,0.164
-2.230E-06,0.164
-2.220E-06,0.160
-2.210E-06,0.160
-2.200E-06,0.168
-2.190E-06,0.168
-2.180E-06,0.172
-2.170E-06,0.172
-2.160E-06,0.172
-2.150E-06,0.168
-2.140E-06,0.164
-2.130E-06,0.160
-2.120E-06,0.168
-2.110E-06,0.172
-2.100E-06,0.168
-2.090E-06,0.172
-2.080E-06,0.164
-2.070E-06,0.164
-2.060E-06,0.168
-2.050E-06,0.164
-2.040E-06,0.160
-2.030E-06,0.164
-2.020E-06,0.168
-2.010E-06,0.168
-2.000E-06,0.160
-1.990E-06,0.160
-1.980E-06,0.164
-1.970E-06,0.164
-1.960E-06,0.168
-1.950E-06,0.164
-1.940E-06,0.160
-1.930E-06,0.160
-1.920E-06,0.160
-1.910E-06,0.160
-1.900E-06,0.164
-1.890E-06,0.160
-1.880E-06,0.164
-1.870E-06,0.160
-1.860E-06,0.156
-1.850E-06,0.160
-1.840E-06,0.160
-1.830E-06,0.156
-1.820E-06,0.160
-1.810E-06,0.164
-1.800E-06,0.156
-1.790E-06,0.156
-1.780E-06,0.164
-1.770E-06,0.156
-1.760E-06,0.164
-1.750E-06,0.164
-1.740E-06,0.160
-1.730E-06,0.160
-1.720E-06,0.160
-1.710E-06,0.160
-1.700E-06,0.152
-1.690E-06,0.152
-1.680E-06,0.152
-1.670E-06,0.152
-1.660E-06,0.156
-1.650E-06,0.152
-1.640E-06,0.160
-1.630E-06,0.160
-1.620E-06,0.152
-1.610E-06,0.152
-1.600E-06,0.156
-1.590E-06,0.160
-1.580E-06,0.156
-1.570E-06,0.156
-1.560E-06,0.160
-1.550E-06,0.156
-1.540E-06,0.152
-1.530E-06,0.152
-1.520E-06,0.152
-1.510E-06,0.148
-1.500E-06,0.156
-1.490E-06,0.152
-1.480E-06,0.152
-1.470E-06,0.152
-1.460E-06,0.152
-1.450E-06,0.144
-1.440E-06,0.148
-1.430E-06,0.148
-1.420E-06,0.152
-1.410E-06,0.148
-1.400E-06,0.144
-1.390E-06,0.148
-1.380E-06,0.148
-1.370E-06,0.140
-1.360E-06,0.140
-1.350E-06,0.148
-1.340E-06,0.140
-1.330E-06,0.144
-1.320E-06,0.140
-1.310E-06,0.144
-1.300E-06,0.148
-1.290E-06,0.148
-1.280E-06,0.148
-1.270E-06,0.140
-1.260E-06,0.144
-1.250E-06,0.144
-1.240E-06,0.144
-1.230E-06,0.136
-1.220E-06,0.140
-1.210E-06,0.136
-1.200E-06,0.140
-1.190E-06,0.140
-1.180E-06,0.140
-1.170E-06,0.140
-1.160E-06,0.140
-1.150E-06,0.136
-1.140E-06,0.140
-1.130E-06,0.136
-1.120E-06,0.140
-1.110E-06,0.140
-1.100E-06,0.140
-1.090E-06,0.136
-1.080E-06,0.132
-1.070E-06,0.132
-1.060E-06,0.140
-1.050E-06,0.136
-1.040E-06,0.136
-1.030E-06,0.136
-1.020E-06,0.140
-1.010E-06,0.136
-1.000E-06,0.136
-9.900E-07,0.132
-9.800E-07,0.128
-9.700E-07,0.128
-9.600E-07,0.124
-9.500E-07,0.128
-9.400E-07,0.128
-9.300E-07,0.128
-9.200E-07,0.124
-9.100E-07,0.128
-9.000E-07,0.128
-8.900E-07,0.124
-8.800E-07,0.128
-8.700E-07,0.132
-8.600E-07,0.136
-8.500E-07,0.132
-8.400E-07,0.128
-8.300E-07,0.124
-8.200E-07,0.120
-8.100E-07,0.120
-8.000E-07,0.120
-7.900E-07,0.120
-7.800E-07,0.124
-7.700E-07,0.128
-7.600E-07,0.124
-7.500E-07,0.124
-7.400E-07,0.120
-7.300E-07,0.124
-7.200E-07,0.124
-7.100E-07,0.124
-7.000E-07,0.128
-6.900E-07,0.120
-6.800E-07,0.120
-6.700E-07,0.116
-6.600E-07,0.124
-6.500E-07,0.120
-6.400E-07,0.124
-6.300E-07,0.128
-6.200E-07,0.128
-6.100E-07,0.124
-6.000E-07,0.120
-5.900E-07,0.124
-5.800E-07,0.124
-5.700E-07,0.124
-5.600E-07,0.124
-5.500E-07,0.124
-5.400E-07,0.120
-5.300E-07,0.120
-5.200E-07,0.124
-5.100E-07,0.120
-5.000E-07,0.120
-4.900E-07,0.116
-4.800E-07,0.108
-4.700E-07,0.108
-4.600E-07,0.112
-4.500E-07,0.120
-4.400E-07,0.112
-4.300E-07,0.124
-4.200E-07,0.112
-4.100E-07,0.112
-4.000E-07,0.108
-3.900E-07,0.104
-3.800E-07,0.108
-3.700E-07,0.104
-3.600E-07,0.104
-3.500E-07,0.108
-3.400E-07,0.108
-3.300E-07,0.100
-3.200E-07,0.100
-3.100E-07,0.100
-3.000E-07,0.100
-2.900E-07,0.100
-2.800E-07,0.100
-2.700E-07,0.112
-2.600E-07,0.112
-2.500E-07,0.104
-2.400E-07,0.104
-2.300E-07,0.104
-2.200E-07,0.104
-2.100E-07,0.100
-2.000E-07,0.104
-1.900E-07,0.104
-1.800E-07,0.104
-1.700E-07,0.104
-1.600E-07,0.100
-1.500E-07,0.100
-1.400E-07,0.096
-1.300E-07,0.096
-1.200E-07,0.100
-1.100E-07,0.104
-1.000E-07,0.100
-9.000E-08,0.096
-8.000E-08,0.096
-7.000E-08,0.100
-6.000E-08,0.100
-5.000E-08,0.100
-4.000E-08,0.092
-3.000E-08,0.100
-2.000E-08,0.096
-1.000E-08,0.096
0.000E+00,0.096
1.000E-08,0.096
2.000E-08,0.092
3.000E-08,0.096
4.000E-08,0.100
5.000E-08,0.092
6.000E-08,0.096
7.000E-08,0.092
8.000E-08,0.092
9.000E-08,0.092
1.000E-07,0.092
1.100E-07,0.088
1.200E-07,0.088
1.300E-07,0.096
1.400E-07,0.092
1.500E-07,0.096
1.600E-07,0.088
1.700E-07,0.092
1.800E-07,0.084
1.900E-07,0.084
2.000E-07,0.080
2.100E-07,0.084
2.200E-07,0.092
2.300E-07,0.092
2.400E-07,0.092
2.500E-07,0.092
2.600E-07,0.092
2.700E-07,0.092
2.800E-07,0.084
2.900E-07,0.084
3.000E-07,0.088
3.100E-07,0.092
3.200E-07,0.088
3.300E-07,0.084
3.400E-07,0.088
3.500E-07,0.080
3.600E-07,0.080
3.700E-07,0.088
3.800E-07,0.080
3.900E-07,0.084
4.000E-07,0.084
4.100E-07,0.080
4.200E-07,0.080
4.300E-07,0.084
4.400E-07,0.076
4.500E-07,0.084
4.600E-07,0.076
4.700E-07,0.080
4.800E-07,0.084
4.900E-07,0.080
5.000E-07,0.076
5.100E-07,0.080
5.200E-07,0.080
5.300E-07,0.080
5.400E-07,0.080
5.500E-07,0.080
5.600E-07,0.076
5.700E-07,0.072
5.800E-07,0.072
5.900E-07,0.072
6.000E-07,0.080
6.100E-07,0.080
6.200E-07,0.080
6.300E-07,0.076
6.400E-07,0.076
6.500E-07,0.076
6.600E-07,0.076
6.700E-07,0.080
6.800E-07,0.076
6.900E-07,0.076
7.000E-07,0.076
7.100E-07,0.080
7.200E-07,0.076
7.300E-07,0.076
7.400E-07,0.076
7.500E-07,0.072
7.600E-07,0.076
7.700E-07,0.072
7.800E-07,0.072
7.900E-07,0.076
8.000E-07,0.072
8.100E-07,0.072
8.200E-07,0.072
8.300E-07,0.072
8.400E-07,0.072
8.500E-07,0.072
8.600E-07,0.076
8.700E-07,0.076
8.800E-07,0.072
8.900E-07,0.072
9.000E-07,0.076
9.100E-07,0.076
9.200E-07,0.072
9.300E-07,0.072
9.400E-07,0.076
9.500E-07,0.072
9.600E-07,0.068
9.700E-07,0.064
9.800E-07,0.072
9.900E-07,0.072
1.000E-06,0.068
1.010E-06,0.072
1.020E-06,0.072
1.030E-06,0.068
1.040E-06,0.072
1.050E-06,0.068
1.060E-06,0.064
1.070E-06,0.068
1.080E-06,0.068
1.090E-06,0.068
1.100E-06,0.072
1.110E-06,0.064
1.120E-06,0.064
1.130E-06,0.060
1.140E-06,0.060
1.150E-06,0.068
1.160E-06,0.068
1.170E-06,0.064
1.180E-06,0.060
1.190E-06,0.060
1.200E-06,0.060
1.210E-06,0.060
1.220E-06,0.064
1.230E-06,0.060
1.240E-06,0.056
1.250E-06,0.060
1.260E-06,0.060
1.270E-06,0.060
1.280E-06,0.060
1.290E-06,0.056
1.300E-06,0.060
1.310E-06,0.056
1.320E-06,0.056
1.330E-06,0.056
1.340E-06,0.056
1.350E-06,0.056
1.360E-06,0.060
1.370E-06,0.056
1.380E-06,0.056
1.390E-06,0.056
1.400E-06,0.060
1.410E-06,0.060
1.420E-06,0.056
1.430E-06,0.060
1.440E-06,0.056
1.450E-06,0.052
1.460E-06,0.060
1.470E-06,0.052
1.480E-06,0.052
1.490E-06,0.052
1.500E-06,0.052
1.510E-06,0.048
1.520E-06,0.056
1.530E-06,0.052
1.540E-06,0.052
1.550E-06,0.052
1.560E-06,0.056
1.570E-06,0.052
1.580E-06,0.048
1.590E-06,0.048
1.600E-06,0.052
1.610E-06,0.048
1.620E-06,0.044
1.630E-06,0.052
1.640E-06,0.048
1.650E-06,0.044
1.660E-06,0.044
1.670E-06,0.040
1.680E-06,0.040
1.690E-06,0.044
1.700E-06,0.044
1.710E-06,0.044
1.720E-06,0.040
1.730E-06,0.044
1.740E-06,0.048
1.750E-06,0.044
1.760E-06,0.044
1.770E-06,0.044
1.780E-06,0.044
1.790E-06,0.040
1.800E-06,0.044
1.810E-06,0.048
1.820E-06,0.048
1.830E-06,0.044
1.840E-06,0.040
1.850E-06,0.044
1.860E-06,0.040
1.870E-06,0.036
1.880E-06,0.036
1.890E-06,0.044
1.900E-06,0.040
1.910E-06,0.040
1.920E-06,0.040
1.930E-06,0.040
1.940E-06,0.036
1.950E-06,0.044
1.960E-06,0.040
1.970E-06,0.036
1.980E-06,0.040
1.990E-06,0.040
2.000E-06,0.040
2.010E-06,0.040
2.020E-06,0.040
2.030E-06,0.036
2.040E-06,0.040
2.050E-06,0.040
2.060E-06,0.036
2.070E-06,0.036
2.080E-06,0.040
2.090E-06,0.036
2.100E-06,0.036
2.110E-06,0.040
2.120E-06,0.040
2.130E-06,0.028
2.140E-06,0.032
2.150E-06,0.036
2.160E-06,0.028
2.170E-06,0.036
2.180E-06,0.040
2.190E-06,0.036
2.200E-06,0.040
2.210E-06,0.032
2.220E-06,0.036
2.230E-06,0.036
2.240E-06,0.028
2.250E-06,0.036
2.260E-06,0.036
2.270E-06,0.036
2.280E-06,0.036
2.290E-06,0.028
2.300E-06,0.032
2.310E-06,0.036
2.320E-06,0.036
2.330E-06,0.036
2.340E-06,0.036
2.350E-06,0.032
2.360E-06,0.028
2.370E-06,0.028
2.380E-06,0.028
2.390E-06,0.028
2.400E-06,0.032
2.410E-06,0.028
2.420E-06,0.028
2.430E-06,0.028
2.440E-06,0.028
2.450E-06,0.024
2.460E-06,0.020
2.470E-06,0.028
2.480E-06,0.024
2.490E-06,0.024
2.500E-06,0.024
2.510E-06,0.028
2.520E-06,0.024
2.530E-06,0.024
2.540E-06,0.028
2.550E-06,0.024
2.560E-06,0.020
2.570E-06,0.020
2.580E-06,0.024
2.590E-06,0.016
2.600E-06,0.020
2.610E-06,0.024
2.620E-06,0.028
2.630E-06,0.028
2.640E-06,0.020
2.650E-06,0.016
2.660E-06,0.020
2.670E-06,0.020
2.680E-06,0.012
2.690E-06,0.016
2.700E-06,0.024
2.710E-06,0.020
2.720E-06,0.012
2.730E-06,0.020
2.740E-06,0.016
2.750E-06,0.020
2.760E-06,0.012
2.770E-06,0.012
2.780E-06,0.020
2.790E-06,0.020
2.800E-06,0.016
2.810E-06,0.012
2.820E-06,0.012
2.830E-06,0.016
2.840E-06,0.016
2.850E-06,0.020
2.860E-06,0.016
2.870E-06,0.016
2.880E-06,0.012
2.890E-06,0.012
2.900E-06,0.008
2.910E-06,0.012
2.920E-06,0.020
2.930E-06,0.012
2.940E-06,0.016
2.950E-06,0.012
2.960E-06,0.012
2.970E-06,0.012
2.980E-06,0.008
2.990E-06,0.008
3.000E-06,0.012
3.010E-06,0.012
3.020E-06,0.016
3.030E-06,0.012
3.040E-06,0.012
3.050E-06,0.008
3.060E-06,0.012
3.070E-06,0.012
3.080E-06,0.012
3.090E-06,0.012
3.100E-06,0.012
3.110E-06,0.012
3.120E-06,0.012
3.130E-06,0.004
3.140E-06,0.008
3.150E-06,0.008
3.160E-06,0.008
3.170E-06,0.008
3.180E-06,0.008
3.190E-06,0.008
3.200E-06,0.008
3.210E-06,0.008
3.220E-06,0.008
3.230E-06,0.000
3.240E-06,0.000
3.250E-06,0.004
3.260E-06,0.004
3.270E-06,0.008
3.280E-06,0.004
3.290E-06,0.008
3.300E-06,0.008
3.310E-06,0.004
3.320E-06,0.008
3.330E-06,0.000
3.340E-06,0.000
3.350E-06,0.004
3.360E-06,0.008
3.370E-06,0.008
3.380E-06,0.012
3.390E-06,0.008
3.400E-06,0.008
3.410E-06,0.000
3.420E-06,0.004
3.430E-06,0.004
3.440E-06,0.004
3.450E-06,0.000
3.460E-06,0.004
3.470E-06,0.004
3.480E-06,-0.004
3.490E-06,-0.004
3.500E-06,0.000
3.510E-06,0.004
3.520E-06,0.004
3.530E-06,0.004
3.540E-06,0.008
3.550E-06,0.004
3.560E-06,-0.008
3.570E-06,-0.004
3.580E-06,0.000
3.590E-06,0.000
3.600E-06,0.000
3.610E-06,-0.004
3.620E-06,0.000
3.630E-06,-0.004
3.640E-06,-0.004
3.650E-06,0.004
3.660E-06,0.004
3.670E-06,0.004
3.680E-06,0.004
3.690E-06,0.004
3.700E-06,-0.008
3.710E-06,0.000
3.720E-06,-0.004
3.730E-06,-0.004
3.740E-06,0.000
3.750E-06,-0.004
3.760E-06,-0.004
3.770E-06,0.000
3.780E-06,-0.008
3.790E-06,0.000
3.800E-06,-0.004
3.810E-06,-0.004
3.820E-06,-0.004
3.830E-06,-0.004
3.840E-06,0.000
3.850E-06,0.000
3.860E-06,-0.004
3.870E-06,-0.008
3.880E-06,-0.008
3.890E-06,0.000
3.900E-06,-0.004
3.910E-06,-0.004
3.920E-06,-0.004
3.930E-06,-0.004
3.940E-06,-0.004
3.950E-06,-0.004
3.960E-06,-0.008
3.970E-06,0.000
3.980E-06,0.000
3.990E-06,-0.008
4.000E-06,-0.008
4.010E-06,-0.008
4.020E-06,-0.008
4.030E-06,-0.004
4.040E-06,-0.008
4.050E-06,-0.004
4.060E-06,-0.004
4.070E-06,-0.008
4.080E-06,-0.012
4.090E-06,-0.012
4.100E-06,-0.012
4.110E-06,-0.004
4.120E-06,-0.004
4.130E-06,-0.008
4.140E-06,-0.004
4.150E-06,-0.008
4.160E-06,-0.004
4.170E-06,-0.008
4.180E-06,-0.008
4.190E-06,-0.008
4.200E-06,-0.008
4.210E-06,-0.004
4.220E-06,-0.008
4.230E-06,-0.004
4.240E-06,-0.012
4.250E-06,-0.012
4.260E-06,-0.008
4.270E-06,-0.008
4.280E-06,-0.012
4.290E-06,-0.012
4.300E-06,-0.012
4.310E-06,-0.008
4.320E-06,-0.008
4.330E-06,-0.012
4.340E-06,-0.008
4.350E-06,-0.012
4.360E-06,-0.008
4.370E-06,-0.008
4.380E-06,-0.012
4.390E-06,-0.008
4.400E-06,-0.012
4.410E-06,-0.008
4.420E-06,-0.008
4.430E-06,-0.012
4.440E-06,-0.016
4.450E-06,-0.016
4.460E-06,-0.020
4.470E-06,-0.016
4.480E-06,-0.012
4.490E-06,-0.008
4.500E-06,-0.020
4.510E-06,-0.016
4.520E-06,-0.016
4.530E-06,-0.012
4.540E-06,-0.020
4.550E-06,-0.024
4.560E-06,-0.012
4.570E-06,-0.016
4.580E-06,-0.012
4.590E-06,-0.016
4.600E-06,-0.020
4.610E-06,-0.016
4.620E-06,-0.016
4.630E-06,-0.016
4.640E-06,-0.020
4.650E-06,-0.016
4.660E-06,-0.020
4.670E-06,-0.024
4.680E-06,-0.024
4.690E-06,-0.024
4.700E-06,-0.016
4.710E-06,-0.020
4.720E-06,-0.020
4.730E-06,-0.024
4.740E-06,-0.020
4.750E-06,-0.024
4.760E-06,-0.016
4.770E-06,-0.020
4.780E-06,-0.024
4.790E-06,-0.020
4.800E-06,-0.024
4.810E-06,-0.024
4.820E-06,-0.024
4.830E-06,-0.016
4.840E-06,-0.024
4.850E-06,-0.020
4.860E-06,-0.020
4.870E-06,-0.024
4.880E-06,-0.020
4.890E-06,-0.028
4.900E-06,-0.024
4.910E-06,-0.020
4.920E-06,-0.024
4.930E-06,-0.028
4.940E-06,-0.028
4.950E-06,-0.028
4.960E-06,-0.020
4.970E-06,-0.020
4.980E-06,-0.028
4.990E-06,-0.020
5.000E-06,-0.020
5.010E-06,-0.024
5.020E-06,-0.024
5.030E-06,-0.024
5.040E-06,-0.024
5.050E-06,-0.024
5.060E-06,-0.028
5.070E-06,-0.024
5.080E-06,-0.020
5.090E-06,-0.020
5.100E-06,-0.024
5.110E-06,-0.024
5.120E-06,-0.028
5.130E-06,-0.024
5.140E-06,-0.024
5.150E-06,-0.024
5.160E-06,-0.028
5.170E-06,-0.028
5.180E-06,-0.032
5.190E-06,-0.032
5.200E-06,-0.032
5.210E-06,-0.028
5.220E-06,-0.020
5.230E-06,-0.024
5.240E-06,-0.028
5.250E-06,-0.028
5.260E-06,-0.032
5.270E-06,-0.028
5.280E-06,-0.024
5.290E-06,-0.028
5.300E-06,-0.032
5.310E-06,-0.028
5.320E-06,-0.024
5.330E-06,-0.024
5.340E-06,-0.028
5.350E-06,-0.028
5.360E-06,-0.028
5.370E-06,-0.036
5.380E-06,-0.032
5.390E-06,-0.028
5.400E-06,-0.032
5.410E-06,-0.028
5.420E-06,-0.028
5.430E-06,-0.032
5.440E-06,-0.036
5.450E-06,-0.032
5.460E-06,-0.028
5.470E-06,-0.032
5.480E-06,-0.036
5.490E-06,-0.032
5.500E-06,-0.024
5.510E-06,-0.032
5.520E-06,-0.036
5.530E-06,-0.032
5.540E-06,-0.036
5.550E-06,-0.036
5.560E-06,-0.036
5.570E-06,-0.036
5.580E-06,-0.028
5.590E-06,-0.036
5.600E-06,-0.036
5.610E-06,-0.032
5.620E-06,-0.036
5.630E-06,-0.032
5.640E-06,-0.036
5.650E-06,-0.032
5.660E-06,-0.032
5.670E-06,-0.040
5.680E-06,-0.040
5.690E-06,-0.028
5.700E-06,-0.036
5.710E-06,-0.036
5.720E-06,-0.032
5.730E-06,-0.028
5.740E-06,-0.040
5.750E-06,-0.036
5.760E-06,-0.040
5.770E-06,-0.036
5.780E-06,-0.040
5.790E-06,-0.040
5.800E-06,-0.036
5.810E-06,-0.040
5.820E-06,-0.036
5.830E-06,-0.040
5.840E-06,-0.036
5.850E-06,-0.032
5.860E-06,-0.036
5.870E-06,-0.040
5.880E-06,-0.036
5.890E-06,-0.036
5.900E-06,-0.032
5.910E-06,-0.036
5.920E-06,-0.036
5.930E-06,-0.036
5.940E-06,-0.036
5.950E-06,-0.036
5.960E-06,-0.032
5.970E-06,-0.036
5.980E-06,-0.036
5.990E-06,-0.040
6.000E-06,-0.036
6.010E-06,-0.036
6.020E-06,-0.032
6.030E-06,-0.040
6.040E-06,-0.044
6.050E-06,-0.044
6.060E-06,-0.036
6.070E-06,-0.040
6.080E-06,-0.036
6.090E-06,-0.040
6.100E-06,-0.036
6.110E-06,-0.036
6.120E-06,-0.040
6.130E-06,-0.040
6.140E-06,-0.040
6.150E-06,-0.040
6.160E-06,-0.040
6.170E-06,-0.040
6.180E-06,-0.036
6.190E-06,-0.040
6.200E-06,-0.044
6.210E-06,-0.040
6.220E-06,-0.040
6.230E-06,-0.040
6.240E-06,-0.040
6.250E-06,-0.044
6.260E-06,-0.044
6.270E-06,-0.040
6.280E-06,-0.044
6.290E-06,-0.040
6.300E-06,-0.044
6.310E-06,-0.040
6.320E-06,-0.040
6.330E-06,-0.040
6.340E-06,-0.040
6.350E-06,-0.044
6.360E-06,-0.044
6.370E-06,-0.036
6.380E-06,-0.040
6.390E-06,-0.044
6.400E-06,-0.048
6.410E-06,-0.040
6.420E-06,-0.044
6.430E-06,-0.044
6.440E-06,-0.040
6.450E-06,-0.044
6.460E-06,-0.040
6.470E-06,-0.044
6.480E-06,-0.044
6.490E-06,-0.036
6.500E-06,-0.044
6.510E-06,-0.048
6.520E-06,-0.048
6.530E-06,-0.044
6.540E-06,-0.044
6.550E-06,-0.044
6.560E-06,-0.044
6.570E-06,-0.048
6.580E-06,-0.044
6.590E-06,-0.040
6.600E-06,-0.036
6.610E-06,-0.044
6.620E-06,-0.044
6.630E-06,-0.044
6.640E-06,-0.040
6.650E-06,-0.044
6.660E-06,-0.048
6.670E-06,-0.044
6.680E-06,-0.044
6.690E-06,-0.044
6.700E-06,-0.044
6.710E-06,-0.044
6.720E-06,-0.052
6.730E-06,-0.044
6.740E-06,-0.048
6.750E-06,-0.048
6.760E-06,-0.044
6.770E-06,-0.044
6.780E-06,-0.044
6.790E-06,-0.048
6.800E-06,-0.044
6.810E-06,-0.044
6.820E-06,-0.052
6.830E-06,-0.048
6.840E-06,-0.048
6.850E-06,-0.044
6.860E-06,-0.048
6.870E-06,-0.044
6.880E-06,-0.052
6.890E-06,-0.044
6.900E-06,-0.044
6.910E-06,-0.052
6.920E-06,-0.048
6.930E-06,-0.052
6.940E-06,-0.048
6.950E-06,-0.044
6.960E-06,-0.052
6.970E-06,-0.052
6.980E-06,-0.056
6.990E-06,-0.052
7.000E-06,-0.048
7.010E-06,-0.052
7.020E-06,-0.052
7.030E-06,-0.052
7.040E-06,-0.056
7.050E-06,-0.056
7.060E-06,-0.052
7.070E-06,-0.052
7.080E-06,-0.052
7.090E-06,-0.056
7.100E-06,-0.056
7.110E-06,-0.052
7.120E-06,-0.056
7.130E-06,-0.052
7.140E-06,-0.056
7.150E-06,-0.052
7.160E-06,-0.056
7.170E-06,-0.052
7.180E-06,-0.052
7.190E-06,-0.052
7.200E-06,-0.056
7.210E-06,-0.052
7.220E-06,-0.056
7.230E-06,-0.052
7.240E-06,-0.060
7.250E-06,-0.052
7.260E-06,-0.052
7.270E-06,-0.056
7.280E-06,-0.056
7.290E-06,-0.052
7.300E-06,-0.060
7.310E-06,-0.052
7.320E-06,-0.052
7.330E-06,-0.056
7.340E-06,-0.052
7.350E-06,-0.052
7.360E-06,-0.060
7.370E-06,-0.060
7.380E-06,-0.060
7.390E-06,-0.064
7.400E-06,-0.068
7.410E-06,-0.064
7.420E-06,-0.068
7.430E-06,-0.064
7.440E-06,-0.060
7.450E-06,-0.060
7.460E-06,-0.064
7.470E-06,-0.068
7.480E-06,-0.068
7.490E-06,-0.060
7.500E-06,-0.060
7.510E-06,-0.060
7.520E-06,-0.060
7.530E-06,-0.056
7.540E-06,-0.056
7.550E-06,-0.064
7.560E-06,-0.060
7.570E-06,-0.060
7.580E-06,-0.060
7.590E-06,-0.060
7.600E-06,-0.056
7.610E-06,-0.056
7.620E-06,-0.056
7.630E-06,-0.056
7.640E-06,-0.060
7.650E-06,-0.064
7.660E-06,-0.064
7.670E-06,-0.060
7.680E-06,-0.064
7.690E-06,-0.056
7.700E-06,-0.064
7.710E-06,-0.060
7.720E-06,-0.064
7.730E-06,-0.060
7.740E-06,-0.064
7.750E-06,-0.068
7.760E-06,-0.064
7.770E-06,-0.060
7.780E-06,-0.064
7.790E-06,-0.068
7.800E-06,-0.064
7.810E-06,-0.060
7.820E-06,-0.064
7.830E-06,-0.068
7.840E-06,-0.064
7.850E-06,-0.060
7.860E-06,-0.060
7.870E-06,-0.068
7.880E-06,-0.064
7.890E-06,-0.060
7.900E-06,-0.064
7.910E-06,-0.064
7.920E-06,-0.060
7.930E-06,-0.060
7.940E-06,-0.068
7.950E-06,-0.064
7.960E-06,-0.064
7.970E-06,-0.064
7.980E-06,-0.060
7.990E-06,-0.064
8.000E-06,-0.064
8.010E-06,-0.068
8.020E-06,-0.068
8.030E-06,-0.064
8.040E-06,-0.064
8.050E-06,-0.064
8.060E-06,-0.064
8.070E-06,-0.064
8.080E-06,-0.068
8.090E-06,-0.068
8.100E-06,-0.064
8.110E-06,-0.064
8.120E-06,-0.064
8.130E-06,-0.064
8.140E-06,-0.068
8.150E-06,-0.068
8.160E-06,-0.064
8.170E-06,-0.064
8.180E-06,-0.068
8.190E-06,-0.068
8.200E-06,-0.068
8.210E-06,-0.064
8.220E-06,-0.068
8.230E-06,-0.068
8.240E-06,-0.064
8.250E-06,-0.068
8.260E-06,-0.064
8.270E-06,-0.064
8.280E-06,-0.064
8.290E-06,-0.064
8.300E-06,-0.064
8.310E-06,-0.064
8.320E-06,-0.064
8.330E-06,-0.068
8.340E-06,-0.072
8.350E-06,-0.068
8.360E-06,-0.068
8.370E-06,-0.068
8.380E-06,-0.072
8.390E-06,-0.064
8.400E-06,-0.068
8.410E-06,-0.068
8.420E-06,-0.072
8.430E-06,-0.072
8.440E-06,-0.064
8.450E-06,-0.068
8.460E-06,-0.068
8.470E-06,-0.068
8.480E-06,-0.068
8.490E-06,-0.068
8.500E-06,-0.072
8.510E-06,-0.068
8.520E-06,-0.068
8.530E-06,-0.068
8.540E-06,-0.068
8.550E-06,-0.068
8.560E-06,-0.068
8.570E-06,-0.068
8.580E-06,-0.068
8.590E-06,-0.072
8.600E-06,-0.072
8.610E-06,-0.068
8.620E-06,-0.072
8.630E-06,-0.068
8.640E-06,-0.072
8.650E-06,-0.068
8.660E-06,-0.068
8.670E-06,-0.072
8.680E-06,-0.072
8.690E-06,-0.068
8.700E-06,-0.068
8.710E-06,-0.072
8.720E-06,-0.072
8.730E-06,-0.068
8.740E-06,-0.072
8.750E-06,-0.068
8.760E-06,-0.072
8.770E-06,-0.068
8.780E-06,-0.068
8.790E-06,-0.068
8.800E-06,-0.068
8.810E-06,-0.068
8.820E-06,-0.068
8.830E-06,-0.072
8.840E-06,-0.072
8.850E-06,-0.068
8.860E-06,-0.068
8.870E-06,-0.072
8.880E-06,-0.072
8.890E-06,-0.068
8.900E-06,-0.072
8.910E-06,-0.068
8.920E-06,-0.072
8.930E-06,-0.072
8.940E-06,-0.068
8.950E-06,-0.072
8.960E-06,-0.068
8.970E-06,-0.068
8.980E-06,-0.072
8.990E-06,-0.072
9.000E-06,-0.068
9.010E-06,-0.072
9.020E-06,-0.072
9.030E-06,-0.072
9.040E-06,-0.072
9.050E-06,-0.068
9.060E-06,-0.068
9.070E-06,-0.072
9.080E-06,-0.068
9.090E-06,-0.072
9.100E-06,-0.072
9.110E-06,-0.068
9.120E-06,-0.072
9.130E-06,-0.068
9.140E-06,-0.072
9.150E-06,-0.076
9.160E-06,-0.068
9.170E-06,-0.076
9.180E-06,-0.076
9.190E-06,-0.072
9.200E-06,-0.072
9.210E-06,-0.076
9.220E-06,-0.072
9.230E-06,-0.068
9.240E-06,-0.076
9.250E-06,-0.072
9.260E-06,-0.072
9.270E-06,-0.072
9.280E-06,-0.076
9.290E-06,-0.076
9.300E-06,-0.072
9.310E-06,-0.072
9.320E-06,-0.076
9.330E-06,-0.072
9.340E-06,-0.072
9.350E-06,-0.072
9.360E-06,-0.072
9.370E-06,-0.076
9.380E-06,-0.076
9.390E-06,-0.072
9.400E-06,-0.072
9.410E-06,-0.076
9.420E-06,-0.076
9.430E-06,-0.072
9.440E-06,-0.072
9.450E-06,-0.072
9.460E-06,-0.072
9.470E-06,-0.076
9.480E-06,-0.076
9.490E-06,-0.072
9.500E-06,-0.072
9.510E-06,-0.072
9.520E-06,-0.072
9.530E-06,-0.072
9.540E-06,-0.076
9.550E-06,-0.076
9.560E-06,-0.072
9.570E-06,-0.072
9.580E-06,-0.072
9.590E-06,-0.072
9.600E-06,-0.072
9.610E-06,-0.076
9.620E-06,-0.076
9.630E-06,-0.072
9.640E-06,-0.076
9.650E-06,-0.072
9.660E-06,-0.076
9.670E-06,-0.076
9.680E-06,-0.072
