mediciones/mediciones removidas por ser diferentes/-12.5/WaveData5313.csv

#timebase=2000000(ps)
,#voltbase=500000(mv/100)
#size=4000
-2.250E-06,-2.660
-2.240E-06,-2.680
-2.230E-06,-2.660
-2.220E-06,-2.660
-2.210E-06,-2.660
-2.200E-06,-2.660
-2.190E-06,-2.660
-2.180E-06,-2.660
-2.170E-06,-2.660
-2.160E-06,-2.660
-2.150E-06,-2.660
-2.140E-06,-2.660
-2.130E-06,-2.660
-2.120E-06,-2.660
-2.110E-06,-2.660
-2.100E-06,-2.660
-2.090E-06,-2.660
-2.080E-06,-2.660
-2.070E-06,-2.660
-2.060E-06,-2.640
-2.050E-06,-2.640
-2.040E-06,-2.660
-2.030E-06,-2.660
-2.020E-06,-2.680
-2.010E-06,-2.660
-2.000E-06,-2.660
-1.990E-06,-2.640
-1.980E-06,-2.660
-1.970E-06,-2.660
-1.960E-06,-2.660
-1.950E-06,-2.660
-1.940E-06,-2.640
-1.930E-06,-2.640
-1.920E-06,-2.660
-1.910E-06,-2.660
-1.900E-06,-2.660
-1.890E-06,-2.640
-1.880E-06,-2.640
-1.870E-06,-2.640
-1.860E-06,-2.640
-1.850E-06,-2.660
-1.840E-06,-2.660
-1.830E-06,-2.660
-1.820E-06,-2.660
-1.810E-06,-2.660
-1.800E-06,-2.660
-1.790E-06,-2.660
-1.780E-06,-2.640
-1.770E-06,-2.540
-1.760E-06,-2.400
-1.750E-06,-2.320
-1.740E-06,-2.220
-1.730E-06,-2.120
-1.720E-06,-2.040
-1.710E-06,-1.940
-1.700E-06,-1.920
-1.690E-06,-1.880
-1.680E-06,-1.820
-1.670E-06,-1.800
-1.660E-06,-1.780
-1.650E-06,-1.780
-1.640E-06,-1.760
-1.630E-06,-1.760
-1.620E-06,-1.740
-1.610E-06,-1.760
-1.600E-06,-1.780
-1.590E-06,-1.760
-1.580E-06,-1.720
-1.570E-06,-1.700
-1.560E-06,-1.720
-1.550E-06,-1.700
-1.540E-06,-1.700
-1.530E-06,-1.660
-1.520E-06,-1.620
-1.510E-06,-1.580
-1.500E-06,-1.580
-1.490E-06,-1.540
-1.480E-06,-1.500
-1.470E-06,-1.480
-1.460E-06,-1.440
-1.450E-06,-1.400
-1.440E-06,-1.380
-1.430E-06,-1.320
-1.420E-06,-1.300
-1.410E-06,-1.280
-1.400E-06,-1.260
-1.390E-06,-1.160
-1.380E-06,-1.140
-1.370E-06,-1.120
-1.360E-06,-1.100
-1.350E-06,-1.100
-1.340E-06,-1.080
-1.330E-06,-1.100
-1.320E-06,-1.120
-1.310E-06,-1.160
-1.300E-06,-1.160
-1.290E-06,-1.200
-1.280E-06,-1.280
-1.270E-06,-1.240
-1.260E-06,-1.220
-1.250E-06,-1.240
-1.240E-06,-1.180
-1.230E-06,-1.120
-1.220E-06,-1.080
-1.210E-06,-1.020
-1.200E-06,-0.960
-1.190E-06,-0.920
-1.180E-06,-0.920
-1.170E-06,-0.860
-1.160E-06,-0.760
-1.150E-06,-0.740
-1.140E-06,-0.640
-1.130E-06,-0.600
-1.120E-06,-0.560
-1.110E-06,-0.560
-1.100E-06,-0.580
-1.090E-06,-0.560
-1.080E-06,-0.620
-1.070E-06,-0.660
-1.060E-06,-0.720
-1.050E-06,-0.800
-1.040E-06,-0.860
-1.030E-06,-0.920
-1.020E-06,-1.000
-1.010E-06,-0.980
-1.000E-06,-1.020
-9.900E-07,-0.940
-9.800E-07,-0.840
-9.700E-07,-0.860
-9.600E-07,-0.860
-9.500E-07,-0.860
-9.400E-07,-0.840
-9.300E-07,-0.800
-9.200E-07,-0.800
-9.100E-07,-0.840
-9.000E-07,-0.920
-8.900E-07,-1.000
-8.800E-07,-1.000
-8.700E-07,-1.000
-8.600E-07,-1.000
-8.500E-07,-1.060
-8.400E-07,-1.060
-8.300E-07,-1.100
-8.200E-07,-1.100
-8.100E-07,-1.040
-8.000E-07,-0.920
-7.900E-07,-0.840
-7.800E-07,-0.880
-7.700E-07,-0.880
-7.600E-07,-0.920
-7.500E-07,-1.020
-7.400E-07,-1.080
-7.300E-07,-1.080
-7.200E-07,-1.120
-7.100E-07,-1.120
-7.000E-07,-1.060
-6.900E-07,-1.060
-6.800E-07,-1.080
-6.700E-07,-1.020
-6.600E-07,-1.040
-6.500E-07,-1.140
-6.400E-07,-1.260
-6.300E-07,-1.340
-6.200E-07,-1.360
-6.100E-07,-1.420
-6.000E-07,-1.380
-5.900E-07,-1.340
-5.800E-07,-1.480
-5.700E-07,-1.420
-5.600E-07,-1.380
-5.500E-07,-1.320
-5.400E-07,-1.260
-5.300E-07,-1.220
-5.200E-07,-1.120
-5.100E-07,-1.020
-5.000E-07,-0.900
-4.900E-07,-0.800
-4.800E-07,-0.700
-4.700E-07,-0.640
-4.600E-07,-0.560
-4.500E-07,-0.480
-4.400E-07,-0.360
-4.300E-07,-0.280
-4.200E-07,-0.180
-4.100E-07,-0.020
-4.000E-07,0.080
-3.900E-07,0.200
-3.800E-07,0.300
-3.700E-07,0.380
-3.600E-07,0.420
-3.500E-07,0.500
-3.400E-07,0.520
-3.300E-07,0.600
-3.200E-07,0.660
-3.100E-07,0.660
-3.000E-07,0.720
-2.900E-07,0.660
-2.800E-07,0.640
-2.700E-07,0.580
-2.600E-07,0.560
-2.500E-07,0.500
-2.400E-07,0.480
-2.300E-07,0.460
-2.200E-07,0.400
-2.100E-07,0.380
-2.000E-07,0.340
-1.900E-07,0.340
-1.800E-07,0.360
-1.700E-07,0.340
-1.600E-07,0.260
-1.500E-07,0.180
-1.400E-07,0.180
-1.300E-07,0.140
-1.200E-07,0.060
-1.100E-07,0.040
-1.000E-07,0.000
-9.000E-08,-0.040
-8.000E-08,-0.060
-7.000E-08,-0.060
-6.000E-08,-0.060
-5.000E-08,-0.040
-4.000E-08,-0.040
-3.000E-08,-0.100
-2.000E-08,-0.180
-1.000E-08,-0.200
0.000E+00,-0.220
1.000E-08,-0.320
2.000E-08,-0.320
3.000E-08,-0.380
4.000E-08,-0.360
5.000E-08,-0.340
6.000E-08,-0.280
7.000E-08,-0.220
8.000E-08,-0.160
9.000E-08,-0.060
1.000E-07,-0.020
1.100E-07,0.000
1.200E-07,0.020
1.300E-07,0.080
1.400E-07,0.100
1.500E-07,0.060
1.600E-07,0.040
1.700E-07,0.040
1.800E-07,-0.020
1.900E-07,-0.060
2.000E-07,-0.100
2.100E-07,-0.180
2.200E-07,-0.240
2.300E-07,-0.300
2.400E-07,-0.420
2.500E-07,-0.520
2.600E-07,-0.620
2.700E-07,-0.660
2.800E-07,-0.600
2.900E-07,-0.520
3.000E-07,-0.440
3.100E-07,-0.280
3.200E-07,-0.200
3.300E-07,-0.080
3.400E-07,0.000
3.500E-07,0.000
3.600E-07,0.000
3.700E-07,0.040
3.800E-07,0.080
3.900E-07,0.120
4.000E-07,0.180
4.100E-07,0.260
4.200E-07,0.320
4.300E-07,0.360
4.400E-07,0.380
4.500E-07,0.380
4.600E-07,0.420
4.700E-07,0.440
4.800E-07,0.500
4.900E-07,0.520
5.000E-07,0.600
5.100E-07,0.620
5.200E-07,0.680
5.300E-07,0.760
5.400E-07,0.740
5.500E-07,0.700
5.600E-07,0.660
5.700E-07,0.520
5.800E-07,0.400
5.900E-07,0.180
6.000E-07,-0.060
6.100E-07,-0.280
6.200E-07,-0.460
6.300E-07,-0.580
6.400E-07,-0.640
6.500E-07,-0.640
6.600E-07,-0.580
6.700E-07,-0.520
6.800E-07,-0.420
6.900E-07,-0.340
7.000E-07,-0.160
7.100E-07,-0.080
7.200E-07,0.020
7.300E-07,0.140
7.400E-07,0.240
7.500E-07,0.340
7.600E-07,0.360
7.700E-07,0.380
7.800E-07,0.340
7.900E-07,0.280
8.000E-07,0.260
8.100E-07,0.180
8.200E-07,0.060
8.300E-07,0.000
8.400E-07,-0.060
8.500E-07,-0.040
8.600E-07,0.000
8.700E-07,0.020
8.800E-07,0.140
8.900E-07,0.180
9.000E-07,0.300
9.100E-07,0.360
9.200E-07,0.420
9.300E-07,0.500
9.400E-07,0.540
9.500E-07,0.540
9.600E-07,0.580
9.700E-07,0.520
9.800E-07,0.500
9.900E-07,0.440
1.000E-06,0.380
1.010E-06,0.360
1.020E-06,0.400
1.030E-06,0.380
1.040E-06,0.440
1.050E-06,0.480
1.060E-06,0.540
1.070E-06,0.580
1.080E-06,0.640
1.090E-06,0.680
1.100E-06,0.740
1.110E-06,0.780
1.120E-06,0.820
1.130E-06,0.800
1.140E-06,0.860
1.150E-06,0.880
1.160E-06,0.940
1.170E-06,0.960
1.180E-06,1.000
1.190E-06,1.080
1.200E-06,1.120
1.210E-06,1.200
1.220E-06,1.180
1.230E-06,1.220
1.240E-06,1.200
1.250E-06,1.180
1.260E-06,1.200
1.270E-06,1.140
1.280E-06,1.160
1.290E-06,1.140
1.300E-06,1.100
1.310E-06,1.040
1.320E-06,0.960
1.330E-06,0.820
1.340E-06,0.620
1.350E-06,0.420
1.360E-06,0.220
1.370E-06,-0.040
1.380E-06,-0.180
1.390E-06,-0.340
1.400E-06,-0.380
1.410E-06,-0.460
1.420E-06,-0.420
1.430E-06,-0.360
1.440E-06,-0.340
1.450E-06,-0.260
1.460E-06,-0.180
1.470E-06,-0.080
1.480E-06,0.000
1.490E-06,0.040
1.500E-06,0.140
1.510E-06,0.220
1.520E-06,0.260
1.530E-06,0.300
1.540E-06,0.360
1.550E-06,0.440
1.560E-06,0.540
1.570E-06,0.660
1.580E-06,0.760
1.590E-06,0.880
1.600E-06,0.940
1.610E-06,1.060
1.620E-06,1.060
1.630E-06,1.120
1.640E-06,1.160
1.650E-06,1.140
1.660E-06,1.120
1.670E-06,1.040
1.680E-06,0.920
1.690E-06,0.840
1.700E-06,0.660
1.710E-06,0.500
1.720E-06,0.400
1.730E-06,0.320
1.740E-06,0.260
1.750E-06,0.300
1.760E-06,0.320
1.770E-06,0.400
1.780E-06,0.500
1.790E-06,0.620
1.800E-06,0.720
1.810E-06,0.800
1.820E-06,0.860
1.830E-06,0.960
1.840E-06,1.020
1.850E-06,1.100
1.860E-06,1.100
1.870E-06,1.120
1.880E-06,1.080
1.890E-06,1.020
1.900E-06,0.980
1.910E-06,0.920
1.920E-06,0.840
1.930E-06,0.800
1.940E-06,0.800
1.950E-06,0.780
1.960E-06,0.780
1.970E-06,0.780
1.980E-06,0.780
1.990E-06,0.800
2.000E-06,0.840
2.010E-06,0.900
2.020E-06,0.940
2.030E-06,1.060
2.040E-06,1.140
2.050E-06,1.240
2.060E-06,1.340
2.070E-06,1.420
2.080E-06,1.500
2.090E-06,1.520
2.100E-06,1.580
2.110E-06,1.620
2.120E-06,1.620
2.130E-06,1.660
2.140E-06,1.660
2.150E-06,1.660
2.160E-06,1.700
2.170E-06,1.760
2.180E-06,1.840
2.190E-06,1.920
2.200E-06,2.040
2.210E-06,2.200
2.220E-06,2.340
2.230E-06,2.500
2.240E-06,2.620
2.250E-06,2.740
2.260E-06,2.760
2.270E-06,2.760
2.280E-06,2.760
2.290E-06,2.740
2.300E-06,2.760
2.310E-06,2.760
2.320E-06,2.740
2.330E-06,2.760
2.340E-06,2.780
2.350E-06,2.760
2.360E-06,2.780
2.370E-06,2.760
2.380E-06,2.760
2.390E-06,2.760
2.400E-06,2.760
2.410E-06,2.760
2.420E-06,2.760
2.430E-06,2.740
2.440E-06,2.760
2.450E-06,2.780
2.460E-06,2.780
2.470E-06,2.760
2.480E-06,2.760
2.490E-06,2.760
2.500E-06,2.760
2.510E-06,2.760
2.520E-06,2.740
2.530E-06,2.760
2.540E-06,2.780
2.550E-06,2.760
2.560E-06,2.760
2.570E-06,2.760
2.580E-06,2.760
2.590E-06,2.740
2.600E-06,2.760
2.610E-06,2.760
2.620E-06,2.780
2.630E-06,2.760
2.640E-06,2.760
2.650E-06,2.760
2.660E-06,2.740
2.670E-06,2.760
2.680E-06,2.760
2.690E-06,2.760
2.700E-06,2.760
2.710E-06,2.760
2.720E-06,2.740
2.730E-06,2.760
2.740E-06,2.760
2.750E-06,2.760
2.760E-06,2.780
2.770E-06,2.780
2.780E-06,2.760
2.790E-06,2.780
2.800E-06,2.760
2.810E-06,2.740
2.820E-06,2.760
2.830E-06,2.760
2.840E-06,2.760
2.850E-06,2.740
2.860E-06,2.760
2.870E-06,2.780
2.880E-06,2.760
2.890E-06,2.780
2.900E-06,2.780
2.910E-06,2.760
2.920E-06,2.780
2.930E-06,2.760
2.940E-06,2.780
2.950E-06,2.760
2.960E-06,2.720
2.970E-06,2.740
2.980E-06,2.680
2.990E-06,2.640
3.000E-06,2.560
3.010E-06,2.520
3.020E-06,2.400
3.030E-06,2.360
3.040E-06,2.280
3.050E-06,2.200
3.060E-06,2.160
3.070E-06,2.140
3.080E-06,2.120
3.090E-06,2.040
3.100E-06,2.040
3.110E-06,2.000
3.120E-06,2.000
3.130E-06,2.020
3.140E-06,1.980
3.150E-06,1.900
3.160E-06,1.900
3.170E-06,1.840
3.180E-06,1.760
3.190E-06,1.760
3.200E-06,1.700
3.210E-06,1.640
3.220E-06,1.620
3.230E-06,1.560
3.240E-06,1.540
3.250E-06,1.520
3.260E-06,1.480
3.270E-06,1.480
3.280E-06,1.460
3.290E-06,1.440
3.300E-06,1.440
3.310E-06,1.420
3.320E-06,1.420
3.330E-06,1.440
3.340E-06,1.400
3.350E-06,1.380
3.360E-06,1.360
3.370E-06,1.340
3.380E-06,1.360
3.390E-06,1.360
3.400E-06,1.360
3.410E-06,1.320
3.420E-06,1.320
3.430E-06,1.340
3.440E-06,1.300
3.450E-06,1.300
3.460E-06,1.280
3.470E-06,1.260
3.480E-06,1.240
3.490E-06,1.240
3.500E-06,1.220
3.510E-06,1.200
3.520E-06,1.180
3.530E-06,1.140
3.540E-06,1.100
3.550E-06,1.100
3.560E-06,1.040
3.570E-06,1.020
3.580E-06,1.020
3.590E-06,1.000
3.600E-06,1.000
3.610E-06,0.960
3.620E-06,0.960
3.630E-06,0.940
3.640E-06,0.900
3.650E-06,0.860
3.660E-06,0.860
3.670E-06,0.800
3.680E-06,0.780
3.690E-06,0.760
3.700E-06,0.740
3.710E-06,0.700
3.720E-06,0.680
3.730E-06,0.680
3.740E-06,0.640
3.750E-06,0.660
3.760E-06,0.600
3.770E-06,0.620
3.780E-06,0.640
3.790E-06,0.600
3.800E-06,0.560
3.810E-06,0.560
3.820E-06,0.540
3.830E-06,0.540
3.840E-06,0.520
3.850E-06,0.520
3.860E-06,0.480
3.870E-06,0.480
3.880E-06,0.480
3.890E-06,0.400
3.900E-06,0.420
3.910E-06,0.400
3.920E-06,0.400
3.930E-06,0.400
3.940E-06,0.400
3.950E-06,0.360
3.960E-06,0.360
3.970E-06,0.400
3.980E-06,0.340
3.990E-06,0.320
4.000E-06,0.320
4.010E-06,0.320
4.020E-06,0.280
4.030E-06,0.280
4.040E-06,0.280
4.050E-06,0.260
4.060E-06,0.200
4.070E-06,0.220
4.080E-06,0.220
4.090E-06,0.180
4.100E-06,0.180
4.110E-06,0.200
4.120E-06,0.160
4.130E-06,0.140
4.140E-06,0.160
4.150E-06,0.140
4.160E-06,0.120
4.170E-06,0.080
4.180E-06,0.080
4.190E-06,0.080
4.200E-06,0.040
4.210E-06,0.020
4.220E-06,0.020
4.230E-06,0.000
4.240E-06,0.020
4.250E-06,0.020
4.260E-06,0.000
4.270E-06,0.020
4.280E-06,0.000
4.290E-06,0.000
4.300E-06,0.000
4.310E-06,-0.020
4.320E-06,-0.040
4.330E-06,-0.020
4.340E-06,-0.020
4.350E-06,-0.060
4.360E-06,-0.080
4.370E-06,-0.100
4.380E-06,-0.120
4.390E-06,-0.120
4.400E-06,-0.100
4.410E-06,-0.120
4.420E-06,-0.120
4.430E-06,-0.140
4.440E-06,-0.180
4.450E-06,-0.180
4.460E-06,-0.160
4.470E-06,-0.160
4.480E-06,-0.180
4.490E-06,-0.200
4.500E-06,-0.220
4.510E-06,-0.220
4.520E-06,-0.220
4.530E-06,-0.240
4.540E-06,-0.240
4.550E-06,-0.240
4.560E-06,-0.240
4.570E-06,-0.240
4.580E-06,-0.260
4.590E-06,-0.240
4.600E-06,-0.240
4.610E-06,-0.260
4.620E-06,-0.280
4.630E-06,-0.260
4.640E-06,-0.300
4.650E-06,-0.300
4.660E-06,-0.280
4.670E-06,-0.320
4.680E-06,-0.340
4.690E-06,-0.360
4.700E-06,-0.360
4.710E-06,-0.320
4.720E-06,-0.320
4.730E-06,-0.380
4.740E-06,-0.360
4.750E-06,-0.380
4.760E-06,-0.360
4.770E-06,-0.380
4.780E-06,-0.380
4.790E-06,-0.400
4.800E-06,-0.380
4.810E-06,-0.420
4.820E-06,-0.400
4.830E-06,-0.400
4.840E-06,-0.420
4.850E-06,-0.440
4.860E-06,-0.440
4.870E-06,-0.420
4.880E-06,-0.440
4.890E-06,-0.480
4.900E-06,-0.440
4.910E-06,-0.460
4.920E-06,-0.460
4.930E-06,-0.480
4.940E-06,-0.480
4.950E-06,-0.480
4.960E-06,-0.500
4.970E-06,-0.500
4.980E-06,-0.500
4.990E-06,-0.480
5.000E-06,-0.500
5.010E-06,-0.520
5.020E-06,-0.500
5.030E-06,-0.520
5.040E-06,-0.560
5.050E-06,-0.540
5.060E-06,-0.560
5.070E-06,-0.540
5.080E-06,-0.540
5.090E-06,-0.580
5.100E-06,-0.540
5.110E-06,-0.580
5.120E-06,-0.540
5.130E-06,-0.600
5.140E-06,-0.580
5.150E-06,-0.600
5.160E-06,-0.600
5.170E-06,-0.600
5.180E-06,-0.600
5.190E-06,-0.620
5.200E-06,-0.600
5.210E-06,-0.660
5.220E-06,-0.640
5.230E-06,-0.640
5.240E-06,-0.640
5.250E-06,-0.680
5.260E-06,-0.660
5.270E-06,-0.680
5.280E-06,-0.660
5.290E-06,-0.680
5.300E-06,-0.680
5.310E-06,-0.680
5.320E-06,-0.700
5.330E-06,-0.660
5.340E-06,-0.700
5.350E-06,-0.740
5.360E-06,-0.700
5.370E-06,-0.740
5.380E-06,-0.700
5.390E-06,-0.700
5.400E-06,-0.700
5.410E-06,-0.700
5.420E-06,-0.740
5.430E-06,-0.760
5.440E-06,-0.740
5.450E-06,-0.740
5.460E-06,-0.740
5.470E-06,-0.780
5.480E-06,-0.720
5.490E-06,-0.740
5.500E-06,-0.720
5.510E-06,-0.740
5.520E-06,-0.740
5.530E-06,-0.760
5.540E-06,-0.780
5.550E-06,-0.760
5.560E-06,-0.780
5.570E-06,-0.760
5.580E-06,-0.760
5.590E-06,-0.800
5.600E-06,-0.780
5.610E-06,-0.760
5.620E-06,-0.800
5.630E-06,-0.780
5.640E-06,-0.800
5.650E-06,-0.800
5.660E-06,-0.820
5.670E-06,-0.800
5.680E-06,-0.800
5.690E-06,-0.820
5.700E-06,-0.780
5.710E-06,-0.820
5.720E-06,-0.800
5.730E-06,-0.820
5.740E-06,-0.800
5.750E-06,-0.800
5.760E-06,-0.780
5.770E-06,-0.780
5.780E-06,-0.780
5.790E-06,-0.780
5.800E-06,-0.780
5.810E-06,-0.760
5.820E-06,-0.760
5.830E-06,-0.740
5.840E-06,-0.760
5.850E-06,-0.740
5.860E-06,-0.760
5.870E-06,-0.760
5.880E-06,-0.740
5.890E-06,-0.740
5.900E-06,-0.680
5.910E-06,-0.700
5.920E-06,-0.720
5.930E-06,-0.720
5.940E-06,-0.660
5.950E-06,-0.700
5.960E-06,-0.680
5.970E-06,-0.680
5.980E-06,-0.680
5.990E-06,-0.700
6.000E-06,-0.660
6.010E-06,-0.660
6.020E-06,-0.680
6.030E-06,-0.660
6.040E-06,-0.680
6.050E-06,-0.700
6.060E-06,-0.660
6.070E-06,-0.680
6.080E-06,-0.680
6.090E-06,-0.680
6.100E-06,-0.700
6.110E-06,-0.680
6.120E-06,-0.680
6.130E-06,-0.700
6.140E-06,-0.660
6.150E-06,-0.680
6.160E-06,-0.680
6.170E-06,-0.660
6.180E-06,-0.700
6.190E-06,-0.700
6.200E-06,-0.700
6.210E-06,-0.700
6.220E-06,-0.680
6.230E-06,-0.700
6.240E-06,-0.700
6.250E-06,-0.720
6.260E-06,-0.700
6.270E-06,-0.700
6.280E-06,-0.700
6.290E-06,-0.700
6.300E-06,-0.720
6.310E-06,-0.700
6.320E-06,-0.720
6.330E-06,-0.700
6.340E-06,-0.700
6.350E-06,-0.720
6.360E-06,-0.720
6.370E-06,-0.740
6.380E-06,-0.740
6.390E-06,-0.700
6.400E-06,-0.700
6.410E-06,-0.700
6.420E-06,-0.720
6.430E-06,-0.700
6.440E-06,-0.720
6.450E-06,-0.700
6.460E-06,-0.720
6.470E-06,-0.720
6.480E-06,-0.740
6.490E-06,-0.720
6.500E-06,-0.720
6.510E-06,-0.700
6.520E-06,-0.700
6.530E-06,-0.720
6.540E-06,-0.740
6.550E-06,-0.720
6.560E-06,-0.720
6.570E-06,-0.720
6.580E-06,-0.720
6.590E-06,-0.660
6.600E-06,-0.660
6.610E-06,-0.680
6.620E-06,-0.700
6.630E-06,-0.700
6.640E-06,-0.660
6.650E-06,-0.680
6.660E-06,-0.680
6.670E-06,-0.680
6.680E-06,-0.660
6.690E-06,-0.680
6.700E-06,-0.680
6.710E-06,-0.660
6.720E-06,-0.660
6.730E-06,-0.660
6.740E-06,-0.660
6.750E-06,-0.660
6.760E-06,-0.660
6.770E-06,-0.640
6.780E-06,-0.660
6.790E-06,-0.640
6.800E-06,-0.640
6.810E-06,-0.680
6.820E-06,-0.660
6.830E-06,-0.660
6.840E-06,-0.660
6.850E-06,-0.640
6.860E-06,-0.640
6.870E-06,-0.640
6.880E-06,-0.640
6.890E-06,-0.600
6.900E-06,-0.620
6.910E-06,-0.640
6.920E-06,-0.640
6.930E-06,-0.640
6.940E-06,-0.620
6.950E-06,-0.620
6.960E-06,-0.600
6.970E-06,-0.600
6.980E-06,-0.620
6.990E-06,-0.600
7.000E-06,-0.600
7.010E-06,-0.580
7.020E-06,-0.580
7.030E-06,-0.600
7.040E-06,-0.600
7.050E-06,-0.560
7.060E-06,-0.540
7.070E-06,-0.560
7.080E-06,-0.560
7.090E-06,-0.520
7.100E-06,-0.500
7.110E-06,-0.520
7.120E-06,-0.500
7.130E-06,-0.520
7.140E-06,-0.500
7.150E-06,-0.520
7.160E-06,-0.440
7.170E-06,-0.440
7.180E-06,-0.420
7.190E-06,-0.420
7.200E-06,-0.400
7.210E-06,-0.380
7.220E-06,-0.360
7.230E-06,-0.340
7.240E-06,-0.320
7.250E-06,-0.300
7.260E-06,-0.300
7.270E-06,-0.260
7.280E-06,-0.220
7.290E-06,-0.180
7.300E-06,-0.100
7.310E-06,-0.020
7.320E-06,0.100
7.330E-06,0.240
7.340E-06,0.380
7.350E-06,0.560
7.360E-06,0.780
7.370E-06,0.980
7.380E-06,1.200
7.390E-06,1.360
7.400E-06,1.480
7.410E-06,1.560
7.420E-06,1.580
7.430E-06,1.540
7.440E-06,1.520
7.450E-06,1.500
7.460E-06,1.480
7.470E-06,1.440
7.480E-06,1.400
7.490E-06,1.320
7.500E-06,1.200
7.510E-06,1.120
7.520E-06,0.960
7.530E-06,0.860
7.540E-06,0.760
7.550E-06,0.680
7.560E-06,0.540
7.570E-06,0.460
7.580E-06,0.420
7.590E-06,0.380
7.600E-06,0.340
7.610E-06,0.340
7.620E-06,0.260
7.630E-06,0.300
7.640E-06,0.280
7.650E-06,0.340
7.660E-06,0.360
7.670E-06,0.420
7.680E-06,0.420
7.690E-06,0.480
7.700E-06,0.480
7.710E-06,0.540
7.720E-06,0.560
7.730E-06,0.600
7.740E-06,0.620
7.750E-06,0.620
7.760E-06,0.640
7.770E-06,0.660
7.780E-06,0.660
7.790E-06,0.660
7.800E-06,0.620
7.810E-06,0.640
7.820E-06,0.600
7.830E-06,0.600
7.840E-06,0.600
7.850E-06,0.580
7.860E-06,0.600
7.870E-06,0.540
7.880E-06,0.560
7.890E-06,0.540
7.900E-06,0.520
7.910E-06,0.520
7.920E-06,0.540
7.930E-06,0.540
7.940E-06,0.520
7.950E-06,0.520
7.960E-06,0.540
7.970E-06,0.580
7.980E-06,0.580
7.990E-06,0.560
8.000E-06,0.600
8.010E-06,0.580
8.020E-06,0.560
8.030E-06,0.580
8.040E-06,0.560
8.050E-06,0.600
8.060E-06,0.560
8.070E-06,0.540
8.080E-06,0.560
8.090E-06,0.520
8.100E-06,0.520
8.110E-06,0.500
8.120E-06,0.480
8.130E-06,0.440
8.140E-06,0.460
8.150E-06,0.420
8.160E-06,0.400
8.170E-06,0.400
8.180E-06,0.400
8.190E-06,0.380
8.200E-06,0.400
8.210E-06,0.380
8.220E-06,0.400
8.230E-06,0.380
8.240E-06,0.380
8.250E-06,0.380
8.260E-06,0.400
8.270E-06,0.380
8.280E-06,0.360
8.290E-06,0.380
8.300E-06,0.420
8.310E-06,0.400
8.320E-06,0.360
8.330E-06,0.360
8.340E-06,0.400
8.350E-06,0.380
8.360E-06,0.400
8.370E-06,0.380
8.380E-06,0.340
8.390E-06,0.340
8.400E-06,0.340
8.410E-06,0.340
8.420E-06,0.340
8.430E-06,0.340
8.440E-06,0.320
8.450E-06,0.360
8.460E-06,0.340
8.470E-06,0.320
8.480E-06,0.340
8.490E-06,0.320
8.500E-06,0.340
8.510E-06,0.340
8.520E-06,0.360
8.530E-06,0.360
8.540E-06,0.360
8.550E-06,0.320
8.560E-06,0.380
8.570E-06,0.360
8.580E-06,0.340
8.590E-06,0.340
8.600E-06,0.360
8.610E-06,0.340
8.620E-06,0.340
8.630E-06,0.320
8.640E-06,0.320
8.650E-06,0.340
8.660E-06,0.320
8.670E-06,0.320
8.680E-06,0.340
8.690E-06,0.320
8.700E-06,0.340
8.710E-06,0.360
8.720E-06,0.320
8.730E-06,0.300
8.740E-06,0.320
8.750E-06,0.320
8.760E-06,0.320
8.770E-06,0.340
8.780E-06,0.320
8.790E-06,0.320
8.800E-06,0.340
8.810E-06,0.360
8.820E-06,0.360
8.830E-06,0.320
8.840E-06,0.320
8.850E-06,0.340
8.860E-06,0.320
8.870E-06,0.340
8.880E-06,0.340
8.890E-06,0.340
8.900E-06,0.340
8.910E-06,0.340
8.920E-06,0.340
8.930E-06,0.360
8.940E-06,0.340
8.950E-06,0.300
8.960E-06,0.340
8.970E-06,0.340
8.980E-06,0.320
8.990E-06,0.340
9.000E-06,0.360
9.010E-06,0.360
9.020E-06,0.320
9.030E-06,0.320
9.040E-06,0.320
9.050E-06,0.320
9.060E-06,0.340
9.070E-06,0.360
9.080E-06,0.340
9.090E-06,0.320
9.100E-06,0.340
9.110E-06,0.360
9.120E-06,0.360
9.130E-06,0.360
9.140E-06,0.380
9.150E-06,0.360
9.160E-06,0.360
9.170E-06,0.380
9.180E-06,0.360
9.190E-06,0.360
9.200E-06,0.380
9.210E-06,0.400
9.220E-06,0.380
9.230E-06,0.340
9.240E-06,0.380
9.250E-06,0.360
9.260E-06,0.380
9.270E-06,0.400
9.280E-06,0.380
9.290E-06,0.400
9.300E-06,0.360
9.310E-06,0.380
9.320E-06,0.380
9.330E-06,0.380
9.340E-06,0.400
9.350E-06,0.380
9.360E-06,0.420
9.370E-06,0.400
9.380E-06,0.400
9.390E-06,0.400
9.400E-06,0.440
9.410E-06,0.440
9.420E-06,0.440
9.430E-06,0.460
9.440E-06,0.420
9.450E-06,0.440
9.460E-06,0.440
9.470E-06,0.440
9.480E-06,0.420
9.490E-06,0.460
9.500E-06,0.420
9.510E-06,0.420
9.520E-06,0.460
9.530E-06,0.440
9.540E-06,0.440
9.550E-06,0.460
9.560E-06,0.440
9.570E-06,0.460
9.580E-06,0.460
9.590E-06,0.440
9.600E-06,0.440
9.610E-06,0.480
9.620E-06,0.440
9.630E-06,0.460
9.640E-06,0.460
9.650E-06,0.460
9.660E-06,0.460
9.670E-06,0.460
9.680E-06,0.460
9.690E-06,0.480
9.700E-06,0.500
9.710E-06,0.520
9.720E-06,0.500
