mediciones/Mediciones filtradas (saque las feas)/5-15/17.4/WaveData47351.csv

#timebase=2000000(ps)
,#voltbase=100000(mv/100)
#size=4000
-8.400E-06,0.008
-8.390E-06,0.008
-8.380E-06,0.000
-8.370E-06,0.004
-8.360E-06,0.004
-8.350E-06,0.004
-8.340E-06,0.000
-8.330E-06,0.004
-8.320E-06,0.004
-8.310E-06,0.000
-8.300E-06,0.004
-8.290E-06,0.004
-8.280E-06,0.004
-8.270E-06,0.004
-8.260E-06,0.004
-8.250E-06,0.004
-8.240E-06,0.008
-8.230E-06,0.000
-8.220E-06,0.000
-8.210E-06,0.004
-8.200E-06,0.004
-8.190E-06,0.000
-8.180E-06,0.004
-8.170E-06,0.008
-8.160E-06,0.004
-8.150E-06,-0.004
-8.140E-06,-0.004
-8.130E-06,0.004
-8.120E-06,0.000
-8.110E-06,0.004
-8.100E-06,0.004
-8.090E-06,0.004
-8.080E-06,0.004
-8.070E-06,-0.004
-8.060E-06,0.000
-8.050E-06,0.000
-8.040E-06,0.004
-8.030E-06,0.004
-8.020E-06,0.004
-8.010E-06,0.004
-8.000E-06,-0.004
-7.990E-06,0.004
-7.980E-06,0.000
-7.970E-06,0.000
-7.960E-06,0.004
-7.950E-06,0.000
-7.940E-06,0.004
-7.930E-06,0.004
-7.920E-06,0.004
-7.910E-06,0.000
-7.900E-06,-0.004
-7.890E-06,0.000
-7.880E-06,0.004
-7.870E-06,0.000
-7.860E-06,0.000
-7.850E-06,0.000
-7.840E-06,0.000
-7.830E-06,0.000
-7.820E-06,0.000
-7.810E-06,0.008
-7.800E-06,0.008
-7.790E-06,-0.004
-7.780E-06,0.000
-7.770E-06,0.004
-7.760E-06,0.004
-7.750E-06,0.000
-7.740E-06,0.008
-7.730E-06,0.004
-7.720E-06,0.000
-7.710E-06,0.000
-7.700E-06,0.000
-7.690E-06,0.000
-7.680E-06,0.004
-7.670E-06,0.008
-7.660E-06,0.008
-7.650E-06,0.008
-7.640E-06,0.008
-7.630E-06,-0.004
-7.620E-06,-0.004
-7.610E-06,0.000
-7.600E-06,0.004
-7.590E-06,0.004
-7.580E-06,0.008
-7.570E-06,0.008
-7.560E-06,0.000
-7.550E-06,0.000
-7.540E-06,0.004
-7.530E-06,-0.004
-7.520E-06,0.000
-7.510E-06,0.004
-7.500E-06,0.004
-7.490E-06,0.004
-7.480E-06,0.004
-7.470E-06,0.004
-7.460E-06,0.000
-7.450E-06,0.000
-7.440E-06,0.004
-7.430E-06,-0.004
-7.420E-06,0.004
-7.410E-06,0.004
-7.400E-06,0.008
-7.390E-06,0.004
-7.380E-06,0.000
-7.370E-06,0.000
-7.360E-06,0.000
-7.350E-06,0.000
-7.340E-06,0.008
-7.330E-06,0.000
-7.320E-06,0.004
-7.310E-06,0.000
-7.300E-06,0.004
-7.290E-06,0.004
-7.280E-06,-0.004
-7.270E-06,-0.004
-7.260E-06,0.004
-7.250E-06,0.004
-7.240E-06,0.004
-7.230E-06,0.004
-7.220E-06,0.004
-7.210E-06,0.004
-7.200E-06,0.004
-7.190E-06,0.000
-7.180E-06,0.004
-7.170E-06,0.000
-7.160E-06,0.004
-7.150E-06,0.008
-7.140E-06,0.000
-7.130E-06,0.000
-7.120E-06,0.004
-7.110E-06,0.004
-7.100E-06,0.000
-7.090E-06,0.000
-7.080E-06,0.000
-7.070E-06,0.000
-7.060E-06,0.000
-7.050E-06,0.008
-7.040E-06,0.004
-7.030E-06,0.004
-7.020E-06,0.000
-7.010E-06,0.000
-7.000E-06,0.004
-6.990E-06,0.004
-6.980E-06,0.004
-6.970E-06,0.000
-6.960E-06,0.004
-6.950E-06,0.000
-6.940E-06,0.000
-6.930E-06,0.000
-6.920E-06,0.008
-6.910E-06,-0.004
-6.900E-06,0.000
-6.890E-06,0.004
-6.880E-06,0.004
-6.870E-06,0.000
-6.860E-06,0.004
-6.850E-06,0.004
-6.840E-06,-0.004
-6.830E-06,0.000
-6.820E-06,0.000
-6.810E-06,0.004
-6.800E-06,0.004
-6.790E-06,0.008
-6.780E-06,0.000
-6.770E-06,0.000
-6.760E-06,0.000
-6.750E-06,0.004
-6.740E-06,0.004
-6.730E-06,0.000
-6.720E-06,0.000
-6.710E-06,0.004
-6.700E-06,0.008
-6.690E-06,0.004
-6.680E-06,0.008
-6.670E-06,0.000
-6.660E-06,0.004
-6.650E-06,0.004
-6.640E-06,0.004
-6.630E-06,0.004
-6.620E-06,0.000
-6.610E-06,0.004
-6.600E-06,0.000
-6.590E-06,0.000
-6.580E-06,0.004
-6.570E-06,0.000
-6.560E-06,0.004
-6.550E-06,0.008
-6.540E-06,0.000
-6.530E-06,0.000
-6.520E-06,0.004
-6.510E-06,0.008
-6.500E-06,0.008
-6.490E-06,0.008
-6.480E-06,0.008
-6.470E-06,0.004
-6.460E-06,0.004
-6.450E-06,0.004
-6.440E-06,0.000
-6.430E-06,0.000
-6.420E-06,0.008
-6.410E-06,0.008
-6.400E-06,0.004
-6.390E-06,-0.004
-6.380E-06,-0.004
-6.370E-06,0.004
-6.360E-06,0.004
-6.350E-06,0.004
-6.340E-06,0.004
-6.330E-06,0.004
-6.320E-06,0.004
-6.310E-06,0.000
-6.300E-06,0.004
-6.290E-06,-0.004
-6.280E-06,0.000
-6.270E-06,0.004
-6.260E-06,0.004
-6.250E-06,0.004
-6.240E-06,0.004
-6.230E-06,0.004
-6.220E-06,0.004
-6.210E-06,0.004
-6.200E-06,0.000
-6.190E-06,0.004
-6.180E-06,0.004
-6.170E-06,0.004
-6.160E-06,0.004
-6.150E-06,0.004
-6.140E-06,0.004
-6.130E-06,-0.004
-6.120E-06,0.004
-6.110E-06,0.008
-6.100E-06,0.004
-6.090E-06,0.004
-6.080E-06,0.000
-6.070E-06,0.004
-6.060E-06,0.004
-6.050E-06,0.000
-6.040E-06,0.000
-6.030E-06,0.004
-6.020E-06,0.008
-6.010E-06,0.008
-6.000E-06,0.000
-5.990E-06,-0.004
-5.980E-06,0.004
-5.970E-06,0.000
-5.960E-06,0.000
-5.950E-06,0.004
-5.940E-06,0.008
-5.930E-06,0.008
-5.920E-06,0.000
-5.910E-06,0.000
-5.900E-06,0.004
-5.890E-06,0.004
-5.880E-06,0.004
-5.870E-06,0.000
-5.860E-06,0.004
-5.850E-06,0.004
-5.840E-06,0.004
-5.830E-06,0.004
-5.820E-06,0.004
-5.810E-06,0.000
-5.800E-06,0.000
-5.790E-06,0.004
-5.780E-06,0.004
-5.770E-06,0.004
-5.760E-06,0.004
-5.750E-06,0.004
-5.740E-06,0.008
-5.730E-06,0.004
-5.720E-06,0.008
-5.710E-06,0.004
-5.700E-06,0.008
-5.690E-06,0.008
-5.680E-06,0.000
-5.670E-06,-0.004
-5.660E-06,0.004
-5.650E-06,-0.004
-5.640E-06,0.000
-5.630E-06,-0.004
-5.620E-06,-0.004
-5.610E-06,0.004
-5.600E-06,0.000
-5.590E-06,0.004
-5.580E-06,0.004
-5.570E-06,0.004
-5.560E-06,0.004
-5.550E-06,0.000
-5.540E-06,0.004
-5.530E-06,0.004
-5.520E-06,0.008
-5.510E-06,0.000
-5.500E-06,0.004
-5.490E-06,0.004
-5.480E-06,0.004
-5.470E-06,0.000
-5.460E-06,-0.004
-5.450E-06,0.000
-5.440E-06,0.004
-5.430E-06,0.000
-5.420E-06,0.004
-5.410E-06,0.004
-5.400E-06,-0.004
-5.390E-06,0.000
-5.380E-06,0.004
-5.370E-06,0.008
-5.360E-06,0.008
-5.350E-06,0.004
-5.340E-06,0.004
-5.330E-06,-0.004
-5.320E-06,0.000
-5.310E-06,0.000
-5.300E-06,0.004
-5.290E-06,0.008
-5.280E-06,0.004
-5.270E-06,0.004
-5.260E-06,0.004
-5.250E-06,0.004
-5.240E-06,0.008
-5.230E-06,0.008
-5.220E-06,0.008
-5.210E-06,-0.004
-5.200E-06,0.000
-5.190E-06,0.004
-5.180E-06,0.008
-5.170E-06,0.008
-5.160E-06,0.004
-5.150E-06,0.000
-5.140E-06,-0.004
-5.130E-06,0.004
-5.120E-06,0.000
-5.110E-06,0.004
-5.100E-06,0.008
-5.090E-06,0.004
-5.080E-06,0.000
-5.070E-06,0.000
-5.060E-06,0.000
-5.050E-06,0.000
-5.040E-06,0.004
-5.030E-06,0.000
-5.020E-06,0.000
-5.010E-06,0.000
-5.000E-06,0.000
-4.990E-06,0.004
-4.980E-06,0.000
-4.970E-06,0.000
-4.960E-06,0.000
-4.950E-06,-0.004
-4.940E-06,0.004
-4.930E-06,0.004
-4.920E-06,0.004
-4.910E-06,0.004
-4.900E-06,0.000
-4.890E-06,0.000
-4.880E-06,0.000
-4.870E-06,0.004
-4.860E-06,0.004
-4.850E-06,0.004
-4.840E-06,0.000
-4.830E-06,0.000
-4.820E-06,0.000
-4.810E-06,0.000
-4.800E-06,0.004
-4.790E-06,0.004
-4.780E-06,0.004
-4.770E-06,0.004
-4.760E-06,-0.004
-4.750E-06,0.000
-4.740E-06,0.004
-4.730E-06,0.008
-4.720E-06,0.004
-4.710E-06,0.004
-4.700E-06,-0.004
-4.690E-06,0.000
-4.680E-06,0.000
-4.670E-06,0.004
-4.660E-06,0.008
-4.650E-06,0.004
-4.640E-06,0.000
-4.630E-06,0.000
-4.620E-06,0.000
-4.610E-06,-0.004
-4.600E-06,-0.004
-4.590E-06,0.004
-4.580E-06,0.000
-4.570E-06,0.000
-4.560E-06,0.004
-4.550E-06,0.000
-4.540E-06,0.000
-4.530E-06,0.000
-4.520E-06,0.008
-4.510E-06,-0.004
-4.500E-06,0.004
-4.490E-06,0.008
-4.480E-06,0.008
-4.470E-06,0.004
-4.460E-06,0.004
-4.450E-06,0.000
-4.440E-06,0.004
-4.430E-06,0.004
-4.420E-06,0.004
-4.410E-06,0.008
-4.400E-06,0.008
-4.390E-06,0.004
-4.380E-06,0.004
-4.370E-06,0.004
-4.360E-06,0.000
-4.350E-06,0.000
-4.340E-06,0.004
-4.330E-06,0.008
-4.320E-06,0.000
-4.310E-06,0.000
-4.300E-06,0.000
-4.290E-06,0.004
-4.280E-06,0.012
-4.270E-06,0.000
-4.260E-06,0.004
-4.250E-06,0.004
-4.240E-06,0.000
-4.230E-06,0.000
-4.220E-06,0.000
-4.210E-06,0.004
-4.200E-06,0.008
-4.190E-06,0.008
-4.180E-06,0.008
-4.170E-06,0.000
-4.160E-06,0.000
-4.150E-06,0.000
-4.140E-06,0.004
-4.130E-06,0.004
-4.120E-06,0.008
-4.110E-06,0.008
-4.100E-06,0.008
-4.090E-06,0.000
-4.080E-06,-0.004
-4.070E-06,0.000
-4.060E-06,0.008
-4.050E-06,0.004
-4.040E-06,0.000
-4.030E-06,0.000
-4.020E-06,0.004
-4.010E-06,0.000
-4.000E-06,0.004
-3.990E-06,0.000
-3.980E-06,0.000
-3.970E-06,0.000
-3.960E-06,0.000
-3.950E-06,0.004
-3.940E-06,0.000
-3.930E-06,0.004
-3.920E-06,0.004
-3.910E-06,0.000
-3.900E-06,0.004
-3.890E-06,0.000
-3.880E-06,0.004
-3.870E-06,0.004
-3.860E-06,0.004
-3.850E-06,0.004
-3.840E-06,0.008
-3.830E-06,0.000
-3.820E-06,0.004
-3.810E-06,0.004
-3.800E-06,0.004
-3.790E-06,0.000
-3.780E-06,0.000
-3.770E-06,0.004
-3.760E-06,0.004
-3.750E-06,0.012
-3.740E-06,0.000
-3.730E-06,0.000
-3.720E-06,0.000
-3.710E-06,0.000
-3.700E-06,0.000
-3.690E-06,0.004
-3.680E-06,0.008
-3.670E-06,0.008
-3.660E-06,0.004
-3.650E-06,0.004
-3.640E-06,0.000
-3.630E-06,0.000
-3.620E-06,0.004
-3.610E-06,0.004
-3.600E-06,0.008
-3.590E-06,0.000
-3.580E-06,0.004
-3.570E-06,0.004
-3.560E-06,0.000
-3.550E-06,0.000
-3.540E-06,0.004
-3.530E-06,0.004
-3.520E-06,0.004
-3.510E-06,0.000
-3.500E-06,0.000
-3.490E-06,0.004
-3.480E-06,0.008
-3.470E-06,0.008
-3.460E-06,0.004
-3.450E-06,0.004
-3.440E-06,0.004
-3.430E-06,-0.004
-3.420E-06,0.004
-3.410E-06,0.000
-3.400E-06,0.000
-3.390E-06,0.004
-3.380E-06,0.008
-3.370E-06,0.008
-3.360E-06,-0.004
-3.350E-06,0.000
-3.340E-06,-0.004
-3.330E-06,0.000
-3.320E-06,0.004
-3.310E-06,0.008
-3.300E-06,0.000
-3.290E-06,0.004
-3.280E-06,-0.004
-3.270E-06,0.000
-3.260E-06,0.004
-3.250E-06,0.008
-3.240E-06,0.008
-3.230E-06,0.008
-3.220E-06,0.004
-3.210E-06,-0.004
-3.200E-06,-0.004
-3.190E-06,0.000
-3.180E-06,0.004
-3.170E-06,0.008
-3.160E-06,0.004
-3.150E-06,0.008
-3.140E-06,0.008
-3.130E-06,0.004
-3.120E-06,-0.004
-3.110E-06,-0.004
-3.100E-06,-0.008
-3.090E-06,0.004
-3.080E-06,0.000
-3.070E-06,0.004
-3.060E-06,0.008
-3.050E-06,0.008
-3.040E-06,0.000
-3.030E-06,0.000
-3.020E-06,0.004
-3.010E-06,0.008
-3.000E-06,0.000
-2.990E-06,0.008
-2.980E-06,0.008
-2.970E-06,0.008
-2.960E-06,0.004
-2.950E-06,0.004
-2.940E-06,0.004
-2.930E-06,0.008
-2.920E-06,0.008
-2.910E-06,0.012
-2.900E-06,0.012
-2.890E-06,0.000
-2.880E-06,0.000
-2.870E-06,0.008
-2.860E-06,0.004
-2.850E-06,0.008
-2.840E-06,0.004
-2.830E-06,0.004
-2.820E-06,0.000
-2.810E-06,0.000
-2.800E-06,-0.004
-2.790E-06,0.004
-2.780E-06,0.008
-2.770E-06,0.008
-2.760E-06,0.008
-2.750E-06,0.004
-2.740E-06,0.004
-2.730E-06,0.008
-2.720E-06,0.016
-2.710E-06,0.008
-2.700E-06,0.012
-2.690E-06,0.008
-2.680E-06,0.008
-2.670E-06,0.008
-2.660E-06,0.008
-2.650E-06,0.012
-2.640E-06,0.004
-2.630E-06,-0.004
-2.620E-06,-0.004
-2.610E-06,-0.008
-2.600E-06,-0.004
-2.590E-06,0.000
-2.580E-06,0.012
-2.570E-06,0.020
-2.560E-06,0.024
-2.550E-06,0.012
-2.540E-06,0.000
-2.530E-06,-0.008
-2.520E-06,-0.008
-2.510E-06,-0.004
-2.500E-06,0.012
-2.490E-06,0.028
-2.480E-06,0.032
-2.470E-06,0.016
-2.460E-06,0.008
-2.450E-06,-0.004
-2.440E-06,0.008
-2.430E-06,0.020
-2.420E-06,0.020
-2.410E-06,0.020
-2.400E-06,0.020
-2.390E-06,0.004
-2.380E-06,-0.004
-2.370E-06,-0.016
-2.360E-06,-0.016
-2.350E-06,-0.020
-2.340E-06,0.004
-2.330E-06,0.012
-2.320E-06,0.012
-2.310E-06,0.012
-2.300E-06,0.012
-2.290E-06,0.000
-2.280E-06,-0.016
-2.270E-06,-0.012
-2.260E-06,-0.004
-2.250E-06,0.008
-2.240E-06,0.008
-2.230E-06,0.004
-2.220E-06,0.004
-2.210E-06,0.004
-2.200E-06,0.000
-2.190E-06,-0.004
-2.180E-06,0.000
-2.170E-06,0.000
-2.160E-06,0.008
-2.150E-06,0.004
-2.140E-06,0.012
-2.130E-06,0.008
-2.120E-06,0.004
-2.110E-06,0.000
-2.100E-06,0.004
-2.090E-06,0.004
-2.080E-06,0.008
-2.070E-06,0.008
-2.060E-06,0.000
-2.050E-06,0.000
-2.040E-06,-0.004
-2.030E-06,0.000
-2.020E-06,0.012
-2.010E-06,0.012
-2.000E-06,0.008
-1.990E-06,0.004
-1.980E-06,0.000
-1.970E-06,0.000
-1.960E-06,0.000
-1.950E-06,0.008
-1.940E-06,0.008
-1.930E-06,0.008
-1.920E-06,0.004
-1.910E-06,-0.004
-1.900E-06,0.004
-1.890E-06,0.004
-1.880E-06,0.008
-1.870E-06,0.008
-1.860E-06,0.004
-1.850E-06,0.004
-1.840E-06,0.004
-1.830E-06,0.004
-1.820E-06,0.004
-1.810E-06,0.008
-1.800E-06,0.012
-1.790E-06,0.004
-1.780E-06,0.000
-1.770E-06,0.000
-1.760E-06,0.000
-1.750E-06,0.004
-1.740E-06,0.012
-1.730E-06,0.012
-1.720E-06,0.012
-1.710E-06,0.008
-1.700E-06,0.008
-1.690E-06,0.004
-1.680E-06,0.004
-1.670E-06,0.004
-1.660E-06,0.008
-1.650E-06,0.012
-1.640E-06,0.016
-1.630E-06,0.024
-1.620E-06,0.012
-1.610E-06,0.012
-1.600E-06,0.020
-1.590E-06,0.020
-1.580E-06,0.024
-1.570E-06,0.024
-1.560E-06,0.020
-1.550E-06,0.008
-1.540E-06,-0.008
-1.530E-06,-0.016
-1.520E-06,-0.012
-1.510E-06,0.004
-1.500E-06,0.024
-1.490E-06,0.048
-1.480E-06,0.044
-1.470E-06,0.028
-1.460E-06,-0.004
-1.450E-06,-0.024
-1.440E-06,-0.028
-1.430E-06,-0.028
-1.420E-06,-0.008
-1.410E-06,0.012
-1.400E-06,0.032
-1.390E-06,0.028
-1.380E-06,0.008
-1.370E-06,-0.008
-1.360E-06,-0.032
-1.350E-06,-0.032
-1.340E-06,-0.008
-1.330E-06,0.028
-1.320E-06,0.056
-1.310E-06,0.044
-1.300E-06,0.016
-1.290E-06,-0.024
-1.280E-06,-0.044
-1.270E-06,-0.032
-1.260E-06,0.004
-1.250E-06,0.048
-1.240E-06,0.068
-1.230E-06,0.056
-1.220E-06,0.024
-1.210E-06,-0.004
-1.200E-06,-0.020
-1.190E-06,-0.024
-1.180E-06,-0.008
-1.170E-06,0.024
-1.160E-06,0.044
-1.150E-06,0.052
-1.140E-06,0.044
-1.130E-06,0.020
-1.120E-06,-0.008
-1.110E-06,-0.024
-1.100E-06,-0.008
-1.090E-06,0.020
-1.080E-06,0.056
-1.070E-06,0.068
-1.060E-06,0.060
-1.050E-06,0.016
-1.040E-06,-0.016
-1.030E-06,-0.036
-1.020E-06,-0.012
-1.010E-06,0.024
-1.000E-06,0.056
-9.900E-07,0.068
-9.800E-07,0.036
-9.700E-07,0.000
-9.600E-07,-0.024
-9.500E-07,-0.020
-9.400E-07,0.012
-9.300E-07,0.048
-9.200E-07,0.072
-9.100E-07,0.072
-9.000E-07,0.084
-8.900E-07,0.064
-8.800E-07,0.028
-8.700E-07,0.004
-8.600E-07,0.008
-8.500E-07,0.012
-8.400E-07,0.036
-8.300E-07,0.028
-8.200E-07,0.012
-8.100E-07,-0.012
-8.000E-07,-0.028
-7.900E-07,-0.012
-7.800E-07,0.004
-7.700E-07,0.032
-7.600E-07,0.044
-7.500E-07,0.056
-7.400E-07,0.052
-7.300E-07,0.052
-7.200E-07,0.044
-7.100E-07,0.040
-7.000E-07,0.024
-6.900E-07,0.024
-6.800E-07,0.024
-6.700E-07,0.032
-6.600E-07,0.032
-6.500E-07,0.040
-6.400E-07,0.044
-6.300E-07,0.032
-6.200E-07,0.028
-6.100E-07,0.016
-6.000E-07,-0.008
-5.900E-07,-0.012
-5.800E-07,0.016
-5.700E-07,0.064
-5.600E-07,0.080
-5.500E-07,0.060
-5.400E-07,0.024
-5.300E-07,0.016
-5.200E-07,0.024
-5.100E-07,0.068
-5.000E-07,0.100
-4.900E-07,0.128
-4.800E-07,0.112
-4.700E-07,0.076
-4.600E-07,0.044
-4.500E-07,0.036
-4.400E-07,0.044
-4.300E-07,0.072
-4.200E-07,0.116
-4.100E-07,0.124
-4.000E-07,0.124
-3.900E-07,0.076
-3.800E-07,0.048
-3.700E-07,0.028
-3.600E-07,0.032
-3.500E-07,0.032
-3.400E-07,0.048
-3.300E-07,0.008
-3.200E-07,-0.024
-3.100E-07,-0.060
-3.000E-07,-0.072
-2.900E-07,-0.032
-2.800E-07,0.056
-2.700E-07,0.136
-2.600E-07,0.144
-2.500E-07,0.084
-2.400E-07,-0.004
-2.300E-07,-0.088
-2.200E-07,-0.088
-2.100E-07,-0.020
-2.000E-07,0.100
-1.900E-07,0.196
-1.800E-07,0.244
-1.700E-07,0.220
-1.600E-07,0.168
-1.500E-07,0.120
-1.400E-07,0.076
-1.300E-07,0.100
-1.200E-07,0.108
-1.100E-07,0.160
-1.000E-07,0.184
-9.000E-08,0.160
-8.000E-08,0.140
-7.000E-08,0.072
-6.000E-08,-0.272
-5.000E-08,-0.508
-4.000E-08,-0.512
-3.000E-08,-0.512
-2.000E-08,-0.356
-1.000E-08,0.444
0.000E+00,0.540
1.000E-08,0.540
2.000E-08,0.508
3.000E-08,-0.512
4.000E-08,-0.512
5.000E-08,-0.512
6.000E-08,-0.508
7.000E-08,-0.104
8.000E-08,0.544
9.000E-08,0.540
1.000E-07,0.540
1.100E-07,0.496
1.200E-07,-0.508
1.300E-07,-0.512
1.400E-07,-0.512
1.500E-07,-0.512
1.600E-07,0.488
1.700E-07,0.540
1.800E-07,0.544
1.900E-07,0.300
2.000E-07,-0.508
2.100E-07,-0.508
2.200E-07,-0.508
2.300E-07,-0.384
2.400E-07,0.356
2.500E-07,0.540
2.600E-07,0.540
2.700E-07,0.340
2.800E-07,-0.196
2.900E-07,-0.512
3.000E-07,-0.508
3.100E-07,-0.360
3.200E-07,0.128
3.300E-07,0.540
3.400E-07,0.540
3.500E-07,0.300
3.600E-07,-0.068
3.700E-07,-0.344
3.800E-07,-0.416
3.900E-07,-0.244
4.000E-07,0.060
4.100E-07,0.308
4.200E-07,0.368
4.300E-07,0.232
4.400E-07,0.020
4.500E-07,-0.176
4.600E-07,-0.236
4.700E-07,-0.128
4.800E-07,0.048
4.900E-07,0.176
5.000E-07,0.192
5.100E-07,0.124
5.200E-07,-0.008
5.300E-07,-0.104
5.400E-07,-0.128
5.500E-07,-0.048
5.600E-07,0.056
5.700E-07,0.136
5.800E-07,0.156
5.900E-07,0.112
6.000E-07,0.024
6.100E-07,-0.036
6.200E-07,-0.036
6.300E-07,0.000
6.400E-07,0.072
6.500E-07,0.128
6.600E-07,0.140
6.700E-07,0.120
6.800E-07,0.084
6.900E-07,0.056
7.000E-07,0.072
7.100E-07,0.088
7.200E-07,0.120
7.300E-07,0.128
7.400E-07,0.140
7.500E-07,0.136
7.600E-07,0.144
7.700E-07,0.168
7.800E-07,0.192
7.900E-07,0.220
8.000E-07,0.244
8.100E-07,0.268
8.200E-07,0.260
8.300E-07,0.228
8.400E-07,0.208
8.500E-07,0.200
8.600E-07,0.192
8.700E-07,0.204
8.800E-07,0.224
8.900E-07,0.228
9.000E-07,0.228
9.100E-07,0.208
9.200E-07,0.176
9.300E-07,0.172
9.400E-07,0.168
9.500E-07,0.160
9.600E-07,0.164
9.700E-07,0.172
9.800E-07,0.140
9.900E-07,0.136
1.000E-06,-0.024
1.010E-06,-0.152
1.020E-06,-0.352
1.030E-06,-0.364
1.040E-06,-0.396
1.050E-06,-0.508
1.060E-06,-0.512
1.070E-06,-0.512
1.080E-06,-0.272
1.090E-06,-0.008
1.100E-06,0.136
1.110E-06,0.176
1.120E-06,-0.020
1.130E-06,-0.320
1.140E-06,-0.512
1.150E-06,-0.512
1.160E-06,-0.460
1.170E-06,-0.120
1.180E-06,0.264
1.190E-06,0.360
1.200E-06,0.356
1.210E-06,0.088
1.220E-06,-0.172
1.230E-06,-0.264
1.240E-06,-0.184
1.250E-06,0.008
1.260E-06,0.188
1.270E-06,0.336
1.280E-06,0.320
1.290E-06,0.236
1.300E-06,0.016
1.310E-06,-0.124
1.320E-06,-0.156
1.330E-06,-0.056
1.340E-06,0.104
1.350E-06,0.228
1.360E-06,0.260
1.370E-06,0.168
1.380E-06,0.072
1.390E-06,-0.076
1.400E-06,-0.132
1.410E-06,-0.136
1.420E-06,-0.012
1.430E-06,0.076
1.440E-06,0.148
1.450E-06,0.148
1.460E-06,0.096
1.470E-06,0.024
1.480E-06,-0.036
1.490E-06,0.000
1.500E-06,0.044
1.510E-06,0.156
1.520E-06,0.220
1.530E-06,0.256
1.540E-06,0.192
1.550E-06,0.156
1.560E-06,0.124
1.570E-06,0.108
1.580E-06,0.120
1.590E-06,0.156
1.600E-06,0.196
1.610E-06,0.184
1.620E-06,0.160
1.630E-06,0.108
1.640E-06,0.064
1.650E-06,0.004
1.660E-06,0.008
1.670E-06,0.044
1.680E-06,0.112
1.690E-06,0.176
1.700E-06,0.224
1.710E-06,0.244
1.720E-06,0.224
1.730E-06,0.220
1.740E-06,0.188
1.750E-06,0.164
1.760E-06,0.136
1.770E-06,0.140
1.780E-06,0.148
1.790E-06,0.156
1.800E-06,0.160
1.810E-06,0.148
1.820E-06,0.128
1.830E-06,0.096
1.840E-06,0.096
1.850E-06,0.128
1.860E-06,0.184
1.870E-06,0.236
1.880E-06,0.284
1.890E-06,0.304
1.900E-06,0.280
1.910E-06,0.224
1.920E-06,0.188
1.930E-06,0.180
1.940E-06,0.192
1.950E-06,0.240
1.960E-06,0.280
1.970E-06,0.288
1.980E-06,0.272
1.990E-06,0.228
2.000E-06,0.184
2.010E-06,0.164
2.020E-06,0.180
2.030E-06,0.216
2.040E-06,0.248
2.050E-06,0.264
2.060E-06,0.256
2.070E-06,0.208
2.080E-06,0.152
2.090E-06,0.108
2.100E-06,0.080
2.110E-06,0.088
2.120E-06,0.124
2.130E-06,0.152
2.140E-06,0.184
2.150E-06,0.188
2.160E-06,0.172
2.170E-06,0.148
2.180E-06,0.136
2.190E-06,0.136
2.200E-06,0.152
2.210E-06,0.184
2.220E-06,0.216
2.230E-06,0.232
2.240E-06,0.224
2.250E-06,0.224
2.260E-06,0.204
2.270E-06,0.192
2.280E-06,0.204
2.290E-06,0.224
2.300E-06,0.240
2.310E-06,0.244
2.320E-06,0.240
2.330E-06,0.232
2.340E-06,0.224
2.350E-06,0.216
2.360E-06,0.216
2.370E-06,0.224
2.380E-06,0.224
2.390E-06,0.236
2.400E-06,0.232
2.410E-06,0.232
2.420E-06,0.228
2.430E-06,0.224
2.440E-06,0.220
2.450E-06,0.220
2.460E-06,0.220
2.470E-06,0.228
2.480E-06,0.232
2.490E-06,0.228
2.500E-06,0.228
2.510E-06,0.224
2.520E-06,0.220
2.530E-06,0.216
2.540E-06,0.224
2.550E-06,0.220
2.560E-06,0.220
2.570E-06,0.224
2.580E-06,0.220
2.590E-06,0.220
2.600E-06,0.212
2.610E-06,0.220
2.620E-06,0.216
2.630E-06,0.216
2.640E-06,0.220
2.650E-06,0.216
2.660E-06,0.216
2.670E-06,0.216
2.680E-06,0.208
2.690E-06,0.216
2.700E-06,0.216
2.710E-06,0.216
2.720E-06,0.224
2.730E-06,0.216
2.740E-06,0.220
2.750E-06,0.220
2.760E-06,0.216
2.770E-06,0.224
2.780E-06,0.216
2.790E-06,0.224
2.800E-06,0.220
2.810E-06,0.220
2.820E-06,0.220
2.830E-06,0.216
2.840E-06,0.212
2.850E-06,0.208
2.860E-06,0.220
2.870E-06,0.220
2.880E-06,0.216
2.890E-06,0.224
2.900E-06,0.220
2.910E-06,0.216
2.920E-06,0.212
2.930E-06,0.212
2.940E-06,0.220
2.950E-06,0.220
2.960E-06,0.212
2.970E-06,0.220
2.980E-06,0.216
2.990E-06,0.216
3.000E-06,0.212
3.010E-06,0.208
3.020E-06,0.212
3.030E-06,0.212
3.040E-06,0.208
3.050E-06,0.212
3.060E-06,0.204
3.070E-06,0.208
3.080E-06,0.204
3.090E-06,0.208
3.100E-06,0.208
3.110E-06,0.208
3.120E-06,0.204
3.130E-06,0.204
3.140E-06,0.204
3.150E-06,0.208
3.160E-06,0.204
3.170E-06,0.204
3.180E-06,0.208
3.190E-06,0.204
3.200E-06,0.200
3.210E-06,0.200
3.220E-06,0.204
3.230E-06,0.200
3.240E-06,0.196
3.250E-06,0.204
3.260E-06,0.196
3.270E-06,0.196
3.280E-06,0.196
3.290E-06,0.196
3.300E-06,0.196
3.310E-06,0.196
3.320E-06,0.200
3.330E-06,0.200
3.340E-06,0.192
3.350E-06,0.192
3.360E-06,0.192
3.370E-06,0.200
3.380E-06,0.196
3.390E-06,0.192
3.400E-06,0.192
3.410E-06,0.192
3.420E-06,0.192
