mediciones/Mediciones filtradas (saque las feas)/5-15/17.4/WaveData47357.csv

#timebase=2000000(ps)
,#voltbase=100000(mv/100)
#size=4000
-8.400E-06,0.008
-8.390E-06,0.000
-8.380E-06,0.004
-8.370E-06,0.004
-8.360E-06,0.000
-8.350E-06,0.004
-8.340E-06,0.008
-8.330E-06,0.004
-8.320E-06,0.000
-8.310E-06,0.000
-8.300E-06,0.000
-8.290E-06,0.004
-8.280E-06,0.004
-8.270E-06,0.000
-8.260E-06,0.000
-8.250E-06,0.000
-8.240E-06,0.004
-8.230E-06,0.004
-8.220E-06,0.004
-8.210E-06,0.004
-8.200E-06,0.004
-8.190E-06,0.004
-8.180E-06,0.000
-8.170E-06,0.004
-8.160E-06,0.004
-8.150E-06,-0.004
-8.140E-06,0.004
-8.130E-06,0.004
-8.120E-06,0.004
-8.110E-06,0.000
-8.100E-06,0.004
-8.090E-06,0.000
-8.080E-06,0.004
-8.070E-06,-0.004
-8.060E-06,0.004
-8.050E-06,0.000
-8.040E-06,0.000
-8.030E-06,0.000
-8.020E-06,0.004
-8.010E-06,0.000
-8.000E-06,0.000
-7.990E-06,0.000
-7.980E-06,0.004
-7.970E-06,0.004
-7.960E-06,0.004
-7.950E-06,0.004
-7.940E-06,0.004
-7.930E-06,0.004
-7.920E-06,0.004
-7.910E-06,0.000
-7.900E-06,0.004
-7.890E-06,0.000
-7.880E-06,0.008
-7.870E-06,-0.004
-7.860E-06,0.004
-7.850E-06,0.004
-7.840E-06,0.004
-7.830E-06,0.000
-7.820E-06,0.004
-7.810E-06,0.000
-7.800E-06,0.000
-7.790E-06,0.004
-7.780E-06,0.004
-7.770E-06,0.000
-7.760E-06,0.004
-7.750E-06,0.004
-7.740E-06,0.004
-7.730E-06,0.004
-7.720E-06,0.004
-7.710E-06,0.000
-7.700E-06,0.004
-7.690E-06,0.000
-7.680E-06,0.004
-7.670E-06,0.004
-7.660E-06,0.008
-7.650E-06,0.000
-7.640E-06,0.000
-7.630E-06,0.004
-7.620E-06,0.000
-7.610E-06,-0.004
-7.600E-06,0.000
-7.590E-06,0.000
-7.580E-06,0.000
-7.570E-06,0.004
-7.560E-06,0.000
-7.550E-06,0.000
-7.540E-06,0.004
-7.530E-06,0.004
-7.520E-06,0.004
-7.510E-06,0.000
-7.500E-06,0.004
-7.490E-06,0.004
-7.480E-06,0.004
-7.470E-06,0.004
-7.460E-06,0.004
-7.450E-06,0.000
-7.440E-06,0.004
-7.430E-06,0.004
-7.420E-06,0.004
-7.410E-06,0.000
-7.400E-06,0.004
-7.390E-06,0.000
-7.380E-06,0.000
-7.370E-06,0.000
-7.360E-06,0.008
-7.350E-06,0.008
-7.340E-06,0.000
-7.330E-06,-0.004
-7.320E-06,0.004
-7.310E-06,0.000
-7.300E-06,0.004
-7.290E-06,0.004
-7.280E-06,0.004
-7.270E-06,0.004
-7.260E-06,0.000
-7.250E-06,0.000
-7.240E-06,0.000
-7.230E-06,0.000
-7.220E-06,0.004
-7.210E-06,0.000
-7.200E-06,0.004
-7.190E-06,0.000
-7.180E-06,0.004
-7.170E-06,0.004
-7.160E-06,0.004
-7.150E-06,0.004
-7.140E-06,0.000
-7.130E-06,0.004
-7.120E-06,0.004
-7.110E-06,0.004
-7.100E-06,0.000
-7.090E-06,0.004
-7.080E-06,-0.004
-7.070E-06,0.000
-7.060E-06,0.004
-7.050E-06,0.008
-7.040E-06,0.000
-7.030E-06,-0.004
-7.020E-06,0.004
-7.010E-06,0.008
-7.000E-06,0.000
-6.990E-06,-0.004
-6.980E-06,0.004
-6.970E-06,0.000
-6.960E-06,0.004
-6.950E-06,0.000
-6.940E-06,0.000
-6.930E-06,0.004
-6.920E-06,0.008
-6.910E-06,0.004
-6.900E-06,0.004
-6.890E-06,0.004
-6.880E-06,0.008
-6.870E-06,0.000
-6.860E-06,0.000
-6.850E-06,0.004
-6.840E-06,0.008
-6.830E-06,0.000
-6.820E-06,0.004
-6.810E-06,0.000
-6.800E-06,0.000
-6.790E-06,0.000
-6.780E-06,0.004
-6.770E-06,0.004
-6.760E-06,0.004
-6.750E-06,0.004
-6.740E-06,0.000
-6.730E-06,0.000
-6.720E-06,0.004
-6.710E-06,0.000
-6.700E-06,0.000
-6.690E-06,0.004
-6.680E-06,0.008
-6.670E-06,0.004
-6.660E-06,0.008
-6.650E-06,0.008
-6.640E-06,0.016
-6.630E-06,0.064
-6.620E-06,0.108
-6.610E-06,0.120
-6.600E-06,0.040
-6.590E-06,-0.096
-6.580E-06,-0.192
-6.570E-06,-0.236
-6.560E-06,-0.084
-6.550E-06,0.084
-6.540E-06,0.216
-6.530E-06,0.260
-6.520E-06,0.108
-6.510E-06,-0.064
-6.500E-06,-0.208
-6.490E-06,-0.216
-6.480E-06,-0.088
-6.470E-06,0.036
-6.460E-06,0.160
-6.450E-06,0.176
-6.440E-06,0.108
-6.430E-06,0.012
-6.420E-06,-0.084
-6.410E-06,-0.168
-6.400E-06,-0.172
-6.390E-06,-0.064
-6.380E-06,0.064
-6.370E-06,0.164
-6.360E-06,0.192
-6.350E-06,0.124
-6.340E-06,-0.024
-6.330E-06,-0.128
-6.320E-06,-0.164
-6.310E-06,-0.112
-6.300E-06,0.008
-6.290E-06,0.132
-6.280E-06,0.176
-6.270E-06,0.112
-6.260E-06,0.000
-6.250E-06,-0.112
-6.240E-06,-0.156
-6.230E-06,-0.124
-6.220E-06,-0.020
-6.210E-06,0.080
-6.200E-06,0.132
-6.190E-06,0.124
-6.180E-06,0.056
-6.170E-06,-0.008
-6.160E-06,-0.072
-6.150E-06,-0.072
-6.140E-06,-0.040
-6.130E-06,0.024
-6.120E-06,0.064
-6.110E-06,0.088
-6.100E-06,0.068
-6.090E-06,0.012
-6.080E-06,-0.044
-6.070E-06,-0.068
-6.060E-06,-0.060
-6.050E-06,-0.024
-6.040E-06,0.032
-6.030E-06,0.072
-6.020E-06,0.084
-6.010E-06,0.048
-6.000E-06,-0.004
-5.990E-06,-0.040
-5.980E-06,-0.056
-5.970E-06,-0.024
-5.960E-06,0.020
-5.950E-06,0.060
-5.940E-06,0.060
-5.930E-06,0.028
-5.920E-06,0.000
-5.910E-06,-0.032
-5.900E-06,-0.036
-5.890E-06,-0.020
-5.880E-06,0.012
-5.870E-06,0.044
-5.860E-06,0.044
-5.850E-06,0.032
-5.840E-06,0.024
-5.830E-06,-0.004
-5.820E-06,-0.004
-5.810E-06,0.000
-5.800E-06,0.012
-5.790E-06,0.024
-5.780E-06,0.036
-5.770E-06,0.028
-5.760E-06,0.020
-5.750E-06,0.012
-5.740E-06,0.004
-5.730E-06,0.008
-5.720E-06,0.024
-5.710E-06,0.032
-5.700E-06,0.052
-5.690E-06,0.052
-5.680E-06,0.044
-5.670E-06,0.028
-5.660E-06,0.020
-5.650E-06,0.024
-5.640E-06,0.036
-5.630E-06,0.056
-5.620E-06,0.072
-5.610E-06,0.080
-5.600E-06,0.072
-5.590E-06,0.056
-5.580E-06,0.004
-5.570E-06,-0.068
-5.560E-06,-0.108
-5.550E-06,-0.088
-5.540E-06,-0.016
-5.530E-06,0.084
-5.520E-06,0.152
-5.510E-06,0.140
-5.500E-06,0.060
-5.490E-06,-0.008
-5.480E-06,-0.044
-5.470E-06,-0.068
-5.460E-06,-0.072
-5.450E-06,-0.100
-5.440E-06,-0.068
-5.430E-06,-0.024
-5.420E-06,0.016
-5.410E-06,0.044
-5.400E-06,0.068
-5.390E-06,0.052
-5.380E-06,-0.024
-5.370E-06,-0.084
-5.360E-06,-0.088
-5.350E-06,-0.028
-5.340E-06,0.036
-5.330E-06,0.088
-5.320E-06,0.064
-5.310E-06,0.000
-5.300E-06,-0.060
-5.290E-06,-0.040
-5.280E-06,0.028
-5.270E-06,0.112
-5.260E-06,0.032
-5.250E-06,-0.108
-5.240E-06,-0.232
-5.230E-06,-0.204
-5.220E-06,-0.040
-5.210E-06,0.144
-5.200E-06,0.228
-5.190E-06,0.108
-5.180E-06,-0.032
-5.170E-06,-0.168
-5.160E-06,-0.164
-5.150E-06,-0.068
-5.140E-06,0.092
-5.130E-06,0.208
-5.120E-06,0.140
-5.110E-06,0.012
-5.100E-06,-0.072
-5.090E-06,-0.060
-5.080E-06,-0.068
-5.070E-06,-0.096
-5.060E-06,-0.124
-5.050E-06,-0.084
-5.040E-06,-0.036
-5.030E-06,0.060
-5.020E-06,0.144
-5.010E-06,0.108
-5.000E-06,0.028
-4.990E-06,-0.088
-4.980E-06,-0.132
-4.970E-06,-0.108
-4.960E-06,-0.004
-4.950E-06,0.088
-4.940E-06,0.128
-4.930E-06,0.084
-4.920E-06,0.004
-4.910E-06,-0.068
-4.900E-06,-0.100
-4.890E-06,-0.040
-4.880E-06,0.056
-4.870E-06,0.128
-4.860E-06,0.104
-4.850E-06,0.040
-4.840E-06,-0.044
-4.830E-06,-0.096
-4.820E-06,-0.096
-4.810E-06,-0.056
-4.800E-06,0.044
-4.790E-06,0.080
-4.780E-06,0.072
-4.770E-06,0.024
-4.760E-06,-0.012
-4.750E-06,-0.052
-4.740E-06,-0.076
-4.730E-06,-0.036
-4.720E-06,0.036
-4.710E-06,0.096
-4.700E-06,0.104
-4.690E-06,0.076
-4.680E-06,0.012
-4.670E-06,-0.032
-4.660E-06,-0.048
-4.650E-06,-0.012
-4.640E-06,0.056
-4.630E-06,0.140
-4.620E-06,0.172
-4.610E-06,0.128
-4.600E-06,-0.004
-4.590E-06,-0.140
-4.580E-06,-0.176
-4.570E-06,-0.176
-4.560E-06,-0.060
-4.550E-06,0.048
-4.540E-06,0.124
-4.530E-06,0.132
-4.520E-06,0.088
-4.510E-06,-0.020
-4.500E-06,-0.096
-4.490E-06,-0.084
-4.480E-06,-0.012
-4.470E-06,0.056
-4.460E-06,0.088
-4.450E-06,0.068
-4.440E-06,-0.012
-4.430E-06,-0.056
-4.420E-06,-0.044
-4.410E-06,-0.008
-4.400E-06,0.004
-4.390E-06,0.024
-4.380E-06,0.024
-4.370E-06,0.008
-4.360E-06,0.012
-4.350E-06,0.008
-4.340E-06,0.012
-4.330E-06,0.028
-4.320E-06,0.036
-4.310E-06,0.044
-4.300E-06,0.048
-4.290E-06,0.044
-4.280E-06,0.060
-4.270E-06,0.056
-4.260E-06,0.068
-4.250E-06,0.040
-4.240E-06,0.004
-4.230E-06,-0.088
-4.220E-06,-0.328
-4.210E-06,-0.256
-4.200E-06,-0.196
-4.190E-06,0.004
-4.180E-06,0.188
-4.170E-06,0.316
-4.160E-06,0.164
-4.150E-06,-0.128
-4.140E-06,-0.244
-4.130E-06,-0.256
-4.120E-06,-0.024
-4.110E-06,0.156
-4.100E-06,0.240
-4.090E-06,0.164
-4.080E-06,0.068
-4.070E-06,-0.092
-4.060E-06,-0.156
-4.050E-06,-0.172
-4.040E-06,-0.128
-4.030E-06,-0.036
-4.020E-06,0.028
-4.010E-06,0.088
-4.000E-06,0.084
-3.990E-06,0.020
-3.980E-06,-0.056
-3.970E-06,-0.056
-3.960E-06,-0.036
-3.950E-06,-0.012
-3.940E-06,0.016
-3.930E-06,0.032
-3.920E-06,0.028
-3.910E-06,0.028
-3.900E-06,0.024
-3.890E-06,-0.008
-3.880E-06,-0.024
-3.870E-06,-0.036
-3.860E-06,-0.024
-3.850E-06,0.008
-3.840E-06,0.032
-3.830E-06,0.028
-3.820E-06,0.020
-3.810E-06,0.020
-3.800E-06,0.012
-3.790E-06,0.004
-3.780E-06,-0.012
-3.770E-06,-0.008
-3.760E-06,-0.020
-3.750E-06,-0.004
-3.740E-06,0.012
-3.730E-06,0.036
-3.720E-06,0.048
-3.710E-06,0.036
-3.700E-06,0.004
-3.690E-06,-0.020
-3.680E-06,-0.036
-3.670E-06,-0.020
-3.660E-06,0.008
-3.650E-06,0.040
-3.640E-06,0.044
-3.630E-06,0.040
-3.620E-06,0.024
-3.610E-06,0.008
-3.600E-06,0.004
-3.590E-06,-0.008
-3.580E-06,0.008
-3.570E-06,0.040
-3.560E-06,0.076
-3.550E-06,0.092
-3.540E-06,0.104
-3.530E-06,0.092
-3.520E-06,0.040
-3.510E-06,-0.004
-3.500E-06,-0.072
-3.490E-06,-0.124
-3.480E-06,-0.108
-3.470E-06,-0.040
-3.460E-06,-0.044
-3.450E-06,0.068
-3.440E-06,0.028
-3.430E-06,-0.020
-3.420E-06,-0.012
-3.410E-06,0.052
-3.400E-06,0.004
-3.390E-06,-0.108
-3.380E-06,-0.080
-3.370E-06,-0.016
-3.360E-06,0.080
-3.350E-06,0.104
-3.340E-06,0.092
-3.330E-06,-0.012
-3.320E-06,-0.068
-3.310E-06,-0.092
-3.300E-06,-0.060
-3.290E-06,0.040
-3.280E-06,0.128
-3.270E-06,0.140
-3.260E-06,0.044
-3.250E-06,-0.068
-3.240E-06,-0.196
-3.230E-06,-0.188
-3.220E-06,-0.060
-3.210E-06,0.112
-3.200E-06,0.236
-3.190E-06,0.216
-3.180E-06,0.096
-3.170E-06,-0.088
-3.160E-06,-0.208
-3.150E-06,-0.236
-3.140E-06,-0.136
-3.130E-06,0.032
-3.120E-06,0.212
-3.110E-06,0.256
-3.100E-06,0.108
-3.090E-06,-0.072
-3.080E-06,-0.204
-3.070E-06,-0.176
-3.060E-06,-0.052
-3.050E-06,0.104
-3.040E-06,0.168
-3.030E-06,0.144
-3.020E-06,0.060
-3.010E-06,-0.024
-3.000E-06,-0.056
-2.990E-06,-0.036
-2.980E-06,0.036
-2.970E-06,0.108
-2.960E-06,0.164
-2.950E-06,0.148
-2.940E-06,0.056
-2.930E-06,-0.084
-2.920E-06,-0.192
-2.910E-06,-0.200
-2.900E-06,-0.128
-2.890E-06,0.004
-2.880E-06,0.132
-2.870E-06,0.208
-2.860E-06,0.164
-2.850E-06,0.028
-2.840E-06,-0.120
-2.830E-06,-0.192
-2.820E-06,-0.144
-2.810E-06,-0.004
-2.800E-06,0.108
-2.790E-06,0.136
-2.780E-06,0.092
-2.770E-06,0.004
-2.760E-06,-0.100
-2.750E-06,-0.148
-2.740E-06,-0.100
-2.730E-06,-0.012
-2.720E-06,0.080
-2.710E-06,0.124
-2.700E-06,0.120
-2.690E-06,0.044
-2.680E-06,-0.040
-2.670E-06,-0.092
-2.660E-06,-0.080
-2.650E-06,-0.032
-2.640E-06,0.044
-2.630E-06,0.108
-2.620E-06,0.124
-2.610E-06,0.096
-2.600E-06,0.028
-2.590E-06,-0.012
-2.580E-06,-0.028
-2.570E-06,0.008
-2.560E-06,0.064
-2.550E-06,0.120
-2.540E-06,0.132
-2.530E-06,0.120
-2.520E-06,0.068
-2.510E-06,0.028
-2.500E-06,0.000
-2.490E-06,0.008
-2.480E-06,0.036
-2.470E-06,0.072
-2.460E-06,0.072
-2.450E-06,0.044
-2.440E-06,0.016
-2.430E-06,-0.020
-2.420E-06,-0.056
-2.410E-06,-0.060
-2.400E-06,-0.036
-2.390E-06,-0.012
-2.380E-06,-0.004
-2.370E-06,0.000
-2.360E-06,0.012
-2.350E-06,0.016
-2.340E-06,-0.008
-2.330E-06,-0.036
-2.320E-06,-0.024
-2.310E-06,-0.044
-2.300E-06,-0.040
-2.290E-06,0.012
-2.280E-06,0.060
-2.270E-06,0.040
-2.260E-06,0.004
-2.250E-06,-0.032
-2.240E-06,-0.060
-2.230E-06,-0.068
-2.220E-06,-0.044
-2.210E-06,-0.012
-2.200E-06,0.036
-2.190E-06,0.060
-2.180E-06,0.048
-2.170E-06,0.056
-2.160E-06,0.036
-2.150E-06,0.040
-2.140E-06,0.028
-2.130E-06,0.056
-2.120E-06,0.052
-2.110E-06,0.076
-2.100E-06,0.136
-2.090E-06,0.152
-2.080E-06,0.140
-2.070E-06,0.100
-2.060E-06,0.060
-2.050E-06,0.028
-2.040E-06,0.048
-2.030E-06,0.072
-2.020E-06,0.104
-2.010E-06,0.136
-2.000E-06,0.128
-1.990E-06,0.104
-1.980E-06,-0.004
-1.970E-06,-0.216
-1.960E-06,-0.404
-1.950E-06,-0.468
-1.940E-06,-0.372
-1.930E-06,-0.152
-1.920E-06,0.096
-1.910E-06,0.292
-1.900E-06,0.260
-1.890E-06,0.080
-1.880E-06,-0.124
-1.870E-06,-0.244
-1.860E-06,-0.180
-1.850E-06,-0.012
-1.840E-06,0.152
-1.830E-06,0.216
-1.820E-06,0.172
-1.810E-06,0.044
-1.800E-06,-0.040
-1.790E-06,-0.032
-1.780E-06,0.000
-1.770E-06,0.068
-1.760E-06,0.144
-1.750E-06,0.168
-1.740E-06,0.104
-1.730E-06,0.024
-1.720E-06,-0.052
-1.710E-06,-0.088
-1.700E-06,-0.056
-1.690E-06,0.072
-1.680E-06,0.168
-1.670E-06,0.164
-1.660E-06,0.032
-1.650E-06,-0.176
-1.640E-06,-0.348
-1.630E-06,-0.320
-1.620E-06,-0.088
-1.610E-06,0.152
-1.600E-06,0.288
-1.590E-06,0.176
-1.580E-06,-0.036
-1.570E-06,-0.232
-1.560E-06,-0.232
-1.550E-06,-0.124
-1.540E-06,0.012
-1.530E-06,0.108
-1.520E-06,0.160
-1.510E-06,0.140
-1.500E-06,0.032
-1.490E-06,-0.036
-1.480E-06,-0.080
-1.470E-06,-0.052
-1.460E-06,0.060
-1.450E-06,0.192
-1.440E-06,0.260
-1.430E-06,0.272
-1.420E-06,0.212
-1.410E-06,0.120
-1.400E-06,0.040
-1.390E-06,0.028
-1.380E-06,0.044
-1.370E-06,-0.164
-1.360E-06,-0.248
-1.350E-06,-0.512
-1.340E-06,-0.496
-1.330E-06,-0.092
-1.320E-06,0.124
-1.310E-06,0.204
-1.300E-06,0.176
-1.290E-06,0.140
-1.280E-06,-0.248
-1.270E-06,-0.336
-1.260E-06,-0.288
-1.250E-06,-0.132
-1.240E-06,0.168
-1.230E-06,0.360
-1.220E-06,0.356
-1.210E-06,0.052
-1.200E-06,-0.172
-1.190E-06,-0.364
-1.180E-06,-0.260
-1.170E-06,-0.072
-1.160E-06,0.276
-1.150E-06,0.456
-1.140E-06,0.480
-1.130E-06,0.256
-1.120E-06,-0.056
-1.110E-06,-0.228
-1.100E-06,-0.248
-1.090E-06,-0.048
-1.080E-06,0.160
-1.070E-06,0.292
-1.060E-06,0.216
-1.050E-06,0.036
-1.040E-06,-0.108
-1.030E-06,-0.132
-1.020E-06,-0.140
-1.010E-06,-0.124
-1.000E-06,-0.108
-9.900E-07,-0.088
-9.800E-07,-0.044
-9.700E-07,-0.020
-9.600E-07,-0.004
-9.500E-07,-0.128
-9.400E-07,-0.108
-9.300E-07,-0.072
-9.200E-07,0.060
-9.100E-07,0.104
-9.000E-07,0.088
-8.900E-07,0.004
-8.800E-07,-0.064
-8.700E-07,-0.072
-8.600E-07,-0.076
-8.500E-07,-0.024
-8.400E-07,0.016
-8.300E-07,0.088
-8.200E-07,0.108
-8.100E-07,0.092
-8.000E-07,0.032
-7.900E-07,0.024
-7.800E-07,0.052
-7.700E-07,0.092
-7.600E-07,0.168
-7.500E-07,0.220
-7.400E-07,0.224
-7.300E-07,0.160
-7.200E-07,0.048
-7.100E-07,-0.060
-7.000E-07,-0.128
-6.900E-07,-0.112
-6.800E-07,-0.012
-6.700E-07,0.148
-6.600E-07,0.292
-6.500E-07,0.336
-6.400E-07,0.232
-6.300E-07,-0.008
-6.200E-07,-0.320
-6.100E-07,-0.512
-6.000E-07,-0.484
-5.900E-07,-0.280
-5.800E-07,0.044
-5.700E-07,0.364
-5.600E-07,0.444
-5.500E-07,0.232
-5.400E-07,-0.180
-5.300E-07,-0.452
-5.200E-07,-0.456
-5.100E-07,-0.104
-5.000E-07,0.256
-4.900E-07,0.472
-4.800E-07,0.448
-4.700E-07,0.176
-4.600E-07,-0.156
-4.500E-07,-0.324
-4.400E-07,-0.232
-4.300E-07,-0.036
-4.200E-07,0.268
-4.100E-07,0.444
-4.000E-07,0.412
-3.900E-07,0.192
-3.800E-07,-0.068
-3.700E-07,-0.232
-3.600E-07,-0.176
-3.500E-07,0.028
-3.400E-07,0.292
-3.300E-07,0.484
-3.200E-07,0.456
-3.100E-07,0.292
-3.000E-07,0.080
-2.900E-07,-0.044
-2.800E-07,-0.032
-2.700E-07,0.120
-2.600E-07,0.284
-2.500E-07,0.388
-2.400E-07,0.372
-2.300E-07,0.260
-2.200E-07,0.104
-2.100E-07,0.004
-2.000E-07,0.008
-1.900E-07,0.108
-1.800E-07,0.244
-1.700E-07,0.320
-1.600E-07,0.328
-1.500E-07,0.248
-1.400E-07,0.140
-1.300E-07,0.044
-1.200E-07,0.028
-1.100E-07,0.084
-1.000E-07,0.140
-9.000E-08,0.100
-8.000E-08,-0.284
-7.000E-08,-0.508
-6.000E-08,-0.508
-5.000E-08,-0.508
-4.000E-08,-0.512
-3.000E-08,-0.512
-2.000E-08,-0.112
-1.000E-08,0.540
0.000E+00,0.540
1.000E-08,0.544
2.000E-08,-0.068
3.000E-08,-0.512
4.000E-08,-0.512
5.000E-08,-0.508
6.000E-08,0.092
7.000E-08,0.540
8.000E-08,0.540
9.000E-08,0.348
1.000E-07,-0.196
1.100E-07,-0.512
1.200E-07,-0.512
1.300E-07,-0.248
1.400E-07,0.164
1.500E-07,0.440
1.600E-07,0.440
1.700E-07,0.156
1.800E-07,-0.164
1.900E-07,-0.408
2.000E-07,-0.424
2.100E-07,-0.176
2.200E-07,0.156
2.300E-07,0.388
2.400E-07,0.412
2.500E-07,0.208
2.600E-07,-0.092
2.700E-07,-0.304
2.800E-07,-0.316
2.900E-07,-0.112
3.000E-07,0.144
3.100E-07,0.340
3.200E-07,0.320
3.300E-07,0.180
3.400E-07,-0.028
3.500E-07,-0.140
3.600E-07,-0.108
3.700E-07,0.036
3.800E-07,0.228
3.900E-07,0.344
4.000E-07,0.356
4.100E-07,0.232
4.200E-07,0.104
4.300E-07,0.012
4.400E-07,0.048
4.500E-07,0.172
4.600E-07,0.328
4.700E-07,0.408
4.800E-07,0.388
4.900E-07,0.300
5.000E-07,0.184
5.100E-07,0.128
5.200E-07,0.136
5.300E-07,0.220
5.400E-07,0.300
5.500E-07,0.360
5.600E-07,0.356
5.700E-07,0.280
5.800E-07,0.200
5.900E-07,0.148
6.000E-07,0.160
6.100E-07,0.212
6.200E-07,0.280
6.300E-07,0.316
6.400E-07,0.316
6.500E-07,0.272
6.600E-07,0.224
6.700E-07,0.192
6.800E-07,0.072
6.900E-07,-0.004
7.000E-07,0.008
7.100E-07,0.064
7.200E-07,0.204
7.300E-07,0.316
7.400E-07,0.376
7.500E-07,0.252
7.600E-07,0.032
7.700E-07,-0.512
7.800E-07,-0.512
7.900E-07,-0.508
8.000E-07,-0.508
8.100E-07,-0.508
8.200E-07,0.156
8.300E-07,0.536
8.400E-07,0.204
8.500E-07,-0.512
8.600E-07,-0.512
8.700E-07,-0.508
8.800E-07,-0.508
8.900E-07,-0.004
9.000E-07,0.540
9.100E-07,0.540
9.200E-07,0.540
9.300E-07,-0.004
9.400E-07,-0.512
9.500E-07,-0.508
9.600E-07,-0.512
9.700E-07,-0.320
9.800E-07,0.240
9.900E-07,0.540
1.000E-06,0.536
1.010E-06,0.476
1.020E-06,0.000
1.030E-06,-0.368
1.040E-06,-0.480
1.050E-06,-0.156
1.060E-06,0.264
1.070E-06,0.540
1.080E-06,0.540
1.090E-06,0.540
1.100E-06,0.204
1.110E-06,-0.088
1.120E-06,-0.200
1.130E-06,-0.088
1.140E-06,0.200
1.150E-06,0.456
1.160E-06,0.540
1.170E-06,0.500
1.180E-06,0.308
1.190E-06,0.056
1.200E-06,-0.064
1.210E-06,-0.032
1.220E-06,0.156
1.230E-06,0.380
1.240E-06,0.520
1.250E-06,0.524
1.260E-06,0.364
1.270E-06,0.188
1.280E-06,0.016
1.290E-06,-0.008
1.300E-06,0.060
1.310E-06,0.224
1.320E-06,0.372
1.330E-06,0.436
1.340E-06,0.408
1.350E-06,0.284
1.360E-06,0.160
1.370E-06,0.052
1.380E-06,0.052
1.390E-06,0.120
1.400E-06,0.240
1.410E-06,0.340
1.420E-06,0.384
1.430E-06,0.328
1.440E-06,0.200
1.450E-06,0.076
1.460E-06,0.000
1.470E-06,0.016
1.480E-06,0.072
1.490E-06,0.144
1.500E-06,0.184
1.510E-06,0.220
1.520E-06,0.224
1.530E-06,0.228
1.540E-06,0.108
1.550E-06,-0.044
1.560E-06,-0.208
1.570E-06,-0.336
1.580E-06,-0.304
1.590E-06,-0.144
1.600E-06,0.084
1.610E-06,0.296
1.620E-06,0.416
1.630E-06,0.344
1.640E-06,0.160
1.650E-06,-0.072
1.660E-06,-0.212
1.670E-06,-0.200
1.680E-06,0.052
1.690E-06,0.364
1.700E-06,0.540
1.710E-06,0.496
1.720E-06,0.260
1.730E-06,-0.048
1.740E-06,-0.208
1.750E-06,-0.168
1.760E-06,0.076
1.770E-06,0.388
1.780E-06,0.540
1.790E-06,0.536
1.800E-06,0.360
1.810E-06,0.032
1.820E-06,-0.196
1.830E-06,-0.264
1.840E-06,-0.152
1.850E-06,-0.024
1.860E-06,0.044
1.870E-06,-0.028
1.880E-06,-0.192
1.890E-06,-0.392
1.900E-06,-0.492
1.910E-06,-0.496
1.920E-06,-0.400
1.930E-06,-0.332
1.940E-06,-0.280
1.950E-06,-0.240
1.960E-06,-0.156
1.970E-06,-0.040
1.980E-06,0.108
1.990E-06,0.192
2.000E-06,0.228
2.010E-06,0.272
2.020E-06,0.288
2.030E-06,0.288
2.040E-06,0.236
2.050E-06,0.236
2.060E-06,0.272
2.070E-06,0.356
2.080E-06,0.376
2.090E-06,0.344
2.100E-06,0.248
2.110E-06,0.168
2.120E-06,0.140
2.130E-06,0.164
2.140E-06,0.228
2.150E-06,0.308
2.160E-06,0.360
2.170E-06,0.352
2.180E-06,0.304
2.190E-06,0.212
2.200E-06,0.164
2.210E-06,0.152
2.220E-06,0.204
2.230E-06,0.276
2.240E-06,0.336
2.250E-06,0.356
2.260E-06,0.324
2.270E-06,0.264
2.280E-06,0.192
2.290E-06,0.160
2.300E-06,0.172
2.310E-06,0.220
2.320E-06,0.276
2.330E-06,0.300
2.340E-06,0.284
2.350E-06,0.240
2.360E-06,0.192
2.370E-06,0.144
2.380E-06,0.152
2.390E-06,0.192
2.400E-06,0.248
2.410E-06,0.288
2.420E-06,0.296
2.430E-06,0.276
2.440E-06,0.224
2.450E-06,0.188
2.460E-06,0.176
2.470E-06,0.188
2.480E-06,0.224
2.490E-06,0.260
2.500E-06,0.276
2.510E-06,0.272
2.520E-06,0.240
2.530E-06,0.204
2.540E-06,0.176
2.550E-06,0.180
2.560E-06,0.208
2.570E-06,0.240
2.580E-06,0.264
2.590E-06,0.264
2.600E-06,0.244
2.610E-06,0.220
2.620E-06,0.196
2.630E-06,0.180
2.640E-06,0.192
2.650E-06,0.216
2.660E-06,0.236
2.670E-06,0.236
2.680E-06,0.228
2.690E-06,0.208
2.700E-06,0.196
2.710E-06,0.184
2.720E-06,0.192
2.730E-06,0.208
2.740E-06,0.224
2.750E-06,0.240
2.760E-06,0.236
2.770E-06,0.224
2.780E-06,0.212
2.790E-06,0.200
2.800E-06,0.192
2.810E-06,0.204
2.820E-06,0.212
2.830E-06,0.224
2.840E-06,0.224
2.850E-06,0.216
2.860E-06,0.208
2.870E-06,0.192
2.880E-06,0.192
2.890E-06,0.196
2.900E-06,0.204
2.910E-06,0.216
2.920E-06,0.224
2.930E-06,0.220
2.940E-06,0.204
2.950E-06,0.200
2.960E-06,0.188
2.970E-06,0.192
2.980E-06,0.200
2.990E-06,0.204
3.000E-06,0.208
3.010E-06,0.204
3.020E-06,0.204
3.030E-06,0.196
3.040E-06,0.188
3.050E-06,0.192
3.060E-06,0.192
3.070E-06,0.208
3.080E-06,0.212
3.090E-06,0.208
3.100E-06,0.212
3.110E-06,0.200
3.120E-06,0.196
3.130E-06,0.200
3.140E-06,0.192
3.150E-06,0.200
3.160E-06,0.204
3.170E-06,0.200
3.180E-06,0.200
3.190E-06,0.196
3.200E-06,0.192
3.210E-06,0.188
3.220E-06,0.192
3.230E-06,0.196
3.240E-06,0.192
3.250E-06,0.200
3.260E-06,0.196
3.270E-06,0.192
3.280E-06,0.192
3.290E-06,0.192
3.300E-06,0.188
