mediciones/Mediciones filtradas (saque las feas)/5-15/17.4/WaveData47361.csv

#timebase=2000000(ps)
,#voltbase=100000(mv/100)
#size=4000
-8.400E-06,-0.004
-8.390E-06,-0.008
-8.380E-06,0.000
-8.370E-06,0.004
-8.360E-06,0.004
-8.350E-06,0.008
-8.340E-06,0.004
-8.330E-06,0.000
-8.320E-06,0.000
-8.310E-06,-0.004
-8.300E-06,0.000
-8.290E-06,0.000
-8.280E-06,0.008
-8.270E-06,0.008
-8.260E-06,0.004
-8.250E-06,0.004
-8.240E-06,0.008
-8.230E-06,0.008
-8.220E-06,0.004
-8.210E-06,0.004
-8.200E-06,-0.004
-8.190E-06,0.000
-8.180E-06,0.000
-8.170E-06,0.008
-8.160E-06,0.008
-8.150E-06,0.008
-8.140E-06,0.008
-8.130E-06,0.000
-8.120E-06,-0.008
-8.110E-06,0.000
-8.100E-06,0.004
-8.090E-06,0.004
-8.080E-06,0.008
-8.070E-06,0.004
-8.060E-06,0.000
-8.050E-06,-0.004
-8.040E-06,0.000
-8.030E-06,-0.004
-8.020E-06,0.000
-8.010E-06,0.008
-8.000E-06,0.004
-7.990E-06,0.004
-7.980E-06,0.004
-7.970E-06,0.004
-7.960E-06,0.004
-7.950E-06,0.000
-7.940E-06,0.000
-7.930E-06,0.004
-7.920E-06,0.008
-7.910E-06,0.008
-7.900E-06,0.004
-7.890E-06,0.008
-7.880E-06,0.000
-7.870E-06,0.000
-7.860E-06,0.000
-7.850E-06,0.004
-7.840E-06,0.000
-7.830E-06,0.008
-7.820E-06,0.004
-7.810E-06,0.004
-7.800E-06,0.000
-7.790E-06,0.000
-7.780E-06,-0.004
-7.770E-06,0.004
-7.760E-06,0.004
-7.750E-06,0.004
-7.740E-06,0.004
-7.730E-06,0.000
-7.720E-06,0.000
-7.710E-06,0.000
-7.700E-06,-0.004
-7.690E-06,-0.004
-7.680E-06,0.004
-7.670E-06,0.004
-7.660E-06,0.004
-7.650E-06,0.008
-7.640E-06,0.008
-7.630E-06,0.012
-7.620E-06,0.000
-7.610E-06,-0.004
-7.600E-06,0.000
-7.590E-06,0.008
-7.580E-06,0.012
-7.570E-06,0.004
-7.560E-06,0.008
-7.550E-06,0.004
-7.540E-06,0.004
-7.530E-06,0.004
-7.520E-06,-0.004
-7.510E-06,-0.004
-7.500E-06,0.000
-7.490E-06,0.004
-7.480E-06,0.008
-7.470E-06,0.008
-7.460E-06,0.012
-7.450E-06,0.004
-7.440E-06,-0.004
-7.430E-06,-0.004
-7.420E-06,-0.004
-7.410E-06,0.000
-7.400E-06,0.004
-7.390E-06,0.004
-7.380E-06,0.008
-7.370E-06,0.000
-7.360E-06,0.000
-7.350E-06,-0.004
-7.340E-06,0.004
-7.330E-06,0.000
-7.320E-06,0.004
-7.310E-06,0.004
-7.300E-06,0.004
-7.290E-06,0.000
-7.280E-06,0.004
-7.270E-06,0.008
-7.260E-06,0.004
-7.250E-06,0.004
-7.240E-06,0.000
-7.230E-06,-0.004
-7.220E-06,0.004
-7.210E-06,0.016
-7.200E-06,0.000
-7.190E-06,0.004
-7.180E-06,0.004
-7.170E-06,0.000
-7.160E-06,-0.004
-7.150E-06,0.004
-7.140E-06,0.000
-7.130E-06,0.000
-7.120E-06,0.000
-7.110E-06,0.000
-7.100E-06,0.000
-7.090E-06,0.004
-7.080E-06,0.008
-7.070E-06,0.000
-7.060E-06,0.000
-7.050E-06,0.000
-7.040E-06,0.008
-7.030E-06,0.000
-7.020E-06,0.008
-7.010E-06,0.004
-7.000E-06,0.004
-6.990E-06,0.004
-6.980E-06,0.008
-6.970E-06,0.008
-6.960E-06,0.008
-6.950E-06,0.008
-6.940E-06,0.012
-6.930E-06,-0.004
-6.920E-06,-0.004
-6.910E-06,-0.004
-6.900E-06,0.004
-6.890E-06,0.008
-6.880E-06,0.012
-6.870E-06,0.008
-6.860E-06,0.004
-6.850E-06,-0.004
-6.840E-06,0.000
-6.830E-06,-0.004
-6.820E-06,0.008
-6.810E-06,0.008
-6.800E-06,0.004
-6.790E-06,0.004
-6.780E-06,0.004
-6.770E-06,0.000
-6.760E-06,-0.004
-6.750E-06,-0.004
-6.740E-06,0.000
-6.730E-06,0.016
-6.720E-06,0.012
-6.710E-06,0.008
-6.700E-06,0.004
-6.690E-06,0.000
-6.680E-06,-0.004
-6.670E-06,-0.004
-6.660E-06,0.000
-6.650E-06,0.004
-6.640E-06,0.008
-6.630E-06,0.008
-6.620E-06,0.008
-6.610E-06,0.004
-6.600E-06,0.004
-6.590E-06,-0.004
-6.580E-06,-0.004
-6.570E-06,0.008
-6.560E-06,0.004
-6.550E-06,0.000
-6.540E-06,0.004
-6.530E-06,0.004
-6.520E-06,0.004
-6.510E-06,0.008
-6.500E-06,0.008
-6.490E-06,0.004
-6.480E-06,0.004
-6.470E-06,0.004
-6.460E-06,0.008
-6.450E-06,0.012
-6.440E-06,0.004
-6.430E-06,0.004
-6.420E-06,0.000
-6.410E-06,0.000
-6.400E-06,0.004
-6.390E-06,0.000
-6.380E-06,0.008
-6.370E-06,0.004
-6.360E-06,0.008
-6.350E-06,0.000
-6.340E-06,-0.004
-6.330E-06,0.000
-6.320E-06,-0.004
-6.310E-06,0.004
-6.300E-06,0.004
-6.290E-06,0.004
-6.280E-06,0.004
-6.270E-06,0.000
-6.260E-06,0.004
-6.250E-06,0.000
-6.240E-06,0.008
-6.230E-06,0.000
-6.220E-06,0.000
-6.210E-06,0.004
-6.200E-06,0.000
-6.190E-06,0.004
-6.180E-06,0.008
-6.170E-06,-0.004
-6.160E-06,-0.004
-6.150E-06,0.000
-6.140E-06,-0.004
-6.130E-06,0.004
-6.120E-06,0.012
-6.110E-06,0.008
-6.100E-06,0.008
-6.090E-06,0.000
-6.080E-06,-0.004
-6.070E-06,0.000
-6.060E-06,0.004
-6.050E-06,0.008
-6.040E-06,0.008
-6.030E-06,0.008
-6.020E-06,0.004
-6.010E-06,-0.004
-6.000E-06,0.000
-5.990E-06,0.000
-5.980E-06,0.004
-5.970E-06,0.008
-5.960E-06,0.008
-5.950E-06,0.004
-5.940E-06,0.008
-5.930E-06,0.004
-5.920E-06,0.004
-5.910E-06,-0.004
-5.900E-06,0.000
-5.890E-06,0.000
-5.880E-06,0.004
-5.870E-06,0.008
-5.860E-06,0.004
-5.850E-06,0.000
-5.840E-06,0.000
-5.830E-06,-0.004
-5.820E-06,0.004
-5.810E-06,0.004
-5.800E-06,0.008
-5.790E-06,0.004
-5.780E-06,0.000
-5.770E-06,-0.004
-5.760E-06,0.000
-5.750E-06,0.008
-5.740E-06,0.008
-5.730E-06,0.012
-5.720E-06,0.012
-5.710E-06,0.000
-5.700E-06,-0.004
-5.690E-06,-0.004
-5.680E-06,0.000
-5.670E-06,0.012
-5.660E-06,0.008
-5.650E-06,0.008
-5.640E-06,0.000
-5.630E-06,0.000
-5.620E-06,0.004
-5.610E-06,-0.004
-5.600E-06,0.004
-5.590E-06,0.008
-5.580E-06,0.012
-5.570E-06,0.000
-5.560E-06,0.000
-5.550E-06,0.008
-5.540E-06,0.008
-5.530E-06,0.008
-5.520E-06,0.004
-5.510E-06,-0.004
-5.500E-06,0.000
-5.490E-06,-0.004
-5.480E-06,0.004
-5.470E-06,0.012
-5.460E-06,0.012
-5.450E-06,0.008
-5.440E-06,0.000
-5.430E-06,0.000
-5.420E-06,-0.004
-5.410E-06,-0.004
-5.400E-06,-0.004
-5.390E-06,0.008
-5.380E-06,0.008
-5.370E-06,0.008
-5.360E-06,0.012
-5.350E-06,0.004
-5.340E-06,-0.008
-5.330E-06,-0.008
-5.320E-06,-0.008
-5.310E-06,0.008
-5.300E-06,0.012
-5.290E-06,0.012
-5.280E-06,0.004
-5.270E-06,0.000
-5.260E-06,0.000
-5.250E-06,-0.004
-5.240E-06,0.000
-5.230E-06,-0.004
-5.220E-06,0.000
-5.210E-06,0.008
-5.200E-06,0.016
-5.190E-06,0.016
-5.180E-06,0.004
-5.170E-06,-0.004
-5.160E-06,-0.004
-5.150E-06,-0.004
-5.140E-06,-0.004
-5.130E-06,0.008
-5.120E-06,0.012
-5.110E-06,0.012
-5.100E-06,0.004
-5.090E-06,0.004
-5.080E-06,0.000
-5.070E-06,-0.004
-5.060E-06,0.000
-5.050E-06,0.000
-5.040E-06,0.004
-5.030E-06,0.000
-5.020E-06,0.004
-5.010E-06,0.008
-5.000E-06,0.004
-4.990E-06,0.000
-4.980E-06,0.000
-4.970E-06,0.000
-4.960E-06,0.004
-4.950E-06,0.004
-4.940E-06,0.004
-4.930E-06,0.004
-4.920E-06,0.004
-4.910E-06,0.000
-4.900E-06,0.004
-4.890E-06,0.008
-4.880E-06,-0.004
-4.870E-06,0.000
-4.860E-06,0.004
-4.850E-06,0.004
-4.840E-06,0.004
-4.830E-06,0.004
-4.820E-06,0.004
-4.810E-06,0.000
-4.800E-06,0.008
-4.790E-06,0.004
-4.780E-06,0.000
-4.770E-06,-0.004
-4.760E-06,0.004
-4.750E-06,0.004
-4.740E-06,0.004
-4.730E-06,0.008
-4.720E-06,0.008
-4.710E-06,0.000
-4.700E-06,-0.004
-4.690E-06,-0.004
-4.680E-06,0.000
-4.670E-06,0.008
-4.660E-06,0.008
-4.650E-06,0.012
-4.640E-06,0.004
-4.630E-06,0.000
-4.620E-06,-0.004
-4.610E-06,-0.004
-4.600E-06,0.004
-4.590E-06,0.008
-4.580E-06,0.008
-4.570E-06,-0.004
-4.560E-06,0.000
-4.550E-06,0.000
-4.540E-06,0.004
-4.530E-06,0.004
-4.520E-06,0.012
-4.510E-06,0.008
-4.500E-06,0.004
-4.490E-06,0.000
-4.480E-06,-0.004
-4.470E-06,0.004
-4.460E-06,0.008
-4.450E-06,0.016
-4.440E-06,0.000
-4.430E-06,0.004
-4.420E-06,0.004
-4.410E-06,0.004
-4.400E-06,0.000
-4.390E-06,0.000
-4.380E-06,0.004
-4.370E-06,0.000
-4.360E-06,0.004
-4.350E-06,0.008
-4.340E-06,0.004
-4.330E-06,0.004
-4.320E-06,-0.004
-4.310E-06,-0.004
-4.300E-06,-0.004
-4.290E-06,0.004
-4.280E-06,0.008
-4.270E-06,0.012
-4.260E-06,0.012
-4.250E-06,0.004
-4.240E-06,-0.008
-4.230E-06,-0.004
-4.220E-06,-0.008
-4.210E-06,0.004
-4.200E-06,0.012
-4.190E-06,0.008
-4.180E-06,0.008
-4.170E-06,0.008
-4.160E-06,0.004
-4.150E-06,-0.008
-4.140E-06,-0.008
-4.130E-06,-0.004
-4.120E-06,0.004
-4.110E-06,0.012
-4.100E-06,0.012
-4.090E-06,0.004
-4.080E-06,0.000
-4.070E-06,-0.008
-4.060E-06,-0.004
-4.050E-06,0.000
-4.040E-06,0.004
-4.030E-06,0.012
-4.020E-06,0.012
-4.010E-06,0.004
-4.000E-06,-0.004
-3.990E-06,-0.004
-3.980E-06,0.000
-3.970E-06,0.008
-3.960E-06,0.008
-3.950E-06,0.004
-3.940E-06,0.008
-3.930E-06,0.008
-3.920E-06,-0.008
-3.910E-06,0.000
-3.900E-06,0.004
-3.890E-06,0.008
-3.880E-06,0.012
-3.870E-06,0.016
-3.860E-06,0.008
-3.850E-06,-0.008
-3.840E-06,-0.008
-3.830E-06,-0.004
-3.820E-06,0.000
-3.810E-06,0.012
-3.800E-06,0.016
-3.790E-06,0.012
-3.780E-06,0.008
-3.770E-06,0.000
-3.760E-06,0.000
-3.750E-06,-0.004
-3.740E-06,0.008
-3.730E-06,0.004
-3.720E-06,0.008
-3.710E-06,0.008
-3.700E-06,-0.004
-3.690E-06,-0.004
-3.680E-06,0.000
-3.670E-06,0.000
-3.660E-06,0.004
-3.650E-06,0.004
-3.640E-06,0.004
-3.630E-06,0.008
-3.620E-06,0.008
-3.610E-06,0.008
-3.600E-06,-0.004
-3.590E-06,0.000
-3.580E-06,0.000
-3.570E-06,0.008
-3.560E-06,0.004
-3.550E-06,0.008
-3.540E-06,0.004
-3.530E-06,0.004
-3.520E-06,0.004
-3.510E-06,0.008
-3.500E-06,0.004
-3.490E-06,0.000
-3.480E-06,0.004
-3.470E-06,0.004
-3.460E-06,0.004
-3.450E-06,0.008
-3.440E-06,0.000
-3.430E-06,0.000
-3.420E-06,0.004
-3.410E-06,0.004
-3.400E-06,0.008
-3.390E-06,0.000
-3.380E-06,0.000
-3.370E-06,0.008
-3.360E-06,0.008
-3.350E-06,0.004
-3.340E-06,0.008
-3.330E-06,0.008
-3.320E-06,0.008
-3.310E-06,0.008
-3.300E-06,0.000
-3.290E-06,0.000
-3.280E-06,0.000
-3.270E-06,0.000
-3.260E-06,0.012
-3.250E-06,0.008
-3.240E-06,0.012
-3.230E-06,0.004
-3.220E-06,0.004
-3.210E-06,0.004
-3.200E-06,0.004
-3.190E-06,0.004
-3.180E-06,0.008
-3.170E-06,0.012
-3.160E-06,0.008
-3.150E-06,0.000
-3.140E-06,0.000
-3.130E-06,0.004
-3.120E-06,0.004
-3.110E-06,0.012
-3.100E-06,0.020
-3.090E-06,0.020
-3.080E-06,0.000
-3.070E-06,0.000
-3.060E-06,-0.012
-3.050E-06,-0.012
-3.040E-06,0.000
-3.030E-06,0.016
-3.020E-06,0.028
-3.010E-06,0.024
-3.000E-06,0.008
-2.990E-06,-0.012
-2.980E-06,-0.020
-2.970E-06,-0.020
-2.960E-06,-0.004
-2.950E-06,0.012
-2.940E-06,0.028
-2.930E-06,0.024
-2.920E-06,0.008
-2.910E-06,-0.012
-2.900E-06,-0.008
-2.890E-06,-0.012
-2.880E-06,-0.004
-2.870E-06,0.004
-2.860E-06,0.016
-2.850E-06,0.024
-2.840E-06,0.012
-2.830E-06,-0.004
-2.820E-06,-0.008
-2.810E-06,-0.008
-2.800E-06,-0.004
-2.790E-06,0.008
-2.780E-06,0.020
-2.770E-06,0.016
-2.760E-06,0.004
-2.750E-06,-0.004
-2.740E-06,-0.008
-2.730E-06,-0.004
-2.720E-06,0.008
-2.710E-06,0.016
-2.700E-06,0.012
-2.690E-06,0.004
-2.680E-06,-0.008
-2.670E-06,-0.012
-2.660E-06,0.000
-2.650E-06,0.008
-2.640E-06,0.020
-2.630E-06,0.016
-2.620E-06,0.008
-2.610E-06,-0.004
-2.600E-06,-0.008
-2.590E-06,-0.016
-2.580E-06,-0.004
-2.570E-06,0.004
-2.560E-06,0.012
-2.550E-06,0.012
-2.540E-06,0.012
-2.530E-06,0.008
-2.520E-06,-0.004
-2.510E-06,0.000
-2.500E-06,0.000
-2.490E-06,0.004
-2.480E-06,0.012
-2.470E-06,0.016
-2.460E-06,0.020
-2.450E-06,0.012
-2.440E-06,0.008
-2.430E-06,-0.004
-2.420E-06,-0.004
-2.410E-06,-0.004
-2.400E-06,0.008
-2.390E-06,0.008
-2.380E-06,0.012
-2.370E-06,0.004
-2.360E-06,0.004
-2.350E-06,0.000
-2.340E-06,0.000
-2.330E-06,-0.004
-2.320E-06,0.000
-2.310E-06,0.000
-2.300E-06,0.000
-2.290E-06,0.004
-2.280E-06,0.008
-2.270E-06,0.004
-2.260E-06,0.000
-2.250E-06,-0.004
-2.240E-06,-0.004
-2.230E-06,-0.008
-2.220E-06,-0.004
-2.210E-06,0.012
-2.200E-06,0.024
-2.190E-06,0.012
-2.180E-06,0.008
-2.170E-06,0.000
-2.160E-06,-0.004
-2.150E-06,-0.004
-2.140E-06,0.000
-2.130E-06,0.004
-2.120E-06,0.012
-2.110E-06,0.012
-2.100E-06,0.012
-2.090E-06,0.004
-2.080E-06,0.000
-2.070E-06,0.000
-2.060E-06,-0.004
-2.050E-06,0.000
-2.040E-06,0.004
-2.030E-06,0.008
-2.020E-06,0.004
-2.010E-06,0.008
-2.000E-06,-0.004
-1.990E-06,0.004
-1.980E-06,0.004
-1.970E-06,0.012
-1.960E-06,0.008
-1.950E-06,0.008
-1.940E-06,0.012
-1.930E-06,-0.004
-1.920E-06,-0.004
-1.910E-06,-0.008
-1.900E-06,0.004
-1.890E-06,0.012
-1.880E-06,0.016
-1.870E-06,0.004
-1.860E-06,0.004
-1.850E-06,0.000
-1.840E-06,-0.004
-1.830E-06,0.004
-1.820E-06,0.008
-1.810E-06,0.012
-1.800E-06,0.004
-1.790E-06,0.008
-1.780E-06,0.000
-1.770E-06,0.008
-1.760E-06,0.004
-1.750E-06,0.004
-1.740E-06,-0.004
-1.730E-06,0.000
-1.720E-06,0.008
-1.710E-06,0.012
-1.700E-06,0.016
-1.690E-06,0.016
-1.680E-06,0.008
-1.670E-06,0.004
-1.660E-06,0.000
-1.650E-06,0.004
-1.640E-06,0.008
-1.630E-06,0.016
-1.620E-06,0.020
-1.610E-06,0.008
-1.600E-06,-0.004
-1.590E-06,-0.004
-1.580E-06,-0.004
-1.570E-06,0.012
-1.560E-06,0.020
-1.550E-06,0.020
-1.540E-06,0.004
-1.530E-06,0.004
-1.520E-06,0.004
-1.510E-06,0.008
-1.500E-06,0.008
-1.490E-06,0.016
-1.480E-06,0.024
-1.470E-06,0.020
-1.460E-06,0.020
-1.450E-06,0.012
-1.440E-06,0.008
-1.430E-06,0.008
-1.420E-06,0.008
-1.410E-06,0.012
-1.400E-06,0.008
-1.390E-06,0.020
-1.380E-06,0.024
-1.370E-06,0.024
-1.360E-06,0.020
-1.350E-06,0.008
-1.340E-06,0.008
-1.330E-06,0.012
-1.320E-06,0.016
-1.310E-06,0.020
-1.300E-06,0.024
-1.290E-06,0.020
-1.280E-06,0.012
-1.270E-06,0.008
-1.260E-06,0.012
-1.250E-06,0.012
-1.240E-06,0.016
-1.230E-06,0.016
-1.220E-06,0.020
-1.210E-06,0.020
-1.200E-06,0.020
-1.190E-06,0.028
-1.180E-06,0.024
-1.170E-06,0.016
-1.160E-06,0.016
-1.150E-06,0.004
-1.140E-06,0.012
-1.130E-06,0.016
-1.120E-06,0.028
-1.110E-06,0.036
-1.100E-06,0.036
-1.090E-06,0.024
-1.080E-06,0.008
-1.070E-06,-0.004
-1.060E-06,0.000
-1.050E-06,0.016
-1.040E-06,0.024
-1.030E-06,0.024
-1.020E-06,0.008
-1.010E-06,-0.020
-1.000E-06,-0.032
-9.900E-07,-0.028
-9.800E-07,0.004
-9.700E-07,0.004
-9.600E-07,0.008
-9.500E-07,0.000
-9.400E-07,-0.008
-9.300E-07,-0.008
-9.200E-07,-0.008
-9.100E-07,0.004
-9.000E-07,0.024
-8.900E-07,0.036
-8.800E-07,0.028
-8.700E-07,0.020
-8.600E-07,0.012
-8.500E-07,0.000
-8.400E-07,-0.004
-8.300E-07,0.024
-8.200E-07,0.036
-8.100E-07,0.044
-8.000E-07,0.036
-7.900E-07,0.028
-7.800E-07,0.032
-7.700E-07,0.028
-7.600E-07,0.036
-7.500E-07,0.036
-7.400E-07,0.032
-7.300E-07,0.028
-7.200E-07,0.028
-7.100E-07,0.024
-7.000E-07,0.024
-6.900E-07,0.028
-6.800E-07,0.040
-6.700E-07,0.040
-6.600E-07,0.032
-6.500E-07,0.028
-6.400E-07,0.008
-6.300E-07,0.004
-6.200E-07,-0.004
-6.100E-07,0.004
-6.000E-07,0.012
-5.900E-07,0.024
-5.800E-07,0.024
-5.700E-07,0.020
-5.600E-07,-0.008
-5.500E-07,-0.024
-5.400E-07,-0.032
-5.300E-07,-0.028
-5.200E-07,-0.004
-5.100E-07,0.012
-5.000E-07,0.004
-4.900E-07,-0.008
-4.800E-07,-0.012
-4.700E-07,-0.008
-4.600E-07,-0.004
-4.500E-07,0.000
-4.400E-07,0.000
-4.300E-07,0.008
-4.200E-07,0.024
-4.100E-07,0.024
-4.000E-07,0.032
-3.900E-07,0.024
-3.800E-07,0.016
-3.700E-07,0.020
-3.600E-07,0.032
-3.500E-07,0.048
-3.400E-07,0.072
-3.300E-07,0.084
-3.200E-07,0.084
-3.100E-07,0.076
-3.000E-07,0.064
-2.900E-07,0.056
-2.800E-07,0.056
-2.700E-07,0.072
-2.600E-07,0.096
-2.500E-07,0.104
-2.400E-07,0.096
-2.300E-07,0.076
-2.200E-07,0.064
-2.100E-07,0.056
-2.000E-07,0.064
-1.900E-07,0.076
-1.800E-07,0.080
-1.700E-07,0.084
-1.600E-07,0.072
-1.500E-07,0.056
-1.400E-07,0.060
-1.300E-07,0.056
-1.200E-07,0.072
-1.100E-07,0.088
-1.000E-07,0.044
-9.000E-08,0.052
-8.000E-08,0.008
-7.000E-08,0.028
-6.000E-08,-0.132
-5.000E-08,-0.508
-4.000E-08,-0.512
-3.000E-08,-0.512
-2.000E-08,-0.260
-1.000E-08,0.540
0.000E+00,0.540
1.000E-08,0.540
2.000E-08,0.260
3.000E-08,-0.512
4.000E-08,-0.512
5.000E-08,-0.512
6.000E-08,-0.184
7.000E-08,0.540
8.000E-08,0.544
9.000E-08,0.540
1.000E-07,0.124
1.100E-07,-0.512
1.200E-07,-0.512
1.300E-07,-0.512
1.400E-07,-0.032
1.500E-07,0.540
1.600E-07,0.540
1.700E-07,0.536
1.800E-07,0.188
1.900E-07,-0.440
2.000E-07,-0.508
2.100E-07,-0.512
2.200E-07,-0.120
2.300E-07,0.424
2.400E-07,0.540
2.500E-07,0.540
2.600E-07,0.260
2.700E-07,-0.216
2.800E-07,-0.512
2.900E-07,-0.488
3.000E-07,-0.192
3.100E-07,0.256
3.200E-07,0.496
3.300E-07,0.472
3.400E-07,0.152
3.500E-07,-0.204
3.600E-07,-0.428
3.700E-07,-0.392
3.800E-07,-0.120
3.900E-07,0.192
4.000E-07,0.420
4.100E-07,0.396
4.200E-07,0.204
4.300E-07,-0.084
4.400E-07,-0.268
4.500E-07,-0.272
4.600E-07,-0.096
4.700E-07,0.152
4.800E-07,0.340
4.900E-07,0.352
5.000E-07,0.212
5.100E-07,0.016
5.200E-07,-0.136
5.300E-07,-0.152
5.400E-07,-0.036
5.500E-07,0.136
5.600E-07,0.276
5.700E-07,0.324
5.800E-07,0.244
5.900E-07,0.104
6.000E-07,-0.028
6.100E-07,-0.068
6.200E-07,-0.020
6.300E-07,0.072
6.400E-07,0.168
6.500E-07,0.196
6.600E-07,0.192
6.700E-07,0.096
6.800E-07,-0.212
6.900E-07,-0.508
7.000E-07,-0.512
7.100E-07,-0.512
7.200E-07,-0.512
7.300E-07,0.360
7.400E-07,0.540
7.500E-07,0.540
7.600E-07,0.536
7.700E-07,-0.056
7.800E-07,-0.512
7.900E-07,-0.512
8.000E-07,-0.480
8.100E-07,0.288
8.200E-07,0.544
8.300E-07,0.540
8.400E-07,0.320
8.500E-07,-0.312
8.600E-07,-0.512
8.700E-07,-0.512
8.800E-07,-0.296
8.900E-07,0.252
9.000E-07,0.540
9.100E-07,0.540
9.200E-07,0.496
9.300E-07,0.096
9.400E-07,-0.288
9.500E-07,-0.416
9.600E-07,-0.280
9.700E-07,0.088
9.800E-07,0.436
9.900E-07,0.540
1.000E-06,0.420
1.010E-06,0.108
1.020E-06,-0.192
1.030E-06,-0.320
1.040E-06,-0.252
1.050E-06,-0.064
1.060E-06,0.100
1.070E-06,0.128
1.080E-06,0.048
1.090E-06,-0.100
1.100E-06,-0.176
1.110E-06,-0.144
1.120E-06,0.016
1.130E-06,0.196
1.140E-06,0.324
1.150E-06,0.320
1.160E-06,0.208
1.170E-06,0.048
1.180E-06,-0.104
1.190E-06,-0.144
1.200E-06,-0.084
1.210E-06,0.028
1.220E-06,0.128
1.230E-06,0.152
1.240E-06,0.072
1.250E-06,-0.004
1.260E-06,-0.044
1.270E-06,-0.044
1.280E-06,-0.028
1.290E-06,-0.068
1.300E-06,-0.156
1.310E-06,-0.308
1.320E-06,-0.380
1.330E-06,-0.288
1.340E-06,-0.072
1.350E-06,0.152
1.360E-06,0.356
1.370E-06,0.396
1.380E-06,0.204
1.390E-06,-0.012
1.400E-06,-0.192
1.410E-06,-0.236
1.420E-06,-0.140
1.430E-06,0.028
1.440E-06,0.140
1.450E-06,0.104
1.460E-06,-0.024
1.470E-06,-0.212
1.480E-06,-0.380
1.490E-06,-0.448
1.500E-06,-0.304
1.510E-06,-0.060
1.520E-06,0.204
1.530E-06,0.316
1.540E-06,0.228
1.550E-06,0.020
1.560E-06,-0.208
1.570E-06,-0.320
1.580E-06,-0.264
1.590E-06,-0.060
1.600E-06,0.160
1.610E-06,0.284
1.620E-06,0.268
1.630E-06,0.124
1.640E-06,-0.060
1.650E-06,-0.164
1.660E-06,-0.136
1.670E-06,0.000
1.680E-06,0.176
1.690E-06,0.292
1.700E-06,0.300
1.710E-06,0.192
1.720E-06,0.048
1.730E-06,-0.056
1.740E-06,-0.056
1.750E-06,0.032
1.760E-06,0.164
1.770E-06,0.264
1.780E-06,0.284
1.790E-06,0.220
1.800E-06,0.096
1.810E-06,-0.004
1.820E-06,-0.020
1.830E-06,0.032
1.840E-06,0.128
1.850E-06,0.216
1.860E-06,0.240
1.870E-06,0.208
1.880E-06,0.132
1.890E-06,0.048
1.900E-06,0.008
1.910E-06,0.036
1.920E-06,0.104
1.930E-06,0.180
1.940E-06,0.224
1.950E-06,0.220
1.960E-06,0.168
1.970E-06,0.100
1.980E-06,0.060
1.990E-06,0.056
2.000E-06,0.104
2.010E-06,0.156
2.020E-06,0.200
2.030E-06,0.204
2.040E-06,0.168
2.050E-06,0.112
2.060E-06,0.068
2.070E-06,0.056
2.080E-06,0.084
2.090E-06,0.140
2.100E-06,0.188
2.110E-06,0.168
2.120E-06,0.028
2.130E-06,-0.180
2.140E-06,-0.408
2.150E-06,-0.512
2.160E-06,-0.508
2.170E-06,-0.512
2.180E-06,-0.344
2.190E-06,-0.056
2.200E-06,0.152
2.210E-06,0.172
2.220E-06,0.064
2.230E-06,-0.040
2.240E-06,-0.124
2.250E-06,-0.068
2.260E-06,0.040
2.270E-06,0.156
2.280E-06,0.224
2.290E-06,0.168
2.300E-06,0.072
2.310E-06,-0.008
2.320E-06,-0.020
2.330E-06,-0.004
2.340E-06,0.048
2.350E-06,0.072
2.360E-06,0.076
2.370E-06,0.036
2.380E-06,0.024
2.390E-06,0.028
2.400E-06,0.032
2.410E-06,0.056
2.420E-06,0.072
2.430E-06,0.100
2.440E-06,0.108
2.450E-06,0.120
2.460E-06,0.120
2.470E-06,0.124
2.480E-06,0.128
2.490E-06,0.140
2.500E-06,0.140
2.510E-06,0.128
2.520E-06,0.112
2.530E-06,0.096
2.540E-06,0.108
2.550E-06,0.120
2.560E-06,0.136
2.570E-06,0.140
2.580E-06,0.136
2.590E-06,0.132
2.600E-06,0.128
2.610E-06,0.124
2.620E-06,0.128
2.630E-06,0.132
2.640E-06,0.136
2.650E-06,0.136
2.660E-06,0.128
2.670E-06,0.108
2.680E-06,0.092
2.690E-06,0.068
2.700E-06,0.060
2.710E-06,0.060
2.720E-06,0.064
2.730E-06,0.072
2.740E-06,0.088
2.750E-06,0.088
2.760E-06,0.088
2.770E-06,0.080
2.780E-06,0.092
2.790E-06,0.100
2.800E-06,0.116
2.810E-06,0.124
2.820E-06,0.128
2.830E-06,0.120
2.840E-06,0.116
2.850E-06,0.120
2.860E-06,0.128
2.870E-06,0.136
2.880E-06,0.140
2.890E-06,0.140
2.900E-06,0.136
2.910E-06,0.132
2.920E-06,0.124
2.930E-06,0.108
2.940E-06,0.108
2.950E-06,0.112
2.960E-06,0.128
2.970E-06,0.144
2.980E-06,0.152
2.990E-06,0.152
3.000E-06,0.136
3.010E-06,0.124
3.020E-06,0.112
3.030E-06,0.108
3.040E-06,0.124
3.050E-06,0.140
3.060E-06,0.148
3.070E-06,0.140
3.080E-06,0.128
3.090E-06,0.104
3.100E-06,0.088
3.110E-06,0.088
3.120E-06,0.104
3.130E-06,0.124
3.140E-06,0.136
3.150E-06,0.136
3.160E-06,0.120
3.170E-06,0.084
3.180E-06,0.064
3.190E-06,0.060
3.200E-06,0.080
3.210E-06,0.108
3.220E-06,0.132
3.230E-06,0.128
3.240E-06,0.108
3.250E-06,0.092
3.260E-06,0.076
3.270E-06,0.088
3.280E-06,0.108
3.290E-06,0.136
3.300E-06,0.152
3.310E-06,0.144
3.320E-06,0.124
3.330E-06,0.112
3.340E-06,0.104
3.350E-06,0.108
3.360E-06,0.128
