mediciones/Mediciones filtradas (saque las feas)/5-15/-12.5/WaveData5345.csv

#timebase=2000000(ps)
,#voltbase=500000(mv/100)
#size=4000
-2.300E-06,0.160
-2.290E-06,0.060
-2.280E-06,0.100
-2.270E-06,-0.060
-2.260E-06,0.120
-2.250E-06,0.100
-2.240E-06,0.260
-2.230E-06,0.340
-2.220E-06,0.360
-2.210E-06,0.280
-2.200E-06,0.360
-2.190E-06,0.260
-2.180E-06,0.340
-2.170E-06,0.240
-2.160E-06,0.240
-2.150E-06,0.160
-2.140E-06,0.200
-2.130E-06,0.300
-2.120E-06,0.340
-2.110E-06,0.220
-2.100E-06,0.080
-2.090E-06,0.000
-2.080E-06,-0.020
-2.070E-06,0.080
-2.060E-06,0.120
-2.050E-06,0.240
-2.040E-06,-0.020
-2.030E-06,-0.140
-2.020E-06,0.020
-2.010E-06,-0.180
-2.000E-06,0.080
-1.990E-06,0.020
-1.980E-06,0.000
-1.970E-06,-0.140
-1.960E-06,-0.080
-1.950E-06,0.060
-1.940E-06,0.080
-1.930E-06,0.140
-1.920E-06,0.080
-1.910E-06,-0.040
-1.900E-06,-0.040
-1.890E-06,0.100
-1.880E-06,0.180
-1.870E-06,0.080
-1.860E-06,0.120
-1.850E-06,0.120
-1.840E-06,0.040
-1.830E-06,0.080
-1.820E-06,0.120
-1.810E-06,0.020
-1.800E-06,0.000
-1.790E-06,-0.020
-1.780E-06,0.040
-1.770E-06,0.140
-1.760E-06,0.200
-1.750E-06,0.280
-1.740E-06,0.260
-1.730E-06,0.220
-1.720E-06,0.160
-1.710E-06,0.200
-1.700E-06,0.220
-1.690E-06,0.240
-1.680E-06,0.260
-1.670E-06,0.260
-1.660E-06,0.180
-1.650E-06,0.080
-1.640E-06,0.180
-1.630E-06,0.160
-1.620E-06,0.140
-1.610E-06,0.200
-1.600E-06,0.120
-1.590E-06,0.160
-1.580E-06,0.160
-1.570E-06,0.080
-1.560E-06,-0.060
-1.550E-06,-0.180
-1.540E-06,-0.280
-1.530E-06,-0.120
-1.520E-06,-0.080
-1.510E-06,-0.220
-1.500E-06,0.160
-1.490E-06,0.440
-1.480E-06,0.460
-1.470E-06,0.740
-1.460E-06,0.540
-1.450E-06,0.320
-1.440E-06,0.080
-1.430E-06,0.160
-1.420E-06,0.640
-1.410E-06,0.680
-1.400E-06,0.680
-1.390E-06,0.340
-1.380E-06,0.020
-1.370E-06,-0.060
-1.360E-06,0.140
-1.350E-06,0.200
-1.340E-06,0.080
-1.330E-06,-0.040
-1.320E-06,-0.140
-1.310E-06,-0.200
-1.300E-06,-0.060
-1.290E-06,-0.020
-1.280E-06,-0.140
-1.270E-06,-0.440
-1.260E-06,-0.540
-1.250E-06,-0.500
-1.240E-06,-0.320
-1.230E-06,-0.160
-1.220E-06,-0.220
-1.210E-06,-0.420
-1.200E-06,-0.560
-1.190E-06,-0.500
-1.180E-06,-0.360
-1.170E-06,-0.140
-1.160E-06,-0.080
-1.150E-06,-0.220
-1.140E-06,-0.320
-1.130E-06,-0.320
-1.120E-06,-0.160
-1.110E-06,-0.020
-1.100E-06,0.060
-1.090E-06,0.100
-1.080E-06,0.000
-1.070E-06,0.000
-1.060E-06,0.100
-1.050E-06,0.160
-1.040E-06,0.220
-1.030E-06,0.220
-1.020E-06,0.260
-1.010E-06,0.280
-1.000E-06,0.340
-9.900E-07,0.400
-9.800E-07,0.340
-9.700E-07,0.320
-9.600E-07,0.260
-9.500E-07,0.260
-9.400E-07,0.240
-9.300E-07,0.320
-9.200E-07,0.300
-9.100E-07,0.240
-9.000E-07,0.140
-8.900E-07,0.020
-8.800E-07,-0.020
-8.700E-07,0.040
-8.600E-07,0.000
-8.500E-07,-0.020
-8.400E-07,-0.100
-8.300E-07,-0.160
-8.200E-07,-0.140
-8.100E-07,0.080
-8.000E-07,-0.060
-7.900E-07,0.000
-7.800E-07,-0.220
-7.700E-07,-0.280
-7.600E-07,-0.160
-7.500E-07,-0.060
-7.400E-07,0.280
-7.300E-07,0.180
-7.200E-07,0.240
-7.100E-07,0.100
-7.000E-07,0.060
-6.900E-07,0.160
-6.800E-07,0.180
-6.700E-07,0.220
-6.600E-07,0.160
-6.500E-07,-0.180
-6.400E-07,0.080
-6.300E-07,-0.320
-6.200E-07,0.320
-6.100E-07,0.020
-6.000E-07,0.340
-5.900E-07,0.380
-5.800E-07,-0.100
-5.700E-07,-0.360
-5.600E-07,0.800
-5.500E-07,0.260
-5.400E-07,1.160
-5.300E-07,1.180
-5.200E-07,0.700
-5.100E-07,0.220
-5.000E-07,0.100
-4.900E-07,0.900
-4.800E-07,0.940
-4.700E-07,0.940
-4.600E-07,0.740
-4.500E-07,0.160
-4.400E-07,-0.100
-4.300E-07,0.400
-4.200E-07,0.580
-4.100E-07,0.320
-4.000E-07,0.000
-3.900E-07,-0.200
-3.800E-07,-0.480
-3.700E-07,-0.280
-3.600E-07,0.100
-3.500E-07,0.100
-3.400E-07,-0.380
-3.300E-07,-0.700
-3.200E-07,-0.840
-3.100E-07,-0.680
-3.000E-07,-0.340
-2.900E-07,-0.180
-2.800E-07,-0.440
-2.700E-07,-0.780
-2.600E-07,-0.880
-2.500E-07,-0.640
-2.400E-07,-0.380
-2.300E-07,-0.240
-2.200E-07,-0.200
-2.100E-07,-0.360
-2.000E-07,-0.360
-1.900E-07,-0.320
-1.800E-07,-0.100
-1.700E-07,0.000
-1.600E-07,0.160
-1.500E-07,0.140
-1.400E-07,0.180
-1.300E-07,0.280
-1.200E-07,0.300
-1.100E-07,0.420
-1.000E-07,0.460
-9.000E-08,0.560
-8.000E-08,0.660
-7.000E-08,0.560
-6.000E-08,0.860
-5.000E-08,0.240
-4.000E-08,0.400
-3.000E-08,0.080
-2.000E-08,-0.080
-1.000E-08,0.120
0.000E+00,0.340
1.000E-08,0.820
2.000E-08,1.000
3.000E-08,0.800
4.000E-08,0.500
5.000E-08,0.240
6.000E-08,0.160
7.000E-08,0.580
8.000E-08,0.780
9.000E-08,0.780
1.000E-07,0.380
1.100E-07,0.240
1.200E-07,0.100
1.300E-07,0.180
1.400E-07,0.260
1.500E-07,0.240
1.600E-07,0.020
1.700E-07,0.020
1.800E-07,0.080
1.900E-07,0.300
2.000E-07,0.340
2.100E-07,0.260
2.200E-07,-0.140
2.300E-07,-0.340
2.400E-07,-0.400
2.500E-07,-0.620
2.600E-07,-0.220
2.700E-07,-0.200
2.800E-07,-0.300
2.900E-07,-0.260
3.000E-07,-0.500
3.100E-07,-0.320
3.200E-07,-0.360
3.300E-07,-0.300
3.400E-07,-0.660
3.500E-07,-0.200
3.600E-07,-0.540
3.700E-07,0.080
3.800E-07,0.500
3.900E-07,0.780
4.000E-07,0.920
4.100E-07,0.740
4.200E-07,0.680
4.300E-07,0.660
4.400E-07,0.840
4.500E-07,1.060
4.600E-07,1.060
4.700E-07,0.900
4.800E-07,0.780
4.900E-07,0.580
5.000E-07,0.420
5.100E-07,0.440
5.200E-07,0.380
5.300E-07,0.300
5.400E-07,0.140
5.500E-07,0.020
5.600E-07,-0.120
5.700E-07,-0.260
5.800E-07,-0.340
5.900E-07,-0.480
6.000E-07,-0.640
6.100E-07,-0.720
6.200E-07,-0.780
6.300E-07,-0.760
6.400E-07,-1.000
6.500E-07,-1.000
6.600E-07,-1.200
6.700E-07,-0.940
6.800E-07,-0.920
6.900E-07,-0.880
7.000E-07,-0.820
7.100E-07,-0.720
7.200E-07,-0.680
7.300E-07,-0.600
7.400E-07,-0.060
7.500E-07,-0.280
7.600E-07,0.000
7.700E-07,-0.080
7.800E-07,0.080
7.900E-07,0.040
8.000E-07,0.300
8.100E-07,0.560
8.200E-07,0.740
8.300E-07,0.780
8.400E-07,1.120
8.500E-07,1.020
8.600E-07,1.020
8.700E-07,1.120
8.800E-07,1.080
8.900E-07,1.060
9.000E-07,1.040
9.100E-07,1.140
9.200E-07,1.080
9.300E-07,0.940
9.400E-07,0.920
9.500E-07,0.740
9.600E-07,0.500
9.700E-07,0.440
9.800E-07,0.340
9.900E-07,0.220
1.000E-06,0.040
1.010E-06,-0.060
1.020E-06,-0.220
1.030E-06,-0.360
1.040E-06,-0.420
1.050E-06,-0.480
1.060E-06,-0.600
1.070E-06,-0.660
1.080E-06,-0.680
1.090E-06,-0.700
1.100E-06,-0.740
1.110E-06,-0.680
1.120E-06,-0.680
1.130E-06,-0.680
1.140E-06,-0.600
1.150E-06,-0.520
1.160E-06,-0.480
1.170E-06,-0.420
1.180E-06,-0.360
1.190E-06,-0.300
1.200E-06,-0.160
1.210E-06,-0.060
1.220E-06,0.040
1.230E-06,0.060
1.240E-06,0.160
1.250E-06,0.240
1.260E-06,0.300
1.270E-06,0.380
1.280E-06,0.380
1.290E-06,0.420
1.300E-06,0.300
1.310E-06,0.260
1.320E-06,0.360
1.330E-06,-0.200
1.340E-06,-0.240
1.350E-06,-0.320
1.360E-06,-0.780
1.370E-06,-0.640
1.380E-06,-0.680
1.390E-06,-0.080
1.400E-06,0.180
1.410E-06,0.480
1.420E-06,0.400
1.430E-06,-0.060
1.440E-06,-0.480
1.450E-06,-0.620
1.460E-06,-0.380
1.470E-06,0.120
1.480E-06,-0.140
1.490E-06,-0.280
1.500E-06,-0.840
1.510E-06,-0.880
1.520E-06,-0.200
1.530E-06,0.340
1.540E-06,0.960
1.550E-06,1.040
1.560E-06,0.580
1.570E-06,0.300
1.580E-06,0.160
1.590E-06,0.500
1.600E-06,0.780
1.610E-06,0.560
1.620E-06,0.220
1.630E-06,-0.160
1.640E-06,-0.120
1.650E-06,0.160
1.660E-06,0.480
1.670E-06,0.420
1.680E-06,0.060
1.690E-06,-0.140
1.700E-06,-0.060
1.710E-06,0.160
1.720E-06,0.440
1.730E-06,0.500
1.740E-06,0.160
1.750E-06,-0.240
1.760E-06,-0.360
1.770E-06,-0.240
1.780E-06,0.020
1.790E-06,0.240
1.800E-06,0.180
1.810E-06,-0.080
1.820E-06,-0.280
1.830E-06,-0.180
1.840E-06,0.000
1.850E-06,0.220
1.860E-06,0.320
1.870E-06,0.300
1.880E-06,0.180
1.890E-06,0.120
1.900E-06,0.000
1.910E-06,0.340
1.920E-06,-0.500
1.930E-06,0.200
1.940E-06,-1.700
1.950E-06,-1.200
1.960E-06,-1.140
1.970E-06,-0.440
1.980E-06,1.340
1.990E-06,1.360
2.000E-06,2.000
2.010E-06,0.420
2.020E-06,0.000
2.030E-06,-0.400
2.040E-06,-0.300
2.050E-06,-0.140
2.060E-06,0.260
2.070E-06,-0.580
2.080E-06,-0.500
2.090E-06,-0.640
2.100E-06,-0.300
2.110E-06,-0.140
2.120E-06,-0.500
2.130E-06,0.020
2.140E-06,-0.180
2.150E-06,0.400
2.160E-06,1.040
2.170E-06,1.420
2.180E-06,1.120
2.190E-06,0.640
2.200E-06,0.280
2.210E-06,0.180
2.220E-06,0.400
2.230E-06,0.940
2.240E-06,0.840
2.250E-06,0.540
2.260E-06,0.160
2.270E-06,0.220
2.280E-06,0.020
2.290E-06,0.140
2.300E-06,0.160
2.310E-06,-0.100
2.320E-06,-0.240
2.330E-06,-0.360
2.340E-06,-0.360
2.350E-06,-0.500
2.360E-06,-0.660
2.370E-06,-0.640
2.380E-06,-0.740
2.390E-06,-0.700
2.400E-06,-0.540
2.410E-06,-0.300
2.420E-06,-0.260
2.430E-06,-0.060
2.440E-06,0.140
2.450E-06,0.100
2.460E-06,0.260
2.470E-06,0.200
2.480E-06,0.320
2.490E-06,0.340
2.500E-06,0.360
2.510E-06,0.480
2.520E-06,0.440
2.530E-06,0.400
2.540E-06,0.400
2.550E-06,0.300
2.560E-06,0.220
2.570E-06,0.180
2.580E-06,0.000
2.590E-06,-0.060
2.600E-06,-0.160
2.610E-06,-0.160
2.620E-06,-0.180
2.630E-06,-0.260
2.640E-06,-0.240
2.650E-06,-0.220
2.660E-06,-0.220
2.670E-06,-0.220
2.680E-06,-0.180
2.690E-06,-0.180
2.700E-06,-0.160
2.710E-06,-0.140
2.720E-06,-0.160
2.730E-06,-0.200
2.740E-06,-0.240
2.750E-06,-0.220
2.760E-06,-0.220
2.770E-06,-0.240
2.780E-06,-0.180
2.790E-06,-0.120
2.800E-06,-0.060
2.810E-06,-0.020
2.820E-06,-0.080
2.830E-06,-0.020
2.840E-06,-0.220
2.850E-06,-0.220
2.860E-06,-0.400
2.870E-06,-0.440
2.880E-06,-0.620
2.890E-06,-0.660
2.900E-06,-0.640
2.910E-06,-0.840
2.920E-06,-0.820
2.930E-06,-1.000
2.940E-06,-0.840
2.950E-06,-0.860
2.960E-06,-0.520
2.970E-06,-0.480
2.980E-06,-0.340
2.990E-06,-0.340
3.000E-06,-0.360
3.010E-06,-0.300
3.020E-06,-0.180
3.030E-06,-0.200
3.040E-06,-0.180
3.050E-06,0.000
3.060E-06,-0.160
3.070E-06,0.160
3.080E-06,0.020
3.090E-06,0.140
3.100E-06,0.060
3.110E-06,0.060
3.120E-06,0.120
3.130E-06,0.020
3.140E-06,0.260
3.150E-06,0.180
3.160E-06,0.320
3.170E-06,0.340
3.180E-06,0.440
3.190E-06,0.360
3.200E-06,0.380
3.210E-06,0.400
3.220E-06,0.440
3.230E-06,0.280
3.240E-06,0.300
3.250E-06,0.160
3.260E-06,0.000
3.270E-06,-0.120
3.280E-06,-0.260
3.290E-06,-0.500
3.300E-06,-0.680
3.310E-06,-0.720
3.320E-06,-1.020
3.330E-06,-0.900
3.340E-06,-1.140
3.350E-06,-1.120
3.360E-06,-1.100
3.370E-06,-1.500
3.380E-06,-1.240
3.390E-06,-1.340
3.400E-06,-1.280
3.410E-06,-0.980
3.420E-06,-1.020
3.430E-06,-0.940
3.440E-06,-1.160
3.450E-06,-1.040
3.460E-06,-0.940
3.470E-06,-0.920
3.480E-06,-0.560
3.490E-06,-0.420
3.500E-06,-0.360
3.510E-06,-0.340
3.520E-06,-0.260
3.530E-06,-0.160
3.540E-06,-0.100
3.550E-06,0.200
3.560E-06,0.320
3.570E-06,0.320
3.580E-06,0.380
3.590E-06,0.160
3.600E-06,0.100
3.610E-06,-0.060
3.620E-06,-0.080
3.630E-06,-0.320
3.640E-06,-0.600
3.650E-06,-0.640
3.660E-06,-0.620
3.670E-06,-0.780
3.680E-06,-0.880
3.690E-06,-1.080
3.700E-06,-1.160
3.710E-06,-1.320
3.720E-06,-1.280
3.730E-06,-1.280
3.740E-06,-1.380
3.750E-06,-1.240
3.760E-06,-1.460
3.770E-06,-1.420
3.780E-06,-1.540
3.790E-06,-1.300
3.800E-06,-1.100
3.810E-06,-0.760
3.820E-06,-0.700
3.830E-06,-0.420
3.840E-06,-0.120
3.850E-06,0.020
3.860E-06,0.320
3.870E-06,0.360
3.880E-06,0.660
3.890E-06,0.740
3.900E-06,0.860
3.910E-06,0.800
3.920E-06,0.800
3.930E-06,0.740
3.940E-06,0.580
3.950E-06,0.520
3.960E-06,0.400
3.970E-06,0.400
3.980E-06,0.220
3.990E-06,0.160
4.000E-06,-0.060
4.010E-06,-0.280
4.020E-06,-0.420
4.030E-06,-0.540
4.040E-06,-0.680
4.050E-06,-0.780
4.060E-06,-0.860
4.070E-06,-0.940
4.080E-06,-1.040
4.090E-06,-1.020
4.100E-06,-0.980
4.110E-06,-0.920
4.120E-06,-0.900
4.130E-06,-0.880
4.140E-06,-0.920
4.150E-06,-0.920
4.160E-06,-0.880
4.170E-06,-0.840
4.180E-06,-0.900
4.190E-06,-0.920
4.200E-06,-0.940
4.210E-06,-0.960
4.220E-06,-0.960
4.230E-06,-0.940
4.240E-06,-0.920
4.250E-06,-0.980
4.260E-06,-1.100
4.270E-06,-1.140
4.280E-06,-1.280
4.290E-06,-1.340
4.300E-06,-1.460
4.310E-06,-1.520
4.320E-06,-1.500
4.330E-06,-1.640
4.340E-06,-1.580
4.350E-06,-1.680
4.360E-06,-1.800
4.370E-06,-1.980
4.380E-06,-2.160
4.390E-06,-2.360
4.400E-06,-2.580
4.410E-06,-2.660
4.420E-06,-2.660
4.430E-06,-2.660
4.440E-06,-2.660
4.450E-06,-2.660
4.460E-06,-2.080
4.470E-06,-1.700
4.480E-06,-1.400
4.490E-06,-1.100
4.500E-06,-1.420
4.510E-06,-1.840
4.520E-06,-2.160
4.530E-06,-2.080
4.540E-06,-1.580
4.550E-06,-0.840
4.560E-06,-0.460
4.570E-06,-0.480
4.580E-06,-0.880
4.590E-06,-1.060
4.600E-06,-1.000
4.610E-06,-0.860
4.620E-06,-0.760
4.630E-06,-0.920
4.640E-06,-1.220
4.650E-06,-1.400
4.660E-06,-1.420
4.670E-06,-1.240
4.680E-06,-1.480
4.690E-06,-1.740
4.700E-06,-2.100
4.710E-06,-2.180
4.720E-06,-2.120
4.730E-06,-2.180
4.740E-06,-2.380
4.750E-06,-2.680
4.760E-06,-2.660
4.770E-06,-2.660
4.780E-06,-2.660
4.790E-06,-2.660
4.800E-06,-2.660
4.810E-06,-2.660
4.820E-06,-2.660
4.830E-06,-2.680
4.840E-06,-2.660
4.850E-06,-2.660
4.860E-06,-2.660
4.870E-06,-2.660
4.880E-06,-2.660
4.890E-06,-2.660
4.900E-06,-2.660
4.910E-06,-2.660
4.920E-06,-2.660
4.930E-06,-2.660
4.940E-06,-2.660
4.950E-06,-2.660
4.960E-06,-2.660
4.970E-06,-2.660
4.980E-06,-2.660
4.990E-06,-2.660
5.000E-06,-2.640
5.010E-06,-2.640
5.020E-06,-2.640
5.030E-06,-2.660
5.040E-06,-2.660
5.050E-06,-2.660
5.060E-06,-2.660
5.070E-06,-2.660
5.080E-06,-2.660
5.090E-06,-2.660
5.100E-06,-2.660
5.110E-06,-2.680
5.120E-06,-2.680
5.130E-06,-2.680
5.140E-06,-2.680
5.150E-06,-2.660
5.160E-06,-2.660
5.170E-06,-2.660
5.180E-06,-2.660
5.190E-06,-2.660
5.200E-06,-2.640
5.210E-06,-2.660
5.220E-06,-2.660
5.230E-06,-2.660
5.240E-06,-2.660
5.250E-06,-2.660
5.260E-06,-2.660
5.270E-06,-2.660
5.280E-06,-2.680
5.290E-06,-2.680
5.300E-06,-2.660
5.310E-06,-2.660
5.320E-06,-2.660
5.330E-06,-2.680
5.340E-06,-2.680
5.350E-06,-2.660
5.360E-06,-2.660
5.370E-06,-2.660
5.380E-06,-2.660
5.390E-06,-2.660
5.400E-06,-2.640
5.410E-06,-2.640
5.420E-06,-2.640
5.430E-06,-2.660
5.440E-06,-2.660
5.450E-06,-2.660
5.460E-06,-2.660
5.470E-06,-2.660
5.480E-06,-2.660
5.490E-06,-2.680
5.500E-06,-2.660
5.510E-06,-2.660
5.520E-06,-2.660
5.530E-06,-2.660
5.540E-06,-2.660
5.550E-06,-2.680
5.560E-06,-2.680
5.570E-06,-2.660
5.580E-06,-2.660
5.590E-06,-2.640
5.600E-06,-2.580
5.610E-06,-2.380
5.620E-06,-2.200
5.630E-06,-2.040
5.640E-06,-1.900
5.650E-06,-1.780
5.660E-06,-1.680
5.670E-06,-1.660
5.680E-06,-1.600
5.690E-06,-1.600
5.700E-06,-1.600
5.710E-06,-1.620
5.720E-06,-1.660
5.730E-06,-1.680
5.740E-06,-1.720
5.750E-06,-1.800
5.760E-06,-1.840
5.770E-06,-1.880
5.780E-06,-1.860
5.790E-06,-1.860
5.800E-06,-1.840
5.810E-06,-1.800
5.820E-06,-1.760
5.830E-06,-1.700
5.840E-06,-1.660
5.850E-06,-1.600
5.860E-06,-1.480
5.870E-06,-1.360
5.880E-06,-1.280
5.890E-06,-1.200
5.900E-06,-1.080
5.910E-06,-0.980
5.920E-06,-0.920
5.930E-06,-0.900
5.940E-06,-0.860
5.950E-06,-0.820
5.960E-06,-0.800
5.970E-06,-0.780
5.980E-06,-0.760
5.990E-06,-0.780
6.000E-06,-0.760
6.010E-06,-0.760
6.020E-06,-0.760
6.030E-06,-0.760
6.040E-06,-0.760
6.050E-06,-0.800
6.060E-06,-0.800
6.070E-06,-0.780
6.080E-06,-0.780
6.090E-06,-0.740
6.100E-06,-0.760
6.110E-06,-0.740
6.120E-06,-0.680
6.130E-06,-0.680
6.140E-06,-0.640
6.150E-06,-0.600
6.160E-06,-0.580
6.170E-06,-0.520
6.180E-06,-0.500
6.190E-06,-0.440
6.200E-06,-0.440
6.210E-06,-0.420
6.220E-06,-0.420
6.230E-06,-0.420
6.240E-06,-0.380
6.250E-06,-0.400
6.260E-06,-0.420
6.270E-06,-0.380
6.280E-06,-0.360
6.290E-06,-0.360
6.300E-06,-0.380
6.310E-06,-0.380
6.320E-06,-0.360
6.330E-06,-0.360
6.340E-06,-0.380
6.350E-06,-0.360
6.360E-06,-0.360
6.370E-06,-0.400
6.380E-06,-0.360
6.390E-06,-0.360
6.400E-06,-0.320
6.410E-06,-0.340
6.420E-06,-0.340
6.430E-06,-0.340
6.440E-06,-0.340
6.450E-06,-0.300
6.460E-06,-0.340
6.470E-06,-0.340
6.480E-06,-0.360
6.490E-06,-0.380
6.500E-06,-0.420
6.510E-06,-0.420
6.520E-06,-0.480
6.530E-06,-0.480
6.540E-06,-0.520
6.550E-06,-0.560
6.560E-06,-0.560
6.570E-06,-0.540
6.580E-06,-0.540
6.590E-06,-0.480
6.600E-06,-0.420
6.610E-06,-0.400
6.620E-06,-0.360
6.630E-06,-0.320
6.640E-06,-0.340
6.650E-06,-0.320
6.660E-06,-0.400
6.670E-06,-0.360
6.680E-06,-0.380
6.690E-06,-0.340
6.700E-06,-0.340
6.710E-06,-0.320
6.720E-06,-0.300
6.730E-06,-0.240
6.740E-06,-0.160
6.750E-06,-0.140
6.760E-06,-0.140
6.770E-06,-0.060
6.780E-06,0.000
6.790E-06,0.100
6.800E-06,0.240
6.810E-06,0.340
6.820E-06,0.420
6.830E-06,0.500
6.840E-06,0.520
6.850E-06,0.480
6.860E-06,0.460
6.870E-06,0.340
6.880E-06,0.220
6.890E-06,0.040
6.900E-06,-0.040
6.910E-06,-0.180
6.920E-06,-0.220
6.930E-06,-0.320
6.940E-06,-0.440
6.950E-06,-0.560
6.960E-06,-0.680
6.970E-06,-0.740
6.980E-06,-0.700
6.990E-06,-0.720
7.000E-06,-0.740
7.010E-06,-0.680
7.020E-06,-0.640
7.030E-06,-0.540
7.040E-06,-0.440
7.050E-06,-0.340
7.060E-06,-0.180
7.070E-06,-0.180
7.080E-06,-0.100
7.090E-06,-0.060
7.100E-06,-0.060
7.110E-06,-0.100
7.120E-06,-0.100
7.130E-06,-0.120
7.140E-06,-0.200
7.150E-06,-0.240
7.160E-06,-0.260
7.170E-06,-0.280
7.180E-06,-0.260
7.190E-06,-0.280
7.200E-06,-0.280
7.210E-06,-0.280
7.220E-06,-0.240
7.230E-06,-0.220
7.240E-06,-0.180
7.250E-06,-0.060
7.260E-06,0.000
7.270E-06,0.040
7.280E-06,0.100
7.290E-06,0.200
7.300E-06,0.240
7.310E-06,0.320
7.320E-06,0.340
7.330E-06,0.380
7.340E-06,0.440
7.350E-06,0.460
7.360E-06,0.480
7.370E-06,0.520
7.380E-06,0.500
7.390E-06,0.520
7.400E-06,0.580
7.410E-06,0.600
7.420E-06,0.620
7.430E-06,0.700
7.440E-06,0.740
7.450E-06,0.700
7.460E-06,0.620
7.470E-06,0.540
7.480E-06,0.480
7.490E-06,0.380
7.500E-06,0.400
7.510E-06,0.340
7.520E-06,0.320
7.530E-06,0.280
7.540E-06,0.220
7.550E-06,0.160
7.560E-06,0.120
7.570E-06,0.080
7.580E-06,0.060
7.590E-06,0.040
7.600E-06,0.040
7.610E-06,0.040
7.620E-06,0.020
7.630E-06,0.020
7.640E-06,0.000
7.650E-06,0.020
7.660E-06,0.040
7.670E-06,0.040
7.680E-06,0.080
7.690E-06,0.140
7.700E-06,0.120
7.710E-06,0.140
7.720E-06,0.160
7.730E-06,0.200
7.740E-06,0.240
7.750E-06,0.260
7.760E-06,0.280
7.770E-06,0.220
7.780E-06,0.140
7.790E-06,0.080
7.800E-06,0.020
7.810E-06,-0.060
7.820E-06,-0.120
7.830E-06,-0.180
7.840E-06,-0.180
7.850E-06,-0.200
7.860E-06,-0.220
7.870E-06,-0.220
7.880E-06,-0.160
7.890E-06,-0.100
7.900E-06,-0.080
7.910E-06,0.060
7.920E-06,0.100
7.930E-06,0.200
7.940E-06,0.320
7.950E-06,0.420
7.960E-06,0.580
7.970E-06,0.740
7.980E-06,0.820
7.990E-06,0.900
8.000E-06,0.920
8.010E-06,0.960
8.020E-06,0.960
8.030E-06,0.960
8.040E-06,0.940
8.050E-06,0.900
8.060E-06,0.860
8.070E-06,0.820
8.080E-06,0.860
8.090E-06,0.900
8.100E-06,0.920
8.110E-06,1.000
8.120E-06,1.020
8.130E-06,1.020
8.140E-06,1.060
8.150E-06,1.080
8.160E-06,1.120
8.170E-06,1.160
8.180E-06,1.200
8.190E-06,1.160
8.200E-06,1.200
8.210E-06,1.160
8.220E-06,1.200
8.230E-06,1.180
8.240E-06,1.240
8.250E-06,1.240
8.260E-06,1.280
8.270E-06,1.260
8.280E-06,1.240
8.290E-06,1.240
8.300E-06,1.180
8.310E-06,1.160
8.320E-06,1.080
8.330E-06,1.060
8.340E-06,1.040
8.350E-06,1.040
8.360E-06,1.020
8.370E-06,1.020
8.380E-06,1.040
8.390E-06,1.060
8.400E-06,1.080
8.410E-06,1.100
8.420E-06,1.100
8.430E-06,1.060
8.440E-06,1.040
8.450E-06,1.020
8.460E-06,0.960
8.470E-06,0.940
8.480E-06,0.900
8.490E-06,0.820
8.500E-06,0.760
8.510E-06,0.660
8.520E-06,0.560
8.530E-06,0.520
8.540E-06,0.460
8.550E-06,0.380
8.560E-06,0.280
8.570E-06,0.340
8.580E-06,0.380
8.590E-06,0.400
8.600E-06,0.460
8.610E-06,0.460
8.620E-06,0.520
8.630E-06,0.620
8.640E-06,0.740
8.650E-06,0.880
8.660E-06,0.940
8.670E-06,0.980
8.680E-06,1.000
8.690E-06,0.980
8.700E-06,0.960
8.710E-06,0.880
8.720E-06,0.780
8.730E-06,0.680
8.740E-06,0.600
8.750E-06,0.500
8.760E-06,0.420
8.770E-06,0.360
8.780E-06,0.260
8.790E-06,0.200
8.800E-06,0.180
8.810E-06,0.100
8.820E-06,0.060
8.830E-06,0.020
8.840E-06,0.040
8.850E-06,0.020
8.860E-06,0.060
8.870E-06,0.120
8.880E-06,0.200
8.890E-06,0.260
8.900E-06,0.320
8.910E-06,0.400
8.920E-06,0.440
8.930E-06,0.520
8.940E-06,0.560
8.950E-06,0.620
8.960E-06,0.760
8.970E-06,0.800
8.980E-06,0.880
8.990E-06,0.960
9.000E-06,1.060
9.010E-06,1.040
9.020E-06,1.100
9.030E-06,1.160
9.040E-06,1.180
9.050E-06,1.180
9.060E-06,1.220
9.070E-06,1.280
9.080E-06,1.360
9.090E-06,1.460
9.100E-06,1.480
9.110E-06,1.500
9.120E-06,1.540
9.130E-06,1.580
9.140E-06,1.600
9.150E-06,1.620
9.160E-06,1.580
9.170E-06,1.540
9.180E-06,1.500
9.190E-06,1.480
9.200E-06,1.420
9.210E-06,1.380
9.220E-06,1.360
9.230E-06,1.320
9.240E-06,1.280
9.250E-06,1.260
9.260E-06,1.260
9.270E-06,1.240
9.280E-06,1.260
9.290E-06,1.260
9.300E-06,1.340
9.310E-06,1.360
9.320E-06,1.500
9.330E-06,1.620
9.340E-06,1.780
9.350E-06,1.860
9.360E-06,2.000
9.370E-06,2.040
9.380E-06,2.100
9.390E-06,2.060
9.400E-06,2.060
9.410E-06,2.040
9.420E-06,2.000
9.430E-06,1.980
9.440E-06,2.000
9.450E-06,2.040
9.460E-06,2.100
9.470E-06,2.280
9.480E-06,2.480
9.490E-06,2.740
9.500E-06,2.740
9.510E-06,2.760
9.520E-06,2.760
9.530E-06,2.740
9.540E-06,2.760
9.550E-06,2.780
9.560E-06,2.760
9.570E-06,2.760
9.580E-06,2.760
9.590E-06,2.760
9.600E-06,2.760
9.610E-06,2.760
9.620E-06,2.780
