mediciones/Mediciones filtradas (saque las feas)/5-15/-12.5/WaveData5329.csv

#timebase=2000000(ps)
,#voltbase=500000(mv/100)
#size=4000
-2.250E-06,0.840
-2.240E-06,0.780
-2.230E-06,0.960
-2.220E-06,0.760
-2.210E-06,0.540
-2.200E-06,0.160
-2.190E-06,0.260
-2.180E-06,0.700
-2.170E-06,0.800
-2.160E-06,0.580
-2.150E-06,0.340
-2.140E-06,0.000
-2.130E-06,-0.220
-2.120E-06,-0.080
-2.110E-06,-0.040
-2.100E-06,-0.240
-2.090E-06,-0.480
-2.080E-06,-0.380
-2.070E-06,-0.420
-2.060E-06,-0.420
-2.050E-06,-0.420
-2.040E-06,-0.540
-2.030E-06,-0.780
-2.020E-06,-0.800
-2.010E-06,-0.640
-2.000E-06,-0.380
-1.990E-06,-0.280
-1.980E-06,-0.140
-1.970E-06,-0.160
-1.960E-06,-0.160
-1.950E-06,-0.020
-1.940E-06,0.180
-1.930E-06,0.400
-1.920E-06,0.360
-1.910E-06,0.480
-1.900E-06,0.480
-1.890E-06,0.780
-1.880E-06,1.000
-1.870E-06,1.160
-1.860E-06,1.180
-1.850E-06,1.180
-1.840E-06,1.000
-1.830E-06,1.080
-1.820E-06,0.980
-1.810E-06,0.940
-1.800E-06,0.740
-1.790E-06,0.680
-1.780E-06,0.780
-1.770E-06,1.020
-1.760E-06,1.000
-1.750E-06,1.200
-1.740E-06,0.300
-1.730E-06,0.160
-1.720E-06,0.280
-1.710E-06,-0.660
-1.700E-06,0.040
-1.690E-06,-0.300
-1.680E-06,0.440
-1.670E-06,0.400
-1.660E-06,0.980
-1.650E-06,0.980
-1.640E-06,0.760
-1.630E-06,0.400
-1.620E-06,0.700
-1.610E-06,0.800
-1.600E-06,1.020
-1.590E-06,1.140
-1.580E-06,0.960
-1.570E-06,0.660
-1.560E-06,0.520
-1.550E-06,0.560
-1.540E-06,0.380
-1.530E-06,0.160
-1.520E-06,0.100
-1.510E-06,-0.180
-1.500E-06,-0.260
-1.490E-06,-0.200
-1.480E-06,-0.200
-1.470E-06,-0.460
-1.460E-06,-0.800
-1.450E-06,-0.900
-1.440E-06,-0.960
-1.430E-06,-0.700
-1.420E-06,-0.480
-1.410E-06,-0.400
-1.400E-06,-0.660
-1.390E-06,-0.700
-1.380E-06,-0.640
-1.370E-06,-0.220
-1.360E-06,-0.080
-1.350E-06,0.000
-1.340E-06,0.040
-1.330E-06,-0.040
-1.320E-06,0.100
-1.310E-06,0.240
-1.300E-06,0.480
-1.290E-06,0.760
-1.280E-06,0.880
-1.270E-06,1.140
-1.260E-06,1.260
-1.250E-06,1.260
-1.240E-06,1.420
-1.230E-06,1.280
-1.220E-06,1.260
-1.210E-06,1.220
-1.200E-06,1.180
-1.190E-06,1.180
-1.180E-06,0.840
-1.170E-06,0.980
-1.160E-06,0.800
-1.150E-06,0.640
-1.140E-06,0.600
-1.130E-06,0.520
-1.120E-06,0.500
-1.110E-06,0.420
-1.100E-06,0.400
-1.090E-06,-0.420
-1.080E-06,-0.540
-1.070E-06,-1.020
-1.060E-06,-0.920
-1.050E-06,-0.600
-1.040E-06,-0.320
-1.030E-06,-0.040
-1.020E-06,-0.040
-1.010E-06,-0.080
-1.000E-06,0.140
-9.900E-07,0.400
-9.800E-07,0.460
-9.700E-07,0.740
-9.600E-07,0.760
-9.500E-07,0.720
-9.400E-07,0.820
-9.300E-07,0.960
-9.200E-07,1.000
-9.100E-07,1.060
-9.000E-07,0.720
-8.900E-07,0.940
-8.800E-07,0.580
-8.700E-07,0.700
-8.600E-07,0.640
-8.500E-07,0.100
-8.400E-07,0.220
-8.300E-07,-0.200
-8.200E-07,-0.020
-8.100E-07,0.000
-8.000E-07,-0.020
-7.900E-07,-0.100
-7.800E-07,-0.560
-7.700E-07,-0.600
-7.600E-07,-0.720
-7.500E-07,-0.600
-7.400E-07,-0.460
-7.300E-07,-0.240
-7.200E-07,-0.260
-7.100E-07,-0.440
-7.000E-07,-0.220
-6.900E-07,-0.160
-6.800E-07,-0.180
-6.700E-07,0.300
-6.600E-07,0.300
-6.500E-07,0.580
-6.400E-07,0.820
-6.300E-07,0.920
-6.200E-07,0.920
-6.100E-07,0.740
-6.000E-07,0.740
-5.900E-07,0.920
-5.800E-07,0.720
-5.700E-07,0.840
-5.600E-07,0.740
-5.500E-07,0.480
-5.400E-07,0.400
-5.300E-07,0.500
-5.200E-07,0.580
-5.100E-07,0.520
-5.000E-07,0.480
-4.900E-07,0.320
-4.800E-07,0.180
-4.700E-07,0.100
-4.600E-07,0.220
-4.500E-07,0.100
-4.400E-07,-0.200
-4.300E-07,-0.120
-4.200E-07,-0.320
-4.100E-07,-0.320
-4.000E-07,-0.320
-3.900E-07,-0.500
-3.800E-07,-0.620
-3.700E-07,-0.860
-3.600E-07,-0.700
-3.500E-07,-0.480
-3.400E-07,-0.300
-3.300E-07,0.000
-3.200E-07,0.060
-3.100E-07,0.100
-3.000E-07,0.120
-2.900E-07,0.260
-2.800E-07,0.500
-2.700E-07,0.680
-2.600E-07,0.840
-2.500E-07,0.940
-2.400E-07,0.700
-2.300E-07,0.640
-2.200E-07,0.760
-2.100E-07,0.760
-2.000E-07,0.780
-1.900E-07,0.840
-1.800E-07,0.780
-1.700E-07,0.680
-1.600E-07,0.680
-1.500E-07,0.640
-1.400E-07,0.780
-1.300E-07,0.500
-1.200E-07,0.060
-1.100E-07,0.320
-1.000E-07,0.320
-9.000E-08,0.440
-8.000E-08,0.560
-7.000E-08,0.360
-6.000E-08,-0.040
-5.000E-08,-1.080
-4.000E-08,-0.980
-3.000E-08,-0.960
-2.000E-08,-1.780
-1.000E-08,-2.660
0.000E+00,-2.660
1.000E-08,-2.300
2.000E-08,-1.040
3.000E-08,0.180
4.000E-08,0.520
5.000E-08,-0.240
6.000E-08,-1.520
7.000E-08,-0.220
8.000E-08,-0.100
9.000E-08,1.460
1.000E-07,1.860
1.100E-07,1.320
1.200E-07,0.120
1.300E-07,0.060
1.400E-07,1.020
1.500E-07,1.760
1.600E-07,1.940
1.700E-07,1.600
1.800E-07,0.520
1.900E-07,-0.100
2.000E-07,0.420
2.100E-07,0.580
2.200E-07,0.360
2.300E-07,-0.320
2.400E-07,-1.080
2.500E-07,-1.180
2.600E-07,-0.880
2.700E-07,0.020
2.800E-07,-0.060
2.900E-07,-0.600
3.000E-07,-1.240
3.100E-07,-1.380
3.200E-07,-1.100
3.300E-07,-0.400
3.400E-07,0.120
3.500E-07,-0.140
3.600E-07,-0.560
3.700E-07,-0.700
3.800E-07,-0.520
3.900E-07,0.040
4.000E-07,0.680
4.100E-07,1.140
4.200E-07,1.060
4.300E-07,1.100
4.400E-07,1.000
4.500E-07,0.840
4.600E-07,0.940
4.700E-07,0.980
4.800E-07,1.300
4.900E-07,1.420
5.000E-07,1.140
5.100E-07,1.120
5.200E-07,0.880
5.300E-07,0.660
5.400E-07,0.560
5.500E-07,0.380
5.600E-07,0.200
5.700E-07,0.060
5.800E-07,-0.080
5.900E-07,-0.220
6.000E-07,-0.260
6.100E-07,-0.320
6.200E-07,-0.420
6.300E-07,-0.620
6.400E-07,-0.620
6.500E-07,-0.680
6.600E-07,-0.700
6.700E-07,-0.740
6.800E-07,-0.740
6.900E-07,-0.700
7.000E-07,-1.240
7.100E-07,-0.940
7.200E-07,-1.000
7.300E-07,-0.620
7.400E-07,-0.740
7.500E-07,-0.720
7.600E-07,-0.800
7.700E-07,-1.020
7.800E-07,-1.040
7.900E-07,-0.780
8.000E-07,-0.500
8.100E-07,-0.640
8.200E-07,-0.520
8.300E-07,-0.500
8.400E-07,-0.340
8.500E-07,-0.440
8.600E-07,-0.220
8.700E-07,-0.360
8.800E-07,-0.520
8.900E-07,-0.420
9.000E-07,-0.480
9.100E-07,-0.620
9.200E-07,-0.500
9.300E-07,-0.660
9.400E-07,-0.540
9.500E-07,-0.640
9.600E-07,-0.640
9.700E-07,-0.600
9.800E-07,-0.600
9.900E-07,-0.500
1.000E-06,-0.200
1.010E-06,-0.160
1.020E-06,-0.040
1.030E-06,-0.080
1.040E-06,0.140
1.050E-06,0.140
1.060E-06,0.320
1.070E-06,0.400
1.080E-06,0.360
1.090E-06,0.180
1.100E-06,0.080
1.110E-06,0.080
1.120E-06,0.180
1.130E-06,0.320
1.140E-06,0.460
1.150E-06,0.380
1.160E-06,0.400
1.170E-06,0.400
1.180E-06,0.460
1.190E-06,0.420
1.200E-06,0.380
1.210E-06,0.320
1.220E-06,0.200
1.230E-06,0.180
1.240E-06,0.160
1.250E-06,0.120
1.260E-06,0.040
1.270E-06,-0.060
1.280E-06,-0.140
1.290E-06,-0.220
1.300E-06,-0.340
1.310E-06,-0.400
1.320E-06,-0.600
1.330E-06,-0.800
1.340E-06,-1.020
1.350E-06,-1.320
1.360E-06,-1.740
1.370E-06,-2.220
1.380E-06,-2.640
1.390E-06,-2.660
1.400E-06,-2.660
1.410E-06,-2.660
1.420E-06,-2.660
1.430E-06,-2.660
1.440E-06,-2.400
1.450E-06,-2.100
1.460E-06,-1.840
1.470E-06,-1.660
1.480E-06,-1.560
1.490E-06,-1.480
1.500E-06,-1.440
1.510E-06,-1.380
1.520E-06,-1.360
1.530E-06,-1.360
1.540E-06,-1.400
1.550E-06,-1.520
1.560E-06,-1.700
1.570E-06,-1.860
1.580E-06,-2.100
1.590E-06,-2.280
1.600E-06,-2.580
1.610E-06,-2.660
1.620E-06,-2.680
1.630E-06,-2.680
1.640E-06,-2.660
1.650E-06,-2.660
1.660E-06,-2.660
1.670E-06,-2.680
1.680E-06,-2.660
1.690E-06,-2.660
1.700E-06,-2.660
1.710E-06,-2.660
1.720E-06,-2.660
1.730E-06,-2.660
1.740E-06,-2.660
1.750E-06,-2.660
1.760E-06,-2.640
1.770E-06,-2.660
1.780E-06,-2.660
1.790E-06,-2.680
1.800E-06,-2.680
1.810E-06,-2.680
1.820E-06,-2.660
1.830E-06,-2.660
1.840E-06,-2.660
1.850E-06,-2.660
1.860E-06,-2.660
1.870E-06,-2.660
1.880E-06,-2.660
1.890E-06,-2.660
1.900E-06,-2.660
1.910E-06,-2.660
1.920E-06,-2.660
1.930E-06,-2.680
1.940E-06,-2.660
1.950E-06,-2.660
1.960E-06,-2.660
1.970E-06,-2.660
1.980E-06,-2.660
1.990E-06,-2.660
2.000E-06,-2.660
2.010E-06,-2.680
2.020E-06,-2.660
2.030E-06,-2.660
2.040E-06,-2.660
2.050E-06,-2.660
2.060E-06,-2.660
2.070E-06,-2.660
2.080E-06,-2.660
2.090E-06,-2.660
2.100E-06,-2.660
2.110E-06,-2.660
2.120E-06,-2.660
2.130E-06,-2.660
2.140E-06,-2.660
2.150E-06,-2.660
2.160E-06,-2.660
2.170E-06,-2.660
2.180E-06,-2.660
2.190E-06,-2.660
2.200E-06,-2.660
2.210E-06,-2.660
2.220E-06,-2.640
2.230E-06,-2.640
2.240E-06,-2.640
2.250E-06,-2.640
2.260E-06,-2.640
2.270E-06,-2.640
2.280E-06,-2.640
2.290E-06,-2.640
2.300E-06,-2.640
2.310E-06,-2.660
2.320E-06,-2.600
2.330E-06,-2.500
2.340E-06,-2.460
2.350E-06,-2.360
2.360E-06,-2.280
2.370E-06,-2.160
2.380E-06,-2.040
2.390E-06,-1.960
2.400E-06,-1.840
2.410E-06,-1.740
2.420E-06,-1.640
2.430E-06,-1.540
2.440E-06,-1.460
2.450E-06,-1.460
2.460E-06,-1.400
2.470E-06,-1.420
2.480E-06,-1.460
2.490E-06,-1.460
2.500E-06,-1.420
2.510E-06,-1.420
2.520E-06,-1.400
2.530E-06,-1.380
2.540E-06,-1.380
2.550E-06,-1.480
2.560E-06,-1.560
2.570E-06,-1.640
2.580E-06,-1.720
2.590E-06,-1.760
2.600E-06,-1.720
2.610E-06,-1.740
2.620E-06,-1.800
2.630E-06,-1.780
2.640E-06,-1.800
2.650E-06,-1.780
2.660E-06,-1.760
2.670E-06,-1.740
2.680E-06,-1.780
2.690E-06,-1.740
2.700E-06,-1.700
2.710E-06,-1.660
2.720E-06,-1.620
2.730E-06,-1.560
2.740E-06,-1.460
2.750E-06,-1.500
2.760E-06,-1.480
2.770E-06,-1.460
2.780E-06,-1.480
2.790E-06,-1.520
2.800E-06,-1.540
2.810E-06,-1.500
2.820E-06,-1.500
2.830E-06,-1.480
2.840E-06,-1.420
2.850E-06,-1.360
2.860E-06,-1.300
2.870E-06,-1.200
2.880E-06,-1.120
2.890E-06,-1.060
2.900E-06,-1.020
2.910E-06,-0.980
2.920E-06,-0.940
2.930E-06,-0.920
2.940E-06,-0.880
2.950E-06,-0.860
2.960E-06,-0.900
2.970E-06,-0.940
2.980E-06,-0.980
2.990E-06,-1.040
3.000E-06,-1.100
3.010E-06,-1.160
3.020E-06,-1.220
3.030E-06,-1.280
3.040E-06,-1.360
3.050E-06,-1.400
3.060E-06,-1.460
3.070E-06,-1.520
3.080E-06,-1.620
3.090E-06,-1.680
3.100E-06,-1.720
3.110E-06,-1.780
3.120E-06,-1.820
3.130E-06,-1.820
3.140E-06,-1.820
3.150E-06,-1.780
3.160E-06,-1.780
3.170E-06,-1.680
3.180E-06,-1.620
3.190E-06,-1.600
3.200E-06,-1.540
3.210E-06,-1.520
3.220E-06,-1.420
3.230E-06,-1.400
3.240E-06,-1.340
3.250E-06,-1.260
3.260E-06,-1.140
3.270E-06,-1.060
3.280E-06,-0.980
3.290E-06,-0.940
3.300E-06,-0.880
3.310E-06,-0.820
3.320E-06,-0.760
3.330E-06,-0.680
3.340E-06,-0.580
3.350E-06,-0.500
3.360E-06,-0.420
3.370E-06,-0.400
3.380E-06,-0.380
3.390E-06,-0.320
3.400E-06,-0.380
3.410E-06,-0.420
3.420E-06,-0.400
3.430E-06,-0.440
3.440E-06,-0.440
3.450E-06,-0.420
3.460E-06,-0.400
3.470E-06,-0.320
3.480E-06,-0.180
3.490E-06,-0.100
3.500E-06,0.000
3.510E-06,0.180
3.520E-06,0.300
3.530E-06,0.500
3.540E-06,0.540
3.550E-06,0.520
3.560E-06,0.460
3.570E-06,0.320
3.580E-06,0.180
3.590E-06,0.060
3.600E-06,-0.180
3.610E-06,-0.400
3.620E-06,-0.580
3.630E-06,-0.760
3.640E-06,-0.920
3.650E-06,-1.060
3.660E-06,-1.180
3.670E-06,-1.280
3.680E-06,-1.340
3.690E-06,-1.340
3.700E-06,-1.360
3.710E-06,-1.340
3.720E-06,-1.300
3.730E-06,-1.280
3.740E-06,-1.280
3.750E-06,-1.240
3.760E-06,-1.180
3.770E-06,-1.160
3.780E-06,-1.200
3.790E-06,-1.180
3.800E-06,-1.220
3.810E-06,-1.240
3.820E-06,-1.240
3.830E-06,-1.280
3.840E-06,-1.240
3.850E-06,-1.200
3.860E-06,-1.100
3.870E-06,-1.000
3.880E-06,-0.820
3.890E-06,-0.660
3.900E-06,-0.520
3.910E-06,-0.380
3.920E-06,-0.220
3.930E-06,-0.080
3.940E-06,0.020
3.950E-06,0.140
3.960E-06,0.200
3.970E-06,0.240
3.980E-06,0.280
3.990E-06,0.260
4.000E-06,0.240
4.010E-06,0.260
4.020E-06,0.240
4.030E-06,0.220
4.040E-06,0.240
4.050E-06,0.220
4.060E-06,0.260
4.070E-06,0.300
4.080E-06,0.360
4.090E-06,0.360
4.100E-06,0.400
4.110E-06,0.440
4.120E-06,0.460
4.130E-06,0.440
4.140E-06,0.440
4.150E-06,0.420
4.160E-06,0.420
4.170E-06,0.400
4.180E-06,0.420
4.190E-06,0.420
4.200E-06,0.460
4.210E-06,0.460
4.220E-06,0.500
4.230E-06,0.520
4.240E-06,0.460
4.250E-06,0.460
4.260E-06,0.380
4.270E-06,0.340
4.280E-06,0.300
4.290E-06,0.220
4.300E-06,0.120
4.310E-06,0.040
4.320E-06,0.000
4.330E-06,-0.080
4.340E-06,-0.180
4.350E-06,-0.240
4.360E-06,-0.360
4.370E-06,-0.520
4.380E-06,-0.600
4.390E-06,-0.660
4.400E-06,-0.780
4.410E-06,-0.820
4.420E-06,-0.880
4.430E-06,-0.900
4.440E-06,-0.940
4.450E-06,-0.960
4.460E-06,-0.960
4.470E-06,-0.960
4.480E-06,-0.980
4.490E-06,-0.940
4.500E-06,-0.840
4.510E-06,-0.740
4.520E-06,-0.560
4.530E-06,-0.400
4.540E-06,-0.240
4.550E-06,-0.100
4.560E-06,0.000
4.570E-06,0.180
4.580E-06,0.260
4.590E-06,0.340
4.600E-06,0.420
4.610E-06,0.500
4.620E-06,0.480
4.630E-06,0.500
4.640E-06,0.460
4.650E-06,0.440
4.660E-06,0.380
4.670E-06,0.380
4.680E-06,0.360
4.690E-06,0.360
4.700E-06,0.360
4.710E-06,0.400
4.720E-06,0.420
4.730E-06,0.380
4.740E-06,0.380
4.750E-06,0.380
4.760E-06,0.380
4.770E-06,0.360
4.780E-06,0.280
4.790E-06,0.280
4.800E-06,0.240
4.810E-06,0.200
4.820E-06,0.320
4.830E-06,0.380
4.840E-06,0.480
4.850E-06,0.600
4.860E-06,0.740
4.870E-06,0.860
4.880E-06,0.940
4.890E-06,1.060
4.900E-06,1.080
4.910E-06,1.100
4.920E-06,1.020
4.930E-06,0.900
4.940E-06,0.760
4.950E-06,0.580
4.960E-06,0.440
4.970E-06,0.320
4.980E-06,0.220
4.990E-06,0.200
5.000E-06,0.120
5.010E-06,0.080
5.020E-06,0.000
5.030E-06,-0.100
5.040E-06,-0.140
5.050E-06,-0.200
5.060E-06,-0.300
5.070E-06,-0.340
5.080E-06,-0.360
5.090E-06,-0.340
5.100E-06,-0.300
5.110E-06,-0.260
5.120E-06,-0.180
5.130E-06,-0.140
5.140E-06,-0.040
5.150E-06,-0.020
5.160E-06,-0.020
5.170E-06,0.020
5.180E-06,0.020
5.190E-06,0.060
5.200E-06,0.160
5.210E-06,0.280
5.220E-06,0.380
5.230E-06,0.480
5.240E-06,0.620
5.250E-06,0.720
5.260E-06,0.800
5.270E-06,0.880
5.280E-06,0.960
5.290E-06,1.060
5.300E-06,1.100
5.310E-06,1.180
5.320E-06,1.220
5.330E-06,1.220
5.340E-06,1.180
5.350E-06,1.100
5.360E-06,1.060
5.370E-06,0.940
5.380E-06,0.860
5.390E-06,0.800
5.400E-06,0.700
5.410E-06,0.680
5.420E-06,0.720
5.430E-06,0.760
5.440E-06,0.820
5.450E-06,0.880
5.460E-06,0.960
5.470E-06,1.020
5.480E-06,1.080
5.490E-06,1.100
5.500E-06,1.100
5.510E-06,1.120
5.520E-06,1.140
5.530E-06,1.140
5.540E-06,1.100
5.550E-06,1.120
5.560E-06,1.060
5.570E-06,1.100
5.580E-06,1.100
5.590E-06,1.120
5.600E-06,1.140
5.610E-06,1.180
5.620E-06,1.280
5.630E-06,1.360
5.640E-06,1.420
5.650E-06,1.460
5.660E-06,1.480
5.670E-06,1.500
5.680E-06,1.460
5.690E-06,1.460
5.700E-06,1.360
5.710E-06,1.280
5.720E-06,1.240
5.730E-06,1.120
5.740E-06,1.060
5.750E-06,1.000
5.760E-06,0.960
5.770E-06,0.940
5.780E-06,0.940
5.790E-06,1.000
5.800E-06,1.040
5.810E-06,1.100
5.820E-06,1.180
5.830E-06,1.240
5.840E-06,1.300
5.850E-06,1.300
5.860E-06,1.300
5.870E-06,1.240
5.880E-06,1.180
5.890E-06,1.120
5.900E-06,1.060
5.910E-06,0.960
5.920E-06,0.900
5.930E-06,0.820
5.940E-06,0.800
5.950E-06,0.780
5.960E-06,0.780
5.970E-06,0.800
5.980E-06,0.860
5.990E-06,0.900
6.000E-06,0.940
6.010E-06,0.980
6.020E-06,1.000
6.030E-06,1.140
6.040E-06,1.160
6.050E-06,1.220
6.060E-06,1.200
6.070E-06,1.220
6.080E-06,1.260
6.090E-06,1.240
6.100E-06,1.220
6.110E-06,1.240
6.120E-06,1.260
6.130E-06,1.280
6.140E-06,1.320
6.150E-06,1.360
6.160E-06,1.420
6.170E-06,1.460
6.180E-06,1.480
6.190E-06,1.540
6.200E-06,1.560
6.210E-06,1.580
6.220E-06,1.560
6.230E-06,1.540
6.240E-06,1.520
6.250E-06,1.500
6.260E-06,1.520
6.270E-06,1.480
6.280E-06,1.520
6.290E-06,1.600
6.300E-06,1.680
6.310E-06,1.780
6.320E-06,1.940
6.330E-06,2.060
6.340E-06,2.180
6.350E-06,2.340
6.360E-06,2.480
6.370E-06,2.640
6.380E-06,2.760
6.390E-06,2.740
6.400E-06,2.760
6.410E-06,2.760
6.420E-06,2.780
6.430E-06,2.760
6.440E-06,2.740
6.450E-06,2.760
6.460E-06,2.760
6.470E-06,2.740
6.480E-06,2.760
6.490E-06,2.760
6.500E-06,2.760
6.510E-06,2.740
6.520E-06,2.760
6.530E-06,2.760
6.540E-06,2.760
6.550E-06,2.780
6.560E-06,2.760
6.570E-06,2.740
6.580E-06,2.760
6.590E-06,2.760
6.600E-06,2.760
6.610E-06,2.780
6.620E-06,2.760
6.630E-06,2.740
6.640E-06,2.760
6.650E-06,2.780
6.660E-06,2.780
6.670E-06,2.760
6.680E-06,2.760
6.690E-06,2.740
6.700E-06,2.760
6.710E-06,2.760
6.720E-06,2.740
6.730E-06,2.760
6.740E-06,2.760
6.750E-06,2.740
6.760E-06,2.760
6.770E-06,2.780
6.780E-06,2.760
6.790E-06,2.740
6.800E-06,2.760
6.810E-06,2.780
6.820E-06,2.760
6.830E-06,2.760
6.840E-06,2.760
6.850E-06,2.760
6.860E-06,2.760
6.870E-06,2.780
6.880E-06,2.780
6.890E-06,2.760
6.900E-06,2.760
6.910E-06,2.780
6.920E-06,2.760
6.930E-06,2.740
6.940E-06,2.760
6.950E-06,2.760
6.960E-06,2.780
6.970E-06,2.780
6.980E-06,2.760
6.990E-06,2.780
7.000E-06,2.760
7.010E-06,2.760
7.020E-06,2.760
7.030E-06,2.740
7.040E-06,2.760
7.050E-06,2.780
7.060E-06,2.720
7.070E-06,2.720
7.080E-06,2.680
7.090E-06,2.640
7.100E-06,2.560
7.110E-06,2.540
7.120E-06,2.440
7.130E-06,2.380
7.140E-06,2.300
7.150E-06,2.240
7.160E-06,2.180
7.170E-06,2.100
7.180E-06,2.060
7.190E-06,2.040
7.200E-06,1.980
7.210E-06,1.940
7.220E-06,1.920
7.230E-06,1.900
7.240E-06,1.880
7.250E-06,1.840
7.260E-06,1.840
7.270E-06,1.780
7.280E-06,1.700
7.290E-06,1.660
7.300E-06,1.620
7.310E-06,1.580
7.320E-06,1.480
7.330E-06,1.480
7.340E-06,1.440
7.350E-06,1.420
7.360E-06,1.400
7.370E-06,1.420
7.380E-06,1.400
7.390E-06,1.400
7.400E-06,1.380
7.410E-06,1.360
7.420E-06,1.280
7.430E-06,1.260
7.440E-06,1.220
7.450E-06,1.180
7.460E-06,1.120
7.470E-06,1.100
7.480E-06,1.080
7.490E-06,1.000
7.500E-06,1.020
7.510E-06,0.980
7.520E-06,0.960
7.530E-06,1.000
7.540E-06,0.940
7.550E-06,0.940
7.560E-06,0.920
7.570E-06,0.940
7.580E-06,0.920
7.590E-06,0.880
7.600E-06,0.860
7.610E-06,0.840
7.620E-06,0.820
7.630E-06,0.740
7.640E-06,0.760
7.650E-06,0.780
7.660E-06,0.760
7.670E-06,0.760
7.680E-06,0.740
7.690E-06,0.760
7.700E-06,0.740
7.710E-06,0.720
7.720E-06,0.720
7.730E-06,0.780
7.740E-06,0.760
7.750E-06,0.780
7.760E-06,0.700
7.770E-06,0.740
7.780E-06,0.700
7.790E-06,0.700
7.800E-06,0.680
7.810E-06,0.640
7.820E-06,0.640
7.830E-06,0.620
7.840E-06,0.600
7.850E-06,0.580
7.860E-06,0.540
7.870E-06,0.560
7.880E-06,0.540
7.890E-06,0.520
7.900E-06,0.500
7.910E-06,0.460
7.920E-06,0.420
7.930E-06,0.420
7.940E-06,0.420
7.950E-06,0.380
7.960E-06,0.360
7.970E-06,0.360
7.980E-06,0.340
7.990E-06,0.300
8.000E-06,0.300
8.010E-06,0.300
8.020E-06,0.260
8.030E-06,0.220
8.040E-06,0.220
8.050E-06,0.180
8.060E-06,0.160
8.070E-06,0.120
8.080E-06,0.140
8.090E-06,0.120
8.100E-06,0.100
8.110E-06,0.100
8.120E-06,0.100
8.130E-06,0.120
8.140E-06,0.080
8.150E-06,0.080
8.160E-06,0.080
8.170E-06,0.100
8.180E-06,0.060
8.190E-06,0.080
8.200E-06,0.040
8.210E-06,0.040
8.220E-06,0.020
8.230E-06,0.000
8.240E-06,0.000
8.250E-06,0.000
8.260E-06,0.000
8.270E-06,-0.020
8.280E-06,0.000
8.290E-06,-0.020
8.300E-06,0.000
8.310E-06,0.000
8.320E-06,0.000
8.330E-06,-0.020
8.340E-06,-0.040
8.350E-06,-0.060
8.360E-06,-0.060
8.370E-06,-0.100
8.380E-06,-0.100
8.390E-06,-0.100
8.400E-06,-0.120
8.410E-06,-0.140
8.420E-06,-0.160
8.430E-06,-0.120
8.440E-06,-0.120
8.450E-06,-0.140
8.460E-06,-0.120
8.470E-06,-0.140
8.480E-06,-0.120
8.490E-06,-0.120
8.500E-06,-0.160
8.510E-06,-0.120
8.520E-06,-0.160
8.530E-06,-0.180
8.540E-06,-0.160
8.550E-06,-0.200
8.560E-06,-0.200
8.570E-06,-0.240
8.580E-06,-0.240
8.590E-06,-0.240
8.600E-06,-0.260
8.610E-06,-0.240
8.620E-06,-0.240
8.630E-06,-0.240
8.640E-06,-0.280
8.650E-06,-0.280
8.660E-06,-0.280
8.670E-06,-0.280
8.680E-06,-0.320
8.690E-06,-0.280
8.700E-06,-0.300
8.710E-06,-0.340
8.720E-06,-0.340
8.730E-06,-0.360
8.740E-06,-0.340
8.750E-06,-0.380
8.760E-06,-0.360
8.770E-06,-0.380
8.780E-06,-0.420
8.790E-06,-0.400
8.800E-06,-0.380
8.810E-06,-0.400
8.820E-06,-0.420
8.830E-06,-0.400
8.840E-06,-0.400
8.850E-06,-0.420
8.860E-06,-0.420
8.870E-06,-0.460
8.880E-06,-0.420
8.890E-06,-0.420
8.900E-06,-0.460
8.910E-06,-0.460
8.920E-06,-0.460
8.930E-06,-0.500
8.940E-06,-0.480
8.950E-06,-0.500
8.960E-06,-0.500
8.970E-06,-0.520
8.980E-06,-0.520
8.990E-06,-0.520
9.000E-06,-0.520
9.010E-06,-0.520
9.020E-06,-0.520
9.030E-06,-0.560
9.040E-06,-0.540
9.050E-06,-0.560
9.060E-06,-0.580
9.070E-06,-0.560
9.080E-06,-0.600
9.090E-06,-0.600
9.100E-06,-0.600
9.110E-06,-0.600
9.120E-06,-0.600
9.130E-06,-0.600
9.140E-06,-0.600
9.150E-06,-0.600
9.160E-06,-0.600
9.170E-06,-0.600
9.180E-06,-0.600
9.190E-06,-0.580
9.200E-06,-0.620
9.210E-06,-0.620
9.220E-06,-0.620
9.230E-06,-0.620
9.240E-06,-0.600
9.250E-06,-0.600
9.260E-06,-0.640
9.270E-06,-0.600
9.280E-06,-0.600
9.290E-06,-0.620
9.300E-06,-0.640
9.310E-06,-0.660
9.320E-06,-0.660
9.330E-06,-0.640
9.340E-06,-0.640
9.350E-06,-0.620
9.360E-06,-0.660
9.370E-06,-0.660
9.380E-06,-0.640
9.390E-06,-0.660
9.400E-06,-0.680
9.410E-06,-0.700
9.420E-06,-0.700
9.430E-06,-0.660
9.440E-06,-0.680
9.450E-06,-0.680
9.460E-06,-0.700
9.470E-06,-0.700
9.480E-06,-0.680
9.490E-06,-0.700
9.500E-06,-0.680
9.510E-06,-0.680
9.520E-06,-0.700
9.530E-06,-0.700
9.540E-06,-0.680
9.550E-06,-0.680
9.560E-06,-0.700
9.570E-06,-0.660
9.580E-06,-0.720
9.590E-06,-0.740
9.600E-06,-0.760
9.610E-06,-0.760
9.620E-06,-0.760
9.630E-06,-0.760
9.640E-06,-0.780
9.650E-06,-0.780
9.660E-06,-0.800
9.670E-06,-0.800
9.680E-06,-0.780
9.690E-06,-0.820
