mediciones/Mediciones filtradas (saque las feas)/5-15/-12.5/WaveData5335.csv

#timebase=2000000(ps)
,#voltbase=500000(mv/100)
#size=4000
-2.250E-06,-0.080
-2.240E-06,0.020
-2.230E-06,0.080
-2.220E-06,0.140
-2.210E-06,0.220
-2.200E-06,0.260
-2.190E-06,0.360
-2.180E-06,0.420
-2.170E-06,0.500
-2.160E-06,0.520
-2.150E-06,0.540
-2.140E-06,0.500
-2.130E-06,0.520
-2.120E-06,0.460
-2.110E-06,0.440
-2.100E-06,0.400
-2.090E-06,0.360
-2.080E-06,0.220
-2.070E-06,0.140
-2.060E-06,0.000
-2.050E-06,-0.100
-2.040E-06,-0.100
-2.030E-06,-0.140
-2.020E-06,-0.120
-2.010E-06,-0.080
-2.000E-06,-0.080
-1.990E-06,-0.080
-1.980E-06,0.020
-1.970E-06,0.040
-1.960E-06,0.040
-1.950E-06,0.120
-1.940E-06,0.160
-1.930E-06,0.220
-1.920E-06,0.260
-1.910E-06,0.320
-1.900E-06,0.340
-1.890E-06,0.280
-1.880E-06,0.320
-1.870E-06,0.220
-1.860E-06,0.220
-1.850E-06,0.180
-1.840E-06,0.180
-1.830E-06,0.080
-1.820E-06,0.080
-1.810E-06,0.000
-1.800E-06,-0.080
-1.790E-06,-0.060
-1.780E-06,-0.080
-1.770E-06,-0.140
-1.760E-06,-0.080
-1.750E-06,-0.020
-1.740E-06,-0.020
-1.730E-06,0.040
-1.720E-06,0.060
-1.710E-06,0.140
-1.700E-06,0.100
-1.690E-06,0.220
-1.680E-06,0.220
-1.670E-06,0.260
-1.660E-06,0.260
-1.650E-06,0.280
-1.640E-06,0.280
-1.630E-06,0.280
-1.620E-06,0.260
-1.610E-06,0.260
-1.600E-06,0.280
-1.590E-06,0.320
-1.580E-06,0.380
-1.570E-06,0.500
-1.560E-06,0.560
-1.550E-06,0.580
-1.540E-06,0.460
-1.530E-06,0.400
-1.520E-06,0.080
-1.510E-06,-0.120
-1.500E-06,-0.020
-1.490E-06,-0.160
-1.480E-06,0.220
-1.470E-06,0.340
-1.460E-06,0.180
-1.450E-06,0.220
-1.440E-06,0.040
-1.430E-06,0.060
-1.420E-06,0.100
-1.410E-06,0.180
-1.400E-06,0.080
-1.390E-06,0.080
-1.380E-06,0.200
-1.370E-06,0.140
-1.360E-06,0.300
-1.350E-06,0.180
-1.340E-06,0.200
-1.330E-06,-0.040
-1.320E-06,0.080
-1.310E-06,0.140
-1.300E-06,0.200
-1.290E-06,0.080
-1.280E-06,0.160
-1.270E-06,-0.080
-1.260E-06,-0.020
-1.250E-06,0.040
-1.240E-06,0.140
-1.230E-06,0.100
-1.220E-06,0.080
-1.210E-06,0.040
-1.200E-06,0.000
-1.190E-06,0.020
-1.180E-06,0.160
-1.170E-06,0.200
-1.160E-06,0.140
-1.150E-06,0.120
-1.140E-06,0.180
-1.130E-06,0.160
-1.120E-06,0.220
-1.110E-06,0.280
-1.100E-06,0.280
-1.090E-06,0.300
-1.080E-06,0.340
-1.070E-06,0.380
-1.060E-06,0.340
-1.050E-06,0.380
-1.040E-06,0.340
-1.030E-06,0.300
-1.020E-06,0.340
-1.010E-06,0.340
-1.000E-06,0.360
-9.900E-07,0.340
-9.800E-07,0.320
-9.700E-07,0.280
-9.600E-07,0.160
-9.500E-07,0.240
-9.400E-07,0.220
-9.300E-07,0.300
-9.200E-07,0.300
-9.100E-07,0.300
-9.000E-07,0.240
-8.900E-07,0.200
-8.800E-07,0.240
-8.700E-07,0.200
-8.600E-07,0.180
-8.500E-07,0.180
-8.400E-07,0.160
-8.300E-07,0.120
-8.200E-07,0.140
-8.100E-07,0.220
-8.000E-07,0.180
-7.900E-07,0.180
-7.800E-07,0.240
-7.700E-07,0.240
-7.600E-07,0.260
-7.500E-07,0.340
-7.400E-07,0.300
-7.300E-07,0.300
-7.200E-07,0.280
-7.100E-07,0.360
-7.000E-07,0.420
-6.900E-07,0.380
-6.800E-07,0.440
-6.700E-07,0.200
-6.600E-07,0.300
-6.500E-07,0.100
-6.400E-07,-0.220
-6.300E-07,0.060
-6.200E-07,0.040
-6.100E-07,0.280
-6.000E-07,0.380
-5.900E-07,0.340
-5.800E-07,-0.360
-5.700E-07,-0.520
-5.600E-07,-0.500
-5.500E-07,-0.140
-5.400E-07,0.360
-5.300E-07,0.800
-5.200E-07,0.460
-5.100E-07,-0.200
-5.000E-07,-0.540
-4.900E-07,-0.360
-4.800E-07,-0.160
-4.700E-07,0.200
-4.600E-07,0.440
-4.500E-07,0.220
-4.400E-07,0.020
-4.300E-07,0.200
-4.200E-07,0.460
-4.100E-07,0.180
-4.000E-07,0.080
-3.900E-07,-0.040
-3.800E-07,-0.280
-3.700E-07,-0.020
-3.600E-07,0.400
-3.500E-07,0.540
-3.400E-07,0.300
-3.300E-07,0.040
-3.200E-07,0.000
-3.100E-07,0.120
-3.000E-07,0.480
-2.900E-07,0.860
-2.800E-07,0.860
-2.700E-07,0.680
-2.600E-07,0.640
-2.500E-07,0.620
-2.400E-07,0.620
-2.300E-07,0.680
-2.200E-07,0.760
-2.100E-07,0.740
-2.000E-07,0.660
-1.900E-07,0.760
-1.800E-07,0.580
-1.700E-07,0.480
-1.600E-07,0.480
-1.500E-07,0.460
-1.400E-07,0.480
-1.300E-07,0.400
-1.200E-07,0.240
-1.100E-07,0.060
-1.000E-07,-0.120
-9.000E-08,-0.020
-8.000E-08,0.020
-7.000E-08,0.040
-6.000E-08,0.160
-5.000E-08,-0.540
-4.000E-08,-0.640
-3.000E-08,-0.500
-2.000E-08,-1.840
-1.000E-08,-0.780
0.000E+00,-1.020
1.000E-08,-0.040
2.000E-08,0.640
3.000E-08,1.200
4.000E-08,0.360
5.000E-08,-0.640
6.000E-08,-1.260
7.000E-08,-0.500
8.000E-08,-0.240
9.000E-08,1.140
1.000E-07,1.280
1.100E-07,0.620
1.200E-07,0.120
1.300E-07,0.460
1.400E-07,0.800
1.500E-07,0.280
1.600E-07,0.380
1.700E-07,0.120
1.800E-07,-0.120
1.900E-07,0.300
2.000E-07,0.900
2.100E-07,0.740
2.200E-07,-0.100
2.300E-07,-0.740
2.400E-07,-0.820
2.500E-07,-0.460
2.600E-07,0.460
2.700E-07,1.040
2.800E-07,0.620
2.900E-07,-0.240
3.000E-07,-0.600
3.100E-07,-0.600
3.200E-07,-0.160
3.300E-07,0.380
3.400E-07,0.580
3.500E-07,0.340
3.600E-07,0.180
3.700E-07,0.160
3.800E-07,0.160
3.900E-07,0.080
4.000E-07,0.080
4.100E-07,0.020
4.200E-07,0.020
4.300E-07,0.240
4.400E-07,0.400
4.500E-07,0.340
4.600E-07,0.100
4.700E-07,-0.060
4.800E-07,-0.180
4.900E-07,-0.180
5.000E-07,0.000
5.100E-07,0.100
5.200E-07,0.100
5.300E-07,0.040
5.400E-07,0.000
5.500E-07,-0.020
5.600E-07,-0.020
5.700E-07,0.060
5.800E-07,0.080
5.900E-07,0.120
6.000E-07,0.200
6.100E-07,0.280
6.200E-07,0.360
6.300E-07,0.360
6.400E-07,0.340
6.500E-07,0.200
6.600E-07,0.120
6.700E-07,0.000
6.800E-07,-0.140
6.900E-07,-0.060
7.000E-07,-0.340
7.100E-07,-1.800
7.200E-07,-1.340
7.300E-07,-0.960
7.400E-07,-0.180
7.500E-07,1.120
7.600E-07,1.320
7.700E-07,0.300
7.800E-07,-1.140
7.900E-07,-1.600
8.000E-07,-0.800
8.100E-07,0.120
8.200E-07,0.980
8.300E-07,0.920
8.400E-07,0.000
8.500E-07,-0.440
8.600E-07,0.180
8.700E-07,0.080
8.800E-07,0.140
8.900E-07,0.100
9.000E-07,-0.220
9.100E-07,-0.340
9.200E-07,0.320
9.300E-07,1.100
9.400E-07,0.920
9.500E-07,0.340
9.600E-07,-0.240
9.700E-07,-0.660
9.800E-07,-0.120
9.900E-07,0.640
1.000E-06,1.200
1.010E-06,0.900
1.020E-06,0.180
1.030E-06,-0.120
1.040E-06,0.080
1.050E-06,0.500
1.060E-06,1.180
1.070E-06,1.140
1.080E-06,0.840
1.090E-06,0.520
1.100E-06,0.420
1.110E-06,0.560
1.120E-06,0.680
1.130E-06,0.840
1.140E-06,0.500
1.150E-06,0.120
1.160E-06,0.360
1.170E-06,0.300
1.180E-06,-0.160
1.190E-06,-0.300
1.200E-06,-0.520
1.210E-06,-0.320
1.220E-06,0.040
1.230E-06,0.600
1.240E-06,0.680
1.250E-06,0.040
1.260E-06,-0.680
1.270E-06,-0.620
1.280E-06,-0.940
1.290E-06,-0.060
1.300E-06,0.300
1.310E-06,-0.100
1.320E-06,-0.440
1.330E-06,-0.180
1.340E-06,-0.060
1.350E-06,0.380
1.360E-06,0.560
1.370E-06,0.440
1.380E-06,-0.360
1.390E-06,-0.500
1.400E-06,0.120
1.410E-06,0.900
1.420E-06,1.160
1.430E-06,1.120
1.440E-06,0.440
1.450E-06,-0.020
1.460E-06,0.240
1.470E-06,0.880
1.480E-06,1.100
1.490E-06,0.900
1.500E-06,0.520
1.510E-06,0.080
1.520E-06,0.000
1.530E-06,0.380
1.540E-06,0.560
1.550E-06,0.320
1.560E-06,0.020
1.570E-06,-0.300
1.580E-06,-0.480
1.590E-06,-0.420
1.600E-06,-0.260
1.610E-06,-0.180
1.620E-06,-0.360
1.630E-06,-0.340
1.640E-06,-0.260
1.650E-06,-0.080
1.660E-06,0.100
1.670E-06,0.280
1.680E-06,0.320
1.690E-06,0.220
1.700E-06,0.220
1.710E-06,0.320
1.720E-06,0.500
1.730E-06,0.720
1.740E-06,0.760
1.750E-06,0.640
1.760E-06,0.420
1.770E-06,0.220
1.780E-06,0.180
1.790E-06,0.180
1.800E-06,0.260
1.810E-06,0.200
1.820E-06,-0.020
1.830E-06,-0.260
1.840E-06,-0.380
1.850E-06,-0.400
1.860E-06,-0.500
1.870E-06,-0.440
1.880E-06,-0.480
1.890E-06,-0.420
1.900E-06,-0.380
1.910E-06,-0.260
1.920E-06,-0.200
1.930E-06,-0.200
1.940E-06,-0.180
1.950E-06,-0.180
1.960E-06,-0.140
1.970E-06,0.040
1.980E-06,0.200
1.990E-06,0.320
2.000E-06,0.340
2.010E-06,0.360
2.020E-06,0.340
2.030E-06,0.340
2.040E-06,0.380
2.050E-06,0.340
2.060E-06,0.260
2.070E-06,0.180
2.080E-06,0.100
2.090E-06,0.020
2.100E-06,0.000
2.110E-06,-0.100
2.120E-06,-0.180
2.130E-06,-0.320
2.140E-06,-0.480
2.150E-06,-0.520
2.160E-06,-0.520
2.170E-06,-0.540
2.180E-06,-0.580
2.190E-06,-0.720
2.200E-06,-0.580
2.210E-06,-0.740
2.220E-06,-0.560
2.230E-06,-0.420
2.240E-06,0.020
2.250E-06,0.400
2.260E-06,0.120
2.270E-06,-0.060
2.280E-06,-0.720
2.290E-06,-2.000
2.300E-06,-1.600
2.310E-06,-1.320
2.320E-06,-0.560
2.330E-06,0.220
2.340E-06,0.100
2.350E-06,0.160
2.360E-06,-0.600
2.370E-06,-1.240
2.380E-06,-0.420
2.390E-06,-0.780
2.400E-06,-0.340
2.410E-06,-0.060
2.420E-06,-0.020
2.430E-06,-0.220
2.440E-06,-0.020
2.450E-06,0.300
2.460E-06,-0.280
2.470E-06,-0.340
2.480E-06,-0.360
2.490E-06,-0.480
2.500E-06,-0.160
2.510E-06,0.420
2.520E-06,0.640
2.530E-06,0.120
2.540E-06,0.000
2.550E-06,-0.080
2.560E-06,-0.240
2.570E-06,-0.020
2.580E-06,0.460
2.590E-06,0.440
2.600E-06,-0.020
2.610E-06,-0.280
2.620E-06,-0.260
2.630E-06,-0.360
2.640E-06,0.040
2.650E-06,0.140
2.660E-06,0.100
2.670E-06,-0.240
2.680E-06,-0.420
2.690E-06,-0.520
2.700E-06,-0.340
2.710E-06,-0.380
2.720E-06,-0.220
2.730E-06,-0.600
2.740E-06,-0.880
2.750E-06,-0.640
2.760E-06,-0.600
2.770E-06,-0.140
2.780E-06,0.020
2.790E-06,0.020
2.800E-06,-0.260
2.810E-06,-0.020
2.820E-06,0.080
2.830E-06,0.500
2.840E-06,0.520
2.850E-06,0.200
2.860E-06,0.000
2.870E-06,-0.120
2.880E-06,-0.220
2.890E-06,0.120
2.900E-06,-0.020
2.910E-06,0.000
2.920E-06,-0.240
2.930E-06,-0.400
2.940E-06,-0.080
2.950E-06,-0.240
2.960E-06,-0.200
2.970E-06,-0.160
2.980E-06,-0.780
2.990E-06,-0.760
3.000E-06,-0.820
3.010E-06,-0.600
3.020E-06,-0.540
3.030E-06,-0.340
3.040E-06,-0.160
3.050E-06,-0.380
3.060E-06,0.140
3.070E-06,-0.400
3.080E-06,-0.980
3.090E-06,-1.080
3.100E-06,-1.500
3.110E-06,-0.980
3.120E-06,-0.720
3.130E-06,0.000
3.140E-06,0.000
3.150E-06,-0.340
3.160E-06,-0.160
3.170E-06,-0.240
3.180E-06,0.100
3.190E-06,0.380
3.200E-06,0.660
3.210E-06,0.440
3.220E-06,0.340
3.230E-06,0.280
3.240E-06,0.520
3.250E-06,0.440
3.260E-06,0.520
3.270E-06,0.440
3.280E-06,0.260
3.290E-06,0.200
3.300E-06,0.360
3.310E-06,0.360
3.320E-06,0.300
3.330E-06,0.000
3.340E-06,-0.080
3.350E-06,-0.260
3.360E-06,-0.160
3.370E-06,-0.060
3.380E-06,-0.020
3.390E-06,-0.300
3.400E-06,-0.580
3.410E-06,-0.740
3.420E-06,-0.880
3.430E-06,-0.840
3.440E-06,-0.680
3.450E-06,-0.760
3.460E-06,-0.800
3.470E-06,-0.900
3.480E-06,-0.880
3.490E-06,-0.620
3.500E-06,-0.500
3.510E-06,-0.420
3.520E-06,-0.480
3.530E-06,-0.680
3.540E-06,-0.540
3.550E-06,-0.460
3.560E-06,-0.200
3.570E-06,-0.040
3.580E-06,-0.140
3.590E-06,-0.080
3.600E-06,-0.140
3.610E-06,0.080
3.620E-06,0.260
3.630E-06,0.340
3.640E-06,0.380
3.650E-06,0.300
3.660E-06,0.260
3.670E-06,0.180
3.680E-06,0.140
3.690E-06,0.120
3.700E-06,-0.060
3.710E-06,-0.120
3.720E-06,-0.200
3.730E-06,-0.180
3.740E-06,-0.260
3.750E-06,-0.340
3.760E-06,-0.480
3.770E-06,-0.540
3.780E-06,-0.580
3.790E-06,-0.500
3.800E-06,-0.320
3.810E-06,-0.260
3.820E-06,-0.180
3.830E-06,-0.300
3.840E-06,-0.320
3.850E-06,-0.260
3.860E-06,-0.340
3.870E-06,-0.080
3.880E-06,-0.200
3.890E-06,-0.420
3.900E-06,-0.880
3.910E-06,-0.240
3.920E-06,-2.240
3.930E-06,-2.640
3.940E-06,-1.740
3.950E-06,-2.080
3.960E-06,-0.300
3.970E-06,0.300
3.980E-06,1.460
3.990E-06,-0.680
4.000E-06,-2.440
4.010E-06,-2.360
4.020E-06,-2.600
4.030E-06,-1.660
4.040E-06,0.560
4.050E-06,0.280
4.060E-06,0.440
4.070E-06,-0.100
4.080E-06,0.260
4.090E-06,0.420
4.100E-06,0.500
4.110E-06,1.240
4.120E-06,0.760
4.130E-06,0.520
4.140E-06,1.340
4.150E-06,1.980
4.160E-06,1.660
4.170E-06,0.940
4.180E-06,0.600
4.190E-06,-0.500
4.200E-06,-0.500
4.210E-06,0.060
4.220E-06,0.500
4.230E-06,0.120
4.240E-06,-0.460
4.250E-06,-0.780
4.260E-06,-1.360
4.270E-06,-1.320
4.280E-06,-0.820
4.290E-06,-0.800
4.300E-06,-1.100
4.310E-06,-1.300
4.320E-06,-1.480
4.330E-06,-1.700
4.340E-06,-1.600
4.350E-06,-1.080
4.360E-06,-1.000
4.370E-06,-0.820
4.380E-06,-0.600
4.390E-06,-0.440
4.400E-06,-0.440
4.410E-06,-0.140
4.420E-06,0.320
4.430E-06,0.580
4.440E-06,0.820
4.450E-06,0.940
4.460E-06,1.200
4.470E-06,1.020
4.480E-06,1.280
4.490E-06,1.280
4.500E-06,1.000
4.510E-06,1.140
4.520E-06,0.260
4.530E-06,-0.300
4.540E-06,-0.600
4.550E-06,-2.200
4.560E-06,-2.660
4.570E-06,-2.660
4.580E-06,-2.660
4.590E-06,0.160
4.600E-06,2.580
4.610E-06,2.540
4.620E-06,1.520
4.630E-06,-1.520
4.640E-06,-2.680
4.650E-06,-2.440
4.660E-06,-1.080
4.670E-06,0.360
4.680E-06,0.300
4.690E-06,0.040
4.700E-06,0.040
4.710E-06,0.500
4.720E-06,0.860
4.730E-06,0.840
4.740E-06,0.120
4.750E-06,-0.860
4.760E-06,-0.920
4.770E-06,-0.300
4.780E-06,0.880
4.790E-06,0.800
4.800E-06,0.580
4.810E-06,-0.340
4.820E-06,-0.760
4.830E-06,-0.260
4.840E-06,0.380
4.850E-06,0.740
4.860E-06,0.280
4.870E-06,-0.640
4.880E-06,-1.660
4.890E-06,-2.000
4.900E-06,-1.480
4.910E-06,-1.060
4.920E-06,-2.040
4.930E-06,-1.660
4.940E-06,-2.660
4.950E-06,-2.680
4.960E-06,-2.660
4.970E-06,-2.660
4.980E-06,-2.660
4.990E-06,-1.000
5.000E-06,-0.640
5.010E-06,0.160
5.020E-06,0.940
5.030E-06,1.840
5.040E-06,2.540
5.050E-06,2.760
5.060E-06,2.740
5.070E-06,2.760
5.080E-06,2.760
5.090E-06,2.760
5.100E-06,2.740
5.110E-06,2.760
5.120E-06,2.780
5.130E-06,2.460
5.140E-06,2.160
5.150E-06,1.300
5.160E-06,0.900
5.170E-06,0.180
5.180E-06,-0.660
5.190E-06,-1.320
5.200E-06,-1.780
5.210E-06,-2.060
5.220E-06,-2.420
5.230E-06,-2.100
5.240E-06,-2.260
5.250E-06,-2.300
5.260E-06,-2.300
5.270E-06,-2.340
5.280E-06,-2.240
5.290E-06,-2.280
5.300E-06,-2.000
5.310E-06,-2.000
5.320E-06,-2.180
5.330E-06,-2.420
5.340E-06,-2.660
5.350E-06,-2.660
5.360E-06,-2.660
5.370E-06,-2.660
5.380E-06,-2.660
5.390E-06,-2.660
5.400E-06,-2.660
5.410E-06,-2.660
5.420E-06,-2.660
5.430E-06,-2.660
5.440E-06,-2.660
5.450E-06,-2.640
5.460E-06,-2.640
5.470E-06,-2.640
5.480E-06,-2.640
5.490E-06,-2.660
5.500E-06,-2.660
5.510E-06,-2.660
5.520E-06,-2.640
5.530E-06,-2.640
5.540E-06,-2.640
5.550E-06,-2.660
5.560E-06,-2.660
5.570E-06,-2.680
5.580E-06,-2.680
5.590E-06,-2.660
5.600E-06,-2.660
5.610E-06,-2.660
5.620E-06,-2.660
5.630E-06,-2.660
5.640E-06,-2.660
5.650E-06,-2.660
5.660E-06,-2.660
5.670E-06,-2.680
5.680E-06,-2.660
5.690E-06,-2.660
5.700E-06,-2.660
5.710E-06,-2.660
5.720E-06,-2.640
5.730E-06,-2.660
5.740E-06,-2.660
5.750E-06,-2.680
5.760E-06,-2.660
5.770E-06,-2.660
5.780E-06,-2.660
5.790E-06,-2.660
5.800E-06,-2.680
5.810E-06,-2.660
5.820E-06,-2.660
5.830E-06,-2.640
5.840E-06,-2.660
5.850E-06,-2.660
5.860E-06,-2.660
5.870E-06,-2.640
5.880E-06,-2.640
5.890E-06,-2.660
5.900E-06,-2.260
5.910E-06,-2.180
5.920E-06,-2.220
5.930E-06,-2.180
5.940E-06,-1.880
5.950E-06,-1.720
5.960E-06,-1.700
5.970E-06,-1.840
5.980E-06,-2.160
5.990E-06,-2.280
6.000E-06,-2.380
6.010E-06,-2.320
6.020E-06,-2.380
6.030E-06,-2.600
6.040E-06,-2.660
6.050E-06,-2.660
6.060E-06,-2.660
6.070E-06,-2.640
6.080E-06,-2.660
6.090E-06,-2.660
6.100E-06,-2.660
6.110E-06,-2.640
6.120E-06,-2.640
6.130E-06,-2.660
6.140E-06,-2.660
6.150E-06,-2.660
6.160E-06,-2.660
6.170E-06,-2.660
6.180E-06,-2.660
6.190E-06,-2.660
6.200E-06,-2.660
6.210E-06,-2.660
6.220E-06,-2.680
6.230E-06,-2.660
6.240E-06,-2.660
6.250E-06,-2.640
6.260E-06,-2.640
6.270E-06,-2.640
6.280E-06,-2.660
6.290E-06,-2.660
6.300E-06,-2.660
6.310E-06,-2.660
6.320E-06,-2.680
6.330E-06,-2.660
6.340E-06,-2.640
6.350E-06,-2.340
6.360E-06,-2.120
6.370E-06,-2.120
6.380E-06,-2.080
6.390E-06,-2.200
6.400E-06,-2.340
6.410E-06,-2.480
6.420E-06,-2.620
6.430E-06,-2.640
6.440E-06,-2.660
6.450E-06,-2.660
6.460E-06,-2.660
6.470E-06,-2.660
6.480E-06,-2.660
6.490E-06,-2.660
6.500E-06,-2.680
6.510E-06,-2.660
6.520E-06,-2.660
6.530E-06,-2.640
6.540E-06,-2.660
6.550E-06,-2.660
6.560E-06,-2.660
6.570E-06,-2.660
6.580E-06,-2.660
6.590E-06,-2.660
6.600E-06,-2.640
6.610E-06,-2.660
6.620E-06,-2.660
6.630E-06,-2.660
6.640E-06,-2.620
6.650E-06,-2.560
6.660E-06,-2.560
6.670E-06,-2.520
6.680E-06,-2.460
6.690E-06,-2.440
6.700E-06,-2.380
6.710E-06,-2.360
6.720E-06,-2.340
6.730E-06,-2.340
6.740E-06,-2.340
6.750E-06,-2.340
6.760E-06,-2.280
6.770E-06,-2.280
6.780E-06,-2.200
6.790E-06,-2.240
6.800E-06,-2.260
6.810E-06,-2.280
6.820E-06,-2.260
6.830E-06,-2.240
6.840E-06,-2.240
6.850E-06,-2.260
6.860E-06,-2.200
6.870E-06,-2.200
6.880E-06,-2.180
6.890E-06,-2.160
6.900E-06,-2.140
6.910E-06,-2.160
6.920E-06,-2.160
6.930E-06,-2.120
6.940E-06,-2.100
6.950E-06,-2.020
6.960E-06,-1.960
6.970E-06,-1.880
6.980E-06,-1.800
6.990E-06,-1.680
7.000E-06,-1.560
7.010E-06,-1.500
7.020E-06,-1.360
7.030E-06,-1.280
7.040E-06,-1.160
7.050E-06,-1.000
7.060E-06,-0.920
7.070E-06,-0.840
7.080E-06,-0.720
7.090E-06,-0.680
7.100E-06,-0.600
7.110E-06,-0.580
7.120E-06,-0.560
7.130E-06,-0.560
7.140E-06,-0.580
7.150E-06,-0.620
7.160E-06,-0.680
7.170E-06,-0.740
7.180E-06,-0.820
7.190E-06,-0.900
7.200E-06,-0.920
7.210E-06,-1.000
7.220E-06,-1.080
7.230E-06,-1.080
7.240E-06,-1.100
7.250E-06,-1.120
7.260E-06,-1.140
7.270E-06,-1.160
7.280E-06,-1.180
7.290E-06,-1.200
7.300E-06,-1.240
7.310E-06,-1.280
7.320E-06,-1.340
7.330E-06,-1.380
7.340E-06,-1.440
7.350E-06,-1.540
7.360E-06,-1.600
7.370E-06,-1.680
7.380E-06,-1.680
7.390E-06,-1.760
7.400E-06,-1.840
7.410E-06,-1.880
7.420E-06,-1.900
7.430E-06,-2.000
7.440E-06,-2.040
7.450E-06,-2.080
7.460E-06,-2.140
7.470E-06,-2.180
7.480E-06,-2.220
7.490E-06,-2.240
7.500E-06,-2.220
7.510E-06,-2.280
7.520E-06,-2.280
7.530E-06,-2.280
7.540E-06,-2.280
7.550E-06,-2.260
7.560E-06,-2.140
7.570E-06,-2.040
7.580E-06,-1.960
7.590E-06,-1.840
7.600E-06,-1.680
7.610E-06,-1.600
7.620E-06,-1.460
7.630E-06,-1.380
7.640E-06,-1.260
7.650E-06,-1.240
7.660E-06,-1.100
7.670E-06,-1.040
7.680E-06,-0.940
7.690E-06,-0.860
7.700E-06,-0.740
7.710E-06,-0.620
7.720E-06,-0.500
7.730E-06,-0.280
7.740E-06,-0.140
7.750E-06,0.080
7.760E-06,0.300
7.770E-06,0.460
7.780E-06,0.500
7.790E-06,0.620
7.800E-06,0.620
7.810E-06,0.560
7.820E-06,0.540
7.830E-06,0.460
7.840E-06,0.320
7.850E-06,0.300
7.860E-06,0.260
7.870E-06,0.220
7.880E-06,0.160
7.890E-06,0.020
7.900E-06,-0.080
7.910E-06,-0.260
7.920E-06,-0.400
7.930E-06,-0.540
7.940E-06,-0.640
7.950E-06,-0.800
7.960E-06,-0.920
7.970E-06,-1.000
7.980E-06,-1.120
7.990E-06,-1.160
8.000E-06,-1.140
8.010E-06,-1.180
8.020E-06,-1.260
8.030E-06,-1.300
8.040E-06,-1.400
8.050E-06,-1.520
8.060E-06,-1.620
8.070E-06,-1.620
8.080E-06,-1.660
8.090E-06,-1.680
8.100E-06,-1.740
8.110E-06,-1.780
8.120E-06,-1.780
8.130E-06,-1.820
8.140E-06,-1.840
8.150E-06,-1.800
8.160E-06,-1.800
8.170E-06,-1.780
8.180E-06,-1.800
8.190E-06,-1.760
8.200E-06,-1.680
8.210E-06,-1.620
8.220E-06,-1.560
8.230E-06,-1.520
8.240E-06,-1.520
8.250E-06,-1.460
8.260E-06,-1.440
8.270E-06,-1.440
8.280E-06,-1.380
8.290E-06,-1.320
8.300E-06,-1.320
8.310E-06,-1.260
8.320E-06,-1.180
8.330E-06,-1.120
8.340E-06,-1.040
8.350E-06,-1.000
8.360E-06,-0.940
8.370E-06,-0.940
8.380E-06,-0.940
8.390E-06,-0.940
8.400E-06,-0.900
8.410E-06,-0.900
8.420E-06,-0.820
8.430E-06,-0.740
8.440E-06,-0.640
8.450E-06,-0.540
8.460E-06,-0.340
8.470E-06,-0.220
8.480E-06,-0.060
8.490E-06,0.040
8.500E-06,0.180
8.510E-06,0.260
8.520E-06,0.340
8.530E-06,0.320
8.540E-06,0.360
8.550E-06,0.380
8.560E-06,0.340
8.570E-06,0.340
8.580E-06,0.320
8.590E-06,0.320
8.600E-06,0.300
8.610E-06,0.300
8.620E-06,0.300
8.630E-06,0.280
8.640E-06,0.280
8.650E-06,0.320
8.660E-06,0.380
8.670E-06,0.460
8.680E-06,0.580
8.690E-06,0.700
8.700E-06,0.760
8.710E-06,0.780
8.720E-06,0.760
8.730E-06,0.760
8.740E-06,0.740
8.750E-06,0.640
8.760E-06,0.520
8.770E-06,0.440
8.780E-06,0.400
8.790E-06,0.340
8.800E-06,0.320
8.810E-06,0.280
8.820E-06,0.320
8.830E-06,0.340
8.840E-06,0.380
8.850E-06,0.420
8.860E-06,0.480
8.870E-06,0.500
8.880E-06,0.480
8.890E-06,0.420
8.900E-06,0.380
8.910E-06,0.260
8.920E-06,0.180
8.930E-06,0.100
8.940E-06,0.020
8.950E-06,0.060
8.960E-06,0.100
8.970E-06,0.100
8.980E-06,0.140
8.990E-06,0.160
9.000E-06,0.180
9.010E-06,0.200
9.020E-06,0.160
9.030E-06,0.200
9.040E-06,0.220
9.050E-06,0.260
9.060E-06,0.280
9.070E-06,0.360
9.080E-06,0.320
9.090E-06,0.360
9.100E-06,0.380
9.110E-06,0.340
9.120E-06,0.340
9.130E-06,0.320
9.140E-06,0.240
9.150E-06,0.180
9.160E-06,0.040
9.170E-06,-0.080
9.180E-06,-0.160
9.190E-06,-0.180
9.200E-06,-0.240
9.210E-06,-0.200
9.220E-06,-0.220
9.230E-06,-0.180
9.240E-06,-0.160
9.250E-06,-0.140
9.260E-06,-0.160
9.270E-06,-0.160
9.280E-06,-0.260
9.290E-06,-0.340
9.300E-06,-0.360
9.310E-06,-0.480
9.320E-06,-0.420
9.330E-06,-0.400
9.340E-06,-0.340
9.350E-06,-0.280
9.360E-06,-0.260
9.370E-06,-0.240
9.380E-06,-0.220
9.390E-06,-0.280
9.400E-06,-0.320
9.410E-06,-0.360
9.420E-06,-0.340
9.430E-06,-0.320
9.440E-06,-0.260
9.450E-06,-0.100
9.460E-06,0.020
9.470E-06,0.180
9.480E-06,0.320
9.490E-06,0.400
9.500E-06,0.480
9.510E-06,0.540
9.520E-06,0.560
9.530E-06,0.560
9.540E-06,0.580
9.550E-06,0.600
9.560E-06,0.600
9.570E-06,0.660
9.580E-06,0.700
9.590E-06,0.740
9.600E-06,0.740
9.610E-06,0.840
9.620E-06,0.840
9.630E-06,0.900
9.640E-06,0.880
9.650E-06,0.840
