mediciones/Mediciones filtradas (saque las feas)/5-15/-12.5/WaveData534.csv

#timebase=2000000(ps)
,#voltbase=100000(mv/100)
#size=4000
8.000E-07,0.172
8.100E-07,0.176
8.200E-07,0.180
8.300E-07,0.176
8.400E-07,0.176
8.500E-07,0.172
8.600E-07,0.168
8.700E-07,0.156
8.800E-07,0.168
8.900E-07,0.172
9.000E-07,0.184
9.100E-07,0.188
9.200E-07,0.188
9.300E-07,0.176
9.400E-07,0.172
9.500E-07,0.168
9.600E-07,0.172
9.700E-07,0.176
9.800E-07,0.176
9.900E-07,0.172
1.000E-06,0.176
1.010E-06,0.172
1.020E-06,0.172
1.030E-06,0.164
1.040E-06,0.172
1.050E-06,0.168
1.060E-06,0.176
1.070E-06,0.176
1.080E-06,0.172
1.090E-06,0.176
1.100E-06,0.180
1.110E-06,0.180
1.120E-06,0.172
1.130E-06,0.168
1.140E-06,0.168
1.150E-06,0.160
1.160E-06,0.168
1.170E-06,0.164
1.180E-06,0.168
1.190E-06,0.176
1.200E-06,0.168
1.210E-06,0.168
1.220E-06,0.172
1.230E-06,0.164
1.240E-06,0.164
1.250E-06,0.168
1.260E-06,0.176
1.270E-06,0.168
1.280E-06,0.172
1.290E-06,0.172
1.300E-06,0.168
1.310E-06,0.168
1.320E-06,0.172
1.330E-06,0.168
1.340E-06,0.164
1.350E-06,0.168
1.360E-06,0.164
1.370E-06,0.164
1.380E-06,0.164
1.390E-06,0.164
1.400E-06,0.164
1.410E-06,0.164
1.420E-06,0.168
1.430E-06,0.164
1.440E-06,0.164
1.450E-06,0.168
1.460E-06,0.164
1.470E-06,0.164
1.480E-06,0.156
1.490E-06,0.160
1.500E-06,0.164
1.510E-06,0.164
1.520E-06,0.168
1.530E-06,0.156
1.540E-06,0.156
1.550E-06,0.164
1.560E-06,0.156
1.570E-06,0.164
1.580E-06,0.156
1.590E-06,0.160
1.600E-06,0.164
1.610E-06,0.160
1.620E-06,0.164
1.630E-06,0.152
1.640E-06,0.160
1.650E-06,0.160
1.660E-06,0.160
1.670E-06,0.164
1.680E-06,0.156
1.690E-06,0.164
1.700E-06,0.160
1.710E-06,0.152
1.720E-06,0.156
1.730E-06,0.160
1.740E-06,0.156
1.750E-06,0.156
1.760E-06,0.160
1.770E-06,0.164
1.780E-06,0.160
1.790E-06,0.152
1.800E-06,0.156
1.810E-06,0.148
1.820E-06,0.152
1.830E-06,0.148
1.840E-06,0.156
1.850E-06,0.160
1.860E-06,0.152
1.870E-06,0.148
1.880E-06,0.148
1.890E-06,0.148
1.900E-06,0.144
1.910E-06,0.148
1.920E-06,0.156
1.930E-06,0.156
1.940E-06,0.156
1.950E-06,0.160
1.960E-06,0.156
1.970E-06,0.144
1.980E-06,0.144
1.990E-06,0.152
2.000E-06,0.152
2.010E-06,0.156
2.020E-06,0.156
2.030E-06,0.148
2.040E-06,0.144
2.050E-06,0.144
2.060E-06,0.144
2.070E-06,0.140
2.080E-06,0.136
2.090E-06,0.144
2.100E-06,0.144
2.110E-06,0.152
2.120E-06,0.152
2.130E-06,0.152
2.140E-06,0.148
2.150E-06,0.144
2.160E-06,0.136
2.170E-06,0.140
2.180E-06,0.144
2.190E-06,0.144
2.200E-06,0.144
2.210E-06,0.140
2.220E-06,0.144
2.230E-06,0.136
2.240E-06,0.136
2.250E-06,0.140
2.260E-06,0.140
2.270E-06,0.140
2.280E-06,0.140
2.290E-06,0.148
2.300E-06,0.140
2.310E-06,0.140
2.320E-06,0.152
2.330E-06,0.144
2.340E-06,0.152
2.350E-06,0.152
2.360E-06,0.152
2.370E-06,0.140
2.380E-06,0.132
2.390E-06,0.132
2.400E-06,0.136
2.410E-06,0.140
2.420E-06,0.144
2.430E-06,0.140
2.440E-06,0.136
2.450E-06,0.132
2.460E-06,0.128
2.470E-06,0.140
2.480E-06,0.144
2.490E-06,0.140
2.500E-06,0.144
2.510E-06,0.132
2.520E-06,0.128
2.530E-06,0.132
2.540E-06,0.136
2.550E-06,0.136
2.560E-06,0.140
2.570E-06,0.140
2.580E-06,0.136
2.590E-06,0.132
2.600E-06,0.132
2.610E-06,0.128
2.620E-06,0.132
2.630E-06,0.136
2.640E-06,0.140
2.650E-06,0.136
2.660E-06,0.128
2.670E-06,0.132
2.680E-06,0.132
2.690E-06,0.128
2.700E-06,0.128
2.710E-06,0.128
2.720E-06,0.132
2.730E-06,0.132
2.740E-06,0.132
2.750E-06,0.128
2.760E-06,0.128
2.770E-06,0.132
2.780E-06,0.132
2.790E-06,0.136
2.800E-06,0.132
2.810E-06,0.132
2.820E-06,0.124
2.830E-06,0.120
2.840E-06,0.124
2.850E-06,0.124
2.860E-06,0.124
2.870E-06,0.124
2.880E-06,0.128
2.890E-06,0.128
2.900E-06,0.128
2.910E-06,0.124
2.920E-06,0.124
2.930E-06,0.124
2.940E-06,0.124
2.950E-06,0.124
2.960E-06,0.120
2.970E-06,0.116
2.980E-06,0.120
2.990E-06,0.116
3.000E-06,0.120
3.010E-06,0.120
3.020E-06,0.124
3.030E-06,0.124
3.040E-06,0.124
3.050E-06,0.120
3.060E-06,0.120
3.070E-06,0.112
3.080E-06,0.120
3.090E-06,0.120
3.100E-06,0.124
3.110E-06,0.128
3.120E-06,0.120
3.130E-06,0.120
3.140E-06,0.112
3.150E-06,0.112
3.160E-06,0.112
3.170E-06,0.120
3.180E-06,0.124
3.190E-06,0.116
3.200E-06,0.120
3.210E-06,0.116
3.220E-06,0.112
3.230E-06,0.116
3.240E-06,0.112
3.250E-06,0.120
3.260E-06,0.120
3.270E-06,0.108
3.280E-06,0.108
3.290E-06,0.104
3.300E-06,0.108
3.310E-06,0.112
3.320E-06,0.112
3.330E-06,0.108
3.340E-06,0.104
3.350E-06,0.096
3.360E-06,0.096
3.370E-06,0.096
3.380E-06,0.096
3.390E-06,0.100
3.400E-06,0.108
3.410E-06,0.108
3.420E-06,0.104
3.430E-06,0.100
3.440E-06,0.096
3.450E-06,0.092
3.460E-06,0.092
3.470E-06,0.096
3.480E-06,0.096
3.490E-06,0.104
3.500E-06,0.108
3.510E-06,0.104
3.520E-06,0.096
3.530E-06,0.088
3.540E-06,0.092
3.550E-06,0.092
3.560E-06,0.092
3.570E-06,0.100
3.580E-06,0.096
3.590E-06,0.088
3.600E-06,0.096
3.610E-06,0.096
3.620E-06,0.100
3.630E-06,0.092
3.640E-06,0.096
3.650E-06,0.092
3.660E-06,0.092
3.670E-06,0.092
3.680E-06,0.088
3.690E-06,0.088
3.700E-06,0.092
3.710E-06,0.088
3.720E-06,0.092
3.730E-06,0.088
3.740E-06,0.088
3.750E-06,0.088
3.760E-06,0.092
3.770E-06,0.092
3.780E-06,0.092
3.790E-06,0.096
3.800E-06,0.096
3.810E-06,0.092
3.820E-06,0.092
3.830E-06,0.096
3.840E-06,0.096
3.850E-06,0.088
3.860E-06,0.092
3.870E-06,0.080
3.880E-06,0.092
3.890E-06,0.080
3.900E-06,0.080
3.910E-06,0.088
3.920E-06,0.088
3.930E-06,0.096
3.940E-06,0.088
3.950E-06,0.084
3.960E-06,0.092
3.970E-06,0.088
3.980E-06,0.080
3.990E-06,0.084
4.000E-06,0.080
4.010E-06,0.088
4.020E-06,0.088
4.030E-06,0.092
4.040E-06,0.084
4.050E-06,0.088
4.060E-06,0.088
4.070E-06,0.084
4.080E-06,0.088
4.090E-06,0.088
4.100E-06,0.088
4.110E-06,0.092
4.120E-06,0.084
4.130E-06,0.088
4.140E-06,0.084
4.150E-06,0.088
4.160E-06,0.084
4.170E-06,0.084
4.180E-06,0.084
4.190E-06,0.080
4.200E-06,0.084
4.210E-06,0.084
4.220E-06,0.084
4.230E-06,0.092
4.240E-06,0.080
4.250E-06,0.084
4.260E-06,0.076
4.270E-06,0.080
4.280E-06,0.084
4.290E-06,0.084
4.300E-06,0.080
4.310E-06,0.084
4.320E-06,0.088
4.330E-06,0.080
4.340E-06,0.080
4.350E-06,0.080
4.360E-06,0.076
4.370E-06,0.072
4.380E-06,0.072
4.390E-06,0.068
4.400E-06,0.072
4.410E-06,0.076
4.420E-06,0.072
4.430E-06,0.072
4.440E-06,0.072
4.450E-06,0.076
4.460E-06,0.068
4.470E-06,0.068
4.480E-06,0.068
4.490E-06,0.076
4.500E-06,0.064
4.510E-06,0.064
4.520E-06,0.064
4.530E-06,0.064
4.540E-06,0.068
4.550E-06,0.068
4.560E-06,0.064
4.570E-06,0.072
4.580E-06,0.068
4.590E-06,0.060
4.600E-06,0.064
4.610E-06,0.060
4.620E-06,0.064
4.630E-06,0.064
4.640E-06,0.064
4.650E-06,0.068
4.660E-06,0.064
4.670E-06,0.064
4.680E-06,0.064
4.690E-06,0.064
4.700E-06,0.064
4.710E-06,0.064
4.720E-06,0.060
4.730E-06,0.056
4.740E-06,0.056
4.750E-06,0.056
4.760E-06,0.060
4.770E-06,0.060
4.780E-06,0.056
4.790E-06,0.056
4.800E-06,0.056
4.810E-06,0.056
4.820E-06,0.060
4.830E-06,0.056
4.840E-06,0.056
4.850E-06,0.056
4.860E-06,0.056
4.870E-06,0.056
4.880E-06,0.056
4.890E-06,0.052
4.900E-06,0.056
4.910E-06,0.056
4.920E-06,0.056
4.930E-06,0.060
4.940E-06,0.060
4.950E-06,0.056
4.960E-06,0.056
4.970E-06,0.052
4.980E-06,0.056
4.990E-06,0.056
5.000E-06,0.052
5.010E-06,0.052
5.020E-06,0.056
5.030E-06,0.052
5.040E-06,0.056
5.050E-06,0.048
5.060E-06,0.044
5.070E-06,0.040
5.080E-06,0.048
5.090E-06,0.056
5.100E-06,0.056
5.110E-06,0.052
5.120E-06,0.052
5.130E-06,0.048
5.140E-06,0.044
5.150E-06,0.040
5.160E-06,0.044
5.170E-06,0.048
5.180E-06,0.048
5.190E-06,0.044
5.200E-06,0.044
5.210E-06,0.044
5.220E-06,0.048
5.230E-06,0.044
5.240E-06,0.048
5.250E-06,0.044
5.260E-06,0.044
5.270E-06,0.044
5.280E-06,0.048
5.290E-06,0.048
5.300E-06,0.044
5.310E-06,0.048
5.320E-06,0.044
5.330E-06,0.048
5.340E-06,0.044
5.350E-06,0.048
5.360E-06,0.040
5.370E-06,0.036
5.380E-06,0.040
5.390E-06,0.040
5.400E-06,0.044
5.410E-06,0.044
5.420E-06,0.040
5.430E-06,0.036
5.440E-06,0.040
5.450E-06,0.044
5.460E-06,0.036
5.470E-06,0.040
5.480E-06,0.036
5.490E-06,0.040
5.500E-06,0.044
5.510E-06,0.044
5.520E-06,0.040
5.530E-06,0.040
5.540E-06,0.032
5.550E-06,0.036
5.560E-06,0.040
5.570E-06,0.040
5.580E-06,0.040
5.590E-06,0.040
5.600E-06,0.036
5.610E-06,0.040
5.620E-06,0.032
5.630E-06,0.032
5.640E-06,0.028
5.650E-06,0.040
5.660E-06,0.036
5.670E-06,0.036
5.680E-06,0.028
5.690E-06,0.032
5.700E-06,0.036
5.710E-06,0.032
5.720E-06,0.036
5.730E-06,0.036
5.740E-06,0.024
5.750E-06,0.024
5.760E-06,0.032
5.770E-06,0.036
5.780E-06,0.036
5.790E-06,0.036
5.800E-06,0.036
5.810E-06,0.024
5.820E-06,0.028
5.830E-06,0.036
5.840E-06,0.032
5.850E-06,0.028
5.860E-06,0.028
5.870E-06,0.032
5.880E-06,0.028
5.890E-06,0.024
5.900E-06,0.028
5.910E-06,0.032
5.920E-06,0.028
5.930E-06,0.036
5.940E-06,0.036
5.950E-06,0.028
5.960E-06,0.028
5.970E-06,0.028
5.980E-06,0.024
5.990E-06,0.024
6.000E-06,0.028
6.010E-06,0.032
6.020E-06,0.032
6.030E-06,0.032
6.040E-06,0.032
6.050E-06,0.020
6.060E-06,0.020
6.070E-06,0.012
6.080E-06,0.020
6.090E-06,0.028
6.100E-06,0.028
6.110E-06,0.024
6.120E-06,0.020
6.130E-06,0.024
6.140E-06,0.016
6.150E-06,0.008
6.160E-06,0.008
6.170E-06,0.012
6.180E-06,0.016
6.190E-06,0.024
6.200E-06,0.028
6.210E-06,0.024
6.220E-06,0.012
6.230E-06,0.008
6.240E-06,0.008
6.250E-06,0.012
6.260E-06,0.016
6.270E-06,0.024
6.280E-06,0.024
6.290E-06,0.020
6.300E-06,0.020
6.310E-06,0.012
6.320E-06,0.012
6.330E-06,0.012
6.340E-06,0.016
6.350E-06,0.016
6.360E-06,0.012
6.370E-06,0.016
6.380E-06,0.012
6.390E-06,0.012
6.400E-06,0.016
6.410E-06,0.016
6.420E-06,0.008
6.430E-06,0.012
6.440E-06,0.016
6.450E-06,0.012
6.460E-06,0.008
6.470E-06,0.012
6.480E-06,0.008
6.490E-06,0.012
6.500E-06,0.004
6.510E-06,0.008
6.520E-06,0.012
6.530E-06,0.008
6.540E-06,0.008
6.550E-06,0.012
6.560E-06,0.016
6.570E-06,0.012
6.580E-06,0.016
6.590E-06,0.008
6.600E-06,0.004
6.610E-06,0.012
6.620E-06,0.004
6.630E-06,0.008
6.640E-06,0.008
6.650E-06,0.008
6.660E-06,0.004
6.670E-06,0.008
6.680E-06,0.008
6.690E-06,0.004
6.700E-06,0.004
6.710E-06,0.004
6.720E-06,0.000
6.730E-06,0.004
6.740E-06,0.000
6.750E-06,0.008
6.760E-06,0.012
6.770E-06,0.012
6.780E-06,0.012
6.790E-06,0.004
6.800E-06,0.008
6.810E-06,0.008
6.820E-06,0.004
6.830E-06,0.004
6.840E-06,0.000
6.850E-06,0.004
6.860E-06,0.012
6.870E-06,0.000
6.880E-06,0.004
6.890E-06,0.008
6.900E-06,0.000
6.910E-06,0.004
6.920E-06,0.000
6.930E-06,0.004
6.940E-06,0.008
6.950E-06,0.004
6.960E-06,0.004
6.970E-06,0.000
6.980E-06,0.000
6.990E-06,0.000
7.000E-06,-0.004
7.010E-06,0.004
7.020E-06,-0.004
7.030E-06,0.004
7.040E-06,0.004
7.050E-06,0.000
7.060E-06,0.000
7.070E-06,-0.004
7.080E-06,-0.004
7.090E-06,0.004
7.100E-06,0.004
7.110E-06,-0.004
7.120E-06,-0.004
7.130E-06,0.000
7.140E-06,0.000
7.150E-06,-0.004
7.160E-06,-0.004
7.170E-06,-0.008
7.180E-06,0.000
7.190E-06,-0.004
7.200E-06,-0.004
7.210E-06,0.000
7.220E-06,-0.004
7.230E-06,-0.008
7.240E-06,-0.004
7.250E-06,-0.004
7.260E-06,-0.004
7.270E-06,-0.008
7.280E-06,-0.008
7.290E-06,0.000
7.300E-06,0.000
7.310E-06,-0.008
7.320E-06,0.000
7.330E-06,-0.004
7.340E-06,-0.004
7.350E-06,0.000
7.360E-06,-0.004
7.370E-06,0.000
7.380E-06,-0.008
7.390E-06,-0.004
7.400E-06,-0.008
7.410E-06,-0.004
7.420E-06,-0.008
7.430E-06,-0.004
7.440E-06,-0.008
7.450E-06,-0.012
7.460E-06,-0.004
7.470E-06,-0.004
7.480E-06,-0.008
7.490E-06,-0.004
7.500E-06,-0.008
7.510E-06,-0.008
7.520E-06,-0.008
7.530E-06,-0.008
7.540E-06,-0.008
7.550E-06,-0.008
7.560E-06,-0.008
7.570E-06,-0.004
7.580E-06,-0.012
7.590E-06,-0.012
7.600E-06,-0.004
7.610E-06,-0.004
7.620E-06,-0.008
7.630E-06,-0.012
7.640E-06,-0.012
7.650E-06,-0.004
7.660E-06,-0.008
7.670E-06,-0.008
7.680E-06,-0.008
7.690E-06,-0.008
7.700E-06,-0.008
7.710E-06,-0.012
7.720E-06,-0.008
7.730E-06,-0.012
7.740E-06,-0.012
7.750E-06,-0.008
7.760E-06,-0.012
7.770E-06,-0.012
7.780E-06,-0.012
7.790E-06,-0.012
7.800E-06,-0.012
7.810E-06,-0.012
7.820E-06,-0.016
7.830E-06,-0.012
7.840E-06,-0.008
7.850E-06,-0.004
7.860E-06,-0.012
7.870E-06,-0.016
7.880E-06,-0.020
7.890E-06,-0.012
7.900E-06,-0.012
7.910E-06,-0.008
7.920E-06,-0.016
7.930E-06,-0.016
7.940E-06,-0.024
7.950E-06,-0.012
7.960E-06,-0.016
7.970E-06,-0.024
7.980E-06,-0.016
7.990E-06,-0.016
8.000E-06,-0.020
8.010E-06,-0.016
8.020E-06,-0.020
8.030E-06,-0.020
8.040E-06,-0.024
8.050E-06,-0.016
8.060E-06,-0.016
8.070E-06,-0.020
8.080E-06,-0.016
8.090E-06,-0.020
8.100E-06,-0.020
8.110E-06,-0.024
8.120E-06,-0.020
8.130E-06,-0.016
8.140E-06,-0.020
8.150E-06,-0.024
8.160E-06,-0.020
8.170E-06,-0.020
8.180E-06,-0.028
8.190E-06,-0.020
8.200E-06,-0.020
8.210E-06,-0.020
8.220E-06,-0.020
8.230E-06,-0.024
8.240E-06,-0.028
8.250E-06,-0.020
8.260E-06,-0.024
8.270E-06,-0.028
8.280E-06,-0.024
8.290E-06,-0.024
8.300E-06,-0.024
8.310E-06,-0.028
8.320E-06,-0.024
8.330E-06,-0.020
8.340E-06,-0.024
8.350E-06,-0.020
8.360E-06,-0.020
8.370E-06,-0.024
8.380E-06,-0.024
8.390E-06,-0.024
8.400E-06,-0.024
8.410E-06,-0.028
8.420E-06,-0.024
8.430E-06,-0.028
8.440E-06,-0.020
8.450E-06,-0.024
8.460E-06,-0.028
8.470E-06,-0.024
8.480E-06,-0.020
8.490E-06,-0.024
8.500E-06,-0.024
8.510E-06,-0.024
8.520E-06,-0.024
8.530E-06,-0.028
8.540E-06,-0.024
8.550E-06,-0.024
8.560E-06,-0.024
8.570E-06,-0.028
8.580E-06,-0.024
8.590E-06,-0.028
8.600E-06,-0.032
8.610E-06,-0.028
8.620E-06,-0.020
8.630E-06,-0.024
8.640E-06,-0.024
8.650E-06,-0.028
8.660E-06,-0.036
8.670E-06,-0.028
8.680E-06,-0.032
8.690E-06,-0.024
8.700E-06,-0.032
8.710E-06,-0.032
8.720E-06,-0.028
8.730E-06,-0.032
8.740E-06,-0.032
8.750E-06,-0.024
8.760E-06,-0.028
8.770E-06,-0.032
8.780E-06,-0.024
8.790E-06,-0.032
8.800E-06,-0.028
8.810E-06,-0.032
8.820E-06,-0.036
8.830E-06,-0.028
8.840E-06,-0.024
8.850E-06,-0.032
8.860E-06,-0.028
8.870E-06,-0.032
8.880E-06,-0.032
8.890E-06,-0.036
8.900E-06,-0.032
8.910E-06,-0.028
8.920E-06,-0.032
8.930E-06,-0.028
8.940E-06,-0.032
8.950E-06,-0.028
8.960E-06,-0.032
8.970E-06,-0.036
8.980E-06,-0.032
8.990E-06,-0.036
9.000E-06,-0.028
9.010E-06,-0.028
9.020E-06,-0.032
9.030E-06,-0.028
9.040E-06,-0.032
9.050E-06,-0.028
9.060E-06,-0.032
9.070E-06,-0.036
9.080E-06,-0.028
9.090E-06,-0.032
9.100E-06,-0.036
9.110E-06,-0.040
9.120E-06,-0.028
9.130E-06,-0.040
9.140E-06,-0.036
9.150E-06,-0.032
9.160E-06,-0.036
9.170E-06,-0.040
9.180E-06,-0.040
9.190E-06,-0.036
9.200E-06,-0.040
9.210E-06,-0.036
9.220E-06,-0.036
9.230E-06,-0.036
9.240E-06,-0.036
9.250E-06,-0.032
9.260E-06,-0.036
9.270E-06,-0.040
9.280E-06,-0.036
9.290E-06,-0.032
9.300E-06,-0.036
9.310E-06,-0.036
9.320E-06,-0.032
9.330E-06,-0.036
9.340E-06,-0.040
9.350E-06,-0.036
9.360E-06,-0.036
9.370E-06,-0.040
9.380E-06,-0.036
9.390E-06,-0.032
9.400E-06,-0.040
9.410E-06,-0.044
9.420E-06,-0.040
9.430E-06,-0.040
9.440E-06,-0.036
9.450E-06,-0.040
9.460E-06,-0.044
9.470E-06,-0.036
9.480E-06,-0.040
9.490E-06,-0.040
9.500E-06,-0.040
9.510E-06,-0.040
9.520E-06,-0.040
9.530E-06,-0.044
9.540E-06,-0.044
9.550E-06,-0.036
9.560E-06,-0.040
9.570E-06,-0.040
9.580E-06,-0.040
9.590E-06,-0.032
9.600E-06,-0.040
9.610E-06,-0.044
9.620E-06,-0.040
9.630E-06,-0.040
9.640E-06,-0.040
9.650E-06,-0.036
9.660E-06,-0.040
9.670E-06,-0.044
9.680E-06,-0.040
9.690E-06,-0.040
9.700E-06,-0.040
9.710E-06,-0.044
9.720E-06,-0.040
9.730E-06,-0.036
9.740E-06,-0.040
9.750E-06,-0.040
9.760E-06,-0.036
9.770E-06,-0.040
9.780E-06,-0.040
9.790E-06,-0.040
9.800E-06,-0.040
9.810E-06,-0.040
9.820E-06,-0.040
9.830E-06,-0.044
9.840E-06,-0.040
9.850E-06,-0.040
9.860E-06,-0.036
9.870E-06,-0.044
9.880E-06,-0.044
9.890E-06,-0.040
9.900E-06,-0.040
9.910E-06,-0.040
9.920E-06,-0.040
9.930E-06,-0.044
9.940E-06,-0.048
9.950E-06,-0.044
9.960E-06,-0.040
9.970E-06,-0.040
9.980E-06,-0.044
9.990E-06,-0.044
1.000E-05,-0.044
1.001E-05,-0.044
1.002E-05,-0.044
1.003E-05,-0.040
1.004E-05,-0.044
1.005E-05,-0.044
1.006E-05,-0.036
1.007E-05,-0.040
1.008E-05,-0.052
1.009E-05,-0.048
1.010E-05,-0.048
1.011E-05,-0.044
1.012E-05,-0.048
1.013E-05,-0.044
1.014E-05,-0.048
1.015E-05,-0.052
1.016E-05,-0.048
1.017E-05,-0.048
1.018E-05,-0.052
1.019E-05,-0.044
1.020E-05,-0.040
1.021E-05,-0.048
1.022E-05,-0.052
1.023E-05,-0.048
1.024E-05,-0.044
1.025E-05,-0.044
1.026E-05,-0.044
1.027E-05,-0.044
1.028E-05,-0.052
1.029E-05,-0.048
1.030E-05,-0.044
1.031E-05,-0.044
1.032E-05,-0.048
1.033E-05,-0.048
1.034E-05,-0.052
1.035E-05,-0.048
1.036E-05,-0.044
1.037E-05,-0.048
1.038E-05,-0.056
1.039E-05,-0.052
1.040E-05,-0.052
1.041E-05,-0.048
1.042E-05,-0.056
1.043E-05,-0.052
1.044E-05,-0.048
1.045E-05,-0.056
1.046E-05,-0.052
1.047E-05,-0.056
1.048E-05,-0.044
1.049E-05,-0.052
1.050E-05,-0.056
1.051E-05,-0.056
1.052E-05,-0.048
1.053E-05,-0.056
1.054E-05,-0.052
1.055E-05,-0.052
1.056E-05,-0.056
1.057E-05,-0.052
1.058E-05,-0.052
1.059E-05,-0.056
1.060E-05,-0.052
1.061E-05,-0.052
1.062E-05,-0.052
1.063E-05,-0.056
1.064E-05,-0.052
1.065E-05,-0.052
1.066E-05,-0.060
1.067E-05,-0.052
1.068E-05,-0.052
1.069E-05,-0.052
1.070E-05,-0.052
1.071E-05,-0.056
1.072E-05,-0.056
1.073E-05,-0.052
1.074E-05,-0.052
1.075E-05,-0.052
1.076E-05,-0.052
1.077E-05,-0.060
1.078E-05,-0.060
1.079E-05,-0.052
1.080E-05,-0.052
1.081E-05,-0.060
1.082E-05,-0.056
1.083E-05,-0.056
1.084E-05,-0.052
1.085E-05,-0.052
1.086E-05,-0.056
1.087E-05,-0.052
1.088E-05,-0.056
1.089E-05,-0.056
1.090E-05,-0.056
1.091E-05,-0.052
1.092E-05,-0.056
1.093E-05,-0.056
1.094E-05,-0.056
1.095E-05,-0.056
1.096E-05,-0.056
1.097E-05,-0.060
1.098E-05,-0.056
1.099E-05,-0.060
1.100E-05,-0.056
1.101E-05,-0.056
1.102E-05,-0.060
1.103E-05,-0.056
1.104E-05,-0.056
1.105E-05,-0.056
1.106E-05,-0.060
1.107E-05,-0.056
1.108E-05,-0.056
1.109E-05,-0.060
1.110E-05,-0.056
1.111E-05,-0.060
1.112E-05,-0.060
1.113E-05,-0.056
1.114E-05,-0.060
1.115E-05,-0.060
1.116E-05,-0.056
1.117E-05,-0.056
1.118E-05,-0.056
1.119E-05,-0.056
1.120E-05,-0.060
1.121E-05,-0.060
1.122E-05,-0.060
1.123E-05,-0.064
1.124E-05,-0.056
1.125E-05,-0.060
1.126E-05,-0.064
1.127E-05,-0.060
1.128E-05,-0.056
1.129E-05,-0.056
1.130E-05,-0.056
1.131E-05,-0.060
1.132E-05,-0.056
1.133E-05,-0.060
1.134E-05,-0.056
1.135E-05,-0.056
1.136E-05,-0.060
1.137E-05,-0.056
1.138E-05,-0.064
1.139E-05,-0.056
1.140E-05,-0.056
1.141E-05,-0.064
1.142E-05,-0.064
1.143E-05,-0.060
1.144E-05,-0.056
1.145E-05,-0.060
1.146E-05,-0.064
1.147E-05,-0.060
1.148E-05,-0.064
1.149E-05,-0.060
1.150E-05,-0.060
1.151E-05,-0.060
1.152E-05,-0.060
1.153E-05,-0.064
1.154E-05,-0.060
1.155E-05,-0.056
1.156E-05,-0.064
1.157E-05,-0.064
1.158E-05,-0.060
1.159E-05,-0.064
1.160E-05,-0.060
1.161E-05,-0.068
1.162E-05,-0.064
1.163E-05,-0.064
1.164E-05,-0.068
1.165E-05,-0.076
1.166E-05,-0.076
1.167E-05,-0.072
1.168E-05,-0.068
1.169E-05,-0.068
1.170E-05,-0.068
1.171E-05,-0.072
1.172E-05,-0.068
1.173E-05,-0.076
1.174E-05,-0.076
1.175E-05,-0.068
1.176E-05,-0.068
1.177E-05,-0.068
1.178E-05,-0.068
1.179E-05,-0.060
1.180E-05,-0.068
1.181E-05,-0.068
1.182E-05,-0.068
1.183E-05,-0.068
1.184E-05,-0.072
1.185E-05,-0.068
1.186E-05,-0.060
1.187E-05,-0.068
1.188E-05,-0.068
1.189E-05,-0.068
1.190E-05,-0.068
1.191E-05,-0.068
1.192E-05,-0.072
1.193E-05,-0.068
1.194E-05,-0.068
1.195E-05,-0.064
1.196E-05,-0.064
1.197E-05,-0.072
1.198E-05,-0.072
1.199E-05,-0.068
1.200E-05,-0.072
1.201E-05,-0.068
1.202E-05,-0.068
1.203E-05,-0.072
1.204E-05,-0.068
1.205E-05,-0.068
1.206E-05,-0.072
1.207E-05,-0.068
1.208E-05,-0.068
1.209E-05,-0.068
1.210E-05,-0.068
1.211E-05,-0.068
1.212E-05,-0.072
1.213E-05,-0.072
1.214E-05,-0.068
1.215E-05,-0.068
1.216E-05,-0.068
1.217E-05,-0.068
1.218E-05,-0.072
1.219E-05,-0.072
1.220E-05,-0.068
1.221E-05,-0.068
1.222E-05,-0.072
1.223E-05,-0.072
1.224E-05,-0.068
1.225E-05,-0.072
1.226E-05,-0.072
1.227E-05,-0.068
1.228E-05,-0.068
1.229E-05,-0.072
1.230E-05,-0.068
1.231E-05,-0.068
1.232E-05,-0.068
1.233E-05,-0.068
1.234E-05,-0.072
1.235E-05,-0.072
1.236E-05,-0.072
1.237E-05,-0.072
1.238E-05,-0.072
1.239E-05,-0.068
1.240E-05,-0.072
1.241E-05,-0.068
1.242E-05,-0.072
1.243E-05,-0.068
1.244E-05,-0.072
1.245E-05,-0.072
1.246E-05,-0.072
1.247E-05,-0.068
1.248E-05,-0.068
1.249E-05,-0.068
1.250E-05,-0.076
1.251E-05,-0.076
1.252E-05,-0.068
1.253E-05,-0.068
1.254E-05,-0.072
1.255E-05,-0.072
1.256E-05,-0.068
1.257E-05,-0.072
1.258E-05,-0.072
1.259E-05,-0.068
1.260E-05,-0.072
1.261E-05,-0.072
1.262E-05,-0.068
1.263E-05,-0.076
1.264E-05,-0.072
1.265E-05,-0.072
1.266E-05,-0.068
1.267E-05,-0.072
1.268E-05,-0.072
1.269E-05,-0.072
1.270E-05,-0.072
1.271E-05,-0.076
1.272E-05,-0.072
1.273E-05,-0.076
1.274E-05,-0.072
1.275E-05,-0.068
1.276E-05,-0.072
1.277E-05,-0.076
1.278E-05,-0.072
1.279E-05,-0.072
1.280E-05,-0.072
1.281E-05,-0.076
1.282E-05,-0.072
1.283E-05,-0.072
1.284E-05,-0.072
1.285E-05,-0.072
1.286E-05,-0.072
1.287E-05,-0.076
1.288E-05,-0.072
1.289E-05,-0.072
