mediciones/Mediciones filtradas (saque las feas)/5-15/-12.5/WaveData536.csv

#timebase=2000000(ps)
,#voltbase=100000(mv/100)
#size=4000
8.000E-07,0.032
8.100E-07,0.008
8.200E-07,-0.024
8.300E-07,0.000
8.400E-07,0.052
8.500E-07,0.136
8.600E-07,0.152
8.700E-07,0.128
8.800E-07,0.064
8.900E-07,0.044
9.000E-07,0.024
9.100E-07,0.044
9.200E-07,0.060
9.300E-07,0.084
9.400E-07,0.060
9.500E-07,0.036
9.600E-07,0.016
9.700E-07,0.012
9.800E-07,0.036
9.900E-07,0.060
1.000E-06,0.100
1.010E-06,0.084
1.020E-06,0.084
1.030E-06,0.060
1.040E-06,0.052
1.050E-06,0.068
1.060E-06,0.076
1.070E-06,0.088
1.080E-06,0.104
1.090E-06,0.112
1.100E-06,0.116
1.110E-06,0.108
1.120E-06,0.108
1.130E-06,0.100
1.140E-06,0.096
1.150E-06,0.108
1.160E-06,0.108
1.170E-06,0.092
1.180E-06,0.084
1.190E-06,-0.108
1.200E-06,-0.068
1.210E-06,-0.088
1.220E-06,0.020
1.230E-06,0.060
1.240E-06,-0.216
1.250E-06,-0.308
1.260E-06,-0.512
1.270E-06,-0.508
1.280E-06,-0.468
1.290E-06,-0.008
1.300E-06,0.404
1.310E-06,0.256
1.320E-06,0.196
1.330E-06,-0.136
1.340E-06,-0.492
1.350E-06,-0.472
1.360E-06,-0.216
1.370E-06,0.088
1.380E-06,0.264
1.390E-06,0.364
1.400E-06,0.280
1.410E-06,0.020
1.420E-06,-0.208
1.430E-06,-0.228
1.440E-06,-0.108
1.450E-06,0.064
1.460E-06,0.232
1.470E-06,0.212
1.480E-06,0.068
1.490E-06,-0.076
1.500E-06,-0.164
1.510E-06,-0.136
1.520E-06,-0.044
1.530E-06,0.132
1.540E-06,0.128
1.550E-06,0.132
1.560E-06,0.020
1.570E-06,-0.128
1.580E-06,-0.184
1.590E-06,-0.112
1.600E-06,-0.004
1.610E-06,0.060
1.620E-06,0.088
1.630E-06,0.076
1.640E-06,0.000
1.650E-06,-0.052
1.660E-06,-0.048
1.670E-06,-0.004
1.680E-06,0.012
1.690E-06,0.092
1.700E-06,0.108
1.710E-06,0.096
1.720E-06,0.052
1.730E-06,0.044
1.740E-06,0.040
1.750E-06,0.040
1.760E-06,0.068
1.770E-06,0.100
1.780E-06,0.120
1.790E-06,0.128
1.800E-06,0.136
1.810E-06,0.108
1.820E-06,0.108
1.830E-06,0.132
1.840E-06,0.164
1.850E-06,0.188
1.860E-06,0.204
1.870E-06,0.192
1.880E-06,0.156
1.890E-06,0.132
1.900E-06,0.140
1.910E-06,0.156
1.920E-06,0.160
1.930E-06,0.176
1.940E-06,0.188
1.950E-06,0.164
1.960E-06,0.132
1.970E-06,0.144
1.980E-06,0.152
1.990E-06,0.156
2.000E-06,0.164
2.010E-06,0.180
2.020E-06,0.168
2.030E-06,0.164
2.040E-06,0.164
2.050E-06,0.152
2.060E-06,0.140
2.070E-06,0.120
2.080E-06,0.104
2.090E-06,0.092
2.100E-06,0.096
2.110E-06,0.140
2.120E-06,0.132
2.130E-06,0.148
2.140E-06,0.140
2.150E-06,0.136
2.160E-06,0.120
2.170E-06,0.144
2.180E-06,0.164
2.190E-06,0.164
2.200E-06,0.128
2.210E-06,0.068
2.220E-06,-0.008
2.230E-06,-0.088
2.240E-06,-0.140
2.250E-06,-0.172
2.260E-06,-0.192
2.270E-06,-0.196
2.280E-06,-0.124
2.290E-06,-0.060
2.300E-06,0.020
2.310E-06,0.248
2.320E-06,0.176
2.330E-06,0.160
2.340E-06,0.048
2.350E-06,-0.064
2.360E-06,-0.188
2.370E-06,-0.164
2.380E-06,0.000
2.390E-06,0.092
2.400E-06,0.216
2.410E-06,0.280
2.420E-06,0.256
2.430E-06,0.152
2.440E-06,0.104
2.450E-06,0.080
2.460E-06,0.108
2.470E-06,0.144
2.480E-06,0.220
2.490E-06,0.224
2.500E-06,0.204
2.510E-06,0.148
2.520E-06,0.124
2.530E-06,0.108
2.540E-06,0.144
2.550E-06,0.188
2.560E-06,0.208
2.570E-06,0.200
2.580E-06,0.192
2.590E-06,0.160
2.600E-06,0.140
2.610E-06,0.128
2.620E-06,0.144
2.630E-06,0.152
2.640E-06,0.152
2.650E-06,0.164
2.660E-06,0.172
2.670E-06,0.160
2.680E-06,0.156
2.690E-06,0.156
2.700E-06,0.148
2.710E-06,0.152
2.720E-06,0.168
2.730E-06,0.172
2.740E-06,0.172
2.750E-06,0.160
2.760E-06,0.156
2.770E-06,0.144
2.780E-06,0.132
2.790E-06,0.144
2.800E-06,0.152
2.810E-06,0.156
2.820E-06,0.156
2.830E-06,0.160
2.840E-06,0.152
2.850E-06,0.152
2.860E-06,0.156
2.870E-06,0.164
2.880E-06,0.168
2.890E-06,0.172
2.900E-06,0.168
2.910E-06,0.168
2.920E-06,0.160
2.930E-06,0.168
2.940E-06,0.164
2.950E-06,0.172
2.960E-06,0.172
2.970E-06,0.168
2.980E-06,0.164
2.990E-06,0.160
3.000E-06,0.160
3.010E-06,0.164
3.020E-06,0.168
3.030E-06,0.156
3.040E-06,0.164
3.050E-06,0.164
3.060E-06,0.164
3.070E-06,0.168
3.080E-06,0.164
3.090E-06,0.156
3.100E-06,0.160
3.110E-06,0.160
3.120E-06,0.160
3.130E-06,0.164
3.140E-06,0.164
3.150E-06,0.156
3.160E-06,0.156
3.170E-06,0.156
3.180E-06,0.156
3.190E-06,0.156
3.200E-06,0.160
3.210E-06,0.156
3.220E-06,0.156
3.230E-06,0.160
3.240E-06,0.164
3.250E-06,0.160
3.260E-06,0.160
3.270E-06,0.160
3.280E-06,0.160
3.290E-06,0.160
3.300E-06,0.164
3.310E-06,0.160
3.320E-06,0.160
3.330E-06,0.152
3.340E-06,0.156
3.350E-06,0.160
3.360E-06,0.156
3.370E-06,0.152
3.380E-06,0.156
3.390E-06,0.152
3.400E-06,0.156
3.410E-06,0.156
3.420E-06,0.152
3.430E-06,0.152
3.440E-06,0.152
3.450E-06,0.156
3.460E-06,0.156
3.470E-06,0.156
3.480E-06,0.156
3.490E-06,0.148
3.500E-06,0.152
3.510E-06,0.144
3.520E-06,0.148
3.530E-06,0.144
3.540E-06,0.144
3.550E-06,0.144
3.560E-06,0.152
3.570E-06,0.144
3.580E-06,0.148
3.590E-06,0.144
3.600E-06,0.140
3.610E-06,0.144
3.620E-06,0.140
3.630E-06,0.140
3.640E-06,0.140
3.650E-06,0.144
3.660E-06,0.144
3.670E-06,0.136
3.680E-06,0.136
3.690E-06,0.140
3.700E-06,0.136
3.710E-06,0.140
3.720E-06,0.144
3.730E-06,0.148
3.740E-06,0.148
3.750E-06,0.144
3.760E-06,0.144
3.770E-06,0.144
3.780E-06,0.148
3.790E-06,0.140
3.800E-06,0.148
3.810E-06,0.148
3.820E-06,0.152
3.830E-06,0.148
3.840E-06,0.140
3.850E-06,0.140
3.860E-06,0.128
3.870E-06,0.132
3.880E-06,0.132
3.890E-06,0.140
3.900E-06,0.136
3.910E-06,0.140
3.920E-06,0.140
3.930E-06,0.136
3.940E-06,0.128
3.950E-06,0.128
3.960E-06,0.128
3.970E-06,0.140
3.980E-06,0.144
3.990E-06,0.140
4.000E-06,0.144
4.010E-06,0.132
4.020E-06,0.128
4.030E-06,0.124
4.040E-06,0.128
4.050E-06,0.132
4.060E-06,0.136
4.070E-06,0.132
4.080E-06,0.132
4.090E-06,0.132
4.100E-06,0.136
4.110E-06,0.132
4.120E-06,0.132
4.130E-06,0.140
4.140E-06,0.140
4.150E-06,0.136
4.160E-06,0.136
4.170E-06,0.140
4.180E-06,0.128
4.190E-06,0.132
4.200E-06,0.136
4.210E-06,0.128
4.220E-06,0.128
4.230E-06,0.128
4.240E-06,0.124
4.250E-06,0.124
4.260E-06,0.128
4.270E-06,0.132
4.280E-06,0.136
4.290E-06,0.136
4.300E-06,0.136
4.310E-06,0.128
4.320E-06,0.124
4.330E-06,0.124
4.340E-06,0.124
4.350E-06,0.128
4.360E-06,0.132
4.370E-06,0.128
4.380E-06,0.124
4.390E-06,0.120
4.400E-06,0.120
4.410E-06,0.124
4.420E-06,0.120
4.430E-06,0.124
4.440E-06,0.128
4.450E-06,0.128
4.460E-06,0.128
4.470E-06,0.132
4.480E-06,0.128
4.490E-06,0.120
4.500E-06,0.124
4.510E-06,0.128
4.520E-06,0.132
4.530E-06,0.132
4.540E-06,0.132
4.550E-06,0.132
4.560E-06,0.128
4.570E-06,0.128
4.580E-06,0.124
4.590E-06,0.124
4.600E-06,0.124
4.610E-06,0.124
4.620E-06,0.124
4.630E-06,0.120
4.640E-06,0.120
4.650E-06,0.124
4.660E-06,0.120
4.670E-06,0.116
4.680E-06,0.116
4.690E-06,0.120
4.700E-06,0.112
4.710E-06,0.116
4.720E-06,0.112
4.730E-06,0.112
4.740E-06,0.120
4.750E-06,0.112
4.760E-06,0.112
4.770E-06,0.112
4.780E-06,0.112
4.790E-06,0.112
4.800E-06,0.108
4.810E-06,0.112
4.820E-06,0.112
4.830E-06,0.108
4.840E-06,0.108
4.850E-06,0.108
4.860E-06,0.104
4.870E-06,0.104
4.880E-06,0.108
4.890E-06,0.108
4.900E-06,0.104
4.910E-06,0.104
4.920E-06,0.108
4.930E-06,0.108
4.940E-06,0.108
4.950E-06,0.108
4.960E-06,0.108
4.970E-06,0.104
4.980E-06,0.100
4.990E-06,0.100
5.000E-06,0.104
5.010E-06,0.104
5.020E-06,0.108
5.030E-06,0.112
5.040E-06,0.108
5.050E-06,0.104
5.060E-06,0.104
5.070E-06,0.104
5.080E-06,0.104
5.090E-06,0.108
5.100E-06,0.108
5.110E-06,0.108
5.120E-06,0.104
5.130E-06,0.096
5.140E-06,0.096
5.150E-06,0.092
5.160E-06,0.092
5.170E-06,0.096
5.180E-06,0.096
5.190E-06,0.092
5.200E-06,0.096
5.210E-06,0.100
5.220E-06,0.092
5.230E-06,0.096
5.240E-06,0.096
5.250E-06,0.088
5.260E-06,0.092
5.270E-06,0.092
5.280E-06,0.092
5.290E-06,0.088
5.300E-06,0.088
5.310E-06,0.092
5.320E-06,0.092
5.330E-06,0.088
5.340E-06,0.092
5.350E-06,0.088
5.360E-06,0.088
5.370E-06,0.092
5.380E-06,0.092
5.390E-06,0.092
5.400E-06,0.096
5.410E-06,0.092
5.420E-06,0.092
5.430E-06,0.088
5.440E-06,0.092
5.450E-06,0.088
5.460E-06,0.088
5.470E-06,0.092
5.480E-06,0.088
5.490E-06,0.092
5.500E-06,0.088
5.510E-06,0.092
5.520E-06,0.092
5.530E-06,0.092
5.540E-06,0.088
5.550E-06,0.092
5.560E-06,0.092
5.570E-06,0.088
5.580E-06,0.088
5.590E-06,0.084
5.600E-06,0.088
5.610E-06,0.088
5.620E-06,0.080
5.630E-06,0.084
5.640E-06,0.088
5.650E-06,0.084
5.660E-06,0.084
5.670E-06,0.076
5.680E-06,0.080
5.690E-06,0.088
5.700E-06,0.084
5.710E-06,0.088
5.720E-06,0.092
5.730E-06,0.088
5.740E-06,0.084
5.750E-06,0.076
5.760E-06,0.076
5.770E-06,0.080
5.780E-06,0.072
5.790E-06,0.076
5.800E-06,0.080
5.810E-06,0.084
5.820E-06,0.080
5.830E-06,0.072
5.840E-06,0.076
5.850E-06,0.072
5.860E-06,0.076
5.870E-06,0.076
5.880E-06,0.084
5.890E-06,0.076
5.900E-06,0.076
5.910E-06,0.076
5.920E-06,0.072
5.930E-06,0.072
5.940E-06,0.072
5.950E-06,0.072
5.960E-06,0.076
5.970E-06,0.080
5.980E-06,0.076
5.990E-06,0.084
6.000E-06,0.084
6.010E-06,0.072
6.020E-06,0.068
6.030E-06,0.056
6.040E-06,0.052
6.050E-06,0.044
6.060E-06,0.056
6.070E-06,0.060
6.080E-06,0.076
6.090E-06,0.084
6.100E-06,0.068
6.110E-06,0.068
6.120E-06,0.068
6.130E-06,0.072
6.140E-06,0.068
6.150E-06,0.068
6.160E-06,0.076
6.170E-06,0.076
6.180E-06,0.068
6.190E-06,0.056
6.200E-06,0.056
6.210E-06,0.060
6.220E-06,0.060
6.230E-06,0.060
6.240E-06,0.064
6.250E-06,0.072
6.260E-06,0.068
6.270E-06,0.064
6.280E-06,0.068
6.290E-06,0.064
6.300E-06,0.060
6.310E-06,0.060
6.320E-06,0.060
6.330E-06,0.060
6.340E-06,0.056
6.350E-06,0.056
6.360E-06,0.056
6.370E-06,0.056
6.380E-06,0.056
6.390E-06,0.056
6.400E-06,0.056
6.410E-06,0.064
6.420E-06,0.064
6.430E-06,0.068
6.440E-06,0.064
6.450E-06,0.064
6.460E-06,0.056
6.470E-06,0.060
6.480E-06,0.060
6.490E-06,0.056
6.500E-06,0.060
6.510E-06,0.060
6.520E-06,0.052
6.530E-06,0.056
6.540E-06,0.056
6.550E-06,0.056
6.560E-06,0.056
6.570E-06,0.056
6.580E-06,0.056
6.590E-06,0.056
6.600E-06,0.060
6.610E-06,0.056
6.620E-06,0.060
6.630E-06,0.056
6.640E-06,0.052
6.650E-06,0.052
6.660E-06,0.052
6.670E-06,0.052
6.680E-06,0.052
6.690E-06,0.048
6.700E-06,0.056
6.710E-06,0.052
6.720E-06,0.048
6.730E-06,0.048
6.740E-06,0.048
6.750E-06,0.052
6.760E-06,0.056
6.770E-06,0.052
6.780E-06,0.048
6.790E-06,0.052
6.800E-06,0.052
6.810E-06,0.044
6.820E-06,0.052
6.830E-06,0.044
6.840E-06,0.048
6.850E-06,0.048
6.860E-06,0.040
6.870E-06,0.044
6.880E-06,0.044
6.890E-06,0.036
6.900E-06,0.044
6.910E-06,0.044
6.920E-06,0.044
6.930E-06,0.040
6.940E-06,0.044
6.950E-06,0.040
6.960E-06,0.036
6.970E-06,0.036
6.980E-06,0.040
6.990E-06,0.044
7.000E-06,0.040
7.010E-06,0.044
7.020E-06,0.044
7.030E-06,0.036
7.040E-06,0.036
7.050E-06,0.036
7.060E-06,0.044
7.070E-06,0.044
7.080E-06,0.040
7.090E-06,0.040
7.100E-06,0.036
7.110E-06,0.032
7.120E-06,0.040
7.130E-06,0.036
7.140E-06,0.044
7.150E-06,0.044
7.160E-06,0.040
7.170E-06,0.036
7.180E-06,0.040
7.190E-06,0.036
7.200E-06,0.032
7.210E-06,0.036
7.220E-06,0.036
7.230E-06,0.036
7.240E-06,0.032
7.250E-06,0.036
7.260E-06,0.040
7.270E-06,0.036
7.280E-06,0.036
7.290E-06,0.036
7.300E-06,0.028
7.310E-06,0.028
7.320E-06,0.032
7.330E-06,0.028
7.340E-06,0.028
7.350E-06,0.032
7.360E-06,0.028
7.370E-06,0.028
7.380E-06,0.032
7.390E-06,0.028
7.400E-06,0.032
7.410E-06,0.028
7.420E-06,0.028
7.430E-06,0.036
7.440E-06,0.032
7.450E-06,0.032
7.460E-06,0.032
7.470E-06,0.032
7.480E-06,0.032
7.490E-06,0.036
7.500E-06,0.028
7.510E-06,0.032
7.520E-06,0.032
7.530E-06,0.032
7.540E-06,0.024
7.550E-06,0.024
7.560E-06,0.032
7.570E-06,0.024
7.580E-06,0.028
7.590E-06,0.024
7.600E-06,0.028
7.610E-06,0.032
7.620E-06,0.024
7.630E-06,0.024
7.640E-06,0.028
7.650E-06,0.032
7.660E-06,0.020
7.670E-06,0.024
7.680E-06,0.032
7.690E-06,0.028
7.700E-06,0.028
7.710E-06,0.028
7.720E-06,0.024
7.730E-06,0.020
7.740E-06,0.024
7.750E-06,0.028
7.760E-06,0.028
7.770E-06,0.028
7.780E-06,0.020
7.790E-06,0.020
7.800E-06,0.024
7.810E-06,0.016
7.820E-06,0.024
7.830E-06,0.024
7.840E-06,0.028
7.850E-06,0.028
7.860E-06,0.028
7.870E-06,0.028
7.880E-06,0.028
7.890E-06,0.024
7.900E-06,0.020
7.910E-06,0.024
7.920E-06,0.024
7.930E-06,0.020
7.940E-06,0.024
7.950E-06,0.020
7.960E-06,0.020
7.970E-06,0.020
7.980E-06,0.024
7.990E-06,0.024
8.000E-06,0.016
8.010E-06,0.020
8.020E-06,0.020
8.030E-06,0.024
8.040E-06,0.016
8.050E-06,0.016
8.060E-06,0.016
8.070E-06,0.008
8.080E-06,0.020
8.090E-06,0.024
8.100E-06,0.020
8.110E-06,0.016
8.120E-06,0.012
8.130E-06,0.008
8.140E-06,0.008
8.150E-06,0.008
8.160E-06,0.008
8.170E-06,0.020
8.180E-06,0.012
8.190E-06,0.016
8.200E-06,0.012
8.210E-06,0.012
8.220E-06,0.004
8.230E-06,0.004
8.240E-06,0.012
8.250E-06,0.016
8.260E-06,0.008
8.270E-06,0.012
8.280E-06,0.012
8.290E-06,0.008
8.300E-06,0.012
8.310E-06,0.004
8.320E-06,0.012
8.330E-06,0.012
8.340E-06,0.012
8.350E-06,0.008
8.360E-06,0.008
8.370E-06,0.008
8.380E-06,0.008
8.390E-06,0.008
8.400E-06,0.012
8.410E-06,0.008
8.420E-06,0.008
8.430E-06,0.012
8.440E-06,0.004
8.450E-06,0.004
8.460E-06,0.008
8.470E-06,0.008
8.480E-06,0.008
8.490E-06,0.008
8.500E-06,0.012
8.510E-06,0.012
8.520E-06,0.004
8.530E-06,0.008
8.540E-06,0.008
8.550E-06,0.004
8.560E-06,0.004
8.570E-06,0.000
8.580E-06,0.008
8.590E-06,0.008
8.600E-06,0.008
8.610E-06,0.008
8.620E-06,0.008
8.630E-06,-0.004
8.640E-06,0.000
8.650E-06,0.004
8.660E-06,0.004
8.670E-06,0.004
8.680E-06,0.004
8.690E-06,0.004
8.700E-06,0.000
8.710E-06,0.000
8.720E-06,0.000
8.730E-06,0.000
8.740E-06,-0.004
8.750E-06,0.000
8.760E-06,0.000
8.770E-06,0.000
8.780E-06,0.000
8.790E-06,-0.004
8.800E-06,0.000
8.810E-06,0.004
8.820E-06,0.004
8.830E-06,-0.008
8.840E-06,-0.004
8.850E-06,-0.004
8.860E-06,0.000
8.870E-06,-0.004
8.880E-06,-0.004
8.890E-06,0.004
8.900E-06,-0.008
8.910E-06,-0.008
8.920E-06,0.000
8.930E-06,0.000
8.940E-06,-0.004
8.950E-06,-0.008
8.960E-06,0.000
8.970E-06,-0.004
8.980E-06,-0.004
8.990E-06,-0.004
9.000E-06,0.000
9.010E-06,-0.004
9.020E-06,-0.004
9.030E-06,-0.004
9.040E-06,0.000
9.050E-06,0.000
9.060E-06,-0.008
9.070E-06,-0.012
9.080E-06,0.000
9.090E-06,-0.004
9.100E-06,-0.004
9.110E-06,-0.004
9.120E-06,-0.004
9.130E-06,-0.004
9.140E-06,-0.004
9.150E-06,-0.004
9.160E-06,-0.004
9.170E-06,-0.004
9.180E-06,0.000
9.190E-06,-0.004
9.200E-06,-0.012
9.210E-06,-0.004
9.220E-06,-0.004
9.230E-06,-0.008
9.240E-06,-0.008
9.250E-06,-0.008
9.260E-06,-0.008
9.270E-06,-0.004
9.280E-06,-0.008
9.290E-06,-0.008
9.300E-06,-0.008
9.310E-06,-0.008
9.320E-06,-0.008
9.330E-06,-0.008
9.340E-06,-0.008
9.350E-06,-0.008
9.360E-06,-0.008
9.370E-06,-0.008
9.380E-06,-0.008
9.390E-06,-0.012
9.400E-06,-0.012
9.410E-06,-0.004
9.420E-06,-0.008
9.430E-06,-0.012
9.440E-06,-0.008
9.450E-06,-0.012
9.460E-06,-0.012
9.470E-06,-0.012
9.480E-06,-0.012
9.490E-06,-0.012
9.500E-06,-0.012
9.510E-06,-0.008
9.520E-06,-0.008
9.530E-06,-0.012
9.540E-06,-0.008
9.550E-06,-0.012
9.560E-06,-0.008
9.570E-06,-0.012
9.580E-06,-0.012
9.590E-06,-0.012
9.600E-06,-0.016
9.610E-06,-0.008
9.620E-06,-0.008
9.630E-06,-0.020
9.640E-06,-0.016
9.650E-06,-0.020
9.660E-06,-0.016
9.670E-06,-0.016
9.680E-06,-0.016
9.690E-06,-0.008
9.700E-06,-0.012
9.710E-06,-0.012
9.720E-06,-0.012
9.730E-06,-0.008
9.740E-06,-0.012
9.750E-06,-0.016
9.760E-06,-0.008
9.770E-06,-0.008
9.780E-06,-0.020
9.790E-06,-0.012
9.800E-06,-0.016
9.810E-06,-0.016
9.820E-06,-0.020
9.830E-06,-0.024
9.840E-06,-0.016
9.850E-06,-0.008
9.860E-06,-0.012
9.870E-06,-0.016
9.880E-06,-0.016
9.890E-06,-0.016
9.900E-06,-0.020
9.910E-06,-0.024
9.920E-06,-0.012
9.930E-06,-0.020
9.940E-06,-0.020
9.950E-06,-0.020
9.960E-06,-0.024
9.970E-06,-0.020
9.980E-06,-0.024
9.990E-06,-0.016
1.000E-05,-0.016
1.001E-05,-0.016
1.002E-05,-0.020
1.003E-05,-0.020
1.004E-05,-0.024
1.005E-05,-0.020
1.006E-05,-0.024
1.007E-05,-0.016
1.008E-05,-0.020
1.009E-05,-0.020
1.010E-05,-0.024
1.011E-05,-0.020
1.012E-05,-0.016
1.013E-05,-0.016
1.014E-05,-0.020
1.015E-05,-0.028
1.016E-05,-0.024
1.017E-05,-0.016
1.018E-05,-0.024
1.019E-05,-0.024
1.020E-05,-0.020
1.021E-05,-0.024
1.022E-05,-0.020
1.023E-05,-0.028
1.024E-05,-0.024
1.025E-05,-0.020
1.026E-05,-0.020
1.027E-05,-0.024
1.028E-05,-0.024
1.029E-05,-0.028
1.030E-05,-0.024
1.031E-05,-0.020
1.032E-05,-0.024
1.033E-05,-0.020
1.034E-05,-0.020
1.035E-05,-0.024
1.036E-05,-0.028
1.037E-05,-0.028
1.038E-05,-0.028
1.039E-05,-0.020
1.040E-05,-0.020
1.041E-05,-0.024
1.042E-05,-0.020
1.043E-05,-0.024
1.044E-05,-0.020
1.045E-05,-0.024
1.046E-05,-0.028
1.047E-05,-0.032
1.048E-05,-0.028
1.049E-05,-0.020
1.050E-05,-0.024
1.051E-05,-0.024
1.052E-05,-0.028
1.053E-05,-0.032
1.054E-05,-0.028
1.055E-05,-0.028
1.056E-05,-0.028
1.057E-05,-0.032
1.058E-05,-0.032
1.059E-05,-0.028
1.060E-05,-0.024
1.061E-05,-0.024
1.062E-05,-0.024
1.063E-05,-0.032
1.064E-05,-0.028
1.065E-05,-0.024
1.066E-05,-0.032
1.067E-05,-0.024
1.068E-05,-0.028
1.069E-05,-0.028
1.070E-05,-0.028
1.071E-05,-0.032
1.072E-05,-0.032
1.073E-05,-0.032
1.074E-05,-0.036
1.075E-05,-0.036
1.076E-05,-0.028
1.077E-05,-0.028
1.078E-05,-0.032
1.079E-05,-0.036
1.080E-05,-0.036
1.081E-05,-0.028
1.082E-05,-0.032
1.083E-05,-0.036
1.084E-05,-0.032
1.085E-05,-0.028
1.086E-05,-0.032
1.087E-05,-0.028
1.088E-05,-0.032
1.089E-05,-0.028
1.090E-05,-0.032
1.091E-05,-0.028
1.092E-05,-0.036
1.093E-05,-0.036
1.094E-05,-0.036
1.095E-05,-0.036
1.096E-05,-0.036
1.097E-05,-0.036
1.098E-05,-0.032
1.099E-05,-0.036
1.100E-05,-0.032
1.101E-05,-0.040
1.102E-05,-0.032
1.103E-05,-0.036
1.104E-05,-0.028
1.105E-05,-0.032
1.106E-05,-0.040
1.107E-05,-0.036
1.108E-05,-0.036
1.109E-05,-0.036
1.110E-05,-0.036
1.111E-05,-0.032
1.112E-05,-0.036
1.113E-05,-0.036
1.114E-05,-0.036
1.115E-05,-0.036
1.116E-05,-0.036
1.117E-05,-0.040
1.118E-05,-0.040
1.119E-05,-0.036
1.120E-05,-0.036
1.121E-05,-0.036
1.122E-05,-0.036
1.123E-05,-0.036
1.124E-05,-0.032
1.125E-05,-0.036
1.126E-05,-0.036
1.127E-05,-0.032
1.128E-05,-0.036
1.129E-05,-0.040
1.130E-05,-0.036
1.131E-05,-0.036
1.132E-05,-0.040
1.133E-05,-0.036
1.134E-05,-0.040
1.135E-05,-0.036
1.136E-05,-0.032
1.137E-05,-0.036
1.138E-05,-0.040
1.139E-05,-0.036
1.140E-05,-0.040
1.141E-05,-0.040
1.142E-05,-0.040
1.143E-05,-0.040
1.144E-05,-0.044
1.145E-05,-0.040
1.146E-05,-0.040
1.147E-05,-0.040
1.148E-05,-0.040
1.149E-05,-0.040
1.150E-05,-0.036
1.151E-05,-0.040
1.152E-05,-0.044
1.153E-05,-0.040
1.154E-05,-0.044
1.155E-05,-0.040
1.156E-05,-0.036
1.157E-05,-0.040
1.158E-05,-0.044
1.159E-05,-0.040
1.160E-05,-0.036
1.161E-05,-0.040
1.162E-05,-0.044
1.163E-05,-0.040
1.164E-05,-0.040
1.165E-05,-0.044
1.166E-05,-0.040
1.167E-05,-0.036
1.168E-05,-0.040
1.169E-05,-0.040
1.170E-05,-0.040
1.171E-05,-0.040
1.172E-05,-0.044
1.173E-05,-0.040
1.174E-05,-0.036
1.175E-05,-0.040
1.176E-05,-0.044
1.177E-05,-0.044
1.178E-05,-0.040
1.179E-05,-0.044
1.180E-05,-0.040
1.181E-05,-0.040
1.182E-05,-0.040
1.183E-05,-0.040
1.184E-05,-0.040
1.185E-05,-0.040
1.186E-05,-0.040
1.187E-05,-0.044
1.188E-05,-0.048
1.189E-05,-0.044
1.190E-05,-0.044
1.191E-05,-0.040
1.192E-05,-0.040
1.193E-05,-0.044
1.194E-05,-0.044
1.195E-05,-0.048
1.196E-05,-0.048
1.197E-05,-0.040
1.198E-05,-0.044
1.199E-05,-0.044
1.200E-05,-0.040
1.201E-05,-0.044
1.202E-05,-0.048
1.203E-05,-0.044
1.204E-05,-0.044
1.205E-05,-0.044
1.206E-05,-0.048
1.207E-05,-0.048
1.208E-05,-0.044
1.209E-05,-0.048
1.210E-05,-0.044
1.211E-05,-0.048
1.212E-05,-0.044
1.213E-05,-0.040
1.214E-05,-0.044
1.215E-05,-0.052
1.216E-05,-0.044
1.217E-05,-0.044
1.218E-05,-0.040
1.219E-05,-0.044
1.220E-05,-0.044
1.221E-05,-0.048
1.222E-05,-0.044
1.223E-05,-0.048
1.224E-05,-0.044
1.225E-05,-0.044
1.226E-05,-0.048
1.227E-05,-0.052
1.228E-05,-0.044
1.229E-05,-0.048
1.230E-05,-0.044
1.231E-05,-0.048
1.232E-05,-0.048
1.233E-05,-0.052
1.234E-05,-0.052
1.235E-05,-0.044
1.236E-05,-0.044
1.237E-05,-0.048
1.238E-05,-0.056
1.239E-05,-0.052
1.240E-05,-0.052
1.241E-05,-0.048
1.242E-05,-0.052
1.243E-05,-0.052
1.244E-05,-0.048
1.245E-05,-0.052
1.246E-05,-0.052
1.247E-05,-0.052
1.248E-05,-0.056
1.249E-05,-0.052
1.250E-05,-0.052
1.251E-05,-0.052
1.252E-05,-0.052
1.253E-05,-0.056
1.254E-05,-0.056
1.255E-05,-0.052
1.256E-05,-0.056
1.257E-05,-0.052
1.258E-05,-0.056
1.259E-05,-0.052
1.260E-05,-0.052
1.261E-05,-0.052
1.262E-05,-0.052
1.263E-05,-0.056
1.264E-05,-0.056
1.265E-05,-0.052
1.266E-05,-0.052
1.267E-05,-0.056
1.268E-05,-0.056
1.269E-05,-0.052
1.270E-05,-0.056
1.271E-05,-0.056
1.272E-05,-0.052
1.273E-05,-0.056
1.274E-05,-0.060
1.275E-05,-0.056
1.276E-05,-0.056
1.277E-05,-0.052
1.278E-05,-0.052
1.279E-05,-0.056
1.280E-05,-0.056
1.281E-05,-0.052
1.282E-05,-0.056
1.283E-05,-0.056
1.284E-05,-0.052
1.285E-05,-0.056
1.286E-05,-0.060
1.287E-05,-0.056
1.288E-05,-0.052
1.289E-05,-0.056
1.290E-05,-0.060
1.291E-05,-0.056
1.292E-05,-0.056
1.293E-05,-0.056
1.294E-05,-0.060
1.295E-05,-0.052
1.296E-05,-0.060
1.297E-05,-0.056
