mediciones/Mediciones filtradas (saque las feas)/5-15/60/WaveData47223.csv

#timebase=2000000(ps)
,#voltbase=100000(mv/100)
#size=4000
-8.400E-06,0.004
-8.390E-06,0.000
-8.380E-06,-0.004
-8.370E-06,-0.004
-8.360E-06,-0.008
-8.350E-06,0.004
-8.340E-06,0.016
-8.330E-06,0.024
-8.320E-06,0.016
-8.310E-06,0.008
-8.300E-06,-0.004
-8.290E-06,-0.004
-8.280E-06,-0.004
-8.270E-06,0.016
-8.260E-06,0.016
-8.250E-06,0.016
-8.240E-06,0.008
-8.230E-06,0.000
-8.220E-06,-0.008
-8.210E-06,0.000
-8.200E-06,0.008
-8.190E-06,0.008
-8.180E-06,0.016
-8.170E-06,0.008
-8.160E-06,-0.008
-8.150E-06,-0.008
-8.140E-06,-0.004
-8.130E-06,0.004
-8.120E-06,0.016
-8.110E-06,0.024
-8.100E-06,0.012
-8.090E-06,0.000
-8.080E-06,-0.020
-8.070E-06,-0.024
-8.060E-06,-0.004
-8.050E-06,0.016
-8.040E-06,0.028
-8.030E-06,0.028
-8.020E-06,0.012
-8.010E-06,0.000
-8.000E-06,-0.008
-7.990E-06,0.000
-7.980E-06,0.008
-7.970E-06,0.024
-7.960E-06,0.024
-7.950E-06,0.020
-7.940E-06,0.012
-7.930E-06,0.000
-7.920E-06,-0.008
-7.910E-06,-0.008
-7.900E-06,-0.004
-7.890E-06,0.004
-7.880E-06,0.024
-7.870E-06,0.028
-7.860E-06,0.016
-7.850E-06,0.000
-7.840E-06,-0.004
-7.830E-06,-0.008
-7.820E-06,0.008
-7.810E-06,0.024
-7.800E-06,0.036
-7.790E-06,0.024
-7.780E-06,0.028
-7.770E-06,0.032
-7.760E-06,0.028
-7.750E-06,0.028
-7.740E-06,0.032
-7.730E-06,0.024
-7.720E-06,0.008
-7.710E-06,-0.012
-7.700E-06,-0.020
-7.690E-06,0.000
-7.680E-06,0.028
-7.670E-06,0.032
-7.660E-06,0.008
-7.650E-06,-0.024
-7.640E-06,-0.052
-7.630E-06,-0.024
-7.620E-06,0.020
-7.610E-06,0.052
-7.600E-06,0.012
-7.590E-06,-0.048
-7.580E-06,-0.060
-7.570E-06,-0.056
-7.560E-06,-0.072
-7.550E-06,-0.004
-7.540E-06,0.032
-7.530E-06,0.060
-7.520E-06,0.036
-7.510E-06,0.004
-7.500E-06,-0.020
-7.490E-06,-0.028
-7.480E-06,-0.008
-7.470E-06,-0.004
-7.460E-06,0.000
-7.450E-06,-0.008
-7.440E-06,0.024
-7.430E-06,0.044
-7.420E-06,0.044
-7.410E-06,-0.004
-7.400E-06,-0.032
-7.390E-06,-0.044
-7.380E-06,-0.024
-7.370E-06,0.016
-7.360E-06,0.040
-7.350E-06,0.052
-7.340E-06,0.020
-7.330E-06,-0.004
-7.320E-06,-0.028
-7.310E-06,-0.024
-7.300E-06,-0.008
-7.290E-06,0.028
-7.280E-06,0.056
-7.270E-06,0.060
-7.260E-06,0.040
-7.250E-06,0.008
-7.240E-06,-0.004
-7.230E-06,0.028
-7.220E-06,-0.012
-7.210E-06,-0.060
-7.200E-06,-0.088
-7.190E-06,-0.044
-7.180E-06,0.004
-7.170E-06,0.064
-7.160E-06,0.060
-7.150E-06,0.092
-7.140E-06,-0.020
-7.130E-06,-0.108
-7.120E-06,-0.112
-7.110E-06,-0.048
-7.100E-06,0.056
-7.090E-06,0.092
-7.080E-06,0.056
-7.070E-06,-0.048
-7.060E-06,-0.104
-7.050E-06,-0.104
-7.040E-06,-0.008
-7.030E-06,0.040
-7.020E-06,0.088
-7.010E-06,0.060
-7.000E-06,0.012
-6.990E-06,-0.060
-6.980E-06,-0.048
-6.970E-06,-0.024
-6.960E-06,-0.016
-6.950E-06,0.008
-6.940E-06,0.024
-6.930E-06,0.056
-6.920E-06,0.036
-6.910E-06,0.016
-6.900E-06,-0.032
-6.890E-06,-0.056
-6.880E-06,-0.056
-6.870E-06,-0.004
-6.860E-06,0.044
-6.850E-06,0.068
-6.840E-06,0.052
-6.830E-06,0.008
-6.820E-06,-0.040
-6.810E-06,-0.064
-6.800E-06,-0.044
-6.790E-06,0.000
-6.780E-06,0.060
-6.770E-06,0.068
-6.760E-06,0.048
-6.750E-06,0.000
-6.740E-06,-0.036
-6.730E-06,-0.060
-6.720E-06,-0.036
-6.710E-06,0.004
-6.700E-06,0.040
-6.690E-06,0.064
-6.680E-06,0.040
-6.670E-06,0.016
-6.660E-06,-0.024
-6.650E-06,-0.040
-6.640E-06,-0.036
-6.630E-06,-0.004
-6.620E-06,0.036
-6.610E-06,0.060
-6.600E-06,0.048
-6.590E-06,0.016
-6.580E-06,-0.020
-6.570E-06,-0.044
-6.560E-06,-0.040
-6.550E-06,-0.012
-6.540E-06,0.028
-6.530E-06,0.048
-6.520E-06,0.052
-6.510E-06,0.028
-6.500E-06,0.000
-6.490E-06,-0.024
-6.480E-06,-0.040
-6.470E-06,-0.016
-6.460E-06,0.000
-6.450E-06,0.032
-6.440E-06,0.040
-6.430E-06,0.040
-6.420E-06,0.012
-6.410E-06,-0.012
-6.400E-06,-0.024
-6.390E-06,-0.020
-6.380E-06,-0.012
-6.370E-06,0.020
-6.360E-06,0.044
-6.350E-06,0.048
-6.340E-06,0.028
-6.330E-06,0.008
-6.320E-06,-0.008
-6.310E-06,-0.016
-6.300E-06,-0.008
-6.290E-06,0.008
-6.280E-06,0.024
-6.270E-06,0.024
-6.260E-06,0.020
-6.250E-06,0.012
-6.240E-06,0.000
-6.230E-06,-0.004
-6.220E-06,0.000
-6.210E-06,0.004
-6.200E-06,0.024
-6.190E-06,0.044
-6.180E-06,0.060
-6.170E-06,0.040
-6.160E-06,0.016
-6.150E-06,-0.016
-6.140E-06,-0.012
-6.130E-06,0.024
-6.120E-06,0.048
-6.110E-06,0.052
-6.100E-06,0.020
-6.090E-06,-0.036
-6.080E-06,-0.084
-6.070E-06,-0.068
-6.060E-06,-0.032
-6.050E-06,0.028
-6.040E-06,0.128
-6.030E-06,0.080
-6.020E-06,0.044
-6.010E-06,-0.076
-6.000E-06,-0.132
-5.990E-06,-0.100
-5.980E-06,0.008
-5.970E-06,0.056
-5.960E-06,0.044
-5.950E-06,0.044
-5.940E-06,0.004
-5.930E-06,0.004
-5.920E-06,-0.016
-5.910E-06,-0.020
-5.900E-06,-0.048
-5.890E-06,-0.024
-5.880E-06,-0.008
-5.870E-06,0.020
-5.860E-06,0.032
-5.850E-06,0.044
-5.840E-06,0.016
-5.830E-06,-0.036
-5.820E-06,-0.056
-5.810E-06,-0.048
-5.800E-06,0.000
-5.790E-06,0.044
-5.780E-06,0.076
-5.770E-06,0.048
-5.760E-06,0.008
-5.750E-06,-0.032
-5.740E-06,-0.044
-5.730E-06,-0.012
-5.720E-06,0.016
-5.710E-06,0.048
-5.700E-06,0.040
-5.690E-06,0.036
-5.680E-06,0.016
-5.670E-06,0.012
-5.660E-06,0.012
-5.650E-06,0.036
-5.640E-06,0.040
-5.630E-06,0.020
-5.620E-06,-0.056
-5.610E-06,-0.068
-5.600E-06,-0.020
-5.590E-06,0.016
-5.580E-06,0.036
-5.570E-06,-0.024
-5.560E-06,-0.016
-5.550E-06,-0.008
-5.540E-06,0.032
-5.530E-06,0.012
-5.520E-06,0.020
-5.510E-06,-0.016
-5.500E-06,-0.112
-5.490E-06,-0.124
-5.480E-06,-0.056
-5.470E-06,0.068
-5.460E-06,0.112
-5.450E-06,0.140
-5.440E-06,0.028
-5.430E-06,-0.072
-5.420E-06,-0.144
-5.410E-06,-0.120
-5.400E-06,-0.016
-5.390E-06,0.092
-5.380E-06,0.128
-5.370E-06,0.084
-5.360E-06,0.012
-5.350E-06,-0.076
-5.340E-06,-0.072
-5.330E-06,-0.048
-5.320E-06,0.024
-5.310E-06,0.056
-5.300E-06,0.072
-5.290E-06,0.052
-5.280E-06,0.016
-5.270E-06,-0.012
-5.260E-06,-0.036
-5.250E-06,-0.012
-5.240E-06,0.004
-5.230E-06,0.044
-5.220E-06,0.040
-5.210E-06,0.000
-5.200E-06,-0.040
-5.190E-06,-0.076
-5.180E-06,-0.084
-5.170E-06,-0.028
-5.160E-06,0.064
-5.150E-06,0.060
-5.140E-06,0.012
-5.130E-06,-0.036
-5.120E-06,-0.024
-5.110E-06,-0.004
-5.100E-06,0.028
-5.090E-06,0.028
-5.080E-06,0.000
-5.070E-06,-0.016
-5.060E-06,-0.012
-5.050E-06,0.008
-5.040E-06,0.032
-5.030E-06,0.028
-5.020E-06,0.012
-5.010E-06,-0.008
-5.000E-06,-0.008
-4.990E-06,-0.008
-4.980E-06,0.012
-4.970E-06,-0.012
-4.960E-06,0.000
-4.950E-06,-0.032
-4.940E-06,-0.040
-4.930E-06,0.008
-4.920E-06,0.072
-4.910E-06,0.048
-4.900E-06,-0.028
-4.890E-06,-0.044
-4.880E-06,-0.040
-4.870E-06,0.004
-4.860E-06,0.056
-4.850E-06,0.060
-4.840E-06,0.000
-4.830E-06,-0.032
-4.820E-06,-0.052
-4.810E-06,-0.032
-4.800E-06,0.012
-4.790E-06,0.056
-4.780E-06,0.060
-4.770E-06,0.028
-4.760E-06,-0.008
-4.750E-06,-0.040
-4.740E-06,-0.028
-4.730E-06,-0.004
-4.720E-06,0.032
-4.710E-06,0.052
-4.700E-06,0.024
-4.690E-06,-0.016
-4.680E-06,-0.036
-4.670E-06,-0.052
-4.660E-06,-0.028
-4.650E-06,0.020
-4.640E-06,0.048
-4.630E-06,0.048
-4.620E-06,0.024
-4.610E-06,-0.004
-4.600E-06,-0.032
-4.590E-06,-0.028
-4.580E-06,-0.020
-4.570E-06,-0.004
-4.560E-06,0.024
-4.550E-06,0.032
-4.540E-06,0.036
-4.530E-06,0.020
-4.520E-06,0.000
-4.510E-06,-0.028
-4.500E-06,-0.028
-4.490E-06,-0.024
-4.480E-06,0.008
-4.470E-06,0.032
-4.460E-06,0.040
-4.450E-06,0.024
-4.440E-06,0.004
-4.430E-06,-0.016
-4.420E-06,-0.028
-4.410E-06,-0.020
-4.400E-06,-0.004
-4.390E-06,0.020
-4.380E-06,0.032
-4.370E-06,0.032
-4.360E-06,0.016
-4.350E-06,-0.004
-4.340E-06,-0.020
-4.330E-06,-0.024
-4.320E-06,-0.004
-4.310E-06,0.008
-4.300E-06,0.024
-4.290E-06,0.032
-4.280E-06,0.020
-4.270E-06,0.012
-4.260E-06,-0.008
-4.250E-06,-0.020
-4.240E-06,-0.012
-4.230E-06,-0.004
-4.220E-06,0.012
-4.210E-06,0.028
-4.200E-06,0.024
-4.190E-06,0.008
-4.180E-06,0.000
-4.170E-06,-0.016
-4.160E-06,-0.020
-4.150E-06,0.000
-4.140E-06,0.008
-4.130E-06,0.020
-4.120E-06,0.028
-4.110E-06,0.020
-4.100E-06,0.012
-4.090E-06,-0.004
-4.080E-06,-0.012
-4.070E-06,-0.004
-4.060E-06,0.004
-4.050E-06,0.020
-4.040E-06,0.024
-4.030E-06,0.016
-4.020E-06,0.004
-4.010E-06,-0.008
-4.000E-06,-0.012
-3.990E-06,-0.008
-3.980E-06,0.000
-3.970E-06,0.012
-3.960E-06,0.016
-3.950E-06,0.012
-3.940E-06,0.004
-3.930E-06,0.000
-3.920E-06,0.000
-3.910E-06,0.000
-3.900E-06,-0.004
-3.890E-06,0.004
-3.880E-06,0.004
-3.870E-06,0.004
-3.860E-06,0.008
-3.850E-06,0.004
-3.840E-06,0.004
-3.830E-06,-0.004
-3.820E-06,-0.008
-3.810E-06,0.004
-3.800E-06,0.008
-3.790E-06,0.012
-3.780E-06,0.016
-3.770E-06,0.012
-3.760E-06,0.000
-3.750E-06,0.000
-3.740E-06,-0.004
-3.730E-06,-0.004
-3.720E-06,0.004
-3.710E-06,0.012
-3.700E-06,0.012
-3.690E-06,0.012
-3.680E-06,0.000
-3.670E-06,-0.004
-3.660E-06,-0.004
-3.650E-06,0.000
-3.640E-06,0.004
-3.630E-06,0.008
-3.620E-06,0.012
-3.610E-06,0.008
-3.600E-06,0.000
-3.590E-06,0.000
-3.580E-06,0.000
-3.570E-06,0.000
-3.560E-06,0.008
-3.550E-06,0.004
-3.540E-06,0.008
-3.530E-06,0.008
-3.520E-06,0.008
-3.510E-06,0.000
-3.500E-06,0.000
-3.490E-06,0.008
-3.480E-06,0.004
-3.470E-06,0.004
-3.460E-06,0.008
-3.450E-06,0.012
-3.440E-06,0.016
-3.430E-06,0.012
-3.420E-06,0.016
-3.410E-06,0.012
-3.400E-06,0.012
-3.390E-06,-0.004
-3.380E-06,-0.028
-3.370E-06,-0.004
-3.360E-06,0.008
-3.350E-06,0.016
-3.340E-06,0.024
-3.330E-06,-0.008
-3.320E-06,-0.028
-3.310E-06,-0.020
-3.300E-06,0.000
-3.290E-06,0.020
-3.280E-06,0.028
-3.270E-06,0.016
-3.260E-06,-0.004
-3.250E-06,-0.024
-3.240E-06,-0.028
-3.230E-06,-0.004
-3.220E-06,0.028
-3.210E-06,0.036
-3.200E-06,0.016
-3.190E-06,-0.004
-3.180E-06,-0.020
-3.170E-06,-0.016
-3.160E-06,-0.004
-3.150E-06,0.016
-3.140E-06,0.028
-3.130E-06,0.020
-3.120E-06,0.008
-3.110E-06,0.000
-3.100E-06,-0.008
-3.090E-06,-0.004
-3.080E-06,0.004
-3.070E-06,0.012
-3.060E-06,0.012
-3.050E-06,0.008
-3.040E-06,0.004
-3.030E-06,-0.004
-3.020E-06,0.000
-3.010E-06,0.000
-3.000E-06,0.008
-2.990E-06,0.008
-2.980E-06,0.012
-2.970E-06,0.012
-2.960E-06,0.004
-2.950E-06,0.012
-2.940E-06,0.016
-2.930E-06,0.012
-2.920E-06,0.016
-2.910E-06,0.020
-2.900E-06,-0.008
-2.890E-06,-0.024
-2.880E-06,-0.024
-2.870E-06,-0.008
-2.860E-06,0.012
-2.850E-06,0.040
-2.840E-06,0.024
-2.830E-06,-0.012
-2.820E-06,-0.040
-2.810E-06,-0.040
-2.800E-06,0.000
-2.790E-06,0.016
-2.780E-06,0.028
-2.770E-06,0.004
-2.760E-06,-0.008
-2.750E-06,-0.024
-2.740E-06,-0.004
-2.730E-06,0.000
-2.720E-06,0.008
-2.710E-06,0.012
-2.700E-06,0.008
-2.690E-06,0.008
-2.680E-06,0.004
-2.670E-06,0.012
-2.660E-06,0.004
-2.650E-06,0.008
-2.640E-06,0.000
-2.630E-06,-0.004
-2.620E-06,0.000
-2.610E-06,0.004
-2.600E-06,0.012
-2.590E-06,0.008
-2.580E-06,0.008
-2.570E-06,0.000
-2.560E-06,-0.004
-2.550E-06,0.008
-2.540E-06,0.016
-2.530E-06,0.020
-2.520E-06,0.012
-2.510E-06,0.012
-2.500E-06,0.012
-2.490E-06,0.008
-2.480E-06,0.028
-2.470E-06,0.032
-2.460E-06,0.036
-2.450E-06,0.032
-2.440E-06,0.028
-2.430E-06,-0.032
-2.420E-06,-0.072
-2.410E-06,-0.048
-2.400E-06,0.004
-2.390E-06,0.040
-2.380E-06,0.032
-2.370E-06,0.000
-2.360E-06,-0.004
-2.350E-06,0.000
-2.340E-06,0.000
-2.330E-06,-0.004
-2.320E-06,0.016
-2.310E-06,0.040
-2.300E-06,0.008
-2.290E-06,-0.036
-2.280E-06,-0.032
-2.270E-06,-0.028
-2.260E-06,-0.020
-2.250E-06,-0.004
-2.240E-06,0.052
-2.230E-06,0.024
-2.220E-06,-0.020
-2.210E-06,-0.036
-2.200E-06,-0.012
-2.190E-06,0.024
-2.180E-06,0.036
-2.170E-06,0.024
-2.160E-06,-0.020
-2.150E-06,-0.024
-2.140E-06,-0.016
-2.130E-06,0.012
-2.120E-06,0.024
-2.110E-06,0.044
-2.100E-06,0.024
-2.090E-06,-0.004
-2.080E-06,-0.024
-2.070E-06,-0.020
-2.060E-06,-0.008
-2.050E-06,0.016
-2.040E-06,0.040
-2.030E-06,0.040
-2.020E-06,0.024
-2.010E-06,0.008
-2.000E-06,0.012
-1.990E-06,-0.004
-1.980E-06,-0.004
-1.970E-06,0.000
-1.960E-06,-0.004
-1.950E-06,-0.024
-1.940E-06,-0.020
-1.930E-06,-0.008
-1.920E-06,0.024
-1.910E-06,0.024
-1.900E-06,-0.008
-1.890E-06,-0.028
-1.880E-06,-0.016
-1.870E-06,0.016
-1.860E-06,0.040
-1.850E-06,0.024
-1.840E-06,0.000
-1.830E-06,-0.024
-1.820E-06,-0.028
-1.810E-06,-0.016
-1.800E-06,0.004
-1.790E-06,0.020
-1.780E-06,0.024
-1.770E-06,0.008
-1.760E-06,-0.008
-1.750E-06,-0.012
-1.740E-06,-0.004
-1.730E-06,-0.004
-1.720E-06,0.004
-1.710E-06,0.008
-1.700E-06,0.012
-1.690E-06,0.012
-1.680E-06,0.008
-1.670E-06,0.008
-1.660E-06,0.000
-1.650E-06,0.000
-1.640E-06,-0.004
-1.630E-06,0.004
-1.620E-06,0.012
-1.610E-06,0.024
-1.600E-06,0.032
-1.590E-06,0.012
-1.580E-06,-0.008
-1.570E-06,-0.008
-1.560E-06,0.012
-1.550E-06,0.032
-1.540E-06,0.024
-1.530E-06,0.016
-1.520E-06,-0.036
-1.510E-06,-0.028
-1.500E-06,-0.028
-1.490E-06,-0.008
-1.480E-06,0.000
-1.470E-06,0.028
-1.460E-06,0.032
-1.450E-06,0.020
-1.440E-06,0.004
-1.430E-06,-0.016
-1.420E-06,-0.008
-1.410E-06,-0.016
-1.400E-06,0.008
-1.390E-06,0.024
-1.380E-06,0.056
-1.370E-06,0.044
-1.360E-06,0.028
-1.350E-06,0.000
-1.340E-06,-0.012
-1.330E-06,-0.012
-1.320E-06,0.008
-1.310E-06,0.028
-1.300E-06,0.044
-1.290E-06,0.032
-1.280E-06,0.000
-1.270E-06,-0.016
-1.260E-06,-0.036
-1.250E-06,-0.032
-1.240E-06,0.000
-1.230E-06,0.028
-1.220E-06,0.056
-1.210E-06,0.032
-1.200E-06,0.008
-1.190E-06,-0.004
-1.180E-06,-0.008
-1.170E-06,-0.004
-1.160E-06,0.024
-1.150E-06,0.036
-1.140E-06,0.068
-1.130E-06,0.052
-1.120E-06,0.020
-1.110E-06,-0.004
-1.100E-06,-0.032
-1.090E-06,-0.064
-1.080E-06,-0.024
-1.070E-06,0.004
-1.060E-06,0.016
-1.050E-06,0.020
-1.040E-06,0.020
-1.030E-06,0.028
-1.020E-06,0.028
-1.010E-06,0.024
-1.000E-06,0.028
-9.900E-07,0.020
-9.800E-07,-0.008
-9.700E-07,-0.024
-9.600E-07,-0.040
-9.500E-07,-0.040
-9.400E-07,-0.016
-9.300E-07,0.016
-9.200E-07,0.052
-9.100E-07,0.048
-9.000E-07,0.024
-8.900E-07,-0.020
-8.800E-07,-0.044
-8.700E-07,-0.064
-8.600E-07,-0.044
-8.500E-07,0.004
-8.400E-07,0.040
-8.300E-07,0.064
-8.200E-07,0.056
-8.100E-07,0.044
-8.000E-07,0.012
-7.900E-07,0.008
-7.800E-07,0.016
-7.700E-07,0.028
-7.600E-07,0.028
-7.500E-07,-0.004
-7.400E-07,-0.024
-7.300E-07,-0.060
-7.200E-07,-0.044
-7.100E-07,-0.024
-7.000E-07,0.000
-6.900E-07,0.028
-6.800E-07,0.028
-6.700E-07,0.020
-6.600E-07,0.000
-6.500E-07,0.000
-6.400E-07,0.004
-6.300E-07,0.004
-6.200E-07,0.008
-6.100E-07,0.008
-6.000E-07,0.012
-5.900E-07,0.024
-5.800E-07,0.024
-5.700E-07,0.008
-5.600E-07,-0.004
-5.500E-07,-0.004
-5.400E-07,0.000
-5.300E-07,0.028
-5.200E-07,0.056
-5.100E-07,0.048
-5.000E-07,0.040
-4.900E-07,0.012
-4.800E-07,0.012
-4.700E-07,0.032
-4.600E-07,0.052
-4.500E-07,0.092
-4.400E-07,0.104
-4.300E-07,0.084
-4.200E-07,0.060
-4.100E-07,0.020
-4.000E-07,-0.008
-3.900E-07,-0.056
-3.800E-07,-0.100
-3.700E-07,-0.160
-3.600E-07,-0.148
-3.500E-07,-0.092
-3.400E-07,0.004
-3.300E-07,0.092
-3.200E-07,0.108
-3.100E-07,0.064
-3.000E-07,-0.032
-2.900E-07,-0.080
-2.800E-07,-0.072
-2.700E-07,0.000
-2.600E-07,0.064
-2.500E-07,0.096
-2.400E-07,0.076
-2.300E-07,0.016
-2.200E-07,-0.032
-2.100E-07,-0.036
-2.000E-07,0.016
-1.900E-07,0.080
-1.800E-07,0.132
-1.700E-07,0.128
-1.600E-07,0.100
-1.500E-07,0.056
-1.400E-07,0.032
-1.300E-07,0.020
-1.200E-07,0.024
-1.100E-07,0.056
-1.000E-07,0.096
-9.000E-08,0.124
-8.000E-08,0.132
-7.000E-08,0.096
-6.000E-08,-0.360
-5.000E-08,-0.456
-4.000E-08,-0.508
-3.000E-08,-0.400
-2.000E-08,-0.060
-1.000E-08,0.492
0.000E+00,0.540
1.000E-08,0.224
2.000E-08,-0.160
3.000E-08,-0.468
4.000E-08,-0.388
5.000E-08,-0.156
6.000E-08,0.176
7.000E-08,0.228
8.000E-08,0.160
9.000E-08,0.032
1.000E-07,-0.036
1.100E-07,-0.044
1.200E-07,-0.028
1.300E-07,0.024
1.400E-07,0.032
1.500E-07,0.088
1.600E-07,0.072
1.700E-07,0.072
1.800E-07,0.008
1.900E-07,-0.004
2.000E-07,-0.044
2.100E-07,-0.028
2.200E-07,0.000
2.300E-07,0.020
2.400E-07,0.052
2.500E-07,0.036
2.600E-07,0.032
2.700E-07,0.000
2.800E-07,-0.032
2.900E-07,-0.116
3.000E-07,-0.100
3.100E-07,-0.072
3.200E-07,0.024
3.300E-07,0.168
3.400E-07,0.200
3.500E-07,0.084
3.600E-07,-0.108
3.700E-07,-0.176
3.800E-07,-0.152
3.900E-07,-0.040
4.000E-07,0.064
4.100E-07,0.212
4.200E-07,0.144
4.300E-07,-0.024
4.400E-07,-0.148
4.500E-07,-0.180
4.600E-07,-0.072
4.700E-07,0.052
4.800E-07,0.120
4.900E-07,0.056
5.000E-07,-0.040
5.100E-07,-0.104
5.200E-07,-0.072
5.300E-07,-0.016
5.400E-07,0.044
5.500E-07,0.068
5.600E-07,0.056
5.700E-07,0.028
5.800E-07,-0.016
5.900E-07,-0.036
6.000E-07,-0.024
6.100E-07,0.024
6.200E-07,0.068
6.300E-07,0.116
6.400E-07,0.124
6.500E-07,0.092
6.600E-07,0.040
6.700E-07,0.020
6.800E-07,-0.120
6.900E-07,-0.156
7.000E-07,-0.244
7.100E-07,-0.236
7.200E-07,-0.096
7.300E-07,0.148
7.400E-07,0.236
7.500E-07,0.116
7.600E-07,-0.020
7.700E-07,-0.188
7.800E-07,-0.104
7.900E-07,-0.012
8.000E-07,0.104
8.100E-07,0.056
8.200E-07,0.020
8.300E-07,-0.080
8.400E-07,-0.120
8.500E-07,-0.064
8.600E-07,0.016
8.700E-07,0.092
8.800E-07,0.088
8.900E-07,0.052
9.000E-07,-0.056
9.100E-07,-0.092
9.200E-07,-0.124
9.300E-07,-0.040
9.400E-07,0.024
9.500E-07,0.096
9.600E-07,0.112
9.700E-07,0.064
9.800E-07,-0.016
9.900E-07,-0.104
1.000E-06,-0.100
1.010E-06,-0.056
1.020E-06,0.040
1.030E-06,0.092
1.040E-06,0.108
1.050E-06,0.040
1.060E-06,-0.032
1.070E-06,-0.088
1.080E-06,-0.096
1.090E-06,-0.044
1.100E-06,0.032
1.110E-06,0.100
1.120E-06,0.104
1.130E-06,0.068
1.140E-06,-0.020
1.150E-06,-0.076
1.160E-06,-0.100
1.170E-06,-0.048
1.180E-06,0.028
1.190E-06,0.100
1.200E-06,0.120
1.210E-06,0.068
1.220E-06,-0.008
1.230E-06,-0.072
1.240E-06,-0.088
1.250E-06,-0.056
1.260E-06,0.016
1.270E-06,0.060
1.280E-06,0.072
1.290E-06,0.040
1.300E-06,0.008
1.310E-06,-0.040
1.320E-06,-0.068
1.330E-06,-0.044
1.340E-06,-0.004
1.350E-06,0.052
1.360E-06,0.076
1.370E-06,0.056
1.380E-06,0.004
1.390E-06,-0.040
1.400E-06,-0.068
1.410E-06,-0.044
1.420E-06,0.008
1.430E-06,0.052
1.440E-06,0.068
1.450E-06,0.052
1.460E-06,0.016
1.470E-06,-0.020
1.480E-06,-0.040
1.490E-06,-0.032
1.500E-06,-0.004
1.510E-06,0.024
1.520E-06,0.048
1.530E-06,0.044
1.540E-06,0.028
1.550E-06,-0.004
1.560E-06,-0.032
1.570E-06,-0.028
1.580E-06,-0.008
1.590E-06,0.024
1.600E-06,0.040
1.610E-06,0.028
1.620E-06,0.012
1.630E-06,-0.004
1.640E-06,-0.012
1.650E-06,-0.016
1.660E-06,-0.004
1.670E-06,0.020
1.680E-06,0.024
1.690E-06,0.024
1.700E-06,0.024
1.710E-06,0.020
1.720E-06,0.024
1.730E-06,0.028
1.740E-06,0.032
1.750E-06,0.056
1.760E-06,0.056
1.770E-06,0.056
1.780E-06,-0.032
1.790E-06,-0.096
1.800E-06,-0.100
1.810E-06,-0.104
1.820E-06,-0.040
1.830E-06,0.068
1.840E-06,0.092
1.850E-06,0.032
1.860E-06,-0.028
1.870E-06,-0.048
1.880E-06,-0.016
1.890E-06,0.008
1.900E-06,0.020
1.910E-06,-0.012
1.920E-06,-0.036
1.930E-06,-0.028
1.940E-06,0.036
1.950E-06,0.064
1.960E-06,0.052
1.970E-06,-0.004
1.980E-06,-0.032
1.990E-06,-0.040
2.000E-06,-0.008
2.010E-06,0.028
2.020E-06,0.052
2.030E-06,0.064
2.040E-06,0.056
2.050E-06,0.036
2.060E-06,0.008
2.070E-06,-0.060
2.080E-06,-0.088
2.090E-06,-0.088
2.100E-06,-0.024
2.110E-06,0.080
2.120E-06,0.112
2.130E-06,0.048
2.140E-06,-0.056
2.150E-06,-0.104
2.160E-06,-0.088
2.170E-06,-0.004
2.180E-06,0.072
2.190E-06,0.108
2.200E-06,0.060
2.210E-06,0.000
2.220E-06,-0.040
2.230E-06,-0.052
2.240E-06,-0.020
2.250E-06,0.024
2.260E-06,0.052
2.270E-06,0.044
2.280E-06,0.032
2.290E-06,0.012
2.300E-06,0.008
2.310E-06,0.008
2.320E-06,0.016
2.330E-06,0.024
2.340E-06,0.024
2.350E-06,0.020
2.360E-06,0.024
2.370E-06,0.024
2.380E-06,0.020
2.390E-06,-0.012
2.400E-06,-0.076
2.410E-06,-0.144
2.420E-06,-0.128
2.430E-06,-0.076
2.440E-06,0.024
2.450E-06,0.108
2.460E-06,0.092
2.470E-06,0.032
2.480E-06,-0.012
2.490E-06,-0.040
2.500E-06,-0.064
2.510E-06,-0.044
2.520E-06,-0.008
2.530E-06,0.028
2.540E-06,0.028
2.550E-06,0.028
2.560E-06,0.028
2.570E-06,0.028
2.580E-06,0.000
2.590E-06,-0.036
2.600E-06,-0.020
2.610E-06,-0.032
2.620E-06,-0.020
2.630E-06,-0.004
2.640E-06,0.008
2.650E-06,0.008
2.660E-06,0.028
2.670E-06,0.016
2.680E-06,-0.008
2.690E-06,-0.032
2.700E-06,-0.040
2.710E-06,-0.012
2.720E-06,0.024
2.730E-06,0.056
2.740E-06,0.048
2.750E-06,0.028
2.760E-06,-0.016
2.770E-06,-0.036
2.780E-06,-0.032
2.790E-06,0.000
2.800E-06,0.036
2.810E-06,0.056
2.820E-06,0.044
2.830E-06,0.020
2.840E-06,-0.008
2.850E-06,-0.028
2.860E-06,-0.028
2.870E-06,-0.012
2.880E-06,0.028
2.890E-06,0.044
2.900E-06,0.052
2.910E-06,0.028
2.920E-06,-0.004
2.930E-06,-0.036
2.940E-06,-0.056
2.950E-06,-0.032
2.960E-06,0.012
2.970E-06,0.064
2.980E-06,0.076
2.990E-06,0.052
3.000E-06,0.004
3.010E-06,-0.040
3.020E-06,-0.052
3.030E-06,-0.036
3.040E-06,0.004
3.050E-06,0.028
3.060E-06,0.044
3.070E-06,0.020
3.080E-06,-0.008
3.090E-06,-0.036
3.100E-06,-0.032
3.110E-06,-0.008
3.120E-06,0.024
3.130E-06,0.044
3.140E-06,0.044
3.150E-06,0.012
3.160E-06,-0.012
3.170E-06,-0.028
3.180E-06,-0.024
3.190E-06,0.012
3.200E-06,0.028
3.210E-06,0.052
3.220E-06,0.052
3.230E-06,0.036
3.240E-06,0.024
