mediciones/5-15/0/WaveData4635.csv

#timebase=2000000(ps)
,#voltbase=1000000(mv/100)
#size=4000
-8.400E-06,0.040
-8.390E-06,0.040
-8.380E-06,0.040
-8.370E-06,0.040
-8.360E-06,0.080
-8.350E-06,0.040
-8.340E-06,0.000
-8.330E-06,0.080
-8.320E-06,0.080
-8.310E-06,0.000
-8.300E-06,0.040
-8.290E-06,0.040
-8.280E-06,0.040
-8.270E-06,0.000
-8.260E-06,0.040
-8.250E-06,0.000
-8.240E-06,0.040
-8.230E-06,0.040
-8.220E-06,0.080
-8.210E-06,0.040
-8.200E-06,0.080
-8.190E-06,0.040
-8.180E-06,0.040
-8.170E-06,0.080
-8.160E-06,0.120
-8.150E-06,0.160
-8.140E-06,0.080
-8.130E-06,0.080
-8.120E-06,0.120
-8.110E-06,0.120
-8.100E-06,0.120
-8.090E-06,0.160
-8.080E-06,0.120
-8.070E-06,0.040
-8.060E-06,0.080
-8.050E-06,0.080
-8.040E-06,0.080
-8.030E-06,0.080
-8.020E-06,0.080
-8.010E-06,0.080
-8.000E-06,0.040
-7.990E-06,0.080
-7.980E-06,0.080
-7.970E-06,0.120
-7.960E-06,0.080
-7.950E-06,0.000
-7.940E-06,0.040
-7.930E-06,0.000
-7.920E-06,0.000
-7.910E-06,0.000
-7.900E-06,0.000
-7.890E-06,0.000
-7.880E-06,0.040
-7.870E-06,0.000
-7.860E-06,0.040
-7.850E-06,0.000
-7.840E-06,0.000
-7.830E-06,0.080
-7.820E-06,0.120
-7.810E-06,0.120
-7.800E-06,0.040
-7.790E-06,0.040
-7.780E-06,0.080
-7.770E-06,0.120
-7.760E-06,0.160
-7.750E-06,0.120
-7.740E-06,0.120
-7.730E-06,0.040
-7.720E-06,0.080
-7.710E-06,0.080
-7.700E-06,0.080
-7.690E-06,0.120
-7.680E-06,0.080
-7.670E-06,0.040
-7.660E-06,0.080
-7.650E-06,0.040
-7.640E-06,0.040
-7.630E-06,0.080
-7.620E-06,0.040
-7.610E-06,0.080
-7.600E-06,0.120
-7.590E-06,0.000
-7.580E-06,0.040
-7.570E-06,0.040
-7.560E-06,0.040
-7.550E-06,0.080
-7.540E-06,0.040
-7.530E-06,0.040
-7.520E-06,0.040
-7.510E-06,0.040
-7.500E-06,0.120
-7.490E-06,0.000
-7.480E-06,0.000
-7.470E-06,0.080
-7.460E-06,0.040
-7.450E-06,0.000
-7.440E-06,0.040
-7.430E-06,0.120
-7.420E-06,0.120
-7.410E-06,0.040
-7.400E-06,0.040
-7.390E-06,0.040
-7.380E-06,0.040
-7.370E-06,0.040
-7.360E-06,0.040
-7.350E-06,0.040
-7.340E-06,0.040
-7.330E-06,0.080
-7.320E-06,0.040
-7.310E-06,0.080
-7.300E-06,0.080
-7.290E-06,0.080
-7.280E-06,0.040
-7.270E-06,0.120
-7.260E-06,0.080
-7.250E-06,0.000
-7.240E-06,0.000
-7.230E-06,0.120
-7.220E-06,0.160
-7.210E-06,0.040
-7.200E-06,0.000
-7.190E-06,0.040
-7.180E-06,0.000
-7.170E-06,0.040
-7.160E-06,0.040
-7.150E-06,0.120
-7.140E-06,0.000
-7.130E-06,0.040
-7.120E-06,0.040
-7.110E-06,0.080
-7.100E-06,0.120
-7.090E-06,0.120
-7.080E-06,0.120
-7.070E-06,0.040
-7.060E-06,0.080
-7.050E-06,0.080
-7.040E-06,0.160
-7.030E-06,0.120
-7.020E-06,0.040
-7.010E-06,0.080
-7.000E-06,0.080
-6.990E-06,0.040
-6.980E-06,0.080
-6.970E-06,0.120
-6.960E-06,0.120
-6.950E-06,0.120
-6.940E-06,0.000
-6.930E-06,0.080
-6.920E-06,0.080
-6.910E-06,0.040
-6.900E-06,0.080
-6.890E-06,0.120
-6.880E-06,0.080
-6.870E-06,0.080
-6.860E-06,-0.040
-6.850E-06,0.040
-6.840E-06,0.040
-6.830E-06,0.000
-6.820E-06,0.120
-6.810E-06,0.040
-6.800E-06,0.080
-6.790E-06,0.080
-6.780E-06,0.120
-6.770E-06,0.160
-6.760E-06,0.120
-6.750E-06,0.120
-6.740E-06,0.120
-6.730E-06,0.040
-6.720E-06,-0.040
-6.710E-06,0.000
-6.700E-06,-0.040
-6.690E-06,0.000
-6.680E-06,-0.040
-6.670E-06,-0.040
-6.660E-06,0.000
-6.650E-06,-0.040
-6.640E-06,0.000
-6.630E-06,-0.040
-6.620E-06,0.000
-6.610E-06,0.080
-6.600E-06,-0.040
-6.590E-06,0.040
-6.580E-06,0.040
-6.570E-06,0.080
-6.560E-06,0.080
-6.550E-06,0.080
-6.540E-06,0.040
-6.530E-06,0.040
-6.520E-06,0.080
-6.510E-06,0.080
-6.500E-06,0.120
-6.490E-06,0.040
-6.480E-06,0.080
-6.470E-06,0.080
-6.460E-06,0.160
-6.450E-06,0.080
-6.440E-06,0.080
-6.430E-06,0.080
-6.420E-06,0.160
-6.410E-06,0.160
-6.400E-06,0.200
-6.390E-06,0.120
-6.380E-06,0.160
-6.370E-06,0.120
-6.360E-06,0.160
-6.350E-06,0.080
-6.340E-06,0.040
-6.330E-06,0.000
-6.320E-06,0.040
-6.310E-06,0.000
-6.300E-06,0.000
-6.290E-06,0.000
-6.280E-06,0.000
-6.270E-06,0.040
-6.260E-06,-0.040
-6.250E-06,0.000
-6.240E-06,0.000
-6.230E-06,0.000
-6.220E-06,0.000
-6.210E-06,0.080
-6.200E-06,0.000
-6.190E-06,0.040
-6.180E-06,0.040
-6.170E-06,0.080
-6.160E-06,0.080
-6.150E-06,0.080
-6.140E-06,0.080
-6.130E-06,0.080
-6.120E-06,0.080
-6.110E-06,0.080
-6.100E-06,0.080
-6.090E-06,0.080
-6.080E-06,0.080
-6.070E-06,0.080
-6.060E-06,0.080
-6.050E-06,0.040
-6.040E-06,0.040
-6.030E-06,0.040
-6.020E-06,0.040
-6.010E-06,0.120
-6.000E-06,0.040
-5.990E-06,0.080
-5.980E-06,0.000
-5.970E-06,0.040
-5.960E-06,0.040
-5.950E-06,0.120
-5.940E-06,0.160
-5.930E-06,0.120
-5.920E-06,0.040
-5.910E-06,0.040
-5.900E-06,-0.040
-5.890E-06,-0.040
-5.880E-06,0.040
-5.870E-06,0.000
-5.860E-06,0.000
-5.850E-06,0.000
-5.840E-06,0.040
-5.830E-06,0.040
-5.820E-06,0.040
-5.810E-06,0.080
-5.800E-06,0.040
-5.790E-06,0.000
-5.780E-06,0.040
-5.770E-06,0.040
-5.760E-06,0.040
-5.750E-06,0.080
-5.740E-06,0.040
-5.730E-06,0.040
-5.720E-06,0.000
-5.710E-06,-0.040
-5.700E-06,0.040
-5.690E-06,0.000
-5.680E-06,0.040
-5.670E-06,0.000
-5.660E-06,0.000
-5.650E-06,-0.040
-5.640E-06,-0.080
-5.630E-06,-0.040
-5.620E-06,0.040
-5.610E-06,-0.080
-5.600E-06,0.000
-5.590E-06,-0.120
-5.580E-06,-0.120
-5.570E-06,-0.080
-5.560E-06,-0.080
-5.550E-06,-0.040
-5.540E-06,0.000
-5.530E-06,-0.080
-5.520E-06,-0.080
-5.510E-06,-0.080
-5.500E-06,0.000
-5.490E-06,0.040
-5.480E-06,0.040
-5.470E-06,0.000
-5.460E-06,0.040
-5.450E-06,0.080
-5.440E-06,0.120
-5.430E-06,0.080
-5.420E-06,0.080
-5.410E-06,0.120
-5.400E-06,0.120
-5.390E-06,0.120
-5.380E-06,0.080
-5.370E-06,0.120
-5.360E-06,0.160
-5.350E-06,0.080
-5.340E-06,0.080
-5.330E-06,0.120
-5.320E-06,0.120
-5.310E-06,0.160
-5.300E-06,0.160
-5.290E-06,0.160
-5.280E-06,0.160
-5.270E-06,0.160
-5.260E-06,0.120
-5.250E-06,0.120
-5.240E-06,0.120
-5.230E-06,0.160
-5.220E-06,0.080
-5.210E-06,0.080
-5.200E-06,0.040
-5.190E-06,0.000
-5.180E-06,0.000
-5.170E-06,0.000
-5.160E-06,-0.040
-5.150E-06,0.000
-5.140E-06,-0.040
-5.130E-06,0.000
-5.120E-06,0.040
-5.110E-06,0.040
-5.100E-06,0.040
-5.090E-06,-0.080
-5.080E-06,0.000
-5.070E-06,-0.040
-5.060E-06,-0.120
-5.050E-06,-0.040
-5.040E-06,0.000
-5.030E-06,0.000
-5.020E-06,-0.040
-5.010E-06,0.000
-5.000E-06,0.000
-4.990E-06,0.000
-4.980E-06,0.000
-4.970E-06,0.000
-4.960E-06,0.040
-4.950E-06,-0.040
-4.940E-06,-0.040
-4.930E-06,0.000
-4.920E-06,0.000
-4.910E-06,0.000
-4.900E-06,0.000
-4.890E-06,0.000
-4.880E-06,0.040
-4.870E-06,-0.040
-4.860E-06,-0.040
-4.850E-06,0.000
-4.840E-06,-0.040
-4.830E-06,0.040
-4.820E-06,0.040
-4.810E-06,0.080
-4.800E-06,0.080
-4.790E-06,0.080
-4.780E-06,0.080
-4.770E-06,0.080
-4.760E-06,0.080
-4.750E-06,0.160
-4.740E-06,0.080
-4.730E-06,0.040
-4.720E-06,0.040
-4.710E-06,0.080
-4.700E-06,0.080
-4.690E-06,0.080
-4.680E-06,0.080
-4.670E-06,0.040
-4.660E-06,0.080
-4.650E-06,0.080
-4.640E-06,0.080
-4.630E-06,0.160
-4.620E-06,0.080
-4.610E-06,0.040
-4.600E-06,0.080
-4.590E-06,0.040
-4.580E-06,0.040
-4.570E-06,0.080
-4.560E-06,0.040
-4.550E-06,0.040
-4.540E-06,0.000
-4.530E-06,0.040
-4.520E-06,0.000
-4.510E-06,0.000
-4.500E-06,-0.040
-4.490E-06,0.000
-4.480E-06,-0.040
-4.470E-06,0.000
-4.460E-06,0.000
-4.450E-06,0.000
-4.440E-06,-0.040
-4.430E-06,0.000
-4.420E-06,0.000
-4.410E-06,-0.040
-4.400E-06,-0.040
-4.390E-06,0.000
-4.380E-06,-0.040
-4.370E-06,0.000
-4.360E-06,0.000
-4.350E-06,-0.040
-4.340E-06,0.040
-4.330E-06,0.040
-4.320E-06,0.000
-4.310E-06,0.000
-4.300E-06,-0.080
-4.290E-06,-0.080
-4.280E-06,-0.120
-4.270E-06,-0.080
-4.260E-06,-0.080
-4.250E-06,-0.120
-4.240E-06,-0.120
-4.230E-06,-0.080
-4.220E-06,-0.080
-4.210E-06,-0.080
-4.200E-06,-0.040
-4.190E-06,-0.080
-4.180E-06,-0.080
-4.170E-06,-0.080
-4.160E-06,0.000
-4.150E-06,-0.040
-4.140E-06,0.040
-4.130E-06,0.000
-4.120E-06,0.000
-4.110E-06,0.000
-4.100E-06,0.000
-4.090E-06,0.000
-4.080E-06,0.000
-4.070E-06,0.040
-4.060E-06,0.000
-4.050E-06,-0.040
-4.040E-06,-0.080
-4.030E-06,-0.040
-4.020E-06,-0.040
-4.010E-06,-0.040
-4.000E-06,-0.040
-3.990E-06,-0.080
-3.980E-06,-0.040
-3.970E-06,0.000
-3.960E-06,0.040
-3.950E-06,-0.040
-3.940E-06,-0.040
-3.930E-06,0.000
-3.920E-06,-0.040
-3.910E-06,-0.040
-3.900E-06,0.000
-3.890E-06,-0.040
-3.880E-06,-0.040
-3.870E-06,0.000
-3.860E-06,0.000
-3.850E-06,0.000
-3.840E-06,-0.040
-3.830E-06,0.000
-3.820E-06,0.040
-3.810E-06,-0.040
-3.800E-06,-0.040
-3.790E-06,-0.040
-3.780E-06,-0.040
-3.770E-06,0.000
-3.760E-06,0.000
-3.750E-06,0.000
-3.740E-06,0.000
-3.730E-06,0.000
-3.720E-06,0.000
-3.710E-06,0.000
-3.700E-06,0.000
-3.690E-06,0.000
-3.680E-06,0.000
-3.670E-06,0.000
-3.660E-06,0.000
-3.650E-06,0.040
-3.640E-06,-0.040
-3.630E-06,-0.040
-3.620E-06,0.000
-3.610E-06,-0.080
-3.600E-06,-0.080
-3.590E-06,-0.080
-3.580E-06,-0.120
-3.570E-06,-0.080
-3.560E-06,-0.120
-3.550E-06,-0.160
-3.540E-06,-0.080
-3.530E-06,-0.160
-3.520E-06,-0.240
-3.510E-06,-0.200
-3.500E-06,-0.160
-3.490E-06,-0.160
-3.480E-06,-0.200
-3.470E-06,-0.160
-3.460E-06,-0.160
-3.450E-06,-0.200
-3.440E-06,-0.200
-3.430E-06,-0.240
-3.420E-06,-0.200
-3.410E-06,-0.160
-3.400E-06,-0.240
-3.390E-06,-0.200
-3.380E-06,-0.240
-3.370E-06,-0.240
-3.360E-06,-0.200
-3.350E-06,-0.280
-3.340E-06,-0.320
-3.330E-06,-0.320
-3.320E-06,-0.360
-3.310E-06,-0.320
-3.300E-06,-0.360
-3.290E-06,-0.280
-3.280E-06,-0.280
-3.270E-06,-0.200
-3.260E-06,-0.160
-3.250E-06,-0.200
-3.240E-06,-0.240
-3.230E-06,-0.360
-3.220E-06,-0.440
-3.210E-06,-0.400
-3.200E-06,-0.320
-3.190E-06,-0.360
-3.180E-06,-0.360
-3.170E-06,-0.400
-3.160E-06,-0.360
-3.150E-06,-0.320
-3.140E-06,-0.360
-3.130E-06,-0.360
-3.120E-06,-0.320
-3.110E-06,-0.400
-3.100E-06,-0.400
-3.090E-06,-0.320
-3.080E-06,-0.280
-3.070E-06,-0.280
-3.060E-06,-0.240
-3.050E-06,-0.280
-3.040E-06,-0.200
-3.030E-06,-0.160
-3.020E-06,-0.200
-3.010E-06,-0.120
-3.000E-06,-0.120
-2.990E-06,-0.160
-2.980E-06,-0.120
-2.970E-06,-0.040
-2.960E-06,-0.120
-2.950E-06,-0.040
-2.940E-06,-0.040
-2.930E-06,-0.040
-2.920E-06,-0.040
-2.910E-06,0.000
-2.900E-06,0.000
-2.890E-06,0.000
-2.880E-06,0.000
-2.870E-06,0.040
-2.860E-06,0.040
-2.850E-06,0.040
-2.840E-06,0.000
-2.830E-06,0.040
-2.820E-06,-0.040
-2.810E-06,0.000
-2.800E-06,0.000
-2.790E-06,-0.040
-2.780E-06,-0.080
-2.770E-06,-0.120
-2.760E-06,-0.160
-2.750E-06,-0.280
-2.740E-06,-0.320
-2.730E-06,-0.320
-2.720E-06,-0.360
-2.710E-06,-0.360
-2.700E-06,-0.320
-2.690E-06,-0.400
-2.680E-06,-0.400
-2.670E-06,-0.400
-2.660E-06,-0.440
-2.650E-06,-0.400
-2.640E-06,-0.400
-2.630E-06,-0.440
-2.620E-06,-0.440
-2.610E-06,-0.480
-2.600E-06,-0.480
-2.590E-06,-0.480
-2.580E-06,-0.480
-2.570E-06,-0.480
-2.560E-06,-0.520
-2.550E-06,-0.520
-2.540E-06,-0.480
-2.530E-06,-0.560
-2.520E-06,-0.600
-2.510E-06,-0.640
-2.500E-06,-0.600
-2.490E-06,-0.560
-2.480E-06,-0.480
-2.470E-06,-0.440
-2.460E-06,-0.440
-2.450E-06,-0.440
-2.440E-06,-0.480
-2.430E-06,-0.440
-2.420E-06,-0.480
-2.410E-06,-0.400
-2.400E-06,-0.400
-2.390E-06,-0.400
-2.380E-06,-0.360
-2.370E-06,-0.360
-2.360E-06,-0.320
-2.350E-06,-0.280
-2.340E-06,-0.280
-2.330E-06,-0.240
-2.320E-06,-0.280
-2.310E-06,-0.240
-2.300E-06,-0.280
-2.290E-06,-0.320
-2.280E-06,-0.360
-2.270E-06,-0.440
-2.260E-06,-0.520
-2.250E-06,-0.640
-2.240E-06,-0.720
-2.230E-06,-0.800
-2.220E-06,-0.880
-2.210E-06,-1.000
-2.200E-06,-1.040
-2.190E-06,-1.160
-2.180E-06,-1.160
-2.170E-06,-1.200
-2.160E-06,-1.160
-2.150E-06,-1.160
-2.140E-06,-1.120
-2.130E-06,-1.160
-2.120E-06,-1.240
-2.110E-06,-1.280
-2.100E-06,-1.280
-2.090E-06,-1.320
-2.080E-06,-1.360
-2.070E-06,-1.320
-2.060E-06,-1.200
-2.050E-06,-1.080
-2.040E-06,-0.920
-2.030E-06,-0.880
-2.020E-06,-0.880
-2.010E-06,-0.720
-2.000E-06,-0.640
-1.990E-06,-0.520
-1.980E-06,-0.480
-1.970E-06,-0.520
-1.960E-06,-0.600
-1.950E-06,-0.640
-1.940E-06,-0.680
-1.930E-06,-0.640
-1.920E-06,-0.680
-1.910E-06,-0.640
-1.900E-06,-0.600
-1.890E-06,-0.600
-1.880E-06,-0.560
-1.870E-06,-0.480
-1.860E-06,-0.520
-1.850E-06,-0.480
-1.840E-06,-0.440
-1.830E-06,-0.400
-1.820E-06,-0.440
-1.810E-06,-0.360
-1.800E-06,-0.320
-1.790E-06,-0.240
-1.780E-06,-0.200
-1.770E-06,-0.160
-1.760E-06,-0.120
-1.750E-06,-0.120
-1.740E-06,-0.080
-1.730E-06,-0.080
-1.720E-06,-0.080
-1.710E-06,-0.200
-1.700E-06,-0.160
-1.690E-06,-0.240
-1.680E-06,-0.320
-1.670E-06,-0.360
-1.660E-06,-0.440
-1.650E-06,-0.520
-1.640E-06,-0.560
-1.630E-06,-0.600
-1.620E-06,-0.560
-1.610E-06,-0.600
-1.600E-06,-0.560
-1.590E-06,-0.560
-1.580E-06,-0.520
-1.570E-06,-0.560
-1.560E-06,-0.600
-1.550E-06,-0.600
-1.540E-06,-0.600
-1.530E-06,-0.560
-1.520E-06,-0.560
-1.510E-06,-0.600
-1.500E-06,-0.760
-1.490E-06,-0.920
-1.480E-06,-1.160
-1.470E-06,-1.200
-1.460E-06,-1.360
-1.450E-06,-1.400
-1.440E-06,-1.360
-1.430E-06,-1.320
-1.420E-06,-1.160
-1.410E-06,-1.120
-1.400E-06,-0.960
-1.390E-06,-1.080
-1.380E-06,-1.080
-1.370E-06,-1.200
-1.360E-06,-1.240
-1.350E-06,-1.120
-1.340E-06,-1.200
-1.330E-06,-1.200
-1.320E-06,-1.320
-1.310E-06,-1.400
-1.300E-06,-1.400
-1.290E-06,-1.360
-1.280E-06,-1.320
-1.270E-06,-1.320
-1.260E-06,-1.280
-1.250E-06,-1.360
-1.240E-06,-1.280
-1.230E-06,-1.160
-1.220E-06,-1.040
-1.210E-06,-0.960
-1.200E-06,-1.080
-1.190E-06,-1.160
-1.180E-06,-1.240
-1.170E-06,-1.320
-1.160E-06,-1.440
-1.150E-06,-1.640
-1.140E-06,-1.760
-1.130E-06,-2.040
-1.120E-06,-2.200
-1.110E-06,-2.400
-1.100E-06,-2.360
-1.090E-06,-2.040
-1.080E-06,-1.800
-1.070E-06,-1.360
-1.060E-06,-1.000
-1.050E-06,-0.960
-1.040E-06,-1.040
-1.030E-06,-1.320
-1.020E-06,-1.520
-1.010E-06,-1.480
-1.000E-06,-1.520
-9.900E-07,-1.480
-9.800E-07,-1.680
-9.700E-07,-2.000
-9.600E-07,-2.040
-9.500E-07,-2.200
-9.400E-07,-2.160
-9.300E-07,-2.200
-9.200E-07,-2.480
-9.100E-07,-2.840
-9.000E-07,-3.000
-8.900E-07,-3.320
-8.800E-07,-3.240
-8.700E-07,-3.280
-8.600E-07,-3.360
-8.500E-07,-3.160
-8.400E-07,-3.000
-8.300E-07,-2.400
-8.200E-07,-1.600
-8.100E-07,-1.200
-8.000E-07,-0.760
-7.900E-07,-0.960
-7.800E-07,-1.240
-7.700E-07,-1.320
-7.600E-07,-1.200
-7.500E-07,-1.080
-7.400E-07,-0.840
-7.300E-07,-1.120
-7.200E-07,-1.320
-7.100E-07,-1.360
-7.000E-07,-1.440
-6.900E-07,-1.440
-6.800E-07,-1.560
-6.700E-07,-1.760
-6.600E-07,-2.040
-6.500E-07,-2.320
-6.400E-07,-2.640
-6.300E-07,-2.800
-6.200E-07,-2.800
-6.100E-07,-2.760
-6.000E-07,-2.600
-5.900E-07,-2.400
-5.800E-07,-1.760
-5.700E-07,-1.440
-5.600E-07,-1.000
-5.500E-07,-0.720
-5.400E-07,-0.720
-5.300E-07,-0.800
-5.200E-07,-0.440
-5.100E-07,-0.480
-5.000E-07,-0.040
-4.900E-07,-0.200
-4.800E-07,-0.280
-4.700E-07,-0.360
-4.600E-07,-0.640
-4.500E-07,-0.760
-4.400E-07,-1.040
-4.300E-07,-1.280
-4.200E-07,-1.680
-4.100E-07,-1.760
-4.000E-07,-2.000
-3.900E-07,-2.200
-3.800E-07,-2.240
-3.700E-07,-2.240
-3.600E-07,-2.040
-3.500E-07,-1.880
-3.400E-07,-1.560
-3.300E-07,-1.280
-3.200E-07,-1.160
-3.100E-07,-1.000
-3.000E-07,-1.040
-2.900E-07,-1.000
-2.800E-07,-0.960
-2.700E-07,-0.960
-2.600E-07,-1.040
-2.500E-07,-1.000
-2.400E-07,-1.120
-2.300E-07,-1.120
-2.200E-07,-1.120
-2.100E-07,-1.200
-2.000E-07,-1.280
-1.900E-07,-1.520
-1.800E-07,-1.640
-1.700E-07,-1.800
-1.600E-07,-1.920
-1.500E-07,-2.080
-1.400E-07,-2.200
-1.300E-07,-2.520
-1.200E-07,-2.640
-1.100E-07,-2.760
-1.000E-07,-2.880
-9.000E-08,-3.000
-8.000E-08,-3.120
-7.000E-08,-3.400
-6.000E-08,-3.480
-5.000E-08,-2.360
-4.000E-08,-0.600
-3.000E-08,1.080
-2.000E-08,1.120
-1.000E-08,1.440
0.000E+00,-0.600
1.000E-08,-0.800
2.000E-08,-1.560
3.000E-08,-1.560
4.000E-08,-2.240
5.000E-08,-2.240
6.000E-08,-3.880
7.000E-08,-3.320
8.000E-08,-3.560
9.000E-08,-3.360
1.000E-07,-3.440
1.100E-07,-3.840
1.200E-07,-3.960
1.300E-07,-3.960
1.400E-07,-3.880
1.500E-07,-4.200
1.600E-07,-4.360
1.700E-07,-4.360
1.800E-07,-4.320
1.900E-07,-4.000
2.000E-07,-3.960
2.100E-07,-3.800
2.200E-07,-3.600
2.300E-07,-3.160
2.400E-07,-2.920
2.500E-07,-2.360
2.600E-07,-2.760
2.700E-07,-2.520
2.800E-07,-2.560
2.900E-07,-2.320
3.000E-07,-2.160
3.100E-07,-1.880
3.200E-07,-2.000
3.300E-07,-2.000
3.400E-07,-2.320
3.500E-07,-2.880
3.600E-07,-2.920
3.700E-07,-3.400
3.800E-07,-3.520
3.900E-07,-3.800
4.000E-07,-3.920
4.100E-07,-4.120
4.200E-07,-4.200
4.300E-07,-4.440
4.400E-07,-4.480
4.500E-07,-4.480
4.600E-07,-4.480
4.700E-07,-4.400
4.800E-07,-4.360
4.900E-07,-4.320
5.000E-07,-4.120
5.100E-07,-3.960
5.200E-07,-3.800
5.300E-07,-3.840
5.400E-07,-3.800
5.500E-07,-3.680
5.600E-07,-3.600
5.700E-07,-3.480
5.800E-07,-3.440
5.900E-07,-3.360
6.000E-07,-3.200
6.100E-07,-3.000
6.200E-07,-2.880
6.300E-07,-2.720
6.400E-07,-2.440
6.500E-07,-2.280
6.600E-07,-2.200
6.700E-07,-2.080
6.800E-07,-2.040
6.900E-07,-2.080
7.000E-07,-2.200
7.100E-07,-2.280
7.200E-07,-2.280
7.300E-07,-2.360
7.400E-07,-2.440
7.500E-07,-2.440
7.600E-07,-2.400
7.700E-07,-2.320
7.800E-07,-2.280
7.900E-07,-2.200
8.000E-07,-2.120
8.100E-07,-2.120
8.200E-07,-2.080
8.300E-07,-2.000
8.400E-07,-2.040
8.500E-07,-2.040
8.600E-07,-2.000
8.700E-07,-2.040
8.800E-07,-2.080
8.900E-07,-2.160
9.000E-07,-2.280
9.100E-07,-2.400
9.200E-07,-2.480
9.300E-07,-2.640
9.400E-07,-2.800
9.500E-07,-3.000
9.600E-07,-3.160
9.700E-07,-3.240
9.800E-07,-3.480
9.900E-07,-3.640
1.000E-06,-3.840
1.010E-06,-4.080
1.020E-06,-4.240
1.030E-06,-4.480
1.040E-06,-4.720
1.050E-06,-4.920
1.060E-06,-5.120
1.070E-06,-5.200
1.080E-06,-5.200
1.090E-06,-5.200
1.100E-06,-5.200
1.110E-06,-5.200
1.120E-06,-5.240
1.130E-06,-5.240
1.140E-06,-5.200
1.150E-06,-5.200
1.160E-06,-5.240
1.170E-06,-5.240
1.180E-06,-5.200
1.190E-06,-5.200
1.200E-06,-5.200
1.210E-06,-5.240
1.220E-06,-5.240
1.230E-06,-5.120
1.240E-06,-4.920
1.250E-06,-4.720
1.260E-06,-4.560
1.270E-06,-4.240
1.280E-06,-4.040
1.290E-06,-3.800
1.300E-06,-3.520
1.310E-06,-3.280
1.320E-06,-3.040
1.330E-06,-2.720
1.340E-06,-2.440
1.350E-06,-2.240
1.360E-06,-1.960
1.370E-06,-1.840
1.380E-06,-1.600
1.390E-06,-1.440
1.400E-06,-1.240
1.410E-06,-1.040
1.420E-06,-0.920
1.430E-06,-0.840
1.440E-06,-0.600
1.450E-06,-0.520
1.460E-06,-0.480
1.470E-06,-0.360
1.480E-06,-0.320
1.490E-06,-0.360
1.500E-06,-0.280
1.510E-06,-0.280
1.520E-06,-0.200
1.530E-06,-0.160
1.540E-06,-0.160
1.550E-06,-0.160
1.560E-06,-0.080
1.570E-06,-0.080
1.580E-06,-0.040
1.590E-06,0.040
1.600E-06,0.040
1.610E-06,0.080
1.620E-06,0.080
1.630E-06,0.120
1.640E-06,0.160
1.650E-06,0.200
1.660E-06,0.200
1.670E-06,0.200
1.680E-06,0.280
1.690E-06,0.320
1.700E-06,0.360
1.710E-06,0.440
1.720E-06,0.520
1.730E-06,0.520
1.740E-06,0.520
1.750E-06,0.520
1.760E-06,0.480
1.770E-06,0.480
1.780E-06,0.440
1.790E-06,0.400
1.800E-06,0.400
1.810E-06,0.280
1.820E-06,0.200
1.830E-06,0.160
1.840E-06,0.200
1.850E-06,0.160
1.860E-06,0.240
1.870E-06,0.200
1.880E-06,0.320
1.890E-06,0.360
1.900E-06,0.360
1.910E-06,0.360
1.920E-06,0.320
1.930E-06,0.320
1.940E-06,0.360
1.950E-06,0.360
1.960E-06,0.320
1.970E-06,0.280
1.980E-06,0.240
1.990E-06,0.240
2.000E-06,0.160
2.010E-06,0.160
2.020E-06,0.200
2.030E-06,0.120
2.040E-06,0.160
2.050E-06,0.280
2.060E-06,0.440
2.070E-06,0.520
2.080E-06,0.640
2.090E-06,0.680
2.100E-06,0.640
2.110E-06,0.680
2.120E-06,0.560
2.130E-06,0.440
2.140E-06,0.320
2.150E-06,0.240
2.160E-06,0.280
2.170E-06,0.320
2.180E-06,0.400
2.190E-06,0.480
2.200E-06,0.520
2.210E-06,0.680
2.220E-06,0.760
2.230E-06,0.840
2.240E-06,0.880
2.250E-06,0.800
2.260E-06,0.840
2.270E-06,0.800
2.280E-06,0.800
2.290E-06,0.760
2.300E-06,0.760
2.310E-06,0.760
2.320E-06,0.800
2.330E-06,0.840
2.340E-06,0.880
2.350E-06,1.000
2.360E-06,0.960
2.370E-06,1.040
2.380E-06,1.080
2.390E-06,1.120
2.400E-06,1.000
2.410E-06,1.000
2.420E-06,0.920
2.430E-06,0.840
2.440E-06,0.720
2.450E-06,0.600
2.460E-06,0.440
2.470E-06,0.360
2.480E-06,0.240
2.490E-06,0.240
2.500E-06,0.240
2.510E-06,0.240
2.520E-06,0.200
2.530E-06,0.360
2.540E-06,0.480
2.550E-06,0.480
2.560E-06,0.560
2.570E-06,0.640
2.580E-06,0.720
2.590E-06,0.760
2.600E-06,0.760
2.610E-06,0.800
2.620E-06,0.800
2.630E-06,0.760
2.640E-06,0.680
2.650E-06,0.680
2.660E-06,0.640
2.670E-06,0.600
2.680E-06,0.680
2.690E-06,0.640
2.700E-06,0.640
2.710E-06,0.680
2.720E-06,0.760
2.730E-06,0.840
2.740E-06,0.840
2.750E-06,0.920
2.760E-06,0.960
2.770E-06,1.120
2.780E-06,1.160
2.790E-06,1.280
2.800E-06,1.360
2.810E-06,1.440
2.820E-06,1.480
2.830E-06,1.520
2.840E-06,1.520
2.850E-06,1.560
2.860E-06,1.520
2.870E-06,1.560
2.880E-06,1.560
2.890E-06,1.560
2.900E-06,1.600
2.910E-06,1.640
2.920E-06,1.720
2.930E-06,1.800
2.940E-06,1.880
2.950E-06,1.880
2.960E-06,1.920
2.970E-06,1.880
2.980E-06,1.920
2.990E-06,1.880
3.000E-06,1.840
3.010E-06,1.760
3.020E-06,1.800
3.030E-06,1.760
3.040E-06,1.720
3.050E-06,1.720
3.060E-06,1.600
3.070E-06,1.520
3.080E-06,1.480
3.090E-06,1.400
3.100E-06,1.320
3.110E-06,1.240
3.120E-06,1.200
3.130E-06,1.120
3.140E-06,1.040
3.150E-06,1.000
3.160E-06,1.040
