mediciones/5-15/0/WaveData4636.csv

#timebase=2000000(ps)
,#voltbase=100000(mv/100)
#size=4000
-8.400E-06,0.008
-8.390E-06,0.008
-8.380E-06,-0.008
-8.370E-06,-0.012
-8.360E-06,-0.004
-8.350E-06,0.004
-8.340E-06,0.012
-8.330E-06,0.016
-8.320E-06,0.012
-8.310E-06,-0.012
-8.300E-06,-0.008
-8.290E-06,-0.004
-8.280E-06,0.000
-8.270E-06,0.012
-8.260E-06,0.020
-8.250E-06,0.012
-8.240E-06,0.000
-8.230E-06,-0.008
-8.220E-06,-0.008
-8.210E-06,-0.004
-8.200E-06,0.008
-8.190E-06,0.012
-8.180E-06,0.016
-8.170E-06,0.004
-8.160E-06,-0.004
-8.150E-06,0.000
-8.140E-06,-0.004
-8.130E-06,0.000
-8.120E-06,-0.004
-8.110E-06,0.004
-8.100E-06,0.008
-8.090E-06,0.004
-8.080E-06,0.008
-8.070E-06,0.012
-8.060E-06,0.000
-8.050E-06,0.000
-8.040E-06,-0.008
-8.030E-06,0.000
-8.020E-06,0.008
-8.010E-06,0.016
-8.000E-06,0.024
-7.990E-06,0.004
-7.980E-06,0.000
-7.970E-06,-0.008
-7.960E-06,-0.012
-7.950E-06,0.000
-7.940E-06,0.016
-7.930E-06,0.024
-7.920E-06,0.012
-7.910E-06,0.000
-7.900E-06,0.000
-7.890E-06,-0.008
-7.880E-06,0.000
-7.870E-06,-0.004
-7.860E-06,0.000
-7.850E-06,0.008
-7.840E-06,0.008
-7.830E-06,0.008
-7.820E-06,0.000
-7.810E-06,-0.008
-7.800E-06,-0.004
-7.790E-06,0.000
-7.780E-06,0.012
-7.770E-06,0.020
-7.760E-06,0.012
-7.750E-06,0.000
-7.740E-06,-0.008
-7.730E-06,-0.004
-7.720E-06,-0.004
-7.710E-06,0.004
-7.700E-06,0.020
-7.690E-06,0.020
-7.680E-06,0.008
-7.670E-06,0.000
-7.660E-06,-0.008
-7.650E-06,-0.004
-7.640E-06,0.004
-7.630E-06,0.016
-7.620E-06,0.008
-7.610E-06,0.004
-7.600E-06,0.004
-7.590E-06,-0.004
-7.580E-06,0.000
-7.570E-06,0.000
-7.560E-06,0.000
-7.550E-06,0.004
-7.540E-06,0.000
-7.530E-06,-0.004
-7.520E-06,0.000
-7.510E-06,0.008
-7.500E-06,0.008
-7.490E-06,0.004
-7.480E-06,-0.004
-7.470E-06,-0.008
-7.460E-06,-0.004
-7.450E-06,0.000
-7.440E-06,0.004
-7.430E-06,0.012
-7.420E-06,0.008
-7.410E-06,0.008
-7.400E-06,-0.008
-7.390E-06,-0.012
-7.380E-06,-0.004
-7.370E-06,0.004
-7.360E-06,0.012
-7.350E-06,0.012
-7.340E-06,0.008
-7.330E-06,0.004
-7.320E-06,-0.004
-7.310E-06,-0.004
-7.300E-06,0.000
-7.290E-06,0.004
-7.280E-06,0.008
-7.270E-06,0.008
-7.260E-06,0.008
-7.250E-06,0.008
-7.240E-06,0.000
-7.230E-06,0.000
-7.220E-06,-0.004
-7.210E-06,0.000
-7.200E-06,0.008
-7.190E-06,0.012
-7.180E-06,0.012
-7.170E-06,0.000
-7.160E-06,-0.004
-7.150E-06,-0.012
-7.140E-06,-0.012
-7.130E-06,0.000
-7.120E-06,0.012
-7.110E-06,0.028
-7.100E-06,0.012
-7.090E-06,0.008
-7.080E-06,-0.008
-7.070E-06,-0.012
-7.060E-06,-0.008
-7.050E-06,0.008
-7.040E-06,0.024
-7.030E-06,0.024
-7.020E-06,0.008
-7.010E-06,-0.004
-7.000E-06,-0.012
-6.990E-06,-0.008
-6.980E-06,0.000
-6.970E-06,0.008
-6.960E-06,0.016
-6.950E-06,0.016
-6.940E-06,0.008
-6.930E-06,0.004
-6.920E-06,-0.004
-6.910E-06,-0.008
-6.900E-06,-0.004
-6.890E-06,0.004
-6.880E-06,0.008
-6.870E-06,0.020
-6.860E-06,0.024
-6.850E-06,0.020
-6.840E-06,0.004
-6.830E-06,-0.004
-6.820E-06,-0.016
-6.810E-06,-0.016
-6.800E-06,-0.004
-6.790E-06,0.008
-6.780E-06,0.024
-6.770E-06,0.024
-6.760E-06,0.016
-6.750E-06,0.000
-6.740E-06,-0.020
-6.730E-06,-0.024
-6.720E-06,-0.008
-6.710E-06,0.008
-6.700E-06,0.024
-6.690E-06,0.028
-6.680E-06,0.012
-6.670E-06,-0.004
-6.660E-06,-0.008
-6.650E-06,-0.016
-6.640E-06,-0.008
-6.630E-06,0.012
-6.620E-06,0.016
-6.610E-06,0.008
-6.600E-06,0.008
-6.590E-06,0.000
-6.580E-06,0.000
-6.570E-06,-0.008
-6.560E-06,-0.004
-6.550E-06,0.000
-6.540E-06,0.000
-6.530E-06,0.012
-6.520E-06,0.012
-6.510E-06,0.008
-6.500E-06,0.004
-6.490E-06,-0.004
-6.480E-06,-0.008
-6.470E-06,-0.004
-6.460E-06,0.000
-6.450E-06,0.012
-6.440E-06,0.016
-6.430E-06,0.004
-6.420E-06,0.000
-6.410E-06,-0.004
-6.400E-06,-0.004
-6.390E-06,-0.004
-6.380E-06,0.000
-6.370E-06,0.008
-6.360E-06,0.008
-6.350E-06,0.008
-6.340E-06,0.008
-6.330E-06,0.012
-6.320E-06,0.008
-6.310E-06,-0.004
-6.300E-06,0.000
-6.290E-06,0.000
-6.280E-06,0.004
-6.270E-06,0.008
-6.260E-06,0.008
-6.250E-06,0.004
-6.240E-06,-0.004
-6.230E-06,0.000
-6.220E-06,0.004
-6.210E-06,0.008
-6.200E-06,-0.004
-6.190E-06,0.008
-6.180E-06,0.004
-6.170E-06,0.008
-6.160E-06,0.008
-6.150E-06,0.004
-6.140E-06,-0.004
-6.130E-06,-0.004
-6.120E-06,0.004
-6.110E-06,-0.004
-6.100E-06,0.008
-6.090E-06,0.008
-6.080E-06,0.004
-6.070E-06,0.004
-6.060E-06,0.000
-6.050E-06,0.004
-6.040E-06,0.000
-6.030E-06,0.004
-6.020E-06,0.004
-6.010E-06,-0.008
-6.000E-06,-0.008
-5.990E-06,0.000
-5.980E-06,0.000
-5.970E-06,0.012
-5.960E-06,0.004
-5.950E-06,-0.004
-5.940E-06,-0.004
-5.930E-06,0.000
-5.920E-06,-0.004
-5.910E-06,0.008
-5.900E-06,0.012
-5.890E-06,0.012
-5.880E-06,0.004
-5.870E-06,-0.004
-5.860E-06,0.000
-5.850E-06,-0.004
-5.840E-06,0.000
-5.830E-06,0.008
-5.820E-06,0.012
-5.810E-06,0.012
-5.800E-06,0.008
-5.790E-06,0.000
-5.780E-06,0.000
-5.770E-06,-0.004
-5.760E-06,-0.004
-5.750E-06,0.004
-5.740E-06,0.012
-5.730E-06,0.004
-5.720E-06,0.004
-5.710E-06,-0.004
-5.700E-06,0.000
-5.690E-06,0.000
-5.680E-06,0.000
-5.670E-06,0.008
-5.660E-06,0.008
-5.650E-06,0.004
-5.640E-06,0.000
-5.630E-06,0.000
-5.620E-06,-0.004
-5.610E-06,0.000
-5.600E-06,0.000
-5.590E-06,0.004
-5.580E-06,0.004
-5.570E-06,0.000
-5.560E-06,0.004
-5.550E-06,0.008
-5.540E-06,0.004
-5.530E-06,-0.004
-5.520E-06,-0.004
-5.510E-06,-0.008
-5.500E-06,0.004
-5.490E-06,0.004
-5.480E-06,0.008
-5.470E-06,0.008
-5.460E-06,0.000
-5.450E-06,-0.004
-5.440E-06,-0.004
-5.430E-06,0.004
-5.420E-06,0.004
-5.410E-06,0.008
-5.400E-06,0.008
-5.390E-06,0.000
-5.380E-06,0.000
-5.370E-06,-0.004
-5.360E-06,0.000
-5.350E-06,0.004
-5.340E-06,0.004
-5.330E-06,0.004
-5.320E-06,0.004
-5.310E-06,0.000
-5.300E-06,0.004
-5.290E-06,0.008
-5.280E-06,0.004
-5.270E-06,0.000
-5.260E-06,-0.004
-5.250E-06,0.000
-5.240E-06,0.008
-5.230E-06,0.008
-5.220E-06,0.008
-5.210E-06,0.004
-5.200E-06,0.000
-5.190E-06,-0.008
-5.180E-06,-0.004
-5.170E-06,0.000
-5.160E-06,0.012
-5.150E-06,0.016
-5.140E-06,0.012
-5.130E-06,0.000
-5.120E-06,-0.004
-5.110E-06,-0.004
-5.100E-06,0.004
-5.090E-06,0.012
-5.080E-06,0.008
-5.070E-06,0.008
-5.060E-06,0.004
-5.050E-06,-0.004
-5.040E-06,-0.004
-5.030E-06,-0.004
-5.020E-06,0.000
-5.010E-06,0.004
-5.000E-06,0.008
-4.990E-06,0.004
-4.980E-06,0.004
-4.970E-06,0.012
-4.960E-06,0.012
-4.950E-06,0.004
-4.940E-06,-0.008
-4.930E-06,0.000
-4.920E-06,0.004
-4.910E-06,0.008
-4.900E-06,0.012
-4.890E-06,0.008
-4.880E-06,-0.004
-4.870E-06,-0.004
-4.860E-06,0.000
-4.850E-06,0.000
-4.840E-06,0.004
-4.830E-06,0.004
-4.820E-06,-0.004
-4.810E-06,0.008
-4.800E-06,0.004
-4.790E-06,0.008
-4.780E-06,0.000
-4.770E-06,-0.004
-4.760E-06,-0.004
-4.750E-06,0.000
-4.740E-06,0.012
-4.730E-06,0.016
-4.720E-06,0.008
-4.710E-06,0.000
-4.700E-06,-0.004
-4.690E-06,-0.008
-4.680E-06,0.000
-4.670E-06,0.008
-4.660E-06,0.008
-4.650E-06,0.012
-4.640E-06,0.004
-4.630E-06,0.000
-4.620E-06,-0.008
-4.610E-06,0.000
-4.600E-06,0.008
-4.590E-06,0.012
-4.580E-06,0.008
-4.570E-06,0.004
-4.560E-06,0.000
-4.550E-06,-0.004
-4.540E-06,0.000
-4.530E-06,0.000
-4.520E-06,0.008
-4.510E-06,0.012
-4.500E-06,0.004
-4.490E-06,0.008
-4.480E-06,-0.004
-4.470E-06,0.004
-4.460E-06,0.000
-4.450E-06,0.000
-4.440E-06,0.008
-4.430E-06,0.012
-4.420E-06,0.012
-4.410E-06,0.000
-4.400E-06,-0.008
-4.390E-06,-0.012
-4.380E-06,-0.008
-4.370E-06,0.008
-4.360E-06,0.028
-4.350E-06,0.032
-4.340E-06,0.020
-4.330E-06,0.000
-4.320E-06,-0.020
-4.310E-06,-0.016
-4.300E-06,-0.008
-4.290E-06,0.008
-4.280E-06,0.024
-4.270E-06,0.028
-4.260E-06,0.020
-4.250E-06,0.004
-4.240E-06,-0.016
-4.230E-06,-0.032
-4.220E-06,-0.020
-4.210E-06,0.012
-4.200E-06,0.020
-4.190E-06,0.028
-4.180E-06,0.024
-4.170E-06,0.000
-4.160E-06,-0.024
-4.150E-06,-0.024
-4.140E-06,-0.008
-4.130E-06,0.008
-4.120E-06,0.028
-4.110E-06,0.028
-4.100E-06,0.016
-4.090E-06,0.000
-4.080E-06,-0.012
-4.070E-06,-0.008
-4.060E-06,-0.004
-4.050E-06,0.008
-4.040E-06,0.016
-4.030E-06,0.012
-4.020E-06,0.008
-4.010E-06,0.000
-4.000E-06,-0.008
-3.990E-06,-0.012
-3.980E-06,0.004
-3.970E-06,0.012
-3.960E-06,0.016
-3.950E-06,0.016
-3.940E-06,0.012
-3.930E-06,0.004
-3.920E-06,-0.008
-3.910E-06,0.004
-3.900E-06,0.000
-3.890E-06,0.008
-3.880E-06,0.008
-3.870E-06,0.012
-3.860E-06,0.004
-3.850E-06,0.000
-3.840E-06,-0.004
-3.830E-06,-0.020
-3.820E-06,0.000
-3.810E-06,0.004
-3.800E-06,0.012
-3.790E-06,0.024
-3.780E-06,0.020
-3.770E-06,0.004
-3.760E-06,-0.028
-3.750E-06,-0.024
-3.740E-06,-0.012
-3.730E-06,0.020
-3.720E-06,0.024
-3.710E-06,0.028
-3.700E-06,0.004
-3.690E-06,-0.012
-3.680E-06,-0.020
-3.670E-06,-0.008
-3.660E-06,0.004
-3.650E-06,0.016
-3.640E-06,0.024
-3.630E-06,0.004
-3.620E-06,0.004
-3.610E-06,-0.008
-3.600E-06,0.000
-3.590E-06,-0.008
-3.580E-06,0.004
-3.570E-06,0.004
-3.560E-06,0.004
-3.550E-06,0.004
-3.540E-06,0.008
-3.530E-06,0.008
-3.520E-06,0.004
-3.510E-06,-0.004
-3.500E-06,-0.008
-3.490E-06,-0.004
-3.480E-06,0.004
-3.470E-06,0.012
-3.460E-06,0.024
-3.450E-06,0.016
-3.440E-06,-0.004
-3.430E-06,-0.008
-3.420E-06,-0.008
-3.410E-06,-0.004
-3.400E-06,0.008
-3.390E-06,0.020
-3.380E-06,0.024
-3.370E-06,0.004
-3.360E-06,0.000
-3.350E-06,-0.008
-3.340E-06,-0.012
-3.330E-06,-0.004
-3.320E-06,0.004
-3.310E-06,0.008
-3.300E-06,0.008
-3.290E-06,0.008
-3.280E-06,-0.004
-3.270E-06,-0.004
-3.260E-06,-0.004
-3.250E-06,0.004
-3.240E-06,0.008
-3.230E-06,0.016
-3.220E-06,0.012
-3.210E-06,0.008
-3.200E-06,0.000
-3.190E-06,0.000
-3.180E-06,-0.004
-3.170E-06,0.004
-3.160E-06,0.008
-3.150E-06,0.008
-3.140E-06,0.008
-3.130E-06,0.008
-3.120E-06,0.008
-3.110E-06,0.008
-3.100E-06,0.004
-3.090E-06,-0.012
-3.080E-06,0.000
-3.070E-06,0.004
-3.060E-06,0.012
-3.050E-06,0.012
-3.040E-06,0.008
-3.030E-06,0.000
-3.020E-06,-0.004
-3.010E-06,0.000
-3.000E-06,0.004
-2.990E-06,0.004
-2.980E-06,0.012
-2.970E-06,0.008
-2.960E-06,0.000
-2.950E-06,0.000
-2.940E-06,0.000
-2.930E-06,0.004
-2.920E-06,0.008
-2.910E-06,0.008
-2.900E-06,0.000
-2.890E-06,-0.004
-2.880E-06,0.000
-2.870E-06,0.000
-2.860E-06,0.004
-2.850E-06,0.008
-2.840E-06,0.008
-2.830E-06,0.008
-2.820E-06,0.004
-2.810E-06,0.000
-2.800E-06,0.000
-2.790E-06,0.000
-2.780E-06,0.000
-2.770E-06,0.000
-2.760E-06,0.008
-2.750E-06,0.004
-2.740E-06,0.012
-2.730E-06,0.004
-2.720E-06,-0.004
-2.710E-06,-0.008
-2.700E-06,-0.012
-2.690E-06,0.004
-2.680E-06,0.016
-2.670E-06,0.024
-2.660E-06,0.012
-2.650E-06,0.000
-2.640E-06,0.000
-2.630E-06,-0.008
-2.620E-06,0.000
-2.610E-06,0.008
-2.600E-06,0.004
-2.590E-06,0.012
-2.580E-06,0.016
-2.570E-06,0.000
-2.560E-06,-0.004
-2.550E-06,-0.004
-2.540E-06,-0.008
-2.530E-06,0.000
-2.520E-06,0.008
-2.510E-06,0.008
-2.500E-06,0.008
-2.490E-06,0.008
-2.480E-06,0.000
-2.470E-06,-0.004
-2.460E-06,0.000
-2.450E-06,0.000
-2.440E-06,0.012
-2.430E-06,0.008
-2.420E-06,0.012
-2.410E-06,0.012
-2.400E-06,0.000
-2.390E-06,0.000
-2.380E-06,-0.004
-2.370E-06,-0.004
-2.360E-06,0.000
-2.350E-06,0.008
-2.340E-06,0.016
-2.330E-06,0.020
-2.320E-06,0.004
-2.310E-06,-0.004
-2.300E-06,-0.004
-2.290E-06,0.000
-2.280E-06,0.000
-2.270E-06,0.004
-2.260E-06,0.012
-2.250E-06,0.012
-2.240E-06,0.008
-2.230E-06,-0.008
-2.220E-06,0.000
-2.210E-06,0.004
-2.200E-06,0.012
-2.190E-06,0.016
-2.180E-06,0.008
-2.170E-06,0.004
-2.160E-06,-0.004
-2.150E-06,-0.004
-2.140E-06,0.008
-2.130E-06,0.012
-2.120E-06,0.016
-2.110E-06,0.008
-2.100E-06,0.004
-2.090E-06,0.008
-2.080E-06,0.008
-2.070E-06,0.012
-2.060E-06,0.008
-2.050E-06,-0.008
-2.040E-06,-0.016
-2.030E-06,0.000
-2.020E-06,0.004
-2.010E-06,0.012
-2.000E-06,0.016
-1.990E-06,0.012
-1.980E-06,0.004
-1.970E-06,-0.012
-1.960E-06,-0.004
-1.950E-06,-0.004
-1.940E-06,0.008
-1.930E-06,0.012
-1.920E-06,0.012
-1.910E-06,0.008
-1.900E-06,0.004
-1.890E-06,0.000
-1.880E-06,-0.004
-1.870E-06,-0.004
-1.860E-06,0.000
-1.850E-06,0.000
-1.840E-06,0.004
-1.830E-06,0.012
-1.820E-06,0.012
-1.810E-06,0.012
-1.800E-06,0.000
-1.790E-06,0.000
-1.780E-06,-0.004
-1.770E-06,0.004
-1.760E-06,0.012
-1.750E-06,0.012
-1.740E-06,0.020
-1.730E-06,0.016
-1.720E-06,0.008
-1.710E-06,0.004
-1.700E-06,0.004
-1.690E-06,0.004
-1.680E-06,0.008
-1.670E-06,0.012
-1.660E-06,0.008
-1.650E-06,0.016
-1.640E-06,0.012
-1.630E-06,0.008
-1.620E-06,0.000
-1.610E-06,0.000
-1.600E-06,0.000
-1.590E-06,0.004
-1.580E-06,0.016
-1.570E-06,0.024
-1.560E-06,0.016
-1.550E-06,0.012
-1.540E-06,0.008
-1.530E-06,-0.004
-1.520E-06,-0.004
-1.510E-06,-0.004
-1.500E-06,0.008
-1.490E-06,0.020
-1.480E-06,0.024
-1.470E-06,0.024
-1.460E-06,0.032
-1.450E-06,0.028
-1.440E-06,0.024
-1.430E-06,0.020
-1.420E-06,0.016
-1.410E-06,0.012
-1.400E-06,0.020
-1.390E-06,0.024
-1.380E-06,0.024
-1.370E-06,0.008
-1.360E-06,0.008
-1.350E-06,0.004
-1.340E-06,0.004
-1.330E-06,0.020
-1.320E-06,0.032
-1.310E-06,0.032
-1.300E-06,0.040
-1.290E-06,0.044
-1.280E-06,0.016
-1.270E-06,-0.004
-1.260E-06,-0.040
-1.250E-06,-0.068
-1.240E-06,-0.072
-1.230E-06,-0.060
-1.220E-06,-0.020
-1.210E-06,0.028
-1.200E-06,0.064
-1.190E-06,0.052
-1.180E-06,0.012
-1.170E-06,-0.024
-1.160E-06,-0.044
-1.150E-06,-0.072
-1.140E-06,-0.056
-1.130E-06,-0.016
-1.120E-06,0.012
-1.110E-06,0.032
-1.100E-06,0.024
-1.090E-06,0.016
-1.080E-06,-0.012
-1.070E-06,-0.032
-1.060E-06,-0.044
-1.050E-06,-0.024
-1.040E-06,-0.004
-1.030E-06,0.020
-1.020E-06,0.044
-1.010E-06,0.044
-1.000E-06,0.016
-9.900E-07,-0.008
-9.800E-07,-0.032
-9.700E-07,-0.028
-9.600E-07,-0.008
-9.500E-07,0.028
-9.400E-07,0.060
-9.300E-07,0.060
-9.200E-07,0.040
-9.100E-07,0.008
-9.000E-07,-0.020
-8.900E-07,-0.016
-8.800E-07,0.012
-8.700E-07,0.044
-8.600E-07,0.068
-8.500E-07,0.072
-8.400E-07,0.052
-8.300E-07,0.020
-8.200E-07,0.008
-8.100E-07,0.016
-8.000E-07,0.044
-7.900E-07,0.060
-7.800E-07,0.088
-7.700E-07,0.084
-7.600E-07,0.088
-7.500E-07,0.076
-7.400E-07,0.064
-7.300E-07,0.024
-7.200E-07,-0.024
-7.100E-07,-0.100
-7.000E-07,-0.112
-6.900E-07,-0.084
-6.800E-07,-0.028
-6.700E-07,0.016
-6.600E-07,0.036
-6.500E-07,0.028
-6.400E-07,-0.004
-6.300E-07,-0.008
-6.200E-07,-0.004
-6.100E-07,0.008
-6.000E-07,0.028
-5.900E-07,0.040
-5.800E-07,0.044
-5.700E-07,0.056
-5.600E-07,0.060
-5.500E-07,0.060
-5.400E-07,0.040
-5.300E-07,0.048
-5.200E-07,0.060
-5.100E-07,0.072
-5.000E-07,0.088
-4.900E-07,0.036
-4.800E-07,-0.032
-4.700E-07,-0.108
-4.600E-07,-0.124
-4.500E-07,-0.096
-4.400E-07,-0.024
-4.300E-07,0.048
-4.200E-07,0.072
-4.100E-07,0.052
-4.000E-07,-0.020
-3.900E-07,-0.076
-3.800E-07,-0.100
-3.700E-07,-0.052
-3.600E-07,0.008
-3.500E-07,0.068
-3.400E-07,0.076
-3.300E-07,0.044
-3.200E-07,0.004
-3.100E-07,-0.024
-3.000E-07,-0.004
-2.900E-07,0.020
-2.800E-07,0.084
-2.700E-07,0.108
-2.600E-07,0.108
-2.500E-07,0.084
-2.400E-07,0.044
-2.300E-07,0.012
-2.200E-07,0.004
-2.100E-07,0.032
-2.000E-07,0.072
-1.900E-07,0.104
-1.800E-07,0.124
-1.700E-07,0.120
-1.600E-07,0.088
-1.500E-07,0.056
-1.400E-07,0.060
-1.300E-07,0.060
-1.200E-07,0.084
-1.100E-07,0.112
-1.000E-07,0.140
-9.000E-08,0.144
-8.000E-08,0.212
-7.000E-08,0.124
-6.000E-08,0.020
-5.000E-08,-0.512
-4.000E-08,-0.512
-3.000E-08,-0.508
-2.000E-08,-0.512
-1.000E-08,0.540
0.000E+00,0.544
1.000E-08,0.540
2.000E-08,0.304
3.000E-08,-0.512
4.000E-08,-0.512
5.000E-08,-0.508
6.000E-08,-0.232
7.000E-08,0.528
8.000E-08,0.540
9.000E-08,0.540
1.000E-07,0.148
1.100E-07,-0.452
1.200E-07,-0.512
1.300E-07,-0.508
1.400E-07,-0.096
1.500E-07,0.244
1.600E-07,0.540
1.700E-07,0.452
1.800E-07,0.272
1.900E-07,-0.128
2.000E-07,-0.372
2.100E-07,-0.424
2.200E-07,-0.224
2.300E-07,0.140
2.400E-07,0.360
2.500E-07,0.464
2.600E-07,0.240
2.700E-07,0.016
2.800E-07,-0.224
2.900E-07,-0.236
3.000E-07,-0.180
3.100E-07,0.044
3.200E-07,0.256
3.300E-07,0.344
3.400E-07,0.284
3.500E-07,0.192
3.600E-07,0.056
3.700E-07,-0.084
3.800E-07,-0.064
3.900E-07,0.020
4.000E-07,0.188
4.100E-07,0.256
4.200E-07,0.240
4.300E-07,0.128
4.400E-07,-0.044
4.500E-07,-0.204
4.600E-07,-0.152
4.700E-07,0.028
4.800E-07,-0.280
4.900E-07,-0.512
5.000E-07,-0.512
5.100E-07,-0.124
5.200E-07,-0.012
5.300E-07,0.292
5.400E-07,0.452
5.500E-07,-0.008
5.600E-07,-0.368
5.700E-07,-0.512
5.800E-07,-0.412
5.900E-07,0.028
6.000E-07,0.456
6.100E-07,0.484
6.200E-07,0.280
6.300E-07,-0.080
6.400E-07,-0.312
6.500E-07,-0.304
6.600E-07,-0.156
6.700E-07,0.060
6.800E-07,0.164
6.900E-07,0.268
7.000E-07,0.148
7.100E-07,0.044
7.200E-07,-0.140
7.300E-07,-0.188
7.400E-07,-0.144
7.500E-07,0.004
7.600E-07,0.144
7.700E-07,0.188
7.800E-07,0.148
7.900E-07,0.000
8.000E-07,-0.084
8.100E-07,-0.148
8.200E-07,-0.076
8.300E-07,-0.008
8.400E-07,0.108
8.500E-07,0.140
8.600E-07,0.100
8.700E-07,0.008
8.800E-07,-0.068
8.900E-07,-0.064
9.000E-07,-0.008
9.100E-07,0.108
9.200E-07,0.168
9.300E-07,0.208
9.400E-07,0.168
9.500E-07,0.108
9.600E-07,0.036
9.700E-07,-0.024
9.800E-07,-0.060
9.900E-07,-0.092
1.000E-06,-0.160
1.010E-06,-0.172
1.020E-06,-0.128
1.030E-06,-0.040
1.040E-06,0.032
1.050E-06,0.088
1.060E-06,0.092
1.070E-06,0.004
1.080E-06,-0.040
1.090E-06,-0.108
1.100E-06,-0.036
1.110E-06,0.020
1.120E-06,0.104
1.130E-06,0.148
1.140E-06,0.184
1.150E-06,0.168
1.160E-06,0.092
1.170E-06,0.040
1.180E-06,-0.016
1.190E-06,-0.024
1.200E-06,0.016
1.210E-06,0.088
1.220E-06,0.088
1.230E-06,0.052
1.240E-06,-0.040
1.250E-06,-0.072
1.260E-06,-0.032
1.270E-06,0.052
1.280E-06,0.104
1.290E-06,0.080
1.300E-06,0.008
1.310E-06,-0.044
1.320E-06,-0.104
1.330E-06,-0.128
1.340E-06,-0.068
1.350E-06,0.008
1.360E-06,0.092
1.370E-06,0.108
1.380E-06,0.136
1.390E-06,0.080
1.400E-06,0.004
1.410E-06,-0.028
1.420E-06,-0.008
1.430E-06,0.088
1.440E-06,0.188
1.450E-06,0.240
1.460E-06,0.224
1.470E-06,0.152
1.480E-06,0.052
1.490E-06,-0.036
1.500E-06,-0.044
1.510E-06,0.008
1.520E-06,0.108
1.530E-06,0.176
1.540E-06,0.184
1.550E-06,0.160
1.560E-06,0.088
1.570E-06,0.028
1.580E-06,0.036
1.590E-06,0.068
1.600E-06,0.140
1.610E-06,0.160
1.620E-06,0.148
1.630E-06,0.072
1.640E-06,0.036
1.650E-06,0.032
1.660E-06,0.032
1.670E-06,0.064
1.680E-06,0.056
1.690E-06,0.000
1.700E-06,-0.052
1.710E-06,-0.120
1.720E-06,-0.168
1.730E-06,-0.212
1.740E-06,-0.248
1.750E-06,-0.252
1.760E-06,-0.208
1.770E-06,-0.148
1.780E-06,-0.076
1.790E-06,0.052
1.800E-06,0.096
1.810E-06,0.160
1.820E-06,0.172
1.830E-06,0.192
1.840E-06,0.232
1.850E-06,0.240
1.860E-06,0.220
1.870E-06,0.168
1.880E-06,0.224
1.890E-06,0.276
1.900E-06,0.296
1.910E-06,0.252
1.920E-06,0.192
1.930E-06,0.160
1.940E-06,0.176
1.950E-06,0.224
1.960E-06,0.276
1.970E-06,0.308
1.980E-06,0.272
1.990E-06,0.208
2.000E-06,0.124
2.010E-06,0.088
2.020E-06,0.092
2.030E-06,0.160
2.040E-06,0.252
2.050E-06,0.332
2.060E-06,0.352
2.070E-06,0.308
2.080E-06,0.200
2.090E-06,0.032
2.100E-06,0.012
2.110E-06,-0.064
2.120E-06,0.060
2.130E-06,0.276
2.140E-06,0.284
2.150E-06,0.224
2.160E-06,0.016
2.170E-06,-0.056
2.180E-06,-0.040
2.190E-06,0.196
2.200E-06,0.328
2.210E-06,0.528
2.220E-06,0.364
2.230E-06,-0.128
2.240E-06,-0.512
2.250E-06,-0.508
2.260E-06,-0.512
2.270E-06,-0.512
2.280E-06,-0.484
2.290E-06,0.272
2.300E-06,0.540
2.310E-06,0.540
2.320E-06,0.256
2.330E-06,-0.360
2.340E-06,-0.512
2.350E-06,-0.512
2.360E-06,-0.104
2.370E-06,0.464
2.380E-06,0.540
2.390E-06,0.540
2.400E-06,0.344
2.410E-06,-0.184
2.420E-06,-0.508
2.430E-06,-0.508
2.440E-06,-0.484
2.450E-06,-0.012
2.460E-06,0.360
2.470E-06,0.524
2.480E-06,0.300
2.490E-06,-0.056
2.500E-06,-0.512
2.510E-06,-0.512
2.520E-06,-0.292
2.530E-06,0.136
2.540E-06,0.460
2.550E-06,0.536
2.560E-06,0.484
2.570E-06,0.160
2.580E-06,-0.132
2.590E-06,-0.348
2.600E-06,-0.184
2.610E-06,0.084
2.620E-06,0.436
2.630E-06,0.540
2.640E-06,0.540
2.650E-06,0.320
2.660E-06,0.056
2.670E-06,-0.040
2.680E-06,-0.032
2.690E-06,0.180
2.700E-06,0.368
2.710E-06,0.544
2.720E-06,0.544
2.730E-06,0.428
2.740E-06,0.232
2.750E-06,0.088
2.760E-06,0.056
2.770E-06,0.144
2.780E-06,0.320
2.790E-06,0.428
2.800E-06,0.476
2.810E-06,0.400
2.820E-06,0.288
2.830E-06,0.160
2.840E-06,0.108
2.850E-06,0.140
2.860E-06,0.236
2.870E-06,0.352
2.880E-06,0.404
2.890E-06,0.400
2.900E-06,0.316
2.910E-06,0.232
2.920E-06,0.164
2.930E-06,0.164
2.940E-06,0.204
2.950E-06,0.288
2.960E-06,0.340
2.970E-06,0.352
2.980E-06,0.320
2.990E-06,0.252
3.000E-06,0.204
3.010E-06,0.172
3.020E-06,0.196
3.030E-06,0.244
3.040E-06,0.312
3.050E-06,0.344
3.060E-06,0.348
3.070E-06,0.300
3.080E-06,0.240
3.090E-06,0.196
3.100E-06,0.180
3.110E-06,0.212
3.120E-06,0.260
3.130E-06,0.308
3.140E-06,0.320
3.150E-06,0.308
3.160E-06,0.264
3.170E-06,0.224
3.180E-06,0.208
3.190E-06,0.216
3.200E-06,0.248
3.210E-06,0.276
3.220E-06,0.304
3.230E-06,0.308
3.240E-06,0.296
3.250E-06,0.260
3.260E-06,0.232
3.270E-06,0.228
3.280E-06,0.236
3.290E-06,0.260
3.300E-06,0.284
3.310E-06,0.288
3.320E-06,0.280
