mediciones/Mediciones filtradas (saque las feas)/6-10/4.2/WaveData5647.csv

#timebase=2000000(ps)
,#voltbase=100000(mv/100)
#size=4000
-4.200E-06,0.008
-4.190E-06,0.008
-4.180E-06,0.000
-4.170E-06,0.000
-4.160E-06,0.004
-4.150E-06,0.008
-4.140E-06,0.008
-4.130E-06,0.000
-4.120E-06,0.000
-4.110E-06,0.004
-4.100E-06,0.008
-4.090E-06,0.004
-4.080E-06,0.004
-4.070E-06,0.008
-4.060E-06,-0.004
-4.050E-06,0.000
-4.040E-06,0.004
-4.030E-06,0.000
-4.020E-06,0.004
-4.010E-06,0.000
-4.000E-06,0.004
-3.990E-06,0.004
-3.980E-06,0.000
-3.970E-06,-0.004
-3.960E-06,0.000
-3.950E-06,0.000
-3.940E-06,0.004
-3.930E-06,0.000
-3.920E-06,0.008
-3.910E-06,0.000
-3.900E-06,0.004
-3.890E-06,-0.004
-3.880E-06,0.004
-3.870E-06,0.000
-3.860E-06,0.004
-3.850E-06,0.008
-3.840E-06,0.004
-3.830E-06,0.000
-3.820E-06,0.004
-3.810E-06,0.000
-3.800E-06,0.004
-3.790E-06,0.004
-3.780E-06,0.008
-3.770E-06,0.008
-3.760E-06,-0.004
-3.750E-06,0.004
-3.740E-06,0.000
-3.730E-06,0.000
-3.720E-06,0.000
-3.710E-06,0.000
-3.700E-06,0.004
-3.690E-06,-0.004
-3.680E-06,0.004
-3.670E-06,0.000
-3.660E-06,0.004
-3.650E-06,0.004
-3.640E-06,0.004
-3.630E-06,0.004
-3.620E-06,0.008
-3.610E-06,0.000
-3.600E-06,0.000
-3.590E-06,0.004
-3.580E-06,0.004
-3.570E-06,0.000
-3.560E-06,0.004
-3.550E-06,0.000
-3.540E-06,0.004
-3.530E-06,0.000
-3.520E-06,0.000
-3.510E-06,0.004
-3.500E-06,0.004
-3.490E-06,0.000
-3.480E-06,0.000
-3.470E-06,0.004
-3.460E-06,0.000
-3.450E-06,0.000
-3.440E-06,0.000
-3.430E-06,0.004
-3.420E-06,0.004
-3.410E-06,0.004
-3.400E-06,0.004
-3.390E-06,0.004
-3.380E-06,0.000
-3.370E-06,0.000
-3.360E-06,0.008
-3.350E-06,0.000
-3.340E-06,0.000
-3.330E-06,0.000
-3.320E-06,0.004
-3.310E-06,0.000
-3.300E-06,0.004
-3.290E-06,0.000
-3.280E-06,0.000
-3.270E-06,0.008
-3.260E-06,0.000
-3.250E-06,0.004
-3.240E-06,0.004
-3.230E-06,0.004
-3.220E-06,0.004
-3.210E-06,0.008
-3.200E-06,0.012
-3.190E-06,0.020
-3.180E-06,0.056
-3.170E-06,0.068
-3.160E-06,0.056
-3.150E-06,-0.024
-3.140E-06,-0.072
-3.130E-06,-0.104
-3.120E-06,-0.084
-3.110E-06,-0.036
-3.100E-06,0.068
-3.090E-06,0.108
-3.080E-06,0.080
-3.070E-06,0.040
-3.060E-06,-0.020
-3.050E-06,-0.072
-3.040E-06,-0.044
-3.030E-06,0.024
-3.020E-06,0.064
-3.010E-06,0.072
-3.000E-06,0.036
-2.990E-06,-0.028
-2.980E-06,-0.064
-2.970E-06,-0.056
-2.960E-06,-0.020
-2.950E-06,0.012
-2.940E-06,0.044
-2.930E-06,0.044
-2.920E-06,0.028
-2.910E-06,0.028
-2.900E-06,0.008
-2.890E-06,-0.024
-2.880E-06,-0.020
-2.870E-06,-0.004
-2.860E-06,0.004
-2.850E-06,0.008
-2.840E-06,0.008
-2.830E-06,-0.008
-2.820E-06,-0.024
-2.810E-06,-0.020
-2.800E-06,-0.024
-2.790E-06,-0.004
-2.780E-06,0.024
-2.770E-06,0.032
-2.760E-06,0.032
-2.750E-06,0.028
-2.740E-06,0.012
-2.730E-06,-0.004
-2.720E-06,0.004
-2.710E-06,-0.008
-2.700E-06,-0.008
-2.690E-06,0.004
-2.680E-06,0.012
-2.670E-06,0.004
-2.660E-06,0.012
-2.650E-06,0.004
-2.640E-06,-0.008
-2.630E-06,-0.012
-2.620E-06,0.016
-2.610E-06,0.024
-2.600E-06,0.028
-2.590E-06,0.040
-2.580E-06,0.044
-2.570E-06,0.008
-2.560E-06,-0.028
-2.550E-06,-0.040
-2.540E-06,-0.036
-2.530E-06,-0.012
-2.520E-06,0.024
-2.510E-06,0.044
-2.500E-06,0.028
-2.490E-06,0.000
-2.480E-06,-0.008
-2.470E-06,-0.020
-2.460E-06,-0.012
-2.450E-06,0.008
-2.440E-06,0.020
-2.430E-06,0.032
-2.420E-06,0.024
-2.410E-06,0.008
-2.400E-06,-0.008
-2.390E-06,-0.016
-2.380E-06,-0.008
-2.370E-06,0.000
-2.360E-06,0.016
-2.350E-06,0.012
-2.340E-06,0.004
-2.330E-06,0.008
-2.320E-06,-0.004
-2.310E-06,0.000
-2.300E-06,0.004
-2.290E-06,0.004
-2.280E-06,0.024
-2.270E-06,0.016
-2.260E-06,0.024
-2.250E-06,0.008
-2.240E-06,-0.004
-2.230E-06,-0.008
-2.220E-06,-0.004
-2.210E-06,0.004
-2.200E-06,0.008
-2.190E-06,0.020
-2.180E-06,0.012
-2.170E-06,0.004
-2.160E-06,0.004
-2.150E-06,0.008
-2.140E-06,0.020
-2.130E-06,0.024
-2.120E-06,0.028
-2.110E-06,0.032
-2.100E-06,0.024
-2.090E-06,0.012
-2.080E-06,0.012
-2.070E-06,0.012
-2.060E-06,0.016
-2.050E-06,0.004
-2.040E-06,0.000
-2.030E-06,0.000
-2.020E-06,0.020
-2.010E-06,0.028
-2.000E-06,0.036
-1.990E-06,0.024
-1.980E-06,-0.012
-1.970E-06,-0.040
-1.960E-06,-0.036
-1.950E-06,-0.020
-1.940E-06,0.024
-1.930E-06,0.064
-1.920E-06,0.084
-1.910E-06,0.064
-1.900E-06,0.012
-1.890E-06,-0.004
-1.880E-06,-0.016
-1.870E-06,-0.008
-1.860E-06,0.012
-1.850E-06,0.024
-1.840E-06,0.024
-1.830E-06,0.000
-1.820E-06,-0.024
-1.810E-06,-0.024
-1.800E-06,-0.008
-1.790E-06,0.008
-1.780E-06,0.024
-1.770E-06,0.056
-1.760E-06,0.064
-1.750E-06,0.088
-1.740E-06,0.112
-1.730E-06,0.132
-1.720E-06,0.140
-1.710E-06,0.160
-1.700E-06,0.176
-1.690E-06,0.156
-1.680E-06,0.148
-1.670E-06,0.024
-1.660E-06,-0.080
-1.650E-06,-0.192
-1.640E-06,-0.220
-1.630E-06,-0.128
-1.620E-06,0.000
-1.610E-06,0.144
-1.600E-06,0.244
-1.590E-06,0.140
-1.580E-06,-0.024
-1.570E-06,-0.208
-1.560E-06,-0.168
-1.550E-06,-0.088
-1.540E-06,0.024
-1.530E-06,0.108
-1.520E-06,0.104
-1.510E-06,0.044
-1.500E-06,0.000
-1.490E-06,-0.120
-1.480E-06,0.024
-1.470E-06,0.120
-1.460E-06,0.228
-1.450E-06,0.056
-1.440E-06,-0.172
-1.430E-06,-0.332
-1.420E-06,-0.368
-1.410E-06,-0.244
-1.400E-06,-0.040
-1.390E-06,0.184
-1.380E-06,0.288
-1.370E-06,0.220
-1.360E-06,0.060
-1.350E-06,-0.132
-1.340E-06,-0.204
-1.330E-06,-0.152
-1.320E-06,-0.004
-1.310E-06,0.160
-1.300E-06,0.252
-1.290E-06,0.284
-1.280E-06,0.196
-1.270E-06,0.156
-1.260E-06,0.076
-1.250E-06,0.080
-1.240E-06,0.068
-1.230E-06,0.104
-1.220E-06,0.132
-1.210E-06,0.024
-1.200E-06,0.124
-1.190E-06,-0.176
-1.180E-06,-0.352
-1.170E-06,-0.512
-1.160E-06,-0.512
-1.150E-06,-0.220
-1.140E-06,0.072
-1.130E-06,0.292
-1.120E-06,0.308
-1.110E-06,0.120
-1.100E-06,-0.104
-1.090E-06,-0.252
-1.080E-06,-0.292
-1.070E-06,-0.196
-1.060E-06,0.000
-1.050E-06,0.172
-1.040E-06,0.244
-1.030E-06,0.172
-1.020E-06,0.020
-1.010E-06,-0.140
-1.000E-06,-0.200
-9.900E-07,-0.160
-9.800E-07,-0.032
-9.700E-07,0.092
-9.600E-07,0.152
-9.500E-07,0.160
-9.400E-07,0.048
-9.300E-07,-0.036
-9.200E-07,-0.120
-9.100E-07,-0.120
-9.000E-07,-0.060
-8.900E-07,0.068
-8.800E-07,0.156
-8.700E-07,0.196
-8.600E-07,0.168
-8.500E-07,0.080
-8.400E-07,-0.024
-8.300E-07,-0.036
-8.200E-07,0.024
-8.100E-07,0.132
-8.000E-07,0.192
-7.900E-07,0.188
-7.800E-07,0.064
-7.700E-07,-0.092
-7.600E-07,-0.192
-7.500E-07,-0.180
-7.400E-07,-0.080
-7.300E-07,0.060
-7.200E-07,0.148
-7.100E-07,0.176
-7.000E-07,0.128
-6.900E-07,0.024
-6.800E-07,-0.056
-6.700E-07,-0.060
-6.600E-07,0.028
-6.500E-07,0.136
-6.400E-07,0.224
-6.300E-07,0.236
-6.200E-07,0.164
-6.100E-07,0.068
-6.000E-07,0.000
-5.900E-07,0.004
-5.800E-07,0.044
-5.700E-07,0.144
-5.600E-07,0.212
-5.500E-07,0.216
-5.400E-07,0.148
-5.300E-07,0.004
-5.200E-07,-0.112
-5.100E-07,-0.204
-5.000E-07,-0.204
-4.900E-07,-0.132
-4.800E-07,-0.004
-4.700E-07,0.020
-4.600E-07,0.056
-4.500E-07,-0.012
-4.400E-07,-0.080
-4.300E-07,-0.004
-4.200E-07,-0.012
-4.100E-07,0.052
-4.000E-07,0.096
-3.900E-07,0.116
-3.800E-07,0.132
-3.700E-07,0.060
-3.600E-07,-0.008
-3.500E-07,-0.024
-3.400E-07,0.024
-3.300E-07,0.092
-3.200E-07,0.140
-3.100E-07,0.160
-3.000E-07,0.120
-2.900E-07,0.040
-2.800E-07,-0.008
-2.700E-07,-0.056
-2.600E-07,-0.036
-2.500E-07,0.004
-2.400E-07,0.080
-2.300E-07,0.160
-2.200E-07,0.188
-2.100E-07,0.164
-2.000E-07,0.112
-1.900E-07,0.056
-1.800E-07,0.056
-1.700E-07,0.092
-1.600E-07,0.124
-1.500E-07,0.156
-1.400E-07,0.128
-1.300E-07,0.112
-1.200E-07,0.108
-1.100E-07,0.108
-1.000E-07,0.056
-9.000E-08,-0.056
-8.000E-08,-0.072
-7.000E-08,-0.008
-6.000E-08,-0.108
-5.000E-08,-0.360
-4.000E-08,-0.512
-3.000E-08,-0.512
-2.000E-08,-0.236
-1.000E-08,0.348
0.000E+00,0.544
1.000E-08,0.208
2.000E-08,-0.408
3.000E-08,-0.512
4.000E-08,-0.512
5.000E-08,-0.512
6.000E-08,-0.060
7.000E-08,0.448
8.000E-08,0.540
9.000E-08,0.488
1.000E-07,-0.112
1.100E-07,-0.508
1.200E-07,-0.508
1.300E-07,-0.348
1.400E-07,0.092
1.500E-07,0.532
1.600E-07,0.516
1.700E-07,0.300
1.800E-07,-0.112
1.900E-07,-0.376
2.000E-07,-0.468
2.100E-07,-0.240
2.200E-07,0.136
2.300E-07,0.376
2.400E-07,0.452
2.500E-07,0.264
2.600E-07,-0.024
2.700E-07,-0.260
2.800E-07,-0.304
2.900E-07,-0.188
3.000E-07,0.088
3.100E-07,0.312
3.200E-07,0.372
3.300E-07,0.272
3.400E-07,0.056
3.500E-07,-0.124
3.600E-07,-0.168
3.700E-07,-0.036
3.800E-07,0.148
3.900E-07,0.340
4.000E-07,0.396
4.100E-07,0.324
4.200E-07,0.128
4.300E-07,-0.036
4.400E-07,-0.084
4.500E-07,-0.016
4.600E-07,0.124
4.700E-07,0.240
4.800E-07,0.316
4.900E-07,0.276
5.000E-07,0.176
5.100E-07,0.016
5.200E-07,-0.024
5.300E-07,0.016
5.400E-07,0.148
5.500E-07,0.272
5.600E-07,0.336
5.700E-07,0.320
5.800E-07,0.228
5.900E-07,0.128
6.000E-07,0.048
6.100E-07,0.052
6.200E-07,0.092
6.300E-07,0.176
6.400E-07,0.216
6.500E-07,0.208
6.600E-07,0.176
6.700E-07,0.056
6.800E-07,0.020
6.900E-07,0.000
7.000E-07,-0.004
7.100E-07,0.048
7.200E-07,0.124
7.300E-07,0.208
7.400E-07,0.268
7.500E-07,0.232
7.600E-07,0.200
7.700E-07,0.148
7.800E-07,0.096
7.900E-07,0.052
8.000E-07,0.084
8.100E-07,0.100
8.200E-07,0.124
8.300E-07,0.100
8.400E-07,0.112
8.500E-07,0.116
8.600E-07,0.092
8.700E-07,0.024
8.800E-07,-0.144
8.900E-07,-0.156
9.000E-07,-0.136
9.100E-07,-0.096
9.200E-07,0.140
9.300E-07,0.240
9.400E-07,0.244
9.500E-07,0.196
9.600E-07,0.092
9.700E-07,-0.040
9.800E-07,-0.248
9.900E-07,-0.324
1.000E-06,-0.380
1.010E-06,-0.468
1.020E-06,-0.512
1.030E-06,-0.512
1.040E-06,-0.512
1.050E-06,-0.496
1.060E-06,-0.252
1.070E-06,-0.256
1.080E-06,-0.036
1.090E-06,-0.004
1.100E-06,0.012
1.110E-06,-0.052
1.120E-06,-0.120
1.130E-06,0.008
1.140E-06,0.068
1.150E-06,0.156
1.160E-06,0.228
1.170E-06,0.196
1.180E-06,0.260
1.190E-06,0.180
1.200E-06,0.136
1.210E-06,0.120
1.220E-06,0.172
1.230E-06,0.220
1.240E-06,0.248
1.250E-06,0.288
1.260E-06,0.220
1.270E-06,0.196
1.280E-06,0.172
1.290E-06,0.176
1.300E-06,0.204
1.310E-06,0.252
1.320E-06,0.268
1.330E-06,0.272
1.340E-06,0.240
1.350E-06,0.184
1.360E-06,0.152
1.370E-06,0.152
1.380E-06,0.188
1.390E-06,0.220
1.400E-06,0.268
1.410E-06,0.268
1.420E-06,0.236
1.430E-06,0.188
1.440E-06,0.152
1.450E-06,0.136
1.460E-06,0.136
1.470E-06,0.168
1.480E-06,0.160
1.490E-06,0.132
1.500E-06,0.036
1.510E-06,-0.040
1.520E-06,0.048
1.530E-06,0.068
1.540E-06,0.188
1.550E-06,0.212
1.560E-06,0.268
1.570E-06,0.232
1.580E-06,0.192
1.590E-06,0.156
1.600E-06,0.136
1.610E-06,0.192
1.620E-06,0.268
1.630E-06,0.292
1.640E-06,0.272
1.650E-06,0.212
1.660E-06,0.168
1.670E-06,0.144
1.680E-06,0.144
1.690E-06,0.164
1.700E-06,0.200
1.710E-06,0.244
1.720E-06,0.240
1.730E-06,0.220
1.740E-06,0.176
1.750E-06,0.148
1.760E-06,0.136
1.770E-06,0.156
1.780E-06,0.188
1.790E-06,0.204
1.800E-06,0.212
1.810E-06,0.188
1.820E-06,0.180
1.830E-06,0.156
1.840E-06,0.184
1.850E-06,0.200
1.860E-06,0.232
1.870E-06,0.240
1.880E-06,0.244
1.890E-06,0.220
1.900E-06,0.188
1.910E-06,0.180
1.920E-06,0.184
1.930E-06,0.204
1.940E-06,0.224
1.950E-06,0.244
1.960E-06,0.228
1.970E-06,0.216
1.980E-06,0.188
1.990E-06,0.176
2.000E-06,0.180
2.010E-06,0.196
2.020E-06,0.212
2.030E-06,0.220
2.040E-06,0.224
2.050E-06,0.208
2.060E-06,0.200
2.070E-06,0.188
2.080E-06,0.196
2.090E-06,0.196
2.100E-06,0.212
2.110E-06,0.224
2.120E-06,0.224
2.130E-06,0.212
2.140E-06,0.200
2.150E-06,0.188
2.160E-06,0.188
2.170E-06,0.192
2.180E-06,0.200
2.190E-06,0.204
2.200E-06,0.212
2.210E-06,0.212
2.220E-06,0.204
2.230E-06,0.192
2.240E-06,0.192
2.250E-06,0.192
2.260E-06,0.200
2.270E-06,0.208
2.280E-06,0.212
2.290E-06,0.204
2.300E-06,0.196
2.310E-06,0.196
2.320E-06,0.188
2.330E-06,0.192
2.340E-06,0.196
2.350E-06,0.196
2.360E-06,0.204
2.370E-06,0.200
2.380E-06,0.200
2.390E-06,0.192
2.400E-06,0.192
2.410E-06,0.192
2.420E-06,0.192
2.430E-06,0.192
2.440E-06,0.192
2.450E-06,0.196
2.460E-06,0.192
2.470E-06,0.192
2.480E-06,0.188
2.490E-06,0.188
2.500E-06,0.192
2.510E-06,0.188
2.520E-06,0.192
2.530E-06,0.192
2.540E-06,0.188
2.550E-06,0.196
2.560E-06,0.188
2.570E-06,0.188
2.580E-06,0.184
2.590E-06,0.188
2.600E-06,0.188
2.610E-06,0.192
2.620E-06,0.196
2.630E-06,0.188
2.640E-06,0.180
2.650E-06,0.176
2.660E-06,0.172
2.670E-06,0.176
2.680E-06,0.180
2.690E-06,0.176
2.700E-06,0.180
2.710E-06,0.176
2.720E-06,0.176
2.730E-06,0.188
2.740E-06,0.184
2.750E-06,0.188
2.760E-06,0.180
2.770E-06,0.176
2.780E-06,0.176
2.790E-06,0.176
2.800E-06,0.180
2.810E-06,0.184
2.820E-06,0.176
2.830E-06,0.176
2.840E-06,0.172
2.850E-06,0.176
2.860E-06,0.176
2.870E-06,0.176
2.880E-06,0.184
2.890E-06,0.176
2.900E-06,0.176
2.910E-06,0.168
2.920E-06,0.168
2.930E-06,0.172
2.940E-06,0.172
2.950E-06,0.184
2.960E-06,0.184
2.970E-06,0.176
2.980E-06,0.172
2.990E-06,0.168
3.000E-06,0.156
3.010E-06,0.160
3.020E-06,0.172
3.030E-06,0.172
3.040E-06,0.172
3.050E-06,0.172
3.060E-06,0.168
3.070E-06,0.160
3.080E-06,0.160
3.090E-06,0.160
3.100E-06,0.160
3.110E-06,0.168
3.120E-06,0.160
3.130E-06,0.160
3.140E-06,0.160
3.150E-06,0.160
3.160E-06,0.160
3.170E-06,0.164
3.180E-06,0.164
3.190E-06,0.164
3.200E-06,0.160
3.210E-06,0.160
3.220E-06,0.156
3.230E-06,0.160
3.240E-06,0.156
3.250E-06,0.160
3.260E-06,0.156
3.270E-06,0.160
3.280E-06,0.164
3.290E-06,0.160
3.300E-06,0.152
3.310E-06,0.160
3.320E-06,0.164
3.330E-06,0.160
3.340E-06,0.160
3.350E-06,0.160
3.360E-06,0.156
3.370E-06,0.156
3.380E-06,0.160
3.390E-06,0.156
3.400E-06,0.156
3.410E-06,0.156
3.420E-06,0.160
3.430E-06,0.156
3.440E-06,0.160
3.450E-06,0.152
3.460E-06,0.148
3.470E-06,0.148
3.480E-06,0.148
3.490E-06,0.152
3.500E-06,0.148
3.510E-06,0.148
3.520E-06,0.156
3.530E-06,0.160
3.540E-06,0.148
3.550E-06,0.148
3.560E-06,0.148
3.570E-06,0.144
3.580E-06,0.144
3.590E-06,0.144
3.600E-06,0.152
3.610E-06,0.152
3.620E-06,0.140
3.630E-06,0.144
3.640E-06,0.140
3.650E-06,0.140
3.660E-06,0.136
3.670E-06,0.144
3.680E-06,0.144
3.690E-06,0.144
3.700E-06,0.144
3.710E-06,0.140
3.720E-06,0.132
3.730E-06,0.136
3.740E-06,0.140
3.750E-06,0.136
3.760E-06,0.144
3.770E-06,0.144
3.780E-06,0.140
3.790E-06,0.140
3.800E-06,0.136
3.810E-06,0.136
3.820E-06,0.136
3.830E-06,0.140
3.840E-06,0.144
3.850E-06,0.144
3.860E-06,0.136
3.870E-06,0.132
3.880E-06,0.132
3.890E-06,0.128
3.900E-06,0.132
3.910E-06,0.128
3.920E-06,0.132
3.930E-06,0.132
3.940E-06,0.128
3.950E-06,0.124
3.960E-06,0.124
3.970E-06,0.124
3.980E-06,0.124
3.990E-06,0.124
4.000E-06,0.128
4.010E-06,0.128
4.020E-06,0.120
4.030E-06,0.124
4.040E-06,0.124
4.050E-06,0.120
4.060E-06,0.124
4.070E-06,0.120
4.080E-06,0.124
4.090E-06,0.124
4.100E-06,0.128
4.110E-06,0.128
4.120E-06,0.124
4.130E-06,0.120
4.140E-06,0.116
4.150E-06,0.116
4.160E-06,0.124
4.170E-06,0.124
4.180E-06,0.124
4.190E-06,0.124
4.200E-06,0.124
4.210E-06,0.128
4.220E-06,0.120
4.230E-06,0.116
4.240E-06,0.120
4.250E-06,0.120
4.260E-06,0.120
4.270E-06,0.124
4.280E-06,0.120
4.290E-06,0.120
4.300E-06,0.116
4.310E-06,0.112
4.320E-06,0.112
4.330E-06,0.108
4.340E-06,0.112
4.350E-06,0.112
4.360E-06,0.112
4.370E-06,0.108
4.380E-06,0.108
4.390E-06,0.104
4.400E-06,0.108
4.410E-06,0.104
4.420E-06,0.108
4.430E-06,0.108
4.440E-06,0.108
4.450E-06,0.108
4.460E-06,0.104
4.470E-06,0.108
4.480E-06,0.108
4.490E-06,0.108
4.500E-06,0.100
4.510E-06,0.100
4.520E-06,0.104
4.530E-06,0.104
4.540E-06,0.104
4.550E-06,0.104
4.560E-06,0.104
4.570E-06,0.096
4.580E-06,0.100
4.590E-06,0.100
4.600E-06,0.100
4.610E-06,0.100
4.620E-06,0.096
4.630E-06,0.096
4.640E-06,0.100
4.650E-06,0.100
4.660E-06,0.100
4.670E-06,0.100
4.680E-06,0.096
4.690E-06,0.096
4.700E-06,0.096
4.710E-06,0.092
4.720E-06,0.096
4.730E-06,0.092
4.740E-06,0.092
4.750E-06,0.092
4.760E-06,0.092
4.770E-06,0.092
4.780E-06,0.088
4.790E-06,0.088
4.800E-06,0.088
4.810E-06,0.088
4.820E-06,0.092
4.830E-06,0.092
4.840E-06,0.092
4.850E-06,0.088
4.860E-06,0.088
4.870E-06,0.088
4.880E-06,0.092
4.890E-06,0.084
4.900E-06,0.084
4.910E-06,0.084
4.920E-06,0.088
4.930E-06,0.088
4.940E-06,0.084
4.950E-06,0.084
4.960E-06,0.088
4.970E-06,0.088
4.980E-06,0.088
4.990E-06,0.084
5.000E-06,0.088
5.010E-06,0.084
5.020E-06,0.088
5.030E-06,0.088
5.040E-06,0.080
5.050E-06,0.076
5.060E-06,0.076
5.070E-06,0.080
5.080E-06,0.088
5.090E-06,0.080
5.100E-06,0.088
5.110E-06,0.084
5.120E-06,0.084
5.130E-06,0.080
5.140E-06,0.076
5.150E-06,0.080
5.160E-06,0.076
5.170E-06,0.084
5.180E-06,0.076
5.190E-06,0.084
5.200E-06,0.080
5.210E-06,0.076
5.220E-06,0.072
5.230E-06,0.072
5.240E-06,0.060
5.250E-06,0.092
5.260E-06,0.040
5.270E-06,0.064
5.280E-06,0.084
5.290E-06,0.088
5.300E-06,0.116
5.310E-06,0.084
5.320E-06,0.092
5.330E-06,0.076
5.340E-06,0.060
5.350E-06,0.068
5.360E-06,0.068
5.370E-06,0.068
5.380E-06,0.068
5.390E-06,0.068
5.400E-06,0.060
5.410E-06,0.060
5.420E-06,0.076
5.430E-06,0.080
5.440E-06,0.076
5.450E-06,0.064
5.460E-06,0.068
5.470E-06,0.060
5.480E-06,0.064
5.490E-06,0.060
5.500E-06,0.060
5.510E-06,0.064
5.520E-06,0.068
5.530E-06,0.072
5.540E-06,0.064
5.550E-06,0.060
5.560E-06,0.064
5.570E-06,0.060
5.580E-06,0.060
5.590E-06,0.060
5.600E-06,0.068
5.610E-06,0.064
5.620E-06,0.068
5.630E-06,0.060
5.640E-06,0.056
5.650E-06,0.060
5.660E-06,0.056
5.670E-06,0.060
5.680E-06,0.068
5.690E-06,0.068
5.700E-06,0.060
5.710E-06,0.056
5.720E-06,0.056
5.730E-06,0.060
5.740E-06,0.052
5.750E-06,0.052
5.760E-06,0.056
5.770E-06,0.056
5.780E-06,0.064
5.790E-06,0.068
5.800E-06,0.056
5.810E-06,0.052
5.820E-06,0.044
5.830E-06,0.040
5.840E-06,0.048
5.850E-06,0.056
5.860E-06,0.064
5.870E-06,0.060
5.880E-06,0.056
5.890E-06,0.044
5.900E-06,0.040
5.910E-06,0.036
5.920E-06,0.036
5.930E-06,0.052
5.940E-06,0.060
5.950E-06,0.064
5.960E-06,0.056
5.970E-06,0.044
5.980E-06,0.036
5.990E-06,0.040
6.000E-06,0.044
6.010E-06,0.044
6.020E-06,0.052
6.030E-06,0.056
6.040E-06,0.056
6.050E-06,0.048
6.060E-06,0.044
6.070E-06,0.040
6.080E-06,0.036
6.090E-06,0.044
6.100E-06,0.044
6.110E-06,0.044
6.120E-06,0.052
6.130E-06,0.044
6.140E-06,0.036
6.150E-06,0.036
6.160E-06,0.036
6.170E-06,0.036
6.180E-06,0.044
6.190E-06,0.048
6.200E-06,0.044
6.210E-06,0.044
6.220E-06,0.032
6.230E-06,0.028
6.240E-06,0.028
6.250E-06,0.032
6.260E-06,0.040
6.270E-06,0.040
6.280E-06,0.044
6.290E-06,0.036
6.300E-06,0.036
6.310E-06,0.024
6.320E-06,0.028
6.330E-06,0.032
6.340E-06,0.036
6.350E-06,0.044
6.360E-06,0.036
6.370E-06,0.036
6.380E-06,0.032
6.390E-06,0.032
6.400E-06,0.032
6.410E-06,0.036
6.420E-06,0.036
6.430E-06,0.032
6.440E-06,0.036
6.450E-06,0.036
6.460E-06,0.028
6.470E-06,0.024
6.480E-06,0.028
6.490E-06,0.032
6.500E-06,0.036
6.510E-06,0.036
6.520E-06,0.036
6.530E-06,0.028
6.540E-06,0.024
6.550E-06,0.028
6.560E-06,0.032
6.570E-06,0.032
6.580E-06,0.032
6.590E-06,0.024
6.600E-06,0.032
6.610E-06,0.028
6.620E-06,0.028
6.630E-06,0.024
6.640E-06,0.024
6.650E-06,0.024
6.660E-06,0.024
6.670E-06,0.024
6.680E-06,0.024
6.690E-06,0.024
6.700E-06,0.024
6.710E-06,0.028
6.720E-06,0.020
6.730E-06,0.024
6.740E-06,0.028
6.750E-06,0.024
6.760E-06,0.020
6.770E-06,0.024
6.780E-06,0.020
6.790E-06,0.024
6.800E-06,0.016
6.810E-06,0.024
6.820E-06,0.024
6.830E-06,0.020
6.840E-06,0.016
6.850E-06,0.016
6.860E-06,0.020
6.870E-06,0.024
6.880E-06,0.024
6.890E-06,0.012
6.900E-06,0.016
6.910E-06,0.020
6.920E-06,0.024
6.930E-06,0.012
6.940E-06,0.016
6.950E-06,0.012
6.960E-06,0.012
6.970E-06,0.016
6.980E-06,0.008
6.990E-06,0.016
7.000E-06,0.016
7.010E-06,0.016
7.020E-06,0.012
7.030E-06,0.012
7.040E-06,0.016
7.050E-06,0.008
7.060E-06,0.012
7.070E-06,0.012
7.080E-06,0.012
7.090E-06,0.012
7.100E-06,0.008
7.110E-06,0.012
7.120E-06,0.008
7.130E-06,0.004
7.140E-06,0.012
7.150E-06,0.012
7.160E-06,0.012
7.170E-06,0.012
7.180E-06,0.008
7.190E-06,0.008
7.200E-06,0.012
7.210E-06,0.008
7.220E-06,0.008
7.230E-06,0.012
7.240E-06,0.012
7.250E-06,0.008
7.260E-06,0.008
7.270E-06,0.008
7.280E-06,0.008
7.290E-06,0.008
7.300E-06,0.008
7.310E-06,0.004
7.320E-06,0.008
7.330E-06,0.000
7.340E-06,0.008
7.350E-06,0.008
7.360E-06,0.008
7.370E-06,0.008
7.380E-06,0.008
7.390E-06,0.000
7.400E-06,0.004
7.410E-06,0.008
7.420E-06,0.000
7.430E-06,0.000
7.440E-06,0.008
7.450E-06,0.004
7.460E-06,0.004
7.470E-06,0.004
7.480E-06,0.008
7.490E-06,0.012
7.500E-06,0.004
7.510E-06,0.000
7.520E-06,0.008
7.530E-06,-0.004
7.540E-06,0.000
7.550E-06,0.004
7.560E-06,0.004
7.570E-06,-0.004
7.580E-06,0.004
7.590E-06,0.008
7.600E-06,0.004
7.610E-06,-0.004
7.620E-06,0.000
7.630E-06,0.000
7.640E-06,0.000
7.650E-06,-0.004
7.660E-06,0.000
7.670E-06,0.000
7.680E-06,0.000
7.690E-06,-0.004
7.700E-06,0.000
7.710E-06,0.000
7.720E-06,0.000
7.730E-06,-0.004
7.740E-06,0.000
7.750E-06,0.004
7.760E-06,-0.008
7.770E-06,-0.008
7.780E-06,0.000
7.790E-06,0.000
7.800E-06,-0.004
7.810E-06,-0.008
7.820E-06,-0.008
7.830E-06,-0.008
7.840E-06,0.000
7.850E-06,0.000
7.860E-06,-0.004
7.870E-06,0.000
