mediciones/Mediciones filtradas (saque las feas)/6-10/4.2/WaveData5641.csv

#timebase=2000000(ps)
,#voltbase=100000(mv/100)
#size=4000
-4.200E-06,0.024
-4.190E-06,0.016
-4.180E-06,0.008
-4.170E-06,-0.004
-4.160E-06,-0.028
-4.150E-06,-0.004
-4.140E-06,0.000
-4.130E-06,-0.004
-4.120E-06,-0.008
-4.110E-06,0.004
-4.100E-06,0.016
-4.090E-06,0.012
-4.080E-06,-0.004
-4.070E-06,-0.004
-4.060E-06,-0.004
-4.050E-06,0.008
-4.040E-06,0.012
-4.030E-06,0.008
-4.020E-06,0.004
-4.010E-06,-0.004
-4.000E-06,-0.004
-3.990E-06,0.000
-3.980E-06,0.000
-3.970E-06,0.004
-3.960E-06,0.008
-3.950E-06,0.008
-3.940E-06,0.004
-3.930E-06,0.004
-3.920E-06,0.004
-3.910E-06,-0.004
-3.900E-06,0.004
-3.890E-06,0.004
-3.880E-06,0.004
-3.870E-06,0.012
-3.860E-06,0.008
-3.850E-06,0.000
-3.840E-06,0.004
-3.830E-06,-0.004
-3.820E-06,0.000
-3.810E-06,0.000
-3.800E-06,0.004
-3.790E-06,0.008
-3.780E-06,0.000
-3.770E-06,0.008
-3.760E-06,0.004
-3.750E-06,0.012
-3.740E-06,0.012
-3.730E-06,0.008
-3.720E-06,0.004
-3.710E-06,0.012
-3.700E-06,0.012
-3.690E-06,0.012
-3.680E-06,0.016
-3.670E-06,0.016
-3.660E-06,0.012
-3.650E-06,0.016
-3.640E-06,0.008
-3.630E-06,0.004
-3.620E-06,-0.004
-3.610E-06,-0.016
-3.600E-06,-0.016
-3.590E-06,-0.004
-3.580E-06,0.012
-3.570E-06,0.020
-3.560E-06,0.016
-3.550E-06,0.004
-3.540E-06,-0.012
-3.530E-06,-0.016
-3.520E-06,-0.004
-3.510E-06,0.000
-3.500E-06,0.016
-3.490E-06,0.008
-3.480E-06,0.004
-3.470E-06,0.008
-3.460E-06,-0.004
-3.450E-06,0.000
-3.440E-06,0.000
-3.430E-06,0.008
-3.420E-06,0.012
-3.410E-06,0.016
-3.400E-06,0.016
-3.390E-06,0.016
-3.380E-06,0.012
-3.370E-06,0.012
-3.360E-06,0.020
-3.350E-06,0.020
-3.340E-06,0.028
-3.330E-06,0.028
-3.320E-06,0.008
-3.310E-06,0.004
-3.300E-06,-0.016
-3.290E-06,-0.028
-3.280E-06,-0.020
-3.270E-06,-0.004
-3.260E-06,0.000
-3.250E-06,0.032
-3.240E-06,0.056
-3.230E-06,0.060
-3.220E-06,0.056
-3.210E-06,0.068
-3.200E-06,0.044
-3.190E-06,0.040
-3.180E-06,0.020
-3.170E-06,-0.024
-3.160E-06,-0.088
-3.150E-06,-0.120
-3.140E-06,-0.088
-3.130E-06,-0.020
-3.120E-06,0.036
-3.110E-06,0.072
-3.100E-06,0.036
-3.090E-06,-0.016
-3.080E-06,-0.060
-3.070E-06,-0.060
-3.060E-06,-0.052
-3.050E-06,-0.004
-3.040E-06,0.052
-3.030E-06,0.064
-3.020E-06,0.056
-3.010E-06,0.012
-3.000E-06,-0.004
-2.990E-06,-0.036
-2.980E-06,-0.020
-2.970E-06,-0.008
-2.960E-06,0.032
-2.950E-06,0.068
-2.940E-06,0.068
-2.930E-06,0.080
-2.920E-06,0.060
-2.910E-06,0.032
-2.900E-06,0.012
-2.890E-06,-0.008
-2.880E-06,-0.040
-2.870E-06,-0.060
-2.860E-06,-0.060
-2.850E-06,-0.024
-2.840E-06,0.008
-2.830E-06,0.028
-2.820E-06,0.040
-2.810E-06,0.032
-2.800E-06,-0.004
-2.790E-06,0.028
-2.780E-06,0.048
-2.770E-06,0.036
-2.760E-06,-0.032
-2.750E-06,-0.088
-2.740E-06,-0.136
-2.730E-06,-0.084
-2.720E-06,-0.008
-2.710E-06,0.064
-2.700E-06,0.080
-2.690E-06,0.068
-2.680E-06,0.020
-2.670E-06,-0.052
-2.660E-06,-0.084
-2.650E-06,-0.064
-2.640E-06,-0.012
-2.630E-06,0.048
-2.620E-06,0.076
-2.610E-06,0.048
-2.600E-06,0.024
-2.590E-06,-0.012
-2.580E-06,-0.048
-2.570E-06,-0.060
-2.560E-06,-0.024
-2.550E-06,0.004
-2.540E-06,0.032
-2.530E-06,0.036
-2.520E-06,0.020
-2.510E-06,-0.004
-2.500E-06,-0.024
-2.490E-06,-0.024
-2.480E-06,-0.020
-2.470E-06,0.004
-2.460E-06,0.004
-2.450E-06,0.020
-2.440E-06,0.020
-2.430E-06,0.016
-2.420E-06,-0.004
-2.410E-06,-0.012
-2.400E-06,-0.012
-2.390E-06,-0.012
-2.380E-06,0.004
-2.370E-06,0.016
-2.360E-06,0.024
-2.350E-06,0.024
-2.340E-06,0.004
-2.330E-06,0.004
-2.320E-06,-0.008
-2.310E-06,-0.008
-2.300E-06,0.000
-2.290E-06,0.012
-2.280E-06,0.024
-2.270E-06,0.020
-2.260E-06,0.008
-2.250E-06,0.004
-2.240E-06,-0.004
-2.230E-06,0.000
-2.220E-06,0.000
-2.210E-06,0.012
-2.200E-06,0.020
-2.190E-06,0.028
-2.180E-06,0.024
-2.170E-06,0.016
-2.160E-06,0.008
-2.150E-06,0.008
-2.140E-06,0.012
-2.130E-06,0.020
-2.120E-06,0.024
-2.110E-06,0.024
-2.100E-06,0.032
-2.090E-06,0.024
-2.080E-06,0.020
-2.070E-06,0.024
-2.060E-06,0.020
-2.050E-06,0.028
-2.040E-06,0.040
-2.030E-06,0.044
-2.020E-06,0.052
-2.010E-06,0.064
-2.000E-06,0.072
-1.990E-06,0.084
-1.980E-06,0.112
-1.970E-06,0.108
-1.960E-06,0.132
-1.950E-06,0.080
-1.940E-06,0.088
-1.930E-06,0.012
-1.920E-06,0.024
-1.910E-06,0.044
-1.900E-06,0.044
-1.890E-06,0.020
-1.880E-06,-0.048
-1.870E-06,-0.176
-1.860E-06,-0.176
-1.850E-06,-0.228
-1.840E-06,-0.076
-1.830E-06,0.040
-1.820E-06,0.176
-1.810E-06,0.232
-1.800E-06,0.188
-1.790E-06,-0.052
-1.780E-06,-0.284
-1.770E-06,-0.420
-1.760E-06,-0.368
-1.750E-06,-0.180
-1.740E-06,0.152
-1.730E-06,0.260
-1.720E-06,0.284
-1.710E-06,0.112
-1.700E-06,-0.168
-1.690E-06,-0.264
-1.680E-06,-0.316
-1.670E-06,-0.040
-1.660E-06,0.108
-1.650E-06,0.224
-1.640E-06,0.212
-1.630E-06,0.096
-1.620E-06,-0.072
-1.610E-06,-0.188
-1.600E-06,-0.192
-1.590E-06,-0.104
-1.580E-06,0.064
-1.570E-06,0.160
-1.560E-06,0.180
-1.550E-06,0.096
-1.540E-06,-0.008
-1.530E-06,-0.112
-1.520E-06,-0.124
-1.510E-06,-0.076
-1.500E-06,0.012
-1.490E-06,0.108
-1.480E-06,0.128
-1.470E-06,0.088
-1.460E-06,0.004
-1.450E-06,-0.068
-1.440E-06,-0.072
-1.430E-06,-0.040
-1.420E-06,0.012
-1.410E-06,0.088
-1.400E-06,0.092
-1.390E-06,0.088
-1.380E-06,0.040
-1.370E-06,0.008
-1.360E-06,-0.028
-1.350E-06,0.000
-1.340E-06,0.024
-1.330E-06,0.044
-1.320E-06,0.080
-1.310E-06,0.072
-1.300E-06,0.080
-1.290E-06,0.052
-1.280E-06,0.024
-1.270E-06,0.012
-1.260E-06,0.012
-1.250E-06,0.048
-1.240E-06,0.084
-1.230E-06,0.104
-1.220E-06,0.108
-1.210E-06,0.104
-1.200E-06,0.076
-1.190E-06,0.068
-1.180E-06,0.068
-1.170E-06,0.084
-1.160E-06,0.108
-1.150E-06,0.136
-1.140E-06,0.140
-1.130E-06,0.140
-1.120E-06,0.100
-1.110E-06,0.076
-1.100E-06,0.088
-1.090E-06,0.064
-1.080E-06,-0.068
-1.070E-06,-0.244
-1.060E-06,-0.432
-1.050E-06,-0.420
-1.040E-06,-0.284
-1.030E-06,-0.008
-1.020E-06,0.208
-1.010E-06,0.252
-1.000E-06,0.192
-9.900E-07,0.072
-9.800E-07,-0.052
-9.700E-07,-0.116
-9.600E-07,-0.056
-9.500E-07,0.096
-9.400E-07,0.132
-9.300E-07,0.012
-9.200E-07,-0.200
-9.100E-07,-0.436
-9.000E-07,-0.420
-8.900E-07,-0.264
-8.800E-07,-0.024
-8.700E-07,0.192
-8.600E-07,0.228
-8.500E-07,0.140
-8.400E-07,-0.040
-8.300E-07,-0.228
-8.200E-07,-0.220
-8.100E-07,-0.132
-8.000E-07,0.036
-7.900E-07,0.128
-7.800E-07,0.172
-7.700E-07,0.128
-7.600E-07,0.020
-7.500E-07,-0.076
-7.400E-07,-0.136
-7.300E-07,-0.088
-7.200E-07,-0.024
-7.100E-07,0.072
-7.000E-07,0.096
-6.900E-07,0.092
-6.800E-07,0.040
-6.700E-07,-0.004
-6.600E-07,-0.048
-6.500E-07,-0.036
-6.400E-07,-0.016
-6.300E-07,0.012
-6.200E-07,0.048
-6.100E-07,0.028
-6.000E-07,0.028
-5.900E-07,-0.032
-5.800E-07,-0.024
-5.700E-07,-0.060
-5.600E-07,-0.036
-5.500E-07,0.056
-5.400E-07,0.068
-5.300E-07,0.084
-5.200E-07,0.000
-5.100E-07,-0.008
-5.000E-07,-0.008
-4.900E-07,-0.012
-4.800E-07,0.040
-4.700E-07,0.024
-4.600E-07,0.096
-4.500E-07,-0.004
-4.400E-07,-0.032
-4.300E-07,-0.064
-4.200E-07,-0.020
-4.100E-07,0.008
-4.000E-07,0.060
-3.900E-07,0.072
-3.800E-07,0.080
-3.700E-07,0.052
-3.600E-07,0.028
-3.500E-07,0.012
-3.400E-07,-0.008
-3.300E-07,0.036
-3.200E-07,0.092
-3.100E-07,0.128
-3.000E-07,0.120
-2.900E-07,0.092
-2.800E-07,0.056
-2.700E-07,0.068
-2.600E-07,0.092
-2.500E-07,0.112
-2.400E-07,0.136
-2.300E-07,0.152
-2.200E-07,0.160
-2.100E-07,0.144
-2.000E-07,0.140
-1.900E-07,0.080
-1.800E-07,0.056
-1.700E-07,-0.028
-1.600E-07,-0.032
-1.500E-07,-0.052
-1.400E-07,-0.060
-1.300E-07,0.000
-1.200E-07,0.124
-1.100E-07,0.240
-1.000E-07,0.256
-9.000E-08,0.220
-8.000E-08,0.112
-7.000E-08,-0.028
-6.000E-08,-0.352
-5.000E-08,-0.464
-4.000E-08,-0.508
-3.000E-08,-0.484
-2.000E-08,-0.076
-1.000E-08,0.128
0.000E+00,0.512
1.000E-08,0.324
2.000E-08,0.224
3.000E-08,-0.228
4.000E-08,-0.512
5.000E-08,-0.512
6.000E-08,-0.408
7.000E-08,-0.052
8.000E-08,0.332
9.000E-08,0.460
1.000E-07,0.304
1.100E-07,-0.016
1.200E-07,-0.304
1.300E-07,-0.468
1.400E-07,-0.344
1.500E-07,-0.128
1.600E-07,0.144
1.700E-07,0.352
1.800E-07,0.296
1.900E-07,0.132
2.000E-07,-0.132
2.100E-07,-0.264
2.200E-07,-0.240
2.300E-07,-0.084
2.400E-07,0.084
2.500E-07,0.196
2.600E-07,0.220
2.700E-07,0.128
2.800E-07,0.004
2.900E-07,-0.120
3.000E-07,-0.172
3.100E-07,-0.104
3.200E-07,-0.008
3.300E-07,0.096
3.400E-07,0.140
3.500E-07,0.124
3.600E-07,0.036
3.700E-07,-0.040
3.800E-07,-0.088
3.900E-07,-0.084
4.000E-07,-0.036
4.100E-07,0.040
4.200E-07,0.136
4.300E-07,0.124
4.400E-07,0.060
4.500E-07,-0.004
4.600E-07,-0.064
4.700E-07,-0.044
4.800E-07,-0.020
4.900E-07,0.048
5.000E-07,0.112
5.100E-07,0.124
5.200E-07,0.088
5.300E-07,0.044
5.400E-07,0.008
5.500E-07,-0.008
5.600E-07,0.056
5.700E-07,0.092
5.800E-07,0.156
5.900E-07,0.156
6.000E-07,0.144
6.100E-07,0.092
6.200E-07,0.052
6.300E-07,0.028
6.400E-07,0.028
6.500E-07,0.044
6.600E-07,0.120
6.700E-07,0.144
6.800E-07,0.148
6.900E-07,0.140
7.000E-07,0.128
7.100E-07,0.104
7.200E-07,0.108
7.300E-07,0.088
7.400E-07,0.084
7.500E-07,0.024
7.600E-07,-0.040
7.700E-07,-0.140
7.800E-07,-0.108
7.900E-07,-0.084
8.000E-07,0.080
8.100E-07,0.248
8.200E-07,0.208
8.300E-07,-0.036
8.400E-07,-0.128
8.500E-07,-0.368
8.600E-07,-0.400
8.700E-07,-0.220
8.800E-07,0.180
8.900E-07,0.408
9.000E-07,0.400
9.100E-07,0.276
9.200E-07,-0.072
9.300E-07,-0.172
9.400E-07,-0.288
9.500E-07,-0.152
9.600E-07,0.076
9.700E-07,0.164
9.800E-07,0.228
9.900E-07,0.272
1.000E-06,-0.004
1.010E-06,-0.068
1.020E-06,-0.384
1.030E-06,-0.376
1.040E-06,-0.324
1.050E-06,-0.200
1.060E-06,-0.060
1.070E-06,0.056
1.080E-06,0.196
1.090E-06,0.216
1.100E-06,0.092
1.110E-06,-0.040
1.120E-06,-0.032
1.130E-06,-0.068
1.140E-06,-0.320
1.150E-06,-0.476
1.160E-06,-0.372
1.170E-06,-0.200
1.180E-06,0.132
1.190E-06,0.192
1.200E-06,0.312
1.210E-06,0.336
1.220E-06,-0.068
1.230E-06,-0.224
1.240E-06,-0.336
1.250E-06,-0.276
1.260E-06,-0.020
1.270E-06,0.008
1.280E-06,0.132
1.290E-06,0.112
1.300E-06,0.004
1.310E-06,-0.072
1.320E-06,-0.156
1.330E-06,-0.132
1.340E-06,-0.076
1.350E-06,0.076
1.360E-06,0.120
1.370E-06,0.128
1.380E-06,0.040
1.390E-06,-0.060
1.400E-06,-0.076
1.410E-06,-0.064
1.420E-06,0.004
1.430E-06,0.052
1.440E-06,0.112
1.450E-06,0.104
1.460E-06,0.068
1.470E-06,0.012
1.480E-06,-0.032
1.490E-06,-0.036
1.500E-06,0.000
1.510E-06,0.056
1.520E-06,0.096
1.530E-06,0.104
1.540E-06,0.072
1.550E-06,0.036
1.560E-06,0.008
1.570E-06,0.012
1.580E-06,0.032
1.590E-06,0.068
1.600E-06,0.108
1.610E-06,0.108
1.620E-06,0.120
1.630E-06,0.064
1.640E-06,0.064
1.650E-06,0.012
1.660E-06,0.040
1.670E-06,0.044
1.680E-06,0.100
1.690E-06,0.108
1.700E-06,0.128
1.710E-06,0.124
1.720E-06,0.128
1.730E-06,0.144
1.740E-06,0.136
1.750E-06,0.184
1.760E-06,0.140
1.770E-06,0.164
1.780E-06,0.128
1.790E-06,0.120
1.800E-06,0.144
1.810E-06,0.088
1.820E-06,-0.024
1.830E-06,-0.240
1.840E-06,-0.372
1.850E-06,-0.408
1.860E-06,-0.408
1.870E-06,-0.448
1.880E-06,-0.228
1.890E-06,-0.108
1.900E-06,0.208
1.910E-06,-0.032
1.920E-06,0.100
1.930E-06,0.012
1.940E-06,-0.052
1.950E-06,0.024
1.960E-06,0.092
1.970E-06,0.136
1.980E-06,-0.184
1.990E-06,-0.208
2.000E-06,-0.312
2.010E-06,-0.152
2.020E-06,-0.172
2.030E-06,0.024
2.040E-06,0.128
2.050E-06,0.220
2.060E-06,0.144
2.070E-06,-0.060
2.080E-06,-0.140
2.090E-06,-0.212
2.100E-06,-0.028
2.110E-06,0.060
2.120E-06,0.224
2.130E-06,0.204
2.140E-06,0.112
2.150E-06,-0.032
2.160E-06,-0.172
2.170E-06,-0.204
2.180E-06,-0.108
2.190E-06,0.084
2.200E-06,0.208
2.210E-06,0.236
2.220E-06,0.136
2.230E-06,0.060
2.240E-06,-0.028
2.250E-06,-0.052
2.260E-06,-0.024
2.270E-06,0.096
2.280E-06,0.196
2.290E-06,0.272
2.300E-06,0.236
2.310E-06,0.088
2.320E-06,-0.040
2.330E-06,-0.188
2.340E-06,-0.332
2.350E-06,-0.316
2.360E-06,-0.140
2.370E-06,-0.016
2.380E-06,0.036
2.390E-06,0.148
2.400E-06,0.092
2.410E-06,0.012
2.420E-06,-0.148
2.430E-06,-0.208
2.440E-06,-0.132
2.450E-06,0.020
2.460E-06,0.036
2.470E-06,0.132
2.480E-06,0.112
2.490E-06,0.116
2.500E-06,0.048
2.510E-06,0.020
2.520E-06,-0.024
2.530E-06,0.000
2.540E-06,0.108
2.550E-06,0.148
2.560E-06,0.180
2.570E-06,0.092
2.580E-06,0.012
2.590E-06,-0.016
2.600E-06,0.012
2.610E-06,-0.012
2.620E-06,0.064
2.630E-06,0.108
2.640E-06,0.156
2.650E-06,0.200
2.660E-06,0.168
2.670E-06,0.124
2.680E-06,0.012
2.690E-06,-0.064
2.700E-06,-0.128
2.710E-06,-0.136
2.720E-06,-0.148
2.730E-06,-0.216
2.740E-06,-0.188
2.750E-06,-0.192
2.760E-06,-0.084
2.770E-06,-0.088
2.780E-06,0.040
2.790E-06,-0.040
2.800E-06,-0.056
2.810E-06,-0.040
2.820E-06,-0.064
2.830E-06,-0.068
2.840E-06,-0.004
2.850E-06,0.004
2.860E-06,0.060
2.870E-06,0.016
2.880E-06,0.020
2.890E-06,0.004
2.900E-06,0.024
2.910E-06,0.040
2.920E-06,0.064
2.930E-06,0.076
2.940E-06,0.100
2.950E-06,0.100
2.960E-06,0.072
2.970E-06,0.096
2.980E-06,0.072
2.990E-06,0.128
3.000E-06,0.208
3.010E-06,0.228
3.020E-06,0.156
3.030E-06,0.076
3.040E-06,-0.012
3.050E-06,-0.048
3.060E-06,-0.040
3.070E-06,-0.004
3.080E-06,0.056
3.090E-06,0.072
3.100E-06,0.076
3.110E-06,0.080
3.120E-06,0.036
3.130E-06,0.008
3.140E-06,0.008
3.150E-06,0.032
3.160E-06,0.100
3.170E-06,0.104
3.180E-06,0.096
3.190E-06,0.016
3.200E-06,0.008
3.210E-06,-0.004
3.220E-06,0.068
3.230E-06,0.140
3.240E-06,0.204
3.250E-06,0.208
3.260E-06,0.112
3.270E-06,0.040
3.280E-06,-0.056
3.290E-06,-0.112
3.300E-06,-0.072
3.310E-06,-0.004
3.320E-06,0.044
3.330E-06,0.068
3.340E-06,0.076
3.350E-06,0.072
3.360E-06,0.024
3.370E-06,0.056
3.380E-06,0.096
3.390E-06,0.152
3.400E-06,0.208
3.410E-06,0.240
3.420E-06,0.256
3.430E-06,0.224
3.440E-06,0.180
3.450E-06,0.152
3.460E-06,0.152
3.470E-06,0.176
3.480E-06,0.204
3.490E-06,0.216
3.500E-06,0.208
3.510E-06,0.180
3.520E-06,0.120
3.530E-06,0.060
3.540E-06,0.028
3.550E-06,-0.032
3.560E-06,-0.008
3.570E-06,0.028
3.580E-06,0.048
3.590E-06,-0.028
3.600E-06,-0.252
3.610E-06,-0.512
3.620E-06,-0.512
3.630E-06,-0.176
3.640E-06,0.320
3.650E-06,0.540
3.660E-06,0.448
3.670E-06,-0.136
3.680E-06,-0.512
3.690E-06,-0.508
3.700E-06,-0.512
3.710E-06,-0.512
3.720E-06,-0.044
3.730E-06,0.352
3.740E-06,0.364
3.750E-06,0.108
3.760E-06,-0.248
3.770E-06,-0.228
3.780E-06,-0.448
3.790E-06,-0.060
3.800E-06,0.308
3.810E-06,0.344
3.820E-06,0.200
3.830E-06,0.184
3.840E-06,-0.060
3.850E-06,-0.264
3.860E-06,-0.380
3.870E-06,-0.220
3.880E-06,0.200
3.890E-06,0.384
3.900E-06,0.476
3.910E-06,0.276
3.920E-06,0.116
3.930E-06,-0.076
3.940E-06,-0.084
3.950E-06,0.008
3.960E-06,0.096
3.970E-06,0.236
3.980E-06,0.332
3.990E-06,0.336
4.000E-06,0.224
4.010E-06,0.092
4.020E-06,0.012
4.030E-06,0.048
4.040E-06,0.152
4.050E-06,0.292
4.060E-06,0.368
4.070E-06,0.348
4.080E-06,0.256
4.090E-06,0.140
4.100E-06,0.056
4.110E-06,0.068
4.120E-06,0.152
4.130E-06,0.240
4.140E-06,0.324
4.150E-06,0.320
4.160E-06,0.256
4.170E-06,0.148
4.180E-06,0.072
4.190E-06,0.036
4.200E-06,0.052
4.210E-06,0.076
4.220E-06,0.072
4.230E-06,0.096
4.240E-06,0.056
4.250E-06,0.088
4.260E-06,0.164
4.270E-06,0.124
4.280E-06,0.240
4.290E-06,0.152
4.300E-06,0.112
4.310E-06,-0.164
4.320E-06,-0.144
4.330E-06,-0.200
4.340E-06,-0.172
4.350E-06,-0.072
4.360E-06,0.056
4.370E-06,0.008
4.380E-06,-0.104
4.390E-06,-0.176
4.400E-06,-0.224
4.410E-06,-0.008
4.420E-06,-0.024
4.430E-06,0.144
4.440E-06,0.304
4.450E-06,0.240
4.460E-06,-0.016
4.470E-06,-0.336
4.480E-06,-0.456
4.490E-06,-0.368
4.500E-06,-0.212
4.510E-06,0.028
4.520E-06,0.132
4.530E-06,0.212
4.540E-06,0.124
4.550E-06,-0.056
4.560E-06,-0.132
4.570E-06,-0.128
4.580E-06,0.096
4.590E-06,0.252
4.600E-06,0.388
4.610E-06,0.384
4.620E-06,0.308
4.630E-06,0.192
4.640E-06,0.092
4.650E-06,0.088
4.660E-06,0.140
4.670E-06,0.248
4.680E-06,0.332
4.690E-06,0.336
4.700E-06,0.276
4.710E-06,0.192
4.720E-06,0.120
4.730E-06,0.096
4.740E-06,0.128
4.750E-06,0.204
4.760E-06,0.276
4.770E-06,0.304
4.780E-06,0.276
4.790E-06,0.220
4.800E-06,0.164
4.810E-06,0.128
4.820E-06,0.152
4.830E-06,0.200
4.840E-06,0.248
4.850E-06,0.272
4.860E-06,0.260
4.870E-06,0.208
4.880E-06,0.156
4.890E-06,0.128
4.900E-06,0.128
4.910E-06,0.164
4.920E-06,0.216
4.930E-06,0.260
4.940E-06,0.260
4.950E-06,0.228
4.960E-06,0.188
4.970E-06,0.152
4.980E-06,0.152
4.990E-06,0.172
5.000E-06,0.208
5.010E-06,0.232
5.020E-06,0.228
5.030E-06,0.208
5.040E-06,0.176
5.050E-06,0.152
5.060E-06,0.144
5.070E-06,0.160
5.080E-06,0.200
5.090E-06,0.220
5.100E-06,0.228
5.110E-06,0.212
5.120E-06,0.192
5.130E-06,0.176
5.140E-06,0.164
5.150E-06,0.172
5.160E-06,0.188
5.170E-06,0.188
5.180E-06,0.192
5.190E-06,0.172
5.200E-06,0.164
5.210E-06,0.156
5.220E-06,0.164
5.230E-06,0.176
5.240E-06,0.196
5.250E-06,0.208
5.260E-06,0.204
5.270E-06,0.192
5.280E-06,0.180
5.290E-06,0.180
5.300E-06,0.184
5.310E-06,0.196
5.320E-06,0.208
5.330E-06,0.212
5.340E-06,0.196
5.350E-06,0.196
5.360E-06,0.184
5.370E-06,0.184
5.380E-06,0.188
5.390E-06,0.192
5.400E-06,0.200
5.410E-06,0.208
5.420E-06,0.200
5.430E-06,0.192
5.440E-06,0.192
5.450E-06,0.180
5.460E-06,0.192
5.470E-06,0.196
5.480E-06,0.196
5.490E-06,0.192
5.500E-06,0.192
5.510E-06,0.192
5.520E-06,0.184
5.530E-06,0.180
5.540E-06,0.176
5.550E-06,0.188
5.560E-06,0.196
5.570E-06,0.196
5.580E-06,0.192
5.590E-06,0.192
5.600E-06,0.192
5.610E-06,0.176
5.620E-06,0.180
5.630E-06,0.184
5.640E-06,0.184
5.650E-06,0.188
5.660E-06,0.180
5.670E-06,0.184
5.680E-06,0.176
5.690E-06,0.172
5.700E-06,0.176
5.710E-06,0.180
5.720E-06,0.188
5.730E-06,0.184
5.740E-06,0.184
5.750E-06,0.176
5.760E-06,0.172
5.770E-06,0.176
5.780E-06,0.176
5.790E-06,0.176
5.800E-06,0.176
5.810E-06,0.180
5.820E-06,0.176
5.830E-06,0.180
5.840E-06,0.172
5.850E-06,0.168
5.860E-06,0.172
5.870E-06,0.172
5.880E-06,0.176
5.890E-06,0.176
5.900E-06,0.176
5.910E-06,0.176
5.920E-06,0.172
5.930E-06,0.176
5.940E-06,0.172
5.950E-06,0.168
5.960E-06,0.176
5.970E-06,0.168
5.980E-06,0.168
5.990E-06,0.168
6.000E-06,0.168
6.010E-06,0.164
6.020E-06,0.168
6.030E-06,0.164
6.040E-06,0.164
6.050E-06,0.156
6.060E-06,0.156
6.070E-06,0.160
6.080E-06,0.168
6.090E-06,0.168
6.100E-06,0.160
6.110E-06,0.160
6.120E-06,0.152
6.130E-06,0.156
6.140E-06,0.160
6.150E-06,0.164
6.160E-06,0.172
6.170E-06,0.160
6.180E-06,0.160
6.190E-06,0.156
6.200E-06,0.164
6.210E-06,0.156
6.220E-06,0.164
6.230E-06,0.156
6.240E-06,0.164
6.250E-06,0.164
6.260E-06,0.160
6.270E-06,0.152
6.280E-06,0.156
6.290E-06,0.156
6.300E-06,0.152
6.310E-06,0.156
6.320E-06,0.160
6.330E-06,0.160
6.340E-06,0.156
6.350E-06,0.156
6.360E-06,0.160
6.370E-06,0.152
6.380E-06,0.156
6.390E-06,0.156
6.400E-06,0.160
6.410E-06,0.152
6.420E-06,0.156
6.430E-06,0.160
6.440E-06,0.156
6.450E-06,0.144
6.460E-06,0.144
6.470E-06,0.144
6.480E-06,0.152
6.490E-06,0.152
6.500E-06,0.152
6.510E-06,0.156
6.520E-06,0.156
6.530E-06,0.152
6.540E-06,0.148
6.550E-06,0.144
6.560E-06,0.140
6.570E-06,0.140
6.580E-06,0.144
6.590E-06,0.140
6.600E-06,0.136
6.610E-06,0.136
6.620E-06,0.136
6.630E-06,0.136
6.640E-06,0.144
6.650E-06,0.140
6.660E-06,0.144
6.670E-06,0.136
6.680E-06,0.140
6.690E-06,0.136
6.700E-06,0.144
6.710E-06,0.148
6.720E-06,0.148
6.730E-06,0.144
6.740E-06,0.140
6.750E-06,0.136
6.760E-06,0.136
6.770E-06,0.136
6.780E-06,0.144
6.790E-06,0.148
6.800E-06,0.144
6.810E-06,0.140
6.820E-06,0.136
6.830E-06,0.132
6.840E-06,0.132
6.850E-06,0.140
6.860E-06,0.140
6.870E-06,0.148
6.880E-06,0.144
6.890E-06,0.136
6.900E-06,0.136
6.910E-06,0.128
6.920E-06,0.136
6.930E-06,0.136
6.940E-06,0.136
6.950E-06,0.136
6.960E-06,0.128
6.970E-06,0.124
6.980E-06,0.124
6.990E-06,0.128
7.000E-06,0.128
7.010E-06,0.128
7.020E-06,0.128
7.030E-06,0.128
7.040E-06,0.124
7.050E-06,0.124
7.060E-06,0.116
7.070E-06,0.120
7.080E-06,0.124
7.090E-06,0.128
7.100E-06,0.124
7.110E-06,0.124
7.120E-06,0.112
7.130E-06,0.112
7.140E-06,0.116
7.150E-06,0.120
7.160E-06,0.124
7.170E-06,0.128
7.180E-06,0.124
7.190E-06,0.120
7.200E-06,0.112
7.210E-06,0.112
7.220E-06,0.108
7.230E-06,0.128
7.240E-06,0.132
7.250E-06,0.128
7.260E-06,0.124
7.270E-06,0.112
7.280E-06,0.108
7.290E-06,0.108
7.300E-06,0.112
7.310E-06,0.116
7.320E-06,0.124
7.330E-06,0.124
7.340E-06,0.120
7.350E-06,0.112
7.360E-06,0.108
7.370E-06,0.100
7.380E-06,0.108
7.390E-06,0.112
7.400E-06,0.112
7.410E-06,0.112
7.420E-06,0.112
7.430E-06,0.112
7.440E-06,0.104
7.450E-06,0.104
7.460E-06,0.100
7.470E-06,0.096
7.480E-06,0.100
7.490E-06,0.104
7.500E-06,0.100
7.510E-06,0.104
7.520E-06,0.100
7.530E-06,0.100
7.540E-06,0.100
7.550E-06,0.104
7.560E-06,0.096
7.570E-06,0.100
7.580E-06,0.096
7.590E-06,0.104
7.600E-06,0.104
7.610E-06,0.104
7.620E-06,0.096
7.630E-06,0.100
7.640E-06,0.096
7.650E-06,0.104
7.660E-06,0.104
7.670E-06,0.104
7.680E-06,0.100
7.690E-06,0.096
7.700E-06,0.096
7.710E-06,0.096
7.720E-06,0.104
7.730E-06,0.104
7.740E-06,0.100
7.750E-06,0.096
7.760E-06,0.096
7.770E-06,0.088
7.780E-06,0.096
7.790E-06,0.096
