mediciones/Mediciones filtradas (saque las feas)/6-10/5/WaveData5572.csv

#timebase=2000000(ps)
,#voltbase=100000(mv/100)
#size=4000
-4.250E-06,0.008
-4.240E-06,0.008
-4.230E-06,0.004
-4.220E-06,0.000
-4.210E-06,0.004
-4.200E-06,0.000
-4.190E-06,0.004
-4.180E-06,0.012
-4.170E-06,0.004
-4.160E-06,0.008
-4.150E-06,0.004
-4.140E-06,0.000
-4.130E-06,0.004
-4.120E-06,0.004
-4.110E-06,0.012
-4.100E-06,0.024
-4.090E-06,0.028
-4.080E-06,0.024
-4.070E-06,-0.004
-4.060E-06,-0.024
-4.050E-06,-0.044
-4.040E-06,-0.028
-4.030E-06,0.004
-4.020E-06,0.036
-4.010E-06,0.020
-4.000E-06,0.008
-3.990E-06,-0.004
-3.980E-06,-0.024
-3.970E-06,-0.024
-3.960E-06,-0.008
-3.950E-06,0.004
-3.940E-06,0.028
-3.930E-06,0.032
-3.920E-06,0.016
-3.910E-06,0.000
-3.900E-06,-0.008
-3.890E-06,-0.008
-3.880E-06,-0.008
-3.870E-06,0.008
-3.860E-06,0.008
-3.850E-06,0.016
-3.840E-06,0.012
-3.830E-06,0.004
-3.820E-06,0.000
-3.810E-06,-0.008
-3.800E-06,0.000
-3.790E-06,0.000
-3.780E-06,0.000
-3.770E-06,0.004
-3.760E-06,0.004
-3.750E-06,-0.008
-3.740E-06,-0.004
-3.730E-06,0.004
-3.720E-06,0.008
-3.710E-06,0.012
-3.700E-06,0.004
-3.690E-06,0.008
-3.680E-06,0.004
-3.670E-06,0.008
-3.660E-06,0.004
-3.650E-06,0.008
-3.640E-06,0.004
-3.630E-06,-0.008
-3.620E-06,0.000
-3.610E-06,0.008
-3.600E-06,0.008
-3.590E-06,0.024
-3.580E-06,0.008
-3.570E-06,0.008
-3.560E-06,0.000
-3.550E-06,0.012
-3.540E-06,0.008
-3.530E-06,-0.004
-3.520E-06,-0.004
-3.510E-06,0.000
-3.500E-06,-0.004
-3.490E-06,0.008
-3.480E-06,0.000
-3.470E-06,0.008
-3.460E-06,0.016
-3.450E-06,0.012
-3.440E-06,0.000
-3.430E-06,-0.008
-3.420E-06,0.004
-3.410E-06,0.004
-3.400E-06,0.020
-3.390E-06,0.020
-3.380E-06,0.004
-3.370E-06,-0.008
-3.360E-06,-0.016
-3.350E-06,-0.012
-3.340E-06,-0.004
-3.330E-06,0.004
-3.320E-06,0.008
-3.310E-06,0.012
-3.300E-06,0.008
-3.290E-06,0.008
-3.280E-06,0.000
-3.270E-06,0.008
-3.260E-06,0.004
-3.250E-06,0.004
-3.240E-06,0.004
-3.230E-06,0.004
-3.220E-06,0.004
-3.210E-06,0.004
-3.200E-06,0.000
-3.190E-06,-0.004
-3.180E-06,0.004
-3.170E-06,0.004
-3.160E-06,0.000
-3.150E-06,0.004
-3.140E-06,0.008
-3.130E-06,0.000
-3.120E-06,0.004
-3.110E-06,0.000
-3.100E-06,0.004
-3.090E-06,0.004
-3.080E-06,0.008
-3.070E-06,0.004
-3.060E-06,0.004
-3.050E-06,0.008
-3.040E-06,0.004
-3.030E-06,0.004
-3.020E-06,0.000
-3.010E-06,0.000
-3.000E-06,0.004
-2.990E-06,0.008
-2.980E-06,0.004
-2.970E-06,0.008
-2.960E-06,0.012
-2.950E-06,0.000
-2.940E-06,-0.004
-2.930E-06,0.008
-2.920E-06,0.012
-2.910E-06,0.016
-2.900E-06,0.024
-2.890E-06,0.028
-2.880E-06,0.024
-2.870E-06,0.028
-2.860E-06,0.020
-2.850E-06,0.004
-2.840E-06,-0.004
-2.830E-06,-0.024
-2.820E-06,-0.024
-2.810E-06,-0.008
-2.800E-06,-0.024
-2.790E-06,0.016
-2.780E-06,0.012
-2.770E-06,0.016
-2.760E-06,0.000
-2.750E-06,-0.008
-2.740E-06,-0.008
-2.730E-06,0.004
-2.720E-06,0.012
-2.710E-06,0.020
-2.700E-06,0.012
-2.690E-06,0.000
-2.680E-06,0.004
-2.670E-06,0.004
-2.660E-06,0.008
-2.650E-06,0.004
-2.640E-06,0.008
-2.630E-06,0.012
-2.620E-06,0.024
-2.610E-06,0.028
-2.600E-06,0.028
-2.590E-06,0.024
-2.580E-06,0.012
-2.570E-06,-0.008
-2.560E-06,-0.028
-2.550E-06,-0.024
-2.540E-06,-0.024
-2.530E-06,-0.076
-2.520E-06,-0.008
-2.510E-06,-0.024
-2.500E-06,0.000
-2.490E-06,0.012
-2.480E-06,0.012
-2.470E-06,0.068
-2.460E-06,0.032
-2.450E-06,-0.016
-2.440E-06,-0.024
-2.430E-06,-0.008
-2.420E-06,0.024
-2.410E-06,0.040
-2.400E-06,0.000
-2.390E-06,-0.036
-2.380E-06,-0.024
-2.370E-06,0.004
-2.360E-06,0.036
-2.350E-06,0.040
-2.340E-06,0.024
-2.330E-06,0.004
-2.320E-06,-0.020
-2.310E-06,-0.012
-2.300E-06,-0.024
-2.290E-06,-0.012
-2.280E-06,0.004
-2.270E-06,0.024
-2.260E-06,0.012
-2.250E-06,-0.004
-2.240E-06,-0.016
-2.230E-06,-0.016
-2.220E-06,-0.004
-2.210E-06,0.024
-2.200E-06,0.028
-2.190E-06,0.020
-2.180E-06,0.004
-2.170E-06,-0.024
-2.160E-06,-0.020
-2.150E-06,-0.004
-2.140E-06,0.008
-2.130E-06,0.016
-2.120E-06,0.020
-2.110E-06,0.012
-2.100E-06,0.004
-2.090E-06,-0.008
-2.080E-06,-0.008
-2.070E-06,-0.004
-2.060E-06,0.012
-2.050E-06,0.012
-2.040E-06,0.012
-2.030E-06,0.012
-2.020E-06,0.008
-2.010E-06,0.008
-2.000E-06,0.012
-1.990E-06,0.012
-1.980E-06,0.012
-1.970E-06,0.024
-1.960E-06,0.020
-1.950E-06,0.024
-1.940E-06,0.036
-1.930E-06,0.052
-1.920E-06,0.044
-1.910E-06,0.020
-1.900E-06,-0.012
-1.890E-06,-0.024
-1.880E-06,-0.008
-1.870E-06,0.012
-1.860E-06,0.040
-1.850E-06,0.032
-1.840E-06,0.004
-1.830E-06,-0.040
-1.820E-06,0.040
-1.810E-06,-0.004
-1.800E-06,0.032
-1.790E-06,0.060
-1.780E-06,0.060
-1.770E-06,0.028
-1.760E-06,-0.012
-1.750E-06,-0.044
-1.740E-06,-0.040
-1.730E-06,-0.012
-1.720E-06,0.024
-1.710E-06,0.048
-1.700E-06,0.032
-1.690E-06,0.028
-1.680E-06,-0.008
-1.670E-06,0.028
-1.660E-06,0.024
-1.650E-06,0.024
-1.640E-06,-0.040
-1.630E-06,-0.176
-1.620E-06,-0.160
-1.610E-06,-0.140
-1.600E-06,0.056
-1.590E-06,0.104
-1.580E-06,0.112
-1.570E-06,0.000
-1.560E-06,0.000
-1.550E-06,-0.084
-1.540E-06,-0.084
-1.530E-06,-0.028
-1.520E-06,0.028
-1.510E-06,0.096
-1.500E-06,0.040
-1.490E-06,-0.004
-1.480E-06,-0.040
-1.470E-06,-0.012
-1.460E-06,-0.020
-1.450E-06,0.008
-1.440E-06,0.016
-1.430E-06,0.016
-1.420E-06,0.024
-1.410E-06,0.008
-1.400E-06,0.008
-1.390E-06,-0.008
-1.380E-06,-0.004
-1.370E-06,0.000
-1.360E-06,0.012
-1.350E-06,0.012
-1.340E-06,0.028
-1.330E-06,0.032
-1.320E-06,0.032
-1.310E-06,0.028
-1.300E-06,0.024
-1.290E-06,0.016
-1.280E-06,0.008
-1.270E-06,0.028
-1.260E-06,0.020
-1.250E-06,0.024
-1.240E-06,0.008
-1.230E-06,0.008
-1.220E-06,0.024
-1.210E-06,0.028
-1.200E-06,0.048
-1.190E-06,0.048
-1.180E-06,0.048
-1.170E-06,0.060
-1.160E-06,0.064
-1.150E-06,0.056
-1.140E-06,0.060
-1.130E-06,0.056
-1.120E-06,0.064
-1.110E-06,0.080
-1.100E-06,0.076
-1.090E-06,0.076
-1.080E-06,0.064
-1.070E-06,0.064
-1.060E-06,0.076
-1.050E-06,0.096
-1.040E-06,0.112
-1.030E-06,0.116
-1.020E-06,0.108
-1.010E-06,0.116
-1.000E-06,0.120
-9.900E-07,0.120
-9.800E-07,0.112
-9.700E-07,0.104
-9.600E-07,0.092
-9.500E-07,0.084
-9.400E-07,0.056
-9.300E-07,0.036
-9.200E-07,0.020
-9.100E-07,0.020
-9.000E-07,0.056
-8.900E-07,0.088
-8.800E-07,0.112
-8.700E-07,0.112
-8.600E-07,0.124
-8.500E-07,0.060
-8.400E-07,0.000
-8.300E-07,-0.084
-8.200E-07,-0.184
-8.100E-07,-0.248
-8.000E-07,-0.360
-7.900E-07,-0.276
-7.800E-07,-0.076
-7.700E-07,-0.036
-7.600E-07,0.100
-7.500E-07,0.032
-7.400E-07,0.020
-7.300E-07,-0.216
-7.200E-07,-0.356
-7.100E-07,-0.324
-7.000E-07,-0.204
-6.900E-07,0.060
-6.800E-07,0.192
-6.700E-07,0.208
-6.600E-07,0.072
-6.500E-07,-0.088
-6.400E-07,-0.160
-6.300E-07,-0.196
-6.200E-07,-0.088
-6.100E-07,0.024
-6.000E-07,0.164
-5.900E-07,0.160
-5.800E-07,0.152
-5.700E-07,0.020
-5.600E-07,-0.088
-5.500E-07,-0.120
-5.400E-07,-0.088
-5.300E-07,0.052
-5.200E-07,0.124
-5.100E-07,0.188
-5.000E-07,0.160
-4.900E-07,0.136
-4.800E-07,0.048
-4.700E-07,0.024
-4.600E-07,0.020
-4.500E-07,0.060
-4.400E-07,0.116
-4.300E-07,0.164
-4.200E-07,0.196
-4.100E-07,0.188
-4.000E-07,0.168
-3.900E-07,0.124
-3.800E-07,0.124
-3.700E-07,0.132
-3.600E-07,0.164
-3.500E-07,0.196
-3.400E-07,0.208
-3.300E-07,0.188
-3.200E-07,0.176
-3.100E-07,0.168
-3.000E-07,0.144
-2.900E-07,0.152
-2.800E-07,0.172
-2.700E-07,0.184
-2.600E-07,0.188
-2.500E-07,0.188
-2.400E-07,0.172
-2.300E-07,0.184
-2.200E-07,0.176
-2.100E-07,0.168
-2.000E-07,0.156
-1.900E-07,0.132
-1.800E-07,0.068
-1.700E-07,-0.012
-1.600E-07,-0.228
-1.500E-07,-0.324
-1.400E-07,-0.392
-1.300E-07,-0.468
-1.200E-07,-0.484
-1.100E-07,-0.512
-1.000E-07,-0.104
-9.000E-08,-0.128
-8.000E-08,0.196
-7.000E-08,0.112
-6.000E-08,-0.052
-5.000E-08,-0.316
-4.000E-08,-0.276
-3.000E-08,-0.108
-2.000E-08,0.060
-1.000E-08,0.196
0.000E+00,0.356
1.000E-08,0.296
2.000E-08,-0.068
3.000E-08,-0.156
4.000E-08,-0.136
5.000E-08,-0.104
6.000E-08,0.044
7.000E-08,0.160
8.000E-08,0.248
9.000E-08,0.136
1.000E-07,0.080
1.100E-07,-0.052
1.200E-07,-0.144
1.300E-07,-0.080
1.400E-07,-0.040
1.500E-07,0.096
1.600E-07,0.168
1.700E-07,0.148
1.800E-07,0.092
1.900E-07,0.008
2.000E-07,-0.004
2.100E-07,-0.020
2.200E-07,0.040
2.300E-07,0.188
2.400E-07,0.232
2.500E-07,0.276
2.600E-07,0.272
2.700E-07,0.232
2.800E-07,0.176
2.900E-07,0.168
3.000E-07,0.192
3.100E-07,0.216
3.200E-07,0.248
3.300E-07,0.248
3.400E-07,0.240
3.500E-07,0.204
3.600E-07,0.192
3.700E-07,0.180
3.800E-07,0.180
3.900E-07,0.212
4.000E-07,0.220
4.100E-07,0.240
4.200E-07,0.228
4.300E-07,0.212
4.400E-07,0.192
4.500E-07,0.176
4.600E-07,0.172
4.700E-07,0.180
4.800E-07,0.192
4.900E-07,0.196
5.000E-07,0.212
5.100E-07,0.208
5.200E-07,0.180
5.300E-07,0.164
5.400E-07,0.144
5.500E-07,0.156
5.600E-07,0.172
5.700E-07,0.180
5.800E-07,0.164
5.900E-07,0.140
6.000E-07,0.116
6.100E-07,0.108
6.200E-07,0.120
6.300E-07,0.132
6.400E-07,0.124
6.500E-07,0.076
6.600E-07,0.024
6.700E-07,-0.052
6.800E-07,-0.084
6.900E-07,-0.088
7.000E-07,-0.008
7.100E-07,0.020
7.200E-07,0.092
7.300E-07,0.224
7.400E-07,0.328
7.500E-07,0.272
7.600E-07,0.208
7.700E-07,0.140
7.800E-07,0.120
7.900E-07,0.120
8.000E-07,0.144
8.100E-07,0.276
8.200E-07,0.328
8.300E-07,0.356
8.400E-07,0.272
8.500E-07,0.144
8.600E-07,0.080
8.700E-07,0.112
8.800E-07,0.192
8.900E-07,0.244
9.000E-07,0.288
9.100E-07,0.272
9.200E-07,0.248
9.300E-07,0.192
9.400E-07,0.152
9.500E-07,0.136
9.600E-07,0.176
9.700E-07,0.224
9.800E-07,0.264
9.900E-07,0.284
1.000E-06,0.260
1.010E-06,0.204
1.020E-06,0.172
1.030E-06,0.164
1.040E-06,0.172
1.050E-06,0.200
1.060E-06,0.236
1.070E-06,0.252
1.080E-06,0.240
1.090E-06,0.220
1.100E-06,0.192
1.110E-06,0.172
1.120E-06,0.176
1.130E-06,0.192
1.140E-06,0.220
1.150E-06,0.240
1.160E-06,0.240
1.170E-06,0.224
1.180E-06,0.200
1.190E-06,0.184
1.200E-06,0.180
1.210E-06,0.184
1.220E-06,0.200
1.230E-06,0.216
1.240E-06,0.224
1.250E-06,0.220
1.260E-06,0.208
1.270E-06,0.192
1.280E-06,0.180
1.290E-06,0.188
1.300E-06,0.196
1.310E-06,0.208
1.320E-06,0.212
1.330E-06,0.220
1.340E-06,0.212
1.350E-06,0.204
1.360E-06,0.192
1.370E-06,0.188
1.380E-06,0.196
1.390E-06,0.204
1.400E-06,0.208
1.410E-06,0.216
1.420E-06,0.208
1.430E-06,0.200
1.440E-06,0.196
1.450E-06,0.188
1.460E-06,0.192
1.470E-06,0.196
1.480E-06,0.204
1.490E-06,0.208
1.500E-06,0.212
1.510E-06,0.204
1.520E-06,0.192
1.530E-06,0.180
1.540E-06,0.188
1.550E-06,0.188
1.560E-06,0.192
1.570E-06,0.204
1.580E-06,0.204
1.590E-06,0.196
1.600E-06,0.188
1.610E-06,0.184
1.620E-06,0.184
1.630E-06,0.184
1.640E-06,0.192
1.650E-06,0.188
1.660E-06,0.192
1.670E-06,0.192
1.680E-06,0.192
1.690E-06,0.184
1.700E-06,0.184
1.710E-06,0.188
1.720E-06,0.188
1.730E-06,0.196
1.740E-06,0.188
1.750E-06,0.188
1.760E-06,0.192
1.770E-06,0.184
1.780E-06,0.184
1.790E-06,0.184
1.800E-06,0.180
1.810E-06,0.184
1.820E-06,0.192
1.830E-06,0.192
1.840E-06,0.188
1.850E-06,0.184
1.860E-06,0.184
1.870E-06,0.180
1.880E-06,0.176
1.890E-06,0.180
1.900E-06,0.180
1.910E-06,0.180
1.920E-06,0.188
1.930E-06,0.192
1.940E-06,0.184
1.950E-06,0.176
1.960E-06,0.172
1.970E-06,0.176
1.980E-06,0.172
1.990E-06,0.176
2.000E-06,0.176
2.010E-06,0.184
2.020E-06,0.188
2.030E-06,0.180
2.040E-06,0.176
2.050E-06,0.172
2.060E-06,0.172
2.070E-06,0.172
2.080E-06,0.176
2.090E-06,0.176
2.100E-06,0.176
2.110E-06,0.180
2.120E-06,0.176
2.130E-06,0.172
2.140E-06,0.176
2.150E-06,0.168
2.160E-06,0.168
2.170E-06,0.176
2.180E-06,0.176
2.190E-06,0.172
2.200E-06,0.176
2.210E-06,0.168
2.220E-06,0.168
2.230E-06,0.160
2.240E-06,0.160
2.250E-06,0.168
2.260E-06,0.164
2.270E-06,0.172
2.280E-06,0.160
2.290E-06,0.176
2.300E-06,0.176
2.310E-06,0.184
2.320E-06,0.192
2.330E-06,0.184
2.340E-06,0.172
2.350E-06,0.152
2.360E-06,0.156
2.370E-06,0.152
2.380E-06,0.172
2.390E-06,0.176
2.400E-06,0.176
2.410E-06,0.176
2.420E-06,0.168
2.430E-06,0.156
2.440E-06,0.152
2.450E-06,0.148
2.460E-06,0.160
2.470E-06,0.164
2.480E-06,0.164
2.490E-06,0.176
2.500E-06,0.168
2.510E-06,0.160
2.520E-06,0.148
2.530E-06,0.152
2.540E-06,0.152
2.550E-06,0.156
2.560E-06,0.164
2.570E-06,0.164
2.580E-06,0.168
2.590E-06,0.156
2.600E-06,0.156
2.610E-06,0.148
2.620E-06,0.152
2.630E-06,0.152
2.640E-06,0.156
2.650E-06,0.164
2.660E-06,0.160
2.670E-06,0.152
2.680E-06,0.152
2.690E-06,0.144
2.700E-06,0.144
2.710E-06,0.148
2.720E-06,0.152
2.730E-06,0.160
2.740E-06,0.152
2.750E-06,0.148
2.760E-06,0.144
2.770E-06,0.144
2.780E-06,0.144
2.790E-06,0.144
2.800E-06,0.144
2.810E-06,0.144
2.820E-06,0.152
2.830E-06,0.148
2.840E-06,0.136
2.850E-06,0.136
2.860E-06,0.140
2.870E-06,0.140
2.880E-06,0.140
2.890E-06,0.136
2.900E-06,0.140
2.910E-06,0.140
2.920E-06,0.140
2.930E-06,0.136
2.940E-06,0.132
2.950E-06,0.136
2.960E-06,0.136
2.970E-06,0.140
2.980E-06,0.136
2.990E-06,0.132
3.000E-06,0.132
3.010E-06,0.128
3.020E-06,0.128
3.030E-06,0.136
3.040E-06,0.136
3.050E-06,0.136
3.060E-06,0.128
3.070E-06,0.128
3.080E-06,0.124
3.090E-06,0.128
3.100E-06,0.128
3.110E-06,0.132
3.120E-06,0.128
3.130E-06,0.132
3.140E-06,0.132
3.150E-06,0.128
3.160E-06,0.124
3.170E-06,0.120
3.180E-06,0.124
3.190E-06,0.128
3.200E-06,0.136
3.210E-06,0.132
3.220E-06,0.132
3.230E-06,0.128
3.240E-06,0.124
3.250E-06,0.120
3.260E-06,0.116
3.270E-06,0.124
3.280E-06,0.124
3.290E-06,0.128
3.300E-06,0.124
3.310E-06,0.124
3.320E-06,0.112
3.330E-06,0.116
3.340E-06,0.116
3.350E-06,0.120
3.360E-06,0.120
3.370E-06,0.124
3.380E-06,0.124
3.390E-06,0.124
3.400E-06,0.116
3.410E-06,0.116
3.420E-06,0.112
3.430E-06,0.112
3.440E-06,0.108
3.450E-06,0.108
3.460E-06,0.112
3.470E-06,0.112
3.480E-06,0.108
3.490E-06,0.116
3.500E-06,0.120
3.510E-06,0.120
3.520E-06,0.124
3.530E-06,0.124
3.540E-06,0.108
3.550E-06,0.108
3.560E-06,0.104
3.570E-06,0.108
3.580E-06,0.108
3.590E-06,0.112
3.600E-06,0.108
3.610E-06,0.112
3.620E-06,0.104
3.630E-06,0.104
3.640E-06,0.104
3.650E-06,0.104
3.660E-06,0.108
3.670E-06,0.112
3.680E-06,0.108
3.690E-06,0.104
3.700E-06,0.104
3.710E-06,0.100
3.720E-06,0.100
3.730E-06,0.104
3.740E-06,0.100
3.750E-06,0.100
3.760E-06,0.108
3.770E-06,0.108
3.780E-06,0.100
3.790E-06,0.096
3.800E-06,0.100
3.810E-06,0.096
3.820E-06,0.104
3.830E-06,0.104
3.840E-06,0.100
3.850E-06,0.096
3.860E-06,0.096
3.870E-06,0.096
3.880E-06,0.096
3.890E-06,0.092
3.900E-06,0.096
3.910E-06,0.092
3.920E-06,0.092
3.930E-06,0.092
3.940E-06,0.096
3.950E-06,0.092
3.960E-06,0.088
3.970E-06,0.088
3.980E-06,0.092
3.990E-06,0.092
4.000E-06,0.092
4.010E-06,0.088
4.020E-06,0.092
4.030E-06,0.092
4.040E-06,0.088
4.050E-06,0.088
4.060E-06,0.088
4.070E-06,0.088
4.080E-06,0.092
4.090E-06,0.088
4.100E-06,0.092
4.110E-06,0.088
4.120E-06,0.088
4.130E-06,0.088
4.140E-06,0.088
4.150E-06,0.084
4.160E-06,0.088
4.170E-06,0.084
4.180E-06,0.088
4.190E-06,0.084
4.200E-06,0.084
4.210E-06,0.088
4.220E-06,0.088
4.230E-06,0.084
4.240E-06,0.076
4.250E-06,0.076
4.260E-06,0.084
4.270E-06,0.084
4.280E-06,0.076
4.290E-06,0.080
4.300E-06,0.084
4.310E-06,0.076
4.320E-06,0.080
4.330E-06,0.076
4.340E-06,0.080
4.350E-06,0.076
4.360E-06,0.076
4.370E-06,0.076
4.380E-06,0.076
4.390E-06,0.072
4.400E-06,0.076
4.410E-06,0.072
4.420E-06,0.072
4.430E-06,0.072
4.440E-06,0.072
4.450E-06,0.076
4.460E-06,0.080
4.470E-06,0.076
4.480E-06,0.068
4.490E-06,0.076
4.500E-06,0.076
4.510E-06,0.072
4.520E-06,0.076
4.530E-06,0.072
4.540E-06,0.072
4.550E-06,0.068
4.560E-06,0.064
4.570E-06,0.064
4.580E-06,0.068
4.590E-06,0.068
4.600E-06,0.064
4.610E-06,0.064
4.620E-06,0.072
4.630E-06,0.068
4.640E-06,0.064
4.650E-06,0.068
4.660E-06,0.064
4.670E-06,0.060
4.680E-06,0.060
4.690E-06,0.060
4.700E-06,0.060
4.710E-06,0.060
4.720E-06,0.060
4.730E-06,0.060
4.740E-06,0.064
4.750E-06,0.064
4.760E-06,0.056
4.770E-06,0.056
4.780E-06,0.056
4.790E-06,0.060
4.800E-06,0.060
4.810E-06,0.056
4.820E-06,0.060
4.830E-06,0.060
4.840E-06,0.060
4.850E-06,0.056
4.860E-06,0.056
4.870E-06,0.056
4.880E-06,0.056
4.890E-06,0.060
4.900E-06,0.060
4.910E-06,0.056
4.920E-06,0.060
4.930E-06,0.056
4.940E-06,0.052
4.950E-06,0.056
4.960E-06,0.052
4.970E-06,0.052
4.980E-06,0.048
4.990E-06,0.052
5.000E-06,0.052
5.010E-06,0.056
5.020E-06,0.056
5.030E-06,0.052
5.040E-06,0.052
5.050E-06,0.052
5.060E-06,0.052
5.070E-06,0.060
5.080E-06,0.056
5.090E-06,0.052
5.100E-06,0.056
5.110E-06,0.052
5.120E-06,0.052
5.130E-06,0.056
5.140E-06,0.052
5.150E-06,0.048
5.160E-06,0.044
5.170E-06,0.044
5.180E-06,0.056
5.190E-06,0.044
5.200E-06,0.052
5.210E-06,0.048
5.220E-06,0.052
5.230E-06,0.048
5.240E-06,0.040
5.250E-06,0.040
5.260E-06,0.044
5.270E-06,0.044
5.280E-06,0.040
5.290E-06,0.048
5.300E-06,0.044
5.310E-06,0.048
5.320E-06,0.040
5.330E-06,0.032
5.340E-06,0.028
5.350E-06,0.040
5.360E-06,0.044
5.370E-06,0.044
5.380E-06,0.044
5.390E-06,0.040
5.400E-06,0.040
5.410E-06,0.040
5.420E-06,0.032
5.430E-06,0.036
5.440E-06,0.044
5.450E-06,0.040
5.460E-06,0.040
5.470E-06,0.032
5.480E-06,0.032
5.490E-06,0.032
5.500E-06,0.036
5.510E-06,0.032
5.520E-06,0.028
5.530E-06,0.036
5.540E-06,0.036
5.550E-06,0.036
5.560E-06,0.024
5.570E-06,0.028
5.580E-06,0.028
5.590E-06,0.028
5.600E-06,0.028
5.610E-06,0.032
5.620E-06,0.032
5.630E-06,0.036
5.640E-06,0.028
5.650E-06,0.024
5.660E-06,0.020
5.670E-06,0.028
5.680E-06,0.024
5.690E-06,0.028
5.700E-06,0.032
5.710E-06,0.028
5.720E-06,0.020
5.730E-06,0.028
5.740E-06,0.028
5.750E-06,0.028
5.760E-06,0.028
5.770E-06,0.032
5.780E-06,0.024
5.790E-06,0.028
5.800E-06,0.028
5.810E-06,0.024
5.820E-06,0.024
5.830E-06,0.024
5.840E-06,0.024
5.850E-06,0.024
5.860E-06,0.024
5.870E-06,0.028
5.880E-06,0.024
5.890E-06,0.020
5.900E-06,0.020
5.910E-06,0.024
5.920E-06,0.028
5.930E-06,0.020
5.940E-06,0.020
5.950E-06,0.020
5.960E-06,0.016
5.970E-06,0.024
5.980E-06,0.020
5.990E-06,0.020
6.000E-06,0.024
6.010E-06,0.024
6.020E-06,0.016
6.030E-06,0.016
6.040E-06,0.020
6.050E-06,0.024
6.060E-06,0.012
6.070E-06,0.012
6.080E-06,0.016
6.090E-06,0.016
6.100E-06,0.024
6.110E-06,0.016
6.120E-06,0.016
6.130E-06,0.016
6.140E-06,0.016
6.150E-06,0.012
6.160E-06,0.012
6.170E-06,0.016
6.180E-06,0.020
6.190E-06,0.012
6.200E-06,0.012
6.210E-06,0.016
6.220E-06,0.016
6.230E-06,0.012
6.240E-06,0.012
6.250E-06,0.012
6.260E-06,0.012
6.270E-06,0.012
6.280E-06,0.012
6.290E-06,0.008
6.300E-06,0.012
6.310E-06,0.008
6.320E-06,0.012
6.330E-06,0.016
6.340E-06,0.008
6.350E-06,0.012
6.360E-06,0.008
6.370E-06,0.008
6.380E-06,0.012
6.390E-06,0.008
6.400E-06,0.008
6.410E-06,0.012
6.420E-06,0.004
6.430E-06,0.004
6.440E-06,0.008
6.450E-06,0.004
6.460E-06,0.012
6.470E-06,0.008
6.480E-06,0.008
6.490E-06,0.008
6.500E-06,0.004
6.510E-06,0.004
6.520E-06,0.004
6.530E-06,0.012
6.540E-06,0.008
6.550E-06,0.008
6.560E-06,0.012
6.570E-06,0.004
6.580E-06,0.000
6.590E-06,0.004
6.600E-06,0.008
6.610E-06,0.000
6.620E-06,0.000
6.630E-06,0.004
6.640E-06,0.000
6.650E-06,0.004
6.660E-06,0.000
6.670E-06,0.000
6.680E-06,-0.004
6.690E-06,0.004
6.700E-06,0.000
6.710E-06,0.000
6.720E-06,0.008
6.730E-06,0.008
6.740E-06,0.000
6.750E-06,-0.004
6.760E-06,-0.004
6.770E-06,0.000
6.780E-06,-0.004
6.790E-06,0.000
6.800E-06,0.000
6.810E-06,0.000
6.820E-06,0.000
6.830E-06,0.000
6.840E-06,-0.004
6.850E-06,-0.004
6.860E-06,-0.004
6.870E-06,-0.004
6.880E-06,-0.004
6.890E-06,0.000
6.900E-06,-0.004
6.910E-06,0.000
6.920E-06,-0.004
6.930E-06,0.000
6.940E-06,-0.004
6.950E-06,0.000
6.960E-06,-0.004
6.970E-06,0.000
6.980E-06,0.000
6.990E-06,-0.004
7.000E-06,-0.004
7.010E-06,-0.004
7.020E-06,-0.004
7.030E-06,-0.004
7.040E-06,-0.004
7.050E-06,-0.004
7.060E-06,-0.004
7.070E-06,0.000
7.080E-06,-0.008
7.090E-06,0.000
7.100E-06,0.000
7.110E-06,-0.008
7.120E-06,-0.008
7.130E-06,-0.008
7.140E-06,-0.004
7.150E-06,-0.012
7.160E-06,0.000
7.170E-06,-0.008
7.180E-06,-0.008
7.190E-06,-0.008
7.200E-06,-0.004
7.210E-06,-0.008
7.220E-06,-0.004
7.230E-06,-0.008
7.240E-06,-0.004
7.250E-06,-0.008
7.260E-06,-0.012
7.270E-06,-0.004
7.280E-06,-0.012
7.290E-06,-0.008
7.300E-06,-0.008
7.310E-06,-0.012
7.320E-06,-0.012
7.330E-06,-0.004
7.340E-06,-0.008
7.350E-06,-0.008
7.360E-06,-0.012
7.370E-06,-0.008
7.380E-06,-0.004
7.390E-06,-0.008
7.400E-06,-0.008
7.410E-06,-0.012
7.420E-06,-0.008
7.430E-06,-0.012
7.440E-06,-0.008
7.450E-06,-0.008
7.460E-06,-0.012
7.470E-06,-0.012
7.480E-06,-0.012
7.490E-06,-0.012
7.500E-06,-0.008
7.510E-06,-0.012
7.520E-06,-0.012
7.530E-06,-0.016
7.540E-06,-0.012
7.550E-06,-0.016
7.560E-06,-0.008
7.570E-06,-0.008
7.580E-06,-0.016
7.590E-06,-0.012
7.600E-06,-0.016
7.610E-06,-0.008
7.620E-06,-0.012
7.630E-06,-0.020
7.640E-06,-0.016
7.650E-06,-0.012
7.660E-06,-0.016
7.670E-06,-0.012
7.680E-06,-0.020
7.690E-06,-0.020
7.700E-06,-0.024
7.710E-06,-0.016
7.720E-06,-0.020
7.730E-06,-0.024
7.740E-06,-0.020
7.750E-06,-0.016
7.760E-06,-0.020
7.770E-06,-0.016
7.780E-06,-0.016
7.790E-06,-0.020
7.800E-06,-0.016
