mediciones/Mediciones filtradas (saque las feas)/6-10/5/WaveData5573.csv

#timebase=2000000(ps)
,#voltbase=200000(mv/100)
#size=4000
-4.250E-06,0.120
-4.240E-06,0.144
-4.230E-06,0.096
-4.220E-06,0.096
-4.210E-06,0.072
-4.200E-06,0.032
-4.190E-06,0.040
-4.180E-06,0.040
-4.170E-06,0.024
-4.160E-06,0.016
-4.150E-06,-0.016
-4.140E-06,-0.016
-4.130E-06,-0.024
-4.120E-06,-0.016
-4.110E-06,-0.048
-4.100E-06,-0.008
-4.090E-06,-0.016
-4.080E-06,-0.072
-4.070E-06,-0.032
-4.060E-06,-0.032
-4.050E-06,-0.080
-4.040E-06,0.016
-4.030E-06,-0.160
-4.020E-06,-0.120
-4.010E-06,-0.048
-4.000E-06,-0.016
-3.990E-06,0.184
-3.980E-06,0.192
-3.970E-06,0.120
-3.960E-06,0.024
-3.950E-06,-0.080
-3.940E-06,-0.088
-3.930E-06,0.032
-3.920E-06,0.096
-3.910E-06,0.128
-3.900E-06,0.072
-3.890E-06,-0.008
-3.880E-06,-0.080
-3.870E-06,-0.096
-3.860E-06,-0.064
-3.850E-06,-0.016
-3.840E-06,-0.008
-3.830E-06,-0.056
-3.820E-06,-0.104
-3.810E-06,-0.128
-3.800E-06,-0.120
-3.790E-06,-0.080
-3.780E-06,-0.088
-3.770E-06,-0.096
-3.760E-06,-0.112
-3.750E-06,-0.240
-3.740E-06,-0.216
-3.730E-06,-0.224
-3.720E-06,-0.208
-3.710E-06,-0.064
-3.700E-06,-0.024
-3.690E-06,0.048
-3.680E-06,0.032
-3.670E-06,-0.016
-3.660E-06,-0.016
-3.650E-06,0.000
-3.640E-06,0.096
-3.630E-06,0.128
-3.620E-06,0.168
-3.610E-06,0.104
-3.600E-06,0.064
-3.590E-06,0.040
-3.580E-06,0.048
-3.570E-06,0.104
-3.560E-06,0.112
-3.550E-06,0.040
-3.540E-06,0.000
-3.530E-06,0.072
-3.520E-06,0.000
-3.510E-06,0.152
-3.500E-06,0.184
-3.490E-06,0.144
-3.480E-06,0.120
-3.470E-06,0.024
-3.460E-06,-0.040
-3.450E-06,0.016
-3.440E-06,0.048
-3.430E-06,0.080
-3.420E-06,0.080
-3.410E-06,0.000
-3.400E-06,-0.048
-3.390E-06,-0.056
-3.380E-06,-0.040
-3.370E-06,-0.016
-3.360E-06,-0.040
-3.350E-06,-0.056
-3.340E-06,-0.072
-3.330E-06,-0.016
-3.320E-06,-0.016
-3.310E-06,0.072
-3.300E-06,0.056
-3.290E-06,-0.016
-3.280E-06,-0.032
-3.270E-06,-0.056
-3.260E-06,-0.008
-3.250E-06,0.064
-3.240E-06,0.048
-3.230E-06,0.008
-3.220E-06,-0.016
-3.210E-06,-0.072
-3.200E-06,-0.040
-3.190E-06,-0.040
-3.180E-06,-0.048
-3.170E-06,0.000
-3.160E-06,-0.048
-3.150E-06,-0.056
-3.140E-06,-0.072
-3.130E-06,-0.096
-3.120E-06,-0.080
-3.110E-06,-0.064
-3.100E-06,-0.104
-3.090E-06,-0.104
-3.080E-06,-0.104
-3.070E-06,-0.080
-3.060E-06,-0.048
-3.050E-06,-0.056
-3.040E-06,-0.024
-3.030E-06,-0.048
-3.020E-06,0.000
-3.010E-06,0.000
-3.000E-06,0.000
-2.990E-06,0.032
-2.980E-06,0.024
-2.970E-06,0.048
-2.960E-06,0.096
-2.950E-06,0.088
-2.940E-06,0.112
-2.930E-06,0.104
-2.920E-06,0.080
-2.910E-06,0.080
-2.900E-06,0.088
-2.890E-06,0.128
-2.880E-06,0.136
-2.870E-06,0.136
-2.860E-06,0.152
-2.850E-06,0.096
-2.840E-06,0.096
-2.830E-06,0.104
-2.820E-06,0.032
-2.810E-06,0.072
-2.800E-06,-0.136
-2.790E-06,-0.088
-2.780E-06,-0.056
-2.770E-06,-0.032
-2.760E-06,0.160
-2.750E-06,0.208
-2.740E-06,0.136
-2.730E-06,0.096
-2.720E-06,0.016
-2.710E-06,-0.008
-2.700E-06,0.112
-2.690E-06,0.080
-2.680E-06,0.128
-2.670E-06,0.096
-2.660E-06,0.024
-2.650E-06,0.040
-2.640E-06,0.032
-2.630E-06,0.048
-2.620E-06,0.008
-2.610E-06,0.024
-2.600E-06,-0.040
-2.590E-06,-0.024
-2.580E-06,-0.024
-2.570E-06,0.040
-2.560E-06,0.000
-2.550E-06,0.000
-2.540E-06,-0.216
-2.530E-06,-0.120
-2.520E-06,-0.032
-2.510E-06,-0.128
-2.500E-06,-0.232
-2.490E-06,-0.104
-2.480E-06,0.072
-2.470E-06,0.072
-2.460E-06,0.640
-2.450E-06,0.304
-2.440E-06,0.168
-2.430E-06,-0.064
-2.420E-06,-0.440
-2.410E-06,-0.064
-2.400E-06,0.064
-2.390E-06,0.272
-2.380E-06,0.312
-2.370E-06,0.032
-2.360E-06,-0.288
-2.350E-06,-0.224
-2.340E-06,-0.280
-2.330E-06,-0.064
-2.320E-06,0.128
-2.310E-06,0.056
-2.300E-06,-0.048
-2.290E-06,-0.160
-2.280E-06,-0.368
-2.270E-06,-0.256
-2.260E-06,-0.080
-2.250E-06,0.048
-2.240E-06,0.088
-2.230E-06,0.016
-2.220E-06,-0.096
-2.210E-06,-0.200
-2.200E-06,-0.152
-2.190E-06,-0.096
-2.180E-06,0.064
-2.170E-06,0.112
-2.160E-06,0.104
-2.150E-06,0.016
-2.140E-06,-0.056
-2.130E-06,-0.064
-2.120E-06,0.000
-2.110E-06,0.072
-2.100E-06,0.104
-2.090E-06,0.064
-2.080E-06,-0.008
-2.070E-06,-0.040
-2.060E-06,-0.040
-2.050E-06,0.024
-2.040E-06,0.088
-2.030E-06,0.088
-2.020E-06,0.088
-2.010E-06,0.064
-2.000E-06,0.032
-1.990E-06,0.088
-1.980E-06,0.088
-1.970E-06,0.136
-1.960E-06,0.136
-1.950E-06,0.120
-1.940E-06,0.096
-1.930E-06,0.080
-1.920E-06,0.128
-1.910E-06,0.136
-1.900E-06,0.216
-1.890E-06,0.200
-1.880E-06,0.136
-1.870E-06,0.040
-1.860E-06,0.008
-1.850E-06,0.048
-1.840E-06,0.088
-1.830E-06,0.120
-1.820E-06,0.112
-1.810E-06,0.032
-1.800E-06,0.016
-1.790E-06,0.016
-1.780E-06,0.192
-1.770E-06,0.200
-1.760E-06,0.336
-1.750E-06,0.288
-1.740E-06,0.072
-1.730E-06,0.080
-1.720E-06,0.000
-1.710E-06,0.096
-1.700E-06,0.296
-1.690E-06,0.304
-1.680E-06,0.352
-1.670E-06,0.336
-1.660E-06,0.240
-1.650E-06,0.280
-1.640E-06,0.600
-1.630E-06,0.432
-1.620E-06,0.664
-1.610E-06,0.176
-1.600E-06,0.032
-1.590E-06,-0.216
-1.580E-06,0.296
-1.570E-06,0.408
-1.560E-06,0.864
-1.550E-06,0.800
-1.540E-06,0.288
-1.530E-06,0.208
-1.520E-06,-0.040
-1.510E-06,0.080
-1.500E-06,0.512
-1.490E-06,0.560
-1.480E-06,0.360
-1.470E-06,0.224
-1.460E-06,-0.216
-1.450E-06,-0.120
-1.440E-06,0.008
-1.430E-06,0.080
-1.420E-06,0.224
-1.410E-06,0.032
-1.400E-06,-0.192
-1.390E-06,-0.240
-1.380E-06,-0.224
-1.370E-06,-0.104
-1.360E-06,0.040
-1.350E-06,-0.032
-1.340E-06,-0.088
-1.330E-06,-0.216
-1.320E-06,-0.248
-1.310E-06,-0.232
-1.300E-06,-0.152
-1.290E-06,-0.128
-1.280E-06,-0.112
-1.270E-06,-0.144
-1.260E-06,-0.176
-1.250E-06,-0.120
-1.240E-06,-0.056
-1.230E-06,-0.040
-1.220E-06,0.032
-1.210E-06,0.024
-1.200E-06,0.024
-1.190E-06,0.080
-1.180E-06,0.128
-1.170E-06,0.192
-1.160E-06,0.200
-1.150E-06,0.200
-1.140E-06,0.160
-1.130E-06,0.192
-1.120E-06,0.200
-1.110E-06,0.240
-1.100E-06,0.296
-1.090E-06,0.288
-1.080E-06,0.248
-1.070E-06,0.192
-1.060E-06,0.128
-1.050E-06,0.128
-1.040E-06,0.152
-1.030E-06,0.232
-1.020E-06,0.304
-1.010E-06,0.320
-1.000E-06,0.312
-9.900E-07,0.200
-9.800E-07,0.160
-9.700E-07,0.096
-9.600E-07,0.096
-9.500E-07,0.064
-9.400E-07,0.056
-9.300E-07,0.008
-9.200E-07,-0.064
-9.100E-07,-0.112
-9.000E-07,-0.160
-8.900E-07,-0.200
-8.800E-07,-0.136
-8.700E-07,-0.128
-8.600E-07,-0.056
-8.500E-07,0.072
-8.400E-07,0.096
-8.300E-07,0.096
-8.200E-07,0.256
-8.100E-07,0.240
-8.000E-07,0.344
-7.900E-07,0.128
-7.800E-07,-0.128
-7.700E-07,0.064
-7.600E-07,-0.144
-7.500E-07,0.456
-7.400E-07,0.848
-7.300E-07,0.816
-7.200E-07,1.080
-7.100E-07,0.392
-7.000E-07,0.520
-6.900E-07,0.096
-6.800E-07,0.112
-6.700E-07,0.600
-6.600E-07,0.976
-6.500E-07,1.080
-6.400E-07,0.696
-6.300E-07,0.544
-6.200E-07,0.472
-6.100E-07,0.416
-6.000E-07,0.936
-5.900E-07,1.072
-5.800E-07,1.024
-5.700E-07,1.080
-5.600E-07,0.904
-5.500E-07,0.880
-5.400E-07,0.792
-5.300E-07,0.384
-5.200E-07,0.424
-5.100E-07,0.248
-5.000E-07,0.088
-4.900E-07,-0.032
-4.800E-07,-0.016
-4.700E-07,-0.272
-4.600E-07,-0.304
-4.500E-07,-0.400
-4.400E-07,-0.472
-4.300E-07,-0.360
-4.200E-07,-0.392
-4.100E-07,-0.472
-4.000E-07,-0.504
-3.900E-07,-0.496
-3.800E-07,-0.512
-3.700E-07,-0.344
-3.600E-07,-0.304
-3.500E-07,-0.304
-3.400E-07,-0.216
-3.300E-07,-0.080
-3.200E-07,-0.064
-3.100E-07,0.160
-3.000E-07,0.144
-2.900E-07,0.128
-2.800E-07,0.304
-2.700E-07,0.256
-2.600E-07,0.336
-2.500E-07,0.344
-2.400E-07,0.296
-2.300E-07,0.264
-2.200E-07,0.296
-2.100E-07,0.272
-2.000E-07,0.416
-1.900E-07,0.536
-1.800E-07,0.504
-1.700E-07,0.528
-1.600E-07,0.472
-1.500E-07,0.296
-1.400E-07,0.304
-1.300E-07,0.320
-1.200E-07,0.344
-1.100E-07,0.280
-1.000E-07,0.192
-9.000E-08,0.248
-8.000E-08,0.576
-7.000E-08,1.016
-6.000E-08,1.080
-5.000E-08,1.088
-4.000E-08,1.080
-3.000E-08,1.080
-2.000E-08,0.712
-1.000E-08,0.296
0.000E+00,-0.016
1.000E-08,0.360
2.000E-08,0.808
3.000E-08,0.664
4.000E-08,0.456
5.000E-08,-0.008
6.000E-08,-0.112
7.000E-08,0.192
8.000E-08,0.552
9.000E-08,0.872
1.000E-07,1.080
1.100E-07,1.072
1.200E-07,1.032
1.300E-07,0.968
1.400E-07,0.712
1.500E-07,0.704
1.600E-07,0.504
1.700E-07,0.408
1.800E-07,0.256
1.900E-07,0.160
2.000E-07,0.104
2.100E-07,-0.288
2.200E-07,-0.472
2.300E-07,-1.040
2.400E-07,-1.048
2.500E-07,-1.048
2.600E-07,-1.048
2.700E-07,-1.032
2.800E-07,-1.040
2.900E-07,-1.040
3.000E-07,-1.048
3.100E-07,-1.040
3.200E-07,-1.040
3.300E-07,-1.040
3.400E-07,-1.040
3.500E-07,-1.040
3.600E-07,-1.040
3.700E-07,-1.048
3.800E-07,-1.040
3.900E-07,-1.048
4.000E-07,-1.032
4.100E-07,-1.040
4.200E-07,-1.048
4.300E-07,-1.040
4.400E-07,-1.048
4.500E-07,-1.032
4.600E-07,-1.032
4.700E-07,-1.040
4.800E-07,-1.032
4.900E-07,-1.040
5.000E-07,-1.032
5.100E-07,-1.040
5.200E-07,-1.040
5.300E-07,-1.048
5.400E-07,-1.040
5.500E-07,-1.032
5.600E-07,-1.040
5.700E-07,-1.032
5.800E-07,-1.040
5.900E-07,-1.032
6.000E-07,-0.784
6.100E-07,-0.608
6.200E-07,-0.496
6.300E-07,-0.336
6.400E-07,-0.248
6.500E-07,-0.104
6.600E-07,0.104
6.700E-07,-0.008
6.800E-07,0.176
6.900E-07,-0.008
7.000E-07,-0.304
7.100E-07,-0.072
7.200E-07,0.112
7.300E-07,0.384
7.400E-07,0.704
7.500E-07,0.664
7.600E-07,0.712
7.700E-07,0.824
7.800E-07,0.656
7.900E-07,0.896
8.000E-07,0.456
8.100E-07,0.104
8.200E-07,0.072
8.300E-07,-0.048
8.400E-07,0.288
8.500E-07,0.496
8.600E-07,0.424
8.700E-07,0.392
8.800E-07,0.224
8.900E-07,0.192
9.000E-07,0.224
9.100E-07,0.368
9.200E-07,0.352
9.300E-07,0.432
9.400E-07,0.336
9.500E-07,0.312
9.600E-07,0.200
9.700E-07,0.136
9.800E-07,0.008
9.900E-07,-0.096
1.000E-06,-0.248
1.010E-06,-0.392
1.020E-06,-0.480
1.030E-06,-0.568
1.040E-06,-0.648
1.050E-06,-0.752
1.060E-06,-0.800
1.070E-06,-0.848
1.080E-06,-0.856
1.090E-06,-0.864
1.100E-06,-0.880
1.110E-06,-0.880
1.120E-06,-0.848
1.130E-06,-0.784
1.140E-06,-0.696
1.150E-06,-0.656
1.160E-06,-0.664
1.170E-06,-0.664
1.180E-06,-0.672
1.190E-06,-0.664
1.200E-06,-0.640
1.210E-06,-0.616
1.220E-06,-0.584
1.230E-06,-0.528
1.240E-06,-0.496
1.250E-06,-0.480
1.260E-06,-0.544
1.270E-06,-0.592
1.280E-06,-0.624
1.290E-06,-0.632
1.300E-06,-0.720
1.310E-06,-0.760
1.320E-06,-0.792
1.330E-06,-0.816
1.340E-06,-0.808
1.350E-06,-0.832
1.360E-06,-0.856
1.370E-06,-0.896
1.380E-06,-0.880
1.390E-06,-0.872
1.400E-06,-0.864
1.410E-06,-0.864
1.420E-06,-0.864
1.430E-06,-0.864
1.440E-06,-0.808
1.450E-06,-0.768
1.460E-06,-0.704
1.470E-06,-0.624
1.480E-06,-0.576
1.490E-06,-0.528
1.500E-06,-0.480
1.510E-06,-0.456
1.520E-06,-0.448
1.530E-06,-0.488
1.540E-06,-0.536
1.550E-06,-0.584
1.560E-06,-0.632
1.570E-06,-0.680
1.580E-06,-0.752
1.590E-06,-0.832
1.600E-06,-0.936
1.610E-06,-1.040
1.620E-06,-1.032
1.630E-06,-1.040
1.640E-06,-1.032
1.650E-06,-1.040
1.660E-06,-1.048
1.670E-06,-1.048
1.680E-06,-1.048
1.690E-06,-1.032
1.700E-06,-1.040
1.710E-06,-1.040
1.720E-06,-1.048
1.730E-06,-1.040
1.740E-06,-1.048
1.750E-06,-1.032
1.760E-06,-1.032
1.770E-06,-1.040
1.780E-06,-1.040
1.790E-06,-0.976
1.800E-06,-0.848
1.810E-06,-0.776
1.820E-06,-0.744
1.830E-06,-0.704
1.840E-06,-0.688
1.850E-06,-0.624
1.860E-06,-0.520
1.870E-06,-0.416
1.880E-06,-0.376
1.890E-06,-0.400
1.900E-06,-0.408
1.910E-06,-0.408
1.920E-06,-0.440
1.930E-06,-0.448
1.940E-06,-0.472
1.950E-06,-0.472
1.960E-06,-0.496
1.970E-06,-0.512
1.980E-06,-0.512
1.990E-06,-0.528
2.000E-06,-0.496
2.010E-06,-0.464
2.020E-06,-0.400
2.030E-06,-0.360
2.040E-06,-0.320
2.050E-06,-0.280
2.060E-06,-0.184
2.070E-06,-0.120
2.080E-06,-0.096
2.090E-06,-0.064
2.100E-06,-0.032
2.110E-06,-0.008
2.120E-06,0.032
2.130E-06,0.064
2.140E-06,0.104
2.150E-06,0.056
2.160E-06,0.048
2.170E-06,0.072
2.180E-06,0.104
2.190E-06,0.152
2.200E-06,0.184
2.210E-06,0.168
2.220E-06,0.168
2.230E-06,0.128
2.240E-06,0.024
2.250E-06,0.032
2.260E-06,-0.064
2.270E-06,-0.016
2.280E-06,-0.072
2.290E-06,-0.208
2.300E-06,-0.368
2.310E-06,-0.680
2.320E-06,-0.848
2.330E-06,-0.904
2.340E-06,-0.864
2.350E-06,-0.688
2.360E-06,-0.456
2.370E-06,-0.264
2.380E-06,-0.072
2.390E-06,-0.024
2.400E-06,-0.032
2.410E-06,-0.040
2.420E-06,-0.040
2.430E-06,-0.024
2.440E-06,0.008
2.450E-06,0.048
2.460E-06,0.016
2.470E-06,0.016
2.480E-06,-0.024
2.490E-06,-0.072
2.500E-06,-0.120
2.510E-06,-0.144
2.520E-06,-0.144
2.530E-06,-0.192
2.540E-06,-0.208
2.550E-06,-0.248
2.560E-06,-0.248
2.570E-06,-0.256
2.580E-06,-0.248
2.590E-06,-0.208
2.600E-06,-0.152
2.610E-06,-0.112
2.620E-06,-0.064
2.630E-06,-0.016
2.640E-06,0.024
2.650E-06,0.040
2.660E-06,0.064
2.670E-06,0.072
2.680E-06,0.064
2.690E-06,0.056
2.700E-06,0.048
2.710E-06,0.016
2.720E-06,-0.016
2.730E-06,-0.040
2.740E-06,-0.032
2.750E-06,-0.032
2.760E-06,-0.064
2.770E-06,-0.056
2.780E-06,-0.080
2.790E-06,-0.120
2.800E-06,-0.120
2.810E-06,-0.160
2.820E-06,-0.208
2.830E-06,-0.216
2.840E-06,-0.232
2.850E-06,-0.200
2.860E-06,-0.128
2.870E-06,-0.080
2.880E-06,-0.024
2.890E-06,0.032
2.900E-06,0.112
2.910E-06,0.168
2.920E-06,0.232
2.930E-06,0.272
2.940E-06,0.240
2.950E-06,0.256
2.960E-06,0.192
2.970E-06,0.152
2.980E-06,0.152
2.990E-06,0.088
3.000E-06,0.064
3.010E-06,-0.008
3.020E-06,-0.104
3.030E-06,-0.184
3.040E-06,-0.264
3.050E-06,-0.312
3.060E-06,-0.344
3.070E-06,-0.360
3.080E-06,-0.384
3.090E-06,-0.432
3.100E-06,-0.488
3.110E-06,-0.504
3.120E-06,-0.512
3.130E-06,-0.472
3.140E-06,-0.384
3.150E-06,-0.296
3.160E-06,-0.216
3.170E-06,-0.144
3.180E-06,-0.128
3.190E-06,-0.120
3.200E-06,-0.112
3.210E-06,-0.104
3.220E-06,-0.064
3.230E-06,0.000
3.240E-06,0.080
3.250E-06,0.184
3.260E-06,0.288
3.270E-06,0.368
3.280E-06,0.464
3.290E-06,0.512
3.300E-06,0.568
3.310E-06,0.600
3.320E-06,0.608
3.330E-06,0.576
3.340E-06,0.520
3.350E-06,0.440
3.360E-06,0.328
3.370E-06,0.216
3.380E-06,0.112
3.390E-06,0.000
3.400E-06,-0.080
3.410E-06,-0.136
3.420E-06,-0.136
3.430E-06,-0.096
3.440E-06,-0.024
3.450E-06,0.064
3.460E-06,0.104
3.470E-06,0.104
3.480E-06,0.040
3.490E-06,-0.120
3.500E-06,-0.288
3.510E-06,-0.440
3.520E-06,-0.560
3.530E-06,-0.608
3.540E-06,-0.592
3.550E-06,-0.504
3.560E-06,-0.424
3.570E-06,-0.320
3.580E-06,-0.216
3.590E-06,-0.136
3.600E-06,-0.040
3.610E-06,0.000
3.620E-06,0.040
3.630E-06,0.072
3.640E-06,0.088
3.650E-06,0.112
3.660E-06,0.136
3.670E-06,0.152
3.680E-06,0.216
3.690E-06,0.280
3.700E-06,0.344
3.710E-06,0.400
3.720E-06,0.448
3.730E-06,0.504
3.740E-06,0.552
3.750E-06,0.568
3.760E-06,0.568
3.770E-06,0.568
3.780E-06,0.536
3.790E-06,0.488
3.800E-06,0.416
3.810E-06,0.336
3.820E-06,0.240
3.830E-06,0.168
3.840E-06,0.096
3.850E-06,0.024
3.860E-06,-0.016
3.870E-06,-0.032
3.880E-06,-0.024
3.890E-06,0.008
3.900E-06,0.064
3.910E-06,0.120
3.920E-06,0.192
3.930E-06,0.240
3.940E-06,0.280
3.950E-06,0.312
3.960E-06,0.328
3.970E-06,0.328
3.980E-06,0.288
3.990E-06,0.232
4.000E-06,0.176
4.010E-06,0.128
4.020E-06,0.088
4.030E-06,0.056
4.040E-06,0.032
4.050E-06,0.040
4.060E-06,0.056
4.070E-06,0.048
4.080E-06,0.056
4.090E-06,0.048
4.100E-06,0.032
4.110E-06,0.000
4.120E-06,-0.024
4.130E-06,-0.072
4.140E-06,-0.096
4.150E-06,-0.112
4.160E-06,-0.128
4.170E-06,-0.152
4.180E-06,-0.176
4.190E-06,-0.192
4.200E-06,-0.192
4.210E-06,-0.184
4.220E-06,-0.160
4.230E-06,-0.136
4.240E-06,-0.088
4.250E-06,-0.040
4.260E-06,-0.008
4.270E-06,0.048
4.280E-06,0.104
4.290E-06,0.160
4.300E-06,0.208
4.310E-06,0.296
4.320E-06,0.344
4.330E-06,0.408
4.340E-06,0.440
4.350E-06,0.504
4.360E-06,0.552
4.370E-06,0.616
4.380E-06,0.672
4.390E-06,0.704
4.400E-06,0.704
4.410E-06,0.672
4.420E-06,0.624
4.430E-06,0.520
4.440E-06,0.408
4.450E-06,0.312
4.460E-06,0.216
4.470E-06,0.168
4.480E-06,0.128
4.490E-06,0.136
4.500E-06,0.144
4.510E-06,0.184
4.520E-06,0.248
4.530E-06,0.312
4.540E-06,0.376
4.550E-06,0.424
4.560E-06,0.472
4.570E-06,0.472
4.580E-06,0.480
4.590E-06,0.456
4.600E-06,0.440
4.610E-06,0.400
4.620E-06,0.328
4.630E-06,0.288
4.640E-06,0.256
4.650E-06,0.232
4.660E-06,0.264
4.670E-06,0.336
4.680E-06,0.408
4.690E-06,0.464
4.700E-06,0.528
4.710E-06,0.560
4.720E-06,0.560
4.730E-06,0.528
4.740E-06,0.496
4.750E-06,0.456
4.760E-06,0.400
4.770E-06,0.344
4.780E-06,0.296
4.790E-06,0.272
4.800E-06,0.240
4.810E-06,0.200
4.820E-06,0.176
4.830E-06,0.144
4.840E-06,0.104
4.850E-06,0.072
4.860E-06,0.048
4.870E-06,0.008
4.880E-06,-0.008
4.890E-06,-0.024
4.900E-06,-0.032
4.910E-06,-0.032
4.920E-06,-0.024
4.930E-06,0.032
4.940E-06,0.072
4.950E-06,0.136
4.960E-06,0.224
4.970E-06,0.296
4.980E-06,0.360
4.990E-06,0.416
5.000E-06,0.440
5.010E-06,0.424
5.020E-06,0.416
5.030E-06,0.400
5.040E-06,0.368
5.050E-06,0.368
5.060E-06,0.408
5.070E-06,0.512
5.080E-06,0.640
5.090E-06,0.864
5.100E-06,1.088
5.110E-06,1.080
5.120E-06,1.080
5.130E-06,1.080
5.140E-06,1.080
5.150E-06,1.080
5.160E-06,1.080
5.170E-06,1.080
5.180E-06,1.088
5.190E-06,1.088
5.200E-06,1.080
5.210E-06,1.088
5.220E-06,1.088
5.230E-06,1.080
5.240E-06,1.080
5.250E-06,1.088
5.260E-06,1.088
5.270E-06,1.080
5.280E-06,1.080
5.290E-06,1.088
5.300E-06,1.088
5.310E-06,1.080
5.320E-06,1.088
5.330E-06,1.080
5.340E-06,1.080
5.350E-06,1.088
5.360E-06,1.080
5.370E-06,1.080
5.380E-06,1.080
5.390E-06,1.080
5.400E-06,1.080
5.410E-06,1.080
5.420E-06,1.072
5.430E-06,1.080
5.440E-06,1.080
5.450E-06,1.032
5.460E-06,0.968
5.470E-06,0.920
5.480E-06,0.856
5.490E-06,0.800
5.500E-06,0.680
5.510E-06,0.640
5.520E-06,0.632
5.530E-06,0.648
5.540E-06,0.648
5.550E-06,0.648
5.560E-06,0.656
5.570E-06,0.640
5.580E-06,0.608
5.590E-06,0.576
5.600E-06,0.536
5.610E-06,0.512
5.620E-06,0.464
5.630E-06,0.456
5.640E-06,0.432
5.650E-06,0.424
5.660E-06,0.424
5.670E-06,0.432
5.680E-06,0.440
5.690E-06,0.448
5.700E-06,0.424
5.710E-06,0.440
5.720E-06,0.464
5.730E-06,0.456
5.740E-06,0.456
5.750E-06,0.456
5.760E-06,0.424
5.770E-06,0.424
5.780E-06,0.408
5.790E-06,0.400
5.800E-06,0.376
5.810E-06,0.360
5.820E-06,0.344
5.830E-06,0.352
5.840E-06,0.336
5.850E-06,0.328
5.860E-06,0.304
5.870E-06,0.288
5.880E-06,0.272
5.890E-06,0.248
5.900E-06,0.232
5.910E-06,0.216
5.920E-06,0.208
5.930E-06,0.208
5.940E-06,0.192
5.950E-06,0.216
5.960E-06,0.216
5.970E-06,0.216
5.980E-06,0.224
5.990E-06,0.208
6.000E-06,0.200
6.010E-06,0.192
6.020E-06,0.168
6.030E-06,0.168
6.040E-06,0.160
6.050E-06,0.152
6.060E-06,0.152
6.070E-06,0.152
6.080E-06,0.144
6.090E-06,0.152
6.100E-06,0.144
6.110E-06,0.152
6.120E-06,0.152
6.130E-06,0.160
6.140E-06,0.176
6.150E-06,0.176
6.160E-06,0.184
6.170E-06,0.184
6.180E-06,0.184
6.190E-06,0.184
6.200E-06,0.184
6.210E-06,0.200
6.220E-06,0.200
6.230E-06,0.224
6.240E-06,0.240
6.250E-06,0.256
6.260E-06,0.288
6.270E-06,0.312
6.280E-06,0.328
6.290E-06,0.344
6.300E-06,0.344
6.310E-06,0.360
6.320E-06,0.344
6.330E-06,0.336
6.340E-06,0.328
6.350E-06,0.328
6.360E-06,0.328
6.370E-06,0.312
6.380E-06,0.304
6.390E-06,0.296
6.400E-06,0.296
6.410E-06,0.296
6.420E-06,0.304
6.430E-06,0.320
6.440E-06,0.328
6.450E-06,0.328
6.460E-06,0.328
6.470E-06,0.320
6.480E-06,0.328
6.490E-06,0.328
6.500E-06,0.328
6.510E-06,0.320
6.520E-06,0.320
6.530E-06,0.304
6.540E-06,0.288
6.550E-06,0.288
6.560E-06,0.280
6.570E-06,0.288
6.580E-06,0.296
6.590E-06,0.288
6.600E-06,0.280
6.610E-06,0.288
6.620E-06,0.296
6.630E-06,0.296
6.640E-06,0.296
6.650E-06,0.296
6.660E-06,0.288
6.670E-06,0.272
6.680E-06,0.256
6.690E-06,0.240
6.700E-06,0.240
6.710E-06,0.232
6.720E-06,0.216
6.730E-06,0.208
6.740E-06,0.208
6.750E-06,0.200
6.760E-06,0.208
6.770E-06,0.200
6.780E-06,0.200
6.790E-06,0.200
6.800E-06,0.208
6.810E-06,0.224
6.820E-06,0.224
6.830E-06,0.232
6.840E-06,0.240
6.850E-06,0.232
6.860E-06,0.224
6.870E-06,0.224
6.880E-06,0.216
6.890E-06,0.216
6.900E-06,0.208
6.910E-06,0.200
6.920E-06,0.208
6.930E-06,0.200
6.940E-06,0.208
6.950E-06,0.208
6.960E-06,0.208
6.970E-06,0.208
6.980E-06,0.216
6.990E-06,0.232
7.000E-06,0.224
7.010E-06,0.232
7.020E-06,0.232
7.030E-06,0.240
7.040E-06,0.224
7.050E-06,0.208
7.060E-06,0.216
7.070E-06,0.208
7.080E-06,0.192
7.090E-06,0.208
7.100E-06,0.208
7.110E-06,0.200
7.120E-06,0.200
7.130E-06,0.200
7.140E-06,0.200
7.150E-06,0.200
7.160E-06,0.200
7.170E-06,0.200
7.180E-06,0.192
7.190E-06,0.192
7.200E-06,0.192
7.210E-06,0.192
7.220E-06,0.192
7.230E-06,0.184
7.240E-06,0.184
7.250E-06,0.184
7.260E-06,0.184
7.270E-06,0.176
7.280E-06,0.184
7.290E-06,0.176
7.300E-06,0.168
7.310E-06,0.176
7.320E-06,0.184
7.330E-06,0.168
7.340E-06,0.176
7.350E-06,0.168
7.360E-06,0.168
7.370E-06,0.160
7.380E-06,0.160
7.390E-06,0.168
7.400E-06,0.168
7.410E-06,0.168
7.420E-06,0.168
7.430E-06,0.160
7.440E-06,0.168
7.450E-06,0.160
7.460E-06,0.152
7.470E-06,0.160
7.480E-06,0.160
7.490E-06,0.160
7.500E-06,0.152
7.510E-06,0.144
7.520E-06,0.160
7.530E-06,0.160
7.540E-06,0.144
7.550E-06,0.144
7.560E-06,0.144
7.570E-06,0.144
7.580E-06,0.144
7.590E-06,0.152
7.600E-06,0.152
7.610E-06,0.160
7.620E-06,0.152
7.630E-06,0.160
7.640E-06,0.152
7.650E-06,0.160
7.660E-06,0.144
