mediciones/Mediciones filtradas (saque las feas)/6-10/5/WaveData5575.csv

#timebase=2000000(ps)
,#voltbase=200000(mv/100)
#size=4000
-4.250E-06,0.000
-4.240E-06,0.000
-4.230E-06,-0.008
-4.220E-06,0.000
-4.210E-06,0.000
-4.200E-06,0.000
-4.190E-06,-0.008
-4.180E-06,-0.008
-4.170E-06,0.000
-4.160E-06,0.016
-4.150E-06,0.008
-4.140E-06,0.008
-4.130E-06,-0.008
-4.120E-06,0.000
-4.110E-06,0.000
-4.100E-06,0.000
-4.090E-06,0.000
-4.080E-06,0.000
-4.070E-06,0.000
-4.060E-06,0.000
-4.050E-06,-0.008
-4.040E-06,0.000
-4.030E-06,-0.008
-4.020E-06,0.000
-4.010E-06,0.008
-4.000E-06,-0.008
-3.990E-06,-0.008
-3.980E-06,0.000
-3.970E-06,-0.008
-3.960E-06,-0.008
-3.950E-06,0.000
-3.940E-06,0.000
-3.930E-06,0.000
-3.920E-06,0.000
-3.910E-06,-0.008
-3.900E-06,0.000
-3.890E-06,-0.008
-3.880E-06,0.000
-3.870E-06,0.008
-3.860E-06,-0.008
-3.850E-06,0.000
-3.840E-06,0.000
-3.830E-06,0.000
-3.820E-06,-0.008
-3.810E-06,0.000
-3.800E-06,-0.008
-3.790E-06,0.000
-3.780E-06,-0.008
-3.770E-06,-0.008
-3.760E-06,0.000
-3.750E-06,-0.008
-3.740E-06,0.000
-3.730E-06,-0.008
-3.720E-06,0.000
-3.710E-06,0.008
-3.700E-06,0.008
-3.690E-06,-0.008
-3.680E-06,-0.008
-3.670E-06,0.000
-3.660E-06,-0.008
-3.650E-06,-0.008
-3.640E-06,0.000
-3.630E-06,-0.008
-3.620E-06,0.000
-3.610E-06,0.000
-3.600E-06,0.000
-3.590E-06,0.000
-3.580E-06,0.000
-3.570E-06,0.000
-3.560E-06,0.000
-3.550E-06,0.000
-3.540E-06,0.000
-3.530E-06,0.000
-3.520E-06,0.000
-3.510E-06,0.000
-3.500E-06,0.000
-3.490E-06,-0.008
-3.480E-06,0.000
-3.470E-06,-0.008
-3.460E-06,0.008
-3.450E-06,0.000
-3.440E-06,0.000
-3.430E-06,0.000
-3.420E-06,0.000
-3.410E-06,-0.008
-3.400E-06,0.008
-3.390E-06,0.000
-3.380E-06,0.000
-3.370E-06,0.000
-3.360E-06,0.000
-3.350E-06,0.000
-3.340E-06,0.000
-3.330E-06,0.008
-3.320E-06,-0.008
-3.310E-06,0.000
-3.300E-06,-0.008
-3.290E-06,0.000
-3.280E-06,0.000
-3.270E-06,0.000
-3.260E-06,-0.008
-3.250E-06,0.000
-3.240E-06,0.000
-3.230E-06,0.000
-3.220E-06,0.000
-3.210E-06,0.000
-3.200E-06,0.000
-3.190E-06,-0.008
-3.180E-06,0.008
-3.170E-06,0.008
-3.160E-06,0.008
-3.150E-06,0.000
-3.140E-06,0.008
-3.130E-06,-0.008
-3.120E-06,-0.008
-3.110E-06,0.000
-3.100E-06,0.000
-3.090E-06,0.000
-3.080E-06,0.000
-3.070E-06,0.008
-3.060E-06,0.000
-3.050E-06,0.000
-3.040E-06,0.000
-3.030E-06,0.000
-3.020E-06,0.000
-3.010E-06,0.008
-3.000E-06,0.008
-2.990E-06,0.000
-2.980E-06,0.016
-2.970E-06,0.072
-2.960E-06,0.192
-2.950E-06,0.432
-2.940E-06,0.816
-2.930E-06,1.080
-2.920E-06,1.088
-2.910E-06,1.088
-2.900E-06,1.080
-2.890E-06,1.080
-2.880E-06,1.088
-2.870E-06,0.600
-2.860E-06,-0.704
-2.850E-06,-1.040
-2.840E-06,-1.048
-2.830E-06,-1.040
-2.820E-06,-1.032
-2.810E-06,-1.040
-2.800E-06,-1.032
-2.790E-06,-1.032
-2.780E-06,-1.040
-2.770E-06,-1.048
-2.760E-06,-0.872
-2.750E-06,-0.464
-2.740E-06,-0.128
-2.730E-06,0.224
-2.720E-06,0.296
-2.710E-06,0.368
-2.700E-06,0.440
-2.690E-06,0.536
-2.680E-06,0.616
-2.670E-06,0.776
-2.660E-06,0.944
-2.650E-06,1.088
-2.640E-06,1.080
-2.630E-06,1.088
-2.620E-06,1.080
-2.610E-06,1.080
-2.600E-06,0.984
-2.590E-06,0.640
-2.580E-06,0.336
-2.570E-06,0.040
-2.560E-06,-0.224
-2.550E-06,-0.456
-2.540E-06,-0.664
-2.530E-06,-0.776
-2.520E-06,-0.768
-2.510E-06,-0.640
-2.500E-06,-0.352
-2.490E-06,-0.008
-2.480E-06,0.328
-2.470E-06,0.600
-2.460E-06,0.792
-2.450E-06,0.912
-2.440E-06,0.944
-2.430E-06,0.920
-2.420E-06,0.808
-2.410E-06,0.664
-2.400E-06,0.472
-2.390E-06,0.344
-2.380E-06,0.176
-2.370E-06,-0.040
-2.360E-06,-0.232
-2.350E-06,-0.440
-2.340E-06,-0.736
-2.330E-06,-0.896
-2.320E-06,-1.040
-2.310E-06,-1.048
-2.300E-06,-1.032
-2.290E-06,-1.040
-2.280E-06,-1.048
-2.270E-06,-1.040
-2.260E-06,-1.032
-2.250E-06,-1.016
-2.240E-06,-0.776
-2.230E-06,-0.536
-2.220E-06,-0.280
-2.210E-06,0.088
-2.200E-06,0.296
-2.190E-06,0.448
-2.180E-06,0.720
-2.170E-06,0.808
-2.160E-06,0.920
-2.150E-06,0.960
-2.140E-06,0.968
-2.130E-06,0.872
-2.120E-06,0.672
-2.110E-06,0.504
-2.100E-06,0.376
-2.090E-06,0.272
-2.080E-06,0.176
-2.070E-06,0.080
-2.060E-06,-0.048
-2.050E-06,-0.200
-2.040E-06,-0.320
-2.030E-06,-0.368
-2.020E-06,-0.424
-2.010E-06,-0.400
-2.000E-06,-0.416
-1.990E-06,-0.448
-1.980E-06,-0.408
-1.970E-06,-0.368
-1.960E-06,-0.248
-1.950E-06,-0.096
-1.940E-06,0.000
-1.930E-06,0.136
-1.920E-06,0.184
-1.910E-06,0.272
-1.900E-06,0.352
-1.890E-06,0.400
-1.880E-06,0.432
-1.870E-06,0.448
-1.860E-06,0.416
-1.850E-06,0.352
-1.840E-06,0.304
-1.830E-06,0.200
-1.820E-06,0.160
-1.810E-06,0.104
-1.800E-06,0.032
-1.790E-06,0.000
-1.780E-06,-0.104
-1.770E-06,-0.136
-1.760E-06,-0.168
-1.750E-06,-0.200
-1.740E-06,-0.200
-1.730E-06,-0.240
-1.720E-06,-0.224
-1.710E-06,-0.272
-1.700E-06,-0.256
-1.690E-06,-0.216
-1.680E-06,-0.200
-1.670E-06,-0.144
-1.660E-06,-0.120
-1.650E-06,-0.136
-1.640E-06,-0.080
-1.630E-06,-0.040
-1.620E-06,0.008
-1.610E-06,0.128
-1.600E-06,0.184
-1.590E-06,0.168
-1.580E-06,0.184
-1.570E-06,0.328
-1.560E-06,0.168
-1.550E-06,0.296
-1.540E-06,0.208
-1.530E-06,0.128
-1.520E-06,0.128
-1.510E-06,0.168
-1.500E-06,0.200
-1.490E-06,0.240
-1.480E-06,0.208
-1.470E-06,0.080
-1.460E-06,0.064
-1.450E-06,-0.024
-1.440E-06,0.000
-1.430E-06,0.080
-1.420E-06,0.160
-1.410E-06,0.056
-1.400E-06,0.144
-1.390E-06,0.048
-1.380E-06,-0.016
-1.370E-06,0.072
-1.360E-06,-0.064
-1.350E-06,0.008
-1.340E-06,0.008
-1.330E-06,-0.024
-1.320E-06,0.032
-1.310E-06,0.048
-1.300E-06,0.048
-1.290E-06,0.104
-1.280E-06,0.128
-1.270E-06,0.128
-1.260E-06,0.160
-1.250E-06,0.144
-1.240E-06,0.160
-1.230E-06,0.136
-1.220E-06,0.152
-1.210E-06,0.136
-1.200E-06,0.112
-1.190E-06,0.080
-1.180E-06,0.048
-1.170E-06,0.032
-1.160E-06,0.024
-1.150E-06,0.056
-1.140E-06,0.040
-1.130E-06,0.056
-1.120E-06,0.072
-1.110E-06,0.104
-1.100E-06,0.168
-1.090E-06,0.224
-1.080E-06,0.264
-1.070E-06,0.288
-1.060E-06,0.304
-1.050E-06,0.304
-1.040E-06,0.312
-1.030E-06,0.368
-1.020E-06,0.384
-1.010E-06,0.400
-1.000E-06,0.400
-9.900E-07,0.400
-9.800E-07,0.368
-9.700E-07,0.368
-9.600E-07,0.376
-9.500E-07,0.352
-9.400E-07,0.352
-9.300E-07,0.224
-9.200E-07,0.088
-9.100E-07,-0.096
-9.000E-07,-0.192
-8.900E-07,-0.288
-8.800E-07,-0.136
-8.700E-07,0.024
-8.600E-07,0.104
-8.500E-07,0.144
-8.400E-07,0.088
-8.300E-07,-0.064
-8.200E-07,0.072
-8.100E-07,0.064
-8.000E-07,0.344
-7.900E-07,0.416
-7.800E-07,0.440
-7.700E-07,0.400
-7.600E-07,0.168
-7.500E-07,0.472
-7.400E-07,0.224
-7.300E-07,0.528
-7.200E-07,0.368
-7.100E-07,-0.016
-7.000E-07,0.064
-6.900E-07,-0.216
-6.800E-07,-0.248
-6.700E-07,-0.240
-6.600E-07,-0.456
-6.500E-07,-0.400
-6.400E-07,-0.328
-6.300E-07,-0.072
-6.200E-07,0.408
-6.100E-07,0.824
-6.000E-07,1.056
-5.900E-07,1.080
-5.800E-07,1.080
-5.700E-07,0.872
-5.600E-07,0.944
-5.500E-07,0.968
-5.400E-07,1.072
-5.300E-07,1.088
-5.200E-07,1.080
-5.100E-07,0.808
-5.000E-07,0.608
-4.900E-07,0.328
-4.800E-07,0.040
-4.700E-07,-0.008
-4.600E-07,-0.128
-4.500E-07,-0.096
-4.400E-07,-0.072
-4.300E-07,-0.112
-4.200E-07,-0.176
-4.100E-07,-0.264
-4.000E-07,-0.376
-3.900E-07,-0.360
-3.800E-07,-0.312
-3.700E-07,-0.192
-3.600E-07,-0.056
-3.500E-07,0.024
-3.400E-07,0.072
-3.300E-07,0.096
-3.200E-07,0.128
-3.100E-07,0.168
-3.000E-07,0.256
-2.900E-07,0.304
-2.800E-07,0.344
-2.700E-07,0.312
-2.600E-07,0.208
-2.500E-07,0.096
-2.400E-07,0.000
-2.300E-07,-0.104
-2.200E-07,-0.192
-2.100E-07,-0.240
-2.000E-07,-0.320
-1.900E-07,-0.344
-1.800E-07,-0.368
-1.700E-07,-0.336
-1.600E-07,-0.280
-1.500E-07,-0.200
-1.400E-07,-0.072
-1.300E-07,0.064
-1.200E-07,0.240
-1.100E-07,0.400
-1.000E-07,0.552
-9.000E-08,0.648
-8.000E-08,0.672
-7.000E-08,0.640
-6.000E-08,0.560
-5.000E-08,0.328
-4.000E-08,0.752
-3.000E-08,0.024
-2.000E-08,-1.040
-1.000E-08,-0.552
0.000E+00,-1.040
1.000E-08,-0.016
2.000E-08,1.080
3.000E-08,1.072
4.000E-08,1.080
5.000E-08,0.432
6.000E-08,-1.048
7.000E-08,-1.048
8.000E-08,-1.032
9.000E-08,0.424
1.000E-07,1.088
1.100E-07,1.088
1.200E-07,0.840
1.300E-07,-0.328
1.400E-07,-0.448
1.500E-07,-0.408
1.600E-07,0.600
1.700E-07,1.056
1.800E-07,0.888
1.900E-07,0.728
2.000E-07,0.272
2.100E-07,0.176
2.200E-07,0.400
2.300E-07,0.352
2.400E-07,0.232
2.500E-07,0.128
2.600E-07,-0.064
2.700E-07,0.000
2.800E-07,0.232
2.900E-07,0.248
3.000E-07,0.184
3.100E-07,-0.016
3.200E-07,-0.272
3.300E-07,-0.200
3.400E-07,-0.184
3.500E-07,0.032
3.600E-07,0.168
3.700E-07,0.200
3.800E-07,0.120
3.900E-07,0.000
4.000E-07,-0.112
4.100E-07,-0.152
4.200E-07,-0.096
4.300E-07,0.040
4.400E-07,0.176
4.500E-07,0.192
4.600E-07,0.312
4.700E-07,0.264
4.800E-07,0.368
4.900E-07,0.392
5.000E-07,0.416
5.100E-07,0.400
5.200E-07,0.288
5.300E-07,0.352
5.400E-07,0.344
5.500E-07,0.576
5.600E-07,0.512
5.700E-07,0.392
5.800E-07,0.280
5.900E-07,0.208
6.000E-07,0.040
6.100E-07,0.400
6.200E-07,0.528
6.300E-07,-0.680
6.400E-07,1.088
6.500E-07,-1.040
6.600E-07,-1.032
6.700E-07,-1.040
6.800E-07,-1.048
6.900E-07,-0.128
7.000E-07,1.080
7.100E-07,1.088
7.200E-07,1.080
7.300E-07,0.152
7.400E-07,-1.032
7.500E-07,-1.040
7.600E-07,-1.040
7.700E-07,0.912
7.800E-07,1.080
7.900E-07,1.080
8.000E-07,0.912
8.100E-07,0.408
8.200E-07,-0.424
8.300E-07,0.248
8.400E-07,0.912
8.500E-07,0.872
8.600E-07,1.080
8.700E-07,0.544
8.800E-07,0.176
8.900E-07,0.136
9.000E-07,0.048
9.100E-07,-0.160
9.200E-07,-0.272
9.300E-07,-0.440
9.400E-07,-0.328
9.500E-07,-0.104
9.600E-07,0.048
9.700E-07,0.000
9.800E-07,-0.088
9.900E-07,-0.152
1.000E-06,-0.096
1.010E-06,0.040
1.020E-06,0.128
1.030E-06,0.208
1.040E-06,0.256
1.050E-06,0.328
1.060E-06,0.248
1.070E-06,0.168
1.080E-06,-0.072
1.090E-06,-0.152
1.100E-06,0.000
1.110E-06,0.080
1.120E-06,0.216
1.130E-06,0.240
1.140E-06,0.168
1.150E-06,0.264
1.160E-06,0.160
1.170E-06,0.064
1.180E-06,0.072
1.190E-06,-0.048
1.200E-06,-0.032
1.210E-06,-0.080
1.220E-06,0.024
1.230E-06,-0.032
1.240E-06,0.064
1.250E-06,0.376
1.260E-06,0.216
1.270E-06,-0.816
1.280E-06,-0.304
1.290E-06,0.016
1.300E-06,-0.048
1.310E-06,0.864
1.320E-06,-0.184
1.330E-06,-0.088
1.340E-06,-0.168
1.350E-06,-0.504
1.360E-06,0.632
1.370E-06,0.896
1.380E-06,1.080
1.390E-06,1.080
1.400E-06,0.672
1.410E-06,0.584
1.420E-06,0.088
1.430E-06,0.640
1.440E-06,0.648
1.450E-06,0.880
1.460E-06,1.080
1.470E-06,0.504
1.480E-06,0.224
1.490E-06,0.040
1.500E-06,0.264
1.510E-06,-0.304
1.520E-06,-0.304
1.530E-06,-0.928
1.540E-06,-1.040
1.550E-06,-0.424
1.560E-06,-0.136
1.570E-06,0.584
1.580E-06,0.304
1.590E-06,-0.456
1.600E-06,-1.040
1.610E-06,-1.040
1.620E-06,-0.736
1.630E-06,0.088
1.640E-06,0.296
1.650E-06,0.424
1.660E-06,-0.120
1.670E-06,-0.336
1.680E-06,-0.256
1.690E-06,0.048
1.700E-06,0.648
1.710E-06,0.800
1.720E-06,0.736
1.730E-06,0.584
1.740E-06,0.176
1.750E-06,-0.072
1.760E-06,0.160
1.770E-06,0.216
1.780E-06,0.440
1.790E-06,0.576
1.800E-06,0.352
1.810E-06,0.336
1.820E-06,0.096
1.830E-06,-0.136
1.840E-06,-0.008
1.850E-06,-0.016
1.860E-06,0.040
1.870E-06,0.456
1.880E-06,0.480
1.890E-06,0.600
1.900E-06,0.704
1.910E-06,0.464
1.920E-06,0.600
1.930E-06,0.664
1.940E-06,0.528
1.950E-06,0.552
1.960E-06,0.728
1.970E-06,0.808
1.980E-06,0.792
1.990E-06,0.680
2.000E-06,0.560
2.010E-06,0.304
2.020E-06,0.248
2.030E-06,0.296
2.040E-06,0.512
2.050E-06,0.664
2.060E-06,0.608
2.070E-06,0.552
2.080E-06,-0.064
2.090E-06,0.136
2.100E-06,-0.168
2.110E-06,0.344
2.120E-06,0.064
2.130E-06,-0.280
2.140E-06,-0.552
2.150E-06,-0.904
2.160E-06,0.216
2.170E-06,-0.952
2.180E-06,0.632
2.190E-06,0.240
2.200E-06,-0.312
2.210E-06,1.080
2.220E-06,-0.080
2.230E-06,1.064
2.240E-06,0.992
2.250E-06,0.072
2.260E-06,1.080
2.270E-06,0.616
2.280E-06,0.576
2.290E-06,1.088
2.300E-06,1.088
2.310E-06,1.080
2.320E-06,1.080
2.330E-06,1.080
2.340E-06,1.088
2.350E-06,1.080
2.360E-06,0.728
2.370E-06,0.752
2.380E-06,0.752
2.390E-06,0.440
2.400E-06,0.280
2.410E-06,-0.288
2.420E-06,-0.600
2.430E-06,-0.856
2.440E-06,-0.816
2.450E-06,-0.640
2.460E-06,-0.520
2.470E-06,-0.264
2.480E-06,-0.344
2.490E-06,-0.608
2.500E-06,-0.632
2.510E-06,-0.624
2.520E-06,-0.568
2.530E-06,-0.320
2.540E-06,-0.200
2.550E-06,-0.104
2.560E-06,-0.112
2.570E-06,-0.224
2.580E-06,-0.328
2.590E-06,-0.504
2.600E-06,-0.504
2.610E-06,-0.496
2.620E-06,-0.528
2.630E-06,-0.536
2.640E-06,-0.568
2.650E-06,-0.520
2.660E-06,-0.408
2.670E-06,-0.568
2.680E-06,-0.424
2.690E-06,-0.536
2.700E-06,-0.376
2.710E-06,-0.136
2.720E-06,0.136
2.730E-06,0.656
2.740E-06,0.656
2.750E-06,1.080
2.760E-06,0.800
2.770E-06,0.104
2.780E-06,0.440
2.790E-06,0.072
2.800E-06,0.256
2.810E-06,1.080
2.820E-06,1.080
2.830E-06,1.080
2.840E-06,1.080
2.850E-06,0.936
2.860E-06,-0.520
2.870E-06,-1.016
2.880E-06,-1.048
2.890E-06,-0.472
2.900E-06,0.624
2.910E-06,0.952
2.920E-06,1.040
2.930E-06,1.088
2.940E-06,0.768
2.950E-06,0.928
2.960E-06,1.072
2.970E-06,0.720
2.980E-06,1.080
2.990E-06,1.088
3.000E-06,1.080
3.010E-06,1.080
3.020E-06,1.072
3.030E-06,1.080
3.040E-06,0.728
3.050E-06,0.184
3.060E-06,0.032
3.070E-06,0.072
3.080E-06,0.288
3.090E-06,0.160
3.100E-06,-0.072
3.110E-06,-0.416
3.120E-06,-0.792
3.130E-06,-0.800
3.140E-06,-0.856
3.150E-06,-0.872
3.160E-06,-0.848
3.170E-06,-0.872
3.180E-06,-0.960
3.190E-06,-1.008
3.200E-06,-1.032
3.210E-06,-1.040
3.220E-06,-1.048
3.230E-06,-1.048
3.240E-06,-1.048
3.250E-06,-1.048
3.260E-06,-1.032
3.270E-06,-1.032
3.280E-06,-1.040
3.290E-06,-1.032
3.300E-06,-1.040
3.310E-06,-1.032
3.320E-06,-1.040
3.330E-06,-1.040
3.340E-06,-1.040
3.350E-06,-1.048
3.360E-06,-1.040
3.370E-06,-1.032
3.380E-06,-1.040
3.390E-06,-1.040
3.400E-06,-1.048
3.410E-06,-1.040
3.420E-06,-1.040
3.430E-06,-1.040
3.440E-06,-1.048
3.450E-06,-1.040
3.460E-06,-1.032
3.470E-06,-1.040
3.480E-06,-1.032
3.490E-06,-1.032
3.500E-06,-1.040
3.510E-06,-1.048
3.520E-06,-1.032
3.530E-06,-1.040
3.540E-06,-1.048
3.550E-06,-1.040
3.560E-06,-1.048
3.570E-06,-1.032
3.580E-06,-1.040
3.590E-06,-1.048
3.600E-06,-1.040
3.610E-06,-1.040
3.620E-06,-1.048
3.630E-06,-1.040
3.640E-06,-1.032
3.650E-06,-1.032
3.660E-06,-1.040
3.670E-06,-1.032
3.680E-06,-1.040
3.690E-06,-1.040
3.700E-06,-1.048
3.710E-06,-1.040
3.720E-06,-1.032
3.730E-06,-1.040
3.740E-06,-1.048
3.750E-06,-1.040
3.760E-06,-1.032
3.770E-06,-1.040
3.780E-06,-1.048
3.790E-06,-1.032
3.800E-06,-1.032
3.810E-06,-0.952
3.820E-06,-0.872
3.830E-06,-0.760
3.840E-06,-0.656
3.850E-06,-0.568
3.860E-06,-0.464
3.870E-06,-0.384
3.880E-06,-0.320
3.890E-06,-0.264
3.900E-06,-0.192
3.910E-06,-0.152
3.920E-06,-0.128
3.930E-06,-0.136
3.940E-06,-0.152
3.950E-06,-0.144
3.960E-06,-0.152
3.970E-06,-0.120
3.980E-06,-0.128
3.990E-06,-0.128
4.000E-06,-0.112
4.010E-06,-0.088
4.020E-06,-0.096
4.030E-06,-0.120
4.040E-06,-0.104
4.050E-06,-0.088
4.060E-06,-0.048
4.070E-06,0.024
4.080E-06,0.080
4.090E-06,0.160
4.100E-06,0.192
4.110E-06,0.208
4.120E-06,0.176
4.130E-06,0.120
4.140E-06,0.032
4.150E-06,-0.112
4.160E-06,-0.184
4.170E-06,-0.272
4.180E-06,-0.312
4.190E-06,-0.256
4.200E-06,-0.264
4.210E-06,-0.312
4.220E-06,-0.320
4.230E-06,-0.384
4.240E-06,-0.400
4.250E-06,-0.328
4.260E-06,-0.280
4.270E-06,-0.232
4.280E-06,-0.248
4.290E-06,-0.320
4.300E-06,-0.312
4.310E-06,-0.328
4.320E-06,-0.336
4.330E-06,-0.328
4.340E-06,-0.328
4.350E-06,-0.344
4.360E-06,-0.352
4.370E-06,-0.344
4.380E-06,-0.328
4.390E-06,-0.304
4.400E-06,-0.288
4.410E-06,-0.264
4.420E-06,-0.216
4.430E-06,-0.144
4.440E-06,-0.096
4.450E-06,-0.048
4.460E-06,-0.024
4.470E-06,0.016
4.480E-06,0.056
4.490E-06,0.096
4.500E-06,0.136
4.510E-06,0.176
4.520E-06,0.184
4.530E-06,0.200
4.540E-06,0.224
4.550E-06,0.224
4.560E-06,0.232
4.570E-06,0.208
4.580E-06,0.192
4.590E-06,0.184
4.600E-06,0.160
4.610E-06,0.152
4.620E-06,0.144
4.630E-06,0.160
4.640E-06,0.168
4.650E-06,0.168
4.660E-06,0.144
4.670E-06,0.136
4.680E-06,0.064
4.690E-06,0.000
4.700E-06,-0.064
4.710E-06,-0.112
4.720E-06,-0.128
4.730E-06,-0.184
4.740E-06,-0.224
4.750E-06,-0.256
4.760E-06,-0.288
4.770E-06,-0.272
4.780E-06,-0.272
4.790E-06,-0.248
4.800E-06,-0.216
4.810E-06,-0.224
4.820E-06,-0.208
4.830E-06,-0.184
4.840E-06,-0.176
4.850E-06,-0.160
4.860E-06,-0.144
4.870E-06,-0.112
4.880E-06,-0.088
4.890E-06,-0.048
4.900E-06,-0.024
4.910E-06,0.032
4.920E-06,0.032
4.930E-06,0.088
4.940E-06,0.136
4.950E-06,0.136
4.960E-06,0.168
4.970E-06,0.160
4.980E-06,0.160
4.990E-06,0.152
5.000E-06,0.128
5.010E-06,0.136
5.020E-06,0.128
5.030E-06,0.128
5.040E-06,0.136
5.050E-06,0.136
5.060E-06,0.144
5.070E-06,0.144
5.080E-06,0.144
5.090E-06,0.136
5.100E-06,0.128
5.110E-06,0.136
5.120E-06,0.104
5.130E-06,0.040
5.140E-06,0.032
5.150E-06,-0.016
5.160E-06,-0.016
5.170E-06,-0.048
5.180E-06,-0.096
5.190E-06,-0.112
5.200E-06,-0.160
5.210E-06,-0.216
5.220E-06,-0.296
5.230E-06,-0.400
5.240E-06,-0.496
5.250E-06,-0.616
5.260E-06,-0.704
5.270E-06,-0.776
5.280E-06,-0.888
5.290E-06,-0.936
5.300E-06,-0.944
5.310E-06,-0.912
5.320E-06,-0.808
5.330E-06,-0.680
5.340E-06,-0.544
5.350E-06,-0.384
5.360E-06,-0.296
5.370E-06,-0.264
5.380E-06,-0.224
5.390E-06,-0.264
5.400E-06,-0.240
5.410E-06,-0.216
5.420E-06,-0.160
5.430E-06,-0.072
5.440E-06,0.032
5.450E-06,0.104
5.460E-06,0.128
5.470E-06,0.112
5.480E-06,0.040
5.490E-06,0.000
5.500E-06,-0.064
5.510E-06,-0.112
5.520E-06,-0.080
5.530E-06,-0.048
5.540E-06,0.016
5.550E-06,0.152
5.560E-06,0.248
5.570E-06,0.352
5.580E-06,0.384
5.590E-06,0.376
5.600E-06,0.336
5.610E-06,0.256
5.620E-06,0.168
5.630E-06,0.136
5.640E-06,0.136
5.650E-06,0.168
5.660E-06,0.248
5.670E-06,0.320
5.680E-06,0.400
5.690E-06,0.408
5.700E-06,0.440
5.710E-06,0.488
5.720E-06,0.520
5.730E-06,0.576
5.740E-06,0.632
5.750E-06,0.680
5.760E-06,0.696
5.770E-06,0.688
5.780E-06,0.664
5.790E-06,0.632
5.800E-06,0.600
5.810E-06,0.552
5.820E-06,0.480
5.830E-06,0.400
5.840E-06,0.320
5.850E-06,0.208
5.860E-06,0.080
5.870E-06,-0.040
5.880E-06,-0.160
5.890E-06,-0.288
5.900E-06,-0.376
5.910E-06,-0.448
5.920E-06,-0.496
5.930E-06,-0.528
5.940E-06,-0.536
5.950E-06,-0.528
5.960E-06,-0.528
5.970E-06,-0.552
5.980E-06,-0.632
5.990E-06,-0.736
6.000E-06,-0.864
6.010E-06,-0.976
6.020E-06,-1.040
6.030E-06,-1.048
6.040E-06,-1.000
6.050E-06,-0.896
6.060E-06,-0.736
6.070E-06,-0.528
6.080E-06,-0.280
6.090E-06,-0.032
6.100E-06,0.216
6.110E-06,0.440
6.120E-06,0.600
6.130E-06,0.704
6.140E-06,0.752
6.150E-06,0.760
6.160E-06,0.720
6.170E-06,0.696
6.180E-06,0.648
6.190E-06,0.608
6.200E-06,0.576
6.210E-06,0.536
6.220E-06,0.488
6.230E-06,0.432
6.240E-06,0.376
6.250E-06,0.344
6.260E-06,0.304
6.270E-06,0.256
6.280E-06,0.208
6.290E-06,0.152
6.300E-06,0.056
6.310E-06,-0.024
6.320E-06,-0.080
6.330E-06,-0.128
6.340E-06,-0.152
6.350E-06,-0.144
6.360E-06,-0.128
6.370E-06,-0.096
6.380E-06,-0.032
6.390E-06,0.040
6.400E-06,0.104
6.410E-06,0.152
6.420E-06,0.208
6.430E-06,0.208
6.440E-06,0.232
6.450E-06,0.272
6.460E-06,0.304
6.470E-06,0.368
6.480E-06,0.432
6.490E-06,0.496
6.500E-06,0.576
6.510E-06,0.664
6.520E-06,0.728
6.530E-06,0.768
6.540E-06,0.808
6.550E-06,0.824
6.560E-06,0.824
6.570E-06,0.832
6.580E-06,0.832
6.590E-06,0.832
6.600E-06,0.808
6.610E-06,0.744
6.620E-06,0.656
6.630E-06,0.552
6.640E-06,0.448
6.650E-06,0.368
6.660E-06,0.320
6.670E-06,0.312
6.680E-06,0.336
6.690E-06,0.360
6.700E-06,0.400
6.710E-06,0.432
6.720E-06,0.488
6.730E-06,0.544
6.740E-06,0.576
6.750E-06,0.600
6.760E-06,0.616
6.770E-06,0.600
6.780E-06,0.608
6.790E-06,0.608
6.800E-06,0.600
6.810E-06,0.592
6.820E-06,0.560
6.830E-06,0.552
6.840E-06,0.536
6.850E-06,0.552
6.860E-06,0.560
6.870E-06,0.568
6.880E-06,0.560
6.890E-06,0.536
6.900E-06,0.480
6.910E-06,0.392
6.920E-06,0.304
6.930E-06,0.192
6.940E-06,0.096
6.950E-06,0.032
6.960E-06,0.000
6.970E-06,-0.008
6.980E-06,0.040
6.990E-06,0.104
7.000E-06,0.168
7.010E-06,0.192
7.020E-06,0.184
7.030E-06,0.136
7.040E-06,0.056
7.050E-06,-0.024
7.060E-06,-0.064
7.070E-06,-0.096
7.080E-06,-0.088
7.090E-06,-0.040
7.100E-06,0.008
7.110E-06,0.088
7.120E-06,0.144
7.130E-06,0.208
7.140E-06,0.240
7.150E-06,0.304
7.160E-06,0.344
7.170E-06,0.384
7.180E-06,0.424
7.190E-06,0.472
7.200E-06,0.528
7.210E-06,0.616
7.220E-06,0.720
7.230E-06,0.880
7.240E-06,1.080
7.250E-06,1.080
7.260E-06,1.088
7.270E-06,1.080
7.280E-06,1.080
7.290E-06,1.072
7.300E-06,1.080
7.310E-06,1.088
7.320E-06,1.080
7.330E-06,1.072
7.340E-06,1.080
7.350E-06,1.080
7.360E-06,1.088
7.370E-06,1.088
7.380E-06,1.080
7.390E-06,1.088
7.400E-06,1.080
7.410E-06,1.080
7.420E-06,1.088
7.430E-06,1.088
7.440E-06,1.080
7.450E-06,1.080
7.460E-06,1.088
7.470E-06,1.088
7.480E-06,1.080
7.490E-06,1.088
7.500E-06,1.080
7.510E-06,1.080
7.520E-06,1.072
7.530E-06,1.080
7.540E-06,1.080
7.550E-06,1.024
7.560E-06,0.920
7.570E-06,0.840
7.580E-06,0.664
7.590E-06,0.552
7.600E-06,0.472
7.610E-06,0.416
7.620E-06,0.384
7.630E-06,0.400
7.640E-06,0.416
