mediciones/Mediciones filtradas (saque las feas)/6-10/5/WaveData5574.csv

#timebase=2000000(ps)
,#voltbase=100000(mv/100)
#size=4000
-4.250E-06,0.004
-4.240E-06,0.004
-4.230E-06,0.004
-4.220E-06,0.000
-4.210E-06,0.000
-4.200E-06,0.004
-4.190E-06,0.004
-4.180E-06,0.004
-4.170E-06,0.004
-4.160E-06,0.000
-4.150E-06,0.004
-4.140E-06,0.004
-4.130E-06,0.008
-4.120E-06,0.004
-4.110E-06,0.000
-4.100E-06,0.000
-4.090E-06,0.004
-4.080E-06,0.008
-4.070E-06,0.008
-4.060E-06,-0.004
-4.050E-06,0.004
-4.040E-06,0.000
-4.030E-06,0.000
-4.020E-06,0.000
-4.010E-06,0.004
-4.000E-06,0.000
-3.990E-06,0.004
-3.980E-06,0.004
-3.970E-06,0.000
-3.960E-06,0.000
-3.950E-06,0.004
-3.940E-06,0.004
-3.930E-06,0.004
-3.920E-06,0.000
-3.910E-06,0.000
-3.900E-06,0.004
-3.890E-06,0.004
-3.880E-06,0.004
-3.870E-06,0.004
-3.860E-06,0.004
-3.850E-06,0.004
-3.840E-06,0.004
-3.830E-06,0.004
-3.820E-06,0.004
-3.810E-06,0.004
-3.800E-06,-0.004
-3.790E-06,0.004
-3.780E-06,-0.004
-3.770E-06,0.004
-3.760E-06,0.000
-3.750E-06,0.000
-3.740E-06,0.000
-3.730E-06,0.004
-3.720E-06,-0.004
-3.710E-06,0.004
-3.700E-06,0.004
-3.690E-06,0.004
-3.680E-06,0.004
-3.670E-06,0.004
-3.660E-06,0.004
-3.650E-06,0.004
-3.640E-06,0.004
-3.630E-06,0.000
-3.620E-06,0.004
-3.610E-06,0.004
-3.600E-06,0.008
-3.590E-06,0.008
-3.580E-06,0.004
-3.570E-06,0.000
-3.560E-06,0.004
-3.550E-06,0.000
-3.540E-06,0.004
-3.530E-06,0.000
-3.520E-06,0.000
-3.510E-06,0.000
-3.500E-06,0.008
-3.490E-06,0.000
-3.480E-06,0.000
-3.470E-06,0.000
-3.460E-06,0.008
-3.450E-06,0.012
-3.440E-06,0.008
-3.430E-06,0.000
-3.420E-06,0.004
-3.410E-06,0.004
-3.400E-06,0.000
-3.390E-06,0.000
-3.380E-06,0.004
-3.370E-06,0.008
-3.360E-06,0.008
-3.350E-06,0.004
-3.340E-06,0.000
-3.330E-06,0.000
-3.320E-06,0.004
-3.310E-06,0.008
-3.300E-06,0.008
-3.290E-06,0.008
-3.280E-06,-0.008
-3.270E-06,0.000
-3.260E-06,0.004
-3.250E-06,0.000
-3.240E-06,0.004
-3.230E-06,0.004
-3.220E-06,0.000
-3.210E-06,0.000
-3.200E-06,0.000
-3.190E-06,-0.004
-3.180E-06,0.000
-3.170E-06,0.004
-3.160E-06,0.000
-3.150E-06,0.000
-3.140E-06,0.000
-3.130E-06,0.004
-3.120E-06,0.004
-3.110E-06,0.004
-3.100E-06,0.004
-3.090E-06,0.000
-3.080E-06,0.004
-3.070E-06,0.004
-3.060E-06,0.004
-3.050E-06,0.004
-3.040E-06,0.008
-3.030E-06,0.008
-3.020E-06,0.008
-3.010E-06,0.008
-3.000E-06,0.000
-2.990E-06,0.008
-2.980E-06,0.016
-2.970E-06,0.028
-2.960E-06,0.028
-2.950E-06,0.044
-2.940E-06,0.036
-2.930E-06,0.020
-2.920E-06,-0.028
-2.910E-06,0.000
-2.900E-06,-0.088
-2.890E-06,-0.060
-2.880E-06,-0.028
-2.870E-06,0.004
-2.860E-06,0.040
-2.850E-06,0.056
-2.840E-06,0.072
-2.830E-06,0.016
-2.820E-06,0.000
-2.810E-06,-0.004
-2.800E-06,-0.004
-2.790E-06,0.000
-2.780E-06,0.028
-2.770E-06,0.016
-2.760E-06,0.008
-2.750E-06,-0.008
-2.740E-06,-0.020
-2.730E-06,-0.040
-2.720E-06,-0.016
-2.710E-06,0.016
-2.700E-06,0.028
-2.690E-06,0.036
-2.680E-06,0.032
-2.670E-06,0.024
-2.660E-06,0.016
-2.650E-06,0.000
-2.640E-06,-0.024
-2.630E-06,-0.032
-2.620E-06,-0.008
-2.610E-06,0.000
-2.600E-06,0.004
-2.590E-06,0.000
-2.580E-06,0.000
-2.570E-06,-0.008
-2.560E-06,-0.012
-2.550E-06,-0.004
-2.540E-06,0.008
-2.530E-06,0.024
-2.520E-06,0.040
-2.510E-06,0.028
-2.500E-06,0.024
-2.490E-06,0.000
-2.480E-06,-0.012
-2.470E-06,-0.028
-2.460E-06,-0.016
-2.450E-06,0.000
-2.440E-06,0.008
-2.430E-06,0.004
-2.420E-06,0.008
-2.410E-06,0.000
-2.400E-06,0.000
-2.390E-06,0.012
-2.380E-06,0.012
-2.370E-06,0.024
-2.360E-06,0.016
-2.350E-06,0.020
-2.340E-06,0.008
-2.330E-06,-0.004
-2.320E-06,-0.012
-2.310E-06,-0.016
-2.300E-06,-0.004
-2.290E-06,0.004
-2.280E-06,0.012
-2.270E-06,0.012
-2.260E-06,0.012
-2.250E-06,0.008
-2.240E-06,0.008
-2.230E-06,0.012
-2.220E-06,0.004
-2.210E-06,0.000
-2.200E-06,-0.008
-2.190E-06,-0.012
-2.180E-06,-0.024
-2.170E-06,0.000
-2.160E-06,0.012
-2.150E-06,0.008
-2.140E-06,0.004
-2.130E-06,-0.004
-2.120E-06,0.000
-2.110E-06,0.000
-2.100E-06,0.004
-2.090E-06,-0.004
-2.080E-06,0.000
-2.070E-06,0.008
-2.060E-06,0.020
-2.050E-06,0.012
-2.040E-06,0.012
-2.030E-06,0.012
-2.020E-06,0.000
-2.010E-06,0.000
-2.000E-06,-0.004
-1.990E-06,0.004
-1.980E-06,0.008
-1.970E-06,0.008
-1.960E-06,0.012
-1.950E-06,0.000
-1.940E-06,-0.004
-1.930E-06,-0.004
-1.920E-06,-0.004
-1.910E-06,0.004
-1.900E-06,0.000
-1.890E-06,0.012
-1.880E-06,0.016
-1.870E-06,0.004
-1.860E-06,0.004
-1.850E-06,0.004
-1.840E-06,-0.004
-1.830E-06,0.000
-1.820E-06,0.008
-1.810E-06,0.008
-1.800E-06,0.012
-1.790E-06,0.012
-1.780E-06,0.004
-1.770E-06,0.000
-1.760E-06,0.008
-1.750E-06,0.008
-1.740E-06,0.004
-1.730E-06,0.000
-1.720E-06,0.012
-1.710E-06,0.012
-1.700E-06,0.008
-1.690E-06,0.000
-1.680E-06,0.000
-1.670E-06,0.008
-1.660E-06,0.004
-1.650E-06,0.016
-1.640E-06,0.016
-1.630E-06,0.024
-1.620E-06,0.032
-1.610E-06,0.032
-1.600E-06,0.048
-1.590E-06,0.052
-1.580E-06,0.040
-1.570E-06,0.028
-1.560E-06,-0.032
-1.550E-06,-0.040
-1.540E-06,-0.044
-1.530E-06,-0.004
-1.520E-06,0.032
-1.510E-06,0.036
-1.500E-06,0.004
-1.490E-06,-0.024
-1.480E-06,-0.028
-1.470E-06,-0.036
-1.460E-06,-0.020
-1.450E-06,-0.016
-1.440E-06,-0.008
-1.430E-06,0.024
-1.420E-06,0.028
-1.410E-06,0.036
-1.400E-06,-0.004
-1.390E-06,-0.024
-1.380E-06,-0.032
-1.370E-06,-0.012
-1.360E-06,0.000
-1.350E-06,0.012
-1.340E-06,0.020
-1.330E-06,0.012
-1.320E-06,0.012
-1.310E-06,0.000
-1.300E-06,-0.004
-1.290E-06,-0.004
-1.280E-06,0.000
-1.270E-06,0.004
-1.260E-06,0.028
-1.250E-06,0.020
-1.240E-06,0.008
-1.230E-06,0.008
-1.220E-06,-0.004
-1.210E-06,-0.004
-1.200E-06,0.004
-1.190E-06,0.020
-1.180E-06,0.024
-1.170E-06,0.024
-1.160E-06,0.024
-1.150E-06,0.016
-1.140E-06,0.004
-1.130E-06,0.008
-1.120E-06,0.004
-1.110E-06,0.020
-1.100E-06,0.024
-1.090E-06,0.020
-1.080E-06,0.004
-1.070E-06,0.008
-1.060E-06,0.000
-1.050E-06,0.000
-1.040E-06,0.012
-1.030E-06,0.016
-1.020E-06,0.028
-1.010E-06,0.032
-1.000E-06,0.044
-9.900E-07,0.052
-9.800E-07,0.076
-9.700E-07,0.088
-9.600E-07,0.080
-9.500E-07,0.040
-9.400E-07,0.004
-9.300E-07,-0.080
-9.200E-07,-0.136
-9.100E-07,-0.104
-9.000E-07,-0.036
-8.900E-07,0.056
-8.800E-07,0.088
-8.700E-07,0.072
-8.600E-07,0.024
-8.500E-07,-0.016
-8.400E-07,-0.036
-8.300E-07,-0.024
-8.200E-07,0.024
-8.100E-07,0.056
-8.000E-07,0.068
-7.900E-07,0.092
-7.800E-07,0.096
-7.700E-07,0.044
-7.600E-07,0.048
-7.500E-07,-0.048
-7.400E-07,-0.124
-7.300E-07,-0.164
-7.200E-07,-0.132
-7.100E-07,-0.060
-7.000E-07,-0.004
-6.900E-07,0.064
-6.800E-07,0.048
-6.700E-07,0.012
-6.600E-07,-0.028
-6.500E-07,-0.040
-6.400E-07,-0.048
-6.300E-07,-0.032
-6.200E-07,0.012
-6.100E-07,0.016
-6.000E-07,0.028
-5.900E-07,0.024
-5.800E-07,0.012
-5.700E-07,-0.024
-5.600E-07,-0.016
-5.500E-07,-0.024
-5.400E-07,-0.004
-5.300E-07,0.004
-5.200E-07,0.012
-5.100E-07,0.008
-5.000E-07,0.004
-4.900E-07,0.000
-4.800E-07,-0.008
-4.700E-07,0.000
-4.600E-07,0.000
-4.500E-07,-0.004
-4.400E-07,0.008
-4.300E-07,0.012
-4.200E-07,0.020
-4.100E-07,0.028
-4.000E-07,0.024
-3.900E-07,0.028
-3.800E-07,0.024
-3.700E-07,0.028
-3.600E-07,0.012
-3.500E-07,0.008
-3.400E-07,0.028
-3.300E-07,0.036
-3.200E-07,0.040
-3.100E-07,0.036
-3.000E-07,0.028
-2.900E-07,0.020
-2.800E-07,0.016
-2.700E-07,0.028
-2.600E-07,0.036
-2.500E-07,0.040
-2.400E-07,0.056
-2.300E-07,0.068
-2.200E-07,0.060
-2.100E-07,0.056
-2.000E-07,0.060
-1.900E-07,0.068
-1.800E-07,0.080
-1.700E-07,0.080
-1.600E-07,0.092
-1.500E-07,0.120
-1.400E-07,0.144
-1.300E-07,0.156
-1.200E-07,0.168
-1.100E-07,0.164
-1.000E-07,0.164
-9.000E-08,0.108
-8.000E-08,0.152
-7.000E-08,0.068
-6.000E-08,-0.140
-5.000E-08,-0.512
-4.000E-08,-0.508
-3.000E-08,-0.508
-2.000E-08,-0.160
-1.000E-08,0.280
0.000E+00,0.512
1.000E-08,0.540
2.000E-08,0.140
3.000E-08,-0.216
4.000E-08,-0.512
5.000E-08,-0.512
6.000E-08,-0.208
7.000E-08,0.160
8.000E-08,0.480
9.000E-08,0.400
1.000E-07,0.164
1.100E-07,-0.204
1.200E-07,-0.372
1.300E-07,-0.288
1.400E-07,-0.112
1.500E-07,0.096
1.600E-07,0.228
1.700E-07,0.232
1.800E-07,0.180
1.900E-07,0.024
2.000E-07,-0.128
2.100E-07,-0.200
2.200E-07,-0.164
2.300E-07,-0.032
2.400E-07,0.096
2.500E-07,0.196
2.600E-07,0.160
2.700E-07,0.076
2.800E-07,-0.052
2.900E-07,-0.124
3.000E-07,-0.124
3.100E-07,-0.040
3.200E-07,0.068
3.300E-07,0.152
3.400E-07,0.160
3.500E-07,0.084
3.600E-07,-0.008
3.700E-07,-0.076
3.800E-07,-0.076
3.900E-07,-0.020
4.000E-07,0.060
4.100E-07,0.132
4.200E-07,0.144
4.300E-07,0.100
4.400E-07,0.056
4.500E-07,0.028
4.600E-07,0.028
4.700E-07,0.052
4.800E-07,0.156
4.900E-07,0.232
5.000E-07,0.228
5.100E-07,0.216
5.200E-07,0.160
5.300E-07,0.124
5.400E-07,0.080
5.500E-07,0.088
5.600E-07,0.176
5.700E-07,0.192
5.800E-07,0.188
5.900E-07,0.220
6.000E-07,-0.104
6.100E-07,-0.080
6.200E-07,-0.512
6.300E-07,-0.512
6.400E-07,-0.508
6.500E-07,-0.512
6.600E-07,-0.016
6.700E-07,0.540
6.800E-07,0.540
6.900E-07,0.540
7.000E-07,0.008
7.100E-07,-0.512
7.200E-07,-0.508
7.300E-07,-0.512
7.400E-07,-0.208
7.500E-07,0.380
7.600E-07,0.540
7.700E-07,0.500
7.800E-07,0.060
7.900E-07,-0.256
8.000E-07,-0.440
8.100E-07,-0.336
8.200E-07,-0.168
8.300E-07,0.172
8.400E-07,0.288
8.500E-07,0.288
8.600E-07,0.164
8.700E-07,-0.052
8.800E-07,-0.204
8.900E-07,-0.252
9.000E-07,-0.112
9.100E-07,0.020
9.200E-07,0.192
9.300E-07,0.212
9.400E-07,0.176
9.500E-07,0.008
9.600E-07,-0.116
9.700E-07,-0.172
9.800E-07,-0.112
9.900E-07,0.008
1.000E-06,0.132
1.010E-06,0.208
1.020E-06,0.164
1.030E-06,0.080
1.040E-06,-0.036
1.050E-06,-0.076
1.060E-06,-0.072
1.070E-06,0.020
1.080E-06,0.128
1.090E-06,0.208
1.100E-06,0.216
1.110E-06,0.156
1.120E-06,0.128
1.130E-06,0.088
1.140E-06,0.084
1.150E-06,0.108
1.160E-06,0.180
1.170E-06,0.240
1.180E-06,0.212
1.190E-06,0.140
1.200E-06,0.044
1.210E-06,-0.156
1.220E-06,-0.320
1.230E-06,-0.404
1.240E-06,-0.432
1.250E-06,-0.344
1.260E-06,-0.104
1.270E-06,0.216
1.280E-06,0.088
1.290E-06,-0.104
1.300E-06,-0.108
1.310E-06,-0.164
1.320E-06,-0.124
1.330E-06,-0.016
1.340E-06,0.120
1.350E-06,0.164
1.360E-06,0.144
1.370E-06,0.080
1.380E-06,-0.024
1.390E-06,-0.124
1.400E-06,-0.088
1.410E-06,-0.052
1.420E-06,0.056
1.430E-06,0.184
1.440E-06,0.112
1.450E-06,0.072
1.460E-06,0.020
1.470E-06,-0.072
1.480E-06,-0.028
1.490E-06,-0.104
1.500E-06,-0.184
1.510E-06,-0.024
1.520E-06,0.168
1.530E-06,0.088
1.540E-06,0.140
1.550E-06,0.056
1.560E-06,-0.076
1.570E-06,-0.144
1.580E-06,-0.172
1.590E-06,-0.020
1.600E-06,0.088
1.610E-06,0.176
1.620E-06,0.140
1.630E-06,0.060
1.640E-06,-0.032
1.650E-06,-0.064
1.660E-06,0.012
1.670E-06,0.112
1.680E-06,0.208
1.690E-06,0.188
1.700E-06,0.100
1.710E-06,-0.008
1.720E-06,-0.060
1.730E-06,-0.040
1.740E-06,0.048
1.750E-06,0.152
1.760E-06,0.232
1.770E-06,0.236
1.780E-06,0.204
1.790E-06,0.120
1.800E-06,0.032
1.810E-06,0.008
1.820E-06,0.044
1.830E-06,0.144
1.840E-06,0.224
1.850E-06,0.252
1.860E-06,0.228
1.870E-06,0.156
1.880E-06,0.068
1.890E-06,0.036
1.900E-06,0.044
1.910E-06,0.100
1.920E-06,0.160
1.930E-06,0.224
1.940E-06,0.228
1.950E-06,0.176
1.960E-06,0.088
1.970E-06,0.008
1.980E-06,-0.032
1.990E-06,-0.012
2.000E-06,0.108
2.010E-06,0.200
2.020E-06,0.284
2.030E-06,0.224
2.040E-06,0.176
2.050E-06,0.044
2.060E-06,-0.016
2.070E-06,-0.080
2.080E-06,-0.156
2.090E-06,-0.292
2.100E-06,-0.484
2.110E-06,-0.508
2.120E-06,-0.512
2.130E-06,-0.512
2.140E-06,-0.328
2.150E-06,-0.008
2.160E-06,-0.224
2.170E-06,-0.088
2.180E-06,-0.080
2.190E-06,-0.092
2.200E-06,-0.036
2.210E-06,-0.044
2.220E-06,-0.008
2.230E-06,-0.160
2.240E-06,-0.176
2.250E-06,-0.048
2.260E-06,-0.064
2.270E-06,0.076
2.280E-06,0.084
2.290E-06,0.144
2.300E-06,0.040
2.310E-06,0.052
2.320E-06,0.060
2.330E-06,0.024
2.340E-06,0.112
2.350E-06,0.096
2.360E-06,0.160
2.370E-06,0.136
2.380E-06,0.128
2.390E-06,0.040
2.400E-06,0.056
2.410E-06,0.112
2.420E-06,0.168
2.430E-06,0.248
2.440E-06,0.268
2.450E-06,0.228
2.460E-06,0.180
2.470E-06,0.148
2.480E-06,0.128
2.490E-06,0.148
2.500E-06,0.220
2.510E-06,0.264
2.520E-06,0.272
2.530E-06,0.264
2.540E-06,0.216
2.550E-06,0.180
2.560E-06,0.144
2.570E-06,0.164
2.580E-06,0.200
2.590E-06,0.240
2.600E-06,0.256
2.610E-06,0.240
2.620E-06,0.216
2.630E-06,0.172
2.640E-06,0.128
2.650E-06,0.080
2.660E-06,0.068
2.670E-06,0.060
2.680E-06,0.072
2.690E-06,0.100
2.700E-06,0.140
2.710E-06,0.108
2.720E-06,0.068
2.730E-06,-0.024
2.740E-06,-0.320
2.750E-06,-0.336
2.760E-06,-0.348
2.770E-06,-0.176
2.780E-06,0.116
2.790E-06,0.444
2.800E-06,0.504
2.810E-06,0.192
2.820E-06,-0.040
2.830E-06,-0.368
2.840E-06,-0.408
2.850E-06,-0.348
2.860E-06,-0.140
2.870E-06,0.320
2.880E-06,0.284
2.890E-06,0.268
2.900E-06,0.052
2.910E-06,-0.152
2.920E-06,-0.284
2.930E-06,-0.256
2.940E-06,-0.112
2.950E-06,0.112
2.960E-06,0.232
2.970E-06,0.392
2.980E-06,0.356
2.990E-06,0.212
3.000E-06,0.024
3.010E-06,-0.076
3.020E-06,0.072
3.030E-06,0.208
3.040E-06,0.356
3.050E-06,0.392
3.060E-06,0.368
3.070E-06,0.248
3.080E-06,0.112
3.090E-06,0.036
3.100E-06,0.064
3.110E-06,0.168
3.120E-06,0.276
3.130E-06,0.372
3.140E-06,0.348
3.150E-06,0.272
3.160E-06,0.160
3.170E-06,0.096
3.180E-06,0.096
3.190E-06,0.168
3.200E-06,0.244
3.210E-06,0.312
3.220E-06,0.320
3.230E-06,0.268
3.240E-06,0.192
3.250E-06,0.124
3.260E-06,0.120
3.270E-06,0.144
3.280E-06,0.220
3.290E-06,0.276
3.300E-06,0.300
3.310E-06,0.268
3.320E-06,0.208
3.330E-06,0.152
3.340E-06,0.128
3.350E-06,0.148
3.360E-06,0.192
3.370E-06,0.236
3.380E-06,0.268
3.390E-06,0.256
3.400E-06,0.208
3.410E-06,0.176
3.420E-06,0.152
3.430E-06,0.164
3.440E-06,0.192
3.450E-06,0.228
3.460E-06,0.248
3.470E-06,0.256
3.480E-06,0.232
3.490E-06,0.196
3.500E-06,0.172
3.510E-06,0.176
3.520E-06,0.196
3.530E-06,0.220
3.540E-06,0.240
3.550E-06,0.240
3.560E-06,0.224
3.570E-06,0.208
3.580E-06,0.192
3.590E-06,0.184
3.600E-06,0.196
3.610E-06,0.212
3.620E-06,0.228
3.630E-06,0.232
3.640E-06,0.224
3.650E-06,0.208
3.660E-06,0.192
3.670E-06,0.188
3.680E-06,0.188
3.690E-06,0.200
3.700E-06,0.212
3.710E-06,0.220
3.720E-06,0.224
3.730E-06,0.208
3.740E-06,0.204
3.750E-06,0.192
3.760E-06,0.192
3.770E-06,0.204
3.780E-06,0.208
3.790E-06,0.208
3.800E-06,0.220
3.810E-06,0.208
3.820E-06,0.196
3.830E-06,0.192
3.840E-06,0.192
3.850E-06,0.192
3.860E-06,0.200
3.870E-06,0.200
3.880E-06,0.204
3.890E-06,0.204
3.900E-06,0.196
3.910E-06,0.192
3.920E-06,0.192
3.930E-06,0.192
3.940E-06,0.196
3.950E-06,0.196
3.960E-06,0.196
3.970E-06,0.204
3.980E-06,0.200
3.990E-06,0.192
4.000E-06,0.192
4.010E-06,0.188
4.020E-06,0.196
4.030E-06,0.200
4.040E-06,0.196
4.050E-06,0.200
4.060E-06,0.192
4.070E-06,0.188
4.080E-06,0.188
4.090E-06,0.180
4.100E-06,0.176
4.110E-06,0.180
4.120E-06,0.184
4.130E-06,0.188
4.140E-06,0.192
4.150E-06,0.192
4.160E-06,0.192
4.170E-06,0.180
4.180E-06,0.184
4.190E-06,0.176
4.200E-06,0.176
4.210E-06,0.188
4.220E-06,0.192
4.230E-06,0.192
4.240E-06,0.196
4.250E-06,0.192
4.260E-06,0.176
4.270E-06,0.180
4.280E-06,0.188
4.290E-06,0.192
4.300E-06,0.192
4.310E-06,0.196
4.320E-06,0.196
4.330E-06,0.188
4.340E-06,0.184
4.350E-06,0.176
4.360E-06,0.184
4.370E-06,0.188
4.380E-06,0.188
4.390E-06,0.188
4.400E-06,0.192
4.410E-06,0.188
4.420E-06,0.180
4.430E-06,0.176
4.440E-06,0.180
4.450E-06,0.180
4.460E-06,0.176
4.470E-06,0.176
4.480E-06,0.184
4.490E-06,0.184
4.500E-06,0.180
4.510E-06,0.176
4.520E-06,0.176
4.530E-06,0.184
4.540E-06,0.180
4.550E-06,0.176
4.560E-06,0.172
4.570E-06,0.176
4.580E-06,0.180
4.590E-06,0.168
4.600E-06,0.176
4.610E-06,0.168
4.620E-06,0.164
4.630E-06,0.168
4.640E-06,0.168
4.650E-06,0.172
4.660E-06,0.168
4.670E-06,0.168
4.680E-06,0.168
4.690E-06,0.176
4.700E-06,0.168
4.710E-06,0.172
4.720E-06,0.176
4.730E-06,0.164
4.740E-06,0.168
4.750E-06,0.168
4.760E-06,0.168
4.770E-06,0.164
4.780E-06,0.164
4.790E-06,0.164
4.800E-06,0.164
4.810E-06,0.164
4.820E-06,0.160
4.830E-06,0.160
4.840E-06,0.164
4.850E-06,0.164
4.860E-06,0.160
4.870E-06,0.160
4.880E-06,0.160
4.890E-06,0.164
4.900E-06,0.160
4.910E-06,0.152
4.920E-06,0.156
4.930E-06,0.152
4.940E-06,0.156
4.950E-06,0.160
4.960E-06,0.156
4.970E-06,0.152
4.980E-06,0.156
4.990E-06,0.152
5.000E-06,0.152
5.010E-06,0.152
5.020E-06,0.152
5.030E-06,0.152
5.040E-06,0.152
5.050E-06,0.152
5.060E-06,0.148
5.070E-06,0.148
5.080E-06,0.152
5.090E-06,0.144
5.100E-06,0.140
5.110E-06,0.144
5.120E-06,0.148
5.130E-06,0.152
5.140E-06,0.152
5.150E-06,0.152
5.160E-06,0.152
5.170E-06,0.148
5.180E-06,0.148
5.190E-06,0.136
5.200E-06,0.140
5.210E-06,0.144
5.220E-06,0.144
5.230E-06,0.144
5.240E-06,0.140
5.250E-06,0.140
5.260E-06,0.144
5.270E-06,0.144
5.280E-06,0.140
5.290E-06,0.144
5.300E-06,0.144
5.310E-06,0.144
5.320E-06,0.140
5.330E-06,0.140
5.340E-06,0.140
5.350E-06,0.136
5.360E-06,0.132
5.370E-06,0.140
5.380E-06,0.140
5.390E-06,0.136
5.400E-06,0.144
5.410E-06,0.140
5.420E-06,0.132
5.430E-06,0.128
5.440E-06,0.132
5.450E-06,0.132
5.460E-06,0.128
5.470E-06,0.132
5.480E-06,0.136
5.490E-06,0.140
5.500E-06,0.136
5.510E-06,0.132
5.520E-06,0.128
5.530E-06,0.124
5.540E-06,0.128
5.550E-06,0.124
5.560E-06,0.128
5.570E-06,0.128
5.580E-06,0.128
5.590E-06,0.128
5.600E-06,0.128
5.610E-06,0.128
5.620E-06,0.128
5.630E-06,0.128
5.640E-06,0.128
5.650E-06,0.128
5.660E-06,0.128
5.670E-06,0.124
5.680E-06,0.124
5.690E-06,0.124
5.700E-06,0.128
5.710E-06,0.124
5.720E-06,0.124
5.730E-06,0.128
5.740E-06,0.128
5.750E-06,0.128
5.760E-06,0.128
5.770E-06,0.128
5.780E-06,0.128
5.790E-06,0.124
5.800E-06,0.124
5.810E-06,0.124
5.820E-06,0.128
5.830E-06,0.124
5.840E-06,0.124
5.850E-06,0.124
5.860E-06,0.124
5.870E-06,0.124
5.880E-06,0.124
5.890E-06,0.124
5.900E-06,0.124
5.910E-06,0.120
5.920E-06,0.116
5.930E-06,0.112
5.940E-06,0.112
5.950E-06,0.112
5.960E-06,0.108
5.970E-06,0.108
5.980E-06,0.112
5.990E-06,0.112
6.000E-06,0.108
6.010E-06,0.108
6.020E-06,0.112
6.030E-06,0.116
6.040E-06,0.108
6.050E-06,0.108
6.060E-06,0.104
6.070E-06,0.104
6.080E-06,0.104
6.090E-06,0.104
6.100E-06,0.108
6.110E-06,0.104
6.120E-06,0.104
6.130E-06,0.108
6.140E-06,0.104
6.150E-06,0.104
6.160E-06,0.104
6.170E-06,0.108
6.180E-06,0.104
6.190E-06,0.104
6.200E-06,0.100
6.210E-06,0.100
6.220E-06,0.100
6.230E-06,0.100
6.240E-06,0.104
6.250E-06,0.108
6.260E-06,0.100
6.270E-06,0.096
6.280E-06,0.092
6.290E-06,0.100
6.300E-06,0.100
6.310E-06,0.100
6.320E-06,0.104
6.330E-06,0.104
6.340E-06,0.100
6.350E-06,0.100
6.360E-06,0.092
6.370E-06,0.096
6.380E-06,0.092
6.390E-06,0.096
6.400E-06,0.096
6.410E-06,0.100
6.420E-06,0.096
6.430E-06,0.092
6.440E-06,0.092
6.450E-06,0.088
6.460E-06,0.092
6.470E-06,0.092
6.480E-06,0.092
6.490E-06,0.092
6.500E-06,0.092
6.510E-06,0.084
6.520E-06,0.084
6.530E-06,0.084
6.540E-06,0.088
6.550E-06,0.080
6.560E-06,0.088
6.570E-06,0.088
6.580E-06,0.084
6.590E-06,0.080
6.600E-06,0.076
6.610E-06,0.076
6.620E-06,0.080
6.630E-06,0.080
6.640E-06,0.084
6.650E-06,0.084
6.660E-06,0.080
6.670E-06,0.072
6.680E-06,0.072
6.690E-06,0.072
6.700E-06,0.076
6.710E-06,0.076
6.720E-06,0.076
6.730E-06,0.084
6.740E-06,0.076
6.750E-06,0.072
6.760E-06,0.072
6.770E-06,0.068
6.780E-06,0.076
6.790E-06,0.076
6.800E-06,0.072
6.810E-06,0.076
6.820E-06,0.076
6.830E-06,0.076
6.840E-06,0.068
6.850E-06,0.072
6.860E-06,0.068
6.870E-06,0.068
6.880E-06,0.068
6.890E-06,0.072
6.900E-06,0.068
6.910E-06,0.064
6.920E-06,0.068
6.930E-06,0.072
6.940E-06,0.064
6.950E-06,0.064
6.960E-06,0.068
6.970E-06,0.064
6.980E-06,0.064
6.990E-06,0.064
7.000E-06,0.060
7.010E-06,0.060
7.020E-06,0.060
7.030E-06,0.064
7.040E-06,0.068
7.050E-06,0.064
7.060E-06,0.064
7.070E-06,0.060
7.080E-06,0.064
7.090E-06,0.056
7.100E-06,0.056
7.110E-06,0.060
7.120E-06,0.060
7.130E-06,0.064
7.140E-06,0.064
7.150E-06,0.064
7.160E-06,0.056
7.170E-06,0.060
7.180E-06,0.056
7.190E-06,0.060
7.200E-06,0.056
7.210E-06,0.060
7.220E-06,0.060
7.230E-06,0.064
7.240E-06,0.064
7.250E-06,0.056
7.260E-06,0.056
7.270E-06,0.056
7.280E-06,0.060
7.290E-06,0.056
7.300E-06,0.060
7.310E-06,0.060
7.320E-06,0.056
7.330E-06,0.056
7.340E-06,0.056
7.350E-06,0.052
7.360E-06,0.056
7.370E-06,0.056
7.380E-06,0.060
7.390E-06,0.060
7.400E-06,0.056
7.410E-06,0.056
7.420E-06,0.048
7.430E-06,0.048
7.440E-06,0.048
7.450E-06,0.052
7.460E-06,0.056
7.470E-06,0.060
7.480E-06,0.056
7.490E-06,0.048
7.500E-06,0.040
7.510E-06,0.040
7.520E-06,0.044
7.530E-06,0.048
7.540E-06,0.056
7.550E-06,0.044
7.560E-06,0.044
7.570E-06,0.040
7.580E-06,0.032
7.590E-06,0.036
7.600E-06,0.044
7.610E-06,0.044
7.620E-06,0.044
7.630E-06,0.040
7.640E-06,0.044
7.650E-06,0.044
7.660E-06,0.036
7.670E-06,0.036
7.680E-06,0.040
7.690E-06,0.036
7.700E-06,0.044
7.710E-06,0.048
7.720E-06,0.044
7.730E-06,0.036
7.740E-06,0.040
7.750E-06,0.032
7.760E-06,0.036
7.770E-06,0.044
7.780E-06,0.040
7.790E-06,0.044
7.800E-06,0.040
7.810E-06,0.040
