mediciones/5-27/-37.5/WaveData5140.csv

#timebase=2000000(ps)
,#voltbase=100000(mv/100)
#size=4000
-5.650E-06,-0.004
-5.640E-06,0.004
-5.630E-06,0.004
-5.620E-06,0.004
-5.610E-06,0.008
-5.600E-06,0.000
-5.590E-06,0.000
-5.580E-06,0.000
-5.570E-06,0.004
-5.560E-06,0.008
-5.550E-06,0.008
-5.540E-06,0.008
-5.530E-06,0.004
-5.520E-06,0.000
-5.510E-06,0.000
-5.500E-06,0.004
-5.490E-06,0.000
-5.480E-06,0.008
-5.470E-06,0.004
-5.460E-06,0.008
-5.450E-06,0.004
-5.440E-06,-0.004
-5.430E-06,0.000
-5.420E-06,0.000
-5.410E-06,0.008
-5.400E-06,0.008
-5.390E-06,0.008
-5.380E-06,0.000
-5.370E-06,-0.004
-5.360E-06,0.000
-5.350E-06,0.008
-5.340E-06,0.008
-5.330E-06,0.000
-5.320E-06,0.004
-5.310E-06,0.004
-5.300E-06,0.000
-5.290E-06,-0.004
-5.280E-06,0.000
-5.270E-06,0.004
-5.260E-06,-0.004
-5.250E-06,-0.004
-5.240E-06,0.000
-5.230E-06,0.000
-5.220E-06,0.004
-5.210E-06,0.008
-5.200E-06,0.008
-5.190E-06,-0.004
-5.180E-06,0.000
-5.170E-06,-0.004
-5.160E-06,0.000
-5.150E-06,0.008
-5.140E-06,0.008
-5.130E-06,0.008
-5.120E-06,0.004
-5.110E-06,0.000
-5.100E-06,0.000
-5.090E-06,0.004
-5.080E-06,0.008
-5.070E-06,0.008
-5.060E-06,0.008
-5.050E-06,0.004
-5.040E-06,0.004
-5.030E-06,-0.004
-5.020E-06,0.004
-5.010E-06,0.004
-5.000E-06,0.008
-4.990E-06,0.000
-4.980E-06,0.000
-4.970E-06,0.000
-4.960E-06,-0.004
-4.950E-06,0.004
-4.940E-06,0.008
-4.930E-06,0.004
-4.920E-06,0.004
-4.910E-06,0.000
-4.900E-06,-0.004
-4.890E-06,-0.004
-4.880E-06,0.008
-4.870E-06,0.008
-4.860E-06,0.012
-4.850E-06,0.008
-4.840E-06,0.000
-4.830E-06,-0.004
-4.820E-06,0.000
-4.810E-06,0.008
-4.800E-06,0.012
-4.790E-06,0.008
-4.780E-06,0.004
-4.770E-06,-0.004
-4.760E-06,-0.004
-4.750E-06,0.008
-4.740E-06,0.016
-4.730E-06,0.016
-4.720E-06,0.012
-4.710E-06,-0.004
-4.700E-06,0.000
-4.690E-06,0.000
-4.680E-06,0.008
-4.670E-06,0.012
-4.660E-06,0.012
-4.650E-06,0.004
-4.640E-06,-0.004
-4.630E-06,-0.004
-4.620E-06,0.000
-4.610E-06,0.008
-4.600E-06,0.020
-4.590E-06,0.020
-4.580E-06,0.020
-4.570E-06,0.012
-4.560E-06,0.004
-4.550E-06,-0.004
-4.540E-06,-0.004
-4.530E-06,-0.008
-4.520E-06,0.000
-4.510E-06,-0.004
-4.500E-06,0.000
-4.490E-06,0.004
-4.480E-06,0.000
-4.470E-06,0.008
-4.460E-06,0.008
-4.450E-06,-0.008
-4.440E-06,0.000
-4.430E-06,-0.004
-4.420E-06,-0.004
-4.410E-06,0.004
-4.400E-06,0.012
-4.390E-06,0.008
-4.380E-06,0.012
-4.370E-06,0.008
-4.360E-06,0.000
-4.350E-06,0.004
-4.340E-06,0.004
-4.330E-06,0.000
-4.320E-06,0.004
-4.310E-06,0.000
-4.300E-06,0.000
-4.290E-06,0.004
-4.280E-06,0.008
-4.270E-06,0.012
-4.260E-06,0.016
-4.250E-06,0.008
-4.240E-06,0.008
-4.230E-06,0.000
-4.220E-06,-0.004
-4.210E-06,-0.004
-4.200E-06,0.000
-4.190E-06,0.012
-4.180E-06,0.012
-4.170E-06,0.012
-4.160E-06,0.000
-4.150E-06,0.000
-4.140E-06,0.000
-4.130E-06,0.004
-4.120E-06,0.016
-4.110E-06,0.024
-4.100E-06,0.024
-4.090E-06,-0.008
-4.080E-06,-0.036
-4.070E-06,-0.048
-4.060E-06,-0.044
-4.050E-06,-0.004
-4.040E-06,0.028
-4.030E-06,0.036
-4.020E-06,0.028
-4.010E-06,0.000
-4.000E-06,-0.024
-3.990E-06,-0.032
-3.980E-06,-0.020
-3.970E-06,0.012
-3.960E-06,0.024
-3.950E-06,0.016
-3.940E-06,0.000
-3.930E-06,-0.008
-3.920E-06,-0.008
-3.910E-06,-0.004
-3.900E-06,0.004
-3.890E-06,0.012
-3.880E-06,0.008
-3.870E-06,-0.004
-3.860E-06,-0.008
-3.850E-06,-0.004
-3.840E-06,0.004
-3.830E-06,0.012
-3.820E-06,0.012
-3.810E-06,0.008
-3.800E-06,0.000
-3.790E-06,-0.004
-3.780E-06,0.000
-3.770E-06,0.012
-3.760E-06,0.012
-3.750E-06,0.012
-3.740E-06,0.008
-3.730E-06,0.000
-3.720E-06,0.000
-3.710E-06,0.004
-3.700E-06,0.004
-3.690E-06,0.004
-3.680E-06,0.008
-3.670E-06,0.012
-3.660E-06,0.008
-3.650E-06,0.004
-3.640E-06,0.000
-3.630E-06,-0.004
-3.620E-06,-0.008
-3.610E-06,-0.004
-3.600E-06,0.000
-3.590E-06,0.012
-3.580E-06,0.012
-3.570E-06,0.008
-3.560E-06,0.004
-3.550E-06,0.000
-3.540E-06,0.004
-3.530E-06,0.004
-3.520E-06,0.000
-3.510E-06,0.000
-3.500E-06,0.000
-3.490E-06,0.004
-3.480E-06,0.000
-3.470E-06,0.000
-3.460E-06,0.008
-3.450E-06,0.000
-3.440E-06,0.000
-3.430E-06,0.000
-3.420E-06,0.000
-3.410E-06,0.004
-3.400E-06,0.004
-3.390E-06,0.008
-3.380E-06,0.000
-3.370E-06,0.000
-3.360E-06,0.000
-3.350E-06,0.004
-3.340E-06,0.008
-3.330E-06,-0.004
-3.320E-06,-0.004
-3.310E-06,0.000
-3.300E-06,0.000
-3.290E-06,0.000
-3.280E-06,0.004
-3.270E-06,0.000
-3.260E-06,0.004
-3.250E-06,0.000
-3.240E-06,0.004
-3.230E-06,0.008
-3.220E-06,0.004
-3.210E-06,0.000
-3.200E-06,0.000
-3.190E-06,-0.004
-3.180E-06,0.000
-3.170E-06,0.004
-3.160E-06,0.004
-3.150E-06,0.008
-3.140E-06,0.008
-3.130E-06,0.004
-3.120E-06,-0.004
-3.110E-06,0.004
-3.100E-06,0.008
-3.090E-06,0.004
-3.080E-06,0.004
-3.070E-06,0.004
-3.060E-06,-0.004
-3.050E-06,0.004
-3.040E-06,0.008
-3.030E-06,0.012
-3.020E-06,0.012
-3.010E-06,0.012
-3.000E-06,0.004
-2.990E-06,-0.004
-2.980E-06,0.000
-2.970E-06,0.000
-2.960E-06,0.004
-2.950E-06,0.004
-2.940E-06,0.008
-2.930E-06,0.008
-2.920E-06,0.008
-2.910E-06,0.008
-2.900E-06,0.008
-2.890E-06,0.004
-2.880E-06,0.008
-2.870E-06,0.008
-2.860E-06,0.012
-2.850E-06,0.012
-2.840E-06,0.008
-2.830E-06,0.004
-2.820E-06,0.004
-2.810E-06,0.004
-2.800E-06,0.008
-2.790E-06,0.004
-2.780E-06,0.008
-2.770E-06,0.012
-2.760E-06,0.012
-2.750E-06,0.012
-2.740E-06,0.012
-2.730E-06,0.000
-2.720E-06,0.004
-2.710E-06,0.008
-2.700E-06,0.016
-2.690E-06,0.020
-2.680E-06,0.024
-2.670E-06,0.028
-2.660E-06,0.024
-2.650E-06,0.020
-2.640E-06,0.012
-2.630E-06,0.008
-2.620E-06,0.000
-2.610E-06,-0.008
-2.600E-06,-0.020
-2.590E-06,-0.020
-2.580E-06,-0.008
-2.570E-06,0.000
-2.560E-06,0.004
-2.550E-06,0.004
-2.540E-06,0.004
-2.530E-06,-0.008
-2.520E-06,-0.012
-2.510E-06,-0.012
-2.500E-06,-0.008
-2.490E-06,0.000
-2.480E-06,0.004
-2.470E-06,0.008
-2.460E-06,0.000
-2.450E-06,0.004
-2.440E-06,0.008
-2.430E-06,0.004
-2.420E-06,0.004
-2.410E-06,0.008
-2.400E-06,0.004
-2.390E-06,0.008
-2.380E-06,0.000
-2.370E-06,0.000
-2.360E-06,0.000
-2.350E-06,0.000
-2.340E-06,0.004
-2.330E-06,0.004
-2.320E-06,0.004
-2.310E-06,0.008
-2.300E-06,0.004
-2.290E-06,0.000
-2.280E-06,0.000
-2.270E-06,0.000
-2.260E-06,0.008
-2.250E-06,0.012
-2.240E-06,0.020
-2.230E-06,0.024
-2.220E-06,0.012
-2.210E-06,0.004
-2.200E-06,0.008
-2.190E-06,0.008
-2.180E-06,0.012
-2.170E-06,0.016
-2.160E-06,0.020
-2.150E-06,0.016
-2.140E-06,0.012
-2.130E-06,0.004
-2.120E-06,0.000
-2.110E-06,-0.004
-2.100E-06,0.004
-2.090E-06,0.008
-2.080E-06,0.012
-2.070E-06,0.012
-2.060E-06,0.024
-2.050E-06,0.020
-2.040E-06,0.024
-2.030E-06,0.016
-2.020E-06,0.012
-2.010E-06,0.008
-2.000E-06,0.008
-1.990E-06,0.008
-1.980E-06,0.012
-1.970E-06,0.008
-1.960E-06,-0.012
-1.950E-06,-0.024
-1.940E-06,-0.028
-1.930E-06,-0.036
-1.920E-06,-0.024
-1.910E-06,-0.008
-1.900E-06,0.008
-1.890E-06,0.012
-1.880E-06,0.004
-1.870E-06,-0.004
-1.860E-06,-0.008
-1.850E-06,-0.008
-1.840E-06,0.000
-1.830E-06,-0.004
-1.820E-06,0.000
-1.810E-06,0.000
-1.800E-06,0.000
-1.790E-06,-0.004
-1.780E-06,0.000
-1.770E-06,0.008
-1.760E-06,0.012
-1.750E-06,0.008
-1.740E-06,0.004
-1.730E-06,0.004
-1.720E-06,0.008
-1.710E-06,0.008
-1.700E-06,0.024
-1.690E-06,0.028
-1.680E-06,0.024
-1.670E-06,0.020
-1.660E-06,0.012
-1.650E-06,0.008
-1.640E-06,0.004
-1.630E-06,0.012
-1.620E-06,0.016
-1.610E-06,0.024
-1.600E-06,0.016
-1.590E-06,0.008
-1.580E-06,0.008
-1.570E-06,0.008
-1.560E-06,0.016
-1.550E-06,0.024
-1.540E-06,0.024
-1.530E-06,0.016
-1.520E-06,0.000
-1.510E-06,-0.004
-1.500E-06,0.008
-1.490E-06,0.016
-1.480E-06,0.032
-1.470E-06,0.036
-1.460E-06,0.032
-1.450E-06,0.020
-1.440E-06,0.008
-1.430E-06,-0.012
-1.420E-06,-0.072
-1.410E-06,-0.172
-1.400E-06,-0.172
-1.390E-06,-0.156
-1.380E-06,-0.056
-1.370E-06,0.100
-1.360E-06,0.160
-1.350E-06,0.152
-1.340E-06,0.020
-1.330E-06,-0.088
-1.320E-06,-0.124
-1.310E-06,-0.072
-1.300E-06,0.040
-1.290E-06,0.076
-1.280E-06,0.076
-1.270E-06,0.036
-1.260E-06,0.008
-1.250E-06,0.016
-1.240E-06,0.044
-1.230E-06,0.084
-1.220E-06,0.088
-1.210E-06,0.056
-1.200E-06,0.028
-1.190E-06,-0.004
-1.180E-06,-0.004
-1.170E-06,-0.004
-1.160E-06,0.004
-1.150E-06,0.012
-1.140E-06,0.000
-1.130E-06,-0.012
-1.120E-06,-0.016
-1.110E-06,-0.004
-1.100E-06,0.020
-1.090E-06,0.064
-1.080E-06,0.060
-1.070E-06,0.032
-1.060E-06,0.000
-1.050E-06,-0.016
-1.040E-06,-0.004
-1.030E-06,0.024
-1.020E-06,0.016
-1.010E-06,-0.004
-1.000E-06,-0.032
-9.900E-07,-0.072
-9.800E-07,-0.072
-9.700E-07,-0.056
-9.600E-07,-0.008
-9.500E-07,0.016
-9.400E-07,0.036
-9.300E-07,0.028
-9.200E-07,-0.008
-9.100E-07,-0.008
-9.000E-07,-0.008
-8.900E-07,0.008
-8.800E-07,0.028
-8.700E-07,0.036
-8.600E-07,0.024
-8.500E-07,0.012
-8.400E-07,0.000
-8.300E-07,0.004
-8.200E-07,0.028
-8.100E-07,0.056
-8.000E-07,0.076
-7.900E-07,0.064
-7.800E-07,0.040
-7.700E-07,0.020
-7.600E-07,0.008
-7.500E-07,0.012
-7.400E-07,0.036
-7.300E-07,0.056
-7.200E-07,0.068
-7.100E-07,0.064
-7.000E-07,0.048
-6.900E-07,0.016
-6.800E-07,-0.004
-6.700E-07,-0.052
-6.600E-07,-0.092
-6.500E-07,-0.096
-6.400E-07,-0.060
-6.300E-07,-0.008
-6.200E-07,0.028
-6.100E-07,0.064
-6.000E-07,0.044
-5.900E-07,0.020
-5.800E-07,-0.012
-5.700E-07,-0.028
-5.600E-07,-0.008
-5.500E-07,0.020
-5.400E-07,0.044
-5.300E-07,0.064
-5.200E-07,0.044
-5.100E-07,0.032
-5.000E-07,0.020
-4.900E-07,0.020
-4.800E-07,0.032
-4.700E-07,0.056
-4.600E-07,0.068
-4.500E-07,0.064
-4.400E-07,0.048
-4.300E-07,0.024
-4.200E-07,-0.020
-4.100E-07,-0.068
-4.000E-07,-0.104
-3.900E-07,-0.108
-3.800E-07,-0.076
-3.700E-07,-0.044
-3.600E-07,-0.012
-3.500E-07,0.012
-3.400E-07,0.012
-3.300E-07,-0.004
-3.200E-07,-0.012
-3.100E-07,-0.008
-3.000E-07,-0.008
-2.900E-07,0.008
-2.800E-07,0.024
-2.700E-07,0.024
-2.600E-07,0.020
-2.500E-07,0.012
-2.400E-07,-0.004
-2.300E-07,0.008
-2.200E-07,0.004
-2.100E-07,0.008
-2.000E-07,0.032
-1.900E-07,0.040
-1.800E-07,0.040
-1.700E-07,0.024
-1.600E-07,0.004
-1.500E-07,0.000
-1.400E-07,0.020
-1.300E-07,0.056
-1.200E-07,0.084
-1.100E-07,0.060
-1.000E-07,0.048
-9.000E-08,0.012
-8.000E-08,-0.024
-7.000E-08,-0.036
-6.000E-08,-0.044
-5.000E-08,-0.224
-4.000E-08,-0.364
-3.000E-08,-0.468
-2.000E-08,-0.364
-1.000E-08,0.088
0.000E+00,0.324
1.000E-08,0.408
2.000E-08,0.296
3.000E-08,-0.016
4.000E-08,-0.196
5.000E-08,-0.268
6.000E-08,-0.064
7.000E-08,0.140
8.000E-08,0.172
9.000E-08,0.108
1.000E-07,-0.040
1.100E-07,-0.064
1.200E-07,-0.024
1.300E-07,0.068
1.400E-07,0.128
1.500E-07,0.152
1.600E-07,0.072
1.700E-07,-0.068
1.800E-07,-0.108
1.900E-07,-0.060
2.000E-07,0.036
2.100E-07,0.092
2.200E-07,0.132
2.300E-07,0.104
2.400E-07,0.000
2.500E-07,-0.140
2.600E-07,-0.204
2.700E-07,-0.160
2.800E-07,-0.064
2.900E-07,0.088
3.000E-07,0.160
3.100E-07,0.164
3.200E-07,0.028
3.300E-07,-0.164
3.400E-07,-0.268
3.500E-07,-0.172
3.600E-07,0.024
3.700E-07,0.180
3.800E-07,0.260
3.900E-07,0.064
4.000E-07,-0.168
4.100E-07,-0.296
4.200E-07,-0.200
4.300E-07,-0.020
4.400E-07,0.120
4.500E-07,0.172
4.600E-07,0.104
4.700E-07,-0.004
4.800E-07,-0.100
4.900E-07,-0.100
5.000E-07,-0.028
5.100E-07,0.064
5.200E-07,0.084
5.300E-07,0.024
5.400E-07,-0.032
5.500E-07,-0.072
5.600E-07,-0.032
5.700E-07,0.012
5.800E-07,0.084
5.900E-07,0.092
6.000E-07,0.064
6.100E-07,0.012
6.200E-07,-0.008
6.300E-07,-0.040
6.400E-07,-0.020
6.500E-07,-0.008
6.600E-07,0.004
6.700E-07,0.028
6.800E-07,0.032
6.900E-07,0.032
7.000E-07,0.012
7.100E-07,0.032
7.200E-07,0.036
7.300E-07,0.036
7.400E-07,0.052
7.500E-07,0.036
7.600E-07,-0.024
7.700E-07,-0.028
7.800E-07,-0.060
7.900E-07,-0.072
8.000E-07,-0.052
8.100E-07,-0.020
8.200E-07,0.024
8.300E-07,0.060
8.400E-07,0.060
8.500E-07,0.008
8.600E-07,-0.008
8.700E-07,-0.032
8.800E-07,-0.024
8.900E-07,0.012
9.000E-07,0.044
9.100E-07,0.060
9.200E-07,0.044
9.300E-07,0.032
9.400E-07,-0.008
9.500E-07,-0.008
9.600E-07,-0.004
9.700E-07,0.020
9.800E-07,0.044
9.900E-07,0.032
1.000E-06,0.028
1.010E-06,-0.004
1.020E-06,0.000
1.030E-06,0.012
1.040E-06,0.020
1.050E-06,0.020
1.060E-06,0.008
1.070E-06,0.004
1.080E-06,0.004
1.090E-06,0.024
1.100E-06,0.032
1.110E-06,0.036
1.120E-06,0.044
1.130E-06,0.056
1.140E-06,0.060
1.150E-06,0.052
1.160E-06,-0.016
1.170E-06,-0.068
1.180E-06,-0.128
1.190E-06,-0.140
1.200E-06,-0.100
1.210E-06,-0.008
1.220E-06,0.060
1.230E-06,0.060
1.240E-06,0.028
1.250E-06,-0.040
1.260E-06,-0.072
1.270E-06,-0.076
1.280E-06,-0.036
1.290E-06,0.016
1.300E-06,0.044
1.310E-06,0.036
1.320E-06,-0.004
1.330E-06,-0.020
1.340E-06,-0.024
1.350E-06,-0.008
1.360E-06,0.012
1.370E-06,0.024
1.380E-06,0.024
1.390E-06,0.000
1.400E-06,0.000
1.410E-06,-0.004
1.420E-06,0.004
1.430E-06,0.008
1.440E-06,0.020
1.450E-06,0.020
1.460E-06,0.024
1.470E-06,0.020
1.480E-06,0.016
1.490E-06,0.024
1.500E-06,0.024
1.510E-06,0.028
1.520E-06,0.028
1.530E-06,0.024
1.540E-06,0.028
1.550E-06,0.036
1.560E-06,0.032
1.570E-06,0.028
1.580E-06,0.036
1.590E-06,0.040
1.600E-06,0.056
1.610E-06,0.068
1.620E-06,0.080
1.630E-06,0.088
1.640E-06,0.076
1.650E-06,0.072
1.660E-06,0.052
1.670E-06,0.052
1.680E-06,0.044
1.690E-06,0.040
1.700E-06,0.036
1.710E-06,0.032
1.720E-06,0.024
1.730E-06,0.020
1.740E-06,0.032
1.750E-06,0.036
1.760E-06,0.048
1.770E-06,0.044
1.780E-06,0.044
1.790E-06,0.044
1.800E-06,0.020
1.810E-06,-0.028
1.820E-06,-0.124
1.830E-06,-0.212
1.840E-06,-0.268
1.850E-06,-0.256
1.860E-06,-0.212
1.870E-06,-0.124
1.880E-06,0.008
1.890E-06,0.100
1.900E-06,0.128
1.910E-06,0.068
1.920E-06,0.004
1.930E-06,-0.052
1.940E-06,-0.032
1.950E-06,0.020
1.960E-06,0.092
1.970E-06,0.120
1.980E-06,0.060
1.990E-06,0.004
2.000E-06,-0.040
2.010E-06,-0.020
2.020E-06,0.020
2.030E-06,0.072
2.040E-06,0.092
2.050E-06,0.076
2.060E-06,0.056
2.070E-06,0.044
2.080E-06,0.040
2.090E-06,0.056
2.100E-06,0.072
2.110E-06,0.076
2.120E-06,0.080
2.130E-06,0.072
2.140E-06,0.052
2.150E-06,0.028
2.160E-06,0.016
2.170E-06,0.028
2.180E-06,0.072
2.190E-06,0.108
2.200E-06,0.128
2.210E-06,0.104
2.220E-06,0.072
2.230E-06,0.020
2.240E-06,-0.016
2.250E-06,-0.040
2.260E-06,-0.040
2.270E-06,-0.020
2.280E-06,0.020
2.290E-06,0.012
2.300E-06,-0.012
2.310E-06,-0.140
2.320E-06,-0.200
2.330E-06,-0.248
2.340E-06,-0.104
2.350E-06,0.036
2.360E-06,0.188
2.370E-06,0.052
2.380E-06,0.016
2.390E-06,-0.120
2.400E-06,-0.172
2.410E-06,-0.208
2.420E-06,-0.100
2.430E-06,0.044
2.440E-06,0.124
2.450E-06,0.076
2.460E-06,0.028
2.470E-06,-0.028
2.480E-06,-0.056
2.490E-06,-0.048
2.500E-06,-0.020
2.510E-06,0.024
2.520E-06,0.072
2.530E-06,0.112
2.540E-06,0.100
2.550E-06,0.064
2.560E-06,0.032
2.570E-06,0.008
2.580E-06,0.032
2.590E-06,0.068
2.600E-06,0.108
2.610E-06,0.124
2.620E-06,0.116
2.630E-06,0.092
2.640E-06,0.052
2.650E-06,0.024
2.660E-06,0.032
2.670E-06,0.040
2.680E-06,0.060
2.690E-06,0.076
2.700E-06,0.092
2.710E-06,0.088
2.720E-06,0.064
2.730E-06,0.052
2.740E-06,0.036
2.750E-06,0.024
2.760E-06,0.012
2.770E-06,-0.016
2.780E-06,-0.052
2.790E-06,-0.084
2.800E-06,-0.088
2.810E-06,-0.104
2.820E-06,-0.084
2.830E-06,-0.056
2.840E-06,-0.056
2.850E-06,-0.068
2.860E-06,-0.080
2.870E-06,-0.088
2.880E-06,-0.104
2.890E-06,-0.104
2.900E-06,-0.060
2.910E-06,-0.004
2.920E-06,0.036
2.930E-06,0.032
2.940E-06,-0.004
2.950E-06,-0.032
2.960E-06,-0.024
2.970E-06,0.020
2.980E-06,0.088
2.990E-06,0.096
3.000E-06,0.080
3.010E-06,0.052
3.020E-06,0.000
3.030E-06,-0.024
3.040E-06,-0.036
3.050E-06,0.004
3.060E-06,0.064
3.070E-06,0.124
3.080E-06,0.156
3.090E-06,0.152
3.100E-06,0.136
3.110E-06,0.112
3.120E-06,0.096
3.130E-06,0.088
3.140E-06,0.080
3.150E-06,0.056
3.160E-06,0.028
3.170E-06,0.000
3.180E-06,0.000
3.190E-06,-0.016
3.200E-06,0.004
3.210E-06,0.000
3.220E-06,0.012
3.230E-06,0.040
3.240E-06,0.072
3.250E-06,0.092
3.260E-06,0.104
3.270E-06,0.104
3.280E-06,0.100
3.290E-06,0.080
3.300E-06,0.056
3.310E-06,0.060
3.320E-06,0.064
3.330E-06,0.080
3.340E-06,0.104
3.350E-06,0.112
3.360E-06,0.112
3.370E-06,0.100
3.380E-06,0.088
3.390E-06,0.084
3.400E-06,0.092
3.410E-06,0.104
3.420E-06,0.112
3.430E-06,0.120
3.440E-06,0.120
3.450E-06,0.112
3.460E-06,0.108
3.470E-06,0.092
3.480E-06,0.040
3.490E-06,-0.020
3.500E-06,-0.080
3.510E-06,-0.152
3.520E-06,-0.072
3.530E-06,0.012
3.540E-06,0.124
3.550E-06,0.228
3.560E-06,0.144
3.570E-06,0.020
3.580E-06,-0.136
3.590E-06,-0.260
3.600E-06,-0.184
3.610E-06,-0.008
3.620E-06,-0.040
3.630E-06,-0.184
3.640E-06,-0.512
3.650E-06,-0.512
3.660E-06,-0.512
3.670E-06,-0.512
3.680E-06,-0.384
3.690E-06,0.452
3.700E-06,0.544
3.710E-06,0.540
3.720E-06,0.132
3.730E-06,-0.408
3.740E-06,-0.512
3.750E-06,-0.372
3.760E-06,0.076
3.770E-06,0.416
3.780E-06,0.540
3.790E-06,0.272
3.800E-06,0.024
3.810E-06,-0.216
3.820E-06,-0.204
3.830E-06,-0.100
3.840E-06,0.036
3.850E-06,0.148
3.860E-06,0.212
3.870E-06,0.164
3.880E-06,0.088
3.890E-06,-0.016
3.900E-06,-0.052
3.910E-06,-0.004
3.920E-06,0.024
3.930E-06,0.124
3.940E-06,0.140
3.950E-06,0.120
3.960E-06,0.044
3.970E-06,-0.004
3.980E-06,-0.020
3.990E-06,0.012
4.000E-06,0.064
4.010E-06,0.108
4.020E-06,0.120
4.030E-06,0.096
4.040E-06,0.056
4.050E-06,0.044
4.060E-06,0.060
4.070E-06,0.096
4.080E-06,0.108
4.090E-06,0.108
4.100E-06,0.084
4.110E-06,0.060
4.120E-06,0.036
4.130E-06,0.048
4.140E-06,0.080
4.150E-06,0.116
4.160E-06,0.136
4.170E-06,0.136
4.180E-06,0.128
4.190E-06,0.120
4.200E-06,0.124
4.210E-06,0.128
4.220E-06,0.140
4.230E-06,0.156
4.240E-06,0.160
4.250E-06,0.156
4.260E-06,0.148
4.270E-06,0.136
4.280E-06,0.128
4.290E-06,0.124
4.300E-06,0.120
4.310E-06,0.124
4.320E-06,0.128
4.330E-06,0.132
4.340E-06,0.136
4.350E-06,0.128
4.360E-06,0.128
4.370E-06,0.120
4.380E-06,0.124
4.390E-06,0.124
4.400E-06,0.128
4.410E-06,0.136
4.420E-06,0.136
4.430E-06,0.124
4.440E-06,0.108
4.450E-06,0.088
4.460E-06,0.060
4.470E-06,0.036
4.480E-06,0.008
4.490E-06,-0.044
4.500E-06,-0.072
4.510E-06,-0.084
4.520E-06,-0.044
4.530E-06,0.040
4.540E-06,0.092
4.550E-06,0.088
4.560E-06,0.036
4.570E-06,-0.060
4.580E-06,-0.088
4.590E-06,-0.072
4.600E-06,0.012
4.610E-06,0.108
4.620E-06,0.168
4.630E-06,0.176
4.640E-06,0.116
4.650E-06,0.064
4.660E-06,0.036
4.670E-06,0.056
4.680E-06,0.124
4.690E-06,0.148
4.700E-06,0.156
4.710E-06,0.148
4.720E-06,0.108
4.730E-06,0.088
4.740E-06,0.056
4.750E-06,0.028
4.760E-06,0.020
4.770E-06,0.016
4.780E-06,0.020
4.790E-06,0.028
4.800E-06,0.052
4.810E-06,0.076
4.820E-06,0.092
4.830E-06,0.100
4.840E-06,0.104
4.850E-06,0.084
4.860E-06,0.068
4.870E-06,0.052
4.880E-06,0.056
4.890E-06,0.080
4.900E-06,0.112
4.910E-06,0.124
4.920E-06,0.136
4.930E-06,0.124
4.940E-06,0.112
4.950E-06,0.112
4.960E-06,0.120
4.970E-06,0.132
4.980E-06,0.140
4.990E-06,0.140
5.000E-06,0.132
5.010E-06,0.124
5.020E-06,0.112
5.030E-06,0.108
5.040E-06,0.124
5.050E-06,0.132
5.060E-06,0.136
5.070E-06,0.140
5.080E-06,0.136
5.090E-06,0.128
5.100E-06,0.124
5.110E-06,0.120
5.120E-06,0.128
5.130E-06,0.136
5.140E-06,0.136
5.150E-06,0.136
5.160E-06,0.132
5.170E-06,0.128
5.180E-06,0.128
5.190E-06,0.128
5.200E-06,0.132
5.210E-06,0.136
5.220E-06,0.136
5.230E-06,0.136
5.240E-06,0.132
5.250E-06,0.128
5.260E-06,0.124
5.270E-06,0.124
5.280E-06,0.128
5.290E-06,0.128
5.300E-06,0.132
5.310E-06,0.132
5.320E-06,0.128
5.330E-06,0.124
5.340E-06,0.120
5.350E-06,0.120
5.360E-06,0.120
5.370E-06,0.124
5.380E-06,0.116
5.390E-06,0.112
5.400E-06,0.100
5.410E-06,0.088
5.420E-06,0.076
5.430E-06,0.088
5.440E-06,0.104
5.450E-06,0.124
5.460E-06,0.140
5.470E-06,0.140
5.480E-06,0.124
5.490E-06,0.108
5.500E-06,0.096
5.510E-06,0.096
5.520E-06,0.108
5.530E-06,0.128
5.540E-06,0.144
5.550E-06,0.144
5.560E-06,0.140
5.570E-06,0.124
5.580E-06,0.116
5.590E-06,0.112
5.600E-06,0.120
5.610E-06,0.132
5.620E-06,0.136
5.630E-06,0.140
5.640E-06,0.132
5.650E-06,0.120
5.660E-06,0.116
5.670E-06,0.108
5.680E-06,0.120
5.690E-06,0.128
5.700E-06,0.132
5.710E-06,0.136
5.720E-06,0.132
5.730E-06,0.124
5.740E-06,0.120
5.750E-06,0.120
5.760E-06,0.120
5.770E-06,0.120
5.780E-06,0.128
5.790E-06,0.128
5.800E-06,0.128
5.810E-06,0.128
5.820E-06,0.112
5.830E-06,0.112
5.840E-06,0.120
5.850E-06,0.120
5.860E-06,0.124
5.870E-06,0.128
5.880E-06,0.124
5.890E-06,0.124
5.900E-06,0.120
5.910E-06,0.120
5.920E-06,0.120
5.930E-06,0.124
5.940E-06,0.128
5.950E-06,0.128
5.960E-06,0.124
5.970E-06,0.124
5.980E-06,0.120
5.990E-06,0.120
6.000E-06,0.120
6.010E-06,0.120
6.020E-06,0.120
6.030E-06,0.120
6.040E-06,0.124
6.050E-06,0.124
6.060E-06,0.124
6.070E-06,0.120
6.080E-06,0.116
6.090E-06,0.120
6.100E-06,0.120
6.110E-06,0.120
6.120E-06,0.116
6.130E-06,0.116
6.140E-06,0.116
6.150E-06,0.112
6.160E-06,0.112
6.170E-06,0.116
6.180E-06,0.120
6.190E-06,0.120
6.200E-06,0.120
6.210E-06,0.112
6.220E-06,0.112
6.230E-06,0.112
6.240E-06,0.108
6.250E-06,0.112
6.260E-06,0.112
6.270E-06,0.112
6.280E-06,0.108
