mediciones/5-27/-37.5/WaveData5110.csv

#timebase=2000000(ps)
,#voltbase=100000(mv/100)
#size=4000
-5.650E-06,0.004
-5.640E-06,0.004
-5.630E-06,0.000
-5.620E-06,0.004
-5.610E-06,0.000
-5.600E-06,0.000
-5.590E-06,-0.004
-5.580E-06,0.000
-5.570E-06,-0.004
-5.560E-06,0.000
-5.550E-06,0.000
-5.540E-06,0.004
-5.530E-06,0.004
-5.520E-06,0.000
-5.510E-06,0.000
-5.500E-06,0.000
-5.490E-06,0.004
-5.480E-06,0.000
-5.470E-06,0.004
-5.460E-06,0.004
-5.450E-06,0.000
-5.440E-06,0.004
-5.430E-06,0.004
-5.420E-06,0.008
-5.410E-06,0.008
-5.400E-06,0.008
-5.390E-06,0.004
-5.380E-06,0.004
-5.370E-06,0.004
-5.360E-06,-0.004
-5.350E-06,0.000
-5.340E-06,0.004
-5.330E-06,0.004
-5.320E-06,0.000
-5.310E-06,0.000
-5.300E-06,0.000
-5.290E-06,-0.004
-5.280E-06,0.004
-5.270E-06,0.004
-5.260E-06,0.004
-5.250E-06,0.000
-5.240E-06,0.000
-5.230E-06,0.000
-5.220E-06,0.000
-5.210E-06,0.004
-5.200E-06,0.004
-5.190E-06,0.004
-5.180E-06,-0.004
-5.170E-06,0.000
-5.160E-06,-0.004
-5.150E-06,0.000
-5.140E-06,0.000
-5.130E-06,0.004
-5.120E-06,0.004
-5.110E-06,0.008
-5.100E-06,0.000
-5.090E-06,0.000
-5.080E-06,0.000
-5.070E-06,0.004
-5.060E-06,0.004
-5.050E-06,0.004
-5.040E-06,-0.004
-5.030E-06,0.000
-5.020E-06,0.004
-5.010E-06,0.000
-5.000E-06,0.004
-4.990E-06,0.004
-4.980E-06,0.004
-4.970E-06,0.004
-4.960E-06,0.000
-4.950E-06,-0.004
-4.940E-06,0.000
-4.930E-06,0.004
-4.920E-06,0.000
-4.910E-06,0.004
-4.900E-06,0.000
-4.890E-06,0.000
-4.880E-06,0.000
-4.870E-06,0.004
-4.860E-06,0.004
-4.850E-06,-0.004
-4.840E-06,0.000
-4.830E-06,-0.004
-4.820E-06,-0.004
-4.810E-06,0.004
-4.800E-06,0.008
-4.790E-06,0.008
-4.780E-06,-0.004
-4.770E-06,-0.004
-4.760E-06,0.000
-4.750E-06,0.000
-4.740E-06,0.004
-4.730E-06,0.004
-4.720E-06,0.000
-4.710E-06,0.004
-4.700E-06,0.000
-4.690E-06,0.000
-4.680E-06,0.000
-4.670E-06,0.004
-4.660E-06,0.004
-4.650E-06,0.004
-4.640E-06,0.000
-4.630E-06,0.000
-4.620E-06,0.000
-4.610E-06,0.000
-4.600E-06,0.004
-4.590E-06,0.008
-4.580E-06,0.008
-4.570E-06,-0.004
-4.560E-06,0.000
-4.550E-06,-0.004
-4.540E-06,0.000
-4.530E-06,-0.004
-4.520E-06,0.004
-4.510E-06,0.000
-4.500E-06,0.000
-4.490E-06,0.004
-4.480E-06,0.000
-4.470E-06,0.000
-4.460E-06,0.004
-4.450E-06,0.000
-4.440E-06,0.004
-4.430E-06,0.004
-4.420E-06,0.008
-4.410E-06,0.000
-4.400E-06,-0.004
-4.390E-06,0.000
-4.380E-06,0.008
-4.370E-06,0.004
-4.360E-06,0.004
-4.350E-06,0.000
-4.340E-06,-0.004
-4.330E-06,0.004
-4.320E-06,0.000
-4.310E-06,0.000
-4.300E-06,0.004
-4.290E-06,0.004
-4.280E-06,0.000
-4.270E-06,0.000
-4.260E-06,-0.004
-4.250E-06,0.000
-4.240E-06,0.004
-4.230E-06,0.000
-4.220E-06,0.000
-4.210E-06,0.000
-4.200E-06,0.000
-4.190E-06,0.000
-4.180E-06,0.000
-4.170E-06,0.000
-4.160E-06,0.004
-4.150E-06,-0.004
-4.140E-06,-0.004
-4.130E-06,0.000
-4.120E-06,0.000
-4.110E-06,0.000
-4.100E-06,0.000
-4.090E-06,0.000
-4.080E-06,-0.004
-4.070E-06,-0.004
-4.060E-06,-0.004
-4.050E-06,0.004
-4.040E-06,0.000
-4.030E-06,0.004
-4.020E-06,-0.004
-4.010E-06,-0.004
-4.000E-06,0.000
-3.990E-06,0.000
-3.980E-06,0.004
-3.970E-06,0.000
-3.960E-06,-0.004
-3.950E-06,0.000
-3.940E-06,0.000
-3.930E-06,0.000
-3.920E-06,0.004
-3.910E-06,0.004
-3.900E-06,0.008
-3.890E-06,0.008
-3.880E-06,0.008
-3.870E-06,0.012
-3.860E-06,0.004
-3.850E-06,0.004
-3.840E-06,0.008
-3.830E-06,0.004
-3.820E-06,0.008
-3.810E-06,0.004
-3.800E-06,0.000
-3.790E-06,0.000
-3.780E-06,-0.004
-3.770E-06,0.004
-3.760E-06,0.000
-3.750E-06,0.008
-3.740E-06,0.004
-3.730E-06,0.004
-3.720E-06,0.000
-3.710E-06,-0.004
-3.700E-06,0.000
-3.690E-06,-0.004
-3.680E-06,0.000
-3.670E-06,0.004
-3.660E-06,0.008
-3.650E-06,0.008
-3.640E-06,0.008
-3.630E-06,-0.004
-3.620E-06,0.000
-3.610E-06,0.000
-3.600E-06,0.000
-3.590E-06,0.008
-3.580E-06,0.012
-3.570E-06,0.008
-3.560E-06,0.004
-3.550E-06,0.000
-3.540E-06,-0.004
-3.530E-06,-0.012
-3.520E-06,-0.004
-3.510E-06,0.000
-3.500E-06,0.012
-3.490E-06,0.020
-3.480E-06,0.012
-3.470E-06,0.008
-3.460E-06,-0.012
-3.450E-06,-0.020
-3.440E-06,-0.012
-3.430E-06,-0.004
-3.420E-06,0.020
-3.410E-06,0.032
-3.400E-06,0.012
-3.390E-06,-0.008
-3.380E-06,-0.040
-3.370E-06,-0.032
-3.360E-06,0.000
-3.350E-06,0.036
-3.340E-06,0.052
-3.330E-06,0.040
-3.320E-06,-0.012
-3.310E-06,-0.052
-3.300E-06,-0.056
-3.290E-06,-0.052
-3.280E-06,0.024
-3.270E-06,0.060
-3.260E-06,0.016
-3.250E-06,-0.008
-3.240E-06,-0.068
-3.230E-06,-0.084
-3.220E-06,0.000
-3.210E-06,0.064
-3.200E-06,0.080
-3.190E-06,0.064
-3.180E-06,-0.020
-3.170E-06,-0.080
-3.160E-06,-0.076
-3.150E-06,-0.036
-3.140E-06,0.036
-3.130E-06,0.072
-3.120E-06,0.060
-3.110E-06,0.008
-3.100E-06,-0.036
-3.090E-06,-0.044
-3.080E-06,-0.020
-3.070E-06,0.016
-3.060E-06,0.040
-3.050E-06,0.028
-3.040E-06,0.000
-3.030E-06,-0.024
-3.020E-06,-0.028
-3.010E-06,-0.004
-3.000E-06,0.012
-2.990E-06,0.024
-2.980E-06,0.024
-2.970E-06,0.008
-2.960E-06,-0.004
-2.950E-06,-0.008
-2.940E-06,-0.008
-2.930E-06,0.004
-2.920E-06,0.020
-2.910E-06,0.024
-2.900E-06,0.016
-2.890E-06,0.004
-2.880E-06,-0.008
-2.870E-06,-0.012
-2.860E-06,-0.012
-2.850E-06,-0.004
-2.840E-06,0.012
-2.830E-06,0.024
-2.820E-06,0.024
-2.810E-06,0.032
-2.800E-06,0.020
-2.790E-06,0.008
-2.780E-06,0.004
-2.770E-06,0.008
-2.760E-06,0.012
-2.750E-06,0.028
-2.740E-06,0.024
-2.730E-06,0.020
-2.720E-06,0.016
-2.710E-06,0.028
-2.700E-06,0.028
-2.690E-06,0.040
-2.680E-06,0.036
-2.670E-06,0.028
-2.660E-06,0.016
-2.650E-06,-0.008
-2.640E-06,-0.016
-2.630E-06,-0.028
-2.620E-06,-0.004
-2.610E-06,0.032
-2.600E-06,0.044
-2.590E-06,0.032
-2.580E-06,-0.008
-2.570E-06,-0.040
-2.560E-06,-0.040
-2.550E-06,0.012
-2.540E-06,0.072
-2.530E-06,0.088
-2.520E-06,-0.028
-2.510E-06,-0.140
-2.500E-06,-0.208
-2.490E-06,-0.160
-2.480E-06,-0.028
-2.470E-06,0.104
-2.460E-06,0.144
-2.450E-06,0.096
-2.440E-06,-0.004
-2.430E-06,-0.084
-2.420E-06,-0.100
-2.410E-06,-0.044
-2.400E-06,0.028
-2.390E-06,0.064
-2.380E-06,0.068
-2.370E-06,0.020
-2.360E-06,-0.024
-2.350E-06,-0.036
-2.340E-06,-0.020
-2.330E-06,0.012
-2.320E-06,0.032
-2.310E-06,0.024
-2.300E-06,-0.004
-2.290E-06,-0.016
-2.280E-06,-0.016
-2.270E-06,0.004
-2.260E-06,0.024
-2.250E-06,0.024
-2.240E-06,0.008
-2.230E-06,-0.004
-2.220E-06,-0.016
-2.210E-06,0.000
-2.200E-06,0.004
-2.190E-06,0.016
-2.180E-06,0.016
-2.170E-06,0.000
-2.160E-06,-0.004
-2.150E-06,-0.012
-2.140E-06,-0.004
-2.130E-06,0.004
-2.120E-06,0.012
-2.110E-06,0.008
-2.100E-06,0.004
-2.090E-06,0.000
-2.080E-06,0.004
-2.070E-06,0.012
-2.060E-06,0.012
-2.050E-06,0.000
-2.040E-06,-0.012
-2.030E-06,-0.004
-2.020E-06,0.000
-2.010E-06,0.008
-2.000E-06,0.016
-1.990E-06,0.024
-1.980E-06,0.012
-1.970E-06,0.000
-1.960E-06,-0.004
-1.950E-06,-0.004
-1.940E-06,0.004
-1.930E-06,0.012
-1.920E-06,0.016
-1.910E-06,0.008
-1.900E-06,0.012
-1.890E-06,0.008
-1.880E-06,0.012
-1.870E-06,0.020
-1.860E-06,0.020
-1.850E-06,0.024
-1.840E-06,0.032
-1.830E-06,0.024
-1.820E-06,0.032
-1.810E-06,0.044
-1.800E-06,0.060
-1.790E-06,0.076
-1.780E-06,0.076
-1.770E-06,0.068
-1.760E-06,0.056
-1.750E-06,0.036
-1.740E-06,-0.004
-1.730E-06,-0.040
-1.720E-06,-0.052
-1.710E-06,-0.028
-1.700E-06,0.016
-1.690E-06,0.064
-1.680E-06,0.080
-1.670E-06,0.052
-1.660E-06,0.012
-1.650E-06,-0.044
-1.640E-06,-0.056
-1.630E-06,-0.052
-1.620E-06,-0.020
-1.610E-06,0.004
-1.600E-06,0.032
-1.590E-06,0.020
-1.580E-06,0.008
-1.570E-06,-0.008
-1.560E-06,-0.016
-1.550E-06,-0.020
-1.540E-06,-0.012
-1.530E-06,0.012
-1.520E-06,0.020
-1.510E-06,0.036
-1.500E-06,0.048
-1.490E-06,0.028
-1.480E-06,0.028
-1.470E-06,0.012
-1.460E-06,0.004
-1.450E-06,-0.012
-1.440E-06,-0.024
-1.430E-06,-0.024
-1.420E-06,-0.008
-1.410E-06,0.016
-1.400E-06,0.052
-1.390E-06,0.072
-1.380E-06,0.088
-1.370E-06,0.080
-1.360E-06,0.044
-1.350E-06,-0.004
-1.340E-06,-0.060
-1.330E-06,-0.140
-1.320E-06,-0.144
-1.310E-06,-0.160
-1.300E-06,-0.136
-1.290E-06,-0.068
-1.280E-06,0.004
-1.270E-06,0.072
-1.260E-06,0.088
-1.250E-06,0.040
-1.240E-06,-0.032
-1.230E-06,-0.080
-1.220E-06,-0.072
-1.210E-06,-0.044
-1.200E-06,0.024
-1.190E-06,0.056
-1.180E-06,0.044
-1.170E-06,0.004
-1.160E-06,-0.036
-1.150E-06,-0.040
-1.140E-06,-0.020
-1.130E-06,0.004
-1.120E-06,0.028
-1.110E-06,0.024
-1.100E-06,0.004
-1.090E-06,-0.008
-1.080E-06,-0.016
-1.070E-06,0.000
-1.060E-06,0.012
-1.050E-06,0.024
-1.040E-06,0.016
-1.030E-06,0.008
-1.020E-06,-0.012
-1.010E-06,-0.012
-1.000E-06,0.000
-9.900E-07,0.004
-9.800E-07,0.012
-9.700E-07,-0.008
-9.600E-07,-0.004
-9.500E-07,-0.008
-9.400E-07,-0.004
-9.300E-07,0.004
-9.200E-07,0.008
-9.100E-07,0.004
-9.000E-07,0.004
-8.900E-07,0.004
-8.800E-07,0.008
-8.700E-07,0.004
-8.600E-07,0.004
-8.500E-07,-0.012
-8.400E-07,-0.012
-8.300E-07,-0.008
-8.200E-07,0.004
-8.100E-07,0.016
-8.000E-07,0.020
-7.900E-07,0.008
-7.800E-07,0.004
-7.700E-07,0.004
-7.600E-07,0.012
-7.500E-07,0.028
-7.400E-07,0.028
-7.300E-07,0.028
-7.200E-07,0.032
-7.100E-07,0.032
-7.000E-07,0.032
-6.900E-07,0.044
-6.800E-07,0.052
-6.700E-07,0.056
-6.600E-07,0.056
-6.500E-07,0.056
-6.400E-07,0.064
-6.300E-07,0.076
-6.200E-07,0.092
-6.100E-07,0.092
-6.000E-07,0.092
-5.900E-07,0.088
-5.800E-07,0.060
-5.700E-07,-0.008
-5.600E-07,-0.068
-5.500E-07,-0.076
-5.400E-07,-0.032
-5.300E-07,0.044
-5.200E-07,0.124
-5.100E-07,0.128
-5.000E-07,0.064
-4.900E-07,-0.016
-4.800E-07,-0.092
-4.700E-07,-0.116
-4.600E-07,-0.072
-4.500E-07,0.000
-4.400E-07,0.024
-4.300E-07,0.028
-4.200E-07,-0.004
-4.100E-07,-0.032
-4.000E-07,-0.044
-3.900E-07,-0.032
-3.800E-07,-0.004
-3.700E-07,0.032
-3.600E-07,0.048
-3.500E-07,0.056
-3.400E-07,0.044
-3.300E-07,0.032
-3.200E-07,0.028
-3.100E-07,0.020
-3.000E-07,0.024
-2.900E-07,0.044
-2.800E-07,0.052
-2.700E-07,0.056
-2.600E-07,0.044
-2.500E-07,0.028
-2.400E-07,0.008
-2.300E-07,0.000
-2.200E-07,0.012
-2.100E-07,0.040
-2.000E-07,0.068
-1.900E-07,0.076
-1.800E-07,0.076
-1.700E-07,0.060
-1.600E-07,0.036
-1.500E-07,0.024
-1.400E-07,0.044
-1.300E-07,0.052
-1.200E-07,0.056
-1.100E-07,0.040
-1.000E-07,0.016
-9.000E-08,0.012
-8.000E-08,-0.008
-7.000E-08,-0.032
-6.000E-08,-0.088
-5.000E-08,-0.212
-4.000E-08,-0.420
-3.000E-08,-0.508
-2.000E-08,-0.468
-1.000E-08,-0.272
0.000E+00,0.324
1.000E-08,0.464
2.000E-08,0.440
3.000E-08,0.240
4.000E-08,-0.032
5.000E-08,-0.272
6.000E-08,-0.428
7.000E-08,-0.352
8.000E-08,-0.168
9.000E-08,0.168
1.000E-07,0.344
1.100E-07,0.320
1.200E-07,0.060
1.300E-07,-0.232
1.400E-07,-0.336
1.500E-07,-0.212
1.600E-07,0.032
1.700E-07,0.204
1.800E-07,0.196
1.900E-07,0.060
2.000E-07,-0.084
2.100E-07,-0.128
2.200E-07,-0.068
2.300E-07,0.016
2.400E-07,0.092
2.500E-07,0.084
2.600E-07,0.028
2.700E-07,-0.032
2.800E-07,-0.056
2.900E-07,-0.032
3.000E-07,0.016
3.100E-07,0.044
3.200E-07,0.048
3.300E-07,0.020
3.400E-07,-0.004
3.500E-07,-0.004
3.600E-07,-0.020
3.700E-07,-0.004
3.800E-07,-0.004
3.900E-07,0.024
4.000E-07,0.052
4.100E-07,0.060
4.200E-07,0.056
4.300E-07,0.012
4.400E-07,-0.008
4.500E-07,-0.012
4.600E-07,-0.004
4.700E-07,0.012
4.800E-07,0.016
4.900E-07,0.000
5.000E-07,0.012
5.100E-07,0.020
5.200E-07,0.056
5.300E-07,0.072
5.400E-07,0.060
5.500E-07,0.036
5.600E-07,0.008
5.700E-07,0.012
5.800E-07,-0.004
5.900E-07,-0.008
6.000E-07,-0.012
6.100E-07,-0.008
6.200E-07,-0.032
6.300E-07,-0.048
6.400E-07,-0.132
6.500E-07,-0.136
6.600E-07,-0.092
6.700E-07,-0.008
6.800E-07,0.092
6.900E-07,0.104
7.000E-07,0.088
7.100E-07,0.008
7.200E-07,-0.068
7.300E-07,-0.084
7.400E-07,-0.048
7.500E-07,0.020
7.600E-07,0.056
7.700E-07,0.064
7.800E-07,0.012
7.900E-07,-0.044
8.000E-07,-0.068
8.100E-07,-0.032
8.200E-07,0.016
8.300E-07,0.060
8.400E-07,0.056
8.500E-07,0.008
8.600E-07,-0.028
8.700E-07,-0.052
8.800E-07,-0.032
8.900E-07,0.016
9.000E-07,0.036
9.100E-07,0.040
9.200E-07,0.032
9.300E-07,0.012
9.400E-07,0.008
9.500E-07,0.008
9.600E-07,0.020
9.700E-07,0.044
9.800E-07,0.056
9.900E-07,0.056
1.000E-06,0.056
1.010E-06,0.052
1.020E-06,0.060
1.030E-06,0.048
1.040E-06,0.044
1.050E-06,0.028
1.060E-06,0.028
1.070E-06,-0.012
1.080E-06,-0.044
1.090E-06,-0.096
1.100E-06,-0.160
1.110E-06,-0.136
1.120E-06,-0.096
1.130E-06,0.024
1.140E-06,0.108
1.150E-06,0.092
1.160E-06,0.068
1.170E-06,-0.056
1.180E-06,-0.092
1.190E-06,-0.080
1.200E-06,-0.008
1.210E-06,0.072
1.220E-06,0.068
1.230E-06,0.028
1.240E-06,-0.016
1.250E-06,-0.040
1.260E-06,-0.036
1.270E-06,-0.008
1.280E-06,0.028
1.290E-06,0.040
1.300E-06,0.016
1.310E-06,0.000
1.320E-06,-0.020
1.330E-06,-0.020
1.340E-06,0.012
1.350E-06,0.032
1.360E-06,0.044
1.370E-06,0.036
1.380E-06,0.016
1.390E-06,0.000
1.400E-06,0.008
1.410E-06,0.008
1.420E-06,0.028
1.430E-06,0.044
1.440E-06,0.040
1.450E-06,0.028
1.460E-06,0.016
1.470E-06,0.012
1.480E-06,0.016
1.490E-06,0.032
1.500E-06,0.052
1.510E-06,0.048
1.520E-06,0.048
1.530E-06,0.024
1.540E-06,-0.004
1.550E-06,-0.040
1.560E-06,-0.056
1.570E-06,-0.036
1.580E-06,-0.028
1.590E-06,0.008
1.600E-06,0.036
1.610E-06,0.040
1.620E-06,0.020
1.630E-06,-0.032
1.640E-06,-0.040
1.650E-06,-0.088
1.660E-06,-0.020
1.670E-06,0.012
1.680E-06,0.060
1.690E-06,0.068
1.700E-06,0.024
1.710E-06,0.008
1.720E-06,-0.016
1.730E-06,0.000
1.740E-06,0.028
1.750E-06,0.044
1.760E-06,0.040
1.770E-06,0.020
1.780E-06,0.000
1.790E-06,0.004
1.800E-06,0.008
1.810E-06,0.020
1.820E-06,0.024
1.830E-06,0.028
1.840E-06,0.012
1.850E-06,0.000
1.860E-06,0.004
1.870E-06,0.008
1.880E-06,0.016
1.890E-06,0.008
1.900E-06,0.004
1.910E-06,-0.064
1.920E-06,-0.188
1.930E-06,-0.216
1.940E-06,-0.232
1.950E-06,-0.092
1.960E-06,0.040
1.970E-06,0.152
1.980E-06,0.196
1.990E-06,0.048
2.000E-06,-0.044
2.010E-06,-0.136
2.020E-06,-0.128
2.030E-06,-0.044
2.040E-06,0.052
2.050E-06,0.088
2.060E-06,0.068
2.070E-06,0.008
2.080E-06,-0.064
2.090E-06,-0.072
2.100E-06,-0.040
2.110E-06,0.012
2.120E-06,0.032
2.130E-06,0.036
2.140E-06,0.008
2.150E-06,-0.012
2.160E-06,-0.024
2.170E-06,-0.020
2.180E-06,-0.004
2.190E-06,0.012
2.200E-06,0.020
2.210E-06,0.012
2.220E-06,0.012
2.230E-06,-0.004
2.240E-06,-0.004
2.250E-06,-0.008
2.260E-06,0.000
2.270E-06,0.004
2.280E-06,0.012
2.290E-06,0.012
2.300E-06,0.008
2.310E-06,0.000
2.320E-06,-0.004
2.330E-06,-0.004
2.340E-06,0.000
2.350E-06,0.012
2.360E-06,0.028
2.370E-06,0.028
2.380E-06,0.008
2.390E-06,-0.004
2.400E-06,-0.008
2.410E-06,-0.012
2.420E-06,0.000
2.430E-06,0.004
2.440E-06,0.020
2.450E-06,0.024
2.460E-06,0.024
2.470E-06,0.004
2.480E-06,-0.004
2.490E-06,-0.004
2.500E-06,0.004
2.510E-06,0.012
2.520E-06,0.020
2.530E-06,0.024
2.540E-06,0.016
2.550E-06,0.012
2.560E-06,0.012
2.570E-06,0.004
2.580E-06,0.012
2.590E-06,0.012
2.600E-06,0.012
2.610E-06,0.008
2.620E-06,0.012
2.630E-06,0.016
2.640E-06,0.020
2.650E-06,0.020
2.660E-06,0.028
2.670E-06,0.024
2.680E-06,0.028
2.690E-06,0.032
2.700E-06,0.040
2.710E-06,0.040
2.720E-06,0.044
2.730E-06,0.044
2.740E-06,0.052
2.750E-06,0.056
2.760E-06,0.064
2.770E-06,0.076
2.780E-06,0.088
2.790E-06,0.092
2.800E-06,0.096
2.810E-06,0.076
2.820E-06,0.044
2.830E-06,0.012
2.840E-06,-0.004
2.850E-06,0.000
2.860E-06,0.028
2.870E-06,0.040
2.880E-06,0.012
2.890E-06,-0.052
2.900E-06,-0.124
2.910E-06,-0.156
2.920E-06,-0.148
2.930E-06,-0.104
2.940E-06,-0.044
2.950E-06,-0.064
2.960E-06,-0.088
2.970E-06,-0.120
2.980E-06,-0.080
2.990E-06,-0.056
3.000E-06,0.020
3.010E-06,0.076
3.020E-06,0.072
3.030E-06,0.028
3.040E-06,-0.044
3.050E-06,-0.064
3.060E-06,-0.040
3.070E-06,0.020
3.080E-06,0.088
3.090E-06,0.088
3.100E-06,0.044
3.110E-06,-0.004
3.120E-06,-0.036
3.130E-06,-0.008
3.140E-06,0.036
3.150E-06,0.092
3.160E-06,0.096
3.170E-06,0.068
3.180E-06,0.044
3.190E-06,0.000
3.200E-06,-0.028
3.210E-06,-0.152
3.220E-06,-0.168
3.230E-06,-0.168
3.240E-06,-0.100
3.250E-06,0.028
3.260E-06,0.160
3.270E-06,0.184
3.280E-06,0.088
3.290E-06,-0.036
3.300E-06,-0.136
3.310E-06,-0.112
3.320E-06,0.000
3.330E-06,0.104
3.340E-06,0.148
3.350E-06,0.108
3.360E-06,0.052
3.370E-06,0.004
3.380E-06,0.032
3.390E-06,0.040
3.400E-06,0.036
3.410E-06,0.000
3.420E-06,-0.104
3.430E-06,-0.172
3.440E-06,-0.184
3.450E-06,-0.068
3.460E-06,0.096
3.470E-06,0.168
3.480E-06,0.132
3.490E-06,0.012
3.500E-06,-0.132
3.510E-06,-0.184
3.520E-06,-0.132
3.530E-06,0.008
3.540E-06,0.108
3.550E-06,0.120
3.560E-06,0.044
3.570E-06,-0.056
3.580E-06,-0.104
3.590E-06,-0.072
3.600E-06,-0.004
3.610E-06,0.056
3.620E-06,0.068
3.630E-06,0.036
3.640E-06,0.000
3.650E-06,-0.032
3.660E-06,-0.028
3.670E-06,-0.004
3.680E-06,0.024
3.690E-06,0.028
3.700E-06,0.028
3.710E-06,0.016
3.720E-06,-0.004
3.730E-06,-0.008
3.740E-06,-0.008
3.750E-06,0.004
3.760E-06,0.016
3.770E-06,0.032
3.780E-06,0.044
3.790E-06,0.048
3.800E-06,0.032
3.810E-06,0.036
3.820E-06,0.036
3.830E-06,0.040
3.840E-06,0.048
3.850E-06,0.056
3.860E-06,0.060
3.870E-06,0.044
3.880E-06,0.020
3.890E-06,-0.012
3.900E-06,-0.036
3.910E-06,-0.032
3.920E-06,-0.016
3.930E-06,0.024
3.940E-06,0.044
3.950E-06,0.052
3.960E-06,0.024
3.970E-06,0.000
3.980E-06,-0.020
3.990E-06,-0.012
4.000E-06,0.008
4.010E-06,0.032
4.020E-06,0.052
4.030E-06,0.044
4.040E-06,0.044
4.050E-06,0.024
4.060E-06,0.020
4.070E-06,-0.004
4.080E-06,-0.020
4.090E-06,-0.040
4.100E-06,-0.072
4.110E-06,-0.052
4.120E-06,0.004
4.130E-06,0.104
4.140E-06,0.144
4.150E-06,0.172
4.160E-06,0.012
4.170E-06,-0.252
4.180E-06,-0.508
4.190E-06,-0.436
4.200E-06,-0.192
4.210E-06,0.260
4.220E-06,0.492
4.230E-06,0.488
4.240E-06,0.100
4.250E-06,-0.428
4.260E-06,-0.512
4.270E-06,-0.416
4.280E-06,0.048
4.290E-06,0.416
4.300E-06,0.492
4.310E-06,0.228
4.320E-06,-0.068
4.330E-06,-0.304
4.340E-06,-0.252
4.350E-06,-0.076
4.360E-06,0.168
4.370E-06,0.172
4.380E-06,0.064
4.390E-06,-0.156
4.400E-06,-0.272
4.410E-06,-0.192
4.420E-06,-0.036
4.430E-06,0.176
4.440E-06,0.228
4.450E-06,0.144
4.460E-06,-0.076
4.470E-06,-0.192
4.480E-06,-0.164
4.490E-06,-0.020
4.500E-06,0.112
4.510E-06,0.144
4.520E-06,0.088
4.530E-06,-0.012
4.540E-06,-0.064
4.550E-06,-0.068
4.560E-06,-0.012
4.570E-06,0.020
4.580E-06,0.044
4.590E-06,0.028
4.600E-06,0.008
4.610E-06,-0.008
4.620E-06,-0.004
4.630E-06,0.012
4.640E-06,0.028
4.650E-06,0.032
4.660E-06,0.036
4.670E-06,0.036
4.680E-06,0.036
4.690E-06,0.032
4.700E-06,0.024
4.710E-06,0.020
4.720E-06,0.032
4.730E-06,0.044
4.740E-06,0.044
4.750E-06,0.052
4.760E-06,-0.004
4.770E-06,-0.012
4.780E-06,-0.064
4.790E-06,-0.044
4.800E-06,-0.020
4.810E-06,0.024
4.820E-06,0.060
4.830E-06,0.072
4.840E-06,0.096
4.850E-06,0.064
4.860E-06,0.028
4.870E-06,0.004
4.880E-06,-0.084
4.890E-06,-0.212
4.900E-06,-0.160
4.910E-06,-0.128
4.920E-06,0.072
4.930E-06,0.112
4.940E-06,0.184
4.950E-06,0.092
4.960E-06,-0.056
4.970E-06,-0.088
4.980E-06,-0.204
4.990E-06,-0.116
5.000E-06,-0.060
5.010E-06,0.052
5.020E-06,0.136
5.030E-06,0.132
5.040E-06,0.040
5.050E-06,-0.088
5.060E-06,-0.156
5.070E-06,-0.120
5.080E-06,-0.024
5.090E-06,0.080
5.100E-06,0.100
5.110E-06,0.012
5.120E-06,-0.040
5.130E-06,-0.080
5.140E-06,-0.044
5.150E-06,0.020
5.160E-06,0.084
5.170E-06,0.084
5.180E-06,0.036
5.190E-06,-0.032
5.200E-06,-0.076
5.210E-06,-0.056
5.220E-06,-0.020
5.230E-06,0.040
5.240E-06,0.072
5.250E-06,0.064
5.260E-06,0.016
5.270E-06,-0.032
5.280E-06,-0.064
5.290E-06,-0.044
5.300E-06,0.000
5.310E-06,0.048
5.320E-06,0.072
5.330E-06,0.064
5.340E-06,0.028
5.350E-06,-0.020
5.360E-06,-0.036
5.370E-06,-0.036
5.380E-06,-0.004
5.390E-06,0.032
5.400E-06,0.060
5.410E-06,0.064
5.420E-06,0.040
5.430E-06,0.012
5.440E-06,-0.008
5.450E-06,-0.004
5.460E-06,0.020
5.470E-06,0.040
5.480E-06,0.052
5.490E-06,0.036
5.500E-06,-0.004
5.510E-06,-0.020
5.520E-06,-0.044
5.530E-06,-0.052
5.540E-06,-0.036
5.550E-06,-0.016
5.560E-06,-0.004
5.570E-06,0.016
5.580E-06,0.028
5.590E-06,0.032
5.600E-06,0.012
5.610E-06,0.004
5.620E-06,-0.008
5.630E-06,-0.004
5.640E-06,-0.004
5.650E-06,0.020
5.660E-06,0.020
5.670E-06,0.020
5.680E-06,0.008
5.690E-06,-0.020
5.700E-06,-0.016
5.710E-06,-0.004
5.720E-06,0.032
5.730E-06,0.040
5.740E-06,0.040
5.750E-06,0.032
5.760E-06,-0.004
5.770E-06,0.000
5.780E-06,0.004
5.790E-06,0.012
5.800E-06,0.016
5.810E-06,0.012
5.820E-06,0.000
5.830E-06,-0.008
5.840E-06,-0.028
5.850E-06,-0.036
5.860E-06,-0.032
5.870E-06,-0.008
5.880E-06,0.000
5.890E-06,0.000
5.900E-06,0.004
5.910E-06,-0.004
5.920E-06,-0.020
5.930E-06,-0.016
5.940E-06,-0.008
5.950E-06,0.012
5.960E-06,0.024
5.970E-06,0.024
5.980E-06,0.016
5.990E-06,0.008
6.000E-06,0.004
6.010E-06,0.008
6.020E-06,0.020
6.030E-06,0.020
6.040E-06,0.020
6.050E-06,0.020
6.060E-06,0.004
6.070E-06,0.008
6.080E-06,0.008
6.090E-06,0.016
6.100E-06,0.020
6.110E-06,0.016
6.120E-06,0.020
6.130E-06,0.028
6.140E-06,0.028
6.150E-06,0.028
6.160E-06,0.024
6.170E-06,0.004
6.180E-06,-0.004
6.190E-06,0.008
6.200E-06,0.024
