mediciones/5-27/-37.5/WaveData5124.csv

#timebase=2000000(ps)
,#voltbase=100000(mv/100)
#size=4000
-5.650E-06,0.004
-5.640E-06,0.004
-5.630E-06,0.008
-5.620E-06,0.000
-5.610E-06,-0.004
-5.600E-06,0.000
-5.590E-06,0.004
-5.580E-06,0.004
-5.570E-06,0.000
-5.560E-06,0.000
-5.550E-06,-0.004
-5.540E-06,0.004
-5.530E-06,0.004
-5.520E-06,0.008
-5.510E-06,0.000
-5.500E-06,0.000
-5.490E-06,0.000
-5.480E-06,0.000
-5.470E-06,0.004
-5.460E-06,0.004
-5.450E-06,0.004
-5.440E-06,0.004
-5.430E-06,0.004
-5.420E-06,0.004
-5.410E-06,-0.012
-5.400E-06,-0.008
-5.390E-06,0.000
-5.380E-06,0.000
-5.370E-06,0.012
-5.360E-06,0.000
-5.350E-06,0.000
-5.340E-06,-0.004
-5.330E-06,-0.004
-5.320E-06,0.000
-5.310E-06,0.008
-5.300E-06,0.008
-5.290E-06,0.000
-5.280E-06,-0.004
-5.270E-06,0.000
-5.260E-06,0.000
-5.250E-06,0.004
-5.240E-06,0.008
-5.230E-06,0.008
-5.220E-06,0.004
-5.210E-06,0.004
-5.200E-06,-0.004
-5.190E-06,0.000
-5.180E-06,0.008
-5.170E-06,0.004
-5.160E-06,0.000
-5.150E-06,-0.004
-5.140E-06,-0.004
-5.130E-06,-0.004
-5.120E-06,0.032
-5.110E-06,-0.012
-5.100E-06,0.020
-5.090E-06,-0.008
-5.080E-06,-0.012
-5.070E-06,0.008
-5.060E-06,0.012
-5.050E-06,0.012
-5.040E-06,0.008
-5.030E-06,0.008
-5.020E-06,-0.004
-5.010E-06,0.000
-5.000E-06,-0.004
-4.990E-06,0.004
-4.980E-06,0.012
-4.970E-06,-0.004
-4.960E-06,0.004
-4.950E-06,0.000
-4.940E-06,0.004
-4.930E-06,0.004
-4.920E-06,-0.004
-4.910E-06,0.000
-4.900E-06,0.004
-4.890E-06,0.000
-4.880E-06,0.000
-4.870E-06,-0.004
-4.860E-06,0.004
-4.850E-06,0.008
-4.840E-06,0.000
-4.830E-06,0.012
-4.820E-06,-0.008
-4.810E-06,-0.008
-4.800E-06,0.000
-4.790E-06,-0.008
-4.780E-06,0.004
-4.770E-06,0.012
-4.760E-06,0.012
-4.750E-06,0.004
-4.740E-06,-0.004
-4.730E-06,-0.004
-4.720E-06,0.004
-4.710E-06,0.000
-4.700E-06,0.004
-4.690E-06,0.004
-4.680E-06,0.000
-4.670E-06,0.000
-4.660E-06,0.000
-4.650E-06,0.004
-4.640E-06,0.008
-4.630E-06,0.004
-4.620E-06,0.000
-4.610E-06,0.000
-4.600E-06,0.004
-4.590E-06,0.000
-4.580E-06,0.000
-4.570E-06,0.004
-4.560E-06,0.000
-4.550E-06,0.000
-4.540E-06,0.012
-4.530E-06,0.012
-4.520E-06,0.004
-4.510E-06,0.000
-4.500E-06,0.000
-4.490E-06,-0.004
-4.480E-06,0.000
-4.470E-06,0.008
-4.460E-06,0.008
-4.450E-06,0.000
-4.440E-06,0.000
-4.430E-06,0.000
-4.420E-06,0.000
-4.410E-06,0.008
-4.400E-06,0.008
-4.390E-06,0.008
-4.380E-06,0.004
-4.370E-06,-0.004
-4.360E-06,-0.008
-4.350E-06,-0.004
-4.340E-06,0.008
-4.330E-06,0.012
-4.320E-06,0.008
-4.310E-06,0.000
-4.300E-06,0.000
-4.290E-06,-0.004
-4.280E-06,0.000
-4.270E-06,0.008
-4.260E-06,0.012
-4.250E-06,0.008
-4.240E-06,-0.008
-4.230E-06,0.000
-4.220E-06,0.000
-4.210E-06,0.008
-4.200E-06,0.012
-4.190E-06,0.008
-4.180E-06,0.000
-4.170E-06,-0.004
-4.160E-06,-0.004
-4.150E-06,-0.004
-4.140E-06,0.008
-4.130E-06,0.008
-4.120E-06,0.008
-4.110E-06,0.000
-4.100E-06,-0.004
-4.090E-06,0.004
-4.080E-06,-0.004
-4.070E-06,0.000
-4.060E-06,0.004
-4.050E-06,0.008
-4.040E-06,0.008
-4.030E-06,-0.004
-4.020E-06,-0.004
-4.010E-06,-0.004
-4.000E-06,0.008
-3.990E-06,0.004
-3.980E-06,0.008
-3.970E-06,0.004
-3.960E-06,0.000
-3.950E-06,-0.004
-3.940E-06,-0.004
-3.930E-06,0.000
-3.920E-06,0.004
-3.910E-06,0.000
-3.900E-06,-0.004
-3.890E-06,0.000
-3.880E-06,0.008
-3.870E-06,0.008
-3.860E-06,-0.004
-3.850E-06,-0.004
-3.840E-06,0.000
-3.830E-06,0.000
-3.820E-06,0.000
-3.810E-06,0.012
-3.800E-06,0.012
-3.790E-06,-0.004
-3.780E-06,0.012
-3.770E-06,0.000
-3.760E-06,-0.008
-3.750E-06,0.012
-3.740E-06,0.004
-3.730E-06,0.012
-3.720E-06,0.008
-3.710E-06,0.008
-3.700E-06,-0.008
-3.690E-06,-0.008
-3.680E-06,0.000
-3.670E-06,0.008
-3.660E-06,0.012
-3.650E-06,0.008
-3.640E-06,0.000
-3.630E-06,-0.008
-3.620E-06,-0.004
-3.610E-06,-0.004
-3.600E-06,0.012
-3.590E-06,0.012
-3.580E-06,0.012
-3.570E-06,0.000
-3.560E-06,-0.008
-3.550E-06,-0.008
-3.540E-06,0.000
-3.530E-06,0.008
-3.520E-06,0.020
-3.510E-06,0.008
-3.500E-06,0.000
-3.490E-06,-0.016
-3.480E-06,-0.024
-3.470E-06,-0.008
-3.460E-06,0.012
-3.450E-06,0.020
-3.440E-06,0.020
-3.430E-06,0.000
-3.420E-06,-0.004
-3.410E-06,-0.008
-3.400E-06,0.000
-3.390E-06,0.024
-3.380E-06,0.028
-3.370E-06,0.008
-3.360E-06,-0.008
-3.350E-06,-0.020
-3.340E-06,-0.008
-3.330E-06,0.004
-3.320E-06,0.020
-3.310E-06,0.024
-3.300E-06,0.008
-3.290E-06,-0.008
-3.280E-06,-0.016
-3.270E-06,-0.004
-3.260E-06,0.004
-3.250E-06,0.012
-3.240E-06,0.012
-3.230E-06,0.004
-3.220E-06,-0.004
-3.210E-06,-0.004
-3.200E-06,0.004
-3.190E-06,0.012
-3.180E-06,0.020
-3.170E-06,0.008
-3.160E-06,0.000
-3.150E-06,-0.004
-3.140E-06,-0.008
-3.130E-06,0.000
-3.120E-06,0.008
-3.110E-06,0.012
-3.100E-06,0.004
-3.090E-06,0.004
-3.080E-06,0.000
-3.070E-06,-0.004
-3.060E-06,0.000
-3.050E-06,0.004
-3.040E-06,0.012
-3.030E-06,0.000
-3.020E-06,0.000
-3.010E-06,-0.004
-3.000E-06,-0.004
-2.990E-06,0.000
-2.980E-06,0.008
-2.970E-06,0.012
-2.960E-06,0.004
-2.950E-06,-0.004
-2.940E-06,-0.004
-2.930E-06,0.000
-2.920E-06,0.004
-2.910E-06,0.004
-2.900E-06,0.012
-2.890E-06,0.008
-2.880E-06,0.004
-2.870E-06,0.000
-2.860E-06,0.000
-2.850E-06,0.000
-2.840E-06,0.008
-2.830E-06,0.008
-2.820E-06,0.004
-2.810E-06,0.004
-2.800E-06,0.000
-2.790E-06,0.000
-2.780E-06,0.004
-2.770E-06,0.004
-2.760E-06,0.004
-2.750E-06,0.004
-2.740E-06,0.004
-2.730E-06,0.004
-2.720E-06,0.008
-2.710E-06,0.008
-2.700E-06,0.008
-2.690E-06,0.008
-2.680E-06,0.000
-2.670E-06,0.000
-2.660E-06,0.000
-2.650E-06,0.000
-2.640E-06,0.000
-2.630E-06,0.004
-2.620E-06,0.008
-2.610E-06,0.008
-2.600E-06,0.004
-2.590E-06,0.008
-2.580E-06,0.000
-2.570E-06,0.000
-2.560E-06,0.004
-2.550E-06,0.016
-2.540E-06,0.024
-2.530E-06,0.020
-2.520E-06,0.008
-2.510E-06,-0.012
-2.500E-06,-0.032
-2.490E-06,-0.032
-2.480E-06,-0.012
-2.470E-06,-0.004
-2.460E-06,0.020
-2.450E-06,0.020
-2.440E-06,0.012
-2.430E-06,-0.004
-2.420E-06,-0.012
-2.410E-06,-0.008
-2.400E-06,0.000
-2.390E-06,0.004
-2.380E-06,0.012
-2.370E-06,0.008
-2.360E-06,-0.008
-2.350E-06,-0.012
-2.340E-06,-0.008
-2.330E-06,0.004
-2.320E-06,0.008
-2.310E-06,0.008
-2.300E-06,0.000
-2.290E-06,-0.004
-2.280E-06,0.000
-2.270E-06,0.000
-2.260E-06,0.008
-2.250E-06,0.008
-2.240E-06,0.004
-2.230E-06,0.000
-2.220E-06,0.000
-2.210E-06,0.000
-2.200E-06,0.008
-2.190E-06,0.012
-2.180E-06,0.008
-2.170E-06,0.008
-2.160E-06,0.008
-2.150E-06,0.008
-2.140E-06,0.008
-2.130E-06,0.004
-2.120E-06,0.008
-2.110E-06,0.008
-2.100E-06,0.004
-2.090E-06,0.000
-2.080E-06,0.008
-2.070E-06,0.008
-2.060E-06,0.012
-2.050E-06,0.016
-2.040E-06,0.016
-2.030E-06,0.008
-2.020E-06,0.008
-2.010E-06,0.016
-2.000E-06,0.008
-1.990E-06,0.008
-1.980E-06,-0.004
-1.970E-06,-0.012
-1.960E-06,-0.024
-1.950E-06,-0.008
-1.940E-06,0.000
-1.930E-06,0.012
-1.920E-06,0.028
-1.910E-06,0.020
-1.900E-06,0.008
-1.890E-06,0.000
-1.880E-06,0.000
-1.870E-06,-0.004
-1.860E-06,0.012
-1.850E-06,0.004
-1.840E-06,0.008
-1.830E-06,0.008
-1.820E-06,0.000
-1.810E-06,0.004
-1.800E-06,0.004
-1.790E-06,0.000
-1.780E-06,0.004
-1.770E-06,0.000
-1.760E-06,-0.004
-1.750E-06,-0.004
-1.740E-06,0.004
-1.730E-06,0.012
-1.720E-06,0.016
-1.710E-06,0.004
-1.700E-06,0.000
-1.690E-06,-0.008
-1.680E-06,-0.004
-1.670E-06,0.008
-1.660E-06,0.012
-1.650E-06,0.016
-1.640E-06,0.012
-1.630E-06,0.000
-1.620E-06,0.000
-1.610E-06,-0.004
-1.600E-06,0.004
-1.590E-06,0.012
-1.580E-06,0.012
-1.570E-06,0.012
-1.560E-06,0.008
-1.550E-06,0.004
-1.540E-06,0.000
-1.530E-06,0.008
-1.520E-06,0.008
-1.510E-06,0.012
-1.500E-06,0.016
-1.490E-06,0.004
-1.480E-06,0.004
-1.470E-06,0.000
-1.460E-06,0.004
-1.450E-06,0.004
-1.440E-06,0.004
-1.430E-06,0.008
-1.420E-06,0.004
-1.410E-06,0.000
-1.400E-06,0.000
-1.390E-06,0.000
-1.380E-06,0.000
-1.370E-06,0.012
-1.360E-06,0.020
-1.350E-06,0.024
-1.340E-06,0.016
-1.330E-06,0.008
-1.320E-06,-0.008
-1.310E-06,-0.032
-1.300E-06,-0.028
-1.290E-06,-0.016
-1.280E-06,-0.008
-1.270E-06,0.004
-1.260E-06,0.000
-1.250E-06,-0.004
-1.240E-06,-0.004
-1.230E-06,-0.008
-1.220E-06,-0.008
-1.210E-06,0.000
-1.200E-06,0.008
-1.190E-06,0.012
-1.180E-06,0.004
-1.170E-06,0.004
-1.160E-06,0.008
-1.150E-06,0.004
-1.140E-06,0.000
-1.130E-06,0.000
-1.120E-06,0.000
-1.110E-06,-0.004
-1.100E-06,0.000
-1.090E-06,0.000
-1.080E-06,0.004
-1.070E-06,0.012
-1.060E-06,0.020
-1.050E-06,0.020
-1.040E-06,0.020
-1.030E-06,0.012
-1.020E-06,0.016
-1.010E-06,0.020
-1.000E-06,0.012
-9.900E-07,0.004
-9.800E-07,-0.004
-9.700E-07,0.000
-9.600E-07,-0.004
-9.500E-07,0.008
-9.400E-07,0.012
-9.300E-07,0.012
-9.200E-07,0.012
-9.100E-07,0.016
-9.000E-07,0.012
-8.900E-07,0.004
-8.800E-07,0.004
-8.700E-07,0.008
-8.600E-07,0.008
-8.500E-07,0.012
-8.400E-07,0.012
-8.300E-07,0.008
-8.200E-07,0.004
-8.100E-07,0.004
-8.000E-07,0.008
-7.900E-07,0.008
-7.800E-07,0.008
-7.700E-07,0.028
-7.600E-07,0.028
-7.500E-07,0.012
-7.400E-07,-0.004
-7.300E-07,-0.016
-7.200E-07,-0.012
-7.100E-07,0.000
-7.000E-07,0.020
-6.900E-07,0.028
-6.800E-07,0.016
-6.700E-07,0.012
-6.600E-07,0.000
-6.500E-07,0.000
-6.400E-07,0.004
-6.300E-07,0.012
-6.200E-07,0.024
-6.100E-07,0.024
-6.000E-07,0.024
-5.900E-07,0.024
-5.800E-07,0.024
-5.700E-07,0.024
-5.600E-07,0.028
-5.500E-07,0.024
-5.400E-07,0.024
-5.300E-07,0.024
-5.200E-07,0.032
-5.100E-07,0.036
-5.000E-07,0.040
-4.900E-07,0.032
-4.800E-07,0.024
-4.700E-07,0.032
-4.600E-07,0.028
-4.500E-07,0.028
-4.400E-07,0.020
-4.300E-07,0.008
-4.200E-07,0.004
-4.100E-07,0.008
-4.000E-07,0.020
-3.900E-07,0.028
-3.800E-07,0.020
-3.700E-07,0.012
-3.600E-07,-0.004
-3.500E-07,-0.008
-3.400E-07,0.000
-3.300E-07,0.016
-3.200E-07,0.032
-3.100E-07,0.040
-3.000E-07,0.036
-2.900E-07,0.028
-2.800E-07,0.028
-2.700E-07,0.036
-2.600E-07,0.064
-2.500E-07,0.080
-2.400E-07,0.084
-2.300E-07,0.076
-2.200E-07,0.060
-2.100E-07,0.052
-2.000E-07,0.060
-1.900E-07,0.064
-1.800E-07,0.076
-1.700E-07,0.088
-1.600E-07,0.072
-1.500E-07,0.064
-1.400E-07,0.060
-1.300E-07,0.060
-1.200E-07,0.072
-1.100E-07,0.112
-1.000E-07,0.120
-9.000E-08,0.108
-8.000E-08,-0.024
-7.000E-08,-0.192
-6.000E-08,-0.292
-5.000E-08,-0.408
-4.000E-08,-0.412
-3.000E-08,-0.400
-2.000E-08,-0.148
-1.000E-08,0.140
0.000E+00,0.260
1.000E-08,0.300
2.000E-08,0.132
3.000E-08,-0.120
4.000E-08,-0.204
5.000E-08,-0.220
6.000E-08,-0.084
7.000E-08,0.112
8.000E-08,0.180
9.000E-08,0.128
1.000E-07,0.028
1.100E-07,-0.056
1.200E-07,-0.020
1.300E-07,0.008
1.400E-07,0.072
1.500E-07,0.076
1.600E-07,0.028
1.700E-07,-0.076
1.800E-07,-0.144
1.900E-07,-0.096
2.000E-07,-0.044
2.100E-07,0.036
2.200E-07,0.088
2.300E-07,0.076
2.400E-07,0.024
2.500E-07,-0.020
2.600E-07,-0.012
2.700E-07,0.036
2.800E-07,0.048
2.900E-07,0.044
3.000E-07,0.012
3.100E-07,-0.020
3.200E-07,-0.020
3.300E-07,-0.004
3.400E-07,0.032
3.500E-07,0.044
3.600E-07,0.044
3.700E-07,0.020
3.800E-07,0.004
3.900E-07,0.024
4.000E-07,0.040
4.100E-07,0.060
4.200E-07,0.056
4.300E-07,0.064
4.400E-07,0.068
4.500E-07,0.076
4.600E-07,0.084
4.700E-07,0.100
4.800E-07,0.120
4.900E-07,0.128
5.000E-07,0.136
5.100E-07,0.132
5.200E-07,0.116
5.300E-07,0.092
5.400E-07,0.068
5.500E-07,0.056
5.600E-07,0.056
5.700E-07,0.052
5.800E-07,0.052
5.900E-07,0.048
6.000E-07,0.028
6.100E-07,0.016
6.200E-07,0.008
6.300E-07,0.000
6.400E-07,0.000
6.500E-07,0.004
6.600E-07,0.008
6.700E-07,0.012
6.800E-07,0.028
6.900E-07,0.064
7.000E-07,0.056
7.100E-07,0.124
7.200E-07,0.104
7.300E-07,0.164
7.400E-07,0.108
7.500E-07,0.104
7.600E-07,-0.044
7.700E-07,-0.172
7.800E-07,-0.272
7.900E-07,-0.404
8.000E-07,-0.368
8.100E-07,-0.296
8.200E-07,-0.148
8.300E-07,-0.004
8.400E-07,0.068
8.500E-07,0.076
8.600E-07,-0.012
8.700E-07,-0.060
8.800E-07,-0.128
8.900E-07,-0.112
9.000E-07,-0.024
9.100E-07,0.040
9.200E-07,0.084
9.300E-07,0.056
9.400E-07,0.020
9.500E-07,-0.024
9.600E-07,-0.028
9.700E-07,-0.012
9.800E-07,0.012
9.900E-07,0.044
1.000E-06,0.028
1.010E-06,0.004
1.020E-06,-0.032
1.030E-06,-0.032
1.040E-06,-0.032
1.050E-06,-0.024
1.060E-06,-0.012
1.070E-06,0.000
1.080E-06,-0.004
1.090E-06,-0.008
1.100E-06,-0.016
1.110E-06,-0.020
1.120E-06,-0.032
1.130E-06,-0.028
1.140E-06,-0.012
1.150E-06,0.000
1.160E-06,0.012
1.170E-06,0.008
1.180E-06,0.008
1.190E-06,0.000
1.200E-06,0.008
1.210E-06,0.008
1.220E-06,0.016
1.230E-06,0.044
1.240E-06,0.056
1.250E-06,0.056
1.260E-06,0.052
1.270E-06,0.040
1.280E-06,0.024
1.290E-06,0.044
1.300E-06,0.068
1.310E-06,0.092
1.320E-06,0.104
1.330E-06,0.108
1.340E-06,0.124
1.350E-06,0.140
1.360E-06,0.160
1.370E-06,0.184
1.380E-06,0.192
1.390E-06,0.176
1.400E-06,0.160
1.410E-06,0.144
1.420E-06,0.132
1.430E-06,0.124
1.440E-06,0.124
1.450E-06,0.124
1.460E-06,0.108
1.470E-06,0.092
1.480E-06,0.084
1.490E-06,0.072
1.500E-06,0.076
1.510E-06,0.096
1.520E-06,0.104
1.530E-06,0.136
1.540E-06,0.128
1.550E-06,0.132
1.560E-06,0.112
1.570E-06,0.120
1.580E-06,0.140
1.590E-06,0.168
1.600E-06,0.192
1.610E-06,0.196
1.620E-06,0.160
1.630E-06,0.116
1.640E-06,0.060
1.650E-06,-0.004
1.660E-06,0.020
1.670E-06,-0.024
1.680E-06,0.040
1.690E-06,-0.004
1.700E-06,-0.024
1.710E-06,-0.116
1.720E-06,-0.196
1.730E-06,-0.224
1.740E-06,-0.188
1.750E-06,-0.072
1.760E-06,-0.040
1.770E-06,0.008
1.780E-06,-0.076
1.790E-06,-0.172
1.800E-06,-0.176
1.810E-06,-0.100
1.820E-06,0.056
1.830E-06,0.156
1.840E-06,0.216
1.850E-06,0.204
1.860E-06,0.156
1.870E-06,0.136
1.880E-06,0.124
1.890E-06,0.156
1.900E-06,0.156
1.910E-06,0.092
1.920E-06,0.008
1.930E-06,-0.124
1.940E-06,-0.184
1.950E-06,-0.208
1.960E-06,-0.200
1.970E-06,-0.140
1.980E-06,-0.092
1.990E-06,-0.068
2.000E-06,-0.008
2.010E-06,-0.044
2.020E-06,-0.052
2.030E-06,-0.068
2.040E-06,-0.068
2.050E-06,-0.012
2.060E-06,0.000
2.070E-06,0.000
2.080E-06,0.020
2.090E-06,-0.004
2.100E-06,0.008
2.110E-06,0.012
2.120E-06,0.044
2.130E-06,0.068
2.140E-06,0.048
2.150E-06,0.020
2.160E-06,0.064
2.170E-06,0.040
2.180E-06,0.088
2.190E-06,0.072
2.200E-06,0.076
2.210E-06,0.060
2.220E-06,0.040
2.230E-06,0.040
2.240E-06,0.092
2.250E-06,0.120
2.260E-06,0.160
2.270E-06,0.156
2.280E-06,0.156
2.290E-06,0.156
2.300E-06,0.132
2.310E-06,0.132
2.320E-06,0.140
2.330E-06,0.148
2.340E-06,0.172
2.350E-06,0.192
2.360E-06,0.188
2.370E-06,0.176
2.380E-06,0.164
2.390E-06,0.148
2.400E-06,0.156
2.410E-06,0.168
2.420E-06,0.188
2.430E-06,0.188
2.440E-06,0.184
2.450E-06,0.172
2.460E-06,0.160
2.470E-06,0.152
2.480E-06,0.156
2.490E-06,0.172
2.500E-06,0.180
2.510E-06,0.188
2.520E-06,0.172
2.530E-06,0.152
2.540E-06,0.116
2.550E-06,0.092
2.560E-06,0.068
2.570E-06,0.048
2.580E-06,0.048
2.590E-06,0.076
2.600E-06,0.100
2.610E-06,0.136
2.620E-06,0.152
2.630E-06,0.156
2.640E-06,0.140
2.650E-06,0.120
2.660E-06,0.116
2.670E-06,0.120
2.680E-06,0.128
2.690E-06,0.124
2.700E-06,0.112
2.710E-06,0.100
2.720E-06,0.112
2.730E-06,0.128
2.740E-06,0.136
2.750E-06,0.148
2.760E-06,0.152
2.770E-06,0.144
2.780E-06,0.144
2.790E-06,0.132
2.800E-06,0.128
2.810E-06,0.128
2.820E-06,0.128
2.830E-06,0.136
2.840E-06,0.140
2.850E-06,0.160
2.860E-06,0.168
2.870E-06,0.168
2.880E-06,0.164
2.890E-06,0.168
2.900E-06,0.164
2.910E-06,0.164
2.920E-06,0.168
2.930E-06,0.168
2.940E-06,0.172
2.950E-06,0.164
2.960E-06,0.160
2.970E-06,0.168
2.980E-06,0.164
2.990E-06,0.172
3.000E-06,0.176
3.010E-06,0.172
3.020E-06,0.172
3.030E-06,0.168
3.040E-06,0.160
3.050E-06,0.164
3.060E-06,0.160
3.070E-06,0.164
3.080E-06,0.160
3.090E-06,0.164
3.100E-06,0.156
3.110E-06,0.160
3.120E-06,0.160
3.130E-06,0.176
3.140E-06,0.176
3.150E-06,0.180
3.160E-06,0.184
3.170E-06,0.180
3.180E-06,0.176
3.190E-06,0.164
3.200E-06,0.164
3.210E-06,0.164
3.220E-06,0.164
3.230E-06,0.164
3.240E-06,0.156
3.250E-06,0.160
3.260E-06,0.148
3.270E-06,0.152
3.280E-06,0.152
3.290E-06,0.160
3.300E-06,0.160
3.310E-06,0.156
3.320E-06,0.156
3.330E-06,0.152
3.340E-06,0.156
3.350E-06,0.160
3.360E-06,0.152
3.370E-06,0.156
3.380E-06,0.152
3.390E-06,0.148
3.400E-06,0.148
3.410E-06,0.148
3.420E-06,0.152
3.430E-06,0.152
3.440E-06,0.156
3.450E-06,0.152
3.460E-06,0.156
3.470E-06,0.152
3.480E-06,0.156
3.490E-06,0.156
3.500E-06,0.160
3.510E-06,0.156
3.520E-06,0.164
3.530E-06,0.152
3.540E-06,0.156
3.550E-06,0.152
3.560E-06,0.156
3.570E-06,0.156
3.580E-06,0.156
3.590E-06,0.152
3.600E-06,0.160
3.610E-06,0.152
3.620E-06,0.156
3.630E-06,0.156
3.640E-06,0.152
3.650E-06,0.152
3.660E-06,0.160
3.670E-06,0.152
3.680E-06,0.148
3.690E-06,0.140
3.700E-06,0.144
3.710E-06,0.144
3.720E-06,0.140
3.730E-06,0.144
3.740E-06,0.140
3.750E-06,0.144
3.760E-06,0.140
3.770E-06,0.140
3.780E-06,0.136
3.790E-06,0.140
3.800E-06,0.140
3.810E-06,0.144
3.820E-06,0.140
3.830E-06,0.140
3.840E-06,0.140
3.850E-06,0.136
3.860E-06,0.140
3.870E-06,0.140
3.880E-06,0.140
3.890E-06,0.144
3.900E-06,0.148
3.910E-06,0.140
3.920E-06,0.140
3.930E-06,0.140
3.940E-06,0.140
3.950E-06,0.140
3.960E-06,0.144
3.970E-06,0.140
3.980E-06,0.144
3.990E-06,0.136
4.000E-06,0.140
4.010E-06,0.140
4.020E-06,0.140
4.030E-06,0.136
4.040E-06,0.136
4.050E-06,0.132
4.060E-06,0.140
4.070E-06,0.144
4.080E-06,0.144
4.090E-06,0.140
4.100E-06,0.144
4.110E-06,0.140
4.120E-06,0.140
4.130E-06,0.132
4.140E-06,0.132
4.150E-06,0.128
4.160E-06,0.132
4.170E-06,0.132
4.180E-06,0.140
4.190E-06,0.140
4.200E-06,0.140
4.210E-06,0.132
4.220E-06,0.132
4.230E-06,0.132
4.240E-06,0.136
4.250E-06,0.136
4.260E-06,0.136
4.270E-06,0.140
4.280E-06,0.140
4.290E-06,0.140
4.300E-06,0.136
4.310E-06,0.132
4.320E-06,0.136
4.330E-06,0.132
4.340E-06,0.132
4.350E-06,0.132
4.360E-06,0.132
4.370E-06,0.132
4.380E-06,0.132
4.390E-06,0.128
4.400E-06,0.128
4.410E-06,0.128
4.420E-06,0.128
4.430E-06,0.128
4.440E-06,0.128
4.450E-06,0.128
4.460E-06,0.128
4.470E-06,0.128
4.480E-06,0.124
4.490E-06,0.124
4.500E-06,0.124
4.510E-06,0.128
4.520E-06,0.140
4.530E-06,0.136
4.540E-06,0.140
4.550E-06,0.132
4.560E-06,0.124
4.570E-06,0.108
4.580E-06,0.100
4.590E-06,0.104
4.600E-06,0.108
4.610E-06,0.108
4.620E-06,0.108
4.630E-06,0.120
4.640E-06,0.120
4.650E-06,0.124
4.660E-06,0.124
4.670E-06,0.132
4.680E-06,0.128
4.690E-06,0.128
4.700E-06,0.128
4.710E-06,0.124
4.720E-06,0.124
4.730E-06,0.120
4.740E-06,0.120
4.750E-06,0.112
4.760E-06,0.108
4.770E-06,0.112
4.780E-06,0.116
4.790E-06,0.120
4.800E-06,0.120
4.810E-06,0.124
4.820E-06,0.128
4.830E-06,0.128
4.840E-06,0.124
4.850E-06,0.124
4.860E-06,0.120
4.870E-06,0.116
4.880E-06,0.116
4.890E-06,0.112
4.900E-06,0.112
4.910E-06,0.108
4.920E-06,0.104
4.930E-06,0.108
4.940E-06,0.104
4.950E-06,0.108
4.960E-06,0.112
4.970E-06,0.120
4.980E-06,0.124
4.990E-06,0.120
5.000E-06,0.120
5.010E-06,0.112
5.020E-06,0.112
5.030E-06,0.112
5.040E-06,0.112
5.050E-06,0.112
5.060E-06,0.108
5.070E-06,0.108
5.080E-06,0.108
5.090E-06,0.108
5.100E-06,0.108
5.110E-06,0.104
5.120E-06,0.104
5.130E-06,0.104
5.140E-06,0.108
5.150E-06,0.108
5.160E-06,0.100
5.170E-06,0.108
5.180E-06,0.108
5.190E-06,0.108
5.200E-06,0.108
5.210E-06,0.100
5.220E-06,0.104
5.230E-06,0.096
5.240E-06,0.100
5.250E-06,0.100
5.260E-06,0.096
5.270E-06,0.096
5.280E-06,0.096
5.290E-06,0.100
5.300E-06,0.096
5.310E-06,0.100
5.320E-06,0.100
5.330E-06,0.100
5.340E-06,0.100
5.350E-06,0.100
5.360E-06,0.104
5.370E-06,0.096
5.380E-06,0.100
5.390E-06,0.096
5.400E-06,0.092
5.410E-06,0.096
5.420E-06,0.092
5.430E-06,0.092
5.440E-06,0.092
5.450E-06,0.096
5.460E-06,0.100
5.470E-06,0.100
5.480E-06,0.096
5.490E-06,0.100
5.500E-06,0.096
5.510E-06,0.100
5.520E-06,0.096
5.530E-06,0.092
5.540E-06,0.096
5.550E-06,0.092
5.560E-06,0.092
5.570E-06,0.092
5.580E-06,0.096
5.590E-06,0.088
5.600E-06,0.088
5.610E-06,0.092
5.620E-06,0.096
5.630E-06,0.092
5.640E-06,0.096
5.650E-06,0.092
5.660E-06,0.088
5.670E-06,0.092
5.680E-06,0.096
5.690E-06,0.092
5.700E-06,0.088
5.710E-06,0.088
5.720E-06,0.088
5.730E-06,0.088
5.740E-06,0.088
5.750E-06,0.092
5.760E-06,0.088
5.770E-06,0.092
5.780E-06,0.088
5.790E-06,0.088
5.800E-06,0.092
5.810E-06,0.088
5.820E-06,0.088
5.830E-06,0.084
5.840E-06,0.084
5.850E-06,0.088
5.860E-06,0.088
5.870E-06,0.088
5.880E-06,0.088
5.890E-06,0.088
5.900E-06,0.084
5.910E-06,0.084
5.920E-06,0.084
5.930E-06,0.080
5.940E-06,0.080
5.950E-06,0.080
5.960E-06,0.080
5.970E-06,0.080
5.980E-06,0.080
5.990E-06,0.084
6.000E-06,0.080
6.010E-06,0.084
6.020E-06,0.084
6.030E-06,0.076
6.040E-06,0.076
6.050E-06,0.076
6.060E-06,0.076
6.070E-06,0.076
6.080E-06,0.076
6.090E-06,0.076
6.100E-06,0.080
6.110E-06,0.080
6.120E-06,0.076
6.130E-06,0.080
6.140E-06,0.076
6.150E-06,0.072
6.160E-06,0.080
6.170E-06,0.080
6.180E-06,0.072
6.190E-06,0.076
6.200E-06,0.076
6.210E-06,0.072
6.220E-06,0.076
6.230E-06,0.076
6.240E-06,0.072
6.250E-06,0.072
6.260E-06,0.076
6.270E-06,0.072
6.280E-06,0.072
6.290E-06,0.076
6.300E-06,0.072
6.310E-06,0.072
6.320E-06,0.068
6.330E-06,0.068
