mediciones/5-27/-37.5/WaveData517.csv

#timebase=2000000(ps)
,#voltbase=1000000(mv/100)
#size=4000
-5.650E-06,0.480
-5.640E-06,0.480
-5.630E-06,0.520
-5.620E-06,0.320
-5.610E-06,0.200
-5.600E-06,0.080
-5.590E-06,0.040
-5.580E-06,0.280
-5.570E-06,0.120
-5.560E-06,0.200
-5.550E-06,0.000
-5.540E-06,-0.320
-5.530E-06,-0.440
-5.520E-06,-0.360
-5.510E-06,-0.080
-5.500E-06,0.120
-5.490E-06,0.240
-5.480E-06,0.240
-5.470E-06,0.160
-5.460E-06,-0.080
-5.450E-06,-0.120
-5.440E-06,-0.080
-5.430E-06,0.080
-5.420E-06,0.240
-5.410E-06,0.280
-5.400E-06,0.200
-5.390E-06,0.160
-5.380E-06,0.040
-5.370E-06,0.000
-5.360E-06,-0.040
-5.350E-06,0.040
-5.340E-06,0.040
-5.330E-06,-0.080
-5.320E-06,-0.040
-5.310E-06,-0.160
-5.300E-06,-0.280
-5.290E-06,-0.280
-5.280E-06,-0.320
-5.270E-06,-0.360
-5.260E-06,-0.360
-5.250E-06,-0.320
-5.240E-06,-0.320
-5.230E-06,-0.280
-5.220E-06,-0.240
-5.210E-06,-0.240
-5.200E-06,-0.240
-5.190E-06,-0.240
-5.180E-06,-0.040
-5.170E-06,-0.040
-5.160E-06,0.000
-5.150E-06,0.040
-5.140E-06,0.040
-5.130E-06,0.040
-5.120E-06,0.040
-5.110E-06,0.080
-5.100E-06,0.040
-5.090E-06,0.080
-5.080E-06,0.040
-5.070E-06,0.040
-5.060E-06,0.080
-5.050E-06,0.040
-5.040E-06,-0.040
-5.030E-06,0.000
-5.020E-06,-0.040
-5.010E-06,-0.080
-5.000E-06,-0.080
-4.990E-06,-0.120
-4.980E-06,-0.080
-4.970E-06,-0.080
-4.960E-06,-0.040
-4.950E-06,-0.080
-4.940E-06,-0.080
-4.930E-06,-0.120
-4.920E-06,-0.120
-4.910E-06,0.000
-4.900E-06,-0.040
-4.890E-06,0.000
-4.880E-06,0.000
-4.870E-06,0.000
-4.860E-06,0.000
-4.850E-06,-0.040
-4.840E-06,0.000
-4.830E-06,0.040
-4.820E-06,0.040
-4.810E-06,-0.040
-4.800E-06,-0.040
-4.790E-06,-0.040
-4.780E-06,-0.080
-4.770E-06,-0.080
-4.760E-06,-0.080
-4.750E-06,-0.120
-4.740E-06,-0.040
-4.730E-06,-0.120
-4.720E-06,-0.160
-4.710E-06,-0.160
-4.700E-06,-0.160
-4.690E-06,-0.160
-4.680E-06,-0.160
-4.670E-06,-0.160
-4.660E-06,-0.160
-4.650E-06,-0.200
-4.640E-06,-0.160
-4.630E-06,-0.040
-4.620E-06,0.000
-4.610E-06,0.000
-4.600E-06,-0.040
-4.590E-06,0.000
-4.580E-06,0.000
-4.570E-06,0.120
-4.560E-06,0.160
-4.550E-06,0.200
-4.540E-06,0.200
-4.530E-06,0.040
-4.520E-06,-0.120
-4.510E-06,-0.200
-4.500E-06,-0.080
-4.490E-06,-0.040
-4.480E-06,0.080
-4.470E-06,0.080
-4.460E-06,-0.040
-4.450E-06,-0.040
-4.440E-06,0.000
-4.430E-06,0.000
-4.420E-06,0.040
-4.410E-06,0.160
-4.400E-06,0.200
-4.390E-06,0.160
-4.380E-06,0.120
-4.370E-06,0.200
-4.360E-06,0.240
-4.350E-06,0.240
-4.340E-06,0.240
-4.330E-06,0.160
-4.320E-06,0.160
-4.310E-06,0.200
-4.300E-06,0.200
-4.290E-06,0.120
-4.280E-06,0.080
-4.270E-06,0.040
-4.260E-06,-0.040
-4.250E-06,0.000
-4.240E-06,0.000
-4.230E-06,-0.080
-4.220E-06,-0.120
-4.210E-06,-0.120
-4.200E-06,-0.120
-4.190E-06,-0.200
-4.180E-06,-0.200
-4.170E-06,-0.200
-4.160E-06,-0.240
-4.150E-06,-0.120
-4.140E-06,-0.120
-4.130E-06,-0.160
-4.120E-06,-0.040
-4.110E-06,-0.080
-4.100E-06,-0.040
-4.090E-06,0.000
-4.080E-06,-0.040
-4.070E-06,-0.040
-4.060E-06,0.040
-4.050E-06,0.000
-4.040E-06,0.040
-4.030E-06,0.040
-4.020E-06,0.040
-4.010E-06,0.080
-4.000E-06,0.080
-3.990E-06,0.080
-3.980E-06,0.080
-3.970E-06,0.080
-3.960E-06,0.080
-3.950E-06,0.040
-3.940E-06,0.080
-3.930E-06,0.120
-3.920E-06,0.080
-3.910E-06,0.040
-3.900E-06,0.040
-3.890E-06,0.080
-3.880E-06,0.040
-3.870E-06,0.000
-3.860E-06,0.040
-3.850E-06,0.000
-3.840E-06,0.080
-3.830E-06,0.120
-3.820E-06,0.080
-3.810E-06,0.080
-3.800E-06,0.120
-3.790E-06,0.040
-3.780E-06,0.080
-3.770E-06,0.120
-3.760E-06,0.120
-3.750E-06,0.160
-3.740E-06,0.080
-3.730E-06,-0.040
-3.720E-06,-0.040
-3.710E-06,0.000
-3.700E-06,0.040
-3.690E-06,0.120
-3.680E-06,0.080
-3.670E-06,0.120
-3.660E-06,0.160
-3.650E-06,0.120
-3.640E-06,0.200
-3.630E-06,0.040
-3.620E-06,-0.040
-3.610E-06,-0.120
-3.600E-06,-0.200
-3.590E-06,-0.160
-3.580E-06,0.000
-3.570E-06,0.080
-3.560E-06,0.080
-3.550E-06,0.000
-3.540E-06,-0.240
-3.530E-06,-0.320
-3.520E-06,0.120
-3.510E-06,0.320
-3.500E-06,0.840
-3.490E-06,0.800
-3.480E-06,0.480
-3.470E-06,0.000
-3.460E-06,-0.280
-3.450E-06,-0.120
-3.440E-06,-0.080
-3.430E-06,0.360
-3.420E-06,0.600
-3.410E-06,0.480
-3.400E-06,0.400
-3.390E-06,0.160
-3.380E-06,0.000
-3.370E-06,0.160
-3.360E-06,0.360
-3.350E-06,0.400
-3.340E-06,0.320
-3.330E-06,0.200
-3.320E-06,0.160
-3.310E-06,0.120
-3.300E-06,0.200
-3.290E-06,0.240
-3.280E-06,0.240
-3.270E-06,0.200
-3.260E-06,0.040
-3.250E-06,0.000
-3.240E-06,-0.040
-3.230E-06,-0.080
-3.220E-06,-0.040
-3.210E-06,0.000
-3.200E-06,-0.120
-3.190E-06,-0.160
-3.180E-06,-0.240
-3.170E-06,-0.240
-3.160E-06,-0.160
-3.150E-06,-0.160
-3.140E-06,-0.160
-3.130E-06,-0.160
-3.120E-06,-0.240
-3.110E-06,-0.240
-3.100E-06,-0.240
-3.090E-06,-0.160
-3.080E-06,-0.080
-3.070E-06,-0.080
-3.060E-06,-0.040
-3.050E-06,0.000
-3.040E-06,0.000
-3.030E-06,0.000
-3.020E-06,-0.040
-3.010E-06,-0.040
-3.000E-06,0.000
-2.990E-06,-0.080
-2.980E-06,-0.040
-2.970E-06,-0.040
-2.960E-06,-0.040
-2.950E-06,-0.080
-2.940E-06,-0.080
-2.930E-06,-0.120
-2.920E-06,-0.120
-2.910E-06,-0.080
-2.900E-06,-0.040
-2.890E-06,0.000
-2.880E-06,0.000
-2.870E-06,0.000
-2.860E-06,0.080
-2.850E-06,0.040
-2.840E-06,0.120
-2.830E-06,0.200
-2.820E-06,0.120
-2.810E-06,0.040
-2.800E-06,0.040
-2.790E-06,0.080
-2.780E-06,0.200
-2.770E-06,0.280
-2.760E-06,0.240
-2.750E-06,0.120
-2.740E-06,0.160
-2.730E-06,0.200
-2.720E-06,0.360
-2.710E-06,0.360
-2.700E-06,0.320
-2.690E-06,0.360
-2.680E-06,0.360
-2.670E-06,0.400
-2.660E-06,0.440
-2.650E-06,0.520
-2.640E-06,0.440
-2.630E-06,0.440
-2.620E-06,0.440
-2.610E-06,0.400
-2.600E-06,0.360
-2.590E-06,0.480
-2.580E-06,0.480
-2.570E-06,0.520
-2.560E-06,0.560
-2.550E-06,0.520
-2.540E-06,0.560
-2.530E-06,0.520
-2.520E-06,0.520
-2.510E-06,0.520
-2.500E-06,0.360
-2.490E-06,0.360
-2.480E-06,0.200
-2.470E-06,0.080
-2.460E-06,-0.040
-2.450E-06,-0.240
-2.440E-06,-0.400
-2.430E-06,-0.240
-2.420E-06,-0.240
-2.410E-06,0.040
-2.400E-06,0.000
-2.390E-06,0.360
-2.380E-06,0.040
-2.370E-06,-0.480
-2.360E-06,-0.200
-2.350E-06,-0.560
-2.340E-06,-0.120
-2.330E-06,-0.120
-2.320E-06,0.600
-2.310E-06,0.520
-2.300E-06,0.800
-2.290E-06,1.000
-2.280E-06,0.400
-2.270E-06,0.600
-2.260E-06,0.240
-2.250E-06,0.040
-2.240E-06,0.320
-2.230E-06,0.280
-2.220E-06,0.600
-2.210E-06,0.600
-2.200E-06,0.600
-2.190E-06,0.880
-2.180E-06,0.520
-2.170E-06,0.560
-2.160E-06,0.480
-2.150E-06,0.560
-2.140E-06,0.840
-2.130E-06,1.040
-2.120E-06,0.880
-2.110E-06,0.960
-2.100E-06,0.760
-2.090E-06,0.560
-2.080E-06,0.560
-2.070E-06,0.400
-2.060E-06,0.320
-2.050E-06,0.000
-2.040E-06,-0.160
-2.030E-06,-0.040
-2.020E-06,-0.120
-2.010E-06,0.080
-2.000E-06,0.000
-1.990E-06,-0.120
-1.980E-06,-0.440
-1.970E-06,-0.440
-1.960E-06,-0.320
-1.950E-06,-0.080
-1.940E-06,0.080
-1.930E-06,0.160
-1.920E-06,0.120
-1.910E-06,0.160
-1.900E-06,0.120
-1.890E-06,0.080
-1.880E-06,0.240
-1.870E-06,0.160
-1.860E-06,0.160
-1.850E-06,0.120
-1.840E-06,0.080
-1.830E-06,0.160
-1.820E-06,0.120
-1.810E-06,0.200
-1.800E-06,0.120
-1.790E-06,0.040
-1.780E-06,0.000
-1.770E-06,-0.080
-1.760E-06,-0.200
-1.750E-06,-0.160
-1.740E-06,-0.240
-1.730E-06,-0.200
-1.720E-06,-0.280
-1.710E-06,-0.240
-1.700E-06,-0.360
-1.690E-06,-0.280
-1.680E-06,-0.320
-1.670E-06,-0.240
-1.660E-06,-0.200
-1.650E-06,-0.280
-1.640E-06,-0.360
-1.630E-06,-0.440
-1.620E-06,-0.360
-1.610E-06,-0.360
-1.600E-06,-0.320
-1.590E-06,-0.280
-1.580E-06,-0.320
-1.570E-06,-0.320
-1.560E-06,-0.400
-1.550E-06,-0.400
-1.540E-06,-0.280
-1.530E-06,-0.200
-1.520E-06,-0.160
-1.510E-06,-0.040
-1.500E-06,-0.040
-1.490E-06,0.040
-1.480E-06,0.080
-1.470E-06,0.160
-1.460E-06,0.240
-1.450E-06,0.360
-1.440E-06,0.360
-1.430E-06,0.320
-1.420E-06,0.320
-1.410E-06,0.280
-1.400E-06,0.160
-1.390E-06,0.000
-1.380E-06,-0.040
-1.370E-06,-0.160
-1.360E-06,-0.440
-1.350E-06,-0.760
-1.340E-06,-1.480
-1.330E-06,-1.560
-1.320E-06,-1.600
-1.310E-06,-1.200
-1.300E-06,-0.720
-1.290E-06,-0.240
-1.280E-06,-0.360
-1.270E-06,-0.400
-1.260E-06,-0.520
-1.250E-06,-0.440
-1.240E-06,-0.280
-1.230E-06,0.040
-1.220E-06,0.240
-1.210E-06,0.320
-1.200E-06,0.360
-1.190E-06,0.240
-1.180E-06,0.080
-1.170E-06,-0.080
-1.160E-06,-0.160
-1.150E-06,0.080
-1.140E-06,0.240
-1.130E-06,0.320
-1.120E-06,0.320
-1.110E-06,0.200
-1.100E-06,0.200
-1.090E-06,0.000
-1.080E-06,0.160
-1.070E-06,-0.040
-1.060E-06,-0.160
-1.050E-06,-0.440
-1.040E-06,-0.440
-1.030E-06,-0.400
-1.020E-06,-0.360
-1.010E-06,-0.360
-1.000E-06,-0.520
-9.900E-07,-0.880
-9.800E-07,-1.000
-9.700E-07,-1.120
-9.600E-07,-0.920
-9.500E-07,-0.560
-9.400E-07,-0.440
-9.300E-07,-0.320
-9.200E-07,-0.320
-9.100E-07,-0.320
-9.000E-07,-0.280
-8.900E-07,-0.280
-8.800E-07,-0.240
-8.700E-07,-0.320
-8.600E-07,-0.360
-8.500E-07,-0.240
-8.400E-07,-0.200
-8.300E-07,-0.160
-8.200E-07,-0.080
-8.100E-07,-0.240
-8.000E-07,-0.360
-7.900E-07,-0.360
-7.800E-07,-0.320
-7.700E-07,-0.160
-7.600E-07,-0.200
-7.500E-07,-0.200
-7.400E-07,-0.280
-7.300E-07,-0.360
-7.200E-07,-0.400
-7.100E-07,-0.480
-7.000E-07,-0.360
-6.900E-07,-0.360
-6.800E-07,-0.360
-6.700E-07,-0.400
-6.600E-07,-0.480
-6.500E-07,-0.520
-6.400E-07,-0.600
-6.300E-07,-0.560
-6.200E-07,-0.560
-6.100E-07,-0.440
-6.000E-07,-0.520
-5.900E-07,-0.520
-5.800E-07,-0.560
-5.700E-07,-0.560
-5.600E-07,-0.440
-5.500E-07,-0.440
-5.400E-07,-0.360
-5.300E-07,-0.400
-5.200E-07,-0.440
-5.100E-07,-0.360
-5.000E-07,-0.360
-4.900E-07,-0.240
-4.800E-07,-0.320
-4.700E-07,-0.320
-4.600E-07,-0.360
-4.500E-07,-0.360
-4.400E-07,-0.320
-4.300E-07,-0.280
-4.200E-07,-0.160
-4.100E-07,-0.120
-4.000E-07,-0.120
-3.900E-07,-0.040
-3.800E-07,-0.040
-3.700E-07,0.000
-3.600E-07,-0.080
-3.500E-07,-0.040
-3.400E-07,-0.200
-3.300E-07,-0.280
-3.200E-07,-0.320
-3.100E-07,-0.720
-3.000E-07,-0.720
-2.900E-07,-0.800
-2.800E-07,-0.560
-2.700E-07,-0.360
-2.600E-07,-0.160
-2.500E-07,0.000
-2.400E-07,-0.160
-2.300E-07,-0.080
-2.200E-07,-0.040
-2.100E-07,0.000
-2.000E-07,0.200
-1.900E-07,0.200
-1.800E-07,0.160
-1.700E-07,0.160
-1.600E-07,0.120
-1.500E-07,0.360
-1.400E-07,0.480
-1.300E-07,0.680
-1.200E-07,0.760
-1.100E-07,0.880
-1.000E-07,0.960
-9.000E-08,1.000
-8.000E-08,1.160
-7.000E-08,1.120
-6.000E-08,0.960
-5.000E-08,0.880
-4.000E-08,0.680
-3.000E-08,-0.400
-2.000E-08,-1.520
-1.000E-08,-2.200
0.000E+00,-2.360
1.000E-08,-1.240
2.000E-08,0.200
3.000E-08,1.400
4.000E-08,1.720
5.000E-08,0.880
6.000E-08,-0.040
7.000E-08,-1.400
8.000E-08,-0.680
9.000E-08,-0.680
1.000E-07,0.320
1.100E-07,0.840
1.200E-07,0.920
1.300E-07,1.480
1.400E-07,1.240
1.500E-07,1.600
1.600E-07,1.720
1.700E-07,1.640
1.800E-07,1.520
1.900E-07,1.040
2.000E-07,0.880
2.100E-07,0.880
2.200E-07,0.720
2.300E-07,0.600
2.400E-07,0.480
2.500E-07,0.240
2.600E-07,0.000
2.700E-07,-0.320
2.800E-07,-0.680
2.900E-07,-0.840
3.000E-07,-1.000
3.100E-07,-1.160
3.200E-07,-1.200
3.300E-07,-1.200
3.400E-07,-1.360
3.500E-07,-1.440
3.600E-07,-1.680
3.700E-07,-1.720
3.800E-07,-1.720
3.900E-07,-1.680
4.000E-07,-1.480
4.100E-07,-1.440
4.200E-07,-1.440
4.300E-07,-1.480
4.400E-07,-1.560
4.500E-07,-1.680
4.600E-07,-1.600
4.700E-07,-1.480
4.800E-07,-1.200
4.900E-07,-1.120
5.000E-07,-0.880
5.100E-07,-0.840
5.200E-07,-0.840
5.300E-07,-0.960
5.400E-07,-0.960
5.500E-07,-0.760
5.600E-07,-0.640
5.700E-07,-0.520
5.800E-07,-0.440
5.900E-07,-0.480
6.000E-07,-0.760
6.100E-07,-0.880
6.200E-07,-1.040
6.300E-07,-1.000
6.400E-07,-0.800
6.500E-07,-0.280
6.600E-07,0.080
6.700E-07,0.520
6.800E-07,0.640
6.900E-07,0.560
7.000E-07,0.400
7.100E-07,0.520
7.200E-07,0.680
7.300E-07,0.800
7.400E-07,0.960
7.500E-07,1.000
7.600E-07,0.880
7.700E-07,0.760
7.800E-07,0.640
7.900E-07,0.480
8.000E-07,0.480
8.100E-07,0.440
8.200E-07,0.320
8.300E-07,0.240
8.400E-07,0.000
8.500E-07,-0.160
8.600E-07,-0.520
8.700E-07,-0.680
8.800E-07,-0.920
8.900E-07,-1.280
9.000E-07,-1.240
9.100E-07,-1.800
9.200E-07,-2.240
9.300E-07,-3.920
9.400E-07,-3.800
9.500E-07,-4.040
9.600E-07,-2.800
9.700E-07,-0.720
9.800E-07,0.040
9.900E-07,0.560
1.000E-06,-1.400
1.010E-06,-2.600
1.020E-06,-3.040
1.030E-06,-2.160
1.040E-06,-0.240
1.050E-06,0.520
1.060E-06,0.920
1.070E-06,0.520
1.080E-06,-0.360
1.090E-06,-0.680
1.100E-06,-0.560
1.110E-06,-0.440
1.120E-06,-0.160
1.130E-06,-0.040
1.140E-06,-0.040
1.150E-06,0.000
1.160E-06,-0.200
1.170E-06,-0.600
1.180E-06,-0.960
1.190E-06,-1.240
1.200E-06,-1.120
1.210E-06,-0.960
1.220E-06,-0.840
1.230E-06,-0.840
1.240E-06,-1.000
1.250E-06,-1.200
1.260E-06,-1.280
1.270E-06,-1.280
1.280E-06,-1.040
1.290E-06,-0.920
1.300E-06,-0.920
1.310E-06,-0.800
1.320E-06,-0.840
1.330E-06,-0.880
1.340E-06,-0.800
1.350E-06,-0.720
1.360E-06,-0.560
1.370E-06,-0.440
1.380E-06,-0.400
1.390E-06,-0.440
1.400E-06,-0.560
1.410E-06,-0.720
1.420E-06,-0.880
1.430E-06,-0.920
1.440E-06,-0.840
1.450E-06,-0.800
1.460E-06,-0.840
1.470E-06,-0.840
1.480E-06,-1.000
1.490E-06,-1.000
1.500E-06,-1.120
1.510E-06,-1.040
1.520E-06,-0.920
1.530E-06,-0.800
1.540E-06,-0.680
1.550E-06,-0.640
1.560E-06,-0.600
1.570E-06,-0.520
1.580E-06,-0.520
1.590E-06,-0.520
1.600E-06,-0.400
1.610E-06,-0.520
1.620E-06,-0.560
1.630E-06,-0.760
1.640E-06,-1.320
1.650E-06,-1.680
1.660E-06,-1.800
1.670E-06,-1.800
1.680E-06,-1.160
1.690E-06,-0.720
1.700E-06,-0.240
1.710E-06,-0.320
1.720E-06,-0.960
1.730E-06,-1.320
1.740E-06,-1.520
1.750E-06,-1.240
1.760E-06,-0.440
1.770E-06,-0.120
1.780E-06,0.240
1.790E-06,-0.120
1.800E-06,-0.440
1.810E-06,-0.440
1.820E-06,-0.280
1.830E-06,0.280
1.840E-06,0.680
1.850E-06,0.880
1.860E-06,0.880
1.870E-06,0.680
1.880E-06,0.400
1.890E-06,0.240
1.900E-06,0.040
1.910E-06,-0.040
1.920E-06,-0.200
1.930E-06,-0.240
1.940E-06,-0.360
1.950E-06,-0.560
1.960E-06,-0.920
1.970E-06,-1.280
1.980E-06,-1.440
1.990E-06,-1.400
2.000E-06,-1.320
2.010E-06,-1.280
2.020E-06,-1.320
2.030E-06,-1.360
2.040E-06,-1.440
2.050E-06,-1.480
2.060E-06,-1.360
2.070E-06,-1.200
2.080E-06,-1.040
2.090E-06,-0.800
2.100E-06,-0.760
2.110E-06,-0.760
2.120E-06,-0.840
2.130E-06,-1.000
2.140E-06,-1.040
2.150E-06,-1.160
2.160E-06,-0.600
2.170E-06,-1.800
2.180E-06,-2.720
2.190E-06,-2.720
2.200E-06,-3.200
2.210E-06,-1.160
2.220E-06,0.200
2.230E-06,1.400
2.240E-06,0.760
2.250E-06,-0.800
2.260E-06,-2.160
2.270E-06,-2.160
2.280E-06,-1.120
2.290E-06,0.400
2.300E-06,1.160
2.310E-06,1.280
2.320E-06,0.640
2.330E-06,0.200
2.340E-06,-0.040
2.350E-06,-0.160
2.360E-06,0.320
2.370E-06,0.400
2.380E-06,0.600
2.390E-06,0.160
2.400E-06,-0.520
2.410E-06,-0.720
2.420E-06,-1.040
2.430E-06,-0.880
2.440E-06,-0.680
2.450E-06,-0.840
2.460E-06,-0.720
2.470E-06,-0.960
2.480E-06,-1.160
2.490E-06,-1.280
2.500E-06,-1.400
2.510E-06,-1.360
2.520E-06,-1.200
2.530E-06,-1.280
2.540E-06,-1.040
2.550E-06,-1.080
2.560E-06,-1.120
2.570E-06,-0.920
2.580E-06,-0.840
2.590E-06,-0.600
2.600E-06,-0.360
2.610E-06,-0.480
2.620E-06,-0.720
2.630E-06,-1.120
2.640E-06,-1.520
2.650E-06,-1.560
2.660E-06,-1.680
2.670E-06,-1.600
2.680E-06,-1.480
2.690E-06,-1.480
2.700E-06,-1.560
2.710E-06,-1.720
2.720E-06,-1.760
2.730E-06,-1.640
2.740E-06,-1.440
2.750E-06,-0.960
2.760E-06,-0.560
2.770E-06,-0.320
2.780E-06,-0.120
2.790E-06,-0.360
2.800E-06,-0.440
2.810E-06,-0.480
2.820E-06,-0.320
2.830E-06,-0.200
2.840E-06,0.000
2.850E-06,0.040
2.860E-06,-0.040
2.870E-06,-0.400
2.880E-06,-0.360
2.890E-06,-0.680
2.900E-06,-0.920
2.910E-06,-0.920
2.920E-06,-1.680
2.930E-06,-1.560
2.940E-06,-1.200
2.950E-06,-0.320
2.960E-06,0.760
2.970E-06,1.120
2.980E-06,0.520
2.990E-06,-0.680
3.000E-06,-1.760
3.010E-06,-1.880
3.020E-06,-1.120
3.030E-06,-0.040
3.040E-06,0.840
3.050E-06,0.840
3.060E-06,0.440
3.070E-06,-0.120
3.080E-06,-0.520
3.090E-06,-0.600
3.100E-06,-0.480
3.110E-06,0.000
3.120E-06,0.000
3.130E-06,0.320
3.140E-06,0.200
3.150E-06,-0.240
3.160E-06,-0.600
3.170E-06,-1.400
3.180E-06,-1.760
3.190E-06,-1.800
3.200E-06,-1.560
3.210E-06,-0.960
3.220E-06,-0.640
3.230E-06,-0.400
3.240E-06,-0.600
3.250E-06,-1.080
3.260E-06,-1.240
3.270E-06,-1.200
3.280E-06,-0.880
3.290E-06,-0.400
3.300E-06,-0.080
3.310E-06,-0.080
3.320E-06,-0.240
3.330E-06,-0.640
3.340E-06,-0.960
3.350E-06,-1.040
3.360E-06,-1.040
3.370E-06,-1.000
3.380E-06,-1.080
3.390E-06,-1.240
3.400E-06,-1.320
3.410E-06,-1.360
3.420E-06,-1.280
3.430E-06,-1.480
3.440E-06,-1.440
3.450E-06,-1.960
3.460E-06,-2.000
3.470E-06,-1.840
3.480E-06,-1.320
3.490E-06,-0.600
3.500E-06,-0.160
3.510E-06,0.160
3.520E-06,0.080
3.530E-06,0.000
3.540E-06,-0.080
3.550E-06,0.000
3.560E-06,0.360
3.570E-06,0.520
3.580E-06,0.560
3.590E-06,0.520
3.600E-06,0.680
3.610E-06,0.520
3.620E-06,0.120
3.630E-06,0.040
3.640E-06,-0.280
3.650E-06,-0.240
3.660E-06,-0.280
3.670E-06,-0.160
3.680E-06,-0.120
3.690E-06,-0.520
3.700E-06,-0.840
3.710E-06,-1.040
3.720E-06,-1.160
3.730E-06,-0.880
3.740E-06,-0.800
3.750E-06,-0.800
3.760E-06,-0.640
3.770E-06,-1.000
3.780E-06,-1.040
3.790E-06,-1.080
3.800E-06,-1.160
3.810E-06,-0.360
3.820E-06,-0.360
3.830E-06,-0.240
3.840E-06,-0.680
3.850E-06,-1.040
3.860E-06,-1.800
3.870E-06,-1.320
3.880E-06,-0.880
3.890E-06,-0.160
3.900E-06,0.080
3.910E-06,-0.480
3.920E-06,-0.720
3.930E-06,-1.120
3.940E-06,-0.680
3.950E-06,0.000
3.960E-06,0.280
3.970E-06,0.520
3.980E-06,0.280
3.990E-06,0.000
4.000E-06,0.040
4.010E-06,-0.040
4.020E-06,0.000
4.030E-06,0.120
4.040E-06,0.080
4.050E-06,0.000
4.060E-06,-0.200
4.070E-06,-0.480
4.080E-06,-0.960
4.090E-06,-1.280
4.100E-06,-1.520
4.110E-06,-1.560
4.120E-06,-1.600
4.130E-06,-1.640
4.140E-06,-1.600
4.150E-06,-1.680
4.160E-06,-1.640
4.170E-06,-1.600
4.180E-06,-1.560
4.190E-06,-1.320
4.200E-06,-1.120
4.210E-06,-0.880
4.220E-06,-0.720
4.230E-06,-0.480
4.240E-06,-0.400
4.250E-06,-0.200
4.260E-06,-0.040
4.270E-06,0.240
4.280E-06,0.600
4.290E-06,0.960
4.300E-06,0.920
4.310E-06,0.880
4.320E-06,0.440
4.330E-06,0.040
4.340E-06,0.000
4.350E-06,0.080
4.360E-06,0.320
4.370E-06,0.600
4.380E-06,0.520
4.390E-06,0.320
4.400E-06,0.040
4.410E-06,-0.240
4.420E-06,-0.320
4.430E-06,-0.320
4.440E-06,-0.240
4.450E-06,-0.280
4.460E-06,-0.160
4.470E-06,-0.160
4.480E-06,-0.120
4.490E-06,-0.080
4.500E-06,0.040
4.510E-06,0.160
4.520E-06,0.480
4.530E-06,0.720
4.540E-06,0.680
4.550E-06,0.760
4.560E-06,0.720
4.570E-06,-0.160
4.580E-06,0.160
4.590E-06,-1.480
4.600E-06,-2.960
4.610E-06,-2.520
4.620E-06,-2.920
4.630E-06,-2.120
4.640E-06,-1.200
4.650E-06,-0.960
4.660E-06,-1.520
4.670E-06,-2.320
4.680E-06,-2.120
4.690E-06,-1.120
4.700E-06,-0.680
4.710E-06,-0.280
4.720E-06,-0.600
4.730E-06,-0.680
4.740E-06,0.240
4.750E-06,0.560
4.760E-06,0.880
4.770E-06,0.800
4.780E-06,0.320
4.790E-06,0.360
4.800E-06,0.720
4.810E-06,1.040
4.820E-06,1.160
4.830E-06,0.640
4.840E-06,0.040
4.850E-06,-0.320
4.860E-06,-0.520
4.870E-06,-0.680
4.880E-06,-0.720
4.890E-06,-0.960
4.900E-06,-1.200
4.910E-06,-1.200
4.920E-06,-1.240
4.930E-06,-1.040
4.940E-06,-1.040
4.950E-06,-0.840
4.960E-06,-0.600
4.970E-06,-0.320
4.980E-06,0.040
4.990E-06,0.320
5.000E-06,0.560
5.010E-06,0.760
5.020E-06,1.040
5.030E-06,1.400
5.040E-06,1.680
5.050E-06,1.680
5.060E-06,1.560
5.070E-06,1.400
5.080E-06,1.240
5.090E-06,1.000
5.100E-06,0.640
5.110E-06,0.360
5.120E-06,0.000
5.130E-06,-0.320
5.140E-06,-0.640
5.150E-06,-0.720
5.160E-06,-0.840
5.170E-06,-1.040
5.180E-06,-1.320
5.190E-06,-1.600
5.200E-06,-1.040
5.210E-06,-0.680
5.220E-06,0.120
5.230E-06,0.360
5.240E-06,0.560
5.250E-06,0.440
5.260E-06,0.280
5.270E-06,0.360
5.280E-06,0.480
5.290E-06,0.440
5.300E-06,0.040
5.310E-06,0.000
5.320E-06,-0.320
5.330E-06,-0.240
5.340E-06,-0.200
5.350E-06,-0.600
5.360E-06,-0.840
5.370E-06,-0.960
5.380E-06,-0.600
5.390E-06,-0.440
5.400E-06,0.480
5.410E-06,-0.120
5.420E-06,-0.160
5.430E-06,-0.680
5.440E-06,-0.640
5.450E-06,0.040
5.460E-06,0.000
5.470E-06,0.400
5.480E-06,0.200
5.490E-06,-0.200
5.500E-06,-0.040
5.510E-06,-0.080
5.520E-06,0.160
5.530E-06,0.440
5.540E-06,0.280
5.550E-06,0.080
5.560E-06,-0.240
5.570E-06,-0.520
5.580E-06,-0.320
5.590E-06,-0.120
5.600E-06,-0.040
5.610E-06,0.160
5.620E-06,-0.200
5.630E-06,-0.320
5.640E-06,-0.400
5.650E-06,-0.520
5.660E-06,-0.320
5.670E-06,-0.360
5.680E-06,-0.240
5.690E-06,-0.160
5.700E-06,-0.160
5.710E-06,-0.200
5.720E-06,0.000
5.730E-06,0.000
5.740E-06,0.120
5.750E-06,0.320
5.760E-06,0.320
5.770E-06,0.480
5.780E-06,0.480
5.790E-06,0.360
5.800E-06,0.360
5.810E-06,0.360
5.820E-06,0.320
5.830E-06,0.360
5.840E-06,0.280
5.850E-06,0.120
5.860E-06,0.000
5.870E-06,-0.160
5.880E-06,-0.320
5.890E-06,-0.480
5.900E-06,-0.560
5.910E-06,-0.640
5.920E-06,-0.680
5.930E-06,-0.720
5.940E-06,-0.720
5.950E-06,-0.800
5.960E-06,-0.800
5.970E-06,-0.720
5.980E-06,-0.600
5.990E-06,-0.600
6.000E-06,-0.520
6.010E-06,-0.480
