mediciones/5-27/-37.5/WaveData5117.csv

#timebase=2000000(ps)
,#voltbase=1000000(mv/100)
#size=4000
-5.650E-06,0.000
-5.640E-06,0.040
-5.630E-06,0.040
-5.620E-06,0.000
-5.610E-06,0.040
-5.600E-06,0.080
-5.590E-06,0.000
-5.580E-06,-0.040
-5.570E-06,0.000
-5.560E-06,0.040
-5.550E-06,0.040
-5.540E-06,-0.040
-5.530E-06,-0.040
-5.520E-06,0.000
-5.510E-06,0.080
-5.500E-06,0.160
-5.490E-06,0.160
-5.480E-06,0.280
-5.470E-06,0.200
-5.460E-06,0.160
-5.450E-06,0.200
-5.440E-06,0.040
-5.430E-06,0.160
-5.420E-06,0.120
-5.410E-06,0.280
-5.400E-06,0.160
-5.390E-06,0.120
-5.380E-06,0.040
-5.370E-06,0.040
-5.360E-06,-0.040
-5.350E-06,0.000
-5.340E-06,0.160
-5.330E-06,0.200
-5.320E-06,0.160
-5.310E-06,0.160
-5.300E-06,0.080
-5.290E-06,0.080
-5.280E-06,0.080
-5.270E-06,0.080
-5.260E-06,0.120
-5.250E-06,0.080
-5.240E-06,0.080
-5.230E-06,-0.040
-5.220E-06,0.000
-5.210E-06,0.000
-5.200E-06,0.000
-5.190E-06,0.000
-5.180E-06,0.000
-5.170E-06,0.000
-5.160E-06,0.000
-5.150E-06,-0.040
-5.140E-06,0.040
-5.130E-06,-0.040
-5.120E-06,-0.040
-5.110E-06,0.000
-5.100E-06,-0.040
-5.090E-06,0.000
-5.080E-06,-0.040
-5.070E-06,-0.040
-5.060E-06,0.040
-5.050E-06,0.080
-5.040E-06,0.000
-5.030E-06,-0.040
-5.020E-06,0.040
-5.010E-06,0.120
-5.000E-06,0.040
-4.990E-06,0.040
-4.980E-06,0.080
-4.970E-06,0.120
-4.960E-06,0.000
-4.950E-06,0.080
-4.940E-06,0.080
-4.930E-06,0.080
-4.920E-06,0.120
-4.910E-06,0.120
-4.900E-06,0.120
-4.890E-06,0.080
-4.880E-06,0.120
-4.870E-06,0.080
-4.860E-06,0.120
-4.850E-06,0.080
-4.840E-06,0.000
-4.830E-06,0.040
-4.820E-06,0.080
-4.810E-06,0.040
-4.800E-06,0.080
-4.790E-06,0.080
-4.780E-06,0.000
-4.770E-06,0.040
-4.760E-06,0.040
-4.750E-06,0.040
-4.740E-06,0.040
-4.730E-06,0.040
-4.720E-06,0.080
-4.710E-06,0.040
-4.700E-06,0.040
-4.690E-06,0.000
-4.680E-06,0.000
-4.670E-06,-0.040
-4.660E-06,0.040
-4.650E-06,0.040
-4.640E-06,0.040
-4.630E-06,0.000
-4.620E-06,0.040
-4.610E-06,-0.040
-4.600E-06,-0.040
-4.590E-06,0.080
-4.580E-06,0.000
-4.570E-06,0.080
-4.560E-06,0.040
-4.550E-06,0.040
-4.540E-06,0.040
-4.530E-06,0.040
-4.520E-06,0.080
-4.510E-06,0.120
-4.500E-06,0.040
-4.490E-06,0.040
-4.480E-06,0.080
-4.470E-06,0.000
-4.460E-06,0.040
-4.450E-06,0.040
-4.440E-06,0.040
-4.430E-06,0.040
-4.420E-06,-0.040
-4.410E-06,0.040
-4.400E-06,0.000
-4.390E-06,0.000
-4.380E-06,0.080
-4.370E-06,0.000
-4.360E-06,0.040
-4.350E-06,0.080
-4.340E-06,0.040
-4.330E-06,0.040
-4.320E-06,0.040
-4.310E-06,0.040
-4.300E-06,0.040
-4.290E-06,0.080
-4.280E-06,0.080
-4.270E-06,0.080
-4.260E-06,0.000
-4.250E-06,-0.040
-4.240E-06,0.000
-4.230E-06,-0.040
-4.220E-06,0.040
-4.210E-06,0.000
-4.200E-06,-0.040
-4.190E-06,0.000
-4.180E-06,0.000
-4.170E-06,0.040
-4.160E-06,0.040
-4.150E-06,0.040
-4.140E-06,0.040
-4.130E-06,0.000
-4.120E-06,0.040
-4.110E-06,0.040
-4.100E-06,0.080
-4.090E-06,0.040
-4.080E-06,0.000
-4.070E-06,0.040
-4.060E-06,0.000
-4.050E-06,0.040
-4.040E-06,0.080
-4.030E-06,0.080
-4.020E-06,0.080
-4.010E-06,0.120
-4.000E-06,0.000
-3.990E-06,0.040
-3.980E-06,0.040
-3.970E-06,0.080
-3.960E-06,0.080
-3.950E-06,0.120
-3.940E-06,0.080
-3.930E-06,0.040
-3.920E-06,0.080
-3.910E-06,0.080
-3.900E-06,0.120
-3.890E-06,0.080
-3.880E-06,0.080
-3.870E-06,0.080
-3.860E-06,0.040
-3.850E-06,0.080
-3.840E-06,0.000
-3.830E-06,-0.040
-3.820E-06,0.040
-3.810E-06,0.040
-3.800E-06,0.040
-3.790E-06,0.040
-3.780E-06,0.000
-3.770E-06,0.040
-3.760E-06,0.000
-3.750E-06,0.040
-3.740E-06,-0.040
-3.730E-06,0.080
-3.720E-06,0.040
-3.710E-06,0.160
-3.700E-06,0.240
-3.690E-06,0.280
-3.680E-06,0.280
-3.670E-06,0.120
-3.660E-06,0.080
-3.650E-06,0.040
-3.640E-06,0.120
-3.630E-06,0.120
-3.620E-06,0.200
-3.610E-06,0.160
-3.600E-06,0.000
-3.590E-06,-0.040
-3.580E-06,0.000
-3.570E-06,-0.040
-3.560E-06,0.080
-3.550E-06,0.080
-3.540E-06,0.080
-3.530E-06,0.040
-3.520E-06,-0.040
-3.510E-06,-0.040
-3.500E-06,0.000
-3.490E-06,0.000
-3.480E-06,0.000
-3.470E-06,0.040
-3.460E-06,0.000
-3.450E-06,0.000
-3.440E-06,-0.080
-3.430E-06,-0.040
-3.420E-06,0.000
-3.410E-06,-0.040
-3.400E-06,0.000
-3.390E-06,0.000
-3.380E-06,0.000
-3.370E-06,0.000
-3.360E-06,0.000
-3.350E-06,0.040
-3.340E-06,0.080
-3.330E-06,0.080
-3.320E-06,0.080
-3.310E-06,0.080
-3.300E-06,0.080
-3.290E-06,0.080
-3.280E-06,0.080
-3.270E-06,0.080
-3.260E-06,0.040
-3.250E-06,0.080
-3.240E-06,0.080
-3.230E-06,0.040
-3.220E-06,0.080
-3.210E-06,0.040
-3.200E-06,0.080
-3.190E-06,0.120
-3.180E-06,0.120
-3.170E-06,0.160
-3.160E-06,0.160
-3.150E-06,0.200
-3.140E-06,0.160
-3.130E-06,0.200
-3.120E-06,0.200
-3.110E-06,0.120
-3.100E-06,0.120
-3.090E-06,0.160
-3.080E-06,0.160
-3.070E-06,0.080
-3.060E-06,0.080
-3.050E-06,0.160
-3.040E-06,0.160
-3.030E-06,0.240
-3.020E-06,0.240
-3.010E-06,0.280
-3.000E-06,0.200
-2.990E-06,0.160
-2.980E-06,0.160
-2.970E-06,0.160
-2.960E-06,0.240
-2.950E-06,0.240
-2.940E-06,0.320
-2.930E-06,0.280
-2.920E-06,0.160
-2.910E-06,0.160
-2.900E-06,0.080
-2.890E-06,0.160
-2.880E-06,0.160
-2.870E-06,0.200
-2.860E-06,0.120
-2.850E-06,0.120
-2.840E-06,0.040
-2.830E-06,-0.040
-2.820E-06,0.000
-2.810E-06,-0.040
-2.800E-06,0.000
-2.790E-06,0.000
-2.780E-06,0.000
-2.770E-06,0.000
-2.760E-06,0.000
-2.750E-06,-0.080
-2.740E-06,0.040
-2.730E-06,-0.040
-2.720E-06,0.040
-2.710E-06,0.160
-2.700E-06,0.120
-2.690E-06,0.200
-2.680E-06,0.120
-2.670E-06,0.200
-2.660E-06,0.280
-2.650E-06,0.400
-2.640E-06,0.520
-2.630E-06,0.640
-2.620E-06,0.640
-2.610E-06,0.600
-2.600E-06,0.520
-2.590E-06,0.560
-2.580E-06,0.600
-2.570E-06,0.680
-2.560E-06,0.640
-2.550E-06,0.640
-2.540E-06,0.560
-2.530E-06,0.520
-2.520E-06,0.520
-2.510E-06,0.480
-2.500E-06,0.600
-2.490E-06,0.560
-2.480E-06,0.520
-2.470E-06,0.360
-2.460E-06,0.320
-2.450E-06,0.320
-2.440E-06,0.320
-2.430E-06,0.360
-2.420E-06,0.360
-2.410E-06,0.320
-2.400E-06,0.280
-2.390E-06,0.160
-2.380E-06,0.200
-2.370E-06,0.200
-2.360E-06,0.320
-2.350E-06,0.360
-2.340E-06,0.320
-2.330E-06,0.240
-2.320E-06,0.240
-2.310E-06,0.280
-2.300E-06,0.280
-2.290E-06,0.200
-2.280E-06,0.320
-2.270E-06,0.360
-2.260E-06,0.360
-2.250E-06,0.320
-2.240E-06,0.320
-2.230E-06,0.360
-2.220E-06,0.400
-2.210E-06,0.480
-2.200E-06,0.480
-2.190E-06,0.520
-2.180E-06,0.600
-2.170E-06,0.560
-2.160E-06,0.600
-2.150E-06,0.520
-2.140E-06,0.640
-2.130E-06,0.600
-2.120E-06,0.720
-2.110E-06,0.720
-2.100E-06,0.680
-2.090E-06,0.720
-2.080E-06,0.720
-2.070E-06,0.680
-2.060E-06,0.680
-2.050E-06,0.600
-2.040E-06,0.560
-2.030E-06,0.520
-2.020E-06,0.520
-2.010E-06,0.520
-2.000E-06,0.560
-1.990E-06,0.640
-1.980E-06,0.680
-1.970E-06,0.680
-1.960E-06,0.560
-1.950E-06,0.440
-1.940E-06,0.400
-1.930E-06,0.280
-1.920E-06,0.360
-1.910E-06,0.440
-1.900E-06,0.640
-1.890E-06,0.640
-1.880E-06,0.640
-1.870E-06,0.520
-1.860E-06,0.480
-1.850E-06,0.600
-1.840E-06,0.680
-1.830E-06,0.800
-1.820E-06,0.800
-1.810E-06,0.840
-1.800E-06,0.840
-1.790E-06,0.880
-1.780E-06,0.960
-1.770E-06,1.000
-1.760E-06,1.080
-1.750E-06,0.960
-1.740E-06,0.920
-1.730E-06,0.880
-1.720E-06,0.920
-1.710E-06,0.880
-1.700E-06,0.840
-1.690E-06,0.680
-1.680E-06,0.480
-1.670E-06,0.400
-1.660E-06,0.320
-1.650E-06,0.400
-1.640E-06,0.480
-1.630E-06,0.560
-1.620E-06,0.520
-1.610E-06,0.440
-1.600E-06,0.440
-1.590E-06,0.400
-1.580E-06,0.480
-1.570E-06,0.440
-1.560E-06,0.400
-1.550E-06,0.360
-1.540E-06,0.320
-1.530E-06,0.280
-1.520E-06,0.320
-1.510E-06,0.280
-1.500E-06,0.200
-1.490E-06,0.200
-1.480E-06,0.200
-1.470E-06,0.160
-1.460E-06,0.120
-1.450E-06,0.200
-1.440E-06,0.240
-1.430E-06,0.320
-1.420E-06,0.280
-1.410E-06,0.280
-1.400E-06,0.200
-1.390E-06,0.240
-1.380E-06,0.320
-1.370E-06,0.400
-1.360E-06,0.480
-1.350E-06,0.480
-1.340E-06,0.560
-1.330E-06,0.600
-1.320E-06,0.640
-1.310E-06,0.640
-1.300E-06,0.680
-1.290E-06,0.760
-1.280E-06,0.760
-1.270E-06,0.720
-1.260E-06,0.760
-1.250E-06,0.760
-1.240E-06,0.760
-1.230E-06,0.600
-1.220E-06,0.560
-1.210E-06,0.480
-1.200E-06,0.400
-1.190E-06,0.200
-1.180E-06,0.640
-1.170E-06,0.920
-1.160E-06,1.000
-1.150E-06,1.280
-1.140E-06,1.040
-1.130E-06,1.040
-1.120E-06,1.000
-1.110E-06,1.160
-1.100E-06,1.280
-1.090E-06,1.320
-1.080E-06,1.360
-1.070E-06,1.200
-1.060E-06,1.040
-1.050E-06,1.040
-1.040E-06,0.960
-1.030E-06,0.960
-1.020E-06,1.360
-1.010E-06,1.480
-1.000E-06,1.760
-9.900E-07,1.760
-9.800E-07,1.720
-9.700E-07,1.640
-9.600E-07,1.520
-9.500E-07,1.520
-9.400E-07,1.640
-9.300E-07,1.800
-9.200E-07,1.800
-9.100E-07,1.960
-9.000E-07,1.520
-8.900E-07,1.480
-8.800E-07,1.120
-8.700E-07,1.040
-8.600E-07,1.160
-8.500E-07,1.040
-8.400E-07,0.960
-8.300E-07,0.720
-8.200E-07,0.840
-8.100E-07,0.960
-8.000E-07,0.880
-7.900E-07,0.840
-7.800E-07,0.440
-7.700E-07,0.320
-7.600E-07,0.360
-7.500E-07,0.480
-7.400E-07,0.600
-7.300E-07,0.680
-7.200E-07,0.440
-7.100E-07,0.240
-7.000E-07,0.040
-6.900E-07,-0.040
-6.800E-07,0.000
-6.700E-07,0.200
-6.600E-07,0.360
-6.500E-07,0.480
-6.400E-07,0.680
-6.300E-07,0.600
-6.200E-07,0.680
-6.100E-07,0.480
-6.000E-07,0.520
-5.900E-07,0.560
-5.800E-07,0.680
-5.700E-07,0.720
-5.600E-07,0.680
-5.500E-07,0.600
-5.400E-07,0.640
-5.300E-07,0.680
-5.200E-07,0.760
-5.100E-07,1.080
-5.000E-07,1.120
-4.900E-07,1.200
-4.800E-07,1.160
-4.700E-07,1.040
-4.600E-07,1.000
-4.500E-07,0.920
-4.400E-07,0.920
-4.300E-07,1.040
-4.200E-07,1.200
-4.100E-07,1.320
-4.000E-07,1.320
-3.900E-07,1.160
-3.800E-07,1.000
-3.700E-07,0.880
-3.600E-07,0.840
-3.500E-07,0.880
-3.400E-07,0.880
-3.300E-07,0.920
-3.200E-07,0.800
-3.100E-07,0.680
-3.000E-07,0.520
-2.900E-07,0.360
-2.800E-07,0.400
-2.700E-07,0.400
-2.600E-07,0.520
-2.500E-07,0.600
-2.400E-07,0.560
-2.300E-07,0.600
-2.200E-07,0.640
-2.100E-07,0.600
-2.000E-07,0.600
-1.900E-07,0.600
-1.800E-07,0.600
-1.700E-07,0.640
-1.600E-07,0.520
-1.500E-07,0.480
-1.400E-07,0.560
-1.300E-07,0.640
-1.200E-07,0.920
-1.100E-07,1.240
-1.000E-07,1.440
-9.000E-08,1.480
-8.000E-08,1.360
-7.000E-08,1.200
-6.000E-08,1.120
-5.000E-08,1.280
-4.000E-08,1.400
-3.000E-08,0.680
-2.000E-08,0.120
-1.000E-08,-0.960
0.000E+00,-1.360
1.000E-08,-0.880
2.000E-08,0.440
3.000E-08,1.360
4.000E-08,1.920
5.000E-08,1.360
6.000E-08,0.480
7.000E-08,0.080
8.000E-08,0.160
9.000E-08,0.920
1.000E-07,1.360
1.100E-07,1.560
1.200E-07,1.160
1.300E-07,0.560
1.400E-07,0.240
1.500E-07,0.200
1.600E-07,0.440
1.700E-07,0.840
1.800E-07,0.960
1.900E-07,1.000
2.000E-07,0.840
2.100E-07,0.480
2.200E-07,0.280
2.300E-07,0.160
2.400E-07,0.120
2.500E-07,0.200
2.600E-07,0.360
2.700E-07,0.280
2.800E-07,0.480
2.900E-07,0.320
3.000E-07,0.320
3.100E-07,0.320
3.200E-07,0.320
3.300E-07,0.400
3.400E-07,0.400
3.500E-07,0.440
3.600E-07,0.480
3.700E-07,0.440
3.800E-07,0.440
3.900E-07,0.480
4.000E-07,0.480
4.100E-07,0.440
4.200E-07,0.520
4.300E-07,0.520
4.400E-07,0.520
4.500E-07,0.400
4.600E-07,0.320
4.700E-07,0.160
4.800E-07,-0.040
4.900E-07,-0.040
5.000E-07,-0.040
5.100E-07,-0.080
5.200E-07,-0.120
5.300E-07,-0.120
5.400E-07,-0.240
5.500E-07,-0.200
5.600E-07,-0.240
5.700E-07,-0.240
5.800E-07,-0.200
5.900E-07,-0.160
6.000E-07,-0.080
6.100E-07,0.000
6.200E-07,-0.040
6.300E-07,-0.120
6.400E-07,-0.080
6.500E-07,-0.160
6.600E-07,-0.160
6.700E-07,-0.160
6.800E-07,-0.040
6.900E-07,0.000
7.000E-07,0.000
7.100E-07,0.000
7.200E-07,-0.040
7.300E-07,0.000
7.400E-07,-0.120
7.500E-07,-0.240
7.600E-07,-0.200
7.700E-07,-0.240
7.800E-07,-0.360
7.900E-07,-0.360
8.000E-07,-0.720
8.100E-07,-0.640
8.200E-07,-0.920
8.300E-07,-0.360
8.400E-07,0.400
8.500E-07,1.160
8.600E-07,1.680
8.700E-07,1.800
8.800E-07,0.960
8.900E-07,0.160
9.000E-07,-1.000
9.100E-07,-1.280
9.200E-07,-1.160
9.300E-07,-1.080
9.400E-07,0.160
9.500E-07,0.040
9.600E-07,0.200
9.700E-07,-0.320
9.800E-07,-0.640
9.900E-07,-0.800
1.000E-06,-0.680
1.010E-06,-0.320
1.020E-06,0.080
1.030E-06,0.120
1.040E-06,0.080
1.050E-06,0.040
1.060E-06,-0.240
1.070E-06,-0.200
1.080E-06,-0.080
1.090E-06,0.000
1.100E-06,0.400
1.110E-06,0.440
1.120E-06,0.560
1.130E-06,0.320
1.140E-06,0.080
1.150E-06,-0.080
1.160E-06,-0.400
1.170E-06,-0.480
1.180E-06,-0.520
1.190E-06,-0.400
1.200E-06,-0.400
1.210E-06,-0.320
1.220E-06,-0.360
1.230E-06,-0.440
1.240E-06,-0.400
1.250E-06,-0.360
1.260E-06,-0.160
1.270E-06,-0.160
1.280E-06,-0.080
1.290E-06,-0.080
1.300E-06,-0.040
1.310E-06,0.000
1.320E-06,0.080
1.330E-06,0.160
1.340E-06,0.200
1.350E-06,0.160
1.360E-06,0.200
1.370E-06,0.320
1.380E-06,0.280
1.390E-06,0.360
1.400E-06,0.280
1.410E-06,0.320
1.420E-06,0.320
1.430E-06,0.240
1.440E-06,0.160
1.450E-06,0.120
1.460E-06,0.080
1.470E-06,0.040
1.480E-06,0.040
1.490E-06,0.120
1.500E-06,0.160
1.510E-06,0.120
1.520E-06,0.320
1.530E-06,0.360
1.540E-06,0.480
1.550E-06,0.480
1.560E-06,0.400
1.570E-06,0.320
1.580E-06,0.320
1.590E-06,0.160
1.600E-06,0.160
1.610E-06,0.160
1.620E-06,0.120
1.630E-06,0.160
1.640E-06,0.000
1.650E-06,-0.240
1.660E-06,-0.360
1.670E-06,-0.600
1.680E-06,-0.720
1.690E-06,-0.880
1.700E-06,-0.920
1.710E-06,-1.000
1.720E-06,-1.000
1.730E-06,-1.080
1.740E-06,-1.080
1.750E-06,-1.120
1.760E-06,-1.080
1.770E-06,-1.120
1.780E-06,-1.040
1.790E-06,-1.040
1.800E-06,-1.040
1.810E-06,-1.040
1.820E-06,-0.960
1.830E-06,-1.000
1.840E-06,-0.880
1.850E-06,-0.840
1.860E-06,-0.720
1.870E-06,-0.840
1.880E-06,-0.720
1.890E-06,-0.760
1.900E-06,-0.320
1.910E-06,0.120
1.920E-06,0.080
1.930E-06,0.360
1.940E-06,-0.520
1.950E-06,-0.920
1.960E-06,-1.360
1.970E-06,-1.280
1.980E-06,-0.960
1.990E-06,-0.680
2.000E-06,-0.640
2.010E-06,-0.680
2.020E-06,-0.800
2.030E-06,-0.840
2.040E-06,-0.840
2.050E-06,-0.720
2.060E-06,-0.440
2.070E-06,-0.160
2.080E-06,0.160
2.090E-06,0.440
2.100E-06,0.680
2.110E-06,0.760
2.120E-06,0.640
2.130E-06,0.640
2.140E-06,0.600
2.150E-06,0.520
2.160E-06,0.480
2.170E-06,0.360
2.180E-06,0.080
2.190E-06,-0.120
2.200E-06,-0.440
2.210E-06,-0.640
2.220E-06,-0.800
2.230E-06,-0.880
2.240E-06,-1.080
2.250E-06,-1.040
2.260E-06,-1.200
2.270E-06,-1.240
2.280E-06,-1.200
2.290E-06,-1.080
2.300E-06,-0.840
2.310E-06,-0.760
2.320E-06,-0.560
2.330E-06,-0.520
2.340E-06,-0.440
2.350E-06,-0.480
2.360E-06,-0.400
2.370E-06,-0.400
2.380E-06,-0.360
2.390E-06,-0.400
2.400E-06,-0.600
2.410E-06,-0.800
2.420E-06,-0.960
2.430E-06,-1.080
2.440E-06,-1.160
2.450E-06,-1.240
2.460E-06,-1.280
2.470E-06,-1.320
2.480E-06,-1.400
2.490E-06,-1.520
2.500E-06,-1.600
2.510E-06,-1.680
2.520E-06,-1.680
2.530E-06,-1.800
2.540E-06,-1.760
2.550E-06,-1.840
2.560E-06,-1.880
2.570E-06,-1.880
2.580E-06,-1.880
2.590E-06,-1.880
2.600E-06,-1.800
2.610E-06,-1.760
2.620E-06,-1.760
2.630E-06,-1.680
2.640E-06,-1.640
2.650E-06,-1.560
2.660E-06,-1.520
2.670E-06,-1.480
2.680E-06,-1.440
2.690E-06,-1.440
2.700E-06,-1.480
2.710E-06,-1.480
2.720E-06,-1.560
2.730E-06,-1.640
2.740E-06,-1.680
2.750E-06,-1.680
2.760E-06,-1.720
2.770E-06,-1.560
2.780E-06,-1.640
2.790E-06,-1.480
2.800E-06,-1.520
2.810E-06,-1.560
2.820E-06,-1.320
2.830E-06,-1.600
2.840E-06,-1.480
2.850E-06,-1.440
2.860E-06,-1.520
2.870E-06,-1.320
2.880E-06,-1.360
2.890E-06,-1.080
2.900E-06,-1.000
2.910E-06,-0.840
2.920E-06,-0.640
2.930E-06,-0.600
2.940E-06,-0.040
2.950E-06,-0.040
2.960E-06,0.160
2.970E-06,-0.080
2.980E-06,-0.360
2.990E-06,-1.280
3.000E-06,-1.720
3.010E-06,-2.480
3.020E-06,-3.040
3.030E-06,-3.680
3.040E-06,-3.640
3.050E-06,-3.200
3.060E-06,-2.440
3.070E-06,-1.560
3.080E-06,-0.720
3.090E-06,-0.160
3.100E-06,0.280
3.110E-06,0.640
3.120E-06,1.040
3.130E-06,1.240
3.140E-06,1.280
3.150E-06,1.280
3.160E-06,1.200
3.170E-06,0.880
3.180E-06,0.360
3.190E-06,-0.360
3.200E-06,-1.400
3.210E-06,-2.760
3.220E-06,-4.320
3.230E-06,-5.200
3.240E-06,-5.200
3.250E-06,-5.240
3.260E-06,-5.240
3.270E-06,-5.240
3.280E-06,-5.200
3.290E-06,-5.240
3.300E-06,-5.200
3.310E-06,-5.200
3.320E-06,-5.240
3.330E-06,-5.240
3.340E-06,-5.240
3.350E-06,-5.240
3.360E-06,-5.240
3.370E-06,-5.240
3.380E-06,-5.240
3.390E-06,-5.240
3.400E-06,-5.200
3.410E-06,-5.240
3.420E-06,-5.240
3.430E-06,-5.200
3.440E-06,-5.240
3.450E-06,-5.200
3.460E-06,-5.240
3.470E-06,-5.240
3.480E-06,-5.200
3.490E-06,-5.200
3.500E-06,-5.240
3.510E-06,-5.240
3.520E-06,-5.240
3.530E-06,-5.200
3.540E-06,-5.240
3.550E-06,-5.240
3.560E-06,-5.240
3.570E-06,-5.240
3.580E-06,-5.240
3.590E-06,-5.200
3.600E-06,-5.200
3.610E-06,-5.200
3.620E-06,-5.240
3.630E-06,-5.240
3.640E-06,-5.240
3.650E-06,-5.240
3.660E-06,-5.240
3.670E-06,-5.200
3.680E-06,-5.200
3.690E-06,-5.200
3.700E-06,-5.040
3.710E-06,-4.880
3.720E-06,-4.840
3.730E-06,-4.720
3.740E-06,-4.640
3.750E-06,-4.680
3.760E-06,-4.720
3.770E-06,-4.520
3.780E-06,-4.480
3.790E-06,-4.360
3.800E-06,-4.200
3.810E-06,-4.120
3.820E-06,-4.000
3.830E-06,-3.880
3.840E-06,-3.720
3.850E-06,-3.560
3.860E-06,-3.400
3.870E-06,-3.160
3.880E-06,-2.920
3.890E-06,-2.720
3.900E-06,-2.480
3.910E-06,-2.320
3.920E-06,-2.160
3.930E-06,-2.040
3.940E-06,-1.800
3.950E-06,-1.680
3.960E-06,-1.520
3.970E-06,-1.400
3.980E-06,-1.360
3.990E-06,-1.280
4.000E-06,-1.320
4.010E-06,-1.320
4.020E-06,-1.360
4.030E-06,-1.320
4.040E-06,-1.320
4.050E-06,-1.360
4.060E-06,-1.360
4.070E-06,-1.400
4.080E-06,-1.440
4.090E-06,-1.520
4.100E-06,-1.640
4.110E-06,-1.680
4.120E-06,-1.680
4.130E-06,-1.720
4.140E-06,-1.680
4.150E-06,-1.720
4.160E-06,-1.680
4.170E-06,-1.600
4.180E-06,-1.520
4.190E-06,-1.480
4.200E-06,-1.360
4.210E-06,-1.360
4.220E-06,-1.320
4.230E-06,-1.280
4.240E-06,-1.280
4.250E-06,-1.160
4.260E-06,-1.200
4.270E-06,-1.160
4.280E-06,-1.120
4.290E-06,-1.120
4.300E-06,-1.040
4.310E-06,-1.040
4.320E-06,-1.000
4.330E-06,-1.000
4.340E-06,-1.080
4.350E-06,-1.040
4.360E-06,-1.080
4.370E-06,-1.120
4.380E-06,-1.080
4.390E-06,-1.080
4.400E-06,-1.080
4.410E-06,-1.120
4.420E-06,-1.080
4.430E-06,-1.040
4.440E-06,-1.120
4.450E-06,-1.160
4.460E-06,-1.040
4.470E-06,-1.000
4.480E-06,-0.960
4.490E-06,-0.840
4.500E-06,-0.840
4.510E-06,-0.840
4.520E-06,-0.800
4.530E-06,-0.760
4.540E-06,-0.720
4.550E-06,-0.680
4.560E-06,-0.640
4.570E-06,-0.600
4.580E-06,-0.640
4.590E-06,-0.680
4.600E-06,-0.760
4.610E-06,-0.800
4.620E-06,-0.840
4.630E-06,-0.880
4.640E-06,-0.960
4.650E-06,-1.080
4.660E-06,-1.160
4.670E-06,-1.280
4.680E-06,-1.360
4.690E-06,-1.440
4.700E-06,-1.480
4.710E-06,-1.520
4.720E-06,-1.560
4.730E-06,-1.560
4.740E-06,-1.480
4.750E-06,-1.440
4.760E-06,-1.400
4.770E-06,-1.400
4.780E-06,-1.320
4.790E-06,-1.240
4.800E-06,-1.200
4.810E-06,-0.960
4.820E-06,-0.840
4.830E-06,-0.680
4.840E-06,-0.600
4.850E-06,-0.560
4.860E-06,-0.600
4.870E-06,-0.600
4.880E-06,-0.600
4.890E-06,-0.560
4.900E-06,-0.520
4.910E-06,-0.640
4.920E-06,-0.680
4.930E-06,-0.680
4.940E-06,-0.720
4.950E-06,-0.840
4.960E-06,-0.840
4.970E-06,-0.920
4.980E-06,-1.040
4.990E-06,-1.000
5.000E-06,-1.040
5.010E-06,-1.000
5.020E-06,-0.960
5.030E-06,-0.880
5.040E-06,-0.880
5.050E-06,-0.840
5.060E-06,-0.880
5.070E-06,-0.880
5.080E-06,-0.880
5.090E-06,-0.840
5.100E-06,-0.840
5.110E-06,-0.840
5.120E-06,-0.760
5.130E-06,-0.760
5.140E-06,-0.720
5.150E-06,-0.760
5.160E-06,-0.760
5.170E-06,-0.800
5.180E-06,-0.800
5.190E-06,-0.840
5.200E-06,-0.880
5.210E-06,-0.880
5.220E-06,-0.840
5.230E-06,-0.800
5.240E-06,-0.720
5.250E-06,-0.680
5.260E-06,-0.600
5.270E-06,-0.560
5.280E-06,-0.480
5.290E-06,-0.440
5.300E-06,-0.360
5.310E-06,-0.280
5.320E-06,-0.160
5.330E-06,-0.080
5.340E-06,0.000
5.350E-06,-0.080
5.360E-06,-0.120
5.370E-06,-0.280
5.380E-06,-0.400
5.390E-06,-0.520
5.400E-06,-0.600
5.410E-06,-0.640
5.420E-06,-0.840
5.430E-06,-0.880
5.440E-06,-1.000
5.450E-06,-1.040
5.460E-06,-1.000
5.470E-06,-1.040
5.480E-06,-1.040
5.490E-06,-1.080
5.500E-06,-1.040
5.510E-06,-1.040
5.520E-06,-1.080
5.530E-06,-1.120
5.540E-06,-1.040
5.550E-06,-1.040
5.560E-06,-1.080
5.570E-06,-1.120
5.580E-06,-1.120
5.590E-06,-1.120
5.600E-06,-1.160
5.610E-06,-1.200
5.620E-06,-1.200
5.630E-06,-1.160
5.640E-06,-1.160
5.650E-06,-1.200
5.660E-06,-1.160
5.670E-06,-1.120
5.680E-06,-1.040
5.690E-06,-1.000
5.700E-06,-0.920
5.710E-06,-0.880
5.720E-06,-0.800
5.730E-06,-0.720
5.740E-06,-0.680
5.750E-06,-0.560
5.760E-06,-0.520
5.770E-06,-0.440
5.780E-06,-0.400
5.790E-06,-0.360
5.800E-06,-0.320
5.810E-06,-0.320
5.820E-06,-0.320
5.830E-06,-0.320
5.840E-06,-0.280
5.850E-06,-0.200
5.860E-06,-0.240
5.870E-06,-0.200
5.880E-06,-0.160
5.890E-06,-0.160
5.900E-06,-0.160
5.910E-06,-0.120
5.920E-06,-0.120
5.930E-06,0.000
5.940E-06,-0.040
5.950E-06,0.000
5.960E-06,-0.040
5.970E-06,-0.040
5.980E-06,-0.040
5.990E-06,-0.080
6.000E-06,-0.160
6.010E-06,-0.160
6.020E-06,-0.160
6.030E-06,-0.280
6.040E-06,-0.320
6.050E-06,-0.400
6.060E-06,-0.520
6.070E-06,-0.560
6.080E-06,-0.600
6.090E-06,-0.640
6.100E-06,-0.720
6.110E-06,-0.720
6.120E-06,-0.720
