mediciones/5-27/-37.5/WaveData5123.csv

#timebase=2000000(ps)
,#voltbase=1000000(mv/100)
#size=4000
-5.650E-06,-0.040
-5.640E-06,-0.040
-5.630E-06,0.040
-5.620E-06,-0.040
-5.610E-06,0.040
-5.600E-06,0.040
-5.590E-06,0.000
-5.580E-06,0.080
-5.570E-06,0.000
-5.560E-06,0.080
-5.550E-06,0.080
-5.540E-06,0.040
-5.530E-06,0.000
-5.520E-06,0.040
-5.510E-06,0.080
-5.500E-06,0.080
-5.490E-06,0.040
-5.480E-06,0.040
-5.470E-06,-0.040
-5.460E-06,0.000
-5.450E-06,0.040
-5.440E-06,0.080
-5.430E-06,0.040
-5.420E-06,0.040
-5.410E-06,0.040
-5.400E-06,0.000
-5.390E-06,-0.040
-5.380E-06,0.040
-5.370E-06,0.040
-5.360E-06,0.040
-5.350E-06,0.000
-5.340E-06,0.040
-5.330E-06,0.000
-5.320E-06,0.040
-5.310E-06,0.000
-5.300E-06,0.080
-5.290E-06,0.080
-5.280E-06,0.040
-5.270E-06,0.000
-5.260E-06,0.000
-5.250E-06,0.000
-5.240E-06,0.080
-5.230E-06,0.080
-5.220E-06,0.040
-5.210E-06,0.000
-5.200E-06,0.000
-5.190E-06,0.000
-5.180E-06,0.080
-5.170E-06,0.080
-5.160E-06,0.080
-5.150E-06,0.040
-5.140E-06,0.000
-5.130E-06,0.040
-5.120E-06,0.000
-5.110E-06,0.000
-5.100E-06,0.080
-5.090E-06,0.080
-5.080E-06,0.000
-5.070E-06,0.000
-5.060E-06,0.000
-5.050E-06,0.040
-5.040E-06,0.040
-5.030E-06,0.040
-5.020E-06,0.040
-5.010E-06,0.040
-5.000E-06,0.000
-4.990E-06,0.040
-4.980E-06,0.000
-4.970E-06,0.040
-4.960E-06,0.080
-4.950E-06,-0.040
-4.940E-06,0.040
-4.930E-06,0.000
-4.920E-06,0.040
-4.910E-06,0.040
-4.900E-06,0.120
-4.890E-06,0.120
-4.880E-06,0.000
-4.870E-06,0.040
-4.860E-06,0.000
-4.850E-06,0.040
-4.840E-06,0.080
-4.830E-06,0.080
-4.820E-06,0.080
-4.810E-06,0.040
-4.800E-06,0.000
-4.790E-06,0.000
-4.780E-06,0.040
-4.770E-06,0.080
-4.760E-06,0.040
-4.750E-06,0.120
-4.740E-06,0.120
-4.730E-06,0.040
-4.720E-06,0.040
-4.710E-06,0.120
-4.700E-06,0.040
-4.690E-06,0.080
-4.680E-06,0.080
-4.670E-06,0.040
-4.660E-06,0.080
-4.650E-06,0.080
-4.640E-06,0.080
-4.630E-06,0.080
-4.620E-06,0.040
-4.610E-06,0.000
-4.600E-06,-0.040
-4.590E-06,-0.040
-4.580E-06,0.040
-4.570E-06,0.000
-4.560E-06,0.040
-4.550E-06,0.000
-4.540E-06,0.040
-4.530E-06,0.000
-4.520E-06,0.000
-4.510E-06,0.000
-4.500E-06,0.000
-4.490E-06,0.040
-4.480E-06,0.080
-4.470E-06,0.080
-4.460E-06,0.080
-4.450E-06,0.040
-4.440E-06,0.080
-4.430E-06,0.080
-4.420E-06,0.040
-4.410E-06,0.040
-4.400E-06,0.040
-4.390E-06,0.040
-4.380E-06,0.040
-4.370E-06,0.040
-4.360E-06,0.080
-4.350E-06,0.080
-4.340E-06,0.040
-4.330E-06,0.040
-4.320E-06,0.040
-4.310E-06,0.080
-4.300E-06,0.080
-4.290E-06,0.040
-4.280E-06,0.080
-4.270E-06,0.080
-4.260E-06,0.080
-4.250E-06,0.080
-4.240E-06,0.080
-4.230E-06,0.000
-4.220E-06,0.040
-4.210E-06,0.080
-4.200E-06,0.000
-4.190E-06,0.000
-4.180E-06,0.000
-4.170E-06,0.040
-4.160E-06,0.080
-4.150E-06,0.000
-4.140E-06,0.040
-4.130E-06,0.040
-4.120E-06,0.000
-4.110E-06,0.000
-4.100E-06,0.000
-4.090E-06,0.080
-4.080E-06,0.080
-4.070E-06,0.080
-4.060E-06,0.080
-4.050E-06,0.080
-4.040E-06,-0.040
-4.030E-06,0.000
-4.020E-06,0.040
-4.010E-06,0.120
-4.000E-06,0.040
-3.990E-06,0.000
-3.980E-06,0.040
-3.970E-06,0.000
-3.960E-06,0.040
-3.950E-06,0.040
-3.940E-06,0.040
-3.930E-06,0.080
-3.920E-06,0.040
-3.910E-06,0.080
-3.900E-06,0.040
-3.890E-06,0.080
-3.880E-06,0.080
-3.870E-06,0.000
-3.860E-06,0.000
-3.850E-06,0.040
-3.840E-06,0.040
-3.830E-06,0.000
-3.820E-06,0.000
-3.810E-06,0.080
-3.800E-06,0.080
-3.790E-06,0.080
-3.780E-06,0.120
-3.770E-06,0.080
-3.760E-06,0.000
-3.750E-06,-0.040
-3.740E-06,0.000
-3.730E-06,0.040
-3.720E-06,0.080
-3.710E-06,0.000
-3.700E-06,0.040
-3.690E-06,0.080
-3.680E-06,0.000
-3.670E-06,0.000
-3.660E-06,0.040
-3.650E-06,0.040
-3.640E-06,0.120
-3.630E-06,0.040
-3.620E-06,0.120
-3.610E-06,0.040
-3.600E-06,0.080
-3.590E-06,0.040
-3.580E-06,0.040
-3.570E-06,0.080
-3.560E-06,0.160
-3.550E-06,0.120
-3.540E-06,0.080
-3.530E-06,0.080
-3.520E-06,0.040
-3.510E-06,0.000
-3.500E-06,0.000
-3.490E-06,0.040
-3.480E-06,0.040
-3.470E-06,0.000
-3.460E-06,0.040
-3.450E-06,0.000
-3.440E-06,-0.040
-3.430E-06,0.000
-3.420E-06,0.000
-3.410E-06,0.040
-3.400E-06,0.040
-3.390E-06,0.040
-3.380E-06,-0.040
-3.370E-06,-0.040
-3.360E-06,0.000
-3.350E-06,-0.040
-3.340E-06,0.000
-3.330E-06,0.000
-3.320E-06,0.040
-3.310E-06,0.000
-3.300E-06,0.000
-3.290E-06,0.000
-3.280E-06,-0.040
-3.270E-06,-0.040
-3.260E-06,0.080
-3.250E-06,0.160
-3.240E-06,0.120
-3.230E-06,0.040
-3.220E-06,0.080
-3.210E-06,0.040
-3.200E-06,0.080
-3.190E-06,0.080
-3.180E-06,0.120
-3.170E-06,0.080
-3.160E-06,0.080
-3.150E-06,0.080
-3.140E-06,0.000
-3.130E-06,0.080
-3.120E-06,0.040
-3.110E-06,0.080
-3.100E-06,0.080
-3.090E-06,0.120
-3.080E-06,0.120
-3.070E-06,0.080
-3.060E-06,0.080
-3.050E-06,0.080
-3.040E-06,0.080
-3.030E-06,0.080
-3.020E-06,0.080
-3.010E-06,0.040
-3.000E-06,0.080
-2.990E-06,0.000
-2.980E-06,0.040
-2.970E-06,0.040
-2.960E-06,0.040
-2.950E-06,0.000
-2.940E-06,0.040
-2.930E-06,0.040
-2.920E-06,0.040
-2.910E-06,0.080
-2.900E-06,0.040
-2.890E-06,0.040
-2.880E-06,0.080
-2.870E-06,0.120
-2.860E-06,0.000
-2.850E-06,0.000
-2.840E-06,0.040
-2.830E-06,0.000
-2.820E-06,0.000
-2.810E-06,0.080
-2.800E-06,0.040
-2.790E-06,0.040
-2.780E-06,0.080
-2.770E-06,0.000
-2.760E-06,0.040
-2.750E-06,0.080
-2.740E-06,0.080
-2.730E-06,0.160
-2.720E-06,0.040
-2.710E-06,0.040
-2.700E-06,0.000
-2.690E-06,0.040
-2.680E-06,0.080
-2.670E-06,0.080
-2.660E-06,0.120
-2.650E-06,0.080
-2.640E-06,0.080
-2.630E-06,0.040
-2.620E-06,0.040
-2.610E-06,0.080
-2.600E-06,0.080
-2.590E-06,0.120
-2.580E-06,0.160
-2.570E-06,0.120
-2.560E-06,0.080
-2.550E-06,0.160
-2.540E-06,0.200
-2.530E-06,0.160
-2.520E-06,0.120
-2.510E-06,0.160
-2.500E-06,0.160
-2.490E-06,0.160
-2.480E-06,0.200
-2.470E-06,0.200
-2.460E-06,0.160
-2.450E-06,0.120
-2.440E-06,0.160
-2.430E-06,0.160
-2.420E-06,0.160
-2.410E-06,0.160
-2.400E-06,0.200
-2.390E-06,0.240
-2.380E-06,0.160
-2.370E-06,0.120
-2.360E-06,0.160
-2.350E-06,0.120
-2.340E-06,0.160
-2.330E-06,0.200
-2.320E-06,0.160
-2.310E-06,0.160
-2.300E-06,0.200
-2.290E-06,0.240
-2.280E-06,0.240
-2.270E-06,0.120
-2.260E-06,0.160
-2.250E-06,0.160
-2.240E-06,0.160
-2.230E-06,0.120
-2.220E-06,0.040
-2.210E-06,0.040
-2.200E-06,0.040
-2.190E-06,0.080
-2.180E-06,0.080
-2.170E-06,-0.040
-2.160E-06,0.040
-2.150E-06,0.080
-2.140E-06,0.080
-2.130E-06,0.120
-2.120E-06,0.200
-2.110E-06,0.240
-2.100E-06,0.200
-2.090E-06,0.160
-2.080E-06,0.240
-2.070E-06,0.280
-2.060E-06,0.320
-2.050E-06,0.360
-2.040E-06,0.360
-2.030E-06,0.320
-2.020E-06,0.200
-2.010E-06,0.240
-2.000E-06,0.200
-1.990E-06,0.240
-1.980E-06,0.320
-1.970E-06,0.360
-1.960E-06,0.320
-1.950E-06,0.320
-1.940E-06,0.240
-1.930E-06,0.240
-1.920E-06,0.240
-1.910E-06,0.240
-1.900E-06,0.320
-1.890E-06,0.360
-1.880E-06,0.240
-1.870E-06,0.280
-1.860E-06,0.240
-1.850E-06,0.280
-1.840E-06,0.240
-1.830E-06,0.240
-1.820E-06,0.240
-1.810E-06,0.240
-1.800E-06,0.240
-1.790E-06,0.200
-1.780E-06,0.200
-1.770E-06,0.160
-1.760E-06,0.160
-1.750E-06,0.160
-1.740E-06,0.120
-1.730E-06,0.160
-1.720E-06,0.160
-1.710E-06,0.160
-1.700E-06,0.160
-1.690E-06,0.120
-1.680E-06,0.200
-1.670E-06,0.160
-1.660E-06,0.200
-1.650E-06,0.160
-1.640E-06,0.120
-1.630E-06,0.160
-1.620E-06,0.120
-1.610E-06,0.160
-1.600E-06,0.160
-1.590E-06,0.160
-1.580E-06,0.240
-1.570E-06,0.200
-1.560E-06,0.240
-1.550E-06,0.200
-1.540E-06,0.280
-1.530E-06,0.360
-1.520E-06,0.280
-1.510E-06,0.280
-1.500E-06,0.160
-1.490E-06,0.160
-1.480E-06,0.240
-1.470E-06,0.160
-1.460E-06,0.320
-1.450E-06,0.400
-1.440E-06,0.360
-1.430E-06,0.320
-1.420E-06,0.200
-1.410E-06,0.200
-1.400E-06,0.320
-1.390E-06,0.400
-1.380E-06,0.480
-1.370E-06,0.480
-1.360E-06,0.440
-1.350E-06,0.480
-1.340E-06,0.440
-1.330E-06,0.600
-1.320E-06,0.600
-1.310E-06,0.680
-1.300E-06,0.440
-1.290E-06,0.480
-1.280E-06,0.440
-1.270E-06,0.320
-1.260E-06,0.360
-1.250E-06,0.360
-1.240E-06,0.400
-1.230E-06,0.400
-1.220E-06,0.440
-1.210E-06,0.560
-1.200E-06,0.520
-1.190E-06,0.480
-1.180E-06,0.400
-1.170E-06,0.400
-1.160E-06,0.400
-1.150E-06,0.480
-1.140E-06,0.600
-1.130E-06,0.520
-1.120E-06,0.560
-1.110E-06,0.480
-1.100E-06,0.320
-1.090E-06,0.320
-1.080E-06,0.360
-1.070E-06,0.400
-1.060E-06,0.480
-1.050E-06,0.440
-1.040E-06,0.400
-1.030E-06,0.320
-1.020E-06,0.240
-1.010E-06,0.280
-1.000E-06,0.200
-9.900E-07,0.200
-9.800E-07,0.200
-9.700E-07,0.160
-9.600E-07,0.080
-9.500E-07,0.080
-9.400E-07,0.080
-9.300E-07,0.080
-9.200E-07,0.120
-9.100E-07,0.160
-9.000E-07,0.080
-8.900E-07,0.000
-8.800E-07,-0.040
-8.700E-07,0.040
-8.600E-07,0.040
-8.500E-07,0.080
-8.400E-07,0.080
-8.300E-07,0.040
-8.200E-07,0.000
-8.100E-07,0.000
-8.000E-07,-0.040
-7.900E-07,0.040
-7.800E-07,0.120
-7.700E-07,0.160
-7.600E-07,0.200
-7.500E-07,0.160
-7.400E-07,0.160
-7.300E-07,0.240
-7.200E-07,0.240
-7.100E-07,0.200
-7.000E-07,0.320
-6.900E-07,0.360
-6.800E-07,0.320
-6.700E-07,0.360
-6.600E-07,0.320
-6.500E-07,0.440
-6.400E-07,0.400
-6.300E-07,0.400
-6.200E-07,0.320
-6.100E-07,0.360
-6.000E-07,0.360
-5.900E-07,0.440
-5.800E-07,0.520
-5.700E-07,0.440
-5.600E-07,0.440
-5.500E-07,0.440
-5.400E-07,0.480
-5.300E-07,0.520
-5.200E-07,0.560
-5.100E-07,0.680
-5.000E-07,0.840
-4.900E-07,0.800
-4.800E-07,0.880
-4.700E-07,0.640
-4.600E-07,0.800
-4.500E-07,0.840
-4.400E-07,0.800
-4.300E-07,0.880
-4.200E-07,0.920
-4.100E-07,0.920
-4.000E-07,1.120
-3.900E-07,1.160
-3.800E-07,1.280
-3.700E-07,1.320
-3.600E-07,1.320
-3.500E-07,1.280
-3.400E-07,1.280
-3.300E-07,1.200
-3.200E-07,1.160
-3.100E-07,1.040
-3.000E-07,1.040
-2.900E-07,1.040
-2.800E-07,1.040
-2.700E-07,1.000
-2.600E-07,1.000
-2.500E-07,1.040
-2.400E-07,1.000
-2.300E-07,0.960
-2.200E-07,1.000
-2.100E-07,1.000
-2.000E-07,0.880
-1.900E-07,0.960
-1.800E-07,0.880
-1.700E-07,1.120
-1.600E-07,0.640
-1.500E-07,0.880
-1.400E-07,0.680
-1.300E-07,0.400
-1.200E-07,0.520
-1.100E-07,0.320
-1.000E-07,-0.040
-9.000E-08,0.320
-8.000E-08,0.200
-7.000E-08,0.320
-6.000E-08,0.560
-5.000E-08,0.320
-4.000E-08,0.440
-3.000E-08,0.160
-2.000E-08,-0.200
-1.000E-08,-0.200
0.000E+00,-0.160
1.000E-08,0.160
2.000E-08,0.760
3.000E-08,1.160
4.000E-08,1.000
5.000E-08,1.080
6.000E-08,0.040
7.000E-08,-0.360
8.000E-08,-0.040
9.000E-08,-0.600
1.000E-07,0.200
1.100E-07,0.320
1.200E-07,0.120
1.300E-07,0.560
1.400E-07,0.120
1.500E-07,0.440
1.600E-07,0.760
1.700E-07,0.840
1.800E-07,1.080
1.900E-07,0.800
2.000E-07,0.760
2.100E-07,0.840
2.200E-07,0.800
2.300E-07,0.920
2.400E-07,0.960
2.500E-07,0.720
2.600E-07,0.680
2.700E-07,0.560
2.800E-07,0.520
2.900E-07,0.600
3.000E-07,0.560
3.100E-07,0.440
3.200E-07,0.320
3.300E-07,0.080
3.400E-07,0.000
3.500E-07,-0.080
3.600E-07,-0.120
3.700E-07,-0.200
3.800E-07,-0.280
3.900E-07,-0.400
4.000E-07,-0.440
4.100E-07,-0.480
4.200E-07,-0.520
4.300E-07,-0.480
4.400E-07,-0.480
4.500E-07,-0.480
4.600E-07,-0.440
4.700E-07,-0.480
4.800E-07,-0.440
4.900E-07,-0.440
5.000E-07,-0.360
5.100E-07,-0.360
5.200E-07,-0.200
5.300E-07,-0.200
5.400E-07,-0.120
5.500E-07,0.000
5.600E-07,0.080
5.700E-07,0.200
5.800E-07,0.240
5.900E-07,0.320
6.000E-07,0.320
6.100E-07,0.320
6.200E-07,0.440
6.300E-07,0.560
6.400E-07,0.520
6.500E-07,0.520
6.600E-07,0.480
6.700E-07,0.320
6.800E-07,0.320
6.900E-07,0.240
7.000E-07,0.440
7.100E-07,0.560
7.200E-07,0.720
7.300E-07,0.840
7.400E-07,0.760
7.500E-07,0.680
7.600E-07,0.560
7.700E-07,0.600
7.800E-07,0.440
7.900E-07,0.360
8.000E-07,0.080
8.100E-07,0.040
8.200E-07,0.000
8.300E-07,0.160
8.400E-07,0.280
8.500E-07,0.440
8.600E-07,0.280
8.700E-07,0.160
8.800E-07,-0.080
8.900E-07,0.080
9.000E-07,-0.160
9.100E-07,-0.120
9.200E-07,-0.400
9.300E-07,-0.480
9.400E-07,-0.600
9.500E-07,-0.600
9.600E-07,-0.600
9.700E-07,-0.680
9.800E-07,-0.640
9.900E-07,-0.680
1.000E-06,-0.640
1.010E-06,-0.480
1.020E-06,-0.280
1.030E-06,-0.200
1.040E-06,-0.160
1.050E-06,-0.200
1.060E-06,-0.240
1.070E-06,0.040
1.080E-06,0.320
1.090E-06,0.760
1.100E-06,0.920
1.110E-06,0.960
1.120E-06,1.040
1.130E-06,0.880
1.140E-06,0.760
1.150E-06,0.720
1.160E-06,0.680
1.170E-06,0.680
1.180E-06,0.720
1.190E-06,0.680
1.200E-06,0.600
1.210E-06,0.440
1.220E-06,0.320
1.230E-06,0.280
1.240E-06,0.240
1.250E-06,0.320
1.260E-06,0.320
1.270E-06,0.280
1.280E-06,0.240
1.290E-06,0.160
1.300E-06,0.120
1.310E-06,0.160
1.320E-06,0.160
1.330E-06,0.080
1.340E-06,0.080
1.350E-06,0.080
1.360E-06,0.000
1.370E-06,-0.040
1.380E-06,0.000
1.390E-06,-0.080
1.400E-06,-0.200
1.410E-06,-0.320
1.420E-06,-0.360
1.430E-06,-0.440
1.440E-06,-0.320
1.450E-06,-0.320
1.460E-06,-0.280
1.470E-06,-0.240
1.480E-06,-0.280
1.490E-06,-0.200
1.500E-06,-0.160
1.510E-06,0.040
1.520E-06,0.160
1.530E-06,0.120
1.540E-06,0.280
1.550E-06,0.280
1.560E-06,0.400
1.570E-06,0.480
1.580E-06,0.520
1.590E-06,0.560
1.600E-06,0.480
1.610E-06,0.400
1.620E-06,0.240
1.630E-06,0.240
1.640E-06,0.000
1.650E-06,0.000
1.660E-06,-0.120
1.670E-06,-0.200
1.680E-06,-0.160
1.690E-06,-0.240
1.700E-06,-0.240
1.710E-06,-0.280
1.720E-06,-0.400
1.730E-06,-0.520
1.740E-06,-0.560
1.750E-06,-0.600
1.760E-06,-0.480
1.770E-06,-0.480
1.780E-06,-0.360
1.790E-06,-0.280
1.800E-06,-0.320
1.810E-06,-0.280
1.820E-06,-0.360
1.830E-06,-0.360
1.840E-06,-0.480
1.850E-06,-0.440
1.860E-06,-0.600
1.870E-06,-0.200
1.880E-06,-1.480
1.890E-06,-0.880
1.900E-06,-4.000
1.910E-06,-2.000
1.920E-06,-3.360
1.930E-06,-1.840
1.940E-06,0.200
1.950E-06,0.160
1.960E-06,1.000
1.970E-06,-0.040
1.980E-06,-1.120
1.990E-06,-1.160
2.000E-06,-1.320
2.010E-06,-0.360
2.020E-06,0.440
2.030E-06,0.880
2.040E-06,0.800
2.050E-06,0.160
2.060E-06,-0.320
2.070E-06,-0.120
2.080E-06,0.200
2.090E-06,0.720
2.100E-06,1.120
2.110E-06,1.080
2.120E-06,0.800
2.130E-06,0.640
2.140E-06,0.000
2.150E-06,0.040
2.160E-06,-0.280
2.170E-06,-0.360
2.180E-06,-0.360
2.190E-06,-0.600
2.200E-06,-0.360
2.210E-06,-0.600
2.220E-06,-0.640
2.230E-06,-0.480
2.240E-06,-0.520
2.250E-06,-0.400
2.260E-06,-0.400
2.270E-06,-0.400
2.280E-06,-0.360
2.290E-06,-0.360
2.300E-06,-0.160
2.310E-06,-0.320
2.320E-06,-0.320
2.330E-06,-0.200
2.340E-06,-0.280
2.350E-06,-0.200
2.360E-06,-0.080
2.370E-06,-0.160
2.380E-06,-0.080
2.390E-06,0.080
2.400E-06,0.120
2.410E-06,-0.040
2.420E-06,-0.040
2.430E-06,-0.120
2.440E-06,-0.040
2.450E-06,0.000
2.460E-06,0.120
2.470E-06,0.120
2.480E-06,0.040
2.490E-06,0.080
2.500E-06,0.000
2.510E-06,-0.080
2.520E-06,-0.120
2.530E-06,-0.120
2.540E-06,-0.160
2.550E-06,-0.320
2.560E-06,-0.400
2.570E-06,-0.520
2.580E-06,-0.720
2.590E-06,-0.840
2.600E-06,-0.960
2.610E-06,-1.040
2.620E-06,-1.240
2.630E-06,-1.320
2.640E-06,-1.440
2.650E-06,-1.680
2.660E-06,-1.680
2.670E-06,-1.960
2.680E-06,-1.880
2.690E-06,-2.000
2.700E-06,-1.960
2.710E-06,-2.040
2.720E-06,-2.040
2.730E-06,-2.000
2.740E-06,-1.960
2.750E-06,-1.800
2.760E-06,-1.760
2.770E-06,-1.720
2.780E-06,-1.720
2.790E-06,-1.720
2.800E-06,-1.760
2.810E-06,-1.800
2.820E-06,-1.840
2.830E-06,-1.920
2.840E-06,-1.960
2.850E-06,-1.960
2.860E-06,-1.880
2.870E-06,-1.760
2.880E-06,-1.720
2.890E-06,-1.720
2.900E-06,-1.720
2.910E-06,-1.760
2.920E-06,-1.840
2.930E-06,-1.840
2.940E-06,-1.840
2.950E-06,-1.840
2.960E-06,-1.840
2.970E-06,-1.800
2.980E-06,-1.800
2.990E-06,-1.800
3.000E-06,-1.840
3.010E-06,-1.920
3.020E-06,-1.840
3.030E-06,-1.800
3.040E-06,-1.640
3.050E-06,-1.680
3.060E-06,-1.760
3.070E-06,-1.840
3.080E-06,-1.920
3.090E-06,-2.040
3.100E-06,-2.040
3.110E-06,-2.000
3.120E-06,-2.160
3.130E-06,-2.280
3.140E-06,-2.440
3.150E-06,-2.560
3.160E-06,-2.720
3.170E-06,-2.800
3.180E-06,-2.960
3.190E-06,-3.040
3.200E-06,-3.120
3.210E-06,-3.320
3.220E-06,-3.520
3.230E-06,-3.760
3.240E-06,-4.120
3.250E-06,-4.520
3.260E-06,-5.000
3.270E-06,-5.200
3.280E-06,-5.200
3.290E-06,-5.200
3.300E-06,-5.200
3.310E-06,-5.200
3.320E-06,-5.240
3.330E-06,-5.240
3.340E-06,-5.240
3.350E-06,-5.240
3.360E-06,-5.200
3.370E-06,-5.240
3.380E-06,-5.240
3.390E-06,-5.200
3.400E-06,-5.200
3.410E-06,-5.240
3.420E-06,-5.240
3.430E-06,-5.240
3.440E-06,-5.240
3.450E-06,-5.240
3.460E-06,-5.240
3.470E-06,-5.200
3.480E-06,-5.200
3.490E-06,-5.240
3.500E-06,-5.240
3.510E-06,-5.240
3.520E-06,-5.200
3.530E-06,-5.240
3.540E-06,-5.240
3.550E-06,-5.200
3.560E-06,-5.240
3.570E-06,-5.240
3.580E-06,-5.240
3.590E-06,-5.200
3.600E-06,-5.240
3.610E-06,-5.240
3.620E-06,-5.240
3.630E-06,-5.240
3.640E-06,-5.240
3.650E-06,-5.240
3.660E-06,-5.240
3.670E-06,-5.240
3.680E-06,-5.240
3.690E-06,-5.240
3.700E-06,-5.160
3.710E-06,-5.160
3.720E-06,-5.120
3.730E-06,-5.120
3.740E-06,-5.080
3.750E-06,-4.960
3.760E-06,-4.920
3.770E-06,-4.880
3.780E-06,-4.840
3.790E-06,-4.760
3.800E-06,-4.720
3.810E-06,-4.720
3.820E-06,-4.560
3.830E-06,-4.440
3.840E-06,-4.320
3.850E-06,-4.160
3.860E-06,-4.040
3.870E-06,-3.960
3.880E-06,-3.760
3.890E-06,-3.640
3.900E-06,-3.560
3.910E-06,-3.440
3.920E-06,-3.360
3.930E-06,-3.240
3.940E-06,-3.080
3.950E-06,-3.000
3.960E-06,-2.960
3.970E-06,-2.880
3.980E-06,-2.880
3.990E-06,-2.840
4.000E-06,-2.880
4.010E-06,-2.960
4.020E-06,-3.040
4.030E-06,-3.080
4.040E-06,-3.200
4.050E-06,-3.280
4.060E-06,-3.400
4.070E-06,-3.480
4.080E-06,-3.560
4.090E-06,-3.600
4.100E-06,-3.640
4.110E-06,-3.560
4.120E-06,-3.600
4.130E-06,-3.520
4.140E-06,-3.520
4.150E-06,-3.560
4.160E-06,-3.520
4.170E-06,-3.360
4.180E-06,-3.280
4.190E-06,-3.120
4.200E-06,-3.000
4.210E-06,-2.880
4.220E-06,-2.760
4.230E-06,-2.640
4.240E-06,-2.440
4.250E-06,-2.320
4.260E-06,-2.280
4.270E-06,-2.160
4.280E-06,-2.160
4.290E-06,-2.040
4.300E-06,-2.000
4.310E-06,-1.880
4.320E-06,-1.840
4.330E-06,-1.800
4.340E-06,-1.720
4.350E-06,-1.760
4.360E-06,-1.760
4.370E-06,-1.720
4.380E-06,-1.760
4.390E-06,-1.800
4.400E-06,-1.840
4.410E-06,-1.880
4.420E-06,-1.960
4.430E-06,-2.000
4.440E-06,-2.120
4.450E-06,-2.160
4.460E-06,-2.200
4.470E-06,-2.240
4.480E-06,-2.280
4.490E-06,-2.280
4.500E-06,-2.200
4.510E-06,-2.200
4.520E-06,-2.160
4.530E-06,-2.200
4.540E-06,-2.200
4.550E-06,-2.120
4.560E-06,-2.120
4.570E-06,-2.160
4.580E-06,-2.160
4.590E-06,-2.200
4.600E-06,-2.240
4.610E-06,-2.200
4.620E-06,-2.200
4.630E-06,-2.200
4.640E-06,-2.080
4.650E-06,-2.080
4.660E-06,-2.040
4.670E-06,-1.880
4.680E-06,-1.880
4.690E-06,-1.760
4.700E-06,-1.760
4.710E-06,-1.640
4.720E-06,-1.600
4.730E-06,-1.520
4.740E-06,-1.480
4.750E-06,-1.320
4.760E-06,-1.280
4.770E-06,-1.200
4.780E-06,-1.040
4.790E-06,-1.000
4.800E-06,-0.880
4.810E-06,-0.840
4.820E-06,-0.880
4.830E-06,-0.800
4.840E-06,-0.840
4.850E-06,-0.840
4.860E-06,-0.880
4.870E-06,-0.960
4.880E-06,-1.000
4.890E-06,-0.960
4.900E-06,-0.960
4.910E-06,-1.000
4.920E-06,-1.040
4.930E-06,-1.160
4.940E-06,-1.200
4.950E-06,-1.320
4.960E-06,-1.400
4.970E-06,-1.480
4.980E-06,-1.520
4.990E-06,-1.680
5.000E-06,-1.720
5.010E-06,-1.760
5.020E-06,-1.840
5.030E-06,-1.960
5.040E-06,-1.920
5.050E-06,-1.960
5.060E-06,-2.000
5.070E-06,-1.920
5.080E-06,-1.920
5.090E-06,-1.880
5.100E-06,-1.840
5.110E-06,-1.760
5.120E-06,-1.720
5.130E-06,-1.680
5.140E-06,-1.600
5.150E-06,-1.520
5.160E-06,-1.480
5.170E-06,-1.360
5.180E-06,-1.320
5.190E-06,-1.200
5.200E-06,-1.160
5.210E-06,-1.000
5.220E-06,-0.960
5.230E-06,-0.840
5.240E-06,-0.800
5.250E-06,-0.840
5.260E-06,-0.800
5.270E-06,-0.720
5.280E-06,-0.760
5.290E-06,-0.760
5.300E-06,-0.760
5.310E-06,-0.760
5.320E-06,-0.800
5.330E-06,-0.840
5.340E-06,-0.880
5.350E-06,-0.880
5.360E-06,-0.920
5.370E-06,-0.960
5.380E-06,-1.040
5.390E-06,-1.000
5.400E-06,-1.000
5.410E-06,-1.040
5.420E-06,-1.080
5.430E-06,-1.040
5.440E-06,-1.080
5.450E-06,-1.120
5.460E-06,-1.080
5.470E-06,-1.080
5.480E-06,-1.120
5.490E-06,-1.200
5.500E-06,-1.160
5.510E-06,-1.160
5.520E-06,-1.160
5.530E-06,-1.160
5.540E-06,-1.160
5.550E-06,-1.160
5.560E-06,-1.120
5.570E-06,-1.160
5.580E-06,-1.160
5.590E-06,-1.040
5.600E-06,-1.080
5.610E-06,-1.040
5.620E-06,-1.040
5.630E-06,-0.920
5.640E-06,-0.880
5.650E-06,-0.840
5.660E-06,-0.800
5.670E-06,-0.720
5.680E-06,-0.680
5.690E-06,-0.640
5.700E-06,-0.560
5.710E-06,-0.480
5.720E-06,-0.360
5.730E-06,-0.280
5.740E-06,-0.200
5.750E-06,-0.200
5.760E-06,-0.080
5.770E-06,-0.120
5.780E-06,-0.120
5.790E-06,-0.080
5.800E-06,-0.080
5.810E-06,-0.120
5.820E-06,-0.080
5.830E-06,-0.040
5.840E-06,-0.080
5.850E-06,-0.080
5.860E-06,-0.120
5.870E-06,0.000
5.880E-06,0.080
5.890E-06,0.280
5.900E-06,0.440
5.910E-06,0.520
5.920E-06,0.600
5.930E-06,0.520
5.940E-06,0.400
5.950E-06,0.160
5.960E-06,-0.120
5.970E-06,-0.320
5.980E-06,-0.400
5.990E-06,-0.440
6.000E-06,-0.520
6.010E-06,-0.440
6.020E-06,-0.400
6.030E-06,-0.440
6.040E-06,-0.440
6.050E-06,-0.400
6.060E-06,-0.320
6.070E-06,-0.200
6.080E-06,-0.080
6.090E-06,-0.040
6.100E-06,0.000
6.110E-06,0.000
6.120E-06,-0.080
6.130E-06,-0.120
6.140E-06,-0.080
