mediciones/5-27/-37.5/WaveData5120.csv

#timebase=2000000(ps)
,#voltbase=100000(mv/100)
#size=4000
-5.650E-06,-0.012
-5.640E-06,-0.020
-5.630E-06,-0.020
-5.620E-06,-0.068
-5.610E-06,-0.020
-5.600E-06,-0.024
-5.590E-06,0.004
-5.580E-06,0.044
-5.570E-06,0.036
-5.560E-06,0.044
-5.550E-06,-0.008
-5.540E-06,-0.052
-5.530E-06,-0.056
-5.520E-06,-0.020
-5.510E-06,0.032
-5.500E-06,0.048
-5.490E-06,0.024
-5.480E-06,-0.012
-5.470E-06,-0.024
-5.460E-06,-0.020
-5.450E-06,0.000
-5.440E-06,0.012
-5.430E-06,0.004
-5.420E-06,0.000
-5.410E-06,-0.008
-5.400E-06,0.000
-5.390E-06,0.000
-5.380E-06,0.016
-5.370E-06,0.020
-5.360E-06,0.004
-5.350E-06,-0.004
-5.340E-06,-0.012
-5.330E-06,-0.008
-5.320E-06,0.004
-5.310E-06,0.016
-5.300E-06,0.016
-5.290E-06,0.016
-5.280E-06,0.000
-5.270E-06,-0.004
-5.260E-06,-0.004
-5.250E-06,0.000
-5.240E-06,0.004
-5.230E-06,0.008
-5.220E-06,0.008
-5.210E-06,0.012
-5.200E-06,0.012
-5.190E-06,0.012
-5.180E-06,0.012
-5.170E-06,0.008
-5.160E-06,0.008
-5.150E-06,-0.004
-5.140E-06,-0.004
-5.130E-06,-0.004
-5.120E-06,0.008
-5.110E-06,0.008
-5.100E-06,0.004
-5.090E-06,-0.004
-5.080E-06,-0.004
-5.070E-06,0.000
-5.060E-06,-0.004
-5.050E-06,0.004
-5.040E-06,0.008
-5.030E-06,0.008
-5.020E-06,0.000
-5.010E-06,0.004
-5.000E-06,0.000
-4.990E-06,-0.004
-4.980E-06,0.000
-4.970E-06,0.004
-4.960E-06,0.008
-4.950E-06,0.004
-4.940E-06,0.004
-4.930E-06,-0.004
-4.920E-06,-0.004
-4.910E-06,0.000
-4.900E-06,0.000
-4.890E-06,0.004
-4.880E-06,0.004
-4.870E-06,0.008
-4.860E-06,0.004
-4.850E-06,0.004
-4.840E-06,0.008
-4.830E-06,0.004
-4.820E-06,0.004
-4.810E-06,0.000
-4.800E-06,0.000
-4.790E-06,0.004
-4.780E-06,0.000
-4.770E-06,0.008
-4.760E-06,0.008
-4.750E-06,0.004
-4.740E-06,0.000
-4.730E-06,0.004
-4.720E-06,0.004
-4.710E-06,0.004
-4.700E-06,0.008
-4.690E-06,0.004
-4.680E-06,0.008
-4.670E-06,0.000
-4.660E-06,0.000
-4.650E-06,0.000
-4.640E-06,0.000
-4.630E-06,0.000
-4.620E-06,-0.004
-4.610E-06,0.004
-4.600E-06,0.008
-4.590E-06,0.008
-4.580E-06,0.004
-4.570E-06,0.008
-4.560E-06,0.000
-4.550E-06,0.000
-4.540E-06,0.000
-4.530E-06,0.004
-4.520E-06,0.012
-4.510E-06,0.012
-4.500E-06,0.012
-4.490E-06,0.004
-4.480E-06,0.004
-4.470E-06,0.008
-4.460E-06,0.012
-4.450E-06,0.008
-4.440E-06,0.016
-4.430E-06,0.020
-4.420E-06,0.024
-4.410E-06,0.020
-4.400E-06,0.020
-4.390E-06,0.028
-4.380E-06,0.024
-4.370E-06,0.024
-4.360E-06,0.036
-4.350E-06,0.040
-4.340E-06,0.052
-4.330E-06,0.060
-4.320E-06,0.044
-4.310E-06,0.000
-4.300E-06,-0.044
-4.290E-06,-0.076
-4.280E-06,-0.052
-4.270E-06,0.000
-4.260E-06,0.064
-4.250E-06,0.084
-4.240E-06,0.064
-4.230E-06,-0.004
-4.220E-06,-0.040
-4.210E-06,-0.036
-4.200E-06,0.008
-4.190E-06,0.056
-4.180E-06,0.064
-4.170E-06,0.036
-4.160E-06,-0.008
-4.150E-06,-0.032
-4.140E-06,-0.016
-4.130E-06,0.016
-4.120E-06,0.048
-4.110E-06,0.056
-4.100E-06,0.024
-4.090E-06,-0.012
-4.080E-06,-0.028
-4.070E-06,-0.012
-4.060E-06,0.028
-4.050E-06,0.072
-4.040E-06,0.096
-4.030E-06,0.080
-4.020E-06,0.048
-4.010E-06,0.000
-4.000E-06,-0.048
-3.990E-06,-0.096
-3.980E-06,-0.104
-3.970E-06,-0.080
-3.960E-06,-0.028
-3.950E-06,0.016
-3.940E-06,0.024
-3.930E-06,0.024
-3.920E-06,0.008
-3.910E-06,0.000
-3.900E-06,-0.008
-3.890E-06,0.008
-3.880E-06,0.032
-3.870E-06,0.056
-3.860E-06,0.048
-3.850E-06,0.040
-3.840E-06,0.008
-3.830E-06,-0.008
-3.820E-06,-0.016
-3.810E-06,-0.012
-3.800E-06,-0.036
-3.790E-06,-0.004
-3.780E-06,-0.012
-3.770E-06,-0.004
-3.760E-06,-0.004
-3.750E-06,0.008
-3.740E-06,-0.012
-3.730E-06,-0.024
-3.720E-06,-0.020
-3.710E-06,-0.016
-3.700E-06,-0.024
-3.690E-06,0.004
-3.680E-06,-0.004
-3.670E-06,0.000
-3.660E-06,-0.012
-3.650E-06,-0.028
-3.640E-06,-0.020
-3.630E-06,-0.016
-3.620E-06,0.008
-3.610E-06,0.008
-3.600E-06,0.012
-3.590E-06,0.000
-3.580E-06,-0.004
-3.570E-06,-0.012
-3.560E-06,-0.012
-3.550E-06,0.000
-3.540E-06,0.012
-3.530E-06,0.024
-3.520E-06,0.012
-3.510E-06,0.004
-3.500E-06,-0.004
-3.490E-06,-0.004
-3.480E-06,0.004
-3.470E-06,0.008
-3.460E-06,0.012
-3.450E-06,0.008
-3.440E-06,0.004
-3.430E-06,0.000
-3.420E-06,0.012
-3.410E-06,0.024
-3.400E-06,0.032
-3.390E-06,0.044
-3.380E-06,0.036
-3.370E-06,0.012
-3.360E-06,-0.004
-3.350E-06,-0.016
-3.340E-06,-0.016
-3.330E-06,0.004
-3.320E-06,0.024
-3.310E-06,0.040
-3.300E-06,0.036
-3.290E-06,0.016
-3.280E-06,-0.008
-3.270E-06,-0.024
-3.260E-06,-0.008
-3.250E-06,0.012
-3.240E-06,0.024
-3.230E-06,0.024
-3.220E-06,0.012
-3.210E-06,0.000
-3.200E-06,-0.008
-3.190E-06,0.000
-3.180E-06,0.012
-3.170E-06,0.016
-3.160E-06,0.028
-3.150E-06,0.024
-3.140E-06,0.028
-3.130E-06,0.028
-3.120E-06,0.024
-3.110E-06,0.028
-3.100E-06,0.040
-3.090E-06,0.056
-3.080E-06,0.072
-3.070E-06,0.080
-3.060E-06,0.092
-3.050E-06,0.092
-3.040E-06,0.092
-3.030E-06,0.080
-3.020E-06,0.060
-3.010E-06,0.040
-3.000E-06,-0.008
-2.990E-06,-0.040
-2.980E-06,-0.056
-2.970E-06,-0.028
-2.960E-06,0.020
-2.950E-06,0.072
-2.940E-06,0.096
-2.930E-06,0.060
-2.920E-06,-0.016
-2.910E-06,-0.068
-2.900E-06,-0.076
-2.890E-06,-0.024
-2.880E-06,0.064
-2.870E-06,0.084
-2.860E-06,0.056
-2.850E-06,0.000
-2.840E-06,-0.064
-2.830E-06,-0.096
-2.820E-06,-0.080
-2.810E-06,-0.068
-2.800E-06,-0.024
-2.790E-06,0.004
-2.780E-06,0.012
-2.770E-06,-0.004
-2.760E-06,-0.008
-2.750E-06,-0.020
-2.740E-06,-0.028
-2.730E-06,0.012
-2.720E-06,0.036
-2.710E-06,0.056
-2.700E-06,0.056
-2.690E-06,0.032
-2.680E-06,0.024
-2.670E-06,0.020
-2.660E-06,0.060
-2.650E-06,0.072
-2.640E-06,0.104
-2.630E-06,0.104
-2.620E-06,0.092
-2.610E-06,0.048
-2.600E-06,-0.008
-2.590E-06,-0.068
-2.580E-06,-0.120
-2.570E-06,-0.120
-2.560E-06,-0.096
-2.550E-06,-0.052
-2.540E-06,-0.008
-2.530E-06,0.004
-2.520E-06,0.000
-2.510E-06,-0.024
-2.500E-06,-0.040
-2.490E-06,-0.020
-2.480E-06,-0.012
-2.470E-06,0.024
-2.460E-06,0.052
-2.450E-06,0.036
-2.440E-06,0.020
-2.430E-06,-0.012
-2.420E-06,-0.024
-2.410E-06,-0.012
-2.400E-06,-0.004
-2.390E-06,0.012
-2.380E-06,0.008
-2.370E-06,0.028
-2.360E-06,0.024
-2.350E-06,0.016
-2.340E-06,0.012
-2.330E-06,-0.004
-2.320E-06,0.004
-2.310E-06,0.040
-2.300E-06,0.084
-2.290E-06,0.124
-2.280E-06,0.136
-2.270E-06,0.124
-2.260E-06,0.084
-2.250E-06,0.044
-2.240E-06,0.020
-2.230E-06,0.024
-2.220E-06,0.000
-2.210E-06,0.000
-2.200E-06,-0.012
-2.190E-06,-0.032
-2.180E-06,-0.048
-2.170E-06,-0.044
-2.160E-06,-0.040
-2.150E-06,-0.044
-2.140E-06,-0.028
-2.130E-06,-0.036
-2.120E-06,-0.064
-2.110E-06,-0.104
-2.100E-06,-0.088
-2.090E-06,-0.080
-2.080E-06,-0.048
-2.070E-06,-0.016
-2.060E-06,-0.016
-2.050E-06,-0.008
-2.040E-06,-0.008
-2.030E-06,-0.024
-2.020E-06,-0.008
-2.010E-06,0.000
-2.000E-06,0.028
-1.990E-06,0.024
-1.980E-06,0.036
-1.970E-06,0.044
-1.960E-06,0.060
-1.950E-06,0.072
-1.940E-06,0.088
-1.930E-06,0.092
-1.920E-06,0.088
-1.910E-06,0.064
-1.900E-06,0.052
-1.890E-06,0.044
-1.880E-06,0.044
-1.870E-06,0.060
-1.860E-06,0.072
-1.850E-06,0.076
-1.840E-06,0.036
-1.830E-06,-0.012
-1.820E-06,-0.080
-1.810E-06,-0.132
-1.800E-06,-0.156
-1.790E-06,-0.140
-1.780E-06,-0.100
-1.770E-06,-0.088
-1.760E-06,-0.056
-1.750E-06,-0.060
-1.740E-06,-0.072
-1.730E-06,-0.052
-1.720E-06,-0.032
-1.710E-06,-0.008
-1.700E-06,-0.004
-1.690E-06,0.000
-1.680E-06,-0.016
-1.670E-06,-0.008
-1.660E-06,-0.004
-1.650E-06,-0.004
-1.640E-06,0.008
-1.630E-06,0.004
-1.620E-06,0.004
-1.610E-06,0.008
-1.600E-06,0.012
-1.590E-06,0.012
-1.580E-06,0.008
-1.570E-06,0.016
-1.560E-06,0.044
-1.550E-06,0.044
-1.540E-06,0.068
-1.530E-06,0.052
-1.520E-06,0.032
-1.510E-06,0.000
-1.500E-06,-0.008
-1.490E-06,0.000
-1.480E-06,0.004
-1.470E-06,0.016
-1.460E-06,0.028
-1.450E-06,0.040
-1.440E-06,0.044
-1.430E-06,0.048
-1.420E-06,0.040
-1.410E-06,0.036
-1.400E-06,0.052
-1.390E-06,0.076
-1.380E-06,0.096
-1.370E-06,0.120
-1.360E-06,0.124
-1.350E-06,0.116
-1.340E-06,0.084
-1.330E-06,0.056
-1.320E-06,0.032
-1.310E-06,0.040
-1.300E-06,0.052
-1.290E-06,0.064
-1.280E-06,0.060
-1.270E-06,0.044
-1.260E-06,0.028
-1.250E-06,0.012
-1.240E-06,0.020
-1.230E-06,0.040
-1.220E-06,0.060
-1.210E-06,0.076
-1.200E-06,0.068
-1.190E-06,0.052
-1.180E-06,0.056
-1.170E-06,0.068
-1.160E-06,0.100
-1.150E-06,0.128
-1.140E-06,0.144
-1.130E-06,0.148
-1.120E-06,0.128
-1.110E-06,0.100
-1.100E-06,0.088
-1.090E-06,0.084
-1.080E-06,0.092
-1.070E-06,0.076
-1.060E-06,0.048
-1.050E-06,-0.008
-1.040E-06,-0.072
-1.030E-06,-0.108
-1.020E-06,-0.088
-1.010E-06,-0.104
-1.000E-06,-0.100
-9.900E-07,-0.076
-9.800E-07,-0.068
-9.700E-07,-0.136
-9.600E-07,-0.104
-9.500E-07,-0.372
-9.400E-07,-0.496
-9.300E-07,-0.448
-9.200E-07,-0.300
-9.100E-07,-0.072
-9.000E-07,0.044
-8.900E-07,0.096
-8.800E-07,0.020
-8.700E-07,-0.008
-8.600E-07,-0.060
-8.500E-07,-0.024
-8.400E-07,0.072
-8.300E-07,0.068
-8.200E-07,0.020
-8.100E-07,-0.008
-8.000E-07,0.016
-7.900E-07,0.024
-7.800E-07,0.060
-7.700E-07,0.044
-7.600E-07,0.024
-7.500E-07,0.000
-7.400E-07,-0.068
-7.300E-07,-0.044
-7.200E-07,-0.048
-7.100E-07,-0.020
-7.000E-07,-0.024
-6.900E-07,-0.004
-6.800E-07,0.008
-6.700E-07,0.024
-6.600E-07,-0.016
-6.500E-07,-0.036
-6.400E-07,-0.040
-6.300E-07,-0.004
-6.200E-07,0.032
-6.100E-07,0.040
-6.000E-07,0.028
-5.900E-07,0.008
-5.800E-07,0.000
-5.700E-07,-0.008
-5.600E-07,0.008
-5.500E-07,0.024
-5.400E-07,0.032
-5.300E-07,0.044
-5.200E-07,0.040
-5.100E-07,0.036
-5.000E-07,0.020
-4.900E-07,0.012
-4.800E-07,0.012
-4.700E-07,0.024
-4.600E-07,0.040
-4.500E-07,0.068
-4.400E-07,0.068
-4.300E-07,0.080
-4.200E-07,0.064
-4.100E-07,0.064
-4.000E-07,0.068
-3.900E-07,0.084
-3.800E-07,0.096
-3.700E-07,0.128
-3.600E-07,0.144
-3.500E-07,0.136
-3.400E-07,0.136
-3.300E-07,0.128
-3.200E-07,0.128
-3.100E-07,0.128
-3.000E-07,0.132
-2.900E-07,0.132
-2.800E-07,0.132
-2.700E-07,0.132
-2.600E-07,0.124
-2.500E-07,0.112
-2.400E-07,0.092
-2.300E-07,0.076
-2.200E-07,0.064
-2.100E-07,0.080
-2.000E-07,0.100
-1.900E-07,0.124
-1.800E-07,0.144
-1.700E-07,0.148
-1.600E-07,0.136
-1.500E-07,0.116
-1.400E-07,0.100
-1.300E-07,0.112
-1.200E-07,0.116
-1.100E-07,0.128
-1.000E-07,0.096
-9.000E-08,0.036
-8.000E-08,-0.036
-7.000E-08,-0.124
-6.000E-08,-0.184
-5.000E-08,-0.196
-4.000E-08,-0.140
-3.000E-08,-0.012
-2.000E-08,0.124
-1.000E-08,0.224
0.000E+00,0.236
1.000E-08,0.100
2.000E-08,-0.060
3.000E-08,-0.216
4.000E-08,-0.292
5.000E-08,-0.236
6.000E-08,-0.072
7.000E-08,0.076
8.000E-08,0.180
9.000E-08,0.164
1.000E-07,0.008
1.100E-07,-0.212
1.200E-07,-0.364
1.300E-07,-0.500
1.400E-07,-0.436
1.500E-07,-0.360
1.600E-07,-0.096
1.700E-07,-0.024
1.800E-07,0.000
1.900E-07,-0.100
2.000E-07,-0.248
2.100E-07,-0.272
2.200E-07,-0.200
2.300E-07,-0.028
2.400E-07,0.124
2.500E-07,0.192
2.600E-07,0.108
2.700E-07,0.000
2.800E-07,-0.080
2.900E-07,-0.096
3.000E-07,-0.036
3.100E-07,0.040
3.200E-07,0.116
3.300E-07,0.132
3.400E-07,0.120
3.500E-07,0.076
3.600E-07,0.024
3.700E-07,0.016
3.800E-07,0.036
3.900E-07,0.104
4.000E-07,0.176
4.100E-07,0.196
4.200E-07,0.172
4.300E-07,0.144
4.400E-07,0.112
4.500E-07,0.108
4.600E-07,0.144
4.700E-07,0.184
4.800E-07,0.224
4.900E-07,0.224
5.000E-07,0.192
5.100E-07,0.160
5.200E-07,0.140
5.300E-07,0.136
5.400E-07,0.152
5.500E-07,0.172
5.600E-07,0.192
5.700E-07,0.196
5.800E-07,0.188
5.900E-07,0.172
6.000E-07,0.152
6.100E-07,0.144
6.200E-07,0.156
6.300E-07,0.160
6.400E-07,0.172
6.500E-07,0.176
6.600E-07,0.160
6.700E-07,0.156
6.800E-07,0.144
6.900E-07,0.144
7.000E-07,0.136
7.100E-07,0.148
7.200E-07,0.148
7.300E-07,0.132
7.400E-07,0.104
7.500E-07,0.056
7.600E-07,0.008
7.700E-07,-0.028
7.800E-07,-0.036
7.900E-07,-0.052
8.000E-07,-0.056
8.100E-07,-0.104
8.200E-07,-0.124
8.300E-07,-0.176
8.400E-07,-0.144
8.500E-07,-0.120
8.600E-07,-0.044
8.700E-07,0.036
8.800E-07,0.024
8.900E-07,0.008
9.000E-07,-0.072
9.100E-07,-0.124
9.200E-07,-0.120
9.300E-07,-0.092
9.400E-07,-0.012
9.500E-07,0.076
9.600E-07,0.108
9.700E-07,0.100
9.800E-07,0.024
9.900E-07,-0.016
1.000E-06,-0.044
1.010E-06,-0.004
1.020E-06,0.056
1.030E-06,0.124
1.040E-06,0.144
1.050E-06,0.132
1.060E-06,0.124
1.070E-06,0.104
1.080E-06,0.120
1.090E-06,0.124
1.100E-06,0.144
1.110E-06,0.152
1.120E-06,0.176
1.130E-06,0.188
1.140E-06,0.172
1.150E-06,0.156
1.160E-06,0.156
1.170E-06,0.156
1.180E-06,0.176
1.190E-06,0.192
1.200E-06,0.180
1.210E-06,0.176
1.220E-06,0.164
1.230E-06,0.160
1.240E-06,0.160
1.250E-06,0.164
1.260E-06,0.160
1.270E-06,0.164
1.280E-06,0.168
1.290E-06,0.164
1.300E-06,0.164
1.310E-06,0.152
1.320E-06,0.156
1.330E-06,0.152
1.340E-06,0.152
1.350E-06,0.160
1.360E-06,0.160
1.370E-06,0.164
1.380E-06,0.156
1.390E-06,0.160
1.400E-06,0.160
1.410E-06,0.156
1.420E-06,0.156
1.430E-06,0.164
1.440E-06,0.164
1.450E-06,0.156
1.460E-06,0.156
1.470E-06,0.156
1.480E-06,0.160
1.490E-06,0.156
1.500E-06,0.156
1.510E-06,0.152
1.520E-06,0.152
1.530E-06,0.156
1.540E-06,0.156
1.550E-06,0.160
1.560E-06,0.152
1.570E-06,0.144
1.580E-06,0.148
1.590E-06,0.144
1.600E-06,0.148
1.610E-06,0.144
1.620E-06,0.148
1.630E-06,0.136
1.640E-06,0.132
1.650E-06,0.120
1.660E-06,0.124
1.670E-06,0.132
1.680E-06,0.140
1.690E-06,0.156
1.700E-06,0.156
1.710E-06,0.156
1.720E-06,0.144
1.730E-06,0.140
1.740E-06,0.144
1.750E-06,0.156
1.760E-06,0.160
1.770E-06,0.156
1.780E-06,0.156
1.790E-06,0.156
1.800E-06,0.152
1.810E-06,0.152
1.820E-06,0.156
1.830E-06,0.160
1.840E-06,0.152
1.850E-06,0.156
1.860E-06,0.148
1.870E-06,0.152
1.880E-06,0.152
1.890E-06,0.148
1.900E-06,0.152
1.910E-06,0.148
1.920E-06,0.152
1.930E-06,0.152
1.940E-06,0.160
1.950E-06,0.152
1.960E-06,0.152
1.970E-06,0.152
1.980E-06,0.152
1.990E-06,0.152
2.000E-06,0.152
2.010E-06,0.152
2.020E-06,0.148
2.030E-06,0.148
2.040E-06,0.148
2.050E-06,0.144
2.060E-06,0.144
2.070E-06,0.144
2.080E-06,0.144
2.090E-06,0.144
2.100E-06,0.148
2.110E-06,0.148
2.120E-06,0.156
2.130E-06,0.160
2.140E-06,0.160
2.150E-06,0.160
2.160E-06,0.152
2.170E-06,0.144
2.180E-06,0.140
2.190E-06,0.144
2.200E-06,0.144
2.210E-06,0.144
2.220E-06,0.140
2.230E-06,0.140
2.240E-06,0.140
2.250E-06,0.136
2.260E-06,0.136
2.270E-06,0.140
2.280E-06,0.136
2.290E-06,0.140
2.300E-06,0.144
2.310E-06,0.136
2.320E-06,0.136
2.330E-06,0.132
2.340E-06,0.140
2.350E-06,0.140
2.360E-06,0.140
2.370E-06,0.140
2.380E-06,0.140
2.390E-06,0.140
2.400E-06,0.144
2.410E-06,0.136
2.420E-06,0.136
2.430E-06,0.140
2.440E-06,0.140
2.450E-06,0.140
2.460E-06,0.140
2.470E-06,0.140
2.480E-06,0.140
2.490E-06,0.136
2.500E-06,0.140
2.510E-06,0.136
2.520E-06,0.136
2.530E-06,0.136
2.540E-06,0.132
2.550E-06,0.128
2.560E-06,0.128
2.570E-06,0.128
2.580E-06,0.128
2.590E-06,0.128
2.600E-06,0.132
2.610E-06,0.132
2.620E-06,0.132
2.630E-06,0.132
2.640E-06,0.128
2.650E-06,0.128
2.660E-06,0.128
2.670E-06,0.132
2.680E-06,0.132
2.690E-06,0.128
2.700E-06,0.128
2.710E-06,0.128
2.720E-06,0.128
2.730E-06,0.128
2.740E-06,0.128
2.750E-06,0.128
2.760E-06,0.128
2.770E-06,0.128
2.780E-06,0.124
2.790E-06,0.120
2.800E-06,0.124
2.810E-06,0.124
2.820E-06,0.124
2.830E-06,0.128
2.840E-06,0.128
2.850E-06,0.124
2.860E-06,0.120
2.870E-06,0.120
2.880E-06,0.116
2.890E-06,0.116
2.900E-06,0.112
2.910E-06,0.124
2.920E-06,0.120
2.930E-06,0.124
2.940E-06,0.120
2.950E-06,0.112
2.960E-06,0.108
2.970E-06,0.112
2.980E-06,0.120
2.990E-06,0.120
3.000E-06,0.120
3.010E-06,0.116
3.020E-06,0.112
3.030E-06,0.108
3.040E-06,0.108
3.050E-06,0.124
3.060E-06,0.128
3.070E-06,0.128
3.080E-06,0.128
3.090E-06,0.124
3.100E-06,0.124
3.110E-06,0.124
3.120E-06,0.124
3.130E-06,0.128
3.140E-06,0.128
3.150E-06,0.124
3.160E-06,0.120
3.170E-06,0.112
3.180E-06,0.112
3.190E-06,0.112
3.200E-06,0.112
3.210E-06,0.112
3.220E-06,0.108
3.230E-06,0.108
3.240E-06,0.108
3.250E-06,0.108
3.260E-06,0.104
3.270E-06,0.104
3.280E-06,0.112
3.290E-06,0.112
3.300E-06,0.112
3.310E-06,0.104
3.320E-06,0.108
3.330E-06,0.104
3.340E-06,0.112
3.350E-06,0.116
3.360E-06,0.112
3.370E-06,0.112
3.380E-06,0.108
3.390E-06,0.104
3.400E-06,0.108
3.410E-06,0.108
3.420E-06,0.108
3.430E-06,0.104
3.440E-06,0.108
3.450E-06,0.112
3.460E-06,0.112
3.470E-06,0.112
3.480E-06,0.112
3.490E-06,0.112
3.500E-06,0.108
3.510E-06,0.108
3.520E-06,0.112
3.530E-06,0.104
3.540E-06,0.104
3.550E-06,0.104
3.560E-06,0.104
3.570E-06,0.104
3.580E-06,0.108
3.590E-06,0.104
3.600E-06,0.096
3.610E-06,0.104
3.620E-06,0.100
3.630E-06,0.104
3.640E-06,0.104
3.650E-06,0.100
3.660E-06,0.096
3.670E-06,0.100
3.680E-06,0.096
3.690E-06,0.096
3.700E-06,0.096
3.710E-06,0.092
3.720E-06,0.096
3.730E-06,0.088
3.740E-06,0.092
3.750E-06,0.088
3.760E-06,0.088
3.770E-06,0.092
3.780E-06,0.088
3.790E-06,0.092
3.800E-06,0.096
3.810E-06,0.096
3.820E-06,0.092
3.830E-06,0.088
3.840E-06,0.088
3.850E-06,0.084
3.860E-06,0.088
3.870E-06,0.092
3.880E-06,0.092
3.890E-06,0.092
3.900E-06,0.084
3.910E-06,0.084
3.920E-06,0.084
3.930E-06,0.084
3.940E-06,0.080
3.950E-06,0.084
3.960E-06,0.080
3.970E-06,0.088
3.980E-06,0.088
3.990E-06,0.088
4.000E-06,0.084
4.010E-06,0.076
4.020E-06,0.080
4.030E-06,0.076
4.040E-06,0.088
4.050E-06,0.088
4.060E-06,0.092
4.070E-06,0.084
4.080E-06,0.076
4.090E-06,0.080
4.100E-06,0.080
4.110E-06,0.076
4.120E-06,0.084
4.130E-06,0.080
4.140E-06,0.084
4.150E-06,0.084
4.160E-06,0.076
4.170E-06,0.080
4.180E-06,0.080
4.190E-06,0.076
4.200E-06,0.080
4.210E-06,0.080
4.220E-06,0.084
4.230E-06,0.080
4.240E-06,0.072
4.250E-06,0.076
4.260E-06,0.072
4.270E-06,0.076
4.280E-06,0.080
4.290E-06,0.088
4.300E-06,0.084
4.310E-06,0.076
4.320E-06,0.076
4.330E-06,0.080
4.340E-06,0.072
4.350E-06,0.076
4.360E-06,0.076
4.370E-06,0.080
4.380E-06,0.076
4.390E-06,0.076
4.400E-06,0.076
4.410E-06,0.076
4.420E-06,0.080
4.430E-06,0.080
4.440E-06,0.076
4.450E-06,0.076
4.460E-06,0.076
4.470E-06,0.072
4.480E-06,0.076
4.490E-06,0.076
4.500E-06,0.076
4.510E-06,0.072
4.520E-06,0.072
4.530E-06,0.072
4.540E-06,0.072
4.550E-06,0.080
4.560E-06,0.080
4.570E-06,0.072
4.580E-06,0.064
4.590E-06,0.068
4.600E-06,0.060
4.610E-06,0.068
4.620E-06,0.072
4.630E-06,0.080
4.640E-06,0.072
4.650E-06,0.068
4.660E-06,0.064
4.670E-06,0.056
4.680E-06,0.064
4.690E-06,0.064
4.700E-06,0.064
4.710E-06,0.060
4.720E-06,0.060
4.730E-06,0.060
4.740E-06,0.064
4.750E-06,0.064
4.760E-06,0.060
4.770E-06,0.060
4.780E-06,0.064
4.790E-06,0.060
4.800E-06,0.060
4.810E-06,0.060
4.820E-06,0.064
4.830E-06,0.064
4.840E-06,0.060
4.850E-06,0.060
4.860E-06,0.060
4.870E-06,0.060
4.880E-06,0.068
4.890E-06,0.064
4.900E-06,0.060
4.910E-06,0.064
4.920E-06,0.060
4.930E-06,0.060
4.940E-06,0.064
4.950E-06,0.060
4.960E-06,0.064
4.970E-06,0.060
4.980E-06,0.060
4.990E-06,0.064
5.000E-06,0.060
5.010E-06,0.060
5.020E-06,0.060
5.030E-06,0.056
5.040E-06,0.060
5.050E-06,0.056
5.060E-06,0.060
5.070E-06,0.056
5.080E-06,0.056
5.090E-06,0.056
5.100E-06,0.056
5.110E-06,0.060
5.120E-06,0.056
5.130E-06,0.052
5.140E-06,0.052
5.150E-06,0.056
5.160E-06,0.060
5.170E-06,0.064
5.180E-06,0.060
5.190E-06,0.060
5.200E-06,0.056
5.210E-06,0.056
5.220E-06,0.056
5.230E-06,0.052
5.240E-06,0.052
5.250E-06,0.052
5.260E-06,0.060
5.270E-06,0.052
5.280E-06,0.052
5.290E-06,0.044
5.300E-06,0.040
5.310E-06,0.048
5.320E-06,0.052
5.330E-06,0.048
5.340E-06,0.048
5.350E-06,0.048
5.360E-06,0.056
5.370E-06,0.052
5.380E-06,0.048
5.390E-06,0.052
5.400E-06,0.048
5.410E-06,0.044
5.420E-06,0.048
5.430E-06,0.056
5.440E-06,0.052
5.450E-06,0.048
5.460E-06,0.044
5.470E-06,0.044
5.480E-06,0.044
5.490E-06,0.048
5.500E-06,0.048
5.510E-06,0.048
5.520E-06,0.052
5.530E-06,0.044
5.540E-06,0.044
5.550E-06,0.040
5.560E-06,0.044
5.570E-06,0.044
5.580E-06,0.044
5.590E-06,0.044
5.600E-06,0.040
5.610E-06,0.036
5.620E-06,0.036
5.630E-06,0.040
5.640E-06,0.040
5.650E-06,0.040
5.660E-06,0.048
5.670E-06,0.044
5.680E-06,0.040
5.690E-06,0.040
5.700E-06,0.036
5.710E-06,0.036
5.720E-06,0.036
5.730E-06,0.036
5.740E-06,0.036
5.750E-06,0.040
5.760E-06,0.032
5.770E-06,0.032
5.780E-06,0.036
5.790E-06,0.036
5.800E-06,0.036
5.810E-06,0.036
5.820E-06,0.032
5.830E-06,0.036
5.840E-06,0.036
5.850E-06,0.040
5.860E-06,0.036
5.870E-06,0.040
5.880E-06,0.040
5.890E-06,0.044
5.900E-06,0.040
5.910E-06,0.044
5.920E-06,0.044
5.930E-06,0.036
5.940E-06,0.040
5.950E-06,0.044
5.960E-06,0.040
5.970E-06,0.040
5.980E-06,0.040
5.990E-06,0.040
6.000E-06,0.036
6.010E-06,0.036
6.020E-06,0.040
6.030E-06,0.036
6.040E-06,0.036
6.050E-06,0.040
6.060E-06,0.048
6.070E-06,0.040
6.080E-06,0.044
6.090E-06,0.040
6.100E-06,0.040
6.110E-06,0.044
6.120E-06,0.048
6.130E-06,0.048
6.140E-06,0.044
6.150E-06,0.044
6.160E-06,0.044
6.170E-06,0.044
6.180E-06,0.040
6.190E-06,0.044
6.200E-06,0.044
6.210E-06,0.036
6.220E-06,0.036
6.230E-06,0.032
6.240E-06,0.028
6.250E-06,0.028
6.260E-06,0.024
6.270E-06,0.020
6.280E-06,0.024
6.290E-06,0.028
6.300E-06,0.028
6.310E-06,0.020
