mediciones/5-27/-37.5/WaveData5133.csv

#timebase=2000000(ps)
,#voltbase=1000000(mv/100)
#size=4000
-5.650E-06,0.080
-5.640E-06,0.080
-5.630E-06,0.040
-5.620E-06,0.120
-5.610E-06,0.080
-5.600E-06,0.080
-5.590E-06,0.120
-5.580E-06,0.040
-5.570E-06,0.040
-5.560E-06,0.040
-5.550E-06,0.040
-5.540E-06,0.080
-5.530E-06,0.040
-5.520E-06,-0.040
-5.510E-06,0.000
-5.500E-06,0.000
-5.490E-06,0.000
-5.480E-06,0.000
-5.470E-06,0.000
-5.460E-06,-0.040
-5.450E-06,0.000
-5.440E-06,0.000
-5.430E-06,0.000
-5.420E-06,0.000
-5.410E-06,0.000
-5.400E-06,0.040
-5.390E-06,0.080
-5.380E-06,0.080
-5.370E-06,0.080
-5.360E-06,0.040
-5.350E-06,0.040
-5.340E-06,0.040
-5.330E-06,0.000
-5.320E-06,0.080
-5.310E-06,0.120
-5.300E-06,0.080
-5.290E-06,0.080
-5.280E-06,0.160
-5.270E-06,-0.040
-5.260E-06,0.040
-5.250E-06,0.080
-5.240E-06,0.080
-5.230E-06,0.160
-5.220E-06,0.200
-5.210E-06,0.120
-5.200E-06,0.080
-5.190E-06,0.000
-5.180E-06,0.040
-5.170E-06,0.040
-5.160E-06,0.040
-5.150E-06,0.040
-5.140E-06,0.120
-5.130E-06,0.040
-5.120E-06,0.080
-5.110E-06,0.040
-5.100E-06,0.000
-5.090E-06,0.000
-5.080E-06,0.040
-5.070E-06,0.040
-5.060E-06,-0.040
-5.050E-06,0.040
-5.040E-06,0.080
-5.030E-06,0.080
-5.020E-06,0.040
-5.010E-06,0.000
-5.000E-06,-0.080
-4.990E-06,0.000
-4.980E-06,0.040
-4.970E-06,0.040
-4.960E-06,0.040
-4.950E-06,0.040
-4.940E-06,0.000
-4.930E-06,-0.040
-4.920E-06,-0.040
-4.910E-06,0.000
-4.900E-06,0.000
-4.890E-06,0.040
-4.880E-06,0.040
-4.870E-06,0.000
-4.860E-06,0.000
-4.850E-06,0.000
-4.840E-06,0.000
-4.830E-06,0.040
-4.820E-06,0.080
-4.810E-06,0.040
-4.800E-06,0.080
-4.790E-06,-0.040
-4.780E-06,0.080
-4.770E-06,-0.040
-4.760E-06,0.120
-4.750E-06,-0.040
-4.740E-06,0.080
-4.730E-06,0.000
-4.720E-06,0.000
-4.710E-06,-0.040
-4.700E-06,0.000
-4.690E-06,0.080
-4.680E-06,0.160
-4.670E-06,0.080
-4.660E-06,0.040
-4.650E-06,0.000
-4.640E-06,0.000
-4.630E-06,0.040
-4.620E-06,0.000
-4.610E-06,0.120
-4.600E-06,0.080
-4.590E-06,0.080
-4.580E-06,0.080
-4.570E-06,0.080
-4.560E-06,0.080
-4.550E-06,0.160
-4.540E-06,0.160
-4.530E-06,0.200
-4.520E-06,0.080
-4.510E-06,0.040
-4.500E-06,0.080
-4.490E-06,0.040
-4.480E-06,0.080
-4.470E-06,0.040
-4.460E-06,0.040
-4.450E-06,0.080
-4.440E-06,0.120
-4.430E-06,0.120
-4.420E-06,0.200
-4.410E-06,0.160
-4.400E-06,0.200
-4.390E-06,0.160
-4.380E-06,0.120
-4.370E-06,0.200
-4.360E-06,0.160
-4.350E-06,0.200
-4.340E-06,0.200
-4.330E-06,0.200
-4.320E-06,0.160
-4.310E-06,0.120
-4.300E-06,0.160
-4.290E-06,0.080
-4.280E-06,0.120
-4.270E-06,0.040
-4.260E-06,0.160
-4.250E-06,0.080
-4.240E-06,0.120
-4.230E-06,0.160
-4.220E-06,0.000
-4.210E-06,0.000
-4.200E-06,0.040
-4.190E-06,0.080
-4.180E-06,0.040
-4.170E-06,0.040
-4.160E-06,0.000
-4.150E-06,0.000
-4.140E-06,0.000
-4.130E-06,0.080
-4.120E-06,0.040
-4.110E-06,0.080
-4.100E-06,0.040
-4.090E-06,0.000
-4.080E-06,-0.040
-4.070E-06,-0.040
-4.060E-06,0.000
-4.050E-06,0.000
-4.040E-06,0.000
-4.030E-06,0.000
-4.020E-06,0.000
-4.010E-06,-0.040
-4.000E-06,-0.040
-3.990E-06,0.000
-3.980E-06,0.040
-3.970E-06,0.160
-3.960E-06,0.120
-3.950E-06,0.080
-3.940E-06,0.080
-3.930E-06,0.040
-3.920E-06,0.040
-3.910E-06,0.080
-3.900E-06,0.120
-3.890E-06,0.200
-3.880E-06,0.120
-3.870E-06,0.120
-3.860E-06,0.080
-3.850E-06,0.040
-3.840E-06,0.080
-3.830E-06,0.120
-3.820E-06,0.200
-3.810E-06,0.120
-3.800E-06,0.080
-3.790E-06,0.120
-3.780E-06,0.120
-3.770E-06,0.000
-3.760E-06,0.080
-3.750E-06,0.160
-3.740E-06,0.120
-3.730E-06,0.080
-3.720E-06,0.080
-3.710E-06,0.080
-3.700E-06,0.080
-3.690E-06,0.040
-3.680E-06,0.080
-3.670E-06,0.160
-3.660E-06,0.200
-3.650E-06,0.040
-3.640E-06,-0.040
-3.630E-06,0.000
-3.620E-06,0.040
-3.610E-06,0.040
-3.600E-06,0.160
-3.590E-06,0.240
-3.580E-06,0.280
-3.570E-06,0.240
-3.560E-06,0.240
-3.550E-06,0.160
-3.540E-06,0.240
-3.530E-06,0.240
-3.520E-06,0.280
-3.510E-06,0.280
-3.500E-06,0.280
-3.490E-06,0.160
-3.480E-06,0.160
-3.470E-06,0.200
-3.460E-06,0.160
-3.450E-06,0.200
-3.440E-06,0.200
-3.430E-06,0.120
-3.420E-06,0.080
-3.410E-06,0.080
-3.400E-06,0.040
-3.390E-06,0.080
-3.380E-06,0.080
-3.370E-06,0.080
-3.360E-06,0.120
-3.350E-06,0.000
-3.340E-06,0.000
-3.330E-06,0.040
-3.320E-06,-0.040
-3.310E-06,0.000
-3.300E-06,0.000
-3.290E-06,0.000
-3.280E-06,-0.040
-3.270E-06,0.000
-3.260E-06,0.000
-3.250E-06,0.000
-3.240E-06,0.000
-3.230E-06,-0.040
-3.220E-06,0.000
-3.210E-06,0.000
-3.200E-06,0.000
-3.190E-06,0.080
-3.180E-06,0.040
-3.170E-06,0.080
-3.160E-06,0.160
-3.150E-06,0.160
-3.140E-06,0.160
-3.130E-06,0.080
-3.120E-06,0.080
-3.110E-06,0.080
-3.100E-06,0.080
-3.090E-06,0.160
-3.080E-06,0.160
-3.070E-06,0.200
-3.060E-06,0.240
-3.050E-06,0.160
-3.040E-06,0.160
-3.030E-06,0.200
-3.020E-06,0.240
-3.010E-06,0.200
-3.000E-06,0.240
-2.990E-06,0.240
-2.980E-06,0.160
-2.970E-06,0.120
-2.960E-06,0.200
-2.950E-06,0.160
-2.940E-06,0.240
-2.930E-06,0.200
-2.920E-06,0.160
-2.910E-06,0.160
-2.900E-06,0.160
-2.890E-06,0.200
-2.880E-06,0.200
-2.870E-06,0.240
-2.860E-06,0.200
-2.850E-06,0.200
-2.840E-06,0.200
-2.830E-06,0.320
-2.820E-06,0.360
-2.810E-06,0.240
-2.800E-06,0.200
-2.790E-06,0.200
-2.780E-06,0.160
-2.770E-06,0.200
-2.760E-06,0.280
-2.750E-06,0.360
-2.740E-06,0.440
-2.730E-06,0.440
-2.720E-06,0.320
-2.710E-06,0.240
-2.700E-06,0.320
-2.690E-06,0.360
-2.680E-06,0.360
-2.670E-06,0.480
-2.660E-06,0.520
-2.650E-06,0.480
-2.640E-06,0.520
-2.630E-06,0.480
-2.620E-06,0.480
-2.610E-06,0.520
-2.600E-06,0.480
-2.590E-06,0.520
-2.580E-06,0.560
-2.570E-06,0.520
-2.560E-06,0.560
-2.550E-06,0.560
-2.540E-06,0.520
-2.530E-06,0.560
-2.520E-06,0.520
-2.510E-06,0.480
-2.500E-06,0.480
-2.490E-06,0.480
-2.480E-06,0.480
-2.470E-06,0.480
-2.460E-06,0.480
-2.450E-06,0.480
-2.440E-06,0.480
-2.430E-06,0.520
-2.420E-06,0.520
-2.410E-06,0.480
-2.400E-06,0.520
-2.390E-06,0.560
-2.380E-06,0.640
-2.370E-06,0.640
-2.360E-06,0.560
-2.350E-06,0.560
-2.340E-06,0.520
-2.330E-06,0.600
-2.320E-06,0.640
-2.310E-06,0.680
-2.300E-06,0.720
-2.290E-06,0.640
-2.280E-06,0.600
-2.270E-06,0.640
-2.260E-06,0.640
-2.250E-06,0.720
-2.240E-06,0.720
-2.230E-06,0.800
-2.220E-06,0.640
-2.210E-06,0.600
-2.200E-06,0.560
-2.190E-06,0.600
-2.180E-06,0.560
-2.170E-06,0.520
-2.160E-06,0.640
-2.150E-06,0.560
-2.140E-06,0.600
-2.130E-06,0.680
-2.120E-06,0.720
-2.110E-06,0.680
-2.100E-06,0.720
-2.090E-06,0.840
-2.080E-06,0.720
-2.070E-06,0.840
-2.060E-06,0.800
-2.050E-06,0.800
-2.040E-06,0.920
-2.030E-06,0.880
-2.020E-06,0.880
-2.010E-06,0.920
-2.000E-06,0.920
-1.990E-06,1.000
-1.980E-06,1.000
-1.970E-06,1.120
-1.960E-06,1.120
-1.950E-06,1.080
-1.940E-06,1.120
-1.930E-06,0.960
-1.920E-06,0.920
-1.910E-06,0.840
-1.900E-06,0.880
-1.890E-06,0.840
-1.880E-06,0.800
-1.870E-06,0.760
-1.860E-06,0.640
-1.850E-06,0.760
-1.840E-06,0.840
-1.830E-06,0.880
-1.820E-06,0.680
-1.810E-06,0.520
-1.800E-06,0.480
-1.790E-06,0.440
-1.780E-06,0.400
-1.770E-06,0.320
-1.760E-06,0.160
-1.750E-06,-0.040
-1.740E-06,-0.120
-1.730E-06,0.000
-1.720E-06,0.040
-1.710E-06,0.080
-1.700E-06,0.080
-1.690E-06,-0.040
-1.680E-06,-0.120
-1.670E-06,-0.120
-1.660E-06,0.120
-1.650E-06,0.320
-1.640E-06,0.440
-1.630E-06,0.440
-1.620E-06,0.400
-1.610E-06,0.360
-1.600E-06,0.320
-1.590E-06,0.440
-1.580E-06,0.480
-1.570E-06,0.640
-1.560E-06,0.600
-1.550E-06,0.560
-1.540E-06,0.520
-1.530E-06,0.480
-1.520E-06,0.400
-1.510E-06,0.440
-1.500E-06,0.400
-1.490E-06,0.360
-1.480E-06,0.200
-1.470E-06,0.240
-1.460E-06,0.200
-1.450E-06,0.280
-1.440E-06,0.160
-1.430E-06,0.480
-1.420E-06,0.320
-1.410E-06,-0.040
-1.400E-06,-0.240
-1.390E-06,-0.360
-1.380E-06,-0.440
-1.370E-06,0.320
-1.360E-06,0.640
-1.350E-06,0.840
-1.340E-06,0.600
-1.330E-06,-0.040
-1.320E-06,-0.280
-1.310E-06,-0.280
-1.300E-06,0.120
-1.290E-06,0.640
-1.280E-06,0.520
-1.270E-06,0.360
-1.260E-06,-0.040
-1.250E-06,-0.320
-1.240E-06,-0.360
-1.230E-06,-0.360
-1.220E-06,0.120
-1.210E-06,-0.080
-1.200E-06,0.160
-1.190E-06,-0.200
-1.180E-06,-0.160
-1.170E-06,-0.360
-1.160E-06,-0.520
-1.150E-06,-0.480
-1.140E-06,-0.680
-1.130E-06,-0.680
-1.120E-06,-0.480
-1.110E-06,-0.320
-1.100E-06,-0.040
-1.090E-06,-0.080
-1.080E-06,-0.120
-1.070E-06,-0.160
-1.060E-06,0.120
-1.050E-06,0.320
-1.040E-06,0.640
-1.030E-06,0.800
-1.020E-06,0.680
-1.010E-06,0.640
-1.000E-06,0.560
-9.900E-07,0.680
-9.800E-07,0.840
-9.700E-07,0.880
-9.600E-07,0.840
-9.500E-07,0.680
-9.400E-07,0.440
-9.300E-07,0.280
-9.200E-07,0.160
-9.100E-07,0.000
-9.000E-07,0.040
-8.900E-07,-0.080
-8.800E-07,-0.200
-8.700E-07,-0.160
-8.600E-07,-0.240
-8.500E-07,-0.360
-8.400E-07,-0.400
-8.300E-07,-0.520
-8.200E-07,-0.640
-8.100E-07,-0.560
-8.000E-07,-0.480
-7.900E-07,-0.240
-7.800E-07,-0.080
-7.700E-07,-0.120
-7.600E-07,-0.080
-7.500E-07,-0.160
-7.400E-07,0.000
-7.300E-07,0.160
-7.200E-07,0.400
-7.100E-07,0.480
-7.000E-07,0.520
-6.900E-07,0.400
-6.800E-07,0.320
-6.700E-07,0.360
-6.600E-07,0.400
-6.500E-07,0.520
-6.400E-07,0.560
-6.300E-07,0.520
-6.200E-07,0.480
-6.100E-07,0.400
-6.000E-07,0.480
-5.900E-07,0.400
-5.800E-07,0.400
-5.700E-07,0.440
-5.600E-07,0.200
-5.500E-07,-0.040
-5.400E-07,-0.080
-5.300E-07,-0.240
-5.200E-07,-0.120
-5.100E-07,-0.040
-5.000E-07,0.080
-4.900E-07,0.000
-4.800E-07,0.000
-4.700E-07,0.000
-4.600E-07,0.080
-4.500E-07,0.280
-4.400E-07,0.360
-4.300E-07,0.400
-4.200E-07,0.360
-4.100E-07,0.320
-4.000E-07,0.280
-3.900E-07,0.400
-3.800E-07,0.360
-3.700E-07,0.440
-3.600E-07,0.440
-3.500E-07,0.520
-3.400E-07,0.640
-3.300E-07,0.640
-3.200E-07,0.720
-3.100E-07,0.680
-3.000E-07,0.720
-2.900E-07,0.840
-2.800E-07,0.840
-2.700E-07,0.960
-2.600E-07,0.880
-2.500E-07,0.800
-2.400E-07,0.800
-2.300E-07,0.840
-2.200E-07,0.880
-2.100E-07,0.920
-2.000E-07,0.840
-1.900E-07,0.840
-1.800E-07,0.680
-1.700E-07,0.480
-1.600E-07,0.600
-1.500E-07,0.320
-1.400E-07,0.480
-1.300E-07,0.440
-1.200E-07,0.640
-1.100E-07,0.720
-1.000E-07,0.720
-9.000E-08,0.720
-8.000E-08,0.600
-7.000E-08,0.480
-6.000E-08,0.200
-5.000E-08,0.960
-4.000E-08,0.400
-3.000E-08,0.040
-2.000E-08,-0.240
-1.000E-08,-0.640
0.000E+00,-0.760
1.000E-08,0.400
2.000E-08,0.880
3.000E-08,1.600
4.000E-08,1.280
5.000E-08,0.480
6.000E-08,0.240
7.000E-08,0.040
8.000E-08,0.680
9.000E-08,1.120
1.000E-07,1.120
1.100E-07,1.120
1.200E-07,0.760
1.300E-07,0.440
1.400E-07,0.480
1.500E-07,0.440
1.600E-07,0.520
1.700E-07,0.560
1.800E-07,0.440
1.900E-07,0.320
2.000E-07,0.160
2.100E-07,0.000
2.200E-07,-0.120
2.300E-07,-0.360
2.400E-07,-0.520
2.500E-07,-0.600
2.600E-07,-0.680
2.700E-07,-0.720
2.800E-07,-0.720
2.900E-07,-0.840
3.000E-07,-0.920
3.100E-07,-0.840
3.200E-07,-0.840
3.300E-07,-0.720
3.400E-07,-0.520
3.500E-07,-0.440
3.600E-07,-0.200
3.700E-07,-0.120
3.800E-07,-0.040
3.900E-07,0.080
4.000E-07,0.200
4.100E-07,0.280
4.200E-07,0.240
4.300E-07,0.320
4.400E-07,0.480
4.500E-07,0.560
4.600E-07,0.720
4.700E-07,0.840
4.800E-07,0.920
4.900E-07,0.880
5.000E-07,0.840
5.100E-07,0.880
5.200E-07,0.920
5.300E-07,0.840
5.400E-07,0.840
5.500E-07,0.720
5.600E-07,0.560
5.700E-07,0.640
5.800E-07,0.560
5.900E-07,0.680
6.000E-07,0.800
6.100E-07,0.760
6.200E-07,0.840
6.300E-07,0.760
6.400E-07,0.800
6.500E-07,0.680
6.600E-07,0.600
6.700E-07,0.520
6.800E-07,0.440
6.900E-07,0.160
7.000E-07,0.040
7.100E-07,0.000
7.200E-07,-0.080
7.300E-07,0.000
7.400E-07,0.120
7.500E-07,0.160
7.600E-07,0.160
7.700E-07,-0.080
7.800E-07,-0.240
7.900E-07,-0.440
8.000E-07,-0.440
8.100E-07,-0.200
8.200E-07,-0.040
8.300E-07,0.120
8.400E-07,0.040
8.500E-07,-0.160
8.600E-07,-0.280
8.700E-07,-0.400
8.800E-07,0.040
8.900E-07,0.480
9.000E-07,0.880
9.100E-07,1.240
9.200E-07,1.080
9.300E-07,0.760
9.400E-07,0.480
9.500E-07,0.480
9.600E-07,0.280
9.700E-07,0.320
9.800E-07,0.480
9.900E-07,0.320
1.000E-06,0.440
1.010E-06,0.480
1.020E-06,0.600
1.030E-06,0.720
1.040E-06,0.600
1.050E-06,0.800
1.060E-06,0.760
1.070E-06,0.880
1.080E-06,0.960
1.090E-06,0.840
1.100E-06,0.760
1.110E-06,0.520
1.120E-06,0.440
1.130E-06,0.320
1.140E-06,0.400
1.150E-06,0.520
1.160E-06,0.520
1.170E-06,0.440
1.180E-06,0.200
1.190E-06,0.000
1.200E-06,-0.240
1.210E-06,-0.240
1.220E-06,-0.240
1.230E-06,-0.240
1.240E-06,-0.240
1.250E-06,-0.320
1.260E-06,-0.440
1.270E-06,-0.560
1.280E-06,-0.680
1.290E-06,-0.600
1.300E-06,-0.520
1.310E-06,-0.360
1.320E-06,-0.320
1.330E-06,-0.320
1.340E-06,-0.320
1.350E-06,-0.440
1.360E-06,-0.360
1.370E-06,-0.320
1.380E-06,-0.280
1.390E-06,-0.200
1.400E-06,-0.240
1.410E-06,-0.240
1.420E-06,-0.240
1.430E-06,-0.320
1.440E-06,-0.320
1.450E-06,-0.280
1.460E-06,-0.280
1.470E-06,-0.200
1.480E-06,-0.160
1.490E-06,-0.200
1.500E-06,-0.080
1.510E-06,-0.040
1.520E-06,-0.080
1.530E-06,-0.040
1.540E-06,0.080
1.550E-06,0.080
1.560E-06,0.160
1.570E-06,0.120
1.580E-06,0.120
1.590E-06,0.080
1.600E-06,0.320
1.610E-06,0.000
1.620E-06,0.000
1.630E-06,-0.360
1.640E-06,-0.480
1.650E-06,-0.600
1.660E-06,-0.360
1.670E-06,0.160
1.680E-06,0.520
1.690E-06,0.640
1.700E-06,0.480
1.710E-06,-0.360
1.720E-06,-0.560
1.730E-06,-0.760
1.740E-06,-0.720
1.750E-06,-1.480
1.760E-06,-1.160
1.770E-06,-2.000
1.780E-06,-1.120
1.790E-06,-0.440
1.800E-06,0.720
1.810E-06,1.160
1.820E-06,0.600
1.830E-06,-0.400
1.840E-06,-0.920
1.850E-06,-0.800
1.860E-06,0.240
1.870E-06,1.120
1.880E-06,1.240
1.890E-06,0.920
1.900E-06,0.080
1.910E-06,-0.240
1.920E-06,-0.320
1.930E-06,0.080
1.940E-06,0.480
1.950E-06,0.640
1.960E-06,0.480
1.970E-06,0.200
1.980E-06,0.000
1.990E-06,-0.320
2.000E-06,-0.440
2.010E-06,-0.520
2.020E-06,-0.680
2.030E-06,-0.520
2.040E-06,-0.840
2.050E-06,-0.600
2.060E-06,-0.800
2.070E-06,-0.920
2.080E-06,-0.800
2.090E-06,-0.880
2.100E-06,-0.680
2.110E-06,-0.560
2.120E-06,-0.520
2.130E-06,-0.400
2.140E-06,-0.600
2.150E-06,-0.640
2.160E-06,-0.840
2.170E-06,-0.720
2.180E-06,-0.600
2.190E-06,-0.480
2.200E-06,-0.400
2.210E-06,-0.560
2.220E-06,-0.560
2.230E-06,-0.680
2.240E-06,-0.640
2.250E-06,-0.560
2.260E-06,-0.640
2.270E-06,-0.640
2.280E-06,-0.600
2.290E-06,-0.600
2.300E-06,-0.440
2.310E-06,-0.400
2.320E-06,-0.280
2.330E-06,-0.160
2.340E-06,-0.040
2.350E-06,0.120
2.360E-06,0.240
2.370E-06,0.360
2.380E-06,0.400
2.390E-06,0.480
2.400E-06,0.600
2.410E-06,0.640
2.420E-06,0.600
2.430E-06,0.480
2.440E-06,0.400
2.450E-06,0.200
2.460E-06,0.200
2.470E-06,0.040
2.480E-06,-0.040
2.490E-06,-0.160
2.500E-06,-0.320
2.510E-06,-0.560
2.520E-06,-0.640
2.530E-06,-0.840
2.540E-06,-0.880
2.550E-06,-0.840
2.560E-06,-0.960
2.570E-06,-0.920
2.580E-06,-1.040
2.590E-06,-0.960
2.600E-06,-1.000
2.610E-06,-1.160
2.620E-06,-1.160
2.630E-06,-0.840
2.640E-06,-1.600
2.650E-06,-1.480
2.660E-06,-1.240
2.670E-06,-2.280
2.680E-06,-2.400
2.690E-06,-4.720
2.700E-06,-4.160
2.710E-06,-3.920
2.720E-06,-2.040
2.730E-06,0.720
2.740E-06,1.240
2.750E-06,1.160
2.760E-06,-0.960
2.770E-06,-2.280
2.780E-06,-1.680
2.790E-06,-0.760
2.800E-06,0.920
2.810E-06,0.880
2.820E-06,0.280
2.830E-06,-0.720
2.840E-06,-1.080
2.850E-06,-0.400
2.860E-06,0.360
2.870E-06,1.000
2.880E-06,0.840
2.890E-06,0.520
2.900E-06,0.160
2.910E-06,0.320
2.920E-06,0.400
2.930E-06,0.200
2.940E-06,-0.080
2.950E-06,-0.520
2.960E-06,-0.800
2.970E-06,-0.680
2.980E-06,-0.800
2.990E-06,-0.720
3.000E-06,-1.000
3.010E-06,-1.080
3.020E-06,-1.160
3.030E-06,-1.000
3.040E-06,-0.920
3.050E-06,-0.800
3.060E-06,-0.960
3.070E-06,-1.080
3.080E-06,-1.280
3.090E-06,-1.320
3.100E-06,-1.480
3.110E-06,-1.360
3.120E-06,-1.360
3.130E-06,-1.160
3.140E-06,-1.160
3.150E-06,-1.160
3.160E-06,-1.200
3.170E-06,-1.280
3.180E-06,-1.240
3.190E-06,-1.200
3.200E-06,-1.200
3.210E-06,-1.160
3.220E-06,-1.160
3.230E-06,-1.240
3.240E-06,-1.240
3.250E-06,-1.160
3.260E-06,-0.880
3.270E-06,-0.680
3.280E-06,-0.400
3.290E-06,-0.320
3.300E-06,-0.040
3.310E-06,0.080
3.320E-06,0.400
3.330E-06,0.560
3.340E-06,0.760
3.350E-06,0.960
3.360E-06,1.120
3.370E-06,1.160
3.380E-06,1.240
3.390E-06,1.240
3.400E-06,1.120
3.410E-06,0.960
3.420E-06,0.840
3.430E-06,0.680
3.440E-06,0.520
3.450E-06,0.440
3.460E-06,0.280
3.470E-06,0.120
3.480E-06,-0.080
3.490E-06,-0.320
3.500E-06,-0.640
3.510E-06,-0.920
3.520E-06,-1.200
3.530E-06,-1.280
3.540E-06,-1.320
3.550E-06,-1.360
3.560E-06,-1.120
3.570E-06,-0.960
3.580E-06,-0.840
3.590E-06,-0.760
3.600E-06,-0.680
3.610E-06,-0.560
3.620E-06,-0.400
3.630E-06,-0.160
3.640E-06,0.200
3.650E-06,0.480
3.660E-06,0.520
3.670E-06,0.640
3.680E-06,0.480
3.690E-06,0.600
3.700E-06,0.680
3.710E-06,0.760
3.720E-06,0.800
3.730E-06,0.840
3.740E-06,0.840
3.750E-06,0.720
3.760E-06,0.360
3.770E-06,0.400
3.780E-06,0.200
3.790E-06,0.120
3.800E-06,-0.160
3.810E-06,-0.920
3.820E-06,-1.640
3.830E-06,-1.200
3.840E-06,-0.560
3.850E-06,0.320
3.860E-06,2.440
3.870E-06,1.480
3.880E-06,1.240
3.890E-06,-0.760
3.900E-06,-2.320
3.910E-06,-2.480
3.920E-06,-2.480
3.930E-06,-1.600
3.940E-06,-0.440
3.950E-06,0.400
3.960E-06,0.760
3.970E-06,1.120
3.980E-06,1.040
3.990E-06,1.320
4.000E-06,1.600
4.010E-06,2.000
4.020E-06,2.560
4.030E-06,2.800
4.040E-06,3.120
4.050E-06,2.880
4.060E-06,2.320
4.070E-06,1.920
4.080E-06,1.160
4.090E-06,0.840
4.100E-06,0.760
4.110E-06,0.680
4.120E-06,0.520
4.130E-06,0.400
4.140E-06,-0.200
4.150E-06,-0.560
4.160E-06,-0.920
4.170E-06,-1.160
4.180E-06,-1.160
4.190E-06,-1.200
4.200E-06,-1.280
4.210E-06,-1.440
4.220E-06,-1.800
4.230E-06,-1.960
4.240E-06,-1.880
4.250E-06,-1.680
4.260E-06,-1.360
4.270E-06,-1.040
4.280E-06,-0.880
4.290E-06,-0.920
4.300E-06,-0.840
4.310E-06,-0.680
4.320E-06,-0.560
4.330E-06,-0.320
4.340E-06,-0.200
4.350E-06,-0.240
4.360E-06,-0.320
4.370E-06,-0.480
4.380E-06,-0.680
4.390E-06,-0.840
4.400E-06,-1.000
4.410E-06,-1.320
4.420E-06,-1.560
4.430E-06,-1.800
4.440E-06,-2.000
4.450E-06,-2.200
4.460E-06,-2.400
4.470E-06,-2.520
4.480E-06,-2.680
4.490E-06,-2.760
4.500E-06,-2.800
4.510E-06,-2.840
4.520E-06,-2.880
4.530E-06,-2.840
4.540E-06,-2.920
4.550E-06,-2.920
4.560E-06,-3.000
4.570E-06,-3.000
4.580E-06,-3.040
4.590E-06,-3.120
4.600E-06,-3.280
4.610E-06,-3.400
4.620E-06,-3.640
4.630E-06,-3.880
4.640E-06,-3.840
4.650E-06,-4.040
4.660E-06,-3.840
4.670E-06,-4.000
4.680E-06,-4.200
4.690E-06,-4.480
4.700E-06,-4.960
4.710E-06,-4.960
4.720E-06,-4.800
4.730E-06,-4.560
4.740E-06,-4.000
4.750E-06,-4.000
4.760E-06,-4.160
4.770E-06,-4.640
4.780E-06,-5.000
4.790E-06,-5.120
4.800E-06,-4.840
4.810E-06,-4.440
4.820E-06,-3.800
4.830E-06,-3.320
4.840E-06,-3.080
4.850E-06,-3.160
4.860E-06,-3.480
4.870E-06,-3.840
4.880E-06,-4.200
4.890E-06,-4.320
4.900E-06,-4.160
4.910E-06,-3.840
4.920E-06,-3.280
4.930E-06,-3.160
4.940E-06,-3.240
4.950E-06,-3.760
4.960E-06,-4.280
4.970E-06,-4.600
4.980E-06,-4.560
4.990E-06,-4.240
5.000E-06,-3.920
5.010E-06,-3.680
5.020E-06,-3.720
5.030E-06,-3.920
5.040E-06,-4.160
5.050E-06,-4.240
5.060E-06,-4.280
5.070E-06,-4.200
5.080E-06,-4.160
5.090E-06,-4.120
5.100E-06,-4.040
5.110E-06,-4.120
5.120E-06,-4.160
5.130E-06,-4.280
5.140E-06,-4.360
5.150E-06,-4.400
5.160E-06,-4.400
5.170E-06,-4.400
5.180E-06,-4.360
5.190E-06,-4.360
5.200E-06,-4.360
5.210E-06,-4.360
5.220E-06,-4.240
5.230E-06,-4.120
5.240E-06,-3.960
5.250E-06,-3.840
5.260E-06,-3.720
5.270E-06,-3.680
5.280E-06,-3.600
5.290E-06,-3.520
5.300E-06,-3.360
5.310E-06,-3.320
5.320E-06,-3.200
5.330E-06,-3.160
5.340E-06,-3.120
5.350E-06,-3.040
5.360E-06,-3.040
5.370E-06,-2.960
5.380E-06,-2.920
5.390E-06,-2.840
5.400E-06,-2.840
5.410E-06,-2.880
5.420E-06,-2.800
5.430E-06,-2.800
5.440E-06,-2.840
5.450E-06,-2.800
5.460E-06,-2.840
5.470E-06,-2.840
5.480E-06,-2.800
5.490E-06,-2.800
5.500E-06,-2.840
5.510E-06,-2.880
5.520E-06,-2.800
5.530E-06,-2.760
5.540E-06,-2.840
5.550E-06,-2.800
5.560E-06,-2.840
5.570E-06,-2.760
5.580E-06,-2.800
5.590E-06,-2.640
5.600E-06,-2.680
5.610E-06,-2.680
5.620E-06,-2.640
5.630E-06,-2.680
5.640E-06,-2.640
5.650E-06,-2.600
5.660E-06,-2.600
5.670E-06,-2.600
5.680E-06,-2.640
5.690E-06,-2.680
5.700E-06,-2.640
5.710E-06,-2.680
5.720E-06,-2.680
5.730E-06,-2.680
5.740E-06,-2.640
5.750E-06,-2.640
5.760E-06,-2.600
5.770E-06,-2.600
5.780E-06,-2.600
5.790E-06,-2.520
5.800E-06,-2.560
5.810E-06,-2.520
5.820E-06,-2.480
5.830E-06,-2.440
5.840E-06,-2.360
5.850E-06,-2.320
5.860E-06,-2.280
5.870E-06,-2.200
5.880E-06,-2.240
5.890E-06,-2.120
5.900E-06,-2.040
5.910E-06,-1.960
5.920E-06,-1.880
5.930E-06,-1.800
5.940E-06,-1.720
5.950E-06,-1.600
5.960E-06,-1.480
5.970E-06,-1.400
5.980E-06,-1.320
5.990E-06,-1.320
6.000E-06,-1.280
6.010E-06,-1.280
6.020E-06,-1.280
6.030E-06,-1.320
6.040E-06,-1.320
6.050E-06,-1.400
6.060E-06,-1.440
6.070E-06,-1.480
6.080E-06,-1.640
6.090E-06,-1.720
6.100E-06,-1.760
6.110E-06,-1.920
6.120E-06,-2.000
6.130E-06,-2.080
6.140E-06,-2.200
