mediciones/5-27/-37.5/WaveData5136.csv

#timebase=2000000(ps)
,#voltbase=100000(mv/100)
#size=4000
-5.650E-06,0.012
-5.640E-06,0.008
-5.630E-06,0.012
-5.620E-06,0.016
-5.610E-06,0.016
-5.600E-06,0.020
-5.590E-06,0.024
-5.580E-06,0.016
-5.570E-06,0.024
-5.560E-06,0.008
-5.550E-06,0.008
-5.540E-06,0.012
-5.530E-06,0.016
-5.520E-06,0.016
-5.510E-06,0.020
-5.500E-06,0.020
-5.490E-06,0.016
-5.480E-06,0.016
-5.470E-06,0.012
-5.460E-06,0.016
-5.450E-06,0.012
-5.440E-06,0.012
-5.430E-06,0.012
-5.420E-06,0.020
-5.410E-06,0.028
-5.400E-06,0.048
-5.390E-06,0.040
-5.380E-06,0.016
-5.370E-06,-0.040
-5.360E-06,-0.072
-5.350E-06,-0.100
-5.340E-06,-0.088
-5.330E-06,-0.036
-5.320E-06,0.004
-5.310E-06,0.028
-5.300E-06,0.024
-5.290E-06,0.004
-5.280E-06,-0.020
-5.270E-06,-0.040
-5.260E-06,-0.024
-5.250E-06,-0.012
-5.240E-06,0.016
-5.230E-06,0.016
-5.220E-06,0.012
-5.210E-06,0.000
-5.200E-06,-0.004
-5.190E-06,-0.004
-5.180E-06,0.004
-5.170E-06,0.008
-5.160E-06,-0.008
-5.150E-06,-0.012
-5.140E-06,-0.012
-5.130E-06,0.000
-5.120E-06,0.004
-5.110E-06,0.012
-5.100E-06,0.008
-5.090E-06,0.008
-5.080E-06,-0.004
-5.070E-06,-0.004
-5.060E-06,0.000
-5.050E-06,0.004
-5.040E-06,0.012
-5.030E-06,0.012
-5.020E-06,0.012
-5.010E-06,0.008
-5.000E-06,0.008
-4.990E-06,0.008
-4.980E-06,0.012
-4.970E-06,0.012
-4.960E-06,0.008
-4.950E-06,0.008
-4.940E-06,0.000
-4.930E-06,0.004
-4.920E-06,0.012
-4.910E-06,0.016
-4.900E-06,0.020
-4.890E-06,0.016
-4.880E-06,0.008
-4.870E-06,0.004
-4.860E-06,0.000
-4.850E-06,0.004
-4.840E-06,0.008
-4.830E-06,0.012
-4.820E-06,0.020
-4.810E-06,0.020
-4.800E-06,0.012
-4.790E-06,0.000
-4.780E-06,0.004
-4.770E-06,0.008
-4.760E-06,0.012
-4.750E-06,0.028
-4.740E-06,0.024
-4.730E-06,0.016
-4.720E-06,0.020
-4.710E-06,0.012
-4.700E-06,0.020
-4.690E-06,0.028
-4.680E-06,0.036
-4.670E-06,0.040
-4.660E-06,0.040
-4.650E-06,0.052
-4.640E-06,0.060
-4.630E-06,0.068
-4.620E-06,0.056
-4.610E-06,0.044
-4.600E-06,0.032
-4.590E-06,0.008
-4.580E-06,-0.008
-4.570E-06,-0.008
-4.560E-06,0.000
-4.550E-06,0.008
-4.540E-06,0.012
-4.530E-06,0.012
-4.520E-06,0.012
-4.510E-06,-0.004
-4.500E-06,0.000
-4.490E-06,0.008
-4.480E-06,0.012
-4.470E-06,0.028
-4.460E-06,0.028
-4.450E-06,0.040
-4.440E-06,0.056
-4.430E-06,0.064
-4.420E-06,0.080
-4.410E-06,0.048
-4.400E-06,-0.028
-4.390E-06,-0.096
-4.380E-06,-0.156
-4.370E-06,-0.152
-4.360E-06,-0.096
-4.350E-06,-0.024
-4.340E-06,0.020
-4.330E-06,0.008
-4.320E-06,-0.032
-4.310E-06,-0.060
-4.300E-06,-0.060
-4.290E-06,-0.028
-4.280E-06,0.004
-4.270E-06,0.024
-4.260E-06,0.032
-4.250E-06,0.000
-4.240E-06,-0.020
-4.230E-06,-0.012
-4.220E-06,-0.004
-4.210E-06,0.012
-4.200E-06,0.012
-4.190E-06,0.000
-4.180E-06,-0.004
-4.170E-06,-0.004
-4.160E-06,0.000
-4.150E-06,0.008
-4.140E-06,0.012
-4.130E-06,0.004
-4.120E-06,-0.004
-4.110E-06,-0.004
-4.100E-06,0.004
-4.090E-06,0.004
-4.080E-06,0.008
-4.070E-06,0.012
-4.060E-06,-0.008
-4.050E-06,-0.012
-4.040E-06,0.000
-4.030E-06,0.012
-4.020E-06,0.020
-4.010E-06,0.016
-4.000E-06,0.008
-3.990E-06,0.000
-3.980E-06,-0.008
-3.970E-06,-0.008
-3.960E-06,0.016
-3.950E-06,0.032
-3.940E-06,0.036
-3.930E-06,0.040
-3.920E-06,0.036
-3.910E-06,0.044
-3.900E-06,0.052
-3.890E-06,0.068
-3.880E-06,0.064
-3.870E-06,0.060
-3.860E-06,0.048
-3.850E-06,0.028
-3.840E-06,0.016
-3.830E-06,0.012
-3.820E-06,0.036
-3.810E-06,0.052
-3.800E-06,0.056
-3.790E-06,0.064
-3.780E-06,0.056
-3.770E-06,0.060
-3.760E-06,0.052
-3.750E-06,0.064
-3.740E-06,0.076
-3.730E-06,0.076
-3.720E-06,0.064
-3.710E-06,0.048
-3.700E-06,0.028
-3.690E-06,0.004
-3.680E-06,0.000
-3.670E-06,0.004
-3.660E-06,-0.040
-3.650E-06,-0.124
-3.640E-06,-0.208
-3.630E-06,-0.268
-3.620E-06,-0.252
-3.610E-06,-0.168
-3.600E-06,-0.032
-3.590E-06,0.052
-3.580E-06,0.080
-3.570E-06,0.004
-3.560E-06,-0.068
-3.550E-06,-0.124
-3.540E-06,-0.112
-3.530E-06,-0.036
-3.520E-06,0.048
-3.510E-06,0.076
-3.500E-06,0.056
-3.490E-06,0.000
-3.480E-06,-0.032
-3.470E-06,-0.032
-3.460E-06,-0.016
-3.450E-06,0.008
-3.440E-06,0.012
-3.430E-06,0.008
-3.420E-06,0.000
-3.410E-06,-0.008
-3.400E-06,0.000
-3.390E-06,-0.004
-3.380E-06,0.000
-3.370E-06,0.004
-3.360E-06,0.008
-3.350E-06,0.008
-3.340E-06,0.012
-3.330E-06,0.004
-3.320E-06,0.004
-3.310E-06,0.000
-3.300E-06,-0.004
-3.290E-06,0.004
-3.280E-06,0.004
-3.270E-06,0.008
-3.260E-06,0.008
-3.250E-06,0.012
-3.240E-06,0.012
-3.230E-06,0.016
-3.220E-06,0.008
-3.210E-06,0.008
-3.200E-06,0.012
-3.190E-06,0.004
-3.180E-06,0.008
-3.170E-06,0.016
-3.160E-06,0.008
-3.150E-06,0.016
-3.140E-06,0.016
-3.130E-06,0.020
-3.120E-06,0.016
-3.110E-06,0.024
-3.100E-06,0.032
-3.090E-06,0.028
-3.080E-06,0.024
-3.070E-06,0.032
-3.060E-06,0.024
-3.050E-06,0.024
-3.040E-06,0.032
-3.030E-06,0.032
-3.020E-06,0.040
-3.010E-06,0.044
-3.000E-06,0.044
-2.990E-06,0.048
-2.980E-06,0.044
-2.970E-06,0.048
-2.960E-06,0.040
-2.950E-06,0.044
-2.940E-06,0.048
-2.930E-06,0.048
-2.920E-06,0.064
-2.910E-06,0.076
-2.900E-06,0.080
-2.890E-06,0.076
-2.880E-06,0.076
-2.870E-06,0.076
-2.860E-06,0.080
-2.850E-06,0.096
-2.840E-06,0.116
-2.830E-06,0.124
-2.820E-06,0.112
-2.810E-06,0.108
-2.800E-06,0.088
-2.790E-06,0.040
-2.780E-06,0.004
-2.770E-06,-0.028
-2.760E-06,-0.032
-2.750E-06,-0.060
-2.740E-06,-0.076
-2.730E-06,-0.120
-2.720E-06,-0.252
-2.710E-06,-0.272
-2.700E-06,-0.284
-2.690E-06,-0.284
-2.680E-06,-0.224
-2.670E-06,-0.140
-2.660E-06,-0.004
-2.650E-06,0.040
-2.640E-06,0.060
-2.630E-06,0.056
-2.620E-06,-0.016
-2.610E-06,-0.064
-2.600E-06,-0.076
-2.590E-06,-0.016
-2.580E-06,0.068
-2.570E-06,0.108
-2.560E-06,0.076
-2.550E-06,0.040
-2.540E-06,-0.024
-2.530E-06,-0.032
-2.520E-06,-0.028
-2.510E-06,0.000
-2.500E-06,0.024
-2.490E-06,0.004
-2.480E-06,-0.008
-2.470E-06,-0.036
-2.460E-06,-0.036
-2.450E-06,-0.016
-2.440E-06,0.032
-2.430E-06,0.068
-2.420E-06,0.088
-2.410E-06,0.044
-2.400E-06,0.004
-2.390E-06,-0.020
-2.380E-06,-0.032
-2.370E-06,-0.004
-2.360E-06,0.032
-2.350E-06,0.092
-2.340E-06,0.092
-2.330E-06,0.072
-2.320E-06,0.024
-2.310E-06,-0.032
-2.300E-06,-0.076
-2.290E-06,-0.088
-2.280E-06,-0.040
-2.270E-06,0.020
-2.260E-06,0.068
-2.250E-06,0.068
-2.240E-06,0.060
-2.230E-06,-0.008
-2.220E-06,-0.040
-2.210E-06,-0.052
-2.200E-06,-0.012
-2.190E-06,0.048
-2.180E-06,0.092
-2.170E-06,0.084
-2.160E-06,0.064
-2.150E-06,0.028
-2.140E-06,0.020
-2.130E-06,0.048
-2.120E-06,0.096
-2.110E-06,0.136
-2.100E-06,0.144
-2.090E-06,0.124
-2.080E-06,0.092
-2.070E-06,0.072
-2.060E-06,0.072
-2.050E-06,0.096
-2.040E-06,0.128
-2.030E-06,0.160
-2.020E-06,0.152
-2.010E-06,0.148
-2.000E-06,0.140
-1.990E-06,0.112
-1.980E-06,0.108
-1.970E-06,0.096
-1.960E-06,0.092
-1.950E-06,0.060
-1.940E-06,0.008
-1.930E-06,-0.060
-1.920E-06,-0.136
-1.910E-06,-0.196
-1.900E-06,-0.228
-1.890E-06,-0.224
-1.880E-06,-0.140
-1.870E-06,-0.100
-1.860E-06,-0.060
-1.850E-06,-0.068
-1.840E-06,-0.084
-1.830E-06,-0.136
-1.820E-06,-0.116
-1.810E-06,-0.064
-1.800E-06,-0.004
-1.790E-06,0.060
-1.780E-06,0.060
-1.770E-06,0.052
-1.760E-06,0.000
-1.750E-06,-0.008
-1.740E-06,-0.012
-1.730E-06,0.016
-1.720E-06,0.072
-1.710E-06,0.096
-1.700E-06,0.084
-1.690E-06,0.048
-1.680E-06,0.028
-1.670E-06,0.000
-1.660E-06,0.008
-1.650E-06,0.052
-1.640E-06,0.112
-1.630E-06,0.164
-1.620E-06,0.172
-1.610E-06,0.164
-1.600E-06,0.136
-1.590E-06,0.068
-1.580E-06,0.012
-1.570E-06,-0.056
-1.560E-06,-0.100
-1.550E-06,-0.140
-1.540E-06,-0.164
-1.530E-06,-0.148
-1.520E-06,-0.124
-1.510E-06,-0.080
-1.500E-06,-0.044
-1.490E-06,0.000
-1.480E-06,0.000
-1.470E-06,-0.004
-1.460E-06,-0.004
-1.450E-06,-0.008
-1.440E-06,0.004
-1.430E-06,0.028
-1.420E-06,0.036
-1.410E-06,0.032
-1.400E-06,0.044
-1.390E-06,0.052
-1.380E-06,0.068
-1.370E-06,0.092
-1.360E-06,0.108
-1.350E-06,0.104
-1.340E-06,0.072
-1.330E-06,0.068
-1.320E-06,0.088
-1.310E-06,0.108
-1.300E-06,0.136
-1.290E-06,0.160
-1.280E-06,0.160
-1.270E-06,0.148
-1.260E-06,0.128
-1.250E-06,0.116
-1.240E-06,0.112
-1.230E-06,0.116
-1.220E-06,0.120
-1.210E-06,0.124
-1.200E-06,0.128
-1.190E-06,0.124
-1.180E-06,0.108
-1.170E-06,0.092
-1.160E-06,0.028
-1.150E-06,-0.032
-1.140E-06,-0.104
-1.130E-06,-0.108
-1.120E-06,-0.100
-1.110E-06,-0.096
-1.100E-06,-0.088
-1.090E-06,-0.104
-1.080E-06,-0.116
-1.070E-06,-0.136
-1.060E-06,-0.144
-1.050E-06,-0.128
-1.040E-06,-0.104
-1.030E-06,-0.096
-1.020E-06,-0.072
-1.010E-06,-0.064
-1.000E-06,-0.036
-9.900E-07,0.012
-9.800E-07,0.036
-9.700E-07,0.100
-9.600E-07,0.128
-9.500E-07,0.148
-9.400E-07,0.160
-9.300E-07,0.156
-9.200E-07,0.108
-9.100E-07,0.012
-9.000E-07,-0.088
-8.900E-07,-0.176
-8.800E-07,-0.228
-8.700E-07,-0.232
-8.600E-07,-0.216
-8.500E-07,-0.212
-8.400E-07,-0.152
-8.300E-07,-0.140
-8.200E-07,-0.136
-8.100E-07,-0.120
-8.000E-07,-0.128
-7.900E-07,-0.108
-7.800E-07,-0.104
-7.700E-07,-0.072
-7.600E-07,-0.048
-7.500E-07,-0.020
-7.400E-07,0.008
-7.300E-07,-0.004
-7.200E-07,0.024
-7.100E-07,0.004
-7.000E-07,-0.004
-6.900E-07,-0.028
-6.800E-07,-0.020
-6.700E-07,0.012
-6.600E-07,0.040
-6.500E-07,0.064
-6.400E-07,0.040
-6.300E-07,0.020
-6.200E-07,0.008
-6.100E-07,0.012
-6.000E-07,0.032
-5.900E-07,0.080
-5.800E-07,0.108
-5.700E-07,0.108
-5.600E-07,0.108
-5.500E-07,0.088
-5.400E-07,0.076
-5.300E-07,0.072
-5.200E-07,0.084
-5.100E-07,0.096
-5.000E-07,0.116
-4.900E-07,0.128
-4.800E-07,0.120
-4.700E-07,0.112
-4.600E-07,0.112
-4.500E-07,0.120
-4.400E-07,0.128
-4.300E-07,0.152
-4.200E-07,0.160
-4.100E-07,0.164
-4.000E-07,0.160
-3.900E-07,0.152
-3.800E-07,0.144
-3.700E-07,0.136
-3.600E-07,0.140
-3.500E-07,0.148
-3.400E-07,0.144
-3.300E-07,0.152
-3.200E-07,0.156
-3.100E-07,0.152
-3.000E-07,0.148
-2.900E-07,0.140
-2.800E-07,0.140
-2.700E-07,0.136
-2.600E-07,0.148
-2.500E-07,0.152
-2.400E-07,0.164
-2.300E-07,0.156
-2.200E-07,0.140
-2.100E-07,0.112
-2.000E-07,0.076
-1.900E-07,0.052
-1.800E-07,0.052
-1.700E-07,0.056
-1.600E-07,0.076
-1.500E-07,0.108
-1.400E-07,0.160
-1.300E-07,0.156
-1.200E-07,0.144
-1.100E-07,0.088
-1.000E-07,-0.004
-9.000E-08,-0.088
-8.000E-08,-0.108
-7.000E-08,-0.172
-6.000E-08,-0.312
-5.000E-08,-0.448
-4.000E-08,-0.504
-3.000E-08,-0.480
-2.000E-08,-0.236
-1.000E-08,0.088
0.000E+00,0.376
1.000E-08,0.464
2.000E-08,0.288
3.000E-08,-0.096
4.000E-08,-0.396
5.000E-08,-0.508
6.000E-08,-0.448
7.000E-08,-0.248
8.000E-08,0.004
9.000E-08,0.072
1.000E-07,0.012
1.100E-07,-0.124
1.200E-07,-0.252
1.300E-07,-0.276
1.400E-07,-0.248
1.500E-07,-0.060
1.600E-07,0.032
1.700E-07,0.100
1.800E-07,0.092
1.900E-07,0.028
2.000E-07,-0.032
2.100E-07,-0.064
2.200E-07,-0.032
2.300E-07,0.036
2.400E-07,0.096
2.500E-07,0.152
2.600E-07,0.172
2.700E-07,0.168
2.800E-07,0.140
2.900E-07,0.116
3.000E-07,0.108
3.100E-07,0.132
3.200E-07,0.168
3.300E-07,0.204
3.400E-07,0.216
3.500E-07,0.196
3.600E-07,0.172
3.700E-07,0.144
3.800E-07,0.140
3.900E-07,0.164
4.000E-07,0.180
4.100E-07,0.200
4.200E-07,0.204
4.300E-07,0.192
4.400E-07,0.176
4.500E-07,0.160
4.600E-07,0.152
4.700E-07,0.156
4.800E-07,0.160
4.900E-07,0.180
5.000E-07,0.192
5.100E-07,0.188
5.200E-07,0.172
5.300E-07,0.160
5.400E-07,0.156
5.500E-07,0.152
5.600E-07,0.160
5.700E-07,0.172
5.800E-07,0.176
5.900E-07,0.176
6.000E-07,0.160
6.100E-07,0.144
6.200E-07,0.136
6.300E-07,0.124
6.400E-07,0.108
6.500E-07,0.096
6.600E-07,0.084
6.700E-07,0.068
6.800E-07,0.052
6.900E-07,0.056
7.000E-07,0.060
7.100E-07,0.064
7.200E-07,0.064
7.300E-07,0.068
7.400E-07,0.092
7.500E-07,0.132
7.600E-07,0.160
7.700E-07,0.168
7.800E-07,0.148
7.900E-07,0.116
8.000E-07,0.080
8.100E-07,0.052
8.200E-07,0.056
8.300E-07,0.092
8.400E-07,0.124
8.500E-07,0.128
8.600E-07,0.120
8.700E-07,0.088
8.800E-07,0.060
8.900E-07,0.024
9.000E-07,0.020
9.100E-07,0.032
9.200E-07,0.064
9.300E-07,0.108
9.400E-07,0.140
9.500E-07,0.168
9.600E-07,0.180
9.700E-07,0.176
9.800E-07,0.160
9.900E-07,0.156
1.000E-06,0.156
1.010E-06,0.164
1.020E-06,0.164
1.030E-06,0.164
1.040E-06,0.168
1.050E-06,0.164
1.060E-06,0.156
1.070E-06,0.152
1.080E-06,0.156
1.090E-06,0.156
1.100E-06,0.156
1.110E-06,0.160
1.120E-06,0.164
1.130E-06,0.156
1.140E-06,0.156
1.150E-06,0.160
1.160E-06,0.160
1.170E-06,0.156
1.180E-06,0.168
1.190E-06,0.176
1.200E-06,0.172
1.210E-06,0.172
1.220E-06,0.156
1.230E-06,0.156
1.240E-06,0.160
1.250E-06,0.156
1.260E-06,0.156
1.270E-06,0.164
1.280E-06,0.164
1.290E-06,0.164
1.300E-06,0.156
1.310E-06,0.152
1.320E-06,0.152
1.330E-06,0.156
1.340E-06,0.160
1.350E-06,0.164
1.360E-06,0.164
1.370E-06,0.160
1.380E-06,0.156
1.390E-06,0.160
1.400E-06,0.152
1.410E-06,0.152
1.420E-06,0.160
1.430E-06,0.156
1.440E-06,0.160
1.450E-06,0.152
1.460E-06,0.148
1.470E-06,0.152
1.480E-06,0.148
1.490E-06,0.148
1.500E-06,0.152
1.510E-06,0.160
1.520E-06,0.160
1.530E-06,0.152
1.540E-06,0.152
1.550E-06,0.152
1.560E-06,0.144
1.570E-06,0.144
1.580E-06,0.148
1.590E-06,0.148
1.600E-06,0.144
1.610E-06,0.148
1.620E-06,0.148
1.630E-06,0.148
1.640E-06,0.140
1.650E-06,0.144
1.660E-06,0.144
1.670E-06,0.144
1.680E-06,0.144
1.690E-06,0.144
1.700E-06,0.144
1.710E-06,0.140
1.720E-06,0.144
1.730E-06,0.148
1.740E-06,0.144
1.750E-06,0.140
1.760E-06,0.140
1.770E-06,0.144
1.780E-06,0.148
1.790E-06,0.140
1.800E-06,0.140
1.810E-06,0.144
1.820E-06,0.144
1.830E-06,0.144
1.840E-06,0.144
1.850E-06,0.144
1.860E-06,0.144
1.870E-06,0.144
1.880E-06,0.140
1.890E-06,0.144
1.900E-06,0.148
1.910E-06,0.140
1.920E-06,0.144
1.930E-06,0.144
1.940E-06,0.144
1.950E-06,0.144
1.960E-06,0.148
1.970E-06,0.140
1.980E-06,0.136
1.990E-06,0.144
2.000E-06,0.144
2.010E-06,0.140
2.020E-06,0.144
2.030E-06,0.140
2.040E-06,0.140
2.050E-06,0.140
2.060E-06,0.140
2.070E-06,0.140
2.080E-06,0.140
2.090E-06,0.140
2.100E-06,0.140
2.110E-06,0.144
2.120E-06,0.140
2.130E-06,0.132
2.140E-06,0.128
2.150E-06,0.132
2.160E-06,0.136
2.170E-06,0.136
2.180E-06,0.136
2.190E-06,0.132
2.200E-06,0.132
2.210E-06,0.128
2.220E-06,0.132
2.230E-06,0.132
2.240E-06,0.136
2.250E-06,0.136
2.260E-06,0.136
2.270E-06,0.136
2.280E-06,0.132
2.290E-06,0.128
2.300E-06,0.132
2.310E-06,0.132
2.320E-06,0.132
2.330E-06,0.132
2.340E-06,0.132
2.350E-06,0.136
2.360E-06,0.132
2.370E-06,0.132
2.380E-06,0.136
2.390E-06,0.136
2.400E-06,0.136
2.410E-06,0.132
2.420E-06,0.132
2.430E-06,0.128
2.440E-06,0.128
2.450E-06,0.128
2.460E-06,0.132
2.470E-06,0.136
2.480E-06,0.136
2.490E-06,0.128
2.500E-06,0.128
2.510E-06,0.124
2.520E-06,0.128
2.530E-06,0.132
2.540E-06,0.128
2.550E-06,0.128
2.560E-06,0.128
2.570E-06,0.124
2.580E-06,0.128
2.590E-06,0.128
2.600E-06,0.128
2.610E-06,0.124
2.620E-06,0.124
2.630E-06,0.124
2.640E-06,0.124
2.650E-06,0.124
2.660E-06,0.124
2.670E-06,0.124
2.680E-06,0.124
2.690E-06,0.124
2.700E-06,0.120
2.710E-06,0.112
2.720E-06,0.108
2.730E-06,0.116
2.740E-06,0.116
2.750E-06,0.120
2.760E-06,0.120
2.770E-06,0.124
2.780E-06,0.120
2.790E-06,0.116
2.800E-06,0.112
2.810E-06,0.120
2.820E-06,0.124
2.830E-06,0.124
2.840E-06,0.120
2.850E-06,0.120
2.860E-06,0.112
2.870E-06,0.112
2.880E-06,0.112
2.890E-06,0.120
2.900E-06,0.120
2.910E-06,0.120
2.920E-06,0.116
2.930E-06,0.108
2.940E-06,0.108
2.950E-06,0.108
2.960E-06,0.112
2.970E-06,0.108
2.980E-06,0.108
2.990E-06,0.108
3.000E-06,0.108
3.010E-06,0.108
3.020E-06,0.108
3.030E-06,0.112
3.040E-06,0.112
3.050E-06,0.112
3.060E-06,0.104
3.070E-06,0.108
3.080E-06,0.108
3.090E-06,0.108
3.100E-06,0.108
3.110E-06,0.108
3.120E-06,0.108
3.130E-06,0.108
3.140E-06,0.108
3.150E-06,0.108
3.160E-06,0.104
3.170E-06,0.108
3.180E-06,0.108
3.190E-06,0.108
3.200E-06,0.104
3.210E-06,0.100
3.220E-06,0.104
3.230E-06,0.100
3.240E-06,0.096
3.250E-06,0.100
3.260E-06,0.100
3.270E-06,0.100
3.280E-06,0.104
3.290E-06,0.100
3.300E-06,0.096
3.310E-06,0.104
3.320E-06,0.104
3.330E-06,0.100
3.340E-06,0.108
3.350E-06,0.104
3.360E-06,0.108
3.370E-06,0.104
3.380E-06,0.100
3.390E-06,0.100
3.400E-06,0.104
3.410E-06,0.104
3.420E-06,0.096
3.430E-06,0.096
3.440E-06,0.100
3.450E-06,0.100
3.460E-06,0.096
3.470E-06,0.092
3.480E-06,0.096
3.490E-06,0.092
3.500E-06,0.092
3.510E-06,0.092
3.520E-06,0.092
3.530E-06,0.088
3.540E-06,0.088
3.550E-06,0.088
3.560E-06,0.092
3.570E-06,0.092
3.580E-06,0.096
3.590E-06,0.088
3.600E-06,0.092
3.610E-06,0.092
3.620E-06,0.088
3.630E-06,0.088
3.640E-06,0.092
3.650E-06,0.088
3.660E-06,0.092
3.670E-06,0.092
3.680E-06,0.088
3.690E-06,0.088
3.700E-06,0.088
3.710E-06,0.092
3.720E-06,0.092
3.730E-06,0.088
3.740E-06,0.092
3.750E-06,0.088
3.760E-06,0.088
3.770E-06,0.084
3.780E-06,0.084
3.790E-06,0.092
3.800E-06,0.092
3.810E-06,0.092
3.820E-06,0.088
3.830E-06,0.088
3.840E-06,0.088
3.850E-06,0.088
3.860E-06,0.088
3.870E-06,0.088
3.880E-06,0.088
3.890E-06,0.088
3.900E-06,0.084
3.910E-06,0.084
3.920E-06,0.088
3.930E-06,0.084
3.940E-06,0.080
3.950E-06,0.080
3.960E-06,0.084
3.970E-06,0.084
3.980E-06,0.080
3.990E-06,0.076
4.000E-06,0.076
4.010E-06,0.076
4.020E-06,0.076
4.030E-06,0.080
4.040E-06,0.080
4.050E-06,0.076
4.060E-06,0.076
4.070E-06,0.076
4.080E-06,0.076
4.090E-06,0.080
4.100E-06,0.080
4.110E-06,0.076
4.120E-06,0.076
4.130E-06,0.080
4.140E-06,0.080
4.150E-06,0.076
4.160E-06,0.080
4.170E-06,0.072
4.180E-06,0.076
4.190E-06,0.072
4.200E-06,0.072
4.210E-06,0.076
4.220E-06,0.076
4.230E-06,0.072
4.240E-06,0.072
4.250E-06,0.072
4.260E-06,0.072
4.270E-06,0.072
4.280E-06,0.072
4.290E-06,0.068
4.300E-06,0.068
4.310E-06,0.072
4.320E-06,0.072
4.330E-06,0.068
4.340E-06,0.068
4.350E-06,0.068
4.360E-06,0.072
4.370E-06,0.068
4.380E-06,0.068
4.390E-06,0.068
4.400E-06,0.072
4.410E-06,0.064
4.420E-06,0.068
4.430E-06,0.064
4.440E-06,0.068
4.450E-06,0.068
4.460E-06,0.064
4.470E-06,0.064
4.480E-06,0.060
4.490E-06,0.060
4.500E-06,0.060
4.510E-06,0.060
4.520E-06,0.060
4.530E-06,0.064
4.540E-06,0.060
4.550E-06,0.064
4.560E-06,0.060
4.570E-06,0.056
4.580E-06,0.064
4.590E-06,0.060
4.600E-06,0.060
4.610E-06,0.064
4.620E-06,0.060
4.630E-06,0.056
4.640E-06,0.060
4.650E-06,0.060
4.660E-06,0.060
4.670E-06,0.056
4.680E-06,0.056
4.690E-06,0.056
4.700E-06,0.060
4.710E-06,0.056
4.720E-06,0.060
4.730E-06,0.060
4.740E-06,0.056
4.750E-06,0.060
4.760E-06,0.056
4.770E-06,0.056
4.780E-06,0.060
4.790E-06,0.060
4.800E-06,0.056
4.810E-06,0.056
4.820E-06,0.052
4.830E-06,0.056
4.840E-06,0.056
4.850E-06,0.052
4.860E-06,0.056
4.870E-06,0.052
4.880E-06,0.044
4.890E-06,0.052
4.900E-06,0.048
4.910E-06,0.052
4.920E-06,0.048
4.930E-06,0.048
4.940E-06,0.048
4.950E-06,0.044
4.960E-06,0.048
4.970E-06,0.052
4.980E-06,0.048
4.990E-06,0.052
5.000E-06,0.048
5.010E-06,0.048
5.020E-06,0.044
5.030E-06,0.044
5.040E-06,0.044
5.050E-06,0.048
5.060E-06,0.044
5.070E-06,0.044
5.080E-06,0.044
5.090E-06,0.044
5.100E-06,0.048
5.110E-06,0.044
5.120E-06,0.044
5.130E-06,0.040
5.140E-06,0.044
5.150E-06,0.044
5.160E-06,0.044
5.170E-06,0.044
5.180E-06,0.044
5.190E-06,0.044
5.200E-06,0.040
5.210E-06,0.048
5.220E-06,0.048
5.230E-06,0.044
5.240E-06,0.048
5.250E-06,0.040
5.260E-06,0.040
5.270E-06,0.044
5.280E-06,0.044
5.290E-06,0.040
5.300E-06,0.044
5.310E-06,0.044
5.320E-06,0.048
5.330E-06,0.048
5.340E-06,0.044
5.350E-06,0.052
5.360E-06,0.048
5.370E-06,0.044
5.380E-06,0.044
5.390E-06,0.048
5.400E-06,0.040
5.410E-06,0.044
5.420E-06,0.040
5.430E-06,0.044
5.440E-06,0.040
5.450E-06,0.036
5.460E-06,0.032
5.470E-06,0.028
5.480E-06,0.032
5.490E-06,0.028
5.500E-06,0.032
5.510E-06,0.036
5.520E-06,0.024
5.530E-06,0.032
5.540E-06,0.032
5.550E-06,0.032
5.560E-06,0.036
5.570E-06,0.032
5.580E-06,0.024
5.590E-06,0.024
5.600E-06,0.028
5.610E-06,0.036
5.620E-06,0.028
5.630E-06,0.028
5.640E-06,0.032
5.650E-06,0.028
5.660E-06,0.032
5.670E-06,0.028
5.680E-06,0.024
5.690E-06,0.028
5.700E-06,0.032
5.710E-06,0.024
5.720E-06,0.028
5.730E-06,0.032
5.740E-06,0.032
5.750E-06,0.024
5.760E-06,0.028
5.770E-06,0.028
5.780E-06,0.024
5.790E-06,0.024
5.800E-06,0.028
5.810E-06,0.028
5.820E-06,0.028
5.830E-06,0.028
5.840E-06,0.028
5.850E-06,0.028
5.860E-06,0.028
5.870E-06,0.024
5.880E-06,0.024
5.890E-06,0.028
5.900E-06,0.028
5.910E-06,0.028
5.920E-06,0.028
5.930E-06,0.028
5.940E-06,0.028
5.950E-06,0.028
5.960E-06,0.028
5.970E-06,0.028
5.980E-06,0.028
5.990E-06,0.020
6.000E-06,0.020
6.010E-06,0.024
6.020E-06,0.020
6.030E-06,0.020
6.040E-06,0.024
6.050E-06,0.020
6.060E-06,0.020
6.070E-06,0.020
6.080E-06,0.020
6.090E-06,0.024
6.100E-06,0.024
6.110E-06,0.020
6.120E-06,0.016
6.130E-06,0.020
6.140E-06,0.020
6.150E-06,0.024
6.160E-06,0.020
6.170E-06,0.020
6.180E-06,0.020
6.190E-06,0.024
6.200E-06,0.020
6.210E-06,0.012
6.220E-06,0.020
6.230E-06,0.016
6.240E-06,0.024
6.250E-06,0.016
6.260E-06,0.024
6.270E-06,0.012
6.280E-06,0.016
6.290E-06,0.016
6.300E-06,0.012
6.310E-06,0.016
6.320E-06,0.008
6.330E-06,0.012
6.340E-06,0.016
