mediciones/mediciones removidas por ser diferentes/1000V/2/WaveData5621.csv

#timebase=2000000(ps)
,#voltbase=100000(mv/100)
#size=4000
-4.200E-06,-0.196
-4.190E-06,-0.236
-4.180E-06,-0.132
-4.170E-06,0.028
-4.160E-06,0.152
-4.150E-06,0.192
-4.140E-06,0.136
-4.130E-06,0.004
-4.120E-06,-0.120
-4.110E-06,-0.140
-4.100E-06,-0.136
-4.090E-06,-0.024
-4.080E-06,0.104
-4.070E-06,0.160
-4.060E-06,0.132
-4.050E-06,0.012
-4.040E-06,-0.104
-4.030E-06,-0.164
-4.020E-06,-0.104
-4.010E-06,-0.024
-4.000E-06,0.080
-3.990E-06,0.120
-3.980E-06,0.092
-3.970E-06,0.028
-3.960E-06,-0.052
-3.950E-06,-0.096
-3.940E-06,-0.084
-3.930E-06,-0.016
-3.920E-06,0.044
-3.910E-06,0.096
-3.900E-06,0.092
-3.890E-06,0.040
-3.880E-06,-0.024
-3.870E-06,-0.064
-3.860E-06,-0.064
-3.850E-06,-0.016
-3.840E-06,0.028
-3.830E-06,0.076
-3.820E-06,0.080
-3.810E-06,0.048
-3.800E-06,0.012
-3.790E-06,-0.024
-3.780E-06,-0.032
-3.770E-06,-0.008
-3.760E-06,0.032
-3.750E-06,0.056
-3.740E-06,0.072
-3.730E-06,0.064
-3.720E-06,0.032
-3.710E-06,0.008
-3.700E-06,0.004
-3.690E-06,0.012
-3.680E-06,0.056
-3.670E-06,0.084
-3.660E-06,0.112
-3.650E-06,0.104
-3.640E-06,-0.052
-3.630E-06,-0.144
-3.620E-06,-0.360
-3.610E-06,-0.236
-3.600E-06,-0.044
-3.590E-06,0.068
-3.580E-06,0.192
-3.570E-06,0.180
-3.560E-06,0.124
-3.550E-06,-0.092
-3.540E-06,-0.272
-3.530E-06,-0.204
-3.520E-06,-0.040
-3.510E-06,0.172
-3.500E-06,0.256
-3.490E-06,0.136
-3.480E-06,0.016
-3.470E-06,-0.104
-3.460E-06,-0.152
-3.450E-06,-0.136
-3.440E-06,-0.052
-3.430E-06,0.064
-3.420E-06,0.128
-3.410E-06,0.128
-3.400E-06,0.056
-3.390E-06,-0.032
-3.380E-06,-0.104
-3.370E-06,-0.120
-3.360E-06,-0.068
-3.350E-06,0.020
-3.340E-06,0.108
-3.330E-06,0.120
-3.320E-06,0.068
-3.310E-06,-0.012
-3.300E-06,-0.076
-3.290E-06,-0.096
-3.280E-06,-0.052
-3.270E-06,0.024
-3.260E-06,0.096
-3.250E-06,0.124
-3.240E-06,0.100
-3.230E-06,0.020
-3.220E-06,-0.036
-3.210E-06,-0.056
-3.200E-06,-0.020
-3.190E-06,0.028
-3.180E-06,0.124
-3.170E-06,0.108
-3.160E-06,0.124
-3.150E-06,0.040
-3.140E-06,-0.020
-3.130E-06,-0.080
-3.120E-06,-0.068
-3.110E-06,0.016
-3.100E-06,0.076
-3.090E-06,0.104
-3.080E-06,0.116
-3.070E-06,0.080
-3.060E-06,0.024
-3.050E-06,-0.012
-3.040E-06,-0.036
-3.030E-06,-0.024
-3.020E-06,0.000
-3.010E-06,0.068
-3.000E-06,0.008
-2.990E-06,-0.056
-2.980E-06,-0.072
-2.970E-06,-0.180
-2.960E-06,-0.136
-2.950E-06,-0.024
-2.940E-06,0.144
-2.930E-06,0.144
-2.920E-06,0.152
-2.910E-06,0.056
-2.900E-06,-0.064
-2.890E-06,-0.172
-2.880E-06,-0.236
-2.870E-06,-0.204
-2.860E-06,-0.100
-2.850E-06,0.152
-2.840E-06,0.164
-2.830E-06,-0.036
-2.820E-06,0.024
-2.810E-06,-0.120
-2.800E-06,-0.124
-2.790E-06,-0.164
-2.780E-06,-0.036
-2.770E-06,0.152
-2.760E-06,0.236
-2.750E-06,0.180
-2.740E-06,-0.052
-2.730E-06,-0.076
-2.720E-06,-0.152
-2.710E-06,-0.180
-2.700E-06,-0.104
-2.690E-06,0.024
-2.680E-06,0.108
-2.670E-06,0.156
-2.660E-06,0.124
-2.650E-06,0.024
-2.640E-06,-0.060
-2.630E-06,-0.104
-2.620E-06,-0.088
-2.610E-06,-0.028
-2.600E-06,0.060
-2.590E-06,0.092
-2.580E-06,0.100
-2.570E-06,0.044
-2.560E-06,-0.012
-2.550E-06,-0.072
-2.540E-06,-0.068
-2.530E-06,-0.020
-2.520E-06,0.028
-2.510E-06,0.072
-2.500E-06,0.092
-2.490E-06,0.056
-2.480E-06,0.012
-2.470E-06,-0.028
-2.460E-06,-0.052
-2.450E-06,-0.020
-2.440E-06,0.024
-2.430E-06,0.076
-2.420E-06,0.100
-2.410E-06,0.104
-2.400E-06,0.044
-2.390E-06,0.012
-2.380E-06,-0.012
-2.370E-06,-0.024
-2.360E-06,0.012
-2.350E-06,0.032
-2.340E-06,0.072
-2.330E-06,0.060
-2.320E-06,0.008
-2.310E-06,-0.032
-2.300E-06,-0.036
-2.290E-06,-0.012
-2.280E-06,0.016
-2.270E-06,0.088
-2.260E-06,0.096
-2.250E-06,0.096
-2.240E-06,-0.016
-2.230E-06,-0.124
-2.220E-06,-0.196
-2.210E-06,-0.112
-2.200E-06,-0.108
-2.190E-06,0.056
-2.180E-06,0.072
-2.170E-06,0.072
-2.160E-06,0.000
-2.150E-06,-0.124
-2.140E-06,-0.104
-2.130E-06,-0.024
-2.120E-06,0.004
-2.110E-06,0.076
-2.100E-06,0.104
-2.090E-06,0.084
-2.080E-06,0.000
-2.070E-06,-0.052
-2.060E-06,-0.076
-2.050E-06,-0.056
-2.040E-06,0.028
-2.030E-06,0.088
-2.020E-06,0.092
-2.010E-06,0.056
-2.000E-06,-0.012
-1.990E-06,-0.032
-1.980E-06,-0.052
-1.970E-06,-0.032
-1.960E-06,0.012
-1.950E-06,0.064
-1.940E-06,0.072
-1.930E-06,0.012
-1.920E-06,-0.032
-1.910E-06,-0.056
-1.900E-06,-0.032
-1.890E-06,0.024
-1.880E-06,0.068
-1.870E-06,0.072
-1.860E-06,0.044
-1.850E-06,0.020
-1.840E-06,-0.008
-1.830E-06,-0.008
-1.820E-06,0.016
-1.810E-06,0.060
-1.800E-06,0.088
-1.790E-06,0.092
-1.780E-06,0.056
-1.770E-06,0.016
-1.760E-06,-0.004
-1.750E-06,-0.020
-1.740E-06,-0.008
-1.730E-06,0.024
-1.720E-06,0.080
-1.710E-06,0.104
-1.700E-06,0.100
-1.690E-06,0.068
-1.680E-06,-0.004
-1.670E-06,-0.072
-1.660E-06,-0.152
-1.650E-06,-0.212
-1.640E-06,-0.196
-1.630E-06,-0.108
-1.620E-06,-0.028
-1.610E-06,0.044
-1.600E-06,0.068
-1.590E-06,0.024
-1.580E-06,-0.008
-1.570E-06,-0.056
-1.560E-06,-0.100
-1.550E-06,-0.088
-1.540E-06,-0.004
-1.530E-06,0.056
-1.520E-06,0.092
-1.510E-06,0.068
-1.500E-06,0.028
-1.490E-06,-0.020
-1.480E-06,-0.052
-1.470E-06,-0.040
-1.460E-06,-0.008
-1.450E-06,0.024
-1.440E-06,0.064
-1.430E-06,0.076
-1.420E-06,0.044
-1.410E-06,0.024
-1.400E-06,-0.012
-1.390E-06,-0.032
-1.380E-06,-0.004
-1.370E-06,0.048
-1.360E-06,0.080
-1.350E-06,0.100
-1.340E-06,0.092
-1.330E-06,0.048
-1.320E-06,-0.004
-1.310E-06,-0.048
-1.300E-06,-0.060
-1.290E-06,-0.040
-1.280E-06,-0.012
-1.270E-06,0.008
-1.260E-06,0.044
-1.250E-06,0.032
-1.240E-06,0.012
-1.230E-06,-0.020
-1.220E-06,-0.036
-1.210E-06,-0.004
-1.200E-06,0.028
-1.190E-06,0.076
-1.180E-06,0.092
-1.170E-06,0.068
-1.160E-06,0.036
-1.150E-06,0.028
-1.140E-06,0.020
-1.130E-06,0.024
-1.120E-06,0.048
-1.110E-06,0.064
-1.100E-06,0.088
-1.090E-06,0.092
-1.080E-06,0.108
-1.070E-06,0.064
-1.060E-06,0.056
-1.050E-06,-0.024
-1.040E-06,-0.036
-1.030E-06,-0.120
-1.020E-06,-0.160
-1.010E-06,-0.164
-1.000E-06,-0.128
-9.900E-07,-0.048
-9.800E-07,0.008
-9.700E-07,0.020
-9.600E-07,-0.008
-9.500E-07,-0.036
-9.400E-07,-0.044
-9.300E-07,-0.052
-9.200E-07,-0.044
-9.100E-07,-0.012
-9.000E-07,0.032
-8.900E-07,0.028
-8.800E-07,0.020
-8.700E-07,-0.008
-8.600E-07,-0.024
-8.500E-07,0.004
-8.400E-07,0.024
-8.300E-07,0.040
-8.200E-07,0.024
-8.100E-07,0.020
-8.000E-07,0.020
-7.900E-07,0.000
-7.800E-07,-0.020
-7.700E-07,0.024
-7.600E-07,0.072
-7.500E-07,0.072
-7.400E-07,0.052
-7.300E-07,0.040
-7.200E-07,0.044
-7.100E-07,0.056
-7.000E-07,0.088
-6.900E-07,0.072
-6.800E-07,0.064
-6.700E-07,0.056
-6.600E-07,0.032
-6.500E-07,0.020
-6.400E-07,0.004
-6.300E-07,0.032
-6.200E-07,0.020
-6.100E-07,0.016
-6.000E-07,0.008
-5.900E-07,-0.052
-5.800E-07,-0.056
-5.700E-07,-0.052
-5.600E-07,-0.032
-5.500E-07,-0.028
-5.400E-07,-0.012
-5.300E-07,-0.008
-5.200E-07,-0.020
-5.100E-07,-0.040
-5.000E-07,-0.004
-4.900E-07,0.008
-4.800E-07,0.012
-4.700E-07,0.004
-4.600E-07,0.048
-4.500E-07,0.060
-4.400E-07,0.060
-4.300E-07,0.060
-4.200E-07,0.044
-4.100E-07,0.048
-4.000E-07,0.048
-3.900E-07,0.068
-3.800E-07,0.072
-3.700E-07,0.092
-3.600E-07,0.100
-3.500E-07,0.092
-3.400E-07,0.084
-3.300E-07,0.032
-3.200E-07,0.024
-3.100E-07,0.032
-3.000E-07,0.088
-2.900E-07,0.120
-2.800E-07,0.124
-2.700E-07,0.108
-2.600E-07,0.088
-2.500E-07,0.088
-2.400E-07,0.080
-2.300E-07,0.084
-2.200E-07,0.120
-2.100E-07,0.112
-2.000E-07,0.128
-1.900E-07,0.116
-1.800E-07,0.096
-1.700E-07,0.072
-1.600E-07,0.024
-1.500E-07,-0.012
-1.400E-07,0.024
-1.300E-07,0.076
-1.200E-07,0.176
-1.100E-07,0.152
-1.000E-07,0.184
-9.000E-08,0.128
-8.000E-08,-0.036
-7.000E-08,-0.328
-6.000E-08,-0.408
-5.000E-08,-0.496
-4.000E-08,-0.424
-3.000E-08,-0.428
-2.000E-08,-0.132
-1.000E-08,0.360
0.000E+00,0.452
1.000E-08,0.488
2.000E-08,0.196
3.000E-08,-0.444
4.000E-08,-0.508
5.000E-08,-0.508
6.000E-08,-0.496
7.000E-08,-0.088
8.000E-08,0.436
9.000E-08,0.540
1.000E-07,0.360
1.100E-07,0.036
1.200E-07,-0.500
1.300E-07,-0.508
1.400E-07,-0.336
1.500E-07,0.052
1.600E-07,0.396
1.700E-07,0.532
1.800E-07,0.380
1.900E-07,0.080
2.000E-07,-0.156
2.100E-07,-0.284
2.200E-07,-0.204
2.300E-07,0.024
2.400E-07,0.228
2.500E-07,0.320
2.600E-07,0.272
2.700E-07,0.096
2.800E-07,-0.120
2.900E-07,-0.200
3.000E-07,-0.136
3.100E-07,0.028
3.200E-07,0.196
3.300E-07,0.296
3.400E-07,0.224
3.500E-07,0.128
3.600E-07,-0.036
3.700E-07,-0.112
3.800E-07,-0.088
3.900E-07,-0.004
4.000E-07,0.124
4.100E-07,0.212
4.200E-07,0.228
4.300E-07,0.152
4.400E-07,0.056
4.500E-07,-0.028
4.600E-07,-0.028
4.700E-07,0.008
4.800E-07,0.088
4.900E-07,0.184
5.000E-07,0.220
5.100E-07,0.188
5.200E-07,0.128
5.300E-07,0.092
5.400E-07,0.068
5.500E-07,0.092
5.600E-07,0.148
5.700E-07,0.196
5.800E-07,0.212
5.900E-07,0.196
6.000E-07,0.112
6.100E-07,-0.048
6.200E-07,-0.196
6.300E-07,-0.324
6.400E-07,-0.272
6.500E-07,-0.284
6.600E-07,-0.248
6.700E-07,-0.204
6.800E-07,-0.248
6.900E-07,-0.140
7.000E-07,-0.188
7.100E-07,-0.308
7.200E-07,-0.320
7.300E-07,-0.188
7.400E-07,0.028
7.500E-07,0.180
7.600E-07,0.192
7.700E-07,0.316
7.800E-07,-0.040
7.900E-07,-0.080
8.000E-07,-0.248
8.100E-07,-0.260
8.200E-07,-0.176
8.300E-07,0.048
8.400E-07,0.244
8.500E-07,0.308
8.600E-07,0.204
8.700E-07,0.024
8.800E-07,-0.164
8.900E-07,-0.256
9.000E-07,-0.084
9.100E-07,0.012
9.200E-07,0.180
9.300E-07,0.240
9.400E-07,0.192
9.500E-07,0.044
9.600E-07,-0.120
9.700E-07,-0.204
9.800E-07,-0.120
9.900E-07,-0.008
1.000E-06,0.196
1.010E-06,0.208
1.020E-06,0.232
1.030E-06,0.072
1.040E-06,0.048
1.050E-06,0.040
1.060E-06,-0.104
1.070E-06,0.012
1.080E-06,0.140
1.090E-06,0.288
1.100E-06,0.276
1.110E-06,0.176
1.120E-06,0.056
1.130E-06,-0.068
1.140E-06,-0.020
1.150E-06,0.052
1.160E-06,0.156
1.170E-06,0.260
1.180E-06,0.288
1.190E-06,0.240
1.200E-06,0.140
1.210E-06,0.088
1.220E-06,0.056
1.230E-06,0.104
1.240E-06,0.180
1.250E-06,0.268
1.260E-06,0.300
1.270E-06,0.268
1.280E-06,0.196
1.290E-06,0.128
1.300E-06,0.104
1.310E-06,0.100
1.320E-06,0.156
1.330E-06,0.220
1.340E-06,0.248
1.350E-06,0.220
1.360E-06,0.156
1.370E-06,0.092
1.380E-06,0.028
1.390E-06,0.028
1.400E-06,0.048
1.410E-06,0.060
1.420E-06,0.028
1.430E-06,-0.084
1.440E-06,-0.176
1.450E-06,-0.144
1.460E-06,-0.008
1.470E-06,0.160
1.480E-06,0.296
1.490E-06,0.504
1.500E-06,0.172
1.510E-06,-0.216
1.520E-06,-0.512
1.530E-06,-0.512
1.540E-06,-0.512
1.550E-06,-0.512
1.560E-06,-0.396
1.570E-06,-0.104
1.580E-06,0.008
1.590E-06,-0.196
1.600E-06,-0.212
1.610E-06,-0.160
1.620E-06,-0.168
1.630E-06,-0.096
1.640E-06,-0.080
1.650E-06,0.040
1.660E-06,-0.028
1.670E-06,0.024
1.680E-06,-0.064
1.690E-06,-0.080
1.700E-06,-0.032
1.710E-06,0.028
1.720E-06,0.192
1.730E-06,0.288
1.740E-06,0.256
1.750E-06,0.188
1.760E-06,0.076
1.770E-06,0.040
1.780E-06,0.072
1.790E-06,0.144
1.800E-06,0.256
1.810E-06,0.308
1.820E-06,0.316
1.830E-06,0.272
1.840E-06,0.208
1.850E-06,0.124
1.860E-06,0.096
1.870E-06,0.128
1.880E-06,0.192
1.890E-06,0.268
1.900E-06,0.284
1.910E-06,0.272
1.920E-06,0.196
1.930E-06,0.152
1.940E-06,0.112
1.950E-06,0.140
1.960E-06,0.172
1.970E-06,0.228
1.980E-06,0.264
1.990E-06,0.256
2.000E-06,0.220
2.010E-06,0.160
2.020E-06,0.140
2.030E-06,0.124
2.040E-06,0.164
2.050E-06,0.208
2.060E-06,0.244
2.070E-06,0.240
2.080E-06,0.224
2.090E-06,0.168
2.100E-06,0.112
2.110E-06,0.068
2.120E-06,0.076
2.130E-06,0.092
2.140E-06,0.120
2.150E-06,0.176
2.160E-06,0.064
2.170E-06,0.020
2.180E-06,-0.084
2.190E-06,-0.184
2.200E-06,-0.136
2.210E-06,-0.016
2.220E-06,-0.020
2.230E-06,0.176
2.240E-06,0.164
2.250E-06,0.060
2.260E-06,-0.008
2.270E-06,0.076
2.280E-06,0.064
2.290E-06,0.028
2.300E-06,0.008
2.310E-06,0.052
2.320E-06,0.100
2.330E-06,0.008
2.340E-06,0.052
2.350E-06,-0.008
2.360E-06,0.028
2.370E-06,0.140
2.380E-06,0.152
2.390E-06,0.140
2.400E-06,0.148
2.410E-06,0.088
2.420E-06,0.128
2.430E-06,0.148
2.440E-06,0.188
2.450E-06,0.244
2.460E-06,0.244
2.470E-06,0.256
2.480E-06,0.196
2.490E-06,0.172
2.500E-06,0.148
2.510E-06,0.160
2.520E-06,0.196
2.530E-06,0.216
2.540E-06,0.232
2.550E-06,0.212
2.560E-06,0.200
2.570E-06,0.156
2.580E-06,0.156
2.590E-06,0.156
2.600E-06,0.188
2.610E-06,0.212
2.620E-06,0.224
2.630E-06,0.220
2.640E-06,0.204
2.650E-06,0.180
2.660E-06,0.164
2.670E-06,0.172
2.680E-06,0.188
2.690E-06,0.200
2.700E-06,0.216
2.710E-06,0.212
2.720E-06,0.192
2.730E-06,0.180
2.740E-06,0.164
2.750E-06,0.168
2.760E-06,0.172
2.770E-06,0.192
2.780E-06,0.208
2.790E-06,0.204
2.800E-06,0.200
2.810E-06,0.184
2.820E-06,0.172
2.830E-06,0.164
2.840E-06,0.176
2.850E-06,0.192
2.860E-06,0.196
2.870E-06,0.200
2.880E-06,0.196
2.890E-06,0.188
2.900E-06,0.176
2.910E-06,0.176
2.920E-06,0.176
2.930E-06,0.188
2.940E-06,0.192
2.950E-06,0.196
2.960E-06,0.196
2.970E-06,0.188
2.980E-06,0.176
2.990E-06,0.176
3.000E-06,0.172
3.010E-06,0.176
3.020E-06,0.188
3.030E-06,0.188
3.040E-06,0.184
3.050E-06,0.176
3.060E-06,0.176
3.070E-06,0.168
3.080E-06,0.168
3.090E-06,0.172
3.100E-06,0.180
3.110E-06,0.192
3.120E-06,0.184
3.130E-06,0.176
3.140E-06,0.172
3.150E-06,0.168
3.160E-06,0.160
3.170E-06,0.168
3.180E-06,0.180
3.190E-06,0.180
3.200E-06,0.176
3.210E-06,0.176
3.220E-06,0.172
3.230E-06,0.172
3.240E-06,0.172
3.250E-06,0.172
3.260E-06,0.172
3.270E-06,0.176
3.280E-06,0.184
3.290E-06,0.176
3.300E-06,0.180
3.310E-06,0.168
3.320E-06,0.168
3.330E-06,0.176
3.340E-06,0.176
3.350E-06,0.176
3.360E-06,0.172
3.370E-06,0.172
3.380E-06,0.168
3.390E-06,0.172
3.400E-06,0.172
3.410E-06,0.176
3.420E-06,0.180
3.430E-06,0.172
3.440E-06,0.176
3.450E-06,0.180
3.460E-06,0.172
3.470E-06,0.172
3.480E-06,0.172
3.490E-06,0.172
3.500E-06,0.172
3.510E-06,0.168
3.520E-06,0.168
3.530E-06,0.172
3.540E-06,0.168
3.550E-06,0.172
3.560E-06,0.172
3.570E-06,0.168
3.580E-06,0.168
3.590E-06,0.176
3.600E-06,0.168
3.610E-06,0.160
3.620E-06,0.164
3.630E-06,0.168
3.640E-06,0.164
3.650E-06,0.156
3.660E-06,0.160
3.670E-06,0.164
3.680E-06,0.156
3.690E-06,0.156
3.700E-06,0.164
3.710E-06,0.160
3.720E-06,0.160
3.730E-06,0.164
3.740E-06,0.160
3.750E-06,0.160
3.760E-06,0.164
3.770E-06,0.168
3.780E-06,0.168
3.790E-06,0.160
3.800E-06,0.160
3.810E-06,0.156
3.820E-06,0.160
3.830E-06,0.164
3.840E-06,0.160
3.850E-06,0.152
3.860E-06,0.156
3.870E-06,0.152
3.880E-06,0.156
3.890E-06,0.160
3.900E-06,0.156
3.910E-06,0.160
3.920E-06,0.156
3.930E-06,0.152
3.940E-06,0.160
3.950E-06,0.156
3.960E-06,0.156
3.970E-06,0.152
3.980E-06,0.160
3.990E-06,0.156
4.000E-06,0.156
4.010E-06,0.160
4.020E-06,0.148
4.030E-06,0.152
4.040E-06,0.152
4.050E-06,0.152
4.060E-06,0.156
4.070E-06,0.152
4.080E-06,0.152
4.090E-06,0.156
4.100E-06,0.160
4.110E-06,0.156
4.120E-06,0.148
4.130E-06,0.152
4.140E-06,0.144
4.150E-06,0.152
4.160E-06,0.152
4.170E-06,0.152
4.180E-06,0.152
4.190E-06,0.152
4.200E-06,0.144
4.210E-06,0.144
4.220E-06,0.140
4.230E-06,0.144
4.240E-06,0.140
4.250E-06,0.144
4.260E-06,0.140
4.270E-06,0.140
4.280E-06,0.140
4.290E-06,0.136
4.300E-06,0.140
4.310E-06,0.136
4.320E-06,0.136
4.330E-06,0.140
4.340E-06,0.140
4.350E-06,0.140
4.360E-06,0.140
4.370E-06,0.140
4.380E-06,0.140
4.390E-06,0.136
4.400E-06,0.136
4.410E-06,0.140
4.420E-06,0.136
4.430E-06,0.140
4.440E-06,0.136
4.450E-06,0.136
4.460E-06,0.136
4.470E-06,0.140
4.480E-06,0.132
4.490E-06,0.136
4.500E-06,0.136
4.510E-06,0.140
4.520E-06,0.140
4.530E-06,0.140
4.540E-06,0.136
4.550E-06,0.132
4.560E-06,0.128
4.570E-06,0.132
4.580E-06,0.136
4.590E-06,0.136
4.600E-06,0.128
4.610E-06,0.132
4.620E-06,0.132
4.630E-06,0.128
4.640E-06,0.128
4.650E-06,0.132
4.660E-06,0.132
4.670E-06,0.128
4.680E-06,0.128
4.690E-06,0.128
4.700E-06,0.124
4.710E-06,0.132
4.720E-06,0.132
4.730E-06,0.132
4.740E-06,0.124
4.750E-06,0.124
4.760E-06,0.120
4.770E-06,0.120
4.780E-06,0.120
4.790E-06,0.124
4.800E-06,0.124
4.810E-06,0.124
4.820E-06,0.124
4.830E-06,0.120
4.840E-06,0.124
4.850E-06,0.124
4.860E-06,0.128
4.870E-06,0.124
4.880E-06,0.120
4.890E-06,0.124
4.900E-06,0.124
4.910E-06,0.128
4.920E-06,0.124
4.930E-06,0.124
4.940E-06,0.120
4.950E-06,0.124
4.960E-06,0.120
4.970E-06,0.112
4.980E-06,0.120
4.990E-06,0.112
5.000E-06,0.116
5.010E-06,0.116
5.020E-06,0.108
5.030E-06,0.116
5.040E-06,0.112
5.050E-06,0.112
5.060E-06,0.112
5.070E-06,0.112
5.080E-06,0.112
5.090E-06,0.112
5.100E-06,0.108
5.110E-06,0.104
5.120E-06,0.108
5.130E-06,0.104
5.140E-06,0.104
5.150E-06,0.112
5.160E-06,0.112
5.170E-06,0.104
5.180E-06,0.104
5.190E-06,0.104
5.200E-06,0.100
5.210E-06,0.100
5.220E-06,0.100
5.230E-06,0.108
5.240E-06,0.104
5.250E-06,0.108
5.260E-06,0.108
5.270E-06,0.108
5.280E-06,0.104
5.290E-06,0.100
5.300E-06,0.100
5.310E-06,0.104
5.320E-06,0.104
5.330E-06,0.104
5.340E-06,0.104
5.350E-06,0.104
5.360E-06,0.104
5.370E-06,0.104
5.380E-06,0.104
5.390E-06,0.100
5.400E-06,0.096
5.410E-06,0.100
5.420E-06,0.100
5.430E-06,0.092
5.440E-06,0.096
5.450E-06,0.100
5.460E-06,0.100
5.470E-06,0.100
5.480E-06,0.092
5.490E-06,0.096
5.500E-06,0.092
5.510E-06,0.096
5.520E-06,0.092
5.530E-06,0.092
5.540E-06,0.092
5.550E-06,0.096
5.560E-06,0.096
5.570E-06,0.092
5.580E-06,0.092
5.590E-06,0.088
5.600E-06,0.088
5.610E-06,0.088
5.620E-06,0.092
5.630E-06,0.092
5.640E-06,0.088
5.650E-06,0.088
5.660E-06,0.088
5.670E-06,0.084
5.680E-06,0.084
5.690E-06,0.088
5.700E-06,0.088
5.710E-06,0.088
5.720E-06,0.084
5.730E-06,0.084
5.740E-06,0.088
5.750E-06,0.080
5.760E-06,0.084
5.770E-06,0.088
5.780E-06,0.088
5.790E-06,0.088
5.800E-06,0.076
5.810E-06,0.080
5.820E-06,0.080
5.830E-06,0.076
5.840E-06,0.080
5.850E-06,0.076
5.860E-06,0.088
5.870E-06,0.084
5.880E-06,0.084
5.890E-06,0.076
5.900E-06,0.084
5.910E-06,0.076
5.920E-06,0.076
5.930E-06,0.080
5.940E-06,0.080
5.950E-06,0.076
5.960E-06,0.072
5.970E-06,0.076
5.980E-06,0.072
5.990E-06,0.076
6.000E-06,0.076
6.010E-06,0.076
6.020E-06,0.076
6.030E-06,0.072
6.040E-06,0.076
6.050E-06,0.076
6.060E-06,0.068
6.070E-06,0.076
6.080E-06,0.072
6.090E-06,0.076
6.100E-06,0.076
6.110E-06,0.072
6.120E-06,0.072
6.130E-06,0.068
6.140E-06,0.068
6.150E-06,0.068
6.160E-06,0.068
6.170E-06,0.072
6.180E-06,0.072
6.190E-06,0.068
6.200E-06,0.064
6.210E-06,0.064
6.220E-06,0.064
6.230E-06,0.068
6.240E-06,0.064
6.250E-06,0.068
6.260E-06,0.068
6.270E-06,0.068
6.280E-06,0.068
6.290E-06,0.064
6.300E-06,0.068
6.310E-06,0.064
6.320E-06,0.068
6.330E-06,0.060
6.340E-06,0.060
6.350E-06,0.064
6.360E-06,0.064
6.370E-06,0.060
6.380E-06,0.060
6.390E-06,0.060
6.400E-06,0.060
6.410E-06,0.060
6.420E-06,0.064
6.430E-06,0.064
6.440E-06,0.056
6.450E-06,0.060
6.460E-06,0.060
6.470E-06,0.060
6.480E-06,0.056
6.490E-06,0.060
6.500E-06,0.056
6.510E-06,0.060
6.520E-06,0.052
6.530E-06,0.056
6.540E-06,0.056
6.550E-06,0.056
6.560E-06,0.056
6.570E-06,0.056
6.580E-06,0.052
6.590E-06,0.052
6.600E-06,0.052
6.610E-06,0.052
6.620E-06,0.060
6.630E-06,0.060
6.640E-06,0.056
6.650E-06,0.056
6.660E-06,0.060
6.670E-06,0.056
6.680E-06,0.052
6.690E-06,0.044
6.700E-06,0.048
6.710E-06,0.048
6.720E-06,0.040
6.730E-06,0.044
6.740E-06,0.040
6.750E-06,0.048
6.760E-06,0.044
6.770E-06,0.048
6.780E-06,0.040
6.790E-06,0.044
6.800E-06,0.044
6.810E-06,0.040
6.820E-06,0.048
6.830E-06,0.044
6.840E-06,0.048
6.850E-06,0.048
6.860E-06,0.044
6.870E-06,0.044
6.880E-06,0.044
6.890E-06,0.040
6.900E-06,0.032
6.910E-06,0.040
6.920E-06,0.044
6.930E-06,0.052
6.940E-06,0.052
6.950E-06,0.044
6.960E-06,0.044
6.970E-06,0.040
6.980E-06,0.040
6.990E-06,0.040
7.000E-06,0.044
7.010E-06,0.044
7.020E-06,0.044
7.030E-06,0.048
7.040E-06,0.040
7.050E-06,0.028
7.060E-06,0.032
7.070E-06,0.036
7.080E-06,0.036
7.090E-06,0.040
7.100E-06,0.036
7.110E-06,0.040
7.120E-06,0.036
7.130E-06,0.028
7.140E-06,0.028
7.150E-06,0.032
7.160E-06,0.028
7.170E-06,0.036
7.180E-06,0.040
7.190E-06,0.036
7.200E-06,0.036
7.210E-06,0.032
7.220E-06,0.028
7.230E-06,0.028
7.240E-06,0.032
7.250E-06,0.032
7.260E-06,0.032
7.270E-06,0.032
7.280E-06,0.036
7.290E-06,0.032
7.300E-06,0.036
7.310E-06,0.024
7.320E-06,0.024
7.330E-06,0.028
7.340E-06,0.032
7.350E-06,0.032
7.360E-06,0.024
7.370E-06,0.028
7.380E-06,0.028
7.390E-06,0.028
7.400E-06,0.028
7.410E-06,0.028
7.420E-06,0.028
7.430E-06,0.032
7.440E-06,0.028
7.450E-06,0.032
7.460E-06,0.020
7.470E-06,0.024
7.480E-06,0.032
7.490E-06,0.028
7.500E-06,0.020
7.510E-06,0.024
7.520E-06,0.028
7.530E-06,0.032
7.540E-06,0.024
7.550E-06,0.020
7.560E-06,0.024
7.570E-06,0.020
7.580E-06,0.024
7.590E-06,0.028
7.600E-06,0.024
7.610E-06,0.028
7.620E-06,0.028
7.630E-06,0.028
7.640E-06,0.028
7.650E-06,0.020
7.660E-06,0.020
7.670E-06,0.024
7.680E-06,0.016
7.690E-06,0.024
7.700E-06,0.020
7.710E-06,0.020
7.720E-06,0.024
7.730E-06,0.024
7.740E-06,0.028
7.750E-06,0.016
7.760E-06,0.016
7.770E-06,0.020
7.780E-06,0.020
7.790E-06,0.016
7.800E-06,0.020
7.810E-06,0.024
7.820E-06,0.024
7.830E-06,0.016
