mediciones/mediciones removidas por ser diferentes/1000V/2/WaveData5626.csv

#timebase=2000000(ps)
,#voltbase=200000(mv/100)
#size=4000
-4.200E-06,0.504
-4.190E-06,-0.016
-4.180E-06,-0.464
-4.170E-06,-0.776
-4.160E-06,-0.728
-4.150E-06,-0.424
-4.140E-06,-0.200
-4.130E-06,-0.152
-4.120E-06,-0.240
-4.110E-06,-0.488
-4.100E-06,-0.712
-4.090E-06,-0.704
-4.080E-06,-0.768
-4.070E-06,-0.600
-4.060E-06,-0.336
-4.050E-06,-0.328
-4.040E-06,-0.328
-4.030E-06,-0.424
-4.020E-06,-0.672
-4.010E-06,-0.672
-4.000E-06,-0.568
-3.990E-06,-0.360
-3.980E-06,-0.016
-3.970E-06,0.000
-3.960E-06,0.056
-3.950E-06,0.040
-3.940E-06,-0.048
-3.930E-06,-0.032
-3.920E-06,0.008
-3.910E-06,-0.040
-3.900E-06,0.072
-3.890E-06,0.088
-3.880E-06,0.112
-3.870E-06,0.192
-3.860E-06,0.152
-3.850E-06,0.160
-3.840E-06,0.136
-3.830E-06,0.080
-3.820E-06,0.088
-3.810E-06,0.144
-3.800E-06,0.136
-3.790E-06,0.224
-3.780E-06,0.248
-3.770E-06,0.048
-3.760E-06,0.064
-3.750E-06,-0.096
-3.740E-06,-0.176
-3.730E-06,-0.048
-3.720E-06,-0.208
-3.710E-06,-0.208
-3.700E-06,-0.272
-3.690E-06,-0.408
-3.680E-06,-0.288
-3.670E-06,-0.264
-3.660E-06,-0.200
-3.650E-06,-0.168
-3.640E-06,-0.264
-3.630E-06,-0.312
-3.620E-06,-0.368
-3.610E-06,-0.376
-3.600E-06,-0.328
-3.590E-06,-0.208
-3.580E-06,-0.208
-3.570E-06,-0.104
-3.560E-06,-0.224
-3.550E-06,-0.224
-3.540E-06,-0.272
-3.530E-06,-0.128
-3.520E-06,0.032
-3.510E-06,0.168
-3.500E-06,0.112
-3.490E-06,-0.096
-3.480E-06,-0.176
-3.470E-06,-0.040
-3.460E-06,-0.112
-3.450E-06,0.392
-3.440E-06,0.496
-3.430E-06,0.104
-3.420E-06,0.360
-3.410E-06,-0.264
-3.400E-06,-0.176
-3.390E-06,-0.120
-3.380E-06,-0.136
-3.370E-06,0.136
-3.360E-06,0.168
-3.350E-06,0.144
-3.340E-06,0.040
-3.330E-06,-0.088
-3.320E-06,-0.160
-3.310E-06,-0.088
-3.300E-06,-0.024
-3.290E-06,-0.056
-3.280E-06,-0.104
-3.270E-06,-0.232
-3.260E-06,-0.392
-3.250E-06,-0.488
-3.240E-06,-0.536
-3.230E-06,-0.496
-3.220E-06,-0.504
-3.210E-06,-0.472
-3.200E-06,-0.520
-3.190E-06,-0.608
-3.180E-06,-0.600
-3.170E-06,-0.648
-3.160E-06,-0.576
-3.150E-06,-0.424
-3.140E-06,-0.384
-3.130E-06,-0.264
-3.120E-06,-0.232
-3.110E-06,-0.232
-3.100E-06,-0.232
-3.090E-06,-0.264
-3.080E-06,-0.264
-3.070E-06,-0.224
-3.060E-06,-0.144
-3.050E-06,-0.064
-3.040E-06,0.056
-3.030E-06,0.096
-3.020E-06,0.080
-3.010E-06,0.040
-3.000E-06,-0.008
-2.990E-06,-0.024
-2.980E-06,-0.032
-2.970E-06,0.016
-2.960E-06,0.072
-2.950E-06,0.064
-2.940E-06,0.040
-2.930E-06,-0.016
-2.920E-06,-0.072
-2.910E-06,-0.072
-2.900E-06,-0.064
-2.890E-06,-0.016
-2.880E-06,-0.008
-2.870E-06,-0.040
-2.860E-06,-0.056
-2.850E-06,-0.088
-2.840E-06,-0.072
-2.830E-06,-0.088
-2.820E-06,-0.072
-2.810E-06,-0.072
-2.800E-06,-0.056
-2.790E-06,-0.008
-2.780E-06,-0.040
-2.770E-06,-0.040
-2.760E-06,-0.064
-2.750E-06,-0.104
-2.740E-06,-0.056
-2.730E-06,-0.064
-2.720E-06,-0.064
-2.710E-06,-0.072
-2.700E-06,-0.096
-2.690E-06,-0.088
-2.680E-06,-0.072
-2.670E-06,-0.056
-2.660E-06,-0.064
-2.650E-06,-0.112
-2.640E-06,-0.128
-2.630E-06,-0.152
-2.620E-06,-0.200
-2.610E-06,-0.184
-2.600E-06,-0.240
-2.590E-06,-0.360
-2.580E-06,-0.400
-2.570E-06,-0.488
-2.560E-06,-0.432
-2.550E-06,-0.104
-2.540E-06,0.088
-2.530E-06,0.024
-2.520E-06,0.024
-2.510E-06,-0.424
-2.500E-06,-0.240
-2.490E-06,-0.088
-2.480E-06,0.208
-2.470E-06,0.952
-2.460E-06,0.960
-2.450E-06,0.056
-2.440E-06,0.056
-2.430E-06,-0.712
-2.420E-06,-0.152
-2.410E-06,0.736
-2.400E-06,1.080
-2.390E-06,1.080
-2.380E-06,0.872
-2.370E-06,-0.136
-2.360E-06,-0.464
-2.350E-06,-0.408
-2.340E-06,0.008
-2.330E-06,0.592
-2.320E-06,0.664
-2.310E-06,0.368
-2.300E-06,0.008
-2.290E-06,-0.416
-2.280E-06,-0.496
-2.270E-06,-0.368
-2.260E-06,-0.304
-2.250E-06,-0.200
-2.240E-06,-0.272
-2.230E-06,-0.408
-2.220E-06,-0.464
-2.210E-06,-0.632
-2.200E-06,-0.696
-2.190E-06,-0.672
-2.180E-06,-0.624
-2.170E-06,-0.520
-2.160E-06,-0.504
-2.150E-06,-0.544
-2.140E-06,-0.616
-2.130E-06,-0.728
-2.120E-06,-0.624
-2.110E-06,-0.464
-2.100E-06,-0.264
-2.090E-06,-0.112
-2.080E-06,-0.008
-2.070E-06,0.016
-2.060E-06,0.040
-2.050E-06,-0.056
-2.040E-06,-0.064
-2.030E-06,-0.064
-2.020E-06,0.112
-2.010E-06,0.392
-2.000E-06,0.608
-1.990E-06,0.648
-1.980E-06,0.536
-1.970E-06,0.232
-1.960E-06,0.088
-1.950E-06,0.024
-1.940E-06,0.128
-1.930E-06,0.280
-1.920E-06,0.336
-1.910E-06,0.264
-1.900E-06,0.144
-1.890E-06,-0.024
-1.880E-06,-0.072
-1.870E-06,-0.080
-1.860E-06,-0.032
-1.850E-06,0.000
-1.840E-06,-0.152
-1.830E-06,-0.248
-1.820E-06,-0.392
-1.810E-06,-0.392
-1.800E-06,-0.216
-1.790E-06,-0.144
-1.780E-06,-0.032
-1.770E-06,-0.136
-1.760E-06,-0.192
-1.750E-06,-0.248
-1.740E-06,-0.160
-1.730E-06,-0.072
-1.720E-06,0.072
-1.710E-06,0.152
-1.700E-06,0.144
-1.690E-06,0.192
-1.680E-06,0.176
-1.670E-06,0.264
-1.660E-06,0.368
-1.650E-06,0.368
-1.640E-06,0.432
-1.630E-06,0.336
-1.620E-06,0.152
-1.610E-06,0.024
-1.600E-06,0.120
-1.590E-06,0.240
-1.580E-06,0.600
-1.570E-06,0.744
-1.560E-06,0.968
-1.550E-06,0.928
-1.540E-06,0.600
-1.530E-06,0.256
-1.520E-06,-0.256
-1.510E-06,0.168
-1.500E-06,-0.072
-1.490E-06,-0.864
-1.480E-06,-0.160
-1.470E-06,-0.832
-1.460E-06,0.136
-1.450E-06,1.080
-1.440E-06,1.088
-1.430E-06,1.088
-1.420E-06,0.720
-1.410E-06,-0.216
-1.400E-06,-0.496
-1.390E-06,-0.480
-1.380E-06,0.216
-1.370E-06,0.784
-1.360E-06,0.752
-1.350E-06,0.328
-1.340E-06,-0.144
-1.330E-06,-0.672
-1.320E-06,-0.832
-1.310E-06,-0.568
-1.300E-06,-0.520
-1.290E-06,-0.376
-1.280E-06,-0.600
-1.270E-06,-0.896
-1.260E-06,-1.040
-1.250E-06,-1.032
-1.240E-06,-1.040
-1.230E-06,-1.048
-1.220E-06,-1.008
-1.210E-06,-0.776
-1.200E-06,-0.664
-1.190E-06,-0.632
-1.180E-06,-0.552
-1.170E-06,-0.552
-1.160E-06,-0.360
-1.150E-06,-0.256
-1.140E-06,-0.056
-1.130E-06,0.088
-1.120E-06,0.200
-1.110E-06,0.304
-1.100E-06,0.360
-1.090E-06,0.400
-1.080E-06,0.352
-1.070E-06,0.384
-1.060E-06,0.384
-1.050E-06,0.424
-1.040E-06,0.552
-1.030E-06,0.520
-1.020E-06,0.456
-1.010E-06,0.344
-1.000E-06,0.200
-9.900E-07,0.200
-9.800E-07,0.184
-9.700E-07,0.192
-9.600E-07,0.200
-9.500E-07,0.128
-9.400E-07,0.056
-9.300E-07,-0.080
-9.200E-07,-0.192
-9.100E-07,-0.200
-9.000E-07,-0.248
-8.900E-07,-0.120
-8.800E-07,-0.256
-8.700E-07,-0.256
-8.600E-07,-0.264
-8.500E-07,-0.408
-8.400E-07,-0.112
-8.300E-07,-0.200
-8.200E-07,0.016
-8.100E-07,0.072
-8.000E-07,0.064
-7.900E-07,0.016
-7.800E-07,-0.504
-7.700E-07,0.040
-7.600E-07,-0.016
-7.500E-07,-1.032
-7.400E-07,-0.568
-7.300E-07,-0.328
-7.200E-07,0.000
-7.100E-07,1.080
-7.000E-07,1.080
-6.900E-07,1.080
-6.800E-07,1.088
-6.700E-07,-0.592
-6.600E-07,-0.488
-6.500E-07,-0.256
-6.400E-07,0.448
-6.300E-07,1.072
-6.200E-07,1.080
-6.100E-07,0.352
-6.000E-07,-0.168
-5.900E-07,-0.872
-5.800E-07,-1.040
-5.700E-07,-0.664
-5.600E-07,-0.520
-5.500E-07,-0.336
-5.400E-07,-0.432
-5.300E-07,-0.728
-5.200E-07,-1.040
-5.100E-07,-1.048
-5.000E-07,-1.040
-4.900E-07,-1.032
-4.800E-07,-0.936
-4.700E-07,-0.744
-4.600E-07,-0.616
-4.500E-07,-0.576
-4.400E-07,-0.760
-4.300E-07,-0.760
-4.200E-07,-0.680
-4.100E-07,-0.408
-4.000E-07,-0.112
-3.900E-07,0.016
-3.800E-07,0.072
-3.700E-07,0.152
-3.600E-07,0.176
-3.500E-07,0.216
-3.400E-07,0.184
-3.300E-07,0.152
-3.200E-07,0.216
-3.100E-07,0.328
-3.000E-07,0.432
-2.900E-07,0.520
-2.800E-07,0.464
-2.700E-07,0.392
-2.600E-07,0.368
-2.500E-07,0.256
-2.400E-07,0.312
-2.300E-07,0.336
-2.200E-07,0.296
-2.100E-07,0.352
-2.000E-07,0.208
-1.900E-07,0.136
-1.800E-07,-0.008
-1.700E-07,-0.024
-1.600E-07,-0.048
-1.500E-07,0.056
-1.400E-07,0.096
-1.300E-07,-0.008
-1.200E-07,-0.008
-1.100E-07,-0.104
-1.000E-07,-0.136
-9.000E-08,0.016
-8.000E-08,-0.024
-7.000E-08,0.128
-6.000E-08,-0.168
-5.000E-08,0.096
-4.000E-08,0.408
-3.000E-08,-0.336
-2.000E-08,-0.696
-1.000E-08,-0.728
0.000E+00,-0.392
1.000E-08,0.688
2.000E-08,1.080
3.000E-08,1.080
4.000E-08,1.088
5.000E-08,-0.480
6.000E-08,-1.040
7.000E-08,-1.040
8.000E-08,-0.600
9.000E-08,0.400
1.000E-07,0.824
1.100E-07,0.432
1.200E-07,0.168
1.300E-07,0.264
1.400E-07,-0.288
1.500E-07,-0.104
1.600E-07,-0.040
1.700E-07,-0.208
1.800E-07,0.152
1.900E-07,0.352
2.000E-07,0.536
2.100E-07,0.504
2.200E-07,-0.120
2.300E-07,-0.536
2.400E-07,-0.944
2.500E-07,-0.456
2.600E-07,-0.160
2.700E-07,0.328
2.800E-07,0.328
2.900E-07,-0.136
3.000E-07,-0.392
3.100E-07,-0.576
3.200E-07,-0.416
3.300E-07,-0.224
3.400E-07,-0.064
3.500E-07,-0.176
3.600E-07,-0.224
3.700E-07,-0.336
3.800E-07,-0.552
3.900E-07,-0.664
4.000E-07,-0.784
4.100E-07,-0.776
4.200E-07,-0.488
4.300E-07,-0.296
4.400E-07,-0.232
4.500E-07,-0.280
4.600E-07,-0.536
4.700E-07,-0.528
4.800E-07,-0.352
4.900E-07,-0.152
5.000E-07,0.000
5.100E-07,0.128
5.200E-07,0.112
5.300E-07,0.120
5.400E-07,0.056
5.500E-07,0.040
5.600E-07,0.080
5.700E-07,0.152
5.800E-07,0.256
5.900E-07,0.384
6.000E-07,0.400
6.100E-07,0.392
6.200E-07,0.216
6.300E-07,0.208
6.400E-07,0.056
6.500E-07,0.136
6.600E-07,0.104
6.700E-07,0.136
6.800E-07,0.336
6.900E-07,0.184
7.000E-07,0.312
7.100E-07,0.024
7.200E-07,0.032
7.300E-07,0.240
7.400E-07,0.192
7.500E-07,0.392
7.600E-07,0.368
7.700E-07,0.120
7.800E-07,-0.024
7.900E-07,-0.080
8.000E-07,-0.016
8.100E-07,0.096
8.200E-07,0.256
8.300E-07,0.368
8.400E-07,-0.344
8.500E-07,-0.336
8.600E-07,-0.192
8.700E-07,-0.688
8.800E-07,1.048
8.900E-07,1.056
9.000E-07,0.536
9.100E-07,1.072
9.200E-07,-0.224
9.300E-07,-0.336
9.400E-07,0.224
9.500E-07,-0.064
9.600E-07,0.416
9.700E-07,0.432
9.800E-07,-0.144
9.900E-07,-0.048
1.000E-06,0.120
1.010E-06,-0.232
1.020E-06,-0.040
1.030E-06,-0.272
1.040E-06,-0.856
1.050E-06,-0.696
1.060E-06,-0.712
1.070E-06,-0.856
1.080E-06,-0.488
1.090E-06,-0.800
1.100E-06,-0.896
1.110E-06,-0.928
1.120E-06,-0.912
1.130E-06,-0.864
1.140E-06,-0.648
1.150E-06,-0.552
1.160E-06,-0.536
1.170E-06,-0.376
1.180E-06,-0.320
1.190E-06,-0.240
1.200E-06,-0.072
1.210E-06,-0.032
1.220E-06,-0.040
1.230E-06,0.048
1.240E-06,-0.016
1.250E-06,0.104
1.260E-06,0.264
1.270E-06,0.232
1.280E-06,0.616
1.290E-06,0.664
1.300E-06,0.424
1.310E-06,0.432
1.320E-06,0.016
1.330E-06,0.064
1.340E-06,0.112
1.350E-06,0.056
1.360E-06,0.304
1.370E-06,0.224
1.380E-06,0.168
1.390E-06,0.152
1.400E-06,0.000
1.410E-06,0.040
1.420E-06,0.096
1.430E-06,0.096
1.440E-06,0.144
1.450E-06,0.168
1.460E-06,0.056
1.470E-06,-0.008
1.480E-06,-0.104
1.490E-06,-0.152
1.500E-06,-0.120
1.510E-06,-0.168
1.520E-06,-0.136
1.530E-06,-0.168
1.540E-06,-0.256
1.550E-06,-0.240
1.560E-06,-0.280
1.570E-06,-0.368
1.580E-06,-0.216
1.590E-06,-0.152
1.600E-06,-0.256
1.610E-06,-0.104
1.620E-06,-0.160
1.630E-06,-0.504
1.640E-06,0.000
1.650E-06,-0.160
1.660E-06,-0.944
1.670E-06,-0.424
1.680E-06,-0.976
1.690E-06,-0.448
1.700E-06,1.024
1.710E-06,0.560
1.720E-06,0.568
1.730E-06,0.224
1.740E-06,-0.768
1.750E-06,-0.680
1.760E-06,-0.200
1.770E-06,-0.016
1.780E-06,0.176
1.790E-06,0.360
1.800E-06,-0.824
1.810E-06,-0.384
1.820E-06,-0.448
1.830E-06,-0.136
1.840E-06,1.056
1.850E-06,1.056
1.860E-06,1.088
1.870E-06,1.080
1.880E-06,0.264
1.890E-06,0.280
1.900E-06,0.200
1.910E-06,-0.056
1.920E-06,0.456
1.930E-06,0.504
1.940E-06,0.344
1.950E-06,0.704
1.960E-06,-0.096
1.970E-06,-0.112
1.980E-06,-0.280
1.990E-06,-0.656
2.000E-06,0.056
2.010E-06,-0.032
2.020E-06,-0.072
2.030E-06,-0.224
2.040E-06,-0.624
2.050E-06,-0.416
2.060E-06,-0.312
2.070E-06,0.304
2.080E-06,0.512
2.090E-06,0.352
2.100E-06,0.304
2.110E-06,-0.024
2.120E-06,-0.344
2.130E-06,-0.216
2.140E-06,-0.424
2.150E-06,-0.152
2.160E-06,-0.056
2.170E-06,-0.096
2.180E-06,-0.056
2.190E-06,-0.072
2.200E-06,-0.272
2.210E-06,-0.192
2.220E-06,-0.216
2.230E-06,-0.400
2.240E-06,-0.320
2.250E-06,-0.240
2.260E-06,-0.240
2.270E-06,-0.104
2.280E-06,-0.232
2.290E-06,-0.248
2.300E-06,-0.200
2.310E-06,-0.088
2.320E-06,0.120
2.330E-06,0.288
2.340E-06,0.416
2.350E-06,0.400
2.360E-06,0.344
2.370E-06,0.160
2.380E-06,0.096
2.390E-06,0.224
2.400E-06,-0.368
2.410E-06,0.136
2.420E-06,-0.056
2.430E-06,-0.800
2.440E-06,-0.648
2.450E-06,-1.032
2.460E-06,-0.464
2.470E-06,0.192
2.480E-06,1.080
2.490E-06,1.080
2.500E-06,1.080
2.510E-06,1.072
2.520E-06,0.392
2.530E-06,-0.520
2.540E-06,-0.336
2.550E-06,-0.752
2.560E-06,0.008
2.570E-06,-0.296
2.580E-06,-0.088
2.590E-06,1.088
2.600E-06,0.408
2.610E-06,0.840
2.620E-06,-0.080
2.630E-06,-0.864
2.640E-06,-0.576
2.650E-06,-0.512
2.660E-06,0.896
2.670E-06,1.080
2.680E-06,1.088
2.690E-06,0.296
2.700E-06,-0.752
2.710E-06,-1.040
2.720E-06,-0.728
2.730E-06,-0.136
2.740E-06,0.504
2.750E-06,0.552
2.760E-06,0.064
2.770E-06,-0.384
2.780E-06,-0.840
2.790E-06,-0.696
2.800E-06,-0.624
2.810E-06,-0.392
2.820E-06,-0.016
2.830E-06,-0.224
2.840E-06,-0.128
2.850E-06,-0.592
2.860E-06,-0.744
2.870E-06,-0.752
2.880E-06,-0.648
2.890E-06,-0.288
2.900E-06,-0.200
2.910E-06,-0.080
2.920E-06,-0.080
2.930E-06,-0.072
2.940E-06,-0.040
2.950E-06,0.024
2.960E-06,-0.064
2.970E-06,-0.040
2.980E-06,-0.096
2.990E-06,-0.088
3.000E-06,0.032
3.010E-06,-0.136
3.020E-06,-0.248
3.030E-06,-0.256
3.040E-06,-0.400
3.050E-06,-0.400
3.060E-06,-0.392
3.070E-06,-0.520
3.080E-06,-0.632
3.090E-06,-0.752
3.100E-06,-1.048
3.110E-06,-1.040
3.120E-06,-1.040
3.130E-06,-1.040
3.140E-06,-1.000
3.150E-06,-1.016
3.160E-06,-1.000
3.170E-06,-1.040
3.180E-06,-1.040
3.190E-06,-1.040
3.200E-06,-1.040
3.210E-06,-1.040
3.220E-06,-0.904
3.230E-06,-1.048
3.240E-06,-1.040
3.250E-06,-0.672
3.260E-06,-0.032
3.270E-06,-0.544
3.280E-06,-0.584
3.290E-06,-1.040
3.300E-06,-1.032
3.310E-06,-1.032
3.320E-06,-1.040
3.330E-06,-0.712
3.340E-06,1.088
3.350E-06,1.080
3.360E-06,1.032
3.370E-06,-0.288
3.380E-06,-1.032
3.390E-06,-1.040
3.400E-06,-0.688
3.410E-06,0.336
3.420E-06,1.080
3.430E-06,1.080
3.440E-06,1.056
3.450E-06,0.536
3.460E-06,0.064
3.470E-06,0.144
3.480E-06,0.480
3.490E-06,0.880
3.500E-06,1.032
3.510E-06,0.952
3.520E-06,0.440
3.530E-06,-0.256
3.540E-06,-0.864
3.550E-06,-1.032
3.560E-06,-1.032
3.570E-06,-1.040
3.580E-06,-1.048
3.590E-06,-1.048
3.600E-06,-1.048
3.610E-06,-1.032
3.620E-06,-1.040
3.630E-06,-1.048
3.640E-06,-1.040
3.650E-06,-1.048
3.660E-06,-1.032
3.670E-06,-0.928
3.680E-06,-0.840
3.690E-06,-0.856
3.700E-06,-0.912
3.710E-06,-1.008
3.720E-06,-1.008
3.730E-06,-0.904
3.740E-06,-0.904
3.750E-06,-0.896
3.760E-06,-1.000
3.770E-06,-1.040
3.780E-06,-1.032
3.790E-06,-1.040
3.800E-06,-1.048
3.810E-06,-1.024
3.820E-06,-1.032
3.830E-06,-0.928
3.840E-06,-0.688
3.850E-06,-0.832
3.860E-06,-0.264
3.870E-06,-0.312
3.880E-06,-0.496
3.890E-06,0.048
3.900E-06,-0.448
3.910E-06,-0.104
3.920E-06,0.480
3.930E-06,0.240
3.940E-06,0.992
3.950E-06,0.744
3.960E-06,0.312
3.970E-06,0.368
3.980E-06,0.000
3.990E-06,0.312
4.000E-06,0.216
4.010E-06,0.344
4.020E-06,0.496
4.030E-06,0.672
4.040E-06,1.080
4.050E-06,1.088
4.060E-06,1.088
4.070E-06,1.080
4.080E-06,0.872
4.090E-06,0.784
4.100E-06,0.616
4.110E-06,0.496
4.120E-06,0.480
4.130E-06,0.200
4.140E-06,-0.128
4.150E-06,-0.456
4.160E-06,-0.848
4.170E-06,-1.032
4.180E-06,-1.040
4.190E-06,-1.040
4.200E-06,-1.040
4.210E-06,-1.048
4.220E-06,-1.040
4.230E-06,-1.040
4.240E-06,-1.040
4.250E-06,-1.048
4.260E-06,-1.040
4.270E-06,-1.032
4.280E-06,-1.040
4.290E-06,-1.040
4.300E-06,-1.040
4.310E-06,-1.040
4.320E-06,-1.048
4.330E-06,-1.040
4.340E-06,-1.048
4.350E-06,-1.048
4.360E-06,-1.048
4.370E-06,-1.048
4.380E-06,-1.032
4.390E-06,-1.032
4.400E-06,-1.040
4.410E-06,-1.032
4.420E-06,-0.968
4.430E-06,-0.888
4.440E-06,-0.744
4.450E-06,-0.608
4.460E-06,-0.464
4.470E-06,-0.320
4.480E-06,-0.232
4.490E-06,-0.200
4.500E-06,-0.232
4.510E-06,-0.288
4.520E-06,-0.320
4.530E-06,-0.376
4.540E-06,-0.368
4.550E-06,-0.312
4.560E-06,-0.304
4.570E-06,-0.320
4.580E-06,-0.344
4.590E-06,-0.352
4.600E-06,-0.336
4.610E-06,-0.288
4.620E-06,-0.208
4.630E-06,-0.144
4.640E-06,-0.120
4.650E-06,-0.128
4.660E-06,-0.128
4.670E-06,-0.112
4.680E-06,-0.128
4.690E-06,-0.136
4.700E-06,-0.144
4.710E-06,-0.160
4.720E-06,-0.168
4.730E-06,-0.192
4.740E-06,-0.216
4.750E-06,-0.264
4.760E-06,-0.312
4.770E-06,-0.336
4.780E-06,-0.360
4.790E-06,-0.400
4.800E-06,-0.456
4.810E-06,-0.488
4.820E-06,-0.512
4.830E-06,-0.520
4.840E-06,-0.528
4.850E-06,-0.544
4.860E-06,-0.568
4.870E-06,-0.584
4.880E-06,-0.600
4.890E-06,-0.608
4.900E-06,-0.600
4.910E-06,-0.576
4.920E-06,-0.568
4.930E-06,-0.528
4.940E-06,-0.512
4.950E-06,-0.496
4.960E-06,-0.464
4.970E-06,-0.432
4.980E-06,-0.376
4.990E-06,-0.328
5.000E-06,-0.280
5.010E-06,-0.240
5.020E-06,-0.208
5.030E-06,-0.168
5.040E-06,-0.136
5.050E-06,-0.120
5.060E-06,-0.112
5.070E-06,-0.120
5.080E-06,-0.152
5.090E-06,-0.168
5.100E-06,-0.184
5.110E-06,-0.192
5.120E-06,-0.184
5.130E-06,-0.192
5.140E-06,-0.184
5.150E-06,-0.184
5.160E-06,-0.184
5.170E-06,-0.168
5.180E-06,-0.152
5.190E-06,-0.144
5.200E-06,-0.152
5.210E-06,-0.128
5.220E-06,-0.120
5.230E-06,-0.088
5.240E-06,-0.048
5.250E-06,-0.016
5.260E-06,0.008
5.270E-06,0.016
5.280E-06,0.040
5.290E-06,0.024
5.300E-06,0.008
5.310E-06,-0.024
5.320E-06,-0.040
5.330E-06,-0.032
5.340E-06,-0.040
5.350E-06,-0.064
5.360E-06,-0.088
5.370E-06,-0.112
5.380E-06,-0.160
5.390E-06,-0.176
5.400E-06,-0.216
5.410E-06,-0.208
5.420E-06,-0.224
5.430E-06,-0.208
5.440E-06,-0.208
5.450E-06,-0.200
5.460E-06,-0.192
5.470E-06,-0.184
5.480E-06,-0.168
5.490E-06,-0.184
5.500E-06,-0.168
5.510E-06,-0.168
5.520E-06,-0.192
5.530E-06,-0.184
5.540E-06,-0.224
5.550E-06,-0.208
5.560E-06,-0.232
5.570E-06,-0.248
5.580E-06,-0.232
5.590E-06,-0.232
5.600E-06,-0.224
5.610E-06,-0.200
5.620E-06,-0.184
5.630E-06,-0.168
5.640E-06,-0.144
5.650E-06,-0.120
5.660E-06,-0.064
5.670E-06,-0.032
5.680E-06,-0.024
5.690E-06,0.000
5.700E-06,-0.008
5.710E-06,0.024
5.720E-06,0.080
5.730E-06,0.112
5.740E-06,0.176
5.750E-06,0.208
5.760E-06,0.192
5.770E-06,0.216
5.780E-06,0.192
5.790E-06,0.208
5.800E-06,0.240
5.810E-06,0.224
5.820E-06,0.240
5.830E-06,0.200
5.840E-06,0.072
5.850E-06,-0.064
5.860E-06,-0.208
5.870E-06,-0.280
5.880E-06,-0.296
5.890E-06,-0.288
5.900E-06,-0.256
5.910E-06,-0.256
5.920E-06,-0.272
5.930E-06,-0.304
5.940E-06,-0.296
5.950E-06,-0.272
5.960E-06,-0.256
5.970E-06,-0.240
5.980E-06,-0.232
5.990E-06,-0.256
6.000E-06,-0.240
6.010E-06,-0.200
6.020E-06,-0.112
6.030E-06,-0.032
6.040E-06,0.008
6.050E-06,0.016
6.060E-06,0.000
6.070E-06,0.000
6.080E-06,-0.008
6.090E-06,-0.008
6.100E-06,-0.016
6.110E-06,-0.032
6.120E-06,-0.040
6.130E-06,-0.072
6.140E-06,-0.096
6.150E-06,-0.144
6.160E-06,-0.176
6.170E-06,-0.176
6.180E-06,-0.208
6.190E-06,-0.136
6.200E-06,-0.136
6.210E-06,-0.104
6.220E-06,-0.072
6.230E-06,-0.056
6.240E-06,-0.024
6.250E-06,-0.048
6.260E-06,-0.008
6.270E-06,-0.032
6.280E-06,-0.024
6.290E-06,-0.024
6.300E-06,-0.080
6.310E-06,-0.080
6.320E-06,-0.128
6.330E-06,-0.176
6.340E-06,-0.160
6.350E-06,-0.192
6.360E-06,-0.176
6.370E-06,-0.160
6.380E-06,-0.160
6.390E-06,-0.136
6.400E-06,-0.136
6.410E-06,-0.128
6.420E-06,-0.112
6.430E-06,-0.096
6.440E-06,-0.096
6.450E-06,-0.088
6.460E-06,-0.096
6.470E-06,-0.080
6.480E-06,-0.072
6.490E-06,-0.048
6.500E-06,-0.024
6.510E-06,0.008
6.520E-06,0.032
6.530E-06,0.072
6.540E-06,0.104
6.550E-06,0.120
6.560E-06,0.152
6.570E-06,0.176
6.580E-06,0.160
6.590E-06,0.152
6.600E-06,0.136
6.610E-06,0.112
6.620E-06,0.080
6.630E-06,0.064
6.640E-06,0.048
6.650E-06,0.048
6.660E-06,0.032
6.670E-06,0.024
6.680E-06,0.024
6.690E-06,0.008
6.700E-06,-0.008
6.710E-06,-0.024
6.720E-06,-0.024
6.730E-06,-0.040
6.740E-06,-0.024
6.750E-06,-0.008
6.760E-06,0.040
6.770E-06,0.096
6.780E-06,0.152
6.790E-06,0.184
6.800E-06,0.208
6.810E-06,0.224
6.820E-06,0.216
6.830E-06,0.232
6.840E-06,0.216
6.850E-06,0.200
6.860E-06,0.184
6.870E-06,0.144
6.880E-06,0.112
6.890E-06,0.064
6.900E-06,0.016
6.910E-06,-0.032
6.920E-06,-0.112
6.930E-06,-0.152
6.940E-06,-0.208
6.950E-06,-0.248
6.960E-06,-0.264
6.970E-06,-0.288
6.980E-06,-0.320
6.990E-06,-0.368
7.000E-06,-0.408
7.010E-06,-0.480
7.020E-06,-0.552
7.030E-06,-0.656
7.040E-06,-0.736
7.050E-06,-0.768
7.060E-06,-0.760
7.070E-06,-0.664
7.080E-06,-0.512
7.090E-06,-0.328
7.100E-06,-0.120
7.110E-06,0.056
7.120E-06,0.216
7.130E-06,0.352
7.140E-06,0.440
7.150E-06,0.544
7.160E-06,0.600
7.170E-06,0.648
7.180E-06,0.688
7.190E-06,0.696
7.200E-06,0.704
7.210E-06,0.712
7.220E-06,0.712
7.230E-06,0.696
7.240E-06,0.688
7.250E-06,0.680
7.260E-06,0.664
7.270E-06,0.672
7.280E-06,0.664
7.290E-06,0.648
7.300E-06,0.608
7.310E-06,0.568
7.320E-06,0.496
7.330E-06,0.400
7.340E-06,0.288
7.350E-06,0.160
7.360E-06,0.056
7.370E-06,-0.056
7.380E-06,-0.168
7.390E-06,-0.240
7.400E-06,-0.280
7.410E-06,-0.280
7.420E-06,-0.256
7.430E-06,-0.208
7.440E-06,-0.152
7.450E-06,-0.096
7.460E-06,-0.072
7.470E-06,-0.056
7.480E-06,-0.040
7.490E-06,-0.008
7.500E-06,0.000
7.510E-06,0.032
