mediciones/mediciones removidas por ser diferentes/1000V/2/WaveData5622.csv

#timebase=2000000(ps)
,#voltbase=500000(mv/100)
#size=4000
-4.200E-06,-0.100
-4.190E-06,0.040
-4.180E-06,-0.020
-4.170E-06,-0.440
-4.160E-06,-0.220
-4.150E-06,-0.440
-4.140E-06,-0.060
-4.130E-06,0.520
-4.120E-06,0.420
-4.110E-06,0.560
-4.100E-06,0.200
-4.090E-06,-0.340
-4.080E-06,-0.280
-4.070E-06,-0.400
-4.060E-06,-0.020
-4.050E-06,0.340
-4.040E-06,0.460
-4.030E-06,0.440
-4.020E-06,0.280
-4.010E-06,0.140
-4.000E-06,0.000
-3.990E-06,0.080
-3.980E-06,0.160
-3.970E-06,0.220
-3.960E-06,0.260
-3.950E-06,0.140
-3.940E-06,0.000
-3.930E-06,-0.160
-3.920E-06,-0.260
-3.910E-06,-0.320
-3.900E-06,-0.340
-3.890E-06,-0.260
-3.880E-06,-0.240
-3.870E-06,-0.240
-3.860E-06,-0.300
-3.850E-06,-0.400
-3.840E-06,-0.420
-3.830E-06,-0.360
-3.820E-06,-0.320
-3.810E-06,-0.240
-3.800E-06,-0.200
-3.790E-06,-0.180
-3.780E-06,-0.120
-3.770E-06,-0.140
-3.760E-06,-0.100
-3.750E-06,-0.100
-3.740E-06,-0.080
-3.730E-06,0.020
-3.720E-06,0.080
-3.710E-06,0.160
-3.700E-06,0.200
-3.690E-06,0.260
-3.680E-06,0.280
-3.670E-06,0.240
-3.660E-06,0.300
-3.650E-06,0.340
-3.640E-06,0.260
-3.630E-06,0.360
-3.620E-06,0.520
-3.610E-06,0.160
-3.600E-06,-0.140
-3.590E-06,-0.580
-3.580E-06,-0.600
-3.570E-06,0.260
-3.560E-06,0.440
-3.550E-06,1.220
-3.540E-06,0.980
-3.530E-06,0.100
-3.520E-06,-0.280
-3.510E-06,-1.180
-3.500E-06,-0.520
-3.490E-06,0.100
-3.480E-06,0.400
-3.470E-06,0.740
-3.460E-06,0.280
-3.450E-06,0.240
-3.440E-06,-0.020
-3.430E-06,-0.100
-3.420E-06,0.060
-3.410E-06,0.000
-3.400E-06,0.000
-3.390E-06,-0.040
-3.380E-06,-0.140
-3.370E-06,-0.160
-3.360E-06,-0.060
-3.350E-06,-0.340
-3.340E-06,-0.480
-3.330E-06,-0.580
-3.320E-06,-0.580
-3.310E-06,-0.380
-3.300E-06,-0.220
-3.290E-06,-0.200
-3.280E-06,-0.260
-3.270E-06,-0.400
-3.260E-06,-0.420
-3.250E-06,-0.420
-3.240E-06,-0.340
-3.230E-06,-0.200
-3.220E-06,-0.080
-3.210E-06,0.040
-3.200E-06,0.000
-3.190E-06,0.060
-3.180E-06,-0.020
-3.170E-06,0.000
-3.160E-06,0.060
-3.150E-06,0.160
-3.140E-06,0.280
-3.130E-06,0.340
-3.120E-06,0.260
-3.110E-06,0.160
-3.100E-06,0.160
-3.090E-06,0.100
-3.080E-06,0.100
-3.070E-06,0.200
-3.060E-06,0.180
-3.050E-06,0.280
-3.040E-06,0.260
-3.030E-06,0.260
-3.020E-06,0.160
-3.010E-06,0.000
-3.000E-06,-0.080
-2.990E-06,-0.080
-2.980E-06,-0.180
-2.970E-06,-0.080
-2.960E-06,-0.180
-2.950E-06,-0.160
-2.940E-06,0.020
-2.930E-06,0.060
-2.920E-06,0.560
-2.910E-06,0.420
-2.900E-06,0.300
-2.890E-06,0.280
-2.880E-06,-0.240
-2.870E-06,0.140
-2.860E-06,-0.020
-2.850E-06,-0.300
-2.840E-06,-0.080
-2.830E-06,-0.180
-2.820E-06,0.480
-2.810E-06,0.020
-2.800E-06,0.160
-2.790E-06,0.320
-2.780E-06,-0.400
-2.770E-06,0.240
-2.760E-06,-0.260
-2.750E-06,0.000
-2.740E-06,0.060
-2.730E-06,-0.520
-2.720E-06,-0.260
-2.710E-06,-0.120
-2.700E-06,-0.020
-2.690E-06,0.280
-2.680E-06,0.080
-2.670E-06,-0.060
-2.660E-06,-0.140
-2.650E-06,-0.240
-2.640E-06,-0.340
-2.630E-06,-0.100
-2.620E-06,-0.120
-2.610E-06,-0.120
-2.600E-06,-0.360
-2.590E-06,-0.560
-2.580E-06,-0.660
-2.570E-06,-0.620
-2.560E-06,-0.620
-2.550E-06,-0.500
-2.540E-06,-0.480
-2.530E-06,-0.400
-2.520E-06,-0.300
-2.510E-06,-0.320
-2.500E-06,-0.300
-2.490E-06,-0.320
-2.480E-06,-0.260
-2.470E-06,-0.040
-2.460E-06,0.140
-2.450E-06,0.140
-2.440E-06,0.180
-2.430E-06,0.100
-2.420E-06,0.080
-2.410E-06,0.160
-2.400E-06,0.220
-2.390E-06,0.300
-2.380E-06,0.360
-2.370E-06,0.320
-2.360E-06,0.340
-2.350E-06,0.320
-2.340E-06,0.180
-2.330E-06,0.240
-2.320E-06,0.180
-2.310E-06,0.160
-2.300E-06,0.280
-2.290E-06,0.240
-2.280E-06,0.240
-2.270E-06,0.220
-2.260E-06,0.160
-2.250E-06,0.260
-2.240E-06,0.380
-2.230E-06,0.380
-2.220E-06,0.440
-2.210E-06,0.360
-2.200E-06,-0.100
-2.190E-06,-0.460
-2.180E-06,-0.060
-2.170E-06,-0.160
-2.160E-06,0.560
-2.150E-06,0.960
-2.140E-06,0.380
-2.130E-06,0.360
-2.120E-06,-0.440
-2.110E-06,-0.680
-2.100E-06,-0.200
-2.090E-06,-0.180
-2.080E-06,0.420
-2.070E-06,0.260
-2.060E-06,-0.020
-2.050E-06,-0.100
-2.040E-06,-0.420
-2.030E-06,-0.320
-2.020E-06,-0.340
-2.010E-06,0.060
-2.000E-06,0.120
-1.990E-06,0.220
-1.980E-06,0.060
-1.970E-06,-0.500
-1.960E-06,-0.740
-1.950E-06,-0.980
-1.940E-06,-0.880
-1.930E-06,-0.560
-1.920E-06,-0.300
-1.910E-06,-0.220
-1.900E-06,-0.240
-1.890E-06,-0.380
-1.880E-06,-0.400
-1.870E-06,-0.260
-1.860E-06,0.000
-1.850E-06,0.300
-1.840E-06,0.480
-1.830E-06,0.480
-1.820E-06,0.420
-1.810E-06,0.280
-1.800E-06,0.240
-1.790E-06,0.260
-1.780E-06,0.260
-1.770E-06,0.240
-1.760E-06,0.200
-1.750E-06,0.140
-1.740E-06,0.020
-1.730E-06,-0.060
-1.720E-06,-0.180
-1.710E-06,-0.220
-1.700E-06,-0.160
-1.690E-06,-0.120
-1.680E-06,-0.120
-1.670E-06,-0.140
-1.660E-06,-0.220
-1.650E-06,-0.220
-1.640E-06,-0.420
-1.630E-06,-0.520
-1.620E-06,-0.540
-1.610E-06,-0.480
-1.600E-06,-0.040
-1.590E-06,0.000
-1.580E-06,0.480
-1.570E-06,0.560
-1.560E-06,0.520
-1.550E-06,0.540
-1.540E-06,0.580
-1.530E-06,0.480
-1.520E-06,0.560
-1.510E-06,0.520
-1.500E-06,0.420
-1.490E-06,0.500
-1.480E-06,0.580
-1.470E-06,0.500
-1.460E-06,0.560
-1.450E-06,0.400
-1.440E-06,0.260
-1.430E-06,0.200
-1.420E-06,-0.040
-1.410E-06,0.000
-1.400E-06,-0.080
-1.390E-06,-0.140
-1.380E-06,-0.160
-1.370E-06,-0.300
-1.360E-06,-0.400
-1.350E-06,-0.500
-1.340E-06,-0.600
-1.330E-06,-0.660
-1.320E-06,-0.600
-1.310E-06,-0.620
-1.300E-06,-0.520
-1.290E-06,-0.620
-1.280E-06,-0.560
-1.270E-06,-0.740
-1.260E-06,-0.660
-1.250E-06,-0.560
-1.240E-06,-0.420
-1.230E-06,-0.080
-1.220E-06,0.080
-1.210E-06,0.120
-1.200E-06,0.140
-1.190E-06,-0.020
-1.180E-06,0.000
-1.170E-06,0.100
-1.160E-06,0.080
-1.150E-06,0.180
-1.140E-06,0.060
-1.130E-06,0.040
-1.120E-06,0.020
-1.110E-06,0.120
-1.100E-06,0.220
-1.090E-06,0.340
-1.080E-06,0.400
-1.070E-06,0.360
-1.060E-06,0.300
-1.050E-06,0.340
-1.040E-06,0.340
-1.030E-06,0.260
-1.020E-06,0.060
-1.010E-06,-0.080
-1.000E-06,-0.240
-9.900E-07,-0.560
-9.800E-07,-0.500
-9.700E-07,-0.440
-9.600E-07,-0.180
-9.500E-07,0.040
-9.400E-07,-0.020
-9.300E-07,0.100
-9.200E-07,0.060
-9.100E-07,0.080
-9.000E-07,0.140
-8.900E-07,0.180
-8.800E-07,-0.060
-8.700E-07,0.100
-8.600E-07,-0.160
-8.500E-07,-0.220
-8.400E-07,-0.120
-8.300E-07,-0.280
-8.200E-07,0.080
-8.100E-07,0.320
-8.000E-07,0.420
-7.900E-07,0.780
-7.800E-07,0.600
-7.700E-07,0.480
-7.600E-07,0.500
-7.500E-07,0.480
-7.400E-07,0.600
-7.300E-07,0.740
-7.200E-07,0.620
-7.100E-07,0.480
-7.000E-07,0.260
-6.900E-07,-0.060
-6.800E-07,-0.060
-6.700E-07,0.000
-6.600E-07,-0.160
-6.500E-07,0.000
-6.400E-07,-0.300
-6.300E-07,-0.360
-6.200E-07,-0.600
-6.100E-07,-0.840
-6.000E-07,-0.740
-5.900E-07,-0.720
-5.800E-07,-0.700
-5.700E-07,-0.700
-5.600E-07,-0.820
-5.500E-07,-0.700
-5.400E-07,-0.780
-5.300E-07,-0.800
-5.200E-07,-0.680
-5.100E-07,-0.740
-5.000E-07,-0.500
-4.900E-07,-0.520
-4.800E-07,-0.340
-4.700E-07,-0.120
-4.600E-07,0.120
-4.500E-07,0.400
-4.400E-07,0.440
-4.300E-07,0.540
-4.200E-07,0.540
-4.100E-07,0.520
-4.000E-07,0.700
-3.900E-07,0.860
-3.800E-07,0.740
-3.700E-07,0.660
-3.600E-07,0.580
-3.500E-07,0.540
-3.400E-07,0.760
-3.300E-07,0.880
-3.200E-07,0.840
-3.100E-07,0.760
-3.000E-07,0.460
-2.900E-07,0.240
-2.800E-07,0.120
-2.700E-07,0.040
-2.600E-07,0.040
-2.500E-07,0.080
-2.400E-07,0.100
-2.300E-07,0.020
-2.200E-07,-0.120
-2.100E-07,-0.220
-2.000E-07,-0.360
-1.900E-07,-0.480
-1.800E-07,-0.500
-1.700E-07,-0.580
-1.600E-07,-0.660
-1.500E-07,-0.700
-1.400E-07,-0.660
-1.300E-07,-0.740
-1.200E-07,-0.700
-1.100E-07,-0.780
-1.000E-07,-0.600
-9.000E-08,-0.380
-8.000E-08,-0.360
-7.000E-08,-0.140
-6.000E-08,-0.240
-5.000E-08,-0.460
-4.000E-08,-0.960
-3.000E-08,-1.140
-2.000E-08,-1.400
-1.000E-08,-1.760
0.000E+00,-0.720
1.000E-08,-0.540
2.000E-08,0.820
3.000E-08,2.140
4.000E-08,2.460
5.000E-08,2.320
6.000E-08,0.600
7.000E-08,-0.860
8.000E-08,-2.060
9.000E-08,-1.240
1.000E-07,0.080
1.100E-07,1.780
1.200E-07,2.740
1.300E-07,2.760
1.400E-07,2.240
1.500E-07,1.340
1.600E-07,0.380
1.700E-07,0.940
1.800E-07,1.240
1.900E-07,1.500
2.000E-07,1.740
2.100E-07,1.140
2.200E-07,0.520
2.300E-07,-0.080
2.400E-07,-0.500
2.500E-07,-0.440
2.600E-07,-0.560
2.700E-07,-0.420
2.800E-07,-0.540
2.900E-07,-1.140
3.000E-07,-1.320
3.100E-07,-1.800
3.200E-07,-1.880
3.300E-07,-1.380
3.400E-07,-1.240
3.500E-07,-0.780
3.600E-07,-0.560
3.700E-07,-1.000
3.800E-07,-0.860
3.900E-07,-1.020
4.000E-07,-1.040
4.100E-07,-0.700
4.200E-07,-0.580
4.300E-07,-0.340
4.400E-07,0.000
4.500E-07,0.080
4.600E-07,0.120
4.700E-07,0.160
4.800E-07,0.040
4.900E-07,0.220
5.000E-07,0.320
5.100E-07,0.500
5.200E-07,0.620
5.300E-07,0.520
5.400E-07,0.560
5.500E-07,0.640
5.600E-07,0.720
5.700E-07,0.780
5.800E-07,0.840
5.900E-07,0.820
6.000E-07,0.760
6.100E-07,0.580
6.200E-07,0.460
6.300E-07,0.260
6.400E-07,-0.060
6.500E-07,-0.500
6.600E-07,-0.800
6.700E-07,-0.660
6.800E-07,-0.860
6.900E-07,-0.720
7.000E-07,-0.480
7.100E-07,-0.180
7.200E-07,-0.120
7.300E-07,-0.560
7.400E-07,-0.880
7.500E-07,-0.680
7.600E-07,-0.820
7.700E-07,-0.080
7.800E-07,0.520
7.900E-07,0.320
8.000E-07,1.120
8.100E-07,0.500
8.200E-07,0.100
8.300E-07,0.220
8.400E-07,-0.320
8.500E-07,0.100
8.600E-07,0.740
8.700E-07,0.880
8.800E-07,1.840
8.900E-07,1.620
9.000E-07,1.100
9.100E-07,1.020
9.200E-07,-0.020
9.300E-07,0.120
9.400E-07,-0.020
9.500E-07,0.000
9.600E-07,0.240
9.700E-07,-0.120
9.800E-07,-0.380
9.900E-07,-0.840
1.000E-06,-1.020
1.010E-06,-0.980
1.020E-06,-1.000
1.030E-06,-0.600
1.040E-06,-0.380
1.050E-06,-0.640
1.060E-06,-0.240
1.070E-06,-0.420
1.080E-06,-0.420
1.090E-06,-0.220
1.100E-06,-0.420
1.110E-06,0.020
1.120E-06,0.160
1.130E-06,0.260
1.140E-06,0.340
1.150E-06,0.060
1.160E-06,-0.160
1.170E-06,-0.200
1.180E-06,-0.240
1.190E-06,-0.020
1.200E-06,0.100
1.210E-06,0.120
1.220E-06,0.100
1.230E-06,-0.160
1.240E-06,-0.260
1.250E-06,-0.420
1.260E-06,-0.500
1.270E-06,-0.360
1.280E-06,-0.320
1.290E-06,-0.340
1.300E-06,-0.340
1.310E-06,-0.480
1.320E-06,-0.560
1.330E-06,-0.620
1.340E-06,-0.680
1.350E-06,-0.680
1.360E-06,-0.640
1.370E-06,-0.560
1.380E-06,-0.500
1.390E-06,-0.680
1.400E-06,-0.700
1.410E-06,-0.940
1.420E-06,-0.960
1.430E-06,-1.000
1.440E-06,-1.000
1.450E-06,-0.860
1.460E-06,-1.200
1.470E-06,-0.900
1.480E-06,-1.020
1.490E-06,-0.660
1.500E-06,0.320
1.510E-06,0.320
1.520E-06,1.280
1.530E-06,0.420
1.540E-06,-0.740
1.550E-06,-1.360
1.560E-06,-2.660
1.570E-06,-2.200
1.580E-06,-1.820
1.590E-06,-1.920
1.600E-06,-0.160
1.610E-06,-1.580
1.620E-06,-0.260
1.630E-06,0.160
1.640E-06,-0.120
1.650E-06,1.680
1.660E-06,1.220
1.670E-06,1.680
1.680E-06,2.000
1.690E-06,1.340
1.700E-06,1.680
1.710E-06,1.280
1.720E-06,0.600
1.730E-06,0.600
1.740E-06,0.360
1.750E-06,0.400
1.760E-06,0.600
1.770E-06,0.540
1.780E-06,0.240
1.790E-06,-0.180
1.800E-06,-0.840
1.810E-06,-1.380
1.820E-06,-1.760
1.830E-06,-1.980
1.840E-06,-2.040
1.850E-06,-2.120
1.860E-06,-2.180
1.870E-06,-2.320
1.880E-06,-2.400
1.890E-06,-2.520
1.900E-06,-2.540
1.910E-06,-2.420
1.920E-06,-2.120
1.930E-06,-1.800
1.940E-06,-1.540
1.950E-06,-1.340
1.960E-06,-1.340
1.970E-06,-1.240
1.980E-06,-1.200
1.990E-06,-1.060
2.000E-06,-1.020
2.010E-06,-1.020
2.020E-06,-1.000
2.030E-06,-1.040
2.040E-06,-1.060
2.050E-06,-1.100
2.060E-06,-1.100
2.070E-06,-1.120
2.080E-06,-1.040
2.090E-06,-0.960
2.100E-06,-0.800
2.110E-06,-0.700
2.120E-06,-0.600
2.130E-06,-0.500
2.140E-06,-0.440
2.150E-06,-0.220
2.160E-06,-0.240
2.170E-06,-0.120
2.180E-06,0.380
2.190E-06,0.000
2.200E-06,0.420
2.210E-06,0.240
2.220E-06,-0.260
2.230E-06,0.260
2.240E-06,0.320
2.250E-06,0.380
2.260E-06,0.760
2.270E-06,0.280
2.280E-06,0.180
2.290E-06,0.280
2.300E-06,-0.020
2.310E-06,-0.220
2.320E-06,-0.120
2.330E-06,-0.420
2.340E-06,-0.240
2.350E-06,-0.180
2.360E-06,-0.300
2.370E-06,0.160
2.380E-06,0.440
2.390E-06,0.700
2.400E-06,1.080
2.410E-06,1.060
2.420E-06,1.020
2.430E-06,1.040
2.440E-06,0.900
2.450E-06,0.840
2.460E-06,0.720
2.470E-06,0.760
2.480E-06,0.620
2.490E-06,0.420
2.500E-06,0.240
2.510E-06,-0.160
2.520E-06,-0.420
2.530E-06,-0.700
2.540E-06,-0.760
2.550E-06,-0.760
2.560E-06,-0.700
2.570E-06,-0.720
2.580E-06,-0.780
2.590E-06,-0.860
2.600E-06,-0.940
2.610E-06,-0.940
2.620E-06,-0.880
2.630E-06,-0.800
2.640E-06,-0.700
2.650E-06,-0.580
2.660E-06,-0.560
2.670E-06,-0.480
2.680E-06,-0.500
2.690E-06,-0.560
2.700E-06,-0.520
2.710E-06,-0.440
2.720E-06,-0.340
2.730E-06,-0.260
2.740E-06,-0.220
2.750E-06,-0.200
2.760E-06,-0.200
2.770E-06,-0.220
2.780E-06,-0.240
2.790E-06,-0.220
2.800E-06,-0.200
2.810E-06,-0.120
2.820E-06,-0.100
2.830E-06,-0.040
2.840E-06,0.020
2.850E-06,-0.020
2.860E-06,0.040
2.870E-06,0.080
2.880E-06,0.160
2.890E-06,0.200
2.900E-06,0.220
2.910E-06,0.240
2.920E-06,0.220
2.930E-06,0.260
2.940E-06,0.200
2.950E-06,0.180
2.960E-06,0.160
2.970E-06,0.160
2.980E-06,0.120
2.990E-06,0.080
3.000E-06,0.060
3.010E-06,0.000
3.020E-06,-0.020
3.030E-06,-0.020
3.040E-06,0.000
3.050E-06,-0.040
3.060E-06,-0.060
3.070E-06,-0.060
3.080E-06,-0.100
3.090E-06,-0.120
3.100E-06,-0.140
3.110E-06,-0.200
3.120E-06,-0.180
3.130E-06,-0.220
3.140E-06,-0.260
3.150E-06,-0.280
3.160E-06,-0.320
3.170E-06,-0.360
3.180E-06,-0.380
3.190E-06,-0.360
3.200E-06,-0.380
3.210E-06,-0.320
3.220E-06,-0.320
3.230E-06,-0.300
3.240E-06,-0.300
3.250E-06,-0.320
3.260E-06,-0.320
3.270E-06,-0.340
3.280E-06,-0.320
3.290E-06,-0.300
3.300E-06,-0.280
3.310E-06,-0.260
3.320E-06,-0.260
3.330E-06,-0.240
3.340E-06,-0.260
3.350E-06,-0.200
3.360E-06,-0.160
3.370E-06,-0.160
3.380E-06,-0.180
3.390E-06,-0.180
3.400E-06,-0.160
3.410E-06,-0.160
3.420E-06,-0.180
3.430E-06,-0.160
3.440E-06,-0.160
3.450E-06,-0.140
3.460E-06,-0.160
3.470E-06,-0.140
3.480E-06,-0.160
3.490E-06,-0.100
3.500E-06,-0.080
3.510E-06,-0.080
3.520E-06,-0.040
3.530E-06,-0.020
3.540E-06,0.000
3.550E-06,0.020
3.560E-06,-0.020
3.570E-06,0.020
3.580E-06,0.040
3.590E-06,0.040
3.600E-06,0.040
3.610E-06,0.040
3.620E-06,0.060
3.630E-06,0.080
3.640E-06,0.080
3.650E-06,0.080
3.660E-06,0.100
3.670E-06,0.080
3.680E-06,0.080
3.690E-06,0.020
3.700E-06,0.000
3.710E-06,-0.020
3.720E-06,-0.040
3.730E-06,-0.080
3.740E-06,-0.080
3.750E-06,-0.140
3.760E-06,-0.160
3.770E-06,-0.180
3.780E-06,-0.220
3.790E-06,-0.180
3.800E-06,-0.180
3.810E-06,-0.220
3.820E-06,-0.260
3.830E-06,-0.260
3.840E-06,-0.260
3.850E-06,-0.300
3.860E-06,-0.280
3.870E-06,-0.260
3.880E-06,-0.300
3.890E-06,-0.300
3.900E-06,-0.340
3.910E-06,-0.340
3.920E-06,-0.340
3.930E-06,-0.340
3.940E-06,-0.340
3.950E-06,-0.360
3.960E-06,-0.360
3.970E-06,-0.340
3.980E-06,-0.380
3.990E-06,-0.360
4.000E-06,-0.360
4.010E-06,-0.360
4.020E-06,-0.340
4.030E-06,-0.240
4.040E-06,-0.220
4.050E-06,-0.180
4.060E-06,-0.180
4.070E-06,-0.120
4.080E-06,-0.100
4.090E-06,-0.080
4.100E-06,-0.100
4.110E-06,-0.100
4.120E-06,-0.140
4.130E-06,-0.140
4.140E-06,-0.120
4.150E-06,-0.160
4.160E-06,-0.160
4.170E-06,-0.160
4.180E-06,-0.160
4.190E-06,-0.140
4.200E-06,-0.080
4.210E-06,0.000
4.220E-06,0.060
4.230E-06,0.140
4.240E-06,0.200
4.250E-06,0.280
4.260E-06,0.320
4.270E-06,0.360
4.280E-06,0.360
4.290E-06,0.360
4.300E-06,0.360
4.310E-06,0.360
4.320E-06,0.340
4.330E-06,0.320
4.340E-06,0.220
4.350E-06,0.220
4.360E-06,0.200
4.370E-06,0.180
4.380E-06,0.180
4.390E-06,0.180
4.400E-06,0.160
4.410E-06,0.140
4.420E-06,0.100
4.430E-06,0.120
4.440E-06,0.040
4.450E-06,0.020
4.460E-06,0.040
4.470E-06,0.000
4.480E-06,0.020
4.490E-06,0.000
4.500E-06,-0.060
4.510E-06,-0.080
4.520E-06,-0.120
4.530E-06,-0.160
4.540E-06,-0.180
4.550E-06,-0.180
4.560E-06,-0.260
4.570E-06,-0.280
4.580E-06,-0.240
4.590E-06,-0.280
4.600E-06,-0.280
4.610E-06,-0.260
4.620E-06,-0.260
4.630E-06,-0.260
4.640E-06,-0.260
4.650E-06,-0.260
4.660E-06,-0.240
4.670E-06,-0.180
4.680E-06,-0.180
4.690E-06,-0.140
4.700E-06,-0.120
4.710E-06,-0.040
4.720E-06,0.000
4.730E-06,0.060
4.740E-06,0.140
4.750E-06,0.160
4.760E-06,0.200
4.770E-06,0.220
4.780E-06,0.200
4.790E-06,0.220
4.800E-06,0.220
4.810E-06,0.220
4.820E-06,0.180
4.830E-06,0.160
4.840E-06,0.180
4.850E-06,0.160
4.860E-06,0.180
4.870E-06,0.160
4.880E-06,0.160
4.890E-06,0.160
4.900E-06,0.160
4.910E-06,0.160
4.920E-06,0.180
4.930E-06,0.100
4.940E-06,0.080
4.950E-06,0.060
4.960E-06,0.000
4.970E-06,0.000
4.980E-06,0.000
4.990E-06,0.020
5.000E-06,-0.020
5.010E-06,-0.060
5.020E-06,-0.060
5.030E-06,-0.080
5.040E-06,-0.120
5.050E-06,-0.140
5.060E-06,-0.180
5.070E-06,-0.200
5.080E-06,-0.160
5.090E-06,-0.140
5.100E-06,-0.060
5.110E-06,0.020
5.120E-06,0.040
5.130E-06,0.100
5.140E-06,0.140
5.150E-06,0.140
5.160E-06,0.160
5.170E-06,0.160
5.180E-06,0.180
5.190E-06,0.160
5.200E-06,0.180
5.210E-06,0.140
5.220E-06,0.080
5.230E-06,0.040
5.240E-06,0.020
5.250E-06,-0.060
5.260E-06,-0.060
5.270E-06,-0.100
5.280E-06,-0.120
5.290E-06,-0.060
5.300E-06,0.020
5.310E-06,0.060
5.320E-06,0.160
5.330E-06,0.260
5.340E-06,0.340
5.350E-06,0.400
5.360E-06,0.400
5.370E-06,0.420
5.380E-06,0.460
5.390E-06,0.420
5.400E-06,0.420
5.410E-06,0.340
5.420E-06,0.300
5.430E-06,0.220
5.440E-06,0.140
5.450E-06,0.040
5.460E-06,-0.020
5.470E-06,-0.120
5.480E-06,-0.140
5.490E-06,-0.160
5.500E-06,-0.140
5.510E-06,-0.120
5.520E-06,-0.080
5.530E-06,-0.060
5.540E-06,-0.080
5.550E-06,-0.060
5.560E-06,-0.100
5.570E-06,-0.040
5.580E-06,-0.040
5.590E-06,-0.020
5.600E-06,0.020
5.610E-06,0.060
5.620E-06,0.040
5.630E-06,0.060
5.640E-06,0.000
5.650E-06,0.040
5.660E-06,0.000
5.670E-06,-0.040
5.680E-06,-0.040
5.690E-06,-0.040
5.700E-06,0.000
5.710E-06,0.060
5.720E-06,0.180
5.730E-06,0.260
5.740E-06,0.300
5.750E-06,0.320
5.760E-06,0.340
5.770E-06,0.320
5.780E-06,0.300
5.790E-06,0.300
5.800E-06,0.280
5.810E-06,0.300
5.820E-06,0.320
5.830E-06,0.320
5.840E-06,0.320
5.850E-06,0.300
5.860E-06,0.260
5.870E-06,0.200
5.880E-06,0.160
5.890E-06,0.140
5.900E-06,0.120
5.910E-06,0.100
5.920E-06,0.080
5.930E-06,0.080
5.940E-06,0.080
5.950E-06,0.040
5.960E-06,0.040
5.970E-06,0.000
5.980E-06,-0.060
5.990E-06,-0.100
6.000E-06,-0.080
6.010E-06,0.000
6.020E-06,0.060
6.030E-06,0.180
6.040E-06,0.280
6.050E-06,0.320
6.060E-06,0.420
6.070E-06,0.480
6.080E-06,0.480
6.090E-06,0.500
6.100E-06,0.500
6.110E-06,0.520
6.120E-06,0.560
6.130E-06,0.560
6.140E-06,0.580
6.150E-06,0.600
6.160E-06,0.600
6.170E-06,0.620
6.180E-06,0.620
6.190E-06,0.580
6.200E-06,0.540
6.210E-06,0.540
6.220E-06,0.500
6.230E-06,0.520
6.240E-06,0.460
6.250E-06,0.420
6.260E-06,0.340
6.270E-06,0.300
6.280E-06,0.220
6.290E-06,0.180
6.300E-06,0.060
6.310E-06,0.100
6.320E-06,0.100
6.330E-06,0.140
6.340E-06,0.160
6.350E-06,0.240
6.360E-06,0.280
6.370E-06,0.320
6.380E-06,0.320
6.390E-06,0.320
6.400E-06,0.340
6.410E-06,0.300
6.420E-06,0.240
6.430E-06,0.240
6.440E-06,0.220
6.450E-06,0.180
6.460E-06,0.140
6.470E-06,0.120
6.480E-06,0.100
6.490E-06,0.060
6.500E-06,0.060
6.510E-06,0.060
6.520E-06,0.020
6.530E-06,0.040
6.540E-06,0.120
6.550E-06,0.180
6.560E-06,0.220
6.570E-06,0.320
6.580E-06,0.360
6.590E-06,0.480
6.600E-06,0.560
6.610E-06,0.680
6.620E-06,0.760
6.630E-06,0.920
6.640E-06,1.040
6.650E-06,1.300
6.660E-06,1.540
6.670E-06,1.900
6.680E-06,2.360
6.690E-06,2.740
6.700E-06,2.760
6.710E-06,2.760
6.720E-06,2.760
6.730E-06,2.760
6.740E-06,2.760
6.750E-06,2.740
6.760E-06,2.760
6.770E-06,2.760
6.780E-06,2.740
6.790E-06,2.760
6.800E-06,2.760
6.810E-06,2.760
6.820E-06,2.460
6.830E-06,2.160
6.840E-06,1.840
6.850E-06,1.460
6.860E-06,1.200
6.870E-06,0.980
6.880E-06,0.780
6.890E-06,0.680
6.900E-06,0.600
6.910E-06,0.520
6.920E-06,0.440
6.930E-06,0.400
6.940E-06,0.340
6.950E-06,0.220
6.960E-06,0.160
6.970E-06,0.100
6.980E-06,0.100
6.990E-06,0.040
7.000E-06,0.000
7.010E-06,0.040
7.020E-06,0.080
7.030E-06,0.120
7.040E-06,0.180
7.050E-06,0.260
7.060E-06,0.300
7.070E-06,0.360
7.080E-06,0.380
7.090E-06,0.420
7.100E-06,0.480
7.110E-06,0.500
7.120E-06,0.480
7.130E-06,0.500
7.140E-06,0.520
7.150E-06,0.500
7.160E-06,0.440
7.170E-06,0.440
7.180E-06,0.360
7.190E-06,0.280
7.200E-06,0.220
7.210E-06,0.140
7.220E-06,0.060
7.230E-06,0.000
7.240E-06,-0.020
7.250E-06,0.000
7.260E-06,0.020
7.270E-06,0.000
7.280E-06,0.040
7.290E-06,0.140
7.300E-06,0.180
7.310E-06,0.240
7.320E-06,0.280
7.330E-06,0.380
7.340E-06,0.380
7.350E-06,0.440
7.360E-06,0.460
7.370E-06,0.480
7.380E-06,0.480
7.390E-06,0.440
7.400E-06,0.380
7.410E-06,0.380
7.420E-06,0.320
7.430E-06,0.280
7.440E-06,0.240
7.450E-06,0.200
7.460E-06,0.160
7.470E-06,0.140
7.480E-06,0.100
7.490E-06,0.140
7.500E-06,0.080
7.510E-06,0.100
7.520E-06,0.140
7.530E-06,0.120
7.540E-06,0.160
7.550E-06,0.160
7.560E-06,0.220
7.570E-06,0.260
7.580E-06,0.300
7.590E-06,0.320
7.600E-06,0.360
7.610E-06,0.400
7.620E-06,0.360
7.630E-06,0.360
7.640E-06,0.380
