mediciones/mediciones removidas por ser diferentes/1000V/2/WaveData5620.csv

#timebase=2000000(ps)
,#voltbase=500000(mv/100)
#size=4000
-4.200E-06,2.620
-4.190E-06,2.320
-4.180E-06,1.740
-4.170E-06,0.900
-4.160E-06,-0.760
-4.150E-06,-1.200
-4.140E-06,-1.760
-4.130E-06,-2.100
-4.120E-06,-2.000
-4.110E-06,-2.320
-4.100E-06,-2.240
-4.090E-06,-2.100
-4.080E-06,-1.680
-4.070E-06,-1.080
-4.060E-06,-0.500
-4.050E-06,-0.140
-4.040E-06,0.080
-4.030E-06,0.200
-4.020E-06,0.200
-4.010E-06,0.280
-4.000E-06,0.440
-3.990E-06,0.500
-3.980E-06,0.620
-3.970E-06,0.660
-3.960E-06,0.680
-3.950E-06,0.780
-3.940E-06,0.780
-3.930E-06,0.860
-3.920E-06,0.920
-3.910E-06,0.920
-3.900E-06,0.820
-3.890E-06,0.640
-3.880E-06,0.380
-3.870E-06,0.180
-3.860E-06,-0.060
-3.850E-06,-0.220
-3.840E-06,-0.260
-3.830E-06,-0.360
-3.820E-06,-0.380
-3.810E-06,-0.360
-3.800E-06,-0.240
-3.790E-06,-0.100
-3.780E-06,0.060
-3.770E-06,0.260
-3.760E-06,0.440
-3.750E-06,0.560
-3.740E-06,0.640
-3.730E-06,0.700
-3.720E-06,0.720
-3.710E-06,0.560
-3.700E-06,0.460
-3.690E-06,0.380
-3.680E-06,0.220
-3.670E-06,0.140
-3.660E-06,0.000
-3.650E-06,-0.180
-3.640E-06,-0.320
-3.630E-06,-0.520
-3.620E-06,-0.700
-3.610E-06,-0.860
-3.600E-06,-0.940
-3.590E-06,-0.940
-3.580E-06,-1.000
-3.570E-06,-0.920
-3.560E-06,-0.820
-3.550E-06,-0.720
-3.540E-06,-0.500
-3.530E-06,-0.360
-3.520E-06,-0.120
-3.510E-06,0.120
-3.500E-06,0.260
-3.490E-06,0.440
-3.480E-06,0.540
-3.470E-06,0.640
-3.460E-06,0.720
-3.450E-06,0.760
-3.440E-06,0.720
-3.430E-06,0.660
-3.420E-06,0.540
-3.410E-06,0.420
-3.400E-06,0.320
-3.390E-06,0.220
-3.380E-06,0.160
-3.370E-06,0.140
-3.360E-06,0.040
-3.350E-06,-0.040
-3.340E-06,-0.060
-3.330E-06,-0.160
-3.320E-06,-0.240
-3.310E-06,-0.260
-3.300E-06,-0.300
-3.290E-06,-0.300
-3.280E-06,-0.300
-3.270E-06,-0.240
-3.260E-06,-0.300
-3.250E-06,-0.140
-3.240E-06,-0.040
-3.230E-06,0.060
-3.220E-06,0.320
-3.210E-06,0.220
-3.200E-06,0.100
-3.190E-06,0.280
-3.180E-06,0.360
-3.170E-06,0.400
-3.160E-06,0.640
-3.150E-06,0.520
-3.140E-06,0.440
-3.130E-06,0.160
-3.120E-06,0.040
-3.110E-06,0.120
-3.100E-06,0.180
-3.090E-06,0.240
-3.080E-06,0.420
-3.070E-06,-0.140
-3.060E-06,-0.080
-3.050E-06,-0.100
-3.040E-06,-0.200
-3.030E-06,0.260
-3.020E-06,0.240
-3.010E-06,0.260
-3.000E-06,0.140
-2.990E-06,-0.240
-2.980E-06,-0.220
-2.970E-06,-0.220
-2.960E-06,-0.080
-2.950E-06,0.160
-2.940E-06,0.180
-2.930E-06,0.080
-2.920E-06,-0.040
-2.910E-06,-0.080
-2.900E-06,-0.060
-2.890E-06,0.000
-2.880E-06,0.160
-2.870E-06,0.180
-2.860E-06,0.240
-2.850E-06,0.160
-2.840E-06,0.100
-2.830E-06,0.080
-2.820E-06,0.060
-2.810E-06,0.100
-2.800E-06,0.100
-2.790E-06,0.080
-2.780E-06,0.020
-2.770E-06,-0.020
-2.760E-06,-0.020
-2.750E-06,-0.060
-2.740E-06,0.000
-2.730E-06,0.000
-2.720E-06,0.120
-2.710E-06,0.060
-2.700E-06,0.080
-2.690E-06,0.120
-2.680E-06,0.120
-2.670E-06,0.160
-2.660E-06,0.140
-2.650E-06,0.100
-2.640E-06,0.160
-2.630E-06,0.160
-2.620E-06,0.180
-2.610E-06,0.160
-2.600E-06,0.460
-2.590E-06,0.000
-2.580E-06,0.040
-2.570E-06,0.180
-2.560E-06,-0.100
-2.550E-06,0.560
-2.540E-06,0.560
-2.530E-06,0.520
-2.520E-06,0.500
-2.510E-06,0.060
-2.500E-06,-0.020
-2.490E-06,0.000
-2.480E-06,0.100
-2.470E-06,0.220
-2.460E-06,0.260
-2.450E-06,0.080
-2.440E-06,-0.040
-2.430E-06,-0.120
-2.420E-06,-0.100
-2.410E-06,0.020
-2.400E-06,0.180
-2.390E-06,0.180
-2.380E-06,0.220
-2.370E-06,0.180
-2.360E-06,0.100
-2.350E-06,0.180
-2.340E-06,0.220
-2.330E-06,0.300
-2.320E-06,0.120
-2.310E-06,0.140
-2.300E-06,0.180
-2.290E-06,0.160
-2.280E-06,0.320
-2.270E-06,0.420
-2.260E-06,0.420
-2.250E-06,0.320
-2.240E-06,0.180
-2.230E-06,0.020
-2.220E-06,0.080
-2.210E-06,0.040
-2.200E-06,0.160
-2.190E-06,0.260
-2.180E-06,0.160
-2.170E-06,0.080
-2.160E-06,0.020
-2.150E-06,-0.020
-2.140E-06,0.040
-2.130E-06,0.140
-2.120E-06,0.140
-2.110E-06,0.140
-2.100E-06,0.100
-2.090E-06,0.080
-2.080E-06,0.080
-2.070E-06,0.100
-2.060E-06,0.120
-2.050E-06,0.120
-2.040E-06,0.140
-2.030E-06,0.140
-2.020E-06,0.080
-2.010E-06,0.020
-2.000E-06,0.040
-1.990E-06,0.100
-1.980E-06,0.100
-1.970E-06,0.160
-1.960E-06,0.160
-1.950E-06,0.160
-1.940E-06,0.080
-1.930E-06,-0.040
-1.920E-06,-0.320
-1.910E-06,-0.580
-1.900E-06,-0.800
-1.890E-06,-0.760
-1.880E-06,-0.580
-1.870E-06,-0.220
-1.860E-06,0.120
-1.850E-06,0.380
-1.840E-06,0.500
-1.830E-06,0.580
-1.820E-06,0.600
-1.810E-06,0.660
-1.800E-06,0.720
-1.790E-06,0.860
-1.780E-06,0.900
-1.770E-06,0.820
-1.760E-06,0.740
-1.750E-06,0.620
-1.740E-06,0.520
-1.730E-06,0.460
-1.720E-06,0.380
-1.710E-06,0.320
-1.700E-06,0.220
-1.690E-06,0.080
-1.680E-06,-0.040
-1.670E-06,-0.060
-1.660E-06,-0.140
-1.650E-06,-0.180
-1.640E-06,-0.220
-1.630E-06,-0.140
-1.620E-06,0.000
-1.610E-06,0.160
-1.600E-06,0.300
-1.590E-06,0.280
-1.580E-06,0.020
-1.570E-06,-0.120
-1.560E-06,-0.240
-1.550E-06,-0.140
-1.540E-06,0.100
-1.530E-06,0.360
-1.520E-06,0.700
-1.510E-06,0.780
-1.500E-06,0.800
-1.490E-06,0.680
-1.480E-06,0.700
-1.470E-06,1.000
-1.460E-06,1.200
-1.450E-06,1.240
-1.440E-06,1.480
-1.430E-06,1.280
-1.420E-06,1.160
-1.410E-06,0.980
-1.400E-06,0.820
-1.390E-06,1.080
-1.380E-06,1.080
-1.370E-06,1.180
-1.360E-06,1.120
-1.350E-06,0.980
-1.340E-06,1.040
-1.330E-06,1.000
-1.320E-06,1.100
-1.310E-06,1.280
-1.300E-06,1.100
-1.290E-06,1.140
-1.280E-06,0.980
-1.270E-06,0.820
-1.260E-06,0.840
-1.250E-06,0.800
-1.240E-06,0.720
-1.230E-06,0.860
-1.220E-06,0.700
-1.210E-06,0.760
-1.200E-06,0.620
-1.190E-06,0.740
-1.180E-06,0.780
-1.170E-06,0.520
-1.160E-06,0.800
-1.150E-06,0.600
-1.140E-06,0.560
-1.130E-06,0.560
-1.120E-06,0.420
-1.110E-06,0.360
-1.100E-06,0.360
-1.090E-06,0.160
-1.080E-06,0.200
-1.070E-06,0.100
-1.060E-06,0.080
-1.050E-06,0.160
-1.040E-06,0.080
-1.030E-06,0.240
-1.020E-06,0.180
-1.010E-06,0.060
-1.000E-06,0.340
-9.900E-07,0.220
-9.800E-07,0.380
-9.700E-07,0.480
-9.600E-07,0.400
-9.500E-07,0.580
-9.400E-07,0.520
-9.300E-07,0.500
-9.200E-07,0.440
-9.100E-07,0.520
-9.000E-07,0.280
-8.900E-07,0.400
-8.800E-07,0.080
-8.700E-07,0.020
-8.600E-07,-0.160
-8.500E-07,-0.680
-8.400E-07,0.100
-8.300E-07,0.560
-8.200E-07,1.120
-8.100E-07,1.400
-8.000E-07,0.740
-7.900E-07,0.080
-7.800E-07,-0.140
-7.700E-07,-0.300
-7.600E-07,0.600
-7.500E-07,1.760
-7.400E-07,0.920
-7.300E-07,1.100
-7.200E-07,-0.080
-7.100E-07,-1.540
-7.000E-07,-0.260
-6.900E-07,-0.600
-6.800E-07,0.740
-6.700E-07,1.800
-6.600E-07,1.000
-6.500E-07,1.340
-6.400E-07,0.540
-6.300E-07,0.280
-6.200E-07,0.800
-6.100E-07,0.800
-6.000E-07,1.280
-5.900E-07,1.240
-5.800E-07,1.320
-5.700E-07,0.880
-5.600E-07,0.500
-5.500E-07,0.500
-5.400E-07,0.100
-5.300E-07,0.320
-5.200E-07,0.280
-5.100E-07,0.240
-5.000E-07,0.400
-4.900E-07,0.320
-4.800E-07,-0.200
-4.700E-07,-0.340
-4.600E-07,-0.420
-4.500E-07,-0.460
-4.400E-07,-0.140
-4.300E-07,0.020
-4.200E-07,-0.080
-4.100E-07,0.120
-4.000E-07,-0.040
-3.900E-07,-0.080
-3.800E-07,0.100
-3.700E-07,0.180
-3.600E-07,0.320
-3.500E-07,0.440
-3.400E-07,0.580
-3.300E-07,0.560
-3.200E-07,0.600
-3.100E-07,0.560
-3.000E-07,0.440
-2.900E-07,0.520
-2.800E-07,0.420
-2.700E-07,0.420
-2.600E-07,0.440
-2.500E-07,0.420
-2.400E-07,0.360
-2.300E-07,0.420
-2.200E-07,0.380
-2.100E-07,0.340
-2.000E-07,0.480
-1.900E-07,0.320
-1.800E-07,0.140
-1.700E-07,0.240
-1.600E-07,0.580
-1.500E-07,-0.060
-1.400E-07,0.360
-1.300E-07,0.300
-1.200E-07,-0.500
-1.100E-07,0.340
-1.000E-07,-0.060
-9.000E-08,-0.020
-8.000E-08,1.460
-7.000E-08,0.800
-6.000E-08,1.880
-5.000E-08,1.540
-4.000E-08,0.440
-3.000E-08,-0.580
-2.000E-08,-1.220
-1.000E-08,-1.080
0.000E+00,-0.340
1.000E-08,1.360
2.000E-08,0.540
3.000E-08,0.720
4.000E-08,0.080
5.000E-08,-0.740
6.000E-08,0.080
7.000E-08,0.260
8.000E-08,0.320
9.000E-08,1.280
1.000E-07,0.740
1.100E-07,0.740
1.200E-07,0.620
1.300E-07,0.060
1.400E-07,0.060
1.500E-07,0.200
1.600E-07,0.080
1.700E-07,0.260
1.800E-07,0.300
1.900E-07,-0.060
2.000E-07,-0.480
2.100E-07,-0.800
2.200E-07,-1.040
2.300E-07,-0.880
2.400E-07,-0.420
2.500E-07,-0.260
2.600E-07,-0.340
2.700E-07,-0.520
2.800E-07,-0.820
2.900E-07,-0.740
3.000E-07,-0.500
3.100E-07,-0.340
3.200E-07,-0.040
3.300E-07,0.020
3.400E-07,0.020
3.500E-07,0.160
3.600E-07,0.220
3.700E-07,0.120
3.800E-07,0.140
3.900E-07,0.080
4.000E-07,0.180
4.100E-07,0.160
4.200E-07,0.300
4.300E-07,0.140
4.400E-07,0.020
4.500E-07,0.000
4.600E-07,-0.120
4.700E-07,-0.080
4.800E-07,0.000
4.900E-07,-0.020
5.000E-07,0.080
5.100E-07,0.240
5.200E-07,0.320
5.300E-07,0.420
5.400E-07,0.420
5.500E-07,0.420
5.600E-07,0.620
5.700E-07,0.680
5.800E-07,0.540
5.900E-07,0.560
6.000E-07,0.420
6.100E-07,0.320
6.200E-07,0.320
6.300E-07,0.280
6.400E-07,0.360
6.500E-07,0.500
6.600E-07,0.460
6.700E-07,0.380
6.800E-07,0.480
6.900E-07,0.140
7.000E-07,0.400
7.100E-07,0.540
7.200E-07,0.220
7.300E-07,0.080
7.400E-07,-0.300
7.500E-07,-1.440
7.600E-07,-1.920
7.700E-07,-2.660
7.800E-07,-2.660
7.900E-07,-2.660
8.000E-07,-2.660
8.100E-07,-2.660
8.200E-07,-2.660
8.300E-07,-2.660
8.400E-07,-2.660
8.500E-07,-2.680
8.600E-07,-2.660
8.700E-07,-2.660
8.800E-07,-2.640
8.900E-07,-2.660
9.000E-07,-2.660
9.100E-07,-2.660
9.200E-07,-2.640
9.300E-07,-2.640
9.400E-07,-2.660
9.500E-07,-2.660
9.600E-07,-2.320
9.700E-07,-2.120
9.800E-07,-1.860
9.900E-07,-2.160
1.000E-06,-1.700
1.010E-06,-1.500
1.020E-06,-1.300
1.030E-06,-0.860
1.040E-06,-1.340
1.050E-06,-0.960
1.060E-06,-0.960
1.070E-06,-1.040
1.080E-06,-0.100
1.090E-06,0.100
1.100E-06,0.520
1.110E-06,1.120
1.120E-06,0.980
1.130E-06,0.620
1.140E-06,0.000
1.150E-06,-0.100
1.160E-06,-0.680
1.170E-06,-0.560
1.180E-06,-1.160
1.190E-06,-1.620
1.200E-06,-1.440
1.210E-06,-1.240
1.220E-06,-1.180
1.230E-06,-0.040
1.240E-06,1.160
1.250E-06,0.940
1.260E-06,1.620
1.270E-06,0.000
1.280E-06,0.060
1.290E-06,-0.820
1.300E-06,-0.280
1.310E-06,0.060
1.320E-06,0.000
1.330E-06,0.060
1.340E-06,-0.540
1.350E-06,-1.080
1.360E-06,-0.980
1.370E-06,-0.740
1.380E-06,-0.020
1.390E-06,0.300
1.400E-06,0.540
1.410E-06,0.540
1.420E-06,0.300
1.430E-06,0.180
1.440E-06,0.300
1.450E-06,0.320
1.460E-06,0.400
1.470E-06,0.420
1.480E-06,0.340
1.490E-06,0.160
1.500E-06,-0.060
1.510E-06,-0.300
1.520E-06,-0.320
1.530E-06,-0.340
1.540E-06,-0.240
1.550E-06,-0.080
1.560E-06,0.000
1.570E-06,-0.140
1.580E-06,-0.280
1.590E-06,-0.460
1.600E-06,-0.620
1.610E-06,-0.640
1.620E-06,-0.660
1.630E-06,-0.620
1.640E-06,-0.660
1.650E-06,-0.680
1.660E-06,-0.660
1.670E-06,-0.720
1.680E-06,-0.840
1.690E-06,-0.800
1.700E-06,-0.840
1.710E-06,-0.560
1.720E-06,-0.300
1.730E-06,-0.260
1.740E-06,-0.140
1.750E-06,-0.400
1.760E-06,-0.620
1.770E-06,-0.620
1.780E-06,-0.560
1.790E-06,-0.280
1.800E-06,-0.080
1.810E-06,0.080
1.820E-06,-0.020
1.830E-06,-0.220
1.840E-06,-0.380
1.850E-06,-0.540
1.860E-06,-0.380
1.870E-06,-0.240
1.880E-06,-0.120
1.890E-06,-0.140
1.900E-06,-0.220
1.910E-06,-0.420
1.920E-06,-0.500
1.930E-06,-0.640
1.940E-06,-0.700
1.950E-06,-0.700
1.960E-06,-0.600
1.970E-06,-0.620
1.980E-06,-0.440
1.990E-06,-0.340
2.000E-06,-0.220
2.010E-06,0.000
2.020E-06,0.100
2.030E-06,0.280
2.040E-06,0.420
2.050E-06,0.460
2.060E-06,0.480
2.070E-06,0.480
2.080E-06,0.380
2.090E-06,0.300
2.100E-06,0.120
2.110E-06,-0.080
2.120E-06,-0.300
2.130E-06,-0.520
2.140E-06,-0.740
2.150E-06,-0.900
2.160E-06,-1.040
2.170E-06,-1.180
2.180E-06,-1.280
2.190E-06,-1.280
2.200E-06,-1.280
2.210E-06,-1.240
2.220E-06,-1.100
2.230E-06,-1.020
2.240E-06,-0.900
2.250E-06,-0.720
2.260E-06,-0.560
2.270E-06,-0.380
2.280E-06,-0.160
2.290E-06,-0.040
2.300E-06,0.080
2.310E-06,0.180
2.320E-06,0.240
2.330E-06,0.280
2.340E-06,0.320
2.350E-06,0.320
2.360E-06,0.280
2.370E-06,0.240
2.380E-06,0.120
2.390E-06,0.060
2.400E-06,0.000
2.410E-06,-0.140
2.420E-06,-0.180
2.430E-06,-0.200
2.440E-06,-0.240
2.450E-06,-0.260
2.460E-06,-0.260
2.470E-06,-0.260
2.480E-06,-0.240
2.490E-06,-0.220
2.500E-06,-0.240
2.510E-06,-0.200
2.520E-06,-0.160
2.530E-06,-0.120
2.540E-06,-0.100
2.550E-06,0.000
2.560E-06,0.000
2.570E-06,-0.040
2.580E-06,-0.080
2.590E-06,-0.140
2.600E-06,-0.160
2.610E-06,-0.180
2.620E-06,-0.240
2.630E-06,-0.260
2.640E-06,-0.320
2.650E-06,-0.340
2.660E-06,-0.360
2.670E-06,-0.360
2.680E-06,-0.380
2.690E-06,-0.420
2.700E-06,-0.420
2.710E-06,-0.440
2.720E-06,-0.460
2.730E-06,-0.400
2.740E-06,-0.340
2.750E-06,-0.280
2.760E-06,-0.180
2.770E-06,-0.100
2.780E-06,-0.080
2.790E-06,-0.060
2.800E-06,-0.080
2.810E-06,-0.060
2.820E-06,-0.080
2.830E-06,-0.140
2.840E-06,-0.120
2.850E-06,-0.140
2.860E-06,-0.180
2.870E-06,-0.220
2.880E-06,-0.220
2.890E-06,-0.260
2.900E-06,-0.260
2.910E-06,-0.260
2.920E-06,-0.260
2.930E-06,-0.280
2.940E-06,-0.300
2.950E-06,-0.300
2.960E-06,-0.280
2.970E-06,-0.280
2.980E-06,-0.260
2.990E-06,-0.240
3.000E-06,-0.160
3.010E-06,-0.180
3.020E-06,-0.180
3.030E-06,-0.240
3.040E-06,-0.300
3.050E-06,-0.360
3.060E-06,-0.340
3.070E-06,-0.360
3.080E-06,-0.400
3.090E-06,-0.400
3.100E-06,-0.420
3.110E-06,-0.500
3.120E-06,-0.540
3.130E-06,-0.500
3.140E-06,-0.500
3.150E-06,-0.480
3.160E-06,-0.440
3.170E-06,-0.420
3.180E-06,-0.360
3.190E-06,-0.320
3.200E-06,-0.260
3.210E-06,-0.200
3.220E-06,-0.140
3.230E-06,-0.080
3.240E-06,-0.100
3.250E-06,-0.100
3.260E-06,-0.100
3.270E-06,-0.140
3.280E-06,-0.140
3.290E-06,-0.140
3.300E-06,-0.160
3.310E-06,-0.180
3.320E-06,-0.200
3.330E-06,-0.200
3.340E-06,-0.160
3.350E-06,-0.160
3.360E-06,-0.160
3.370E-06,-0.080
3.380E-06,-0.080
3.390E-06,-0.020
3.400E-06,0.020
3.410E-06,0.020
3.420E-06,0.060
3.430E-06,0.100
3.440E-06,0.120
3.450E-06,0.160
3.460E-06,0.220
3.470E-06,0.240
3.480E-06,0.240
3.490E-06,0.220
3.500E-06,0.240
3.510E-06,0.220
3.520E-06,0.240
3.530E-06,0.260
3.540E-06,0.260
3.550E-06,0.240
3.560E-06,0.160
3.570E-06,0.100
3.580E-06,0.060
3.590E-06,0.000
3.600E-06,-0.040
3.610E-06,-0.140
3.620E-06,-0.180
3.630E-06,-0.260
3.640E-06,-0.260
3.650E-06,-0.260
3.660E-06,-0.240
3.670E-06,-0.100
3.680E-06,-0.080
3.690E-06,-0.060
3.700E-06,-0.060
3.710E-06,-0.060
3.720E-06,-0.080
3.730E-06,-0.020
3.740E-06,0.000
3.750E-06,-0.040
3.760E-06,-0.060
3.770E-06,-0.100
3.780E-06,-0.120
3.790E-06,-0.160
3.800E-06,-0.200
3.810E-06,-0.200
3.820E-06,-0.200
3.830E-06,-0.240
3.840E-06,-0.260
3.850E-06,-0.300
3.860E-06,-0.300
3.870E-06,-0.260
3.880E-06,-0.260
3.890E-06,-0.200
3.900E-06,-0.180
3.910E-06,-0.100
3.920E-06,-0.120
3.930E-06,-0.120
3.940E-06,-0.120
3.950E-06,-0.160
3.960E-06,-0.140
3.970E-06,-0.120
3.980E-06,-0.120
3.990E-06,-0.120
4.000E-06,-0.200
4.010E-06,-0.300
4.020E-06,-0.380
4.030E-06,-0.440
4.040E-06,-0.500
4.050E-06,-0.500
4.060E-06,-0.540
4.070E-06,-0.500
4.080E-06,-0.480
4.090E-06,-0.440
4.100E-06,-0.340
4.110E-06,-0.240
4.120E-06,-0.160
4.130E-06,-0.060
4.140E-06,0.020
4.150E-06,0.140
4.160E-06,0.200
4.170E-06,0.280
4.180E-06,0.360
4.190E-06,0.420
4.200E-06,0.500
4.210E-06,0.580
4.220E-06,0.560
4.230E-06,0.580
4.240E-06,0.500
4.250E-06,0.420
4.260E-06,0.300
4.270E-06,0.240
4.280E-06,0.160
4.290E-06,0.100
4.300E-06,0.060
4.310E-06,0.120
4.320E-06,0.180
4.330E-06,0.240
4.340E-06,0.300
4.350E-06,0.400
4.360E-06,0.500
4.370E-06,0.520
4.380E-06,0.560
4.390E-06,0.580
4.400E-06,0.580
4.410E-06,0.520
4.420E-06,0.540
4.430E-06,0.520
4.440E-06,0.500
4.450E-06,0.500
4.460E-06,0.500
4.470E-06,0.460
4.480E-06,0.420
4.490E-06,0.400
4.500E-06,0.340
4.510E-06,0.280
4.520E-06,0.220
4.530E-06,0.120
4.540E-06,0.020
4.550E-06,-0.080
4.560E-06,-0.180
4.570E-06,-0.220
4.580E-06,-0.340
4.590E-06,-0.360
4.600E-06,-0.320
4.610E-06,-0.340
4.620E-06,-0.300
4.630E-06,-0.280
4.640E-06,-0.220
4.650E-06,-0.200
4.660E-06,-0.200
4.670E-06,-0.200
4.680E-06,-0.240
4.690E-06,-0.260
4.700E-06,-0.300
4.710E-06,-0.320
4.720E-06,-0.320
4.730E-06,-0.320
4.740E-06,-0.320
4.750E-06,-0.280
4.760E-06,-0.260
4.770E-06,-0.180
4.780E-06,-0.140
4.790E-06,-0.080
4.800E-06,-0.040
4.810E-06,0.000
4.820E-06,0.000
4.830E-06,-0.020
4.840E-06,0.000
4.850E-06,0.060
4.860E-06,0.080
4.870E-06,0.120
4.880E-06,0.180
4.890E-06,0.220
4.900E-06,0.240
4.910E-06,0.320
4.920E-06,0.340
4.930E-06,0.420
4.940E-06,0.460
4.950E-06,0.520
4.960E-06,0.560
4.970E-06,0.580
4.980E-06,0.600
4.990E-06,0.540
5.000E-06,0.440
5.010E-06,0.320
5.020E-06,0.200
5.030E-06,0.080
5.040E-06,0.020
5.050E-06,0.000
5.060E-06,0.040
5.070E-06,0.080
5.080E-06,0.160
5.090E-06,0.240
5.100E-06,0.260
5.110E-06,0.280
5.120E-06,0.200
5.130E-06,0.080
5.140E-06,-0.020
5.150E-06,-0.120
5.160E-06,-0.180
5.170E-06,-0.200
5.180E-06,-0.220
5.190E-06,-0.180
5.200E-06,-0.100
5.210E-06,-0.020
5.220E-06,0.040
5.230E-06,0.120
5.240E-06,0.180
5.250E-06,0.260
5.260E-06,0.280
5.270E-06,0.320
5.280E-06,0.360
5.290E-06,0.380
5.300E-06,0.380
5.310E-06,0.420
5.320E-06,0.400
5.330E-06,0.400
5.340E-06,0.400
5.350E-06,0.380
5.360E-06,0.340
5.370E-06,0.340
5.380E-06,0.280
5.390E-06,0.260
5.400E-06,0.240
5.410E-06,0.260
5.420E-06,0.240
5.430E-06,0.280
5.440E-06,0.260
5.450E-06,0.260
5.460E-06,0.260
5.470E-06,0.240
5.480E-06,0.180
5.490E-06,0.180
5.500E-06,0.120
5.510E-06,0.060
5.520E-06,0.020
5.530E-06,0.040
5.540E-06,0.040
5.550E-06,0.060
5.560E-06,0.060
5.570E-06,0.060
5.580E-06,0.100
5.590E-06,0.140
5.600E-06,0.120
5.610E-06,0.120
5.620E-06,0.100
5.630E-06,0.080
5.640E-06,0.080
5.650E-06,0.080
5.660E-06,0.100
5.670E-06,0.120
5.680E-06,0.100
5.690E-06,0.180
5.700E-06,0.220
5.710E-06,0.240
5.720E-06,0.240
5.730E-06,0.280
5.740E-06,0.280
5.750E-06,0.260
5.760E-06,0.220
5.770E-06,0.180
5.780E-06,0.160
5.790E-06,0.180
5.800E-06,0.160
5.810E-06,0.200
5.820E-06,0.220
5.830E-06,0.220
5.840E-06,0.240
5.850E-06,0.220
5.860E-06,0.220
5.870E-06,0.200
5.880E-06,0.260
5.890E-06,0.280
5.900E-06,0.340
5.910E-06,0.380
5.920E-06,0.460
5.930E-06,0.500
5.940E-06,0.540
5.950E-06,0.580
5.960E-06,0.600
5.970E-06,0.640
5.980E-06,0.660
5.990E-06,0.700
6.000E-06,0.720
6.010E-06,0.720
6.020E-06,0.760
6.030E-06,0.760
6.040E-06,0.760
6.050E-06,0.760
6.060E-06,0.700
6.070E-06,0.680
6.080E-06,0.620
6.090E-06,0.620
6.100E-06,0.580
6.110E-06,0.640
6.120E-06,0.700
6.130E-06,0.780
6.140E-06,0.860
6.150E-06,0.920
6.160E-06,1.000
6.170E-06,1.100
6.180E-06,1.200
6.190E-06,1.340
6.200E-06,1.520
6.210E-06,1.760
6.220E-06,2.040
6.230E-06,2.340
6.240E-06,2.620
6.250E-06,2.760
6.260E-06,2.780
6.270E-06,2.760
6.280E-06,2.780
6.290E-06,2.760
6.300E-06,2.760
6.310E-06,2.760
6.320E-06,2.760
6.330E-06,2.760
6.340E-06,2.740
6.350E-06,2.760
6.360E-06,2.760
6.370E-06,2.760
6.380E-06,2.760
6.390E-06,2.780
6.400E-06,2.760
6.410E-06,2.760
6.420E-06,2.760
6.430E-06,2.540
6.440E-06,2.280
6.450E-06,2.040
6.460E-06,1.840
6.470E-06,1.580
6.480E-06,1.340
6.490E-06,1.120
6.500E-06,1.000
6.510E-06,0.860
6.520E-06,0.740
6.530E-06,0.700
6.540E-06,0.680
6.550E-06,0.680
6.560E-06,0.600
6.570E-06,0.620
6.580E-06,0.620
6.590E-06,0.600
6.600E-06,0.600
6.610E-06,0.620
6.620E-06,0.620
6.630E-06,0.640
6.640E-06,0.620
6.650E-06,0.640
6.660E-06,0.680
6.670E-06,0.600
6.680E-06,0.680
6.690E-06,0.640
6.700E-06,0.580
6.710E-06,0.560
6.720E-06,0.560
6.730E-06,0.520
6.740E-06,0.500
6.750E-06,0.480
6.760E-06,0.460
6.770E-06,0.420
6.780E-06,0.440
6.790E-06,0.440
6.800E-06,0.440
6.810E-06,0.440
6.820E-06,0.480
6.830E-06,0.480
6.840E-06,0.480
6.850E-06,0.500
6.860E-06,0.520
6.870E-06,0.520
6.880E-06,0.480
6.890E-06,0.480
6.900E-06,0.440
6.910E-06,0.420
6.920E-06,0.420
6.930E-06,0.400
6.940E-06,0.400
6.950E-06,0.340
6.960E-06,0.340
6.970E-06,0.360
6.980E-06,0.360
6.990E-06,0.340
7.000E-06,0.320
7.010E-06,0.320
7.020E-06,0.260
7.030E-06,0.280
7.040E-06,0.240
7.050E-06,0.220
7.060E-06,0.220
7.070E-06,0.220
7.080E-06,0.200
7.090E-06,0.160
7.100E-06,0.180
7.110E-06,0.180
7.120E-06,0.160
7.130E-06,0.180
7.140E-06,0.200
7.150E-06,0.200
7.160E-06,0.200
7.170E-06,0.240
7.180E-06,0.260
7.190E-06,0.260
7.200E-06,0.260
7.210E-06,0.280
7.220E-06,0.280
7.230E-06,0.260
7.240E-06,0.280
7.250E-06,0.280
7.260E-06,0.260
7.270E-06,0.240
7.280E-06,0.220
7.290E-06,0.240
7.300E-06,0.220
7.310E-06,0.220
7.320E-06,0.200
7.330E-06,0.240
7.340E-06,0.260
7.350E-06,0.260
7.360E-06,0.260
7.370E-06,0.260
7.380E-06,0.260
7.390E-06,0.240
7.400E-06,0.240
7.410E-06,0.240
7.420E-06,0.240
7.430E-06,0.240
7.440E-06,0.220
7.450E-06,0.240
7.460E-06,0.260
7.470E-06,0.260
7.480E-06,0.280
7.490E-06,0.320
7.500E-06,0.300
7.510E-06,0.280
7.520E-06,0.260
7.530E-06,0.260
7.540E-06,0.260
7.550E-06,0.260
7.560E-06,0.240
7.570E-06,0.260
7.580E-06,0.260
7.590E-06,0.260
7.600E-06,0.260
7.610E-06,0.260
7.620E-06,0.240
7.630E-06,0.220
7.640E-06,0.220
7.650E-06,0.220
7.660E-06,0.180
7.670E-06,0.220
7.680E-06,0.180
7.690E-06,0.180
7.700E-06,0.180
7.710E-06,0.180
7.720E-06,0.180
