mediciones/5-27/-55/WaveData50280.csv

#timebase=2000000(ps)
,#voltbase=100000(mv/100)
#size=4000
-3.300E-06,0.008
-3.290E-06,0.004
-3.280E-06,0.000
-3.270E-06,-0.004
-3.260E-06,0.004
-3.250E-06,0.008
-3.240E-06,0.004
-3.230E-06,0.004
-3.220E-06,-0.004
-3.210E-06,-0.004
-3.200E-06,0.004
-3.190E-06,0.012
-3.180E-06,0.012
-3.170E-06,0.004
-3.160E-06,0.004
-3.150E-06,0.000
-3.140E-06,0.000
-3.130E-06,0.004
-3.120E-06,0.000
-3.110E-06,0.004
-3.100E-06,0.000
-3.090E-06,0.000
-3.080E-06,0.000
-3.070E-06,0.000
-3.060E-06,0.008
-3.050E-06,0.000
-3.040E-06,0.004
-3.030E-06,0.008
-3.020E-06,-0.004
-3.010E-06,0.000
-3.000E-06,-0.004
-2.990E-06,0.000
-2.980E-06,0.012
-2.970E-06,0.000
-2.960E-06,0.000
-2.950E-06,0.008
-2.940E-06,0.000
-2.930E-06,0.000
-2.920E-06,0.000
-2.910E-06,0.000
-2.900E-06,0.000
-2.890E-06,0.000
-2.880E-06,0.004
-2.870E-06,0.004
-2.860E-06,0.000
-2.850E-06,0.004
-2.840E-06,0.008
-2.830E-06,0.000
-2.820E-06,0.000
-2.810E-06,0.004
-2.800E-06,0.000
-2.790E-06,0.000
-2.780E-06,0.004
-2.770E-06,-0.004
-2.760E-06,0.000
-2.750E-06,0.000
-2.740E-06,0.004
-2.730E-06,0.008
-2.720E-06,0.000
-2.710E-06,0.000
-2.700E-06,0.004
-2.690E-06,0.004
-2.680E-06,0.004
-2.670E-06,0.004
-2.660E-06,0.004
-2.650E-06,0.000
-2.640E-06,0.004
-2.630E-06,0.000
-2.620E-06,-0.004
-2.610E-06,0.004
-2.600E-06,0.008
-2.590E-06,0.000
-2.580E-06,0.004
-2.570E-06,0.004
-2.560E-06,0.004
-2.550E-06,0.004
-2.540E-06,0.000
-2.530E-06,0.004
-2.520E-06,0.004
-2.510E-06,-0.004
-2.500E-06,0.004
-2.490E-06,0.000
-2.480E-06,0.004
-2.470E-06,0.000
-2.460E-06,0.004
-2.450E-06,0.004
-2.440E-06,0.004
-2.430E-06,0.000
-2.420E-06,0.004
-2.410E-06,0.000
-2.400E-06,0.004
-2.390E-06,0.000
-2.380E-06,0.004
-2.370E-06,0.004
-2.360E-06,0.004
-2.350E-06,0.004
-2.340E-06,0.004
-2.330E-06,0.004
-2.320E-06,-0.004
-2.310E-06,0.004
-2.300E-06,0.004
-2.290E-06,0.004
-2.280E-06,0.004
-2.270E-06,0.004
-2.260E-06,0.004
-2.250E-06,0.004
-2.240E-06,0.004
-2.230E-06,0.004
-2.220E-06,0.000
-2.210E-06,-0.004
-2.200E-06,0.000
-2.190E-06,0.004
-2.180E-06,0.004
-2.170E-06,0.004
-2.160E-06,0.000
-2.150E-06,0.000
-2.140E-06,0.000
-2.130E-06,0.004
-2.120E-06,0.000
-2.110E-06,0.004
-2.100E-06,0.004
-2.090E-06,0.000
-2.080E-06,0.004
-2.070E-06,0.008
-2.060E-06,0.008
-2.050E-06,0.000
-2.040E-06,0.000
-2.030E-06,0.004
-2.020E-06,0.004
-2.010E-06,0.004
-2.000E-06,0.004
-1.990E-06,0.000
-1.980E-06,0.000
-1.970E-06,0.004
-1.960E-06,0.004
-1.950E-06,0.004
-1.940E-06,-0.004
-1.930E-06,0.000
-1.920E-06,0.004
-1.910E-06,0.008
-1.900E-06,0.008
-1.890E-06,0.000
-1.880E-06,0.000
-1.870E-06,-0.004
-1.860E-06,0.004
-1.850E-06,0.004
-1.840E-06,0.008
-1.830E-06,0.008
-1.820E-06,0.004
-1.810E-06,0.000
-1.800E-06,0.000
-1.790E-06,0.004
-1.780E-06,0.008
-1.770E-06,0.012
-1.760E-06,0.008
-1.750E-06,-0.004
-1.740E-06,0.000
-1.730E-06,0.000
-1.720E-06,0.004
-1.710E-06,0.004
-1.700E-06,0.000
-1.690E-06,0.000
-1.680E-06,-0.004
-1.670E-06,0.000
-1.660E-06,0.008
-1.650E-06,0.012
-1.640E-06,0.000
-1.630E-06,-0.004
-1.620E-06,-0.004
-1.610E-06,-0.004
-1.600E-06,0.004
-1.590E-06,0.008
-1.580E-06,0.008
-1.570E-06,0.008
-1.560E-06,0.004
-1.550E-06,-0.004
-1.540E-06,0.000
-1.530E-06,0.004
-1.520E-06,0.012
-1.510E-06,0.008
-1.500E-06,0.000
-1.490E-06,-0.004
-1.480E-06,0.000
-1.470E-06,-0.004
-1.460E-06,0.004
-1.450E-06,0.000
-1.440E-06,0.004
-1.430E-06,0.000
-1.420E-06,0.000
-1.410E-06,0.004
-1.400E-06,0.004
-1.390E-06,0.008
-1.380E-06,0.000
-1.370E-06,0.000
-1.360E-06,0.000
-1.350E-06,-0.004
-1.340E-06,0.004
-1.330E-06,0.004
-1.320E-06,0.004
-1.310E-06,0.008
-1.300E-06,-0.004
-1.290E-06,0.000
-1.280E-06,0.000
-1.270E-06,0.008
-1.260E-06,0.000
-1.250E-06,0.000
-1.240E-06,0.004
-1.230E-06,0.008
-1.220E-06,0.004
-1.210E-06,0.008
-1.200E-06,0.000
-1.190E-06,0.000
-1.180E-06,0.004
-1.170E-06,0.000
-1.160E-06,-0.004
-1.150E-06,0.004
-1.140E-06,0.008
-1.130E-06,-0.008
-1.120E-06,0.004
-1.110E-06,0.000
-1.100E-06,0.000
-1.090E-06,0.004
-1.080E-06,-0.004
-1.070E-06,-0.004
-1.060E-06,0.000
-1.050E-06,0.004
-1.040E-06,0.004
-1.030E-06,0.008
-1.020E-06,0.004
-1.010E-06,-0.004
-1.000E-06,0.000
-9.900E-07,0.000
-9.800E-07,0.000
-9.700E-07,0.008
-9.600E-07,0.004
-9.500E-07,0.004
-9.400E-07,0.004
-9.300E-07,0.004
-9.200E-07,0.008
-9.100E-07,0.008
-9.000E-07,0.000
-8.900E-07,0.004
-8.800E-07,-0.004
-8.700E-07,0.004
-8.600E-07,0.000
-8.500E-07,0.008
-8.400E-07,0.004
-8.300E-07,-0.004
-8.200E-07,-0.004
-8.100E-07,-0.004
-8.000E-07,0.004
-7.900E-07,0.008
-7.800E-07,0.008
-7.700E-07,0.004
-7.600E-07,0.000
-7.500E-07,-0.004
-7.400E-07,0.004
-7.300E-07,0.000
-7.200E-07,0.008
-7.100E-07,0.008
-7.000E-07,0.004
-6.900E-07,-0.004
-6.800E-07,0.000
-6.700E-07,0.008
-6.600E-07,0.012
-6.500E-07,0.012
-6.400E-07,0.000
-6.300E-07,-0.008
-6.200E-07,0.000
-6.100E-07,0.008
-6.000E-07,0.012
-5.900E-07,0.008
-5.800E-07,0.004
-5.700E-07,0.000
-5.600E-07,-0.004
-5.500E-07,0.004
-5.400E-07,0.008
-5.300E-07,0.012
-5.200E-07,0.016
-5.100E-07,-0.004
-5.000E-07,0.000
-4.900E-07,0.000
-4.800E-07,0.000
-4.700E-07,0.008
-4.600E-07,0.008
-4.500E-07,0.004
-4.400E-07,0.000
-4.300E-07,0.000
-4.200E-07,0.004
-4.100E-07,0.004
-4.000E-07,0.008
-3.900E-07,0.008
-3.800E-07,0.000
-3.700E-07,0.000
-3.600E-07,-0.004
-3.500E-07,-0.004
-3.400E-07,0.008
-3.300E-07,0.012
-3.200E-07,0.008
-3.100E-07,0.000
-3.000E-07,0.000
-2.900E-07,0.000
-2.800E-07,0.004
-2.700E-07,0.008
-2.600E-07,0.008
-2.500E-07,0.008
-2.400E-07,0.000
-2.300E-07,0.004
-2.200E-07,0.000
-2.100E-07,0.004
-2.000E-07,0.004
-1.900E-07,0.004
-1.800E-07,0.004
-1.700E-07,-0.004
-1.600E-07,0.004
-1.500E-07,0.004
-1.400E-07,0.004
-1.300E-07,0.008
-1.200E-07,0.004
-1.100E-07,0.000
-1.000E-07,0.000
-9.000E-08,0.000
-8.000E-08,0.004
-7.000E-08,0.004
-6.000E-08,0.004
-5.000E-08,0.004
-4.000E-08,0.004
-3.000E-08,-0.004
-2.000E-08,0.000
-1.000E-08,0.000
0.000E+00,0.004
1.000E-08,0.004
2.000E-08,0.004
3.000E-08,0.000
4.000E-08,0.004
5.000E-08,0.000
6.000E-08,0.004
7.000E-08,0.004
8.000E-08,-0.004
9.000E-08,0.004
1.000E-07,0.008
1.100E-07,0.008
1.200E-07,0.004
1.300E-07,0.000
1.400E-07,0.000
1.500E-07,0.008
1.600E-07,-0.004
1.700E-07,0.004
1.800E-07,0.004
1.900E-07,0.004
2.000E-07,0.004
2.100E-07,0.004
2.200E-07,0.008
2.300E-07,0.008
2.400E-07,0.000
2.500E-07,0.000
2.600E-07,0.004
2.700E-07,0.008
2.800E-07,0.000
2.900E-07,0.004
3.000E-07,0.004
3.100E-07,0.004
3.200E-07,0.004
3.300E-07,0.000
3.400E-07,0.000
3.500E-07,0.000
3.600E-07,0.000
3.700E-07,0.004
3.800E-07,0.004
3.900E-07,0.008
4.000E-07,0.000
4.100E-07,0.004
4.200E-07,0.004
4.300E-07,0.004
4.400E-07,0.004
4.500E-07,0.000
4.600E-07,0.004
4.700E-07,0.008
4.800E-07,0.004
4.900E-07,0.008
5.000E-07,0.008
5.100E-07,0.000
5.200E-07,0.000
5.300E-07,0.004
5.400E-07,0.008
5.500E-07,0.000
5.600E-07,0.000
5.700E-07,0.004
5.800E-07,0.004
5.900E-07,0.000
6.000E-07,0.000
6.100E-07,0.004
6.200E-07,-0.004
6.300E-07,0.004
6.400E-07,0.004
6.500E-07,-0.004
6.600E-07,0.008
6.700E-07,-0.004
6.800E-07,0.000
6.900E-07,0.008
7.000E-07,0.004
7.100E-07,0.004
7.200E-07,0.004
7.300E-07,0.004
7.400E-07,0.000
7.500E-07,0.004
7.600E-07,0.004
7.700E-07,0.004
7.800E-07,0.004
7.900E-07,0.000
8.000E-07,0.004
8.100E-07,0.004
8.200E-07,0.004
8.300E-07,0.004
8.400E-07,0.004
8.500E-07,0.000
8.600E-07,0.004
8.700E-07,0.000
8.800E-07,0.000
8.900E-07,0.004
9.000E-07,0.004
9.100E-07,0.000
9.200E-07,0.008
9.300E-07,0.008
9.400E-07,0.000
9.500E-07,0.004
9.600E-07,0.004
9.700E-07,0.000
9.800E-07,0.000
9.900E-07,0.004
1.000E-06,0.004
1.010E-06,0.004
1.020E-06,0.004
1.030E-06,0.000
1.040E-06,-0.004
1.050E-06,0.004
1.060E-06,-0.004
1.070E-06,0.004
1.080E-06,0.008
1.090E-06,0.008
1.100E-06,0.004
1.110E-06,-0.008
1.120E-06,0.004
1.130E-06,0.008
1.140E-06,0.004
1.150E-06,0.004
1.160E-06,0.004
1.170E-06,0.008
1.180E-06,0.004
1.190E-06,-0.004
1.200E-06,0.000
1.210E-06,0.004
1.220E-06,0.004
1.230E-06,0.004
1.240E-06,0.004
1.250E-06,0.000
1.260E-06,0.004
1.270E-06,0.000
1.280E-06,0.004
1.290E-06,0.000
1.300E-06,0.004
1.310E-06,0.004
1.320E-06,-0.004
1.330E-06,0.004
1.340E-06,0.000
1.350E-06,0.004
1.360E-06,0.008
1.370E-06,0.004
1.380E-06,0.000
1.390E-06,0.000
1.400E-06,0.004
1.410E-06,0.008
1.420E-06,0.004
1.430E-06,0.004
1.440E-06,0.004
1.450E-06,0.000
1.460E-06,0.000
1.470E-06,0.004
1.480E-06,0.008
1.490E-06,0.008
1.500E-06,0.000
1.510E-06,-0.004
1.520E-06,0.000
1.530E-06,0.004
1.540E-06,0.004
1.550E-06,0.004
1.560E-06,0.008
1.570E-06,0.004
1.580E-06,-0.004
1.590E-06,0.000
1.600E-06,-0.004
1.610E-06,0.004
1.620E-06,0.004
1.630E-06,0.008
1.640E-06,0.004
1.650E-06,0.000
1.660E-06,0.004
1.670E-06,0.000
1.680E-06,0.004
1.690E-06,0.004
1.700E-06,0.000
1.710E-06,-0.004
1.720E-06,0.000
1.730E-06,0.008
1.740E-06,0.000
1.750E-06,0.004
1.760E-06,0.004
1.770E-06,0.004
1.780E-06,0.000
1.790E-06,0.000
1.800E-06,0.000
1.810E-06,0.008
1.820E-06,0.012
1.830E-06,0.000
1.840E-06,0.000
1.850E-06,-0.004
1.860E-06,-0.004
1.870E-06,0.004
1.880E-06,0.008
1.890E-06,0.004
1.900E-06,0.004
1.910E-06,0.004
1.920E-06,-0.004
1.930E-06,-0.004
1.940E-06,0.008
1.950E-06,0.008
1.960E-06,0.004
1.970E-06,0.004
1.980E-06,-0.004
1.990E-06,0.004
2.000E-06,0.004
2.010E-06,0.008
2.020E-06,0.004
2.030E-06,0.000
2.040E-06,0.000
2.050E-06,0.000
2.060E-06,0.000
2.070E-06,0.000
2.080E-06,0.008
2.090E-06,0.004
2.100E-06,0.008
2.110E-06,0.008
2.120E-06,0.004
2.130E-06,0.008
2.140E-06,0.004
2.150E-06,0.004
2.160E-06,0.000
2.170E-06,-0.004
2.180E-06,-0.004
2.190E-06,-0.004
2.200E-06,0.008
2.210E-06,0.008
2.220E-06,0.004
2.230E-06,-0.008
2.240E-06,-0.004
2.250E-06,0.008
2.260E-06,0.016
2.270E-06,0.032
2.280E-06,0.020
2.290E-06,0.008
2.300E-06,-0.008
2.310E-06,-0.024
2.320E-06,-0.016
2.330E-06,0.004
2.340E-06,0.016
2.350E-06,0.024
2.360E-06,0.020
2.370E-06,-0.004
2.380E-06,-0.008
2.390E-06,-0.012
2.400E-06,-0.004
2.410E-06,0.012
2.420E-06,0.016
2.430E-06,0.008
2.440E-06,0.004
2.450E-06,-0.004
2.460E-06,-0.008
2.470E-06,0.000
2.480E-06,0.004
2.490E-06,-0.004
2.500E-06,-0.024
2.510E-06,-0.012
2.520E-06,-0.016
2.530E-06,-0.016
2.540E-06,0.012
2.550E-06,-0.004
2.560E-06,0.000
2.570E-06,0.012
2.580E-06,0.016
2.590E-06,0.016
2.600E-06,0.008
2.610E-06,0.008
2.620E-06,-0.020
2.630E-06,-0.024
2.640E-06,-0.024
2.650E-06,0.000
2.660E-06,0.020
2.670E-06,0.028
2.680E-06,0.024
2.690E-06,0.012
2.700E-06,-0.012
2.710E-06,-0.008
2.720E-06,0.000
2.730E-06,0.012
2.740E-06,0.020
2.750E-06,0.020
2.760E-06,-0.004
2.770E-06,-0.008
2.780E-06,-0.012
2.790E-06,-0.004
2.800E-06,0.004
2.810E-06,0.024
2.820E-06,0.016
2.830E-06,0.012
2.840E-06,-0.008
2.850E-06,-0.004
2.860E-06,0.000
2.870E-06,0.012
2.880E-06,0.028
2.890E-06,0.024
2.900E-06,0.008
2.910E-06,0.004
2.920E-06,0.000
2.930E-06,0.008
2.940E-06,0.012
2.950E-06,0.024
2.960E-06,0.020
2.970E-06,0.016
2.980E-06,0.024
2.990E-06,0.024
3.000E-06,0.028
3.010E-06,0.040
3.020E-06,0.028
3.030E-06,0.004
3.040E-06,-0.012
3.050E-06,-0.036
3.060E-06,-0.032
3.070E-06,-0.008
3.080E-06,0.024
3.090E-06,0.044
3.100E-06,0.040
3.110E-06,0.020
3.120E-06,0.008
3.130E-06,0.004
3.140E-06,0.012
3.150E-06,0.024
3.160E-06,0.044
3.170E-06,0.040
3.180E-06,0.032
3.190E-06,-0.008
3.200E-06,-0.056
3.210E-06,-0.088
3.220E-06,-0.088
3.230E-06,-0.056
3.240E-06,0.000
3.250E-06,0.044
3.260E-06,0.044
3.270E-06,0.036
3.280E-06,0.000
3.290E-06,-0.032
3.300E-06,-0.036
3.310E-06,-0.024
3.320E-06,-0.004
3.330E-06,0.024
3.340E-06,0.028
3.350E-06,0.016
3.360E-06,0.000
3.370E-06,0.000
3.380E-06,-0.008
3.390E-06,0.000
3.400E-06,-0.004
3.410E-06,0.004
3.420E-06,0.008
3.430E-06,0.008
3.440E-06,0.004
3.450E-06,0.000
3.460E-06,0.000
3.470E-06,-0.004
3.480E-06,0.000
3.490E-06,0.000
3.500E-06,0.008
3.510E-06,0.012
3.520E-06,0.004
3.530E-06,0.000
3.540E-06,-0.004
3.550E-06,0.000
3.560E-06,0.012
3.570E-06,0.016
3.580E-06,0.012
3.590E-06,0.004
3.600E-06,-0.008
3.610E-06,-0.012
3.620E-06,-0.004
3.630E-06,0.008
3.640E-06,0.008
3.650E-06,0.016
3.660E-06,0.012
3.670E-06,0.004
3.680E-06,-0.004
3.690E-06,0.000
3.700E-06,0.008
3.710E-06,0.012
3.720E-06,0.008
3.730E-06,0.012
3.740E-06,0.000
3.750E-06,0.000
3.760E-06,-0.004
3.770E-06,0.004
3.780E-06,0.008
3.790E-06,0.016
3.800E-06,0.004
3.810E-06,0.000
3.820E-06,0.000
3.830E-06,-0.004
3.840E-06,0.000
3.850E-06,0.000
3.860E-06,0.004
3.870E-06,0.008
3.880E-06,0.012
3.890E-06,0.016
3.900E-06,0.016
3.910E-06,0.016
3.920E-06,0.000
3.930E-06,-0.004
3.940E-06,-0.008
3.950E-06,-0.004
3.960E-06,0.000
3.970E-06,0.016
3.980E-06,0.024
3.990E-06,0.020
4.000E-06,0.008
4.010E-06,0.004
4.020E-06,0.004
4.030E-06,0.008
4.040E-06,0.016
4.050E-06,0.020
4.060E-06,0.024
4.070E-06,0.008
4.080E-06,-0.004
4.090E-06,-0.008
4.100E-06,0.000
4.110E-06,0.024
4.120E-06,0.028
4.130E-06,0.020
4.140E-06,0.000
4.150E-06,-0.008
4.160E-06,-0.012
4.170E-06,-0.008
4.180E-06,0.004
4.190E-06,0.016
4.200E-06,0.012
4.210E-06,0.000
4.220E-06,-0.012
4.230E-06,-0.020
4.240E-06,-0.024
4.250E-06,-0.008
4.260E-06,-0.004
4.270E-06,0.008
4.280E-06,0.004
4.290E-06,0.004
4.300E-06,0.000
4.310E-06,0.004
4.320E-06,-0.004
4.330E-06,0.000
4.340E-06,-0.004
4.350E-06,0.000
4.360E-06,0.004
4.370E-06,0.008
4.380E-06,0.008
4.390E-06,0.008
4.400E-06,-0.004
4.410E-06,-0.004
4.420E-06,-0.004
4.430E-06,0.000
4.440E-06,0.008
4.450E-06,0.012
4.460E-06,0.008
4.470E-06,0.004
4.480E-06,0.004
4.490E-06,0.000
4.500E-06,-0.004
4.510E-06,0.004
4.520E-06,0.008
4.530E-06,0.008
4.540E-06,0.008
4.550E-06,0.000
4.560E-06,0.000
4.570E-06,-0.004
4.580E-06,0.000
4.590E-06,0.004
4.600E-06,0.008
4.610E-06,0.012
4.620E-06,0.008
4.630E-06,0.012
4.640E-06,0.012
4.650E-06,0.004
4.660E-06,0.000
4.670E-06,0.004
4.680E-06,0.004
4.690E-06,0.004
4.700E-06,0.004
4.710E-06,0.004
4.720E-06,-0.004
4.730E-06,0.004
4.740E-06,0.004
4.750E-06,0.008
4.760E-06,0.012
4.770E-06,0.012
4.780E-06,0.012
4.790E-06,0.008
4.800E-06,-0.004
4.810E-06,-0.004
4.820E-06,0.004
4.830E-06,0.004
4.840E-06,0.008
4.850E-06,0.004
4.860E-06,0.004
4.870E-06,0.004
4.880E-06,-0.004
4.890E-06,0.000
4.900E-06,-0.004
4.910E-06,0.004
4.920E-06,0.008
4.930E-06,0.008
4.940E-06,0.012
4.950E-06,0.004
4.960E-06,0.012
4.970E-06,0.004
4.980E-06,0.008
4.990E-06,0.012
5.000E-06,0.008
5.010E-06,0.008
5.020E-06,0.008
5.030E-06,0.008
5.040E-06,0.012
5.050E-06,0.016
5.060E-06,0.020
5.070E-06,0.016
5.080E-06,0.008
5.090E-06,0.004
5.100E-06,0.000
5.110E-06,0.000
5.120E-06,0.004
5.130E-06,0.016
5.140E-06,0.016
5.150E-06,0.020
5.160E-06,0.012
5.170E-06,0.008
5.180E-06,0.008
5.190E-06,0.000
5.200E-06,0.000
5.210E-06,0.008
5.220E-06,0.016
5.230E-06,0.032
5.240E-06,0.036
5.250E-06,0.044
5.260E-06,0.044
5.270E-06,0.036
5.280E-06,0.024
5.290E-06,0.016
5.300E-06,-0.020
5.310E-06,-0.056
5.320E-06,-0.112
5.330E-06,-0.112
5.340E-06,-0.072
5.350E-06,0.004
5.360E-06,0.064
5.370E-06,0.080
5.380E-06,0.040
5.390E-06,-0.004
5.400E-06,-0.052
5.410E-06,-0.068
5.420E-06,-0.032
5.430E-06,0.024
5.440E-06,0.048
5.450E-06,0.040
5.460E-06,0.000
5.470E-06,-0.036
5.480E-06,-0.048
5.490E-06,-0.020
5.500E-06,0.008
5.510E-06,0.028
5.520E-06,0.032
5.530E-06,0.016
5.540E-06,-0.012
5.550E-06,-0.024
5.560E-06,-0.020
5.570E-06,-0.004
5.580E-06,0.016
5.590E-06,0.028
5.600E-06,0.024
5.610E-06,0.008
5.620E-06,-0.008
5.630E-06,-0.008
5.640E-06,0.004
5.650E-06,0.024
5.660E-06,0.024
5.670E-06,0.028
5.680E-06,0.016
5.690E-06,0.012
5.700E-06,0.016
5.710E-06,0.016
5.720E-06,0.028
5.730E-06,0.036
5.740E-06,0.024
5.750E-06,0.008
5.760E-06,0.004
5.770E-06,-0.012
5.780E-06,-0.028
5.790E-06,-0.020
5.800E-06,-0.012
5.810E-06,0.016
5.820E-06,0.032
5.830E-06,0.044
5.840E-06,0.032
5.850E-06,0.028
5.860E-06,0.004
5.870E-06,-0.016
5.880E-06,-0.016
5.890E-06,-0.020
5.900E-06,0.008
5.910E-06,0.016
5.920E-06,0.020
5.930E-06,0.024
5.940E-06,0.012
5.950E-06,-0.004
5.960E-06,-0.012
5.970E-06,-0.024
5.980E-06,-0.012
5.990E-06,-0.004
6.000E-06,0.000
6.010E-06,0.004
6.020E-06,-0.004
6.030E-06,-0.004
6.040E-06,-0.004
6.050E-06,-0.008
6.060E-06,-0.004
6.070E-06,-0.004
6.080E-06,0.000
6.090E-06,0.004
6.100E-06,0.008
6.110E-06,0.016
6.120E-06,0.024
6.130E-06,0.028
6.140E-06,0.008
6.150E-06,0.008
6.160E-06,0.008
6.170E-06,0.012
6.180E-06,0.024
6.190E-06,0.040
6.200E-06,0.044
6.210E-06,0.044
6.220E-06,0.040
6.230E-06,0.032
6.240E-06,0.028
6.250E-06,0.012
6.260E-06,0.000
6.270E-06,0.000
6.280E-06,0.008
6.290E-06,0.024
6.300E-06,0.012
6.310E-06,0.008
6.320E-06,-0.016
6.330E-06,-0.044
6.340E-06,-0.076
6.350E-06,-0.072
6.360E-06,-0.060
6.370E-06,-0.020
6.380E-06,0.016
6.390E-06,0.016
6.400E-06,0.008
6.410E-06,-0.008
6.420E-06,-0.020
6.430E-06,-0.024
6.440E-06,-0.004
6.450E-06,0.004
6.460E-06,0.012
6.470E-06,0.008
6.480E-06,0.000
6.490E-06,-0.008
6.500E-06,-0.008
6.510E-06,-0.004
6.520E-06,0.012
6.530E-06,0.016
6.540E-06,0.008
6.550E-06,-0.004
6.560E-06,0.000
6.570E-06,0.004
6.580E-06,0.004
6.590E-06,0.020
6.600E-06,0.020
6.610E-06,0.016
6.620E-06,0.012
6.630E-06,0.008
6.640E-06,0.008
6.650E-06,0.008
6.660E-06,0.004
6.670E-06,0.004
6.680E-06,0.012
6.690E-06,0.020
6.700E-06,0.036
6.710E-06,0.044
6.720E-06,0.036
6.730E-06,0.032
6.740E-06,0.028
6.750E-06,0.012
6.760E-06,0.000
6.770E-06,-0.008
6.780E-06,-0.028
6.790E-06,0.000
6.800E-06,-0.008
6.810E-06,0.020
6.820E-06,0.028
6.830E-06,0.032
6.840E-06,0.024
6.850E-06,-0.008
6.860E-06,-0.024
6.870E-06,-0.040
6.880E-06,-0.028
6.890E-06,-0.004
6.900E-06,0.008
6.910E-06,0.008
6.920E-06,0.008
6.930E-06,0.004
6.940E-06,0.012
6.950E-06,0.020
6.960E-06,0.028
6.970E-06,0.028
6.980E-06,0.024
6.990E-06,0.012
7.000E-06,0.004
7.010E-06,0.000
7.020E-06,0.000
7.030E-06,0.004
7.040E-06,0.016
7.050E-06,0.048
7.060E-06,0.048
7.070E-06,0.052
7.080E-06,0.032
7.090E-06,0.020
7.100E-06,0.016
7.110E-06,0.028
7.120E-06,0.036
7.130E-06,-0.024
7.140E-06,-0.096
7.150E-06,-0.152
7.160E-06,-0.104
7.170E-06,-0.024
7.180E-06,0.080
7.190E-06,0.132
7.200E-06,0.124
7.210E-06,0.016
7.220E-06,-0.064
7.230E-06,-0.108
7.240E-06,-0.076
7.250E-06,0.032
7.260E-06,0.084
7.270E-06,0.068
7.280E-06,-0.016
7.290E-06,-0.076
7.300E-06,-0.088
7.310E-06,-0.028
7.320E-06,0.048
7.330E-06,0.092
7.340E-06,0.080
7.350E-06,0.024
7.360E-06,-0.040
7.370E-06,-0.064
7.380E-06,-0.024
7.390E-06,0.044
7.400E-06,0.080
7.410E-06,0.068
7.420E-06,0.032
7.430E-06,-0.008
7.440E-06,-0.060
7.450E-06,-0.072
7.460E-06,-0.084
7.470E-06,-0.064
7.480E-06,0.020
7.490E-06,0.048
7.500E-06,0.048
7.510E-06,0.024
7.520E-06,-0.008
7.530E-06,-0.040
7.540E-06,-0.016
7.550E-06,0.000
7.560E-06,0.024
7.570E-06,0.008
7.580E-06,-0.004
7.590E-06,-0.020
7.600E-06,-0.012
7.610E-06,-0.008
7.620E-06,0.008
7.630E-06,0.016
7.640E-06,0.004
7.650E-06,-0.004
7.660E-06,-0.008
7.670E-06,-0.008
7.680E-06,-0.004
7.690E-06,0.024
7.700E-06,0.028
7.710E-06,0.028
7.720E-06,0.020
7.730E-06,0.012
7.740E-06,0.012
7.750E-06,0.008
7.760E-06,0.012
7.770E-06,0.020
7.780E-06,0.028
7.790E-06,0.028
7.800E-06,0.016
7.810E-06,0.008
7.820E-06,0.008
7.830E-06,0.000
7.840E-06,-0.004
7.850E-06,0.004
7.860E-06,0.008
7.870E-06,0.008
7.880E-06,0.012
7.890E-06,0.008
7.900E-06,0.012
7.910E-06,0.028
7.920E-06,0.024
7.930E-06,0.028
7.940E-06,0.024
7.950E-06,0.028
7.960E-06,0.024
7.970E-06,0.024
7.980E-06,0.024
7.990E-06,0.016
8.000E-06,0.020
8.010E-06,0.032
8.020E-06,0.048
8.030E-06,0.060
8.040E-06,0.064
8.050E-06,0.028
8.060E-06,-0.036
8.070E-06,-0.120
8.080E-06,-0.144
8.090E-06,-0.132
8.100E-06,-0.064
8.110E-06,0.024
8.120E-06,0.068
8.130E-06,0.064
8.140E-06,0.024
8.150E-06,-0.036
8.160E-06,-0.060
8.170E-06,-0.052
8.180E-06,-0.020
8.190E-06,0.032
8.200E-06,0.048
8.210E-06,0.032
8.220E-06,0.008
8.230E-06,-0.012
8.240E-06,-0.032
8.250E-06,-0.016
8.260E-06,-0.004
8.270E-06,-0.004
8.280E-06,0.000
8.290E-06,-0.004
8.300E-06,0.000
8.310E-06,0.008
8.320E-06,0.020
8.330E-06,0.032
8.340E-06,0.032
8.350E-06,0.028
8.360E-06,0.032
8.370E-06,0.044
8.380E-06,0.052
8.390E-06,0.060
8.400E-06,0.044
8.410E-06,0.024
8.420E-06,0.000
8.430E-06,-0.004
8.440E-06,0.000
8.450E-06,0.024
8.460E-06,0.028
8.470E-06,0.020
8.480E-06,0.016
8.490E-06,0.008
8.500E-06,0.004
8.510E-06,0.020
8.520E-06,0.040
8.530E-06,0.060
8.540E-06,0.068
8.550E-06,0.068
8.560E-06,0.056
8.570E-06,0.024
8.580E-06,0.008
8.590E-06,-0.044
8.600E-06,-0.204
8.610E-06,-0.360
8.620E-06,-0.392
8.630E-06,-0.276
8.640E-06,0.124
8.650E-06,0.300
8.660E-06,0.352
8.670E-06,0.124
8.680E-06,-0.072
8.690E-06,-0.248
8.700E-06,-0.136
8.710E-06,0.028
8.720E-06,0.184
8.730E-06,0.176
8.740E-06,0.064
8.750E-06,-0.060
8.760E-06,-0.148
8.770E-06,-0.144
8.780E-06,-0.064
