mediciones/5-27/-55/WaveData50271.csv

#timebase=2000000(ps)
,#voltbase=1000000(mv/100)
#size=4000
-5.550E-06,0.080
-5.540E-06,0.040
-5.530E-06,0.040
-5.520E-06,0.040
-5.510E-06,0.040
-5.500E-06,0.080
-5.490E-06,0.080
-5.480E-06,0.080
-5.470E-06,0.040
-5.460E-06,0.040
-5.450E-06,0.000
-5.440E-06,0.040
-5.430E-06,0.120
-5.420E-06,0.080
-5.410E-06,0.120
-5.400E-06,0.000
-5.390E-06,0.040
-5.380E-06,0.080
-5.370E-06,0.080
-5.360E-06,0.080
-5.350E-06,0.120
-5.340E-06,0.000
-5.330E-06,0.040
-5.320E-06,0.080
-5.310E-06,0.040
-5.300E-06,0.080
-5.290E-06,0.040
-5.280E-06,0.000
-5.270E-06,0.000
-5.260E-06,0.080
-5.250E-06,0.000
-5.240E-06,0.040
-5.230E-06,0.040
-5.220E-06,0.080
-5.210E-06,0.000
-5.200E-06,0.040
-5.190E-06,0.040
-5.180E-06,0.000
-5.170E-06,0.080
-5.160E-06,0.080
-5.150E-06,0.000
-5.140E-06,0.040
-5.130E-06,0.040
-5.120E-06,0.080
-5.110E-06,0.040
-5.100E-06,0.080
-5.090E-06,0.120
-5.080E-06,0.000
-5.070E-06,0.000
-5.060E-06,0.040
-5.050E-06,0.040
-5.040E-06,0.040
-5.030E-06,0.080
-5.020E-06,0.040
-5.010E-06,0.080
-5.000E-06,0.040
-4.990E-06,0.000
-4.980E-06,0.080
-4.970E-06,0.040
-4.960E-06,0.040
-4.950E-06,0.040
-4.940E-06,0.000
-4.930E-06,0.040
-4.920E-06,0.040
-4.910E-06,0.080
-4.900E-06,0.000
-4.890E-06,0.080
-4.880E-06,0.040
-4.870E-06,0.040
-4.860E-06,0.120
-4.850E-06,0.120
-4.840E-06,0.120
-4.830E-06,0.000
-4.820E-06,0.040
-4.810E-06,0.080
-4.800E-06,0.040
-4.790E-06,0.040
-4.780E-06,0.080
-4.770E-06,0.040
-4.760E-06,0.040
-4.750E-06,0.040
-4.740E-06,0.040
-4.730E-06,0.040
-4.720E-06,0.040
-4.710E-06,0.080
-4.700E-06,0.000
-4.690E-06,0.040
-4.680E-06,0.080
-4.670E-06,0.040
-4.660E-06,0.080
-4.650E-06,0.040
-4.640E-06,0.040
-4.630E-06,0.040
-4.620E-06,0.040
-4.610E-06,0.040
-4.600E-06,0.080
-4.590E-06,0.000
-4.580E-06,0.040
-4.570E-06,0.080
-4.560E-06,0.040
-4.550E-06,0.040
-4.540E-06,0.080
-4.530E-06,0.000
-4.520E-06,0.000
-4.510E-06,0.040
-4.500E-06,0.000
-4.490E-06,0.080
-4.480E-06,0.000
-4.470E-06,0.040
-4.460E-06,0.080
-4.450E-06,0.040
-4.440E-06,0.040
-4.430E-06,0.040
-4.420E-06,0.040
-4.410E-06,0.040
-4.400E-06,0.040
-4.390E-06,0.000
-4.380E-06,0.040
-4.370E-06,0.120
-4.360E-06,0.080
-4.350E-06,0.080
-4.340E-06,0.080
-4.330E-06,0.080
-4.320E-06,0.040
-4.310E-06,0.040
-4.300E-06,0.040
-4.290E-06,0.080
-4.280E-06,0.040
-4.270E-06,0.040
-4.260E-06,0.040
-4.250E-06,0.080
-4.240E-06,0.080
-4.230E-06,0.040
-4.220E-06,0.080
-4.210E-06,0.040
-4.200E-06,0.040
-4.190E-06,0.080
-4.180E-06,0.080
-4.170E-06,0.000
-4.160E-06,0.040
-4.150E-06,0.040
-4.140E-06,0.040
-4.130E-06,0.040
-4.120E-06,0.000
-4.110E-06,0.000
-4.100E-06,0.040
-4.090E-06,0.000
-4.080E-06,0.040
-4.070E-06,0.080
-4.060E-06,0.000
-4.050E-06,0.040
-4.040E-06,0.040
-4.030E-06,0.040
-4.020E-06,0.080
-4.010E-06,0.080
-4.000E-06,0.000
-3.990E-06,0.040
-3.980E-06,0.080
-3.970E-06,0.080
-3.960E-06,0.000
-3.950E-06,0.000
-3.940E-06,0.040
-3.930E-06,0.040
-3.920E-06,0.040
-3.910E-06,0.040
-3.900E-06,0.040
-3.890E-06,0.040
-3.880E-06,0.040
-3.870E-06,0.080
-3.860E-06,0.080
-3.850E-06,0.080
-3.840E-06,0.080
-3.830E-06,0.000
-3.820E-06,0.080
-3.810E-06,0.080
-3.800E-06,0.080
-3.790E-06,0.040
-3.780E-06,0.040
-3.770E-06,0.000
-3.760E-06,0.080
-3.750E-06,0.040
-3.740E-06,0.000
-3.730E-06,0.080
-3.720E-06,0.120
-3.710E-06,0.120
-3.700E-06,0.040
-3.690E-06,0.000
-3.680E-06,0.040
-3.670E-06,0.080
-3.660E-06,0.040
-3.650E-06,0.040
-3.640E-06,0.040
-3.630E-06,0.040
-3.620E-06,0.040
-3.610E-06,0.040
-3.600E-06,0.040
-3.590E-06,0.040
-3.580E-06,0.040
-3.570E-06,0.040
-3.560E-06,0.040
-3.550E-06,0.040
-3.540E-06,0.040
-3.530E-06,0.040
-3.520E-06,0.040
-3.510E-06,0.040
-3.500E-06,0.040
-3.490E-06,0.040
-3.480E-06,0.040
-3.470E-06,0.040
-3.460E-06,0.040
-3.450E-06,0.000
-3.440E-06,0.040
-3.430E-06,0.040
-3.420E-06,0.040
-3.410E-06,0.040
-3.400E-06,0.080
-3.390E-06,0.040
-3.380E-06,0.040
-3.370E-06,0.040
-3.360E-06,0.080
-3.350E-06,0.080
-3.340E-06,0.040
-3.330E-06,0.000
-3.320E-06,0.040
-3.310E-06,0.000
-3.300E-06,0.080
-3.290E-06,0.080
-3.280E-06,0.080
-3.270E-06,0.040
-3.260E-06,0.040
-3.250E-06,0.080
-3.240E-06,0.080
-3.230E-06,0.040
-3.220E-06,0.080
-3.210E-06,0.080
-3.200E-06,0.080
-3.190E-06,0.040
-3.180E-06,0.040
-3.170E-06,0.120
-3.160E-06,0.120
-3.150E-06,0.000
-3.140E-06,0.040
-3.130E-06,0.040
-3.120E-06,0.040
-3.110E-06,0.040
-3.100E-06,0.040
-3.090E-06,0.040
-3.080E-06,0.040
-3.070E-06,0.040
-3.060E-06,0.080
-3.050E-06,0.080
-3.040E-06,0.040
-3.030E-06,0.080
-3.020E-06,0.040
-3.010E-06,0.040
-3.000E-06,0.200
-2.990E-06,0.400
-2.980E-06,0.840
-2.970E-06,1.600
-2.960E-06,2.400
-2.950E-06,2.800
-2.940E-06,2.800
-2.930E-06,2.240
-2.920E-06,1.120
-2.910E-06,0.080
-2.900E-06,-0.720
-2.890E-06,-1.120
-2.880E-06,-1.320
-2.870E-06,-1.680
-2.860E-06,-2.000
-2.850E-06,-2.400
-2.840E-06,-2.520
-2.830E-06,-2.440
-2.820E-06,-2.040
-2.810E-06,-1.600
-2.800E-06,-1.280
-2.790E-06,-1.120
-2.780E-06,-1.200
-2.770E-06,-1.160
-2.760E-06,-0.960
-2.750E-06,-0.760
-2.740E-06,-0.480
-2.730E-06,-0.200
-2.720E-06,0.000
-2.710E-06,0.320
-2.700E-06,0.560
-2.690E-06,0.840
-2.680E-06,1.200
-2.670E-06,1.320
-2.660E-06,1.320
-2.650E-06,1.160
-2.640E-06,1.120
-2.630E-06,0.960
-2.620E-06,0.920
-2.610E-06,0.720
-2.600E-06,0.560
-2.590E-06,0.320
-2.580E-06,0.160
-2.570E-06,0.000
-2.560E-06,-0.040
-2.550E-06,-0.040
-2.540E-06,0.040
-2.530E-06,0.120
-2.520E-06,0.120
-2.510E-06,0.080
-2.500E-06,0.080
-2.490E-06,0.120
-2.480E-06,-0.040
-2.470E-06,0.000
-2.460E-06,0.000
-2.450E-06,-0.040
-2.440E-06,0.000
-2.430E-06,0.040
-2.420E-06,0.120
-2.410E-06,0.160
-2.400E-06,0.120
-2.390E-06,0.200
-2.380E-06,0.080
-2.370E-06,0.000
-2.360E-06,0.000
-2.350E-06,-0.080
-2.340E-06,-0.160
-2.330E-06,-0.240
-2.320E-06,-0.400
-2.310E-06,-0.520
-2.300E-06,-0.600
-2.290E-06,-0.600
-2.280E-06,-0.520
-2.270E-06,-0.520
-2.260E-06,-0.440
-2.250E-06,-0.440
-2.240E-06,-0.360
-2.230E-06,-0.320
-2.220E-06,-0.240
-2.210E-06,-0.120
-2.200E-06,0.040
-2.190E-06,0.120
-2.180E-06,0.120
-2.170E-06,0.160
-2.160E-06,0.200
-2.150E-06,0.240
-2.140E-06,0.320
-2.130E-06,0.280
-2.120E-06,0.240
-2.110E-06,0.200
-2.100E-06,0.240
-2.090E-06,0.200
-2.080E-06,0.080
-2.070E-06,0.080
-2.060E-06,0.040
-2.050E-06,0.000
-2.040E-06,-0.040
-2.030E-06,-0.040
-2.020E-06,-0.080
-2.010E-06,-0.120
-2.000E-06,-0.120
-1.990E-06,-0.160
-1.980E-06,-0.160
-1.970E-06,-0.160
-1.960E-06,-0.200
-1.950E-06,-0.120
-1.940E-06,-0.160
-1.930E-06,-0.160
-1.920E-06,-0.160
-1.910E-06,-0.120
-1.900E-06,0.000
-1.890E-06,0.000
-1.880E-06,0.040
-1.870E-06,0.080
-1.860E-06,0.120
-1.850E-06,0.200
-1.840E-06,0.200
-1.830E-06,0.120
-1.820E-06,0.160
-1.810E-06,0.160
-1.800E-06,0.160
-1.790E-06,0.120
-1.780E-06,0.160
-1.770E-06,0.120
-1.760E-06,0.120
-1.750E-06,0.000
-1.740E-06,0.040
-1.730E-06,0.000
-1.720E-06,0.000
-1.710E-06,-0.040
-1.700E-06,-0.040
-1.690E-06,-0.080
-1.680E-06,-0.080
-1.670E-06,-0.080
-1.660E-06,-0.040
-1.650E-06,0.000
-1.640E-06,0.000
-1.630E-06,-0.040
-1.620E-06,-0.080
-1.610E-06,-0.120
-1.600E-06,0.040
-1.590E-06,0.040
-1.580E-06,0.040
-1.570E-06,0.040
-1.560E-06,0.040
-1.550E-06,0.080
-1.540E-06,0.120
-1.530E-06,0.200
-1.520E-06,0.200
-1.510E-06,0.160
-1.500E-06,0.240
-1.490E-06,0.280
-1.480E-06,0.240
-1.470E-06,0.240
-1.460E-06,0.240
-1.450E-06,0.240
-1.440E-06,0.160
-1.430E-06,0.120
-1.420E-06,0.120
-1.410E-06,0.120
-1.400E-06,0.040
-1.390E-06,0.080
-1.380E-06,0.000
-1.370E-06,0.040
-1.360E-06,-0.040
-1.350E-06,0.000
-1.340E-06,-0.040
-1.330E-06,-0.040
-1.320E-06,0.000
-1.310E-06,-0.040
-1.300E-06,0.000
-1.290E-06,0.000
-1.280E-06,0.000
-1.270E-06,0.040
-1.260E-06,0.040
-1.250E-06,0.120
-1.240E-06,0.000
-1.230E-06,0.320
-1.220E-06,0.160
-1.210E-06,0.160
-1.200E-06,0.400
-1.190E-06,0.240
-1.180E-06,0.320
-1.170E-06,0.360
-1.160E-06,0.400
-1.150E-06,0.320
-1.140E-06,0.400
-1.130E-06,0.280
-1.120E-06,0.320
-1.110E-06,0.320
-1.100E-06,0.240
-1.090E-06,0.360
-1.080E-06,0.360
-1.070E-06,0.320
-1.060E-06,0.120
-1.050E-06,0.120
-1.040E-06,0.120
-1.030E-06,0.200
-1.020E-06,0.200
-1.010E-06,0.400
-1.000E-06,0.400
-9.900E-07,0.400
-9.800E-07,0.160
-9.700E-07,0.240
-9.600E-07,0.200
-9.500E-07,0.240
-9.400E-07,0.520
-9.300E-07,0.480
-9.200E-07,0.360
-9.100E-07,0.240
-9.000E-07,0.200
-8.900E-07,0.280
-8.800E-07,0.320
-8.700E-07,0.480
-8.600E-07,0.400
-8.500E-07,0.200
-8.400E-07,0.040
-8.300E-07,0.080
-8.200E-07,0.080
-8.100E-07,0.320
-8.000E-07,0.520
-7.900E-07,0.480
-7.800E-07,0.400
-7.700E-07,0.200
-7.600E-07,0.040
-7.500E-07,0.080
-7.400E-07,0.240
-7.300E-07,0.360
-7.200E-07,0.440
-7.100E-07,0.320
-7.000E-07,0.120
-6.900E-07,0.080
-6.800E-07,0.000
-6.700E-07,0.040
-6.600E-07,0.080
-6.500E-07,0.040
-6.400E-07,0.160
-6.300E-07,0.000
-6.200E-07,0.000
-6.100E-07,0.040
-6.000E-07,0.000
-5.900E-07,0.080
-5.800E-07,0.040
-5.700E-07,0.080
-5.600E-07,0.120
-5.500E-07,0.120
-5.400E-07,0.200
-5.300E-07,0.200
-5.200E-07,0.200
-5.100E-07,0.320
-5.000E-07,0.240
-4.900E-07,0.320
-4.800E-07,0.440
-4.700E-07,0.360
-4.600E-07,0.520
-4.500E-07,0.480
-4.400E-07,0.400
-4.300E-07,0.560
-4.200E-07,0.120
-4.100E-07,0.440
-4.000E-07,0.360
-3.900E-07,0.360
-3.800E-07,0.600
-3.700E-07,0.440
-3.600E-07,0.520
-3.500E-07,0.320
-3.400E-07,0.120
-3.300E-07,0.200
-3.200E-07,0.200
-3.100E-07,0.240
-3.000E-07,0.360
-2.900E-07,0.280
-2.800E-07,0.000
-2.700E-07,-0.040
-2.600E-07,-0.040
-2.500E-07,0.000
-2.400E-07,0.000
-2.300E-07,0.080
-2.200E-07,-0.040
-2.100E-07,-0.160
-2.000E-07,-0.240
-1.900E-07,-0.280
-1.800E-07,-0.200
-1.700E-07,-0.120
-1.600E-07,-0.080
-1.500E-07,-0.080
-1.400E-07,-0.200
-1.300E-07,-0.320
-1.200E-07,-0.200
-1.100E-07,-0.160
-1.000E-07,-0.160
-9.000E-08,0.120
-8.000E-08,-0.160
-7.000E-08,0.040
-6.000E-08,0.000
-5.000E-08,0.000
-4.000E-08,0.360
-3.000E-08,0.160
-2.000E-08,0.160
-1.000E-08,0.320
0.000E+00,0.000
1.000E-08,0.240
2.000E-08,0.320
3.000E-08,0.200
4.000E-08,0.320
5.000E-08,0.240
6.000E-08,0.080
7.000E-08,0.160
8.000E-08,0.160
9.000E-08,0.320
1.000E-07,0.360
1.100E-07,0.320
1.200E-07,0.120
1.300E-07,0.000
1.400E-07,-0.080
1.500E-07,0.040
1.600E-07,0.080
1.700E-07,0.040
1.800E-07,0.160
1.900E-07,0.000
2.000E-07,-0.160
2.100E-07,-0.080
2.200E-07,-0.120
2.300E-07,-0.040
2.400E-07,0.000
2.500E-07,0.000
2.600E-07,0.000
2.700E-07,-0.080
2.800E-07,-0.120
2.900E-07,-0.040
3.000E-07,-0.080
3.100E-07,0.000
3.200E-07,0.040
3.300E-07,0.000
3.400E-07,-0.040
3.500E-07,0.000
3.600E-07,-0.040
3.700E-07,0.000
3.800E-07,0.040
3.900E-07,0.000
4.000E-07,0.080
4.100E-07,-0.040
4.200E-07,0.000
4.300E-07,0.000
4.400E-07,0.000
4.500E-07,-0.040
4.600E-07,0.000
4.700E-07,0.040
4.800E-07,-0.040
4.900E-07,0.000
5.000E-07,0.000
5.100E-07,0.000
5.200E-07,0.000
5.300E-07,-0.040
5.400E-07,0.080
5.500E-07,0.120
5.600E-07,0.200
5.700E-07,0.240
5.800E-07,0.200
5.900E-07,0.120
6.000E-07,0.080
6.100E-07,0.160
6.200E-07,0.120
6.300E-07,0.200
6.400E-07,0.280
6.500E-07,0.200
6.600E-07,0.120
6.700E-07,0.120
6.800E-07,0.080
6.900E-07,0.160
7.000E-07,0.240
7.100E-07,0.160
7.200E-07,0.120
7.300E-07,0.160
7.400E-07,0.160
7.500E-07,0.120
7.600E-07,0.080
7.700E-07,0.120
7.800E-07,0.080
7.900E-07,0.040
8.000E-07,0.040
8.100E-07,0.000
8.200E-07,-0.040
8.300E-07,0.040
8.400E-07,0.040
8.500E-07,0.040
8.600E-07,0.000
8.700E-07,-0.040
8.800E-07,0.000
8.900E-07,-0.040
9.000E-07,-0.040
9.100E-07,-0.040
9.200E-07,-0.040
9.300E-07,-0.080
9.400E-07,0.000
9.500E-07,0.000
9.600E-07,0.000
9.700E-07,0.160
9.800E-07,-0.120
9.900E-07,0.160
1.000E-06,0.040
1.010E-06,0.000
1.020E-06,0.240
1.030E-06,0.120
1.040E-06,0.240
1.050E-06,0.200
1.060E-06,0.080
1.070E-06,0.200
1.080E-06,0.240
1.090E-06,0.280
1.100E-06,0.240
1.110E-06,0.280
1.120E-06,0.320
1.130E-06,0.280
1.140E-06,0.280
1.150E-06,0.360
1.160E-06,0.320
1.170E-06,0.320
1.180E-06,0.400
1.190E-06,0.360
1.200E-06,0.320
1.210E-06,0.440
1.220E-06,0.320
1.230E-06,0.520
1.240E-06,0.440
1.250E-06,0.240
1.260E-06,0.360
1.270E-06,0.120
1.280E-06,0.280
1.290E-06,0.320
1.300E-06,0.320
1.310E-06,0.360
1.320E-06,0.120
1.330E-06,0.120
1.340E-06,0.160
1.350E-06,0.200
1.360E-06,0.360
1.370E-06,0.400
1.380E-06,0.320
1.390E-06,0.240
1.400E-06,0.080
1.410E-06,0.080
1.420E-06,0.160
1.430E-06,0.200
1.440E-06,0.200
1.450E-06,0.080
1.460E-06,0.000
1.470E-06,-0.040
1.480E-06,-0.040
1.490E-06,0.040
1.500E-06,0.040
1.510E-06,0.040
1.520E-06,0.000
1.530E-06,-0.040
1.540E-06,0.000
1.550E-06,0.000
1.560E-06,0.120
1.570E-06,0.120
1.580E-06,0.160
1.590E-06,0.200
1.600E-06,0.120
1.610E-06,0.120
1.620E-06,0.200
1.630E-06,0.240
1.640E-06,0.240
1.650E-06,0.240
1.660E-06,0.240
1.670E-06,0.240
1.680E-06,0.320
1.690E-06,0.280
1.700E-06,0.240
1.710E-06,0.280
1.720E-06,0.240
1.730E-06,0.200
1.740E-06,0.240
1.750E-06,0.240
1.760E-06,0.280
1.770E-06,0.280
1.780E-06,0.280
1.790E-06,0.200
1.800E-06,0.160
1.810E-06,0.200
1.820E-06,0.200
1.830E-06,0.160
1.840E-06,0.200
1.850E-06,0.240
1.860E-06,0.200
1.870E-06,0.240
1.880E-06,0.120
1.890E-06,0.200
1.900E-06,0.240
1.910E-06,0.200
1.920E-06,0.200
1.930E-06,0.120
1.940E-06,0.160
1.950E-06,0.200
1.960E-06,0.320
1.970E-06,0.320
1.980E-06,0.440
1.990E-06,0.480
2.000E-06,0.480
2.010E-06,0.520
2.020E-06,0.560
2.030E-06,0.600
2.040E-06,0.680
2.050E-06,0.680
2.060E-06,0.760
2.070E-06,0.800
2.080E-06,0.800
2.090E-06,0.840
2.100E-06,0.840
2.110E-06,0.920
2.120E-06,0.920
2.130E-06,1.000
2.140E-06,1.080
2.150E-06,1.040
2.160E-06,0.960
2.170E-06,1.000
2.180E-06,1.080
2.190E-06,1.160
2.200E-06,1.160
2.210E-06,1.240
2.220E-06,1.240
2.230E-06,1.200
2.240E-06,1.160
2.250E-06,1.160
2.260E-06,1.080
2.270E-06,1.120
2.280E-06,1.080
2.290E-06,1.040
2.300E-06,1.160
2.310E-06,1.040
2.320E-06,1.160
2.330E-06,1.120
2.340E-06,1.000
2.350E-06,1.120
2.360E-06,1.120
2.370E-06,1.240
2.380E-06,1.280
2.390E-06,1.320
2.400E-06,1.240
2.410E-06,1.120
2.420E-06,1.120
2.430E-06,1.000
2.440E-06,0.920
2.450E-06,1.000
2.460E-06,1.000
2.470E-06,1.000
2.480E-06,1.000
2.490E-06,1.040
2.500E-06,1.160
2.510E-06,1.120
2.520E-06,1.160
2.530E-06,1.400
2.540E-06,1.400
2.550E-06,1.680
2.560E-06,1.760
2.570E-06,1.520
2.580E-06,1.680
2.590E-06,1.440
2.600E-06,1.400
2.610E-06,1.480
2.620E-06,1.520
2.630E-06,1.600
2.640E-06,1.720
2.650E-06,1.680
2.660E-06,1.640
2.670E-06,1.520
2.680E-06,1.600
2.690E-06,1.880
2.700E-06,2.040
2.710E-06,2.040
2.720E-06,2.160
2.730E-06,2.040
2.740E-06,2.320
2.750E-06,2.200
2.760E-06,2.120
2.770E-06,2.040
2.780E-06,1.720
2.790E-06,1.680
2.800E-06,1.960
2.810E-06,2.000
2.820E-06,1.960
2.830E-06,1.480
2.840E-06,0.240
2.850E-06,0.240
2.860E-06,0.160
2.870E-06,0.680
2.880E-06,1.640
2.890E-06,1.240
2.900E-06,0.840
2.910E-06,0.320
2.920E-06,-0.240
2.930E-06,0.120
2.940E-06,0.720
2.950E-06,1.120
2.960E-06,1.400
2.970E-06,1.040
2.980E-06,0.720
2.990E-06,0.520
3.000E-06,0.400
3.010E-06,0.480
3.020E-06,0.800
3.030E-06,0.880
3.040E-06,0.960
3.050E-06,1.000
3.060E-06,0.880
3.070E-06,0.560
3.080E-06,0.560
3.090E-06,0.400
3.100E-06,0.520
3.110E-06,0.600
3.120E-06,0.480
3.130E-06,0.440
3.140E-06,0.200
3.150E-06,0.200
3.160E-06,0.120
3.170E-06,0.040
3.180E-06,0.400
3.190E-06,0.400
3.200E-06,0.520
3.210E-06,0.600
3.220E-06,0.440
3.230E-06,0.480
3.240E-06,0.360
3.250E-06,0.360
3.260E-06,0.480
3.270E-06,0.520
3.280E-06,0.440
3.290E-06,0.400
3.300E-06,0.280
3.310E-06,0.200
3.320E-06,0.120
3.330E-06,-0.040
3.340E-06,-0.040
3.350E-06,-0.040
3.360E-06,-0.160
3.370E-06,-0.240
3.380E-06,-0.360
3.390E-06,-0.400
3.400E-06,-0.440
3.410E-06,-0.440
3.420E-06,-0.400
3.430E-06,-0.440
3.440E-06,-0.440
3.450E-06,-0.480
3.460E-06,-0.440
3.470E-06,-0.200
3.480E-06,-0.200
3.490E-06,-0.080
3.500E-06,-0.080
3.510E-06,-0.200
3.520E-06,-0.200
3.530E-06,-0.040
3.540E-06,-0.040
3.550E-06,0.160
3.560E-06,0.280
3.570E-06,0.080
3.580E-06,0.240
3.590E-06,0.080
3.600E-06,-0.040
3.610E-06,0.280
3.620E-06,0.240
3.630E-06,0.600
3.640E-06,0.640
3.650E-06,0.600
3.660E-06,0.640
3.670E-06,0.480
3.680E-06,0.520
3.690E-06,0.760
3.700E-06,0.800
3.710E-06,0.680
3.720E-06,0.680
3.730E-06,0.480
3.740E-06,0.440
3.750E-06,0.520
3.760E-06,0.600
3.770E-06,0.640
3.780E-06,0.640
3.790E-06,0.560
3.800E-06,0.440
3.810E-06,0.160
3.820E-06,0.000
3.830E-06,-0.160
3.840E-06,-0.120
3.850E-06,-0.200
3.860E-06,-0.120
3.870E-06,-0.160
3.880E-06,-0.440
3.890E-06,-0.640
3.900E-06,-0.240
3.910E-06,-0.520
3.920E-06,0.040
3.930E-06,0.320
3.940E-06,-0.560
3.950E-06,0.080
3.960E-06,-0.480
3.970E-06,-0.560
3.980E-06,0.360
3.990E-06,0.000
4.000E-06,0.200
4.010E-06,0.000
4.020E-06,-0.240
4.030E-06,-0.240
4.040E-06,-0.520
4.050E-06,-0.600
4.060E-06,-0.680
4.070E-06,-0.560
4.080E-06,-0.440
4.090E-06,-0.200
4.100E-06,-0.040
4.110E-06,0.040
4.120E-06,-0.360
4.130E-06,-0.560
4.140E-06,-0.640
4.150E-06,-1.160
4.160E-06,-0.680
4.170E-06,-0.800
4.180E-06,-0.480
4.190E-06,0.080
4.200E-06,-0.160
4.210E-06,-0.440
4.220E-06,-1.200
4.230E-06,-1.760
4.240E-06,-1.880
4.250E-06,-1.640
4.260E-06,-1.280
4.270E-06,-1.120
4.280E-06,-1.440
4.290E-06,-1.880
4.300E-06,-2.200
4.310E-06,-3.280
4.320E-06,-3.600
4.330E-06,-4.680
4.340E-06,-5.120
4.350E-06,-5.200
4.360E-06,-5.200
4.370E-06,-5.240
4.380E-06,-5.240
4.390E-06,-5.240
4.400E-06,-5.240
4.410E-06,-5.240
4.420E-06,-5.200
4.430E-06,-5.200
4.440E-06,-5.240
4.450E-06,-5.240
4.460E-06,-5.240
4.470E-06,-5.240
4.480E-06,-5.240
4.490E-06,-5.240
4.500E-06,-5.240
4.510E-06,-5.240
4.520E-06,-5.240
4.530E-06,-5.240
4.540E-06,-5.240
4.550E-06,-5.200
4.560E-06,-5.200
4.570E-06,-5.240
4.580E-06,-5.240
4.590E-06,-5.240
4.600E-06,-5.200
4.610E-06,-5.200
4.620E-06,-5.200
4.630E-06,-5.240
4.640E-06,-5.240
4.650E-06,-5.200
4.660E-06,-5.200
4.670E-06,-5.240
4.680E-06,-5.200
4.690E-06,-5.200
4.700E-06,-5.240
4.710E-06,-5.240
4.720E-06,-5.200
4.730E-06,-5.240
4.740E-06,-5.240
4.750E-06,-5.200
4.760E-06,-5.200
4.770E-06,-5.240
4.780E-06,-5.200
4.790E-06,-5.200
4.800E-06,-5.240
4.810E-06,-5.240
4.820E-06,-5.240
4.830E-06,-5.240
4.840E-06,-5.200
4.850E-06,-5.120
4.860E-06,-5.000
4.870E-06,-4.880
4.880E-06,-4.720
4.890E-06,-4.680
4.900E-06,-4.520
4.910E-06,-4.320
4.920E-06,-4.080
4.930E-06,-3.840
4.940E-06,-3.480
4.950E-06,-3.320
4.960E-06,-3.120
4.970E-06,-2.880
4.980E-06,-2.720
4.990E-06,-2.320
5.000E-06,-2.160
5.010E-06,-1.920
5.020E-06,-1.760
5.030E-06,-1.600
5.040E-06,-1.320
5.050E-06,-1.240
5.060E-06,-1.040
5.070E-06,-1.000
5.080E-06,-1.000
5.090E-06,-0.880
5.100E-06,-0.880
5.110E-06,-0.800
5.120E-06,-0.960
5.130E-06,-0.880
5.140E-06,-1.040
5.150E-06,-1.480
5.160E-06,-1.320
5.170E-06,-1.920
5.180E-06,-1.560
5.190E-06,-1.600
5.200E-06,-2.280
5.210E-06,-1.800
5.220E-06,-2.560
5.230E-06,-2.200
5.240E-06,-1.160
5.250E-06,-0.680
5.260E-06,0.040
5.270E-06,-0.600
5.280E-06,-1.960
5.290E-06,-2.720
5.300E-06,-3.680
5.310E-06,-3.160
5.320E-06,-2.360
5.330E-06,-1.720
5.340E-06,-0.960
5.350E-06,-1.160
5.360E-06,-1.360
5.370E-06,-1.600
5.380E-06,-1.680
5.390E-06,-1.800
5.400E-06,-1.320
5.410E-06,-0.880
5.420E-06,-0.400
5.430E-06,0.120
5.440E-06,-0.040
5.450E-06,-0.120
5.460E-06,-0.680
5.470E-06,-1.000
5.480E-06,-1.120
5.490E-06,-1.160
5.500E-06,-1.120
5.510E-06,-1.280
5.520E-06,-1.480
5.530E-06,-1.880
5.540E-06,-2.200
5.550E-06,-2.480
5.560E-06,-2.640
5.570E-06,-2.560
5.580E-06,-2.560
5.590E-06,-2.360
5.600E-06,-2.200
5.610E-06,-2.000
5.620E-06,-1.760
5.630E-06,-1.360
5.640E-06,-1.160
5.650E-06,-0.880
5.660E-06,-0.520
5.670E-06,-0.400
5.680E-06,-0.120
5.690E-06,-0.160
5.700E-06,-0.240
5.710E-06,-0.280
5.720E-06,-0.360
5.730E-06,-0.400
5.740E-06,-0.480
5.750E-06,-0.560
5.760E-06,-0.760
5.770E-06,-0.880
5.780E-06,-0.960
5.790E-06,-1.160
5.800E-06,-1.240
5.810E-06,-1.360
5.820E-06,-1.440
5.830E-06,-1.560
5.840E-06,-1.680
5.850E-06,-1.680
5.860E-06,-1.760
5.870E-06,-1.760
5.880E-06,-1.840
5.890E-06,-1.840
5.900E-06,-1.800
5.910E-06,-1.800
5.920E-06,-1.760
5.930E-06,-1.720
5.940E-06,-1.600
5.950E-06,-1.520
5.960E-06,-1.480
5.970E-06,-1.400
5.980E-06,-1.360
5.990E-06,-1.360
6.000E-06,-1.360
6.010E-06,-1.280
6.020E-06,-1.280
6.030E-06,-1.240
6.040E-06,-1.320
6.050E-06,-1.400
6.060E-06,-1.520
6.070E-06,-1.560
6.080E-06,-1.560
6.090E-06,-1.600
6.100E-06,-1.560
6.110E-06,-1.600
6.120E-06,-1.720
6.130E-06,-1.840
6.140E-06,-2.160
6.150E-06,-2.240
6.160E-06,-2.360
6.170E-06,-2.360
6.180E-06,-2.400
6.190E-06,-2.400
6.200E-06,-2.480
6.210E-06,-2.600
6.220E-06,-2.760
6.230E-06,-2.600
6.240E-06,-2.960
6.250E-06,-2.320
6.260E-06,-2.040
6.270E-06,-1.680
6.280E-06,-1.120
6.290E-06,-1.160
6.300E-06,-0.800
6.310E-06,-1.200
6.320E-06,-1.200
