mediciones/5-27/-55/WaveData50293.csv

#timebase=2000000(ps)
,#voltbase=100000(mv/100)
#size=4000
-5.650E-06,0.004
-5.640E-06,0.008
-5.630E-06,-0.004
-5.620E-06,0.000
-5.610E-06,0.004
-5.600E-06,0.004
-5.590E-06,0.004
-5.580E-06,0.000
-5.570E-06,0.000
-5.560E-06,0.004
-5.550E-06,0.012
-5.540E-06,0.004
-5.530E-06,0.008
-5.520E-06,0.012
-5.510E-06,0.008
-5.500E-06,0.004
-5.490E-06,0.004
-5.480E-06,0.012
-5.470E-06,0.012
-5.460E-06,0.008
-5.450E-06,0.012
-5.440E-06,0.016
-5.430E-06,0.012
-5.420E-06,0.004
-5.410E-06,0.004
-5.400E-06,0.004
-5.390E-06,0.004
-5.380E-06,0.004
-5.370E-06,0.012
-5.360E-06,0.008
-5.350E-06,0.012
-5.340E-06,0.008
-5.330E-06,0.008
-5.320E-06,0.000
-5.310E-06,0.004
-5.300E-06,0.008
-5.290E-06,0.012
-5.280E-06,0.016
-5.270E-06,0.024
-5.260E-06,0.024
-5.250E-06,0.016
-5.240E-06,0.016
-5.230E-06,0.016
-5.220E-06,0.016
-5.210E-06,0.020
-5.200E-06,0.024
-5.190E-06,0.024
-5.180E-06,0.016
-5.170E-06,0.000
-5.160E-06,0.000
-5.150E-06,0.008
-5.140E-06,0.020
-5.130E-06,0.040
-5.120E-06,0.056
-5.110E-06,0.060
-5.100E-06,0.056
-5.090E-06,0.040
-5.080E-06,0.012
-5.070E-06,-0.008
-5.060E-06,-0.028
-5.050E-06,-0.016
-5.040E-06,0.008
-5.030E-06,-0.004
-5.020E-06,-0.016
-5.010E-06,-0.040
-5.000E-06,-0.056
-4.990E-06,-0.024
-4.980E-06,0.000
-4.970E-06,0.028
-4.960E-06,0.032
-4.950E-06,0.032
-4.940E-06,0.028
-4.930E-06,0.020
-4.920E-06,0.016
-4.910E-06,0.016
-4.900E-06,-0.044
-4.890E-06,-0.096
-4.880E-06,-0.112
-4.870E-06,-0.072
-4.860E-06,-0.008
-4.850E-06,0.052
-4.840E-06,0.072
-4.830E-06,0.040
-4.820E-06,0.004
-4.810E-06,-0.040
-4.800E-06,-0.064
-4.790E-06,-0.036
-4.780E-06,0.004
-4.770E-06,0.028
-4.760E-06,0.032
-4.750E-06,0.012
-4.740E-06,0.000
-4.730E-06,-0.012
-4.720E-06,-0.004
-4.710E-06,-0.008
-4.700E-06,0.004
-4.690E-06,-0.004
-4.680E-06,0.000
-4.670E-06,-0.004
-4.660E-06,0.000
-4.650E-06,0.000
-4.640E-06,0.008
-4.630E-06,0.004
-4.620E-06,0.000
-4.610E-06,0.000
-4.600E-06,-0.004
-4.590E-06,0.008
-4.580E-06,0.008
-4.570E-06,0.008
-4.560E-06,0.008
-4.550E-06,-0.004
-4.540E-06,0.000
-4.530E-06,0.008
-4.520E-06,0.012
-4.510E-06,0.020
-4.500E-06,0.020
-4.490E-06,0.008
-4.480E-06,0.008
-4.470E-06,0.012
-4.460E-06,0.020
-4.450E-06,0.020
-4.440E-06,0.024
-4.430E-06,0.032
-4.420E-06,0.028
-4.410E-06,0.032
-4.400E-06,0.024
-4.390E-06,0.032
-4.380E-06,0.036
-4.370E-06,0.040
-4.360E-06,0.040
-4.350E-06,0.028
-4.340E-06,0.028
-4.330E-06,0.024
-4.320E-06,0.012
-4.310E-06,0.012
-4.300E-06,0.020
-4.290E-06,0.024
-4.280E-06,0.028
-4.270E-06,0.032
-4.260E-06,0.036
-4.250E-06,0.024
-4.240E-06,0.024
-4.230E-06,0.028
-4.220E-06,0.024
-4.210E-06,0.032
-4.200E-06,0.056
-4.190E-06,0.080
-4.180E-06,0.092
-4.170E-06,0.096
-4.160E-06,0.076
-4.150E-06,0.056
-4.140E-06,0.016
-4.130E-06,-0.028
-4.120E-06,-0.100
-4.110E-06,-0.200
-4.100E-06,-0.248
-4.090E-06,-0.232
-4.080E-06,-0.144
-4.070E-06,-0.024
-4.060E-06,0.088
-4.050E-06,0.120
-4.040E-06,0.084
-4.030E-06,-0.012
-4.020E-06,-0.088
-4.010E-06,-0.124
-4.000E-06,-0.072
-3.990E-06,-0.004
-3.980E-06,0.056
-3.970E-06,0.076
-3.960E-06,0.032
-3.950E-06,-0.004
-3.940E-06,-0.036
-3.930E-06,-0.056
-3.920E-06,-0.028
-3.910E-06,0.004
-3.900E-06,0.048
-3.890E-06,0.048
-3.880E-06,0.024
-3.870E-06,0.008
-3.860E-06,0.000
-3.850E-06,-0.004
-3.840E-06,0.008
-3.830E-06,0.024
-3.820E-06,0.012
-3.810E-06,0.008
-3.800E-06,0.000
-3.790E-06,-0.004
-3.780E-06,0.000
-3.770E-06,0.012
-3.760E-06,0.000
-3.750E-06,-0.004
-3.740E-06,-0.016
-3.730E-06,-0.032
-3.720E-06,-0.024
-3.710E-06,-0.004
-3.700E-06,-0.004
-3.690E-06,0.008
-3.680E-06,0.016
-3.670E-06,0.008
-3.660E-06,0.004
-3.650E-06,-0.008
-3.640E-06,-0.012
-3.630E-06,0.008
-3.620E-06,0.024
-3.610E-06,0.028
-3.600E-06,0.032
-3.590E-06,0.016
-3.580E-06,-0.008
-3.570E-06,-0.012
-3.560E-06,-0.008
-3.550E-06,0.016
-3.540E-06,0.040
-3.530E-06,0.048
-3.520E-06,0.036
-3.510E-06,0.024
-3.500E-06,0.012
-3.490E-06,0.016
-3.480E-06,0.016
-3.470E-06,0.028
-3.460E-06,0.036
-3.450E-06,0.036
-3.440E-06,0.040
-3.430E-06,0.036
-3.420E-06,0.040
-3.410E-06,0.052
-3.400E-06,0.056
-3.390E-06,0.048
-3.380E-06,0.040
-3.370E-06,0.036
-3.360E-06,0.024
-3.350E-06,0.036
-3.340E-06,0.036
-3.330E-06,0.024
-3.320E-06,0.012
-3.310E-06,0.008
-3.300E-06,0.008
-3.290E-06,0.016
-3.280E-06,0.028
-3.270E-06,0.020
-3.260E-06,-0.032
-3.250E-06,-0.136
-3.240E-06,-0.232
-3.230E-06,-0.256
-3.220E-06,-0.164
-3.210E-06,-0.016
-3.200E-06,0.108
-3.190E-06,0.156
-3.180E-06,0.084
-3.170E-06,-0.048
-3.160E-06,-0.148
-3.150E-06,-0.152
-3.140E-06,-0.076
-3.130E-06,0.032
-3.120E-06,0.108
-3.110E-06,0.104
-3.100E-06,0.032
-3.090E-06,-0.020
-3.080E-06,-0.056
-3.070E-06,-0.036
-3.060E-06,-0.004
-3.050E-06,0.028
-3.040E-06,0.028
-3.030E-06,0.008
-3.020E-06,-0.004
-3.010E-06,-0.016
-3.000E-06,-0.016
-2.990E-06,-0.004
-2.980E-06,-0.004
-2.970E-06,0.000
-2.960E-06,0.000
-2.950E-06,0.000
-2.940E-06,0.004
-2.930E-06,0.000
-2.920E-06,0.000
-2.910E-06,-0.004
-2.900E-06,-0.004
-2.890E-06,0.000
-2.880E-06,0.004
-2.870E-06,0.008
-2.860E-06,0.004
-2.850E-06,0.000
-2.840E-06,0.000
-2.830E-06,-0.004
-2.820E-06,0.000
-2.810E-06,0.004
-2.800E-06,0.008
-2.790E-06,0.008
-2.780E-06,0.004
-2.770E-06,0.004
-2.760E-06,0.000
-2.750E-06,-0.004
-2.740E-06,0.004
-2.730E-06,0.012
-2.720E-06,0.012
-2.710E-06,0.008
-2.700E-06,0.000
-2.690E-06,0.000
-2.680E-06,0.000
-2.670E-06,0.004
-2.660E-06,0.008
-2.650E-06,0.012
-2.640E-06,0.012
-2.630E-06,0.012
-2.620E-06,0.008
-2.610E-06,0.008
-2.600E-06,0.008
-2.590E-06,0.008
-2.580E-06,0.012
-2.570E-06,0.024
-2.560E-06,0.024
-2.550E-06,0.020
-2.540E-06,0.024
-2.530E-06,0.024
-2.520E-06,0.028
-2.510E-06,0.028
-2.500E-06,0.024
-2.490E-06,0.028
-2.480E-06,0.024
-2.470E-06,0.024
-2.460E-06,0.024
-2.450E-06,0.032
-2.440E-06,0.032
-2.430E-06,0.032
-2.420E-06,0.044
-2.410E-06,0.044
-2.400E-06,0.040
-2.390E-06,0.036
-2.380E-06,0.020
-2.370E-06,0.020
-2.360E-06,0.024
-2.350E-06,0.024
-2.340E-06,0.036
-2.330E-06,0.032
-2.320E-06,0.036
-2.310E-06,0.036
-2.300E-06,0.032
-2.290E-06,0.024
-2.280E-06,0.012
-2.270E-06,0.004
-2.260E-06,-0.008
-2.250E-06,-0.028
-2.240E-06,-0.020
-2.230E-06,0.004
-2.220E-06,0.068
-2.210E-06,0.112
-2.200E-06,0.032
-2.190E-06,-0.060
-2.180E-06,-0.136
-2.170E-06,-0.084
-2.160E-06,0.020
-2.150E-06,0.156
-2.140E-06,0.172
-2.130E-06,0.124
-2.120E-06,0.056
-2.110E-06,-0.024
-2.100E-06,-0.204
-2.090E-06,-0.272
-2.080E-06,-0.204
-2.070E-06,-0.104
-2.060E-06,-0.016
-2.050E-06,-0.064
-2.040E-06,-0.096
-2.030E-06,-0.136
-2.020E-06,-0.024
-2.010E-06,0.024
-2.000E-06,0.036
-1.990E-06,0.124
-1.980E-06,0.088
-1.970E-06,0.008
-1.960E-06,-0.048
-1.950E-06,-0.076
-1.940E-06,-0.052
-1.930E-06,0.008
-1.920E-06,0.028
-1.910E-06,0.028
-1.900E-06,0.036
-1.890E-06,0.016
-1.880E-06,0.000
-1.870E-06,0.000
-1.860E-06,0.000
-1.850E-06,-0.004
-1.840E-06,0.000
-1.830E-06,0.000
-1.820E-06,0.008
-1.810E-06,0.016
-1.800E-06,0.028
-1.790E-06,0.016
-1.780E-06,0.040
-1.770E-06,0.020
-1.760E-06,0.024
-1.750E-06,0.004
-1.740E-06,0.000
-1.730E-06,0.004
-1.720E-06,-0.008
-1.710E-06,-0.012
-1.700E-06,-0.016
-1.690E-06,-0.020
-1.680E-06,-0.024
-1.670E-06,-0.024
-1.660E-06,0.008
-1.650E-06,0.024
-1.640E-06,0.028
-1.630E-06,0.024
-1.620E-06,0.008
-1.610E-06,-0.024
-1.600E-06,-0.032
-1.590E-06,-0.004
-1.580E-06,0.012
-1.570E-06,0.028
-1.560E-06,0.028
-1.550E-06,0.020
-1.540E-06,0.016
-1.530E-06,0.008
-1.520E-06,0.024
-1.510E-06,0.044
-1.500E-06,0.052
-1.490E-06,0.044
-1.480E-06,0.020
-1.470E-06,0.004
-1.460E-06,-0.008
-1.450E-06,0.012
-1.440E-06,0.028
-1.430E-06,0.056
-1.420E-06,0.064
-1.410E-06,0.052
-1.400E-06,0.040
-1.390E-06,0.044
-1.380E-06,0.056
-1.370E-06,0.088
-1.360E-06,0.120
-1.350E-06,0.124
-1.340E-06,0.084
-1.330E-06,0.024
-1.320E-06,-0.072
-1.310E-06,-0.124
-1.300E-06,-0.156
-1.290E-06,-0.140
-1.280E-06,-0.108
-1.270E-06,-0.080
-1.260E-06,-0.028
-1.250E-06,-0.032
-1.240E-06,-0.020
-1.230E-06,-0.004
-1.220E-06,-0.004
-1.210E-06,0.004
-1.200E-06,0.008
-1.190E-06,-0.004
-1.180E-06,0.000
-1.170E-06,-0.012
-1.160E-06,-0.028
-1.150E-06,-0.032
-1.140E-06,-0.028
-1.130E-06,-0.024
-1.120E-06,-0.008
-1.110E-06,-0.004
-1.100E-06,0.000
-1.090E-06,0.004
-1.080E-06,0.004
-1.070E-06,0.000
-1.060E-06,0.004
-1.050E-06,0.008
-1.040E-06,0.020
-1.030E-06,0.016
-1.020E-06,0.012
-1.010E-06,0.020
-1.000E-06,0.024
-9.900E-07,0.020
-9.800E-07,0.008
-9.700E-07,0.008
-9.600E-07,0.016
-9.500E-07,0.028
-9.400E-07,0.020
-9.300E-07,0.028
-9.200E-07,0.032
-9.100E-07,0.040
-9.000E-07,0.044
-8.900E-07,0.056
-8.800E-07,0.052
-8.700E-07,0.056
-8.600E-07,0.056
-8.500E-07,0.064
-8.400E-07,0.060
-8.300E-07,0.068
-8.200E-07,0.080
-8.100E-07,0.088
-8.000E-07,0.092
-7.900E-07,0.092
-7.800E-07,0.068
-7.700E-07,0.032
-7.600E-07,-0.020
-7.500E-07,-0.052
-7.400E-07,-0.068
-7.300E-07,-0.072
-7.200E-07,-0.076
-7.100E-07,-0.064
-7.000E-07,-0.060
-6.900E-07,-0.060
-6.800E-07,-0.060
-6.700E-07,-0.056
-6.600E-07,-0.032
-6.500E-07,-0.024
-6.400E-07,-0.008
-6.300E-07,-0.008
-6.200E-07,-0.004
-6.100E-07,-0.008
-6.000E-07,-0.016
-5.900E-07,-0.008
-5.800E-07,0.008
-5.700E-07,0.020
-5.600E-07,0.016
-5.500E-07,0.032
-5.400E-07,0.024
-5.300E-07,0.016
-5.200E-07,0.020
-5.100E-07,0.028
-5.000E-07,0.032
-4.900E-07,0.032
-4.800E-07,0.032
-4.700E-07,0.024
-4.600E-07,0.032
-4.500E-07,0.036
-4.400E-07,0.040
-4.300E-07,0.044
-4.200E-07,0.036
-4.100E-07,0.032
-4.000E-07,0.032
-3.900E-07,0.032
-3.800E-07,0.028
-3.700E-07,0.028
-3.600E-07,0.036
-3.500E-07,0.036
-3.400E-07,0.028
-3.300E-07,0.040
-3.200E-07,0.052
-3.100E-07,0.064
-3.000E-07,0.080
-2.900E-07,0.088
-2.800E-07,0.092
-2.700E-07,0.088
-2.600E-07,0.084
-2.500E-07,0.080
-2.400E-07,0.088
-2.300E-07,0.088
-2.200E-07,0.088
-2.100E-07,0.076
-2.000E-07,0.068
-1.900E-07,0.060
-1.800E-07,0.040
-1.700E-07,0.060
-1.600E-07,0.044
-1.500E-07,0.060
-1.400E-07,0.016
-1.300E-07,0.044
-1.200E-07,-0.036
-1.100E-07,-0.160
-1.000E-07,-0.192
-9.000E-08,-0.124
-8.000E-08,-0.020
-7.000E-08,0.044
-6.000E-08,-0.044
-5.000E-08,-0.316
-4.000E-08,-0.364
-3.000E-08,-0.420
-2.000E-08,-0.156
-1.000E-08,0.140
0.000E+00,0.336
1.000E-08,0.412
2.000E-08,0.256
3.000E-08,-0.084
4.000E-08,-0.284
5.000E-08,-0.316
6.000E-08,-0.228
7.000E-08,-0.144
8.000E-08,-0.004
9.000E-08,0.064
1.000E-07,0.104
1.100E-07,0.092
1.200E-07,-0.020
1.300E-07,-0.020
1.400E-07,-0.088
1.500E-07,-0.072
1.600E-07,0.056
1.700E-07,0.100
1.800E-07,0.100
1.900E-07,-0.040
2.000E-07,-0.252
2.100E-07,-0.364
2.200E-07,-0.232
2.300E-07,-0.068
2.400E-07,0.124
2.500E-07,0.232
2.600E-07,0.136
2.700E-07,-0.008
2.800E-07,-0.136
2.900E-07,-0.176
3.000E-07,-0.092
3.100E-07,0.044
3.200E-07,0.116
3.300E-07,0.120
3.400E-07,0.056
3.500E-07,-0.024
3.600E-07,-0.052
3.700E-07,-0.040
3.800E-07,-0.004
3.900E-07,0.048
4.000E-07,0.064
4.100E-07,0.032
4.200E-07,0.032
4.300E-07,0.008
4.400E-07,0.012
4.500E-07,0.040
4.600E-07,0.088
4.700E-07,0.100
4.800E-07,0.108
4.900E-07,0.076
5.000E-07,0.028
5.100E-07,-0.028
5.200E-07,-0.044
5.300E-07,-0.044
5.400E-07,-0.024
5.500E-07,0.024
5.600E-07,0.044
5.700E-07,0.060
5.800E-07,0.040
5.900E-07,0.008
6.000E-07,-0.024
6.100E-07,-0.020
6.200E-07,0.004
6.300E-07,0.052
6.400E-07,0.084
6.500E-07,0.076
6.600E-07,0.048
6.700E-07,0.032
6.800E-07,0.032
6.900E-07,0.032
7.000E-07,0.080
7.100E-07,0.112
7.200E-07,0.112
7.300E-07,0.104
7.400E-07,0.072
7.500E-07,0.060
7.600E-07,0.060
7.700E-07,0.080
7.800E-07,0.104
7.900E-07,0.108
8.000E-07,0.096
8.100E-07,0.060
8.200E-07,0.048
8.300E-07,0.040
8.400E-07,0.044
8.500E-07,0.052
8.600E-07,0.036
8.700E-07,-0.056
8.800E-07,-0.124
8.900E-07,-0.188
9.000E-07,-0.204
9.100E-07,-0.104
9.200E-07,0.008
9.300E-07,0.100
9.400E-07,0.160
9.500E-07,0.144
9.600E-07,0.076
9.700E-07,0.028
9.800E-07,0.008
9.900E-07,0.060
1.000E-06,0.104
1.010E-06,0.060
1.020E-06,-0.008
1.030E-06,-0.120
1.040E-06,-0.120
1.050E-06,-0.068
1.060E-06,-0.008
1.070E-06,0.008
1.080E-06,0.040
1.090E-06,-0.208
1.100E-06,-0.332
1.110E-06,-0.476
1.120E-06,-0.460
1.130E-06,-0.184
1.140E-06,0.144
1.150E-06,0.284
1.160E-06,0.360
1.170E-06,0.216
1.180E-06,-0.004
1.190E-06,-0.136
1.200E-06,-0.136
1.210E-06,-0.008
1.220E-06,0.144
1.230E-06,0.128
1.240E-06,0.012
1.250E-06,-0.160
1.260E-06,-0.292
1.270E-06,-0.284
1.280E-06,-0.160
1.290E-06,0.004
1.300E-06,0.112
1.310E-06,0.160
1.320E-06,0.080
1.330E-06,-0.012
1.340E-06,-0.044
1.350E-06,-0.068
1.360E-06,-0.008
1.370E-06,0.048
1.380E-06,0.052
1.390E-06,0.044
1.400E-06,0.000
1.410E-06,-0.048
1.420E-06,-0.076
1.430E-06,-0.048
1.440E-06,-0.036
1.450E-06,0.028
1.460E-06,0.068
1.470E-06,0.076
1.480E-06,0.064
1.490E-06,0.004
1.500E-06,-0.020
1.510E-06,-0.008
1.520E-06,0.024
1.530E-06,0.068
1.540E-06,0.088
1.550E-06,0.092
1.560E-06,0.052
1.570E-06,0.036
1.580E-06,0.040
1.590E-06,0.056
1.600E-06,0.084
1.610E-06,0.124
1.620E-06,0.140
1.630E-06,0.144
1.640E-06,0.124
1.650E-06,0.100
1.660E-06,0.076
1.670E-06,0.056
1.680E-06,0.048
1.690E-06,0.060
1.700E-06,0.056
1.710E-06,0.040
1.720E-06,0.004
1.730E-06,-0.016
1.740E-06,-0.044
1.750E-06,-0.020
1.760E-06,0.012
1.770E-06,0.044
1.780E-06,0.068
1.790E-06,0.060
1.800E-06,0.028
1.810E-06,0.000
1.820E-06,0.000
1.830E-06,0.028
1.840E-06,0.060
1.850E-06,0.088
1.860E-06,0.088
1.870E-06,0.072
1.880E-06,0.044
1.890E-06,0.044
1.900E-06,0.056
1.910E-06,0.088
1.920E-06,0.096
1.930E-06,0.108
1.940E-06,0.108
1.950E-06,0.104
1.960E-06,0.092
1.970E-06,0.096
1.980E-06,0.120
1.990E-06,0.136
2.000E-06,0.144
2.010E-06,0.144
2.020E-06,0.144
2.030E-06,0.132
2.040E-06,0.124
2.050E-06,0.088
2.060E-06,0.056
2.070E-06,0.040
2.080E-06,0.056
2.090E-06,0.080
2.100E-06,0.084
2.110E-06,0.044
2.120E-06,-0.116
2.130E-06,-0.304
2.140E-06,-0.492
2.150E-06,-0.428
2.160E-06,-0.208
2.170E-06,0.132
2.180E-06,0.320
2.190E-06,0.292
2.200E-06,-0.048
2.210E-06,-0.444
2.220E-06,-0.512
2.230E-06,-0.512
2.240E-06,-0.332
2.250E-06,0.008
2.260E-06,0.268
2.270E-06,0.208
2.280E-06,0.000
2.290E-06,-0.180
2.300E-06,-0.292
2.310E-06,-0.188
2.320E-06,-0.012
2.330E-06,0.120
2.340E-06,0.188
2.350E-06,0.176
2.360E-06,0.096
2.370E-06,0.036
2.380E-06,-0.004
2.390E-06,-0.028
2.400E-06,-0.008
2.410E-06,0.048
2.420E-06,0.092
2.430E-06,0.100
2.440E-06,0.084
2.450E-06,-0.004
2.460E-06,-0.056
2.470E-06,-0.056
2.480E-06,-0.020
2.490E-06,0.040
2.500E-06,0.100
2.510E-06,0.092
2.520E-06,0.060
2.530E-06,0.024
2.540E-06,0.004
2.550E-06,0.004
2.560E-06,0.048
2.570E-06,0.104
2.580E-06,0.148
2.590E-06,0.168
2.600E-06,0.164
2.610E-06,0.144
2.620E-06,0.104
2.630E-06,0.092
2.640E-06,0.104
2.650E-06,0.140
2.660E-06,0.168
2.670E-06,0.176
2.680E-06,0.168
2.690E-06,0.140
2.700E-06,0.124
2.710E-06,0.112
2.720E-06,0.120
2.730E-06,0.136
2.740E-06,0.144
2.750E-06,0.156
2.760E-06,0.148
2.770E-06,0.144
2.780E-06,0.128
2.790E-06,0.124
2.800E-06,0.128
2.810E-06,0.136
2.820E-06,0.144
2.830E-06,0.156
2.840E-06,0.144
2.850E-06,0.144
2.860E-06,0.132
2.870E-06,0.128
2.880E-06,0.128
2.890E-06,0.140
2.900E-06,0.152
2.910E-06,0.164
2.920E-06,0.156
2.930E-06,0.148
2.940E-06,0.136
2.950E-06,0.136
2.960E-06,0.136
2.970E-06,0.140
2.980E-06,0.144
2.990E-06,0.132
3.000E-06,0.108
3.010E-06,0.048
3.020E-06,-0.008
3.030E-06,-0.076
3.040E-06,-0.132
3.050E-06,-0.080
3.060E-06,-0.008
3.070E-06,0.004
3.080E-06,-0.024
3.090E-06,-0.160
3.100E-06,-0.280
3.110E-06,-0.340
3.120E-06,-0.336
3.130E-06,-0.224
3.140E-06,-0.096
3.150E-06,0.024
3.160E-06,0.076
3.170E-06,0.036
3.180E-06,-0.004
3.190E-06,0.004
3.200E-06,0.068
3.210E-06,0.168
3.220E-06,0.256
3.230E-06,0.260
3.240E-06,0.204
3.250E-06,0.100
3.260E-06,0.012
3.270E-06,-0.036
3.280E-06,-0.028
3.290E-06,0.008
3.300E-06,0.032
3.310E-06,0.036
3.320E-06,0.016
3.330E-06,0.004
3.340E-06,0.024
3.350E-06,0.024
3.360E-06,0.044
3.370E-06,0.056
3.380E-06,0.028
3.390E-06,-0.012
3.400E-06,-0.032
3.410E-06,-0.052
3.420E-06,-0.064
3.430E-06,-0.060
3.440E-06,-0.052
3.450E-06,-0.028
3.460E-06,-0.012
3.470E-06,0.012
3.480E-06,0.036
3.490E-06,0.044
3.500E-06,0.044
3.510E-06,0.064
3.520E-06,0.092
3.530E-06,0.116
3.540E-06,0.140
3.550E-06,0.156
3.560E-06,0.168
3.570E-06,0.176
3.580E-06,0.176
3.590E-06,0.176
3.600E-06,0.184
3.610E-06,0.180
3.620E-06,0.172
3.630E-06,0.176
3.640E-06,0.164
3.650E-06,0.164
3.660E-06,0.168
3.670E-06,0.160
3.680E-06,0.156
3.690E-06,0.160
3.700E-06,0.156
3.710E-06,0.160
3.720E-06,0.164
3.730E-06,0.168
3.740E-06,0.168
3.750E-06,0.164
3.760E-06,0.164
3.770E-06,0.168
3.780E-06,0.168
3.790E-06,0.164
3.800E-06,0.168
3.810E-06,0.164
3.820E-06,0.164
3.830E-06,0.160
3.840E-06,0.156
3.850E-06,0.160
3.860E-06,0.152
3.870E-06,0.152
3.880E-06,0.156
3.890E-06,0.156
3.900E-06,0.160
3.910E-06,0.164
3.920E-06,0.160
3.930E-06,0.164
3.940E-06,0.156
3.950E-06,0.152
3.960E-06,0.156
3.970E-06,0.148
3.980E-06,0.148
3.990E-06,0.148
4.000E-06,0.140
4.010E-06,0.140
4.020E-06,0.144
4.030E-06,0.148
4.040E-06,0.148
4.050E-06,0.152
4.060E-06,0.148
4.070E-06,0.152
4.080E-06,0.148
4.090E-06,0.156
4.100E-06,0.156
4.110E-06,0.160
4.120E-06,0.160
4.130E-06,0.164
4.140E-06,0.160
4.150E-06,0.152
4.160E-06,0.156
4.170E-06,0.152
4.180E-06,0.156
4.190E-06,0.152
4.200E-06,0.156
4.210E-06,0.160
4.220E-06,0.160
4.230E-06,0.160
4.240E-06,0.160
4.250E-06,0.152
4.260E-06,0.156
4.270E-06,0.160
4.280E-06,0.156
4.290E-06,0.156
4.300E-06,0.156
4.310E-06,0.160
4.320E-06,0.152
4.330E-06,0.152
4.340E-06,0.152
4.350E-06,0.152
4.360E-06,0.148
4.370E-06,0.148
4.380E-06,0.152
4.390E-06,0.152
4.400E-06,0.144
4.410E-06,0.140
4.420E-06,0.148
4.430E-06,0.156
4.440E-06,0.156
4.450E-06,0.148
4.460E-06,0.152
4.470E-06,0.148
4.480E-06,0.148
4.490E-06,0.144
4.500E-06,0.148
4.510E-06,0.148
4.520E-06,0.152
4.530E-06,0.152
4.540E-06,0.148
4.550E-06,0.144
4.560E-06,0.144
4.570E-06,0.144
4.580E-06,0.148
4.590E-06,0.156
4.600E-06,0.144
4.610E-06,0.148
4.620E-06,0.144
4.630E-06,0.140
4.640E-06,0.144
4.650E-06,0.148
4.660E-06,0.148
4.670E-06,0.140
4.680E-06,0.144
4.690E-06,0.144
4.700E-06,0.144
4.710E-06,0.144
4.720E-06,0.140
4.730E-06,0.144
4.740E-06,0.140
4.750E-06,0.144
4.760E-06,0.140
4.770E-06,0.144
4.780E-06,0.144
4.790E-06,0.144
4.800E-06,0.140
4.810E-06,0.144
4.820E-06,0.144
4.830E-06,0.140
4.840E-06,0.140
4.850E-06,0.140
4.860E-06,0.136
4.870E-06,0.140
4.880E-06,0.144
4.890E-06,0.144
4.900E-06,0.136
4.910E-06,0.136
4.920E-06,0.140
4.930E-06,0.136
4.940E-06,0.136
4.950E-06,0.140
4.960E-06,0.140
4.970E-06,0.136
4.980E-06,0.136
4.990E-06,0.136
5.000E-06,0.136
5.010E-06,0.132
5.020E-06,0.132
5.030E-06,0.136
5.040E-06,0.136
5.050E-06,0.136
5.060E-06,0.136
5.070E-06,0.136
5.080E-06,0.128
5.090E-06,0.136
5.100E-06,0.132
5.110E-06,0.132
5.120E-06,0.132
5.130E-06,0.128
5.140E-06,0.128
5.150E-06,0.128
5.160E-06,0.128
5.170E-06,0.132
5.180E-06,0.132
5.190E-06,0.128
5.200E-06,0.128
5.210E-06,0.128
5.220E-06,0.128
5.230E-06,0.128
5.240E-06,0.128
5.250E-06,0.128
5.260E-06,0.132
5.270E-06,0.124
5.280E-06,0.124
5.290E-06,0.128
5.300E-06,0.132
5.310E-06,0.132
5.320E-06,0.132
5.330E-06,0.132
5.340E-06,0.128
5.350E-06,0.124
5.360E-06,0.124
5.370E-06,0.124
5.380E-06,0.124
5.390E-06,0.124
5.400E-06,0.128
5.410E-06,0.128
5.420E-06,0.124
5.430E-06,0.120
5.440E-06,0.116
5.450E-06,0.112
5.460E-06,0.112
5.470E-06,0.112
5.480E-06,0.128
5.490E-06,0.128
5.500E-06,0.124
5.510E-06,0.116
5.520E-06,0.112
5.530E-06,0.108
5.540E-06,0.116
5.550E-06,0.120
5.560E-06,0.124
5.570E-06,0.120
5.580E-06,0.112
5.590E-06,0.112
5.600E-06,0.108
5.610E-06,0.112
5.620E-06,0.124
5.630E-06,0.124
5.640E-06,0.124
5.650E-06,0.124
5.660E-06,0.120
5.670E-06,0.116
5.680E-06,0.116
5.690E-06,0.124
5.700E-06,0.124
5.710E-06,0.120
5.720E-06,0.116
5.730E-06,0.120
5.740E-06,0.120
5.750E-06,0.120
5.760E-06,0.120
5.770E-06,0.112
5.780E-06,0.112
5.790E-06,0.108
5.800E-06,0.112
5.810E-06,0.112
5.820E-06,0.108
5.830E-06,0.112
5.840E-06,0.104
5.850E-06,0.108
5.860E-06,0.108
5.870E-06,0.108
5.880E-06,0.108
5.890E-06,0.108
5.900E-06,0.104
5.910E-06,0.100
5.920E-06,0.108
5.930E-06,0.108
5.940E-06,0.104
5.950E-06,0.108
5.960E-06,0.108
5.970E-06,0.096
5.980E-06,0.100
5.990E-06,0.096
6.000E-06,0.096
6.010E-06,0.104
6.020E-06,0.100
6.030E-06,0.104
6.040E-06,0.104
6.050E-06,0.104
6.060E-06,0.096
6.070E-06,0.092
6.080E-06,0.092
6.090E-06,0.092
6.100E-06,0.096
6.110E-06,0.092
6.120E-06,0.100
6.130E-06,0.096
6.140E-06,0.096
6.150E-06,0.100
6.160E-06,0.100
6.170E-06,0.096
6.180E-06,0.096
6.190E-06,0.088
6.200E-06,0.092
6.210E-06,0.092
6.220E-06,0.092
6.230E-06,0.088
6.240E-06,0.096
6.250E-06,0.096
6.260E-06,0.096
6.270E-06,0.100
6.280E-06,0.096
