mediciones/5-27/-55/WaveData50266.csv

#timebase=2000000(ps)
,#voltbase=100000(mv/100)
#size=4000
-8.400E-06,0.012
-8.390E-06,0.020
-8.380E-06,0.016
-8.370E-06,0.012
-8.360E-06,-0.008
-8.350E-06,0.000
-8.340E-06,0.000
-8.330E-06,0.004
-8.320E-06,0.012
-8.310E-06,0.016
-8.300E-06,0.012
-8.290E-06,0.012
-8.280E-06,0.004
-8.270E-06,0.000
-8.260E-06,0.000
-8.250E-06,-0.008
-8.240E-06,0.000
-8.230E-06,0.000
-8.220E-06,0.004
-8.210E-06,0.012
-8.200E-06,0.008
-8.190E-06,-0.004
-8.180E-06,-0.012
-8.170E-06,0.000
-8.160E-06,0.004
-8.150E-06,0.012
-8.140E-06,0.008
-8.130E-06,0.012
-8.120E-06,0.000
-8.110E-06,0.000
-8.100E-06,-0.004
-8.090E-06,0.000
-8.080E-06,0.000
-8.070E-06,0.008
-8.060E-06,0.004
-8.050E-06,0.004
-8.040E-06,0.004
-8.030E-06,0.004
-8.020E-06,0.004
-8.010E-06,0.004
-8.000E-06,-0.004
-7.990E-06,0.000
-7.980E-06,-0.004
-7.970E-06,0.000
-7.960E-06,0.008
-7.950E-06,0.008
-7.940E-06,0.012
-7.930E-06,0.008
-7.920E-06,0.004
-7.910E-06,0.000
-7.900E-06,0.004
-7.890E-06,0.004
-7.880E-06,0.008
-7.870E-06,0.012
-7.860E-06,0.008
-7.850E-06,-0.008
-7.840E-06,-0.012
-7.830E-06,-0.008
-7.820E-06,-0.004
-7.810E-06,0.024
-7.800E-06,0.020
-7.790E-06,0.016
-7.780E-06,-0.004
-7.770E-06,-0.028
-7.760E-06,-0.028
-7.750E-06,-0.008
-7.740E-06,0.020
-7.730E-06,0.036
-7.720E-06,0.020
-7.710E-06,-0.008
-7.700E-06,-0.032
-7.690E-06,-0.020
-7.680E-06,0.016
-7.670E-06,0.032
-7.660E-06,0.040
-7.650E-06,-0.004
-7.640E-06,-0.036
-7.630E-06,-0.056
-7.620E-06,-0.020
-7.610E-06,0.028
-7.600E-06,0.060
-7.590E-06,0.056
-7.580E-06,0.004
-7.570E-06,-0.040
-7.560E-06,-0.060
-7.550E-06,-0.020
-7.540E-06,0.028
-7.530E-06,0.044
-7.520E-06,0.032
-7.510E-06,0.000
-7.500E-06,-0.032
-7.490E-06,-0.032
-7.480E-06,0.000
-7.470E-06,0.020
-7.460E-06,0.032
-7.450E-06,0.008
-7.440E-06,-0.004
-7.430E-06,-0.024
-7.420E-06,-0.008
-7.410E-06,0.008
-7.400E-06,0.028
-7.390E-06,0.024
-7.380E-06,0.004
-7.370E-06,-0.008
-7.360E-06,-0.012
-7.350E-06,-0.008
-7.340E-06,0.004
-7.330E-06,0.016
-7.320E-06,0.020
-7.310E-06,0.004
-7.300E-06,-0.004
-7.290E-06,-0.008
-7.280E-06,0.000
-7.270E-06,0.008
-7.260E-06,0.016
-7.250E-06,0.008
-7.240E-06,0.000
-7.230E-06,0.000
-7.220E-06,0.008
-7.210E-06,0.012
-7.200E-06,0.012
-7.190E-06,0.000
-7.180E-06,0.000
-7.170E-06,-0.004
-7.160E-06,0.000
-7.150E-06,0.004
-7.140E-06,0.012
-7.130E-06,0.012
-7.120E-06,0.012
-7.110E-06,0.004
-7.100E-06,-0.004
-7.090E-06,-0.004
-7.080E-06,0.004
-7.070E-06,0.016
-7.060E-06,0.012
-7.050E-06,0.012
-7.040E-06,0.004
-7.030E-06,-0.008
-7.020E-06,-0.008
-7.010E-06,0.000
-7.000E-06,0.004
-6.990E-06,0.012
-6.980E-06,0.012
-6.970E-06,0.008
-6.960E-06,0.004
-6.950E-06,0.008
-6.940E-06,0.012
-6.930E-06,0.016
-6.920E-06,0.012
-6.910E-06,0.008
-6.900E-06,0.000
-6.890E-06,-0.004
-6.880E-06,-0.008
-6.870E-06,-0.004
-6.860E-06,0.012
-6.850E-06,0.024
-6.840E-06,0.028
-6.830E-06,0.028
-6.820E-06,0.008
-6.810E-06,0.000
-6.800E-06,0.000
-6.790E-06,0.000
-6.780E-06,0.004
-6.770E-06,0.020
-6.760E-06,0.016
-6.750E-06,0.020
-6.740E-06,-0.008
-6.730E-06,-0.040
-6.720E-06,-0.056
-6.710E-06,-0.048
-6.700E-06,-0.008
-6.690E-06,0.036
-6.680E-06,0.076
-6.670E-06,0.060
-6.660E-06,0.012
-6.650E-06,-0.040
-6.640E-06,-0.076
-6.630E-06,-0.048
-6.620E-06,0.012
-6.610E-06,0.064
-6.600E-06,0.064
-6.590E-06,0.024
-6.580E-06,-0.036
-6.570E-06,-0.048
-6.560E-06,-0.028
-6.550E-06,0.012
-6.540E-06,0.044
-6.530E-06,0.048
-6.520E-06,0.008
-6.510E-06,-0.024
-6.500E-06,-0.036
-6.490E-06,-0.012
-6.480E-06,0.012
-6.470E-06,0.032
-6.460E-06,0.032
-6.450E-06,0.008
-6.440E-06,-0.008
-6.430E-06,-0.016
-6.420E-06,-0.008
-6.410E-06,0.008
-6.400E-06,0.012
-6.390E-06,0.012
-6.380E-06,0.000
-6.370E-06,0.004
-6.360E-06,0.004
-6.350E-06,0.012
-6.340E-06,0.012
-6.330E-06,0.004
-6.320E-06,0.004
-6.310E-06,0.004
-6.300E-06,0.000
-6.290E-06,0.012
-6.280E-06,0.012
-6.270E-06,0.008
-6.260E-06,0.000
-6.250E-06,0.000
-6.240E-06,-0.004
-6.230E-06,-0.004
-6.220E-06,0.008
-6.210E-06,0.012
-6.200E-06,0.020
-6.190E-06,0.012
-6.180E-06,0.000
-6.170E-06,-0.004
-6.160E-06,-0.008
-6.150E-06,-0.004
-6.140E-06,0.004
-6.130E-06,0.016
-6.120E-06,0.028
-6.110E-06,0.012
-6.100E-06,0.008
-6.090E-06,-0.012
-6.080E-06,0.000
-6.070E-06,-0.004
-6.060E-06,0.012
-6.050E-06,0.012
-6.040E-06,0.016
-6.030E-06,0.008
-6.020E-06,0.000
-6.010E-06,0.000
-6.000E-06,0.000
-5.990E-06,0.004
-5.980E-06,0.012
-5.970E-06,0.008
-5.960E-06,0.020
-5.950E-06,0.012
-5.940E-06,0.008
-5.930E-06,-0.004
-5.920E-06,-0.040
-5.910E-06,-0.040
-5.900E-06,-0.032
-5.890E-06,0.000
-5.880E-06,0.048
-5.870E-06,0.060
-5.860E-06,0.028
-5.850E-06,-0.008
-5.840E-06,-0.048
-5.830E-06,-0.056
-5.820E-06,-0.012
-5.810E-06,0.040
-5.800E-06,0.056
-5.790E-06,0.032
-5.780E-06,-0.012
-5.770E-06,-0.036
-5.760E-06,-0.036
-5.750E-06,-0.004
-5.740E-06,0.020
-5.730E-06,0.036
-5.720E-06,0.012
-5.710E-06,-0.008
-5.700E-06,-0.016
-5.690E-06,-0.004
-5.680E-06,0.004
-5.670E-06,0.016
-5.660E-06,0.008
-5.650E-06,0.000
-5.640E-06,-0.004
-5.630E-06,0.004
-5.620E-06,0.012
-5.610E-06,0.008
-5.600E-06,0.000
-5.590E-06,-0.004
-5.580E-06,-0.004
-5.570E-06,0.008
-5.560E-06,0.008
-5.550E-06,0.016
-5.540E-06,0.012
-5.530E-06,0.004
-5.520E-06,-0.008
-5.510E-06,-0.004
-5.500E-06,0.000
-5.490E-06,0.012
-5.480E-06,0.012
-5.470E-06,0.012
-5.460E-06,0.004
-5.450E-06,-0.004
-5.440E-06,-0.008
-5.430E-06,-0.008
-5.420E-06,-0.004
-5.410E-06,0.008
-5.400E-06,0.012
-5.390E-06,0.012
-5.380E-06,0.004
-5.370E-06,0.000
-5.360E-06,-0.008
-5.350E-06,-0.008
-5.340E-06,-0.008
-5.330E-06,0.000
-5.320E-06,0.016
-5.310E-06,0.028
-5.300E-06,0.016
-5.290E-06,0.000
-5.280E-06,0.000
-5.270E-06,-0.008
-5.260E-06,0.004
-5.250E-06,0.000
-5.240E-06,0.004
-5.230E-06,0.012
-5.220E-06,0.000
-5.210E-06,-0.004
-5.200E-06,-0.004
-5.190E-06,0.000
-5.180E-06,0.008
-5.170E-06,0.012
-5.160E-06,0.008
-5.150E-06,0.012
-5.140E-06,0.012
-5.130E-06,-0.008
-5.120E-06,-0.004
-5.110E-06,-0.004
-5.100E-06,0.000
-5.090E-06,-0.004
-5.080E-06,0.000
-5.070E-06,0.000
-5.060E-06,0.004
-5.050E-06,0.008
-5.040E-06,0.012
-5.030E-06,0.000
-5.020E-06,-0.004
-5.010E-06,0.004
-5.000E-06,0.004
-4.990E-06,0.008
-4.980E-06,0.008
-4.970E-06,0.008
-4.960E-06,0.004
-4.950E-06,0.012
-4.940E-06,0.016
-4.930E-06,-0.012
-4.920E-06,-0.004
-4.910E-06,-0.020
-4.900E-06,-0.008
-4.890E-06,0.008
-4.880E-06,0.020
-4.870E-06,0.012
-4.860E-06,0.008
-4.850E-06,-0.008
-4.840E-06,-0.020
-4.830E-06,-0.008
-4.820E-06,0.012
-4.810E-06,0.020
-4.800E-06,0.012
-4.790E-06,0.000
-4.780E-06,-0.008
-4.770E-06,-0.008
-4.760E-06,0.000
-4.750E-06,0.012
-4.740E-06,0.008
-4.730E-06,0.008
-4.720E-06,-0.004
-4.710E-06,-0.008
-4.700E-06,-0.008
-4.690E-06,0.004
-4.680E-06,0.012
-4.670E-06,0.012
-4.660E-06,0.008
-4.650E-06,-0.004
-4.640E-06,-0.004
-4.630E-06,0.000
-4.620E-06,0.008
-4.610E-06,0.008
-4.600E-06,0.008
-4.590E-06,0.008
-4.580E-06,0.000
-4.570E-06,0.000
-4.560E-06,0.000
-4.550E-06,0.004
-4.540E-06,0.008
-4.530E-06,0.008
-4.520E-06,0.004
-4.510E-06,-0.004
-4.500E-06,0.000
-4.490E-06,0.000
-4.480E-06,0.000
-4.470E-06,-0.004
-4.460E-06,0.000
-4.450E-06,0.000
-4.440E-06,0.004
-4.430E-06,0.004
-4.420E-06,0.004
-4.410E-06,0.000
-4.400E-06,0.000
-4.390E-06,0.000
-4.380E-06,0.000
-4.370E-06,0.000
-4.360E-06,0.000
-4.350E-06,0.008
-4.340E-06,0.008
-4.330E-06,0.008
-4.320E-06,0.008
-4.310E-06,0.008
-4.300E-06,0.008
-4.290E-06,0.008
-4.280E-06,0.008
-4.270E-06,0.004
-4.260E-06,0.000
-4.250E-06,0.004
-4.240E-06,0.000
-4.230E-06,-0.004
-4.220E-06,-0.004
-4.210E-06,-0.004
-4.200E-06,0.000
-4.190E-06,0.000
-4.180E-06,0.008
-4.170E-06,0.004
-4.160E-06,0.000
-4.150E-06,-0.004
-4.140E-06,-0.004
-4.130E-06,0.000
-4.120E-06,0.012
-4.110E-06,0.020
-4.100E-06,0.008
-4.090E-06,0.008
-4.080E-06,0.008
-4.070E-06,0.016
-4.060E-06,0.004
-4.050E-06,-0.012
-4.040E-06,-0.008
-4.030E-06,-0.004
-4.020E-06,0.008
-4.010E-06,0.020
-4.000E-06,0.028
-3.990E-06,-0.004
-3.980E-06,-0.028
-3.970E-06,-0.052
-3.960E-06,-0.036
-3.950E-06,0.012
-3.940E-06,0.052
-3.930E-06,0.044
-3.920E-06,0.008
-3.910E-06,-0.024
-3.900E-06,-0.044
-3.890E-06,-0.016
-3.880E-06,0.016
-3.870E-06,0.044
-3.860E-06,0.032
-3.850E-06,0.004
-3.840E-06,-0.020
-3.830E-06,-0.028
-3.820E-06,-0.008
-3.810E-06,0.024
-3.800E-06,0.040
-3.790E-06,0.028
-3.780E-06,0.000
-3.770E-06,-0.020
-3.760E-06,-0.020
-3.750E-06,-0.008
-3.740E-06,0.020
-3.730E-06,0.024
-3.720E-06,0.024
-3.710E-06,0.008
-3.700E-06,-0.008
-3.690E-06,-0.012
-3.680E-06,-0.004
-3.670E-06,0.008
-3.660E-06,0.024
-3.650E-06,0.020
-3.640E-06,0.016
-3.630E-06,0.000
-3.620E-06,-0.004
-3.610E-06,-0.004
-3.600E-06,-0.004
-3.590E-06,0.004
-3.580E-06,0.012
-3.570E-06,0.020
-3.560E-06,0.012
-3.550E-06,0.012
-3.540E-06,0.008
-3.530E-06,0.000
-3.520E-06,0.000
-3.510E-06,0.000
-3.500E-06,0.004
-3.490E-06,0.012
-3.480E-06,0.016
-3.470E-06,0.008
-3.460E-06,0.012
-3.450E-06,0.004
-3.440E-06,0.000
-3.430E-06,-0.004
-3.420E-06,-0.004
-3.410E-06,-0.004
-3.400E-06,0.004
-3.390E-06,0.008
-3.380E-06,0.008
-3.370E-06,0.008
-3.360E-06,0.008
-3.350E-06,0.000
-3.340E-06,0.000
-3.330E-06,-0.008
-3.320E-06,0.000
-3.310E-06,0.000
-3.300E-06,0.004
-3.290E-06,0.008
-3.280E-06,0.016
-3.270E-06,0.012
-3.260E-06,0.008
-3.250E-06,-0.008
-3.240E-06,-0.012
-3.230E-06,-0.012
-3.220E-06,0.004
-3.210E-06,0.004
-3.200E-06,0.000
-3.190E-06,-0.012
-3.180E-06,-0.036
-3.170E-06,-0.044
-3.160E-06,-0.024
-3.150E-06,0.004
-3.140E-06,0.032
-3.130E-06,0.040
-3.120E-06,0.020
-3.110E-06,-0.008
-3.100E-06,-0.024
-3.090E-06,-0.020
-3.080E-06,-0.004
-3.070E-06,0.020
-3.060E-06,0.028
-3.050E-06,0.024
-3.040E-06,0.016
-3.030E-06,-0.004
-3.020E-06,-0.004
-3.010E-06,0.008
-3.000E-06,0.012
-2.990E-06,0.016
-2.980E-06,0.012
-2.970E-06,0.000
-2.960E-06,0.000
-2.950E-06,0.004
-2.940E-06,0.012
-2.930E-06,0.016
-2.920E-06,0.016
-2.910E-06,0.008
-2.900E-06,0.000
-2.890E-06,0.008
-2.880E-06,0.020
-2.870E-06,0.020
-2.860E-06,0.024
-2.850E-06,0.024
-2.840E-06,0.008
-2.830E-06,0.000
-2.820E-06,0.008
-2.810E-06,0.024
-2.800E-06,0.032
-2.790E-06,0.040
-2.780E-06,0.036
-2.770E-06,0.040
-2.760E-06,0.032
-2.750E-06,0.036
-2.740E-06,0.024
-2.730E-06,0.012
-2.720E-06,0.016
-2.710E-06,0.004
-2.700E-06,0.016
-2.690E-06,-0.004
-2.680E-06,0.012
-2.670E-06,0.000
-2.660E-06,0.036
-2.650E-06,0.024
-2.640E-06,0.048
-2.630E-06,0.024
-2.620E-06,0.032
-2.610E-06,0.024
-2.600E-06,0.036
-2.590E-06,0.036
-2.580E-06,0.040
-2.570E-06,0.036
-2.560E-06,0.028
-2.550E-06,0.032
-2.540E-06,0.048
-2.530E-06,0.060
-2.520E-06,0.060
-2.510E-06,0.024
-2.500E-06,-0.032
-2.490E-06,-0.080
-2.480E-06,-0.100
-2.470E-06,-0.092
-2.460E-06,-0.068
-2.450E-06,-0.048
-2.440E-06,-0.036
-2.430E-06,-0.032
-2.420E-06,-0.004
-2.410E-06,0.004
-2.400E-06,0.024
-2.390E-06,0.032
-2.380E-06,0.044
-2.370E-06,0.032
-2.360E-06,0.020
-2.350E-06,0.004
-2.340E-06,0.020
-2.330E-06,0.028
-2.320E-06,0.016
-2.310E-06,-0.044
-2.300E-06,-0.104
-2.290E-06,-0.140
-2.280E-06,-0.084
-2.270E-06,-0.012
-2.260E-06,0.060
-2.250E-06,0.096
-2.240E-06,0.076
-2.230E-06,0.028
-2.220E-06,-0.032
-2.210E-06,-0.068
-2.200E-06,-0.064
-2.190E-06,-0.020
-2.180E-06,0.004
-2.170E-06,-0.004
-2.160E-06,-0.008
-2.150E-06,-0.028
-2.140E-06,-0.004
-2.130E-06,0.032
-2.120E-06,0.016
-2.110E-06,0.000
-2.100E-06,-0.008
-2.090E-06,-0.032
-2.080E-06,-0.020
-2.070E-06,-0.004
-2.060E-06,0.020
-2.050E-06,0.036
-2.040E-06,0.036
-2.030E-06,-0.004
-2.020E-06,-0.048
-2.010E-06,-0.072
-2.000E-06,-0.048
-1.990E-06,-0.004
-1.980E-06,0.040
-1.970E-06,0.040
-1.960E-06,0.024
-1.950E-06,-0.012
-1.940E-06,-0.020
-1.930E-06,-0.012
-1.920E-06,0.016
-1.910E-06,0.032
-1.900E-06,0.040
-1.890E-06,0.028
-1.880E-06,0.016
-1.870E-06,0.008
-1.860E-06,0.012
-1.850E-06,0.020
-1.840E-06,0.036
-1.830E-06,0.044
-1.820E-06,0.044
-1.810E-06,0.032
-1.800E-06,0.028
-1.790E-06,0.028
-1.780E-06,0.028
-1.770E-06,0.028
-1.760E-06,0.032
-1.750E-06,0.032
-1.740E-06,0.032
-1.730E-06,0.036
-1.720E-06,0.020
-1.710E-06,0.024
-1.700E-06,0.012
-1.690E-06,0.008
-1.680E-06,0.028
-1.670E-06,0.044
-1.660E-06,0.056
-1.650E-06,0.060
-1.640E-06,0.052
-1.630E-06,0.056
-1.620E-06,0.056
-1.610E-06,0.072
-1.600E-06,0.100
-1.590E-06,0.120
-1.580E-06,0.120
-1.570E-06,0.104
-1.560E-06,0.092
-1.550E-06,0.064
-1.540E-06,0.052
-1.530E-06,0.040
-1.520E-06,0.024
-1.510E-06,0.024
-1.500E-06,0.004
-1.490E-06,0.032
-1.480E-06,0.028
-1.470E-06,0.020
-1.460E-06,0.012
-1.450E-06,-0.028
-1.440E-06,-0.036
-1.430E-06,-0.028
-1.420E-06,0.032
-1.410E-06,0.028
-1.400E-06,-0.040
-1.390E-06,-0.200
-1.380E-06,-0.288
-1.370E-06,-0.292
-1.360E-06,-0.228
-1.350E-06,-0.024
-1.340E-06,0.120
-1.330E-06,0.252
-1.320E-06,0.204
-1.310E-06,0.076
-1.300E-06,-0.072
-1.290E-06,-0.136
-1.280E-06,-0.164
-1.270E-06,-0.136
-1.260E-06,-0.156
-1.250E-06,-0.132
-1.240E-06,-0.004
-1.230E-06,0.096
-1.220E-06,0.156
-1.210E-06,0.112
-1.200E-06,0.044
-1.190E-06,-0.056
-1.180E-06,-0.068
-1.170E-06,-0.024
-1.160E-06,0.080
-1.150E-06,0.136
-1.140E-06,0.112
-1.130E-06,0.044
-1.120E-06,-0.020
-1.110E-06,-0.008
-1.100E-06,0.024
-1.090E-06,0.096
-1.080E-06,0.080
-1.070E-06,0.044
-1.060E-06,-0.028
-1.050E-06,-0.128
-1.040E-06,-0.204
-1.030E-06,-0.204
-1.020E-06,-0.140
-1.010E-06,-0.044
-1.000E-06,0.080
-9.900E-07,0.148
-9.800E-07,0.108
-9.700E-07,0.044
-9.600E-07,-0.008
-9.500E-07,-0.044
-9.400E-07,-0.036
-9.300E-07,0.004
-9.200E-07,0.028
-9.100E-07,0.040
-9.000E-07,0.064
-8.900E-07,0.016
-8.800E-07,0.016
-8.700E-07,0.020
-8.600E-07,0.052
-8.500E-07,0.096
-8.400E-07,0.132
-8.300E-07,0.096
-8.200E-07,-0.008
-8.100E-07,-0.132
-8.000E-07,-0.240
-7.900E-07,-0.240
-7.800E-07,-0.156
-7.700E-07,-0.028
-7.600E-07,0.104
-7.500E-07,0.160
-7.400E-07,0.128
-7.300E-07,0.024
-7.200E-07,-0.072
-7.100E-07,-0.140
-7.000E-07,-0.104
-6.900E-07,-0.008
-6.800E-07,0.076
-6.700E-07,0.100
-6.600E-07,0.052
-6.500E-07,-0.024
-6.400E-07,-0.072
-6.300E-07,-0.076
-6.200E-07,-0.020
-6.100E-07,0.052
-6.000E-07,0.084
-5.900E-07,0.064
-5.800E-07,0.028
-5.700E-07,-0.020
-5.600E-07,-0.036
-5.500E-07,-0.008
-5.400E-07,0.028
-5.300E-07,0.068
-5.200E-07,0.088
-5.100E-07,0.076
-5.000E-07,0.064
-4.900E-07,0.048
-4.800E-07,0.056
-4.700E-07,0.076
-4.600E-07,0.088
-4.500E-07,0.104
-4.400E-07,0.096
-4.300E-07,0.072
-4.200E-07,0.032
-4.100E-07,-0.008
-4.000E-07,-0.032
-3.900E-07,-0.036
-3.800E-07,0.000
-3.700E-07,0.024
-3.600E-07,0.048
-3.500E-07,0.028
-3.400E-07,0.012
-3.300E-07,-0.024
-3.200E-07,-0.028
-3.100E-07,-0.012
-3.000E-07,-0.008
-2.900E-07,-0.044
-2.800E-07,-0.108
-2.700E-07,-0.128
-2.600E-07,-0.124
-2.500E-07,-0.064
-2.400E-07,0.008
-2.300E-07,0.100
-2.200E-07,0.100
-2.100E-07,0.076
-2.000E-07,0.024
-1.900E-07,0.000
-1.800E-07,-0.028
-1.700E-07,0.008
-1.600E-07,0.012
-1.500E-07,0.036
-1.400E-07,0.052
-1.300E-07,0.080
-1.200E-07,0.068
-1.100E-07,0.048
-1.000E-07,0.016
-9.000E-08,-0.012
-8.000E-08,-0.040
-7.000E-08,-0.104
-6.000E-08,-0.232
-5.000E-08,-0.340
-4.000E-08,-0.384
-3.000E-08,-0.244
-2.000E-08,0.012
-1.000E-08,0.252
0.000E+00,0.308
1.000E-08,0.260
2.000E-08,0.012
3.000E-08,-0.228
4.000E-08,-0.260
5.000E-08,-0.116
6.000E-08,0.052
7.000E-08,0.176
8.000E-08,0.140
9.000E-08,0.024
1.000E-07,-0.076
1.100E-07,-0.120
1.200E-07,-0.088
1.300E-07,-0.004
1.400E-07,0.064
1.500E-07,0.076
1.600E-07,0.052
1.700E-07,-0.004
1.800E-07,-0.044
1.900E-07,-0.040
2.000E-07,-0.012
2.100E-07,0.028
2.200E-07,0.056
2.300E-07,0.052
2.400E-07,0.016
2.500E-07,-0.016
2.600E-07,-0.028
2.700E-07,-0.020
2.800E-07,0.000
2.900E-07,0.012
3.000E-07,0.024
3.100E-07,0.024
3.200E-07,0.012
3.300E-07,-0.012
3.400E-07,-0.028
3.500E-07,-0.032
3.600E-07,-0.004
3.700E-07,0.020
3.800E-07,0.044
3.900E-07,0.044
4.000E-07,0.020
4.100E-07,-0.004
4.200E-07,-0.028
4.300E-07,-0.036
4.400E-07,-0.016
4.500E-07,0.008
4.600E-07,0.028
4.700E-07,0.028
4.800E-07,0.024
4.900E-07,0.008
5.000E-07,-0.008
5.100E-07,-0.012
5.200E-07,-0.004
5.300E-07,0.012
5.400E-07,0.032
5.500E-07,0.028
5.600E-07,0.028
5.700E-07,0.016
5.800E-07,0.008
5.900E-07,0.004
6.000E-07,0.016
6.100E-07,0.024
6.200E-07,0.040
6.300E-07,0.044
6.400E-07,0.044
6.500E-07,0.056
6.600E-07,0.048
6.700E-07,0.048
6.800E-07,0.044
6.900E-07,0.032
7.000E-07,0.036
7.100E-07,0.040
7.200E-07,0.052
7.300E-07,0.064
7.400E-07,0.080
7.500E-07,0.080
7.600E-07,0.076
7.700E-07,0.068
7.800E-07,0.064
7.900E-07,0.072
8.000E-07,0.076
8.100E-07,0.072
8.200E-07,0.060
8.300E-07,0.052
8.400E-07,0.048
8.500E-07,0.044
8.600E-07,0.060
8.700E-07,0.068
8.800E-07,0.068
8.900E-07,0.076
9.000E-07,0.068
9.100E-07,0.064
9.200E-07,0.068
9.300E-07,0.092
9.400E-07,0.096
9.500E-07,0.096
9.600E-07,0.080
9.700E-07,0.044
9.800E-07,-0.012
9.900E-07,-0.068
1.000E-06,-0.140
1.010E-06,-0.212
1.020E-06,-0.240
1.030E-06,-0.192
1.040E-06,-0.108
1.050E-06,0.052
1.060E-06,0.120
1.070E-06,0.224
1.080E-06,0.132
1.090E-06,0.044
1.100E-06,-0.140
1.110E-06,-0.204
1.120E-06,-0.232
1.130E-06,-0.136
1.140E-06,0.016
1.150E-06,0.060
1.160E-06,0.084
1.170E-06,-0.008
1.180E-06,-0.104
1.190E-06,-0.136
1.200E-06,-0.104
1.210E-06,-0.008
1.220E-06,0.064
1.230E-06,0.108
1.240E-06,0.088
1.250E-06,0.036
1.260E-06,-0.024
1.270E-06,-0.036
1.280E-06,-0.036
1.290E-06,-0.008
1.300E-06,0.016
1.310E-06,0.040
1.320E-06,0.036
1.330E-06,0.040
1.340E-06,0.012
1.350E-06,0.008
1.360E-06,-0.004
1.370E-06,0.012
1.380E-06,0.044
1.390E-06,0.072
1.400E-06,0.088
1.410E-06,0.064
1.420E-06,0.048
1.430E-06,0.024
1.440E-06,0.024
1.450E-06,0.040
1.460E-06,0.076
1.470E-06,0.092
1.480E-06,0.096
1.490E-06,0.092
1.500E-06,0.076
1.510E-06,0.064
1.520E-06,0.072
1.530E-06,0.092
1.540E-06,0.116
1.550E-06,0.128
1.560E-06,0.136
1.570E-06,0.136
1.580E-06,0.132
1.590E-06,0.136
1.600E-06,0.136
1.610E-06,0.136
1.620E-06,0.136
1.630E-06,0.128
1.640E-06,0.120
1.650E-06,0.108
1.660E-06,0.092
1.670E-06,0.072
1.680E-06,0.044
1.690E-06,0.004
1.700E-06,-0.004
1.710E-06,0.020
1.720E-06,0.076
1.730E-06,0.144
1.740E-06,0.192
1.750E-06,0.156
1.760E-06,0.056
1.770E-06,-0.084
1.780E-06,-0.216
1.790E-06,-0.272
1.800E-06,-0.196
1.810E-06,-0.068
1.820E-06,0.088
1.830E-06,0.216
1.840E-06,0.236
1.850E-06,0.168
1.860E-06,0.020
1.870E-06,-0.068
1.880E-06,-0.092
1.890E-06,-0.028
1.900E-06,0.116
1.910E-06,0.232
1.920E-06,0.300
1.930E-06,0.240
1.940E-06,0.100
1.950E-06,-0.088
1.960E-06,-0.232
1.970E-06,-0.236
1.980E-06,-0.172
1.990E-06,-0.060
2.000E-06,-0.008
2.010E-06,-0.040
2.020E-06,-0.136
2.030E-06,-0.216
2.040E-06,-0.236
2.050E-06,-0.164
2.060E-06,-0.024
2.070E-06,0.084
2.080E-06,0.152
2.090E-06,0.124
2.100E-06,0.088
2.110E-06,0.056
2.120E-06,0.080
2.130E-06,0.144
2.140E-06,0.224
2.150E-06,0.264
2.160E-06,0.260
2.170E-06,0.196
2.180E-06,0.120
2.190E-06,0.060
2.200E-06,0.036
2.210E-06,0.072
2.220E-06,0.124
2.230E-06,0.160
2.240E-06,0.152
2.250E-06,0.108
2.260E-06,0.048
2.270E-06,-0.008
2.280E-06,-0.060
2.290E-06,-0.088
2.300E-06,-0.112
2.310E-06,-0.136
2.320E-06,-0.136
2.330E-06,-0.148
2.340E-06,-0.140
2.350E-06,-0.112
2.360E-06,-0.080
2.370E-06,-0.040
2.380E-06,-0.008
2.390E-06,0.024
2.400E-06,0.048
2.410E-06,0.040
2.420E-06,0.044
2.430E-06,0.036
2.440E-06,0.076
2.450E-06,0.104
2.460E-06,0.156
2.470E-06,0.196
2.480E-06,0.204
2.490E-06,0.200
2.500E-06,0.188
2.510E-06,0.160
2.520E-06,0.156
2.530E-06,0.152
2.540E-06,0.160
2.550E-06,0.156
2.560E-06,0.152
2.570E-06,0.140
2.580E-06,0.132
2.590E-06,0.128
2.600E-06,0.124
2.610E-06,0.124
2.620E-06,0.124
2.630E-06,0.120
2.640E-06,0.124
2.650E-06,0.128
2.660E-06,0.132
2.670E-06,0.140
2.680E-06,0.140
2.690E-06,0.144
2.700E-06,0.152
2.710E-06,0.164
2.720E-06,0.184
2.730E-06,0.192
2.740E-06,0.188
2.750E-06,0.172
2.760E-06,0.160
2.770E-06,0.140
2.780E-06,0.140
2.790E-06,0.156
2.800E-06,0.156
2.810E-06,0.160
2.820E-06,0.160
2.830E-06,0.148
2.840E-06,0.140
2.850E-06,0.140
2.860E-06,0.144
2.870E-06,0.152
2.880E-06,0.152
2.890E-06,0.156
2.900E-06,0.152
2.910E-06,0.140
2.920E-06,0.144
2.930E-06,0.148
2.940E-06,0.156
2.950E-06,0.160
2.960E-06,0.152
2.970E-06,0.136
2.980E-06,0.120
2.990E-06,0.108
3.000E-06,0.100
3.010E-06,0.096
3.020E-06,0.104
3.030E-06,0.108
3.040E-06,0.104
3.050E-06,0.096
3.060E-06,0.092
3.070E-06,0.096
3.080E-06,0.120
3.090E-06,0.140
3.100E-06,0.156
3.110E-06,0.156
3.120E-06,0.164
3.130E-06,0.176
3.140E-06,0.176
3.150E-06,0.172
3.160E-06,0.160
3.170E-06,0.156
3.180E-06,0.160
3.190E-06,0.160
3.200E-06,0.164
3.210E-06,0.172
3.220E-06,0.172
3.230E-06,0.172
3.240E-06,0.160
3.250E-06,0.152
3.260E-06,0.152
3.270E-06,0.156
3.280E-06,0.160
3.290E-06,0.168
3.300E-06,0.164
3.310E-06,0.160
