mediciones/5-27/-55/WaveData50288.csv

#timebase=2000000(ps)
,#voltbase=1000000(mv/100)
#size=4000
-5.650E-06,-0.160
-5.640E-06,-0.160
-5.630E-06,-0.160
-5.620E-06,-0.080
-5.610E-06,-0.040
-5.600E-06,0.000
-5.590E-06,0.000
-5.580E-06,0.000
-5.570E-06,0.040
-5.560E-06,0.080
-5.550E-06,0.040
-5.540E-06,0.040
-5.530E-06,0.120
-5.520E-06,0.080
-5.510E-06,0.120
-5.500E-06,0.040
-5.490E-06,0.080
-5.480E-06,0.040
-5.470E-06,0.040
-5.460E-06,0.040
-5.450E-06,0.000
-5.440E-06,0.000
-5.430E-06,-0.040
-5.420E-06,0.000
-5.410E-06,0.000
-5.400E-06,-0.040
-5.390E-06,0.160
-5.380E-06,0.160
-5.370E-06,0.200
-5.360E-06,0.240
-5.350E-06,0.200
-5.340E-06,0.280
-5.330E-06,0.320
-5.320E-06,0.440
-5.310E-06,0.480
-5.300E-06,0.480
-5.290E-06,0.360
-5.280E-06,0.160
-5.270E-06,0.160
-5.260E-06,0.240
-5.250E-06,0.360
-5.240E-06,0.440
-5.230E-06,0.320
-5.220E-06,0.120
-5.210E-06,0.040
-5.200E-06,-0.040
-5.190E-06,-0.040
-5.180E-06,0.080
-5.170E-06,0.200
-5.160E-06,0.120
-5.150E-06,0.040
-5.140E-06,-0.080
-5.130E-06,-0.160
-5.120E-06,-0.160
-5.110E-06,-0.120
-5.100E-06,-0.080
-5.090E-06,-0.120
-5.080E-06,-0.120
-5.070E-06,-0.240
-5.060E-06,-0.200
-5.050E-06,-0.280
-5.040E-06,-0.280
-5.030E-06,-0.200
-5.020E-06,-0.240
-5.010E-06,-0.200
-5.000E-06,-0.160
-4.990E-06,-0.160
-4.980E-06,-0.160
-4.970E-06,-0.120
-4.960E-06,-0.040
-4.950E-06,-0.040
-4.940E-06,0.000
-4.930E-06,-0.040
-4.920E-06,0.000
-4.910E-06,0.040
-4.900E-06,0.120
-4.890E-06,0.040
-4.880E-06,0.040
-4.870E-06,0.120
-4.860E-06,0.040
-4.850E-06,0.080
-4.840E-06,0.160
-4.830E-06,0.040
-4.820E-06,-0.040
-4.810E-06,-0.040
-4.800E-06,-0.040
-4.790E-06,-0.040
-4.780E-06,0.040
-4.770E-06,0.040
-4.760E-06,0.160
-4.750E-06,0.080
-4.740E-06,0.040
-4.730E-06,0.040
-4.720E-06,0.040
-4.710E-06,0.120
-4.700E-06,0.240
-4.690E-06,0.240
-4.680E-06,0.320
-4.670E-06,0.360
-4.660E-06,0.400
-4.650E-06,0.400
-4.640E-06,0.400
-4.630E-06,0.240
-4.620E-06,0.160
-4.610E-06,0.240
-4.600E-06,0.280
-4.590E-06,0.320
-4.580E-06,0.320
-4.570E-06,0.240
-4.560E-06,0.160
-4.550E-06,0.040
-4.540E-06,-0.040
-4.530E-06,0.000
-4.520E-06,0.080
-4.510E-06,0.080
-4.500E-06,0.040
-4.490E-06,0.000
-4.480E-06,-0.080
-4.470E-06,-0.160
-4.460E-06,-0.200
-4.450E-06,-0.160
-4.440E-06,-0.120
-4.430E-06,-0.160
-4.420E-06,-0.200
-4.410E-06,-0.240
-4.400E-06,-0.280
-4.390E-06,-0.240
-4.380E-06,-0.200
-4.370E-06,-0.160
-4.360E-06,-0.200
-4.350E-06,-0.120
-4.340E-06,-0.160
-4.330E-06,-0.160
-4.320E-06,-0.080
-4.310E-06,-0.040
-4.300E-06,0.000
-4.290E-06,0.000
-4.280E-06,-0.040
-4.270E-06,0.040
-4.260E-06,0.120
-4.250E-06,0.080
-4.240E-06,0.120
-4.230E-06,0.200
-4.220E-06,0.160
-4.210E-06,0.160
-4.200E-06,0.080
-4.190E-06,0.080
-4.180E-06,0.120
-4.170E-06,0.160
-4.160E-06,0.040
-4.150E-06,0.040
-4.140E-06,0.080
-4.130E-06,0.080
-4.120E-06,0.160
-4.110E-06,0.280
-4.100E-06,0.120
-4.090E-06,0.120
-4.080E-06,0.000
-4.070E-06,0.040
-4.060E-06,0.080
-4.050E-06,0.160
-4.040E-06,0.200
-4.030E-06,0.160
-4.020E-06,0.040
-4.010E-06,0.000
-4.000E-06,0.000
-3.990E-06,0.000
-3.980E-06,0.040
-3.970E-06,0.080
-3.960E-06,0.080
-3.950E-06,0.040
-3.940E-06,0.000
-3.930E-06,-0.040
-3.920E-06,0.000
-3.910E-06,-0.040
-3.900E-06,0.040
-3.890E-06,0.080
-3.880E-06,-0.040
-3.870E-06,0.040
-3.860E-06,0.040
-3.850E-06,0.040
-3.840E-06,0.040
-3.830E-06,0.040
-3.820E-06,0.040
-3.810E-06,0.000
-3.800E-06,0.000
-3.790E-06,0.000
-3.780E-06,0.000
-3.770E-06,0.000
-3.760E-06,0.000
-3.750E-06,0.000
-3.740E-06,0.000
-3.730E-06,0.000
-3.720E-06,0.000
-3.710E-06,0.000
-3.700E-06,-0.040
-3.690E-06,-0.080
-3.680E-06,-0.120
-3.670E-06,-0.120
-3.660E-06,-0.040
-3.650E-06,-0.080
-3.640E-06,-0.040
-3.630E-06,-0.040
-3.620E-06,-0.040
-3.610E-06,0.000
-3.600E-06,0.000
-3.590E-06,-0.040
-3.580E-06,0.000
-3.570E-06,0.040
-3.560E-06,0.040
-3.550E-06,0.120
-3.540E-06,0.080
-3.530E-06,0.120
-3.520E-06,0.120
-3.510E-06,0.200
-3.500E-06,0.320
-3.490E-06,0.320
-3.480E-06,0.320
-3.470E-06,0.200
-3.460E-06,0.120
-3.450E-06,0.120
-3.440E-06,0.240
-3.430E-06,0.320
-3.420E-06,0.320
-3.410E-06,0.280
-3.400E-06,0.120
-3.390E-06,0.120
-3.380E-06,0.040
-3.370E-06,0.080
-3.360E-06,0.120
-3.350E-06,0.120
-3.340E-06,0.080
-3.330E-06,0.000
-3.320E-06,-0.040
-3.310E-06,-0.080
-3.300E-06,-0.080
-3.290E-06,-0.040
-3.280E-06,0.000
-3.270E-06,-0.080
-3.260E-06,-0.120
-3.250E-06,-0.160
-3.240E-06,-0.160
-3.230E-06,-0.080
-3.220E-06,-0.120
-3.210E-06,-0.160
-3.200E-06,-0.160
-3.190E-06,-0.160
-3.180E-06,-0.080
-3.170E-06,-0.080
-3.160E-06,-0.080
-3.150E-06,0.000
-3.140E-06,-0.040
-3.130E-06,0.000
-3.120E-06,-0.040
-3.110E-06,0.000
-3.100E-06,0.040
-3.090E-06,0.080
-3.080E-06,0.080
-3.070E-06,0.080
-3.060E-06,0.040
-3.050E-06,0.080
-3.040E-06,0.080
-3.030E-06,0.120
-3.020E-06,0.120
-3.010E-06,0.120
-3.000E-06,0.160
-2.990E-06,0.120
-2.980E-06,0.080
-2.970E-06,0.080
-2.960E-06,0.080
-2.950E-06,0.080
-2.940E-06,0.080
-2.930E-06,0.080
-2.920E-06,0.160
-2.910E-06,0.080
-2.900E-06,0.040
-2.890E-06,0.080
-2.880E-06,0.120
-2.870E-06,0.120
-2.860E-06,0.120
-2.850E-06,0.120
-2.840E-06,0.040
-2.830E-06,0.040
-2.820E-06,0.080
-2.810E-06,0.040
-2.800E-06,0.040
-2.790E-06,0.040
-2.780E-06,-0.040
-2.770E-06,0.000
-2.760E-06,0.000
-2.750E-06,0.040
-2.740E-06,0.000
-2.730E-06,-0.040
-2.720E-06,0.000
-2.710E-06,0.000
-2.700E-06,-0.040
-2.690E-06,0.000
-2.680E-06,0.000
-2.670E-06,-0.040
-2.660E-06,0.000
-2.650E-06,-0.040
-2.640E-06,-0.040
-2.630E-06,-0.040
-2.620E-06,-0.040
-2.610E-06,-0.040
-2.600E-06,0.000
-2.590E-06,0.000
-2.580E-06,-0.040
-2.570E-06,0.000
-2.560E-06,0.040
-2.550E-06,0.040
-2.540E-06,0.160
-2.530E-06,0.280
-2.520E-06,0.240
-2.510E-06,0.240
-2.500E-06,0.120
-2.490E-06,0.080
-2.480E-06,0.120
-2.470E-06,0.120
-2.460E-06,0.160
-2.450E-06,0.240
-2.440E-06,0.160
-2.430E-06,0.080
-2.420E-06,0.040
-2.410E-06,0.080
-2.400E-06,0.080
-2.390E-06,0.040
-2.380E-06,0.040
-2.370E-06,0.080
-2.360E-06,-0.040
-2.350E-06,-0.040
-2.340E-06,-0.040
-2.330E-06,-0.040
-2.320E-06,0.000
-2.310E-06,-0.040
-2.300E-06,-0.040
-2.290E-06,-0.040
-2.280E-06,-0.080
-2.270E-06,-0.080
-2.260E-06,-0.040
-2.250E-06,-0.040
-2.240E-06,0.000
-2.230E-06,-0.040
-2.220E-06,-0.080
-2.210E-06,-0.080
-2.200E-06,0.000
-2.190E-06,-0.040
-2.180E-06,0.000
-2.170E-06,-0.040
-2.160E-06,0.000
-2.150E-06,0.040
-2.140E-06,0.040
-2.130E-06,0.000
-2.120E-06,0.040
-2.110E-06,0.040
-2.100E-06,0.040
-2.090E-06,0.040
-2.080E-06,0.040
-2.070E-06,0.040
-2.060E-06,0.040
-2.050E-06,0.080
-2.040E-06,0.040
-2.030E-06,0.080
-2.020E-06,0.080
-2.010E-06,0.160
-2.000E-06,0.080
-1.990E-06,0.040
-1.980E-06,0.080
-1.970E-06,0.040
-1.960E-06,0.120
-1.950E-06,0.080
-1.940E-06,0.080
-1.930E-06,0.080
-1.920E-06,0.000
-1.910E-06,0.000
-1.900E-06,0.000
-1.890E-06,-0.040
-1.880E-06,0.000
-1.870E-06,0.000
-1.860E-06,0.040
-1.850E-06,0.040
-1.840E-06,-0.040
-1.830E-06,0.000
-1.820E-06,0.000
-1.810E-06,-0.080
-1.800E-06,-0.040
-1.790E-06,-0.080
-1.780E-06,0.000
-1.770E-06,0.040
-1.760E-06,0.040
-1.750E-06,0.160
-1.740E-06,0.200
-1.730E-06,0.120
-1.720E-06,0.120
-1.710E-06,0.120
-1.700E-06,0.160
-1.690E-06,0.200
-1.680E-06,0.240
-1.670E-06,0.160
-1.660E-06,0.160
-1.650E-06,0.120
-1.640E-06,0.080
-1.630E-06,0.120
-1.620E-06,0.080
-1.610E-06,0.120
-1.600E-06,0.120
-1.590E-06,0.080
-1.580E-06,0.040
-1.570E-06,0.000
-1.560E-06,0.000
-1.550E-06,0.000
-1.540E-06,0.000
-1.530E-06,0.000
-1.520E-06,-0.040
-1.510E-06,-0.040
-1.500E-06,-0.040
-1.490E-06,-0.080
-1.480E-06,-0.040
-1.470E-06,-0.080
-1.460E-06,-0.080
-1.450E-06,-0.080
-1.440E-06,-0.080
-1.430E-06,-0.080
-1.420E-06,-0.080
-1.410E-06,-0.040
-1.400E-06,-0.080
-1.390E-06,-0.080
-1.380E-06,-0.040
-1.370E-06,-0.040
-1.360E-06,0.000
-1.350E-06,-0.040
-1.340E-06,-0.040
-1.330E-06,0.040
-1.320E-06,0.000
-1.310E-06,0.040
-1.300E-06,0.080
-1.290E-06,0.080
-1.280E-06,0.080
-1.270E-06,0.080
-1.260E-06,0.120
-1.250E-06,0.080
-1.240E-06,0.080
-1.230E-06,0.080
-1.220E-06,0.160
-1.210E-06,0.160
-1.200E-06,0.080
-1.190E-06,0.120
-1.180E-06,0.160
-1.170E-06,0.120
-1.160E-06,0.280
-1.150E-06,0.240
-1.140E-06,0.320
-1.130E-06,0.320
-1.120E-06,0.280
-1.110E-06,0.320
-1.100E-06,0.080
-1.090E-06,0.000
-1.080E-06,0.000
-1.070E-06,-0.080
-1.060E-06,0.040
-1.050E-06,0.320
-1.040E-06,0.440
-1.030E-06,0.520
-1.020E-06,0.360
-1.010E-06,0.160
-1.000E-06,0.080
-9.900E-07,0.000
-9.800E-07,0.160
-9.700E-07,0.320
-9.600E-07,0.320
-9.500E-07,0.160
-9.400E-07,0.040
-9.300E-07,-0.080
-9.200E-07,-0.080
-9.100E-07,0.080
-9.000E-07,0.080
-8.900E-07,0.240
-8.800E-07,0.040
-8.700E-07,-0.080
-8.600E-07,-0.200
-8.500E-07,-0.160
-8.400E-07,-0.040
-8.300E-07,-0.040
-8.200E-07,0.080
-8.100E-07,0.120
-8.000E-07,0.040
-7.900E-07,0.040
-7.800E-07,-0.040
-7.700E-07,0.040
-7.600E-07,0.160
-7.500E-07,0.200
-7.400E-07,0.240
-7.300E-07,0.160
-7.200E-07,0.120
-7.100E-07,0.160
-7.000E-07,0.160
-6.900E-07,0.280
-6.800E-07,0.280
-6.700E-07,0.360
-6.600E-07,0.280
-6.500E-07,0.240
-6.400E-07,0.240
-6.300E-07,0.280
-6.200E-07,0.240
-6.100E-07,0.200
-6.000E-07,0.240
-5.900E-07,0.160
-5.800E-07,0.120
-5.700E-07,0.040
-5.600E-07,0.000
-5.500E-07,0.000
-5.400E-07,-0.040
-5.300E-07,-0.080
-5.200E-07,-0.040
-5.100E-07,-0.160
-5.000E-07,-0.120
-4.900E-07,-0.200
-4.800E-07,-0.200
-4.700E-07,-0.200
-4.600E-07,-0.240
-4.500E-07,-0.200
-4.400E-07,-0.200
-4.300E-07,-0.080
-4.200E-07,-0.080
-4.100E-07,-0.080
-4.000E-07,-0.080
-3.900E-07,-0.080
-3.800E-07,-0.040
-3.700E-07,0.080
-3.600E-07,0.120
-3.500E-07,0.160
-3.400E-07,0.160
-3.300E-07,0.160
-3.200E-07,0.160
-3.100E-07,0.360
-3.000E-07,0.440
-2.900E-07,0.440
-2.800E-07,0.400
-2.700E-07,0.120
-2.600E-07,0.120
-2.500E-07,0.000
-2.400E-07,0.200
-2.300E-07,0.480
-2.200E-07,0.680
-2.100E-07,0.720
-2.000E-07,0.520
-1.900E-07,0.360
-1.800E-07,0.240
-1.700E-07,0.240
-1.600E-07,0.440
-1.500E-07,0.520
-1.400E-07,0.600
-1.300E-07,0.480
-1.200E-07,0.440
-1.100E-07,0.440
-1.000E-07,0.400
-9.000E-08,0.520
-8.000E-08,0.600
-7.000E-08,0.680
-6.000E-08,0.720
-5.000E-08,0.600
-4.000E-08,0.720
-3.000E-08,0.520
-2.000E-08,0.440
-1.000E-08,0.040
0.000E+00,0.040
1.000E-08,0.160
2.000E-08,0.480
3.000E-08,1.360
4.000E-08,1.160
5.000E-08,1.240
6.000E-08,0.400
7.000E-08,0.080
8.000E-08,-0.040
9.000E-08,0.280
1.000E-07,1.200
1.100E-07,1.520
1.200E-07,1.360
1.300E-07,0.800
1.400E-07,0.120
1.500E-07,0.000
1.600E-07,0.280
1.700E-07,0.760
1.800E-07,1.040
1.900E-07,0.880
2.000E-07,0.560
2.100E-07,0.080
2.200E-07,-0.160
2.300E-07,0.000
2.400E-07,0.120
2.500E-07,0.360
2.600E-07,0.240
2.700E-07,-0.040
2.800E-07,-0.160
2.900E-07,-0.240
3.000E-07,-0.200
3.100E-07,-0.120
3.200E-07,-0.160
3.300E-07,-0.160
3.400E-07,-0.360
3.500E-07,-0.400
3.600E-07,-0.360
3.700E-07,-0.320
3.800E-07,-0.280
3.900E-07,-0.200
4.000E-07,-0.360
4.100E-07,-0.200
4.200E-07,-0.240
4.300E-07,-0.080
4.400E-07,-0.040
4.500E-07,0.000
4.600E-07,0.000
4.700E-07,0.000
4.800E-07,0.000
4.900E-07,0.160
5.000E-07,0.240
5.100E-07,0.280
5.200E-07,0.320
5.300E-07,0.280
5.400E-07,0.240
5.500E-07,0.320
5.600E-07,0.440
5.700E-07,0.440
5.800E-07,0.440
5.900E-07,0.440
6.000E-07,0.400
6.100E-07,0.400
6.200E-07,0.400
6.300E-07,0.440
6.400E-07,0.480
6.500E-07,0.520
6.600E-07,0.480
6.700E-07,0.440
6.800E-07,0.440
6.900E-07,0.400
7.000E-07,0.320
7.100E-07,0.280
7.200E-07,0.160
7.300E-07,-0.280
7.400E-07,-0.440
7.500E-07,-0.840
7.600E-07,-0.680
7.700E-07,-0.320
7.800E-07,0.160
7.900E-07,0.640
8.000E-07,0.680
8.100E-07,0.360
8.200E-07,-0.200
8.300E-07,-0.320
8.400E-07,-0.280
8.500E-07,0.320
8.600E-07,0.760
8.700E-07,0.880
8.800E-07,0.080
8.900E-07,-0.080
9.000E-07,-0.520
9.100E-07,-0.680
9.200E-07,0.320
9.300E-07,0.560
9.400E-07,0.880
9.500E-07,0.760
9.600E-07,0.280
9.700E-07,0.200
9.800E-07,0.200
9.900E-07,0.320
1.000E-06,0.440
1.010E-06,0.480
1.020E-06,0.320
1.030E-06,0.280
1.040E-06,0.240
1.050E-06,0.240
1.060E-06,0.360
1.070E-06,0.320
1.080E-06,0.240
1.090E-06,0.040
1.100E-06,-0.040
1.110E-06,-0.160
1.120E-06,-0.240
1.130E-06,-0.240
1.140E-06,-0.200
1.150E-06,-0.320
1.160E-06,-0.400
1.170E-06,-0.400
1.180E-06,-0.400
1.190E-06,-0.360
1.200E-06,-0.320
1.210E-06,-0.360
1.220E-06,-0.320
1.230E-06,-0.320
1.240E-06,-0.360
1.250E-06,-0.240
1.260E-06,-0.200
1.270E-06,-0.040
1.280E-06,0.000
1.290E-06,0.080
1.300E-06,0.160
1.310E-06,0.240
1.320E-06,0.360
1.330E-06,0.360
1.340E-06,0.360
1.350E-06,0.320
1.360E-06,0.400
1.370E-06,0.400
1.380E-06,0.480
1.390E-06,0.600
1.400E-06,0.640
1.410E-06,0.520
1.420E-06,0.360
1.430E-06,0.200
1.440E-06,0.160
1.450E-06,0.200
1.460E-06,0.160
1.470E-06,0.000
1.480E-06,0.160
1.490E-06,0.200
1.500E-06,0.320
1.510E-06,0.480
1.520E-06,0.440
1.530E-06,0.360
1.540E-06,0.160
1.550E-06,0.040
1.560E-06,0.040
1.570E-06,0.160
1.580E-06,0.320
1.590E-06,0.480
1.600E-06,0.520
1.610E-06,0.600
1.620E-06,0.440
1.630E-06,0.360
1.640E-06,0.320
1.650E-06,0.240
1.660E-06,0.240
1.670E-06,0.280
1.680E-06,0.360
1.690E-06,0.280
1.700E-06,0.240
1.710E-06,0.200
1.720E-06,0.040
1.730E-06,0.120
1.740E-06,0.280
1.750E-06,0.440
1.760E-06,0.520
1.770E-06,0.560
1.780E-06,0.600
1.790E-06,0.520
1.800E-06,0.520
1.810E-06,0.720
1.820E-06,0.720
1.830E-06,0.800
1.840E-06,0.920
1.850E-06,0.960
1.860E-06,1.080
1.870E-06,1.000
1.880E-06,1.040
1.890E-06,1.200
1.900E-06,1.080
1.910E-06,1.040
1.920E-06,1.000
1.930E-06,0.880
1.940E-06,0.880
1.950E-06,0.840
1.960E-06,0.960
1.970E-06,1.000
1.980E-06,0.920
1.990E-06,0.960
2.000E-06,0.920
2.010E-06,0.880
2.020E-06,0.880
2.030E-06,0.840
2.040E-06,0.760
2.050E-06,0.920
2.060E-06,0.840
2.070E-06,0.840
2.080E-06,0.800
2.090E-06,0.680
2.100E-06,0.680
2.110E-06,0.800
2.120E-06,0.720
2.130E-06,0.840
2.140E-06,0.720
2.150E-06,0.600
2.160E-06,0.680
2.170E-06,0.600
2.180E-06,0.640
2.190E-06,0.560
2.200E-06,0.440
2.210E-06,0.480
2.220E-06,0.520
2.230E-06,0.440
2.240E-06,0.480
2.250E-06,0.480
2.260E-06,0.240
2.270E-06,0.200
2.280E-06,0.160
2.290E-06,0.120
2.300E-06,0.160
2.310E-06,0.240
2.320E-06,0.280
2.330E-06,0.400
2.340E-06,0.320
2.350E-06,0.320
2.360E-06,0.160
2.370E-06,0.400
2.380E-06,-0.120
2.390E-06,-0.120
2.400E-06,-0.120
2.410E-06,-0.800
2.420E-06,-0.360
2.430E-06,-0.040
2.440E-06,0.280
2.450E-06,0.840
2.460E-06,1.240
2.470E-06,0.680
2.480E-06,0.680
2.490E-06,0.000
2.500E-06,-0.320
2.510E-06,0.320
2.520E-06,0.200
2.530E-06,-0.040
2.540E-06,0.160
2.550E-06,-0.680
2.560E-06,-0.640
2.570E-06,-0.160
2.580E-06,0.080
2.590E-06,0.840
2.600E-06,0.800
2.610E-06,0.640
2.620E-06,0.480
2.630E-06,0.320
2.640E-06,0.520
2.650E-06,0.760
2.660E-06,0.640
2.670E-06,0.760
2.680E-06,0.520
2.690E-06,0.320
2.700E-06,0.360
2.710E-06,0.320
2.720E-06,0.440
2.730E-06,0.480
2.740E-06,0.360
2.750E-06,0.320
2.760E-06,0.080
2.770E-06,-0.200
2.780E-06,-0.400
2.790E-06,-0.600
2.800E-06,-0.680
2.810E-06,-0.640
2.820E-06,-0.600
2.830E-06,-0.680
2.840E-06,-0.760
2.850E-06,-0.960
2.860E-06,-1.080
2.870E-06,-1.000
2.880E-06,-0.960
2.890E-06,-0.880
2.900E-06,-0.720
2.910E-06,-0.680
2.920E-06,-0.600
2.930E-06,-0.520
2.940E-06,-0.560
2.950E-06,-0.400
2.960E-06,-0.160
2.970E-06,0.000
2.980E-06,0.240
2.990E-06,0.400
3.000E-06,0.400
3.010E-06,0.320
3.020E-06,0.240
3.030E-06,0.040
3.040E-06,0.000
3.050E-06,-0.080
3.060E-06,-0.120
3.070E-06,-0.240
3.080E-06,-0.280
3.090E-06,-0.400
3.100E-06,-0.440
3.110E-06,-0.480
3.120E-06,-0.440
3.130E-06,-0.440
3.140E-06,-0.520
3.150E-06,-0.600
3.160E-06,-0.440
3.170E-06,-0.480
3.180E-06,-0.440
3.190E-06,-0.520
3.200E-06,-0.640
3.210E-06,-0.640
3.220E-06,-0.560
3.230E-06,-0.520
3.240E-06,-0.520
3.250E-06,-0.480
3.260E-06,-0.480
3.270E-06,-0.680
3.280E-06,-0.760
3.290E-06,-0.440
3.300E-06,-0.800
3.310E-06,-0.640
3.320E-06,-0.480
3.330E-06,-1.080
3.340E-06,-1.120
3.350E-06,-1.360
3.360E-06,-1.120
3.370E-06,-0.320
3.380E-06,0.200
3.390E-06,1.160
3.400E-06,0.920
3.410E-06,0.400
3.420E-06,-1.000
3.430E-06,-1.960
3.440E-06,-1.600
3.450E-06,-1.560
3.460E-06,-0.080
3.470E-06,0.120
3.480E-06,-0.560
3.490E-06,-0.840
3.500E-06,-2.440
3.510E-06,-2.280
3.520E-06,-1.520
3.530E-06,-0.760
3.540E-06,0.760
3.550E-06,1.320
3.560E-06,1.400
3.570E-06,1.160
3.580E-06,0.760
3.590E-06,0.800
3.600E-06,0.680
3.610E-06,1.000
3.620E-06,1.120
3.630E-06,1.480
3.640E-06,1.320
3.650E-06,1.160
3.660E-06,0.520
3.670E-06,-0.080
3.680E-06,-0.520
3.690E-06,-1.000
3.700E-06,-0.840
3.710E-06,-0.720
3.720E-06,-0.640
3.730E-06,-0.560
3.740E-06,-0.960
3.750E-06,-1.160
3.760E-06,-1.080
3.770E-06,-1.160
3.780E-06,-0.800
3.790E-06,-0.640
3.800E-06,-0.400
3.810E-06,-0.320
3.820E-06,-0.440
3.830E-06,-0.760
3.840E-06,-1.120
3.850E-06,-1.480
3.860E-06,-1.760
3.870E-06,-1.840
3.880E-06,-1.880
3.890E-06,-1.760
3.900E-06,-1.680
3.910E-06,-1.400
3.920E-06,-1.120
3.930E-06,-1.000
3.940E-06,-0.880
3.950E-06,-0.760
3.960E-06,-0.640
3.970E-06,-0.480
3.980E-06,-0.320
3.990E-06,-0.320
4.000E-06,-0.160
4.010E-06,-0.400
4.020E-06,-0.400
4.030E-06,-0.560
4.040E-06,-0.760
4.050E-06,-0.800
4.060E-06,-1.080
4.070E-06,-1.360
4.080E-06,-1.600
4.090E-06,-1.960
4.100E-06,-2.040
4.110E-06,-2.120
4.120E-06,-2.200
4.130E-06,-2.040
4.140E-06,-2.160
4.150E-06,-2.520
4.160E-06,-2.680
4.170E-06,-3.360
4.180E-06,-3.560
4.190E-06,-3.400
4.200E-06,-3.640
4.210E-06,-2.720
4.220E-06,-3.000
4.230E-06,-3.160
4.240E-06,-3.000
4.250E-06,-3.480
4.260E-06,-3.280
4.270E-06,-2.960
4.280E-06,-3.080
4.290E-06,-2.200
4.300E-06,-1.760
4.310E-06,-1.160
4.320E-06,0.120
4.330E-06,0.400
4.340E-06,1.120
4.350E-06,1.000
4.360E-06,0.880
4.370E-06,1.000
4.380E-06,0.960
4.390E-06,1.200
4.400E-06,1.120
4.410E-06,0.960
4.420E-06,0.800
4.430E-06,0.600
4.440E-06,0.320
4.450E-06,0.200
4.460E-06,-0.080
4.470E-06,-0.480
4.480E-06,-0.840
4.490E-06,-1.360
4.500E-06,-1.800
4.510E-06,-2.240
4.520E-06,-2.840
4.530E-06,-3.360
4.540E-06,-3.880
4.550E-06,-4.440
4.560E-06,-4.960
4.570E-06,-5.240
4.580E-06,-5.200
4.590E-06,-5.200
4.600E-06,-5.240
4.610E-06,-5.240
4.620E-06,-5.200
4.630E-06,-5.200
4.640E-06,-5.240
4.650E-06,-5.240
4.660E-06,-5.200
4.670E-06,-5.240
4.680E-06,-5.200
4.690E-06,-5.240
4.700E-06,-5.240
4.710E-06,-5.240
4.720E-06,-5.240
4.730E-06,-5.240
4.740E-06,-5.240
4.750E-06,-5.240
4.760E-06,-5.240
4.770E-06,-5.200
4.780E-06,-5.240
4.790E-06,-5.240
4.800E-06,-5.200
4.810E-06,-5.240
4.820E-06,-5.240
4.830E-06,-5.200
4.840E-06,-5.240
4.850E-06,-5.200
4.860E-06,-5.200
4.870E-06,-5.240
4.880E-06,-5.240
4.890E-06,-5.200
4.900E-06,-5.080
4.910E-06,-4.920
4.920E-06,-4.840
4.930E-06,-4.640
4.940E-06,-4.520
4.950E-06,-4.440
4.960E-06,-4.400
4.970E-06,-4.640
4.980E-06,-4.800
4.990E-06,-5.040
5.000E-06,-5.080
5.010E-06,-4.920
5.020E-06,-4.760
5.030E-06,-4.520
5.040E-06,-4.600
5.050E-06,-4.640
5.060E-06,-4.520
5.070E-06,-4.600
5.080E-06,-4.360
5.090E-06,-4.160
5.100E-06,-3.880
5.110E-06,-3.600
5.120E-06,-3.360
5.130E-06,-3.000
5.140E-06,-2.680
5.150E-06,-2.240
5.160E-06,-1.840
5.170E-06,-1.440
5.180E-06,-1.360
5.190E-06,-1.440
5.200E-06,-1.600
5.210E-06,-1.800
5.220E-06,-1.960
5.230E-06,-1.880
5.240E-06,-1.760
5.250E-06,-1.680
5.260E-06,-1.720
5.270E-06,-1.800
5.280E-06,-2.040
5.290E-06,-2.200
5.300E-06,-2.320
5.310E-06,-2.360
5.320E-06,-2.400
5.330E-06,-2.440
5.340E-06,-2.480
5.350E-06,-2.600
5.360E-06,-2.680
5.370E-06,-2.800
5.380E-06,-2.840
5.390E-06,-2.880
5.400E-06,-2.840
5.410E-06,-2.880
5.420E-06,-2.960
5.430E-06,-2.960
5.440E-06,-2.960
5.450E-06,-3.000
5.460E-06,-3.000
5.470E-06,-2.920
5.480E-06,-2.920
5.490E-06,-2.840
5.500E-06,-2.760
5.510E-06,-2.800
5.520E-06,-2.720
5.530E-06,-2.680
5.540E-06,-2.520
5.550E-06,-2.440
5.560E-06,-2.360
5.570E-06,-2.240
5.580E-06,-2.200
5.590E-06,-2.160
5.600E-06,-2.080
5.610E-06,-2.080
5.620E-06,-2.000
5.630E-06,-2.040
5.640E-06,-2.040
5.650E-06,-2.000
5.660E-06,-2.000
5.670E-06,-2.000
5.680E-06,-1.960
5.690E-06,-2.000
5.700E-06,-2.040
5.710E-06,-2.040
5.720E-06,-1.920
5.730E-06,-1.920
5.740E-06,-1.920
5.750E-06,-1.840
5.760E-06,-1.800
5.770E-06,-1.800
5.780E-06,-1.760
5.790E-06,-1.720
5.800E-06,-1.680
5.810E-06,-1.640
5.820E-06,-1.640
5.830E-06,-1.560
5.840E-06,-1.560
5.850E-06,-1.600
5.860E-06,-1.560
5.870E-06,-1.600
5.880E-06,-1.560
5.890E-06,-1.640
5.900E-06,-1.680
5.910E-06,-1.720
5.920E-06,-1.760
5.930E-06,-1.840
5.940E-06,-1.880
5.950E-06,-1.960
5.960E-06,-2.040
5.970E-06,-2.080
5.980E-06,-2.160
5.990E-06,-2.160
6.000E-06,-2.200
6.010E-06,-2.240
6.020E-06,-2.280
6.030E-06,-2.320
6.040E-06,-2.320
6.050E-06,-2.320
6.060E-06,-2.320
6.070E-06,-2.360
6.080E-06,-2.360
6.090E-06,-2.400
6.100E-06,-2.360
6.110E-06,-2.360
6.120E-06,-2.440
