mediciones/5-27/-55/WaveData50260.csv

#timebase=2000000(ps)
,#voltbase=100000(mv/100)
#size=4000
-8.400E-06,0.008
-8.390E-06,0.004
-8.380E-06,0.000
-8.370E-06,0.004
-8.360E-06,0.004
-8.350E-06,0.004
-8.340E-06,0.004
-8.330E-06,0.000
-8.320E-06,0.008
-8.310E-06,0.000
-8.300E-06,0.004
-8.290E-06,0.004
-8.280E-06,0.004
-8.270E-06,0.004
-8.260E-06,0.008
-8.250E-06,0.008
-8.240E-06,0.000
-8.230E-06,0.004
-8.220E-06,0.004
-8.210E-06,0.000
-8.200E-06,0.000
-8.190E-06,0.000
-8.180E-06,0.000
-8.170E-06,0.004
-8.160E-06,0.004
-8.150E-06,0.004
-8.140E-06,0.004
-8.130E-06,0.004
-8.120E-06,0.000
-8.110E-06,0.000
-8.100E-06,0.008
-8.090E-06,-0.004
-8.080E-06,0.000
-8.070E-06,0.004
-8.060E-06,0.004
-8.050E-06,0.004
-8.040E-06,0.004
-8.030E-06,0.004
-8.020E-06,0.000
-8.010E-06,0.004
-8.000E-06,0.000
-7.990E-06,0.004
-7.980E-06,0.004
-7.970E-06,0.008
-7.960E-06,-0.004
-7.950E-06,-0.004
-7.940E-06,0.000
-7.930E-06,0.000
-7.920E-06,0.004
-7.910E-06,0.004
-7.900E-06,0.004
-7.890E-06,0.000
-7.880E-06,0.000
-7.870E-06,0.000
-7.860E-06,0.004
-7.850E-06,0.008
-7.840E-06,0.012
-7.830E-06,0.008
-7.820E-06,0.008
-7.810E-06,0.004
-7.800E-06,0.004
-7.790E-06,0.008
-7.780E-06,0.000
-7.770E-06,0.004
-7.760E-06,0.004
-7.750E-06,0.000
-7.740E-06,0.000
-7.730E-06,0.000
-7.720E-06,0.008
-7.710E-06,0.008
-7.700E-06,0.004
-7.690E-06,0.004
-7.680E-06,0.000
-7.670E-06,0.000
-7.660E-06,0.000
-7.650E-06,0.004
-7.640E-06,0.004
-7.630E-06,0.008
-7.620E-06,0.000
-7.610E-06,0.004
-7.600E-06,0.004
-7.590E-06,0.000
-7.580E-06,0.000
-7.570E-06,0.004
-7.560E-06,0.004
-7.550E-06,0.004
-7.540E-06,0.000
-7.530E-06,0.008
-7.520E-06,0.008
-7.510E-06,-0.004
-7.500E-06,0.004
-7.490E-06,0.000
-7.480E-06,0.004
-7.470E-06,0.008
-7.460E-06,0.004
-7.450E-06,-0.004
-7.440E-06,-0.004
-7.430E-06,0.004
-7.420E-06,0.004
-7.410E-06,0.012
-7.400E-06,0.000
-7.390E-06,0.000
-7.380E-06,0.004
-7.370E-06,0.008
-7.360E-06,-0.004
-7.350E-06,0.000
-7.340E-06,0.004
-7.330E-06,0.000
-7.320E-06,0.000
-7.310E-06,0.000
-7.300E-06,-0.004
-7.290E-06,0.000
-7.280E-06,0.008
-7.270E-06,0.008
-7.260E-06,0.008
-7.250E-06,0.012
-7.240E-06,0.004
-7.230E-06,0.000
-7.220E-06,-0.004
-7.210E-06,0.004
-7.200E-06,0.008
-7.190E-06,0.004
-7.180E-06,0.004
-7.170E-06,0.008
-7.160E-06,0.004
-7.150E-06,0.004
-7.140E-06,0.004
-7.130E-06,0.008
-7.120E-06,0.004
-7.110E-06,0.000
-7.100E-06,0.004
-7.090E-06,0.004
-7.080E-06,0.004
-7.070E-06,0.000
-7.060E-06,0.000
-7.050E-06,0.008
-7.040E-06,-0.004
-7.030E-06,0.000
-7.020E-06,0.004
-7.010E-06,0.008
-7.000E-06,0.008
-6.990E-06,0.000
-6.980E-06,0.000
-6.970E-06,0.000
-6.960E-06,0.004
-6.950E-06,0.004
-6.940E-06,0.004
-6.930E-06,0.008
-6.920E-06,0.004
-6.910E-06,0.004
-6.900E-06,-0.004
-6.890E-06,0.000
-6.880E-06,0.000
-6.870E-06,0.004
-6.860E-06,-0.004
-6.850E-06,0.000
-6.840E-06,-0.004
-6.830E-06,0.000
-6.820E-06,0.000
-6.810E-06,0.008
-6.800E-06,0.008
-6.790E-06,0.004
-6.780E-06,0.004
-6.770E-06,-0.004
-6.760E-06,-0.004
-6.750E-06,0.000
-6.740E-06,0.004
-6.730E-06,0.004
-6.720E-06,0.004
-6.710E-06,-0.004
-6.700E-06,-0.004
-6.690E-06,0.000
-6.680E-06,0.004
-6.670E-06,0.008
-6.660E-06,0.008
-6.650E-06,0.008
-6.640E-06,-0.004
-6.630E-06,0.000
-6.620E-06,0.000
-6.610E-06,0.008
-6.600E-06,0.012
-6.590E-06,0.004
-6.580E-06,0.008
-6.570E-06,0.000
-6.560E-06,-0.004
-6.550E-06,-0.004
-6.540E-06,0.004
-6.530E-06,0.000
-6.520E-06,0.004
-6.510E-06,0.008
-6.500E-06,0.000
-6.490E-06,0.000
-6.480E-06,-0.004
-6.470E-06,0.000
-6.460E-06,0.004
-6.450E-06,0.008
-6.440E-06,0.004
-6.430E-06,0.004
-6.420E-06,0.000
-6.410E-06,0.000
-6.400E-06,0.004
-6.390E-06,0.000
-6.380E-06,0.004
-6.370E-06,-0.004
-6.360E-06,0.000
-6.350E-06,-0.004
-6.340E-06,0.004
-6.330E-06,0.004
-6.320E-06,0.000
-6.310E-06,-0.004
-6.300E-06,0.004
-6.290E-06,0.000
-6.280E-06,0.004
-6.270E-06,0.008
-6.260E-06,0.004
-6.250E-06,0.000
-6.240E-06,0.000
-6.230E-06,0.004
-6.220E-06,0.000
-6.210E-06,0.000
-6.200E-06,0.008
-6.190E-06,0.000
-6.180E-06,0.000
-6.170E-06,0.000
-6.160E-06,-0.004
-6.150E-06,0.004
-6.140E-06,0.008
-6.130E-06,0.004
-6.120E-06,0.008
-6.110E-06,0.000
-6.100E-06,-0.004
-6.090E-06,-0.008
-6.080E-06,0.000
-6.070E-06,0.000
-6.060E-06,0.008
-6.050E-06,0.012
-6.040E-06,0.008
-6.030E-06,0.004
-6.020E-06,-0.004
-6.010E-06,-0.004
-6.000E-06,0.000
-5.990E-06,0.008
-5.980E-06,0.012
-5.970E-06,0.008
-5.960E-06,-0.004
-5.950E-06,-0.004
-5.940E-06,-0.004
-5.930E-06,0.000
-5.920E-06,0.004
-5.910E-06,0.012
-5.900E-06,0.012
-5.890E-06,0.008
-5.880E-06,0.000
-5.870E-06,-0.008
-5.860E-06,-0.008
-5.850E-06,0.000
-5.840E-06,0.012
-5.830E-06,0.016
-5.820E-06,0.004
-5.810E-06,-0.004
-5.800E-06,-0.008
-5.790E-06,-0.004
-5.780E-06,0.004
-5.770E-06,0.008
-5.760E-06,0.012
-5.750E-06,0.012
-5.740E-06,-0.004
-5.730E-06,0.000
-5.720E-06,-0.004
-5.710E-06,0.000
-5.700E-06,0.008
-5.690E-06,0.016
-5.680E-06,0.004
-5.670E-06,-0.004
-5.660E-06,0.000
-5.650E-06,0.004
-5.640E-06,0.004
-5.630E-06,0.000
-5.620E-06,0.008
-5.610E-06,0.004
-5.600E-06,0.000
-5.590E-06,0.000
-5.580E-06,-0.004
-5.570E-06,0.000
-5.560E-06,0.008
-5.550E-06,0.012
-5.540E-06,0.008
-5.530E-06,-0.004
-5.520E-06,-0.004
-5.510E-06,-0.004
-5.500E-06,0.004
-5.490E-06,0.004
-5.480E-06,0.008
-5.470E-06,0.008
-5.460E-06,0.004
-5.450E-06,-0.004
-5.440E-06,-0.004
-5.430E-06,0.004
-5.420E-06,0.008
-5.410E-06,0.008
-5.400E-06,0.004
-5.390E-06,0.004
-5.380E-06,0.000
-5.370E-06,0.000
-5.360E-06,0.000
-5.350E-06,0.004
-5.340E-06,0.004
-5.330E-06,0.008
-5.320E-06,0.004
-5.310E-06,0.000
-5.300E-06,-0.004
-5.290E-06,0.004
-5.280E-06,0.016
-5.270E-06,0.008
-5.260E-06,0.000
-5.250E-06,-0.004
-5.240E-06,0.000
-5.230E-06,0.000
-5.220E-06,0.008
-5.210E-06,0.012
-5.200E-06,0.008
-5.190E-06,0.008
-5.180E-06,0.004
-5.170E-06,0.004
-5.160E-06,0.004
-5.150E-06,0.008
-5.140E-06,0.012
-5.130E-06,0.004
-5.120E-06,0.004
-5.110E-06,0.000
-5.100E-06,-0.004
-5.090E-06,0.000
-5.080E-06,0.004
-5.070E-06,0.004
-5.060E-06,0.004
-5.050E-06,0.000
-5.040E-06,0.004
-5.030E-06,0.004
-5.020E-06,0.004
-5.010E-06,0.000
-5.000E-06,-0.004
-4.990E-06,0.000
-4.980E-06,0.000
-4.970E-06,0.008
-4.960E-06,0.004
-4.950E-06,0.008
-4.940E-06,0.004
-4.930E-06,0.000
-4.920E-06,-0.004
-4.910E-06,0.000
-4.900E-06,0.000
-4.890E-06,0.008
-4.880E-06,0.004
-4.870E-06,0.004
-4.860E-06,0.000
-4.850E-06,0.004
-4.840E-06,0.012
-4.830E-06,0.004
-4.820E-06,0.004
-4.810E-06,0.004
-4.800E-06,0.004
-4.790E-06,-0.004
-4.780E-06,0.004
-4.770E-06,0.008
-4.760E-06,0.012
-4.750E-06,0.012
-4.740E-06,0.004
-4.730E-06,0.000
-4.720E-06,-0.004
-4.710E-06,0.000
-4.700E-06,0.008
-4.690E-06,0.016
-4.680E-06,0.016
-4.670E-06,0.008
-4.660E-06,0.008
-4.650E-06,0.004
-4.640E-06,-0.004
-4.630E-06,-0.008
-4.620E-06,0.000
-4.610E-06,0.000
-4.600E-06,0.004
-4.590E-06,0.000
-4.580E-06,0.000
-4.570E-06,-0.004
-4.560E-06,0.000
-4.550E-06,0.008
-4.540E-06,0.012
-4.530E-06,0.008
-4.520E-06,0.004
-4.510E-06,0.004
-4.500E-06,0.000
-4.490E-06,0.000
-4.480E-06,0.004
-4.470E-06,0.008
-4.460E-06,0.012
-4.450E-06,0.016
-4.440E-06,0.004
-4.430E-06,0.004
-4.420E-06,0.008
-4.410E-06,0.012
-4.400E-06,0.012
-4.390E-06,0.000
-4.380E-06,-0.008
-4.370E-06,-0.012
-4.360E-06,-0.008
-4.350E-06,0.004
-4.340E-06,0.016
-4.330E-06,0.020
-4.320E-06,0.012
-4.310E-06,0.000
-4.300E-06,-0.008
-4.290E-06,-0.008
-4.280E-06,0.000
-4.270E-06,0.008
-4.260E-06,0.016
-4.250E-06,0.016
-4.240E-06,0.004
-4.230E-06,-0.004
-4.220E-06,-0.012
-4.210E-06,-0.012
-4.200E-06,0.000
-4.190E-06,0.008
-4.180E-06,0.008
-4.170E-06,0.008
-4.160E-06,0.000
-4.150E-06,0.000
-4.140E-06,0.004
-4.130E-06,0.008
-4.120E-06,0.012
-4.110E-06,0.004
-4.100E-06,0.008
-4.090E-06,0.008
-4.080E-06,0.008
-4.070E-06,0.004
-4.060E-06,0.004
-4.050E-06,0.008
-4.040E-06,0.004
-4.030E-06,0.004
-4.020E-06,0.004
-4.010E-06,0.008
-4.000E-06,0.012
-3.990E-06,0.016
-3.980E-06,0.012
-3.970E-06,0.004
-3.960E-06,0.008
-3.950E-06,0.012
-3.940E-06,0.016
-3.930E-06,0.020
-3.920E-06,0.016
-3.910E-06,0.016
-3.900E-06,0.020
-3.890E-06,0.028
-3.880E-06,0.028
-3.870E-06,0.028
-3.860E-06,0.012
-3.850E-06,0.008
-3.840E-06,0.004
-3.830E-06,0.000
-3.820E-06,-0.008
-3.810E-06,-0.012
-3.800E-06,0.000
-3.790E-06,0.012
-3.780E-06,0.028
-3.770E-06,0.020
-3.760E-06,0.008
-3.750E-06,0.012
-3.740E-06,0.000
-3.730E-06,0.004
-3.720E-06,-0.004
-3.710E-06,0.000
-3.700E-06,0.004
-3.690E-06,0.016
-3.680E-06,0.028
-3.670E-06,0.020
-3.660E-06,0.012
-3.650E-06,0.012
-3.640E-06,0.008
-3.630E-06,0.008
-3.620E-06,0.000
-3.610E-06,0.000
-3.600E-06,0.004
-3.590E-06,-0.016
-3.580E-06,-0.020
-3.570E-06,-0.012
-3.560E-06,-0.024
-3.550E-06,-0.024
-3.540E-06,-0.020
-3.530E-06,-0.016
-3.520E-06,-0.008
-3.510E-06,0.008
-3.500E-06,0.004
-3.490E-06,0.004
-3.480E-06,-0.012
-3.470E-06,0.000
-3.460E-06,-0.012
-3.450E-06,-0.008
-3.440E-06,-0.008
-3.430E-06,-0.016
-3.420E-06,-0.008
-3.410E-06,0.016
-3.400E-06,0.024
-3.390E-06,0.020
-3.380E-06,0.004
-3.370E-06,-0.012
-3.360E-06,-0.020
-3.350E-06,-0.008
-3.340E-06,0.004
-3.330E-06,0.020
-3.320E-06,0.020
-3.310E-06,0.012
-3.300E-06,-0.004
-3.290E-06,-0.004
-3.280E-06,-0.008
-3.270E-06,0.012
-3.260E-06,0.016
-3.250E-06,0.028
-3.240E-06,0.024
-3.230E-06,0.024
-3.220E-06,0.008
-3.210E-06,0.012
-3.200E-06,0.024
-3.190E-06,0.036
-3.180E-06,0.040
-3.170E-06,0.040
-3.160E-06,0.028
-3.150E-06,0.032
-3.140E-06,0.028
-3.130E-06,0.028
-3.120E-06,0.044
-3.110E-06,0.036
-3.100E-06,0.036
-3.090E-06,0.028
-3.080E-06,0.012
-3.070E-06,-0.024
-3.060E-06,-0.020
-3.050E-06,-0.008
-3.040E-06,0.000
-3.030E-06,0.004
-3.020E-06,0.024
-3.010E-06,0.028
-3.000E-06,0.024
-2.990E-06,0.052
-2.980E-06,-0.072
-2.970E-06,-0.112
-2.960E-06,-0.136
-2.950E-06,-0.132
-2.940E-06,-0.060
-2.930E-06,0.016
-2.920E-06,0.076
-2.910E-06,0.108
-2.900E-06,0.064
-2.890E-06,-0.040
-2.880E-06,-0.104
-2.870E-06,-0.080
-2.860E-06,-0.028
-2.850E-06,0.044
-2.840E-06,0.068
-2.830E-06,0.044
-2.820E-06,0.008
-2.810E-06,-0.020
-2.800E-06,-0.028
-2.790E-06,0.004
-2.780E-06,0.040
-2.770E-06,0.056
-2.760E-06,0.032
-2.750E-06,-0.004
-2.740E-06,-0.044
-2.730E-06,-0.024
-2.720E-06,0.028
-2.710E-06,0.052
-2.700E-06,0.056
-2.690E-06,0.000
-2.680E-06,-0.048
-2.670E-06,-0.064
-2.660E-06,-0.028
-2.650E-06,0.024
-2.640E-06,0.080
-2.630E-06,0.072
-2.620E-06,0.028
-2.610E-06,-0.024
-2.600E-06,-0.064
-2.590E-06,-0.048
-2.580E-06,-0.036
-2.570E-06,0.008
-2.560E-06,0.028
-2.550E-06,0.040
-2.540E-06,0.008
-2.530E-06,-0.012
-2.520E-06,-0.044
-2.510E-06,-0.040
-2.500E-06,0.008
-2.490E-06,0.040
-2.480E-06,0.044
-2.470E-06,0.012
-2.460E-06,0.000
-2.450E-06,-0.020
-2.440E-06,0.000
-2.430E-06,0.040
-2.420E-06,0.060
-2.410E-06,0.044
-2.400E-06,0.008
-2.390E-06,-0.012
-2.380E-06,-0.020
-2.370E-06,0.008
-2.360E-06,0.036
-2.350E-06,0.056
-2.340E-06,0.032
-2.330E-06,0.008
-2.320E-06,0.000
-2.310E-06,0.008
-2.300E-06,0.016
-2.290E-06,0.020
-2.280E-06,0.020
-2.270E-06,0.020
-2.260E-06,0.020
-2.250E-06,0.016
-2.240E-06,0.016
-2.230E-06,0.020
-2.220E-06,0.008
-2.210E-06,0.004
-2.200E-06,-0.004
-2.190E-06,0.012
-2.180E-06,0.032
-2.170E-06,0.048
-2.160E-06,0.052
-2.150E-06,0.040
-2.140E-06,0.024
-2.130E-06,0.000
-2.120E-06,-0.012
-2.110E-06,-0.016
-2.100E-06,0.004
-2.090E-06,0.016
-2.080E-06,0.008
-2.070E-06,-0.024
-2.060E-06,-0.064
-2.050E-06,-0.080
-2.040E-06,-0.080
-2.030E-06,-0.040
-2.020E-06,-0.008
-2.010E-06,0.024
-2.000E-06,0.020
-1.990E-06,0.024
-1.980E-06,0.008
-1.970E-06,-0.008
-1.960E-06,0.008
-1.950E-06,0.000
-1.940E-06,-0.008
-1.930E-06,-0.020
-1.920E-06,-0.012
-1.910E-06,-0.008
-1.900E-06,0.028
-1.890E-06,0.052
-1.880E-06,0.064
-1.870E-06,0.068
-1.860E-06,0.052
-1.850E-06,0.020
-1.840E-06,0.012
-1.830E-06,-0.004
-1.820E-06,-0.028
-1.810E-06,0.008
-1.800E-06,0.008
-1.790E-06,0.040
-1.780E-06,0.052
-1.770E-06,0.072
-1.760E-06,0.024
-1.750E-06,0.008
-1.740E-06,-0.080
-1.730E-06,-0.108
-1.720E-06,-0.124
-1.710E-06,-0.056
-1.700E-06,0.008
-1.690E-06,0.080
-1.680E-06,0.104
-1.670E-06,0.076
-1.660E-06,0.024
-1.650E-06,0.004
-1.640E-06,0.024
-1.630E-06,0.068
-1.620E-06,0.144
-1.610E-06,0.160
-1.600E-06,0.052
-1.590E-06,-0.064
-1.580E-06,-0.204
-1.570E-06,-0.240
-1.560E-06,-0.144
-1.550E-06,0.044
-1.540E-06,0.172
-1.530E-06,0.252
-1.520E-06,0.172
-1.510E-06,0.000
-1.500E-06,-0.152
-1.490E-06,-0.208
-1.480E-06,-0.244
-1.470E-06,-0.192
-1.460E-06,-0.088
-1.450E-06,-0.008
-1.440E-06,0.092
-1.430E-06,0.104
-1.420E-06,0.092
-1.410E-06,0.020
-1.400E-06,-0.068
-1.390E-06,-0.108
-1.380E-06,-0.080
-1.370E-06,0.008
-1.360E-06,0.076
-1.350E-06,0.088
-1.340E-06,0.012
-1.330E-06,-0.040
-1.320E-06,-0.068
-1.310E-06,-0.040
-1.300E-06,0.032
-1.290E-06,0.068
-1.280E-06,0.056
-1.270E-06,0.004
-1.260E-06,-0.040
-1.250E-06,-0.060
-1.240E-06,-0.028
-1.230E-06,0.020
-1.220E-06,0.060
-1.210E-06,0.072
-1.200E-06,0.040
-1.190E-06,-0.004
-1.180E-06,-0.048
-1.170E-06,-0.052
-1.160E-06,-0.028
-1.150E-06,0.016
-1.140E-06,0.044
-1.130E-06,0.052
-1.120E-06,0.028
-1.110E-06,0.000
-1.100E-06,-0.024
-1.090E-06,-0.036
-1.080E-06,-0.012
-1.070E-06,0.004
-1.060E-06,0.044
-1.050E-06,0.052
-1.040E-06,0.056
-1.030E-06,0.028
-1.020E-06,0.004
-1.010E-06,-0.008
-1.000E-06,0.000
-9.900E-07,0.020
-9.800E-07,0.048
-9.700E-07,0.064
-9.600E-07,0.068
-9.500E-07,0.064
-9.400E-07,0.056
-9.300E-07,0.056
-9.200E-07,0.048
-9.100E-07,0.060
-9.000E-07,0.068
-8.900E-07,0.076
-8.800E-07,0.076
-8.700E-07,0.076
-8.600E-07,0.060
-8.500E-07,0.032
-8.400E-07,0.028
-8.300E-07,0.004
-8.200E-07,-0.108
-8.100E-07,-0.268
-8.000E-07,-0.376
-7.900E-07,-0.288
-7.800E-07,-0.120
-7.700E-07,0.136
-7.600E-07,0.272
-7.500E-07,0.240
-7.400E-07,0.084
-7.300E-07,-0.124
-7.200E-07,-0.232
-7.100E-07,-0.156
-7.000E-07,0.056
-6.900E-07,0.184
-6.800E-07,0.192
-6.700E-07,0.088
-6.600E-07,-0.052
-6.500E-07,-0.096
-6.400E-07,-0.104
-6.300E-07,-0.044
-6.200E-07,0.024
-6.100E-07,0.040
-6.000E-07,0.000
-5.900E-07,-0.044
-5.800E-07,-0.052
-5.700E-07,-0.008
-5.600E-07,0.056
-5.500E-07,0.072
-5.400E-07,0.056
-5.300E-07,0.012
-5.200E-07,-0.008
-5.100E-07,-0.008
-5.000E-07,0.016
-4.900E-07,0.024
-4.800E-07,0.028
-4.700E-07,0.024
-4.600E-07,0.020
-4.500E-07,0.004
-4.400E-07,0.028
-4.300E-07,-0.012
-4.200E-07,-0.004
-4.100E-07,-0.028
-4.000E-07,-0.048
-3.900E-07,-0.032
-3.800E-07,-0.024
-3.700E-07,-0.040
-3.600E-07,-0.012
-3.500E-07,-0.008
-3.400E-07,0.012
-3.300E-07,0.052
-3.200E-07,0.052
-3.100E-07,0.052
-3.000E-07,0.024
-2.900E-07,0.020
-2.800E-07,0.012
-2.700E-07,0.016
-2.600E-07,0.016
-2.500E-07,0.024
-2.400E-07,0.036
-2.300E-07,0.036
-2.200E-07,0.024
-2.100E-07,0.008
-2.000E-07,-0.008
-1.900E-07,-0.004
-1.800E-07,0.008
-1.700E-07,0.028
-1.600E-07,0.048
-1.500E-07,0.040
-1.400E-07,0.032
-1.300E-07,0.040
-1.200E-07,0.056
-1.100E-07,0.064
-1.000E-07,0.072
-9.000E-08,0.076
-8.000E-08,0.092
-7.000E-08,0.056
-6.000E-08,-0.136
-5.000E-08,-0.228
-4.000E-08,-0.368
-3.000E-08,-0.264
-2.000E-08,0.020
-1.000E-08,0.264
0.000E+00,0.356
1.000E-08,0.252
2.000E-08,-0.076
3.000E-08,-0.272
4.000E-08,-0.284
5.000E-08,-0.076
6.000E-08,0.012
7.000E-08,0.128
8.000E-08,0.072
9.000E-08,-0.024
1.000E-07,-0.084
1.100E-07,-0.060
1.200E-07,-0.028
1.300E-07,0.024
1.400E-07,0.096
1.500E-07,0.068
1.600E-07,0.016
1.700E-07,-0.084
1.800E-07,-0.108
1.900E-07,-0.084
2.000E-07,-0.028
2.100E-07,0.028
2.200E-07,0.040
2.300E-07,0.032
2.400E-07,0.000
2.500E-07,-0.012
2.600E-07,-0.040
2.700E-07,-0.004
2.800E-07,0.028
2.900E-07,0.064
3.000E-07,0.072
3.100E-07,0.044
3.200E-07,0.012
3.300E-07,-0.012
3.400E-07,-0.012
3.500E-07,-0.004
3.600E-07,0.008
3.700E-07,0.004
3.800E-07,-0.004
3.900E-07,-0.024
4.000E-07,-0.028
4.100E-07,-0.028
4.200E-07,-0.012
4.300E-07,0.012
4.400E-07,0.028
4.500E-07,0.036
4.600E-07,0.024
4.700E-07,0.016
4.800E-07,0.008
4.900E-07,0.008
5.000E-07,0.020
5.100E-07,0.032
5.200E-07,0.032
5.300E-07,0.036
5.400E-07,0.032
5.500E-07,0.024
5.600E-07,0.016
5.700E-07,0.012
5.800E-07,0.016
5.900E-07,0.028
6.000E-07,0.048
6.100E-07,0.060
6.200E-07,0.056
6.300E-07,0.044
6.400E-07,0.028
6.500E-07,0.016
6.600E-07,0.012
6.700E-07,0.008
6.800E-07,0.020
6.900E-07,0.020
7.000E-07,0.012
7.100E-07,0.004
7.200E-07,0.008
7.300E-07,0.012
7.400E-07,0.028
7.500E-07,0.020
7.600E-07,0.036
7.700E-07,0.032
7.800E-07,0.040
7.900E-07,0.048
8.000E-07,0.072
8.100E-07,0.088
8.200E-07,0.112
8.300E-07,0.112
8.400E-07,0.104
8.500E-07,0.084
8.600E-07,0.068
8.700E-07,0.052
8.800E-07,0.020
8.900E-07,0.000
9.000E-07,-0.040
9.100E-07,-0.064
9.200E-07,-0.088
9.300E-07,-0.104
9.400E-07,-0.084
9.500E-07,-0.040
9.600E-07,-0.008
9.700E-07,0.008
9.800E-07,0.000
9.900E-07,-0.024
1.000E-06,-0.040
1.010E-06,-0.032
1.020E-06,-0.028
1.030E-06,0.016
1.040E-06,0.040
1.050E-06,0.068
1.060E-06,0.064
1.070E-06,0.060
1.080E-06,0.044
1.090E-06,0.052
1.100E-06,0.072
1.110E-06,0.112
1.120E-06,0.144
1.130E-06,0.168
1.140E-06,0.128
1.150E-06,0.084
1.160E-06,0.000
1.170E-06,-0.084
1.180E-06,-0.144
1.190E-06,-0.196
1.200E-06,-0.200
1.210E-06,-0.184
1.220E-06,-0.132
1.230E-06,-0.096
1.240E-06,-0.044
1.250E-06,-0.032
1.260E-06,-0.016
1.270E-06,-0.004
1.280E-06,0.008
1.290E-06,0.012
1.300E-06,0.004
1.310E-06,0.012
1.320E-06,0.020
1.330E-06,0.040
1.340E-06,0.056
1.350E-06,0.068
1.360E-06,0.064
1.370E-06,0.056
1.380E-06,0.060
1.390E-06,0.056
1.400E-06,0.088
1.410E-06,0.088
1.420E-06,0.080
1.430E-06,0.064
1.440E-06,0.044
1.450E-06,0.036
1.460E-06,0.064
1.470E-06,0.088
1.480E-06,0.096
1.490E-06,0.096
1.500E-06,0.056
1.510E-06,0.012
1.520E-06,-0.056
1.530E-06,-0.108
1.540E-06,-0.152
1.550E-06,-0.140
1.560E-06,-0.128
1.570E-06,-0.088
1.580E-06,-0.068
1.590E-06,-0.048
1.600E-06,-0.040
1.610E-06,-0.028
1.620E-06,-0.004
1.630E-06,-0.004
1.640E-06,0.024
1.650E-06,0.012
1.660E-06,0.012
1.670E-06,0.004
1.680E-06,0.016
1.690E-06,0.008
1.700E-06,0.032
1.710E-06,0.032
1.720E-06,0.036
1.730E-06,0.032
1.740E-06,0.040
1.750E-06,0.048
1.760E-06,0.060
1.770E-06,0.056
1.780E-06,0.064
1.790E-06,0.088
1.800E-06,0.112
1.810E-06,0.144
1.820E-06,0.144
1.830E-06,0.140
1.840E-06,0.132
1.850E-06,0.140
1.860E-06,0.152
1.870E-06,0.144
1.880E-06,0.140
1.890E-06,0.100
1.900E-06,0.076
1.910E-06,0.060
1.920E-06,0.068
1.930E-06,0.080
1.940E-06,0.072
1.950E-06,0.052
1.960E-06,0.020
1.970E-06,0.000
1.980E-06,-0.004
1.990E-06,-0.004
2.000E-06,0.020
2.010E-06,0.040
2.020E-06,0.064
2.030E-06,0.088
2.040E-06,0.120
2.050E-06,0.104
2.060E-06,0.124
2.070E-06,0.124
2.080E-06,0.152
2.090E-06,0.160
2.100E-06,0.180
2.110E-06,0.140
2.120E-06,0.132
2.130E-06,0.008
2.140E-06,-0.068
2.150E-06,-0.172
2.160E-06,-0.232
2.170E-06,-0.160
2.180E-06,-0.044
2.190E-06,0.092
2.200E-06,0.088
2.210E-06,-0.080
2.220E-06,-0.296
2.230E-06,-0.412
2.240E-06,-0.512
2.250E-06,-0.368
2.260E-06,-0.136
2.270E-06,0.092
2.280E-06,0.068
2.290E-06,0.008
2.300E-06,-0.144
2.310E-06,-0.116
2.320E-06,0.000
2.330E-06,0.108
2.340E-06,0.112
2.350E-06,0.120
2.360E-06,0.032
2.370E-06,0.012
2.380E-06,0.044
2.390E-06,0.096
2.400E-06,0.084
2.410E-06,0.072
2.420E-06,0.028
2.430E-06,-0.008
2.440E-06,0.036
2.450E-06,0.052
2.460E-06,0.044
2.470E-06,0.024
2.480E-06,0.012
2.490E-06,-0.036
2.500E-06,-0.024
2.510E-06,-0.072
2.520E-06,-0.064
2.530E-06,-0.116
2.540E-06,-0.080
2.550E-06,-0.028
2.560E-06,0.044
2.570E-06,0.080
2.580E-06,0.092
2.590E-06,0.092
2.600E-06,0.044
2.610E-06,0.052
2.620E-06,0.020
2.630E-06,0.016
2.640E-06,0.044
2.650E-06,0.108
2.660E-06,0.144
2.670E-06,0.188
2.680E-06,0.160
2.690E-06,0.124
2.700E-06,0.092
2.710E-06,0.084
2.720E-06,0.104
2.730E-06,0.132
2.740E-06,0.156
2.750E-06,0.152
2.760E-06,0.156
2.770E-06,0.156
2.780E-06,0.144
2.790E-06,0.128
2.800E-06,0.108
2.810E-06,0.108
2.820E-06,0.124
2.830E-06,0.140
2.840E-06,0.164
2.850E-06,0.172
2.860E-06,0.156
2.870E-06,0.152
2.880E-06,0.140
2.890E-06,0.144
2.900E-06,0.164
2.910E-06,0.176
2.920E-06,0.160
2.930E-06,0.144
2.940E-06,0.108
2.950E-06,0.084
2.960E-06,0.056
2.970E-06,0.020
2.980E-06,0.044
2.990E-06,0.004
3.000E-06,0.048
3.010E-06,0.072
3.020E-06,-0.040
3.030E-06,-0.236
3.040E-06,-0.508
3.050E-06,-0.508
3.060E-06,-0.508
3.070E-06,-0.432
3.080E-06,-0.088
3.090E-06,0.400
3.100E-06,0.492
3.110E-06,0.276
3.120E-06,-0.212
3.130E-06,-0.512
3.140E-06,-0.512
3.150E-06,-0.244
3.160E-06,0.040
3.170E-06,0.208
3.180E-06,0.044
3.190E-06,-0.104
3.200E-06,-0.240
3.210E-06,-0.212
3.220E-06,-0.380
3.230E-06,-0.424
3.240E-06,-0.332
3.250E-06,-0.008
3.260E-06,0.144
3.270E-06,0.128
3.280E-06,-0.040
3.290E-06,-0.232
3.300E-06,-0.236
3.310E-06,-0.104
3.320E-06,0.076
3.330E-06,0.220
3.340E-06,0.220
