mediciones/5-15/40/WaveData47508.csv

#timebase=2000000(ps)
,#voltbase=100000(mv/100)
#size=4000
-8.400E-06,-0.020
-8.390E-06,0.008
-8.380E-06,0.060
-8.370E-06,0.048
-8.360E-06,-0.004
-8.350E-06,-0.020
-8.340E-06,-0.020
-8.330E-06,-0.028
-8.320E-06,-0.004
-8.310E-06,0.028
-8.300E-06,0.036
-8.290E-06,0.012
-8.280E-06,0.000
-8.270E-06,-0.004
-8.260E-06,-0.008
-8.250E-06,0.000
-8.240E-06,-0.004
-8.230E-06,0.004
-8.220E-06,0.004
-8.210E-06,0.008
-8.200E-06,0.012
-8.190E-06,0.016
-8.180E-06,0.008
-8.170E-06,-0.004
-8.160E-06,-0.008
-8.150E-06,-0.008
-8.140E-06,0.004
-8.130E-06,0.008
-8.120E-06,0.024
-8.110E-06,0.016
-8.100E-06,0.004
-8.090E-06,-0.004
-8.080E-06,-0.004
-8.070E-06,-0.008
-8.060E-06,0.004
-8.050E-06,0.012
-8.040E-06,0.016
-8.030E-06,0.012
-8.020E-06,0.000
-8.010E-06,0.000
-8.000E-06,0.000
-7.990E-06,0.000
-7.980E-06,0.004
-7.970E-06,0.004
-7.960E-06,0.008
-7.950E-06,0.012
-7.940E-06,0.004
-7.930E-06,0.008
-7.920E-06,0.004
-7.910E-06,0.000
-7.900E-06,0.004
-7.890E-06,-0.004
-7.880E-06,-0.004
-7.870E-06,0.008
-7.860E-06,0.012
-7.850E-06,0.012
-7.840E-06,0.008
-7.830E-06,0.000
-7.820E-06,-0.004
-7.810E-06,-0.004
-7.800E-06,0.000
-7.790E-06,0.000
-7.780E-06,0.020
-7.770E-06,0.012
-7.760E-06,0.004
-7.750E-06,-0.008
-7.740E-06,-0.008
-7.730E-06,-0.008
-7.720E-06,-0.004
-7.710E-06,-0.004
-7.700E-06,-0.020
-7.690E-06,-0.024
-7.680E-06,-0.008
-7.670E-06,0.008
-7.660E-06,0.020
-7.650E-06,0.028
-7.640E-06,0.012
-7.630E-06,-0.004
-7.620E-06,-0.024
-7.610E-06,-0.020
-7.600E-06,-0.008
-7.590E-06,0.012
-7.580E-06,0.028
-7.570E-06,0.024
-7.560E-06,0.012
-7.550E-06,-0.004
-7.540E-06,-0.012
-7.530E-06,-0.008
-7.520E-06,0.000
-7.510E-06,0.008
-7.500E-06,0.016
-7.490E-06,0.012
-7.480E-06,0.008
-7.470E-06,0.004
-7.460E-06,0.000
-7.450E-06,-0.004
-7.440E-06,0.000
-7.430E-06,0.000
-7.420E-06,0.004
-7.410E-06,0.004
-7.400E-06,0.012
-7.390E-06,0.016
-7.380E-06,0.008
-7.370E-06,-0.008
-7.360E-06,-0.012
-7.350E-06,-0.004
-7.340E-06,-0.004
-7.330E-06,0.012
-7.320E-06,0.028
-7.310E-06,0.024
-7.300E-06,0.012
-7.290E-06,-0.008
-7.280E-06,0.000
-7.270E-06,-0.004
-7.260E-06,-0.004
-7.250E-06,0.000
-7.240E-06,0.000
-7.230E-06,0.008
-7.220E-06,0.016
-7.210E-06,0.004
-7.200E-06,-0.012
-7.190E-06,-0.016
-7.180E-06,-0.012
-7.170E-06,0.000
-7.160E-06,0.024
-7.150E-06,0.032
-7.140E-06,0.004
-7.130E-06,-0.008
-7.120E-06,-0.020
-7.110E-06,-0.016
-7.100E-06,0.004
-7.090E-06,0.024
-7.080E-06,0.028
-7.070E-06,0.012
-7.060E-06,0.004
-7.050E-06,-0.012
-7.040E-06,-0.004
-7.030E-06,-0.004
-7.020E-06,0.008
-7.010E-06,0.012
-7.000E-06,0.012
-6.990E-06,0.008
-6.980E-06,0.000
-6.970E-06,0.000
-6.960E-06,0.000
-6.950E-06,-0.004
-6.940E-06,0.000
-6.930E-06,0.000
-6.920E-06,0.004
-6.910E-06,0.012
-6.900E-06,0.012
-6.890E-06,0.008
-6.880E-06,0.000
-6.870E-06,0.000
-6.860E-06,-0.004
-6.850E-06,0.000
-6.840E-06,0.012
-6.830E-06,0.012
-6.820E-06,0.008
-6.810E-06,0.008
-6.800E-06,-0.028
-6.790E-06,-0.024
-6.780E-06,0.000
-6.770E-06,0.032
-6.760E-06,0.024
-6.750E-06,0.020
-6.740E-06,-0.008
-6.730E-06,-0.024
-6.720E-06,-0.012
-6.710E-06,0.016
-6.700E-06,0.024
-6.690E-06,0.024
-6.680E-06,0.012
-6.670E-06,-0.004
-6.660E-06,-0.020
-6.650E-06,-0.012
-6.640E-06,0.012
-6.630E-06,0.020
-6.620E-06,0.016
-6.610E-06,-0.004
-6.600E-06,-0.008
-6.590E-06,-0.004
-6.580E-06,-0.004
-6.570E-06,0.020
-6.560E-06,0.012
-6.550E-06,0.004
-6.540E-06,-0.004
-6.530E-06,-0.008
-6.520E-06,0.004
-6.510E-06,0.016
-6.500E-06,0.008
-6.490E-06,0.004
-6.480E-06,0.000
-6.470E-06,0.000
-6.460E-06,-0.004
-6.450E-06,0.004
-6.440E-06,0.008
-6.430E-06,0.012
-6.420E-06,0.008
-6.410E-06,0.000
-6.400E-06,0.000
-6.390E-06,-0.008
-6.380E-06,-0.008
-6.370E-06,0.004
-6.360E-06,0.016
-6.350E-06,0.004
-6.340E-06,0.000
-6.330E-06,-0.008
-6.320E-06,-0.016
-6.310E-06,0.004
-6.300E-06,0.020
-6.290E-06,0.024
-6.280E-06,0.012
-6.270E-06,0.004
-6.260E-06,-0.016
-6.250E-06,-0.024
-6.240E-06,0.004
-6.230E-06,0.032
-6.220E-06,0.028
-6.210E-06,0.012
-6.200E-06,-0.004
-6.190E-06,-0.024
-6.180E-06,-0.020
-6.170E-06,0.000
-6.160E-06,0.024
-6.150E-06,0.028
-6.140E-06,0.012
-6.130E-06,0.000
-6.120E-06,-0.004
-6.110E-06,-0.004
-6.100E-06,0.004
-6.090E-06,0.008
-6.080E-06,0.012
-6.070E-06,0.000
-6.060E-06,0.000
-6.050E-06,0.004
-6.040E-06,0.008
-6.030E-06,0.008
-6.020E-06,0.004
-6.010E-06,-0.004
-6.000E-06,-0.004
-5.990E-06,0.004
-5.980E-06,0.000
-5.970E-06,-0.020
-5.960E-06,-0.008
-5.950E-06,0.004
-5.940E-06,0.028
-5.930E-06,0.024
-5.920E-06,0.024
-5.910E-06,-0.008
-5.900E-06,-0.028
-5.890E-06,-0.004
-5.880E-06,0.008
-5.870E-06,0.024
-5.860E-06,0.020
-5.850E-06,0.004
-5.840E-06,-0.012
-5.830E-06,-0.008
-5.820E-06,0.004
-5.810E-06,0.016
-5.800E-06,0.000
-5.790E-06,0.004
-5.780E-06,0.004
-5.770E-06,0.000
-5.760E-06,0.000
-5.750E-06,0.004
-5.740E-06,0.008
-5.730E-06,0.008
-5.720E-06,0.000
-5.710E-06,-0.004
-5.700E-06,-0.004
-5.690E-06,0.004
-5.680E-06,0.008
-5.670E-06,0.012
-5.660E-06,0.004
-5.650E-06,0.000
-5.640E-06,0.004
-5.630E-06,0.000
-5.620E-06,0.004
-5.610E-06,0.008
-5.600E-06,0.004
-5.590E-06,0.004
-5.580E-06,0.000
-5.570E-06,0.000
-5.560E-06,-0.012
-5.550E-06,-0.024
-5.540E-06,0.004
-5.530E-06,0.024
-5.520E-06,0.052
-5.510E-06,0.036
-5.500E-06,-0.008
-5.490E-06,-0.036
-5.480E-06,-0.040
-5.470E-06,-0.024
-5.460E-06,0.016
-5.450E-06,0.044
-5.440E-06,0.040
-5.430E-06,0.012
-5.420E-06,-0.020
-5.410E-06,-0.032
-5.400E-06,-0.020
-5.390E-06,0.016
-5.380E-06,0.028
-5.370E-06,0.024
-5.360E-06,0.004
-5.350E-06,-0.008
-5.340E-06,-0.004
-5.330E-06,0.004
-5.320E-06,0.012
-5.310E-06,0.012
-5.300E-06,0.004
-5.290E-06,0.000
-5.280E-06,0.000
-5.270E-06,0.004
-5.260E-06,0.012
-5.250E-06,0.012
-5.240E-06,0.004
-5.230E-06,-0.004
-5.220E-06,0.000
-5.210E-06,0.000
-5.200E-06,0.008
-5.190E-06,0.016
-5.180E-06,0.004
-5.170E-06,-0.036
-5.160E-06,-0.032
-5.150E-06,0.012
-5.140E-06,0.056
-5.130E-06,0.044
-5.120E-06,0.008
-5.110E-06,-0.028
-5.100E-06,-0.072
-5.090E-06,-0.024
-5.080E-06,0.044
-5.070E-06,0.072
-5.060E-06,0.044
-5.050E-06,0.012
-5.040E-06,-0.032
-5.030E-06,-0.060
-5.020E-06,-0.020
-5.010E-06,0.024
-5.000E-06,0.044
-4.990E-06,0.028
-4.980E-06,0.012
-4.970E-06,-0.012
-4.960E-06,-0.016
-4.950E-06,-0.008
-4.940E-06,0.012
-4.930E-06,0.012
-4.920E-06,0.012
-4.910E-06,0.004
-4.900E-06,0.008
-4.890E-06,0.004
-4.880E-06,0.008
-4.870E-06,0.004
-4.860E-06,-0.004
-4.850E-06,-0.008
-4.840E-06,-0.008
-4.830E-06,0.008
-4.820E-06,0.028
-4.810E-06,0.024
-4.800E-06,0.012
-4.790E-06,0.000
-4.780E-06,-0.012
-4.770E-06,-0.016
-4.760E-06,-0.008
-4.750E-06,-0.028
-4.740E-06,0.004
-4.730E-06,0.024
-4.720E-06,0.044
-4.710E-06,0.024
-4.700E-06,0.000
-4.690E-06,-0.044
-4.680E-06,-0.044
-4.670E-06,0.004
-4.660E-06,0.036
-4.650E-06,0.036
-4.640E-06,0.032
-4.630E-06,0.000
-4.620E-06,-0.040
-4.610E-06,-0.020
-4.600E-06,0.000
-4.590E-06,0.020
-4.580E-06,0.020
-4.570E-06,0.016
-4.560E-06,0.004
-4.550E-06,-0.004
-4.540E-06,0.000
-4.530E-06,0.008
-4.520E-06,0.012
-4.510E-06,0.004
-4.500E-06,-0.008
-4.490E-06,0.004
-4.480E-06,0.012
-4.470E-06,0.008
-4.460E-06,0.020
-4.450E-06,0.008
-4.440E-06,-0.004
-4.430E-06,-0.008
-4.420E-06,-0.004
-4.410E-06,0.008
-4.400E-06,0.008
-4.390E-06,0.016
-4.380E-06,0.008
-4.370E-06,0.004
-4.360E-06,-0.012
-4.350E-06,-0.008
-4.340E-06,0.000
-4.330E-06,0.012
-4.320E-06,0.020
-4.310E-06,0.020
-4.300E-06,0.024
-4.290E-06,-0.008
-4.280E-06,-0.024
-4.270E-06,-0.024
-4.260E-06,-0.004
-4.250E-06,0.016
-4.240E-06,0.036
-4.230E-06,0.024
-4.220E-06,0.004
-4.210E-06,-0.008
-4.200E-06,-0.012
-4.190E-06,-0.012
-4.180E-06,0.000
-4.170E-06,0.016
-4.160E-06,0.016
-4.150E-06,0.016
-4.140E-06,0.004
-4.130E-06,0.000
-4.120E-06,-0.004
-4.110E-06,-0.004
-4.100E-06,0.008
-4.090E-06,-0.004
-4.080E-06,0.000
-4.070E-06,0.004
-4.060E-06,0.000
-4.050E-06,0.004
-4.040E-06,0.000
-4.030E-06,0.000
-4.020E-06,0.008
-4.010E-06,0.004
-4.000E-06,0.016
-3.990E-06,0.016
-3.980E-06,0.012
-3.970E-06,0.000
-3.960E-06,-0.004
-3.950E-06,0.000
-3.940E-06,0.000
-3.930E-06,0.012
-3.920E-06,0.024
-3.910E-06,0.016
-3.900E-06,0.004
-3.890E-06,-0.004
-3.880E-06,0.000
-3.870E-06,-0.004
-3.860E-06,0.012
-3.850E-06,0.016
-3.840E-06,0.012
-3.830E-06,0.008
-3.820E-06,0.004
-3.810E-06,-0.004
-3.800E-06,-0.004
-3.790E-06,0.004
-3.780E-06,0.016
-3.770E-06,0.008
-3.760E-06,0.008
-3.750E-06,0.008
-3.740E-06,0.008
-3.730E-06,0.012
-3.720E-06,0.024
-3.710E-06,0.024
-3.700E-06,0.020
-3.690E-06,0.016
-3.680E-06,-0.004
-3.670E-06,-0.040
-3.660E-06,-0.036
-3.650E-06,-0.012
-3.640E-06,0.004
-3.630E-06,0.032
-3.620E-06,0.040
-3.610E-06,0.028
-3.600E-06,-0.004
-3.590E-06,-0.012
-3.580E-06,-0.020
-3.570E-06,-0.008
-3.560E-06,0.008
-3.550E-06,0.024
-3.540E-06,0.020
-3.530E-06,0.024
-3.520E-06,0.004
-3.510E-06,-0.028
-3.500E-06,-0.020
-3.490E-06,-0.012
-3.480E-06,0.000
-3.470E-06,0.020
-3.460E-06,0.028
-3.450E-06,0.020
-3.440E-06,0.004
-3.430E-06,0.000
-3.420E-06,-0.008
-3.410E-06,-0.012
-3.400E-06,-0.004
-3.390E-06,0.012
-3.380E-06,0.024
-3.370E-06,0.020
-3.360E-06,0.004
-3.350E-06,0.000
-3.340E-06,-0.004
-3.330E-06,-0.004
-3.320E-06,0.004
-3.310E-06,0.012
-3.300E-06,0.016
-3.290E-06,0.016
-3.280E-06,0.012
-3.270E-06,0.012
-3.260E-06,0.024
-3.250E-06,0.024
-3.240E-06,0.028
-3.230E-06,0.008
-3.220E-06,-0.004
-3.210E-06,-0.016
-3.200E-06,-0.008
-3.190E-06,0.004
-3.180E-06,0.020
-3.170E-06,0.020
-3.160E-06,-0.020
-3.150E-06,-0.064
-3.140E-06,-0.092
-3.130E-06,-0.068
-3.120E-06,0.008
-3.110E-06,0.064
-3.100E-06,0.060
-3.090E-06,0.024
-3.080E-06,-0.024
-3.070E-06,-0.080
-3.060E-06,-0.056
-3.050E-06,0.036
-3.040E-06,0.092
-3.030E-06,0.092
-3.020E-06,0.024
-3.010E-06,-0.056
-3.000E-06,-0.084
-2.990E-06,-0.052
-2.980E-06,0.012
-2.970E-06,0.080
-2.960E-06,0.096
-2.950E-06,0.048
-2.940E-06,-0.028
-2.930E-06,-0.068
-2.920E-06,-0.056
-2.910E-06,-0.008
-2.900E-06,0.072
-2.890E-06,0.124
-2.880E-06,0.112
-2.870E-06,-0.040
-2.860E-06,-0.092
-2.850E-06,-0.108
-2.840E-06,-0.068
-2.830E-06,-0.004
-2.820E-06,0.120
-2.810E-06,0.144
-2.800E-06,0.032
-2.790E-06,-0.072
-2.780E-06,-0.128
-2.770E-06,-0.084
-2.760E-06,0.004
-2.750E-06,0.080
-2.740E-06,0.084
-2.730E-06,0.060
-2.720E-06,0.000
-2.710E-06,-0.044
-2.700E-06,-0.072
-2.690E-06,-0.052
-2.680E-06,0.004
-2.670E-06,0.048
-2.660E-06,0.080
-2.650E-06,0.044
-2.640E-06,-0.004
-2.630E-06,-0.044
-2.620E-06,-0.044
-2.610E-06,-0.020
-2.600E-06,0.024
-2.590E-06,0.052
-2.580E-06,0.044
-2.570E-06,0.020
-2.560E-06,0.000
-2.550E-06,-0.004
-2.540E-06,-0.020
-2.530E-06,-0.004
-2.520E-06,0.020
-2.510E-06,0.024
-2.500E-06,0.024
-2.490E-06,0.020
-2.480E-06,0.008
-2.470E-06,-0.004
-2.460E-06,-0.008
-2.450E-06,0.000
-2.440E-06,-0.004
-2.430E-06,0.008
-2.420E-06,0.012
-2.410E-06,-0.004
-2.400E-06,0.004
-2.390E-06,-0.056
-2.380E-06,-0.052
-2.370E-06,0.032
-2.360E-06,0.108
-2.350E-06,0.064
-2.340E-06,-0.056
-2.330E-06,-0.096
-2.320E-06,-0.056
-2.310E-06,0.008
-2.300E-06,0.068
-2.290E-06,0.064
-2.280E-06,0.024
-2.270E-06,-0.028
-2.260E-06,-0.040
-2.250E-06,-0.028
-2.240E-06,-0.004
-2.230E-06,0.044
-2.220E-06,0.052
-2.210E-06,0.024
-2.200E-06,-0.008
-2.190E-06,-0.020
-2.180E-06,-0.008
-2.170E-06,0.016
-2.160E-06,0.044
-2.150E-06,0.048
-2.140E-06,0.028
-2.130E-06,0.024
-2.120E-06,0.008
-2.110E-06,-0.016
-2.100E-06,-0.056
-2.090E-06,-0.020
-2.080E-06,-0.016
-2.070E-06,-0.004
-2.060E-06,0.064
-2.050E-06,0.064
-2.040E-06,-0.016
-2.030E-06,-0.140
-2.020E-06,-0.136
-2.010E-06,-0.048
-2.000E-06,0.080
-1.990E-06,0.176
-1.980E-06,0.136
-1.970E-06,0.016
-1.960E-06,-0.140
-1.950E-06,-0.180
-1.940E-06,-0.104
-1.930E-06,0.056
-1.920E-06,0.160
-1.910E-06,0.156
-1.900E-06,0.048
-1.890E-06,-0.072
-1.880E-06,-0.108
-1.870E-06,-0.064
-1.860E-06,0.016
-1.850E-06,0.048
-1.840E-06,0.060
-1.830E-06,0.048
-1.820E-06,0.020
-1.810E-06,0.012
-1.800E-06,0.000
-1.790E-06,-0.028
-1.780E-06,-0.060
-1.770E-06,-0.036
-1.760E-06,-0.016
-1.750E-06,0.036
-1.740E-06,0.076
-1.730E-06,0.092
-1.720E-06,0.024
-1.710E-06,-0.056
-1.700E-06,-0.092
-1.690E-06,-0.060
-1.680E-06,0.024
-1.670E-06,0.096
-1.660E-06,0.128
-1.650E-06,0.056
-1.640E-06,-0.024
-1.630E-06,-0.120
-1.620E-06,-0.136
-1.610E-06,-0.108
-1.600E-06,0.016
-1.590E-06,0.128
-1.580E-06,0.156
-1.570E-06,0.108
-1.560E-06,-0.040
-1.550E-06,-0.124
-1.540E-06,-0.124
-1.530E-06,-0.044
-1.520E-06,0.056
-1.510E-06,0.140
-1.500E-06,0.124
-1.490E-06,0.028
-1.480E-06,-0.056
-1.470E-06,-0.104
-1.460E-06,-0.124
-1.450E-06,-0.064
-1.440E-06,0.040
-1.430E-06,0.076
-1.420E-06,0.060
-1.410E-06,0.056
-1.400E-06,0.028
-1.390E-06,-0.008
-1.380E-06,-0.056
-1.370E-06,-0.072
-1.360E-06,-0.056
-1.350E-06,0.008
-1.340E-06,0.072
-1.330E-06,0.096
-1.320E-06,0.068
-1.310E-06,-0.008
-1.300E-06,-0.076
-1.290E-06,-0.104
-1.280E-06,-0.056
-1.270E-06,0.012
-1.260E-06,0.072
-1.250E-06,0.100
-1.240E-06,0.068
-1.230E-06,-0.008
-1.220E-06,-0.072
-1.210E-06,-0.080
-1.200E-06,-0.040
-1.190E-06,0.024
-1.180E-06,0.084
-1.170E-06,0.096
-1.160E-06,0.044
-1.150E-06,-0.008
-1.140E-06,-0.052
-1.130E-06,-0.044
-1.120E-06,-0.012
-1.110E-06,0.032
-1.100E-06,0.060
-1.090E-06,0.064
-1.080E-06,0.024
-1.070E-06,-0.004
-1.060E-06,-0.028
-1.050E-06,-0.016
-1.040E-06,0.008
-1.030E-06,0.060
-1.020E-06,0.104
-1.010E-06,0.112
-1.000E-06,0.040
-9.900E-07,-0.024
-9.800E-07,-0.064
-9.700E-07,-0.044
-9.600E-07,-0.096
-9.500E-07,-0.052
-9.400E-07,0.008
-9.300E-07,0.092
-9.200E-07,0.024
-9.100E-07,-0.024
-9.000E-07,-0.012
-8.900E-07,-0.028
-8.800E-07,-0.040
-8.700E-07,-0.012
-8.600E-07,0.068
-8.500E-07,0.056
-8.400E-07,0.036
-8.300E-07,-0.032
-8.200E-07,-0.056
-8.100E-07,-0.040
-8.000E-07,0.040
-7.900E-07,0.064
-7.800E-07,0.060
-7.700E-07,0.024
-7.600E-07,-0.020
-7.500E-07,-0.044
-7.400E-07,-0.020
-7.300E-07,0.004
-7.200E-07,0.024
-7.100E-07,0.028
-7.000E-07,0.040
-6.900E-07,0.032
-6.800E-07,0.040
-6.700E-07,0.024
-6.600E-07,-0.020
-6.500E-07,-0.064
-6.400E-07,-0.048
-6.300E-07,0.020
-6.200E-07,0.084
-6.100E-07,0.108
-6.000E-07,0.056
-5.900E-07,-0.016
-5.800E-07,-0.076
-5.700E-07,-0.060
-5.600E-07,0.012
-5.500E-07,0.100
-5.400E-07,0.128
-5.300E-07,0.092
-5.200E-07,0.024
-5.100E-07,-0.032
-5.000E-07,-0.060
-4.900E-07,-0.028
-4.800E-07,0.032
-4.700E-07,0.092
-4.600E-07,0.108
-4.500E-07,0.088
-4.400E-07,0.020
-4.300E-07,-0.024
-4.200E-07,-0.024
-4.100E-07,0.024
-4.000E-07,0.088
-3.900E-07,0.124
-3.800E-07,0.112
-3.700E-07,0.060
-3.600E-07,-0.008
-3.500E-07,-0.064
-3.400E-07,-0.056
-3.300E-07,0.000
-3.200E-07,0.076
-3.100E-07,0.096
-3.000E-07,0.040
-2.900E-07,-0.008
-2.800E-07,-0.056
-2.700E-07,-0.028
-2.600E-07,0.052
-2.500E-07,0.136
-2.400E-07,0.152
-2.300E-07,0.096
-2.200E-07,-0.032
-2.100E-07,-0.148
-2.000E-07,-0.172
-1.900E-07,-0.076
-1.800E-07,0.076
-1.700E-07,0.220
-1.600E-07,0.260
-1.500E-07,0.188
-1.400E-07,0.064
-1.300E-07,-0.068
-1.200E-07,-0.100
-1.100E-07,-0.040
-1.000E-07,0.096
-9.000E-08,0.148
-8.000E-08,0.148
-7.000E-08,0.136
-6.000E-08,-0.152
-5.000E-08,-0.452
-4.000E-08,-0.512
-3.000E-08,-0.512
-2.000E-08,-0.512
-1.000E-08,-0.240
0.000E+00,0.540
1.000E-08,0.536
2.000E-08,0.536
3.000E-08,0.184
4.000E-08,-0.512
5.000E-08,-0.512
6.000E-08,-0.512
7.000E-08,-0.036
8.000E-08,0.540
9.000E-08,0.540
1.000E-07,0.536
1.100E-07,0.004
1.200E-07,-0.484
1.300E-07,-0.512
1.400E-07,-0.388
1.500E-07,0.008
1.600E-07,0.356
1.700E-07,0.488
1.800E-07,0.408
1.900E-07,0.088
2.000E-07,-0.168
2.100E-07,-0.356
2.200E-07,-0.276
2.300E-07,-0.040
2.400E-07,0.284
2.500E-07,0.456
2.600E-07,0.420
2.700E-07,0.208
2.800E-07,-0.072
2.900E-07,-0.236
3.000E-07,-0.232
3.100E-07,-0.012
3.200E-07,0.224
3.300E-07,0.424
3.400E-07,0.400
3.500E-07,0.228
3.600E-07,-0.032
3.700E-07,-0.196
3.800E-07,-0.248
3.900E-07,-0.268
4.000E-07,-0.280
4.100E-07,-0.264
4.200E-07,-0.152
4.300E-07,-0.016
4.400E-07,0.112
4.500E-07,0.248
4.600E-07,0.256
4.700E-07,0.092
4.800E-07,-0.164
4.900E-07,-0.276
5.000E-07,-0.448
5.100E-07,-0.424
5.200E-07,-0.268
5.300E-07,-0.048
5.400E-07,0.212
5.500E-07,0.396
5.600E-07,0.352
5.700E-07,0.072
5.800E-07,-0.180
5.900E-07,-0.292
6.000E-07,-0.180
6.100E-07,0.040
6.200E-07,0.272
6.300E-07,0.328
6.400E-07,0.260
6.500E-07,0.084
6.600E-07,-0.096
6.700E-07,-0.172
6.800E-07,-0.128
6.900E-07,0.048
7.000E-07,0.216
7.100E-07,0.308
7.200E-07,0.292
7.300E-07,0.208
7.400E-07,0.080
7.500E-07,-0.036
7.600E-07,-0.160
7.700E-07,-0.252
7.800E-07,-0.328
7.900E-07,-0.352
8.000E-07,-0.188
8.100E-07,0.036
8.200E-07,0.240
8.300E-07,0.276
8.400E-07,0.220
8.500E-07,0.048
8.600E-07,-0.188
8.700E-07,-0.296
8.800E-07,-0.228
8.900E-07,0.012
9.000E-07,0.252
9.100E-07,0.420
9.200E-07,0.388
9.300E-07,0.188
9.400E-07,-0.108
9.500E-07,-0.300
9.600E-07,-0.336
9.700E-07,-0.152
9.800E-07,0.092
9.900E-07,0.284
1.000E-06,0.328
1.010E-06,0.216
1.020E-06,0.076
1.030E-06,-0.036
1.040E-06,-0.088
1.050E-06,-0.120
1.060E-06,-0.040
1.070E-06,0.028
1.080E-06,0.116
1.090E-06,0.176
1.100E-06,0.168
1.110E-06,0.124
1.120E-06,0.052
1.130E-06,-0.040
1.140E-06,-0.108
1.150E-06,-0.052
1.160E-06,0.060
1.170E-06,0.216
1.180E-06,0.260
1.190E-06,0.184
1.200E-06,0.028
1.210E-06,-0.068
1.220E-06,-0.060
1.230E-06,0.060
1.240E-06,0.208
1.250E-06,0.308
1.260E-06,0.328
1.270E-06,0.220
1.280E-06,0.056
1.290E-06,-0.136
1.300E-06,-0.204
1.310E-06,-0.296
1.320E-06,-0.312
1.330E-06,-0.284
1.340E-06,-0.100
1.350E-06,0.208
1.360E-06,0.408
1.370E-06,0.440
1.380E-06,0.220
1.390E-06,-0.264
1.400E-06,-0.512
1.410E-06,-0.512
1.420E-06,-0.512
1.430E-06,-0.092
1.440E-06,0.540
1.450E-06,0.540
1.460E-06,0.540
1.470E-06,0.172
1.480E-06,-0.512
1.490E-06,-0.512
1.500E-06,-0.512
1.510E-06,-0.512
1.520E-06,0.316
1.530E-06,0.540
1.540E-06,0.540
1.550E-06,0.424
1.560E-06,-0.288
1.570E-06,-0.512
1.580E-06,-0.508
1.590E-06,-0.308
1.600E-06,0.296
1.610E-06,0.540
1.620E-06,0.540
1.630E-06,0.368
1.640E-06,-0.204
1.650E-06,-0.512
1.660E-06,-0.512
1.670E-06,-0.276
1.680E-06,0.272
1.690E-06,0.544
1.700E-06,0.544
1.710E-06,0.340
1.720E-06,-0.136
1.730E-06,-0.500
1.740E-06,-0.512
1.750E-06,-0.256
1.760E-06,0.184
1.770E-06,0.520
1.780E-06,0.536
1.790E-06,0.344
1.800E-06,-0.044
1.810E-06,-0.328
1.820E-06,-0.396
1.830E-06,-0.188
1.840E-06,0.160
1.850E-06,0.444
1.860E-06,0.512
1.870E-06,0.360
1.880E-06,0.084
1.890E-06,-0.148
1.900E-06,-0.212
1.910E-06,-0.076
1.920E-06,0.188
1.930E-06,0.400
1.940E-06,0.480
1.950E-06,0.372
1.960E-06,0.164
1.970E-06,-0.032
1.980E-06,-0.108
1.990E-06,-0.020
2.000E-06,0.156
2.010E-06,0.340
2.020E-06,0.400
2.030E-06,0.340
2.040E-06,0.176
2.050E-06,0.012
2.060E-06,-0.060
2.070E-06,-0.008
2.080E-06,0.128
2.090E-06,0.264
2.100E-06,0.340
2.110E-06,0.304
2.120E-06,0.192
2.130E-06,0.076
2.140E-06,0.008
2.150E-06,0.012
2.160E-06,0.068
2.170E-06,0.140
2.180E-06,0.144
2.190E-06,0.100
2.200E-06,0.040
2.210E-06,0.040
2.220E-06,0.096
2.230E-06,0.184
2.240E-06,0.244
2.250E-06,0.216
2.260E-06,0.152
2.270E-06,0.024
2.280E-06,-0.140
2.290E-06,-0.268
2.300E-06,-0.348
2.310E-06,-0.364
2.320E-06,-0.252
2.330E-06,0.052
2.340E-06,0.360
2.350E-06,0.400
2.360E-06,0.284
2.370E-06,0.200
2.380E-06,-0.044
2.390E-06,-0.308
2.400E-06,-0.164
2.410E-06,0.116
2.420E-06,0.404
2.430E-06,0.412
2.440E-06,0.180
2.450E-06,-0.096
2.460E-06,-0.140
2.470E-06,-0.108
2.480E-06,0.020
2.490E-06,0.112
2.500E-06,0.224
2.510E-06,0.208
2.520E-06,0.168
2.530E-06,0.052
2.540E-06,-0.052
2.550E-06,-0.056
2.560E-06,0.012
2.570E-06,0.156
2.580E-06,0.244
2.590E-06,0.296
2.600E-06,0.240
2.610E-06,0.160
2.620E-06,0.068
2.630E-06,0.040
2.640E-06,0.076
2.650E-06,0.156
2.660E-06,0.220
2.670E-06,0.232
2.680E-06,0.216
2.690E-06,0.160
2.700E-06,0.112
2.710E-06,0.076
2.720E-06,0.088
2.730E-06,0.132
2.740E-06,0.188
2.750E-06,0.224
2.760E-06,0.220
2.770E-06,0.192
2.780E-06,0.140
2.790E-06,0.112
2.800E-06,0.104
2.810E-06,0.128
2.820E-06,0.144
2.830E-06,0.160
2.840E-06,0.156
2.850E-06,0.132
2.860E-06,0.104
2.870E-06,0.084
2.880E-06,0.104
2.890E-06,0.140
2.900E-06,0.184
2.910E-06,0.204
2.920E-06,0.196
2.930E-06,0.168
2.940E-06,0.136
2.950E-06,0.108
2.960E-06,0.124
2.970E-06,0.140
2.980E-06,0.176
2.990E-06,0.192
3.000E-06,0.188
3.010E-06,0.160
3.020E-06,0.132
3.030E-06,0.108
3.040E-06,0.112
3.050E-06,0.132
3.060E-06,0.160
3.070E-06,0.180
3.080E-06,0.192
3.090E-06,0.168
3.100E-06,0.140
3.110E-06,0.124
3.120E-06,0.116
3.130E-06,0.128
3.140E-06,0.156
3.150E-06,0.180
3.160E-06,0.188
3.170E-06,0.168
3.180E-06,0.144
3.190E-06,0.112
3.200E-06,0.104
3.210E-06,0.112
3.220E-06,0.136
3.230E-06,0.160
3.240E-06,0.176
3.250E-06,0.176
3.260E-06,0.164
