mediciones/5-15/40/WaveData47501.csv

#timebase=2000000(ps)
,#voltbase=1000000(mv/100)
#size=4000
-8.400E-06,0.040
-8.390E-06,0.000
-8.380E-06,0.040
-8.370E-06,0.000
-8.360E-06,0.040
-8.350E-06,0.040
-8.340E-06,0.040
-8.330E-06,0.040
-8.320E-06,0.040
-8.310E-06,0.040
-8.300E-06,0.000
-8.290E-06,0.000
-8.280E-06,0.080
-8.270E-06,0.040
-8.260E-06,0.040
-8.250E-06,0.040
-8.240E-06,0.040
-8.230E-06,0.080
-8.220E-06,0.000
-8.210E-06,0.000
-8.200E-06,0.040
-8.190E-06,0.040
-8.180E-06,0.080
-8.170E-06,0.040
-8.160E-06,0.080
-8.150E-06,0.080
-8.140E-06,0.080
-8.130E-06,0.040
-8.120E-06,0.080
-8.110E-06,0.040
-8.100E-06,0.080
-8.090E-06,0.120
-8.080E-06,0.120
-8.070E-06,0.000
-8.060E-06,0.040
-8.050E-06,0.080
-8.040E-06,0.040
-8.030E-06,0.040
-8.020E-06,0.080
-8.010E-06,0.080
-8.000E-06,0.080
-7.990E-06,0.080
-7.980E-06,0.000
-7.970E-06,0.080
-7.960E-06,0.120
-7.950E-06,0.080
-7.940E-06,0.000
-7.930E-06,0.080
-7.920E-06,0.080
-7.910E-06,0.040
-7.900E-06,0.080
-7.890E-06,0.120
-7.880E-06,0.120
-7.870E-06,0.040
-7.860E-06,0.080
-7.850E-06,0.040
-7.840E-06,0.040
-7.830E-06,0.080
-7.820E-06,0.080
-7.810E-06,0.040
-7.800E-06,0.000
-7.790E-06,0.040
-7.780E-06,0.040
-7.770E-06,0.120
-7.760E-06,0.120
-7.750E-06,0.120
-7.740E-06,0.000
-7.730E-06,0.040
-7.720E-06,0.080
-7.710E-06,0.080
-7.700E-06,0.120
-7.690E-06,0.120
-7.680E-06,0.120
-7.670E-06,0.040
-7.660E-06,0.000
-7.650E-06,0.040
-7.640E-06,0.040
-7.630E-06,0.040
-7.620E-06,0.000
-7.610E-06,0.040
-7.600E-06,0.040
-7.590E-06,0.040
-7.580E-06,0.040
-7.570E-06,0.080
-7.560E-06,0.000
-7.550E-06,0.080
-7.540E-06,0.040
-7.530E-06,0.040
-7.520E-06,0.040
-7.510E-06,0.080
-7.500E-06,0.000
-7.490E-06,0.040
-7.480E-06,0.080
-7.470E-06,0.080
-7.460E-06,0.080
-7.450E-06,0.080
-7.440E-06,0.000
-7.430E-06,0.040
-7.420E-06,0.040
-7.410E-06,0.080
-7.400E-06,0.120
-7.390E-06,0.000
-7.380E-06,0.080
-7.370E-06,0.040
-7.360E-06,0.040
-7.350E-06,0.080
-7.340E-06,0.040
-7.330E-06,0.040
-7.320E-06,0.120
-7.310E-06,0.040
-7.300E-06,0.040
-7.290E-06,0.040
-7.280E-06,0.080
-7.270E-06,0.080
-7.260E-06,0.040
-7.250E-06,0.080
-7.240E-06,0.040
-7.230E-06,0.080
-7.220E-06,0.080
-7.210E-06,0.080
-7.200E-06,0.080
-7.190E-06,0.080
-7.180E-06,0.040
-7.170E-06,0.080
-7.160E-06,0.040
-7.150E-06,0.080
-7.140E-06,0.040
-7.130E-06,0.040
-7.120E-06,0.040
-7.110E-06,0.040
-7.100E-06,0.040
-7.090E-06,0.040
-7.080E-06,0.000
-7.070E-06,0.000
-7.060E-06,0.040
-7.050E-06,0.040
-7.040E-06,0.040
-7.030E-06,0.040
-7.020E-06,0.000
-7.010E-06,0.040
-7.000E-06,0.040
-6.990E-06,0.040
-6.980E-06,0.080
-6.970E-06,0.120
-6.960E-06,0.080
-6.950E-06,0.080
-6.940E-06,0.000
-6.930E-06,0.000
-6.920E-06,0.040
-6.910E-06,0.000
-6.900E-06,0.040
-6.890E-06,0.000
-6.880E-06,0.000
-6.870E-06,0.040
-6.860E-06,0.080
-6.850E-06,0.080
-6.840E-06,0.080
-6.830E-06,0.040
-6.820E-06,0.080
-6.810E-06,0.080
-6.800E-06,0.080
-6.790E-06,0.080
-6.780E-06,0.120
-6.770E-06,0.040
-6.760E-06,0.040
-6.750E-06,0.080
-6.740E-06,0.000
-6.730E-06,0.040
-6.720E-06,0.040
-6.710E-06,0.080
-6.700E-06,0.120
-6.690E-06,0.120
-6.680E-06,0.120
-6.670E-06,0.120
-6.660E-06,0.000
-6.650E-06,0.040
-6.640E-06,0.080
-6.630E-06,0.000
-6.620E-06,0.040
-6.610E-06,0.040
-6.600E-06,0.040
-6.590E-06,0.040
-6.580E-06,0.040
-6.570E-06,0.080
-6.560E-06,0.040
-6.550E-06,0.000
-6.540E-06,0.040
-6.530E-06,0.040
-6.520E-06,0.040
-6.510E-06,0.040
-6.500E-06,0.000
-6.490E-06,0.080
-6.480E-06,0.040
-6.470E-06,0.040
-6.460E-06,0.080
-6.450E-06,0.040
-6.440E-06,0.040
-6.430E-06,0.080
-6.420E-06,0.120
-6.410E-06,0.120
-6.400E-06,0.040
-6.390E-06,0.040
-6.380E-06,0.080
-6.370E-06,0.040
-6.360E-06,0.080
-6.350E-06,0.120
-6.340E-06,0.120
-6.330E-06,0.040
-6.320E-06,0.040
-6.310E-06,0.080
-6.300E-06,0.040
-6.290E-06,0.080
-6.280E-06,0.080
-6.270E-06,0.040
-6.260E-06,0.080
-6.250E-06,0.040
-6.240E-06,0.000
-6.230E-06,0.040
-6.220E-06,0.040
-6.210E-06,0.040
-6.200E-06,0.040
-6.190E-06,0.040
-6.180E-06,0.040
-6.170E-06,0.000
-6.160E-06,0.040
-6.150E-06,0.000
-6.140E-06,0.040
-6.130E-06,-0.040
-6.120E-06,0.040
-6.110E-06,0.000
-6.100E-06,0.040
-6.090E-06,0.080
-6.080E-06,0.080
-6.070E-06,0.000
-6.060E-06,0.040
-6.050E-06,0.080
-6.040E-06,0.040
-6.030E-06,0.080
-6.020E-06,0.080
-6.010E-06,0.080
-6.000E-06,0.040
-5.990E-06,0.080
-5.980E-06,0.040
-5.970E-06,0.080
-5.960E-06,0.080
-5.950E-06,0.080
-5.940E-06,0.080
-5.930E-06,0.120
-5.920E-06,0.040
-5.910E-06,0.040
-5.900E-06,0.080
-5.890E-06,0.040
-5.880E-06,0.080
-5.870E-06,0.040
-5.860E-06,0.000
-5.850E-06,0.080
-5.840E-06,0.080
-5.830E-06,0.040
-5.820E-06,0.040
-5.810E-06,0.080
-5.800E-06,0.040
-5.790E-06,0.040
-5.780E-06,0.000
-5.770E-06,0.080
-5.760E-06,0.080
-5.750E-06,0.000
-5.740E-06,0.040
-5.730E-06,0.040
-5.720E-06,0.040
-5.710E-06,0.000
-5.700E-06,0.040
-5.690E-06,0.040
-5.680E-06,0.040
-5.670E-06,0.040
-5.660E-06,0.040
-5.650E-06,0.040
-5.640E-06,0.040
-5.630E-06,0.040
-5.620E-06,0.000
-5.610E-06,0.080
-5.600E-06,0.080
-5.590E-06,0.080
-5.580E-06,0.080
-5.570E-06,0.080
-5.560E-06,0.040
-5.550E-06,0.080
-5.540E-06,0.120
-5.530E-06,0.120
-5.520E-06,0.120
-5.510E-06,0.040
-5.500E-06,0.040
-5.490E-06,0.080
-5.480E-06,0.040
-5.470E-06,0.040
-5.460E-06,0.080
-5.450E-06,0.040
-5.440E-06,0.080
-5.430E-06,0.080
-5.420E-06,0.040
-5.410E-06,0.040
-5.400E-06,0.040
-5.390E-06,0.000
-5.380E-06,0.000
-5.370E-06,0.000
-5.360E-06,0.040
-5.350E-06,0.000
-5.340E-06,0.040
-5.330E-06,0.040
-5.320E-06,0.040
-5.310E-06,0.080
-5.300E-06,0.000
-5.290E-06,0.000
-5.280E-06,0.040
-5.270E-06,0.080
-5.260E-06,0.080
-5.250E-06,0.000
-5.240E-06,0.040
-5.230E-06,0.040
-5.220E-06,0.080
-5.210E-06,0.040
-5.200E-06,0.080
-5.190E-06,0.080
-5.180E-06,0.080
-5.170E-06,0.040
-5.160E-06,0.080
-5.150E-06,0.000
-5.140E-06,0.080
-5.130E-06,0.040
-5.120E-06,0.040
-5.110E-06,0.040
-5.100E-06,0.080
-5.090E-06,0.080
-5.080E-06,0.040
-5.070E-06,0.040
-5.060E-06,0.000
-5.050E-06,0.040
-5.040E-06,0.040
-5.030E-06,0.040
-5.020E-06,0.040
-5.010E-06,0.040
-5.000E-06,0.080
-4.990E-06,0.080
-4.980E-06,0.080
-4.970E-06,0.080
-4.960E-06,-0.040
-4.950E-06,-0.040
-4.940E-06,0.000
-4.930E-06,-0.040
-4.920E-06,0.040
-4.910E-06,-0.040
-4.900E-06,0.000
-4.890E-06,0.040
-4.880E-06,0.040
-4.870E-06,0.080
-4.860E-06,0.000
-4.850E-06,0.000
-4.840E-06,0.040
-4.830E-06,0.040
-4.820E-06,0.080
-4.810E-06,0.080
-4.800E-06,0.120
-4.790E-06,0.120
-4.780E-06,0.040
-4.770E-06,0.080
-4.760E-06,0.080
-4.750E-06,0.080
-4.740E-06,0.040
-4.730E-06,0.120
-4.720E-06,0.120
-4.710E-06,0.160
-4.700E-06,0.080
-4.690E-06,0.120
-4.680E-06,0.120
-4.670E-06,0.040
-4.660E-06,0.040
-4.650E-06,0.080
-4.640E-06,0.120
-4.630E-06,0.120
-4.620E-06,0.120
-4.610E-06,0.120
-4.600E-06,0.120
-4.590E-06,0.120
-4.580E-06,0.120
-4.570E-06,0.120
-4.560E-06,0.040
-4.550E-06,0.080
-4.540E-06,0.080
-4.530E-06,0.080
-4.520E-06,0.040
-4.510E-06,0.040
-4.500E-06,0.040
-4.490E-06,0.080
-4.480E-06,0.040
-4.470E-06,0.040
-4.460E-06,0.040
-4.450E-06,0.080
-4.440E-06,0.080
-4.430E-06,0.120
-4.420E-06,0.040
-4.410E-06,0.080
-4.400E-06,0.080
-4.390E-06,0.080
-4.380E-06,0.040
-4.370E-06,0.080
-4.360E-06,0.080
-4.350E-06,0.080
-4.340E-06,0.080
-4.330E-06,0.120
-4.320E-06,0.040
-4.310E-06,0.080
-4.300E-06,0.080
-4.290E-06,0.080
-4.280E-06,0.040
-4.270E-06,0.040
-4.260E-06,0.040
-4.250E-06,0.040
-4.240E-06,0.040
-4.230E-06,0.040
-4.220E-06,0.040
-4.210E-06,0.040
-4.200E-06,0.040
-4.190E-06,0.040
-4.180E-06,0.040
-4.170E-06,0.040
-4.160E-06,0.040
-4.150E-06,0.080
-4.140E-06,0.080
-4.130E-06,0.080
-4.120E-06,0.080
-4.110E-06,0.080
-4.100E-06,0.000
-4.090E-06,0.000
-4.080E-06,0.040
-4.070E-06,0.040
-4.060E-06,0.040
-4.050E-06,0.040
-4.040E-06,0.000
-4.030E-06,0.040
-4.020E-06,0.080
-4.010E-06,0.040
-4.000E-06,0.080
-3.990E-06,0.080
-3.980E-06,0.080
-3.970E-06,0.080
-3.960E-06,0.080
-3.950E-06,0.160
-3.940E-06,0.080
-3.930E-06,0.080
-3.920E-06,0.040
-3.910E-06,0.120
-3.900E-06,0.120
-3.890E-06,0.160
-3.880E-06,0.120
-3.870E-06,0.040
-3.860E-06,0.080
-3.850E-06,0.040
-3.840E-06,0.080
-3.830E-06,0.040
-3.820E-06,0.040
-3.810E-06,0.040
-3.800E-06,0.080
-3.790E-06,0.000
-3.780E-06,0.000
-3.770E-06,0.040
-3.760E-06,0.000
-3.750E-06,0.040
-3.740E-06,0.000
-3.730E-06,0.000
-3.720E-06,0.040
-3.710E-06,0.000
-3.700E-06,0.040
-3.690E-06,0.040
-3.680E-06,0.040
-3.670E-06,0.080
-3.660E-06,0.000
-3.650E-06,0.000
-3.640E-06,0.080
-3.630E-06,0.080
-3.620E-06,0.000
-3.610E-06,0.040
-3.600E-06,0.040
-3.590E-06,0.040
-3.580E-06,0.040
-3.570E-06,0.040
-3.560E-06,0.040
-3.550E-06,0.040
-3.540E-06,0.040
-3.530E-06,0.080
-3.520E-06,0.120
-3.510E-06,0.120
-3.500E-06,0.040
-3.490E-06,0.080
-3.480E-06,0.080
-3.470E-06,0.080
-3.460E-06,0.080
-3.450E-06,0.040
-3.440E-06,0.080
-3.430E-06,0.080
-3.420E-06,0.080
-3.410E-06,0.080
-3.400E-06,0.040
-3.390E-06,0.080
-3.380E-06,0.040
-3.370E-06,0.080
-3.360E-06,0.040
-3.350E-06,0.080
-3.340E-06,0.040
-3.330E-06,0.040
-3.320E-06,0.040
-3.310E-06,0.040
-3.300E-06,0.040
-3.290E-06,0.000
-3.280E-06,0.040
-3.270E-06,0.040
-3.260E-06,0.040
-3.250E-06,0.040
-3.240E-06,0.040
-3.230E-06,0.120
-3.220E-06,0.120
-3.210E-06,0.080
-3.200E-06,0.000
-3.190E-06,0.040
-3.180E-06,0.040
-3.170E-06,0.080
-3.160E-06,0.120
-3.150E-06,0.000
-3.140E-06,0.040
-3.130E-06,0.040
-3.120E-06,0.040
-3.110E-06,0.040
-3.100E-06,0.040
-3.090E-06,0.080
-3.080E-06,0.080
-3.070E-06,0.080
-3.060E-06,0.040
-3.050E-06,0.040
-3.040E-06,0.080
-3.030E-06,0.000
-3.020E-06,0.080
-3.010E-06,0.040
-3.000E-06,0.040
-2.990E-06,0.080
-2.980E-06,0.120
-2.970E-06,0.080
-2.960E-06,0.080
-2.950E-06,0.080
-2.940E-06,0.040
-2.930E-06,0.080
-2.920E-06,0.080
-2.910E-06,0.040
-2.900E-06,0.040
-2.890E-06,0.040
-2.880E-06,0.080
-2.870E-06,0.080
-2.860E-06,0.080
-2.850E-06,0.080
-2.840E-06,0.000
-2.830E-06,0.000
-2.820E-06,0.040
-2.810E-06,0.080
-2.800E-06,0.080
-2.790E-06,0.080
-2.780E-06,0.000
-2.770E-06,0.040
-2.760E-06,0.040
-2.750E-06,0.040
-2.740E-06,0.040
-2.730E-06,0.040
-2.720E-06,0.040
-2.710E-06,0.000
-2.700E-06,0.040
-2.690E-06,0.000
-2.680E-06,0.000
-2.670E-06,0.040
-2.660E-06,0.080
-2.650E-06,0.040
-2.640E-06,0.040
-2.630E-06,0.040
-2.620E-06,0.040
-2.610E-06,0.000
-2.600E-06,0.040
-2.590E-06,-0.040
-2.580E-06,0.000
-2.570E-06,0.000
-2.560E-06,0.040
-2.550E-06,0.040
-2.540E-06,0.040
-2.530E-06,0.000
-2.520E-06,0.000
-2.510E-06,0.040
-2.500E-06,0.120
-2.490E-06,0.080
-2.480E-06,0.040
-2.470E-06,0.040
-2.460E-06,0.040
-2.450E-06,0.120
-2.440E-06,0.040
-2.430E-06,0.040
-2.420E-06,0.040
-2.410E-06,0.040
-2.400E-06,0.040
-2.390E-06,0.000
-2.380E-06,0.040
-2.370E-06,0.040
-2.360E-06,0.040
-2.350E-06,0.040
-2.340E-06,0.000
-2.330E-06,0.040
-2.320E-06,-0.040
-2.310E-06,0.000
-2.300E-06,0.000
-2.290E-06,-0.040
-2.280E-06,0.000
-2.270E-06,-0.040
-2.260E-06,0.000
-2.250E-06,-0.040
-2.240E-06,-0.040
-2.230E-06,0.000
-2.220E-06,0.000
-2.210E-06,0.000
-2.200E-06,0.000
-2.190E-06,-0.040
-2.180E-06,-0.040
-2.170E-06,-0.040
-2.160E-06,-0.040
-2.150E-06,-0.040
-2.140E-06,0.000
-2.130E-06,0.000
-2.120E-06,-0.040
-2.110E-06,-0.040
-2.100E-06,0.000
-2.090E-06,0.000
-2.080E-06,0.000
-2.070E-06,0.000
-2.060E-06,-0.040
-2.050E-06,0.000
-2.040E-06,-0.040
-2.030E-06,0.000
-2.020E-06,0.000
-2.010E-06,0.000
-2.000E-06,0.000
-1.990E-06,0.040
-1.980E-06,-0.040
-1.970E-06,-0.040
-1.960E-06,0.000
-1.950E-06,-0.040
-1.940E-06,-0.040
-1.930E-06,0.000
-1.920E-06,0.000
-1.910E-06,0.000
-1.900E-06,0.000
-1.890E-06,0.040
-1.880E-06,0.040
-1.870E-06,-0.040
-1.860E-06,-0.040
-1.850E-06,-0.040
-1.840E-06,0.000
-1.830E-06,-0.040
-1.820E-06,-0.040
-1.810E-06,-0.080
-1.800E-06,-0.040
-1.790E-06,-0.120
-1.780E-06,-0.160
-1.770E-06,-0.160
-1.760E-06,-0.120
-1.750E-06,-0.160
-1.740E-06,-0.200
-1.730E-06,-0.200
-1.720E-06,-0.160
-1.710E-06,-0.200
-1.700E-06,-0.160
-1.690E-06,-0.200
-1.680E-06,-0.160
-1.670E-06,-0.200
-1.660E-06,-0.200
-1.650E-06,-0.240
-1.640E-06,-0.240
-1.630E-06,-0.200
-1.620E-06,-0.240
-1.610E-06,-0.240
-1.600E-06,-0.240
-1.590E-06,-0.200
-1.580E-06,-0.120
-1.570E-06,-0.200
-1.560E-06,-0.200
-1.550E-06,-0.200
-1.540E-06,-0.200
-1.530E-06,-0.120
-1.520E-06,-0.080
-1.510E-06,-0.120
-1.500E-06,-0.040
-1.490E-06,-0.040
-1.480E-06,-0.080
-1.470E-06,-0.040
-1.460E-06,0.080
-1.450E-06,0.160
-1.440E-06,0.200
-1.430E-06,0.080
-1.420E-06,0.080
-1.410E-06,-0.040
-1.400E-06,-0.120
-1.390E-06,-0.240
-1.380E-06,-0.280
-1.370E-06,-0.400
-1.360E-06,-0.480
-1.350E-06,-0.520
-1.340E-06,-0.400
-1.330E-06,-0.200
-1.320E-06,-0.080
-1.310E-06,0.000
-1.300E-06,0.000
-1.290E-06,0.000
-1.280E-06,0.000
-1.270E-06,0.040
-1.260E-06,0.120
-1.250E-06,0.200
-1.240E-06,0.120
-1.230E-06,0.080
-1.220E-06,0.080
-1.210E-06,0.040
-1.200E-06,0.080
-1.190E-06,0.160
-1.180E-06,0.120
-1.170E-06,0.120
-1.160E-06,0.080
-1.150E-06,0.040
-1.140E-06,0.080
-1.130E-06,0.040
-1.120E-06,-0.040
-1.110E-06,-0.080
-1.100E-06,-0.080
-1.090E-06,-0.120
-1.080E-06,-0.120
-1.070E-06,-0.080
-1.060E-06,-0.200
-1.050E-06,-0.240
-1.040E-06,-0.320
-1.030E-06,-0.360
-1.020E-06,-0.320
-1.010E-06,-0.320
-1.000E-06,-0.360
-9.900E-07,-0.440
-9.800E-07,-0.440
-9.700E-07,-0.440
-9.600E-07,-0.520
-9.500E-07,-0.560
-9.400E-07,-0.560
-9.300E-07,-0.560
-9.200E-07,-0.600
-9.100E-07,-0.560
-9.000E-07,-0.560
-8.900E-07,-0.520
-8.800E-07,-0.560
-8.700E-07,-0.480
-8.600E-07,-0.480
-8.500E-07,-0.480
-8.400E-07,-0.440
-8.300E-07,-0.360
-8.200E-07,-0.400
-8.100E-07,-0.400
-8.000E-07,-0.360
-7.900E-07,-0.400
-7.800E-07,-0.360
-7.700E-07,-0.320
-7.600E-07,-0.320
-7.500E-07,-0.320
-7.400E-07,-0.360
-7.300E-07,-0.360
-7.200E-07,-0.320
-7.100E-07,-0.360
-7.000E-07,-0.240
-6.900E-07,-0.200
-6.800E-07,-0.200
-6.700E-07,-0.240
-6.600E-07,-0.280
-6.500E-07,-0.320
-6.400E-07,-0.360
-6.300E-07,-0.360
-6.200E-07,-0.320
-6.100E-07,-0.440
-6.000E-07,-0.520
-5.900E-07,-0.640
-5.800E-07,-0.640
-5.700E-07,-0.600
-5.600E-07,-0.600
-5.500E-07,-0.640
-5.400E-07,-0.640
-5.300E-07,-0.680
-5.200E-07,-0.680
-5.100E-07,-0.720
-5.000E-07,-0.720
-4.900E-07,-0.680
-4.800E-07,-0.680
-4.700E-07,-0.680
-4.600E-07,-0.640
-4.500E-07,-0.640
-4.400E-07,-0.600
-4.300E-07,-0.520
-4.200E-07,-0.480
-4.100E-07,-0.480
-4.000E-07,-0.440
-3.900E-07,-0.440
-3.800E-07,-0.440
-3.700E-07,-0.440
-3.600E-07,-0.440
-3.500E-07,-0.520
-3.400E-07,-0.520
-3.300E-07,-0.480
-3.200E-07,-0.440
-3.100E-07,-0.480
-3.000E-07,-0.400
-2.900E-07,-0.320
-2.800E-07,-0.200
-2.700E-07,-0.240
-2.600E-07,-0.240
-2.500E-07,-0.200
-2.400E-07,-0.240
-2.300E-07,-0.240
-2.200E-07,-0.160
-2.100E-07,-0.200
-2.000E-07,-0.200
-1.900E-07,-0.160
-1.800E-07,-0.200
-1.700E-07,-0.240
-1.600E-07,-0.240
-1.500E-07,-0.240
-1.400E-07,-0.200
-1.300E-07,-0.280
-1.200E-07,-0.360
-1.100E-07,-0.360
-1.000E-07,-0.440
-9.000E-08,-0.440
-8.000E-08,-0.440
-7.000E-08,-0.320
-6.000E-08,-0.160
-5.000E-08,0.320
-4.000E-08,0.600
-3.000E-08,1.240
-2.000E-08,0.680
-1.000E-08,0.960
0.000E+00,0.000
1.000E-08,0.000
2.000E-08,0.040
3.000E-08,-0.040
4.000E-08,0.040
5.000E-08,-0.040
6.000E-08,-0.400
7.000E-08,-0.480
8.000E-08,-0.520
9.000E-08,-0.480
1.000E-07,-0.320
1.100E-07,-0.160
1.200E-07,-0.200
1.300E-07,-0.080
1.400E-07,-0.160
1.500E-07,-0.240
1.600E-07,-0.240
1.700E-07,-0.200
1.800E-07,-0.080
1.900E-07,-0.120
2.000E-07,-0.240
2.100E-07,-0.560
2.200E-07,-0.440
2.300E-07,-0.520
2.400E-07,-0.120
2.500E-07,-0.120
2.600E-07,-0.120
2.700E-07,-0.320
2.800E-07,-0.440
2.900E-07,-0.520
3.000E-07,-0.520
3.100E-07,-0.680
3.200E-07,-0.600
3.300E-07,-0.600
3.400E-07,-0.320
3.500E-07,-0.360
3.600E-07,-0.200
3.700E-07,-0.400
3.800E-07,-0.480
3.900E-07,-0.520
4.000E-07,-0.480
4.100E-07,-0.480
4.200E-07,-0.480
4.300E-07,-0.480
4.400E-07,-0.520
4.500E-07,-0.520
4.600E-07,-0.520
4.700E-07,-0.600
4.800E-07,-0.640
4.900E-07,-0.720
5.000E-07,-0.720
5.100E-07,-0.920
5.200E-07,-0.960
5.300E-07,-1.240
5.400E-07,-1.320
5.500E-07,-1.480
5.600E-07,-1.520
5.700E-07,-1.600
5.800E-07,-1.640
5.900E-07,-1.680
6.000E-07,-1.680
6.100E-07,-1.640
6.200E-07,-1.640
6.300E-07,-1.720
6.400E-07,-1.760
6.500E-07,-1.760
6.600E-07,-1.720
6.700E-07,-1.680
6.800E-07,-1.520
6.900E-07,-1.440
7.000E-07,-1.560
7.100E-07,-1.600
7.200E-07,-1.840
7.300E-07,-1.960
7.400E-07,-2.040
7.500E-07,-2.280
7.600E-07,-2.360
7.700E-07,-2.440
7.800E-07,-2.520
7.900E-07,-2.520
8.000E-07,-2.480
8.100E-07,-2.440
8.200E-07,-2.440
8.300E-07,-2.400
8.400E-07,-2.400
8.500E-07,-2.400
8.600E-07,-2.360
8.700E-07,-2.280
8.800E-07,-2.280
8.900E-07,-2.320
9.000E-07,-2.320
9.100E-07,-2.360
9.200E-07,-2.360
9.300E-07,-2.320
9.400E-07,-2.440
9.500E-07,-2.480
9.600E-07,-2.600
9.700E-07,-2.680
9.800E-07,-2.800
9.900E-07,-2.840
1.000E-06,-2.920
1.010E-06,-2.960
1.020E-06,-3.000
1.030E-06,-2.920
1.040E-06,-2.880
1.050E-06,-2.840
1.060E-06,-2.680
1.070E-06,-2.520
1.080E-06,-2.320
1.090E-06,-2.240
1.100E-06,-2.160
1.110E-06,-2.120
1.120E-06,-2.120
1.130E-06,-2.120
1.140E-06,-2.160
1.150E-06,-2.000
1.160E-06,-2.000
1.170E-06,-2.040
1.180E-06,-2.000
1.190E-06,-2.000
1.200E-06,-1.960
1.210E-06,-1.840
1.220E-06,-1.920
1.230E-06,-1.840
1.240E-06,-1.960
1.250E-06,-1.880
1.260E-06,-1.960
1.270E-06,-2.000
1.280E-06,-1.960
1.290E-06,-2.120
1.300E-06,-1.880
1.310E-06,-1.960
1.320E-06,-1.840
1.330E-06,-1.720
1.340E-06,-0.560
1.350E-06,0.040
1.360E-06,1.000
1.370E-06,1.120
1.380E-06,0.360
1.390E-06,-1.040
1.400E-06,-1.840
1.410E-06,-1.840
1.420E-06,-1.320
1.430E-06,-0.160
1.440E-06,-0.200
1.450E-06,-0.040
1.460E-06,-0.680
1.470E-06,-0.760
1.480E-06,-0.960
1.490E-06,-1.000
1.500E-06,-1.280
1.510E-06,-1.320
1.520E-06,-1.480
1.530E-06,-1.640
1.540E-06,-1.720
1.550E-06,-1.960
1.560E-06,-2.160
1.570E-06,-2.200
1.580E-06,-1.960
1.590E-06,-1.880
1.600E-06,-1.680
1.610E-06,-1.600
1.620E-06,-1.600
1.630E-06,-1.480
1.640E-06,-1.320
1.650E-06,-1.200
1.660E-06,-1.000
1.670E-06,-0.800
1.680E-06,-0.680
1.690E-06,-0.640
1.700E-06,-0.560
1.710E-06,-0.680
1.720E-06,-0.600
1.730E-06,-0.480
1.740E-06,-0.280
1.750E-06,-0.160
1.760E-06,-0.040
1.770E-06,-0.080
1.780E-06,-0.200
1.790E-06,-0.360
1.800E-06,-0.440
1.810E-06,-0.480
1.820E-06,-0.440
1.830E-06,-0.320
1.840E-06,-0.320
1.850E-06,-0.320
1.860E-06,-0.400
1.870E-06,-0.480
1.880E-06,-0.480
1.890E-06,-0.520
1.900E-06,-0.400
1.910E-06,-0.320
1.920E-06,-0.200
1.930E-06,-0.200
1.940E-06,-0.160
1.950E-06,-0.160
1.960E-06,-0.280
1.970E-06,-0.400
1.980E-06,-0.480
1.990E-06,-0.600
2.000E-06,-0.720
2.010E-06,-0.800
2.020E-06,-0.960
2.030E-06,-1.120
2.040E-06,-1.280
2.050E-06,-1.400
2.060E-06,-1.400
2.070E-06,-1.360
2.080E-06,-1.320
2.090E-06,-1.280
2.100E-06,-1.240
2.110E-06,-1.160
2.120E-06,-1.080
2.130E-06,-1.040
2.140E-06,-0.960
2.150E-06,-1.000
2.160E-06,-1.000
2.170E-06,-1.040
2.180E-06,-1.040
2.190E-06,-0.960
2.200E-06,-1.000
2.210E-06,-1.080
2.220E-06,-1.000
2.230E-06,-0.960
2.240E-06,-1.080
2.250E-06,-1.120
2.260E-06,-1.120
2.270E-06,-1.160
2.280E-06,-1.360
2.290E-06,-1.480
2.300E-06,-1.200
2.310E-06,-0.840
2.320E-06,-0.880
2.330E-06,-0.560
2.340E-06,-1.000
2.350E-06,-1.560
2.360E-06,-1.840
2.370E-06,-2.320
2.380E-06,-2.040
2.390E-06,-2.120
2.400E-06,-2.000
2.410E-06,-2.040
2.420E-06,-1.840
2.430E-06,-2.000
2.440E-06,-1.760
2.450E-06,-2.320
2.460E-06,-2.560
2.470E-06,-3.000
2.480E-06,-2.800
2.490E-06,-2.920
2.500E-06,-2.560
2.510E-06,-2.400
2.520E-06,-2.160
2.530E-06,-2.200
2.540E-06,-2.080
2.550E-06,-2.160
2.560E-06,-1.880
2.570E-06,-1.680
2.580E-06,-1.720
2.590E-06,-1.600
2.600E-06,-1.800
2.610E-06,-1.760
2.620E-06,-1.720
2.630E-06,-1.600
2.640E-06,-1.600
2.650E-06,-1.520
2.660E-06,-1.480
2.670E-06,-1.320
2.680E-06,-1.200
2.690E-06,-1.320
2.700E-06,-1.160
2.710E-06,-1.200
2.720E-06,-1.040
2.730E-06,-1.280
2.740E-06,-1.240
2.750E-06,-1.600
2.760E-06,-1.600
2.770E-06,-1.840
2.780E-06,-2.040
2.790E-06,-2.240
2.800E-06,-2.360
2.810E-06,-2.440
2.820E-06,-2.400
2.830E-06,-2.360
2.840E-06,-2.280
2.850E-06,-2.160
2.860E-06,-1.960
2.870E-06,-1.840
2.880E-06,-1.640
2.890E-06,-1.480
2.900E-06,-1.320
2.910E-06,-1.160
2.920E-06,-1.200
2.930E-06,-1.120
2.940E-06,-1.120
2.950E-06,-1.200
2.960E-06,-1.240
2.970E-06,-1.280
2.980E-06,-1.280
2.990E-06,-1.320
3.000E-06,-1.280
3.010E-06,-1.320
3.020E-06,-1.240
3.030E-06,-1.160
3.040E-06,-1.040
3.050E-06,-0.920
3.060E-06,-0.800
3.070E-06,-0.640
3.080E-06,-0.520
3.090E-06,-0.440
3.100E-06,-0.400
3.110E-06,-0.320
3.120E-06,-0.200
3.130E-06,-0.080
3.140E-06,0.080
3.150E-06,0.280
3.160E-06,0.440
3.170E-06,0.480
3.180E-06,0.440
3.190E-06,0.240
3.200E-06,0.040
3.210E-06,-0.360
3.220E-06,-0.800
