mediciones/5-15/37.5/WaveData47496.csv

#timebase=2000000(ps)
,#voltbase=100000(mv/100)
#size=4000
-8.400E-06,0.000
-8.390E-06,0.000
-8.380E-06,-0.004
-8.370E-06,0.004
-8.360E-06,0.004
-8.350E-06,0.000
-8.340E-06,0.004
-8.330E-06,0.004
-8.320E-06,0.004
-8.310E-06,0.004
-8.300E-06,0.004
-8.290E-06,-0.004
-8.280E-06,0.004
-8.270E-06,0.008
-8.260E-06,0.000
-8.250E-06,0.000
-8.240E-06,0.004
-8.230E-06,-0.004
-8.220E-06,0.000
-8.210E-06,0.004
-8.200E-06,0.000
-8.190E-06,0.008
-8.180E-06,0.000
-8.170E-06,0.000
-8.160E-06,0.004
-8.150E-06,0.004
-8.140E-06,0.000
-8.130E-06,0.008
-8.120E-06,0.000
-8.110E-06,-0.004
-8.100E-06,0.004
-8.090E-06,0.004
-8.080E-06,0.004
-8.070E-06,0.004
-8.060E-06,0.004
-8.050E-06,0.000
-8.040E-06,0.004
-8.030E-06,0.004
-8.020E-06,0.004
-8.010E-06,0.000
-8.000E-06,0.004
-7.990E-06,0.004
-7.980E-06,0.004
-7.970E-06,0.004
-7.960E-06,0.000
-7.950E-06,0.000
-7.940E-06,0.004
-7.930E-06,0.004
-7.920E-06,0.000
-7.910E-06,0.008
-7.900E-06,0.004
-7.890E-06,0.000
-7.880E-06,-0.004
-7.870E-06,0.000
-7.860E-06,0.004
-7.850E-06,0.008
-7.840E-06,0.004
-7.830E-06,0.004
-7.820E-06,0.000
-7.810E-06,0.000
-7.800E-06,0.000
-7.790E-06,0.008
-7.780E-06,0.008
-7.770E-06,0.000
-7.760E-06,0.000
-7.750E-06,0.004
-7.740E-06,0.004
-7.730E-06,-0.004
-7.720E-06,0.000
-7.710E-06,0.004
-7.700E-06,0.004
-7.690E-06,0.008
-7.680E-06,0.000
-7.670E-06,0.000
-7.660E-06,0.000
-7.650E-06,0.000
-7.640E-06,0.004
-7.630E-06,0.004
-7.620E-06,0.004
-7.610E-06,0.000
-7.600E-06,0.000
-7.590E-06,0.000
-7.580E-06,0.000
-7.570E-06,0.004
-7.560E-06,-0.004
-7.550E-06,-0.004
-7.540E-06,0.000
-7.530E-06,0.004
-7.520E-06,0.004
-7.510E-06,0.008
-7.500E-06,0.000
-7.490E-06,-0.004
-7.480E-06,0.000
-7.470E-06,-0.004
-7.460E-06,0.000
-7.450E-06,0.004
-7.440E-06,0.008
-7.430E-06,0.004
-7.420E-06,0.000
-7.410E-06,0.012
-7.400E-06,0.008
-7.390E-06,-0.004
-7.380E-06,-0.004
-7.370E-06,0.004
-7.360E-06,-0.004
-7.350E-06,0.004
-7.340E-06,0.000
-7.330E-06,0.004
-7.320E-06,-0.004
-7.310E-06,0.004
-7.300E-06,0.004
-7.290E-06,-0.004
-7.280E-06,0.004
-7.270E-06,0.008
-7.260E-06,0.004
-7.250E-06,0.000
-7.240E-06,0.008
-7.230E-06,0.004
-7.220E-06,0.000
-7.210E-06,0.004
-7.200E-06,0.000
-7.190E-06,0.000
-7.180E-06,0.004
-7.170E-06,0.004
-7.160E-06,0.004
-7.150E-06,0.000
-7.140E-06,0.000
-7.130E-06,0.008
-7.120E-06,0.004
-7.110E-06,0.008
-7.100E-06,0.004
-7.090E-06,0.000
-7.080E-06,0.004
-7.070E-06,0.008
-7.060E-06,0.004
-7.050E-06,0.000
-7.040E-06,0.004
-7.030E-06,0.004
-7.020E-06,0.008
-7.010E-06,0.008
-7.000E-06,0.008
-6.990E-06,0.004
-6.980E-06,-0.004
-6.970E-06,-0.004
-6.960E-06,0.000
-6.950E-06,0.000
-6.940E-06,0.004
-6.930E-06,0.008
-6.920E-06,0.004
-6.910E-06,0.000
-6.900E-06,0.000
-6.890E-06,0.000
-6.880E-06,0.000
-6.870E-06,0.004
-6.860E-06,0.004
-6.850E-06,0.000
-6.840E-06,0.004
-6.830E-06,0.000
-6.820E-06,0.004
-6.810E-06,-0.004
-6.800E-06,0.000
-6.790E-06,-0.004
-6.780E-06,0.004
-6.770E-06,0.004
-6.760E-06,0.004
-6.750E-06,0.004
-6.740E-06,0.000
-6.730E-06,0.000
-6.720E-06,0.004
-6.710E-06,0.004
-6.700E-06,0.000
-6.690E-06,0.000
-6.680E-06,0.004
-6.670E-06,0.000
-6.660E-06,0.000
-6.650E-06,0.008
-6.640E-06,0.004
-6.630E-06,0.004
-6.620E-06,0.008
-6.610E-06,-0.004
-6.600E-06,-0.004
-6.590E-06,0.000
-6.580E-06,0.008
-6.570E-06,0.004
-6.560E-06,0.008
-6.550E-06,0.000
-6.540E-06,0.000
-6.530E-06,0.000
-6.520E-06,-0.004
-6.510E-06,0.004
-6.500E-06,0.004
-6.490E-06,0.008
-6.480E-06,0.000
-6.470E-06,0.000
-6.460E-06,-0.004
-6.450E-06,0.000
-6.440E-06,0.000
-6.430E-06,0.000
-6.420E-06,0.004
-6.410E-06,0.008
-6.400E-06,0.008
-6.390E-06,0.004
-6.380E-06,0.008
-6.370E-06,0.004
-6.360E-06,0.000
-6.350E-06,0.004
-6.340E-06,0.004
-6.330E-06,0.004
-6.320E-06,0.004
-6.310E-06,0.004
-6.300E-06,0.000
-6.290E-06,0.000
-6.280E-06,0.000
-6.270E-06,0.008
-6.260E-06,0.000
-6.250E-06,-0.004
-6.240E-06,0.000
-6.230E-06,0.000
-6.220E-06,0.000
-6.210E-06,0.004
-6.200E-06,0.000
-6.190E-06,0.000
-6.180E-06,0.000
-6.170E-06,0.000
-6.160E-06,0.000
-6.150E-06,0.008
-6.140E-06,0.008
-6.130E-06,0.000
-6.120E-06,-0.004
-6.110E-06,0.004
-6.100E-06,0.004
-6.090E-06,0.008
-6.080E-06,0.004
-6.070E-06,0.000
-6.060E-06,0.000
-6.050E-06,0.000
-6.040E-06,0.004
-6.030E-06,0.004
-6.020E-06,0.008
-6.010E-06,0.004
-6.000E-06,0.000
-5.990E-06,0.004
-5.980E-06,0.000
-5.970E-06,-0.004
-5.960E-06,0.004
-5.950E-06,0.008
-5.940E-06,0.008
-5.930E-06,0.000
-5.920E-06,-0.004
-5.910E-06,0.000
-5.900E-06,0.000
-5.890E-06,0.004
-5.880E-06,0.000
-5.870E-06,0.004
-5.860E-06,0.008
-5.850E-06,0.004
-5.840E-06,0.000
-5.830E-06,0.000
-5.820E-06,0.004
-5.810E-06,0.004
-5.800E-06,0.004
-5.790E-06,0.000
-5.780E-06,0.004
-5.770E-06,0.004
-5.760E-06,0.004
-5.750E-06,0.004
-5.740E-06,0.004
-5.730E-06,0.000
-5.720E-06,0.000
-5.710E-06,0.004
-5.700E-06,0.004
-5.690E-06,0.000
-5.680E-06,0.008
-5.670E-06,-0.004
-5.660E-06,0.000
-5.650E-06,0.004
-5.640E-06,0.000
-5.630E-06,-0.004
-5.620E-06,0.004
-5.610E-06,0.000
-5.600E-06,0.004
-5.590E-06,0.000
-5.580E-06,0.000
-5.570E-06,0.000
-5.560E-06,0.004
-5.550E-06,0.004
-5.540E-06,0.000
-5.530E-06,-0.004
-5.520E-06,0.000
-5.510E-06,0.004
-5.500E-06,0.004
-5.490E-06,0.000
-5.480E-06,0.004
-5.470E-06,0.004
-5.460E-06,0.008
-5.450E-06,0.000
-5.440E-06,0.004
-5.430E-06,0.004
-5.420E-06,0.004
-5.410E-06,0.000
-5.400E-06,0.000
-5.390E-06,0.000
-5.380E-06,0.008
-5.370E-06,0.008
-5.360E-06,0.012
-5.350E-06,0.000
-5.340E-06,0.004
-5.330E-06,0.000
-5.320E-06,0.000
-5.310E-06,-0.004
-5.300E-06,0.008
-5.290E-06,0.004
-5.280E-06,0.004
-5.270E-06,0.000
-5.260E-06,0.004
-5.250E-06,-0.004
-5.240E-06,0.000
-5.230E-06,0.008
-5.220E-06,0.008
-5.210E-06,0.000
-5.200E-06,0.000
-5.190E-06,0.000
-5.180E-06,0.004
-5.170E-06,0.004
-5.160E-06,0.008
-5.150E-06,0.008
-5.140E-06,0.000
-5.130E-06,0.000
-5.120E-06,0.000
-5.110E-06,0.000
-5.100E-06,0.004
-5.090E-06,0.008
-5.080E-06,0.008
-5.070E-06,-0.004
-5.060E-06,-0.004
-5.050E-06,0.000
-5.040E-06,0.000
-5.030E-06,0.008
-5.020E-06,0.008
-5.010E-06,0.004
-5.000E-06,0.000
-4.990E-06,0.000
-4.980E-06,0.000
-4.970E-06,0.000
-4.960E-06,0.004
-4.950E-06,-0.004
-4.940E-06,0.000
-4.930E-06,0.008
-4.920E-06,0.008
-4.910E-06,0.000
-4.900E-06,-0.004
-4.890E-06,0.000
-4.880E-06,0.004
-4.870E-06,0.008
-4.860E-06,0.004
-4.850E-06,-0.004
-4.840E-06,0.004
-4.830E-06,0.012
-4.820E-06,-0.004
-4.810E-06,-0.004
-4.800E-06,0.000
-4.790E-06,-0.004
-4.780E-06,0.004
-4.770E-06,0.004
-4.760E-06,0.004
-4.750E-06,0.004
-4.740E-06,0.000
-4.730E-06,0.000
-4.720E-06,0.000
-4.710E-06,0.004
-4.700E-06,0.012
-4.690E-06,0.012
-4.680E-06,0.004
-4.670E-06,0.000
-4.660E-06,-0.004
-4.650E-06,-0.008
-4.640E-06,0.004
-4.630E-06,0.008
-4.620E-06,0.000
-4.610E-06,0.008
-4.600E-06,0.004
-4.590E-06,0.004
-4.580E-06,0.000
-4.570E-06,-0.004
-4.560E-06,0.004
-4.550E-06,0.004
-4.540E-06,0.000
-4.530E-06,0.000
-4.520E-06,0.004
-4.510E-06,0.004
-4.500E-06,0.008
-4.490E-06,0.000
-4.480E-06,0.000
-4.470E-06,0.004
-4.460E-06,0.000
-4.450E-06,0.000
-4.440E-06,0.004
-4.430E-06,0.008
-4.420E-06,0.008
-4.410E-06,0.004
-4.400E-06,0.000
-4.390E-06,-0.004
-4.380E-06,0.004
-4.370E-06,0.012
-4.360E-06,0.008
-4.350E-06,-0.004
-4.340E-06,0.000
-4.330E-06,0.004
-4.320E-06,0.000
-4.310E-06,0.004
-4.300E-06,0.008
-4.290E-06,0.000
-4.280E-06,0.000
-4.270E-06,-0.004
-4.260E-06,0.004
-4.250E-06,0.000
-4.240E-06,0.004
-4.230E-06,0.000
-4.220E-06,0.004
-4.210E-06,0.004
-4.200E-06,0.000
-4.190E-06,0.008
-4.180E-06,0.000
-4.170E-06,0.000
-4.160E-06,0.000
-4.150E-06,0.004
-4.140E-06,0.004
-4.130E-06,0.004
-4.120E-06,0.008
-4.110E-06,0.000
-4.100E-06,0.004
-4.090E-06,0.008
-4.080E-06,0.008
-4.070E-06,0.004
-4.060E-06,0.004
-4.050E-06,-0.004
-4.040E-06,0.000
-4.030E-06,0.008
-4.020E-06,-0.004
-4.010E-06,-0.004
-4.000E-06,0.004
-3.990E-06,0.004
-3.980E-06,-0.004
-3.970E-06,0.004
-3.960E-06,0.000
-3.950E-06,0.000
-3.940E-06,0.008
-3.930E-06,0.004
-3.920E-06,0.000
-3.910E-06,0.004
-3.900E-06,0.008
-3.890E-06,0.004
-3.880E-06,0.000
-3.870E-06,0.008
-3.860E-06,0.008
-3.850E-06,0.000
-3.840E-06,0.004
-3.830E-06,-0.004
-3.820E-06,0.000
-3.810E-06,0.004
-3.800E-06,0.000
-3.790E-06,0.004
-3.780E-06,0.004
-3.770E-06,0.000
-3.760E-06,0.004
-3.750E-06,0.004
-3.740E-06,-0.004
-3.730E-06,0.004
-3.720E-06,0.008
-3.710E-06,0.008
-3.700E-06,-0.004
-3.690E-06,0.004
-3.680E-06,0.004
-3.670E-06,0.004
-3.660E-06,0.004
-3.650E-06,0.000
-3.640E-06,0.000
-3.630E-06,-0.004
-3.620E-06,0.000
-3.610E-06,0.008
-3.600E-06,0.000
-3.590E-06,0.008
-3.580E-06,0.004
-3.570E-06,0.004
-3.560E-06,0.000
-3.550E-06,0.000
-3.540E-06,0.004
-3.530E-06,0.000
-3.520E-06,0.004
-3.510E-06,0.000
-3.500E-06,0.008
-3.490E-06,0.000
-3.480E-06,0.000
-3.470E-06,0.000
-3.460E-06,-0.004
-3.450E-06,-0.004
-3.440E-06,0.004
-3.430E-06,0.004
-3.420E-06,0.004
-3.410E-06,0.008
-3.400E-06,0.000
-3.390E-06,-0.004
-3.380E-06,0.000
-3.370E-06,0.000
-3.360E-06,0.004
-3.350E-06,0.004
-3.340E-06,0.004
-3.330E-06,0.008
-3.320E-06,0.008
-3.310E-06,0.000
-3.300E-06,-0.004
-3.290E-06,0.000
-3.280E-06,0.008
-3.270E-06,0.004
-3.260E-06,0.004
-3.250E-06,0.008
-3.240E-06,0.004
-3.230E-06,0.004
-3.220E-06,0.000
-3.210E-06,0.000
-3.200E-06,0.004
-3.190E-06,0.004
-3.180E-06,0.000
-3.170E-06,0.008
-3.160E-06,0.004
-3.150E-06,0.000
-3.140E-06,0.000
-3.130E-06,0.004
-3.120E-06,0.008
-3.110E-06,0.004
-3.100E-06,-0.004
-3.090E-06,-0.004
-3.080E-06,0.000
-3.070E-06,0.004
-3.060E-06,0.000
-3.050E-06,0.000
-3.040E-06,0.004
-3.030E-06,0.004
-3.020E-06,0.004
-3.010E-06,0.004
-3.000E-06,0.000
-2.990E-06,0.000
-2.980E-06,0.004
-2.970E-06,0.004
-2.960E-06,0.000
-2.950E-06,0.004
-2.940E-06,0.004
-2.930E-06,0.004
-2.920E-06,0.004
-2.910E-06,0.000
-2.900E-06,0.000
-2.890E-06,0.008
-2.880E-06,0.008
-2.870E-06,0.008
-2.860E-06,0.004
-2.850E-06,0.008
-2.840E-06,0.000
-2.830E-06,0.000
-2.820E-06,0.004
-2.810E-06,0.000
-2.800E-06,0.000
-2.790E-06,0.000
-2.780E-06,0.004
-2.770E-06,0.000
-2.760E-06,0.000
-2.750E-06,0.004
-2.740E-06,0.008
-2.730E-06,0.008
-2.720E-06,-0.004
-2.710E-06,-0.004
-2.700E-06,0.000
-2.690E-06,-0.004
-2.680E-06,0.004
-2.670E-06,0.012
-2.660E-06,0.012
-2.650E-06,0.004
-2.640E-06,-0.004
-2.630E-06,0.000
-2.620E-06,0.000
-2.610E-06,0.000
-2.600E-06,0.004
-2.590E-06,0.004
-2.580E-06,0.000
-2.570E-06,0.004
-2.560E-06,0.004
-2.550E-06,0.000
-2.540E-06,0.000
-2.530E-06,0.004
-2.520E-06,0.000
-2.510E-06,0.004
-2.500E-06,0.004
-2.490E-06,0.004
-2.480E-06,0.004
-2.470E-06,0.000
-2.460E-06,0.000
-2.450E-06,0.000
-2.440E-06,0.000
-2.430E-06,-0.004
-2.420E-06,0.008
-2.410E-06,0.004
-2.400E-06,0.000
-2.390E-06,0.004
-2.380E-06,0.000
-2.370E-06,-0.004
-2.360E-06,0.000
-2.350E-06,0.008
-2.340E-06,0.000
-2.330E-06,0.008
-2.320E-06,0.008
-2.310E-06,0.004
-2.300E-06,0.000
-2.290E-06,0.000
-2.280E-06,0.004
-2.270E-06,-0.004
-2.260E-06,0.008
-2.250E-06,0.004
-2.240E-06,0.008
-2.230E-06,0.008
-2.220E-06,0.000
-2.210E-06,0.000
-2.200E-06,0.000
-2.190E-06,0.004
-2.180E-06,0.008
-2.170E-06,0.004
-2.160E-06,0.008
-2.150E-06,0.004
-2.140E-06,0.000
-2.130E-06,-0.008
-2.120E-06,0.000
-2.110E-06,0.004
-2.100E-06,0.008
-2.090E-06,0.004
-2.080E-06,0.008
-2.070E-06,0.008
-2.060E-06,-0.004
-2.050E-06,-0.004
-2.040E-06,0.000
-2.030E-06,-0.004
-2.020E-06,0.000
-2.010E-06,0.008
-2.000E-06,0.004
-1.990E-06,0.008
-1.980E-06,0.000
-1.970E-06,0.000
-1.960E-06,0.000
-1.950E-06,0.004
-1.940E-06,0.000
-1.930E-06,0.000
-1.920E-06,0.004
-1.910E-06,0.004
-1.900E-06,0.004
-1.890E-06,0.004
-1.880E-06,0.000
-1.870E-06,0.000
-1.860E-06,0.004
-1.850E-06,0.008
-1.840E-06,0.004
-1.830E-06,0.000
-1.820E-06,0.004
-1.810E-06,0.012
-1.800E-06,0.000
-1.790E-06,0.004
-1.780E-06,0.004
-1.770E-06,0.004
-1.760E-06,0.000
-1.750E-06,0.004
-1.740E-06,0.008
-1.730E-06,0.008
-1.720E-06,0.004
-1.710E-06,0.000
-1.700E-06,0.004
-1.690E-06,0.000
-1.680E-06,0.004
-1.670E-06,0.004
-1.660E-06,0.008
-1.650E-06,0.008
-1.640E-06,0.000
-1.630E-06,0.000
-1.620E-06,0.004
-1.610E-06,0.008
-1.600E-06,0.008
-1.590E-06,0.008
-1.580E-06,0.008
-1.570E-06,0.004
-1.560E-06,0.004
-1.550E-06,0.004
-1.540E-06,0.004
-1.530E-06,0.008
-1.520E-06,0.008
-1.510E-06,0.008
-1.500E-06,0.008
-1.490E-06,0.004
-1.480E-06,0.004
-1.470E-06,0.000
-1.460E-06,0.000
-1.450E-06,0.004
-1.440E-06,0.008
-1.430E-06,0.012
-1.420E-06,0.004
-1.410E-06,0.008
-1.400E-06,0.000
-1.390E-06,0.008
-1.380E-06,0.004
-1.370E-06,0.012
-1.360E-06,0.012
-1.350E-06,0.008
-1.340E-06,0.008
-1.330E-06,0.008
-1.320E-06,0.004
-1.310E-06,0.004
-1.300E-06,0.008
-1.290E-06,0.012
-1.280E-06,0.012
-1.270E-06,0.012
-1.260E-06,0.012
-1.250E-06,0.012
-1.240E-06,0.012
-1.230E-06,0.012
-1.220E-06,0.016
-1.210E-06,0.016
-1.200E-06,0.016
-1.190E-06,0.016
-1.180E-06,0.020
-1.170E-06,0.004
-1.160E-06,0.000
-1.150E-06,0.004
-1.140E-06,0.008
-1.130E-06,0.012
-1.120E-06,0.020
-1.110E-06,0.024
-1.100E-06,0.016
-1.090E-06,0.004
-1.080E-06,0.004
-1.070E-06,0.004
-1.060E-06,0.012
-1.050E-06,0.024
-1.040E-06,0.036
-1.030E-06,0.032
-1.020E-06,0.020
-1.010E-06,0.012
-1.000E-06,0.004
-9.900E-07,0.008
-9.800E-07,0.016
-9.700E-07,0.028
-9.600E-07,0.064
-9.500E-07,0.056
-9.400E-07,0.048
-9.300E-07,0.008
-9.200E-07,-0.020
-9.100E-07,-0.020
-9.000E-07,-0.016
-8.900E-07,0.012
-8.800E-07,0.028
-8.700E-07,0.052
-8.600E-07,0.036
-8.500E-07,0.024
-8.400E-07,-0.032
-8.300E-07,-0.088
-8.200E-07,-0.100
-8.100E-07,-0.036
-8.000E-07,0.040
-7.900E-07,0.092
-7.800E-07,0.108
-7.700E-07,0.088
-7.600E-07,0.128
-7.500E-07,0.128
-7.400E-07,0.124
-7.300E-07,0.060
-7.200E-07,-0.016
-7.100E-07,-0.076
-7.000E-07,-0.088
-6.900E-07,-0.048
-6.800E-07,0.040
-6.700E-07,0.096
-6.600E-07,0.144
-6.500E-07,0.132
-6.400E-07,0.076
-6.300E-07,0.016
-6.200E-07,0.008
-6.100E-07,0.076
-6.000E-07,0.152
-5.900E-07,0.188
-5.800E-07,0.160
-5.700E-07,0.096
-5.600E-07,0.064
-5.500E-07,0.060
-5.400E-07,0.068
-5.300E-07,0.092
-5.200E-07,0.112
-5.100E-07,0.136
-5.000E-07,0.136
-4.900E-07,0.128
-4.800E-07,0.108
-4.700E-07,0.076
-4.600E-07,0.056
-4.500E-07,0.068
-4.400E-07,0.088
-4.300E-07,0.116
-4.200E-07,0.136
-4.100E-07,0.124
-4.000E-07,0.096
-3.900E-07,0.068
-3.800E-07,0.048
-3.700E-07,0.060
-3.600E-07,0.088
-3.500E-07,0.124
-3.400E-07,0.132
-3.300E-07,0.136
-3.200E-07,0.112
-3.100E-07,0.084
-3.000E-07,0.072
-2.900E-07,0.072
-2.800E-07,0.092
-2.700E-07,0.124
-2.600E-07,0.152
-2.500E-07,0.160
-2.400E-07,0.128
-2.300E-07,0.096
-2.200E-07,0.076
-2.100E-07,0.092
-2.000E-07,0.124
-1.900E-07,0.160
-1.800E-07,0.184
-1.700E-07,0.156
-1.600E-07,0.140
-1.500E-07,0.108
-1.400E-07,0.064
-1.300E-07,0.060
-1.200E-07,0.060
-1.100E-07,0.144
-1.000E-07,0.220
-9.000E-08,0.268
-8.000E-08,0.304
-7.000E-08,0.136
-6.000E-08,0.064
-5.000E-08,-0.172
-4.000E-08,-0.256
-3.000E-08,-0.412
-2.000E-08,-0.280
-1.000E-08,0.080
0.000E+00,0.532
1.000E-08,0.540
2.000E-08,0.456
3.000E-08,0.124
4.000E-08,-0.052
5.000E-08,-0.204
6.000E-08,-0.272
7.000E-08,-0.120
8.000E-08,0.176
9.000E-08,0.372
1.000E-07,0.540
1.100E-07,0.488
1.200E-07,0.256
1.300E-07,0.056
1.400E-07,-0.032
1.500E-07,0.000
1.600E-07,0.132
1.700E-07,0.344
1.800E-07,0.452
1.900E-07,0.436
2.000E-07,0.304
2.100E-07,0.160
2.200E-07,0.056
2.300E-07,0.052
2.400E-07,0.156
2.500E-07,0.280
2.600E-07,0.388
2.700E-07,0.396
2.800E-07,0.336
2.900E-07,0.208
3.000E-07,0.124
3.100E-07,0.088
3.200E-07,0.132
3.300E-07,0.236
3.400E-07,0.328
3.500E-07,0.368
3.600E-07,0.332
3.700E-07,0.256
3.800E-07,0.168
3.900E-07,0.136
4.000E-07,0.148
4.100E-07,0.208
4.200E-07,0.276
4.300E-07,0.320
4.400E-07,0.312
4.500E-07,0.272
4.600E-07,0.208
4.700E-07,0.176
4.800E-07,0.172
4.900E-07,0.204
5.000E-07,0.256
5.100E-07,0.284
5.200E-07,0.300
5.300E-07,0.276
5.400E-07,0.236
5.500E-07,0.200
5.600E-07,0.188
5.700E-07,0.208
5.800E-07,0.240
5.900E-07,0.268
6.000E-07,0.276
6.100E-07,0.272
6.200E-07,0.240
6.300E-07,0.224
6.400E-07,0.204
6.500E-07,0.208
6.600E-07,0.228
6.700E-07,0.256
6.800E-07,0.268
6.900E-07,0.268
7.000E-07,0.248
7.100E-07,0.228
7.200E-07,0.216
7.300E-07,0.212
7.400E-07,0.224
7.500E-07,0.240
7.600E-07,0.260
7.700E-07,0.260
7.800E-07,0.244
7.900E-07,0.224
8.000E-07,0.216
8.100E-07,0.212
8.200E-07,0.220
8.300E-07,0.236
8.400E-07,0.244
8.500E-07,0.252
8.600E-07,0.244
8.700E-07,0.232
8.800E-07,0.220
8.900E-07,0.216
9.000E-07,0.216
9.100E-07,0.228
9.200E-07,0.236
9.300E-07,0.240
9.400E-07,0.244
9.500E-07,0.240
9.600E-07,0.232
9.700E-07,0.224
9.800E-07,0.216
9.900E-07,0.224
1.000E-06,0.228
1.010E-06,0.240
1.020E-06,0.236
1.030E-06,0.236
1.040E-06,0.232
1.050E-06,0.228
1.060E-06,0.224
1.070E-06,0.224
1.080E-06,0.228
1.090E-06,0.224
1.100E-06,0.236
1.110E-06,0.232
1.120E-06,0.228
1.130E-06,0.224
1.140E-06,0.220
1.150E-06,0.212
1.160E-06,0.212
1.170E-06,0.224
1.180E-06,0.232
1.190E-06,0.232
1.200E-06,0.228
1.210E-06,0.224
1.220E-06,0.216
1.230E-06,0.212
1.240E-06,0.220
1.250E-06,0.224
1.260E-06,0.224
1.270E-06,0.220
1.280E-06,0.224
1.290E-06,0.224
1.300E-06,0.216
1.310E-06,0.212
1.320E-06,0.208
1.330E-06,0.208
1.340E-06,0.220
1.350E-06,0.220
1.360E-06,0.216
1.370E-06,0.212
1.380E-06,0.208
1.390E-06,0.208
1.400E-06,0.212
1.410E-06,0.212
1.420E-06,0.208
1.430E-06,0.208
1.440E-06,0.212
1.450E-06,0.212
1.460E-06,0.208
1.470E-06,0.208
1.480E-06,0.208
1.490E-06,0.204
1.500E-06,0.208
1.510E-06,0.204
1.520E-06,0.204
1.530E-06,0.204
1.540E-06,0.204
1.550E-06,0.196
1.560E-06,0.196
1.570E-06,0.196
1.580E-06,0.196
1.590E-06,0.200
1.600E-06,0.204
1.610E-06,0.200
1.620E-06,0.196
1.630E-06,0.200
1.640E-06,0.196
1.650E-06,0.196
1.660E-06,0.204
1.670E-06,0.200
1.680E-06,0.196
1.690E-06,0.192
1.700E-06,0.192
1.710E-06,0.192
1.720E-06,0.196
1.730E-06,0.196
1.740E-06,0.196
1.750E-06,0.192
1.760E-06,0.196
1.770E-06,0.188
1.780E-06,0.188
1.790E-06,0.192
1.800E-06,0.192
1.810E-06,0.188
1.820E-06,0.188
1.830E-06,0.188
1.840E-06,0.188
1.850E-06,0.192
1.860E-06,0.188
1.870E-06,0.184
1.880E-06,0.184
1.890E-06,0.184
1.900E-06,0.188
1.910E-06,0.188
1.920E-06,0.192
1.930E-06,0.192
1.940E-06,0.188
1.950E-06,0.188
1.960E-06,0.184
1.970E-06,0.188
1.980E-06,0.188
1.990E-06,0.184
2.000E-06,0.188
2.010E-06,0.184
2.020E-06,0.192
2.030E-06,0.192
2.040E-06,0.180
2.050E-06,0.180
2.060E-06,0.184
2.070E-06,0.184
2.080E-06,0.180
2.090E-06,0.180
2.100E-06,0.184
2.110E-06,0.184
2.120E-06,0.176
2.130E-06,0.172
2.140E-06,0.160
2.150E-06,0.152
2.160E-06,0.160
2.170E-06,0.172
2.180E-06,0.184
2.190E-06,0.184
2.200E-06,0.164
2.210E-06,0.152
2.220E-06,0.148
2.230E-06,0.148
2.240E-06,0.160
2.250E-06,0.172
2.260E-06,0.184
2.270E-06,0.172
2.280E-06,0.160
2.290E-06,0.152
2.300E-06,0.152
2.310E-06,0.156
2.320E-06,0.164
2.330E-06,0.176
2.340E-06,0.184
2.350E-06,0.172
2.360E-06,0.160
2.370E-06,0.156
2.380E-06,0.148
2.390E-06,0.156
2.400E-06,0.164
2.410E-06,0.168
2.420E-06,0.168
2.430E-06,0.164
2.440E-06,0.168
2.450E-06,0.160
2.460E-06,0.164
2.470E-06,0.156
2.480E-06,0.160
2.490E-06,0.152
2.500E-06,0.156
2.510E-06,0.160
2.520E-06,0.160
2.530E-06,0.160
2.540E-06,0.160
2.550E-06,0.152
2.560E-06,0.148
2.570E-06,0.152
2.580E-06,0.160
2.590E-06,0.164
2.600E-06,0.152
2.610E-06,0.152
2.620E-06,0.152
2.630E-06,0.144
2.640E-06,0.144
2.650E-06,0.148
2.660E-06,0.152
2.670E-06,0.152
2.680E-06,0.152
2.690E-06,0.148
2.700E-06,0.148
2.710E-06,0.144
2.720E-06,0.148
2.730E-06,0.140
2.740E-06,0.148
2.750E-06,0.148
2.760E-06,0.144
2.770E-06,0.148
2.780E-06,0.140
2.790E-06,0.144
2.800E-06,0.144
2.810E-06,0.140
2.820E-06,0.144
2.830E-06,0.144
2.840E-06,0.144
2.850E-06,0.136
2.860E-06,0.140
2.870E-06,0.132
2.880E-06,0.128
2.890E-06,0.132
2.900E-06,0.132
2.910E-06,0.132
2.920E-06,0.132
2.930E-06,0.136
2.940E-06,0.140
2.950E-06,0.132
2.960E-06,0.128
2.970E-06,0.124
2.980E-06,0.120
2.990E-06,0.120
3.000E-06,0.124
3.010E-06,0.128
3.020E-06,0.128
3.030E-06,0.132
3.040E-06,0.128
3.050E-06,0.120
3.060E-06,0.120
3.070E-06,0.120
3.080E-06,0.120
3.090E-06,0.124
3.100E-06,0.128
3.110E-06,0.128
3.120E-06,0.124
3.130E-06,0.120
3.140E-06,0.124
3.150E-06,0.124
3.160E-06,0.124
3.170E-06,0.128
3.180E-06,0.128
3.190E-06,0.128
3.200E-06,0.124
3.210E-06,0.124
3.220E-06,0.120
3.230E-06,0.120
3.240E-06,0.120
3.250E-06,0.128
3.260E-06,0.132
3.270E-06,0.128
3.280E-06,0.128
3.290E-06,0.124
3.300E-06,0.120
3.310E-06,0.112
3.320E-06,0.112
3.330E-06,0.120
3.340E-06,0.124
3.350E-06,0.124
3.360E-06,0.124
3.370E-06,0.116
3.380E-06,0.112
3.390E-06,0.108
3.400E-06,0.108
3.410E-06,0.108
3.420E-06,0.120
3.430E-06,0.120
3.440E-06,0.124
3.450E-06,0.120
3.460E-06,0.112
3.470E-06,0.104
