mediciones/5-15/37.5/WaveData47490.csv

#timebase=2000000(ps)
,#voltbase=100000(mv/100)
#size=4000
-8.400E-06,0.000
-8.390E-06,0.000
-8.380E-06,0.004
-8.370E-06,0.000
-8.360E-06,0.000
-8.350E-06,0.004
-8.340E-06,0.008
-8.330E-06,0.000
-8.320E-06,0.004
-8.310E-06,0.004
-8.300E-06,0.004
-8.290E-06,0.004
-8.280E-06,0.008
-8.270E-06,0.004
-8.260E-06,-0.004
-8.250E-06,0.004
-8.240E-06,0.008
-8.230E-06,0.008
-8.220E-06,0.004
-8.210E-06,0.000
-8.200E-06,0.004
-8.190E-06,0.004
-8.180E-06,0.000
-8.170E-06,0.004
-8.160E-06,0.004
-8.150E-06,0.000
-8.140E-06,-0.004
-8.130E-06,0.004
-8.120E-06,0.008
-8.110E-06,0.000
-8.100E-06,0.000
-8.090E-06,0.004
-8.080E-06,0.000
-8.070E-06,0.000
-8.060E-06,0.004
-8.050E-06,0.004
-8.040E-06,0.008
-8.030E-06,0.004
-8.020E-06,0.000
-8.010E-06,0.000
-8.000E-06,0.004
-7.990E-06,0.000
-7.980E-06,-0.004
-7.970E-06,-0.004
-7.960E-06,0.004
-7.950E-06,0.000
-7.940E-06,0.008
-7.930E-06,0.000
-7.920E-06,0.004
-7.910E-06,0.000
-7.900E-06,0.000
-7.890E-06,-0.004
-7.880E-06,0.004
-7.870E-06,0.008
-7.860E-06,0.008
-7.850E-06,0.008
-7.840E-06,0.008
-7.830E-06,0.004
-7.820E-06,0.004
-7.810E-06,0.008
-7.800E-06,0.000
-7.790E-06,0.000
-7.780E-06,0.004
-7.770E-06,0.000
-7.760E-06,0.000
-7.750E-06,0.000
-7.740E-06,0.008
-7.730E-06,0.012
-7.720E-06,0.004
-7.710E-06,0.004
-7.700E-06,0.004
-7.690E-06,0.000
-7.680E-06,0.004
-7.670E-06,0.004
-7.660E-06,0.004
-7.650E-06,0.008
-7.640E-06,0.008
-7.630E-06,0.004
-7.620E-06,0.004
-7.610E-06,0.000
-7.600E-06,-0.004
-7.590E-06,0.004
-7.580E-06,0.004
-7.570E-06,0.004
-7.560E-06,0.000
-7.550E-06,0.004
-7.540E-06,0.004
-7.530E-06,-0.004
-7.520E-06,0.004
-7.510E-06,0.004
-7.500E-06,0.008
-7.490E-06,0.004
-7.480E-06,0.008
-7.470E-06,0.004
-7.460E-06,0.000
-7.450E-06,0.000
-7.440E-06,0.008
-7.430E-06,0.008
-7.420E-06,0.004
-7.410E-06,0.000
-7.400E-06,0.004
-7.390E-06,0.008
-7.380E-06,-0.004
-7.370E-06,0.000
-7.360E-06,0.000
-7.350E-06,0.008
-7.340E-06,0.004
-7.330E-06,0.004
-7.320E-06,-0.004
-7.310E-06,0.000
-7.300E-06,0.000
-7.290E-06,0.004
-7.280E-06,0.004
-7.270E-06,0.008
-7.260E-06,0.008
-7.250E-06,0.000
-7.240E-06,0.004
-7.230E-06,0.000
-7.220E-06,0.000
-7.210E-06,-0.004
-7.200E-06,0.004
-7.190E-06,0.008
-7.180E-06,0.008
-7.170E-06,0.004
-7.160E-06,0.004
-7.150E-06,0.004
-7.140E-06,0.000
-7.130E-06,0.000
-7.120E-06,0.004
-7.110E-06,0.008
-7.100E-06,0.004
-7.090E-06,-0.004
-7.080E-06,0.000
-7.070E-06,0.000
-7.060E-06,0.000
-7.050E-06,0.004
-7.040E-06,0.004
-7.030E-06,0.004
-7.020E-06,0.004
-7.010E-06,0.000
-7.000E-06,0.000
-6.990E-06,0.000
-6.980E-06,0.004
-6.970E-06,0.004
-6.960E-06,0.004
-6.950E-06,0.004
-6.940E-06,0.004
-6.930E-06,0.004
-6.920E-06,-0.004
-6.910E-06,0.000
-6.900E-06,0.004
-6.890E-06,0.004
-6.880E-06,0.000
-6.870E-06,0.004
-6.860E-06,0.000
-6.850E-06,-0.004
-6.840E-06,0.000
-6.830E-06,0.004
-6.820E-06,0.000
-6.810E-06,0.004
-6.800E-06,0.000
-6.790E-06,0.004
-6.780E-06,0.004
-6.770E-06,0.004
-6.760E-06,0.000
-6.750E-06,0.000
-6.740E-06,0.004
-6.730E-06,0.000
-6.720E-06,0.000
-6.710E-06,0.000
-6.700E-06,0.004
-6.690E-06,0.008
-6.680E-06,0.008
-6.670E-06,0.004
-6.660E-06,0.000
-6.650E-06,-0.004
-6.640E-06,0.004
-6.630E-06,0.008
-6.620E-06,0.008
-6.610E-06,0.000
-6.600E-06,0.004
-6.590E-06,0.004
-6.580E-06,0.000
-6.570E-06,0.004
-6.560E-06,0.008
-6.550E-06,0.000
-6.540E-06,0.000
-6.530E-06,0.008
-6.520E-06,-0.004
-6.510E-06,0.004
-6.500E-06,0.000
-6.490E-06,0.000
-6.480E-06,0.004
-6.470E-06,0.000
-6.460E-06,0.004
-6.450E-06,0.004
-6.440E-06,0.004
-6.430E-06,0.000
-6.420E-06,0.004
-6.410E-06,-0.004
-6.400E-06,0.000
-6.390E-06,0.000
-6.380E-06,0.004
-6.370E-06,-0.004
-6.360E-06,0.000
-6.350E-06,0.004
-6.340E-06,0.004
-6.330E-06,0.000
-6.320E-06,0.004
-6.310E-06,-0.004
-6.300E-06,0.000
-6.290E-06,0.000
-6.280E-06,0.004
-6.270E-06,0.000
-6.260E-06,0.004
-6.250E-06,0.008
-6.240E-06,-0.004
-6.230E-06,-0.004
-6.220E-06,0.000
-6.210E-06,0.000
-6.200E-06,0.000
-6.190E-06,0.004
-6.180E-06,0.000
-6.170E-06,0.000
-6.160E-06,0.000
-6.150E-06,-0.004
-6.140E-06,0.004
-6.130E-06,0.004
-6.120E-06,0.004
-6.110E-06,0.008
-6.100E-06,0.000
-6.090E-06,0.004
-6.080E-06,0.004
-6.070E-06,0.000
-6.060E-06,0.000
-6.050E-06,0.004
-6.040E-06,0.000
-6.030E-06,0.004
-6.020E-06,0.004
-6.010E-06,0.004
-6.000E-06,0.004
-5.990E-06,0.004
-5.980E-06,0.000
-5.970E-06,0.000
-5.960E-06,0.004
-5.950E-06,0.000
-5.940E-06,0.000
-5.930E-06,0.008
-5.920E-06,0.004
-5.910E-06,0.004
-5.900E-06,-0.004
-5.890E-06,0.000
-5.880E-06,0.000
-5.870E-06,0.004
-5.860E-06,0.004
-5.850E-06,0.004
-5.840E-06,0.000
-5.830E-06,0.000
-5.820E-06,0.000
-5.810E-06,0.000
-5.800E-06,0.000
-5.790E-06,0.004
-5.780E-06,0.008
-5.770E-06,0.008
-5.760E-06,0.004
-5.750E-06,0.000
-5.740E-06,0.004
-5.730E-06,-0.004
-5.720E-06,0.000
-5.710E-06,0.004
-5.700E-06,-0.004
-5.690E-06,0.000
-5.680E-06,0.004
-5.670E-06,0.008
-5.660E-06,0.008
-5.650E-06,-0.004
-5.640E-06,0.000
-5.630E-06,0.000
-5.620E-06,0.004
-5.610E-06,0.004
-5.600E-06,0.004
-5.590E-06,0.000
-5.580E-06,0.004
-5.570E-06,0.008
-5.560E-06,0.008
-5.550E-06,-0.004
-5.540E-06,0.004
-5.530E-06,0.004
-5.520E-06,0.008
-5.510E-06,0.004
-5.500E-06,0.004
-5.490E-06,0.004
-5.480E-06,0.000
-5.470E-06,-0.004
-5.460E-06,0.000
-5.450E-06,0.004
-5.440E-06,0.000
-5.430E-06,0.004
-5.420E-06,0.004
-5.410E-06,0.004
-5.400E-06,-0.004
-5.390E-06,0.000
-5.380E-06,0.004
-5.370E-06,0.000
-5.360E-06,0.000
-5.350E-06,0.004
-5.340E-06,0.008
-5.330E-06,0.000
-5.320E-06,0.000
-5.310E-06,0.004
-5.300E-06,0.008
-5.290E-06,0.000
-5.280E-06,-0.004
-5.270E-06,0.000
-5.260E-06,0.000
-5.250E-06,0.004
-5.240E-06,0.008
-5.230E-06,0.000
-5.220E-06,0.008
-5.210E-06,0.004
-5.200E-06,0.008
-5.190E-06,0.008
-5.180E-06,0.008
-5.170E-06,0.008
-5.160E-06,0.008
-5.150E-06,-0.004
-5.140E-06,0.000
-5.130E-06,0.004
-5.120E-06,0.000
-5.110E-06,0.004
-5.100E-06,0.004
-5.090E-06,0.004
-5.080E-06,0.000
-5.070E-06,-0.004
-5.060E-06,0.004
-5.050E-06,0.004
-5.040E-06,0.004
-5.030E-06,0.004
-5.020E-06,0.000
-5.010E-06,0.000
-5.000E-06,0.000
-4.990E-06,0.004
-4.980E-06,0.004
-4.970E-06,0.008
-4.960E-06,0.004
-4.950E-06,0.000
-4.940E-06,-0.004
-4.930E-06,0.000
-4.920E-06,0.000
-4.910E-06,0.008
-4.900E-06,0.000
-4.890E-06,0.004
-4.880E-06,0.000
-4.870E-06,0.000
-4.860E-06,0.004
-4.850E-06,0.000
-4.840E-06,0.000
-4.830E-06,0.008
-4.820E-06,0.008
-4.810E-06,0.000
-4.800E-06,0.008
-4.790E-06,0.000
-4.780E-06,0.000
-4.770E-06,0.000
-4.760E-06,0.004
-4.750E-06,0.004
-4.740E-06,0.004
-4.730E-06,0.004
-4.720E-06,0.004
-4.710E-06,0.004
-4.700E-06,0.004
-4.690E-06,-0.004
-4.680E-06,0.004
-4.670E-06,0.004
-4.660E-06,0.008
-4.650E-06,0.008
-4.640E-06,-0.004
-4.630E-06,0.000
-4.620E-06,0.000
-4.610E-06,0.000
-4.600E-06,0.000
-4.590E-06,0.008
-4.580E-06,0.008
-4.570E-06,0.008
-4.560E-06,0.004
-4.550E-06,-0.004
-4.540E-06,0.000
-4.530E-06,0.000
-4.520E-06,0.004
-4.510E-06,0.008
-4.500E-06,0.008
-4.490E-06,0.000
-4.480E-06,0.004
-4.470E-06,0.004
-4.460E-06,-0.004
-4.450E-06,0.000
-4.440E-06,0.004
-4.430E-06,0.008
-4.420E-06,0.004
-4.410E-06,0.004
-4.400E-06,0.000
-4.390E-06,0.000
-4.380E-06,0.004
-4.370E-06,0.004
-4.360E-06,0.004
-4.350E-06,0.004
-4.340E-06,-0.004
-4.330E-06,0.000
-4.320E-06,0.004
-4.310E-06,0.004
-4.300E-06,0.004
-4.290E-06,0.004
-4.280E-06,0.004
-4.270E-06,0.000
-4.260E-06,0.000
-4.250E-06,0.000
-4.240E-06,0.004
-4.230E-06,0.008
-4.220E-06,0.004
-4.210E-06,0.004
-4.200E-06,0.000
-4.190E-06,0.004
-4.180E-06,-0.004
-4.170E-06,0.004
-4.160E-06,0.008
-4.150E-06,0.008
-4.140E-06,0.008
-4.130E-06,0.000
-4.120E-06,0.004
-4.110E-06,0.008
-4.100E-06,0.004
-4.090E-06,0.000
-4.080E-06,-0.004
-4.070E-06,0.000
-4.060E-06,-0.004
-4.050E-06,-0.004
-4.040E-06,0.004
-4.030E-06,0.008
-4.020E-06,0.008
-4.010E-06,0.008
-4.000E-06,0.004
-3.990E-06,-0.004
-3.980E-06,0.000
-3.970E-06,0.000
-3.960E-06,0.004
-3.950E-06,0.008
-3.940E-06,0.004
-3.930E-06,0.000
-3.920E-06,0.000
-3.910E-06,0.004
-3.900E-06,0.004
-3.890E-06,0.008
-3.880E-06,0.004
-3.870E-06,0.004
-3.860E-06,0.008
-3.850E-06,0.000
-3.840E-06,-0.004
-3.830E-06,-0.004
-3.820E-06,-0.004
-3.810E-06,0.000
-3.800E-06,0.008
-3.790E-06,0.000
-3.780E-06,0.004
-3.770E-06,0.008
-3.760E-06,0.000
-3.750E-06,-0.004
-3.740E-06,0.000
-3.730E-06,0.000
-3.720E-06,0.000
-3.710E-06,0.004
-3.700E-06,0.008
-3.690E-06,0.000
-3.680E-06,0.000
-3.670E-06,0.000
-3.660E-06,0.004
-3.650E-06,-0.004
-3.640E-06,0.000
-3.630E-06,0.004
-3.620E-06,0.004
-3.610E-06,0.004
-3.600E-06,0.008
-3.590E-06,0.008
-3.580E-06,-0.004
-3.570E-06,0.000
-3.560E-06,0.000
-3.550E-06,0.008
-3.540E-06,0.008
-3.530E-06,0.004
-3.520E-06,0.004
-3.510E-06,0.000
-3.500E-06,0.008
-3.490E-06,0.000
-3.480E-06,0.004
-3.470E-06,0.000
-3.460E-06,0.004
-3.450E-06,0.008
-3.440E-06,0.008
-3.430E-06,-0.004
-3.420E-06,0.004
-3.410E-06,0.004
-3.400E-06,0.000
-3.390E-06,0.004
-3.380E-06,0.008
-3.370E-06,0.000
-3.360E-06,0.004
-3.350E-06,0.004
-3.340E-06,-0.004
-3.330E-06,0.000
-3.320E-06,0.000
-3.310E-06,0.000
-3.300E-06,0.000
-3.290E-06,0.004
-3.280E-06,0.004
-3.270E-06,0.004
-3.260E-06,0.004
-3.250E-06,0.000
-3.240E-06,0.000
-3.230E-06,0.000
-3.220E-06,0.008
-3.210E-06,0.012
-3.200E-06,0.000
-3.190E-06,-0.004
-3.180E-06,0.004
-3.170E-06,0.000
-3.160E-06,0.004
-3.150E-06,0.000
-3.140E-06,0.004
-3.130E-06,0.004
-3.120E-06,0.004
-3.110E-06,0.000
-3.100E-06,0.004
-3.090E-06,0.004
-3.080E-06,0.004
-3.070E-06,0.004
-3.060E-06,0.004
-3.050E-06,0.000
-3.040E-06,0.000
-3.030E-06,0.004
-3.020E-06,0.000
-3.010E-06,0.004
-3.000E-06,0.000
-2.990E-06,0.004
-2.980E-06,0.000
-2.970E-06,0.000
-2.960E-06,0.004
-2.950E-06,0.000
-2.940E-06,-0.004
-2.930E-06,0.004
-2.920E-06,0.000
-2.910E-06,0.004
-2.900E-06,0.000
-2.890E-06,0.004
-2.880E-06,0.000
-2.870E-06,0.000
-2.860E-06,-0.004
-2.850E-06,0.004
-2.840E-06,0.004
-2.830E-06,0.004
-2.820E-06,0.004
-2.810E-06,0.004
-2.800E-06,0.004
-2.790E-06,0.000
-2.780E-06,0.000
-2.770E-06,0.004
-2.760E-06,0.000
-2.750E-06,0.000
-2.740E-06,0.008
-2.730E-06,0.012
-2.720E-06,0.008
-2.710E-06,0.000
-2.700E-06,0.000
-2.690E-06,0.000
-2.680E-06,0.000
-2.670E-06,0.000
-2.660E-06,0.004
-2.650E-06,0.000
-2.640E-06,0.000
-2.630E-06,0.004
-2.620E-06,-0.004
-2.610E-06,0.000
-2.600E-06,0.008
-2.590E-06,0.000
-2.580E-06,0.000
-2.570E-06,0.008
-2.560E-06,0.008
-2.550E-06,0.004
-2.540E-06,0.004
-2.530E-06,0.000
-2.520E-06,0.000
-2.510E-06,0.004
-2.500E-06,0.012
-2.490E-06,0.000
-2.480E-06,0.004
-2.470E-06,0.004
-2.460E-06,0.000
-2.450E-06,-0.004
-2.440E-06,0.000
-2.430E-06,0.000
-2.420E-06,0.004
-2.410E-06,0.008
-2.400E-06,0.012
-2.390E-06,0.004
-2.380E-06,0.000
-2.370E-06,0.000
-2.360E-06,0.004
-2.350E-06,0.004
-2.340E-06,0.004
-2.330E-06,0.008
-2.320E-06,0.008
-2.310E-06,0.000
-2.300E-06,0.000
-2.290E-06,0.004
-2.280E-06,0.004
-2.270E-06,0.004
-2.260E-06,0.004
-2.250E-06,0.000
-2.240E-06,0.000
-2.230E-06,0.004
-2.220E-06,0.008
-2.210E-06,0.004
-2.200E-06,0.008
-2.190E-06,0.008
-2.180E-06,-0.004
-2.170E-06,-0.004
-2.160E-06,0.000
-2.150E-06,0.004
-2.140E-06,0.008
-2.130E-06,0.012
-2.120E-06,0.004
-2.110E-06,0.000
-2.100E-06,-0.004
-2.090E-06,0.000
-2.080E-06,0.000
-2.070E-06,0.008
-2.060E-06,0.008
-2.050E-06,0.004
-2.040E-06,0.004
-2.030E-06,0.008
-2.020E-06,0.000
-2.010E-06,0.000
-2.000E-06,0.000
-1.990E-06,0.004
-1.980E-06,0.004
-1.970E-06,0.000
-1.960E-06,0.008
-1.950E-06,0.008
-1.940E-06,0.008
-1.930E-06,0.004
-1.920E-06,0.004
-1.910E-06,0.004
-1.900E-06,0.008
-1.890E-06,0.004
-1.880E-06,0.004
-1.870E-06,0.008
-1.860E-06,0.008
-1.850E-06,0.000
-1.840E-06,0.000
-1.830E-06,0.004
-1.820E-06,0.004
-1.810E-06,0.008
-1.800E-06,0.008
-1.790E-06,0.004
-1.780E-06,0.000
-1.770E-06,0.008
-1.760E-06,0.012
-1.750E-06,0.012
-1.740E-06,0.004
-1.730E-06,0.004
-1.720E-06,0.004
-1.710E-06,0.000
-1.700E-06,0.000
-1.690E-06,0.004
-1.680E-06,0.008
-1.670E-06,0.012
-1.660E-06,0.016
-1.650E-06,0.012
-1.640E-06,0.008
-1.630E-06,0.004
-1.620E-06,-0.004
-1.610E-06,0.000
-1.600E-06,0.012
-1.590E-06,0.020
-1.580E-06,0.020
-1.570E-06,0.020
-1.560E-06,0.028
-1.550E-06,0.024
-1.540E-06,0.000
-1.530E-06,-0.008
-1.520E-06,-0.012
-1.510E-06,-0.008
-1.500E-06,0.000
-1.490E-06,0.016
-1.480E-06,0.024
-1.470E-06,0.016
-1.460E-06,0.008
-1.450E-06,-0.008
-1.440E-06,-0.012
-1.430E-06,-0.008
-1.420E-06,0.000
-1.410E-06,0.012
-1.400E-06,0.024
-1.390E-06,0.016
-1.380E-06,0.004
-1.370E-06,-0.012
-1.360E-06,-0.020
-1.350E-06,-0.004
-1.340E-06,0.004
-1.330E-06,0.024
-1.320E-06,0.024
-1.310E-06,0.020
-1.300E-06,0.012
-1.290E-06,0.004
-1.280E-06,0.004
-1.270E-06,0.000
-1.260E-06,0.008
-1.250E-06,0.016
-1.240E-06,0.020
-1.230E-06,0.024
-1.220E-06,0.024
-1.210E-06,0.016
-1.200E-06,0.012
-1.190E-06,0.012
-1.180E-06,0.000
-1.170E-06,0.036
-1.160E-06,0.060
-1.150E-06,0.052
-1.140E-06,0.028
-1.130E-06,0.028
-1.120E-06,0.028
-1.110E-06,0.016
-1.100E-06,0.004
-1.090E-06,-0.020
-1.080E-06,-0.024
-1.070E-06,-0.008
-1.060E-06,0.016
-1.050E-06,0.020
-1.040E-06,0.008
-1.030E-06,-0.004
-1.020E-06,-0.020
-1.010E-06,-0.040
-1.000E-06,-0.060
-9.900E-07,-0.036
-9.800E-07,-0.008
-9.700E-07,0.024
-9.600E-07,0.028
-9.500E-07,0.028
-9.400E-07,0.008
-9.300E-07,-0.004
-9.200E-07,-0.028
-9.100E-07,-0.020
-9.000E-07,0.000
-8.900E-07,0.012
-8.800E-07,0.020
-8.700E-07,0.020
-8.600E-07,0.020
-8.500E-07,0.008
-8.400E-07,0.004
-8.300E-07,-0.004
-8.200E-07,-0.008
-8.100E-07,0.000
-8.000E-07,0.012
-7.900E-07,0.024
-7.800E-07,0.020
-7.700E-07,0.016
-7.600E-07,0.012
-7.500E-07,0.004
-7.400E-07,0.008
-7.300E-07,0.012
-7.200E-07,0.012
-7.100E-07,0.016
-7.000E-07,0.016
-6.900E-07,0.020
-6.800E-07,0.008
-6.700E-07,0.024
-6.600E-07,0.024
-6.500E-07,0.032
-6.400E-07,0.024
-6.300E-07,0.008
-6.200E-07,0.000
-6.100E-07,0.008
-6.000E-07,0.016
-5.900E-07,0.040
-5.800E-07,0.052
-5.700E-07,0.056
-5.600E-07,0.040
-5.500E-07,0.012
-5.400E-07,-0.008
-5.300E-07,-0.016
-5.200E-07,0.004
-5.100E-07,0.032
-5.000E-07,0.056
-4.900E-07,0.060
-4.800E-07,0.040
-4.700E-07,0.012
-4.600E-07,-0.012
-4.500E-07,-0.020
-4.400E-07,0.000
-4.300E-07,0.024
-4.200E-07,0.036
-4.100E-07,0.036
-4.000E-07,0.020
-3.900E-07,0.000
-3.800E-07,0.000
-3.700E-07,0.020
-3.600E-07,0.016
-3.500E-07,0.024
-3.400E-07,0.008
-3.300E-07,0.012
-3.200E-07,0.024
-3.100E-07,0.064
-3.000E-07,0.072
-2.900E-07,0.076
-2.800E-07,0.064
-2.700E-07,0.072
-2.600E-07,0.064
-2.500E-07,0.068
-2.400E-07,0.076
-2.300E-07,0.080
-2.200E-07,0.084
-2.100E-07,0.092
-2.000E-07,0.124
-1.900E-07,0.104
-1.800E-07,0.132
-1.700E-07,0.132
-1.600E-07,0.132
-1.500E-07,0.092
-1.400E-07,0.096
-1.300E-07,0.088
-1.200E-07,0.104
-1.100E-07,0.124
-1.000E-07,0.132
-9.000E-08,0.136
-8.000E-08,0.124
-7.000E-08,0.028
-6.000E-08,-0.296
-5.000E-08,-0.512
-4.000E-08,-0.512
-3.000E-08,-0.512
-2.000E-08,-0.176
-1.000E-08,0.484
0.000E+00,0.540
1.000E-08,0.544
2.000E-08,0.036
3.000E-08,-0.512
4.000E-08,-0.512
5.000E-08,-0.512
6.000E-08,0.124
7.000E-08,0.540
8.000E-08,0.540
9.000E-08,0.544
1.000E-07,0.108
1.100E-07,-0.316
1.200E-07,-0.504
1.300E-07,-0.316
1.400E-07,0.052
1.500E-07,0.444
1.600E-07,0.540
1.700E-07,0.484
1.800E-07,0.236
1.900E-07,-0.112
2.000E-07,-0.300
2.100E-07,-0.284
2.200E-07,-0.012
2.300E-07,0.272
2.400E-07,0.468
2.500E-07,0.428
2.600E-07,0.228
2.700E-07,-0.064
2.800E-07,-0.268
2.900E-07,-0.272
3.000E-07,-0.104
3.100E-07,0.160
3.200E-07,0.328
3.300E-07,0.348
3.400E-07,0.188
3.500E-07,-0.040
3.600E-07,-0.204
3.700E-07,-0.192
3.800E-07,-0.036
3.900E-07,0.172
4.000E-07,0.260
4.100E-07,0.184
4.200E-07,0.004
4.300E-07,-0.180
4.400E-07,-0.260
4.500E-07,-0.160
4.600E-07,0.056
4.700E-07,0.232
4.800E-07,0.280
4.900E-07,0.124
5.000E-07,-0.080
5.100E-07,-0.256
5.200E-07,-0.256
5.300E-07,-0.096
5.400E-07,0.168
5.500E-07,0.372
5.600E-07,0.352
5.700E-07,0.224
5.800E-07,-0.024
5.900E-07,-0.208
6.000E-07,-0.232
6.100E-07,-0.084
6.200E-07,0.196
6.300E-07,0.444
6.400E-07,0.504
6.500E-07,0.332
6.600E-07,0.060
6.700E-07,-0.192
6.800E-07,-0.268
6.900E-07,-0.132
7.000E-07,0.128
7.100E-07,0.380
7.200E-07,0.492
7.300E-07,0.412
7.400E-07,0.208
7.500E-07,0.012
7.600E-07,-0.076
7.700E-07,-0.004
7.800E-07,0.172
7.900E-07,0.356
8.000E-07,0.440
8.100E-07,0.376
8.200E-07,0.232
8.300E-07,0.076
8.400E-07,0.008
8.500E-07,0.040
8.600E-07,0.152
8.700E-07,0.272
8.800E-07,0.340
8.900E-07,0.308
9.000E-07,0.212
9.100E-07,0.112
9.200E-07,0.060
9.300E-07,0.068
9.400E-07,0.140
9.500E-07,0.228
9.600E-07,0.280
9.700E-07,0.276
9.800E-07,0.216
9.900E-07,0.136
1.000E-06,0.080
1.010E-06,0.064
1.020E-06,0.108
1.030E-06,0.176
1.040E-06,0.252
1.050E-06,0.276
1.060E-06,0.240
1.070E-06,0.172
1.080E-06,0.108
1.090E-06,0.088
1.100E-06,0.096
1.110E-06,0.160
1.120E-06,0.224
1.130E-06,0.268
1.140E-06,0.264
1.150E-06,0.216
1.160E-06,0.136
1.170E-06,0.076
1.180E-06,0.056
1.190E-06,0.084
1.200E-06,0.176
1.210E-06,0.248
1.220E-06,0.264
1.230E-06,0.204
1.240E-06,0.128
1.250E-06,0.076
1.260E-06,0.076
1.270E-06,0.144
1.280E-06,0.248
1.290E-06,0.332
1.300E-06,0.356
1.310E-06,0.284
1.320E-06,0.200
1.330E-06,0.144
1.340E-06,0.140
1.350E-06,0.180
1.360E-06,0.228
1.370E-06,0.252
1.380E-06,0.260
1.390E-06,0.220
1.400E-06,0.196
1.410E-06,0.200
1.420E-06,0.224
1.430E-06,0.260
1.440E-06,0.280
1.450E-06,0.264
1.460E-06,0.220
1.470E-06,0.196
1.480E-06,0.188
1.490E-06,0.208
1.500E-06,0.236
1.510E-06,0.272
1.520E-06,0.280
1.530E-06,0.264
1.540E-06,0.220
1.550E-06,0.196
1.560E-06,0.188
1.570E-06,0.208
1.580E-06,0.224
1.590E-06,0.236
1.600E-06,0.244
1.610E-06,0.240
1.620E-06,0.228
1.630E-06,0.220
1.640E-06,0.228
1.650E-06,0.228
1.660E-06,0.232
1.670E-06,0.236
1.680E-06,0.244
1.690E-06,0.252
1.700E-06,0.244
1.710E-06,0.224
1.720E-06,0.216
1.730E-06,0.212
1.740E-06,0.220
1.750E-06,0.228
1.760E-06,0.240
1.770E-06,0.244
1.780E-06,0.236
1.790E-06,0.228
1.800E-06,0.216
1.810E-06,0.216
1.820E-06,0.220
1.830E-06,0.224
1.840E-06,0.228
1.850E-06,0.228
1.860E-06,0.224
1.870E-06,0.228
1.880E-06,0.224
1.890E-06,0.212
1.900E-06,0.216
1.910E-06,0.212
1.920E-06,0.208
1.930E-06,0.216
1.940E-06,0.216
1.950E-06,0.224
1.960E-06,0.224
1.970E-06,0.216
1.980E-06,0.208
1.990E-06,0.204
2.000E-06,0.204
2.010E-06,0.204
2.020E-06,0.200
2.030E-06,0.204
2.040E-06,0.212
2.050E-06,0.212
2.060E-06,0.204
2.070E-06,0.204
2.080E-06,0.200
2.090E-06,0.196
2.100E-06,0.200
2.110E-06,0.208
2.120E-06,0.208
2.130E-06,0.212
2.140E-06,0.204
2.150E-06,0.204
2.160E-06,0.200
2.170E-06,0.204
2.180E-06,0.204
2.190E-06,0.204
2.200E-06,0.208
2.210E-06,0.204
2.220E-06,0.208
2.230E-06,0.204
2.240E-06,0.204
2.250E-06,0.200
2.260E-06,0.196
2.270E-06,0.196
2.280E-06,0.200
2.290E-06,0.200
2.300E-06,0.208
2.310E-06,0.204
2.320E-06,0.204
2.330E-06,0.200
2.340E-06,0.192
2.350E-06,0.192
2.360E-06,0.192
2.370E-06,0.196
2.380E-06,0.196
2.390E-06,0.196
2.400E-06,0.192
2.410E-06,0.192
2.420E-06,0.192
2.430E-06,0.192
2.440E-06,0.192
2.450E-06,0.188
2.460E-06,0.188
2.470E-06,0.192
2.480E-06,0.192
2.490E-06,0.188
2.500E-06,0.184
2.510E-06,0.188
2.520E-06,0.176
2.530E-06,0.172
2.540E-06,0.176
2.550E-06,0.180
2.560E-06,0.188
2.570E-06,0.184
2.580E-06,0.188
2.590E-06,0.184
2.600E-06,0.176
2.610E-06,0.176
2.620E-06,0.176
2.630E-06,0.176
2.640E-06,0.184
2.650E-06,0.188
2.660E-06,0.184
2.670E-06,0.180
2.680E-06,0.172
2.690E-06,0.172
2.700E-06,0.176
2.710E-06,0.180
2.720E-06,0.180
2.730E-06,0.184
2.740E-06,0.188
2.750E-06,0.180
2.760E-06,0.180
2.770E-06,0.176
2.780E-06,0.168
2.790E-06,0.172
2.800E-06,0.180
2.810E-06,0.176
2.820E-06,0.176
2.830E-06,0.176
2.840E-06,0.172
2.850E-06,0.176
2.860E-06,0.176
2.870E-06,0.172
2.880E-06,0.180
2.890E-06,0.180
2.900E-06,0.176
2.910E-06,0.172
2.920E-06,0.172
2.930E-06,0.172
2.940E-06,0.160
2.950E-06,0.160
2.960E-06,0.164
2.970E-06,0.168
2.980E-06,0.176
2.990E-06,0.168
3.000E-06,0.160
3.010E-06,0.160
3.020E-06,0.156
3.030E-06,0.156
3.040E-06,0.160
3.050E-06,0.164
3.060E-06,0.168
3.070E-06,0.164
3.080E-06,0.160
3.090E-06,0.164
3.100E-06,0.156
3.110E-06,0.156
3.120E-06,0.160
3.130E-06,0.160
3.140E-06,0.160
3.150E-06,0.168
3.160E-06,0.164
3.170E-06,0.164
3.180E-06,0.156
3.190E-06,0.156
3.200E-06,0.160
3.210E-06,0.156
3.220E-06,0.156
3.230E-06,0.160
3.240E-06,0.160
3.250E-06,0.164
3.260E-06,0.156
3.270E-06,0.156
3.280E-06,0.152
3.290E-06,0.156
3.300E-06,0.164
3.310E-06,0.160
3.320E-06,0.152
3.330E-06,0.156
3.340E-06,0.152
3.350E-06,0.152
3.360E-06,0.156
3.370E-06,0.160
3.380E-06,0.160
3.390E-06,0.152
3.400E-06,0.156
3.410E-06,0.152
3.420E-06,0.144
3.430E-06,0.144
3.440E-06,0.144
3.450E-06,0.148
