mediciones/Mediciones filtradas (saque las feas)/5-27/-60/WaveData50342.csv

#timebase=2000000(ps)
,#voltbase=1000000(mv/100)
#size=4000
-5.650E-06,0.000
-5.640E-06,0.000
-5.630E-06,0.040
-5.620E-06,0.000
-5.610E-06,0.040
-5.600E-06,0.000
-5.590E-06,0.080
-5.580E-06,0.040
-5.570E-06,0.040
-5.560E-06,0.040
-5.550E-06,0.000
-5.540E-06,0.040
-5.530E-06,0.040
-5.520E-06,0.040
-5.510E-06,0.120
-5.500E-06,0.000
-5.490E-06,0.000
-5.480E-06,0.040
-5.470E-06,0.040
-5.460E-06,0.040
-5.450E-06,0.080
-5.440E-06,0.000
-5.430E-06,0.040
-5.420E-06,0.040
-5.410E-06,0.040
-5.400E-06,0.040
-5.390E-06,0.040
-5.380E-06,0.040
-5.370E-06,0.040
-5.360E-06,0.040
-5.350E-06,0.040
-5.340E-06,0.040
-5.330E-06,0.040
-5.320E-06,0.040
-5.310E-06,0.080
-5.300E-06,0.040
-5.290E-06,0.040
-5.280E-06,0.040
-5.270E-06,0.040
-5.260E-06,0.040
-5.250E-06,0.000
-5.240E-06,0.000
-5.230E-06,0.040
-5.220E-06,0.080
-5.210E-06,0.080
-5.200E-06,0.080
-5.190E-06,0.040
-5.180E-06,0.040
-5.170E-06,0.000
-5.160E-06,0.080
-5.150E-06,0.000
-5.140E-06,0.040
-5.130E-06,0.000
-5.120E-06,0.040
-5.110E-06,0.000
-5.100E-06,0.040
-5.090E-06,0.040
-5.080E-06,0.040
-5.070E-06,0.040
-5.060E-06,0.040
-5.050E-06,0.080
-5.040E-06,0.040
-5.030E-06,0.040
-5.020E-06,0.080
-5.010E-06,0.040
-5.000E-06,0.040
-4.990E-06,0.080
-4.980E-06,0.080
-4.970E-06,0.080
-4.960E-06,0.080
-4.950E-06,0.000
-4.940E-06,0.000
-4.930E-06,0.040
-4.920E-06,0.040
-4.910E-06,0.080
-4.900E-06,0.120
-4.890E-06,0.040
-4.880E-06,0.080
-4.870E-06,0.040
-4.860E-06,0.080
-4.850E-06,0.040
-4.840E-06,0.000
-4.830E-06,0.040
-4.820E-06,0.040
-4.810E-06,0.040
-4.800E-06,0.040
-4.790E-06,0.000
-4.780E-06,0.040
-4.770E-06,0.040
-4.760E-06,0.000
-4.750E-06,0.080
-4.740E-06,0.080
-4.730E-06,0.040
-4.720E-06,0.040
-4.710E-06,0.000
-4.700E-06,0.000
-4.690E-06,0.040
-4.680E-06,0.000
-4.670E-06,0.000
-4.660E-06,0.040
-4.650E-06,0.120
-4.640E-06,0.000
-4.630E-06,0.000
-4.620E-06,0.040
-4.610E-06,0.080
-4.600E-06,0.040
-4.590E-06,0.040
-4.580E-06,0.040
-4.570E-06,0.040
-4.560E-06,0.040
-4.550E-06,0.040
-4.540E-06,0.040
-4.530E-06,0.040
-4.520E-06,0.120
-4.510E-06,0.120
-4.500E-06,0.080
-4.490E-06,0.080
-4.480E-06,0.080
-4.470E-06,0.000
-4.460E-06,0.040
-4.450E-06,0.040
-4.440E-06,0.040
-4.430E-06,0.040
-4.420E-06,0.040
-4.410E-06,0.040
-4.400E-06,0.000
-4.390E-06,0.040
-4.380E-06,0.000
-4.370E-06,0.040
-4.360E-06,0.040
-4.350E-06,0.040
-4.340E-06,0.000
-4.330E-06,0.000
-4.320E-06,0.080
-4.310E-06,0.120
-4.300E-06,0.040
-4.290E-06,0.040
-4.280E-06,0.040
-4.270E-06,0.040
-4.260E-06,0.040
-4.250E-06,0.000
-4.240E-06,0.040
-4.230E-06,0.040
-4.220E-06,0.040
-4.210E-06,0.040
-4.200E-06,0.000
-4.190E-06,0.040
-4.180E-06,0.040
-4.170E-06,0.080
-4.160E-06,0.040
-4.150E-06,0.040
-4.140E-06,0.040
-4.130E-06,0.040
-4.120E-06,0.000
-4.110E-06,0.080
-4.100E-06,0.000
-4.090E-06,0.040
-4.080E-06,0.040
-4.070E-06,0.040
-4.060E-06,0.040
-4.050E-06,0.080
-4.040E-06,0.080
-4.030E-06,0.000
-4.020E-06,0.040
-4.010E-06,0.040
-4.000E-06,0.080
-3.990E-06,0.040
-3.980E-06,0.040
-3.970E-06,0.040
-3.960E-06,0.040
-3.950E-06,0.120
-3.940E-06,0.080
-3.930E-06,0.080
-3.920E-06,0.000
-3.910E-06,0.000
-3.900E-06,0.040
-3.890E-06,0.040
-3.880E-06,0.040
-3.870E-06,0.040
-3.860E-06,0.040
-3.850E-06,0.040
-3.840E-06,0.040
-3.830E-06,0.080
-3.820E-06,0.120
-3.810E-06,0.080
-3.800E-06,0.040
-3.790E-06,0.080
-3.780E-06,0.080
-3.770E-06,0.080
-3.760E-06,0.040
-3.750E-06,0.040
-3.740E-06,0.000
-3.730E-06,0.040
-3.720E-06,0.000
-3.710E-06,0.080
-3.700E-06,0.040
-3.690E-06,0.040
-3.680E-06,0.080
-3.670E-06,0.000
-3.660E-06,0.040
-3.650E-06,0.040
-3.640E-06,0.040
-3.630E-06,0.040
-3.620E-06,0.080
-3.610E-06,0.080
-3.600E-06,0.000
-3.590E-06,0.040
-3.580E-06,0.040
-3.570E-06,0.040
-3.560E-06,0.000
-3.550E-06,0.000
-3.540E-06,0.040
-3.530E-06,0.080
-3.520E-06,0.080
-3.510E-06,0.080
-3.500E-06,0.040
-3.490E-06,0.040
-3.480E-06,0.000
-3.470E-06,0.040
-3.460E-06,0.080
-3.450E-06,0.120
-3.440E-06,0.120
-3.430E-06,0.080
-3.420E-06,-0.040
-3.410E-06,0.040
-3.400E-06,0.040
-3.390E-06,0.080
-3.380E-06,0.040
-3.370E-06,0.040
-3.360E-06,0.040
-3.350E-06,0.040
-3.340E-06,0.040
-3.330E-06,0.040
-3.320E-06,0.080
-3.310E-06,0.040
-3.300E-06,0.040
-3.290E-06,0.080
-3.280E-06,0.000
-3.270E-06,0.040
-3.260E-06,0.040
-3.250E-06,0.040
-3.240E-06,0.040
-3.230E-06,0.120
-3.220E-06,0.120
-3.210E-06,0.000
-3.200E-06,0.040
-3.190E-06,0.040
-3.180E-06,0.080
-3.170E-06,0.040
-3.160E-06,0.040
-3.150E-06,0.080
-3.140E-06,0.040
-3.130E-06,0.080
-3.120E-06,0.080
-3.110E-06,0.080
-3.100E-06,0.040
-3.090E-06,0.000
-3.080E-06,0.040
-3.070E-06,0.000
-3.060E-06,0.080
-3.050E-06,0.040
-3.040E-06,0.040
-3.030E-06,0.080
-3.020E-06,0.000
-3.010E-06,0.000
-3.000E-06,0.040
-2.990E-06,0.000
-2.980E-06,0.080
-2.970E-06,0.080
-2.960E-06,0.080
-2.950E-06,0.040
-2.940E-06,0.040
-2.930E-06,0.040
-2.920E-06,0.080
-2.910E-06,0.000
-2.900E-06,0.040
-2.890E-06,0.040
-2.880E-06,0.040
-2.870E-06,0.040
-2.860E-06,0.040
-2.850E-06,0.000
-2.840E-06,0.080
-2.830E-06,0.040
-2.820E-06,0.080
-2.810E-06,0.040
-2.800E-06,0.000
-2.790E-06,0.000
-2.780E-06,0.040
-2.770E-06,0.040
-2.760E-06,0.080
-2.750E-06,0.040
-2.740E-06,0.040
-2.730E-06,0.040
-2.720E-06,0.080
-2.710E-06,0.080
-2.700E-06,0.080
-2.690E-06,0.040
-2.680E-06,0.040
-2.670E-06,0.040
-2.660E-06,0.040
-2.650E-06,0.000
-2.640E-06,0.040
-2.630E-06,0.000
-2.620E-06,0.080
-2.610E-06,0.040
-2.600E-06,0.040
-2.590E-06,0.040
-2.580E-06,0.080
-2.570E-06,0.040
-2.560E-06,0.000
-2.550E-06,0.040
-2.540E-06,0.040
-2.530E-06,0.080
-2.520E-06,0.080
-2.510E-06,0.000
-2.500E-06,0.000
-2.490E-06,0.040
-2.480E-06,0.000
-2.470E-06,0.040
-2.460E-06,0.000
-2.450E-06,0.040
-2.440E-06,0.080
-2.430E-06,-0.040
-2.420E-06,0.000
-2.410E-06,0.040
-2.400E-06,0.000
-2.390E-06,0.000
-2.380E-06,0.080
-2.370E-06,0.080
-2.360E-06,0.000
-2.350E-06,0.080
-2.340E-06,0.040
-2.330E-06,0.040
-2.320E-06,0.040
-2.310E-06,0.080
-2.300E-06,0.080
-2.290E-06,0.000
-2.280E-06,0.040
-2.270E-06,0.040
-2.260E-06,0.040
-2.250E-06,0.040
-2.240E-06,0.000
-2.230E-06,0.000
-2.220E-06,0.040
-2.210E-06,0.080
-2.200E-06,0.000
-2.190E-06,0.040
-2.180E-06,0.040
-2.170E-06,0.040
-2.160E-06,0.040
-2.150E-06,0.040
-2.140E-06,0.040
-2.130E-06,0.080
-2.120E-06,0.040
-2.110E-06,0.000
-2.100E-06,0.000
-2.090E-06,0.040
-2.080E-06,0.000
-2.070E-06,0.040
-2.060E-06,0.040
-2.050E-06,0.000
-2.040E-06,0.000
-2.030E-06,0.040
-2.020E-06,0.040
-2.010E-06,0.040
-2.000E-06,0.040
-1.990E-06,0.080
-1.980E-06,0.000
-1.970E-06,0.040
-1.960E-06,0.040
-1.950E-06,0.040
-1.940E-06,0.080
-1.930E-06,0.080
-1.920E-06,0.080
-1.910E-06,0.080
-1.900E-06,0.000
-1.890E-06,0.040
-1.880E-06,0.080
-1.870E-06,0.000
-1.860E-06,0.080
-1.850E-06,0.080
-1.840E-06,0.040
-1.830E-06,0.080
-1.820E-06,0.000
-1.810E-06,0.000
-1.800E-06,0.040
-1.790E-06,0.040
-1.780E-06,0.080
-1.770E-06,0.040
-1.760E-06,0.040
-1.750E-06,0.040
-1.740E-06,0.040
-1.730E-06,0.040
-1.720E-06,0.040
-1.710E-06,0.040
-1.700E-06,0.040
-1.690E-06,0.080
-1.680E-06,0.000
-1.670E-06,0.040
-1.660E-06,0.040
-1.650E-06,0.040
-1.640E-06,0.080
-1.630E-06,0.080
-1.620E-06,0.040
-1.610E-06,0.000
-1.600E-06,0.040
-1.590E-06,0.040
-1.580E-06,0.080
-1.570E-06,0.040
-1.560E-06,0.040
-1.550E-06,0.080
-1.540E-06,0.040
-1.530E-06,0.040
-1.520E-06,0.080
-1.510E-06,0.120
-1.500E-06,0.080
-1.490E-06,0.000
-1.480E-06,0.040
-1.470E-06,0.040
-1.460E-06,0.040
-1.450E-06,0.000
-1.440E-06,0.040
-1.430E-06,0.040
-1.420E-06,0.080
-1.410E-06,0.040
-1.400E-06,0.000
-1.390E-06,0.080
-1.380E-06,0.080
-1.370E-06,0.080
-1.360E-06,0.080
-1.350E-06,0.080
-1.340E-06,0.080
-1.330E-06,0.080
-1.320E-06,0.080
-1.310E-06,0.080
-1.300E-06,0.000
-1.290E-06,0.040
-1.280E-06,0.040
-1.270E-06,0.040
-1.260E-06,0.040
-1.250E-06,0.040
-1.240E-06,0.040
-1.230E-06,0.040
-1.220E-06,0.040
-1.210E-06,0.040
-1.200E-06,0.040
-1.190E-06,0.040
-1.180E-06,0.040
-1.170E-06,0.040
-1.160E-06,0.080
-1.150E-06,0.040
-1.140E-06,0.040
-1.130E-06,0.040
-1.120E-06,0.080
-1.110E-06,0.080
-1.100E-06,0.040
-1.090E-06,0.000
-1.080E-06,0.040
-1.070E-06,0.000
-1.060E-06,0.000
-1.050E-06,0.040
-1.040E-06,0.000
-1.030E-06,0.040
-1.020E-06,0.040
-1.010E-06,0.040
-1.000E-06,0.000
-9.900E-07,0.080
-9.800E-07,0.040
-9.700E-07,0.040
-9.600E-07,0.040
-9.500E-07,0.040
-9.400E-07,0.040
-9.300E-07,0.040
-9.200E-07,0.040
-9.100E-07,0.040
-9.000E-07,0.000
-8.900E-07,0.080
-8.800E-07,0.080
-8.700E-07,0.120
-8.600E-07,0.080
-8.500E-07,0.000
-8.400E-07,0.040
-8.300E-07,0.040
-8.200E-07,0.040
-8.100E-07,0.040
-8.000E-07,0.040
-7.900E-07,0.040
-7.800E-07,0.040
-7.700E-07,0.040
-7.600E-07,0.040
-7.500E-07,0.040
-7.400E-07,0.040
-7.300E-07,0.080
-7.200E-07,0.080
-7.100E-07,0.040
-7.000E-07,-0.040
-6.900E-07,-0.040
-6.800E-07,0.000
-6.700E-07,-0.040
-6.600E-07,0.000
-6.500E-07,0.000
-6.400E-07,0.080
-6.300E-07,0.120
-6.200E-07,0.120
-6.100E-07,0.160
-6.000E-07,0.200
-5.900E-07,0.240
-5.800E-07,0.240
-5.700E-07,0.320
-5.600E-07,0.360
-5.500E-07,0.440
-5.400E-07,0.400
-5.300E-07,0.440
-5.200E-07,0.400
-5.100E-07,0.400
-5.000E-07,0.400
-4.900E-07,0.440
-4.800E-07,0.400
-4.700E-07,0.440
-4.600E-07,0.400
-4.500E-07,0.360
-4.400E-07,0.400
-4.300E-07,0.360
-4.200E-07,0.320
-4.100E-07,0.320
-4.000E-07,0.360
-3.900E-07,0.360
-3.800E-07,0.320
-3.700E-07,0.320
-3.600E-07,0.360
-3.500E-07,0.320
-3.400E-07,0.320
-3.300E-07,0.320
-3.200E-07,0.360
-3.100E-07,0.360
-3.000E-07,0.320
-2.900E-07,0.320
-2.800E-07,0.360
-2.700E-07,0.320
-2.600E-07,0.360
-2.500E-07,0.400
-2.400E-07,0.360
-2.300E-07,0.440
-2.200E-07,0.400
-2.100E-07,0.440
-2.000E-07,0.480
-1.900E-07,0.440
-1.800E-07,0.520
-1.700E-07,0.520
-1.600E-07,0.520
-1.500E-07,0.560
-1.400E-07,0.640
-1.300E-07,0.600
-1.200E-07,0.680
-1.100E-07,0.680
-1.000E-07,0.680
-9.000E-08,0.680
-8.000E-08,0.720
-7.000E-08,0.760
-6.000E-08,0.760
-5.000E-08,0.720
-4.000E-08,0.800
-3.000E-08,0.800
-2.000E-08,0.840
-1.000E-08,0.840
0.000E+00,0.840
1.000E-08,0.800
2.000E-08,0.800
3.000E-08,0.800
4.000E-08,0.840
5.000E-08,0.880
6.000E-08,0.880
7.000E-08,0.880
8.000E-08,0.920
9.000E-08,0.960
1.000E-07,0.960
1.100E-07,0.960
1.200E-07,1.000
1.300E-07,1.080
1.400E-07,1.080
1.500E-07,1.080
1.600E-07,1.160
1.700E-07,1.160
1.800E-07,1.200
1.900E-07,1.240
2.000E-07,1.320
2.100E-07,1.320
2.200E-07,1.320
2.300E-07,1.360
2.400E-07,1.400
2.500E-07,1.400
2.600E-07,1.440
2.700E-07,1.520
2.800E-07,1.520
2.900E-07,1.480
3.000E-07,1.520
3.100E-07,1.520
3.200E-07,1.560
3.300E-07,1.600
3.400E-07,1.600
3.500E-07,1.600
3.600E-07,1.680
3.700E-07,1.640
3.800E-07,1.720
3.900E-07,1.720
4.000E-07,1.760
4.100E-07,1.800
4.200E-07,1.800
4.300E-07,1.840
4.400E-07,1.800
4.500E-07,1.840
4.600E-07,1.880
4.700E-07,1.840
4.800E-07,1.880
4.900E-07,1.880
5.000E-07,1.840
5.100E-07,1.840
5.200E-07,1.880
5.300E-07,1.840
5.400E-07,1.760
5.500E-07,1.760
5.600E-07,1.760
5.700E-07,1.760
5.800E-07,1.680
5.900E-07,1.680
6.000E-07,1.640
6.100E-07,1.520
6.200E-07,1.520
6.300E-07,1.480
6.400E-07,1.400
6.500E-07,1.320
6.600E-07,1.280
6.700E-07,1.200
6.800E-07,1.200
6.900E-07,1.120
7.000E-07,1.120
7.100E-07,1.040
7.200E-07,1.000
7.300E-07,0.920
7.400E-07,0.880
7.500E-07,0.800
7.600E-07,0.720
7.700E-07,0.600
7.800E-07,0.560
7.900E-07,0.520
8.000E-07,0.440
8.100E-07,0.320
8.200E-07,0.240
8.300E-07,0.160
8.400E-07,0.080
8.500E-07,0.040
8.600E-07,0.000
8.700E-07,-0.080
8.800E-07,-0.120
8.900E-07,-0.240
9.000E-07,-0.360
9.100E-07,-0.400
9.200E-07,-0.520
9.300E-07,-0.520
9.400E-07,-0.640
9.500E-07,-0.720
9.600E-07,-0.840
9.700E-07,-0.920
9.800E-07,-1.000
9.900E-07,-1.080
1.000E-06,-1.200
1.010E-06,-1.200
1.020E-06,-1.280
1.030E-06,-1.360
1.040E-06,-1.440
1.050E-06,-1.520
1.060E-06,-1.600
1.070E-06,-1.680
1.080E-06,-1.760
1.090E-06,-1.800
1.100E-06,-1.840
1.110E-06,-2.000
1.120E-06,-2.000
1.130E-06,-2.120
1.140E-06,-2.200
1.150E-06,-2.280
1.160E-06,-2.360
1.170E-06,-2.400
1.180E-06,-2.480
1.190E-06,-2.560
1.200E-06,-2.640
1.210E-06,-2.640
1.220E-06,-2.720
1.230E-06,-2.800
1.240E-06,-2.920
1.250E-06,-2.960
1.260E-06,-3.000
1.270E-06,-3.120
1.280E-06,-3.120
1.290E-06,-3.240
1.300E-06,-3.240
1.310E-06,-3.360
1.320E-06,-3.360
1.330E-06,-3.440
1.340E-06,-3.480
1.350E-06,-3.520
1.360E-06,-3.600
1.370E-06,-3.680
1.380E-06,-3.720
1.390E-06,-3.760
1.400E-06,-3.840
1.410E-06,-3.840
1.420E-06,-3.880
1.430E-06,-3.920
1.440E-06,-3.960
1.450E-06,-4.000
1.460E-06,-4.000
1.470E-06,-4.000
1.480E-06,-4.040
1.490E-06,-4.040
1.500E-06,-4.080
1.510E-06,-4.080
1.520E-06,-4.040
1.530E-06,-4.080
1.540E-06,-4.040
1.550E-06,-4.080
1.560E-06,-4.040
1.570E-06,-4.000
1.580E-06,-4.040
1.590E-06,-4.000
1.600E-06,-4.000
1.610E-06,-4.000
1.620E-06,-4.000
1.630E-06,-3.960
1.640E-06,-4.000
1.650E-06,-3.960
1.660E-06,-4.000
1.670E-06,-4.000
1.680E-06,-4.000
1.690E-06,-4.040
1.700E-06,-4.000
1.710E-06,-3.960
1.720E-06,-3.960
1.730E-06,-4.000
1.740E-06,-3.960
1.750E-06,-3.920
1.760E-06,-3.920
1.770E-06,-3.920
1.780E-06,-3.880
1.790E-06,-3.880
1.800E-06,-3.880
1.810E-06,-3.800
1.820E-06,-3.800
1.830E-06,-3.800
1.840E-06,-3.720
1.850E-06,-5.200
1.860E-06,-3.640
1.870E-06,-5.240
1.880E-06,-5.040
1.890E-06,-4.160
1.900E-06,-5.200
1.910E-06,-4.880
1.920E-06,-4.960
1.930E-06,-5.200
1.940E-06,-4.520
1.950E-06,-5.040
1.960E-06,-4.800
1.970E-06,-4.480
1.980E-06,-4.760
1.990E-06,-4.480
2.000E-06,-4.480
2.010E-06,-4.360
2.020E-06,-4.280
2.030E-06,-4.320
2.040E-06,-4.200
2.050E-06,-4.080
2.060E-06,-4.040
2.070E-06,-4.000
2.080E-06,-3.880
2.090E-06,-3.880
2.100E-06,-3.800
2.110E-06,-3.760
2.120E-06,-3.720
2.130E-06,-3.680
2.140E-06,-3.640
2.150E-06,-3.600
2.160E-06,-3.680
2.170E-06,-3.800
2.180E-06,-3.800
2.190E-06,-3.840
2.200E-06,-4.040
2.210E-06,-4.200
2.220E-06,-4.320
2.230E-06,-4.400
2.240E-06,-4.520
2.250E-06,-4.640
2.260E-06,-4.800
2.270E-06,-4.920
2.280E-06,-5.120
2.290E-06,-5.240
2.300E-06,-5.240
2.310E-06,-5.240
2.320E-06,-5.240
2.330E-06,-5.200
2.340E-06,-5.200
2.350E-06,-5.240
2.360E-06,-5.200
2.370E-06,-5.200
2.380E-06,-5.240
2.390E-06,-5.240
2.400E-06,-5.200
2.410E-06,-5.200
2.420E-06,-5.200
2.430E-06,-5.240
2.440E-06,-5.240
2.450E-06,-5.200
2.460E-06,-5.240
2.470E-06,-5.200
2.480E-06,-5.240
2.490E-06,-5.240
2.500E-06,-5.240
2.510E-06,-5.240
2.520E-06,-5.240
2.530E-06,-5.240
2.540E-06,-5.240
2.550E-06,-5.240
2.560E-06,-5.240
2.570E-06,-5.240
2.580E-06,-5.240
2.590E-06,-5.200
2.600E-06,-5.240
2.610E-06,-5.240
2.620E-06,-5.240
2.630E-06,-5.240
2.640E-06,-5.240
2.650E-06,-5.240
2.660E-06,-5.240
2.670E-06,-5.200
2.680E-06,-5.240
2.690E-06,-5.240
2.700E-06,-5.240
2.710E-06,-5.240
2.720E-06,-5.240
2.730E-06,-5.240
2.740E-06,-5.200
2.750E-06,-5.240
2.760E-06,-5.240
2.770E-06,-5.200
2.780E-06,-5.200
2.790E-06,-5.240
2.800E-06,-5.240
2.810E-06,-5.200
2.820E-06,-5.200
2.830E-06,-5.240
2.840E-06,-5.240
2.850E-06,-5.240
2.860E-06,-5.200
2.870E-06,-5.240
2.880E-06,-5.200
2.890E-06,-5.040
2.900E-06,-4.880
2.910E-06,-4.680
2.920E-06,-4.560
2.930E-06,-4.400
2.940E-06,-4.120
2.950E-06,-4.000
2.960E-06,-3.840
2.970E-06,-3.640
2.980E-06,-3.480
2.990E-06,-3.360
3.000E-06,-3.240
3.010E-06,-3.200
3.020E-06,-3.120
3.030E-06,-3.040
3.040E-06,-3.000
3.050E-06,-3.000
3.060E-06,-3.040
3.070E-06,-2.960
3.080E-06,-2.960
3.090E-06,-2.960
3.100E-06,-2.920
3.110E-06,-2.920
3.120E-06,-2.840
3.130E-06,-2.760
3.140E-06,-2.600
3.150E-06,-2.520
3.160E-06,-2.400
3.170E-06,-2.280
3.180E-06,-2.120
3.190E-06,-2.000
3.200E-06,-1.840
3.210E-06,-1.720
3.220E-06,-1.640
3.230E-06,-1.480
3.240E-06,-1.440
3.250E-06,-1.400
3.260E-06,-1.360
3.270E-06,-1.400
3.280E-06,-1.400
3.290E-06,-1.400
3.300E-06,-1.360
3.310E-06,-1.440
3.320E-06,-1.400
3.330E-06,-1.480
3.340E-06,-1.480
3.350E-06,-1.480
3.360E-06,-1.480
3.370E-06,-1.480
3.380E-06,-1.480
3.390E-06,-1.480
3.400E-06,-1.520
3.410E-06,-1.560
3.420E-06,-1.560
3.430E-06,-1.560
3.440E-06,-1.640
3.450E-06,-1.680
3.460E-06,-1.680
3.470E-06,-1.720
3.480E-06,-1.760
3.490E-06,-1.760
3.500E-06,-1.800
3.510E-06,-1.800
3.520E-06,-1.880
3.530E-06,-1.840
3.540E-06,-1.920
3.550E-06,-2.000
3.560E-06,-1.960
3.570E-06,-2.000
3.580E-06,-2.040
3.590E-06,-2.040
3.600E-06,-2.040
3.610E-06,-2.040
3.620E-06,-2.000
3.630E-06,-2.040
3.640E-06,-2.040
3.650E-06,-2.040
3.660E-06,-1.960
3.670E-06,-2.000
3.680E-06,-2.040
3.690E-06,-1.960
3.700E-06,-1.920
3.710E-06,-1.880
3.720E-06,-1.880
3.730E-06,-1.800
3.740E-06,-1.800
3.750E-06,-1.800
3.760E-06,-1.760
3.770E-06,-1.760
3.780E-06,-1.760
3.790E-06,-1.720
3.800E-06,-1.680
3.810E-06,-1.640
3.820E-06,-1.640
3.830E-06,-1.640
3.840E-06,-1.560
3.850E-06,-1.600
3.860E-06,-1.560
3.870E-06,-1.480
3.880E-06,-1.400
3.890E-06,-1.320
3.900E-06,-1.320
3.910E-06,-1.240
3.920E-06,-1.160
3.930E-06,-1.080
3.940E-06,-1.000
3.950E-06,-0.920
3.960E-06,-0.840
3.970E-06,-0.800
3.980E-06,-0.760
3.990E-06,-0.720
4.000E-06,-0.680
4.010E-06,-0.680
4.020E-06,-0.640
4.030E-06,-0.560
4.040E-06,-0.560
4.050E-06,-0.560
4.060E-06,-0.520
4.070E-06,-0.520
4.080E-06,-0.520
4.090E-06,-0.480
4.100E-06,-0.480
4.110E-06,-0.480
4.120E-06,-0.480
4.130E-06,-0.520
4.140E-06,-0.520
4.150E-06,-0.560
4.160E-06,-0.560
4.170E-06,-0.600
4.180E-06,-0.640
4.190E-06,-0.680
4.200E-06,-0.720
4.210E-06,-0.720
4.220E-06,-0.720
4.230E-06,-0.720
4.240E-06,-0.760
4.250E-06,-0.760
4.260E-06,-0.720
4.270E-06,-0.680
4.280E-06,-0.640
4.290E-06,-0.640
4.300E-06,-0.560
4.310E-06,-0.520
4.320E-06,-0.480
4.330E-06,-0.440
4.340E-06,-0.400
4.350E-06,-0.360
4.360E-06,-0.320
4.370E-06,-0.280
4.380E-06,-0.320
4.390E-06,-0.320
4.400E-06,-0.240
4.410E-06,-0.280
4.420E-06,-0.280
4.430E-06,-0.320
4.440E-06,-0.320
4.450E-06,-0.320
4.460E-06,-0.320
4.470E-06,-0.360
4.480E-06,-0.360
4.490E-06,-0.400
4.500E-06,-0.480
4.510E-06,-0.520
4.520E-06,-0.480
4.530E-06,-0.520
4.540E-06,-0.560
4.550E-06,-0.560
4.560E-06,-0.560
4.570E-06,-0.600
4.580E-06,-0.600
4.590E-06,-0.680
4.600E-06,-0.640
4.610E-06,-0.720
4.620E-06,-0.720
4.630E-06,-0.720
4.640E-06,-0.720
4.650E-06,-0.720
4.660E-06,-0.720
4.670E-06,-0.720
4.680E-06,-0.720
4.690E-06,-0.640
4.700E-06,-0.680
4.710E-06,-0.680
4.720E-06,-0.680
4.730E-06,-0.640
4.740E-06,-0.680
4.750E-06,-0.680
4.760E-06,-0.680
4.770E-06,-0.640
4.780E-06,-0.640
4.790E-06,-0.640
4.800E-06,-0.680
4.810E-06,-0.720
4.820E-06,-0.720
4.830E-06,-0.680
4.840E-06,-0.720
4.850E-06,-0.720
4.860E-06,-0.720
4.870E-06,-0.840
4.880E-06,-0.840
4.890E-06,-0.840
4.900E-06,-0.840
4.910E-06,-0.920
4.920E-06,-0.960
4.930E-06,-1.000
4.940E-06,-1.040
4.950E-06,-1.120
4.960E-06,-1.200
4.970E-06,-1.240
4.980E-06,-1.280
4.990E-06,-1.320
5.000E-06,-1.360
5.010E-06,-1.400
5.020E-06,-1.360
5.030E-06,-1.400
5.040E-06,-1.400
5.050E-06,-1.360
5.060E-06,-1.360
5.070E-06,-1.400
5.080E-06,-1.360
5.090E-06,-1.400
5.100E-06,-1.400
5.110E-06,-1.360
5.120E-06,-1.360
5.130E-06,-1.360
5.140E-06,-1.360
5.150E-06,-1.320
5.160E-06,-1.360
5.170E-06,-1.320
5.180E-06,-1.320
5.190E-06,-1.280
5.200E-06,-1.280
5.210E-06,-1.280
5.220E-06,-1.280
5.230E-06,-1.280
5.240E-06,-1.240
5.250E-06,-1.240
5.260E-06,-1.200
5.270E-06,-1.160
5.280E-06,-1.160
5.290E-06,-1.200
5.300E-06,-1.160
5.310E-06,-1.160
5.320E-06,-1.120
5.330E-06,-1.120
5.340E-06,-1.120
5.350E-06,-1.120
5.360E-06,-1.040
5.370E-06,-1.000
5.380E-06,-1.000
5.390E-06,-1.040
5.400E-06,-1.000
5.410E-06,-0.920
5.420E-06,-0.840
5.430E-06,-0.840
5.440E-06,-0.800
5.450E-06,-0.720
5.460E-06,-0.760
5.470E-06,-0.680
5.480E-06,-0.680
5.490E-06,-0.600
5.500E-06,-0.640
5.510E-06,-0.560
5.520E-06,-0.520
5.530E-06,-0.520
5.540E-06,-0.440
5.550E-06,-0.400
5.560E-06,-0.400
5.570E-06,-0.320
5.580E-06,-0.320
5.590E-06,-0.240
5.600E-06,-0.200
5.610E-06,-0.120
5.620E-06,-0.120
5.630E-06,-0.120
5.640E-06,-0.120
5.650E-06,-0.080
5.660E-06,-0.040
5.670E-06,-0.040
5.680E-06,-0.040
5.690E-06,-0.040
5.700E-06,0.000
5.710E-06,0.000
5.720E-06,0.000
5.730E-06,0.000
5.740E-06,0.000
5.750E-06,0.080
5.760E-06,0.040
5.770E-06,0.040
5.780E-06,0.040
5.790E-06,0.040
5.800E-06,0.040
5.810E-06,0.040
5.820E-06,0.080
5.830E-06,0.120
5.840E-06,0.120
5.850E-06,0.200
5.860E-06,0.160
5.870E-06,0.160
5.880E-06,0.200
5.890E-06,0.200
5.900E-06,0.200
5.910E-06,0.240
5.920E-06,0.200
5.930E-06,0.160
5.940E-06,0.120
5.950E-06,0.160
5.960E-06,0.120
5.970E-06,0.080
5.980E-06,0.120
5.990E-06,0.080
6.000E-06,0.040
6.010E-06,0.080
6.020E-06,0.040
6.030E-06,0.040
6.040E-06,0.080
6.050E-06,0.120
6.060E-06,0.040
6.070E-06,0.120
6.080E-06,0.120
6.090E-06,0.160
6.100E-06,0.160
6.110E-06,0.200
6.120E-06,0.240
6.130E-06,0.240
6.140E-06,0.280
