mediciones/Mediciones filtradas (saque las feas)/5-27/-60/WaveData50363.csv

#timebase=2000000(ps)
,#voltbase=100000(mv/100)
#size=4000
-5.650E-06,0.004
-5.640E-06,0.004
-5.630E-06,0.008
-5.620E-06,0.000
-5.610E-06,0.000
-5.600E-06,0.004
-5.590E-06,0.000
-5.580E-06,0.004
-5.570E-06,0.000
-5.560E-06,0.004
-5.550E-06,0.004
-5.540E-06,0.004
-5.530E-06,0.004
-5.520E-06,0.004
-5.510E-06,0.000
-5.500E-06,0.004
-5.490E-06,0.004
-5.480E-06,0.004
-5.470E-06,-0.004
-5.460E-06,0.004
-5.450E-06,-0.004
-5.440E-06,-0.004
-5.430E-06,0.000
-5.420E-06,0.000
-5.410E-06,0.000
-5.400E-06,0.004
-5.390E-06,0.004
-5.380E-06,0.004
-5.370E-06,0.000
-5.360E-06,0.004
-5.350E-06,0.000
-5.340E-06,0.000
-5.330E-06,0.004
-5.320E-06,0.004
-5.310E-06,0.000
-5.300E-06,0.004
-5.290E-06,0.000
-5.280E-06,0.000
-5.270E-06,0.004
-5.260E-06,0.004
-5.250E-06,0.004
-5.240E-06,-0.004
-5.230E-06,0.000
-5.220E-06,0.008
-5.210E-06,0.000
-5.200E-06,0.004
-5.190E-06,0.004
-5.180E-06,0.004
-5.170E-06,0.000
-5.160E-06,0.004
-5.150E-06,0.004
-5.140E-06,0.004
-5.130E-06,0.004
-5.120E-06,0.000
-5.110E-06,0.004
-5.100E-06,0.004
-5.090E-06,0.000
-5.080E-06,0.004
-5.070E-06,0.004
-5.060E-06,0.004
-5.050E-06,0.008
-5.040E-06,0.000
-5.030E-06,-0.004
-5.020E-06,0.000
-5.010E-06,0.004
-5.000E-06,0.000
-4.990E-06,0.004
-4.980E-06,0.000
-4.970E-06,0.000
-4.960E-06,0.004
-4.950E-06,0.004
-4.940E-06,0.004
-4.930E-06,0.000
-4.920E-06,0.000
-4.910E-06,0.004
-4.900E-06,0.000
-4.890E-06,0.004
-4.880E-06,0.004
-4.870E-06,0.000
-4.860E-06,-0.004
-4.850E-06,-0.008
-4.840E-06,-0.008
-4.830E-06,-0.020
-4.820E-06,0.008
-4.810E-06,0.008
-4.800E-06,0.028
-4.790E-06,0.020
-4.780E-06,0.024
-4.770E-06,0.008
-4.760E-06,-0.004
-4.750E-06,-0.008
-4.740E-06,-0.008
-4.730E-06,0.020
-4.720E-06,0.016
-4.710E-06,0.024
-4.700E-06,0.012
-4.690E-06,-0.012
-4.680E-06,-0.024
-4.670E-06,-0.016
-4.660E-06,0.004
-4.650E-06,0.020
-4.640E-06,0.024
-4.630E-06,0.016
-4.620E-06,0.000
-4.610E-06,-0.024
-4.600E-06,-0.040
-4.590E-06,-0.024
-4.580E-06,-0.008
-4.570E-06,0.008
-4.560E-06,0.012
-4.550E-06,0.020
-4.540E-06,0.012
-4.530E-06,0.012
-4.520E-06,-0.008
-4.510E-06,-0.024
-4.500E-06,-0.036
-4.490E-06,-0.024
-4.480E-06,0.004
-4.470E-06,0.028
-4.460E-06,0.036
-4.450E-06,0.016
-4.440E-06,-0.004
-4.430E-06,-0.024
-4.420E-06,-0.020
-4.410E-06,-0.004
-4.400E-06,0.016
-4.390E-06,0.020
-4.380E-06,0.012
-4.370E-06,-0.004
-4.360E-06,-0.012
-4.350E-06,-0.004
-4.340E-06,0.000
-4.330E-06,0.012
-4.320E-06,0.028
-4.310E-06,0.008
-4.300E-06,0.004
-4.290E-06,-0.008
-4.280E-06,0.000
-4.270E-06,0.008
-4.260E-06,0.008
-4.250E-06,0.012
-4.240E-06,0.004
-4.230E-06,0.008
-4.220E-06,-0.004
-4.210E-06,-0.004
-4.200E-06,0.012
-4.190E-06,0.012
-4.180E-06,0.016
-4.170E-06,0.004
-4.160E-06,0.000
-4.150E-06,0.000
-4.140E-06,0.000
-4.130E-06,0.008
-4.120E-06,0.004
-4.110E-06,0.008
-4.100E-06,0.008
-4.090E-06,0.004
-4.080E-06,0.004
-4.070E-06,0.004
-4.060E-06,0.012
-4.050E-06,0.004
-4.040E-06,0.008
-4.030E-06,0.008
-4.020E-06,0.008
-4.010E-06,0.012
-4.000E-06,0.012
-3.990E-06,0.012
-3.980E-06,0.016
-3.970E-06,0.012
-3.960E-06,0.012
-3.950E-06,0.012
-3.940E-06,0.004
-3.930E-06,0.000
-3.920E-06,-0.004
-3.910E-06,-0.004
-3.900E-06,0.000
-3.890E-06,0.012
-3.880E-06,0.020
-3.870E-06,0.016
-3.860E-06,0.012
-3.850E-06,0.004
-3.840E-06,0.004
-3.830E-06,0.016
-3.820E-06,0.020
-3.810E-06,0.036
-3.800E-06,0.032
-3.790E-06,0.032
-3.780E-06,0.008
-3.770E-06,0.000
-3.760E-06,-0.004
-3.750E-06,-0.004
-3.740E-06,0.012
-3.730E-06,0.028
-3.720E-06,0.044
-3.710E-06,0.044
-3.700E-06,0.052
-3.690E-06,0.044
-3.680E-06,0.036
-3.670E-06,0.012
-3.660E-06,-0.008
-3.650E-06,-0.024
-3.640E-06,-0.008
-3.630E-06,0.008
-3.620E-06,0.028
-3.610E-06,0.036
-3.600E-06,0.032
-3.590E-06,0.024
-3.580E-06,-0.004
-3.570E-06,-0.028
-3.560E-06,-0.056
-3.550E-06,-0.052
-3.540E-06,-0.040
-3.530E-06,-0.012
-3.520E-06,-0.008
-3.510E-06,0.004
-3.500E-06,-0.008
-3.490E-06,-0.016
-3.480E-06,-0.028
-3.470E-06,-0.020
-3.460E-06,-0.004
-3.450E-06,0.004
-3.440E-06,0.012
-3.430E-06,-0.004
-3.420E-06,-0.004
-3.410E-06,-0.012
-3.400E-06,-0.012
-3.390E-06,-0.004
-3.380E-06,-0.004
-3.370E-06,0.004
-3.360E-06,0.004
-3.350E-06,-0.004
-3.340E-06,0.004
-3.330E-06,0.004
-3.320E-06,0.000
-3.310E-06,0.000
-3.300E-06,0.004
-3.290E-06,-0.004
-3.280E-06,0.004
-3.270E-06,0.008
-3.260E-06,0.008
-3.250E-06,0.008
-3.240E-06,0.008
-3.230E-06,0.008
-3.220E-06,0.016
-3.210E-06,0.012
-3.200E-06,0.012
-3.190E-06,0.024
-3.180E-06,0.016
-3.170E-06,0.024
-3.160E-06,0.028
-3.150E-06,0.020
-3.140E-06,0.016
-3.130E-06,0.012
-3.120E-06,0.004
-3.110E-06,-0.008
-3.100E-06,-0.012
-3.090E-06,-0.016
-3.080E-06,-0.012
-3.070E-06,0.000
-3.060E-06,0.000
-3.050E-06,0.008
-3.040E-06,0.008
-3.030E-06,0.000
-3.020E-06,-0.004
-3.010E-06,-0.008
-3.000E-06,-0.004
-2.990E-06,0.004
-2.980E-06,0.008
-2.970E-06,0.016
-2.960E-06,0.020
-2.950E-06,0.016
-2.940E-06,0.024
-2.930E-06,0.024
-2.920E-06,0.028
-2.910E-06,0.036
-2.900E-06,0.048
-2.890E-06,0.052
-2.880E-06,0.052
-2.870E-06,0.060
-2.860E-06,0.060
-2.850E-06,0.052
-2.840E-06,0.040
-2.830E-06,0.024
-2.820E-06,0.012
-2.810E-06,0.012
-2.800E-06,0.016
-2.790E-06,0.028
-2.780E-06,0.028
-2.770E-06,0.024
-2.760E-06,0.012
-2.750E-06,0.012
-2.740E-06,0.004
-2.730E-06,0.000
-2.720E-06,-0.004
-2.710E-06,-0.008
-2.700E-06,-0.012
-2.690E-06,-0.024
-2.680E-06,-0.024
-2.670E-06,-0.020
-2.660E-06,-0.004
-2.650E-06,0.000
-2.640E-06,-0.008
-2.630E-06,-0.028
-2.620E-06,-0.044
-2.610E-06,-0.052
-2.600E-06,-0.040
-2.590E-06,-0.020
-2.580E-06,0.004
-2.570E-06,0.008
-2.560E-06,-0.008
-2.550E-06,-0.008
-2.540E-06,-0.020
-2.530E-06,-0.012
-2.520E-06,-0.004
-2.510E-06,-0.004
-2.500E-06,0.008
-2.490E-06,0.008
-2.480E-06,0.008
-2.470E-06,0.008
-2.460E-06,0.004
-2.450E-06,0.004
-2.440E-06,0.008
-2.430E-06,0.012
-2.420E-06,0.016
-2.410E-06,0.020
-2.400E-06,0.024
-2.390E-06,0.024
-2.380E-06,0.016
-2.370E-06,0.012
-2.360E-06,0.012
-2.350E-06,0.004
-2.340E-06,0.004
-2.330E-06,0.012
-2.320E-06,0.016
-2.310E-06,0.024
-2.300E-06,0.024
-2.290E-06,0.028
-2.280E-06,0.032
-2.270E-06,0.036
-2.260E-06,0.032
-2.250E-06,0.040
-2.240E-06,0.044
-2.230E-06,0.032
-2.220E-06,0.024
-2.210E-06,0.012
-2.200E-06,0.000
-2.190E-06,-0.008
-2.180E-06,-0.008
-2.170E-06,0.000
-2.160E-06,0.020
-2.150E-06,0.024
-2.140E-06,0.012
-2.130E-06,-0.008
-2.120E-06,-0.032
-2.110E-06,-0.040
-2.100E-06,-0.040
-2.090E-06,-0.020
-2.080E-06,-0.004
-2.070E-06,0.008
-2.060E-06,0.008
-2.050E-06,0.012
-2.040E-06,0.012
-2.030E-06,0.016
-2.020E-06,0.028
-2.010E-06,0.048
-2.000E-06,0.036
-1.990E-06,0.024
-1.980E-06,0.004
-1.970E-06,-0.012
-1.960E-06,-0.024
-1.950E-06,-0.012
-1.940E-06,0.000
-1.930E-06,0.012
-1.920E-06,0.020
-1.910E-06,0.024
-1.900E-06,0.020
-1.890E-06,0.012
-1.880E-06,0.004
-1.870E-06,0.008
-1.860E-06,0.004
-1.850E-06,0.000
-1.840E-06,0.008
-1.830E-06,0.012
-1.820E-06,0.008
-1.810E-06,0.008
-1.800E-06,0.008
-1.790E-06,0.004
-1.780E-06,0.012
-1.770E-06,0.012
-1.760E-06,0.028
-1.750E-06,0.036
-1.740E-06,0.040
-1.730E-06,0.020
-1.720E-06,0.012
-1.710E-06,-0.004
-1.700E-06,-0.004
-1.690E-06,0.000
-1.680E-06,0.000
-1.670E-06,0.004
-1.660E-06,0.012
-1.650E-06,0.012
-1.640E-06,0.020
-1.630E-06,0.012
-1.620E-06,0.024
-1.610E-06,0.008
-1.600E-06,0.012
-1.590E-06,0.016
-1.580E-06,0.020
-1.570E-06,0.028
-1.560E-06,0.040
-1.550E-06,0.076
-1.540E-06,0.060
-1.530E-06,0.072
-1.520E-06,0.040
-1.510E-06,0.036
-1.500E-06,0.012
-1.490E-06,0.004
-1.480E-06,0.000
-1.470E-06,0.000
-1.460E-06,0.024
-1.450E-06,0.024
-1.440E-06,0.024
-1.430E-06,0.012
-1.420E-06,-0.016
-1.410E-06,-0.032
-1.400E-06,-0.040
-1.390E-06,-0.040
-1.380E-06,-0.020
-1.370E-06,-0.012
-1.360E-06,-0.008
-1.350E-06,-0.004
-1.340E-06,0.000
-1.330E-06,0.004
-1.320E-06,0.008
-1.310E-06,0.000
-1.300E-06,-0.004
-1.290E-06,0.000
-1.280E-06,0.012
-1.270E-06,0.012
-1.260E-06,0.024
-1.250E-06,0.016
-1.240E-06,0.020
-1.230E-06,0.008
-1.220E-06,0.008
-1.210E-06,0.024
-1.200E-06,0.024
-1.190E-06,0.048
-1.180E-06,0.044
-1.170E-06,0.052
-1.160E-06,0.048
-1.150E-06,0.056
-1.140E-06,0.060
-1.130E-06,0.060
-1.120E-06,0.060
-1.110E-06,0.064
-1.100E-06,0.056
-1.090E-06,0.064
-1.080E-06,0.060
-1.070E-06,0.052
-1.060E-06,0.056
-1.050E-06,0.044
-1.040E-06,0.052
-1.030E-06,0.060
-1.020E-06,0.064
-1.010E-06,0.076
-1.000E-06,0.064
-9.900E-07,0.064
-9.800E-07,0.056
-9.700E-07,0.040
-9.600E-07,0.048
-9.500E-07,0.040
-9.400E-07,0.056
-9.300E-07,0.060
-9.200E-07,0.048
-9.100E-07,0.056
-9.000E-07,0.048
-8.900E-07,0.044
-8.800E-07,0.048
-8.700E-07,0.068
-8.600E-07,0.076
-8.500E-07,0.096
-8.400E-07,0.096
-8.300E-07,0.092
-8.200E-07,0.100
-8.100E-07,0.092
-8.000E-07,0.092
-7.900E-07,0.100
-7.800E-07,0.124
-7.700E-07,0.120
-7.600E-07,0.116
-7.500E-07,0.112
-7.400E-07,0.112
-7.300E-07,0.108
-7.200E-07,0.108
-7.100E-07,0.116
-7.000E-07,0.120
-6.900E-07,0.112
-6.800E-07,0.108
-6.700E-07,0.116
-6.600E-07,0.112
-6.500E-07,0.124
-6.400E-07,0.128
-6.300E-07,0.124
-6.200E-07,0.132
-6.100E-07,0.120
-6.000E-07,0.096
-5.900E-07,0.092
-5.800E-07,0.092
-5.700E-07,0.092
-5.600E-07,0.036
-5.500E-07,-0.048
-5.400E-07,-0.104
-5.300E-07,-0.120
-5.200E-07,-0.168
-5.100E-07,-0.152
-5.000E-07,-0.132
-4.900E-07,-0.052
-4.800E-07,-0.008
-4.700E-07,0.044
-4.600E-07,-0.024
-4.500E-07,-0.008
-4.400E-07,-0.060
-4.300E-07,-0.160
-4.200E-07,-0.296
-4.100E-07,-0.404
-4.000E-07,-0.392
-3.900E-07,-0.456
-3.800E-07,-0.364
-3.700E-07,-0.284
-3.600E-07,-0.192
-3.500E-07,-0.092
-3.400E-07,-0.060
-3.300E-07,-0.064
-3.200E-07,-0.072
-3.100E-07,-0.072
-3.000E-07,-0.052
-2.900E-07,-0.012
-2.800E-07,0.044
-2.700E-07,0.056
-2.600E-07,0.048
-2.500E-07,0.044
-2.400E-07,0.060
-2.300E-07,0.044
-2.200E-07,0.072
-2.100E-07,0.068
-2.000E-07,0.068
-1.900E-07,0.100
-1.800E-07,0.088
-1.700E-07,0.076
-1.600E-07,0.068
-1.500E-07,0.052
-1.400E-07,0.032
-1.300E-07,0.036
-1.200E-07,0.048
-1.100E-07,0.064
-1.000E-07,0.092
-9.000E-08,0.104
-8.000E-08,0.120
-7.000E-08,0.112
-6.000E-08,0.092
-5.000E-08,0.092
-4.000E-08,0.096
-3.000E-08,0.112
-2.000E-08,0.132
-1.000E-08,0.144
0.000E+00,0.152
1.000E-08,0.152
2.000E-08,0.140
3.000E-08,0.128
4.000E-08,0.132
5.000E-08,0.136
6.000E-08,0.144
7.000E-08,0.148
8.000E-08,0.140
9.000E-08,0.136
1.000E-07,0.136
1.100E-07,0.140
1.200E-07,0.148
1.300E-07,0.160
1.400E-07,0.156
1.500E-07,0.164
1.600E-07,0.160
1.700E-07,0.164
1.800E-07,0.152
1.900E-07,0.156
2.000E-07,0.164
2.100E-07,0.164
2.200E-07,0.160
2.300E-07,0.164
2.400E-07,0.168
2.500E-07,0.168
2.600E-07,0.164
2.700E-07,0.168
2.800E-07,0.164
2.900E-07,0.164
3.000E-07,0.160
3.100E-07,0.172
3.200E-07,0.176
3.300E-07,0.172
3.400E-07,0.168
3.500E-07,0.160
3.600E-07,0.156
3.700E-07,0.160
3.800E-07,0.156
3.900E-07,0.156
4.000E-07,0.160
4.100E-07,0.156
4.200E-07,0.156
4.300E-07,0.148
4.400E-07,0.144
4.500E-07,0.148
4.600E-07,0.148
4.700E-07,0.156
4.800E-07,0.152
4.900E-07,0.144
5.000E-07,0.144
5.100E-07,0.132
5.200E-07,0.128
5.300E-07,0.124
5.400E-07,0.104
5.500E-07,0.084
5.600E-07,0.060
5.700E-07,0.036
5.800E-07,0.040
5.900E-07,0.040
6.000E-07,0.060
6.100E-07,0.076
6.200E-07,0.092
6.300E-07,0.132
6.400E-07,0.136
6.500E-07,0.184
6.600E-07,0.184
6.700E-07,0.188
6.800E-07,0.168
6.900E-07,0.140
7.000E-07,0.132
7.100E-07,0.124
7.200E-07,0.128
7.300E-07,0.136
7.400E-07,0.140
7.500E-07,0.136
7.600E-07,0.140
7.700E-07,0.148
7.800E-07,0.160
7.900E-07,0.156
8.000E-07,0.160
8.100E-07,0.164
8.200E-07,0.160
8.300E-07,0.156
8.400E-07,0.160
8.500E-07,0.160
8.600E-07,0.168
8.700E-07,0.168
8.800E-07,0.164
8.900E-07,0.164
9.000E-07,0.160
9.100E-07,0.160
9.200E-07,0.164
9.300E-07,0.160
9.400E-07,0.160
9.500E-07,0.164
9.600E-07,0.156
9.700E-07,0.156
9.800E-07,0.152
9.900E-07,0.156
1.000E-06,0.160
1.010E-06,0.164
1.020E-06,0.164
1.030E-06,0.156
1.040E-06,0.160
1.050E-06,0.156
1.060E-06,0.160
1.070E-06,0.156
1.080E-06,0.160
1.090E-06,0.156
1.100E-06,0.160
1.110E-06,0.152
1.120E-06,0.152
1.130E-06,0.156
1.140E-06,0.152
1.150E-06,0.156
1.160E-06,0.152
1.170E-06,0.156
1.180E-06,0.156
1.190E-06,0.156
1.200E-06,0.156
1.210E-06,0.160
1.220E-06,0.156
1.230E-06,0.152
1.240E-06,0.152
1.250E-06,0.156
1.260E-06,0.160
1.270E-06,0.160
1.280E-06,0.160
1.290E-06,0.160
1.300E-06,0.160
1.310E-06,0.160
1.320E-06,0.156
1.330E-06,0.156
1.340E-06,0.156
1.350E-06,0.156
1.360E-06,0.152
1.370E-06,0.152
1.380E-06,0.152
1.390E-06,0.148
1.400E-06,0.152
1.410E-06,0.152
1.420E-06,0.152
1.430E-06,0.152
1.440E-06,0.148
1.450E-06,0.152
1.460E-06,0.152
1.470E-06,0.152
1.480E-06,0.148
1.490E-06,0.152
1.500E-06,0.148
1.510E-06,0.148
1.520E-06,0.148
1.530E-06,0.148
1.540E-06,0.152
1.550E-06,0.152
1.560E-06,0.152
1.570E-06,0.152
1.580E-06,0.152
1.590E-06,0.152
1.600E-06,0.144
1.610E-06,0.148
1.620E-06,0.148
1.630E-06,0.148
1.640E-06,0.148
1.650E-06,0.148
1.660E-06,0.148
1.670E-06,0.140
1.680E-06,0.144
1.690E-06,0.144
1.700E-06,0.144
1.710E-06,0.144
1.720E-06,0.144
1.730E-06,0.148
1.740E-06,0.148
1.750E-06,0.144
1.760E-06,0.144
1.770E-06,0.140
1.780E-06,0.136
1.790E-06,0.136
1.800E-06,0.136
1.810E-06,0.136
1.820E-06,0.136
1.830E-06,0.136
1.840E-06,0.136
1.850E-06,0.136
1.860E-06,0.136
1.870E-06,0.136
1.880E-06,0.136
1.890E-06,0.136
1.900E-06,0.132
1.910E-06,0.132
1.920E-06,0.136
1.930E-06,0.136
1.940E-06,0.140
1.950E-06,0.140
1.960E-06,0.140
1.970E-06,0.136
1.980E-06,0.136
1.990E-06,0.140
2.000E-06,0.136
2.010E-06,0.136
2.020E-06,0.140
2.030E-06,0.140
2.040E-06,0.140
2.050E-06,0.132
2.060E-06,0.136
2.070E-06,0.136
2.080E-06,0.136
2.090E-06,0.136
2.100E-06,0.136
2.110E-06,0.132
2.120E-06,0.132
2.130E-06,0.132
2.140E-06,0.132
2.150E-06,0.128
2.160E-06,0.128
2.170E-06,0.128
2.180E-06,0.124
2.190E-06,0.128
2.200E-06,0.128
2.210E-06,0.128
2.220E-06,0.128
2.230E-06,0.124
2.240E-06,0.124
2.250E-06,0.124
2.260E-06,0.128
2.270E-06,0.128
2.280E-06,0.128
2.290E-06,0.124
2.300E-06,0.128
2.310E-06,0.128
2.320E-06,0.128
2.330E-06,0.124
2.340E-06,0.124
2.350E-06,0.124
2.360E-06,0.124
2.370E-06,0.120
2.380E-06,0.124
2.390E-06,0.120
2.400E-06,0.124
2.410E-06,0.120
2.420E-06,0.120
2.430E-06,0.112
2.440E-06,0.120
2.450E-06,0.124
2.460E-06,0.128
2.470E-06,0.128
2.480E-06,0.124
2.490E-06,0.124
2.500E-06,0.120
2.510E-06,0.116
2.520E-06,0.104
2.530E-06,0.112
2.540E-06,0.112
2.550E-06,0.120
2.560E-06,0.124
2.570E-06,0.124
2.580E-06,0.124
2.590E-06,0.120
2.600E-06,0.116
2.610E-06,0.112
2.620E-06,0.116
2.630E-06,0.116
2.640E-06,0.124
2.650E-06,0.124
2.660E-06,0.120
2.670E-06,0.112
2.680E-06,0.112
2.690E-06,0.112
2.700E-06,0.112
2.710E-06,0.112
2.720E-06,0.112
2.730E-06,0.108
2.740E-06,0.112
2.750E-06,0.108
2.760E-06,0.108
2.770E-06,0.112
2.780E-06,0.112
2.790E-06,0.108
2.800E-06,0.108
2.810E-06,0.108
2.820E-06,0.108
2.830E-06,0.108
2.840E-06,0.108
2.850E-06,0.100
2.860E-06,0.100
2.870E-06,0.104
2.880E-06,0.100
2.890E-06,0.108
2.900E-06,0.108
2.910E-06,0.104
2.920E-06,0.104
2.930E-06,0.108
2.940E-06,0.104
2.950E-06,0.108
2.960E-06,0.108
2.970E-06,0.100
2.980E-06,0.108
2.990E-06,0.104
3.000E-06,0.104
3.010E-06,0.104
3.020E-06,0.104
3.030E-06,0.100
3.040E-06,0.096
3.050E-06,0.096
3.060E-06,0.100
3.070E-06,0.096
3.080E-06,0.096
3.090E-06,0.096
3.100E-06,0.092
3.110E-06,0.092
3.120E-06,0.096
3.130E-06,0.100
3.140E-06,0.100
3.150E-06,0.100
3.160E-06,0.096
3.170E-06,0.096
3.180E-06,0.096
3.190E-06,0.096
3.200E-06,0.092
3.210E-06,0.088
3.220E-06,0.092
3.230E-06,0.092
3.240E-06,0.096
3.250E-06,0.096
3.260E-06,0.092
3.270E-06,0.096
3.280E-06,0.092
3.290E-06,0.092
3.300E-06,0.092
3.310E-06,0.088
3.320E-06,0.092
3.330E-06,0.092
3.340E-06,0.092
3.350E-06,0.092
3.360E-06,0.092
3.370E-06,0.092
3.380E-06,0.088
3.390E-06,0.088
3.400E-06,0.088
3.410E-06,0.092
3.420E-06,0.092
3.430E-06,0.088
3.440E-06,0.092
3.450E-06,0.092
3.460E-06,0.092
3.470E-06,0.088
3.480E-06,0.084
3.490E-06,0.088
3.500E-06,0.088
3.510E-06,0.092
3.520E-06,0.092
3.530E-06,0.088
3.540E-06,0.088
3.550E-06,0.088
3.560E-06,0.088
3.570E-06,0.084
3.580E-06,0.084
3.590E-06,0.084
3.600E-06,0.088
3.610E-06,0.084
3.620E-06,0.080
3.630E-06,0.080
3.640E-06,0.080
3.650E-06,0.076
3.660E-06,0.080
3.670E-06,0.080
3.680E-06,0.080
3.690E-06,0.084
3.700E-06,0.076
3.710E-06,0.080
3.720E-06,0.076
3.730E-06,0.076
3.740E-06,0.076
3.750E-06,0.080
3.760E-06,0.072
3.770E-06,0.072
3.780E-06,0.072
3.790E-06,0.076
3.800E-06,0.072
3.810E-06,0.072
3.820E-06,0.072
3.830E-06,0.072
3.840E-06,0.076
3.850E-06,0.076
3.860E-06,0.072
3.870E-06,0.072
3.880E-06,0.072
3.890E-06,0.072
3.900E-06,0.072
3.910E-06,0.072
3.920E-06,0.072
3.930E-06,0.068
3.940E-06,0.076
3.950E-06,0.076
3.960E-06,0.072
3.970E-06,0.072
3.980E-06,0.072
3.990E-06,0.076
4.000E-06,0.072
4.010E-06,0.068
4.020E-06,0.072
4.030E-06,0.064
4.040E-06,0.068
4.050E-06,0.072
4.060E-06,0.068
4.070E-06,0.072
4.080E-06,0.068
4.090E-06,0.072
4.100E-06,0.072
4.110E-06,0.068
4.120E-06,0.068
4.130E-06,0.068
4.140E-06,0.068
4.150E-06,0.068
4.160E-06,0.072
4.170E-06,0.072
4.180E-06,0.064
4.190E-06,0.068
4.200E-06,0.068
4.210E-06,0.064
4.220E-06,0.064
4.230E-06,0.064
4.240E-06,0.064
4.250E-06,0.064
4.260E-06,0.060
4.270E-06,0.060
4.280E-06,0.060
4.290E-06,0.060
4.300E-06,0.060
4.310E-06,0.060
4.320E-06,0.060
4.330E-06,0.064
4.340E-06,0.060
4.350E-06,0.060
4.360E-06,0.064
4.370E-06,0.060
4.380E-06,0.064
4.390E-06,0.060
4.400E-06,0.060
4.410E-06,0.060
4.420E-06,0.064
4.430E-06,0.060
4.440E-06,0.056
4.450E-06,0.060
4.460E-06,0.056
4.470E-06,0.060
4.480E-06,0.060
4.490E-06,0.056
4.500E-06,0.056
4.510E-06,0.052
4.520E-06,0.060
4.530E-06,0.052
4.540E-06,0.056
4.550E-06,0.052
4.560E-06,0.052
4.570E-06,0.052
4.580E-06,0.052
4.590E-06,0.052
4.600E-06,0.052
4.610E-06,0.052
4.620E-06,0.052
4.630E-06,0.052
4.640E-06,0.048
4.650E-06,0.056
4.660E-06,0.044
4.670E-06,0.052
4.680E-06,0.052
4.690E-06,0.052
4.700E-06,0.048
4.710E-06,0.048
4.720E-06,0.048
4.730E-06,0.052
4.740E-06,0.048
4.750E-06,0.048
4.760E-06,0.044
4.770E-06,0.044
4.780E-06,0.048
4.790E-06,0.040
4.800E-06,0.044
4.810E-06,0.048
4.820E-06,0.044
4.830E-06,0.044
4.840E-06,0.044
4.850E-06,0.044
4.860E-06,0.040
4.870E-06,0.044
4.880E-06,0.044
4.890E-06,0.044
4.900E-06,0.040
4.910E-06,0.044
4.920E-06,0.044
4.930E-06,0.044
4.940E-06,0.044
4.950E-06,0.040
4.960E-06,0.044
4.970E-06,0.040
4.980E-06,0.044
4.990E-06,0.048
5.000E-06,0.044
5.010E-06,0.044
5.020E-06,0.036
5.030E-06,0.040
5.040E-06,0.040
5.050E-06,0.036
5.060E-06,0.040
5.070E-06,0.040
5.080E-06,0.036
5.090E-06,0.036
5.100E-06,0.032
5.110E-06,0.036
5.120E-06,0.040
5.130E-06,0.036
5.140E-06,0.036
5.150E-06,0.036
5.160E-06,0.040
5.170E-06,0.040
5.180E-06,0.040
5.190E-06,0.040
5.200E-06,0.036
5.210E-06,0.040
5.220E-06,0.032
5.230E-06,0.028
5.240E-06,0.032
5.250E-06,0.032
5.260E-06,0.032
5.270E-06,0.032
5.280E-06,0.032
5.290E-06,0.036
5.300E-06,0.032
5.310E-06,0.028
5.320E-06,0.032
5.330E-06,0.028
5.340E-06,0.032
5.350E-06,0.036
5.360E-06,0.032
5.370E-06,0.028
5.380E-06,0.032
5.390E-06,0.032
5.400E-06,0.028
5.410E-06,0.032
5.420E-06,0.036
5.430E-06,0.028
5.440E-06,0.028
5.450E-06,0.028
5.460E-06,0.024
5.470E-06,0.024
5.480E-06,0.028
5.490E-06,0.024
5.500E-06,0.028
5.510E-06,0.028
5.520E-06,0.032
5.530E-06,0.028
5.540E-06,0.024
5.550E-06,0.028
5.560E-06,0.032
5.570E-06,0.028
5.580E-06,0.024
5.590E-06,0.028
5.600E-06,0.028
5.610E-06,0.032
5.620E-06,0.028
5.630E-06,0.024
5.640E-06,0.028
5.650E-06,0.032
5.660E-06,0.028
5.670E-06,0.028
5.680E-06,0.032
5.690E-06,0.028
5.700E-06,0.024
5.710E-06,0.028
5.720E-06,0.028
5.730E-06,0.032
5.740E-06,0.028
5.750E-06,0.024
5.760E-06,0.028
5.770E-06,0.032
5.780E-06,0.028
5.790E-06,0.028
5.800E-06,0.028
5.810E-06,0.028
5.820E-06,0.024
5.830E-06,0.028
5.840E-06,0.028
5.850E-06,0.028
5.860E-06,0.020
5.870E-06,0.024
5.880E-06,0.020
5.890E-06,0.024
5.900E-06,0.020
5.910E-06,0.016
5.920E-06,0.016
5.930E-06,0.016
5.940E-06,0.020
5.950E-06,0.024
5.960E-06,0.016
5.970E-06,0.020
5.980E-06,0.020
5.990E-06,0.008
6.000E-06,0.016
6.010E-06,0.012
6.020E-06,0.012
6.030E-06,0.012
6.040E-06,0.012
6.050E-06,0.012
6.060E-06,0.008
6.070E-06,0.012
6.080E-06,0.012
6.090E-06,0.012
6.100E-06,0.008
6.110E-06,0.008
6.120E-06,0.012
6.130E-06,0.016
6.140E-06,0.008
6.150E-06,0.008
6.160E-06,0.008
6.170E-06,0.012
6.180E-06,0.008
6.190E-06,0.012
6.200E-06,0.008
6.210E-06,0.008
6.220E-06,0.008
6.230E-06,0.012
6.240E-06,0.004
6.250E-06,0.008
6.260E-06,0.004
6.270E-06,0.004
6.280E-06,0.008
6.290E-06,0.008
6.300E-06,0.004
6.310E-06,0.008
6.320E-06,0.004
6.330E-06,0.008
6.340E-06,0.004
6.350E-06,0.008
6.360E-06,0.008
