mediciones/mediciones removidas por ser diferentes/-5/WaveData4960.csv

#timebase=2000000(ps)
,#voltbase=100000(mv/100)
#size=4000
-8.400E-06,-0.088
-8.390E-06,-0.080
-8.380E-06,-0.044
-8.370E-06,0.008
-8.360E-06,0.056
-8.350E-06,0.084
-8.340E-06,0.044
-8.330E-06,0.000
-8.320E-06,-0.048
-8.310E-06,-0.060
-8.300E-06,-0.040
-8.290E-06,0.020
-8.280E-06,0.040
-8.270E-06,0.060
-8.260E-06,0.044
-8.250E-06,0.004
-8.240E-06,-0.024
-8.230E-06,-0.024
-8.220E-06,-0.016
-8.210E-06,0.000
-8.200E-06,0.024
-8.190E-06,0.036
-8.180E-06,0.036
-8.170E-06,0.016
-8.160E-06,0.000
-8.150E-06,-0.028
-8.140E-06,-0.032
-8.130E-06,-0.020
-8.120E-06,0.000
-8.110E-06,0.024
-8.100E-06,0.028
-8.090E-06,0.044
-8.080E-06,0.040
-8.070E-06,0.028
-8.060E-06,0.016
-8.050E-06,0.004
-8.040E-06,-0.016
-8.030E-06,-0.040
-8.020E-06,-0.048
-8.010E-06,-0.036
-8.000E-06,0.000
-7.990E-06,0.052
-7.980E-06,0.072
-7.970E-06,0.040
-7.960E-06,0.012
-7.950E-06,-0.036
-7.940E-06,-0.056
-7.930E-06,-0.044
-7.920E-06,-0.008
-7.910E-06,0.036
-7.900E-06,0.072
-7.890E-06,0.064
-7.880E-06,0.012
-7.870E-06,-0.028
-7.860E-06,-0.072
-7.850E-06,-0.056
-7.840E-06,-0.016
-7.830E-06,0.032
-7.820E-06,0.064
-7.810E-06,0.064
-7.800E-06,0.024
-7.790E-06,-0.032
-7.780E-06,-0.060
-7.770E-06,-0.052
-7.760E-06,-0.016
-7.750E-06,0.028
-7.740E-06,0.056
-7.730E-06,0.060
-7.720E-06,0.032
-7.710E-06,0.000
-7.700E-06,-0.016
-7.690E-06,-0.020
-7.680E-06,0.000
-7.670E-06,0.024
-7.660E-06,0.048
-7.650E-06,0.052
-7.640E-06,0.032
-7.630E-06,-0.008
-7.620E-06,-0.036
-7.610E-06,-0.044
-7.600E-06,-0.028
-7.590E-06,0.028
-7.580E-06,0.068
-7.570E-06,0.080
-7.560E-06,0.056
-7.550E-06,0.008
-7.540E-06,-0.068
-7.530E-06,-0.100
-7.520E-06,-0.068
-7.510E-06,0.008
-7.500E-06,0.092
-7.490E-06,0.104
-7.480E-06,0.052
-7.470E-06,-0.024
-7.460E-06,-0.080
-7.450E-06,-0.120
-7.440E-06,-0.076
-7.430E-06,0.008
-7.420E-06,0.092
-7.410E-06,0.108
-7.400E-06,0.068
-7.390E-06,-0.016
-7.380E-06,-0.080
-7.370E-06,-0.096
-7.360E-06,-0.064
-7.350E-06,0.000
-7.340E-06,0.064
-7.330E-06,0.092
-7.320E-06,0.060
-7.310E-06,0.012
-7.300E-06,-0.036
-7.290E-06,-0.064
-7.280E-06,-0.044
-7.270E-06,-0.004
-7.260E-06,0.040
-7.250E-06,0.072
-7.240E-06,0.060
-7.230E-06,0.028
-7.220E-06,0.000
-7.210E-06,-0.020
-7.200E-06,-0.020
-7.190E-06,0.012
-7.180E-06,0.056
-7.170E-06,0.092
-7.160E-06,0.072
-7.150E-06,0.008
-7.140E-06,-0.080
-7.130E-06,-0.124
-7.120E-06,-0.100
-7.110E-06,-0.032
-7.100E-06,0.060
-7.090E-06,0.120
-7.080E-06,0.124
-7.070E-06,0.060
-7.060E-06,-0.040
-7.050E-06,-0.088
-7.040E-06,-0.104
-7.030E-06,-0.044
-7.020E-06,0.040
-7.010E-06,0.088
-7.000E-06,0.088
-6.990E-06,0.048
-6.980E-06,-0.008
-6.970E-06,-0.068
-6.960E-06,-0.060
-6.950E-06,-0.032
-6.940E-06,0.012
-6.930E-06,0.056
-6.920E-06,0.060
-6.910E-06,0.020
-6.900E-06,-0.008
-6.890E-06,-0.032
-6.880E-06,-0.024
-6.870E-06,0.000
-6.860E-06,0.028
-6.850E-06,0.052
-6.840E-06,0.056
-6.830E-06,0.056
-6.820E-06,0.028
-6.810E-06,0.004
-6.800E-06,-0.008
-6.790E-06,-0.028
-6.780E-06,-0.036
-6.770E-06,-0.028
-6.760E-06,-0.028
-6.750E-06,-0.004
-6.740E-06,0.020
-6.730E-06,0.028
-6.720E-06,0.032
-6.710E-06,0.024
-6.700E-06,0.008
-6.690E-06,0.004
-6.680E-06,0.000
-6.670E-06,0.000
-6.660E-06,0.016
-6.650E-06,0.008
-6.640E-06,-0.008
-6.630E-06,-0.036
-6.620E-06,-0.016
-6.610E-06,0.000
-6.600E-06,0.008
-6.590E-06,0.020
-6.580E-06,0.024
-6.570E-06,0.028
-6.560E-06,0.008
-6.550E-06,-0.004
-6.540E-06,-0.032
-6.530E-06,-0.028
-6.520E-06,-0.024
-6.510E-06,-0.020
-6.500E-06,0.016
-6.490E-06,0.044
-6.480E-06,0.056
-6.470E-06,0.032
-6.460E-06,0.000
-6.450E-06,-0.044
-6.440E-06,-0.036
-6.430E-06,-0.008
-6.420E-06,0.036
-6.410E-06,0.064
-6.400E-06,0.076
-6.390E-06,0.060
-6.380E-06,0.012
-6.370E-06,-0.040
-6.360E-06,-0.104
-6.350E-06,-0.112
-6.340E-06,-0.072
-6.330E-06,-0.004
-6.320E-06,0.048
-6.310E-06,0.088
-6.300E-06,0.068
-6.290E-06,0.004
-6.280E-06,-0.044
-6.270E-06,-0.072
-6.260E-06,-0.064
-6.250E-06,-0.024
-6.240E-06,0.040
-6.230E-06,0.056
-6.220E-06,0.052
-6.210E-06,0.024
-6.200E-06,-0.024
-6.190E-06,-0.036
-6.180E-06,-0.020
-6.170E-06,0.016
-6.160E-06,0.048
-6.150E-06,0.048
-6.140E-06,0.036
-6.130E-06,0.012
-6.120E-06,0.004
-6.110E-06,-0.020
-6.100E-06,-0.016
-6.090E-06,0.000
-6.080E-06,0.032
-6.070E-06,0.032
-6.060E-06,0.024
-6.050E-06,-0.004
-6.040E-06,-0.032
-6.030E-06,-0.040
-6.020E-06,-0.032
-6.010E-06,-0.008
-6.000E-06,0.004
-5.990E-06,0.016
-5.980E-06,0.016
-5.970E-06,0.008
-5.960E-06,-0.012
-5.950E-06,-0.028
-5.940E-06,-0.012
-5.930E-06,-0.008
-5.920E-06,0.012
-5.910E-06,0.024
-5.900E-06,0.028
-5.890E-06,0.016
-5.880E-06,-0.004
-5.870E-06,-0.004
-5.860E-06,0.000
-5.850E-06,0.028
-5.840E-06,0.040
-5.830E-06,0.044
-5.820E-06,0.032
-5.810E-06,0.012
-5.800E-06,-0.004
-5.790E-06,0.004
-5.780E-06,0.008
-5.770E-06,0.028
-5.760E-06,0.012
-5.750E-06,-0.008
-5.740E-06,-0.016
-5.730E-06,-0.024
-5.720E-06,-0.004
-5.710E-06,0.016
-5.700E-06,0.028
-5.690E-06,0.020
-5.680E-06,-0.004
-5.670E-06,-0.036
-5.660E-06,-0.040
-5.650E-06,-0.028
-5.640E-06,0.004
-5.630E-06,0.032
-5.620E-06,0.040
-5.610E-06,0.040
-5.600E-06,0.012
-5.590E-06,-0.012
-5.580E-06,-0.032
-5.570E-06,-0.024
-5.560E-06,0.000
-5.550E-06,0.012
-5.540E-06,0.024
-5.530E-06,0.024
-5.520E-06,0.016
-5.510E-06,0.012
-5.500E-06,0.008
-5.490E-06,0.008
-5.480E-06,0.016
-5.470E-06,0.004
-5.460E-06,0.008
-5.450E-06,-0.004
-5.440E-06,-0.012
-5.430E-06,-0.024
-5.420E-06,-0.016
-5.410E-06,-0.020
-5.400E-06,0.000
-5.390E-06,0.024
-5.380E-06,0.024
-5.370E-06,0.012
-5.360E-06,0.012
-5.350E-06,0.008
-5.340E-06,-0.004
-5.330E-06,-0.028
-5.320E-06,-0.020
-5.310E-06,-0.024
-5.300E-06,-0.036
-5.290E-06,-0.024
-5.280E-06,-0.008
-5.270E-06,0.012
-5.260E-06,0.032
-5.250E-06,0.004
-5.240E-06,-0.012
-5.230E-06,-0.032
-5.220E-06,-0.040
-5.210E-06,-0.028
-5.200E-06,0.008
-5.190E-06,0.024
-5.180E-06,0.032
-5.170E-06,0.028
-5.160E-06,0.000
-5.150E-06,-0.024
-5.140E-06,-0.032
-5.130E-06,-0.012
-5.120E-06,0.008
-5.110E-06,0.028
-5.100E-06,0.028
-5.090E-06,0.020
-5.080E-06,0.008
-5.070E-06,-0.008
-5.060E-06,-0.012
-5.050E-06,-0.008
-5.040E-06,0.008
-5.030E-06,0.012
-5.020E-06,0.020
-5.010E-06,0.016
-5.000E-06,0.012
-4.990E-06,0.004
-4.980E-06,0.000
-4.970E-06,0.008
-4.960E-06,0.020
-4.950E-06,0.024
-4.940E-06,0.028
-4.930E-06,0.020
-4.920E-06,0.012
-4.910E-06,0.000
-4.900E-06,-0.004
-4.890E-06,0.004
-4.880E-06,0.016
-4.870E-06,0.024
-4.860E-06,0.020
-4.850E-06,0.028
-4.840E-06,0.028
-4.830E-06,0.024
-4.820E-06,-0.004
-4.810E-06,-0.036
-4.800E-06,-0.040
-4.790E-06,0.000
-4.780E-06,0.072
-4.770E-06,0.100
-4.760E-06,0.100
-4.750E-06,0.060
-4.740E-06,-0.004
-4.730E-06,-0.068
-4.720E-06,-0.068
-4.710E-06,-0.032
-4.700E-06,0.020
-4.690E-06,0.064
-4.680E-06,0.044
-4.670E-06,0.004
-4.660E-06,-0.040
-4.650E-06,-0.072
-4.640E-06,-0.076
-4.630E-06,-0.040
-4.620E-06,0.004
-4.610E-06,0.032
-4.600E-06,0.032
-4.590E-06,0.008
-4.580E-06,-0.012
-4.570E-06,-0.036
-4.560E-06,-0.040
-4.550E-06,-0.024
-4.540E-06,-0.008
-4.530E-06,0.008
-4.520E-06,0.012
-4.510E-06,0.008
-4.500E-06,0.000
-4.490E-06,-0.004
-4.480E-06,-0.004
-4.470E-06,-0.008
-4.460E-06,-0.008
-4.450E-06,-0.004
-4.440E-06,0.004
-4.430E-06,0.012
-4.420E-06,0.008
-4.410E-06,0.008
-4.400E-06,0.004
-4.390E-06,0.000
-4.380E-06,-0.004
-4.370E-06,-0.004
-4.360E-06,0.004
-4.350E-06,0.008
-4.340E-06,0.012
-4.330E-06,0.008
-4.320E-06,0.012
-4.310E-06,0.008
-4.300E-06,0.008
-4.290E-06,0.008
-4.280E-06,0.004
-4.270E-06,0.012
-4.260E-06,0.016
-4.250E-06,0.020
-4.240E-06,0.020
-4.230E-06,0.024
-4.220E-06,0.028
-4.210E-06,0.028
-4.200E-06,0.040
-4.190E-06,0.048
-4.180E-06,0.052
-4.170E-06,0.048
-4.160E-06,0.024
-4.150E-06,-0.004
-4.140E-06,-0.016
-4.130E-06,-0.012
-4.120E-06,0.004
-4.110E-06,0.036
-4.100E-06,0.056
-4.090E-06,0.040
-4.080E-06,0.016
-4.070E-06,-0.008
-4.060E-06,-0.036
-4.050E-06,-0.024
-4.040E-06,0.004
-4.030E-06,0.036
-4.020E-06,0.060
-4.010E-06,0.056
-4.000E-06,0.024
-3.990E-06,0.008
-3.980E-06,-0.008
-3.970E-06,-0.008
-3.960E-06,-0.004
-3.950E-06,0.008
-3.940E-06,0.012
-3.930E-06,0.012
-3.920E-06,0.000
-3.910E-06,-0.024
-3.900E-06,-0.052
-3.890E-06,-0.060
-3.880E-06,-0.044
-3.870E-06,-0.004
-3.860E-06,0.004
-3.850E-06,0.024
-3.840E-06,0.024
-3.830E-06,0.008
-3.820E-06,-0.004
-3.810E-06,-0.024
-3.800E-06,-0.012
-3.790E-06,0.004
-3.780E-06,0.012
-3.770E-06,0.024
-3.760E-06,0.008
-3.750E-06,0.000
-3.740E-06,-0.004
-3.730E-06,0.004
-3.720E-06,0.012
-3.710E-06,0.020
-3.700E-06,0.028
-3.690E-06,0.024
-3.680E-06,0.012
-3.670E-06,0.008
-3.660E-06,0.020
-3.650E-06,0.036
-3.640E-06,0.056
-3.630E-06,0.056
-3.620E-06,0.060
-3.610E-06,0.052
-3.600E-06,0.044
-3.590E-06,0.048
-3.580E-06,0.056
-3.570E-06,0.060
-3.560E-06,0.068
-3.550E-06,0.060
-3.540E-06,0.040
-3.530E-06,0.024
-3.520E-06,0.008
-3.510E-06,0.004
-3.500E-06,-0.008
-3.490E-06,-0.032
-3.480E-06,-0.068
-3.470E-06,-0.076
-3.460E-06,-0.124
-3.450E-06,-0.136
-3.440E-06,-0.152
-3.430E-06,-0.076
-3.420E-06,0.028
-3.410E-06,0.084
-3.400E-06,0.084
-3.390E-06,0.060
-3.380E-06,0.000
-3.370E-06,-0.072
-3.360E-06,-0.068
-3.350E-06,-0.008
-3.340E-06,-0.004
-3.330E-06,-0.036
-3.320E-06,-0.032
-3.310E-06,-0.024
-3.300E-06,-0.040
-3.290E-06,-0.056
-3.280E-06,0.008
-3.270E-06,0.032
-3.260E-06,0.052
-3.250E-06,0.008
-3.240E-06,-0.004
-3.230E-06,0.000
-3.220E-06,0.024
-3.210E-06,0.048
-3.200E-06,0.056
-3.190E-06,0.048
-3.180E-06,0.036
-3.170E-06,0.008
-3.160E-06,0.000
-3.150E-06,-0.008
-3.140E-06,0.032
-3.130E-06,0.068
-3.120E-06,0.080
-3.110E-06,0.056
-3.100E-06,-0.004
-3.090E-06,-0.064
-3.080E-06,-0.124
-3.070E-06,-0.124
-3.060E-06,-0.100
-3.050E-06,-0.016
-3.040E-06,0.060
-3.030E-06,0.096
-3.020E-06,0.076
-3.010E-06,0.012
-3.000E-06,-0.040
-2.990E-06,-0.068
-2.980E-06,-0.052
-2.970E-06,-0.028
-2.960E-06,0.040
-2.950E-06,0.064
-2.940E-06,0.052
-2.930E-06,0.052
-2.920E-06,0.056
-2.910E-06,0.056
-2.900E-06,0.028
-2.890E-06,0.012
-2.880E-06,-0.012
-2.870E-06,-0.008
-2.860E-06,0.000
-2.850E-06,0.008
-2.840E-06,0.028
-2.830E-06,0.044
-2.820E-06,0.060
-2.810E-06,0.048
-2.800E-06,0.036
-2.790E-06,0.020
-2.780E-06,-0.008
-2.770E-06,-0.008
-2.760E-06,-0.024
-2.750E-06,-0.036
-2.740E-06,-0.040
-2.730E-06,-0.024
-2.720E-06,-0.008
-2.710E-06,0.004
-2.700E-06,0.020
-2.690E-06,0.016
-2.680E-06,-0.004
-2.670E-06,-0.024
-2.660E-06,-0.008
-2.650E-06,0.004
-2.640E-06,-0.008
-2.630E-06,-0.012
-2.620E-06,-0.028
-2.610E-06,-0.036
-2.600E-06,-0.044
-2.590E-06,-0.016
-2.580E-06,-0.004
-2.570E-06,0.028
-2.560E-06,0.040
-2.550E-06,0.020
-2.540E-06,0.012
-2.530E-06,-0.004
-2.520E-06,0.000
-2.510E-06,0.008
-2.500E-06,0.036
-2.490E-06,0.052
-2.480E-06,0.048
-2.470E-06,0.044
-2.460E-06,0.024
-2.450E-06,0.024
-2.440E-06,0.024
-2.430E-06,0.044
-2.420E-06,0.072
-2.410E-06,0.088
-2.400E-06,0.088
-2.390E-06,0.076
-2.380E-06,0.068
-2.370E-06,0.068
-2.360E-06,0.068
-2.350E-06,0.068
-2.340E-06,0.064
-2.330E-06,0.044
-2.320E-06,-0.008
-2.310E-06,-0.040
-2.300E-06,-0.064
-2.290E-06,-0.060
-2.280E-06,-0.024
-2.270E-06,0.048
-2.260E-06,0.096
-2.250E-06,0.104
-2.240E-06,0.084
-2.230E-06,0.032
-2.220E-06,-0.008
-2.210E-06,-0.048
-2.200E-06,-0.088
-2.190E-06,-0.108
-2.180E-06,-0.092
-2.170E-06,-0.084
-2.160E-06,-0.076
-2.150E-06,-0.060
-2.140E-06,-0.052
-2.130E-06,-0.044
-2.120E-06,-0.032
-2.110E-06,-0.020
-2.100E-06,-0.020
-2.090E-06,-0.004
-2.080E-06,-0.020
-2.070E-06,-0.036
-2.060E-06,-0.048
-2.050E-06,-0.040
-2.040E-06,-0.048
-2.030E-06,-0.012
-2.020E-06,0.024
-2.010E-06,0.040
-2.000E-06,0.056
-1.990E-06,0.024
-1.980E-06,-0.004
-1.970E-06,-0.024
-1.960E-06,0.000
-1.950E-06,0.028
-1.940E-06,0.060
-1.930E-06,0.088
-1.920E-06,0.080
-1.910E-06,0.072
-1.900E-06,0.060
-1.890E-06,0.044
-1.880E-06,0.068
-1.870E-06,0.084
-1.860E-06,0.072
-1.850E-06,0.024
-1.840E-06,-0.048
-1.830E-06,-0.104
-1.820E-06,-0.120
-1.810E-06,-0.108
-1.800E-06,-0.076
-1.790E-06,-0.012
-1.780E-06,0.004
-1.770E-06,0.020
-1.760E-06,-0.020
-1.750E-06,-0.028
-1.740E-06,-0.020
-1.730E-06,-0.024
-1.720E-06,-0.020
-1.710E-06,-0.040
-1.700E-06,-0.036
-1.690E-06,-0.036
-1.680E-06,0.000
-1.670E-06,0.028
-1.660E-06,0.044
-1.650E-06,0.044
-1.640E-06,0.008
-1.630E-06,-0.056
-1.620E-06,-0.088
-1.610E-06,-0.088
-1.600E-06,-0.044
-1.590E-06,0.020
-1.580E-06,0.060
-1.570E-06,0.052
-1.560E-06,0.028
-1.550E-06,-0.012
-1.540E-06,-0.044
-1.530E-06,-0.040
-1.520E-06,-0.008
-1.510E-06,0.032
-1.500E-06,0.060
-1.490E-06,0.056
-1.480E-06,0.048
-1.470E-06,0.008
-1.460E-06,-0.008
-1.450E-06,-0.016
-1.440E-06,0.008
-1.430E-06,0.040
-1.420E-06,0.088
-1.410E-06,0.104
-1.400E-06,0.108
-1.390E-06,0.104
-1.380E-06,0.092
-1.370E-06,0.088
-1.360E-06,0.096
-1.350E-06,0.088
-1.340E-06,0.076
-1.330E-06,0.056
-1.320E-06,0.044
-1.310E-06,0.052
-1.300E-06,0.064
-1.290E-06,0.060
-1.280E-06,0.044
-1.270E-06,0.024
-1.260E-06,0.000
-1.250E-06,-0.028
-1.240E-06,-0.040
-1.230E-06,-0.036
-1.220E-06,-0.028
-1.210E-06,0.020
-1.200E-06,0.060
-1.190E-06,0.076
-1.180E-06,0.060
-1.170E-06,0.036
-1.160E-06,-0.008
-1.150E-06,-0.040
-1.140E-06,-0.044
-1.130E-06,-0.060
-1.120E-06,-0.016
-1.110E-06,-0.004
-1.100E-06,-0.020
-1.090E-06,-0.064
-1.080E-06,-0.092
-1.070E-06,-0.108
-1.060E-06,-0.096
-1.050E-06,-0.060
-1.040E-06,-0.012
-1.030E-06,0.056
-1.020E-06,0.080
-1.010E-06,0.068
-1.000E-06,0.016
-9.900E-07,0.000
-9.800E-07,-0.008
-9.700E-07,0.024
-9.600E-07,0.060
-9.500E-07,0.100
-9.400E-07,0.132
-9.300E-07,0.124
-9.200E-07,0.092
-9.100E-07,0.056
-9.000E-07,0.044
-8.900E-07,0.052
-8.800E-07,0.092
-8.700E-07,0.128
-8.600E-07,0.160
-8.500E-07,0.152
-8.400E-07,0.132
-8.300E-07,0.100
-8.200E-07,0.072
-8.100E-07,0.068
-8.000E-07,0.084
-7.900E-07,0.108
-7.800E-07,0.112
-7.700E-07,0.112
-7.600E-07,0.096
-7.500E-07,0.080
-7.400E-07,0.068
-7.300E-07,0.044
-7.200E-07,0.028
-7.100E-07,0.028
-7.000E-07,0.028
-6.900E-07,0.008
-6.800E-07,-0.012
-6.700E-07,-0.040
-6.600E-07,-0.068
-6.500E-07,-0.072
-6.400E-07,-0.064
-6.300E-07,-0.040
-6.200E-07,-0.008
-6.100E-07,0.024
-6.000E-07,0.056
-5.900E-07,0.080
-5.800E-07,0.080
-5.700E-07,0.092
-5.600E-07,0.124
-5.500E-07,0.128
-5.400E-07,0.144
-5.300E-07,0.132
-5.200E-07,0.140
-5.100E-07,0.152
-5.000E-07,0.156
-4.900E-07,0.136
-4.800E-07,0.132
-4.700E-07,0.124
-4.600E-07,0.124
-4.500E-07,0.112
-4.400E-07,0.104
-4.300E-07,0.108
-4.200E-07,0.112
-4.100E-07,0.112
-4.000E-07,0.092
-3.900E-07,0.092
-3.800E-07,0.080
-3.700E-07,0.024
-3.600E-07,-0.040
-3.500E-07,-0.108
-3.400E-07,-0.116
-3.300E-07,-0.060
-3.200E-07,0.044
-3.100E-07,0.104
-3.000E-07,0.164
-2.900E-07,0.152
-2.800E-07,0.060
-2.700E-07,-0.004
-2.600E-07,-0.012
-2.500E-07,0.032
-2.400E-07,0.124
-2.300E-07,0.224
-2.200E-07,0.232
-2.100E-07,0.188
-2.000E-07,0.096
-1.900E-07,-0.024
-1.800E-07,-0.052
-1.700E-07,0.000
-1.600E-07,0.096
-1.500E-07,0.128
-1.400E-07,0.112
-1.300E-07,-0.012
-1.200E-07,-0.164
-1.100E-07,-0.268
-1.000E-07,-0.340
-9.000E-08,-0.332
-8.000E-08,-0.364
-7.000E-08,-0.432
-6.000E-08,-0.512
-5.000E-08,-0.508
-4.000E-08,-0.504
-3.000E-08,-0.292
-2.000E-08,0.024
-1.000E-08,0.288
0.000E+00,0.276
1.000E-08,0.136
2.000E-08,-0.204
3.000E-08,-0.372
4.000E-08,-0.336
5.000E-08,-0.188
6.000E-08,0.136
7.000E-08,0.392
8.000E-08,0.448
9.000E-08,0.224
1.000E-07,-0.084
1.100E-07,-0.348
1.200E-07,-0.376
1.300E-07,-0.172
1.400E-07,0.108
1.500E-07,0.304
1.600E-07,0.328
1.700E-07,0.172
1.800E-07,-0.052
1.900E-07,-0.208
2.000E-07,-0.224
2.100E-07,-0.084
2.200E-07,0.128
2.300E-07,0.332
2.400E-07,0.340
2.500E-07,0.260
2.600E-07,0.060
2.700E-07,-0.072
2.800E-07,-0.128
2.900E-07,-0.048
3.000E-07,0.112
3.100E-07,0.240
3.200E-07,0.316
3.300E-07,0.276
3.400E-07,0.176
3.500E-07,0.056
3.600E-07,0.012
3.700E-07,0.028
3.800E-07,0.124
3.900E-07,0.220
4.000E-07,0.268
4.100E-07,0.260
4.200E-07,0.192
4.300E-07,0.128
4.400E-07,0.064
4.500E-07,0.052
4.600E-07,0.092
4.700E-07,0.152
4.800E-07,0.208
4.900E-07,0.232
5.000E-07,0.216
5.100E-07,0.172
5.200E-07,0.132
5.300E-07,0.120
5.400E-07,0.116
5.500E-07,0.084
5.600E-07,0.072
5.700E-07,-0.020
5.800E-07,-0.112
5.900E-07,-0.204
6.000E-07,-0.232
6.100E-07,-0.228
6.200E-07,-0.260
6.300E-07,-0.112
6.400E-07,-0.100
6.500E-07,-0.068
6.600E-07,-0.036
6.700E-07,0.000
6.800E-07,0.044
6.900E-07,0.148
7.000E-07,0.200
7.100E-07,0.172
7.200E-07,0.088
7.300E-07,-0.080
7.400E-07,-0.232
7.500E-07,-0.304
7.600E-07,-0.268
7.700E-07,-0.252
7.800E-07,-0.100
7.900E-07,-0.040
8.000E-07,-0.056
8.100E-07,-0.168
8.200E-07,-0.320
8.300E-07,-0.348
8.400E-07,-0.268
8.500E-07,-0.064
8.600E-07,0.104
8.700E-07,0.300
8.800E-07,0.300
8.900E-07,0.120
9.000E-07,-0.076
9.100E-07,-0.156
9.200E-07,-0.084
9.300E-07,0.056
9.400E-07,0.244
9.500E-07,0.340
9.600E-07,0.360
9.700E-07,0.232
9.800E-07,0.068
9.900E-07,-0.040
1.000E-06,-0.024
1.010E-06,0.088
1.020E-06,0.220
1.030E-06,0.304
1.040E-06,0.316
1.050E-06,0.256
1.060E-06,0.144
1.070E-06,0.068
1.080E-06,0.044
1.090E-06,0.096
1.100E-06,0.172
1.110E-06,0.256
1.120E-06,0.276
1.130E-06,0.248
1.140E-06,0.192
1.150E-06,0.124
1.160E-06,0.100
1.170E-06,0.112
1.180E-06,0.156
1.190E-06,0.200
1.200E-06,0.236
1.210E-06,0.224
1.220E-06,0.176
1.230E-06,0.124
1.240E-06,0.092
1.250E-06,0.064
1.260E-06,0.076
1.270E-06,0.064
1.280E-06,0.020
1.290E-06,-0.056
1.300E-06,-0.052
1.310E-06,-0.020
1.320E-06,0.096
1.330E-06,0.204
1.340E-06,0.288
1.350E-06,0.304
1.360E-06,0.236
1.370E-06,0.120
1.380E-06,-0.004
1.390E-06,-0.008
1.400E-06,0.032
1.410E-06,0.120
1.420E-06,0.188
1.430E-06,0.220
1.440E-06,0.144
1.450E-06,0.040
1.460E-06,-0.052
1.470E-06,-0.068
1.480E-06,-0.044
1.490E-06,0.028
1.500E-06,0.120
1.510E-06,0.204
1.520E-06,0.208
1.530E-06,0.160
1.540E-06,0.104
1.550E-06,0.072
1.560E-06,0.064
1.570E-06,0.108
1.580E-06,0.164
1.590E-06,0.212
1.600E-06,0.240
1.610E-06,0.208
1.620E-06,0.144
1.630E-06,0.096
1.640E-06,0.076
1.650E-06,0.104
1.660E-06,0.148
1.670E-06,0.188
1.680E-06,0.212
1.690E-06,0.204
1.700E-06,0.176
1.710E-06,0.132
1.720E-06,0.108
1.730E-06,0.124
1.740E-06,0.152
1.750E-06,0.180
1.760E-06,0.200
1.770E-06,0.192
1.780E-06,0.172
1.790E-06,0.144
1.800E-06,0.132
1.810E-06,0.128
1.820E-06,0.144
1.830E-06,0.164
1.840E-06,0.184
1.850E-06,0.184
1.860E-06,0.168
1.870E-06,0.156
1.880E-06,0.140
1.890E-06,0.132
1.900E-06,0.140
1.910E-06,0.152
1.920E-06,0.164
1.930E-06,0.176
1.940E-06,0.164
1.950E-06,0.152
1.960E-06,0.144
1.970E-06,0.136
1.980E-06,0.140
1.990E-06,0.156
2.000E-06,0.156
2.010E-06,0.164
2.020E-06,0.168
2.030E-06,0.156
2.040E-06,0.144
2.050E-06,0.144
2.060E-06,0.144
2.070E-06,0.148
2.080E-06,0.148
2.090E-06,0.152
2.100E-06,0.156
2.110E-06,0.152
2.120E-06,0.148
2.130E-06,0.140
2.140E-06,0.140
2.150E-06,0.140
2.160E-06,0.148
2.170E-06,0.152
2.180E-06,0.152
2.190E-06,0.148
2.200E-06,0.144
2.210E-06,0.144
2.220E-06,0.140
2.230E-06,0.144
2.240E-06,0.148
2.250E-06,0.148
2.260E-06,0.152
2.270E-06,0.152
2.280E-06,0.144
2.290E-06,0.144
2.300E-06,0.144
2.310E-06,0.140
2.320E-06,0.144
2.330E-06,0.148
2.340E-06,0.140
2.350E-06,0.140
2.360E-06,0.144
2.370E-06,0.148
2.380E-06,0.148
2.390E-06,0.140
2.400E-06,0.144
2.410E-06,0.144
2.420E-06,0.144
2.430E-06,0.144
2.440E-06,0.144
2.450E-06,0.144
2.460E-06,0.144
2.470E-06,0.144
2.480E-06,0.148
2.490E-06,0.136
2.500E-06,0.144
2.510E-06,0.144
2.520E-06,0.144
2.530E-06,0.140
2.540E-06,0.140
2.550E-06,0.136
2.560E-06,0.144
2.570E-06,0.144
2.580E-06,0.140
2.590E-06,0.140
2.600E-06,0.140
2.610E-06,0.140
2.620E-06,0.140
2.630E-06,0.140
2.640E-06,0.144
2.650E-06,0.136
2.660E-06,0.136
2.670E-06,0.136
2.680E-06,0.136
2.690E-06,0.136
2.700E-06,0.132
2.710E-06,0.132
2.720E-06,0.136
2.730E-06,0.136
2.740E-06,0.136
2.750E-06,0.128
2.760E-06,0.132
2.770E-06,0.136
2.780E-06,0.132
2.790E-06,0.132
2.800E-06,0.132
2.810E-06,0.132
2.820E-06,0.132
2.830E-06,0.128
2.840E-06,0.132
2.850E-06,0.132
2.860E-06,0.128
2.870E-06,0.132
2.880E-06,0.132
2.890E-06,0.128
2.900E-06,0.128
2.910E-06,0.132
2.920E-06,0.128
2.930E-06,0.128
2.940E-06,0.128
2.950E-06,0.128
2.960E-06,0.128
2.970E-06,0.128
2.980E-06,0.128
2.990E-06,0.124
3.000E-06,0.124
3.010E-06,0.124
3.020E-06,0.128
3.030E-06,0.128
3.040E-06,0.128
3.050E-06,0.128
3.060E-06,0.124
3.070E-06,0.124
3.080E-06,0.124
3.090E-06,0.124
3.100E-06,0.124
3.110E-06,0.124
3.120E-06,0.124
3.130E-06,0.124
3.140E-06,0.124
3.150E-06,0.124
3.160E-06,0.120
3.170E-06,0.124
3.180E-06,0.124
3.190E-06,0.124
3.200E-06,0.124
3.210E-06,0.124
3.220E-06,0.124
3.230E-06,0.124
3.240E-06,0.124
3.250E-06,0.124
3.260E-06,0.124
3.270E-06,0.124
3.280E-06,0.124
3.290E-06,0.120
