mediciones/mediciones removidas por ser diferentes/-5/WaveData4940.csv

#timebase=2000000(ps)
,#voltbase=100000(mv/100)
#size=4000
-8.400E-06,0.008
-8.390E-06,-0.004
-8.380E-06,0.004
-8.370E-06,0.004
-8.360E-06,0.004
-8.350E-06,0.016
-8.340E-06,0.004
-8.330E-06,-0.004
-8.320E-06,0.000
-8.310E-06,-0.004
-8.300E-06,0.004
-8.290E-06,0.004
-8.280E-06,0.008
-8.270E-06,0.004
-8.260E-06,-0.004
-8.250E-06,-0.004
-8.240E-06,-0.004
-8.230E-06,0.004
-8.220E-06,0.008
-8.210E-06,0.012
-8.200E-06,0.008
-8.190E-06,0.008
-8.180E-06,0.008
-8.170E-06,0.004
-8.160E-06,0.008
-8.150E-06,0.004
-8.140E-06,0.012
-8.130E-06,0.000
-8.120E-06,-0.004
-8.110E-06,-0.012
-8.100E-06,-0.008
-8.090E-06,0.000
-8.080E-06,0.004
-8.070E-06,0.012
-8.060E-06,0.012
-8.050E-06,0.012
-8.040E-06,0.004
-8.030E-06,-0.008
-8.020E-06,-0.008
-8.010E-06,-0.008
-8.000E-06,0.000
-7.990E-06,0.008
-7.980E-06,0.008
-7.970E-06,0.008
-7.960E-06,0.004
-7.950E-06,0.000
-7.940E-06,-0.004
-7.930E-06,-0.004
-7.920E-06,0.000
-7.910E-06,0.000
-7.900E-06,0.004
-7.890E-06,0.004
-7.880E-06,0.012
-7.870E-06,0.012
-7.860E-06,0.008
-7.850E-06,-0.004
-7.840E-06,0.000
-7.830E-06,0.000
-7.820E-06,0.004
-7.810E-06,0.008
-7.800E-06,0.004
-7.790E-06,0.000
-7.780E-06,0.004
-7.770E-06,0.004
-7.760E-06,0.004
-7.750E-06,0.000
-7.740E-06,0.000
-7.730E-06,0.004
-7.720E-06,-0.004
-7.710E-06,-0.004
-7.700E-06,0.000
-7.690E-06,0.000
-7.680E-06,0.008
-7.670E-06,0.004
-7.660E-06,0.008
-7.650E-06,0.004
-7.640E-06,-0.004
-7.630E-06,-0.004
-7.620E-06,0.004
-7.610E-06,0.008
-7.600E-06,0.012
-7.590E-06,0.008
-7.580E-06,0.000
-7.570E-06,-0.008
-7.560E-06,-0.012
-7.550E-06,0.008
-7.540E-06,0.016
-7.530E-06,0.016
-7.520E-06,0.012
-7.510E-06,0.000
-7.500E-06,-0.004
-7.490E-06,-0.012
-7.480E-06,-0.012
-7.470E-06,0.000
-7.460E-06,-0.008
-7.450E-06,0.004
-7.440E-06,0.000
-7.430E-06,0.004
-7.420E-06,0.008
-7.410E-06,0.008
-7.400E-06,0.012
-7.390E-06,0.004
-7.380E-06,-0.004
-7.370E-06,-0.008
-7.360E-06,-0.008
-7.350E-06,0.008
-7.340E-06,0.016
-7.330E-06,0.020
-7.320E-06,0.008
-7.310E-06,-0.004
-7.300E-06,-0.012
-7.290E-06,-0.008
-7.280E-06,0.004
-7.270E-06,0.016
-7.260E-06,0.016
-7.250E-06,0.012
-7.240E-06,0.000
-7.230E-06,-0.012
-7.220E-06,-0.012
-7.210E-06,-0.004
-7.200E-06,0.008
-7.190E-06,0.020
-7.180E-06,0.012
-7.170E-06,0.004
-7.160E-06,0.000
-7.150E-06,-0.008
-7.140E-06,-0.004
-7.130E-06,-0.004
-7.120E-06,0.012
-7.110E-06,0.004
-7.100E-06,-0.004
-7.090E-06,0.004
-7.080E-06,0.000
-7.070E-06,0.004
-7.060E-06,0.004
-7.050E-06,0.000
-7.040E-06,0.000
-7.030E-06,-0.004
-7.020E-06,0.008
-7.010E-06,0.008
-7.000E-06,0.004
-6.990E-06,0.008
-6.980E-06,0.004
-6.970E-06,-0.004
-6.960E-06,0.000
-6.950E-06,0.004
-6.940E-06,0.004
-6.930E-06,0.008
-6.920E-06,0.008
-6.910E-06,0.000
-6.900E-06,-0.004
-6.890E-06,-0.004
-6.880E-06,0.000
-6.870E-06,0.000
-6.860E-06,0.008
-6.850E-06,0.008
-6.840E-06,0.008
-6.830E-06,0.004
-6.820E-06,-0.004
-6.810E-06,0.004
-6.800E-06,0.004
-6.790E-06,0.000
-6.780E-06,0.004
-6.770E-06,0.004
-6.760E-06,0.004
-6.750E-06,0.008
-6.740E-06,0.004
-6.730E-06,0.008
-6.720E-06,0.004
-6.710E-06,0.000
-6.700E-06,-0.008
-6.690E-06,0.004
-6.680E-06,0.000
-6.670E-06,0.000
-6.660E-06,0.008
-6.650E-06,0.012
-6.640E-06,-0.004
-6.630E-06,-0.004
-6.620E-06,0.000
-6.610E-06,0.004
-6.600E-06,0.000
-6.590E-06,0.004
-6.580E-06,0.004
-6.570E-06,0.000
-6.560E-06,0.000
-6.550E-06,0.000
-6.540E-06,0.004
-6.530E-06,0.008
-6.520E-06,0.008
-6.510E-06,0.008
-6.500E-06,0.012
-6.490E-06,0.008
-6.480E-06,-0.008
-6.470E-06,0.004
-6.460E-06,-0.004
-6.450E-06,-0.004
-6.440E-06,0.008
-6.430E-06,0.008
-6.420E-06,0.008
-6.410E-06,0.004
-6.400E-06,0.008
-6.390E-06,0.000
-6.380E-06,0.000
-6.370E-06,0.004
-6.360E-06,0.004
-6.350E-06,0.004
-6.340E-06,0.008
-6.330E-06,0.004
-6.320E-06,0.004
-6.310E-06,0.004
-6.300E-06,0.000
-6.290E-06,0.004
-6.280E-06,0.000
-6.270E-06,0.004
-6.260E-06,0.008
-6.250E-06,0.008
-6.240E-06,0.004
-6.230E-06,0.004
-6.220E-06,-0.004
-6.210E-06,-0.004
-6.200E-06,-0.008
-6.190E-06,0.000
-6.180E-06,0.008
-6.170E-06,0.008
-6.160E-06,0.008
-6.150E-06,0.008
-6.140E-06,0.004
-6.130E-06,0.004
-6.120E-06,0.000
-6.110E-06,-0.020
-6.100E-06,0.000
-6.090E-06,0.000
-6.080E-06,0.008
-6.070E-06,0.024
-6.060E-06,0.012
-6.050E-06,-0.004
-6.040E-06,-0.008
-6.030E-06,-0.004
-6.020E-06,-0.004
-6.010E-06,0.008
-6.000E-06,0.024
-5.990E-06,0.012
-5.980E-06,0.004
-5.970E-06,0.008
-5.960E-06,-0.008
-5.950E-06,-0.004
-5.940E-06,0.000
-5.930E-06,0.000
-5.920E-06,0.012
-5.910E-06,0.012
-5.900E-06,0.000
-5.890E-06,0.000
-5.880E-06,0.004
-5.870E-06,0.000
-5.860E-06,0.004
-5.850E-06,0.008
-5.840E-06,-0.004
-5.830E-06,-0.004
-5.820E-06,0.000
-5.810E-06,0.000
-5.800E-06,0.004
-5.790E-06,0.008
-5.780E-06,0.000
-5.770E-06,0.000
-5.760E-06,-0.004
-5.750E-06,-0.004
-5.740E-06,0.004
-5.730E-06,0.004
-5.720E-06,0.008
-5.710E-06,-0.004
-5.700E-06,0.000
-5.690E-06,0.004
-5.680E-06,-0.004
-5.670E-06,0.004
-5.660E-06,0.008
-5.650E-06,0.008
-5.640E-06,0.004
-5.630E-06,-0.004
-5.620E-06,0.000
-5.610E-06,0.004
-5.600E-06,0.008
-5.590E-06,0.008
-5.580E-06,0.004
-5.570E-06,0.004
-5.560E-06,0.000
-5.550E-06,-0.004
-5.540E-06,0.004
-5.530E-06,0.000
-5.520E-06,0.008
-5.510E-06,0.008
-5.500E-06,0.004
-5.490E-06,0.004
-5.480E-06,-0.004
-5.470E-06,-0.004
-5.460E-06,0.004
-5.450E-06,0.008
-5.440E-06,0.008
-5.430E-06,0.004
-5.420E-06,0.004
-5.410E-06,0.000
-5.400E-06,0.000
-5.390E-06,0.004
-5.380E-06,0.000
-5.370E-06,0.004
-5.360E-06,0.008
-5.350E-06,0.004
-5.340E-06,0.000
-5.330E-06,0.000
-5.320E-06,0.000
-5.310E-06,0.000
-5.300E-06,0.008
-5.290E-06,0.008
-5.280E-06,0.004
-5.270E-06,0.000
-5.260E-06,0.004
-5.250E-06,0.000
-5.240E-06,-0.004
-5.230E-06,0.000
-5.220E-06,0.000
-5.210E-06,0.004
-5.200E-06,0.008
-5.190E-06,0.004
-5.180E-06,0.008
-5.170E-06,0.004
-5.160E-06,0.004
-5.150E-06,0.000
-5.140E-06,0.004
-5.130E-06,0.008
-5.120E-06,0.008
-5.110E-06,0.000
-5.100E-06,0.004
-5.090E-06,-0.004
-5.080E-06,-0.004
-5.070E-06,0.004
-5.060E-06,-0.004
-5.050E-06,0.008
-5.040E-06,0.008
-5.030E-06,-0.004
-5.020E-06,0.000
-5.010E-06,0.000
-5.000E-06,0.000
-4.990E-06,0.004
-4.980E-06,0.012
-4.970E-06,0.008
-4.960E-06,0.000
-4.950E-06,0.000
-4.940E-06,0.008
-4.930E-06,-0.004
-4.920E-06,0.004
-4.910E-06,0.008
-4.900E-06,0.000
-4.890E-06,0.000
-4.880E-06,0.000
-4.870E-06,-0.004
-4.860E-06,0.000
-4.850E-06,-0.004
-4.840E-06,0.004
-4.830E-06,0.000
-4.820E-06,0.000
-4.810E-06,0.004
-4.800E-06,0.008
-4.790E-06,0.004
-4.780E-06,0.004
-4.770E-06,0.004
-4.760E-06,-0.004
-4.750E-06,0.000
-4.740E-06,0.000
-4.730E-06,0.004
-4.720E-06,0.004
-4.710E-06,0.008
-4.700E-06,0.000
-4.690E-06,0.000
-4.680E-06,-0.004
-4.670E-06,0.000
-4.660E-06,0.000
-4.650E-06,-0.004
-4.640E-06,0.000
-4.630E-06,0.004
-4.620E-06,-0.004
-4.610E-06,0.000
-4.600E-06,0.004
-4.590E-06,0.004
-4.580E-06,0.000
-4.570E-06,0.008
-4.560E-06,0.004
-4.550E-06,0.004
-4.540E-06,0.004
-4.530E-06,0.004
-4.520E-06,0.004
-4.510E-06,0.004
-4.500E-06,0.004
-4.490E-06,0.000
-4.480E-06,0.004
-4.470E-06,0.004
-4.460E-06,0.000
-4.450E-06,0.004
-4.440E-06,0.000
-4.430E-06,0.004
-4.420E-06,0.008
-4.410E-06,0.000
-4.400E-06,0.000
-4.390E-06,-0.004
-4.380E-06,0.000
-4.370E-06,0.008
-4.360E-06,0.000
-4.350E-06,0.000
-4.340E-06,0.000
-4.330E-06,0.000
-4.320E-06,0.008
-4.310E-06,0.000
-4.300E-06,0.004
-4.290E-06,0.004
-4.280E-06,0.000
-4.270E-06,0.004
-4.260E-06,-0.004
-4.250E-06,0.008
-4.240E-06,0.008
-4.230E-06,0.008
-4.220E-06,0.000
-4.210E-06,-0.004
-4.200E-06,-0.008
-4.190E-06,0.000
-4.180E-06,0.004
-4.170E-06,0.012
-4.160E-06,0.008
-4.150E-06,0.004
-4.140E-06,0.000
-4.130E-06,-0.004
-4.120E-06,-0.004
-4.110E-06,0.000
-4.100E-06,0.008
-4.090E-06,0.008
-4.080E-06,0.004
-4.070E-06,0.000
-4.060E-06,-0.004
-4.050E-06,0.000
-4.040E-06,0.004
-4.030E-06,0.008
-4.020E-06,0.008
-4.010E-06,0.012
-4.000E-06,-0.004
-3.990E-06,0.000
-3.980E-06,0.004
-3.970E-06,0.004
-3.960E-06,0.012
-3.950E-06,0.000
-3.940E-06,-0.004
-3.930E-06,-0.004
-3.920E-06,-0.004
-3.910E-06,0.004
-3.900E-06,0.008
-3.890E-06,0.012
-3.880E-06,0.008
-3.870E-06,0.004
-3.860E-06,-0.004
-3.850E-06,-0.004
-3.840E-06,0.004
-3.830E-06,0.004
-3.820E-06,0.008
-3.810E-06,0.000
-3.800E-06,0.004
-3.790E-06,0.004
-3.780E-06,0.000
-3.770E-06,0.004
-3.760E-06,0.000
-3.750E-06,0.004
-3.740E-06,0.000
-3.730E-06,0.004
-3.720E-06,0.004
-3.710E-06,0.000
-3.700E-06,0.008
-3.690E-06,0.008
-3.680E-06,0.012
-3.670E-06,0.000
-3.660E-06,0.000
-3.650E-06,0.004
-3.640E-06,0.000
-3.630E-06,0.004
-3.620E-06,0.004
-3.610E-06,0.000
-3.600E-06,0.004
-3.590E-06,0.004
-3.580E-06,0.004
-3.570E-06,0.008
-3.560E-06,0.008
-3.550E-06,-0.004
-3.540E-06,0.000
-3.530E-06,0.000
-3.520E-06,0.000
-3.510E-06,0.004
-3.500E-06,0.000
-3.490E-06,0.000
-3.480E-06,0.000
-3.470E-06,-0.004
-3.460E-06,0.000
-3.450E-06,0.004
-3.440E-06,0.004
-3.430E-06,0.000
-3.420E-06,0.004
-3.410E-06,0.004
-3.400E-06,0.000
-3.390E-06,0.000
-3.380E-06,0.000
-3.370E-06,-0.004
-3.360E-06,0.008
-3.350E-06,0.000
-3.340E-06,-0.004
-3.330E-06,0.000
-3.320E-06,0.004
-3.310E-06,0.004
-3.300E-06,0.000
-3.290E-06,0.008
-3.280E-06,0.008
-3.270E-06,0.008
-3.260E-06,0.000
-3.250E-06,0.004
-3.240E-06,0.000
-3.230E-06,0.000
-3.220E-06,0.000
-3.210E-06,0.000
-3.200E-06,0.008
-3.190E-06,0.012
-3.180E-06,0.012
-3.170E-06,0.008
-3.160E-06,0.004
-3.150E-06,0.004
-3.140E-06,-0.004
-3.130E-06,-0.004
-3.120E-06,-0.004
-3.110E-06,0.004
-3.100E-06,0.008
-3.090E-06,0.012
-3.080E-06,0.008
-3.070E-06,0.008
-3.060E-06,0.008
-3.050E-06,0.004
-3.040E-06,0.000
-3.030E-06,-0.004
-3.020E-06,-0.004
-3.010E-06,0.000
-3.000E-06,0.008
-2.990E-06,0.012
-2.980E-06,0.008
-2.970E-06,0.000
-2.960E-06,-0.004
-2.950E-06,-0.004
-2.940E-06,-0.004
-2.930E-06,0.004
-2.920E-06,0.012
-2.910E-06,0.008
-2.900E-06,0.008
-2.890E-06,0.004
-2.880E-06,0.000
-2.870E-06,0.008
-2.860E-06,0.008
-2.850E-06,0.004
-2.840E-06,0.004
-2.830E-06,-0.004
-2.820E-06,-0.004
-2.810E-06,-0.004
-2.800E-06,0.000
-2.790E-06,0.000
-2.780E-06,0.000
-2.770E-06,0.000
-2.760E-06,0.000
-2.750E-06,0.004
-2.740E-06,0.004
-2.730E-06,0.000
-2.720E-06,0.000
-2.710E-06,0.000
-2.700E-06,0.004
-2.690E-06,0.000
-2.680E-06,0.000
-2.670E-06,0.008
-2.660E-06,0.012
-2.650E-06,0.004
-2.640E-06,0.000
-2.630E-06,0.004
-2.620E-06,0.004
-2.610E-06,0.004
-2.600E-06,0.008
-2.590E-06,0.004
-2.580E-06,0.004
-2.570E-06,0.012
-2.560E-06,0.016
-2.550E-06,0.016
-2.540E-06,0.016
-2.530E-06,0.016
-2.520E-06,0.016
-2.510E-06,0.004
-2.500E-06,0.008
-2.490E-06,0.000
-2.480E-06,-0.004
-2.470E-06,0.004
-2.460E-06,-0.004
-2.450E-06,0.004
-2.440E-06,0.008
-2.430E-06,0.012
-2.420E-06,0.012
-2.410E-06,0.008
-2.400E-06,0.000
-2.390E-06,-0.004
-2.380E-06,-0.008
-2.370E-06,0.000
-2.360E-06,0.008
-2.350E-06,0.024
-2.340E-06,0.028
-2.330E-06,0.028
-2.320E-06,0.016
-2.310E-06,0.008
-2.300E-06,0.000
-2.290E-06,-0.016
-2.280E-06,-0.032
-2.270E-06,-0.032
-2.260E-06,-0.020
-2.250E-06,0.008
-2.240E-06,0.020
-2.230E-06,0.008
-2.220E-06,0.000
-2.210E-06,0.000
-2.200E-06,0.000
-2.190E-06,-0.004
-2.180E-06,-0.008
-2.170E-06,-0.004
-2.160E-06,0.008
-2.150E-06,0.012
-2.140E-06,0.016
-2.130E-06,0.004
-2.120E-06,-0.004
-2.110E-06,-0.004
-2.100E-06,0.000
-2.090E-06,0.000
-2.080E-06,0.008
-2.070E-06,0.012
-2.060E-06,0.004
-2.050E-06,0.000
-2.040E-06,-0.004
-2.030E-06,0.000
-2.020E-06,0.000
-2.010E-06,0.008
-2.000E-06,0.016
-1.990E-06,0.016
-1.980E-06,0.012
-1.970E-06,0.004
-1.960E-06,-0.008
-1.950E-06,-0.008
-1.940E-06,0.000
-1.930E-06,0.008
-1.920E-06,0.020
-1.910E-06,0.024
-1.900E-06,0.036
-1.890E-06,0.028
-1.880E-06,0.020
-1.870E-06,0.012
-1.860E-06,0.024
-1.850E-06,0.036
-1.840E-06,0.028
-1.830E-06,-0.080
-1.820E-06,-0.140
-1.810E-06,-0.100
-1.800E-06,-0.068
-1.790E-06,0.056
-1.780E-06,0.112
-1.770E-06,0.104
-1.760E-06,0.028
-1.750E-06,-0.040
-1.740E-06,-0.084
-1.730E-06,-0.096
-1.720E-06,-0.012
-1.710E-06,0.064
-1.700E-06,0.072
-1.690E-06,0.064
-1.680E-06,0.028
-1.670E-06,-0.012
-1.660E-06,-0.036
-1.650E-06,-0.032
-1.640E-06,-0.012
-1.630E-06,0.012
-1.620E-06,0.024
-1.610E-06,0.012
-1.600E-06,0.008
-1.590E-06,-0.008
-1.580E-06,-0.012
-1.570E-06,-0.016
-1.560E-06,-0.008
-1.550E-06,0.004
-1.540E-06,0.012
-1.530E-06,0.020
-1.520E-06,0.020
-1.510E-06,0.016
-1.500E-06,0.000
-1.490E-06,-0.004
-1.480E-06,-0.008
-1.470E-06,-0.004
-1.460E-06,0.012
-1.450E-06,0.032
-1.440E-06,0.024
-1.430E-06,0.008
-1.420E-06,-0.004
-1.410E-06,-0.016
-1.400E-06,-0.008
-1.390E-06,0.000
-1.380E-06,0.020
-1.370E-06,0.020
-1.360E-06,0.020
-1.350E-06,0.016
-1.340E-06,0.000
-1.330E-06,-0.004
-1.320E-06,-0.008
-1.310E-06,-0.008
-1.300E-06,0.004
-1.290E-06,0.016
-1.280E-06,0.024
-1.270E-06,0.016
-1.260E-06,0.008
-1.250E-06,-0.012
-1.240E-06,-0.016
-1.230E-06,-0.008
-1.220E-06,-0.004
-1.210E-06,0.000
-1.200E-06,0.016
-1.190E-06,0.012
-1.180E-06,0.012
-1.170E-06,0.004
-1.160E-06,-0.008
-1.150E-06,-0.004
-1.140E-06,-0.008
-1.130E-06,0.008
-1.120E-06,0.020
-1.110E-06,0.032
-1.100E-06,0.044
-1.090E-06,0.032
-1.080E-06,0.024
-1.070E-06,0.000
-1.060E-06,0.000
-1.050E-06,-0.004
-1.040E-06,0.012
-1.030E-06,0.020
-1.020E-06,0.032
-1.010E-06,0.032
-1.000E-06,0.012
-9.900E-07,-0.004
-9.800E-07,-0.024
-9.700E-07,-0.020
-9.600E-07,-0.008
-9.500E-07,0.008
-9.400E-07,0.024
-9.300E-07,0.032
-9.200E-07,0.028
-9.100E-07,0.004
-9.000E-07,0.000
-8.900E-07,-0.004
-8.800E-07,0.008
-8.700E-07,0.024
-8.600E-07,0.040
-8.500E-07,0.056
-8.400E-07,0.060
-8.300E-07,0.064
-8.200E-07,0.052
-8.100E-07,0.024
-8.000E-07,0.016
-7.900E-07,0.016
-7.800E-07,0.028
-7.700E-07,0.024
-7.600E-07,0.020
-7.500E-07,0.004
-7.400E-07,-0.012
-7.300E-07,-0.040
-7.200E-07,-0.044
-7.100E-07,-0.044
-7.000E-07,-0.020
-6.900E-07,0.020
-6.800E-07,0.028
-6.700E-07,0.040
-6.600E-07,0.036
-6.500E-07,0.024
-6.400E-07,0.004
-6.300E-07,0.012
-6.200E-07,0.028
-6.100E-07,0.048
-6.000E-07,0.056
-5.900E-07,0.056
-5.800E-07,0.044
-5.700E-07,0.028
-5.600E-07,0.020
-5.500E-07,0.000
-5.400E-07,-0.004
-5.300E-07,-0.012
-5.200E-07,-0.020
-5.100E-07,-0.024
-5.000E-07,-0.016
-4.900E-07,-0.020
-4.800E-07,0.024
-4.700E-07,0.036
-4.600E-07,0.056
-4.500E-07,0.068
-4.400E-07,0.052
-4.300E-07,0.028
-4.200E-07,-0.008
-4.100E-07,0.000
-4.000E-07,0.012
-3.900E-07,0.036
-3.800E-07,0.052
-3.700E-07,0.060
-3.600E-07,0.024
-3.500E-07,-0.004
-3.400E-07,-0.032
-3.300E-07,-0.012
-3.200E-07,0.024
-3.100E-07,0.056
-3.000E-07,0.104
-2.900E-07,0.084
-2.800E-07,0.084
-2.700E-07,0.028
-2.600E-07,0.016
-2.500E-07,0.060
-2.400E-07,0.088
-2.300E-07,0.136
-2.200E-07,0.128
-2.100E-07,0.104
-2.000E-07,0.064
-1.900E-07,0.032
-1.800E-07,0.008
-1.700E-07,0.008
-1.600E-07,0.020
-1.500E-07,0.028
-1.400E-07,0.048
-1.300E-07,0.052
-1.200E-07,0.088
-1.100E-07,0.104
-1.000E-07,0.124
-9.000E-08,0.132
-8.000E-08,0.108
-7.000E-08,0.064
-6.000E-08,-0.072
-5.000E-08,-0.512
-4.000E-08,-0.512
-3.000E-08,-0.512
-2.000E-08,-0.512
-1.000E-08,0.132
0.000E+00,0.540
1.000E-08,0.540
2.000E-08,0.536
3.000E-08,0.032
4.000E-08,-0.512
5.000E-08,-0.512
6.000E-08,-0.508
7.000E-08,0.088
8.000E-08,0.540
9.000E-08,0.540
1.000E-07,0.324
1.100E-07,-0.132
1.200E-07,-0.512
1.300E-07,-0.512
1.400E-07,-0.368
1.500E-07,0.044
1.600E-07,0.396
1.700E-07,0.440
1.800E-07,0.244
1.900E-07,-0.104
2.000E-07,-0.264
2.100E-07,-0.296
2.200E-07,-0.152
2.300E-07,0.044
2.400E-07,0.228
2.500E-07,0.272
2.600E-07,0.212
2.700E-07,0.036
2.800E-07,-0.104
2.900E-07,-0.172
3.000E-07,-0.120
3.100E-07,-0.008
3.200E-07,0.112
3.300E-07,0.200
3.400E-07,0.180
3.500E-07,0.148
3.600E-07,0.052
3.700E-07,0.000
3.800E-07,0.004
3.900E-07,0.008
4.000E-07,0.000
4.100E-07,0.008
4.200E-07,-0.012
4.300E-07,-0.036
4.400E-07,-0.020
4.500E-07,0.004
4.600E-07,0.028
4.700E-07,0.028
4.800E-07,0.024
4.900E-07,-0.004
5.000E-07,0.004
5.100E-07,0.004
5.200E-07,0.004
5.300E-07,0.008
5.400E-07,-0.012
5.500E-07,-0.036
5.600E-07,-0.036
5.700E-07,0.000
5.800E-07,0.004
5.900E-07,0.032
6.000E-07,0.028
6.100E-07,0.004
6.200E-07,-0.024
6.300E-07,-0.036
6.400E-07,-0.028
6.500E-07,-0.004
6.600E-07,0.040
6.700E-07,0.044
6.800E-07,0.020
6.900E-07,-0.012
7.000E-07,-0.040
7.100E-07,-0.044
7.200E-07,-0.012
7.300E-07,0.020
7.400E-07,0.044
7.500E-07,0.068
7.600E-07,0.060
7.700E-07,0.036
7.800E-07,0.028
7.900E-07,0.028
8.000E-07,0.036
8.100E-07,0.060
8.200E-07,0.068
8.300E-07,0.056
8.400E-07,0.048
8.500E-07,0.048
8.600E-07,0.032
8.700E-07,0.028
8.800E-07,0.028
8.900E-07,0.024
9.000E-07,0.036
9.100E-07,0.056
9.200E-07,0.060
9.300E-07,0.064
9.400E-07,0.068
9.500E-07,0.060
9.600E-07,0.060
9.700E-07,0.060
9.800E-07,0.088
9.900E-07,0.120
1.000E-06,0.120
1.010E-06,0.100
1.020E-06,0.076
1.030E-06,0.056
1.040E-06,0.048
1.050E-06,0.060
1.060E-06,0.084
1.070E-06,0.092
1.080E-06,0.076
1.090E-06,0.044
1.100E-06,0.016
1.110E-06,0.008
1.120E-06,0.024
1.130E-06,0.040
1.140E-06,0.044
1.150E-06,0.028
1.160E-06,0.032
1.170E-06,0.024
1.180E-06,0.036
1.190E-06,0.052
1.200E-06,0.096
1.210E-06,0.124
1.220E-06,0.120
1.230E-06,0.084
1.240E-06,0.060
1.250E-06,0.048
1.260E-06,0.052
1.270E-06,0.068
1.280E-06,0.108
1.290E-06,0.136
1.300E-06,0.140
1.310E-06,0.128
1.320E-06,0.108
1.330E-06,0.104
1.340E-06,0.108
1.350E-06,0.108
1.360E-06,0.104
1.370E-06,0.072
1.380E-06,-0.180
1.390E-06,-0.500
1.400E-06,-0.508
1.410E-06,-0.512
1.420E-06,-0.384
1.430E-06,0.048
1.440E-06,0.448
1.450E-06,0.176
1.460E-06,-0.112
1.470E-06,-0.368
1.480E-06,-0.288
1.490E-06,-0.084
1.500E-06,0.048
1.510E-06,0.096
1.520E-06,-0.076
1.530E-06,-0.272
1.540E-06,-0.372
1.550E-06,-0.288
1.560E-06,-0.072
1.570E-06,0.192
1.580E-06,0.288
1.590E-06,0.224
1.600E-06,-0.024
1.610E-06,-0.264
1.620E-06,-0.392
1.630E-06,-0.204
1.640E-06,0.016
1.650E-06,0.224
1.660E-06,0.276
1.670E-06,0.176
1.680E-06,-0.028
1.690E-06,-0.168
1.700E-06,-0.204
1.710E-06,-0.132
1.720E-06,0.036
1.730E-06,0.160
1.740E-06,0.216
1.750E-06,0.136
1.760E-06,0.008
1.770E-06,-0.108
1.780E-06,-0.136
1.790E-06,-0.088
1.800E-06,0.016
1.810E-06,0.128
1.820E-06,0.148
1.830E-06,0.128
1.840E-06,0.064
1.850E-06,-0.012
1.860E-06,-0.036
1.870E-06,-0.020
1.880E-06,0.032
1.890E-06,0.104
1.900E-06,0.152
1.910E-06,0.152
1.920E-06,0.116
1.930E-06,0.080
1.940E-06,0.056
1.950E-06,0.060
1.960E-06,0.084
1.970E-06,0.128
1.980E-06,0.156
1.990E-06,0.176
2.000E-06,0.176
2.010E-06,0.164
2.020E-06,0.148
2.030E-06,0.144
2.040E-06,0.140
2.050E-06,0.160
2.060E-06,0.168
2.070E-06,0.176
2.080E-06,0.176
2.090E-06,0.168
2.100E-06,0.164
2.110E-06,0.156
2.120E-06,0.160
2.130E-06,0.156
2.140E-06,0.156
2.150E-06,0.156
2.160E-06,0.164
2.170E-06,0.156
2.180E-06,0.160
2.190E-06,0.164
2.200E-06,0.164
2.210E-06,0.152
2.220E-06,0.152
2.230E-06,0.156
2.240E-06,0.152
2.250E-06,0.152
2.260E-06,0.160
2.270E-06,0.168
2.280E-06,0.160
2.290E-06,0.144
2.300E-06,0.136
2.310E-06,0.128
2.320E-06,0.112
2.330E-06,0.052
2.340E-06,-0.028
2.350E-06,-0.088
2.360E-06,-0.116
2.370E-06,-0.324
2.380E-06,-0.452
2.390E-06,-0.488
2.400E-06,-0.416
2.410E-06,-0.344
2.420E-06,-0.144
2.430E-06,0.004
2.440E-06,-0.032
2.450E-06,-0.136
2.460E-06,-0.380
2.470E-06,-0.472
2.480E-06,-0.332
2.490E-06,-0.024
2.500E-06,0.216
2.510E-06,0.520
2.520E-06,0.540
2.530E-06,0.380
2.540E-06,0.016
2.550E-06,-0.256
2.560E-06,-0.364
2.570E-06,-0.272
2.580E-06,-0.048
2.590E-06,0.152
2.600E-06,0.220
2.610E-06,0.176
2.620E-06,-0.036
2.630E-06,-0.228
2.640E-06,-0.292
2.650E-06,-0.236
2.660E-06,-0.084
2.670E-06,0.080
2.680E-06,0.192
2.690E-06,0.144
2.700E-06,0.056
2.710E-06,-0.064
2.720E-06,-0.188
2.730E-06,-0.200
2.740E-06,-0.136
2.750E-06,-0.008
2.760E-06,0.108
2.770E-06,0.172
2.780E-06,0.196
2.790E-06,0.140
2.800E-06,0.084
2.810E-06,0.028
2.820E-06,0.016
2.830E-06,0.064
2.840E-06,0.124
2.850E-06,0.180
2.860E-06,0.192
2.870E-06,0.176
2.880E-06,0.140
2.890E-06,0.108
2.900E-06,0.116
2.910E-06,0.128
2.920E-06,0.172
2.930E-06,0.204
2.940E-06,0.216
2.950E-06,0.208
2.960E-06,0.188
2.970E-06,0.152
2.980E-06,0.140
2.990E-06,0.140
3.000E-06,0.152
3.010E-06,0.164
3.020E-06,0.168
3.030E-06,0.156
3.040E-06,0.152
3.050E-06,0.152
3.060E-06,0.160
3.070E-06,0.188
3.080E-06,0.200
3.090E-06,0.192
3.100E-06,0.156
3.110E-06,0.148
3.120E-06,0.136
3.130E-06,0.148
3.140E-06,0.172
3.150E-06,0.196
3.160E-06,0.208
3.170E-06,0.196
3.180E-06,0.176
3.190E-06,0.156
3.200E-06,0.140
3.210E-06,0.144
3.220E-06,0.152
3.230E-06,0.156
3.240E-06,0.148
3.250E-06,0.148
3.260E-06,0.148
3.270E-06,0.148
3.280E-06,0.136
3.290E-06,0.132
3.300E-06,0.116
3.310E-06,0.112
3.320E-06,0.120
3.330E-06,0.140
3.340E-06,0.160
3.350E-06,0.172
