mediciones/mediciones removidas por ser diferentes/-5/WaveData4948.csv

#timebase=2000000(ps)
,#voltbase=100000(mv/100)
#size=4000
-8.400E-06,0.000
-8.390E-06,0.004
-8.380E-06,0.004
-8.370E-06,0.004
-8.360E-06,0.000
-8.350E-06,0.000
-8.340E-06,0.000
-8.330E-06,0.000
-8.320E-06,0.004
-8.310E-06,0.000
-8.300E-06,0.004
-8.290E-06,0.008
-8.280E-06,0.004
-8.270E-06,0.004
-8.260E-06,0.004
-8.250E-06,0.000
-8.240E-06,-0.004
-8.230E-06,0.000
-8.220E-06,-0.004
-8.210E-06,0.008
-8.200E-06,0.004
-8.190E-06,0.000
-8.180E-06,0.008
-8.170E-06,0.012
-8.160E-06,0.008
-8.150E-06,0.000
-8.140E-06,0.000
-8.130E-06,0.000
-8.120E-06,0.000
-8.110E-06,-0.004
-8.100E-06,0.000
-8.090E-06,0.004
-8.080E-06,0.000
-8.070E-06,0.008
-8.060E-06,0.008
-8.050E-06,0.004
-8.040E-06,0.008
-8.030E-06,-0.004
-8.020E-06,-0.004
-8.010E-06,0.008
-8.000E-06,0.004
-7.990E-06,0.004
-7.980E-06,-0.004
-7.970E-06,0.000
-7.960E-06,0.000
-7.950E-06,0.004
-7.940E-06,0.004
-7.930E-06,0.012
-7.920E-06,0.000
-7.910E-06,0.000
-7.900E-06,0.000
-7.890E-06,0.000
-7.880E-06,0.004
-7.870E-06,0.004
-7.860E-06,0.000
-7.850E-06,0.004
-7.840E-06,0.004
-7.830E-06,0.008
-7.820E-06,0.008
-7.810E-06,-0.004
-7.800E-06,0.000
-7.790E-06,0.004
-7.780E-06,0.000
-7.770E-06,0.000
-7.760E-06,0.004
-7.750E-06,0.012
-7.740E-06,0.008
-7.730E-06,0.000
-7.720E-06,0.004
-7.710E-06,0.000
-7.700E-06,0.004
-7.690E-06,0.000
-7.680E-06,0.000
-7.670E-06,0.004
-7.660E-06,0.008
-7.650E-06,-0.004
-7.640E-06,0.004
-7.630E-06,-0.004
-7.620E-06,0.000
-7.610E-06,0.000
-7.600E-06,0.004
-7.590E-06,0.004
-7.580E-06,0.008
-7.570E-06,0.004
-7.560E-06,-0.004
-7.550E-06,0.004
-7.540E-06,0.008
-7.530E-06,0.004
-7.520E-06,0.004
-7.510E-06,0.004
-7.500E-06,-0.004
-7.490E-06,0.000
-7.480E-06,0.008
-7.470E-06,0.008
-7.460E-06,0.004
-7.450E-06,0.004
-7.440E-06,0.004
-7.430E-06,0.000
-7.420E-06,0.000
-7.410E-06,0.008
-7.400E-06,0.004
-7.390E-06,0.008
-7.380E-06,0.000
-7.370E-06,0.000
-7.360E-06,-0.004
-7.350E-06,0.004
-7.340E-06,0.000
-7.330E-06,0.008
-7.320E-06,0.000
-7.310E-06,0.000
-7.300E-06,0.000
-7.290E-06,-0.004
-7.280E-06,-0.004
-7.270E-06,0.008
-7.260E-06,0.004
-7.250E-06,0.000
-7.240E-06,0.004
-7.230E-06,-0.004
-7.220E-06,-0.004
-7.210E-06,0.004
-7.200E-06,0.004
-7.190E-06,0.004
-7.180E-06,0.000
-7.170E-06,0.000
-7.160E-06,0.000
-7.150E-06,0.000
-7.140E-06,0.008
-7.130E-06,0.000
-7.120E-06,-0.004
-7.110E-06,0.000
-7.100E-06,-0.008
-7.090E-06,0.000
-7.080E-06,-0.004
-7.070E-06,0.004
-7.060E-06,0.008
-7.050E-06,0.004
-7.040E-06,-0.004
-7.030E-06,0.000
-7.020E-06,0.000
-7.010E-06,0.004
-7.000E-06,0.008
-6.990E-06,0.012
-6.980E-06,0.008
-6.970E-06,0.004
-6.960E-06,0.004
-6.950E-06,0.004
-6.940E-06,0.008
-6.930E-06,0.008
-6.920E-06,0.000
-6.910E-06,0.000
-6.900E-06,0.000
-6.890E-06,0.004
-6.880E-06,0.008
-6.870E-06,0.004
-6.860E-06,0.008
-6.850E-06,0.000
-6.840E-06,0.000
-6.830E-06,0.000
-6.820E-06,0.004
-6.810E-06,0.004
-6.800E-06,0.004
-6.790E-06,0.012
-6.780E-06,0.000
-6.770E-06,0.000
-6.760E-06,-0.004
-6.750E-06,0.004
-6.740E-06,0.004
-6.730E-06,0.012
-6.720E-06,0.000
-6.710E-06,-0.004
-6.700E-06,0.000
-6.690E-06,0.000
-6.680E-06,0.004
-6.670E-06,0.004
-6.660E-06,0.004
-6.650E-06,0.004
-6.640E-06,0.004
-6.630E-06,0.000
-6.620E-06,-0.004
-6.610E-06,0.000
-6.600E-06,-0.004
-6.590E-06,0.008
-6.580E-06,0.004
-6.570E-06,0.004
-6.560E-06,0.000
-6.550E-06,0.004
-6.540E-06,0.008
-6.530E-06,0.004
-6.520E-06,0.000
-6.510E-06,0.000
-6.500E-06,0.004
-6.490E-06,0.000
-6.480E-06,0.000
-6.470E-06,0.000
-6.460E-06,-0.004
-6.450E-06,0.004
-6.440E-06,0.004
-6.430E-06,0.004
-6.420E-06,0.000
-6.410E-06,0.004
-6.400E-06,0.004
-6.390E-06,0.004
-6.380E-06,0.004
-6.370E-06,0.004
-6.360E-06,0.004
-6.350E-06,0.004
-6.340E-06,0.008
-6.330E-06,0.012
-6.320E-06,0.008
-6.310E-06,0.004
-6.300E-06,0.004
-6.290E-06,0.004
-6.280E-06,0.004
-6.270E-06,0.000
-6.260E-06,0.004
-6.250E-06,0.008
-6.240E-06,0.004
-6.230E-06,0.000
-6.220E-06,0.004
-6.210E-06,-0.008
-6.200E-06,-0.004
-6.190E-06,0.008
-6.180E-06,0.008
-6.170E-06,0.008
-6.160E-06,0.008
-6.150E-06,0.000
-6.140E-06,0.000
-6.130E-06,0.000
-6.120E-06,0.004
-6.110E-06,0.000
-6.100E-06,0.004
-6.090E-06,0.004
-6.080E-06,0.004
-6.070E-06,0.000
-6.060E-06,-0.004
-6.050E-06,0.004
-6.040E-06,0.008
-6.030E-06,0.008
-6.020E-06,0.000
-6.010E-06,-0.004
-6.000E-06,0.004
-5.990E-06,0.000
-5.980E-06,0.000
-5.970E-06,0.004
-5.960E-06,0.000
-5.950E-06,0.000
-5.940E-06,-0.004
-5.930E-06,0.004
-5.920E-06,0.008
-5.910E-06,0.000
-5.900E-06,0.000
-5.890E-06,0.000
-5.880E-06,0.008
-5.870E-06,0.004
-5.860E-06,-0.004
-5.850E-06,0.000
-5.840E-06,0.004
-5.830E-06,0.000
-5.820E-06,0.000
-5.810E-06,0.004
-5.800E-06,-0.004
-5.790E-06,0.004
-5.780E-06,0.012
-5.770E-06,0.004
-5.760E-06,-0.004
-5.750E-06,0.000
-5.740E-06,0.000
-5.730E-06,0.004
-5.720E-06,0.008
-5.710E-06,0.008
-5.700E-06,0.004
-5.690E-06,0.000
-5.680E-06,-0.008
-5.670E-06,-0.004
-5.660E-06,0.004
-5.650E-06,0.008
-5.640E-06,0.004
-5.630E-06,0.000
-5.620E-06,0.000
-5.610E-06,-0.004
-5.600E-06,0.000
-5.590E-06,0.000
-5.580E-06,0.004
-5.570E-06,0.008
-5.560E-06,0.004
-5.550E-06,-0.004
-5.540E-06,0.000
-5.530E-06,-0.004
-5.520E-06,0.008
-5.510E-06,0.004
-5.500E-06,0.004
-5.490E-06,0.004
-5.480E-06,0.000
-5.470E-06,-0.004
-5.460E-06,-0.004
-5.450E-06,0.000
-5.440E-06,0.000
-5.430E-06,0.004
-5.420E-06,0.016
-5.410E-06,0.008
-5.400E-06,0.004
-5.390E-06,0.000
-5.380E-06,-0.012
-5.370E-06,-0.012
-5.360E-06,-0.008
-5.350E-06,0.008
-5.340E-06,0.012
-5.330E-06,0.012
-5.320E-06,0.012
-5.310E-06,-0.012
-5.300E-06,-0.004
-5.290E-06,0.000
-5.280E-06,0.008
-5.270E-06,0.016
-5.260E-06,0.012
-5.250E-06,-0.004
-5.240E-06,-0.008
-5.230E-06,-0.004
-5.220E-06,-0.004
-5.210E-06,0.008
-5.200E-06,0.008
-5.190E-06,0.012
-5.180E-06,0.008
-5.170E-06,0.000
-5.160E-06,-0.008
-5.150E-06,-0.008
-5.140E-06,0.012
-5.130E-06,0.016
-5.120E-06,0.004
-5.110E-06,0.000
-5.100E-06,-0.004
-5.090E-06,-0.004
-5.080E-06,0.000
-5.070E-06,0.004
-5.060E-06,0.008
-5.050E-06,0.008
-5.040E-06,0.004
-5.030E-06,0.000
-5.020E-06,0.000
-5.010E-06,-0.008
-5.000E-06,0.008
-4.990E-06,0.000
-4.980E-06,0.000
-4.970E-06,0.000
-4.960E-06,-0.004
-4.950E-06,0.004
-4.940E-06,0.004
-4.930E-06,0.004
-4.920E-06,0.000
-4.910E-06,0.000
-4.900E-06,0.000
-4.890E-06,0.000
-4.880E-06,0.004
-4.870E-06,0.008
-4.860E-06,0.008
-4.850E-06,0.004
-4.840E-06,0.000
-4.830E-06,0.004
-4.820E-06,-0.004
-4.810E-06,-0.004
-4.800E-06,0.008
-4.790E-06,0.008
-4.780E-06,0.008
-4.770E-06,0.000
-4.760E-06,0.008
-4.750E-06,0.012
-4.740E-06,0.008
-4.730E-06,-0.004
-4.720E-06,0.004
-4.710E-06,0.000
-4.700E-06,0.004
-4.690E-06,0.004
-4.680E-06,0.008
-4.670E-06,0.008
-4.660E-06,0.008
-4.650E-06,0.008
-4.640E-06,0.008
-4.630E-06,0.008
-4.620E-06,0.004
-4.610E-06,0.008
-4.600E-06,0.000
-4.590E-06,0.004
-4.580E-06,0.000
-4.570E-06,0.000
-4.560E-06,0.004
-4.550E-06,0.004
-4.540E-06,0.004
-4.530E-06,-0.008
-4.520E-06,0.004
-4.510E-06,-0.004
-4.500E-06,0.004
-4.490E-06,0.008
-4.480E-06,0.012
-4.470E-06,0.008
-4.460E-06,0.004
-4.450E-06,0.004
-4.440E-06,0.000
-4.430E-06,0.000
-4.420E-06,0.004
-4.410E-06,0.016
-4.400E-06,0.016
-4.390E-06,0.012
-4.380E-06,0.004
-4.370E-06,-0.008
-4.360E-06,-0.016
-4.350E-06,-0.020
-4.340E-06,0.008
-4.330E-06,0.024
-4.320E-06,0.020
-4.310E-06,0.016
-4.300E-06,0.012
-4.290E-06,-0.008
-4.280E-06,-0.012
-4.270E-06,-0.008
-4.260E-06,0.000
-4.250E-06,0.004
-4.240E-06,0.008
-4.230E-06,0.004
-4.220E-06,-0.004
-4.210E-06,-0.004
-4.200E-06,-0.008
-4.190E-06,0.004
-4.180E-06,0.008
-4.170E-06,0.000
-4.160E-06,0.004
-4.150E-06,0.000
-4.140E-06,0.004
-4.130E-06,0.000
-4.120E-06,0.000
-4.110E-06,-0.004
-4.100E-06,0.000
-4.090E-06,-0.004
-4.080E-06,0.000
-4.070E-06,0.004
-4.060E-06,0.008
-4.050E-06,0.004
-4.040E-06,0.008
-4.030E-06,0.004
-4.020E-06,0.004
-4.010E-06,0.004
-4.000E-06,0.008
-3.990E-06,0.000
-3.980E-06,0.004
-3.970E-06,0.004
-3.960E-06,-0.004
-3.950E-06,0.000
-3.940E-06,0.004
-3.930E-06,0.000
-3.920E-06,0.004
-3.910E-06,0.008
-3.900E-06,0.004
-3.890E-06,0.000
-3.880E-06,0.000
-3.870E-06,0.004
-3.860E-06,-0.004
-3.850E-06,0.004
-3.840E-06,0.004
-3.830E-06,0.008
-3.820E-06,0.012
-3.810E-06,0.004
-3.800E-06,0.008
-3.790E-06,0.004
-3.780E-06,0.004
-3.770E-06,0.012
-3.760E-06,0.012
-3.750E-06,0.004
-3.740E-06,0.008
-3.730E-06,0.008
-3.720E-06,0.004
-3.710E-06,0.008
-3.700E-06,0.008
-3.690E-06,0.012
-3.680E-06,0.000
-3.670E-06,-0.004
-3.660E-06,-0.004
-3.650E-06,-0.008
-3.640E-06,0.000
-3.630E-06,0.008
-3.620E-06,0.016
-3.610E-06,0.028
-3.600E-06,0.016
-3.590E-06,0.012
-3.580E-06,0.000
-3.570E-06,0.000
-3.560E-06,0.000
-3.550E-06,0.008
-3.540E-06,0.016
-3.530E-06,0.020
-3.520E-06,0.024
-3.510E-06,0.012
-3.500E-06,0.000
-3.490E-06,-0.004
-3.480E-06,0.016
-3.470E-06,0.028
-3.460E-06,0.016
-3.450E-06,0.004
-3.440E-06,-0.008
-3.430E-06,-0.012
-3.420E-06,-0.008
-3.410E-06,-0.004
-3.400E-06,0.012
-3.390E-06,0.020
-3.380E-06,0.024
-3.370E-06,0.016
-3.360E-06,0.008
-3.350E-06,-0.008
-3.340E-06,-0.036
-3.330E-06,-0.032
-3.320E-06,-0.020
-3.310E-06,-0.004
-3.300E-06,0.020
-3.290E-06,0.020
-3.280E-06,0.020
-3.270E-06,0.012
-3.260E-06,0.000
-3.250E-06,-0.004
-3.240E-06,0.004
-3.230E-06,0.020
-3.220E-06,0.016
-3.210E-06,0.016
-3.200E-06,0.012
-3.190E-06,0.008
-3.180E-06,-0.016
-3.170E-06,-0.032
-3.160E-06,-0.016
-3.150E-06,0.000
-3.140E-06,0.012
-3.130E-06,0.008
-3.120E-06,0.012
-3.110E-06,0.000
-3.100E-06,0.000
-3.090E-06,-0.008
-3.080E-06,-0.004
-3.070E-06,0.000
-3.060E-06,0.008
-3.050E-06,0.008
-3.040E-06,0.012
-3.030E-06,0.016
-3.020E-06,0.012
-3.010E-06,0.008
-3.000E-06,0.008
-2.990E-06,0.000
-2.980E-06,0.012
-2.970E-06,0.028
-2.960E-06,0.016
-2.950E-06,0.004
-2.940E-06,-0.004
-2.930E-06,-0.024
-2.920E-06,-0.012
-2.910E-06,0.000
-2.900E-06,0.012
-2.890E-06,0.020
-2.880E-06,0.028
-2.870E-06,0.016
-2.860E-06,0.000
-2.850E-06,-0.008
-2.840E-06,-0.008
-2.830E-06,0.008
-2.820E-06,0.028
-2.810E-06,0.040
-2.800E-06,0.016
-2.790E-06,0.000
-2.780E-06,-0.016
-2.770E-06,-0.020
-2.760E-06,0.004
-2.750E-06,0.028
-2.740E-06,0.036
-2.730E-06,0.012
-2.720E-06,-0.012
-2.710E-06,-0.028
-2.700E-06,-0.024
-2.690E-06,-0.008
-2.680E-06,0.028
-2.670E-06,0.052
-2.660E-06,0.056
-2.650E-06,0.020
-2.640E-06,-0.032
-2.630E-06,-0.072
-2.620E-06,-0.076
-2.610E-06,-0.036
-2.600E-06,-0.004
-2.590E-06,0.028
-2.580E-06,0.028
-2.570E-06,0.024
-2.560E-06,-0.004
-2.550E-06,-0.024
-2.540E-06,-0.032
-2.530E-06,-0.008
-2.520E-06,0.020
-2.510E-06,0.036
-2.500E-06,0.036
-2.490E-06,0.024
-2.480E-06,-0.004
-2.470E-06,-0.024
-2.460E-06,-0.040
-2.450E-06,-0.036
-2.440E-06,0.000
-2.430E-06,0.008
-2.420E-06,0.012
-2.410E-06,0.020
-2.400E-06,0.004
-2.390E-06,-0.012
-2.380E-06,-0.020
-2.370E-06,-0.020
-2.360E-06,-0.012
-2.350E-06,0.020
-2.340E-06,0.028
-2.330E-06,0.024
-2.320E-06,0.004
-2.310E-06,-0.008
-2.300E-06,-0.024
-2.290E-06,-0.012
-2.280E-06,0.004
-2.270E-06,0.020
-2.260E-06,0.028
-2.250E-06,0.016
-2.240E-06,0.000
-2.230E-06,-0.008
-2.220E-06,-0.004
-2.210E-06,0.000
-2.200E-06,0.016
-2.190E-06,0.016
-2.180E-06,0.020
-2.170E-06,0.024
-2.160E-06,0.008
-2.150E-06,0.008
-2.140E-06,0.024
-2.130E-06,0.036
-2.120E-06,0.044
-2.110E-06,0.036
-2.100E-06,-0.020
-2.090E-06,-0.068
-2.080E-06,-0.080
-2.070E-06,-0.056
-2.060E-06,0.008
-2.050E-06,0.076
-2.040E-06,0.096
-2.030E-06,0.056
-2.020E-06,0.000
-2.010E-06,-0.060
-2.000E-06,-0.084
-1.990E-06,-0.044
-1.980E-06,0.012
-1.970E-06,0.060
-1.960E-06,0.072
-1.950E-06,0.040
-1.940E-06,-0.008
-1.930E-06,-0.044
-1.920E-06,-0.040
-1.910E-06,-0.020
-1.900E-06,0.012
-1.890E-06,0.040
-1.880E-06,0.036
-1.870E-06,0.016
-1.860E-06,-0.004
-1.850E-06,-0.008
-1.840E-06,-0.004
-1.830E-06,0.000
-1.820E-06,0.008
-1.810E-06,0.024
-1.800E-06,0.016
-1.790E-06,0.020
-1.780E-06,0.012
-1.770E-06,0.008
-1.760E-06,-0.004
-1.750E-06,-0.004
-1.740E-06,0.004
-1.730E-06,0.012
-1.720E-06,0.008
-1.710E-06,0.008
-1.700E-06,0.016
-1.690E-06,0.012
-1.680E-06,0.008
-1.670E-06,0.008
-1.660E-06,0.016
-1.650E-06,0.024
-1.640E-06,0.024
-1.630E-06,0.020
-1.620E-06,0.024
-1.610E-06,0.012
-1.600E-06,-0.008
-1.590E-06,0.004
-1.580E-06,0.012
-1.570E-06,0.012
-1.560E-06,0.024
-1.550E-06,0.028
-1.540E-06,0.028
-1.530E-06,0.024
-1.520E-06,0.008
-1.510E-06,0.000
-1.500E-06,-0.012
-1.490E-06,-0.004
-1.480E-06,0.004
-1.470E-06,0.024
-1.460E-06,0.036
-1.450E-06,0.032
-1.440E-06,0.024
-1.430E-06,0.004
-1.420E-06,-0.004
-1.410E-06,-0.004
-1.400E-06,0.004
-1.390E-06,0.020
-1.380E-06,0.028
-1.370E-06,0.028
-1.360E-06,0.004
-1.350E-06,-0.004
-1.340E-06,-0.016
-1.330E-06,-0.024
-1.320E-06,-0.024
-1.310E-06,0.000
-1.300E-06,0.012
-1.290E-06,0.020
-1.280E-06,0.016
-1.270E-06,-0.020
-1.260E-06,-0.032
-1.250E-06,-0.052
-1.240E-06,-0.036
-1.230E-06,-0.012
-1.220E-06,0.000
-1.210E-06,0.008
-1.200E-06,0.004
-1.190E-06,-0.008
-1.180E-06,-0.016
-1.170E-06,-0.008
-1.160E-06,-0.004
-1.150E-06,0.016
-1.140E-06,0.028
-1.130E-06,0.028
-1.120E-06,0.020
-1.110E-06,0.012
-1.100E-06,0.016
-1.090E-06,0.028
-1.080E-06,0.044
-1.070E-06,0.060
-1.060E-06,0.032
-1.050E-06,0.008
-1.040E-06,-0.008
-1.030E-06,-0.008
-1.020E-06,0.012
-1.010E-06,0.020
-1.000E-06,0.008
-9.900E-07,-0.004
-9.800E-07,-0.016
-9.700E-07,-0.024
-9.600E-07,0.000
-9.500E-07,0.024
-9.400E-07,0.040
-9.300E-07,0.036
-9.200E-07,0.028
-9.100E-07,0.008
-9.000E-07,0.000
-8.900E-07,0.004
-8.800E-07,0.024
-8.700E-07,0.044
-8.600E-07,0.052
-8.500E-07,0.060
-8.400E-07,0.052
-8.300E-07,0.048
-8.200E-07,0.024
-8.100E-07,0.008
-8.000E-07,0.016
-7.900E-07,0.008
-7.800E-07,0.016
-7.700E-07,0.012
-7.600E-07,0.012
-7.500E-07,0.000
-7.400E-07,-0.004
-7.300E-07,-0.008
-7.200E-07,-0.008
-7.100E-07,-0.004
-7.000E-07,0.012
-6.900E-07,0.040
-6.800E-07,0.056
-6.700E-07,0.052
-6.600E-07,0.024
-6.500E-07,-0.008
-6.400E-07,-0.052
-6.300E-07,-0.052
-6.200E-07,-0.040
-6.100E-07,-0.024
-6.000E-07,-0.004
-5.900E-07,0.008
-5.800E-07,-0.004
-5.700E-07,-0.020
-5.600E-07,-0.028
-5.500E-07,-0.012
-5.400E-07,0.000
-5.300E-07,0.024
-5.200E-07,0.020
-5.100E-07,0.012
-5.000E-07,0.004
-4.900E-07,0.000
-4.800E-07,0.000
-4.700E-07,0.008
-4.600E-07,0.032
-4.500E-07,0.032
-4.400E-07,0.040
-4.300E-07,0.036
-4.200E-07,0.028
-4.100E-07,0.028
-4.000E-07,0.032
-3.900E-07,0.048
-3.800E-07,0.056
-3.700E-07,0.060
-3.600E-07,0.060
-3.500E-07,0.056
-3.400E-07,0.052
-3.300E-07,0.056
-3.200E-07,0.056
-3.100E-07,0.068
-3.000E-07,0.076
-2.900E-07,0.076
-2.800E-07,0.064
-2.700E-07,0.060
-2.600E-07,0.056
-2.500E-07,0.056
-2.400E-07,0.056
-2.300E-07,0.068
-2.200E-07,0.072
-2.100E-07,0.076
-2.000E-07,0.088
-1.900E-07,0.064
-1.800E-07,0.052
-1.700E-07,0.032
-1.600E-07,0.028
-1.500E-07,0.036
-1.400E-07,0.056
-1.300E-07,0.028
-1.200E-07,0.028
-1.100E-07,0.008
-1.000E-07,0.040
-9.000E-08,0.080
-8.000E-08,0.096
-7.000E-08,-0.024
-6.000E-08,-0.316
-5.000E-08,-0.512
-4.000E-08,-0.512
-3.000E-08,-0.484
-2.000E-08,-0.248
-1.000E-08,0.040
0.000E+00,0.360
1.000E-08,0.420
2.000E-08,0.260
3.000E-08,-0.140
4.000E-08,-0.384
5.000E-08,-0.424
6.000E-08,-0.200
7.000E-08,0.028
8.000E-08,0.300
9.000E-08,0.336
1.000E-07,0.192
1.100E-07,-0.008
1.200E-07,-0.240
1.300E-07,-0.296
1.400E-07,-0.176
1.500E-07,0.004
1.600E-07,0.160
1.700E-07,0.244
1.800E-07,0.164
1.900E-07,0.024
2.000E-07,-0.120
2.100E-07,-0.172
2.200E-07,-0.144
2.300E-07,-0.028
2.400E-07,0.088
2.500E-07,0.140
2.600E-07,0.140
2.700E-07,0.060
2.800E-07,-0.024
2.900E-07,-0.088
3.000E-07,-0.088
3.100E-07,-0.040
3.200E-07,0.032
3.300E-07,0.092
3.400E-07,0.108
3.500E-07,0.076
3.600E-07,0.020
3.700E-07,-0.028
3.800E-07,-0.040
3.900E-07,-0.016
4.000E-07,0.020
4.100E-07,0.076
4.200E-07,0.092
4.300E-07,0.092
4.400E-07,0.072
4.500E-07,0.060
4.600E-07,0.064
4.700E-07,0.088
4.800E-07,0.112
4.900E-07,0.132
5.000E-07,0.136
5.100E-07,0.140
5.200E-07,0.144
5.300E-07,0.156
5.400E-07,0.152
5.500E-07,0.156
5.600E-07,0.140
5.700E-07,0.132
5.800E-07,0.120
5.900E-07,0.120
6.000E-07,0.124
6.100E-07,0.136
6.200E-07,0.144
6.300E-07,0.136
6.400E-07,0.120
6.500E-07,0.088
6.600E-07,0.076
6.700E-07,0.076
6.800E-07,0.068
6.900E-07,0.072
7.000E-07,0.068
7.100E-07,0.084
7.200E-07,0.084
7.300E-07,0.096
7.400E-07,0.088
7.500E-07,0.108
7.600E-07,0.148
7.700E-07,0.112
7.800E-07,0.076
7.900E-07,0.064
8.000E-07,-0.068
8.100E-07,-0.200
8.200E-07,-0.304
8.300E-07,-0.224
8.400E-07,-0.072
8.500E-07,-0.044
8.600E-07,-0.268
8.700E-07,-0.512
8.800E-07,-0.508
8.900E-07,-0.512
9.000E-07,-0.468
9.100E-07,-0.032
9.200E-07,0.340
9.300E-07,0.528
9.400E-07,0.372
9.500E-07,-0.016
9.600E-07,-0.416
9.700E-07,-0.488
9.800E-07,-0.324
9.900E-07,0.024
1.000E-06,0.308
1.010E-06,0.420
1.020E-06,0.308
1.030E-06,0.052
1.040E-06,-0.204
1.050E-06,-0.324
1.060E-06,-0.216
1.070E-06,-0.028
1.080E-06,0.172
1.090E-06,0.260
1.100E-06,0.220
1.110E-06,0.084
1.120E-06,-0.076
1.130E-06,-0.164
1.140E-06,-0.148
1.150E-06,-0.028
1.160E-06,0.096
1.170E-06,0.176
1.180E-06,0.184
1.190E-06,0.100
1.200E-06,0.004
1.210E-06,-0.080
1.220E-06,-0.076
1.230E-06,-0.028
1.240E-06,0.044
1.250E-06,0.128
1.260E-06,0.160
1.270E-06,0.136
1.280E-06,0.088
1.290E-06,0.040
1.300E-06,0.012
1.310E-06,0.044
1.320E-06,0.108
1.330E-06,0.164
1.340E-06,0.212
1.350E-06,0.224
1.360E-06,0.196
1.370E-06,0.156
1.380E-06,0.132
1.390E-06,0.128
1.400E-06,0.144
1.410E-06,0.168
1.420E-06,0.180
1.430E-06,0.184
1.440E-06,0.180
1.450E-06,0.168
1.460E-06,0.160
1.470E-06,0.156
1.480E-06,0.152
1.490E-06,0.160
1.500E-06,0.160
1.510E-06,0.136
1.520E-06,0.124
1.530E-06,0.124
1.540E-06,0.128
1.550E-06,0.128
1.560E-06,0.140
1.570E-06,0.132
1.580E-06,0.140
1.590E-06,0.088
1.600E-06,-0.084
1.610E-06,-0.424
1.620E-06,-0.512
1.630E-06,-0.512
1.640E-06,-0.508
1.650E-06,-0.508
1.660E-06,-0.204
1.670E-06,0.320
1.680E-06,0.540
1.690E-06,0.540
1.700E-06,0.152
1.710E-06,-0.376
1.720E-06,-0.512
1.730E-06,-0.512
1.740E-06,-0.396
1.750E-06,0.176
1.760E-06,0.544
1.770E-06,0.544
1.780E-06,0.356
1.790E-06,-0.080
1.800E-06,-0.468
1.810E-06,-0.504
1.820E-06,-0.280
1.830E-06,0.056
1.840E-06,0.364
1.850E-06,0.448
1.860E-06,0.300
1.870E-06,0.028
1.880E-06,-0.180
1.890E-06,-0.232
1.900E-06,-0.104
1.910E-06,0.112
1.920E-06,0.224
1.930E-06,0.232
1.940E-06,0.152
1.950E-06,0.012
1.960E-06,-0.100
1.970E-06,-0.100
1.980E-06,-0.012
1.990E-06,0.112
2.000E-06,0.224
2.010E-06,0.240
2.020E-06,0.200
2.030E-06,0.124
2.040E-06,0.052
2.050E-06,0.016
2.060E-06,0.044
2.070E-06,0.112
2.080E-06,0.188
2.090E-06,0.244
2.100E-06,0.256
2.110E-06,0.224
2.120E-06,0.168
2.130E-06,0.120
2.140E-06,0.088
2.150E-06,0.100
2.160E-06,0.144
2.170E-06,0.204
2.180E-06,0.244
2.190E-06,0.236
2.200E-06,0.176
2.210E-06,0.092
2.220E-06,0.008
2.230E-06,-0.040
2.240E-06,0.008
2.250E-06,0.084
2.260E-06,0.136
2.270E-06,0.160
2.280E-06,0.136
2.290E-06,0.084
2.300E-06,0.044
2.310E-06,0.072
2.320E-06,0.144
2.330E-06,0.220
2.340E-06,0.252
2.350E-06,0.220
2.360E-06,0.120
2.370E-06,-0.004
2.380E-06,-0.084
2.390E-06,-0.084
2.400E-06,-0.052
2.410E-06,-0.120
2.420E-06,-0.240
2.430E-06,-0.400
2.440E-06,-0.504
2.450E-06,-0.508
2.460E-06,-0.424
2.470E-06,-0.260
2.480E-06,-0.108
2.490E-06,0.004
2.500E-06,0.052
2.510E-06,0.020
2.520E-06,-0.064
2.530E-06,-0.108
2.540E-06,-0.048
2.550E-06,-0.020
2.560E-06,0.012
2.570E-06,0.028
2.580E-06,0.036
2.590E-06,0.060
2.600E-06,0.056
2.610E-06,0.040
2.620E-06,0.068
2.630E-06,0.120
2.640E-06,0.168
2.650E-06,0.192
2.660E-06,0.216
2.670E-06,0.204
2.680E-06,0.184
2.690E-06,0.160
2.700E-06,0.140
2.710E-06,0.144
2.720E-06,0.164
2.730E-06,0.192
2.740E-06,0.204
2.750E-06,0.212
2.760E-06,0.192
2.770E-06,0.184
2.780E-06,0.172
2.790E-06,0.160
2.800E-06,0.176
2.810E-06,0.192
2.820E-06,0.200
2.830E-06,0.196
2.840E-06,0.192
2.850E-06,0.180
2.860E-06,0.168
2.870E-06,0.164
2.880E-06,0.164
2.890E-06,0.164
2.900E-06,0.160
2.910E-06,0.160
2.920E-06,0.152
2.930E-06,0.160
2.940E-06,0.156
2.950E-06,0.156
2.960E-06,0.156
2.970E-06,0.140
2.980E-06,0.152
2.990E-06,0.156
3.000E-06,0.180
3.010E-06,0.188
3.020E-06,0.192
3.030E-06,0.176
3.040E-06,0.140
3.050E-06,0.124
3.060E-06,0.120
3.070E-06,0.132
3.080E-06,0.164
3.090E-06,0.192
3.100E-06,0.196
3.110E-06,0.180
3.120E-06,0.164
3.130E-06,0.140
3.140E-06,0.136
3.150E-06,0.152
3.160E-06,0.180
3.170E-06,0.200
3.180E-06,0.208
3.190E-06,0.192
3.200E-06,0.172
3.210E-06,0.160
3.220E-06,0.152
3.230E-06,0.156
3.240E-06,0.172
3.250E-06,0.192
3.260E-06,0.192
3.270E-06,0.184
3.280E-06,0.172
3.290E-06,0.156
3.300E-06,0.152
3.310E-06,0.160
3.320E-06,0.164
3.330E-06,0.184
3.340E-06,0.184
3.350E-06,0.184
3.360E-06,0.172
