mediciones/mediciones removidas por ser diferentes/-64.25/WaveData47612.csv

#timebase=2000000(ps)
,#voltbase=100000(mv/100)
#size=4000
-8.400E-06,-0.004
-8.390E-06,0.008
-8.380E-06,0.016
-8.370E-06,0.020
-8.360E-06,0.016
-8.350E-06,0.000
-8.340E-06,-0.020
-8.330E-06,-0.016
-8.320E-06,-0.004
-8.310E-06,0.016
-8.300E-06,0.028
-8.290E-06,0.020
-8.280E-06,0.008
-8.270E-06,-0.004
-8.260E-06,-0.024
-8.250E-06,-0.016
-8.240E-06,0.004
-8.230E-06,0.012
-8.220E-06,0.016
-8.210E-06,0.020
-8.200E-06,-0.004
-8.190E-06,-0.028
-8.180E-06,-0.024
-8.170E-06,0.004
-8.160E-06,0.036
-8.150E-06,0.064
-8.140E-06,0.044
-8.130E-06,-0.020
-8.120E-06,-0.072
-8.110E-06,-0.068
-8.100E-06,-0.024
-8.090E-06,0.032
-8.080E-06,0.072
-8.070E-06,0.056
-8.060E-06,0.004
-8.050E-06,-0.032
-8.040E-06,-0.056
-8.030E-06,-0.036
-8.020E-06,0.016
-8.010E-06,0.056
-8.000E-06,0.044
-7.990E-06,0.016
-7.980E-06,-0.008
-7.970E-06,-0.028
-7.960E-06,-0.020
-7.950E-06,0.004
-7.940E-06,0.020
-7.930E-06,0.032
-7.920E-06,0.020
-7.910E-06,0.008
-7.900E-06,-0.008
-7.890E-06,-0.004
-7.880E-06,0.000
-7.870E-06,0.000
-7.860E-06,0.008
-7.850E-06,0.012
-7.840E-06,0.012
-7.830E-06,0.008
-7.820E-06,0.000
-7.810E-06,-0.008
-7.800E-06,-0.008
-7.790E-06,0.000
-7.780E-06,0.008
-7.770E-06,0.020
-7.760E-06,0.020
-7.750E-06,0.016
-7.740E-06,0.000
-7.730E-06,-0.008
-7.720E-06,-0.012
-7.710E-06,-0.004
-7.700E-06,0.012
-7.690E-06,0.032
-7.680E-06,0.032
-7.670E-06,0.020
-7.660E-06,0.024
-7.650E-06,0.008
-7.640E-06,0.024
-7.630E-06,0.032
-7.620E-06,0.036
-7.610E-06,-0.024
-7.600E-06,-0.056
-7.590E-06,-0.072
-7.580E-06,-0.072
-7.570E-06,0.000
-7.560E-06,0.060
-7.550E-06,0.096
-7.540E-06,0.076
-7.530E-06,0.044
-7.520E-06,-0.024
-7.510E-06,-0.068
-7.500E-06,-0.068
-7.490E-06,-0.036
-7.480E-06,-0.040
-7.470E-06,0.000
-7.460E-06,0.032
-7.450E-06,0.024
-7.440E-06,0.040
-7.430E-06,0.028
-7.420E-06,-0.008
-7.410E-06,-0.052
-7.400E-06,-0.048
-7.390E-06,-0.028
-7.380E-06,0.008
-7.370E-06,0.056
-7.360E-06,0.068
-7.350E-06,0.028
-7.340E-06,-0.020
-7.330E-06,-0.048
-7.320E-06,-0.044
-7.310E-06,-0.008
-7.300E-06,0.020
-7.290E-06,0.056
-7.280E-06,0.048
-7.270E-06,0.016
-7.260E-06,-0.016
-7.250E-06,-0.032
-7.240E-06,-0.028
-7.230E-06,-0.008
-7.220E-06,0.012
-7.210E-06,0.028
-7.200E-06,0.028
-7.190E-06,0.016
-7.180E-06,0.012
-7.170E-06,-0.004
-7.160E-06,-0.020
-7.150E-06,-0.020
-7.140E-06,-0.008
-7.130E-06,0.008
-7.120E-06,0.028
-7.110E-06,0.024
-7.100E-06,0.020
-7.090E-06,0.000
-7.080E-06,-0.008
-7.070E-06,-0.012
-7.060E-06,-0.004
-7.050E-06,0.008
-7.040E-06,0.024
-7.030E-06,0.024
-7.020E-06,0.016
-7.010E-06,0.008
-7.000E-06,-0.004
-6.990E-06,-0.004
-6.980E-06,0.004
-6.970E-06,0.016
-6.960E-06,0.024
-6.950E-06,0.028
-6.940E-06,0.024
-6.930E-06,0.020
-6.920E-06,0.020
-6.910E-06,0.032
-6.900E-06,0.032
-6.890E-06,0.016
-6.880E-06,-0.004
-6.870E-06,-0.052
-6.860E-06,-0.076
-6.850E-06,-0.072
-6.840E-06,-0.016
-6.830E-06,0.024
-6.820E-06,0.012
-6.810E-06,0.024
-6.800E-06,0.016
-6.790E-06,-0.024
-6.780E-06,0.004
-6.770E-06,0.024
-6.760E-06,-0.028
-6.750E-06,-0.040
-6.740E-06,-0.008
-6.730E-06,0.012
-6.720E-06,0.004
-6.710E-06,0.036
-6.700E-06,0.036
-6.690E-06,0.008
-6.680E-06,-0.036
-6.670E-06,-0.040
-6.660E-06,-0.028
-6.650E-06,0.016
-6.640E-06,0.052
-6.630E-06,0.060
-6.620E-06,0.024
-6.610E-06,-0.012
-6.600E-06,-0.036
-6.590E-06,-0.032
-6.580E-06,0.000
-6.570E-06,0.016
-6.560E-06,0.040
-6.550E-06,0.028
-6.540E-06,0.020
-6.530E-06,-0.004
-6.520E-06,-0.012
-6.510E-06,-0.016
-6.500E-06,-0.008
-6.490E-06,0.004
-6.480E-06,0.020
-6.470E-06,0.028
-6.460E-06,0.024
-6.450E-06,0.012
-6.440E-06,-0.008
-6.430E-06,-0.016
-6.420E-06,-0.016
-6.410E-06,-0.004
-6.400E-06,0.016
-6.390E-06,0.028
-6.380E-06,0.032
-6.370E-06,0.008
-6.360E-06,-0.008
-6.350E-06,-0.032
-6.340E-06,-0.016
-6.330E-06,-0.004
-6.320E-06,0.024
-6.310E-06,0.044
-6.300E-06,0.028
-6.290E-06,0.020
-6.280E-06,0.000
-6.270E-06,-0.004
-6.260E-06,0.004
-6.250E-06,0.036
-6.240E-06,0.060
-6.230E-06,0.104
-6.220E-06,0.084
-6.210E-06,-0.084
-6.200E-06,-0.140
-6.190E-06,-0.172
-6.180E-06,-0.128
-6.170E-06,0.036
-6.160E-06,0.188
-6.150E-06,0.208
-6.140E-06,0.084
-6.130E-06,-0.052
-6.120E-06,-0.164
-6.110E-06,-0.176
-6.100E-06,-0.060
-6.090E-06,0.088
-6.080E-06,0.152
-6.070E-06,0.132
-6.060E-06,0.048
-6.050E-06,-0.052
-6.040E-06,-0.104
-6.030E-06,-0.088
-6.020E-06,-0.024
-6.010E-06,0.048
-6.000E-06,0.092
-5.990E-06,0.076
-5.980E-06,-0.012
-5.970E-06,-0.056
-5.960E-06,-0.072
-5.950E-06,-0.048
-5.940E-06,0.024
-5.930E-06,0.064
-5.920E-06,0.056
-5.910E-06,0.008
-5.900E-06,-0.024
-5.890E-06,-0.044
-5.880E-06,-0.020
-5.870E-06,0.028
-5.860E-06,0.044
-5.850E-06,0.012
-5.840E-06,-0.012
-5.830E-06,-0.016
-5.820E-06,-0.008
-5.810E-06,0.012
-5.800E-06,0.048
-5.790E-06,0.044
-5.780E-06,0.028
-5.770E-06,0.008
-5.760E-06,0.008
-5.750E-06,0.000
-5.740E-06,-0.024
-5.730E-06,-0.040
-5.720E-06,-0.036
-5.710E-06,-0.004
-5.700E-06,0.048
-5.690E-06,0.076
-5.680E-06,0.056
-5.670E-06,0.004
-5.660E-06,-0.040
-5.650E-06,-0.072
-5.640E-06,-0.060
-5.630E-06,-0.012
-5.620E-06,0.060
-5.610E-06,0.088
-5.600E-06,0.060
-5.590E-06,0.012
-5.580E-06,-0.052
-5.570E-06,-0.080
-5.560E-06,-0.056
-5.550E-06,0.000
-5.540E-06,0.056
-5.530E-06,0.072
-5.520E-06,0.044
-5.510E-06,0.008
-5.500E-06,-0.024
-5.490E-06,-0.032
-5.480E-06,-0.004
-5.470E-06,0.024
-5.460E-06,0.032
-5.450E-06,0.028
-5.440E-06,0.008
-5.430E-06,0.000
-5.420E-06,0.004
-5.410E-06,0.020
-5.400E-06,0.024
-5.390E-06,0.016
-5.380E-06,0.012
-5.370E-06,0.008
-5.360E-06,0.016
-5.350E-06,-0.020
-5.340E-06,-0.032
-5.330E-06,-0.044
-5.320E-06,-0.012
-5.310E-06,0.028
-5.300E-06,0.028
-5.290E-06,0.020
-5.280E-06,0.012
-5.270E-06,0.016
-5.260E-06,-0.012
-5.250E-06,-0.004
-5.240E-06,0.016
-5.230E-06,0.016
-5.220E-06,0.000
-5.210E-06,0.000
-5.200E-06,0.000
-5.190E-06,-0.008
-5.180E-06,-0.016
-5.170E-06,-0.004
-5.160E-06,0.028
-5.150E-06,0.036
-5.140E-06,0.032
-5.130E-06,0.012
-5.120E-06,-0.016
-5.110E-06,-0.048
-5.100E-06,-0.032
-5.090E-06,0.008
-5.080E-06,0.048
-5.070E-06,0.068
-5.060E-06,0.076
-5.050E-06,0.056
-5.040E-06,-0.004
-5.030E-06,-0.044
-5.020E-06,-0.060
-5.010E-06,-0.036
-5.000E-06,0.032
-4.990E-06,0.088
-4.980E-06,0.112
-4.970E-06,0.080
-4.960E-06,0.008
-4.950E-06,-0.072
-4.940E-06,-0.104
-4.930E-06,-0.092
-4.920E-06,-0.024
-4.910E-06,0.064
-4.900E-06,0.124
-4.890E-06,0.096
-4.880E-06,0.012
-4.870E-06,-0.064
-4.860E-06,-0.104
-4.850E-06,-0.084
-4.840E-06,-0.004
-4.830E-06,0.112
-4.820E-06,0.172
-4.810E-06,0.108
-4.800E-06,-0.012
-4.790E-06,-0.160
-4.780E-06,-0.172
-4.770E-06,-0.172
-4.760E-06,-0.028
-4.750E-06,0.168
-4.740E-06,0.244
-4.730E-06,0.116
-4.720E-06,-0.076
-4.710E-06,-0.184
-4.700E-06,-0.160
-4.690E-06,0.008
-4.680E-06,0.164
-4.670E-06,0.252
-4.660E-06,0.064
-4.650E-06,-0.084
-4.640E-06,-0.144
-4.630E-06,-0.188
-4.620E-06,-0.124
-4.610E-06,0.012
-4.600E-06,0.128
-4.590E-06,0.124
-4.580E-06,0.044
-4.570E-06,-0.008
-4.560E-06,-0.056
-4.550E-06,-0.064
-4.540E-06,-0.036
-4.530E-06,-0.008
-4.520E-06,0.028
-4.510E-06,0.056
-4.500E-06,0.060
-4.490E-06,0.020
-4.480E-06,-0.024
-4.470E-06,-0.052
-4.460E-06,-0.044
-4.450E-06,-0.004
-4.440E-06,0.040
-4.430E-06,0.064
-4.420E-06,0.060
-4.410E-06,0.024
-4.400E-06,-0.016
-4.390E-06,-0.020
-4.380E-06,0.000
-4.370E-06,0.040
-4.360E-06,0.076
-4.350E-06,0.092
-4.340E-06,0.096
-4.330E-06,0.056
-4.320E-06,0.008
-4.310E-06,-0.072
-4.300E-06,-0.144
-4.290E-06,-0.140
-4.280E-06,-0.084
-4.270E-06,0.060
-4.260E-06,0.180
-4.250E-06,0.256
-4.240E-06,0.088
-4.230E-06,-0.292
-4.220E-06,-0.328
-4.210E-06,-0.288
-4.200E-06,-0.060
-4.190E-06,0.268
-4.180E-06,0.416
-4.170E-06,0.216
-4.160E-06,-0.120
-4.150E-06,-0.296
-4.140E-06,-0.312
-4.130E-06,-0.120
-4.120E-06,0.144
-4.110E-06,0.292
-4.100E-06,0.216
-4.090E-06,0.040
-4.080E-06,-0.124
-4.070E-06,-0.196
-4.060E-06,-0.160
-4.050E-06,-0.008
-4.040E-06,0.128
-4.030E-06,0.196
-4.020E-06,0.168
-4.010E-06,0.060
-4.000E-06,-0.064
-3.990E-06,-0.176
-3.980E-06,-0.180
-3.970E-06,-0.080
-3.960E-06,0.056
-3.950E-06,0.156
-3.940E-06,0.180
-3.930E-06,0.088
-3.920E-06,-0.068
-3.910E-06,-0.188
-3.900E-06,-0.172
-3.890E-06,-0.052
-3.880E-06,0.084
-3.870E-06,0.164
-3.860E-06,0.144
-3.850E-06,0.032
-3.840E-06,-0.088
-3.830E-06,-0.140
-3.820E-06,-0.108
-3.810E-06,-0.020
-3.800E-06,0.084
-3.790E-06,0.144
-3.780E-06,0.124
-3.770E-06,0.028
-3.760E-06,-0.056
-3.750E-06,-0.104
-3.740E-06,-0.096
-3.730E-06,-0.016
-3.720E-06,0.080
-3.710E-06,0.132
-3.700E-06,0.128
-3.690E-06,0.056
-3.680E-06,-0.028
-3.670E-06,-0.076
-3.660E-06,-0.052
-3.650E-06,0.000
-3.640E-06,0.088
-3.630E-06,0.124
-3.620E-06,0.036
-3.610E-06,-0.040
-3.600E-06,-0.140
-3.590E-06,-0.164
-3.580E-06,-0.056
-3.570E-06,0.076
-3.560E-06,0.136
-3.550E-06,0.088
-3.540E-06,0.028
-3.530E-06,-0.056
-3.520E-06,-0.084
-3.510E-06,-0.048
-3.500E-06,0.004
-3.490E-06,0.028
-3.480E-06,0.028
-3.470E-06,0.036
-3.460E-06,0.028
-3.450E-06,0.016
-3.440E-06,0.004
-3.430E-06,-0.008
-3.420E-06,-0.016
-3.410E-06,-0.004
-3.400E-06,0.024
-3.390E-06,0.060
-3.380E-06,0.096
-3.370E-06,0.096
-3.360E-06,0.060
-3.350E-06,-0.004
-3.340E-06,-0.068
-3.330E-06,-0.104
-3.320E-06,-0.080
-3.310E-06,-0.020
-3.300E-06,0.044
-3.290E-06,0.072
-3.280E-06,0.060
-3.270E-06,0.040
-3.260E-06,0.000
-3.250E-06,-0.040
-3.240E-06,-0.036
-3.230E-06,-0.016
-3.220E-06,0.020
-3.210E-06,0.064
-3.200E-06,0.088
-3.190E-06,0.072
-3.180E-06,0.036
-3.170E-06,0.000
-3.160E-06,-0.020
-3.150E-06,-0.040
-3.140E-06,0.004
-3.130E-06,0.076
-3.120E-06,0.144
-3.110E-06,0.156
-3.100E-06,0.120
-3.090E-06,0.008
-3.080E-06,-0.100
-3.070E-06,-0.124
-3.060E-06,-0.092
-3.050E-06,0.024
-3.040E-06,0.156
-3.030E-06,0.208
-3.020E-06,0.144
-3.010E-06,-0.004
-3.000E-06,-0.136
-2.990E-06,-0.292
-2.980E-06,-0.200
-2.970E-06,-0.336
-2.960E-06,-0.208
-2.950E-06,0.172
-2.940E-06,0.324
-2.930E-06,0.232
-2.920E-06,0.040
-2.910E-06,-0.104
-2.900E-06,-0.216
-2.890E-06,-0.220
-2.880E-06,-0.112
-2.870E-06,0.092
-2.860E-06,0.260
-2.850E-06,0.276
-2.840E-06,0.124
-2.830E-06,-0.108
-2.820E-06,-0.232
-2.810E-06,-0.200
-2.800E-06,0.000
-2.790E-06,0.180
-2.780E-06,0.260
-2.770E-06,0.172
-2.760E-06,-0.016
-2.750E-06,-0.220
-2.740E-06,-0.328
-2.730E-06,-0.240
-2.720E-06,-0.028
-2.710E-06,0.200
-2.700E-06,0.304
-2.690E-06,0.256
-2.680E-06,0.052
-2.670E-06,-0.164
-2.660E-06,-0.240
-2.650E-06,-0.172
-2.640E-06,0.004
-2.630E-06,0.192
-2.620E-06,0.260
-2.610E-06,0.188
-2.600E-06,0.028
-2.590E-06,-0.132
-2.580E-06,-0.208
-2.570E-06,-0.156
-2.560E-06,0.000
-2.550E-06,0.136
-2.540E-06,0.228
-2.530E-06,0.236
-2.520E-06,0.140
-2.510E-06,0.032
-2.500E-06,-0.036
-2.490E-06,-0.060
-2.480E-06,-0.056
-2.470E-06,-0.004
-2.460E-06,-0.004
-2.450E-06,-0.044
-2.440E-06,-0.116
-2.430E-06,-0.140
-2.420E-06,-0.088
-2.410E-06,-0.032
-2.400E-06,0.012
-2.390E-06,0.052
-2.380E-06,0.040
-2.370E-06,0.004
-2.360E-06,-0.016
-2.350E-06,-0.044
-2.340E-06,-0.060
-2.330E-06,-0.028
-2.320E-06,0.000
-2.310E-06,0.032
-2.300E-06,0.056
-2.290E-06,0.056
-2.280E-06,0.012
-2.270E-06,-0.008
-2.260E-06,-0.028
-2.250E-06,-0.008
-2.240E-06,0.036
-2.230E-06,0.076
-2.220E-06,0.104
-2.210E-06,0.108
-2.200E-06,0.100
-2.190E-06,0.076
-2.180E-06,0.044
-2.170E-06,0.024
-2.160E-06,0.020
-2.150E-06,0.004
-2.140E-06,0.024
-2.130E-06,0.044
-2.120E-06,0.040
-2.110E-06,0.024
-2.100E-06,-0.028
-2.090E-06,-0.052
-2.080E-06,-0.064
-2.070E-06,-0.040
-2.060E-06,0.012
-2.050E-06,0.040
-2.040E-06,0.060
-2.030E-06,0.072
-2.020E-06,0.052
-2.010E-06,0.032
-2.000E-06,0.020
-1.990E-06,0.020
-1.980E-06,0.064
-1.970E-06,0.112
-1.960E-06,0.148
-1.950E-06,0.160
-1.940E-06,0.172
-1.930E-06,0.140
-1.920E-06,0.112
-1.910E-06,0.088
-1.900E-06,0.064
-1.890E-06,0.076
-1.880E-06,0.084
-1.870E-06,0.048
-1.860E-06,0.004
-1.850E-06,-0.016
-1.840E-06,-0.068
-1.830E-06,-0.080
-1.820E-06,-0.064
-1.810E-06,-0.056
-1.800E-06,-0.052
-1.790E-06,-0.040
-1.780E-06,-0.012
-1.770E-06,0.016
-1.760E-06,0.084
-1.750E-06,0.076
-1.740E-06,0.064
-1.730E-06,0.032
-1.720E-06,-0.012
-1.710E-06,-0.040
-1.700E-06,-0.028
-1.690E-06,0.012
-1.680E-06,0.076
-1.670E-06,0.128
-1.660E-06,0.160
-1.650E-06,0.136
-1.640E-06,0.060
-1.630E-06,0.036
-1.620E-06,0.068
-1.610E-06,0.092
-1.600E-06,0.132
-1.590E-06,0.196
-1.580E-06,0.144
-1.570E-06,0.028
-1.560E-06,-0.180
-1.550E-06,-0.388
-1.540E-06,-0.468
-1.530E-06,-0.344
-1.520E-06,-0.052
-1.510E-06,0.248
-1.500E-06,0.384
-1.490E-06,0.316
-1.480E-06,0.100
-1.470E-06,-0.240
-1.460E-06,-0.452
-1.450E-06,-0.508
-1.440E-06,-0.400
-1.430E-06,-0.136
-1.420E-06,0.172
-1.410E-06,0.268
-1.400E-06,0.204
-1.390E-06,-0.004
-1.380E-06,-0.156
-1.370E-06,-0.180
-1.360E-06,-0.140
-1.350E-06,0.052
-1.340E-06,0.244
-1.330E-06,0.312
-1.320E-06,0.160
-1.310E-06,-0.052
-1.300E-06,-0.300
-1.290E-06,-0.408
-1.280E-06,-0.304
-1.270E-06,-0.064
-1.260E-06,0.192
-1.250E-06,0.296
-1.240E-06,0.224
-1.230E-06,0.012
-1.220E-06,-0.196
-1.210E-06,-0.304
-1.200E-06,-0.204
-1.190E-06,0.008
-1.180E-06,0.240
-1.170E-06,0.340
-1.160E-06,0.272
-1.150E-06,0.132
-1.140E-06,-0.028
-1.130E-06,-0.088
-1.120E-06,-0.024
-1.110E-06,0.140
-1.100E-06,0.296
-1.090E-06,0.392
-1.080E-06,0.340
-1.070E-06,0.188
-1.060E-06,0.000
-1.050E-06,-0.128
-1.040E-06,-0.148
-1.030E-06,-0.064
-1.020E-06,0.076
-1.010E-06,0.152
-1.000E-06,0.124
-9.900E-07,-0.020
-9.800E-07,-0.180
-9.700E-07,-0.268
-9.600E-07,-0.232
-9.500E-07,-0.108
-9.400E-07,0.012
-9.300E-07,0.056
-9.200E-07,0.028
-9.100E-07,-0.056
-9.000E-07,-0.152
-8.900E-07,-0.180
-8.800E-07,-0.116
-8.700E-07,0.000
-8.600E-07,0.024
-8.500E-07,0.088
-8.400E-07,0.128
-8.300E-07,0.116
-8.200E-07,0.072
-8.100E-07,0.044
-8.000E-07,0.076
-7.900E-07,0.156
-7.800E-07,0.268
-7.700E-07,0.336
-7.600E-07,0.336
-7.500E-07,0.292
-7.400E-07,0.212
-7.300E-07,0.156
-7.200E-07,0.168
-7.100E-07,0.220
-7.000E-07,0.288
-6.900E-07,0.344
-6.800E-07,0.360
-6.700E-07,0.320
-6.600E-07,0.252
-6.500E-07,0.192
-6.400E-07,0.160
-6.300E-07,0.164
-6.200E-07,0.232
-6.100E-07,0.288
-6.000E-07,0.316
-5.900E-07,0.296
-5.800E-07,0.236
-5.700E-07,0.172
-5.600E-07,0.124
-5.500E-07,0.112
-5.400E-07,0.124
-5.300E-07,0.144
-5.200E-07,0.124
-5.100E-07,0.076
-5.000E-07,0.016
-4.900E-07,-0.004
-4.800E-07,-0.060
-4.700E-07,-0.136
-4.600E-07,-0.220
-4.500E-07,-0.304
-4.400E-07,-0.396
-4.300E-07,-0.396
-4.200E-07,-0.216
-4.100E-07,-0.036
-4.000E-07,0.012
-3.900E-07,-0.040
-3.800E-07,-0.172
-3.700E-07,-0.368
-3.600E-07,-0.464
-3.500E-07,-0.336
-3.400E-07,-0.028
-3.300E-07,0.200
-3.200E-07,0.200
-3.100E-07,-0.040
-3.000E-07,-0.344
-2.900E-07,-0.512
-2.800E-07,-0.428
-2.700E-07,-0.096
-2.600E-07,0.208
-2.500E-07,0.276
-2.400E-07,0.184
-2.300E-07,0.004
-2.200E-07,-0.260
-2.100E-07,-0.384
-2.000E-07,-0.364
-1.900E-07,-0.140
-1.800E-07,0.096
-1.700E-07,0.220
-1.600E-07,0.172
-1.500E-07,0.072
-1.400E-07,-0.080
-1.300E-07,-0.208
-1.200E-07,-0.180
-1.100E-07,-0.020
-1.000E-07,0.196
-9.000E-08,0.332
-8.000E-08,0.360
-7.000E-08,0.264
-6.000E-08,0.136
-5.000E-08,0.012
-4.000E-08,-0.008
-3.000E-08,0.092
-2.000E-08,0.256
-1.000E-08,0.404
0.000E+00,0.448
1.000E-08,0.412
2.000E-08,0.284
3.000E-08,0.160
4.000E-08,0.100
5.000E-08,0.136
6.000E-08,0.236
7.000E-08,0.352
8.000E-08,0.432
9.000E-08,0.440
1.000E-07,0.360
1.100E-07,0.240
1.200E-07,0.160
1.300E-07,0.144
1.400E-07,0.200
1.500E-07,0.296
1.600E-07,0.376
1.700E-07,0.396
1.800E-07,0.352
1.900E-07,0.272
2.000E-07,0.192
2.100E-07,0.164
2.200E-07,0.188
2.300E-07,0.244
2.400E-07,0.320
2.500E-07,0.352
2.600E-07,0.344
2.700E-07,0.292
2.800E-07,0.224
2.900E-07,0.184
3.000E-07,0.184
3.100E-07,0.216
3.200E-07,0.272
3.300E-07,0.308
3.400E-07,0.312
3.500E-07,0.280
3.600E-07,0.224
3.700E-07,0.184
3.800E-07,0.168
3.900E-07,0.188
4.000E-07,0.224
4.100E-07,0.240
4.200E-07,0.252
4.300E-07,0.216
4.400E-07,0.164
4.500E-07,0.128
4.600E-07,0.100
4.700E-07,0.120
4.800E-07,0.144
4.900E-07,0.168
5.000E-07,0.180
5.100E-07,0.164
5.200E-07,0.132
5.300E-07,0.088
5.400E-07,0.040
5.500E-07,0.004
5.600E-07,-0.012
5.700E-07,0.000
5.800E-07,0.016
5.900E-07,0.044
6.000E-07,0.096
6.100E-07,0.136
6.200E-07,0.152
6.300E-07,0.156
6.400E-07,0.152
6.500E-07,0.140
6.600E-07,0.136
6.700E-07,0.172
6.800E-07,0.228
6.900E-07,0.300
7.000E-07,0.352
7.100E-07,0.352
7.200E-07,0.300
7.300E-07,0.236
7.400E-07,0.184
7.500E-07,0.184
7.600E-07,0.228
7.700E-07,0.288
7.800E-07,0.336
7.900E-07,0.336
8.000E-07,0.296
8.100E-07,0.236
8.200E-07,0.184
8.300E-07,0.176
8.400E-07,0.200
8.500E-07,0.256
8.600E-07,0.304
8.700E-07,0.324
8.800E-07,0.304
8.900E-07,0.264
9.000E-07,0.220
9.100E-07,0.196
9.200E-07,0.204
9.300E-07,0.236
9.400E-07,0.276
9.500E-07,0.300
9.600E-07,0.292
9.700E-07,0.268
9.800E-07,0.232
9.900E-07,0.196
1.000E-06,0.192
1.010E-06,0.216
1.020E-06,0.248
1.030E-06,0.272
1.040E-06,0.276
1.050E-06,0.264
1.060E-06,0.236
1.070E-06,0.208
1.080E-06,0.204
1.090E-06,0.216
1.100E-06,0.240
1.110E-06,0.260
1.120E-06,0.268
1.130E-06,0.260
1.140E-06,0.236
1.150E-06,0.220
1.160E-06,0.212
1.170E-06,0.204
1.180E-06,0.220
1.190E-06,0.232
1.200E-06,0.256
1.210E-06,0.256
1.220E-06,0.244
1.230E-06,0.232
1.240E-06,0.224
1.250E-06,0.220
1.260E-06,0.220
1.270E-06,0.232
1.280E-06,0.236
1.290E-06,0.240
1.300E-06,0.236
1.310E-06,0.224
1.320E-06,0.212
1.330E-06,0.204
1.340E-06,0.204
1.350E-06,0.220
1.360E-06,0.228
1.370E-06,0.228
1.380E-06,0.232
1.390E-06,0.224
1.400E-06,0.216
1.410E-06,0.208
1.420E-06,0.208
1.430E-06,0.220
1.440E-06,0.224
1.450E-06,0.228
1.460E-06,0.232
1.470E-06,0.224
1.480E-06,0.224
1.490E-06,0.216
1.500E-06,0.208
1.510E-06,0.212
1.520E-06,0.216
1.530E-06,0.224
1.540E-06,0.224
1.550E-06,0.220
1.560E-06,0.224
1.570E-06,0.224
1.580E-06,0.216
1.590E-06,0.216
1.600E-06,0.216
1.610E-06,0.216
1.620E-06,0.220
1.630E-06,0.224
1.640E-06,0.224
1.650E-06,0.216
1.660E-06,0.212
1.670E-06,0.208
1.680E-06,0.204
1.690E-06,0.212
1.700E-06,0.212
1.710E-06,0.212
1.720E-06,0.212
1.730E-06,0.216
1.740E-06,0.212
1.750E-06,0.212
1.760E-06,0.204
1.770E-06,0.208
1.780E-06,0.204
1.790E-06,0.212
1.800E-06,0.208
1.810E-06,0.208
1.820E-06,0.212
1.830E-06,0.204
1.840E-06,0.208
1.850E-06,0.204
1.860E-06,0.204
1.870E-06,0.208
1.880E-06,0.208
1.890E-06,0.208
1.900E-06,0.208
1.910E-06,0.208
1.920E-06,0.204
1.930E-06,0.204
1.940E-06,0.204
1.950E-06,0.200
1.960E-06,0.200
1.970E-06,0.204
1.980E-06,0.200
1.990E-06,0.204
2.000E-06,0.200
2.010E-06,0.196
2.020E-06,0.200
2.030E-06,0.200
2.040E-06,0.200
2.050E-06,0.200
2.060E-06,0.196
2.070E-06,0.196
2.080E-06,0.200
2.090E-06,0.196
2.100E-06,0.192
2.110E-06,0.196
2.120E-06,0.196
2.130E-06,0.200
2.140E-06,0.196
2.150E-06,0.192
2.160E-06,0.192
2.170E-06,0.192
2.180E-06,0.192
2.190E-06,0.192
2.200E-06,0.192
2.210E-06,0.188
2.220E-06,0.188
2.230E-06,0.196
2.240E-06,0.192
2.250E-06,0.188
2.260E-06,0.188
2.270E-06,0.192
2.280E-06,0.192
2.290E-06,0.188
2.300E-06,0.188
2.310E-06,0.188
2.320E-06,0.188
2.330E-06,0.188
2.340E-06,0.180
2.350E-06,0.184
2.360E-06,0.180
2.370E-06,0.184
2.380E-06,0.176
2.390E-06,0.176
2.400E-06,0.176
2.410E-06,0.176
2.420E-06,0.180
2.430E-06,0.180
2.440E-06,0.180
2.450E-06,0.184
2.460E-06,0.180
2.470E-06,0.184
2.480E-06,0.176
2.490E-06,0.180
2.500E-06,0.176
2.510E-06,0.176
2.520E-06,0.180
2.530E-06,0.176
2.540E-06,0.172
2.550E-06,0.176
2.560E-06,0.180
2.570E-06,0.176
2.580E-06,0.172
2.590E-06,0.176
2.600E-06,0.172
2.610E-06,0.172
2.620E-06,0.176
2.630E-06,0.172
2.640E-06,0.172
2.650E-06,0.164
2.660E-06,0.164
2.670E-06,0.164
2.680E-06,0.168
2.690E-06,0.168
2.700E-06,0.168
2.710E-06,0.168
2.720E-06,0.156
2.730E-06,0.156
2.740E-06,0.160
2.750E-06,0.160
2.760E-06,0.160
2.770E-06,0.168
2.780E-06,0.168
2.790E-06,0.168
2.800E-06,0.164
2.810E-06,0.160
2.820E-06,0.152
2.830E-06,0.156
2.840E-06,0.160
2.850E-06,0.160
2.860E-06,0.160
2.870E-06,0.160
2.880E-06,0.156
2.890E-06,0.152
2.900E-06,0.152
2.910E-06,0.152
2.920E-06,0.152
2.930E-06,0.152
2.940E-06,0.156
2.950E-06,0.152
2.960E-06,0.152
2.970E-06,0.152
2.980E-06,0.152
2.990E-06,0.144
3.000E-06,0.148
3.010E-06,0.152
3.020E-06,0.156
3.030E-06,0.152
3.040E-06,0.144
3.050E-06,0.144
3.060E-06,0.144
3.070E-06,0.144
3.080E-06,0.148
3.090E-06,0.148
3.100E-06,0.148
3.110E-06,0.152
3.120E-06,0.148
3.130E-06,0.148
3.140E-06,0.140
3.150E-06,0.144
3.160E-06,0.144
3.170E-06,0.144
3.180E-06,0.148
3.190E-06,0.140
3.200E-06,0.144
3.210E-06,0.144
3.220E-06,0.140
3.230E-06,0.148
3.240E-06,0.144
3.250E-06,0.144
3.260E-06,0.144
3.270E-06,0.144
3.280E-06,0.136
3.290E-06,0.136
3.300E-06,0.136
3.310E-06,0.136
