mediciones/Mediciones filtradas (saque las feas)/5-27/-30/WaveData5041.csv

#timebase=2000000(ps)
,#voltbase=500000(mv/100)
#size=4000
-8.400E-06,0.060
-8.390E-06,0.040
-8.380E-06,0.060
-8.370E-06,0.040
-8.360E-06,0.060
-8.350E-06,0.080
-8.340E-06,0.040
-8.330E-06,0.020
-8.320E-06,0.040
-8.310E-06,0.020
-8.300E-06,0.040
-8.290E-06,0.060
-8.280E-06,0.040
-8.270E-06,0.080
-8.260E-06,0.060
-8.250E-06,0.040
-8.240E-06,0.080
-8.230E-06,0.060
-8.220E-06,0.080
-8.210E-06,0.040
-8.200E-06,0.040
-8.190E-06,0.060
-8.180E-06,0.020
-8.170E-06,0.040
-8.160E-06,0.020
-8.150E-06,0.040
-8.140E-06,0.060
-8.130E-06,0.060
-8.120E-06,0.060
-8.110E-06,0.040
-8.100E-06,0.020
-8.090E-06,0.020
-8.080E-06,0.040
-8.070E-06,0.040
-8.060E-06,0.040
-8.050E-06,0.060
-8.040E-06,0.060
-8.030E-06,0.060
-8.020E-06,0.040
-8.010E-06,0.020
-8.000E-06,0.040
-7.990E-06,0.020
-7.980E-06,0.040
-7.970E-06,0.060
-7.960E-06,0.060
-7.950E-06,0.020
-7.940E-06,0.020
-7.930E-06,0.060
-7.920E-06,0.040
-7.910E-06,0.040
-7.900E-06,0.020
-7.890E-06,0.040
-7.880E-06,0.060
-7.870E-06,0.020
-7.860E-06,0.060
-7.850E-06,0.060
-7.840E-06,0.060
-7.830E-06,0.060
-7.820E-06,0.060
-7.810E-06,0.080
-7.800E-06,0.060
-7.790E-06,0.060
-7.780E-06,0.040
-7.770E-06,0.040
-7.760E-06,0.040
-7.750E-06,0.020
-7.740E-06,0.040
-7.730E-06,0.060
-7.720E-06,0.060
-7.710E-06,0.080
-7.700E-06,0.060
-7.690E-06,0.060
-7.680E-06,0.020
-7.670E-06,0.060
-7.660E-06,0.060
-7.650E-06,0.040
-7.640E-06,0.020
-7.630E-06,0.040
-7.620E-06,0.060
-7.610E-06,0.040
-7.600E-06,0.040
-7.590E-06,0.040
-7.580E-06,0.060
-7.570E-06,0.020
-7.560E-06,0.060
-7.550E-06,0.060
-7.540E-06,0.040
-7.530E-06,0.060
-7.520E-06,0.040
-7.510E-06,0.040
-7.500E-06,0.060
-7.490E-06,0.060
-7.480E-06,0.020
-7.470E-06,0.060
-7.460E-06,0.080
-7.450E-06,0.060
-7.440E-06,0.020
-7.430E-06,0.040
-7.420E-06,0.040
-7.410E-06,0.020
-7.400E-06,0.060
-7.390E-06,0.060
-7.380E-06,0.060
-7.370E-06,0.060
-7.360E-06,0.040
-7.350E-06,0.060
-7.340E-06,0.060
-7.330E-06,0.060
-7.320E-06,0.040
-7.310E-06,0.040
-7.300E-06,0.060
-7.290E-06,0.040
-7.280E-06,0.060
-7.270E-06,0.040
-7.260E-06,0.060
-7.250E-06,0.020
-7.240E-06,0.040
-7.230E-06,0.040
-7.220E-06,0.060
-7.210E-06,0.060
-7.200E-06,0.080
-7.190E-06,0.060
-7.180E-06,0.060
-7.170E-06,0.020
-7.160E-06,0.040
-7.150E-06,0.020
-7.140E-06,0.060
-7.130E-06,0.080
-7.120E-06,0.060
-7.110E-06,0.080
-7.100E-06,0.080
-7.090E-06,0.080
-7.080E-06,0.080
-7.070E-06,0.020
-7.060E-06,0.040
-7.050E-06,0.040
-7.040E-06,0.080
-7.030E-06,0.040
-7.020E-06,0.020
-7.010E-06,0.060
-7.000E-06,0.060
-6.990E-06,0.020
-6.980E-06,0.040
-6.970E-06,0.040
-6.960E-06,0.060
-6.950E-06,0.060
-6.940E-06,0.020
-6.930E-06,0.060
-6.920E-06,0.060
-6.910E-06,0.040
-6.900E-06,0.040
-6.890E-06,0.040
-6.880E-06,0.060
-6.870E-06,0.040
-6.860E-06,0.060
-6.850E-06,0.040
-6.840E-06,0.040
-6.830E-06,0.080
-6.820E-06,0.020
-6.810E-06,0.040
-6.800E-06,0.060
-6.790E-06,0.040
-6.780E-06,0.020
-6.770E-06,0.040
-6.760E-06,0.080
-6.750E-06,0.060
-6.740E-06,0.060
-6.730E-06,0.040
-6.720E-06,0.060
-6.710E-06,0.040
-6.700E-06,0.060
-6.690E-06,0.060
-6.680E-06,0.040
-6.670E-06,0.080
-6.660E-06,0.040
-6.650E-06,0.040
-6.640E-06,0.040
-6.630E-06,0.060
-6.620E-06,0.040
-6.610E-06,0.060
-6.600E-06,0.040
-6.590E-06,0.040
-6.580E-06,0.060
-6.570E-06,0.040
-6.560E-06,0.020
-6.550E-06,0.040
-6.540E-06,0.040
-6.530E-06,0.080
-6.520E-06,0.060
-6.510E-06,0.020
-6.500E-06,0.060
-6.490E-06,0.040
-6.480E-06,0.060
-6.470E-06,0.080
-6.460E-06,0.060
-6.450E-06,0.060
-6.440E-06,0.060
-6.430E-06,0.080
-6.420E-06,0.060
-6.410E-06,0.060
-6.400E-06,0.080
-6.390E-06,0.060
-6.380E-06,0.040
-6.370E-06,0.060
-6.360E-06,0.040
-6.350E-06,0.040
-6.340E-06,0.080
-6.330E-06,0.040
-6.320E-06,0.080
-6.310E-06,0.080
-6.300E-06,0.060
-6.290E-06,0.020
-6.280E-06,0.040
-6.270E-06,0.060
-6.260E-06,0.060
-6.250E-06,0.020
-6.240E-06,0.040
-6.230E-06,0.020
-6.220E-06,0.040
-6.210E-06,0.060
-6.200E-06,0.040
-6.190E-06,0.060
-6.180E-06,0.060
-6.170E-06,0.060
-6.160E-06,0.040
-6.150E-06,0.060
-6.140E-06,0.060
-6.130E-06,0.020
-6.120E-06,0.020
-6.110E-06,0.040
-6.100E-06,0.020
-6.090E-06,0.040
-6.080E-06,0.060
-6.070E-06,0.020
-6.060E-06,0.060
-6.050E-06,0.020
-6.040E-06,0.020
-6.030E-06,0.040
-6.020E-06,0.080
-6.010E-06,0.040
-6.000E-06,0.020
-5.990E-06,0.040
-5.980E-06,0.020
-5.970E-06,0.040
-5.960E-06,0.040
-5.950E-06,0.080
-5.940E-06,0.040
-5.930E-06,0.040
-5.920E-06,0.040
-5.910E-06,0.040
-5.900E-06,0.020
-5.890E-06,0.040
-5.880E-06,0.020
-5.870E-06,0.040
-5.860E-06,0.040
-5.850E-06,0.020
-5.840E-06,0.020
-5.830E-06,0.000
-5.820E-06,0.020
-5.810E-06,0.020
-5.800E-06,0.020
-5.790E-06,0.020
-5.780E-06,0.020
-5.770E-06,0.020
-5.760E-06,0.020
-5.750E-06,0.040
-5.740E-06,0.040
-5.730E-06,0.060
-5.720E-06,0.000
-5.710E-06,0.040
-5.700E-06,0.040
-5.690E-06,0.060
-5.680E-06,0.020
-5.670E-06,0.000
-5.660E-06,0.040
-5.650E-06,0.040
-5.640E-06,0.060
-5.630E-06,0.020
-5.620E-06,0.000
-5.610E-06,0.040
-5.600E-06,0.020
-5.590E-06,0.040
-5.580E-06,0.040
-5.570E-06,0.060
-5.560E-06,0.020
-5.550E-06,0.000
-5.540E-06,0.040
-5.530E-06,0.040
-5.520E-06,0.020
-5.510E-06,0.000
-5.500E-06,0.020
-5.490E-06,0.000
-5.480E-06,0.020
-5.470E-06,0.060
-5.460E-06,0.040
-5.450E-06,0.000
-5.440E-06,0.000
-5.430E-06,0.020
-5.420E-06,0.020
-5.410E-06,0.020
-5.400E-06,0.040
-5.390E-06,0.060
-5.380E-06,0.020
-5.370E-06,0.000
-5.360E-06,0.040
-5.350E-06,0.040
-5.340E-06,0.040
-5.330E-06,0.060
-5.320E-06,0.040
-5.310E-06,0.020
-5.300E-06,0.020
-5.290E-06,0.020
-5.280E-06,0.040
-5.270E-06,0.000
-5.260E-06,0.020
-5.250E-06,0.040
-5.240E-06,0.040
-5.230E-06,0.020
-5.220E-06,0.060
-5.210E-06,0.040
-5.200E-06,0.020
-5.190E-06,0.040
-5.180E-06,0.020
-5.170E-06,0.020
-5.160E-06,0.020
-5.150E-06,0.060
-5.140E-06,0.020
-5.130E-06,0.020
-5.120E-06,0.040
-5.110E-06,0.060
-5.100E-06,0.020
-5.090E-06,0.020
-5.080E-06,0.040
-5.070E-06,0.020
-5.060E-06,0.040
-5.050E-06,0.040
-5.040E-06,0.020
-5.030E-06,0.060
-5.020E-06,0.020
-5.010E-06,0.040
-5.000E-06,0.020
-4.990E-06,0.040
-4.980E-06,0.060
-4.970E-06,0.040
-4.960E-06,0.020
-4.950E-06,0.020
-4.940E-06,0.040
-4.930E-06,0.040
-4.920E-06,0.020
-4.910E-06,0.040
-4.900E-06,0.040
-4.890E-06,0.060
-4.880E-06,0.040
-4.870E-06,0.020
-4.860E-06,0.040
-4.850E-06,0.060
-4.840E-06,0.020
-4.830E-06,0.040
-4.820E-06,0.020
-4.810E-06,0.040
-4.800E-06,0.020
-4.790E-06,0.020
-4.780E-06,0.040
-4.770E-06,0.020
-4.760E-06,0.040
-4.750E-06,0.040
-4.740E-06,0.020
-4.730E-06,0.060
-4.720E-06,0.040
-4.710E-06,0.020
-4.700E-06,0.040
-4.690E-06,0.020
-4.680E-06,0.040
-4.670E-06,0.040
-4.660E-06,0.060
-4.650E-06,0.020
-4.640E-06,0.020
-4.630E-06,0.040
-4.620E-06,0.060
-4.610E-06,0.040
-4.600E-06,0.020
-4.590E-06,0.000
-4.580E-06,0.020
-4.570E-06,0.020
-4.560E-06,0.020
-4.550E-06,0.040
-4.540E-06,0.000
-4.530E-06,0.000
-4.520E-06,0.020
-4.510E-06,0.020
-4.500E-06,0.020
-4.490E-06,0.040
-4.480E-06,0.040
-4.470E-06,0.040
-4.460E-06,0.040
-4.450E-06,0.060
-4.440E-06,0.020
-4.430E-06,0.000
-4.420E-06,0.020
-4.410E-06,0.040
-4.400E-06,0.020
-4.390E-06,0.040
-4.380E-06,0.020
-4.370E-06,0.060
-4.360E-06,0.040
-4.350E-06,0.020
-4.340E-06,0.060
-4.330E-06,0.040
-4.320E-06,0.040
-4.310E-06,0.060
-4.300E-06,0.020
-4.290E-06,0.020
-4.280E-06,0.060
-4.270E-06,0.040
-4.260E-06,0.020
-4.250E-06,0.020
-4.240E-06,0.040
-4.230E-06,0.020
-4.220E-06,0.020
-4.210E-06,0.040
-4.200E-06,0.060
-4.190E-06,0.020
-4.180E-06,0.020
-4.170E-06,0.040
-4.160E-06,0.020
-4.150E-06,0.040
-4.140E-06,0.020
-4.130E-06,0.040
-4.120E-06,0.040
-4.110E-06,0.040
-4.100E-06,0.020
-4.090E-06,0.020
-4.080E-06,0.040
-4.070E-06,0.060
-4.060E-06,0.060
-4.050E-06,0.000
-4.040E-06,0.020
-4.030E-06,0.020
-4.020E-06,0.000
-4.010E-06,0.040
-4.000E-06,0.000
-3.990E-06,0.020
-3.980E-06,0.040
-3.970E-06,0.060
-3.960E-06,0.040
-3.950E-06,0.020
-3.940E-06,0.040
-3.930E-06,0.040
-3.920E-06,0.040
-3.910E-06,0.060
-3.900E-06,0.040
-3.890E-06,0.040
-3.880E-06,0.060
-3.870E-06,0.060
-3.860E-06,0.040
-3.850E-06,0.020
-3.840E-06,0.020
-3.830E-06,0.040
-3.820E-06,0.060
-3.810E-06,0.020
-3.800E-06,0.020
-3.790E-06,0.040
-3.780E-06,0.060
-3.770E-06,0.040
-3.760E-06,0.060
-3.750E-06,0.000
-3.740E-06,0.020
-3.730E-06,0.020
-3.720E-06,0.020
-3.710E-06,0.020
-3.700E-06,0.020
-3.690E-06,0.060
-3.680E-06,0.060
-3.670E-06,0.040
-3.660E-06,0.020
-3.650E-06,0.020
-3.640E-06,0.040
-3.630E-06,0.020
-3.620E-06,0.000
-3.610E-06,0.040
-3.600E-06,0.020
-3.590E-06,0.040
-3.580E-06,0.020
-3.570E-06,0.020
-3.560E-06,0.020
-3.550E-06,0.020
-3.540E-06,0.020
-3.530E-06,0.000
-3.520E-06,0.020
-3.510E-06,0.040
-3.500E-06,0.060
-3.490E-06,0.040
-3.480E-06,0.020
-3.470E-06,0.020
-3.460E-06,0.020
-3.450E-06,-0.020
-3.440E-06,0.040
-3.430E-06,0.060
-3.420E-06,0.040
-3.410E-06,0.040
-3.400E-06,0.040
-3.390E-06,0.020
-3.380E-06,0.040
-3.370E-06,0.060
-3.360E-06,0.060
-3.350E-06,0.100
-3.340E-06,0.100
-3.330E-06,0.060
-3.320E-06,0.060
-3.310E-06,0.080
-3.300E-06,0.060
-3.290E-06,0.080
-3.280E-06,0.040
-3.270E-06,0.060
-3.260E-06,0.060
-3.250E-06,0.060
-3.240E-06,0.040
-3.230E-06,0.060
-3.220E-06,0.080
-3.210E-06,0.080
-3.200E-06,0.080
-3.190E-06,0.040
-3.180E-06,0.060
-3.170E-06,0.080
-3.160E-06,0.080
-3.150E-06,0.100
-3.140E-06,0.080
-3.130E-06,0.080
-3.120E-06,0.060
-3.110E-06,0.060
-3.100E-06,0.080
-3.090E-06,0.120
-3.080E-06,0.080
-3.070E-06,0.080
-3.060E-06,0.040
-3.050E-06,0.020
-3.040E-06,0.040
-3.030E-06,0.020
-3.020E-06,0.040
-3.010E-06,0.060
-3.000E-06,0.080
-2.990E-06,0.080
-2.980E-06,0.080
-2.970E-06,0.080
-2.960E-06,0.100
-2.950E-06,0.100
-2.940E-06,0.160
-2.930E-06,0.140
-2.920E-06,0.140
-2.910E-06,0.180
-2.900E-06,0.120
-2.890E-06,0.160
-2.880E-06,0.140
-2.870E-06,0.160
-2.860E-06,0.160
-2.850E-06,0.120
-2.840E-06,0.120
-2.830E-06,0.120
-2.820E-06,0.140
-2.810E-06,0.140
-2.800E-06,0.180
-2.790E-06,0.160
-2.780E-06,0.100
-2.770E-06,0.120
-2.760E-06,0.080
-2.750E-06,0.060
-2.740E-06,0.120
-2.730E-06,0.180
-2.720E-06,0.200
-2.710E-06,0.200
-2.700E-06,0.180
-2.690E-06,0.160
-2.680E-06,0.160
-2.670E-06,0.160
-2.660E-06,0.160
-2.650E-06,0.180
-2.640E-06,0.180
-2.630E-06,0.160
-2.620E-06,0.160
-2.610E-06,0.180
-2.600E-06,0.220
-2.590E-06,0.240
-2.580E-06,0.300
-2.570E-06,0.320
-2.560E-06,0.320
-2.550E-06,0.340
-2.540E-06,0.340
-2.530E-06,0.340
-2.520E-06,0.420
-2.510E-06,0.420
-2.500E-06,0.420
-2.490E-06,0.500
-2.480E-06,0.520
-2.470E-06,0.520
-2.460E-06,0.420
-2.450E-06,0.420
-2.440E-06,0.420
-2.430E-06,0.400
-2.420E-06,0.380
-2.410E-06,0.540
-2.400E-06,0.500
-2.390E-06,0.400
-2.380E-06,0.480
-2.370E-06,0.340
-2.360E-06,0.300
-2.350E-06,0.340
-2.340E-06,0.360
-2.330E-06,0.380
-2.320E-06,0.580
-2.310E-06,0.660
-2.300E-06,0.760
-2.290E-06,0.860
-2.280E-06,0.880
-2.270E-06,1.000
-2.260E-06,0.980
-2.250E-06,1.100
-2.240E-06,1.120
-2.230E-06,1.040
-2.220E-06,1.280
-2.210E-06,1.140
-2.200E-06,1.200
-2.190E-06,0.980
-2.180E-06,1.100
-2.170E-06,1.000
-2.160E-06,1.180
-2.150E-06,1.240
-2.140E-06,1.200
-2.130E-06,1.380
-2.120E-06,1.260
-2.110E-06,1.200
-2.100E-06,1.340
-2.090E-06,1.360
-2.080E-06,1.480
-2.070E-06,1.640
-2.060E-06,1.540
-2.050E-06,1.660
-2.040E-06,1.520
-2.030E-06,1.420
-2.020E-06,1.420
-2.010E-06,1.520
-2.000E-06,1.680
-1.990E-06,1.680
-1.980E-06,1.520
-1.970E-06,1.240
-1.960E-06,0.900
-1.950E-06,0.860
-1.940E-06,1.020
-1.930E-06,1.040
-1.920E-06,1.120
-1.910E-06,0.980
-1.900E-06,0.760
-1.890E-06,0.660
-1.880E-06,0.580
-1.870E-06,0.680
-1.860E-06,0.820
-1.850E-06,0.780
-1.840E-06,0.740
-1.830E-06,0.580
-1.820E-06,0.500
-1.810E-06,0.520
-1.800E-06,0.500
-1.790E-06,0.440
-1.780E-06,0.440
-1.770E-06,0.320
-1.760E-06,0.320
-1.750E-06,0.440
-1.740E-06,0.400
-1.730E-06,0.540
-1.720E-06,0.520
-1.710E-06,0.360
-1.700E-06,0.400
-1.690E-06,0.260
-1.680E-06,0.240
-1.670E-06,0.260
-1.660E-06,0.140
-1.650E-06,0.180
-1.640E-06,0.180
-1.630E-06,0.340
-1.620E-06,0.480
-1.610E-06,0.520
-1.600E-06,0.560
-1.590E-06,0.480
-1.580E-06,0.340
-1.570E-06,0.360
-1.560E-06,0.400
-1.550E-06,0.460
-1.540E-06,0.600
-1.530E-06,0.620
-1.520E-06,0.540
-1.510E-06,0.520
-1.500E-06,0.540
-1.490E-06,0.500
-1.480E-06,0.520
-1.470E-06,0.520
-1.460E-06,0.460
-1.450E-06,0.420
-1.440E-06,0.400
-1.430E-06,0.360
-1.420E-06,0.240
-1.410E-06,0.240
-1.400E-06,0.280
-1.390E-06,0.280
-1.380E-06,0.360
-1.370E-06,0.720
-1.360E-06,-0.140
-1.350E-06,0.260
-1.340E-06,-0.180
-1.330E-06,-0.540
-1.320E-06,0.300
-1.310E-06,0.040
-1.300E-06,0.360
-1.290E-06,0.440
-1.280E-06,0.020
-1.270E-06,0.160
-1.260E-06,0.140
-1.250E-06,0.260
-1.240E-06,0.440
-1.230E-06,0.320
-1.220E-06,0.260
-1.210E-06,0.160
-1.200E-06,0.080
-1.190E-06,0.200
-1.180E-06,0.180
-1.170E-06,0.220
-1.160E-06,0.240
-1.150E-06,0.080
-1.140E-06,0.020
-1.130E-06,-0.020
-1.120E-06,-0.100
-1.110E-06,-0.120
-1.100E-06,-0.180
-1.090E-06,-0.180
-1.080E-06,-0.260
-1.070E-06,-0.340
-1.060E-06,-0.360
-1.050E-06,-0.320
-1.040E-06,-0.300
-1.030E-06,-0.260
-1.020E-06,-0.160
-1.010E-06,-0.080
-1.000E-06,-0.040
-9.900E-07,0.020
-9.800E-07,0.100
-9.700E-07,0.200
-9.600E-07,0.300
-9.500E-07,0.400
-9.400E-07,0.520
-9.300E-07,0.540
-9.200E-07,0.620
-9.100E-07,0.680
-9.000E-07,0.540
-8.900E-07,0.560
-8.800E-07,0.420
-8.700E-07,0.400
-8.600E-07,0.440
-8.500E-07,0.380
-8.400E-07,0.560
-8.300E-07,0.520
-8.200E-07,0.500
-8.100E-07,0.420
-8.000E-07,0.280
-7.900E-07,0.220
-7.800E-07,0.240
-7.700E-07,0.240
-7.600E-07,0.340
-7.500E-07,0.380
-7.400E-07,0.400
-7.300E-07,0.420
-7.200E-07,0.380
-7.100E-07,0.460
-7.000E-07,0.400
-6.900E-07,0.200
-6.800E-07,0.180
-6.700E-07,0.160
-6.600E-07,-0.040
-6.500E-07,-0.120
-6.400E-07,0.100
-6.300E-07,-0.320
-6.200E-07,-0.100
-6.100E-07,0.180
-6.000E-07,-0.300
-5.900E-07,0.220
-5.800E-07,0.100
-5.700E-07,-0.160
-5.600E-07,0.000
-5.500E-07,-0.160
-5.400E-07,-0.020
-5.300E-07,-0.100
-5.200E-07,-0.260
-5.100E-07,-0.260
-5.000E-07,-0.460
-4.900E-07,-0.400
-4.800E-07,-0.100
-4.700E-07,0.040
-4.600E-07,0.320
-4.500E-07,0.240
-4.400E-07,0.080
-4.300E-07,-0.180
-4.200E-07,-0.420
-4.100E-07,-0.320
-4.000E-07,-0.340
-3.900E-07,-0.140
-3.800E-07,-0.140
-3.700E-07,-0.040
-3.600E-07,-0.160
-3.500E-07,-0.260
-3.400E-07,-0.160
-3.300E-07,-0.220
-3.200E-07,-0.240
-3.100E-07,-0.200
-3.000E-07,-0.200
-2.900E-07,-0.120
-2.800E-07,0.020
-2.700E-07,0.000
-2.600E-07,0.060
-2.500E-07,0.100
-2.400E-07,0.100
-2.300E-07,0.100
-2.200E-07,0.080
-2.100E-07,0.120
-2.000E-07,0.140
-1.900E-07,0.140
-1.800E-07,0.120
-1.700E-07,0.100
-1.600E-07,0.160
-1.500E-07,0.160
-1.400E-07,0.000
-1.300E-07,0.040
-1.200E-07,0.020
-1.100E-07,-0.220
-1.000E-07,-0.160
-9.000E-08,-0.120
-8.000E-08,-0.220
-7.000E-08,-0.320
-6.000E-08,-0.180
-5.000E-08,-0.400
-4.000E-08,-0.520
-3.000E-08,-0.500
-2.000E-08,-0.940
-1.000E-08,-0.640
0.000E+00,-0.760
1.000E-08,-0.160
2.000E-08,-0.220
3.000E-08,0.660
4.000E-08,-0.100
5.000E-08,0.120
6.000E-08,-0.320
7.000E-08,-0.760
8.000E-08,-0.060
9.000E-08,-0.300
1.000E-07,-0.060
1.100E-07,-0.020
1.200E-07,-0.500
1.300E-07,-0.700
1.400E-07,-0.600
1.500E-07,-0.880
1.600E-07,-0.400
1.700E-07,-0.220
1.800E-07,-0.020
1.900E-07,0.380
2.000E-07,0.440
2.100E-07,0.600
2.200E-07,0.580
2.300E-07,0.460
2.400E-07,0.560
2.500E-07,0.600
2.600E-07,1.060
2.700E-07,0.180
2.800E-07,-0.100
2.900E-07,-1.020
3.000E-07,-1.560
3.100E-07,-1.320
3.200E-07,-0.940
3.300E-07,-0.520
3.400E-07,-0.500
3.500E-07,-0.820
3.600E-07,-1.300
3.700E-07,-1.040
3.800E-07,-0.780
3.900E-07,-0.340
4.000E-07,-0.160
4.100E-07,-0.200
4.200E-07,-0.400
4.300E-07,-0.540
4.400E-07,-0.280
4.500E-07,-0.220
4.600E-07,-0.100
4.700E-07,0.180
4.800E-07,-0.040
4.900E-07,-0.020
5.000E-07,-0.080
5.100E-07,-0.160
5.200E-07,-0.220
5.300E-07,-0.640
5.400E-07,-0.660
5.500E-07,-1.020
5.600E-07,-1.180
5.700E-07,-0.620
5.800E-07,-0.800
5.900E-07,-0.800
6.000E-07,-0.520
6.100E-07,-1.100
6.200E-07,-0.960
6.300E-07,-0.880
6.400E-07,-1.220
6.500E-07,-1.340
6.600E-07,-1.780
6.700E-07,-2.100
6.800E-07,-2.040
6.900E-07,-1.600
7.000E-07,-0.740
7.100E-07,-0.320
7.200E-07,-0.460
7.300E-07,-0.460
7.400E-07,-0.840
7.500E-07,-0.560
7.600E-07,0.020
7.700E-07,0.320
7.800E-07,0.620
7.900E-07,0.080
8.000E-07,-0.600
8.100E-07,-1.000
8.200E-07,-1.100
8.300E-07,-0.700
8.400E-07,-0.500
8.500E-07,-0.840
8.600E-07,-1.220
8.700E-07,-1.980
8.800E-07,-2.380
8.900E-07,-2.520
9.000E-07,-2.500
9.100E-07,-2.660
9.200E-07,-2.660
9.300E-07,-2.660
9.400E-07,-2.660
9.500E-07,-2.660
9.600E-07,-2.660
9.700E-07,-2.660
9.800E-07,-2.660
9.900E-07,-2.660
1.000E-06,-2.660
1.010E-06,-2.660
1.020E-06,-2.660
1.030E-06,-2.660
1.040E-06,-2.640
1.050E-06,-2.660
1.060E-06,-2.660
1.070E-06,-2.660
1.080E-06,-2.660
1.090E-06,-2.660
1.100E-06,-2.660
1.110E-06,-2.640
1.120E-06,-2.640
1.130E-06,-2.640
1.140E-06,-2.640
1.150E-06,-2.660
1.160E-06,-2.660
1.170E-06,-2.660
1.180E-06,-2.660
1.190E-06,-2.660
1.200E-06,-2.660
1.210E-06,-2.660
1.220E-06,-2.680
1.230E-06,-2.680
1.240E-06,-2.680
1.250E-06,-2.660
1.260E-06,-2.660
1.270E-06,-2.660
1.280E-06,-2.660
1.290E-06,-2.660
1.300E-06,-2.660
1.310E-06,-2.680
1.320E-06,-2.680
1.330E-06,-2.680
1.340E-06,-2.680
1.350E-06,-2.680
1.360E-06,-2.680
1.370E-06,-2.660
1.380E-06,-2.660
1.390E-06,-2.640
1.400E-06,-2.660
1.410E-06,-2.660
1.420E-06,-2.680
1.430E-06,-2.680
1.440E-06,-2.680
1.450E-06,-2.660
1.460E-06,-2.660
1.470E-06,-2.640
1.480E-06,-2.660
1.490E-06,-2.660
1.500E-06,-2.660
1.510E-06,-2.660
1.520E-06,-2.640
1.530E-06,-2.220
1.540E-06,-1.620
1.550E-06,-1.700
1.560E-06,-1.920
1.570E-06,-2.080
1.580E-06,-1.820
1.590E-06,-1.500
1.600E-06,-0.880
1.610E-06,-0.520
1.620E-06,-0.660
1.630E-06,-0.660
1.640E-06,-0.740
1.650E-06,-0.680
1.660E-06,-0.720
1.670E-06,-0.600
1.680E-06,-0.640
1.690E-06,-0.640
1.700E-06,-0.840
1.710E-06,-1.000
1.720E-06,-1.160
1.730E-06,-1.440
1.740E-06,-1.680
1.750E-06,-1.840
1.760E-06,-2.000
1.770E-06,-2.340
1.780E-06,-2.200
1.790E-06,-2.400
1.800E-06,-2.420
1.810E-06,-2.580
1.820E-06,-2.640
1.830E-06,-2.660
1.840E-06,-2.660
1.850E-06,-2.660
1.860E-06,-2.660
1.870E-06,-2.400
1.880E-06,-2.440
1.890E-06,-2.620
1.900E-06,-2.660
1.910E-06,-2.660
1.920E-06,-2.660
1.930E-06,-2.680
1.940E-06,-2.660
1.950E-06,-2.660
1.960E-06,-2.660
1.970E-06,-2.660
1.980E-06,-2.660
1.990E-06,-2.660
2.000E-06,-2.660
2.010E-06,-2.660
2.020E-06,-2.640
2.030E-06,-2.640
2.040E-06,-2.640
2.050E-06,-2.660
2.060E-06,-2.660
2.070E-06,-2.660
2.080E-06,-2.660
2.090E-06,-2.680
2.100E-06,-2.660
2.110E-06,-2.660
2.120E-06,-2.660
2.130E-06,-2.680
2.140E-06,-2.680
2.150E-06,-2.680
2.160E-06,-2.680
2.170E-06,-2.660
2.180E-06,-2.660
2.190E-06,-2.640
2.200E-06,-2.640
2.210E-06,-2.660
2.220E-06,-2.660
2.230E-06,-2.680
2.240E-06,-2.680
2.250E-06,-2.660
2.260E-06,-2.660
2.270E-06,-2.660
2.280E-06,-2.660
2.290E-06,-2.660
2.300E-06,-2.660
2.310E-06,-2.660
2.320E-06,-2.660
2.330E-06,-2.660
2.340E-06,-2.660
2.350E-06,-2.660
2.360E-06,-2.660
2.370E-06,-2.660
2.380E-06,-2.640
2.390E-06,-2.660
2.400E-06,-2.660
2.410E-06,-2.680
2.420E-06,-2.660
2.430E-06,-2.660
2.440E-06,-2.660
2.450E-06,-2.660
2.460E-06,-2.660
2.470E-06,-2.640
2.480E-06,-2.660
2.490E-06,-2.660
2.500E-06,-2.660
2.510E-06,-2.660
2.520E-06,-2.660
2.530E-06,-2.640
2.540E-06,-2.660
2.550E-06,-2.660
2.560E-06,-2.660
2.570E-06,-2.660
2.580E-06,-2.660
2.590E-06,-2.660
2.600E-06,-2.660
2.610E-06,-2.660
2.620E-06,-2.660
2.630E-06,-2.660
2.640E-06,-2.660
2.650E-06,-2.660
2.660E-06,-2.660
2.670E-06,-2.660
2.680E-06,-2.660
2.690E-06,-2.660
2.700E-06,-2.660
2.710E-06,-2.640
2.720E-06,-2.660
2.730E-06,-2.660
2.740E-06,-2.680
2.750E-06,-2.680
2.760E-06,-2.660
2.770E-06,-2.660
2.780E-06,-2.660
2.790E-06,-2.680
2.800E-06,-2.680
2.810E-06,-2.680
2.820E-06,-2.680
2.830E-06,-2.660
2.840E-06,-2.660
2.850E-06,-2.640
2.860E-06,-2.660
2.870E-06,-2.660
2.880E-06,-2.660
2.890E-06,-2.660
2.900E-06,-2.660
2.910E-06,-2.660
2.920E-06,-2.660
2.930E-06,-2.660
2.940E-06,-2.660
2.950E-06,-2.660
2.960E-06,-2.660
2.970E-06,-2.660
2.980E-06,-2.660
2.990E-06,-2.660
3.000E-06,-2.660
3.010E-06,-2.660
3.020E-06,-2.660
3.030E-06,-2.660
3.040E-06,-2.660
3.050E-06,-2.680
3.060E-06,-2.680
3.070E-06,-2.680
3.080E-06,-2.680
3.090E-06,-2.660
3.100E-06,-2.660
3.110E-06,-2.640
3.120E-06,-2.660
3.130E-06,-2.660
3.140E-06,-2.680
3.150E-06,-2.680
3.160E-06,-2.660
3.170E-06,-2.660
3.180E-06,-2.660
3.190E-06,-2.660
3.200E-06,-2.660
3.210E-06,-2.620
3.220E-06,-2.340
3.230E-06,-2.140
3.240E-06,-1.940
3.250E-06,-1.840
3.260E-06,-1.780
3.270E-06,-1.660
3.280E-06,-1.560
3.290E-06,-1.440
