mediciones/Mediciones filtradas (saque las feas)/5-27/-30/WaveData5059.csv

#timebase=2000000(ps)
,#voltbase=500000(mv/100)
#size=4000
-8.400E-06,0.060
-8.390E-06,0.080
-8.380E-06,0.060
-8.370E-06,0.060
-8.360E-06,0.020
-8.350E-06,0.000
-8.340E-06,0.020
-8.330E-06,0.020
-8.320E-06,0.040
-8.310E-06,0.060
-8.300E-06,0.020
-8.290E-06,0.000
-8.280E-06,-0.020
-8.270E-06,0.020
-8.260E-06,0.000
-8.250E-06,0.020
-8.240E-06,0.000
-8.230E-06,0.020
-8.220E-06,-0.020
-8.210E-06,0.020
-8.200E-06,0.000
-8.190E-06,0.020
-8.180E-06,0.020
-8.170E-06,0.000
-8.160E-06,0.020
-8.150E-06,0.000
-8.140E-06,-0.020
-8.130E-06,0.020
-8.120E-06,0.000
-8.110E-06,0.040
-8.100E-06,0.020
-8.090E-06,0.020
-8.080E-06,0.040
-8.070E-06,0.060
-8.060E-06,0.060
-8.050E-06,0.020
-8.040E-06,0.060
-8.030E-06,0.060
-8.020E-06,0.060
-8.010E-06,0.060
-8.000E-06,0.040
-7.990E-06,0.040
-7.980E-06,0.040
-7.970E-06,0.040
-7.960E-06,0.060
-7.950E-06,0.040
-7.940E-06,0.040
-7.930E-06,0.080
-7.920E-06,0.040
-7.910E-06,0.040
-7.900E-06,0.020
-7.890E-06,0.020
-7.880E-06,0.020
-7.870E-06,0.060
-7.860E-06,0.040
-7.850E-06,0.020
-7.840E-06,0.020
-7.830E-06,0.040
-7.820E-06,0.020
-7.810E-06,0.020
-7.800E-06,0.020
-7.790E-06,0.040
-7.780E-06,0.040
-7.770E-06,0.040
-7.760E-06,0.040
-7.750E-06,0.060
-7.740E-06,0.040
-7.730E-06,0.020
-7.720E-06,0.040
-7.710E-06,0.020
-7.700E-06,0.060
-7.690E-06,0.040
-7.680E-06,0.080
-7.670E-06,0.040
-7.660E-06,0.040
-7.650E-06,0.040
-7.640E-06,0.020
-7.630E-06,0.040
-7.620E-06,0.040
-7.610E-06,0.020
-7.600E-06,0.060
-7.590E-06,0.040
-7.580E-06,0.060
-7.570E-06,0.020
-7.560E-06,0.000
-7.550E-06,0.040
-7.540E-06,0.040
-7.530E-06,0.060
-7.520E-06,0.040
-7.510E-06,0.080
-7.500E-06,0.040
-7.490E-06,0.060
-7.480E-06,0.020
-7.470E-06,0.040
-7.460E-06,0.040
-7.450E-06,0.060
-7.440E-06,0.040
-7.430E-06,0.060
-7.420E-06,0.020
-7.410E-06,0.020
-7.400E-06,0.060
-7.390E-06,0.040
-7.380E-06,0.060
-7.370E-06,0.060
-7.360E-06,0.060
-7.350E-06,0.020
-7.340E-06,0.060
-7.330E-06,0.040
-7.320E-06,0.060
-7.310E-06,0.040
-7.300E-06,0.060
-7.290E-06,0.100
-7.280E-06,0.040
-7.270E-06,0.040
-7.260E-06,0.080
-7.250E-06,0.060
-7.240E-06,0.040
-7.230E-06,0.060
-7.220E-06,0.020
-7.210E-06,0.040
-7.200E-06,0.060
-7.190E-06,0.060
-7.180E-06,0.040
-7.170E-06,0.040
-7.160E-06,0.040
-7.150E-06,0.060
-7.140E-06,0.060
-7.130E-06,0.000
-7.120E-06,0.020
-7.110E-06,0.040
-7.100E-06,0.020
-7.090E-06,0.040
-7.080E-06,0.020
-7.070E-06,0.040
-7.060E-06,0.040
-7.050E-06,0.020
-7.040E-06,0.040
-7.030E-06,0.020
-7.020E-06,0.040
-7.010E-06,0.040
-7.000E-06,0.040
-6.990E-06,0.060
-6.980E-06,0.040
-6.970E-06,0.040
-6.960E-06,0.060
-6.950E-06,0.060
-6.940E-06,0.060
-6.930E-06,0.080
-6.920E-06,0.080
-6.910E-06,0.040
-6.900E-06,0.040
-6.890E-06,0.080
-6.880E-06,0.040
-6.870E-06,0.060
-6.860E-06,0.060
-6.850E-06,0.060
-6.840E-06,0.060
-6.830E-06,0.040
-6.820E-06,0.040
-6.810E-06,0.100
-6.800E-06,0.040
-6.790E-06,0.040
-6.780E-06,0.020
-6.770E-06,0.040
-6.760E-06,0.080
-6.750E-06,0.060
-6.740E-06,0.020
-6.730E-06,0.040
-6.720E-06,0.060
-6.710E-06,0.040
-6.700E-06,0.060
-6.690E-06,0.060
-6.680E-06,0.060
-6.670E-06,0.060
-6.660E-06,0.040
-6.650E-06,0.020
-6.640E-06,0.040
-6.630E-06,0.040
-6.620E-06,0.060
-6.610E-06,0.040
-6.600E-06,0.040
-6.590E-06,0.060
-6.580E-06,0.040
-6.570E-06,0.060
-6.560E-06,0.020
-6.550E-06,0.040
-6.540E-06,0.060
-6.530E-06,0.040
-6.520E-06,0.020
-6.510E-06,0.020
-6.500E-06,0.040
-6.490E-06,0.020
-6.480E-06,0.020
-6.470E-06,0.040
-6.460E-06,0.020
-6.450E-06,0.040
-6.440E-06,0.040
-6.430E-06,0.060
-6.420E-06,0.040
-6.410E-06,0.040
-6.400E-06,0.060
-6.390E-06,0.040
-6.380E-06,0.040
-6.370E-06,0.040
-6.360E-06,0.060
-6.350E-06,0.040
-6.340E-06,0.060
-6.330E-06,0.040
-6.320E-06,0.040
-6.310E-06,0.020
-6.300E-06,0.040
-6.290E-06,0.020
-6.280E-06,0.040
-6.270E-06,0.040
-6.260E-06,0.060
-6.250E-06,0.040
-6.240E-06,0.020
-6.230E-06,0.040
-6.220E-06,0.060
-6.210E-06,0.040
-6.200E-06,0.040
-6.190E-06,0.020
-6.180E-06,0.040
-6.170E-06,0.060
-6.160E-06,0.040
-6.150E-06,0.020
-6.140E-06,0.000
-6.130E-06,0.040
-6.120E-06,0.020
-6.110E-06,0.020
-6.100E-06,0.040
-6.090E-06,0.060
-6.080E-06,0.040
-6.070E-06,0.060
-6.060E-06,0.060
-6.050E-06,0.020
-6.040E-06,0.040
-6.030E-06,0.060
-6.020E-06,0.040
-6.010E-06,0.020
-6.000E-06,0.020
-5.990E-06,0.040
-5.980E-06,0.040
-5.970E-06,0.060
-5.960E-06,0.040
-5.950E-06,0.020
-5.940E-06,0.040
-5.930E-06,0.020
-5.920E-06,0.040
-5.910E-06,0.020
-5.900E-06,0.040
-5.890E-06,0.040
-5.880E-06,0.060
-5.870E-06,0.040
-5.860E-06,0.000
-5.850E-06,0.040
-5.840E-06,0.020
-5.830E-06,0.060
-5.820E-06,0.040
-5.810E-06,0.020
-5.800E-06,0.040
-5.790E-06,0.040
-5.780E-06,0.060
-5.770E-06,0.000
-5.760E-06,0.040
-5.750E-06,0.060
-5.740E-06,0.040
-5.730E-06,0.020
-5.720E-06,0.060
-5.710E-06,0.020
-5.700E-06,0.040
-5.690E-06,0.040
-5.680E-06,0.060
-5.670E-06,0.040
-5.660E-06,0.040
-5.650E-06,0.080
-5.640E-06,0.040
-5.630E-06,0.060
-5.620E-06,0.060
-5.610E-06,0.060
-5.600E-06,0.020
-5.590E-06,0.040
-5.580E-06,0.020
-5.570E-06,0.040
-5.560E-06,0.040
-5.550E-06,0.060
-5.540E-06,0.040
-5.530E-06,0.060
-5.520E-06,0.020
-5.510E-06,0.000
-5.500E-06,0.040
-5.490E-06,0.060
-5.480E-06,0.040
-5.470E-06,0.080
-5.460E-06,0.060
-5.450E-06,0.000
-5.440E-06,0.020
-5.430E-06,0.060
-5.420E-06,0.040
-5.410E-06,0.020
-5.400E-06,0.020
-5.390E-06,0.040
-5.380E-06,0.020
-5.370E-06,0.020
-5.360E-06,0.020
-5.350E-06,0.040
-5.340E-06,0.040
-5.330E-06,0.020
-5.320E-06,0.040
-5.310E-06,0.000
-5.300E-06,0.040
-5.290E-06,0.080
-5.280E-06,0.040
-5.270E-06,0.020
-5.260E-06,0.060
-5.250E-06,0.020
-5.240E-06,0.040
-5.230E-06,0.020
-5.220E-06,0.040
-5.210E-06,0.060
-5.200E-06,0.000
-5.190E-06,0.060
-5.180E-06,0.020
-5.170E-06,0.040
-5.160E-06,0.080
-5.150E-06,0.020
-5.140E-06,0.040
-5.130E-06,0.020
-5.120E-06,0.020
-5.110E-06,0.060
-5.100E-06,0.060
-5.090E-06,0.060
-5.080E-06,0.060
-5.070E-06,0.040
-5.060E-06,0.020
-5.050E-06,-0.020
-5.040E-06,-0.020
-5.030E-06,0.100
-5.020E-06,0.100
-5.010E-06,0.040
-5.000E-06,0.080
-4.990E-06,0.020
-4.980E-06,0.000
-4.970E-06,-0.020
-4.960E-06,0.140
-4.950E-06,0.100
-4.940E-06,0.000
-4.930E-06,0.080
-4.920E-06,-0.020
-4.910E-06,0.000
-4.900E-06,0.100
-4.890E-06,0.080
-4.880E-06,0.100
-4.870E-06,0.020
-4.860E-06,0.040
-4.850E-06,0.040
-4.840E-06,-0.080
-4.830E-06,0.100
-4.820E-06,0.140
-4.810E-06,-0.020
-4.800E-06,0.160
-4.790E-06,0.040
-4.780E-06,0.000
-4.770E-06,0.040
-4.760E-06,0.040
-4.750E-06,0.020
-4.740E-06,0.020
-4.730E-06,0.060
-4.720E-06,0.020
-4.710E-06,0.000
-4.700E-06,0.060
-4.690E-06,0.020
-4.680E-06,0.020
-4.670E-06,0.020
-4.660E-06,0.020
-4.650E-06,0.040
-4.640E-06,0.020
-4.630E-06,0.000
-4.620E-06,0.040
-4.610E-06,0.020
-4.600E-06,0.060
-4.590E-06,0.020
-4.580E-06,0.040
-4.570E-06,0.060
-4.560E-06,0.000
-4.550E-06,0.080
-4.540E-06,0.020
-4.530E-06,0.020
-4.520E-06,0.120
-4.510E-06,0.000
-4.500E-06,0.040
-4.490E-06,0.120
-4.480E-06,0.000
-4.470E-06,0.100
-4.460E-06,0.120
-4.450E-06,0.000
-4.440E-06,0.060
-4.430E-06,0.040
-4.420E-06,0.060
-4.410E-06,0.080
-4.400E-06,0.060
-4.390E-06,0.060
-4.380E-06,0.040
-4.370E-06,0.040
-4.360E-06,0.060
-4.350E-06,0.060
-4.340E-06,0.060
-4.330E-06,0.080
-4.320E-06,0.040
-4.310E-06,0.000
-4.300E-06,0.020
-4.290E-06,0.020
-4.280E-06,0.080
-4.270E-06,0.040
-4.260E-06,0.040
-4.250E-06,0.000
-4.240E-06,0.000
-4.230E-06,-0.020
-4.220E-06,0.000
-4.210E-06,0.080
-4.200E-06,0.060
-4.190E-06,0.040
-4.180E-06,0.040
-4.170E-06,0.040
-4.160E-06,-0.020
-4.150E-06,0.060
-4.140E-06,0.060
-4.130E-06,0.060
-4.120E-06,0.080
-4.110E-06,0.040
-4.100E-06,0.040
-4.090E-06,0.060
-4.080E-06,0.100
-4.070E-06,-0.060
-4.060E-06,0.280
-4.050E-06,0.020
-4.040E-06,0.060
-4.030E-06,0.120
-4.020E-06,0.000
-4.010E-06,0.000
-4.000E-06,-0.120
-3.990E-06,0.200
-3.980E-06,0.080
-3.970E-06,0.060
-3.960E-06,0.180
-3.950E-06,-0.080
-3.940E-06,-0.040
-3.930E-06,-0.020
-3.920E-06,0.040
-3.910E-06,0.140
-3.900E-06,0.080
-3.890E-06,0.020
-3.880E-06,0.020
-3.870E-06,-0.080
-3.860E-06,0.020
-3.850E-06,0.080
-3.840E-06,0.060
-3.830E-06,0.080
-3.820E-06,0.020
-3.810E-06,0.000
-3.800E-06,0.000
-3.790E-06,0.060
-3.780E-06,0.080
-3.770E-06,0.040
-3.760E-06,0.080
-3.750E-06,0.020
-3.740E-06,0.000
-3.730E-06,0.020
-3.720E-06,0.060
-3.710E-06,0.040
-3.700E-06,0.080
-3.690E-06,0.080
-3.680E-06,0.020
-3.670E-06,0.020
-3.660E-06,0.040
-3.650E-06,0.060
-3.640E-06,0.100
-3.630E-06,0.040
-3.620E-06,0.060
-3.610E-06,0.060
-3.600E-06,0.020
-3.590E-06,0.020
-3.580E-06,0.100
-3.570E-06,0.040
-3.560E-06,0.040
-3.550E-06,0.020
-3.540E-06,0.020
-3.530E-06,0.060
-3.520E-06,0.040
-3.510E-06,0.060
-3.500E-06,0.060
-3.490E-06,0.000
-3.480E-06,0.020
-3.470E-06,0.020
-3.460E-06,0.060
-3.450E-06,0.040
-3.440E-06,0.080
-3.430E-06,0.060
-3.420E-06,0.000
-3.410E-06,0.020
-3.400E-06,0.020
-3.390E-06,0.040
-3.380E-06,0.020
-3.370E-06,0.020
-3.360E-06,0.040
-3.350E-06,0.020
-3.340E-06,0.020
-3.330E-06,0.020
-3.320E-06,0.060
-3.310E-06,0.040
-3.300E-06,0.020
-3.290E-06,0.020
-3.280E-06,0.000
-3.270E-06,0.020
-3.260E-06,0.020
-3.250E-06,0.040
-3.240E-06,0.020
-3.230E-06,0.040
-3.220E-06,0.020
-3.210E-06,0.040
-3.200E-06,0.060
-3.190E-06,0.060
-3.180E-06,0.080
-3.170E-06,0.080
-3.160E-06,0.080
-3.150E-06,0.040
-3.140E-06,0.060
-3.130E-06,0.080
-3.120E-06,0.080
-3.110E-06,0.120
-3.100E-06,0.100
-3.090E-06,0.080
-3.080E-06,0.060
-3.070E-06,0.080
-3.060E-06,0.120
-3.050E-06,0.100
-3.040E-06,0.120
-3.030E-06,0.080
-3.020E-06,0.080
-3.010E-06,0.040
-3.000E-06,0.020
-2.990E-06,0.040
-2.980E-06,0.060
-2.970E-06,0.040
-2.960E-06,0.060
-2.950E-06,0.020
-2.940E-06,0.020
-2.930E-06,0.000
-2.920E-06,0.020
-2.910E-06,0.000
-2.900E-06,0.000
-2.890E-06,-0.020
-2.880E-06,-0.020
-2.870E-06,-0.060
-2.860E-06,-0.020
-2.850E-06,-0.020
-2.840E-06,0.060
-2.830E-06,0.060
-2.820E-06,0.060
-2.810E-06,0.120
-2.800E-06,0.120
-2.790E-06,0.100
-2.780E-06,0.100
-2.770E-06,0.100
-2.760E-06,0.120
-2.750E-06,0.120
-2.740E-06,0.160
-2.730E-06,0.120
-2.720E-06,0.140
-2.710E-06,0.140
-2.700E-06,0.120
-2.690E-06,0.140
-2.680E-06,0.100
-2.670E-06,0.100
-2.660E-06,0.060
-2.650E-06,0.080
-2.640E-06,0.080
-2.630E-06,0.040
-2.620E-06,0.100
-2.610E-06,0.140
-2.600E-06,0.180
-2.590E-06,0.200
-2.580E-06,0.220
-2.570E-06,0.180
-2.560E-06,0.120
-2.550E-06,0.120
-2.540E-06,0.100
-2.530E-06,0.160
-2.520E-06,0.180
-2.510E-06,0.200
-2.500E-06,0.260
-2.490E-06,0.220
-2.480E-06,0.220
-2.470E-06,0.200
-2.460E-06,0.180
-2.450E-06,0.240
-2.440E-06,0.300
-2.430E-06,0.300
-2.420E-06,0.300
-2.410E-06,0.240
-2.400E-06,0.220
-2.390E-06,0.220
-2.380E-06,0.260
-2.370E-06,0.260
-2.360E-06,0.280
-2.350E-06,0.280
-2.340E-06,0.220
-2.330E-06,0.240
-2.320E-06,0.240
-2.310E-06,0.240
-2.300E-06,0.300
-2.290E-06,0.300
-2.280E-06,0.300
-2.270E-06,0.280
-2.260E-06,0.240
-2.250E-06,0.220
-2.240E-06,0.200
-2.230E-06,0.240
-2.220E-06,0.260
-2.210E-06,0.260
-2.200E-06,0.220
-2.190E-06,0.180
-2.180E-06,0.120
-2.170E-06,0.140
-2.160E-06,0.120
-2.150E-06,0.160
-2.140E-06,0.180
-2.130E-06,0.200
-2.120E-06,0.260
-2.110E-06,0.280
-2.100E-06,0.300
-2.090E-06,0.360
-2.080E-06,0.320
-2.070E-06,0.300
-2.060E-06,0.320
-2.050E-06,0.320
-2.040E-06,0.260
-2.030E-06,0.300
-2.020E-06,0.260
-2.010E-06,0.060
-2.000E-06,0.100
-1.990E-06,0.200
-1.980E-06,0.160
-1.970E-06,0.260
-1.960E-06,0.240
-1.950E-06,0.260
-1.940E-06,0.200
-1.930E-06,0.300
-1.920E-06,0.320
-1.910E-06,0.260
-1.900E-06,0.240
-1.890E-06,0.120
-1.880E-06,0.100
-1.870E-06,0.140
-1.860E-06,0.180
-1.850E-06,0.200
-1.840E-06,0.180
-1.830E-06,0.100
-1.820E-06,0.020
-1.810E-06,-0.020
-1.800E-06,0.020
-1.790E-06,0.040
-1.780E-06,0.100
-1.770E-06,0.040
-1.760E-06,0.060
-1.750E-06,0.020
-1.740E-06,0.000
-1.730E-06,0.100
-1.720E-06,0.100
-1.710E-06,0.200
-1.700E-06,0.320
-1.690E-06,0.340
-1.680E-06,0.400
-1.670E-06,0.400
-1.660E-06,0.520
-1.650E-06,0.580
-1.640E-06,0.740
-1.630E-06,0.840
-1.620E-06,0.820
-1.610E-06,0.780
-1.600E-06,0.720
-1.590E-06,0.720
-1.580E-06,0.860
-1.570E-06,1.060
-1.560E-06,1.160
-1.550E-06,1.240
-1.540E-06,1.160
-1.530E-06,1.060
-1.520E-06,1.000
-1.510E-06,0.960
-1.500E-06,1.020
-1.490E-06,1.080
-1.480E-06,1.100
-1.470E-06,1.080
-1.460E-06,0.980
-1.450E-06,0.940
-1.440E-06,0.900
-1.430E-06,0.860
-1.420E-06,0.840
-1.410E-06,0.780
-1.400E-06,0.780
-1.390E-06,0.700
-1.380E-06,0.620
-1.370E-06,0.580
-1.360E-06,0.520
-1.350E-06,0.420
-1.340E-06,0.420
-1.330E-06,0.400
-1.320E-06,0.400
-1.310E-06,0.400
-1.300E-06,0.380
-1.290E-06,0.420
-1.280E-06,0.460
-1.270E-06,0.400
-1.260E-06,0.440
-1.250E-06,0.460
-1.240E-06,0.400
-1.230E-06,0.420
-1.220E-06,0.360
-1.210E-06,0.260
-1.200E-06,0.260
-1.190E-06,0.260
-1.180E-06,0.380
-1.170E-06,0.700
-1.160E-06,0.840
-1.150E-06,0.940
-1.140E-06,0.980
-1.130E-06,0.920
-1.120E-06,0.840
-1.110E-06,0.860
-1.100E-06,0.900
-1.090E-06,0.960
-1.080E-06,1.000
-1.070E-06,0.980
-1.060E-06,0.860
-1.050E-06,0.860
-1.040E-06,0.780
-1.030E-06,0.760
-1.020E-06,0.920
-1.010E-06,0.940
-1.000E-06,1.000
-9.900E-07,1.040
-9.800E-07,0.940
-9.700E-07,0.980
-9.600E-07,1.000
-9.500E-07,1.000
-9.400E-07,1.100
-9.300E-07,1.140
-9.200E-07,1.160
-9.100E-07,1.200
-9.000E-07,1.140
-8.900E-07,1.240
-8.800E-07,1.080
-8.700E-07,1.080
-8.600E-07,1.020
-8.500E-07,0.800
-8.400E-07,0.580
-8.300E-07,0.880
-8.200E-07,0.240
-8.100E-07,0.360
-8.000E-07,0.180
-7.900E-07,-0.260
-7.800E-07,0.020
-7.700E-07,-0.040
-7.600E-07,0.100
-7.500E-07,0.220
-7.400E-07,0.080
-7.300E-07,0.080
-7.200E-07,0.040
-7.100E-07,0.080
-7.000E-07,0.200
-6.900E-07,0.240
-6.800E-07,0.320
-6.700E-07,0.320
-6.600E-07,0.280
-6.500E-07,0.380
-6.400E-07,0.320
-6.300E-07,0.460
-6.200E-07,0.540
-6.100E-07,0.520
-6.000E-07,0.560
-5.900E-07,0.500
-5.800E-07,0.500
-5.700E-07,0.500
-5.600E-07,0.620
-5.500E-07,0.680
-5.400E-07,0.680
-5.300E-07,0.740
-5.200E-07,0.680
-5.100E-07,0.720
-5.000E-07,0.900
-4.900E-07,0.980
-4.800E-07,1.100
-4.700E-07,1.080
-4.600E-07,0.960
-4.500E-07,0.940
-4.400E-07,0.800
-4.300E-07,0.840
-4.200E-07,0.840
-4.100E-07,0.840
-4.000E-07,0.920
-3.900E-07,1.000
-3.800E-07,0.900
-3.700E-07,0.840
-3.600E-07,0.740
-3.500E-07,0.680
-3.400E-07,0.720
-3.300E-07,0.760
-3.200E-07,0.720
-3.100E-07,0.560
-3.000E-07,0.540
-2.900E-07,0.480
-2.800E-07,0.440
-2.700E-07,0.580
-2.600E-07,0.520
-2.500E-07,0.680
-2.400E-07,0.600
-2.300E-07,0.580
-2.200E-07,0.660
-2.100E-07,0.780
-2.000E-07,0.860
-1.900E-07,0.920
-1.800E-07,0.880
-1.700E-07,0.880
-1.600E-07,0.840
-1.500E-07,0.780
-1.400E-07,0.860
-1.300E-07,0.780
-1.200E-07,0.740
-1.100E-07,0.740
-1.000E-07,0.680
-9.000E-08,0.740
-8.000E-08,0.220
-7.000E-08,0.740
-6.000E-08,0.000
-5.000E-08,-0.160
-4.000E-08,0.580
-3.000E-08,-1.340
-2.000E-08,0.220
-1.000E-08,-1.760
0.000E+00,-2.120
1.000E-08,0.460
2.000E-08,-2.140
3.000E-08,0.500
4.000E-08,0.040
5.000E-08,-1.640
6.000E-08,-0.620
7.000E-08,-1.640
8.000E-08,-1.300
9.000E-08,0.160
1.000E-07,-0.140
1.100E-07,0.180
1.200E-07,0.340
1.300E-07,-0.320
1.400E-07,-0.100
1.500E-07,-0.240
1.600E-07,-0.200
1.700E-07,0.160
1.800E-07,0.420
1.900E-07,0.560
2.000E-07,0.760
2.100E-07,0.640
2.200E-07,0.100
2.300E-07,-0.180
2.400E-07,-0.320
2.500E-07,-0.320
2.600E-07,-0.060
2.700E-07,0.100
2.800E-07,0.100
2.900E-07,-0.020
3.000E-07,-0.020
3.100E-07,-0.220
3.200E-07,-0.020
3.300E-07,0.060
3.400E-07,0.160
3.500E-07,0.240
3.600E-07,0.260
3.700E-07,0.280
3.800E-07,0.440
3.900E-07,0.440
4.000E-07,0.440
4.100E-07,0.560
4.200E-07,0.380
4.300E-07,0.420
4.400E-07,0.340
4.500E-07,0.140
4.600E-07,0.100
4.700E-07,-0.020
4.800E-07,-0.240
4.900E-07,-0.300
5.000E-07,-0.520
5.100E-07,-0.580
5.200E-07,-0.540
5.300E-07,-0.560
5.400E-07,-0.480
5.500E-07,-0.360
5.600E-07,-0.320
5.700E-07,-0.360
5.800E-07,-0.480
5.900E-07,-0.480
6.000E-07,-0.120
6.100E-07,-0.280
6.200E-07,0.100
6.300E-07,-0.220
6.400E-07,-0.520
6.500E-07,-0.320
6.600E-07,-0.360
6.700E-07,-0.020
6.800E-07,0.100
6.900E-07,-0.160
7.000E-07,-0.160
7.100E-07,-0.400
7.200E-07,-0.420
7.300E-07,-0.100
7.400E-07,-0.140
7.500E-07,-0.200
7.600E-07,-0.220
7.700E-07,-0.700
7.800E-07,-0.600
7.900E-07,-0.780
8.000E-07,-0.400
8.100E-07,-0.640
8.200E-07,-0.300
8.300E-07,-0.980
8.400E-07,-1.160
8.500E-07,-1.700
8.600E-07,-1.780
8.700E-07,-1.460
8.800E-07,-1.240
8.900E-07,-0.640
9.000E-07,-0.800
9.100E-07,-0.640
9.200E-07,-1.080
9.300E-07,-1.440
9.400E-07,-1.520
9.500E-07,-1.980
9.600E-07,-1.720
9.700E-07,-1.960
9.800E-07,-2.280
9.900E-07,-2.500
1.000E-06,-2.660
1.010E-06,-2.660
1.020E-06,-2.660
1.030E-06,-2.660
1.040E-06,-2.660
1.050E-06,-2.660
1.060E-06,-2.660
1.070E-06,-2.660
1.080E-06,-2.640
1.090E-06,-2.640
1.100E-06,-2.660
1.110E-06,-2.660
1.120E-06,-2.660
1.130E-06,-2.660
1.140E-06,-2.660
1.150E-06,-2.660
1.160E-06,-2.660
1.170E-06,-2.660
1.180E-06,-2.660
1.190E-06,-2.660
1.200E-06,-2.680
1.210E-06,-2.660
1.220E-06,-2.660
1.230E-06,-2.640
1.240E-06,-2.660
1.250E-06,-2.660
1.260E-06,-2.680
1.270E-06,-2.660
1.280E-06,-2.660
1.290E-06,-2.640
1.300E-06,-2.660
1.310E-06,-2.660
1.320E-06,-2.660
1.330E-06,-2.660
1.340E-06,-2.640
1.350E-06,-2.640
1.360E-06,-2.640
1.370E-06,-2.640
1.380E-06,-2.640
1.390E-06,-2.640
1.400E-06,-2.640
1.410E-06,-2.640
1.420E-06,-2.640
1.430E-06,-2.660
1.440E-06,-2.660
1.450E-06,-2.660
1.460E-06,-2.660
1.470E-06,-2.680
1.480E-06,-2.660
1.490E-06,-2.660
1.500E-06,-2.640
1.510E-06,-2.640
1.520E-06,-2.640
1.530E-06,-2.640
1.540E-06,-2.660
1.550E-06,-2.660
1.560E-06,-2.660
1.570E-06,-2.640
1.580E-06,-2.640
1.590E-06,-2.660
1.600E-06,-2.660
1.610E-06,-2.660
1.620E-06,-2.660
1.630E-06,-2.660
1.640E-06,-2.660
1.650E-06,-2.660
1.660E-06,-2.660
1.670E-06,-2.620
1.680E-06,-2.460
1.690E-06,-2.240
1.700E-06,-2.020
1.710E-06,-1.880
1.720E-06,-1.660
1.730E-06,-1.480
1.740E-06,-1.220
1.750E-06,-1.000
1.760E-06,-0.940
1.770E-06,-0.560
1.780E-06,-0.560
1.790E-06,-0.420
1.800E-06,-0.340
1.810E-06,-0.500
1.820E-06,-0.420
1.830E-06,-0.500
1.840E-06,-0.640
1.850E-06,-0.640
1.860E-06,-0.780
1.870E-06,-0.940
1.880E-06,-1.000
1.890E-06,-1.180
1.900E-06,-1.240
1.910E-06,-1.260
1.920E-06,-1.340
1.930E-06,-1.380
1.940E-06,-1.460
1.950E-06,-1.520
1.960E-06,-1.560
1.970E-06,-1.580
1.980E-06,-1.640
1.990E-06,-1.700
2.000E-06,-1.760
2.010E-06,-1.880
2.020E-06,-2.000
2.030E-06,-2.160
2.040E-06,-2.320
2.050E-06,-2.460
2.060E-06,-2.580
2.070E-06,-2.640
2.080E-06,-2.640
2.090E-06,-2.640
2.100E-06,-2.640
2.110E-06,-2.660
2.120E-06,-2.660
2.130E-06,-2.660
2.140E-06,-2.660
2.150E-06,-2.660
2.160E-06,-2.660
2.170E-06,-2.660
2.180E-06,-2.680
2.190E-06,-2.660
2.200E-06,-2.660
2.210E-06,-2.640
2.220E-06,-2.660
2.230E-06,-2.660
2.240E-06,-2.680
2.250E-06,-2.680
2.260E-06,-2.680
2.270E-06,-2.680
2.280E-06,-2.680
2.290E-06,-2.660
2.300E-06,-2.660
2.310E-06,-2.660
2.320E-06,-2.660
2.330E-06,-2.640
2.340E-06,-2.640
2.350E-06,-2.640
2.360E-06,-2.660
2.370E-06,-2.660
2.380E-06,-2.660
2.390E-06,-2.660
2.400E-06,-2.660
2.410E-06,-2.660
2.420E-06,-2.660
2.430E-06,-2.640
2.440E-06,-2.640
2.450E-06,-2.640
2.460E-06,-2.660
2.470E-06,-2.660
2.480E-06,-2.680
2.490E-06,-2.680
2.500E-06,-2.660
2.510E-06,-2.660
2.520E-06,-2.660
2.530E-06,-2.660
2.540E-06,-2.660
2.550E-06,-2.660
2.560E-06,-2.660
2.570E-06,-2.660
2.580E-06,-2.680
2.590E-06,-2.660
2.600E-06,-2.660
2.610E-06,-2.660
2.620E-06,-2.660
2.630E-06,-2.660
2.640E-06,-2.680
2.650E-06,-2.680
2.660E-06,-2.680
2.670E-06,-2.660
2.680E-06,-2.660
2.690E-06,-2.660
2.700E-06,-2.660
2.710E-06,-2.660
2.720E-06,-2.660
2.730E-06,-2.660
2.740E-06,-2.660
2.750E-06,-2.660
2.760E-06,-2.660
2.770E-06,-2.660
2.780E-06,-2.660
2.790E-06,-2.660
2.800E-06,-2.660
2.810E-06,-2.660
2.820E-06,-2.660
2.830E-06,-2.680
2.840E-06,-2.660
2.850E-06,-2.660
2.860E-06,-2.640
2.870E-06,-2.660
2.880E-06,-2.660
2.890E-06,-2.660
2.900E-06,-2.640
2.910E-06,-2.640
2.920E-06,-2.640
2.930E-06,-2.640
2.940E-06,-2.660
2.950E-06,-2.660
2.960E-06,-2.660
2.970E-06,-2.620
2.980E-06,-2.580
2.990E-06,-2.560
3.000E-06,-2.500
3.010E-06,-2.460
3.020E-06,-2.480
3.030E-06,-2.620
3.040E-06,-2.660
3.050E-06,-2.660
3.060E-06,-2.660
3.070E-06,-2.660
3.080E-06,-2.660
3.090E-06,-2.660
3.100E-06,-2.660
3.110E-06,-2.600
3.120E-06,-2.220
3.130E-06,-1.900
3.140E-06,-1.700
3.150E-06,-1.560
3.160E-06,-1.520
3.170E-06,-1.520
3.180E-06,-1.440
3.190E-06,-1.440
3.200E-06,-1.360
3.210E-06,-1.380
3.220E-06,-1.540
3.230E-06,-1.860
3.240E-06,-2.260
3.250E-06,-2.540
3.260E-06,-2.640
3.270E-06,-2.660
3.280E-06,-2.660
3.290E-06,-2.680
3.300E-06,-2.680
3.310E-06,-2.680
3.320E-06,-2.680
