mediciones/Mediciones filtradas (saque las feas)/5-27/-30/WaveData5072.csv

#timebase=2000000(ps)
,#voltbase=100000(mv/100)
#size=4000
-8.400E-06,0.004
-8.390E-06,0.004
-8.380E-06,0.000
-8.370E-06,0.004
-8.360E-06,0.004
-8.350E-06,0.004
-8.340E-06,0.004
-8.330E-06,0.004
-8.320E-06,0.004
-8.310E-06,0.000
-8.300E-06,0.004
-8.290E-06,0.000
-8.280E-06,-0.004
-8.270E-06,0.004
-8.260E-06,0.000
-8.250E-06,0.004
-8.240E-06,0.000
-8.230E-06,0.000
-8.220E-06,0.004
-8.210E-06,0.004
-8.200E-06,0.004
-8.190E-06,0.004
-8.180E-06,0.000
-8.170E-06,0.004
-8.160E-06,0.000
-8.150E-06,0.004
-8.140E-06,0.008
-8.130E-06,0.008
-8.120E-06,0.000
-8.110E-06,0.000
-8.100E-06,0.004
-8.090E-06,0.000
-8.080E-06,0.004
-8.070E-06,0.000
-8.060E-06,0.004
-8.050E-06,0.000
-8.040E-06,-0.004
-8.030E-06,0.004
-8.020E-06,0.004
-8.010E-06,0.004
-8.000E-06,0.004
-7.990E-06,0.004
-7.980E-06,0.004
-7.970E-06,0.004
-7.960E-06,0.004
-7.950E-06,0.000
-7.940E-06,0.004
-7.930E-06,-0.004
-7.920E-06,0.000
-7.910E-06,0.004
-7.900E-06,0.004
-7.890E-06,0.004
-7.880E-06,0.004
-7.870E-06,0.004
-7.860E-06,0.000
-7.850E-06,0.000
-7.840E-06,0.004
-7.830E-06,0.000
-7.820E-06,0.004
-7.810E-06,0.000
-7.800E-06,0.004
-7.790E-06,0.000
-7.780E-06,0.004
-7.770E-06,0.004
-7.760E-06,0.004
-7.750E-06,0.000
-7.740E-06,0.004
-7.730E-06,0.004
-7.720E-06,0.008
-7.710E-06,0.000
-7.700E-06,0.004
-7.690E-06,0.004
-7.680E-06,0.004
-7.670E-06,0.008
-7.660E-06,0.000
-7.650E-06,0.000
-7.640E-06,0.004
-7.630E-06,-0.004
-7.620E-06,0.004
-7.610E-06,0.004
-7.600E-06,0.004
-7.590E-06,0.004
-7.580E-06,0.004
-7.570E-06,0.000
-7.560E-06,0.000
-7.550E-06,0.004
-7.540E-06,0.000
-7.530E-06,0.000
-7.520E-06,0.000
-7.510E-06,0.000
-7.500E-06,0.004
-7.490E-06,0.008
-7.480E-06,0.000
-7.470E-06,0.000
-7.460E-06,0.004
-7.450E-06,0.004
-7.440E-06,0.008
-7.430E-06,0.008
-7.420E-06,0.008
-7.410E-06,0.008
-7.400E-06,-0.004
-7.390E-06,0.004
-7.380E-06,0.004
-7.370E-06,0.004
-7.360E-06,0.008
-7.350E-06,0.004
-7.340E-06,0.004
-7.330E-06,0.000
-7.320E-06,0.000
-7.310E-06,0.004
-7.300E-06,0.004
-7.290E-06,0.004
-7.280E-06,0.004
-7.270E-06,0.008
-7.260E-06,0.000
-7.250E-06,0.000
-7.240E-06,0.004
-7.230E-06,0.008
-7.220E-06,0.008
-7.210E-06,-0.004
-7.200E-06,0.000
-7.190E-06,0.000
-7.180E-06,0.000
-7.170E-06,0.004
-7.160E-06,0.008
-7.150E-06,-0.004
-7.140E-06,0.000
-7.130E-06,0.004
-7.120E-06,0.008
-7.110E-06,0.000
-7.100E-06,0.004
-7.090E-06,0.004
-7.080E-06,0.004
-7.070E-06,0.004
-7.060E-06,0.004
-7.050E-06,0.004
-7.040E-06,0.004
-7.030E-06,0.004
-7.020E-06,0.000
-7.010E-06,0.008
-7.000E-06,0.008
-6.990E-06,0.000
-6.980E-06,0.000
-6.970E-06,0.004
-6.960E-06,0.000
-6.950E-06,0.000
-6.940E-06,0.004
-6.930E-06,-0.004
-6.920E-06,0.004
-6.910E-06,0.008
-6.900E-06,0.000
-6.890E-06,0.000
-6.880E-06,0.004
-6.870E-06,0.004
-6.860E-06,0.004
-6.850E-06,0.004
-6.840E-06,0.004
-6.830E-06,0.004
-6.820E-06,0.004
-6.810E-06,0.008
-6.800E-06,0.000
-6.790E-06,-0.004
-6.780E-06,0.004
-6.770E-06,0.000
-6.760E-06,0.004
-6.750E-06,0.004
-6.740E-06,0.004
-6.730E-06,0.004
-6.720E-06,0.004
-6.710E-06,0.004
-6.700E-06,0.004
-6.690E-06,0.000
-6.680E-06,0.000
-6.670E-06,0.004
-6.660E-06,0.000
-6.650E-06,0.000
-6.640E-06,0.004
-6.630E-06,0.000
-6.620E-06,0.004
-6.610E-06,0.000
-6.600E-06,0.004
-6.590E-06,0.000
-6.580E-06,0.000
-6.570E-06,0.004
-6.560E-06,0.000
-6.550E-06,0.004
-6.540E-06,0.004
-6.530E-06,0.004
-6.520E-06,0.004
-6.510E-06,0.000
-6.500E-06,0.004
-6.490E-06,0.004
-6.480E-06,0.004
-6.470E-06,0.000
-6.460E-06,0.004
-6.450E-06,0.004
-6.440E-06,0.004
-6.430E-06,0.004
-6.420E-06,0.000
-6.410E-06,0.004
-6.400E-06,0.004
-6.390E-06,0.004
-6.380E-06,0.004
-6.370E-06,0.004
-6.360E-06,0.004
-6.350E-06,0.004
-6.340E-06,0.004
-6.330E-06,0.004
-6.320E-06,0.004
-6.310E-06,0.004
-6.300E-06,0.004
-6.290E-06,0.004
-6.280E-06,0.000
-6.270E-06,0.004
-6.260E-06,0.000
-6.250E-06,0.004
-6.240E-06,0.000
-6.230E-06,0.000
-6.220E-06,0.000
-6.210E-06,-0.004
-6.200E-06,0.004
-6.190E-06,0.004
-6.180E-06,0.004
-6.170E-06,0.004
-6.160E-06,0.004
-6.150E-06,0.004
-6.140E-06,0.000
-6.130E-06,0.000
-6.120E-06,0.000
-6.110E-06,0.004
-6.100E-06,0.000
-6.090E-06,-0.004
-6.080E-06,0.004
-6.070E-06,0.004
-6.060E-06,0.004
-6.050E-06,0.000
-6.040E-06,0.004
-6.030E-06,0.008
-6.020E-06,0.008
-6.010E-06,0.008
-6.000E-06,0.000
-5.990E-06,0.004
-5.980E-06,0.004
-5.970E-06,0.004
-5.960E-06,0.004
-5.950E-06,0.004
-5.940E-06,0.000
-5.930E-06,0.000
-5.920E-06,0.004
-5.910E-06,0.004
-5.900E-06,0.004
-5.890E-06,0.008
-5.880E-06,0.008
-5.870E-06,0.000
-5.860E-06,0.004
-5.850E-06,0.004
-5.840E-06,0.000
-5.830E-06,0.000
-5.820E-06,0.004
-5.810E-06,0.004
-5.800E-06,0.004
-5.790E-06,0.004
-5.780E-06,0.004
-5.770E-06,0.008
-5.760E-06,0.000
-5.750E-06,0.000
-5.740E-06,0.004
-5.730E-06,0.000
-5.720E-06,0.004
-5.710E-06,0.004
-5.700E-06,0.004
-5.690E-06,0.004
-5.680E-06,0.000
-5.670E-06,0.000
-5.660E-06,0.000
-5.650E-06,0.004
-5.640E-06,0.004
-5.630E-06,0.004
-5.620E-06,0.000
-5.610E-06,0.000
-5.600E-06,0.000
-5.590E-06,0.000
-5.580E-06,0.004
-5.570E-06,0.004
-5.560E-06,0.004
-5.550E-06,0.008
-5.540E-06,0.000
-5.530E-06,0.000
-5.520E-06,0.000
-5.510E-06,0.000
-5.500E-06,0.000
-5.490E-06,0.004
-5.480E-06,0.004
-5.470E-06,0.004
-5.460E-06,0.004
-5.450E-06,0.004
-5.440E-06,0.004
-5.430E-06,0.004
-5.420E-06,0.000
-5.410E-06,0.004
-5.400E-06,0.000
-5.390E-06,0.000
-5.380E-06,0.004
-5.370E-06,0.004
-5.360E-06,0.000
-5.350E-06,0.004
-5.340E-06,0.004
-5.330E-06,0.004
-5.320E-06,0.004
-5.310E-06,0.004
-5.300E-06,0.004
-5.290E-06,0.000
-5.280E-06,0.004
-5.270E-06,0.000
-5.260E-06,0.000
-5.250E-06,0.004
-5.240E-06,0.008
-5.230E-06,0.004
-5.220E-06,0.000
-5.210E-06,0.004
-5.200E-06,0.004
-5.190E-06,0.004
-5.180E-06,0.004
-5.170E-06,0.004
-5.160E-06,0.004
-5.150E-06,0.008
-5.140E-06,0.004
-5.130E-06,0.004
-5.120E-06,0.004
-5.110E-06,0.004
-5.100E-06,0.000
-5.090E-06,0.000
-5.080E-06,0.000
-5.070E-06,0.004
-5.060E-06,0.000
-5.050E-06,0.000
-5.040E-06,0.004
-5.030E-06,0.000
-5.020E-06,0.004
-5.010E-06,0.004
-5.000E-06,0.004
-4.990E-06,0.004
-4.980E-06,0.004
-4.970E-06,0.000
-4.960E-06,0.004
-4.950E-06,0.000
-4.940E-06,0.004
-4.930E-06,0.000
-4.920E-06,0.004
-4.910E-06,-0.004
-4.900E-06,0.000
-4.890E-06,0.004
-4.880E-06,0.004
-4.870E-06,0.004
-4.860E-06,0.004
-4.850E-06,0.000
-4.840E-06,0.004
-4.830E-06,0.004
-4.820E-06,0.000
-4.810E-06,0.000
-4.800E-06,0.000
-4.790E-06,0.000
-4.780E-06,0.000
-4.770E-06,0.004
-4.760E-06,0.000
-4.750E-06,0.004
-4.740E-06,0.000
-4.730E-06,0.004
-4.720E-06,0.004
-4.710E-06,0.000
-4.700E-06,0.004
-4.690E-06,0.000
-4.680E-06,0.000
-4.670E-06,0.000
-4.660E-06,0.000
-4.650E-06,0.004
-4.640E-06,0.004
-4.630E-06,0.008
-4.620E-06,0.008
-4.610E-06,0.008
-4.600E-06,0.000
-4.590E-06,0.000
-4.580E-06,0.004
-4.570E-06,0.004
-4.560E-06,0.008
-4.550E-06,0.008
-4.540E-06,0.008
-4.530E-06,-0.004
-4.520E-06,0.000
-4.510E-06,0.004
-4.500E-06,0.000
-4.490E-06,0.000
-4.480E-06,0.004
-4.470E-06,0.004
-4.460E-06,0.000
-4.450E-06,0.000
-4.440E-06,0.000
-4.430E-06,0.008
-4.420E-06,0.004
-4.410E-06,0.008
-4.400E-06,0.008
-4.390E-06,0.008
-4.380E-06,0.008
-4.370E-06,0.000
-4.360E-06,0.004
-4.350E-06,0.004
-4.340E-06,0.004
-4.330E-06,0.008
-4.320E-06,0.008
-4.310E-06,-0.004
-4.300E-06,0.000
-4.290E-06,0.004
-4.280E-06,0.004
-4.270E-06,0.004
-4.260E-06,0.004
-4.250E-06,0.004
-4.240E-06,0.008
-4.230E-06,0.000
-4.220E-06,-0.004
-4.210E-06,0.000
-4.200E-06,0.000
-4.190E-06,0.004
-4.180E-06,0.004
-4.170E-06,0.004
-4.160E-06,0.004
-4.150E-06,0.004
-4.140E-06,0.004
-4.130E-06,0.004
-4.120E-06,0.008
-4.110E-06,0.012
-4.100E-06,0.036
-4.090E-06,0.072
-4.080E-06,0.088
-4.070E-06,0.080
-4.060E-06,0.016
-4.050E-06,-0.040
-4.040E-06,-0.104
-4.030E-06,-0.104
-4.020E-06,-0.052
-4.010E-06,0.016
-4.000E-06,0.064
-3.990E-06,0.040
-3.980E-06,0.004
-3.970E-06,-0.028
-3.960E-06,-0.028
-3.950E-06,0.000
-3.940E-06,0.052
-3.930E-06,0.060
-3.920E-06,0.048
-3.910E-06,0.000
-3.900E-06,-0.028
-3.890E-06,-0.040
-3.880E-06,-0.024
-3.870E-06,0.012
-3.860E-06,0.028
-3.850E-06,0.020
-3.840E-06,0.008
-3.830E-06,0.000
-3.820E-06,0.004
-3.810E-06,0.024
-3.800E-06,0.032
-3.790E-06,0.024
-3.780E-06,0.016
-3.770E-06,-0.004
-3.760E-06,-0.012
-3.750E-06,-0.008
-3.740E-06,-0.008
-3.730E-06,-0.008
-3.720E-06,-0.008
-3.710E-06,-0.008
-3.700E-06,-0.016
-3.690E-06,-0.012
-3.680E-06,0.000
-3.670E-06,0.008
-3.660E-06,0.020
-3.650E-06,0.028
-3.640E-06,0.020
-3.630E-06,0.004
-3.620E-06,0.004
-3.610E-06,0.008
-3.600E-06,0.008
-3.590E-06,0.008
-3.580E-06,0.004
-3.570E-06,-0.004
-3.560E-06,-0.004
-3.550E-06,0.000
-3.540E-06,0.008
-3.530E-06,0.012
-3.520E-06,0.012
-3.510E-06,0.008
-3.500E-06,0.000
-3.490E-06,0.000
-3.480E-06,0.004
-3.470E-06,0.012
-3.460E-06,0.004
-3.450E-06,0.000
-3.440E-06,0.004
-3.430E-06,-0.008
-3.420E-06,-0.008
-3.410E-06,0.004
-3.400E-06,-0.004
-3.390E-06,0.008
-3.380E-06,0.000
-3.370E-06,0.000
-3.360E-06,0.000
-3.350E-06,0.004
-3.340E-06,0.008
-3.330E-06,0.012
-3.320E-06,0.012
-3.310E-06,0.000
-3.300E-06,0.000
-3.290E-06,0.008
-3.280E-06,0.016
-3.270E-06,0.016
-3.260E-06,0.012
-3.250E-06,0.000
-3.240E-06,0.000
-3.230E-06,0.000
-3.220E-06,0.000
-3.210E-06,0.016
-3.200E-06,0.008
-3.190E-06,0.004
-3.180E-06,-0.008
-3.170E-06,-0.008
-3.160E-06,-0.008
-3.150E-06,0.000
-3.140E-06,0.012
-3.130E-06,0.012
-3.120E-06,0.008
-3.110E-06,-0.004
-3.100E-06,0.000
-3.090E-06,0.004
-3.080E-06,0.004
-3.070E-06,0.008
-3.060E-06,0.004
-3.050E-06,-0.004
-3.040E-06,-0.004
-3.030E-06,0.000
-3.020E-06,0.004
-3.010E-06,0.012
-3.000E-06,0.012
-2.990E-06,0.004
-2.980E-06,0.004
-2.970E-06,0.008
-2.960E-06,0.012
-2.950E-06,0.012
-2.940E-06,0.004
-2.930E-06,-0.008
-2.920E-06,-0.008
-2.910E-06,-0.008
-2.900E-06,0.000
-2.890E-06,0.016
-2.880E-06,0.008
-2.870E-06,0.008
-2.860E-06,0.004
-2.850E-06,0.000
-2.840E-06,-0.004
-2.830E-06,0.000
-2.820E-06,0.008
-2.810E-06,0.008
-2.800E-06,0.008
-2.790E-06,0.004
-2.780E-06,0.004
-2.770E-06,0.004
-2.760E-06,0.004
-2.750E-06,0.004
-2.740E-06,0.000
-2.730E-06,0.000
-2.720E-06,0.000
-2.710E-06,0.008
-2.700E-06,0.012
-2.690E-06,0.024
-2.680E-06,0.020
-2.670E-06,0.012
-2.660E-06,0.012
-2.650E-06,0.004
-2.640E-06,0.000
-2.630E-06,-0.016
-2.620E-06,-0.024
-2.610E-06,-0.016
-2.600E-06,-0.008
-2.590E-06,0.008
-2.580E-06,0.016
-2.570E-06,0.020
-2.560E-06,0.016
-2.550E-06,0.008
-2.540E-06,-0.004
-2.530E-06,0.000
-2.520E-06,-0.004
-2.510E-06,-0.004
-2.500E-06,0.004
-2.490E-06,0.004
-2.480E-06,0.016
-2.470E-06,0.020
-2.460E-06,0.028
-2.450E-06,0.040
-2.440E-06,0.036
-2.430E-06,0.036
-2.420E-06,0.012
-2.410E-06,-0.036
-2.400E-06,-0.052
-2.390E-06,-0.056
-2.380E-06,-0.016
-2.370E-06,0.020
-2.360E-06,0.024
-2.350E-06,0.024
-2.340E-06,0.004
-2.330E-06,-0.008
-2.320E-06,-0.012
-2.310E-06,-0.008
-2.300E-06,0.000
-2.290E-06,0.012
-2.280E-06,0.008
-2.270E-06,0.008
-2.260E-06,-0.004
-2.250E-06,0.004
-2.240E-06,0.008
-2.230E-06,0.012
-2.220E-06,0.008
-2.210E-06,0.000
-2.200E-06,0.008
-2.190E-06,0.008
-2.180E-06,0.012
-2.170E-06,0.020
-2.160E-06,0.028
-2.150E-06,0.020
-2.140E-06,0.024
-2.130E-06,0.012
-2.120E-06,0.008
-2.110E-06,0.004
-2.100E-06,-0.008
-2.090E-06,-0.016
-2.080E-06,-0.020
-2.070E-06,-0.016
-2.060E-06,-0.004
-2.050E-06,0.004
-2.040E-06,0.016
-2.030E-06,0.024
-2.020E-06,0.032
-2.010E-06,0.036
-2.000E-06,0.040
-1.990E-06,0.048
-1.980E-06,0.044
-1.970E-06,0.048
-1.960E-06,0.048
-1.950E-06,0.044
-1.940E-06,0.028
-1.930E-06,0.000
-1.920E-06,-0.040
-1.910E-06,-0.076
-1.900E-06,-0.080
-1.890E-06,-0.048
-1.880E-06,0.012
-1.870E-06,0.044
-1.860E-06,0.048
-1.850E-06,0.012
-1.840E-06,-0.040
-1.830E-06,-0.052
-1.820E-06,-0.036
-1.810E-06,0.024
-1.800E-06,0.088
-1.790E-06,0.120
-1.780E-06,0.120
-1.770E-06,0.084
-1.760E-06,0.020
-1.750E-06,-0.040
-1.740E-06,-0.108
-1.730E-06,-0.116
-1.720E-06,-0.084
-1.710E-06,-0.024
-1.700E-06,0.016
-1.690E-06,0.032
-1.680E-06,0.020
-1.670E-06,0.000
-1.660E-06,-0.024
-1.650E-06,-0.040
-1.640E-06,-0.024
-1.630E-06,-0.004
-1.620E-06,0.024
-1.610E-06,0.032
-1.600E-06,0.024
-1.590E-06,0.020
-1.580E-06,0.012
-1.570E-06,0.012
-1.560E-06,0.032
-1.550E-06,0.048
-1.540E-06,0.052
-1.530E-06,0.052
-1.520E-06,0.032
-1.510E-06,-0.008
-1.500E-06,-0.132
-1.490E-06,-0.168
-1.480E-06,-0.152
-1.470E-06,-0.060
-1.460E-06,0.072
-1.450E-06,0.088
-1.440E-06,0.080
-1.430E-06,0.012
-1.420E-06,-0.036
-1.410E-06,-0.076
-1.400E-06,-0.056
-1.390E-06,0.008
-1.380E-06,0.060
-1.370E-06,0.052
-1.360E-06,0.028
-1.350E-06,-0.016
-1.340E-06,-0.028
-1.330E-06,-0.036
-1.320E-06,-0.008
-1.310E-06,0.008
-1.300E-06,0.004
-1.290E-06,0.004
-1.280E-06,-0.004
-1.270E-06,-0.004
-1.260E-06,0.008
-1.250E-06,0.024
-1.240E-06,0.028
-1.230E-06,0.024
-1.220E-06,-0.008
-1.210E-06,-0.016
-1.200E-06,-0.012
-1.190E-06,0.008
-1.180E-06,0.016
-1.170E-06,0.012
-1.160E-06,0.004
-1.150E-06,0.000
-1.140E-06,-0.004
-1.130E-06,0.000
-1.120E-06,0.012
-1.110E-06,0.020
-1.100E-06,0.024
-1.090E-06,0.024
-1.080E-06,0.008
-1.070E-06,-0.008
-1.060E-06,-0.024
-1.050E-06,-0.028
-1.040E-06,-0.004
-1.030E-06,0.024
-1.020E-06,0.044
-1.010E-06,0.056
-1.000E-06,0.036
-9.900E-07,0.012
-9.800E-07,-0.004
-9.700E-07,0.000
-9.600E-07,0.020
-9.500E-07,0.024
-9.400E-07,0.020
-9.300E-07,-0.008
-9.200E-07,-0.036
-9.100E-07,-0.052
-9.000E-07,-0.036
-8.900E-07,0.004
-8.800E-07,0.040
-8.700E-07,0.076
-8.600E-07,0.076
-8.500E-07,0.056
-8.400E-07,0.020
-8.300E-07,-0.004
-8.200E-07,-0.004
-8.100E-07,0.012
-8.000E-07,0.040
-7.900E-07,0.044
-7.800E-07,0.028
-7.700E-07,-0.020
-7.600E-07,-0.056
-7.500E-07,-0.072
-7.400E-07,-0.056
-7.300E-07,-0.020
-7.200E-07,0.012
-7.100E-07,0.036
-7.000E-07,0.032
-6.900E-07,0.004
-6.800E-07,-0.024
-6.700E-07,-0.036
-6.600E-07,-0.028
-6.500E-07,0.004
-6.400E-07,0.036
-6.300E-07,0.028
-6.200E-07,0.008
-6.100E-07,-0.024
-6.000E-07,-0.040
-5.900E-07,-0.044
-5.800E-07,-0.012
-5.700E-07,0.024
-5.600E-07,0.048
-5.500E-07,0.052
-5.400E-07,0.020
-5.300E-07,-0.008
-5.200E-07,-0.028
-5.100E-07,-0.028
-5.000E-07,-0.004
-4.900E-07,0.000
-4.800E-07,0.000
-4.700E-07,-0.008
-4.600E-07,-0.012
-4.500E-07,-0.008
-4.400E-07,-0.004
-4.300E-07,0.008
-4.200E-07,0.012
-4.100E-07,0.012
-4.000E-07,0.008
-3.900E-07,-0.004
-3.800E-07,0.004
-3.700E-07,0.008
-3.600E-07,0.020
-3.500E-07,0.020
-3.400E-07,0.024
-3.300E-07,0.032
-3.200E-07,0.028
-3.100E-07,0.040
-3.000E-07,0.040
-2.900E-07,0.036
-2.800E-07,0.028
-2.700E-07,0.004
-2.600E-07,-0.004
-2.500E-07,-0.012
-2.400E-07,-0.008
-2.300E-07,0.000
-2.200E-07,0.008
-2.100E-07,0.024
-2.000E-07,0.016
-1.900E-07,0.024
-1.800E-07,0.032
-1.700E-07,0.044
-1.600E-07,0.056
-1.500E-07,0.072
-1.400E-07,0.076
-1.300E-07,0.060
-1.200E-07,0.012
-1.100E-07,-0.036
-1.000E-07,-0.040
-9.000E-08,-0.004
-8.000E-08,0.052
-7.000E-08,0.072
-6.000E-08,-0.056
-5.000E-08,-0.144
-4.000E-08,-0.172
-3.000E-08,-0.072
-2.000E-08,0.056
-1.000E-08,0.192
0.000E+00,0.224
1.000E-08,0.028
2.000E-08,-0.196
3.000E-08,-0.348
4.000E-08,-0.336
5.000E-08,-0.132
6.000E-08,0.104
7.000E-08,0.228
8.000E-08,0.200
9.000E-08,0.064
1.000E-07,-0.084
1.100E-07,-0.164
1.200E-07,-0.108
1.300E-07,0.000
1.400E-07,0.092
1.500E-07,0.096
1.600E-07,0.044
1.700E-07,-0.008
1.800E-07,-0.044
1.900E-07,-0.036
2.000E-07,0.000
2.100E-07,0.016
2.200E-07,0.032
2.300E-07,0.024
2.400E-07,0.004
2.500E-07,-0.004
2.600E-07,-0.008
2.700E-07,0.000
2.800E-07,0.012
2.900E-07,0.024
3.000E-07,0.008
3.100E-07,0.008
3.200E-07,0.004
3.300E-07,-0.004
3.400E-07,-0.004
3.500E-07,0.008
3.600E-07,0.012
3.700E-07,0.028
3.800E-07,0.024
3.900E-07,0.020
4.000E-07,0.020
4.100E-07,0.016
4.200E-07,0.012
4.300E-07,0.020
4.400E-07,0.036
4.500E-07,0.044
4.600E-07,0.056
4.700E-07,0.056
4.800E-07,0.060
4.900E-07,0.056
5.000E-07,0.056
5.100E-07,0.056
5.200E-07,0.064
5.300E-07,0.056
5.400E-07,0.044
5.500E-07,0.008
5.600E-07,-0.004
5.700E-07,-0.128
5.800E-07,-0.188
5.900E-07,-0.216
6.000E-07,-0.128
6.100E-07,-0.012
6.200E-07,0.092
6.300E-07,0.148
6.400E-07,0.124
6.500E-07,0.060
6.600E-07,-0.060
6.700E-07,-0.104
6.800E-07,-0.080
6.900E-07,-0.036
7.000E-07,0.012
7.100E-07,0.000
7.200E-07,-0.060
7.300E-07,-0.080
7.400E-07,-0.076
7.500E-07,-0.012
7.600E-07,0.044
7.700E-07,0.060
7.800E-07,0.044
7.900E-07,0.008
8.000E-07,-0.032
8.100E-07,-0.040
8.200E-07,-0.032
8.300E-07,-0.004
8.400E-07,0.036
8.500E-07,0.044
8.600E-07,0.024
8.700E-07,-0.004
8.800E-07,-0.012
8.900E-07,-0.020
9.000E-07,-0.008
9.100E-07,0.004
9.200E-07,0.020
9.300E-07,0.024
9.400E-07,0.020
9.500E-07,0.008
9.600E-07,0.008
9.700E-07,0.004
9.800E-07,0.004
9.900E-07,0.012
1.000E-06,0.020
1.010E-06,0.024
1.020E-06,0.020
1.030E-06,0.020
1.040E-06,0.020
1.050E-06,0.020
1.060E-06,0.016
1.070E-06,0.020
1.080E-06,0.032
1.090E-06,0.052
1.100E-06,0.064
1.110E-06,0.068
1.120E-06,0.064
1.130E-06,0.064
1.140E-06,0.068
1.150E-06,0.072
1.160E-06,0.092
1.170E-06,0.100
1.180E-06,0.112
1.190E-06,0.124
1.200E-06,0.120
1.210E-06,0.092
1.220E-06,0.092
1.230E-06,0.080
1.240E-06,0.068
1.250E-06,0.032
1.260E-06,-0.048
1.270E-06,-0.152
1.280E-06,-0.200
1.290E-06,-0.144
1.300E-06,-0.024
1.310E-06,0.128
1.320E-06,0.216
1.330E-06,0.080
1.340E-06,-0.120
1.350E-06,-0.316
1.360E-06,-0.276
1.370E-06,-0.188
1.380E-06,0.008
1.390E-06,0.096
1.400E-06,0.128
1.410E-06,0.000
1.420E-06,-0.088
1.430E-06,-0.144
1.440E-06,-0.080
1.450E-06,0.052
1.460E-06,0.124
1.470E-06,0.120
1.480E-06,0.036
1.490E-06,-0.024
1.500E-06,-0.060
1.510E-06,-0.052
1.520E-06,-0.004
1.530E-06,0.012
1.540E-06,0.040
1.550E-06,0.032
1.560E-06,-0.012
1.570E-06,-0.088
1.580E-06,-0.072
1.590E-06,-0.096
1.600E-06,-0.056
1.610E-06,0.016
1.620E-06,0.072
1.630E-06,0.104
1.640E-06,0.096
1.650E-06,0.048
1.660E-06,0.012
1.670E-06,-0.004
1.680E-06,-0.008
1.690E-06,0.024
1.700E-06,0.028
1.710E-06,0.044
1.720E-06,0.060
1.730E-06,0.044
1.740E-06,0.020
1.750E-06,-0.008
1.760E-06,-0.040
1.770E-06,-0.076
1.780E-06,-0.076
1.790E-06,-0.028
1.800E-06,0.020
1.810E-06,0.080
1.820E-06,0.088
1.830E-06,0.044
1.840E-06,0.020
1.850E-06,-0.052
1.860E-06,-0.064
1.870E-06,-0.052
1.880E-06,-0.004
1.890E-06,0.036
1.900E-06,0.060
1.910E-06,0.056
1.920E-06,0.060
1.930E-06,0.048
1.940E-06,0.000
1.950E-06,-0.028
1.960E-06,-0.064
1.970E-06,-0.060
1.980E-06,-0.036
1.990E-06,0.016
2.000E-06,0.032
2.010E-06,0.064
2.020E-06,0.072
2.030E-06,0.076
2.040E-06,0.080
2.050E-06,0.092
2.060E-06,0.100
2.070E-06,0.100
2.080E-06,0.072
2.090E-06,0.028
2.100E-06,-0.024
2.110E-06,-0.064
2.120E-06,-0.104
2.130E-06,-0.112
2.140E-06,-0.120
2.150E-06,-0.100
2.160E-06,-0.076
2.170E-06,-0.028
2.180E-06,-0.004
2.190E-06,0.008
2.200E-06,-0.016
2.210E-06,-0.012
2.220E-06,-0.012
2.230E-06,-0.008
2.240E-06,-0.004
2.250E-06,0.004
2.260E-06,0.008
2.270E-06,0.008
2.280E-06,0.020
2.290E-06,0.024
2.300E-06,0.044
2.310E-06,0.060
2.320E-06,0.072
2.330E-06,0.056
2.340E-06,0.044
2.350E-06,0.032
2.360E-06,0.024
2.370E-06,0.028
2.380E-06,0.024
2.390E-06,0.016
2.400E-06,0.016
2.410E-06,0.012
2.420E-06,0.012
2.430E-06,0.040
2.440E-06,0.060
2.450E-06,0.084
2.460E-06,0.088
2.470E-06,0.092
2.480E-06,0.088
2.490E-06,0.076
2.500E-06,0.052
2.510E-06,0.044
2.520E-06,0.032
2.530E-06,0.008
2.540E-06,0.008
2.550E-06,0.016
2.560E-06,0.004
2.570E-06,-0.008
2.580E-06,-0.012
2.590E-06,-0.016
2.600E-06,-0.024
2.610E-06,0.000
2.620E-06,0.000
2.630E-06,0.008
2.640E-06,0.056
2.650E-06,0.088
2.660E-06,0.100
2.670E-06,0.120
2.680E-06,0.144
2.690E-06,0.152
2.700E-06,0.140
2.710E-06,0.140
2.720E-06,0.144
2.730E-06,0.136
2.740E-06,0.136
2.750E-06,0.128
2.760E-06,0.120
2.770E-06,0.100
2.780E-06,0.072
2.790E-06,0.052
2.800E-06,0.036
2.810E-06,0.032
2.820E-06,0.040
2.830E-06,0.068
2.840E-06,0.108
2.850E-06,0.144
2.860E-06,0.120
2.870E-06,0.044
2.880E-06,-0.064
2.890E-06,-0.032
2.900E-06,-0.012
2.910E-06,0.000
2.920E-06,-0.004
2.930E-06,-0.100
2.940E-06,-0.260
2.950E-06,-0.512
2.960E-06,-0.512
2.970E-06,-0.512
2.980E-06,-0.364
2.990E-06,0.024
3.000E-06,0.180
3.010E-06,0.216
3.020E-06,0.032
3.030E-06,-0.196
3.040E-06,-0.292
3.050E-06,-0.252
3.060E-06,-0.004
3.070E-06,0.144
3.080E-06,0.240
3.090E-06,0.148
3.100E-06,0.000
3.110E-06,-0.128
3.120E-06,-0.136
3.130E-06,-0.032
3.140E-06,0.088
3.150E-06,0.152
3.160E-06,0.120
3.170E-06,0.056
3.180E-06,-0.048
3.190E-06,-0.084
3.200E-06,-0.072
3.210E-06,0.004
3.220E-06,0.080
3.230E-06,0.132
3.240E-06,0.124
3.250E-06,0.072
3.260E-06,-0.004
3.270E-06,-0.040
3.280E-06,-0.036
3.290E-06,0.012
3.300E-06,0.080
3.310E-06,0.112
3.320E-06,0.116
3.330E-06,0.080
3.340E-06,0.028
3.350E-06,0.008
3.360E-06,0.016
