mediciones/Mediciones filtradas (saque las feas)/5-27/-27.5/WaveData5159.csv

#timebase=2000000(ps)
,#voltbase=1000000(mv/100)
#size=4000
-3.800E-06,0.000
-3.790E-06,0.000
-3.780E-06,0.080
-3.770E-06,0.000
-3.760E-06,0.040
-3.750E-06,0.000
-3.740E-06,0.000
-3.730E-06,-0.040
-3.720E-06,0.000
-3.710E-06,-0.040
-3.700E-06,-0.040
-3.690E-06,0.000
-3.680E-06,0.000
-3.670E-06,0.000
-3.660E-06,0.000
-3.650E-06,0.000
-3.640E-06,0.000
-3.630E-06,0.000
-3.620E-06,-0.080
-3.610E-06,-0.040
-3.600E-06,-0.040
-3.590E-06,0.000
-3.580E-06,0.000
-3.570E-06,-0.040
-3.560E-06,0.000
-3.550E-06,-0.040
-3.540E-06,-0.040
-3.530E-06,-0.040
-3.520E-06,-0.040
-3.510E-06,0.000
-3.500E-06,-0.040
-3.490E-06,0.000
-3.480E-06,-0.040
-3.470E-06,-0.040
-3.460E-06,-0.040
-3.450E-06,0.000
-3.440E-06,0.000
-3.430E-06,0.080
-3.420E-06,0.080
-3.410E-06,0.040
-3.400E-06,0.080
-3.390E-06,0.040
-3.380E-06,0.120
-3.370E-06,0.200
-3.360E-06,0.200
-3.350E-06,0.120
-3.340E-06,0.080
-3.330E-06,0.080
-3.320E-06,0.040
-3.310E-06,0.080
-3.300E-06,0.040
-3.290E-06,0.080
-3.280E-06,0.080
-3.270E-06,0.040
-3.260E-06,0.040
-3.250E-06,0.040
-3.240E-06,0.000
-3.230E-06,0.040
-3.220E-06,0.040
-3.210E-06,0.040
-3.200E-06,0.040
-3.190E-06,0.080
-3.180E-06,0.000
-3.170E-06,-0.040
-3.160E-06,0.000
-3.150E-06,0.000
-3.140E-06,0.000
-3.130E-06,0.040
-3.120E-06,-0.040
-3.110E-06,0.000
-3.100E-06,0.000
-3.090E-06,-0.080
-3.080E-06,-0.040
-3.070E-06,0.000
-3.060E-06,-0.160
-3.050E-06,-0.040
-3.040E-06,-0.040
-3.030E-06,0.000
-3.020E-06,0.000
-3.010E-06,0.040
-3.000E-06,0.040
-2.990E-06,0.120
-2.980E-06,0.120
-2.970E-06,0.120
-2.960E-06,0.160
-2.950E-06,0.200
-2.940E-06,0.120
-2.930E-06,0.080
-2.920E-06,0.080
-2.910E-06,0.080
-2.900E-06,0.160
-2.890E-06,0.120
-2.880E-06,0.080
-2.870E-06,0.080
-2.860E-06,0.040
-2.850E-06,0.000
-2.840E-06,-0.040
-2.830E-06,0.000
-2.820E-06,-0.040
-2.810E-06,-0.040
-2.800E-06,0.000
-2.790E-06,-0.040
-2.780E-06,-0.040
-2.770E-06,-0.040
-2.760E-06,0.000
-2.750E-06,-0.040
-2.740E-06,-0.040
-2.730E-06,-0.080
-2.720E-06,-0.080
-2.710E-06,-0.080
-2.700E-06,-0.160
-2.690E-06,-0.120
-2.680E-06,-0.120
-2.670E-06,0.000
-2.660E-06,0.000
-2.650E-06,0.000
-2.640E-06,-0.080
-2.630E-06,-0.120
-2.620E-06,-0.080
-2.610E-06,-0.040
-2.600E-06,0.000
-2.590E-06,0.040
-2.580E-06,0.080
-2.570E-06,-0.040
-2.560E-06,0.040
-2.550E-06,0.040
-2.540E-06,0.080
-2.530E-06,0.120
-2.520E-06,0.080
-2.510E-06,0.080
-2.500E-06,0.080
-2.490E-06,0.080
-2.480E-06,0.120
-2.470E-06,0.080
-2.460E-06,0.120
-2.450E-06,0.080
-2.440E-06,0.080
-2.430E-06,0.080
-2.420E-06,0.080
-2.410E-06,0.160
-2.400E-06,0.200
-2.390E-06,0.120
-2.380E-06,0.160
-2.370E-06,0.120
-2.360E-06,0.160
-2.350E-06,0.120
-2.340E-06,0.080
-2.330E-06,0.160
-2.320E-06,0.160
-2.310E-06,0.080
-2.300E-06,0.080
-2.290E-06,0.120
-2.280E-06,0.160
-2.270E-06,0.120
-2.260E-06,0.120
-2.250E-06,0.080
-2.240E-06,0.040
-2.230E-06,0.000
-2.220E-06,0.000
-2.210E-06,0.040
-2.200E-06,0.040
-2.190E-06,0.040
-2.180E-06,-0.040
-2.170E-06,0.000
-2.160E-06,0.040
-2.150E-06,-0.080
-2.140E-06,-0.080
-2.130E-06,-0.040
-2.120E-06,0.000
-2.110E-06,0.000
-2.100E-06,-0.040
-2.090E-06,-0.040
-2.080E-06,-0.080
-2.070E-06,-0.040
-2.060E-06,0.000
-2.050E-06,0.000
-2.040E-06,0.000
-2.030E-06,0.000
-2.020E-06,0.000
-2.010E-06,-0.080
-2.000E-06,-0.040
-1.990E-06,0.000
-1.980E-06,0.000
-1.970E-06,0.000
-1.960E-06,-0.040
-1.950E-06,0.000
-1.940E-06,0.000
-1.930E-06,0.040
-1.920E-06,0.080
-1.910E-06,0.120
-1.900E-06,0.080
-1.890E-06,0.080
-1.880E-06,0.000
-1.870E-06,0.000
-1.860E-06,0.040
-1.850E-06,0.040
-1.840E-06,0.080
-1.830E-06,0.200
-1.820E-06,0.120
-1.810E-06,0.120
-1.800E-06,0.160
-1.790E-06,0.120
-1.780E-06,0.120
-1.770E-06,0.160
-1.760E-06,0.120
-1.750E-06,0.200
-1.740E-06,0.240
-1.730E-06,0.240
-1.720E-06,0.240
-1.710E-06,0.240
-1.700E-06,0.240
-1.690E-06,0.160
-1.680E-06,0.200
-1.670E-06,0.240
-1.660E-06,0.160
-1.650E-06,0.120
-1.640E-06,0.120
-1.630E-06,0.120
-1.620E-06,0.120
-1.610E-06,0.200
-1.600E-06,0.160
-1.590E-06,0.160
-1.580E-06,0.160
-1.570E-06,0.160
-1.560E-06,0.080
-1.550E-06,0.120
-1.540E-06,0.040
-1.530E-06,-0.040
-1.520E-06,-0.040
-1.510E-06,0.040
-1.500E-06,0.000
-1.490E-06,0.120
-1.480E-06,0.160
-1.470E-06,0.120
-1.460E-06,0.160
-1.450E-06,0.080
-1.440E-06,0.120
-1.430E-06,0.120
-1.420E-06,0.160
-1.410E-06,0.080
-1.400E-06,0.040
-1.390E-06,0.080
-1.380E-06,0.080
-1.370E-06,0.120
-1.360E-06,0.080
-1.350E-06,0.000
-1.340E-06,0.000
-1.330E-06,0.000
-1.320E-06,0.000
-1.310E-06,0.040
-1.300E-06,0.040
-1.290E-06,0.000
-1.280E-06,-0.040
-1.270E-06,0.000
-1.260E-06,0.040
-1.250E-06,0.080
-1.240E-06,0.080
-1.230E-06,0.080
-1.220E-06,0.080
-1.210E-06,0.080
-1.200E-06,0.040
-1.190E-06,0.080
-1.180E-06,0.080
-1.170E-06,0.080
-1.160E-06,0.080
-1.150E-06,0.040
-1.140E-06,0.080
-1.130E-06,0.040
-1.120E-06,-0.040
-1.110E-06,0.000
-1.100E-06,0.000
-1.090E-06,0.000
-1.080E-06,0.040
-1.070E-06,0.000
-1.060E-06,0.040
-1.050E-06,0.000
-1.040E-06,0.040
-1.030E-06,0.000
-1.020E-06,0.000
-1.010E-06,0.040
-1.000E-06,0.040
-9.900E-07,0.080
-9.800E-07,0.120
-9.700E-07,0.080
-9.600E-07,0.080
-9.500E-07,0.040
-9.400E-07,0.040
-9.300E-07,0.120
-9.200E-07,0.000
-9.100E-07,0.040
-9.000E-07,0.080
-8.900E-07,0.000
-8.800E-07,0.000
-8.700E-07,-0.040
-8.600E-07,-0.040
-8.500E-07,-0.040
-8.400E-07,-0.040
-8.300E-07,0.040
-8.200E-07,0.040
-8.100E-07,0.040
-8.000E-07,0.000
-7.900E-07,0.040
-7.800E-07,-0.040
-7.700E-07,-0.040
-7.600E-07,0.040
-7.500E-07,0.040
-7.400E-07,0.080
-7.300E-07,0.160
-7.200E-07,0.160
-7.100E-07,0.120
-7.000E-07,0.120
-6.900E-07,0.160
-6.800E-07,0.200
-6.700E-07,0.120
-6.600E-07,0.160
-6.500E-07,0.280
-6.400E-07,0.240
-6.300E-07,0.200
-6.200E-07,0.240
-6.100E-07,0.160
-6.000E-07,0.120
-5.900E-07,0.200
-5.800E-07,0.160
-5.700E-07,0.160
-5.600E-07,0.160
-5.500E-07,0.160
-5.400E-07,-0.040
-5.300E-07,0.000
-5.200E-07,0.000
-5.100E-07,-0.080
-5.000E-07,0.200
-4.900E-07,0.040
-4.800E-07,0.160
-4.700E-07,-0.040
-4.600E-07,-0.040
-4.500E-07,-0.040
-4.400E-07,0.160
-4.300E-07,0.360
-4.200E-07,0.520
-4.100E-07,0.480
-4.000E-07,0.440
-3.900E-07,0.160
-3.800E-07,0.200
-3.700E-07,0.200
-3.600E-07,0.400
-3.500E-07,0.560
-3.400E-07,0.520
-3.300E-07,0.400
-3.200E-07,0.280
-3.100E-07,0.160
-3.000E-07,0.160
-2.900E-07,0.240
-2.800E-07,0.240
-2.700E-07,0.320
-2.600E-07,0.320
-2.500E-07,0.280
-2.400E-07,0.320
-2.300E-07,0.320
-2.200E-07,0.320
-2.100E-07,0.400
-2.000E-07,0.400
-1.900E-07,0.400
-1.800E-07,0.440
-1.700E-07,0.440
-1.600E-07,0.440
-1.500E-07,0.400
-1.400E-07,0.320
-1.300E-07,0.360
-1.200E-07,0.320
-1.100E-07,0.240
-1.000E-07,0.280
-9.000E-08,0.160
-8.000E-08,0.160
-7.000E-08,0.160
-6.000E-08,0.200
-5.000E-08,0.120
-4.000E-08,0.280
-3.000E-08,-0.040
-2.000E-08,-0.400
-1.000E-08,-0.520
0.000E+00,-0.640
1.000E-08,-0.040
2.000E-08,0.440
3.000E-08,0.960
4.000E-08,0.680
5.000E-08,0.440
6.000E-08,-0.320
7.000E-08,-0.160
8.000E-08,-0.400
9.000E-08,0.320
1.000E-07,0.520
1.100E-07,-0.120
1.200E-07,-0.120
1.300E-07,-0.480
1.400E-07,-0.360
1.500E-07,0.200
1.600E-07,0.360
1.700E-07,0.600
1.800E-07,0.320
1.900E-07,0.000
2.000E-07,0.000
2.100E-07,-0.160
2.200E-07,0.040
2.300E-07,0.200
2.400E-07,0.160
2.500E-07,0.080
2.600E-07,-0.040
2.700E-07,-0.080
2.800E-07,0.040
2.900E-07,-0.080
3.000E-07,-0.040
3.100E-07,-0.080
3.200E-07,-0.240
3.300E-07,-0.240
3.400E-07,-0.160
3.500E-07,0.000
3.600E-07,0.040
3.700E-07,-0.040
3.800E-07,-0.120
3.900E-07,-0.360
4.000E-07,-0.320
4.100E-07,0.000
4.200E-07,0.040
4.300E-07,0.200
4.400E-07,-0.040
4.500E-07,-0.440
4.600E-07,-0.520
4.700E-07,-0.560
4.800E-07,-0.120
4.900E-07,0.200
5.000E-07,0.520
5.100E-07,0.400
5.200E-07,0.200
5.300E-07,0.160
5.400E-07,-0.080
5.500E-07,0.400
5.600E-07,0.520
5.700E-07,0.840
5.800E-07,0.840
5.900E-07,0.560
6.000E-07,0.320
6.100E-07,0.000
6.200E-07,0.000
6.300E-07,0.200
6.400E-07,0.160
6.500E-07,0.280
6.600E-07,0.080
6.700E-07,-0.080
6.800E-07,-0.560
6.900E-07,-0.840
7.000E-07,-0.920
7.100E-07,-0.520
7.200E-07,-0.240
7.300E-07,0.360
7.400E-07,0.360
7.500E-07,0.120
7.600E-07,-0.240
7.700E-07,-0.520
7.800E-07,-0.440
7.900E-07,-0.120
8.000E-07,0.120
8.100E-07,0.240
8.200E-07,0.240
8.300E-07,0.160
8.400E-07,0.040
8.500E-07,-0.040
8.600E-07,0.080
8.700E-07,0.160
8.800E-07,0.200
8.900E-07,0.160
9.000E-07,0.080
9.100E-07,-0.080
9.200E-07,-0.240
9.300E-07,-0.320
9.400E-07,-0.400
9.500E-07,-0.440
9.600E-07,-0.480
9.700E-07,-0.480
9.800E-07,-0.600
9.900E-07,-0.800
1.000E-06,-0.880
1.010E-06,-1.000
1.020E-06,-1.080
1.030E-06,-1.040
1.040E-06,-0.960
1.050E-06,-0.880
1.060E-06,-0.440
1.070E-06,-0.680
1.080E-06,-1.000
1.090E-06,-0.720
1.100E-06,-0.920
1.110E-06,0.160
1.120E-06,0.800
1.130E-06,1.160
1.140E-06,1.160
1.150E-06,0.120
1.160E-06,-0.120
1.170E-06,-0.280
1.180E-06,0.080
1.190E-06,0.760
1.200E-06,0.880
1.210E-06,0.840
1.220E-06,0.560
1.230E-06,0.240
1.240E-06,0.280
1.250E-06,0.360
1.260E-06,0.360
1.270E-06,0.400
1.280E-06,0.080
1.290E-06,-0.280
1.300E-06,-0.440
1.310E-06,-0.720
1.320E-06,-0.840
1.330E-06,-0.800
1.340E-06,-0.600
1.350E-06,-0.360
1.360E-06,-0.320
1.370E-06,-0.400
1.380E-06,-0.640
1.390E-06,-0.880
1.400E-06,-0.640
1.410E-06,-0.520
1.420E-06,-0.160
1.430E-06,-0.120
1.440E-06,-0.160
1.450E-06,-0.280
1.460E-06,-0.440
1.470E-06,-0.240
1.480E-06,-0.040
1.490E-06,0.120
1.500E-06,0.160
1.510E-06,0.160
1.520E-06,0.120
1.530E-06,0.080
1.540E-06,0.200
1.550E-06,0.240
1.560E-06,0.320
1.570E-06,0.280
1.580E-06,0.160
1.590E-06,0.240
1.600E-06,0.240
1.610E-06,0.320
1.620E-06,0.240
1.630E-06,0.200
1.640E-06,0.040
1.650E-06,-0.080
1.660E-06,-0.080
1.670E-06,0.000
1.680E-06,0.040
1.690E-06,0.120
1.700E-06,0.000
1.710E-06,-0.080
1.720E-06,-0.240
1.730E-06,-0.360
1.740E-06,-0.400
1.750E-06,-0.320
1.760E-06,-0.480
1.770E-06,-0.480
1.780E-06,-0.520
1.790E-06,-0.440
1.800E-06,-0.320
1.810E-06,-0.320
1.820E-06,-0.120
1.830E-06,-0.200
1.840E-06,-0.080
1.850E-06,0.000
1.860E-06,0.080
1.870E-06,0.200
1.880E-06,0.240
1.890E-06,0.320
1.900E-06,0.320
1.910E-06,0.240
1.920E-06,0.320
1.930E-06,0.280
1.940E-06,0.320
1.950E-06,0.400
1.960E-06,0.400
1.970E-06,0.360
1.980E-06,0.200
1.990E-06,0.080
2.000E-06,0.600
2.010E-06,0.120
2.020E-06,-0.960
2.030E-06,0.120
2.040E-06,-1.560
2.050E-06,0.560
2.060E-06,0.360
2.070E-06,1.360
2.080E-06,1.160
2.090E-06,0.120
2.100E-06,-0.320
2.110E-06,-0.960
2.120E-06,-0.840
2.130E-06,0.200
2.140E-06,0.040
2.150E-06,0.240
2.160E-06,0.040
2.170E-06,-0.840
2.180E-06,-1.480
2.190E-06,-1.400
2.200E-06,-1.000
2.210E-06,-0.320
2.220E-06,0.680
2.230E-06,0.840
2.240E-06,1.000
2.250E-06,0.240
2.260E-06,-0.680
2.270E-06,-1.000
2.280E-06,-0.920
2.290E-06,-0.440
2.300E-06,-0.040
2.310E-06,0.120
2.320E-06,0.120
2.330E-06,-0.120
2.340E-06,-0.320
2.350E-06,-0.160
2.360E-06,0.080
2.370E-06,0.320
2.380E-06,0.400
2.390E-06,0.320
2.400E-06,0.160
2.410E-06,0.200
2.420E-06,0.200
2.430E-06,-0.800
2.440E-06,-0.480
2.450E-06,-0.640
2.460E-06,-0.320
2.470E-06,1.480
2.480E-06,1.520
2.490E-06,2.080
2.500E-06,0.680
2.510E-06,-0.240
2.520E-06,-0.600
2.530E-06,-0.520
2.540E-06,0.480
2.550E-06,0.640
2.560E-06,0.320
2.570E-06,-0.080
2.580E-06,-1.880
2.590E-06,-1.720
2.600E-06,-1.760
2.610E-06,-0.760
2.620E-06,0.000
2.630E-06,0.760
2.640E-06,0.440
2.650E-06,0.160
2.660E-06,-0.760
2.670E-06,-0.920
2.680E-06,-1.000
2.690E-06,-0.720
2.700E-06,-0.280
2.710E-06,-0.240
2.720E-06,-0.320
2.730E-06,-0.400
2.740E-06,-0.880
2.750E-06,-0.800
2.760E-06,-0.760
2.770E-06,-0.360
2.780E-06,-0.120
2.790E-06,-0.080
2.800E-06,-0.320
2.810E-06,-0.520
2.820E-06,-0.800
2.830E-06,-0.640
2.840E-06,-0.320
2.850E-06,-0.560
2.860E-06,-0.680
2.870E-06,-1.120
2.880E-06,-1.520
2.890E-06,-1.680
2.900E-06,-1.680
2.910E-06,-1.360
2.920E-06,-1.160
2.930E-06,-0.840
2.940E-06,-0.440
2.950E-06,-0.320
2.960E-06,-0.040
2.970E-06,0.240
2.980E-06,0.160
2.990E-06,0.240
3.000E-06,0.520
3.010E-06,0.760
3.020E-06,1.200
3.030E-06,1.120
3.040E-06,1.200
3.050E-06,1.000
3.060E-06,0.960
3.070E-06,0.880
3.080E-06,0.840
3.090E-06,0.840
3.100E-06,0.680
3.110E-06,0.400
3.120E-06,0.080
3.130E-06,-0.120
3.140E-06,-0.240
3.150E-06,-0.280
3.160E-06,-0.320
3.170E-06,-0.520
3.180E-06,-0.720
3.190E-06,-1.040
3.200E-06,-1.160
3.210E-06,-1.560
3.220E-06,-1.280
3.230E-06,-1.560
3.240E-06,-1.840
3.250E-06,-2.280
3.260E-06,-3.040
3.270E-06,-3.360
3.280E-06,-3.520
3.290E-06,-3.400
3.300E-06,-2.880
3.310E-06,-2.480
3.320E-06,-1.680
3.330E-06,-1.160
3.340E-06,-0.480
3.350E-06,-0.200
3.360E-06,-0.200
3.370E-06,0.000
3.380E-06,-0.320
3.390E-06,-0.040
3.400E-06,0.520
3.410E-06,1.280
3.420E-06,1.880
3.430E-06,2.040
3.440E-06,1.920
3.450E-06,1.800
3.460E-06,1.800
3.470E-06,1.960
3.480E-06,2.160
3.490E-06,2.120
3.500E-06,2.040
3.510E-06,1.320
3.520E-06,1.000
3.530E-06,0.600
3.540E-06,0.240
3.550E-06,-0.040
3.560E-06,-0.520
3.570E-06,-0.760
3.580E-06,-0.880
3.590E-06,-0.960
3.600E-06,-1.000
3.610E-06,-1.160
3.620E-06,-1.320
3.630E-06,-1.480
3.640E-06,-1.600
3.650E-06,-1.440
3.660E-06,-1.200
3.670E-06,-1.080
3.680E-06,-0.800
3.690E-06,-0.760
3.700E-06,-0.640
3.710E-06,-0.680
3.720E-06,-0.680
3.730E-06,-1.160
3.740E-06,0.480
3.750E-06,-1.120
3.760E-06,-1.680
3.770E-06,-1.280
3.780E-06,-2.400
3.790E-06,-1.440
3.800E-06,0.200
3.810E-06,0.920
3.820E-06,1.720
3.830E-06,0.560
3.840E-06,0.400
3.850E-06,0.280
3.860E-06,0.920
3.870E-06,1.360
3.880E-06,1.240
3.890E-06,0.720
3.900E-06,0.160
3.910E-06,0.160
3.920E-06,-0.080
3.930E-06,1.120
3.940E-06,0.440
3.950E-06,0.680
3.960E-06,0.960
3.970E-06,0.440
3.980E-06,0.560
3.990E-06,0.040
4.000E-06,-0.480
4.010E-06,-0.920
4.020E-06,-1.000
4.030E-06,-0.880
4.040E-06,-0.720
4.050E-06,-0.880
4.060E-06,-1.040
4.070E-06,-1.440
4.080E-06,-1.400
4.090E-06,-1.120
4.100E-06,-0.720
4.110E-06,-0.440
4.120E-06,-0.520
4.130E-06,-0.680
4.140E-06,-1.480
4.150E-06,-1.360
4.160E-06,-2.000
4.170E-06,-1.720
4.180E-06,-1.360
4.190E-06,-1.000
4.200E-06,-0.240
4.210E-06,0.040
4.220E-06,0.600
4.230E-06,0.640
4.240E-06,0.320
4.250E-06,0.080
4.260E-06,-0.120
4.270E-06,0.080
4.280E-06,0.520
4.290E-06,0.960
4.300E-06,1.080
4.310E-06,0.880
4.320E-06,0.360
4.330E-06,0.000
4.340E-06,-0.080
4.350E-06,0.160
4.360E-06,0.400
4.370E-06,0.600
4.380E-06,0.360
4.390E-06,0.000
4.400E-06,-0.480
4.410E-06,-0.920
4.420E-06,-1.080
4.430E-06,-0.920
4.440E-06,-0.680
4.450E-06,-0.440
4.460E-06,-0.280
4.470E-06,-0.280
4.480E-06,-0.400
4.490E-06,-0.360
4.500E-06,-0.200
4.510E-06,0.000
4.520E-06,0.120
4.530E-06,0.000
4.540E-06,-0.200
4.550E-06,-0.560
4.560E-06,-0.680
4.570E-06,-0.720
4.580E-06,-0.600
4.590E-06,-0.520
4.600E-06,-0.320
4.610E-06,-0.360
4.620E-06,-0.360
4.630E-06,-0.440
4.640E-06,-0.440
4.650E-06,-0.520
4.660E-06,-0.600
4.670E-06,-0.600
4.680E-06,-0.520
4.690E-06,-0.680
4.700E-06,-1.000
4.710E-06,-1.320
4.720E-06,-2.000
4.730E-06,-2.280
4.740E-06,-2.320
4.750E-06,-1.800
4.760E-06,-1.000
4.770E-06,-0.360
4.780E-06,-0.280
4.790E-06,-0.280
4.800E-06,-0.720
4.810E-06,-0.760
4.820E-06,-0.560
4.830E-06,-0.160
4.840E-06,0.320
4.850E-06,0.560
4.860E-06,0.680
4.870E-06,0.640
4.880E-06,0.680
4.890E-06,0.920
4.900E-06,0.960
4.910E-06,1.000
4.920E-06,0.960
4.930E-06,0.880
4.940E-06,0.800
4.950E-06,0.680
4.960E-06,0.400
4.970E-06,0.120
4.980E-06,-0.040
4.990E-06,-0.120
5.000E-06,-0.120
5.010E-06,-0.200
5.020E-06,-0.240
5.030E-06,-0.520
5.040E-06,-0.520
5.050E-06,0.640
5.060E-06,-3.000
5.070E-06,-0.680
5.080E-06,-3.480
5.090E-06,-3.320
5.100E-06,-1.320
5.110E-06,-0.840
5.120E-06,1.040
5.130E-06,1.480
5.140E-06,0.400
5.150E-06,0.680
5.160E-06,-0.120
5.170E-06,0.680
5.180E-06,0.680
5.190E-06,0.040
5.200E-06,-0.360
5.210E-06,-0.800
5.220E-06,-0.440
5.230E-06,0.720
5.240E-06,1.360
5.250E-06,1.240
5.260E-06,0.440
5.270E-06,-1.320
5.280E-06,-1.960
5.290E-06,-2.080
5.300E-06,-1.840
5.310E-06,-1.040
5.320E-06,-1.000
5.330E-06,-1.320
5.340E-06,-1.840
5.350E-06,-2.520
5.360E-06,-2.920
5.370E-06,-2.880
5.380E-06,-2.360
5.390E-06,-1.520
5.400E-06,-0.520
5.410E-06,0.000
5.420E-06,0.160
5.430E-06,0.200
5.440E-06,0.000
5.450E-06,-0.040
5.460E-06,0.080
5.470E-06,0.480
5.480E-06,0.920
5.490E-06,1.160
5.500E-06,1.200
5.510E-06,1.120
5.520E-06,0.640
5.530E-06,0.240
5.540E-06,-0.280
5.550E-06,-0.600
5.560E-06,-0.720
5.570E-06,-0.840
5.580E-06,-0.880
5.590E-06,-1.200
5.600E-06,-1.600
5.610E-06,-1.920
5.620E-06,-2.280
5.630E-06,-2.240
5.640E-06,-2.160
5.650E-06,-1.880
5.660E-06,-1.440
5.670E-06,-1.280
5.680E-06,-1.000
5.690E-06,-0.960
5.700E-06,-1.000
5.710E-06,-0.760
5.720E-06,-0.640
5.730E-06,-0.240
5.740E-06,0.120
5.750E-06,0.400
5.760E-06,0.680
5.770E-06,0.680
5.780E-06,0.680
5.790E-06,0.720
5.800E-06,0.680
5.810E-06,0.680
5.820E-06,0.440
5.830E-06,0.240
5.840E-06,0.040
5.850E-06,-0.240
5.860E-06,-0.440
5.870E-06,-0.520
5.880E-06,-0.520
5.890E-06,-0.680
5.900E-06,-0.720
5.910E-06,-0.920
5.920E-06,-1.040
5.930E-06,-1.080
5.940E-06,-1.120
5.950E-06,-1.120
5.960E-06,-1.040
5.970E-06,-0.880
5.980E-06,-0.880
5.990E-06,-0.800
6.000E-06,-0.800
6.010E-06,-0.960
6.020E-06,-0.640
6.030E-06,-0.920
6.040E-06,-0.840
6.050E-06,-0.600
6.060E-06,-1.000
6.070E-06,-0.840
6.080E-06,-1.040
6.090E-06,-0.840
6.100E-06,-0.520
6.110E-06,-0.280
6.120E-06,-0.280
6.130E-06,-0.480
6.140E-06,-0.480
6.150E-06,-1.000
6.160E-06,-1.320
6.170E-06,-0.480
6.180E-06,0.120
6.190E-06,-3.440
6.200E-06,-1.800
6.210E-06,-4.800
6.220E-06,-4.360
6.230E-06,-2.000
6.240E-06,-0.040
6.250E-06,0.400
6.260E-06,0.560
6.270E-06,-1.080
6.280E-06,-1.320
6.290E-06,-0.520
6.300E-06,2.040
6.310E-06,3.160
6.320E-06,2.920
6.330E-06,2.480
6.340E-06,1.480
6.350E-06,1.120
6.360E-06,1.680
6.370E-06,1.520
6.380E-06,1.360
6.390E-06,0.880
6.400E-06,0.480
6.410E-06,0.160
6.420E-06,0.160
6.430E-06,-0.560
6.440E-06,-1.120
6.450E-06,-1.680
6.460E-06,-2.000
6.470E-06,-2.000
6.480E-06,-2.120
6.490E-06,-2.240
6.500E-06,-2.400
6.510E-06,-2.480
6.520E-06,-2.400
6.530E-06,-2.000
6.540E-06,-1.800
6.550E-06,-1.720
6.560E-06,-1.680
6.570E-06,-1.680
6.580E-06,-1.400
6.590E-06,-1.000
6.600E-06,-0.560
6.610E-06,-0.120
6.620E-06,0.160
6.630E-06,0.280
6.640E-06,0.240
6.650E-06,0.040
6.660E-06,-0.280
6.670E-06,-0.360
6.680E-06,-0.480
6.690E-06,-0.320
6.700E-06,-0.320
6.710E-06,-0.560
6.720E-06,-0.840
6.730E-06,-1.360
6.740E-06,-1.720
6.750E-06,-1.880
6.760E-06,-1.800
6.770E-06,-1.560
6.780E-06,-1.360
6.790E-06,-1.280
6.800E-06,-1.360
6.810E-06,-1.440
6.820E-06,-1.480
6.830E-06,-1.240
6.840E-06,-0.880
6.850E-06,-0.480
6.860E-06,-0.040
6.870E-06,0.160
6.880E-06,0.280
6.890E-06,0.360
6.900E-06,0.240
6.910E-06,0.440
6.920E-06,0.400
6.930E-06,0.360
6.940E-06,0.400
6.950E-06,0.320
6.960E-06,0.480
6.970E-06,0.480
6.980E-06,0.520
6.990E-06,0.520
7.000E-06,0.240
7.010E-06,0.160
7.020E-06,0.040
7.030E-06,0.120
7.040E-06,0.360
7.050E-06,0.360
7.060E-06,0.240
7.070E-06,0.040
7.080E-06,-0.360
7.090E-06,-0.600
7.100E-06,-0.760
7.110E-06,-0.800
7.120E-06,-0.880
7.130E-06,-0.920
7.140E-06,-1.080
7.150E-06,-1.200
7.160E-06,-1.280
7.170E-06,-1.360
7.180E-06,-1.480
7.190E-06,-1.520
7.200E-06,-1.600
7.210E-06,-1.720
7.220E-06,-1.760
7.230E-06,-1.760
7.240E-06,-1.720
7.250E-06,-1.760
7.260E-06,-1.640
7.270E-06,-1.520
7.280E-06,-1.480
7.290E-06,-1.440
7.300E-06,-1.480
7.310E-06,-1.400
7.320E-06,-1.520
7.330E-06,-1.440
7.340E-06,-1.320
7.350E-06,-1.320
7.360E-06,-1.280
7.370E-06,-1.200
7.380E-06,-1.080
7.390E-06,-0.880
7.400E-06,-0.600
7.410E-06,-0.480
7.420E-06,-0.440
7.430E-06,-0.400
7.440E-06,-0.440
7.450E-06,-0.480
7.460E-06,-0.640
7.470E-06,-0.680
7.480E-06,-0.680
7.490E-06,-0.680
7.500E-06,-0.520
7.510E-06,-0.440
7.520E-06,-0.360
7.530E-06,-0.400
7.540E-06,-0.480
7.550E-06,-0.640
7.560E-06,-0.720
7.570E-06,-1.160
7.580E-06,-1.360
7.590E-06,-1.600
7.600E-06,-1.680
7.610E-06,-1.720
7.620E-06,-2.040
7.630E-06,-2.200
7.640E-06,-3.200
7.650E-06,-3.400
7.660E-06,-3.360
7.670E-06,-2.280
7.680E-06,-1.840
7.690E-06,-0.880
7.700E-06,-1.160
7.710E-06,-1.720
7.720E-06,-2.760
7.730E-06,-3.280
7.740E-06,-3.360
7.750E-06,-2.920
7.760E-06,-2.640
7.770E-06,-1.600
7.780E-06,-0.840
7.790E-06,0.040
7.800E-06,0.480
7.810E-06,0.080
7.820E-06,0.000
7.830E-06,-0.440
7.840E-06,-0.320
7.850E-06,0.160
7.860E-06,0.520
7.870E-06,1.000
7.880E-06,0.920
7.890E-06,0.720
7.900E-06,0.520
7.910E-06,0.280
7.920E-06,0.320
7.930E-06,0.280
7.940E-06,0.360
7.950E-06,0.320
7.960E-06,0.160
7.970E-06,-0.080
7.980E-06,-0.320
7.990E-06,-0.560
8.000E-06,-0.640
8.010E-06,-0.680
8.020E-06,-0.680
8.030E-06,-0.680
8.040E-06,-0.800
8.050E-06,-1.040
8.060E-06,-1.160
