mediciones/Mediciones filtradas (saque las feas)/5-27/-27.5/WaveData5187.csv

#timebase=2000000(ps)
,#voltbase=1000000(mv/100)
#size=4000
-3.800E-06,0.200
-3.790E-06,0.200
-3.780E-06,0.160
-3.770E-06,0.160
-3.760E-06,0.120
-3.750E-06,0.120
-3.740E-06,0.160
-3.730E-06,0.200
-3.720E-06,0.240
-3.710E-06,0.360
-3.700E-06,0.360
-3.690E-06,0.360
-3.680E-06,0.360
-3.670E-06,0.360
-3.660E-06,0.360
-3.650E-06,0.400
-3.640E-06,0.520
-3.630E-06,0.520
-3.620E-06,0.480
-3.610E-06,0.480
-3.600E-06,0.360
-3.590E-06,0.320
-3.580E-06,0.360
-3.570E-06,0.440
-3.560E-06,0.480
-3.550E-06,0.480
-3.540E-06,0.400
-3.530E-06,0.400
-3.520E-06,0.360
-3.510E-06,0.320
-3.500E-06,0.440
-3.490E-06,0.360
-3.480E-06,0.360
-3.470E-06,0.280
-3.460E-06,0.240
-3.450E-06,0.200
-3.440E-06,0.240
-3.430E-06,0.240
-3.420E-06,0.240
-3.410E-06,0.160
-3.400E-06,0.080
-3.390E-06,0.080
-3.380E-06,0.040
-3.370E-06,0.080
-3.360E-06,0.080
-3.350E-06,0.040
-3.340E-06,-0.040
-3.330E-06,0.000
-3.320E-06,0.000
-3.310E-06,0.000
-3.300E-06,0.040
-3.290E-06,0.040
-3.280E-06,-0.040
-3.270E-06,0.040
-3.260E-06,0.040
-3.250E-06,0.080
-3.240E-06,0.080
-3.230E-06,0.120
-3.220E-06,0.160
-3.210E-06,0.160
-3.200E-06,0.160
-3.190E-06,0.240
-3.180E-06,0.200
-3.170E-06,0.160
-3.160E-06,0.240
-3.150E-06,0.200
-3.140E-06,0.240
-3.130E-06,0.320
-3.120E-06,0.360
-3.110E-06,0.520
-3.100E-06,0.600
-3.090E-06,0.560
-3.080E-06,0.520
-3.070E-06,0.520
-3.060E-06,0.480
-3.050E-06,0.480
-3.040E-06,0.480
-3.030E-06,0.560
-3.020E-06,0.560
-3.010E-06,0.520
-3.000E-06,0.520
-2.990E-06,0.480
-2.980E-06,0.520
-2.970E-06,0.520
-2.960E-06,0.520
-2.950E-06,0.520
-2.940E-06,0.520
-2.930E-06,0.560
-2.920E-06,0.480
-2.910E-06,0.560
-2.900E-06,0.520
-2.890E-06,0.560
-2.880E-06,0.560
-2.870E-06,0.480
-2.860E-06,0.440
-2.850E-06,0.440
-2.840E-06,0.480
-2.830E-06,0.480
-2.820E-06,0.440
-2.810E-06,0.480
-2.800E-06,0.360
-2.790E-06,0.360
-2.780E-06,0.280
-2.770E-06,0.320
-2.760E-06,0.360
-2.750E-06,0.320
-2.740E-06,0.400
-2.730E-06,0.360
-2.720E-06,0.400
-2.710E-06,0.320
-2.700E-06,0.280
-2.690E-06,0.320
-2.680E-06,0.320
-2.670E-06,0.360
-2.660E-06,0.360
-2.650E-06,0.320
-2.640E-06,0.320
-2.630E-06,0.320
-2.620E-06,0.320
-2.610E-06,0.360
-2.600E-06,0.320
-2.590E-06,0.320
-2.580E-06,0.360
-2.570E-06,0.440
-2.560E-06,0.520
-2.550E-06,0.480
-2.540E-06,0.480
-2.530E-06,0.520
-2.520E-06,0.480
-2.510E-06,0.520
-2.500E-06,0.600
-2.490E-06,0.600
-2.480E-06,0.600
-2.470E-06,0.560
-2.460E-06,0.600
-2.450E-06,0.640
-2.440E-06,0.640
-2.430E-06,0.680
-2.420E-06,0.760
-2.410E-06,0.680
-2.400E-06,0.640
-2.390E-06,0.640
-2.380E-06,0.480
-2.370E-06,0.520
-2.360E-06,0.440
-2.350E-06,0.360
-2.340E-06,0.480
-2.330E-06,0.480
-2.320E-06,0.440
-2.310E-06,0.760
-2.300E-06,0.600
-2.290E-06,0.640
-2.280E-06,0.400
-2.270E-06,0.480
-2.260E-06,0.200
-2.250E-06,0.240
-2.240E-06,0.680
-2.230E-06,0.800
-2.220E-06,1.000
-2.210E-06,0.840
-2.200E-06,0.520
-2.190E-06,0.320
-2.180E-06,0.320
-2.170E-06,0.520
-2.160E-06,0.720
-2.150E-06,0.800
-2.140E-06,0.760
-2.130E-06,0.520
-2.120E-06,0.240
-2.110E-06,0.160
-2.100E-06,0.160
-2.090E-06,0.360
-2.080E-06,0.400
-2.070E-06,0.400
-2.060E-06,0.320
-2.050E-06,0.240
-2.040E-06,0.200
-2.030E-06,0.160
-2.020E-06,0.200
-2.010E-06,0.200
-2.000E-06,0.120
-1.990E-06,0.120
-1.980E-06,0.120
-1.970E-06,0.160
-1.960E-06,0.160
-1.950E-06,0.040
-1.940E-06,0.080
-1.930E-06,0.040
-1.920E-06,0.000
-1.910E-06,0.040
-1.900E-06,0.080
-1.890E-06,0.160
-1.880E-06,0.160
-1.870E-06,0.080
-1.860E-06,0.080
-1.850E-06,0.000
-1.840E-06,0.000
-1.830E-06,0.040
-1.820E-06,0.040
-1.810E-06,0.080
-1.800E-06,0.000
-1.790E-06,-0.040
-1.780E-06,0.040
-1.770E-06,0.040
-1.760E-06,0.120
-1.750E-06,0.120
-1.740E-06,0.160
-1.730E-06,0.040
-1.720E-06,-0.080
-1.710E-06,-0.240
-1.700E-06,-0.360
-1.690E-06,-0.360
-1.680E-06,-0.160
-1.670E-06,-0.040
-1.660E-06,0.160
-1.650E-06,0.240
-1.640E-06,0.200
-1.630E-06,0.120
-1.620E-06,0.160
-1.610E-06,0.240
-1.600E-06,0.320
-1.590E-06,0.320
-1.580E-06,0.480
-1.570E-06,0.520
-1.560E-06,0.600
-1.550E-06,0.760
-1.540E-06,0.760
-1.530E-06,0.920
-1.520E-06,0.960
-1.510E-06,1.000
-1.500E-06,1.000
-1.490E-06,0.920
-1.480E-06,0.960
-1.470E-06,0.960
-1.460E-06,1.040
-1.450E-06,1.040
-1.440E-06,1.000
-1.430E-06,1.000
-1.420E-06,1.000
-1.410E-06,1.040
-1.400E-06,0.880
-1.390E-06,0.880
-1.380E-06,0.800
-1.370E-06,0.720
-1.360E-06,0.720
-1.350E-06,0.600
-1.340E-06,0.800
-1.330E-06,0.560
-1.320E-06,0.600
-1.310E-06,0.320
-1.300E-06,0.160
-1.290E-06,0.080
-1.280E-06,0.040
-1.270E-06,0.320
-1.260E-06,0.440
-1.250E-06,0.640
-1.240E-06,0.520
-1.230E-06,0.480
-1.220E-06,0.320
-1.210E-06,0.240
-1.200E-06,0.320
-1.190E-06,0.440
-1.180E-06,0.600
-1.170E-06,0.680
-1.160E-06,0.680
-1.150E-06,0.480
-1.140E-06,0.320
-1.130E-06,0.400
-1.120E-06,0.440
-1.110E-06,0.520
-1.100E-06,0.400
-1.090E-06,0.520
-1.080E-06,0.480
-1.070E-06,0.680
-1.060E-06,0.880
-1.050E-06,1.120
-1.040E-06,1.160
-1.030E-06,1.120
-1.020E-06,1.000
-1.010E-06,0.960
-1.000E-06,0.960
-9.900E-07,1.000
-9.800E-07,1.280
-9.700E-07,1.040
-9.600E-07,1.240
-9.500E-07,0.520
-9.400E-07,0.400
-9.300E-07,0.040
-9.200E-07,-0.040
-9.100E-07,0.320
-9.000E-07,0.480
-8.900E-07,1.000
-8.800E-07,1.120
-8.700E-07,0.920
-8.600E-07,0.680
-8.500E-07,0.320
-8.400E-07,0.200
-8.300E-07,0.280
-8.200E-07,0.200
-8.100E-07,0.480
-8.000E-07,0.320
-7.900E-07,0.240
-7.800E-07,-0.040
-7.700E-07,-0.160
-7.600E-07,-0.120
-7.500E-07,-0.320
-7.400E-07,-0.080
-7.300E-07,-0.120
-7.200E-07,-0.160
-7.100E-07,-0.200
-7.000E-07,-0.160
-6.900E-07,-0.080
-6.800E-07,-0.200
-6.700E-07,0.120
-6.600E-07,0.320
-6.500E-07,0.360
-6.400E-07,0.760
-6.300E-07,0.720
-6.200E-07,0.640
-6.100E-07,0.480
-6.000E-07,0.360
-5.900E-07,0.480
-5.800E-07,0.640
-5.700E-07,0.840
-5.600E-07,0.880
-5.500E-07,0.840
-5.400E-07,0.240
-5.300E-07,0.280
-5.200E-07,0.000
-5.100E-07,0.000
-5.000E-07,0.080
-4.900E-07,0.000
-4.800E-07,-0.040
-4.700E-07,-0.040
-4.600E-07,-0.080
-4.500E-07,0.040
-4.400E-07,-0.120
-4.300E-07,0.000
-4.200E-07,-0.040
-4.100E-07,-0.040
-4.000E-07,0.040
-3.900E-07,0.200
-3.800E-07,0.280
-3.700E-07,0.360
-3.600E-07,0.280
-3.500E-07,0.160
-3.400E-07,0.160
-3.300E-07,0.200
-3.200E-07,0.240
-3.100E-07,0.280
-3.000E-07,0.320
-2.900E-07,0.240
-2.800E-07,0.160
-2.700E-07,-0.040
-2.600E-07,0.000
-2.500E-07,-0.040
-2.400E-07,-0.040
-2.300E-07,0.080
-2.200E-07,0.000
-2.100E-07,0.000
-2.000E-07,0.080
-1.900E-07,0.080
-1.800E-07,0.000
-1.700E-07,0.000
-1.600E-07,-0.160
-1.500E-07,-0.120
-1.400E-07,-0.480
-1.300E-07,-0.480
-1.200E-07,-0.840
-1.100E-07,-1.200
-1.000E-07,-1.400
-9.000E-08,-1.920
-8.000E-08,-1.800
-7.000E-08,-1.120
-6.000E-08,-0.520
-5.000E-08,-0.040
-4.000E-08,-0.080
-3.000E-08,-1.160
-2.000E-08,-2.040
-1.000E-08,-2.440
0.000E+00,-1.800
1.000E-08,-0.640
2.000E-08,0.360
3.000E-08,0.680
4.000E-08,0.320
5.000E-08,-0.240
6.000E-08,-0.440
7.000E-08,-0.160
8.000E-08,0.280
9.000E-08,0.760
1.000E-07,0.880
1.100E-07,0.800
1.200E-07,0.640
1.300E-07,0.480
1.400E-07,0.520
1.500E-07,0.440
1.600E-07,0.320
1.700E-07,0.320
1.800E-07,0.280
1.900E-07,0.160
2.000E-07,-0.040
2.100E-07,-0.360
2.200E-07,-0.640
2.300E-07,-0.920
2.400E-07,-1.120
2.500E-07,-1.080
2.600E-07,-1.160
2.700E-07,-1.280
2.800E-07,-1.480
2.900E-07,-1.680
3.000E-07,-1.760
3.100E-07,-1.760
3.200E-07,-1.720
3.300E-07,-1.560
3.400E-07,-1.480
3.500E-07,-1.600
3.600E-07,-1.720
3.700E-07,-1.880
3.800E-07,-2.080
3.900E-07,-2.160
4.000E-07,-2.200
4.100E-07,-2.320
4.200E-07,-2.440
4.300E-07,-2.640
4.400E-07,-2.960
4.500E-07,-3.320
4.600E-07,-3.720
4.700E-07,-4.080
4.800E-07,-4.320
4.900E-07,-4.560
5.000E-07,-4.840
5.100E-07,-5.200
5.200E-07,-5.200
5.300E-07,-5.200
5.400E-07,-5.200
5.500E-07,-5.200
5.600E-07,-5.240
5.700E-07,-5.240
5.800E-07,-5.240
5.900E-07,-5.240
6.000E-07,-5.240
6.100E-07,-5.240
6.200E-07,-5.240
6.300E-07,-5.200
6.400E-07,-5.200
6.500E-07,-5.200
6.600E-07,-5.200
6.700E-07,-5.240
6.800E-07,-5.240
6.900E-07,-5.240
7.000E-07,-5.240
7.100E-07,-5.240
7.200E-07,-5.200
7.300E-07,-5.200
7.400E-07,-5.200
7.500E-07,-5.160
7.600E-07,-5.000
7.700E-07,-4.880
7.800E-07,-4.720
7.900E-07,-4.840
8.000E-07,-4.680
8.100E-07,-4.640
8.200E-07,-4.480
8.300E-07,-4.480
8.400E-07,-4.440
8.500E-07,-4.560
8.600E-07,-4.520
8.700E-07,-4.560
8.800E-07,-4.360
8.900E-07,-4.160
9.000E-07,-3.960
9.100E-07,-3.760
9.200E-07,-3.680
9.300E-07,-4.000
9.400E-07,-3.840
9.500E-07,-4.000
9.600E-07,-3.480
9.700E-07,-3.000
9.800E-07,-2.400
9.900E-07,-1.880
1.000E-06,-1.840
1.010E-06,-1.720
1.020E-06,-1.440
1.030E-06,-1.400
1.040E-06,-1.000
1.050E-06,-0.800
1.060E-06,-0.560
1.070E-06,-0.320
1.080E-06,0.000
1.090E-06,0.120
1.100E-06,0.520
1.110E-06,0.760
1.120E-06,1.000
1.130E-06,1.200
1.140E-06,1.440
1.150E-06,1.600
1.160E-06,1.680
1.170E-06,1.800
1.180E-06,1.840
1.190E-06,1.840
1.200E-06,1.920
1.210E-06,1.760
1.220E-06,1.600
1.230E-06,1.080
1.240E-06,0.600
1.250E-06,0.000
1.260E-06,-0.520
1.270E-06,-0.960
1.280E-06,-1.400
1.290E-06,-1.880
1.300E-06,-2.480
1.310E-06,-3.160
1.320E-06,-3.680
1.330E-06,-4.280
1.340E-06,-4.680
1.350E-06,-5.000
1.360E-06,-5.240
1.370E-06,-5.240
1.380E-06,-5.240
1.390E-06,-5.240
1.400E-06,-5.240
1.410E-06,-5.200
1.420E-06,-5.240
1.430E-06,-5.200
1.440E-06,-5.200
1.450E-06,-5.200
1.460E-06,-5.240
1.470E-06,-5.240
1.480E-06,-5.240
1.490E-06,-5.240
1.500E-06,-5.200
1.510E-06,-5.200
1.520E-06,-5.240
1.530E-06,-5.240
1.540E-06,-5.200
1.550E-06,-5.200
1.560E-06,-5.200
1.570E-06,-5.200
1.580E-06,-5.200
1.590E-06,-5.240
1.600E-06,-5.200
1.610E-06,-5.160
1.620E-06,-5.120
1.630E-06,-5.040
1.640E-06,-4.920
1.650E-06,-4.880
1.660E-06,-4.680
1.670E-06,-4.560
1.680E-06,-4.440
1.690E-06,-4.360
1.700E-06,-4.280
1.710E-06,-4.160
1.720E-06,-4.080
1.730E-06,-4.040
1.740E-06,-3.840
1.750E-06,-3.760
1.760E-06,-3.640
1.770E-06,-3.600
1.780E-06,-3.560
1.790E-06,-3.400
1.800E-06,-3.360
1.810E-06,-3.280
1.820E-06,-3.160
1.830E-06,-3.120
1.840E-06,-3.040
1.850E-06,-3.040
1.860E-06,-2.920
1.870E-06,-2.920
1.880E-06,-2.880
1.890E-06,-2.920
1.900E-06,-2.880
1.910E-06,-2.800
1.920E-06,-2.800
1.930E-06,-2.760
1.940E-06,-2.720
1.950E-06,-2.720
1.960E-06,-2.680
1.970E-06,-2.640
1.980E-06,-2.640
1.990E-06,-2.680
2.000E-06,-2.640
2.010E-06,-2.640
2.020E-06,-2.680
2.030E-06,-2.640
2.040E-06,-2.640
2.050E-06,-2.600
2.060E-06,-2.560
2.070E-06,-2.560
2.080E-06,-2.520
2.090E-06,-2.520
2.100E-06,-2.480
2.110E-06,-2.480
2.120E-06,-2.480
2.130E-06,-2.480
2.140E-06,-2.480
2.150E-06,-2.440
2.160E-06,-2.440
2.170E-06,-2.480
2.180E-06,-2.520
2.190E-06,-2.520
2.200E-06,-2.480
2.210E-06,-2.480
2.220E-06,-2.480
2.230E-06,-2.480
2.240E-06,-2.480
2.250E-06,-2.520
2.260E-06,-2.400
2.270E-06,-2.440
2.280E-06,-2.440
2.290E-06,-2.400
2.300E-06,-2.360
2.310E-06,-2.360
2.320E-06,-2.280
2.330E-06,-2.280
2.340E-06,-2.280
2.350E-06,-2.240
2.360E-06,-2.280
2.370E-06,-2.240
2.380E-06,-2.280
2.390E-06,-2.280
2.400E-06,-2.280
2.410E-06,-2.200
2.420E-06,-2.160
2.430E-06,-2.120
2.440E-06,-2.000
2.450E-06,-1.920
2.460E-06,-1.880
2.470E-06,-1.840
2.480E-06,-1.760
2.490E-06,-1.720
2.500E-06,-1.560
2.510E-06,-1.560
2.520E-06,-1.480
2.530E-06,-1.480
2.540E-06,-1.480
2.550E-06,-1.520
2.560E-06,-1.560
2.570E-06,-1.680
2.580E-06,-1.760
2.590E-06,-1.840
2.600E-06,-1.920
2.610E-06,-1.920
2.620E-06,-2.000
2.630E-06,-2.000
2.640E-06,-2.080
2.650E-06,-2.120
2.660E-06,-2.120
2.670E-06,-2.160
2.680E-06,-2.120
2.690E-06,-2.040
2.700E-06,-2.000
2.710E-06,-1.960
2.720E-06,-1.880
2.730E-06,-1.760
2.740E-06,-1.680
2.750E-06,-1.640
2.760E-06,-1.600
2.770E-06,-1.600
2.780E-06,-1.680
2.790E-06,-1.800
2.800E-06,-1.880
2.810E-06,-1.960
2.820E-06,-2.080
2.830E-06,-2.160
2.840E-06,-2.280
2.850E-06,-2.320
2.860E-06,-2.360
2.870E-06,-2.320
2.880E-06,-2.240
2.890E-06,-2.200
2.900E-06,-2.200
2.910E-06,-2.160
2.920E-06,-2.160
2.930E-06,-2.200
2.940E-06,-2.040
2.950E-06,-2.000
2.960E-06,-1.840
2.970E-06,-1.680
2.980E-06,-1.560
2.990E-06,-1.320
3.000E-06,-1.120
3.010E-06,-1.040
3.020E-06,-0.920
3.030E-06,-0.880
3.040E-06,-0.880
3.050E-06,-0.880
3.060E-06,-0.920
3.070E-06,-1.000
3.080E-06,-0.880
3.090E-06,-0.840
3.100E-06,-0.720
3.110E-06,-0.720
3.120E-06,-0.640
3.130E-06,-0.680
3.140E-06,-0.680
3.150E-06,-0.680
3.160E-06,-0.760
3.170E-06,-0.760
3.180E-06,-0.840
3.190E-06,-0.840
3.200E-06,-0.840
3.210E-06,-0.960
3.220E-06,-1.080
3.230E-06,-1.160
3.240E-06,-1.320
3.250E-06,-1.520
3.260E-06,-1.720
3.270E-06,-1.840
3.280E-06,-1.960
3.290E-06,-2.040
3.300E-06,-2.040
3.310E-06,-2.040
3.320E-06,-2.000
3.330E-06,-1.880
3.340E-06,-1.800
3.350E-06,-1.720
3.360E-06,-1.680
3.370E-06,-1.640
3.380E-06,-1.640
3.390E-06,-1.640
3.400E-06,-1.640
3.410E-06,-1.680
3.420E-06,-1.640
3.430E-06,-1.640
3.440E-06,-1.640
3.450E-06,-1.600
3.460E-06,-1.520
3.470E-06,-1.600
3.480E-06,-1.560
3.490E-06,-1.520
3.500E-06,-1.520
3.510E-06,-1.520
3.520E-06,-1.520
3.530E-06,-1.480
3.540E-06,-1.480
3.550E-06,-1.440
3.560E-06,-1.400
3.570E-06,-1.440
3.580E-06,-1.360
3.590E-06,-1.360
3.600E-06,-1.400
3.610E-06,-1.360
3.620E-06,-1.320
3.630E-06,-1.280
3.640E-06,-1.120
3.650E-06,-1.040
3.660E-06,-0.920
3.670E-06,-0.760
3.680E-06,-0.600
3.690E-06,-0.440
3.700E-06,-0.360
3.710E-06,-0.320
3.720E-06,-0.160
3.730E-06,-0.160
3.740E-06,-0.120
3.750E-06,-0.120
3.760E-06,-0.200
3.770E-06,-0.240
3.780E-06,-0.360
3.790E-06,-0.360
3.800E-06,-0.440
3.810E-06,-0.480
3.820E-06,-0.520
3.830E-06,-0.560
3.840E-06,-0.600
3.850E-06,-0.640
3.860E-06,-0.640
3.870E-06,-0.600
3.880E-06,-0.680
3.890E-06,-0.640
3.900E-06,-0.680
3.910E-06,-0.760
3.920E-06,-0.800
3.930E-06,-0.840
3.940E-06,-0.840
3.950E-06,-0.880
3.960E-06,-0.920
3.970E-06,-0.880
3.980E-06,-0.880
3.990E-06,-0.920
4.000E-06,-0.920
4.010E-06,-0.920
4.020E-06,-0.880
4.030E-06,-1.000
4.040E-06,-1.000
4.050E-06,-1.200
4.060E-06,-1.240
4.070E-06,-1.320
4.080E-06,-1.360
4.090E-06,-1.360
4.100E-06,-1.400
4.110E-06,-1.400
4.120E-06,-1.320
4.130E-06,-1.320
4.140E-06,-1.280
4.150E-06,-1.320
4.160E-06,-1.280
4.170E-06,-1.360
4.180E-06,-1.400
4.190E-06,-1.400
4.200E-06,-1.440
4.210E-06,-1.480
4.220E-06,-1.480
4.230E-06,-1.440
4.240E-06,-1.400
4.250E-06,-1.400
4.260E-06,-1.360
4.270E-06,-1.240
4.280E-06,-1.200
4.290E-06,-1.080
4.300E-06,-1.000
4.310E-06,-0.840
4.320E-06,-0.800
4.330E-06,-0.720
4.340E-06,-0.640
4.350E-06,-0.520
4.360E-06,-0.480
4.370E-06,-0.400
4.380E-06,-0.240
4.390E-06,-0.200
4.400E-06,-0.120
4.410E-06,-0.080
4.420E-06,-0.040
4.430E-06,-0.040
4.440E-06,-0.040
4.450E-06,-0.040
4.460E-06,0.040
4.470E-06,0.080
4.480E-06,0.160
4.490E-06,0.200
4.500E-06,0.240
4.510E-06,0.360
4.520E-06,0.400
4.530E-06,0.400
4.540E-06,0.440
4.550E-06,0.520
4.560E-06,0.480
4.570E-06,0.560
4.580E-06,0.560
4.590E-06,0.640
4.600E-06,0.600
4.610E-06,0.600
4.620E-06,0.560
4.630E-06,0.480
4.640E-06,0.400
4.650E-06,0.320
4.660E-06,0.200
4.670E-06,0.120
4.680E-06,0.080
4.690E-06,0.000
4.700E-06,-0.080
4.710E-06,-0.160
4.720E-06,-0.280
4.730E-06,-0.320
4.740E-06,-0.440
4.750E-06,-0.560
4.760E-06,-0.600
4.770E-06,-0.640
4.780E-06,-0.640
4.790E-06,-0.680
4.800E-06,-0.680
4.810E-06,-0.720
4.820E-06,-0.760
4.830E-06,-0.720
4.840E-06,-0.720
4.850E-06,-0.680
4.860E-06,-0.600
4.870E-06,-0.520
4.880E-06,-0.440
4.890E-06,-0.280
4.900E-06,-0.160
4.910E-06,-0.040
4.920E-06,0.040
4.930E-06,0.200
4.940E-06,0.200
4.950E-06,0.160
4.960E-06,0.280
4.970E-06,0.320
4.980E-06,0.280
4.990E-06,0.280
5.000E-06,0.240
5.010E-06,0.240
5.020E-06,0.120
5.030E-06,0.040
5.040E-06,0.040
5.050E-06,0.040
5.060E-06,-0.080
5.070E-06,-0.040
5.080E-06,-0.080
5.090E-06,-0.120
5.100E-06,-0.200
5.110E-06,-0.160
5.120E-06,-0.160
5.130E-06,-0.280
5.140E-06,-0.200
5.150E-06,-0.200
5.160E-06,-0.160
5.170E-06,-0.160
5.180E-06,-0.120
5.190E-06,-0.120
5.200E-06,-0.160
5.210E-06,-0.160
5.220E-06,-0.240
5.230E-06,-0.280
5.240E-06,-0.360
5.250E-06,-0.440
5.260E-06,-0.480
5.270E-06,-0.560
5.280E-06,-0.640
5.290E-06,-0.680
5.300E-06,-0.720
5.310E-06,-0.760
5.320E-06,-0.760
5.330E-06,-0.800
5.340E-06,-0.760
5.350E-06,-0.760
5.360E-06,-0.760
5.370E-06,-0.800
5.380E-06,-0.800
5.390E-06,-0.840
5.400E-06,-0.920
5.410E-06,-0.960
5.420E-06,-1.000
5.430E-06,-1.120
5.440E-06,-1.160
5.450E-06,-1.160
5.460E-06,-1.160
5.470E-06,-1.120
5.480E-06,-1.040
5.490E-06,-1.000
5.500E-06,-0.840
5.510E-06,-0.800
5.520E-06,-0.680
5.530E-06,-0.560
5.540E-06,-0.480
5.550E-06,-0.440
5.560E-06,-0.320
5.570E-06,-0.240
5.580E-06,-0.160
5.590E-06,-0.040
5.600E-06,0.040
5.610E-06,0.120
5.620E-06,0.200
5.630E-06,0.240
5.640E-06,0.360
5.650E-06,0.440
5.660E-06,0.480
5.670E-06,0.480
5.680E-06,0.600
5.690E-06,0.640
5.700E-06,0.720
5.710E-06,0.680
5.720E-06,0.760
5.730E-06,0.800
5.740E-06,0.760
5.750E-06,0.720
5.760E-06,0.720
5.770E-06,0.680
5.780E-06,0.640
5.790E-06,0.680
5.800E-06,0.680
5.810E-06,0.720
5.820E-06,0.760
5.830E-06,0.800
5.840E-06,0.880
5.850E-06,0.880
5.860E-06,0.880
5.870E-06,0.920
5.880E-06,1.000
5.890E-06,0.960
5.900E-06,1.000
5.910E-06,1.040
5.920E-06,0.960
5.930E-06,0.920
5.940E-06,0.880
5.950E-06,0.880
5.960E-06,0.680
5.970E-06,0.680
5.980E-06,0.640
5.990E-06,0.600
6.000E-06,0.520
6.010E-06,0.520
6.020E-06,0.480
6.030E-06,0.480
6.040E-06,0.440
6.050E-06,0.320
6.060E-06,0.240
6.070E-06,0.160
6.080E-06,0.000
6.090E-06,-0.040
6.100E-06,-0.040
6.110E-06,0.000
6.120E-06,-0.040
6.130E-06,0.000
6.140E-06,0.040
6.150E-06,0.080
6.160E-06,0.120
6.170E-06,0.200
6.180E-06,0.280
6.190E-06,0.400
6.200E-06,0.440
6.210E-06,0.480
6.220E-06,0.600
6.230E-06,0.640
6.240E-06,0.680
6.250E-06,0.760
6.260E-06,0.840
6.270E-06,0.880
6.280E-06,0.920
6.290E-06,0.920
6.300E-06,0.960
6.310E-06,0.960
6.320E-06,0.920
6.330E-06,0.880
6.340E-06,0.920
6.350E-06,0.880
6.360E-06,0.800
6.370E-06,0.760
6.380E-06,0.760
6.390E-06,0.760
6.400E-06,0.760
6.410E-06,0.800
6.420E-06,0.760
6.430E-06,0.800
6.440E-06,0.800
6.450E-06,0.800
6.460E-06,0.760
6.470E-06,0.760
6.480E-06,0.680
6.490E-06,0.640
6.500E-06,0.640
6.510E-06,0.600
6.520E-06,0.560
6.530E-06,0.600
6.540E-06,0.640
6.550E-06,0.640
6.560E-06,0.760
6.570E-06,0.840
6.580E-06,0.960
6.590E-06,1.040
6.600E-06,1.080
6.610E-06,1.160
6.620E-06,1.200
6.630E-06,1.240
6.640E-06,1.240
6.650E-06,1.320
6.660E-06,1.320
6.670E-06,1.320
6.680E-06,1.440
6.690E-06,1.440
6.700E-06,1.440
6.710E-06,1.480
6.720E-06,1.480
6.730E-06,1.560
6.740E-06,1.600
6.750E-06,1.560
6.760E-06,1.600
6.770E-06,1.640
6.780E-06,1.760
6.790E-06,1.840
6.800E-06,1.920
6.810E-06,2.040
6.820E-06,2.200
6.830E-06,2.320
6.840E-06,2.480
6.850E-06,2.800
6.860E-06,3.080
6.870E-06,3.440
6.880E-06,3.880
6.890E-06,4.400
6.900E-06,4.840
6.910E-06,5.360
6.920E-06,5.440
6.930E-06,5.400
6.940E-06,5.440
6.950E-06,5.480
6.960E-06,5.480
6.970E-06,5.480
6.980E-06,5.400
6.990E-06,5.400
7.000E-06,5.440
7.010E-06,5.480
7.020E-06,5.480
7.030E-06,5.400
7.040E-06,5.400
7.050E-06,5.440
7.060E-06,5.400
7.070E-06,5.440
7.080E-06,5.440
7.090E-06,5.440
7.100E-06,5.400
7.110E-06,5.400
7.120E-06,5.440
7.130E-06,5.400
7.140E-06,5.440
7.150E-06,5.440
7.160E-06,5.440
7.170E-06,5.440
7.180E-06,5.400
7.190E-06,5.440
7.200E-06,5.440
7.210E-06,5.240
7.220E-06,5.160
7.230E-06,5.000
7.240E-06,4.840
7.250E-06,4.720
7.260E-06,4.600
7.270E-06,4.480
7.280E-06,4.400
7.290E-06,4.280
7.300E-06,4.160
7.310E-06,4.080
7.320E-06,3.960
7.330E-06,3.840
7.340E-06,3.720
7.350E-06,3.680
7.360E-06,3.520
7.370E-06,3.400
7.380E-06,3.320
7.390E-06,3.160
7.400E-06,3.120
7.410E-06,3.000
7.420E-06,3.000
7.430E-06,2.920
7.440E-06,2.800
7.450E-06,2.760
7.460E-06,2.720
7.470E-06,2.680
7.480E-06,2.520
7.490E-06,2.480
7.500E-06,2.360
7.510E-06,2.360
7.520E-06,2.240
7.530E-06,2.160
7.540E-06,2.160
7.550E-06,2.040
7.560E-06,2.000
7.570E-06,2.000
7.580E-06,1.880
7.590E-06,1.800
7.600E-06,1.840
7.610E-06,1.760
7.620E-06,1.720
7.630E-06,1.680
7.640E-06,1.640
7.650E-06,1.560
7.660E-06,1.560
7.670E-06,1.520
7.680E-06,1.480
7.690E-06,1.400
7.700E-06,1.400
7.710E-06,1.360
7.720E-06,1.360
7.730E-06,1.360
7.740E-06,1.280
7.750E-06,1.160
7.760E-06,1.200
7.770E-06,1.200
7.780E-06,1.120
7.790E-06,1.120
7.800E-06,1.040
7.810E-06,1.080
7.820E-06,1.120
7.830E-06,1.080
7.840E-06,1.080
7.850E-06,1.040
7.860E-06,1.080
7.870E-06,1.080
7.880E-06,1.040
7.890E-06,0.960
7.900E-06,1.000
7.910E-06,1.040
7.920E-06,1.000
7.930E-06,0.920
7.940E-06,0.920
7.950E-06,0.960
7.960E-06,0.920
7.970E-06,0.920
7.980E-06,0.920
7.990E-06,0.920
8.000E-06,0.840
8.010E-06,0.840
8.020E-06,0.840
8.030E-06,0.840
8.040E-06,0.800
8.050E-06,0.760
8.060E-06,0.760
8.070E-06,0.800
