mediciones/Mediciones filtradas (saque las feas)/5-27/-27.5/WaveData5192.csv

#timebase=2000000(ps)
,#voltbase=100000(mv/100)
#size=4000
-3.800E-06,0.044
-3.790E-06,-0.120
-3.780E-06,-0.168
-3.770E-06,-0.116
-3.760E-06,0.012
-3.750E-06,0.104
-3.740E-06,0.160
-3.730E-06,0.120
-3.720E-06,0.012
-3.710E-06,-0.040
-3.700E-06,-0.068
-3.690E-06,-0.016
-3.680E-06,0.048
-3.670E-06,0.052
-3.660E-06,0.032
-3.650E-06,0.000
-3.640E-06,-0.080
-3.630E-06,-0.100
-3.620E-06,-0.120
-3.610E-06,-0.068
-3.600E-06,-0.012
-3.590E-06,0.040
-3.580E-06,0.060
-3.570E-06,0.020
-3.560E-06,-0.004
-3.550E-06,-0.044
-3.540E-06,-0.020
-3.530E-06,0.012
-3.520E-06,0.052
-3.510E-06,0.048
-3.500E-06,0.012
-3.490E-06,-0.016
-3.480E-06,-0.036
-3.470E-06,-0.028
-3.460E-06,0.004
-3.450E-06,0.028
-3.440E-06,0.036
-3.430E-06,0.020
-3.420E-06,0.000
-3.410E-06,-0.020
-3.400E-06,-0.024
-3.390E-06,-0.012
-3.380E-06,0.012
-3.370E-06,0.036
-3.360E-06,0.044
-3.350E-06,0.032
-3.340E-06,0.000
-3.330E-06,-0.016
-3.320E-06,-0.032
-3.310E-06,-0.004
-3.300E-06,0.012
-3.290E-06,0.024
-3.280E-06,0.028
-3.270E-06,0.004
-3.260E-06,0.000
-3.250E-06,-0.004
-3.240E-06,0.004
-3.230E-06,0.012
-3.220E-06,0.024
-3.210E-06,0.024
-3.200E-06,0.024
-3.190E-06,0.008
-3.180E-06,0.004
-3.170E-06,0.012
-3.160E-06,0.012
-3.150E-06,0.004
-3.140E-06,0.004
-3.130E-06,0.024
-3.120E-06,0.032
-3.110E-06,0.048
-3.100E-06,0.048
-3.090E-06,0.048
-3.080E-06,0.052
-3.070E-06,0.028
-3.060E-06,0.008
-3.050E-06,-0.044
-3.040E-06,-0.068
-3.030E-06,-0.064
-3.020E-06,-0.036
-3.010E-06,0.000
-3.000E-06,0.004
-2.990E-06,0.024
-2.980E-06,0.008
-2.970E-06,0.004
-2.960E-06,0.000
-2.950E-06,0.016
-2.940E-06,0.024
-2.930E-06,0.020
-2.920E-06,0.008
-2.910E-06,-0.004
-2.900E-06,-0.012
-2.890E-06,-0.028
-2.880E-06,0.004
-2.870E-06,0.068
-2.860E-06,0.088
-2.850E-06,0.052
-2.840E-06,-0.004
-2.830E-06,-0.012
-2.820E-06,-0.012
-2.810E-06,0.012
-2.800E-06,0.008
-2.790E-06,-0.008
-2.780E-06,-0.032
-2.770E-06,-0.056
-2.760E-06,-0.044
-2.750E-06,-0.004
-2.740E-06,0.048
-2.730E-06,0.108
-2.720E-06,0.080
-2.710E-06,0.028
-2.700E-06,-0.008
-2.690E-06,-0.032
-2.680E-06,-0.028
-2.670E-06,0.020
-2.660E-06,0.068
-2.650E-06,0.092
-2.640E-06,0.088
-2.630E-06,0.048
-2.620E-06,0.020
-2.610E-06,-0.020
-2.600E-06,-0.044
-2.590E-06,-0.052
-2.580E-06,-0.036
-2.570E-06,-0.004
-2.560E-06,0.032
-2.550E-06,0.036
-2.540E-06,0.016
-2.530E-06,-0.024
-2.520E-06,-0.064
-2.510E-06,-0.068
-2.500E-06,-0.032
-2.490E-06,0.004
-2.480E-06,0.036
-2.470E-06,0.008
-2.460E-06,-0.036
-2.450E-06,-0.056
-2.440E-06,-0.064
-2.430E-06,-0.044
-2.420E-06,0.000
-2.410E-06,0.032
-2.400E-06,0.040
-2.390E-06,0.000
-2.380E-06,-0.008
-2.370E-06,-0.036
-2.360E-06,-0.024
-2.350E-06,0.000
-2.340E-06,0.008
-2.330E-06,0.012
-2.320E-06,-0.004
-2.310E-06,0.000
-2.300E-06,-0.020
-2.290E-06,-0.008
-2.280E-06,0.000
-2.270E-06,0.012
-2.260E-06,0.012
-2.250E-06,0.020
-2.240E-06,0.016
-2.230E-06,0.004
-2.220E-06,0.020
-2.210E-06,0.024
-2.200E-06,0.024
-2.190E-06,0.028
-2.180E-06,0.020
-2.170E-06,0.016
-2.160E-06,0.024
-2.150E-06,0.020
-2.140E-06,0.032
-2.130E-06,0.036
-2.120E-06,0.044
-2.110E-06,0.048
-2.100E-06,0.044
-2.090E-06,0.044
-2.080E-06,0.028
-2.070E-06,0.020
-2.060E-06,0.012
-2.050E-06,0.012
-2.040E-06,0.012
-2.030E-06,0.020
-2.020E-06,0.028
-2.010E-06,0.028
-2.000E-06,0.028
-1.990E-06,0.040
-1.980E-06,0.036
-1.970E-06,-0.052
-1.960E-06,-0.204
-1.950E-06,-0.308
-1.940E-06,-0.272
-1.930E-06,-0.104
-1.920E-06,0.088
-1.910E-06,0.172
-1.900E-06,0.188
-1.890E-06,0.092
-1.880E-06,-0.056
-1.870E-06,-0.132
-1.860E-06,-0.120
-1.850E-06,-0.008
-1.840E-06,0.088
-1.830E-06,0.124
-1.820E-06,0.080
-1.810E-06,0.040
-1.800E-06,0.012
-1.790E-06,0.024
-1.780E-06,0.024
-1.770E-06,0.020
-1.760E-06,-0.008
-1.750E-06,-0.028
-1.740E-06,0.028
-1.730E-06,0.036
-1.720E-06,0.056
-1.710E-06,0.044
-1.700E-06,-0.004
-1.690E-06,-0.020
-1.680E-06,-0.024
-1.670E-06,0.004
-1.660E-06,0.072
-1.650E-06,0.116
-1.640E-06,0.116
-1.630E-06,0.100
-1.620E-06,0.056
-1.610E-06,0.036
-1.600E-06,0.008
-1.590E-06,-0.004
-1.580E-06,-0.060
-1.570E-06,-0.140
-1.560E-06,-0.192
-1.550E-06,-0.208
-1.540E-06,-0.100
-1.530E-06,0.036
-1.520E-06,0.140
-1.510E-06,0.136
-1.500E-06,0.092
-1.490E-06,-0.012
-1.480E-06,-0.076
-1.470E-06,-0.100
-1.460E-06,-0.056
-1.450E-06,0.004
-1.440E-06,0.036
-1.430E-06,0.052
-1.420E-06,0.032
-1.410E-06,0.008
-1.400E-06,0.012
-1.390E-06,0.016
-1.380E-06,0.040
-1.370E-06,0.036
-1.360E-06,0.032
-1.350E-06,0.024
-1.340E-06,0.004
-1.330E-06,0.008
-1.320E-06,0.024
-1.310E-06,0.032
-1.300E-06,0.032
-1.290E-06,0.012
-1.280E-06,-0.004
-1.270E-06,-0.008
-1.260E-06,0.004
-1.250E-06,0.024
-1.240E-06,0.044
-1.230E-06,0.052
-1.220E-06,0.048
-1.210E-06,0.032
-1.200E-06,0.024
-1.190E-06,0.032
-1.180E-06,0.048
-1.170E-06,0.060
-1.160E-06,0.076
-1.150E-06,0.076
-1.140E-06,0.072
-1.130E-06,0.068
-1.120E-06,0.052
-1.110E-06,0.056
-1.100E-06,0.036
-1.090E-06,0.012
-1.080E-06,-0.060
-1.070E-06,-0.120
-1.060E-06,-0.140
-1.050E-06,-0.184
-1.040E-06,-0.208
-1.030E-06,-0.232
-1.020E-06,-0.112
-1.010E-06,0.024
-1.000E-06,0.136
-9.900E-07,0.172
-9.800E-07,0.096
-9.700E-07,0.008
-9.600E-07,-0.088
-9.500E-07,-0.112
-9.400E-07,-0.072
-9.300E-07,0.064
-9.200E-07,0.160
-9.100E-07,0.168
-9.000E-07,0.120
-8.900E-07,0.044
-8.800E-07,0.012
-8.700E-07,0.024
-8.600E-07,0.068
-8.500E-07,0.100
-8.400E-07,0.064
-8.300E-07,-0.084
-8.200E-07,-0.232
-8.100E-07,-0.324
-8.000E-07,-0.272
-7.900E-07,-0.096
-7.800E-07,0.088
-7.700E-07,0.192
-7.600E-07,0.164
-7.500E-07,0.060
-7.400E-07,-0.084
-7.300E-07,-0.144
-7.200E-07,-0.096
-7.100E-07,0.012
-7.000E-07,0.100
-6.900E-07,0.132
-6.800E-07,0.084
-6.700E-07,0.012
-6.600E-07,-0.020
-6.500E-07,-0.004
-6.400E-07,0.032
-6.300E-07,0.076
-6.200E-07,0.108
-6.100E-07,0.092
-6.000E-07,0.060
-5.900E-07,0.024
-5.800E-07,0.008
-5.700E-07,0.020
-5.600E-07,0.048
-5.500E-07,0.068
-5.400E-07,0.076
-5.300E-07,0.092
-5.200E-07,0.072
-5.100E-07,0.008
-5.000E-07,-0.060
-4.900E-07,-0.136
-4.800E-07,-0.180
-4.700E-07,-0.164
-4.600E-07,-0.152
-4.500E-07,-0.056
-4.400E-07,0.044
-4.300E-07,0.076
-4.200E-07,0.076
-4.100E-07,0.032
-4.000E-07,-0.036
-3.900E-07,-0.032
-3.800E-07,-0.028
-3.700E-07,0.036
-3.600E-07,0.080
-3.500E-07,0.052
-3.400E-07,0.008
-3.300E-07,-0.084
-3.200E-07,-0.100
-3.100E-07,-0.080
-3.000E-07,-0.008
-2.900E-07,0.072
-2.800E-07,0.092
-2.700E-07,0.064
-2.600E-07,0.008
-2.500E-07,-0.016
-2.400E-07,-0.004
-2.300E-07,0.040
-2.200E-07,0.088
-2.100E-07,0.104
-2.000E-07,0.080
-1.900E-07,0.044
-1.800E-07,0.020
-1.700E-07,0.032
-1.600E-07,0.060
-1.500E-07,0.100
-1.400E-07,0.120
-1.300E-07,0.124
-1.200E-07,0.108
-1.100E-07,0.092
-1.000E-07,0.080
-9.000E-08,0.056
-8.000E-08,0.016
-7.000E-08,-0.076
-6.000E-08,-0.200
-5.000E-08,-0.272
-4.000E-08,-0.272
-3.000E-08,-0.160
-2.000E-08,-0.008
-1.000E-08,0.180
0.000E+00,0.256
1.000E-08,0.228
2.000E-08,0.092
3.000E-08,-0.056
4.000E-08,-0.160
5.000E-08,-0.140
6.000E-08,-0.072
7.000E-08,0.024
8.000E-08,0.092
9.000E-08,0.064
1.000E-07,-0.032
1.100E-07,-0.144
1.200E-07,-0.132
1.300E-07,-0.108
1.400E-07,-0.096
1.500E-07,-0.084
1.600E-07,-0.068
1.700E-07,-0.012
1.800E-07,0.032
1.900E-07,0.056
2.000E-07,0.080
2.100E-07,0.060
2.200E-07,0.028
2.300E-07,-0.004
2.400E-07,0.000
2.500E-07,0.032
2.600E-07,0.060
2.700E-07,0.076
2.800E-07,0.084
2.900E-07,0.060
3.000E-07,0.036
3.100E-07,0.032
3.200E-07,0.060
3.300E-07,0.064
3.400E-07,0.056
3.500E-07,0.064
3.600E-07,0.080
3.700E-07,0.100
3.800E-07,0.120
3.900E-07,0.120
4.000E-07,0.124
4.100E-07,0.116
4.200E-07,0.096
4.300E-07,0.052
4.400E-07,-0.020
4.500E-07,-0.132
4.600E-07,-0.236
4.700E-07,-0.260
4.800E-07,-0.264
4.900E-07,-0.176
5.000E-07,-0.100
5.100E-07,-0.032
5.200E-07,-0.072
5.300E-07,-0.100
5.400E-07,-0.108
5.500E-07,-0.104
5.600E-07,-0.052
5.700E-07,0.028
5.800E-07,0.076
5.900E-07,0.100
6.000E-07,0.056
6.100E-07,0.000
6.200E-07,-0.040
6.300E-07,-0.040
6.400E-07,0.012
6.500E-07,0.072
6.600E-07,0.128
6.700E-07,0.120
6.800E-07,0.080
6.900E-07,0.040
7.000E-07,0.020
7.100E-07,0.048
7.200E-07,0.092
7.300E-07,0.128
7.400E-07,0.128
7.500E-07,0.096
7.600E-07,0.044
7.700E-07,0.012
7.800E-07,0.028
7.900E-07,0.088
8.000E-07,0.140
8.100E-07,0.172
8.200E-07,0.128
8.300E-07,0.048
8.400E-07,-0.088
8.500E-07,-0.196
8.600E-07,-0.240
8.700E-07,-0.188
8.800E-07,-0.084
8.900E-07,0.040
9.000E-07,0.100
9.100E-07,0.076
9.200E-07,0.004
9.300E-07,-0.088
9.400E-07,-0.140
9.500E-07,-0.120
9.600E-07,-0.052
9.700E-07,0.056
9.800E-07,0.128
9.900E-07,0.132
1.000E-06,0.108
1.010E-06,0.048
1.020E-06,0.020
1.030E-06,0.056
1.040E-06,0.124
1.050E-06,0.176
1.060E-06,0.188
1.070E-06,0.156
1.080E-06,0.092
1.090E-06,0.036
1.100E-06,0.016
1.110E-06,0.048
1.120E-06,0.104
1.130E-06,0.156
1.140E-06,0.176
1.150E-06,0.160
1.160E-06,0.120
1.170E-06,0.088
1.180E-06,0.076
1.190E-06,0.096
1.200E-06,0.124
1.210E-06,0.144
1.220E-06,0.136
1.230E-06,0.092
1.240E-06,0.024
1.250E-06,-0.040
1.260E-06,-0.088
1.270E-06,-0.088
1.280E-06,-0.080
1.290E-06,-0.068
1.300E-06,-0.040
1.310E-06,-0.040
1.320E-06,-0.012
1.330E-06,0.024
1.340E-06,0.072
1.350E-06,0.124
1.360E-06,0.152
1.370E-06,0.152
1.380E-06,0.136
1.390E-06,0.120
1.400E-06,0.100
1.410E-06,0.100
1.420E-06,0.112
1.430E-06,0.124
1.440E-06,0.108
1.450E-06,0.024
1.460E-06,-0.040
1.470E-06,-0.132
1.480E-06,-0.124
1.490E-06,-0.044
1.500E-06,-0.008
1.510E-06,0.080
1.520E-06,0.044
1.530E-06,0.024
1.540E-06,-0.004
1.550E-06,-0.076
1.560E-06,-0.108
1.570E-06,0.008
1.580E-06,0.160
1.590E-06,0.184
1.600E-06,0.052
1.610E-06,-0.240
1.620E-06,-0.508
1.630E-06,-0.512
1.640E-06,-0.504
1.650E-06,-0.084
1.660E-06,0.440
1.670E-06,0.540
1.680E-06,0.540
1.690E-06,0.144
1.700E-06,-0.244
1.710E-06,-0.436
1.720E-06,-0.372
1.730E-06,-0.132
1.740E-06,0.160
1.750E-06,0.320
1.760E-06,0.268
1.770E-06,0.132
1.780E-06,-0.048
1.790E-06,-0.080
1.800E-06,-0.028
1.810E-06,0.088
1.820E-06,0.172
1.830E-06,0.212
1.840E-06,0.184
1.850E-06,0.096
1.860E-06,0.020
1.870E-06,0.000
1.880E-06,0.024
1.890E-06,0.096
1.900E-06,0.176
1.910E-06,0.192
1.920E-06,0.176
1.930E-06,0.092
1.940E-06,-0.012
1.950E-06,-0.060
1.960E-06,-0.044
1.970E-06,0.016
1.980E-06,0.052
1.990E-06,0.084
2.000E-06,0.052
2.010E-06,0.000
2.020E-06,-0.040
2.030E-06,-0.056
2.040E-06,-0.008
2.050E-06,0.008
2.060E-06,0.028
2.070E-06,0.024
2.080E-06,-0.008
2.090E-06,-0.044
2.100E-06,-0.044
2.110E-06,0.000
2.120E-06,0.084
2.130E-06,0.148
2.140E-06,0.172
2.150E-06,0.156
2.160E-06,0.112
2.170E-06,0.072
2.180E-06,0.040
2.190E-06,0.040
2.200E-06,0.088
2.210E-06,0.136
2.220E-06,0.164
2.230E-06,0.184
2.240E-06,0.176
2.250E-06,0.156
2.260E-06,0.108
2.270E-06,0.088
2.280E-06,0.064
2.290E-06,0.068
2.300E-06,0.092
2.310E-06,0.088
2.320E-06,0.088
2.330E-06,0.064
2.340E-06,0.048
2.350E-06,0.028
2.360E-06,0.048
2.370E-06,0.080
2.380E-06,0.108
2.390E-06,0.124
2.400E-06,0.112
2.410E-06,0.096
2.420E-06,0.092
2.430E-06,0.096
2.440E-06,0.120
2.450E-06,0.156
2.460E-06,0.184
2.470E-06,0.192
2.480E-06,0.180
2.490E-06,0.156
2.500E-06,0.140
2.510E-06,0.136
2.520E-06,0.144
2.530E-06,0.160
2.540E-06,0.172
2.550E-06,0.176
2.560E-06,0.168
2.570E-06,0.152
2.580E-06,0.152
2.590E-06,0.144
2.600E-06,0.152
2.610E-06,0.156
2.620E-06,0.160
2.630E-06,0.164
2.640E-06,0.160
2.650E-06,0.160
2.660E-06,0.152
2.670E-06,0.144
2.680E-06,0.152
2.690E-06,0.156
2.700E-06,0.168
2.710E-06,0.168
2.720E-06,0.160
2.730E-06,0.160
2.740E-06,0.152
2.750E-06,0.152
2.760E-06,0.156
2.770E-06,0.156
2.780E-06,0.156
2.790E-06,0.160
2.800E-06,0.164
2.810E-06,0.160
2.820E-06,0.152
2.830E-06,0.148
2.840E-06,0.152
2.850E-06,0.152
2.860E-06,0.160
2.870E-06,0.160
2.880E-06,0.160
2.890E-06,0.156
2.900E-06,0.156
2.910E-06,0.152
2.920E-06,0.152
2.930E-06,0.152
2.940E-06,0.156
2.950E-06,0.156
2.960E-06,0.160
2.970E-06,0.156
2.980E-06,0.152
2.990E-06,0.152
3.000E-06,0.152
3.010E-06,0.152
3.020E-06,0.152
3.030E-06,0.152
3.040E-06,0.152
3.050E-06,0.152
3.060E-06,0.148
3.070E-06,0.148
3.080E-06,0.148
3.090E-06,0.152
3.100E-06,0.152
3.110E-06,0.152
3.120E-06,0.156
3.130E-06,0.156
3.140E-06,0.144
3.150E-06,0.144
3.160E-06,0.144
3.170E-06,0.148
3.180E-06,0.152
3.190E-06,0.152
3.200E-06,0.160
3.210E-06,0.148
3.220E-06,0.144
3.230E-06,0.152
3.240E-06,0.144
3.250E-06,0.148
3.260E-06,0.148
3.270E-06,0.148
3.280E-06,0.148
3.290E-06,0.144
3.300E-06,0.144
3.310E-06,0.148
3.320E-06,0.140
3.330E-06,0.140
3.340E-06,0.144
3.350E-06,0.140
3.360E-06,0.144
3.370E-06,0.140
3.380E-06,0.140
3.390E-06,0.140
3.400E-06,0.140
3.410E-06,0.140
3.420E-06,0.140
3.430E-06,0.140
3.440E-06,0.140
3.450E-06,0.140
3.460E-06,0.136
3.470E-06,0.136
3.480E-06,0.136
3.490E-06,0.140
3.500E-06,0.140
3.510E-06,0.136
3.520E-06,0.136
3.530E-06,0.140
3.540E-06,0.144
3.550E-06,0.136
3.560E-06,0.136
3.570E-06,0.140
3.580E-06,0.140
3.590E-06,0.144
3.600E-06,0.136
3.610E-06,0.136
3.620E-06,0.140
3.630E-06,0.136
3.640E-06,0.140
3.650E-06,0.140
3.660E-06,0.144
3.670E-06,0.140
3.680E-06,0.140
3.690E-06,0.140
3.700E-06,0.136
3.710E-06,0.140
3.720E-06,0.136
3.730E-06,0.136
3.740E-06,0.136
3.750E-06,0.136
3.760E-06,0.136
3.770E-06,0.136
3.780E-06,0.136
3.790E-06,0.136
3.800E-06,0.132
3.810E-06,0.132
3.820E-06,0.132
3.830E-06,0.128
3.840E-06,0.132
3.850E-06,0.132
3.860E-06,0.136
3.870E-06,0.136
3.880E-06,0.128
3.890E-06,0.128
3.900E-06,0.128
3.910E-06,0.128
3.920E-06,0.132
3.930E-06,0.132
3.940E-06,0.132
3.950E-06,0.132
3.960E-06,0.128
3.970E-06,0.128
3.980E-06,0.128
3.990E-06,0.128
4.000E-06,0.128
4.010E-06,0.128
4.020E-06,0.128
4.030E-06,0.128
4.040E-06,0.132
4.050E-06,0.132
4.060E-06,0.132
4.070E-06,0.128
4.080E-06,0.128
4.090E-06,0.124
4.100E-06,0.120
4.110E-06,0.124
4.120E-06,0.124
4.130E-06,0.124
4.140E-06,0.124
4.150E-06,0.128
4.160E-06,0.124
4.170E-06,0.124
4.180E-06,0.120
4.190E-06,0.128
4.200E-06,0.124
4.210E-06,0.128
4.220E-06,0.128
4.230E-06,0.128
4.240E-06,0.128
4.250E-06,0.124
4.260E-06,0.124
4.270E-06,0.120
4.280E-06,0.124
4.290E-06,0.120
4.300E-06,0.124
4.310E-06,0.124
4.320E-06,0.124
4.330E-06,0.120
4.340E-06,0.120
4.350E-06,0.120
4.360E-06,0.124
4.370E-06,0.124
4.380E-06,0.124
4.390E-06,0.120
4.400E-06,0.116
4.410E-06,0.108
4.420E-06,0.112
4.430E-06,0.108
4.440E-06,0.108
4.450E-06,0.116
4.460E-06,0.120
4.470E-06,0.120
4.480E-06,0.112
4.490E-06,0.108
4.500E-06,0.104
4.510E-06,0.104
4.520E-06,0.108
4.530E-06,0.112
4.540E-06,0.112
4.550E-06,0.116
4.560E-06,0.112
4.570E-06,0.108
4.580E-06,0.108
4.590E-06,0.112
4.600E-06,0.112
4.610E-06,0.124
4.620E-06,0.120
4.630E-06,0.120
4.640E-06,0.120
4.650E-06,0.116
4.660E-06,0.116
4.670E-06,0.112
4.680E-06,0.116
4.690E-06,0.112
4.700E-06,0.116
4.710E-06,0.112
4.720E-06,0.112
4.730E-06,0.108
4.740E-06,0.108
4.750E-06,0.108
4.760E-06,0.104
4.770E-06,0.108
4.780E-06,0.104
4.790E-06,0.104
4.800E-06,0.108
4.810E-06,0.108
4.820E-06,0.104
4.830E-06,0.104
4.840E-06,0.100
4.850E-06,0.104
4.860E-06,0.104
4.870E-06,0.100
4.880E-06,0.100
4.890E-06,0.096
4.900E-06,0.104
4.910E-06,0.100
4.920E-06,0.096
4.930E-06,0.096
4.940E-06,0.100
4.950E-06,0.096
4.960E-06,0.096
4.970E-06,0.100
4.980E-06,0.100
4.990E-06,0.100
5.000E-06,0.096
5.010E-06,0.092
5.020E-06,0.100
5.030E-06,0.100
5.040E-06,0.100
5.050E-06,0.096
5.060E-06,0.100
5.070E-06,0.100
5.080E-06,0.092
5.090E-06,0.092
5.100E-06,0.100
5.110E-06,0.096
5.120E-06,0.096
5.130E-06,0.104
5.140E-06,0.096
5.150E-06,0.096
5.160E-06,0.096
5.170E-06,0.092
5.180E-06,0.092
5.190E-06,0.092
5.200E-06,0.100
5.210E-06,0.092
5.220E-06,0.096
5.230E-06,0.092
5.240E-06,0.092
5.250E-06,0.096
5.260E-06,0.096
5.270E-06,0.092
5.280E-06,0.096
5.290E-06,0.092
5.300E-06,0.096
5.310E-06,0.092
5.320E-06,0.096
5.330E-06,0.092
5.340E-06,0.092
5.350E-06,0.088
5.360E-06,0.088
5.370E-06,0.092
5.380E-06,0.088
5.390E-06,0.092
5.400E-06,0.092
5.410E-06,0.092
5.420E-06,0.088
5.430E-06,0.084
5.440E-06,0.088
5.450E-06,0.092
5.460E-06,0.092
5.470E-06,0.088
5.480E-06,0.088
5.490E-06,0.088
5.500E-06,0.084
5.510E-06,0.088
5.520E-06,0.088
5.530E-06,0.084
5.540E-06,0.084
5.550E-06,0.084
5.560E-06,0.088
5.570E-06,0.080
5.580E-06,0.080
5.590E-06,0.084
5.600E-06,0.080
5.610E-06,0.076
5.620E-06,0.080
5.630E-06,0.080
5.640E-06,0.076
5.650E-06,0.076
5.660E-06,0.080
5.670E-06,0.080
5.680E-06,0.076
5.690E-06,0.076
5.700E-06,0.080
5.710E-06,0.076
5.720E-06,0.080
5.730E-06,0.084
5.740E-06,0.080
5.750E-06,0.076
5.760E-06,0.076
5.770E-06,0.080
5.780E-06,0.080
5.790E-06,0.076
5.800E-06,0.080
5.810E-06,0.076
5.820E-06,0.076
5.830E-06,0.072
5.840E-06,0.076
5.850E-06,0.076
5.860E-06,0.072
5.870E-06,0.076
5.880E-06,0.072
5.890E-06,0.076
5.900E-06,0.076
5.910E-06,0.076
5.920E-06,0.072
5.930E-06,0.076
5.940E-06,0.076
5.950E-06,0.068
5.960E-06,0.072
5.970E-06,0.068
5.980E-06,0.068
5.990E-06,0.068
6.000E-06,0.068
6.010E-06,0.068
6.020E-06,0.068
6.030E-06,0.068
6.040E-06,0.064
6.050E-06,0.068
6.060E-06,0.068
6.070E-06,0.068
6.080E-06,0.068
6.090E-06,0.068
6.100E-06,0.072
6.110E-06,0.072
6.120E-06,0.068
6.130E-06,0.068
6.140E-06,0.072
6.150E-06,0.064
6.160E-06,0.064
6.170E-06,0.064
6.180E-06,0.068
6.190E-06,0.064
6.200E-06,0.060
6.210E-06,0.068
6.220E-06,0.060
6.230E-06,0.064
6.240E-06,0.060
6.250E-06,0.060
6.260E-06,0.064
6.270E-06,0.060
6.280E-06,0.064
6.290E-06,0.064
6.300E-06,0.060
6.310E-06,0.064
6.320E-06,0.060
6.330E-06,0.064
6.340E-06,0.060
6.350E-06,0.060
6.360E-06,0.056
6.370E-06,0.056
6.380E-06,0.060
6.390E-06,0.056
6.400E-06,0.060
6.410E-06,0.060
6.420E-06,0.060
6.430E-06,0.056
6.440E-06,0.056
6.450E-06,0.056
6.460E-06,0.060
6.470E-06,0.060
6.480E-06,0.052
6.490E-06,0.052
6.500E-06,0.056
6.510E-06,0.056
6.520E-06,0.052
6.530E-06,0.056
6.540E-06,0.056
6.550E-06,0.052
6.560E-06,0.052
6.570E-06,0.052
6.580E-06,0.052
6.590E-06,0.056
6.600E-06,0.056
6.610E-06,0.052
6.620E-06,0.052
6.630E-06,0.056
6.640E-06,0.056
6.650E-06,0.052
6.660E-06,0.052
6.670E-06,0.048
6.680E-06,0.044
6.690E-06,0.048
6.700E-06,0.048
6.710E-06,0.044
6.720E-06,0.048
6.730E-06,0.044
6.740E-06,0.044
6.750E-06,0.048
6.760E-06,0.048
6.770E-06,0.044
6.780E-06,0.048
6.790E-06,0.048
6.800E-06,0.040
6.810E-06,0.044
6.820E-06,0.040
6.830E-06,0.044
6.840E-06,0.040
6.850E-06,0.040
6.860E-06,0.040
6.870E-06,0.040
6.880E-06,0.048
6.890E-06,0.048
6.900E-06,0.044
6.910E-06,0.044
6.920E-06,0.044
6.930E-06,0.044
6.940E-06,0.044
6.950E-06,0.044
6.960E-06,0.044
6.970E-06,0.040
6.980E-06,0.044
6.990E-06,0.048
7.000E-06,0.044
7.010E-06,0.040
7.020E-06,0.044
7.030E-06,0.048
7.040E-06,0.044
7.050E-06,0.048
7.060E-06,0.044
7.070E-06,0.040
7.080E-06,0.044
7.090E-06,0.044
7.100E-06,0.044
7.110E-06,0.040
7.120E-06,0.044
7.130E-06,0.044
7.140E-06,0.044
7.150E-06,0.044
7.160E-06,0.044
7.170E-06,0.040
7.180E-06,0.032
7.190E-06,0.036
7.200E-06,0.040
7.210E-06,0.036
7.220E-06,0.036
7.230E-06,0.032
7.240E-06,0.032
7.250E-06,0.036
7.260E-06,0.028
7.270E-06,0.032
7.280E-06,0.032
7.290E-06,0.032
7.300E-06,0.024
7.310E-06,0.028
7.320E-06,0.028
7.330E-06,0.032
7.340E-06,0.028
7.350E-06,0.028
7.360E-06,0.028
7.370E-06,0.024
7.380E-06,0.020
7.390E-06,0.028
7.400E-06,0.032
7.410E-06,0.032
7.420E-06,0.028
7.430E-06,0.020
7.440E-06,0.024
7.450E-06,0.028
7.460E-06,0.024
7.470E-06,0.024
7.480E-06,0.028
7.490E-06,0.028
7.500E-06,0.024
7.510E-06,0.024
7.520E-06,0.024
7.530E-06,0.028
7.540E-06,0.024
7.550E-06,0.028
7.560E-06,0.032
7.570E-06,0.024
7.580E-06,0.024
7.590E-06,0.024
7.600E-06,0.024
7.610E-06,0.028
7.620E-06,0.024
7.630E-06,0.020
7.640E-06,0.024
7.650E-06,0.020
7.660E-06,0.024
7.670E-06,0.028
7.680E-06,0.024
7.690E-06,0.020
7.700E-06,0.024
7.710E-06,0.020
7.720E-06,0.024
7.730E-06,0.024
7.740E-06,0.024
7.750E-06,0.024
7.760E-06,0.028
7.770E-06,0.024
7.780E-06,0.020
7.790E-06,0.020
7.800E-06,0.024
7.810E-06,0.028
7.820E-06,0.016
7.830E-06,0.020
7.840E-06,0.024
7.850E-06,0.020
7.860E-06,0.020
7.870E-06,0.020
7.880E-06,0.024
7.890E-06,0.020
7.900E-06,0.024
7.910E-06,0.016
7.920E-06,0.016
7.930E-06,0.020
7.940E-06,0.020
7.950E-06,0.016
7.960E-06,0.024
7.970E-06,0.016
7.980E-06,0.016
7.990E-06,0.020
8.000E-06,0.012
8.010E-06,0.016
8.020E-06,0.016
8.030E-06,0.024
8.040E-06,0.016
8.050E-06,0.012
8.060E-06,0.016
8.070E-06,0.020
8.080E-06,0.016
8.090E-06,0.012
8.100E-06,0.016
8.110E-06,0.012
8.120E-06,0.012
8.130E-06,0.020
8.140E-06,0.012
8.150E-06,0.016
8.160E-06,0.016
8.170E-06,0.012
8.180E-06,0.008
8.190E-06,0.012
8.200E-06,0.016
8.210E-06,0.008
8.220E-06,0.012
8.230E-06,0.012
8.240E-06,0.012
8.250E-06,0.016
8.260E-06,0.004
8.270E-06,0.012
8.280E-06,0.012
