mediciones/Mediciones filtradas (saque las feas)/5-27/-27.5/WaveData5189.csv

#timebase=2000000(ps)
,#voltbase=1000000(mv/100)
#size=4000
-3.800E-06,0.160
-3.790E-06,0.160
-3.780E-06,0.200
-3.770E-06,0.160
-3.760E-06,0.160
-3.750E-06,0.160
-3.740E-06,0.080
-3.730E-06,0.080
-3.720E-06,0.120
-3.710E-06,0.040
-3.700E-06,0.080
-3.690E-06,0.080
-3.680E-06,0.080
-3.670E-06,0.040
-3.660E-06,0.040
-3.650E-06,0.040
-3.640E-06,0.080
-3.630E-06,0.000
-3.620E-06,0.040
-3.610E-06,0.040
-3.600E-06,0.080
-3.590E-06,0.080
-3.580E-06,0.120
-3.570E-06,0.120
-3.560E-06,0.120
-3.550E-06,0.200
-3.540E-06,0.160
-3.530E-06,0.120
-3.520E-06,0.160
-3.510E-06,0.120
-3.500E-06,0.120
-3.490E-06,0.160
-3.480E-06,0.160
-3.470E-06,0.200
-3.460E-06,0.200
-3.450E-06,0.120
-3.440E-06,0.080
-3.430E-06,0.080
-3.420E-06,0.040
-3.410E-06,0.120
-3.400E-06,0.080
-3.390E-06,0.080
-3.380E-06,0.120
-3.370E-06,0.160
-3.360E-06,0.080
-3.350E-06,0.080
-3.340E-06,0.080
-3.330E-06,0.040
-3.320E-06,0.000
-3.310E-06,0.040
-3.300E-06,-0.040
-3.290E-06,0.000
-3.280E-06,-0.040
-3.270E-06,0.000
-3.260E-06,0.000
-3.250E-06,0.000
-3.240E-06,0.000
-3.230E-06,-0.040
-3.220E-06,0.000
-3.210E-06,-0.040
-3.200E-06,0.000
-3.190E-06,-0.040
-3.180E-06,0.000
-3.170E-06,-0.040
-3.160E-06,-0.040
-3.150E-06,-0.040
-3.140E-06,-0.040
-3.130E-06,0.000
-3.120E-06,0.000
-3.110E-06,-0.040
-3.100E-06,-0.040
-3.090E-06,0.040
-3.080E-06,-0.040
-3.070E-06,0.000
-3.060E-06,0.080
-3.050E-06,0.120
-3.040E-06,0.040
-3.030E-06,0.080
-3.020E-06,0.120
-3.010E-06,0.120
-3.000E-06,0.080
-2.990E-06,0.040
-2.980E-06,0.040
-2.970E-06,0.080
-2.960E-06,0.120
-2.950E-06,0.040
-2.940E-06,0.080
-2.930E-06,0.080
-2.920E-06,0.040
-2.910E-06,0.080
-2.900E-06,0.040
-2.890E-06,0.080
-2.880E-06,0.040
-2.870E-06,0.000
-2.860E-06,0.040
-2.850E-06,0.000
-2.840E-06,0.000
-2.830E-06,0.000
-2.820E-06,0.040
-2.810E-06,0.000
-2.800E-06,0.000
-2.790E-06,-0.040
-2.780E-06,0.000
-2.770E-06,0.040
-2.760E-06,0.080
-2.750E-06,0.000
-2.740E-06,0.000
-2.730E-06,-0.080
-2.720E-06,0.000
-2.710E-06,0.000
-2.700E-06,0.000
-2.690E-06,0.040
-2.680E-06,0.000
-2.670E-06,-0.040
-2.660E-06,-0.040
-2.650E-06,-0.040
-2.640E-06,-0.040
-2.630E-06,0.000
-2.620E-06,0.080
-2.610E-06,-0.040
-2.600E-06,0.000
-2.590E-06,0.000
-2.580E-06,0.000
-2.570E-06,0.000
-2.560E-06,0.040
-2.550E-06,0.000
-2.540E-06,0.040
-2.530E-06,0.040
-2.520E-06,0.000
-2.510E-06,0.040
-2.500E-06,0.040
-2.490E-06,0.040
-2.480E-06,0.080
-2.470E-06,0.080
-2.460E-06,0.080
-2.450E-06,0.080
-2.440E-06,0.080
-2.430E-06,0.120
-2.420E-06,0.120
-2.410E-06,0.160
-2.400E-06,0.120
-2.390E-06,0.160
-2.380E-06,0.080
-2.370E-06,0.080
-2.360E-06,0.080
-2.350E-06,0.160
-2.340E-06,0.080
-2.330E-06,0.080
-2.320E-06,0.080
-2.310E-06,0.000
-2.300E-06,0.000
-2.290E-06,0.000
-2.280E-06,0.000
-2.270E-06,0.040
-2.260E-06,0.160
-2.250E-06,0.240
-2.240E-06,0.240
-2.230E-06,0.240
-2.220E-06,0.240
-2.210E-06,0.200
-2.200E-06,0.120
-2.190E-06,0.200
-2.180E-06,0.240
-2.170E-06,0.320
-2.160E-06,0.240
-2.150E-06,0.240
-2.140E-06,0.080
-2.130E-06,0.120
-2.120E-06,0.200
-2.110E-06,0.160
-2.100E-06,0.160
-2.090E-06,0.120
-2.080E-06,0.120
-2.070E-06,0.040
-2.060E-06,0.080
-2.050E-06,0.160
-2.040E-06,0.160
-2.030E-06,0.200
-2.020E-06,0.160
-2.010E-06,0.160
-2.000E-06,0.040
-1.990E-06,0.040
-1.980E-06,0.080
-1.970E-06,0.120
-1.960E-06,0.120
-1.950E-06,0.080
-1.940E-06,0.040
-1.930E-06,0.040
-1.920E-06,0.080
-1.910E-06,0.000
-1.900E-06,0.000
-1.890E-06,0.080
-1.880E-06,0.000
-1.870E-06,0.080
-1.860E-06,0.080
-1.850E-06,0.080
-1.840E-06,0.080
-1.830E-06,0.160
-1.820E-06,0.080
-1.810E-06,0.160
-1.800E-06,0.040
-1.790E-06,0.160
-1.780E-06,0.200
-1.770E-06,0.320
-1.760E-06,0.320
-1.750E-06,0.280
-1.740E-06,0.200
-1.730E-06,0.160
-1.720E-06,0.160
-1.710E-06,0.200
-1.700E-06,0.200
-1.690E-06,0.240
-1.680E-06,0.200
-1.670E-06,0.240
-1.660E-06,0.200
-1.650E-06,0.240
-1.640E-06,0.320
-1.630E-06,0.320
-1.620E-06,0.360
-1.610E-06,0.240
-1.600E-06,0.160
-1.590E-06,0.080
-1.580E-06,0.040
-1.570E-06,0.040
-1.560E-06,0.040
-1.550E-06,0.240
-1.540E-06,0.440
-1.530E-06,0.400
-1.520E-06,0.400
-1.510E-06,0.240
-1.500E-06,0.040
-1.490E-06,-0.040
-1.480E-06,-0.040
-1.470E-06,0.160
-1.460E-06,0.200
-1.450E-06,0.320
-1.440E-06,0.280
-1.430E-06,0.200
-1.420E-06,0.120
-1.410E-06,0.040
-1.400E-06,0.120
-1.390E-06,0.080
-1.380E-06,0.120
-1.370E-06,0.120
-1.360E-06,0.080
-1.350E-06,0.080
-1.340E-06,0.040
-1.330E-06,0.040
-1.320E-06,0.000
-1.310E-06,0.040
-1.300E-06,-0.040
-1.290E-06,-0.080
-1.280E-06,-0.080
-1.270E-06,-0.160
-1.260E-06,-0.120
-1.250E-06,-0.120
-1.240E-06,-0.160
-1.230E-06,-0.080
-1.220E-06,-0.080
-1.210E-06,-0.080
-1.200E-06,0.000
-1.190E-06,-0.120
-1.180E-06,-0.080
-1.170E-06,-0.160
-1.160E-06,-0.080
-1.150E-06,0.040
-1.140E-06,0.160
-1.130E-06,0.400
-1.120E-06,0.360
-1.110E-06,0.160
-1.100E-06,0.080
-1.090E-06,-0.040
-1.080E-06,0.000
-1.070E-06,0.200
-1.060E-06,0.240
-1.050E-06,0.240
-1.040E-06,0.200
-1.030E-06,0.120
-1.020E-06,0.040
-1.010E-06,0.040
-1.000E-06,0.080
-9.900E-07,0.160
-9.800E-07,0.080
-9.700E-07,0.080
-9.600E-07,-0.040
-9.500E-07,0.000
-9.400E-07,0.000
-9.300E-07,0.000
-9.200E-07,0.000
-9.100E-07,0.000
-9.000E-07,-0.040
-8.900E-07,-0.040
-8.800E-07,-0.120
-8.700E-07,-0.120
-8.600E-07,-0.120
-8.500E-07,-0.120
-8.400E-07,-0.160
-8.300E-07,-0.200
-8.200E-07,-0.200
-8.100E-07,-0.160
-8.000E-07,-0.200
-7.900E-07,-0.160
-7.800E-07,-0.080
-7.700E-07,-0.080
-7.600E-07,-0.080
-7.500E-07,0.000
-7.400E-07,0.040
-7.300E-07,0.040
-7.200E-07,0.120
-7.100E-07,0.200
-7.000E-07,0.240
-6.900E-07,0.160
-6.800E-07,0.200
-6.700E-07,0.280
-6.600E-07,0.280
-6.500E-07,0.280
-6.400E-07,0.360
-6.300E-07,0.360
-6.200E-07,0.320
-6.100E-07,0.320
-6.000E-07,0.360
-5.900E-07,0.320
-5.800E-07,0.320
-5.700E-07,0.320
-5.600E-07,0.320
-5.500E-07,0.280
-5.400E-07,0.160
-5.300E-07,0.200
-5.200E-07,0.200
-5.100E-07,0.120
-5.000E-07,0.080
-4.900E-07,0.080
-4.800E-07,0.040
-4.700E-07,0.120
-4.600E-07,0.120
-4.500E-07,0.160
-4.400E-07,0.240
-4.300E-07,0.200
-4.200E-07,0.160
-4.100E-07,0.160
-4.000E-07,0.040
-3.900E-07,0.120
-3.800E-07,0.200
-3.700E-07,0.120
-3.600E-07,0.160
-3.500E-07,0.280
-3.400E-07,0.320
-3.300E-07,0.320
-3.200E-07,0.280
-3.100E-07,0.240
-3.000E-07,0.240
-2.900E-07,0.360
-2.800E-07,0.440
-2.700E-07,0.520
-2.600E-07,0.600
-2.500E-07,0.680
-2.400E-07,0.720
-2.300E-07,0.760
-2.200E-07,0.720
-2.100E-07,0.840
-2.000E-07,0.880
-1.900E-07,1.000
-1.800E-07,1.000
-1.700E-07,1.040
-1.600E-07,1.040
-1.500E-07,1.080
-1.400E-07,1.080
-1.300E-07,1.040
-1.200E-07,1.080
-1.100E-07,1.040
-1.000E-07,0.960
-9.000E-08,1.000
-8.000E-08,0.840
-7.000E-08,0.840
-6.000E-08,0.800
-5.000E-08,1.000
-4.000E-08,-0.880
-3.000E-08,2.000
-2.000E-08,-1.520
-1.000E-08,-0.200
0.000E+00,0.240
1.000E-08,-1.480
2.000E-08,1.520
3.000E-08,0.680
4.000E-08,1.720
5.000E-08,1.760
6.000E-08,0.000
7.000E-08,0.160
8.000E-08,-0.440
9.000E-08,0.200
1.000E-07,1.800
1.100E-07,1.480
1.200E-07,1.680
1.300E-07,0.960
1.400E-07,0.640
1.500E-07,0.640
1.600E-07,0.760
1.700E-07,0.840
1.800E-07,0.680
1.900E-07,0.600
2.000E-07,0.200
2.100E-07,-0.240
2.200E-07,0.040
2.300E-07,-0.400
2.400E-07,-0.320
2.500E-07,-0.400
2.600E-07,-0.680
2.700E-07,-0.480
2.800E-07,-0.480
2.900E-07,0.160
3.000E-07,0.160
3.100E-07,0.160
3.200E-07,-0.280
3.300E-07,-0.280
3.400E-07,-0.720
3.500E-07,-0.360
3.600E-07,-0.160
3.700E-07,-0.280
3.800E-07,0.040
3.900E-07,0.000
4.000E-07,0.080
4.100E-07,0.520
4.200E-07,0.320
4.300E-07,0.400
4.400E-07,0.240
4.500E-07,0.000
4.600E-07,0.200
4.700E-07,0.120
4.800E-07,0.120
4.900E-07,0.160
5.000E-07,0.000
5.100E-07,0.040
5.200E-07,0.080
5.300E-07,0.120
5.400E-07,0.240
5.500E-07,0.320
5.600E-07,0.400
5.700E-07,0.360
5.800E-07,0.320
5.900E-07,0.320
6.000E-07,0.440
6.100E-07,0.480
6.200E-07,0.240
6.300E-07,0.240
6.400E-07,-0.040
6.500E-07,0.040
6.600E-07,-0.040
6.700E-07,-0.440
6.800E-07,-0.720
6.900E-07,-1.000
7.000E-07,-0.920
7.100E-07,-0.480
7.200E-07,0.080
7.300E-07,0.520
7.400E-07,0.160
7.500E-07,-0.400
7.600E-07,-0.920
7.700E-07,-0.920
7.800E-07,-0.360
7.900E-07,0.040
8.000E-07,0.400
8.100E-07,0.440
8.200E-07,0.040
8.300E-07,0.000
8.400E-07,-0.040
8.500E-07,0.080
8.600E-07,0.560
8.700E-07,0.760
8.800E-07,0.800
8.900E-07,0.800
9.000E-07,0.520
9.100E-07,0.480
9.200E-07,0.560
9.300E-07,0.400
9.400E-07,0.680
9.500E-07,0.600
9.600E-07,0.640
9.700E-07,0.600
9.800E-07,0.240
9.900E-07,-0.040
1.000E-06,-0.480
1.010E-06,-0.720
1.020E-06,-0.800
1.030E-06,-0.680
1.040E-06,-0.480
1.050E-06,-0.480
1.060E-06,-0.520
1.070E-06,-0.680
1.080E-06,-0.680
1.090E-06,-0.520
1.100E-06,-0.480
1.110E-06,-0.240
1.120E-06,-0.080
1.130E-06,0.200
1.140E-06,0.440
1.150E-06,0.480
1.160E-06,0.400
1.170E-06,0.240
1.180E-06,0.080
1.190E-06,0.160
1.200E-06,0.240
1.210E-06,0.320
1.220E-06,0.320
1.230E-06,0.200
1.240E-06,0.040
1.250E-06,-0.040
1.260E-06,-0.240
1.270E-06,-0.280
1.280E-06,-0.320
1.290E-06,-0.360
1.300E-06,-0.400
1.310E-06,-0.440
1.320E-06,-0.480
1.330E-06,-0.520
1.340E-06,-0.560
1.350E-06,-0.560
1.360E-06,-0.600
1.370E-06,-0.520
1.380E-06,-0.520
1.390E-06,-0.520
1.400E-06,-0.520
1.410E-06,-0.480
1.420E-06,-0.480
1.430E-06,-0.520
1.440E-06,-0.440
1.450E-06,-0.520
1.460E-06,-0.520
1.470E-06,-0.440
1.480E-06,-0.520
1.490E-06,-0.600
1.500E-06,-1.040
1.510E-06,-0.560
1.520E-06,-1.600
1.530E-06,-2.040
1.540E-06,-1.800
1.550E-06,-1.680
1.560E-06,-1.360
1.570E-06,0.800
1.580E-06,0.680
1.590E-06,0.920
1.600E-06,0.360
1.610E-06,-1.400
1.620E-06,-1.160
1.630E-06,-1.320
1.640E-06,0.040
1.650E-06,0.840
1.660E-06,0.840
1.670E-06,0.880
1.680E-06,0.200
1.690E-06,-0.240
1.700E-06,-0.080
1.710E-06,0.000
1.720E-06,0.160
1.730E-06,0.240
1.740E-06,0.000
1.750E-06,-0.480
1.760E-06,-0.360
1.770E-06,-0.840
1.780E-06,-0.840
1.790E-06,-0.840
1.800E-06,-1.200
1.810E-06,-1.280
1.820E-06,-1.400
1.830E-06,-1.520
1.840E-06,-1.520
1.850E-06,-1.760
1.860E-06,-1.720
1.870E-06,-1.480
1.880E-06,-1.520
1.890E-06,-0.960
1.900E-06,-0.520
1.910E-06,-0.440
1.920E-06,-0.040
1.930E-06,-0.040
1.940E-06,0.160
1.950E-06,0.520
1.960E-06,0.600
1.970E-06,0.880
1.980E-06,0.960
1.990E-06,1.120
2.000E-06,1.120
2.010E-06,1.240
2.020E-06,1.120
2.030E-06,1.400
2.040E-06,1.360
2.050E-06,1.280
2.060E-06,1.320
2.070E-06,1.240
2.080E-06,1.400
2.090E-06,1.400
2.100E-06,1.400
2.110E-06,1.000
2.120E-06,1.000
2.130E-06,0.880
2.140E-06,-0.080
2.150E-06,-0.800
2.160E-06,-0.760
2.170E-06,-1.400
2.180E-06,-0.320
2.190E-06,0.320
2.200E-06,0.840
2.210E-06,0.920
2.220E-06,0.000
2.230E-06,-0.600
2.240E-06,-0.920
2.250E-06,-0.640
2.260E-06,0.040
2.270E-06,0.360
2.280E-06,0.680
2.290E-06,0.640
2.300E-06,0.200
2.310E-06,0.000
2.320E-06,-0.160
2.330E-06,-0.160
2.340E-06,-0.160
2.350E-06,-0.120
2.360E-06,-0.400
2.370E-06,-0.560
2.380E-06,-1.000
2.390E-06,-1.360
2.400E-06,-1.560
2.410E-06,-2.040
2.420E-06,-1.800
2.430E-06,-2.320
2.440E-06,-2.520
2.450E-06,-3.040
2.460E-06,-3.600
2.470E-06,-3.400
2.480E-06,-3.160
2.490E-06,-2.440
2.500E-06,-1.680
2.510E-06,-1.480
2.520E-06,-1.360
2.530E-06,-1.400
2.540E-06,-1.480
2.550E-06,-0.880
2.560E-06,-0.320
2.570E-06,0.440
2.580E-06,0.920
2.590E-06,1.000
2.600E-06,1.160
2.610E-06,1.080
2.620E-06,1.080
2.630E-06,1.040
2.640E-06,1.000
2.650E-06,1.040
2.660E-06,1.000
2.670E-06,0.920
2.680E-06,0.840
2.690E-06,0.640
2.700E-06,0.480
2.710E-06,0.360
2.720E-06,0.080
2.730E-06,-0.040
2.740E-06,-0.240
2.750E-06,-0.360
2.760E-06,-0.520
2.770E-06,-0.680
2.780E-06,-0.800
2.790E-06,-0.920
2.800E-06,-1.000
2.810E-06,-1.120
2.820E-06,-1.080
2.830E-06,-1.120
2.840E-06,-1.280
2.850E-06,-1.320
2.860E-06,-1.360
2.870E-06,-1.400
2.880E-06,-1.360
2.890E-06,-1.200
2.900E-06,-1.160
2.910E-06,-0.880
2.920E-06,-0.800
2.930E-06,-0.720
2.940E-06,-0.720
2.950E-06,-0.760
2.960E-06,-0.640
2.970E-06,-0.520
2.980E-06,-0.400
2.990E-06,-0.120
3.000E-06,-0.080
3.010E-06,-0.040
3.020E-06,-0.040
3.030E-06,-0.120
3.040E-06,-0.080
3.050E-06,0.000
3.060E-06,0.040
3.070E-06,0.200
3.080E-06,0.280
3.090E-06,0.360
3.100E-06,0.360
3.110E-06,0.400
3.120E-06,0.440
3.130E-06,0.480
3.140E-06,-0.240
3.150E-06,1.320
3.160E-06,-0.800
3.170E-06,-1.400
3.180E-06,-1.520
3.190E-06,-2.360
3.200E-06,-0.480
3.210E-06,0.840
3.220E-06,2.000
3.230E-06,1.360
3.240E-06,-0.080
3.250E-06,-1.840
3.260E-06,-2.160
3.270E-06,-1.120
3.280E-06,0.360
3.290E-06,0.800
3.300E-06,0.360
3.310E-06,-0.480
3.320E-06,-1.160
3.330E-06,-1.040
3.340E-06,-0.360
3.350E-06,-0.160
3.360E-06,-0.080
3.370E-06,-0.760
3.380E-06,-1.360
3.390E-06,-1.600
3.400E-06,-1.360
3.410E-06,-1.200
3.420E-06,-1.120
3.430E-06,-1.280
3.440E-06,-1.560
3.450E-06,-1.800
3.460E-06,-1.920
3.470E-06,-1.960
3.480E-06,-1.880
3.490E-06,-1.800
3.500E-06,-1.680
3.510E-06,-1.480
3.520E-06,-1.400
3.530E-06,-1.480
3.540E-06,-1.320
3.550E-06,-1.480
3.560E-06,-1.520
3.570E-06,-1.480
3.580E-06,-1.560
3.590E-06,-1.360
3.600E-06,-1.000
3.610E-06,-0.800
3.620E-06,-0.480
3.630E-06,-0.560
3.640E-06,-0.920
3.650E-06,-1.120
3.660E-06,-1.040
3.670E-06,-0.480
3.680E-06,0.120
3.690E-06,0.560
3.700E-06,0.760
3.710E-06,0.720
3.720E-06,0.480
3.730E-06,0.440
3.740E-06,0.440
3.750E-06,0.840
3.760E-06,0.760
3.770E-06,0.920
3.780E-06,0.520
3.790E-06,-0.240
3.800E-06,-0.520
3.810E-06,-0.680
3.820E-06,-0.040
3.830E-06,0.680
3.840E-06,1.400
3.850E-06,1.400
3.860E-06,0.880
3.870E-06,-0.040
3.880E-06,-0.480
3.890E-06,-0.600
3.900E-06,-1.040
3.910E-06,-1.520
3.920E-06,-1.760
3.930E-06,-2.440
3.940E-06,-1.640
3.950E-06,-1.040
3.960E-06,0.080
3.970E-06,0.520
3.980E-06,-0.200
3.990E-06,-0.840
4.000E-06,-1.840
4.010E-06,-1.680
4.020E-06,-1.000
4.030E-06,-0.840
4.040E-06,-0.280
4.050E-06,-0.960
4.060E-06,-1.360
4.070E-06,-1.680
4.080E-06,-1.840
4.090E-06,-1.320
4.100E-06,-1.160
4.110E-06,-0.880
4.120E-06,-1.040
4.130E-06,-1.240
4.140E-06,-1.680
4.150E-06,-1.680
4.160E-06,-1.880
4.170E-06,-2.240
4.180E-06,-2.280
4.190E-06,-2.480
4.200E-06,-2.240
4.210E-06,-1.960
4.220E-06,-1.600
4.230E-06,-1.320
4.240E-06,-1.440
4.250E-06,-1.520
4.260E-06,-1.440
4.270E-06,-1.320
4.280E-06,-0.920
4.290E-06,-0.800
4.300E-06,-0.680
4.310E-06,-0.840
4.320E-06,-0.840
4.330E-06,-0.840
4.340E-06,-0.840
4.350E-06,-0.800
4.360E-06,-0.880
4.370E-06,-1.080
4.380E-06,-1.160
4.390E-06,-1.360
4.400E-06,-1.360
4.410E-06,-1.280
4.420E-06,-1.240
4.430E-06,-1.160
4.440E-06,-1.160
4.450E-06,-1.240
4.460E-06,-1.400
4.470E-06,-1.720
4.480E-06,-2.040
4.490E-06,-2.360
4.500E-06,-2.440
4.510E-06,-2.320
4.520E-06,-2.120
4.530E-06,-1.840
4.540E-06,-1.640
4.550E-06,-1.680
4.560E-06,-1.720
4.570E-06,-1.760
4.580E-06,-1.520
4.590E-06,-1.320
4.600E-06,-1.160
4.610E-06,-0.800
4.620E-06,-0.640
4.630E-06,-0.480
4.640E-06,-0.480
4.650E-06,-0.640
4.660E-06,-0.840
4.670E-06,-0.920
4.680E-06,-0.960
4.690E-06,-0.840
4.700E-06,-0.800
4.710E-06,-0.800
4.720E-06,-0.800
4.730E-06,-0.960
4.740E-06,-1.120
4.750E-06,-1.200
4.760E-06,-1.200
4.770E-06,-1.160
4.780E-06,-1.080
4.790E-06,-1.200
4.800E-06,-1.160
4.810E-06,-1.320
4.820E-06,-1.480
4.830E-06,-1.600
4.840E-06,-1.720
4.850E-06,-1.600
4.860E-06,-1.600
4.870E-06,-1.560
4.880E-06,-1.560
4.890E-06,-1.640
4.900E-06,-1.600
4.910E-06,-1.520
4.920E-06,-1.400
4.930E-06,-1.160
4.940E-06,-1.120
4.950E-06,-1.120
4.960E-06,-1.040
4.970E-06,-0.960
4.980E-06,-0.920
4.990E-06,-0.840
5.000E-06,-0.840
5.010E-06,-0.800
5.020E-06,-0.720
5.030E-06,-0.800
5.040E-06,-0.680
5.050E-06,-1.040
5.060E-06,-1.320
5.070E-06,-1.160
5.080E-06,-1.640
5.090E-06,-0.960
5.100E-06,-1.000
5.110E-06,-2.040
5.120E-06,-3.560
5.130E-06,-5.240
5.140E-06,-5.240
5.150E-06,-4.560
5.160E-06,-0.960
5.170E-06,1.720
5.180E-06,2.320
5.190E-06,1.080
5.200E-06,-1.680
5.210E-06,-3.360
5.220E-06,-3.080
5.230E-06,-1.840
5.240E-06,0.080
5.250E-06,0.840
5.260E-06,0.920
5.270E-06,0.560
5.280E-06,-0.160
5.290E-06,-0.120
5.300E-06,-0.120
5.310E-06,0.080
5.320E-06,0.480
5.330E-06,0.680
5.340E-06,0.720
5.350E-06,0.560
5.360E-06,0.120
5.370E-06,-0.280
5.380E-06,-0.760
5.390E-06,-1.000
5.400E-06,-1.160
5.410E-06,-1.320
5.420E-06,-1.560
5.430E-06,-2.040
5.440E-06,-2.520
5.450E-06,-2.800
5.460E-06,-3.200
5.470E-06,-3.160
5.480E-06,-3.120
5.490E-06,-2.960
5.500E-06,-2.800
5.510E-06,-2.760
5.520E-06,-2.680
5.530E-06,-2.440
5.540E-06,-2.320
5.550E-06,-1.880
5.560E-06,-1.440
5.570E-06,-0.880
5.580E-06,-0.640
5.590E-06,-0.440
5.600E-06,-0.480
5.610E-06,-0.520
5.620E-06,-0.560
5.630E-06,-0.640
5.640E-06,-0.640
5.650E-06,-0.680
5.660E-06,-0.680
5.670E-06,-0.680
5.680E-06,-0.640
5.690E-06,-0.840
5.700E-06,-0.960
5.710E-06,-1.080
5.720E-06,-1.200
5.730E-06,-1.200
5.740E-06,-1.280
5.750E-06,-1.160
5.760E-06,-1.040
5.770E-06,-1.480
5.780E-06,-1.560
5.790E-06,-1.880
5.800E-06,-2.200
5.810E-06,-2.360
5.820E-06,-3.000
5.830E-06,-3.600
5.840E-06,-4.760
5.850E-06,-5.120
5.860E-06,-4.720
5.870E-06,-3.320
5.880E-06,-1.800
5.890E-06,-0.480
5.900E-06,-0.400
5.910E-06,-0.920
5.920E-06,-1.800
5.930E-06,-2.040
5.940E-06,-1.480
5.950E-06,-0.360
5.960E-06,0.640
5.970E-06,1.080
5.980E-06,1.000
5.990E-06,0.840
6.000E-06,0.640
6.010E-06,0.920
6.020E-06,1.040
6.030E-06,1.360
6.040E-06,1.480
6.050E-06,1.400
6.060E-06,1.160
6.070E-06,0.920
6.080E-06,0.560
6.090E-06,0.080
6.100E-06,-0.320
6.110E-06,-0.640
6.120E-06,-0.960
6.130E-06,-1.400
6.140E-06,-1.840
6.150E-06,-2.240
6.160E-06,-2.600
6.170E-06,-2.840
6.180E-06,-2.840
6.190E-06,-2.760
6.200E-06,-2.760
6.210E-06,-2.760
6.220E-06,-2.800
6.230E-06,-2.680
6.240E-06,-2.600
6.250E-06,-2.440
6.260E-06,-2.200
6.270E-06,-1.920
6.280E-06,-1.800
6.290E-06,-1.640
6.300E-06,-1.720
6.310E-06,-1.840
6.320E-06,-2.000
6.330E-06,-2.040
6.340E-06,-2.160
6.350E-06,-2.200
6.360E-06,-2.320
6.370E-06,-2.480
6.380E-06,-2.640
6.390E-06,-3.040
6.400E-06,-3.280
6.410E-06,-3.400
6.420E-06,-3.520
6.430E-06,-3.400
6.440E-06,-3.000
6.450E-06,-2.440
6.460E-06,-2.200
6.470E-06,-1.960
6.480E-06,-1.840
6.490E-06,-1.840
6.500E-06,-1.680
6.510E-06,-1.480
6.520E-06,-1.320
6.530E-06,-1.240
6.540E-06,-1.120
6.550E-06,-1.040
6.560E-06,-0.840
6.570E-06,-0.680
6.580E-06,-0.560
6.590E-06,-0.520
6.600E-06,-0.480
6.610E-06,-0.520
6.620E-06,-0.560
6.630E-06,-0.760
6.640E-06,-0.960
6.650E-06,-1.120
6.660E-06,-1.160
6.670E-06,-1.160
6.680E-06,-1.000
6.690E-06,-0.840
6.700E-06,-0.840
6.710E-06,-0.880
6.720E-06,-1.000
6.730E-06,-1.160
6.740E-06,-1.240
6.750E-06,-1.400
6.760E-06,-1.480
6.770E-06,-1.600
6.780E-06,-1.800
6.790E-06,-2.040
6.800E-06,-2.320
6.810E-06,-2.680
6.820E-06,-2.920
6.830E-06,-3.160
6.840E-06,-3.320
6.850E-06,-3.360
6.860E-06,-3.280
6.870E-06,-3.360
6.880E-06,-3.360
6.890E-06,-3.480
6.900E-06,-3.560
6.910E-06,-3.560
6.920E-06,-3.560
6.930E-06,-3.480
6.940E-06,-3.480
6.950E-06,-3.480
6.960E-06,-3.600
6.970E-06,-3.720
6.980E-06,-3.800
6.990E-06,-3.960
7.000E-06,-4.080
7.010E-06,-4.200
7.020E-06,-4.200
7.030E-06,-4.280
7.040E-06,-4.440
7.050E-06,-4.560
7.060E-06,-4.640
7.070E-06,-4.640
7.080E-06,-4.560
7.090E-06,-4.520
7.100E-06,-4.360
7.110E-06,-4.280
7.120E-06,-4.080
7.130E-06,-3.960
7.140E-06,-3.760
7.150E-06,-3.600
7.160E-06,-3.320
7.170E-06,-3.080
7.180E-06,-2.880
7.190E-06,-2.680
7.200E-06,-2.520
7.210E-06,-2.320
7.220E-06,-2.160
7.230E-06,-2.120
7.240E-06,-2.120
7.250E-06,-2.080
7.260E-06,-2.000
7.270E-06,-1.960
7.280E-06,-1.920
7.290E-06,-1.920
7.300E-06,-1.920
7.310E-06,-1.960
7.320E-06,-2.000
7.330E-06,-2.000
7.340E-06,-2.040
7.350E-06,-2.120
7.360E-06,-2.080
7.370E-06,-2.120
7.380E-06,-2.160
7.390E-06,-2.200
7.400E-06,-2.280
7.410E-06,-2.240
7.420E-06,-2.240
7.430E-06,-2.240
7.440E-06,-2.200
7.450E-06,-2.240
7.460E-06,-2.240
7.470E-06,-2.240
7.480E-06,-2.200
7.490E-06,-2.200
7.500E-06,-2.240
7.510E-06,-2.200
7.520E-06,-2.160
7.530E-06,-2.120
7.540E-06,-2.120
7.550E-06,-2.080
7.560E-06,-2.040
7.570E-06,-2.000
7.580E-06,-1.920
7.590E-06,-1.960
7.600E-06,-1.880
7.610E-06,-1.840
7.620E-06,-1.800
7.630E-06,-1.760
7.640E-06,-1.720
7.650E-06,-1.680
7.660E-06,-1.680
7.670E-06,-1.720
7.680E-06,-1.680
7.690E-06,-1.640
7.700E-06,-1.640
7.710E-06,-1.640
7.720E-06,-1.680
7.730E-06,-1.680
7.740E-06,-1.720
7.750E-06,-1.600
7.760E-06,-1.600
7.770E-06,-1.520
7.780E-06,-1.480
7.790E-06,-1.480
7.800E-06,-1.400
7.810E-06,-1.320
7.820E-06,-1.280
7.830E-06,-1.200
7.840E-06,-1.120
7.850E-06,-1.080
7.860E-06,-1.040
7.870E-06,-0.920
7.880E-06,-0.840
7.890E-06,-0.800
7.900E-06,-0.800
7.910E-06,-0.760
7.920E-06,-0.720
7.930E-06,-0.720
7.940E-06,-0.720
7.950E-06,-0.800
7.960E-06,-0.760
7.970E-06,-0.800
7.980E-06,-0.800
7.990E-06,-0.880
8.000E-06,-1.000
