mediciones/Mediciones filtradas (saque las feas)/5-27/-27.5/WaveData5183.csv

#timebase=2000000(ps)
,#voltbase=1000000(mv/100)
#size=4000
-3.800E-06,0.160
-3.790E-06,0.240
-3.780E-06,0.360
-3.770E-06,0.440
-3.760E-06,0.360
-3.750E-06,0.280
-3.740E-06,0.240
-3.730E-06,0.160
-3.720E-06,0.240
-3.710E-06,0.240
-3.700E-06,0.320
-3.690E-06,0.280
-3.680E-06,0.160
-3.670E-06,0.040
-3.660E-06,0.000
-3.650E-06,0.080
-3.640E-06,-0.040
-3.630E-06,0.000
-3.620E-06,0.000
-3.610E-06,-0.040
-3.600E-06,-0.080
-3.590E-06,-0.120
-3.580E-06,-0.160
-3.570E-06,-0.120
-3.560E-06,-0.240
-3.550E-06,-0.120
-3.540E-06,-0.160
-3.530E-06,-0.160
-3.520E-06,-0.080
-3.510E-06,-0.120
-3.500E-06,-0.080
-3.490E-06,-0.160
-3.480E-06,-0.080
-3.470E-06,-0.080
-3.460E-06,-0.080
-3.450E-06,-0.040
-3.440E-06,0.000
-3.430E-06,0.040
-3.420E-06,-0.080
-3.410E-06,0.040
-3.400E-06,0.000
-3.390E-06,0.080
-3.380E-06,0.160
-3.370E-06,0.080
-3.360E-06,0.120
-3.350E-06,0.000
-3.340E-06,0.080
-3.330E-06,0.080
-3.320E-06,0.120
-3.310E-06,0.120
-3.300E-06,0.160
-3.290E-06,0.160
-3.280E-06,0.040
-3.270E-06,0.120
-3.260E-06,0.080
-3.250E-06,0.160
-3.240E-06,0.200
-3.230E-06,0.160
-3.220E-06,0.080
-3.210E-06,0.080
-3.200E-06,0.000
-3.190E-06,0.120
-3.180E-06,0.160
-3.170E-06,0.280
-3.160E-06,0.200
-3.150E-06,0.200
-3.140E-06,0.200
-3.130E-06,0.240
-3.120E-06,0.240
-3.110E-06,0.320
-3.100E-06,0.160
-3.090E-06,0.280
-3.080E-06,0.040
-3.070E-06,0.040
-3.060E-06,-0.040
-3.050E-06,0.040
-3.040E-06,0.120
-3.030E-06,0.200
-3.020E-06,0.440
-3.010E-06,0.440
-3.000E-06,0.200
-2.990E-06,0.160
-2.980E-06,0.040
-2.970E-06,0.240
-2.960E-06,0.520
-2.950E-06,0.560
-2.940E-06,0.680
-2.930E-06,0.480
-2.920E-06,0.080
-2.910E-06,-0.040
-2.900E-06,-0.160
-2.890E-06,0.040
-2.880E-06,0.360
-2.870E-06,0.480
-2.860E-06,0.480
-2.850E-06,0.200
-2.840E-06,-0.120
-2.830E-06,-0.320
-2.820E-06,-0.280
-2.810E-06,-0.160
-2.800E-06,-0.040
-2.790E-06,-0.080
-2.780E-06,-0.320
-2.770E-06,-0.440
-2.760E-06,-0.400
-2.750E-06,-0.360
-2.740E-06,0.000
-2.730E-06,-0.040
-2.720E-06,-0.200
-2.710E-06,-0.320
-2.700E-06,-0.440
-2.690E-06,-0.080
-2.680E-06,0.120
-2.670E-06,0.360
-2.660E-06,0.240
-2.650E-06,0.000
-2.640E-06,-0.120
-2.630E-06,-0.160
-2.620E-06,0.080
-2.610E-06,0.320
-2.600E-06,0.480
-2.590E-06,0.480
-2.580E-06,0.160
-2.570E-06,0.040
-2.560E-06,0.000
-2.550E-06,0.200
-2.540E-06,0.320
-2.530E-06,0.480
-2.520E-06,0.400
-2.510E-06,0.360
-2.500E-06,0.160
-2.490E-06,0.120
-2.480E-06,0.360
-2.470E-06,0.440
-2.460E-06,0.520
-2.450E-06,0.440
-2.440E-06,0.240
-2.430E-06,0.080
-2.420E-06,0.200
-2.410E-06,0.160
-2.400E-06,0.320
-2.390E-06,0.320
-2.380E-06,0.400
-2.370E-06,0.440
-2.360E-06,0.440
-2.350E-06,0.480
-2.340E-06,0.400
-2.330E-06,0.240
-2.320E-06,0.240
-2.310E-06,0.120
-2.300E-06,0.280
-2.290E-06,0.320
-2.280E-06,0.320
-2.270E-06,0.280
-2.260E-06,0.120
-2.250E-06,0.040
-2.240E-06,-0.080
-2.230E-06,0.000
-2.220E-06,-0.160
-2.210E-06,-0.080
-2.200E-06,-0.040
-2.190E-06,-0.200
-2.180E-06,-0.240
-2.170E-06,-0.480
-2.160E-06,-0.600
-2.150E-06,-0.520
-2.140E-06,-0.360
-2.130E-06,-0.160
-2.120E-06,0.000
-2.110E-06,0.000
-2.100E-06,0.000
-2.090E-06,-0.120
-2.080E-06,-0.040
-2.070E-06,0.120
-2.060E-06,0.240
-2.050E-06,0.360
-2.040E-06,0.360
-2.030E-06,0.160
-2.020E-06,0.200
-2.010E-06,0.160
-2.000E-06,0.320
-1.990E-06,0.480
-1.980E-06,0.480
-1.970E-06,0.480
-1.960E-06,0.360
-1.950E-06,0.400
-1.940E-06,0.440
-1.930E-06,0.520
-1.920E-06,0.640
-1.910E-06,0.520
-1.900E-06,0.520
-1.890E-06,0.400
-1.880E-06,0.320
-1.870E-06,0.240
-1.860E-06,0.160
-1.850E-06,0.080
-1.840E-06,0.120
-1.830E-06,0.160
-1.820E-06,0.160
-1.810E-06,0.280
-1.800E-06,0.400
-1.790E-06,0.440
-1.780E-06,0.400
-1.770E-06,0.320
-1.760E-06,0.320
-1.750E-06,0.360
-1.740E-06,0.360
-1.730E-06,0.360
-1.720E-06,0.400
-1.710E-06,0.520
-1.700E-06,0.520
-1.690E-06,0.480
-1.680E-06,0.520
-1.670E-06,0.480
-1.660E-06,0.440
-1.650E-06,0.440
-1.640E-06,0.440
-1.630E-06,0.560
-1.620E-06,0.680
-1.610E-06,0.640
-1.600E-06,0.520
-1.590E-06,0.520
-1.580E-06,0.480
-1.570E-06,0.520
-1.560E-06,0.520
-1.550E-06,0.640
-1.540E-06,0.600
-1.530E-06,0.680
-1.520E-06,0.680
-1.510E-06,0.640
-1.500E-06,0.560
-1.490E-06,0.520
-1.480E-06,0.400
-1.470E-06,0.400
-1.460E-06,0.440
-1.450E-06,0.520
-1.440E-06,0.720
-1.430E-06,0.720
-1.420E-06,0.680
-1.410E-06,0.480
-1.400E-06,0.440
-1.390E-06,0.240
-1.380E-06,0.280
-1.370E-06,0.280
-1.360E-06,0.160
-1.350E-06,0.200
-1.340E-06,0.360
-1.330E-06,0.520
-1.320E-06,0.600
-1.310E-06,0.640
-1.300E-06,0.480
-1.290E-06,0.400
-1.280E-06,0.320
-1.270E-06,0.480
-1.260E-06,0.680
-1.250E-06,0.760
-1.240E-06,0.760
-1.230E-06,0.600
-1.220E-06,0.400
-1.210E-06,0.240
-1.200E-06,0.240
-1.190E-06,0.400
-1.180E-06,0.520
-1.170E-06,0.520
-1.160E-06,0.440
-1.150E-06,0.320
-1.140E-06,0.200
-1.130E-06,0.320
-1.120E-06,0.400
-1.110E-06,0.520
-1.100E-06,0.680
-1.090E-06,0.680
-1.080E-06,0.640
-1.070E-06,0.560
-1.060E-06,0.560
-1.050E-06,0.480
-1.040E-06,0.480
-1.030E-06,0.360
-1.020E-06,0.320
-1.010E-06,0.200
-1.000E-06,0.080
-9.900E-07,0.000
-9.800E-07,-0.080
-9.700E-07,-0.040
-9.600E-07,-0.040
-9.500E-07,0.040
-9.400E-07,0.160
-9.300E-07,0.240
-9.200E-07,0.400
-9.100E-07,0.480
-9.000E-07,0.680
-8.900E-07,0.480
-8.800E-07,0.680
-8.700E-07,0.640
-8.600E-07,0.760
-8.500E-07,0.840
-8.400E-07,0.880
-8.300E-07,0.880
-8.200E-07,0.880
-8.100E-07,0.880
-8.000E-07,1.120
-7.900E-07,1.280
-7.800E-07,1.560
-7.700E-07,1.680
-7.600E-07,1.680
-7.500E-07,1.760
-7.400E-07,1.760
-7.300E-07,1.800
-7.200E-07,1.800
-7.100E-07,1.800
-7.000E-07,1.600
-6.900E-07,1.400
-6.800E-07,1.120
-6.700E-07,0.880
-6.600E-07,0.720
-6.500E-07,0.680
-6.400E-07,0.720
-6.300E-07,0.760
-6.200E-07,0.760
-6.100E-07,0.680
-6.000E-07,0.560
-5.900E-07,0.400
-5.800E-07,0.320
-5.700E-07,0.320
-5.600E-07,0.480
-5.500E-07,0.640
-5.400E-07,0.680
-5.300E-07,0.640
-5.200E-07,0.520
-5.100E-07,0.320
-5.000E-07,0.160
-4.900E-07,0.240
-4.800E-07,0.360
-4.700E-07,0.400
-4.600E-07,0.480
-4.500E-07,0.400
-4.400E-07,0.440
-4.300E-07,0.440
-4.200E-07,0.600
-4.100E-07,0.880
-4.000E-07,1.040
-3.900E-07,1.160
-3.800E-07,1.320
-3.700E-07,1.320
-3.600E-07,1.320
-3.500E-07,1.280
-3.400E-07,1.080
-3.300E-07,1.040
-3.200E-07,0.840
-3.100E-07,0.680
-3.000E-07,0.560
-2.900E-07,0.480
-2.800E-07,0.240
-2.700E-07,0.160
-2.600E-07,0.000
-2.500E-07,-0.120
-2.400E-07,-0.200
-2.300E-07,-0.280
-2.200E-07,-0.280
-2.100E-07,-0.240
-2.000E-07,-0.240
-1.900E-07,-0.280
-1.800E-07,-0.280
-1.700E-07,-0.320
-1.600E-07,-0.360
-1.500E-07,-0.360
-1.400E-07,-0.280
-1.300E-07,0.000
-1.200E-07,0.200
-1.100E-07,0.160
-1.000E-07,0.240
-9.000E-08,0.080
-8.000E-08,0.040
-7.000E-08,0.200
-6.000E-08,0.240
-5.000E-08,0.440
-4.000E-08,0.480
-3.000E-08,0.240
-2.000E-08,-0.160
-1.000E-08,-0.320
0.000E+00,-0.440
1.000E-08,-0.160
2.000E-08,1.080
3.000E-08,1.680
4.000E-08,2.000
5.000E-08,1.120
6.000E-08,-0.240
7.000E-08,-1.400
8.000E-08,-1.480
9.000E-08,-0.600
1.000E-07,0.960
1.100E-07,2.280
1.200E-07,2.680
1.300E-07,1.960
1.400E-07,1.240
1.500E-07,0.800
1.600E-07,1.040
1.700E-07,1.720
1.800E-07,2.360
1.900E-07,2.520
2.000E-07,2.440
2.100E-07,1.920
2.200E-07,1.320
2.300E-07,1.080
2.400E-07,1.000
2.500E-07,1.200
2.600E-07,1.440
2.700E-07,1.440
2.800E-07,1.240
2.900E-07,0.920
3.000E-07,0.480
3.100E-07,0.120
3.200E-07,0.040
3.300E-07,0.040
3.400E-07,0.280
3.500E-07,0.360
3.600E-07,0.120
3.700E-07,0.000
3.800E-07,-0.320
3.900E-07,-0.520
4.000E-07,-0.480
4.100E-07,-0.400
4.200E-07,-0.200
4.300E-07,-0.040
4.400E-07,0.040
4.500E-07,-0.040
4.600E-07,0.000
4.700E-07,-0.120
4.800E-07,-0.080
4.900E-07,0.000
5.000E-07,0.120
5.100E-07,0.240
5.200E-07,0.440
5.300E-07,0.480
5.400E-07,0.520
5.500E-07,0.360
5.600E-07,0.360
5.700E-07,0.160
5.800E-07,0.200
5.900E-07,0.240
6.000E-07,0.320
6.100E-07,0.360
6.200E-07,0.360
6.300E-07,0.320
6.400E-07,0.280
6.500E-07,-0.400
6.600E-07,-0.360
6.700E-07,-0.760
6.800E-07,-1.600
6.900E-07,-3.080
7.000E-07,-2.320
7.100E-07,-5.000
7.200E-07,-3.280
7.300E-07,-1.720
7.400E-07,0.000
7.500E-07,2.360
7.600E-07,2.320
7.700E-07,1.800
7.800E-07,-0.080
7.900E-07,-0.840
8.000E-07,-0.080
8.100E-07,0.880
8.200E-07,2.000
8.300E-07,2.120
8.400E-07,1.480
8.500E-07,0.560
8.600E-07,0.080
8.700E-07,0.160
8.800E-07,0.440
8.900E-07,0.960
9.000E-07,1.000
9.100E-07,1.040
9.200E-07,0.840
9.300E-07,0.480
9.400E-07,0.200
9.500E-07,-0.160
9.600E-07,-0.360
9.700E-07,-0.400
9.800E-07,-0.560
9.900E-07,-0.680
1.000E-06,-0.920
1.010E-06,-1.320
1.020E-06,-1.400
1.030E-06,-1.320
1.040E-06,-1.040
1.050E-06,-0.640
1.060E-06,-0.240
1.070E-06,0.000
1.080E-06,0.000
1.090E-06,-0.040
1.100E-06,0.080
1.110E-06,0.120
1.120E-06,0.360
1.130E-06,0.680
1.140E-06,0.880
1.150E-06,1.000
1.160E-06,1.040
1.170E-06,0.880
1.180E-06,0.600
1.190E-06,0.520
1.200E-06,0.400
1.210E-06,0.400
1.220E-06,0.480
1.230E-06,0.440
1.240E-06,0.080
1.250E-06,0.120
1.260E-06,-0.720
1.270E-06,-1.120
1.280E-06,-1.680
1.290E-06,-2.080
1.300E-06,-2.280
1.310E-06,-2.200
1.320E-06,-1.440
1.330E-06,-1.760
1.340E-06,-0.880
1.350E-06,-0.760
1.360E-06,-0.680
1.370E-06,0.200
1.380E-06,0.680
1.390E-06,1.000
1.400E-06,1.360
1.410E-06,1.360
1.420E-06,1.520
1.430E-06,1.760
1.440E-06,1.760
1.450E-06,1.920
1.460E-06,1.680
1.470E-06,1.840
1.480E-06,1.840
1.490E-06,2.000
1.500E-06,2.200
1.510E-06,2.000
1.520E-06,1.760
1.530E-06,1.320
1.540E-06,0.920
1.550E-06,0.600
1.560E-06,0.520
1.570E-06,0.280
1.580E-06,0.080
1.590E-06,-0.280
1.600E-06,-0.640
1.610E-06,-0.960
1.620E-06,-1.160
1.630E-06,-1.400
1.640E-06,-1.360
1.650E-06,-1.480
1.660E-06,-1.320
1.670E-06,-1.200
1.680E-06,-1.120
1.690E-06,-1.080
1.700E-06,-0.920
1.710E-06,-0.840
1.720E-06,-0.680
1.730E-06,-0.440
1.740E-06,-0.200
1.750E-06,-0.040
1.760E-06,0.000
1.770E-06,0.000
1.780E-06,-0.080
1.790E-06,-0.240
1.800E-06,-0.320
1.810E-06,-0.440
1.820E-06,-0.360
1.830E-06,-0.800
1.840E-06,-0.400
1.850E-06,-0.240
1.860E-06,-0.120
1.870E-06,0.360
1.880E-06,0.080
1.890E-06,-0.040
1.900E-06,-0.280
1.910E-06,-0.600
1.920E-06,-0.600
1.930E-06,-0.320
1.940E-06,0.040
1.950E-06,0.320
1.960E-06,0.520
1.970E-06,0.480
1.980E-06,0.400
1.990E-06,0.440
2.000E-06,0.680
2.010E-06,1.360
2.020E-06,1.920
2.030E-06,2.400
2.040E-06,2.600
2.050E-06,2.640
2.060E-06,2.600
2.070E-06,2.560
2.080E-06,2.520
2.090E-06,2.520
2.100E-06,2.360
2.110E-06,2.120
2.120E-06,1.880
2.130E-06,1.600
2.140E-06,1.360
2.150E-06,1.000
2.160E-06,0.680
2.170E-06,0.480
2.180E-06,0.440
2.190E-06,0.120
2.200E-06,0.200
2.210E-06,0.200
2.220E-06,0.280
2.230E-06,0.280
2.240E-06,0.240
2.250E-06,0.200
2.260E-06,0.200
2.270E-06,0.360
2.280E-06,0.360
2.290E-06,0.360
2.300E-06,0.160
2.310E-06,-0.200
2.320E-06,-0.560
2.330E-06,-0.760
2.340E-06,-0.680
2.350E-06,-0.560
2.360E-06,-0.360
2.370E-06,-0.160
2.380E-06,-0.240
2.390E-06,-0.240
2.400E-06,-0.160
2.410E-06,0.000
2.420E-06,0.400
2.430E-06,0.520
2.440E-06,0.560
2.450E-06,0.400
2.460E-06,0.080
2.470E-06,-0.240
2.480E-06,-0.640
2.490E-06,-1.080
2.500E-06,-1.440
2.510E-06,-1.760
2.520E-06,-2.240
2.530E-06,-2.480
2.540E-06,-2.880
2.550E-06,-3.080
2.560E-06,-3.160
2.570E-06,-3.200
2.580E-06,-3.000
2.590E-06,-2.840
2.600E-06,-2.600
2.610E-06,-2.360
2.620E-06,-2.040
2.630E-06,-1.600
2.640E-06,-1.440
2.650E-06,-1.160
2.660E-06,-1.240
2.670E-06,-1.240
2.680E-06,-1.360
2.690E-06,-1.360
2.700E-06,-1.200
2.710E-06,-0.960
2.720E-06,-0.800
2.730E-06,-0.760
2.740E-06,-0.800
2.750E-06,-0.960
2.760E-06,-1.200
2.770E-06,-1.360
2.780E-06,-1.520
2.790E-06,-1.760
2.800E-06,-2.160
2.810E-06,-2.640
2.820E-06,-3.440
2.830E-06,-4.400
2.840E-06,-5.240
2.850E-06,-5.200
2.860E-06,-5.240
2.870E-06,-5.240
2.880E-06,-5.240
2.890E-06,-5.200
2.900E-06,-5.240
2.910E-06,-5.240
2.920E-06,-5.240
2.930E-06,-5.200
2.940E-06,-5.200
2.950E-06,-5.240
2.960E-06,-5.200
2.970E-06,-5.200
2.980E-06,-5.200
2.990E-06,-5.200
3.000E-06,-5.200
3.010E-06,-5.200
3.020E-06,-5.200
3.030E-06,-5.200
3.040E-06,-5.240
3.050E-06,-5.240
3.060E-06,-5.240
3.070E-06,-5.200
3.080E-06,-5.240
3.090E-06,-5.240
3.100E-06,-5.200
3.110E-06,-5.240
3.120E-06,-5.200
3.130E-06,-5.200
3.140E-06,-5.200
3.150E-06,-5.240
3.160E-06,-5.240
3.170E-06,-5.240
3.180E-06,-5.240
3.190E-06,-5.200
3.200E-06,-5.200
3.210E-06,-5.240
3.220E-06,-5.240
3.230E-06,-5.240
3.240E-06,-5.240
3.250E-06,-5.200
3.260E-06,-5.200
3.270E-06,-5.200
3.280E-06,-5.240
3.290E-06,-5.200
3.300E-06,-5.160
3.310E-06,-4.880
3.320E-06,-4.560
3.330E-06,-4.200
3.340E-06,-3.920
3.350E-06,-3.680
3.360E-06,-3.480
3.370E-06,-3.280
3.380E-06,-3.160
3.390E-06,-3.120
3.400E-06,-3.080
3.410E-06,-3.040
3.420E-06,-3.040
3.430E-06,-3.040
3.440E-06,-3.040
3.450E-06,-3.000
3.460E-06,-2.920
3.470E-06,-2.920
3.480E-06,-2.920
3.490E-06,-2.800
3.500E-06,-2.720
3.510E-06,-2.640
3.520E-06,-2.560
3.530E-06,-2.480
3.540E-06,-2.400
3.550E-06,-2.320
3.560E-06,-2.320
3.570E-06,-2.200
3.580E-06,-2.200
3.590E-06,-2.080
3.600E-06,-2.040
3.610E-06,-1.960
3.620E-06,-1.960
3.630E-06,-1.880
3.640E-06,-1.880
3.650E-06,-1.800
3.660E-06,-1.840
3.670E-06,-1.800
3.680E-06,-1.720
3.690E-06,-1.720
3.700E-06,-1.680
3.710E-06,-1.640
3.720E-06,-1.680
3.730E-06,-1.640
3.740E-06,-1.600
3.750E-06,-1.560
3.760E-06,-1.480
3.770E-06,-1.480
3.780E-06,-1.400
3.790E-06,-1.360
3.800E-06,-1.360
3.810E-06,-1.240
3.820E-06,-1.200
3.830E-06,-1.120
3.840E-06,-1.000
3.850E-06,-0.920
3.860E-06,-0.840
3.870E-06,-0.800
3.880E-06,-0.800
3.890E-06,-0.760
3.900E-06,-0.720
3.910E-06,-0.680
3.920E-06,-0.760
3.930E-06,-0.840
3.940E-06,-0.880
3.950E-06,-1.000
3.960E-06,-1.040
3.970E-06,-1.120
3.980E-06,-1.120
3.990E-06,-1.160
4.000E-06,-1.240
4.010E-06,-1.240
4.020E-06,-1.320
4.030E-06,-1.320
4.040E-06,-1.400
4.050E-06,-1.400
4.060E-06,-1.440
4.070E-06,-1.480
4.080E-06,-1.520
4.090E-06,-1.520
4.100E-06,-1.480
4.110E-06,-1.400
4.120E-06,-1.440
4.130E-06,-1.440
4.140E-06,-1.400
4.150E-06,-1.440
4.160E-06,-1.400
4.170E-06,-1.400
4.180E-06,-1.360
4.190E-06,-1.360
4.200E-06,-1.280
4.210E-06,-1.160
4.220E-06,-1.120
4.230E-06,-1.080
4.240E-06,-1.080
4.250E-06,-1.080
4.260E-06,-1.000
4.270E-06,-0.920
4.280E-06,-0.880
4.290E-06,-0.880
4.300E-06,-0.720
4.310E-06,-0.720
4.320E-06,-0.640
4.330E-06,-0.640
4.340E-06,-0.680
4.350E-06,-0.680
4.360E-06,-0.680
4.370E-06,-0.800
4.380E-06,-0.840
4.390E-06,-0.920
4.400E-06,-1.000
4.410E-06,-1.120
4.420E-06,-1.160
4.430E-06,-1.120
4.440E-06,-1.120
4.450E-06,-1.080
4.460E-06,-1.000
4.470E-06,-1.000
4.480E-06,-1.040
4.490E-06,-0.880
4.500E-06,-0.840
4.510E-06,-0.760
4.520E-06,-0.680
4.530E-06,-0.680
4.540E-06,-0.680
4.550E-06,-0.640
4.560E-06,-0.720
4.570E-06,-0.720
4.580E-06,-0.760
4.590E-06,-0.760
4.600E-06,-0.840
4.610E-06,-0.840
4.620E-06,-0.840
4.630E-06,-0.840
4.640E-06,-0.760
4.650E-06,-0.800
4.660E-06,-0.800
4.670E-06,-0.800
4.680E-06,-0.760
4.690E-06,-0.640
4.700E-06,-0.520
4.710E-06,-0.440
4.720E-06,-0.360
4.730E-06,-0.280
4.740E-06,-0.320
4.750E-06,-0.320
4.760E-06,-0.440
4.770E-06,-0.480
4.780E-06,-0.480
4.790E-06,-0.400
4.800E-06,-0.240
4.810E-06,-0.200
4.820E-06,-0.120
4.830E-06,-0.280
4.840E-06,-0.520
4.850E-06,-0.880
4.860E-06,-1.360
4.870E-06,-1.680
4.880E-06,-1.880
4.890E-06,-2.000
4.900E-06,-1.920
4.910E-06,-1.800
4.920E-06,-1.680
4.930E-06,-1.400
4.940E-06,-1.160
4.950E-06,-0.960
4.960E-06,-0.720
4.970E-06,-0.560
4.980E-06,-0.520
4.990E-06,-0.360
5.000E-06,-0.320
5.010E-06,-0.360
5.020E-06,-0.320
5.030E-06,-0.440
5.040E-06,-0.440
5.050E-06,-0.480
5.060E-06,-0.520
5.070E-06,-0.560
5.080E-06,-0.600
5.090E-06,-0.520
5.100E-06,-0.520
5.110E-06,-0.640
5.120E-06,-0.680
5.130E-06,-0.760
5.140E-06,-0.880
5.150E-06,-0.920
5.160E-06,-1.000
5.170E-06,-1.080
5.180E-06,-1.120
5.190E-06,-1.120
5.200E-06,-1.080
5.210E-06,-1.040
5.220E-06,-0.960
5.230E-06,-0.880
5.240E-06,-0.880
5.250E-06,-0.880
5.260E-06,-0.840
5.270E-06,-0.760
5.280E-06,-0.680
5.290E-06,-0.680
5.300E-06,-0.600
5.310E-06,-0.480
5.320E-06,-0.400
5.330E-06,-0.240
5.340E-06,-0.160
5.350E-06,0.000
5.360E-06,0.040
5.370E-06,0.160
5.380E-06,0.160
5.390E-06,0.160
5.400E-06,0.120
5.410E-06,0.080
5.420E-06,0.000
5.430E-06,-0.120
5.440E-06,-0.280
5.450E-06,-0.320
5.460E-06,-0.400
5.470E-06,-0.440
5.480E-06,-0.440
5.490E-06,-0.400
5.500E-06,-0.320
5.510E-06,-0.240
5.520E-06,-0.200
5.530E-06,-0.080
5.540E-06,0.000
5.550E-06,0.000
5.560E-06,0.000
5.570E-06,0.000
5.580E-06,-0.120
5.590E-06,-0.120
5.600E-06,-0.080
5.610E-06,-0.160
5.620E-06,-0.280
5.630E-06,-0.320
5.640E-06,-0.320
5.650E-06,-0.400
5.660E-06,-0.440
5.670E-06,-0.440
5.680E-06,-0.440
5.690E-06,-0.520
5.700E-06,-0.520
5.710E-06,-0.520
5.720E-06,-0.520
5.730E-06,-0.640
5.740E-06,-0.640
5.750E-06,-0.680
5.760E-06,-0.680
5.770E-06,-0.720
5.780E-06,-0.680
5.790E-06,-0.720
5.800E-06,-0.680
5.810E-06,-0.600
5.820E-06,-0.480
5.830E-06,-0.480
5.840E-06,-0.360
5.850E-06,-0.360
5.860E-06,-0.240
5.870E-06,-0.240
5.880E-06,-0.080
5.890E-06,-0.040
5.900E-06,0.000
5.910E-06,0.080
5.920E-06,0.080
5.930E-06,0.040
5.940E-06,0.080
5.950E-06,0.160
5.960E-06,0.120
5.970E-06,0.200
5.980E-06,0.240
5.990E-06,0.320
6.000E-06,0.400
6.010E-06,0.520
6.020E-06,0.600
6.030E-06,0.680
6.040E-06,0.720
6.050E-06,0.720
6.060E-06,0.600
6.070E-06,0.520
6.080E-06,0.440
6.090E-06,0.320
6.100E-06,0.240
6.110E-06,0.200
6.120E-06,0.160
6.130E-06,0.200
6.140E-06,0.200
6.150E-06,0.200
6.160E-06,0.240
6.170E-06,0.160
6.180E-06,0.160
6.190E-06,0.200
6.200E-06,0.200
6.210E-06,0.120
6.220E-06,0.160
6.230E-06,0.120
6.240E-06,0.080
6.250E-06,0.040
6.260E-06,0.040
6.270E-06,0.080
6.280E-06,0.040
6.290E-06,0.120
6.300E-06,0.200
6.310E-06,0.240
6.320E-06,0.360
6.330E-06,0.440
6.340E-06,0.600
6.350E-06,0.640
6.360E-06,0.640
6.370E-06,0.680
6.380E-06,0.720
6.390E-06,0.720
6.400E-06,0.680
6.410E-06,0.720
6.420E-06,0.720
6.430E-06,0.800
6.440E-06,0.840
6.450E-06,0.840
6.460E-06,0.840
6.470E-06,0.920
6.480E-06,0.920
6.490E-06,0.960
6.500E-06,0.880
6.510E-06,0.920
6.520E-06,0.920
6.530E-06,0.920
6.540E-06,0.920
6.550E-06,0.920
6.560E-06,1.000
6.570E-06,0.960
6.580E-06,0.960
6.590E-06,0.960
6.600E-06,0.920
6.610E-06,0.840
6.620E-06,0.800
6.630E-06,0.800
6.640E-06,0.800
6.650E-06,0.800
6.660E-06,0.800
6.670E-06,0.800
6.680E-06,0.800
6.690E-06,0.840
6.700E-06,0.800
6.710E-06,0.800
6.720E-06,0.760
6.730E-06,0.800
6.740E-06,0.840
6.750E-06,0.840
6.760E-06,0.880
6.770E-06,0.920
6.780E-06,0.960
6.790E-06,0.920
6.800E-06,0.920
6.810E-06,0.840
6.820E-06,0.800
6.830E-06,0.720
6.840E-06,0.640
6.850E-06,0.520
6.860E-06,0.480
6.870E-06,0.480
6.880E-06,0.440
6.890E-06,0.480
6.900E-06,0.440
6.910E-06,0.440
6.920E-06,0.440
6.930E-06,0.440
6.940E-06,0.480
6.950E-06,0.480
6.960E-06,0.480
6.970E-06,0.520
6.980E-06,0.520
6.990E-06,0.560
7.000E-06,0.560
7.010E-06,0.520
7.020E-06,0.560
7.030E-06,0.600
7.040E-06,0.680
7.050E-06,0.760
7.060E-06,0.800
7.070E-06,0.880
7.080E-06,0.960
7.090E-06,1.000
7.100E-06,1.040
7.110E-06,1.040
7.120E-06,1.000
7.130E-06,1.040
7.140E-06,1.040
7.150E-06,1.040
7.160E-06,0.960
7.170E-06,1.000
7.180E-06,0.960
7.190E-06,1.000
7.200E-06,1.000
7.210E-06,0.960
7.220E-06,1.040
7.230E-06,1.000
7.240E-06,0.960
7.250E-06,1.080
7.260E-06,1.200
7.270E-06,1.320
7.280E-06,1.400
7.290E-06,1.520
7.300E-06,1.680
7.310E-06,1.840
7.320E-06,2.040
7.330E-06,2.200
7.340E-06,2.520
7.350E-06,2.800
7.360E-06,3.280
7.370E-06,3.760
7.380E-06,4.320
7.390E-06,4.920
7.400E-06,5.440
7.410E-06,5.440
7.420E-06,5.440
7.430E-06,5.440
7.440E-06,5.480
7.450E-06,5.480
7.460E-06,5.400
7.470E-06,5.440
7.480E-06,5.440
7.490E-06,5.440
7.500E-06,5.400
7.510E-06,5.440
7.520E-06,5.480
7.530E-06,5.400
7.540E-06,5.400
7.550E-06,5.440
7.560E-06,5.480
7.570E-06,5.200
7.580E-06,4.960
7.590E-06,4.720
7.600E-06,4.520
7.610E-06,4.200
7.620E-06,4.000
7.630E-06,3.800
7.640E-06,3.640
7.650E-06,3.520
7.660E-06,3.360
7.670E-06,3.320
7.680E-06,3.240
7.690E-06,3.160
7.700E-06,3.080
7.710E-06,3.000
7.720E-06,2.880
7.730E-06,2.880
7.740E-06,2.880
7.750E-06,2.760
7.760E-06,2.680
7.770E-06,2.640
7.780E-06,2.560
7.790E-06,2.480
7.800E-06,2.360
7.810E-06,2.280
7.820E-06,2.160
7.830E-06,2.120
7.840E-06,1.960
7.850E-06,1.880
7.860E-06,1.760
7.870E-06,1.680
7.880E-06,1.600
7.890E-06,1.560
7.900E-06,1.520
7.910E-06,1.560
7.920E-06,1.520
7.930E-06,1.560
7.940E-06,1.520
7.950E-06,1.560
7.960E-06,1.520
7.970E-06,1.520
7.980E-06,1.480
7.990E-06,1.520
8.000E-06,1.440
8.010E-06,1.320
8.020E-06,1.240
8.030E-06,1.160
8.040E-06,1.080
8.050E-06,1.040
8.060E-06,1.000
8.070E-06,0.920
8.080E-06,0.880
8.090E-06,0.880
8.100E-06,0.920
