mediciones/Mediciones filtradas (saque las feas)/5-27/-27.5/WaveData5150.csv

#timebase=2000000(ps)
,#voltbase=100000(mv/100)
#size=4000
-5.650E-06,0.000
-5.640E-06,0.004
-5.630E-06,0.004
-5.620E-06,0.004
-5.610E-06,0.012
-5.600E-06,0.004
-5.590E-06,-0.004
-5.580E-06,-0.012
-5.570E-06,-0.008
-5.560E-06,0.008
-5.550E-06,0.016
-5.540E-06,0.020
-5.530E-06,0.012
-5.520E-06,-0.004
-5.510E-06,-0.012
-5.500E-06,-0.016
-5.490E-06,-0.004
-5.480E-06,0.004
-5.470E-06,0.012
-5.460E-06,0.012
-5.450E-06,0.012
-5.440E-06,0.004
-5.430E-06,-0.008
-5.420E-06,-0.008
-5.410E-06,0.008
-5.400E-06,0.012
-5.390E-06,0.008
-5.380E-06,0.012
-5.370E-06,0.016
-5.360E-06,0.012
-5.350E-06,0.012
-5.340E-06,0.008
-5.330E-06,0.000
-5.320E-06,-0.012
-5.310E-06,-0.008
-5.300E-06,-0.016
-5.290E-06,0.000
-5.280E-06,0.012
-5.270E-06,0.024
-5.260E-06,0.024
-5.250E-06,0.012
-5.240E-06,0.000
-5.230E-06,-0.008
-5.220E-06,-0.004
-5.210E-06,0.000
-5.200E-06,0.012
-5.190E-06,0.020
-5.180E-06,0.016
-5.170E-06,0.000
-5.160E-06,0.000
-5.150E-06,0.000
-5.140E-06,0.008
-5.130E-06,0.016
-5.120E-06,0.020
-5.110E-06,0.020
-5.100E-06,0.024
-5.090E-06,0.036
-5.080E-06,0.028
-5.070E-06,0.004
-5.060E-06,-0.008
-5.050E-06,-0.036
-5.040E-06,-0.044
-5.030E-06,0.004
-5.020E-06,0.020
-5.010E-06,0.024
-5.000E-06,0.036
-4.990E-06,-0.068
-4.980E-06,-0.076
-4.970E-06,-0.104
-4.960E-06,-0.020
-4.950E-06,0.044
-4.940E-06,0.056
-4.930E-06,0.060
-4.920E-06,-0.004
-4.910E-06,-0.024
-4.900E-06,-0.056
-4.890E-06,-0.032
-4.880E-06,0.024
-4.870E-06,0.040
-4.860E-06,0.024
-4.850E-06,0.000
-4.840E-06,-0.020
-4.830E-06,-0.016
-4.820E-06,0.004
-4.810E-06,0.012
-4.800E-06,0.028
-4.790E-06,0.024
-4.780E-06,0.004
-4.770E-06,-0.008
-4.760E-06,-0.004
-4.750E-06,-0.008
-4.740E-06,-0.008
-4.730E-06,-0.004
-4.720E-06,0.008
-4.710E-06,0.016
-4.700E-06,0.020
-4.690E-06,0.016
-4.680E-06,-0.004
-4.670E-06,-0.008
-4.660E-06,-0.004
-4.650E-06,0.008
-4.640E-06,0.024
-4.630E-06,0.028
-4.620E-06,0.012
-4.610E-06,0.004
-4.600E-06,-0.004
-4.590E-06,-0.008
-4.580E-06,0.000
-4.570E-06,0.020
-4.560E-06,0.028
-4.550E-06,0.024
-4.540E-06,0.024
-4.530E-06,0.000
-4.520E-06,0.004
-4.510E-06,0.008
-4.500E-06,0.004
-4.490E-06,0.000
-4.480E-06,-0.024
-4.470E-06,-0.008
-4.460E-06,-0.024
-4.450E-06,0.000
-4.440E-06,0.028
-4.430E-06,0.040
-4.420E-06,0.008
-4.410E-06,-0.032
-4.400E-06,-0.048
-4.390E-06,-0.032
-4.380E-06,0.012
-4.370E-06,0.040
-4.360E-06,0.048
-4.350E-06,0.012
-4.340E-06,-0.028
-4.330E-06,-0.064
-4.320E-06,-0.044
-4.310E-06,0.000
-4.300E-06,0.036
-4.290E-06,0.048
-4.280E-06,0.024
-4.270E-06,0.008
-4.260E-06,-0.032
-4.250E-06,-0.036
-4.240E-06,-0.024
-4.230E-06,0.008
-4.220E-06,0.040
-4.210E-06,0.028
-4.200E-06,0.004
-4.190E-06,-0.020
-4.180E-06,-0.020
-4.170E-06,-0.012
-4.160E-06,0.012
-4.150E-06,0.024
-4.140E-06,0.020
-4.130E-06,0.008
-4.120E-06,-0.008
-4.110E-06,-0.024
-4.100E-06,-0.024
-4.090E-06,-0.004
-4.080E-06,0.012
-4.070E-06,0.028
-4.060E-06,0.028
-4.050E-06,0.008
-4.040E-06,0.004
-4.030E-06,-0.004
-4.020E-06,-0.012
-4.010E-06,-0.004
-4.000E-06,-0.004
-3.990E-06,0.008
-3.980E-06,0.012
-3.970E-06,0.024
-3.960E-06,0.016
-3.950E-06,0.012
-3.940E-06,0.000
-3.930E-06,-0.008
-3.920E-06,0.000
-3.910E-06,0.008
-3.900E-06,0.020
-3.890E-06,0.008
-3.880E-06,0.000
-3.870E-06,-0.004
-3.860E-06,-0.004
-3.850E-06,-0.004
-3.840E-06,0.012
-3.830E-06,0.020
-3.820E-06,0.028
-3.810E-06,0.024
-3.800E-06,0.008
-3.790E-06,0.000
-3.780E-06,0.000
-3.770E-06,-0.004
-3.760E-06,0.008
-3.750E-06,0.012
-3.740E-06,0.012
-3.730E-06,0.012
-3.720E-06,0.012
-3.710E-06,0.008
-3.700E-06,0.004
-3.690E-06,0.000
-3.680E-06,-0.004
-3.670E-06,-0.004
-3.660E-06,-0.008
-3.650E-06,-0.004
-3.640E-06,0.000
-3.630E-06,0.016
-3.620E-06,0.024
-3.610E-06,0.024
-3.600E-06,0.016
-3.590E-06,0.004
-3.580E-06,-0.008
-3.570E-06,-0.012
-3.560E-06,-0.012
-3.550E-06,-0.008
-3.540E-06,0.000
-3.530E-06,-0.008
-3.520E-06,-0.012
-3.510E-06,-0.008
-3.500E-06,0.000
-3.490E-06,0.004
-3.480E-06,0.008
-3.470E-06,0.008
-3.460E-06,0.008
-3.450E-06,0.000
-3.440E-06,0.000
-3.430E-06,-0.004
-3.420E-06,0.012
-3.410E-06,0.004
-3.400E-06,0.008
-3.390E-06,0.000
-3.380E-06,-0.008
-3.370E-06,-0.004
-3.360E-06,0.000
-3.350E-06,0.016
-3.340E-06,-0.004
-3.330E-06,0.024
-3.320E-06,0.004
-3.310E-06,-0.012
-3.300E-06,-0.016
-3.290E-06,0.000
-3.280E-06,0.008
-3.270E-06,0.020
-3.260E-06,0.012
-3.250E-06,0.012
-3.240E-06,0.000
-3.230E-06,-0.008
-3.220E-06,0.000
-3.210E-06,0.000
-3.200E-06,0.008
-3.190E-06,0.012
-3.180E-06,0.008
-3.170E-06,0.004
-3.160E-06,0.000
-3.150E-06,0.000
-3.140E-06,-0.004
-3.130E-06,0.000
-3.120E-06,0.004
-3.110E-06,0.012
-3.100E-06,0.012
-3.090E-06,0.024
-3.080E-06,-0.004
-3.070E-06,0.000
-3.060E-06,-0.008
-3.050E-06,0.008
-3.040E-06,0.008
-3.030E-06,0.012
-3.020E-06,0.016
-3.010E-06,0.012
-3.000E-06,-0.004
-2.990E-06,0.000
-2.980E-06,-0.008
-2.970E-06,0.000
-2.960E-06,0.012
-2.950E-06,0.016
-2.940E-06,0.008
-2.930E-06,0.008
-2.920E-06,0.008
-2.910E-06,0.008
-2.900E-06,0.000
-2.890E-06,0.008
-2.880E-06,0.000
-2.870E-06,-0.004
-2.860E-06,0.000
-2.850E-06,0.000
-2.840E-06,0.008
-2.830E-06,0.008
-2.820E-06,0.012
-2.810E-06,0.016
-2.800E-06,0.016
-2.790E-06,0.008
-2.780E-06,-0.004
-2.770E-06,-0.004
-2.760E-06,0.020
-2.750E-06,0.024
-2.740E-06,0.028
-2.730E-06,-0.008
-2.720E-06,-0.048
-2.710E-06,-0.060
-2.700E-06,-0.040
-2.690E-06,0.008
-2.680E-06,0.032
-2.670E-06,0.028
-2.660E-06,0.028
-2.650E-06,-0.020
-2.640E-06,-0.036
-2.630E-06,-0.036
-2.620E-06,0.000
-2.610E-06,0.028
-2.600E-06,0.028
-2.590E-06,0.016
-2.580E-06,-0.012
-2.570E-06,-0.024
-2.560E-06,-0.004
-2.550E-06,-0.004
-2.540E-06,0.016
-2.530E-06,0.020
-2.520E-06,0.012
-2.510E-06,-0.008
-2.500E-06,-0.004
-2.490E-06,0.000
-2.480E-06,0.008
-2.470E-06,0.008
-2.460E-06,0.016
-2.450E-06,0.008
-2.440E-06,0.008
-2.430E-06,0.008
-2.420E-06,0.008
-2.410E-06,0.012
-2.400E-06,0.012
-2.390E-06,-0.004
-2.380E-06,-0.004
-2.370E-06,-0.012
-2.360E-06,-0.004
-2.350E-06,0.012
-2.340E-06,0.024
-2.330E-06,0.028
-2.320E-06,0.008
-2.310E-06,-0.004
-2.300E-06,-0.012
-2.290E-06,-0.004
-2.280E-06,0.020
-2.270E-06,0.016
-2.260E-06,0.012
-2.250E-06,-0.004
-2.240E-06,-0.008
-2.230E-06,-0.008
-2.220E-06,0.008
-2.210E-06,0.016
-2.200E-06,0.016
-2.190E-06,0.008
-2.180E-06,0.008
-2.170E-06,0.000
-2.160E-06,0.000
-2.150E-06,0.012
-2.140E-06,0.016
-2.130E-06,0.016
-2.120E-06,0.016
-2.110E-06,0.004
-2.100E-06,-0.008
-2.090E-06,-0.008
-2.080E-06,-0.008
-2.070E-06,0.008
-2.060E-06,0.012
-2.050E-06,0.016
-2.040E-06,0.004
-2.030E-06,0.000
-2.020E-06,0.004
-2.010E-06,0.000
-2.000E-06,0.008
-1.990E-06,0.012
-1.980E-06,0.004
-1.970E-06,0.012
-1.960E-06,0.008
-1.950E-06,0.008
-1.940E-06,0.012
-1.930E-06,0.012
-1.920E-06,0.020
-1.910E-06,0.024
-1.900E-06,0.012
-1.890E-06,0.016
-1.880E-06,0.004
-1.870E-06,-0.016
-1.860E-06,-0.044
-1.850E-06,-0.044
-1.840E-06,-0.004
-1.830E-06,0.028
-1.820E-06,0.028
-1.810E-06,0.024
-1.800E-06,-0.008
-1.790E-06,-0.016
-1.780E-06,-0.024
-1.770E-06,-0.004
-1.760E-06,0.016
-1.750E-06,0.024
-1.740E-06,0.012
-1.730E-06,-0.004
-1.720E-06,-0.012
-1.710E-06,0.000
-1.700E-06,0.008
-1.690E-06,0.012
-1.680E-06,0.012
-1.670E-06,0.000
-1.660E-06,-0.004
-1.650E-06,-0.008
-1.640E-06,0.000
-1.630E-06,0.012
-1.620E-06,0.016
-1.610E-06,0.012
-1.600E-06,0.008
-1.590E-06,-0.004
-1.580E-06,-0.004
-1.570E-06,0.000
-1.560E-06,0.004
-1.550E-06,0.012
-1.540E-06,0.012
-1.530E-06,0.008
-1.520E-06,0.008
-1.510E-06,0.004
-1.500E-06,-0.008
-1.490E-06,-0.004
-1.480E-06,0.004
-1.470E-06,0.012
-1.460E-06,0.012
-1.450E-06,0.012
-1.440E-06,0.016
-1.430E-06,0.008
-1.420E-06,0.012
-1.410E-06,0.012
-1.400E-06,0.012
-1.390E-06,0.016
-1.380E-06,0.024
-1.370E-06,0.024
-1.360E-06,0.028
-1.350E-06,0.016
-1.340E-06,0.024
-1.330E-06,0.004
-1.320E-06,-0.008
-1.310E-06,-0.060
-1.300E-06,-0.076
-1.290E-06,-0.056
-1.280E-06,-0.016
-1.270E-06,0.024
-1.260E-06,0.032
-1.250E-06,0.044
-1.240E-06,-0.012
-1.230E-06,-0.040
-1.220E-06,-0.048
-1.210E-06,-0.016
-1.200E-06,0.024
-1.190E-06,0.040
-1.180E-06,0.024
-1.170E-06,-0.004
-1.160E-06,-0.008
-1.150E-06,-0.004
-1.140E-06,0.012
-1.130E-06,0.028
-1.120E-06,0.020
-1.110E-06,-0.004
-1.100E-06,-0.008
-1.090E-06,-0.008
-1.080E-06,0.000
-1.070E-06,0.020
-1.060E-06,0.032
-1.050E-06,0.036
-1.040E-06,0.020
-1.030E-06,0.016
-1.020E-06,-0.004
-1.010E-06,-0.008
-1.000E-06,-0.028
-9.900E-07,-0.032
-9.800E-07,-0.004
-9.700E-07,0.012
-9.600E-07,0.032
-9.500E-07,0.024
-9.400E-07,0.004
-9.300E-07,-0.008
-9.200E-07,-0.024
-9.100E-07,-0.004
-9.000E-07,0.004
-8.900E-07,0.012
-8.800E-07,0.012
-8.700E-07,0.008
-8.600E-07,0.004
-8.500E-07,-0.004
-8.400E-07,-0.004
-8.300E-07,-0.008
-8.200E-07,0.000
-8.100E-07,0.012
-8.000E-07,0.012
-7.900E-07,0.008
-7.800E-07,0.008
-7.700E-07,0.000
-7.600E-07,-0.004
-7.500E-07,0.000
-7.400E-07,-0.004
-7.300E-07,0.008
-7.200E-07,0.012
-7.100E-07,0.020
-7.000E-07,0.016
-6.900E-07,0.004
-6.800E-07,-0.008
-6.700E-07,-0.008
-6.600E-07,-0.008
-6.500E-07,0.012
-6.400E-07,0.016
-6.300E-07,0.020
-6.200E-07,0.008
-6.100E-07,0.008
-6.000E-07,0.008
-5.900E-07,0.012
-5.800E-07,0.020
-5.700E-07,0.012
-5.600E-07,0.016
-5.500E-07,0.012
-5.400E-07,0.008
-5.300E-07,0.008
-5.200E-07,0.004
-5.100E-07,0.008
-5.000E-07,0.012
-4.900E-07,0.016
-4.800E-07,0.008
-4.700E-07,0.008
-4.600E-07,0.012
-4.500E-07,0.004
-4.400E-07,0.008
-4.300E-07,0.004
-4.200E-07,0.012
-4.100E-07,0.020
-4.000E-07,0.016
-3.900E-07,0.020
-3.800E-07,0.024
-3.700E-07,0.016
-3.600E-07,0.020
-3.500E-07,0.008
-3.400E-07,0.008
-3.300E-07,0.012
-3.200E-07,0.008
-3.100E-07,0.008
-3.000E-07,0.020
-2.900E-07,0.020
-2.800E-07,0.028
-2.700E-07,0.016
-2.600E-07,0.004
-2.500E-07,-0.004
-2.400E-07,-0.012
-2.300E-07,-0.004
-2.200E-07,-0.004
-2.100E-07,0.012
-2.000E-07,0.024
-1.900E-07,0.000
-1.800E-07,0.008
-1.700E-07,0.000
-1.600E-07,0.004
-1.500E-07,0.028
-1.400E-07,0.060
-1.300E-07,0.100
-1.200E-07,0.104
-1.100E-07,0.108
-1.000E-07,0.088
-9.000E-08,0.092
-8.000E-08,0.080
-7.000E-08,0.024
-6.000E-08,-0.200
-5.000E-08,-0.428
-4.000E-08,-0.480
-3.000E-08,-0.200
-2.000E-08,0.052
-1.000E-08,0.276
0.000E+00,0.308
1.000E-08,0.124
2.000E-08,-0.040
3.000E-08,-0.204
4.000E-08,-0.188
5.000E-08,-0.060
6.000E-08,0.080
7.000E-08,0.128
8.000E-08,0.100
9.000E-08,0.020
1.000E-07,-0.036
1.100E-07,-0.048
1.200E-07,-0.020
1.300E-07,-0.004
1.400E-07,0.024
1.500E-07,0.028
1.600E-07,0.016
1.700E-07,0.028
1.800E-07,0.032
1.900E-07,0.032
2.000E-07,0.032
2.100E-07,0.032
2.200E-07,0.020
2.300E-07,0.040
2.400E-07,0.056
2.500E-07,0.060
2.600E-07,0.044
2.700E-07,0.036
2.800E-07,0.040
2.900E-07,0.044
3.000E-07,0.060
3.100E-07,0.100
3.200E-07,0.032
3.300E-07,-0.064
3.400E-07,-0.168
3.500E-07,-0.256
3.600E-07,-0.168
3.700E-07,-0.056
3.800E-07,0.060
3.900E-07,0.132
4.000E-07,0.100
4.100E-07,0.020
4.200E-07,-0.072
4.300E-07,-0.108
4.400E-07,-0.064
4.500E-07,0.040
4.600E-07,0.120
4.700E-07,0.124
4.800E-07,0.088
4.900E-07,0.040
5.000E-07,-0.012
5.100E-07,-0.040
5.200E-07,-0.036
5.300E-07,0.004
5.400E-07,0.044
5.500E-07,0.092
5.600E-07,0.108
5.700E-07,0.112
5.800E-07,0.088
5.900E-07,0.064
6.000E-07,0.028
6.100E-07,-0.028
6.200E-07,-0.048
6.300E-07,-0.096
6.400E-07,-0.108
6.500E-07,-0.108
6.600E-07,-0.084
6.700E-07,-0.060
6.800E-07,0.016
6.900E-07,0.080
7.000E-07,0.116
7.100E-07,0.104
7.200E-07,0.036
7.300E-07,-0.036
7.400E-07,-0.100
7.500E-07,-0.132
7.600E-07,-0.068
7.700E-07,0.004
7.800E-07,0.060
7.900E-07,0.080
8.000E-07,0.044
8.100E-07,0.000
8.200E-07,-0.028
8.300E-07,-0.032
8.400E-07,-0.008
8.500E-07,0.008
8.600E-07,0.024
8.700E-07,0.004
8.800E-07,0.008
8.900E-07,0.008
9.000E-07,0.020
9.100E-07,0.032
9.200E-07,0.052
9.300E-07,0.044
9.400E-07,0.032
9.500E-07,0.024
9.600E-07,0.048
9.700E-07,0.072
9.800E-07,0.100
9.900E-07,0.100
1.000E-06,0.100
1.010E-06,0.088
1.020E-06,0.056
1.030E-06,0.008
1.040E-06,-0.044
1.050E-06,-0.088
1.060E-06,-0.140
1.070E-06,-0.096
1.080E-06,-0.028
1.090E-06,0.012
1.100E-06,0.112
1.110E-06,0.092
1.120E-06,0.016
1.130E-06,-0.052
1.140E-06,-0.104
1.150E-06,-0.080
1.160E-06,-0.068
1.170E-06,-0.004
1.180E-06,0.048
1.190E-06,0.032
1.200E-06,0.012
1.210E-06,-0.036
1.220E-06,-0.044
1.230E-06,-0.036
1.240E-06,-0.020
1.250E-06,0.004
1.260E-06,0.032
1.270E-06,0.040
1.280E-06,0.028
1.290E-06,0.016
1.300E-06,0.012
1.310E-06,0.004
1.320E-06,0.016
1.330E-06,0.032
1.340E-06,0.056
1.350E-06,0.052
1.360E-06,0.052
1.370E-06,0.044
1.380E-06,0.040
1.390E-06,0.040
1.400E-06,0.056
1.410E-06,0.064
1.420E-06,0.052
1.430E-06,0.028
1.440E-06,0.024
1.450E-06,0.028
1.460E-06,0.056
1.470E-06,0.076
1.480E-06,0.084
1.490E-06,0.060
1.500E-06,0.088
1.510E-06,0.052
1.520E-06,-0.136
1.530E-06,-0.316
1.540E-06,-0.368
1.550E-06,-0.268
1.560E-06,0.032
1.570E-06,-0.132
1.580E-06,-0.240
1.590E-06,-0.076
1.600E-06,0.096
1.610E-06,0.072
1.620E-06,0.092
1.630E-06,0.192
1.640E-06,0.040
1.650E-06,-0.072
1.660E-06,-0.200
1.670E-06,-0.112
1.680E-06,0.000
1.690E-06,0.124
1.700E-06,0.100
1.710E-06,0.056
1.720E-06,-0.012
1.730E-06,-0.036
1.740E-06,-0.020
1.750E-06,0.024
1.760E-06,0.032
1.770E-06,0.012
1.780E-06,0.012
1.790E-06,0.000
1.800E-06,0.020
1.810E-06,0.028
1.820E-06,0.048
1.830E-06,0.052
1.840E-06,0.008
1.850E-06,0.000
1.860E-06,0.024
1.870E-06,0.036
1.880E-06,0.028
1.890E-06,0.020
1.900E-06,0.024
1.910E-06,0.028
1.920E-06,0.036
1.930E-06,0.044
1.940E-06,0.060
1.950E-06,0.084
1.960E-06,0.076
1.970E-06,0.080
1.980E-06,0.048
1.990E-06,0.044
2.000E-06,0.020
2.010E-06,0.012
2.020E-06,0.028
2.030E-06,0.052
2.040E-06,0.084
2.050E-06,0.108
2.060E-06,0.128
2.070E-06,0.148
2.080E-06,0.032
2.090E-06,-0.052
2.100E-06,-0.160
2.110E-06,-0.172
2.120E-06,-0.120
2.130E-06,-0.024
2.140E-06,0.052
2.150E-06,0.052
2.160E-06,-0.008
2.170E-06,-0.144
2.180E-06,-0.140
2.190E-06,-0.124
2.200E-06,-0.060
2.210E-06,0.068
2.220E-06,0.100
2.230E-06,0.044
2.240E-06,-0.008
2.250E-06,-0.072
2.260E-06,-0.036
2.270E-06,0.008
2.280E-06,0.064
2.290E-06,0.092
2.300E-06,0.088
2.310E-06,0.056
2.320E-06,0.028
2.330E-06,-0.024
2.340E-06,-0.024
2.350E-06,0.004
2.360E-06,0.064
2.370E-06,0.112
2.380E-06,0.136
2.390E-06,0.144
2.400E-06,0.096
2.410E-06,0.032
2.420E-06,-0.016
2.430E-06,-0.052
2.440E-06,-0.028
2.450E-06,0.044
2.460E-06,0.076
2.470E-06,0.116
2.480E-06,0.100
2.490E-06,0.080
2.500E-06,0.040
2.510E-06,0.012
2.520E-06,0.032
2.530E-06,0.064
2.540E-06,0.092
2.550E-06,0.084
2.560E-06,0.068
2.570E-06,0.060
2.580E-06,0.048
2.590E-06,0.072
2.600E-06,0.072
2.610E-06,0.152
2.620E-06,0.112
2.630E-06,0.124
2.640E-06,0.028
2.650E-06,-0.124
2.660E-06,-0.264
2.670E-06,-0.432
2.680E-06,-0.432
2.690E-06,-0.340
2.700E-06,-0.324
2.710E-06,-0.092
2.720E-06,0.008
2.730E-06,0.216
2.740E-06,0.148
2.750E-06,0.100
2.760E-06,0.008
2.770E-06,-0.100
2.780E-06,-0.132
2.790E-06,-0.200
2.800E-06,-0.128
2.810E-06,-0.092
2.820E-06,0.072
2.830E-06,0.064
2.840E-06,0.108
2.850E-06,0.036
2.860E-06,0.004
2.870E-06,-0.008
2.880E-06,-0.064
2.890E-06,-0.056
2.900E-06,-0.060
2.910E-06,0.004
2.920E-06,0.068
2.930E-06,0.140
2.940E-06,0.124
2.950E-06,0.076
2.960E-06,0.000
2.970E-06,-0.052
2.980E-06,-0.060
2.990E-06,-0.036
3.000E-06,0.036
3.010E-06,0.064
3.020E-06,0.088
3.030E-06,0.064
3.040E-06,0.020
3.050E-06,-0.008
3.060E-06,0.000
3.070E-06,-0.008
3.080E-06,0.004
3.090E-06,0.008
3.100E-06,0.004
3.110E-06,0.004
3.120E-06,-0.008
3.130E-06,-0.008
3.140E-06,-0.004
3.150E-06,-0.004
3.160E-06,0.008
3.170E-06,0.012
3.180E-06,0.036
3.190E-06,0.040
3.200E-06,0.044
3.210E-06,0.044
3.220E-06,0.044
3.230E-06,0.056
3.240E-06,0.048
3.250E-06,0.060
3.260E-06,0.080
3.270E-06,0.096
3.280E-06,0.104
3.290E-06,0.100
3.300E-06,0.100
3.310E-06,0.104
3.320E-06,0.112
3.330E-06,0.124
3.340E-06,0.136
3.350E-06,0.140
3.360E-06,0.144
3.370E-06,0.132
3.380E-06,0.128
3.390E-06,0.128
3.400E-06,0.128
3.410E-06,0.128
3.420E-06,0.128
3.430E-06,0.136
3.440E-06,0.132
3.450E-06,0.136
3.460E-06,0.128
3.470E-06,0.136
3.480E-06,0.132
3.490E-06,0.124
3.500E-06,0.124
3.510E-06,0.132
3.520E-06,0.148
3.530E-06,0.128
3.540E-06,0.124
3.550E-06,0.088
3.560E-06,0.048
3.570E-06,-0.020
3.580E-06,-0.020
3.590E-06,-0.064
3.600E-06,-0.072
3.610E-06,-0.132
3.620E-06,-0.088
3.630E-06,-0.072
3.640E-06,-0.028
3.650E-06,0.036
3.660E-06,0.004
3.670E-06,0.016
3.680E-06,-0.020
3.690E-06,-0.028
3.700E-06,-0.092
3.710E-06,-0.200
3.720E-06,-0.220
3.730E-06,-0.116
3.740E-06,-0.056
3.750E-06,0.008
3.760E-06,0.024
3.770E-06,0.032
3.780E-06,-0.024
3.790E-06,-0.096
3.800E-06,-0.080
3.810E-06,-0.028
3.820E-06,0.048
3.830E-06,-0.008
3.840E-06,-0.076
3.850E-06,-0.156
3.860E-06,-0.156
3.870E-06,-0.096
3.880E-06,0.044
3.890E-06,0.164
3.900E-06,0.208
3.910E-06,0.164
3.920E-06,0.060
3.930E-06,-0.008
3.940E-06,-0.004
3.950E-06,0.092
3.960E-06,0.164
3.970E-06,0.220
3.980E-06,0.196
3.990E-06,0.132
4.000E-06,0.060
4.010E-06,0.000
4.020E-06,0.012
4.030E-06,0.060
4.040E-06,0.124
4.050E-06,0.132
4.060E-06,0.112
4.070E-06,0.056
4.080E-06,-0.008
4.090E-06,-0.036
4.100E-06,-0.036
4.110E-06,-0.004
4.120E-06,0.044
4.130E-06,0.096
4.140E-06,0.104
4.150E-06,0.084
4.160E-06,0.060
4.170E-06,0.016
4.180E-06,-0.012
4.190E-06,0.020
4.200E-06,0.068
4.210E-06,0.132
4.220E-06,0.176
4.230E-06,0.184
4.240E-06,0.172
4.250E-06,0.140
4.260E-06,0.124
4.270E-06,0.112
4.280E-06,0.136
4.290E-06,0.156
4.300E-06,0.184
4.310E-06,0.188
4.320E-06,0.164
4.330E-06,0.144
4.340E-06,0.124
4.350E-06,0.120
4.360E-06,0.128
4.370E-06,0.152
4.380E-06,0.164
4.390E-06,0.164
4.400E-06,0.152
4.410E-06,0.144
4.420E-06,0.136
4.430E-06,0.132
4.440E-06,0.140
4.450E-06,0.148
4.460E-06,0.160
4.470E-06,0.164
4.480E-06,0.164
4.490E-06,0.156
4.500E-06,0.148
4.510E-06,0.144
4.520E-06,0.144
4.530E-06,0.144
4.540E-06,0.156
4.550E-06,0.152
4.560E-06,0.148
4.570E-06,0.140
4.580E-06,0.128
4.590E-06,0.108
4.600E-06,0.128
4.610E-06,0.144
4.620E-06,0.156
4.630E-06,0.176
4.640E-06,0.168
4.650E-06,0.152
4.660E-06,0.128
4.670E-06,0.112
4.680E-06,0.116
4.690E-06,0.136
4.700E-06,0.168
4.710E-06,0.180
4.720E-06,0.172
4.730E-06,0.160
4.740E-06,0.140
4.750E-06,0.132
4.760E-06,0.140
4.770E-06,0.152
4.780E-06,0.160
4.790E-06,0.160
4.800E-06,0.160
4.810E-06,0.160
4.820E-06,0.140
4.830E-06,0.140
4.840E-06,0.132
4.850E-06,0.144
4.860E-06,0.152
4.870E-06,0.156
4.880E-06,0.160
4.890E-06,0.160
4.900E-06,0.152
4.910E-06,0.140
4.920E-06,0.144
4.930E-06,0.160
4.940E-06,0.160
4.950E-06,0.168
4.960E-06,0.168
4.970E-06,0.160
4.980E-06,0.152
4.990E-06,0.148
5.000E-06,0.148
5.010E-06,0.148
5.020E-06,0.156
5.030E-06,0.164
5.040E-06,0.164
5.050E-06,0.160
5.060E-06,0.148
5.070E-06,0.140
5.080E-06,0.148
5.090E-06,0.152
5.100E-06,0.156
5.110E-06,0.164
5.120E-06,0.156
5.130E-06,0.152
5.140E-06,0.148
5.150E-06,0.144
5.160E-06,0.148
5.170E-06,0.152
5.180E-06,0.152
5.190E-06,0.152
5.200E-06,0.148
5.210E-06,0.152
5.220E-06,0.144
5.230E-06,0.144
5.240E-06,0.148
5.250E-06,0.144
5.260E-06,0.152
5.270E-06,0.152
5.280E-06,0.152
5.290E-06,0.144
5.300E-06,0.144
5.310E-06,0.144
5.320E-06,0.144
5.330E-06,0.148
5.340E-06,0.144
5.350E-06,0.144
5.360E-06,0.144
5.370E-06,0.140
5.380E-06,0.136
5.390E-06,0.140
5.400E-06,0.144
5.410E-06,0.144
5.420E-06,0.144
5.430E-06,0.144
5.440E-06,0.148
5.450E-06,0.148
5.460E-06,0.144
5.470E-06,0.144
5.480E-06,0.144
5.490E-06,0.140
5.500E-06,0.140
5.510E-06,0.140
5.520E-06,0.144
5.530E-06,0.144
5.540E-06,0.144
5.550E-06,0.140
5.560E-06,0.136
5.570E-06,0.140
5.580E-06,0.136
5.590E-06,0.140
5.600E-06,0.136
5.610E-06,0.140
5.620E-06,0.140
5.630E-06,0.140
5.640E-06,0.140
5.650E-06,0.144
5.660E-06,0.140
5.670E-06,0.136
5.680E-06,0.136
5.690E-06,0.136
5.700E-06,0.136
5.710E-06,0.140
5.720E-06,0.144
5.730E-06,0.144
5.740E-06,0.136
5.750E-06,0.136
5.760E-06,0.132
5.770E-06,0.128
5.780E-06,0.128
5.790E-06,0.128
5.800E-06,0.124
5.810E-06,0.136
5.820E-06,0.140
5.830E-06,0.136
5.840E-06,0.136
5.850E-06,0.124
5.860E-06,0.124
5.870E-06,0.124
5.880E-06,0.128
5.890E-06,0.132
5.900E-06,0.136
5.910E-06,0.144
5.920E-06,0.140
5.930E-06,0.132
5.940E-06,0.128
5.950E-06,0.128
5.960E-06,0.132
5.970E-06,0.136
5.980E-06,0.136
5.990E-06,0.140
6.000E-06,0.136
6.010E-06,0.128
6.020E-06,0.124
6.030E-06,0.128
6.040E-06,0.128
6.050E-06,0.132
6.060E-06,0.132
6.070E-06,0.136
6.080E-06,0.128
6.090E-06,0.124
6.100E-06,0.120
6.110E-06,0.120
6.120E-06,0.128
6.130E-06,0.132
6.140E-06,0.136
6.150E-06,0.132
6.160E-06,0.128
6.170E-06,0.124
6.180E-06,0.116
6.190E-06,0.124
6.200E-06,0.124
6.210E-06,0.128
6.220E-06,0.128
6.230E-06,0.128
6.240E-06,0.124
6.250E-06,0.116
