mediciones/Mediciones filtradas (saque las feas)/5-27/-27.5/WaveData5169.csv

#timebase=2000000(ps)
,#voltbase=1000000(mv/100)
#size=4000
-3.800E-06,0.520
-3.790E-06,0.600
-3.780E-06,0.680
-3.770E-06,0.680
-3.760E-06,0.600
-3.750E-06,0.520
-3.740E-06,0.520
-3.730E-06,0.440
-3.720E-06,0.400
-3.710E-06,0.360
-3.700E-06,0.320
-3.690E-06,0.240
-3.680E-06,0.240
-3.670E-06,0.120
-3.660E-06,0.120
-3.650E-06,0.120
-3.640E-06,0.000
-3.630E-06,0.000
-3.620E-06,-0.080
-3.610E-06,-0.120
-3.600E-06,-0.040
-3.590E-06,-0.120
-3.580E-06,-0.160
-3.570E-06,-0.160
-3.560E-06,-0.240
-3.550E-06,-0.360
-3.540E-06,-0.280
-3.530E-06,-0.320
-3.520E-06,-0.360
-3.510E-06,-0.320
-3.500E-06,-0.320
-3.490E-06,-0.360
-3.480E-06,-0.360
-3.470E-06,-0.360
-3.460E-06,-0.240
-3.450E-06,-0.240
-3.440E-06,-0.200
-3.430E-06,-0.120
-3.420E-06,0.040
-3.410E-06,0.080
-3.400E-06,0.200
-3.390E-06,0.240
-3.380E-06,0.240
-3.370E-06,0.320
-3.360E-06,0.080
-3.350E-06,0.200
-3.340E-06,0.360
-3.330E-06,0.560
-3.320E-06,0.560
-3.310E-06,0.680
-3.300E-06,0.560
-3.290E-06,0.600
-3.280E-06,0.600
-3.270E-06,0.720
-3.260E-06,0.680
-3.250E-06,0.720
-3.240E-06,0.600
-3.230E-06,0.560
-3.220E-06,0.240
-3.210E-06,0.360
-3.200E-06,0.400
-3.190E-06,0.120
-3.180E-06,0.280
-3.170E-06,-0.040
-3.160E-06,-0.080
-3.150E-06,0.000
-3.140E-06,0.120
-3.130E-06,0.400
-3.120E-06,0.440
-3.110E-06,0.320
-3.100E-06,0.120
-3.090E-06,-0.160
-3.080E-06,-0.040
-3.070E-06,0.040
-3.060E-06,0.240
-3.050E-06,0.360
-3.040E-06,0.240
-3.030E-06,0.000
-3.020E-06,-0.160
-3.010E-06,-0.120
-3.000E-06,-0.080
-2.990E-06,0.040
-2.980E-06,0.120
-2.970E-06,0.080
-2.960E-06,0.000
-2.950E-06,-0.040
-2.940E-06,-0.080
-2.930E-06,-0.080
-2.920E-06,-0.080
-2.910E-06,0.000
-2.900E-06,-0.040
-2.890E-06,-0.120
-2.880E-06,-0.080
-2.870E-06,-0.040
-2.860E-06,0.040
-2.850E-06,0.120
-2.840E-06,0.120
-2.830E-06,0.080
-2.820E-06,0.000
-2.810E-06,-0.040
-2.800E-06,0.000
-2.790E-06,0.120
-2.780E-06,0.160
-2.770E-06,0.160
-2.760E-06,0.200
-2.750E-06,0.080
-2.740E-06,0.000
-2.730E-06,0.080
-2.720E-06,0.080
-2.710E-06,0.120
-2.700E-06,0.160
-2.690E-06,0.120
-2.680E-06,0.040
-2.670E-06,0.000
-2.660E-06,0.000
-2.650E-06,0.040
-2.640E-06,0.040
-2.630E-06,0.000
-2.620E-06,0.040
-2.610E-06,0.000
-2.600E-06,0.000
-2.590E-06,0.000
-2.580E-06,0.040
-2.570E-06,-0.040
-2.560E-06,0.080
-2.550E-06,0.080
-2.540E-06,0.080
-2.530E-06,0.040
-2.520E-06,0.120
-2.510E-06,0.160
-2.500E-06,0.080
-2.490E-06,0.120
-2.480E-06,0.080
-2.470E-06,0.080
-2.460E-06,0.040
-2.450E-06,0.080
-2.440E-06,0.200
-2.430E-06,0.120
-2.420E-06,0.200
-2.410E-06,0.240
-2.400E-06,0.320
-2.390E-06,0.320
-2.380E-06,0.280
-2.370E-06,0.360
-2.360E-06,0.200
-2.350E-06,0.320
-2.340E-06,0.280
-2.330E-06,0.400
-2.320E-06,0.520
-2.310E-06,0.120
-2.300E-06,-0.040
-2.290E-06,-0.360
-2.280E-06,-0.240
-2.270E-06,0.080
-2.260E-06,1.080
-2.250E-06,1.400
-2.240E-06,1.480
-2.230E-06,0.880
-2.220E-06,0.080
-2.210E-06,-0.200
-2.200E-06,-0.040
-2.190E-06,0.560
-2.180E-06,1.000
-2.170E-06,1.040
-2.160E-06,0.760
-2.150E-06,0.200
-2.140E-06,-0.040
-2.130E-06,0.000
-2.120E-06,0.200
-2.110E-06,0.440
-2.100E-06,0.480
-2.090E-06,0.360
-2.080E-06,0.120
-2.070E-06,0.000
-2.060E-06,-0.120
-2.050E-06,-0.080
-2.040E-06,-0.160
-2.030E-06,-0.120
-2.020E-06,-0.280
-2.010E-06,-0.240
-2.000E-06,-0.240
-1.990E-06,-0.240
-1.980E-06,-0.200
-1.970E-06,-0.240
-1.960E-06,-0.200
-1.950E-06,-0.160
-1.940E-06,-0.120
-1.930E-06,0.000
-1.920E-06,-0.040
-1.910E-06,0.080
-1.900E-06,0.000
-1.890E-06,-0.040
-1.880E-06,0.080
-1.870E-06,0.120
-1.860E-06,0.240
-1.850E-06,0.320
-1.840E-06,0.320
-1.830E-06,0.240
-1.820E-06,0.200
-1.810E-06,0.040
-1.800E-06,0.080
-1.790E-06,0.160
-1.780E-06,0.200
-1.770E-06,0.320
-1.760E-06,0.240
-1.750E-06,0.200
-1.740E-06,0.160
-1.730E-06,0.080
-1.720E-06,0.160
-1.710E-06,0.280
-1.700E-06,0.360
-1.690E-06,0.400
-1.680E-06,0.440
-1.670E-06,0.480
-1.660E-06,0.520
-1.650E-06,0.480
-1.640E-06,0.600
-1.630E-06,0.520
-1.620E-06,0.520
-1.610E-06,0.480
-1.600E-06,0.360
-1.590E-06,0.400
-1.580E-06,0.160
-1.570E-06,0.080
-1.560E-06,-0.240
-1.550E-06,-0.280
-1.540E-06,-0.200
-1.530E-06,0.040
-1.520E-06,0.440
-1.510E-06,0.480
-1.500E-06,0.520
-1.490E-06,0.280
-1.480E-06,0.040
-1.470E-06,0.080
-1.460E-06,0.200
-1.450E-06,0.400
-1.440E-06,0.560
-1.430E-06,0.720
-1.420E-06,0.800
-1.410E-06,0.800
-1.400E-06,0.760
-1.390E-06,0.760
-1.380E-06,0.840
-1.370E-06,1.080
-1.360E-06,1.080
-1.350E-06,1.080
-1.340E-06,0.920
-1.330E-06,0.680
-1.320E-06,0.680
-1.310E-06,0.760
-1.300E-06,0.920
-1.290E-06,1.120
-1.280E-06,1.160
-1.270E-06,1.200
-1.260E-06,0.960
-1.250E-06,0.840
-1.240E-06,0.880
-1.230E-06,0.960
-1.220E-06,1.160
-1.210E-06,1.240
-1.200E-06,1.240
-1.190E-06,1.200
-1.180E-06,1.200
-1.170E-06,1.160
-1.160E-06,1.200
-1.150E-06,1.320
-1.140E-06,1.400
-1.130E-06,1.440
-1.120E-06,1.440
-1.110E-06,1.400
-1.100E-06,1.400
-1.090E-06,1.280
-1.080E-06,1.200
-1.070E-06,1.000
-1.060E-06,0.960
-1.050E-06,0.880
-1.040E-06,0.760
-1.030E-06,0.560
-1.020E-06,0.680
-1.010E-06,0.320
-1.000E-06,0.360
-9.900E-07,0.120
-9.800E-07,-0.040
-9.700E-07,0.040
-9.600E-07,-0.160
-9.500E-07,0.360
-9.400E-07,0.160
-9.300E-07,0.200
-9.200E-07,0.320
-9.100E-07,-0.360
-9.000E-07,0.040
-8.900E-07,-0.040
-8.800E-07,0.480
-8.700E-07,0.760
-8.600E-07,1.000
-8.500E-07,0.880
-8.400E-07,0.360
-8.300E-07,-0.200
-8.200E-07,-0.560
-8.100E-07,-0.600
-8.000E-07,-0.280
-7.900E-07,0.480
-7.800E-07,0.720
-7.700E-07,1.000
-7.600E-07,0.600
-7.500E-07,0.240
-7.400E-07,0.160
-7.300E-07,0.240
-7.200E-07,0.560
-7.100E-07,0.880
-7.000E-07,1.040
-6.900E-07,1.000
-6.800E-07,0.920
-6.700E-07,0.840
-6.600E-07,0.760
-6.500E-07,0.800
-6.400E-07,0.840
-6.300E-07,0.840
-6.200E-07,0.760
-6.100E-07,0.560
-6.000E-07,0.400
-5.900E-07,0.200
-5.800E-07,0.120
-5.700E-07,0.120
-5.600E-07,0.120
-5.500E-07,0.080
-5.400E-07,0.080
-5.300E-07,0.040
-5.200E-07,0.000
-5.100E-07,-0.080
-5.000E-07,-0.080
-4.900E-07,-0.080
-4.800E-07,0.000
-4.700E-07,0.000
-4.600E-07,0.040
-4.500E-07,0.000
-4.400E-07,-0.040
-4.300E-07,-0.040
-4.200E-07,-0.200
-4.100E-07,-0.160
-4.000E-07,-0.200
-3.900E-07,-0.200
-3.800E-07,-0.120
-3.700E-07,-0.080
-3.600E-07,-0.080
-3.500E-07,-0.160
-3.400E-07,-0.160
-3.300E-07,-0.200
-3.200E-07,-0.280
-3.100E-07,-0.320
-3.000E-07,-0.240
-2.900E-07,-0.200
-2.800E-07,-0.240
-2.700E-07,-0.120
-2.600E-07,-0.120
-2.500E-07,-0.160
-2.400E-07,-0.240
-2.300E-07,-0.160
-2.200E-07,-0.120
-2.100E-07,-0.080
-2.000E-07,-0.080
-1.900E-07,0.000
-1.800E-07,0.000
-1.700E-07,0.000
-1.600E-07,0.000
-1.500E-07,-0.040
-1.400E-07,0.000
-1.300E-07,-0.040
-1.200E-07,0.040
-1.100E-07,0.080
-1.000E-07,0.080
-9.000E-08,0.240
-8.000E-08,0.200
-7.000E-08,0.040
-6.000E-08,-0.160
-5.000E-08,-0.440
-4.000E-08,-0.360
-3.000E-08,-0.480
-2.000E-08,-0.960
-1.000E-08,-1.600
0.000E+00,-2.120
1.000E-08,-2.200
2.000E-08,-0.720
3.000E-08,0.680
4.000E-08,1.840
5.000E-08,1.800
6.000E-08,0.600
7.000E-08,-0.760
8.000E-08,-1.320
9.000E-08,-0.560
1.000E-07,0.480
1.100E-07,1.120
1.200E-07,1.280
1.300E-07,0.800
1.400E-07,0.240
1.500E-07,0.440
1.600E-07,0.480
1.700E-07,1.000
1.800E-07,1.120
1.900E-07,1.120
2.000E-07,1.040
2.100E-07,0.880
2.200E-07,0.880
2.300E-07,0.920
2.400E-07,0.720
2.500E-07,0.640
2.600E-07,0.480
2.700E-07,0.480
2.800E-07,0.560
2.900E-07,0.560
3.000E-07,0.560
3.100E-07,0.400
3.200E-07,0.320
3.300E-07,0.200
3.400E-07,0.160
3.500E-07,0.360
3.600E-07,0.440
3.700E-07,0.600
3.800E-07,0.800
3.900E-07,0.800
4.000E-07,0.880
4.100E-07,0.880
4.200E-07,0.840
4.300E-07,1.000
4.400E-07,1.080
4.500E-07,1.080
4.600E-07,0.880
4.700E-07,0.560
4.800E-07,0.400
4.900E-07,0.280
5.000E-07,0.160
5.100E-07,0.200
5.200E-07,0.240
5.300E-07,0.160
5.400E-07,0.200
5.500E-07,0.200
5.600E-07,0.200
5.700E-07,0.160
5.800E-07,0.120
5.900E-07,0.160
6.000E-07,0.240
6.100E-07,0.360
6.200E-07,0.520
6.300E-07,0.600
6.400E-07,0.600
6.500E-07,0.560
6.600E-07,0.400
6.700E-07,0.320
6.800E-07,0.320
6.900E-07,0.360
7.000E-07,0.320
7.100E-07,0.360
7.200E-07,0.240
7.300E-07,0.160
7.400E-07,-0.040
7.500E-07,-0.080
7.600E-07,-0.200
7.700E-07,-0.120
7.800E-07,-0.200
7.900E-07,-0.200
8.000E-07,-0.400
8.100E-07,-0.480
8.200E-07,-0.680
8.300E-07,-0.520
8.400E-07,-0.240
8.500E-07,-0.080
8.600E-07,0.120
8.700E-07,0.160
8.800E-07,-0.120
8.900E-07,-0.360
9.000E-07,-0.760
9.100E-07,-1.240
9.200E-07,-2.040
9.300E-07,-2.360
9.400E-07,-3.160
9.500E-07,-3.280
9.600E-07,-3.280
9.700E-07,-3.160
9.800E-07,-2.680
9.900E-07,-2.520
1.000E-06,-1.880
1.010E-06,-1.320
1.020E-06,-0.520
1.030E-06,0.480
1.040E-06,1.520
1.050E-06,2.400
1.060E-06,3.200
1.070E-06,3.520
1.080E-06,3.920
1.090E-06,4.000
1.100E-06,4.000
1.110E-06,3.960
1.120E-06,3.920
1.130E-06,3.960
1.140E-06,4.040
1.150E-06,4.000
1.160E-06,3.960
1.170E-06,3.520
1.180E-06,3.000
1.190E-06,2.440
1.200E-06,1.760
1.210E-06,1.280
1.220E-06,0.800
1.230E-06,0.480
1.240E-06,0.160
1.250E-06,-0.320
1.260E-06,-0.720
1.270E-06,-1.160
1.280E-06,-1.520
1.290E-06,-1.760
1.300E-06,-1.760
1.310E-06,-1.760
1.320E-06,-1.760
1.330E-06,-1.760
1.340E-06,-1.760
1.350E-06,-1.680
1.360E-06,-1.680
1.370E-06,-1.520
1.380E-06,-1.400
1.390E-06,-1.280
1.400E-06,-1.160
1.410E-06,-1.240
1.420E-06,-1.360
1.430E-06,-1.400
1.440E-06,-1.600
1.450E-06,-1.720
1.460E-06,-1.880
1.470E-06,-2.080
1.480E-06,-2.200
1.490E-06,-2.240
1.500E-06,-2.360
1.510E-06,-2.440
1.520E-06,-2.480
1.530E-06,-2.480
1.540E-06,-2.360
1.550E-06,-2.280
1.560E-06,-2.200
1.570E-06,-1.960
1.580E-06,-1.760
1.590E-06,-1.560
1.600E-06,-1.280
1.610E-06,-1.040
1.620E-06,-0.920
1.630E-06,-0.720
1.640E-06,-0.640
1.650E-06,-0.560
1.660E-06,-0.520
1.670E-06,-0.520
1.680E-06,-0.560
1.690E-06,-0.680
1.700E-06,-0.840
1.710E-06,-1.000
1.720E-06,-1.280
1.730E-06,-1.520
1.740E-06,-1.680
1.750E-06,-1.840
1.760E-06,-1.920
1.770E-06,-2.120
1.780E-06,-2.160
1.790E-06,-2.320
1.800E-06,-2.320
1.810E-06,-2.320
1.820E-06,-2.200
1.830E-06,-2.200
1.840E-06,-2.160
1.850E-06,-2.160
1.860E-06,-2.200
1.870E-06,-2.160
1.880E-06,-2.240
1.890E-06,-2.200
1.900E-06,-2.200
1.910E-06,-2.280
1.920E-06,-2.320
1.930E-06,-2.480
1.940E-06,-2.600
1.950E-06,-2.720
1.960E-06,-2.960
1.970E-06,-3.200
1.980E-06,-3.400
1.990E-06,-3.680
2.000E-06,-4.040
2.010E-06,-4.440
2.020E-06,-4.720
2.030E-06,-5.080
2.040E-06,-5.200
2.050E-06,-5.240
2.060E-06,-5.240
2.070E-06,-5.200
2.080E-06,-5.200
2.090E-06,-5.240
2.100E-06,-5.200
2.110E-06,-5.200
2.120E-06,-5.240
2.130E-06,-5.240
2.140E-06,-5.240
2.150E-06,-5.240
2.160E-06,-5.200
2.170E-06,-5.240
2.180E-06,-5.240
2.190E-06,-5.200
2.200E-06,-5.200
2.210E-06,-5.240
2.220E-06,-5.240
2.230E-06,-5.240
2.240E-06,-5.240
2.250E-06,-5.200
2.260E-06,-5.200
2.270E-06,-5.240
2.280E-06,-5.240
2.290E-06,-5.240
2.300E-06,-5.160
2.310E-06,-5.120
2.320E-06,-5.000
2.330E-06,-4.920
2.340E-06,-4.880
2.350E-06,-4.800
2.360E-06,-4.720
2.370E-06,-4.720
2.380E-06,-4.600
2.390E-06,-4.520
2.400E-06,-4.480
2.410E-06,-4.400
2.420E-06,-4.360
2.430E-06,-4.360
2.440E-06,-4.280
2.450E-06,-4.240
2.460E-06,-4.160
2.470E-06,-4.040
2.480E-06,-4.040
2.490E-06,-3.960
2.500E-06,-3.840
2.510E-06,-3.800
2.520E-06,-3.680
2.530E-06,-3.560
2.540E-06,-3.560
2.550E-06,-3.520
2.560E-06,-3.440
2.570E-06,-3.440
2.580E-06,-3.360
2.590E-06,-3.360
2.600E-06,-3.360
2.610E-06,-3.280
2.620E-06,-3.280
2.630E-06,-3.240
2.640E-06,-3.280
2.650E-06,-3.240
2.660E-06,-3.240
2.670E-06,-3.160
2.680E-06,-3.160
2.690E-06,-3.200
2.700E-06,-3.160
2.710E-06,-3.200
2.720E-06,-3.120
2.730E-06,-3.160
2.740E-06,-3.120
2.750E-06,-3.080
2.760E-06,-3.080
2.770E-06,-3.120
2.780E-06,-3.040
2.790E-06,-3.040
2.800E-06,-3.040
2.810E-06,-3.040
2.820E-06,-3.000
2.830E-06,-3.000
2.840E-06,-2.960
2.850E-06,-2.920
2.860E-06,-2.800
2.870E-06,-2.720
2.880E-06,-2.680
2.890E-06,-2.640
2.900E-06,-2.520
2.910E-06,-2.400
2.920E-06,-2.320
2.930E-06,-2.240
2.940E-06,-2.160
2.950E-06,-2.080
2.960E-06,-2.040
2.970E-06,-1.920
2.980E-06,-1.880
2.990E-06,-1.760
3.000E-06,-1.680
3.010E-06,-1.560
3.020E-06,-1.440
3.030E-06,-1.320
3.040E-06,-1.200
3.050E-06,-1.120
3.060E-06,-1.000
3.070E-06,-1.000
3.080E-06,-1.040
3.090E-06,-1.080
3.100E-06,-1.120
3.110E-06,-1.240
3.120E-06,-1.360
3.130E-06,-1.440
3.140E-06,-1.680
3.150E-06,-1.880
3.160E-06,-1.960
3.170E-06,-2.160
3.180E-06,-2.360
3.190E-06,-2.440
3.200E-06,-2.600
3.210E-06,-2.640
3.220E-06,-2.760
3.230E-06,-2.840
3.240E-06,-2.800
3.250E-06,-2.720
3.260E-06,-2.640
3.270E-06,-2.520
3.280E-06,-2.360
3.290E-06,-2.240
3.300E-06,-2.160
3.310E-06,-2.040
3.320E-06,-1.960
3.330E-06,-1.880
3.340E-06,-1.760
3.350E-06,-1.400
3.360E-06,-1.120
3.370E-06,-0.720
3.380E-06,-0.400
3.390E-06,-0.240
3.400E-06,-0.320
3.410E-06,-0.680
3.420E-06,-1.120
3.430E-06,-1.640
3.440E-06,-2.080
3.450E-06,-2.440
3.460E-06,-2.680
3.470E-06,-2.640
3.480E-06,-2.600
3.490E-06,-2.440
3.500E-06,-2.240
3.510E-06,-2.160
3.520E-06,-2.000
3.530E-06,-2.000
3.540E-06,-1.920
3.550E-06,-1.880
3.560E-06,-1.840
3.570E-06,-1.880
3.580E-06,-1.840
3.590E-06,-1.880
3.600E-06,-1.880
3.610E-06,-1.800
3.620E-06,-1.560
3.630E-06,-1.320
3.640E-06,-1.120
3.650E-06,-0.800
3.660E-06,-0.560
3.670E-06,-0.440
3.680E-06,-0.280
3.690E-06,-0.160
3.700E-06,-0.160
3.710E-06,-0.120
3.720E-06,-0.080
3.730E-06,0.040
3.740E-06,0.160
3.750E-06,0.200
3.760E-06,0.240
3.770E-06,0.280
3.780E-06,0.320
3.790E-06,0.360
3.800E-06,0.400
3.810E-06,0.400
3.820E-06,0.240
3.830E-06,0.040
3.840E-06,-0.160
3.850E-06,-0.400
3.860E-06,-0.640
3.870E-06,-0.920
3.880E-06,-1.160
3.890E-06,-1.400
3.900E-06,-1.600
3.910E-06,-1.680
3.920E-06,-1.760
3.930E-06,-1.800
3.940E-06,-1.800
3.950E-06,-1.840
3.960E-06,-1.840
3.970E-06,-1.880
3.980E-06,-1.960
3.990E-06,-1.880
4.000E-06,-1.920
4.010E-06,-1.880
4.020E-06,-1.840
4.030E-06,-1.800
4.040E-06,-1.760
4.050E-06,-1.680
4.060E-06,-1.680
4.070E-06,-1.600
4.080E-06,-1.520
4.090E-06,-1.360
4.100E-06,-1.280
4.110E-06,-1.200
4.120E-06,-1.160
4.130E-06,-1.080
4.140E-06,-0.920
4.150E-06,-0.840
4.160E-06,-0.760
4.170E-06,-0.680
4.180E-06,-0.680
4.190E-06,-0.600
4.200E-06,-0.640
4.210E-06,-0.720
4.220E-06,-0.760
4.230E-06,-0.920
4.240E-06,-1.120
4.250E-06,-1.280
4.260E-06,-1.400
4.270E-06,-1.520
4.280E-06,-1.600
4.290E-06,-1.600
4.300E-06,-1.520
4.310E-06,-1.480
4.320E-06,-1.400
4.330E-06,-1.320
4.340E-06,-1.200
4.350E-06,-1.080
4.360E-06,-1.000
4.370E-06,-0.960
4.380E-06,-0.880
4.390E-06,-0.880
4.400E-06,-0.920
4.410E-06,-0.840
4.420E-06,-0.840
4.430E-06,-0.800
4.440E-06,-0.680
4.450E-06,-0.640
4.460E-06,-0.520
4.470E-06,-0.520
4.480E-06,-0.520
4.490E-06,-0.520
4.500E-06,-0.480
4.510E-06,-0.520
4.520E-06,-0.480
4.530E-06,-0.480
4.540E-06,-0.520
4.550E-06,-0.560
4.560E-06,-0.640
4.570E-06,-0.640
4.580E-06,-0.640
4.590E-06,-0.680
4.600E-06,-0.720
4.610E-06,-0.720
4.620E-06,-0.840
4.630E-06,-0.920
4.640E-06,-1.040
4.650E-06,-1.040
4.660E-06,-1.000
4.670E-06,-0.920
4.680E-06,-0.800
4.690E-06,-0.760
4.700E-06,-0.680
4.710E-06,-0.560
4.720E-06,-0.520
4.730E-06,-0.560
4.740E-06,-0.560
4.750E-06,-0.560
4.760E-06,-0.680
4.770E-06,-0.680
4.780E-06,-0.640
4.790E-06,-0.640
4.800E-06,-0.680
4.810E-06,-0.680
4.820E-06,-0.640
4.830E-06,-0.560
4.840E-06,-0.520
4.850E-06,-0.480
4.860E-06,-0.440
4.870E-06,-0.440
4.880E-06,-0.360
4.890E-06,-0.320
4.900E-06,-0.360
4.910E-06,-0.320
4.920E-06,-0.320
4.930E-06,-0.400
4.940E-06,-0.400
4.950E-06,-0.440
4.960E-06,-0.520
4.970E-06,-0.520
4.980E-06,-0.480
4.990E-06,-0.480
5.000E-06,-0.440
5.010E-06,-0.320
5.020E-06,-0.240
5.030E-06,-0.040
5.040E-06,0.080
5.050E-06,0.200
5.060E-06,0.280
5.070E-06,0.360
5.080E-06,0.400
5.090E-06,0.400
5.100E-06,0.480
5.110E-06,0.440
5.120E-06,0.440
5.130E-06,0.400
5.140E-06,0.360
5.150E-06,0.320
5.160E-06,0.360
5.170E-06,0.240
5.180E-06,0.240
5.190E-06,0.160
5.200E-06,0.160
5.210E-06,0.200
5.220E-06,0.200
5.230E-06,0.240
5.240E-06,0.200
5.250E-06,0.200
5.260E-06,0.200
5.270E-06,0.080
5.280E-06,0.080
5.290E-06,0.040
5.300E-06,0.000
5.310E-06,-0.040
5.320E-06,-0.120
5.330E-06,-0.120
5.340E-06,-0.240
5.350E-06,-0.320
5.360E-06,-0.440
5.370E-06,-0.520
5.380E-06,-0.480
5.390E-06,-0.520
5.400E-06,-0.520
5.410E-06,-0.440
5.420E-06,-0.400
5.430E-06,-0.320
5.440E-06,-0.240
5.450E-06,-0.120
5.460E-06,-0.040
5.470E-06,0.000
5.480E-06,0.040
5.490E-06,0.160
5.500E-06,0.160
5.510E-06,0.240
5.520E-06,0.320
5.530E-06,0.360
5.540E-06,0.360
5.550E-06,0.360
5.560E-06,0.440
5.570E-06,0.360
5.580E-06,0.360
5.590E-06,0.360
5.600E-06,0.320
5.610E-06,0.280
5.620E-06,0.280
5.630E-06,0.240
5.640E-06,0.320
5.650E-06,0.400
5.660E-06,0.520
5.670E-06,0.560
5.680E-06,0.640
5.690E-06,0.640
5.700E-06,0.640
5.710E-06,0.680
5.720E-06,0.640
5.730E-06,0.520
5.740E-06,0.480
5.750E-06,0.360
5.760E-06,0.160
5.770E-06,0.120
5.780E-06,0.000
5.790E-06,-0.080
5.800E-06,-0.200
5.810E-06,-0.160
5.820E-06,-0.200
5.830E-06,-0.200
5.840E-06,-0.200
5.850E-06,-0.160
5.860E-06,-0.120
5.870E-06,-0.080
5.880E-06,0.000
5.890E-06,0.040
5.900E-06,0.160
5.910E-06,0.160
5.920E-06,0.320
5.930E-06,0.320
5.940E-06,0.360
5.950E-06,0.440
5.960E-06,0.440
5.970E-06,0.440
5.980E-06,0.440
5.990E-06,0.520
6.000E-06,0.520
6.010E-06,0.600
6.020E-06,0.600
6.030E-06,0.520
6.040E-06,0.520
6.050E-06,0.440
6.060E-06,0.320
6.070E-06,0.280
6.080E-06,0.160
6.090E-06,0.120
6.100E-06,0.120
6.110E-06,0.000
6.120E-06,-0.040
6.130E-06,0.040
6.140E-06,0.080
6.150E-06,0.120
6.160E-06,0.160
6.170E-06,0.240
6.180E-06,0.200
6.190E-06,0.120
6.200E-06,0.080
6.210E-06,0.040
6.220E-06,0.000
6.230E-06,-0.120
6.240E-06,-0.160
6.250E-06,-0.240
6.260E-06,-0.280
6.270E-06,-0.320
6.280E-06,-0.320
6.290E-06,-0.320
6.300E-06,-0.240
6.310E-06,-0.240
6.320E-06,-0.240
6.330E-06,-0.240
6.340E-06,-0.200
6.350E-06,-0.160
6.360E-06,-0.160
6.370E-06,-0.120
6.380E-06,-0.080
6.390E-06,0.080
6.400E-06,0.160
6.410E-06,0.200
6.420E-06,0.320
6.430E-06,0.400
6.440E-06,0.520
6.450E-06,0.520
6.460E-06,0.600
6.470E-06,0.640
6.480E-06,0.680
6.490E-06,0.720
6.500E-06,0.800
6.510E-06,0.840
6.520E-06,0.840
6.530E-06,0.920
6.540E-06,0.920
6.550E-06,0.880
6.560E-06,0.920
6.570E-06,0.920
6.580E-06,0.960
6.590E-06,1.000
6.600E-06,1.040
6.610E-06,0.960
6.620E-06,1.000
6.630E-06,1.000
6.640E-06,0.960
6.650E-06,1.000
6.660E-06,0.960
6.670E-06,0.920
6.680E-06,0.880
6.690E-06,0.840
6.700E-06,0.800
6.710E-06,0.720
6.720E-06,0.640
6.730E-06,0.640
6.740E-06,0.600
6.750E-06,0.520
6.760E-06,0.560
6.770E-06,0.520
6.780E-06,0.480
6.790E-06,0.480
6.800E-06,0.520
6.810E-06,0.520
6.820E-06,0.520
6.830E-06,0.600
6.840E-06,0.760
6.850E-06,0.840
6.860E-06,1.000
6.870E-06,0.960
6.880E-06,1.160
6.890E-06,1.280
6.900E-06,1.320
6.910E-06,1.480
6.920E-06,1.600
6.930E-06,1.720
6.940E-06,1.880
6.950E-06,2.000
6.960E-06,2.240
6.970E-06,2.400
6.980E-06,2.720
6.990E-06,2.960
7.000E-06,3.320
7.010E-06,3.680
7.020E-06,4.040
7.030E-06,4.520
7.040E-06,4.920
7.050E-06,5.360
7.060E-06,5.440
7.070E-06,5.440
7.080E-06,5.440
7.090E-06,5.440
7.100E-06,5.440
7.110E-06,5.440
7.120E-06,5.480
7.130E-06,5.400
7.140E-06,5.400
7.150E-06,5.240
7.160E-06,4.960
7.170E-06,4.720
7.180E-06,4.520
7.190E-06,4.280
7.200E-06,4.160
7.210E-06,4.000
7.220E-06,3.840
7.230E-06,3.640
7.240E-06,3.560
7.250E-06,3.440
7.260E-06,3.360
7.270E-06,3.160
7.280E-06,3.080
7.290E-06,3.040
7.300E-06,2.920
7.310E-06,2.880
7.320E-06,2.800
7.330E-06,2.760
7.340E-06,2.720
7.350E-06,2.600
7.360E-06,2.560
7.370E-06,2.480
7.380E-06,2.480
7.390E-06,2.480
7.400E-06,2.480
7.410E-06,2.400
7.420E-06,2.400
7.430E-06,2.320
7.440E-06,2.360
7.450E-06,2.280
7.460E-06,2.240
7.470E-06,2.200
7.480E-06,2.160
7.490E-06,2.080
7.500E-06,2.080
7.510E-06,2.000
7.520E-06,1.960
7.530E-06,1.960
7.540E-06,1.880
7.550E-06,1.880
7.560E-06,1.880
7.570E-06,1.880
7.580E-06,1.880
7.590E-06,1.800
7.600E-06,1.760
7.610E-06,1.800
7.620E-06,1.760
7.630E-06,1.760
7.640E-06,1.720
7.650E-06,1.680
7.660E-06,1.600
7.670E-06,1.520
7.680E-06,1.480
7.690E-06,1.480
7.700E-06,1.400
7.710E-06,1.320
7.720E-06,1.360
7.730E-06,1.240
7.740E-06,1.200
7.750E-06,1.200
7.760E-06,1.120
7.770E-06,1.120
7.780E-06,1.080
7.790E-06,1.000
7.800E-06,1.040
7.810E-06,1.000
7.820E-06,1.080
7.830E-06,1.080
7.840E-06,1.080
7.850E-06,1.080
7.860E-06,1.120
7.870E-06,1.080
7.880E-06,1.040
7.890E-06,1.080
7.900E-06,1.000
7.910E-06,1.040
7.920E-06,0.960
7.930E-06,1.000
7.940E-06,1.000
7.950E-06,0.960
7.960E-06,0.920
7.970E-06,0.880
7.980E-06,0.840
7.990E-06,0.800
8.000E-06,0.760
8.010E-06,0.760
8.020E-06,0.760
8.030E-06,0.680
8.040E-06,0.720
8.050E-06,0.680
8.060E-06,0.680
8.070E-06,0.640
