mediciones/5-27/-25/WaveData5034.csv

#timebase=2000000(ps)
,#voltbase=100000(mv/100)
#size=4000
-8.400E-06,0.008
-8.390E-06,-0.008
-8.380E-06,0.004
-8.370E-06,0.000
-8.360E-06,0.008
-8.350E-06,0.024
-8.340E-06,0.024
-8.330E-06,0.016
-8.320E-06,-0.004
-8.310E-06,-0.024
-8.300E-06,-0.036
-8.290E-06,-0.016
-8.280E-06,0.012
-8.270E-06,0.040
-8.260E-06,0.032
-8.250E-06,0.008
-8.240E-06,-0.016
-8.230E-06,-0.024
-8.220E-06,-0.012
-8.210E-06,0.008
-8.200E-06,0.024
-8.190E-06,0.016
-8.180E-06,0.004
-8.170E-06,-0.004
-8.160E-06,-0.008
-8.150E-06,-0.004
-8.140E-06,0.004
-8.130E-06,0.016
-8.120E-06,0.012
-8.110E-06,0.004
-8.100E-06,-0.004
-8.090E-06,-0.008
-8.080E-06,0.000
-8.070E-06,0.008
-8.060E-06,0.008
-8.050E-06,0.008
-8.040E-06,0.004
-8.030E-06,0.000
-8.020E-06,0.000
-8.010E-06,0.004
-8.000E-06,0.008
-7.990E-06,0.012
-7.980E-06,0.000
-7.970E-06,-0.004
-7.960E-06,0.000
-7.950E-06,0.004
-7.940E-06,0.008
-7.930E-06,0.008
-7.920E-06,0.000
-7.910E-06,0.000
-7.900E-06,0.000
-7.890E-06,0.000
-7.880E-06,0.004
-7.870E-06,0.008
-7.860E-06,0.008
-7.850E-06,0.008
-7.840E-06,0.004
-7.830E-06,0.000
-7.820E-06,0.004
-7.810E-06,0.000
-7.800E-06,0.008
-7.790E-06,0.012
-7.780E-06,0.016
-7.770E-06,0.012
-7.760E-06,0.024
-7.750E-06,0.016
-7.740E-06,0.028
-7.730E-06,0.000
-7.720E-06,-0.036
-7.710E-06,-0.032
-7.700E-06,-0.036
-7.690E-06,-0.020
-7.680E-06,-0.004
-7.670E-06,0.008
-7.660E-06,0.028
-7.650E-06,0.040
-7.640E-06,0.040
-7.630E-06,0.024
-7.620E-06,-0.020
-7.610E-06,-0.036
-7.600E-06,-0.068
-7.590E-06,-0.040
-7.580E-06,0.000
-7.570E-06,0.036
-7.560E-06,0.048
-7.550E-06,0.020
-7.540E-06,-0.008
-7.530E-06,-0.032
-7.520E-06,-0.028
-7.510E-06,0.000
-7.500E-06,0.020
-7.490E-06,0.020
-7.480E-06,0.008
-7.470E-06,-0.004
-7.460E-06,-0.008
-7.450E-06,-0.008
-7.440E-06,0.004
-7.430E-06,0.016
-7.420E-06,0.016
-7.410E-06,0.004
-7.400E-06,-0.004
-7.390E-06,-0.008
-7.380E-06,-0.004
-7.370E-06,0.008
-7.360E-06,0.008
-7.350E-06,0.008
-7.340E-06,0.004
-7.330E-06,0.000
-7.320E-06,-0.004
-7.310E-06,0.000
-7.300E-06,0.012
-7.290E-06,0.008
-7.280E-06,0.012
-7.270E-06,0.000
-7.260E-06,0.004
-7.250E-06,0.000
-7.240E-06,0.004
-7.230E-06,0.004
-7.220E-06,0.004
-7.210E-06,-0.004
-7.200E-06,0.000
-7.190E-06,0.004
-7.180E-06,0.008
-7.170E-06,0.016
-7.160E-06,0.016
-7.150E-06,0.012
-7.140E-06,-0.004
-7.130E-06,-0.004
-7.120E-06,0.004
-7.110E-06,0.004
-7.100E-06,0.012
-7.090E-06,0.012
-7.080E-06,0.012
-7.070E-06,0.012
-7.060E-06,0.012
-7.050E-06,0.012
-7.040E-06,0.024
-7.030E-06,0.032
-7.020E-06,0.024
-7.010E-06,0.024
-7.000E-06,0.036
-6.990E-06,0.044
-6.980E-06,0.052
-6.970E-06,0.044
-6.960E-06,0.016
-6.950E-06,-0.004
-6.940E-06,-0.020
-6.930E-06,-0.016
-6.920E-06,-0.064
-6.910E-06,-0.100
-6.900E-06,-0.104
-6.890E-06,-0.056
-6.880E-06,0.012
-6.870E-06,0.064
-6.860E-06,0.080
-6.850E-06,0.056
-6.840E-06,0.012
-6.830E-06,-0.028
-6.820E-06,-0.008
-6.810E-06,-0.032
-6.800E-06,-0.068
-6.790E-06,-0.048
-6.780E-06,-0.040
-6.770E-06,0.032
-6.760E-06,0.040
-6.750E-06,0.044
-6.740E-06,0.032
-6.730E-06,0.000
-6.720E-06,-0.024
-6.710E-06,-0.036
-6.700E-06,-0.024
-6.690E-06,0.024
-6.680E-06,0.036
-6.670E-06,0.016
-6.660E-06,0.000
-6.650E-06,-0.008
-6.640E-06,-0.012
-6.630E-06,-0.004
-6.620E-06,0.012
-6.610E-06,0.016
-6.600E-06,0.012
-6.590E-06,0.000
-6.580E-06,-0.008
-6.570E-06,-0.008
-6.560E-06,0.000
-6.550E-06,0.016
-6.540E-06,0.008
-6.530E-06,0.008
-6.520E-06,0.004
-6.510E-06,-0.004
-6.500E-06,-0.004
-6.490E-06,0.004
-6.480E-06,0.000
-6.470E-06,0.008
-6.460E-06,0.012
-6.450E-06,0.000
-6.440E-06,0.000
-6.430E-06,0.000
-6.420E-06,0.004
-6.410E-06,0.004
-6.400E-06,0.004
-6.390E-06,0.008
-6.380E-06,0.012
-6.370E-06,0.008
-6.360E-06,0.012
-6.350E-06,0.004
-6.340E-06,0.004
-6.330E-06,0.008
-6.320E-06,0.008
-6.310E-06,0.012
-6.300E-06,0.020
-6.290E-06,0.028
-6.280E-06,0.032
-6.270E-06,0.036
-6.260E-06,0.036
-6.250E-06,0.040
-6.240E-06,0.044
-6.230E-06,0.008
-6.220E-06,-0.116
-6.210E-06,-0.104
-6.200E-06,-0.100
-6.190E-06,0.012
-6.180E-06,0.088
-6.170E-06,0.088
-6.160E-06,0.064
-6.150E-06,0.024
-6.140E-06,-0.028
-6.130E-06,-0.048
-6.120E-06,-0.028
-6.110E-06,0.000
-6.100E-06,0.020
-6.090E-06,-0.064
-6.080E-06,-0.068
-6.070E-06,-0.068
-6.060E-06,0.024
-6.050E-06,0.076
-6.040E-06,0.088
-6.030E-06,0.040
-6.020E-06,-0.008
-6.010E-06,-0.056
-6.000E-06,-0.052
-5.990E-06,-0.036
-5.980E-06,0.020
-5.970E-06,0.052
-5.960E-06,0.032
-5.950E-06,0.016
-5.940E-06,-0.008
-5.930E-06,-0.012
-5.920E-06,-0.008
-5.910E-06,0.008
-5.900E-06,0.008
-5.890E-06,0.020
-5.880E-06,0.012
-5.870E-06,0.008
-5.860E-06,-0.004
-5.850E-06,0.000
-5.840E-06,0.004
-5.830E-06,0.008
-5.820E-06,0.020
-5.810E-06,0.012
-5.800E-06,0.012
-5.790E-06,0.024
-5.780E-06,0.024
-5.770E-06,0.040
-5.760E-06,0.032
-5.750E-06,0.048
-5.740E-06,0.008
-5.730E-06,-0.004
-5.720E-06,-0.024
-5.710E-06,-0.028
-5.700E-06,-0.016
-5.690E-06,0.004
-5.680E-06,0.008
-5.670E-06,-0.004
-5.660E-06,-0.028
-5.650E-06,-0.024
-5.640E-06,-0.028
-5.630E-06,-0.008
-5.620E-06,0.000
-5.610E-06,0.008
-5.600E-06,0.000
-5.590E-06,0.000
-5.580E-06,-0.008
-5.570E-06,-0.012
-5.560E-06,-0.004
-5.550E-06,0.008
-5.540E-06,0.008
-5.530E-06,0.000
-5.520E-06,-0.008
-5.510E-06,-0.004
-5.500E-06,0.004
-5.490E-06,0.012
-5.480E-06,0.020
-5.470E-06,0.016
-5.460E-06,0.012
-5.450E-06,0.004
-5.440E-06,0.004
-5.430E-06,0.016
-5.420E-06,0.016
-5.410E-06,0.028
-5.400E-06,0.040
-5.390E-06,0.044
-5.380E-06,0.032
-5.370E-06,0.008
-5.360E-06,-0.028
-5.350E-06,-0.040
-5.340E-06,-0.028
-5.330E-06,0.012
-5.320E-06,0.004
-5.310E-06,-0.044
-5.300E-06,-0.056
-5.290E-06,-0.068
-5.280E-06,-0.004
-5.270E-06,0.068
-5.260E-06,0.048
-5.250E-06,0.024
-5.240E-06,0.008
-5.230E-06,-0.044
-5.220E-06,-0.056
-5.210E-06,-0.032
-5.200E-06,0.032
-5.190E-06,0.068
-5.180E-06,0.040
-5.170E-06,-0.008
-5.160E-06,-0.044
-5.150E-06,-0.056
-5.140E-06,-0.016
-5.130E-06,0.024
-5.120E-06,0.048
-5.110E-06,0.040
-5.100E-06,0.000
-5.090E-06,-0.016
-5.080E-06,-0.028
-5.070E-06,-0.004
-5.060E-06,0.028
-5.050E-06,0.048
-5.040E-06,0.024
-5.030E-06,0.000
-5.020E-06,-0.020
-5.010E-06,-0.024
-5.000E-06,-0.008
-4.990E-06,0.000
-4.980E-06,0.020
-4.970E-06,0.008
-4.960E-06,-0.028
-4.950E-06,-0.020
-4.940E-06,-0.028
-4.930E-06,0.020
-4.920E-06,0.012
-4.910E-06,0.016
-4.900E-06,0.020
-4.890E-06,0.004
-4.880E-06,0.000
-4.870E-06,-0.004
-4.860E-06,-0.012
-4.850E-06,-0.008
-4.840E-06,-0.008
-4.830E-06,-0.008
-4.820E-06,-0.004
-4.810E-06,-0.004
-4.800E-06,0.012
-4.790E-06,0.008
-4.780E-06,0.012
-4.770E-06,0.000
-4.760E-06,-0.004
-4.750E-06,-0.012
-4.740E-06,-0.008
-4.730E-06,0.000
-4.720E-06,0.020
-4.710E-06,0.024
-4.700E-06,0.012
-4.690E-06,0.008
-4.680E-06,-0.012
-4.670E-06,-0.012
-4.660E-06,0.000
-4.650E-06,0.004
-4.640E-06,0.008
-4.630E-06,0.012
-4.620E-06,0.004
-4.610E-06,0.004
-4.600E-06,0.000
-4.590E-06,0.000
-4.580E-06,0.004
-4.570E-06,0.000
-4.560E-06,0.008
-4.550E-06,0.008
-4.540E-06,0.012
-4.530E-06,0.012
-4.520E-06,0.004
-4.510E-06,0.004
-4.500E-06,0.000
-4.490E-06,-0.004
-4.480E-06,-0.004
-4.470E-06,-0.004
-4.460E-06,0.000
-4.450E-06,0.008
-4.440E-06,0.004
-4.430E-06,0.008
-4.420E-06,-0.004
-4.410E-06,0.000
-4.400E-06,0.000
-4.390E-06,-0.004
-4.380E-06,0.008
-4.370E-06,0.008
-4.360E-06,0.008
-4.350E-06,0.008
-4.340E-06,0.008
-4.330E-06,0.004
-4.320E-06,0.004
-4.310E-06,0.008
-4.300E-06,0.004
-4.290E-06,0.004
-4.280E-06,0.008
-4.270E-06,0.008
-4.260E-06,0.004
-4.250E-06,0.000
-4.240E-06,0.004
-4.230E-06,0.008
-4.220E-06,0.008
-4.210E-06,0.008
-4.200E-06,0.008
-4.190E-06,0.008
-4.180E-06,0.008
-4.170E-06,0.004
-4.160E-06,0.008
-4.150E-06,0.004
-4.140E-06,0.000
-4.130E-06,0.004
-4.120E-06,0.008
-4.110E-06,0.020
-4.100E-06,0.024
-4.090E-06,0.028
-4.080E-06,0.012
-4.070E-06,0.004
-4.060E-06,0.008
-4.050E-06,0.012
-4.040E-06,0.016
-4.030E-06,0.020
-4.020E-06,0.028
-4.010E-06,0.032
-4.000E-06,0.044
-3.990E-06,0.048
-3.980E-06,0.044
-3.970E-06,0.024
-3.960E-06,-0.004
-3.950E-06,-0.040
-3.940E-06,-0.056
-3.930E-06,-0.044
-3.920E-06,-0.012
-3.910E-06,0.028
-3.900E-06,0.040
-3.890E-06,0.040
-3.880E-06,0.024
-3.870E-06,-0.004
-3.860E-06,-0.008
-3.850E-06,-0.004
-3.840E-06,0.016
-3.830E-06,0.020
-3.820E-06,0.000
-3.810E-06,-0.008
-3.800E-06,-0.020
-3.790E-06,-0.012
-3.780E-06,-0.004
-3.770E-06,-0.004
-3.760E-06,0.000
-3.750E-06,-0.004
-3.740E-06,-0.004
-3.730E-06,-0.008
-3.720E-06,-0.008
-3.710E-06,0.012
-3.700E-06,0.012
-3.690E-06,0.008
-3.680E-06,0.008
-3.670E-06,0.012
-3.660E-06,0.004
-3.650E-06,0.004
-3.640E-06,0.004
-3.630E-06,0.008
-3.620E-06,0.004
-3.610E-06,0.008
-3.600E-06,0.020
-3.590E-06,0.028
-3.580E-06,0.036
-3.570E-06,0.044
-3.560E-06,0.044
-3.550E-06,0.048
-3.540E-06,0.040
-3.530E-06,0.032
-3.520E-06,0.004
-3.510E-06,-0.020
-3.500E-06,-0.044
-3.490E-06,-0.044
-3.480E-06,-0.024
-3.470E-06,0.024
-3.460E-06,0.056
-3.450E-06,0.024
-3.440E-06,-0.016
-3.430E-06,-0.036
-3.420E-06,-0.028
-3.410E-06,0.008
-3.400E-06,0.004
-3.390E-06,0.008
-3.380E-06,-0.056
-3.370E-06,-0.068
-3.360E-06,-0.120
-3.350E-06,-0.028
-3.340E-06,0.068
-3.330E-06,0.108
-3.320E-06,0.088
-3.310E-06,0.024
-3.300E-06,-0.032
-3.290E-06,-0.064
-3.280E-06,-0.036
-3.270E-06,-0.004
-3.260E-06,0.020
-3.250E-06,0.000
-3.240E-06,0.012
-3.230E-06,0.008
-3.220E-06,0.020
-3.210E-06,0.036
-3.200E-06,0.056
-3.190E-06,0.016
-3.180E-06,-0.028
-3.170E-06,-0.068
-3.160E-06,-0.052
-3.150E-06,-0.008
-3.140E-06,0.032
-3.130E-06,0.056
-3.120E-06,0.056
-3.110E-06,0.040
-3.100E-06,0.008
-3.090E-06,-0.008
-3.080E-06,-0.036
-3.070E-06,-0.036
-3.060E-06,-0.036
-3.050E-06,-0.008
-3.040E-06,0.016
-3.030E-06,0.028
-3.020E-06,0.032
-3.010E-06,0.024
-3.000E-06,-0.004
-2.990E-06,-0.020
-2.980E-06,-0.032
-2.970E-06,-0.024
-2.960E-06,0.000
-2.950E-06,0.028
-2.940E-06,0.024
-2.930E-06,0.008
-2.920E-06,0.000
-2.910E-06,-0.016
-2.900E-06,-0.012
-2.890E-06,-0.008
-2.880E-06,0.012
-2.870E-06,0.032
-2.860E-06,0.032
-2.850E-06,0.036
-2.840E-06,0.028
-2.830E-06,0.020
-2.820E-06,-0.004
-2.810E-06,-0.012
-2.800E-06,-0.008
-2.790E-06,0.000
-2.780E-06,0.012
-2.770E-06,0.020
-2.760E-06,0.024
-2.750E-06,0.020
-2.740E-06,0.000
-2.730E-06,-0.012
-2.720E-06,-0.020
-2.710E-06,-0.012
-2.700E-06,0.004
-2.690E-06,0.020
-2.680E-06,0.024
-2.670E-06,0.032
-2.660E-06,0.028
-2.650E-06,0.024
-2.640E-06,0.012
-2.630E-06,0.012
-2.620E-06,0.012
-2.610E-06,0.020
-2.600E-06,0.028
-2.590E-06,0.036
-2.580E-06,0.044
-2.570E-06,0.040
-2.560E-06,0.028
-2.550E-06,0.024
-2.540E-06,0.020
-2.530E-06,0.028
-2.520E-06,0.036
-2.510E-06,0.032
-2.500E-06,0.028
-2.490E-06,0.032
-2.480E-06,0.016
-2.470E-06,0.036
-2.460E-06,0.028
-2.450E-06,0.056
-2.440E-06,-0.072
-2.430E-06,-0.108
-2.420E-06,-0.096
-2.410E-06,-0.020
-2.400E-06,0.064
-2.390E-06,0.072
-2.380E-06,-0.044
-2.370E-06,-0.068
-2.360E-06,-0.100
-2.350E-06,-0.092
-2.340E-06,-0.008
-2.330E-06,-0.048
-2.320E-06,-0.076
-2.310E-06,-0.104
-2.300E-06,-0.084
-2.290E-06,0.000
-2.280E-06,0.024
-2.270E-06,0.068
-2.260E-06,0.060
-2.250E-06,-0.024
-2.240E-06,-0.064
-2.230E-06,-0.040
-2.220E-06,-0.008
-2.210E-06,0.036
-2.200E-06,0.036
-2.190E-06,-0.012
-2.180E-06,-0.016
-2.170E-06,-0.012
-2.160E-06,0.000
-2.150E-06,0.020
-2.140E-06,0.036
-2.130E-06,0.012
-2.120E-06,-0.008
-2.110E-06,-0.024
-2.100E-06,-0.016
-2.090E-06,0.004
-2.080E-06,0.028
-2.070E-06,0.028
-2.060E-06,0.024
-2.050E-06,0.012
-2.040E-06,-0.004
-2.030E-06,0.004
-2.020E-06,0.012
-2.010E-06,0.036
-2.000E-06,0.048
-1.990E-06,0.052
-1.980E-06,0.036
-1.970E-06,0.028
-1.960E-06,0.024
-1.950E-06,0.000
-1.940E-06,-0.032
-1.930E-06,-0.076
-1.920E-06,-0.076
-1.910E-06,-0.020
-1.900E-06,0.008
-1.890E-06,0.004
-1.880E-06,-0.008
-1.870E-06,-0.012
-1.860E-06,-0.036
-1.850E-06,-0.016
-1.840E-06,0.000
-1.830E-06,0.028
-1.820E-06,0.040
-1.810E-06,0.028
-1.800E-06,0.000
-1.790E-06,0.008
-1.780E-06,0.012
-1.770E-06,0.012
-1.760E-06,0.004
-1.750E-06,-0.056
-1.740E-06,-0.072
-1.730E-06,-0.052
-1.720E-06,-0.008
-1.710E-06,0.032
-1.700E-06,0.052
-1.690E-06,0.052
-1.680E-06,0.016
-1.670E-06,-0.012
-1.660E-06,-0.028
-1.650E-06,-0.020
-1.640E-06,-0.004
-1.630E-06,0.024
-1.620E-06,0.028
-1.610E-06,0.024
-1.600E-06,0.020
-1.590E-06,0.008
-1.580E-06,0.008
-1.570E-06,0.024
-1.560E-06,0.036
-1.550E-06,0.028
-1.540E-06,0.032
-1.530E-06,0.008
-1.520E-06,-0.072
-1.510E-06,-0.108
-1.500E-06,-0.072
-1.490E-06,-0.004
-1.480E-06,0.024
-1.470E-06,0.056
-1.460E-06,0.044
-1.450E-06,-0.004
-1.440E-06,-0.028
-1.430E-06,-0.036
-1.420E-06,-0.016
-1.410E-06,0.012
-1.400E-06,0.024
-1.390E-06,0.012
-1.380E-06,-0.004
-1.370E-06,-0.016
-1.360E-06,-0.012
-1.350E-06,0.020
-1.340E-06,0.028
-1.330E-06,0.040
-1.320E-06,0.048
-1.310E-06,0.044
-1.300E-06,0.020
-1.290E-06,-0.028
-1.280E-06,-0.068
-1.270E-06,-0.056
-1.260E-06,-0.020
-1.250E-06,0.016
-1.240E-06,0.032
-1.230E-06,0.048
-1.220E-06,0.008
-1.210E-06,-0.016
-1.200E-06,-0.012
-1.190E-06,-0.004
-1.180E-06,0.016
-1.170E-06,0.016
-1.160E-06,-0.008
-1.150E-06,-0.032
-1.140E-06,-0.028
-1.130E-06,-0.004
-1.120E-06,0.020
-1.110E-06,0.044
-1.100E-06,0.036
-1.090E-06,0.028
-1.080E-06,0.008
-1.070E-06,0.004
-1.060E-06,0.028
-1.050E-06,0.052
-1.040E-06,0.064
-1.030E-06,0.088
-1.020E-06,0.060
-1.010E-06,0.024
-1.000E-06,-0.032
-9.900E-07,-0.076
-9.800E-07,-0.060
-9.700E-07,-0.020
-9.600E-07,0.000
-9.500E-07,0.040
-9.400E-07,0.052
-9.300E-07,0.044
-9.200E-07,0.036
-9.100E-07,0.020
-9.000E-07,0.020
-8.900E-07,0.000
-8.800E-07,-0.008
-8.700E-07,-0.008
-8.600E-07,0.008
-8.500E-07,0.052
-8.400E-07,0.032
-8.300E-07,0.016
-8.200E-07,-0.008
-8.100E-07,-0.040
-8.000E-07,-0.056
-7.900E-07,-0.052
-7.800E-07,-0.028
-7.700E-07,-0.004
-7.600E-07,-0.004
-7.500E-07,-0.032
-7.400E-07,-0.028
-7.300E-07,-0.004
-7.200E-07,-0.004
-7.100E-07,0.008
-7.000E-07,0.016
-6.900E-07,0.000
-6.800E-07,0.000
-6.700E-07,-0.008
-6.600E-07,-0.008
-6.500E-07,-0.004
-6.400E-07,-0.004
-6.300E-07,0.000
-6.200E-07,0.004
-6.100E-07,0.004
-6.000E-07,0.012
-5.900E-07,0.016
-5.800E-07,0.016
-5.700E-07,0.012
-5.600E-07,0.020
-5.500E-07,0.024
-5.400E-07,0.024
-5.300E-07,0.032
-5.200E-07,0.048
-5.100E-07,0.060
-5.000E-07,0.068
-4.900E-07,0.064
-4.800E-07,0.028
-4.700E-07,0.004
-4.600E-07,-0.036
-4.500E-07,-0.036
-4.400E-07,-0.028
-4.300E-07,-0.004
-4.200E-07,0.012
-4.100E-07,0.020
-4.000E-07,0.000
-3.900E-07,0.004
-3.800E-07,-0.004
-3.700E-07,0.008
-3.600E-07,0.028
-3.500E-07,0.052
-3.400E-07,0.068
-3.300E-07,0.056
-3.200E-07,0.028
-3.100E-07,0.016
-3.000E-07,0.016
-2.900E-07,0.020
-2.800E-07,0.036
-2.700E-07,0.044
-2.600E-07,0.028
-2.500E-07,0.004
-2.400E-07,-0.012
-2.300E-07,-0.024
-2.200E-07,-0.036
-2.100E-07,-0.020
-2.000E-07,-0.004
-1.900E-07,0.024
-1.800E-07,0.044
-1.700E-07,0.044
-1.600E-07,0.052
-1.500E-07,0.048
-1.400E-07,0.044
-1.300E-07,0.028
-1.200E-07,0.024
-1.100E-07,0.028
-1.000E-07,0.072
-9.000E-08,0.112
-8.000E-08,0.076
-7.000E-08,-0.052
-6.000E-08,-0.152
-5.000E-08,-0.428
-4.000E-08,-0.312
-3.000E-08,-0.216
-2.000E-08,0.056
-1.000E-08,0.192
0.000E+00,0.260
1.000E-08,0.164
2.000E-08,-0.008
3.000E-08,-0.120
4.000E-08,-0.116
5.000E-08,0.024
6.000E-08,0.100
7.000E-08,0.164
8.000E-08,-0.068
9.000E-08,-0.208
1.000E-07,-0.328
1.100E-07,-0.216
1.200E-07,-0.008
1.300E-07,0.164
1.400E-07,0.192
1.500E-07,0.136
1.600E-07,-0.004
1.700E-07,-0.128
1.800E-07,-0.104
1.900E-07,-0.032
2.000E-07,0.072
2.100E-07,0.104
2.200E-07,0.088
2.300E-07,0.012
2.400E-07,-0.036
2.500E-07,-0.060
2.600E-07,-0.048
2.700E-07,0.000
2.800E-07,0.020
2.900E-07,0.028
3.000E-07,0.000
3.100E-07,-0.008
3.200E-07,-0.024
3.300E-07,-0.012
3.400E-07,0.004
3.500E-07,0.036
3.600E-07,0.036
3.700E-07,0.036
3.800E-07,0.012
3.900E-07,-0.008
4.000E-07,-0.020
4.100E-07,-0.016
4.200E-07,0.000
4.300E-07,0.008
4.400E-07,0.008
4.500E-07,0.004
4.600E-07,0.012
4.700E-07,0.008
4.800E-07,0.024
4.900E-07,0.036
5.000E-07,0.048
5.100E-07,0.044
5.200E-07,0.036
5.300E-07,0.024
5.400E-07,0.020
5.500E-07,0.012
5.600E-07,0.028
5.700E-07,0.048
5.800E-07,0.068
5.900E-07,0.072
6.000E-07,0.060
6.100E-07,0.044
6.200E-07,0.040
6.300E-07,0.048
6.400E-07,0.056
6.500E-07,0.068
6.600E-07,0.076
6.700E-07,0.068
6.800E-07,0.044
6.900E-07,0.012
7.000E-07,-0.012
7.100E-07,-0.024
7.200E-07,-0.024
7.300E-07,-0.008
7.400E-07,0.008
7.500E-07,0.028
7.600E-07,0.020
7.700E-07,0.024
7.800E-07,0.024
7.900E-07,0.008
8.000E-07,-0.008
8.100E-07,-0.024
8.200E-07,-0.024
8.300E-07,-0.008
8.400E-07,0.008
8.500E-07,0.024
8.600E-07,0.044
8.700E-07,0.032
8.800E-07,0.040
8.900E-07,0.032
9.000E-07,0.044
9.100E-07,0.068
9.200E-07,0.084
9.300E-07,0.092
9.400E-07,0.128
9.500E-07,0.028
9.600E-07,-0.024
9.700E-07,-0.072
9.800E-07,0.000
9.900E-07,-0.204
1.000E-06,-0.160
1.010E-06,-0.184
1.020E-06,-0.072
1.030E-06,0.068
1.040E-06,0.160
1.050E-06,0.168
1.060E-06,0.140
1.070E-06,0.076
1.080E-06,-0.120
1.090E-06,-0.360
1.100E-06,-0.508
1.110E-06,-0.504
1.120E-06,-0.272
1.130E-06,0.092
1.140E-06,0.332
1.150E-06,0.324
1.160E-06,0.220
1.170E-06,-0.044
1.180E-06,-0.228
1.190E-06,-0.248
1.200E-06,-0.060
1.210E-06,0.072
1.220E-06,0.140
1.230E-06,0.072
1.240E-06,-0.008
1.250E-06,-0.060
1.260E-06,-0.068
1.270E-06,-0.028
1.280E-06,0.024
1.290E-06,0.032
1.300E-06,0.024
1.310E-06,-0.004
1.320E-06,-0.036
1.330E-06,-0.032
1.340E-06,-0.016
1.350E-06,0.008
1.360E-06,0.044
1.370E-06,0.056
1.380E-06,0.024
1.390E-06,0.004
1.400E-06,-0.020
1.410E-06,-0.036
1.420E-06,-0.024
1.430E-06,0.000
1.440E-06,0.028
1.450E-06,0.036
1.460E-06,0.024
1.470E-06,0.012
1.480E-06,-0.008
1.490E-06,0.000
1.500E-06,0.004
1.510E-06,0.040
1.520E-06,0.060
1.530E-06,0.072
1.540E-06,0.064
1.550E-06,0.048
1.560E-06,0.032
1.570E-06,0.028
1.580E-06,0.040
1.590E-06,0.068
1.600E-06,0.100
1.610E-06,0.088
1.620E-06,0.084
1.630E-06,0.052
1.640E-06,0.036
1.650E-06,0.024
1.660E-06,0.032
1.670E-06,-0.008
1.680E-06,-0.172
1.690E-06,-0.240
1.700E-06,-0.324
1.710E-06,-0.232
1.720E-06,-0.044
1.730E-06,0.100
1.740E-06,0.160
1.750E-06,0.108
1.760E-06,0.012
1.770E-06,-0.088
1.780E-06,-0.084
1.790E-06,-0.024
1.800E-06,0.044
1.810E-06,0.060
1.820E-06,0.028
1.830E-06,-0.012
1.840E-06,-0.032
1.850E-06,0.000
1.860E-06,0.028
1.870E-06,0.044
1.880E-06,0.048
1.890E-06,0.040
1.900E-06,0.028
1.910E-06,0.008
1.920E-06,0.040
1.930E-06,0.040
1.940E-06,0.076
1.950E-06,0.064
1.960E-06,0.000
1.970E-06,-0.124
1.980E-06,-0.188
1.990E-06,-0.172
2.000E-06,-0.100
2.010E-06,0.016
2.020E-06,0.092
2.030E-06,0.128
2.040E-06,0.068
2.050E-06,-0.020
2.060E-06,-0.068
2.070E-06,-0.072
2.080E-06,-0.012
2.090E-06,0.040
2.100E-06,0.064
2.110E-06,0.056
2.120E-06,0.012
2.130E-06,-0.036
2.140E-06,-0.036
2.150E-06,-0.024
2.160E-06,0.008
2.170E-06,0.032
2.180E-06,0.036
2.190E-06,0.016
2.200E-06,-0.008
2.210E-06,-0.020
2.220E-06,0.000
2.230E-06,0.024
2.240E-06,0.056
2.250E-06,0.064
2.260E-06,0.056
2.270E-06,0.044
2.280E-06,0.032
2.290E-06,0.024
2.300E-06,0.040
2.310E-06,0.056
2.320E-06,0.084
2.330E-06,0.104
2.340E-06,0.116
2.350E-06,0.092
2.360E-06,0.060
2.370E-06,0.032
2.380E-06,-0.008
2.390E-06,-0.036
2.400E-06,-0.068
2.410E-06,-0.072
2.420E-06,-0.088
2.430E-06,-0.088
2.440E-06,-0.068
2.450E-06,-0.052
2.460E-06,-0.024
2.470E-06,0.008
2.480E-06,0.020
2.490E-06,0.020
2.500E-06,0.004
2.510E-06,-0.020
2.520E-06,-0.028
2.530E-06,-0.008
2.540E-06,0.000
2.550E-06,0.028
2.560E-06,0.032
2.570E-06,0.024
2.580E-06,0.016
2.590E-06,0.020
2.600E-06,0.016
2.610E-06,0.016
2.620E-06,0.012
2.630E-06,0.020
2.640E-06,0.028
2.650E-06,0.028
2.660E-06,0.028
2.670E-06,0.028
2.680E-06,0.052
2.690E-06,0.060
2.700E-06,0.076
2.710E-06,0.092
2.720E-06,0.096
2.730E-06,0.100
2.740E-06,0.104
2.750E-06,0.084
2.760E-06,0.060
2.770E-06,0.024
2.780E-06,0.000
2.790E-06,-0.012
2.800E-06,-0.024
2.810E-06,-0.008
2.820E-06,-0.008
2.830E-06,0.000
2.840E-06,-0.024
2.850E-06,-0.064
2.860E-06,-0.100
2.870E-06,-0.124
2.880E-06,-0.136
2.890E-06,-0.108
2.900E-06,-0.060
2.910E-06,-0.004
2.920E-06,0.020
2.930E-06,0.044
2.940E-06,0.024
2.950E-06,0.004
2.960E-06,-0.024
2.970E-06,-0.020
2.980E-06,0.000
2.990E-06,0.028
3.000E-06,0.044
3.010E-06,0.044
3.020E-06,0.040
3.030E-06,0.012
3.040E-06,0.012
3.050E-06,0.024
3.060E-06,0.044
3.070E-06,0.048
3.080E-06,0.044
3.090E-06,0.044
3.100E-06,0.048
3.110E-06,0.060
3.120E-06,0.068
3.130E-06,0.092
3.140E-06,0.120
3.150E-06,0.124
3.160E-06,0.124
3.170E-06,0.104
3.180E-06,0.076
3.190E-06,0.052
3.200E-06,0.028
3.210E-06,-0.004
3.220E-06,-0.028
3.230E-06,-0.064
3.240E-06,-0.064
3.250E-06,-0.076
3.260E-06,-0.092
3.270E-06,-0.100
3.280E-06,-0.100
