mediciones/5-27/-25/WaveData5025.csv

#timebase=2000000(ps)
,#voltbase=500000(mv/100)
#size=4000
-8.400E-06,0.060
-8.390E-06,0.080
-8.380E-06,0.060
-8.370E-06,0.040
-8.360E-06,0.080
-8.350E-06,0.080
-8.340E-06,0.060
-8.330E-06,0.040
-8.320E-06,0.000
-8.310E-06,-0.020
-8.300E-06,0.000
-8.290E-06,0.000
-8.280E-06,0.020
-8.270E-06,0.040
-8.260E-06,0.040
-8.250E-06,0.060
-8.240E-06,0.040
-8.230E-06,0.020
-8.220E-06,0.040
-8.210E-06,0.020
-8.200E-06,0.020
-8.190E-06,0.020
-8.180E-06,0.000
-8.170E-06,0.020
-8.160E-06,-0.040
-8.150E-06,0.080
-8.140E-06,-0.100
-8.130E-06,-0.160
-8.120E-06,-0.060
-8.110E-06,-0.240
-8.100E-06,-0.140
-8.090E-06,0.100
-8.080E-06,0.080
-8.070E-06,0.200
-8.060E-06,0.160
-8.050E-06,0.040
-8.040E-06,-0.020
-8.030E-06,-0.040
-8.020E-06,0.100
-8.010E-06,0.080
-8.000E-06,0.180
-7.990E-06,0.080
-7.980E-06,0.000
-7.970E-06,-0.020
-7.960E-06,-0.140
-7.950E-06,0.000
-7.940E-06,0.080
-7.930E-06,0.300
-7.920E-06,0.520
-7.910E-06,0.500
-7.900E-06,0.400
-7.890E-06,0.180
-7.880E-06,0.000
-7.870E-06,0.060
-7.860E-06,0.200
-7.850E-06,0.320
-7.840E-06,0.300
-7.830E-06,0.160
-7.820E-06,0.060
-7.810E-06,-0.080
-7.800E-06,-0.140
-7.790E-06,-0.080
-7.780E-06,-0.140
-7.770E-06,-0.100
-7.760E-06,-0.040
-7.750E-06,-0.120
-7.740E-06,-0.140
-7.730E-06,-0.140
-7.720E-06,-0.220
-7.710E-06,-0.260
-7.700E-06,-0.280
-7.690E-06,-0.280
-7.680E-06,-0.240
-7.670E-06,-0.240
-7.660E-06,-0.200
-7.650E-06,-0.260
-7.640E-06,-0.300
-7.630E-06,-0.220
-7.620E-06,-0.160
-7.610E-06,-0.180
-7.600E-06,-0.040
-7.590E-06,-0.040
-7.580E-06,-0.080
-7.570E-06,0.100
-7.560E-06,0.160
-7.550E-06,0.180
-7.540E-06,0.380
-7.530E-06,0.420
-7.520E-06,0.500
-7.510E-06,0.600
-7.500E-06,0.460
-7.490E-06,0.440
-7.480E-06,0.180
-7.470E-06,0.160
-7.460E-06,0.200
-7.450E-06,0.520
-7.440E-06,0.720
-7.430E-06,0.740
-7.420E-06,0.780
-7.410E-06,0.440
-7.400E-06,0.220
-7.390E-06,0.200
-7.380E-06,0.200
-7.370E-06,0.440
-7.360E-06,0.500
-7.350E-06,0.380
-7.340E-06,0.200
-7.330E-06,0.000
-7.320E-06,-0.160
-7.310E-06,-0.120
-7.300E-06,-0.060
-7.290E-06,-0.040
-7.280E-06,-0.100
-7.270E-06,-0.200
-7.260E-06,-0.320
-7.250E-06,-0.360
-7.240E-06,-0.380
-7.230E-06,-0.400
-7.220E-06,-0.440
-7.210E-06,-0.460
-7.200E-06,-0.480
-7.190E-06,-0.460
-7.180E-06,-0.420
-7.170E-06,-0.400
-7.160E-06,-0.340
-7.150E-06,-0.260
-7.140E-06,-0.260
-7.130E-06,-0.260
-7.120E-06,-0.240
-7.110E-06,-0.220
-7.100E-06,-0.160
-7.090E-06,-0.080
-7.080E-06,-0.060
-7.070E-06,0.000
-7.060E-06,0.040
-7.050E-06,0.080
-7.040E-06,0.100
-7.030E-06,0.080
-7.020E-06,0.100
-7.010E-06,0.120
-7.000E-06,0.060
-6.990E-06,0.140
-6.980E-06,0.160
-6.970E-06,0.100
-6.960E-06,0.020
-6.950E-06,0.060
-6.940E-06,-0.240
-6.930E-06,-0.220
-6.920E-06,-0.140
-6.910E-06,0.180
-6.900E-06,0.520
-6.890E-06,0.860
-6.880E-06,0.620
-6.870E-06,0.500
-6.860E-06,0.100
-6.850E-06,-0.080
-6.840E-06,0.260
-6.830E-06,0.420
-6.820E-06,0.580
-6.810E-06,0.600
-6.800E-06,0.240
-6.790E-06,-0.060
-6.780E-06,-0.120
-6.770E-06,-0.140
-6.760E-06,0.080
-6.750E-06,0.240
-6.740E-06,0.260
-6.730E-06,0.160
-6.720E-06,-0.120
-6.710E-06,-0.120
-6.700E-06,-0.320
-6.690E-06,-0.360
-6.680E-06,-0.260
-6.670E-06,-0.320
-6.660E-06,-0.160
-6.650E-06,-0.140
-6.640E-06,-0.080
-6.630E-06,-0.200
-6.620E-06,-0.320
-6.610E-06,-0.260
-6.600E-06,-0.600
-6.590E-06,-0.360
-6.580E-06,-0.220
-6.570E-06,-0.260
-6.560E-06,0.000
-6.550E-06,0.020
-6.540E-06,0.000
-6.530E-06,-0.260
-6.520E-06,-0.340
-6.510E-06,-0.240
-6.500E-06,-0.180
-6.490E-06,0.300
-6.480E-06,0.380
-6.470E-06,0.300
-6.460E-06,0.080
-6.450E-06,-0.220
-6.440E-06,-0.340
-6.430E-06,-0.160
-6.420E-06,0.060
-6.410E-06,0.260
-6.400E-06,0.260
-6.390E-06,-0.020
-6.380E-06,-0.020
-6.370E-06,-0.280
-6.360E-06,-0.220
-6.350E-06,0.000
-6.340E-06,0.040
-6.330E-06,0.240
-6.320E-06,0.160
-6.310E-06,0.000
-6.300E-06,-0.100
-6.290E-06,-0.120
-6.280E-06,-0.060
-6.270E-06,0.080
-6.260E-06,0.120
-6.250E-06,0.040
-6.240E-06,-0.020
-6.230E-06,-0.120
-6.220E-06,-0.100
-6.210E-06,-0.040
-6.200E-06,0.080
-6.190E-06,0.100
-6.180E-06,-0.020
-6.170E-06,-0.080
-6.160E-06,-0.200
-6.150E-06,-0.160
-6.140E-06,-0.100
-6.130E-06,-0.020
-6.120E-06,0.000
-6.110E-06,-0.020
-6.100E-06,-0.020
-6.090E-06,-0.020
-6.080E-06,-0.020
-6.070E-06,0.000
-6.060E-06,0.020
-6.050E-06,-0.020
-6.040E-06,-0.080
-6.030E-06,-0.080
-6.020E-06,-0.080
-6.010E-06,-0.080
-6.000E-06,-0.100
-5.990E-06,-0.140
-5.980E-06,-0.140
-5.970E-06,-0.160
-5.960E-06,-0.080
-5.950E-06,-0.140
-5.940E-06,-0.100
-5.930E-06,-0.160
-5.920E-06,-0.220
-5.910E-06,-0.060
-5.900E-06,-0.220
-5.890E-06,-0.100
-5.880E-06,-0.020
-5.870E-06,-0.080
-5.860E-06,0.060
-5.850E-06,0.080
-5.840E-06,0.080
-5.830E-06,0.060
-5.820E-06,-0.020
-5.810E-06,0.000
-5.800E-06,0.060
-5.790E-06,0.100
-5.780E-06,0.200
-5.770E-06,0.220
-5.760E-06,0.120
-5.750E-06,0.080
-5.740E-06,0.060
-5.730E-06,0.040
-5.720E-06,0.120
-5.710E-06,0.140
-5.700E-06,0.140
-5.690E-06,0.060
-5.680E-06,0.000
-5.670E-06,-0.080
-5.660E-06,-0.100
-5.650E-06,-0.080
-5.640E-06,-0.060
-5.630E-06,-0.080
-5.620E-06,-0.120
-5.610E-06,-0.160
-5.600E-06,-0.220
-5.590E-06,-0.200
-5.580E-06,-0.240
-5.570E-06,-0.300
-5.560E-06,-0.260
-5.550E-06,-0.300
-5.540E-06,-0.380
-5.530E-06,-0.300
-5.520E-06,-0.320
-5.510E-06,-0.420
-5.500E-06,-0.380
-5.490E-06,-0.200
-5.480E-06,-0.260
-5.470E-06,0.100
-5.460E-06,0.160
-5.450E-06,0.060
-5.440E-06,0.100
-5.430E-06,-0.100
-5.420E-06,0.020
-5.410E-06,0.200
-5.400E-06,0.300
-5.390E-06,0.340
-5.380E-06,0.260
-5.370E-06,0.140
-5.360E-06,0.060
-5.350E-06,0.180
-5.340E-06,0.220
-5.330E-06,0.280
-5.320E-06,0.240
-5.310E-06,0.060
-5.300E-06,0.000
-5.290E-06,-0.060
-5.280E-06,-0.120
-5.270E-06,-0.020
-5.260E-06,-0.040
-5.250E-06,-0.100
-5.240E-06,-0.180
-5.230E-06,-0.280
-5.220E-06,-0.280
-5.210E-06,-0.220
-5.200E-06,-0.160
-5.190E-06,-0.120
-5.180E-06,-0.100
-5.170E-06,-0.140
-5.160E-06,-0.160
-5.150E-06,-0.180
-5.140E-06,-0.140
-5.130E-06,-0.060
-5.120E-06,-0.040
-5.110E-06,0.000
-5.100E-06,-0.020
-5.090E-06,-0.020
-5.080E-06,0.000
-5.070E-06,0.040
-5.060E-06,0.020
-5.050E-06,0.000
-5.040E-06,0.020
-5.030E-06,0.000
-5.020E-06,-0.020
-5.010E-06,-0.020
-5.000E-06,-0.040
-4.990E-06,-0.060
-4.980E-06,-0.060
-4.970E-06,-0.080
-4.960E-06,-0.160
-4.950E-06,-0.180
-4.940E-06,-0.160
-4.930E-06,-0.160
-4.920E-06,-0.080
-4.910E-06,-0.040
-4.900E-06,-0.020
-4.890E-06,-0.020
-4.880E-06,-0.060
-4.870E-06,-0.100
-4.860E-06,-0.120
-4.850E-06,-0.080
-4.840E-06,-0.060
-4.830E-06,-0.040
-4.820E-06,-0.080
-4.810E-06,-0.080
-4.800E-06,-0.080
-4.790E-06,-0.060
-4.780E-06,-0.040
-4.770E-06,-0.040
-4.760E-06,-0.080
-4.750E-06,-0.080
-4.740E-06,-0.060
-4.730E-06,-0.160
-4.720E-06,-0.020
-4.710E-06,-0.260
-4.700E-06,-0.260
-4.690E-06,-0.200
-4.680E-06,-0.340
-4.670E-06,0.120
-4.660E-06,0.140
-4.650E-06,0.180
-4.640E-06,0.280
-4.630E-06,0.080
-4.620E-06,0.000
-4.610E-06,0.120
-4.600E-06,0.060
-4.590E-06,0.180
-4.580E-06,-0.020
-4.570E-06,0.060
-4.560E-06,-0.020
-4.550E-06,0.000
-4.540E-06,0.300
-4.530E-06,0.260
-4.520E-06,0.320
-4.510E-06,0.160
-4.500E-06,0.000
-4.490E-06,0.020
-4.480E-06,0.080
-4.470E-06,0.180
-4.460E-06,0.180
-4.450E-06,0.040
-4.440E-06,-0.040
-4.430E-06,-0.140
-4.420E-06,-0.180
-4.410E-06,-0.140
-4.400E-06,-0.100
-4.390E-06,-0.040
-4.380E-06,-0.140
-4.370E-06,-0.200
-4.360E-06,-0.220
-4.350E-06,-0.320
-4.340E-06,-0.260
-4.330E-06,-0.300
-4.320E-06,-0.340
-4.310E-06,-0.220
-4.300E-06,-0.240
-4.290E-06,-0.220
-4.280E-06,-0.180
-4.270E-06,-0.240
-4.260E-06,-0.240
-4.250E-06,-0.200
-4.240E-06,-0.220
-4.230E-06,-0.200
-4.220E-06,-0.180
-4.210E-06,-0.160
-4.200E-06,-0.160
-4.190E-06,-0.140
-4.180E-06,-0.140
-4.170E-06,-0.100
-4.160E-06,-0.040
-4.150E-06,-0.080
-4.140E-06,0.060
-4.130E-06,0.020
-4.120E-06,0.020
-4.110E-06,-0.040
-4.100E-06,0.020
-4.090E-06,-0.060
-4.080E-06,-0.040
-4.070E-06,0.000
-4.060E-06,-0.120
-4.050E-06,0.180
-4.040E-06,0.120
-4.030E-06,0.120
-4.020E-06,0.280
-4.010E-06,0.100
-4.000E-06,0.180
-3.990E-06,0.180
-3.980E-06,0.100
-3.970E-06,0.260
-3.960E-06,0.160
-3.950E-06,0.080
-3.940E-06,0.060
-3.930E-06,-0.020
-3.920E-06,0.000
-3.910E-06,-0.040
-3.900E-06,0.020
-3.890E-06,0.100
-3.880E-06,0.120
-3.870E-06,0.060
-3.860E-06,0.040
-3.850E-06,0.100
-3.840E-06,0.060
-3.830E-06,0.320
-3.820E-06,0.340
-3.810E-06,0.160
-3.800E-06,0.000
-3.790E-06,-0.240
-3.780E-06,-0.360
-3.770E-06,0.040
-3.760E-06,0.260
-3.750E-06,0.420
-3.740E-06,0.500
-3.730E-06,0.140
-3.720E-06,-0.060
-3.710E-06,-0.300
-3.700E-06,-0.180
-3.690E-06,0.100
-3.680E-06,-0.120
-3.670E-06,0.380
-3.660E-06,-0.320
-3.650E-06,-0.340
-3.640E-06,0.020
-3.630E-06,-0.340
-3.620E-06,0.320
-3.610E-06,0.240
-3.600E-06,0.120
-3.590E-06,0.220
-3.580E-06,-0.120
-3.570E-06,0.000
-3.560E-06,0.120
-3.550E-06,0.080
-3.540E-06,0.180
-3.530E-06,0.040
-3.520E-06,-0.020
-3.510E-06,-0.040
-3.500E-06,-0.020
-3.490E-06,0.020
-3.480E-06,0.080
-3.470E-06,0.060
-3.460E-06,0.000
-3.450E-06,-0.060
-3.440E-06,-0.100
-3.430E-06,-0.100
-3.420E-06,-0.080
-3.410E-06,-0.120
-3.400E-06,-0.160
-3.390E-06,-0.200
-3.380E-06,-0.180
-3.370E-06,-0.160
-3.360E-06,-0.120
-3.350E-06,-0.120
-3.340E-06,-0.160
-3.330E-06,-0.180
-3.320E-06,-0.240
-3.310E-06,-0.240
-3.300E-06,-0.240
-3.290E-06,-0.220
-3.280E-06,-0.180
-3.270E-06,-0.200
-3.260E-06,-0.160
-3.250E-06,-0.200
-3.240E-06,-0.160
-3.230E-06,-0.140
-3.220E-06,-0.120
-3.210E-06,-0.100
-3.200E-06,-0.120
-3.190E-06,-0.100
-3.180E-06,-0.080
-3.170E-06,-0.040
-3.160E-06,-0.040
-3.150E-06,0.000
-3.140E-06,-0.040
-3.130E-06,-0.020
-3.120E-06,-0.100
-3.110E-06,-0.060
-3.100E-06,-0.100
-3.090E-06,-0.020
-3.080E-06,-0.040
-3.070E-06,0.020
-3.060E-06,0.040
-3.050E-06,-0.140
-3.040E-06,-0.440
-3.030E-06,-0.060
-3.020E-06,-0.360
-3.010E-06,0.060
-3.000E-06,0.440
-2.990E-06,0.320
-2.980E-06,0.360
-2.970E-06,0.080
-2.960E-06,-0.060
-2.950E-06,0.040
-2.940E-06,0.060
-2.930E-06,0.180
-2.920E-06,0.220
-2.910E-06,0.000
-2.900E-06,-0.100
-2.890E-06,-0.220
-2.880E-06,-0.340
-2.870E-06,-0.040
-2.860E-06,-0.040
-2.850E-06,0.240
-2.840E-06,0.140
-2.830E-06,-0.120
-2.820E-06,0.220
-2.810E-06,-0.320
-2.800E-06,-0.120
-2.790E-06,0.220
-2.780E-06,-0.100
-2.770E-06,0.160
-2.760E-06,0.060
-2.750E-06,-0.040
-2.740E-06,0.100
-2.730E-06,-0.100
-2.720E-06,-0.060
-2.710E-06,0.080
-2.700E-06,0.000
-2.690E-06,0.120
-2.680E-06,0.080
-2.670E-06,-0.040
-2.660E-06,-0.060
-2.650E-06,-0.060
-2.640E-06,-0.040
-2.630E-06,0.020
-2.620E-06,0.060
-2.610E-06,0.080
-2.600E-06,0.000
-2.590E-06,-0.020
-2.580E-06,-0.100
-2.570E-06,-0.120
-2.560E-06,-0.100
-2.550E-06,-0.120
-2.540E-06,-0.120
-2.530E-06,-0.140
-2.520E-06,-0.180
-2.510E-06,-0.220
-2.500E-06,-0.260
-2.490E-06,-0.260
-2.480E-06,-0.240
-2.470E-06,-0.200
-2.460E-06,-0.180
-2.450E-06,-0.200
-2.440E-06,-0.200
-2.430E-06,-0.240
-2.420E-06,-0.280
-2.410E-06,-0.220
-2.400E-06,-0.240
-2.390E-06,-0.240
-2.380E-06,-0.220
-2.370E-06,-0.200
-2.360E-06,-0.200
-2.350E-06,-0.160
-2.340E-06,-0.100
-2.330E-06,-0.120
-2.320E-06,-0.020
-2.310E-06,-0.060
-2.300E-06,-0.060
-2.290E-06,-0.020
-2.280E-06,-0.040
-2.270E-06,-0.040
-2.260E-06,-0.020
-2.250E-06,-0.020
-2.240E-06,-0.020
-2.230E-06,0.000
-2.220E-06,0.000
-2.210E-06,0.000
-2.200E-06,0.000
-2.190E-06,-0.020
-2.180E-06,-0.020
-2.170E-06,0.000
-2.160E-06,0.000
-2.150E-06,0.000
-2.140E-06,-0.020
-2.130E-06,-0.060
-2.120E-06,-0.020
-2.110E-06,0.000
-2.100E-06,0.000
-2.090E-06,0.000
-2.080E-06,0.000
-2.070E-06,0.000
-2.060E-06,-0.040
-2.050E-06,-0.040
-2.040E-06,-0.060
-2.030E-06,-0.120
-2.020E-06,-0.040
-2.010E-06,-0.080
-2.000E-06,-0.040
-1.990E-06,-0.140
-1.980E-06,0.040
-1.970E-06,-0.200
-1.960E-06,-0.320
-1.950E-06,-0.200
-1.940E-06,-0.360
-1.930E-06,-0.160
-1.920E-06,0.000
-1.910E-06,0.000
-1.900E-06,0.080
-1.890E-06,0.000
-1.880E-06,0.000
-1.870E-06,-0.060
-1.860E-06,0.000
-1.850E-06,0.160
-1.840E-06,0.140
-1.830E-06,0.260
-1.820E-06,0.260
-1.810E-06,0.260
-1.800E-06,0.360
-1.790E-06,0.280
-1.780E-06,0.440
-1.770E-06,0.380
-1.760E-06,0.340
-1.750E-06,0.440
-1.740E-06,0.300
-1.730E-06,0.420
-1.720E-06,0.440
-1.710E-06,0.360
-1.700E-06,0.400
-1.690E-06,0.280
-1.680E-06,0.220
-1.670E-06,0.160
-1.660E-06,0.080
-1.650E-06,0.080
-1.640E-06,-0.020
-1.630E-06,-0.100
-1.620E-06,-0.160
-1.610E-06,-0.160
-1.600E-06,-0.320
-1.590E-06,-0.480
-1.580E-06,-0.380
-1.570E-06,-0.400
-1.560E-06,-0.140
-1.550E-06,0.260
-1.540E-06,0.300
-1.530E-06,0.340
-1.520E-06,0.120
-1.510E-06,-0.160
-1.500E-06,-0.160
-1.490E-06,0.060
-1.480E-06,0.220
-1.470E-06,0.380
-1.460E-06,0.260
-1.450E-06,0.100
-1.440E-06,-0.100
-1.430E-06,-0.240
-1.420E-06,-0.140
-1.410E-06,-0.040
-1.400E-06,0.060
-1.390E-06,0.060
-1.380E-06,-0.060
-1.370E-06,-0.180
-1.360E-06,-0.320
-1.350E-06,-0.280
-1.340E-06,-0.160
-1.330E-06,-0.080
-1.320E-06,-0.080
-1.310E-06,-0.100
-1.300E-06,-0.180
-1.290E-06,-0.200
-1.280E-06,-0.180
-1.270E-06,-0.120
-1.260E-06,-0.080
-1.250E-06,-0.040
-1.240E-06,-0.080
-1.230E-06,-0.140
-1.220E-06,-0.120
-1.210E-06,-0.100
-1.200E-06,-0.040
-1.190E-06,0.000
-1.180E-06,0.000
-1.170E-06,0.000
-1.160E-06,-0.020
-1.150E-06,-0.040
-1.140E-06,-0.040
-1.130E-06,-0.080
-1.120E-06,-0.060
-1.110E-06,-0.120
-1.100E-06,-0.140
-1.090E-06,-0.160
-1.080E-06,-0.180
-1.070E-06,-0.180
-1.060E-06,-0.220
-1.050E-06,-0.220
-1.040E-06,-0.240
-1.030E-06,-0.260
-1.020E-06,-0.240
-1.010E-06,-0.180
-1.000E-06,-0.180
-9.900E-07,-0.160
-9.800E-07,-0.160
-9.700E-07,-0.180
-9.600E-07,-0.160
-9.500E-07,-0.180
-9.400E-07,-0.160
-9.300E-07,-0.140
-9.200E-07,-0.140
-9.100E-07,-0.120
-9.000E-07,-0.140
-8.900E-07,-0.080
-8.800E-07,-0.060
-8.700E-07,-0.080
-8.600E-07,-0.040
-8.500E-07,-0.040
-8.400E-07,-0.120
-8.300E-07,-0.020
-8.200E-07,-0.080
-8.100E-07,-0.020
-8.000E-07,0.000
-7.900E-07,-0.140
-7.800E-07,-0.180
-7.700E-07,-0.320
-7.600E-07,-0.420
-7.500E-07,-0.180
-7.400E-07,0.040
-7.300E-07,0.300
-7.200E-07,0.420
-7.100E-07,0.300
-7.000E-07,0.000
-6.900E-07,-0.160
-6.800E-07,-0.180
-6.700E-07,-0.080
-6.600E-07,0.100
-6.500E-07,0.180
-6.400E-07,0.120
-6.300E-07,0.080
-6.200E-07,-0.040
-6.100E-07,0.040
-6.000E-07,0.120
-5.900E-07,0.200
-5.800E-07,0.340
-5.700E-07,0.320
-5.600E-07,0.260
-5.500E-07,0.260
-5.400E-07,0.220
-5.300E-07,0.220
-5.200E-07,0.220
-5.100E-07,0.220
-5.000E-07,0.260
-4.900E-07,0.300
-4.800E-07,0.320
-4.700E-07,0.380
-4.600E-07,0.380
-4.500E-07,0.420
-4.400E-07,0.340
-4.300E-07,0.340
-4.200E-07,0.340
-4.100E-07,0.340
-4.000E-07,0.420
-3.900E-07,0.440
-3.800E-07,0.440
-3.700E-07,0.540
-3.600E-07,0.500
-3.500E-07,0.560
-3.400E-07,0.580
-3.300E-07,0.500
-3.200E-07,0.560
-3.100E-07,0.520
-3.000E-07,0.520
-2.900E-07,0.540
-2.800E-07,0.500
-2.700E-07,0.500
-2.600E-07,0.500
-2.500E-07,0.440
-2.400E-07,0.420
-2.300E-07,0.440
-2.200E-07,0.420
-2.100E-07,0.420
-2.000E-07,0.440
-1.900E-07,0.420
-1.800E-07,0.320
-1.700E-07,0.320
-1.600E-07,0.300
-1.500E-07,0.360
-1.400E-07,0.340
-1.300E-07,0.380
-1.200E-07,0.440
-1.100E-07,0.360
-1.000E-07,0.420
-9.000E-08,0.400
-8.000E-08,0.380
-7.000E-08,0.460
-6.000E-08,0.620
-5.000E-08,0.260
-4.000E-08,0.680
-3.000E-08,0.260
-2.000E-08,-0.020
-1.000E-08,0.020
0.000E+00,-0.440
1.000E-08,0.200
2.000E-08,0.780
3.000E-08,1.240
4.000E-08,1.200
5.000E-08,1.040
6.000E-08,0.200
7.000E-08,-0.020
8.000E-08,0.340
9.000E-08,1.140
1.000E-07,0.880
1.100E-07,0.740
1.200E-07,-0.120
1.300E-07,-0.580
1.400E-07,-0.040
1.500E-07,1.040
1.600E-07,2.040
1.700E-07,2.320
1.800E-07,1.760
1.900E-07,0.640
2.000E-07,0.160
2.100E-07,0.440
2.200E-07,0.800
2.300E-07,1.480
2.400E-07,1.360
2.500E-07,1.020
2.600E-07,0.460
2.700E-07,0.220
2.800E-07,0.260
2.900E-07,0.620
3.000E-07,0.840
3.100E-07,0.860
3.200E-07,0.640
3.300E-07,0.160
3.400E-07,-0.080
3.500E-07,-0.320
3.600E-07,-0.480
3.700E-07,-0.480
3.800E-07,-0.540
3.900E-07,-0.620
4.000E-07,-0.600
4.100E-07,-0.620
4.200E-07,-0.700
4.300E-07,-0.740
4.400E-07,-0.840
4.500E-07,-0.860
4.600E-07,-0.900
4.700E-07,-0.900
4.800E-07,-0.840
4.900E-07,-0.780
5.000E-07,-0.680
5.100E-07,-0.700
5.200E-07,-0.700
5.300E-07,-0.680
5.400E-07,-0.680
5.500E-07,-0.580
5.600E-07,-0.480
5.700E-07,-0.440
5.800E-07,-0.520
5.900E-07,-0.620
6.000E-07,-0.680
6.100E-07,-0.640
6.200E-07,-0.480
6.300E-07,-0.340
6.400E-07,-0.180
6.500E-07,-0.060
6.600E-07,-0.140
6.700E-07,-0.180
6.800E-07,-0.060
6.900E-07,-0.100
7.000E-07,0.180
7.100E-07,0.160
7.200E-07,0.420
7.300E-07,0.280
7.400E-07,0.440
7.500E-07,0.220
7.600E-07,0.240
7.700E-07,0.280
7.800E-07,0.160
7.900E-07,0.300
8.000E-07,0.260
8.100E-07,0.420
8.200E-07,0.640
8.300E-07,0.680
8.400E-07,0.720
8.500E-07,0.620
8.600E-07,0.340
8.700E-07,0.260
8.800E-07,0.340
8.900E-07,0.260
9.000E-07,0.460
9.100E-07,0.340
9.200E-07,0.140
9.300E-07,0.000
9.400E-07,-0.160
9.500E-07,-0.300
9.600E-07,-0.260
9.700E-07,-0.340
9.800E-07,-0.340
9.900E-07,-0.340
1.000E-06,-0.360
1.010E-06,-0.320
1.020E-06,-0.260
1.030E-06,-0.280
1.040E-06,-0.340
1.050E-06,-0.340
1.060E-06,-0.340
1.070E-06,-0.260
1.080E-06,-0.080
1.090E-06,-0.020
1.100E-06,-0.060
1.110E-06,-0.160
1.120E-06,-0.380
1.130E-06,-0.580
1.140E-06,-0.640
1.150E-06,-0.640
1.160E-06,-0.480
1.170E-06,-0.340
1.180E-06,-0.380
1.190E-06,-0.360
1.200E-06,-0.500
1.210E-06,-0.520
1.220E-06,-0.440
1.230E-06,-0.340
1.240E-06,-0.320
1.250E-06,-0.240
1.260E-06,-0.260
1.270E-06,-0.420
1.280E-06,-0.360
1.290E-06,-0.320
1.300E-06,-0.300
1.310E-06,-0.240
1.320E-06,-0.260
1.330E-06,-0.180
1.340E-06,-0.240
1.350E-06,-0.160
1.360E-06,-0.120
1.370E-06,-0.120
1.380E-06,-0.380
1.390E-06,-0.320
1.400E-06,0.180
1.410E-06,-0.780
1.420E-06,-0.220
1.430E-06,-0.700
1.440E-06,-0.660
1.450E-06,0.080
1.460E-06,0.100
1.470E-06,1.020
1.480E-06,0.660
1.490E-06,-0.020
1.500E-06,-0.180
1.510E-06,-0.380
1.520E-06,-0.300
1.530E-06,0.560
1.540E-06,0.380
1.550E-06,0.580
1.560E-06,0.360
1.570E-06,-0.180
1.580E-06,0.080
1.590E-06,0.040
1.600E-06,0.440
1.610E-06,0.680
1.620E-06,0.780
1.630E-06,0.360
1.640E-06,-0.020
1.650E-06,-0.480
1.660E-06,-1.020
1.670E-06,-0.620
1.680E-06,-0.580
1.690E-06,-0.540
1.700E-06,-0.360
1.710E-06,-0.700
1.720E-06,-1.060
1.730E-06,-1.180
1.740E-06,-1.520
1.750E-06,-1.400
1.760E-06,-1.340
1.770E-06,-1.080
1.780E-06,-0.860
1.790E-06,-0.860
1.800E-06,-0.600
1.810E-06,-0.620
1.820E-06,-0.600
1.830E-06,-0.500
1.840E-06,-0.340
1.850E-06,-0.100
1.860E-06,0.040
1.870E-06,0.240
1.880E-06,0.280
1.890E-06,0.280
1.900E-06,0.320
1.910E-06,0.400
1.920E-06,0.500
1.930E-06,0.540
1.940E-06,0.500
1.950E-06,0.340
1.960E-06,0.260
1.970E-06,0.060
1.980E-06,-0.020
1.990E-06,0.040
2.000E-06,0.000
2.010E-06,-0.040
2.020E-06,-0.060
2.030E-06,-0.200
2.040E-06,-0.240
2.050E-06,-0.320
2.060E-06,-0.340
2.070E-06,-0.240
2.080E-06,-0.200
2.090E-06,-0.360
2.100E-06,-0.220
2.110E-06,-0.320
2.120E-06,-0.320
2.130E-06,-0.180
2.140E-06,-0.140
2.150E-06,0.060
2.160E-06,-0.120
2.170E-06,-0.020
2.180E-06,0.220
2.190E-06,-0.160
2.200E-06,0.060
2.210E-06,0.080
2.220E-06,0.120
2.230E-06,0.480
2.240E-06,0.540
2.250E-06,0.420
2.260E-06,0.220
2.270E-06,-0.120
2.280E-06,-0.180
2.290E-06,0.160
2.300E-06,0.060
2.310E-06,0.200
2.320E-06,-0.580
2.330E-06,-2.200
2.340E-06,-1.940
2.350E-06,-2.220
2.360E-06,-1.380
2.370E-06,-0.100
2.380E-06,0.360
2.390E-06,0.160
2.400E-06,0.120
2.410E-06,-0.600
2.420E-06,-0.800
2.430E-06,-0.620
2.440E-06,-1.200
2.450E-06,0.240
2.460E-06,-1.180
2.470E-06,-1.140
2.480E-06,-1.540
2.490E-06,-2.660
2.500E-06,-2.620
2.510E-06,-1.680
2.520E-06,-1.240
2.530E-06,0.100
2.540E-06,0.760
2.550E-06,0.220
2.560E-06,0.620
2.570E-06,0.020
2.580E-06,-0.200
2.590E-06,0.320
2.600E-06,0.220
2.610E-06,0.740
2.620E-06,0.840
2.630E-06,0.660
2.640E-06,0.420
2.650E-06,0.220
2.660E-06,-0.060
2.670E-06,-0.100
2.680E-06,-0.040
2.690E-06,-0.360
2.700E-06,-0.240
2.710E-06,-0.740
2.720E-06,-1.020
2.730E-06,-1.260
2.740E-06,-1.600
2.750E-06,-1.700
2.760E-06,-1.820
2.770E-06,-1.960
2.780E-06,-2.120
2.790E-06,-2.220
2.800E-06,-2.380
2.810E-06,-2.400
2.820E-06,-2.440
2.830E-06,-2.500
2.840E-06,-2.660
2.850E-06,-2.660
2.860E-06,-2.660
2.870E-06,-2.660
2.880E-06,-2.660
2.890E-06,-2.660
2.900E-06,-2.660
2.910E-06,-2.640
2.920E-06,-2.660
2.930E-06,-2.660
2.940E-06,-2.660
2.950E-06,-2.660
2.960E-06,-2.660
2.970E-06,-2.660
2.980E-06,-2.640
2.990E-06,-2.640
3.000E-06,-2.660
3.010E-06,-2.660
3.020E-06,-2.660
3.030E-06,-2.640
3.040E-06,-2.660
3.050E-06,-2.660
3.060E-06,-2.680
3.070E-06,-2.660
3.080E-06,-2.660
3.090E-06,-2.660
3.100E-06,-2.660
3.110E-06,-2.640
