mediciones/5-27/-25/WaveData5033.csv

#timebase=2000000(ps)
,#voltbase=500000(mv/100)
#size=4000
-8.400E-06,0.120
-8.390E-06,0.100
-8.380E-06,0.100
-8.370E-06,0.180
-8.360E-06,0.220
-8.350E-06,0.160
-8.340E-06,0.160
-8.330E-06,0.020
-8.320E-06,0.000
-8.310E-06,0.020
-8.300E-06,0.000
-8.290E-06,0.020
-8.280E-06,0.020
-8.270E-06,0.000
-8.260E-06,-0.020
-8.250E-06,-0.040
-8.240E-06,-0.020
-8.230E-06,-0.020
-8.220E-06,-0.020
-8.210E-06,-0.040
-8.200E-06,-0.060
-8.190E-06,-0.080
-8.180E-06,-0.040
-8.170E-06,-0.040
-8.160E-06,-0.040
-8.150E-06,-0.020
-8.140E-06,-0.020
-8.130E-06,0.000
-8.120E-06,-0.020
-8.110E-06,0.020
-8.100E-06,0.040
-8.090E-06,0.060
-8.080E-06,0.060
-8.070E-06,0.080
-8.060E-06,0.060
-8.050E-06,0.140
-8.040E-06,0.180
-8.030E-06,0.060
-8.020E-06,0.160
-8.010E-06,0.080
-8.000E-06,0.200
-7.990E-06,-0.240
-7.980E-06,0.360
-7.970E-06,0.260
-7.960E-06,-0.120
-7.950E-06,1.220
-7.940E-06,0.260
-7.930E-06,0.380
-7.920E-06,0.740
-7.910E-06,-0.260
-7.900E-06,0.300
-7.890E-06,0.200
-7.880E-06,0.260
-7.870E-06,0.620
-7.860E-06,0.280
-7.850E-06,0.320
-7.840E-06,0.140
-7.830E-06,-0.020
-7.820E-06,0.100
-7.810E-06,0.080
-7.800E-06,0.240
-7.790E-06,0.080
-7.780E-06,0.040
-7.770E-06,0.000
-7.760E-06,-0.320
-7.750E-06,-0.040
-7.740E-06,0.060
-7.730E-06,-0.220
-7.720E-06,0.220
-7.710E-06,0.000
-7.700E-06,-0.180
-7.690E-06,0.080
-7.680E-06,-0.080
-7.670E-06,0.100
-7.660E-06,0.220
-7.650E-06,0.040
-7.640E-06,0.080
-7.630E-06,0.000
-7.620E-06,-0.020
-7.610E-06,0.040
-7.600E-06,0.080
-7.590E-06,0.100
-7.580E-06,0.080
-7.570E-06,0.100
-7.560E-06,0.080
-7.550E-06,0.100
-7.540E-06,0.120
-7.530E-06,0.120
-7.520E-06,0.160
-7.510E-06,0.140
-7.500E-06,0.100
-7.490E-06,0.080
-7.480E-06,0.140
-7.470E-06,0.140
-7.460E-06,0.140
-7.450E-06,0.100
-7.440E-06,0.080
-7.430E-06,0.040
-7.420E-06,0.040
-7.410E-06,0.060
-7.400E-06,0.060
-7.390E-06,0.060
-7.380E-06,0.040
-7.370E-06,0.020
-7.360E-06,0.000
-7.350E-06,-0.020
-7.340E-06,0.020
-7.330E-06,0.020
-7.320E-06,0.040
-7.310E-06,0.060
-7.300E-06,0.080
-7.290E-06,0.040
-7.280E-06,0.020
-7.270E-06,0.080
-7.260E-06,0.060
-7.250E-06,0.080
-7.240E-06,0.100
-7.230E-06,0.080
-7.220E-06,0.080
-7.210E-06,0.100
-7.200E-06,0.080
-7.190E-06,0.080
-7.180E-06,0.040
-7.170E-06,0.040
-7.160E-06,0.040
-7.150E-06,0.040
-7.140E-06,0.160
-7.130E-06,0.280
-7.120E-06,0.320
-7.110E-06,0.320
-7.100E-06,0.240
-7.090E-06,0.180
-7.080E-06,0.140
-7.070E-06,0.160
-7.060E-06,0.220
-7.050E-06,0.180
-7.040E-06,0.240
-7.030E-06,0.320
-7.020E-06,0.080
-7.010E-06,0.320
-7.000E-06,0.260
-6.990E-06,0.200
-6.980E-06,0.420
-6.970E-06,0.320
-6.960E-06,0.280
-6.950E-06,0.000
-6.940E-06,0.100
-6.930E-06,-0.120
-6.920E-06,0.020
-6.910E-06,0.300
-6.900E-06,0.140
-6.890E-06,0.340
-6.880E-06,0.280
-6.870E-06,0.240
-6.860E-06,0.320
-6.850E-06,0.240
-6.840E-06,0.320
-6.830E-06,0.340
-6.820E-06,0.080
-6.810E-06,0.180
-6.800E-06,0.060
-6.790E-06,-0.020
-6.780E-06,0.160
-6.770E-06,0.180
-6.760E-06,0.220
-6.750E-06,0.160
-6.740E-06,0.040
-6.730E-06,-0.020
-6.720E-06,-0.040
-6.710E-06,0.000
-6.700E-06,0.060
-6.690E-06,0.080
-6.680E-06,0.080
-6.670E-06,-0.040
-6.660E-06,-0.080
-6.650E-06,-0.080
-6.640E-06,-0.020
-6.630E-06,0.020
-6.620E-06,0.100
-6.610E-06,0.060
-6.600E-06,0.020
-6.590E-06,0.000
-6.580E-06,0.000
-6.570E-06,0.020
-6.560E-06,0.060
-6.550E-06,0.060
-6.540E-06,0.020
-6.530E-06,0.040
-6.520E-06,0.040
-6.510E-06,0.060
-6.500E-06,0.060
-6.490E-06,0.120
-6.480E-06,0.120
-6.470E-06,0.100
-6.460E-06,0.120
-6.450E-06,0.260
-6.440E-06,0.200
-6.430E-06,0.160
-6.420E-06,0.160
-6.410E-06,0.100
-6.400E-06,0.020
-6.390E-06,0.220
-6.380E-06,0.380
-6.370E-06,0.500
-6.360E-06,0.500
-6.350E-06,0.400
-6.340E-06,0.340
-6.330E-06,0.240
-6.320E-06,0.160
-6.310E-06,0.500
-6.300E-06,0.340
-6.290E-06,0.380
-6.280E-06,0.660
-6.270E-06,0.380
-6.260E-06,0.420
-6.250E-06,0.320
-6.240E-06,0.400
-6.230E-06,0.580
-6.220E-06,0.240
-6.210E-06,0.480
-6.200E-06,0.240
-6.190E-06,-0.100
-6.180E-06,0.160
-6.170E-06,0.240
-6.160E-06,0.580
-6.150E-06,0.740
-6.140E-06,0.500
-6.130E-06,0.300
-6.120E-06,-0.020
-6.110E-06,-0.060
-6.100E-06,0.160
-6.090E-06,0.320
-6.080E-06,0.420
-6.070E-06,0.260
-6.060E-06,-0.160
-6.050E-06,-0.040
-6.040E-06,-0.260
-6.030E-06,-0.460
-6.020E-06,0.120
-6.010E-06,-0.080
-6.000E-06,0.120
-5.990E-06,0.320
-5.980E-06,0.140
-5.970E-06,0.160
-5.960E-06,-0.180
-5.950E-06,-0.280
-5.940E-06,-0.040
-5.930E-06,0.060
-5.920E-06,0.260
-5.910E-06,0.280
-5.900E-06,0.020
-5.890E-06,0.020
-5.880E-06,-0.360
-5.870E-06,-0.100
-5.860E-06,0.000
-5.850E-06,0.060
-5.840E-06,0.500
-5.830E-06,0.460
-5.820E-06,0.480
-5.810E-06,0.400
-5.800E-06,0.140
-5.790E-06,0.200
-5.780E-06,0.100
-5.770E-06,0.200
-5.760E-06,0.540
-5.750E-06,0.320
-5.740E-06,0.340
-5.730E-06,0.220
-5.720E-06,-0.060
-5.710E-06,0.080
-5.700E-06,0.240
-5.690E-06,0.380
-5.680E-06,0.460
-5.670E-06,0.300
-5.660E-06,0.220
-5.650E-06,0.100
-5.640E-06,0.140
-5.630E-06,0.280
-5.620E-06,0.340
-5.610E-06,0.340
-5.600E-06,0.280
-5.590E-06,0.120
-5.580E-06,0.080
-5.570E-06,0.100
-5.560E-06,0.100
-5.550E-06,0.080
-5.540E-06,0.020
-5.530E-06,0.100
-5.520E-06,-0.040
-5.510E-06,-0.120
-5.500E-06,-0.060
-5.490E-06,-0.040
-5.480E-06,0.040
-5.470E-06,0.300
-5.460E-06,0.400
-5.450E-06,0.360
-5.440E-06,0.160
-5.430E-06,0.020
-5.420E-06,0.060
-5.410E-06,0.120
-5.400E-06,0.240
-5.390E-06,0.320
-5.380E-06,0.200
-5.370E-06,0.040
-5.360E-06,-0.040
-5.350E-06,-0.080
-5.340E-06,0.000
-5.330E-06,0.160
-5.320E-06,0.140
-5.310E-06,0.140
-5.300E-06,0.080
-5.290E-06,-0.040
-5.280E-06,0.020
-5.270E-06,0.060
-5.260E-06,0.160
-5.250E-06,0.240
-5.240E-06,0.220
-5.230E-06,0.160
-5.220E-06,0.080
-5.210E-06,0.060
-5.200E-06,0.120
-5.190E-06,0.160
-5.180E-06,0.180
-5.170E-06,0.220
-5.160E-06,0.140
-5.150E-06,0.080
-5.140E-06,0.080
-5.130E-06,0.140
-5.120E-06,0.220
-5.110E-06,0.240
-5.100E-06,0.280
-5.090E-06,0.240
-5.080E-06,0.220
-5.070E-06,0.260
-5.060E-06,0.300
-5.050E-06,0.340
-5.040E-06,0.400
-5.030E-06,0.360
-5.020E-06,0.440
-5.010E-06,0.340
-5.000E-06,0.280
-4.990E-06,0.240
-4.980E-06,0.180
-4.970E-06,0.220
-4.960E-06,0.320
-4.950E-06,0.480
-4.940E-06,0.540
-4.930E-06,0.580
-4.920E-06,0.500
-4.910E-06,0.360
-4.900E-06,0.320
-4.890E-06,0.300
-4.880E-06,0.320
-4.870E-06,0.500
-4.860E-06,0.460
-4.850E-06,0.540
-4.840E-06,0.480
-4.830E-06,0.340
-4.820E-06,0.540
-4.810E-06,0.460
-4.800E-06,0.520
-4.790E-06,0.880
-4.780E-06,0.600
-4.770E-06,0.640
-4.760E-06,0.520
-4.750E-06,0.280
-4.740E-06,0.380
-4.730E-06,0.540
-4.720E-06,0.620
-4.710E-06,0.800
-4.700E-06,0.880
-4.690E-06,0.560
-4.680E-06,0.660
-4.670E-06,0.740
-4.660E-06,0.680
-4.650E-06,1.180
-4.640E-06,0.600
-4.630E-06,0.700
-4.620E-06,0.760
-4.610E-06,0.320
-4.600E-06,1.020
-4.590E-06,1.060
-4.580E-06,0.800
-4.570E-06,0.840
-4.560E-06,0.620
-4.550E-06,0.620
-4.540E-06,0.580
-4.530E-06,1.020
-4.520E-06,0.840
-4.510E-06,0.660
-4.500E-06,0.700
-4.490E-06,0.500
-4.480E-06,0.620
-4.470E-06,0.720
-4.460E-06,0.760
-4.450E-06,0.940
-4.440E-06,0.840
-4.430E-06,0.620
-4.420E-06,0.760
-4.410E-06,0.500
-4.400E-06,0.540
-4.390E-06,0.480
-4.380E-06,0.160
-4.370E-06,0.140
-4.360E-06,0.060
-4.350E-06,0.060
-4.340E-06,0.360
-4.330E-06,0.360
-4.320E-06,0.400
-4.310E-06,0.420
-4.300E-06,0.300
-4.290E-06,0.320
-4.280E-06,0.300
-4.270E-06,0.280
-4.260E-06,0.260
-4.250E-06,0.260
-4.240E-06,0.160
-4.230E-06,0.060
-4.220E-06,0.120
-4.210E-06,0.040
-4.200E-06,0.160
-4.190E-06,0.220
-4.180E-06,0.180
-4.170E-06,0.240
-4.160E-06,0.080
-4.150E-06,0.140
-4.140E-06,0.060
-4.130E-06,0.160
-4.120E-06,0.260
-4.110E-06,0.340
-4.100E-06,0.420
-4.090E-06,0.260
-4.080E-06,0.240
-4.070E-06,0.080
-4.060E-06,0.000
-4.050E-06,0.200
-4.040E-06,0.300
-4.030E-06,0.500
-4.020E-06,0.560
-4.010E-06,0.540
-4.000E-06,0.320
-3.990E-06,0.160
-3.980E-06,0.160
-3.970E-06,0.160
-3.960E-06,0.340
-3.950E-06,0.520
-3.940E-06,0.540
-3.930E-06,0.540
-3.920E-06,0.520
-3.910E-06,0.500
-3.900E-06,0.520
-3.890E-06,0.540
-3.880E-06,0.560
-3.870E-06,0.500
-3.860E-06,0.420
-3.850E-06,0.400
-3.840E-06,0.360
-3.830E-06,0.380
-3.820E-06,0.360
-3.810E-06,0.340
-3.800E-06,0.300
-3.790E-06,0.200
-3.780E-06,0.200
-3.770E-06,0.160
-3.760E-06,0.140
-3.750E-06,0.160
-3.740E-06,0.000
-3.730E-06,-0.040
-3.720E-06,0.000
-3.710E-06,0.000
-3.700E-06,0.040
-3.690E-06,0.160
-3.680E-06,0.140
-3.670E-06,0.020
-3.660E-06,0.020
-3.650E-06,-0.060
-3.640E-06,0.080
-3.630E-06,0.320
-3.620E-06,0.360
-3.610E-06,0.380
-3.600E-06,0.340
-3.590E-06,0.340
-3.580E-06,0.340
-3.570E-06,0.480
-3.560E-06,0.440
-3.550E-06,0.500
-3.540E-06,0.480
-3.530E-06,0.580
-3.520E-06,0.680
-3.510E-06,0.680
-3.500E-06,0.860
-3.490E-06,0.700
-3.480E-06,0.660
-3.470E-06,0.580
-3.460E-06,0.560
-3.450E-06,0.680
-3.440E-06,0.780
-3.430E-06,0.860
-3.420E-06,0.900
-3.410E-06,1.000
-3.400E-06,1.020
-3.390E-06,1.000
-3.380E-06,1.100
-3.370E-06,1.040
-3.360E-06,1.000
-3.350E-06,1.000
-3.340E-06,0.900
-3.330E-06,0.940
-3.320E-06,1.000
-3.310E-06,0.980
-3.300E-06,0.920
-3.290E-06,1.020
-3.280E-06,0.780
-3.270E-06,0.660
-3.260E-06,0.560
-3.250E-06,0.260
-3.240E-06,0.320
-3.230E-06,0.320
-3.220E-06,0.520
-3.210E-06,0.840
-3.200E-06,0.260
-3.190E-06,0.340
-3.180E-06,-0.180
-3.170E-06,-0.360
-3.160E-06,0.220
-3.150E-06,0.300
-3.140E-06,0.560
-3.130E-06,0.660
-3.120E-06,0.160
-3.110E-06,0.240
-3.100E-06,0.220
-3.090E-06,0.420
-3.080E-06,0.660
-3.070E-06,0.420
-3.060E-06,0.220
-3.050E-06,0.140
-3.040E-06,-0.340
-3.030E-06,-0.080
-3.020E-06,-0.140
-3.010E-06,-0.020
-3.000E-06,0.180
-2.990E-06,-0.040
-2.980E-06,0.180
-2.970E-06,0.160
-2.960E-06,0.100
-2.950E-06,0.280
-2.940E-06,0.220
-2.930E-06,0.040
-2.920E-06,0.180
-2.910E-06,0.000
-2.900E-06,0.180
-2.890E-06,0.320
-2.880E-06,0.380
-2.870E-06,0.520
-2.860E-06,0.460
-2.850E-06,0.340
-2.840E-06,0.380
-2.830E-06,0.440
-2.820E-06,0.500
-2.810E-06,0.680
-2.800E-06,0.680
-2.790E-06,0.660
-2.780E-06,0.560
-2.770E-06,0.320
-2.760E-06,0.260
-2.750E-06,0.220
-2.740E-06,0.240
-2.730E-06,0.300
-2.720E-06,0.180
-2.710E-06,0.220
-2.700E-06,-0.160
-2.690E-06,0.060
-2.680E-06,-0.100
-2.670E-06,-0.160
-2.660E-06,0.000
-2.650E-06,-0.080
-2.640E-06,0.200
-2.630E-06,0.480
-2.620E-06,0.580
-2.610E-06,0.640
-2.600E-06,0.520
-2.590E-06,0.260
-2.580E-06,0.440
-2.570E-06,0.180
-2.560E-06,0.340
-2.550E-06,0.080
-2.540E-06,0.020
-2.530E-06,-0.060
-2.520E-06,0.080
-2.510E-06,0.340
-2.500E-06,0.460
-2.490E-06,0.580
-2.480E-06,0.480
-2.470E-06,0.300
-2.460E-06,0.140
-2.450E-06,-0.060
-2.440E-06,-0.040
-2.430E-06,0.680
-2.420E-06,-0.200
-2.410E-06,-0.220
-2.400E-06,-0.240
-2.390E-06,-0.880
-2.380E-06,0.220
-2.370E-06,0.900
-2.360E-06,1.040
-2.350E-06,1.200
-2.340E-06,0.520
-2.330E-06,-0.380
-2.320E-06,-0.060
-2.310E-06,0.100
-2.300E-06,0.660
-2.290E-06,1.040
-2.280E-06,0.740
-2.270E-06,0.380
-2.260E-06,-0.020
-2.250E-06,-0.260
-2.240E-06,-0.440
-2.230E-06,0.000
-2.220E-06,-0.160
-2.210E-06,-0.460
-2.200E-06,-0.420
-2.190E-06,-1.200
-2.180E-06,-1.240
-2.170E-06,-1.360
-2.160E-06,-1.760
-2.150E-06,-1.480
-2.140E-06,-1.600
-2.130E-06,-1.360
-2.120E-06,-1.060
-2.110E-06,-0.860
-2.100E-06,-0.760
-2.090E-06,-0.620
-2.080E-06,-0.600
-2.070E-06,-0.380
-2.060E-06,-0.120
-2.050E-06,0.060
-2.040E-06,0.320
-2.030E-06,0.320
-2.020E-06,0.360
-2.010E-06,0.360
-2.000E-06,0.420
-1.990E-06,0.480
-1.980E-06,0.580
-1.970E-06,0.640
-1.960E-06,0.600
-1.950E-06,0.480
-1.940E-06,0.260
-1.930E-06,0.100
-1.920E-06,-0.040
-1.910E-06,-0.140
-1.900E-06,-0.260
-1.890E-06,-0.320
-1.880E-06,-0.460
-1.870E-06,-0.420
-1.860E-06,-0.640
-1.850E-06,-0.560
-1.840E-06,-0.840
-1.830E-06,-0.900
-1.820E-06,-1.060
-1.810E-06,-1.460
-1.800E-06,-1.360
-1.790E-06,-1.420
-1.780E-06,-1.100
-1.770E-06,-1.020
-1.760E-06,-0.940
-1.750E-06,-1.240
-1.740E-06,-1.420
-1.730E-06,-1.400
-1.720E-06,-1.360
-1.710E-06,-1.020
-1.700E-06,-0.760
-1.690E-06,-0.600
-1.680E-06,-0.500
-1.670E-06,-0.380
-1.660E-06,-0.300
-1.650E-06,-0.240
-1.640E-06,0.000
-1.630E-06,0.160
-1.620E-06,0.260
-1.610E-06,0.360
-1.600E-06,0.340
-1.590E-06,0.360
-1.580E-06,0.380
-1.570E-06,0.380
-1.560E-06,0.560
-1.550E-06,0.560
-1.540E-06,0.540
-1.530E-06,0.420
-1.520E-06,0.240
-1.510E-06,0.200
-1.500E-06,0.100
-1.490E-06,0.160
-1.480E-06,0.120
-1.470E-06,-0.080
-1.460E-06,-0.260
-1.450E-06,-0.540
-1.440E-06,-0.680
-1.430E-06,-0.680
-1.420E-06,-0.560
-1.410E-06,-0.480
-1.400E-06,-0.440
-1.390E-06,-0.560
-1.380E-06,-0.640
-1.370E-06,-0.720
-1.360E-06,-0.700
-1.350E-06,-0.540
-1.340E-06,-0.440
-1.330E-06,-0.340
-1.320E-06,-0.400
-1.310E-06,-0.360
-1.300E-06,-0.540
-1.290E-06,-0.600
-1.280E-06,-0.720
-1.270E-06,-0.780
-1.260E-06,-0.820
-1.250E-06,-0.920
-1.240E-06,-0.920
-1.230E-06,-0.800
-1.220E-06,-0.860
-1.210E-06,-0.720
-1.200E-06,-0.580
-1.190E-06,-0.700
-1.180E-06,-0.200
-1.170E-06,-0.380
-1.160E-06,-0.420
-1.150E-06,0.000
-1.140E-06,-0.400
-1.130E-06,0.180
-1.120E-06,0.500
-1.110E-06,0.420
-1.100E-06,0.820
-1.090E-06,0.520
-1.080E-06,0.320
-1.070E-06,0.600
-1.060E-06,0.380
-1.050E-06,0.780
-1.040E-06,1.020
-1.030E-06,0.660
-1.020E-06,0.500
-1.010E-06,0.340
-1.000E-06,0.200
-9.900E-07,-0.040
-9.800E-07,0.120
-9.700E-07,-0.380
-9.600E-07,-0.800
-9.500E-07,-1.320
-9.400E-07,-1.820
-9.300E-07,-1.680
-9.200E-07,-1.820
-9.100E-07,-1.660
-9.000E-07,-1.460
-8.900E-07,-1.680
-8.800E-07,-1.540
-8.700E-07,-1.440
-8.600E-07,-1.240
-8.500E-07,-0.900
-8.400E-07,-0.660
-8.300E-07,-0.660
-8.200E-07,-0.520
-8.100E-07,-0.480
-8.000E-07,-0.340
-7.900E-07,-0.120
-7.800E-07,0.080
-7.700E-07,0.220
-7.600E-07,0.240
-7.500E-07,0.240
-7.400E-07,-0.020
-7.300E-07,-0.220
-7.200E-07,-0.420
-7.100E-07,-0.720
-7.000E-07,-0.900
-6.900E-07,-1.120
-6.800E-07,-1.300
-6.700E-07,-1.560
-6.600E-07,-1.820
-6.500E-07,-2.080
-6.400E-07,-2.320
-6.300E-07,-2.520
-6.200E-07,-2.460
-6.100E-07,-2.500
-6.000E-07,-2.380
-5.900E-07,-2.220
-5.800E-07,-2.560
-5.700E-07,-2.420
-5.600E-07,-2.540
-5.500E-07,-2.480
-5.400E-07,-2.380
-5.300E-07,-2.640
-5.200E-07,-2.640
-5.100E-07,-2.660
-5.000E-07,-2.660
-4.900E-07,-2.660
-4.800E-07,-2.640
-4.700E-07,-2.640
-4.600E-07,-2.640
-4.500E-07,-2.640
-4.400E-07,-2.660
-4.300E-07,-2.660
-4.200E-07,-2.680
-4.100E-07,-2.680
-4.000E-07,-2.680
-3.900E-07,-2.660
-3.800E-07,-2.660
-3.700E-07,-2.660
-3.600E-07,-2.660
-3.500E-07,-2.660
-3.400E-07,-2.660
-3.300E-07,-2.660
-3.200E-07,-2.680
-3.100E-07,-2.660
-3.000E-07,-2.660
-2.900E-07,-2.660
-2.800E-07,-2.680
-2.700E-07,-2.680
-2.600E-07,-2.680
-2.500E-07,-2.680
-2.400E-07,-2.660
-2.300E-07,-2.660
-2.200E-07,-2.660
-2.100E-07,-2.660
-2.000E-07,-2.660
-1.900E-07,-2.660
-1.800E-07,-2.660
-1.700E-07,-2.680
-1.600E-07,-2.660
-1.500E-07,-2.660
-1.400E-07,-2.660
-1.300E-07,-2.660
-1.200E-07,-2.660
-1.100E-07,-2.680
-1.000E-07,-2.660
-9.000E-08,-2.660
-8.000E-08,-2.660
-7.000E-08,-2.660
-6.000E-08,-2.660
-5.000E-08,-2.660
-4.000E-08,-2.680
-3.000E-08,-2.660
-2.000E-08,-2.660
-1.000E-08,-2.660
0.000E+00,-2.660
1.000E-08,-2.660
2.000E-08,-2.660
3.000E-08,-2.400
4.000E-08,-2.660
5.000E-08,-2.680
6.000E-08,-2.660
7.000E-08,-2.660
8.000E-08,-2.660
9.000E-08,-2.660
1.000E-07,-2.680
1.100E-07,-2.660
1.200E-07,-2.660
1.300E-07,-2.660
1.400E-07,-2.660
1.500E-07,-2.680
1.600E-07,-2.660
1.700E-07,-2.660
1.800E-07,-2.420
1.900E-07,-1.960
2.000E-07,-1.660
2.100E-07,-1.760
2.200E-07,-1.700
2.300E-07,-1.680
2.400E-07,-1.680
2.500E-07,-1.500
2.600E-07,-1.280
2.700E-07,-1.360
2.800E-07,-1.320
2.900E-07,-1.360
3.000E-07,-1.480
3.100E-07,-1.540
3.200E-07,-1.580
3.300E-07,-1.640
3.400E-07,-1.600
3.500E-07,-1.580
3.600E-07,-1.540
3.700E-07,-1.640
3.800E-07,-1.820
3.900E-07,-2.020
4.000E-07,-2.160
4.100E-07,-2.260
4.200E-07,-2.260
4.300E-07,-2.380
4.400E-07,-2.340
4.500E-07,-2.560
4.600E-07,-2.640
4.700E-07,-2.660
4.800E-07,-2.660
4.900E-07,-2.660
5.000E-07,-2.620
5.100E-07,-2.520
5.200E-07,-2.240
5.300E-07,-2.100
5.400E-07,-1.940
5.500E-07,-1.860
5.600E-07,-1.860
5.700E-07,-1.820
5.800E-07,-1.820
5.900E-07,-1.680
6.000E-07,-1.420
6.100E-07,-1.260
6.200E-07,-1.160
6.300E-07,-1.160
6.400E-07,-1.160
6.500E-07,-1.240
6.600E-07,-1.200
6.700E-07,-1.240
6.800E-07,-1.180
6.900E-07,-1.120
7.000E-07,-1.140
7.100E-07,-1.100
7.200E-07,-1.160
7.300E-07,-1.260
7.400E-07,-1.260
7.500E-07,-1.240
7.600E-07,-1.280
7.700E-07,-1.280
7.800E-07,-1.300
7.900E-07,-1.340
8.000E-07,-1.340
8.100E-07,-1.400
8.200E-07,-1.480
8.300E-07,-1.560
8.400E-07,-1.680
8.500E-07,-1.800
8.600E-07,-2.000
8.700E-07,-2.240
8.800E-07,-2.420
8.900E-07,-2.480
9.000E-07,-2.360
9.100E-07,-2.180
9.200E-07,-1.900
9.300E-07,-1.640
9.400E-07,-1.400
9.500E-07,-1.280
9.600E-07,-1.140
9.700E-07,-1.040
9.800E-07,-0.980
9.900E-07,-0.920
1.000E-06,-0.800
1.010E-06,-0.720
1.020E-06,-0.660
1.030E-06,-0.540
1.040E-06,-0.580
1.050E-06,-0.640
1.060E-06,-0.700
1.070E-06,-0.760
1.080E-06,-0.800
1.090E-06,-0.860
1.100E-06,-0.900
1.110E-06,-0.980
1.120E-06,-1.100
1.130E-06,-1.240
1.140E-06,-1.280
1.150E-06,-1.340
1.160E-06,-1.360
1.170E-06,-1.360
1.180E-06,-1.380
1.190E-06,-1.380
1.200E-06,-1.460
1.210E-06,-1.460
1.220E-06,-1.480
1.230E-06,-1.540
1.240E-06,-1.520
1.250E-06,-1.580
1.260E-06,-1.600
1.270E-06,-1.660
1.280E-06,-1.760
1.290E-06,-1.880
1.300E-06,-2.000
1.310E-06,-2.120
1.320E-06,-2.260
1.330E-06,-2.360
1.340E-06,-2.520
1.350E-06,-2.620
1.360E-06,-2.680
1.370E-06,-2.680
1.380E-06,-2.680
1.390E-06,-2.660
1.400E-06,-2.660
1.410E-06,-2.660
1.420E-06,-2.660
1.430E-06,-2.680
1.440E-06,-2.660
1.450E-06,-2.660
1.460E-06,-2.660
1.470E-06,-2.660
1.480E-06,-2.660
1.490E-06,-2.660
1.500E-06,-2.660
1.510E-06,-2.660
1.520E-06,-2.680
1.530E-06,-2.660
1.540E-06,-2.660
1.550E-06,-2.660
1.560E-06,-2.660
1.570E-06,-2.660
1.580E-06,-2.660
1.590E-06,-2.680
1.600E-06,-2.680
1.610E-06,-2.660
1.620E-06,-2.660
1.630E-06,-2.660
1.640E-06,-2.660
1.650E-06,-2.660
1.660E-06,-2.660
1.670E-06,-2.660
1.680E-06,-2.660
1.690E-06,-2.660
1.700E-06,-2.680
1.710E-06,-2.680
1.720E-06,-2.660
1.730E-06,-2.660
1.740E-06,-2.640
1.750E-06,-2.660
1.760E-06,-2.660
1.770E-06,-2.680
1.780E-06,-2.680
1.790E-06,-2.660
1.800E-06,-2.660
1.810E-06,-2.660
1.820E-06,-2.660
1.830E-06,-2.660
1.840E-06,-2.660
1.850E-06,-2.660
1.860E-06,-2.660
1.870E-06,-2.640
1.880E-06,-2.640
1.890E-06,-2.660
1.900E-06,-2.660
1.910E-06,-2.660
1.920E-06,-2.660
1.930E-06,-2.660
1.940E-06,-2.660
1.950E-06,-2.660
1.960E-06,-2.660
1.970E-06,-2.660
1.980E-06,-2.660
1.990E-06,-2.640
2.000E-06,-2.640
2.010E-06,-2.640
2.020E-06,-2.640
2.030E-06,-2.640
2.040E-06,-2.660
2.050E-06,-2.660
2.060E-06,-2.660
2.070E-06,-2.660
2.080E-06,-2.640
2.090E-06,-2.640
2.100E-06,-2.660
2.110E-06,-2.660
2.120E-06,-2.680
2.130E-06,-2.660
2.140E-06,-2.660
2.150E-06,-2.660
2.160E-06,-2.660
2.170E-06,-2.680
2.180E-06,-2.660
2.190E-06,-2.660
2.200E-06,-2.660
2.210E-06,-2.660
2.220E-06,-2.660
2.230E-06,-2.660
2.240E-06,-2.660
2.250E-06,-2.640
2.260E-06,-2.660
2.270E-06,-2.660
2.280E-06,-2.660
2.290E-06,-2.660
2.300E-06,-2.660
2.310E-06,-2.660
2.320E-06,-2.660
2.330E-06,-2.660
2.340E-06,-2.660
2.350E-06,-2.660
2.360E-06,-2.660
2.370E-06,-2.660
2.380E-06,-2.660
2.390E-06,-2.660
2.400E-06,-2.640
2.410E-06,-2.580
2.420E-06,-2.500
2.430E-06,-2.460
2.440E-06,-2.440
2.450E-06,-2.360
2.460E-06,-2.360
2.470E-06,-2.380
2.480E-06,-2.380
2.490E-06,-2.380
2.500E-06,-2.380
2.510E-06,-2.360
2.520E-06,-2.420
2.530E-06,-2.440
2.540E-06,-2.460
2.550E-06,-2.480
2.560E-06,-2.520
2.570E-06,-2.580
2.580E-06,-2.580
2.590E-06,-2.640
2.600E-06,-2.660
2.610E-06,-2.660
2.620E-06,-2.640
2.630E-06,-2.620
2.640E-06,-2.580
2.650E-06,-2.540
2.660E-06,-2.480
2.670E-06,-2.420
2.680E-06,-2.360
2.690E-06,-2.300
2.700E-06,-2.220
2.710E-06,-2.220
2.720E-06,-2.200
2.730E-06,-2.220
2.740E-06,-2.240
2.750E-06,-2.280
2.760E-06,-2.320
2.770E-06,-2.320
2.780E-06,-2.340
2.790E-06,-2.400
2.800E-06,-2.440
2.810E-06,-2.500
2.820E-06,-2.540
2.830E-06,-2.560
2.840E-06,-2.560
2.850E-06,-2.560
2.860E-06,-2.580
2.870E-06,-2.540
2.880E-06,-2.560
2.890E-06,-2.560
2.900E-06,-2.540
2.910E-06,-2.580
2.920E-06,-2.560
2.930E-06,-2.560
2.940E-06,-2.580
2.950E-06,-2.580
2.960E-06,-2.540
2.970E-06,-2.520
2.980E-06,-2.500
2.990E-06,-2.460
3.000E-06,-2.380
3.010E-06,-2.300
3.020E-06,-2.180
3.030E-06,-2.020
3.040E-06,-1.960
3.050E-06,-1.820
3.060E-06,-1.720
3.070E-06,-1.660
3.080E-06,-1.620
3.090E-06,-1.560
3.100E-06,-1.520
3.110E-06,-1.520
3.120E-06,-1.540
3.130E-06,-1.560
3.140E-06,-1.560
3.150E-06,-1.580
3.160E-06,-1.580
3.170E-06,-1.560
