mediciones/Mediciones filtradas (saque las feas)/5-15/5.9/WaveData47567.csv

#timebase=2000000(ps)
,#voltbase=100000(mv/100)
#size=4000
-8.400E-06,0.020
-8.390E-06,0.020
-8.380E-06,0.024
-8.370E-06,0.004
-8.360E-06,-0.004
-8.350E-06,-0.008
-8.340E-06,-0.004
-8.330E-06,-0.004
-8.320E-06,0.008
-8.310E-06,0.016
-8.300E-06,0.008
-8.290E-06,0.012
-8.280E-06,0.000
-8.270E-06,-0.004
-8.260E-06,-0.008
-8.250E-06,-0.004
-8.240E-06,0.004
-8.230E-06,0.012
-8.220E-06,0.012
-8.210E-06,0.016
-8.200E-06,-0.004
-8.190E-06,-0.004
-8.180E-06,-0.004
-8.170E-06,0.004
-8.160E-06,0.012
-8.150E-06,0.016
-8.140E-06,0.016
-8.130E-06,0.008
-8.120E-06,-0.004
-8.110E-06,0.000
-8.100E-06,0.004
-8.090E-06,0.012
-8.080E-06,0.016
-8.070E-06,0.004
-8.060E-06,-0.004
-8.050E-06,-0.012
-8.040E-06,-0.012
-8.030E-06,0.000
-8.020E-06,0.008
-8.010E-06,0.024
-8.000E-06,0.028
-7.990E-06,0.024
-7.980E-06,0.000
-7.970E-06,-0.024
-7.960E-06,-0.024
-7.950E-06,-0.008
-7.940E-06,-0.012
-7.930E-06,0.012
-7.920E-06,0.008
-7.910E-06,-0.004
-7.900E-06,0.008
-7.890E-06,0.012
-7.880E-06,0.016
-7.870E-06,0.000
-7.860E-06,-0.008
-7.850E-06,-0.024
-7.840E-06,-0.024
-7.830E-06,-0.004
-7.820E-06,0.024
-7.810E-06,0.028
-7.800E-06,0.032
-7.790E-06,0.004
-7.780E-06,-0.024
-7.770E-06,-0.024
-7.760E-06,-0.020
-7.750E-06,0.008
-7.740E-06,0.028
-7.730E-06,0.032
-7.720E-06,0.012
-7.710E-06,0.000
-7.700E-06,-0.020
-7.690E-06,-0.024
-7.680E-06,0.000
-7.670E-06,0.004
-7.660E-06,0.016
-7.650E-06,0.020
-7.640E-06,0.012
-7.630E-06,0.004
-7.620E-06,-0.004
-7.610E-06,-0.008
-7.600E-06,-0.008
-7.590E-06,0.000
-7.580E-06,0.008
-7.570E-06,0.016
-7.560E-06,0.016
-7.550E-06,0.012
-7.540E-06,-0.004
-7.530E-06,-0.008
-7.520E-06,-0.008
-7.510E-06,0.000
-7.500E-06,0.008
-7.490E-06,0.020
-7.480E-06,0.024
-7.470E-06,0.012
-7.460E-06,-0.004
-7.450E-06,-0.008
-7.440E-06,-0.008
-7.430E-06,-0.004
-7.420E-06,0.016
-7.410E-06,0.032
-7.400E-06,0.032
-7.390E-06,0.028
-7.380E-06,0.016
-7.370E-06,-0.028
-7.360E-06,-0.048
-7.350E-06,-0.032
-7.340E-06,-0.004
-7.330E-06,0.028
-7.320E-06,0.048
-7.310E-06,0.036
-7.300E-06,0.004
-7.290E-06,-0.016
-7.280E-06,-0.032
-7.270E-06,-0.024
-7.260E-06,0.004
-7.250E-06,0.032
-7.240E-06,0.040
-7.230E-06,0.024
-7.220E-06,-0.004
-7.210E-06,-0.024
-7.200E-06,-0.020
-7.190E-06,-0.004
-7.180E-06,0.020
-7.170E-06,0.040
-7.160E-06,0.028
-7.150E-06,0.016
-7.140E-06,-0.004
-7.130E-06,-0.024
-7.120E-06,-0.036
-7.110E-06,-0.020
-7.100E-06,0.004
-7.090E-06,0.024
-7.080E-06,0.024
-7.070E-06,0.016
-7.060E-06,0.008
-7.050E-06,-0.008
-7.040E-06,-0.020
-7.030E-06,-0.020
-7.020E-06,-0.008
-7.010E-06,0.000
-7.000E-06,0.032
-6.990E-06,0.024
-6.980E-06,0.016
-6.970E-06,0.004
-6.960E-06,0.004
-6.950E-06,-0.004
-6.940E-06,-0.008
-6.930E-06,-0.012
-6.920E-06,-0.020
-6.910E-06,-0.004
-6.900E-06,0.012
-6.890E-06,0.036
-6.880E-06,0.032
-6.870E-06,0.008
-6.860E-06,-0.024
-6.850E-06,-0.020
-6.840E-06,-0.012
-6.830E-06,0.012
-6.820E-06,0.032
-6.810E-06,0.032
-6.800E-06,0.012
-6.790E-06,-0.008
-6.780E-06,-0.024
-6.770E-06,-0.020
-6.760E-06,0.000
-6.750E-06,0.020
-6.740E-06,0.020
-6.730E-06,0.016
-6.720E-06,0.012
-6.710E-06,0.012
-6.700E-06,0.004
-6.690E-06,0.004
-6.680E-06,0.012
-6.670E-06,-0.004
-6.660E-06,-0.016
-6.650E-06,-0.004
-6.640E-06,-0.004
-6.630E-06,0.012
-6.620E-06,0.024
-6.610E-06,0.012
-6.600E-06,0.000
-6.590E-06,-0.008
-6.580E-06,-0.012
-6.570E-06,-0.004
-6.560E-06,0.004
-6.550E-06,0.024
-6.540E-06,0.024
-6.530E-06,0.008
-6.520E-06,0.000
-6.510E-06,-0.004
-6.500E-06,-0.004
-6.490E-06,0.008
-6.480E-06,0.012
-6.470E-06,0.016
-6.460E-06,0.016
-6.450E-06,0.028
-6.440E-06,0.000
-6.430E-06,-0.020
-6.420E-06,-0.024
-6.410E-06,-0.012
-6.400E-06,0.000
-6.390E-06,0.024
-6.380E-06,0.020
-6.370E-06,0.008
-6.360E-06,0.000
-6.350E-06,-0.004
-6.340E-06,-0.004
-6.330E-06,0.000
-6.320E-06,0.004
-6.310E-06,0.008
-6.300E-06,0.004
-6.290E-06,0.000
-6.280E-06,0.004
-6.270E-06,0.012
-6.260E-06,0.016
-6.250E-06,0.008
-6.240E-06,0.000
-6.230E-06,-0.004
-6.220E-06,-0.004
-6.210E-06,0.004
-6.200E-06,0.016
-6.190E-06,0.024
-6.180E-06,0.020
-6.170E-06,0.020
-6.160E-06,0.012
-6.150E-06,0.012
-6.140E-06,-0.008
-6.130E-06,-0.020
-6.120E-06,0.000
-6.110E-06,-0.004
-6.100E-06,0.008
-6.090E-06,0.028
-6.080E-06,0.020
-6.070E-06,-0.008
-6.060E-06,-0.004
-6.050E-06,-0.004
-6.040E-06,-0.008
-6.030E-06,0.016
-6.020E-06,0.024
-6.010E-06,0.020
-6.000E-06,0.004
-5.990E-06,-0.004
-5.980E-06,-0.016
-5.970E-06,-0.004
-5.960E-06,0.000
-5.950E-06,0.008
-5.940E-06,0.024
-5.930E-06,0.016
-5.920E-06,0.012
-5.910E-06,0.012
-5.900E-06,-0.008
-5.890E-06,-0.004
-5.880E-06,0.008
-5.870E-06,0.008
-5.860E-06,0.024
-5.850E-06,0.024
-5.840E-06,0.016
-5.830E-06,0.012
-5.820E-06,-0.056
-5.810E-06,-0.088
-5.800E-06,-0.112
-5.790E-06,-0.036
-5.780E-06,0.068
-5.770E-06,0.144
-5.760E-06,0.104
-5.750E-06,-0.004
-5.740E-06,-0.104
-5.730E-06,-0.124
-5.720E-06,-0.064
-5.710E-06,0.048
-5.700E-06,0.124
-5.690E-06,0.100
-5.680E-06,0.020
-5.670E-06,-0.068
-5.660E-06,-0.092
-5.650E-06,-0.056
-5.640E-06,0.012
-5.630E-06,0.064
-5.620E-06,0.072
-5.610E-06,0.040
-5.600E-06,-0.008
-5.590E-06,-0.032
-5.580E-06,-0.040
-5.570E-06,-0.016
-5.560E-06,-0.004
-5.550E-06,0.020
-5.540E-06,0.020
-5.530E-06,0.024
-5.520E-06,0.024
-5.510E-06,0.004
-5.500E-06,-0.024
-5.490E-06,-0.032
-5.480E-06,-0.032
-5.470E-06,0.000
-5.460E-06,0.032
-5.450E-06,0.056
-5.440E-06,0.040
-5.430E-06,-0.004
-5.420E-06,-0.032
-5.410E-06,-0.044
-5.400E-06,-0.024
-5.390E-06,0.012
-5.380E-06,0.056
-5.370E-06,0.052
-5.360E-06,0.020
-5.350E-06,-0.012
-5.340E-06,-0.044
-5.330E-06,-0.036
-5.320E-06,-0.008
-5.310E-06,0.036
-5.300E-06,0.052
-5.290E-06,0.048
-5.280E-06,0.024
-5.270E-06,-0.004
-5.260E-06,-0.020
-5.250E-06,-0.008
-5.240E-06,0.008
-5.230E-06,0.012
-5.220E-06,0.020
-5.210E-06,0.000
-5.200E-06,-0.012
-5.190E-06,-0.008
-5.180E-06,-0.004
-5.170E-06,0.016
-5.160E-06,0.024
-5.150E-06,0.036
-5.140E-06,0.024
-5.130E-06,0.004
-5.120E-06,-0.012
-5.110E-06,-0.020
-5.100E-06,-0.024
-5.090E-06,-0.028
-5.080E-06,-0.008
-5.070E-06,0.012
-5.060E-06,0.024
-5.050E-06,0.032
-5.040E-06,0.020
-5.030E-06,0.008
-5.020E-06,0.000
-5.010E-06,-0.020
-5.000E-06,-0.024
-4.990E-06,-0.020
-4.980E-06,0.024
-4.970E-06,0.076
-4.960E-06,0.048
-4.950E-06,-0.004
-4.940E-06,-0.008
-4.930E-06,-0.032
-4.920E-06,-0.080
-4.910E-06,-0.060
-4.900E-06,-0.036
-4.890E-06,0.024
-4.880E-06,0.076
-4.870E-06,0.092
-4.860E-06,0.016
-4.850E-06,-0.072
-4.840E-06,-0.096
-4.830E-06,-0.040
-4.820E-06,0.020
-4.810E-06,0.068
-4.800E-06,0.072
-4.790E-06,0.032
-4.780E-06,-0.008
-4.770E-06,-0.040
-4.760E-06,-0.036
-4.750E-06,-0.016
-4.740E-06,0.024
-4.730E-06,0.044
-4.720E-06,0.044
-4.710E-06,0.024
-4.700E-06,-0.012
-4.690E-06,-0.028
-4.680E-06,-0.028
-4.670E-06,-0.004
-4.660E-06,0.012
-4.650E-06,0.024
-4.640E-06,0.020
-4.630E-06,0.008
-4.620E-06,-0.004
-4.610E-06,-0.008
-4.600E-06,-0.008
-4.590E-06,0.004
-4.580E-06,0.012
-4.570E-06,0.012
-4.560E-06,0.004
-4.550E-06,-0.004
-4.540E-06,-0.004
-4.530E-06,-0.008
-4.520E-06,0.008
-4.510E-06,0.012
-4.500E-06,0.016
-4.490E-06,0.020
-4.480E-06,0.016
-4.470E-06,0.008
-4.460E-06,0.000
-4.450E-06,0.008
-4.440E-06,0.020
-4.430E-06,0.032
-4.420E-06,0.040
-4.410E-06,0.020
-4.400E-06,-0.004
-4.390E-06,-0.028
-4.380E-06,-0.040
-4.370E-06,-0.020
-4.360E-06,0.004
-4.350E-06,0.052
-4.340E-06,0.052
-4.330E-06,0.024
-4.320E-06,0.000
-4.310E-06,-0.036
-4.300E-06,-0.036
-4.290E-06,0.000
-4.280E-06,0.028
-4.270E-06,0.044
-4.260E-06,0.044
-4.250E-06,0.016
-4.240E-06,0.000
-4.230E-06,-0.016
-4.220E-06,-0.016
-4.210E-06,-0.008
-4.200E-06,0.000
-4.190E-06,0.020
-4.180E-06,0.044
-4.170E-06,0.068
-4.160E-06,0.064
-4.150E-06,0.008
-4.140E-06,-0.040
-4.130E-06,-0.080
-4.120E-06,-0.060
-4.110E-06,-0.024
-4.100E-06,0.036
-4.090E-06,0.060
-4.080E-06,0.060
-4.070E-06,0.036
-4.060E-06,-0.004
-4.050E-06,-0.036
-4.040E-06,-0.040
-4.030E-06,-0.028
-4.020E-06,-0.012
-4.010E-06,0.012
-4.000E-06,0.016
-3.990E-06,0.024
-3.980E-06,0.028
-3.970E-06,0.056
-3.960E-06,0.040
-3.950E-06,-0.008
-3.940E-06,-0.052
-3.930E-06,-0.072
-3.920E-06,-0.040
-3.910E-06,-0.004
-3.900E-06,0.040
-3.890E-06,0.036
-3.880E-06,0.040
-3.870E-06,0.016
-3.860E-06,-0.012
-3.850E-06,-0.044
-3.840E-06,-0.032
-3.830E-06,0.000
-3.820E-06,0.052
-3.810E-06,0.076
-3.800E-06,0.072
-3.790E-06,0.000
-3.780E-06,-0.080
-3.770E-06,-0.108
-3.760E-06,-0.072
-3.750E-06,-0.004
-3.740E-06,0.068
-3.730E-06,0.104
-3.720E-06,0.080
-3.710E-06,0.024
-3.700E-06,-0.056
-3.690E-06,-0.080
-3.680E-06,-0.060
-3.670E-06,0.008
-3.660E-06,0.080
-3.650E-06,0.112
-3.640E-06,0.092
-3.630E-06,0.016
-3.620E-06,-0.060
-3.610E-06,-0.100
-3.600E-06,-0.084
-3.590E-06,-0.020
-3.580E-06,0.056
-3.570E-06,0.124
-3.560E-06,0.124
-3.550E-06,0.108
-3.540E-06,0.012
-3.530E-06,-0.072
-3.520E-06,-0.124
-3.510E-06,-0.128
-3.500E-06,-0.064
-3.490E-06,0.032
-3.480E-06,0.136
-3.470E-06,0.160
-3.460E-06,0.100
-3.450E-06,-0.020
-3.440E-06,-0.108
-3.430E-06,-0.136
-3.420E-06,-0.124
-3.410E-06,-0.056
-3.400E-06,0.040
-3.390E-06,0.104
-3.380E-06,0.112
-3.370E-06,0.044
-3.360E-06,-0.044
-3.350E-06,-0.108
-3.340E-06,-0.108
-3.330E-06,-0.040
-3.320E-06,0.048
-3.310E-06,0.112
-3.300E-06,0.108
-3.290E-06,0.044
-3.280E-06,-0.036
-3.270E-06,-0.088
-3.260E-06,-0.072
-3.250E-06,-0.008
-3.240E-06,0.064
-3.230E-06,0.096
-3.220E-06,0.072
-3.210E-06,0.012
-3.200E-06,-0.048
-3.190E-06,-0.072
-3.180E-06,-0.052
-3.170E-06,-0.012
-3.160E-06,0.052
-3.150E-06,0.076
-3.140E-06,0.068
-3.130E-06,0.024
-3.120E-06,-0.028
-3.110E-06,-0.076
-3.100E-06,-0.068
-3.090E-06,-0.024
-3.080E-06,0.044
-3.070E-06,0.088
-3.060E-06,0.080
-3.050E-06,0.044
-3.040E-06,0.000
-3.030E-06,-0.040
-3.020E-06,-0.044
-3.010E-06,-0.024
-3.000E-06,0.004
-2.990E-06,0.004
-2.980E-06,0.004
-2.970E-06,-0.004
-2.960E-06,-0.008
-2.950E-06,-0.008
-2.940E-06,0.004
-2.930E-06,0.012
-2.920E-06,0.012
-2.910E-06,0.004
-2.900E-06,-0.004
-2.890E-06,-0.004
-2.880E-06,-0.004
-2.870E-06,0.004
-2.860E-06,0.008
-2.850E-06,0.012
-2.840E-06,0.000
-2.830E-06,0.000
-2.820E-06,-0.004
-2.810E-06,0.004
-2.800E-06,0.020
-2.790E-06,0.028
-2.780E-06,0.028
-2.770E-06,0.008
-2.760E-06,0.008
-2.750E-06,0.004
-2.740E-06,0.012
-2.730E-06,0.020
-2.720E-06,0.032
-2.710E-06,0.044
-2.700E-06,0.044
-2.690E-06,0.044
-2.680E-06,0.036
-2.670E-06,0.048
-2.660E-06,0.068
-2.650E-06,0.092
-2.640E-06,0.088
-2.630E-06,0.040
-2.620E-06,0.008
-2.610E-06,-0.052
-2.600E-06,-0.028
-2.590E-06,-0.036
-2.580E-06,-0.044
-2.570E-06,-0.040
-2.560E-06,-0.080
-2.550E-06,-0.068
-2.540E-06,-0.052
-2.530E-06,0.032
-2.520E-06,0.076
-2.510E-06,0.080
-2.500E-06,0.020
-2.490E-06,-0.044
-2.480E-06,-0.080
-2.470E-06,-0.048
-2.460E-06,0.024
-2.450E-06,0.072
-2.440E-06,0.092
-2.430E-06,0.064
-2.420E-06,-0.008
-2.410E-06,-0.072
-2.400E-06,-0.076
-2.390E-06,-0.044
-2.380E-06,0.020
-2.370E-06,0.060
-2.360E-06,0.076
-2.350E-06,0.076
-2.340E-06,0.036
-2.330E-06,0.028
-2.320E-06,0.012
-2.310E-06,0.040
-2.300E-06,0.072
-2.290E-06,0.156
-2.280E-06,0.136
-2.270E-06,0.052
-2.260E-06,-0.024
-2.250E-06,-0.148
-2.240E-06,-0.168
-2.230E-06,-0.100
-2.220E-06,0.060
-2.210E-06,0.112
-2.200E-06,0.100
-2.190E-06,0.008
-2.180E-06,-0.076
-2.170E-06,-0.116
-2.160E-06,-0.116
-2.150E-06,-0.068
-2.140E-06,-0.036
-2.130E-06,-0.004
-2.120E-06,0.000
-2.110E-06,0.040
-2.100E-06,0.020
-2.090E-06,0.032
-2.080E-06,0.004
-2.070E-06,-0.060
-2.060E-06,-0.112
-2.050E-06,-0.100
-2.040E-06,0.020
-2.030E-06,0.096
-2.020E-06,0.088
-2.010E-06,0.000
-2.000E-06,-0.064
-1.990E-06,-0.100
-1.980E-06,-0.020
-1.970E-06,0.084
-1.960E-06,0.156
-1.950E-06,0.148
-1.940E-06,0.068
-1.930E-06,-0.072
-1.920E-06,-0.192
-1.910E-06,-0.176
-1.900E-06,-0.064
-1.890E-06,0.096
-1.880E-06,0.204
-1.870E-06,0.204
-1.860E-06,0.032
-1.850E-06,-0.124
-1.840E-06,-0.248
-1.830E-06,-0.204
-1.820E-06,-0.064
-1.810E-06,0.092
-1.800E-06,0.196
-1.790E-06,0.184
-1.780E-06,0.076
-1.770E-06,-0.076
-1.760E-06,-0.164
-1.750E-06,-0.176
-1.740E-06,-0.072
-1.730E-06,0.064
-1.720E-06,0.172
-1.710E-06,0.184
-1.700E-06,0.112
-1.690E-06,-0.024
-1.680E-06,-0.144
-1.670E-06,-0.172
-1.660E-06,-0.096
-1.650E-06,0.044
-1.640E-06,0.160
-1.630E-06,0.204
-1.620E-06,0.144
-1.610E-06,0.036
-1.600E-06,-0.068
-1.590E-06,-0.092
-1.580E-06,-0.040
-1.570E-06,0.072
-1.560E-06,0.180
-1.550E-06,0.224
-1.540E-06,0.200
-1.530E-06,0.100
-1.520E-06,0.024
-1.510E-06,-0.040
-1.500E-06,-0.004
-1.490E-06,0.024
-1.480E-06,0.064
-1.470E-06,0.024
-1.460E-06,-0.036
-1.450E-06,-0.084
-1.440E-06,-0.116
-1.430E-06,-0.064
-1.420E-06,0.004
-1.410E-06,0.088
-1.400E-06,0.112
-1.390E-06,0.124
-1.380E-06,0.072
-1.370E-06,0.028
-1.360E-06,0.016
-1.350E-06,0.044
-1.340E-06,0.092
-1.330E-06,0.060
-1.320E-06,-0.012
-1.310E-06,-0.084
-1.300E-06,-0.120
-1.290E-06,-0.140
-1.280E-06,-0.076
-1.270E-06,-0.036
-1.260E-06,-0.028
-1.250E-06,0.004
-1.240E-06,-0.004
-1.230E-06,0.008
-1.220E-06,0.032
-1.210E-06,0.200
-1.200E-06,0.172
-1.190E-06,0.112
-1.180E-06,-0.104
-1.170E-06,-0.324
-1.160E-06,-0.388
-1.150E-06,-0.292
-1.140E-06,-0.072
-1.130E-06,0.132
-1.120E-06,0.316
-1.110E-06,0.296
-1.100E-06,0.076
-1.090E-06,-0.244
-1.080E-06,-0.348
-1.070E-06,-0.256
-1.060E-06,-0.004
-1.050E-06,0.192
-1.040E-06,0.248
-1.030E-06,0.152
-1.020E-06,-0.008
-1.010E-06,-0.112
-1.000E-06,-0.120
-9.900E-07,-0.008
-9.800E-07,0.096
-9.700E-07,0.156
-9.600E-07,0.160
-9.500E-07,0.064
-9.400E-07,-0.132
-9.300E-07,-0.220
-9.200E-07,-0.236
-9.100E-07,-0.180
-9.000E-07,-0.076
-8.900E-07,0.128
-8.800E-07,0.216
-8.700E-07,0.168
-8.600E-07,0.012
-8.500E-07,-0.132
-8.400E-07,-0.180
-8.300E-07,-0.128
-8.200E-07,0.032
-8.100E-07,0.160
-8.000E-07,0.192
-7.900E-07,0.096
-7.800E-07,-0.020
-7.700E-07,-0.120
-7.600E-07,-0.112
-7.500E-07,-0.024
-7.400E-07,0.084
-7.300E-07,0.156
-7.200E-07,0.148
-7.100E-07,0.084
-7.000E-07,-0.004
-6.900E-07,-0.024
-6.800E-07,-0.012
-6.700E-07,0.064
-6.600E-07,0.156
-6.500E-07,0.228
-6.400E-07,0.260
-6.300E-07,0.228
-6.200E-07,0.172
-6.100E-07,0.128
-6.000E-07,0.108
-5.900E-07,0.132
-5.800E-07,0.168
-5.700E-07,0.180
-5.600E-07,0.144
-5.500E-07,0.088
-5.400E-07,0.096
-5.300E-07,0.020
-5.200E-07,-0.144
-5.100E-07,-0.300
-5.000E-07,-0.448
-4.900E-07,-0.416
-4.800E-07,-0.296
-4.700E-07,-0.012
-4.600E-07,0.184
-4.500E-07,0.260
-4.400E-07,0.144
-4.300E-07,-0.052
-4.200E-07,-0.212
-4.100E-07,-0.260
-4.000E-07,-0.096
-3.900E-07,0.132
-3.800E-07,0.360
-3.700E-07,0.392
-3.600E-07,0.276
-3.500E-07,0.040
-3.400E-07,-0.136
-3.300E-07,-0.156
-3.200E-07,-0.188
-3.100E-07,-0.220
-3.000E-07,-0.196
-2.900E-07,-0.240
-2.800E-07,-0.240
-2.700E-07,-0.228
-2.600E-07,-0.060
-2.500E-07,0.232
-2.400E-07,0.280
-2.300E-07,0.196
-2.200E-07,0.024
-2.100E-07,-0.120
-2.000E-07,-0.108
-1.900E-07,-0.012
-1.800E-07,0.132
-1.700E-07,0.252
-1.600E-07,0.380
-1.500E-07,0.208
-1.400E-07,-0.064
-1.300E-07,-0.380
-1.200E-07,-0.392
-1.100E-07,-0.200
-1.000E-07,-0.004
-9.000E-08,0.192
-8.000E-08,0.320
-7.000E-08,0.240
-6.000E-08,-0.084
-5.000E-08,-0.392
-4.000E-08,-0.508
-3.000E-08,-0.472
-2.000E-08,-0.072
-1.000E-08,0.316
0.000E+00,0.540
1.000E-08,0.396
2.000E-08,0.072
3.000E-08,-0.332
4.000E-08,-0.496
5.000E-08,-0.404
6.000E-08,0.000
7.000E-08,0.328
8.000E-08,0.464
9.000E-08,0.308
1.000E-07,-0.024
1.100E-07,-0.288
1.200E-07,-0.396
1.300E-07,-0.248
1.400E-07,0.004
1.500E-07,0.264
1.600E-07,0.356
1.700E-07,0.292
1.800E-07,0.056
1.900E-07,-0.172
2.000E-07,-0.292
2.100E-07,-0.228
2.200E-07,-0.032
2.300E-07,0.188
2.400E-07,0.312
2.500E-07,0.248
2.600E-07,0.088
2.700E-07,-0.136
2.800E-07,-0.216
2.900E-07,-0.188
3.000E-07,-0.040
3.100E-07,0.140
3.200E-07,0.248
3.300E-07,0.244
3.400E-07,0.120
3.500E-07,-0.044
3.600E-07,-0.144
3.700E-07,-0.104
3.800E-07,0.032
3.900E-07,0.200
4.000E-07,0.264
4.100E-07,0.256
4.200E-07,0.176
4.300E-07,0.072
4.400E-07,-0.024
4.500E-07,-0.032
4.600E-07,0.068
4.700E-07,0.204
4.800E-07,0.332
4.900E-07,0.352
5.000E-07,0.300
5.100E-07,0.208
5.200E-07,0.144
5.300E-07,0.136
5.400E-07,0.176
5.500E-07,0.240
5.600E-07,0.292
5.700E-07,0.328
5.800E-07,0.292
5.900E-07,0.192
6.000E-07,0.064
6.100E-07,-0.056
6.200E-07,-0.140
6.300E-07,-0.068
6.400E-07,0.032
6.500E-07,0.092
6.600E-07,0.024
6.700E-07,-0.056
6.800E-07,0.016
6.900E-07,0.020
7.000E-07,-0.152
7.100E-07,-0.392
7.200E-07,-0.512
7.300E-07,-0.512
7.400E-07,-0.512
7.500E-07,-0.164
7.600E-07,0.260
7.700E-07,0.468
7.800E-07,0.044
7.900E-07,-0.512
8.000E-07,-0.508
8.100E-07,-0.508
8.200E-07,-0.304
8.300E-07,0.312
8.400E-07,0.536
8.500E-07,0.504
8.600E-07,0.060
8.700E-07,-0.420
8.800E-07,-0.504
8.900E-07,-0.324
9.000E-07,0.092
9.100E-07,0.320
9.200E-07,0.476
9.300E-07,0.288
9.400E-07,0.056
9.500E-07,-0.216
9.600E-07,-0.296
9.700E-07,-0.204
9.800E-07,-0.004
9.900E-07,0.244
1.000E-06,0.324
1.010E-06,0.276
1.020E-06,0.044
1.030E-06,-0.140
1.040E-06,-0.268
1.050E-06,-0.180
1.060E-06,-0.004
1.070E-06,0.188
1.080E-06,0.288
1.090E-06,0.256
1.100E-06,0.116
1.110E-06,-0.032
1.120E-06,-0.108
1.130E-06,-0.076
1.140E-06,0.084
1.150E-06,0.180
1.160E-06,0.236
1.170E-06,0.188
1.180E-06,0.112
1.190E-06,0.032
1.200E-06,0.012
1.210E-06,0.052
1.220E-06,0.176
1.230E-06,0.288
1.240E-06,0.312
1.250E-06,0.288
1.260E-06,0.192
1.270E-06,0.124
1.280E-06,0.108
1.290E-06,0.156
1.300E-06,0.220
1.310E-06,0.292
1.320E-06,0.320
1.330E-06,0.288
1.340E-06,0.232
1.350E-06,0.164
1.360E-06,0.148
1.370E-06,0.164
1.380E-06,0.224
1.390E-06,0.260
1.400E-06,0.284
1.410E-06,0.272
1.420E-06,0.240
1.430E-06,0.204
1.440E-06,0.180
1.450E-06,0.196
1.460E-06,0.224
1.470E-06,0.268
1.480E-06,0.292
1.490E-06,0.296
1.500E-06,0.260
1.510E-06,0.212
1.520E-06,0.188
1.530E-06,0.188
1.540E-06,0.212
1.550E-06,0.240
1.560E-06,0.272
1.570E-06,0.264
1.580E-06,0.240
1.590E-06,0.208
1.600E-06,0.188
1.610E-06,0.172
1.620E-06,0.200
1.630E-06,0.232
1.640E-06,0.272
1.650E-06,0.280
1.660E-06,0.276
1.670E-06,0.244
1.680E-06,0.192
1.690E-06,0.124
1.700E-06,0.044
1.710E-06,-0.004
1.720E-06,-0.040
1.730E-06,-0.016
1.740E-06,0.028
1.750E-06,0.108
1.760E-06,0.152
1.770E-06,0.156
1.780E-06,0.132
1.790E-06,0.096
1.800E-06,0.068
1.810E-06,0.032
1.820E-06,0.028
1.830E-06,0.008
1.840E-06,0.020
1.850E-06,-0.016
1.860E-06,-0.072
1.870E-06,-0.068
1.880E-06,-0.004
1.890E-06,0.056
1.900E-06,0.104
1.910E-06,0.152
1.920E-06,0.184
1.930E-06,0.188
1.940E-06,0.192
1.950E-06,0.232
1.960E-06,0.280
1.970E-06,0.296
1.980E-06,0.280
1.990E-06,0.264
2.000E-06,0.252
2.010E-06,0.236
2.020E-06,0.264
2.030E-06,0.288
2.040E-06,0.280
2.050E-06,0.272
2.060E-06,0.256
2.070E-06,0.236
2.080E-06,0.228
2.090E-06,0.224
2.100E-06,0.224
2.110E-06,0.220
2.120E-06,0.228
2.130E-06,0.224
2.140E-06,0.220
2.150E-06,0.220
2.160E-06,0.224
2.170E-06,0.228
2.180E-06,0.232
2.190E-06,0.244
2.200E-06,0.256
2.210E-06,0.260
2.220E-06,0.260
2.230E-06,0.260
2.240E-06,0.248
2.250E-06,0.240
2.260E-06,0.244
2.270E-06,0.240
2.280E-06,0.252
2.290E-06,0.252
2.300E-06,0.256
2.310E-06,0.252
2.320E-06,0.240
2.330E-06,0.240
2.340E-06,0.240
2.350E-06,0.240
2.360E-06,0.240
2.370E-06,0.240
2.380E-06,0.240
2.390E-06,0.240
2.400E-06,0.240
2.410E-06,0.232
2.420E-06,0.228
2.430E-06,0.224
2.440E-06,0.228
2.450E-06,0.232
2.460E-06,0.232
2.470E-06,0.236
2.480E-06,0.232
2.490E-06,0.236
2.500E-06,0.232
2.510E-06,0.224
2.520E-06,0.224
2.530E-06,0.224
2.540E-06,0.232
2.550E-06,0.236
2.560E-06,0.244
2.570E-06,0.248
2.580E-06,0.240
2.590E-06,0.228
2.600E-06,0.232
2.610E-06,0.224
2.620E-06,0.224
2.630E-06,0.228
2.640E-06,0.236
2.650E-06,0.236
2.660E-06,0.228
2.670E-06,0.220
2.680E-06,0.220
2.690E-06,0.208
2.700E-06,0.208
2.710E-06,0.216
2.720E-06,0.224
2.730E-06,0.236
2.740E-06,0.232
2.750E-06,0.228
2.760E-06,0.220
2.770E-06,0.216
2.780E-06,0.216
2.790E-06,0.216
2.800E-06,0.224
2.810E-06,0.232
2.820E-06,0.232
2.830E-06,0.228
2.840E-06,0.224
2.850E-06,0.208
2.860E-06,0.200
2.870E-06,0.208
2.880E-06,0.216
2.890E-06,0.228
2.900E-06,0.236
2.910E-06,0.236
2.920E-06,0.228
2.930E-06,0.216
2.940E-06,0.216
2.950E-06,0.224
2.960E-06,0.240
2.970E-06,0.252
2.980E-06,0.256
2.990E-06,0.256
3.000E-06,0.232
3.010E-06,0.204
3.020E-06,0.192
3.030E-06,0.196
3.040E-06,0.220
3.050E-06,0.236
3.060E-06,0.240
3.070E-06,0.236
3.080E-06,0.216
3.090E-06,0.196
3.100E-06,0.184
3.110E-06,0.192
3.120E-06,0.204
3.130E-06,0.228
3.140E-06,0.236
3.150E-06,0.244
3.160E-06,0.228
3.170E-06,0.200
3.180E-06,0.188
3.190E-06,0.176
3.200E-06,0.184
3.210E-06,0.208
3.220E-06,0.224
3.230E-06,0.240
3.240E-06,0.232
3.250E-06,0.208
3.260E-06,0.176
3.270E-06,0.164
