mediciones/Mediciones filtradas (saque las feas)/5-15/5.9/WaveData47562.csv

#timebase=2000000(ps)
,#voltbase=500000(mv/100)
#size=4000
-8.400E-06,-0.260
-8.390E-06,-0.180
-8.380E-06,-0.140
-8.370E-06,-0.180
-8.360E-06,-0.180
-8.350E-06,-0.200
-8.340E-06,-0.140
-8.330E-06,-0.080
-8.320E-06,-0.060
-8.310E-06,-0.040
-8.300E-06,-0.080
-8.290E-06,-0.100
-8.280E-06,-0.060
-8.270E-06,-0.020
-8.260E-06,0.040
-8.250E-06,0.060
-8.240E-06,0.080
-8.230E-06,0.000
-8.220E-06,0.040
-8.210E-06,0.020
-8.200E-06,0.080
-8.190E-06,0.080
-8.180E-06,0.100
-8.170E-06,0.060
-8.160E-06,0.060
-8.150E-06,0.080
-8.140E-06,0.100
-8.130E-06,0.120
-8.120E-06,0.080
-8.110E-06,0.060
-8.100E-06,0.040
-8.090E-06,0.020
-8.080E-06,0.040
-8.070E-06,0.060
-8.060E-06,0.100
-8.050E-06,0.080
-8.040E-06,0.060
-8.030E-06,0.020
-8.020E-06,-0.060
-8.010E-06,-0.080
-8.000E-06,-0.080
-7.990E-06,-0.040
-7.980E-06,-0.080
-7.970E-06,-0.120
-7.960E-06,-0.140
-7.950E-06,-0.180
-7.940E-06,-0.180
-7.930E-06,-0.120
-7.920E-06,-0.120
-7.910E-06,-0.180
-7.900E-06,-0.160
-7.890E-06,-0.140
-7.880E-06,-0.140
-7.870E-06,-0.100
-7.860E-06,-0.080
-7.850E-06,-0.100
-7.840E-06,-0.140
-7.830E-06,-0.160
-7.820E-06,-0.160
-7.810E-06,-0.100
-7.800E-06,-0.140
-7.790E-06,0.040
-7.780E-06,-0.160
-7.770E-06,-0.120
-7.760E-06,-0.300
-7.750E-06,-0.380
-7.740E-06,-0.320
-7.730E-06,-0.260
-7.720E-06,-0.200
-7.710E-06,-0.160
-7.700E-06,-0.280
-7.690E-06,-0.240
-7.680E-06,-0.200
-7.670E-06,-0.120
-7.660E-06,-0.040
-7.650E-06,-0.020
-7.640E-06,-0.080
-7.630E-06,-0.080
-7.620E-06,-0.080
-7.610E-06,-0.020
-7.600E-06,-0.020
-7.590E-06,0.060
-7.580E-06,0.060
-7.570E-06,0.020
-7.560E-06,0.020
-7.550E-06,0.000
-7.540E-06,0.020
-7.530E-06,0.080
-7.520E-06,0.080
-7.510E-06,0.040
-7.500E-06,0.020
-7.490E-06,0.040
-7.480E-06,0.080
-7.470E-06,0.100
-7.460E-06,0.060
-7.450E-06,0.080
-7.440E-06,0.020
-7.430E-06,0.000
-7.420E-06,0.040
-7.410E-06,0.080
-7.400E-06,0.040
-7.390E-06,-0.020
-7.380E-06,-0.040
-7.370E-06,0.040
-7.360E-06,0.080
-7.350E-06,-0.020
-7.340E-06,-0.020
-7.330E-06,-0.260
-7.320E-06,-0.340
-7.310E-06,-0.340
-7.300E-06,-0.320
-7.290E-06,-0.200
-7.280E-06,-0.240
-7.270E-06,-0.340
-7.260E-06,-0.340
-7.250E-06,-0.340
-7.240E-06,-0.200
-7.230E-06,-0.160
-7.220E-06,-0.160
-7.210E-06,-0.140
-7.200E-06,-0.200
-7.190E-06,-0.180
-7.180E-06,-0.120
-7.170E-06,-0.060
-7.160E-06,-0.040
-7.150E-06,-0.020
-7.140E-06,-0.020
-7.130E-06,-0.020
-7.120E-06,0.020
-7.110E-06,0.060
-7.100E-06,0.080
-7.090E-06,0.060
-7.080E-06,0.060
-7.070E-06,0.060
-7.060E-06,0.040
-7.050E-06,0.080
-7.040E-06,0.080
-7.030E-06,0.120
-7.020E-06,0.140
-7.010E-06,0.080
-7.000E-06,0.120
-6.990E-06,0.080
-6.980E-06,0.100
-6.970E-06,0.080
-6.960E-06,0.060
-6.950E-06,0.000
-6.940E-06,-0.040
-6.930E-06,-0.120
-6.920E-06,-0.140
-6.910E-06,-0.180
-6.900E-06,-0.160
-6.890E-06,-0.180
-6.880E-06,-0.200
-6.870E-06,-0.200
-6.860E-06,-0.200
-6.850E-06,-0.200
-6.840E-06,-0.220
-6.830E-06,-0.220
-6.820E-06,-0.260
-6.810E-06,-0.240
-6.800E-06,-0.240
-6.790E-06,-0.200
-6.780E-06,-0.200
-6.770E-06,-0.160
-6.760E-06,-0.160
-6.750E-06,-0.120
-6.740E-06,-0.140
-6.730E-06,-0.140
-6.720E-06,-0.120
-6.710E-06,-0.080
-6.700E-06,-0.080
-6.690E-06,-0.060
-6.680E-06,0.040
-6.670E-06,-0.020
-6.660E-06,-0.040
-6.650E-06,-0.040
-6.640E-06,-0.180
-6.630E-06,-0.180
-6.620E-06,-0.140
-6.610E-06,-0.180
-6.600E-06,-0.120
-6.590E-06,-0.200
-6.580E-06,-0.220
-6.570E-06,-0.220
-6.560E-06,-0.180
-6.550E-06,-0.140
-6.540E-06,-0.120
-6.530E-06,-0.120
-6.520E-06,-0.160
-6.510E-06,-0.180
-6.500E-06,-0.100
-6.490E-06,-0.100
-6.480E-06,-0.040
-6.470E-06,-0.080
-6.460E-06,-0.040
-6.450E-06,-0.060
-6.440E-06,-0.100
-6.430E-06,-0.040
-6.420E-06,0.000
-6.410E-06,-0.020
-6.400E-06,0.020
-6.390E-06,0.040
-6.380E-06,0.020
-6.370E-06,-0.020
-6.360E-06,0.020
-6.350E-06,0.040
-6.340E-06,0.060
-6.330E-06,0.000
-6.320E-06,-0.020
-6.310E-06,-0.020
-6.300E-06,0.000
-6.290E-06,0.000
-6.280E-06,0.000
-6.270E-06,-0.040
-6.260E-06,-0.060
-6.250E-06,-0.080
-6.240E-06,-0.120
-6.230E-06,-0.160
-6.220E-06,-0.100
-6.210E-06,-0.140
-6.200E-06,-0.100
-6.190E-06,-0.120
-6.180E-06,-0.140
-6.170E-06,-0.180
-6.160E-06,-0.160
-6.150E-06,-0.180
-6.140E-06,-0.180
-6.130E-06,-0.200
-6.120E-06,-0.220
-6.110E-06,-0.240
-6.100E-06,-0.200
-6.090E-06,-0.240
-6.080E-06,-0.260
-6.070E-06,-0.280
-6.060E-06,-0.360
-6.050E-06,-0.400
-6.040E-06,-0.500
-6.030E-06,-0.420
-6.020E-06,-0.440
-6.010E-06,-0.320
-6.000E-06,-0.280
-5.990E-06,-0.300
-5.980E-06,-0.260
-5.970E-06,-0.340
-5.960E-06,-0.340
-5.950E-06,-0.340
-5.940E-06,-0.360
-5.930E-06,-0.420
-5.920E-06,-0.460
-5.910E-06,-0.500
-5.900E-06,-0.520
-5.890E-06,-0.480
-5.880E-06,-0.420
-5.870E-06,-0.360
-5.860E-06,-0.320
-5.850E-06,-0.320
-5.840E-06,-0.300
-5.830E-06,-0.280
-5.820E-06,-0.240
-5.810E-06,-0.180
-5.800E-06,-0.180
-5.790E-06,-0.160
-5.780E-06,-0.120
-5.770E-06,-0.080
-5.760E-06,-0.020
-5.750E-06,-0.020
-5.740E-06,0.020
-5.730E-06,0.020
-5.720E-06,0.040
-5.710E-06,0.080
-5.700E-06,0.100
-5.690E-06,0.100
-5.680E-06,0.140
-5.670E-06,0.120
-5.660E-06,0.100
-5.650E-06,0.060
-5.640E-06,0.100
-5.630E-06,0.140
-5.620E-06,0.180
-5.610E-06,0.140
-5.600E-06,0.120
-5.590E-06,0.020
-5.580E-06,-0.020
-5.570E-06,-0.060
-5.560E-06,-0.120
-5.550E-06,-0.160
-5.540E-06,-0.240
-5.530E-06,-0.340
-5.520E-06,-0.320
-5.510E-06,-0.220
-5.500E-06,-0.120
-5.490E-06,-0.180
-5.480E-06,-0.180
-5.470E-06,-0.380
-5.460E-06,-0.500
-5.450E-06,-0.480
-5.440E-06,-0.420
-5.430E-06,-0.360
-5.420E-06,-0.340
-5.410E-06,-0.420
-5.400E-06,-0.440
-5.390E-06,-0.380
-5.380E-06,-0.300
-5.370E-06,-0.220
-5.360E-06,-0.200
-5.350E-06,-0.220
-5.340E-06,-0.260
-5.330E-06,-0.180
-5.320E-06,-0.160
-5.310E-06,-0.100
-5.300E-06,-0.020
-5.290E-06,-0.020
-5.280E-06,0.000
-5.270E-06,0.000
-5.260E-06,0.000
-5.250E-06,0.040
-5.240E-06,0.100
-5.230E-06,0.120
-5.220E-06,0.080
-5.210E-06,0.100
-5.200E-06,0.080
-5.190E-06,0.100
-5.180E-06,0.120
-5.170E-06,0.120
-5.160E-06,0.100
-5.150E-06,0.100
-5.140E-06,0.100
-5.130E-06,0.120
-5.120E-06,0.080
-5.110E-06,0.080
-5.100E-06,0.020
-5.090E-06,0.000
-5.080E-06,-0.080
-5.070E-06,-0.120
-5.060E-06,-0.120
-5.050E-06,-0.140
-5.040E-06,-0.140
-5.030E-06,-0.100
-5.020E-06,-0.100
-5.010E-06,-0.120
-5.000E-06,-0.120
-4.990E-06,-0.140
-4.980E-06,-0.080
-4.970E-06,-0.060
-4.960E-06,-0.080
-4.950E-06,-0.100
-4.940E-06,-0.060
-4.930E-06,-0.080
-4.920E-06,-0.040
-4.910E-06,-0.060
-4.900E-06,0.000
-4.890E-06,-0.020
-4.880E-06,-0.060
-4.870E-06,-0.080
-4.860E-06,-0.100
-4.850E-06,-0.100
-4.840E-06,-0.080
-4.830E-06,-0.080
-4.820E-06,-0.120
-4.810E-06,-0.180
-4.800E-06,-0.180
-4.790E-06,-0.200
-4.780E-06,-0.180
-4.770E-06,-0.180
-4.760E-06,-0.180
-4.750E-06,-0.180
-4.740E-06,-0.220
-4.730E-06,-0.220
-4.720E-06,-0.160
-4.710E-06,-0.200
-4.700E-06,-0.200
-4.690E-06,-0.180
-4.680E-06,-0.220
-4.670E-06,-0.180
-4.660E-06,-0.160
-4.650E-06,-0.160
-4.640E-06,-0.140
-4.630E-06,-0.160
-4.620E-06,-0.160
-4.610E-06,-0.140
-4.600E-06,-0.140
-4.590E-06,-0.100
-4.580E-06,-0.080
-4.570E-06,-0.100
-4.560E-06,-0.120
-4.550E-06,-0.140
-4.540E-06,-0.140
-4.530E-06,-0.160
-4.520E-06,-0.140
-4.510E-06,-0.140
-4.500E-06,-0.140
-4.490E-06,-0.160
-4.480E-06,-0.180
-4.470E-06,-0.180
-4.460E-06,-0.140
-4.450E-06,-0.160
-4.440E-06,-0.140
-4.430E-06,-0.140
-4.420E-06,-0.140
-4.410E-06,-0.160
-4.400E-06,-0.140
-4.390E-06,-0.160
-4.380E-06,-0.160
-4.370E-06,-0.180
-4.360E-06,-0.260
-4.350E-06,-0.300
-4.340E-06,-0.300
-4.330E-06,-0.060
-4.320E-06,-0.140
-4.310E-06,0.020
-4.300E-06,-0.120
-4.290E-06,-0.380
-4.280E-06,-0.420
-4.270E-06,-0.420
-4.260E-06,-0.400
-4.250E-06,-0.240
-4.240E-06,-0.420
-4.230E-06,-0.520
-4.220E-06,-0.560
-4.210E-06,-0.500
-4.200E-06,-0.400
-4.190E-06,-0.300
-4.180E-06,-0.360
-4.170E-06,-0.320
-4.160E-06,-0.320
-4.150E-06,-0.260
-4.140E-06,-0.140
-4.130E-06,-0.080
-4.120E-06,-0.060
-4.110E-06,-0.040
-4.100E-06,-0.060
-4.090E-06,-0.060
-4.080E-06,-0.020
-4.070E-06,0.020
-4.060E-06,0.080
-4.050E-06,0.120
-4.040E-06,0.080
-4.030E-06,0.040
-4.020E-06,0.040
-4.010E-06,0.100
-4.000E-06,0.100
-3.990E-06,0.160
-3.980E-06,0.100
-3.970E-06,0.060
-3.960E-06,0.040
-3.950E-06,0.060
-3.940E-06,0.080
-3.930E-06,0.080
-3.920E-06,0.080
-3.910E-06,0.000
-3.900E-06,-0.060
-3.890E-06,-0.040
-3.880E-06,-0.080
-3.870E-06,-0.080
-3.860E-06,-0.040
-3.850E-06,-0.040
-3.840E-06,-0.060
-3.830E-06,-0.040
-3.820E-06,-0.080
-3.810E-06,-0.100
-3.800E-06,-0.040
-3.790E-06,-0.040
-3.780E-06,-0.040
-3.770E-06,-0.060
-3.760E-06,-0.020
-3.750E-06,0.000
-3.740E-06,-0.040
-3.730E-06,-0.040
-3.720E-06,-0.060
-3.710E-06,-0.100
-3.700E-06,-0.100
-3.690E-06,-0.120
-3.680E-06,-0.140
-3.670E-06,-0.080
-3.660E-06,-0.020
-3.650E-06,0.020
-3.640E-06,0.100
-3.630E-06,0.120
-3.620E-06,0.080
-3.610E-06,0.040
-3.600E-06,-0.020
-3.590E-06,0.000
-3.580E-06,-0.020
-3.570E-06,-0.080
-3.560E-06,-0.140
-3.550E-06,-0.180
-3.540E-06,-0.200
-3.530E-06,-0.180
-3.520E-06,-0.080
-3.510E-06,-0.080
-3.500E-06,-0.080
-3.490E-06,-0.080
-3.480E-06,-0.160
-3.470E-06,-0.160
-3.460E-06,-0.200
-3.450E-06,-0.200
-3.440E-06,-0.180
-3.430E-06,-0.240
-3.420E-06,-0.260
-3.410E-06,-0.260
-3.400E-06,-0.260
-3.390E-06,-0.240
-3.380E-06,-0.200
-3.370E-06,-0.180
-3.360E-06,-0.200
-3.350E-06,-0.180
-3.340E-06,-0.180
-3.330E-06,-0.120
-3.320E-06,-0.080
-3.310E-06,-0.060
-3.300E-06,0.000
-3.290E-06,0.040
-3.280E-06,0.060
-3.270E-06,0.080
-3.260E-06,0.120
-3.250E-06,0.160
-3.240E-06,0.140
-3.230E-06,0.120
-3.220E-06,0.120
-3.210E-06,0.100
-3.200E-06,0.080
-3.190E-06,0.080
-3.180E-06,0.080
-3.170E-06,0.080
-3.160E-06,0.080
-3.150E-06,0.120
-3.140E-06,0.180
-3.130E-06,0.140
-3.120E-06,0.080
-3.110E-06,0.000
-3.100E-06,0.000
-3.090E-06,-0.040
-3.080E-06,-0.020
-3.070E-06,-0.100
-3.060E-06,-0.120
-3.050E-06,-0.180
-3.040E-06,-0.200
-3.030E-06,-0.180
-3.020E-06,-0.040
-3.010E-06,-0.260
-3.000E-06,-0.160
-2.990E-06,-0.420
-2.980E-06,-0.400
-2.970E-06,-0.420
-2.960E-06,-0.300
-2.950E-06,-0.300
-2.940E-06,-0.280
-2.930E-06,-0.360
-2.920E-06,-0.440
-2.910E-06,-0.440
-2.900E-06,-0.360
-2.890E-06,-0.300
-2.880E-06,-0.260
-2.870E-06,-0.320
-2.860E-06,-0.320
-2.850E-06,-0.340
-2.840E-06,-0.300
-2.830E-06,-0.260
-2.820E-06,-0.160
-2.810E-06,-0.140
-2.800E-06,-0.120
-2.790E-06,-0.100
-2.780E-06,-0.080
-2.770E-06,-0.040
-2.760E-06,-0.020
-2.750E-06,0.020
-2.740E-06,0.000
-2.730E-06,0.040
-2.720E-06,0.120
-2.710E-06,0.120
-2.700E-06,0.140
-2.690E-06,0.140
-2.680E-06,0.140
-2.670E-06,0.180
-2.660E-06,0.180
-2.650E-06,0.180
-2.640E-06,0.160
-2.630E-06,0.140
-2.620E-06,0.080
-2.610E-06,0.080
-2.600E-06,0.080
-2.590E-06,0.060
-2.580E-06,-0.040
-2.570E-06,-0.080
-2.560E-06,-0.120
-2.550E-06,-0.160
-2.540E-06,-0.160
-2.530E-06,-0.260
-2.520E-06,-0.260
-2.510E-06,-0.320
-2.500E-06,-0.300
-2.490E-06,-0.300
-2.480E-06,-0.180
-2.470E-06,-0.220
-2.460E-06,-0.200
-2.450E-06,-0.200
-2.440E-06,-0.280
-2.430E-06,-0.240
-2.420E-06,-0.200
-2.410E-06,-0.200
-2.400E-06,-0.160
-2.390E-06,-0.200
-2.380E-06,-0.240
-2.370E-06,-0.200
-2.360E-06,-0.160
-2.350E-06,-0.120
-2.340E-06,-0.080
-2.330E-06,-0.120
-2.320E-06,-0.100
-2.310E-06,-0.080
-2.300E-06,-0.080
-2.290E-06,-0.060
-2.280E-06,-0.060
-2.270E-06,-0.080
-2.260E-06,-0.060
-2.250E-06,-0.040
-2.240E-06,-0.080
-2.230E-06,-0.040
-2.220E-06,-0.020
-2.210E-06,-0.040
-2.200E-06,-0.060
-2.190E-06,0.000
-2.180E-06,0.000
-2.170E-06,-0.020
-2.160E-06,0.000
-2.150E-06,-0.020
-2.140E-06,-0.020
-2.130E-06,-0.040
-2.120E-06,-0.040
-2.110E-06,-0.060
-2.100E-06,-0.040
-2.090E-06,-0.040
-2.080E-06,-0.080
-2.070E-06,-0.060
-2.060E-06,-0.100
-2.050E-06,-0.080
-2.040E-06,-0.160
-2.030E-06,-0.180
-2.020E-06,-0.160
-2.010E-06,-0.120
-2.000E-06,-0.060
-1.990E-06,-0.060
-1.980E-06,-0.100
-1.970E-06,-0.160
-1.960E-06,-0.200
-1.950E-06,-0.200
-1.940E-06,-0.160
-1.930E-06,-0.200
-1.920E-06,-0.260
-1.910E-06,-0.300
-1.900E-06,-0.320
-1.890E-06,-0.320
-1.880E-06,-0.300
-1.870E-06,-0.300
-1.860E-06,-0.320
-1.850E-06,-0.340
-1.840E-06,-0.360
-1.830E-06,-0.340
-1.820E-06,-0.320
-1.810E-06,-0.260
-1.800E-06,-0.240
-1.790E-06,-0.240
-1.780E-06,-0.260
-1.770E-06,-0.240
-1.760E-06,-0.280
-1.750E-06,-0.280
-1.740E-06,-0.260
-1.730E-06,-0.260
-1.720E-06,-0.320
-1.710E-06,-0.260
-1.700E-06,-0.320
-1.690E-06,-0.240
-1.680E-06,-0.240
-1.670E-06,-0.240
-1.660E-06,-0.200
-1.650E-06,-0.260
-1.640E-06,-0.240
-1.630E-06,-0.240
-1.620E-06,-0.260
-1.610E-06,-0.220
-1.600E-06,-0.160
-1.590E-06,-0.160
-1.580E-06,-0.180
-1.570E-06,-0.140
-1.560E-06,-0.160
-1.550E-06,-0.160
-1.540E-06,-0.180
-1.530E-06,-0.240
-1.520E-06,-0.240
-1.510E-06,-0.240
-1.500E-06,-0.280
-1.490E-06,-0.300
-1.480E-06,-0.320
-1.470E-06,-0.320
-1.460E-06,-0.280
-1.450E-06,-0.320
-1.440E-06,-0.260
-1.430E-06,-0.300
-1.420E-06,-0.340
-1.410E-06,-0.340
-1.400E-06,-0.400
-1.390E-06,-0.400
-1.380E-06,-0.400
-1.370E-06,-0.420
-1.360E-06,-0.420
-1.350E-06,-0.420
-1.340E-06,-0.420
-1.330E-06,-0.380
-1.320E-06,-0.420
-1.310E-06,-0.400
-1.300E-06,-0.400
-1.290E-06,-0.360
-1.280E-06,-0.360
-1.270E-06,-0.380
-1.260E-06,-0.400
-1.250E-06,-0.360
-1.240E-06,-0.360
-1.230E-06,-0.360
-1.220E-06,-0.340
-1.210E-06,-0.340
-1.200E-06,-0.300
-1.190E-06,-0.300
-1.180E-06,-0.260
-1.170E-06,-0.320
-1.160E-06,-0.360
-1.150E-06,-0.360
-1.140E-06,-0.340
-1.130E-06,-0.320
-1.120E-06,-0.260
-1.110E-06,-0.280
-1.100E-06,-0.260
-1.090E-06,-0.300
-1.080E-06,-0.300
-1.070E-06,-0.320
-1.060E-06,-0.320
-1.050E-06,-0.380
-1.040E-06,-0.420
-1.030E-06,-0.580
-1.020E-06,-0.600
-1.010E-06,-0.760
-1.000E-06,-0.760
-9.900E-07,-0.820
-9.800E-07,-0.920
-9.700E-07,-0.900
-9.600E-07,-0.920
-9.500E-07,-0.840
-9.400E-07,-0.820
-9.300E-07,-0.840
-9.200E-07,-0.940
-9.100E-07,-1.020
-9.000E-07,-1.120
-8.900E-07,-1.160
-8.800E-07,-1.200
-8.700E-07,-1.220
-8.600E-07,-1.300
-8.500E-07,-1.180
-8.400E-07,-1.160
-8.300E-07,-1.100
-8.200E-07,-1.100
-8.100E-07,-1.000
-8.000E-07,-1.120
-7.900E-07,-0.980
-7.800E-07,-0.980
-7.700E-07,-0.920
-7.600E-07,-0.940
-7.500E-07,-0.940
-7.400E-07,-0.960
-7.300E-07,-0.860
-7.200E-07,-0.720
-7.100E-07,-0.640
-7.000E-07,-0.600
-6.900E-07,-0.580
-6.800E-07,-0.580
-6.700E-07,-0.540
-6.600E-07,-0.500
-6.500E-07,-0.500
-6.400E-07,-0.520
-6.300E-07,-0.560
-6.200E-07,-0.540
-6.100E-07,-0.560
-6.000E-07,-0.560
-5.900E-07,-0.540
-5.800E-07,-0.560
-5.700E-07,-0.540
-5.600E-07,-0.560
-5.500E-07,-0.600
-5.400E-07,-0.620
-5.300E-07,-0.640
-5.200E-07,-0.680
-5.100E-07,-0.760
-5.000E-07,-0.820
-4.900E-07,-0.840
-4.800E-07,-0.920
-4.700E-07,-0.940
-4.600E-07,-0.980
-4.500E-07,-1.000
-4.400E-07,-1.020
-4.300E-07,-1.040
-4.200E-07,-1.100
-4.100E-07,-1.140
-4.000E-07,-1.200
-3.900E-07,-1.240
-3.800E-07,-1.240
-3.700E-07,-1.320
-3.600E-07,-1.400
-3.500E-07,-1.480
-3.400E-07,-1.520
-3.300E-07,-1.540
-3.200E-07,-1.560
-3.100E-07,-1.520
-3.000E-07,-1.580
-2.900E-07,-1.540
-2.800E-07,-1.540
-2.700E-07,-1.580
-2.600E-07,-1.560
-2.500E-07,-1.640
-2.400E-07,-1.660
-2.300E-07,-1.680
-2.200E-07,-1.660
-2.100E-07,-1.680
-2.000E-07,-1.540
-1.900E-07,-1.620
-1.800E-07,-1.500
-1.700E-07,-1.460
-1.600E-07,-1.400
-1.500E-07,-1.320
-1.400E-07,-1.200
-1.300E-07,-1.140
-1.200E-07,-1.020
-1.100E-07,-0.960
-1.000E-07,-0.920
-9.000E-08,-1.100
-8.000E-08,-1.180
-7.000E-08,-1.200
-6.000E-08,-0.900
-5.000E-08,0.000
-4.000E-08,0.060
-3.000E-08,0.360
-2.000E-08,-0.140
-1.000E-08,-0.760
0.000E+00,-1.020
1.000E-08,-1.080
2.000E-08,-1.100
3.000E-08,-1.000
4.000E-08,-1.420
5.000E-08,-1.940
6.000E-08,-1.800
7.000E-08,-1.400
8.000E-08,-0.600
9.000E-08,0.220
1.000E-07,0.260
1.100E-07,0.340
1.200E-07,0.000
1.300E-07,-0.300
1.400E-07,-0.400
1.500E-07,-0.460
1.600E-07,-0.300
1.700E-07,-0.060
1.800E-07,-0.380
1.900E-07,-0.320
2.000E-07,-0.760
2.100E-07,-0.680
2.200E-07,-0.640
2.300E-07,-0.540
2.400E-07,-0.540
2.500E-07,-0.520
2.600E-07,-0.640
2.700E-07,-0.680
2.800E-07,-0.600
2.900E-07,-0.520
3.000E-07,-0.320
3.100E-07,-0.260
3.200E-07,-0.260
3.300E-07,-0.220
3.400E-07,-0.220
3.500E-07,-0.280
3.600E-07,-0.380
3.700E-07,-0.520
3.800E-07,-0.620
3.900E-07,-0.640
4.000E-07,-0.580
4.100E-07,-0.460
4.200E-07,-0.320
4.300E-07,-0.100
4.400E-07,0.040
4.500E-07,0.240
4.600E-07,0.340
4.700E-07,0.440
4.800E-07,0.480
4.900E-07,0.420
5.000E-07,0.320
5.100E-07,0.200
5.200E-07,-0.080
5.300E-07,0.000
5.400E-07,-0.200
5.500E-07,-0.100
5.600E-07,-0.140
5.700E-07,-0.240
5.800E-07,-0.340
5.900E-07,-0.560
6.000E-07,-0.800
6.100E-07,-0.540
6.200E-07,-0.540
6.300E-07,-0.400
6.400E-07,-0.340
6.500E-07,-0.380
6.600E-07,-0.460
6.700E-07,-0.440
6.800E-07,-0.580
6.900E-07,-0.740
7.000E-07,-0.900
7.100E-07,-1.280
7.200E-07,-1.580
7.300E-07,-1.840
7.400E-07,-1.960
7.500E-07,-2.000
7.600E-07,-2.000
7.700E-07,-2.060
7.800E-07,-2.080
7.900E-07,-2.040
8.000E-07,-2.000
8.100E-07,-1.920
8.200E-07,-1.820
8.300E-07,-1.840
8.400E-07,-1.720
8.500E-07,-1.700
8.600E-07,-1.520
8.700E-07,-1.420
8.800E-07,-1.280
8.900E-07,-1.180
9.000E-07,-1.040
9.100E-07,-0.940
9.200E-07,-0.840
9.300E-07,-0.660
9.400E-07,-0.540
9.500E-07,-0.480
9.600E-07,-0.300
9.700E-07,-0.260
9.800E-07,-0.040
9.900E-07,0.160
1.000E-06,1.540
1.010E-06,1.700
1.020E-06,2.200
1.030E-06,1.360
1.040E-06,0.080
1.050E-06,-0.900
1.060E-06,-1.400
1.070E-06,-0.580
1.080E-06,0.160
1.090E-06,0.680
1.100E-06,0.180
1.110E-06,-0.720
1.120E-06,-1.280
1.130E-06,-1.460
1.140E-06,-1.260
1.150E-06,-1.320
1.160E-06,-1.540
1.170E-06,-2.040
1.180E-06,-2.020
1.190E-06,-1.860
1.200E-06,-1.620
1.210E-06,-1.500
1.220E-06,-1.540
1.230E-06,-1.420
1.240E-06,-1.380
1.250E-06,-1.160
1.260E-06,-1.160
1.270E-06,-1.060
1.280E-06,-1.100
1.290E-06,-1.080
1.300E-06,-0.940
1.310E-06,-0.800
1.320E-06,-0.580
1.330E-06,-0.360
1.340E-06,-0.200
1.350E-06,-0.040
1.360E-06,0.080
1.370E-06,0.220
1.380E-06,0.360
1.390E-06,0.420
1.400E-06,0.420
1.410E-06,0.340
1.420E-06,0.180
1.430E-06,0.040
1.440E-06,0.040
1.450E-06,0.080
1.460E-06,0.280
1.470E-06,0.460
1.480E-06,0.600
1.490E-06,0.640
1.500E-06,0.640
1.510E-06,0.540
1.520E-06,0.440
1.530E-06,0.660
1.540E-06,0.840
1.550E-06,1.220
1.560E-06,1.460
1.570E-06,1.560
1.580E-06,1.440
1.590E-06,1.180
1.600E-06,0.940
1.610E-06,0.620
1.620E-06,0.260
1.630E-06,0.180
1.640E-06,0.540
1.650E-06,0.460
1.660E-06,0.740
1.670E-06,0.020
1.680E-06,-0.600
1.690E-06,-1.380
1.700E-06,-1.940
1.710E-06,-2.260
1.720E-06,-2.460
1.730E-06,-2.660
1.740E-06,-2.660
1.750E-06,-2.660
1.760E-06,-2.660
1.770E-06,-2.660
1.780E-06,-2.660
1.790E-06,-2.660
1.800E-06,-2.480
1.810E-06,-2.080
1.820E-06,-1.660
1.830E-06,-1.420
1.840E-06,-1.240
1.850E-06,-1.060
1.860E-06,-0.840
1.870E-06,-0.600
1.880E-06,-0.360
1.890E-06,0.400
1.900E-06,0.760
1.910E-06,1.600
1.920E-06,1.820
1.930E-06,1.820
1.940E-06,1.820
1.950E-06,1.600
1.960E-06,1.640
1.970E-06,1.600
1.980E-06,1.360
1.990E-06,1.020
2.000E-06,0.760
2.010E-06,0.500
2.020E-06,0.460
2.030E-06,0.400
2.040E-06,0.280
2.050E-06,0.220
2.060E-06,0.020
2.070E-06,-0.160
2.080E-06,-0.440
2.090E-06,-0.640
2.100E-06,-0.760
2.110E-06,-0.720
2.120E-06,-0.640
2.130E-06,-0.580
2.140E-06,-0.520
2.150E-06,-0.520
2.160E-06,-0.420
2.170E-06,-0.280
2.180E-06,-0.220
2.190E-06,-0.160
2.200E-06,-0.160
2.210E-06,-0.120
2.220E-06,-0.040
2.230E-06,-0.040
2.240E-06,-0.080
2.250E-06,-0.040
2.260E-06,-0.020
2.270E-06,0.060
2.280E-06,0.140
2.290E-06,0.200
2.300E-06,0.180
2.310E-06,0.220
2.320E-06,0.160
2.330E-06,0.080
2.340E-06,0.020
2.350E-06,0.000
2.360E-06,-0.020
2.370E-06,0.000
2.380E-06,0.080
2.390E-06,0.120
2.400E-06,0.260
2.410E-06,0.340
2.420E-06,0.360
2.430E-06,0.500
2.440E-06,0.540
2.450E-06,0.720
2.460E-06,0.760
2.470E-06,0.700
2.480E-06,0.540
2.490E-06,0.420
2.500E-06,0.320
2.510E-06,0.160
2.520E-06,0.040
2.530E-06,-0.260
2.540E-06,-0.080
2.550E-06,-0.360
2.560E-06,-0.320
2.570E-06,-0.560
2.580E-06,-1.020
2.590E-06,-1.320
2.600E-06,-1.620
2.610E-06,-1.600
2.620E-06,-1.660
2.630E-06,-1.540
2.640E-06,-1.720
2.650E-06,-1.740
2.660E-06,-1.600
2.670E-06,-1.420
2.680E-06,-1.280
2.690E-06,-1.100
2.700E-06,-1.060
2.710E-06,-0.900
2.720E-06,-0.780
2.730E-06,-0.700
2.740E-06,-0.560
2.750E-06,-0.440
2.760E-06,-0.320
2.770E-06,-0.160
2.780E-06,-0.020
2.790E-06,0.060
2.800E-06,0.020
2.810E-06,0.180
2.820E-06,0.260
2.830E-06,0.460
2.840E-06,0.620
2.850E-06,0.620
2.860E-06,0.580
2.870E-06,0.540
2.880E-06,0.500
2.890E-06,0.480
2.900E-06,0.500
2.910E-06,0.420
2.920E-06,0.320
2.930E-06,0.220
2.940E-06,0.100
2.950E-06,0.100
2.960E-06,0.040
2.970E-06,-0.020
2.980E-06,-0.020
2.990E-06,0.000
3.000E-06,0.120
