mediciones/Mediciones filtradas (saque las feas)/5-15/5.9/WaveData47544.csv

#timebase=2000000(ps)
,#voltbase=500000(mv/100)
#size=4000
-8.400E-06,0.220
-8.390E-06,0.220
-8.380E-06,0.180
-8.370E-06,0.180
-8.360E-06,0.160
-8.350E-06,0.100
-8.340E-06,0.080
-8.330E-06,0.020
-8.320E-06,0.000
-8.310E-06,-0.060
-8.300E-06,-0.100
-8.290E-06,-0.120
-8.280E-06,-0.160
-8.270E-06,-0.180
-8.260E-06,-0.200
-8.250E-06,-0.180
-8.240E-06,-0.160
-8.230E-06,-0.160
-8.220E-06,-0.120
-8.210E-06,-0.060
-8.200E-06,-0.020
-8.190E-06,0.000
-8.180E-06,0.020
-8.170E-06,0.040
-8.160E-06,0.080
-8.150E-06,0.100
-8.140E-06,0.100
-8.130E-06,0.120
-8.120E-06,0.100
-8.110E-06,0.100
-8.100E-06,0.080
-8.090E-06,0.080
-8.080E-06,0.080
-8.070E-06,0.080
-8.060E-06,0.080
-8.050E-06,0.060
-8.040E-06,0.080
-8.030E-06,0.080
-8.020E-06,0.080
-8.010E-06,0.060
-8.000E-06,0.060
-7.990E-06,0.060
-7.980E-06,0.080
-7.970E-06,0.060
-7.960E-06,0.040
-7.950E-06,0.020
-7.940E-06,0.000
-7.930E-06,0.020
-7.920E-06,-0.020
-7.910E-06,0.000
-7.900E-06,-0.020
-7.890E-06,-0.020
-7.880E-06,0.020
-7.870E-06,0.020
-7.860E-06,0.040
-7.850E-06,0.040
-7.840E-06,0.000
-7.830E-06,0.000
-7.820E-06,0.000
-7.810E-06,-0.020
-7.800E-06,0.000
-7.790E-06,0.000
-7.780E-06,0.000
-7.770E-06,-0.020
-7.760E-06,-0.020
-7.750E-06,-0.040
-7.740E-06,-0.020
-7.730E-06,-0.020
-7.720E-06,0.020
-7.710E-06,-0.020
-7.700E-06,0.000
-7.690E-06,0.000
-7.680E-06,0.000
-7.670E-06,-0.020
-7.660E-06,0.040
-7.650E-06,0.020
-7.640E-06,0.040
-7.630E-06,0.060
-7.620E-06,0.060
-7.610E-06,0.060
-7.600E-06,0.080
-7.590E-06,0.100
-7.580E-06,0.100
-7.570E-06,0.140
-7.560E-06,0.160
-7.550E-06,0.180
-7.540E-06,0.180
-7.530E-06,0.120
-7.520E-06,0.080
-7.510E-06,0.080
-7.500E-06,0.060
-7.490E-06,0.080
-7.480E-06,0.040
-7.470E-06,-0.020
-7.460E-06,-0.060
-7.450E-06,-0.100
-7.440E-06,-0.100
-7.430E-06,-0.120
-7.420E-06,-0.120
-7.410E-06,-0.120
-7.400E-06,-0.160
-7.390E-06,-0.160
-7.380E-06,-0.140
-7.370E-06,-0.120
-7.360E-06,-0.100
-7.350E-06,-0.100
-7.340E-06,-0.040
-7.330E-06,-0.060
-7.320E-06,-0.040
-7.310E-06,-0.020
-7.300E-06,0.000
-7.290E-06,0.040
-7.280E-06,0.040
-7.270E-06,0.080
-7.260E-06,0.100
-7.250E-06,0.100
-7.240E-06,0.180
-7.230E-06,0.180
-7.220E-06,0.180
-7.210E-06,0.200
-7.200E-06,0.220
-7.190E-06,0.200
-7.180E-06,0.220
-7.170E-06,0.200
-7.160E-06,0.220
-7.150E-06,0.200
-7.140E-06,0.180
-7.130E-06,0.140
-7.120E-06,0.100
-7.110E-06,0.120
-7.100E-06,0.080
-7.090E-06,0.100
-7.080E-06,0.040
-7.070E-06,0.020
-7.060E-06,-0.020
-7.050E-06,0.000
-7.040E-06,0.000
-7.030E-06,-0.020
-7.020E-06,-0.020
-7.010E-06,-0.020
-7.000E-06,-0.040
-6.990E-06,0.000
-6.980E-06,-0.020
-6.970E-06,-0.020
-6.960E-06,0.000
-6.950E-06,0.000
-6.940E-06,0.000
-6.930E-06,0.000
-6.920E-06,0.000
-6.910E-06,0.020
-6.900E-06,0.040
-6.890E-06,0.060
-6.880E-06,0.060
-6.870E-06,0.080
-6.860E-06,0.060
-6.850E-06,0.060
-6.840E-06,0.080
-6.830E-06,0.120
-6.820E-06,0.100
-6.810E-06,0.080
-6.800E-06,0.100
-6.790E-06,0.100
-6.780E-06,0.080
-6.770E-06,0.080
-6.760E-06,0.080
-6.750E-06,0.080
-6.740E-06,0.080
-6.730E-06,0.060
-6.720E-06,0.060
-6.710E-06,0.060
-6.700E-06,0.100
-6.690E-06,0.060
-6.680E-06,0.100
-6.670E-06,0.000
-6.660E-06,0.000
-6.650E-06,0.020
-6.640E-06,0.000
-6.630E-06,0.040
-6.620E-06,-0.040
-6.610E-06,-0.160
-6.600E-06,-0.180
-6.590E-06,-0.220
-6.580E-06,-0.180
-6.570E-06,-0.100
-6.560E-06,-0.100
-6.550E-06,-0.080
-6.540E-06,-0.120
-6.530E-06,-0.100
-6.520E-06,-0.040
-6.510E-06,0.000
-6.500E-06,0.040
-6.490E-06,0.040
-6.480E-06,0.020
-6.470E-06,0.020
-6.460E-06,0.080
-6.450E-06,0.100
-6.440E-06,0.160
-6.430E-06,0.160
-6.420E-06,0.160
-6.410E-06,0.140
-6.400E-06,0.140
-6.390E-06,0.140
-6.380E-06,0.180
-6.370E-06,0.180
-6.360E-06,0.180
-6.350E-06,0.200
-6.340E-06,0.180
-6.330E-06,0.160
-6.320E-06,0.180
-6.310E-06,0.180
-6.300E-06,0.160
-6.290E-06,0.120
-6.280E-06,0.100
-6.270E-06,0.060
-6.260E-06,0.100
-6.250E-06,0.100
-6.240E-06,0.080
-6.230E-06,0.060
-6.220E-06,0.000
-6.210E-06,-0.020
-6.200E-06,-0.060
-6.190E-06,-0.040
-6.180E-06,0.000
-6.170E-06,0.000
-6.160E-06,0.000
-6.150E-06,-0.020
-6.140E-06,-0.040
-6.130E-06,-0.100
-6.120E-06,-0.180
-6.110E-06,-0.180
-6.100E-06,-0.160
-6.090E-06,-0.180
-6.080E-06,-0.160
-6.070E-06,-0.160
-6.060E-06,-0.160
-6.050E-06,-0.120
-6.040E-06,-0.100
-6.030E-06,-0.080
-6.020E-06,-0.040
-6.010E-06,-0.040
-6.000E-06,-0.040
-5.990E-06,0.000
-5.980E-06,0.020
-5.970E-06,0.020
-5.960E-06,0.060
-5.950E-06,0.060
-5.940E-06,0.060
-5.930E-06,0.080
-5.920E-06,0.100
-5.910E-06,0.080
-5.900E-06,0.120
-5.890E-06,0.120
-5.880E-06,0.140
-5.870E-06,0.140
-5.860E-06,0.180
-5.850E-06,0.120
-5.840E-06,0.180
-5.830E-06,0.180
-5.820E-06,0.160
-5.810E-06,0.160
-5.800E-06,0.180
-5.790E-06,0.160
-5.780E-06,0.140
-5.770E-06,0.100
-5.760E-06,0.080
-5.750E-06,0.020
-5.740E-06,0.000
-5.730E-06,-0.060
-5.720E-06,-0.080
-5.710E-06,-0.120
-5.700E-06,-0.160
-5.690E-06,-0.200
-5.680E-06,-0.220
-5.670E-06,-0.220
-5.660E-06,-0.220
-5.650E-06,-0.220
-5.640E-06,-0.240
-5.630E-06,-0.340
-5.620E-06,-0.340
-5.610E-06,-0.520
-5.600E-06,-0.420
-5.590E-06,-0.380
-5.580E-06,-0.260
-5.570E-06,-0.240
-5.560E-06,-0.200
-5.550E-06,-0.160
-5.540E-06,-0.100
-5.530E-06,-0.060
-5.520E-06,0.020
-5.510E-06,0.020
-5.500E-06,-0.060
-5.490E-06,-0.040
-5.480E-06,-0.060
-5.470E-06,0.000
-5.460E-06,0.000
-5.450E-06,0.000
-5.440E-06,0.000
-5.430E-06,-0.080
-5.420E-06,0.000
-5.410E-06,-0.020
-5.400E-06,0.020
-5.390E-06,0.040
-5.380E-06,0.080
-5.370E-06,0.100
-5.360E-06,0.120
-5.350E-06,0.120
-5.340E-06,0.140
-5.330E-06,0.120
-5.320E-06,0.160
-5.310E-06,0.140
-5.300E-06,0.140
-5.290E-06,0.140
-5.280E-06,0.100
-5.270E-06,0.080
-5.260E-06,0.060
-5.250E-06,0.040
-5.240E-06,0.040
-5.230E-06,0.020
-5.220E-06,-0.020
-5.210E-06,0.000
-5.200E-06,-0.020
-5.190E-06,-0.020
-5.180E-06,0.000
-5.170E-06,0.000
-5.160E-06,0.020
-5.150E-06,0.000
-5.140E-06,0.000
-5.130E-06,-0.040
-5.120E-06,-0.020
-5.110E-06,-0.020
-5.100E-06,0.000
-5.090E-06,-0.020
-5.080E-06,-0.040
-5.070E-06,-0.040
-5.060E-06,-0.020
-5.050E-06,0.000
-5.040E-06,-0.100
-5.030E-06,-0.020
-5.020E-06,0.080
-5.010E-06,0.060
-5.000E-06,0.080
-4.990E-06,0.020
-4.980E-06,-0.180
-4.970E-06,-0.180
-4.960E-06,-0.160
-4.950E-06,-0.120
-4.940E-06,-0.040
-4.930E-06,-0.120
-4.920E-06,-0.180
-4.910E-06,-0.160
-4.900E-06,-0.180
-4.890E-06,-0.040
-4.880E-06,0.000
-4.870E-06,0.000
-4.860E-06,-0.040
-4.850E-06,-0.020
-4.840E-06,0.000
-4.830E-06,0.000
-4.820E-06,0.080
-4.810E-06,0.060
-4.800E-06,0.060
-4.790E-06,0.060
-4.780E-06,0.060
-4.770E-06,0.040
-4.760E-06,0.100
-4.750E-06,0.180
-4.740E-06,0.220
-4.730E-06,0.200
-4.720E-06,0.240
-4.710E-06,0.200
-4.700E-06,0.240
-4.690E-06,0.240
-4.680E-06,0.260
-4.670E-06,0.220
-4.660E-06,0.200
-4.650E-06,0.160
-4.640E-06,0.160
-4.630E-06,0.180
-4.620E-06,0.120
-4.610E-06,0.100
-4.600E-06,0.000
-4.590E-06,-0.040
-4.580E-06,-0.140
-4.570E-06,-0.180
-4.560E-06,-0.200
-4.550E-06,-0.240
-4.540E-06,-0.240
-4.530E-06,-0.260
-4.520E-06,-0.280
-4.510E-06,-0.320
-4.500E-06,-0.340
-4.490E-06,-0.400
-4.480E-06,-0.360
-4.470E-06,-0.400
-4.460E-06,-0.360
-4.450E-06,-0.280
-4.440E-06,-0.320
-4.430E-06,-0.260
-4.420E-06,-0.280
-4.410E-06,-0.260
-4.400E-06,-0.220
-4.390E-06,-0.180
-4.380E-06,-0.160
-4.370E-06,-0.120
-4.360E-06,-0.160
-4.350E-06,-0.120
-4.340E-06,-0.160
-4.330E-06,-0.080
-4.320E-06,-0.100
-4.310E-06,-0.080
-4.300E-06,-0.060
-4.290E-06,-0.020
-4.280E-06,0.020
-4.270E-06,0.060
-4.260E-06,0.000
-4.250E-06,0.020
-4.240E-06,0.000
-4.230E-06,0.020
-4.220E-06,0.060
-4.210E-06,0.080
-4.200E-06,0.060
-4.190E-06,0.000
-4.180E-06,-0.020
-4.170E-06,0.000
-4.160E-06,0.020
-4.150E-06,0.080
-4.140E-06,0.060
-4.130E-06,0.060
-4.120E-06,0.020
-4.110E-06,-0.020
-4.100E-06,-0.020
-4.090E-06,-0.020
-4.080E-06,0.000
-4.070E-06,-0.020
-4.060E-06,-0.020
-4.050E-06,-0.120
-4.040E-06,-0.100
-4.030E-06,-0.120
-4.020E-06,-0.120
-4.010E-06,-0.120
-4.000E-06,-0.140
-3.990E-06,-0.160
-3.980E-06,-0.200
-3.970E-06,-0.280
-3.960E-06,-0.280
-3.950E-06,-0.260
-3.940E-06,-0.260
-3.930E-06,-0.080
-3.920E-06,0.100
-3.910E-06,-0.140
-3.900E-06,0.100
-3.890E-06,-0.260
-3.880E-06,-0.220
-3.870E-06,-0.180
-3.860E-06,-0.140
-3.850E-06,0.000
-3.840E-06,-0.040
-3.830E-06,-0.180
-3.820E-06,-0.160
-3.810E-06,-0.200
-3.800E-06,-0.100
-3.790E-06,0.000
-3.780E-06,0.000
-3.770E-06,-0.040
-3.760E-06,0.000
-3.750E-06,0.000
-3.740E-06,0.100
-3.730E-06,0.140
-3.720E-06,0.180
-3.710E-06,0.100
-3.700E-06,0.100
-3.690E-06,0.040
-3.680E-06,0.080
-3.670E-06,0.080
-3.660E-06,0.120
-3.650E-06,0.140
-3.640E-06,0.160
-3.630E-06,0.140
-3.620E-06,0.160
-3.610E-06,0.220
-3.600E-06,0.240
-3.590E-06,0.280
-3.580E-06,0.260
-3.570E-06,0.240
-3.560E-06,0.240
-3.550E-06,0.240
-3.540E-06,0.200
-3.530E-06,0.160
-3.520E-06,0.080
-3.510E-06,0.020
-3.500E-06,-0.020
-3.490E-06,-0.080
-3.480E-06,-0.120
-3.470E-06,-0.120
-3.460E-06,-0.120
-3.450E-06,-0.080
-3.440E-06,-0.100
-3.430E-06,-0.100
-3.420E-06,-0.080
-3.410E-06,-0.100
-3.400E-06,-0.120
-3.390E-06,-0.100
-3.380E-06,-0.100
-3.370E-06,0.120
-3.360E-06,0.360
-3.350E-06,0.360
-3.340E-06,0.440
-3.330E-06,0.100
-3.320E-06,-0.140
-3.310E-06,-0.200
-3.300E-06,-0.200
-3.290E-06,-0.020
-3.280E-06,-0.020
-3.270E-06,-0.240
-3.260E-06,-0.340
-3.250E-06,-0.460
-3.240E-06,-0.380
-3.230E-06,-0.220
-3.220E-06,-0.200
-3.210E-06,-0.260
-3.200E-06,-0.340
-3.190E-06,-0.320
-3.180E-06,-0.280
-3.170E-06,-0.180
-3.160E-06,-0.060
-3.150E-06,0.080
-3.140E-06,0.060
-3.130E-06,0.080
-3.120E-06,0.020
-3.110E-06,0.020
-3.100E-06,0.080
-3.090E-06,0.160
-3.080E-06,0.240
-3.070E-06,0.260
-3.060E-06,0.200
-3.050E-06,0.180
-3.040E-06,0.160
-3.030E-06,0.220
-3.020E-06,0.220
-3.010E-06,0.200
-3.000E-06,0.180
-2.990E-06,0.160
-2.980E-06,0.160
-2.970E-06,0.180
-2.960E-06,0.160
-2.950E-06,0.100
-2.940E-06,0.020
-2.930E-06,-0.080
-2.920E-06,-0.020
-2.910E-06,0.020
-2.900E-06,0.040
-2.890E-06,0.200
-2.880E-06,0.080
-2.870E-06,0.080
-2.860E-06,0.060
-2.850E-06,0.000
-2.840E-06,0.080
-2.830E-06,0.140
-2.820E-06,0.080
-2.810E-06,0.020
-2.800E-06,-0.080
-2.790E-06,-0.080
-2.780E-06,-0.060
-2.770E-06,0.060
-2.760E-06,0.120
-2.750E-06,0.180
-2.740E-06,0.140
-2.730E-06,0.020
-2.720E-06,-0.060
-2.710E-06,-0.040
-2.700E-06,-0.040
-2.690E-06,-0.020
-2.680E-06,-0.160
-2.670E-06,-0.240
-2.660E-06,-0.320
-2.650E-06,-0.320
-2.640E-06,-0.220
-2.630E-06,-0.220
-2.620E-06,-0.340
-2.610E-06,-0.340
-2.600E-06,-0.440
-2.590E-06,-0.200
-2.580E-06,-0.020
-2.570E-06,0.040
-2.560E-06,0.020
-2.550E-06,-0.220
-2.540E-06,-0.400
-2.530E-06,-0.320
-2.520E-06,-0.260
-2.510E-06,-0.120
-2.500E-06,-0.100
-2.490E-06,-0.260
-2.480E-06,-0.340
-2.470E-06,-0.340
-2.460E-06,-0.260
-2.450E-06,-0.120
-2.440E-06,-0.080
-2.430E-06,-0.040
-2.420E-06,-0.040
-2.410E-06,-0.060
-2.400E-06,0.100
-2.390E-06,0.220
-2.380E-06,0.400
-2.370E-06,0.400
-2.360E-06,0.420
-2.350E-06,0.400
-2.340E-06,0.400
-2.330E-06,0.360
-2.320E-06,0.460
-2.310E-06,0.500
-2.300E-06,0.460
-2.290E-06,0.380
-2.280E-06,0.320
-2.270E-06,0.300
-2.260E-06,0.320
-2.250E-06,0.320
-2.240E-06,0.240
-2.230E-06,0.180
-2.220E-06,0.100
-2.210E-06,0.060
-2.200E-06,0.000
-2.190E-06,-0.020
-2.180E-06,-0.020
-2.170E-06,-0.060
-2.160E-06,-0.120
-2.150E-06,-0.200
-2.140E-06,-0.260
-2.130E-06,-0.260
-2.120E-06,-0.260
-2.110E-06,-0.240
-2.100E-06,-0.220
-2.090E-06,-0.180
-2.080E-06,-0.180
-2.070E-06,-0.160
-2.060E-06,-0.120
-2.050E-06,-0.080
-2.040E-06,-0.060
-2.030E-06,-0.040
-2.020E-06,-0.020
-2.010E-06,0.000
-2.000E-06,0.020
-1.990E-06,0.040
-1.980E-06,0.100
-1.970E-06,0.080
-1.960E-06,0.080
-1.950E-06,0.020
-1.940E-06,0.060
-1.930E-06,0.080
-1.920E-06,0.120
-1.910E-06,0.080
-1.900E-06,0.100
-1.890E-06,0.060
-1.880E-06,0.000
-1.870E-06,-0.020
-1.860E-06,-0.020
-1.850E-06,-0.060
-1.840E-06,-0.060
-1.830E-06,-0.160
-1.820E-06,-0.160
-1.810E-06,-0.260
-1.800E-06,-0.200
-1.790E-06,-0.220
-1.780E-06,-0.160
-1.770E-06,-0.060
-1.760E-06,0.020
-1.750E-06,-0.020
-1.740E-06,0.000
-1.730E-06,-0.060
-1.720E-06,-0.160
-1.710E-06,-0.220
-1.700E-06,-0.300
-1.690E-06,-0.400
-1.680E-06,-0.480
-1.670E-06,-0.640
-1.660E-06,-0.780
-1.650E-06,-0.840
-1.640E-06,-0.940
-1.630E-06,-0.960
-1.620E-06,-0.980
-1.610E-06,-0.800
-1.600E-06,-0.680
-1.590E-06,-0.580
-1.580E-06,-0.420
-1.570E-06,-0.540
-1.560E-06,-0.520
-1.550E-06,-0.600
-1.540E-06,-0.600
-1.530E-06,-0.540
-1.520E-06,-0.600
-1.510E-06,-0.660
-1.500E-06,-0.720
-1.490E-06,-0.860
-1.480E-06,-0.760
-1.470E-06,-0.680
-1.460E-06,-0.600
-1.450E-06,-0.600
-1.440E-06,-0.680
-1.430E-06,-0.600
-1.420E-06,-0.680
-1.410E-06,-0.580
-1.400E-06,-0.640
-1.390E-06,-0.680
-1.380E-06,-0.780
-1.370E-06,-0.900
-1.360E-06,-0.920
-1.350E-06,-0.800
-1.340E-06,-0.700
-1.330E-06,-0.780
-1.320E-06,-0.540
-1.310E-06,-0.460
-1.300E-06,-0.120
-1.290E-06,-0.220
-1.280E-06,0.000
-1.270E-06,-0.520
-1.260E-06,-0.340
-1.250E-06,-0.680
-1.240E-06,-0.420
-1.230E-06,-0.320
-1.220E-06,-0.220
-1.210E-06,0.120
-1.200E-06,-0.240
-1.190E-06,0.080
-1.180E-06,-0.220
-1.170E-06,-0.320
-1.160E-06,-0.400
-1.150E-06,-0.500
-1.140E-06,-0.700
-1.130E-06,-0.760
-1.120E-06,-1.020
-1.110E-06,-0.900
-1.100E-06,-0.340
-1.090E-06,-0.040
-1.080E-06,0.220
-1.070E-06,0.300
-1.060E-06,-0.100
-1.050E-06,-0.120
-1.040E-06,-0.220
-1.030E-06,-0.180
-1.020E-06,-0.020
-1.010E-06,-0.060
-1.000E-06,-0.280
-9.900E-07,-0.360
-9.800E-07,-0.560
-9.700E-07,-0.580
-9.600E-07,-0.500
-9.500E-07,-0.500
-9.400E-07,-0.440
-9.300E-07,-0.440
-9.200E-07,-0.420
-9.100E-07,-0.420
-9.000E-07,-0.360
-8.900E-07,-0.360
-8.800E-07,-0.340
-8.700E-07,-0.260
-8.600E-07,-0.140
-8.500E-07,-0.020
-8.400E-07,0.140
-8.300E-07,0.240
-8.200E-07,0.240
-8.100E-07,0.220
-8.000E-07,0.120
-7.900E-07,0.040
-7.800E-07,0.180
-7.700E-07,0.280
-7.600E-07,0.660
-7.500E-07,0.600
-7.400E-07,0.960
-7.300E-07,0.500
-7.200E-07,0.420
-7.100E-07,0.120
-7.000E-07,0.000
-6.900E-07,-0.120
-6.800E-07,-0.240
-6.700E-07,-0.600
-6.600E-07,-0.880
-6.500E-07,-1.120
-6.400E-07,-1.160
-6.300E-07,-1.160
-6.200E-07,-1.060
-6.100E-07,-1.040
-6.000E-07,-0.860
-5.900E-07,-0.800
-5.800E-07,-0.720
-5.700E-07,-0.700
-5.600E-07,-0.560
-5.500E-07,-0.400
-5.400E-07,-0.200
-5.300E-07,-0.100
-5.200E-07,0.000
-5.100E-07,0.100
-5.000E-07,0.640
-4.900E-07,0.600
-4.800E-07,1.100
-4.700E-07,1.120
-4.600E-07,1.020
-4.500E-07,1.020
-4.400E-07,0.740
-4.300E-07,0.680
-4.200E-07,0.620
-4.100E-07,0.340
-4.000E-07,0.220
-3.900E-07,0.100
-3.800E-07,0.040
-3.700E-07,0.080
-3.600E-07,0.000
-3.500E-07,-0.120
-3.400E-07,-0.320
-3.300E-07,-0.480
-3.200E-07,-0.680
-3.100E-07,-0.700
-3.000E-07,-0.740
-2.900E-07,-0.720
-2.800E-07,-0.720
-2.700E-07,-0.820
-2.600E-07,-0.780
-2.500E-07,-0.760
-2.400E-07,-0.660
-2.300E-07,-0.660
-2.200E-07,-0.520
-2.100E-07,-0.620
-2.000E-07,-0.500
-1.900E-07,-0.420
-1.800E-07,-0.320
-1.700E-07,-0.280
-1.600E-07,-0.220
-1.500E-07,-0.240
-1.400E-07,-0.200
-1.300E-07,-0.320
-1.200E-07,-0.320
-1.100E-07,-0.500
-1.000E-07,-0.660
-9.000E-08,-0.800
-8.000E-08,-1.040
-7.000E-08,-1.240
-6.000E-08,-1.160
-5.000E-08,-0.360
-4.000E-08,0.260
-3.000E-08,0.320
-2.000E-08,1.040
-1.000E-08,-0.340
0.000E+00,-0.180
1.000E-08,-1.000
2.000E-08,-0.800
3.000E-08,-0.860
4.000E-08,-0.860
5.000E-08,-1.620
6.000E-08,-1.780
7.000E-08,-2.160
8.000E-08,-1.880
9.000E-08,-1.620
1.000E-07,-1.540
1.100E-07,-1.440
1.200E-07,-1.380
1.300E-07,-1.020
1.400E-07,-0.980
1.500E-07,-0.640
1.600E-07,-0.320
1.700E-07,-0.160
1.800E-07,0.340
1.900E-07,0.160
2.000E-07,0.440
2.100E-07,0.320
2.200E-07,0.700
2.300E-07,0.660
2.400E-07,0.740
2.500E-07,0.540
2.600E-07,0.280
2.700E-07,0.440
2.800E-07,0.400
2.900E-07,0.480
3.000E-07,0.540
3.100E-07,0.240
3.200E-07,-0.040
3.300E-07,-0.280
3.400E-07,-0.600
3.500E-07,-0.780
3.600E-07,-1.000
3.700E-07,-1.280
3.800E-07,-1.500
3.900E-07,-1.700
4.000E-07,-1.900
4.100E-07,-1.960
4.200E-07,-1.800
4.300E-07,-1.520
4.400E-07,-1.100
4.500E-07,-0.900
4.600E-07,-0.500
4.700E-07,-0.500
4.800E-07,-0.080
4.900E-07,-0.020
5.000E-07,0.100
5.100E-07,0.320
5.200E-07,0.640
5.300E-07,0.880
5.400E-07,1.100
5.500E-07,1.020
5.600E-07,0.840
5.700E-07,0.820
5.800E-07,0.620
5.900E-07,0.580
6.000E-07,0.400
6.100E-07,0.180
6.200E-07,-0.100
6.300E-07,-0.300
6.400E-07,-0.400
6.500E-07,-0.500
6.600E-07,-0.320
6.700E-07,0.620
6.800E-07,0.620
6.900E-07,1.100
7.000E-07,0.760
7.100E-07,-0.320
7.200E-07,-0.700
7.300E-07,-1.560
7.400E-07,-1.520
7.500E-07,-1.440
7.600E-07,-1.860
7.700E-07,-2.260
7.800E-07,-2.660
7.900E-07,-2.660
8.000E-07,-2.560
8.100E-07,-2.320
8.200E-07,-2.100
8.300E-07,-1.940
8.400E-07,-1.620
8.500E-07,-1.180
8.600E-07,-0.920
8.700E-07,-0.620
8.800E-07,-0.480
8.900E-07,-0.160
9.000E-07,0.260
9.100E-07,0.600
9.200E-07,1.100
9.300E-07,1.420
9.400E-07,1.600
9.500E-07,1.820
9.600E-07,1.760
9.700E-07,1.800
9.800E-07,1.860
9.900E-07,1.700
1.000E-06,1.700
1.010E-06,1.360
1.020E-06,1.120
1.030E-06,0.780
1.040E-06,0.660
1.050E-06,0.380
1.060E-06,0.220
1.070E-06,-0.160
1.080E-06,-0.500
1.090E-06,-0.880
1.100E-06,-1.120
1.110E-06,-1.180
1.120E-06,-1.360
1.130E-06,-1.480
1.140E-06,-1.420
1.150E-06,-1.580
1.160E-06,-1.400
1.170E-06,-1.260
1.180E-06,-1.280
1.190E-06,-1.040
1.200E-06,-1.160
1.210E-06,-0.940
1.220E-06,-0.680
1.230E-06,-0.420
1.240E-06,-0.100
1.250E-06,-0.520
1.260E-06,-0.600
1.270E-06,-1.020
1.280E-06,-0.940
1.290E-06,-0.840
1.300E-06,-0.760
1.310E-06,-0.860
1.320E-06,-0.940
1.330E-06,-1.020
1.340E-06,-0.940
1.350E-06,-0.940
1.360E-06,-0.980
1.370E-06,-1.000
1.380E-06,-0.900
1.390E-06,-0.840
1.400E-06,-0.620
1.410E-06,-0.560
1.420E-06,-0.340
1.430E-06,-0.140
1.440E-06,0.060
1.450E-06,0.220
1.460E-06,0.340
1.470E-06,0.420
1.480E-06,0.520
1.490E-06,0.620
1.500E-06,0.740
1.510E-06,0.720
1.520E-06,0.800
1.530E-06,0.740
1.540E-06,0.800
1.550E-06,0.580
1.560E-06,0.500
1.570E-06,0.400
1.580E-06,0.320
1.590E-06,0.460
1.600E-06,0.520
1.610E-06,0.600
1.620E-06,0.500
1.630E-06,0.340
1.640E-06,0.220
1.650E-06,0.040
1.660E-06,-0.080
1.670E-06,-0.200
1.680E-06,-0.180
1.690E-06,-0.200
1.700E-06,-0.140
1.710E-06,-0.420
1.720E-06,-0.420
1.730E-06,-0.840
1.740E-06,-0.820
1.750E-06,-0.940
1.760E-06,-0.960
1.770E-06,-1.100
1.780E-06,-1.200
1.790E-06,-1.380
1.800E-06,-1.340
1.810E-06,-1.560
1.820E-06,-1.420
1.830E-06,-1.520
1.840E-06,-1.460
1.850E-06,-1.440
1.860E-06,-1.320
1.870E-06,-1.320
1.880E-06,-1.300
1.890E-06,-1.320
1.900E-06,-1.360
1.910E-06,-1.300
1.920E-06,-1.280
1.930E-06,-1.160
1.940E-06,-1.140
1.950E-06,-1.080
1.960E-06,-1.080
1.970E-06,-1.020
1.980E-06,-0.860
1.990E-06,-0.720
2.000E-06,-0.580
2.010E-06,-0.440
2.020E-06,-0.360
2.030E-06,-0.320
2.040E-06,-0.060
2.050E-06,0.500
2.060E-06,0.680
2.070E-06,0.980
2.080E-06,0.840
2.090E-06,0.440
2.100E-06,0.380
2.110E-06,0.220
2.120E-06,0.340
2.130E-06,0.260
2.140E-06,0.180
2.150E-06,-0.220
2.160E-06,-0.240
2.170E-06,-0.340
2.180E-06,-0.360
2.190E-06,-0.460
2.200E-06,-0.640
2.210E-06,-0.600
2.220E-06,-0.500
2.230E-06,0.220
2.240E-06,-0.420
2.250E-06,-0.060
2.260E-06,-1.120
2.270E-06,-1.440
2.280E-06,-1.940
2.290E-06,-2.220
2.300E-06,-2.660
2.310E-06,-2.520
2.320E-06,-2.560
2.330E-06,-2.300
2.340E-06,-1.940
2.350E-06,-1.200
2.360E-06,-1.400
2.370E-06,-1.260
2.380E-06,-2.060
2.390E-06,-2.660
2.400E-06,-2.640
2.410E-06,-2.660
2.420E-06,-2.660
2.430E-06,-2.660
2.440E-06,-2.660
2.450E-06,-2.640
2.460E-06,-2.660
2.470E-06,-2.660
2.480E-06,-2.660
2.490E-06,-2.440
2.500E-06,-2.100
2.510E-06,-1.760
2.520E-06,-1.440
2.530E-06,-1.020
2.540E-06,-0.680
2.550E-06,-0.520
2.560E-06,-0.320
2.570E-06,-0.240
2.580E-06,-0.020
2.590E-06,0.140
2.600E-06,0.280
2.610E-06,0.340
2.620E-06,0.760
2.630E-06,1.100
2.640E-06,1.700
2.650E-06,1.900
2.660E-06,2.160
2.670E-06,2.100
2.680E-06,1.840
2.690E-06,1.520
2.700E-06,1.100
2.710E-06,0.800
2.720E-06,0.480
2.730E-06,0.100
2.740E-06,-0.240
2.750E-06,-0.560
2.760E-06,-0.860
2.770E-06,-1.180
2.780E-06,-1.360
2.790E-06,-1.560
2.800E-06,-1.500
2.810E-06,-1.320
2.820E-06,-1.220
2.830E-06,-0.880
2.840E-06,-0.740
2.850E-06,-0.380
2.860E-06,-0.080
2.870E-06,0.260
2.880E-06,0.540
2.890E-06,0.920
2.900E-06,1.060
2.910E-06,1.240
2.920E-06,1.180
2.930E-06,1.000
2.940E-06,0.760
2.950E-06,0.340
2.960E-06,0.000
2.970E-06,-0.480
2.980E-06,-0.660
2.990E-06,-0.960
3.000E-06,-0.260
3.010E-06,0.480
3.020E-06,0.540
3.030E-06,1.040
3.040E-06,0.420
3.050E-06,0.160
3.060E-06,0.280
3.070E-06,-0.060
3.080E-06,-0.020
3.090E-06,-0.560
3.100E-06,-1.180
3.110E-06,-1.880
3.120E-06,-2.020
3.130E-06,-2.300
3.140E-06,-2.580
