mediciones/Mediciones filtradas (saque las feas)/5-15/5.9/WaveData47549.csv

#timebase=2000000(ps)
,#voltbase=100000(mv/100)
#size=4000
-8.400E-06,-0.004
-8.390E-06,0.000
-8.380E-06,0.000
-8.370E-06,0.000
-8.360E-06,0.008
-8.350E-06,0.000
-8.340E-06,0.000
-8.330E-06,0.004
-8.320E-06,0.004
-8.310E-06,0.004
-8.300E-06,0.000
-8.290E-06,0.000
-8.280E-06,-0.004
-8.270E-06,0.004
-8.260E-06,-0.004
-8.250E-06,0.000
-8.240E-06,0.004
-8.230E-06,0.004
-8.220E-06,0.000
-8.210E-06,0.004
-8.200E-06,0.004
-8.190E-06,-0.004
-8.180E-06,0.004
-8.170E-06,0.008
-8.160E-06,0.000
-8.150E-06,0.004
-8.140E-06,0.004
-8.130E-06,0.004
-8.120E-06,0.004
-8.110E-06,0.000
-8.100E-06,0.004
-8.090E-06,0.004
-8.080E-06,0.000
-8.070E-06,0.004
-8.060E-06,0.004
-8.050E-06,0.004
-8.040E-06,0.000
-8.030E-06,0.004
-8.020E-06,0.004
-8.010E-06,0.004
-8.000E-06,0.004
-7.990E-06,0.000
-7.980E-06,0.000
-7.970E-06,0.004
-7.960E-06,0.004
-7.950E-06,0.004
-7.940E-06,0.004
-7.930E-06,0.000
-7.920E-06,0.000
-7.910E-06,0.008
-7.900E-06,0.008
-7.890E-06,0.000
-7.880E-06,0.000
-7.870E-06,0.000
-7.860E-06,0.008
-7.850E-06,0.000
-7.840E-06,0.000
-7.830E-06,0.000
-7.820E-06,0.000
-7.810E-06,0.004
-7.800E-06,0.000
-7.790E-06,0.004
-7.780E-06,0.004
-7.770E-06,0.004
-7.760E-06,0.004
-7.750E-06,0.004
-7.740E-06,0.004
-7.730E-06,0.004
-7.720E-06,0.000
-7.710E-06,0.000
-7.700E-06,0.004
-7.690E-06,0.000
-7.680E-06,0.004
-7.670E-06,0.000
-7.660E-06,0.004
-7.650E-06,0.004
-7.640E-06,0.008
-7.630E-06,0.000
-7.620E-06,0.000
-7.610E-06,0.004
-7.600E-06,0.004
-7.590E-06,0.004
-7.580E-06,0.004
-7.570E-06,0.004
-7.560E-06,0.000
-7.550E-06,0.004
-7.540E-06,0.008
-7.530E-06,0.008
-7.520E-06,-0.004
-7.510E-06,-0.004
-7.500E-06,0.004
-7.490E-06,0.000
-7.480E-06,0.004
-7.470E-06,0.004
-7.460E-06,0.004
-7.450E-06,0.000
-7.440E-06,0.004
-7.430E-06,0.000
-7.420E-06,0.000
-7.410E-06,0.004
-7.400E-06,0.004
-7.390E-06,0.000
-7.380E-06,0.004
-7.370E-06,0.000
-7.360E-06,0.004
-7.350E-06,0.004
-7.340E-06,0.000
-7.330E-06,0.004
-7.320E-06,0.000
-7.310E-06,0.004
-7.300E-06,0.008
-7.290E-06,0.000
-7.280E-06,0.004
-7.270E-06,0.004
-7.260E-06,0.004
-7.250E-06,0.004
-7.240E-06,0.004
-7.230E-06,0.004
-7.220E-06,0.004
-7.210E-06,0.004
-7.200E-06,0.000
-7.190E-06,0.004
-7.180E-06,0.000
-7.170E-06,0.004
-7.160E-06,0.004
-7.150E-06,0.004
-7.140E-06,0.004
-7.130E-06,0.000
-7.120E-06,0.004
-7.110E-06,0.004
-7.100E-06,0.004
-7.090E-06,0.004
-7.080E-06,0.004
-7.070E-06,0.000
-7.060E-06,0.004
-7.050E-06,0.000
-7.040E-06,0.004
-7.030E-06,-0.004
-7.020E-06,0.004
-7.010E-06,0.004
-7.000E-06,0.004
-6.990E-06,0.004
-6.980E-06,0.000
-6.970E-06,0.004
-6.960E-06,0.004
-6.950E-06,0.000
-6.940E-06,0.004
-6.930E-06,0.004
-6.920E-06,0.004
-6.910E-06,0.004
-6.900E-06,0.004
-6.890E-06,0.000
-6.880E-06,0.008
-6.870E-06,0.000
-6.860E-06,-0.004
-6.850E-06,0.000
-6.840E-06,0.000
-6.830E-06,0.004
-6.820E-06,0.000
-6.810E-06,0.000
-6.800E-06,0.004
-6.790E-06,0.000
-6.780E-06,0.004
-6.770E-06,0.000
-6.760E-06,0.004
-6.750E-06,0.004
-6.740E-06,0.004
-6.730E-06,0.000
-6.720E-06,0.004
-6.710E-06,0.008
-6.700E-06,-0.004
-6.690E-06,0.000
-6.680E-06,0.004
-6.670E-06,0.008
-6.660E-06,0.008
-6.650E-06,0.008
-6.640E-06,0.000
-6.630E-06,0.000
-6.620E-06,0.004
-6.610E-06,0.000
-6.600E-06,0.004
-6.590E-06,0.004
-6.580E-06,0.000
-6.570E-06,0.008
-6.560E-06,0.008
-6.550E-06,-0.004
-6.540E-06,0.000
-6.530E-06,0.004
-6.520E-06,0.000
-6.510E-06,0.000
-6.500E-06,0.004
-6.490E-06,0.000
-6.480E-06,0.004
-6.470E-06,0.000
-6.460E-06,0.004
-6.450E-06,0.004
-6.440E-06,0.000
-6.430E-06,0.004
-6.420E-06,0.004
-6.410E-06,0.004
-6.400E-06,0.004
-6.390E-06,0.004
-6.380E-06,0.000
-6.370E-06,0.000
-6.360E-06,-0.004
-6.350E-06,0.004
-6.340E-06,0.008
-6.330E-06,0.000
-6.320E-06,0.004
-6.310E-06,0.000
-6.300E-06,0.004
-6.290E-06,0.004
-6.280E-06,0.004
-6.270E-06,0.004
-6.260E-06,0.004
-6.250E-06,0.000
-6.240E-06,0.004
-6.230E-06,0.000
-6.220E-06,0.000
-6.210E-06,0.000
-6.200E-06,0.000
-6.190E-06,0.004
-6.180E-06,0.004
-6.170E-06,0.004
-6.160E-06,0.000
-6.150E-06,0.004
-6.140E-06,0.004
-6.130E-06,0.004
-6.120E-06,0.000
-6.110E-06,0.000
-6.100E-06,0.000
-6.090E-06,0.004
-6.080E-06,0.004
-6.070E-06,0.000
-6.060E-06,0.004
-6.050E-06,0.004
-6.040E-06,0.004
-6.030E-06,0.004
-6.020E-06,0.004
-6.010E-06,0.004
-6.000E-06,0.000
-5.990E-06,0.004
-5.980E-06,0.000
-5.970E-06,0.004
-5.960E-06,0.004
-5.950E-06,0.004
-5.940E-06,0.000
-5.930E-06,0.008
-5.920E-06,0.000
-5.910E-06,0.000
-5.900E-06,0.004
-5.890E-06,0.004
-5.880E-06,0.004
-5.870E-06,0.004
-5.860E-06,0.004
-5.850E-06,0.004
-5.840E-06,0.008
-5.830E-06,0.008
-5.820E-06,0.008
-5.810E-06,0.000
-5.800E-06,0.000
-5.790E-06,0.000
-5.780E-06,0.004
-5.770E-06,0.004
-5.760E-06,0.004
-5.750E-06,0.004
-5.740E-06,0.004
-5.730E-06,0.000
-5.720E-06,0.000
-5.710E-06,0.004
-5.700E-06,0.008
-5.690E-06,0.000
-5.680E-06,0.004
-5.670E-06,0.000
-5.660E-06,0.004
-5.650E-06,0.004
-5.640E-06,0.004
-5.630E-06,0.000
-5.620E-06,0.000
-5.610E-06,0.004
-5.600E-06,0.004
-5.590E-06,0.004
-5.580E-06,0.000
-5.570E-06,0.004
-5.560E-06,0.004
-5.550E-06,0.004
-5.540E-06,0.004
-5.530E-06,0.008
-5.520E-06,0.008
-5.510E-06,0.008
-5.500E-06,0.000
-5.490E-06,0.000
-5.480E-06,0.004
-5.470E-06,0.000
-5.460E-06,0.004
-5.450E-06,0.004
-5.440E-06,0.004
-5.430E-06,0.000
-5.420E-06,0.000
-5.410E-06,0.008
-5.400E-06,0.008
-5.390E-06,0.008
-5.380E-06,0.000
-5.370E-06,0.000
-5.360E-06,0.004
-5.350E-06,0.000
-5.340E-06,0.004
-5.330E-06,0.000
-5.320E-06,0.004
-5.310E-06,0.000
-5.300E-06,0.004
-5.290E-06,0.004
-5.280E-06,0.004
-5.270E-06,0.000
-5.260E-06,-0.004
-5.250E-06,0.004
-5.240E-06,0.004
-5.230E-06,0.004
-5.220E-06,0.004
-5.210E-06,0.004
-5.200E-06,0.004
-5.190E-06,0.008
-5.180E-06,0.008
-5.170E-06,-0.004
-5.160E-06,0.004
-5.150E-06,0.004
-5.140E-06,0.004
-5.130E-06,0.004
-5.120E-06,0.004
-5.110E-06,0.004
-5.100E-06,0.004
-5.090E-06,0.004
-5.080E-06,0.024
-5.070E-06,0.076
-5.060E-06,0.124
-5.050E-06,0.140
-5.040E-06,0.080
-5.030E-06,-0.072
-5.020E-06,-0.212
-5.010E-06,-0.284
-5.000E-06,-0.152
-4.990E-06,0.052
-4.980E-06,0.240
-4.970E-06,0.316
-4.960E-06,0.172
-4.950E-06,-0.052
-4.940E-06,-0.224
-4.930E-06,-0.248
-4.920E-06,-0.124
-4.910E-06,0.076
-4.900E-06,0.220
-4.890E-06,0.236
-4.880E-06,0.120
-4.870E-06,-0.044
-4.860E-06,-0.168
-4.850E-06,-0.200
-4.840E-06,-0.140
-4.830E-06,-0.016
-4.820E-06,0.088
-4.810E-06,0.148
-4.800E-06,0.156
-4.790E-06,0.088
-4.780E-06,-0.012
-4.770E-06,-0.104
-4.760E-06,-0.136
-4.750E-06,-0.104
-4.740E-06,-0.008
-4.730E-06,0.100
-4.720E-06,0.152
-4.710E-06,0.124
-4.700E-06,0.016
-4.690E-06,-0.108
-4.680E-06,-0.172
-4.670E-06,-0.152
-4.660E-06,-0.048
-4.650E-06,0.068
-4.640E-06,0.140
-4.630E-06,0.136
-4.620E-06,0.060
-4.610E-06,-0.020
-4.600E-06,-0.084
-4.590E-06,-0.076
-4.580E-06,-0.032
-4.570E-06,0.020
-4.560E-06,0.072
-4.550E-06,0.076
-4.540E-06,0.044
-4.530E-06,0.008
-4.520E-06,-0.036
-4.510E-06,-0.064
-4.500E-06,-0.056
-4.490E-06,-0.020
-4.480E-06,0.008
-4.470E-06,0.060
-4.460E-06,0.076
-4.450E-06,0.056
-4.440E-06,0.024
-4.430E-06,-0.028
-4.420E-06,-0.052
-4.410E-06,-0.044
-4.400E-06,-0.008
-4.390E-06,0.036
-4.380E-06,0.060
-4.370E-06,0.040
-4.360E-06,0.012
-4.350E-06,-0.028
-4.340E-06,-0.056
-4.330E-06,-0.052
-4.320E-06,-0.012
-4.310E-06,0.024
-4.300E-06,0.044
-4.290E-06,0.040
-4.280E-06,0.024
-4.270E-06,0.000
-4.260E-06,-0.020
-4.250E-06,-0.016
-4.240E-06,-0.004
-4.230E-06,0.008
-4.220E-06,0.020
-4.210E-06,0.020
-4.200E-06,0.016
-4.190E-06,-0.004
-4.180E-06,-0.016
-4.170E-06,-0.016
-4.160E-06,-0.016
-4.150E-06,0.000
-4.140E-06,0.020
-4.130E-06,0.032
-4.120E-06,0.024
-4.110E-06,0.008
-4.100E-06,-0.004
-4.090E-06,-0.008
-4.080E-06,-0.008
-4.070E-06,0.000
-4.060E-06,0.016
-4.050E-06,0.012
-4.040E-06,0.012
-4.030E-06,0.008
-4.020E-06,-0.004
-4.010E-06,-0.004
-4.000E-06,-0.004
-3.990E-06,0.004
-3.980E-06,0.008
-3.970E-06,0.004
-3.960E-06,0.000
-3.950E-06,0.004
-3.940E-06,0.004
-3.930E-06,0.008
-3.920E-06,0.012
-3.910E-06,0.008
-3.900E-06,0.000
-3.890E-06,0.000
-3.880E-06,0.000
-3.870E-06,0.004
-3.860E-06,0.012
-3.850E-06,0.004
-3.840E-06,-0.004
-3.830E-06,-0.004
-3.820E-06,-0.004
-3.810E-06,0.004
-3.800E-06,0.008
-3.790E-06,0.008
-3.780E-06,0.004
-3.770E-06,0.008
-3.760E-06,-0.004
-3.750E-06,0.000
-3.740E-06,0.000
-3.730E-06,0.012
-3.720E-06,0.000
-3.710E-06,-0.004
-3.700E-06,-0.004
-3.690E-06,0.000
-3.680E-06,0.000
-3.670E-06,0.008
-3.660E-06,0.000
-3.650E-06,-0.012
-3.640E-06,-0.004
-3.630E-06,-0.004
-3.620E-06,0.004
-3.610E-06,0.016
-3.600E-06,0.020
-3.590E-06,0.000
-3.580E-06,-0.008
-3.570E-06,-0.008
-3.560E-06,-0.008
-3.550E-06,0.004
-3.540E-06,0.016
-3.530E-06,0.016
-3.520E-06,0.000
-3.510E-06,-0.004
-3.500E-06,-0.012
-3.490E-06,-0.020
-3.480E-06,-0.016
-3.470E-06,-0.036
-3.460E-06,-0.008
-3.450E-06,0.000
-3.440E-06,0.032
-3.430E-06,0.052
-3.420E-06,0.036
-3.410E-06,0.000
-3.400E-06,-0.040
-3.390E-06,-0.040
-3.380E-06,-0.036
-3.370E-06,0.004
-3.360E-06,0.028
-3.350E-06,0.044
-3.340E-06,0.016
-3.330E-06,0.000
-3.320E-06,-0.020
-3.310E-06,-0.012
-3.300E-06,-0.004
-3.290E-06,0.008
-3.280E-06,0.024
-3.270E-06,0.008
-3.260E-06,0.004
-3.250E-06,0.000
-3.240E-06,0.008
-3.230E-06,0.008
-3.220E-06,0.000
-3.210E-06,-0.008
-3.200E-06,-0.004
-3.190E-06,0.000
-3.180E-06,0.012
-3.170E-06,0.020
-3.160E-06,0.016
-3.150E-06,0.008
-3.140E-06,-0.004
-3.130E-06,0.000
-3.120E-06,-0.004
-3.110E-06,0.008
-3.100E-06,0.008
-3.090E-06,0.012
-3.080E-06,0.008
-3.070E-06,0.004
-3.060E-06,0.004
-3.050E-06,0.000
-3.040E-06,0.008
-3.030E-06,0.000
-3.020E-06,0.004
-3.010E-06,0.000
-3.000E-06,0.000
-2.990E-06,0.004
-2.980E-06,0.012
-2.970E-06,0.012
-2.960E-06,0.012
-2.950E-06,0.004
-2.940E-06,-0.004
-2.930E-06,-0.004
-2.920E-06,0.004
-2.910E-06,0.004
-2.900E-06,0.008
-2.890E-06,0.020
-2.880E-06,0.008
-2.870E-06,0.008
-2.860E-06,0.008
-2.850E-06,-0.004
-2.840E-06,0.004
-2.830E-06,0.004
-2.820E-06,0.008
-2.810E-06,0.008
-2.800E-06,0.012
-2.790E-06,0.004
-2.780E-06,-0.004
-2.770E-06,-0.020
-2.760E-06,-0.024
-2.750E-06,-0.004
-2.740E-06,0.044
-2.730E-06,0.100
-2.720E-06,0.120
-2.710E-06,0.092
-2.700E-06,0.004
-2.690E-06,-0.068
-2.680E-06,-0.108
-2.670E-06,-0.072
-2.660E-06,0.000
-2.650E-06,0.092
-2.640E-06,0.128
-2.630E-06,0.100
-2.620E-06,0.036
-2.610E-06,-0.040
-2.600E-06,-0.096
-2.590E-06,-0.096
-2.580E-06,-0.048
-2.570E-06,0.020
-2.560E-06,0.084
-2.550E-06,0.100
-2.540E-06,0.080
-2.530E-06,0.032
-2.520E-06,-0.012
-2.510E-06,-0.028
-2.500E-06,-0.024
-2.490E-06,0.024
-2.480E-06,0.076
-2.470E-06,0.096
-2.460E-06,0.076
-2.450E-06,0.036
-2.440E-06,0.000
-2.430E-06,-0.032
-2.420E-06,-0.032
-2.410E-06,-0.008
-2.400E-06,0.028
-2.390E-06,0.080
-2.380E-06,0.144
-2.370E-06,0.180
-2.360E-06,0.140
-2.350E-06,0.032
-2.340E-06,-0.120
-2.330E-06,-0.188
-2.320E-06,-0.132
-2.310E-06,-0.004
-2.300E-06,0.124
-2.290E-06,0.180
-2.280E-06,0.136
-2.270E-06,0.028
-2.260E-06,-0.088
-2.250E-06,-0.144
-2.240E-06,-0.108
-2.230E-06,-0.032
-2.220E-06,0.064
-2.210E-06,0.096
-2.200E-06,0.024
-2.190E-06,-0.104
-2.180E-06,-0.200
-2.170E-06,-0.260
-2.160E-06,-0.168
-2.150E-06,-0.028
-2.140E-06,0.124
-2.130E-06,0.172
-2.120E-06,0.124
-2.110E-06,0.016
-2.100E-06,-0.104
-2.090E-06,-0.140
-2.080E-06,-0.116
-2.070E-06,-0.024
-2.060E-06,0.092
-2.050E-06,0.156
-2.040E-06,0.116
-2.030E-06,0.044
-2.020E-06,-0.064
-2.010E-06,-0.108
-2.000E-06,-0.096
-1.990E-06,-0.028
-1.980E-06,0.024
-1.970E-06,0.068
-1.960E-06,0.088
-1.950E-06,0.048
-1.940E-06,-0.004
-1.930E-06,-0.060
-1.920E-06,-0.068
-1.910E-06,-0.032
-1.900E-06,0.028
-1.890E-06,0.072
-1.880E-06,0.088
-1.870E-06,0.064
-1.860E-06,0.024
-1.850E-06,-0.028
-1.840E-06,-0.056
-1.830E-06,-0.048
-1.820E-06,-0.016
-1.810E-06,0.008
-1.800E-06,0.024
-1.790E-06,0.020
-1.780E-06,0.016
-1.770E-06,0.024
-1.760E-06,0.020
-1.750E-06,0.036
-1.740E-06,0.044
-1.730E-06,0.044
-1.720E-06,0.024
-1.710E-06,0.024
-1.700E-06,0.016
-1.690E-06,0.032
-1.680E-06,0.056
-1.670E-06,0.064
-1.660E-06,0.076
-1.650E-06,0.096
-1.640E-06,0.104
-1.630E-06,0.060
-1.620E-06,-0.020
-1.610E-06,-0.100
-1.600E-06,-0.120
-1.590E-06,-0.068
-1.580E-06,0.072
-1.570E-06,0.180
-1.560E-06,0.204
-1.550E-06,0.132
-1.540E-06,0.028
-1.530E-06,-0.016
-1.520E-06,-0.004
-1.510E-06,0.032
-1.500E-06,0.036
-1.490E-06,0.000
-1.480E-06,-0.100
-1.470E-06,-0.124
-1.460E-06,-0.072
-1.450E-06,0.008
-1.440E-06,0.092
-1.430E-06,0.120
-1.420E-06,0.056
-1.410E-06,-0.052
-1.400E-06,-0.108
-1.390E-06,-0.124
-1.380E-06,-0.120
-1.370E-06,-0.064
-1.360E-06,0.000
-1.350E-06,0.016
-1.340E-06,0.044
-1.330E-06,0.096
-1.320E-06,0.144
-1.310E-06,0.140
-1.300E-06,0.088
-1.290E-06,0.008
-1.280E-06,-0.016
-1.270E-06,0.016
-1.260E-06,0.072
-1.250E-06,0.108
-1.240E-06,0.084
-1.230E-06,-0.076
-1.220E-06,-0.200
-1.210E-06,-0.296
-1.200E-06,-0.288
-1.190E-06,-0.144
-1.180E-06,0.016
-1.170E-06,0.128
-1.160E-06,0.128
-1.150E-06,0.048
-1.140E-06,-0.120
-1.130E-06,-0.196
-1.120E-06,-0.160
-1.110E-06,-0.072
-1.100E-06,0.052
-1.090E-06,0.144
-1.080E-06,0.136
-1.070E-06,0.060
-1.060E-06,-0.048
-1.050E-06,-0.124
-1.040E-06,-0.120
-1.030E-06,-0.056
-1.020E-06,0.036
-1.010E-06,0.104
-1.000E-06,0.104
-9.900E-07,0.036
-9.800E-07,-0.044
-9.700E-07,-0.076
-9.600E-07,-0.076
-9.500E-07,-0.024
-9.400E-07,0.036
-9.300E-07,0.072
-9.200E-07,0.072
-9.100E-07,0.024
-9.000E-07,-0.028
-8.900E-07,-0.068
-8.800E-07,-0.072
-8.700E-07,-0.040
-8.600E-07,0.024
-8.500E-07,0.068
-8.400E-07,0.076
-8.300E-07,0.036
-8.200E-07,-0.016
-8.100E-07,-0.056
-8.000E-07,-0.056
-7.900E-07,-0.028
-7.800E-07,0.024
-7.700E-07,0.064
-7.600E-07,0.072
-7.500E-07,0.032
-7.400E-07,-0.008
-7.300E-07,-0.044
-7.200E-07,-0.052
-7.100E-07,-0.024
-7.000E-07,0.024
-6.900E-07,0.060
-6.800E-07,0.060
-6.700E-07,0.044
-6.600E-07,0.000
-6.500E-07,-0.032
-6.400E-07,-0.040
-6.300E-07,-0.024
-6.200E-07,0.012
-6.100E-07,0.056
-6.000E-07,0.072
-5.900E-07,0.056
-5.800E-07,0.028
-5.700E-07,0.000
-5.600E-07,-0.020
-5.500E-07,-0.008
-5.400E-07,0.032
-5.300E-07,0.092
-5.200E-07,0.136
-5.100E-07,0.140
-5.000E-07,0.120
-4.900E-07,0.056
-4.800E-07,0.004
-4.700E-07,-0.028
-4.600E-07,-0.024
-4.500E-07,0.000
-4.400E-07,0.040
-4.300E-07,0.060
-4.200E-07,0.044
-4.100E-07,0.016
-4.000E-07,-0.008
-3.900E-07,-0.028
-3.800E-07,-0.008
-3.700E-07,0.044
-3.600E-07,0.108
-3.500E-07,0.156
-3.400E-07,0.164
-3.300E-07,0.132
-3.200E-07,0.088
-3.100E-07,0.060
-3.000E-07,0.052
-2.900E-07,0.052
-2.800E-07,0.068
-2.700E-07,0.056
-2.600E-07,0.036
-2.500E-07,0.024
-2.400E-07,0.028
-2.300E-07,0.036
-2.200E-07,0.072
-2.100E-07,0.108
-2.000E-07,0.124
-1.900E-07,0.120
-1.800E-07,0.108
-1.700E-07,0.120
-1.600E-07,0.096
-1.500E-07,0.124
-1.400E-07,0.068
-1.300E-07,0.000
-1.200E-07,-0.036
-1.100E-07,0.008
-1.000E-07,0.116
-9.000E-08,0.200
-8.000E-08,0.260
-7.000E-08,0.032
-6.000E-08,-0.332
-5.000E-08,-0.508
-4.000E-08,-0.508
-3.000E-08,-0.512
-2.000E-08,-0.512
-1.000E-08,0.056
0.000E+00,0.540
1.000E-08,0.540
2.000E-08,0.540
3.000E-08,-0.164
4.000E-08,-0.512
5.000E-08,-0.512
6.000E-08,-0.504
7.000E-08,0.256
8.000E-08,0.540
9.000E-08,0.540
1.000E-07,0.468
1.100E-07,-0.164
1.200E-07,-0.512
1.300E-07,-0.512
1.400E-07,-0.408
1.500E-07,0.140
1.600E-07,0.544
1.700E-07,0.540
1.800E-07,0.404
1.900E-07,-0.060
2.000E-07,-0.472
2.100E-07,-0.512
2.200E-07,-0.368
2.300E-07,0.024
2.400E-07,0.416
2.500E-07,0.536
2.600E-07,0.388
2.700E-07,0.024
2.800E-07,-0.300
2.900E-07,-0.440
3.000E-07,-0.336
3.100E-07,-0.036
3.200E-07,0.252
3.300E-07,0.388
3.400E-07,0.288
3.500E-07,0.036
3.600E-07,-0.216
3.700E-07,-0.312
3.800E-07,-0.228
3.900E-07,-0.012
4.000E-07,0.196
4.100E-07,0.284
4.200E-07,0.212
4.300E-07,0.028
4.400E-07,-0.140
4.500E-07,-0.220
4.600E-07,-0.164
4.700E-07,-0.016
4.800E-07,0.140
4.900E-07,0.208
5.000E-07,0.164
5.100E-07,0.024
5.200E-07,-0.104
5.300E-07,-0.164
5.400E-07,-0.116
5.500E-07,0.008
5.600E-07,0.120
5.700E-07,0.164
5.800E-07,0.128
5.900E-07,0.028
6.000E-07,-0.068
6.100E-07,-0.116
6.200E-07,-0.084
6.300E-07,-0.004
6.400E-07,0.092
6.500E-07,0.136
6.600E-07,0.112
6.700E-07,0.048
6.800E-07,-0.036
6.900E-07,-0.076
7.000E-07,-0.060
7.100E-07,0.000
7.200E-07,0.084
7.300E-07,0.128
7.400E-07,0.128
7.500E-07,0.076
7.600E-07,0.012
7.700E-07,-0.028
7.800E-07,-0.016
7.900E-07,0.036
8.000E-07,0.116
8.100E-07,0.164
8.200E-07,0.172
8.300E-07,0.152
8.400E-07,0.112
8.500E-07,0.080
8.600E-07,0.076
8.700E-07,0.124
8.800E-07,0.180
8.900E-07,0.216
9.000E-07,0.236
9.100E-07,0.240
9.200E-07,0.212
9.300E-07,0.176
9.400E-07,0.160
9.500E-07,0.168
9.600E-07,0.192
9.700E-07,0.212
9.800E-07,0.224
9.900E-07,0.236
1.000E-06,0.232
1.010E-06,0.204
1.020E-06,0.188
1.030E-06,0.164
1.040E-06,0.176
1.050E-06,0.192
1.060E-06,0.196
1.070E-06,0.200
1.080E-06,0.184
1.090E-06,0.152
1.100E-06,0.132
1.110E-06,0.120
1.120E-06,0.128
1.130E-06,0.160
1.140E-06,0.188
1.150E-06,0.192
1.160E-06,0.132
1.170E-06,-0.004
1.180E-06,-0.240
1.190E-06,-0.504
1.200E-06,-0.512
1.210E-06,-0.512
1.220E-06,-0.508
1.230E-06,-0.496
1.240E-06,-0.164
1.250E-06,0.052
1.260E-06,0.088
1.270E-06,-0.076
1.280E-06,-0.260
1.290E-06,-0.300
1.300E-06,-0.240
1.310E-06,-0.052
1.320E-06,0.128
1.330E-06,0.244
1.340E-06,0.160
1.350E-06,0.044
1.360E-06,-0.112
1.370E-06,-0.200
1.380E-06,-0.168
1.390E-06,-0.048
1.400E-06,0.084
1.410E-06,0.164
1.420E-06,0.148
1.430E-06,0.028
1.440E-06,-0.080
1.450E-06,-0.140
1.460E-06,-0.136
1.470E-06,-0.056
1.480E-06,0.076
1.490E-06,0.144
1.500E-06,0.132
1.510E-06,0.056
1.520E-06,-0.032
1.530E-06,-0.092
1.540E-06,-0.104
1.550E-06,-0.040
1.560E-06,0.032
1.570E-06,0.096
1.580E-06,0.096
1.590E-06,0.032
1.600E-06,-0.048
1.610E-06,-0.108
1.620E-06,-0.084
1.630E-06,-0.024
1.640E-06,0.048
1.650E-06,0.088
1.660E-06,0.112
1.670E-06,0.092
1.680E-06,0.044
1.690E-06,0.008
1.700E-06,0.028
1.710E-06,0.076
1.720E-06,0.144
1.730E-06,0.172
1.740E-06,0.180
1.750E-06,0.164
1.760E-06,0.132
1.770E-06,0.108
1.780E-06,0.112
1.790E-06,0.148
1.800E-06,0.192
1.810E-06,0.224
1.820E-06,0.240
1.830E-06,0.240
1.840E-06,0.224
1.850E-06,0.204
1.860E-06,0.204
1.870E-06,0.208
1.880E-06,0.224
1.890E-06,0.252
1.900E-06,0.264
1.910E-06,0.272
1.920E-06,0.260
1.930E-06,0.244
1.940E-06,0.220
1.950E-06,0.216
1.960E-06,0.224
1.970E-06,0.248
1.980E-06,0.272
1.990E-06,0.284
2.000E-06,0.280
2.010E-06,0.264
2.020E-06,0.240
2.030E-06,0.228
2.040E-06,0.228
2.050E-06,0.248
2.060E-06,0.256
2.070E-06,0.260
2.080E-06,0.260
2.090E-06,0.256
2.100E-06,0.252
2.110E-06,0.240
2.120E-06,0.244
2.130E-06,0.240
2.140E-06,0.248
2.150E-06,0.260
2.160E-06,0.264
2.170E-06,0.268
2.180E-06,0.268
2.190E-06,0.260
2.200E-06,0.240
2.210E-06,0.244
2.220E-06,0.260
2.230E-06,0.264
2.240E-06,0.264
2.250E-06,0.260
2.260E-06,0.248
2.270E-06,0.240
2.280E-06,0.228
2.290E-06,0.216
2.300E-06,0.208
2.310E-06,0.208
2.320E-06,0.212
2.330E-06,0.200
2.340E-06,0.212
2.350E-06,0.208
2.360E-06,0.212
2.370E-06,0.220
2.380E-06,0.208
2.390E-06,0.200
2.400E-06,0.160
2.410E-06,0.108
2.420E-06,0.080
2.430E-06,0.040
2.440E-06,0.000
2.450E-06,-0.020
2.460E-06,-0.068
2.470E-06,-0.148
2.480E-06,-0.156
2.490E-06,-0.156
2.500E-06,-0.128
2.510E-06,0.004
2.520E-06,0.128
2.530E-06,0.172
2.540E-06,0.160
2.550E-06,0.080
2.560E-06,0.036
2.570E-06,0.048
2.580E-06,0.132
2.590E-06,0.208
2.600E-06,0.272
2.610E-06,0.252
2.620E-06,0.192
2.630E-06,0.100
2.640E-06,0.024
2.650E-06,0.056
2.660E-06,0.152
2.670E-06,0.260
2.680E-06,0.276
2.690E-06,0.240
2.700E-06,0.156
2.710E-06,0.076
2.720E-06,0.044
2.730E-06,0.092
2.740E-06,0.188
2.750E-06,0.272
2.760E-06,0.308
2.770E-06,0.304
2.780E-06,0.260
2.790E-06,0.224
2.800E-06,0.204
2.810E-06,0.208
2.820E-06,0.240
2.830E-06,0.268
2.840E-06,0.292
2.850E-06,0.292
2.860E-06,0.272
2.870E-06,0.240
2.880E-06,0.204
2.890E-06,0.192
2.900E-06,0.204
2.910E-06,0.232
2.920E-06,0.264
2.930E-06,0.276
2.940E-06,0.268
2.950E-06,0.248
2.960E-06,0.224
2.970E-06,0.212
2.980E-06,0.220
2.990E-06,0.232
3.000E-06,0.256
3.010E-06,0.264
3.020E-06,0.256
3.030E-06,0.240
3.040E-06,0.228
3.050E-06,0.224
3.060E-06,0.224
3.070E-06,0.232
3.080E-06,0.240
3.090E-06,0.248
3.100E-06,0.244
3.110E-06,0.236
3.120E-06,0.232
3.130E-06,0.228
3.140E-06,0.232
3.150E-06,0.232
3.160E-06,0.232
3.170E-06,0.232
3.180E-06,0.232
3.190E-06,0.236
3.200E-06,0.224
3.210E-06,0.224
3.220E-06,0.220
3.230E-06,0.224
3.240E-06,0.224
3.250E-06,0.228
3.260E-06,0.232
3.270E-06,0.228
3.280E-06,0.228
3.290E-06,0.224
3.300E-06,0.224
3.310E-06,0.220
3.320E-06,0.220
3.330E-06,0.224
3.340E-06,0.228
3.350E-06,0.240
