mediciones/6-26/17.5/WaveData59112.csv

#timebase=2000000(ps)
,#voltbase=200000(mv/100)
#size=4000
-8.150E-06,0.008
-8.140E-06,-0.008
-8.130E-06,0.000
-8.120E-06,0.000
-8.110E-06,0.000
-8.100E-06,0.000
-8.090E-06,0.000
-8.080E-06,0.008
-8.070E-06,0.008
-8.060E-06,-0.008
-8.050E-06,0.000
-8.040E-06,0.008
-8.030E-06,0.008
-8.020E-06,0.008
-8.010E-06,0.008
-8.000E-06,0.008
-7.990E-06,-0.008
-7.980E-06,0.008
-7.970E-06,0.000
-7.960E-06,0.000
-7.950E-06,-0.008
-7.940E-06,0.008
-7.930E-06,-0.008
-7.920E-06,0.008
-7.910E-06,-0.008
-7.900E-06,0.008
-7.890E-06,0.008
-7.880E-06,0.008
-7.870E-06,0.016
-7.860E-06,0.008
-7.850E-06,0.008
-7.840E-06,0.016
-7.830E-06,0.008
-7.820E-06,-0.008
-7.810E-06,0.008
-7.800E-06,0.000
-7.790E-06,0.000
-7.780E-06,0.000
-7.770E-06,0.000
-7.760E-06,0.008
-7.750E-06,0.008
-7.740E-06,0.000
-7.730E-06,0.008
-7.720E-06,0.008
-7.710E-06,0.000
-7.700E-06,0.000
-7.690E-06,0.000
-7.680E-06,0.008
-7.670E-06,0.000
-7.660E-06,0.000
-7.650E-06,0.000
-7.640E-06,0.000
-7.630E-06,0.000
-7.620E-06,0.000
-7.610E-06,0.000
-7.600E-06,0.008
-7.590E-06,0.000
-7.580E-06,0.000
-7.570E-06,-0.008
-7.560E-06,0.000
-7.550E-06,0.008
-7.540E-06,0.000
-7.530E-06,0.000
-7.520E-06,0.000
-7.510E-06,0.000
-7.500E-06,0.000
-7.490E-06,0.000
-7.480E-06,-0.008
-7.470E-06,0.000
-7.460E-06,0.000
-7.450E-06,0.008
-7.440E-06,0.008
-7.430E-06,0.000
-7.420E-06,0.008
-7.410E-06,0.016
-7.400E-06,-0.008
-7.390E-06,0.000
-7.380E-06,0.000
-7.370E-06,0.000
-7.360E-06,0.008
-7.350E-06,-0.008
-7.340E-06,0.000
-7.330E-06,-0.008
-7.320E-06,0.008
-7.310E-06,0.008
-7.300E-06,0.008
-7.290E-06,-0.008
-7.280E-06,0.000
-7.270E-06,0.000
-7.260E-06,0.000
-7.250E-06,0.008
-7.240E-06,0.008
-7.230E-06,0.000
-7.220E-06,0.000
-7.210E-06,0.000
-7.200E-06,0.000
-7.190E-06,0.000
-7.180E-06,0.000
-7.170E-06,0.008
-7.160E-06,0.000
-7.150E-06,0.000
-7.140E-06,0.008
-7.130E-06,0.000
-7.120E-06,0.000
-7.110E-06,0.000
-7.100E-06,0.000
-7.090E-06,0.000
-7.080E-06,0.008
-7.070E-06,0.000
-7.060E-06,0.008
-7.050E-06,0.000
-7.040E-06,0.008
-7.030E-06,-0.008
-7.020E-06,0.008
-7.010E-06,0.000
-7.000E-06,0.008
-6.990E-06,0.000
-6.980E-06,0.000
-6.970E-06,0.008
-6.960E-06,0.032
-6.950E-06,0.064
-6.940E-06,0.080
-6.930E-06,0.088
-6.920E-06,0.056
-6.910E-06,0.064
-6.900E-06,-0.192
-6.890E-06,-0.248
-6.880E-06,-0.136
-6.870E-06,0.128
-6.860E-06,0.048
-6.850E-06,0.160
-6.840E-06,0.064
-6.830E-06,-0.128
-6.820E-06,0.008
-6.810E-06,-0.048
-6.800E-06,0.024
-6.790E-06,0.056
-6.780E-06,0.168
-6.770E-06,0.032
-6.760E-06,-0.016
-6.750E-06,-0.048
-6.740E-06,-0.136
-6.730E-06,-0.032
-6.720E-06,0.000
-6.710E-06,0.080
-6.700E-06,0.040
-6.690E-06,0.088
-6.680E-06,0.008
-6.670E-06,-0.008
-6.660E-06,-0.016
-6.650E-06,-0.032
-6.640E-06,0.008
-6.630E-06,0.024
-6.620E-06,0.048
-6.610E-06,0.000
-6.600E-06,0.000
-6.590E-06,-0.048
-6.580E-06,-0.040
-6.570E-06,-0.048
-6.560E-06,0.000
-6.550E-06,0.024
-6.540E-06,0.056
-6.530E-06,0.040
-6.520E-06,0.016
-6.510E-06,0.008
-6.500E-06,-0.008
-6.490E-06,0.008
-6.480E-06,0.000
-6.470E-06,0.008
-6.460E-06,0.000
-6.450E-06,0.008
-6.440E-06,-0.008
-6.430E-06,-0.008
-6.420E-06,-0.008
-6.410E-06,-0.008
-6.400E-06,0.008
-6.390E-06,0.024
-6.380E-06,0.016
-6.370E-06,0.024
-6.360E-06,0.016
-6.350E-06,0.016
-6.340E-06,0.000
-6.330E-06,-0.008
-6.320E-06,-0.008
-6.310E-06,0.000
-6.300E-06,0.008
-6.290E-06,0.008
-6.280E-06,0.008
-6.270E-06,0.000
-6.260E-06,-0.008
-6.250E-06,-0.008
-6.240E-06,0.008
-6.230E-06,0.008
-6.220E-06,0.008
-6.210E-06,0.024
-6.200E-06,0.000
-6.190E-06,-0.008
-6.180E-06,-0.008
-6.170E-06,-0.008
-6.160E-06,-0.008
-6.150E-06,0.000
-6.140E-06,0.000
-6.130E-06,0.000
-6.120E-06,0.016
-6.110E-06,0.008
-6.100E-06,0.008
-6.090E-06,0.008
-6.080E-06,0.000
-6.070E-06,0.008
-6.060E-06,0.008
-6.050E-06,0.016
-6.040E-06,0.016
-6.030E-06,0.008
-6.020E-06,0.000
-6.010E-06,0.016
-6.000E-06,0.016
-5.990E-06,0.000
-5.980E-06,-0.008
-5.970E-06,0.008
-5.960E-06,0.008
-5.950E-06,0.008
-5.940E-06,0.008
-5.930E-06,0.000
-5.920E-06,0.008
-5.910E-06,0.008
-5.900E-06,0.000
-5.890E-06,0.000
-5.880E-06,0.008
-5.870E-06,0.016
-5.860E-06,-0.008
-5.850E-06,-0.008
-5.840E-06,-0.008
-5.830E-06,-0.008
-5.820E-06,0.000
-5.810E-06,0.016
-5.800E-06,0.016
-5.790E-06,0.016
-5.780E-06,0.000
-5.770E-06,-0.008
-5.760E-06,-0.016
-5.750E-06,-0.016
-5.740E-06,0.008
-5.730E-06,0.016
-5.720E-06,0.024
-5.710E-06,0.024
-5.700E-06,0.000
-5.690E-06,0.000
-5.680E-06,-0.016
-5.670E-06,-0.008
-5.660E-06,0.000
-5.650E-06,0.008
-5.640E-06,0.016
-5.630E-06,0.008
-5.620E-06,0.008
-5.610E-06,0.000
-5.600E-06,0.000
-5.590E-06,0.000
-5.580E-06,0.000
-5.570E-06,0.016
-5.560E-06,0.016
-5.550E-06,0.016
-5.540E-06,0.008
-5.530E-06,0.000
-5.520E-06,0.008
-5.510E-06,-0.008
-5.500E-06,0.000
-5.490E-06,0.008
-5.480E-06,0.024
-5.470E-06,0.024
-5.460E-06,0.000
-5.450E-06,0.016
-5.440E-06,0.008
-5.430E-06,0.000
-5.420E-06,0.016
-5.410E-06,0.000
-5.400E-06,-0.008
-5.390E-06,-0.040
-5.380E-06,-0.040
-5.370E-06,-0.080
-5.360E-06,-0.008
-5.350E-06,0.016
-5.340E-06,0.096
-5.330E-06,0.064
-5.320E-06,0.024
-5.310E-06,-0.008
-5.300E-06,-0.072
-5.290E-06,-0.064
-5.280E-06,-0.040
-5.270E-06,-0.008
-5.260E-06,0.064
-5.250E-06,0.056
-5.240E-06,0.040
-5.230E-06,0.000
-5.220E-06,-0.040
-5.210E-06,-0.056
-5.200E-06,-0.024
-5.190E-06,0.000
-5.180E-06,0.032
-5.170E-06,0.040
-5.160E-06,0.040
-5.150E-06,0.016
-5.140E-06,-0.008
-5.130E-06,-0.024
-5.120E-06,-0.016
-5.110E-06,-0.008
-5.100E-06,0.016
-5.090E-06,0.024
-5.080E-06,0.040
-5.070E-06,0.024
-5.060E-06,0.008
-5.050E-06,-0.016
-5.040E-06,-0.008
-5.030E-06,-0.008
-5.020E-06,0.008
-5.010E-06,0.024
-5.000E-06,0.016
-4.990E-06,0.032
-4.980E-06,0.008
-4.970E-06,0.000
-4.960E-06,-0.008
-4.950E-06,-0.008
-4.940E-06,0.008
-4.930E-06,0.024
-4.920E-06,0.032
-4.910E-06,0.024
-4.900E-06,0.016
-4.890E-06,0.008
-4.880E-06,-0.016
-4.870E-06,-0.008
-4.860E-06,-0.064
-4.850E-06,-0.056
-4.840E-06,-0.024
-4.830E-06,0.000
-4.820E-06,0.048
-4.810E-06,0.056
-4.800E-06,0.048
-4.790E-06,-0.008
-4.780E-06,-0.024
-4.770E-06,-0.072
-4.760E-06,-0.048
-4.750E-06,0.000
-4.740E-06,0.048
-4.730E-06,0.080
-4.720E-06,0.056
-4.710E-06,0.008
-4.700E-06,-0.048
-4.690E-06,-0.080
-4.680E-06,-0.072
-4.670E-06,-0.016
-4.660E-06,0.040
-4.650E-06,0.104
-4.640E-06,0.080
-4.630E-06,0.040
-4.620E-06,0.000
-4.610E-06,-0.064
-4.600E-06,-0.072
-4.590E-06,-0.080
-4.580E-06,-0.024
-4.570E-06,0.016
-4.560E-06,0.064
-4.550E-06,0.064
-4.540E-06,0.048
-4.530E-06,-0.008
-4.520E-06,-0.048
-4.510E-06,-0.056
-4.500E-06,-0.040
-4.490E-06,0.000
-4.480E-06,0.024
-4.470E-06,0.040
-4.460E-06,0.056
-4.450E-06,0.032
-4.440E-06,0.000
-4.430E-06,-0.048
-4.420E-06,-0.048
-4.410E-06,-0.024
-4.400E-06,0.016
-4.390E-06,0.040
-4.380E-06,0.048
-4.370E-06,0.040
-4.360E-06,0.000
-4.350E-06,-0.024
-4.340E-06,-0.032
-4.330E-06,0.000
-4.320E-06,0.008
-4.310E-06,0.024
-4.300E-06,0.032
-4.290E-06,0.024
-4.280E-06,0.008
-4.270E-06,-0.016
-4.260E-06,-0.016
-4.250E-06,-0.024
-4.240E-06,-0.008
-4.230E-06,0.008
-4.220E-06,0.024
-4.210E-06,0.032
-4.200E-06,0.008
-4.190E-06,-0.008
-4.180E-06,-0.016
-4.170E-06,-0.008
-4.160E-06,0.000
-4.150E-06,0.008
-4.140E-06,0.016
-4.130E-06,0.008
-4.120E-06,0.008
-4.110E-06,0.008
-4.100E-06,0.008
-4.090E-06,-0.016
-4.080E-06,0.008
-4.070E-06,-0.008
-4.060E-06,0.008
-4.050E-06,0.016
-4.040E-06,0.016
-4.030E-06,0.016
-4.020E-06,-0.008
-4.010E-06,0.000
-4.000E-06,-0.008
-3.990E-06,-0.008
-3.980E-06,0.016
-3.970E-06,0.008
-3.960E-06,0.008
-3.950E-06,0.016
-3.940E-06,-0.008
-3.930E-06,0.000
-3.920E-06,0.016
-3.910E-06,0.000
-3.900E-06,0.008
-3.890E-06,-0.008
-3.880E-06,-0.016
-3.870E-06,0.000
-3.860E-06,-0.016
-3.850E-06,0.016
-3.840E-06,0.008
-3.830E-06,0.032
-3.820E-06,0.032
-3.810E-06,0.000
-3.800E-06,-0.024
-3.790E-06,-0.032
-3.780E-06,-0.016
-3.770E-06,0.000
-3.760E-06,0.048
-3.750E-06,0.048
-3.740E-06,0.048
-3.730E-06,0.008
-3.720E-06,-0.016
-3.710E-06,-0.032
-3.700E-06,-0.008
-3.690E-06,0.008
-3.680E-06,0.048
-3.670E-06,0.064
-3.660E-06,0.040
-3.650E-06,0.008
-3.640E-06,0.000
-3.630E-06,-0.016
-3.620E-06,0.000
-3.610E-06,0.008
-3.600E-06,0.024
-3.590E-06,0.000
-3.580E-06,0.000
-3.570E-06,-0.048
-3.560E-06,0.016
-3.550E-06,0.032
-3.540E-06,0.016
-3.530E-06,0.008
-3.520E-06,0.016
-3.510E-06,0.016
-3.500E-06,-0.048
-3.490E-06,-0.064
-3.480E-06,-0.032
-3.470E-06,0.040
-3.460E-06,0.104
-3.450E-06,0.080
-3.440E-06,0.008
-3.430E-06,-0.064
-3.420E-06,-0.072
-3.410E-06,-0.048
-3.400E-06,0.000
-3.390E-06,0.040
-3.380E-06,0.072
-3.370E-06,0.056
-3.360E-06,0.008
-3.350E-06,-0.040
-3.340E-06,-0.064
-3.330E-06,-0.040
-3.320E-06,-0.008
-3.310E-06,0.032
-3.300E-06,0.048
-3.290E-06,0.064
-3.280E-06,0.024
-3.270E-06,-0.024
-3.260E-06,-0.048
-3.250E-06,-0.032
-3.240E-06,-0.016
-3.230E-06,0.032
-3.220E-06,0.048
-3.210E-06,0.040
-3.200E-06,0.016
-3.190E-06,-0.008
-3.180E-06,-0.008
-3.170E-06,-0.016
-3.160E-06,-0.008
-3.150E-06,0.016
-3.140E-06,0.048
-3.130E-06,0.040
-3.120E-06,0.032
-3.110E-06,0.000
-3.100E-06,0.000
-3.090E-06,-0.008
-3.080E-06,0.000
-3.070E-06,0.008
-3.060E-06,0.016
-3.050E-06,0.032
-3.040E-06,-0.064
-3.030E-06,-0.088
-3.020E-06,-0.080
-3.010E-06,0.000
-3.000E-06,0.056
-2.990E-06,0.072
-2.980E-06,0.088
-2.970E-06,-0.024
-2.960E-06,-0.056
-2.950E-06,-0.072
-2.940E-06,-0.048
-2.930E-06,0.024
-2.920E-06,0.072
-2.910E-06,0.072
-2.900E-06,0.024
-2.890E-06,0.000
-2.880E-06,-0.048
-2.870E-06,-0.064
-2.860E-06,-0.024
-2.850E-06,0.032
-2.840E-06,0.064
-2.830E-06,0.072
-2.820E-06,0.032
-2.810E-06,-0.016
-2.800E-06,-0.048
-2.790E-06,-0.016
-2.780E-06,0.000
-2.770E-06,0.032
-2.760E-06,0.048
-2.750E-06,0.048
-2.740E-06,0.040
-2.730E-06,0.000
-2.720E-06,-0.016
-2.710E-06,-0.024
-2.700E-06,-0.008
-2.690E-06,0.024
-2.680E-06,0.056
-2.670E-06,0.048
-2.660E-06,0.040
-2.650E-06,0.016
-2.640E-06,-0.016
-2.630E-06,0.000
-2.620E-06,0.000
-2.610E-06,0.024
-2.600E-06,0.040
-2.590E-06,0.024
-2.580E-06,0.032
-2.570E-06,0.016
-2.560E-06,0.016
-2.550E-06,-0.008
-2.540E-06,-0.008
-2.530E-06,0.016
-2.520E-06,0.032
-2.510E-06,0.040
-2.500E-06,0.048
-2.490E-06,0.016
-2.480E-06,-0.016
-2.470E-06,-0.360
-2.460E-06,-0.224
-2.450E-06,-0.136
-2.440E-06,0.016
-2.430E-06,0.288
-2.420E-06,0.248
-2.410E-06,0.224
-2.400E-06,-0.120
-2.390E-06,-0.184
-2.380E-06,-0.360
-2.370E-06,-0.136
-2.360E-06,0.056
-2.350E-06,0.216
-2.340E-06,0.272
-2.330E-06,0.104
-2.320E-06,-0.032
-2.310E-06,-0.240
-2.300E-06,-0.160
-2.290E-06,-0.168
-2.280E-06,0.048
-2.270E-06,0.152
-2.260E-06,0.248
-2.250E-06,0.096
-2.240E-06,0.008
-2.230E-06,-0.120
-2.220E-06,-0.136
-2.210E-06,-0.080
-2.200E-06,-0.072
-2.190E-06,0.072
-2.180E-06,0.128
-2.170E-06,0.152
-2.160E-06,0.056
-2.150E-06,-0.008
-2.140E-06,-0.136
-2.130E-06,-0.040
-2.120E-06,-0.008
-2.110E-06,0.040
-2.100E-06,0.072
-2.090E-06,0.072
-2.080E-06,0.064
-2.070E-06,0.000
-2.060E-06,-0.008
-2.050E-06,-0.088
-2.040E-06,-0.008
-2.030E-06,0.000
-2.020E-06,0.072
-2.010E-06,0.072
-2.000E-06,0.056
-1.990E-06,0.024
-1.980E-06,-0.016
-1.970E-06,-0.016
-1.960E-06,-0.040
-1.950E-06,0.008
-1.940E-06,0.032
-1.930E-06,0.064
-1.920E-06,0.040
-1.910E-06,0.024
-1.900E-06,0.000
-1.890E-06,-0.016
-1.880E-06,-0.008
-1.870E-06,0.000
-1.860E-06,0.032
-1.850E-06,0.040
-1.840E-06,0.056
-1.830E-06,0.048
-1.820E-06,0.016
-1.810E-06,-0.016
-1.800E-06,-0.008
-1.790E-06,-0.008
-1.780E-06,0.024
-1.770E-06,0.056
-1.760E-06,0.064
-1.750E-06,0.032
-1.740E-06,0.024
-1.730E-06,0.008
-1.720E-06,0.016
-1.710E-06,0.000
-1.700E-06,0.008
-1.690E-06,0.048
-1.680E-06,0.040
-1.670E-06,0.016
-1.660E-06,0.008
-1.650E-06,-0.208
-1.640E-06,-0.376
-1.630E-06,-0.152
-1.620E-06,-0.064
-1.610E-06,0.048
-1.600E-06,0.256
-1.590E-06,0.328
-1.580E-06,0.104
-1.570E-06,-0.168
-1.560E-06,-0.328
-1.550E-06,-0.312
-1.540E-06,0.024
-1.530E-06,0.272
-1.520E-06,0.344
-1.510E-06,0.208
-1.500E-06,0.024
-1.490E-06,-0.136
-1.480E-06,-0.264
-1.470E-06,-0.168
-1.460E-06,-0.024
-1.450E-06,0.048
-1.440E-06,0.128
-1.430E-06,0.160
-1.420E-06,0.024
-1.410E-06,-0.032
-1.400E-06,-0.136
-1.390E-06,-0.096
-1.380E-06,-0.016
-1.370E-06,0.056
-1.360E-06,0.088
-1.350E-06,0.048
-1.340E-06,0.016
-1.330E-06,-0.008
-1.320E-06,0.000
-1.310E-06,-0.008
-1.300E-06,0.024
-1.290E-06,0.032
-1.280E-06,0.048
-1.270E-06,0.024
-1.260E-06,0.016
-1.250E-06,0.008
-1.240E-06,0.008
-1.230E-06,0.016
-1.220E-06,0.032
-1.210E-06,0.024
-1.200E-06,0.048
-1.190E-06,0.064
-1.180E-06,0.064
-1.170E-06,0.048
-1.160E-06,-0.008
-1.150E-06,-0.008
-1.140E-06,0.032
-1.130E-06,0.072
-1.120E-06,0.112
-1.110E-06,0.112
-1.100E-06,0.104
-1.090E-06,0.048
-1.080E-06,0.024
-1.070E-06,-0.024
-1.060E-06,-0.040
-1.050E-06,-0.032
-1.040E-06,-0.064
-1.030E-06,-0.048
-1.020E-06,0.104
-1.010E-06,0.112
-1.000E-06,0.096
-9.900E-07,0.008
-9.800E-07,-0.040
-9.700E-07,-0.048
-9.600E-07,0.024
-9.500E-07,-0.320
-9.400E-07,-0.144
-9.300E-07,-0.288
-9.200E-07,-0.320
-9.100E-07,-0.120
-9.000E-07,0.384
-8.900E-07,0.368
-8.800E-07,0.112
-8.700E-07,-0.072
-8.600E-07,-0.280
-8.500E-07,-0.224
-8.400E-07,0.080
-8.300E-07,0.368
-8.200E-07,0.344
-8.100E-07,0.216
-8.000E-07,0.064
-7.900E-07,-0.272
-7.800E-07,-0.152
-7.700E-07,-0.216
-7.600E-07,0.096
-7.500E-07,0.256
-7.400E-07,0.328
-7.300E-07,0.208
-7.200E-07,-0.024
-7.100E-07,-0.344
-7.000E-07,-0.400
-6.900E-07,-0.216
-6.800E-07,-0.176
-6.700E-07,0.184
-6.600E-07,0.224
-6.500E-07,0.312
-6.400E-07,0.152
-6.300E-07,-0.024
-6.200E-07,-0.072
-6.100E-07,-0.088
-6.000E-07,0.008
-5.900E-07,0.064
-5.800E-07,0.224
-5.700E-07,0.240
-5.600E-07,0.224
-5.500E-07,0.088
-5.400E-07,0.032
-5.300E-07,-0.144
-5.200E-07,-0.112
-5.100E-07,-0.240
-5.000E-07,-0.248
-4.900E-07,-0.112
-4.800E-07,-0.016
-4.700E-07,0.176
-4.600E-07,0.112
-4.500E-07,0.176
-4.400E-07,-0.064
-4.300E-07,-0.144
-4.200E-07,-0.192
-4.100E-07,-0.088
-4.000E-07,0.128
-3.900E-07,0.256
-3.800E-07,0.216
-3.700E-07,0.112
-3.600E-07,-0.032
-3.500E-07,-0.184
-3.400E-07,-0.120
-3.300E-07,-0.096
-3.200E-07,0.056
-3.100E-07,0.160
-3.000E-07,0.200
-2.900E-07,0.136
-2.800E-07,0.056
-2.700E-07,-0.032
-2.600E-07,-0.080
-2.500E-07,-0.040
-2.400E-07,0.016
-2.300E-07,0.120
-2.200E-07,0.096
-2.100E-07,0.016
-2.000E-07,-0.088
-1.900E-07,0.000
-1.800E-07,0.056
-1.700E-07,0.136
-1.600E-07,0.240
-1.500E-07,0.192
-1.400E-07,0.192
-1.300E-07,0.048
-1.200E-07,0.024
-1.100E-07,0.040
-1.000E-07,0.192
-9.000E-08,0.264
-8.000E-08,0.328
-7.000E-08,0.176
-6.000E-08,-0.200
-5.000E-08,-0.488
-4.000E-08,-0.664
-3.000E-08,-0.336
-2.000E-08,-0.320
-1.000E-08,0.608
0.000E+00,0.688
1.000E-08,0.376
2.000E-08,0.144
3.000E-08,0.032
4.000E-08,-0.120
5.000E-08,-0.280
6.000E-08,-0.144
7.000E-08,0.152
8.000E-08,0.440
9.000E-08,0.512
1.000E-07,0.288
1.100E-07,-0.088
1.200E-07,-0.520
1.300E-07,-0.544
1.400E-07,-0.568
1.500E-07,-0.272
1.600E-07,0.280
1.700E-07,0.112
1.800E-07,0.360
1.900E-07,0.032
2.000E-07,0.056
2.100E-07,-0.176
2.200E-07,-0.224
2.300E-07,0.048
2.400E-07,0.184
2.500E-07,0.576
2.600E-07,0.536
2.700E-07,0.384
2.800E-07,0.088
2.900E-07,-0.016
3.000E-07,-0.064
3.100E-07,0.048
3.200E-07,0.264
3.300E-07,0.368
3.400E-07,0.352
3.500E-07,0.312
3.600E-07,0.240
3.700E-07,0.056
3.800E-07,0.056
3.900E-07,0.056
4.000E-07,0.120
4.100E-07,0.144
4.200E-07,0.208
4.300E-07,0.208
4.400E-07,0.152
4.500E-07,0.136
4.600E-07,0.104
4.700E-07,0.176
4.800E-07,0.176
4.900E-07,0.208
5.000E-07,0.280
5.100E-07,0.304
5.200E-07,0.320
5.300E-07,0.304
5.400E-07,0.240
5.500E-07,0.192
5.600E-07,0.184
5.700E-07,0.216
5.800E-07,0.280
5.900E-07,0.344
6.000E-07,0.344
6.100E-07,0.328
6.200E-07,0.288
6.300E-07,0.216
6.400E-07,0.152
6.500E-07,0.128
6.600E-07,0.160
6.700E-07,0.120
6.800E-07,-0.048
6.900E-07,0.216
7.000E-07,-0.416
7.100E-07,-0.824
7.200E-07,-1.016
7.300E-07,-1.016
7.400E-07,-1.016
7.500E-07,0.704
7.600E-07,1.080
7.700E-07,1.080
7.800E-07,1.080
7.900E-07,0.424
8.000E-07,-0.144
8.100E-07,-0.968
8.200E-07,-0.720
8.300E-07,-0.040
8.400E-07,0.688
8.500E-07,1.080
8.600E-07,1.008
8.700E-07,0.704
8.800E-07,0.024
8.900E-07,-0.328
9.000E-07,-0.392
9.100E-07,-0.136
9.200E-07,0.472
9.300E-07,0.856
9.400E-07,0.944
9.500E-07,0.704
9.600E-07,0.312
9.700E-07,-0.104
9.800E-07,-0.256
9.900E-07,-0.080
1.000E-06,0.264
1.010E-06,0.584
1.020E-06,0.752
1.030E-06,0.648
1.040E-06,0.384
1.050E-06,0.088
1.060E-06,-0.088
1.070E-06,-0.048
1.080E-06,0.176
1.090E-06,0.440
1.100E-06,0.600
1.110E-06,0.616
1.120E-06,0.456
1.130E-06,0.224
1.140E-06,0.040
1.150E-06,-0.008
1.160E-06,0.064
1.170E-06,0.256
1.180E-06,0.392
1.190E-06,0.432
1.200E-06,0.360
1.210E-06,0.240
1.220E-06,0.096
1.230E-06,0.056
1.240E-06,0.128
1.250E-06,0.272
1.260E-06,0.416
1.270E-06,0.464
1.280E-06,0.416
1.290E-06,0.296
1.300E-06,0.184
1.310E-06,0.112
1.320E-06,0.136
1.330E-06,0.240
1.340E-06,0.344
1.350E-06,0.416
1.360E-06,0.384
1.370E-06,0.328
1.380E-06,0.248
1.390E-06,0.192
1.400E-06,0.200
1.410E-06,0.256
1.420E-06,0.336
1.430E-06,0.384
1.440E-06,0.392
1.450E-06,0.352
1.460E-06,0.272
1.470E-06,0.224
1.480E-06,0.216
1.490E-06,0.256
1.500E-06,0.312
1.510E-06,0.344
1.520E-06,0.360
1.530E-06,0.336
1.540E-06,0.288
1.550E-06,0.240
1.560E-06,0.232
1.570E-06,0.248
1.580E-06,0.272
1.590E-06,0.312
1.600E-06,0.344
1.610E-06,0.320
1.620E-06,0.312
1.630E-06,0.264
1.640E-06,0.248
1.650E-06,0.240
1.660E-06,0.280
1.670E-06,0.304
1.680E-06,0.320
1.690E-06,0.312
1.700E-06,0.304
1.710E-06,0.272
1.720E-06,0.256
1.730E-06,0.248
1.740E-06,0.264
1.750E-06,0.288
1.760E-06,0.304
1.770E-06,0.296
1.780E-06,0.296
1.790E-06,0.288
1.800E-06,0.264
1.810E-06,0.248
1.820E-06,0.256
1.830E-06,0.272
1.840E-06,0.272
1.850E-06,0.288
1.860E-06,0.288
1.870E-06,0.280
1.880E-06,0.272
1.890E-06,0.256
1.900E-06,0.248
1.910E-06,0.248
1.920E-06,0.256
1.930E-06,0.272
1.940E-06,0.280
1.950E-06,0.272
1.960E-06,0.272
1.970E-06,0.256
1.980E-06,0.240
1.990E-06,0.240
2.000E-06,0.240
2.010E-06,0.256
2.020E-06,0.256
2.030E-06,0.272
2.040E-06,0.272
2.050E-06,0.264
2.060E-06,0.264
2.070E-06,0.256
2.080E-06,0.256
2.090E-06,0.256
2.100E-06,0.264
2.110E-06,0.256
2.120E-06,0.256
2.130E-06,0.272
2.140E-06,0.272
2.150E-06,0.264
2.160E-06,0.264
2.170E-06,0.256
2.180E-06,0.256
2.190E-06,0.256
2.200E-06,0.256
2.210E-06,0.240
2.220E-06,0.248
2.230E-06,0.248
2.240E-06,0.256
2.250E-06,0.256
2.260E-06,0.256
2.270E-06,0.256
2.280E-06,0.256
2.290E-06,0.256
2.300E-06,0.264
2.310E-06,0.264
2.320E-06,0.264
2.330E-06,0.256
2.340E-06,0.256
2.350E-06,0.256
2.360E-06,0.248
2.370E-06,0.248
2.380E-06,0.256
2.390E-06,0.248
2.400E-06,0.248
2.410E-06,0.232
2.420E-06,0.224
2.430E-06,0.232
2.440E-06,0.240
2.450E-06,0.248
2.460E-06,0.248
2.470E-06,0.256
2.480E-06,0.248
2.490E-06,0.248
2.500E-06,0.216
2.510E-06,0.216
2.520E-06,0.216
2.530E-06,0.256
2.540E-06,0.256
2.550E-06,0.248
2.560E-06,0.248
2.570E-06,0.248
2.580E-06,0.232
2.590E-06,0.216
2.600E-06,0.224
2.610E-06,0.240
2.620E-06,0.248
2.630E-06,0.248
2.640E-06,0.248
2.650E-06,0.232
2.660E-06,0.224
2.670E-06,0.224
2.680E-06,0.208
2.690E-06,0.208
2.700E-06,0.216
2.710E-06,0.216
2.720E-06,0.232
2.730E-06,0.224
2.740E-06,0.216
2.750E-06,0.216
2.760E-06,0.216
2.770E-06,0.216
2.780E-06,0.224
2.790E-06,0.216
2.800E-06,0.224
2.810E-06,0.216
2.820E-06,0.216
2.830E-06,0.224
2.840E-06,0.216
2.850E-06,0.208
2.860E-06,0.216
2.870E-06,0.216
2.880E-06,0.224
2.890E-06,0.224
2.900E-06,0.216
2.910E-06,0.208
2.920E-06,0.216
2.930E-06,0.216
2.940E-06,0.216
2.950E-06,0.216
2.960E-06,0.208
2.970E-06,0.208
2.980E-06,0.208
2.990E-06,0.200
3.000E-06,0.192
3.010E-06,0.200
3.020E-06,0.208
3.030E-06,0.216
3.040E-06,0.208
3.050E-06,0.200
3.060E-06,0.192
3.070E-06,0.184
3.080E-06,0.184
3.090E-06,0.200
3.100E-06,0.216
3.110E-06,0.216
3.120E-06,0.208
3.130E-06,0.200
3.140E-06,0.192
3.150E-06,0.176
3.160E-06,0.184
3.170E-06,0.192
3.180E-06,0.208
3.190E-06,0.216
3.200E-06,0.200
3.210E-06,0.192
3.220E-06,0.192
3.230E-06,0.184
3.240E-06,0.184
3.250E-06,0.184
3.260E-06,0.192
3.270E-06,0.192
3.280E-06,0.192
3.290E-06,0.200
3.300E-06,0.192
3.310E-06,0.192
3.320E-06,0.184
3.330E-06,0.184
3.340E-06,0.192
3.350E-06,0.184
3.360E-06,0.184
3.370E-06,0.192
3.380E-06,0.192
3.390E-06,0.184
3.400E-06,0.176
3.410E-06,0.176
3.420E-06,0.184
3.430E-06,0.176
3.440E-06,0.184
3.450E-06,0.184
3.460E-06,0.184
3.470E-06,0.176
3.480E-06,0.184
3.490E-06,0.184
3.500E-06,0.184
3.510E-06,0.176
3.520E-06,0.184
3.530E-06,0.168
3.540E-06,0.168
3.550E-06,0.168
3.560E-06,0.168
3.570E-06,0.168
3.580E-06,0.184
3.590E-06,0.176
3.600E-06,0.168
3.610E-06,0.176
