mediciones/6-26/17.5/WaveData59116.csv

#timebase=2000000(ps)
,#voltbase=200000(mv/100)
#size=4000
-8.150E-06,0.008
-8.140E-06,0.008
-8.130E-06,0.008
-8.120E-06,-0.008
-8.110E-06,0.000
-8.100E-06,0.000
-8.090E-06,0.008
-8.080E-06,0.008
-8.070E-06,0.000
-8.060E-06,-0.008
-8.050E-06,0.008
-8.040E-06,-0.008
-8.030E-06,0.008
-8.020E-06,0.008
-8.010E-06,0.016
-8.000E-06,-0.008
-7.990E-06,0.000
-7.980E-06,0.008
-7.970E-06,0.000
-7.960E-06,0.008
-7.950E-06,0.000
-7.940E-06,0.008
-7.930E-06,0.016
-7.920E-06,0.016
-7.910E-06,-0.008
-7.900E-06,0.008
-7.890E-06,0.000
-7.880E-06,0.008
-7.870E-06,0.000
-7.860E-06,0.000
-7.850E-06,0.008
-7.840E-06,0.000
-7.830E-06,0.016
-7.820E-06,0.008
-7.810E-06,0.016
-7.800E-06,0.008
-7.790E-06,0.008
-7.780E-06,-0.008
-7.770E-06,-0.008
-7.760E-06,0.008
-7.750E-06,-0.008
-7.740E-06,0.000
-7.730E-06,0.000
-7.720E-06,0.000
-7.710E-06,-0.008
-7.700E-06,0.008
-7.690E-06,-0.008
-7.680E-06,0.008
-7.670E-06,0.008
-7.660E-06,0.008
-7.650E-06,0.000
-7.640E-06,0.008
-7.630E-06,0.000
-7.620E-06,0.000
-7.610E-06,0.008
-7.600E-06,0.000
-7.590E-06,0.000
-7.580E-06,0.000
-7.570E-06,0.008
-7.560E-06,0.008
-7.550E-06,0.000
-7.540E-06,0.000
-7.530E-06,0.008
-7.520E-06,0.016
-7.510E-06,-0.008
-7.500E-06,0.000
-7.490E-06,0.008
-7.480E-06,0.008
-7.470E-06,0.000
-7.460E-06,0.000
-7.450E-06,0.008
-7.440E-06,0.000
-7.430E-06,0.000
-7.420E-06,0.000
-7.410E-06,0.000
-7.400E-06,0.008
-7.390E-06,0.008
-7.380E-06,0.000
-7.370E-06,0.008
-7.360E-06,-0.008
-7.350E-06,0.000
-7.340E-06,0.000
-7.330E-06,0.000
-7.320E-06,0.000
-7.310E-06,0.000
-7.300E-06,0.000
-7.290E-06,0.000
-7.280E-06,-0.008
-7.270E-06,0.000
-7.260E-06,0.000
-7.250E-06,0.008
-7.240E-06,0.008
-7.230E-06,0.008
-7.220E-06,0.000
-7.210E-06,0.000
-7.200E-06,0.008
-7.190E-06,0.008
-7.180E-06,0.008
-7.170E-06,0.008
-7.160E-06,0.000
-7.150E-06,0.000
-7.140E-06,0.016
-7.130E-06,0.008
-7.120E-06,0.016
-7.110E-06,-0.008
-7.100E-06,0.000
-7.090E-06,0.008
-7.080E-06,0.000
-7.070E-06,0.016
-7.060E-06,0.016
-7.050E-06,-0.008
-7.040E-06,0.000
-7.030E-06,0.008
-7.020E-06,0.000
-7.010E-06,0.000
-7.000E-06,0.008
-6.990E-06,0.016
-6.980E-06,0.008
-6.970E-06,0.000
-6.960E-06,0.000
-6.950E-06,0.000
-6.940E-06,-0.008
-6.930E-06,0.000
-6.920E-06,0.008
-6.910E-06,0.000
-6.900E-06,0.000
-6.890E-06,0.000
-6.880E-06,0.008
-6.870E-06,0.000
-6.860E-06,0.008
-6.850E-06,0.008
-6.840E-06,0.000
-6.830E-06,0.000
-6.820E-06,0.000
-6.810E-06,0.008
-6.800E-06,0.008
-6.790E-06,-0.008
-6.780E-06,0.008
-6.770E-06,0.000
-6.760E-06,0.000
-6.750E-06,0.000
-6.740E-06,0.008
-6.730E-06,0.000
-6.720E-06,-0.008
-6.710E-06,0.008
-6.700E-06,0.008
-6.690E-06,0.008
-6.680E-06,0.008
-6.670E-06,0.000
-6.660E-06,0.000
-6.650E-06,0.008
-6.640E-06,0.008
-6.630E-06,0.008
-6.620E-06,0.016
-6.610E-06,0.016
-6.600E-06,0.000
-6.590E-06,0.000
-6.580E-06,0.000
-6.570E-06,0.000
-6.560E-06,0.000
-6.550E-06,0.000
-6.540E-06,-0.008
-6.530E-06,0.000
-6.520E-06,0.016
-6.510E-06,0.016
-6.500E-06,-0.008
-6.490E-06,-0.008
-6.480E-06,0.000
-6.470E-06,0.008
-6.460E-06,0.000
-6.450E-06,0.008
-6.440E-06,0.008
-6.430E-06,-0.008
-6.420E-06,0.008
-6.410E-06,0.008
-6.400E-06,0.000
-6.390E-06,0.008
-6.380E-06,0.000
-6.370E-06,0.008
-6.360E-06,0.008
-6.350E-06,0.000
-6.340E-06,0.000
-6.330E-06,0.016
-6.320E-06,0.000
-6.310E-06,0.000
-6.300E-06,0.008
-6.290E-06,0.000
-6.280E-06,0.000
-6.270E-06,0.000
-6.260E-06,0.000
-6.250E-06,0.000
-6.240E-06,0.000
-6.230E-06,0.008
-6.220E-06,-0.008
-6.210E-06,0.000
-6.200E-06,0.008
-6.190E-06,0.008
-6.180E-06,0.000
-6.170E-06,0.008
-6.160E-06,0.008
-6.150E-06,0.000
-6.140E-06,0.008
-6.130E-06,0.016
-6.120E-06,-0.008
-6.110E-06,-0.008
-6.100E-06,0.008
-6.090E-06,0.000
-6.080E-06,0.000
-6.070E-06,0.000
-6.060E-06,0.000
-6.050E-06,0.000
-6.040E-06,0.000
-6.030E-06,0.000
-6.020E-06,0.024
-6.010E-06,-0.008
-6.000E-06,0.000
-5.990E-06,0.008
-5.980E-06,0.000
-5.970E-06,0.000
-5.960E-06,0.000
-5.950E-06,0.008
-5.940E-06,0.000
-5.930E-06,0.008
-5.920E-06,0.000
-5.910E-06,-0.008
-5.900E-06,0.008
-5.890E-06,-0.008
-5.880E-06,0.008
-5.870E-06,0.000
-5.860E-06,0.008
-5.850E-06,0.016
-5.840E-06,0.000
-5.830E-06,0.000
-5.820E-06,0.000
-5.810E-06,0.008
-5.800E-06,0.008
-5.790E-06,0.008
-5.780E-06,0.000
-5.770E-06,0.000
-5.760E-06,0.000
-5.750E-06,0.008
-5.740E-06,0.000
-5.730E-06,0.008
-5.720E-06,0.000
-5.710E-06,0.000
-5.700E-06,0.008
-5.690E-06,0.008
-5.680E-06,0.000
-5.670E-06,0.016
-5.660E-06,0.008
-5.650E-06,0.008
-5.640E-06,0.008
-5.630E-06,-0.008
-5.620E-06,0.000
-5.610E-06,0.008
-5.600E-06,0.008
-5.590E-06,0.008
-5.580E-06,0.000
-5.570E-06,0.000
-5.560E-06,0.000
-5.550E-06,-0.008
-5.540E-06,0.008
-5.530E-06,0.000
-5.520E-06,-0.008
-5.510E-06,0.000
-5.500E-06,0.000
-5.490E-06,0.008
-5.480E-06,0.000
-5.470E-06,0.000
-5.460E-06,-0.008
-5.450E-06,0.000
-5.440E-06,0.008
-5.430E-06,0.000
-5.420E-06,-0.008
-5.410E-06,0.000
-5.400E-06,0.000
-5.390E-06,0.008
-5.380E-06,0.000
-5.370E-06,0.008
-5.360E-06,0.008
-5.350E-06,0.008
-5.340E-06,0.008
-5.330E-06,0.008
-5.320E-06,0.000
-5.310E-06,0.000
-5.300E-06,0.016
-5.290E-06,0.008
-5.280E-06,0.000
-5.270E-06,-0.008
-5.260E-06,0.008
-5.250E-06,0.008
-5.240E-06,0.016
-5.230E-06,-0.008
-5.220E-06,-0.008
-5.210E-06,0.008
-5.200E-06,0.016
-5.190E-06,-0.008
-5.180E-06,-0.008
-5.170E-06,0.000
-5.160E-06,0.000
-5.150E-06,0.000
-5.140E-06,0.000
-5.130E-06,0.000
-5.120E-06,0.008
-5.110E-06,0.008
-5.100E-06,0.000
-5.090E-06,0.008
-5.080E-06,0.008
-5.070E-06,0.008
-5.060E-06,-0.008
-5.050E-06,0.008
-5.040E-06,0.008
-5.030E-06,0.000
-5.020E-06,0.000
-5.010E-06,0.000
-5.000E-06,0.008
-4.990E-06,0.000
-4.980E-06,0.008
-4.970E-06,0.000
-4.960E-06,0.008
-4.950E-06,0.008
-4.940E-06,-0.008
-4.930E-06,0.000
-4.920E-06,-0.008
-4.910E-06,0.000
-4.900E-06,0.000
-4.890E-06,0.008
-4.880E-06,0.008
-4.870E-06,0.008
-4.860E-06,-0.008
-4.850E-06,0.008
-4.840E-06,0.008
-4.830E-06,0.000
-4.820E-06,0.008
-4.810E-06,0.000
-4.800E-06,0.000
-4.790E-06,0.016
-4.780E-06,0.008
-4.770E-06,-0.008
-4.760E-06,0.008
-4.750E-06,0.008
-4.740E-06,0.000
-4.730E-06,0.000
-4.720E-06,0.000
-4.710E-06,0.000
-4.700E-06,0.000
-4.690E-06,0.000
-4.680E-06,0.000
-4.670E-06,0.008
-4.660E-06,-0.008
-4.650E-06,-0.008
-4.640E-06,0.008
-4.630E-06,-0.008
-4.620E-06,0.008
-4.610E-06,0.008
-4.600E-06,-0.008
-4.590E-06,0.000
-4.580E-06,0.008
-4.570E-06,0.000
-4.560E-06,-0.008
-4.550E-06,0.000
-4.540E-06,-0.008
-4.530E-06,-0.008
-4.520E-06,0.008
-4.510E-06,0.016
-4.500E-06,-0.008
-4.490E-06,0.000
-4.480E-06,0.000
-4.470E-06,-0.008
-4.460E-06,0.000
-4.450E-06,0.008
-4.440E-06,0.000
-4.430E-06,-0.008
-4.420E-06,0.000
-4.410E-06,0.008
-4.400E-06,0.000
-4.390E-06,0.000
-4.380E-06,0.008
-4.370E-06,-0.008
-4.360E-06,-0.008
-4.350E-06,0.008
-4.340E-06,0.000
-4.330E-06,0.000
-4.320E-06,0.000
-4.310E-06,0.000
-4.300E-06,0.000
-4.290E-06,0.000
-4.280E-06,0.000
-4.270E-06,0.008
-4.260E-06,0.000
-4.250E-06,0.000
-4.240E-06,0.000
-4.230E-06,-0.008
-4.220E-06,0.000
-4.210E-06,0.008
-4.200E-06,0.000
-4.190E-06,0.000
-4.180E-06,0.008
-4.170E-06,0.008
-4.160E-06,0.008
-4.150E-06,0.008
-4.140E-06,0.000
-4.130E-06,0.000
-4.120E-06,-0.008
-4.110E-06,-0.008
-4.100E-06,0.008
-4.090E-06,0.008
-4.080E-06,0.000
-4.070E-06,0.000
-4.060E-06,0.008
-4.050E-06,0.000
-4.040E-06,0.000
-4.030E-06,0.008
-4.020E-06,0.008
-4.010E-06,0.000
-4.000E-06,0.000
-3.990E-06,0.000
-3.980E-06,0.000
-3.970E-06,0.000
-3.960E-06,0.000
-3.950E-06,-0.008
-3.940E-06,0.008
-3.930E-06,0.000
-3.920E-06,0.008
-3.910E-06,0.000
-3.900E-06,0.008
-3.890E-06,0.008
-3.880E-06,0.008
-3.870E-06,0.008
-3.860E-06,0.008
-3.850E-06,0.000
-3.840E-06,-0.008
-3.830E-06,0.000
-3.820E-06,0.000
-3.810E-06,0.008
-3.800E-06,0.000
-3.790E-06,-0.008
-3.780E-06,0.008
-3.770E-06,0.008
-3.760E-06,0.000
-3.750E-06,0.008
-3.740E-06,0.016
-3.730E-06,-0.008
-3.720E-06,0.008
-3.710E-06,0.008
-3.700E-06,0.008
-3.690E-06,0.000
-3.680E-06,-0.008
-3.670E-06,0.000
-3.660E-06,0.008
-3.650E-06,0.000
-3.640E-06,0.000
-3.630E-06,0.008
-3.620E-06,0.008
-3.610E-06,0.000
-3.600E-06,0.000
-3.590E-06,0.000
-3.580E-06,0.000
-3.570E-06,0.000
-3.560E-06,0.008
-3.550E-06,0.008
-3.540E-06,0.008
-3.530E-06,0.000
-3.520E-06,0.000
-3.510E-06,0.000
-3.500E-06,-0.008
-3.490E-06,0.008
-3.480E-06,0.008
-3.470E-06,0.008
-3.460E-06,0.008
-3.450E-06,0.008
-3.440E-06,0.000
-3.430E-06,0.000
-3.420E-06,0.000
-3.410E-06,0.000
-3.400E-06,0.000
-3.390E-06,0.008
-3.380E-06,0.008
-3.370E-06,0.000
-3.360E-06,0.008
-3.350E-06,-0.008
-3.340E-06,0.008
-3.330E-06,-0.008
-3.320E-06,0.000
-3.310E-06,0.008
-3.300E-06,0.016
-3.290E-06,0.008
-3.280E-06,-0.008
-3.270E-06,0.000
-3.260E-06,0.008
-3.250E-06,0.008
-3.240E-06,0.008
-3.230E-06,-0.008
-3.220E-06,0.000
-3.210E-06,0.008
-3.200E-06,0.008
-3.190E-06,0.000
-3.180E-06,0.008
-3.170E-06,0.008
-3.160E-06,0.008
-3.150E-06,0.008
-3.140E-06,0.008
-3.130E-06,0.000
-3.120E-06,0.008
-3.110E-06,0.008
-3.100E-06,0.016
-3.090E-06,-0.008
-3.080E-06,0.000
-3.070E-06,0.008
-3.060E-06,0.008
-3.050E-06,0.008
-3.040E-06,0.000
-3.030E-06,0.008
-3.020E-06,0.008
-3.010E-06,0.008
-3.000E-06,0.000
-2.990E-06,0.008
-2.980E-06,0.000
-2.970E-06,0.008
-2.960E-06,0.000
-2.950E-06,0.016
-2.940E-06,0.000
-2.930E-06,0.008
-2.920E-06,0.000
-2.910E-06,0.000
-2.900E-06,0.008
-2.890E-06,0.008
-2.880E-06,-0.008
-2.870E-06,0.000
-2.860E-06,0.008
-2.850E-06,-0.008
-2.840E-06,0.000
-2.830E-06,0.008
-2.820E-06,-0.008
-2.810E-06,0.008
-2.800E-06,0.008
-2.790E-06,0.000
-2.780E-06,0.000
-2.770E-06,0.008
-2.760E-06,0.008
-2.750E-06,0.000
-2.740E-06,0.000
-2.730E-06,0.008
-2.720E-06,0.000
-2.710E-06,0.000
-2.700E-06,0.008
-2.690E-06,-0.008
-2.680E-06,0.000
-2.670E-06,0.016
-2.660E-06,-0.016
-2.650E-06,0.016
-2.640E-06,-0.008
-2.630E-06,0.000
-2.620E-06,0.008
-2.610E-06,0.000
-2.600E-06,0.000
-2.590E-06,0.008
-2.580E-06,0.016
-2.570E-06,0.008
-2.560E-06,0.000
-2.550E-06,0.008
-2.540E-06,0.000
-2.530E-06,0.000
-2.520E-06,0.000
-2.510E-06,0.008
-2.500E-06,0.016
-2.490E-06,0.008
-2.480E-06,0.000
-2.470E-06,0.000
-2.460E-06,-0.008
-2.450E-06,0.000
-2.440E-06,0.008
-2.430E-06,0.008
-2.420E-06,0.000
-2.410E-06,0.016
-2.400E-06,0.008
-2.390E-06,0.008
-2.380E-06,0.000
-2.370E-06,0.000
-2.360E-06,0.000
-2.350E-06,0.000
-2.340E-06,0.000
-2.330E-06,0.008
-2.320E-06,0.008
-2.310E-06,-0.008
-2.300E-06,-0.008
-2.290E-06,0.000
-2.280E-06,-0.008
-2.270E-06,0.000
-2.260E-06,0.000
-2.250E-06,0.008
-2.240E-06,0.008
-2.230E-06,0.008
-2.220E-06,0.000
-2.210E-06,0.000
-2.200E-06,0.008
-2.190E-06,0.008
-2.180E-06,0.008
-2.170E-06,0.016
-2.160E-06,0.024
-2.150E-06,0.016
-2.140E-06,0.008
-2.130E-06,0.008
-2.120E-06,0.008
-2.110E-06,0.000
-2.100E-06,0.000
-2.090E-06,0.008
-2.080E-06,0.000
-2.070E-06,0.008
-2.060E-06,0.000
-2.050E-06,0.000
-2.040E-06,0.008
-2.030E-06,0.008
-2.020E-06,0.000
-2.010E-06,0.000
-2.000E-06,0.000
-1.990E-06,0.008
-1.980E-06,0.000
-1.970E-06,0.000
-1.960E-06,0.000
-1.950E-06,0.016
-1.940E-06,0.016
-1.930E-06,0.016
-1.920E-06,0.008
-1.910E-06,0.008
-1.900E-06,0.000
-1.890E-06,-0.008
-1.880E-06,0.008
-1.870E-06,-0.008
-1.860E-06,0.000
-1.850E-06,-0.008
-1.840E-06,-0.008
-1.830E-06,0.008
-1.820E-06,0.008
-1.810E-06,0.000
-1.800E-06,0.008
-1.790E-06,0.008
-1.780E-06,0.008
-1.770E-06,0.000
-1.760E-06,0.000
-1.750E-06,0.000
-1.740E-06,0.008
-1.730E-06,0.008
-1.720E-06,0.008
-1.710E-06,0.008
-1.700E-06,0.008
-1.690E-06,0.000
-1.680E-06,0.000
-1.670E-06,0.008
-1.660E-06,0.000
-1.650E-06,0.008
-1.640E-06,0.008
-1.630E-06,0.016
-1.620E-06,0.008
-1.610E-06,0.008
-1.600E-06,0.000
-1.590E-06,-0.008
-1.580E-06,0.008
-1.570E-06,0.000
-1.560E-06,0.008
-1.550E-06,0.008
-1.540E-06,0.008
-1.530E-06,0.008
-1.520E-06,0.008
-1.510E-06,0.008
-1.500E-06,0.008
-1.490E-06,0.008
-1.480E-06,0.008
-1.470E-06,0.008
-1.460E-06,0.008
-1.450E-06,0.000
-1.440E-06,0.008
-1.430E-06,0.016
-1.420E-06,0.016
-1.410E-06,0.016
-1.400E-06,0.016
-1.390E-06,0.016
-1.380E-06,0.000
-1.370E-06,0.000
-1.360E-06,0.000
-1.350E-06,0.000
-1.340E-06,0.008
-1.330E-06,0.000
-1.320E-06,0.008
-1.310E-06,0.024
-1.300E-06,0.000
-1.290E-06,-0.008
-1.280E-06,0.000
-1.270E-06,-0.008
-1.260E-06,0.008
-1.250E-06,0.000
-1.240E-06,0.008
-1.230E-06,0.008
-1.220E-06,0.008
-1.210E-06,0.008
-1.200E-06,0.008
-1.190E-06,0.016
-1.180E-06,0.016
-1.170E-06,0.008
-1.160E-06,0.000
-1.150E-06,0.016
-1.140E-06,0.016
-1.130E-06,0.008
-1.120E-06,0.000
-1.110E-06,-0.008
-1.100E-06,0.016
-1.090E-06,0.008
-1.080E-06,0.016
-1.070E-06,0.008
-1.060E-06,-0.008
-1.050E-06,0.000
-1.040E-06,-0.008
-1.030E-06,0.000
-1.020E-06,0.016
-1.010E-06,0.024
-1.000E-06,0.024
-9.900E-07,0.024
-9.800E-07,0.016
-9.700E-07,0.000
-9.600E-07,0.016
-9.500E-07,0.000
-9.400E-07,0.016
-9.300E-07,0.024
-9.200E-07,0.024
-9.100E-07,0.016
-9.000E-07,0.008
-8.900E-07,0.008
-8.800E-07,0.008
-8.700E-07,0.024
-8.600E-07,0.032
-8.500E-07,0.048
-8.400E-07,0.024
-8.300E-07,0.024
-8.200E-07,0.048
-8.100E-07,-0.024
-8.000E-07,0.080
-7.900E-07,0.032
-7.800E-07,-0.016
-7.700E-07,0.128
-7.600E-07,0.040
-7.500E-07,0.048
-7.400E-07,0.088
-7.300E-07,0.056
-7.200E-07,0.016
-7.100E-07,0.000
-7.000E-07,-0.080
-6.900E-07,-0.088
-6.800E-07,-0.088
-6.700E-07,-0.032
-6.600E-07,-0.008
-6.500E-07,0.040
-6.400E-07,0.032
-6.300E-07,0.008
-6.200E-07,-0.016
-6.100E-07,-0.040
-6.000E-07,-0.016
-5.900E-07,0.024
-5.800E-07,0.040
-5.700E-07,0.048
-5.600E-07,0.040
-5.500E-07,0.024
-5.400E-07,0.008
-5.300E-07,0.000
-5.200E-07,0.024
-5.100E-07,0.016
-5.000E-07,0.040
-4.900E-07,0.048
-4.800E-07,0.048
-4.700E-07,0.056
-4.600E-07,0.040
-4.500E-07,0.040
-4.400E-07,0.040
-4.300E-07,0.040
-4.200E-07,0.064
-4.100E-07,0.056
-4.000E-07,0.048
-3.900E-07,0.048
-3.800E-07,0.072
-3.700E-07,0.080
-3.600E-07,0.064
-3.500E-07,0.080
-3.400E-07,0.064
-3.300E-07,0.040
-3.200E-07,0.000
-3.100E-07,-0.040
-3.000E-07,-0.008
-2.900E-07,0.000
-2.800E-07,0.056
-2.700E-07,0.088
-2.600E-07,0.128
-2.500E-07,0.128
-2.400E-07,0.136
-2.300E-07,0.184
-2.200E-07,0.144
-2.100E-07,0.208
-2.000E-07,0.224
-1.900E-07,0.216
-1.800E-07,0.152
-1.700E-07,0.088
-1.600E-07,0.144
-1.500E-07,-0.112
-1.400E-07,-0.320
-1.300E-07,-0.536
-1.200E-07,-0.544
-1.100E-07,-0.488
-1.000E-07,0.136
-9.000E-08,0.456
-8.000E-08,0.384
-7.000E-08,0.152
-6.000E-08,-0.216
-5.000E-08,-0.560
-4.000E-08,-0.544
-3.000E-08,-0.320
-2.000E-08,0.128
-1.000E-08,0.520
0.000E+00,0.800
1.000E-08,0.560
2.000E-08,0.120
3.000E-08,-0.400
4.000E-08,-0.624
5.000E-08,-0.520
6.000E-08,-0.144
7.000E-08,0.496
8.000E-08,0.680
9.000E-08,0.624
1.000E-07,0.184
1.100E-07,-0.176
1.200E-07,-0.672
1.300E-07,-0.696
1.400E-07,-0.344
1.500E-07,0.248
1.600E-07,0.648
1.700E-07,0.704
1.800E-07,0.440
1.900E-07,0.120
2.000E-07,-0.200
2.100E-07,-0.320
2.200E-07,-0.216
2.300E-07,0.096
2.400E-07,0.376
2.500E-07,0.576
2.600E-07,0.520
2.700E-07,0.240
2.800E-07,-0.072
2.900E-07,-0.216
3.000E-07,-0.072
3.100E-07,0.104
3.200E-07,0.384
3.300E-07,0.544
3.400E-07,0.512
3.500E-07,0.424
3.600E-07,0.008
3.700E-07,-0.336
3.800E-07,-0.584
3.900E-07,-0.400
4.000E-07,-0.192
4.100E-07,0.016
4.200E-07,0.016
4.300E-07,0.064
4.400E-07,-0.032
4.500E-07,-0.256
4.600E-07,-0.272
4.700E-07,-0.352
4.800E-07,-0.008
4.900E-07,0.304
5.000E-07,0.336
5.100E-07,0.280
5.200E-07,0.048
5.300E-07,-0.192
5.400E-07,-0.224
5.500E-07,-0.152
5.600E-07,0.128
5.700E-07,0.440
5.800E-07,0.640
5.900E-07,0.648
6.000E-07,0.440
6.100E-07,0.120
6.200E-07,-0.128
6.300E-07,-0.136
6.400E-07,-0.064
6.500E-07,0.208
6.600E-07,0.376
6.700E-07,0.512
6.800E-07,0.392
6.900E-07,0.048
7.000E-07,-0.144
7.100E-07,-0.376
7.200E-07,-0.296
7.300E-07,0.024
7.400E-07,0.416
7.500E-07,0.384
7.600E-07,0.248
7.700E-07,-0.016
7.800E-07,-0.336
7.900E-07,-0.368
8.000E-07,-0.344
8.100E-07,-0.008
8.200E-07,0.312
8.300E-07,0.496
8.400E-07,0.624
8.500E-07,0.408
8.600E-07,0.320
8.700E-07,0.136
8.800E-07,0.088
8.900E-07,0.072
9.000E-07,0.120
9.100E-07,0.192
9.200E-07,0.192
9.300E-07,0.224
9.400E-07,0.120
9.500E-07,-0.072
9.600E-07,-0.208
9.700E-07,-0.216
9.800E-07,-0.048
9.900E-07,0.040
1.000E-06,0.240
1.010E-06,0.248
1.020E-06,0.208
1.030E-06,0.040
1.040E-06,-0.144
1.050E-06,-0.240
1.060E-06,-0.256
1.070E-06,-0.016
1.080E-06,0.232
1.090E-06,0.256
1.100E-06,0.328
1.110E-06,0.248
1.120E-06,0.256
1.130E-06,0.144
1.140E-06,0.048
1.150E-06,0.080
1.160E-06,0.112
1.170E-06,0.328
1.180E-06,0.360
1.190E-06,0.352
1.200E-06,0.264
1.210E-06,0.200
1.220E-06,0.144
1.230E-06,0.128
1.240E-06,0.176
1.250E-06,0.256
1.260E-06,0.352
1.270E-06,0.384
1.280E-06,0.376
1.290E-06,0.312
1.300E-06,0.264
1.310E-06,0.216
1.320E-06,0.216
1.330E-06,0.256
1.340E-06,0.328
1.350E-06,0.368
1.360E-06,0.400
1.370E-06,0.384
1.380E-06,0.328
1.390E-06,0.272
1.400E-06,0.248
1.410E-06,0.272
1.420E-06,0.296
1.430E-06,0.336
1.440E-06,0.352
1.450E-06,0.360
1.460E-06,0.336
1.470E-06,0.312
1.480E-06,0.280
1.490E-06,0.272
1.500E-06,0.288
1.510E-06,0.280
1.520E-06,0.304
1.530E-06,0.328
1.540E-06,0.336
1.550E-06,0.328
1.560E-06,0.328
1.570E-06,0.320
1.580E-06,0.280
1.590E-06,0.280
1.600E-06,0.296
1.610E-06,0.320
1.620E-06,0.328
1.630E-06,0.336
1.640E-06,0.320
1.650E-06,0.296
1.660E-06,0.288
1.670E-06,0.288
1.680E-06,0.288
1.690E-06,0.304
1.700E-06,0.328
1.710E-06,0.312
1.720E-06,0.320
1.730E-06,0.312
1.740E-06,0.296
1.750E-06,0.288
1.760E-06,0.288
1.770E-06,0.312
1.780E-06,0.304
1.790E-06,0.320
1.800E-06,0.320
1.810E-06,0.312
1.820E-06,0.296
1.830E-06,0.288
1.840E-06,0.288
1.850E-06,0.296
1.860E-06,0.304
1.870E-06,0.312
1.880E-06,0.304
1.890E-06,0.304
1.900E-06,0.296
1.910E-06,0.288
1.920E-06,0.288
1.930E-06,0.288
1.940E-06,0.296
1.950E-06,0.304
1.960E-06,0.312
1.970E-06,0.320
1.980E-06,0.304
1.990E-06,0.288
2.000E-06,0.288
2.010E-06,0.280
2.020E-06,0.288
2.030E-06,0.280
2.040E-06,0.288
2.050E-06,0.296
2.060E-06,0.288
2.070E-06,0.280
2.080E-06,0.280
2.090E-06,0.264
2.100E-06,0.280
2.110E-06,0.288
2.120E-06,0.296
2.130E-06,0.296
2.140E-06,0.280
2.150E-06,0.280
2.160E-06,0.264
2.170E-06,0.272
2.180E-06,0.272
2.190E-06,0.272
2.200E-06,0.288
2.210E-06,0.288
2.220E-06,0.288
2.230E-06,0.288
2.240E-06,0.280
2.250E-06,0.288
2.260E-06,0.272
2.270E-06,0.272
2.280E-06,0.272
2.290E-06,0.272
2.300E-06,0.272
2.310E-06,0.264
2.320E-06,0.272
2.330E-06,0.264
2.340E-06,0.272
2.350E-06,0.272
2.360E-06,0.280
2.370E-06,0.272
2.380E-06,0.264
2.390E-06,0.256
2.400E-06,0.256
2.410E-06,0.256
2.420E-06,0.264
2.430E-06,0.272
2.440E-06,0.280
2.450E-06,0.272
2.460E-06,0.272
2.470E-06,0.256
2.480E-06,0.264
2.490E-06,0.264
2.500E-06,0.264
2.510E-06,0.272
2.520E-06,0.280
2.530E-06,0.280
2.540E-06,0.272
2.550E-06,0.256
2.560E-06,0.264
2.570E-06,0.256
2.580E-06,0.256
2.590E-06,0.264
2.600E-06,0.264
2.610E-06,0.264
2.620E-06,0.264
2.630E-06,0.256
2.640E-06,0.256
2.650E-06,0.248
2.660E-06,0.256
2.670E-06,0.264
2.680E-06,0.264
2.690E-06,0.272
2.700E-06,0.264
2.710E-06,0.264
2.720E-06,0.248
2.730E-06,0.256
2.740E-06,0.256
2.750E-06,0.264
2.760E-06,0.264
2.770E-06,0.264
2.780E-06,0.248
2.790E-06,0.248
2.800E-06,0.240
2.810E-06,0.240
2.820E-06,0.248
2.830E-06,0.256
2.840E-06,0.264
2.850E-06,0.256
2.860E-06,0.248
2.870E-06,0.248
2.880E-06,0.240
2.890E-06,0.248
2.900E-06,0.248
2.910E-06,0.264
2.920E-06,0.256
2.930E-06,0.248
2.940E-06,0.240
2.950E-06,0.248
2.960E-06,0.240
2.970E-06,0.248
2.980E-06,0.248
2.990E-06,0.240
3.000E-06,0.240
3.010E-06,0.216
3.020E-06,0.232
3.030E-06,0.224
3.040E-06,0.248
3.050E-06,0.248
3.060E-06,0.240
3.070E-06,0.232
3.080E-06,0.224
3.090E-06,0.224
3.100E-06,0.224
3.110E-06,0.224
3.120E-06,0.232
3.130E-06,0.248
3.140E-06,0.240
3.150E-06,0.240
3.160E-06,0.224
3.170E-06,0.224
3.180E-06,0.224
3.190E-06,0.216
3.200E-06,0.216
3.210E-06,0.224
3.220E-06,0.240
3.230E-06,0.232
3.240E-06,0.224
3.250E-06,0.208
3.260E-06,0.216
3.270E-06,0.216
3.280E-06,0.208
3.290E-06,0.224
3.300E-06,0.216
3.310E-06,0.216
3.320E-06,0.208
3.330E-06,0.216
3.340E-06,0.200
3.350E-06,0.192
3.360E-06,0.200
3.370E-06,0.216
3.380E-06,0.224
3.390E-06,0.224
3.400E-06,0.224
3.410E-06,0.216
3.420E-06,0.200
3.430E-06,0.192
3.440E-06,0.184
3.450E-06,0.200
3.460E-06,0.208
3.470E-06,0.216
3.480E-06,0.224
3.490E-06,0.216
3.500E-06,0.208
3.510E-06,0.200
3.520E-06,0.192
3.530E-06,0.200
3.540E-06,0.192
3.550E-06,0.200
3.560E-06,0.208
3.570E-06,0.216
3.580E-06,0.208
3.590E-06,0.200
3.600E-06,0.184
3.610E-06,0.184
3.620E-06,0.184
3.630E-06,0.192
3.640E-06,0.192
3.650E-06,0.192
3.660E-06,0.192
3.670E-06,0.184
3.680E-06,0.192
3.690E-06,0.200
