mediciones/6-26/17.5/WaveData59113.csv

#timebase=2000000(ps)
,#voltbase=200000(mv/100)
#size=4000
-8.150E-06,0.000
-8.140E-06,0.000
-8.130E-06,0.000
-8.120E-06,0.000
-8.110E-06,0.000
-8.100E-06,0.000
-8.090E-06,0.000
-8.080E-06,0.000
-8.070E-06,0.000
-8.060E-06,0.000
-8.050E-06,0.008
-8.040E-06,-0.008
-8.030E-06,-0.008
-8.020E-06,0.000
-8.010E-06,0.016
-8.000E-06,0.008
-7.990E-06,0.008
-7.980E-06,0.008
-7.970E-06,-0.008
-7.960E-06,0.000
-7.950E-06,0.000
-7.940E-06,0.000
-7.930E-06,0.000
-7.920E-06,0.000
-7.910E-06,0.000
-7.900E-06,0.008
-7.890E-06,-0.008
-7.880E-06,-0.008
-7.870E-06,0.000
-7.860E-06,-0.008
-7.850E-06,0.000
-7.840E-06,0.008
-7.830E-06,0.008
-7.820E-06,-0.008
-7.810E-06,0.000
-7.800E-06,0.000
-7.790E-06,0.000
-7.780E-06,-0.008
-7.770E-06,-0.008
-7.760E-06,0.000
-7.750E-06,-0.008
-7.740E-06,0.000
-7.730E-06,-0.008
-7.720E-06,0.000
-7.710E-06,0.000
-7.700E-06,0.000
-7.690E-06,0.000
-7.680E-06,-0.008
-7.670E-06,0.000
-7.660E-06,0.000
-7.650E-06,0.000
-7.640E-06,0.008
-7.630E-06,0.008
-7.620E-06,0.008
-7.610E-06,0.008
-7.600E-06,0.016
-7.590E-06,-0.008
-7.580E-06,0.000
-7.570E-06,0.000
-7.560E-06,0.000
-7.550E-06,0.000
-7.540E-06,0.000
-7.530E-06,0.000
-7.520E-06,0.000
-7.510E-06,0.008
-7.500E-06,-0.008
-7.490E-06,0.000
-7.480E-06,0.000
-7.470E-06,0.000
-7.460E-06,0.008
-7.450E-06,0.008
-7.440E-06,-0.008
-7.430E-06,-0.008
-7.420E-06,0.000
-7.410E-06,-0.008
-7.400E-06,0.000
-7.390E-06,0.000
-7.380E-06,0.000
-7.370E-06,0.000
-7.360E-06,0.000
-7.350E-06,-0.008
-7.340E-06,0.000
-7.330E-06,-0.008
-7.320E-06,0.000
-7.310E-06,0.000
-7.300E-06,0.000
-7.290E-06,-0.008
-7.280E-06,0.000
-7.270E-06,0.016
-7.260E-06,-0.008
-7.250E-06,0.000
-7.240E-06,0.000
-7.230E-06,0.000
-7.220E-06,0.000
-7.210E-06,0.000
-7.200E-06,-0.008
-7.190E-06,-0.008
-7.180E-06,0.000
-7.170E-06,-0.008
-7.160E-06,0.000
-7.150E-06,0.000
-7.140E-06,0.000
-7.130E-06,0.000
-7.120E-06,0.000
-7.110E-06,0.000
-7.100E-06,-0.008
-7.090E-06,0.008
-7.080E-06,0.008
-7.070E-06,-0.008
-7.060E-06,0.000
-7.050E-06,0.000
-7.040E-06,0.000
-7.030E-06,-0.008
-7.020E-06,0.000
-7.010E-06,0.000
-7.000E-06,0.000
-6.990E-06,0.000
-6.980E-06,0.000
-6.970E-06,0.000
-6.960E-06,-0.008
-6.950E-06,0.032
-6.940E-06,0.160
-6.930E-06,0.456
-6.920E-06,0.888
-6.910E-06,1.080
-6.900E-06,1.080
-6.890E-06,1.072
-6.880E-06,1.080
-6.870E-06,0.568
-6.860E-06,-0.040
-6.850E-06,-1.032
-6.840E-06,-1.040
-6.830E-06,-1.048
-6.820E-06,-1.040
-6.810E-06,-1.040
-6.800E-06,-1.040
-6.790E-06,-1.048
-6.780E-06,-1.040
-6.770E-06,-1.032
-6.760E-06,-0.648
-6.750E-06,-0.256
-6.740E-06,0.032
-6.730E-06,0.128
-6.720E-06,0.232
-6.710E-06,0.368
-6.700E-06,0.560
-6.690E-06,0.608
-6.680E-06,0.672
-6.670E-06,0.560
-6.660E-06,0.480
-6.650E-06,0.496
-6.640E-06,0.536
-6.630E-06,0.664
-6.620E-06,0.728
-6.610E-06,0.720
-6.600E-06,0.640
-6.590E-06,0.424
-6.580E-06,0.200
-6.570E-06,0.000
-6.560E-06,-0.136
-6.550E-06,-0.256
-6.540E-06,-0.232
-6.530E-06,-0.240
-6.520E-06,-0.184
-6.510E-06,-0.120
-6.500E-06,-0.016
-6.490E-06,0.160
-6.480E-06,0.368
-6.470E-06,0.592
-6.460E-06,0.744
-6.450E-06,0.840
-6.440E-06,0.832
-6.430E-06,0.768
-6.420E-06,0.640
-6.410E-06,0.464
-6.400E-06,0.280
-6.390E-06,0.088
-6.380E-06,-0.136
-6.370E-06,-0.344
-6.360E-06,-0.544
-6.350E-06,-0.776
-6.340E-06,-0.960
-6.330E-06,-1.040
-6.320E-06,-1.032
-6.310E-06,-1.040
-6.300E-06,-1.048
-6.290E-06,-1.048
-6.280E-06,-0.976
-6.270E-06,-0.768
-6.260E-06,-0.528
-6.250E-06,-0.304
-6.240E-06,-0.040
-6.230E-06,0.200
-6.220E-06,0.400
-6.210E-06,0.568
-6.200E-06,0.656
-6.190E-06,0.672
-6.180E-06,0.648
-6.170E-06,0.576
-6.160E-06,0.520
-6.150E-06,0.416
-6.140E-06,0.296
-6.130E-06,0.176
-6.120E-06,0.064
-6.110E-06,-0.032
-6.100E-06,-0.080
-6.090E-06,-0.104
-6.080E-06,-0.096
-6.070E-06,-0.112
-6.060E-06,-0.128
-6.050E-06,-0.168
-6.040E-06,-0.224
-6.030E-06,-0.248
-6.020E-06,-0.240
-6.010E-06,-0.200
-6.000E-06,-0.160
-5.990E-06,-0.096
-5.980E-06,-0.008
-5.970E-06,0.040
-5.960E-06,0.136
-5.950E-06,0.200
-5.940E-06,0.264
-5.930E-06,0.304
-5.920E-06,0.296
-5.910E-06,0.288
-5.900E-06,0.224
-5.890E-06,0.152
-5.880E-06,0.096
-5.870E-06,0.032
-5.860E-06,-0.032
-5.850E-06,-0.088
-5.840E-06,-0.160
-5.830E-06,-0.208
-5.820E-06,-0.208
-5.810E-06,-0.176
-5.800E-06,-0.112
-5.790E-06,-0.008
-5.780E-06,0.040
-5.770E-06,0.096
-5.760E-06,0.096
-5.750E-06,0.072
-5.740E-06,0.016
-5.730E-06,0.000
-5.720E-06,0.008
-5.710E-06,0.064
-5.700E-06,0.064
-5.690E-06,0.064
-5.680E-06,0.032
-5.670E-06,0.000
-5.660E-06,-0.024
-5.650E-06,-0.016
-5.640E-06,0.008
-5.630E-06,0.048
-5.620E-06,0.072
-5.610E-06,0.096
-5.600E-06,0.080
-5.590E-06,0.064
-5.580E-06,0.048
-5.570E-06,0.048
-5.560E-06,0.040
-5.550E-06,0.040
-5.540E-06,0.016
-5.530E-06,0.008
-5.520E-06,-0.024
-5.510E-06,-0.040
-5.500E-06,-0.072
-5.490E-06,-0.072
-5.480E-06,-0.056
-5.470E-06,-0.024
-5.460E-06,0.000
-5.450E-06,0.008
-5.440E-06,0.024
-5.430E-06,0.024
-5.420E-06,0.040
-5.410E-06,0.064
-5.400E-06,0.056
-5.390E-06,0.048
-5.380E-06,0.080
-5.370E-06,0.032
-5.360E-06,0.128
-5.350E-06,-0.016
-5.340E-06,0.024
-5.330E-06,0.016
-5.320E-06,0.032
-5.310E-06,0.232
-5.300E-06,0.312
-5.290E-06,0.328
-5.280E-06,0.296
-5.270E-06,0.136
-5.260E-06,0.096
-5.250E-06,0.136
-5.240E-06,0.136
-5.230E-06,0.192
-5.220E-06,0.176
-5.210E-06,0.128
-5.200E-06,0.024
-5.190E-06,0.000
-5.180E-06,-0.032
-5.170E-06,0.048
-5.160E-06,0.064
-5.150E-06,0.112
-5.140E-06,0.104
-5.130E-06,0.088
-5.120E-06,0.072
-5.110E-06,0.096
-5.100E-06,0.096
-5.090E-06,0.088
-5.080E-06,0.072
-5.070E-06,0.056
-5.060E-06,0.032
-5.050E-06,0.000
-5.040E-06,-0.024
-5.030E-06,-0.080
-5.020E-06,-0.112
-5.010E-06,-0.136
-5.000E-06,-0.144
-4.990E-06,-0.160
-4.980E-06,-0.152
-4.970E-06,-0.160
-4.960E-06,-0.160
-4.950E-06,-0.176
-4.940E-06,-0.168
-4.930E-06,-0.160
-4.920E-06,-0.128
-4.910E-06,-0.096
-4.900E-06,-0.064
-4.890E-06,-0.040
-4.880E-06,-0.048
-4.870E-06,-0.024
-4.860E-06,-0.088
-4.850E-06,0.008
-4.840E-06,0.000
-4.830E-06,-0.064
-4.820E-06,0.016
-4.810E-06,-0.088
-4.800E-06,0.024
-4.790E-06,0.248
-4.780E-06,0.400
-4.770E-06,0.496
-4.760E-06,0.392
-4.750E-06,0.224
-4.740E-06,0.104
-4.730E-06,0.056
-4.720E-06,0.120
-4.710E-06,0.240
-4.700E-06,0.336
-4.690E-06,0.248
-4.680E-06,0.072
-4.670E-06,-0.224
-4.660E-06,-0.496
-4.650E-06,-0.672
-4.640E-06,-0.648
-4.630E-06,-0.496
-4.620E-06,-0.264
-4.610E-06,0.016
-4.600E-06,0.224
-4.590E-06,0.288
-4.580E-06,0.336
-4.570E-06,0.280
-4.560E-06,0.248
-4.550E-06,0.272
-4.540E-06,0.272
-4.530E-06,0.384
-4.520E-06,0.520
-4.510E-06,0.624
-4.500E-06,0.680
-4.490E-06,0.600
-4.480E-06,0.392
-4.470E-06,0.152
-4.460E-06,-0.008
-4.450E-06,-0.088
-4.440E-06,-0.080
-4.430E-06,-0.048
-4.420E-06,-0.056
-4.410E-06,-0.128
-4.400E-06,-0.272
-4.390E-06,-0.344
-4.380E-06,-0.368
-4.370E-06,-0.360
-4.360E-06,-0.264
-4.350E-06,-0.192
-4.340E-06,-0.096
-4.330E-06,-0.032
-4.320E-06,0.040
-4.310E-06,0.088
-4.300E-06,0.136
-4.290E-06,0.168
-4.280E-06,0.168
-4.270E-06,0.160
-4.260E-06,0.144
-4.250E-06,0.128
-4.240E-06,0.096
-4.230E-06,0.064
-4.220E-06,0.000
-4.210E-06,-0.104
-4.200E-06,-0.192
-4.190E-06,-0.256
-4.180E-06,-0.296
-4.170E-06,-0.296
-4.160E-06,-0.272
-4.150E-06,-0.232
-4.140E-06,-0.208
-4.130E-06,-0.168
-4.120E-06,-0.128
-4.110E-06,-0.072
-4.100E-06,0.016
-4.090E-06,0.120
-4.080E-06,0.216
-4.070E-06,0.296
-4.060E-06,0.344
-4.050E-06,0.368
-4.040E-06,0.360
-4.030E-06,0.360
-4.020E-06,0.360
-4.010E-06,0.336
-4.000E-06,0.296
-3.990E-06,0.224
-3.980E-06,0.184
-3.970E-06,0.120
-3.960E-06,0.064
-3.950E-06,0.024
-3.940E-06,-0.040
-3.930E-06,-0.096
-3.920E-06,-0.136
-3.910E-06,-0.152
-3.900E-06,-0.160
-3.890E-06,-0.176
-3.880E-06,-0.152
-3.870E-06,-0.152
-3.860E-06,-0.200
-3.850E-06,-0.200
-3.840E-06,-0.264
-3.830E-06,-0.208
-3.820E-06,-0.040
-3.810E-06,0.160
-3.800E-06,0.368
-3.790E-06,0.464
-3.780E-06,0.432
-3.770E-06,0.320
-3.760E-06,0.168
-3.750E-06,0.112
-3.740E-06,0.160
-3.730E-06,0.240
-3.720E-06,0.296
-3.710E-06,0.240
-3.700E-06,0.136
-3.690E-06,0.000
-3.680E-06,-0.064
-3.670E-06,-0.088
-3.660E-06,-0.064
-3.650E-06,-0.016
-3.640E-06,-0.040
-3.630E-06,-0.072
-3.620E-06,-0.112
-3.610E-06,-0.160
-3.600E-06,-0.200
-3.590E-06,-0.232
-3.580E-06,-0.232
-3.570E-06,-0.184
-3.560E-06,-0.160
-3.550E-06,-0.368
-3.540E-06,-0.288
-3.530E-06,-0.160
-3.520E-06,0.000
-3.510E-06,0.432
-3.500E-06,0.688
-3.490E-06,0.576
-3.480E-06,0.264
-3.470E-06,-0.136
-3.460E-06,-0.224
-3.450E-06,0.008
-3.440E-06,0.264
-3.430E-06,0.432
-3.420E-06,0.408
-3.410E-06,0.128
-3.400E-06,-0.112
-3.390E-06,-0.232
-3.380E-06,-0.200
-3.370E-06,-0.008
-3.360E-06,0.160
-3.350E-06,0.240
-3.340E-06,0.224
-3.330E-06,0.136
-3.320E-06,0.040
-3.310E-06,0.000
-3.300E-06,-0.008
-3.290E-06,0.056
-3.280E-06,0.128
-3.270E-06,0.168
-3.260E-06,0.136
-3.250E-06,0.064
-3.240E-06,-0.016
-3.230E-06,-0.056
-3.220E-06,-0.064
-3.210E-06,-0.048
-3.200E-06,-0.016
-3.190E-06,-0.040
-3.180E-06,-0.064
-3.170E-06,-0.136
-3.160E-06,-0.192
-3.150E-06,-0.216
-3.140E-06,-0.176
-3.130E-06,-0.160
-3.120E-06,-0.136
-3.110E-06,-0.128
-3.100E-06,-0.160
-3.090E-06,-0.216
-3.080E-06,-0.256
-3.070E-06,-0.272
-3.060E-06,-0.224
-3.050E-06,-0.192
-3.040E-06,-0.136
-3.030E-06,0.048
-3.020E-06,-0.024
-3.010E-06,-0.008
-3.000E-06,-0.008
-2.990E-06,0.032
-2.980E-06,0.368
-2.970E-06,0.744
-2.960E-06,1.016
-2.950E-06,1.008
-2.940E-06,0.696
-2.930E-06,0.368
-2.920E-06,0.168
-2.910E-06,0.216
-2.900E-06,0.400
-2.890E-06,0.560
-2.880E-06,0.560
-2.870E-06,0.368
-2.860E-06,0.112
-2.850E-06,-0.128
-2.840E-06,-0.200
-2.830E-06,-0.176
-2.820E-06,-0.064
-2.810E-06,-0.032
-2.800E-06,-0.080
-2.790E-06,-0.184
-2.780E-06,-0.304
-2.770E-06,-0.344
-2.760E-06,-0.312
-2.750E-06,-0.280
-2.740E-06,-0.200
-2.730E-06,-0.168
-2.720E-06,-0.240
-2.710E-06,-0.288
-2.700E-06,-0.312
-2.690E-06,-0.336
-2.680E-06,-0.304
-2.670E-06,-0.256
-2.660E-06,-0.232
-2.650E-06,-0.264
-2.640E-06,-0.320
-2.630E-06,-0.360
-2.620E-06,-0.352
-2.610E-06,-0.296
-2.600E-06,-0.256
-2.590E-06,-0.256
-2.580E-06,-0.288
-2.570E-06,-0.280
-2.560E-06,-0.224
-2.550E-06,-0.112
-2.540E-06,0.000
-2.530E-06,0.120
-2.520E-06,0.184
-2.510E-06,0.240
-2.500E-06,0.296
-2.490E-06,0.328
-2.480E-06,0.368
-2.470E-06,0.360
-2.460E-06,0.368
-2.450E-06,0.104
-2.440E-06,0.160
-2.430E-06,0.400
-2.420E-06,0.392
-2.410E-06,1.032
-2.400E-06,1.080
-2.390E-06,1.080
-2.380E-06,1.072
-2.370E-06,0.904
-2.360E-06,0.488
-2.350E-06,0.296
-2.340E-06,0.424
-2.330E-06,0.568
-2.320E-06,0.800
-2.310E-06,0.632
-2.300E-06,0.224
-2.290E-06,0.056
-2.280E-06,-0.344
-2.270E-06,-0.432
-2.260E-06,-0.400
-2.250E-06,-0.408
-2.240E-06,-0.360
-2.230E-06,-0.368
-2.220E-06,-0.600
-2.210E-06,-0.536
-2.200E-06,-0.752
-2.190E-06,-0.840
-2.180E-06,-0.648
-2.170E-06,-0.672
-2.160E-06,-0.480
-2.150E-06,-0.456
-2.140E-06,-0.624
-2.130E-06,-0.648
-2.120E-06,-0.632
-2.110E-06,-0.584
-2.100E-06,-0.440
-2.090E-06,-0.384
-2.080E-06,-0.368
-2.070E-06,-0.296
-2.060E-06,-0.264
-2.050E-06,-0.264
-2.040E-06,-0.144
-2.030E-06,-0.104
-2.020E-06,0.008
-2.010E-06,0.136
-2.000E-06,0.184
-1.990E-06,0.240
-1.980E-06,0.296
-1.970E-06,0.328
-1.960E-06,0.360
-1.950E-06,0.440
-1.940E-06,0.488
-1.930E-06,0.520
-1.920E-06,0.536
-1.910E-06,0.512
-1.900E-06,0.464
-1.890E-06,0.424
-1.880E-06,0.416
-1.870E-06,0.376
-1.860E-06,0.352
-1.850E-06,0.312
-1.840E-06,0.264
-1.830E-06,0.208
-1.820E-06,0.136
-1.810E-06,0.000
-1.800E-06,-0.080
-1.790E-06,-0.144
-1.780E-06,-0.192
-1.770E-06,-0.200
-1.760E-06,-0.256
-1.750E-06,-0.344
-1.740E-06,-0.424
-1.730E-06,-0.480
-1.720E-06,-0.520
-1.710E-06,-0.472
-1.700E-06,-0.440
-1.690E-06,-0.408
-1.680E-06,-0.344
-1.670E-06,-0.280
-1.660E-06,-0.224
-1.650E-06,-0.120
-1.640E-06,0.080
-1.630E-06,-0.288
-1.620E-06,-0.232
-1.610E-06,0.040
-1.600E-06,0.208
-1.590E-06,1.072
-1.580E-06,1.080
-1.570E-06,1.080
-1.560E-06,1.072
-1.550E-06,1.080
-1.540E-06,0.448
-1.530E-06,0.344
-1.520E-06,0.400
-1.510E-06,0.872
-1.500E-06,1.072
-1.490E-06,0.880
-1.480E-06,0.400
-1.470E-06,-0.232
-1.460E-06,-0.608
-1.450E-06,-0.528
-1.440E-06,-0.208
-1.430E-06,0.008
-1.420E-06,-0.056
-1.410E-06,-0.328
-1.400E-06,-0.736
-1.390E-06,-1.032
-1.380E-06,-0.848
-1.370E-06,-0.488
-1.360E-06,-0.192
-1.350E-06,0.008
-1.340E-06,-0.184
-1.330E-06,-0.504
-1.320E-06,-0.680
-1.310E-06,-0.808
-1.300E-06,-0.640
-1.290E-06,-0.416
-1.280E-06,-0.232
-1.270E-06,-0.200
-1.260E-06,-0.368
-1.250E-06,-0.496
-1.240E-06,-0.576
-1.230E-06,-0.440
-1.220E-06,-0.200
-1.210E-06,0.024
-1.200E-06,0.088
-1.190E-06,0.080
-1.180E-06,0.008
-1.170E-06,-0.040
-1.160E-06,-0.096
-1.150E-06,-0.176
-1.140E-06,-0.264
-1.130E-06,-0.240
-1.120E-06,-0.096
-1.110E-06,0.160
-1.100E-06,0.344
-1.090E-06,0.400
-1.080E-06,0.256
-1.070E-06,0.056
-1.060E-06,-0.064
-1.050E-06,-0.144
-1.040E-06,-0.152
-1.030E-06,-0.144
-1.020E-06,-0.160
-1.010E-06,0.216
-1.000E-06,1.000
-9.900E-07,1.088
-9.800E-07,1.088
-9.700E-07,1.080
-9.600E-07,0.816
-9.500E-07,0.104
-9.400E-07,-0.064
-9.300E-07,-0.464
-9.200E-07,-0.656
-9.100E-07,0.464
-9.000E-07,0.120
-8.900E-07,1.088
-8.800E-07,1.080
-8.700E-07,1.080
-8.600E-07,1.080
-8.500E-07,0.752
-8.400E-07,-0.488
-8.300E-07,-0.448
-8.200E-07,0.032
-8.100E-07,0.672
-8.000E-07,0.696
-7.900E-07,0.104
-7.800E-07,-0.544
-7.700E-07,-0.976
-7.600E-07,-0.920
-7.500E-07,-0.496
-7.400E-07,-0.224
-7.300E-07,-0.072
-7.200E-07,-0.704
-7.100E-07,-1.032
-7.000E-07,-1.040
-6.900E-07,-1.040
-6.800E-07,-1.040
-6.700E-07,0.424
-6.600E-07,1.072
-6.500E-07,1.000
-6.400E-07,0.368
-6.300E-07,-0.792
-6.200E-07,-1.040
-6.100E-07,-0.904
-6.000E-07,-0.496
-5.900E-07,0.032
-5.800E-07,0.160
-5.700E-07,-0.320
-5.600E-07,-0.800
-5.500E-07,-1.040
-5.400E-07,-1.048
-5.300E-07,-1.048
-5.200E-07,-1.032
-5.100E-07,-1.032
-5.000E-07,-1.040
-4.900E-07,-0.776
-4.800E-07,-0.512
-4.700E-07,0.000
-4.600E-07,0.776
-4.500E-07,1.080
-4.400E-07,1.080
-4.300E-07,1.080
-4.200E-07,1.080
-4.100E-07,1.080
-4.000E-07,1.080
-3.900E-07,1.080
-3.800E-07,1.080
-3.700E-07,1.080
-3.600E-07,1.088
-3.500E-07,1.080
-3.400E-07,1.000
-3.300E-07,0.624
-3.200E-07,0.056
-3.100E-07,-0.464
-3.000E-07,-0.736
-2.900E-07,-0.864
-2.800E-07,-0.848
-2.700E-07,-0.776
-2.600E-07,-0.736
-2.500E-07,-0.768
-2.400E-07,-0.872
-2.300E-07,-1.032
-2.200E-07,-1.032
-2.100E-07,-1.040
-2.000E-07,-1.040
-1.900E-07,-1.040
-1.800E-07,-1.040
-1.700E-07,-1.040
-1.600E-07,-1.040
-1.500E-07,-1.048
-1.400E-07,-0.856
-1.300E-07,-0.216
-1.200E-07,-0.104
-1.100E-07,-0.200
-1.000E-07,-0.320
-9.000E-08,-0.064
-8.000E-08,0.720
-7.000E-08,1.080
-6.000E-08,1.088
-5.000E-08,1.088
-4.000E-08,1.080
-3.000E-08,1.080
-2.000E-08,1.072
-1.000E-08,1.080
0.000E+00,1.080
1.000E-08,1.072
2.000E-08,1.080
3.000E-08,1.080
4.000E-08,1.072
5.000E-08,0.488
6.000E-08,-0.352
7.000E-08,-0.856
8.000E-08,-1.040
9.000E-08,-0.808
1.000E-07,-0.240
1.100E-07,0.120
1.200E-07,-0.072
1.300E-07,0.272
1.400E-07,0.112
1.500E-07,0.720
1.600E-07,1.088
1.700E-07,1.088
1.800E-07,1.080
1.900E-07,1.088
2.000E-07,1.080
2.100E-07,1.080
2.200E-07,1.080
2.300E-07,-0.472
2.400E-07,-1.040
2.500E-07,-1.032
2.600E-07,-1.040
2.700E-07,-1.032
2.800E-07,-1.040
2.900E-07,-1.040
3.000E-07,-1.048
3.100E-07,-1.040
3.200E-07,-1.032
3.300E-07,-1.040
3.400E-07,-0.504
3.500E-07,0.048
3.600E-07,0.368
3.700E-07,0.600
3.800E-07,1.024
3.900E-07,1.080
4.000E-07,1.088
4.100E-07,1.080
4.200E-07,1.080
4.300E-07,1.072
4.400E-07,1.080
4.500E-07,1.088
4.600E-07,1.080
4.700E-07,1.080
4.800E-07,1.080
4.900E-07,1.072
5.000E-07,1.080
5.100E-07,1.088
5.200E-07,1.080
5.300E-07,1.080
5.400E-07,1.072
5.500E-07,1.080
5.600E-07,1.088
5.700E-07,1.088
5.800E-07,1.080
5.900E-07,1.080
6.000E-07,1.072
6.100E-07,1.080
6.200E-07,1.080
6.300E-07,1.088
6.400E-07,1.080
6.500E-07,1.080
6.600E-07,1.056
6.700E-07,0.456
6.800E-07,-0.304
6.900E-07,-1.000
7.000E-07,-1.032
7.100E-07,-1.032
7.200E-07,-1.040
7.300E-07,-1.048
7.400E-07,-1.032
7.500E-07,-1.040
7.600E-07,-1.040
7.700E-07,0.440
7.800E-07,1.088
7.900E-07,1.080
8.000E-07,1.088
8.100E-07,1.088
8.200E-07,1.080
8.300E-07,1.080
8.400E-07,1.088
8.500E-07,1.080
8.600E-07,1.072
8.700E-07,1.080
8.800E-07,1.080
8.900E-07,1.088
9.000E-07,1.080
9.100E-07,0.928
9.200E-07,0.608
9.300E-07,0.560
9.400E-07,0.464
9.500E-07,0.520
9.600E-07,0.792
9.700E-07,1.080
9.800E-07,1.088
9.900E-07,1.080
1.000E-06,1.088
1.010E-06,1.080
1.020E-06,1.088
1.030E-06,1.088
1.040E-06,1.080
1.050E-06,0.880
1.060E-06,0.600
1.070E-06,0.168
1.080E-06,-0.224
1.090E-06,-0.608
1.100E-06,-0.960
1.110E-06,-1.032
1.120E-06,-1.032
1.130E-06,-1.040
1.140E-06,-0.776
1.150E-06,-0.512
1.160E-06,-0.320
1.170E-06,-0.128
1.180E-06,-0.112
1.190E-06,-0.256
1.200E-06,-0.520
1.210E-06,-0.776
1.220E-06,-1.032
1.230E-06,-1.040
1.240E-06,-0.936
1.250E-06,-0.488
1.260E-06,0.168
1.270E-06,0.992
1.280E-06,1.088
1.290E-06,1.088
1.300E-06,1.080
1.310E-06,1.088
1.320E-06,1.080
1.330E-06,1.088
1.340E-06,1.080
1.350E-06,1.080
1.360E-06,1.080
1.370E-06,1.072
1.380E-06,1.080
1.390E-06,0.648
1.400E-06,0.304
1.410E-06,0.080
1.420E-06,-0.032
1.430E-06,-0.136
1.440E-06,0.008
1.450E-06,0.208
1.460E-06,0.432
1.470E-06,0.624
1.480E-06,0.744
1.490E-06,0.824
1.500E-06,0.856
1.510E-06,0.840
1.520E-06,0.768
1.530E-06,0.648
1.540E-06,0.472
1.550E-06,0.264
1.560E-06,0.064
1.570E-06,-0.096
1.580E-06,-0.248
1.590E-06,-0.336
1.600E-06,-0.400
1.610E-06,-0.416
1.620E-06,-0.392
1.630E-06,-0.336
1.640E-06,-0.304
1.650E-06,-0.256
1.660E-06,-0.200
1.670E-06,-0.136
1.680E-06,-0.096
1.690E-06,-0.048
1.700E-06,-0.048
1.710E-06,-0.048
1.720E-06,-0.056
1.730E-06,-0.088
1.740E-06,-0.120
1.750E-06,-0.136
1.760E-06,-0.160
1.770E-06,-0.208
1.780E-06,-0.240
1.790E-06,-0.232
1.800E-06,-0.232
1.810E-06,-0.216
1.820E-06,-0.216
1.830E-06,-0.224
1.840E-06,-0.240
1.850E-06,-0.272
1.860E-06,-0.232
1.870E-06,-0.160
1.880E-06,-0.016
1.890E-06,0.128
1.900E-06,0.288
1.910E-06,0.440
1.920E-06,0.552
1.930E-06,0.552
1.940E-06,0.440
1.950E-06,0.288
1.960E-06,0.136
1.970E-06,0.040
1.980E-06,-0.056
1.990E-06,-0.112
2.000E-06,-0.128
2.010E-06,-0.136
2.020E-06,-0.136
2.030E-06,-0.136
2.040E-06,-0.128
2.050E-06,-0.136
2.060E-06,-0.064
2.070E-06,-0.040
2.080E-06,-0.104
2.090E-06,-0.016
2.100E-06,0.000
2.110E-06,-0.024
2.120E-06,-0.096
2.130E-06,-0.200
2.140E-06,-0.216
2.150E-06,-0.176
2.160E-06,-0.200
2.170E-06,-0.280
2.180E-06,-0.304
2.190E-06,-0.288
2.200E-06,-0.280
2.210E-06,-0.312
2.220E-06,-0.352
2.230E-06,-0.384
2.240E-06,-0.432
2.250E-06,-0.480
2.260E-06,-0.512
2.270E-06,-0.504
2.280E-06,-0.464
2.290E-06,-0.432
2.300E-06,-0.392
2.310E-06,-0.344
2.320E-06,-0.360
2.330E-06,-0.360
2.340E-06,-0.392
2.350E-06,-0.440
2.360E-06,-0.464
2.370E-06,-0.424
2.380E-06,-0.456
2.390E-06,-0.528
2.400E-06,-0.544
2.410E-06,-0.624
2.420E-06,-0.632
2.430E-06,-0.640
2.440E-06,-0.656
2.450E-06,-0.648
2.460E-06,-0.640
2.470E-06,-0.632
2.480E-06,-0.648
2.490E-06,-0.664
2.500E-06,-0.632
2.510E-06,-0.600
2.520E-06,-0.560
2.530E-06,-0.488
2.540E-06,-0.416
2.550E-06,-0.344
2.560E-06,-0.272
2.570E-06,-0.200
2.580E-06,-0.120
2.590E-06,-0.048
2.600E-06,0.024
2.610E-06,0.072
2.620E-06,0.104
2.630E-06,0.104
2.640E-06,0.112
2.650E-06,0.104
2.660E-06,0.056
2.670E-06,-0.024
2.680E-06,-0.104
2.690E-06,-0.176
2.700E-06,-0.224
2.710E-06,-0.264
2.720E-06,-0.304
2.730E-06,-0.336
2.740E-06,-0.400
2.750E-06,-0.424
2.760E-06,-0.416
2.770E-06,-0.416
2.780E-06,-0.400
2.790E-06,-0.376
2.800E-06,-0.336
2.810E-06,-0.296
2.820E-06,-0.224
2.830E-06,-0.168
2.840E-06,-0.104
2.850E-06,-0.040
2.860E-06,-0.008
2.870E-06,0.032
2.880E-06,0.080
2.890E-06,0.120
2.900E-06,0.128
2.910E-06,0.152
2.920E-06,0.192
2.930E-06,0.264
2.940E-06,0.344
2.950E-06,0.408
2.960E-06,0.320
2.970E-06,0.232
2.980E-06,0.184
2.990E-06,0.232
3.000E-06,0.368
3.010E-06,0.440
3.020E-06,0.408
3.030E-06,0.264
3.040E-06,0.072
3.050E-06,-0.104
3.060E-06,-0.224
3.070E-06,-0.304
3.080E-06,-0.392
3.090E-06,-0.424
3.100E-06,-0.408
3.110E-06,-0.320
3.120E-06,-0.224
3.130E-06,-0.128
3.140E-06,-0.064
3.150E-06,-0.016
3.160E-06,0.032
3.170E-06,0.080
3.180E-06,0.104
3.190E-06,0.112
3.200E-06,0.104
3.210E-06,0.088
3.220E-06,0.056
3.230E-06,0.016
3.240E-06,-0.064
3.250E-06,-0.144
3.260E-06,-0.224
3.270E-06,-0.288
3.280E-06,-0.312
3.290E-06,-0.320
3.300E-06,-0.328
3.310E-06,-0.280
3.320E-06,-0.224
3.330E-06,-0.144
3.340E-06,-0.072
3.350E-06,-0.032
3.360E-06,-0.008
3.370E-06,0.000
3.380E-06,-0.008
3.390E-06,-0.024
3.400E-06,-0.024
3.410E-06,-0.024
3.420E-06,-0.032
3.430E-06,-0.048
3.440E-06,-0.040
