mediciones/Mediciones filtradas (saque las feas)/6-10/0.8/WaveData560.csv

#timebase=2000000(ps)
,#voltbase=100000(mv/100)
#size=4000
-4.200E-06,0.004
-4.190E-06,0.000
-4.180E-06,0.004
-4.170E-06,0.000
-4.160E-06,0.004
-4.150E-06,0.004
-4.140E-06,0.004
-4.130E-06,0.004
-4.120E-06,0.004
-4.110E-06,0.004
-4.100E-06,0.004
-4.090E-06,0.004
-4.080E-06,0.004
-4.070E-06,0.004
-4.060E-06,0.004
-4.050E-06,-0.004
-4.040E-06,0.004
-4.030E-06,0.004
-4.020E-06,0.004
-4.010E-06,0.000
-4.000E-06,0.004
-3.990E-06,0.008
-3.980E-06,0.004
-3.970E-06,-0.004
-3.960E-06,0.000
-3.950E-06,0.000
-3.940E-06,0.004
-3.930E-06,0.000
-3.920E-06,0.004
-3.910E-06,0.004
-3.900E-06,0.000
-3.890E-06,0.000
-3.880E-06,0.000
-3.870E-06,0.004
-3.860E-06,0.000
-3.850E-06,-0.004
-3.840E-06,0.004
-3.830E-06,0.004
-3.820E-06,0.004
-3.810E-06,0.000
-3.800E-06,0.000
-3.790E-06,0.004
-3.780E-06,0.000
-3.770E-06,0.004
-3.760E-06,0.004
-3.750E-06,0.004
-3.740E-06,0.004
-3.730E-06,0.000
-3.720E-06,0.000
-3.710E-06,0.004
-3.700E-06,0.000
-3.690E-06,0.000
-3.680E-06,0.004
-3.670E-06,0.000
-3.660E-06,0.000
-3.650E-06,0.008
-3.640E-06,-0.004
-3.630E-06,0.004
-3.620E-06,0.004
-3.610E-06,0.004
-3.600E-06,0.004
-3.590E-06,0.004
-3.580E-06,0.000
-3.570E-06,0.008
-3.560E-06,0.000
-3.550E-06,0.000
-3.540E-06,0.004
-3.530E-06,-0.004
-3.520E-06,0.004
-3.510E-06,0.000
-3.500E-06,0.004
-3.490E-06,0.000
-3.480E-06,0.004
-3.470E-06,0.004
-3.460E-06,0.004
-3.450E-06,-0.004
-3.440E-06,0.000
-3.430E-06,0.004
-3.420E-06,-0.004
-3.410E-06,0.000
-3.400E-06,0.004
-3.390E-06,0.004
-3.380E-06,0.004
-3.370E-06,0.008
-3.360E-06,0.000
-3.350E-06,0.004
-3.340E-06,0.004
-3.330E-06,0.000
-3.320E-06,0.000
-3.310E-06,0.008
-3.300E-06,0.000
-3.290E-06,0.000
-3.280E-06,0.004
-3.270E-06,0.008
-3.260E-06,0.016
-3.250E-06,0.028
-3.240E-06,0.060
-3.230E-06,0.060
-3.220E-06,0.052
-3.210E-06,-0.008
-3.200E-06,-0.012
-3.190E-06,-0.128
-3.180E-06,-0.104
-3.170E-06,-0.056
-3.160E-06,0.012
-3.150E-06,0.080
-3.140E-06,0.072
-3.130E-06,0.056
-3.120E-06,-0.004
-3.110E-06,-0.004
-3.100E-06,-0.004
-3.090E-06,0.008
-3.080E-06,0.024
-3.070E-06,0.040
-3.060E-06,0.028
-3.050E-06,0.000
-3.040E-06,-0.012
-3.030E-06,-0.032
-3.020E-06,-0.044
-3.010E-06,-0.024
-3.000E-06,0.020
-2.990E-06,0.032
-2.980E-06,0.052
-2.970E-06,0.036
-2.960E-06,0.020
-2.950E-06,-0.004
-2.940E-06,-0.012
-2.930E-06,-0.012
-2.920E-06,-0.012
-2.910E-06,-0.004
-2.900E-06,-0.004
-2.890E-06,-0.004
-2.880E-06,-0.016
-2.870E-06,-0.012
-2.860E-06,-0.020
-2.850E-06,-0.004
-2.840E-06,0.004
-2.830E-06,0.024
-2.820E-06,0.036
-2.810E-06,0.024
-2.800E-06,0.028
-2.790E-06,0.012
-2.780E-06,0.000
-2.770E-06,-0.004
-2.760E-06,-0.004
-2.750E-06,-0.008
-2.740E-06,-0.008
-2.730E-06,-0.012
-2.720E-06,0.000
-2.710E-06,-0.004
-2.700E-06,0.004
-2.690E-06,0.004
-2.680E-06,0.008
-2.670E-06,0.020
-2.660E-06,0.024
-2.650E-06,0.020
-2.640E-06,0.012
-2.630E-06,0.008
-2.620E-06,0.004
-2.610E-06,0.000
-2.600E-06,0.000
-2.590E-06,-0.004
-2.580E-06,-0.004
-2.570E-06,-0.004
-2.560E-06,0.000
-2.550E-06,0.008
-2.540E-06,0.012
-2.530E-06,0.008
-2.520E-06,0.012
-2.510E-06,0.012
-2.500E-06,0.008
-2.490E-06,0.012
-2.480E-06,0.012
-2.470E-06,0.012
-2.460E-06,0.008
-2.450E-06,0.000
-2.440E-06,-0.004
-2.430E-06,0.000
-2.420E-06,0.000
-2.410E-06,-0.004
-2.400E-06,-0.004
-2.390E-06,0.000
-2.380E-06,0.008
-2.370E-06,0.004
-2.360E-06,0.008
-2.350E-06,0.012
-2.340E-06,0.012
-2.330E-06,0.012
-2.320E-06,0.012
-2.310E-06,0.008
-2.300E-06,0.008
-2.290E-06,0.012
-2.280E-06,0.004
-2.270E-06,0.012
-2.260E-06,0.012
-2.250E-06,-0.004
-2.240E-06,0.000
-2.230E-06,-0.004
-2.220E-06,0.016
-2.210E-06,0.016
-2.200E-06,0.016
-2.190E-06,0.008
-2.180E-06,-0.004
-2.170E-06,0.004
-2.160E-06,0.012
-2.150E-06,0.020
-2.140E-06,0.020
-2.130E-06,0.016
-2.120E-06,0.016
-2.110E-06,0.012
-2.100E-06,0.008
-2.090E-06,0.004
-2.080E-06,0.012
-2.070E-06,0.008
-2.060E-06,0.024
-2.050E-06,0.024
-2.040E-06,0.028
-2.030E-06,0.032
-2.020E-06,0.024
-2.010E-06,0.052
-2.000E-06,0.004
-1.990E-06,-0.044
-1.980E-06,-0.064
-1.970E-06,-0.092
-1.960E-06,-0.040
-1.950E-06,0.020
-1.940E-06,0.072
-1.930E-06,0.064
-1.920E-06,0.000
-1.910E-06,-0.040
-1.900E-06,-0.072
-1.890E-06,-0.060
-1.880E-06,-0.004
-1.870E-06,0.020
-1.860E-06,0.032
-1.850E-06,0.028
-1.840E-06,0.020
-1.830E-06,0.000
-1.820E-06,-0.024
-1.810E-06,-0.024
-1.800E-06,-0.008
-1.790E-06,0.008
-1.780E-06,0.024
-1.770E-06,0.032
-1.760E-06,0.024
-1.750E-06,0.020
-1.740E-06,-0.004
-1.730E-06,-0.008
-1.720E-06,-0.008
-1.710E-06,0.016
-1.700E-06,0.036
-1.690E-06,0.076
-1.680E-06,0.048
-1.670E-06,0.072
-1.660E-06,0.032
-1.650E-06,0.064
-1.640E-06,0.056
-1.630E-06,0.108
-1.620E-06,0.072
-1.610E-06,0.080
-1.600E-06,0.120
-1.590E-06,0.076
-1.580E-06,0.020
-1.570E-06,0.016
-1.560E-06,0.020
-1.550E-06,0.044
-1.540E-06,0.072
-1.530E-06,0.060
-1.520E-06,0.008
-1.510E-06,0.004
-1.500E-06,-0.004
-1.490E-06,-0.024
-1.480E-06,0.012
-1.470E-06,-0.064
-1.460E-06,-0.076
-1.450E-06,-0.128
-1.440E-06,-0.092
-1.430E-06,-0.168
-1.420E-06,-0.112
-1.410E-06,-0.056
-1.400E-06,0.012
-1.390E-06,0.028
-1.380E-06,0.012
-1.370E-06,0.012
-1.360E-06,-0.028
-1.350E-06,-0.028
-1.340E-06,-0.052
-1.330E-06,-0.040
-1.320E-06,-0.020
-1.310E-06,0.008
-1.300E-06,0.036
-1.290E-06,0.032
-1.280E-06,0.000
-1.270E-06,-0.028
-1.260E-06,-0.032
-1.250E-06,-0.016
-1.240E-06,-0.004
-1.230E-06,-0.004
-1.220E-06,0.008
-1.210E-06,0.020
-1.200E-06,0.028
-1.190E-06,0.016
-1.180E-06,0.008
-1.170E-06,0.000
-1.160E-06,0.000
-1.150E-06,0.000
-1.140E-06,0.004
-1.130E-06,0.024
-1.120E-06,0.028
-1.110E-06,0.044
-1.100E-06,0.040
-1.090E-06,0.028
-1.080E-06,0.028
-1.070E-06,0.020
-1.060E-06,0.028
-1.050E-06,0.036
-1.040E-06,0.048
-1.030E-06,0.052
-1.020E-06,0.048
-1.010E-06,0.044
-1.000E-06,0.028
-9.900E-07,0.024
-9.800E-07,0.044
-9.700E-07,0.052
-9.600E-07,0.068
-9.500E-07,0.072
-9.400E-07,0.308
-9.300E-07,0.060
-9.200E-07,0.112
-9.100E-07,0.112
-9.000E-07,0.000
-8.900E-07,0.032
-8.800E-07,0.112
-8.700E-07,0.176
-8.600E-07,0.084
-8.500E-07,0.136
-8.400E-07,0.192
-8.300E-07,0.140
-8.200E-07,0.080
-8.100E-07,0.048
-8.000E-07,0.032
-7.900E-07,-0.040
-7.800E-07,-0.168
-7.700E-07,-0.240
-7.600E-07,-0.200
-7.500E-07,-0.144
-7.400E-07,-0.028
-7.300E-07,0.088
-7.200E-07,-0.040
-7.100E-07,-0.092
-7.000E-07,-0.160
-6.900E-07,-0.216
-6.800E-07,-0.156
-6.700E-07,-0.056
-6.600E-07,0.156
-6.500E-07,0.048
-6.400E-07,0.064
-6.300E-07,-0.044
-6.200E-07,-0.096
-6.100E-07,-0.172
-6.000E-07,-0.104
-5.900E-07,0.016
-5.800E-07,0.036
-5.700E-07,0.060
-5.600E-07,0.036
-5.500E-07,-0.028
-5.400E-07,-0.056
-5.300E-07,-0.052
-5.200E-07,-0.016
-5.100E-07,0.004
-5.000E-07,0.064
-4.900E-07,0.100
-4.800E-07,0.124
-4.700E-07,0.108
-4.600E-07,0.044
-4.500E-07,0.032
-4.400E-07,-0.044
-4.300E-07,-0.024
-4.200E-07,0.016
-4.100E-07,0.024
-4.000E-07,0.072
-3.900E-07,0.056
-3.800E-07,0.100
-3.700E-07,0.120
-3.600E-07,0.120
-3.500E-07,0.040
-3.400E-07,0.064
-3.300E-07,0.096
-3.200E-07,0.124
-3.100E-07,0.124
-3.000E-07,0.128
-2.900E-07,0.160
-2.800E-07,0.148
-2.700E-07,0.128
-2.600E-07,0.124
-2.500E-07,0.168
-2.400E-07,0.180
-2.300E-07,0.208
-2.200E-07,0.188
-2.100E-07,0.192
-2.000E-07,0.164
-1.900E-07,0.128
-1.800E-07,0.132
-1.700E-07,0.132
-1.600E-07,0.160
-1.500E-07,0.140
-1.400E-07,0.144
-1.300E-07,0.140
-1.200E-07,0.140
-1.100E-07,0.140
-1.000E-07,0.088
-9.000E-08,0.020
-8.000E-08,-0.180
-7.000E-08,-0.496
-6.000E-08,-0.508
-5.000E-08,-0.508
-4.000E-08,-0.508
-3.000E-08,-0.416
-2.000E-08,-0.112
-1.000E-08,0.276
0.000E+00,0.188
1.000E-08,0.136
2.000E-08,-0.172
3.000E-08,-0.324
4.000E-08,-0.340
5.000E-08,-0.168
6.000E-08,0.128
7.000E-08,0.308
8.000E-08,0.324
9.000E-08,0.164
1.000E-07,-0.024
1.100E-07,-0.196
1.200E-07,-0.232
1.300E-07,-0.124
1.400E-07,0.044
1.500E-07,0.180
1.600E-07,0.248
1.700E-07,0.188
1.800E-07,0.044
1.900E-07,-0.076
2.000E-07,-0.108
2.100E-07,-0.044
2.200E-07,0.040
2.300E-07,0.176
2.400E-07,0.252
2.500E-07,0.240
2.600E-07,0.180
2.700E-07,0.108
2.800E-07,0.044
2.900E-07,0.052
3.000E-07,0.124
3.100E-07,0.200
3.200E-07,0.240
3.300E-07,0.228
3.400E-07,0.208
3.500E-07,0.144
3.600E-07,0.112
3.700E-07,0.096
3.800E-07,0.144
3.900E-07,0.220
4.000E-07,0.244
4.100E-07,0.248
4.200E-07,0.212
4.300E-07,0.160
4.400E-07,0.124
4.500E-07,0.128
4.600E-07,0.144
4.700E-07,0.200
4.800E-07,0.236
4.900E-07,0.240
5.000E-07,0.224
5.100E-07,0.180
5.200E-07,0.160
5.300E-07,0.136
5.400E-07,0.156
5.500E-07,0.188
5.600E-07,0.192
5.700E-07,0.172
5.800E-07,0.108
5.900E-07,0.052
6.000E-07,0.004
6.100E-07,-0.008
6.200E-07,-0.056
6.300E-07,-0.104
6.400E-07,-0.108
6.500E-07,-0.324
6.600E-07,-0.332
6.700E-07,-0.508
6.800E-07,-0.452
6.900E-07,-0.512
7.000E-07,-0.336
7.100E-07,-0.308
7.200E-07,-0.036
7.300E-07,-0.136
7.400E-07,-0.140
7.500E-07,-0.112
7.600E-07,0.068
7.700E-07,0.016
7.800E-07,0.044
7.900E-07,-0.064
8.000E-07,0.140
8.100E-07,-0.008
8.200E-07,-0.044
8.300E-07,0.028
8.400E-07,0.000
8.500E-07,0.124
8.600E-07,0.124
8.700E-07,0.092
8.800E-07,0.088
8.900E-07,0.152
9.000E-07,0.136
9.100E-07,0.148
9.200E-07,0.140
9.300E-07,0.220
9.400E-07,0.200
9.500E-07,0.208
9.600E-07,0.176
9.700E-07,0.176
9.800E-07,0.196
9.900E-07,0.220
1.000E-06,0.244
1.010E-06,0.256
1.020E-06,0.256
1.030E-06,0.224
1.040E-06,0.208
1.050E-06,0.188
1.060E-06,0.192
1.070E-06,0.184
1.080E-06,0.212
1.090E-06,0.208
1.100E-06,0.192
1.110E-06,0.188
1.120E-06,0.180
1.130E-06,0.196
1.140E-06,0.208
1.150E-06,0.236
1.160E-06,0.240
1.170E-06,0.236
1.180E-06,0.204
1.190E-06,0.188
1.200E-06,0.188
1.210E-06,0.184
1.220E-06,0.204
1.230E-06,0.224
1.240E-06,0.220
1.250E-06,0.216
1.260E-06,0.204
1.270E-06,0.180
1.280E-06,0.172
1.290E-06,0.164
1.300E-06,0.188
1.310E-06,0.196
1.320E-06,0.188
1.330E-06,0.172
1.340E-06,0.144
1.350E-06,0.140
1.360E-06,0.144
1.370E-06,0.176
1.380E-06,0.180
1.390E-06,0.192
1.400E-06,0.172
1.410E-06,0.156
1.420E-06,0.152
1.430E-06,0.164
1.440E-06,0.212
1.450E-06,0.244
1.460E-06,0.256
1.470E-06,0.236
1.480E-06,0.208
1.490E-06,0.196
1.500E-06,0.176
1.510E-06,0.184
1.520E-06,0.200
1.530E-06,0.224
1.540E-06,0.236
1.550E-06,0.228
1.560E-06,0.208
1.570E-06,0.188
1.580E-06,0.180
1.590E-06,0.192
1.600E-06,0.204
1.610E-06,0.228
1.620E-06,0.232
1.630E-06,0.228
1.640E-06,0.220
1.650E-06,0.204
1.660E-06,0.188
1.670E-06,0.192
1.680E-06,0.204
1.690E-06,0.216
1.700E-06,0.224
1.710E-06,0.224
1.720E-06,0.216
1.730E-06,0.200
1.740E-06,0.196
1.750E-06,0.192
1.760E-06,0.196
1.770E-06,0.208
1.780E-06,0.224
1.790E-06,0.224
1.800E-06,0.216
1.810E-06,0.204
1.820E-06,0.192
1.830E-06,0.188
1.840E-06,0.196
1.850E-06,0.204
1.860E-06,0.208
1.870E-06,0.212
1.880E-06,0.208
1.890E-06,0.196
1.900E-06,0.188
1.910E-06,0.192
1.920E-06,0.192
1.930E-06,0.200
1.940E-06,0.208
1.950E-06,0.216
1.960E-06,0.212
1.970E-06,0.204
1.980E-06,0.188
1.990E-06,0.196
2.000E-06,0.196
2.010E-06,0.196
2.020E-06,0.204
2.030E-06,0.204
2.040E-06,0.208
2.050E-06,0.196
2.060E-06,0.192
2.070E-06,0.188
2.080E-06,0.188
2.090E-06,0.192
2.100E-06,0.200
2.110E-06,0.200
2.120E-06,0.204
2.130E-06,0.192
2.140E-06,0.188
2.150E-06,0.180
2.160E-06,0.184
2.170E-06,0.188
2.180E-06,0.192
2.190E-06,0.196
2.200E-06,0.192
2.210E-06,0.192
2.220E-06,0.192
2.230E-06,0.180
2.240E-06,0.184
2.250E-06,0.188
2.260E-06,0.188
2.270E-06,0.192
2.280E-06,0.192
2.290E-06,0.188
2.300E-06,0.188
2.310E-06,0.184
2.320E-06,0.180
2.330E-06,0.188
2.340E-06,0.192
2.350E-06,0.192
2.360E-06,0.192
2.370E-06,0.188
2.380E-06,0.184
2.390E-06,0.180
2.400E-06,0.184
2.410E-06,0.184
2.420E-06,0.188
2.430E-06,0.188
2.440E-06,0.188
2.450E-06,0.188
2.460E-06,0.180
2.470E-06,0.176
2.480E-06,0.180
2.490E-06,0.180
2.500E-06,0.184
2.510E-06,0.188
2.520E-06,0.188
2.530E-06,0.188
2.540E-06,0.184
2.550E-06,0.176
2.560E-06,0.180
2.570E-06,0.180
2.580E-06,0.176
2.590E-06,0.180
2.600E-06,0.176
2.610E-06,0.176
2.620E-06,0.168
2.630E-06,0.168
2.640E-06,0.168
2.650E-06,0.172
2.660E-06,0.168
2.670E-06,0.172
2.680E-06,0.172
2.690E-06,0.176
2.700E-06,0.176
2.710E-06,0.176
2.720E-06,0.172
2.730E-06,0.168
2.740E-06,0.172
2.750E-06,0.172
2.760E-06,0.172
2.770E-06,0.172
2.780E-06,0.164
2.790E-06,0.168
2.800E-06,0.168
2.810E-06,0.172
2.820E-06,0.168
2.830E-06,0.172
2.840E-06,0.164
2.850E-06,0.168
2.860E-06,0.164
2.870E-06,0.164
2.880E-06,0.168
2.890E-06,0.164
2.900E-06,0.160
2.910E-06,0.164
2.920E-06,0.168
2.930E-06,0.164
2.940E-06,0.156
2.950E-06,0.156
2.960E-06,0.160
2.970E-06,0.156
2.980E-06,0.164
2.990E-06,0.160
3.000E-06,0.156
3.010E-06,0.160
3.020E-06,0.156
3.030E-06,0.156
3.040E-06,0.156
3.050E-06,0.156
3.060E-06,0.160
3.070E-06,0.156
3.080E-06,0.152
3.090E-06,0.156
3.100E-06,0.156
3.110E-06,0.152
3.120E-06,0.152
3.130E-06,0.148
3.140E-06,0.148
3.150E-06,0.156
3.160E-06,0.156
3.170E-06,0.160
3.180E-06,0.156
3.190E-06,0.152
3.200E-06,0.148
3.210E-06,0.148
3.220E-06,0.152
3.230E-06,0.152
3.240E-06,0.148
3.250E-06,0.144
3.260E-06,0.144
3.270E-06,0.140
3.280E-06,0.140
3.290E-06,0.144
3.300E-06,0.144
3.310E-06,0.144
3.320E-06,0.144
3.330E-06,0.144
3.340E-06,0.148
3.350E-06,0.136
3.360E-06,0.140
3.370E-06,0.140
3.380E-06,0.140
3.390E-06,0.140
3.400E-06,0.140
3.410E-06,0.140
3.420E-06,0.140
3.430E-06,0.140
3.440E-06,0.140
3.450E-06,0.140
3.460E-06,0.140
3.470E-06,0.140
3.480E-06,0.140
3.490E-06,0.136
3.500E-06,0.136
3.510E-06,0.136
3.520E-06,0.132
3.530E-06,0.132
3.540E-06,0.128
3.550E-06,0.128
3.560E-06,0.128
3.570E-06,0.132
3.580E-06,0.128
3.590E-06,0.128
3.600E-06,0.128
3.610E-06,0.132
3.620E-06,0.128
3.630E-06,0.128
3.640E-06,0.132
3.650E-06,0.132
3.660E-06,0.128
3.670E-06,0.132
3.680E-06,0.128
3.690E-06,0.128
3.700E-06,0.128
3.710E-06,0.128
3.720E-06,0.128
3.730E-06,0.128
3.740E-06,0.124
3.750E-06,0.124
3.760E-06,0.128
3.770E-06,0.124
3.780E-06,0.128
3.790E-06,0.124
3.800E-06,0.124
3.810E-06,0.128
3.820E-06,0.128
3.830E-06,0.124
3.840E-06,0.124
3.850E-06,0.120
3.860E-06,0.120
3.870E-06,0.120
3.880E-06,0.124
3.890E-06,0.124
3.900E-06,0.120
3.910E-06,0.124
3.920E-06,0.124
3.930E-06,0.124
3.940E-06,0.120
3.950E-06,0.124
3.960E-06,0.120
3.970E-06,0.120
3.980E-06,0.116
3.990E-06,0.112
4.000E-06,0.124
4.010E-06,0.108
4.020E-06,0.108
4.030E-06,0.116
4.040E-06,0.112
4.050E-06,0.120
4.060E-06,0.112
4.070E-06,0.112
4.080E-06,0.112
4.090E-06,0.112
4.100E-06,0.108
4.110E-06,0.104
4.120E-06,0.108
4.130E-06,0.104
4.140E-06,0.104
4.150E-06,0.104
4.160E-06,0.104
4.170E-06,0.108
4.180E-06,0.116
4.190E-06,0.108
4.200E-06,0.108
4.210E-06,0.104
4.220E-06,0.096
4.230E-06,0.100
4.240E-06,0.100
4.250E-06,0.104
4.260E-06,0.108
4.270E-06,0.108
4.280E-06,0.100
4.290E-06,0.100
4.300E-06,0.096
4.310E-06,0.100
4.320E-06,0.096
4.330E-06,0.096
4.340E-06,0.096
4.350E-06,0.096
4.360E-06,0.100
4.370E-06,0.092
4.380E-06,0.096
4.390E-06,0.092
4.400E-06,0.092
4.410E-06,0.088
4.420E-06,0.092
4.430E-06,0.092
4.440E-06,0.100
4.450E-06,0.100
4.460E-06,0.096
4.470E-06,0.088
4.480E-06,0.084
4.490E-06,0.080
4.500E-06,0.088
4.510E-06,0.088
4.520E-06,0.092
4.530E-06,0.096
4.540E-06,0.092
4.550E-06,0.088
4.560E-06,0.084
4.570E-06,0.076
4.580E-06,0.088
4.590E-06,0.092
4.600E-06,0.088
4.610E-06,0.092
4.620E-06,0.084
4.630E-06,0.080
4.640E-06,0.076
4.650E-06,0.080
4.660E-06,0.080
4.670E-06,0.076
4.680E-06,0.084
4.690E-06,0.088
4.700E-06,0.080
4.710E-06,0.084
4.720E-06,0.076
4.730E-06,0.076
4.740E-06,0.076
4.750E-06,0.072
4.760E-06,0.076
4.770E-06,0.076
4.780E-06,0.076
4.790E-06,0.080
4.800E-06,0.076
4.810E-06,0.076
4.820E-06,0.072
4.830E-06,0.068
4.840E-06,0.072
4.850E-06,0.076
4.860E-06,0.076
4.870E-06,0.072
4.880E-06,0.072
4.890E-06,0.068
4.900E-06,0.064
4.910E-06,0.060
4.920E-06,0.068
4.930E-06,0.068
4.940E-06,0.072
4.950E-06,0.072
4.960E-06,0.072
4.970E-06,0.072
4.980E-06,0.064
4.990E-06,0.068
5.000E-06,0.064
5.010E-06,0.064
5.020E-06,0.064
5.030E-06,0.072
5.040E-06,0.072
5.050E-06,0.064
5.060E-06,0.064
5.070E-06,0.064
5.080E-06,0.060
5.090E-06,0.064
5.100E-06,0.064
5.110E-06,0.064
5.120E-06,0.068
5.130E-06,0.064
5.140E-06,0.064
5.150E-06,0.060
5.160E-06,0.060
5.170E-06,0.060
5.180E-06,0.060
5.190E-06,0.060
5.200E-06,0.064
5.210E-06,0.064
5.220E-06,0.060
5.230E-06,0.064
5.240E-06,0.060
5.250E-06,0.060
5.260E-06,0.056
5.270E-06,0.060
5.280E-06,0.056
5.290E-06,0.056
5.300E-06,0.060
5.310E-06,0.060
5.320E-06,0.060
5.330E-06,0.060
5.340E-06,0.056
5.350E-06,0.060
5.360E-06,0.056
5.370E-06,0.056
5.380E-06,0.056
5.390E-06,0.056
5.400E-06,0.060
5.410E-06,0.060
5.420E-06,0.060
5.430E-06,0.052
5.440E-06,0.052
5.450E-06,0.056
5.460E-06,0.052
5.470E-06,0.060
5.480E-06,0.056
5.490E-06,0.060
5.500E-06,0.052
5.510E-06,0.052
5.520E-06,0.056
5.530E-06,0.052
5.540E-06,0.056
5.550E-06,0.052
5.560E-06,0.056
5.570E-06,0.052
5.580E-06,0.040
5.590E-06,0.048
5.600E-06,0.048
5.610E-06,0.052
5.620E-06,0.044
5.630E-06,0.040
5.640E-06,0.048
5.650E-06,0.048
5.660E-06,0.044
5.670E-06,0.048
5.680E-06,0.048
5.690E-06,0.044
5.700E-06,0.044
5.710E-06,0.040
5.720E-06,0.044
5.730E-06,0.044
5.740E-06,0.044
5.750E-06,0.040
5.760E-06,0.040
5.770E-06,0.036
5.780E-06,0.040
5.790E-06,0.048
5.800E-06,0.048
5.810E-06,0.040
5.820E-06,0.040
5.830E-06,0.036
5.840E-06,0.036
5.850E-06,0.036
5.860E-06,0.040
5.870E-06,0.040
5.880E-06,0.044
5.890E-06,0.040
5.900E-06,0.044
5.910E-06,0.036
5.920E-06,0.032
5.930E-06,0.028
5.940E-06,0.032
5.950E-06,0.036
5.960E-06,0.040
5.970E-06,0.036
5.980E-06,0.048
5.990E-06,0.032
6.000E-06,0.036
6.010E-06,0.036
6.020E-06,0.028
6.030E-06,0.032
6.040E-06,0.036
6.050E-06,0.036
6.060E-06,0.032
6.070E-06,0.032
6.080E-06,0.028
6.090E-06,0.028
6.100E-06,0.028
6.110E-06,0.036
6.120E-06,0.028
6.130E-06,0.032
6.140E-06,0.028
6.150E-06,0.028
6.160E-06,0.028
6.170E-06,0.024
6.180E-06,0.024
6.190E-06,0.028
6.200E-06,0.024
6.210E-06,0.028
6.220E-06,0.032
6.230E-06,0.024
6.240E-06,0.028
6.250E-06,0.024
6.260E-06,0.020
6.270E-06,0.024
6.280E-06,0.024
6.290E-06,0.028
6.300E-06,0.028
6.310E-06,0.024
6.320E-06,0.024
6.330E-06,0.024
6.340E-06,0.024
6.350E-06,0.024
6.360E-06,0.024
6.370E-06,0.028
6.380E-06,0.024
6.390E-06,0.016
6.400E-06,0.016
6.410E-06,0.020
6.420E-06,0.012
6.430E-06,0.020
6.440E-06,0.024
6.450E-06,0.020
6.460E-06,0.020
6.470E-06,0.028
6.480E-06,0.020
6.490E-06,0.016
6.500E-06,0.012
6.510E-06,0.020
6.520E-06,0.024
6.530E-06,0.024
6.540E-06,0.016
6.550E-06,0.020
6.560E-06,0.020
6.570E-06,0.020
6.580E-06,0.016
6.590E-06,0.016
6.600E-06,0.020
6.610E-06,0.016
6.620E-06,0.008
6.630E-06,0.008
6.640E-06,0.016
6.650E-06,0.016
6.660E-06,0.020
6.670E-06,0.016
6.680E-06,0.016
6.690E-06,0.012
6.700E-06,0.012
6.710E-06,0.012
6.720E-06,0.016
6.730E-06,0.012
6.740E-06,0.016
6.750E-06,0.012
6.760E-06,0.012
6.770E-06,0.008
6.780E-06,0.012
6.790E-06,0.012
6.800E-06,0.012
6.810E-06,0.008
6.820E-06,0.012
6.830E-06,0.012
6.840E-06,0.012
6.850E-06,0.016
6.860E-06,0.012
6.870E-06,0.012
6.880E-06,0.016
6.890E-06,0.004
6.900E-06,0.008
6.910E-06,0.012
6.920E-06,0.008
6.930E-06,0.004
6.940E-06,0.008
6.950E-06,0.008
6.960E-06,0.012
6.970E-06,0.008
6.980E-06,0.004
6.990E-06,0.008
7.000E-06,0.000
7.010E-06,0.008
7.020E-06,0.004
7.030E-06,0.004
7.040E-06,0.004
7.050E-06,0.004
7.060E-06,0.004
7.070E-06,0.004
7.080E-06,0.004
7.090E-06,0.012
7.100E-06,0.004
7.110E-06,0.004
7.120E-06,0.004
7.130E-06,0.000
7.140E-06,0.004
7.150E-06,0.000
7.160E-06,0.000
7.170E-06,0.004
7.180E-06,0.004
7.190E-06,0.000
7.200E-06,0.004
7.210E-06,0.004
7.220E-06,0.000
7.230E-06,0.000
7.240E-06,-0.004
7.250E-06,0.000
7.260E-06,0.000
7.270E-06,0.004
7.280E-06,0.000
7.290E-06,0.000
7.300E-06,-0.004
7.310E-06,-0.004
7.320E-06,-0.004
7.330E-06,-0.004
7.340E-06,0.004
7.350E-06,-0.004
7.360E-06,-0.004
7.370E-06,-0.004
7.380E-06,0.000
7.390E-06,0.000
7.400E-06,-0.004
7.410E-06,-0.004
7.420E-06,-0.004
7.430E-06,-0.004
7.440E-06,-0.004
7.450E-06,-0.004
7.460E-06,-0.004
7.470E-06,0.000
7.480E-06,-0.004
7.490E-06,0.000
7.500E-06,-0.008
7.510E-06,-0.008
7.520E-06,0.004
7.530E-06,0.000
7.540E-06,-0.004
7.550E-06,-0.004
7.560E-06,-0.004
7.570E-06,-0.004
7.580E-06,-0.004
7.590E-06,-0.004
7.600E-06,-0.008
7.610E-06,-0.008
7.620E-06,-0.004
7.630E-06,-0.008
7.640E-06,-0.004
7.650E-06,-0.008
7.660E-06,-0.008
7.670E-06,-0.012
7.680E-06,-0.012
7.690E-06,-0.012
7.700E-06,-0.012
7.710E-06,-0.004
7.720E-06,-0.008
7.730E-06,-0.008
7.740E-06,-0.008
7.750E-06,-0.008
7.760E-06,-0.012
7.770E-06,-0.008
7.780E-06,-0.008
7.790E-06,-0.008
7.800E-06,-0.008
7.810E-06,-0.004
7.820E-06,-0.004
7.830E-06,-0.008
7.840E-06,-0.008
7.850E-06,-0.008
7.860E-06,-0.012
7.870E-06,-0.012
