mediciones/Mediciones filtradas (saque las feas)/6-10/0.8/WaveData561.csv

#timebase=2000000(ps)
,#voltbase=500000(mv/100)
#size=4000
-4.200E-06,0.040
-4.190E-06,0.020
-4.180E-06,0.040
-4.170E-06,0.060
-4.160E-06,0.020
-4.150E-06,0.040
-4.140E-06,0.060
-4.130E-06,0.040
-4.120E-06,0.040
-4.110E-06,0.020
-4.100E-06,0.040
-4.090E-06,0.040
-4.080E-06,0.040
-4.070E-06,0.080
-4.060E-06,0.040
-4.050E-06,0.060
-4.040E-06,0.020
-4.030E-06,0.020
-4.020E-06,0.060
-4.010E-06,0.040
-4.000E-06,0.080
-3.990E-06,0.040
-3.980E-06,0.020
-3.970E-06,0.040
-3.960E-06,0.060
-3.950E-06,0.060
-3.940E-06,0.060
-3.930E-06,0.040
-3.920E-06,0.080
-3.910E-06,0.040
-3.900E-06,0.040
-3.890E-06,0.080
-3.880E-06,0.040
-3.870E-06,0.020
-3.860E-06,0.060
-3.850E-06,0.040
-3.840E-06,0.060
-3.830E-06,0.060
-3.820E-06,0.040
-3.810E-06,0.040
-3.800E-06,0.060
-3.790E-06,0.060
-3.780E-06,0.020
-3.770E-06,0.020
-3.760E-06,0.040
-3.750E-06,0.060
-3.740E-06,0.060
-3.730E-06,0.060
-3.720E-06,0.020
-3.710E-06,0.040
-3.700E-06,0.060
-3.690E-06,0.040
-3.680E-06,0.040
-3.670E-06,0.060
-3.660E-06,0.040
-3.650E-06,0.040
-3.640E-06,0.040
-3.630E-06,0.080
-3.620E-06,0.040
-3.610E-06,0.020
-3.600E-06,0.040
-3.590E-06,0.080
-3.580E-06,0.040
-3.570E-06,0.060
-3.560E-06,0.080
-3.550E-06,0.040
-3.540E-06,0.040
-3.530E-06,0.040
-3.520E-06,0.080
-3.510E-06,0.060
-3.500E-06,0.040
-3.490E-06,0.060
-3.480E-06,0.040
-3.470E-06,0.060
-3.460E-06,0.040
-3.450E-06,0.020
-3.440E-06,0.040
-3.430E-06,0.020
-3.420E-06,0.040
-3.410E-06,0.060
-3.400E-06,0.060
-3.390E-06,0.060
-3.380E-06,0.080
-3.370E-06,0.020
-3.360E-06,0.040
-3.350E-06,0.040
-3.340E-06,0.040
-3.330E-06,0.040
-3.320E-06,0.080
-3.310E-06,0.060
-3.300E-06,0.040
-3.290E-06,0.080
-3.280E-06,0.040
-3.270E-06,0.020
-3.260E-06,0.020
-3.250E-06,0.060
-3.240E-06,0.120
-3.230E-06,0.380
-3.220E-06,1.060
-3.210E-06,1.900
-3.200E-06,2.700
-3.190E-06,2.760
-3.180E-06,2.780
-3.170E-06,2.260
-3.160E-06,1.200
-3.150E-06,-0.460
-3.140E-06,-1.460
-3.130E-06,-2.540
-3.120E-06,-2.660
-3.110E-06,-2.680
-3.100E-06,-2.680
-3.090E-06,-2.680
-3.080E-06,-2.680
-3.070E-06,-2.240
-3.060E-06,-1.560
-3.050E-06,-0.860
-3.040E-06,-0.360
-3.030E-06,-0.020
-3.020E-06,0.200
-3.010E-06,0.260
-3.000E-06,0.340
-2.990E-06,0.420
-2.980E-06,0.480
-2.970E-06,0.600
-2.960E-06,0.800
-2.950E-06,0.980
-2.940E-06,1.220
-2.930E-06,1.420
-2.920E-06,1.600
-2.910E-06,1.700
-2.900E-06,1.640
-2.890E-06,1.400
-2.880E-06,1.060
-2.870E-06,0.640
-2.860E-06,0.160
-2.850E-06,-0.300
-2.840E-06,-0.680
-2.830E-06,-0.880
-2.820E-06,-0.920
-2.810E-06,-0.920
-2.800E-06,-0.740
-2.790E-06,-0.520
-2.780E-06,-0.180
-2.770E-06,0.160
-2.760E-06,0.540
-2.750E-06,0.840
-2.740E-06,1.060
-2.730E-06,1.180
-2.720E-06,1.200
-2.710E-06,1.060
-2.700E-06,0.900
-2.690E-06,0.660
-2.680E-06,0.460
-2.670E-06,0.280
-2.660E-06,0.100
-2.650E-06,-0.040
-2.640E-06,-0.240
-2.630E-06,-0.420
-2.620E-06,-0.700
-2.610E-06,-0.900
-2.600E-06,-1.080
-2.590E-06,-1.260
-2.580E-06,-1.360
-2.570E-06,-1.460
-2.560E-06,-1.480
-2.550E-06,-1.420
-2.540E-06,-1.320
-2.530E-06,-1.080
-2.520E-06,-0.840
-2.510E-06,-0.520
-2.500E-06,-0.180
-2.490E-06,0.160
-2.480E-06,0.460
-2.470E-06,0.700
-2.460E-06,0.900
-2.450E-06,1.000
-2.440E-06,1.060
-2.430E-06,1.080
-2.420E-06,0.980
-2.410E-06,0.840
-2.400E-06,0.680
-2.390E-06,0.520
-2.380E-06,0.340
-2.370E-06,0.220
-2.360E-06,0.100
-2.350E-06,0.000
-2.340E-06,-0.060
-2.330E-06,-0.160
-2.320E-06,-0.220
-2.310E-06,-0.320
-2.300E-06,-0.360
-2.290E-06,-0.380
-2.280E-06,-0.380
-2.270E-06,-0.340
-2.260E-06,-0.320
-2.250E-06,-0.240
-2.240E-06,-0.140
-2.230E-06,-0.100
-2.220E-06,0.060
-2.210E-06,0.200
-2.200E-06,0.300
-2.190E-06,0.500
-2.180E-06,0.540
-2.170E-06,0.600
-2.160E-06,0.560
-2.150E-06,0.520
-2.140E-06,0.480
-2.130E-06,0.460
-2.120E-06,0.380
-2.110E-06,0.360
-2.100E-06,0.240
-2.090E-06,0.120
-2.080E-06,0.020
-2.070E-06,-0.100
-2.060E-06,-0.140
-2.050E-06,-0.140
-2.040E-06,-0.180
-2.030E-06,-0.200
-2.020E-06,-0.160
-2.010E-06,-0.220
-2.000E-06,-0.220
-1.990E-06,-0.140
-1.980E-06,-0.080
-1.970E-06,-0.200
-1.960E-06,-0.340
-1.950E-06,-0.180
-1.940E-06,-0.240
-1.930E-06,0.040
-1.920E-06,0.180
-1.910E-06,0.220
-1.900E-06,0.220
-1.890E-06,0.080
-1.880E-06,0.080
-1.870E-06,0.140
-1.860E-06,0.200
-1.850E-06,0.320
-1.840E-06,0.380
-1.830E-06,0.340
-1.820E-06,0.300
-1.810E-06,0.220
-1.800E-06,0.280
-1.790E-06,0.300
-1.780E-06,0.320
-1.770E-06,0.320
-1.760E-06,0.280
-1.750E-06,0.200
-1.740E-06,0.180
-1.730E-06,0.180
-1.720E-06,0.180
-1.710E-06,0.160
-1.700E-06,0.140
-1.690E-06,0.060
-1.680E-06,0.080
-1.670E-06,0.260
-1.660E-06,0.100
-1.650E-06,0.160
-1.640E-06,0.200
-1.630E-06,0.060
-1.620E-06,0.260
-1.610E-06,0.320
-1.600E-06,0.420
-1.590E-06,0.540
-1.580E-06,0.420
-1.570E-06,0.300
-1.560E-06,0.220
-1.550E-06,0.140
-1.540E-06,0.180
-1.530E-06,0.260
-1.520E-06,0.280
-1.510E-06,0.180
-1.500E-06,0.080
-1.490E-06,-0.040
-1.480E-06,-0.240
-1.470E-06,-0.200
-1.460E-06,-0.100
-1.450E-06,-0.200
-1.440E-06,0.000
-1.430E-06,-0.340
-1.420E-06,-0.220
-1.410E-06,-0.380
-1.400E-06,-0.700
-1.390E-06,-0.620
-1.380E-06,-0.800
-1.370E-06,-0.600
-1.360E-06,-0.340
-1.350E-06,0.060
-1.340E-06,0.460
-1.330E-06,0.780
-1.320E-06,0.940
-1.310E-06,1.060
-1.300E-06,1.540
-1.290E-06,1.440
-1.280E-06,1.460
-1.270E-06,1.440
-1.260E-06,1.240
-1.250E-06,1.220
-1.240E-06,1.280
-1.230E-06,1.160
-1.220E-06,1.120
-1.210E-06,0.900
-1.200E-06,0.500
-1.190E-06,0.300
-1.180E-06,-0.020
-1.170E-06,-0.160
-1.160E-06,-0.140
-1.150E-06,-0.160
-1.140E-06,-0.200
-1.130E-06,-0.240
-1.120E-06,-0.320
-1.110E-06,-0.320
-1.100E-06,-0.160
-1.090E-06,-0.060
-1.080E-06,0.120
-1.070E-06,0.260
-1.060E-06,0.340
-1.050E-06,0.460
-1.040E-06,0.520
-1.030E-06,0.500
-1.020E-06,0.520
-1.010E-06,0.520
-1.000E-06,0.540
-9.900E-07,0.480
-9.800E-07,0.340
-9.700E-07,0.320
-9.600E-07,0.180
-9.500E-07,-0.220
-9.400E-07,-0.320
-9.300E-07,-0.580
-9.200E-07,-0.480
-9.100E-07,-0.360
-9.000E-07,-0.400
-8.900E-07,-0.220
-8.800E-07,-0.200
-8.700E-07,-0.320
-8.600E-07,-0.300
-8.500E-07,-0.120
-8.400E-07,0.000
-8.300E-07,0.280
-8.200E-07,0.420
-8.100E-07,0.640
-8.000E-07,0.740
-7.900E-07,0.760
-7.800E-07,0.840
-7.700E-07,0.920
-7.600E-07,0.880
-7.500E-07,0.420
-7.400E-07,0.360
-7.300E-07,0.420
-7.200E-07,0.280
-7.100E-07,1.180
-7.000E-07,0.760
-6.900E-07,0.900
-6.800E-07,0.840
-6.700E-07,-0.020
-6.600E-07,0.460
-6.500E-07,0.460
-6.400E-07,1.000
-6.300E-07,1.420
-6.200E-07,1.240
-6.100E-07,1.420
-6.000E-07,0.920
-5.900E-07,1.040
-5.800E-07,1.280
-5.700E-07,1.520
-5.600E-07,1.980
-5.500E-07,2.000
-5.400E-07,2.220
-5.300E-07,1.840
-5.200E-07,1.620
-5.100E-07,1.560
-5.000E-07,1.540
-4.900E-07,1.540
-4.800E-07,1.600
-4.700E-07,1.700
-4.600E-07,1.080
-4.500E-07,0.960
-4.400E-07,0.940
-4.300E-07,0.360
-4.200E-07,0.740
-4.100E-07,0.380
-4.000E-07,0.460
-3.900E-07,0.500
-3.800E-07,0.280
-3.700E-07,0.820
-3.600E-07,0.500
-3.500E-07,0.640
-3.400E-07,0.680
-3.300E-07,0.520
-3.200E-07,0.220
-3.100E-07,0.180
-3.000E-07,-0.100
-2.900E-07,-0.020
-2.800E-07,0.080
-2.700E-07,0.100
-2.600E-07,0.240
-2.500E-07,0.120
-2.400E-07,-0.020
-2.300E-07,0.060
-2.200E-07,-0.140
-2.100E-07,-0.120
-2.000E-07,-0.100
-1.900E-07,-0.140
-1.800E-07,-0.020
-1.700E-07,0.000
-1.600E-07,0.000
-1.500E-07,0.140
-1.400E-07,0.140
-1.300E-07,0.280
-1.200E-07,0.320
-1.100E-07,0.340
-1.000E-07,0.360
-9.000E-08,0.440
-8.000E-08,0.220
-7.000E-08,0.260
-6.000E-08,0.720
-5.000E-08,0.520
-4.000E-08,-0.180
-3.000E-08,-0.060
-2.000E-08,-1.000
-1.000E-08,-0.500
0.000E+00,-0.420
1.000E-08,0.860
2.000E-08,1.420
3.000E-08,1.920
4.000E-08,1.220
5.000E-08,0.620
6.000E-08,0.060
7.000E-08,0.120
8.000E-08,0.760
9.000E-08,1.380
1.000E-07,1.940
1.100E-07,1.460
1.200E-07,1.560
1.300E-07,0.980
1.400E-07,0.920
1.500E-07,1.080
1.600E-07,1.180
1.700E-07,1.460
1.800E-07,1.500
1.900E-07,1.180
2.000E-07,0.600
2.100E-07,-0.020
2.200E-07,-0.300
2.300E-07,-0.480
2.400E-07,-0.260
2.500E-07,0.040
2.600E-07,-0.120
2.700E-07,-0.120
2.800E-07,-0.200
2.900E-07,-0.460
3.000E-07,-0.500
3.100E-07,-0.480
3.200E-07,-0.520
3.300E-07,-0.220
3.400E-07,-0.020
3.500E-07,0.280
3.600E-07,0.280
3.700E-07,0.380
3.800E-07,0.180
3.900E-07,0.260
4.000E-07,0.260
4.100E-07,0.260
4.200E-07,0.280
4.300E-07,0.200
4.400E-07,-0.060
4.500E-07,-0.200
4.600E-07,-0.480
4.700E-07,-0.580
4.800E-07,-0.620
4.900E-07,-0.680
5.000E-07,-0.640
5.100E-07,-0.560
5.200E-07,-0.600
5.300E-07,-0.560
5.400E-07,-0.480
5.500E-07,-0.440
5.600E-07,-0.360
5.700E-07,-0.160
5.800E-07,-0.020
5.900E-07,0.000
6.000E-07,0.100
6.100E-07,-0.020
6.200E-07,-0.060
6.300E-07,-0.140
6.400E-07,-0.120
6.500E-07,-0.120
6.600E-07,-0.560
6.700E-07,-0.560
6.800E-07,-0.700
6.900E-07,-1.480
7.000E-07,-1.180
7.100E-07,-1.940
7.200E-07,-2.520
7.300E-07,-2.100
7.400E-07,-2.300
7.500E-07,-1.600
7.600E-07,-1.320
7.700E-07,-2.440
7.800E-07,-2.640
7.900E-07,-2.640
8.000E-07,-2.640
8.100E-07,-2.660
8.200E-07,-2.660
8.300E-07,-2.660
8.400E-07,-2.660
8.500E-07,-2.680
8.600E-07,-2.680
8.700E-07,-2.680
8.800E-07,-2.660
8.900E-07,-2.660
9.000E-07,-2.660
9.100E-07,-2.680
9.200E-07,-2.680
9.300E-07,-2.660
9.400E-07,-2.660
9.500E-07,-2.640
9.600E-07,-2.640
9.700E-07,-2.640
9.800E-07,-2.660
9.900E-07,-2.660
1.000E-06,-2.660
1.010E-06,-2.480
1.020E-06,-2.100
1.030E-06,-1.660
1.040E-06,-1.280
1.050E-06,-1.000
1.060E-06,-0.880
1.070E-06,-0.940
1.080E-06,-0.940
1.090E-06,-1.000
1.100E-06,-1.040
1.110E-06,-1.060
1.120E-06,-1.160
1.130E-06,-1.340
1.140E-06,-1.480
1.150E-06,-1.680
1.160E-06,-1.740
1.170E-06,-1.780
1.180E-06,-1.840
1.190E-06,-1.760
1.200E-06,-1.800
1.210E-06,-1.840
1.220E-06,-1.800
1.230E-06,-1.700
1.240E-06,-1.480
1.250E-06,-1.200
1.260E-06,-0.880
1.270E-06,-0.580
1.280E-06,-0.380
1.290E-06,-0.200
1.300E-06,-0.020
1.310E-06,0.080
1.320E-06,0.180
1.330E-06,0.360
1.340E-06,0.460
1.350E-06,0.500
1.360E-06,0.480
1.370E-06,0.340
1.380E-06,0.180
1.390E-06,0.060
1.400E-06,0.080
1.410E-06,0.020
1.420E-06,-0.020
1.430E-06,-0.060
1.440E-06,-0.320
1.450E-06,-0.240
1.460E-06,-0.240
1.470E-06,-0.040
1.480E-06,0.240
1.490E-06,0.380
1.500E-06,0.540
1.510E-06,0.580
1.520E-06,0.600
1.530E-06,0.700
1.540E-06,0.740
1.550E-06,0.900
1.560E-06,0.960
1.570E-06,0.960
1.580E-06,0.860
1.590E-06,0.660
1.600E-06,0.440
1.610E-06,0.220
1.620E-06,0.040
1.630E-06,-0.160
1.640E-06,-0.320
1.650E-06,-0.500
1.660E-06,-0.680
1.670E-06,-0.820
1.680E-06,-0.980
1.690E-06,-1.100
1.700E-06,-1.180
1.710E-06,-1.180
1.720E-06,-1.140
1.730E-06,-1.040
1.740E-06,-0.920
1.750E-06,-0.840
1.760E-06,-0.740
1.770E-06,-0.620
1.780E-06,-0.480
1.790E-06,-0.320
1.800E-06,-0.160
1.810E-06,-0.040
1.820E-06,0.100
1.830E-06,0.180
1.840E-06,0.200
1.850E-06,0.220
1.860E-06,0.260
1.870E-06,0.220
1.880E-06,0.240
1.890E-06,0.240
1.900E-06,0.180
1.910E-06,0.160
1.920E-06,0.080
1.930E-06,0.080
1.940E-06,0.080
1.950E-06,0.080
1.960E-06,0.120
1.970E-06,0.160
1.980E-06,0.200
1.990E-06,0.220
2.000E-06,0.220
2.010E-06,0.260
2.020E-06,0.200
2.030E-06,0.180
2.040E-06,0.180
2.050E-06,0.200
2.060E-06,0.180
2.070E-06,0.160
2.080E-06,0.140
2.090E-06,0.120
2.100E-06,0.100
2.110E-06,0.060
2.120E-06,0.060
2.130E-06,0.020
2.140E-06,0.040
2.150E-06,0.020
2.160E-06,-0.020
2.170E-06,-0.040
2.180E-06,-0.060
2.190E-06,-0.040
2.200E-06,0.000
2.210E-06,0.040
2.220E-06,0.080
2.230E-06,0.140
2.240E-06,0.180
2.250E-06,0.200
2.260E-06,0.220
2.270E-06,0.180
2.280E-06,0.200
2.290E-06,0.120
2.300E-06,0.060
2.310E-06,0.000
2.320E-06,-0.100
2.330E-06,-0.160
2.340E-06,-0.200
2.350E-06,-0.340
2.360E-06,-0.340
2.370E-06,-0.380
2.380E-06,-0.460
2.390E-06,-0.420
2.400E-06,-0.440
2.410E-06,-0.460
2.420E-06,-0.420
2.430E-06,-0.320
2.440E-06,-0.280
2.450E-06,-0.180
2.460E-06,-0.120
2.470E-06,-0.040
2.480E-06,-0.040
2.490E-06,-0.060
2.500E-06,-0.080
2.510E-06,-0.140
2.520E-06,-0.220
2.530E-06,-0.260
2.540E-06,-0.300
2.550E-06,-0.360
2.560E-06,-0.340
2.570E-06,-0.320
2.580E-06,-0.320
2.590E-06,-0.240
2.600E-06,-0.140
2.610E-06,-0.060
2.620E-06,-0.020
2.630E-06,0.100
2.640E-06,0.100
2.650E-06,0.140
2.660E-06,0.180
2.670E-06,0.160
2.680E-06,0.220
2.690E-06,0.200
2.700E-06,0.180
2.710E-06,0.200
2.720E-06,0.180
2.730E-06,0.140
2.740E-06,0.100
2.750E-06,0.020
2.760E-06,-0.020
2.770E-06,-0.020
2.780E-06,-0.080
2.790E-06,-0.080
2.800E-06,-0.140
2.810E-06,-0.220
2.820E-06,-0.280
2.830E-06,-0.300
2.840E-06,-0.340
2.850E-06,-0.300
2.860E-06,-0.280
2.870E-06,-0.300
2.880E-06,-0.260
2.890E-06,-0.220
2.900E-06,-0.220
2.910E-06,-0.160
2.920E-06,-0.120
2.930E-06,-0.060
2.940E-06,0.000
2.950E-06,0.060
2.960E-06,0.080
2.970E-06,0.100
2.980E-06,0.020
2.990E-06,0.120
3.000E-06,0.080
3.010E-06,0.120
3.020E-06,0.100
3.030E-06,0.140
3.040E-06,0.180
3.050E-06,0.100
3.060E-06,0.120
3.070E-06,0.100
3.080E-06,0.080
3.090E-06,0.120
3.100E-06,0.100
3.110E-06,0.100
3.120E-06,0.120
3.130E-06,0.080
3.140E-06,0.100
3.150E-06,0.080
3.160E-06,0.080
3.170E-06,0.060
3.180E-06,0.060
3.190E-06,0.080
3.200E-06,0.100
3.210E-06,0.060
3.220E-06,0.060
3.230E-06,0.060
3.240E-06,0.020
3.250E-06,0.020
3.260E-06,0.040
3.270E-06,0.060
3.280E-06,0.040
3.290E-06,0.020
3.300E-06,0.040
3.310E-06,0.060
3.320E-06,0.040
3.330E-06,0.040
3.340E-06,0.080
3.350E-06,0.040
3.360E-06,0.020
3.370E-06,0.000
3.380E-06,-0.040
3.390E-06,-0.040
3.400E-06,-0.080
3.410E-06,-0.100
3.420E-06,-0.160
3.430E-06,-0.220
3.440E-06,-0.280
3.450E-06,-0.300
3.460E-06,-0.260
3.470E-06,-0.260
3.480E-06,-0.200
3.490E-06,-0.180
3.500E-06,-0.160
3.510E-06,-0.140
3.520E-06,-0.100
3.530E-06,-0.020
3.540E-06,-0.020
3.550E-06,0.100
3.560E-06,0.140
3.570E-06,0.200
3.580E-06,0.260
3.590E-06,0.300
3.600E-06,0.340
3.610E-06,0.260
3.620E-06,0.220
3.630E-06,0.200
3.640E-06,0.100
3.650E-06,0.040
3.660E-06,-0.080
3.670E-06,-0.180
3.680E-06,-0.280
3.690E-06,-0.340
3.700E-06,-0.340
3.710E-06,-0.360
3.720E-06,-0.320
3.730E-06,-0.240
3.740E-06,-0.180
3.750E-06,-0.080
3.760E-06,-0.060
3.770E-06,0.000
3.780E-06,0.060
3.790E-06,0.100
3.800E-06,0.180
3.810E-06,0.240
3.820E-06,0.320
3.830E-06,0.360
3.840E-06,0.400
3.850E-06,0.400
3.860E-06,0.420
3.870E-06,0.420
3.880E-06,0.360
3.890E-06,0.340
3.900E-06,0.320
3.910E-06,0.320
3.920E-06,0.300
3.930E-06,0.320
3.940E-06,0.360
3.950E-06,0.440
3.960E-06,0.520
3.970E-06,0.580
3.980E-06,0.640
3.990E-06,0.680
4.000E-06,0.700
4.010E-06,0.680
4.020E-06,0.640
4.030E-06,0.600
4.040E-06,0.580
4.050E-06,0.600
4.060E-06,0.580
4.070E-06,0.640
4.080E-06,0.660
4.090E-06,0.740
4.100E-06,0.800
4.110E-06,0.880
4.120E-06,0.920
4.130E-06,0.920
4.140E-06,0.860
4.150E-06,0.780
4.160E-06,0.660
4.170E-06,0.500
4.180E-06,0.420
4.190E-06,0.340
4.200E-06,0.280
4.210E-06,0.240
4.220E-06,0.180
4.230E-06,0.140
4.240E-06,0.100
4.250E-06,0.040
4.260E-06,0.000
4.270E-06,-0.140
4.280E-06,-0.160
4.290E-06,-0.200
4.300E-06,-0.200
4.310E-06,-0.160
4.320E-06,-0.160
4.330E-06,-0.120
4.340E-06,-0.040
4.350E-06,0.000
4.360E-06,0.060
4.370E-06,0.160
4.380E-06,0.260
4.390E-06,0.420
4.400E-06,0.580
4.410E-06,0.800
4.420E-06,0.980
4.430E-06,1.140
4.440E-06,1.400
4.450E-06,1.660
4.460E-06,2.040
4.470E-06,2.440
4.480E-06,2.780
4.490E-06,2.780
4.500E-06,2.760
4.510E-06,2.780
4.520E-06,2.760
4.530E-06,2.740
4.540E-06,2.760
4.550E-06,2.780
4.560E-06,2.760
4.570E-06,2.780
4.580E-06,2.760
4.590E-06,2.760
4.600E-06,2.760
4.610E-06,2.780
4.620E-06,2.780
4.630E-06,2.760
4.640E-06,2.780
4.650E-06,2.760
4.660E-06,2.760
4.670E-06,2.760
4.680E-06,2.740
4.690E-06,2.760
4.700E-06,2.660
4.710E-06,2.420
4.720E-06,2.140
4.730E-06,1.940
4.740E-06,1.740
4.750E-06,1.600
4.760E-06,1.400
4.770E-06,1.220
4.780E-06,1.060
4.790E-06,0.900
4.800E-06,0.740
4.810E-06,0.640
4.820E-06,0.580
4.830E-06,0.520
4.840E-06,0.520
4.850E-06,0.580
4.860E-06,0.620
4.870E-06,0.700
4.880E-06,0.780
4.890E-06,0.900
4.900E-06,0.960
4.910E-06,1.000
4.920E-06,1.020
4.930E-06,1.000
4.940E-06,0.880
4.950E-06,0.840
4.960E-06,0.740
4.970E-06,0.660
4.980E-06,0.600
4.990E-06,0.520
5.000E-06,0.460
5.010E-06,0.440
5.020E-06,0.380
5.030E-06,0.320
5.040E-06,0.320
5.050E-06,0.300
5.060E-06,0.340
5.070E-06,0.340
5.080E-06,0.320
5.090E-06,0.320
5.100E-06,0.360
5.110E-06,0.380
5.120E-06,0.400
5.130E-06,0.420
5.140E-06,0.420
5.150E-06,0.420
5.160E-06,0.460
5.170E-06,0.480
5.180E-06,0.460
5.190E-06,0.440
5.200E-06,0.380
5.210E-06,0.360
5.220E-06,0.240
5.230E-06,0.180
5.240E-06,0.180
5.250E-06,0.220
5.260E-06,0.260
5.270E-06,0.340
5.280E-06,0.380
5.290E-06,0.400
5.300E-06,0.400
5.310E-06,0.360
5.320E-06,0.340
5.330E-06,0.340
5.340E-06,0.240
5.350E-06,0.220
5.360E-06,0.160
5.370E-06,0.120
5.380E-06,0.080
5.390E-06,0.060
5.400E-06,0.040
5.410E-06,0.040
5.420E-06,0.040
5.430E-06,0.040
5.440E-06,0.060
5.450E-06,0.120
5.460E-06,0.140
5.470E-06,0.140
5.480E-06,0.200
5.490E-06,0.220
5.500E-06,0.260
5.510E-06,0.280
5.520E-06,0.300
5.530E-06,0.340
5.540E-06,0.380
5.550E-06,0.420
5.560E-06,0.520
5.570E-06,0.580
5.580E-06,0.640
5.590E-06,0.720
5.600E-06,0.720
5.610E-06,0.800
5.620E-06,0.760
5.630E-06,0.760
5.640E-06,0.660
5.650E-06,0.580
5.660E-06,0.480
5.670E-06,0.380
5.680E-06,0.340
5.690E-06,0.240
5.700E-06,0.200
5.710E-06,0.180
5.720E-06,0.160
5.730E-06,0.200
5.740E-06,0.240
5.750E-06,0.340
5.760E-06,0.380
5.770E-06,0.340
5.780E-06,0.360
5.790E-06,0.380
5.800E-06,0.360
5.810E-06,0.360
5.820E-06,0.360
5.830E-06,0.340
5.840E-06,0.300
5.850E-06,0.280
5.860E-06,0.240
5.870E-06,0.220
5.880E-06,0.220
5.890E-06,0.240
5.900E-06,0.260
5.910E-06,0.300
5.920E-06,0.340
5.930E-06,0.400
5.940E-06,0.460
5.950E-06,0.500
5.960E-06,0.520
5.970E-06,0.500
5.980E-06,0.520
5.990E-06,0.520
6.000E-06,0.520
6.010E-06,0.520
6.020E-06,0.560
6.030E-06,0.520
6.040E-06,0.520
6.050E-06,0.520
6.060E-06,0.520
6.070E-06,0.500
6.080E-06,0.520
6.090E-06,0.480
6.100E-06,0.520
6.110E-06,0.440
6.120E-06,0.420
6.130E-06,0.420
6.140E-06,0.380
6.150E-06,0.340
6.160E-06,0.320
6.170E-06,0.280
6.180E-06,0.240
6.190E-06,0.220
6.200E-06,0.160
6.210E-06,0.180
6.220E-06,0.200
6.230E-06,0.220
6.240E-06,0.240
6.250E-06,0.220
6.260E-06,0.240
6.270E-06,0.240
6.280E-06,0.240
6.290E-06,0.260
6.300E-06,0.280
6.310E-06,0.260
6.320E-06,0.360
6.330E-06,0.340
6.340E-06,0.320
6.350E-06,0.340
6.360E-06,0.340
6.370E-06,0.380
6.380E-06,0.400
6.390E-06,0.420
6.400E-06,0.460
6.410E-06,0.420
6.420E-06,0.480
6.430E-06,0.440
6.440E-06,0.440
6.450E-06,0.440
6.460E-06,0.440
6.470E-06,0.420
6.480E-06,0.380
6.490E-06,0.420
6.500E-06,0.420
6.510E-06,0.420
6.520E-06,0.420
6.530E-06,0.360
6.540E-06,0.380
6.550E-06,0.400
6.560E-06,0.380
6.570E-06,0.400
6.580E-06,0.440
6.590E-06,0.420
6.600E-06,0.440
6.610E-06,0.460
6.620E-06,0.460
6.630E-06,0.460
6.640E-06,0.460
6.650E-06,0.420
6.660E-06,0.420
6.670E-06,0.420
6.680E-06,0.400
6.690E-06,0.420
6.700E-06,0.440
6.710E-06,0.440
6.720E-06,0.460
6.730E-06,0.480
6.740E-06,0.500
6.750E-06,0.520
6.760E-06,0.560
6.770E-06,0.580
6.780E-06,0.600
6.790E-06,0.560
6.800E-06,0.600
6.810E-06,0.560
6.820E-06,0.540
6.830E-06,0.560
6.840E-06,0.520
6.850E-06,0.520
6.860E-06,0.540
6.870E-06,0.580
6.880E-06,0.620
6.890E-06,0.660
6.900E-06,0.740
6.910E-06,0.720
6.920E-06,0.800
6.930E-06,0.840
6.940E-06,0.860
6.950E-06,0.900
6.960E-06,0.920
6.970E-06,0.920
6.980E-06,0.900
6.990E-06,0.900
7.000E-06,0.900
7.010E-06,0.900
7.020E-06,0.900
7.030E-06,0.880
7.040E-06,0.840
7.050E-06,0.840
7.060E-06,0.840
7.070E-06,0.820
7.080E-06,0.780
7.090E-06,0.780
7.100E-06,0.740
7.110E-06,0.700
7.120E-06,0.680
7.130E-06,0.680
7.140E-06,0.700
7.150E-06,0.660
7.160E-06,0.640
7.170E-06,0.660
7.180E-06,0.600
7.190E-06,0.600
7.200E-06,0.600
7.210E-06,0.560
7.220E-06,0.560
7.230E-06,0.500
7.240E-06,0.480
7.250E-06,0.460
7.260E-06,0.420
7.270E-06,0.420
7.280E-06,0.400
7.290E-06,0.360
7.300E-06,0.320
7.310E-06,0.340
7.320E-06,0.340
7.330E-06,0.280
7.340E-06,0.280
7.350E-06,0.280
7.360E-06,0.280
7.370E-06,0.260
7.380E-06,0.260
7.390E-06,0.220
7.400E-06,0.200
7.410E-06,0.180
7.420E-06,0.160
7.430E-06,0.140
7.440E-06,0.140
7.450E-06,0.140
7.460E-06,0.140
7.470E-06,0.140
7.480E-06,0.140
7.490E-06,0.120
7.500E-06,0.140
7.510E-06,0.160
7.520E-06,0.160
7.530E-06,0.180
7.540E-06,0.160
7.550E-06,0.160
7.560E-06,0.180
7.570E-06,0.160
7.580E-06,0.140
7.590E-06,0.160
7.600E-06,0.120
7.610E-06,0.140
7.620E-06,0.160
7.630E-06,0.100
7.640E-06,0.120
7.650E-06,0.140
7.660E-06,0.120
7.670E-06,0.120
7.680E-06,0.120
7.690E-06,0.120
7.700E-06,0.160
7.710E-06,0.120
7.720E-06,0.120
7.730E-06,0.160
7.740E-06,0.160
7.750E-06,0.160
7.760E-06,0.180
7.770E-06,0.180
7.780E-06,0.160
