mediciones/Mediciones filtradas (saque las feas)/6-10/0.8/WaveData564.csv

#timebase=2000000(ps)
,#voltbase=500000(mv/100)
#size=4000
-4.200E-06,0.060
-4.190E-06,0.080
-4.180E-06,0.040
-4.170E-06,0.060
-4.160E-06,0.040
-4.150E-06,0.040
-4.140E-06,0.060
-4.130E-06,0.060
-4.120E-06,0.060
-4.110E-06,0.040
-4.100E-06,0.060
-4.090E-06,0.080
-4.080E-06,0.040
-4.070E-06,0.040
-4.060E-06,0.060
-4.050E-06,0.040
-4.040E-06,0.040
-4.030E-06,0.080
-4.020E-06,0.060
-4.010E-06,0.060
-4.000E-06,0.040
-3.990E-06,0.040
-3.980E-06,0.060
-3.970E-06,0.060
-3.960E-06,0.080
-3.950E-06,0.060
-3.940E-06,0.080
-3.930E-06,0.060
-3.920E-06,0.020
-3.910E-06,0.040
-3.900E-06,0.040
-3.890E-06,0.060
-3.880E-06,0.260
-3.870E-06,0.700
-3.860E-06,1.580
-3.850E-06,2.480
-3.840E-06,2.740
-3.830E-06,2.700
-3.820E-06,1.760
-3.810E-06,0.420
-3.800E-06,-0.860
-3.790E-06,-1.820
-3.780E-06,-2.220
-3.770E-06,-2.540
-3.760E-06,-2.600
-3.750E-06,-2.660
-3.740E-06,-2.640
-3.730E-06,-2.280
-3.720E-06,-1.760
-3.710E-06,-1.020
-3.700E-06,-0.360
-3.690E-06,0.000
-3.680E-06,0.240
-3.670E-06,0.260
-3.660E-06,0.240
-3.650E-06,0.360
-3.640E-06,0.440
-3.630E-06,0.540
-3.620E-06,0.680
-3.610E-06,0.760
-3.600E-06,0.840
-3.590E-06,1.000
-3.580E-06,1.040
-3.570E-06,1.120
-3.560E-06,1.180
-3.550E-06,1.080
-3.540E-06,0.980
-3.530E-06,0.700
-3.520E-06,0.360
-3.510E-06,0.040
-3.500E-06,-0.240
-3.490E-06,-0.480
-3.480E-06,-0.600
-3.470E-06,-0.680
-3.460E-06,-0.580
-3.450E-06,-0.540
-3.440E-06,-0.320
-3.430E-06,-0.100
-3.420E-06,0.200
-3.410E-06,0.420
-3.400E-06,0.640
-3.390E-06,0.760
-3.380E-06,0.840
-3.370E-06,0.900
-3.360E-06,0.760
-3.350E-06,0.660
-3.340E-06,0.520
-3.330E-06,0.320
-3.320E-06,0.220
-3.310E-06,0.080
-3.300E-06,-0.100
-3.290E-06,-0.220
-3.280E-06,-0.360
-3.270E-06,-0.600
-3.260E-06,-0.780
-3.250E-06,-0.940
-3.240E-06,-1.080
-3.230E-06,-1.120
-3.220E-06,-1.100
-3.210E-06,-1.060
-3.200E-06,-0.980
-3.190E-06,-0.820
-3.180E-06,-0.680
-3.170E-06,-0.420
-3.160E-06,-0.180
-3.150E-06,0.080
-3.140E-06,0.340
-3.130E-06,0.500
-3.120E-06,0.680
-3.110E-06,0.800
-3.100E-06,0.860
-3.090E-06,0.900
-3.080E-06,0.840
-3.070E-06,0.740
-3.060E-06,0.640
-3.050E-06,0.440
-3.040E-06,0.300
-3.030E-06,0.160
-3.020E-06,0.080
-3.010E-06,0.040
-3.000E-06,0.000
-2.990E-06,-0.100
-2.980E-06,-0.160
-2.970E-06,-0.240
-2.960E-06,-0.320
-2.950E-06,-0.320
-2.940E-06,-0.320
-2.930E-06,-0.340
-2.920E-06,-0.300
-2.910E-06,-0.280
-2.900E-06,-0.180
-2.890E-06,-0.140
-2.880E-06,-0.020
-2.870E-06,0.140
-2.860E-06,0.220
-2.850E-06,0.320
-2.840E-06,0.360
-2.830E-06,0.380
-2.820E-06,0.420
-2.810E-06,0.420
-2.800E-06,0.420
-2.790E-06,0.380
-2.780E-06,0.280
-2.770E-06,0.240
-2.760E-06,0.140
-2.750E-06,0.100
-2.740E-06,0.040
-2.730E-06,0.000
-2.720E-06,-0.020
-2.710E-06,-0.060
-2.700E-06,-0.100
-2.690E-06,-0.160
-2.680E-06,-0.160
-2.670E-06,-0.180
-2.660E-06,-0.160
-2.650E-06,-0.140
-2.640E-06,-0.140
-2.630E-06,-0.080
-2.620E-06,-0.120
-2.610E-06,-0.100
-2.600E-06,-0.040
-2.590E-06,-0.060
-2.580E-06,0.000
-2.570E-06,0.020
-2.560E-06,0.060
-2.550E-06,0.100
-2.540E-06,0.080
-2.530E-06,0.120
-2.520E-06,0.160
-2.510E-06,0.160
-2.500E-06,0.220
-2.490E-06,0.240
-2.480E-06,0.340
-2.470E-06,0.340
-2.460E-06,0.260
-2.450E-06,0.220
-2.440E-06,0.140
-2.430E-06,0.160
-2.420E-06,0.100
-2.410E-06,0.180
-2.400E-06,0.160
-2.390E-06,0.040
-2.380E-06,0.020
-2.370E-06,-0.020
-2.360E-06,0.120
-2.350E-06,0.160
-2.340E-06,0.320
-2.330E-06,0.280
-2.320E-06,0.120
-2.310E-06,0.000
-2.300E-06,-0.140
-2.290E-06,-0.080
-2.280E-06,0.060
-2.270E-06,0.160
-2.260E-06,0.160
-2.250E-06,0.140
-2.240E-06,0.020
-2.230E-06,0.020
-2.220E-06,-0.040
-2.210E-06,0.080
-2.200E-06,0.180
-2.190E-06,0.180
-2.180E-06,0.280
-2.170E-06,0.240
-2.160E-06,0.180
-2.150E-06,0.100
-2.140E-06,0.020
-2.130E-06,0.000
-2.120E-06,0.040
-2.110E-06,0.040
-2.100E-06,0.100
-2.090E-06,0.080
-2.080E-06,0.000
-2.070E-06,0.000
-2.060E-06,-0.020
-2.050E-06,0.000
-2.040E-06,0.080
-2.030E-06,0.180
-2.020E-06,0.200
-2.010E-06,0.260
-2.000E-06,0.220
-1.990E-06,0.240
-1.980E-06,0.200
-1.970E-06,0.220
-1.960E-06,0.240
-1.950E-06,0.260
-1.940E-06,0.260
-1.930E-06,0.220
-1.920E-06,0.220
-1.910E-06,0.160
-1.900E-06,0.120
-1.890E-06,0.100
-1.880E-06,0.040
-1.870E-06,0.060
-1.860E-06,0.040
-1.850E-06,0.040
-1.840E-06,0.000
-1.830E-06,-0.060
-1.820E-06,-0.040
-1.810E-06,-0.080
-1.800E-06,-0.100
-1.790E-06,-0.060
-1.780E-06,0.000
-1.770E-06,0.000
-1.760E-06,0.000
-1.750E-06,0.060
-1.740E-06,0.000
-1.730E-06,0.040
-1.720E-06,0.080
-1.710E-06,0.120
-1.700E-06,0.160
-1.690E-06,0.160
-1.680E-06,0.180
-1.670E-06,0.180
-1.660E-06,0.180
-1.650E-06,0.160
-1.640E-06,0.180
-1.630E-06,0.180
-1.620E-06,0.180
-1.610E-06,0.120
-1.600E-06,0.040
-1.590E-06,-0.040
-1.580E-06,-0.260
-1.570E-06,-0.580
-1.560E-06,-0.760
-1.550E-06,-0.760
-1.540E-06,-0.600
-1.530E-06,-0.300
-1.520E-06,0.040
-1.510E-06,0.380
-1.500E-06,0.520
-1.490E-06,0.560
-1.480E-06,0.520
-1.470E-06,0.520
-1.460E-06,0.600
-1.450E-06,0.740
-1.440E-06,0.800
-1.430E-06,0.840
-1.420E-06,0.800
-1.410E-06,0.720
-1.400E-06,0.620
-1.390E-06,0.500
-1.380E-06,0.420
-1.370E-06,0.340
-1.360E-06,0.240
-1.350E-06,0.100
-1.340E-06,-0.020
-1.330E-06,-0.160
-1.320E-06,-0.240
-1.310E-06,-0.220
-1.300E-06,-0.220
-1.290E-06,-0.100
-1.280E-06,0.000
-1.270E-06,0.100
-1.260E-06,0.160
-1.250E-06,0.200
-1.240E-06,0.260
-1.230E-06,0.400
-1.220E-06,0.420
-1.210E-06,0.480
-1.200E-06,0.400
-1.190E-06,0.320
-1.180E-06,0.240
-1.170E-06,0.080
-1.160E-06,0.000
-1.150E-06,0.140
-1.140E-06,0.040
-1.130E-06,0.040
-1.120E-06,0.000
-1.110E-06,-0.300
-1.100E-06,-0.340
-1.090E-06,-0.420
-1.080E-06,-0.280
-1.070E-06,0.100
-1.060E-06,0.240
-1.050E-06,0.340
-1.040E-06,0.360
-1.030E-06,0.160
-1.020E-06,0.260
-1.010E-06,0.360
-1.000E-06,0.460
-9.900E-07,0.840
-9.800E-07,0.980
-9.700E-07,1.040
-9.600E-07,1.120
-9.500E-07,1.060
-9.400E-07,1.040
-9.300E-07,1.060
-9.200E-07,0.940
-9.100E-07,0.880
-9.000E-07,0.740
-8.900E-07,0.580
-8.800E-07,0.500
-8.700E-07,0.280
-8.600E-07,0.100
-8.500E-07,-0.080
-8.400E-07,-0.160
-8.300E-07,-0.200
-8.200E-07,-0.180
-8.100E-07,-0.160
-8.000E-07,-0.140
-7.900E-07,-0.120
-7.800E-07,-0.080
-7.700E-07,0.000
-7.600E-07,0.080
-7.500E-07,0.160
-7.400E-07,0.160
-7.300E-07,0.140
-7.200E-07,0.180
-7.100E-07,0.140
-7.000E-07,0.120
-6.900E-07,0.180
-6.800E-07,0.140
-6.700E-07,0.100
-6.600E-07,0.140
-6.500E-07,0.060
-6.400E-07,0.020
-6.300E-07,-0.120
-6.200E-07,-0.220
-6.100E-07,-0.240
-6.000E-07,-0.260
-5.900E-07,-0.200
-5.800E-07,-0.080
-5.700E-07,-0.040
-5.600E-07,0.020
-5.500E-07,0.080
-5.400E-07,0.080
-5.300E-07,0.120
-5.200E-07,0.220
-5.100E-07,0.180
-5.000E-07,0.340
-4.900E-07,0.420
-4.800E-07,0.460
-4.700E-07,0.560
-4.600E-07,0.460
-4.500E-07,0.420
-4.400E-07,0.380
-4.300E-07,0.220
-4.200E-07,0.260
-4.100E-07,0.260
-4.000E-07,0.420
-3.900E-07,0.500
-3.800E-07,0.500
-3.700E-07,0.500
-3.600E-07,0.400
-3.500E-07,0.360
-3.400E-07,0.260
-3.300E-07,0.300
-3.200E-07,0.400
-3.100E-07,0.420
-3.000E-07,0.480
-2.900E-07,0.520
-2.800E-07,0.560
-2.700E-07,0.580
-2.600E-07,0.560
-2.500E-07,0.540
-2.400E-07,0.500
-2.300E-07,0.440
-2.200E-07,0.420
-2.100E-07,0.460
-2.000E-07,0.380
-1.900E-07,0.480
-1.800E-07,0.420
-1.700E-07,0.360
-1.600E-07,0.400
-1.500E-07,0.320
-1.400E-07,0.320
-1.300E-07,0.320
-1.200E-07,0.340
-1.100E-07,0.420
-1.000E-07,0.500
-9.000E-08,0.460
-8.000E-08,0.520
-7.000E-08,0.380
-6.000E-08,0.640
-5.000E-08,0.520
-4.000E-08,0.000
-3.000E-08,0.020
-2.000E-08,-0.580
-1.000E-08,-0.340
0.000E+00,-0.340
1.000E-08,0.640
2.000E-08,1.380
3.000E-08,1.560
4.000E-08,1.700
5.000E-08,0.940
6.000E-08,0.560
7.000E-08,0.720
8.000E-08,0.640
9.000E-08,1.180
1.000E-07,1.540
1.100E-07,1.660
1.200E-07,1.680
1.300E-07,1.140
1.400E-07,0.980
1.500E-07,0.920
1.600E-07,0.860
1.700E-07,1.660
1.800E-07,1.680
1.900E-07,1.700
2.000E-07,1.220
2.100E-07,0.880
2.200E-07,0.680
2.300E-07,0.680
2.400E-07,1.060
2.500E-07,1.200
2.600E-07,1.380
2.700E-07,1.220
2.800E-07,1.140
2.900E-07,0.780
3.000E-07,0.620
3.100E-07,0.860
3.200E-07,0.940
3.300E-07,1.080
3.400E-07,1.260
3.500E-07,1.040
3.600E-07,0.960
3.700E-07,0.860
3.800E-07,0.680
3.900E-07,0.520
4.000E-07,0.800
4.100E-07,0.880
4.200E-07,0.940
4.300E-07,0.840
4.400E-07,0.420
4.500E-07,0.320
4.600E-07,0.340
4.700E-07,0.340
4.800E-07,0.520
4.900E-07,0.600
5.000E-07,0.560
5.100E-07,0.560
5.200E-07,0.540
5.300E-07,0.360
5.400E-07,0.500
5.500E-07,0.440
5.600E-07,0.540
5.700E-07,0.760
5.800E-07,1.000
5.900E-07,1.220
6.000E-07,0.820
6.100E-07,1.240
6.200E-07,1.120
6.300E-07,0.580
6.400E-07,1.460
6.500E-07,0.820
6.600E-07,1.520
6.700E-07,2.100
6.800E-07,1.580
6.900E-07,2.520
7.000E-07,1.320
7.100E-07,1.720
7.200E-07,1.100
7.300E-07,0.880
7.400E-07,2.760
7.500E-07,1.320
7.600E-07,2.460
7.700E-07,0.960
7.800E-07,-0.860
7.900E-07,2.540
8.000E-07,-0.320
8.100E-07,0.980
8.200E-07,1.620
8.300E-07,-0.200
8.400E-07,0.760
8.500E-07,0.280
8.600E-07,-0.300
8.700E-07,0.720
8.800E-07,0.380
8.900E-07,-0.120
9.000E-07,0.560
9.100E-07,-0.500
9.200E-07,0.000
9.300E-07,0.520
9.400E-07,0.320
9.500E-07,0.540
9.600E-07,0.740
9.700E-07,0.540
9.800E-07,0.600
9.900E-07,0.540
1.000E-06,0.100
1.010E-06,0.120
1.020E-06,-0.120
1.030E-06,-0.260
1.040E-06,-0.380
1.050E-06,-0.420
1.060E-06,-0.580
1.070E-06,-0.540
1.080E-06,-0.760
1.090E-06,-0.840
1.100E-06,-0.700
1.110E-06,-0.740
1.120E-06,-0.800
1.130E-06,-0.840
1.140E-06,-0.880
1.150E-06,-0.720
1.160E-06,-0.640
1.170E-06,-0.820
1.180E-06,-1.100
1.190E-06,-1.820
1.200E-06,-2.540
1.210E-06,-2.680
1.220E-06,-2.660
1.230E-06,-2.660
1.240E-06,-2.660
1.250E-06,-2.660
1.260E-06,-2.660
1.270E-06,-2.660
1.280E-06,-2.640
1.290E-06,-2.660
1.300E-06,-2.660
1.310E-06,-2.660
1.320E-06,-2.660
1.330E-06,-2.660
1.340E-06,-2.660
1.350E-06,-2.640
1.360E-06,-2.660
1.370E-06,-2.660
1.380E-06,-2.660
1.390E-06,-2.660
1.400E-06,-2.660
1.410E-06,-2.500
1.420E-06,-1.900
1.430E-06,-1.520
1.440E-06,-1.100
1.450E-06,-0.880
1.460E-06,-0.600
1.470E-06,-0.200
1.480E-06,-0.180
1.490E-06,0.320
1.500E-06,0.260
1.510E-06,0.400
1.520E-06,0.320
1.530E-06,0.420
1.540E-06,0.440
1.550E-06,0.540
1.560E-06,0.500
1.570E-06,0.500
1.580E-06,1.200
1.590E-06,0.580
1.600E-06,1.120
1.610E-06,1.260
1.620E-06,0.900
1.630E-06,1.520
1.640E-06,0.520
1.650E-06,1.000
1.660E-06,1.080
1.670E-06,0.660
1.680E-06,1.120
1.690E-06,0.440
1.700E-06,0.340
1.710E-06,0.140
1.720E-06,0.060
1.730E-06,0.560
1.740E-06,0.740
1.750E-06,0.940
1.760E-06,0.800
1.770E-06,0.600
1.780E-06,0.460
1.790E-06,0.320
1.800E-06,0.200
1.810E-06,0.140
1.820E-06,0.260
1.830E-06,0.240
1.840E-06,0.220
1.850E-06,0.160
1.860E-06,0.080
1.870E-06,-0.060
1.880E-06,-0.120
1.890E-06,-0.140
1.900E-06,-0.100
1.910E-06,-0.080
1.920E-06,-0.080
1.930E-06,-0.340
1.940E-06,-0.140
1.950E-06,-0.340
1.960E-06,-0.520
1.970E-06,-0.400
1.980E-06,-0.440
1.990E-06,-0.500
2.000E-06,-0.420
2.010E-06,-0.640
2.020E-06,-0.680
2.030E-06,-0.780
2.040E-06,-0.920
2.050E-06,-0.860
2.060E-06,-0.840
2.070E-06,-0.700
2.080E-06,-0.620
2.090E-06,-0.600
2.100E-06,-0.580
2.110E-06,-0.580
2.120E-06,-0.440
2.130E-06,-0.540
2.140E-06,-0.460
2.150E-06,-0.440
2.160E-06,-0.360
2.170E-06,-0.220
2.180E-06,-0.240
2.190E-06,-0.260
2.200E-06,-0.340
2.210E-06,-0.620
2.220E-06,-0.720
2.230E-06,-0.680
2.240E-06,-0.680
2.250E-06,-0.440
2.260E-06,-0.500
2.270E-06,-0.420
2.280E-06,-0.440
2.290E-06,-0.620
2.300E-06,-0.560
2.310E-06,-0.500
2.320E-06,-0.400
2.330E-06,-0.220
2.340E-06,-0.160
2.350E-06,-0.020
2.360E-06,0.040
2.370E-06,0.080
2.380E-06,0.120
2.390E-06,0.180
2.400E-06,0.120
2.410E-06,0.100
2.420E-06,0.020
2.430E-06,-0.060
2.440E-06,-0.260
2.450E-06,-0.440
2.460E-06,-0.640
2.470E-06,-0.820
2.480E-06,-0.940
2.490E-06,-1.060
2.500E-06,-1.180
2.510E-06,-1.360
2.520E-06,-1.460
2.530E-06,-1.520
2.540E-06,-1.580
2.550E-06,-1.600
2.560E-06,-1.600
2.570E-06,-1.540
2.580E-06,-1.480
2.590E-06,-1.360
2.600E-06,-1.180
2.610E-06,-1.080
2.620E-06,-0.940
2.630E-06,-0.800
2.640E-06,-0.640
2.650E-06,-0.480
2.660E-06,-0.360
2.670E-06,-0.200
2.680E-06,-0.080
2.690E-06,0.060
2.700E-06,0.080
2.710E-06,0.160
2.720E-06,0.200
2.730E-06,0.220
2.740E-06,0.200
2.750E-06,0.200
2.760E-06,0.180
2.770E-06,0.160
2.780E-06,0.100
2.790E-06,0.080
2.800E-06,0.020
2.810E-06,0.000
2.820E-06,-0.020
2.830E-06,-0.060
2.840E-06,-0.080
2.850E-06,-0.100
2.860E-06,-0.160
2.870E-06,-0.160
2.880E-06,-0.180
2.890E-06,-0.180
2.900E-06,-0.160
2.910E-06,-0.180
2.920E-06,-0.200
2.930E-06,-0.220
2.940E-06,-0.240
2.950E-06,-0.220
2.960E-06,-0.240
2.970E-06,-0.240
2.980E-06,-0.280
2.990E-06,-0.280
3.000E-06,-0.320
3.010E-06,-0.320
3.020E-06,-0.400
3.030E-06,-0.440
3.040E-06,-0.480
3.050E-06,-0.520
3.060E-06,-0.580
3.070E-06,-0.620
3.080E-06,-0.620
3.090E-06,-0.640
3.100E-06,-0.660
3.110E-06,-0.680
3.120E-06,-0.700
3.130E-06,-0.740
3.140E-06,-0.700
3.150E-06,-0.680
3.160E-06,-0.680
3.170E-06,-0.640
3.180E-06,-0.580
3.190E-06,-0.500
3.200E-06,-0.440
3.210E-06,-0.360
3.220E-06,-0.340
3.230E-06,-0.220
3.240E-06,-0.180
3.250E-06,-0.160
3.260E-06,-0.140
3.270E-06,-0.120
3.280E-06,-0.080
3.290E-06,-0.060
3.300E-06,-0.100
3.310E-06,-0.100
3.320E-06,-0.140
3.330E-06,-0.140
3.340E-06,-0.160
3.350E-06,-0.200
3.360E-06,-0.220
3.370E-06,-0.200
3.380E-06,-0.180
3.390E-06,-0.180
3.400E-06,-0.160
3.410E-06,-0.140
3.420E-06,-0.120
3.430E-06,-0.100
3.440E-06,-0.020
3.450E-06,-0.020
3.460E-06,0.020
3.470E-06,0.060
3.480E-06,0.060
3.490E-06,0.060
3.500E-06,0.040
3.510E-06,0.020
3.520E-06,0.000
3.530E-06,0.000
3.540E-06,-0.020
3.550E-06,-0.020
3.560E-06,-0.020
3.570E-06,0.000
3.580E-06,0.000
3.590E-06,-0.020
3.600E-06,0.000
3.610E-06,0.000
3.620E-06,0.020
3.630E-06,-0.020
3.640E-06,0.000
3.650E-06,0.100
3.660E-06,0.100
3.670E-06,0.140
3.680E-06,0.140
3.690E-06,0.120
3.700E-06,0.100
3.710E-06,0.060
3.720E-06,0.080
3.730E-06,0.100
3.740E-06,0.060
3.750E-06,0.080
3.760E-06,0.020
3.770E-06,-0.020
3.780E-06,0.000
3.790E-06,-0.020
3.800E-06,-0.020
3.810E-06,-0.080
3.820E-06,-0.140
3.830E-06,-0.120
3.840E-06,-0.220
3.850E-06,-0.260
3.860E-06,-0.300
3.870E-06,-0.360
3.880E-06,-0.320
3.890E-06,-0.440
3.900E-06,-0.420
3.910E-06,-0.460
3.920E-06,-0.500
3.930E-06,-0.480
3.940E-06,-0.500
3.950E-06,-0.480
3.960E-06,-0.440
3.970E-06,-0.420
3.980E-06,-0.360
3.990E-06,-0.340
4.000E-06,-0.320
4.010E-06,-0.280
4.020E-06,-0.200
4.030E-06,-0.220
4.040E-06,-0.160
4.050E-06,-0.140
4.060E-06,-0.100
4.070E-06,-0.040
4.080E-06,0.000
4.090E-06,0.100
4.100E-06,0.120
4.110E-06,0.120
4.120E-06,0.180
4.130E-06,0.160
4.140E-06,0.180
4.150E-06,0.180
4.160E-06,0.120
4.170E-06,0.140
4.180E-06,0.160
4.190E-06,0.180
4.200E-06,0.180
4.210E-06,0.240
4.220E-06,0.280
4.230E-06,0.280
4.240E-06,0.260
4.250E-06,0.260
4.260E-06,0.240
4.270E-06,0.140
4.280E-06,0.100
4.290E-06,0.040
4.300E-06,-0.040
4.310E-06,-0.060
4.320E-06,-0.100
4.330E-06,-0.120
4.340E-06,-0.120
4.350E-06,-0.180
4.360E-06,-0.220
4.370E-06,-0.280
4.380E-06,-0.340
4.390E-06,-0.380
4.400E-06,-0.460
4.410E-06,-0.420
4.420E-06,-0.380
4.430E-06,-0.320
4.440E-06,-0.260
4.450E-06,-0.160
4.460E-06,-0.120
4.470E-06,-0.080
4.480E-06,-0.060
4.490E-06,-0.040
4.500E-06,-0.100
4.510E-06,-0.080
4.520E-06,-0.060
4.530E-06,0.020
4.540E-06,0.080
4.550E-06,0.140
4.560E-06,0.260
4.570E-06,0.340
4.580E-06,0.420
4.590E-06,0.540
4.600E-06,0.620
4.610E-06,0.680
4.620E-06,0.680
4.630E-06,0.680
4.640E-06,0.680
4.650E-06,0.640
4.660E-06,0.600
4.670E-06,0.620
4.680E-06,0.620
4.690E-06,0.600
4.700E-06,0.640
4.710E-06,0.660
4.720E-06,0.740
4.730E-06,0.800
4.740E-06,0.860
4.750E-06,0.840
4.760E-06,0.840
4.770E-06,0.780
4.780E-06,0.760
4.790E-06,0.700
4.800E-06,0.560
4.810E-06,0.500
4.820E-06,0.460
4.830E-06,0.400
4.840E-06,0.360
4.850E-06,0.320
4.860E-06,0.200
4.870E-06,0.140
4.880E-06,0.020
4.890E-06,-0.140
4.900E-06,-0.260
4.910E-06,-0.380
4.920E-06,-0.480
4.930E-06,-0.520
4.940E-06,-0.500
4.950E-06,-0.460
4.960E-06,-0.460
4.970E-06,-0.340
4.980E-06,-0.300
4.990E-06,-0.220
5.000E-06,-0.120
5.010E-06,-0.040
5.020E-06,0.000
5.030E-06,0.040
5.040E-06,0.060
5.050E-06,0.060
5.060E-06,0.040
5.070E-06,0.020
5.080E-06,0.020
5.090E-06,-0.040
5.100E-06,-0.040
5.110E-06,-0.040
5.120E-06,-0.080
5.130E-06,-0.040
5.140E-06,-0.060
5.150E-06,-0.020
5.160E-06,-0.020
5.170E-06,0.020
5.180E-06,-0.020
5.190E-06,-0.060
5.200E-06,-0.080
5.210E-06,-0.120
5.220E-06,-0.120
5.230E-06,-0.160
5.240E-06,-0.120
5.250E-06,-0.100
5.260E-06,0.000
5.270E-06,0.060
5.280E-06,0.180
5.290E-06,0.280
5.300E-06,0.320
5.310E-06,0.340
5.320E-06,0.360
5.330E-06,0.360
5.340E-06,0.340
5.350E-06,0.360
5.360E-06,0.380
5.370E-06,0.400
5.380E-06,0.420
5.390E-06,0.460
5.400E-06,0.560
5.410E-06,0.620
5.420E-06,0.680
5.430E-06,0.780
5.440E-06,0.820
5.450E-06,0.780
5.460E-06,0.760
5.470E-06,0.760
5.480E-06,0.740
5.490E-06,0.700
5.500E-06,0.660
5.510E-06,0.680
5.520E-06,0.700
5.530E-06,0.680
5.540E-06,0.680
5.550E-06,0.680
5.560E-06,0.680
5.570E-06,0.700
5.580E-06,0.740
5.590E-06,0.700
5.600E-06,0.700
5.610E-06,0.720
5.620E-06,0.660
5.630E-06,0.620
5.640E-06,0.600
5.650E-06,0.520
5.660E-06,0.520
5.670E-06,0.440
5.680E-06,0.380
5.690E-06,0.340
5.700E-06,0.300
5.710E-06,0.240
5.720E-06,0.160
5.730E-06,0.120
5.740E-06,0.100
5.750E-06,0.100
5.760E-06,0.100
5.770E-06,0.120
5.780E-06,0.140
5.790E-06,0.120
5.800E-06,0.040
5.810E-06,0.020
5.820E-06,0.000
5.830E-06,-0.120
5.840E-06,-0.120
5.850E-06,-0.140
5.860E-06,-0.120
5.870E-06,-0.020
5.880E-06,0.000
5.890E-06,0.020
5.900E-06,0.080
5.910E-06,0.120
5.920E-06,0.120
5.930E-06,0.160
5.940E-06,0.200
5.950E-06,0.260
5.960E-06,0.300
5.970E-06,0.340
5.980E-06,0.420
5.990E-06,0.500
6.000E-06,0.560
6.010E-06,0.700
6.020E-06,0.860
6.030E-06,1.060
6.040E-06,1.360
6.050E-06,1.660
6.060E-06,2.020
6.070E-06,2.500
6.080E-06,2.780
6.090E-06,2.760
6.100E-06,2.760
6.110E-06,2.760
6.120E-06,2.760
6.130E-06,2.780
6.140E-06,2.780
6.150E-06,2.760
6.160E-06,2.760
6.170E-06,2.740
6.180E-06,2.760
6.190E-06,2.760
6.200E-06,2.740
6.210E-06,2.760
6.220E-06,2.760
6.230E-06,2.780
6.240E-06,2.760
6.250E-06,2.740
6.260E-06,2.760
6.270E-06,2.760
6.280E-06,2.780
6.290E-06,2.500
6.300E-06,2.140
6.310E-06,1.820
6.320E-06,1.560
6.330E-06,1.340
6.340E-06,1.180
6.350E-06,1.080
6.360E-06,1.020
6.370E-06,1.000
6.380E-06,0.980
6.390E-06,0.980
6.400E-06,0.980
6.410E-06,0.960
6.420E-06,0.940
6.430E-06,0.920
6.440E-06,0.920
6.450E-06,0.900
6.460E-06,0.900
6.470E-06,0.860
6.480E-06,0.880
6.490E-06,0.880
6.500E-06,0.860
6.510E-06,0.860
6.520E-06,0.860
6.530E-06,0.900
6.540E-06,0.840
6.550E-06,0.840
6.560E-06,0.800
6.570E-06,0.760
6.580E-06,0.720
6.590E-06,0.700
6.600E-06,0.640
6.610E-06,0.600
6.620E-06,0.580
6.630E-06,0.600
6.640E-06,0.580
6.650E-06,0.580
6.660E-06,0.540
6.670E-06,0.500
6.680E-06,0.520
6.690E-06,0.480
6.700E-06,0.420
6.710E-06,0.400
6.720E-06,0.360
6.730E-06,0.360
6.740E-06,0.340
6.750E-06,0.280
6.760E-06,0.260
6.770E-06,0.200
6.780E-06,0.180
6.790E-06,0.160
6.800E-06,0.140
6.810E-06,0.160
6.820E-06,0.180
6.830E-06,0.220
6.840E-06,0.260
6.850E-06,0.260
6.860E-06,0.320
6.870E-06,0.340
6.880E-06,0.340
6.890E-06,0.380
6.900E-06,0.360
6.910E-06,0.480
6.920E-06,0.320
6.930E-06,0.460
6.940E-06,0.460
6.950E-06,0.520
6.960E-06,0.460
6.970E-06,0.480
6.980E-06,0.460
6.990E-06,0.500
7.000E-06,0.400
7.010E-06,0.400
7.020E-06,0.360
7.030E-06,0.400
7.040E-06,0.300
7.050E-06,0.300
7.060E-06,0.260
7.070E-06,0.320
7.080E-06,0.280
7.090E-06,0.280
7.100E-06,0.240
7.110E-06,0.260
7.120E-06,0.280
7.130E-06,0.260
7.140E-06,0.300
7.150E-06,0.300
7.160E-06,0.320
7.170E-06,0.280
7.180E-06,0.280
7.190E-06,0.240
7.200E-06,0.240
7.210E-06,0.220
7.220E-06,0.200
7.230E-06,0.220
7.240E-06,0.220
7.250E-06,0.240
7.260E-06,0.240
7.270E-06,0.220
7.280E-06,0.260
7.290E-06,0.240
7.300E-06,0.280
7.310E-06,0.300
7.320E-06,0.300
7.330E-06,0.340
7.340E-06,0.340
7.350E-06,0.260
7.360E-06,0.280
7.370E-06,0.280
7.380E-06,0.280
7.390E-06,0.300
7.400E-06,0.300
7.410E-06,0.300
7.420E-06,0.360
7.430E-06,0.360
7.440E-06,0.380
7.450E-06,0.320
7.460E-06,0.360
7.470E-06,0.340
7.480E-06,0.340
7.490E-06,0.320
7.500E-06,0.320
7.510E-06,0.320
7.520E-06,0.320
7.530E-06,0.280
7.540E-06,0.260
7.550E-06,0.280
7.560E-06,0.260
7.570E-06,0.240
7.580E-06,0.200
7.590E-06,0.180
7.600E-06,0.120
7.610E-06,0.100
7.620E-06,0.080
7.630E-06,0.020
7.640E-06,0.000
7.650E-06,-0.040
7.660E-06,-0.060
7.670E-06,-0.060
7.680E-06,-0.040
7.690E-06,-0.040
7.700E-06,0.020
7.710E-06,0.020
7.720E-06,0.060
7.730E-06,0.020
7.740E-06,0.080
