mediciones/Mediciones filtradas (saque las feas)/6-10/0.8/WaveData565.csv

#timebase=2000000(ps)
,#voltbase=100000(mv/100)
#size=4000
-4.200E-06,0.004
-4.190E-06,0.016
-4.180E-06,0.020
-4.170E-06,0.012
-4.160E-06,0.016
-4.150E-06,0.008
-4.140E-06,0.004
-4.130E-06,0.012
-4.120E-06,0.012
-4.110E-06,0.020
-4.100E-06,0.016
-4.090E-06,0.024
-4.080E-06,0.012
-4.070E-06,0.016
-4.060E-06,0.024
-4.050E-06,0.012
-4.040E-06,0.000
-4.030E-06,0.000
-4.020E-06,0.012
-4.010E-06,0.028
-4.000E-06,0.008
-3.990E-06,-0.004
-3.980E-06,0.024
-3.970E-06,-0.008
-3.960E-06,-0.036
-3.950E-06,-0.072
-3.940E-06,-0.096
-3.930E-06,-0.044
-3.920E-06,0.024
-3.910E-06,0.052
-3.900E-06,0.024
-3.890E-06,0.020
-3.880E-06,-0.004
-3.870E-06,-0.036
-3.860E-06,-0.056
-3.850E-06,-0.020
-3.840E-06,0.012
-3.830E-06,0.028
-3.820E-06,0.032
-3.810E-06,0.016
-3.800E-06,-0.004
-3.790E-06,-0.028
-3.780E-06,-0.028
-3.770E-06,-0.020
-3.760E-06,0.008
-3.750E-06,0.036
-3.740E-06,0.044
-3.730E-06,0.032
-3.720E-06,0.000
-3.710E-06,-0.020
-3.700E-06,-0.028
-3.690E-06,-0.012
-3.680E-06,0.004
-3.670E-06,0.024
-3.660E-06,0.028
-3.650E-06,0.032
-3.640E-06,0.008
-3.630E-06,-0.008
-3.620E-06,-0.020
-3.610E-06,-0.008
-3.600E-06,0.008
-3.590E-06,0.024
-3.580E-06,0.036
-3.570E-06,0.048
-3.560E-06,0.044
-3.550E-06,0.024
-3.540E-06,0.024
-3.530E-06,0.028
-3.520E-06,0.024
-3.510E-06,0.016
-3.500E-06,0.000
-3.490E-06,-0.024
-3.480E-06,-0.024
-3.470E-06,-0.008
-3.460E-06,0.004
-3.450E-06,0.032
-3.440E-06,0.040
-3.430E-06,0.044
-3.420E-06,0.012
-3.410E-06,-0.020
-3.400E-06,-0.036
-3.390E-06,-0.036
-3.380E-06,-0.008
-3.370E-06,0.020
-3.360E-06,0.040
-3.350E-06,0.024
-3.340E-06,0.012
-3.330E-06,-0.004
-3.320E-06,-0.004
-3.310E-06,0.000
-3.300E-06,0.032
-3.290E-06,0.052
-3.280E-06,0.076
-3.270E-06,0.064
-3.260E-06,0.032
-3.250E-06,-0.008
-3.240E-06,-0.056
-3.230E-06,-0.064
-3.220E-06,-0.036
-3.210E-06,-0.008
-3.200E-06,0.036
-3.190E-06,0.040
-3.180E-06,0.040
-3.170E-06,0.024
-3.160E-06,0.000
-3.150E-06,0.000
-3.140E-06,0.028
-3.130E-06,0.072
-3.120E-06,0.088
-3.110E-06,0.092
-3.100E-06,0.060
-3.090E-06,0.032
-3.080E-06,-0.024
-3.070E-06,-0.048
-3.060E-06,-0.056
-3.050E-06,-0.064
-3.040E-06,-0.012
-3.030E-06,0.072
-3.020E-06,0.140
-3.010E-06,0.156
-3.000E-06,0.068
-2.990E-06,-0.052
-2.980E-06,-0.176
-2.970E-06,-0.192
-2.960E-06,-0.144
-2.950E-06,-0.056
-2.940E-06,0.024
-2.930E-06,0.092
-2.920E-06,0.068
-2.910E-06,0.012
-2.900E-06,-0.060
-2.890E-06,-0.084
-2.880E-06,-0.064
-2.870E-06,-0.016
-2.860E-06,0.040
-2.850E-06,0.064
-2.840E-06,0.060
-2.830E-06,0.040
-2.820E-06,0.008
-2.810E-06,-0.008
-2.800E-06,0.008
-2.790E-06,0.056
-2.780E-06,0.096
-2.770E-06,0.112
-2.760E-06,0.084
-2.750E-06,0.044
-2.740E-06,0.004
-2.730E-06,0.020
-2.720E-06,0.008
-2.710E-06,0.020
-2.700E-06,0.012
-2.690E-06,-0.024
-2.680E-06,-0.108
-2.670E-06,-0.188
-2.660E-06,-0.164
-2.650E-06,-0.132
-2.640E-06,0.000
-2.630E-06,0.068
-2.620E-06,0.088
-2.610E-06,0.052
-2.600E-06,-0.020
-2.590E-06,-0.072
-2.580E-06,-0.092
-2.570E-06,-0.064
-2.560E-06,-0.004
-2.550E-06,0.056
-2.540E-06,0.072
-2.530E-06,0.060
-2.520E-06,0.004
-2.510E-06,-0.040
-2.500E-06,-0.044
-2.490E-06,-0.028
-2.480E-06,0.004
-2.470E-06,0.032
-2.460E-06,0.044
-2.450E-06,0.040
-2.440E-06,0.028
-2.430E-06,0.032
-2.420E-06,0.040
-2.410E-06,0.064
-2.400E-06,0.080
-2.390E-06,0.076
-2.380E-06,0.056
-2.370E-06,0.016
-2.360E-06,-0.032
-2.350E-06,-0.084
-2.340E-06,-0.100
-2.330E-06,-0.072
-2.320E-06,0.048
-2.310E-06,0.060
-2.300E-06,0.060
-2.290E-06,0.020
-2.280E-06,-0.060
-2.270E-06,-0.084
-2.260E-06,-0.092
-2.250E-06,-0.044
-2.240E-06,0.040
-2.230E-06,0.092
-2.220E-06,0.108
-2.210E-06,0.076
-2.200E-06,0.008
-2.190E-06,-0.020
-2.180E-06,-0.020
-2.170E-06,0.016
-2.160E-06,0.080
-2.150E-06,0.128
-2.140E-06,0.140
-2.130E-06,0.120
-2.120E-06,0.060
-2.110E-06,0.000
-2.100E-06,-0.012
-2.090E-06,-0.012
-2.080E-06,0.040
-2.070E-06,0.080
-2.060E-06,0.112
-2.050E-06,0.076
-2.040E-06,0.044
-2.030E-06,-0.028
-2.020E-06,-0.044
-2.010E-06,-0.052
-2.000E-06,-0.044
-1.990E-06,-0.012
-1.980E-06,-0.008
-1.970E-06,-0.008
-1.960E-06,-0.012
-1.950E-06,0.004
-1.940E-06,-0.012
-1.930E-06,0.028
-1.920E-06,0.032
-1.910E-06,0.076
-1.900E-06,0.088
-1.890E-06,0.116
-1.880E-06,0.096
-1.870E-06,0.072
-1.860E-06,-0.164
-1.850E-06,-0.328
-1.840E-06,-0.380
-1.830E-06,-0.272
-1.820E-06,-0.020
-1.810E-06,0.120
-1.800E-06,0.268
-1.790E-06,0.248
-1.780E-06,0.120
-1.770E-06,-0.056
-1.760E-06,-0.168
-1.750E-06,-0.144
-1.740E-06,0.036
-1.730E-06,0.192
-1.720E-06,0.280
-1.710E-06,0.236
-1.700E-06,0.064
-1.690E-06,-0.136
-1.680E-06,-0.108
-1.670E-06,-0.212
-1.660E-06,-0.136
-1.650E-06,-0.168
-1.640E-06,-0.232
-1.630E-06,-0.208
-1.620E-06,-0.120
-1.610E-06,0.152
-1.600E-06,0.100
-1.590E-06,0.128
-1.580E-06,0.048
-1.570E-06,-0.056
-1.560E-06,-0.072
-1.550E-06,-0.052
-1.540E-06,0.064
-1.530E-06,0.120
-1.520E-06,0.164
-1.510E-06,0.176
-1.500E-06,0.020
-1.490E-06,-0.172
-1.480E-06,-0.264
-1.470E-06,-0.264
-1.460E-06,-0.024
-1.450E-06,0.132
-1.440E-06,0.232
-1.430E-06,0.196
-1.420E-06,0.068
-1.410E-06,-0.052
-1.400E-06,-0.100
-1.390E-06,-0.088
-1.380E-06,-0.064
-1.370E-06,0.060
-1.360E-06,0.088
-1.350E-06,0.036
-1.340E-06,-0.076
-1.330E-06,-0.036
-1.320E-06,-0.068
-1.310E-06,-0.036
-1.300E-06,0.008
-1.290E-06,0.052
-1.280E-06,0.112
-1.270E-06,0.044
-1.260E-06,0.008
-1.250E-06,-0.044
-1.240E-06,-0.008
-1.230E-06,0.064
-1.220E-06,0.136
-1.210E-06,0.168
-1.200E-06,0.160
-1.190E-06,0.100
-1.180E-06,-0.032
-1.170E-06,-0.152
-1.160E-06,-0.224
-1.150E-06,-0.148
-1.140E-06,-0.060
-1.130E-06,0.124
-1.120E-06,0.164
-1.110E-06,0.108
-1.100E-06,-0.056
-1.090E-06,-0.240
-1.080E-06,-0.220
-1.070E-06,-0.164
-1.060E-06,0.024
-1.050E-06,0.072
-1.040E-06,0.196
-1.030E-06,0.124
-1.020E-06,-0.004
-1.010E-06,-0.136
-1.000E-06,-0.160
-9.900E-07,-0.080
-9.800E-07,0.024
-9.700E-07,0.108
-9.600E-07,0.124
-9.500E-07,0.140
-9.400E-07,0.032
-9.300E-07,-0.016
-9.200E-07,-0.104
-9.100E-07,-0.048
-9.000E-07,0.024
-8.900E-07,0.124
-8.800E-07,0.168
-8.700E-07,0.164
-8.600E-07,0.140
-8.500E-07,0.064
-8.400E-07,0.060
-8.300E-07,0.024
-8.200E-07,0.048
-8.100E-07,0.004
-8.000E-07,0.028
-7.900E-07,-0.028
-7.800E-07,-0.104
-7.700E-07,-0.128
-7.600E-07,-0.072
-7.500E-07,-0.032
-7.400E-07,0.008
-7.300E-07,0.036
-7.200E-07,0.028
-7.100E-07,0.044
-7.000E-07,0.024
-6.900E-07,-0.020
-6.800E-07,-0.036
-6.700E-07,-0.032
-6.600E-07,0.024
-6.500E-07,0.028
-6.400E-07,0.052
-6.300E-07,0.128
-6.200E-07,0.068
-6.100E-07,0.060
-6.000E-07,0.000
-5.900E-07,-0.024
-5.800E-07,-0.076
-5.700E-07,-0.076
-5.600E-07,-0.016
-5.500E-07,0.016
-5.400E-07,0.036
-5.300E-07,0.040
-5.200E-07,0.020
-5.100E-07,0.008
-5.000E-07,0.032
-4.900E-07,0.080
-4.800E-07,0.124
-4.700E-07,0.160
-4.600E-07,0.180
-4.500E-07,0.156
-4.400E-07,0.092
-4.300E-07,0.020
-4.200E-07,-0.004
-4.100E-07,0.008
-4.000E-07,0.044
-3.900E-07,0.064
-3.800E-07,0.048
-3.700E-07,0.016
-3.600E-07,-0.024
-3.500E-07,-0.072
-3.400E-07,-0.060
-3.300E-07,-0.024
-3.200E-07,0.048
-3.100E-07,0.108
-3.000E-07,0.140
-2.900E-07,0.128
-2.800E-07,0.112
-2.700E-07,0.120
-2.600E-07,0.100
-2.500E-07,0.092
-2.400E-07,0.076
-2.300E-07,0.108
-2.200E-07,0.128
-2.100E-07,0.136
-2.000E-07,0.140
-1.900E-07,0.104
-1.800E-07,0.044
-1.700E-07,0.024
-1.600E-07,0.000
-1.500E-07,-0.056
-1.400E-07,-0.016
-1.300E-07,-0.104
-1.200E-07,-0.156
-1.100E-07,-0.140
-1.000E-07,-0.032
-9.000E-08,0.088
-8.000E-08,0.160
-7.000E-08,0.036
-6.000E-08,-0.408
-5.000E-08,-0.512
-4.000E-08,-0.512
-3.000E-08,-0.400
-2.000E-08,0.112
-1.000E-08,0.340
0.000E+00,0.432
1.000E-08,0.152
2.000E-08,-0.160
3.000E-08,-0.380
4.000E-08,-0.508
5.000E-08,-0.308
6.000E-08,0.040
7.000E-08,0.452
8.000E-08,0.516
9.000E-08,0.308
1.000E-07,-0.080
1.100E-07,-0.508
1.200E-07,-0.512
1.300E-07,-0.340
1.400E-07,0.100
1.500E-07,0.472
1.600E-07,0.440
1.700E-07,0.320
1.800E-07,0.092
1.900E-07,-0.228
2.000E-07,-0.368
2.100E-07,-0.208
2.200E-07,0.048
2.300E-07,0.328
2.400E-07,0.416
2.500E-07,0.236
2.600E-07,-0.008
2.700E-07,-0.248
2.800E-07,-0.316
2.900E-07,-0.196
3.000E-07,0.024
3.100E-07,0.232
3.200E-07,0.304
3.300E-07,0.216
3.400E-07,0.120
3.500E-07,-0.008
3.600E-07,-0.100
3.700E-07,-0.048
3.800E-07,0.096
3.900E-07,0.272
4.000E-07,0.368
4.100E-07,0.344
4.200E-07,0.232
4.300E-07,0.108
4.400E-07,0.032
4.500E-07,0.036
4.600E-07,0.112
4.700E-07,0.196
4.800E-07,0.276
4.900E-07,0.300
5.000E-07,0.256
5.100E-07,0.172
5.200E-07,0.092
5.300E-07,0.076
5.400E-07,0.096
5.500E-07,0.180
5.600E-07,0.252
5.700E-07,0.244
5.800E-07,0.160
5.900E-07,0.004
6.000E-07,-0.276
6.100E-07,-0.400
6.200E-07,-0.512
6.300E-07,-0.512
6.400E-07,-0.512
6.500E-07,-0.392
6.600E-07,-0.452
6.700E-07,-0.144
6.800E-07,-0.008
6.900E-07,0.176
7.000E-07,-0.172
7.100E-07,-0.080
7.200E-07,-0.104
7.300E-07,-0.056
7.400E-07,-0.036
7.500E-07,0.156
7.600E-07,0.228
7.700E-07,0.132
7.800E-07,0.004
7.900E-07,-0.108
8.000E-07,-0.072
8.100E-07,-0.052
8.200E-07,0.064
8.300E-07,0.148
8.400E-07,0.192
8.500E-07,0.104
8.600E-07,0.032
8.700E-07,-0.056
8.800E-07,0.008
8.900E-07,0.076
9.000E-07,0.164
9.100E-07,0.272
9.200E-07,0.280
9.300E-07,0.228
9.400E-07,0.152
9.500E-07,0.124
9.600E-07,0.088
9.700E-07,0.144
9.800E-07,0.192
9.900E-07,0.284
1.000E-06,0.300
1.010E-06,0.268
1.020E-06,0.200
1.030E-06,0.144
1.040E-06,0.136
1.050E-06,0.152
1.060E-06,0.208
1.070E-06,0.256
1.080E-06,0.272
1.090E-06,0.244
1.100E-06,0.196
1.110E-06,0.132
1.120E-06,0.108
1.130E-06,0.128
1.140E-06,0.180
1.150E-06,0.232
1.160E-06,0.268
1.170E-06,0.260
1.180E-06,0.212
1.190E-06,0.156
1.200E-06,0.124
1.210E-06,0.112
1.220E-06,0.132
1.230E-06,0.120
1.240E-06,0.092
1.250E-06,0.076
1.260E-06,-0.036
1.270E-06,-0.120
1.280E-06,-0.196
1.290E-06,-0.304
1.300E-06,-0.300
1.310E-06,-0.132
1.320E-06,0.080
1.330E-06,0.184
1.340E-06,0.248
1.350E-06,0.160
1.360E-06,0.092
1.370E-06,0.040
1.380E-06,0.048
1.390E-06,0.064
1.400E-06,0.144
1.410E-06,0.356
1.420E-06,0.392
1.430E-06,0.328
1.440E-06,0.168
1.450E-06,0.056
1.460E-06,0.016
1.470E-06,0.092
1.480E-06,0.208
1.490E-06,0.272
1.500E-06,0.324
1.510E-06,0.272
1.520E-06,0.212
1.530E-06,0.140
1.540E-06,0.112
1.550E-06,0.116
1.560E-06,0.188
1.570E-06,0.260
1.580E-06,0.300
1.590E-06,0.284
1.600E-06,0.228
1.610E-06,0.164
1.620E-06,0.136
1.630E-06,0.152
1.640E-06,0.184
1.650E-06,0.240
1.660E-06,0.260
1.670E-06,0.268
1.680E-06,0.232
1.690E-06,0.192
1.700E-06,0.160
1.710E-06,0.152
1.720E-06,0.192
1.730E-06,0.220
1.740E-06,0.252
1.750E-06,0.252
1.760E-06,0.232
1.770E-06,0.196
1.780E-06,0.176
1.790E-06,0.160
1.800E-06,0.172
1.810E-06,0.204
1.820E-06,0.228
1.830E-06,0.236
1.840E-06,0.224
1.850E-06,0.204
1.860E-06,0.184
1.870E-06,0.176
1.880E-06,0.180
1.890E-06,0.200
1.900E-06,0.220
1.910E-06,0.228
1.920E-06,0.220
1.930E-06,0.204
1.940E-06,0.192
1.950E-06,0.180
1.960E-06,0.184
1.970E-06,0.192
1.980E-06,0.208
1.990E-06,0.216
2.000E-06,0.224
2.010E-06,0.212
2.020E-06,0.192
2.030E-06,0.192
2.040E-06,0.188
2.050E-06,0.192
2.060E-06,0.204
2.070E-06,0.208
2.080E-06,0.216
2.090E-06,0.212
2.100E-06,0.196
2.110E-06,0.192
2.120E-06,0.180
2.130E-06,0.184
2.140E-06,0.192
2.150E-06,0.204
2.160E-06,0.208
2.170E-06,0.208
2.180E-06,0.200
2.190E-06,0.188
2.200E-06,0.184
2.210E-06,0.184
2.220E-06,0.196
2.230E-06,0.200
2.240E-06,0.204
2.250E-06,0.204
2.260E-06,0.196
2.270E-06,0.188
2.280E-06,0.184
2.290E-06,0.184
2.300E-06,0.188
2.310E-06,0.196
2.320E-06,0.196
2.330E-06,0.192
2.340E-06,0.196
2.350E-06,0.192
2.360E-06,0.184
2.370E-06,0.184
2.380E-06,0.192
2.390E-06,0.192
2.400E-06,0.192
2.410E-06,0.196
2.420E-06,0.192
2.430E-06,0.188
2.440E-06,0.184
2.450E-06,0.176
2.460E-06,0.176
2.470E-06,0.180
2.480E-06,0.184
2.490E-06,0.188
2.500E-06,0.188
2.510E-06,0.188
2.520E-06,0.188
2.530E-06,0.176
2.540E-06,0.180
2.550E-06,0.180
2.560E-06,0.184
2.570E-06,0.188
2.580E-06,0.184
2.590E-06,0.184
2.600E-06,0.180
2.610E-06,0.176
2.620E-06,0.176
2.630E-06,0.172
2.640E-06,0.172
2.650E-06,0.180
2.660E-06,0.180
2.670E-06,0.176
2.680E-06,0.172
2.690E-06,0.172
2.700E-06,0.172
2.710E-06,0.160
2.720E-06,0.164
2.730E-06,0.176
2.740E-06,0.176
2.750E-06,0.164
2.760E-06,0.168
2.770E-06,0.160
2.780E-06,0.164
2.790E-06,0.160
2.800E-06,0.160
2.810E-06,0.168
2.820E-06,0.176
2.830E-06,0.176
2.840E-06,0.168
2.850E-06,0.164
2.860E-06,0.168
2.870E-06,0.160
2.880E-06,0.164
2.890E-06,0.164
2.900E-06,0.168
2.910E-06,0.164
2.920E-06,0.164
2.930E-06,0.156
2.940E-06,0.156
2.950E-06,0.164
2.960E-06,0.160
2.970E-06,0.160
2.980E-06,0.160
2.990E-06,0.156
3.000E-06,0.164
3.010E-06,0.160
3.020E-06,0.160
3.030E-06,0.164
3.040E-06,0.164
3.050E-06,0.156
3.060E-06,0.156
3.070E-06,0.160
3.080E-06,0.160
3.090E-06,0.164
3.100E-06,0.164
3.110E-06,0.152
3.120E-06,0.160
3.130E-06,0.152
3.140E-06,0.156
3.150E-06,0.160
3.160E-06,0.160
3.170E-06,0.164
3.180E-06,0.164
3.190E-06,0.160
3.200E-06,0.152
3.210E-06,0.156
3.220E-06,0.152
3.230E-06,0.156
3.240E-06,0.152
3.250E-06,0.156
3.260E-06,0.152
3.270E-06,0.156
3.280E-06,0.156
3.290E-06,0.152
3.300E-06,0.152
3.310E-06,0.148
3.320E-06,0.148
3.330E-06,0.156
3.340E-06,0.156
3.350E-06,0.152
3.360E-06,0.152
3.370E-06,0.152
3.380E-06,0.152
3.390E-06,0.152
3.400E-06,0.148
3.410E-06,0.148
3.420E-06,0.148
3.430E-06,0.144
3.440E-06,0.144
3.450E-06,0.140
3.460E-06,0.144
3.470E-06,0.144
3.480E-06,0.144
3.490E-06,0.144
3.500E-06,0.140
3.510E-06,0.144
3.520E-06,0.136
3.530E-06,0.140
3.540E-06,0.140
3.550E-06,0.140
3.560E-06,0.136
3.570E-06,0.136
3.580E-06,0.140
3.590E-06,0.136
3.600E-06,0.136
3.610E-06,0.132
3.620E-06,0.136
3.630E-06,0.136
3.640E-06,0.136
3.650E-06,0.136
3.660E-06,0.136
3.670E-06,0.128
3.680E-06,0.132
3.690E-06,0.132
3.700E-06,0.128
3.710E-06,0.128
3.720E-06,0.128
3.730E-06,0.132
3.740E-06,0.128
3.750E-06,0.128
3.760E-06,0.128
3.770E-06,0.128
3.780E-06,0.128
3.790E-06,0.128
3.800E-06,0.128
3.810E-06,0.128
3.820E-06,0.132
3.830E-06,0.132
3.840E-06,0.128
3.850E-06,0.128
3.860E-06,0.128
3.870E-06,0.128
3.880E-06,0.128
3.890E-06,0.128
3.900E-06,0.128
3.910E-06,0.124
3.920E-06,0.124
3.930E-06,0.124
3.940E-06,0.120
3.950E-06,0.124
3.960E-06,0.124
3.970E-06,0.128
3.980E-06,0.128
3.990E-06,0.124
4.000E-06,0.120
4.010E-06,0.120
4.020E-06,0.120
4.030E-06,0.124
4.040E-06,0.124
4.050E-06,0.124
4.060E-06,0.124
4.070E-06,0.120
4.080E-06,0.116
4.090E-06,0.112
4.100E-06,0.112
4.110E-06,0.116
4.120E-06,0.124
4.130E-06,0.128
4.140E-06,0.120
4.150E-06,0.124
4.160E-06,0.120
4.170E-06,0.112
4.180E-06,0.116
4.190E-06,0.116
4.200E-06,0.112
4.210E-06,0.116
4.220E-06,0.112
4.230E-06,0.112
4.240E-06,0.104
4.250E-06,0.112
4.260E-06,0.108
4.270E-06,0.108
4.280E-06,0.112
4.290E-06,0.104
4.300E-06,0.112
4.310E-06,0.104
4.320E-06,0.108
4.330E-06,0.108
4.340E-06,0.104
4.350E-06,0.104
4.360E-06,0.104
4.370E-06,0.108
4.380E-06,0.104
4.390E-06,0.104
4.400E-06,0.104
4.410E-06,0.104
4.420E-06,0.100
4.430E-06,0.104
4.440E-06,0.104
4.450E-06,0.100
4.460E-06,0.096
4.470E-06,0.100
4.480E-06,0.096
4.490E-06,0.092
4.500E-06,0.096
4.510E-06,0.104
4.520E-06,0.104
4.530E-06,0.104
4.540E-06,0.100
4.550E-06,0.096
4.560E-06,0.092
4.570E-06,0.096
4.580E-06,0.100
4.590E-06,0.092
4.600E-06,0.100
4.610E-06,0.092
4.620E-06,0.092
4.630E-06,0.092
4.640E-06,0.088
4.650E-06,0.092
4.660E-06,0.092
4.670E-06,0.092
4.680E-06,0.092
4.690E-06,0.092
4.700E-06,0.092
4.710E-06,0.092
4.720E-06,0.088
4.730E-06,0.088
4.740E-06,0.088
4.750E-06,0.088
4.760E-06,0.084
4.770E-06,0.088
4.780E-06,0.088
4.790E-06,0.092
4.800E-06,0.088
4.810E-06,0.088
4.820E-06,0.092
4.830E-06,0.080
4.840E-06,0.088
4.850E-06,0.092
4.860E-06,0.088
4.870E-06,0.092
4.880E-06,0.088
4.890E-06,0.092
4.900E-06,0.088
4.910E-06,0.084
4.920E-06,0.080
4.930E-06,0.084
4.940E-06,0.084
4.950E-06,0.084
4.960E-06,0.084
4.970E-06,0.088
4.980E-06,0.088
4.990E-06,0.076
5.000E-06,0.080
5.010E-06,0.076
5.020E-06,0.084
5.030E-06,0.080
5.040E-06,0.076
5.050E-06,0.080
5.060E-06,0.076
5.070E-06,0.072
5.080E-06,0.072
5.090E-06,0.076
5.100E-06,0.072
5.110E-06,0.076
5.120E-06,0.072
5.130E-06,0.072
5.140E-06,0.072
5.150E-06,0.068
5.160E-06,0.076
5.170E-06,0.068
5.180E-06,0.072
5.190E-06,0.072
5.200E-06,0.064
5.210E-06,0.068
5.220E-06,0.072
5.230E-06,0.068
5.240E-06,0.064
5.250E-06,0.064
5.260E-06,0.064
5.270E-06,0.068
5.280E-06,0.064
5.290E-06,0.068
5.300E-06,0.068
5.310E-06,0.060
5.320E-06,0.060
5.330E-06,0.060
5.340E-06,0.060
5.350E-06,0.064
5.360E-06,0.064
5.370E-06,0.060
5.380E-06,0.064
5.390E-06,0.056
5.400E-06,0.064
5.410E-06,0.060
5.420E-06,0.060
5.430E-06,0.060
5.440E-06,0.060
5.450E-06,0.060
5.460E-06,0.056
5.470E-06,0.056
5.480E-06,0.052
5.490E-06,0.060
5.500E-06,0.060
5.510E-06,0.056
5.520E-06,0.052
5.530E-06,0.056
5.540E-06,0.056
5.550E-06,0.052
5.560E-06,0.048
5.570E-06,0.056
5.580E-06,0.056
5.590E-06,0.060
5.600E-06,0.060
5.610E-06,0.056
5.620E-06,0.052
5.630E-06,0.052
5.640E-06,0.052
5.650E-06,0.052
5.660E-06,0.056
5.670E-06,0.056
5.680E-06,0.060
5.690E-06,0.052
5.700E-06,0.052
5.710E-06,0.052
5.720E-06,0.044
5.730E-06,0.048
5.740E-06,0.052
5.750E-06,0.052
5.760E-06,0.052
5.770E-06,0.052
5.780E-06,0.048
5.790E-06,0.044
5.800E-06,0.044
5.810E-06,0.040
5.820E-06,0.048
5.830E-06,0.056
5.840E-06,0.048
5.850E-06,0.044
5.860E-06,0.044
5.870E-06,0.044
5.880E-06,0.040
5.890E-06,0.044
5.900E-06,0.048
5.910E-06,0.048
5.920E-06,0.044
5.930E-06,0.040
5.940E-06,0.044
5.950E-06,0.048
5.960E-06,0.044
5.970E-06,0.036
5.980E-06,0.040
5.990E-06,0.048
6.000E-06,0.040
6.010E-06,0.044
6.020E-06,0.044
6.030E-06,0.040
6.040E-06,0.040
6.050E-06,0.040
6.060E-06,0.044
6.070E-06,0.048
6.080E-06,0.040
6.090E-06,0.040
6.100E-06,0.040
6.110E-06,0.044
6.120E-06,0.044
6.130E-06,0.040
6.140E-06,0.040
6.150E-06,0.040
6.160E-06,0.044
6.170E-06,0.036
6.180E-06,0.040
6.190E-06,0.036
6.200E-06,0.036
6.210E-06,0.028
6.220E-06,0.036
6.230E-06,0.036
6.240E-06,0.036
6.250E-06,0.036
6.260E-06,0.036
6.270E-06,0.036
6.280E-06,0.024
6.290E-06,0.024
6.300E-06,0.028
6.310E-06,0.040
6.320E-06,0.036
6.330E-06,0.036
6.340E-06,0.032
6.350E-06,0.032
6.360E-06,0.020
6.370E-06,0.020
6.380E-06,0.028
6.390E-06,0.028
6.400E-06,0.040
6.410E-06,0.036
6.420E-06,0.032
6.430E-06,0.032
6.440E-06,0.028
6.450E-06,0.028
6.460E-06,0.032
6.470E-06,0.032
6.480E-06,0.032
6.490E-06,0.028
6.500E-06,0.024
6.510E-06,0.028
6.520E-06,0.024
6.530E-06,0.028
6.540E-06,0.024
6.550E-06,0.028
6.560E-06,0.032
6.570E-06,0.028
6.580E-06,0.032
6.590E-06,0.028
6.600E-06,0.028
6.610E-06,0.024
6.620E-06,0.024
6.630E-06,0.024
6.640E-06,0.028
6.650E-06,0.028
6.660E-06,0.028
6.670E-06,0.024
6.680E-06,0.024
6.690E-06,0.024
6.700E-06,0.028
6.710E-06,0.024
6.720E-06,0.028
6.730E-06,0.028
6.740E-06,0.028
6.750E-06,0.028
6.760E-06,0.024
6.770E-06,0.024
6.780E-06,0.024
6.790E-06,0.012
6.800E-06,0.012
6.810E-06,0.020
6.820E-06,0.024
6.830E-06,0.012
6.840E-06,0.012
6.850E-06,0.016
6.860E-06,0.008
6.870E-06,0.012
6.880E-06,0.012
6.890E-06,0.016
6.900E-06,0.016
6.910E-06,0.016
6.920E-06,0.012
6.930E-06,0.020
6.940E-06,0.016
6.950E-06,0.012
6.960E-06,0.016
6.970E-06,0.008
6.980E-06,0.008
6.990E-06,0.012
7.000E-06,0.016
7.010E-06,0.008
7.020E-06,0.012
7.030E-06,0.008
7.040E-06,0.008
7.050E-06,0.008
7.060E-06,0.012
7.070E-06,0.012
7.080E-06,0.012
7.090E-06,0.008
7.100E-06,0.004
7.110E-06,0.008
7.120E-06,0.012
7.130E-06,0.004
7.140E-06,0.008
7.150E-06,0.008
7.160E-06,0.008
7.170E-06,0.004
7.180E-06,0.004
7.190E-06,0.008
7.200E-06,0.008
7.210E-06,0.012
7.220E-06,0.004
7.230E-06,0.004
7.240E-06,0.008
7.250E-06,0.004
7.260E-06,0.004
7.270E-06,0.004
7.280E-06,0.004
7.290E-06,0.004
7.300E-06,0.008
7.310E-06,0.000
7.320E-06,0.004
7.330E-06,0.004
7.340E-06,0.004
7.350E-06,0.004
7.360E-06,0.004
7.370E-06,0.008
7.380E-06,0.004
7.390E-06,0.000
7.400E-06,-0.004
7.410E-06,0.004
7.420E-06,0.000
7.430E-06,0.004
7.440E-06,0.008
7.450E-06,0.000
7.460E-06,-0.004
7.470E-06,0.000
7.480E-06,-0.008
7.490E-06,-0.004
7.500E-06,0.000
7.510E-06,0.000
7.520E-06,0.000
7.530E-06,-0.004
7.540E-06,-0.004
7.550E-06,0.000
7.560E-06,-0.004
7.570E-06,0.000
7.580E-06,-0.008
7.590E-06,-0.008
7.600E-06,-0.008
7.610E-06,-0.004
7.620E-06,-0.004
7.630E-06,-0.004
7.640E-06,-0.008
7.650E-06,-0.004
7.660E-06,0.000
7.670E-06,-0.008
7.680E-06,-0.008
7.690E-06,-0.004
7.700E-06,-0.004
7.710E-06,-0.004
7.720E-06,-0.004
7.730E-06,0.000
7.740E-06,-0.004
7.750E-06,-0.004
7.760E-06,-0.004
7.770E-06,-0.004
7.780E-06,-0.008
7.790E-06,-0.008
7.800E-06,0.000
7.810E-06,0.000
7.820E-06,-0.008
7.830E-06,-0.004
7.840E-06,-0.008
