mediciones/6-26/35.0/WaveData5943.csv

#timebase=2000000(ps)
,#voltbase=500000(mv/100)
#size=4000
-8.150E-06,0.060
-8.140E-06,0.060
-8.130E-06,0.040
-8.120E-06,0.080
-8.110E-06,0.060
-8.100E-06,0.040
-8.090E-06,0.060
-8.080E-06,0.060
-8.070E-06,0.060
-8.060E-06,0.040
-8.050E-06,0.080
-8.040E-06,0.080
-8.030E-06,0.020
-8.020E-06,0.060
-8.010E-06,0.060
-8.000E-06,0.080
-7.990E-06,0.060
-7.980E-06,0.080
-7.970E-06,0.080
-7.960E-06,0.080
-7.950E-06,0.060
-7.940E-06,0.080
-7.930E-06,0.080
-7.920E-06,0.060
-7.910E-06,0.040
-7.900E-06,0.060
-7.890E-06,0.040
-7.880E-06,0.060
-7.870E-06,0.060
-7.860E-06,0.080
-7.850E-06,0.060
-7.840E-06,0.040
-7.830E-06,0.040
-7.820E-06,0.040
-7.810E-06,0.100
-7.800E-06,0.060
-7.790E-06,0.060
-7.780E-06,0.060
-7.770E-06,0.060
-7.760E-06,0.080
-7.750E-06,0.060
-7.740E-06,0.080
-7.730E-06,0.060
-7.720E-06,0.040
-7.710E-06,0.040
-7.700E-06,0.060
-7.690E-06,0.040
-7.680E-06,0.060
-7.670E-06,0.060
-7.660E-06,0.040
-7.650E-06,0.040
-7.640E-06,0.040
-7.630E-06,0.080
-7.620E-06,0.060
-7.610E-06,0.080
-7.600E-06,0.080
-7.590E-06,0.080
-7.580E-06,0.080
-7.570E-06,0.080
-7.560E-06,0.040
-7.550E-06,0.040
-7.540E-06,0.060
-7.530E-06,0.040
-7.520E-06,0.020
-7.510E-06,0.060
-7.500E-06,0.060
-7.490E-06,0.040
-7.480E-06,0.060
-7.470E-06,0.060
-7.460E-06,0.060
-7.450E-06,0.080
-7.440E-06,0.060
-7.430E-06,0.020
-7.420E-06,0.060
-7.410E-06,0.060
-7.400E-06,0.080
-7.390E-06,0.060
-7.380E-06,0.080
-7.370E-06,0.100
-7.360E-06,0.020
-7.350E-06,0.040
-7.340E-06,0.060
-7.330E-06,0.060
-7.320E-06,0.080
-7.310E-06,0.040
-7.300E-06,0.080
-7.290E-06,0.040
-7.280E-06,0.060
-7.270E-06,0.060
-7.260E-06,0.080
-7.250E-06,0.060
-7.240E-06,0.080
-7.230E-06,0.060
-7.220E-06,0.040
-7.210E-06,0.040
-7.200E-06,0.060
-7.190E-06,0.060
-7.180E-06,0.060
-7.170E-06,0.060
-7.160E-06,0.060
-7.150E-06,0.080
-7.140E-06,0.060
-7.130E-06,0.060
-7.120E-06,0.080
-7.110E-06,0.080
-7.100E-06,0.080
-7.090E-06,0.080
-7.080E-06,0.040
-7.070E-06,0.060
-7.060E-06,0.060
-7.050E-06,0.080
-7.040E-06,0.040
-7.030E-06,0.060
-7.020E-06,0.040
-7.010E-06,0.040
-7.000E-06,0.060
-6.990E-06,0.040
-6.980E-06,0.060
-6.970E-06,0.080
-6.960E-06,0.060
-6.950E-06,0.020
-6.940E-06,0.060
-6.930E-06,0.080
-6.920E-06,0.060
-6.910E-06,0.060
-6.900E-06,0.060
-6.890E-06,0.060
-6.880E-06,0.020
-6.870E-06,0.040
-6.860E-06,0.060
-6.850E-06,0.040
-6.840E-06,0.060
-6.830E-06,0.040
-6.820E-06,0.080
-6.810E-06,0.080
-6.800E-06,0.080
-6.790E-06,0.080
-6.780E-06,0.080
-6.770E-06,0.080
-6.760E-06,0.080
-6.750E-06,0.080
-6.740E-06,0.040
-6.730E-06,0.060
-6.720E-06,0.060
-6.710E-06,0.040
-6.700E-06,0.080
-6.690E-06,0.060
-6.680E-06,0.040
-6.670E-06,0.080
-6.660E-06,0.040
-6.650E-06,0.040
-6.640E-06,0.080
-6.630E-06,0.080
-6.620E-06,0.060
-6.610E-06,0.040
-6.600E-06,0.040
-6.590E-06,0.040
-6.580E-06,0.060
-6.570E-06,0.060
-6.560E-06,0.060
-6.550E-06,0.080
-6.540E-06,0.060
-6.530E-06,0.080
-6.520E-06,0.020
-6.510E-06,0.060
-6.500E-06,0.060
-6.490E-06,0.040
-6.480E-06,0.080
-6.470E-06,0.040
-6.460E-06,0.060
-6.450E-06,0.060
-6.440E-06,0.060
-6.430E-06,0.080
-6.420E-06,0.040
-6.410E-06,0.060
-6.400E-06,0.060
-6.390E-06,0.080
-6.380E-06,0.040
-6.370E-06,0.020
-6.360E-06,0.060
-6.350E-06,0.060
-6.340E-06,0.060
-6.330E-06,0.080
-6.320E-06,0.060
-6.310E-06,0.040
-6.300E-06,0.080
-6.290E-06,0.060
-6.280E-06,0.080
-6.270E-06,0.080
-6.260E-06,0.040
-6.250E-06,0.040
-6.240E-06,0.060
-6.230E-06,0.020
-6.220E-06,0.080
-6.210E-06,0.060
-6.200E-06,0.080
-6.190E-06,0.040
-6.180E-06,0.040
-6.170E-06,0.060
-6.160E-06,0.080
-6.150E-06,0.040
-6.140E-06,0.060
-6.130E-06,0.060
-6.120E-06,0.060
-6.110E-06,0.060
-6.100E-06,0.060
-6.090E-06,0.100
-6.080E-06,0.060
-6.070E-06,0.060
-6.060E-06,0.080
-6.050E-06,0.080
-6.040E-06,0.060
-6.030E-06,0.040
-6.020E-06,0.040
-6.010E-06,0.060
-6.000E-06,0.040
-5.990E-06,0.040
-5.980E-06,0.060
-5.970E-06,0.040
-5.960E-06,0.080
-5.950E-06,0.080
-5.940E-06,0.060
-5.930E-06,0.040
-5.920E-06,0.080
-5.910E-06,0.060
-5.900E-06,0.020
-5.890E-06,0.060
-5.880E-06,0.040
-5.870E-06,0.060
-5.860E-06,0.060
-5.850E-06,0.080
-5.840E-06,0.040
-5.830E-06,0.060
-5.820E-06,0.060
-5.810E-06,0.080
-5.800E-06,0.060
-5.790E-06,0.060
-5.780E-06,0.040
-5.770E-06,0.040
-5.760E-06,0.100
-5.750E-06,0.060
-5.740E-06,0.060
-5.730E-06,0.060
-5.720E-06,0.060
-5.710E-06,0.060
-5.700E-06,0.080
-5.690E-06,0.040
-5.680E-06,0.040
-5.670E-06,0.040
-5.660E-06,0.080
-5.650E-06,0.060
-5.640E-06,0.060
-5.630E-06,0.060
-5.620E-06,0.040
-5.610E-06,0.060
-5.600E-06,0.080
-5.590E-06,0.060
-5.580E-06,0.060
-5.570E-06,0.060
-5.560E-06,0.040
-5.550E-06,0.060
-5.540E-06,0.060
-5.530E-06,0.060
-5.520E-06,0.080
-5.510E-06,0.020
-5.500E-06,0.040
-5.490E-06,0.060
-5.480E-06,0.020
-5.470E-06,0.040
-5.460E-06,0.060
-5.450E-06,0.040
-5.440E-06,0.040
-5.430E-06,0.060
-5.420E-06,0.080
-5.410E-06,0.040
-5.400E-06,0.040
-5.390E-06,0.080
-5.380E-06,0.060
-5.370E-06,0.040
-5.360E-06,0.060
-5.350E-06,0.060
-5.340E-06,0.060
-5.330E-06,0.060
-5.320E-06,0.060
-5.310E-06,0.080
-5.300E-06,0.060
-5.290E-06,0.040
-5.280E-06,0.040
-5.270E-06,0.060
-5.260E-06,0.060
-5.250E-06,0.040
-5.240E-06,0.080
-5.230E-06,0.060
-5.220E-06,0.080
-5.210E-06,0.020
-5.200E-06,0.040
-5.190E-06,0.060
-5.180E-06,0.080
-5.170E-06,0.080
-5.160E-06,0.060
-5.150E-06,0.020
-5.140E-06,0.040
-5.130E-06,0.080
-5.120E-06,0.100
-5.110E-06,0.040
-5.100E-06,0.060
-5.090E-06,0.060
-5.080E-06,0.060
-5.070E-06,0.080
-5.060E-06,0.020
-5.050E-06,0.040
-5.040E-06,0.060
-5.030E-06,0.080
-5.020E-06,0.080
-5.010E-06,0.080
-5.000E-06,0.020
-4.990E-06,0.040
-4.980E-06,0.060
-4.970E-06,0.040
-4.960E-06,0.060
-4.950E-06,0.060
-4.940E-06,0.080
-4.930E-06,0.060
-4.920E-06,0.080
-4.910E-06,0.040
-4.900E-06,0.040
-4.890E-06,0.060
-4.880E-06,0.040
-4.870E-06,0.040
-4.860E-06,0.060
-4.850E-06,0.020
-4.840E-06,0.040
-4.830E-06,0.040
-4.820E-06,0.080
-4.810E-06,0.060
-4.800E-06,0.060
-4.790E-06,0.080
-4.780E-06,0.040
-4.770E-06,0.040
-4.760E-06,0.060
-4.750E-06,0.060
-4.740E-06,0.040
-4.730E-06,0.060
-4.720E-06,0.080
-4.710E-06,0.080
-4.700E-06,0.080
-4.690E-06,0.080
-4.680E-06,0.020
-4.670E-06,0.040
-4.660E-06,0.060
-4.650E-06,0.040
-4.640E-06,0.060
-4.630E-06,0.040
-4.620E-06,0.080
-4.610E-06,0.060
-4.600E-06,0.080
-4.590E-06,0.020
-4.580E-06,0.060
-4.570E-06,0.080
-4.560E-06,0.060
-4.550E-06,0.040
-4.540E-06,0.100
-4.530E-06,0.040
-4.520E-06,0.060
-4.510E-06,0.040
-4.500E-06,0.060
-4.490E-06,0.040
-4.480E-06,0.040
-4.470E-06,0.060
-4.460E-06,0.080
-4.450E-06,0.060
-4.440E-06,0.080
-4.430E-06,0.080
-4.420E-06,0.040
-4.410E-06,0.040
-4.400E-06,0.040
-4.390E-06,0.080
-4.380E-06,0.080
-4.370E-06,0.080
-4.360E-06,0.080
-4.350E-06,0.080
-4.340E-06,0.080
-4.330E-06,0.040
-4.320E-06,0.040
-4.310E-06,0.060
-4.300E-06,0.040
-4.290E-06,0.100
-4.280E-06,0.060
-4.270E-06,0.020
-4.260E-06,0.040
-4.250E-06,0.060
-4.240E-06,0.040
-4.230E-06,0.060
-4.220E-06,0.060
-4.210E-06,0.060
-4.200E-06,0.040
-4.190E-06,0.040
-4.180E-06,0.060
-4.170E-06,0.040
-4.160E-06,0.020
-4.150E-06,0.040
-4.140E-06,0.080
-4.130E-06,0.040
-4.120E-06,0.080
-4.110E-06,0.080
-4.100E-06,0.060
-4.090E-06,0.080
-4.080E-06,0.080
-4.070E-06,0.080
-4.060E-06,0.020
-4.050E-06,0.020
-4.040E-06,0.040
-4.030E-06,0.020
-4.020E-06,0.060
-4.010E-06,0.080
-4.000E-06,0.060
-3.990E-06,0.060
-3.980E-06,0.080
-3.970E-06,0.080
-3.960E-06,0.060
-3.950E-06,0.080
-3.940E-06,0.040
-3.930E-06,0.040
-3.920E-06,0.040
-3.910E-06,0.040
-3.900E-06,0.060
-3.890E-06,0.040
-3.880E-06,0.040
-3.870E-06,0.060
-3.860E-06,0.080
-3.850E-06,0.060
-3.840E-06,0.080
-3.830E-06,0.020
-3.820E-06,0.060
-3.810E-06,0.040
-3.800E-06,0.060
-3.790E-06,0.060
-3.780E-06,0.060
-3.770E-06,0.060
-3.760E-06,0.080
-3.750E-06,0.040
-3.740E-06,0.080
-3.730E-06,0.080
-3.720E-06,0.020
-3.710E-06,0.060
-3.700E-06,0.080
-3.690E-06,0.060
-3.680E-06,0.080
-3.670E-06,0.060
-3.660E-06,0.060
-3.650E-06,0.080
-3.640E-06,0.060
-3.630E-06,0.060
-3.620E-06,0.080
-3.610E-06,0.040
-3.600E-06,0.040
-3.590E-06,0.060
-3.580E-06,0.020
-3.570E-06,0.060
-3.560E-06,0.040
-3.550E-06,0.060
-3.540E-06,0.040
-3.530E-06,0.040
-3.520E-06,0.020
-3.510E-06,0.040
-3.500E-06,0.080
-3.490E-06,0.080
-3.480E-06,0.080
-3.470E-06,0.040
-3.460E-06,0.060
-3.450E-06,0.060
-3.440E-06,0.060
-3.430E-06,0.060
-3.420E-06,0.080
-3.410E-06,0.060
-3.400E-06,0.060
-3.390E-06,0.060
-3.380E-06,0.080
-3.370E-06,0.060
-3.360E-06,0.040
-3.350E-06,0.060
-3.340E-06,0.020
-3.330E-06,0.040
-3.320E-06,0.040
-3.310E-06,0.020
-3.300E-06,0.060
-3.290E-06,0.080
-3.280E-06,0.060
-3.270E-06,0.040
-3.260E-06,0.060
-3.250E-06,0.020
-3.240E-06,0.040
-3.230E-06,0.020
-3.220E-06,0.040
-3.210E-06,0.060
-3.200E-06,0.040
-3.190E-06,0.040
-3.180E-06,0.040
-3.170E-06,0.040
-3.160E-06,0.060
-3.150E-06,0.080
-3.140E-06,0.040
-3.130E-06,0.020
-3.120E-06,0.060
-3.110E-06,0.040
-3.100E-06,0.060
-3.090E-06,0.060
-3.080E-06,0.040
-3.070E-06,0.080
-3.060E-06,0.040
-3.050E-06,0.060
-3.040E-06,0.020
-3.030E-06,0.040
-3.020E-06,0.060
-3.010E-06,0.080
-3.000E-06,0.060
-2.990E-06,0.020
-2.980E-06,0.060
-2.970E-06,0.080
-2.960E-06,0.020
-2.950E-06,-0.020
-2.940E-06,0.060
-2.930E-06,0.320
-2.920E-06,0.880
-2.910E-06,1.600
-2.900E-06,2.380
-2.890E-06,2.440
-2.880E-06,1.900
-2.870E-06,0.840
-2.860E-06,-0.740
-2.850E-06,-1.380
-2.840E-06,-1.900
-2.830E-06,-1.840
-2.820E-06,-2.060
-2.810E-06,-2.340
-2.800E-06,-2.400
-2.790E-06,-2.280
-2.780E-06,-1.760
-2.770E-06,-1.080
-2.760E-06,-0.400
-2.750E-06,0.100
-2.740E-06,0.180
-2.730E-06,0.120
-2.720E-06,0.280
-2.710E-06,0.340
-2.700E-06,0.420
-2.690E-06,0.580
-2.680E-06,0.540
-2.670E-06,0.560
-2.660E-06,0.540
-2.650E-06,0.540
-2.640E-06,0.660
-2.630E-06,0.740
-2.620E-06,0.840
-2.610E-06,0.840
-2.600E-06,0.760
-2.590E-06,0.580
-2.580E-06,0.320
-2.570E-06,0.120
-2.560E-06,-0.080
-2.550E-06,-0.220
-2.540E-06,-0.260
-2.530E-06,-0.220
-2.520E-06,-0.200
-2.510E-06,-0.040
-2.500E-06,0.040
-2.490E-06,0.220
-2.480E-06,0.440
-2.470E-06,0.560
-2.460E-06,0.740
-2.450E-06,0.860
-2.440E-06,0.880
-2.430E-06,0.800
-2.420E-06,0.660
-2.410E-06,0.500
-2.400E-06,0.300
-2.390E-06,0.080
-2.380E-06,-0.120
-2.370E-06,-0.300
-2.360E-06,-0.500
-2.350E-06,-0.660
-2.340E-06,-0.840
-2.330E-06,-1.040
-2.320E-06,-1.180
-2.310E-06,-1.260
-2.300E-06,-1.280
-2.290E-06,-1.180
-2.280E-06,-0.980
-2.270E-06,-0.780
-2.260E-06,-0.540
-2.250E-06,-0.320
-2.240E-06,-0.060
-2.230E-06,0.180
-2.220E-06,0.420
-2.210E-06,0.580
-2.200E-06,0.740
-2.190E-06,0.760
-2.180E-06,0.720
-2.170E-06,0.660
-2.160E-06,0.600
-2.150E-06,0.500
-2.140E-06,0.380
-2.130E-06,0.340
-2.120E-06,0.200
-2.110E-06,0.140
-2.100E-06,0.120
-2.090E-06,0.080
-2.080E-06,0.040
-2.070E-06,0.000
-2.060E-06,-0.040
-2.050E-06,-0.060
-2.040E-06,-0.120
-2.030E-06,-0.180
-2.020E-06,-0.180
-2.010E-06,-0.180
-2.000E-06,-0.160
-1.990E-06,-0.120
-1.980E-06,-0.040
-1.970E-06,0.020
-1.960E-06,0.300
-1.950E-06,0.600
-1.940E-06,0.320
-1.930E-06,0.340
-1.920E-06,0.380
-1.910E-06,0.400
-1.900E-06,0.380
-1.890E-06,0.960
-1.880E-06,0.580
-1.870E-06,0.320
-1.860E-06,0.120
-1.850E-06,0.020
-1.840E-06,0.040
-1.830E-06,0.100
-1.820E-06,0.240
-1.810E-06,0.320
-1.800E-06,0.180
-1.790E-06,-0.080
-1.780E-06,0.020
-1.770E-06,-0.020
-1.760E-06,0.020
-1.750E-06,0.100
-1.740E-06,0.120
-1.730E-06,0.020
-1.720E-06,-0.040
-1.710E-06,-0.100
-1.700E-06,-0.160
-1.690E-06,-0.100
-1.680E-06,-0.100
-1.670E-06,-0.120
-1.660E-06,-0.040
-1.650E-06,-0.020
-1.640E-06,-0.060
-1.630E-06,0.000
-1.620E-06,0.060
-1.610E-06,0.060
-1.600E-06,0.060
-1.590E-06,0.080
-1.580E-06,0.080
-1.570E-06,0.100
-1.560E-06,0.120
-1.550E-06,0.220
-1.540E-06,0.180
-1.530E-06,0.120
-1.520E-06,0.120
-1.510E-06,0.100
-1.500E-06,0.160
-1.490E-06,0.180
-1.480E-06,0.280
-1.470E-06,0.300
-1.460E-06,0.260
-1.450E-06,0.200
-1.440E-06,0.240
-1.430E-06,0.280
-1.420E-06,0.340
-1.410E-06,0.400
-1.400E-06,0.440
-1.390E-06,0.440
-1.380E-06,0.360
-1.370E-06,0.380
-1.360E-06,0.340
-1.350E-06,0.360
-1.340E-06,0.400
-1.330E-06,0.500
-1.320E-06,0.020
-1.310E-06,-0.020
-1.300E-06,-0.040
-1.290E-06,0.020
-1.280E-06,0.480
-1.270E-06,0.760
-1.260E-06,0.580
-1.250E-06,0.320
-1.240E-06,-0.180
-1.230E-06,-0.320
-1.220E-06,-0.100
-1.210E-06,0.020
-1.200E-06,0.300
-1.190E-06,0.180
-1.180E-06,-0.080
-1.170E-06,-0.300
-1.160E-06,-0.440
-1.150E-06,-0.420
-1.140E-06,-0.200
-1.130E-06,-0.040
-1.120E-06,0.020
-1.110E-06,-0.200
-1.100E-06,-0.360
-1.090E-06,-0.400
-1.080E-06,-0.420
-1.070E-06,-0.180
-1.060E-06,0.140
-1.050E-06,0.100
-1.040E-06,0.080
-1.030E-06,-0.040
-1.020E-06,-0.100
-1.010E-06,0.000
-1.000E-06,-0.080
-9.900E-07,0.080
-9.800E-07,0.260
-9.700E-07,0.120
-9.600E-07,0.420
-9.500E-07,0.580
-9.400E-07,0.600
-9.300E-07,0.580
-9.200E-07,0.420
-9.100E-07,0.340
-9.000E-07,0.480
-8.900E-07,0.480
-8.800E-07,0.620
-8.700E-07,0.640
-8.600E-07,0.440
-8.500E-07,0.300
-8.400E-07,0.160
-8.300E-07,0.180
-8.200E-07,0.040
-8.100E-07,-0.040
-8.000E-07,-0.140
-7.900E-07,-0.220
-7.800E-07,-0.240
-7.700E-07,-0.180
-7.600E-07,-0.300
-7.500E-07,-0.520
-7.400E-07,-0.840
-7.300E-07,-1.060
-7.200E-07,-1.220
-7.100E-07,-1.360
-7.000E-07,-1.500
-6.900E-07,-1.680
-6.800E-07,-1.780
-6.700E-07,-1.680
-6.600E-07,-1.240
-6.500E-07,-0.500
-6.400E-07,0.300
-6.300E-07,0.960
-6.200E-07,1.300
-6.100E-07,1.340
-6.000E-07,1.020
-5.900E-07,0.680
-5.800E-07,0.600
-5.700E-07,0.820
-5.600E-07,1.140
-5.500E-07,1.440
-5.400E-07,1.520
-5.300E-07,1.180
-5.200E-07,0.860
-5.100E-07,0.540
-5.000E-07,0.440
-4.900E-07,0.400
-4.800E-07,0.360
-4.700E-07,0.380
-4.600E-07,0.520
-4.500E-07,0.560
-4.400E-07,0.500
-4.300E-07,0.420
-4.200E-07,0.220
-4.100E-07,0.260
-4.000E-07,0.260
-3.900E-07,0.380
-3.800E-07,0.440
-3.700E-07,0.420
-3.600E-07,0.360
-3.500E-07,0.300
-3.400E-07,0.260
-3.300E-07,0.140
-3.200E-07,0.160
-3.100E-07,0.240
-3.000E-07,0.260
-2.900E-07,0.260
-2.800E-07,0.120
-2.700E-07,0.100
-2.600E-07,-0.100
-2.500E-07,-0.060
-2.400E-07,-0.140
-2.300E-07,-0.220
-2.200E-07,-0.360
-2.100E-07,-0.420
-2.000E-07,-0.660
-1.900E-07,-0.700
-1.800E-07,-0.680
-1.700E-07,-0.720
-1.600E-07,-0.220
-1.500E-07,0.040
-1.400E-07,0.060
-1.300E-07,0.360
-1.200E-07,-0.360
-1.100E-07,-0.320
-1.000E-07,0.100
-9.000E-08,-0.160
-8.000E-08,0.540
-7.000E-08,1.320
-6.000E-08,1.480
-5.000E-08,2.260
-4.000E-08,2.520
-3.000E-08,2.160
-2.000E-08,2.080
-1.000E-08,1.680
0.000E+00,1.740
1.000E-08,1.980
2.000E-08,2.020
3.000E-08,1.960
4.000E-08,1.760
5.000E-08,1.420
6.000E-08,1.160
7.000E-08,1.020
8.000E-08,0.720
9.000E-08,0.420
1.000E-07,0.160
1.100E-07,-0.040
1.200E-07,-0.380
1.300E-07,-0.800
1.400E-07,-1.260
1.500E-07,-1.600
1.600E-07,-1.700
1.700E-07,-1.660
1.800E-07,-1.120
1.900E-07,-0.140
2.000E-07,0.400
2.100E-07,0.860
2.200E-07,1.080
2.300E-07,1.100
2.400E-07,1.440
2.500E-07,1.720
2.600E-07,2.060
2.700E-07,2.260
2.800E-07,2.200
2.900E-07,2.080
3.000E-07,1.860
3.100E-07,1.540
3.200E-07,1.240
3.300E-07,0.940
3.400E-07,0.760
3.500E-07,0.700
3.600E-07,0.620
3.700E-07,0.600
3.800E-07,0.520
3.900E-07,0.320
4.000E-07,0.120
4.100E-07,-0.080
4.200E-07,-0.180
4.300E-07,-0.200
4.400E-07,-0.220
4.500E-07,-0.240
4.600E-07,-0.180
4.700E-07,-0.240
4.800E-07,-0.240
4.900E-07,-0.120
5.000E-07,-0.100
5.100E-07,-0.060
5.200E-07,-0.140
5.300E-07,-0.340
5.400E-07,-0.780
5.500E-07,-1.180
5.600E-07,-1.160
5.700E-07,-0.820
5.800E-07,-0.140
5.900E-07,0.580
6.000E-07,1.000
6.100E-07,1.200
6.200E-07,0.840
6.300E-07,0.480
6.400E-07,0.220
6.500E-07,0.220
6.600E-07,0.500
6.700E-07,1.000
6.800E-07,1.340
6.900E-07,1.700
7.000E-07,1.940
7.100E-07,1.980
7.200E-07,2.000
7.300E-07,1.940
7.400E-07,1.800
7.500E-07,1.740
7.600E-07,1.600
7.700E-07,1.380
7.800E-07,1.160
7.900E-07,0.820
8.000E-07,0.460
8.100E-07,0.160
8.200E-07,-0.140
8.300E-07,-0.320
8.400E-07,-0.420
8.500E-07,-0.420
8.600E-07,-0.360
8.700E-07,-0.160
8.800E-07,0.020
8.900E-07,0.300
9.000E-07,0.440
9.100E-07,0.580
9.200E-07,0.680
9.300E-07,0.680
9.400E-07,0.660
9.500E-07,0.680
9.600E-07,0.540
9.700E-07,0.440
9.800E-07,0.300
9.900E-07,0.200
1.000E-06,0.080
1.010E-06,0.000
1.020E-06,-0.100
1.030E-06,-0.180
1.040E-06,-0.220
1.050E-06,-0.300
1.060E-06,-0.320
1.070E-06,-0.360
1.080E-06,-0.380
1.090E-06,-0.420
1.100E-06,-0.500
1.110E-06,-0.560
1.120E-06,-0.580
1.130E-06,-0.600
1.140E-06,-0.600
1.150E-06,-0.640
1.160E-06,-0.660
1.170E-06,-0.680
1.180E-06,-0.660
1.190E-06,-0.680
1.200E-06,-0.660
1.210E-06,-0.660
1.220E-06,-0.660
1.230E-06,-0.640
1.240E-06,-0.600
1.250E-06,-0.580
1.260E-06,-0.560
1.270E-06,-0.580
1.280E-06,-0.620
1.290E-06,-0.620
1.300E-06,-0.640
1.310E-06,-0.560
1.320E-06,-0.520
1.330E-06,-0.400
1.340E-06,-0.280
1.350E-06,-0.200
1.360E-06,-0.160
1.370E-06,-0.080
1.380E-06,-0.080
1.390E-06,-0.040
1.400E-06,0.020
1.410E-06,0.020
1.420E-06,0.020
1.430E-06,0.020
1.440E-06,-0.040
1.450E-06,-0.100
1.460E-06,-0.200
1.470E-06,-0.280
1.480E-06,-0.340
1.490E-06,-0.400
1.500E-06,-0.380
1.510E-06,-0.380
1.520E-06,-0.460
1.530E-06,-0.540
1.540E-06,-0.620
1.550E-06,-0.680
1.560E-06,-0.720
1.570E-06,-0.760
1.580E-06,-0.660
1.590E-06,-0.580
1.600E-06,-0.580
1.610E-06,-0.520
1.620E-06,-0.500
1.630E-06,-0.460
1.640E-06,-0.360
1.650E-06,-0.300
1.660E-06,-0.360
1.670E-06,-0.500
1.680E-06,-0.620
1.690E-06,-0.660
1.700E-06,-0.660
1.710E-06,-0.620
1.720E-06,-0.680
1.730E-06,-0.740
1.740E-06,-0.740
1.750E-06,-0.800
1.760E-06,-0.880
1.770E-06,-0.920
1.780E-06,-0.900
1.790E-06,-0.900
1.800E-06,-0.880
1.810E-06,-0.840
1.820E-06,-0.800
1.830E-06,-0.680
1.840E-06,-0.520
1.850E-06,-0.420
1.860E-06,-0.380
1.870E-06,-0.340
1.880E-06,-0.340
1.890E-06,-0.380
1.900E-06,-0.320
1.910E-06,-0.280
1.920E-06,-0.260
1.930E-06,-0.260
1.940E-06,-0.300
1.950E-06,-0.380
1.960E-06,-0.500
1.970E-06,-0.580
1.980E-06,-0.580
1.990E-06,-0.560
2.000E-06,-0.600
2.010E-06,-0.480
2.020E-06,-0.360
2.030E-06,-0.260
2.040E-06,-0.180
2.050E-06,-0.140
2.060E-06,-0.040
2.070E-06,0.020
2.080E-06,0.100
2.090E-06,0.100
2.100E-06,0.160
2.110E-06,0.100
2.120E-06,0.060
2.130E-06,-0.100
2.140E-06,-0.260
2.150E-06,-0.340
2.160E-06,-0.440
2.170E-06,-0.500
2.180E-06,-0.600
2.190E-06,-0.640
2.200E-06,-0.660
2.210E-06,-0.600
2.220E-06,-0.420
2.230E-06,-0.320
2.240E-06,-0.180
2.250E-06,-0.040
2.260E-06,0.020
2.270E-06,0.100
2.280E-06,0.180
2.290E-06,0.180
2.300E-06,0.180
2.310E-06,0.200
2.320E-06,0.140
2.330E-06,0.060
2.340E-06,-0.020
2.350E-06,-0.100
2.360E-06,-0.220
2.370E-06,-0.300
2.380E-06,-0.340
2.390E-06,-0.360
2.400E-06,-0.420
2.410E-06,-0.400
2.420E-06,-0.340
2.430E-06,-0.200
2.440E-06,-0.120
2.450E-06,-0.080
2.460E-06,-0.080
2.470E-06,-0.140
2.480E-06,-0.140
2.490E-06,-0.160
2.500E-06,-0.220
2.510E-06,-0.320
2.520E-06,-0.340
2.530E-06,-0.380
2.540E-06,-0.400
2.550E-06,-0.360
2.560E-06,-0.280
2.570E-06,-0.180
2.580E-06,-0.100
2.590E-06,-0.040
2.600E-06,-0.020
2.610E-06,0.040
2.620E-06,0.120
2.630E-06,0.040
2.640E-06,-0.100
2.650E-06,-0.240
2.660E-06,-0.380
2.670E-06,-0.420
2.680E-06,-0.440
2.690E-06,-0.320
2.700E-06,-0.280
2.710E-06,-0.180
2.720E-06,-0.040
2.730E-06,0.080
2.740E-06,0.180
2.750E-06,0.220
2.760E-06,0.260
2.770E-06,0.200
2.780E-06,0.140
2.790E-06,0.060
2.800E-06,-0.020
2.810E-06,-0.020
2.820E-06,-0.100
2.830E-06,-0.100
2.840E-06,-0.080
2.850E-06,-0.100
2.860E-06,-0.060
2.870E-06,-0.040
2.880E-06,0.000
2.890E-06,0.000
2.900E-06,0.020
2.910E-06,0.020
2.920E-06,-0.020
2.930E-06,-0.020
2.940E-06,-0.020
2.950E-06,0.000
2.960E-06,0.000
2.970E-06,0.040
2.980E-06,0.020
2.990E-06,0.080
3.000E-06,0.060
3.010E-06,0.040
3.020E-06,0.040
3.030E-06,0.000
3.040E-06,0.000
3.050E-06,-0.020
3.060E-06,0.000
3.070E-06,0.000
3.080E-06,0.000
3.090E-06,0.000
3.100E-06,0.020
3.110E-06,0.020
3.120E-06,0.060
3.130E-06,0.020
3.140E-06,0.060
3.150E-06,0.080
3.160E-06,0.100
3.170E-06,0.120
3.180E-06,0.100
3.190E-06,0.060
3.200E-06,0.060
3.210E-06,0.020
3.220E-06,-0.040
3.230E-06,-0.100
3.240E-06,-0.160
3.250E-06,-0.200
3.260E-06,-0.220
3.270E-06,-0.180
3.280E-06,-0.100
3.290E-06,0.000
3.300E-06,0.120
3.310E-06,0.200
3.320E-06,0.260
3.330E-06,0.260
3.340E-06,0.260
3.350E-06,0.200
3.360E-06,0.180
3.370E-06,0.080
3.380E-06,0.020
3.390E-06,-0.040
3.400E-06,-0.140
3.410E-06,-0.160
3.420E-06,-0.160
3.430E-06,-0.180
3.440E-06,-0.180
3.450E-06,-0.080
3.460E-06,-0.080
3.470E-06,-0.040
3.480E-06,-0.040
3.490E-06,-0.020
3.500E-06,0.040
3.510E-06,0.040
3.520E-06,0.040
3.530E-06,0.060
3.540E-06,0.040
3.550E-06,0.020
3.560E-06,0.040
3.570E-06,-0.020
3.580E-06,0.000
3.590E-06,-0.020
