mediciones/6-26/35.0/WaveData5945.csv

#timebase=2000000(ps)
,#voltbase=500000(mv/100)
#size=4000
-8.150E-06,0.040
-8.140E-06,0.060
-8.130E-06,0.040
-8.120E-06,0.040
-8.110E-06,0.020
-8.100E-06,0.040
-8.090E-06,0.060
-8.080E-06,0.060
-8.070E-06,0.080
-8.060E-06,0.080
-8.050E-06,0.080
-8.040E-06,0.080
-8.030E-06,0.020
-8.020E-06,0.040
-8.010E-06,0.060
-8.000E-06,0.040
-7.990E-06,0.020
-7.980E-06,0.060
-7.970E-06,0.100
-7.960E-06,0.060
-7.950E-06,0.040
-7.940E-06,0.040
-7.930E-06,0.060
-7.920E-06,0.080
-7.910E-06,0.060
-7.900E-06,0.080
-7.890E-06,0.020
-7.880E-06,0.060
-7.870E-06,0.060
-7.860E-06,0.040
-7.850E-06,0.060
-7.840E-06,0.060
-7.830E-06,0.080
-7.820E-06,0.080
-7.810E-06,0.080
-7.800E-06,0.080
-7.790E-06,0.080
-7.780E-06,0.040
-7.770E-06,0.060
-7.760E-06,0.060
-7.750E-06,0.060
-7.740E-06,0.040
-7.730E-06,0.040
-7.720E-06,0.060
-7.710E-06,0.080
-7.700E-06,0.060
-7.690E-06,0.040
-7.680E-06,0.060
-7.670E-06,0.080
-7.660E-06,0.060
-7.650E-06,0.040
-7.640E-06,0.040
-7.630E-06,0.060
-7.620E-06,0.060
-7.610E-06,0.040
-7.600E-06,0.060
-7.590E-06,0.040
-7.580E-06,0.060
-7.570E-06,0.080
-7.560E-06,0.040
-7.550E-06,0.060
-7.540E-06,0.060
-7.530E-06,0.060
-7.520E-06,0.060
-7.510E-06,0.080
-7.500E-06,0.060
-7.490E-06,0.080
-7.480E-06,0.040
-7.470E-06,0.040
-7.460E-06,0.040
-7.450E-06,0.040
-7.440E-06,0.040
-7.430E-06,0.060
-7.420E-06,0.080
-7.410E-06,0.040
-7.400E-06,0.040
-7.390E-06,0.080
-7.380E-06,0.040
-7.370E-06,0.060
-7.360E-06,0.080
-7.350E-06,0.060
-7.340E-06,0.020
-7.330E-06,0.060
-7.320E-06,0.040
-7.310E-06,0.060
-7.300E-06,0.060
-7.290E-06,0.060
-7.280E-06,0.080
-7.270E-06,0.020
-7.260E-06,0.040
-7.250E-06,0.060
-7.240E-06,0.080
-7.230E-06,0.080
-7.220E-06,0.080
-7.210E-06,0.020
-7.200E-06,0.020
-7.190E-06,0.060
-7.180E-06,0.040
-7.170E-06,0.080
-7.160E-06,0.060
-7.150E-06,0.040
-7.140E-06,0.020
-7.130E-06,0.040
-7.120E-06,0.040
-7.110E-06,0.020
-7.100E-06,0.060
-7.090E-06,0.040
-7.080E-06,0.060
-7.070E-06,0.060
-7.060E-06,0.080
-7.050E-06,0.060
-7.040E-06,0.020
-7.030E-06,0.020
-7.020E-06,0.040
-7.010E-06,0.060
-7.000E-06,0.060
-6.990E-06,0.060
-6.980E-06,0.060
-6.970E-06,0.080
-6.960E-06,0.060
-6.950E-06,0.040
-6.940E-06,0.040
-6.930E-06,0.080
-6.920E-06,0.040
-6.910E-06,0.080
-6.900E-06,0.040
-6.890E-06,0.060
-6.880E-06,0.040
-6.870E-06,0.060
-6.860E-06,0.040
-6.850E-06,0.080
-6.840E-06,0.080
-6.830E-06,0.040
-6.820E-06,0.060
-6.810E-06,0.040
-6.800E-06,0.080
-6.790E-06,0.060
-6.780E-06,0.060
-6.770E-06,0.060
-6.760E-06,0.060
-6.750E-06,0.040
-6.740E-06,0.060
-6.730E-06,0.080
-6.720E-06,0.060
-6.710E-06,0.020
-6.700E-06,0.060
-6.690E-06,0.040
-6.680E-06,0.080
-6.670E-06,0.040
-6.660E-06,0.080
-6.650E-06,0.040
-6.640E-06,0.020
-6.630E-06,0.040
-6.620E-06,0.020
-6.610E-06,0.040
-6.600E-06,0.040
-6.590E-06,0.080
-6.580E-06,0.060
-6.570E-06,0.080
-6.560E-06,0.080
-6.550E-06,0.080
-6.540E-06,0.040
-6.530E-06,0.040
-6.520E-06,0.040
-6.510E-06,0.020
-6.500E-06,0.040
-6.490E-06,0.020
-6.480E-06,0.060
-6.470E-06,0.080
-6.460E-06,0.080
-6.450E-06,0.080
-6.440E-06,0.080
-6.430E-06,0.060
-6.420E-06,0.040
-6.410E-06,0.040
-6.400E-06,0.060
-6.390E-06,0.060
-6.380E-06,0.060
-6.370E-06,0.080
-6.360E-06,0.060
-6.350E-06,0.040
-6.340E-06,0.060
-6.330E-06,0.100
-6.320E-06,0.080
-6.310E-06,0.080
-6.300E-06,0.040
-6.290E-06,0.060
-6.280E-06,0.080
-6.270E-06,0.040
-6.260E-06,0.060
-6.250E-06,0.060
-6.240E-06,0.060
-6.230E-06,0.040
-6.220E-06,0.040
-6.210E-06,0.040
-6.200E-06,0.060
-6.190E-06,0.100
-6.180E-06,0.040
-6.170E-06,0.080
-6.160E-06,0.020
-6.150E-06,0.040
-6.140E-06,0.040
-6.130E-06,0.040
-6.120E-06,0.040
-6.110E-06,0.040
-6.100E-06,0.060
-6.090E-06,0.080
-6.080E-06,0.080
-6.070E-06,0.060
-6.060E-06,0.040
-6.050E-06,0.060
-6.040E-06,0.060
-6.030E-06,0.100
-6.020E-06,0.080
-6.010E-06,0.060
-6.000E-06,0.060
-5.990E-06,0.080
-5.980E-06,0.080
-5.970E-06,0.040
-5.960E-06,0.060
-5.950E-06,0.060
-5.940E-06,0.100
-5.930E-06,0.060
-5.920E-06,0.080
-5.910E-06,0.060
-5.900E-06,0.040
-5.890E-06,0.040
-5.880E-06,0.060
-5.870E-06,0.080
-5.860E-06,0.060
-5.850E-06,0.080
-5.840E-06,0.080
-5.830E-06,0.080
-5.820E-06,0.040
-5.810E-06,0.040
-5.800E-06,0.080
-5.790E-06,0.060
-5.780E-06,0.060
-5.770E-06,0.080
-5.760E-06,0.060
-5.750E-06,0.060
-5.740E-06,0.040
-5.730E-06,0.080
-5.720E-06,0.060
-5.710E-06,0.080
-5.700E-06,0.080
-5.690E-06,0.080
-5.680E-06,0.080
-5.670E-06,0.040
-5.660E-06,0.040
-5.650E-06,0.060
-5.640E-06,0.040
-5.630E-06,0.080
-5.620E-06,0.060
-5.610E-06,0.060
-5.600E-06,0.060
-5.590E-06,0.080
-5.580E-06,0.060
-5.570E-06,0.040
-5.560E-06,0.040
-5.550E-06,0.060
-5.540E-06,0.040
-5.530E-06,0.040
-5.520E-06,0.100
-5.510E-06,0.040
-5.500E-06,0.060
-5.490E-06,0.040
-5.480E-06,0.060
-5.470E-06,0.040
-5.460E-06,0.040
-5.450E-06,0.060
-5.440E-06,0.040
-5.430E-06,0.040
-5.420E-06,0.040
-5.410E-06,0.080
-5.400E-06,0.060
-5.390E-06,0.080
-5.380E-06,0.080
-5.370E-06,0.080
-5.360E-06,0.080
-5.350E-06,0.080
-5.340E-06,0.020
-5.330E-06,0.060
-5.320E-06,0.060
-5.310E-06,0.060
-5.300E-06,0.060
-5.290E-06,0.040
-5.280E-06,0.040
-5.270E-06,0.080
-5.260E-06,0.060
-5.250E-06,0.040
-5.240E-06,0.060
-5.230E-06,0.060
-5.220E-06,0.060
-5.210E-06,0.080
-5.200E-06,0.040
-5.190E-06,0.020
-5.180E-06,0.060
-5.170E-06,0.060
-5.160E-06,0.060
-5.150E-06,0.060
-5.140E-06,0.040
-5.130E-06,0.040
-5.120E-06,0.040
-5.110E-06,0.060
-5.100E-06,0.060
-5.090E-06,0.060
-5.080E-06,0.040
-5.070E-06,0.060
-5.060E-06,0.060
-5.050E-06,0.080
-5.040E-06,0.040
-5.030E-06,0.060
-5.020E-06,0.080
-5.010E-06,0.060
-5.000E-06,0.040
-4.990E-06,0.040
-4.980E-06,0.040
-4.970E-06,0.080
-4.960E-06,0.080
-4.950E-06,0.060
-4.940E-06,0.060
-4.930E-06,0.020
-4.920E-06,0.060
-4.910E-06,0.060
-4.900E-06,0.060
-4.890E-06,0.080
-4.880E-06,0.060
-4.870E-06,0.040
-4.860E-06,0.060
-4.850E-06,0.040
-4.840E-06,0.040
-4.830E-06,0.060
-4.820E-06,0.100
-4.810E-06,0.040
-4.800E-06,0.060
-4.790E-06,0.060
-4.780E-06,0.060
-4.770E-06,0.060
-4.760E-06,0.080
-4.750E-06,0.040
-4.740E-06,0.080
-4.730E-06,0.060
-4.720E-06,0.020
-4.710E-06,0.020
-4.700E-06,0.060
-4.690E-06,0.040
-4.680E-06,0.060
-4.670E-06,0.080
-4.660E-06,0.080
-4.650E-06,0.040
-4.640E-06,0.040
-4.630E-06,0.060
-4.620E-06,0.080
-4.610E-06,0.060
-4.600E-06,0.080
-4.590E-06,0.080
-4.580E-06,0.080
-4.570E-06,0.060
-4.560E-06,0.040
-4.550E-06,0.060
-4.540E-06,0.080
-4.530E-06,0.060
-4.520E-06,0.080
-4.510E-06,0.080
-4.500E-06,0.040
-4.490E-06,0.080
-4.480E-06,0.060
-4.470E-06,0.080
-4.460E-06,0.040
-4.450E-06,0.040
-4.440E-06,0.060
-4.430E-06,0.060
-4.420E-06,0.040
-4.410E-06,0.020
-4.400E-06,0.060
-4.390E-06,0.020
-4.380E-06,0.060
-4.370E-06,0.080
-4.360E-06,0.060
-4.350E-06,0.080
-4.340E-06,0.080
-4.330E-06,0.080
-4.320E-06,0.080
-4.310E-06,0.080
-4.300E-06,0.080
-4.290E-06,0.080
-4.280E-06,0.020
-4.270E-06,0.040
-4.260E-06,0.060
-4.250E-06,0.060
-4.240E-06,0.080
-4.230E-06,0.060
-4.220E-06,0.080
-4.210E-06,0.040
-4.200E-06,0.060
-4.190E-06,0.040
-4.180E-06,0.060
-4.170E-06,0.060
-4.160E-06,0.060
-4.150E-06,0.060
-4.140E-06,0.040
-4.130E-06,0.080
-4.120E-06,0.060
-4.110E-06,0.080
-4.100E-06,0.020
-4.090E-06,0.060
-4.080E-06,0.060
-4.070E-06,0.060
-4.060E-06,0.060
-4.050E-06,0.080
-4.040E-06,0.080
-4.030E-06,0.060
-4.020E-06,0.080
-4.010E-06,0.020
-4.000E-06,0.060
-3.990E-06,0.060
-3.980E-06,0.040
-3.970E-06,0.060
-3.960E-06,0.060
-3.950E-06,0.060
-3.940E-06,0.060
-3.930E-06,0.040
-3.920E-06,0.040
-3.910E-06,0.060
-3.900E-06,0.040
-3.890E-06,0.060
-3.880E-06,0.060
-3.870E-06,0.060
-3.860E-06,0.060
-3.850E-06,0.060
-3.840E-06,0.040
-3.830E-06,0.060
-3.820E-06,0.080
-3.810E-06,0.080
-3.800E-06,0.040
-3.790E-06,0.060
-3.780E-06,0.060
-3.770E-06,0.040
-3.760E-06,0.000
-3.750E-06,0.000
-3.740E-06,0.060
-3.730E-06,0.180
-3.720E-06,0.540
-3.710E-06,1.140
-3.700E-06,1.740
-3.690E-06,2.140
-3.680E-06,2.040
-3.670E-06,1.360
-3.660E-06,0.320
-3.650E-06,-0.760
-3.640E-06,-1.600
-3.630E-06,-1.980
-3.620E-06,-2.120
-3.610E-06,-2.120
-3.600E-06,-2.080
-3.590E-06,-1.880
-3.580E-06,-2.000
-3.570E-06,-1.780
-3.560E-06,-1.340
-3.550E-06,-0.380
-3.540E-06,-0.160
-3.530E-06,0.820
-3.520E-06,0.900
-3.510E-06,0.540
-3.500E-06,0.380
-3.490E-06,0.280
-3.480E-06,0.400
-3.470E-06,0.720
-3.460E-06,0.860
-3.450E-06,0.840
-3.440E-06,0.720
-3.430E-06,0.420
-3.420E-06,0.340
-3.410E-06,0.400
-3.400E-06,0.500
-3.390E-06,0.640
-3.380E-06,0.500
-3.370E-06,0.380
-3.360E-06,0.080
-3.350E-06,-0.120
-3.340E-06,-0.160
-3.330E-06,-0.140
-3.320E-06,0.000
-3.310E-06,0.080
-3.300E-06,0.160
-3.290E-06,0.180
-3.280E-06,0.220
-3.270E-06,0.360
-3.260E-06,0.520
-3.250E-06,0.720
-3.240E-06,0.820
-3.230E-06,0.860
-3.220E-06,0.720
-3.210E-06,0.580
-3.200E-06,0.340
-3.190E-06,0.180
-3.180E-06,-0.040
-3.170E-06,-0.220
-3.160E-06,-0.400
-3.150E-06,-0.640
-3.140E-06,-0.860
-3.130E-06,-1.020
-3.120E-06,-1.180
-3.110E-06,-1.280
-3.100E-06,-1.300
-3.090E-06,-1.180
-3.080E-06,-1.000
-3.070E-06,-0.780
-3.060E-06,-0.520
-3.050E-06,-0.220
-3.040E-06,0.020
-3.030E-06,0.240
-3.020E-06,0.420
-3.010E-06,0.580
-3.000E-06,0.720
-2.990E-06,0.780
-2.980E-06,0.800
-2.970E-06,0.740
-2.960E-06,0.620
-2.950E-06,0.520
-2.940E-06,0.340
-2.930E-06,0.280
-2.920E-06,0.180
-2.910E-06,0.060
-2.900E-06,0.020
-2.890E-06,0.000
-2.880E-06,-0.020
-2.870E-06,-0.080
-2.860E-06,-0.100
-2.850E-06,-0.080
-2.840E-06,-0.140
-2.830E-06,-0.180
-2.820E-06,-0.180
-2.810E-06,-0.180
-2.800E-06,-0.180
-2.790E-06,-0.140
-2.780E-06,-0.020
-2.770E-06,0.000
-2.760E-06,0.080
-2.750E-06,0.120
-2.740E-06,0.220
-2.730E-06,0.280
-2.720E-06,0.300
-2.710E-06,0.320
-2.700E-06,0.220
-2.690E-06,0.180
-2.680E-06,0.160
-2.670E-06,0.140
-2.660E-06,0.160
-2.650E-06,0.140
-2.640E-06,0.080
-2.630E-06,-0.040
-2.620E-06,-0.140
-2.610E-06,-0.140
-2.600E-06,-0.020
-2.590E-06,0.000
-2.580E-06,0.080
-2.570E-06,0.120
-2.560E-06,0.120
-2.550E-06,0.040
-2.540E-06,-0.020
-2.530E-06,0.000
-2.520E-06,0.040
-2.510E-06,0.080
-2.500E-06,0.080
-2.490E-06,0.080
-2.480E-06,0.000
-2.470E-06,-0.020
-2.460E-06,-0.020
-2.450E-06,-0.040
-2.440E-06,-0.020
-2.430E-06,0.040
-2.420E-06,0.080
-2.410E-06,0.080
-2.400E-06,0.060
-2.390E-06,0.060
-2.380E-06,0.080
-2.370E-06,0.080
-2.360E-06,0.060
-2.350E-06,0.080
-2.340E-06,0.080
-2.330E-06,0.060
-2.320E-06,0.020
-2.310E-06,-0.020
-2.300E-06,0.000
-2.290E-06,0.000
-2.280E-06,0.000
-2.270E-06,0.040
-2.260E-06,0.080
-2.250E-06,0.080
-2.240E-06,0.080
-2.230E-06,0.120
-2.220E-06,0.160
-2.210E-06,0.120
-2.200E-06,0.160
-2.190E-06,0.180
-2.180E-06,0.160
-2.170E-06,0.160
-2.160E-06,0.160
-2.150E-06,0.140
-2.140E-06,0.120
-2.130E-06,0.120
-2.120E-06,0.120
-2.110E-06,0.180
-2.100E-06,0.160
-2.090E-06,0.120
-2.080E-06,0.060
-2.070E-06,0.080
-2.060E-06,0.080
-2.050E-06,0.040
-2.040E-06,0.020
-2.030E-06,0.000
-2.020E-06,0.000
-2.010E-06,-0.020
-2.000E-06,-0.060
-1.990E-06,0.000
-1.980E-06,0.000
-1.970E-06,0.040
-1.960E-06,0.060
-1.950E-06,0.100
-1.940E-06,0.140
-1.930E-06,0.160
-1.920E-06,0.180
-1.910E-06,0.180
-1.900E-06,0.200
-1.890E-06,0.240
-1.880E-06,0.240
-1.870E-06,0.260
-1.860E-06,0.260
-1.850E-06,0.260
-1.840E-06,0.220
-1.830E-06,0.320
-1.820E-06,0.220
-1.810E-06,0.180
-1.800E-06,0.120
-1.790E-06,0.020
-1.780E-06,0.020
-1.770E-06,-0.020
-1.760E-06,0.020
-1.750E-06,0.100
-1.740E-06,0.060
-1.730E-06,0.040
-1.720E-06,0.020
-1.710E-06,-0.040
-1.700E-06,-0.040
-1.690E-06,-0.040
-1.680E-06,0.040
-1.670E-06,0.040
-1.660E-06,0.100
-1.650E-06,0.040
-1.640E-06,0.060
-1.630E-06,-0.020
-1.620E-06,0.080
-1.610E-06,0.220
-1.600E-06,0.140
-1.590E-06,0.200
-1.580E-06,0.180
-1.570E-06,0.140
-1.560E-06,0.240
-1.550E-06,0.240
-1.540E-06,0.200
-1.530E-06,-0.040
-1.520E-06,-0.320
-1.510E-06,-0.420
-1.500E-06,-0.420
-1.490E-06,-0.260
-1.480E-06,-0.020
-1.470E-06,0.240
-1.460E-06,0.340
-1.450E-06,0.340
-1.440E-06,0.320
-1.430E-06,0.300
-1.420E-06,0.360
-1.410E-06,0.460
-1.400E-06,0.560
-1.390E-06,0.560
-1.380E-06,0.540
-1.370E-06,0.420
-1.360E-06,0.340
-1.350E-06,0.220
-1.340E-06,0.160
-1.330E-06,0.080
-1.320E-06,-0.020
-1.310E-06,-0.040
-1.300E-06,-0.080
-1.290E-06,-0.120
-1.280E-06,-0.160
-1.270E-06,-0.200
-1.260E-06,-0.200
-1.250E-06,-0.200
-1.240E-06,-0.180
-1.230E-06,-0.040
-1.220E-06,0.100
-1.210E-06,0.200
-1.200E-06,0.260
-1.190E-06,0.260
-1.180E-06,0.260
-1.170E-06,0.320
-1.160E-06,0.360
-1.150E-06,0.520
-1.140E-06,0.660
-1.130E-06,0.740
-1.120E-06,0.740
-1.110E-06,0.660
-1.100E-06,0.560
-1.090E-06,0.480
-1.080E-06,0.500
-1.070E-06,0.580
-1.060E-06,0.600
-1.050E-06,0.520
-1.040E-06,0.380
-1.030E-06,0.280
-1.020E-06,0.220
-1.010E-06,0.220
-1.000E-06,0.420
-9.900E-07,0.640
-9.800E-07,0.900
-9.700E-07,0.900
-9.600E-07,0.100
-9.500E-07,0.540
-9.400E-07,0.220
-9.300E-07,1.240
-9.200E-07,1.920
-9.100E-07,1.840
-9.000E-07,1.560
-8.900E-07,0.780
-8.800E-07,-0.080
-8.700E-07,0.040
-8.600E-07,0.300
-8.500E-07,0.500
-8.400E-07,0.640
-8.300E-07,0.240
-8.200E-07,-0.180
-8.100E-07,-0.440
-8.000E-07,-0.820
-7.900E-07,-0.720
-7.800E-07,-0.640
-7.700E-07,-1.280
-7.600E-07,-1.660
-7.500E-07,-1.820
-7.400E-07,-1.240
-7.300E-07,-0.080
-7.200E-07,0.860
-7.100E-07,1.100
-7.000E-07,0.760
-6.900E-07,0.080
-6.800E-07,-0.300
-6.700E-07,-0.340
-6.600E-07,0.040
-6.500E-07,0.600
-6.400E-07,0.920
-6.300E-07,0.800
-6.200E-07,0.480
-6.100E-07,0.040
-6.000E-07,-0.160
-5.900E-07,-0.240
-5.800E-07,-0.100
-5.700E-07,-0.060
-5.600E-07,-0.060
-5.500E-07,-0.020
-5.400E-07,0.000
-5.300E-07,0.100
-5.200E-07,0.220
-5.100E-07,0.200
-5.000E-07,0.220
-4.900E-07,0.180
-4.800E-07,0.160
-4.700E-07,0.080
-4.600E-07,0.160
-4.500E-07,0.080
-4.400E-07,-0.020
-4.300E-07,-0.160
-4.200E-07,-0.380
-4.100E-07,-0.540
-4.000E-07,-0.500
-3.900E-07,-0.500
-3.800E-07,-0.120
-3.700E-07,-0.260
-3.600E-07,-1.080
-3.500E-07,-0.780
-3.400E-07,-0.600
-3.300E-07,-0.040
-3.200E-07,1.180
-3.100E-07,1.460
-3.000E-07,1.420
-2.900E-07,1.080
-2.800E-07,0.180
-2.700E-07,0.240
-2.600E-07,0.520
-2.500E-07,0.400
-2.400E-07,0.900
-2.300E-07,0.740
-2.200E-07,0.400
-2.100E-07,0.280
-2.000E-07,0.080
-1.900E-07,0.080
-1.800E-07,0.420
-1.700E-07,0.540
-1.600E-07,0.560
-1.500E-07,0.440
-1.400E-07,0.240
-1.300E-07,-0.020
-1.200E-07,-0.100
-1.100E-07,-0.100
-1.000E-07,-0.160
-9.000E-08,-0.220
-8.000E-08,-0.200
-7.000E-08,-0.340
-6.000E-08,-0.820
-5.000E-08,-1.160
-4.000E-08,-0.900
-3.000E-08,-1.740
-2.000E-08,-2.140
-1.000E-08,-1.340
0.000E+00,-1.540
1.000E-08,-1.040
2.000E-08,-0.300
3.000E-08,0.160
4.000E-08,0.360
5.000E-08,0.540
6.000E-08,0.980
7.000E-08,1.860
8.000E-08,1.960
9.000E-08,1.680
1.000E-07,1.720
1.100E-07,1.360
1.200E-07,1.220
1.300E-07,1.340
1.400E-07,0.980
1.500E-07,0.980
1.600E-07,0.840
1.700E-07,0.640
1.800E-07,0.560
1.900E-07,0.480
2.000E-07,0.480
2.100E-07,0.200
2.200E-07,0.080
2.300E-07,-0.060
2.400E-07,-0.020
2.500E-07,0.300
2.600E-07,0.180
2.700E-07,0.000
2.800E-07,-0.280
2.900E-07,-0.660
3.000E-07,-0.700
3.100E-07,-0.700
3.200E-07,-0.840
3.300E-07,-0.840
3.400E-07,-1.000
3.500E-07,-1.280
3.600E-07,-1.480
3.700E-07,-1.620
3.800E-07,-1.560
3.900E-07,-1.400
4.000E-07,-1.100
4.100E-07,-0.840
4.200E-07,-0.640
4.300E-07,-0.580
4.400E-07,-0.680
4.500E-07,-0.820
4.600E-07,-0.920
4.700E-07,-1.000
4.800E-07,-0.720
4.900E-07,-0.080
5.000E-07,0.240
5.100E-07,1.080
5.200E-07,0.100
5.300E-07,0.720
5.400E-07,1.120
5.500E-07,1.120
5.600E-07,2.300
5.700E-07,2.760
5.800E-07,2.760
5.900E-07,2.700
6.000E-07,2.400
6.100E-07,2.720
6.200E-07,2.760
6.300E-07,2.480
6.400E-07,2.180
6.500E-07,1.540
6.600E-07,0.620
6.700E-07,0.340
6.800E-07,-0.640
6.900E-07,-1.800
7.000E-07,-1.800
7.100E-07,-2.520
7.200E-07,-2.620
7.300E-07,-1.440
7.400E-07,-0.700
7.500E-07,0.820
7.600E-07,2.040
7.700E-07,2.080
7.800E-07,2.360
7.900E-07,1.840
8.000E-07,1.000
8.100E-07,0.600
8.200E-07,0.160
8.300E-07,0.100
8.400E-07,0.420
8.500E-07,0.240
8.600E-07,0.080
8.700E-07,-0.060
8.800E-07,-0.620
8.900E-07,-0.840
9.000E-07,-1.000
9.100E-07,-1.100
9.200E-07,-0.980
9.300E-07,-1.080
9.400E-07,-0.920
9.500E-07,-1.000
9.600E-07,-0.940
9.700E-07,-0.860
9.800E-07,-0.940
9.900E-07,-0.900
1.000E-06,-1.040
1.010E-06,-1.260
1.020E-06,-1.320
1.030E-06,-1.760
1.040E-06,-2.500
1.050E-06,-2.680
1.060E-06,-2.660
1.070E-06,-2.660
1.080E-06,-2.300
1.090E-06,-1.280
1.100E-06,-0.340
1.110E-06,0.640
1.120E-06,1.440
1.130E-06,0.480
1.140E-06,0.160
1.150E-06,0.380
1.160E-06,-0.100
1.170E-06,-0.100
1.180E-06,-0.100
1.190E-06,0.280
1.200E-06,0.800
1.210E-06,1.340
1.220E-06,2.040
1.230E-06,2.760
1.240E-06,2.760
1.250E-06,2.760
1.260E-06,2.760
1.270E-06,2.740
1.280E-06,2.760
1.290E-06,2.760
1.300E-06,2.760
1.310E-06,2.760
1.320E-06,2.740
1.330E-06,2.240
1.340E-06,1.200
1.350E-06,-0.060
1.360E-06,-1.440
1.370E-06,-2.660
1.380E-06,-2.640
1.390E-06,-2.640
1.400E-06,-2.660
1.410E-06,-2.660
1.420E-06,-2.660
1.430E-06,-2.660
1.440E-06,-2.660
1.450E-06,-2.500
1.460E-06,-1.820
1.470E-06,-1.360
1.480E-06,-1.180
1.490E-06,-0.580
1.500E-06,-0.060
1.510E-06,0.220
1.520E-06,0.520
1.530E-06,0.720
1.540E-06,1.020
1.550E-06,1.520
1.560E-06,2.500
1.570E-06,2.780
1.580E-06,2.760
1.590E-06,2.780
1.600E-06,2.760
1.610E-06,2.740
1.620E-06,2.760
1.630E-06,2.780
1.640E-06,2.780
1.650E-06,2.760
1.660E-06,2.760
1.670E-06,2.760
1.680E-06,2.780
1.690E-06,2.780
1.700E-06,2.760
1.710E-06,2.780
1.720E-06,2.780
1.730E-06,2.760
1.740E-06,2.760
1.750E-06,2.780
1.760E-06,2.580
1.770E-06,2.200
1.780E-06,1.940
1.790E-06,1.700
1.800E-06,1.420
1.810E-06,1.200
1.820E-06,0.960
1.830E-06,0.680
1.840E-06,0.500
1.850E-06,0.320
1.860E-06,0.220
1.870E-06,0.200
1.880E-06,0.140
1.890E-06,0.340
1.900E-06,0.540
1.910E-06,0.740
1.920E-06,1.060
1.930E-06,1.300
1.940E-06,1.400
1.950E-06,1.480
1.960E-06,1.460
1.970E-06,1.520
1.980E-06,1.620
1.990E-06,1.620
2.000E-06,1.600
2.010E-06,1.500
2.020E-06,1.220
2.030E-06,0.820
2.040E-06,0.080
2.050E-06,-0.900
2.060E-06,-2.220
2.070E-06,-2.660
2.080E-06,-2.660
2.090E-06,-2.680
2.100E-06,-2.660
2.110E-06,-2.660
2.120E-06,-1.620
2.130E-06,1.500
2.140E-06,2.780
2.150E-06,2.760
2.160E-06,2.780
2.170E-06,2.760
2.180E-06,2.780
2.190E-06,2.760
2.200E-06,2.500
2.210E-06,2.020
2.220E-06,1.600
2.230E-06,1.460
2.240E-06,1.360
2.250E-06,1.400
2.260E-06,1.740
2.270E-06,2.060
2.280E-06,2.580
2.290E-06,2.760
2.300E-06,2.780
2.310E-06,2.780
2.320E-06,2.760
2.330E-06,2.520
2.340E-06,2.040
2.350E-06,1.520
2.360E-06,1.060
2.370E-06,0.660
2.380E-06,0.320
2.390E-06,0.100
2.400E-06,0.040
2.410E-06,-0.100
2.420E-06,-0.180
2.430E-06,-0.160
2.440E-06,-0.240
2.450E-06,-0.300
2.460E-06,-0.280
2.470E-06,-0.280
2.480E-06,-0.360
2.490E-06,-0.460
2.500E-06,-0.660
2.510E-06,-0.780
2.520E-06,-0.920
2.530E-06,-1.040
2.540E-06,-1.020
2.550E-06,-0.920
2.560E-06,-0.820
2.570E-06,-0.740
2.580E-06,-0.620
2.590E-06,-0.420
2.600E-06,-0.340
2.610E-06,-0.280
2.620E-06,-0.220
2.630E-06,-0.100
2.640E-06,0.040
2.650E-06,0.220
2.660E-06,0.400
2.670E-06,0.560
2.680E-06,0.660
2.690E-06,0.680
2.700E-06,0.620
2.710E-06,0.540
2.720E-06,0.360
2.730E-06,0.160
2.740E-06,-0.080
2.750E-06,-0.320
2.760E-06,-0.660
2.770E-06,-0.960
2.780E-06,-1.100
2.790E-06,-1.100
2.800E-06,-1.000
2.810E-06,-0.720
2.820E-06,-0.360
2.830E-06,0.000
2.840E-06,0.340
2.850E-06,0.660
2.860E-06,0.940
2.870E-06,1.100
2.880E-06,1.200
2.890E-06,1.200
2.900E-06,1.040
2.910E-06,0.760
2.920E-06,0.420
2.930E-06,0.100
2.940E-06,-0.280
2.950E-06,-0.660
2.960E-06,-0.880
2.970E-06,-1.000
2.980E-06,-1.000
2.990E-06,-0.960
3.000E-06,-0.820
3.010E-06,-0.580
3.020E-06,-0.380
3.030E-06,-0.260
3.040E-06,-0.160
3.050E-06,-0.080
3.060E-06,-0.020
3.070E-06,-0.080
3.080E-06,-0.160
3.090E-06,-0.240
3.100E-06,-0.340
3.110E-06,-0.480
3.120E-06,-0.600
3.130E-06,-0.700
3.140E-06,-0.760
3.150E-06,-0.780
3.160E-06,-0.780
3.170E-06,-0.740
3.180E-06,-0.660
3.190E-06,-0.620
3.200E-06,-0.560
3.210E-06,-0.500
3.220E-06,-0.420
3.230E-06,-0.420
3.240E-06,-0.420
3.250E-06,-0.480
3.260E-06,-0.520
3.270E-06,-0.520
3.280E-06,-0.560
3.290E-06,-0.600
3.300E-06,-0.680
3.310E-06,-0.680
3.320E-06,-0.720
3.330E-06,-0.740
3.340E-06,-0.740
3.350E-06,-0.720
3.360E-06,-0.660
3.370E-06,-0.620
3.380E-06,-0.580
3.390E-06,-0.520
3.400E-06,-0.400
3.410E-06,-0.340
3.420E-06,-0.280
3.430E-06,-0.240
3.440E-06,-0.200
3.450E-06,-0.220
3.460E-06,-0.240
3.470E-06,-0.220
3.480E-06,-0.260
3.490E-06,-0.240
3.500E-06,-0.240
3.510E-06,-0.180
3.520E-06,-0.160
3.530E-06,-0.100
3.540E-06,-0.020
3.550E-06,0.040
3.560E-06,0.140
3.570E-06,0.220
3.580E-06,0.240
3.590E-06,0.260
3.600E-06,0.240
