mediciones/6-26/7.5/WaveData59151.csv

#timebase=2000000(ps)
,#voltbase=200000(mv/100)
#size=4000
-8.150E-06,-0.008
-8.140E-06,-0.008
-8.130E-06,0.000
-8.120E-06,0.000
-8.110E-06,0.000
-8.100E-06,0.000
-8.090E-06,0.000
-8.080E-06,-0.008
-8.070E-06,-0.008
-8.060E-06,0.000
-8.050E-06,0.008
-8.040E-06,0.008
-8.030E-06,-0.008
-8.020E-06,0.000
-8.010E-06,0.000
-8.000E-06,0.000
-7.990E-06,0.008
-7.980E-06,0.000
-7.970E-06,-0.008
-7.960E-06,0.000
-7.950E-06,-0.008
-7.940E-06,-0.008
-7.930E-06,0.000
-7.920E-06,0.000
-7.910E-06,0.000
-7.900E-06,0.000
-7.890E-06,-0.008
-7.880E-06,0.000
-7.870E-06,0.000
-7.860E-06,0.000
-7.850E-06,0.000
-7.840E-06,0.000
-7.830E-06,0.000
-7.820E-06,-0.008
-7.810E-06,0.000
-7.800E-06,-0.008
-7.790E-06,0.000
-7.780E-06,-0.008
-7.770E-06,0.000
-7.760E-06,0.008
-7.750E-06,-0.008
-7.740E-06,0.000
-7.730E-06,0.000
-7.720E-06,0.000
-7.710E-06,0.000
-7.700E-06,0.000
-7.690E-06,0.000
-7.680E-06,0.000
-7.670E-06,0.000
-7.660E-06,0.000
-7.650E-06,0.000
-7.640E-06,-0.008
-7.630E-06,0.000
-7.620E-06,0.000
-7.610E-06,0.000
-7.600E-06,0.000
-7.590E-06,0.008
-7.580E-06,-0.008
-7.570E-06,-0.008
-7.560E-06,0.000
-7.550E-06,0.008
-7.540E-06,0.008
-7.530E-06,-0.008
-7.520E-06,-0.008
-7.510E-06,0.000
-7.500E-06,0.008
-7.490E-06,0.008
-7.480E-06,0.008
-7.470E-06,-0.008
-7.460E-06,-0.008
-7.450E-06,0.000
-7.440E-06,0.008
-7.430E-06,-0.008
-7.420E-06,0.000
-7.410E-06,0.000
-7.400E-06,0.000
-7.390E-06,0.000
-7.380E-06,-0.008
-7.370E-06,-0.008
-7.360E-06,0.000
-7.350E-06,-0.008
-7.340E-06,-0.008
-7.330E-06,0.000
-7.320E-06,0.008
-7.310E-06,-0.008
-7.300E-06,0.008
-7.290E-06,0.000
-7.280E-06,0.000
-7.270E-06,0.000
-7.260E-06,0.000
-7.250E-06,-0.008
-7.240E-06,0.000
-7.230E-06,0.000
-7.220E-06,0.008
-7.210E-06,0.000
-7.200E-06,0.000
-7.190E-06,-0.008
-7.180E-06,0.000
-7.170E-06,0.000
-7.160E-06,0.000
-7.150E-06,-0.008
-7.140E-06,0.008
-7.130E-06,-0.008
-7.120E-06,-0.008
-7.110E-06,0.000
-7.100E-06,-0.008
-7.090E-06,-0.008
-7.080E-06,0.000
-7.070E-06,0.000
-7.060E-06,0.008
-7.050E-06,0.000
-7.040E-06,0.000
-7.030E-06,-0.008
-7.020E-06,-0.008
-7.010E-06,0.000
-7.000E-06,0.000
-6.990E-06,0.000
-6.980E-06,0.000
-6.970E-06,0.000
-6.960E-06,0.000
-6.950E-06,0.000
-6.940E-06,0.000
-6.930E-06,0.000
-6.920E-06,0.000
-6.910E-06,0.000
-6.900E-06,0.000
-6.890E-06,0.000
-6.880E-06,0.000
-6.870E-06,0.000
-6.860E-06,0.000
-6.850E-06,0.000
-6.840E-06,-0.008
-6.830E-06,0.000
-6.820E-06,-0.008
-6.810E-06,0.000
-6.800E-06,0.008
-6.790E-06,-0.008
-6.780E-06,-0.008
-6.770E-06,0.000
-6.760E-06,-0.008
-6.750E-06,0.000
-6.740E-06,0.000
-6.730E-06,0.000
-6.720E-06,-0.008
-6.710E-06,0.000
-6.700E-06,-0.008
-6.690E-06,0.000
-6.680E-06,-0.008
-6.670E-06,0.000
-6.660E-06,-0.008
-6.650E-06,-0.008
-6.640E-06,0.000
-6.630E-06,0.000
-6.620E-06,0.000
-6.610E-06,0.000
-6.600E-06,0.000
-6.590E-06,0.000
-6.580E-06,0.000
-6.570E-06,0.000
-6.560E-06,0.000
-6.550E-06,0.000
-6.540E-06,-0.008
-6.530E-06,0.000
-6.520E-06,0.000
-6.510E-06,0.000
-6.500E-06,0.000
-6.490E-06,0.000
-6.480E-06,0.000
-6.470E-06,0.000
-6.460E-06,0.000
-6.450E-06,0.000
-6.440E-06,0.000
-6.430E-06,0.008
-6.420E-06,0.008
-6.410E-06,0.008
-6.400E-06,-0.008
-6.390E-06,0.000
-6.380E-06,0.000
-6.370E-06,0.000
-6.360E-06,0.008
-6.350E-06,0.008
-6.340E-06,0.008
-6.330E-06,-0.008
-6.320E-06,0.000
-6.310E-06,0.000
-6.300E-06,0.000
-6.290E-06,0.008
-6.280E-06,0.008
-6.270E-06,0.008
-6.260E-06,0.000
-6.250E-06,-0.008
-6.240E-06,0.000
-6.230E-06,0.008
-6.220E-06,0.008
-6.210E-06,0.008
-6.200E-06,0.008
-6.190E-06,-0.008
-6.180E-06,-0.008
-6.170E-06,0.000
-6.160E-06,0.008
-6.150E-06,0.008
-6.140E-06,-0.008
-6.130E-06,-0.008
-6.120E-06,0.000
-6.110E-06,-0.008
-6.100E-06,-0.008
-6.090E-06,0.000
-6.080E-06,-0.008
-6.070E-06,0.000
-6.060E-06,-0.008
-6.050E-06,0.000
-6.040E-06,-0.008
-6.030E-06,0.000
-6.020E-06,0.000
-6.010E-06,0.000
-6.000E-06,0.000
-5.990E-06,0.000
-5.980E-06,0.000
-5.970E-06,0.000
-5.960E-06,-0.008
-5.950E-06,0.000
-5.940E-06,0.000
-5.930E-06,0.000
-5.920E-06,0.016
-5.910E-06,0.016
-5.900E-06,-0.008
-5.890E-06,-0.008
-5.880E-06,0.000
-5.870E-06,-0.008
-5.860E-06,-0.008
-5.850E-06,0.000
-5.840E-06,0.000
-5.830E-06,0.000
-5.820E-06,0.000
-5.810E-06,0.000
-5.800E-06,0.000
-5.790E-06,-0.008
-5.780E-06,0.000
-5.770E-06,0.000
-5.760E-06,0.000
-5.750E-06,0.000
-5.740E-06,0.000
-5.730E-06,0.000
-5.720E-06,0.000
-5.710E-06,0.000
-5.700E-06,0.000
-5.690E-06,0.000
-5.680E-06,0.000
-5.670E-06,-0.008
-5.660E-06,0.000
-5.650E-06,0.000
-5.640E-06,0.000
-5.630E-06,0.000
-5.620E-06,0.000
-5.610E-06,0.000
-5.600E-06,0.008
-5.590E-06,0.000
-5.580E-06,0.000
-5.570E-06,0.000
-5.560E-06,0.000
-5.550E-06,-0.008
-5.540E-06,0.000
-5.530E-06,0.000
-5.520E-06,0.000
-5.510E-06,-0.008
-5.500E-06,0.000
-5.490E-06,0.000
-5.480E-06,0.000
-5.470E-06,0.000
-5.460E-06,0.000
-5.450E-06,-0.008
-5.440E-06,0.000
-5.430E-06,0.000
-5.420E-06,0.000
-5.410E-06,0.000
-5.400E-06,0.000
-5.390E-06,0.008
-5.380E-06,0.008
-5.370E-06,-0.008
-5.360E-06,-0.008
-5.350E-06,0.000
-5.340E-06,-0.008
-5.330E-06,-0.008
-5.320E-06,0.000
-5.310E-06,-0.008
-5.300E-06,-0.008
-5.290E-06,0.000
-5.280E-06,0.000
-5.270E-06,0.000
-5.260E-06,0.000
-5.250E-06,0.000
-5.240E-06,0.000
-5.230E-06,0.000
-5.220E-06,0.000
-5.210E-06,0.000
-5.200E-06,0.000
-5.190E-06,0.008
-5.180E-06,0.000
-5.170E-06,0.000
-5.160E-06,-0.008
-5.150E-06,0.000
-5.140E-06,0.000
-5.130E-06,0.000
-5.120E-06,0.000
-5.110E-06,0.000
-5.100E-06,0.000
-5.090E-06,0.000
-5.080E-06,-0.008
-5.070E-06,0.000
-5.060E-06,-0.008
-5.050E-06,0.008
-5.040E-06,0.000
-5.030E-06,0.000
-5.020E-06,-0.008
-5.010E-06,0.000
-5.000E-06,0.000
-4.990E-06,0.000
-4.980E-06,-0.008
-4.970E-06,0.000
-4.960E-06,0.000
-4.950E-06,0.000
-4.940E-06,0.000
-4.930E-06,-0.008
-4.920E-06,0.000
-4.910E-06,0.000
-4.900E-06,0.000
-4.890E-06,0.000
-4.880E-06,0.000
-4.870E-06,0.000
-4.860E-06,0.000
-4.850E-06,0.000
-4.840E-06,0.000
-4.830E-06,0.000
-4.820E-06,0.000
-4.810E-06,0.000
-4.800E-06,-0.008
-4.790E-06,0.000
-4.780E-06,0.008
-4.770E-06,0.000
-4.760E-06,0.008
-4.750E-06,0.000
-4.740E-06,0.008
-4.730E-06,0.000
-4.720E-06,-0.008
-4.710E-06,0.000
-4.700E-06,0.008
-4.690E-06,0.008
-4.680E-06,0.000
-4.670E-06,0.000
-4.660E-06,0.000
-4.650E-06,0.000
-4.640E-06,0.000
-4.630E-06,0.000
-4.620E-06,0.000
-4.610E-06,0.000
-4.600E-06,-0.008
-4.590E-06,0.000
-4.580E-06,0.008
-4.570E-06,-0.008
-4.560E-06,0.000
-4.550E-06,0.000
-4.540E-06,0.000
-4.530E-06,0.000
-4.520E-06,0.008
-4.510E-06,0.000
-4.500E-06,0.008
-4.490E-06,-0.008
-4.480E-06,0.000
-4.470E-06,0.000
-4.460E-06,0.000
-4.450E-06,0.000
-4.440E-06,0.000
-4.430E-06,0.000
-4.420E-06,0.000
-4.410E-06,0.008
-4.400E-06,0.008
-4.390E-06,-0.008
-4.380E-06,0.000
-4.370E-06,0.000
-4.360E-06,0.000
-4.350E-06,0.000
-4.340E-06,0.000
-4.330E-06,0.000
-4.320E-06,-0.008
-4.310E-06,-0.008
-4.300E-06,0.000
-4.290E-06,0.008
-4.280E-06,-0.008
-4.270E-06,-0.008
-4.260E-06,0.000
-4.250E-06,-0.008
-4.240E-06,0.000
-4.230E-06,0.008
-4.220E-06,0.008
-4.210E-06,0.008
-4.200E-06,0.008
-4.190E-06,-0.008
-4.180E-06,-0.008
-4.170E-06,0.000
-4.160E-06,0.008
-4.150E-06,-0.008
-4.140E-06,0.000
-4.130E-06,0.000
-4.120E-06,-0.008
-4.110E-06,0.000
-4.100E-06,0.008
-4.090E-06,0.000
-4.080E-06,-0.008
-4.070E-06,0.000
-4.060E-06,0.000
-4.050E-06,0.000
-4.040E-06,0.016
-4.030E-06,0.008
-4.020E-06,0.008
-4.010E-06,-0.008
-4.000E-06,-0.008
-3.990E-06,0.000
-3.980E-06,-0.008
-3.970E-06,0.000
-3.960E-06,0.016
-3.950E-06,-0.008
-3.940E-06,-0.008
-3.930E-06,0.000
-3.920E-06,0.000
-3.910E-06,0.000
-3.900E-06,0.000
-3.890E-06,-0.008
-3.880E-06,0.000
-3.870E-06,0.000
-3.860E-06,0.000
-3.850E-06,-0.008
-3.840E-06,-0.008
-3.830E-06,0.000
-3.820E-06,-0.008
-3.810E-06,0.000
-3.800E-06,0.008
-3.790E-06,0.000
-3.780E-06,-0.008
-3.770E-06,0.000
-3.760E-06,0.000
-3.750E-06,0.000
-3.740E-06,0.000
-3.730E-06,0.000
-3.720E-06,0.000
-3.710E-06,0.000
-3.700E-06,0.000
-3.690E-06,0.008
-3.680E-06,0.000
-3.670E-06,0.000
-3.660E-06,0.000
-3.650E-06,0.000
-3.640E-06,0.000
-3.630E-06,0.008
-3.620E-06,0.008
-3.610E-06,-0.008
-3.600E-06,-0.008
-3.590E-06,0.000
-3.580E-06,0.000
-3.570E-06,0.000
-3.560E-06,0.000
-3.550E-06,0.000
-3.540E-06,0.000
-3.530E-06,0.000
-3.520E-06,0.000
-3.510E-06,-0.008
-3.500E-06,0.000
-3.490E-06,0.000
-3.480E-06,0.000
-3.470E-06,0.000
-3.460E-06,0.000
-3.450E-06,0.000
-3.440E-06,0.000
-3.430E-06,0.008
-3.420E-06,-0.008
-3.410E-06,0.000
-3.400E-06,0.000
-3.390E-06,0.000
-3.380E-06,0.008
-3.370E-06,-0.008
-3.360E-06,0.000
-3.350E-06,0.000
-3.340E-06,0.000
-3.330E-06,0.008
-3.320E-06,-0.008
-3.310E-06,0.000
-3.300E-06,0.000
-3.290E-06,0.008
-3.280E-06,0.008
-3.270E-06,-0.008
-3.260E-06,0.008
-3.250E-06,0.000
-3.240E-06,0.000
-3.230E-06,0.000
-3.220E-06,-0.008
-3.210E-06,0.000
-3.200E-06,0.000
-3.190E-06,0.000
-3.180E-06,0.000
-3.170E-06,0.000
-3.160E-06,0.000
-3.150E-06,-0.008
-3.140E-06,0.000
-3.130E-06,0.016
-3.120E-06,-0.008
-3.110E-06,-0.008
-3.100E-06,0.000
-3.090E-06,0.008
-3.080E-06,-0.008
-3.070E-06,0.000
-3.060E-06,0.008
-3.050E-06,0.000
-3.040E-06,0.000
-3.030E-06,0.000
-3.020E-06,0.000
-3.010E-06,0.000
-3.000E-06,0.000
-2.990E-06,0.008
-2.980E-06,0.008
-2.970E-06,0.008
-2.960E-06,-0.008
-2.950E-06,0.000
-2.940E-06,-0.008
-2.930E-06,-0.024
-2.920E-06,0.000
-2.910E-06,0.120
-2.900E-06,0.536
-2.890E-06,1.080
-2.880E-06,1.072
-2.870E-06,1.080
-2.860E-06,1.080
-2.850E-06,0.936
-2.840E-06,-0.488
-2.830E-06,-1.048
-2.820E-06,-1.032
-2.810E-06,-1.040
-2.800E-06,-1.040
-2.790E-06,-1.040
-2.780E-06,-1.040
-2.770E-06,-1.040
-2.760E-06,-1.048
-2.750E-06,-1.040
-2.740E-06,-0.496
-2.730E-06,0.048
-2.720E-06,0.200
-2.710E-06,0.168
-2.700E-06,0.128
-2.690E-06,0.208
-2.680E-06,0.376
-2.670E-06,0.640
-2.660E-06,0.640
-2.650E-06,0.600
-2.640E-06,0.472
-2.630E-06,0.344
-2.620E-06,0.368
-2.610E-06,0.464
-2.600E-06,0.576
-2.590E-06,0.608
-2.580E-06,0.552
-2.570E-06,0.400
-2.560E-06,0.128
-2.550E-06,-0.008
-2.540E-06,-0.184
-2.530E-06,-0.240
-2.520E-06,-0.248
-2.510E-06,-0.184
-2.500E-06,-0.192
-2.490E-06,-0.128
-2.480E-06,-0.056
-2.470E-06,0.088
-2.460E-06,0.280
-2.450E-06,0.488
-2.440E-06,0.616
-2.430E-06,0.720
-2.420E-06,0.728
-2.410E-06,0.680
-2.400E-06,0.576
-2.390E-06,0.472
-2.380E-06,0.296
-2.370E-06,0.120
-2.360E-06,-0.064
-2.350E-06,-0.240
-2.340E-06,-0.400
-2.330E-06,-0.560
-2.320E-06,-0.728
-2.310E-06,-0.896
-2.300E-06,-1.048
-2.290E-06,-1.040
-2.280E-06,-1.040
-2.270E-06,-1.024
-2.260E-06,-0.856
-2.250E-06,-0.656
-2.240E-06,-0.448
-2.230E-06,-0.256
-2.220E-06,-0.064
-2.210E-06,0.128
-2.200E-06,0.344
-2.190E-06,0.512
-2.180E-06,0.616
-2.170E-06,0.632
-2.160E-06,0.584
-2.150E-06,0.504
-2.140E-06,0.416
-2.130E-06,0.328
-2.120E-06,0.248
-2.110E-06,0.168
-2.100E-06,0.040
-2.090E-06,-0.056
-2.080E-06,-0.104
-2.070E-06,-0.184
-2.060E-06,-0.176
-2.050E-06,-0.136
-2.040E-06,-0.048
-2.030E-06,-0.024
-2.020E-06,-0.048
-2.010E-06,-0.072
-2.000E-06,-0.136
-1.990E-06,-0.120
-1.980E-06,-0.024
-1.970E-06,0.088
-1.960E-06,0.192
-1.950E-06,0.232
-1.940E-06,0.272
-1.930E-06,0.288
-1.920E-06,0.312
-1.910E-06,0.360
-1.900E-06,0.368
-1.890E-06,0.368
-1.880E-06,0.288
-1.870E-06,0.216
-1.860E-06,0.128
-1.850E-06,0.096
-1.840E-06,0.040
-1.830E-06,0.032
-1.820E-06,0.000
-1.810E-06,-0.040
-1.800E-06,-0.088
-1.790E-06,-0.072
-1.780E-06,-0.080
-1.770E-06,-0.064
-1.760E-06,-0.048
-1.750E-06,-0.064
-1.740E-06,-0.072
-1.730E-06,-0.088
-1.720E-06,-0.064
-1.710E-06,-0.064
-1.700E-06,-0.064
-1.690E-06,-0.040
-1.680E-06,-0.048
-1.670E-06,-0.056
-1.660E-06,-0.072
-1.650E-06,-0.016
-1.640E-06,0.032
-1.630E-06,0.048
-1.620E-06,0.064
-1.610E-06,0.088
-1.600E-06,0.176
-1.590E-06,0.296
-1.580E-06,0.016
-1.570E-06,0.200
-1.560E-06,0.184
-1.550E-06,0.280
-1.540E-06,0.648
-1.530E-06,0.728
-1.520E-06,0.496
-1.510E-06,0.200
-1.500E-06,-0.120
-1.490E-06,-0.032
-1.480E-06,0.176
-1.470E-06,0.336
-1.460E-06,0.472
-1.450E-06,0.368
-1.440E-06,0.168
-1.430E-06,0.024
-1.420E-06,-0.032
-1.410E-06,0.024
-1.400E-06,0.136
-1.390E-06,0.200
-1.380E-06,0.208
-1.370E-06,0.104
-1.360E-06,0.048
-1.350E-06,0.008
-1.340E-06,0.000
-1.330E-06,0.000
-1.320E-06,0.048
-1.310E-06,0.064
-1.300E-06,0.072
-1.290E-06,0.016
-1.280E-06,-0.032
-1.270E-06,-0.048
-1.260E-06,-0.048
-1.250E-06,-0.008
-1.240E-06,0.032
-1.230E-06,0.056
-1.220E-06,0.072
-1.210E-06,0.016
-1.200E-06,0.008
-1.190E-06,-0.040
-1.180E-06,-0.016
-1.170E-06,0.032
-1.160E-06,0.088
-1.150E-06,0.152
-1.140E-06,0.192
-1.130E-06,0.176
-1.120E-06,0.224
-1.110E-06,0.312
-1.100E-06,0.368
-1.090E-06,0.488
-1.080E-06,0.560
-1.070E-06,0.536
-1.060E-06,0.432
-1.050E-06,0.800
-1.040E-06,0.584
-1.030E-06,0.472
-1.020E-06,0.536
-1.010E-06,0.296
-1.000E-06,0.296
-9.900E-07,0.424
-9.800E-07,0.424
-9.700E-07,0.496
-9.600E-07,0.432
-9.500E-07,0.368
-9.400E-07,0.432
-9.300E-07,0.544
-9.200E-07,0.616
-9.100E-07,0.728
-9.000E-07,0.728
-8.900E-07,0.704
-8.800E-07,0.736
-8.700E-07,0.808
-8.600E-07,0.864
-8.500E-07,0.880
-8.400E-07,0.888
-8.300E-07,0.888
-8.200E-07,0.984
-8.100E-07,0.808
-8.000E-07,1.072
-7.900E-07,0.824
-7.800E-07,0.544
-7.700E-07,0.640
-7.600E-07,0.224
-7.500E-07,0.224
-7.400E-07,0.464
-7.300E-07,0.704
-7.200E-07,0.680
-7.100E-07,0.424
-7.000E-07,0.280
-6.900E-07,0.168
-6.800E-07,-0.136
-6.700E-07,0.400
-6.600E-07,0.920
-6.500E-07,0.768
-6.400E-07,1.080
-6.300E-07,0.928
-6.200E-07,0.696
-6.100E-07,1.080
-6.000E-07,1.080
-5.900E-07,1.080
-5.800E-07,1.072
-5.700E-07,1.024
-5.600E-07,1.000
-5.500E-07,1.080
-5.400E-07,1.080
-5.300E-07,1.080
-5.200E-07,1.072
-5.100E-07,1.080
-5.000E-07,1.080
-4.900E-07,1.080
-4.800E-07,1.080
-4.700E-07,1.088
-4.600E-07,1.080
-4.500E-07,1.072
-4.400E-07,1.080
-4.300E-07,1.080
-4.200E-07,1.072
-4.100E-07,1.080
-4.000E-07,1.088
-3.900E-07,1.080
-3.800E-07,1.088
-3.700E-07,1.080
-3.600E-07,1.080
-3.500E-07,1.080
-3.400E-07,1.080
-3.300E-07,1.080
-3.200E-07,1.072
-3.100E-07,1.080
-3.000E-07,1.080
-2.900E-07,1.088
-2.800E-07,1.088
-2.700E-07,1.080
-2.600E-07,1.080
-2.500E-07,1.080
-2.400E-07,1.080
-2.300E-07,1.080
-2.200E-07,1.072
-2.100E-07,1.080
-2.000E-07,1.080
-1.900E-07,1.072
-1.800E-07,1.080
-1.700E-07,1.088
-1.600E-07,1.088
-1.500E-07,1.064
-1.400E-07,0.984
-1.300E-07,1.032
-1.200E-07,1.000
-1.100E-07,1.000
-1.000E-07,1.072
-9.000E-08,1.080
-8.000E-08,1.088
-7.000E-08,1.080
-6.000E-08,1.088
-5.000E-08,1.080
-4.000E-08,1.088
-3.000E-08,1.080
-2.000E-08,1.088
-1.000E-08,1.080
0.000E+00,1.088
1.000E-08,1.080
2.000E-08,1.080
3.000E-08,1.080
4.000E-08,1.080
5.000E-08,1.072
6.000E-08,1.080
7.000E-08,1.080
8.000E-08,1.080
9.000E-08,1.080
1.000E-07,1.088
1.100E-07,1.080
1.200E-07,1.080
1.300E-07,1.080
1.400E-07,1.048
1.500E-07,0.968
1.600E-07,1.080
1.700E-07,1.080
1.800E-07,1.072
1.900E-07,1.080
2.000E-07,1.080
2.100E-07,1.080
2.200E-07,1.080
2.300E-07,1.072
2.400E-07,1.080
2.500E-07,1.080
2.600E-07,1.072
2.700E-07,1.080
2.800E-07,1.080
2.900E-07,1.088
3.000E-07,1.088
3.100E-07,1.080
3.200E-07,0.240
3.300E-07,-0.800
3.400E-07,-1.040
3.500E-07,-1.040
3.600E-07,-1.048
3.700E-07,-1.040
3.800E-07,-1.032
3.900E-07,-1.040
4.000E-07,-1.032
4.100E-07,-1.032
4.200E-07,-1.040
4.300E-07,-1.040
4.400E-07,-1.048
4.500E-07,-1.040
4.600E-07,-1.048
4.700E-07,-1.032
4.800E-07,-1.032
4.900E-07,-1.040
5.000E-07,-1.040
5.100E-07,-1.048
5.200E-07,-0.600
5.300E-07,-0.008
5.400E-07,0.656
5.500E-07,1.080
5.600E-07,1.080
5.700E-07,1.080
5.800E-07,1.072
5.900E-07,1.080
6.000E-07,1.088
6.100E-07,1.080
6.200E-07,1.088
6.300E-07,1.088
6.400E-07,1.080
6.500E-07,1.080
6.600E-07,1.072
6.700E-07,1.080
6.800E-07,1.088
6.900E-07,1.080
7.000E-07,1.080
7.100E-07,1.072
7.200E-07,1.080
7.300E-07,1.088
7.400E-07,1.088
7.500E-07,1.080
7.600E-07,1.088
7.700E-07,1.080
7.800E-07,1.088
7.900E-07,1.080
8.000E-07,1.048
8.100E-07,0.968
8.200E-07,0.904
8.300E-07,0.856
8.400E-07,0.832
8.500E-07,0.768
8.600E-07,0.760
8.700E-07,0.720
8.800E-07,0.656
8.900E-07,0.600
9.000E-07,0.536
9.100E-07,0.472
9.200E-07,0.360
9.300E-07,0.184
9.400E-07,0.024
9.500E-07,-0.096
9.600E-07,-0.168
9.700E-07,-0.216
9.800E-07,-0.288
9.900E-07,-0.368
1.000E-06,-0.480
1.010E-06,-0.560
1.020E-06,-0.592
1.030E-06,-0.608
1.040E-06,-0.608
1.050E-06,-0.608
1.060E-06,-0.624
1.070E-06,-0.648
1.080E-06,-0.648
1.090E-06,-0.672
1.100E-06,-0.624
1.110E-06,-0.632
1.120E-06,-0.608
1.130E-06,-0.608
1.140E-06,-0.640
1.150E-06,-0.672
1.160E-06,-0.688
1.170E-06,-0.632
1.180E-06,-0.488
1.190E-06,-0.312
1.200E-06,-0.152
1.210E-06,-0.104
1.220E-06,-0.096
1.230E-06,-0.064
1.240E-06,-0.040
1.250E-06,-0.024
1.260E-06,-0.048
1.270E-06,-0.112
1.280E-06,-0.168
1.290E-06,-0.232
1.300E-06,-0.264
1.310E-06,-0.288
1.320E-06,-0.264
1.330E-06,-0.240
1.340E-06,-0.208
1.350E-06,-0.200
1.360E-06,-0.200
1.370E-06,-0.216
1.380E-06,-0.216
1.390E-06,-0.200
1.400E-06,-0.200
1.410E-06,-0.168
1.420E-06,-0.136
1.430E-06,-0.104
1.440E-06,-0.096
1.450E-06,-0.072
1.460E-06,-0.040
1.470E-06,0.000
1.480E-06,0.040
1.490E-06,0.048
1.500E-06,0.008
1.510E-06,-0.080
1.520E-06,-0.152
1.530E-06,-0.208
1.540E-06,-0.200
1.550E-06,-0.144
1.560E-06,-0.120
1.570E-06,-0.088
1.580E-06,-0.032
1.590E-06,0.000
1.600E-06,-0.064
1.610E-06,-0.160
1.620E-06,-0.264
1.630E-06,-0.400
1.640E-06,-0.464
1.650E-06,-0.560
1.660E-06,-0.568
1.670E-06,-0.552
1.680E-06,-0.536
1.690E-06,-0.512
1.700E-06,-0.536
1.710E-06,-0.520
1.720E-06,-0.496
1.730E-06,-0.488
1.740E-06,-0.456
1.750E-06,-0.360
1.760E-06,-0.032
1.770E-06,-0.056
1.780E-06,0.000
1.790E-06,-0.144
1.800E-06,-0.112
1.810E-06,-0.024
1.820E-06,-0.024
1.830E-06,-0.088
1.840E-06,-0.152
1.850E-06,-0.184
1.860E-06,-0.240
1.870E-06,-0.312
1.880E-06,-0.344
1.890E-06,-0.336
1.900E-06,-0.304
1.910E-06,-0.272
1.920E-06,-0.224
1.930E-06,-0.168
1.940E-06,-0.144
1.950E-06,-0.120
1.960E-06,-0.120
1.970E-06,-0.112
1.980E-06,-0.136
1.990E-06,-0.128
2.000E-06,-0.112
2.010E-06,-0.088
2.020E-06,-0.104
2.030E-06,-0.104
2.040E-06,-0.112
2.050E-06,-0.120
2.060E-06,-0.160
2.070E-06,-0.208
2.080E-06,-0.240
2.090E-06,-0.240
2.100E-06,-0.232
2.110E-06,-0.272
2.120E-06,-0.328
2.130E-06,-0.384
2.140E-06,-0.424
2.150E-06,-0.456
2.160E-06,-0.496
2.170E-06,-0.520
2.180E-06,-0.528
2.190E-06,-0.512
2.200E-06,-0.464
2.210E-06,-0.400
2.220E-06,-0.408
2.230E-06,-0.472
2.240E-06,-0.528
2.250E-06,-0.600
2.260E-06,-0.616
2.270E-06,-0.624
2.280E-06,-0.616
2.290E-06,-0.576
2.300E-06,-0.520
2.310E-06,-0.432
2.320E-06,-0.336
2.330E-06,-0.240
2.340E-06,-0.144
2.350E-06,-0.048
2.360E-06,0.096
2.370E-06,0.200
2.380E-06,0.224
2.390E-06,0.176
2.400E-06,0.088
2.410E-06,-0.008
2.420E-06,-0.160
2.430E-06,-0.304
2.440E-06,-0.416
2.450E-06,-0.504
2.460E-06,-0.520
2.470E-06,-0.520
2.480E-06,-0.520
2.490E-06,-0.504
2.500E-06,-0.480
2.510E-06,-0.464
2.520E-06,-0.464
2.530E-06,-0.440
2.540E-06,-0.408
2.550E-06,-0.400
2.560E-06,-0.408
2.570E-06,-0.416
2.580E-06,-0.408
2.590E-06,-0.400
2.600E-06,-0.368
2.610E-06,-0.336
2.620E-06,-0.272
2.630E-06,-0.096
2.640E-06,0.144
2.650E-06,0.368
2.660E-06,0.368
2.670E-06,0.384
2.680E-06,0.256
2.690E-06,0.224
2.700E-06,0.104
2.710E-06,-0.112
2.720E-06,-0.256
2.730E-06,-0.360
2.740E-06,-0.440
2.750E-06,-0.488
2.760E-06,-0.488
2.770E-06,-0.464
2.780E-06,-0.432
2.790E-06,-0.440
2.800E-06,-0.440
2.810E-06,-0.368
2.820E-06,-0.272
2.830E-06,-0.160
2.840E-06,-0.064
2.850E-06,-0.016
2.860E-06,0.032
2.870E-06,0.048
2.880E-06,0.040
2.890E-06,-0.008
2.900E-06,-0.040
2.910E-06,-0.112
2.920E-06,-0.160
2.930E-06,-0.216
2.940E-06,-0.248
2.950E-06,-0.264
2.960E-06,-0.280
2.970E-06,-0.264
2.980E-06,-0.256
2.990E-06,-0.224
3.000E-06,-0.192
3.010E-06,-0.160
3.020E-06,-0.136
3.030E-06,-0.096
3.040E-06,-0.080
3.050E-06,-0.064
3.060E-06,-0.032
3.070E-06,-0.016
3.080E-06,-0.016
3.090E-06,0.008
3.100E-06,0.008
3.110E-06,0.000
3.120E-06,0.024
3.130E-06,0.080
3.140E-06,0.136
3.150E-06,0.184
3.160E-06,0.288
3.170E-06,0.416
3.180E-06,0.624
3.190E-06,0.864
3.200E-06,1.080
3.210E-06,1.088
3.220E-06,1.080
3.230E-06,1.072
3.240E-06,1.080
3.250E-06,1.080
3.260E-06,1.080
3.270E-06,1.088
3.280E-06,1.088
3.290E-06,1.080
3.300E-06,1.080
3.310E-06,1.080
3.320E-06,1.088
3.330E-06,1.088
3.340E-06,1.080
3.350E-06,1.080
3.360E-06,1.088
3.370E-06,1.080
3.380E-06,0.464
3.390E-06,-0.720
3.400E-06,-1.048
3.410E-06,-1.040
3.420E-06,-1.032
3.430E-06,-1.040
3.440E-06,-1.040
3.450E-06,-1.048
3.460E-06,-1.040
3.470E-06,-1.048
3.480E-06,-1.032
3.490E-06,-1.032
3.500E-06,-1.040
3.510E-06,-1.040
3.520E-06,-1.040
