mediciones/6-26/7.5/WaveData59155.csv

#timebase=2000000(ps)
,#voltbase=100000(mv/100)
#size=4000
-8.150E-06,0.008
-8.140E-06,0.012
-8.130E-06,0.008
-8.120E-06,0.000
-8.110E-06,-0.004
-8.100E-06,-0.012
-8.090E-06,0.004
-8.080E-06,0.008
-8.070E-06,0.016
-8.060E-06,0.012
-8.050E-06,0.012
-8.040E-06,-0.008
-8.030E-06,-0.008
-8.020E-06,-0.004
-8.010E-06,0.008
-8.000E-06,0.004
-7.990E-06,0.012
-7.980E-06,0.000
-7.970E-06,-0.004
-7.960E-06,-0.012
-7.950E-06,0.004
-7.940E-06,0.000
-7.930E-06,0.004
-7.920E-06,0.012
-7.910E-06,0.008
-7.900E-06,0.000
-7.890E-06,0.000
-7.880E-06,0.000
-7.870E-06,0.008
-7.860E-06,0.012
-7.850E-06,0.004
-7.840E-06,0.004
-7.830E-06,-0.008
-7.820E-06,-0.008
-7.810E-06,0.004
-7.800E-06,0.016
-7.790E-06,0.028
-7.780E-06,0.008
-7.770E-06,-0.012
-7.760E-06,-0.016
-7.750E-06,-0.004
-7.740E-06,0.004
-7.730E-06,0.032
-7.720E-06,0.016
-7.710E-06,0.004
-7.700E-06,-0.012
-7.690E-06,-0.020
-7.680E-06,0.012
-7.670E-06,0.016
-7.660E-06,0.024
-7.650E-06,0.020
-7.640E-06,0.008
-7.630E-06,0.012
-7.620E-06,-0.004
-7.610E-06,0.016
-7.600E-06,0.032
-7.590E-06,0.032
-7.580E-06,0.024
-7.570E-06,0.024
-7.560E-06,0.028
-7.550E-06,0.044
-7.540E-06,0.056
-7.530E-06,0.068
-7.520E-06,0.028
-7.510E-06,0.052
-7.500E-06,-0.004
-7.490E-06,0.000
-7.480E-06,0.064
-7.470E-06,0.088
-7.460E-06,0.076
-7.450E-06,0.052
-7.440E-06,0.124
-7.430E-06,-0.028
-7.420E-06,0.044
-7.410E-06,0.120
-7.400E-06,0.108
-7.390E-06,0.116
-7.380E-06,0.208
-7.370E-06,0.332
-7.360E-06,0.184
-7.350E-06,0.132
-7.340E-06,0.028
-7.330E-06,0.144
-7.320E-06,0.072
-7.310E-06,0.380
-7.300E-06,0.476
-7.290E-06,0.368
-7.280E-06,0.220
-7.270E-06,0.108
-7.260E-06,0.072
-7.250E-06,0.116
-7.240E-06,0.232
-7.230E-06,0.280
-7.220E-06,0.208
-7.210E-06,0.068
-7.200E-06,-0.040
-7.190E-06,-0.096
-7.180E-06,-0.036
-7.170E-06,0.028
-7.160E-06,0.052
-7.150E-06,0.044
-7.140E-06,-0.008
-7.130E-06,-0.092
-7.120E-06,-0.108
-7.110E-06,-0.080
-7.100E-06,-0.032
-7.090E-06,-0.036
-7.080E-06,-0.016
-7.070E-06,-0.028
-7.060E-06,-0.080
-7.050E-06,-0.108
-7.040E-06,-0.088
-7.030E-06,-0.080
-7.020E-06,-0.072
-7.010E-06,-0.040
-7.000E-06,-0.044
-6.990E-06,-0.052
-6.980E-06,-0.064
-6.970E-06,-0.060
-6.960E-06,-0.060
-6.950E-06,-0.048
-6.940E-06,-0.052
-6.930E-06,-0.048
-6.920E-06,-0.020
-6.910E-06,-0.012
-6.900E-06,0.000
-6.890E-06,0.024
-6.880E-06,0.000
-6.870E-06,-0.028
-6.860E-06,-0.044
-6.850E-06,-0.020
-6.840E-06,0.048
-6.830E-06,0.156
-6.820E-06,0.252
-6.810E-06,0.300
-6.800E-06,0.220
-6.790E-06,0.224
-6.780E-06,0.072
-6.770E-06,0.072
-6.760E-06,0.128
-6.750E-06,0.268
-6.740E-06,0.432
-6.730E-06,0.376
-6.720E-06,0.276
-6.710E-06,0.036
-6.700E-06,-0.116
-6.690E-06,-0.124
-6.680E-06,0.020
-6.670E-06,0.144
-6.660E-06,0.172
-6.650E-06,0.072
-6.640E-06,-0.068
-6.630E-06,-0.180
-6.620E-06,-0.172
-6.610E-06,-0.080
-6.600E-06,0.052
-6.590E-06,0.100
-6.580E-06,0.060
-6.570E-06,-0.028
-6.560E-06,-0.096
-6.550E-06,-0.100
-6.540E-06,-0.032
-6.530E-06,0.020
-6.520E-06,0.088
-6.510E-06,0.100
-6.500E-06,0.076
-6.490E-06,0.032
-6.480E-06,0.016
-6.470E-06,0.008
-6.460E-06,0.028
-6.450E-06,0.048
-6.440E-06,0.064
-6.430E-06,0.048
-6.420E-06,0.016
-6.410E-06,0.048
-6.400E-06,0.016
-6.390E-06,-0.048
-6.380E-06,-0.040
-6.370E-06,-0.056
-6.360E-06,0.032
-6.350E-06,0.184
-6.340E-06,0.236
-6.330E-06,0.176
-6.320E-06,-0.044
-6.310E-06,-0.252
-6.300E-06,-0.328
-6.290E-06,-0.292
-6.280E-06,-0.112
-6.270E-06,0.080
-6.260E-06,0.368
-6.250E-06,0.272
-6.240E-06,-0.008
-6.230E-06,-0.076
-6.220E-06,-0.012
-6.210E-06,-0.416
-6.200E-06,-0.456
-6.190E-06,0.108
-6.180E-06,-0.180
-6.170E-06,0.204
-6.160E-06,0.544
-6.150E-06,0.416
-6.140E-06,0.064
-6.130E-06,-0.392
-6.120E-06,-0.512
-6.110E-06,0.084
-6.100E-06,0.308
-6.090E-06,0.540
-6.080E-06,0.540
-6.070E-06,0.544
-6.060E-06,0.388
-6.050E-06,0.428
-6.040E-06,0.508
-6.030E-06,0.540
-6.020E-06,0.544
-6.010E-06,0.496
-6.000E-06,0.264
-5.990E-06,-0.028
-5.980E-06,-0.068
-5.970E-06,-0.060
-5.960E-06,0.128
-5.950E-06,0.068
-5.940E-06,-0.016
-5.930E-06,-0.124
-5.920E-06,-0.256
-5.910E-06,-0.384
-5.900E-06,-0.376
-5.890E-06,-0.300
-5.880E-06,-0.248
-5.870E-06,-0.216
-5.860E-06,-0.252
-5.850E-06,-0.332
-5.840E-06,-0.400
-5.830E-06,-0.428
-5.820E-06,-0.436
-5.810E-06,-0.456
-5.800E-06,-0.496
-5.790E-06,-0.508
-5.780E-06,-0.492
-5.770E-06,-0.400
-5.760E-06,-0.324
-5.750E-06,-0.208
-5.740E-06,-0.144
-5.730E-06,-0.148
-5.720E-06,-0.172
-5.710E-06,-0.144
-5.700E-06,-0.096
-5.690E-06,-0.012
-5.680E-06,0.060
-5.670E-06,0.096
-5.660E-06,0.072
-5.650E-06,0.028
-5.640E-06,0.000
-5.630E-06,0.004
-5.620E-06,0.056
-5.610E-06,0.148
-5.600E-06,0.080
-5.590E-06,-0.064
-5.580E-06,-0.100
-5.570E-06,-0.124
-5.560E-06,-0.520
-5.550E-06,-0.176
-5.540E-06,-0.252
-5.530E-06,0.540
-5.520E-06,0.540
-5.510E-06,0.536
-5.500E-06,0.540
-5.490E-06,0.544
-5.480E-06,0.540
-5.470E-06,0.536
-5.460E-06,0.540
-5.450E-06,0.540
-5.440E-06,0.540
-5.430E-06,0.540
-5.420E-06,0.408
-5.410E-06,-0.152
-5.400E-06,-0.388
-5.390E-06,-0.432
-5.380E-06,-0.204
-5.370E-06,-0.100
-5.360E-06,-0.188
-5.350E-06,-0.372
-5.340E-06,-0.520
-5.330E-06,-0.516
-5.320E-06,-0.520
-5.310E-06,-0.516
-5.300E-06,-0.508
-5.290E-06,-0.448
-5.280E-06,-0.492
-5.270E-06,-0.516
-5.260E-06,-0.520
-5.250E-06,-0.516
-5.240E-06,-0.520
-5.230E-06,-0.424
-5.220E-06,-0.368
-5.210E-06,-0.276
-5.200E-06,-0.320
-5.190E-06,-0.316
-5.180E-06,-0.376
-5.170E-06,-0.376
-5.160E-06,-0.344
-5.150E-06,-0.260
-5.140E-06,-0.164
-5.130E-06,-0.064
-5.120E-06,-0.080
-5.110E-06,-0.128
-5.100E-06,-0.172
-5.090E-06,-0.208
-5.080E-06,-0.152
-5.070E-06,0.012
-5.060E-06,0.100
-5.050E-06,0.268
-5.040E-06,0.536
-5.030E-06,0.068
-5.020E-06,0.092
-5.010E-06,0.472
-5.000E-06,0.544
-4.990E-06,0.544
-4.980E-06,0.540
-4.970E-06,0.544
-4.960E-06,0.540
-4.950E-06,0.540
-4.940E-06,0.380
-4.930E-06,0.332
-4.920E-06,0.232
-4.910E-06,0.348
-4.900E-06,0.376
-4.890E-06,0.008
-4.880E-06,-0.348
-4.870E-06,-0.524
-4.860E-06,-0.520
-4.850E-06,-0.516
-4.840E-06,-0.448
-4.830E-06,-0.360
-4.820E-06,-0.436
-4.810E-06,-0.516
-4.800E-06,-0.520
-4.790E-06,-0.516
-4.780E-06,-0.520
-4.770E-06,-0.444
-4.760E-06,-0.520
-4.750E-06,-0.524
-4.740E-06,-0.520
-4.730E-06,-0.320
-4.720E-06,0.540
-4.710E-06,0.544
-4.700E-06,0.540
-4.690E-06,0.540
-4.680E-06,0.192
-4.670E-06,-0.164
-4.660E-06,-0.032
-4.650E-06,0.112
-4.640E-06,0.444
-4.630E-06,0.540
-4.620E-06,0.360
-4.610E-06,0.000
-4.600E-06,-0.268
-4.590E-06,-0.364
-4.580E-06,-0.224
-4.570E-06,-0.020
-4.560E-06,0.100
-4.550E-06,0.048
-4.540E-06,-0.032
-4.530E-06,-0.204
-4.520E-06,-0.232
-4.510E-06,-0.228
-4.500E-06,-0.124
-4.490E-06,-0.080
-4.480E-06,-0.056
-4.470E-06,-0.112
-4.460E-06,-0.232
-4.450E-06,-0.312
-4.440E-06,-0.316
-4.430E-06,-0.252
-4.420E-06,-0.192
-4.410E-06,-0.172
-4.400E-06,-0.232
-4.390E-06,-0.296
-4.380E-06,-0.352
-4.370E-06,-0.388
-4.360E-06,-0.368
-4.350E-06,-0.252
-4.340E-06,-0.220
-4.330E-06,-0.140
-4.320E-06,-0.168
-4.310E-06,-0.048
-4.300E-06,-0.176
-4.290E-06,-0.284
-4.280E-06,-0.180
-4.270E-06,0.108
-4.260E-06,0.544
-4.250E-06,0.540
-4.240E-06,0.544
-4.230E-06,0.540
-4.220E-06,0.536
-4.210E-06,0.144
-4.200E-06,0.544
-4.190E-06,0.544
-4.180E-06,0.540
-4.170E-06,0.544
-4.160E-06,0.276
-4.150E-06,0.208
-4.140E-06,0.072
-4.130E-06,-0.220
-4.120E-06,-0.040
-4.110E-06,0.068
-4.100E-06,0.016
-4.090E-06,-0.080
-4.080E-06,-0.316
-4.070E-06,-0.452
-4.060E-06,-0.416
-4.050E-06,-0.404
-4.040E-06,-0.356
-4.030E-06,-0.316
-4.020E-06,-0.264
-4.010E-06,-0.276
-4.000E-06,-0.312
-3.990E-06,-0.332
-3.980E-06,-0.372
-3.970E-06,-0.352
-3.960E-06,-0.328
-3.950E-06,-0.276
-3.940E-06,-0.320
-3.930E-06,-0.340
-3.920E-06,-0.344
-3.910E-06,-0.336
-3.900E-06,-0.248
-3.890E-06,-0.100
-3.880E-06,-0.004
-3.870E-06,0.004
-3.860E-06,-0.048
-3.850E-06,-0.096
-3.840E-06,-0.116
-3.830E-06,-0.044
-3.820E-06,0.012
-3.810E-06,0.080
-3.800E-06,0.120
-3.790E-06,0.128
-3.780E-06,0.012
-3.770E-06,-0.300
-3.760E-06,-0.172
-3.750E-06,-0.180
-3.740E-06,0.200
-3.730E-06,0.540
-3.720E-06,0.536
-3.710E-06,0.540
-3.700E-06,0.540
-3.690E-06,0.540
-3.680E-06,0.400
-3.670E-06,0.244
-3.660E-06,0.244
-3.650E-06,0.496
-3.640E-06,0.472
-3.630E-06,0.328
-3.620E-06,0.080
-3.610E-06,-0.232
-3.600E-06,-0.404
-3.590E-06,-0.408
-3.580E-06,-0.348
-3.570E-06,-0.228
-3.560E-06,-0.200
-3.550E-06,-0.248
-3.540E-06,-0.352
-3.530E-06,-0.400
-3.520E-06,-0.416
-3.510E-06,-0.348
-3.500E-06,-0.268
-3.490E-06,-0.196
-3.480E-06,-0.184
-3.470E-06,-0.200
-3.460E-06,-0.208
-3.450E-06,-0.252
-3.440E-06,-0.208
-3.430E-06,-0.168
-3.420E-06,-0.084
-3.410E-06,-0.084
-3.400E-06,-0.100
-3.390E-06,-0.196
-3.380E-06,-0.284
-3.370E-06,-0.232
-3.360E-06,-0.280
-3.350E-06,-0.276
-3.340E-06,-0.136
-3.330E-06,0.000
-3.320E-06,0.220
-3.310E-06,0.352
-3.300E-06,0.236
-3.290E-06,-0.012
-3.280E-06,-0.356
-3.270E-06,-0.404
-3.260E-06,-0.080
-3.250E-06,0.052
-3.240E-06,0.472
-3.230E-06,0.464
-3.220E-06,0.544
-3.210E-06,0.540
-3.200E-06,0.540
-3.190E-06,0.316
-3.180E-06,0.192
-3.170E-06,0.196
-3.160E-06,0.536
-3.150E-06,0.540
-3.140E-06,0.540
-3.130E-06,0.372
-3.120E-06,-0.244
-3.110E-06,-0.444
-3.100E-06,-0.208
-3.090E-06,-0.164
-3.080E-06,-0.108
-3.070E-06,0.128
-3.060E-06,-0.044
-3.050E-06,-0.328
-3.040E-06,-0.456
-3.030E-06,-0.480
-3.020E-06,-0.272
-3.010E-06,-0.048
-3.000E-06,-0.092
-2.990E-06,-0.144
-2.980E-06,-0.236
-2.970E-06,-0.272
-2.960E-06,-0.288
-2.950E-06,-0.228
-2.940E-06,-0.232
-2.930E-06,-0.200
-2.920E-06,-0.156
-2.910E-06,-0.164
-2.900E-06,-0.296
-2.890E-06,-0.364
-2.880E-06,-0.376
-2.870E-06,-0.300
-2.860E-06,-0.260
-2.850E-06,-0.192
-2.840E-06,-0.180
-2.830E-06,-0.188
-2.820E-06,-0.276
-2.810E-06,-0.364
-2.800E-06,-0.448
-2.790E-06,-0.380
-2.780E-06,-0.276
-2.770E-06,-0.336
-2.760E-06,-0.132
-2.750E-06,0.052
-2.740E-06,0.252
-2.730E-06,0.480
-2.720E-06,0.544
-2.710E-06,-0.136
-2.700E-06,0.060
-2.690E-06,-0.196
-2.680E-06,-0.300
-2.670E-06,0.540
-2.660E-06,0.540
-2.650E-06,0.536
-2.640E-06,0.540
-2.630E-06,0.544
-2.620E-06,0.540
-2.610E-06,0.424
-2.600E-06,-0.020
-2.590E-06,0.504
-2.580E-06,0.540
-2.570E-06,0.452
-2.560E-06,0.316
-2.550E-06,0.012
-2.540E-06,-0.364
-2.530E-06,-0.448
-2.520E-06,-0.512
-2.510E-06,-0.416
-2.500E-06,-0.248
-2.490E-06,-0.264
-2.480E-06,-0.400
-2.470E-06,-0.488
-2.460E-06,-0.520
-2.450E-06,-0.520
-2.440E-06,-0.524
-2.430E-06,-0.520
-2.420E-06,-0.520
-2.410E-06,-0.524
-2.400E-06,-0.520
-2.390E-06,-0.516
-2.380E-06,-0.520
-2.370E-06,-0.520
-2.360E-06,-0.140
-2.350E-06,0.248
-2.340E-06,0.536
-2.330E-06,0.144
-2.320E-06,-0.256
-2.310E-06,-0.472
-2.300E-06,-0.080
-2.290E-06,0.544
-2.280E-06,0.544
-2.270E-06,0.540
-2.260E-06,0.544
-2.250E-06,0.544
-2.240E-06,0.540
-2.230E-06,0.240
-2.220E-06,0.144
-2.210E-06,0.184
-2.200E-06,0.312
-2.190E-06,0.532
-2.180E-06,0.544
-2.170E-06,0.236
-2.160E-06,0.020
-2.150E-06,-0.084
-2.140E-06,-0.160
-2.130E-06,-0.120
-2.120E-06,-0.032
-2.110E-06,-0.004
-2.100E-06,-0.044
-2.090E-06,-0.184
-2.080E-06,-0.396
-2.070E-06,-0.484
-2.060E-06,-0.460
-2.050E-06,-0.404
-2.040E-06,-0.348
-2.030E-06,-0.408
-2.020E-06,-0.520
-2.010E-06,-0.524
-2.000E-06,-0.520
-1.990E-06,-0.516
-1.980E-06,-0.520
-1.970E-06,-0.516
-1.960E-06,-0.476
-1.950E-06,-0.432
-1.940E-06,-0.400
-1.930E-06,-0.472
-1.920E-06,-0.472
-1.910E-06,-0.212
-1.900E-06,-0.068
-1.890E-06,0.292
-1.880E-06,0.348
-1.870E-06,0.212
-1.860E-06,0.008
-1.850E-06,-0.268
-1.840E-06,-0.280
-1.830E-06,-0.040
-1.820E-06,0.276
-1.810E-06,0.372
-1.800E-06,0.520
-1.790E-06,0.364
-1.780E-06,0.348
-1.770E-06,0.364
-1.760E-06,0.540
-1.750E-06,0.544
-1.740E-06,0.540
-1.730E-06,0.136
-1.720E-06,-0.520
-1.710E-06,-0.520
-1.700E-06,-0.520
-1.690E-06,0.540
-1.680E-06,0.540
-1.670E-06,0.540
-1.660E-06,0.544
-1.650E-06,0.308
-1.640E-06,-0.448
-1.630E-06,-0.128
-1.620E-06,0.504
-1.610E-06,0.540
-1.600E-06,0.544
-1.590E-06,0.544
-1.580E-06,-0.120
-1.570E-06,-0.520
-1.560E-06,-0.520
-1.550E-06,-0.524
-1.540E-06,-0.308
-1.530E-06,0.028
-1.520E-06,-0.128
-1.510E-06,-0.504
-1.500E-06,-0.516
-1.490E-06,-0.520
-1.480E-06,-0.524
-1.470E-06,-0.516
-1.460E-06,-0.392
-1.450E-06,-0.300
-1.440E-06,-0.280
-1.430E-06,-0.460
-1.420E-06,-0.520
-1.410E-06,-0.524
-1.400E-06,-0.524
-1.390E-06,-0.464
-1.380E-06,-0.304
-1.370E-06,-0.192
-1.360E-06,-0.248
-1.350E-06,-0.300
-1.340E-06,-0.352
-1.330E-06,-0.280
-1.320E-06,-0.196
-1.310E-06,-0.116
-1.300E-06,-0.104
-1.290E-06,-0.064
-1.280E-06,-0.096
-1.270E-06,-0.112
-1.260E-06,-0.192
-1.250E-06,-0.280
-1.240E-06,-0.288
-1.230E-06,-0.292
-1.220E-06,-0.208
-1.210E-06,-0.012
-1.200E-06,0.108
-1.190E-06,0.324
-1.180E-06,0.332
-1.170E-06,0.288
-1.160E-06,0.140
-1.150E-06,-0.028
-1.140E-06,-0.204
-1.130E-06,-0.192
-1.120E-06,-0.152
-1.110E-06,-0.028
-1.100E-06,0.040
-1.090E-06,-0.052
-1.080E-06,-0.224
-1.070E-06,-0.408
-1.060E-06,-0.524
-1.050E-06,-0.524
-1.040E-06,-0.500
-1.030E-06,-0.468
-1.020E-06,0.452
-1.010E-06,0.540
-1.000E-06,0.536
-9.900E-07,0.540
-9.800E-07,0.540
-9.700E-07,0.536
-9.600E-07,0.540
-9.500E-07,0.284
-9.400E-07,0.440
-9.300E-07,0.540
-9.200E-07,0.536
-9.100E-07,0.540
-9.000E-07,0.540
-8.900E-07,0.304
-8.800E-07,-0.516
-8.700E-07,-0.524
-8.600E-07,-0.516
-8.500E-07,-0.376
-8.400E-07,0.048
-8.300E-07,0.244
-8.200E-07,-0.524
-8.100E-07,-0.520
-8.000E-07,-0.516
-7.900E-07,-0.520
-7.800E-07,-0.524
-7.700E-07,-0.516
-7.600E-07,-0.104
-7.500E-07,0.540
-7.400E-07,0.536
-7.300E-07,0.540
-7.200E-07,0.540
-7.100E-07,0.544
-7.000E-07,0.484
-6.900E-07,0.048
-6.800E-07,0.208
-6.700E-07,0.408
-6.600E-07,0.544
-6.500E-07,0.524
-6.400E-07,0.004
-6.300E-07,-0.516
-6.200E-07,-0.516
-6.100E-07,-0.520
-6.000E-07,-0.276
-5.900E-07,-0.068
-5.800E-07,-0.068
-5.700E-07,-0.308
-5.600E-07,-0.520
-5.500E-07,-0.524
-5.400E-07,-0.524
-5.300E-07,-0.524
-5.200E-07,-0.516
-5.100E-07,-0.516
-5.000E-07,-0.520
-4.900E-07,-0.516
-4.800E-07,-0.520
-4.700E-07,-0.524
-4.600E-07,-0.520
-4.500E-07,-0.524
-4.400E-07,-0.516
-4.300E-07,-0.520
-4.200E-07,-0.524
-4.100E-07,-0.520
-4.000E-07,-0.516
-3.900E-07,-0.516
-3.800E-07,-0.520
-3.700E-07,-0.516
-3.600E-07,-0.300
-3.500E-07,-0.208
-3.400E-07,-0.336
-3.300E-07,-0.520
-3.200E-07,-0.520
-3.100E-07,-0.524
-3.000E-07,-0.160
-2.900E-07,0.540
-2.800E-07,0.544
-2.700E-07,0.540
-2.600E-07,0.540
-2.500E-07,0.536
-2.400E-07,0.540
-2.300E-07,0.540
-2.200E-07,0.384
-2.100E-07,0.092
-2.000E-07,-0.520
-1.900E-07,-0.520
-1.800E-07,-0.520
-1.700E-07,-0.348
-1.600E-07,0.376
-1.500E-07,0.540
-1.400E-07,0.536
-1.300E-07,0.540
-1.200E-07,0.540
-1.100E-07,0.536
-1.000E-07,0.540
-9.000E-08,0.540
-8.000E-08,0.540
-7.000E-08,-0.152
-6.000E-08,-0.516
-5.000E-08,-0.300
-4.000E-08,0.540
-3.000E-08,0.540
-2.000E-08,0.540
-1.000E-08,0.536
0.000E+00,0.540
1.000E-08,0.540
2.000E-08,0.540
3.000E-08,0.544
4.000E-08,0.172
5.000E-08,-0.520
6.000E-08,-0.520
7.000E-08,-0.524
8.000E-08,-0.520
9.000E-08,-0.516
1.000E-07,-0.520
1.100E-07,-0.524
1.200E-07,-0.520
1.300E-07,-0.516
1.400E-07,-0.520
1.500E-07,-0.520
1.600E-07,0.068
1.700E-07,0.540
1.800E-07,0.540
1.900E-07,0.536
2.000E-07,0.540
2.100E-07,0.544
2.200E-07,-0.520
2.300E-07,-0.524
2.400E-07,-0.520
2.500E-07,-0.524
2.600E-07,-0.524
2.700E-07,-0.400
2.800E-07,0.540
2.900E-07,0.540
3.000E-07,0.536
3.100E-07,0.540
3.200E-07,0.544
3.300E-07,0.540
3.400E-07,0.544
3.500E-07,0.540
3.600E-07,0.540
3.700E-07,0.052
3.800E-07,-0.524
3.900E-07,-0.516
4.000E-07,-0.520
4.100E-07,-0.524
4.200E-07,-0.520
4.300E-07,-0.520
4.400E-07,-0.520
4.500E-07,-0.524
4.600E-07,-0.520
4.700E-07,-0.524
4.800E-07,-0.524
4.900E-07,-0.524
5.000E-07,0.132
5.100E-07,0.540
5.200E-07,0.540
5.300E-07,0.540
5.400E-07,0.536
5.500E-07,0.540
5.600E-07,0.540
5.700E-07,0.536
5.800E-07,0.540
5.900E-07,0.544
6.000E-07,0.540
6.100E-07,0.536
6.200E-07,0.540
6.300E-07,0.540
6.400E-07,0.540
6.500E-07,0.544
6.600E-07,0.544
6.700E-07,0.540
6.800E-07,0.544
6.900E-07,0.540
7.000E-07,0.544
7.100E-07,0.540
7.200E-07,0.540
7.300E-07,0.540
7.400E-07,0.544
7.500E-07,0.540
7.600E-07,0.536
7.700E-07,0.540
7.800E-07,0.540
7.900E-07,0.544
8.000E-07,0.268
8.100E-07,0.100
8.200E-07,-0.048
8.300E-07,-0.200
8.400E-07,-0.244
8.500E-07,-0.252
8.600E-07,-0.312
8.700E-07,-0.376
8.800E-07,-0.516
8.900E-07,-0.516
9.000E-07,-0.520
9.100E-07,-0.516
9.200E-07,-0.520
9.300E-07,-0.516
9.400E-07,-0.452
9.500E-07,-0.176
9.600E-07,0.008
9.700E-07,0.136
9.800E-07,0.256
9.900E-07,0.432
1.000E-06,0.540
1.010E-06,0.540
1.020E-06,0.540
1.030E-06,0.540
1.040E-06,0.540
1.050E-06,0.540
1.060E-06,0.540
1.070E-06,0.536
1.080E-06,0.540
1.090E-06,0.544
1.100E-06,0.540
1.110E-06,0.536
1.120E-06,0.540
1.130E-06,0.300
1.140E-06,0.208
1.150E-06,0.300
1.160E-06,0.516
1.170E-06,0.540
1.180E-06,0.544
1.190E-06,0.540
1.200E-06,0.540
1.210E-06,0.536
1.220E-06,0.540
1.230E-06,0.544
1.240E-06,0.540
1.250E-06,0.540
1.260E-06,0.536
1.270E-06,0.540
1.280E-06,0.544
1.290E-06,0.540
1.300E-06,0.544
1.310E-06,0.540
1.320E-06,0.540
1.330E-06,0.540
1.340E-06,0.544
1.350E-06,0.544
1.360E-06,0.540
1.370E-06,0.544
1.380E-06,0.540
1.390E-06,0.544
1.400E-06,0.540
1.410E-06,0.544
1.420E-06,0.540
1.430E-06,0.544
1.440E-06,0.540
1.450E-06,0.540
1.460E-06,0.540
1.470E-06,0.540
1.480E-06,0.544
1.490E-06,0.544
1.500E-06,0.540
1.510E-06,0.540
1.520E-06,0.540
1.530E-06,0.528
1.540E-06,0.520
1.550E-06,0.512
1.560E-06,0.484
1.570E-06,0.452
1.580E-06,0.392
1.590E-06,0.332
1.600E-06,0.264
1.610E-06,0.200
1.620E-06,0.160
1.630E-06,0.108
1.640E-06,0.064
1.650E-06,0.084
1.660E-06,0.140
1.670E-06,0.212
1.680E-06,0.304
1.690E-06,0.444
1.700E-06,0.540
1.710E-06,0.544
1.720E-06,0.540
1.730E-06,0.544
1.740E-06,0.540
1.750E-06,0.540
1.760E-06,0.544
1.770E-06,0.540
1.780E-06,0.536
1.790E-06,0.540
1.800E-06,0.540
1.810E-06,0.540
1.820E-06,0.540
1.830E-06,0.540
1.840E-06,0.540
1.850E-06,0.544
1.860E-06,0.544
1.870E-06,0.540
1.880E-06,0.544
1.890E-06,0.540
1.900E-06,0.544
1.910E-06,0.540
1.920E-06,0.540
1.930E-06,0.540
1.940E-06,0.536
1.950E-06,0.540
1.960E-06,0.544
1.970E-06,0.544
1.980E-06,0.540
1.990E-06,0.544
2.000E-06,0.544
2.010E-06,0.540
2.020E-06,0.540
2.030E-06,0.500
2.040E-06,0.460
2.050E-06,0.400
2.060E-06,0.344
2.070E-06,0.284
2.080E-06,0.228
2.090E-06,0.240
2.100E-06,0.300
2.110E-06,0.388
2.120E-06,0.476
2.130E-06,0.540
2.140E-06,0.540
2.150E-06,0.540
2.160E-06,0.464
2.170E-06,0.344
2.180E-06,0.268
2.190E-06,0.212
2.200E-06,0.200
2.210E-06,0.180
2.220E-06,0.160
2.230E-06,0.136
2.240E-06,0.144
2.250E-06,0.164
2.260E-06,0.188
2.270E-06,0.192
2.280E-06,0.180
2.290E-06,0.148
2.300E-06,0.104
2.310E-06,0.080
2.320E-06,0.076
2.330E-06,0.232
2.340E-06,0.396
2.350E-06,0.540
2.360E-06,0.536
2.370E-06,0.540
2.380E-06,0.540
2.390E-06,0.544
2.400E-06,0.496
2.410E-06,0.244
2.420E-06,-0.052
2.430E-06,-0.332
2.440E-06,-0.520
2.450E-06,-0.516
2.460E-06,-0.520
2.470E-06,-0.520
2.480E-06,-0.520
2.490E-06,-0.524
2.500E-06,-0.428
2.510E-06,-0.232
2.520E-06,-0.024
2.530E-06,0.136
2.540E-06,0.224
2.550E-06,0.240
2.560E-06,0.200
2.570E-06,0.104
2.580E-06,-0.024
2.590E-06,-0.128
2.600E-06,-0.200
2.610E-06,-0.212
2.620E-06,-0.176
2.630E-06,-0.128
2.640E-06,-0.076
2.650E-06,-0.032
2.660E-06,0.020
2.670E-06,0.064
2.680E-06,0.084
2.690E-06,0.080
2.700E-06,0.068
2.710E-06,0.072
2.720E-06,0.068
2.730E-06,0.100
2.740E-06,0.148
2.750E-06,0.180
2.760E-06,0.224
2.770E-06,0.256
2.780E-06,0.316
2.790E-06,0.388
2.800E-06,0.460
2.810E-06,0.504
2.820E-06,0.516
2.830E-06,0.488
2.840E-06,0.400
2.850E-06,0.284
2.860E-06,0.152
2.870E-06,0.008
2.880E-06,-0.128
2.890E-06,-0.252
2.900E-06,-0.348
2.910E-06,-0.452
2.920E-06,-0.488
2.930E-06,-0.468
2.940E-06,-0.412
2.950E-06,-0.368
2.960E-06,-0.372
2.970E-06,-0.400
2.980E-06,-0.388
2.990E-06,-0.336
3.000E-06,-0.268
3.010E-06,-0.192
3.020E-06,-0.108
3.030E-06,-0.016
3.040E-06,0.080
3.050E-06,0.164
3.060E-06,0.244
3.070E-06,0.308
3.080E-06,0.360
3.090E-06,0.424
3.100E-06,0.492
3.110E-06,0.540
3.120E-06,0.540
3.130E-06,0.536
3.140E-06,0.540
3.150E-06,0.540
3.160E-06,0.544
3.170E-06,0.528
3.180E-06,0.372
3.190E-06,0.224
3.200E-06,0.044
3.210E-06,-0.180
3.220E-06,-0.404
3.230E-06,-0.516
3.240E-06,-0.520
3.250E-06,-0.520
3.260E-06,-0.512
3.270E-06,-0.492
3.280E-06,-0.440
3.290E-06,-0.356
3.300E-06,-0.280
3.310E-06,-0.220
3.320E-06,-0.176
3.330E-06,-0.104
3.340E-06,-0.048
3.350E-06,-0.024
3.360E-06,-0.036
3.370E-06,-0.072
3.380E-06,-0.100
3.390E-06,-0.076
3.400E-06,-0.032
3.410E-06,-0.024
3.420E-06,-0.032
3.430E-06,-0.024
3.440E-06,0.004
