mediciones/6-26/7.5/WaveData59154.csv

#timebase=2000000(ps)
,#voltbase=200000(mv/100)
#size=4000
-8.150E-06,0.000
-8.140E-06,0.000
-8.130E-06,0.008
-8.120E-06,0.008
-8.110E-06,0.008
-8.100E-06,0.000
-8.090E-06,-0.008
-8.080E-06,0.008
-8.070E-06,-0.008
-8.060E-06,0.000
-8.050E-06,0.000
-8.040E-06,0.000
-8.030E-06,0.008
-8.020E-06,0.000
-8.010E-06,0.000
-8.000E-06,0.008
-7.990E-06,0.000
-7.980E-06,-0.008
-7.970E-06,0.000
-7.960E-06,0.000
-7.950E-06,-0.008
-7.940E-06,0.000
-7.930E-06,0.016
-7.920E-06,-0.008
-7.910E-06,0.000
-7.900E-06,0.008
-7.890E-06,0.000
-7.880E-06,0.000
-7.870E-06,0.008
-7.860E-06,0.000
-7.850E-06,0.000
-7.840E-06,0.016
-7.830E-06,0.008
-7.820E-06,0.000
-7.810E-06,-0.008
-7.800E-06,0.008
-7.790E-06,-0.008
-7.780E-06,0.008
-7.770E-06,0.024
-7.760E-06,0.016
-7.750E-06,0.000
-7.740E-06,-0.008
-7.730E-06,0.000
-7.720E-06,0.000
-7.710E-06,0.000
-7.700E-06,0.008
-7.690E-06,0.008
-7.680E-06,0.008
-7.670E-06,0.000
-7.660E-06,-0.008
-7.650E-06,0.000
-7.640E-06,0.000
-7.630E-06,0.000
-7.620E-06,0.000
-7.610E-06,0.008
-7.600E-06,0.008
-7.590E-06,0.000
-7.580E-06,0.000
-7.570E-06,0.000
-7.560E-06,-0.016
-7.550E-06,-0.016
-7.540E-06,0.000
-7.530E-06,-0.008
-7.520E-06,0.016
-7.510E-06,0.016
-7.500E-06,-0.008
-7.490E-06,0.024
-7.480E-06,-0.024
-7.470E-06,0.016
-7.460E-06,-0.048
-7.450E-06,0.032
-7.440E-06,-0.008
-7.430E-06,0.016
-7.420E-06,0.016
-7.410E-06,-0.088
-7.400E-06,0.048
-7.390E-06,-0.080
-7.380E-06,0.008
-7.370E-06,-0.048
-7.360E-06,-0.016
-7.350E-06,0.056
-7.340E-06,0.056
-7.330E-06,0.056
-7.320E-06,0.032
-7.310E-06,0.032
-7.300E-06,-0.096
-7.290E-06,-0.048
-7.280E-06,0.008
-7.270E-06,0.032
-7.260E-06,0.040
-7.250E-06,0.088
-7.240E-06,0.016
-7.230E-06,-0.040
-7.220E-06,-0.024
-7.210E-06,-0.024
-7.200E-06,-0.008
-7.190E-06,0.016
-7.180E-06,0.064
-7.170E-06,0.032
-7.160E-06,0.032
-7.150E-06,-0.008
-7.140E-06,-0.016
-7.130E-06,-0.016
-7.120E-06,0.008
-7.110E-06,0.024
-7.100E-06,0.024
-7.090E-06,0.040
-7.080E-06,0.024
-7.070E-06,0.024
-7.060E-06,-0.024
-7.050E-06,-0.016
-7.040E-06,0.000
-7.030E-06,0.008
-7.020E-06,0.024
-7.010E-06,0.032
-7.000E-06,0.024
-6.990E-06,0.016
-6.980E-06,0.008
-6.970E-06,0.000
-6.960E-06,0.016
-6.950E-06,0.024
-6.940E-06,0.056
-6.930E-06,0.048
-6.920E-06,0.064
-6.910E-06,0.040
-6.900E-06,0.008
-6.890E-06,-0.032
-6.880E-06,-0.056
-6.870E-06,-0.048
-6.860E-06,-0.008
-6.850E-06,0.048
-6.840E-06,0.056
-6.830E-06,0.056
-6.820E-06,-0.008
-6.810E-06,-0.016
-6.800E-06,-0.080
-6.790E-06,-0.072
-6.780E-06,-0.016
-6.770E-06,0.000
-6.760E-06,0.072
-6.750E-06,0.048
-6.740E-06,0.048
-6.730E-06,-0.008
-6.720E-06,-0.024
-6.710E-06,-0.048
-6.700E-06,-0.016
-6.690E-06,0.048
-6.680E-06,0.064
-6.670E-06,0.048
-6.660E-06,0.008
-6.650E-06,-0.008
-6.640E-06,-0.024
-6.630E-06,-0.008
-6.620E-06,-0.008
-6.610E-06,0.008
-6.600E-06,0.016
-6.590E-06,0.016
-6.580E-06,0.008
-6.570E-06,0.008
-6.560E-06,0.000
-6.550E-06,0.000
-6.540E-06,-0.008
-6.530E-06,0.016
-6.520E-06,0.008
-6.510E-06,0.008
-6.500E-06,0.016
-6.490E-06,0.000
-6.480E-06,0.008
-6.470E-06,0.000
-6.460E-06,0.000
-6.450E-06,0.000
-6.440E-06,0.024
-6.430E-06,0.048
-6.420E-06,0.016
-6.410E-06,0.008
-6.400E-06,-0.032
-6.390E-06,-0.040
-6.380E-06,-0.016
-6.370E-06,0.008
-6.360E-06,0.048
-6.350E-06,0.048
-6.340E-06,0.016
-6.330E-06,-0.008
-6.320E-06,-0.016
-6.310E-06,0.016
-6.300E-06,0.072
-6.290E-06,0.136
-6.280E-06,0.176
-6.270E-06,0.088
-6.260E-06,-0.064
-6.250E-06,-0.112
-6.240E-06,-0.080
-6.230E-06,-0.440
-6.220E-06,-0.136
-6.210E-06,0.040
-6.200E-06,0.152
-6.190E-06,0.416
-6.180E-06,0.216
-6.170E-06,0.112
-6.160E-06,-0.208
-6.150E-06,-0.344
-6.140E-06,-0.360
-6.130E-06,-0.040
-6.120E-06,0.192
-6.110E-06,0.320
-6.100E-06,0.240
-6.090E-06,0.072
-6.080E-06,-0.144
-6.070E-06,-0.232
-6.060E-06,-0.208
-6.050E-06,-0.112
-6.040E-06,0.072
-6.030E-06,0.200
-6.020E-06,0.240
-6.010E-06,0.088
-6.000E-06,-0.040
-5.990E-06,-0.144
-5.980E-06,-0.152
-5.970E-06,-0.096
-5.960E-06,0.016
-5.950E-06,0.088
-5.940E-06,0.144
-5.930E-06,0.120
-5.920E-06,0.056
-5.910E-06,-0.056
-5.900E-06,-0.112
-5.890E-06,-0.080
-5.880E-06,-0.024
-5.870E-06,0.048
-5.860E-06,0.104
-5.850E-06,0.120
-5.840E-06,0.048
-5.830E-06,-0.008
-5.820E-06,-0.088
-5.810E-06,-0.088
-5.800E-06,-0.024
-5.790E-06,0.024
-5.780E-06,0.096
-5.770E-06,0.104
-5.760E-06,0.056
-5.750E-06,0.000
-5.740E-06,-0.064
-5.730E-06,-0.072
-5.720E-06,-0.032
-5.710E-06,0.032
-5.700E-06,0.064
-5.690E-06,0.096
-5.680E-06,0.072
-5.670E-06,0.016
-5.660E-06,-0.008
-5.650E-06,-0.008
-5.640E-06,0.056
-5.630E-06,0.112
-5.620E-06,0.176
-5.610E-06,0.096
-5.600E-06,0.024
-5.590E-06,-0.072
-5.580E-06,-0.480
-5.570E-06,-0.248
-5.560E-06,-0.216
-5.550E-06,0.288
-5.540E-06,0.136
-5.530E-06,0.320
-5.520E-06,0.168
-5.510E-06,-0.112
-5.500E-06,-0.280
-5.490E-06,-0.328
-5.480E-06,-0.120
-5.470E-06,0.104
-5.460E-06,0.288
-5.450E-06,0.240
-5.440E-06,0.072
-5.430E-06,-0.080
-5.420E-06,-0.152
-5.410E-06,-0.160
-5.400E-06,-0.072
-5.390E-06,0.048
-5.380E-06,0.144
-5.370E-06,0.152
-5.360E-06,0.112
-5.350E-06,-0.008
-5.340E-06,-0.088
-5.330E-06,-0.120
-5.320E-06,-0.048
-5.310E-06,0.000
-5.300E-06,0.064
-5.290E-06,0.104
-5.280E-06,0.064
-5.270E-06,0.024
-5.260E-06,-0.024
-5.250E-06,-0.048
-5.240E-06,-0.056
-5.230E-06,-0.008
-5.220E-06,0.048
-5.210E-06,0.088
-5.200E-06,0.056
-5.190E-06,0.032
-5.180E-06,-0.016
-5.170E-06,-0.024
-5.160E-06,-0.032
-5.150E-06,-0.008
-5.140E-06,0.040
-5.130E-06,0.072
-5.120E-06,0.096
-5.110E-06,0.072
-5.100E-06,0.056
-5.090E-06,0.056
-5.080E-06,0.016
-5.070E-06,-0.016
-5.060E-06,-0.080
-5.050E-06,-0.304
-5.040E-06,-0.304
-5.030E-06,-0.088
-5.020E-06,0.008
-5.010E-06,0.328
-5.000E-06,0.264
-4.990E-06,0.256
-4.980E-06,-0.080
-4.970E-06,-0.264
-4.960E-06,-0.264
-4.950E-06,-0.184
-4.940E-06,0.096
-4.930E-06,0.216
-4.920E-06,0.248
-4.910E-06,0.144
-4.900E-06,-0.016
-4.890E-06,-0.136
-4.880E-06,-0.168
-4.870E-06,-0.072
-4.860E-06,0.056
-4.850E-06,0.200
-4.840E-06,0.192
-4.830E-06,0.128
-4.820E-06,0.008
-4.810E-06,-0.072
-4.800E-06,-0.080
-4.790E-06,-0.096
-4.780E-06,-0.112
-4.770E-06,-0.160
-4.760E-06,0.016
-4.750E-06,-0.048
-4.740E-06,0.128
-4.730E-06,0.192
-4.720E-06,0.080
-4.710E-06,-0.008
-4.700E-06,-0.120
-4.690E-06,-0.144
-4.680E-06,-0.080
-4.670E-06,0.032
-4.660E-06,0.136
-4.650E-06,0.128
-4.640E-06,0.056
-4.630E-06,-0.056
-4.620E-06,-0.104
-4.610E-06,-0.080
-4.600E-06,-0.016
-4.590E-06,0.048
-4.580E-06,0.112
-4.570E-06,0.088
-4.560E-06,0.032
-4.550E-06,-0.032
-4.540E-06,-0.056
-4.530E-06,-0.048
-4.520E-06,-0.008
-4.510E-06,0.032
-4.500E-06,0.064
-4.490E-06,0.064
-4.480E-06,0.056
-4.470E-06,0.000
-4.460E-06,-0.008
-4.450E-06,-0.016
-4.440E-06,-0.008
-4.430E-06,0.032
-4.420E-06,0.056
-4.410E-06,0.072
-4.400E-06,0.072
-4.390E-06,0.016
-4.380E-06,-0.008
-4.370E-06,-0.016
-4.360E-06,-0.024
-4.350E-06,0.008
-4.340E-06,0.040
-4.330E-06,0.120
-4.320E-06,0.064
-4.310E-06,-0.064
-4.300E-06,-0.216
-4.290E-06,-0.152
-4.280E-06,-0.008
-4.270E-06,-0.048
-4.260E-06,0.072
-4.250E-06,0.064
-4.240E-06,0.016
-4.230E-06,0.056
-4.220E-06,-0.144
-4.210E-06,-0.008
-4.200E-06,0.048
-4.190E-06,0.048
-4.180E-06,0.048
-4.170E-06,-0.008
-4.160E-06,-0.008
-4.150E-06,-0.024
-4.140E-06,-0.008
-4.130E-06,0.008
-4.120E-06,0.016
-4.110E-06,0.040
-4.100E-06,0.008
-4.090E-06,0.024
-4.080E-06,0.016
-4.070E-06,0.008
-4.060E-06,0.016
-4.050E-06,-0.008
-4.040E-06,-0.008
-4.030E-06,-0.008
-4.020E-06,0.000
-4.010E-06,0.016
-4.000E-06,0.032
-3.990E-06,0.024
-3.980E-06,0.032
-3.970E-06,0.032
-3.960E-06,0.000
-3.950E-06,-0.016
-3.940E-06,-0.024
-3.930E-06,0.008
-3.920E-06,0.016
-3.910E-06,0.056
-3.900E-06,0.064
-3.890E-06,0.056
-3.880E-06,0.048
-3.870E-06,0.000
-3.860E-06,-0.008
-3.850E-06,-0.008
-3.840E-06,0.008
-3.830E-06,0.016
-3.820E-06,0.048
-3.810E-06,0.056
-3.800E-06,-0.008
-3.790E-06,-0.032
-3.780E-06,-0.176
-3.770E-06,-0.112
-3.760E-06,-0.016
-3.750E-06,-0.016
-3.740E-06,0.160
-3.730E-06,0.072
-3.720E-06,0.072
-3.710E-06,0.024
-3.700E-06,-0.104
-3.690E-06,-0.120
-3.680E-06,-0.080
-3.670E-06,0.048
-3.660E-06,0.088
-3.650E-06,0.080
-3.640E-06,0.048
-3.630E-06,-0.024
-3.620E-06,-0.032
-3.610E-06,-0.064
-3.600E-06,-0.024
-3.590E-06,0.008
-3.580E-06,0.048
-3.570E-06,0.056
-3.560E-06,0.040
-3.550E-06,0.016
-3.540E-06,-0.048
-3.530E-06,-0.024
-3.520E-06,-0.024
-3.510E-06,0.024
-3.500E-06,0.024
-3.490E-06,0.048
-3.480E-06,0.040
-3.470E-06,0.024
-3.460E-06,0.000
-3.450E-06,-0.016
-3.440E-06,0.000
-3.430E-06,0.008
-3.420E-06,0.048
-3.410E-06,0.056
-3.400E-06,0.080
-3.390E-06,0.104
-3.380E-06,0.040
-3.370E-06,0.008
-3.360E-06,-0.048
-3.350E-06,-0.088
-3.340E-06,-0.064
-3.330E-06,-0.016
-3.320E-06,0.080
-3.310E-06,0.128
-3.300E-06,0.088
-3.290E-06,0.064
-3.280E-06,0.000
-3.270E-06,-0.080
-3.260E-06,-0.144
-3.250E-06,-0.128
-3.240E-06,0.056
-3.230E-06,0.008
-3.220E-06,0.040
-3.210E-06,0.064
-3.200E-06,-0.136
-3.190E-06,-0.400
-3.180E-06,-0.224
-3.170E-06,0.184
-3.160E-06,0.328
-3.150E-06,0.256
-3.140E-06,-0.040
-3.130E-06,-0.104
-3.120E-06,-0.056
-3.110E-06,-0.016
-3.100E-06,-0.024
-3.090E-06,-0.032
-3.080E-06,0.008
-3.070E-06,0.088
-3.060E-06,0.104
-3.050E-06,0.024
-3.040E-06,-0.064
-3.030E-06,-0.048
-3.020E-06,-0.008
-3.010E-06,0.048
-3.000E-06,0.040
-2.990E-06,0.008
-2.980E-06,0.032
-2.970E-06,0.040
-2.960E-06,0.016
-2.950E-06,-0.048
-2.940E-06,-0.032
-2.930E-06,-0.008
-2.920E-06,0.024
-2.910E-06,0.056
-2.900E-06,0.048
-2.890E-06,0.056
-2.880E-06,0.032
-2.870E-06,0.000
-2.860E-06,-0.008
-2.850E-06,0.008
-2.840E-06,0.024
-2.830E-06,0.048
-2.820E-06,0.088
-2.810E-06,0.112
-2.800E-06,0.096
-2.790E-06,0.040
-2.780E-06,-0.016
-2.770E-06,-0.080
-2.760E-06,-0.080
-2.750E-06,-0.048
-2.740E-06,0.056
-2.730E-06,-0.048
-2.720E-06,0.016
-2.710E-06,0.072
-2.700E-06,-0.336
-2.690E-06,-0.016
-2.680E-06,-0.344
-2.670E-06,0.024
-2.660E-06,0.024
-2.650E-06,0.112
-2.640E-06,0.176
-2.630E-06,-0.224
-2.620E-06,0.016
-2.610E-06,0.032
-2.600E-06,0.048
-2.590E-06,0.032
-2.580E-06,-0.016
-2.570E-06,-0.048
-2.560E-06,0.008
-2.550E-06,0.048
-2.540E-06,0.008
-2.530E-06,-0.040
-2.520E-06,0.024
-2.510E-06,-0.008
-2.500E-06,0.032
-2.490E-06,0.056
-2.480E-06,0.032
-2.470E-06,0.056
-2.460E-06,0.072
-2.450E-06,0.088
-2.440E-06,0.072
-2.430E-06,0.056
-2.420E-06,-0.008
-2.410E-06,0.000
-2.400E-06,-0.048
-2.390E-06,-0.104
-2.380E-06,-0.024
-2.370E-06,0.064
-2.360E-06,0.184
-2.350E-06,0.056
-2.340E-06,0.064
-2.330E-06,-0.160
-2.320E-06,-0.168
-2.310E-06,-0.080
-2.300E-06,-0.040
-2.290E-06,0.064
-2.280E-06,0.016
-2.270E-06,0.040
-2.260E-06,-0.088
-2.250E-06,0.024
-2.240E-06,0.056
-2.230E-06,-0.008
-2.220E-06,0.024
-2.210E-06,-0.008
-2.200E-06,-0.008
-2.190E-06,0.008
-2.180E-06,-0.008
-2.170E-06,-0.024
-2.160E-06,0.000
-2.150E-06,0.024
-2.140E-06,0.032
-2.130E-06,0.040
-2.120E-06,0.008
-2.110E-06,-0.024
-2.100E-06,-0.016
-2.090E-06,-0.016
-2.080E-06,-0.008
-2.070E-06,0.016
-2.060E-06,0.048
-2.050E-06,0.040
-2.040E-06,0.016
-2.030E-06,0.000
-2.020E-06,-0.016
-2.010E-06,0.024
-2.000E-06,0.016
-1.990E-06,0.048
-1.980E-06,0.080
-1.970E-06,0.104
-1.960E-06,0.088
-1.950E-06,-0.008
-1.940E-06,-0.056
-1.930E-06,-0.128
-1.920E-06,0.000
-1.910E-06,0.008
-1.900E-06,0.128
-1.890E-06,0.152
-1.880E-06,0.120
-1.870E-06,0.096
-1.860E-06,0.000
-1.850E-06,0.000
-1.840E-06,-0.072
-1.830E-06,-0.016
-1.820E-06,-0.112
-1.810E-06,-0.072
-1.800E-06,-0.152
-1.790E-06,-0.208
-1.780E-06,-0.016
-1.770E-06,0.200
-1.760E-06,0.344
-1.750E-06,0.288
-1.740E-06,0.056
-1.730E-06,-0.544
-1.720E-06,-0.504
-1.710E-06,-0.216
-1.700E-06,0.176
-1.690E-06,0.480
-1.680E-06,0.360
-1.670E-06,0.152
-1.660E-06,-0.264
-1.650E-06,-0.384
-1.640E-06,-0.480
-1.630E-06,-0.008
-1.620E-06,0.168
-1.610E-06,0.296
-1.600E-06,0.264
-1.590E-06,0.072
-1.580E-06,-0.032
-1.570E-06,-0.136
-1.560E-06,-0.168
-1.550E-06,-0.144
-1.540E-06,-0.032
-1.530E-06,0.120
-1.520E-06,0.144
-1.510E-06,0.152
-1.500E-06,0.048
-1.490E-06,-0.040
-1.480E-06,-0.104
-1.470E-06,-0.088
-1.460E-06,-0.024
-1.450E-06,0.032
-1.440E-06,0.080
-1.430E-06,0.112
-1.420E-06,0.088
-1.410E-06,-0.008
-1.400E-06,-0.064
-1.390E-06,-0.080
-1.380E-06,-0.040
-1.370E-06,0.008
-1.360E-06,0.080
-1.350E-06,0.088
-1.340E-06,0.096
-1.330E-06,0.032
-1.320E-06,-0.016
-1.310E-06,-0.048
-1.300E-06,-0.016
-1.290E-06,0.040
-1.280E-06,0.112
-1.270E-06,0.168
-1.260E-06,0.176
-1.250E-06,0.104
-1.240E-06,0.008
-1.230E-06,-0.064
-1.220E-06,-0.096
-1.210E-06,-0.056
-1.200E-06,0.024
-1.190E-06,0.104
-1.180E-06,0.152
-1.170E-06,0.160
-1.160E-06,0.088
-1.150E-06,0.024
-1.140E-06,0.008
-1.130E-06,-0.008
-1.120E-06,0.064
-1.110E-06,0.096
-1.100E-06,0.072
-1.090E-06,-0.008
-1.080E-06,-0.056
-1.070E-06,-0.248
-1.060E-06,-0.344
-1.050E-06,-0.184
-1.040E-06,-0.032
-1.030E-06,0.160
-1.020E-06,0.128
-1.010E-06,0.120
-1.000E-06,0.072
-9.900E-07,-0.032
-9.800E-07,0.040
-9.700E-07,-0.120
-9.600E-07,-0.208
-9.500E-07,0.008
-9.400E-07,-0.040
-9.300E-07,0.176
-9.200E-07,0.112
-9.100E-07,0.032
-9.000E-07,-0.080
-8.900E-07,-0.048
-8.800E-07,-0.008
-8.700E-07,0.072
-8.600E-07,0.176
-8.500E-07,0.096
-8.400E-07,0.104
-8.300E-07,0.048
-8.200E-07,-0.056
-8.100E-07,0.016
-8.000E-07,-0.112
-7.900E-07,0.064
-7.800E-07,-0.024
-7.700E-07,0.024
-7.600E-07,-0.152
-7.500E-07,-0.168
-7.400E-07,-0.008
-7.300E-07,-0.008
-7.200E-07,0.152
-7.100E-07,0.112
-7.000E-07,0.064
-6.900E-07,0.064
-6.800E-07,-0.032
-6.700E-07,-0.064
-6.600E-07,-0.160
-6.500E-07,-0.136
-6.400E-07,-0.056
-6.300E-07,0.104
-6.200E-07,0.200
-6.100E-07,0.184
-6.000E-07,0.064
-5.900E-07,-0.056
-5.800E-07,-0.088
-5.700E-07,-0.064
-5.600E-07,0.016
-5.500E-07,0.120
-5.400E-07,0.208
-5.300E-07,0.216
-5.200E-07,0.176
-5.100E-07,0.104
-5.000E-07,0.056
-4.900E-07,0.080
-4.800E-07,0.104
-4.700E-07,0.128
-4.600E-07,0.136
-4.500E-07,0.160
-4.400E-07,0.120
-4.300E-07,0.144
-4.200E-07,0.056
-4.100E-07,0.096
-4.000E-07,0.064
-3.900E-07,0.184
-3.800E-07,0.192
-3.700E-07,0.112
-3.600E-07,0.112
-3.500E-07,-0.040
-3.400E-07,-0.016
-3.300E-07,0.128
-3.200E-07,0.208
-3.100E-07,0.512
-3.000E-07,0.264
-2.900E-07,0.272
-2.800E-07,0.048
-2.700E-07,-0.248
-2.600E-07,-0.048
-2.500E-07,-0.280
-2.400E-07,-0.128
-2.300E-07,-0.280
-2.200E-07,-0.240
-2.100E-07,0.176
-2.000E-07,-0.016
-1.900E-07,0.160
-1.800E-07,0.320
-1.700E-07,0.128
-1.600E-07,-0.008
-1.500E-07,-0.120
-1.400E-07,-0.392
-1.300E-07,-0.728
-1.200E-07,-0.432
-1.100E-07,0.040
-1.000E-07,0.336
-9.000E-08,0.416
-8.000E-08,0.056
-7.000E-08,0.016
-6.000E-08,-0.608
-5.000E-08,-0.424
-4.000E-08,-0.168
-3.000E-08,-0.216
-2.000E-08,0.408
-1.000E-08,0.312
0.000E+00,0.584
1.000E-08,0.176
2.000E-08,-0.128
3.000E-08,-0.328
4.000E-08,-0.648
5.000E-08,-0.232
6.000E-08,0.016
7.000E-08,0.520
8.000E-08,0.696
9.000E-08,0.480
1.000E-07,0.408
1.100E-07,0.000
1.200E-07,-0.304
1.300E-07,-0.440
1.400E-07,-0.344
1.500E-07,0.072
1.600E-07,0.288
1.700E-07,0.528
1.800E-07,0.472
1.900E-07,0.360
2.000E-07,0.016
2.100E-07,-0.120
2.200E-07,-0.168
2.300E-07,-0.168
2.400E-07,-0.096
2.500E-07,-0.272
2.600E-07,-0.280
2.700E-07,-0.400
2.800E-07,-0.216
2.900E-07,-0.240
3.000E-07,0.064
3.100E-07,0.112
3.200E-07,0.112
3.300E-07,0.120
3.400E-07,0.000
3.500E-07,-0.056
3.600E-07,0.016
3.700E-07,0.176
3.800E-07,0.240
3.900E-07,0.360
4.000E-07,0.384
4.100E-07,0.288
4.200E-07,0.248
4.300E-07,0.232
4.400E-07,0.224
4.500E-07,0.264
4.600E-07,0.368
4.700E-07,0.368
4.800E-07,0.384
4.900E-07,0.336
5.000E-07,0.280
5.100E-07,0.224
5.200E-07,0.200
5.300E-07,0.200
5.400E-07,0.224
5.500E-07,0.240
5.600E-07,0.264
5.700E-07,0.264
5.800E-07,0.264
5.900E-07,0.272
6.000E-07,0.264
6.100E-07,0.272
6.200E-07,0.288
6.300E-07,0.296
6.400E-07,0.304
6.500E-07,0.280
6.600E-07,0.288
6.700E-07,0.248
6.800E-07,0.264
6.900E-07,0.248
7.000E-07,0.264
7.100E-07,0.288
7.200E-07,0.280
7.300E-07,0.248
7.400E-07,0.224
7.500E-07,0.248
7.600E-07,0.256
7.700E-07,0.280
7.800E-07,0.280
7.900E-07,0.280
8.000E-07,0.296
8.100E-07,0.280
8.200E-07,0.264
8.300E-07,0.256
8.400E-07,0.248
8.500E-07,0.280
8.600E-07,0.272
8.700E-07,0.288
8.800E-07,0.272
8.900E-07,0.272
9.000E-07,0.288
9.100E-07,0.280
9.200E-07,0.304
9.300E-07,0.280
9.400E-07,0.280
9.500E-07,0.248
9.600E-07,0.248
9.700E-07,0.256
9.800E-07,0.248
9.900E-07,0.288
1.000E-06,0.296
1.010E-06,0.280
1.020E-06,0.272
1.030E-06,0.272
1.040E-06,0.280
1.050E-06,0.280
1.060E-06,0.288
1.070E-06,0.288
1.080E-06,0.288
1.090E-06,0.288
1.100E-06,0.272
1.110E-06,0.264
1.120E-06,0.272
1.130E-06,0.296
1.140E-06,0.320
1.150E-06,0.328
1.160E-06,0.320
1.170E-06,0.336
1.180E-06,0.320
1.190E-06,0.320
1.200E-06,0.288
1.210E-06,0.280
1.220E-06,0.296
1.230E-06,0.304
1.240E-06,0.320
1.250E-06,0.312
1.260E-06,0.304
1.270E-06,0.296
1.280E-06,0.296
1.290E-06,0.280
1.300E-06,0.304
1.310E-06,0.320
1.320E-06,0.320
1.330E-06,0.312
1.340E-06,0.312
1.350E-06,0.320
1.360E-06,0.312
1.370E-06,0.288
1.380E-06,0.288
1.390E-06,0.304
1.400E-06,0.312
1.410E-06,0.320
1.420E-06,0.312
1.430E-06,0.296
1.440E-06,0.296
1.450E-06,0.280
1.460E-06,0.296
1.470E-06,0.304
1.480E-06,0.304
1.490E-06,0.312
1.500E-06,0.312
1.510E-06,0.304
1.520E-06,0.296
1.530E-06,0.288
1.540E-06,0.280
1.550E-06,0.296
1.560E-06,0.288
1.570E-06,0.296
1.580E-06,0.312
1.590E-06,0.312
1.600E-06,0.296
1.610E-06,0.280
1.620E-06,0.288
1.630E-06,0.296
1.640E-06,0.288
1.650E-06,0.296
1.660E-06,0.296
1.670E-06,0.288
1.680E-06,0.272
1.690E-06,0.288
1.700E-06,0.280
1.710E-06,0.288
1.720E-06,0.264
1.730E-06,0.296
1.740E-06,0.296
1.750E-06,0.288
1.760E-06,0.280
1.770E-06,0.272
1.780E-06,0.264
1.790E-06,0.272
1.800E-06,0.272
1.810E-06,0.272
1.820E-06,0.280
1.830E-06,0.288
1.840E-06,0.296
1.850E-06,0.288
1.860E-06,0.288
1.870E-06,0.272
1.880E-06,0.264
1.890E-06,0.256
1.900E-06,0.264
1.910E-06,0.264
1.920E-06,0.280
1.930E-06,0.280
1.940E-06,0.272
1.950E-06,0.264
1.960E-06,0.248
1.970E-06,0.248
1.980E-06,0.248
1.990E-06,0.256
2.000E-06,0.272
2.010E-06,0.272
2.020E-06,0.264
2.030E-06,0.256
2.040E-06,0.248
2.050E-06,0.248
2.060E-06,0.264
2.070E-06,0.272
2.080E-06,0.280
2.090E-06,0.288
2.100E-06,0.288
2.110E-06,0.264
2.120E-06,0.256
2.130E-06,0.216
2.140E-06,0.248
2.150E-06,0.264
2.160E-06,0.280
2.170E-06,0.272
2.180E-06,0.264
2.190E-06,0.248
2.200E-06,0.232
2.210E-06,0.224
2.220E-06,0.240
2.230E-06,0.248
2.240E-06,0.264
2.250E-06,0.264
2.260E-06,0.256
2.270E-06,0.240
2.280E-06,0.232
2.290E-06,0.232
2.300E-06,0.240
2.310E-06,0.248
2.320E-06,0.256
2.330E-06,0.264
2.340E-06,0.256
2.350E-06,0.216
2.360E-06,0.200
2.370E-06,0.184
2.380E-06,0.200
2.390E-06,0.216
2.400E-06,0.240
2.410E-06,0.256
2.420E-06,0.264
2.430E-06,0.264
2.440E-06,0.248
2.450E-06,0.224
2.460E-06,0.216
2.470E-06,0.240
2.480E-06,0.240
2.490E-06,0.256
2.500E-06,0.264
2.510E-06,0.256
2.520E-06,0.248
2.530E-06,0.216
2.540E-06,0.224
2.550E-06,0.224
2.560E-06,0.240
2.570E-06,0.240
2.580E-06,0.256
2.590E-06,0.256
2.600E-06,0.248
2.610E-06,0.248
2.620E-06,0.224
2.630E-06,0.216
2.640E-06,0.208
2.650E-06,0.208
2.660E-06,0.224
2.670E-06,0.216
2.680E-06,0.224
2.690E-06,0.224
2.700E-06,0.224
2.710E-06,0.216
2.720E-06,0.216
2.730E-06,0.224
2.740E-06,0.240
2.750E-06,0.248
2.760E-06,0.240
2.770E-06,0.224
2.780E-06,0.224
2.790E-06,0.216
2.800E-06,0.208
2.810E-06,0.216
2.820E-06,0.216
2.830E-06,0.216
2.840E-06,0.224
2.850E-06,0.216
2.860E-06,0.208
2.870E-06,0.208
2.880E-06,0.208
2.890E-06,0.208
2.900E-06,0.216
2.910E-06,0.224
2.920E-06,0.224
2.930E-06,0.208
2.940E-06,0.216
2.950E-06,0.200
2.960E-06,0.192
2.970E-06,0.192
2.980E-06,0.200
2.990E-06,0.208
3.000E-06,0.200
3.010E-06,0.200
3.020E-06,0.200
3.030E-06,0.200
3.040E-06,0.200
3.050E-06,0.208
3.060E-06,0.216
3.070E-06,0.216
3.080E-06,0.216
3.090E-06,0.208
3.100E-06,0.192
3.110E-06,0.200
3.120E-06,0.200
3.130E-06,0.200
3.140E-06,0.192
3.150E-06,0.184
3.160E-06,0.192
3.170E-06,0.192
3.180E-06,0.192
3.190E-06,0.192
3.200E-06,0.184
3.210E-06,0.192
3.220E-06,0.192
3.230E-06,0.184
3.240E-06,0.184
3.250E-06,0.184
3.260E-06,0.192
3.270E-06,0.192
3.280E-06,0.184
3.290E-06,0.184
3.300E-06,0.184
3.310E-06,0.176
3.320E-06,0.184
3.330E-06,0.176
3.340E-06,0.184
3.350E-06,0.192
3.360E-06,0.184
3.370E-06,0.184
3.380E-06,0.176
3.390E-06,0.176
3.400E-06,0.176
3.410E-06,0.184
3.420E-06,0.184
3.430E-06,0.176
3.440E-06,0.168
3.450E-06,0.168
3.460E-06,0.160
3.470E-06,0.168
3.480E-06,0.184
3.490E-06,0.184
3.500E-06,0.192
3.510E-06,0.176
3.520E-06,0.160
3.530E-06,0.152
3.540E-06,0.152
3.550E-06,0.168
3.560E-06,0.184
3.570E-06,0.184
3.580E-06,0.184
