mediciones/6-26/7.5/WaveData59153.csv

#timebase=2000000(ps)
,#voltbase=100000(mv/100)
#size=4000
-8.150E-06,0.000
-8.140E-06,0.000
-8.130E-06,0.000
-8.120E-06,0.000
-8.110E-06,0.008
-8.100E-06,0.000
-8.090E-06,0.000
-8.080E-06,0.000
-8.070E-06,-0.004
-8.060E-06,0.004
-8.050E-06,-0.004
-8.040E-06,0.000
-8.030E-06,0.000
-8.020E-06,0.004
-8.010E-06,0.000
-8.000E-06,0.008
-7.990E-06,0.000
-7.980E-06,0.004
-7.970E-06,-0.004
-7.960E-06,0.000
-7.950E-06,0.004
-7.940E-06,0.004
-7.930E-06,0.004
-7.920E-06,0.004
-7.910E-06,0.000
-7.900E-06,0.004
-7.890E-06,0.000
-7.880E-06,0.000
-7.870E-06,0.000
-7.860E-06,0.000
-7.850E-06,-0.004
-7.840E-06,-0.004
-7.830E-06,0.004
-7.820E-06,0.000
-7.810E-06,0.000
-7.800E-06,0.000
-7.790E-06,0.000
-7.780E-06,0.004
-7.770E-06,0.004
-7.760E-06,0.000
-7.750E-06,0.004
-7.740E-06,0.004
-7.730E-06,0.008
-7.720E-06,0.008
-7.710E-06,-0.004
-7.700E-06,0.000
-7.690E-06,0.004
-7.680E-06,0.004
-7.670E-06,0.008
-7.660E-06,0.008
-7.650E-06,0.008
-7.640E-06,-0.004
-7.630E-06,0.004
-7.620E-06,0.000
-7.610E-06,0.004
-7.600E-06,0.008
-7.590E-06,0.004
-7.580E-06,0.008
-7.570E-06,-0.004
-7.560E-06,-0.004
-7.550E-06,0.004
-7.540E-06,0.004
-7.530E-06,0.008
-7.520E-06,0.008
-7.510E-06,0.008
-7.500E-06,-0.004
-7.490E-06,0.000
-7.480E-06,0.004
-7.470E-06,0.004
-7.460E-06,0.004
-7.450E-06,-0.004
-7.440E-06,0.000
-7.430E-06,0.004
-7.420E-06,-0.004
-7.410E-06,-0.004
-7.400E-06,0.004
-7.390E-06,0.000
-7.380E-06,0.000
-7.370E-06,-0.004
-7.360E-06,0.000
-7.350E-06,-0.004
-7.340E-06,0.004
-7.330E-06,0.000
-7.320E-06,0.004
-7.310E-06,0.000
-7.300E-06,0.004
-7.290E-06,0.004
-7.280E-06,0.004
-7.270E-06,0.000
-7.260E-06,0.000
-7.250E-06,0.004
-7.240E-06,0.000
-7.230E-06,0.004
-7.220E-06,0.008
-7.210E-06,-0.004
-7.200E-06,-0.004
-7.190E-06,0.004
-7.180E-06,-0.004
-7.170E-06,-0.004
-7.160E-06,0.004
-7.150E-06,0.004
-7.140E-06,0.004
-7.130E-06,0.000
-7.120E-06,0.004
-7.110E-06,0.004
-7.100E-06,0.000
-7.090E-06,0.004
-7.080E-06,0.004
-7.070E-06,0.004
-7.060E-06,0.004
-7.050E-06,0.004
-7.040E-06,0.004
-7.030E-06,0.004
-7.020E-06,0.004
-7.010E-06,0.000
-7.000E-06,0.004
-6.990E-06,0.004
-6.980E-06,-0.004
-6.970E-06,0.000
-6.960E-06,0.000
-6.950E-06,0.004
-6.940E-06,0.004
-6.930E-06,0.000
-6.920E-06,0.004
-6.910E-06,0.004
-6.900E-06,0.000
-6.890E-06,0.004
-6.880E-06,0.004
-6.870E-06,0.004
-6.860E-06,0.000
-6.850E-06,0.004
-6.840E-06,0.000
-6.830E-06,0.004
-6.820E-06,0.000
-6.810E-06,0.000
-6.800E-06,0.000
-6.790E-06,0.004
-6.780E-06,0.000
-6.770E-06,0.004
-6.760E-06,0.000
-6.750E-06,0.004
-6.740E-06,0.004
-6.730E-06,0.000
-6.720E-06,0.004
-6.710E-06,0.004
-6.700E-06,0.012
-6.690E-06,0.008
-6.680E-06,0.000
-6.670E-06,0.000
-6.660E-06,0.004
-6.650E-06,-0.004
-6.640E-06,0.000
-6.630E-06,0.008
-6.620E-06,0.000
-6.610E-06,0.000
-6.600E-06,0.004
-6.590E-06,0.004
-6.580E-06,0.004
-6.570E-06,0.004
-6.560E-06,0.000
-6.550E-06,0.004
-6.540E-06,0.004
-6.530E-06,0.004
-6.520E-06,0.000
-6.510E-06,0.004
-6.500E-06,0.000
-6.490E-06,0.004
-6.480E-06,0.004
-6.470E-06,0.000
-6.460E-06,0.000
-6.450E-06,0.000
-6.440E-06,0.004
-6.430E-06,0.000
-6.420E-06,0.008
-6.410E-06,0.004
-6.400E-06,0.000
-6.390E-06,-0.004
-6.380E-06,0.004
-6.370E-06,0.000
-6.360E-06,0.004
-6.350E-06,0.000
-6.340E-06,0.004
-6.330E-06,0.000
-6.320E-06,0.000
-6.310E-06,0.004
-6.300E-06,0.004
-6.290E-06,0.000
-6.280E-06,0.004
-6.270E-06,0.000
-6.260E-06,0.004
-6.250E-06,0.004
-6.240E-06,0.000
-6.230E-06,0.004
-6.220E-06,0.000
-6.210E-06,0.004
-6.200E-06,0.004
-6.190E-06,0.004
-6.180E-06,0.000
-6.170E-06,0.000
-6.160E-06,0.000
-6.150E-06,0.004
-6.140E-06,0.004
-6.130E-06,0.004
-6.120E-06,0.004
-6.110E-06,-0.004
-6.100E-06,0.004
-6.090E-06,0.004
-6.080E-06,-0.004
-6.070E-06,0.004
-6.060E-06,0.004
-6.050E-06,0.004
-6.040E-06,0.000
-6.030E-06,0.000
-6.020E-06,0.000
-6.010E-06,0.000
-6.000E-06,0.004
-5.990E-06,0.000
-5.980E-06,0.000
-5.970E-06,0.000
-5.960E-06,0.004
-5.950E-06,0.004
-5.940E-06,0.004
-5.930E-06,0.004
-5.920E-06,0.004
-5.910E-06,-0.004
-5.900E-06,0.004
-5.890E-06,0.008
-5.880E-06,0.000
-5.870E-06,0.004
-5.860E-06,0.004
-5.850E-06,0.004
-5.840E-06,0.004
-5.830E-06,0.000
-5.820E-06,0.004
-5.810E-06,0.008
-5.800E-06,0.000
-5.790E-06,0.004
-5.780E-06,0.004
-5.770E-06,0.004
-5.760E-06,0.004
-5.750E-06,0.000
-5.740E-06,0.004
-5.730E-06,0.004
-5.720E-06,0.008
-5.710E-06,0.008
-5.700E-06,0.000
-5.690E-06,0.008
-5.680E-06,0.004
-5.670E-06,0.004
-5.660E-06,0.004
-5.650E-06,0.004
-5.640E-06,0.004
-5.630E-06,-0.004
-5.620E-06,-0.004
-5.610E-06,0.004
-5.600E-06,0.008
-5.590E-06,-0.004
-5.580E-06,-0.004
-5.570E-06,0.000
-5.560E-06,-0.004
-5.550E-06,0.000
-5.540E-06,0.004
-5.530E-06,0.004
-5.520E-06,0.004
-5.510E-06,0.004
-5.500E-06,0.000
-5.490E-06,0.000
-5.480E-06,0.004
-5.470E-06,0.004
-5.460E-06,0.000
-5.450E-06,0.000
-5.440E-06,0.000
-5.430E-06,0.000
-5.420E-06,0.000
-5.410E-06,0.004
-5.400E-06,0.000
-5.390E-06,0.000
-5.380E-06,0.004
-5.370E-06,0.000
-5.360E-06,0.004
-5.350E-06,0.008
-5.340E-06,0.004
-5.330E-06,0.004
-5.320E-06,-0.004
-5.310E-06,0.000
-5.300E-06,0.004
-5.290E-06,0.000
-5.280E-06,0.004
-5.270E-06,0.008
-5.260E-06,-0.004
-5.250E-06,-0.004
-5.240E-06,0.000
-5.230E-06,0.004
-5.220E-06,0.000
-5.210E-06,0.000
-5.200E-06,-0.004
-5.190E-06,0.004
-5.180E-06,0.000
-5.170E-06,0.000
-5.160E-06,0.000
-5.150E-06,-0.004
-5.140E-06,0.000
-5.130E-06,-0.004
-5.120E-06,0.000
-5.110E-06,0.004
-5.100E-06,0.000
-5.090E-06,-0.004
-5.080E-06,0.004
-5.070E-06,0.000
-5.060E-06,0.000
-5.050E-06,0.004
-5.040E-06,0.004
-5.030E-06,0.000
-5.020E-06,0.000
-5.010E-06,0.000
-5.000E-06,0.000
-4.990E-06,0.000
-4.980E-06,0.000
-4.970E-06,0.000
-4.960E-06,0.000
-4.950E-06,0.004
-4.940E-06,0.004
-4.930E-06,0.004
-4.920E-06,-0.004
-4.910E-06,-0.004
-4.900E-06,0.000
-4.890E-06,0.004
-4.880E-06,0.004
-4.870E-06,0.004
-4.860E-06,0.004
-4.850E-06,0.004
-4.840E-06,0.004
-4.830E-06,0.004
-4.820E-06,0.000
-4.810E-06,0.000
-4.800E-06,0.000
-4.790E-06,0.000
-4.780E-06,0.000
-4.770E-06,0.000
-4.760E-06,0.000
-4.750E-06,0.000
-4.740E-06,0.004
-4.730E-06,-0.004
-4.720E-06,0.000
-4.710E-06,0.000
-4.700E-06,0.000
-4.690E-06,0.008
-4.680E-06,0.000
-4.670E-06,0.000
-4.660E-06,0.000
-4.650E-06,0.000
-4.640E-06,0.008
-4.630E-06,0.000
-4.620E-06,0.004
-4.610E-06,0.000
-4.600E-06,0.004
-4.590E-06,0.000
-4.580E-06,-0.004
-4.570E-06,0.000
-4.560E-06,0.000
-4.550E-06,0.004
-4.540E-06,0.000
-4.530E-06,0.000
-4.520E-06,0.000
-4.510E-06,0.004
-4.500E-06,0.000
-4.490E-06,0.004
-4.480E-06,0.004
-4.470E-06,0.004
-4.460E-06,0.000
-4.450E-06,0.000
-4.440E-06,0.008
-4.430E-06,0.000
-4.420E-06,-0.004
-4.410E-06,0.004
-4.400E-06,0.008
-4.390E-06,0.000
-4.380E-06,0.008
-4.370E-06,0.004
-4.360E-06,0.000
-4.350E-06,0.000
-4.340E-06,0.000
-4.330E-06,0.000
-4.320E-06,0.004
-4.310E-06,0.004
-4.300E-06,0.008
-4.290E-06,0.004
-4.280E-06,0.004
-4.270E-06,-0.004
-4.260E-06,0.000
-4.250E-06,0.000
-4.240E-06,0.000
-4.230E-06,0.000
-4.220E-06,0.000
-4.210E-06,0.004
-4.200E-06,0.004
-4.190E-06,-0.004
-4.180E-06,-0.004
-4.170E-06,-0.008
-4.160E-06,-0.024
-4.150E-06,0.004
-4.140E-06,0.108
-4.130E-06,0.444
-4.120E-06,0.540
-4.110E-06,0.540
-4.100E-06,0.540
-4.090E-06,0.540
-4.080E-06,0.540
-4.070E-06,0.100
-4.060E-06,-0.520
-4.050E-06,-0.516
-4.040E-06,-0.520
-4.030E-06,-0.516
-4.020E-06,-0.520
-4.010E-06,-0.524
-4.000E-06,-0.516
-3.990E-06,-0.516
-3.980E-06,-0.520
-3.970E-06,-0.516
-3.960E-06,-0.264
-3.950E-06,0.544
-3.940E-06,0.540
-3.930E-06,0.544
-3.920E-06,0.512
-3.910E-06,0.292
-3.900E-06,0.240
-3.890E-06,0.464
-3.880E-06,0.540
-3.870E-06,0.540
-3.860E-06,0.536
-3.850E-06,0.540
-3.840E-06,0.448
-3.830E-06,0.448
-3.820E-06,0.464
-3.810E-06,0.544
-3.800E-06,0.500
-3.790E-06,0.360
-3.780E-06,-0.004
-3.770E-06,-0.256
-3.760E-06,-0.400
-3.750E-06,-0.464
-3.740E-06,-0.368
-3.730E-06,-0.284
-3.720E-06,-0.148
-3.710E-06,-0.024
-3.700E-06,0.032
-3.690E-06,0.184
-3.680E-06,0.396
-3.670E-06,0.540
-3.660E-06,0.536
-3.650E-06,0.540
-3.640E-06,0.540
-3.630E-06,0.520
-3.620E-06,0.352
-3.610E-06,0.188
-3.600E-06,0.016
-3.590E-06,-0.136
-3.580E-06,-0.252
-3.570E-06,-0.380
-3.560E-06,-0.524
-3.550E-06,-0.520
-3.540E-06,-0.520
-3.530E-06,-0.520
-3.520E-06,-0.520
-3.510E-06,-0.524
-3.500E-06,-0.520
-3.490E-06,-0.516
-3.480E-06,-0.520
-3.470E-06,-0.400
-3.460E-06,-0.180
-3.450E-06,0.020
-3.440E-06,0.216
-3.430E-06,0.416
-3.420E-06,0.540
-3.410E-06,0.536
-3.400E-06,0.540
-3.390E-06,0.540
-3.380E-06,0.540
-3.370E-06,0.536
-3.360E-06,0.456
-3.350E-06,0.376
-3.340E-06,0.244
-3.330E-06,0.084
-3.320E-06,-0.016
-3.310E-06,-0.120
-3.300E-06,-0.148
-3.290E-06,-0.072
-3.280E-06,-0.008
-3.270E-06,0.016
-3.260E-06,-0.056
-3.250E-06,-0.208
-3.240E-06,-0.276
-3.230E-06,-0.336
-3.220E-06,-0.304
-3.210E-06,-0.124
-3.200E-06,-0.004
-3.190E-06,0.180
-3.180E-06,-0.200
-3.170E-06,0.044
-3.160E-06,0.136
-3.150E-06,0.100
-3.140E-06,0.436
-3.130E-06,0.500
-3.120E-06,0.160
-3.110E-06,0.248
-3.100E-06,0.032
-3.090E-06,0.220
-3.080E-06,0.320
-3.070E-06,0.152
-3.060E-06,0.188
-3.050E-06,0.000
-3.040E-06,-0.168
-3.030E-06,-0.124
-3.020E-06,-0.028
-3.010E-06,-0.024
-3.000E-06,0.068
-2.990E-06,-0.028
-2.980E-06,-0.068
-2.970E-06,-0.136
-2.960E-06,-0.172
-2.950E-06,-0.080
-2.940E-06,-0.040
-2.930E-06,-0.092
-2.920E-06,-0.100
-2.910E-06,-0.200
-2.900E-06,-0.060
-2.890E-06,-0.064
-2.880E-06,-0.004
-2.870E-06,0.052
-2.860E-06,-0.008
-2.850E-06,-0.096
-2.840E-06,-0.052
-2.830E-06,-0.056
-2.820E-06,-0.004
-2.810E-06,0.044
-2.800E-06,0.044
-2.790E-06,0.036
-2.780E-06,-0.008
-2.770E-06,-0.056
-2.760E-06,-0.032
-2.750E-06,-0.020
-2.740E-06,-0.012
-2.730E-06,-0.012
-2.720E-06,-0.012
-2.710E-06,-0.024
-2.700E-06,-0.028
-2.690E-06,-0.024
-2.680E-06,0.012
-2.670E-06,0.032
-2.660E-06,0.060
-2.650E-06,0.076
-2.640E-06,0.052
-2.630E-06,0.088
-2.620E-06,0.092
-2.610E-06,0.088
-2.600E-06,0.200
-2.590E-06,0.100
-2.580E-06,0.112
-2.570E-06,0.128
-2.560E-06,0.080
-2.550E-06,0.132
-2.540E-06,0.192
-2.530E-06,0.160
-2.520E-06,0.116
-2.510E-06,0.052
-2.500E-06,0.000
-2.490E-06,0.004
-2.480E-06,-0.004
-2.470E-06,0.000
-2.460E-06,0.000
-2.450E-06,-0.064
-2.440E-06,-0.112
-2.430E-06,-0.140
-2.420E-06,-0.144
-2.410E-06,-0.132
-2.400E-06,-0.096
-2.390E-06,-0.080
-2.380E-06,-0.080
-2.370E-06,-0.056
-2.360E-06,-0.044
-2.350E-06,-0.008
-2.340E-06,0.032
-2.330E-06,0.048
-2.320E-06,0.080
-2.310E-06,0.096
-2.300E-06,0.100
-2.290E-06,0.088
-2.280E-06,0.096
-2.270E-06,0.132
-2.260E-06,0.168
-2.250E-06,0.216
-2.240E-06,0.236
-2.230E-06,0.192
-2.220E-06,0.112
-2.210E-06,0.044
-2.200E-06,0.008
-2.190E-06,0.036
-2.180E-06,0.036
-2.170E-06,0.036
-2.160E-06,0.004
-2.150E-06,-0.036
-2.140E-06,-0.064
-2.130E-06,-0.080
-2.120E-06,-0.108
-2.110E-06,-0.084
-2.100E-06,-0.052
-2.090E-06,-0.020
-2.080E-06,-0.016
-2.070E-06,0.012
-2.060E-06,-0.108
-2.050E-06,-0.100
-2.040E-06,-0.052
-2.030E-06,0.012
-2.020E-06,0.084
-2.010E-06,0.052
-2.000E-06,0.012
-1.990E-06,-0.036
-1.980E-06,-0.056
-1.970E-06,-0.076
-1.960E-06,-0.040
-1.950E-06,0.008
-1.940E-06,-0.032
-1.930E-06,-0.060
-1.920E-06,-0.044
-1.910E-06,-0.104
-1.900E-06,-0.104
-1.890E-06,-0.064
-1.880E-06,-0.132
-1.870E-06,-0.288
-1.860E-06,-0.516
-1.850E-06,-0.520
-1.840E-06,-0.524
-1.830E-06,-0.516
-1.820E-06,-0.520
-1.810E-06,-0.520
-1.800E-06,0.040
-1.790E-06,0.540
-1.780E-06,0.544
-1.770E-06,0.540
-1.760E-06,0.536
-1.750E-06,0.540
-1.740E-06,0.540
-1.730E-06,0.536
-1.720E-06,0.540
-1.710E-06,0.544
-1.700E-06,0.540
-1.690E-06,0.544
-1.680E-06,0.540
-1.670E-06,0.476
-1.660E-06,0.240
-1.650E-06,-0.028
-1.640E-06,-0.248
-1.630E-06,-0.396
-1.620E-06,-0.484
-1.610E-06,-0.516
-1.600E-06,-0.480
-1.590E-06,-0.484
-1.580E-06,-0.448
-1.570E-06,-0.392
-1.560E-06,-0.316
-1.550E-06,-0.220
-1.540E-06,-0.104
-1.530E-06,-0.012
-1.520E-06,0.064
-1.510E-06,0.152
-1.500E-06,0.212
-1.490E-06,0.284
-1.480E-06,0.336
-1.470E-06,0.352
-1.460E-06,0.312
-1.450E-06,0.188
-1.440E-06,0.004
-1.430E-06,-0.188
-1.420E-06,-0.328
-1.410E-06,-0.408
-1.400E-06,-0.436
-1.390E-06,-0.520
-1.380E-06,-0.516
-1.370E-06,-0.520
-1.360E-06,-0.516
-1.350E-06,-0.520
-1.340E-06,-0.476
-1.330E-06,-0.336
-1.320E-06,-0.192
-1.310E-06,-0.052
-1.300E-06,0.120
-1.290E-06,0.316
-1.280E-06,0.500
-1.270E-06,0.540
-1.260E-06,0.536
-1.250E-06,0.540
-1.240E-06,0.540
-1.230E-06,0.540
-1.220E-06,0.540
-1.210E-06,0.544
-1.200E-06,0.540
-1.190E-06,0.460
-1.180E-06,0.376
-1.170E-06,0.304
-1.160E-06,0.228
-1.150E-06,0.148
-1.140E-06,0.064
-1.130E-06,-0.012
-1.120E-06,-0.068
-1.110E-06,-0.104
-1.100E-06,-0.104
-1.090E-06,-0.064
-1.080E-06,0.000
-1.070E-06,0.060
-1.060E-06,0.084
-1.050E-06,0.144
-1.040E-06,0.224
-1.030E-06,0.332
-1.020E-06,0.400
-1.010E-06,0.492
-1.000E-06,0.508
-9.900E-07,0.480
-9.800E-07,0.460
-9.700E-07,0.432
-9.600E-07,0.416
-9.500E-07,0.344
-9.400E-07,0.336
-9.300E-07,0.304
-9.200E-07,0.080
-9.100E-07,-0.100
-9.000E-07,-0.036
-8.900E-07,-0.492
-8.800E-07,-0.520
-8.700E-07,-0.524
-8.600E-07,-0.520
-8.500E-07,-0.328
-8.400E-07,0.312
-8.300E-07,0.540
-8.200E-07,0.544
-8.100E-07,0.540
-8.000E-07,0.356
-7.900E-07,0.364
-7.800E-07,0.232
-7.700E-07,0.308
-7.600E-07,0.288
-7.500E-07,0.024
-7.400E-07,-0.080
-7.300E-07,0.168
-7.200E-07,0.404
-7.100E-07,0.544
-7.000E-07,0.540
-6.900E-07,0.544
-6.800E-07,0.544
-6.700E-07,0.540
-6.600E-07,0.540
-6.500E-07,0.536
-6.400E-07,0.348
-6.300E-07,0.080
-6.200E-07,-0.040
-6.100E-07,-0.096
-6.000E-07,-0.148
-5.900E-07,-0.364
-5.800E-07,-0.516
-5.700E-07,-0.520
-5.600E-07,-0.516
-5.500E-07,-0.520
-5.400E-07,-0.516
-5.300E-07,-0.520
-5.200E-07,-0.516
-5.100E-07,-0.520
-5.000E-07,-0.524
-4.900E-07,-0.472
-4.800E-07,-0.524
-4.700E-07,-0.512
-4.600E-07,-0.516
-4.500E-07,-0.520
-4.400E-07,-0.408
-4.300E-07,-0.344
-4.200E-07,-0.332
-4.100E-07,-0.360
-4.000E-07,-0.524
-3.900E-07,-0.520
-3.800E-07,-0.520
-3.700E-07,-0.524
-3.600E-07,-0.520
-3.500E-07,-0.516
-3.400E-07,-0.516
-3.300E-07,-0.320
-3.200E-07,-0.264
-3.100E-07,-0.456
-3.000E-07,-0.464
-2.900E-07,-0.364
-2.800E-07,-0.148
-2.700E-07,0.152
-2.600E-07,0.332
-2.500E-07,0.220
-2.400E-07,0.160
-2.300E-07,0.044
-2.200E-07,0.096
-2.100E-07,0.332
-2.000E-07,0.540
-1.900E-07,0.536
-1.800E-07,0.540
-1.700E-07,0.540
-1.600E-07,0.540
-1.500E-07,0.544
-1.400E-07,0.540
-1.300E-07,0.540
-1.200E-07,0.540
-1.100E-07,0.536
-1.000E-07,0.540
-9.000E-08,0.544
-8.000E-08,0.540
-7.000E-08,0.540
-6.000E-08,0.540
-5.000E-08,0.540
-4.000E-08,0.208
-3.000E-08,0.316
-2.000E-08,0.544
-1.000E-08,0.540
0.000E+00,0.544
1.000E-08,0.540
2.000E-08,0.540
3.000E-08,0.536
4.000E-08,0.540
5.000E-08,0.540
6.000E-08,0.540
7.000E-08,0.148
8.000E-08,-0.352
9.000E-08,-0.520
1.000E-07,-0.524
1.100E-07,-0.520
1.200E-07,-0.520
1.300E-07,-0.524
1.400E-07,-0.520
1.500E-07,-0.516
1.600E-07,-0.520
1.700E-07,-0.524
1.800E-07,-0.520
1.900E-07,-0.520
2.000E-07,-0.524
2.100E-07,-0.520
2.200E-07,-0.524
2.300E-07,-0.516
2.400E-07,-0.520
2.500E-07,-0.524
2.600E-07,-0.520
2.700E-07,-0.520
2.800E-07,-0.520
2.900E-07,-0.524
3.000E-07,-0.520
3.100E-07,-0.520
3.200E-07,-0.524
3.300E-07,-0.340
3.400E-07,-0.272
3.500E-07,-0.128
3.600E-07,-0.180
3.700E-07,-0.472
3.800E-07,-0.268
3.900E-07,-0.084
4.000E-07,0.256
4.100E-07,0.540
4.200E-07,0.540
4.300E-07,0.536
4.400E-07,0.540
4.500E-07,0.544
4.600E-07,0.540
4.700E-07,0.540
4.800E-07,0.540
4.900E-07,0.540
5.000E-07,0.544
5.100E-07,0.544
5.200E-07,0.540
5.300E-07,0.544
5.400E-07,0.540
5.500E-07,0.540
5.600E-07,0.540
5.700E-07,0.540
5.800E-07,0.540
5.900E-07,0.540
6.000E-07,0.544
6.100E-07,0.540
6.200E-07,0.536
6.300E-07,-0.520
6.400E-07,-0.524
6.500E-07,-0.520
6.600E-07,-0.516
6.700E-07,-0.520
6.800E-07,-0.524
6.900E-07,-0.520
7.000E-07,-0.520
7.100E-07,-0.524
7.200E-07,-0.520
7.300E-07,-0.524
7.400E-07,0.536
7.500E-07,0.540
7.600E-07,0.540
7.700E-07,0.540
7.800E-07,0.540
7.900E-07,0.540
8.000E-07,0.544
8.100E-07,-0.064
8.200E-07,-0.520
8.300E-07,-0.524
8.400E-07,-0.520
8.500E-07,-0.516
8.600E-07,-0.520
8.700E-07,-0.520
8.800E-07,-0.524
8.900E-07,-0.520
9.000E-07,-0.516
9.100E-07,0.404
9.200E-07,0.544
9.300E-07,0.540
9.400E-07,0.544
9.500E-07,0.540
9.600E-07,0.544
9.700E-07,0.540
9.800E-07,0.544
9.900E-07,0.544
1.000E-06,-0.004
1.010E-06,-0.524
1.020E-06,-0.520
1.030E-06,-0.524
1.040E-06,-0.524
1.050E-06,-0.516
1.060E-06,-0.520
1.070E-06,-0.520
1.080E-06,-0.524
1.090E-06,0.540
1.100E-06,0.536
1.110E-06,0.540
1.120E-06,0.540
1.130E-06,0.544
1.140E-06,0.540
1.150E-06,0.540
1.160E-06,0.536
1.170E-06,0.540
1.180E-06,0.452
1.190E-06,-0.520
1.200E-06,-0.520
1.210E-06,-0.524
1.220E-06,-0.520
1.230E-06,-0.516
1.240E-06,-0.520
1.250E-06,-0.520
1.260E-06,-0.520
1.270E-06,-0.520
1.280E-06,-0.524
1.290E-06,-0.084
1.300E-06,0.240
1.310E-06,0.004
1.320E-06,-0.260
1.330E-06,-0.520
1.340E-06,-0.516
1.350E-06,-0.516
1.360E-06,-0.520
1.370E-06,-0.516
1.380E-06,-0.520
1.390E-06,-0.468
1.400E-06,-0.008
1.410E-06,0.188
1.420E-06,0.132
1.430E-06,-0.040
1.440E-06,-0.484
1.450E-06,-0.516
1.460E-06,-0.520
1.470E-06,-0.516
1.480E-06,-0.520
1.490E-06,-0.524
1.500E-06,-0.520
1.510E-06,-0.524
1.520E-06,-0.516
1.530E-06,-0.516
1.540E-06,-0.520
1.550E-06,-0.520
1.560E-06,-0.524
1.570E-06,-0.520
1.580E-06,-0.516
1.590E-06,-0.516
1.600E-06,-0.520
1.610E-06,-0.520
1.620E-06,-0.412
1.630E-06,0.544
1.640E-06,0.540
1.650E-06,0.544
1.660E-06,0.540
1.670E-06,0.544
1.680E-06,0.540
1.690E-06,0.536
1.700E-06,0.540
1.710E-06,0.540
1.720E-06,0.536
1.730E-06,0.540
1.740E-06,-0.520
1.750E-06,-0.516
1.760E-06,-0.520
1.770E-06,-0.524
1.780E-06,-0.524
1.790E-06,-0.524
1.800E-06,-0.516
1.810E-06,-0.516
1.820E-06,-0.520
1.830E-06,-0.520
1.840E-06,-0.520
1.850E-06,-0.524
1.860E-06,-0.520
1.870E-06,-0.400
1.880E-06,-0.064
1.890E-06,0.068
1.900E-06,0.232
1.910E-06,0.232
1.920E-06,-0.008
1.930E-06,-0.228
1.940E-06,-0.448
1.950E-06,-0.496
1.960E-06,-0.264
1.970E-06,-0.072
1.980E-06,0.224
1.990E-06,0.340
2.000E-06,0.012
2.010E-06,-0.524
2.020E-06,-0.520
2.030E-06,-0.520
2.040E-06,-0.520
2.050E-06,-0.524
2.060E-06,-0.520
2.070E-06,-0.516
2.080E-06,-0.520
2.090E-06,-0.524
2.100E-06,-0.520
2.110E-06,-0.516
2.120E-06,-0.520
2.130E-06,-0.520
2.140E-06,-0.524
2.150E-06,-0.520
2.160E-06,0.280
2.170E-06,0.536
2.180E-06,0.540
2.190E-06,0.544
2.200E-06,0.540
2.210E-06,0.540
2.220E-06,0.540
2.230E-06,0.540
2.240E-06,0.544
2.250E-06,0.544
2.260E-06,0.540
2.270E-06,0.540
2.280E-06,0.540
2.290E-06,0.368
2.300E-06,-0.520
2.310E-06,-0.520
2.320E-06,-0.520
2.330E-06,-0.520
2.340E-06,-0.524
2.350E-06,-0.520
2.360E-06,-0.516
2.370E-06,-0.516
2.380E-06,-0.520
2.390E-06,-0.516
2.400E-06,-0.520
2.410E-06,-0.468
2.420E-06,-0.100
2.430E-06,-0.012
2.440E-06,0.064
2.450E-06,-0.152
2.460E-06,-0.384
2.470E-06,-0.520
2.480E-06,-0.524
2.490E-06,-0.516
2.500E-06,0.088
2.510E-06,0.544
2.520E-06,0.540
2.530E-06,0.536
2.540E-06,0.540
2.550E-06,0.544
2.560E-06,0.544
2.570E-06,0.540
2.580E-06,0.540
2.590E-06,0.544
2.600E-06,0.044
2.610E-06,-0.520
2.620E-06,-0.524
2.630E-06,-0.520
2.640E-06,-0.520
2.650E-06,-0.520
2.660E-06,-0.520
2.670E-06,-0.524
2.680E-06,-0.520
2.690E-06,0.036
2.700E-06,0.540
2.710E-06,0.540
2.720E-06,0.540
2.730E-06,0.536
2.740E-06,0.540
2.750E-06,0.540
2.760E-06,0.544
2.770E-06,0.544
2.780E-06,0.540
2.790E-06,0.540
2.800E-06,0.540
2.810E-06,0.540
2.820E-06,0.280
2.830E-06,0.112
2.840E-06,0.004
2.850E-06,0.000
2.860E-06,0.056
2.870E-06,0.148
2.880E-06,0.280
2.890E-06,0.380
2.900E-06,0.500
2.910E-06,0.536
2.920E-06,0.540
2.930E-06,0.544
2.940E-06,0.540
2.950E-06,0.540
2.960E-06,0.544
2.970E-06,0.192
2.980E-06,-0.112
2.990E-06,-0.520
3.000E-06,0.148
3.010E-06,0.388
3.020E-06,0.536
3.030E-06,0.540
3.040E-06,0.352
3.050E-06,-0.520
3.060E-06,-0.520
3.070E-06,-0.524
3.080E-06,-0.520
3.090E-06,-0.516
3.100E-06,-0.516
3.110E-06,-0.520
3.120E-06,-0.516
3.130E-06,-0.520
3.140E-06,-0.516
3.150E-06,-0.516
3.160E-06,-0.520
3.170E-06,-0.520
3.180E-06,-0.524
3.190E-06,0.544
3.200E-06,0.540
3.210E-06,0.540
3.220E-06,0.264
3.230E-06,-0.220
3.240E-06,-0.524
3.250E-06,-0.524
3.260E-06,-0.516
3.270E-06,-0.516
3.280E-06,-0.520
3.290E-06,-0.516
3.300E-06,-0.520
3.310E-06,-0.516
3.320E-06,-0.520
3.330E-06,-0.520
3.340E-06,-0.520
3.350E-06,-0.524
3.360E-06,-0.520
3.370E-06,0.036
3.380E-06,0.544
3.390E-06,0.540
3.400E-06,0.544
3.410E-06,0.544
3.420E-06,0.540
3.430E-06,0.540
3.440E-06,0.544
3.450E-06,0.544
3.460E-06,0.540
3.470E-06,0.540
3.480E-06,0.536
3.490E-06,0.540
3.500E-06,0.500
3.510E-06,0.228
3.520E-06,0.120
