mediciones/6-26/7.5/WaveData59152.csv

#timebase=2000000(ps)
,#voltbase=200000(mv/100)
#size=4000
-8.150E-06,0.000
-8.140E-06,0.000
-8.130E-06,0.000
-8.120E-06,0.000
-8.110E-06,0.000
-8.100E-06,0.000
-8.090E-06,0.000
-8.080E-06,0.000
-8.070E-06,0.000
-8.060E-06,0.000
-8.050E-06,-0.008
-8.040E-06,0.008
-8.030E-06,-0.008
-8.020E-06,0.000
-8.010E-06,0.016
-8.000E-06,-0.008
-7.990E-06,-0.008
-7.980E-06,0.000
-7.970E-06,-0.008
-7.960E-06,0.000
-7.950E-06,0.008
-7.940E-06,-0.008
-7.930E-06,0.000
-7.920E-06,0.000
-7.910E-06,-0.008
-7.900E-06,0.000
-7.890E-06,-0.008
-7.880E-06,0.000
-7.870E-06,0.016
-7.860E-06,0.000
-7.850E-06,0.008
-7.840E-06,0.000
-7.830E-06,0.008
-7.820E-06,0.008
-7.810E-06,0.000
-7.800E-06,0.008
-7.790E-06,-0.008
-7.780E-06,0.000
-7.770E-06,0.000
-7.760E-06,0.000
-7.750E-06,0.000
-7.740E-06,0.000
-7.730E-06,0.000
-7.720E-06,0.000
-7.710E-06,0.000
-7.700E-06,0.008
-7.690E-06,0.016
-7.680E-06,0.016
-7.670E-06,-0.008
-7.660E-06,0.008
-7.650E-06,0.008
-7.640E-06,0.000
-7.630E-06,0.016
-7.620E-06,0.008
-7.610E-06,0.016
-7.600E-06,0.008
-7.590E-06,0.016
-7.580E-06,0.008
-7.570E-06,0.016
-7.560E-06,0.008
-7.550E-06,0.008
-7.540E-06,0.016
-7.530E-06,-0.008
-7.520E-06,-0.008
-7.510E-06,0.000
-7.500E-06,0.008
-7.490E-06,-0.008
-7.480E-06,0.000
-7.470E-06,0.008
-7.460E-06,0.000
-7.450E-06,0.000
-7.440E-06,0.000
-7.430E-06,0.000
-7.420E-06,0.000
-7.410E-06,0.000
-7.400E-06,-0.008
-7.390E-06,0.008
-7.380E-06,0.008
-7.370E-06,-0.008
-7.360E-06,0.008
-7.350E-06,0.008
-7.340E-06,0.008
-7.330E-06,-0.008
-7.320E-06,0.000
-7.310E-06,0.000
-7.300E-06,0.008
-7.290E-06,0.008
-7.280E-06,0.008
-7.270E-06,0.008
-7.260E-06,0.008
-7.250E-06,0.000
-7.240E-06,-0.008
-7.230E-06,0.008
-7.220E-06,0.000
-7.210E-06,0.008
-7.200E-06,0.008
-7.190E-06,0.000
-7.180E-06,0.000
-7.170E-06,0.000
-7.160E-06,0.000
-7.150E-06,0.000
-7.140E-06,0.000
-7.130E-06,0.000
-7.120E-06,0.000
-7.110E-06,0.008
-7.100E-06,-0.008
-7.090E-06,0.000
-7.080E-06,0.000
-7.070E-06,0.000
-7.060E-06,0.008
-7.050E-06,0.008
-7.040E-06,0.000
-7.030E-06,-0.008
-7.020E-06,0.000
-7.010E-06,0.008
-7.000E-06,0.000
-6.990E-06,0.008
-6.980E-06,-0.008
-6.970E-06,-0.008
-6.960E-06,0.000
-6.950E-06,0.008
-6.940E-06,0.016
-6.930E-06,0.008
-6.920E-06,0.008
-6.910E-06,-0.008
-6.900E-06,0.000
-6.890E-06,0.008
-6.880E-06,0.000
-6.870E-06,0.008
-6.860E-06,0.000
-6.850E-06,0.000
-6.840E-06,0.000
-6.830E-06,0.000
-6.820E-06,0.000
-6.810E-06,0.000
-6.800E-06,-0.008
-6.790E-06,0.008
-6.780E-06,0.008
-6.770E-06,0.000
-6.760E-06,0.000
-6.750E-06,0.008
-6.740E-06,-0.008
-6.730E-06,0.000
-6.720E-06,0.008
-6.710E-06,0.016
-6.700E-06,-0.008
-6.690E-06,0.000
-6.680E-06,0.008
-6.670E-06,0.000
-6.660E-06,0.000
-6.650E-06,0.000
-6.640E-06,0.000
-6.630E-06,0.000
-6.620E-06,0.000
-6.610E-06,0.000
-6.600E-06,-0.008
-6.590E-06,0.000
-6.580E-06,-0.008
-6.570E-06,0.000
-6.560E-06,0.008
-6.550E-06,0.008
-6.540E-06,0.000
-6.530E-06,0.000
-6.520E-06,0.000
-6.510E-06,0.000
-6.500E-06,0.000
-6.490E-06,-0.008
-6.480E-06,0.000
-6.470E-06,0.008
-6.460E-06,0.000
-6.450E-06,0.000
-6.440E-06,0.000
-6.430E-06,0.000
-6.420E-06,0.000
-6.410E-06,-0.008
-6.400E-06,0.000
-6.390E-06,0.000
-6.380E-06,0.000
-6.370E-06,0.008
-6.360E-06,0.008
-6.350E-06,0.000
-6.340E-06,0.000
-6.330E-06,0.000
-6.320E-06,0.008
-6.310E-06,0.008
-6.300E-06,0.008
-6.290E-06,0.000
-6.280E-06,0.000
-6.270E-06,0.000
-6.260E-06,0.008
-6.250E-06,0.000
-6.240E-06,0.000
-6.230E-06,0.000
-6.220E-06,0.000
-6.210E-06,-0.008
-6.200E-06,-0.008
-6.190E-06,0.008
-6.180E-06,-0.008
-6.170E-06,-0.008
-6.160E-06,0.008
-6.150E-06,0.016
-6.140E-06,-0.008
-6.130E-06,-0.008
-6.120E-06,0.008
-6.110E-06,0.000
-6.100E-06,-0.008
-6.090E-06,0.008
-6.080E-06,-0.008
-6.070E-06,0.000
-6.060E-06,0.000
-6.050E-06,0.000
-6.040E-06,0.000
-6.030E-06,0.008
-6.020E-06,0.008
-6.010E-06,0.016
-6.000E-06,-0.008
-5.990E-06,0.008
-5.980E-06,0.000
-5.970E-06,0.000
-5.960E-06,0.008
-5.950E-06,0.008
-5.940E-06,0.008
-5.930E-06,-0.008
-5.920E-06,-0.008
-5.910E-06,0.008
-5.900E-06,-0.008
-5.890E-06,0.000
-5.880E-06,-0.008
-5.870E-06,0.000
-5.860E-06,-0.008
-5.850E-06,0.000
-5.840E-06,-0.008
-5.830E-06,0.000
-5.820E-06,0.000
-5.810E-06,0.000
-5.800E-06,0.008
-5.790E-06,0.000
-5.780E-06,0.000
-5.770E-06,0.008
-5.760E-06,0.000
-5.750E-06,0.000
-5.740E-06,0.000
-5.730E-06,0.000
-5.720E-06,0.008
-5.710E-06,0.000
-5.700E-06,0.008
-5.690E-06,-0.008
-5.680E-06,0.000
-5.670E-06,0.000
-5.660E-06,0.016
-5.650E-06,0.000
-5.640E-06,0.000
-5.630E-06,0.000
-5.620E-06,0.008
-5.610E-06,0.000
-5.600E-06,0.008
-5.590E-06,0.000
-5.580E-06,0.008
-5.570E-06,0.008
-5.560E-06,-0.008
-5.550E-06,0.000
-5.540E-06,0.008
-5.530E-06,-0.008
-5.520E-06,-0.008
-5.510E-06,0.000
-5.500E-06,-0.008
-5.490E-06,0.000
-5.480E-06,0.000
-5.470E-06,0.000
-5.460E-06,0.008
-5.450E-06,-0.008
-5.440E-06,0.008
-5.430E-06,0.000
-5.420E-06,0.000
-5.410E-06,0.000
-5.400E-06,0.000
-5.390E-06,0.008
-5.380E-06,0.000
-5.370E-06,0.000
-5.360E-06,0.000
-5.350E-06,0.000
-5.340E-06,0.008
-5.330E-06,0.008
-5.320E-06,0.000
-5.310E-06,0.008
-5.300E-06,0.000
-5.290E-06,0.000
-5.280E-06,0.000
-5.270E-06,0.008
-5.260E-06,0.000
-5.250E-06,0.000
-5.240E-06,0.008
-5.230E-06,0.000
-5.220E-06,0.008
-5.210E-06,0.000
-5.200E-06,0.000
-5.190E-06,0.008
-5.180E-06,0.000
-5.170E-06,0.008
-5.160E-06,-0.008
-5.150E-06,0.008
-5.140E-06,0.008
-5.130E-06,0.000
-5.120E-06,0.008
-5.110E-06,0.016
-5.100E-06,0.000
-5.090E-06,0.000
-5.080E-06,0.008
-5.070E-06,0.008
-5.060E-06,0.000
-5.050E-06,0.008
-5.040E-06,0.008
-5.030E-06,0.000
-5.020E-06,0.008
-5.010E-06,0.000
-5.000E-06,0.008
-4.990E-06,0.000
-4.980E-06,0.000
-4.970E-06,0.000
-4.960E-06,-0.008
-4.950E-06,0.000
-4.940E-06,0.016
-4.930E-06,0.016
-4.920E-06,0.016
-4.910E-06,0.000
-4.900E-06,0.008
-4.890E-06,0.000
-4.880E-06,0.008
-4.870E-06,0.008
-4.860E-06,0.000
-4.850E-06,0.008
-4.840E-06,0.008
-4.830E-06,-0.008
-4.820E-06,0.008
-4.810E-06,0.000
-4.800E-06,0.000
-4.790E-06,0.008
-4.780E-06,-0.008
-4.770E-06,-0.008
-4.760E-06,0.000
-4.750E-06,0.000
-4.740E-06,0.008
-4.730E-06,-0.008
-4.720E-06,0.008
-4.710E-06,0.000
-4.700E-06,0.000
-4.690E-06,-0.008
-4.680E-06,-0.008
-4.670E-06,0.000
-4.660E-06,-0.008
-4.650E-06,0.000
-4.640E-06,-0.008
-4.630E-06,0.008
-4.620E-06,0.000
-4.610E-06,0.000
-4.600E-06,0.000
-4.590E-06,0.008
-4.580E-06,0.000
-4.570E-06,-0.008
-4.560E-06,0.000
-4.550E-06,0.000
-4.540E-06,-0.008
-4.530E-06,0.000
-4.520E-06,0.008
-4.510E-06,0.008
-4.500E-06,0.000
-4.490E-06,0.000
-4.480E-06,0.008
-4.470E-06,0.008
-4.460E-06,0.008
-4.450E-06,0.008
-4.440E-06,0.000
-4.430E-06,0.008
-4.420E-06,0.000
-4.410E-06,0.000
-4.400E-06,0.000
-4.390E-06,-0.008
-4.380E-06,0.000
-4.370E-06,0.008
-4.360E-06,0.008
-4.350E-06,0.000
-4.340E-06,0.000
-4.330E-06,0.000
-4.320E-06,0.008
-4.310E-06,0.000
-4.300E-06,0.008
-4.290E-06,0.008
-4.280E-06,0.000
-4.270E-06,0.008
-4.260E-06,0.000
-4.250E-06,0.000
-4.240E-06,0.000
-4.230E-06,0.008
-4.220E-06,0.008
-4.210E-06,0.000
-4.200E-06,0.000
-4.190E-06,0.000
-4.180E-06,0.000
-4.170E-06,0.008
-4.160E-06,0.032
-4.150E-06,0.096
-4.140E-06,0.112
-4.130E-06,0.112
-4.120E-06,0.048
-4.110E-06,-0.064
-4.100E-06,-0.144
-4.090E-06,-0.208
-4.080E-06,-0.120
-4.070E-06,0.048
-4.060E-06,0.120
-4.050E-06,0.248
-4.040E-06,0.088
-4.030E-06,-0.104
-4.020E-06,-0.088
-4.010E-06,-0.248
-4.000E-06,-0.072
-3.990E-06,-0.072
-3.980E-06,0.256
-3.970E-06,0.208
-3.960E-06,0.184
-3.950E-06,-0.072
-3.940E-06,-0.272
-3.930E-06,-0.168
-3.920E-06,-0.104
-3.910E-06,0.072
-3.900E-06,0.144
-3.890E-06,0.280
-3.880E-06,0.072
-3.870E-06,-0.024
-3.860E-06,-0.136
-3.850E-06,-0.136
-3.840E-06,-0.096
-3.830E-06,0.048
-3.820E-06,0.128
-3.810E-06,0.112
-3.800E-06,0.056
-3.790E-06,-0.040
-3.780E-06,-0.088
-3.770E-06,-0.128
-3.760E-06,-0.032
-3.750E-06,0.016
-3.740E-06,0.104
-3.730E-06,0.120
-3.720E-06,0.072
-3.710E-06,0.024
-3.700E-06,-0.040
-3.690E-06,-0.064
-3.680E-06,-0.072
-3.670E-06,-0.008
-3.660E-06,0.016
-3.650E-06,0.048
-3.640E-06,0.040
-3.630E-06,0.024
-3.620E-06,-0.008
-3.610E-06,-0.040
-3.600E-06,-0.032
-3.590E-06,0.008
-3.580E-06,0.040
-3.570E-06,0.048
-3.560E-06,0.056
-3.550E-06,0.024
-3.540E-06,0.008
-3.530E-06,-0.016
-3.520E-06,-0.032
-3.510E-06,-0.024
-3.500E-06,0.016
-3.490E-06,0.016
-3.480E-06,0.040
-3.470E-06,0.040
-3.460E-06,0.024
-3.450E-06,-0.016
-3.440E-06,-0.024
-3.430E-06,-0.008
-3.420E-06,-0.008
-3.410E-06,0.024
-3.400E-06,0.048
-3.390E-06,0.040
-3.380E-06,0.048
-3.370E-06,0.016
-3.360E-06,-0.040
-3.350E-06,-0.072
-3.340E-06,-0.032
-3.330E-06,-0.016
-3.320E-06,0.040
-3.310E-06,0.072
-3.300E-06,0.072
-3.290E-06,0.064
-3.280E-06,0.008
-3.270E-06,-0.048
-3.260E-06,-0.048
-3.250E-06,-0.064
-3.240E-06,0.008
-3.230E-06,0.088
-3.220E-06,0.088
-3.210E-06,0.040
-3.200E-06,-0.160
-3.190E-06,-0.056
-3.180E-06,-0.072
-3.170E-06,0.048
-3.160E-06,0.024
-3.150E-06,0.080
-3.140E-06,0.056
-3.130E-06,-0.008
-3.120E-06,-0.016
-3.110E-06,-0.080
-3.100E-06,-0.040
-3.090E-06,0.000
-3.080E-06,0.048
-3.070E-06,0.032
-3.060E-06,0.032
-3.050E-06,0.016
-3.040E-06,0.016
-3.030E-06,-0.016
-3.020E-06,-0.048
-3.010E-06,-0.024
-3.000E-06,0.000
-2.990E-06,0.024
-2.980E-06,0.032
-2.970E-06,0.048
-2.960E-06,0.008
-2.950E-06,-0.016
-2.940E-06,-0.048
-2.930E-06,-0.040
-2.920E-06,-0.008
-2.910E-06,0.008
-2.900E-06,0.048
-2.890E-06,0.040
-2.880E-06,0.024
-2.870E-06,-0.024
-2.860E-06,-0.048
-2.850E-06,-0.048
-2.840E-06,0.008
-2.830E-06,0.032
-2.820E-06,0.032
-2.810E-06,0.024
-2.800E-06,0.016
-2.790E-06,-0.008
-2.780E-06,-0.016
-2.770E-06,-0.008
-2.760E-06,0.000
-2.750E-06,0.008
-2.740E-06,0.016
-2.730E-06,0.032
-2.720E-06,0.016
-2.710E-06,0.000
-2.700E-06,-0.008
-2.690E-06,-0.016
-2.680E-06,-0.008
-2.670E-06,0.008
-2.660E-06,0.024
-2.650E-06,0.016
-2.640E-06,0.008
-2.630E-06,0.000
-2.620E-06,0.008
-2.610E-06,0.000
-2.600E-06,-0.016
-2.590E-06,-0.016
-2.580E-06,-0.008
-2.570E-06,0.016
-2.560E-06,0.048
-2.550E-06,0.040
-2.540E-06,-0.008
-2.530E-06,-0.008
-2.520E-06,-0.008
-2.510E-06,0.000
-2.500E-06,0.000
-2.490E-06,0.016
-2.480E-06,0.024
-2.470E-06,0.024
-2.460E-06,0.016
-2.450E-06,-0.008
-2.440E-06,-0.008
-2.430E-06,-0.008
-2.420E-06,0.000
-2.410E-06,0.000
-2.400E-06,0.024
-2.390E-06,0.016
-2.380E-06,0.016
-2.370E-06,0.016
-2.360E-06,-0.008
-2.350E-06,0.000
-2.340E-06,-0.008
-2.330E-06,-0.008
-2.320E-06,0.008
-2.310E-06,0.008
-2.300E-06,0.016
-2.290E-06,0.008
-2.280E-06,0.000
-2.270E-06,0.000
-2.260E-06,0.000
-2.250E-06,0.000
-2.240E-06,0.000
-2.230E-06,0.000
-2.220E-06,0.000
-2.210E-06,0.016
-2.200E-06,0.024
-2.190E-06,0.024
-2.180E-06,-0.016
-2.170E-06,0.000
-2.160E-06,0.000
-2.150E-06,-0.008
-2.140E-06,0.016
-2.130E-06,0.016
-2.120E-06,0.000
-2.110E-06,0.064
-2.100E-06,0.040
-2.090E-06,0.008
-2.080E-06,-0.016
-2.070E-06,-0.048
-2.060E-06,-0.024
-2.050E-06,0.024
-2.040E-06,0.064
-2.030E-06,0.056
-2.020E-06,0.024
-2.010E-06,0.000
-2.000E-06,-0.008
-1.990E-06,-0.024
-1.980E-06,-0.032
-1.970E-06,-0.008
-1.960E-06,-0.008
-1.950E-06,0.040
-1.940E-06,0.032
-1.930E-06,0.008
-1.920E-06,-0.008
-1.910E-06,0.000
-1.900E-06,0.008
-1.890E-06,0.000
-1.880E-06,0.008
-1.870E-06,-0.008
-1.860E-06,0.008
-1.850E-06,0.048
-1.840E-06,0.032
-1.830E-06,0.032
-1.820E-06,0.016
-1.810E-06,0.008
-1.800E-06,0.024
-1.790E-06,-0.016
-1.780E-06,0.000
-1.770E-06,-0.008
-1.760E-06,-0.008
-1.750E-06,-0.008
-1.740E-06,0.000
-1.730E-06,0.016
-1.720E-06,0.032
-1.710E-06,0.032
-1.700E-06,0.016
-1.690E-06,0.000
-1.680E-06,-0.008
-1.670E-06,-0.008
-1.660E-06,-0.008
-1.650E-06,0.008
-1.640E-06,-0.008
-1.630E-06,0.016
-1.620E-06,0.024
-1.610E-06,0.008
-1.600E-06,0.016
-1.590E-06,0.008
-1.580E-06,0.016
-1.570E-06,-0.008
-1.560E-06,0.000
-1.550E-06,0.008
-1.540E-06,0.000
-1.530E-06,0.016
-1.520E-06,0.040
-1.510E-06,0.048
-1.500E-06,0.024
-1.490E-06,0.016
-1.480E-06,-0.016
-1.470E-06,-0.032
-1.460E-06,-0.016
-1.450E-06,-0.008
-1.440E-06,0.024
-1.430E-06,0.040
-1.420E-06,0.048
-1.410E-06,0.032
-1.400E-06,-0.008
-1.390E-06,-0.016
-1.380E-06,-0.016
-1.370E-06,-0.008
-1.360E-06,0.024
-1.350E-06,0.040
-1.340E-06,0.032
-1.330E-06,0.016
-1.320E-06,-0.008
-1.310E-06,-0.016
-1.300E-06,-0.016
-1.290E-06,0.000
-1.280E-06,0.008
-1.270E-06,0.040
-1.260E-06,0.048
-1.250E-06,0.024
-1.240E-06,0.008
-1.230E-06,-0.008
-1.220E-06,-0.016
-1.210E-06,0.000
-1.200E-06,0.024
-1.190E-06,0.048
-1.180E-06,0.064
-1.170E-06,0.048
-1.160E-06,0.024
-1.150E-06,0.008
-1.140E-06,0.000
-1.130E-06,0.024
-1.120E-06,0.032
-1.110E-06,0.048
-1.100E-06,0.056
-1.090E-06,0.048
-1.080E-06,0.056
-1.070E-06,0.024
-1.060E-06,0.040
-1.050E-06,0.032
-1.040E-06,0.040
-1.030E-06,0.056
-1.020E-06,0.072
-1.010E-06,0.056
-1.000E-06,0.056
-9.900E-07,0.048
-9.800E-07,0.072
-9.700E-07,0.056
-9.600E-07,0.056
-9.500E-07,0.088
-9.400E-07,0.032
-9.300E-07,0.088
-9.200E-07,-0.200
-9.100E-07,-0.320
-9.000E-07,-0.456
-8.900E-07,-0.352
-8.800E-07,-0.152
-8.700E-07,0.120
-8.600E-07,0.464
-8.500E-07,0.552
-8.400E-07,0.152
-8.300E-07,-0.056
-8.200E-07,-0.200
-8.100E-07,-0.240
-8.000E-07,-0.160
-7.900E-07,0.048
-7.800E-07,0.256
-7.700E-07,0.112
-7.600E-07,0.000
-7.500E-07,-0.336
-7.400E-07,-0.392
-7.300E-07,-0.344
-7.200E-07,-0.088
-7.100E-07,0.128
-7.000E-07,0.304
-6.900E-07,0.312
-6.800E-07,0.112
-6.700E-07,-0.072
-6.600E-07,-0.256
-6.500E-07,-0.232
-6.400E-07,-0.112
-6.300E-07,0.096
-6.200E-07,0.248
-6.100E-07,0.272
-6.000E-07,0.128
-5.900E-07,-0.016
-5.800E-07,-0.120
-5.700E-07,-0.176
-5.600E-07,-0.080
-5.500E-07,0.024
-5.400E-07,0.152
-5.300E-07,0.184
-5.200E-07,0.168
-5.100E-07,0.024
-5.000E-07,-0.080
-4.900E-07,-0.152
-4.800E-07,-0.080
-4.700E-07,0.008
-4.600E-07,0.088
-4.500E-07,0.152
-4.400E-07,0.128
-4.300E-07,0.080
-4.200E-07,-0.032
-4.100E-07,-0.112
-4.000E-07,-0.096
-3.900E-07,-0.072
-3.800E-07,0.048
-3.700E-07,0.168
-3.600E-07,0.152
-3.500E-07,0.056
-3.400E-07,-0.008
-3.300E-07,-0.080
-3.200E-07,-0.104
-3.100E-07,-0.024
-3.000E-07,0.048
-2.900E-07,0.136
-2.800E-07,0.144
-2.700E-07,0.064
-2.600E-07,-0.048
-2.500E-07,-0.104
-2.400E-07,-0.048
-2.300E-07,-0.048
-2.200E-07,0.064
-2.100E-07,0.112
-2.000E-07,0.128
-1.900E-07,0.120
-1.800E-07,0.032
-1.700E-07,0.048
-1.600E-07,0.000
-1.500E-07,0.080
-1.400E-07,0.104
-1.300E-07,0.168
-1.200E-07,0.160
-1.100E-07,0.184
-1.000E-07,0.120
-9.000E-08,0.112
-8.000E-08,0.016
-7.000E-08,0.024
-6.000E-08,-0.336
-5.000E-08,-0.640
-4.000E-08,-1.016
-3.000E-08,-0.880
-2.000E-08,-0.280
-1.000E-08,0.968
0.000E+00,1.056
1.000E-08,0.752
2.000E-08,0.248
3.000E-08,-0.336
4.000E-08,-0.816
5.000E-08,-0.768
6.000E-08,-0.168
7.000E-08,0.280
8.000E-08,0.784
9.000E-08,0.816
1.000E-07,0.320
1.100E-07,-0.216
1.200E-07,-0.696
1.300E-07,-0.624
1.400E-07,-0.280
1.500E-07,0.248
1.600E-07,0.520
1.700E-07,0.648
1.800E-07,0.336
1.900E-07,0.016
2.000E-07,-0.304
2.100E-07,-0.456
2.200E-07,-0.216
2.300E-07,0.168
2.400E-07,0.432
2.500E-07,0.440
2.600E-07,0.360
2.700E-07,0.160
2.800E-07,-0.080
2.900E-07,-0.192
3.000E-07,-0.096
3.100E-07,0.048
3.200E-07,0.224
3.300E-07,0.368
3.400E-07,0.216
3.500E-07,0.056
3.600E-07,-0.192
3.700E-07,-0.232
3.800E-07,-0.088
3.900E-07,0.048
4.000E-07,0.192
4.100E-07,0.320
4.200E-07,0.352
4.300E-07,0.208
4.400E-07,0.072
4.500E-07,-0.208
4.600E-07,-0.376
4.700E-07,-0.736
4.800E-07,-0.680
4.900E-07,-0.840
5.000E-07,-0.104
5.100E-07,0.856
5.200E-07,0.552
5.300E-07,0.712
5.400E-07,-0.480
5.500E-07,-0.728
5.600E-07,-0.600
5.700E-07,-0.488
5.800E-07,-0.008
5.900E-07,0.504
6.000E-07,0.816
6.100E-07,0.648
6.200E-07,0.224
6.300E-07,-0.320
6.400E-07,-0.480
6.500E-07,-0.264
6.600E-07,0.080
6.700E-07,0.376
6.800E-07,0.320
6.900E-07,-0.176
7.000E-07,-0.464
7.100E-07,-0.680
7.200E-07,-0.608
7.300E-07,-0.176
7.400E-07,0.336
7.500E-07,0.584
7.600E-07,0.400
7.700E-07,0.224
7.800E-07,-0.216
7.900E-07,-0.320
8.000E-07,-0.272
8.100E-07,0.032
8.200E-07,0.352
8.300E-07,0.464
8.400E-07,0.352
8.500E-07,0.000
8.600E-07,-0.328
8.700E-07,-0.520
8.800E-07,-0.416
8.900E-07,-0.168
9.000E-07,0.136
9.100E-07,0.328
9.200E-07,0.376
9.300E-07,0.168
9.400E-07,-0.096
9.500E-07,-0.248
9.600E-07,-0.288
9.700E-07,-0.096
9.800E-07,0.136
9.900E-07,0.376
1.000E-06,0.416
1.010E-06,0.352
1.020E-06,0.104
1.030E-06,-0.112
1.040E-06,-0.328
1.050E-06,-0.440
1.060E-06,-0.360
1.070E-06,-0.168
1.080E-06,0.064
1.090E-06,0.224
1.100E-06,0.240
1.110E-06,0.016
1.120E-06,-0.176
1.130E-06,-0.272
1.140E-06,-0.272
1.150E-06,-0.120
1.160E-06,0.040
1.170E-06,0.224
1.180E-06,0.264
1.190E-06,0.168
1.200E-06,0.000
1.210E-06,-0.136
1.220E-06,-0.152
1.230E-06,-0.072
1.240E-06,0.048
1.250E-06,0.160
1.260E-06,0.224
1.270E-06,0.184
1.280E-06,0.088
1.290E-06,-0.024
1.300E-06,-0.088
1.310E-06,-0.088
1.320E-06,-0.008
1.330E-06,0.120
1.340E-06,0.184
1.350E-06,0.128
1.360E-06,0.080
1.370E-06,-0.048
1.380E-06,-0.144
1.390E-06,-0.104
1.400E-06,-0.048
1.410E-06,0.072
1.420E-06,0.080
1.430E-06,0.120
1.440E-06,0.072
1.450E-06,0.016
1.460E-06,-0.016
1.470E-06,-0.040
1.480E-06,0.032
1.490E-06,0.064
1.500E-06,0.176
1.510E-06,0.208
1.520E-06,0.192
1.530E-06,0.144
1.540E-06,0.088
1.550E-06,0.104
1.560E-06,0.112
1.570E-06,0.096
1.580E-06,0.136
1.590E-06,-0.016
1.600E-06,-0.200
1.610E-06,-0.416
1.620E-06,-0.240
1.630E-06,-0.328
1.640E-06,-0.008
1.650E-06,0.000
1.660E-06,-0.152
1.670E-06,-0.232
1.680E-06,-0.336
1.690E-06,-0.064
1.700E-06,-0.192
1.710E-06,-0.064
1.720E-06,0.208
1.730E-06,-0.008
1.740E-06,0.152
1.750E-06,0.000
1.760E-06,-0.056
1.770E-06,-0.080
1.780E-06,-0.016
1.790E-06,0.016
1.800E-06,0.160
1.810E-06,0.216
1.820E-06,0.168
1.830E-06,0.152
1.840E-06,0.016
1.850E-06,0.024
1.860E-06,-0.056
1.870E-06,0.008
1.880E-06,0.048
1.890E-06,0.144
1.900E-06,0.160
1.910E-06,0.056
1.920E-06,0.024
1.930E-06,-0.040
1.940E-06,-0.032
1.950E-06,-0.088
1.960E-06,-0.032
1.970E-06,-0.008
1.980E-06,0.136
1.990E-06,0.144
2.000E-06,0.120
2.010E-06,0.104
2.020E-06,0.088
2.030E-06,0.104
2.040E-06,0.064
2.050E-06,0.088
2.060E-06,0.128
2.070E-06,0.168
2.080E-06,0.168
2.090E-06,0.160
2.100E-06,0.120
2.110E-06,0.064
2.120E-06,0.128
2.130E-06,0.208
2.140E-06,0.248
2.150E-06,0.136
2.160E-06,0.016
2.170E-06,-0.208
2.180E-06,-0.288
2.190E-06,-0.400
2.200E-06,-0.376
2.210E-06,-0.296
2.220E-06,-0.248
2.230E-06,-0.024
2.240E-06,0.016
2.250E-06,0.096
2.260E-06,0.088
2.270E-06,0.112
2.280E-06,-0.008
2.290E-06,-0.080
2.300E-06,-0.096
2.310E-06,0.024
2.320E-06,0.224
2.330E-06,0.248
2.340E-06,0.256
2.350E-06,0.192
2.360E-06,0.184
2.370E-06,0.168
2.380E-06,0.168
2.390E-06,0.192
2.400E-06,0.176
2.410E-06,0.224
2.420E-06,0.184
2.430E-06,0.136
2.440E-06,0.088
2.450E-06,0.064
2.460E-06,-0.024
2.470E-06,-0.048
2.480E-06,-0.032
2.490E-06,-0.064
2.500E-06,-0.056
2.510E-06,0.040
2.520E-06,0.104
2.530E-06,0.048
2.540E-06,0.104
2.550E-06,0.064
2.560E-06,0.048
2.570E-06,0.040
2.580E-06,0.032
2.590E-06,0.048
2.600E-06,0.016
2.610E-06,0.104
2.620E-06,0.184
2.630E-06,0.224
2.640E-06,0.288
2.650E-06,0.328
2.660E-06,0.288
2.670E-06,0.200
2.680E-06,0.136
2.690E-06,0.128
2.700E-06,0.176
2.710E-06,0.240
2.720E-06,0.296
2.730E-06,0.288
2.740E-06,0.256
2.750E-06,0.208
2.760E-06,0.152
2.770E-06,0.128
2.780E-06,0.144
2.790E-06,0.184
2.800E-06,0.216
2.810E-06,0.272
2.820E-06,0.248
2.830E-06,0.240
2.840E-06,0.184
2.850E-06,0.184
2.860E-06,0.176
2.870E-06,0.176
2.880E-06,0.216
2.890E-06,0.224
2.900E-06,0.240
2.910E-06,0.216
2.920E-06,0.176
2.930E-06,0.152
2.940E-06,0.112
2.950E-06,0.128
2.960E-06,0.016
2.970E-06,-0.144
2.980E-06,-0.216
2.990E-06,-0.600
3.000E-06,-0.376
3.010E-06,-0.576
3.020E-06,-0.472
3.030E-06,-0.304
3.040E-06,-0.320
3.050E-06,0.040
3.060E-06,-0.128
3.070E-06,-0.320
3.080E-06,-0.136
3.090E-06,-0.608
3.100E-06,-0.264
3.110E-06,0.208
3.120E-06,0.008
3.130E-06,-0.616
3.140E-06,-0.024
3.150E-06,-0.184
3.160E-06,-0.136
3.170E-06,0.056
3.180E-06,-0.256
3.190E-06,-0.336
3.200E-06,0.048
3.210E-06,0.096
3.220E-06,-0.016
3.230E-06,0.112
3.240E-06,-0.056
3.250E-06,0.064
3.260E-06,0.112
3.270E-06,0.232
3.280E-06,0.176
3.290E-06,0.080
3.300E-06,0.120
3.310E-06,0.168
3.320E-06,0.344
3.330E-06,0.264
3.340E-06,0.296
3.350E-06,0.248
3.360E-06,0.248
3.370E-06,0.216
3.380E-06,0.144
3.390E-06,0.192
3.400E-06,0.216
3.410E-06,0.296
3.420E-06,0.248
3.430E-06,0.264
3.440E-06,0.176
3.450E-06,0.200
3.460E-06,0.168
3.470E-06,0.176
3.480E-06,0.200
3.490E-06,0.216
3.500E-06,0.256
3.510E-06,0.272
3.520E-06,0.248
3.530E-06,0.216
3.540E-06,0.208
3.550E-06,0.176
3.560E-06,0.208
3.570E-06,0.216
3.580E-06,0.248
