mediciones/Mediciones filtradas (saque las feas)/5-15/14.9/WaveData47324.csv

#timebase=2000000(ps)
,#voltbase=500000(mv/100)
#size=4000
-8.400E-06,0.060
-8.390E-06,0.040
-8.380E-06,0.040
-8.370E-06,0.060
-8.360E-06,0.040
-8.350E-06,0.060
-8.340E-06,0.040
-8.330E-06,0.060
-8.320E-06,0.040
-8.310E-06,0.040
-8.300E-06,0.080
-8.290E-06,0.060
-8.280E-06,0.060
-8.270E-06,0.060
-8.260E-06,0.080
-8.250E-06,0.040
-8.240E-06,0.060
-8.230E-06,0.060
-8.220E-06,0.080
-8.210E-06,0.060
-8.200E-06,0.080
-8.190E-06,0.040
-8.180E-06,0.040
-8.170E-06,0.060
-8.160E-06,0.040
-8.150E-06,0.060
-8.140E-06,0.080
-8.130E-06,0.080
-8.120E-06,0.080
-8.110E-06,0.080
-8.100E-06,0.040
-8.090E-06,0.060
-8.080E-06,0.060
-8.070E-06,0.080
-8.060E-06,0.040
-8.050E-06,0.040
-8.040E-06,0.060
-8.030E-06,0.040
-8.020E-06,0.040
-8.010E-06,0.080
-8.000E-06,0.060
-7.990E-06,0.040
-7.980E-06,0.060
-7.970E-06,0.040
-7.960E-06,0.060
-7.950E-06,0.080
-7.940E-06,0.060
-7.930E-06,0.040
-7.920E-06,0.080
-7.910E-06,0.060
-7.900E-06,0.040
-7.890E-06,0.040
-7.880E-06,0.060
-7.870E-06,0.040
-7.860E-06,0.020
-7.850E-06,0.060
-7.840E-06,0.040
-7.830E-06,0.040
-7.820E-06,0.060
-7.810E-06,0.040
-7.800E-06,0.080
-7.790E-06,0.060
-7.780E-06,0.040
-7.770E-06,0.040
-7.760E-06,0.060
-7.750E-06,0.060
-7.740E-06,0.040
-7.730E-06,0.060
-7.720E-06,0.060
-7.710E-06,0.080
-7.700E-06,0.040
-7.690E-06,0.020
-7.680E-06,0.060
-7.670E-06,0.020
-7.660E-06,0.040
-7.650E-06,0.060
-7.640E-06,0.020
-7.630E-06,0.060
-7.620E-06,0.080
-7.610E-06,0.060
-7.600E-06,0.040
-7.590E-06,0.060
-7.580E-06,0.040
-7.570E-06,0.080
-7.560E-06,0.040
-7.550E-06,0.040
-7.540E-06,0.060
-7.530E-06,0.040
-7.520E-06,0.060
-7.510E-06,0.020
-7.500E-06,0.060
-7.490E-06,0.060
-7.480E-06,0.080
-7.470E-06,0.060
-7.460E-06,0.080
-7.450E-06,0.020
-7.440E-06,0.020
-7.430E-06,0.040
-7.420E-06,0.040
-7.410E-06,0.040
-7.400E-06,0.060
-7.390E-06,0.060
-7.380E-06,0.060
-7.370E-06,0.060
-7.360E-06,0.080
-7.350E-06,0.060
-7.340E-06,0.040
-7.330E-06,0.060
-7.320E-06,0.040
-7.310E-06,0.040
-7.300E-06,0.040
-7.290E-06,0.060
-7.280E-06,0.020
-7.270E-06,0.040
-7.260E-06,0.060
-7.250E-06,0.040
-7.240E-06,0.060
-7.230E-06,0.060
-7.220E-06,0.040
-7.210E-06,0.020
-7.200E-06,0.060
-7.190E-06,0.040
-7.180E-06,0.060
-7.170E-06,0.040
-7.160E-06,0.040
-7.150E-06,0.040
-7.140E-06,0.040
-7.130E-06,0.060
-7.120E-06,0.040
-7.110E-06,0.040
-7.100E-06,0.060
-7.090E-06,0.060
-7.080E-06,0.080
-7.070E-06,0.060
-7.060E-06,0.040
-7.050E-06,0.060
-7.040E-06,0.060
-7.030E-06,0.040
-7.020E-06,0.060
-7.010E-06,0.040
-7.000E-06,0.040
-6.990E-06,0.060
-6.980E-06,0.020
-6.970E-06,0.060
-6.960E-06,0.040
-6.950E-06,0.060
-6.940E-06,0.060
-6.930E-06,0.060
-6.920E-06,0.080
-6.910E-06,0.060
-6.900E-06,0.040
-6.890E-06,0.040
-6.880E-06,0.060
-6.870E-06,0.020
-6.860E-06,0.060
-6.850E-06,0.040
-6.840E-06,0.040
-6.830E-06,0.060
-6.820E-06,0.040
-6.810E-06,0.040
-6.800E-06,0.040
-6.790E-06,0.060
-6.780E-06,0.020
-6.770E-06,0.040
-6.760E-06,0.060
-6.750E-06,0.040
-6.740E-06,0.020
-6.730E-06,0.060
-6.720E-06,0.040
-6.710E-06,0.060
-6.700E-06,0.040
-6.690E-06,0.060
-6.680E-06,0.060
-6.670E-06,0.080
-6.660E-06,0.060
-6.650E-06,0.020
-6.640E-06,0.020
-6.630E-06,0.040
-6.620E-06,0.020
-6.610E-06,0.040
-6.600E-06,0.040
-6.590E-06,0.060
-6.580E-06,0.080
-6.570E-06,0.040
-6.560E-06,0.060
-6.550E-06,0.060
-6.540E-06,0.040
-6.530E-06,0.020
-6.520E-06,0.040
-6.510E-06,0.040
-6.500E-06,0.060
-6.490E-06,0.060
-6.480E-06,0.040
-6.470E-06,0.020
-6.460E-06,0.060
-6.450E-06,0.040
-6.440E-06,0.060
-6.430E-06,0.060
-6.420E-06,0.040
-6.410E-06,0.040
-6.400E-06,0.060
-6.390E-06,0.020
-6.380E-06,0.020
-6.370E-06,0.040
-6.360E-06,0.020
-6.350E-06,0.060
-6.340E-06,0.080
-6.330E-06,0.040
-6.320E-06,0.040
-6.310E-06,0.060
-6.300E-06,0.020
-6.290E-06,0.040
-6.280E-06,0.080
-6.270E-06,0.060
-6.260E-06,0.040
-6.250E-06,0.060
-6.240E-06,0.060
-6.230E-06,0.040
-6.220E-06,0.020
-6.210E-06,0.060
-6.200E-06,0.080
-6.190E-06,0.040
-6.180E-06,0.020
-6.170E-06,0.060
-6.160E-06,0.040
-6.150E-06,0.060
-6.140E-06,0.040
-6.130E-06,0.040
-6.120E-06,0.060
-6.110E-06,0.060
-6.100E-06,0.080
-6.090E-06,0.060
-6.080E-06,0.060
-6.070E-06,0.060
-6.060E-06,0.040
-6.050E-06,0.040
-6.040E-06,0.060
-6.030E-06,0.060
-6.020E-06,0.060
-6.010E-06,0.040
-6.000E-06,0.040
-5.990E-06,0.080
-5.980E-06,0.040
-5.970E-06,0.060
-5.960E-06,0.020
-5.950E-06,0.020
-5.940E-06,0.060
-5.930E-06,0.040
-5.920E-06,0.060
-5.910E-06,0.040
-5.900E-06,0.060
-5.890E-06,0.080
-5.880E-06,0.060
-5.870E-06,0.020
-5.860E-06,0.040
-5.850E-06,0.040
-5.840E-06,0.020
-5.830E-06,0.060
-5.820E-06,0.040
-5.810E-06,0.060
-5.800E-06,0.060
-5.790E-06,0.080
-5.780E-06,0.040
-5.770E-06,0.060
-5.760E-06,0.040
-5.750E-06,0.080
-5.740E-06,0.040
-5.730E-06,0.080
-5.720E-06,0.040
-5.710E-06,0.060
-5.700E-06,0.080
-5.690E-06,0.040
-5.680E-06,0.060
-5.670E-06,0.040
-5.660E-06,0.080
-5.650E-06,0.060
-5.640E-06,0.060
-5.630E-06,0.040
-5.620E-06,0.060
-5.610E-06,0.040
-5.600E-06,0.040
-5.590E-06,0.080
-5.580E-06,0.040
-5.570E-06,0.040
-5.560E-06,0.020
-5.550E-06,0.060
-5.540E-06,0.080
-5.530E-06,0.080
-5.520E-06,0.080
-5.510E-06,0.020
-5.500E-06,0.040
-5.490E-06,0.060
-5.480E-06,0.040
-5.470E-06,0.060
-5.460E-06,0.060
-5.450E-06,0.080
-5.440E-06,0.020
-5.430E-06,0.040
-5.420E-06,0.040
-5.410E-06,0.020
-5.400E-06,0.060
-5.390E-06,0.020
-5.380E-06,0.060
-5.370E-06,0.080
-5.360E-06,0.060
-5.350E-06,0.040
-5.340E-06,0.040
-5.330E-06,0.060
-5.320E-06,0.060
-5.310E-06,0.060
-5.300E-06,0.060
-5.290E-06,0.040
-5.280E-06,0.060
-5.270E-06,0.060
-5.260E-06,0.040
-5.250E-06,0.060
-5.240E-06,0.060
-5.230E-06,0.040
-5.220E-06,0.080
-5.210E-06,0.060
-5.200E-06,0.060
-5.190E-06,0.080
-5.180E-06,0.080
-5.170E-06,0.020
-5.160E-06,0.040
-5.150E-06,0.060
-5.140E-06,0.020
-5.130E-06,0.060
-5.120E-06,0.040
-5.110E-06,0.060
-5.100E-06,0.020
-5.090E-06,0.060
-5.080E-06,0.040
-5.070E-06,0.040
-5.060E-06,0.080
-5.050E-06,0.040
-5.040E-06,0.040
-5.030E-06,0.080
-5.020E-06,0.060
-5.010E-06,0.060
-5.000E-06,0.060
-4.990E-06,0.040
-4.980E-06,0.060
-4.970E-06,0.060
-4.960E-06,0.080
-4.950E-06,0.040
-4.940E-06,0.040
-4.930E-06,0.060
-4.920E-06,0.020
-4.910E-06,0.040
-4.900E-06,0.040
-4.890E-06,0.040
-4.880E-06,0.060
-4.870E-06,0.020
-4.860E-06,0.040
-4.850E-06,0.040
-4.840E-06,0.060
-4.830E-06,0.060
-4.820E-06,0.080
-4.810E-06,0.040
-4.800E-06,0.020
-4.790E-06,0.060
-4.780E-06,0.040
-4.770E-06,0.040
-4.760E-06,0.040
-4.750E-06,0.020
-4.740E-06,0.060
-4.730E-06,0.060
-4.720E-06,0.060
-4.710E-06,0.060
-4.700E-06,0.020
-4.690E-06,0.040
-4.680E-06,0.060
-4.670E-06,0.040
-4.660E-06,0.060
-4.650E-06,0.040
-4.640E-06,0.040
-4.630E-06,0.060
-4.620E-06,0.040
-4.610E-06,0.020
-4.600E-06,0.040
-4.590E-06,0.060
-4.580E-06,0.060
-4.570E-06,0.060
-4.560E-06,0.060
-4.550E-06,0.020
-4.540E-06,0.040
-4.530E-06,0.060
-4.520E-06,0.040
-4.510E-06,0.060
-4.500E-06,0.020
-4.490E-06,0.060
-4.480E-06,0.040
-4.470E-06,0.040
-4.460E-06,0.080
-4.450E-06,0.040
-4.440E-06,0.040
-4.430E-06,0.060
-4.420E-06,0.060
-4.410E-06,0.080
-4.400E-06,0.060
-4.390E-06,0.060
-4.380E-06,0.060
-4.370E-06,0.060
-4.360E-06,0.060
-4.350E-06,0.040
-4.340E-06,0.040
-4.330E-06,0.040
-4.320E-06,0.040
-4.310E-06,0.040
-4.300E-06,0.060
-4.290E-06,0.040
-4.280E-06,0.060
-4.270E-06,0.080
-4.260E-06,0.060
-4.250E-06,0.080
-4.240E-06,0.040
-4.230E-06,0.040
-4.220E-06,0.060
-4.210E-06,0.060
-4.200E-06,0.060
-4.190E-06,0.040
-4.180E-06,0.040
-4.170E-06,0.080
-4.160E-06,0.060
-4.150E-06,0.060
-4.140E-06,0.060
-4.130E-06,0.060
-4.120E-06,0.040
-4.110E-06,0.040
-4.100E-06,0.060
-4.090E-06,0.040
-4.080E-06,0.040
-4.070E-06,0.060
-4.060E-06,0.060
-4.050E-06,0.040
-4.040E-06,0.040
-4.030E-06,0.060
-4.020E-06,0.040
-4.010E-06,0.060
-4.000E-06,0.060
-3.990E-06,0.080
-3.980E-06,0.040
-3.970E-06,0.060
-3.960E-06,0.080
-3.950E-06,0.060
-3.940E-06,0.080
-3.930E-06,0.060
-3.920E-06,0.080
-3.910E-06,0.080
-3.900E-06,0.040
-3.890E-06,0.020
-3.880E-06,0.040
-3.870E-06,0.080
-3.860E-06,0.080
-3.850E-06,0.080
-3.840E-06,0.080
-3.830E-06,0.020
-3.820E-06,0.000
-3.810E-06,-0.260
-3.800E-06,-0.860
-3.790E-06,-1.840
-3.780E-06,-2.660
-3.770E-06,-2.660
-3.760E-06,-2.660
-3.750E-06,-2.660
-3.740E-06,-2.660
-3.730E-06,-2.660
-3.720E-06,-2.560
-3.710E-06,-1.020
-3.700E-06,0.660
-3.690E-06,2.280
-3.680E-06,2.780
-3.670E-06,2.760
-3.660E-06,2.760
-3.650E-06,2.760
-3.640E-06,2.780
-3.630E-06,2.780
-3.620E-06,2.760
-3.610E-06,2.740
-3.600E-06,2.400
-3.590E-06,2.060
-3.580E-06,1.820
-3.570E-06,1.700
-3.560E-06,1.660
-3.550E-06,1.580
-3.540E-06,1.380
-3.530E-06,1.020
-3.520E-06,0.420
-3.510E-06,-0.260
-3.500E-06,-1.020
-3.490E-06,-1.760
-3.480E-06,-2.400
-3.470E-06,-2.640
-3.460E-06,-2.640
-3.450E-06,-2.640
-3.440E-06,-2.640
-3.430E-06,-2.640
-3.420E-06,-2.460
-3.410E-06,-1.820
-3.400E-06,-1.160
-3.390E-06,-0.420
-3.380E-06,0.200
-3.370E-06,0.740
-3.360E-06,1.120
-3.350E-06,1.280
-3.340E-06,1.260
-3.330E-06,1.100
-3.320E-06,0.780
-3.310E-06,0.400
-3.300E-06,0.080
-3.290E-06,-0.220
-3.280E-06,-0.380
-3.270E-06,-0.520
-3.260E-06,-0.500
-3.250E-06,-0.480
-3.240E-06,-0.360
-3.230E-06,-0.240
-3.220E-06,-0.100
-3.210E-06,0.020
-3.200E-06,0.080
-3.190E-06,0.120
-3.180E-06,0.120
-3.170E-06,0.060
-3.160E-06,0.040
-3.150E-06,0.060
-3.140E-06,0.020
-3.130E-06,0.020
-3.120E-06,0.120
-3.110E-06,0.220
-3.100E-06,0.360
-3.090E-06,0.560
-3.080E-06,0.780
-3.070E-06,1.000
-3.060E-06,1.140
-3.050E-06,1.280
-3.040E-06,1.340
-3.030E-06,1.260
-3.020E-06,1.180
-3.010E-06,1.000
-3.000E-06,0.760
-2.990E-06,0.460
-2.980E-06,0.140
-2.970E-06,-0.160
-2.960E-06,-0.380
-2.950E-06,-0.600
-2.940E-06,-0.680
-2.930E-06,-0.700
-2.920E-06,-0.680
-2.910E-06,-0.580
-2.900E-06,-0.400
-2.890E-06,-0.240
-2.880E-06,-0.060
-2.870E-06,0.080
-2.860E-06,0.240
-2.850E-06,0.300
-2.840E-06,0.360
-2.830E-06,0.360
-2.820E-06,0.260
-2.810E-06,0.220
-2.800E-06,0.200
-2.790E-06,0.180
-2.780E-06,0.220
-2.770E-06,0.220
-2.760E-06,0.200
-2.750E-06,0.220
-2.740E-06,0.220
-2.730E-06,0.260
-2.720E-06,0.240
-2.710E-06,0.180
-2.700E-06,0.120
-2.690E-06,0.040
-2.680E-06,-0.060
-2.670E-06,-0.180
-2.660E-06,-0.260
-2.650E-06,-0.340
-2.640E-06,-0.360
-2.630E-06,-0.440
-2.620E-06,-0.500
-2.610E-06,-0.460
-2.600E-06,-0.420
-2.590E-06,-0.340
-2.580E-06,-0.300
-2.570E-06,-0.220
-2.560E-06,-0.140
-2.550E-06,-0.020
-2.540E-06,0.040
-2.530E-06,0.120
-2.520E-06,0.220
-2.510E-06,0.260
-2.500E-06,0.320
-2.490E-06,0.320
-2.480E-06,0.360
-2.470E-06,0.420
-2.460E-06,0.400
-2.450E-06,0.420
-2.440E-06,0.440
-2.430E-06,0.440
-2.420E-06,0.420
-2.410E-06,0.420
-2.400E-06,0.400
-2.390E-06,0.380
-2.380E-06,0.320
-2.370E-06,0.300
-2.360E-06,0.260
-2.350E-06,0.200
-2.340E-06,0.120
-2.330E-06,0.060
-2.320E-06,0.020
-2.310E-06,-0.060
-2.300E-06,-0.160
-2.290E-06,-0.240
-2.280E-06,-0.300
-2.270E-06,-0.400
-2.260E-06,-0.420
-2.250E-06,-0.440
-2.240E-06,-0.460
-2.230E-06,-0.460
-2.220E-06,-0.400
-2.210E-06,-0.400
-2.200E-06,-0.360
-2.190E-06,-0.320
-2.180E-06,-0.260
-2.170E-06,-0.200
-2.160E-06,-0.160
-2.150E-06,-0.080
-2.140E-06,-0.020
-2.130E-06,-0.020
-2.120E-06,0.020
-2.110E-06,0.040
-2.100E-06,-0.040
-2.090E-06,-0.060
-2.080E-06,-0.080
-2.070E-06,-0.080
-2.060E-06,-0.120
-2.050E-06,-0.160
-2.040E-06,-0.220
-2.030E-06,-0.260
-2.020E-06,-0.240
-2.010E-06,-0.280
-2.000E-06,-0.300
-1.990E-06,-0.320
-1.980E-06,-0.340
-1.970E-06,-0.360
-1.960E-06,-0.360
-1.950E-06,-0.400
-1.940E-06,-0.340
-1.930E-06,-0.260
-1.920E-06,-0.080
-1.910E-06,0.100
-1.900E-06,0.320
-1.890E-06,0.440
-1.880E-06,0.500
-1.870E-06,0.500
-1.860E-06,0.380
-1.850E-06,0.260
-1.840E-06,0.140
-1.830E-06,-0.020
-1.820E-06,-0.200
-1.810E-06,-0.380
-1.800E-06,-0.520
-1.790E-06,-0.700
-1.780E-06,-0.860
-1.770E-06,-1.020
-1.760E-06,-1.160
-1.750E-06,-1.300
-1.740E-06,-1.360
-1.730E-06,-1.480
-1.720E-06,-1.480
-1.710E-06,-1.460
-1.700E-06,-1.380
-1.690E-06,-1.320
-1.680E-06,-1.260
-1.670E-06,-1.160
-1.660E-06,-1.080
-1.650E-06,-0.940
-1.640E-06,-0.760
-1.630E-06,-0.600
-1.620E-06,-0.460
-1.610E-06,-0.340
-1.600E-06,-0.180
-1.590E-06,-0.060
-1.580E-06,-0.020
-1.570E-06,0.040
-1.560E-06,0.080
-1.550E-06,0.060
-1.540E-06,-0.020
-1.530E-06,-0.080
-1.520E-06,-0.160
-1.510E-06,-0.240
-1.500E-06,-0.320
-1.490E-06,-0.420
-1.480E-06,-0.500
-1.470E-06,-0.600
-1.460E-06,-0.640
-1.450E-06,-0.720
-1.440E-06,-0.680
-1.430E-06,-0.740
-1.420E-06,-0.760
-1.410E-06,-0.740
-1.400E-06,-0.680
-1.390E-06,-0.700
-1.380E-06,-0.620
-1.370E-06,-0.620
-1.360E-06,-0.600
-1.350E-06,-0.580
-1.340E-06,-0.520
-1.330E-06,-0.500
-1.320E-06,-0.460
-1.310E-06,-0.480
-1.300E-06,-0.440
-1.290E-06,-0.420
-1.280E-06,-0.420
-1.270E-06,-0.440
-1.260E-06,-0.480
-1.250E-06,-0.500
-1.240E-06,-0.540
-1.230E-06,-0.580
-1.220E-06,-0.640
-1.210E-06,-0.660
-1.200E-06,-0.740
-1.190E-06,-0.800
-1.180E-06,-0.840
-1.170E-06,-0.920
-1.160E-06,-0.920
-1.150E-06,-0.920
-1.140E-06,-0.900
-1.130E-06,-0.860
-1.120E-06,-0.820
-1.110E-06,-0.800
-1.100E-06,-0.740
-1.090E-06,-0.740
-1.080E-06,-0.700
-1.070E-06,-0.720
-1.060E-06,-0.740
-1.050E-06,-0.780
-1.040E-06,-0.800
-1.030E-06,-0.820
-1.020E-06,-0.860
-1.010E-06,-0.920
-1.000E-06,-0.960
-9.900E-07,-1.020
-9.800E-07,-1.060
-9.700E-07,-1.140
-9.600E-07,-1.220
-9.500E-07,-1.300
-9.400E-07,-1.400
-9.300E-07,-1.500
-9.200E-07,-1.540
-9.100E-07,-1.600
-9.000E-07,-1.640
-8.900E-07,-1.680
-8.800E-07,-1.700
-8.700E-07,-1.680
-8.600E-07,-1.660
-8.500E-07,-1.680
-8.400E-07,-1.700
-8.300E-07,-1.720
-8.200E-07,-1.740
-8.100E-07,-1.720
-8.000E-07,-1.720
-7.900E-07,-1.700
-7.800E-07,-1.720
-7.700E-07,-1.740
-7.600E-07,-1.780
-7.500E-07,-1.920
-7.400E-07,-2.000
-7.300E-07,-2.220
-7.200E-07,-2.280
-7.100E-07,-2.520
-7.000E-07,-2.640
-6.900E-07,-2.660
-6.800E-07,-2.640
-6.700E-07,-2.660
-6.600E-07,-2.660
-6.500E-07,-2.660
-6.400E-07,-2.660
-6.300E-07,-2.660
-6.200E-07,-2.660
-6.100E-07,-2.660
-6.000E-07,-2.660
-5.900E-07,-2.660
-5.800E-07,-2.660
-5.700E-07,-2.660
-5.600E-07,-2.660
-5.500E-07,-2.660
-5.400E-07,-2.660
-5.300E-07,-2.660
-5.200E-07,-2.660
-5.100E-07,-2.680
-5.000E-07,-2.680
-4.900E-07,-2.660
-4.800E-07,-2.660
-4.700E-07,-2.660
-4.600E-07,-2.660
-4.500E-07,-2.660
-4.400E-07,-2.660
-4.300E-07,-2.660
-4.200E-07,-2.660
-4.100E-07,-2.660
-4.000E-07,-2.660
-3.900E-07,-2.660
-3.800E-07,-2.660
-3.700E-07,-2.640
-3.600E-07,-2.600
-3.500E-07,-2.540
-3.400E-07,-2.480
-3.300E-07,-2.540
-3.200E-07,-2.560
-3.100E-07,-2.640
-3.000E-07,-2.660
-2.900E-07,-2.660
-2.800E-07,-2.660
-2.700E-07,-2.660
-2.600E-07,-2.500
-2.500E-07,-2.360
-2.400E-07,-2.280
-2.300E-07,-2.280
-2.200E-07,-2.400
-2.100E-07,-2.360
-2.000E-07,-2.520
-1.900E-07,-2.560
-1.800E-07,-2.460
-1.700E-07,-2.480
-1.600E-07,-2.380
-1.500E-07,-2.400
-1.400E-07,-2.260
-1.300E-07,-2.280
-1.200E-07,-2.320
-1.100E-07,-2.340
-1.000E-07,-2.380
-9.000E-08,-2.600
-8.000E-08,-2.620
-7.000E-08,-2.660
-6.000E-08,-2.660
-5.000E-08,-2.660
-4.000E-08,-2.200
-3.000E-08,-1.840
-2.000E-08,-0.720
-1.000E-08,-1.040
0.000E+00,-1.200
1.000E-08,-1.340
2.000E-08,-1.780
3.000E-08,-1.320
4.000E-08,-1.180
5.000E-08,-1.300
6.000E-08,-1.360
7.000E-08,-1.760
8.000E-08,-1.680
9.000E-08,-1.680
1.000E-07,-1.680
1.100E-07,-1.940
1.200E-07,-2.060
1.300E-07,-2.220
1.400E-07,-2.200
1.500E-07,-2.080
1.600E-07,-2.040
1.700E-07,-1.900
1.800E-07,-1.740
1.900E-07,-1.580
2.000E-07,-1.460
2.100E-07,-1.260
2.200E-07,-1.120
2.300E-07,-1.000
2.400E-07,-0.860
2.500E-07,-0.760
2.600E-07,-0.620
2.700E-07,-0.520
2.800E-07,-0.360
2.900E-07,-0.340
3.000E-07,-0.220
3.100E-07,-0.180
3.200E-07,-0.120
3.300E-07,-0.120
3.400E-07,-0.140
3.500E-07,-0.160
3.600E-07,-0.120
3.700E-07,-0.180
3.800E-07,-0.120
3.900E-07,-0.160
4.000E-07,-0.240
4.100E-07,-0.340
4.200E-07,-0.400
4.300E-07,-0.420
4.400E-07,-0.400
4.500E-07,-0.360
4.600E-07,-0.360
4.700E-07,-0.300
4.800E-07,-0.300
4.900E-07,-0.260
5.000E-07,-0.240
5.100E-07,-0.300
5.200E-07,-0.340
5.300E-07,-0.440
5.400E-07,-0.520
5.500E-07,-0.660
5.600E-07,-0.800
5.700E-07,-0.860
5.800E-07,-1.020
5.900E-07,-1.100
6.000E-07,-1.200
6.100E-07,-1.320
6.200E-07,-1.500
6.300E-07,-1.720
6.400E-07,-2.000
6.500E-07,-2.240
6.600E-07,-2.340
6.700E-07,-2.300
6.800E-07,-2.200
6.900E-07,-2.200
7.000E-07,-2.160
7.100E-07,-2.200
7.200E-07,-2.160
7.300E-07,-2.080
7.400E-07,-2.140
7.500E-07,-2.080
7.600E-07,-2.120
7.700E-07,-2.040
7.800E-07,-2.040
7.900E-07,-2.060
8.000E-07,-2.060
8.100E-07,-2.100
8.200E-07,-2.180
8.300E-07,-2.300
8.400E-07,-2.320
8.500E-07,-2.380
8.600E-07,-2.420
8.700E-07,-2.500
8.800E-07,-2.660
8.900E-07,-2.660
9.000E-07,-2.660
9.100E-07,-2.660
9.200E-07,-2.680
9.300E-07,-2.660
9.400E-07,-2.400
9.500E-07,-2.040
9.600E-07,-1.920
9.700E-07,-1.880
9.800E-07,-1.440
9.900E-07,-1.440
1.000E-06,-1.260
1.010E-06,-1.560
1.020E-06,-1.860
1.030E-06,-2.320
1.040E-06,-2.660
1.050E-06,-2.660
1.060E-06,-2.640
1.070E-06,-2.660
1.080E-06,-2.660
1.090E-06,-2.680
1.100E-06,-2.680
1.110E-06,-2.660
1.120E-06,-2.660
1.130E-06,-2.660
1.140E-06,-2.660
1.150E-06,-2.660
1.160E-06,-2.660
1.170E-06,-2.660
1.180E-06,-2.660
1.190E-06,-2.520
1.200E-06,-2.200
1.210E-06,-1.920
1.220E-06,-1.620
1.230E-06,-1.420
1.240E-06,-1.240
1.250E-06,-1.080
1.260E-06,-0.980
1.270E-06,-0.880
1.280E-06,-0.860
1.290E-06,-0.780
1.300E-06,-0.840
1.310E-06,-0.880
1.320E-06,-0.900
1.330E-06,-1.040
1.340E-06,-1.200
1.350E-06,-1.420
1.360E-06,-1.620
1.370E-06,-1.840
1.380E-06,-2.000
1.390E-06,-2.140
1.400E-06,-2.200
1.410E-06,-2.140
1.420E-06,-2.040
1.430E-06,-1.900
1.440E-06,-1.660
1.450E-06,-1.420
1.460E-06,-1.140
1.470E-06,-0.880
1.480E-06,-0.580
1.490E-06,-0.300
1.500E-06,-0.040
1.510E-06,0.060
1.520E-06,0.160
1.530E-06,0.160
1.540E-06,0.140
1.550E-06,-0.020
1.560E-06,-0.140
1.570E-06,-0.340
1.580E-06,-0.600
1.590E-06,-0.840
1.600E-06,-1.060
1.610E-06,-1.300
1.620E-06,-1.480
1.630E-06,-1.600
1.640E-06,-1.780
1.650E-06,-1.980
1.660E-06,-2.160
1.670E-06,-2.280
1.680E-06,-2.440
1.690E-06,-2.440
1.700E-06,-2.420
1.710E-06,-2.480
1.720E-06,-2.580
1.730E-06,-2.520
1.740E-06,-2.500
1.750E-06,-2.440
1.760E-06,-2.480
1.770E-06,-2.560
1.780E-06,-2.620
1.790E-06,-2.660
1.800E-06,-2.660
1.810E-06,-2.660
1.820E-06,-2.660
1.830E-06,-2.600
1.840E-06,-2.660
1.850E-06,-2.660
1.860E-06,-2.640
1.870E-06,-2.640
1.880E-06,-2.660
1.890E-06,-2.660
1.900E-06,-2.660
1.910E-06,-2.660
1.920E-06,-2.660
1.930E-06,-2.660
1.940E-06,-2.660
1.950E-06,-2.680
1.960E-06,-2.680
1.970E-06,-2.680
1.980E-06,-2.680
1.990E-06,-2.660
2.000E-06,-2.660
2.010E-06,-2.660
2.020E-06,-2.680
2.030E-06,-2.680
2.040E-06,-2.680
2.050E-06,-2.680
2.060E-06,-2.660
2.070E-06,-2.660
2.080E-06,-2.660
2.090E-06,-2.660
2.100E-06,-2.660
2.110E-06,-2.660
2.120E-06,-2.660
2.130E-06,-2.660
2.140E-06,-2.660
2.150E-06,-2.660
2.160E-06,-2.660
2.170E-06,-2.660
2.180E-06,-2.640
2.190E-06,-2.460
2.200E-06,-2.280
2.210E-06,-2.100
2.220E-06,-1.940
2.230E-06,-1.740
2.240E-06,-1.640
2.250E-06,-1.520
2.260E-06,-1.400
2.270E-06,-1.340
2.280E-06,-1.260
2.290E-06,-1.120
2.300E-06,-1.000
2.310E-06,-0.920
2.320E-06,-0.800
2.330E-06,-0.680
2.340E-06,-0.540
2.350E-06,-0.440
2.360E-06,-0.260
2.370E-06,-0.100
2.380E-06,0.140
2.390E-06,0.340
2.400E-06,0.500
2.410E-06,0.600
2.420E-06,0.660
2.430E-06,0.640
2.440E-06,0.600
2.450E-06,0.500
2.460E-06,0.420
2.470E-06,0.260
2.480E-06,0.100
2.490E-06,-0.060
2.500E-06,-0.240
2.510E-06,-0.360
2.520E-06,-0.560
2.530E-06,-0.640
2.540E-06,-0.680
2.550E-06,-0.680
2.560E-06,-0.660
2.570E-06,-0.620
2.580E-06,-0.500
2.590E-06,-0.420
2.600E-06,-0.320
2.610E-06,-0.220
2.620E-06,-0.140
2.630E-06,-0.080
2.640E-06,-0.020
2.650E-06,0.000
2.660E-06,-0.020
2.670E-06,0.000
2.680E-06,-0.020
2.690E-06,-0.040
2.700E-06,-0.040
2.710E-06,-0.080
2.720E-06,-0.080
2.730E-06,-0.080
2.740E-06,-0.080
2.750E-06,-0.080
2.760E-06,-0.040
2.770E-06,-0.040
2.780E-06,-0.100
2.790E-06,-0.080
2.800E-06,-0.100
2.810E-06,-0.080
2.820E-06,-0.080
2.830E-06,-0.040
2.840E-06,-0.040
2.850E-06,-0.020
2.860E-06,0.020
2.870E-06,0.080
2.880E-06,0.180
2.890E-06,0.260
2.900E-06,0.360
2.910E-06,0.460
2.920E-06,0.520
2.930E-06,0.560
2.940E-06,0.580
2.950E-06,0.620
2.960E-06,0.600
2.970E-06,0.540
2.980E-06,0.480
2.990E-06,0.420
3.000E-06,0.340
3.010E-06,0.240
3.020E-06,0.180
3.030E-06,0.180
3.040E-06,0.120
3.050E-06,0.140
3.060E-06,0.160
3.070E-06,0.200
3.080E-06,0.200
3.090E-06,0.220
3.100E-06,0.260
3.110E-06,0.260
3.120E-06,0.320
3.130E-06,0.320
3.140E-06,0.340
3.150E-06,0.340
3.160E-06,0.340
3.170E-06,0.360
3.180E-06,0.360
