mediciones/Mediciones filtradas (saque las feas)/5-15/14.9/WaveData47322.csv

#timebase=2000000(ps)
,#voltbase=500000(mv/100)
#size=4000
-8.400E-06,0.060
-8.390E-06,0.060
-8.380E-06,0.060
-8.370E-06,0.040
-8.360E-06,0.020
-8.350E-06,0.040
-8.340E-06,0.040
-8.330E-06,0.040
-8.320E-06,0.040
-8.310E-06,0.060
-8.300E-06,0.040
-8.290E-06,0.060
-8.280E-06,0.040
-8.270E-06,0.020
-8.260E-06,0.040
-8.250E-06,0.040
-8.240E-06,0.060
-8.230E-06,0.040
-8.220E-06,0.020
-8.210E-06,0.040
-8.200E-06,0.060
-8.190E-06,0.060
-8.180E-06,0.020
-8.170E-06,0.040
-8.160E-06,0.060
-8.150E-06,0.020
-8.140E-06,0.020
-8.130E-06,0.060
-8.120E-06,0.060
-8.110E-06,0.060
-8.100E-06,0.040
-8.090E-06,0.040
-8.080E-06,0.060
-8.070E-06,0.040
-8.060E-06,0.020
-8.050E-06,0.040
-8.040E-06,0.060
-8.030E-06,0.040
-8.020E-06,0.020
-8.010E-06,0.040
-8.000E-06,0.060
-7.990E-06,0.040
-7.980E-06,0.040
-7.970E-06,0.040
-7.960E-06,0.060
-7.950E-06,0.040
-7.940E-06,0.040
-7.930E-06,0.040
-7.920E-06,0.040
-7.910E-06,0.040
-7.900E-06,0.040
-7.890E-06,0.040
-7.880E-06,0.060
-7.870E-06,0.040
-7.860E-06,0.020
-7.850E-06,0.040
-7.840E-06,0.060
-7.830E-06,0.060
-7.820E-06,0.060
-7.810E-06,0.020
-7.800E-06,0.020
-7.790E-06,0.040
-7.780E-06,0.040
-7.770E-06,0.060
-7.760E-06,0.040
-7.750E-06,0.040
-7.740E-06,0.040
-7.730E-06,0.040
-7.720E-06,0.040
-7.710E-06,0.060
-7.700E-06,0.040
-7.690E-06,0.020
-7.680E-06,0.040
-7.670E-06,0.040
-7.660E-06,0.060
-7.650E-06,0.040
-7.640E-06,0.040
-7.630E-06,0.060
-7.620E-06,0.040
-7.610E-06,0.020
-7.600E-06,0.040
-7.590E-06,0.060
-7.580E-06,0.060
-7.570E-06,0.020
-7.560E-06,0.020
-7.550E-06,0.060
-7.540E-06,0.020
-7.530E-06,0.040
-7.520E-06,0.020
-7.510E-06,0.040
-7.500E-06,0.060
-7.490E-06,0.040
-7.480E-06,0.040
-7.470E-06,0.040
-7.460E-06,0.040
-7.450E-06,0.040
-7.440E-06,0.040
-7.430E-06,0.060
-7.420E-06,0.040
-7.410E-06,0.080
-7.400E-06,0.060
-7.390E-06,0.020
-7.380E-06,0.020
-7.370E-06,0.060
-7.360E-06,0.020
-7.350E-06,0.040
-7.340E-06,0.020
-7.330E-06,0.040
-7.320E-06,0.020
-7.310E-06,0.040
-7.300E-06,0.020
-7.290E-06,0.020
-7.280E-06,0.040
-7.270E-06,0.040
-7.260E-06,0.040
-7.250E-06,0.060
-7.240E-06,0.040
-7.230E-06,0.040
-7.220E-06,0.040
-7.210E-06,0.040
-7.200E-06,0.060
-7.190E-06,0.040
-7.180E-06,0.020
-7.170E-06,0.020
-7.160E-06,0.040
-7.150E-06,0.040
-7.140E-06,0.060
-7.130E-06,0.040
-7.120E-06,0.080
-7.110E-06,0.060
-7.100E-06,0.020
-7.090E-06,0.040
-7.080E-06,0.060
-7.070E-06,0.040
-7.060E-06,0.060
-7.050E-06,0.060
-7.040E-06,0.020
-7.030E-06,0.040
-7.020E-06,0.040
-7.010E-06,0.060
-7.000E-06,0.060
-6.990E-06,0.040
-6.980E-06,0.040
-6.970E-06,0.060
-6.960E-06,0.020
-6.950E-06,0.020
-6.940E-06,0.040
-6.930E-06,0.020
-6.920E-06,0.040
-6.910E-06,0.060
-6.900E-06,0.060
-6.890E-06,0.020
-6.880E-06,0.040
-6.870E-06,0.040
-6.860E-06,0.060
-6.850E-06,0.040
-6.840E-06,0.060
-6.830E-06,0.040
-6.820E-06,0.040
-6.810E-06,0.060
-6.800E-06,0.040
-6.790E-06,0.040
-6.780E-06,0.040
-6.770E-06,0.040
-6.760E-06,0.060
-6.750E-06,0.040
-6.740E-06,0.040
-6.730E-06,0.040
-6.720E-06,0.060
-6.710E-06,0.020
-6.700E-06,0.040
-6.690E-06,0.040
-6.680E-06,0.060
-6.670E-06,0.040
-6.660E-06,0.020
-6.650E-06,0.040
-6.640E-06,0.040
-6.630E-06,0.040
-6.620E-06,0.040
-6.610E-06,0.040
-6.600E-06,0.060
-6.590E-06,0.040
-6.580E-06,0.040
-6.570E-06,0.040
-6.560E-06,0.040
-6.550E-06,0.060
-6.540E-06,0.040
-6.530E-06,0.020
-6.520E-06,0.040
-6.510E-06,0.060
-6.500E-06,0.020
-6.490E-06,0.020
-6.480E-06,0.040
-6.470E-06,0.020
-6.460E-06,0.040
-6.450E-06,0.020
-6.440E-06,0.040
-6.430E-06,0.040
-6.420E-06,0.040
-6.410E-06,0.040
-6.400E-06,0.040
-6.390E-06,0.060
-6.380E-06,0.040
-6.370E-06,0.020
-6.360E-06,0.040
-6.350E-06,0.040
-6.340E-06,0.060
-6.330E-06,0.060
-6.320E-06,0.060
-6.310E-06,0.080
-6.300E-06,0.060
-6.290E-06,0.020
-6.280E-06,0.040
-6.270E-06,0.040
-6.260E-06,0.080
-6.250E-06,0.080
-6.240E-06,0.040
-6.230E-06,0.020
-6.220E-06,0.060
-6.210E-06,0.020
-6.200E-06,0.060
-6.190E-06,0.060
-6.180E-06,0.080
-6.170E-06,0.060
-6.160E-06,0.020
-6.150E-06,0.060
-6.140E-06,0.040
-6.130E-06,0.040
-6.120E-06,0.040
-6.110E-06,0.060
-6.100E-06,0.080
-6.090E-06,0.060
-6.080E-06,0.040
-6.070E-06,0.060
-6.060E-06,0.040
-6.050E-06,0.040
-6.040E-06,0.060
-6.030E-06,0.040
-6.020E-06,0.040
-6.010E-06,0.080
-6.000E-06,0.080
-5.990E-06,0.040
-5.980E-06,0.040
-5.970E-06,0.040
-5.960E-06,0.040
-5.950E-06,0.080
-5.940E-06,0.040
-5.930E-06,0.020
-5.920E-06,0.040
-5.910E-06,0.060
-5.900E-06,0.020
-5.890E-06,0.040
-5.880E-06,0.040
-5.870E-06,0.060
-5.860E-06,0.040
-5.850E-06,0.020
-5.840E-06,0.040
-5.830E-06,0.040
-5.820E-06,0.040
-5.810E-06,0.040
-5.800E-06,0.060
-5.790E-06,0.060
-5.780E-06,0.040
-5.770E-06,0.040
-5.760E-06,0.040
-5.750E-06,0.080
-5.740E-06,0.060
-5.730E-06,0.020
-5.720E-06,0.060
-5.710E-06,0.020
-5.700E-06,0.060
-5.690E-06,0.080
-5.680E-06,0.060
-5.670E-06,0.020
-5.660E-06,0.040
-5.650E-06,0.040
-5.640E-06,0.080
-5.630E-06,0.060
-5.620E-06,0.040
-5.610E-06,0.040
-5.600E-06,0.060
-5.590E-06,0.060
-5.580E-06,0.020
-5.570E-06,0.060
-5.560E-06,0.040
-5.550E-06,0.080
-5.540E-06,0.060
-5.530E-06,0.020
-5.520E-06,0.060
-5.510E-06,0.060
-5.500E-06,0.080
-5.490E-06,0.040
-5.480E-06,0.040
-5.470E-06,0.060
-5.460E-06,0.040
-5.450E-06,0.060
-5.440E-06,-0.020
-5.430E-06,-0.300
-5.420E-06,-0.900
-5.410E-06,-1.840
-5.400E-06,-2.660
-5.390E-06,-2.680
-5.380E-06,-2.680
-5.370E-06,-2.660
-5.360E-06,-2.660
-5.350E-06,-2.660
-5.340E-06,-2.020
-5.330E-06,-0.540
-5.320E-06,1.000
-5.310E-06,2.360
-5.300E-06,2.780
-5.290E-06,2.760
-5.280E-06,2.780
-5.270E-06,2.760
-5.260E-06,2.760
-5.250E-06,2.780
-5.240E-06,2.720
-5.230E-06,2.340
-5.220E-06,2.040
-5.210E-06,1.760
-5.200E-06,1.660
-5.190E-06,1.600
-5.180E-06,1.540
-5.170E-06,1.480
-5.160E-06,1.280
-5.150E-06,0.900
-5.140E-06,0.300
-5.130E-06,-0.380
-5.120E-06,-1.080
-5.110E-06,-1.760
-5.100E-06,-2.300
-5.090E-06,-2.680
-5.080E-06,-2.680
-5.070E-06,-2.660
-5.060E-06,-2.660
-5.050E-06,-2.600
-5.040E-06,-2.100
-5.030E-06,-1.500
-5.020E-06,-0.860
-5.010E-06,-0.220
-5.000E-06,0.380
-4.990E-06,0.800
-4.980E-06,1.100
-4.970E-06,1.180
-4.960E-06,1.080
-4.950E-06,0.900
-4.940E-06,0.560
-4.930E-06,0.240
-4.920E-06,-0.060
-4.910E-06,-0.280
-4.900E-06,-0.400
-4.890E-06,-0.460
-4.880E-06,-0.440
-4.870E-06,-0.380
-4.860E-06,-0.240
-4.850E-06,-0.140
-4.840E-06,-0.020
-4.830E-06,0.040
-4.820E-06,0.080
-4.810E-06,0.080
-4.800E-06,0.080
-4.790E-06,0.020
-4.780E-06,-0.020
-4.770E-06,0.000
-4.760E-06,-0.020
-4.750E-06,0.020
-4.740E-06,0.080
-4.730E-06,0.220
-4.720E-06,0.380
-4.710E-06,0.540
-4.700E-06,0.780
-4.690E-06,0.980
-4.680E-06,1.160
-4.670E-06,1.240
-4.660E-06,1.280
-4.650E-06,1.240
-4.640E-06,1.140
-4.630E-06,0.960
-4.620E-06,0.720
-4.610E-06,0.440
-4.600E-06,0.160
-4.590E-06,-0.100
-4.580E-06,-0.340
-4.570E-06,-0.500
-4.560E-06,-0.580
-4.550E-06,-0.580
-4.540E-06,-0.520
-4.530E-06,-0.400
-4.520E-06,-0.260
-4.510E-06,-0.100
-4.500E-06,0.020
-4.490E-06,0.140
-4.480E-06,0.180
-4.470E-06,0.200
-4.460E-06,0.220
-4.450E-06,0.200
-4.440E-06,0.180
-4.430E-06,0.180
-4.420E-06,0.160
-4.410E-06,0.160
-4.400E-06,0.180
-4.390E-06,0.220
-4.380E-06,0.200
-4.370E-06,0.240
-4.360E-06,0.260
-4.350E-06,0.260
-4.340E-06,0.220
-4.330E-06,0.220
-4.320E-06,0.160
-4.310E-06,0.080
-4.300E-06,-0.020
-4.290E-06,-0.100
-4.280E-06,-0.160
-4.270E-06,-0.240
-4.260E-06,-0.280
-4.250E-06,-0.300
-4.240E-06,-0.280
-4.230E-06,-0.280
-4.220E-06,-0.260
-4.210E-06,-0.200
-4.200E-06,-0.160
-4.190E-06,-0.100
-4.180E-06,-0.020
-4.170E-06,0.060
-4.160E-06,0.120
-4.150E-06,0.160
-4.140E-06,0.200
-4.130E-06,0.240
-4.120E-06,0.300
-4.110E-06,0.320
-4.100E-06,0.360
-4.090E-06,0.380
-4.080E-06,0.400
-4.070E-06,0.380
-4.060E-06,0.420
-4.050E-06,0.400
-4.040E-06,0.400
-4.030E-06,0.400
-4.020E-06,0.380
-4.010E-06,0.360
-4.000E-06,0.340
-3.990E-06,0.300
-3.980E-06,0.280
-3.970E-06,0.220
-3.960E-06,0.200
-3.950E-06,0.120
-3.940E-06,0.060
-3.930E-06,0.000
-3.920E-06,-0.100
-3.910E-06,-0.160
-3.900E-06,-0.240
-3.890E-06,-0.280
-3.880E-06,-0.340
-3.870E-06,-0.320
-3.860E-06,-0.320
-3.850E-06,-0.320
-3.840E-06,-0.320
-3.830E-06,-0.240
-3.820E-06,-0.220
-3.810E-06,-0.220
-3.800E-06,-0.160
-3.790E-06,-0.120
-3.780E-06,-0.060
-3.770E-06,-0.020
-3.760E-06,0.000
-3.750E-06,0.020
-3.740E-06,0.040
-3.730E-06,0.020
-3.720E-06,0.060
-3.710E-06,0.080
-3.700E-06,0.080
-3.690E-06,0.080
-3.680E-06,0.080
-3.670E-06,0.040
-3.660E-06,0.060
-3.650E-06,0.080
-3.640E-06,0.060
-3.630E-06,0.060
-3.620E-06,0.040
-3.610E-06,0.040
-3.600E-06,0.020
-3.590E-06,0.000
-3.580E-06,0.000
-3.570E-06,-0.020
-3.560E-06,-0.020
-3.550E-06,-0.040
-3.540E-06,-0.080
-3.530E-06,-0.080
-3.520E-06,-0.040
-3.510E-06,-0.020
-3.500E-06,-0.040
-3.490E-06,0.000
-3.480E-06,0.000
-3.470E-06,-0.020
-3.460E-06,0.000
-3.450E-06,0.000
-3.440E-06,0.000
-3.430E-06,-0.020
-3.420E-06,-0.040
-3.410E-06,-0.060
-3.400E-06,-0.080
-3.390E-06,-0.100
-3.380E-06,-0.140
-3.370E-06,-0.160
-3.360E-06,-0.140
-3.350E-06,-0.140
-3.340E-06,-0.160
-3.330E-06,-0.160
-3.320E-06,-0.140
-3.310E-06,-0.120
-3.300E-06,-0.100
-3.290E-06,-0.080
-3.280E-06,-0.080
-3.270E-06,-0.100
-3.260E-06,-0.100
-3.250E-06,-0.040
-3.240E-06,-0.060
-3.230E-06,-0.040
-3.220E-06,-0.040
-3.210E-06,0.020
-3.200E-06,0.000
-3.190E-06,0.060
-3.180E-06,0.160
-3.170E-06,0.320
-3.160E-06,0.520
-3.150E-06,0.760
-3.140E-06,0.880
-3.130E-06,1.000
-3.120E-06,0.960
-3.110E-06,0.880
-3.100E-06,0.760
-3.090E-06,0.540
-3.080E-06,0.380
-3.070E-06,0.160
-3.060E-06,-0.040
-3.050E-06,-0.220
-3.040E-06,-0.380
-3.030E-06,-0.520
-3.020E-06,-0.680
-3.010E-06,-0.800
-3.000E-06,-0.920
-2.990E-06,-1.000
-2.980E-06,-1.040
-2.970E-06,-1.120
-2.960E-06,-1.100
-2.950E-06,-1.100
-2.940E-06,-1.060
-2.930E-06,-1.020
-2.920E-06,-0.920
-2.910E-06,-0.820
-2.900E-06,-0.680
-2.890E-06,-0.520
-2.880E-06,-0.320
-2.870E-06,-0.120
-2.860E-06,0.100
-2.850E-06,0.280
-2.840E-06,0.460
-2.830E-06,0.600
-2.820E-06,0.720
-2.810E-06,0.780
-2.800E-06,0.820
-2.790E-06,0.760
-2.780E-06,0.720
-2.770E-06,0.620
-2.760E-06,0.480
-2.750E-06,0.300
-2.740E-06,0.140
-2.730E-06,0.000
-2.720E-06,-0.160
-2.710E-06,-0.300
-2.700E-06,-0.440
-2.690E-06,-0.560
-2.680E-06,-0.660
-2.670E-06,-0.740
-2.660E-06,-0.820
-2.650E-06,-0.900
-2.640E-06,-0.960
-2.630E-06,-1.000
-2.620E-06,-1.020
-2.610E-06,-1.060
-2.600E-06,-1.080
-2.590E-06,-1.100
-2.580E-06,-1.120
-2.570E-06,-1.140
-2.560E-06,-1.120
-2.550E-06,-1.100
-2.540E-06,-1.060
-2.530E-06,-0.960
-2.520E-06,-0.860
-2.510E-06,-0.700
-2.500E-06,-0.520
-2.490E-06,-0.320
-2.480E-06,-0.220
-2.470E-06,-0.160
-2.460E-06,-0.220
-2.450E-06,-0.220
-2.440E-06,-0.340
-2.430E-06,-0.380
-2.420E-06,-0.440
-2.410E-06,-0.520
-2.400E-06,-0.600
-2.390E-06,-0.680
-2.380E-06,-0.700
-2.370E-06,-0.780
-2.360E-06,-0.780
-2.350E-06,-0.840
-2.340E-06,-0.900
-2.330E-06,-0.920
-2.320E-06,-0.920
-2.310E-06,-0.860
-2.300E-06,-0.860
-2.290E-06,-0.840
-2.280E-06,-0.800
-2.270E-06,-0.760
-2.260E-06,-0.680
-2.250E-06,-0.660
-2.240E-06,-0.620
-2.230E-06,-0.600
-2.220E-06,-0.560
-2.210E-06,-0.560
-2.200E-06,-0.540
-2.190E-06,-0.500
-2.180E-06,-0.480
-2.170E-06,-0.420
-2.160E-06,-0.400
-2.150E-06,-0.460
-2.140E-06,-0.480
-2.130E-06,-0.480
-2.120E-06,-0.520
-2.110E-06,-0.520
-2.100E-06,-0.540
-2.090E-06,-0.600
-2.080E-06,-0.600
-2.070E-06,-0.620
-2.060E-06,-0.580
-2.050E-06,-0.560
-2.040E-06,-0.500
-2.030E-06,-0.380
-2.020E-06,-0.340
-2.010E-06,-0.260
-2.000E-06,-0.180
-1.990E-06,-0.040
-1.980E-06,0.000
-1.970E-06,0.080
-1.960E-06,0.140
-1.950E-06,0.160
-1.940E-06,0.160
-1.930E-06,0.180
-1.920E-06,0.200
-1.910E-06,0.200
-1.900E-06,0.160
-1.890E-06,0.140
-1.880E-06,0.080
-1.870E-06,0.040
-1.860E-06,-0.020
-1.850E-06,-0.040
-1.840E-06,-0.100
-1.830E-06,-0.140
-1.820E-06,-0.180
-1.810E-06,-0.220
-1.800E-06,-0.280
-1.790E-06,-0.300
-1.780E-06,-0.320
-1.770E-06,-0.340
-1.760E-06,-0.360
-1.750E-06,-0.340
-1.740E-06,-0.360
-1.730E-06,-0.360
-1.720E-06,-0.320
-1.710E-06,-0.340
-1.700E-06,-0.320
-1.690E-06,-0.300
-1.680E-06,-0.260
-1.670E-06,-0.220
-1.660E-06,-0.160
-1.650E-06,-0.140
-1.640E-06,-0.120
-1.630E-06,-0.140
-1.620E-06,-0.100
-1.610E-06,-0.120
-1.600E-06,-0.140
-1.590E-06,-0.160
-1.580E-06,-0.200
-1.570E-06,-0.200
-1.560E-06,-0.220
-1.550E-06,-0.240
-1.540E-06,-0.280
-1.530E-06,-0.260
-1.520E-06,-0.280
-1.510E-06,-0.280
-1.500E-06,-0.300
-1.490E-06,-0.300
-1.480E-06,-0.340
-1.470E-06,-0.340
-1.460E-06,-0.380
-1.450E-06,-0.340
-1.440E-06,-0.380
-1.430E-06,-0.440
-1.420E-06,-0.460
-1.410E-06,-0.500
-1.400E-06,-0.580
-1.390E-06,-0.640
-1.380E-06,-0.700
-1.370E-06,-0.800
-1.360E-06,-0.860
-1.350E-06,-0.900
-1.340E-06,-0.940
-1.330E-06,-0.900
-1.320E-06,-0.900
-1.310E-06,-0.860
-1.300E-06,-0.780
-1.290E-06,-0.700
-1.280E-06,-0.660
-1.270E-06,-0.600
-1.260E-06,-0.600
-1.250E-06,-0.580
-1.240E-06,-0.500
-1.230E-06,-0.420
-1.220E-06,-0.440
-1.210E-06,-0.360
-1.200E-06,-0.460
-1.190E-06,-0.500
-1.180E-06,-0.680
-1.170E-06,-0.880
-1.160E-06,-1.040
-1.150E-06,-1.260
-1.140E-06,-1.600
-1.130E-06,-1.900
-1.120E-06,-2.240
-1.110E-06,-2.600
-1.100E-06,-2.660
-1.090E-06,-2.660
-1.080E-06,-2.660
-1.070E-06,-2.660
-1.060E-06,-2.660
-1.050E-06,-2.660
-1.040E-06,-2.660
-1.030E-06,-2.680
-1.020E-06,-2.660
-1.010E-06,-2.660
-1.000E-06,-2.660
-9.900E-07,-2.660
-9.800E-07,-2.660
-9.700E-07,-2.660
-9.600E-07,-2.660
-9.500E-07,-2.640
-9.400E-07,-2.640
-9.300E-07,-2.540
-9.200E-07,-2.320
-9.100E-07,-2.200
-9.000E-07,-2.120
-8.900E-07,-1.920
-8.800E-07,-1.680
-8.700E-07,-1.400
-8.600E-07,-1.140
-8.500E-07,-1.020
-8.400E-07,-0.940
-8.300E-07,-0.880
-8.200E-07,-1.020
-8.100E-07,-0.940
-8.000E-07,-1.000
-7.900E-07,-1.080
-7.800E-07,-1.100
-7.700E-07,-1.180
-7.600E-07,-1.200
-7.500E-07,-1.180
-7.400E-07,-1.180
-7.300E-07,-1.160
-7.200E-07,-1.120
-7.100E-07,-1.020
-7.000E-07,-0.920
-6.900E-07,-0.800
-6.800E-07,-0.680
-6.700E-07,-0.560
-6.600E-07,-0.440
-6.500E-07,-0.300
-6.400E-07,-0.220
-6.300E-07,-0.180
-6.200E-07,-0.120
-6.100E-07,-0.140
-6.000E-07,-0.160
-5.900E-07,-0.200
-5.800E-07,-0.240
-5.700E-07,-0.320
-5.600E-07,-0.380
-5.500E-07,-0.460
-5.400E-07,-0.540
-5.300E-07,-0.660
-5.200E-07,-0.740
-5.100E-07,-0.800
-5.000E-07,-0.840
-4.900E-07,-0.900
-4.800E-07,-0.920
-4.700E-07,-0.940
-4.600E-07,-0.920
-4.500E-07,-0.840
-4.400E-07,-0.800
-4.300E-07,-0.720
-4.200E-07,-0.620
-4.100E-07,-0.580
-4.000E-07,-0.440
-3.900E-07,-0.320
-3.800E-07,-0.260
-3.700E-07,-0.260
-3.600E-07,-0.200
-3.500E-07,-0.400
-3.400E-07,-0.520
-3.300E-07,-0.720
-3.200E-07,-0.880
-3.100E-07,-0.980
-3.000E-07,-1.100
-2.900E-07,-1.280
-2.800E-07,-1.340
-2.700E-07,-1.540
-2.600E-07,-1.700
-2.500E-07,-1.800
-2.400E-07,-1.920
-2.300E-07,-2.040
-2.200E-07,-2.140
-2.100E-07,-2.320
-2.000E-07,-2.380
-1.900E-07,-2.480
-1.800E-07,-2.500
-1.700E-07,-2.660
-1.600E-07,-2.620
-1.500E-07,-2.660
-1.400E-07,-2.660
-1.300E-07,-2.660
-1.200E-07,-2.660
-1.100E-07,-2.660
-1.000E-07,-2.660
-9.000E-08,-2.660
-8.000E-08,-2.660
-7.000E-08,-2.640
-6.000E-08,-2.640
-5.000E-08,-2.640
-4.000E-08,-2.640
-3.000E-08,-2.660
-2.000E-08,-2.660
-1.000E-08,-2.680
0.000E+00,-2.680
1.000E-08,-2.660
2.000E-08,-2.660
3.000E-08,-2.660
4.000E-08,-2.660
5.000E-08,-2.640
6.000E-08,-2.520
7.000E-08,-2.300
8.000E-08,-2.340
9.000E-08,-2.660
1.000E-07,-2.660
1.100E-07,-2.660
1.200E-07,-2.660
1.300E-07,-2.660
1.400E-07,-2.640
1.500E-07,-2.640
1.600E-07,-2.640
1.700E-07,-2.660
1.800E-07,-2.660
1.900E-07,-2.540
2.000E-07,-2.160
2.100E-07,-2.200
2.200E-07,-2.080
2.300E-07,-2.100
2.400E-07,-2.200
2.500E-07,-2.260
2.600E-07,-2.460
2.700E-07,-2.500
2.800E-07,-2.520
2.900E-07,-2.280
3.000E-07,-2.180
3.100E-07,-1.840
3.200E-07,-1.780
3.300E-07,-1.520
3.400E-07,-1.360
3.500E-07,-1.120
3.600E-07,-0.920
3.700E-07,-0.860
3.800E-07,-1.140
3.900E-07,-1.000
4.000E-07,-1.020
4.100E-07,-0.740
4.200E-07,-0.500
4.300E-07,-0.420
4.400E-07,-0.320
4.500E-07,-0.340
4.600E-07,-0.280
4.700E-07,-0.180
4.800E-07,0.000
4.900E-07,0.100
5.000E-07,0.160
5.100E-07,0.140
5.200E-07,0.140
5.300E-07,0.240
5.400E-07,0.180
5.500E-07,0.100
5.600E-07,-0.100
5.700E-07,-0.180
5.800E-07,-0.320
5.900E-07,-0.360
6.000E-07,-0.600
6.100E-07,-0.740
6.200E-07,-0.840
6.300E-07,-0.840
6.400E-07,-0.920
6.500E-07,-0.820
6.600E-07,-0.900
6.700E-07,-0.820
6.800E-07,-0.800
6.900E-07,-0.820
7.000E-07,-0.860
7.100E-07,-0.880
7.200E-07,-0.940
7.300E-07,-0.840
7.400E-07,-0.780
7.500E-07,-0.700
7.600E-07,-0.540
7.700E-07,-0.580
7.800E-07,-0.520
7.900E-07,-0.620
8.000E-07,-0.520
8.100E-07,-0.600
8.200E-07,-0.640
8.300E-07,-0.880
8.400E-07,-1.100
8.500E-07,-1.340
8.600E-07,-1.600
8.700E-07,-1.860
8.800E-07,-2.140
8.900E-07,-2.360
9.000E-07,-2.500
9.100E-07,-2.480
9.200E-07,-2.420
9.300E-07,-2.340
9.400E-07,-2.200
9.500E-07,-2.040
9.600E-07,-1.880
9.700E-07,-1.780
9.800E-07,-1.680
9.900E-07,-1.580
1.000E-06,-1.460
1.010E-06,-1.380
1.020E-06,-1.360
1.030E-06,-1.320
1.040E-06,-1.320
1.050E-06,-1.340
1.060E-06,-1.300
1.070E-06,-1.340
1.080E-06,-1.360
1.090E-06,-1.380
1.100E-06,-1.380
1.110E-06,-1.440
1.120E-06,-1.480
1.130E-06,-1.520
1.140E-06,-1.680
1.150E-06,-1.840
1.160E-06,-2.000
1.170E-06,-2.140
1.180E-06,-2.220
1.190E-06,-2.280
1.200E-06,-2.540
1.210E-06,-2.660
1.220E-06,-2.660
1.230E-06,-2.660
1.240E-06,-2.660
1.250E-06,-2.660
1.260E-06,-2.660
1.270E-06,-2.640
1.280E-06,-2.660
1.290E-06,-2.660
1.300E-06,-2.660
1.310E-06,-2.640
1.320E-06,-2.640
1.330E-06,-2.640
1.340E-06,-2.660
1.350E-06,-2.660
1.360E-06,-2.660
1.370E-06,-2.660
1.380E-06,-2.660
1.390E-06,-2.660
1.400E-06,-2.680
1.410E-06,-2.680
1.420E-06,-2.680
1.430E-06,-2.660
1.440E-06,-2.660
1.450E-06,-2.660
1.460E-06,-2.660
1.470E-06,-2.660
1.480E-06,-2.660
1.490E-06,-2.660
1.500E-06,-2.660
1.510E-06,-2.660
1.520E-06,-2.660
1.530E-06,-2.660
1.540E-06,-2.380
1.550E-06,-1.720
1.560E-06,-1.500
1.570E-06,-0.940
1.580E-06,-0.720
1.590E-06,-0.620
1.600E-06,-0.900
1.610E-06,-1.600
1.620E-06,-2.260
1.630E-06,-2.680
1.640E-06,-2.680
1.650E-06,-2.680
1.660E-06,-2.660
1.670E-06,-2.660
1.680E-06,-2.660
1.690E-06,-2.680
1.700E-06,-2.660
1.710E-06,-2.660
1.720E-06,-2.660
1.730E-06,-2.660
1.740E-06,-2.660
1.750E-06,-2.660
1.760E-06,-2.580
1.770E-06,-2.240
1.780E-06,-1.960
1.790E-06,-1.640
1.800E-06,-1.360
1.810E-06,-1.080
1.820E-06,-0.760
1.830E-06,-0.560
1.840E-06,-0.380
1.850E-06,-0.320
1.860E-06,-0.280
1.870E-06,-0.280
1.880E-06,-0.340
1.890E-06,-0.380
1.900E-06,-0.340
1.910E-06,-0.340
1.920E-06,-0.340
1.930E-06,-0.320
1.940E-06,-0.340
1.950E-06,-0.360
1.960E-06,-0.320
1.970E-06,-0.300
1.980E-06,-0.260
1.990E-06,-0.180
2.000E-06,-0.160
2.010E-06,-0.140
2.020E-06,-0.160
2.030E-06,-0.140
2.040E-06,-0.160
2.050E-06,-0.200
2.060E-06,-0.220
2.070E-06,-0.220
2.080E-06,-0.240
2.090E-06,-0.160
2.100E-06,-0.140
2.110E-06,-0.100
2.120E-06,-0.100
2.130E-06,-0.060
2.140E-06,-0.080
2.150E-06,-0.040
2.160E-06,-0.060
2.170E-06,-0.060
2.180E-06,-0.080
2.190E-06,-0.160
2.200E-06,-0.200
2.210E-06,-0.160
2.220E-06,-0.160
2.230E-06,-0.080
2.240E-06,-0.020
2.250E-06,0.100
2.260E-06,0.220
2.270E-06,0.340
2.280E-06,0.500
2.290E-06,0.600
2.300E-06,0.780
2.310E-06,0.920
2.320E-06,1.020
2.330E-06,1.060
2.340E-06,1.040
2.350E-06,0.820
2.360E-06,0.500
2.370E-06,0.040
2.380E-06,-0.320
2.390E-06,-0.720
2.400E-06,-1.000
2.410E-06,-1.340
2.420E-06,-1.540
2.430E-06,-1.760
2.440E-06,-1.940
2.450E-06,-2.040
2.460E-06,-2.080
2.470E-06,-2.080
2.480E-06,-1.980
2.490E-06,-1.880
2.500E-06,-1.720
2.510E-06,-1.560
2.520E-06,-1.380
2.530E-06,-1.220
2.540E-06,-1.100
2.550E-06,-1.020
2.560E-06,-0.940
2.570E-06,-0.860
2.580E-06,-0.840
2.590E-06,-0.800
2.600E-06,-0.780
2.610E-06,-0.780
2.620E-06,-0.720
2.630E-06,-0.700
2.640E-06,-0.660
2.650E-06,-0.620
2.660E-06,-0.580
2.670E-06,-0.520
2.680E-06,-0.520
2.690E-06,-0.560
2.700E-06,-0.640
2.710E-06,-0.720
2.720E-06,-0.880
2.730E-06,-1.120
2.740E-06,-1.360
2.750E-06,-1.680
2.760E-06,-2.000
2.770E-06,-2.340
2.780E-06,-2.660
2.790E-06,-2.660
2.800E-06,-2.680
2.810E-06,-2.660
2.820E-06,-2.660
2.830E-06,-2.640
2.840E-06,-2.660
2.850E-06,-2.660
2.860E-06,-2.660
2.870E-06,-2.640
2.880E-06,-2.640
2.890E-06,-2.660
2.900E-06,-2.660
2.910E-06,-2.660
2.920E-06,-2.660
2.930E-06,-2.500
2.940E-06,-2.320
2.950E-06,-2.180
2.960E-06,-2.020
2.970E-06,-1.860
2.980E-06,-1.700
2.990E-06,-1.520
3.000E-06,-1.360
3.010E-06,-1.180
3.020E-06,-1.040
3.030E-06,-0.920
3.040E-06,-0.820
3.050E-06,-0.700
3.060E-06,-0.640
3.070E-06,-0.560
3.080E-06,-0.520
3.090E-06,-0.500
3.100E-06,-0.440
