mediciones/Mediciones filtradas (saque las feas)/5-15/14.9/WaveData47323.csv

#timebase=2000000(ps)
,#voltbase=100000(mv/100)
#size=4000
-8.400E-06,0.004
-8.390E-06,0.008
-8.380E-06,0.008
-8.370E-06,0.008
-8.360E-06,0.008
-8.350E-06,0.008
-8.340E-06,0.008
-8.330E-06,0.000
-8.320E-06,0.004
-8.310E-06,0.004
-8.300E-06,0.004
-8.290E-06,0.000
-8.280E-06,0.004
-8.270E-06,0.004
-8.260E-06,0.000
-8.250E-06,0.000
-8.240E-06,0.004
-8.230E-06,0.004
-8.220E-06,0.004
-8.210E-06,0.004
-8.200E-06,0.008
-8.190E-06,0.008
-8.180E-06,0.008
-8.170E-06,0.008
-8.160E-06,0.000
-8.150E-06,0.000
-8.140E-06,0.004
-8.130E-06,0.008
-8.120E-06,0.008
-8.110E-06,0.000
-8.100E-06,0.004
-8.090E-06,0.004
-8.080E-06,0.000
-8.070E-06,0.004
-8.060E-06,0.000
-8.050E-06,0.000
-8.040E-06,0.004
-8.030E-06,0.000
-8.020E-06,0.004
-8.010E-06,0.000
-8.000E-06,0.004
-7.990E-06,0.004
-7.980E-06,0.004
-7.970E-06,0.000
-7.960E-06,0.004
-7.950E-06,0.004
-7.940E-06,0.004
-7.930E-06,0.008
-7.920E-06,0.008
-7.910E-06,0.008
-7.900E-06,0.004
-7.890E-06,0.008
-7.880E-06,0.000
-7.870E-06,0.000
-7.860E-06,0.004
-7.850E-06,0.000
-7.840E-06,0.000
-7.830E-06,0.000
-7.820E-06,0.004
-7.810E-06,0.004
-7.800E-06,0.004
-7.790E-06,0.000
-7.780E-06,0.004
-7.770E-06,0.004
-7.760E-06,0.004
-7.750E-06,0.004
-7.740E-06,0.004
-7.730E-06,0.004
-7.720E-06,0.008
-7.710E-06,0.004
-7.700E-06,-0.004
-7.690E-06,0.004
-7.680E-06,0.004
-7.670E-06,0.004
-7.660E-06,0.004
-7.650E-06,0.004
-7.640E-06,0.004
-7.630E-06,0.004
-7.620E-06,0.004
-7.610E-06,0.004
-7.600E-06,0.008
-7.590E-06,0.000
-7.580E-06,0.000
-7.570E-06,0.004
-7.560E-06,0.000
-7.550E-06,0.004
-7.540E-06,0.008
-7.530E-06,0.000
-7.520E-06,0.000
-7.510E-06,0.004
-7.500E-06,0.000
-7.490E-06,0.004
-7.480E-06,0.000
-7.470E-06,0.000
-7.460E-06,0.004
-7.450E-06,0.000
-7.440E-06,0.004
-7.430E-06,0.000
-7.420E-06,0.000
-7.410E-06,0.004
-7.400E-06,0.000
-7.390E-06,0.000
-7.380E-06,0.004
-7.370E-06,0.008
-7.360E-06,0.000
-7.350E-06,0.000
-7.340E-06,0.004
-7.330E-06,0.008
-7.320E-06,0.008
-7.310E-06,0.000
-7.300E-06,0.000
-7.290E-06,0.000
-7.280E-06,0.004
-7.270E-06,0.004
-7.260E-06,0.004
-7.250E-06,0.004
-7.240E-06,0.008
-7.230E-06,0.008
-7.220E-06,0.008
-7.210E-06,0.000
-7.200E-06,0.004
-7.190E-06,0.004
-7.180E-06,0.004
-7.170E-06,0.000
-7.160E-06,0.004
-7.150E-06,0.008
-7.140E-06,0.008
-7.130E-06,0.000
-7.120E-06,0.000
-7.110E-06,0.000
-7.100E-06,0.008
-7.090E-06,0.008
-7.080E-06,0.008
-7.070E-06,0.008
-7.060E-06,0.008
-7.050E-06,-0.004
-7.040E-06,0.000
-7.030E-06,0.004
-7.020E-06,0.004
-7.010E-06,0.004
-7.000E-06,0.004
-6.990E-06,0.004
-6.980E-06,0.000
-6.970E-06,-0.004
-6.960E-06,0.004
-6.950E-06,0.004
-6.940E-06,0.004
-6.930E-06,0.004
-6.920E-06,0.000
-6.910E-06,0.000
-6.900E-06,0.004
-6.890E-06,0.008
-6.880E-06,0.008
-6.870E-06,0.008
-6.860E-06,0.008
-6.850E-06,0.008
-6.840E-06,0.000
-6.830E-06,0.000
-6.820E-06,0.004
-6.810E-06,0.000
-6.800E-06,0.000
-6.790E-06,0.004
-6.780E-06,0.000
-6.770E-06,0.004
-6.760E-06,0.000
-6.750E-06,0.000
-6.740E-06,0.004
-6.730E-06,0.004
-6.720E-06,0.000
-6.710E-06,0.000
-6.700E-06,0.004
-6.690E-06,0.004
-6.680E-06,0.004
-6.670E-06,0.004
-6.660E-06,-0.004
-6.650E-06,0.004
-6.640E-06,0.004
-6.630E-06,0.004
-6.620E-06,0.004
-6.610E-06,0.000
-6.600E-06,0.000
-6.590E-06,0.004
-6.580E-06,0.008
-6.570E-06,0.008
-6.560E-06,0.008
-6.550E-06,0.000
-6.540E-06,0.004
-6.530E-06,0.004
-6.520E-06,0.004
-6.510E-06,0.000
-6.500E-06,0.004
-6.490E-06,0.004
-6.480E-06,0.000
-6.470E-06,-0.004
-6.460E-06,0.004
-6.450E-06,0.000
-6.440E-06,0.004
-6.430E-06,0.008
-6.420E-06,0.008
-6.410E-06,0.008
-6.400E-06,0.000
-6.390E-06,0.004
-6.380E-06,0.004
-6.370E-06,0.004
-6.360E-06,0.000
-6.350E-06,0.004
-6.340E-06,0.008
-6.330E-06,0.004
-6.320E-06,0.000
-6.310E-06,0.004
-6.300E-06,0.004
-6.290E-06,0.004
-6.280E-06,0.008
-6.270E-06,0.004
-6.260E-06,0.008
-6.250E-06,0.008
-6.240E-06,0.000
-6.230E-06,0.004
-6.220E-06,0.004
-6.210E-06,0.004
-6.200E-06,0.000
-6.190E-06,0.004
-6.180E-06,0.000
-6.170E-06,-0.004
-6.160E-06,0.004
-6.150E-06,0.008
-6.140E-06,0.000
-6.130E-06,0.000
-6.120E-06,0.004
-6.110E-06,-0.004
-6.100E-06,0.000
-6.090E-06,0.004
-6.080E-06,-0.004
-6.070E-06,0.004
-6.060E-06,0.008
-6.050E-06,0.000
-6.040E-06,0.000
-6.030E-06,0.004
-6.020E-06,0.008
-6.010E-06,0.008
-6.000E-06,0.000
-5.990E-06,0.004
-5.980E-06,0.004
-5.970E-06,0.004
-5.960E-06,0.004
-5.950E-06,0.000
-5.940E-06,0.000
-5.930E-06,0.004
-5.920E-06,0.008
-5.910E-06,0.008
-5.900E-06,0.000
-5.890E-06,0.004
-5.880E-06,0.004
-5.870E-06,0.004
-5.860E-06,0.000
-5.850E-06,0.000
-5.840E-06,0.004
-5.830E-06,0.000
-5.820E-06,0.004
-5.810E-06,0.004
-5.800E-06,0.000
-5.790E-06,0.004
-5.780E-06,0.004
-5.770E-06,0.004
-5.760E-06,0.000
-5.750E-06,0.004
-5.740E-06,0.000
-5.730E-06,0.004
-5.720E-06,0.008
-5.710E-06,0.004
-5.700E-06,0.000
-5.690E-06,0.000
-5.680E-06,0.004
-5.670E-06,0.000
-5.660E-06,0.004
-5.650E-06,0.004
-5.640E-06,0.004
-5.630E-06,0.004
-5.620E-06,0.004
-5.610E-06,0.004
-5.600E-06,0.004
-5.590E-06,0.000
-5.580E-06,0.004
-5.570E-06,0.004
-5.560E-06,0.004
-5.550E-06,0.004
-5.540E-06,0.000
-5.530E-06,0.004
-5.520E-06,0.004
-5.510E-06,0.004
-5.500E-06,0.004
-5.490E-06,0.008
-5.480E-06,0.008
-5.470E-06,0.000
-5.460E-06,0.000
-5.450E-06,0.004
-5.440E-06,0.000
-5.430E-06,0.004
-5.420E-06,0.000
-5.410E-06,0.004
-5.400E-06,0.004
-5.390E-06,0.008
-5.380E-06,0.008
-5.370E-06,0.004
-5.360E-06,0.000
-5.350E-06,0.004
-5.340E-06,0.004
-5.330E-06,0.000
-5.320E-06,0.004
-5.310E-06,0.004
-5.300E-06,0.004
-5.290E-06,0.004
-5.280E-06,0.004
-5.270E-06,0.000
-5.260E-06,0.004
-5.250E-06,0.000
-5.240E-06,0.004
-5.230E-06,0.000
-5.220E-06,0.004
-5.210E-06,0.004
-5.200E-06,0.004
-5.190E-06,0.000
-5.180E-06,0.004
-5.170E-06,0.004
-5.160E-06,0.004
-5.150E-06,0.004
-5.140E-06,0.004
-5.130E-06,0.004
-5.120E-06,0.000
-5.110E-06,0.004
-5.100E-06,0.000
-5.090E-06,0.004
-5.080E-06,0.004
-5.070E-06,0.004
-5.060E-06,0.004
-5.050E-06,0.004
-5.040E-06,0.004
-5.030E-06,0.008
-5.020E-06,0.000
-5.010E-06,0.004
-5.000E-06,0.004
-4.990E-06,0.004
-4.980E-06,0.004
-4.970E-06,0.008
-4.960E-06,0.008
-4.950E-06,0.000
-4.940E-06,0.000
-4.930E-06,0.004
-4.920E-06,0.000
-4.910E-06,0.004
-4.900E-06,0.000
-4.890E-06,0.004
-4.880E-06,0.004
-4.870E-06,0.004
-4.860E-06,0.004
-4.850E-06,0.004
-4.840E-06,0.004
-4.830E-06,0.004
-4.820E-06,0.004
-4.810E-06,0.004
-4.800E-06,0.004
-4.790E-06,0.004
-4.780E-06,0.004
-4.770E-06,0.000
-4.760E-06,0.004
-4.750E-06,0.004
-4.740E-06,0.004
-4.730E-06,0.004
-4.720E-06,0.004
-4.710E-06,0.004
-4.700E-06,0.008
-4.690E-06,0.008
-4.680E-06,0.008
-4.670E-06,0.008
-4.660E-06,0.008
-4.650E-06,0.008
-4.640E-06,0.008
-4.630E-06,0.008
-4.620E-06,0.000
-4.610E-06,0.004
-4.600E-06,0.004
-4.590E-06,0.004
-4.580E-06,0.000
-4.570E-06,0.004
-4.560E-06,0.000
-4.550E-06,0.004
-4.540E-06,0.004
-4.530E-06,0.004
-4.520E-06,0.004
-4.510E-06,0.004
-4.500E-06,0.000
-4.490E-06,0.008
-4.480E-06,0.008
-4.470E-06,0.004
-4.460E-06,0.000
-4.450E-06,0.000
-4.440E-06,0.004
-4.430E-06,0.004
-4.420E-06,0.008
-4.410E-06,0.008
-4.400E-06,0.008
-4.390E-06,0.008
-4.380E-06,-0.004
-4.370E-06,0.000
-4.360E-06,0.004
-4.350E-06,0.008
-4.340E-06,0.000
-4.330E-06,0.000
-4.320E-06,0.004
-4.310E-06,0.000
-4.300E-06,0.000
-4.290E-06,0.004
-4.280E-06,0.004
-4.270E-06,0.004
-4.260E-06,0.004
-4.250E-06,0.000
-4.240E-06,0.004
-4.230E-06,0.008
-4.220E-06,0.008
-4.210E-06,0.004
-4.200E-06,0.000
-4.190E-06,0.004
-4.180E-06,0.004
-4.170E-06,0.004
-4.160E-06,0.000
-4.150E-06,0.004
-4.140E-06,0.000
-4.130E-06,0.004
-4.120E-06,0.004
-4.110E-06,0.004
-4.100E-06,0.004
-4.090E-06,0.004
-4.080E-06,0.008
-4.070E-06,0.008
-4.060E-06,0.008
-4.050E-06,0.008
-4.040E-06,0.008
-4.030E-06,0.000
-4.020E-06,0.004
-4.010E-06,0.004
-4.000E-06,0.004
-3.990E-06,-0.004
-3.980E-06,0.004
-3.970E-06,0.004
-3.960E-06,0.004
-3.950E-06,0.004
-3.940E-06,0.000
-3.930E-06,0.004
-3.920E-06,0.004
-3.910E-06,0.004
-3.900E-06,0.008
-3.890E-06,0.008
-3.880E-06,0.008
-3.870E-06,0.008
-3.860E-06,0.008
-3.850E-06,0.008
-3.840E-06,0.008
-3.830E-06,0.000
-3.820E-06,0.004
-3.810E-06,0.024
-3.800E-06,0.080
-3.790E-06,0.128
-3.780E-06,0.156
-3.770E-06,0.092
-3.760E-06,-0.040
-3.750E-06,-0.212
-3.740E-06,-0.280
-3.730E-06,-0.188
-3.720E-06,0.012
-3.710E-06,0.232
-3.700E-06,0.300
-3.690E-06,0.208
-3.680E-06,-0.012
-3.670E-06,-0.188
-3.660E-06,-0.256
-3.650E-06,-0.144
-3.640E-06,0.040
-3.630E-06,0.196
-3.620E-06,0.244
-3.610E-06,0.152
-3.600E-06,-0.004
-3.590E-06,-0.160
-3.580E-06,-0.204
-3.570E-06,-0.168
-3.560E-06,-0.040
-3.550E-06,0.084
-3.540E-06,0.172
-3.530E-06,0.176
-3.520E-06,0.104
-3.510E-06,-0.008
-3.500E-06,-0.108
-3.490E-06,-0.144
-3.480E-06,-0.100
-3.470E-06,0.000
-3.460E-06,0.100
-3.450E-06,0.160
-3.440E-06,0.124
-3.430E-06,0.012
-3.420E-06,-0.104
-3.410E-06,-0.164
-3.400E-06,-0.152
-3.390E-06,-0.056
-3.380E-06,0.060
-3.370E-06,0.128
-3.360E-06,0.136
-3.350E-06,0.072
-3.340E-06,-0.008
-3.330E-06,-0.072
-3.320E-06,-0.076
-3.310E-06,-0.040
-3.300E-06,0.020
-3.290E-06,0.076
-3.280E-06,0.076
-3.270E-06,0.052
-3.260E-06,0.000
-3.250E-06,-0.040
-3.240E-06,-0.072
-3.230E-06,-0.064
-3.220E-06,-0.020
-3.210E-06,0.024
-3.200E-06,0.064
-3.190E-06,0.080
-3.180E-06,0.064
-3.170E-06,0.024
-3.160E-06,-0.020
-3.150E-06,-0.052
-3.140E-06,-0.040
-3.130E-06,-0.008
-3.120E-06,0.028
-3.110E-06,0.056
-3.100E-06,0.036
-3.090E-06,0.000
-3.080E-06,-0.036
-3.070E-06,-0.052
-3.060E-06,-0.040
-3.050E-06,-0.008
-3.040E-06,0.024
-3.030E-06,0.036
-3.020E-06,0.032
-3.010E-06,0.020
-3.000E-06,0.000
-2.990E-06,-0.008
-2.980E-06,-0.004
-2.970E-06,0.004
-2.960E-06,0.012
-2.950E-06,0.020
-2.940E-06,0.008
-2.930E-06,0.008
-2.920E-06,0.000
-2.910E-06,-0.008
-2.900E-06,-0.008
-2.890E-06,-0.004
-2.880E-06,0.000
-2.870E-06,0.008
-2.860E-06,0.000
-2.850E-06,0.000
-2.840E-06,-0.004
-2.830E-06,0.004
-2.820E-06,0.008
-2.810E-06,0.012
-2.800E-06,0.008
-2.790E-06,-0.008
-2.780E-06,-0.004
-2.770E-06,-0.008
-2.760E-06,-0.004
-2.750E-06,0.008
-2.740E-06,0.012
-2.730E-06,0.008
-2.720E-06,-0.004
-2.710E-06,-0.004
-2.700E-06,-0.004
-2.690E-06,0.004
-2.680E-06,0.016
-2.670E-06,0.016
-2.660E-06,0.004
-2.650E-06,0.008
-2.640E-06,0.004
-2.630E-06,0.008
-2.620E-06,0.004
-2.610E-06,0.004
-2.600E-06,-0.004
-2.590E-06,0.000
-2.580E-06,0.004
-2.570E-06,0.004
-2.560E-06,0.008
-2.550E-06,0.004
-2.540E-06,0.000
-2.530E-06,0.004
-2.520E-06,0.004
-2.510E-06,0.004
-2.500E-06,0.000
-2.490E-06,0.004
-2.480E-06,0.012
-2.470E-06,0.012
-2.460E-06,0.004
-2.450E-06,0.000
-2.440E-06,0.000
-2.430E-06,0.000
-2.420E-06,-0.004
-2.410E-06,-0.004
-2.400E-06,0.004
-2.390E-06,0.004
-2.380E-06,0.004
-2.370E-06,0.008
-2.360E-06,0.008
-2.350E-06,0.008
-2.340E-06,-0.004
-2.330E-06,-0.004
-2.320E-06,0.004
-2.310E-06,0.008
-2.300E-06,0.012
-2.290E-06,0.016
-2.280E-06,0.004
-2.270E-06,0.004
-2.260E-06,-0.004
-2.250E-06,-0.004
-2.240E-06,0.000
-2.230E-06,0.004
-2.220E-06,0.008
-2.210E-06,0.012
-2.200E-06,0.008
-2.190E-06,0.004
-2.180E-06,0.004
-2.170E-06,-0.004
-2.160E-06,-0.004
-2.150E-06,-0.004
-2.140E-06,0.000
-2.130E-06,0.004
-2.120E-06,0.008
-2.110E-06,0.020
-2.100E-06,0.020
-2.090E-06,0.016
-2.080E-06,0.004
-2.070E-06,-0.004
-2.060E-06,0.000
-2.050E-06,0.008
-2.040E-06,0.024
-2.030E-06,0.028
-2.020E-06,0.020
-2.010E-06,0.016
-2.000E-06,0.008
-1.990E-06,0.008
-1.980E-06,0.012
-1.970E-06,0.024
-1.960E-06,0.044
-1.950E-06,0.056
-1.940E-06,0.056
-1.930E-06,0.040
-1.920E-06,0.008
-1.910E-06,-0.024
-1.900E-06,-0.068
-1.890E-06,-0.068
-1.880E-06,-0.036
-1.870E-06,0.012
-1.860E-06,0.036
-1.850E-06,0.024
-1.840E-06,-0.012
-1.830E-06,-0.040
-1.820E-06,-0.040
-1.810E-06,-0.024
-1.800E-06,0.004
-1.790E-06,0.028
-1.780E-06,0.032
-1.770E-06,0.008
-1.760E-06,-0.012
-1.750E-06,-0.036
-1.740E-06,-0.032
-1.730E-06,-0.004
-1.720E-06,0.016
-1.710E-06,0.032
-1.700E-06,0.028
-1.690E-06,0.008
-1.680E-06,-0.016
-1.670E-06,-0.020
-1.660E-06,-0.024
-1.650E-06,-0.012
-1.640E-06,0.004
-1.630E-06,0.020
-1.620E-06,0.028
-1.610E-06,0.024
-1.600E-06,0.008
-1.590E-06,-0.012
-1.580E-06,-0.028
-1.570E-06,-0.016
-1.560E-06,-0.004
-1.550E-06,0.028
-1.540E-06,0.032
-1.530E-06,0.028
-1.520E-06,0.020
-1.510E-06,-0.008
-1.500E-06,-0.016
-1.490E-06,-0.016
-1.480E-06,0.000
-1.470E-06,0.024
-1.460E-06,0.040
-1.450E-06,0.032
-1.440E-06,0.020
-1.430E-06,0.000
-1.420E-06,-0.008
-1.410E-06,-0.012
-1.400E-06,0.008
-1.390E-06,0.024
-1.380E-06,0.036
-1.370E-06,0.032
-1.360E-06,0.028
-1.350E-06,0.012
-1.340E-06,0.000
-1.330E-06,-0.004
-1.320E-06,0.000
-1.310E-06,0.024
-1.300E-06,0.032
-1.290E-06,0.040
-1.280E-06,0.036
-1.270E-06,0.020
-1.260E-06,0.008
-1.250E-06,0.004
-1.240E-06,0.012
-1.230E-06,0.024
-1.220E-06,0.028
-1.210E-06,0.048
-1.200E-06,0.056
-1.190E-06,0.040
-1.180E-06,0.028
-1.170E-06,0.012
-1.160E-06,0.000
-1.150E-06,-0.004
-1.140E-06,-0.008
-1.130E-06,0.000
-1.120E-06,0.004
-1.110E-06,0.012
-1.100E-06,0.020
-1.090E-06,0.012
-1.080E-06,0.004
-1.070E-06,-0.004
-1.060E-06,-0.012
-1.050E-06,-0.008
-1.040E-06,-0.004
-1.030E-06,0.008
-1.020E-06,0.016
-1.010E-06,0.012
-1.000E-06,0.004
-9.900E-07,-0.004
-9.800E-07,-0.008
-9.700E-07,-0.004
-9.600E-07,0.012
-9.500E-07,0.028
-9.400E-07,0.048
-9.300E-07,0.056
-9.200E-07,0.064
-9.100E-07,0.064
-9.000E-07,0.056
-8.900E-07,0.064
-8.800E-07,0.076
-8.700E-07,0.096
-8.600E-07,0.108
-8.500E-07,0.124
-8.400E-07,0.128
-8.300E-07,0.104
-8.200E-07,0.056
-8.100E-07,-0.024
-8.000E-07,-0.068
-7.900E-07,-0.104
-7.800E-07,-0.132
-7.700E-07,-0.096
-7.600E-07,-0.060
-7.500E-07,-0.016
-7.400E-07,0.020
-7.300E-07,0.028
-7.200E-07,0.004
-7.100E-07,-0.032
-7.000E-07,-0.036
-6.900E-07,-0.032
-6.800E-07,-0.024
-6.700E-07,0.008
-6.600E-07,0.012
-6.500E-07,0.028
-6.400E-07,0.012
-6.300E-07,0.000
-6.200E-07,-0.020
-6.100E-07,-0.004
-6.000E-07,0.028
-5.900E-07,0.060
-5.800E-07,0.032
-5.700E-07,0.000
-5.600E-07,-0.028
-5.500E-07,-0.120
-5.400E-07,-0.120
-5.300E-07,-0.028
-5.200E-07,0.096
-5.100E-07,0.156
-5.000E-07,0.208
-4.900E-07,0.172
-4.800E-07,0.064
-4.700E-07,0.000
-4.600E-07,-0.028
-4.500E-07,0.028
-4.400E-07,0.108
-4.300E-07,0.192
-4.200E-07,0.176
-4.100E-07,0.132
-4.000E-07,0.028
-3.900E-07,-0.084
-3.800E-07,-0.160
-3.700E-07,-0.164
-3.600E-07,-0.080
-3.500E-07,0.012
-3.400E-07,0.116
-3.300E-07,0.172
-3.200E-07,0.196
-3.100E-07,0.168
-3.000E-07,0.108
-2.900E-07,0.044
-2.800E-07,-0.008
-2.700E-07,-0.040
-2.600E-07,-0.032
-2.500E-07,0.012
-2.400E-07,0.076
-2.300E-07,0.128
-2.200E-07,0.108
-2.100E-07,0.048
-2.000E-07,-0.044
-1.900E-07,-0.092
-1.800E-07,-0.104
-1.700E-07,-0.196
-1.600E-07,-0.168
-1.500E-07,-0.136
-1.400E-07,-0.164
-1.300E-07,-0.104
-1.200E-07,-0.036
-1.100E-07,0.080
-1.000E-07,0.068
-9.000E-08,0.072
-8.000E-08,0.116
-7.000E-08,0.188
-6.000E-08,-0.028
-5.000E-08,-0.508
-4.000E-08,-0.512
-3.000E-08,-0.512
-2.000E-08,-0.428
-1.000E-08,0.136
0.000E+00,0.540
1.000E-08,0.540
2.000E-08,0.348
3.000E-08,-0.232
4.000E-08,-0.508
5.000E-08,-0.508
6.000E-08,-0.272
7.000E-08,0.288
8.000E-08,0.540
9.000E-08,0.540
1.000E-07,0.208
1.100E-07,-0.248
1.200E-07,-0.512
1.300E-07,-0.464
1.400E-07,-0.156
1.500E-07,0.212
1.600E-07,0.448
1.700E-07,0.412
1.800E-07,0.212
1.900E-07,-0.124
2.000E-07,-0.332
2.100E-07,-0.356
2.200E-07,-0.160
2.300E-07,0.112
2.400E-07,0.324
2.500E-07,0.344
2.600E-07,0.168
2.700E-07,-0.064
2.800E-07,-0.236
2.900E-07,-0.256
3.000E-07,-0.144
3.100E-07,0.052
3.200E-07,0.200
3.300E-07,0.252
3.400E-07,0.152
3.500E-07,0.012
3.600E-07,-0.108
3.700E-07,-0.152
3.800E-07,-0.072
3.900E-07,0.076
4.000E-07,0.220
4.100E-07,0.272
4.200E-07,0.204
4.300E-07,0.068
4.400E-07,-0.048
4.500E-07,-0.088
4.600E-07,-0.016
4.700E-07,0.112
4.800E-07,0.228
4.900E-07,0.276
5.000E-07,0.220
5.100E-07,0.128
5.200E-07,0.044
5.300E-07,0.036
5.400E-07,0.092
5.500E-07,0.172
5.600E-07,0.224
5.700E-07,0.208
5.800E-07,0.124
5.900E-07,-0.004
6.000E-07,-0.084
6.100E-07,-0.080
6.200E-07,0.012
6.300E-07,0.140
6.400E-07,0.204
6.500E-07,0.220
6.600E-07,0.136
6.700E-07,0.008
6.800E-07,-0.072
6.900E-07,-0.044
7.000E-07,0.064
7.100E-07,0.140
7.200E-07,0.184
7.300E-07,0.160
7.400E-07,0.060
7.500E-07,-0.040
7.600E-07,-0.108
7.700E-07,-0.072
7.800E-07,0.004
7.900E-07,0.096
8.000E-07,0.148
8.100E-07,0.156
8.200E-07,0.104
8.300E-07,0.064
8.400E-07,0.048
8.500E-07,0.036
8.600E-07,0.076
8.700E-07,0.108
8.800E-07,0.120
8.900E-07,-0.036
9.000E-07,-0.308
9.100E-07,-0.508
9.200E-07,-0.512
9.300E-07,-0.512
9.400E-07,-0.512
9.500E-07,-0.172
9.600E-07,0.160
9.700E-07,0.256
9.800E-07,0.132
9.900E-07,-0.084
1.000E-06,-0.252
1.010E-06,-0.336
1.020E-06,-0.176
1.030E-06,0.084
1.040E-06,0.276
1.050E-06,0.300
1.060E-06,0.160
1.070E-06,-0.064
1.080E-06,-0.240
1.090E-06,-0.252
1.100E-06,-0.152
1.110E-06,0.020
1.120E-06,0.200
1.130E-06,0.276
1.140E-06,0.176
1.150E-06,-0.008
1.160E-06,-0.200
1.170E-06,-0.236
1.180E-06,-0.096
1.190E-06,0.136
1.200E-06,0.280
1.210E-06,0.288
1.220E-06,0.204
1.230E-06,0.016
1.240E-06,-0.120
1.250E-06,-0.132
1.260E-06,0.004
1.270E-06,0.204
1.280E-06,0.388
1.290E-06,0.468
1.300E-06,0.404
1.310E-06,0.236
1.320E-06,0.088
1.330E-06,0.048
1.340E-06,0.120
1.350E-06,0.260
1.360E-06,0.392
1.370E-06,0.452
1.380E-06,0.404
1.390E-06,0.288
1.400E-06,0.156
1.410E-06,0.076
1.420E-06,0.108
1.430E-06,0.224
1.440E-06,0.352
1.450E-06,0.420
1.460E-06,0.404
1.470E-06,0.296
1.480E-06,0.176
1.490E-06,0.108
1.500E-06,0.104
1.510E-06,0.176
1.520E-06,0.276
1.530E-06,0.344
1.540E-06,0.340
1.550E-06,0.288
1.560E-06,0.204
1.570E-06,0.132
1.580E-06,0.124
1.590E-06,0.144
1.600E-06,0.192
1.610E-06,0.240
1.620E-06,0.248
1.630E-06,0.232
1.640E-06,0.192
1.650E-06,0.128
1.660E-06,0.064
1.670E-06,0.032
1.680E-06,0.036
1.690E-06,0.060
1.700E-06,0.120
1.710E-06,0.192
1.720E-06,0.208
1.730E-06,0.208
1.740E-06,0.172
1.750E-06,0.124
1.760E-06,0.112
1.770E-06,0.096
1.780E-06,0.024
1.790E-06,-0.156
1.800E-06,-0.348
1.810E-06,-0.512
1.820E-06,-0.512
1.830E-06,-0.512
1.840E-06,-0.468
1.850E-06,-0.128
1.860E-06,0.272
1.870E-06,0.480
1.880E-06,0.452
1.890E-06,0.172
1.900E-06,-0.068
1.910E-06,-0.292
1.920E-06,-0.340
1.930E-06,-0.076
1.940E-06,0.160
1.950E-06,0.312
1.960E-06,0.336
1.970E-06,0.188
1.980E-06,-0.068
1.990E-06,-0.248
2.000E-06,-0.240
2.010E-06,-0.012
2.020E-06,0.324
2.030E-06,0.540
2.040E-06,0.536
2.050E-06,0.340
2.060E-06,0.072
2.070E-06,-0.096
2.080E-06,-0.068
2.090E-06,0.092
2.100E-06,0.332
2.110E-06,0.520
2.120E-06,0.540
2.130E-06,0.452
2.140E-06,0.256
2.150E-06,0.080
2.160E-06,0.028
2.170E-06,0.120
2.180E-06,0.276
2.190E-06,0.424
2.200E-06,0.472
2.210E-06,0.408
2.220E-06,0.272
2.230E-06,0.144
2.240E-06,0.092
2.250E-06,0.132
2.260E-06,0.236
2.270E-06,0.348
2.280E-06,0.408
2.290E-06,0.396
2.300E-06,0.316
2.310E-06,0.216
2.320E-06,0.156
2.330E-06,0.160
2.340E-06,0.212
2.350E-06,0.288
2.360E-06,0.352
2.370E-06,0.352
2.380E-06,0.308
2.390E-06,0.236
2.400E-06,0.188
2.410E-06,0.176
2.420E-06,0.204
2.430E-06,0.260
2.440E-06,0.312
2.450E-06,0.328
2.460E-06,0.296
2.470E-06,0.260
2.480E-06,0.224
2.490E-06,0.204
2.500E-06,0.216
2.510E-06,0.248
2.520E-06,0.280
2.530E-06,0.288
2.540E-06,0.288
2.550E-06,0.268
2.560E-06,0.232
2.570E-06,0.216
2.580E-06,0.216
2.590E-06,0.232
2.600E-06,0.264
2.610E-06,0.284
2.620E-06,0.284
2.630E-06,0.268
2.640E-06,0.252
2.650E-06,0.228
2.660E-06,0.224
2.670E-06,0.228
2.680E-06,0.252
2.690E-06,0.264
2.700E-06,0.268
2.710E-06,0.260
2.720E-06,0.244
2.730E-06,0.232
2.740E-06,0.228
2.750E-06,0.232
2.760E-06,0.240
2.770E-06,0.252
2.780E-06,0.260
2.790E-06,0.260
2.800E-06,0.248
2.810E-06,0.240
2.820E-06,0.232
2.830E-06,0.228
2.840E-06,0.240
2.850E-06,0.244
2.860E-06,0.252
2.870E-06,0.248
2.880E-06,0.244
2.890E-06,0.236
2.900E-06,0.232
2.910E-06,0.228
2.920E-06,0.236
2.930E-06,0.240
2.940E-06,0.244
2.950E-06,0.244
2.960E-06,0.236
2.970E-06,0.236
2.980E-06,0.236
2.990E-06,0.232
3.000E-06,0.232
3.010E-06,0.236
3.020E-06,0.236
3.030E-06,0.236
3.040E-06,0.240
3.050E-06,0.240
3.060E-06,0.232
3.070E-06,0.228
3.080E-06,0.228
3.090E-06,0.228
3.100E-06,0.232
3.110E-06,0.228
3.120E-06,0.232
3.130E-06,0.236
3.140E-06,0.228
3.150E-06,0.224
3.160E-06,0.224
3.170E-06,0.228
3.180E-06,0.224
3.190E-06,0.224
3.200E-06,0.228
3.210E-06,0.228
3.220E-06,0.228
3.230E-06,0.220
3.240E-06,0.220
3.250E-06,0.220
3.260E-06,0.224
3.270E-06,0.224
3.280E-06,0.228
3.290E-06,0.228
3.300E-06,0.224
3.310E-06,0.224
3.320E-06,0.220
3.330E-06,0.220
3.340E-06,0.220
3.350E-06,0.224
3.360E-06,0.224
3.370E-06,0.224
3.380E-06,0.224
3.390E-06,0.220
