mediciones/Mediciones filtradas (saque las feas)/5-15/14.9/WaveData47329.csv

#timebase=2000000(ps)
,#voltbase=100000(mv/100)
#size=4000
-8.400E-06,-0.004
-8.390E-06,0.000
-8.380E-06,0.004
-8.370E-06,0.004
-8.360E-06,0.004
-8.350E-06,0.008
-8.340E-06,0.004
-8.330E-06,0.000
-8.320E-06,-0.004
-8.310E-06,0.004
-8.300E-06,0.004
-8.290E-06,0.008
-8.280E-06,0.008
-8.270E-06,0.000
-8.260E-06,0.008
-8.250E-06,0.000
-8.240E-06,0.000
-8.230E-06,0.000
-8.220E-06,-0.004
-8.210E-06,0.004
-8.200E-06,0.008
-8.190E-06,0.008
-8.180E-06,0.000
-8.170E-06,-0.004
-8.160E-06,-0.004
-8.150E-06,0.004
-8.140E-06,0.000
-8.130E-06,0.004
-8.120E-06,0.008
-8.110E-06,0.000
-8.100E-06,0.004
-8.090E-06,-0.004
-8.080E-06,0.000
-8.070E-06,0.004
-8.060E-06,0.008
-8.050E-06,0.008
-8.040E-06,0.000
-8.030E-06,0.004
-8.020E-06,0.004
-8.010E-06,0.004
-8.000E-06,0.004
-7.990E-06,0.004
-7.980E-06,0.004
-7.970E-06,0.004
-7.960E-06,0.000
-7.950E-06,0.000
-7.940E-06,0.004
-7.930E-06,0.004
-7.920E-06,0.008
-7.910E-06,0.000
-7.900E-06,0.004
-7.890E-06,0.004
-7.880E-06,0.008
-7.870E-06,-0.004
-7.860E-06,0.000
-7.850E-06,0.004
-7.840E-06,-0.004
-7.830E-06,0.000
-7.820E-06,0.000
-7.810E-06,0.000
-7.800E-06,0.008
-7.790E-06,0.008
-7.780E-06,0.004
-7.770E-06,0.008
-7.760E-06,0.004
-7.750E-06,0.004
-7.740E-06,0.004
-7.730E-06,0.000
-7.720E-06,0.000
-7.710E-06,0.004
-7.700E-06,0.004
-7.690E-06,0.000
-7.680E-06,0.000
-7.670E-06,0.004
-7.660E-06,0.000
-7.650E-06,0.008
-7.640E-06,0.008
-7.630E-06,0.000
-7.620E-06,0.004
-7.610E-06,0.004
-7.600E-06,0.000
-7.590E-06,0.000
-7.580E-06,-0.004
-7.570E-06,-0.004
-7.560E-06,0.008
-7.550E-06,0.012
-7.540E-06,0.012
-7.530E-06,0.012
-7.520E-06,-0.004
-7.510E-06,-0.004
-7.500E-06,-0.004
-7.490E-06,0.004
-7.480E-06,0.008
-7.470E-06,0.008
-7.460E-06,0.004
-7.450E-06,0.004
-7.440E-06,0.000
-7.430E-06,-0.004
-7.420E-06,0.000
-7.410E-06,0.004
-7.400E-06,0.012
-7.390E-06,0.004
-7.380E-06,0.000
-7.370E-06,0.004
-7.360E-06,0.000
-7.350E-06,0.000
-7.340E-06,0.004
-7.330E-06,0.004
-7.320E-06,-0.004
-7.310E-06,0.004
-7.300E-06,0.008
-7.290E-06,0.004
-7.280E-06,0.004
-7.270E-06,0.000
-7.260E-06,-0.004
-7.250E-06,0.004
-7.240E-06,0.008
-7.230E-06,0.004
-7.220E-06,0.004
-7.210E-06,0.004
-7.200E-06,-0.004
-7.190E-06,0.004
-7.180E-06,0.000
-7.170E-06,0.004
-7.160E-06,0.004
-7.150E-06,0.008
-7.140E-06,0.008
-7.130E-06,0.004
-7.120E-06,0.004
-7.110E-06,0.008
-7.100E-06,0.004
-7.090E-06,0.004
-7.080E-06,0.004
-7.070E-06,0.004
-7.060E-06,0.000
-7.050E-06,-0.004
-7.040E-06,0.000
-7.030E-06,0.004
-7.020E-06,0.004
-7.010E-06,0.008
-7.000E-06,0.000
-6.990E-06,-0.004
-6.980E-06,0.000
-6.970E-06,0.000
-6.960E-06,0.004
-6.950E-06,0.008
-6.940E-06,0.004
-6.930E-06,0.000
-6.920E-06,0.000
-6.910E-06,-0.004
-6.900E-06,0.000
-6.890E-06,0.004
-6.880E-06,0.008
-6.870E-06,0.008
-6.860E-06,-0.004
-6.850E-06,-0.004
-6.840E-06,0.004
-6.830E-06,0.004
-6.820E-06,0.008
-6.810E-06,-0.008
-6.800E-06,-0.004
-6.790E-06,0.000
-6.780E-06,-0.004
-6.770E-06,0.008
-6.760E-06,0.008
-6.750E-06,0.000
-6.740E-06,0.004
-6.730E-06,-0.004
-6.720E-06,-0.004
-6.710E-06,0.004
-6.700E-06,0.004
-6.690E-06,0.004
-6.680E-06,0.008
-6.670E-06,0.008
-6.660E-06,-0.004
-6.650E-06,-0.004
-6.640E-06,0.000
-6.630E-06,0.004
-6.620E-06,0.008
-6.610E-06,0.012
-6.600E-06,0.004
-6.590E-06,0.000
-6.580E-06,0.000
-6.570E-06,-0.004
-6.560E-06,0.004
-6.550E-06,0.004
-6.540E-06,0.008
-6.530E-06,0.008
-6.520E-06,0.012
-6.510E-06,-0.004
-6.500E-06,0.000
-6.490E-06,0.000
-6.480E-06,-0.004
-6.470E-06,0.004
-6.460E-06,0.008
-6.450E-06,0.000
-6.440E-06,0.008
-6.430E-06,0.008
-6.420E-06,-0.004
-6.410E-06,0.000
-6.400E-06,0.004
-6.390E-06,0.004
-6.380E-06,0.000
-6.370E-06,0.004
-6.360E-06,0.008
-6.350E-06,0.000
-6.340E-06,0.008
-6.330E-06,0.004
-6.320E-06,-0.008
-6.310E-06,0.004
-6.300E-06,0.008
-6.290E-06,0.004
-6.280E-06,0.000
-6.270E-06,0.004
-6.260E-06,-0.008
-6.250E-06,-0.004
-6.240E-06,-0.004
-6.230E-06,0.004
-6.220E-06,0.000
-6.210E-06,0.004
-6.200E-06,0.012
-6.190E-06,0.008
-6.180E-06,0.004
-6.170E-06,0.000
-6.160E-06,0.004
-6.150E-06,0.000
-6.140E-06,-0.004
-6.130E-06,0.008
-6.120E-06,0.004
-6.110E-06,0.000
-6.100E-06,0.004
-6.090E-06,0.000
-6.080E-06,0.000
-6.070E-06,0.004
-6.060E-06,0.008
-6.050E-06,0.000
-6.040E-06,0.004
-6.030E-06,0.004
-6.020E-06,0.000
-6.010E-06,0.000
-6.000E-06,0.000
-5.990E-06,0.000
-5.980E-06,0.004
-5.970E-06,0.008
-5.960E-06,0.008
-5.950E-06,0.008
-5.940E-06,0.008
-5.930E-06,0.004
-5.920E-06,-0.004
-5.910E-06,0.004
-5.900E-06,0.004
-5.890E-06,0.008
-5.880E-06,0.016
-5.870E-06,0.008
-5.860E-06,0.000
-5.850E-06,-0.004
-5.840E-06,-0.004
-5.830E-06,0.000
-5.820E-06,0.004
-5.810E-06,0.008
-5.800E-06,0.008
-5.790E-06,-0.004
-5.780E-06,0.008
-5.770E-06,0.000
-5.760E-06,-0.004
-5.750E-06,0.000
-5.740E-06,0.000
-5.730E-06,0.000
-5.720E-06,0.004
-5.710E-06,0.004
-5.700E-06,0.008
-5.690E-06,0.000
-5.680E-06,0.000
-5.670E-06,0.008
-5.660E-06,-0.004
-5.650E-06,-0.004
-5.640E-06,-0.004
-5.630E-06,0.004
-5.620E-06,0.004
-5.610E-06,0.008
-5.600E-06,0.000
-5.590E-06,0.000
-5.580E-06,-0.004
-5.570E-06,0.004
-5.560E-06,0.000
-5.550E-06,0.004
-5.540E-06,0.000
-5.530E-06,0.000
-5.520E-06,0.000
-5.510E-06,0.004
-5.500E-06,0.004
-5.490E-06,0.004
-5.480E-06,0.000
-5.470E-06,0.000
-5.460E-06,0.000
-5.450E-06,0.004
-5.440E-06,0.000
-5.430E-06,0.004
-5.420E-06,0.012
-5.410E-06,0.008
-5.400E-06,0.008
-5.390E-06,0.008
-5.380E-06,0.000
-5.370E-06,0.000
-5.360E-06,0.004
-5.350E-06,0.000
-5.340E-06,0.000
-5.330E-06,0.004
-5.320E-06,0.008
-5.310E-06,0.000
-5.300E-06,-0.004
-5.290E-06,0.004
-5.280E-06,-0.004
-5.270E-06,0.000
-5.260E-06,0.004
-5.250E-06,0.004
-5.240E-06,0.000
-5.230E-06,0.000
-5.220E-06,0.004
-5.210E-06,0.004
-5.200E-06,0.012
-5.190E-06,0.012
-5.180E-06,0.004
-5.170E-06,0.008
-5.160E-06,0.000
-5.150E-06,0.000
-5.140E-06,0.000
-5.130E-06,0.000
-5.120E-06,0.004
-5.110E-06,0.004
-5.100E-06,0.008
-5.090E-06,0.000
-5.080E-06,0.008
-5.070E-06,0.000
-5.060E-06,0.000
-5.050E-06,-0.004
-5.040E-06,0.000
-5.030E-06,0.008
-5.020E-06,0.000
-5.010E-06,0.008
-5.000E-06,0.008
-4.990E-06,0.008
-4.980E-06,0.000
-4.970E-06,0.004
-4.960E-06,0.004
-4.950E-06,0.004
-4.940E-06,0.008
-4.930E-06,0.000
-4.920E-06,0.000
-4.910E-06,0.000
-4.900E-06,0.004
-4.890E-06,0.004
-4.880E-06,0.000
-4.870E-06,0.008
-4.860E-06,0.004
-4.850E-06,0.000
-4.840E-06,-0.004
-4.830E-06,0.000
-4.820E-06,-0.004
-4.810E-06,0.008
-4.800E-06,0.012
-4.790E-06,0.004
-4.780E-06,-0.004
-4.770E-06,-0.004
-4.760E-06,0.000
-4.750E-06,0.000
-4.740E-06,0.004
-4.730E-06,0.004
-4.720E-06,0.008
-4.710E-06,0.004
-4.700E-06,0.000
-4.690E-06,-0.004
-4.680E-06,0.004
-4.670E-06,0.004
-4.660E-06,0.000
-4.650E-06,0.000
-4.640E-06,0.000
-4.630E-06,0.008
-4.620E-06,-0.004
-4.610E-06,0.008
-4.600E-06,0.004
-4.590E-06,0.004
-4.580E-06,0.004
-4.570E-06,0.000
-4.560E-06,0.004
-4.550E-06,0.012
-4.540E-06,0.012
-4.530E-06,0.000
-4.520E-06,0.000
-4.510E-06,-0.008
-4.500E-06,0.000
-4.490E-06,0.000
-4.480E-06,0.008
-4.470E-06,0.012
-4.460E-06,0.012
-4.450E-06,0.008
-4.440E-06,0.000
-4.430E-06,-0.008
-4.420E-06,-0.008
-4.410E-06,0.000
-4.400E-06,0.008
-4.390E-06,0.012
-4.380E-06,0.012
-4.370E-06,0.008
-4.360E-06,-0.008
-4.350E-06,0.000
-4.340E-06,-0.004
-4.330E-06,0.000
-4.320E-06,0.004
-4.310E-06,0.004
-4.300E-06,0.008
-4.290E-06,0.008
-4.280E-06,0.000
-4.270E-06,-0.004
-4.260E-06,0.000
-4.250E-06,0.000
-4.240E-06,-0.004
-4.230E-06,0.004
-4.220E-06,0.008
-4.210E-06,0.008
-4.200E-06,0.004
-4.190E-06,0.000
-4.180E-06,0.000
-4.170E-06,0.000
-4.160E-06,-0.004
-4.150E-06,0.004
-4.140E-06,0.004
-4.130E-06,0.008
-4.120E-06,0.004
-4.110E-06,0.000
-4.100E-06,-0.004
-4.090E-06,0.000
-4.080E-06,-0.004
-4.070E-06,0.004
-4.060E-06,0.012
-4.050E-06,0.004
-4.040E-06,0.000
-4.030E-06,0.000
-4.020E-06,0.008
-4.010E-06,0.008
-4.000E-06,-0.004
-3.990E-06,0.000
-3.980E-06,0.008
-3.970E-06,0.012
-3.960E-06,0.008
-3.950E-06,0.000
-3.940E-06,0.000
-3.930E-06,0.000
-3.920E-06,0.008
-3.910E-06,0.008
-3.900E-06,0.004
-3.890E-06,0.008
-3.880E-06,0.008
-3.870E-06,0.004
-3.860E-06,0.000
-3.850E-06,-0.004
-3.840E-06,-0.004
-3.830E-06,0.000
-3.820E-06,0.000
-3.810E-06,0.000
-3.800E-06,0.000
-3.790E-06,0.008
-3.780E-06,0.008
-3.770E-06,0.008
-3.760E-06,0.004
-3.750E-06,-0.004
-3.740E-06,-0.004
-3.730E-06,0.000
-3.720E-06,0.004
-3.710E-06,0.012
-3.700E-06,0.012
-3.690E-06,0.008
-3.680E-06,0.004
-3.670E-06,0.000
-3.660E-06,0.000
-3.650E-06,-0.004
-3.640E-06,0.004
-3.630E-06,0.008
-3.620E-06,0.016
-3.610E-06,0.008
-3.600E-06,0.004
-3.590E-06,0.008
-3.580E-06,0.012
-3.570E-06,0.000
-3.560E-06,0.000
-3.550E-06,0.008
-3.540E-06,0.008
-3.530E-06,0.012
-3.520E-06,0.012
-3.510E-06,0.012
-3.500E-06,0.000
-3.490E-06,-0.004
-3.480E-06,0.004
-3.470E-06,-0.008
-3.460E-06,0.008
-3.450E-06,0.004
-3.440E-06,0.008
-3.430E-06,0.004
-3.420E-06,0.000
-3.410E-06,-0.004
-3.400E-06,-0.024
-3.390E-06,-0.008
-3.380E-06,0.004
-3.370E-06,0.024
-3.360E-06,0.024
-3.350E-06,0.016
-3.340E-06,0.008
-3.330E-06,-0.016
-3.320E-06,-0.024
-3.310E-06,-0.012
-3.300E-06,0.004
-3.290E-06,0.016
-3.280E-06,0.024
-3.270E-06,0.012
-3.260E-06,0.004
-3.250E-06,-0.008
-3.240E-06,-0.008
-3.230E-06,-0.008
-3.220E-06,-0.004
-3.210E-06,0.008
-3.200E-06,0.020
-3.190E-06,0.016
-3.180E-06,0.012
-3.170E-06,0.000
-3.160E-06,-0.004
-3.150E-06,-0.004
-3.140E-06,0.000
-3.130E-06,0.008
-3.120E-06,0.008
-3.110E-06,0.012
-3.100E-06,0.016
-3.090E-06,0.016
-3.080E-06,0.012
-3.070E-06,0.000
-3.060E-06,0.000
-3.050E-06,0.008
-3.040E-06,0.016
-3.030E-06,0.020
-3.020E-06,0.024
-3.010E-06,0.012
-3.000E-06,-0.008
-2.990E-06,-0.004
-2.980E-06,0.004
-2.970E-06,0.012
-2.960E-06,0.028
-2.950E-06,0.024
-2.940E-06,-0.012
-2.930E-06,-0.020
-2.920E-06,-0.008
-2.910E-06,-0.024
-2.900E-06,-0.020
-2.890E-06,-0.004
-2.880E-06,0.020
-2.870E-06,0.028
-2.860E-06,0.020
-2.850E-06,0.000
-2.840E-06,-0.028
-2.830E-06,-0.024
-2.820E-06,-0.024
-2.810E-06,-0.004
-2.800E-06,0.008
-2.790E-06,0.032
-2.780E-06,0.036
-2.770E-06,0.020
-2.760E-06,-0.004
-2.750E-06,-0.028
-2.740E-06,-0.032
-2.730E-06,-0.004
-2.720E-06,0.020
-2.710E-06,0.028
-2.700E-06,0.028
-2.690E-06,0.012
-2.680E-06,-0.008
-2.670E-06,-0.020
-2.660E-06,-0.020
-2.650E-06,-0.008
-2.640E-06,0.012
-2.630E-06,0.028
-2.620E-06,0.028
-2.610E-06,0.020
-2.600E-06,0.008
-2.590E-06,-0.008
-2.580E-06,-0.012
-2.570E-06,-0.012
-2.560E-06,-0.008
-2.550E-06,0.004
-2.540E-06,0.016
-2.530E-06,0.024
-2.520E-06,0.016
-2.510E-06,0.004
-2.500E-06,-0.004
-2.490E-06,-0.004
-2.480E-06,-0.004
-2.470E-06,0.008
-2.460E-06,0.024
-2.450E-06,0.024
-2.440E-06,0.028
-2.430E-06,0.008
-2.420E-06,-0.004
-2.410E-06,0.000
-2.400E-06,0.004
-2.390E-06,0.020
-2.380E-06,0.024
-2.370E-06,0.028
-2.360E-06,0.012
-2.350E-06,0.012
-2.340E-06,0.004
-2.330E-06,0.004
-2.320E-06,0.000
-2.310E-06,0.008
-2.300E-06,0.012
-2.290E-06,0.016
-2.280E-06,0.016
-2.270E-06,0.012
-2.260E-06,0.004
-2.250E-06,-0.004
-2.240E-06,-0.008
-2.230E-06,-0.004
-2.220E-06,0.004
-2.210E-06,0.020
-2.200E-06,0.024
-2.190E-06,0.016
-2.180E-06,0.000
-2.170E-06,0.000
-2.160E-06,-0.004
-2.150E-06,0.008
-2.140E-06,0.012
-2.130E-06,0.016
-2.120E-06,0.016
-2.110E-06,0.012
-2.100E-06,0.008
-2.090E-06,0.000
-2.080E-06,-0.004
-2.070E-06,-0.004
-2.060E-06,-0.016
-2.050E-06,-0.012
-2.040E-06,-0.020
-2.030E-06,-0.008
-2.020E-06,0.008
-2.010E-06,0.020
-2.000E-06,0.024
-1.990E-06,0.008
-1.980E-06,-0.004
-1.970E-06,-0.012
-1.960E-06,-0.012
-1.950E-06,0.000
-1.940E-06,0.024
-1.930E-06,0.032
-1.920E-06,0.032
-1.910E-06,0.012
-1.900E-06,-0.008
-1.890E-06,-0.004
-1.880E-06,-0.004
-1.870E-06,0.020
-1.860E-06,0.032
-1.850E-06,0.028
-1.840E-06,0.020
-1.830E-06,0.012
-1.820E-06,0.016
-1.810E-06,0.016
-1.800E-06,0.008
-1.790E-06,0.008
-1.780E-06,0.004
-1.770E-06,0.008
-1.760E-06,0.012
-1.750E-06,0.028
-1.740E-06,0.032
-1.730E-06,0.028
-1.720E-06,0.012
-1.710E-06,0.008
-1.700E-06,0.004
-1.690E-06,0.020
-1.680E-06,0.036
-1.670E-06,0.048
-1.660E-06,0.040
-1.650E-06,0.028
-1.640E-06,0.024
-1.630E-06,0.024
-1.620E-06,0.024
-1.610E-06,0.024
-1.600E-06,0.024
-1.590E-06,0.028
-1.580E-06,0.020
-1.570E-06,0.024
-1.560E-06,0.024
-1.550E-06,0.020
-1.540E-06,0.020
-1.530E-06,0.024
-1.520E-06,0.028
-1.510E-06,0.036
-1.500E-06,0.044
-1.490E-06,0.052
-1.480E-06,0.072
-1.470E-06,0.080
-1.460E-06,0.072
-1.450E-06,0.044
-1.440E-06,0.028
-1.430E-06,-0.012
-1.420E-06,-0.064
-1.410E-06,-0.068
-1.400E-06,-0.040
-1.390E-06,-0.036
-1.380E-06,0.004
-1.370E-06,0.024
-1.360E-06,-0.036
-1.350E-06,-0.028
-1.340E-06,0.012
-1.330E-06,0.044
-1.320E-06,-0.004
-1.310E-06,-0.024
-1.300E-06,-0.076
-1.290E-06,-0.064
-1.280E-06,-0.044
-1.270E-06,-0.012
-1.260E-06,-0.024
-1.250E-06,-0.020
-1.240E-06,0.000
-1.230E-06,0.008
-1.220E-06,0.028
-1.210E-06,0.000
-1.200E-06,-0.004
-1.190E-06,-0.020
-1.180E-06,0.000
-1.170E-06,0.008
-1.160E-06,0.048
-1.150E-06,0.056
-1.140E-06,0.036
-1.130E-06,0.020
-1.120E-06,0.000
-1.110E-06,0.016
-1.100E-06,0.056
-1.090E-06,0.104
-1.080E-06,0.096
-1.070E-06,0.072
-1.060E-06,0.008
-1.050E-06,-0.020
-1.040E-06,-0.004
-1.030E-06,0.000
-1.020E-06,0.036
-1.010E-06,0.064
-1.000E-06,0.088
-9.900E-07,0.072
-9.800E-07,0.056
-9.700E-07,0.032
-9.600E-07,0.020
-9.500E-07,0.020
-9.400E-07,0.048
-9.300E-07,0.020
-9.200E-07,-0.008
-9.100E-07,-0.064
-9.000E-07,-0.104
-8.900E-07,-0.120
-8.800E-07,-0.080
-8.700E-07,-0.004
-8.600E-07,0.056
-8.500E-07,0.076
-8.400E-07,0.024
-8.300E-07,-0.052
-8.200E-07,-0.116
-8.100E-07,-0.108
-8.000E-07,-0.064
-7.900E-07,0.000
-7.800E-07,0.060
-7.700E-07,0.084
-7.600E-07,0.056
-7.500E-07,0.012
-7.400E-07,-0.024
-7.300E-07,-0.036
-7.200E-07,0.012
-7.100E-07,0.060
-7.000E-07,0.088
-6.900E-07,0.084
-6.800E-07,0.060
-6.700E-07,0.036
-6.600E-07,0.016
-6.500E-07,0.004
-6.400E-07,0.004
-6.300E-07,0.012
-6.200E-07,0.036
-6.100E-07,0.052
-6.000E-07,0.072
-5.900E-07,0.088
-5.800E-07,0.084
-5.700E-07,0.068
-5.600E-07,0.044
-5.500E-07,0.024
-5.400E-07,0.004
-5.300E-07,-0.024
-5.200E-07,-0.052
-5.100E-07,-0.068
-5.000E-07,-0.072
-4.900E-07,-0.056
-4.800E-07,-0.012
-4.700E-07,0.004
-4.600E-07,0.000
-4.500E-07,-0.036
-4.400E-07,-0.064
-4.300E-07,-0.064
-4.200E-07,-0.032
-4.100E-07,0.036
-4.000E-07,0.092
-3.900E-07,0.120
-3.800E-07,0.108
-3.700E-07,0.076
-3.600E-07,0.048
-3.500E-07,0.056
-3.400E-07,0.088
-3.300E-07,0.124
-3.200E-07,0.168
-3.100E-07,0.172
-3.000E-07,0.152
-2.900E-07,0.112
-2.800E-07,0.084
-2.700E-07,0.056
-2.600E-07,0.060
-2.500E-07,0.080
-2.400E-07,0.092
-2.300E-07,0.116
-2.200E-07,0.108
-2.100E-07,0.076
-2.000E-07,0.040
-1.900E-07,0.028
-1.800E-07,0.020
-1.700E-07,0.040
-1.600E-07,0.076
-1.500E-07,0.104
-1.400E-07,0.112
-1.300E-07,0.120
-1.200E-07,0.048
-1.100E-07,0.016
-1.000E-07,0.000
-9.000E-08,-0.072
-8.000E-08,-0.060
-7.000E-08,-0.076
-6.000E-08,0.028
-5.000E-08,-0.508
-4.000E-08,-0.512
-3.000E-08,-0.512
-2.000E-08,-0.508
-1.000E-08,0.276
0.000E+00,0.544
1.000E-08,0.544
2.000E-08,0.540
3.000E-08,-0.336
4.000E-08,-0.512
5.000E-08,-0.512
6.000E-08,-0.408
7.000E-08,0.540
8.000E-08,0.540
9.000E-08,0.540
1.000E-07,0.252
1.100E-07,-0.480
1.200E-07,-0.512
1.300E-07,-0.512
1.400E-07,-0.004
1.500E-07,0.468
1.600E-07,0.536
1.700E-07,0.540
1.800E-07,0.264
1.900E-07,-0.180
2.000E-07,-0.400
2.100E-07,-0.416
2.200E-07,-0.104
2.300E-07,0.276
2.400E-07,0.540
2.500E-07,0.536
2.600E-07,0.320
2.700E-07,-0.120
2.800E-07,-0.488
2.900E-07,-0.436
3.000E-07,-0.200
3.100E-07,0.144
3.200E-07,0.376
3.300E-07,0.380
3.400E-07,0.168
3.500E-07,-0.104
3.600E-07,-0.296
3.700E-07,-0.356
3.800E-07,-0.232
3.900E-07,0.012
4.000E-07,0.244
4.100E-07,0.292
4.200E-07,0.124
4.300E-07,-0.152
4.400E-07,-0.292
4.500E-07,-0.284
4.600E-07,-0.144
4.700E-07,0.112
4.800E-07,0.272
4.900E-07,0.304
5.000E-07,0.176
5.100E-07,0.024
5.200E-07,-0.076
5.300E-07,-0.076
5.400E-07,0.024
5.500E-07,0.152
5.600E-07,0.272
5.700E-07,0.232
5.800E-07,0.136
5.900E-07,0.008
6.000E-07,-0.060
6.100E-07,-0.064
6.200E-07,0.008
6.300E-07,0.144
6.400E-07,0.256
6.500E-07,0.216
6.600E-07,0.004
6.700E-07,-0.180
6.800E-07,-0.180
6.900E-07,-0.024
7.000E-07,-0.008
7.100E-07,-0.136
7.200E-07,-0.432
7.300E-07,-0.512
7.400E-07,-0.512
7.500E-07,-0.272
7.600E-07,0.224
7.700E-07,0.412
7.800E-07,0.324
7.900E-07,0.028
8.000E-07,-0.192
8.100E-07,-0.192
8.200E-07,-0.016
8.300E-07,0.172
8.400E-07,0.356
8.500E-07,0.348
8.600E-07,0.244
8.700E-07,-0.016
8.800E-07,-0.244
8.900E-07,-0.512
9.000E-07,-0.512
9.100E-07,-0.344
9.200E-07,-0.040
9.300E-07,0.284
9.400E-07,0.448
9.500E-07,0.388
9.600E-07,0.052
9.700E-07,-0.288
9.800E-07,-0.512
9.900E-07,-0.412
1.000E-06,-0.164
1.010E-06,0.164
1.020E-06,0.328
1.030E-06,0.292
1.040E-06,0.156
1.050E-06,-0.060
1.060E-06,-0.224
1.070E-06,-0.300
1.080E-06,-0.232
1.090E-06,-0.052
1.100E-06,0.272
1.110E-06,0.352
1.120E-06,0.288
1.130E-06,0.060
1.140E-06,-0.144
1.150E-06,-0.264
1.160E-06,-0.208
1.170E-06,-0.032
1.180E-06,0.168
1.190E-06,0.328
1.200E-06,0.328
1.210E-06,0.216
1.220E-06,0.000
1.230E-06,-0.100
1.240E-06,-0.124
1.250E-06,-0.072
1.260E-06,0.024
1.270E-06,0.104
1.280E-06,0.140
1.290E-06,0.176
1.300E-06,0.124
1.310E-06,0.016
1.320E-06,-0.044
1.330E-06,-0.072
1.340E-06,0.024
1.350E-06,0.148
1.360E-06,0.236
1.370E-06,0.268
1.380E-06,0.216
1.390E-06,0.108
1.400E-06,-0.020
1.410E-06,-0.096
1.420E-06,-0.124
1.430E-06,-0.084
1.440E-06,0.012
1.450E-06,0.068
1.460E-06,0.040
1.470E-06,0.012
1.480E-06,-0.024
1.490E-06,-0.044
1.500E-06,-0.004
1.510E-06,0.084
1.520E-06,0.164
1.530E-06,0.216
1.540E-06,0.220
1.550E-06,0.188
1.560E-06,0.120
1.570E-06,0.044
1.580E-06,0.068
1.590E-06,0.132
1.600E-06,0.200
1.610E-06,0.260
1.620E-06,0.260
1.630E-06,0.220
1.640E-06,0.140
1.650E-06,0.088
1.660E-06,0.036
1.670E-06,0.060
1.680E-06,0.104
1.690E-06,0.180
1.700E-06,0.204
1.710E-06,0.188
1.720E-06,0.120
1.730E-06,0.072
1.740E-06,0.048
1.750E-06,0.064
1.760E-06,0.156
1.770E-06,0.256
1.780E-06,0.312
1.790E-06,0.276
1.800E-06,0.228
1.810E-06,0.132
1.820E-06,0.096
1.830E-06,0.092
1.840E-06,0.100
1.850E-06,0.000
1.860E-06,-0.392
1.870E-06,-0.508
1.880E-06,-0.512
1.890E-06,-0.512
1.900E-06,-0.464
1.910E-06,0.072
1.920E-06,0.272
1.930E-06,0.232
1.940E-06,-0.312
1.950E-06,-0.512
1.960E-06,-0.512
1.970E-06,-0.512
1.980E-06,-0.220
1.990E-06,0.308
2.000E-06,0.544
2.010E-06,0.544
2.020E-06,0.188
2.030E-06,-0.460
2.040E-06,-0.508
2.050E-06,-0.508
2.060E-06,-0.120
2.070E-06,0.516
2.080E-06,0.544
2.090E-06,0.544
2.100E-06,0.272
2.110E-06,-0.272
2.120E-06,-0.512
2.130E-06,-0.512
2.140E-06,-0.156
2.150E-06,0.376
2.160E-06,0.540
2.170E-06,0.540
2.180E-06,0.344
2.190E-06,-0.112
2.200E-06,-0.444
2.210E-06,-0.488
2.220E-06,-0.252
2.230E-06,0.132
2.240E-06,0.452
2.250E-06,0.516
2.260E-06,0.272
2.270E-06,-0.048
2.280E-06,-0.312
2.290E-06,-0.408
2.300E-06,-0.244
2.310E-06,0.072
2.320E-06,0.292
2.330E-06,0.360
2.340E-06,0.304
2.350E-06,0.096
2.360E-06,-0.100
2.370E-06,-0.176
2.380E-06,-0.072
2.390E-06,0.156
2.400E-06,0.388
2.410E-06,0.488
2.420E-06,0.456
2.430E-06,0.296
2.440E-06,0.124
2.450E-06,0.016
2.460E-06,0.048
2.470E-06,0.180
2.480E-06,0.332
2.490E-06,0.428
2.500E-06,0.424
2.510E-06,0.320
2.520E-06,0.168
2.530E-06,0.072
2.540E-06,0.056
2.550E-06,0.104
2.560E-06,0.188
2.570E-06,0.240
2.580E-06,0.204
2.590E-06,0.140
2.600E-06,0.072
2.610E-06,0.008
2.620E-06,0.000
2.630E-06,0.020
2.640E-06,0.072
2.650E-06,0.044
2.660E-06,0.040
2.670E-06,0.012
2.680E-06,0.040
2.690E-06,0.064
2.700E-06,0.080
2.710E-06,0.080
2.720E-06,0.088
2.730E-06,0.052
2.740E-06,-0.024
2.750E-06,-0.024
2.760E-06,-0.044
2.770E-06,0.024
2.780E-06,0.064
2.790E-06,0.072
2.800E-06,0.024
2.810E-06,-0.052
2.820E-06,-0.196
2.830E-06,-0.264
2.840E-06,-0.200
2.850E-06,-0.100
2.860E-06,0.024
2.870E-06,0.188
2.880E-06,0.320
2.890E-06,0.340
2.900E-06,0.304
2.910E-06,0.164
2.920E-06,0.044
2.930E-06,-0.004
2.940E-06,0.060
2.950E-06,0.204
2.960E-06,0.356
2.970E-06,0.408
2.980E-06,0.348
2.990E-06,0.220
3.000E-06,0.084
3.010E-06,0.028
3.020E-06,0.072
3.030E-06,0.192
3.040E-06,0.300
3.050E-06,0.368
3.060E-06,0.352
3.070E-06,0.260
3.080E-06,0.156
3.090E-06,0.088
3.100E-06,0.096
3.110E-06,0.180
3.120E-06,0.284
3.130E-06,0.356
3.140E-06,0.368
3.150E-06,0.300
3.160E-06,0.216
3.170E-06,0.140
3.180E-06,0.132
3.190E-06,0.172
3.200E-06,0.244
3.210E-06,0.300
3.220E-06,0.324
3.230E-06,0.292
3.240E-06,0.228
3.250E-06,0.180
3.260E-06,0.148
3.270E-06,0.168
3.280E-06,0.220
3.290E-06,0.268
3.300E-06,0.296
3.310E-06,0.280
3.320E-06,0.240
3.330E-06,0.192
3.340E-06,0.168
