mediciones/Mediciones filtradas (saque las feas)/5-15/14.9/WaveData47331.csv

#timebase=2000000(ps)
,#voltbase=100000(mv/100)
#size=4000
-8.400E-06,-0.004
-8.390E-06,0.012
-8.380E-06,0.032
-8.370E-06,0.020
-8.360E-06,0.000
-8.350E-06,-0.012
-8.340E-06,-0.016
-8.330E-06,0.008
-8.320E-06,0.036
-8.310E-06,0.040
-8.300E-06,0.012
-8.290E-06,-0.024
-8.280E-06,-0.056
-8.270E-06,-0.036
-8.260E-06,0.000
-8.250E-06,0.004
-8.240E-06,0.012
-8.230E-06,0.004
-8.220E-06,0.012
-8.210E-06,0.016
-8.200E-06,0.024
-8.190E-06,0.004
-8.180E-06,-0.024
-8.170E-06,-0.024
-8.160E-06,-0.024
-8.150E-06,0.016
-8.140E-06,0.036
-8.130E-06,0.052
-8.120E-06,0.012
-8.110E-06,-0.024
-8.100E-06,-0.056
-8.090E-06,-0.044
-8.080E-06,0.000
-8.070E-06,0.044
-8.060E-06,0.060
-8.050E-06,0.028
-8.040E-06,0.000
-8.030E-06,-0.036
-8.020E-06,-0.028
-8.010E-06,-0.004
-8.000E-06,0.024
-7.990E-06,0.036
-7.980E-06,0.020
-7.970E-06,-0.004
-7.960E-06,-0.012
-7.950E-06,-0.004
-7.940E-06,0.000
-7.930E-06,0.016
-7.920E-06,0.024
-7.910E-06,0.012
-7.900E-06,0.004
-7.890E-06,-0.012
-7.880E-06,-0.004
-7.870E-06,0.000
-7.860E-06,0.012
-7.850E-06,0.028
-7.840E-06,0.020
-7.830E-06,0.016
-7.820E-06,0.008
-7.810E-06,0.000
-7.800E-06,-0.004
-7.790E-06,0.000
-7.780E-06,0.012
-7.770E-06,0.040
-7.760E-06,0.056
-7.750E-06,0.056
-7.740E-06,0.012
-7.730E-06,-0.032
-7.720E-06,-0.052
-7.710E-06,-0.052
-7.700E-06,-0.004
-7.690E-06,0.020
-7.680E-06,0.056
-7.670E-06,0.052
-7.660E-06,0.028
-7.650E-06,-0.008
-7.640E-06,-0.032
-7.630E-06,-0.036
-7.620E-06,-0.020
-7.610E-06,-0.012
-7.600E-06,0.004
-7.590E-06,0.012
-7.580E-06,0.004
-7.570E-06,-0.008
-7.560E-06,-0.016
-7.550E-06,-0.008
-7.540E-06,0.008
-7.530E-06,0.020
-7.520E-06,0.024
-7.510E-06,0.024
-7.500E-06,0.000
-7.490E-06,-0.020
-7.480E-06,-0.024
-7.470E-06,-0.008
-7.460E-06,-0.004
-7.450E-06,0.016
-7.440E-06,0.024
-7.430E-06,0.016
-7.420E-06,0.008
-7.410E-06,0.000
-7.400E-06,-0.008
-7.390E-06,-0.008
-7.380E-06,-0.004
-7.370E-06,0.008
-7.360E-06,0.020
-7.350E-06,0.024
-7.340E-06,0.012
-7.330E-06,0.008
-7.320E-06,0.004
-7.310E-06,0.008
-7.300E-06,0.012
-7.290E-06,0.008
-7.280E-06,0.012
-7.270E-06,0.012
-7.260E-06,0.016
-7.250E-06,0.008
-7.240E-06,0.000
-7.230E-06,-0.008
-7.220E-06,-0.024
-7.210E-06,-0.004
-7.200E-06,-0.004
-7.190E-06,0.008
-7.180E-06,0.016
-7.170E-06,0.008
-7.160E-06,-0.016
-7.150E-06,0.000
-7.140E-06,0.024
-7.130E-06,0.012
-7.120E-06,-0.004
-7.110E-06,-0.004
-7.100E-06,-0.004
-7.090E-06,0.000
-7.080E-06,0.020
-7.070E-06,0.024
-7.060E-06,0.024
-7.050E-06,0.004
-7.040E-06,-0.012
-7.030E-06,-0.020
-7.020E-06,-0.008
-7.010E-06,-0.016
-7.000E-06,-0.060
-6.990E-06,-0.048
-6.980E-06,-0.020
-6.970E-06,0.008
-6.960E-06,0.052
-6.950E-06,0.076
-6.940E-06,0.044
-6.930E-06,-0.028
-6.920E-06,-0.048
-6.910E-06,-0.068
-6.900E-06,-0.020
-6.890E-06,0.048
-6.880E-06,0.072
-6.870E-06,0.064
-6.860E-06,0.012
-6.850E-06,-0.040
-6.840E-06,-0.072
-6.830E-06,-0.036
-6.820E-06,0.000
-6.810E-06,0.056
-6.800E-06,0.064
-6.790E-06,0.040
-6.780E-06,-0.004
-6.770E-06,-0.036
-6.760E-06,-0.044
-6.750E-06,-0.020
-6.740E-06,0.012
-6.730E-06,0.040
-6.720E-06,0.060
-6.710E-06,0.024
-6.700E-06,-0.008
-6.690E-06,-0.044
-6.680E-06,-0.044
-6.670E-06,-0.028
-6.660E-06,0.008
-6.650E-06,0.032
-6.640E-06,0.028
-6.630E-06,0.040
-6.620E-06,0.008
-6.610E-06,-0.028
-6.600E-06,-0.040
-6.590E-06,-0.008
-6.580E-06,0.020
-6.570E-06,0.028
-6.560E-06,0.024
-6.550E-06,0.012
-6.540E-06,0.000
-6.530E-06,-0.008
-6.520E-06,-0.008
-6.510E-06,-0.008
-6.500E-06,-0.004
-6.490E-06,0.008
-6.480E-06,0.016
-6.470E-06,0.024
-6.460E-06,0.016
-6.450E-06,0.004
-6.440E-06,-0.012
-6.430E-06,-0.012
-6.420E-06,0.004
-6.410E-06,0.020
-6.400E-06,0.028
-6.390E-06,0.032
-6.380E-06,0.012
-6.370E-06,-0.016
-6.360E-06,-0.032
-6.350E-06,-0.028
-6.340E-06,0.000
-6.330E-06,0.024
-6.320E-06,0.044
-6.310E-06,0.028
-6.300E-06,0.000
-6.290E-06,-0.028
-6.280E-06,-0.036
-6.270E-06,-0.024
-6.260E-06,0.008
-6.250E-06,0.032
-6.240E-06,0.036
-6.230E-06,0.008
-6.220E-06,0.000
-6.210E-06,-0.008
-6.200E-06,0.000
-6.190E-06,0.004
-6.180E-06,0.008
-6.170E-06,0.000
-6.160E-06,-0.012
-6.150E-06,0.000
-6.140E-06,0.020
-6.130E-06,0.036
-6.120E-06,0.028
-6.110E-06,0.012
-6.100E-06,-0.024
-6.090E-06,-0.040
-6.080E-06,-0.032
-6.070E-06,0.004
-6.060E-06,0.036
-6.050E-06,0.052
-6.040E-06,0.036
-6.030E-06,-0.004
-6.020E-06,-0.028
-6.010E-06,-0.032
-6.000E-06,-0.008
-5.990E-06,-0.004
-5.980E-06,0.016
-5.970E-06,0.008
-5.960E-06,0.024
-5.950E-06,0.012
-5.940E-06,0.020
-5.930E-06,0.008
-5.920E-06,-0.016
-5.910E-06,-0.020
-5.900E-06,-0.024
-5.890E-06,0.004
-5.880E-06,0.024
-5.870E-06,0.056
-5.860E-06,0.044
-5.850E-06,0.012
-5.840E-06,-0.040
-5.830E-06,-0.072
-5.820E-06,-0.044
-5.810E-06,0.008
-5.800E-06,0.060
-5.790E-06,0.068
-5.780E-06,0.036
-5.770E-06,-0.008
-5.760E-06,-0.044
-5.750E-06,-0.048
-5.740E-06,-0.032
-5.730E-06,0.012
-5.720E-06,0.044
-5.710E-06,0.052
-5.700E-06,0.024
-5.690E-06,-0.004
-5.680E-06,-0.028
-5.670E-06,-0.040
-5.660E-06,-0.020
-5.650E-06,0.012
-5.640E-06,0.040
-5.630E-06,0.032
-5.620E-06,0.016
-5.610E-06,-0.004
-5.600E-06,-0.016
-5.590E-06,-0.020
-5.580E-06,-0.012
-5.570E-06,0.004
-5.560E-06,0.028
-5.550E-06,0.032
-5.540E-06,0.024
-5.530E-06,0.000
-5.520E-06,-0.032
-5.510E-06,-0.028
-5.500E-06,-0.012
-5.490E-06,0.016
-5.480E-06,0.028
-5.470E-06,0.036
-5.460E-06,0.016
-5.450E-06,-0.008
-5.440E-06,-0.028
-5.430E-06,-0.032
-5.420E-06,-0.008
-5.410E-06,0.020
-5.400E-06,0.036
-5.390E-06,0.024
-5.380E-06,0.004
-5.370E-06,-0.012
-5.360E-06,-0.016
-5.350E-06,-0.008
-5.340E-06,0.008
-5.330E-06,0.020
-5.320E-06,0.020
-5.310E-06,0.016
-5.300E-06,0.008
-5.290E-06,0.000
-5.280E-06,-0.008
-5.270E-06,-0.020
-5.260E-06,-0.020
-5.250E-06,0.004
-5.240E-06,0.028
-5.230E-06,0.044
-5.220E-06,0.024
-5.210E-06,-0.004
-5.200E-06,-0.032
-5.190E-06,-0.040
-5.180E-06,-0.012
-5.170E-06,0.020
-5.160E-06,0.044
-5.150E-06,0.032
-5.140E-06,0.012
-5.130E-06,-0.008
-5.120E-06,-0.024
-5.110E-06,-0.020
-5.100E-06,0.004
-5.090E-06,0.012
-5.080E-06,0.020
-5.070E-06,0.020
-5.060E-06,0.008
-5.050E-06,0.008
-5.040E-06,-0.008
-5.030E-06,-0.008
-5.020E-06,-0.004
-5.010E-06,-0.004
-5.000E-06,-0.004
-4.990E-06,0.004
-4.980E-06,0.020
-4.970E-06,0.024
-4.960E-06,0.004
-4.950E-06,-0.012
-4.940E-06,-0.024
-4.930E-06,-0.012
-4.920E-06,0.008
-4.910E-06,0.032
-4.900E-06,0.032
-4.890E-06,0.016
-4.880E-06,-0.004
-4.870E-06,-0.020
-4.860E-06,-0.012
-4.850E-06,-0.008
-4.840E-06,0.012
-4.830E-06,0.024
-4.820E-06,0.020
-4.810E-06,0.008
-4.800E-06,-0.012
-4.790E-06,-0.028
-4.780E-06,-0.040
-4.770E-06,-0.004
-4.760E-06,0.032
-4.750E-06,0.044
-4.740E-06,0.040
-4.730E-06,0.004
-4.720E-06,-0.020
-4.710E-06,-0.036
-4.700E-06,-0.024
-4.690E-06,0.020
-4.680E-06,0.044
-4.670E-06,0.036
-4.660E-06,0.004
-4.650E-06,-0.020
-4.640E-06,-0.040
-4.630E-06,-0.028
-4.620E-06,0.008
-4.610E-06,0.044
-4.600E-06,0.044
-4.590E-06,0.012
-4.580E-06,-0.028
-4.570E-06,-0.052
-4.560E-06,-0.024
-4.550E-06,0.008
-4.540E-06,0.040
-4.530E-06,0.044
-4.520E-06,0.012
-4.510E-06,-0.012
-4.500E-06,-0.024
-4.490E-06,-0.012
-4.480E-06,0.004
-4.470E-06,0.016
-4.460E-06,0.024
-4.450E-06,0.008
-4.440E-06,0.000
-4.430E-06,-0.004
-4.420E-06,-0.004
-4.410E-06,0.004
-4.400E-06,0.004
-4.390E-06,0.000
-4.380E-06,0.008
-4.370E-06,0.016
-4.360E-06,0.020
-4.350E-06,0.012
-4.340E-06,-0.004
-4.330E-06,-0.024
-4.320E-06,-0.032
-4.310E-06,-0.012
-4.300E-06,0.016
-4.290E-06,0.028
-4.280E-06,0.024
-4.270E-06,0.000
-4.260E-06,-0.008
-4.250E-06,-0.016
-4.240E-06,-0.008
-4.230E-06,0.008
-4.220E-06,0.020
-4.210E-06,0.020
-4.200E-06,0.012
-4.190E-06,0.000
-4.180E-06,-0.004
-4.170E-06,-0.004
-4.160E-06,0.004
-4.150E-06,0.008
-4.140E-06,0.008
-4.130E-06,0.004
-4.120E-06,0.000
-4.110E-06,0.004
-4.100E-06,0.008
-4.090E-06,0.008
-4.080E-06,0.000
-4.070E-06,0.000
-4.060E-06,0.000
-4.050E-06,0.000
-4.040E-06,0.004
-4.030E-06,0.008
-4.020E-06,0.008
-4.010E-06,0.008
-4.000E-06,0.012
-3.990E-06,-0.004
-3.980E-06,0.000
-3.970E-06,-0.004
-3.960E-06,0.000
-3.950E-06,-0.004
-3.940E-06,0.000
-3.930E-06,0.008
-3.920E-06,0.012
-3.910E-06,0.012
-3.900E-06,0.008
-3.890E-06,0.004
-3.880E-06,0.000
-3.870E-06,-0.004
-3.860E-06,0.000
-3.850E-06,0.004
-3.840E-06,0.004
-3.830E-06,0.008
-3.820E-06,0.008
-3.810E-06,0.008
-3.800E-06,0.004
-3.790E-06,0.004
-3.780E-06,0.008
-3.770E-06,0.004
-3.760E-06,0.012
-3.750E-06,0.012
-3.740E-06,0.008
-3.730E-06,0.004
-3.720E-06,0.000
-3.710E-06,-0.004
-3.700E-06,-0.008
-3.690E-06,-0.008
-3.680E-06,-0.004
-3.670E-06,0.012
-3.660E-06,0.028
-3.650E-06,0.012
-3.640E-06,0.004
-3.630E-06,0.004
-3.620E-06,-0.008
-3.610E-06,-0.008
-3.600E-06,0.004
-3.590E-06,0.012
-3.580E-06,0.008
-3.570E-06,0.012
-3.560E-06,0.012
-3.550E-06,0.004
-3.540E-06,-0.004
-3.530E-06,-0.004
-3.520E-06,-0.004
-3.510E-06,0.000
-3.500E-06,0.004
-3.490E-06,0.020
-3.480E-06,0.020
-3.470E-06,0.008
-3.460E-06,-0.004
-3.450E-06,-0.012
-3.440E-06,-0.004
-3.430E-06,0.008
-3.420E-06,0.020
-3.410E-06,0.020
-3.400E-06,0.000
-3.390E-06,-0.012
-3.380E-06,-0.016
-3.370E-06,-0.004
-3.360E-06,0.012
-3.350E-06,0.024
-3.340E-06,0.024
-3.330E-06,0.008
-3.320E-06,-0.004
-3.310E-06,-0.012
-3.300E-06,-0.008
-3.290E-06,0.008
-3.280E-06,0.012
-3.270E-06,0.012
-3.260E-06,0.008
-3.250E-06,0.004
-3.240E-06,0.000
-3.230E-06,0.008
-3.220E-06,0.024
-3.210E-06,0.028
-3.200E-06,0.016
-3.190E-06,0.000
-3.180E-06,-0.012
-3.170E-06,-0.024
-3.160E-06,0.000
-3.150E-06,0.016
-3.140E-06,0.032
-3.130E-06,0.028
-3.120E-06,0.012
-3.110E-06,-0.004
-3.100E-06,-0.024
-3.090E-06,-0.016
-3.080E-06,-0.004
-3.070E-06,0.016
-3.060E-06,0.024
-3.050E-06,0.024
-3.040E-06,0.016
-3.030E-06,0.000
-3.020E-06,-0.012
-3.010E-06,-0.008
-3.000E-06,0.004
-2.990E-06,0.016
-2.980E-06,0.032
-2.970E-06,0.028
-2.960E-06,0.000
-2.950E-06,-0.004
-2.940E-06,-0.024
-2.930E-06,-0.004
-2.920E-06,0.008
-2.910E-06,0.020
-2.900E-06,0.008
-2.890E-06,0.000
-2.880E-06,-0.016
-2.870E-06,-0.024
-2.860E-06,-0.008
-2.850E-06,0.020
-2.840E-06,0.028
-2.830E-06,0.028
-2.820E-06,0.008
-2.810E-06,-0.016
-2.800E-06,-0.024
-2.790E-06,-0.004
-2.780E-06,0.020
-2.770E-06,0.020
-2.760E-06,0.012
-2.750E-06,-0.008
-2.740E-06,-0.008
-2.730E-06,-0.008
-2.720E-06,0.016
-2.710E-06,0.020
-2.700E-06,0.008
-2.690E-06,0.000
-2.680E-06,-0.004
-2.670E-06,-0.004
-2.660E-06,0.004
-2.650E-06,0.012
-2.640E-06,0.012
-2.630E-06,0.008
-2.620E-06,0.000
-2.610E-06,-0.004
-2.600E-06,0.012
-2.590E-06,0.016
-2.580E-06,0.024
-2.570E-06,0.016
-2.560E-06,-0.004
-2.550E-06,-0.008
-2.540E-06,-0.004
-2.530E-06,0.008
-2.520E-06,0.012
-2.510E-06,0.012
-2.500E-06,0.004
-2.490E-06,0.008
-2.480E-06,0.004
-2.470E-06,0.004
-2.460E-06,0.004
-2.450E-06,0.000
-2.440E-06,0.008
-2.430E-06,0.004
-2.420E-06,0.004
-2.410E-06,0.012
-2.400E-06,0.012
-2.390E-06,0.020
-2.380E-06,0.016
-2.370E-06,0.008
-2.360E-06,0.004
-2.350E-06,-0.004
-2.340E-06,0.000
-2.330E-06,0.016
-2.320E-06,0.032
-2.310E-06,0.040
-2.300E-06,0.020
-2.290E-06,0.008
-2.280E-06,-0.016
-2.270E-06,-0.024
-2.260E-06,-0.004
-2.250E-06,0.016
-2.240E-06,0.048
-2.230E-06,0.056
-2.220E-06,0.028
-2.210E-06,0.008
-2.200E-06,-0.008
-2.190E-06,-0.028
-2.180E-06,-0.012
-2.170E-06,-0.040
-2.160E-06,-0.140
-2.150E-06,-0.200
-2.140E-06,-0.160
-2.130E-06,-0.008
-2.120E-06,0.132
-2.110E-06,0.216
-2.100E-06,0.196
-2.090E-06,0.028
-2.080E-06,-0.160
-2.070E-06,-0.256
-2.060E-06,-0.168
-2.050E-06,0.048
-2.040E-06,0.216
-2.030E-06,0.236
-2.020E-06,0.124
-2.010E-06,-0.052
-2.000E-06,-0.172
-1.990E-06,-0.204
-1.980E-06,-0.112
-1.970E-06,0.020
-1.960E-06,0.148
-1.950E-06,0.160
-1.940E-06,0.124
-1.930E-06,0.024
-1.920E-06,-0.056
-1.910E-06,-0.076
-1.900E-06,-0.064
-1.890E-06,0.008
-1.880E-06,0.036
-1.870E-06,0.056
-1.860E-06,0.052
-1.850E-06,0.024
-1.840E-06,-0.040
-1.830E-06,-0.052
-1.820E-06,-0.040
-1.810E-06,-0.004
-1.800E-06,0.044
-1.790E-06,0.060
-1.780E-06,0.044
-1.770E-06,-0.008
-1.760E-06,-0.044
-1.750E-06,-0.060
-1.740E-06,-0.020
-1.730E-06,0.032
-1.720E-06,0.088
-1.710E-06,0.088
-1.700E-06,0.032
-1.690E-06,-0.020
-1.680E-06,-0.056
-1.670E-06,-0.052
-1.660E-06,-0.016
-1.650E-06,0.048
-1.640E-06,0.072
-1.630E-06,0.044
-1.620E-06,-0.004
-1.610E-06,-0.032
-1.600E-06,-0.036
-1.590E-06,-0.016
-1.580E-06,-0.028
-1.570E-06,-0.036
-1.560E-06,0.000
-1.550E-06,0.060
-1.540E-06,0.064
-1.530E-06,0.040
-1.520E-06,-0.012
-1.510E-06,-0.060
-1.500E-06,-0.064
-1.490E-06,-0.028
-1.480E-06,0.028
-1.470E-06,0.072
-1.460E-06,0.072
-1.450E-06,0.028
-1.440E-06,-0.016
-1.430E-06,-0.052
-1.420E-06,-0.048
-1.410E-06,0.000
-1.400E-06,0.044
-1.390E-06,0.060
-1.380E-06,0.044
-1.370E-06,0.016
-1.360E-06,-0.016
-1.350E-06,-0.028
-1.340E-06,-0.032
-1.330E-06,-0.016
-1.320E-06,0.008
-1.310E-06,0.032
-1.300E-06,0.032
-1.290E-06,0.016
-1.280E-06,-0.004
-1.270E-06,-0.016
-1.260E-06,-0.028
-1.250E-06,-0.024
-1.240E-06,-0.004
-1.230E-06,0.024
-1.220E-06,0.040
-1.210E-06,0.028
-1.200E-06,0.012
-1.190E-06,-0.012
-1.180E-06,-0.028
-1.170E-06,-0.024
-1.160E-06,0.008
-1.150E-06,0.024
-1.140E-06,0.048
-1.130E-06,0.028
-1.120E-06,0.004
-1.110E-06,-0.024
-1.100E-06,-0.028
-1.090E-06,-0.004
-1.080E-06,0.024
-1.070E-06,0.048
-1.060E-06,0.036
-1.050E-06,0.012
-1.040E-06,-0.004
-1.030E-06,-0.016
-1.020E-06,-0.008
-1.010E-06,0.016
-1.000E-06,0.036
-9.900E-07,0.032
-9.800E-07,0.008
-9.700E-07,-0.008
-9.600E-07,-0.016
-9.500E-07,-0.012
-9.400E-07,0.012
-9.300E-07,0.028
-9.200E-07,0.028
-9.100E-07,0.012
-9.000E-07,0.000
-8.900E-07,-0.012
-8.800E-07,-0.012
-8.700E-07,0.000
-8.600E-07,0.012
-8.500E-07,0.024
-8.400E-07,0.024
-8.300E-07,0.012
-8.200E-07,0.000
-8.100E-07,-0.004
-8.000E-07,0.000
-7.900E-07,0.008
-7.800E-07,0.016
-7.700E-07,0.024
-7.600E-07,0.024
-7.500E-07,0.024
-7.400E-07,0.012
-7.300E-07,0.008
-7.200E-07,0.008
-7.100E-07,0.016
-7.000E-07,0.032
-6.900E-07,0.032
-6.800E-07,0.032
-6.700E-07,0.016
-6.600E-07,0.008
-6.500E-07,0.020
-6.400E-07,0.028
-6.300E-07,0.020
-6.200E-07,0.028
-6.100E-07,0.024
-6.000E-07,0.028
-5.900E-07,0.024
-5.800E-07,0.028
-5.700E-07,0.012
-5.600E-07,-0.008
-5.500E-07,-0.052
-5.400E-07,-0.068
-5.300E-07,-0.044
-5.200E-07,-0.012
-5.100E-07,0.056
-5.000E-07,0.088
-4.900E-07,0.072
-4.800E-07,0.004
-4.700E-07,-0.060
-4.600E-07,-0.100
-4.500E-07,-0.072
-4.400E-07,0.004
-4.300E-07,0.072
-4.200E-07,0.092
-4.100E-07,0.068
-4.000E-07,0.024
-3.900E-07,-0.036
-3.800E-07,-0.060
-3.700E-07,-0.060
-3.600E-07,-0.004
-3.500E-07,0.028
-3.400E-07,0.020
-3.300E-07,0.020
-3.200E-07,0.012
-3.100E-07,-0.012
-3.000E-07,-0.036
-2.900E-07,-0.024
-2.800E-07,0.024
-2.700E-07,0.040
-2.600E-07,0.056
-2.500E-07,0.052
-2.400E-07,0.028
-2.300E-07,0.024
-2.200E-07,0.020
-2.100E-07,0.020
-2.000E-07,0.040
-1.900E-07,0.056
-1.800E-07,0.080
-1.700E-07,0.092
-1.600E-07,0.076
-1.500E-07,0.068
-1.400E-07,0.052
-1.300E-07,0.052
-1.200E-07,-0.140
-1.100E-07,-0.272
-1.000E-07,-0.368
-9.000E-08,-0.184
-8.000E-08,0.184
-7.000E-08,0.452
-6.000E-08,0.392
-5.000E-08,-0.264
-4.000E-08,-0.512
-3.000E-08,-0.512
-2.000E-08,-0.248
-1.000E-08,0.288
0.000E+00,0.536
1.000E-08,0.536
2.000E-08,0.352
3.000E-08,-0.180
4.000E-08,-0.512
5.000E-08,-0.512
6.000E-08,-0.304
7.000E-08,0.132
8.000E-08,0.340
9.000E-08,0.424
1.000E-07,0.236
1.100E-07,0.040
1.200E-07,-0.136
1.300E-07,-0.248
1.400E-07,-0.248
1.500E-07,-0.104
1.600E-07,0.156
1.700E-07,0.328
1.800E-07,0.424
1.900E-07,-0.004
2.000E-07,-0.216
2.100E-07,-0.436
2.200E-07,-0.448
2.300E-07,-0.160
2.400E-07,0.336
2.500E-07,0.544
2.600E-07,0.356
2.700E-07,0.008
2.800E-07,-0.332
2.900E-07,-0.408
3.000E-07,-0.332
3.100E-07,0.004
3.200E-07,0.272
3.300E-07,0.432
3.400E-07,0.384
3.500E-07,0.120
3.600E-07,-0.288
3.700E-07,-0.512
3.800E-07,-0.464
3.900E-07,-0.160
4.000E-07,0.204
4.100E-07,0.432
4.200E-07,0.400
4.300E-07,0.144
4.400E-07,-0.176
4.500E-07,-0.396
4.600E-07,-0.348
4.700E-07,-0.064
4.800E-07,0.260
4.900E-07,0.372
5.000E-07,0.224
5.100E-07,-0.032
5.200E-07,-0.216
5.300E-07,-0.268
5.400E-07,-0.168
5.500E-07,0.012
5.600E-07,0.156
5.700E-07,0.208
5.800E-07,0.144
5.900E-07,0.008
6.000E-07,-0.124
6.100E-07,-0.172
6.200E-07,-0.136
6.300E-07,-0.008
6.400E-07,0.120
6.500E-07,0.176
6.600E-07,0.160
6.700E-07,0.052
6.800E-07,-0.060
6.900E-07,-0.136
7.000E-07,-0.100
7.100E-07,0.000
7.200E-07,0.112
7.300E-07,0.156
7.400E-07,0.132
7.500E-07,0.032
7.600E-07,-0.060
7.700E-07,-0.096
7.800E-07,-0.060
7.900E-07,0.052
8.000E-07,0.160
8.100E-07,0.252
8.200E-07,0.188
8.300E-07,0.004
8.400E-07,-0.204
8.500E-07,-0.400
8.600E-07,-0.332
8.700E-07,-0.136
8.800E-07,0.124
8.900E-07,0.308
9.000E-07,0.284
9.100E-07,0.080
9.200E-07,-0.156
9.300E-07,-0.280
9.400E-07,-0.252
9.500E-07,-0.032
9.600E-07,0.164
9.700E-07,0.260
9.800E-07,0.176
9.900E-07,0.032
1.000E-06,-0.132
1.010E-06,-0.176
1.020E-06,-0.136
1.030E-06,-0.012
1.040E-06,0.148
1.050E-06,0.208
1.060E-06,0.140
1.070E-06,-0.040
1.080E-06,-0.156
1.090E-06,-0.224
1.100E-06,-0.184
1.110E-06,0.000
1.120E-06,0.192
1.130E-06,0.252
1.140E-06,0.192
1.150E-06,0.016
1.160E-06,-0.144
1.170E-06,-0.196
1.180E-06,-0.132
1.190E-06,0.012
1.200E-06,0.132
1.210E-06,0.172
1.220E-06,0.108
1.230E-06,0.024
1.240E-06,-0.064
1.250E-06,-0.104
1.260E-06,-0.068
1.270E-06,0.012
1.280E-06,0.120
1.290E-06,0.160
1.300E-06,0.136
1.310E-06,0.056
1.320E-06,-0.032
1.330E-06,-0.084
1.340E-06,-0.040
1.350E-06,0.004
1.360E-06,0.072
1.370E-06,0.104
1.380E-06,0.096
1.390E-06,0.088
1.400E-06,0.068
1.410E-06,0.016
1.420E-06,-0.008
1.430E-06,-0.032
1.440E-06,-0.112
1.450E-06,-0.192
1.460E-06,-0.188
1.470E-06,-0.060
1.480E-06,0.012
1.490E-06,0.124
1.500E-06,0.152
1.510E-06,0.060
1.520E-06,-0.052
1.530E-06,-0.160
1.540E-06,-0.104
1.550E-06,-0.008
1.560E-06,0.092
1.570E-06,0.092
1.580E-06,0.056
1.590E-06,-0.072
1.600E-06,-0.104
1.610E-06,-0.040
1.620E-06,0.052
1.630E-06,0.140
1.640E-06,0.156
1.650E-06,0.148
1.660E-06,0.040
1.670E-06,-0.032
1.680E-06,-0.084
1.690E-06,-0.156
1.700E-06,-0.152
1.710E-06,-0.084
1.720E-06,0.000
1.730E-06,0.040
1.740E-06,0.120
1.750E-06,0.124
1.760E-06,0.052
1.770E-06,-0.040
1.780E-06,-0.104
1.790E-06,-0.104
1.800E-06,-0.072
1.810E-06,0.020
1.820E-06,0.100
1.830E-06,0.120
1.840E-06,0.072
1.850E-06,0.028
1.860E-06,-0.024
1.870E-06,-0.036
1.880E-06,-0.008
1.890E-06,0.056
1.900E-06,0.108
1.910E-06,0.100
1.920E-06,0.076
1.930E-06,0.032
1.940E-06,0.036
1.950E-06,0.056
1.960E-06,0.104
1.970E-06,0.128
1.980E-06,0.124
1.990E-06,0.056
2.000E-06,-0.052
2.010E-06,-0.128
2.020E-06,-0.128
2.030E-06,-0.048
2.040E-06,0.056
2.050E-06,0.096
2.060E-06,0.076
2.070E-06,0.008
2.080E-06,-0.064
2.090E-06,-0.068
2.100E-06,-0.020
2.110E-06,0.072
2.120E-06,0.152
2.130E-06,0.160
2.140E-06,0.008
2.150E-06,-0.204
2.160E-06,-0.340
2.170E-06,-0.272
2.180E-06,-0.024
2.190E-06,0.224
2.200E-06,0.396
2.210E-06,0.416
2.220E-06,0.232
2.230E-06,-0.048
2.240E-06,-0.196
2.250E-06,-0.180
2.260E-06,0.016
2.270E-06,0.204
2.280E-06,0.264
2.290E-06,0.104
2.300E-06,-0.108
2.310E-06,-0.224
2.320E-06,-0.172
2.330E-06,-0.036
2.340E-06,0.128
2.350E-06,0.232
2.360E-06,0.220
2.370E-06,0.144
2.380E-06,-0.024
2.390E-06,-0.512
2.400E-06,-0.512
2.410E-06,-0.512
2.420E-06,-0.108
2.430E-06,0.460
2.440E-06,0.540
2.450E-06,0.392
2.460E-06,-0.220
2.470E-06,-0.512
2.480E-06,-0.512
2.490E-06,-0.252
2.500E-06,0.184
2.510E-06,0.432
2.520E-06,0.288
2.530E-06,0.144
2.540E-06,-0.100
2.550E-06,-0.144
2.560E-06,-0.140
2.570E-06,-0.104
2.580E-06,-0.044
2.590E-06,0.020
2.600E-06,0.104
2.610E-06,0.152
2.620E-06,0.164
2.630E-06,0.020
2.640E-06,-0.064
2.650E-06,-0.124
2.660E-06,-0.052
2.670E-06,0.028
2.680E-06,0.104
2.690E-06,0.104
2.700E-06,0.088
2.710E-06,0.092
2.720E-06,0.088
2.730E-06,0.064
2.740E-06,-0.004
2.750E-06,-0.020
2.760E-06,-0.004
2.770E-06,0.088
2.780E-06,0.160
2.790E-06,0.196
2.800E-06,0.180
2.810E-06,0.124
2.820E-06,0.044
2.830E-06,-0.028
2.840E-06,-0.248
2.850E-06,-0.400
2.860E-06,-0.508
2.870E-06,-0.508
2.880E-06,-0.052
2.890E-06,0.376
2.900E-06,0.540
2.910E-06,0.400
2.920E-06,-0.020
2.930E-06,-0.380
2.940E-06,-0.408
2.950E-06,-0.136
2.960E-06,0.220
2.970E-06,0.404
2.980E-06,0.348
2.990E-06,0.096
3.000E-06,-0.136
3.010E-06,-0.356
3.020E-06,-0.404
3.030E-06,-0.232
3.040E-06,-0.004
3.050E-06,0.180
3.060E-06,0.292
3.070E-06,0.224
3.080E-06,0.000
3.090E-06,-0.200
3.100E-06,-0.260
3.110E-06,-0.104
3.120E-06,0.116
3.130E-06,0.268
3.140E-06,0.256
3.150E-06,0.104
3.160E-06,-0.088
3.170E-06,-0.152
3.180E-06,-0.084
3.190E-06,0.076
3.200E-06,0.212
3.210E-06,0.264
3.220E-06,0.128
3.230E-06,-0.128
