mediciones/5-15/14.9/WaveData47305.csv

#timebase=2000000(ps)
,#voltbase=100000(mv/100)
#size=4000
-8.400E-06,0.012
-8.390E-06,0.004
-8.380E-06,0.000
-8.370E-06,-0.004
-8.360E-06,-0.016
-8.350E-06,0.008
-8.340E-06,0.016
-8.330E-06,0.020
-8.320E-06,0.008
-8.310E-06,0.016
-8.300E-06,-0.004
-8.290E-06,-0.008
-8.280E-06,-0.008
-8.270E-06,0.000
-8.260E-06,0.016
-8.250E-06,0.020
-8.240E-06,0.020
-8.230E-06,0.008
-8.220E-06,0.000
-8.210E-06,-0.008
-8.200E-06,-0.008
-8.190E-06,-0.008
-8.180E-06,0.012
-8.170E-06,0.016
-8.160E-06,0.016
-8.150E-06,0.012
-8.140E-06,0.008
-8.130E-06,0.000
-8.120E-06,-0.004
-8.110E-06,-0.004
-8.100E-06,-0.004
-8.090E-06,0.008
-8.080E-06,0.012
-8.070E-06,0.016
-8.060E-06,0.012
-8.050E-06,0.008
-8.040E-06,0.004
-8.030E-06,0.004
-8.020E-06,0.004
-8.010E-06,-0.004
-8.000E-06,0.004
-7.990E-06,0.008
-7.980E-06,0.008
-7.970E-06,0.012
-7.960E-06,0.016
-7.950E-06,0.004
-7.940E-06,0.012
-7.930E-06,0.000
-7.920E-06,-0.064
-7.910E-06,-0.052
-7.900E-06,-0.016
-7.890E-06,0.016
-7.880E-06,0.036
-7.870E-06,0.072
-7.860E-06,0.044
-7.850E-06,0.000
-7.840E-06,-0.036
-7.830E-06,-0.072
-7.820E-06,-0.040
-7.810E-06,0.012
-7.800E-06,0.068
-7.790E-06,0.068
-7.780E-06,0.044
-7.770E-06,-0.020
-7.760E-06,-0.052
-7.750E-06,-0.060
-7.740E-06,-0.020
-7.730E-06,0.020
-7.720E-06,0.056
-7.710E-06,0.056
-7.700E-06,0.024
-7.690E-06,-0.004
-7.680E-06,-0.040
-7.670E-06,-0.028
-7.660E-06,-0.016
-7.650E-06,0.008
-7.640E-06,0.020
-7.630E-06,0.032
-7.620E-06,0.028
-7.610E-06,0.008
-7.600E-06,-0.004
-7.590E-06,-0.020
-7.580E-06,-0.020
-7.570E-06,-0.008
-7.560E-06,0.016
-7.550E-06,0.024
-7.540E-06,0.028
-7.530E-06,0.012
-7.520E-06,0.000
-7.510E-06,-0.012
-7.500E-06,-0.012
-7.490E-06,0.008
-7.480E-06,0.028
-7.470E-06,0.036
-7.460E-06,0.016
-7.450E-06,-0.004
-7.440E-06,-0.060
-7.430E-06,-0.048
-7.420E-06,-0.036
-7.410E-06,0.000
-7.400E-06,0.036
-7.390E-06,0.088
-7.380E-06,0.088
-7.370E-06,0.004
-7.360E-06,-0.060
-7.350E-06,-0.112
-7.340E-06,-0.084
-7.330E-06,-0.004
-7.320E-06,0.096
-7.310E-06,0.124
-7.300E-06,0.076
-7.290E-06,0.004
-7.280E-06,-0.092
-7.270E-06,-0.120
-7.260E-06,-0.056
-7.250E-06,0.024
-7.240E-06,0.088
-7.230E-06,0.120
-7.220E-06,0.060
-7.210E-06,-0.012
-7.200E-06,-0.080
-7.190E-06,-0.100
-7.180E-06,-0.052
-7.170E-06,0.016
-7.160E-06,0.088
-7.150E-06,0.092
-7.140E-06,0.060
-7.130E-06,0.000
-7.120E-06,-0.068
-7.110E-06,-0.076
-7.100E-06,-0.040
-7.090E-06,-0.012
-7.080E-06,0.036
-7.070E-06,0.060
-7.060E-06,0.068
-7.050E-06,0.020
-7.040E-06,-0.020
-7.030E-06,-0.044
-7.020E-06,-0.060
-7.010E-06,-0.028
-7.000E-06,0.004
-6.990E-06,0.028
-6.980E-06,0.040
-6.970E-06,0.040
-6.960E-06,0.032
-6.950E-06,-0.008
-6.940E-06,-0.040
-6.930E-06,-0.044
-6.920E-06,-0.032
-6.910E-06,0.020
-6.900E-06,0.056
-6.890E-06,0.064
-6.880E-06,0.036
-6.870E-06,0.000
-6.860E-06,-0.044
-6.850E-06,-0.040
-6.840E-06,-0.028
-6.830E-06,0.004
-6.820E-06,0.032
-6.810E-06,0.040
-6.800E-06,0.016
-6.790E-06,0.004
-6.780E-06,-0.012
-6.770E-06,-0.020
-6.760E-06,-0.008
-6.750E-06,0.000
-6.740E-06,0.020
-6.730E-06,0.016
-6.720E-06,0.020
-6.710E-06,0.004
-6.700E-06,-0.004
-6.690E-06,-0.012
-6.680E-06,-0.008
-6.670E-06,0.000
-6.660E-06,0.020
-6.650E-06,0.032
-6.640E-06,0.028
-6.630E-06,0.012
-6.620E-06,-0.012
-6.610E-06,-0.016
-6.600E-06,0.000
-6.590E-06,0.020
-6.580E-06,0.048
-6.570E-06,0.040
-6.560E-06,0.020
-6.550E-06,0.000
-6.540E-06,-0.032
-6.530E-06,-0.036
-6.520E-06,-0.004
-6.510E-06,0.036
-6.500E-06,0.064
-6.490E-06,0.072
-6.480E-06,0.028
-6.470E-06,-0.020
-6.460E-06,-0.084
-6.450E-06,-0.100
-6.440E-06,-0.056
-6.430E-06,-0.012
-6.420E-06,0.072
-6.410E-06,0.076
-6.400E-06,0.060
-6.390E-06,0.024
-6.380E-06,-0.004
-6.370E-06,-0.076
-6.360E-06,-0.100
-6.350E-06,-0.044
-6.340E-06,0.024
-6.330E-06,0.072
-6.320E-06,0.124
-6.310E-06,0.072
-6.300E-06,-0.016
-6.290E-06,-0.076
-6.280E-06,-0.084
-6.270E-06,-0.060
-6.260E-06,-0.008
-6.250E-06,0.076
-6.240E-06,0.092
-6.230E-06,0.060
-6.220E-06,0.000
-6.210E-06,-0.084
-6.200E-06,-0.120
-6.190E-06,-0.084
-6.180E-06,0.000
-6.170E-06,0.084
-6.160E-06,0.124
-6.150E-06,0.092
-6.140E-06,0.028
-6.130E-06,-0.044
-6.120E-06,-0.104
-6.110E-06,-0.104
-6.100E-06,-0.028
-6.090E-06,0.064
-6.080E-06,0.132
-6.070E-06,0.112
-6.060E-06,0.032
-6.050E-06,-0.068
-6.040E-06,-0.128
-6.030E-06,-0.100
-6.020E-06,-0.024
-6.010E-06,0.068
-6.000E-06,0.128
-5.990E-06,0.108
-5.980E-06,0.028
-5.970E-06,-0.068
-5.960E-06,-0.104
-5.950E-06,-0.072
-5.940E-06,0.008
-5.930E-06,0.088
-5.920E-06,0.120
-5.910E-06,0.088
-5.900E-06,-0.020
-5.890E-06,-0.108
-5.880E-06,-0.104
-5.870E-06,-0.064
-5.860E-06,-0.032
-5.850E-06,0.088
-5.840E-06,0.136
-5.830E-06,0.148
-5.820E-06,0.044
-5.810E-06,-0.040
-5.800E-06,-0.168
-5.790E-06,-0.144
-5.780E-06,-0.048
-5.770E-06,0.032
-5.760E-06,0.100
-5.750E-06,0.124
-5.740E-06,0.064
-5.730E-06,-0.044
-5.720E-06,-0.040
-5.710E-06,-0.072
-5.700E-06,-0.084
-5.690E-06,-0.020
-5.680E-06,0.084
-5.670E-06,0.112
-5.660E-06,0.104
-5.650E-06,0.040
-5.640E-06,-0.052
-5.630E-06,-0.144
-5.620E-06,-0.152
-5.610E-06,-0.040
-5.600E-06,0.064
-5.590E-06,0.132
-5.580E-06,0.144
-5.570E-06,0.060
-5.560E-06,-0.052
-5.550E-06,-0.116
-5.540E-06,-0.144
-5.530E-06,-0.060
-5.520E-06,0.076
-5.510E-06,0.152
-5.500E-06,0.120
-5.490E-06,0.032
-5.480E-06,-0.056
-5.470E-06,-0.112
-5.460E-06,-0.076
-5.450E-06,-0.004
-5.440E-06,0.064
-5.430E-06,0.080
-5.420E-06,0.072
-5.410E-06,0.008
-5.400E-06,-0.036
-5.390E-06,-0.060
-5.380E-06,-0.052
-5.370E-06,-0.024
-5.360E-06,0.012
-5.350E-06,0.048
-5.340E-06,0.060
-5.330E-06,0.044
-5.320E-06,0.012
-5.310E-06,-0.040
-5.300E-06,-0.056
-5.290E-06,-0.040
-5.280E-06,-0.016
-5.270E-06,0.024
-5.260E-06,0.072
-5.250E-06,0.068
-5.240E-06,0.016
-5.230E-06,-0.032
-5.220E-06,-0.060
-5.210E-06,-0.044
-5.200E-06,-0.004
-5.190E-06,0.052
-5.180E-06,0.072
-5.170E-06,0.044
-5.160E-06,0.004
-5.150E-06,-0.036
-5.140E-06,-0.048
-5.130E-06,-0.032
-5.120E-06,0.012
-5.110E-06,0.052
-5.100E-06,0.060
-5.090E-06,0.040
-5.080E-06,0.000
-5.070E-06,-0.020
-5.060E-06,-0.032
-5.050E-06,-0.016
-5.040E-06,0.008
-5.030E-06,0.044
-5.020E-06,0.060
-5.010E-06,0.056
-5.000E-06,0.032
-4.990E-06,0.008
-4.980E-06,-0.008
-4.970E-06,0.004
-4.960E-06,0.016
-4.950E-06,0.048
-4.940E-06,0.072
-4.930E-06,0.072
-4.920E-06,0.048
-4.910E-06,-0.012
-4.900E-06,-0.240
-4.890E-06,-0.312
-4.880E-06,-0.184
-4.870E-06,-0.012
-4.860E-06,0.212
-4.850E-06,0.332
-4.840E-06,0.264
-4.830E-06,0.032
-4.820E-06,-0.136
-4.810E-06,-0.268
-4.800E-06,-0.268
-4.790E-06,-0.104
-4.780E-06,0.128
-4.770E-06,0.236
-4.760E-06,0.272
-4.750E-06,0.124
-4.740E-06,-0.112
-4.730E-06,-0.240
-4.720E-06,-0.236
-4.710E-06,-0.064
-4.700E-06,0.132
-4.690E-06,0.260
-4.680E-06,0.224
-4.670E-06,0.092
-4.660E-06,-0.104
-4.650E-06,-0.212
-4.640E-06,-0.180
-4.630E-06,-0.076
-4.620E-06,0.056
-4.610E-06,0.156
-4.600E-06,0.148
-4.590E-06,0.064
-4.580E-06,-0.020
-4.570E-06,-0.092
-4.560E-06,-0.116
-4.550E-06,-0.072
-4.540E-06,0.000
-4.530E-06,0.076
-4.520E-06,0.128
-4.510E-06,0.112
-4.500E-06,0.040
-4.490E-06,-0.044
-4.480E-06,-0.096
-4.470E-06,-0.088
-4.460E-06,-0.032
-4.450E-06,0.060
-4.440E-06,0.096
-4.430E-06,0.088
-4.420E-06,0.040
-4.410E-06,-0.004
-4.400E-06,-0.040
-4.390E-06,-0.020
-4.380E-06,0.008
-4.370E-06,0.060
-4.360E-06,0.088
-4.350E-06,0.096
-4.340E-06,0.080
-4.330E-06,-0.012
-4.320E-06,-0.044
-4.310E-06,-0.060
-4.300E-06,-0.056
-4.290E-06,-0.060
-4.280E-06,0.000
-4.270E-06,0.032
-4.260E-06,0.028
-4.250E-06,-0.004
-4.240E-06,-0.020
-4.230E-06,-0.040
-4.220E-06,-0.004
-4.210E-06,-0.052
-4.200E-06,-0.060
-4.190E-06,-0.028
-4.180E-06,0.056
-4.170E-06,0.144
-4.160E-06,0.040
-4.150E-06,-0.008
-4.140E-06,-0.184
-4.130E-06,-0.200
-4.120E-06,-0.052
-4.110E-06,0.196
-4.100E-06,0.316
-4.090E-06,0.160
-4.080E-06,-0.020
-4.070E-06,-0.256
-4.060E-06,-0.284
-4.050E-06,-0.152
-4.040E-06,0.080
-4.030E-06,0.200
-4.020E-06,0.288
-4.010E-06,0.144
-4.000E-06,-0.076
-3.990E-06,-0.216
-3.980E-06,-0.212
-3.970E-06,-0.044
-3.960E-06,0.128
-3.950E-06,0.236
-3.940E-06,0.100
-3.930E-06,-0.040
-3.920E-06,-0.184
-3.910E-06,-0.176
-3.900E-06,-0.060
-3.890E-06,0.112
-3.880E-06,0.172
-3.870E-06,0.100
-3.860E-06,0.008
-3.850E-06,-0.092
-3.840E-06,-0.092
-3.830E-06,-0.036
-3.820E-06,0.040
-3.810E-06,0.052
-3.800E-06,0.044
-3.790E-06,0.008
-3.780E-06,-0.012
-3.770E-06,-0.020
-3.760E-06,-0.020
-3.750E-06,-0.008
-3.740E-06,-0.004
-3.730E-06,0.020
-3.720E-06,0.024
-3.710E-06,0.032
-3.700E-06,-0.004
-3.690E-06,-0.028
-3.680E-06,-0.040
-3.670E-06,-0.020
-3.660E-06,0.008
-3.650E-06,0.052
-3.640E-06,0.064
-3.630E-06,0.044
-3.620E-06,0.000
-3.610E-06,-0.052
-3.600E-06,-0.052
-3.590E-06,-0.020
-3.580E-06,0.040
-3.570E-06,0.088
-3.560E-06,0.092
-3.550E-06,0.052
-3.540E-06,0.004
-3.530E-06,-0.024
-3.520E-06,-0.016
-3.510E-06,0.024
-3.500E-06,0.088
-3.490E-06,0.128
-3.480E-06,0.032
-3.470E-06,-0.100
-3.460E-06,-0.188
-3.450E-06,-0.164
-3.440E-06,-0.052
-3.430E-06,0.148
-3.420E-06,0.248
-3.410E-06,0.176
-3.400E-06,-0.056
-3.390E-06,-0.148
-3.380E-06,-0.188
-3.370E-06,-0.132
-3.360E-06,0.088
-3.350E-06,0.260
-3.340E-06,0.208
-3.330E-06,0.036
-3.320E-06,-0.164
-3.310E-06,-0.176
-3.300E-06,-0.088
-3.290E-06,0.012
-3.280E-06,0.024
-3.270E-06,0.076
-3.260E-06,0.048
-3.250E-06,-0.044
-3.240E-06,-0.068
-3.230E-06,-0.056
-3.220E-06,0.100
-3.210E-06,0.160
-3.200E-06,0.124
-3.190E-06,-0.240
-3.180E-06,-0.336
-3.170E-06,-0.180
-3.160E-06,0.108
-3.150E-06,0.192
-3.140E-06,0.260
-3.130E-06,0.172
-3.120E-06,-0.036
-3.110E-06,-0.188
-3.100E-06,-0.280
-3.090E-06,-0.128
-3.080E-06,0.076
-3.070E-06,0.240
-3.060E-06,0.220
-3.050E-06,0.088
-3.040E-06,-0.116
-3.030E-06,-0.168
-3.020E-06,-0.136
-3.010E-06,-0.040
-3.000E-06,0.060
-2.990E-06,0.124
-2.980E-06,0.140
-2.970E-06,0.076
-2.960E-06,0.000
-2.950E-06,-0.104
-2.940E-06,-0.140
-2.930E-06,-0.100
-2.920E-06,0.008
-2.910E-06,0.112
-2.900E-06,0.160
-2.890E-06,0.116
-2.880E-06,0.008
-2.870E-06,-0.076
-2.860E-06,-0.132
-2.850E-06,-0.092
-2.840E-06,-0.008
-2.830E-06,0.096
-2.820E-06,0.140
-2.810E-06,0.108
-2.800E-06,0.016
-2.790E-06,-0.072
-2.780E-06,-0.108
-2.770E-06,-0.072
-2.760E-06,-0.016
-2.750E-06,0.040
-2.740E-06,0.080
-2.730E-06,0.072
-2.720E-06,0.032
-2.710E-06,-0.008
-2.700E-06,-0.040
-2.690E-06,-0.040
-2.680E-06,-0.012
-2.670E-06,0.032
-2.660E-06,0.080
-2.650E-06,0.096
-2.640E-06,0.072
-2.630E-06,0.020
-2.620E-06,-0.036
-2.610E-06,-0.052
-2.600E-06,-0.028
-2.590E-06,0.040
-2.580E-06,0.096
-2.570E-06,0.124
-2.560E-06,0.088
-2.550E-06,0.028
-2.540E-06,-0.028
-2.530E-06,-0.040
-2.520E-06,-0.012
-2.510E-06,0.064
-2.500E-06,0.084
-2.490E-06,0.040
-2.480E-06,-0.076
-2.470E-06,-0.244
-2.460E-06,-0.364
-2.450E-06,-0.208
-2.440E-06,-0.056
-2.430E-06,0.220
-2.420E-06,0.440
-2.410E-06,0.388
-2.400E-06,0.088
-2.390E-06,-0.280
-2.380E-06,-0.376
-2.370E-06,-0.248
-2.360E-06,0.068
-2.350E-06,0.316
-2.340E-06,0.352
-2.330E-06,0.168
-2.320E-06,-0.140
-2.310E-06,-0.384
-2.300E-06,-0.348
-2.290E-06,-0.092
-2.280E-06,0.188
-2.270E-06,0.368
-2.260E-06,0.296
-2.250E-06,0.060
-2.240E-06,-0.232
-2.230E-06,-0.288
-2.220E-06,-0.100
-2.210E-06,0.020
-2.200E-06,0.192
-2.190E-06,0.084
-2.180E-06,-0.072
-2.170E-06,-0.120
-2.160E-06,0.008
-2.150E-06,0.072
-2.140E-06,-0.036
-2.130E-06,-0.060
-2.120E-06,-0.036
-2.110E-06,0.032
-2.100E-06,0.080
-2.090E-06,0.104
-2.080E-06,0.000
-2.070E-06,-0.060
-2.060E-06,-0.088
-2.050E-06,-0.040
-2.040E-06,0.036
-2.030E-06,0.100
-2.020E-06,0.132
-2.010E-06,0.080
-2.000E-06,0.028
-1.990E-06,-0.036
-1.980E-06,-0.052
-1.970E-06,-0.052
-1.960E-06,-0.008
-1.950E-06,0.012
-1.940E-06,0.024
-1.930E-06,0.032
-1.920E-06,0.008
-1.910E-06,-0.028
-1.900E-06,-0.036
-1.890E-06,-0.020
-1.880E-06,-0.004
-1.870E-06,0.028
-1.860E-06,0.036
-1.850E-06,0.032
-1.840E-06,0.000
-1.830E-06,-0.012
-1.820E-06,-0.012
-1.810E-06,-0.024
-1.800E-06,-0.012
-1.790E-06,-0.004
-1.780E-06,0.004
-1.770E-06,0.020
-1.760E-06,0.020
-1.750E-06,0.008
-1.740E-06,0.012
-1.730E-06,0.008
-1.720E-06,0.008
-1.710E-06,0.012
-1.700E-06,0.008
-1.690E-06,0.008
-1.680E-06,0.008
-1.670E-06,0.000
-1.660E-06,0.008
-1.650E-06,0.028
-1.640E-06,0.044
-1.630E-06,0.052
-1.620E-06,0.036
-1.610E-06,0.024
-1.600E-06,0.012
-1.590E-06,0.012
-1.580E-06,0.032
-1.570E-06,0.040
-1.560E-06,0.064
-1.550E-06,-0.008
-1.540E-06,-0.064
-1.530E-06,-0.056
-1.520E-06,0.012
-1.510E-06,0.048
-1.500E-06,0.016
-1.490E-06,-0.004
-1.480E-06,-0.076
-1.470E-06,-0.056
-1.460E-06,0.016
-1.450E-06,0.000
-1.440E-06,-0.064
-1.430E-06,-0.088
-1.420E-06,-0.088
-1.410E-06,-0.060
-1.400E-06,0.072
-1.390E-06,0.092
-1.380E-06,0.064
-1.370E-06,-0.004
-1.360E-06,-0.072
-1.350E-06,-0.092
-1.340E-06,-0.036
-1.330E-06,0.032
-1.320E-06,0.056
-1.310E-06,0.060
-1.300E-06,0.012
-1.290E-06,-0.008
-1.280E-06,-0.008
-1.270E-06,0.024
-1.260E-06,0.036
-1.250E-06,0.048
-1.240E-06,0.040
-1.230E-06,0.040
-1.220E-06,0.012
-1.210E-06,-0.020
-1.200E-06,-0.072
-1.190E-06,-0.076
-1.180E-06,-0.036
-1.170E-06,0.016
-1.160E-06,0.056
-1.150E-06,0.032
-1.140E-06,0.020
-1.130E-06,-0.008
-1.120E-06,-0.024
-1.110E-06,-0.032
-1.100E-06,-0.012
-1.090E-06,-0.004
-1.080E-06,0.012
-1.070E-06,0.028
-1.060E-06,0.012
-1.050E-06,0.004
-1.040E-06,-0.012
-1.030E-06,-0.020
-1.020E-06,-0.012
-1.010E-06,0.004
-1.000E-06,0.012
-9.900E-07,0.024
-9.800E-07,0.024
-9.700E-07,0.008
-9.600E-07,-0.004
-9.500E-07,-0.008
-9.400E-07,0.000
-9.300E-07,0.012
-9.200E-07,0.032
-9.100E-07,0.036
-9.000E-07,0.036
-8.900E-07,0.020
-8.800E-07,0.024
-8.700E-07,0.020
-8.600E-07,0.036
-8.500E-07,0.044
-8.400E-07,0.052
-8.300E-07,0.056
-8.200E-07,0.076
-8.100E-07,-0.104
-8.000E-07,-0.164
-7.900E-07,-0.148
-7.800E-07,-0.108
-7.700E-07,-0.068
-7.600E-07,0.096
-7.500E-07,0.180
-7.400E-07,0.172
-7.300E-07,0.056
-7.200E-07,-0.140
-7.100E-07,-0.184
-7.000E-07,-0.124
-6.900E-07,0.040
-6.800E-07,0.124
-6.700E-07,0.152
-6.600E-07,0.044
-6.500E-07,-0.048
-6.400E-07,-0.104
-6.300E-07,-0.056
-6.200E-07,0.016
-6.100E-07,0.048
-6.000E-07,0.056
-5.900E-07,0.024
-5.800E-07,0.008
-5.700E-07,-0.012
-5.600E-07,-0.004
-5.500E-07,-0.016
-5.400E-07,0.004
-5.300E-07,0.012
-5.200E-07,0.028
-5.100E-07,0.036
-5.000E-07,0.024
-4.900E-07,0.004
-4.800E-07,-0.024
-4.700E-07,-0.016
-4.600E-07,-0.008
-4.500E-07,0.028
-4.400E-07,0.052
-4.300E-07,0.056
-4.200E-07,0.016
-4.100E-07,-0.024
-4.000E-07,-0.036
-3.900E-07,-0.016
-3.800E-07,0.016
-3.700E-07,0.036
-3.600E-07,0.040
-3.500E-07,0.020
-3.400E-07,0.000
-3.300E-07,-0.016
-3.200E-07,-0.008
-3.100E-07,0.008
-3.000E-07,0.028
-2.900E-07,0.040
-2.800E-07,0.032
-2.700E-07,0.024
-2.600E-07,-0.004
-2.500E-07,0.000
-2.400E-07,0.012
-2.300E-07,0.032
-2.200E-07,0.032
-2.100E-07,0.040
-2.000E-07,0.024
-1.900E-07,0.004
-1.800E-07,-0.012
-1.700E-07,-0.012
-1.600E-07,0.000
-1.500E-07,0.024
-1.400E-07,0.032
-1.300E-07,0.036
-1.200E-07,0.036
-1.100E-07,0.044
-1.000E-07,0.040
-9.000E-08,0.052
-8.000E-08,0.056
-7.000E-08,0.060
-6.000E-08,0.012
-5.000E-08,-0.368
-4.000E-08,-0.364
-3.000E-08,-0.416
-2.000E-08,-0.204
-1.000E-08,0.228
0.000E+00,0.544
1.000E-08,0.540
2.000E-08,0.132
3.000E-08,-0.224
4.000E-08,-0.500
5.000E-08,-0.440
6.000E-08,-0.128
7.000E-08,0.120
8.000E-08,0.156
9.000E-08,0.264
1.000E-07,0.224
1.100E-07,-0.008
1.200E-07,-0.208
1.300E-07,-0.284
1.400E-07,-0.172
1.500E-07,0.032
1.600E-07,0.260
1.700E-07,0.244
1.800E-07,0.132
1.900E-07,-0.076
2.000E-07,-0.192
2.100E-07,-0.200
2.200E-07,-0.068
2.300E-07,0.084
2.400E-07,0.184
2.500E-07,0.184
2.600E-07,0.064
2.700E-07,-0.060
2.800E-07,-0.144
2.900E-07,-0.120
3.000E-07,-0.060
3.100E-07,0.044
3.200E-07,0.104
3.300E-07,0.112
3.400E-07,0.056
3.500E-07,-0.020
3.600E-07,-0.068
3.700E-07,-0.076
3.800E-07,-0.012
3.900E-07,0.036
4.000E-07,0.092
4.100E-07,0.072
4.200E-07,0.036
4.300E-07,-0.028
4.400E-07,-0.056
4.500E-07,-0.044
4.600E-07,0.004
4.700E-07,0.084
4.800E-07,0.096
4.900E-07,0.060
5.000E-07,-0.008
5.100E-07,-0.068
5.200E-07,-0.080
5.300E-07,-0.024
5.400E-07,0.036
5.500E-07,0.096
5.600E-07,0.096
5.700E-07,0.056
5.800E-07,0.008
5.900E-07,-0.036
6.000E-07,-0.028
6.100E-07,0.004
6.200E-07,0.072
6.300E-07,0.116
6.400E-07,0.136
6.500E-07,0.116
6.600E-07,0.076
6.700E-07,0.028
6.800E-07,0.012
6.900E-07,0.032
7.000E-07,0.072
7.100E-07,0.124
7.200E-07,0.140
7.300E-07,0.092
7.400E-07,-0.008
7.500E-07,-0.156
7.600E-07,-0.276
7.700E-07,-0.400
7.800E-07,-0.276
7.900E-07,-0.128
8.000E-07,0.092
8.100E-07,0.284
8.200E-07,0.344
8.300E-07,0.208
8.400E-07,-0.196
8.500E-07,-0.388
8.600E-07,-0.344
8.700E-07,-0.032
8.800E-07,0.216
8.900E-07,0.392
9.000E-07,0.204
9.100E-07,-0.056
9.200E-07,-0.240
9.300E-07,-0.300
9.400E-07,-0.116
9.500E-07,0.080
9.600E-07,0.228
9.700E-07,0.188
9.800E-07,0.088
9.900E-07,-0.100
1.000E-06,-0.180
1.010E-06,-0.184
1.020E-06,-0.064
1.030E-06,0.084
1.040E-06,0.188
1.050E-06,0.196
1.060E-06,0.120
1.070E-06,0.004
1.080E-06,-0.124
1.090E-06,-0.140
1.100E-06,-0.072
1.110E-06,0.076
1.120E-06,0.156
1.130E-06,0.208
1.140E-06,0.164
1.150E-06,0.024
1.160E-06,-0.112
1.170E-06,-0.172
1.180E-06,-0.100
1.190E-06,-0.052
1.200E-06,0.020
1.210E-06,0.028
1.220E-06,0.036
1.230E-06,-0.060
1.240E-06,-0.072
1.250E-06,-0.032
1.260E-06,-0.028
1.270E-06,0.024
1.280E-06,0.056
1.290E-06,0.076
1.300E-06,0.000
1.310E-06,-0.040
1.320E-06,-0.088
1.330E-06,-0.068
1.340E-06,-0.052
1.350E-06,-0.004
1.360E-06,0.052
1.370E-06,0.072
1.380E-06,0.064
1.390E-06,0.000
1.400E-06,-0.044
1.410E-06,-0.084
1.420E-06,-0.052
1.430E-06,-0.004
1.440E-06,0.068
1.450E-06,0.072
1.460E-06,0.044
1.470E-06,0.004
1.480E-06,-0.036
1.490E-06,-0.032
1.500E-06,-0.012
1.510E-06,0.020
1.520E-06,0.048
1.530E-06,0.072
1.540E-06,0.060
1.550E-06,0.052
1.560E-06,0.020
1.570E-06,-0.020
1.580E-06,-0.040
1.590E-06,-0.036
1.600E-06,-0.016
1.610E-06,0.016
1.620E-06,0.048
1.630E-06,0.032
1.640E-06,0.008
1.650E-06,-0.008
1.660E-06,-0.020
1.670E-06,-0.008
1.680E-06,-0.004
1.690E-06,0.016
1.700E-06,0.020
1.710E-06,0.032
1.720E-06,0.036
1.730E-06,0.028
1.740E-06,0.016
1.750E-06,0.020
1.760E-06,0.024
1.770E-06,0.036
1.780E-06,0.052
1.790E-06,0.060
1.800E-06,0.064
1.810E-06,0.068
1.820E-06,0.064
1.830E-06,0.060
1.840E-06,0.080
1.850E-06,0.088
1.860E-06,0.108
1.870E-06,0.124
1.880E-06,0.112
1.890E-06,0.104
1.900E-06,0.108
1.910E-06,0.112
1.920E-06,0.112
1.930E-06,0.100
1.940E-06,0.076
1.950E-06,0.044
1.960E-06,0.012
1.970E-06,0.008
1.980E-06,0.024
1.990E-06,0.048
2.000E-06,0.068
2.010E-06,0.064
2.020E-06,0.048
2.030E-06,0.028
2.040E-06,0.016
2.050E-06,0.028
2.060E-06,0.044
2.070E-06,0.060
2.080E-06,0.080
2.090E-06,0.096
2.100E-06,0.100
2.110E-06,0.132
2.120E-06,0.172
2.130E-06,0.188
2.140E-06,0.188
2.150E-06,0.160
2.160E-06,-0.004
2.170E-06,-0.224
2.180E-06,-0.512
2.190E-06,-0.508
2.200E-06,-0.512
2.210E-06,-0.152
2.220E-06,0.512
2.230E-06,0.540
2.240E-06,0.540
2.250E-06,-0.052
2.260E-06,-0.512
2.270E-06,-0.508
2.280E-06,-0.512
2.290E-06,-0.020
2.300E-06,0.544
2.310E-06,0.540
2.320E-06,0.456
2.330E-06,-0.296
2.340E-06,-0.512
2.350E-06,-0.508
2.360E-06,-0.352
2.370E-06,0.136
2.380E-06,0.500
2.390E-06,0.540
2.400E-06,0.396
2.410E-06,0.040
2.420E-06,-0.340
2.430E-06,-0.508
2.440E-06,-0.412
2.450E-06,-0.092
2.460E-06,0.308
2.470E-06,0.524
2.480E-06,0.444
2.490E-06,0.124
2.500E-06,-0.240
2.510E-06,-0.424
2.520E-06,-0.352
2.530E-06,-0.076
2.540E-06,0.212
2.550E-06,0.384
2.560E-06,0.320
2.570E-06,0.132
2.580E-06,-0.092
2.590E-06,-0.232
2.600E-06,-0.268
2.610E-06,-0.124
2.620E-06,0.088
2.630E-06,0.248
2.640E-06,0.256
2.650E-06,0.132
2.660E-06,-0.044
2.670E-06,-0.184
2.680E-06,-0.160
2.690E-06,-0.064
2.700E-06,0.072
2.710E-06,0.160
2.720E-06,0.184
2.730E-06,0.128
2.740E-06,0.016
2.750E-06,-0.080
2.760E-06,-0.084
2.770E-06,-0.004
2.780E-06,0.092
2.790E-06,0.176
2.800E-06,0.208
2.810E-06,0.164
2.820E-06,0.076
2.830E-06,0.012
2.840E-06,-0.004
2.850E-06,0.024
2.860E-06,0.104
2.870E-06,0.184
2.880E-06,0.224
2.890E-06,0.212
2.900E-06,0.160
2.910E-06,0.124
2.920E-06,0.112
2.930E-06,0.096
2.940E-06,0.112
2.950E-06,0.144
2.960E-06,0.152
2.970E-06,0.108
2.980E-06,0.008
2.990E-06,-0.108
3.000E-06,-0.196
3.010E-06,-0.200
3.020E-06,-0.124
3.030E-06,-0.020
3.040E-06,0.044
3.050E-06,0.020
3.060E-06,-0.024
3.070E-06,-0.104
3.080E-06,-0.152
3.090E-06,-0.172
3.100E-06,-0.120
3.110E-06,-0.040
3.120E-06,0.044
3.130E-06,0.084
3.140E-06,0.008
3.150E-06,-0.040
3.160E-06,-0.096
3.170E-06,-0.060
3.180E-06,0.000
3.190E-06,0.056
3.200E-06,0.080
3.210E-06,0.068
3.220E-06,0.052
