mediciones/5-15/14.9/WaveData47336.csv

#timebase=2000000(ps)
,#voltbase=500000(mv/100)
#size=4000
-8.400E-06,0.080
-8.390E-06,0.060
-8.380E-06,0.040
-8.370E-06,0.080
-8.360E-06,0.040
-8.350E-06,0.040
-8.340E-06,0.060
-8.330E-06,0.060
-8.320E-06,0.060
-8.310E-06,0.040
-8.300E-06,0.040
-8.290E-06,0.060
-8.280E-06,0.060
-8.270E-06,0.060
-8.260E-06,0.040
-8.250E-06,0.060
-8.240E-06,0.060
-8.230E-06,0.060
-8.220E-06,0.080
-8.210E-06,0.040
-8.200E-06,0.040
-8.190E-06,0.040
-8.180E-06,0.060
-8.170E-06,0.060
-8.160E-06,0.040
-8.150E-06,0.060
-8.140E-06,0.060
-8.130E-06,0.040
-8.120E-06,0.040
-8.110E-06,0.040
-8.100E-06,0.080
-8.090E-06,0.040
-8.080E-06,0.040
-8.070E-06,0.040
-8.060E-06,0.060
-8.050E-06,0.040
-8.040E-06,0.060
-8.030E-06,0.040
-8.020E-06,0.020
-8.010E-06,0.060
-8.000E-06,0.060
-7.990E-06,0.060
-7.980E-06,0.060
-7.970E-06,0.040
-7.960E-06,0.080
-7.950E-06,0.040
-7.940E-06,0.080
-7.930E-06,0.080
-7.920E-06,0.080
-7.910E-06,0.020
-7.900E-06,0.040
-7.890E-06,0.060
-7.880E-06,0.060
-7.870E-06,0.040
-7.860E-06,0.080
-7.850E-06,0.060
-7.840E-06,0.060
-7.830E-06,0.040
-7.820E-06,0.020
-7.810E-06,0.060
-7.800E-06,0.080
-7.790E-06,0.040
-7.780E-06,0.060
-7.770E-06,0.060
-7.760E-06,0.060
-7.750E-06,0.080
-7.740E-06,0.040
-7.730E-06,0.060
-7.720E-06,0.060
-7.710E-06,0.060
-7.700E-06,0.040
-7.690E-06,0.080
-7.680E-06,0.060
-7.670E-06,0.020
-7.660E-06,0.040
-7.650E-06,0.060
-7.640E-06,0.060
-7.630E-06,0.060
-7.620E-06,0.080
-7.610E-06,0.040
-7.600E-06,0.080
-7.590E-06,0.020
-7.580E-06,0.060
-7.570E-06,0.080
-7.560E-06,0.060
-7.550E-06,0.040
-7.540E-06,0.060
-7.530E-06,0.080
-7.520E-06,0.040
-7.510E-06,0.060
-7.500E-06,0.080
-7.490E-06,0.040
-7.480E-06,0.020
-7.470E-06,0.060
-7.460E-06,0.060
-7.450E-06,0.060
-7.440E-06,0.080
-7.430E-06,0.020
-7.420E-06,0.040
-7.410E-06,0.080
-7.400E-06,0.040
-7.390E-06,0.020
-7.380E-06,0.040
-7.370E-06,0.060
-7.360E-06,0.060
-7.350E-06,0.040
-7.340E-06,0.060
-7.330E-06,0.080
-7.320E-06,0.040
-7.310E-06,0.040
-7.300E-06,0.060
-7.290E-06,0.040
-7.280E-06,0.060
-7.270E-06,0.080
-7.260E-06,0.060
-7.250E-06,0.040
-7.240E-06,0.040
-7.230E-06,0.080
-7.220E-06,0.060
-7.210E-06,0.040
-7.200E-06,0.040
-7.190E-06,0.060
-7.180E-06,0.040
-7.170E-06,0.060
-7.160E-06,0.080
-7.150E-06,0.080
-7.140E-06,0.060
-7.130E-06,0.060
-7.120E-06,0.060
-7.110E-06,0.040
-7.100E-06,0.060
-7.090E-06,0.060
-7.080E-06,0.040
-7.070E-06,0.080
-7.060E-06,0.080
-7.050E-06,0.040
-7.040E-06,0.040
-7.030E-06,0.080
-7.020E-06,0.060
-7.010E-06,0.060
-7.000E-06,0.080
-6.990E-06,0.040
-6.980E-06,0.080
-6.970E-06,0.040
-6.960E-06,0.020
-6.950E-06,0.040
-6.940E-06,0.020
-6.930E-06,0.040
-6.920E-06,0.060
-6.910E-06,0.080
-6.900E-06,0.020
-6.890E-06,0.040
-6.880E-06,0.060
-6.870E-06,0.040
-6.860E-06,0.020
-6.850E-06,0.040
-6.840E-06,0.060
-6.830E-06,0.040
-6.820E-06,0.060
-6.810E-06,0.060
-6.800E-06,0.060
-6.790E-06,0.040
-6.780E-06,0.020
-6.770E-06,0.040
-6.760E-06,0.040
-6.750E-06,0.060
-6.740E-06,0.080
-6.730E-06,0.040
-6.720E-06,0.060
-6.710E-06,0.080
-6.700E-06,0.060
-6.690E-06,0.040
-6.680E-06,0.060
-6.670E-06,0.080
-6.660E-06,0.040
-6.650E-06,0.060
-6.640E-06,0.020
-6.630E-06,0.040
-6.620E-06,0.040
-6.610E-06,0.040
-6.600E-06,0.060
-6.590E-06,0.060
-6.580E-06,0.060
-6.570E-06,0.060
-6.560E-06,0.060
-6.550E-06,0.040
-6.540E-06,0.080
-6.530E-06,0.060
-6.520E-06,0.040
-6.510E-06,0.060
-6.500E-06,0.060
-6.490E-06,0.060
-6.480E-06,0.080
-6.470E-06,0.060
-6.460E-06,0.080
-6.450E-06,0.080
-6.440E-06,0.020
-6.430E-06,0.060
-6.420E-06,0.060
-6.410E-06,0.040
-6.400E-06,0.080
-6.390E-06,0.060
-6.380E-06,0.020
-6.370E-06,0.020
-6.360E-06,0.040
-6.350E-06,0.040
-6.340E-06,0.060
-6.330E-06,0.060
-6.320E-06,0.040
-6.310E-06,0.060
-6.300E-06,0.040
-6.290E-06,0.060
-6.280E-06,0.040
-6.270E-06,0.060
-6.260E-06,0.080
-6.250E-06,0.060
-6.240E-06,0.040
-6.230E-06,0.020
-6.220E-06,0.060
-6.210E-06,0.040
-6.200E-06,0.040
-6.190E-06,0.020
-6.180E-06,0.040
-6.170E-06,0.040
-6.160E-06,0.060
-6.150E-06,0.040
-6.140E-06,0.040
-6.130E-06,0.040
-6.120E-06,0.040
-6.110E-06,0.040
-6.100E-06,0.060
-6.090E-06,0.040
-6.080E-06,0.060
-6.070E-06,0.040
-6.060E-06,0.040
-6.050E-06,0.000
-6.040E-06,0.020
-6.030E-06,0.040
-6.020E-06,0.080
-6.010E-06,0.040
-6.000E-06,0.040
-5.990E-06,0.080
-5.980E-06,0.080
-5.970E-06,0.060
-5.960E-06,0.080
-5.950E-06,0.080
-5.940E-06,0.080
-5.930E-06,0.060
-5.920E-06,0.020
-5.910E-06,0.040
-5.900E-06,0.060
-5.890E-06,0.040
-5.880E-06,0.040
-5.870E-06,0.020
-5.860E-06,0.020
-5.850E-06,0.020
-5.840E-06,0.020
-5.830E-06,0.040
-5.820E-06,0.060
-5.810E-06,0.060
-5.800E-06,0.060
-5.790E-06,0.040
-5.780E-06,0.020
-5.770E-06,0.020
-5.760E-06,0.040
-5.750E-06,0.040
-5.740E-06,0.020
-5.730E-06,0.020
-5.720E-06,0.020
-5.710E-06,0.020
-5.700E-06,0.000
-5.690E-06,0.020
-5.680E-06,0.000
-5.670E-06,0.000
-5.660E-06,-0.020
-5.650E-06,0.000
-5.640E-06,0.000
-5.630E-06,0.000
-5.620E-06,0.000
-5.610E-06,-0.020
-5.600E-06,-0.040
-5.590E-06,-0.040
-5.580E-06,-0.060
-5.570E-06,-0.040
-5.560E-06,-0.060
-5.550E-06,-0.060
-5.540E-06,-0.040
-5.530E-06,-0.060
-5.520E-06,-0.020
-5.510E-06,0.000
-5.500E-06,-0.020
-5.490E-06,0.000
-5.480E-06,0.000
-5.470E-06,-0.020
-5.460E-06,0.000
-5.450E-06,-0.020
-5.440E-06,0.000
-5.430E-06,0.000
-5.420E-06,0.000
-5.410E-06,0.000
-5.400E-06,0.000
-5.390E-06,0.000
-5.380E-06,0.000
-5.370E-06,0.000
-5.360E-06,0.000
-5.350E-06,0.000
-5.340E-06,0.000
-5.330E-06,-0.020
-5.320E-06,0.020
-5.310E-06,-0.040
-5.300E-06,-0.060
-5.290E-06,0.000
-5.280E-06,-0.020
-5.270E-06,-0.020
-5.260E-06,-0.020
-5.250E-06,-0.040
-5.240E-06,-0.040
-5.230E-06,-0.040
-5.220E-06,-0.080
-5.210E-06,-0.120
-5.200E-06,-0.140
-5.190E-06,-0.160
-5.180E-06,-0.120
-5.170E-06,-0.080
-5.160E-06,-0.100
-5.150E-06,-0.120
-5.140E-06,-0.100
-5.130E-06,-0.100
-5.120E-06,-0.060
-5.110E-06,-0.080
-5.100E-06,-0.080
-5.090E-06,-0.020
-5.080E-06,-0.040
-5.070E-06,0.000
-5.060E-06,-0.020
-5.050E-06,-0.040
-5.040E-06,0.000
-5.030E-06,0.140
-5.020E-06,0.200
-5.010E-06,0.180
-5.000E-06,0.120
-4.990E-06,0.020
-4.980E-06,-0.020
-4.970E-06,-0.020
-4.960E-06,-0.060
-4.950E-06,-0.040
-4.940E-06,-0.160
-4.930E-06,-0.260
-4.920E-06,-0.300
-4.910E-06,-0.300
-4.900E-06,-0.280
-4.890E-06,-0.200
-4.880E-06,-0.240
-4.870E-06,-0.240
-4.860E-06,-0.260
-4.850E-06,-0.260
-4.840E-06,-0.240
-4.830E-06,-0.160
-4.820E-06,-0.180
-4.810E-06,-0.140
-4.800E-06,-0.140
-4.790E-06,-0.160
-4.780E-06,-0.100
-4.770E-06,-0.060
-4.760E-06,-0.020
-4.750E-06,-0.020
-4.740E-06,-0.020
-4.730E-06,-0.020
-4.720E-06,0.000
-4.710E-06,0.040
-4.700E-06,0.040
-4.690E-06,0.100
-4.680E-06,0.040
-4.670E-06,-0.020
-4.660E-06,0.000
-4.650E-06,-0.020
-4.640E-06,0.000
-4.630E-06,-0.020
-4.620E-06,0.000
-4.610E-06,0.000
-4.600E-06,-0.040
-4.590E-06,-0.060
-4.580E-06,-0.080
-4.570E-06,-0.060
-4.560E-06,-0.080
-4.550E-06,-0.120
-4.540E-06,-0.140
-4.530E-06,-0.160
-4.520E-06,-0.180
-4.510E-06,-0.240
-4.500E-06,-0.260
-4.490E-06,-0.340
-4.480E-06,-0.340
-4.470E-06,-0.340
-4.460E-06,-0.440
-4.450E-06,-0.440
-4.440E-06,-0.480
-4.430E-06,-0.500
-4.420E-06,-0.500
-4.410E-06,-0.560
-4.400E-06,-0.560
-4.390E-06,-0.560
-4.380E-06,-0.520
-4.370E-06,-0.500
-4.360E-06,-0.500
-4.350E-06,-0.520
-4.340E-06,-0.540
-4.330E-06,-0.580
-4.320E-06,-0.580
-4.310E-06,-0.600
-4.300E-06,-0.600
-4.290E-06,-0.620
-4.280E-06,-0.660
-4.270E-06,-0.640
-4.260E-06,-0.660
-4.250E-06,-0.660
-4.240E-06,-0.640
-4.230E-06,-0.680
-4.220E-06,-0.680
-4.210E-06,-0.700
-4.200E-06,-0.740
-4.190E-06,-0.760
-4.180E-06,-0.760
-4.170E-06,-0.740
-4.160E-06,-0.740
-4.150E-06,-0.740
-4.140E-06,-0.760
-4.130E-06,-0.760
-4.120E-06,-0.720
-4.110E-06,-0.780
-4.100E-06,-0.780
-4.090E-06,-0.840
-4.080E-06,-0.860
-4.070E-06,-0.880
-4.060E-06,-0.860
-4.050E-06,-0.860
-4.040E-06,-0.860
-4.030E-06,-0.860
-4.020E-06,-0.840
-4.010E-06,-0.780
-4.000E-06,-0.720
-3.990E-06,-0.640
-3.980E-06,-0.600
-3.970E-06,-0.560
-3.960E-06,-0.560
-3.950E-06,-0.500
-3.940E-06,-0.500
-3.930E-06,-0.420
-3.920E-06,-0.420
-3.910E-06,-0.420
-3.900E-06,-0.400
-3.890E-06,-0.380
-3.880E-06,-0.360
-3.870E-06,-0.340
-3.860E-06,-0.240
-3.850E-06,-0.240
-3.840E-06,-0.240
-3.830E-06,-0.240
-3.820E-06,-0.220
-3.810E-06,-0.240
-3.800E-06,-0.220
-3.790E-06,-0.220
-3.780E-06,-0.180
-3.770E-06,-0.180
-3.760E-06,-0.220
-3.750E-06,-0.200
-3.740E-06,-0.180
-3.730E-06,-0.160
-3.720E-06,-0.180
-3.710E-06,-0.180
-3.700E-06,-0.160
-3.690E-06,-0.160
-3.680E-06,-0.180
-3.670E-06,-0.180
-3.660E-06,-0.160
-3.650E-06,-0.180
-3.640E-06,-0.180
-3.630E-06,-0.200
-3.620E-06,-0.240
-3.610E-06,-0.220
-3.600E-06,-0.220
-3.590E-06,-0.240
-3.580E-06,-0.240
-3.570E-06,-0.260
-3.560E-06,-0.280
-3.550E-06,-0.280
-3.540E-06,-0.300
-3.530E-06,-0.320
-3.520E-06,-0.340
-3.510E-06,-0.340
-3.500E-06,-0.400
-3.490E-06,-0.400
-3.480E-06,-0.380
-3.470E-06,-0.360
-3.460E-06,-0.300
-3.450E-06,-0.260
-3.440E-06,-0.240
-3.430E-06,-0.300
-3.420E-06,-0.360
-3.410E-06,-0.480
-3.400E-06,-0.500
-3.390E-06,-0.560
-3.380E-06,-0.560
-3.370E-06,-0.600
-3.360E-06,-0.620
-3.350E-06,-0.600
-3.340E-06,-0.600
-3.330E-06,-0.620
-3.320E-06,-0.680
-3.310E-06,-0.720
-3.300E-06,-0.800
-3.290E-06,-0.840
-3.280E-06,-0.840
-3.270E-06,-0.860
-3.260E-06,-0.920
-3.250E-06,-0.940
-3.240E-06,-0.980
-3.230E-06,-0.980
-3.220E-06,-1.020
-3.210E-06,-1.060
-3.200E-06,-1.100
-3.190E-06,-1.140
-3.180E-06,-1.160
-3.170E-06,-1.160
-3.160E-06,-1.180
-3.150E-06,-1.180
-3.140E-06,-1.200
-3.130E-06,-1.200
-3.120E-06,-1.180
-3.110E-06,-1.160
-3.100E-06,-1.120
-3.090E-06,-1.100
-3.080E-06,-1.040
-3.070E-06,-1.020
-3.060E-06,-1.000
-3.050E-06,-0.980
-3.040E-06,-0.980
-3.030E-06,-0.980
-3.020E-06,-1.040
-3.010E-06,-1.080
-3.000E-06,-1.140
-2.990E-06,-1.160
-2.980E-06,-1.200
-2.970E-06,-1.200
-2.960E-06,-1.180
-2.950E-06,-1.220
-2.940E-06,-1.240
-2.930E-06,-1.240
-2.920E-06,-1.180
-2.910E-06,-1.140
-2.900E-06,-1.080
-2.890E-06,-1.020
-2.880E-06,-0.980
-2.870E-06,-0.940
-2.860E-06,-0.920
-2.850E-06,-0.860
-2.840E-06,-0.840
-2.830E-06,-0.820
-2.820E-06,-0.800
-2.810E-06,-0.780
-2.800E-06,-0.760
-2.790E-06,-0.720
-2.780E-06,-0.680
-2.770E-06,-0.680
-2.760E-06,-0.660
-2.750E-06,-0.640
-2.740E-06,-0.620
-2.730E-06,-0.580
-2.720E-06,-0.540
-2.710E-06,-0.560
-2.700E-06,-0.500
-2.690E-06,-0.460
-2.680E-06,-0.440
-2.670E-06,-0.420
-2.660E-06,-0.380
-2.650E-06,-0.360
-2.640E-06,-0.360
-2.630E-06,-0.300
-2.620E-06,-0.280
-2.610E-06,-0.260
-2.600E-06,-0.260
-2.590E-06,-0.260
-2.580E-06,-0.260
-2.570E-06,-0.220
-2.560E-06,-0.260
-2.550E-06,-0.280
-2.540E-06,-0.300
-2.530E-06,-0.320
-2.520E-06,-0.340
-2.510E-06,-0.340
-2.500E-06,-0.380
-2.490E-06,-0.400
-2.480E-06,-0.440
-2.470E-06,-0.440
-2.460E-06,-0.480
-2.450E-06,-0.460
-2.440E-06,-0.460
-2.430E-06,-0.460
-2.420E-06,-0.460
-2.410E-06,-0.500
-2.400E-06,-0.500
-2.390E-06,-0.480
-2.380E-06,-0.500
-2.370E-06,-0.480
-2.360E-06,-0.480
-2.350E-06,-0.480
-2.340E-06,-0.500
-2.330E-06,-0.560
-2.320E-06,-0.580
-2.310E-06,-0.660
-2.300E-06,-0.720
-2.290E-06,-0.800
-2.280E-06,-0.880
-2.270E-06,-0.940
-2.260E-06,-0.980
-2.250E-06,-1.020
-2.240E-06,-1.100
-2.230E-06,-1.140
-2.220E-06,-1.180
-2.210E-06,-1.260
-2.200E-06,-1.300
-2.190E-06,-1.360
-2.180E-06,-1.400
-2.170E-06,-1.420
-2.160E-06,-1.460
-2.150E-06,-1.480
-2.140E-06,-1.480
-2.130E-06,-1.520
-2.120E-06,-1.620
-2.110E-06,-1.760
-2.100E-06,-1.940
-2.090E-06,-2.240
-2.080E-06,-2.440
-2.070E-06,-2.600
-2.060E-06,-2.660
-2.050E-06,-2.660
-2.040E-06,-2.640
-2.030E-06,-2.660
-2.020E-06,-2.660
-2.010E-06,-2.660
-2.000E-06,-2.660
-1.990E-06,-2.660
-1.980E-06,-2.660
-1.970E-06,-2.640
-1.960E-06,-2.640
-1.950E-06,-2.640
-1.940E-06,-2.640
-1.930E-06,-2.660
-1.920E-06,-2.660
-1.910E-06,-2.660
-1.900E-06,-2.660
-1.890E-06,-2.660
-1.880E-06,-2.660
-1.870E-06,-2.640
-1.860E-06,-2.660
-1.850E-06,-2.660
-1.840E-06,-2.660
-1.830E-06,-2.660
-1.820E-06,-2.660
-1.810E-06,-2.660
-1.800E-06,-2.660
-1.790E-06,-2.640
-1.780E-06,-2.660
-1.770E-06,-2.660
-1.760E-06,-2.680
-1.750E-06,-2.580
-1.740E-06,-2.460
-1.730E-06,-2.260
-1.720E-06,-2.060
-1.710E-06,-1.920
-1.700E-06,-1.860
-1.690E-06,-1.880
-1.680E-06,-2.020
-1.670E-06,-2.000
-1.660E-06,-2.060
-1.650E-06,-2.020
-1.640E-06,-1.920
-1.630E-06,-1.920
-1.620E-06,-1.860
-1.610E-06,-1.820
-1.600E-06,-1.780
-1.590E-06,-1.660
-1.580E-06,-1.560
-1.570E-06,-1.520
-1.560E-06,-1.560
-1.550E-06,-1.620
-1.540E-06,-1.680
-1.530E-06,-1.540
-1.520E-06,-1.660
-1.510E-06,-1.580
-1.500E-06,-1.660
-1.490E-06,-1.540
-1.480E-06,-1.520
-1.470E-06,-1.340
-1.460E-06,-1.360
-1.450E-06,-1.280
-1.440E-06,-1.340
-1.430E-06,-1.420
-1.420E-06,-1.440
-1.410E-06,-1.560
-1.400E-06,-1.600
-1.390E-06,-1.680
-1.380E-06,-1.780
-1.370E-06,-1.940
-1.360E-06,-1.960
-1.350E-06,-2.100
-1.340E-06,-2.060
-1.330E-06,-2.140
-1.320E-06,-2.080
-1.310E-06,-2.160
-1.300E-06,-2.160
-1.290E-06,-2.040
-1.280E-06,-2.020
-1.270E-06,-1.800
-1.260E-06,-1.860
-1.250E-06,-1.720
-1.240E-06,-1.660
-1.230E-06,-1.660
-1.220E-06,-1.580
-1.210E-06,-1.560
-1.200E-06,-1.560
-1.190E-06,-1.660
-1.180E-06,-1.580
-1.170E-06,-1.660
-1.160E-06,-1.620
-1.150E-06,-1.640
-1.140E-06,-1.680
-1.130E-06,-1.700
-1.120E-06,-1.640
-1.110E-06,-1.660
-1.100E-06,-1.660
-1.090E-06,-1.660
-1.080E-06,-1.700
-1.070E-06,-1.760
-1.060E-06,-1.780
-1.050E-06,-1.820
-1.040E-06,-1.820
-1.030E-06,-1.840
-1.020E-06,-1.840
-1.010E-06,-1.800
-1.000E-06,-1.740
-9.900E-07,-1.700
-9.800E-07,-1.680
-9.700E-07,-1.740
-9.600E-07,-1.700
-9.500E-07,-2.000
-9.400E-07,-2.380
-9.300E-07,-2.540
-9.200E-07,-2.640
-9.100E-07,-2.640
-9.000E-07,-2.640
-8.900E-07,-2.640
-8.800E-07,-2.560
-8.700E-07,-2.580
-8.600E-07,-2.540
-8.500E-07,-2.520
-8.400E-07,-2.620
-8.300E-07,-2.560
-8.200E-07,-2.600
-8.100E-07,-2.620
-8.000E-07,-2.660
-7.900E-07,-2.660
-7.800E-07,-2.660
-7.700E-07,-2.640
-7.600E-07,-2.640
-7.500E-07,-2.640
-7.400E-07,-2.640
-7.300E-07,-2.620
-7.200E-07,-2.640
-7.100E-07,-2.640
-7.000E-07,-2.620
-6.900E-07,-2.580
-6.800E-07,-2.520
-6.700E-07,-2.520
-6.600E-07,-2.460
-6.500E-07,-2.360
-6.400E-07,-2.260
-6.300E-07,-2.100
-6.200E-07,-1.960
-6.100E-07,-1.860
-6.000E-07,-1.860
-5.900E-07,-1.720
-5.800E-07,-1.740
-5.700E-07,-1.620
-5.600E-07,-1.660
-5.500E-07,-1.600
-5.400E-07,-1.760
-5.300E-07,-1.660
-5.200E-07,-1.840
-5.100E-07,-1.720
-5.000E-07,-1.860
-4.900E-07,-1.880
-4.800E-07,-2.000
-4.700E-07,-2.040
-4.600E-07,-2.100
-4.500E-07,-2.060
-4.400E-07,-2.160
-4.300E-07,-2.200
-4.200E-07,-2.200
-4.100E-07,-2.260
-4.000E-07,-2.340
-3.900E-07,-2.540
-3.800E-07,-2.640
-3.700E-07,-2.640
-3.600E-07,-2.640
-3.500E-07,-2.660
-3.400E-07,-2.660
-3.300E-07,-2.660
-3.200E-07,-2.660
-3.100E-07,-2.660
-3.000E-07,-2.660
-2.900E-07,-2.660
-2.800E-07,-2.660
-2.700E-07,-2.660
-2.600E-07,-2.660
-2.500E-07,-2.660
-2.400E-07,-2.640
-2.300E-07,-2.640
-2.200E-07,-2.640
-2.100E-07,-2.660
-2.000E-07,-2.660
-1.900E-07,-2.680
-1.800E-07,-2.660
-1.700E-07,-2.660
-1.600E-07,-2.660
-1.500E-07,-2.660
-1.400E-07,-2.660
-1.300E-07,-2.680
-1.200E-07,-2.680
-1.100E-07,-2.680
-1.000E-07,-2.680
-9.000E-08,-2.680
-8.000E-08,-2.660
-7.000E-08,-2.660
-6.000E-08,-2.660
-5.000E-08,-2.540
-4.000E-08,-1.620
-3.000E-08,-0.600
-2.000E-08,-0.560
-1.000E-08,-1.660
0.000E+00,-2.040
1.000E-08,-2.660
2.000E-08,-2.660
3.000E-08,-2.660
4.000E-08,-2.660
5.000E-08,-2.680
6.000E-08,-2.360
7.000E-08,-2.440
8.000E-08,-2.020
9.000E-08,-2.400
1.000E-07,-2.600
1.100E-07,-2.660
1.200E-07,-2.660
1.300E-07,-2.660
1.400E-07,-2.660
1.500E-07,-2.660
1.600E-07,-2.660
1.700E-07,-2.680
1.800E-07,-2.680
1.900E-07,-2.680
2.000E-07,-2.600
2.100E-07,-2.540
2.200E-07,-2.520
2.300E-07,-2.400
2.400E-07,-2.380
2.500E-07,-2.220
2.600E-07,-2.300
2.700E-07,-2.040
2.800E-07,-1.920
2.900E-07,-1.780
3.000E-07,-1.600
3.100E-07,-1.420
3.200E-07,-1.340
3.300E-07,-1.280
3.400E-07,-1.240
3.500E-07,-1.240
3.600E-07,-1.120
3.700E-07,-1.000
3.800E-07,-1.040
3.900E-07,-1.160
4.000E-07,-1.220
4.100E-07,-1.420
4.200E-07,-1.460
4.300E-07,-1.660
4.400E-07,-1.920
4.500E-07,-2.060
4.600E-07,-2.240
4.700E-07,-2.340
4.800E-07,-2.360
4.900E-07,-2.360
5.000E-07,-2.340
5.100E-07,-2.200
5.200E-07,-2.180
5.300E-07,-2.160
5.400E-07,-2.160
5.500E-07,-2.160
5.600E-07,-2.180
5.700E-07,-2.200
5.800E-07,-2.200
5.900E-07,-2.240
6.000E-07,-2.220
6.100E-07,-2.200
6.200E-07,-2.160
6.300E-07,-2.200
6.400E-07,-2.160
6.500E-07,-2.100
6.600E-07,-2.020
6.700E-07,-1.940
6.800E-07,-1.840
6.900E-07,-1.760
7.000E-07,-1.660
7.100E-07,-1.540
7.200E-07,-1.420
7.300E-07,-1.320
7.400E-07,-1.260
7.500E-07,-1.160
7.600E-07,-1.060
7.700E-07,-1.000
7.800E-07,-0.900
7.900E-07,-0.840
8.000E-07,-0.760
8.100E-07,-0.700
8.200E-07,-0.600
8.300E-07,-0.580
8.400E-07,-0.500
8.500E-07,-0.500
8.600E-07,-0.480
8.700E-07,-0.460
8.800E-07,-0.420
8.900E-07,-0.420
9.000E-07,-0.420
9.100E-07,-0.480
9.200E-07,-0.560
9.300E-07,-0.640
9.400E-07,-0.620
9.500E-07,-0.580
9.600E-07,-0.540
9.700E-07,-0.560
9.800E-07,-0.600
9.900E-07,-0.640
1.000E-06,-0.680
1.010E-06,-0.700
1.020E-06,-0.820
1.030E-06,-0.840
1.040E-06,-0.940
1.050E-06,-0.980
1.060E-06,-1.020
1.070E-06,-1.040
1.080E-06,-1.180
1.090E-06,-1.240
1.100E-06,-1.340
1.110E-06,-1.440
1.120E-06,-1.480
1.130E-06,-1.520
1.140E-06,-1.600
1.150E-06,-1.620
1.160E-06,-1.600
1.170E-06,-1.600
1.180E-06,-1.560
1.190E-06,-1.460
1.200E-06,-1.380
1.210E-06,-1.300
1.220E-06,-1.220
1.230E-06,-1.140
1.240E-06,-1.040
1.250E-06,-0.920
1.260E-06,-0.840
1.270E-06,-0.680
1.280E-06,-0.620
1.290E-06,-0.500
1.300E-06,-0.400
1.310E-06,-0.280
1.320E-06,-0.200
1.330E-06,-0.100
1.340E-06,-0.020
1.350E-06,0.080
1.360E-06,0.220
1.370E-06,0.260
1.380E-06,0.300
1.390E-06,0.320
1.400E-06,0.320
1.410E-06,0.300
1.420E-06,0.260
1.430E-06,0.240
1.440E-06,0.180
1.450E-06,0.120
1.460E-06,0.020
1.470E-06,-0.040
1.480E-06,-0.120
1.490E-06,-0.200
1.500E-06,-0.300
1.510E-06,-0.340
1.520E-06,-0.420
1.530E-06,-0.460
1.540E-06,-0.500
1.550E-06,-0.520
1.560E-06,-0.540
1.570E-06,-0.560
1.580E-06,-0.500
1.590E-06,-0.500
1.600E-06,-0.480
1.610E-06,-0.440
1.620E-06,-0.400
1.630E-06,-0.360
1.640E-06,-0.300
1.650E-06,-0.280
1.660E-06,-0.280
1.670E-06,-0.260
1.680E-06,-0.240
1.690E-06,-0.200
1.700E-06,-0.200
1.710E-06,-0.180
1.720E-06,-0.180
1.730E-06,-0.140
1.740E-06,-0.140
1.750E-06,-0.140
1.760E-06,-0.140
1.770E-06,-0.140
1.780E-06,-0.100
1.790E-06,-0.060
1.800E-06,0.000
1.810E-06,0.060
1.820E-06,0.100
1.830E-06,0.140
1.840E-06,0.180
1.850E-06,0.160
1.860E-06,0.180
1.870E-06,0.180
1.880E-06,0.120
1.890E-06,0.000
1.900E-06,-0.100
1.910E-06,-0.240
1.920E-06,-0.420
1.930E-06,-0.560
1.940E-06,-0.740
1.950E-06,-0.840
1.960E-06,-1.040
1.970E-06,-1.120
1.980E-06,-1.260
1.990E-06,-1.400
2.000E-06,-1.520
2.010E-06,-1.640
2.020E-06,-1.740
2.030E-06,-1.840
2.040E-06,-1.940
2.050E-06,-2.100
2.060E-06,-2.180
2.070E-06,-2.260
2.080E-06,-2.320
2.090E-06,-2.400
2.100E-06,-2.420
2.110E-06,-2.460
2.120E-06,-2.460
2.130E-06,-2.380
2.140E-06,-2.360
2.150E-06,-2.280
2.160E-06,-2.200
2.170E-06,-2.080
2.180E-06,-1.940
2.190E-06,-1.780
2.200E-06,-1.600
2.210E-06,-1.400
2.220E-06,-1.260
2.230E-06,-1.120
2.240E-06,-0.960
2.250E-06,-0.860
2.260E-06,-0.800
2.270E-06,-0.720
2.280E-06,-0.660
2.290E-06,-0.620
2.300E-06,-0.560
2.310E-06,-0.540
2.320E-06,-0.400
2.330E-06,-0.360
2.340E-06,-0.240
2.350E-06,-0.160
2.360E-06,0.000
2.370E-06,0.100
2.380E-06,0.240
2.390E-06,0.400
2.400E-06,0.480
2.410E-06,0.580
2.420E-06,0.660
2.430E-06,0.760
2.440E-06,0.800
2.450E-06,0.840
2.460E-06,0.860
2.470E-06,0.880
2.480E-06,0.900
2.490E-06,0.880
2.500E-06,0.860
2.510E-06,0.840
2.520E-06,0.800
2.530E-06,0.780
2.540E-06,0.760
2.550E-06,0.780
2.560E-06,0.820
2.570E-06,0.840
2.580E-06,0.840
2.590E-06,0.860
2.600E-06,0.880
2.610E-06,0.860
2.620E-06,0.900
2.630E-06,0.900
2.640E-06,0.920
2.650E-06,0.920
2.660E-06,0.860
2.670E-06,0.860
2.680E-06,0.840
2.690E-06,0.780
2.700E-06,0.780
2.710E-06,0.740
2.720E-06,0.660
2.730E-06,0.660
2.740E-06,0.620
2.750E-06,0.600
2.760E-06,0.560
2.770E-06,0.560
2.780E-06,0.500
2.790E-06,0.500
2.800E-06,0.460
2.810E-06,0.440
2.820E-06,0.420
2.830E-06,0.440
2.840E-06,0.420
2.850E-06,0.400
2.860E-06,0.440
2.870E-06,0.460
2.880E-06,0.520
2.890E-06,0.560
2.900E-06,0.580
2.910E-06,0.660
2.920E-06,0.720
2.930E-06,0.760
2.940E-06,0.800
2.950E-06,0.840
2.960E-06,0.880
2.970E-06,0.880
2.980E-06,0.900
2.990E-06,0.940
3.000E-06,0.940
3.010E-06,0.940
3.020E-06,0.960
3.030E-06,0.980
3.040E-06,0.980
3.050E-06,0.980
3.060E-06,0.940
