mediciones/5-15/14.9/WaveData47330.csv

#timebase=2000000(ps)
,#voltbase=500000(mv/100)
#size=4000
-8.400E-06,0.080
-8.390E-06,0.040
-8.380E-06,0.020
-8.370E-06,0.040
-8.360E-06,0.040
-8.350E-06,0.060
-8.340E-06,0.040
-8.330E-06,0.020
-8.320E-06,0.040
-8.310E-06,0.020
-8.300E-06,0.020
-8.290E-06,0.040
-8.280E-06,0.060
-8.270E-06,0.020
-8.260E-06,0.040
-8.250E-06,0.040
-8.240E-06,0.080
-8.230E-06,0.040
-8.220E-06,0.040
-8.210E-06,0.060
-8.200E-06,0.020
-8.190E-06,0.040
-8.180E-06,0.060
-8.170E-06,0.080
-8.160E-06,0.060
-8.150E-06,0.040
-8.140E-06,0.060
-8.130E-06,0.060
-8.120E-06,0.100
-8.110E-06,0.100
-8.100E-06,0.040
-8.090E-06,0.060
-8.080E-06,0.060
-8.070E-06,0.080
-8.060E-06,0.060
-8.050E-06,0.060
-8.040E-06,0.020
-8.030E-06,0.040
-8.020E-06,0.060
-8.010E-06,0.040
-8.000E-06,0.020
-7.990E-06,0.040
-7.980E-06,0.020
-7.970E-06,0.040
-7.960E-06,0.060
-7.950E-06,0.080
-7.940E-06,0.060
-7.930E-06,0.040
-7.920E-06,0.060
-7.910E-06,0.060
-7.900E-06,0.040
-7.890E-06,0.040
-7.880E-06,0.060
-7.870E-06,0.020
-7.860E-06,0.020
-7.850E-06,0.040
-7.840E-06,0.040
-7.830E-06,0.060
-7.820E-06,0.060
-7.810E-06,0.080
-7.800E-06,0.080
-7.790E-06,0.020
-7.780E-06,0.020
-7.770E-06,0.060
-7.760E-06,0.040
-7.750E-06,0.060
-7.740E-06,0.080
-7.730E-06,0.060
-7.720E-06,0.080
-7.710E-06,0.080
-7.700E-06,0.080
-7.690E-06,0.080
-7.680E-06,0.040
-7.670E-06,0.080
-7.660E-06,0.080
-7.650E-06,0.060
-7.640E-06,0.040
-7.630E-06,0.040
-7.620E-06,0.060
-7.610E-06,0.020
-7.600E-06,0.020
-7.590E-06,0.040
-7.580E-06,0.020
-7.570E-06,0.040
-7.560E-06,0.020
-7.550E-06,0.040
-7.540E-06,0.060
-7.530E-06,0.060
-7.520E-06,0.020
-7.510E-06,0.040
-7.500E-06,0.060
-7.490E-06,0.040
-7.480E-06,0.020
-7.470E-06,0.020
-7.460E-06,0.040
-7.450E-06,0.040
-7.440E-06,0.060
-7.430E-06,0.060
-7.420E-06,0.040
-7.410E-06,0.060
-7.400E-06,0.080
-7.390E-06,0.060
-7.380E-06,0.040
-7.370E-06,0.060
-7.360E-06,0.080
-7.350E-06,0.060
-7.340E-06,0.040
-7.330E-06,0.040
-7.320E-06,0.060
-7.310E-06,0.060
-7.300E-06,0.080
-7.290E-06,0.060
-7.280E-06,0.040
-7.270E-06,0.040
-7.260E-06,0.060
-7.250E-06,0.060
-7.240E-06,0.060
-7.230E-06,0.060
-7.220E-06,0.080
-7.210E-06,0.060
-7.200E-06,0.040
-7.190E-06,0.020
-7.180E-06,0.060
-7.170E-06,0.020
-7.160E-06,0.040
-7.150E-06,0.040
-7.140E-06,0.040
-7.130E-06,0.060
-7.120E-06,0.060
-7.110E-06,0.040
-7.100E-06,0.060
-7.090E-06,0.040
-7.080E-06,0.060
-7.070E-06,0.020
-7.060E-06,0.040
-7.050E-06,0.060
-7.040E-06,0.040
-7.030E-06,0.040
-7.020E-06,0.060
-7.010E-06,0.040
-7.000E-06,0.080
-6.990E-06,0.040
-6.980E-06,0.040
-6.970E-06,0.060
-6.960E-06,0.060
-6.950E-06,0.040
-6.940E-06,0.060
-6.930E-06,0.080
-6.920E-06,0.060
-6.910E-06,0.080
-6.900E-06,0.060
-6.890E-06,0.040
-6.880E-06,0.060
-6.870E-06,0.080
-6.860E-06,0.060
-6.850E-06,0.060
-6.840E-06,0.060
-6.830E-06,0.060
-6.820E-06,0.060
-6.810E-06,0.080
-6.800E-06,0.060
-6.790E-06,0.040
-6.780E-06,0.060
-6.770E-06,0.040
-6.760E-06,0.060
-6.750E-06,0.080
-6.740E-06,0.040
-6.730E-06,0.040
-6.720E-06,0.040
-6.710E-06,0.040
-6.700E-06,0.040
-6.690E-06,0.020
-6.680E-06,0.020
-6.670E-06,0.020
-6.660E-06,0.040
-6.650E-06,0.020
-6.640E-06,0.040
-6.630E-06,0.040
-6.620E-06,0.040
-6.610E-06,0.020
-6.600E-06,0.040
-6.590E-06,0.060
-6.580E-06,0.080
-6.570E-06,0.080
-6.560E-06,0.040
-6.550E-06,0.040
-6.540E-06,0.040
-6.530E-06,0.060
-6.520E-06,0.040
-6.510E-06,0.040
-6.500E-06,0.060
-6.490E-06,0.040
-6.480E-06,0.060
-6.470E-06,0.080
-6.460E-06,0.060
-6.450E-06,0.060
-6.440E-06,0.060
-6.430E-06,0.080
-6.420E-06,0.040
-6.410E-06,0.060
-6.400E-06,0.060
-6.390E-06,0.060
-6.380E-06,0.020
-6.370E-06,0.000
-6.360E-06,0.020
-6.350E-06,0.000
-6.340E-06,0.020
-6.330E-06,0.020
-6.320E-06,0.040
-6.310E-06,0.000
-6.300E-06,0.040
-6.290E-06,0.060
-6.280E-06,0.020
-6.270E-06,0.060
-6.260E-06,0.020
-6.250E-06,0.040
-6.240E-06,0.060
-6.230E-06,0.060
-6.220E-06,0.060
-6.210E-06,0.080
-6.200E-06,0.060
-6.190E-06,0.080
-6.180E-06,0.040
-6.170E-06,0.040
-6.160E-06,0.060
-6.150E-06,0.060
-6.140E-06,0.060
-6.130E-06,0.080
-6.120E-06,0.060
-6.110E-06,0.040
-6.100E-06,0.060
-6.090E-06,0.100
-6.080E-06,0.080
-6.070E-06,0.040
-6.060E-06,0.060
-6.050E-06,0.080
-6.040E-06,0.060
-6.030E-06,0.040
-6.020E-06,0.060
-6.010E-06,0.080
-6.000E-06,0.060
-5.990E-06,0.080
-5.980E-06,0.060
-5.970E-06,0.060
-5.960E-06,0.060
-5.950E-06,0.060
-5.940E-06,0.060
-5.930E-06,0.060
-5.920E-06,0.060
-5.910E-06,0.060
-5.900E-06,0.060
-5.890E-06,0.080
-5.880E-06,0.040
-5.870E-06,0.040
-5.860E-06,0.060
-5.850E-06,0.020
-5.840E-06,0.060
-5.830E-06,0.040
-5.820E-06,0.060
-5.810E-06,0.060
-5.800E-06,0.060
-5.790E-06,0.040
-5.780E-06,0.060
-5.770E-06,0.040
-5.760E-06,0.020
-5.750E-06,0.060
-5.740E-06,0.040
-5.730E-06,0.040
-5.720E-06,0.080
-5.710E-06,0.040
-5.700E-06,0.040
-5.690E-06,0.080
-5.680E-06,0.040
-5.670E-06,0.040
-5.660E-06,0.060
-5.650E-06,0.020
-5.640E-06,0.040
-5.630E-06,0.040
-5.620E-06,0.040
-5.610E-06,0.040
-5.600E-06,0.040
-5.590E-06,0.060
-5.580E-06,0.040
-5.570E-06,0.040
-5.560E-06,0.060
-5.550E-06,0.040
-5.540E-06,0.040
-5.530E-06,0.060
-5.520E-06,0.080
-5.510E-06,0.060
-5.500E-06,0.040
-5.490E-06,0.080
-5.480E-06,0.060
-5.470E-06,0.060
-5.460E-06,0.060
-5.450E-06,0.080
-5.440E-06,0.060
-5.430E-06,0.080
-5.420E-06,0.020
-5.410E-06,0.040
-5.400E-06,0.060
-5.390E-06,0.040
-5.380E-06,0.040
-5.370E-06,0.040
-5.360E-06,0.040
-5.350E-06,0.060
-5.340E-06,0.040
-5.330E-06,0.020
-5.320E-06,0.040
-5.310E-06,0.040
-5.300E-06,0.040
-5.290E-06,0.080
-5.280E-06,0.060
-5.270E-06,0.040
-5.260E-06,0.040
-5.250E-06,0.060
-5.240E-06,0.040
-5.230E-06,0.080
-5.220E-06,0.040
-5.210E-06,0.040
-5.200E-06,0.020
-5.190E-06,0.040
-5.180E-06,0.020
-5.170E-06,0.020
-5.160E-06,0.040
-5.150E-06,0.060
-5.140E-06,0.060
-5.130E-06,0.020
-5.120E-06,0.020
-5.110E-06,0.040
-5.100E-06,0.020
-5.090E-06,0.020
-5.080E-06,0.060
-5.070E-06,0.060
-5.060E-06,0.060
-5.050E-06,0.040
-5.040E-06,0.080
-5.030E-06,0.040
-5.020E-06,0.060
-5.010E-06,0.040
-5.000E-06,0.060
-4.990E-06,0.040
-4.980E-06,0.040
-4.970E-06,0.020
-4.960E-06,0.020
-4.950E-06,0.000
-4.940E-06,0.020
-4.930E-06,0.020
-4.920E-06,0.020
-4.910E-06,0.060
-4.900E-06,0.040
-4.890E-06,0.060
-4.880E-06,0.060
-4.870E-06,0.060
-4.860E-06,0.020
-4.850E-06,0.060
-4.840E-06,0.060
-4.830E-06,0.080
-4.820E-06,0.060
-4.810E-06,0.040
-4.800E-06,0.060
-4.790E-06,0.080
-4.780E-06,0.040
-4.770E-06,0.040
-4.760E-06,0.060
-4.750E-06,0.060
-4.740E-06,0.060
-4.730E-06,0.000
-4.720E-06,0.000
-4.710E-06,0.000
-4.700E-06,0.000
-4.690E-06,0.000
-4.680E-06,0.000
-4.670E-06,0.000
-4.660E-06,0.000
-4.650E-06,0.020
-4.640E-06,0.040
-4.630E-06,-0.020
-4.620E-06,0.000
-4.610E-06,0.000
-4.600E-06,0.000
-4.590E-06,0.020
-4.580E-06,-0.020
-4.570E-06,-0.020
-4.560E-06,0.000
-4.550E-06,0.000
-4.540E-06,-0.040
-4.530E-06,-0.060
-4.520E-06,-0.040
-4.510E-06,-0.020
-4.500E-06,-0.040
-4.490E-06,0.000
-4.480E-06,-0.020
-4.470E-06,-0.020
-4.460E-06,-0.020
-4.450E-06,0.020
-4.440E-06,0.000
-4.430E-06,0.020
-4.420E-06,0.040
-4.410E-06,0.040
-4.400E-06,0.040
-4.390E-06,0.020
-4.380E-06,0.040
-4.370E-06,0.060
-4.360E-06,0.080
-4.350E-06,0.080
-4.340E-06,0.080
-4.330E-06,0.080
-4.320E-06,0.040
-4.310E-06,0.080
-4.300E-06,0.080
-4.290E-06,0.080
-4.280E-06,0.080
-4.270E-06,0.040
-4.260E-06,0.020
-4.250E-06,0.040
-4.240E-06,0.040
-4.230E-06,-0.020
-4.220E-06,0.000
-4.210E-06,0.000
-4.200E-06,0.000
-4.190E-06,0.000
-4.180E-06,-0.020
-4.170E-06,0.000
-4.160E-06,-0.020
-4.150E-06,-0.020
-4.140E-06,-0.020
-4.130E-06,0.000
-4.120E-06,0.020
-4.110E-06,0.000
-4.100E-06,0.000
-4.090E-06,0.000
-4.080E-06,0.000
-4.070E-06,0.000
-4.060E-06,0.020
-4.050E-06,0.000
-4.040E-06,0.020
-4.030E-06,0.040
-4.020E-06,0.040
-4.010E-06,0.040
-4.000E-06,0.060
-3.990E-06,0.060
-3.980E-06,0.080
-3.970E-06,0.060
-3.960E-06,0.080
-3.950E-06,0.060
-3.940E-06,0.080
-3.930E-06,0.100
-3.920E-06,0.080
-3.910E-06,0.060
-3.900E-06,0.060
-3.890E-06,0.040
-3.880E-06,0.060
-3.870E-06,0.040
-3.860E-06,0.060
-3.850E-06,0.000
-3.840E-06,0.040
-3.830E-06,0.060
-3.820E-06,0.040
-3.810E-06,0.020
-3.800E-06,0.040
-3.790E-06,0.020
-3.780E-06,0.020
-3.770E-06,0.000
-3.760E-06,0.000
-3.750E-06,0.020
-3.740E-06,0.020
-3.730E-06,0.020
-3.720E-06,0.020
-3.710E-06,0.020
-3.700E-06,0.020
-3.690E-06,0.020
-3.680E-06,-0.020
-3.670E-06,0.000
-3.660E-06,0.000
-3.650E-06,0.000
-3.640E-06,0.000
-3.630E-06,0.000
-3.620E-06,0.000
-3.610E-06,0.000
-3.600E-06,0.000
-3.590E-06,0.000
-3.580E-06,-0.020
-3.570E-06,0.000
-3.560E-06,-0.020
-3.550E-06,0.000
-3.540E-06,0.000
-3.530E-06,0.000
-3.520E-06,0.000
-3.510E-06,-0.020
-3.500E-06,-0.040
-3.490E-06,-0.060
-3.480E-06,-0.080
-3.470E-06,-0.020
-3.460E-06,-0.020
-3.450E-06,-0.100
-3.440E-06,-0.080
-3.430E-06,-0.160
-3.420E-06,-0.160
-3.410E-06,-0.200
-3.400E-06,-0.180
-3.390E-06,-0.140
-3.380E-06,-0.120
-3.370E-06,-0.140
-3.360E-06,-0.080
-3.350E-06,-0.120
-3.340E-06,-0.080
-3.330E-06,-0.080
-3.320E-06,-0.080
-3.310E-06,-0.060
-3.300E-06,-0.060
-3.290E-06,-0.060
-3.280E-06,-0.020
-3.270E-06,-0.020
-3.260E-06,0.020
-3.250E-06,0.020
-3.240E-06,0.020
-3.230E-06,-0.020
-3.220E-06,-0.020
-3.210E-06,0.000
-3.200E-06,0.000
-3.190E-06,0.000
-3.180E-06,0.000
-3.170E-06,0.000
-3.160E-06,0.000
-3.150E-06,-0.020
-3.140E-06,-0.020
-3.130E-06,-0.040
-3.120E-06,-0.040
-3.110E-06,-0.040
-3.100E-06,-0.080
-3.090E-06,-0.100
-3.080E-06,-0.080
-3.070E-06,-0.120
-3.060E-06,-0.120
-3.050E-06,-0.160
-3.040E-06,-0.160
-3.030E-06,-0.220
-3.020E-06,-0.260
-3.010E-06,-0.260
-3.000E-06,-0.240
-2.990E-06,-0.260
-2.980E-06,-0.280
-2.970E-06,-0.280
-2.960E-06,-0.280
-2.950E-06,-0.280
-2.940E-06,-0.280
-2.930E-06,-0.280
-2.920E-06,-0.260
-2.910E-06,-0.260
-2.900E-06,-0.220
-2.890E-06,-0.180
-2.880E-06,-0.140
-2.870E-06,-0.120
-2.860E-06,-0.120
-2.850E-06,-0.120
-2.840E-06,-0.100
-2.830E-06,-0.060
-2.820E-06,-0.020
-2.810E-06,0.020
-2.800E-06,0.020
-2.790E-06,0.060
-2.780E-06,0.040
-2.770E-06,0.080
-2.760E-06,0.080
-2.750E-06,0.060
-2.740E-06,0.040
-2.730E-06,0.060
-2.720E-06,0.060
-2.710E-06,0.060
-2.700E-06,0.020
-2.690E-06,0.040
-2.680E-06,0.060
-2.670E-06,0.040
-2.660E-06,0.000
-2.650E-06,0.000
-2.640E-06,-0.020
-2.630E-06,0.020
-2.620E-06,0.040
-2.610E-06,0.020
-2.600E-06,-0.020
-2.590E-06,0.000
-2.580E-06,0.000
-2.570E-06,0.000
-2.560E-06,0.020
-2.550E-06,0.020
-2.540E-06,-0.040
-2.530E-06,0.000
-2.520E-06,-0.020
-2.510E-06,-0.040
-2.500E-06,-0.040
-2.490E-06,-0.040
-2.480E-06,-0.060
-2.470E-06,-0.060
-2.460E-06,-0.040
-2.450E-06,-0.080
-2.440E-06,-0.080
-2.430E-06,-0.080
-2.420E-06,-0.080
-2.410E-06,-0.040
-2.400E-06,-0.080
-2.390E-06,-0.080
-2.380E-06,-0.080
-2.370E-06,-0.080
-2.360E-06,-0.060
-2.350E-06,-0.080
-2.340E-06,-0.100
-2.330E-06,-0.060
-2.320E-06,-0.100
-2.310E-06,-0.140
-2.300E-06,-0.120
-2.290E-06,-0.180
-2.280E-06,-0.180
-2.270E-06,-0.180
-2.260E-06,-0.240
-2.250E-06,-0.260
-2.240E-06,-0.240
-2.230E-06,-0.260
-2.220E-06,-0.320
-2.210E-06,-0.340
-2.200E-06,-0.360
-2.190E-06,-0.400
-2.180E-06,-0.440
-2.170E-06,-0.480
-2.160E-06,-0.500
-2.150E-06,-0.560
-2.140E-06,-0.560
-2.130E-06,-0.580
-2.120E-06,-0.600
-2.110E-06,-0.600
-2.100E-06,-0.600
-2.090E-06,-0.620
-2.080E-06,-0.640
-2.070E-06,-0.660
-2.060E-06,-0.680
-2.050E-06,-0.680
-2.040E-06,-0.680
-2.030E-06,-0.680
-2.020E-06,-0.660
-2.010E-06,-0.680
-2.000E-06,-0.680
-1.990E-06,-0.680
-1.980E-06,-0.680
-1.970E-06,-0.700
-1.960E-06,-0.600
-1.950E-06,-0.600
-1.940E-06,-0.560
-1.930E-06,-0.500
-1.920E-06,-0.420
-1.910E-06,-0.360
-1.900E-06,-0.320
-1.890E-06,-0.340
-1.880E-06,-0.340
-1.870E-06,-0.360
-1.860E-06,-0.340
-1.850E-06,-0.300
-1.840E-06,-0.280
-1.830E-06,-0.300
-1.820E-06,-0.340
-1.810E-06,-0.320
-1.800E-06,-0.360
-1.790E-06,-0.360
-1.780E-06,-0.340
-1.770E-06,-0.340
-1.760E-06,-0.320
-1.750E-06,-0.320
-1.740E-06,-0.380
-1.730E-06,-0.360
-1.720E-06,-0.360
-1.710E-06,-0.380
-1.700E-06,-0.420
-1.690E-06,-0.400
-1.680E-06,-0.460
-1.670E-06,-0.480
-1.660E-06,-0.500
-1.650E-06,-0.520
-1.640E-06,-0.540
-1.630E-06,-0.540
-1.620E-06,-0.580
-1.610E-06,-0.580
-1.600E-06,-0.580
-1.590E-06,-0.600
-1.580E-06,-0.600
-1.570E-06,-0.580
-1.560E-06,-0.620
-1.550E-06,-0.640
-1.540E-06,-0.680
-1.530E-06,-0.660
-1.520E-06,-0.700
-1.510E-06,-0.680
-1.500E-06,-0.700
-1.490E-06,-0.740
-1.480E-06,-0.740
-1.470E-06,-0.820
-1.460E-06,-0.820
-1.450E-06,-0.840
-1.440E-06,-0.800
-1.430E-06,-0.840
-1.420E-06,-0.680
-1.410E-06,-0.660
-1.400E-06,-0.560
-1.390E-06,-0.780
-1.380E-06,-0.500
-1.370E-06,-0.820
-1.360E-06,-0.460
-1.350E-06,-0.620
-1.340E-06,-0.560
-1.330E-06,-0.640
-1.320E-06,-0.660
-1.310E-06,-0.680
-1.300E-06,-0.420
-1.290E-06,-0.600
-1.280E-06,-0.540
-1.270E-06,-0.400
-1.260E-06,-0.560
-1.250E-06,-0.280
-1.240E-06,-0.280
-1.230E-06,-0.340
-1.220E-06,-0.360
-1.210E-06,-0.480
-1.200E-06,-0.500
-1.190E-06,-0.420
-1.180E-06,-0.500
-1.170E-06,-0.580
-1.160E-06,-0.720
-1.150E-06,-0.800
-1.140E-06,-0.820
-1.130E-06,-0.920
-1.120E-06,-1.000
-1.110E-06,-1.060
-1.100E-06,-1.280
-1.090E-06,-1.360
-1.080E-06,-1.520
-1.070E-06,-1.620
-1.060E-06,-1.680
-1.050E-06,-1.740
-1.040E-06,-1.760
-1.030E-06,-1.800
-1.020E-06,-1.880
-1.010E-06,-1.920
-1.000E-06,-1.940
-9.900E-07,-1.940
-9.800E-07,-2.020
-9.700E-07,-2.060
-9.600E-07,-2.080
-9.500E-07,-2.060
-9.400E-07,-2.040
-9.300E-07,-2.020
-9.200E-07,-1.920
-9.100E-07,-1.840
-9.000E-07,-1.740
-8.900E-07,-1.700
-8.800E-07,-1.620
-8.700E-07,-1.700
-8.600E-07,-1.740
-8.500E-07,-1.800
-8.400E-07,-1.780
-8.300E-07,-1.760
-8.200E-07,-1.700
-8.100E-07,-1.740
-8.000E-07,-1.720
-7.900E-07,-1.720
-7.800E-07,-1.740
-7.700E-07,-1.760
-7.600E-07,-1.840
-7.500E-07,-1.860
-7.400E-07,-1.820
-7.300E-07,-1.880
-7.200E-07,-1.840
-7.100E-07,-1.940
-7.000E-07,-1.940
-6.900E-07,-1.920
-6.800E-07,-2.000
-6.700E-07,-2.020
-6.600E-07,-2.080
-6.500E-07,-2.040
-6.400E-07,-1.920
-6.300E-07,-1.860
-6.200E-07,-1.760
-6.100E-07,-1.680
-6.000E-07,-1.580
-5.900E-07,-1.480
-5.800E-07,-1.420
-5.700E-07,-1.340
-5.600E-07,-1.300
-5.500E-07,-1.260
-5.400E-07,-1.140
-5.300E-07,-1.160
-5.200E-07,-1.040
-5.100E-07,-1.040
-5.000E-07,-1.000
-4.900E-07,-0.940
-4.800E-07,-0.960
-4.700E-07,-1.000
-4.600E-07,-1.020
-4.500E-07,-1.040
-4.400E-07,-1.000
-4.300E-07,-0.960
-4.200E-07,-0.980
-4.100E-07,-0.960
-4.000E-07,-0.980
-3.900E-07,-0.980
-3.800E-07,-0.980
-3.700E-07,-0.960
-3.600E-07,-0.960
-3.500E-07,-0.960
-3.400E-07,-0.900
-3.300E-07,-0.840
-3.200E-07,-0.820
-3.100E-07,-0.740
-3.000E-07,-0.740
-2.900E-07,-0.800
-2.800E-07,-0.840
-2.700E-07,-0.960
-2.600E-07,-1.020
-2.500E-07,-1.020
-2.400E-07,-1.020
-2.300E-07,-1.000
-2.200E-07,-0.940
-2.100E-07,-0.900
-2.000E-07,-0.860
-1.900E-07,-0.880
-1.800E-07,-0.880
-1.700E-07,-0.880
-1.600E-07,-0.920
-1.500E-07,-0.940
-1.400E-07,-0.980
-1.300E-07,-0.980
-1.200E-07,-1.040
-1.100E-07,-0.860
-1.000E-07,-0.900
-9.000E-08,-0.940
-8.000E-08,-0.800
-7.000E-08,-0.800
-6.000E-08,-0.880
-5.000E-08,-0.560
-4.000E-08,1.440
-3.000E-08,1.680
-2.000E-08,2.780
-1.000E-08,2.000
0.000E+00,0.760
1.000E-08,-0.140
2.000E-08,-0.620
3.000E-08,-0.380
4.000E-08,0.140
5.000E-08,-0.320
6.000E-08,-1.040
7.000E-08,-1.640
8.000E-08,-1.800
9.000E-08,-1.140
1.000E-07,-0.680
1.100E-07,-0.840
1.200E-07,-1.140
1.300E-07,-1.260
1.400E-07,-1.120
1.500E-07,-0.900
1.600E-07,-0.840
1.700E-07,-1.100
1.800E-07,-1.220
1.900E-07,-1.240
2.000E-07,-1.280
2.100E-07,-1.100
2.200E-07,-1.120
2.300E-07,-1.040
2.400E-07,-1.100
2.500E-07,-1.200
2.600E-07,-1.340
2.700E-07,-1.360
2.800E-07,-1.420
2.900E-07,-1.440
3.000E-07,-1.600
3.100E-07,-1.840
3.200E-07,-1.940
3.300E-07,-2.300
3.400E-07,-2.140
3.500E-07,-2.460
3.600E-07,-2.620
3.700E-07,-2.660
3.800E-07,-2.660
3.900E-07,-2.660
4.000E-07,-2.660
4.100E-07,-2.640
4.200E-07,-2.640
4.300E-07,-2.640
4.400E-07,-2.460
4.500E-07,-2.160
4.600E-07,-1.960
4.700E-07,-1.840
4.800E-07,-1.920
4.900E-07,-1.780
5.000E-07,-1.800
5.100E-07,-1.740
5.200E-07,-1.920
5.300E-07,-2.040
5.400E-07,-2.160
5.500E-07,-2.320
5.600E-07,-2.320
5.700E-07,-2.480
5.800E-07,-2.560
5.900E-07,-2.660
6.000E-07,-2.660
6.100E-07,-2.660
6.200E-07,-2.660
6.300E-07,-2.660
6.400E-07,-2.620
6.500E-07,-2.580
6.600E-07,-2.440
6.700E-07,-2.200
6.800E-07,-1.960
6.900E-07,-1.900
7.000E-07,-2.180
7.100E-07,-1.140
7.200E-07,-1.020
7.300E-07,0.000
7.400E-07,0.580
7.500E-07,0.260
7.600E-07,0.080
7.700E-07,-0.140
7.800E-07,-0.620
7.900E-07,-0.240
8.000E-07,-0.820
8.100E-07,-1.180
8.200E-07,-1.820
8.300E-07,-2.080
8.400E-07,-2.100
8.500E-07,-1.940
8.600E-07,-2.100
8.700E-07,-2.460
8.800E-07,-2.520
8.900E-07,-2.480
9.000E-07,-2.000
9.100E-07,-1.560
9.200E-07,-1.180
9.300E-07,-1.120
9.400E-07,-0.860
9.500E-07,-0.700
9.600E-07,-0.440
9.700E-07,-0.260
9.800E-07,-0.380
9.900E-07,-0.380
1.000E-06,-0.600
1.010E-06,-0.580
1.020E-06,-0.460
1.030E-06,-0.540
1.040E-06,-0.600
1.050E-06,-0.920
1.060E-06,-1.120
1.070E-06,-1.280
1.080E-06,-1.260
1.090E-06,-1.440
1.100E-06,-1.500
1.110E-06,-1.720
1.120E-06,-1.700
1.130E-06,-1.540
1.140E-06,-1.480
1.150E-06,-1.280
1.160E-06,-1.440
1.170E-06,-1.240
1.180E-06,-1.280
1.190E-06,-1.120
1.200E-06,-0.920
1.210E-06,-0.760
1.220E-06,-0.580
1.230E-06,-0.380
1.240E-06,-0.220
1.250E-06,-0.080
1.260E-06,0.360
1.270E-06,0.680
1.280E-06,1.040
1.290E-06,1.260
1.300E-06,1.280
1.310E-06,1.320
1.320E-06,1.200
1.330E-06,1.040
1.340E-06,0.720
1.350E-06,0.320
1.360E-06,-0.340
1.370E-06,-0.940
1.380E-06,-1.620
1.390E-06,-1.940
1.400E-06,-2.280
1.410E-06,-2.520
1.420E-06,-2.680
1.430E-06,-2.620
1.440E-06,-2.440
1.450E-06,-2.300
1.460E-06,-2.220
1.470E-06,-2.200
1.480E-06,-2.200
1.490E-06,-2.300
1.500E-06,-2.320
1.510E-06,-2.260
1.520E-06,-2.420
1.530E-06,-2.460
1.540E-06,-2.540
1.550E-06,-2.660
1.560E-06,-2.660
1.570E-06,-2.660
1.580E-06,-2.680
1.590E-06,-2.680
1.600E-06,-2.680
1.610E-06,-2.660
1.620E-06,-2.660
1.630E-06,-2.660
1.640E-06,-2.660
1.650E-06,-2.660
1.660E-06,-2.680
1.670E-06,-2.660
1.680E-06,-2.660
1.690E-06,-2.660
1.700E-06,-2.660
1.710E-06,-2.660
1.720E-06,-2.660
1.730E-06,-2.660
1.740E-06,-2.660
1.750E-06,-2.660
1.760E-06,-2.660
1.770E-06,-2.660
1.780E-06,-2.660
1.790E-06,-2.620
1.800E-06,-2.420
1.810E-06,-2.240
1.820E-06,-2.140
1.830E-06,-2.120
1.840E-06,-2.100
1.850E-06,-2.260
1.860E-06,-2.200
1.870E-06,-1.820
1.880E-06,-1.080
1.890E-06,-0.960
1.900E-06,-0.100
1.910E-06,0.400
1.920E-06,0.760
1.930E-06,0.520
1.940E-06,0.000
1.950E-06,-0.700
1.960E-06,-1.280
1.970E-06,-1.280
1.980E-06,-1.620
1.990E-06,-1.780
2.000E-06,-2.260
2.010E-06,-2.660
2.020E-06,-2.660
2.030E-06,-2.660
2.040E-06,-2.660
2.050E-06,-2.640
2.060E-06,-2.660
2.070E-06,-2.660
2.080E-06,-2.460
2.090E-06,-2.160
2.100E-06,-1.980
2.110E-06,-1.760
2.120E-06,-1.620
2.130E-06,-1.360
2.140E-06,-1.060
2.150E-06,-0.840
2.160E-06,-0.840
2.170E-06,-0.940
2.180E-06,-0.860
2.190E-06,-0.720
2.200E-06,-0.460
2.210E-06,-0.340
2.220E-06,-0.180
2.230E-06,0.000
2.240E-06,0.360
2.250E-06,0.520
2.260E-06,0.780
2.270E-06,1.000
2.280E-06,1.160
2.290E-06,1.180
2.300E-06,1.000
2.310E-06,0.840
2.320E-06,0.440
2.330E-06,0.060
2.340E-06,-0.380
2.350E-06,-0.820
2.360E-06,-1.140
2.370E-06,-1.360
2.380E-06,-1.520
2.390E-06,-1.540
2.400E-06,-1.520
2.410E-06,-1.460
2.420E-06,-1.340
2.430E-06,-1.160
2.440E-06,-0.980
2.450E-06,-0.800
2.460E-06,-0.620
2.470E-06,-0.460
2.480E-06,-0.360
2.490E-06,-0.320
2.500E-06,-0.260
2.510E-06,-0.280
2.520E-06,-0.320
2.530E-06,-0.400
2.540E-06,-0.400
2.550E-06,-0.420
2.560E-06,-0.420
2.570E-06,-0.300
2.580E-06,-0.240
2.590E-06,0.000
2.600E-06,0.160
2.610E-06,0.200
2.620E-06,0.280
2.630E-06,0.240
2.640E-06,0.100
2.650E-06,-0.060
2.660E-06,-0.060
2.670E-06,-0.240
2.680E-06,-0.240
2.690E-06,-0.320
2.700E-06,-0.460
2.710E-06,-0.420
2.720E-06,-0.620
2.730E-06,-0.560
2.740E-06,-0.680
2.750E-06,-0.660
2.760E-06,-0.860
2.770E-06,-0.840
2.780E-06,-1.040
2.790E-06,-1.100
2.800E-06,-1.160
2.810E-06,-1.260
2.820E-06,-1.360
2.830E-06,-1.480
2.840E-06,-1.760
2.850E-06,-1.820
2.860E-06,-1.960
2.870E-06,-2.060
2.880E-06,-2.280
2.890E-06,-2.420
2.900E-06,-2.660
2.910E-06,-2.660
2.920E-06,-2.680
2.930E-06,-2.660
2.940E-06,-2.660
2.950E-06,-2.660
2.960E-06,-2.660
2.970E-06,-2.540
2.980E-06,-2.400
2.990E-06,-2.280
3.000E-06,-2.140
3.010E-06,-2.000
3.020E-06,-1.780
3.030E-06,-1.520
3.040E-06,-1.240
3.050E-06,-0.980
3.060E-06,-0.800
3.070E-06,-0.660
3.080E-06,-0.640
3.090E-06,-0.640
3.100E-06,-0.820
3.110E-06,-1.000
3.120E-06,-1.260
3.130E-06,-1.440
3.140E-06,-1.640
