mediciones/5-15/14.9/WaveData47312.csv

#timebase=2000000(ps)
,#voltbase=500000(mv/100)
#size=4000
-8.400E-06,0.080
-8.390E-06,0.100
-8.380E-06,0.060
-8.370E-06,0.060
-8.360E-06,0.060
-8.350E-06,0.060
-8.340E-06,0.080
-8.330E-06,0.060
-8.320E-06,0.040
-8.310E-06,0.040
-8.300E-06,0.000
-8.290E-06,0.020
-8.280E-06,0.020
-8.270E-06,0.000
-8.260E-06,0.000
-8.250E-06,0.000
-8.240E-06,-0.020
-8.230E-06,0.000
-8.220E-06,0.000
-8.210E-06,-0.020
-8.200E-06,-0.020
-8.190E-06,-0.060
-8.180E-06,-0.040
-8.170E-06,-0.060
-8.160E-06,-0.060
-8.150E-06,-0.020
-8.140E-06,-0.040
-8.130E-06,-0.040
-8.120E-06,-0.040
-8.110E-06,-0.060
-8.100E-06,-0.040
-8.090E-06,-0.040
-8.080E-06,0.000
-8.070E-06,0.000
-8.060E-06,0.000
-8.050E-06,0.000
-8.040E-06,0.000
-8.030E-06,-0.020
-8.020E-06,0.000
-8.010E-06,-0.020
-8.000E-06,0.000
-7.990E-06,0.000
-7.980E-06,-0.020
-7.970E-06,-0.020
-7.960E-06,-0.020
-7.950E-06,-0.040
-7.940E-06,-0.020
-7.930E-06,-0.020
-7.920E-06,-0.020
-7.910E-06,-0.020
-7.900E-06,0.000
-7.890E-06,0.000
-7.880E-06,0.000
-7.870E-06,0.000
-7.860E-06,0.000
-7.850E-06,0.000
-7.840E-06,0.000
-7.830E-06,0.000
-7.820E-06,0.000
-7.810E-06,-0.020
-7.800E-06,0.000
-7.790E-06,0.000
-7.780E-06,0.000
-7.770E-06,-0.020
-7.760E-06,0.000
-7.750E-06,0.000
-7.740E-06,0.000
-7.730E-06,0.000
-7.720E-06,0.000
-7.710E-06,-0.020
-7.700E-06,0.000
-7.690E-06,0.000
-7.680E-06,0.020
-7.670E-06,0.000
-7.660E-06,0.020
-7.650E-06,0.020
-7.640E-06,0.060
-7.630E-06,0.040
-7.620E-06,0.000
-7.610E-06,0.040
-7.600E-06,0.020
-7.590E-06,0.020
-7.580E-06,0.000
-7.570E-06,-0.020
-7.560E-06,0.000
-7.550E-06,-0.020
-7.540E-06,-0.040
-7.530E-06,0.000
-7.520E-06,-0.040
-7.510E-06,-0.060
-7.500E-06,-0.020
-7.490E-06,-0.020
-7.480E-06,-0.040
-7.470E-06,-0.040
-7.460E-06,-0.060
-7.450E-06,-0.040
-7.440E-06,-0.040
-7.430E-06,-0.060
-7.420E-06,-0.040
-7.410E-06,-0.020
-7.400E-06,-0.020
-7.390E-06,-0.060
-7.380E-06,-0.060
-7.370E-06,-0.040
-7.360E-06,-0.060
-7.350E-06,-0.080
-7.340E-06,-0.100
-7.330E-06,-0.060
-7.320E-06,-0.080
-7.310E-06,-0.100
-7.300E-06,-0.100
-7.290E-06,-0.080
-7.280E-06,-0.080
-7.270E-06,-0.080
-7.260E-06,-0.060
-7.250E-06,-0.080
-7.240E-06,-0.080
-7.230E-06,-0.100
-7.220E-06,-0.060
-7.210E-06,-0.040
-7.200E-06,-0.040
-7.190E-06,-0.060
-7.180E-06,-0.060
-7.170E-06,-0.060
-7.160E-06,-0.020
-7.150E-06,0.000
-7.140E-06,0.000
-7.130E-06,-0.020
-7.120E-06,0.000
-7.110E-06,0.000
-7.100E-06,0.000
-7.090E-06,0.000
-7.080E-06,0.000
-7.070E-06,0.020
-7.060E-06,0.020
-7.050E-06,0.020
-7.040E-06,0.000
-7.030E-06,0.020
-7.020E-06,0.040
-7.010E-06,0.020
-7.000E-06,0.020
-6.990E-06,0.000
-6.980E-06,0.000
-6.970E-06,0.000
-6.960E-06,-0.020
-6.950E-06,0.000
-6.940E-06,0.020
-6.930E-06,0.020
-6.920E-06,0.000
-6.910E-06,0.000
-6.900E-06,-0.020
-6.890E-06,0.000
-6.880E-06,-0.040
-6.870E-06,-0.020
-6.860E-06,-0.020
-6.850E-06,-0.060
-6.840E-06,-0.040
-6.830E-06,-0.040
-6.820E-06,-0.040
-6.810E-06,-0.060
-6.800E-06,-0.060
-6.790E-06,-0.060
-6.780E-06,-0.080
-6.770E-06,-0.080
-6.760E-06,-0.080
-6.750E-06,-0.080
-6.740E-06,-0.080
-6.730E-06,-0.080
-6.720E-06,-0.060
-6.710E-06,-0.040
-6.700E-06,-0.060
-6.690E-06,-0.020
-6.680E-06,-0.060
-6.670E-06,-0.040
-6.660E-06,-0.060
-6.650E-06,-0.040
-6.640E-06,-0.080
-6.630E-06,-0.100
-6.620E-06,-0.080
-6.610E-06,-0.100
-6.600E-06,-0.100
-6.590E-06,-0.100
-6.580E-06,-0.100
-6.570E-06,-0.080
-6.560E-06,-0.080
-6.550E-06,-0.100
-6.540E-06,-0.080
-6.530E-06,-0.060
-6.520E-06,-0.080
-6.510E-06,-0.100
-6.500E-06,-0.100
-6.490E-06,-0.120
-6.480E-06,-0.100
-6.470E-06,-0.100
-6.460E-06,-0.120
-6.450E-06,-0.120
-6.440E-06,-0.120
-6.430E-06,-0.140
-6.420E-06,-0.140
-6.410E-06,-0.100
-6.400E-06,-0.100
-6.390E-06,-0.120
-6.380E-06,-0.120
-6.370E-06,-0.160
-6.360E-06,-0.120
-6.350E-06,-0.120
-6.340E-06,-0.120
-6.330E-06,-0.100
-6.320E-06,-0.100
-6.310E-06,-0.080
-6.300E-06,-0.080
-6.290E-06,-0.080
-6.280E-06,-0.040
-6.270E-06,-0.060
-6.260E-06,-0.080
-6.250E-06,-0.040
-6.240E-06,-0.020
-6.230E-06,-0.040
-6.220E-06,-0.020
-6.210E-06,-0.060
-6.200E-06,-0.040
-6.190E-06,-0.040
-6.180E-06,-0.040
-6.170E-06,-0.020
-6.160E-06,-0.060
-6.150E-06,-0.040
-6.140E-06,-0.060
-6.130E-06,-0.060
-6.120E-06,-0.060
-6.110E-06,-0.080
-6.100E-06,-0.060
-6.090E-06,-0.080
-6.080E-06,-0.060
-6.070E-06,-0.080
-6.060E-06,-0.060
-6.050E-06,-0.060
-6.040E-06,-0.040
-6.030E-06,-0.080
-6.020E-06,-0.060
-6.010E-06,-0.060
-6.000E-06,-0.080
-5.990E-06,-0.100
-5.980E-06,-0.100
-5.970E-06,-0.140
-5.960E-06,-0.120
-5.950E-06,-0.140
-5.940E-06,-0.140
-5.930E-06,-0.120
-5.920E-06,-0.120
-5.910E-06,-0.120
-5.900E-06,-0.140
-5.890E-06,-0.140
-5.880E-06,-0.120
-5.870E-06,-0.140
-5.860E-06,-0.140
-5.850E-06,-0.140
-5.840E-06,-0.160
-5.830E-06,-0.180
-5.820E-06,-0.160
-5.810E-06,-0.180
-5.800E-06,-0.160
-5.790E-06,-0.180
-5.780E-06,-0.180
-5.770E-06,-0.180
-5.760E-06,-0.160
-5.750E-06,-0.160
-5.740E-06,-0.180
-5.730E-06,-0.180
-5.720E-06,-0.140
-5.710E-06,-0.140
-5.700E-06,-0.140
-5.690E-06,-0.120
-5.680E-06,-0.100
-5.670E-06,-0.120
-5.660E-06,-0.100
-5.650E-06,-0.100
-5.640E-06,-0.060
-5.630E-06,-0.080
-5.620E-06,-0.080
-5.610E-06,-0.080
-5.600E-06,-0.080
-5.590E-06,-0.040
-5.580E-06,-0.020
-5.570E-06,-0.040
-5.560E-06,-0.020
-5.550E-06,-0.060
-5.540E-06,-0.040
-5.530E-06,-0.080
-5.520E-06,-0.060
-5.510E-06,-0.080
-5.500E-06,-0.080
-5.490E-06,-0.080
-5.480E-06,-0.100
-5.470E-06,-0.100
-5.460E-06,-0.100
-5.450E-06,-0.120
-5.440E-06,-0.120
-5.430E-06,-0.080
-5.420E-06,-0.080
-5.410E-06,-0.080
-5.400E-06,-0.120
-5.390E-06,-0.140
-5.380E-06,-0.140
-5.370E-06,-0.180
-5.360E-06,-0.220
-5.350E-06,-0.240
-5.340E-06,-0.300
-5.330E-06,-0.320
-5.320E-06,-0.340
-5.310E-06,-0.340
-5.300E-06,-0.360
-5.290E-06,-0.380
-5.280E-06,-0.360
-5.270E-06,-0.400
-5.260E-06,-0.400
-5.250E-06,-0.340
-5.240E-06,-0.360
-5.230E-06,-0.360
-5.220E-06,-0.340
-5.210E-06,-0.320
-5.200E-06,-0.280
-5.190E-06,-0.260
-5.180E-06,-0.260
-5.170E-06,-0.200
-5.160E-06,-0.180
-5.150E-06,-0.160
-5.140E-06,-0.160
-5.130E-06,-0.120
-5.120E-06,-0.080
-5.110E-06,-0.060
-5.100E-06,-0.080
-5.090E-06,-0.040
-5.080E-06,-0.020
-5.070E-06,-0.040
-5.060E-06,0.000
-5.050E-06,-0.020
-5.040E-06,-0.060
-5.030E-06,-0.040
-5.020E-06,-0.020
-5.010E-06,-0.020
-5.000E-06,-0.040
-4.990E-06,-0.060
-4.980E-06,-0.060
-4.970E-06,-0.060
-4.960E-06,-0.100
-4.950E-06,-0.120
-4.940E-06,-0.100
-4.930E-06,-0.080
-4.920E-06,-0.120
-4.910E-06,-0.160
-4.900E-06,-0.180
-4.890E-06,-0.180
-4.880E-06,-0.140
-4.870E-06,-0.140
-4.860E-06,-0.100
-4.850E-06,-0.140
-4.840E-06,-0.160
-4.830E-06,-0.160
-4.820E-06,-0.160
-4.810E-06,-0.160
-4.800E-06,-0.180
-4.790E-06,-0.200
-4.780E-06,-0.220
-4.770E-06,-0.260
-4.760E-06,-0.260
-4.750E-06,-0.260
-4.740E-06,-0.240
-4.730E-06,-0.240
-4.720E-06,-0.240
-4.710E-06,-0.260
-4.700E-06,-0.240
-4.690E-06,-0.240
-4.680E-06,-0.180
-4.670E-06,-0.180
-4.660E-06,-0.160
-4.650E-06,-0.180
-4.640E-06,-0.140
-4.630E-06,-0.140
-4.620E-06,-0.100
-4.610E-06,-0.080
-4.600E-06,-0.080
-4.590E-06,-0.060
-4.580E-06,-0.080
-4.570E-06,-0.080
-4.560E-06,-0.080
-4.550E-06,-0.020
-4.540E-06,-0.020
-4.530E-06,-0.020
-4.520E-06,-0.020
-4.510E-06,-0.020
-4.500E-06,-0.020
-4.490E-06,0.000
-4.480E-06,0.000
-4.470E-06,0.000
-4.460E-06,0.000
-4.450E-06,0.000
-4.440E-06,0.020
-4.430E-06,-0.040
-4.420E-06,0.000
-4.410E-06,0.000
-4.400E-06,-0.020
-4.390E-06,-0.020
-4.380E-06,-0.040
-4.370E-06,-0.060
-4.360E-06,-0.040
-4.350E-06,-0.060
-4.340E-06,-0.080
-4.330E-06,-0.060
-4.320E-06,-0.080
-4.310E-06,-0.040
-4.300E-06,-0.060
-4.290E-06,-0.080
-4.280E-06,-0.080
-4.270E-06,-0.080
-4.260E-06,-0.120
-4.250E-06,-0.120
-4.240E-06,-0.100
-4.230E-06,-0.120
-4.220E-06,-0.140
-4.210E-06,-0.080
-4.200E-06,-0.120
-4.190E-06,-0.140
-4.180E-06,-0.140
-4.170E-06,-0.160
-4.160E-06,-0.180
-4.150E-06,-0.180
-4.140E-06,-0.180
-4.130E-06,-0.180
-4.120E-06,-0.200
-4.110E-06,-0.180
-4.100E-06,-0.220
-4.090E-06,-0.200
-4.080E-06,-0.220
-4.070E-06,-0.220
-4.060E-06,-0.220
-4.050E-06,-0.240
-4.040E-06,-0.260
-4.030E-06,-0.260
-4.020E-06,-0.240
-4.010E-06,-0.260
-4.000E-06,-0.300
-3.990E-06,-0.300
-3.980E-06,-0.340
-3.970E-06,-0.340
-3.960E-06,-0.340
-3.950E-06,-0.360
-3.940E-06,-0.380
-3.930E-06,-0.400
-3.920E-06,-0.420
-3.910E-06,-0.440
-3.900E-06,-0.420
-3.890E-06,-0.460
-3.880E-06,-0.500
-3.870E-06,-0.500
-3.860E-06,-0.500
-3.850E-06,-0.520
-3.840E-06,-0.520
-3.830E-06,-0.520
-3.820E-06,-0.540
-3.810E-06,-0.560
-3.800E-06,-0.560
-3.790E-06,-0.580
-3.780E-06,-0.600
-3.770E-06,-0.640
-3.760E-06,-0.620
-3.750E-06,-0.640
-3.740E-06,-0.640
-3.730E-06,-0.600
-3.720E-06,-0.640
-3.710E-06,-0.620
-3.700E-06,-0.640
-3.690E-06,-0.660
-3.680E-06,-0.680
-3.670E-06,-0.680
-3.660E-06,-0.680
-3.650E-06,-0.660
-3.640E-06,-0.700
-3.630E-06,-0.680
-3.620E-06,-0.700
-3.610E-06,-0.740
-3.600E-06,-0.740
-3.590E-06,-0.820
-3.580E-06,-0.780
-3.570E-06,-0.860
-3.560E-06,-0.840
-3.550E-06,-0.920
-3.540E-06,-0.880
-3.530E-06,-0.960
-3.520E-06,-0.880
-3.510E-06,-0.920
-3.500E-06,-0.820
-3.490E-06,-0.880
-3.480E-06,-0.840
-3.470E-06,-0.820
-3.460E-06,-0.820
-3.450E-06,-0.800
-3.440E-06,-0.800
-3.430E-06,-0.820
-3.420E-06,-0.780
-3.410E-06,-0.780
-3.400E-06,-0.680
-3.390E-06,-0.640
-3.380E-06,-0.580
-3.370E-06,-0.580
-3.360E-06,-0.580
-3.350E-06,-0.540
-3.340E-06,-0.480
-3.330E-06,-0.420
-3.320E-06,-0.420
-3.310E-06,-0.380
-3.300E-06,-0.360
-3.290E-06,-0.340
-3.280E-06,-0.320
-3.270E-06,-0.260
-3.260E-06,-0.220
-3.250E-06,-0.180
-3.240E-06,-0.200
-3.230E-06,-0.200
-3.220E-06,-0.200
-3.210E-06,-0.200
-3.200E-06,-0.240
-3.190E-06,-0.180
-3.180E-06,-0.180
-3.170E-06,-0.180
-3.160E-06,-0.180
-3.150E-06,-0.200
-3.140E-06,-0.220
-3.130E-06,-0.240
-3.120E-06,-0.220
-3.110E-06,-0.220
-3.100E-06,-0.280
-3.090E-06,-0.320
-3.080E-06,-0.340
-3.070E-06,-0.380
-3.060E-06,-0.380
-3.050E-06,-0.360
-3.040E-06,-0.340
-3.030E-06,-0.360
-3.020E-06,-0.320
-3.010E-06,-0.300
-3.000E-06,-0.280
-2.990E-06,-0.240
-2.980E-06,-0.220
-2.970E-06,-0.180
-2.960E-06,-0.160
-2.950E-06,-0.160
-2.940E-06,-0.140
-2.930E-06,-0.140
-2.920E-06,-0.120
-2.910E-06,-0.080
-2.900E-06,-0.100
-2.890E-06,-0.100
-2.880E-06,-0.120
-2.870E-06,-0.080
-2.860E-06,-0.080
-2.850E-06,-0.060
-2.840E-06,-0.020
-2.830E-06,-0.060
-2.820E-06,-0.040
-2.810E-06,-0.060
-2.800E-06,-0.080
-2.790E-06,-0.080
-2.780E-06,-0.080
-2.770E-06,-0.140
-2.760E-06,-0.160
-2.750E-06,-0.160
-2.740E-06,-0.180
-2.730E-06,-0.220
-2.720E-06,-0.220
-2.710E-06,-0.240
-2.700E-06,-0.220
-2.690E-06,-0.260
-2.680E-06,-0.260
-2.670E-06,-0.240
-2.660E-06,-0.200
-2.650E-06,-0.200
-2.640E-06,-0.240
-2.630E-06,-0.260
-2.620E-06,-0.320
-2.610E-06,-0.340
-2.600E-06,-0.340
-2.590E-06,-0.360
-2.580E-06,-0.400
-2.570E-06,-0.420
-2.560E-06,-0.460
-2.550E-06,-0.500
-2.540E-06,-0.600
-2.530E-06,-0.620
-2.520E-06,-0.680
-2.510E-06,-0.720
-2.500E-06,-0.760
-2.490E-06,-0.800
-2.480E-06,-0.840
-2.470E-06,-0.940
-2.460E-06,-1.020
-2.450E-06,-1.080
-2.440E-06,-1.080
-2.430E-06,-1.100
-2.420E-06,-1.040
-2.410E-06,-1.060
-2.400E-06,-1.020
-2.390E-06,-1.020
-2.380E-06,-0.980
-2.370E-06,-0.940
-2.360E-06,-0.920
-2.350E-06,-0.900
-2.340E-06,-0.880
-2.330E-06,-0.800
-2.320E-06,-0.780
-2.310E-06,-0.700
-2.300E-06,-0.620
-2.290E-06,-0.580
-2.280E-06,-0.520
-2.270E-06,-0.500
-2.260E-06,-0.400
-2.250E-06,-0.400
-2.240E-06,-0.400
-2.230E-06,-0.380
-2.220E-06,-0.340
-2.210E-06,-0.340
-2.200E-06,-0.320
-2.190E-06,-0.320
-2.180E-06,-0.320
-2.170E-06,-0.340
-2.160E-06,-0.340
-2.150E-06,-0.360
-2.140E-06,-0.360
-2.130E-06,-0.400
-2.120E-06,-0.460
-2.110E-06,-0.520
-2.100E-06,-0.580
-2.090E-06,-0.620
-2.080E-06,-0.660
-2.070E-06,-0.680
-2.060E-06,-0.760
-2.050E-06,-0.800
-2.040E-06,-0.840
-2.030E-06,-0.880
-2.020E-06,-0.940
-2.010E-06,-0.980
-2.000E-06,-1.020
-1.990E-06,-1.060
-1.980E-06,-1.100
-1.970E-06,-1.120
-1.960E-06,-1.140
-1.950E-06,-1.160
-1.940E-06,-1.120
-1.930E-06,-1.180
-1.920E-06,-1.180
-1.910E-06,-1.260
-1.900E-06,-1.220
-1.890E-06,-1.260
-1.880E-06,-1.260
-1.870E-06,-1.300
-1.860E-06,-1.340
-1.850E-06,-1.360
-1.840E-06,-1.340
-1.830E-06,-1.360
-1.820E-06,-1.360
-1.810E-06,-1.360
-1.800E-06,-1.380
-1.790E-06,-1.380
-1.780E-06,-1.380
-1.770E-06,-1.280
-1.760E-06,-1.140
-1.750E-06,-1.120
-1.740E-06,-1.020
-1.730E-06,-1.040
-1.720E-06,-1.020
-1.710E-06,-1.020
-1.700E-06,-1.000
-1.690E-06,-1.000
-1.680E-06,-1.000
-1.670E-06,-1.020
-1.660E-06,-0.960
-1.650E-06,-0.980
-1.640E-06,-0.960
-1.630E-06,-0.980
-1.620E-06,-0.980
-1.610E-06,-0.960
-1.600E-06,-0.900
-1.590E-06,-0.860
-1.580E-06,-0.800
-1.570E-06,-0.760
-1.560E-06,-0.740
-1.550E-06,-0.660
-1.540E-06,-0.600
-1.530E-06,-0.520
-1.520E-06,-0.440
-1.510E-06,-0.360
-1.500E-06,-0.300
-1.490E-06,-0.240
-1.480E-06,-0.160
-1.470E-06,-0.140
-1.460E-06,-0.060
-1.450E-06,-0.020
-1.440E-06,0.040
-1.430E-06,0.060
-1.420E-06,0.120
-1.410E-06,0.120
-1.400E-06,0.180
-1.390E-06,0.180
-1.380E-06,0.160
-1.370E-06,0.120
-1.360E-06,0.120
-1.350E-06,0.100
-1.340E-06,0.040
-1.330E-06,0.020
-1.320E-06,-0.020
-1.310E-06,-0.020
-1.300E-06,-0.060
-1.290E-06,-0.020
-1.280E-06,-0.060
-1.270E-06,-0.120
-1.260E-06,-0.140
-1.250E-06,-0.160
-1.240E-06,-0.240
-1.230E-06,-0.280
-1.220E-06,-0.340
-1.210E-06,-0.340
-1.200E-06,-0.360
-1.190E-06,-0.460
-1.180E-06,-0.480
-1.170E-06,-0.520
-1.160E-06,-0.500
-1.150E-06,-0.560
-1.140E-06,-0.600
-1.130E-06,-0.660
-1.120E-06,-0.680
-1.110E-06,-0.700
-1.100E-06,-0.740
-1.090E-06,-0.760
-1.080E-06,-0.840
-1.070E-06,-0.840
-1.060E-06,-0.880
-1.050E-06,-0.840
-1.040E-06,-0.860
-1.030E-06,-0.820
-1.020E-06,-0.920
-1.010E-06,-0.940
-1.000E-06,-1.080
-9.900E-07,-1.100
-9.800E-07,-1.140
-9.700E-07,-1.240
-9.600E-07,-1.380
-9.500E-07,-1.400
-9.400E-07,-1.520
-9.300E-07,-1.540
-9.200E-07,-1.560
-9.100E-07,-1.660
-9.000E-07,-1.700
-8.900E-07,-1.740
-8.800E-07,-1.760
-8.700E-07,-1.740
-8.600E-07,-1.740
-8.500E-07,-1.780
-8.400E-07,-1.760
-8.300E-07,-1.740
-8.200E-07,-1.640
-8.100E-07,-1.480
-8.000E-07,-1.420
-7.900E-07,-1.360
-7.800E-07,-1.300
-7.700E-07,-1.200
-7.600E-07,-1.100
-7.500E-07,-1.020
-7.400E-07,-0.920
-7.300E-07,-0.820
-7.200E-07,-0.760
-7.100E-07,-0.620
-7.000E-07,-0.500
-6.900E-07,-0.420
-6.800E-07,-0.380
-6.700E-07,-0.420
-6.600E-07,-0.380
-6.500E-07,-0.340
-6.400E-07,-0.300
-6.300E-07,-0.300
-6.200E-07,-0.300
-6.100E-07,-0.320
-6.000E-07,-0.380
-5.900E-07,-0.480
-5.800E-07,-0.580
-5.700E-07,-0.760
-5.600E-07,-0.940
-5.500E-07,-1.120
-5.400E-07,-1.320
-5.300E-07,-1.540
-5.200E-07,-1.800
-5.100E-07,-1.960
-5.000E-07,-2.100
-4.900E-07,-2.200
-4.800E-07,-2.280
-4.700E-07,-2.280
-4.600E-07,-2.260
-4.500E-07,-2.300
-4.400E-07,-2.280
-4.300E-07,-2.300
-4.200E-07,-2.280
-4.100E-07,-2.300
-4.000E-07,-2.300
-3.900E-07,-2.320
-3.800E-07,-2.340
-3.700E-07,-2.360
-3.600E-07,-2.380
-3.500E-07,-2.440
-3.400E-07,-2.440
-3.300E-07,-2.440
-3.200E-07,-2.400
-3.100E-07,-2.400
-3.000E-07,-2.380
-2.900E-07,-2.380
-2.800E-07,-2.400
-2.700E-07,-2.420
-2.600E-07,-2.480
-2.500E-07,-2.540
-2.400E-07,-2.620
-2.300E-07,-2.660
-2.200E-07,-2.660
-2.100E-07,-2.660
-2.000E-07,-2.660
-1.900E-07,-2.660
-1.800E-07,-2.640
-1.700E-07,-2.660
-1.600E-07,-2.660
-1.500E-07,-2.660
-1.400E-07,-2.660
-1.300E-07,-2.640
-1.200E-07,-2.660
-1.100E-07,-2.660
-1.000E-07,-2.660
-9.000E-08,-2.660
-8.000E-08,-2.660
-7.000E-08,-2.660
-6.000E-08,-2.660
-5.000E-08,-2.660
-4.000E-08,-2.580
-3.000E-08,-1.660
-2.000E-08,-2.020
-1.000E-08,-1.080
0.000E+00,-2.660
1.000E-08,-2.620
2.000E-08,-2.660
3.000E-08,-2.680
4.000E-08,-2.680
5.000E-08,-2.580
6.000E-08,-2.680
7.000E-08,-2.660
8.000E-08,-2.560
9.000E-08,-2.180
1.000E-07,-1.080
1.100E-07,-0.660
1.200E-07,-1.080
1.300E-07,-1.200
1.400E-07,-2.400
1.500E-07,-2.680
1.600E-07,-2.680
1.700E-07,-2.660
1.800E-07,-2.660
1.900E-07,-2.660
2.000E-07,-2.660
2.100E-07,-2.660
2.200E-07,-2.660
2.300E-07,-2.640
2.400E-07,-2.660
2.500E-07,-2.400
2.600E-07,-2.200
2.700E-07,-1.940
2.800E-07,-1.540
2.900E-07,-1.320
3.000E-07,-1.180
3.100E-07,-1.100
3.200E-07,-0.940
3.300E-07,-0.840
3.400E-07,-0.440
3.500E-07,-0.180
3.600E-07,0.300
3.700E-07,0.500
3.800E-07,0.760
3.900E-07,0.540
4.000E-07,0.500
4.100E-07,0.300
4.200E-07,0.340
4.300E-07,0.240
4.400E-07,0.220
4.500E-07,0.100
4.600E-07,0.160
4.700E-07,0.200
4.800E-07,0.340
4.900E-07,0.320
5.000E-07,0.320
5.100E-07,0.160
5.200E-07,-0.020
5.300E-07,-0.200
5.400E-07,-0.340
5.500E-07,-0.460
5.600E-07,-0.540
5.700E-07,-0.420
5.800E-07,-0.400
5.900E-07,-0.360
6.000E-07,-0.420
6.100E-07,-0.400
6.200E-07,-0.480
6.300E-07,-0.380
6.400E-07,-0.580
6.500E-07,-0.760
6.600E-07,-1.100
6.700E-07,-1.340
6.800E-07,-1.540
6.900E-07,-1.520
7.000E-07,-1.400
7.100E-07,-1.220
7.200E-07,-1.060
7.300E-07,-1.160
7.400E-07,-1.120
7.500E-07,-1.260
7.600E-07,-1.220
7.700E-07,-1.480
7.800E-07,-1.520
7.900E-07,-1.860
8.000E-07,-1.900
8.100E-07,-2.180
8.200E-07,-2.200
8.300E-07,-2.240
8.400E-07,-2.160
8.500E-07,-1.980
8.600E-07,-1.940
8.700E-07,-1.740
8.800E-07,-1.800
8.900E-07,-1.700
9.000E-07,-1.660
9.100E-07,-1.520
9.200E-07,-1.500
9.300E-07,-1.500
9.400E-07,-1.420
9.500E-07,-1.420
9.600E-07,-1.320
9.700E-07,-1.200
9.800E-07,-1.120
9.900E-07,-0.940
1.000E-06,-0.760
1.010E-06,-0.360
1.020E-06,-0.020
1.030E-06,0.380
1.040E-06,0.520
1.050E-06,0.640
1.060E-06,0.520
1.070E-06,0.560
1.080E-06,0.440
1.090E-06,0.480
1.100E-06,0.320
1.110E-06,0.000
1.120E-06,-0.280
1.130E-06,-0.560
1.140E-06,-0.740
1.150E-06,-0.840
1.160E-06,-0.920
1.170E-06,-1.180
1.180E-06,-1.440
1.190E-06,-1.660
1.200E-06,-1.860
1.210E-06,-2.020
1.220E-06,-2.240
1.230E-06,-2.380
1.240E-06,-2.480
1.250E-06,-2.660
1.260E-06,-2.660
1.270E-06,-2.680
1.280E-06,-2.660
1.290E-06,-2.660
1.300E-06,-2.640
1.310E-06,-2.660
1.320E-06,-2.660
1.330E-06,-2.660
1.340E-06,-2.660
1.350E-06,-2.660
1.360E-06,-2.120
1.370E-06,-1.040
1.380E-06,-0.560
1.390E-06,0.040
1.400E-06,-0.480
1.410E-06,-0.720
1.420E-06,-1.120
1.430E-06,-1.420
1.440E-06,-1.540
1.450E-06,-1.820
1.460E-06,-2.240
1.470E-06,-2.560
1.480E-06,-2.660
1.490E-06,-2.680
1.500E-06,-2.660
1.510E-06,-2.660
1.520E-06,-2.660
1.530E-06,-2.660
1.540E-06,-2.660
1.550E-06,-2.660
1.560E-06,-2.680
1.570E-06,-2.660
1.580E-06,-2.660
1.590E-06,-2.640
1.600E-06,-2.660
1.610E-06,-2.660
1.620E-06,-2.660
1.630E-06,-2.660
1.640E-06,-2.600
1.650E-06,-2.460
1.660E-06,-2.280
1.670E-06,-2.280
1.680E-06,-2.120
1.690E-06,-2.180
1.700E-06,-2.100
1.710E-06,-2.260
1.720E-06,-2.380
1.730E-06,-2.660
1.740E-06,-2.660
1.750E-06,-2.660
1.760E-06,-2.660
1.770E-06,-2.660
1.780E-06,-2.660
1.790E-06,-2.660
1.800E-06,-2.660
1.810E-06,-2.660
1.820E-06,-2.660
1.830E-06,-2.660
1.840E-06,-2.660
1.850E-06,-2.660
1.860E-06,-2.660
1.870E-06,-2.660
1.880E-06,-2.600
1.890E-06,-2.320
1.900E-06,-2.020
1.910E-06,-1.740
1.920E-06,-1.460
1.930E-06,-1.200
1.940E-06,-1.080
1.950E-06,-1.100
1.960E-06,-1.140
1.970E-06,-1.420
1.980E-06,-1.600
1.990E-06,-1.760
2.000E-06,-1.840
2.010E-06,-1.780
2.020E-06,-1.840
2.030E-06,-1.880
2.040E-06,-2.020
2.050E-06,-2.280
2.060E-06,-2.500
2.070E-06,-2.680
2.080E-06,-2.660
2.090E-06,-2.660
2.100E-06,-2.660
2.110E-06,-2.660
2.120E-06,-2.660
2.130E-06,-2.660
2.140E-06,-2.660
2.150E-06,-2.660
2.160E-06,-2.660
2.170E-06,-2.660
2.180E-06,-2.660
2.190E-06,-2.660
2.200E-06,-2.660
2.210E-06,-2.660
2.220E-06,-2.660
2.230E-06,-2.660
2.240E-06,-2.660
2.250E-06,-2.660
2.260E-06,-2.660
2.270E-06,-2.680
2.280E-06,-2.680
2.290E-06,-2.680
2.300E-06,-2.680
2.310E-06,-2.660
2.320E-06,-2.660
2.330E-06,-2.660
2.340E-06,-2.680
2.350E-06,-2.660
2.360E-06,-2.660
2.370E-06,-2.660
2.380E-06,-2.660
2.390E-06,-2.660
2.400E-06,-2.660
2.410E-06,-2.660
2.420E-06,-2.660
2.430E-06,-2.660
2.440E-06,-2.660
2.450E-06,-2.660
2.460E-06,-2.680
2.470E-06,-2.660
2.480E-06,-2.660
2.490E-06,-2.660
2.500E-06,-2.660
2.510E-06,-2.660
2.520E-06,-2.640
2.530E-06,-2.660
2.540E-06,-2.660
2.550E-06,-2.660
2.560E-06,-2.660
2.570E-06,-2.660
2.580E-06,-2.660
2.590E-06,-2.660
2.600E-06,-2.680
2.610E-06,-2.660
2.620E-06,-2.660
2.630E-06,-2.660
2.640E-06,-2.660
2.650E-06,-2.660
2.660E-06,-2.660
2.670E-06,-2.660
2.680E-06,-2.680
2.690E-06,-2.680
2.700E-06,-2.680
2.710E-06,-2.660
2.720E-06,-2.660
2.730E-06,-2.660
2.740E-06,-2.680
2.750E-06,-2.660
2.760E-06,-2.660
2.770E-06,-2.660
2.780E-06,-2.660
2.790E-06,-2.660
2.800E-06,-2.660
2.810E-06,-2.680
2.820E-06,-2.680
2.830E-06,-2.660
2.840E-06,-2.660
2.850E-06,-2.660
2.860E-06,-2.680
2.870E-06,-2.680
2.880E-06,-2.660
2.890E-06,-2.660
2.900E-06,-2.660
