mediciones/5-15/14.9/WaveData47327.csv

#timebase=2000000(ps)
,#voltbase=100000(mv/100)
#size=4000
-8.400E-06,0.004
-8.390E-06,0.004
-8.380E-06,0.004
-8.370E-06,-0.004
-8.360E-06,0.000
-8.350E-06,0.004
-8.340E-06,0.004
-8.330E-06,0.012
-8.320E-06,0.008
-8.310E-06,0.008
-8.300E-06,-0.004
-8.290E-06,-0.004
-8.280E-06,0.000
-8.270E-06,0.000
-8.260E-06,0.004
-8.250E-06,0.004
-8.240E-06,0.004
-8.230E-06,0.004
-8.220E-06,0.000
-8.210E-06,0.000
-8.200E-06,0.004
-8.190E-06,0.004
-8.180E-06,0.000
-8.170E-06,0.004
-8.160E-06,0.004
-8.150E-06,0.008
-8.140E-06,0.004
-8.130E-06,0.000
-8.120E-06,0.000
-8.110E-06,-0.004
-8.100E-06,-0.004
-8.090E-06,0.004
-8.080E-06,0.008
-8.070E-06,0.008
-8.060E-06,0.004
-8.050E-06,0.000
-8.040E-06,0.004
-8.030E-06,0.000
-8.020E-06,0.004
-8.010E-06,0.000
-8.000E-06,0.004
-7.990E-06,0.004
-7.980E-06,0.000
-7.970E-06,0.004
-7.960E-06,0.004
-7.950E-06,0.000
-7.940E-06,0.004
-7.930E-06,0.004
-7.920E-06,0.000
-7.910E-06,0.004
-7.900E-06,0.004
-7.890E-06,0.004
-7.880E-06,0.000
-7.870E-06,0.000
-7.860E-06,0.004
-7.850E-06,0.008
-7.840E-06,0.008
-7.830E-06,0.012
-7.820E-06,0.012
-7.810E-06,0.000
-7.800E-06,0.004
-7.790E-06,0.000
-7.780E-06,0.004
-7.770E-06,0.000
-7.760E-06,0.008
-7.750E-06,0.008
-7.740E-06,0.004
-7.730E-06,0.004
-7.720E-06,0.004
-7.710E-06,0.004
-7.700E-06,0.000
-7.690E-06,0.004
-7.680E-06,0.000
-7.670E-06,0.004
-7.660E-06,0.008
-7.650E-06,0.012
-7.640E-06,0.008
-7.630E-06,0.000
-7.620E-06,0.000
-7.610E-06,0.000
-7.600E-06,0.004
-7.590E-06,0.008
-7.580E-06,0.004
-7.570E-06,0.004
-7.560E-06,0.000
-7.550E-06,0.004
-7.540E-06,0.008
-7.530E-06,0.000
-7.520E-06,0.008
-7.510E-06,0.004
-7.500E-06,0.000
-7.490E-06,0.000
-7.480E-06,0.004
-7.470E-06,0.004
-7.460E-06,0.008
-7.450E-06,0.008
-7.440E-06,0.004
-7.430E-06,0.000
-7.420E-06,0.000
-7.410E-06,0.000
-7.400E-06,0.004
-7.390E-06,0.004
-7.380E-06,0.000
-7.370E-06,0.004
-7.360E-06,0.008
-7.350E-06,0.008
-7.340E-06,0.008
-7.330E-06,0.000
-7.320E-06,0.000
-7.310E-06,-0.004
-7.300E-06,-0.004
-7.290E-06,0.000
-7.280E-06,-0.004
-7.270E-06,0.004
-7.260E-06,0.008
-7.250E-06,0.000
-7.240E-06,-0.004
-7.230E-06,-0.004
-7.220E-06,-0.004
-7.210E-06,0.000
-7.200E-06,0.004
-7.190E-06,0.008
-7.180E-06,0.008
-7.170E-06,0.004
-7.160E-06,0.000
-7.150E-06,0.000
-7.140E-06,0.000
-7.130E-06,0.004
-7.120E-06,0.008
-7.110E-06,0.008
-7.100E-06,0.000
-7.090E-06,0.000
-7.080E-06,0.000
-7.070E-06,0.000
-7.060E-06,0.000
-7.050E-06,0.000
-7.040E-06,0.000
-7.030E-06,0.004
-7.020E-06,-0.004
-7.010E-06,0.000
-7.000E-06,-0.004
-6.990E-06,0.000
-6.980E-06,-0.004
-6.970E-06,0.004
-6.960E-06,0.012
-6.950E-06,0.008
-6.940E-06,0.000
-6.930E-06,-0.004
-6.920E-06,0.000
-6.910E-06,0.004
-6.900E-06,0.000
-6.890E-06,0.004
-6.880E-06,0.004
-6.870E-06,0.004
-6.860E-06,0.004
-6.850E-06,0.000
-6.840E-06,0.004
-6.830E-06,0.000
-6.820E-06,0.000
-6.810E-06,0.004
-6.800E-06,0.004
-6.790E-06,0.012
-6.780E-06,0.000
-6.770E-06,0.004
-6.760E-06,0.004
-6.750E-06,0.000
-6.740E-06,0.004
-6.730E-06,0.004
-6.720E-06,0.004
-6.710E-06,0.004
-6.700E-06,0.008
-6.690E-06,0.008
-6.680E-06,0.000
-6.670E-06,0.000
-6.660E-06,-0.004
-6.650E-06,-0.004
-6.640E-06,0.000
-6.630E-06,0.004
-6.620E-06,0.012
-6.610E-06,0.012
-6.600E-06,0.008
-6.590E-06,0.000
-6.580E-06,-0.004
-6.570E-06,-0.004
-6.560E-06,0.004
-6.550E-06,0.008
-6.540E-06,0.012
-6.530E-06,0.008
-6.520E-06,0.000
-6.510E-06,-0.004
-6.500E-06,-0.004
-6.490E-06,0.000
-6.480E-06,0.008
-6.470E-06,0.004
-6.460E-06,0.012
-6.450E-06,0.012
-6.440E-06,-0.004
-6.430E-06,-0.004
-6.420E-06,0.000
-6.410E-06,0.004
-6.400E-06,0.004
-6.390E-06,0.012
-6.380E-06,0.008
-6.370E-06,0.008
-6.360E-06,0.000
-6.350E-06,-0.008
-6.340E-06,-0.008
-6.330E-06,0.000
-6.320E-06,0.008
-6.310E-06,0.008
-6.300E-06,0.008
-6.290E-06,0.012
-6.280E-06,0.004
-6.270E-06,-0.004
-6.260E-06,0.000
-6.250E-06,0.000
-6.240E-06,0.000
-6.230E-06,0.000
-6.220E-06,0.004
-6.210E-06,0.004
-6.200E-06,0.000
-6.190E-06,0.004
-6.180E-06,-0.004
-6.170E-06,-0.004
-6.160E-06,-0.004
-6.150E-06,0.000
-6.140E-06,0.008
-6.130E-06,0.004
-6.120E-06,0.008
-6.110E-06,0.000
-6.100E-06,0.000
-6.090E-06,-0.008
-6.080E-06,-0.008
-6.070E-06,0.000
-6.060E-06,0.008
-6.050E-06,0.008
-6.040E-06,0.008
-6.030E-06,0.008
-6.020E-06,0.004
-6.010E-06,0.000
-6.000E-06,0.000
-5.990E-06,-0.004
-5.980E-06,0.008
-5.970E-06,0.008
-5.960E-06,0.008
-5.950E-06,0.008
-5.940E-06,0.004
-5.930E-06,0.000
-5.920E-06,0.004
-5.910E-06,0.000
-5.900E-06,0.000
-5.890E-06,0.008
-5.880E-06,0.008
-5.870E-06,0.008
-5.860E-06,0.008
-5.850E-06,0.000
-5.840E-06,0.000
-5.830E-06,-0.004
-5.820E-06,0.000
-5.810E-06,0.000
-5.800E-06,0.008
-5.790E-06,0.012
-5.780E-06,0.004
-5.770E-06,0.004
-5.760E-06,0.000
-5.750E-06,-0.008
-5.740E-06,0.000
-5.730E-06,0.004
-5.720E-06,0.012
-5.710E-06,0.012
-5.700E-06,0.008
-5.690E-06,0.000
-5.680E-06,0.000
-5.670E-06,-0.004
-5.660E-06,-0.008
-5.650E-06,0.000
-5.640E-06,0.004
-5.630E-06,0.012
-5.620E-06,0.004
-5.610E-06,0.000
-5.600E-06,-0.004
-5.590E-06,-0.004
-5.580E-06,-0.008
-5.570E-06,-0.004
-5.560E-06,0.008
-5.550E-06,0.012
-5.540E-06,0.016
-5.530E-06,0.008
-5.520E-06,-0.008
-5.510E-06,-0.004
-5.500E-06,-0.008
-5.490E-06,0.000
-5.480E-06,0.012
-5.470E-06,0.008
-5.460E-06,0.012
-5.450E-06,0.008
-5.440E-06,0.000
-5.430E-06,-0.004
-5.420E-06,-0.008
-5.410E-06,0.004
-5.400E-06,0.004
-5.390E-06,0.012
-5.380E-06,0.008
-5.370E-06,0.008
-5.360E-06,0.000
-5.350E-06,-0.004
-5.340E-06,-0.004
-5.330E-06,0.000
-5.320E-06,0.004
-5.310E-06,0.008
-5.300E-06,0.008
-5.290E-06,0.008
-5.280E-06,0.000
-5.270E-06,-0.004
-5.260E-06,-0.008
-5.250E-06,-0.004
-5.240E-06,0.004
-5.230E-06,0.008
-5.220E-06,0.012
-5.210E-06,0.012
-5.200E-06,0.008
-5.190E-06,0.008
-5.180E-06,0.004
-5.170E-06,-0.004
-5.160E-06,0.004
-5.150E-06,0.008
-5.140E-06,0.008
-5.130E-06,0.008
-5.120E-06,0.008
-5.110E-06,0.008
-5.100E-06,-0.004
-5.090E-06,-0.004
-5.080E-06,0.004
-5.070E-06,0.008
-5.060E-06,0.008
-5.050E-06,0.008
-5.040E-06,0.000
-5.030E-06,0.004
-5.020E-06,0.008
-5.010E-06,0.004
-5.000E-06,0.008
-4.990E-06,0.004
-4.980E-06,0.000
-4.970E-06,0.004
-4.960E-06,0.000
-4.950E-06,0.004
-4.940E-06,0.004
-4.930E-06,0.004
-4.920E-06,0.008
-4.910E-06,0.008
-4.900E-06,0.004
-4.890E-06,0.000
-4.880E-06,0.004
-4.870E-06,0.004
-4.860E-06,0.004
-4.850E-06,0.004
-4.840E-06,0.008
-4.830E-06,0.008
-4.820E-06,0.008
-4.810E-06,0.004
-4.800E-06,0.008
-4.790E-06,0.008
-4.780E-06,0.012
-4.770E-06,0.012
-4.760E-06,0.012
-4.750E-06,0.012
-4.740E-06,0.012
-4.730E-06,0.008
-4.720E-06,0.004
-4.710E-06,-0.008
-4.700E-06,-0.008
-4.690E-06,-0.016
-4.680E-06,-0.012
-4.670E-06,0.000
-4.660E-06,0.016
-4.650E-06,0.016
-4.640E-06,0.012
-4.630E-06,0.000
-4.620E-06,-0.012
-4.610E-06,-0.020
-4.600E-06,-0.008
-4.590E-06,0.008
-4.580E-06,0.016
-4.570E-06,0.016
-4.560E-06,0.008
-4.550E-06,0.000
-4.540E-06,-0.012
-4.530E-06,-0.008
-4.520E-06,-0.004
-4.510E-06,0.004
-4.500E-06,0.012
-4.490E-06,0.008
-4.480E-06,0.008
-4.470E-06,0.000
-4.460E-06,-0.004
-4.450E-06,-0.008
-4.440E-06,-0.008
-4.430E-06,0.000
-4.420E-06,0.004
-4.410E-06,0.012
-4.400E-06,0.008
-4.390E-06,0.004
-4.380E-06,-0.004
-4.370E-06,0.000
-4.360E-06,0.000
-4.350E-06,0.004
-4.340E-06,0.012
-4.330E-06,0.012
-4.320E-06,0.008
-4.310E-06,0.000
-4.300E-06,0.000
-4.290E-06,-0.004
-4.280E-06,0.004
-4.270E-06,0.008
-4.260E-06,0.008
-4.250E-06,0.008
-4.240E-06,0.008
-4.230E-06,0.004
-4.220E-06,0.000
-4.210E-06,0.004
-4.200E-06,0.004
-4.190E-06,0.004
-4.180E-06,0.008
-4.170E-06,0.004
-4.160E-06,0.000
-4.150E-06,0.004
-4.140E-06,0.004
-4.130E-06,-0.008
-4.120E-06,-0.004
-4.110E-06,0.000
-4.100E-06,0.008
-4.090E-06,0.004
-4.080E-06,0.008
-4.070E-06,0.008
-4.060E-06,0.004
-4.050E-06,0.008
-4.040E-06,-0.004
-4.030E-06,0.000
-4.020E-06,0.000
-4.010E-06,0.000
-4.000E-06,0.000
-3.990E-06,0.004
-3.980E-06,0.004
-3.970E-06,0.000
-3.960E-06,0.000
-3.950E-06,0.000
-3.940E-06,0.000
-3.930E-06,-0.004
-3.920E-06,0.000
-3.910E-06,0.000
-3.900E-06,0.000
-3.890E-06,0.004
-3.880E-06,0.004
-3.870E-06,0.004
-3.860E-06,0.000
-3.850E-06,-0.004
-3.840E-06,0.004
-3.830E-06,0.008
-3.820E-06,0.004
-3.810E-06,0.004
-3.800E-06,0.008
-3.790E-06,0.012
-3.780E-06,0.000
-3.770E-06,0.000
-3.760E-06,0.004
-3.750E-06,0.004
-3.740E-06,0.012
-3.730E-06,0.004
-3.720E-06,0.004
-3.710E-06,0.004
-3.700E-06,0.008
-3.690E-06,0.008
-3.680E-06,0.012
-3.670E-06,0.016
-3.660E-06,0.020
-3.650E-06,0.016
-3.640E-06,0.012
-3.630E-06,0.012
-3.620E-06,0.012
-3.610E-06,0.004
-3.600E-06,0.012
-3.590E-06,0.012
-3.580E-06,0.016
-3.570E-06,0.016
-3.560E-06,0.024
-3.550E-06,0.016
-3.540E-06,0.008
-3.530E-06,0.008
-3.520E-06,0.004
-3.510E-06,0.004
-3.500E-06,0.012
-3.490E-06,0.012
-3.480E-06,0.012
-3.470E-06,0.008
-3.460E-06,-0.012
-3.450E-06,-0.028
-3.440E-06,-0.036
-3.430E-06,-0.024
-3.420E-06,0.000
-3.410E-06,0.004
-3.400E-06,0.012
-3.390E-06,-0.004
-3.380E-06,-0.016
-3.370E-06,-0.016
-3.360E-06,-0.008
-3.350E-06,0.016
-3.340E-06,0.020
-3.330E-06,0.012
-3.320E-06,0.000
-3.310E-06,-0.008
-3.300E-06,-0.016
-3.290E-06,-0.008
-3.280E-06,0.004
-3.270E-06,0.012
-3.260E-06,0.012
-3.250E-06,0.012
-3.240E-06,0.008
-3.230E-06,0.000
-3.220E-06,-0.004
-3.210E-06,-0.004
-3.200E-06,-0.004
-3.190E-06,0.000
-3.180E-06,0.004
-3.170E-06,0.008
-3.160E-06,0.004
-3.150E-06,0.008
-3.140E-06,0.000
-3.130E-06,-0.004
-3.120E-06,-0.004
-3.110E-06,-0.004
-3.100E-06,0.008
-3.090E-06,0.012
-3.080E-06,0.012
-3.070E-06,0.012
-3.060E-06,0.000
-3.050E-06,0.000
-3.040E-06,-0.004
-3.030E-06,0.000
-3.020E-06,0.008
-3.010E-06,0.004
-3.000E-06,0.008
-2.990E-06,0.008
-2.980E-06,0.008
-2.970E-06,-0.008
-2.960E-06,0.000
-2.950E-06,-0.004
-2.940E-06,0.004
-2.930E-06,0.012
-2.920E-06,0.016
-2.910E-06,0.016
-2.900E-06,0.008
-2.890E-06,0.004
-2.880E-06,0.000
-2.870E-06,0.000
-2.860E-06,0.004
-2.850E-06,0.008
-2.840E-06,0.012
-2.830E-06,0.024
-2.820E-06,0.016
-2.810E-06,0.004
-2.800E-06,0.000
-2.790E-06,-0.004
-2.780E-06,-0.004
-2.770E-06,0.004
-2.760E-06,0.004
-2.750E-06,0.004
-2.740E-06,-0.004
-2.730E-06,-0.004
-2.720E-06,-0.004
-2.710E-06,0.000
-2.700E-06,0.008
-2.690E-06,0.012
-2.680E-06,0.004
-2.670E-06,0.008
-2.660E-06,0.004
-2.650E-06,0.012
-2.640E-06,0.016
-2.630E-06,0.024
-2.620E-06,0.028
-2.610E-06,0.020
-2.600E-06,0.016
-2.590E-06,0.012
-2.580E-06,0.012
-2.570E-06,0.016
-2.560E-06,0.028
-2.550E-06,0.024
-2.540E-06,0.020
-2.530E-06,0.024
-2.520E-06,0.008
-2.510E-06,0.008
-2.500E-06,0.008
-2.490E-06,0.020
-2.480E-06,0.024
-2.470E-06,0.044
-2.460E-06,0.048
-2.450E-06,0.036
-2.440E-06,0.012
-2.430E-06,-0.004
-2.420E-06,-0.004
-2.410E-06,0.012
-2.400E-06,0.028
-2.390E-06,0.056
-2.380E-06,0.056
-2.370E-06,0.044
-2.360E-06,0.024
-2.350E-06,0.012
-2.340E-06,-0.008
-2.330E-06,-0.020
-2.320E-06,-0.012
-2.310E-06,-0.008
-2.300E-06,-0.008
-2.290E-06,0.016
-2.280E-06,0.020
-2.270E-06,0.032
-2.260E-06,0.028
-2.250E-06,0.020
-2.240E-06,-0.012
-2.230E-06,-0.052
-2.220E-06,-0.056
-2.210E-06,-0.052
-2.200E-06,-0.016
-2.190E-06,0.004
-2.180E-06,0.008
-2.170E-06,-0.016
-2.160E-06,-0.008
-2.150E-06,0.020
-2.140E-06,0.040
-2.130E-06,0.020
-2.120E-06,-0.004
-2.110E-06,-0.020
-2.100E-06,-0.008
-2.090E-06,0.016
-2.080E-06,0.040
-2.070E-06,0.044
-2.060E-06,0.024
-2.050E-06,0.008
-2.040E-06,-0.008
-2.030E-06,-0.004
-2.020E-06,0.000
-2.010E-06,0.012
-2.000E-06,0.016
-1.990E-06,0.008
-1.980E-06,0.012
-1.970E-06,0.024
-1.960E-06,0.036
-1.950E-06,0.052
-1.940E-06,0.048
-1.930E-06,0.016
-1.920E-06,-0.004
-1.910E-06,-0.040
-1.900E-06,-0.056
-1.890E-06,-0.044
-1.880E-06,-0.004
-1.870E-06,0.020
-1.860E-06,0.036
-1.850E-06,0.060
-1.840E-06,0.044
-1.830E-06,-0.008
-1.820E-06,-0.060
-1.810E-06,-0.096
-1.800E-06,-0.056
-1.790E-06,-0.020
-1.780E-06,0.040
-1.770E-06,0.044
-1.760E-06,0.024
-1.750E-06,-0.004
-1.740E-06,-0.012
-1.730E-06,-0.008
-1.720E-06,-0.012
-1.710E-06,-0.020
-1.700E-06,0.008
-1.690E-06,0.052
-1.680E-06,0.076
-1.670E-06,0.072
-1.660E-06,0.028
-1.650E-06,-0.008
-1.640E-06,-0.016
-1.630E-06,0.000
-1.620E-06,0.044
-1.610E-06,0.076
-1.600E-06,0.096
-1.590E-06,0.060
-1.580E-06,0.020
-1.570E-06,-0.032
-1.560E-06,-0.040
-1.550E-06,-0.012
-1.540E-06,0.024
-1.530E-06,0.064
-1.520E-06,0.060
-1.510E-06,0.016
-1.500E-06,-0.032
-1.490E-06,-0.068
-1.480E-06,-0.124
-1.470E-06,-0.112
-1.460E-06,-0.184
-1.450E-06,-0.160
-1.440E-06,-0.096
-1.430E-06,0.024
-1.420E-06,0.072
-1.410E-06,0.100
-1.400E-06,0.068
-1.390E-06,-0.056
-1.380E-06,-0.120
-1.370E-06,-0.128
-1.360E-06,-0.028
-1.350E-06,0.092
-1.340E-06,0.156
-1.330E-06,0.092
-1.320E-06,0.012
-1.310E-06,-0.068
-1.300E-06,-0.096
-1.290E-06,-0.052
-1.280E-06,0.020
-1.270E-06,0.096
-1.260E-06,0.096
-1.250E-06,0.060
-1.240E-06,0.008
-1.230E-06,-0.020
-1.220E-06,-0.044
-1.210E-06,-0.032
-1.200E-06,0.012
-1.190E-06,0.084
-1.180E-06,0.112
-1.170E-06,0.092
-1.160E-06,0.044
-1.150E-06,0.000
-1.140E-06,-0.024
-1.130E-06,0.000
-1.120E-06,0.064
-1.110E-06,0.108
-1.100E-06,0.124
-1.090E-06,0.092
-1.080E-06,0.032
-1.070E-06,-0.008
-1.060E-06,-0.048
-1.050E-06,-0.036
-1.040E-06,0.008
-1.030E-06,0.052
-1.020E-06,0.080
-1.010E-06,0.096
-1.000E-06,0.076
-9.900E-07,0.048
-9.800E-07,0.008
-9.700E-07,-0.004
-9.600E-07,0.012
-9.500E-07,0.060
-9.400E-07,0.100
-9.300E-07,0.120
-9.200E-07,0.104
-9.100E-07,0.056
-9.000E-07,0.008
-8.900E-07,0.000
-8.800E-07,-0.004
-8.700E-07,0.024
-8.600E-07,0.048
-8.500E-07,0.052
-8.400E-07,-0.024
-8.300E-07,-0.140
-8.200E-07,-0.276
-8.100E-07,-0.336
-8.000E-07,-0.364
-7.900E-07,-0.240
-7.800E-07,0.024
-7.700E-07,0.164
-7.600E-07,0.188
-7.500E-07,0.104
-7.400E-07,0.008
-7.300E-07,-0.220
-7.200E-07,-0.236
-7.100E-07,-0.140
-7.000E-07,0.136
-6.900E-07,0.284
-6.800E-07,0.260
-6.700E-07,0.156
-6.600E-07,-0.024
-6.500E-07,-0.140
-6.400E-07,-0.216
-6.300E-07,-0.136
-6.200E-07,-0.060
-6.100E-07,0.096
-6.000E-07,0.128
-5.900E-07,0.120
-5.800E-07,-0.028
-5.700E-07,-0.108
-5.600E-07,-0.140
-5.500E-07,-0.052
-5.400E-07,0.048
-5.300E-07,0.124
-5.200E-07,0.128
-5.100E-07,0.012
-5.000E-07,-0.052
-4.900E-07,-0.100
-4.800E-07,-0.032
-4.700E-07,0.028
-4.600E-07,0.120
-4.500E-07,0.100
-4.400E-07,0.056
-4.300E-07,0.012
-4.200E-07,0.024
-4.100E-07,0.060
-4.000E-07,0.060
-3.900E-07,0.068
-3.800E-07,0.028
-3.700E-07,-0.016
-3.600E-07,-0.056
-3.500E-07,-0.040
-3.400E-07,-0.012
-3.300E-07,0.060
-3.200E-07,0.096
-3.100E-07,0.104
-3.000E-07,0.068
-2.900E-07,0.028
-2.800E-07,-0.020
-2.700E-07,-0.044
-2.600E-07,-0.020
-2.500E-07,0.036
-2.400E-07,0.108
-2.300E-07,0.120
-2.200E-07,0.104
-2.100E-07,0.040
-2.000E-07,-0.016
-1.900E-07,-0.044
-1.800E-07,-0.004
-1.700E-07,0.056
-1.600E-07,0.108
-1.500E-07,0.132
-1.400E-07,0.112
-1.300E-07,0.064
-1.200E-07,0.000
-1.100E-07,-0.036
-1.000E-07,-0.028
-9.000E-08,0.016
-8.000E-08,0.092
-7.000E-08,0.124
-6.000E-08,-0.108
-5.000E-08,-0.512
-4.000E-08,-0.508
-3.000E-08,-0.512
-2.000E-08,-0.468
-1.000E-08,0.228
0.000E+00,0.540
1.000E-08,0.544
2.000E-08,0.280
3.000E-08,-0.348
4.000E-08,-0.508
5.000E-08,-0.512
6.000E-08,-0.208
7.000E-08,0.088
8.000E-08,0.360
9.000E-08,0.516
1.000E-07,0.308
1.100E-07,0.108
1.200E-07,-0.312
1.300E-07,-0.440
1.400E-07,-0.392
1.500E-07,-0.024
1.600E-07,0.260
1.700E-07,0.488
1.800E-07,0.404
1.900E-07,0.132
2.000E-07,-0.092
2.100E-07,-0.244
2.200E-07,-0.160
2.300E-07,-0.012
2.400E-07,0.228
2.500E-07,0.288
2.600E-07,0.292
2.700E-07,0.088
2.800E-07,-0.140
2.900E-07,-0.324
3.000E-07,-0.400
3.100E-07,-0.272
3.200E-07,-0.044
3.300E-07,0.188
3.400E-07,0.232
3.500E-07,0.180
3.600E-07,-0.004
3.700E-07,-0.144
3.800E-07,-0.212
3.900E-07,-0.120
4.000E-07,0.016
4.100E-07,0.132
4.200E-07,0.200
4.300E-07,0.148
4.400E-07,0.080
4.500E-07,-0.040
4.600E-07,-0.100
4.700E-07,-0.124
4.800E-07,-0.044
4.900E-07,0.036
5.000E-07,0.128
5.100E-07,0.176
5.200E-07,0.152
5.300E-07,0.076
5.400E-07,0.008
5.500E-07,-0.016
5.600E-07,-0.004
5.700E-07,0.052
5.800E-07,0.092
5.900E-07,0.080
6.000E-07,0.000
6.100E-07,-0.084
6.200E-07,-0.156
6.300E-07,-0.184
6.400E-07,-0.160
6.500E-07,-0.104
6.600E-07,-0.064
6.700E-07,-0.040
6.800E-07,-0.016
6.900E-07,0.012
7.000E-07,0.044
7.100E-07,0.040
7.200E-07,0.000
7.300E-07,-0.056
7.400E-07,-0.060
7.500E-07,-0.012
7.600E-07,0.056
7.700E-07,0.108
7.800E-07,0.104
7.900E-07,0.076
8.000E-07,0.040
8.100E-07,0.020
8.200E-07,0.012
8.300E-07,0.004
8.400E-07,0.000
8.500E-07,-0.020
8.600E-07,-0.020
8.700E-07,-0.028
8.800E-07,-0.032
8.900E-07,-0.044
9.000E-07,-0.020
9.100E-07,0.008
9.200E-07,-0.004
9.300E-07,0.012
9.400E-07,0.012
9.500E-07,0.036
9.600E-07,0.004
9.700E-07,-0.008
9.800E-07,-0.032
9.900E-07,-0.020
1.000E-06,0.020
1.010E-06,0.056
1.020E-06,0.072
1.030E-06,0.044
1.040E-06,0.004
1.050E-06,-0.040
1.060E-06,-0.024
1.070E-06,0.000
1.080E-06,0.044
1.090E-06,0.056
1.100E-06,0.048
1.110E-06,0.024
1.120E-06,0.000
1.130E-06,0.000
1.140E-06,0.004
1.150E-06,0.040
1.160E-06,0.064
1.170E-06,0.092
1.180E-06,0.092
1.190E-06,0.076
1.200E-06,0.024
1.210E-06,0.012
1.220E-06,0.004
1.230E-06,0.024
1.240E-06,0.040
1.250E-06,0.080
1.260E-06,0.092
1.270E-06,0.072
1.280E-06,0.036
1.290E-06,-0.004
1.300E-06,-0.004
1.310E-06,0.020
1.320E-06,0.056
1.330E-06,0.068
1.340E-06,0.072
1.350E-06,0.064
1.360E-06,0.044
1.370E-06,0.036
1.380E-06,0.044
1.390E-06,0.056
1.400E-06,0.056
1.410E-06,0.056
1.420E-06,0.028
1.430E-06,-0.176
1.440E-06,-0.448
1.450E-06,-0.512
1.460E-06,-0.512
1.470E-06,-0.348
1.480E-06,0.200
1.490E-06,0.540
1.500E-06,0.404
1.510E-06,0.104
1.520E-06,-0.204
1.530E-06,-0.292
1.540E-06,-0.224
1.550E-06,-0.076
1.560E-06,0.108
1.570E-06,0.240
1.580E-06,0.288
1.590E-06,0.176
1.600E-06,0.000
1.610E-06,-0.156
1.620E-06,-0.200
1.630E-06,-0.096
1.640E-06,0.076
1.650E-06,0.224
1.660E-06,0.272
1.670E-06,0.212
1.680E-06,0.088
1.690E-06,-0.020
1.700E-06,-0.072
1.710E-06,-0.020
1.720E-06,0.072
1.730E-06,0.152
1.740E-06,0.180
1.750E-06,0.140
1.760E-06,0.028
1.770E-06,-0.084
1.780E-06,-0.140
1.790E-06,-0.132
1.800E-06,-0.048
1.810E-06,0.000
1.820E-06,0.000
1.830E-06,-0.072
1.840E-06,-0.240
1.850E-06,-0.276
1.860E-06,-0.168
1.870E-06,-0.036
1.880E-06,0.000
1.890E-06,0.012
1.900E-06,0.020
1.910E-06,0.012
1.920E-06,0.032
1.930E-06,0.008
1.940E-06,-0.024
1.950E-06,-0.064
1.960E-06,-0.044
1.970E-06,-0.024
1.980E-06,0.040
1.990E-06,0.088
2.000E-06,0.072
2.010E-06,0.044
2.020E-06,0.012
2.030E-06,-0.004
2.040E-06,-0.008
2.050E-06,0.012
2.060E-06,0.032
2.070E-06,0.092
2.080E-06,0.112
2.090E-06,0.124
2.100E-06,0.076
2.110E-06,-0.024
2.120E-06,-0.084
2.130E-06,-0.096
2.140E-06,-0.032
2.150E-06,0.004
2.160E-06,0.044
2.170E-06,0.044
2.180E-06,0.032
2.190E-06,0.000
2.200E-06,-0.028
2.210E-06,-0.048
2.220E-06,-0.036
2.230E-06,0.008
2.240E-06,0.068
2.250E-06,0.124
2.260E-06,0.120
2.270E-06,0.088
2.280E-06,0.004
2.290E-06,-0.024
2.300E-06,-0.044
2.310E-06,-0.016
2.320E-06,0.052
2.330E-06,0.124
2.340E-06,0.124
2.350E-06,0.088
2.360E-06,0.032
2.370E-06,-0.012
2.380E-06,-0.016
2.390E-06,0.008
2.400E-06,0.076
2.410E-06,0.096
2.420E-06,0.096
2.430E-06,0.080
2.440E-06,0.024
2.450E-06,-0.016
2.460E-06,-0.024
2.470E-06,-0.004
2.480E-06,0.008
2.490E-06,0.048
2.500E-06,0.072
2.510E-06,0.088
2.520E-06,0.068
2.530E-06,0.048
2.540E-06,0.068
2.550E-06,0.088
2.560E-06,0.080
2.570E-06,0.044
2.580E-06,-0.004
2.590E-06,-0.068
2.600E-06,-0.096
2.610E-06,-0.168
2.620E-06,-0.208
2.630E-06,-0.144
2.640E-06,-0.380
2.650E-06,-0.508
2.660E-06,-0.424
2.670E-06,-0.076
2.680E-06,0.132
2.690E-06,0.236
2.700E-06,0.272
2.710E-06,-0.108
2.720E-06,-0.296
2.730E-06,-0.176
2.740E-06,0.004
2.750E-06,-0.016
2.760E-06,-0.056
2.770E-06,-0.068
2.780E-06,0.028
2.790E-06,0.176
2.800E-06,0.248
2.810E-06,0.176
2.820E-06,-0.020
2.830E-06,-0.180
2.840E-06,-0.232
2.850E-06,-0.116
2.860E-06,0.076
2.870E-06,0.228
2.880E-06,0.264
2.890E-06,0.192
2.900E-06,0.036
2.910E-06,-0.120
2.920E-06,-0.184
2.930E-06,-0.160
2.940E-06,-0.008
2.950E-06,0.156
2.960E-06,0.292
2.970E-06,0.288
2.980E-06,0.156
2.990E-06,-0.036
3.000E-06,-0.156
3.010E-06,-0.128
3.020E-06,0.020
3.030E-06,0.208
3.040E-06,0.308
3.050E-06,0.292
3.060E-06,0.128
3.070E-06,-0.096
3.080E-06,-0.296
3.090E-06,-0.368
3.100E-06,-0.296
3.110E-06,-0.104
3.120E-06,0.100
3.130E-06,0.188
3.140E-06,0.096
3.150E-06,-0.068
3.160E-06,-0.248
3.170E-06,-0.300
3.180E-06,-0.196
3.190E-06,0.000
3.200E-06,0.184
3.210E-06,0.260
3.220E-06,0.184
3.230E-06,0.028
3.240E-06,-0.136
3.250E-06,-0.204
3.260E-06,-0.144
3.270E-06,0.008
3.280E-06,0.160
3.290E-06,0.232
3.300E-06,0.192
3.310E-06,0.060
