mediciones/5-15/14.9/WaveData47317.csv

#timebase=2000000(ps)
,#voltbase=100000(mv/100)
#size=4000
-8.400E-06,0.208
-8.390E-06,0.064
-8.380E-06,-0.124
-8.370E-06,-0.236
-8.360E-06,-0.196
-8.350E-06,-0.028
-8.340E-06,0.136
-8.330E-06,0.192
-8.320E-06,0.124
-8.310E-06,0.000
-8.300E-06,-0.120
-8.290E-06,-0.148
-8.280E-06,-0.100
-8.270E-06,0.016
-8.260E-06,0.096
-8.250E-06,0.132
-8.240E-06,0.076
-8.230E-06,-0.008
-8.220E-06,-0.072
-8.210E-06,-0.100
-8.200E-06,-0.056
-8.190E-06,0.004
-8.180E-06,0.072
-8.170E-06,0.092
-8.160E-06,0.076
-8.150E-06,0.012
-8.140E-06,-0.036
-8.130E-06,-0.072
-8.120E-06,-0.060
-8.110E-06,-0.004
-8.100E-06,0.048
-8.090E-06,0.084
-8.080E-06,0.064
-8.070E-06,0.016
-8.060E-06,-0.036
-8.050E-06,-0.060
-8.040E-06,-0.052
-8.030E-06,-0.004
-8.020E-06,0.052
-8.010E-06,0.080
-8.000E-06,0.056
-7.990E-06,0.012
-7.980E-06,-0.032
-7.970E-06,-0.052
-7.960E-06,-0.032
-7.950E-06,0.008
-7.940E-06,0.060
-7.930E-06,0.088
-7.920E-06,0.076
-7.910E-06,0.032
-7.900E-06,0.008
-7.890E-06,-0.008
-7.880E-06,0.008
-7.870E-06,0.040
-7.860E-06,0.036
-7.850E-06,0.044
-7.840E-06,-0.004
-7.830E-06,-0.060
-7.820E-06,-0.092
-7.810E-06,-0.076
-7.800E-06,-0.008
-7.790E-06,0.064
-7.780E-06,0.124
-7.770E-06,0.120
-7.760E-06,0.060
-7.750E-06,-0.024
-7.740E-06,-0.112
-7.730E-06,-0.172
-7.720E-06,-0.108
-7.710E-06,-0.028
-7.700E-06,0.044
-7.690E-06,0.112
-7.680E-06,0.044
-7.670E-06,-0.024
-7.660E-06,-0.076
-7.650E-06,-0.052
-7.640E-06,0.000
-7.630E-06,0.044
-7.620E-06,0.040
-7.610E-06,0.012
-7.600E-06,-0.028
-7.590E-06,-0.048
-7.580E-06,-0.008
-7.570E-06,0.024
-7.560E-06,0.040
-7.550E-06,0.008
-7.540E-06,-0.012
-7.530E-06,-0.036
-7.520E-06,-0.024
-7.510E-06,0.008
-7.500E-06,0.044
-7.490E-06,0.060
-7.480E-06,0.032
-7.470E-06,-0.008
-7.460E-06,-0.036
-7.450E-06,-0.040
-7.440E-06,-0.024
-7.430E-06,0.012
-7.420E-06,0.036
-7.410E-06,0.052
-7.400E-06,0.028
-7.390E-06,-0.004
-7.380E-06,-0.024
-7.370E-06,-0.040
-7.360E-06,-0.012
-7.350E-06,0.016
-7.340E-06,0.052
-7.330E-06,0.056
-7.320E-06,0.040
-7.310E-06,0.020
-7.300E-06,-0.008
-7.290E-06,-0.020
-7.280E-06,-0.008
-7.270E-06,0.020
-7.260E-06,0.028
-7.250E-06,0.040
-7.240E-06,0.012
-7.230E-06,-0.004
-7.220E-06,-0.028
-7.210E-06,-0.020
-7.200E-06,0.024
-7.190E-06,0.076
-7.180E-06,0.120
-7.170E-06,0.092
-7.160E-06,0.040
-7.150E-06,-0.048
-7.140E-06,-0.100
-7.130E-06,-0.108
-7.120E-06,-0.052
-7.110E-06,0.024
-7.100E-06,0.072
-7.090E-06,0.084
-7.080E-06,0.036
-7.070E-06,0.032
-7.060E-06,0.020
-7.050E-06,0.040
-7.040E-06,0.044
-7.030E-06,0.008
-7.020E-06,-0.048
-7.010E-06,-0.100
-7.000E-06,-0.104
-6.990E-06,-0.096
-6.980E-06,-0.044
-6.970E-06,0.004
-6.960E-06,0.040
-6.950E-06,0.068
-6.940E-06,0.052
-6.930E-06,-0.036
-6.920E-06,-0.096
-6.910E-06,-0.108
-6.900E-06,-0.056
-6.890E-06,0.016
-6.880E-06,0.108
-6.870E-06,0.108
-6.860E-06,0.040
-6.850E-06,-0.036
-6.840E-06,-0.096
-6.830E-06,-0.100
-6.820E-06,-0.040
-6.810E-06,0.040
-6.800E-06,0.092
-6.790E-06,0.088
-6.780E-06,0.064
-6.770E-06,-0.012
-6.760E-06,-0.052
-6.750E-06,-0.068
-6.740E-06,-0.056
-6.730E-06,-0.008
-6.720E-06,0.060
-6.710E-06,0.072
-6.700E-06,0.052
-6.690E-06,0.012
-6.680E-06,-0.036
-6.670E-06,-0.060
-6.660E-06,-0.052
-6.650E-06,-0.008
-6.640E-06,0.036
-6.630E-06,0.064
-6.620E-06,0.048
-6.610E-06,0.028
-6.600E-06,-0.008
-6.590E-06,-0.040
-6.580E-06,-0.036
-6.570E-06,-0.004
-6.560E-06,0.032
-6.550E-06,0.056
-6.540E-06,0.056
-6.530E-06,0.036
-6.520E-06,0.016
-6.510E-06,-0.004
-6.500E-06,-0.008
-6.490E-06,0.012
-6.480E-06,0.056
-6.470E-06,0.088
-6.460E-06,0.084
-6.450E-06,0.072
-6.440E-06,0.036
-6.430E-06,0.016
-6.420E-06,-0.020
-6.410E-06,-0.052
-6.400E-06,-0.068
-6.390E-06,-0.056
-6.380E-06,-0.036
-6.370E-06,-0.168
-6.360E-06,-0.188
-6.350E-06,-0.056
-6.340E-06,0.092
-6.330E-06,0.096
-6.320E-06,0.172
-6.310E-06,0.004
-6.300E-06,-0.152
-6.290E-06,-0.168
-6.280E-06,-0.072
-6.270E-06,0.108
-6.260E-06,0.156
-6.250E-06,0.100
-6.240E-06,-0.052
-6.230E-06,-0.128
-6.220E-06,-0.140
-6.210E-06,0.012
-6.200E-06,0.108
-6.190E-06,0.144
-6.180E-06,0.052
-6.170E-06,-0.028
-6.160E-06,-0.100
-6.150E-06,-0.096
-6.140E-06,-0.024
-6.130E-06,0.032
-6.120E-06,0.088
-6.110E-06,0.072
-6.100E-06,0.052
-6.090E-06,-0.016
-6.080E-06,-0.036
-6.070E-06,-0.068
-6.060E-06,-0.048
-6.050E-06,-0.004
-6.040E-06,0.068
-6.030E-06,0.084
-6.020E-06,0.076
-6.010E-06,0.028
-6.000E-06,-0.040
-5.990E-06,-0.056
-5.980E-06,-0.036
-5.970E-06,0.036
-5.960E-06,0.108
-5.950E-06,0.160
-5.940E-06,0.140
-5.930E-06,0.048
-5.920E-06,-0.068
-5.910E-06,-0.160
-5.900E-06,-0.156
-5.890E-06,-0.080
-5.880E-06,0.052
-5.870E-06,0.128
-5.860E-06,0.176
-5.850E-06,0.144
-5.840E-06,0.008
-5.830E-06,-0.180
-5.820E-06,-0.260
-5.810E-06,-0.180
-5.800E-06,-0.008
-5.790E-06,0.128
-5.780E-06,0.208
-5.770E-06,0.128
-5.760E-06,-0.028
-5.750E-06,-0.136
-5.740E-06,-0.152
-5.730E-06,-0.060
-5.720E-06,0.032
-5.710E-06,0.112
-5.700E-06,0.104
-5.690E-06,0.032
-5.680E-06,-0.044
-5.670E-06,-0.076
-5.660E-06,-0.068
-5.650E-06,-0.020
-5.640E-06,0.032
-5.630E-06,0.056
-5.620E-06,0.068
-5.610E-06,0.044
-5.600E-06,0.016
-5.590E-06,-0.032
-5.580E-06,-0.044
-5.570E-06,-0.036
-5.560E-06,-0.004
-5.550E-06,0.040
-5.540E-06,0.060
-5.530E-06,0.064
-5.520E-06,0.024
-5.510E-06,-0.004
-5.500E-06,-0.040
-5.490E-06,-0.036
-5.480E-06,-0.004
-5.470E-06,0.052
-5.460E-06,0.072
-5.450E-06,0.060
-5.440E-06,0.032
-5.430E-06,0.000
-5.420E-06,-0.032
-5.410E-06,-0.032
-5.400E-06,0.008
-5.390E-06,0.040
-5.380E-06,0.048
-5.370E-06,0.036
-5.360E-06,0.028
-5.350E-06,0.008
-5.340E-06,0.008
-5.330E-06,0.012
-5.320E-06,0.036
-5.310E-06,0.024
-5.300E-06,-0.036
-5.290E-06,-0.104
-5.280E-06,-0.136
-5.270E-06,-0.108
-5.260E-06,-0.020
-5.250E-06,0.088
-5.240E-06,0.124
-5.230E-06,0.004
-5.220E-06,-0.088
-5.210E-06,-0.108
-5.200E-06,-0.040
-5.190E-06,0.040
-5.180E-06,0.088
-5.170E-06,0.064
-5.160E-06,-0.028
-5.150E-06,-0.076
-5.140E-06,-0.076
-5.130E-06,-0.004
-5.120E-06,0.064
-5.110E-06,0.096
-5.100E-06,0.044
-5.090E-06,-0.028
-5.080E-06,-0.072
-5.070E-06,-0.056
-5.060E-06,-0.004
-5.050E-06,0.052
-5.040E-06,0.080
-5.030E-06,0.060
-5.020E-06,0.028
-5.010E-06,-0.020
-5.000E-06,-0.040
-4.990E-06,-0.044
-4.980E-06,0.000
-4.970E-06,0.040
-4.960E-06,0.068
-4.950E-06,0.064
-4.940E-06,0.024
-4.930E-06,-0.008
-4.920E-06,-0.044
-4.910E-06,-0.040
-4.900E-06,-0.004
-4.890E-06,0.036
-4.880E-06,0.076
-4.870E-06,0.088
-4.860E-06,0.068
-4.850E-06,0.024
-4.840E-06,-0.012
-4.830E-06,-0.020
-4.820E-06,0.016
-4.810E-06,0.080
-4.800E-06,0.128
-4.790E-06,0.124
-4.780E-06,0.060
-4.770E-06,-0.040
-4.760E-06,-0.108
-4.750E-06,-0.104
-4.740E-06,-0.044
-4.730E-06,0.040
-4.720E-06,0.108
-4.710E-06,0.108
-4.700E-06,0.052
-4.690E-06,0.000
-4.680E-06,-0.040
-4.670E-06,-0.004
-4.660E-06,-0.076
-4.650E-06,-0.128
-4.640E-06,-0.148
-4.630E-06,-0.096
-4.620E-06,-0.020
-4.610E-06,0.068
-4.600E-06,0.140
-4.590E-06,0.040
-4.580E-06,-0.040
-4.570E-06,-0.136
-4.560E-06,-0.104
-4.550E-06,-0.008
-4.540E-06,0.084
-4.530E-06,0.108
-4.520E-06,0.060
-4.510E-06,-0.024
-4.500E-06,-0.108
-4.490E-06,-0.076
-4.480E-06,-0.020
-4.470E-06,0.044
-4.460E-06,0.060
-4.450E-06,0.076
-4.440E-06,0.032
-4.430E-06,-0.004
-4.420E-06,-0.040
-4.410E-06,-0.048
-4.400E-06,-0.016
-4.390E-06,0.016
-4.380E-06,0.056
-4.370E-06,0.060
-4.360E-06,0.036
-4.350E-06,0.000
-4.340E-06,-0.008
-4.330E-06,-0.024
-4.320E-06,-0.004
-4.310E-06,0.008
-4.300E-06,0.028
-4.290E-06,0.044
-4.280E-06,0.040
-4.270E-06,0.024
-4.260E-06,0.004
-4.250E-06,0.004
-4.240E-06,0.016
-4.230E-06,0.040
-4.220E-06,0.064
-4.210E-06,0.072
-4.200E-06,0.024
-4.190E-06,-0.004
-4.180E-06,-0.008
-4.170E-06,0.004
-4.160E-06,0.044
-4.150E-06,0.084
-4.140E-06,0.100
-4.130E-06,0.056
-4.120E-06,0.016
-4.110E-06,-0.064
-4.100E-06,-0.112
-4.090E-06,-0.108
-4.080E-06,-0.040
-4.070E-06,0.056
-4.060E-06,0.152
-4.050E-06,0.168
-4.040E-06,0.116
-4.030E-06,0.036
-4.020E-06,-0.040
-4.010E-06,-0.056
-4.000E-06,-0.032
-3.990E-06,-0.024
-3.980E-06,0.020
-3.970E-06,0.004
-3.960E-06,-0.040
-3.950E-06,-0.104
-3.940E-06,-0.060
-3.930E-06,-0.072
-3.920E-06,-0.068
-3.910E-06,-0.124
-3.900E-06,0.000
-3.890E-06,0.100
-3.880E-06,0.088
-3.870E-06,0.060
-3.860E-06,-0.088
-3.850E-06,-0.120
-3.840E-06,-0.140
-3.830E-06,-0.036
-3.820E-06,0.028
-3.810E-06,0.100
-3.800E-06,0.072
-3.790E-06,0.008
-3.780E-06,-0.044
-3.770E-06,-0.088
-3.760E-06,-0.056
-3.750E-06,-0.020
-3.740E-06,0.060
-3.730E-06,0.076
-3.720E-06,0.092
-3.710E-06,0.012
-3.700E-06,-0.036
-3.690E-06,-0.092
-3.680E-06,-0.076
-3.670E-06,-0.004
-3.660E-06,0.060
-3.650E-06,0.108
-3.640E-06,0.076
-3.630E-06,0.020
-3.620E-06,-0.060
-3.610E-06,-0.076
-3.600E-06,-0.064
-3.590E-06,0.016
-3.580E-06,0.084
-3.570E-06,0.132
-3.560E-06,0.108
-3.550E-06,0.060
-3.540E-06,-0.008
-3.530E-06,-0.056
-3.520E-06,-0.036
-3.510E-06,0.016
-3.500E-06,0.100
-3.490E-06,0.152
-3.480E-06,0.160
-3.470E-06,0.108
-3.460E-06,0.028
-3.450E-06,-0.040
-3.440E-06,-0.056
-3.430E-06,-0.012
-3.420E-06,0.064
-3.410E-06,0.136
-3.400E-06,0.156
-3.390E-06,0.132
-3.380E-06,0.048
-3.370E-06,-0.024
-3.360E-06,-0.068
-3.350E-06,-0.028
-3.340E-06,0.044
-3.330E-06,-0.084
-3.320E-06,-0.312
-3.310E-06,-0.352
-3.300E-06,-0.352
-3.290E-06,-0.112
-3.280E-06,0.228
-3.270E-06,0.448
-3.260E-06,0.384
-3.250E-06,0.044
-3.240E-06,-0.240
-3.230E-06,-0.340
-3.220E-06,-0.132
-3.210E-06,0.024
-3.200E-06,0.112
-3.190E-06,0.060
-3.180E-06,-0.004
-3.170E-06,-0.060
-3.160E-06,-0.052
-3.150E-06,-0.004
-3.140E-06,0.052
-3.130E-06,0.088
-3.120E-06,0.032
-3.110E-06,0.028
-3.100E-06,-0.004
-3.090E-06,-0.068
-3.080E-06,-0.136
-3.070E-06,-0.116
-3.060E-06,-0.044
-3.050E-06,0.060
-3.040E-06,0.168
-3.030E-06,0.200
-3.020E-06,0.172
-3.010E-06,0.068
-3.000E-06,-0.192
-2.990E-06,-0.384
-2.980E-06,-0.352
-2.970E-06,-0.200
-2.960E-06,0.044
-2.950E-06,0.352
-2.940E-06,0.320
-2.930E-06,0.056
-2.920E-06,-0.236
-2.910E-06,-0.320
-2.900E-06,-0.168
-2.890E-06,0.032
-2.880E-06,0.192
-2.870E-06,0.192
-2.860E-06,0.100
-2.850E-06,-0.044
-2.840E-06,-0.108
-2.830E-06,-0.124
-2.820E-06,-0.060
-2.810E-06,0.000
-2.800E-06,0.068
-2.790E-06,0.092
-2.780E-06,0.076
-2.770E-06,0.024
-2.760E-06,-0.048
-2.750E-06,-0.076
-2.740E-06,-0.072
-2.730E-06,0.000
-2.720E-06,0.056
-2.710E-06,0.100
-2.700E-06,0.072
-2.690E-06,0.020
-2.680E-06,-0.036
-2.670E-06,-0.052
-2.660E-06,-0.036
-2.650E-06,-0.004
-2.640E-06,0.024
-2.630E-06,0.036
-2.620E-06,0.040
-2.610E-06,0.020
-2.600E-06,-0.004
-2.590E-06,-0.008
-2.580E-06,-0.008
-2.570E-06,0.008
-2.560E-06,0.024
-2.550E-06,0.036
-2.540E-06,0.024
-2.530E-06,0.012
-2.520E-06,0.004
-2.510E-06,0.008
-2.500E-06,0.028
-2.490E-06,0.048
-2.480E-06,0.064
-2.470E-06,0.076
-2.460E-06,0.088
-2.450E-06,-0.056
-2.440E-06,-0.100
-2.430E-06,-0.140
-2.420E-06,-0.136
-2.410E-06,-0.004
-2.400E-06,0.188
-2.390E-06,0.256
-2.380E-06,0.132
-2.370E-06,-0.008
-2.360E-06,-0.180
-2.350E-06,-0.176
-2.340E-06,-0.052
-2.330E-06,0.084
-2.320E-06,0.052
-2.310E-06,-0.044
-2.300E-06,-0.124
-2.290E-06,-0.140
-2.280E-06,-0.052
-2.270E-06,0.048
-2.260E-06,0.092
-2.250E-06,0.052
-2.240E-06,-0.008
-2.230E-06,-0.068
-2.220E-06,-0.056
-2.210E-06,-0.008
-2.200E-06,0.032
-2.190E-06,0.056
-2.180E-06,0.032
-2.170E-06,-0.004
-2.160E-06,-0.036
-2.150E-06,-0.016
-2.140E-06,-0.008
-2.130E-06,0.024
-2.120E-06,0.032
-2.110E-06,0.032
-2.100E-06,0.012
-2.090E-06,-0.008
-2.080E-06,-0.024
-2.070E-06,-0.028
-2.060E-06,-0.008
-2.050E-06,0.012
-2.040E-06,0.044
-2.030E-06,0.044
-2.020E-06,0.032
-2.010E-06,0.000
-2.000E-06,-0.028
-1.990E-06,-0.032
-1.980E-06,-0.016
-1.970E-06,0.012
-1.960E-06,0.032
-1.950E-06,0.048
-1.940E-06,0.028
-1.930E-06,0.012
-1.920E-06,-0.016
-1.910E-06,-0.024
-1.900E-06,-0.012
-1.890E-06,0.024
-1.880E-06,0.052
-1.870E-06,0.056
-1.860E-06,0.044
-1.850E-06,0.020
-1.840E-06,-0.004
-1.830E-06,-0.020
-1.820E-06,-0.004
-1.810E-06,0.012
-1.800E-06,0.032
-1.790E-06,0.016
-1.780E-06,0.004
-1.770E-06,0.012
-1.760E-06,0.032
-1.750E-06,0.076
-1.740E-06,0.092
-1.730E-06,0.064
-1.720E-06,0.040
-1.710E-06,0.008
-1.700E-06,-0.028
-1.690E-06,-0.068
-1.680E-06,-0.088
-1.670E-06,-0.040
-1.660E-06,0.012
-1.650E-06,0.056
-1.640E-06,0.068
-1.630E-06,0.012
-1.620E-06,-0.056
-1.610E-06,-0.140
-1.600E-06,-0.140
-1.590E-06,-0.040
-1.580E-06,0.072
-1.570E-06,0.120
-1.560E-06,0.128
-1.550E-06,0.056
-1.540E-06,-0.088
-1.530E-06,-0.144
-1.520E-06,-0.108
-1.510E-06,0.004
-1.500E-06,0.092
-1.490E-06,0.136
-1.480E-06,0.092
-1.470E-06,0.012
-1.460E-06,-0.068
-1.450E-06,-0.108
-1.440E-06,-0.076
-1.430E-06,-0.004
-1.420E-06,0.060
-1.410E-06,0.088
-1.400E-06,0.084
-1.390E-06,0.020
-1.380E-06,-0.024
-1.370E-06,-0.056
-1.360E-06,-0.044
-1.350E-06,-0.012
-1.340E-06,0.032
-1.330E-06,0.056
-1.320E-06,0.056
-1.310E-06,0.024
-1.300E-06,-0.016
-1.290E-06,-0.036
-1.280E-06,-0.032
-1.270E-06,0.004
-1.260E-06,0.028
-1.250E-06,0.060
-1.240E-06,0.052
-1.230E-06,0.036
-1.220E-06,0.008
-1.210E-06,-0.012
-1.200E-06,-0.008
-1.190E-06,0.012
-1.180E-06,0.052
-1.170E-06,0.068
-1.160E-06,0.064
-1.150E-06,0.044
-1.140E-06,0.020
-1.130E-06,0.012
-1.120E-06,0.020
-1.110E-06,0.024
-1.100E-06,0.016
-1.090E-06,0.004
-1.080E-06,0.000
-1.070E-06,-0.004
-1.060E-06,0.028
-1.050E-06,0.060
-1.040E-06,0.076
-1.030E-06,0.092
-1.020E-06,0.088
-1.010E-06,0.068
-1.000E-06,0.060
-9.900E-07,0.028
-9.800E-07,-0.016
-9.700E-07,-0.056
-9.600E-07,-0.052
-9.500E-07,-0.012
-9.400E-07,0.028
-9.300E-07,0.064
-9.200E-07,0.004
-9.100E-07,-0.100
-9.000E-07,-0.148
-8.900E-07,-0.172
-8.800E-07,-0.084
-8.700E-07,0.028
-8.600E-07,0.032
-8.500E-07,-0.048
-8.400E-07,-0.100
-8.300E-07,-0.072
-8.200E-07,-0.012
-8.100E-07,0.024
-8.000E-07,0.020
-7.900E-07,-0.032
-7.800E-07,-0.076
-7.700E-07,-0.064
-7.600E-07,-0.008
-7.500E-07,0.076
-7.400E-07,0.104
-7.300E-07,0.064
-7.200E-07,-0.020
-7.100E-07,-0.076
-7.000E-07,-0.088
-6.900E-07,-0.036
-6.800E-07,0.044
-6.700E-07,0.096
-6.600E-07,0.104
-6.500E-07,0.072
-6.400E-07,0.012
-6.300E-07,-0.048
-6.200E-07,-0.068
-6.100E-07,-0.052
-6.000E-07,-0.004
-5.900E-07,0.064
-5.800E-07,0.088
-5.700E-07,0.064
-5.600E-07,0.004
-5.500E-07,-0.044
-5.400E-07,-0.072
-5.300E-07,-0.044
-5.200E-07,0.012
-5.100E-07,0.068
-5.000E-07,0.108
-4.900E-07,0.108
-4.800E-07,0.068
-4.700E-07,0.024
-4.600E-07,0.004
-4.500E-07,0.012
-4.400E-07,0.064
-4.300E-07,0.124
-4.200E-07,0.156
-4.100E-07,0.136
-4.000E-07,0.048
-3.900E-07,-0.080
-3.800E-07,-0.196
-3.700E-07,-0.236
-3.600E-07,-0.188
-3.500E-07,-0.036
-3.400E-07,0.104
-3.300E-07,0.188
-3.200E-07,0.140
-3.100E-07,0.044
-3.000E-07,-0.072
-2.900E-07,-0.152
-2.800E-07,-0.064
-2.700E-07,0.124
-2.600E-07,0.220
-2.500E-07,0.260
-2.400E-07,0.220
-2.300E-07,0.072
-2.200E-07,-0.084
-2.100E-07,-0.164
-2.000E-07,-0.156
-1.900E-07,-0.104
-1.800E-07,-0.028
-1.700E-07,-0.012
-1.600E-07,0.000
-1.500E-07,0.008
-1.400E-07,0.024
-1.300E-07,-0.016
-1.200E-07,-0.060
-1.100E-07,-0.012
-1.000E-07,0.056
-9.000E-08,0.136
-8.000E-08,0.140
-7.000E-08,0.156
-6.000E-08,-0.044
-5.000E-08,-0.476
-4.000E-08,-0.468
-3.000E-08,-0.316
-2.000E-08,-0.064
-1.000E-08,-0.048
0.000E+00,0.284
1.000E-08,0.124
2.000E-08,0.048
3.000E-08,-0.184
4.000E-08,-0.512
5.000E-08,-0.404
6.000E-08,0.128
7.000E-08,0.540
8.000E-08,0.496
9.000E-08,0.316
1.000E-07,-0.196
1.100E-07,-0.380
1.200E-07,-0.380
1.300E-07,-0.132
1.400E-07,0.120
1.500E-07,0.364
1.600E-07,0.356
1.700E-07,0.188
1.800E-07,-0.016
1.900E-07,-0.244
2.000E-07,-0.248
2.100E-07,-0.120
2.200E-07,0.176
2.300E-07,0.376
2.400E-07,0.320
2.500E-07,-0.012
2.600E-07,-0.404
2.700E-07,-0.512
2.800E-07,-0.404
2.900E-07,0.120
3.000E-07,0.432
3.100E-07,0.348
3.200E-07,0.172
3.300E-07,-0.040
3.400E-07,-0.216
3.500E-07,-0.212
3.600E-07,-0.184
3.700E-07,-0.036
3.800E-07,0.096
3.900E-07,0.252
4.000E-07,0.196
4.100E-07,0.092
4.200E-07,-0.076
4.300E-07,-0.188
4.400E-07,-0.164
4.500E-07,-0.072
4.600E-07,0.060
4.700E-07,0.144
4.800E-07,0.188
4.900E-07,0.084
5.000E-07,-0.016
5.100E-07,-0.112
5.200E-07,-0.112
5.300E-07,-0.048
5.400E-07,0.064
5.500E-07,0.156
5.600E-07,0.128
5.700E-07,0.020
5.800E-07,-0.040
5.900E-07,-0.072
6.000E-07,-0.100
6.100E-07,-0.016
6.200E-07,0.008
6.300E-07,0.048
6.400E-07,0.056
6.500E-07,0.052
6.600E-07,0.052
6.700E-07,0.024
6.800E-07,-0.028
6.900E-07,-0.088
7.000E-07,-0.084
7.100E-07,-0.048
7.200E-07,0.044
7.300E-07,0.092
7.400E-07,0.096
7.500E-07,0.040
7.600E-07,-0.024
7.700E-07,-0.068
7.800E-07,-0.072
7.900E-07,-0.040
8.000E-07,-0.008
8.100E-07,0.028
8.200E-07,0.052
8.300E-07,0.052
8.400E-07,0.024
8.500E-07,-0.020
8.600E-07,-0.052
8.700E-07,-0.052
8.800E-07,-0.016
8.900E-07,0.040
9.000E-07,0.080
9.100E-07,0.072
9.200E-07,0.036
9.300E-07,-0.008
9.400E-07,-0.056
9.500E-07,-0.056
9.600E-07,-0.024
9.700E-07,0.020
9.800E-07,0.056
9.900E-07,0.060
1.000E-06,0.044
1.010E-06,0.008
1.020E-06,-0.032
1.030E-06,-0.040
1.040E-06,-0.032
1.050E-06,0.012
1.060E-06,0.040
1.070E-06,0.068
1.080E-06,0.044
1.090E-06,0.012
1.100E-06,-0.032
1.110E-06,-0.040
1.120E-06,-0.036
1.130E-06,-0.012
1.140E-06,0.008
1.150E-06,0.032
1.160E-06,0.040
1.170E-06,0.024
1.180E-06,-0.004
1.190E-06,-0.036
1.200E-06,-0.032
1.210E-06,-0.020
1.220E-06,0.000
1.230E-06,0.040
1.240E-06,0.060
1.250E-06,0.044
1.260E-06,0.008
1.270E-06,-0.028
1.280E-06,-0.040
1.290E-06,-0.032
1.300E-06,0.004
1.310E-06,0.036
1.320E-06,0.052
1.330E-06,0.036
1.340E-06,0.012
1.350E-06,-0.012
1.360E-06,-0.024
1.370E-06,-0.004
1.380E-06,0.012
1.390E-06,0.028
1.400E-06,0.048
1.410E-06,0.036
1.420E-06,0.016
1.430E-06,0.000
1.440E-06,-0.012
1.450E-06,-0.036
1.460E-06,-0.040
1.470E-06,-0.032
1.480E-06,-0.008
1.490E-06,0.020
1.500E-06,0.056
1.510E-06,0.064
1.520E-06,0.028
1.530E-06,-0.012
1.540E-06,-0.040
1.550E-06,-0.008
1.560E-06,0.044
1.570E-06,0.084
1.580E-06,0.076
1.590E-06,0.020
1.600E-06,-0.032
1.610E-06,-0.068
1.620E-06,-0.068
1.630E-06,-0.012
1.640E-06,0.056
1.650E-06,0.092
1.660E-06,0.076
1.670E-06,-0.004
1.680E-06,-0.064
1.690E-06,-0.084
1.700E-06,-0.072
1.710E-06,-0.004
1.720E-06,0.064
1.730E-06,0.096
1.740E-06,0.080
1.750E-06,0.024
1.760E-06,-0.040
1.770E-06,-0.072
1.780E-06,-0.056
1.790E-06,0.000
1.800E-06,0.060
1.810E-06,0.088
1.820E-06,0.068
1.830E-06,0.028
1.840E-06,-0.024
1.850E-06,-0.040
1.860E-06,-0.040
1.870E-06,-0.004
1.880E-06,0.040
1.890E-06,0.064
1.900E-06,0.064
1.910E-06,0.032
1.920E-06,-0.008
1.930E-06,-0.036
1.940E-06,-0.032
1.950E-06,0.000
1.960E-06,0.044
1.970E-06,0.068
1.980E-06,0.072
1.990E-06,0.044
2.000E-06,-0.008
2.010E-06,-0.028
2.020E-06,-0.024
2.030E-06,0.012
2.040E-06,0.040
2.050E-06,0.064
2.060E-06,0.060
2.070E-06,0.028
2.080E-06,-0.004
2.090E-06,-0.028
2.100E-06,-0.020
2.110E-06,0.004
2.120E-06,0.044
2.130E-06,0.088
2.140E-06,0.100
2.150E-06,0.088
2.160E-06,0.048
2.170E-06,-0.016
2.180E-06,-0.080
2.190E-06,-0.160
2.200E-06,-0.188
2.210E-06,-0.120
2.220E-06,-0.008
2.230E-06,0.072
2.240E-06,0.112
2.250E-06,0.080
2.260E-06,-0.040
2.270E-06,-0.136
2.280E-06,-0.140
2.290E-06,-0.040
2.300E-06,0.068
2.310E-06,0.140
2.320E-06,0.108
2.330E-06,0.012
2.340E-06,-0.068
2.350E-06,-0.100
2.360E-06,-0.080
2.370E-06,0.012
2.380E-06,0.124
2.390E-06,0.132
2.400E-06,0.044
2.410E-06,-0.036
2.420E-06,-0.088
2.430E-06,-0.080
2.440E-06,-0.052
2.450E-06,0.028
2.460E-06,0.080
2.470E-06,0.092
2.480E-06,0.084
2.490E-06,0.024
2.500E-06,-0.040
2.510E-06,-0.072
2.520E-06,-0.012
2.530E-06,0.056
2.540E-06,0.124
2.550E-06,0.140
2.560E-06,0.100
2.570E-06,0.024
2.580E-06,-0.024
2.590E-06,-0.024
2.600E-06,0.024
2.610E-06,0.080
2.620E-06,0.132
2.630E-06,0.152
2.640E-06,0.108
2.650E-06,0.064
2.660E-06,0.020
2.670E-06,0.028
2.680E-06,0.068
2.690E-06,0.100
2.700E-06,0.176
2.710E-06,-0.400
2.720E-06,-0.508
2.730E-06,-0.508
2.740E-06,-0.512
2.750E-06,0.540
2.760E-06,0.540
2.770E-06,0.544
2.780E-06,0.500
2.790E-06,-0.336
2.800E-06,-0.512
2.810E-06,-0.512
2.820E-06,-0.272
2.830E-06,0.200
2.840E-06,0.540
2.850E-06,0.536
2.860E-06,0.492
2.870E-06,-0.080
2.880E-06,-0.348
2.890E-06,-0.512
2.900E-06,-0.480
2.910E-06,-0.048
2.920E-06,0.540
2.930E-06,0.540
2.940E-06,0.540
2.950E-06,-0.024
2.960E-06,-0.508
2.970E-06,-0.508
2.980E-06,-0.508
2.990E-06,0.052
3.000E-06,0.540
3.010E-06,0.540
3.020E-06,0.540
3.030E-06,0.008
3.040E-06,-0.512
3.050E-06,-0.508
3.060E-06,-0.512
3.070E-06,-0.304
3.080E-06,0.160
3.090E-06,0.532
3.100E-06,0.544
3.110E-06,0.180
3.120E-06,-0.284
3.130E-06,-0.512
3.140E-06,-0.428
3.150E-06,0.000
3.160E-06,0.424
3.170E-06,0.456
3.180E-06,0.224
3.190E-06,-0.060
3.200E-06,-0.332
