mediciones/5-15/14.9/WaveData47303.csv

#timebase=2000000(ps)
,#voltbase=100000(mv/100)
#size=4000
-8.400E-06,0.004
-8.390E-06,0.004
-8.380E-06,0.008
-8.370E-06,0.004
-8.360E-06,0.000
-8.350E-06,0.004
-8.340E-06,-0.004
-8.330E-06,0.000
-8.320E-06,0.000
-8.310E-06,0.004
-8.300E-06,0.004
-8.290E-06,0.004
-8.280E-06,0.004
-8.270E-06,0.000
-8.260E-06,-0.004
-8.250E-06,0.004
-8.240E-06,0.000
-8.230E-06,0.004
-8.220E-06,0.004
-8.210E-06,0.000
-8.200E-06,0.004
-8.190E-06,0.004
-8.180E-06,0.004
-8.170E-06,0.000
-8.160E-06,0.000
-8.150E-06,0.008
-8.140E-06,0.004
-8.130E-06,0.004
-8.120E-06,0.004
-8.110E-06,0.000
-8.100E-06,-0.004
-8.090E-06,-0.004
-8.080E-06,0.004
-8.070E-06,0.004
-8.060E-06,0.004
-8.050E-06,0.004
-8.040E-06,0.000
-8.030E-06,0.004
-8.020E-06,0.004
-8.010E-06,0.004
-8.000E-06,0.004
-7.990E-06,0.000
-7.980E-06,0.000
-7.970E-06,0.000
-7.960E-06,0.008
-7.950E-06,0.008
-7.940E-06,0.000
-7.930E-06,-0.004
-7.920E-06,-0.004
-7.910E-06,0.000
-7.900E-06,0.004
-7.890E-06,0.008
-7.880E-06,0.008
-7.870E-06,0.008
-7.860E-06,0.004
-7.850E-06,-0.004
-7.840E-06,-0.004
-7.830E-06,0.000
-7.820E-06,0.008
-7.810E-06,0.004
-7.800E-06,0.012
-7.790E-06,0.004
-7.780E-06,0.004
-7.770E-06,0.000
-7.760E-06,-0.004
-7.750E-06,0.000
-7.740E-06,0.000
-7.730E-06,0.000
-7.720E-06,0.012
-7.710E-06,0.008
-7.700E-06,0.004
-7.690E-06,-0.004
-7.680E-06,-0.004
-7.670E-06,-0.004
-7.660E-06,-0.004
-7.650E-06,0.008
-7.640E-06,0.008
-7.630E-06,0.008
-7.620E-06,0.004
-7.610E-06,0.000
-7.600E-06,0.000
-7.590E-06,-0.004
-7.580E-06,0.000
-7.570E-06,0.008
-7.560E-06,0.012
-7.550E-06,0.004
-7.540E-06,0.004
-7.530E-06,0.000
-7.520E-06,0.000
-7.510E-06,0.000
-7.500E-06,0.004
-7.490E-06,0.008
-7.480E-06,0.000
-7.470E-06,0.004
-7.460E-06,0.000
-7.450E-06,0.000
-7.440E-06,-0.004
-7.430E-06,0.004
-7.420E-06,0.004
-7.410E-06,0.008
-7.400E-06,0.008
-7.390E-06,0.000
-7.380E-06,0.000
-7.370E-06,-0.004
-7.360E-06,0.000
-7.350E-06,0.000
-7.340E-06,0.008
-7.330E-06,0.000
-7.320E-06,0.000
-7.310E-06,0.000
-7.300E-06,-0.004
-7.290E-06,0.004
-7.280E-06,0.004
-7.270E-06,0.004
-7.260E-06,0.000
-7.250E-06,0.004
-7.240E-06,0.004
-7.230E-06,0.000
-7.220E-06,0.000
-7.210E-06,0.004
-7.200E-06,0.000
-7.190E-06,0.000
-7.180E-06,0.000
-7.170E-06,0.004
-7.160E-06,0.008
-7.150E-06,0.000
-7.140E-06,0.000
-7.130E-06,0.000
-7.120E-06,0.000
-7.110E-06,0.004
-7.100E-06,0.004
-7.090E-06,0.004
-7.080E-06,0.004
-7.070E-06,0.004
-7.060E-06,0.000
-7.050E-06,0.000
-7.040E-06,0.004
-7.030E-06,0.004
-7.020E-06,0.004
-7.010E-06,0.000
-7.000E-06,0.000
-6.990E-06,0.000
-6.980E-06,0.004
-6.970E-06,0.008
-6.960E-06,0.008
-6.950E-06,0.008
-6.940E-06,0.004
-6.930E-06,0.004
-6.920E-06,0.004
-6.910E-06,0.008
-6.900E-06,0.012
-6.890E-06,0.004
-6.880E-06,0.004
-6.870E-06,0.000
-6.860E-06,0.000
-6.850E-06,0.004
-6.840E-06,0.004
-6.830E-06,0.008
-6.820E-06,0.008
-6.810E-06,0.000
-6.800E-06,0.000
-6.790E-06,0.000
-6.780E-06,0.008
-6.770E-06,0.008
-6.760E-06,0.004
-6.750E-06,0.000
-6.740E-06,0.000
-6.730E-06,-0.004
-6.720E-06,0.000
-6.710E-06,0.000
-6.700E-06,0.008
-6.690E-06,0.000
-6.680E-06,0.004
-6.670E-06,0.004
-6.660E-06,0.000
-6.650E-06,0.000
-6.640E-06,0.004
-6.630E-06,0.008
-6.620E-06,0.008
-6.610E-06,0.000
-6.600E-06,0.000
-6.590E-06,0.000
-6.580E-06,0.004
-6.570E-06,0.004
-6.560E-06,0.004
-6.550E-06,0.004
-6.540E-06,0.000
-6.530E-06,0.004
-6.520E-06,0.004
-6.510E-06,0.004
-6.500E-06,0.004
-6.490E-06,0.004
-6.480E-06,0.000
-6.470E-06,-0.004
-6.460E-06,0.004
-6.450E-06,0.008
-6.440E-06,0.004
-6.430E-06,0.004
-6.420E-06,0.000
-6.410E-06,0.000
-6.400E-06,0.004
-6.390E-06,0.000
-6.380E-06,0.004
-6.370E-06,0.004
-6.360E-06,-0.004
-6.350E-06,-0.004
-6.340E-06,0.004
-6.330E-06,-0.004
-6.320E-06,0.004
-6.310E-06,0.000
-6.300E-06,0.004
-6.290E-06,0.000
-6.280E-06,0.000
-6.270E-06,0.000
-6.260E-06,0.004
-6.250E-06,0.000
-6.240E-06,0.000
-6.230E-06,0.004
-6.220E-06,0.004
-6.210E-06,0.000
-6.200E-06,0.004
-6.190E-06,0.004
-6.180E-06,0.004
-6.170E-06,0.000
-6.160E-06,0.004
-6.150E-06,0.004
-6.140E-06,0.004
-6.130E-06,0.004
-6.120E-06,0.000
-6.110E-06,0.004
-6.100E-06,0.004
-6.090E-06,0.004
-6.080E-06,0.004
-6.070E-06,0.004
-6.060E-06,0.008
-6.050E-06,-0.004
-6.040E-06,0.000
-6.030E-06,0.000
-6.020E-06,0.000
-6.010E-06,0.008
-6.000E-06,0.004
-5.990E-06,0.000
-5.980E-06,0.004
-5.970E-06,0.000
-5.960E-06,-0.004
-5.950E-06,0.004
-5.940E-06,0.004
-5.930E-06,0.008
-5.920E-06,0.004
-5.910E-06,0.000
-5.900E-06,0.000
-5.890E-06,0.000
-5.880E-06,0.008
-5.870E-06,0.000
-5.860E-06,0.004
-5.850E-06,0.004
-5.840E-06,0.004
-5.830E-06,0.004
-5.820E-06,0.004
-5.810E-06,0.008
-5.800E-06,0.000
-5.790E-06,0.000
-5.780E-06,0.004
-5.770E-06,-0.004
-5.760E-06,0.000
-5.750E-06,0.000
-5.740E-06,0.008
-5.730E-06,0.000
-5.720E-06,0.004
-5.710E-06,0.004
-5.700E-06,0.000
-5.690E-06,0.004
-5.680E-06,0.004
-5.670E-06,0.004
-5.660E-06,0.004
-5.650E-06,0.004
-5.640E-06,0.008
-5.630E-06,0.008
-5.620E-06,0.004
-5.610E-06,0.008
-5.600E-06,0.008
-5.590E-06,0.012
-5.580E-06,0.004
-5.570E-06,0.000
-5.560E-06,0.004
-5.550E-06,0.008
-5.540E-06,-0.004
-5.530E-06,0.000
-5.520E-06,0.000
-5.510E-06,0.004
-5.500E-06,0.000
-5.490E-06,0.008
-5.480E-06,0.004
-5.470E-06,0.004
-5.460E-06,0.004
-5.450E-06,-0.004
-5.440E-06,0.000
-5.430E-06,0.004
-5.420E-06,0.000
-5.410E-06,0.000
-5.400E-06,0.008
-5.390E-06,0.008
-5.380E-06,0.004
-5.370E-06,0.000
-5.360E-06,0.000
-5.350E-06,-0.004
-5.340E-06,0.004
-5.330E-06,0.004
-5.320E-06,0.004
-5.310E-06,0.008
-5.300E-06,0.004
-5.290E-06,0.000
-5.280E-06,0.004
-5.270E-06,-0.004
-5.260E-06,-0.004
-5.250E-06,0.000
-5.240E-06,0.000
-5.230E-06,0.004
-5.220E-06,0.008
-5.210E-06,0.004
-5.200E-06,0.000
-5.190E-06,0.000
-5.180E-06,-0.004
-5.170E-06,0.000
-5.160E-06,-0.004
-5.150E-06,0.004
-5.140E-06,0.008
-5.130E-06,0.008
-5.120E-06,0.008
-5.110E-06,-0.004
-5.100E-06,0.000
-5.090E-06,0.000
-5.080E-06,0.000
-5.070E-06,0.004
-5.060E-06,0.000
-5.050E-06,0.004
-5.040E-06,0.004
-5.030E-06,0.008
-5.020E-06,0.000
-5.010E-06,0.004
-5.000E-06,-0.004
-4.990E-06,0.004
-4.980E-06,0.008
-4.970E-06,0.008
-4.960E-06,0.004
-4.950E-06,0.000
-4.940E-06,0.004
-4.930E-06,-0.004
-4.920E-06,0.004
-4.910E-06,0.008
-4.900E-06,0.008
-4.890E-06,0.004
-4.880E-06,0.000
-4.870E-06,0.000
-4.860E-06,0.000
-4.850E-06,0.004
-4.840E-06,0.008
-4.830E-06,0.004
-4.820E-06,0.004
-4.810E-06,0.004
-4.800E-06,0.008
-4.790E-06,0.000
-4.780E-06,0.000
-4.770E-06,0.000
-4.760E-06,0.008
-4.750E-06,0.012
-4.740E-06,0.016
-4.730E-06,0.004
-4.720E-06,0.000
-4.710E-06,0.000
-4.700E-06,-0.004
-4.690E-06,0.004
-4.680E-06,0.008
-4.670E-06,0.012
-4.660E-06,0.004
-4.650E-06,0.008
-4.640E-06,-0.004
-4.630E-06,-0.004
-4.620E-06,0.000
-4.610E-06,0.000
-4.600E-06,0.004
-4.590E-06,0.004
-4.580E-06,0.012
-4.570E-06,0.004
-4.560E-06,0.000
-4.550E-06,0.000
-4.540E-06,0.000
-4.530E-06,0.004
-4.520E-06,0.004
-4.510E-06,0.008
-4.500E-06,0.004
-4.490E-06,0.016
-4.480E-06,0.004
-4.470E-06,-0.008
-4.460E-06,0.000
-4.450E-06,-0.004
-4.440E-06,-0.004
-4.430E-06,0.012
-4.420E-06,0.008
-4.410E-06,-0.004
-4.400E-06,0.004
-4.390E-06,0.000
-4.380E-06,-0.004
-4.370E-06,0.004
-4.360E-06,0.012
-4.350E-06,0.012
-4.340E-06,0.004
-4.330E-06,0.004
-4.320E-06,-0.008
-4.310E-06,0.012
-4.300E-06,-0.016
-4.290E-06,0.012
-4.280E-06,-0.028
-4.270E-06,0.032
-4.260E-06,0.032
-4.250E-06,0.012
-4.240E-06,-0.036
-4.230E-06,-0.024
-4.220E-06,0.048
-4.210E-06,0.008
-4.200E-06,-0.012
-4.190E-06,0.004
-4.180E-06,0.004
-4.170E-06,-0.024
-4.160E-06,0.024
-4.150E-06,0.044
-4.140E-06,-0.004
-4.130E-06,-0.020
-4.120E-06,-0.012
-4.110E-06,-0.008
-4.100E-06,-0.004
-4.090E-06,0.024
-4.080E-06,0.024
-4.070E-06,0.020
-4.060E-06,-0.008
-4.050E-06,0.004
-4.040E-06,0.000
-4.030E-06,-0.008
-4.020E-06,-0.008
-4.010E-06,0.008
-4.000E-06,0.032
-3.990E-06,0.016
-3.980E-06,0.004
-3.970E-06,-0.004
-3.960E-06,-0.004
-3.950E-06,-0.008
-3.940E-06,0.004
-3.930E-06,0.012
-3.920E-06,0.004
-3.910E-06,0.000
-3.900E-06,0.012
-3.890E-06,0.012
-3.880E-06,0.008
-3.870E-06,0.000
-3.860E-06,-0.004
-3.850E-06,-0.004
-3.840E-06,0.008
-3.830E-06,0.016
-3.820E-06,0.028
-3.810E-06,0.012
-3.800E-06,0.008
-3.790E-06,-0.008
-3.780E-06,-0.008
-3.770E-06,-0.004
-3.760E-06,0.004
-3.750E-06,0.008
-3.740E-06,0.016
-3.730E-06,0.012
-3.720E-06,0.012
-3.710E-06,-0.008
-3.700E-06,-0.008
-3.690E-06,-0.024
-3.680E-06,0.012
-3.670E-06,0.016
-3.660E-06,0.020
-3.650E-06,0.004
-3.640E-06,-0.008
-3.630E-06,-0.004
-3.620E-06,0.000
-3.610E-06,0.004
-3.600E-06,0.016
-3.590E-06,0.012
-3.580E-06,-0.008
-3.570E-06,-0.012
-3.560E-06,0.004
-3.550E-06,0.004
-3.540E-06,-0.004
-3.530E-06,0.008
-3.520E-06,0.008
-3.510E-06,0.004
-3.500E-06,-0.004
-3.490E-06,0.000
-3.480E-06,0.008
-3.470E-06,0.004
-3.460E-06,-0.004
-3.450E-06,-0.004
-3.440E-06,0.004
-3.430E-06,0.004
-3.420E-06,0.008
-3.410E-06,0.012
-3.400E-06,0.008
-3.390E-06,-0.004
-3.380E-06,0.000
-3.370E-06,0.000
-3.360E-06,0.004
-3.350E-06,0.008
-3.340E-06,0.012
-3.330E-06,0.008
-3.320E-06,0.004
-3.310E-06,-0.004
-3.300E-06,-0.004
-3.290E-06,0.004
-3.280E-06,0.012
-3.270E-06,0.008
-3.260E-06,0.008
-3.250E-06,0.004
-3.240E-06,-0.004
-3.230E-06,0.000
-3.220E-06,-0.024
-3.210E-06,0.036
-3.200E-06,0.044
-3.190E-06,0.016
-3.180E-06,-0.024
-3.170E-06,-0.044
-3.160E-06,0.008
-3.150E-06,0.044
-3.140E-06,0.024
-3.130E-06,-0.004
-3.120E-06,0.016
-3.110E-06,-0.008
-3.100E-06,-0.016
-3.090E-06,0.012
-3.080E-06,0.020
-3.070E-06,0.000
-3.060E-06,-0.004
-3.050E-06,0.016
-3.040E-06,0.008
-3.030E-06,-0.012
-3.020E-06,-0.012
-3.010E-06,0.008
-3.000E-06,0.016
-2.990E-06,0.016
-2.980E-06,0.008
-2.970E-06,-0.008
-2.960E-06,-0.004
-2.950E-06,0.008
-2.940E-06,0.008
-2.930E-06,0.004
-2.920E-06,0.008
-2.910E-06,0.008
-2.900E-06,0.000
-2.890E-06,-0.004
-2.880E-06,-0.004
-2.870E-06,0.016
-2.860E-06,0.008
-2.850E-06,0.008
-2.840E-06,-0.008
-2.830E-06,-0.004
-2.820E-06,0.004
-2.810E-06,0.008
-2.800E-06,0.012
-2.790E-06,0.000
-2.780E-06,-0.004
-2.770E-06,-0.004
-2.760E-06,0.008
-2.750E-06,0.012
-2.740E-06,0.008
-2.730E-06,0.000
-2.720E-06,0.000
-2.710E-06,0.004
-2.700E-06,0.004
-2.690E-06,0.004
-2.680E-06,0.008
-2.670E-06,0.008
-2.660E-06,0.008
-2.650E-06,0.000
-2.640E-06,0.000
-2.630E-06,0.000
-2.620E-06,0.004
-2.610E-06,0.008
-2.600E-06,0.012
-2.590E-06,0.008
-2.580E-06,0.000
-2.570E-06,-0.004
-2.560E-06,-0.004
-2.550E-06,0.008
-2.540E-06,0.016
-2.530E-06,0.020
-2.520E-06,0.012
-2.510E-06,0.008
-2.500E-06,0.004
-2.490E-06,0.008
-2.480E-06,0.008
-2.470E-06,0.004
-2.460E-06,-0.004
-2.450E-06,0.000
-2.440E-06,0.024
-2.430E-06,0.028
-2.420E-06,0.020
-2.410E-06,-0.004
-2.400E-06,-0.008
-2.390E-06,0.008
-2.380E-06,0.024
-2.370E-06,0.008
-2.360E-06,-0.008
-2.350E-06,-0.024
-2.340E-06,0.000
-2.330E-06,0.032
-2.320E-06,0.044
-2.310E-06,0.004
-2.300E-06,-0.008
-2.290E-06,-0.020
-2.280E-06,-0.004
-2.270E-06,0.024
-2.260E-06,0.036
-2.250E-06,0.020
-2.240E-06,-0.004
-2.230E-06,-0.008
-2.220E-06,-0.004
-2.210E-06,-0.008
-2.200E-06,-0.004
-2.190E-06,0.028
-2.180E-06,0.048
-2.170E-06,0.040
-2.160E-06,0.024
-2.150E-06,0.008
-2.140E-06,0.000
-2.130E-06,-0.008
-2.120E-06,-0.020
-2.110E-06,-0.024
-2.100E-06,-0.028
-2.090E-06,0.008
-2.080E-06,0.020
-2.070E-06,0.020
-2.060E-06,0.000
-2.050E-06,-0.020
-2.040E-06,-0.012
-2.030E-06,-0.004
-2.020E-06,0.004
-2.010E-06,0.012
-2.000E-06,0.020
-1.990E-06,0.016
-1.980E-06,0.000
-1.970E-06,0.000
-1.960E-06,0.012
-1.950E-06,-0.008
-1.940E-06,-0.028
-1.930E-06,-0.028
-1.920E-06,-0.004
-1.910E-06,0.012
-1.900E-06,0.020
-1.890E-06,0.024
-1.880E-06,-0.004
-1.870E-06,-0.024
-1.860E-06,-0.012
-1.850E-06,0.008
-1.840E-06,0.020
-1.830E-06,0.020
-1.820E-06,0.004
-1.810E-06,0.004
-1.800E-06,0.000
-1.790E-06,-0.004
-1.780E-06,0.008
-1.770E-06,0.012
-1.760E-06,0.016
-1.750E-06,0.012
-1.740E-06,0.016
-1.730E-06,0.020
-1.720E-06,0.008
-1.710E-06,0.008
-1.700E-06,0.004
-1.690E-06,0.000
-1.680E-06,0.000
-1.670E-06,0.012
-1.660E-06,0.024
-1.650E-06,0.028
-1.640E-06,0.020
-1.630E-06,0.000
-1.620E-06,-0.008
-1.610E-06,0.008
-1.600E-06,0.016
-1.590E-06,0.020
-1.580E-06,0.000
-1.570E-06,0.016
-1.560E-06,0.008
-1.550E-06,0.004
-1.540E-06,0.000
-1.530E-06,0.004
-1.520E-06,0.016
-1.510E-06,0.008
-1.500E-06,0.024
-1.490E-06,0.028
-1.480E-06,0.020
-1.470E-06,0.008
-1.460E-06,0.012
-1.450E-06,0.016
-1.440E-06,0.012
-1.430E-06,0.012
-1.420E-06,0.004
-1.410E-06,0.004
-1.400E-06,0.000
-1.390E-06,0.004
-1.380E-06,0.008
-1.370E-06,0.028
-1.360E-06,0.044
-1.350E-06,0.048
-1.340E-06,0.036
-1.330E-06,0.008
-1.320E-06,-0.008
-1.310E-06,-0.012
-1.300E-06,0.008
-1.290E-06,0.032
-1.280E-06,0.056
-1.270E-06,0.056
-1.260E-06,0.032
-1.250E-06,0.004
-1.240E-06,-0.024
-1.230E-06,-0.008
-1.220E-06,0.016
-1.210E-06,0.052
-1.200E-06,0.072
-1.190E-06,0.076
-1.180E-06,0.044
-1.170E-06,0.004
-1.160E-06,-0.012
-1.150E-06,0.000
-1.140E-06,0.028
-1.130E-06,0.064
-1.120E-06,0.080
-1.110E-06,0.044
-1.100E-06,-0.004
-1.090E-06,-0.040
-1.080E-06,-0.060
-1.070E-06,-0.032
-1.060E-06,-0.004
-1.050E-06,0.024
-1.040E-06,0.020
-1.030E-06,-0.004
-1.020E-06,-0.032
-1.010E-06,-0.056
-1.000E-06,-0.056
-9.900E-07,-0.032
-9.800E-07,-0.020
-9.700E-07,-0.020
-9.600E-07,-0.016
-9.500E-07,-0.024
-9.400E-07,-0.024
-9.300E-07,0.000
-9.200E-07,0.016
-9.100E-07,0.036
-9.000E-07,0.020
-8.900E-07,0.008
-8.800E-07,0.000
-8.700E-07,0.008
-8.600E-07,0.040
-8.500E-07,0.064
-8.400E-07,0.072
-8.300E-07,0.056
-8.200E-07,0.024
-8.100E-07,0.000
-8.000E-07,0.000
-7.900E-07,0.012
-7.800E-07,0.044
-7.700E-07,0.064
-7.600E-07,0.060
-7.500E-07,0.044
-7.400E-07,0.024
-7.300E-07,0.024
-7.200E-07,0.028
-7.100E-07,0.048
-7.000E-07,0.064
-6.900E-07,0.072
-6.800E-07,0.068
-6.700E-07,0.060
-6.600E-07,0.040
-6.500E-07,0.032
-6.400E-07,0.028
-6.300E-07,0.032
-6.200E-07,0.028
-6.100E-07,0.048
-6.000E-07,0.052
-5.900E-07,0.044
-5.800E-07,0.032
-5.700E-07,0.024
-5.600E-07,0.024
-5.500E-07,0.024
-5.400E-07,0.040
-5.300E-07,0.048
-5.200E-07,0.056
-5.100E-07,0.056
-5.000E-07,0.032
-4.900E-07,0.036
-4.800E-07,0.052
-4.700E-07,0.056
-4.600E-07,0.048
-4.500E-07,0.060
-4.400E-07,0.060
-4.300E-07,0.048
-4.200E-07,0.032
-4.100E-07,0.024
-4.000E-07,0.012
-3.900E-07,0.012
-3.800E-07,0.020
-3.700E-07,0.024
-3.600E-07,0.000
-3.500E-07,-0.012
-3.400E-07,-0.008
-3.300E-07,-0.008
-3.200E-07,-0.004
-3.100E-07,0.004
-3.000E-07,0.044
-2.900E-07,0.080
-2.800E-07,0.112
-2.700E-07,0.096
-2.600E-07,0.072
-2.500E-07,0.092
-2.400E-07,0.136
-2.300E-07,0.156
-2.200E-07,0.156
-2.100E-07,0.124
-2.000E-07,0.104
-1.900E-07,0.112
-1.800E-07,0.128
-1.700E-07,0.136
-1.600E-07,0.136
-1.500E-07,0.124
-1.400E-07,0.076
-1.300E-07,0.092
-1.200E-07,0.076
-1.100E-07,0.124
-1.000E-07,0.164
-9.000E-08,0.148
-8.000E-08,0.132
-7.000E-08,-0.168
-6.000E-08,-0.512
-5.000E-08,-0.512
-4.000E-08,-0.512
-3.000E-08,-0.512
-2.000E-08,-0.512
-1.000E-08,0.172
0.000E+00,0.544
1.000E-08,0.544
2.000E-08,0.544
3.000E-08,-0.396
4.000E-08,-0.512
5.000E-08,-0.512
6.000E-08,-0.508
7.000E-08,0.228
8.000E-08,0.540
9.000E-08,0.540
1.000E-07,0.504
1.100E-07,-0.256
1.200E-07,-0.512
1.300E-07,-0.512
1.400E-07,-0.272
1.500E-07,0.316
1.600E-07,0.540
1.700E-07,0.536
1.800E-07,0.424
1.900E-07,-0.028
2.000E-07,-0.472
2.100E-07,-0.508
2.200E-07,-0.360
2.300E-07,0.100
2.400E-07,0.516
2.500E-07,0.540
2.600E-07,0.464
2.700E-07,0.004
2.800E-07,-0.380
2.900E-07,-0.512
3.000E-07,-0.300
3.100E-07,0.064
3.200E-07,0.428
3.300E-07,0.540
3.400E-07,0.460
3.500E-07,0.132
3.600E-07,-0.232
3.700E-07,-0.432
3.800E-07,-0.380
3.900E-07,-0.100
4.000E-07,0.236
4.100E-07,0.452
4.200E-07,0.460
4.300E-07,0.284
4.400E-07,0.056
4.500E-07,-0.104
4.600E-07,-0.088
4.700E-07,0.056
4.800E-07,0.244
4.900E-07,0.348
5.000E-07,0.296
5.100E-07,0.104
5.200E-07,-0.128
5.300E-07,-0.296
5.400E-07,-0.340
5.500E-07,-0.240
5.600E-07,-0.072
5.700E-07,0.064
5.800E-07,0.076
5.900E-07,0.024
6.000E-07,-0.112
6.100E-07,-0.248
6.200E-07,-0.288
6.300E-07,-0.200
6.400E-07,-0.056
6.500E-07,0.068
6.600E-07,0.148
6.700E-07,0.136
6.800E-07,0.060
6.900E-07,-0.044
7.000E-07,-0.108
7.100E-07,-0.088
7.200E-07,-0.012
7.300E-07,0.056
7.400E-07,0.124
7.500E-07,0.160
7.600E-07,0.136
7.700E-07,0.076
7.800E-07,0.020
7.900E-07,-0.012
8.000E-07,0.028
8.100E-07,0.160
8.200E-07,0.272
8.300E-07,0.332
8.400E-07,0.304
8.500E-07,0.240
8.600E-07,0.156
8.700E-07,0.104
8.800E-07,0.116
8.900E-07,0.164
9.000E-07,0.236
9.100E-07,0.276
9.200E-07,0.268
9.300E-07,0.208
9.400E-07,0.132
9.500E-07,0.076
9.600E-07,0.048
9.700E-07,0.060
9.800E-07,0.064
9.900E-07,0.064
1.000E-06,0.032
1.010E-06,-0.012
1.020E-06,-0.036
1.030E-06,-0.120
1.040E-06,-0.144
1.050E-06,-0.132
1.060E-06,-0.096
1.070E-06,-0.036
1.080E-06,-0.036
1.090E-06,-0.084
1.100E-06,-0.080
1.110E-06,-0.088
1.120E-06,-0.052
1.130E-06,-0.028
1.140E-06,0.044
1.150E-06,0.096
1.160E-06,0.100
1.170E-06,0.136
1.180E-06,0.156
1.190E-06,0.144
1.200E-06,0.100
1.210E-06,0.100
1.220E-06,0.124
1.230E-06,0.196
1.240E-06,0.244
1.250E-06,0.256
1.260E-06,0.224
1.270E-06,0.176
1.280E-06,0.160
1.290E-06,0.164
1.300E-06,0.204
1.310E-06,0.228
1.320E-06,0.260
1.330E-06,0.248
1.340E-06,0.224
1.350E-06,0.192
1.360E-06,0.176
1.370E-06,0.176
1.380E-06,0.188
1.390E-06,0.192
1.400E-06,0.208
1.410E-06,0.220
1.420E-06,0.208
1.430E-06,0.180
1.440E-06,0.120
1.450E-06,0.052
1.460E-06,0.020
1.470E-06,0.044
1.480E-06,0.096
1.490E-06,0.160
1.500E-06,0.196
1.510E-06,0.176
1.520E-06,0.124
1.530E-06,0.072
1.540E-06,0.072
1.550E-06,0.112
1.560E-06,0.196
1.570E-06,0.256
1.580E-06,0.308
1.590E-06,0.292
1.600E-06,0.248
1.610E-06,0.172
1.620E-06,0.136
1.630E-06,0.112
1.640E-06,0.124
1.650E-06,0.140
1.660E-06,0.088
1.670E-06,0.012
1.680E-06,-0.100
1.690E-06,-0.268
1.700E-06,-0.440
1.710E-06,-0.488
1.720E-06,-0.388
1.730E-06,-0.236
1.740E-06,-0.248
1.750E-06,-0.224
1.760E-06,-0.296
1.770E-06,-0.504
1.780E-06,-0.488
1.790E-06,-0.364
1.800E-06,-0.192
1.810E-06,0.100
1.820E-06,0.208
1.830E-06,0.272
1.840E-06,-0.120
1.850E-06,-0.336
1.860E-06,-0.332
1.870E-06,-0.172
1.880E-06,0.076
1.890E-06,0.256
1.900E-06,0.304
1.910E-06,0.108
1.920E-06,-0.072
1.930E-06,-0.268
1.940E-06,-0.164
1.950E-06,-0.036
1.960E-06,0.148
1.970E-06,0.260
1.980E-06,0.236
1.990E-06,0.096
2.000E-06,-0.064
2.010E-06,-0.084
2.020E-06,-0.112
2.030E-06,0.016
2.040E-06,0.136
2.050E-06,0.260
2.060E-06,0.268
2.070E-06,0.220
2.080E-06,0.124
2.090E-06,0.076
2.100E-06,0.092
2.110E-06,0.124
2.120E-06,0.220
2.130E-06,0.284
2.140E-06,0.336
2.150E-06,0.308
2.160E-06,0.276
2.170E-06,0.200
2.180E-06,0.180
2.190E-06,0.192
2.200E-06,0.220
2.210E-06,0.272
2.220E-06,0.296
2.230E-06,0.300
2.240E-06,0.256
2.250E-06,0.224
2.260E-06,0.176
2.270E-06,0.176
2.280E-06,0.192
2.290E-06,0.236
2.300E-06,0.276
2.310E-06,0.280
2.320E-06,0.264
2.330E-06,0.220
2.340E-06,0.180
2.350E-06,0.140
2.360E-06,0.144
2.370E-06,0.192
2.380E-06,0.232
2.390E-06,0.252
2.400E-06,0.232
2.410E-06,0.176
2.420E-06,0.132
2.430E-06,0.124
2.440E-06,0.160
2.450E-06,0.208
2.460E-06,0.260
2.470E-06,0.264
2.480E-06,0.216
2.490E-06,0.160
2.500E-06,0.124
2.510E-06,0.136
2.520E-06,0.164
2.530E-06,0.192
2.540E-06,0.208
2.550E-06,0.152
2.560E-06,0.088
2.570E-06,0.028
2.580E-06,0.032
2.590E-06,0.092
2.600E-06,0.140
2.610E-06,0.224
2.620E-06,0.220
2.630E-06,0.204
2.640E-06,0.172
2.650E-06,0.136
2.660E-06,0.128
2.670E-06,0.168
2.680E-06,0.232
2.690E-06,0.272
2.700E-06,0.280
2.710E-06,0.252
2.720E-06,0.208
2.730E-06,0.164
2.740E-06,0.164
2.750E-06,0.184
2.760E-06,0.224
2.770E-06,0.260
2.780E-06,0.268
2.790E-06,0.244
2.800E-06,0.208
2.810E-06,0.180
2.820E-06,0.160
2.830E-06,0.192
2.840E-06,0.216
2.850E-06,0.252
2.860E-06,0.256
2.870E-06,0.244
2.880E-06,0.220
2.890E-06,0.192
2.900E-06,0.180
2.910E-06,0.188
2.920E-06,0.208
2.930E-06,0.232
2.940E-06,0.236
2.950E-06,0.224
2.960E-06,0.208
2.970E-06,0.184
2.980E-06,0.180
2.990E-06,0.188
3.000E-06,0.208
3.010E-06,0.224
3.020E-06,0.228
3.030E-06,0.220
3.040E-06,0.204
3.050E-06,0.188
3.060E-06,0.184
3.070E-06,0.192
3.080E-06,0.204
3.090E-06,0.216
3.100E-06,0.220
3.110E-06,0.212
3.120E-06,0.200
3.130E-06,0.192
3.140E-06,0.192
3.150E-06,0.196
3.160E-06,0.212
3.170E-06,0.224
3.180E-06,0.216
3.190E-06,0.200
3.200E-06,0.192
3.210E-06,0.176
3.220E-06,0.180
3.230E-06,0.192
3.240E-06,0.204
3.250E-06,0.216
3.260E-06,0.216
3.270E-06,0.208
3.280E-06,0.192
3.290E-06,0.184
3.300E-06,0.180
3.310E-06,0.188
3.320E-06,0.196
3.330E-06,0.204
3.340E-06,0.212
3.350E-06,0.204
3.360E-06,0.196
3.370E-06,0.188
3.380E-06,0.176
