mediciones/5-15/14.9/WaveData47326.csv

#timebase=2000000(ps)
,#voltbase=500000(mv/100)
#size=4000
-8.400E-06,0.040
-8.390E-06,0.060
-8.380E-06,0.060
-8.370E-06,0.040
-8.360E-06,0.060
-8.350E-06,0.040
-8.340E-06,0.080
-8.330E-06,0.040
-8.320E-06,0.060
-8.310E-06,0.060
-8.300E-06,0.060
-8.290E-06,0.020
-8.280E-06,0.020
-8.270E-06,0.040
-8.260E-06,0.060
-8.250E-06,0.040
-8.240E-06,0.060
-8.230E-06,0.040
-8.220E-06,0.040
-8.210E-06,0.040
-8.200E-06,0.060
-8.190E-06,0.060
-8.180E-06,0.080
-8.170E-06,0.040
-8.160E-06,0.060
-8.150E-06,0.040
-8.140E-06,0.040
-8.130E-06,0.060
-8.120E-06,0.040
-8.110E-06,0.060
-8.100E-06,0.080
-8.090E-06,0.060
-8.080E-06,0.040
-8.070E-06,0.060
-8.060E-06,0.060
-8.050E-06,0.060
-8.040E-06,0.060
-8.030E-06,0.080
-8.020E-06,0.040
-8.010E-06,0.020
-8.000E-06,0.040
-7.990E-06,0.020
-7.980E-06,0.040
-7.970E-06,0.060
-7.960E-06,0.060
-7.950E-06,0.020
-7.940E-06,0.020
-7.930E-06,0.040
-7.920E-06,0.060
-7.910E-06,0.020
-7.900E-06,0.040
-7.890E-06,0.060
-7.880E-06,0.040
-7.870E-06,0.020
-7.860E-06,0.040
-7.850E-06,0.040
-7.840E-06,0.040
-7.830E-06,0.060
-7.820E-06,0.060
-7.810E-06,0.040
-7.800E-06,0.080
-7.790E-06,0.020
-7.780E-06,0.020
-7.770E-06,0.040
-7.760E-06,0.060
-7.750E-06,0.060
-7.740E-06,0.060
-7.730E-06,0.020
-7.720E-06,0.060
-7.710E-06,0.040
-7.700E-06,0.060
-7.690E-06,0.040
-7.680E-06,0.040
-7.670E-06,0.060
-7.660E-06,0.040
-7.650E-06,0.060
-7.640E-06,0.020
-7.630E-06,0.020
-7.620E-06,0.020
-7.610E-06,0.020
-7.600E-06,0.000
-7.590E-06,0.000
-7.580E-06,0.020
-7.570E-06,0.040
-7.560E-06,0.020
-7.550E-06,0.020
-7.540E-06,0.040
-7.530E-06,0.020
-7.520E-06,0.020
-7.510E-06,0.040
-7.500E-06,0.060
-7.490E-06,0.040
-7.480E-06,0.000
-7.470E-06,0.000
-7.460E-06,0.000
-7.450E-06,0.020
-7.440E-06,0.000
-7.430E-06,0.000
-7.420E-06,0.000
-7.410E-06,0.000
-7.400E-06,0.000
-7.390E-06,0.000
-7.380E-06,0.020
-7.370E-06,0.040
-7.360E-06,0.080
-7.350E-06,0.040
-7.340E-06,0.000
-7.330E-06,-0.020
-7.320E-06,-0.040
-7.310E-06,-0.020
-7.300E-06,0.020
-7.290E-06,0.060
-7.280E-06,0.060
-7.270E-06,0.020
-7.260E-06,0.060
-7.250E-06,0.160
-7.240E-06,0.060
-7.230E-06,0.140
-7.220E-06,0.080
-7.210E-06,-0.020
-7.200E-06,-0.020
-7.190E-06,0.020
-7.180E-06,0.040
-7.170E-06,0.180
-7.160E-06,0.100
-7.150E-06,0.100
-7.140E-06,0.160
-7.130E-06,0.100
-7.120E-06,0.140
-7.110E-06,0.060
-7.100E-06,-0.040
-7.090E-06,-0.080
-7.080E-06,-0.180
-7.070E-06,-0.180
-7.060E-06,-0.160
-7.050E-06,-0.180
-7.040E-06,-0.200
-7.030E-06,-0.200
-7.020E-06,-0.220
-7.010E-06,-0.160
-7.000E-06,-0.140
-6.990E-06,-0.120
-6.980E-06,-0.100
-6.970E-06,-0.060
-6.960E-06,-0.040
-6.950E-06,-0.040
-6.940E-06,-0.020
-6.930E-06,0.040
-6.920E-06,0.060
-6.910E-06,0.040
-6.900E-06,0.040
-6.890E-06,0.080
-6.880E-06,0.120
-6.870E-06,0.140
-6.860E-06,0.160
-6.850E-06,0.180
-6.840E-06,0.160
-6.830E-06,0.120
-6.820E-06,0.140
-6.810E-06,0.140
-6.800E-06,0.080
-6.790E-06,0.060
-6.780E-06,0.020
-6.770E-06,0.000
-6.760E-06,0.040
-6.750E-06,0.080
-6.740E-06,0.060
-6.730E-06,0.080
-6.720E-06,0.060
-6.710E-06,0.020
-6.700E-06,0.020
-6.690E-06,0.020
-6.680E-06,0.020
-6.670E-06,0.020
-6.660E-06,0.000
-6.650E-06,-0.040
-6.640E-06,-0.100
-6.630E-06,-0.160
-6.620E-06,-0.140
-6.610E-06,-0.160
-6.600E-06,-0.160
-6.590E-06,-0.160
-6.580E-06,-0.220
-6.570E-06,-0.180
-6.560E-06,-0.180
-6.550E-06,-0.140
-6.540E-06,-0.100
-6.530E-06,-0.080
-6.520E-06,-0.080
-6.510E-06,-0.060
-6.500E-06,-0.040
-6.490E-06,-0.020
-6.480E-06,0.040
-6.470E-06,0.040
-6.460E-06,0.080
-6.450E-06,0.060
-6.440E-06,0.040
-6.430E-06,0.080
-6.420E-06,0.120
-6.410E-06,0.120
-6.400E-06,0.100
-6.390E-06,0.100
-6.380E-06,0.120
-6.370E-06,0.100
-6.360E-06,0.080
-6.350E-06,0.100
-6.340E-06,0.080
-6.330E-06,0.100
-6.320E-06,0.060
-6.310E-06,0.060
-6.300E-06,0.060
-6.290E-06,0.040
-6.280E-06,0.000
-6.270E-06,0.000
-6.260E-06,-0.020
-6.250E-06,0.000
-6.240E-06,-0.040
-6.230E-06,-0.040
-6.220E-06,-0.100
-6.210E-06,-0.080
-6.200E-06,-0.080
-6.190E-06,-0.040
-6.180E-06,-0.060
-6.170E-06,-0.020
-6.160E-06,-0.040
-6.150E-06,-0.020
-6.140E-06,-0.060
-6.130E-06,-0.080
-6.120E-06,-0.080
-6.110E-06,-0.060
-6.100E-06,-0.060
-6.090E-06,-0.060
-6.080E-06,-0.040
-6.070E-06,-0.060
-6.060E-06,-0.040
-6.050E-06,-0.020
-6.040E-06,-0.020
-6.030E-06,0.040
-6.020E-06,-0.020
-6.010E-06,-0.020
-6.000E-06,-0.060
-5.990E-06,-0.080
-5.980E-06,-0.020
-5.970E-06,0.000
-5.960E-06,-0.020
-5.950E-06,-0.020
-5.940E-06,0.000
-5.930E-06,-0.020
-5.920E-06,0.020
-5.910E-06,0.020
-5.900E-06,0.020
-5.890E-06,0.040
-5.880E-06,0.020
-5.870E-06,0.020
-5.860E-06,-0.020
-5.850E-06,0.000
-5.840E-06,0.020
-5.830E-06,0.060
-5.820E-06,0.000
-5.810E-06,0.020
-5.800E-06,0.020
-5.790E-06,0.020
-5.780E-06,0.040
-5.770E-06,0.040
-5.760E-06,0.020
-5.750E-06,0.000
-5.740E-06,0.000
-5.730E-06,-0.020
-5.720E-06,0.000
-5.710E-06,0.020
-5.700E-06,0.000
-5.690E-06,0.020
-5.680E-06,0.040
-5.670E-06,0.020
-5.660E-06,0.040
-5.650E-06,0.040
-5.640E-06,0.040
-5.630E-06,0.040
-5.620E-06,-0.020
-5.610E-06,0.000
-5.600E-06,0.000
-5.590E-06,-0.020
-5.580E-06,-0.020
-5.570E-06,0.000
-5.560E-06,-0.020
-5.550E-06,-0.020
-5.540E-06,-0.020
-5.530E-06,-0.060
-5.520E-06,-0.040
-5.510E-06,-0.060
-5.500E-06,-0.040
-5.490E-06,0.000
-5.480E-06,-0.020
-5.470E-06,-0.020
-5.460E-06,-0.020
-5.450E-06,-0.040
-5.440E-06,-0.020
-5.430E-06,-0.020
-5.420E-06,-0.020
-5.410E-06,-0.060
-5.400E-06,-0.020
-5.390E-06,-0.020
-5.380E-06,-0.040
-5.370E-06,-0.040
-5.360E-06,-0.080
-5.350E-06,-0.060
-5.340E-06,-0.080
-5.330E-06,-0.120
-5.320E-06,-0.100
-5.310E-06,-0.100
-5.300E-06,-0.100
-5.290E-06,-0.120
-5.280E-06,-0.120
-5.270E-06,-0.140
-5.260E-06,-0.140
-5.250E-06,-0.180
-5.240E-06,-0.180
-5.230E-06,-0.180
-5.220E-06,-0.160
-5.210E-06,-0.180
-5.200E-06,-0.140
-5.190E-06,-0.160
-5.180E-06,-0.180
-5.170E-06,-0.260
-5.160E-06,-0.280
-5.150E-06,-0.320
-5.140E-06,-0.320
-5.130E-06,-0.360
-5.120E-06,-0.420
-5.110E-06,-0.440
-5.100E-06,-0.480
-5.090E-06,-0.500
-5.080E-06,-0.540
-5.070E-06,-0.540
-5.060E-06,-0.560
-5.050E-06,-0.600
-5.040E-06,-0.620
-5.030E-06,-0.640
-5.020E-06,-0.620
-5.010E-06,-0.640
-5.000E-06,-0.640
-4.990E-06,-0.640
-4.980E-06,-0.620
-4.970E-06,-0.620
-4.960E-06,-0.620
-4.950E-06,-0.660
-4.940E-06,-0.680
-4.930E-06,-0.700
-4.920E-06,-0.700
-4.910E-06,-0.720
-4.900E-06,-0.720
-4.890E-06,-0.780
-4.880E-06,-0.840
-4.870E-06,-0.840
-4.860E-06,-0.880
-4.850E-06,-0.880
-4.840E-06,-0.860
-4.830E-06,-0.860
-4.820E-06,-0.860
-4.810E-06,-0.820
-4.800E-06,-0.780
-4.790E-06,-0.700
-4.780E-06,-0.700
-4.770E-06,-0.680
-4.760E-06,-0.660
-4.750E-06,-0.640
-4.740E-06,-0.620
-4.730E-06,-0.580
-4.720E-06,-0.560
-4.710E-06,-0.560
-4.700E-06,-0.560
-4.690E-06,-0.600
-4.680E-06,-0.600
-4.670E-06,-0.600
-4.660E-06,-0.580
-4.650E-06,-0.580
-4.640E-06,-0.580
-4.630E-06,-0.560
-4.620E-06,-0.580
-4.610E-06,-0.580
-4.600E-06,-0.540
-4.590E-06,-0.560
-4.580E-06,-0.560
-4.570E-06,-0.600
-4.560E-06,-0.620
-4.550E-06,-0.640
-4.540E-06,-0.640
-4.530E-06,-0.620
-4.520E-06,-0.660
-4.510E-06,-0.660
-4.500E-06,-0.600
-4.490E-06,-0.620
-4.480E-06,-0.600
-4.470E-06,-0.600
-4.460E-06,-0.620
-4.450E-06,-0.660
-4.440E-06,-0.680
-4.430E-06,-0.680
-4.420E-06,-0.720
-4.410E-06,-0.680
-4.400E-06,-0.700
-4.390E-06,-0.660
-4.380E-06,-0.700
-4.370E-06,-0.680
-4.360E-06,-0.720
-4.350E-06,-0.720
-4.340E-06,-0.780
-4.330E-06,-0.800
-4.320E-06,-0.860
-4.310E-06,-0.920
-4.300E-06,-0.920
-4.290E-06,-0.940
-4.280E-06,-0.940
-4.270E-06,-0.940
-4.260E-06,-0.940
-4.250E-06,-0.920
-4.240E-06,-0.920
-4.230E-06,-0.900
-4.220E-06,-0.900
-4.210E-06,-0.880
-4.200E-06,-0.900
-4.190E-06,-0.880
-4.180E-06,-0.840
-4.170E-06,-0.860
-4.160E-06,-0.840
-4.150E-06,-0.820
-4.140E-06,-0.800
-4.130E-06,-0.800
-4.120E-06,-0.780
-4.110E-06,-0.760
-4.100E-06,-0.740
-4.090E-06,-0.780
-4.080E-06,-0.800
-4.070E-06,-0.780
-4.060E-06,-0.800
-4.050E-06,-0.800
-4.040E-06,-0.800
-4.030E-06,-0.820
-4.020E-06,-0.820
-4.010E-06,-0.820
-4.000E-06,-0.860
-3.990E-06,-0.820
-3.980E-06,-0.840
-3.970E-06,-0.780
-3.960E-06,-0.760
-3.950E-06,-0.760
-3.940E-06,-0.740
-3.930E-06,-0.760
-3.920E-06,-0.800
-3.910E-06,-0.860
-3.900E-06,-0.880
-3.890E-06,-0.960
-3.880E-06,-1.040
-3.870E-06,-1.140
-3.860E-06,-1.180
-3.850E-06,-1.240
-3.840E-06,-1.240
-3.830E-06,-1.240
-3.820E-06,-1.280
-3.810E-06,-1.300
-3.800E-06,-1.300
-3.790E-06,-1.300
-3.780E-06,-1.300
-3.770E-06,-1.300
-3.760E-06,-1.400
-3.750E-06,-1.360
-3.740E-06,-1.340
-3.730E-06,-1.360
-3.720E-06,-1.360
-3.710E-06,-1.340
-3.700E-06,-1.300
-3.690E-06,-1.240
-3.680E-06,-1.200
-3.670E-06,-1.100
-3.660E-06,-1.060
-3.650E-06,-1.020
-3.640E-06,-0.960
-3.630E-06,-0.960
-3.620E-06,-0.920
-3.610E-06,-0.940
-3.600E-06,-0.940
-3.590E-06,-0.960
-3.580E-06,-0.980
-3.570E-06,-0.980
-3.560E-06,-1.000
-3.550E-06,-1.020
-3.540E-06,-1.040
-3.530E-06,-1.020
-3.520E-06,-1.040
-3.510E-06,-1.100
-3.500E-06,-1.100
-3.490E-06,-1.100
-3.480E-06,-1.160
-3.470E-06,-1.180
-3.460E-06,-1.200
-3.450E-06,-1.240
-3.440E-06,-1.220
-3.430E-06,-1.260
-3.420E-06,-1.260
-3.410E-06,-1.380
-3.400E-06,-1.480
-3.390E-06,-1.540
-3.380E-06,-1.500
-3.370E-06,-1.420
-3.360E-06,-1.400
-3.350E-06,-1.320
-3.340E-06,-1.400
-3.330E-06,-1.200
-3.320E-06,-1.140
-3.310E-06,-1.100
-3.300E-06,-1.020
-3.290E-06,-1.100
-3.280E-06,-1.060
-3.270E-06,-1.040
-3.260E-06,-0.980
-3.250E-06,-0.940
-3.240E-06,-0.960
-3.230E-06,-0.920
-3.220E-06,-0.920
-3.210E-06,-0.840
-3.200E-06,-0.780
-3.190E-06,-0.760
-3.180E-06,-0.760
-3.170E-06,-0.800
-3.160E-06,-0.740
-3.150E-06,-0.680
-3.140E-06,-0.600
-3.130E-06,-0.560
-3.120E-06,-0.520
-3.110E-06,-0.540
-3.100E-06,-0.560
-3.090E-06,-0.560
-3.080E-06,-0.540
-3.070E-06,-0.500
-3.060E-06,-0.520
-3.050E-06,-0.600
-3.040E-06,-0.700
-3.030E-06,-0.740
-3.020E-06,-0.720
-3.010E-06,-0.760
-3.000E-06,-0.700
-2.990E-06,-0.700
-2.980E-06,-0.720
-2.970E-06,-0.680
-2.960E-06,-0.740
-2.950E-06,-0.800
-2.940E-06,-0.900
-2.930E-06,-1.020
-2.920E-06,-1.080
-2.910E-06,-1.100
-2.900E-06,-1.120
-2.890E-06,-1.180
-2.880E-06,-1.180
-2.870E-06,-1.240
-2.860E-06,-1.200
-2.850E-06,-1.200
-2.840E-06,-1.060
-2.830E-06,-1.020
-2.820E-06,-0.840
-2.810E-06,-0.880
-2.800E-06,-0.800
-2.790E-06,-0.740
-2.780E-06,-0.580
-2.770E-06,-0.400
-2.760E-06,-0.260
-2.750E-06,-0.200
-2.740E-06,-0.140
-2.730E-06,-0.100
-2.720E-06,-0.100
-2.710E-06,-0.080
-2.700E-06,-0.120
-2.690E-06,-0.200
-2.680E-06,-0.240
-2.670E-06,-0.380
-2.660E-06,-0.400
-2.650E-06,-0.520
-2.640E-06,-0.600
-2.630E-06,-0.680
-2.620E-06,-0.700
-2.610E-06,-0.700
-2.600E-06,-0.700
-2.590E-06,-0.740
-2.580E-06,-0.720
-2.570E-06,-0.700
-2.560E-06,-0.640
-2.550E-06,-0.640
-2.540E-06,-0.600
-2.530E-06,-0.500
-2.520E-06,-0.420
-2.510E-06,-0.340
-2.500E-06,-0.340
-2.490E-06,-0.260
-2.480E-06,-0.240
-2.470E-06,-0.220
-2.460E-06,-0.160
-2.450E-06,-0.120
-2.440E-06,-0.080
-2.430E-06,-0.080
-2.420E-06,-0.080
-2.410E-06,-0.060
-2.400E-06,-0.080
-2.390E-06,-0.120
-2.380E-06,-0.160
-2.370E-06,-0.240
-2.360E-06,-0.340
-2.350E-06,-0.420
-2.340E-06,-0.500
-2.330E-06,-0.560
-2.320E-06,-0.580
-2.310E-06,-0.580
-2.300E-06,-0.420
-2.290E-06,-0.440
-2.280E-06,-0.260
-2.270E-06,-0.240
-2.260E-06,-0.260
-2.250E-06,-0.240
-2.240E-06,-0.540
-2.230E-06,-0.480
-2.220E-06,-0.580
-2.210E-06,-0.360
-2.200E-06,-0.320
-2.190E-06,0.000
-2.180E-06,0.000
-2.170E-06,0.040
-2.160E-06,-0.220
-2.150E-06,-0.320
-2.140E-06,-0.560
-2.130E-06,-0.600
-2.120E-06,-0.600
-2.110E-06,-0.600
-2.100E-06,-0.740
-2.090E-06,-0.800
-2.080E-06,-0.900
-2.070E-06,-0.880
-2.060E-06,-0.880
-2.050E-06,-0.900
-2.040E-06,-0.860
-2.030E-06,-1.020
-2.020E-06,-0.980
-2.010E-06,-1.200
-2.000E-06,-1.180
-1.990E-06,-1.300
-1.980E-06,-1.300
-1.970E-06,-1.080
-1.960E-06,-0.840
-1.950E-06,-0.360
-1.940E-06,-0.220
-1.930E-06,0.140
-1.920E-06,-0.060
-1.910E-06,0.060
-1.900E-06,-0.160
-1.890E-06,-0.220
-1.880E-06,-0.500
-1.870E-06,-0.560
-1.860E-06,-0.600
-1.850E-06,-0.700
-1.840E-06,-0.700
-1.830E-06,-0.800
-1.820E-06,-0.760
-1.810E-06,-0.740
-1.800E-06,-0.460
-1.790E-06,-0.480
-1.780E-06,-0.320
-1.770E-06,-0.600
-1.760E-06,-0.760
-1.750E-06,-0.800
-1.740E-06,-0.700
-1.730E-06,-0.520
-1.720E-06,-0.260
-1.710E-06,-0.300
-1.700E-06,-0.200
-1.690E-06,-0.140
-1.680E-06,0.040
-1.670E-06,0.160
-1.660E-06,0.240
-1.650E-06,0.200
-1.640E-06,0.240
-1.630E-06,0.240
-1.620E-06,0.280
-1.610E-06,0.300
-1.600E-06,0.260
-1.590E-06,0.360
-1.580E-06,0.340
-1.570E-06,0.320
-1.560E-06,0.280
-1.550E-06,0.140
-1.540E-06,0.080
-1.530E-06,-0.080
-1.520E-06,-0.180
-1.510E-06,-0.180
-1.500E-06,-0.220
-1.490E-06,-0.220
-1.480E-06,-0.200
-1.470E-06,-0.200
-1.460E-06,-0.180
-1.450E-06,-0.140
-1.440E-06,-0.100
-1.430E-06,-0.060
-1.420E-06,-0.040
-1.410E-06,-0.100
-1.400E-06,-0.180
-1.390E-06,-0.220
-1.380E-06,-0.240
-1.370E-06,-0.220
-1.360E-06,-0.200
-1.350E-06,-0.220
-1.340E-06,-0.260
-1.330E-06,-0.280
-1.320E-06,-0.280
-1.310E-06,-0.260
-1.300E-06,-0.260
-1.290E-06,-0.280
-1.280E-06,-0.280
-1.270E-06,-0.300
-1.260E-06,-0.320
-1.250E-06,-0.280
-1.240E-06,-0.260
-1.230E-06,-0.260
-1.220E-06,-0.260
-1.210E-06,-0.260
-1.200E-06,-0.240
-1.190E-06,-0.200
-1.180E-06,-0.180
-1.170E-06,-0.200
-1.160E-06,-0.220
-1.150E-06,-0.260
-1.140E-06,-0.200
-1.130E-06,-0.160
-1.120E-06,-0.180
-1.110E-06,-0.160
-1.100E-06,-0.180
-1.090E-06,-0.280
-1.080E-06,-0.360
-1.070E-06,-0.460
-1.060E-06,-0.560
-1.050E-06,-0.640
-1.040E-06,-0.780
-1.030E-06,-0.840
-1.020E-06,-1.000
-1.010E-06,-1.260
-1.000E-06,-1.320
-9.900E-07,-1.660
-9.800E-07,-1.600
-9.700E-07,-1.900
-9.600E-07,-1.960
-9.500E-07,-2.360
-9.400E-07,-2.440
-9.300E-07,-2.640
-9.200E-07,-2.640
-9.100E-07,-2.660
-9.000E-07,-2.660
-8.900E-07,-2.680
-8.800E-07,-2.660
-8.700E-07,-2.220
-8.600E-07,-1.880
-8.500E-07,-1.260
-8.400E-07,-1.440
-8.300E-07,-1.760
-8.200E-07,-2.000
-8.100E-07,-2.200
-8.000E-07,-2.260
-7.900E-07,-1.920
-7.800E-07,-2.040
-7.700E-07,-1.860
-7.600E-07,-1.900
-7.500E-07,-1.820
-7.400E-07,-1.640
-7.300E-07,-1.420
-7.200E-07,-1.320
-7.100E-07,-1.120
-7.000E-07,-1.100
-6.900E-07,-1.060
-6.800E-07,-1.100
-6.700E-07,-1.200
-6.600E-07,-1.120
-6.500E-07,-1.000
-6.400E-07,-0.880
-6.300E-07,-0.720
-6.200E-07,-0.680
-6.100E-07,-0.440
-6.000E-07,-0.460
-5.900E-07,-0.320
-5.800E-07,-0.200
-5.700E-07,-0.200
-5.600E-07,-0.080
-5.500E-07,0.020
-5.400E-07,0.040
-5.300E-07,0.160
-5.200E-07,0.020
-5.100E-07,-0.040
-5.000E-07,-0.080
-4.900E-07,-0.040
-4.800E-07,-0.120
-4.700E-07,-0.080
-4.600E-07,-0.340
-4.500E-07,-0.480
-4.400E-07,-0.600
-4.300E-07,-0.500
-4.200E-07,-0.320
-4.100E-07,-0.300
-4.000E-07,-0.140
-3.900E-07,-0.240
-3.800E-07,-0.160
-3.700E-07,-0.200
-3.600E-07,-0.180
-3.500E-07,-0.280
-3.400E-07,-0.360
-3.300E-07,-0.480
-3.200E-07,-0.560
-3.100E-07,-0.680
-3.000E-07,-0.760
-2.900E-07,-0.940
-2.800E-07,-1.060
-2.700E-07,-1.280
-2.600E-07,-1.360
-2.500E-07,-1.520
-2.400E-07,-1.620
-2.300E-07,-1.700
-2.200E-07,-1.700
-2.100E-07,-1.640
-2.000E-07,-1.560
-1.900E-07,-1.580
-1.800E-07,-1.460
-1.700E-07,-1.460
-1.600E-07,-1.380
-1.500E-07,-1.240
-1.400E-07,-1.500
-1.300E-07,-1.420
-1.200E-07,-1.820
-1.100E-07,-2.000
-1.000E-07,-2.100
-9.000E-08,-2.400
-8.000E-08,-2.420
-7.000E-08,-2.560
-6.000E-08,-2.280
-5.000E-08,-0.760
-4.000E-08,0.280
-3.000E-08,1.260
-2.000E-08,1.400
-1.000E-08,0.040
0.000E+00,-0.780
1.000E-08,-1.860
2.000E-08,-2.100
3.000E-08,-2.280
4.000E-08,-2.620
5.000E-08,-2.660
6.000E-08,-2.660
7.000E-08,-2.660
8.000E-08,-2.660
9.000E-08,-2.660
1.000E-07,-2.500
1.100E-07,-2.260
1.200E-07,-1.840
1.300E-07,-1.280
1.400E-07,-0.660
1.500E-07,-0.060
1.600E-07,0.340
1.700E-07,0.560
1.800E-07,0.720
1.900E-07,0.740
2.000E-07,0.640
2.100E-07,0.520
2.200E-07,0.440
2.300E-07,0.420
2.400E-07,0.120
2.500E-07,-0.060
2.600E-07,-0.240
2.700E-07,-0.260
2.800E-07,-0.160
2.900E-07,-0.080
3.000E-07,0.080
3.100E-07,0.360
3.200E-07,0.540
3.300E-07,0.840
3.400E-07,0.740
3.500E-07,0.760
3.600E-07,0.400
3.700E-07,0.160
3.800E-07,-0.260
3.900E-07,-0.560
4.000E-07,-0.820
4.100E-07,-0.860
4.200E-07,-0.760
4.300E-07,-0.500
4.400E-07,-0.280
4.500E-07,0.020
4.600E-07,0.220
4.700E-07,0.440
4.800E-07,0.520
4.900E-07,0.700
5.000E-07,0.700
5.100E-07,0.720
5.200E-07,0.600
5.300E-07,0.380
5.400E-07,0.120
5.500E-07,-0.280
5.600E-07,-0.680
5.700E-07,-1.120
5.800E-07,-1.560
5.900E-07,-2.000
6.000E-07,-2.320
6.100E-07,-2.640
6.200E-07,-2.660
6.300E-07,-2.660
6.400E-07,-2.640
6.500E-07,-2.660
6.600E-07,-2.660
6.700E-07,-2.660
6.800E-07,-2.640
6.900E-07,-2.640
7.000E-07,-2.640
7.100E-07,-2.640
7.200E-07,-2.640
7.300E-07,-2.640
7.400E-07,-2.640
7.500E-07,-2.660
7.600E-07,-2.660
7.700E-07,-2.440
7.800E-07,-2.380
7.900E-07,-2.160
8.000E-07,-2.240
8.100E-07,-2.360
8.200E-07,-2.560
8.300E-07,-2.660
8.400E-07,-2.640
8.500E-07,-2.640
8.600E-07,-2.660
8.700E-07,-2.660
8.800E-07,-2.660
8.900E-07,-2.660
9.000E-07,-2.660
9.100E-07,-2.680
9.200E-07,-2.660
9.300E-07,-2.660
9.400E-07,-2.640
9.500E-07,-2.640
9.600E-07,-2.640
9.700E-07,-2.640
9.800E-07,-2.660
9.900E-07,-2.660
1.000E-06,-2.680
1.010E-06,-2.660
1.020E-06,-2.660
1.030E-06,-2.580
1.040E-06,-2.200
1.050E-06,-1.960
1.060E-06,-2.040
1.070E-06,-1.920
1.080E-06,-1.980
1.090E-06,-1.540
1.100E-06,-1.100
1.110E-06,-0.540
1.120E-06,0.100
1.130E-06,0.520
1.140E-06,1.000
1.150E-06,1.180
1.160E-06,1.340
1.170E-06,1.280
1.180E-06,0.980
1.190E-06,0.480
1.200E-06,-0.300
1.210E-06,-1.200
1.220E-06,-2.020
1.230E-06,-2.640
1.240E-06,-2.660
1.250E-06,-2.660
1.260E-06,-2.640
1.270E-06,-2.660
1.280E-06,-2.660
1.290E-06,-2.660
1.300E-06,-2.660
1.310E-06,-2.600
1.320E-06,-2.240
1.330E-06,-1.940
1.340E-06,-1.660
1.350E-06,-1.520
1.360E-06,-1.360
1.370E-06,-1.360
1.380E-06,-1.480
1.390E-06,-1.220
1.400E-06,-0.700
1.410E-06,-0.120
1.420E-06,0.160
1.430E-06,0.120
1.440E-06,-0.400
1.450E-06,-1.280
1.460E-06,-1.920
1.470E-06,-2.640
1.480E-06,-2.640
1.490E-06,-2.640
1.500E-06,-2.660
1.510E-06,-2.660
1.520E-06,-2.680
1.530E-06,-2.660
1.540E-06,-2.660
1.550E-06,-2.660
1.560E-06,-2.660
1.570E-06,-2.680
1.580E-06,-2.680
1.590E-06,-2.660
1.600E-06,-2.660
1.610E-06,-2.660
1.620E-06,-2.680
1.630E-06,-2.660
1.640E-06,-2.660
1.650E-06,-2.640
1.660E-06,-2.660
1.670E-06,-2.660
1.680E-06,-2.660
1.690E-06,-2.660
1.700E-06,-2.660
1.710E-06,-2.660
1.720E-06,-2.660
1.730E-06,-2.660
1.740E-06,-2.680
1.750E-06,-2.540
1.760E-06,-2.240
1.770E-06,-1.880
1.780E-06,-1.480
1.790E-06,-1.040
1.800E-06,-0.700
1.810E-06,-0.340
1.820E-06,-0.260
1.830E-06,-0.060
1.840E-06,-0.300
1.850E-06,-0.340
1.860E-06,-0.740
1.870E-06,-1.000
1.880E-06,-1.460
1.890E-06,-1.960
1.900E-06,-2.380
1.910E-06,-2.660
1.920E-06,-2.660
1.930E-06,-2.660
1.940E-06,-2.660
1.950E-06,-2.660
1.960E-06,-2.640
1.970E-06,-2.660
1.980E-06,-2.320
1.990E-06,-2.000
2.000E-06,-1.840
2.010E-06,-1.700
2.020E-06,-1.620
2.030E-06,-1.620
2.040E-06,-1.660
2.050E-06,-1.740
2.060E-06,-1.760
2.070E-06,-1.840
2.080E-06,-1.960
2.090E-06,-2.000
2.100E-06,-2.020
2.110E-06,-1.960
2.120E-06,-1.840
2.130E-06,-1.680
2.140E-06,-1.460
2.150E-06,-1.260
2.160E-06,-1.100
2.170E-06,-0.900
2.180E-06,-0.800
2.190E-06,-0.720
2.200E-06,-0.660
2.210E-06,-0.600
2.220E-06,-0.560
2.230E-06,-0.560
2.240E-06,-0.600
2.250E-06,-0.620
2.260E-06,-0.660
2.270E-06,-0.680
2.280E-06,-0.660
2.290E-06,-0.680
2.300E-06,-0.660
2.310E-06,-0.680
2.320E-06,-0.660
2.330E-06,-0.720
2.340E-06,-0.780
2.350E-06,-0.860
2.360E-06,-0.920
2.370E-06,-1.000
2.380E-06,-1.100
2.390E-06,-1.140
2.400E-06,-1.160
2.410E-06,-1.180
2.420E-06,-1.160
2.430E-06,-1.100
2.440E-06,-1.080
2.450E-06,-1.040
2.460E-06,-1.020
2.470E-06,-1.000
2.480E-06,-1.000
2.490E-06,-1.060
2.500E-06,-1.120
2.510E-06,-1.260
2.520E-06,-1.380
2.530E-06,-1.520
2.540E-06,-1.720
2.550E-06,-1.920
2.560E-06,-2.140
2.570E-06,-2.340
2.580E-06,-2.480
2.590E-06,-2.620
2.600E-06,-2.660
2.610E-06,-2.660
2.620E-06,-2.680
2.630E-06,-2.680
2.640E-06,-2.660
2.650E-06,-2.660
2.660E-06,-2.660
2.670E-06,-2.660
2.680E-06,-2.660
2.690E-06,-2.660
2.700E-06,-2.660
2.710E-06,-2.660
2.720E-06,-2.660
2.730E-06,-2.660
2.740E-06,-2.680
2.750E-06,-2.660
2.760E-06,-2.660
2.770E-06,-2.660
2.780E-06,-2.660
2.790E-06,-2.660
2.800E-06,-2.640
2.810E-06,-2.640
2.820E-06,-2.660
2.830E-06,-2.660
2.840E-06,-2.660
2.850E-06,-2.660
2.860E-06,-2.660
2.870E-06,-2.660
2.880E-06,-2.680
2.890E-06,-2.660
2.900E-06,-2.660
2.910E-06,-2.660
2.920E-06,-2.680
2.930E-06,-2.660
2.940E-06,-2.620
2.950E-06,-2.420
2.960E-06,-2.200
2.970E-06,-2.000
2.980E-06,-1.800
