mediciones/5-15/14.9/WaveData47321.csv

#timebase=2000000(ps)
,#voltbase=100000(mv/100)
#size=4000
-8.400E-06,0.000
-8.390E-06,0.004
-8.380E-06,0.000
-8.370E-06,0.000
-8.360E-06,0.004
-8.350E-06,0.004
-8.340E-06,0.004
-8.330E-06,0.004
-8.320E-06,0.004
-8.310E-06,0.004
-8.300E-06,0.004
-8.290E-06,0.004
-8.280E-06,0.004
-8.270E-06,0.000
-8.260E-06,0.004
-8.250E-06,0.004
-8.240E-06,0.004
-8.230E-06,0.008
-8.220E-06,0.008
-8.210E-06,0.008
-8.200E-06,0.008
-8.190E-06,0.008
-8.180E-06,0.008
-8.170E-06,0.000
-8.160E-06,0.004
-8.150E-06,0.004
-8.140E-06,0.004
-8.130E-06,0.004
-8.120E-06,0.004
-8.110E-06,0.008
-8.100E-06,0.008
-8.090E-06,0.000
-8.080E-06,0.004
-8.070E-06,0.004
-8.060E-06,0.004
-8.050E-06,0.004
-8.040E-06,-0.004
-8.030E-06,0.000
-8.020E-06,0.004
-8.010E-06,-0.004
-8.000E-06,0.004
-7.990E-06,-0.004
-7.980E-06,0.004
-7.970E-06,0.000
-7.960E-06,0.004
-7.950E-06,0.004
-7.940E-06,0.004
-7.930E-06,0.000
-7.920E-06,0.004
-7.910E-06,0.008
-7.900E-06,0.008
-7.890E-06,-0.004
-7.880E-06,0.004
-7.870E-06,0.004
-7.860E-06,0.004
-7.850E-06,0.004
-7.840E-06,0.004
-7.830E-06,0.004
-7.820E-06,0.000
-7.810E-06,0.000
-7.800E-06,0.004
-7.790E-06,0.004
-7.780E-06,0.004
-7.770E-06,0.000
-7.760E-06,0.004
-7.750E-06,0.000
-7.740E-06,0.000
-7.730E-06,0.008
-7.720E-06,0.000
-7.710E-06,0.000
-7.700E-06,0.004
-7.690E-06,0.004
-7.680E-06,0.008
-7.670E-06,0.000
-7.660E-06,0.000
-7.650E-06,0.004
-7.640E-06,0.000
-7.630E-06,-0.004
-7.620E-06,0.004
-7.610E-06,0.000
-7.600E-06,0.004
-7.590E-06,0.000
-7.580E-06,0.004
-7.570E-06,0.000
-7.560E-06,0.004
-7.550E-06,0.000
-7.540E-06,0.004
-7.530E-06,-0.004
-7.520E-06,0.004
-7.510E-06,0.004
-7.500E-06,0.004
-7.490E-06,0.000
-7.480E-06,0.004
-7.470E-06,0.004
-7.460E-06,0.004
-7.450E-06,0.004
-7.440E-06,0.004
-7.430E-06,0.004
-7.420E-06,0.004
-7.410E-06,0.008
-7.400E-06,0.000
-7.390E-06,0.004
-7.380E-06,0.004
-7.370E-06,0.004
-7.360E-06,0.004
-7.350E-06,0.004
-7.340E-06,0.008
-7.330E-06,0.000
-7.320E-06,0.000
-7.310E-06,0.004
-7.300E-06,0.000
-7.290E-06,0.004
-7.280E-06,0.004
-7.270E-06,0.004
-7.260E-06,0.004
-7.250E-06,0.004
-7.240E-06,0.000
-7.230E-06,0.004
-7.220E-06,0.004
-7.210E-06,0.004
-7.200E-06,0.004
-7.190E-06,0.000
-7.180E-06,0.000
-7.170E-06,0.004
-7.160E-06,0.008
-7.150E-06,0.000
-7.140E-06,0.004
-7.130E-06,0.004
-7.120E-06,0.004
-7.110E-06,0.004
-7.100E-06,0.008
-7.090E-06,0.008
-7.080E-06,0.000
-7.070E-06,0.000
-7.060E-06,0.000
-7.050E-06,-0.004
-7.040E-06,0.004
-7.030E-06,0.000
-7.020E-06,0.004
-7.010E-06,0.004
-7.000E-06,0.004
-6.990E-06,0.004
-6.980E-06,0.004
-6.970E-06,0.004
-6.960E-06,0.004
-6.950E-06,0.004
-6.940E-06,0.004
-6.930E-06,0.000
-6.920E-06,0.008
-6.910E-06,0.004
-6.900E-06,0.008
-6.890E-06,0.008
-6.880E-06,0.008
-6.870E-06,0.008
-6.860E-06,0.000
-6.850E-06,-0.004
-6.840E-06,0.004
-6.830E-06,0.008
-6.820E-06,0.000
-6.810E-06,0.004
-6.800E-06,0.004
-6.790E-06,0.004
-6.780E-06,0.000
-6.770E-06,0.004
-6.760E-06,0.000
-6.750E-06,0.004
-6.740E-06,0.004
-6.730E-06,0.000
-6.720E-06,0.000
-6.710E-06,0.008
-6.700E-06,0.000
-6.690E-06,0.000
-6.680E-06,0.004
-6.670E-06,0.004
-6.660E-06,0.004
-6.650E-06,0.004
-6.640E-06,0.004
-6.630E-06,0.000
-6.620E-06,0.004
-6.610E-06,0.000
-6.600E-06,0.004
-6.590E-06,0.004
-6.580E-06,0.004
-6.570E-06,0.000
-6.560E-06,0.004
-6.550E-06,0.000
-6.540E-06,0.004
-6.530E-06,0.004
-6.520E-06,0.000
-6.510E-06,0.000
-6.500E-06,0.004
-6.490E-06,0.000
-6.480E-06,-0.004
-6.470E-06,0.004
-6.460E-06,0.000
-6.450E-06,0.004
-6.440E-06,0.000
-6.430E-06,0.004
-6.420E-06,0.004
-6.410E-06,0.004
-6.400E-06,0.004
-6.390E-06,0.000
-6.380E-06,0.004
-6.370E-06,0.004
-6.360E-06,0.004
-6.350E-06,0.004
-6.340E-06,0.000
-6.330E-06,0.004
-6.320E-06,0.000
-6.310E-06,0.004
-6.300E-06,0.004
-6.290E-06,0.008
-6.280E-06,0.000
-6.270E-06,0.004
-6.260E-06,0.004
-6.250E-06,0.004
-6.240E-06,0.000
-6.230E-06,0.004
-6.220E-06,0.004
-6.210E-06,0.000
-6.200E-06,0.004
-6.190E-06,0.000
-6.180E-06,0.004
-6.170E-06,0.004
-6.160E-06,0.000
-6.150E-06,0.004
-6.140E-06,0.004
-6.130E-06,0.000
-6.120E-06,0.000
-6.110E-06,0.004
-6.100E-06,0.004
-6.090E-06,0.008
-6.080E-06,0.008
-6.070E-06,0.000
-6.060E-06,0.004
-6.050E-06,0.004
-6.040E-06,0.004
-6.030E-06,0.008
-6.020E-06,0.008
-6.010E-06,0.000
-6.000E-06,-0.004
-5.990E-06,0.004
-5.980E-06,0.004
-5.970E-06,0.000
-5.960E-06,0.004
-5.950E-06,0.004
-5.940E-06,0.004
-5.930E-06,0.004
-5.920E-06,0.000
-5.910E-06,0.004
-5.900E-06,0.000
-5.890E-06,0.004
-5.880E-06,0.004
-5.870E-06,0.000
-5.860E-06,0.004
-5.850E-06,0.004
-5.840E-06,0.004
-5.830E-06,0.000
-5.820E-06,0.000
-5.810E-06,0.004
-5.800E-06,0.004
-5.790E-06,0.000
-5.780E-06,0.004
-5.770E-06,0.008
-5.760E-06,0.008
-5.750E-06,0.008
-5.740E-06,0.000
-5.730E-06,0.000
-5.720E-06,0.004
-5.710E-06,0.008
-5.700E-06,0.000
-5.690E-06,0.000
-5.680E-06,0.004
-5.670E-06,0.000
-5.660E-06,0.004
-5.650E-06,0.004
-5.640E-06,0.004
-5.630E-06,0.004
-5.620E-06,0.000
-5.610E-06,-0.004
-5.600E-06,0.000
-5.590E-06,0.008
-5.580E-06,0.008
-5.570E-06,0.000
-5.560E-06,0.004
-5.550E-06,0.000
-5.540E-06,0.004
-5.530E-06,0.004
-5.520E-06,0.004
-5.510E-06,0.004
-5.500E-06,0.004
-5.490E-06,0.004
-5.480E-06,0.008
-5.470E-06,0.000
-5.460E-06,0.004
-5.450E-06,0.004
-5.440E-06,0.004
-5.430E-06,0.024
-5.420E-06,0.088
-5.410E-06,0.128
-5.400E-06,0.136
-5.390E-06,0.060
-5.380E-06,-0.072
-5.370E-06,-0.208
-5.360E-06,-0.240
-5.350E-06,-0.140
-5.340E-06,0.048
-5.330E-06,0.228
-5.320E-06,0.280
-5.310E-06,0.156
-5.300E-06,-0.040
-5.290E-06,-0.180
-5.280E-06,-0.208
-5.270E-06,-0.112
-5.260E-06,0.044
-5.250E-06,0.184
-5.240E-06,0.196
-5.230E-06,0.124
-5.220E-06,-0.004
-5.210E-06,-0.136
-5.200E-06,-0.176
-5.190E-06,-0.140
-5.180E-06,-0.036
-5.170E-06,0.080
-5.160E-06,0.156
-5.150E-06,0.152
-5.140E-06,0.092
-5.130E-06,-0.008
-5.120E-06,-0.104
-5.110E-06,-0.136
-5.100E-06,-0.080
-5.090E-06,0.008
-5.080E-06,0.100
-5.070E-06,0.136
-5.060E-06,0.088
-5.050E-06,-0.004
-5.040E-06,-0.096
-5.030E-06,-0.136
-5.020E-06,-0.120
-5.010E-06,-0.040
-5.000E-06,0.056
-4.990E-06,0.120
-4.980E-06,0.112
-4.970E-06,0.064
-4.960E-06,-0.012
-4.950E-06,-0.064
-4.940E-06,-0.068
-4.930E-06,-0.040
-4.920E-06,0.012
-4.910E-06,0.060
-4.900E-06,0.068
-4.890E-06,0.048
-4.880E-06,0.012
-4.870E-06,-0.040
-4.860E-06,-0.064
-4.850E-06,-0.056
-4.840E-06,-0.024
-4.830E-06,0.028
-4.820E-06,0.056
-4.810E-06,0.076
-4.800E-06,0.048
-4.790E-06,0.000
-4.780E-06,-0.028
-4.770E-06,-0.040
-4.760E-06,-0.028
-4.750E-06,0.000
-4.740E-06,0.028
-4.730E-06,0.036
-4.720E-06,0.024
-4.710E-06,0.000
-4.700E-06,-0.024
-4.690E-06,-0.036
-4.680E-06,-0.036
-4.670E-06,-0.004
-4.660E-06,0.012
-4.650E-06,0.028
-4.640E-06,0.028
-4.630E-06,0.020
-4.620E-06,0.004
-4.610E-06,-0.008
-4.600E-06,-0.012
-4.590E-06,0.000
-4.580E-06,0.012
-4.570E-06,0.016
-4.560E-06,0.016
-4.550E-06,0.008
-4.540E-06,-0.004
-4.530E-06,-0.012
-4.520E-06,-0.012
-4.510E-06,-0.004
-4.500E-06,0.004
-4.490E-06,0.012
-4.480E-06,0.020
-4.470E-06,0.012
-4.460E-06,0.008
-4.450E-06,-0.004
-4.440E-06,0.000
-4.430E-06,0.000
-4.420E-06,0.004
-4.410E-06,0.008
-4.400E-06,0.012
-4.390E-06,0.004
-4.380E-06,-0.004
-4.370E-06,-0.004
-4.360E-06,-0.004
-4.350E-06,-0.008
-4.340E-06,0.000
-4.330E-06,0.012
-4.320E-06,0.016
-4.310E-06,0.016
-4.300E-06,0.012
-4.290E-06,0.004
-4.280E-06,-0.008
-4.270E-06,0.000
-4.260E-06,0.004
-4.250E-06,0.012
-4.240E-06,0.012
-4.230E-06,0.012
-4.220E-06,0.008
-4.210E-06,0.000
-4.200E-06,-0.004
-4.190E-06,-0.008
-4.180E-06,-0.004
-4.170E-06,0.004
-4.160E-06,0.012
-4.150E-06,0.008
-4.140E-06,0.004
-4.130E-06,0.000
-4.120E-06,0.000
-4.110E-06,-0.004
-4.100E-06,0.000
-4.090E-06,0.000
-4.080E-06,0.012
-4.070E-06,0.012
-4.060E-06,0.012
-4.050E-06,0.004
-4.040E-06,-0.004
-4.030E-06,-0.008
-4.020E-06,-0.008
-4.010E-06,0.004
-4.000E-06,0.012
-3.990E-06,0.016
-3.980E-06,0.012
-3.970E-06,0.000
-3.960E-06,-0.008
-3.950E-06,-0.008
-3.940E-06,0.000
-3.930E-06,0.008
-3.920E-06,0.020
-3.910E-06,0.016
-3.900E-06,0.012
-3.890E-06,0.000
-3.880E-06,0.000
-3.870E-06,-0.004
-3.860E-06,0.004
-3.850E-06,-0.004
-3.840E-06,-0.008
-3.830E-06,-0.008
-3.820E-06,-0.004
-3.810E-06,0.012
-3.800E-06,0.004
-3.790E-06,0.000
-3.780E-06,-0.004
-3.770E-06,-0.004
-3.760E-06,0.004
-3.750E-06,0.008
-3.740E-06,0.012
-3.730E-06,0.008
-3.720E-06,-0.004
-3.710E-06,-0.008
-3.700E-06,-0.012
-3.690E-06,0.000
-3.680E-06,0.008
-3.670E-06,0.012
-3.660E-06,0.012
-3.650E-06,0.012
-3.640E-06,0.000
-3.630E-06,-0.004
-3.620E-06,-0.004
-3.610E-06,0.004
-3.600E-06,0.008
-3.590E-06,0.008
-3.580E-06,0.008
-3.570E-06,0.008
-3.560E-06,0.004
-3.550E-06,0.000
-3.540E-06,-0.004
-3.530E-06,0.004
-3.520E-06,0.004
-3.510E-06,0.004
-3.500E-06,0.008
-3.490E-06,0.008
-3.480E-06,0.008
-3.470E-06,0.004
-3.460E-06,0.004
-3.450E-06,0.008
-3.440E-06,0.004
-3.430E-06,0.008
-3.420E-06,0.008
-3.410E-06,0.008
-3.400E-06,0.004
-3.390E-06,0.004
-3.380E-06,-0.004
-3.370E-06,-0.004
-3.360E-06,-0.004
-3.350E-06,-0.004
-3.340E-06,0.004
-3.330E-06,0.012
-3.320E-06,0.012
-3.310E-06,0.008
-3.300E-06,0.000
-3.290E-06,-0.004
-3.280E-06,0.004
-3.270E-06,0.004
-3.260E-06,0.008
-3.250E-06,0.012
-3.240E-06,0.008
-3.230E-06,0.000
-3.220E-06,-0.004
-3.210E-06,-0.004
-3.200E-06,0.000
-3.190E-06,0.008
-3.180E-06,0.000
-3.170E-06,-0.008
-3.160E-06,-0.012
-3.150E-06,-0.008
-3.140E-06,0.000
-3.130E-06,0.028
-3.120E-06,0.040
-3.110E-06,0.040
-3.100E-06,0.012
-3.090E-06,-0.016
-3.080E-06,-0.036
-3.070E-06,-0.040
-3.060E-06,-0.004
-3.050E-06,0.036
-3.040E-06,0.052
-3.030E-06,0.044
-3.020E-06,0.024
-3.010E-06,-0.012
-3.000E-06,-0.028
-2.990E-06,-0.028
-2.980E-06,0.000
-2.970E-06,0.028
-2.960E-06,0.052
-2.950E-06,0.060
-2.940E-06,0.056
-2.930E-06,0.028
-2.920E-06,0.008
-2.910E-06,0.000
-2.900E-06,0.008
-2.890E-06,0.032
-2.880E-06,0.024
-2.870E-06,0.016
-2.860E-06,-0.004
-2.850E-06,-0.040
-2.840E-06,-0.056
-2.830E-06,-0.052
-2.820E-06,-0.012
-2.810E-06,0.012
-2.800E-06,0.036
-2.790E-06,0.020
-2.780E-06,0.008
-2.770E-06,-0.008
-2.760E-06,-0.008
-2.750E-06,-0.012
-2.740E-06,-0.004
-2.730E-06,0.008
-2.720E-06,0.024
-2.710E-06,0.028
-2.700E-06,0.024
-2.690E-06,0.012
-2.680E-06,-0.004
-2.670E-06,-0.008
-2.660E-06,-0.004
-2.650E-06,0.008
-2.640E-06,0.024
-2.630E-06,0.036
-2.620E-06,0.040
-2.610E-06,0.028
-2.600E-06,0.028
-2.590E-06,0.032
-2.580E-06,0.044
-2.570E-06,0.064
-2.560E-06,0.088
-2.550E-06,0.104
-2.540E-06,0.096
-2.530E-06,0.060
-2.520E-06,0.012
-2.510E-06,-0.084
-2.500E-06,-0.132
-2.490E-06,-0.156
-2.480E-06,-0.108
-2.470E-06,-0.020
-2.460E-06,0.056
-2.450E-06,0.088
-2.440E-06,0.028
-2.430E-06,-0.036
-2.420E-06,-0.092
-2.410E-06,-0.088
-2.400E-06,-0.044
-2.390E-06,0.020
-2.380E-06,0.068
-2.370E-06,0.060
-2.360E-06,0.032
-2.350E-06,-0.024
-2.340E-06,-0.068
-2.330E-06,-0.076
-2.320E-06,-0.044
-2.310E-06,0.000
-2.300E-06,0.040
-2.290E-06,0.060
-2.280E-06,0.044
-2.270E-06,0.000
-2.260E-06,-0.028
-2.250E-06,-0.068
-2.240E-06,-0.052
-2.230E-06,-0.008
-2.220E-06,0.024
-2.210E-06,0.056
-2.200E-06,0.052
-2.190E-06,0.020
-2.180E-06,-0.016
-2.170E-06,-0.044
-2.160E-06,-0.044
-2.150E-06,-0.020
-2.140E-06,0.016
-2.130E-06,0.036
-2.120E-06,0.040
-2.110E-06,0.024
-2.100E-06,0.000
-2.090E-06,-0.012
-2.080E-06,-0.020
-2.070E-06,-0.012
-2.060E-06,0.000
-2.050E-06,0.012
-2.040E-06,0.024
-2.030E-06,0.020
-2.020E-06,0.008
-2.010E-06,-0.004
-2.000E-06,-0.008
-1.990E-06,-0.008
-1.980E-06,-0.004
-1.970E-06,0.004
-1.960E-06,0.012
-1.950E-06,0.024
-1.940E-06,0.012
-1.930E-06,0.000
-1.920E-06,0.000
-1.910E-06,-0.008
-1.900E-06,0.000
-1.890E-06,0.008
-1.880E-06,0.016
-1.870E-06,0.024
-1.860E-06,0.016
-1.850E-06,0.008
-1.840E-06,0.000
-1.830E-06,0.000
-1.820E-06,0.016
-1.810E-06,0.024
-1.800E-06,0.028
-1.790E-06,0.028
-1.780E-06,0.016
-1.770E-06,0.012
-1.760E-06,0.012
-1.750E-06,0.012
-1.740E-06,0.024
-1.730E-06,0.020
-1.720E-06,0.032
-1.710E-06,0.040
-1.700E-06,0.032
-1.690E-06,0.032
-1.680E-06,0.020
-1.670E-06,0.020
-1.660E-06,0.024
-1.650E-06,0.032
-1.640E-06,0.028
-1.630E-06,0.028
-1.620E-06,0.032
-1.610E-06,0.032
-1.600E-06,0.036
-1.590E-06,0.040
-1.580E-06,0.040
-1.570E-06,0.048
-1.560E-06,0.044
-1.550E-06,0.040
-1.540E-06,0.032
-1.530E-06,0.028
-1.520E-06,0.028
-1.510E-06,0.020
-1.500E-06,0.028
-1.490E-06,0.032
-1.480E-06,0.028
-1.470E-06,0.024
-1.460E-06,0.028
-1.450E-06,0.028
-1.440E-06,0.044
-1.430E-06,0.060
-1.420E-06,0.076
-1.410E-06,0.100
-1.400E-06,0.124
-1.390E-06,0.148
-1.380E-06,0.160
-1.370E-06,0.164
-1.360E-06,0.168
-1.350E-06,0.160
-1.340E-06,0.140
-1.330E-06,0.112
-1.320E-06,0.072
-1.310E-06,0.028
-1.300E-06,-0.024
-1.290E-06,-0.072
-1.280E-06,-0.068
-1.270E-06,-0.056
-1.260E-06,-0.056
-1.250E-06,-0.100
-1.240E-06,-0.140
-1.230E-06,-0.168
-1.220E-06,-0.172
-1.210E-06,-0.136
-1.200E-06,-0.088
-1.190E-06,-0.040
-1.180E-06,-0.004
-1.170E-06,-0.020
-1.160E-06,-0.052
-1.150E-06,-0.088
-1.140E-06,-0.088
-1.130E-06,-0.056
-1.120E-06,0.008
-1.110E-06,0.056
-1.100E-06,0.068
-1.090E-06,0.044
-1.080E-06,0.028
-1.070E-06,0.008
-1.060E-06,0.020
-1.050E-06,0.044
-1.040E-06,0.084
-1.030E-06,0.136
-1.020E-06,0.152
-1.010E-06,0.144
-1.000E-06,0.120
-9.900E-07,0.096
-9.800E-07,0.048
-9.700E-07,0.012
-9.600E-07,-0.032
-9.500E-07,-0.068
-9.400E-07,-0.084
-9.300E-07,-0.076
-9.200E-07,-0.056
-9.100E-07,-0.060
-9.000E-07,-0.108
-8.900E-07,-0.164
-8.800E-07,-0.176
-8.700E-07,-0.172
-8.600E-07,-0.120
-8.500E-07,-0.060
-8.400E-07,0.016
-8.300E-07,0.032
-8.200E-07,0.004
-8.100E-07,-0.044
-8.000E-07,-0.112
-7.900E-07,-0.124
-7.800E-07,-0.052
-7.700E-07,0.016
-7.600E-07,0.064
-7.500E-07,0.092
-7.400E-07,0.052
-7.300E-07,0.000
-7.200E-07,-0.060
-7.100E-07,-0.072
-7.000E-07,-0.044
-6.900E-07,0.008
-6.800E-07,0.060
-6.700E-07,0.076
-6.600E-07,0.072
-6.500E-07,0.024
-6.400E-07,-0.004
-6.300E-07,-0.028
-6.200E-07,-0.016
-6.100E-07,0.012
-6.000E-07,0.056
-5.900E-07,0.072
-5.800E-07,0.052
-5.700E-07,0.024
-5.600E-07,-0.012
-5.500E-07,-0.016
-5.400E-07,0.000
-5.300E-07,0.032
-5.200E-07,0.056
-5.100E-07,0.060
-5.000E-07,0.040
-4.900E-07,0.008
-4.800E-07,-0.020
-4.700E-07,-0.024
-4.600E-07,0.004
-4.500E-07,0.052
-4.400E-07,0.096
-4.300E-07,0.112
-4.200E-07,0.108
-4.100E-07,0.064
-4.000E-07,0.024
-3.900E-07,0.000
-3.800E-07,0.028
-3.700E-07,0.080
-3.600E-07,0.132
-3.500E-07,0.152
-3.400E-07,0.176
-3.300E-07,0.148
-3.200E-07,0.100
-3.100E-07,0.072
-3.000E-07,0.076
-2.900E-07,0.108
-2.800E-07,0.144
-2.700E-07,0.192
-2.600E-07,0.212
-2.500E-07,0.164
-2.400E-07,0.124
-2.300E-07,0.108
-2.200E-07,0.132
-2.100E-07,0.160
-2.000E-07,0.192
-1.900E-07,0.216
-1.800E-07,0.216
-1.700E-07,0.192
-1.600E-07,0.176
-1.500E-07,0.172
-1.400E-07,0.172
-1.300E-07,0.204
-1.200E-07,0.228
-1.100E-07,0.236
-1.000E-07,0.252
-9.000E-08,0.144
-8.000E-08,-0.036
-7.000E-08,-0.324
-6.000E-08,-0.508
-5.000E-08,-0.508
-4.000E-08,-0.464
-3.000E-08,-0.200
-2.000E-08,0.140
-1.000E-08,0.408
0.000E+00,0.420
1.000E-08,0.172
2.000E-08,-0.112
3.000E-08,-0.432
4.000E-08,-0.512
5.000E-08,-0.512
6.000E-08,-0.248
7.000E-08,0.176
8.000E-08,0.464
9.000E-08,0.396
1.000E-07,0.128
1.100E-07,-0.188
1.200E-07,-0.328
1.300E-07,-0.260
1.400E-07,-0.036
1.500E-07,0.236
1.600E-07,0.296
1.700E-07,0.220
1.800E-07,-0.208
1.900E-07,-0.508
2.000E-07,-0.508
2.100E-07,-0.336
2.200E-07,-0.020
2.300E-07,0.228
2.400E-07,0.328
2.500E-07,0.228
2.600E-07,0.056
2.700E-07,-0.144
2.800E-07,-0.260
2.900E-07,-0.264
3.000E-07,-0.120
3.100E-07,0.052
3.200E-07,0.184
3.300E-07,0.196
3.400E-07,0.088
3.500E-07,-0.068
3.600E-07,-0.156
3.700E-07,-0.120
3.800E-07,-0.036
3.900E-07,0.020
4.000E-07,0.056
4.100E-07,0.032
4.200E-07,-0.036
4.300E-07,-0.052
4.400E-07,-0.012
4.500E-07,0.008
4.600E-07,0.008
4.700E-07,-0.008
4.800E-07,-0.052
4.900E-07,-0.016
5.000E-07,0.012
5.100E-07,0.052
5.200E-07,0.076
5.300E-07,0.056
5.400E-07,0.016
5.500E-07,0.000
5.600E-07,0.028
5.700E-07,0.056
5.800E-07,0.084
5.900E-07,0.088
6.000E-07,0.068
6.100E-07,0.056
6.200E-07,0.076
6.300E-07,0.032
6.400E-07,0.004
6.500E-07,0.004
6.600E-07,0.056
6.700E-07,0.100
6.800E-07,0.092
6.900E-07,0.076
7.000E-07,0.076
7.100E-07,0.076
7.200E-07,0.028
7.300E-07,0.028
7.400E-07,0.056
7.500E-07,0.088
7.600E-07,0.108
7.700E-07,0.132
7.800E-07,0.132
7.900E-07,0.096
8.000E-07,0.088
8.100E-07,0.116
8.200E-07,0.176
8.300E-07,0.228
8.400E-07,0.296
8.500E-07,0.312
8.600E-07,0.292
8.700E-07,0.260
8.800E-07,0.220
8.900E-07,0.204
9.000E-07,0.224
9.100E-07,0.268
9.200E-07,0.284
9.300E-07,0.288
9.400E-07,0.272
9.500E-07,0.240
9.600E-07,0.220
9.700E-07,0.220
9.800E-07,0.224
9.900E-07,0.240
1.000E-06,0.268
1.010E-06,0.276
1.020E-06,0.264
1.030E-06,0.240
1.040E-06,0.228
1.050E-06,0.220
1.060E-06,0.220
1.070E-06,0.228
1.080E-06,0.244
1.090E-06,0.256
1.100E-06,0.252
1.110E-06,0.240
1.120E-06,0.208
1.130E-06,0.160
1.140E-06,0.092
1.150E-06,0.016
1.160E-06,-0.156
1.170E-06,-0.308
1.180E-06,-0.336
1.190E-06,-0.236
1.200E-06,-0.080
1.210E-06,0.012
1.220E-06,-0.004
1.230E-06,-0.048
1.240E-06,-0.180
1.250E-06,-0.336
1.260E-06,-0.136
1.270E-06,0.152
1.280E-06,0.360
1.290E-06,0.240
1.300E-06,-0.084
1.310E-06,-0.232
1.320E-06,-0.256
1.330E-06,-0.064
1.340E-06,0.204
1.350E-06,0.424
1.360E-06,0.424
1.370E-06,0.172
1.380E-06,-0.164
1.390E-06,-0.392
1.400E-06,-0.420
1.410E-06,-0.360
1.420E-06,-0.132
1.430E-06,0.104
1.440E-06,0.240
1.450E-06,0.340
1.460E-06,0.268
1.470E-06,0.080
1.480E-06,-0.200
1.490E-06,-0.416
1.500E-06,-0.432
1.510E-06,-0.336
1.520E-06,-0.128
1.530E-06,0.040
1.540E-06,-0.004
1.550E-06,-0.168
1.560E-06,-0.348
1.570E-06,-0.408
1.580E-06,-0.272
1.590E-06,-0.040
1.600E-06,0.252
1.610E-06,0.464
1.620E-06,0.456
1.630E-06,0.188
1.640E-06,-0.068
1.650E-06,-0.288
1.660E-06,-0.204
1.670E-06,0.092
1.680E-06,0.456
1.690E-06,0.540
1.700E-06,0.540
1.710E-06,0.352
1.720E-06,0.028
1.730E-06,-0.152
1.740E-06,-0.152
1.750E-06,0.112
1.760E-06,0.420
1.770E-06,0.536
1.780E-06,0.536
1.790E-06,0.456
1.800E-06,0.156
1.810E-06,-0.064
1.820E-06,-0.096
1.830E-06,0.056
1.840E-06,0.328
1.850E-06,0.536
1.860E-06,0.536
1.870E-06,0.484
1.880E-06,0.264
1.890E-06,0.036
1.900E-06,-0.052
1.910E-06,0.020
1.920E-06,0.228
1.930E-06,0.424
1.940E-06,0.524
1.950E-06,0.480
1.960E-06,0.308
1.970E-06,0.124
1.980E-06,0.004
1.990E-06,0.040
2.000E-06,0.176
2.010E-06,0.352
2.020E-06,0.456
2.030E-06,0.452
2.040E-06,0.344
2.050E-06,0.192
2.060E-06,0.076
2.070E-06,0.052
2.080E-06,0.128
2.090E-06,0.252
2.100E-06,0.356
2.110E-06,0.392
2.120E-06,0.340
2.130E-06,0.224
2.140E-06,0.132
2.150E-06,0.088
2.160E-06,0.116
2.170E-06,0.208
2.180E-06,0.308
2.190E-06,0.360
2.200E-06,0.332
2.210E-06,0.240
2.220E-06,0.128
2.230E-06,0.036
2.240E-06,0.024
2.250E-06,0.068
2.260E-06,0.152
2.270E-06,0.188
2.280E-06,0.192
2.290E-06,0.096
2.300E-06,0.020
2.310E-06,-0.048
2.320E-06,-0.032
2.330E-06,0.056
2.340E-06,0.212
2.350E-06,0.336
2.360E-06,0.396
2.370E-06,0.384
2.380E-06,0.280
2.390E-06,0.168
2.400E-06,0.096
2.410E-06,0.128
2.420E-06,0.212
2.430E-06,0.332
2.440E-06,0.388
2.450E-06,0.368
2.460E-06,0.272
2.470E-06,0.176
2.480E-06,0.112
2.490E-06,0.120
2.500E-06,0.192
2.510E-06,0.280
2.520E-06,0.352
2.530E-06,0.348
2.540E-06,0.296
2.550E-06,0.212
2.560E-06,0.152
2.570E-06,0.140
2.580E-06,0.176
2.590E-06,0.256
2.600E-06,0.320
2.610E-06,0.336
2.620E-06,0.300
2.630E-06,0.236
2.640E-06,0.172
2.650E-06,0.148
2.660E-06,0.168
2.670E-06,0.220
2.680E-06,0.276
2.690E-06,0.300
2.700E-06,0.284
2.710E-06,0.240
2.720E-06,0.188
2.730E-06,0.160
2.740E-06,0.172
2.750E-06,0.208
2.760E-06,0.256
2.770E-06,0.280
2.780E-06,0.272
2.790E-06,0.248
2.800E-06,0.204
2.810E-06,0.184
2.820E-06,0.176
2.830E-06,0.196
2.840E-06,0.224
2.850E-06,0.256
2.860E-06,0.260
2.870E-06,0.244
2.880E-06,0.220
2.890E-06,0.196
2.900E-06,0.188
2.910E-06,0.192
2.920E-06,0.216
2.930E-06,0.236
2.940E-06,0.252
2.950E-06,0.244
2.960E-06,0.220
2.970E-06,0.200
2.980E-06,0.188
2.990E-06,0.188
3.000E-06,0.208
3.010E-06,0.224
3.020E-06,0.236
3.030E-06,0.232
3.040E-06,0.224
3.050E-06,0.212
3.060E-06,0.196
3.070E-06,0.192
3.080E-06,0.200
3.090E-06,0.212
3.100E-06,0.228
3.110E-06,0.228
3.120E-06,0.228
3.130E-06,0.216
3.140E-06,0.204
3.150E-06,0.192
3.160E-06,0.196
3.170E-06,0.204
3.180E-06,0.220
3.190E-06,0.224
3.200E-06,0.224
3.210E-06,0.216
3.220E-06,0.204
3.230E-06,0.192
3.240E-06,0.196
3.250E-06,0.200
3.260E-06,0.212
3.270E-06,0.220
3.280E-06,0.212
3.290E-06,0.212
3.300E-06,0.204
3.310E-06,0.192
3.320E-06,0.188
3.330E-06,0.192
3.340E-06,0.200
3.350E-06,0.204
3.360E-06,0.204
