mediciones/6-26/40.0/WaveData59279.csv

#timebase=2000000(ps)
,#voltbase=500000(mv/100)
#size=4000
-8.150E-06,0.020
-8.140E-06,0.000
-8.130E-06,0.020
-8.120E-06,0.040
-8.110E-06,0.040
-8.100E-06,0.040
-8.090E-06,0.020
-8.080E-06,-0.020
-8.070E-06,-0.020
-8.060E-06,0.080
-8.050E-06,0.060
-8.040E-06,0.140
-8.030E-06,0.160
-8.020E-06,0.020
-8.010E-06,-0.020
-8.000E-06,0.000
-7.990E-06,0.020
-7.980E-06,0.080
-7.970E-06,0.080
-7.960E-06,0.060
-7.950E-06,0.060
-7.940E-06,0.020
-7.930E-06,0.000
-7.920E-06,0.060
-7.910E-06,0.040
-7.900E-06,0.060
-7.890E-06,0.080
-7.880E-06,0.040
-7.870E-06,0.060
-7.860E-06,0.020
-7.850E-06,0.020
-7.840E-06,0.060
-7.830E-06,0.080
-7.820E-06,0.080
-7.810E-06,0.040
-7.800E-06,0.040
-7.790E-06,0.040
-7.780E-06,0.060
-7.770E-06,0.040
-7.760E-06,0.020
-7.750E-06,0.060
-7.740E-06,0.080
-7.730E-06,0.060
-7.720E-06,0.080
-7.710E-06,0.080
-7.700E-06,0.060
-7.690E-06,0.020
-7.680E-06,0.040
-7.670E-06,0.040
-7.660E-06,0.080
-7.650E-06,0.140
-7.640E-06,0.080
-7.630E-06,0.060
-7.620E-06,0.040
-7.610E-06,0.020
-7.600E-06,0.080
-7.590E-06,0.180
-7.580E-06,0.140
-7.570E-06,0.120
-7.560E-06,0.080
-7.550E-06,0.080
-7.540E-06,0.100
-7.530E-06,0.120
-7.520E-06,0.140
-7.510E-06,0.140
-7.500E-06,0.100
-7.490E-06,0.060
-7.480E-06,0.040
-7.470E-06,0.040
-7.460E-06,0.020
-7.450E-06,0.040
-7.440E-06,0.100
-7.430E-06,0.060
-7.420E-06,0.000
-7.410E-06,0.000
-7.400E-06,-0.020
-7.390E-06,0.040
-7.380E-06,0.100
-7.370E-06,0.100
-7.360E-06,0.040
-7.350E-06,0.000
-7.340E-06,-0.040
-7.330E-06,0.000
-7.320E-06,0.040
-7.310E-06,0.140
-7.300E-06,0.160
-7.290E-06,0.100
-7.280E-06,0.040
-7.270E-06,-0.020
-7.260E-06,0.060
-7.250E-06,0.160
-7.240E-06,0.260
-7.230E-06,0.320
-7.220E-06,0.220
-7.210E-06,0.160
-7.200E-06,0.060
-7.190E-06,0.020
-7.180E-06,0.080
-7.170E-06,0.120
-7.160E-06,0.160
-7.150E-06,0.120
-7.140E-06,0.060
-7.130E-06,0.080
-7.120E-06,0.020
-7.110E-06,-0.080
-7.100E-06,0.000
-7.090E-06,-0.040
-7.080E-06,0.060
-7.070E-06,0.200
-7.060E-06,0.120
-7.050E-06,0.040
-7.040E-06,-0.200
-7.030E-06,-0.220
-7.020E-06,0.060
-7.010E-06,0.140
-7.000E-06,0.380
-6.990E-06,0.380
-6.980E-06,0.080
-6.970E-06,-0.100
-6.960E-06,-0.160
-6.950E-06,-0.100
-6.940E-06,0.080
-6.930E-06,0.160
-6.920E-06,0.280
-6.910E-06,0.160
-6.900E-06,-0.080
-6.890E-06,-0.100
-6.880E-06,-0.100
-6.870E-06,0.020
-6.860E-06,0.140
-6.850E-06,0.200
-6.840E-06,0.160
-6.830E-06,0.000
-6.820E-06,0.000
-6.810E-06,-0.060
-6.800E-06,-0.040
-6.790E-06,0.080
-6.780E-06,0.100
-6.770E-06,0.120
-6.760E-06,0.140
-6.750E-06,0.040
-6.740E-06,-0.020
-6.730E-06,-0.060
-6.720E-06,-0.040
-6.710E-06,0.020
-6.700E-06,0.100
-6.690E-06,0.080
-6.680E-06,0.060
-6.670E-06,0.000
-6.660E-06,-0.020
-6.650E-06,0.000
-6.640E-06,0.060
-6.630E-06,0.060
-6.620E-06,0.080
-6.610E-06,0.040
-6.600E-06,0.020
-6.590E-06,0.040
-6.580E-06,0.040
-6.570E-06,0.040
-6.560E-06,0.080
-6.550E-06,0.080
-6.540E-06,0.100
-6.530E-06,0.060
-6.520E-06,0.080
-6.510E-06,0.060
-6.500E-06,0.060
-6.490E-06,0.080
-6.480E-06,0.120
-6.470E-06,0.120
-6.460E-06,0.080
-6.450E-06,0.040
-6.440E-06,0.060
-6.430E-06,0.080
-6.420E-06,0.020
-6.410E-06,0.020
-6.400E-06,0.040
-6.390E-06,0.060
-6.380E-06,0.060
-6.370E-06,0.020
-6.360E-06,0.020
-6.350E-06,0.020
-6.340E-06,0.020
-6.330E-06,0.020
-6.320E-06,0.020
-6.310E-06,0.060
-6.300E-06,0.060
-6.290E-06,0.120
-6.280E-06,0.020
-6.270E-06,-0.020
-6.260E-06,0.020
-6.250E-06,0.040
-6.240E-06,0.120
-6.230E-06,0.160
-6.220E-06,0.160
-6.210E-06,0.100
-6.200E-06,0.040
-6.190E-06,-0.020
-6.180E-06,0.040
-6.170E-06,0.080
-6.160E-06,0.120
-6.150E-06,0.100
-6.140E-06,0.040
-6.130E-06,-0.020
-6.120E-06,0.020
-6.110E-06,-0.020
-6.100E-06,0.000
-6.090E-06,0.060
-6.080E-06,0.020
-6.070E-06,0.060
-6.060E-06,0.060
-6.050E-06,0.100
-6.040E-06,0.060
-6.030E-06,0.060
-6.020E-06,0.000
-6.010E-06,0.040
-6.000E-06,0.060
-5.990E-06,0.040
-5.980E-06,0.080
-5.970E-06,0.060
-5.960E-06,0.020
-5.950E-06,0.000
-5.940E-06,-0.020
-5.930E-06,0.020
-5.920E-06,0.100
-5.910E-06,0.140
-5.900E-06,0.120
-5.890E-06,0.080
-5.880E-06,0.040
-5.870E-06,0.060
-5.860E-06,0.120
-5.850E-06,0.200
-5.840E-06,0.200
-5.830E-06,0.160
-5.820E-06,0.080
-5.810E-06,0.040
-5.800E-06,0.020
-5.790E-06,0.040
-5.780E-06,0.060
-5.770E-06,0.100
-5.760E-06,0.100
-5.750E-06,0.060
-5.740E-06,0.020
-5.730E-06,0.020
-5.720E-06,-0.020
-5.710E-06,0.000
-5.700E-06,-0.020
-5.690E-06,0.020
-5.680E-06,0.060
-5.670E-06,0.120
-5.660E-06,0.120
-5.650E-06,0.100
-5.640E-06,0.080
-5.630E-06,0.060
-5.620E-06,0.060
-5.610E-06,0.140
-5.600E-06,0.120
-5.590E-06,0.100
-5.580E-06,0.100
-5.570E-06,0.080
-5.560E-06,0.040
-5.550E-06,0.020
-5.540E-06,0.080
-5.530E-06,0.100
-5.520E-06,0.140
-5.510E-06,0.120
-5.500E-06,0.080
-5.490E-06,0.060
-5.480E-06,0.020
-5.470E-06,0.000
-5.460E-06,0.060
-5.450E-06,0.080
-5.440E-06,0.080
-5.430E-06,0.080
-5.420E-06,-0.020
-5.410E-06,-0.020
-5.400E-06,-0.020
-5.390E-06,0.000
-5.380E-06,0.020
-5.370E-06,0.020
-5.360E-06,0.000
-5.350E-06,0.000
-5.340E-06,0.040
-5.330E-06,-0.020
-5.320E-06,0.080
-5.310E-06,0.060
-5.300E-06,0.000
-5.290E-06,0.000
-5.280E-06,-0.020
-5.270E-06,0.020
-5.260E-06,0.020
-5.250E-06,0.040
-5.240E-06,0.080
-5.230E-06,0.040
-5.220E-06,-0.020
-5.210E-06,0.000
-5.200E-06,0.040
-5.190E-06,0.080
-5.180E-06,0.100
-5.170E-06,0.080
-5.160E-06,0.060
-5.150E-06,0.060
-5.140E-06,0.080
-5.130E-06,0.100
-5.120E-06,0.060
-5.110E-06,0.100
-5.100E-06,0.080
-5.090E-06,0.060
-5.080E-06,0.060
-5.070E-06,0.060
-5.060E-06,0.000
-5.050E-06,0.100
-5.040E-06,0.140
-5.030E-06,0.160
-5.020E-06,0.120
-5.010E-06,0.100
-5.000E-06,0.060
-4.990E-06,0.040
-4.980E-06,0.020
-4.970E-06,0.060
-4.960E-06,0.060
-4.950E-06,0.040
-4.940E-06,0.020
-4.930E-06,0.000
-4.920E-06,0.000
-4.910E-06,0.000
-4.900E-06,0.040
-4.890E-06,0.060
-4.880E-06,0.040
-4.870E-06,0.080
-4.860E-06,0.020
-4.850E-06,0.040
-4.840E-06,0.060
-4.830E-06,0.040
-4.820E-06,0.060
-4.810E-06,0.080
-4.800E-06,0.060
-4.790E-06,0.060
-4.780E-06,0.000
-4.770E-06,0.000
-4.760E-06,0.040
-4.750E-06,0.080
-4.740E-06,0.140
-4.730E-06,0.100
-4.720E-06,0.040
-4.710E-06,0.000
-4.700E-06,0.000
-4.690E-06,0.120
-4.680E-06,0.160
-4.670E-06,0.160
-4.660E-06,0.180
-4.650E-06,0.060
-4.640E-06,-0.020
-4.630E-06,0.000
-4.620E-06,0.020
-4.610E-06,0.080
-4.600E-06,0.080
-4.590E-06,0.080
-4.580E-06,0.060
-4.570E-06,-0.020
-4.560E-06,-0.020
-4.550E-06,0.000
-4.540E-06,0.020
-4.530E-06,0.020
-4.520E-06,0.040
-4.510E-06,0.080
-4.500E-06,0.040
-4.490E-06,0.040
-4.480E-06,0.020
-4.470E-06,0.020
-4.460E-06,0.020
-4.450E-06,0.100
-4.440E-06,0.140
-4.430E-06,0.120
-4.420E-06,0.080
-4.410E-06,0.020
-4.400E-06,0.040
-4.390E-06,0.100
-4.380E-06,0.100
-4.370E-06,0.140
-4.360E-06,0.120
-4.350E-06,0.100
-4.340E-06,0.100
-4.330E-06,0.100
-4.320E-06,0.100
-4.310E-06,0.140
-4.300E-06,0.180
-4.290E-06,0.040
-4.280E-06,0.000
-4.270E-06,0.080
-4.260E-06,0.080
-4.250E-06,0.160
-4.240E-06,0.240
-4.230E-06,0.200
-4.220E-06,0.080
-4.210E-06,0.020
-4.200E-06,0.060
-4.190E-06,0.180
-4.180E-06,0.260
-4.170E-06,0.300
-4.160E-06,0.240
-4.150E-06,0.080
-4.140E-06,0.000
-4.130E-06,0.020
-4.120E-06,0.000
-4.110E-06,0.080
-4.100E-06,0.120
-4.090E-06,0.080
-4.080E-06,-0.020
-4.070E-06,-0.040
-4.060E-06,-0.040
-4.050E-06,-0.120
-4.040E-06,-0.100
-4.030E-06,-0.040
-4.020E-06,0.000
-4.010E-06,0.060
-4.000E-06,0.040
-3.990E-06,-0.020
-3.980E-06,-0.100
-3.970E-06,-0.140
-3.960E-06,-0.080
-3.950E-06,-0.020
-3.940E-06,0.020
-3.930E-06,0.060
-3.920E-06,0.060
-3.910E-06,0.000
-3.900E-06,0.000
-3.890E-06,-0.040
-3.880E-06,-0.020
-3.870E-06,0.000
-3.860E-06,0.060
-3.850E-06,0.100
-3.840E-06,0.100
-3.830E-06,0.100
-3.820E-06,0.100
-3.810E-06,0.040
-3.800E-06,0.040
-3.790E-06,0.060
-3.780E-06,0.080
-3.770E-06,0.100
-3.760E-06,0.120
-3.750E-06,0.100
-3.740E-06,0.080
-3.730E-06,0.060
-3.720E-06,0.020
-3.710E-06,0.080
-3.700E-06,0.080
-3.690E-06,0.100
-3.680E-06,0.100
-3.670E-06,0.060
-3.660E-06,0.060
-3.650E-06,0.060
-3.640E-06,0.120
-3.630E-06,0.120
-3.620E-06,0.100
-3.610E-06,0.100
-3.600E-06,0.040
-3.590E-06,-0.020
-3.580E-06,-0.020
-3.570E-06,0.000
-3.560E-06,0.000
-3.550E-06,0.040
-3.540E-06,0.020
-3.530E-06,0.040
-3.520E-06,0.020
-3.510E-06,0.020
-3.500E-06,-0.020
-3.490E-06,0.020
-3.480E-06,0.040
-3.470E-06,0.080
-3.460E-06,0.000
-3.450E-06,0.040
-3.440E-06,0.020
-3.430E-06,0.080
-3.420E-06,0.280
-3.410E-06,0.240
-3.400E-06,0.180
-3.390E-06,0.120
-3.380E-06,0.000
-3.370E-06,0.020
-3.360E-06,0.100
-3.350E-06,0.100
-3.340E-06,0.160
-3.330E-06,0.100
-3.320E-06,0.040
-3.310E-06,-0.020
-3.300E-06,-0.040
-3.290E-06,-0.020
-3.280E-06,0.020
-3.270E-06,0.000
-3.260E-06,-0.020
-3.250E-06,0.000
-3.240E-06,-0.040
-3.230E-06,0.060
-3.220E-06,0.080
-3.210E-06,0.080
-3.200E-06,0.040
-3.190E-06,-0.040
-3.180E-06,-0.040
-3.170E-06,-0.020
-3.160E-06,-0.020
-3.150E-06,0.080
-3.140E-06,0.100
-3.130E-06,-0.020
-3.120E-06,-0.080
-3.110E-06,0.120
-3.100E-06,-0.060
-3.090E-06,0.140
-3.080E-06,0.240
-3.070E-06,0.140
-3.060E-06,0.060
-3.050E-06,0.020
-3.040E-06,-0.020
-3.030E-06,0.100
-3.020E-06,0.080
-3.010E-06,0.080
-3.000E-06,0.120
-2.990E-06,0.080
-2.980E-06,-0.020
-2.970E-06,0.020
-2.960E-06,0.040
-2.950E-06,0.060
-2.940E-06,0.100
-2.930E-06,0.100
-2.920E-06,0.060
-2.910E-06,0.060
-2.900E-06,0.080
-2.890E-06,0.040
-2.880E-06,0.080
-2.870E-06,0.020
-2.860E-06,0.060
-2.850E-06,0.100
-2.840E-06,0.000
-2.830E-06,0.000
-2.820E-06,0.020
-2.810E-06,0.000
-2.800E-06,0.100
-2.790E-06,0.100
-2.780E-06,0.080
-2.770E-06,0.040
-2.760E-06,0.000
-2.750E-06,0.000
-2.740E-06,0.060
-2.730E-06,0.040
-2.720E-06,0.020
-2.710E-06,0.020
-2.700E-06,0.000
-2.690E-06,0.020
-2.680E-06,-0.020
-2.670E-06,0.020
-2.660E-06,0.060
-2.650E-06,0.040
-2.640E-06,0.060
-2.630E-06,0.020
-2.620E-06,0.000
-2.610E-06,0.020
-2.600E-06,0.040
-2.590E-06,0.040
-2.580E-06,0.080
-2.570E-06,0.060
-2.560E-06,0.060
-2.550E-06,0.020
-2.540E-06,0.040
-2.530E-06,0.020
-2.520E-06,0.060
-2.510E-06,0.060
-2.500E-06,0.060
-2.490E-06,0.040
-2.480E-06,0.020
-2.470E-06,0.020
-2.460E-06,0.020
-2.450E-06,0.020
-2.440E-06,0.040
-2.430E-06,0.020
-2.420E-06,0.040
-2.410E-06,0.020
-2.400E-06,0.020
-2.390E-06,0.040
-2.380E-06,0.060
-2.370E-06,0.180
-2.360E-06,0.220
-2.350E-06,0.200
-2.340E-06,0.160
-2.330E-06,0.100
-2.320E-06,0.060
-2.310E-06,0.060
-2.300E-06,0.100
-2.290E-06,0.140
-2.280E-06,0.060
-2.270E-06,0.040
-2.260E-06,0.060
-2.250E-06,0.000
-2.240E-06,-0.080
-2.230E-06,0.100
-2.220E-06,0.020
-2.210E-06,0.020
-2.200E-06,0.180
-2.190E-06,0.020
-2.180E-06,-0.080
-2.170E-06,0.020
-2.160E-06,-0.020
-2.150E-06,0.200
-2.140E-06,0.240
-2.130E-06,0.220
-2.120E-06,0.140
-2.110E-06,-0.120
-2.100E-06,-0.140
-2.090E-06,0.040
-2.080E-06,0.160
-2.070E-06,0.260
-2.060E-06,0.220
-2.050E-06,0.080
-2.040E-06,0.020
-2.030E-06,-0.020
-2.020E-06,-0.120
-2.010E-06,0.000
-2.000E-06,0.160
-1.990E-06,0.060
-1.980E-06,0.120
-1.970E-06,0.160
-1.960E-06,0.000
-1.950E-06,-0.120
-1.940E-06,-0.100
-1.930E-06,-0.060
-1.920E-06,0.060
-1.910E-06,0.080
-1.900E-06,0.060
-1.890E-06,0.000
-1.880E-06,-0.080
-1.870E-06,-0.120
-1.860E-06,0.000
-1.850E-06,0.000
-1.840E-06,0.020
-1.830E-06,-0.020
-1.820E-06,-0.020
-1.810E-06,0.040
-1.800E-06,0.100
-1.790E-06,0.120
-1.780E-06,0.140
-1.770E-06,0.040
-1.760E-06,0.060
-1.750E-06,0.020
-1.740E-06,0.100
-1.730E-06,0.160
-1.720E-06,0.140
-1.710E-06,0.160
-1.700E-06,0.180
-1.690E-06,0.120
-1.680E-06,0.140
-1.670E-06,0.140
-1.660E-06,0.140
-1.650E-06,0.080
-1.640E-06,0.100
-1.630E-06,0.080
-1.620E-06,0.060
-1.610E-06,0.020
-1.600E-06,0.020
-1.590E-06,0.060
-1.580E-06,0.120
-1.570E-06,0.140
-1.560E-06,0.080
-1.550E-06,0.020
-1.540E-06,-0.080
-1.530E-06,-0.060
-1.520E-06,-0.020
-1.510E-06,0.040
-1.500E-06,0.080
-1.490E-06,0.060
-1.480E-06,0.040
-1.470E-06,0.020
-1.460E-06,0.000
-1.450E-06,0.020
-1.440E-06,0.060
-1.430E-06,0.080
-1.420E-06,0.060
-1.410E-06,0.080
-1.400E-06,0.040
-1.390E-06,0.020
-1.380E-06,0.140
-1.370E-06,-0.020
-1.360E-06,-0.020
-1.350E-06,-0.020
-1.340E-06,-0.040
-1.330E-06,0.320
-1.320E-06,0.460
-1.310E-06,0.520
-1.300E-06,0.460
-1.290E-06,0.200
-1.280E-06,0.080
-1.270E-06,0.180
-1.260E-06,0.180
-1.250E-06,0.280
-1.240E-06,0.380
-1.230E-06,0.240
-1.220E-06,0.160
-1.210E-06,0.020
-1.200E-06,-0.040
-1.190E-06,-0.100
-1.180E-06,-0.020
-1.170E-06,-0.080
-1.160E-06,-0.120
-1.150E-06,-0.180
-1.140E-06,-0.220
-1.130E-06,-0.160
-1.120E-06,-0.080
-1.110E-06,-0.020
-1.100E-06,0.000
-1.090E-06,-0.100
-1.080E-06,-0.160
-1.070E-06,-0.180
-1.060E-06,-0.100
-1.050E-06,-0.100
-1.040E-06,-0.120
-1.030E-06,-0.100
-1.020E-06,-0.100
-1.010E-06,0.080
-1.000E-06,0.200
-9.900E-07,0.220
-9.800E-07,0.200
-9.700E-07,0.000
-9.600E-07,-0.020
-9.500E-07,-0.020
-9.400E-07,0.080
-9.300E-07,0.200
-9.200E-07,0.240
-9.100E-07,0.220
-9.000E-07,0.180
-8.900E-07,0.140
-8.800E-07,0.080
-8.700E-07,0.080
-8.600E-07,0.080
-8.500E-07,0.260
-8.400E-07,0.100
-8.300E-07,0.020
-8.200E-07,0.020
-8.100E-07,-0.180
-8.000E-07,0.080
-7.900E-07,0.320
-7.800E-07,0.520
-7.700E-07,0.700
-7.600E-07,0.560
-7.500E-07,0.460
-7.400E-07,0.380
-7.300E-07,0.200
-7.200E-07,0.220
-7.100E-07,0.220
-7.000E-07,0.320
-6.900E-07,0.400
-6.800E-07,0.200
-6.700E-07,0.000
-6.600E-07,-0.160
-6.500E-07,-0.300
-6.400E-07,-0.040
-6.300E-07,0.020
-6.200E-07,0.040
-6.100E-07,0.120
-6.000E-07,-0.080
-5.900E-07,-0.140
-5.800E-07,-0.040
-5.700E-07,-0.140
-5.600E-07,-0.120
-5.500E-07,-0.160
-5.400E-07,-0.220
-5.300E-07,-0.160
-5.200E-07,-0.180
-5.100E-07,-0.260
-5.000E-07,-0.260
-4.900E-07,-0.340
-4.800E-07,-0.260
-4.700E-07,-0.100
-4.600E-07,0.000
-4.500E-07,0.080
-4.400E-07,0.040
-4.300E-07,0.000
-4.200E-07,0.020
-4.100E-07,0.040
-4.000E-07,0.100
-3.900E-07,0.140
-3.800E-07,0.120
-3.700E-07,0.140
-3.600E-07,0.120
-3.500E-07,0.140
-3.400E-07,0.140
-3.300E-07,0.120
-3.200E-07,0.120
-3.100E-07,0.160
-3.000E-07,0.180
-2.900E-07,0.180
-2.800E-07,0.200
-2.700E-07,0.180
-2.600E-07,0.180
-2.500E-07,0.180
-2.400E-07,0.140
-2.300E-07,0.160
-2.200E-07,0.140
-2.100E-07,0.060
-2.000E-07,0.060
-1.900E-07,0.000
-1.800E-07,-0.080
-1.700E-07,-0.260
-1.600E-07,-0.300
-1.500E-07,-0.460
-1.400E-07,-0.400
-1.300E-07,-0.440
-1.200E-07,-0.280
-1.100E-07,-0.100
-1.000E-07,-0.020
-9.000E-08,0.080
-8.000E-08,0.220
-7.000E-08,0.500
-6.000E-08,0.820
-5.000E-08,1.700
-4.000E-08,0.400
-3.000E-08,0.900
-2.000E-08,1.060
-1.000E-08,0.920
0.000E+00,2.360
1.000E-08,2.760
2.000E-08,2.780
3.000E-08,2.760
4.000E-08,2.780
5.000E-08,2.540
6.000E-08,2.180
7.000E-08,1.440
8.000E-08,1.280
9.000E-08,1.060
1.000E-07,0.400
1.100E-07,-0.120
1.200E-07,-0.780
1.300E-07,-1.420
1.400E-07,-1.780
1.500E-07,-2.240
1.600E-07,-2.500
1.700E-07,-2.580
1.800E-07,-2.680
1.900E-07,-2.660
2.000E-07,-2.660
2.100E-07,-2.660
2.200E-07,-2.660
2.300E-07,-2.640
2.400E-07,-1.500
2.500E-07,-1.020
2.600E-07,-0.420
2.700E-07,-0.220
2.800E-07,-0.200
2.900E-07,0.300
3.000E-07,0.600
3.100E-07,0.840
3.200E-07,1.100
3.300E-07,1.180
3.400E-07,1.060
3.500E-07,1.000
3.600E-07,0.440
3.700E-07,0.000
3.800E-07,-0.520
3.900E-07,-1.360
4.000E-07,-1.860
4.100E-07,-1.900
4.200E-07,-1.740
4.300E-07,-1.300
4.400E-07,-0.840
4.500E-07,-0.480
4.600E-07,-0.120
4.700E-07,0.180
4.800E-07,0.760
4.900E-07,1.460
5.000E-07,2.060
5.100E-07,2.440
5.200E-07,2.680
5.300E-07,2.540
5.400E-07,2.360
5.500E-07,2.100
5.600E-07,1.900
5.700E-07,1.660
5.800E-07,1.400
5.900E-07,1.100
6.000E-07,0.900
6.100E-07,0.580
6.200E-07,0.420
6.300E-07,0.140
6.400E-07,-0.060
6.500E-07,-0.300
6.600E-07,0.500
6.700E-07,-0.240
6.800E-07,1.300
6.900E-07,2.780
7.000E-07,2.760
7.100E-07,2.760
7.200E-07,2.760
7.300E-07,2.760
7.400E-07,2.760
7.500E-07,2.780
7.600E-07,-0.080
7.700E-07,-1.840
7.800E-07,-2.660
7.900E-07,-2.660
8.000E-07,-2.660
8.100E-07,-2.660
8.200E-07,-2.660
8.300E-07,-2.660
8.400E-07,-2.660
8.500E-07,-2.660
8.600E-07,-2.660
8.700E-07,-2.660
8.800E-07,-2.660
8.900E-07,-2.660
9.000E-07,-2.660
9.100E-07,-1.800
9.200E-07,-0.940
9.300E-07,-0.740
9.400E-07,0.000
9.500E-07,1.320
9.600E-07,2.660
9.700E-07,2.760
9.800E-07,2.780
9.900E-07,2.760
1.000E-06,2.760
1.010E-06,2.740
1.020E-06,2.760
1.030E-06,2.760
1.040E-06,2.760
1.050E-06,1.180
1.060E-06,-0.800
1.070E-06,-2.240
1.080E-06,-2.660
1.090E-06,-2.660
1.100E-06,-2.660
1.110E-06,-2.680
1.120E-06,-2.680
1.130E-06,-2.660
1.140E-06,-2.660
1.150E-06,-2.660
1.160E-06,-2.660
1.170E-06,-2.680
1.180E-06,-2.680
1.190E-06,-1.020
1.200E-06,0.400
1.210E-06,1.460
1.220E-06,1.700
1.230E-06,1.920
1.240E-06,2.100
1.250E-06,2.600
1.260E-06,2.540
1.270E-06,2.020
1.280E-06,1.040
1.290E-06,-0.060
1.300E-06,-0.840
1.310E-06,-1.060
1.320E-06,-1.460
1.330E-06,-1.680
1.340E-06,-1.460
1.350E-06,-1.420
1.360E-06,-1.000
1.370E-06,0.120
1.380E-06,0.300
1.390E-06,0.480
1.400E-06,0.560
1.410E-06,0.940
1.420E-06,2.580
1.430E-06,2.780
1.440E-06,2.780
1.450E-06,2.760
1.460E-06,2.760
1.470E-06,2.740
1.480E-06,2.760
1.490E-06,2.760
1.500E-06,2.760
1.510E-06,2.740
1.520E-06,0.660
1.530E-06,-2.080
1.540E-06,-2.660
1.550E-06,-2.660
1.560E-06,-2.660
1.570E-06,-2.660
1.580E-06,-2.660
1.590E-06,-2.660
1.600E-06,-2.660
1.610E-06,-2.660
1.620E-06,-2.660
1.630E-06,-2.140
1.640E-06,-0.920
1.650E-06,0.320
1.660E-06,1.260
1.670E-06,2.100
1.680E-06,2.760
1.690E-06,2.740
1.700E-06,2.760
1.710E-06,2.780
1.720E-06,2.760
1.730E-06,2.780
1.740E-06,2.760
1.750E-06,2.360
1.760E-06,1.880
1.770E-06,1.440
1.780E-06,1.180
1.790E-06,1.100
1.800E-06,1.020
1.810E-06,1.040
1.820E-06,1.100
1.830E-06,1.120
1.840E-06,1.200
1.850E-06,1.260
1.860E-06,1.320
1.870E-06,1.360
1.880E-06,1.280
1.890E-06,1.240
1.900E-06,1.180
1.910E-06,1.040
1.920E-06,0.920
1.930E-06,0.320
1.940E-06,-0.380
1.950E-06,-0.720
1.960E-06,-1.240
1.970E-06,-0.700
1.980E-06,-0.500
1.990E-06,-1.420
2.000E-06,-1.280
2.010E-06,-1.780
2.020E-06,-0.680
2.030E-06,0.160
2.040E-06,1.940
2.050E-06,2.760
2.060E-06,2.780
2.070E-06,2.760
2.080E-06,2.700
2.090E-06,0.200
2.100E-06,-1.620
2.110E-06,-2.640
2.120E-06,-2.640
2.130E-06,-2.640
2.140E-06,-2.040
2.150E-06,-1.120
2.160E-06,0.360
2.170E-06,0.160
2.180E-06,-0.160
2.190E-06,-0.760
2.200E-06,-0.640
2.210E-06,-0.380
2.220E-06,0.440
2.230E-06,1.240
2.240E-06,2.640
2.250E-06,2.740
2.260E-06,2.760
2.270E-06,2.760
2.280E-06,2.740
2.290E-06,2.480
2.300E-06,2.080
2.310E-06,1.540
2.320E-06,1.180
2.330E-06,0.800
2.340E-06,0.420
2.350E-06,0.220
2.360E-06,0.160
2.370E-06,0.240
2.380E-06,0.360
2.390E-06,0.680
2.400E-06,0.920
2.410E-06,1.160
2.420E-06,1.340
2.430E-06,1.500
2.440E-06,1.600
2.450E-06,1.700
2.460E-06,1.760
2.470E-06,1.680
2.480E-06,1.660
2.490E-06,1.540
2.500E-06,1.340
2.510E-06,1.060
2.520E-06,0.780
2.530E-06,0.480
2.540E-06,0.180
2.550E-06,-0.120
2.560E-06,-0.300
2.570E-06,-0.360
2.580E-06,-0.320
2.590E-06,-0.240
2.600E-06,0.000
2.610E-06,0.260
2.620E-06,0.560
2.630E-06,0.860
2.640E-06,1.140
2.650E-06,1.340
2.660E-06,1.500
2.670E-06,1.540
2.680E-06,1.480
2.690E-06,1.380
2.700E-06,1.360
2.710E-06,1.180
2.720E-06,1.060
2.730E-06,0.940
2.740E-06,0.820
2.750E-06,0.660
2.760E-06,0.660
2.770E-06,0.620
2.780E-06,0.620
2.790E-06,0.660
2.800E-06,0.720
2.810E-06,0.740
2.820E-06,0.780
2.830E-06,0.780
2.840E-06,0.800
2.850E-06,0.800
2.860E-06,0.720
2.870E-06,0.660
2.880E-06,0.540
2.890E-06,0.460
2.900E-06,0.320
2.910E-06,0.240
2.920E-06,0.120
2.930E-06,0.040
2.940E-06,-0.080
2.950E-06,-0.120
2.960E-06,-0.140
2.970E-06,-0.180
2.980E-06,-0.160
2.990E-06,-0.160
3.000E-06,-0.160
3.010E-06,-0.100
3.020E-06,-0.100
3.030E-06,-0.060
3.040E-06,-0.080
3.050E-06,-0.060
3.060E-06,-0.040
3.070E-06,-0.020
3.080E-06,0.040
3.090E-06,0.080
3.100E-06,0.160
3.110E-06,0.220
3.120E-06,0.300
3.130E-06,0.340
3.140E-06,0.360
3.150E-06,0.320
3.160E-06,0.260
3.170E-06,0.140
3.180E-06,0.020
3.190E-06,-0.080
3.200E-06,-0.160
3.210E-06,-0.180
3.220E-06,-0.120
3.230E-06,0.000
3.240E-06,0.160
3.250E-06,0.340
3.260E-06,0.500
3.270E-06,0.620
3.280E-06,0.660
3.290E-06,0.740
3.300E-06,0.780
3.310E-06,0.740
3.320E-06,0.660
3.330E-06,0.500
3.340E-06,0.380
3.350E-06,0.160
3.360E-06,-0.040
3.370E-06,-0.240
3.380E-06,-0.380
3.390E-06,-0.480
3.400E-06,-0.520
3.410E-06,-0.480
3.420E-06,-0.400
3.430E-06,-0.280
3.440E-06,-0.080
3.450E-06,0.160
3.460E-06,0.380
3.470E-06,0.420
3.480E-06,0.420
3.490E-06,0.320
3.500E-06,0.300
3.510E-06,0.280
3.520E-06,0.180
3.530E-06,0.040
3.540E-06,-0.140
3.550E-06,-0.340
3.560E-06,-0.500
3.570E-06,-0.640
3.580E-06,-0.700
3.590E-06,-0.720
3.600E-06,-0.760
3.610E-06,-0.800
