mediciones/6-26/40.0/WaveData5914.csv

#timebase=2000000(ps)
,#voltbase=200000(mv/100)
#size=4000
-8.150E-06,0.008
-8.140E-06,-0.008
-8.130E-06,0.000
-8.120E-06,0.016
-8.110E-06,-0.008
-8.100E-06,-0.008
-8.090E-06,0.008
-8.080E-06,0.000
-8.070E-06,0.008
-8.060E-06,0.008
-8.050E-06,0.008
-8.040E-06,0.008
-8.030E-06,0.008
-8.020E-06,0.000
-8.010E-06,0.008
-8.000E-06,0.008
-7.990E-06,0.000
-7.980E-06,-0.008
-7.970E-06,-0.008
-7.960E-06,0.000
-7.950E-06,-0.008
-7.940E-06,0.008
-7.930E-06,0.008
-7.920E-06,0.008
-7.910E-06,0.000
-7.900E-06,0.008
-7.890E-06,0.008
-7.880E-06,0.008
-7.870E-06,0.016
-7.860E-06,0.008
-7.850E-06,0.008
-7.840E-06,0.008
-7.830E-06,0.000
-7.820E-06,-0.008
-7.810E-06,0.000
-7.800E-06,0.000
-7.790E-06,0.008
-7.780E-06,0.000
-7.770E-06,0.008
-7.760E-06,0.008
-7.750E-06,0.008
-7.740E-06,0.016
-7.730E-06,-0.008
-7.720E-06,0.000
-7.710E-06,0.008
-7.700E-06,0.000
-7.690E-06,0.000
-7.680E-06,-0.008
-7.670E-06,0.008
-7.660E-06,0.000
-7.650E-06,0.000
-7.640E-06,0.000
-7.630E-06,0.008
-7.620E-06,0.008
-7.610E-06,0.008
-7.600E-06,0.008
-7.590E-06,0.008
-7.580E-06,0.008
-7.570E-06,0.000
-7.560E-06,0.000
-7.550E-06,0.008
-7.540E-06,0.008
-7.530E-06,0.008
-7.520E-06,-0.008
-7.510E-06,-0.008
-7.500E-06,0.008
-7.490E-06,0.008
-7.480E-06,0.008
-7.470E-06,0.008
-7.460E-06,0.008
-7.450E-06,-0.008
-7.440E-06,0.000
-7.430E-06,0.000
-7.420E-06,0.016
-7.410E-06,-0.008
-7.400E-06,0.008
-7.390E-06,0.000
-7.380E-06,0.008
-7.370E-06,0.000
-7.360E-06,0.000
-7.350E-06,0.000
-7.340E-06,0.000
-7.330E-06,0.000
-7.320E-06,-0.008
-7.310E-06,0.000
-7.300E-06,0.008
-7.290E-06,-0.008
-7.280E-06,0.000
-7.270E-06,0.008
-7.260E-06,0.008
-7.250E-06,0.008
-7.240E-06,0.008
-7.230E-06,0.016
-7.220E-06,0.000
-7.210E-06,0.000
-7.200E-06,0.008
-7.190E-06,0.008
-7.180E-06,0.000
-7.170E-06,0.008
-7.160E-06,0.000
-7.150E-06,0.000
-7.140E-06,0.008
-7.130E-06,0.008
-7.120E-06,0.016
-7.110E-06,-0.008
-7.100E-06,0.000
-7.090E-06,0.000
-7.080E-06,0.000
-7.070E-06,0.008
-7.060E-06,-0.008
-7.050E-06,-0.008
-7.040E-06,0.000
-7.030E-06,0.000
-7.020E-06,0.008
-7.010E-06,0.000
-7.000E-06,0.000
-6.990E-06,0.008
-6.980E-06,0.000
-6.970E-06,0.000
-6.960E-06,-0.008
-6.950E-06,0.008
-6.940E-06,0.000
-6.930E-06,0.000
-6.920E-06,-0.008
-6.910E-06,-0.008
-6.900E-06,0.000
-6.890E-06,-0.008
-6.880E-06,0.008
-6.870E-06,0.000
-6.860E-06,0.000
-6.850E-06,0.000
-6.840E-06,0.000
-6.830E-06,-0.008
-6.820E-06,-0.008
-6.810E-06,0.008
-6.800E-06,-0.008
-6.790E-06,-0.008
-6.780E-06,0.000
-6.770E-06,-0.008
-6.760E-06,0.000
-6.750E-06,0.008
-6.740E-06,-0.008
-6.730E-06,0.008
-6.720E-06,0.000
-6.710E-06,0.008
-6.700E-06,0.000
-6.690E-06,0.008
-6.680E-06,0.008
-6.670E-06,0.000
-6.660E-06,0.000
-6.650E-06,0.000
-6.640E-06,0.000
-6.630E-06,0.008
-6.620E-06,-0.008
-6.610E-06,0.000
-6.600E-06,0.008
-6.590E-06,0.008
-6.580E-06,0.008
-6.570E-06,0.008
-6.560E-06,0.016
-6.550E-06,0.008
-6.540E-06,-0.008
-6.530E-06,-0.008
-6.520E-06,0.000
-6.510E-06,0.016
-6.500E-06,-0.008
-6.490E-06,0.000
-6.480E-06,0.000
-6.470E-06,0.000
-6.460E-06,0.008
-6.450E-06,0.008
-6.440E-06,-0.008
-6.430E-06,-0.008
-6.420E-06,0.000
-6.410E-06,-0.008
-6.400E-06,0.000
-6.390E-06,0.016
-6.380E-06,0.000
-6.370E-06,0.008
-6.360E-06,0.008
-6.350E-06,0.008
-6.340E-06,0.000
-6.330E-06,0.000
-6.320E-06,0.008
-6.310E-06,0.000
-6.300E-06,-0.008
-6.290E-06,0.008
-6.280E-06,-0.008
-6.270E-06,0.000
-6.260E-06,0.000
-6.250E-06,0.000
-6.240E-06,0.008
-6.230E-06,0.008
-6.220E-06,-0.008
-6.210E-06,-0.008
-6.200E-06,0.008
-6.190E-06,0.008
-6.180E-06,0.000
-6.170E-06,0.008
-6.160E-06,0.008
-6.150E-06,0.000
-6.140E-06,0.008
-6.130E-06,-0.008
-6.120E-06,0.008
-6.110E-06,0.000
-6.100E-06,0.000
-6.090E-06,0.000
-6.080E-06,0.000
-6.070E-06,0.000
-6.060E-06,0.008
-6.050E-06,0.000
-6.040E-06,0.000
-6.030E-06,0.000
-6.020E-06,0.000
-6.010E-06,0.000
-6.000E-06,0.000
-5.990E-06,-0.008
-5.980E-06,0.000
-5.970E-06,0.000
-5.960E-06,0.000
-5.950E-06,0.008
-5.940E-06,0.000
-5.930E-06,0.008
-5.920E-06,0.000
-5.910E-06,0.000
-5.900E-06,0.008
-5.890E-06,0.008
-5.880E-06,0.008
-5.870E-06,0.016
-5.860E-06,0.008
-5.850E-06,0.000
-5.840E-06,-0.008
-5.830E-06,0.000
-5.820E-06,0.008
-5.810E-06,0.016
-5.800E-06,0.000
-5.790E-06,0.008
-5.780E-06,0.000
-5.770E-06,0.008
-5.760E-06,0.000
-5.750E-06,0.008
-5.740E-06,0.008
-5.730E-06,0.000
-5.720E-06,-0.008
-5.710E-06,0.000
-5.700E-06,0.000
-5.690E-06,0.008
-5.680E-06,0.008
-5.670E-06,0.008
-5.660E-06,-0.008
-5.650E-06,0.008
-5.640E-06,0.000
-5.630E-06,0.000
-5.620E-06,0.008
-5.610E-06,0.000
-5.600E-06,0.000
-5.590E-06,-0.008
-5.580E-06,0.000
-5.570E-06,-0.008
-5.560E-06,0.008
-5.550E-06,0.000
-5.540E-06,0.008
-5.530E-06,0.000
-5.520E-06,0.000
-5.510E-06,-0.008
-5.500E-06,0.000
-5.490E-06,0.000
-5.480E-06,0.016
-5.470E-06,-0.008
-5.460E-06,0.000
-5.450E-06,0.008
-5.440E-06,0.000
-5.430E-06,0.008
-5.420E-06,-0.008
-5.410E-06,0.000
-5.400E-06,0.000
-5.390E-06,0.016
-5.380E-06,0.000
-5.370E-06,-0.008
-5.360E-06,0.008
-5.350E-06,0.000
-5.340E-06,-0.008
-5.330E-06,0.008
-5.320E-06,-0.008
-5.310E-06,0.008
-5.300E-06,-0.008
-5.290E-06,0.008
-5.280E-06,0.016
-5.270E-06,0.008
-5.260E-06,0.016
-5.250E-06,0.008
-5.240E-06,0.000
-5.230E-06,0.000
-5.220E-06,0.008
-5.210E-06,0.000
-5.200E-06,-0.008
-5.190E-06,0.000
-5.180E-06,0.008
-5.170E-06,0.000
-5.160E-06,0.008
-5.150E-06,0.000
-5.140E-06,0.000
-5.130E-06,0.000
-5.120E-06,0.008
-5.110E-06,0.016
-5.100E-06,-0.008
-5.090E-06,0.008
-5.080E-06,0.000
-5.070E-06,0.000
-5.060E-06,0.008
-5.050E-06,0.000
-5.040E-06,0.000
-5.030E-06,0.000
-5.020E-06,0.008
-5.010E-06,0.000
-5.000E-06,0.008
-4.990E-06,0.008
-4.980E-06,0.000
-4.970E-06,0.000
-4.960E-06,0.008
-4.950E-06,0.000
-4.940E-06,0.008
-4.930E-06,0.008
-4.920E-06,0.008
-4.910E-06,0.016
-4.900E-06,0.016
-4.890E-06,0.016
-4.880E-06,-0.008
-4.870E-06,0.000
-4.860E-06,0.000
-4.850E-06,0.000
-4.840E-06,0.008
-4.830E-06,0.008
-4.820E-06,0.008
-4.810E-06,0.000
-4.800E-06,0.000
-4.790E-06,0.008
-4.780E-06,0.016
-4.770E-06,0.016
-4.760E-06,0.008
-4.750E-06,0.000
-4.740E-06,0.000
-4.730E-06,0.008
-4.720E-06,0.000
-4.710E-06,0.000
-4.700E-06,0.000
-4.690E-06,0.008
-4.680E-06,-0.008
-4.670E-06,-0.008
-4.660E-06,0.008
-4.650E-06,-0.008
-4.640E-06,0.000
-4.630E-06,0.008
-4.620E-06,-0.008
-4.610E-06,0.000
-4.600E-06,0.000
-4.590E-06,0.000
-4.580E-06,0.000
-4.570E-06,0.000
-4.560E-06,0.000
-4.550E-06,0.008
-4.540E-06,0.000
-4.530E-06,0.008
-4.520E-06,0.000
-4.510E-06,0.008
-4.500E-06,-0.008
-4.490E-06,0.008
-4.480E-06,0.000
-4.470E-06,0.000
-4.460E-06,0.000
-4.450E-06,-0.008
-4.440E-06,0.008
-4.430E-06,0.008
-4.420E-06,0.008
-4.410E-06,0.008
-4.400E-06,0.000
-4.390E-06,0.000
-4.380E-06,0.008
-4.370E-06,0.000
-4.360E-06,0.000
-4.350E-06,0.000
-4.340E-06,0.000
-4.330E-06,0.000
-4.320E-06,0.008
-4.310E-06,0.008
-4.300E-06,0.008
-4.290E-06,0.000
-4.280E-06,-0.008
-4.270E-06,0.008
-4.260E-06,0.000
-4.250E-06,0.008
-4.240E-06,0.008
-4.230E-06,0.008
-4.220E-06,0.008
-4.210E-06,0.008
-4.200E-06,0.008
-4.190E-06,0.008
-4.180E-06,0.000
-4.170E-06,0.008
-4.160E-06,0.000
-4.150E-06,0.008
-4.140E-06,0.008
-4.130E-06,0.008
-4.120E-06,-0.008
-4.110E-06,0.008
-4.100E-06,0.016
-4.090E-06,0.008
-4.080E-06,0.016
-4.070E-06,0.008
-4.060E-06,0.000
-4.050E-06,-0.008
-4.040E-06,0.000
-4.030E-06,0.008
-4.020E-06,0.000
-4.010E-06,0.008
-4.000E-06,-0.008
-3.990E-06,0.000
-3.980E-06,0.008
-3.970E-06,0.000
-3.960E-06,0.008
-3.950E-06,0.000
-3.940E-06,0.000
-3.930E-06,0.000
-3.920E-06,0.000
-3.910E-06,0.008
-3.900E-06,0.008
-3.890E-06,0.000
-3.880E-06,0.000
-3.870E-06,0.000
-3.860E-06,0.008
-3.850E-06,-0.008
-3.840E-06,0.000
-3.830E-06,-0.008
-3.820E-06,0.000
-3.810E-06,0.000
-3.800E-06,0.000
-3.790E-06,0.000
-3.780E-06,0.000
-3.770E-06,0.000
-3.760E-06,0.000
-3.750E-06,0.008
-3.740E-06,0.008
-3.730E-06,0.016
-3.720E-06,0.024
-3.710E-06,0.080
-3.700E-06,0.112
-3.690E-06,0.112
-3.680E-06,0.104
-3.670E-06,-0.152
-3.660E-06,-0.264
-3.650E-06,-0.104
-3.640E-06,0.024
-3.630E-06,0.032
-3.620E-06,0.152
-3.610E-06,0.064
-3.600E-06,-0.056
-3.590E-06,0.040
-3.580E-06,-0.048
-3.570E-06,-0.016
-3.560E-06,0.024
-3.550E-06,0.120
-3.540E-06,0.040
-3.530E-06,0.024
-3.520E-06,0.000
-3.510E-06,-0.112
-3.500E-06,-0.024
-3.490E-06,-0.048
-3.480E-06,0.016
-3.470E-06,0.016
-3.460E-06,0.072
-3.450E-06,0.040
-3.440E-06,0.032
-3.430E-06,0.024
-3.420E-06,-0.008
-3.410E-06,0.000
-3.400E-06,-0.008
-3.390E-06,0.008
-3.380E-06,-0.008
-3.370E-06,0.024
-3.360E-06,-0.024
-3.350E-06,-0.008
-3.340E-06,-0.024
-3.330E-06,-0.016
-3.320E-06,0.008
-3.310E-06,0.024
-3.300E-06,0.040
-3.290E-06,0.024
-3.280E-06,0.032
-3.270E-06,0.008
-3.260E-06,-0.008
-3.250E-06,-0.008
-3.240E-06,0.000
-3.230E-06,0.000
-3.220E-06,0.000
-3.210E-06,-0.008
-3.200E-06,-0.008
-3.190E-06,0.000
-3.180E-06,-0.008
-3.170E-06,0.000
-3.160E-06,0.008
-3.150E-06,0.032
-3.140E-06,0.016
-3.130E-06,0.016
-3.120E-06,0.016
-3.110E-06,0.000
-3.100E-06,-0.008
-3.090E-06,-0.008
-3.080E-06,0.000
-3.070E-06,0.000
-3.060E-06,0.000
-3.050E-06,0.000
-3.040E-06,0.008
-3.030E-06,0.000
-3.020E-06,-0.008
-3.010E-06,0.000
-3.000E-06,0.000
-2.990E-06,0.008
-2.980E-06,0.008
-2.970E-06,0.016
-2.960E-06,0.016
-2.950E-06,0.000
-2.940E-06,-0.008
-2.930E-06,-0.008
-2.920E-06,-0.008
-2.910E-06,0.000
-2.900E-06,0.008
-2.890E-06,0.000
-2.880E-06,0.008
-2.870E-06,0.008
-2.860E-06,0.008
-2.850E-06,0.000
-2.840E-06,0.000
-2.830E-06,0.008
-2.820E-06,0.008
-2.810E-06,0.016
-2.800E-06,0.016
-2.790E-06,0.008
-2.780E-06,0.008
-2.770E-06,0.000
-2.760E-06,0.000
-2.750E-06,0.000
-2.740E-06,0.008
-2.730E-06,0.008
-2.720E-06,0.000
-2.710E-06,0.008
-2.700E-06,0.000
-2.690E-06,0.000
-2.680E-06,0.000
-2.670E-06,0.000
-2.660E-06,0.008
-2.650E-06,0.008
-2.640E-06,0.008
-2.630E-06,0.008
-2.620E-06,0.008
-2.610E-06,0.008
-2.600E-06,0.008
-2.590E-06,0.000
-2.580E-06,0.000
-2.570E-06,-0.008
-2.560E-06,0.000
-2.550E-06,-0.056
-2.540E-06,-0.040
-2.530E-06,-0.056
-2.520E-06,0.048
-2.510E-06,0.008
-2.500E-06,0.120
-2.490E-06,0.016
-2.480E-06,0.048
-2.470E-06,-0.064
-2.460E-06,-0.056
-2.450E-06,-0.032
-2.440E-06,0.008
-2.430E-06,0.096
-2.420E-06,0.040
-2.410E-06,0.056
-2.400E-06,-0.048
-2.390E-06,-0.008
-2.380E-06,-0.064
-2.370E-06,0.008
-2.360E-06,0.016
-2.350E-06,0.056
-2.340E-06,0.056
-2.330E-06,0.032
-2.320E-06,0.008
-2.310E-06,-0.024
-2.300E-06,-0.008
-2.290E-06,-0.016
-2.280E-06,0.024
-2.270E-06,0.024
-2.260E-06,0.032
-2.250E-06,0.024
-2.240E-06,0.000
-2.230E-06,-0.008
-2.220E-06,-0.008
-2.210E-06,0.008
-2.200E-06,0.016
-2.190E-06,0.048
-2.180E-06,0.056
-2.170E-06,0.040
-2.160E-06,0.008
-2.150E-06,-0.016
-2.140E-06,-0.024
-2.130E-06,-0.008
-2.120E-06,0.000
-2.110E-06,0.024
-2.100E-06,0.048
-2.090E-06,0.032
-2.080E-06,0.016
-2.070E-06,-0.016
-2.060E-06,0.000
-2.050E-06,0.000
-2.040E-06,0.008
-2.030E-06,0.032
-2.020E-06,0.056
-2.010E-06,0.048
-2.000E-06,0.040
-1.990E-06,0.024
-1.980E-06,0.016
-1.970E-06,0.016
-1.960E-06,0.056
-1.950E-06,0.048
-1.940E-06,0.072
-1.930E-06,0.064
-1.920E-06,0.048
-1.910E-06,0.056
-1.900E-06,0.032
-1.890E-06,0.016
-1.880E-06,0.016
-1.870E-06,0.008
-1.860E-06,0.016
-1.850E-06,0.048
-1.840E-06,0.024
-1.830E-06,0.016
-1.820E-06,-0.112
-1.810E-06,-0.240
-1.800E-06,-0.296
-1.790E-06,-0.168
-1.780E-06,0.024
-1.770E-06,0.192
-1.760E-06,0.280
-1.750E-06,0.168
-1.740E-06,0.008
-1.730E-06,-0.160
-1.720E-06,-0.192
-1.710E-06,-0.144
-1.700E-06,-0.032
-1.690E-06,0.136
-1.680E-06,0.192
-1.670E-06,0.144
-1.660E-06,0.040
-1.650E-06,-0.064
-1.640E-06,-0.120
-1.630E-06,-0.080
-1.620E-06,0.024
-1.610E-06,0.120
-1.600E-06,0.216
-1.590E-06,0.120
-1.580E-06,0.064
-1.570E-06,0.000
-1.560E-06,-0.048
-1.550E-06,0.000
-1.540E-06,-0.008
-1.530E-06,0.040
-1.520E-06,-0.024
-1.510E-06,-0.032
-1.500E-06,-0.136
-1.490E-06,-0.064
-1.480E-06,-0.096
-1.470E-06,-0.040
-1.460E-06,0.088
-1.450E-06,0.000
-1.440E-06,-0.016
-1.430E-06,0.000
-1.420E-06,0.000
-1.410E-06,0.024
-1.400E-06,-0.008
-1.390E-06,0.008
-1.380E-06,0.040
-1.370E-06,0.072
-1.360E-06,0.096
-1.350E-06,0.016
-1.340E-06,-0.016
-1.330E-06,-0.032
-1.320E-06,-0.024
-1.310E-06,-0.016
-1.300E-06,0.008
-1.290E-06,0.032
-1.280E-06,0.048
-1.270E-06,0.056
-1.260E-06,0.056
-1.250E-06,0.048
-1.240E-06,0.016
-1.230E-06,0.016
-1.220E-06,0.016
-1.210E-06,0.008
-1.200E-06,-0.024
-1.190E-06,0.032
-1.180E-06,0.088
-1.170E-06,0.120
-1.160E-06,0.056
-1.150E-06,0.056
-1.140E-06,0.016
-1.130E-06,-0.080
-1.120E-06,-0.080
-1.110E-06,-0.056
-1.100E-06,0.072
-1.090E-06,0.192
-1.080E-06,0.264
-1.070E-06,0.200
-1.060E-06,0.008
-1.050E-06,-0.064
-1.040E-06,-0.144
-1.030E-06,-0.136
-1.020E-06,-0.040
-1.010E-06,0.016
-1.000E-06,0.160
-9.900E-07,0.192
-9.800E-07,0.120
-9.700E-07,0.000
-9.600E-07,-0.040
-9.500E-07,-0.040
-9.400E-07,0.008
-9.300E-07,-0.016
-9.200E-07,-0.016
-9.100E-07,0.048
-9.000E-07,0.104
-8.900E-07,0.128
-8.800E-07,0.136
-8.700E-07,0.144
-8.600E-07,0.112
-8.500E-07,0.120
-8.400E-07,0.080
-8.300E-07,0.024
-8.200E-07,-0.016
-8.100E-07,0.016
-8.000E-07,0.040
-7.900E-07,0.048
-7.800E-07,0.056
-7.700E-07,-0.056
-7.600E-07,-0.056
-7.500E-07,0.000
-7.400E-07,-0.064
-7.300E-07,-0.128
-7.200E-07,-0.224
-7.100E-07,-0.032
-7.000E-07,0.016
-6.900E-07,0.032
-6.800E-07,0.024
-6.700E-07,0.176
-6.600E-07,-0.088
-6.500E-07,0.088
-6.400E-07,-0.016
-6.300E-07,-0.320
-6.200E-07,-0.424
-6.100E-07,-0.336
-6.000E-07,-0.168
-5.900E-07,0.000
-5.800E-07,0.160
-5.700E-07,0.200
-5.600E-07,0.224
-5.500E-07,0.048
-5.400E-07,-0.120
-5.300E-07,-0.224
-5.200E-07,-0.128
-5.100E-07,0.032
-5.000E-07,0.248
-4.900E-07,0.312
-4.800E-07,0.264
-4.700E-07,0.112
-4.600E-07,-0.040
-4.500E-07,-0.096
-4.400E-07,-0.128
-4.300E-07,0.048
-4.200E-07,0.168
-4.100E-07,0.312
-4.000E-07,0.312
-3.900E-07,0.320
-3.800E-07,0.160
-3.700E-07,0.096
-3.600E-07,0.032
-3.500E-07,0.112
-3.400E-07,0.168
-3.300E-07,0.320
-3.200E-07,0.320
-3.100E-07,0.312
-3.000E-07,0.208
-2.900E-07,0.120
-2.800E-07,0.120
-2.700E-07,0.112
-2.600E-07,0.200
-2.500E-07,0.280
-2.400E-07,0.336
-2.300E-07,0.344
-2.200E-07,0.272
-2.100E-07,0.200
-2.000E-07,0.112
-1.900E-07,0.128
-1.800E-07,0.144
-1.700E-07,0.144
-1.600E-07,0.112
-1.500E-07,-0.048
-1.400E-07,-0.176
-1.300E-07,-0.224
-1.200E-07,-0.208
-1.100E-07,0.040
-1.000E-07,0.336
-9.000E-08,0.352
-8.000E-08,0.200
-7.000E-08,-0.040
-6.000E-08,-0.120
-5.000E-08,-0.336
-4.000E-08,-0.360
-3.000E-08,-0.104
-2.000E-08,0.256
-1.000E-08,0.488
0.000E+00,0.600
1.000E-08,0.376
2.000E-08,0.152
3.000E-08,-0.056
4.000E-08,-0.056
5.000E-08,0.032
6.000E-08,0.272
7.000E-08,0.464
8.000E-08,0.568
9.000E-08,0.440
1.000E-07,0.224
1.100E-07,0.024
1.200E-07,-0.104
1.300E-07,-0.008
1.400E-07,0.200
1.500E-07,0.400
1.600E-07,0.448
1.700E-07,0.400
1.800E-07,0.256
1.900E-07,0.096
2.000E-07,-0.016
2.100E-07,0.008
2.200E-07,0.144
2.300E-07,0.304
2.400E-07,0.336
2.500E-07,0.296
2.600E-07,0.208
2.700E-07,0.032
2.800E-07,-0.008
2.900E-07,0.024
3.000E-07,0.120
3.100E-07,0.184
3.200E-07,0.256
3.300E-07,0.352
3.400E-07,0.352
3.500E-07,0.360
3.600E-07,0.296
3.700E-07,0.256
3.800E-07,0.248
3.900E-07,0.248
4.000E-07,0.272
4.100E-07,0.296
4.200E-07,0.312
4.300E-07,0.304
4.400E-07,0.288
4.500E-07,0.264
4.600E-07,0.216
4.700E-07,0.200
4.800E-07,0.208
4.900E-07,0.264
5.000E-07,0.248
5.100E-07,0.248
5.200E-07,0.208
5.300E-07,0.160
5.400E-07,0.112
5.500E-07,0.080
5.600E-07,0.056
5.700E-07,0.120
5.800E-07,0.192
5.900E-07,0.248
6.000E-07,0.272
6.100E-07,0.280
6.200E-07,0.312
6.300E-07,0.328
6.400E-07,0.224
6.500E-07,0.264
6.600E-07,0.240
6.700E-07,0.248
6.800E-07,0.240
6.900E-07,0.240
7.000E-07,0.256
7.100E-07,0.256
7.200E-07,0.280
7.300E-07,0.280
7.400E-07,0.296
7.500E-07,0.280
7.600E-07,0.272
7.700E-07,0.280
7.800E-07,0.304
7.900E-07,0.312
8.000E-07,0.320
8.100E-07,0.304
8.200E-07,0.288
8.300E-07,0.288
8.400E-07,0.272
8.500E-07,0.288
8.600E-07,0.288
8.700E-07,0.280
8.800E-07,0.288
8.900E-07,0.288
9.000E-07,0.312
9.100E-07,0.296
9.200E-07,0.304
9.300E-07,0.296
9.400E-07,0.304
9.500E-07,0.288
9.600E-07,0.288
9.700E-07,0.288
9.800E-07,0.288
9.900E-07,0.296
1.000E-06,0.296
1.010E-06,0.280
1.020E-06,0.280
1.030E-06,0.280
1.040E-06,0.272
1.050E-06,0.264
1.060E-06,0.272
1.070E-06,0.272
1.080E-06,0.272
1.090E-06,0.272
1.100E-06,0.280
1.110E-06,0.280
1.120E-06,0.280
1.130E-06,0.272
1.140E-06,0.272
1.150E-06,0.280
1.160E-06,0.280
1.170E-06,0.272
1.180E-06,0.288
1.190E-06,0.264
1.200E-06,0.256
1.210E-06,0.248
1.220E-06,0.256
1.230E-06,0.256
1.240E-06,0.256
1.250E-06,0.272
1.260E-06,0.280
1.270E-06,0.288
1.280E-06,0.256
1.290E-06,0.256
1.300E-06,0.256
1.310E-06,0.256
1.320E-06,0.256
1.330E-06,0.280
1.340E-06,0.272
1.350E-06,0.272
1.360E-06,0.264
1.370E-06,0.256
1.380E-06,0.240
1.390E-06,0.248
1.400E-06,0.256
1.410E-06,0.264
1.420E-06,0.256
1.430E-06,0.256
1.440E-06,0.248
1.450E-06,0.256
1.460E-06,0.256
1.470E-06,0.264
1.480E-06,0.256
1.490E-06,0.256
1.500E-06,0.264
1.510E-06,0.256
1.520E-06,0.256
1.530E-06,0.240
1.540E-06,0.240
1.550E-06,0.248
1.560E-06,0.248
1.570E-06,0.248
1.580E-06,0.256
1.590E-06,0.256
1.600E-06,0.248
1.610E-06,0.240
1.620E-06,0.248
1.630E-06,0.256
1.640E-06,0.264
1.650E-06,0.256
1.660E-06,0.256
1.670E-06,0.256
1.680E-06,0.248
1.690E-06,0.248
1.700E-06,0.248
1.710E-06,0.248
1.720E-06,0.256
1.730E-06,0.248
1.740E-06,0.256
1.750E-06,0.248
1.760E-06,0.248
1.770E-06,0.248
1.780E-06,0.248
1.790E-06,0.248
1.800E-06,0.248
1.810E-06,0.248
1.820E-06,0.248
1.830E-06,0.232
1.840E-06,0.240
1.850E-06,0.240
1.860E-06,0.240
1.870E-06,0.240
1.880E-06,0.248
1.890E-06,0.240
1.900E-06,0.248
1.910E-06,0.240
1.920E-06,0.224
1.930E-06,0.232
1.940E-06,0.224
1.950E-06,0.240
1.960E-06,0.240
1.970E-06,0.248
1.980E-06,0.240
1.990E-06,0.248
2.000E-06,0.208
2.010E-06,0.216
2.020E-06,0.216
2.030E-06,0.216
2.040E-06,0.240
2.050E-06,0.248
2.060E-06,0.248
2.070E-06,0.240
2.080E-06,0.224
2.090E-06,0.208
2.100E-06,0.208
2.110E-06,0.208
2.120E-06,0.224
2.130E-06,0.232
2.140E-06,0.248
2.150E-06,0.224
2.160E-06,0.208
2.170E-06,0.208
2.180E-06,0.216
2.190E-06,0.216
2.200E-06,0.216
2.210E-06,0.224
2.220E-06,0.216
2.230E-06,0.216
2.240E-06,0.216
2.250E-06,0.224
2.260E-06,0.208
2.270E-06,0.216
2.280E-06,0.216
2.290E-06,0.208
2.300E-06,0.208
2.310E-06,0.208
2.320E-06,0.208
2.330E-06,0.208
2.340E-06,0.200
2.350E-06,0.208
2.360E-06,0.208
2.370E-06,0.208
2.380E-06,0.192
2.390E-06,0.192
2.400E-06,0.200
2.410E-06,0.192
2.420E-06,0.200
2.430E-06,0.208
2.440E-06,0.208
2.450E-06,0.216
2.460E-06,0.216
2.470E-06,0.200
2.480E-06,0.184
2.490E-06,0.176
2.500E-06,0.176
2.510E-06,0.192
2.520E-06,0.208
2.530E-06,0.216
2.540E-06,0.216
2.550E-06,0.200
2.560E-06,0.184
2.570E-06,0.184
2.580E-06,0.184
2.590E-06,0.184
2.600E-06,0.192
2.610E-06,0.192
2.620E-06,0.200
2.630E-06,0.192
2.640E-06,0.184
2.650E-06,0.176
2.660E-06,0.184
2.670E-06,0.176
2.680E-06,0.184
2.690E-06,0.200
2.700E-06,0.192
2.710E-06,0.200
2.720E-06,0.192
2.730E-06,0.192
2.740E-06,0.176
2.750E-06,0.176
2.760E-06,0.176
2.770E-06,0.184
2.780E-06,0.184
2.790E-06,0.192
2.800E-06,0.184
2.810E-06,0.176
2.820E-06,0.184
2.830E-06,0.184
2.840E-06,0.184
2.850E-06,0.184
2.860E-06,0.184
2.870E-06,0.184
2.880E-06,0.176
2.890E-06,0.176
2.900E-06,0.184
2.910E-06,0.176
2.920E-06,0.176
2.930E-06,0.184
2.940E-06,0.184
2.950E-06,0.184
2.960E-06,0.184
2.970E-06,0.176
2.980E-06,0.176
2.990E-06,0.168
3.000E-06,0.160
3.010E-06,0.176
3.020E-06,0.168
3.030E-06,0.176
3.040E-06,0.184
3.050E-06,0.176
3.060E-06,0.168
3.070E-06,0.168
3.080E-06,0.160
3.090E-06,0.168
3.100E-06,0.152
3.110E-06,0.160
3.120E-06,0.176
3.130E-06,0.168
3.140E-06,0.176
3.150E-06,0.176
3.160E-06,0.168
3.170E-06,0.160
3.180E-06,0.152
3.190E-06,0.144
3.200E-06,0.152
3.210E-06,0.152
3.220E-06,0.152
3.230E-06,0.168
3.240E-06,0.168
3.250E-06,0.152
3.260E-06,0.152
3.270E-06,0.144
3.280E-06,0.144
3.290E-06,0.144
3.300E-06,0.160
3.310E-06,0.160
3.320E-06,0.152
3.330E-06,0.160
3.340E-06,0.160
3.350E-06,0.144
3.360E-06,0.144
3.370E-06,0.144
3.380E-06,0.152
3.390E-06,0.160
3.400E-06,0.152
3.410E-06,0.144
3.420E-06,0.144
3.430E-06,0.152
3.440E-06,0.136
3.450E-06,0.136
3.460E-06,0.136
3.470E-06,0.144
3.480E-06,0.144
3.490E-06,0.136
3.500E-06,0.144
3.510E-06,0.144
3.520E-06,0.136
3.530E-06,0.144
3.540E-06,0.144
3.550E-06,0.128
3.560E-06,0.136
3.570E-06,0.144
3.580E-06,0.136
3.590E-06,0.144
3.600E-06,0.144
3.610E-06,0.128
3.620E-06,0.128
3.630E-06,0.128
3.640E-06,0.128
3.650E-06,0.136
3.660E-06,0.128
3.670E-06,0.128
