mediciones/6-26/40.0/WaveData59289.csv

#timebase=2000000(ps)
,#voltbase=500000(mv/100)
#size=4000
-8.150E-06,0.060
-8.140E-06,0.060
-8.130E-06,0.040
-8.120E-06,0.040
-8.110E-06,0.040
-8.100E-06,0.060
-8.090E-06,0.040
-8.080E-06,0.060
-8.070E-06,0.040
-8.060E-06,0.040
-8.050E-06,0.060
-8.040E-06,0.040
-8.030E-06,0.080
-8.020E-06,0.060
-8.010E-06,0.060
-8.000E-06,0.060
-7.990E-06,0.080
-7.980E-06,0.060
-7.970E-06,0.080
-7.960E-06,0.060
-7.950E-06,0.080
-7.940E-06,0.080
-7.930E-06,0.040
-7.920E-06,0.020
-7.910E-06,0.040
-7.900E-06,0.040
-7.890E-06,0.060
-7.880E-06,0.080
-7.870E-06,0.060
-7.860E-06,0.020
-7.850E-06,0.060
-7.840E-06,0.040
-7.830E-06,0.060
-7.820E-06,0.060
-7.810E-06,0.060
-7.800E-06,0.060
-7.790E-06,0.080
-7.780E-06,0.080
-7.770E-06,0.040
-7.760E-06,0.060
-7.750E-06,0.060
-7.740E-06,0.060
-7.730E-06,0.060
-7.720E-06,0.020
-7.710E-06,0.060
-7.700E-06,0.040
-7.690E-06,0.060
-7.680E-06,0.100
-7.670E-06,0.060
-7.660E-06,0.080
-7.650E-06,0.020
-7.640E-06,0.020
-7.630E-06,0.060
-7.620E-06,0.040
-7.610E-06,0.060
-7.600E-06,0.060
-7.590E-06,0.080
-7.580E-06,0.060
-7.570E-06,0.040
-7.560E-06,0.060
-7.550E-06,0.080
-7.540E-06,0.060
-7.530E-06,0.040
-7.520E-06,0.040
-7.510E-06,0.020
-7.500E-06,0.040
-7.490E-06,0.040
-7.480E-06,0.060
-7.470E-06,0.080
-7.460E-06,0.040
-7.450E-06,0.060
-7.440E-06,0.060
-7.430E-06,0.080
-7.420E-06,0.060
-7.410E-06,0.060
-7.400E-06,0.040
-7.390E-06,0.080
-7.380E-06,0.060
-7.370E-06,0.080
-7.360E-06,0.060
-7.350E-06,0.020
-7.340E-06,0.040
-7.330E-06,0.060
-7.320E-06,0.060
-7.310E-06,0.060
-7.300E-06,0.060
-7.290E-06,0.040
-7.280E-06,0.060
-7.270E-06,0.060
-7.260E-06,0.060
-7.250E-06,0.080
-7.240E-06,0.060
-7.230E-06,0.040
-7.220E-06,0.060
-7.210E-06,0.040
-7.200E-06,0.060
-7.190E-06,0.080
-7.180E-06,0.040
-7.170E-06,0.060
-7.160E-06,0.060
-7.150E-06,0.060
-7.140E-06,0.080
-7.130E-06,0.060
-7.120E-06,0.040
-7.110E-06,0.060
-7.100E-06,0.080
-7.090E-06,0.040
-7.080E-06,0.040
-7.070E-06,0.040
-7.060E-06,0.040
-7.050E-06,0.020
-7.040E-06,0.040
-7.030E-06,0.060
-7.020E-06,0.040
-7.010E-06,0.080
-7.000E-06,0.040
-6.990E-06,0.080
-6.980E-06,0.040
-6.970E-06,0.040
-6.960E-06,0.060
-6.950E-06,0.080
-6.940E-06,0.080
-6.930E-06,0.040
-6.920E-06,0.020
-6.910E-06,0.040
-6.900E-06,0.040
-6.890E-06,0.040
-6.880E-06,0.040
-6.870E-06,0.040
-6.860E-06,0.080
-6.850E-06,0.060
-6.840E-06,0.060
-6.830E-06,0.040
-6.820E-06,0.040
-6.810E-06,0.040
-6.800E-06,0.040
-6.790E-06,0.060
-6.780E-06,0.040
-6.770E-06,0.040
-6.760E-06,0.040
-6.750E-06,0.020
-6.740E-06,0.060
-6.730E-06,0.040
-6.720E-06,0.060
-6.710E-06,0.040
-6.700E-06,0.060
-6.690E-06,0.060
-6.680E-06,0.060
-6.670E-06,0.060
-6.660E-06,0.060
-6.650E-06,0.080
-6.640E-06,0.060
-6.630E-06,0.060
-6.620E-06,0.080
-6.610E-06,0.060
-6.600E-06,0.060
-6.590E-06,0.080
-6.580E-06,0.060
-6.570E-06,0.040
-6.560E-06,0.040
-6.550E-06,0.060
-6.540E-06,0.080
-6.530E-06,0.060
-6.520E-06,0.080
-6.510E-06,0.040
-6.500E-06,0.060
-6.490E-06,0.060
-6.480E-06,0.060
-6.470E-06,0.060
-6.460E-06,0.060
-6.450E-06,0.040
-6.440E-06,0.040
-6.430E-06,0.040
-6.420E-06,0.060
-6.410E-06,0.020
-6.400E-06,0.040
-6.390E-06,0.080
-6.380E-06,0.040
-6.370E-06,0.040
-6.360E-06,0.040
-6.350E-06,0.060
-6.340E-06,0.040
-6.330E-06,0.080
-6.320E-06,0.060
-6.310E-06,0.040
-6.300E-06,0.040
-6.290E-06,0.060
-6.280E-06,0.060
-6.270E-06,0.020
-6.260E-06,0.060
-6.250E-06,0.040
-6.240E-06,0.060
-6.230E-06,0.060
-6.220E-06,0.060
-6.210E-06,0.060
-6.200E-06,0.080
-6.190E-06,0.060
-6.180E-06,0.060
-6.170E-06,0.080
-6.160E-06,0.020
-6.150E-06,0.060
-6.140E-06,0.080
-6.130E-06,0.060
-6.120E-06,0.060
-6.110E-06,0.040
-6.100E-06,0.040
-6.090E-06,0.040
-6.080E-06,0.080
-6.070E-06,0.040
-6.060E-06,0.040
-6.050E-06,0.040
-6.040E-06,0.060
-6.030E-06,0.080
-6.020E-06,0.040
-6.010E-06,0.020
-6.000E-06,0.060
-5.990E-06,0.040
-5.980E-06,0.040
-5.970E-06,0.040
-5.960E-06,0.060
-5.950E-06,0.080
-5.940E-06,0.060
-5.930E-06,0.040
-5.920E-06,0.020
-5.910E-06,0.040
-5.900E-06,0.060
-5.890E-06,0.040
-5.880E-06,0.040
-5.870E-06,0.060
-5.860E-06,0.060
-5.850E-06,0.060
-5.840E-06,0.040
-5.830E-06,0.080
-5.820E-06,0.080
-5.810E-06,0.080
-5.800E-06,0.040
-5.790E-06,0.040
-5.780E-06,0.040
-5.770E-06,0.020
-5.760E-06,0.060
-5.750E-06,0.080
-5.740E-06,0.060
-5.730E-06,0.080
-5.720E-06,0.040
-5.710E-06,0.040
-5.700E-06,0.060
-5.690E-06,0.060
-5.680E-06,0.020
-5.670E-06,0.020
-5.660E-06,0.040
-5.650E-06,0.020
-5.640E-06,0.060
-5.630E-06,0.020
-5.620E-06,0.060
-5.610E-06,0.080
-5.600E-06,0.020
-5.590E-06,0.040
-5.580E-06,0.040
-5.570E-06,0.020
-5.560E-06,0.060
-5.550E-06,0.020
-5.540E-06,0.020
-5.530E-06,0.040
-5.520E-06,0.040
-5.510E-06,0.080
-5.500E-06,0.060
-5.490E-06,0.020
-5.480E-06,0.040
-5.470E-06,0.020
-5.460E-06,0.040
-5.450E-06,0.060
-5.440E-06,0.080
-5.430E-06,0.020
-5.420E-06,0.020
-5.410E-06,0.040
-5.400E-06,0.020
-5.390E-06,0.060
-5.380E-06,0.020
-5.370E-06,0.040
-5.360E-06,0.040
-5.350E-06,0.060
-5.340E-06,0.060
-5.330E-06,0.080
-5.320E-06,0.040
-5.310E-06,0.080
-5.300E-06,0.020
-5.290E-06,0.040
-5.280E-06,0.060
-5.270E-06,0.060
-5.260E-06,0.060
-5.250E-06,0.060
-5.240E-06,0.040
-5.230E-06,0.080
-5.220E-06,0.040
-5.210E-06,0.060
-5.200E-06,0.060
-5.190E-06,0.020
-5.180E-06,0.040
-5.170E-06,0.040
-5.160E-06,0.040
-5.150E-06,0.060
-5.140E-06,0.040
-5.130E-06,0.080
-5.120E-06,0.060
-5.110E-06,0.080
-5.100E-06,0.040
-5.090E-06,0.040
-5.080E-06,0.040
-5.070E-06,0.060
-5.060E-06,0.060
-5.050E-06,0.060
-5.040E-06,0.060
-5.030E-06,0.040
-5.020E-06,0.060
-5.010E-06,0.060
-5.000E-06,0.040
-4.990E-06,0.060
-4.980E-06,0.060
-4.970E-06,0.040
-4.960E-06,0.040
-4.950E-06,0.060
-4.940E-06,0.040
-4.930E-06,0.060
-4.920E-06,0.100
-4.910E-06,0.060
-4.900E-06,0.080
-4.890E-06,0.100
-4.880E-06,0.040
-4.870E-06,0.040
-4.860E-06,0.060
-4.850E-06,0.060
-4.840E-06,0.080
-4.830E-06,0.060
-4.820E-06,0.040
-4.810E-06,0.060
-4.800E-06,0.080
-4.790E-06,0.060
-4.780E-06,0.060
-4.770E-06,0.080
-4.760E-06,0.040
-4.750E-06,0.080
-4.740E-06,0.040
-4.730E-06,0.020
-4.720E-06,0.060
-4.710E-06,0.080
-4.700E-06,0.060
-4.690E-06,0.060
-4.680E-06,0.060
-4.670E-06,0.080
-4.660E-06,0.040
-4.650E-06,0.040
-4.640E-06,0.040
-4.630E-06,0.040
-4.620E-06,0.020
-4.610E-06,0.060
-4.600E-06,0.060
-4.590E-06,0.040
-4.580E-06,0.080
-4.570E-06,0.060
-4.560E-06,0.060
-4.550E-06,0.080
-4.540E-06,0.040
-4.530E-06,0.040
-4.520E-06,0.040
-4.510E-06,0.060
-4.500E-06,0.060
-4.490E-06,0.080
-4.480E-06,0.060
-4.470E-06,0.080
-4.460E-06,0.060
-4.450E-06,0.060
-4.440E-06,0.080
-4.430E-06,0.040
-4.420E-06,0.020
-4.410E-06,0.060
-4.400E-06,0.080
-4.390E-06,0.040
-4.380E-06,0.040
-4.370E-06,0.040
-4.360E-06,0.060
-4.350E-06,0.060
-4.340E-06,0.060
-4.330E-06,0.060
-4.320E-06,0.040
-4.310E-06,0.060
-4.300E-06,0.040
-4.290E-06,0.040
-4.280E-06,0.080
-4.270E-06,0.060
-4.260E-06,0.020
-4.250E-06,0.060
-4.240E-06,0.060
-4.230E-06,0.060
-4.220E-06,0.060
-4.210E-06,0.100
-4.200E-06,0.060
-4.190E-06,0.060
-4.180E-06,0.060
-4.170E-06,0.080
-4.160E-06,0.060
-4.150E-06,0.060
-4.140E-06,0.060
-4.130E-06,0.060
-4.120E-06,0.060
-4.110E-06,0.060
-4.100E-06,0.060
-4.090E-06,0.040
-4.080E-06,0.040
-4.070E-06,0.060
-4.060E-06,0.080
-4.050E-06,0.060
-4.040E-06,0.080
-4.030E-06,0.060
-4.020E-06,0.080
-4.010E-06,0.040
-4.000E-06,0.060
-3.990E-06,0.080
-3.980E-06,0.040
-3.970E-06,0.060
-3.960E-06,0.060
-3.950E-06,0.060
-3.940E-06,0.020
-3.930E-06,0.040
-3.920E-06,0.060
-3.910E-06,0.060
-3.900E-06,0.060
-3.890E-06,0.060
-3.880E-06,0.080
-3.870E-06,0.060
-3.860E-06,0.020
-3.850E-06,0.060
-3.840E-06,0.060
-3.830E-06,0.040
-3.820E-06,0.040
-3.810E-06,0.040
-3.800E-06,0.040
-3.790E-06,0.040
-3.780E-06,0.040
-3.770E-06,0.080
-3.760E-06,0.060
-3.750E-06,0.040
-3.740E-06,0.040
-3.730E-06,0.060
-3.720E-06,0.080
-3.710E-06,0.060
-3.700E-06,0.020
-3.690E-06,0.080
-3.680E-06,0.060
-3.670E-06,0.060
-3.660E-06,0.080
-3.650E-06,0.060
-3.640E-06,0.040
-3.630E-06,0.040
-3.620E-06,0.080
-3.610E-06,0.060
-3.600E-06,0.040
-3.590E-06,0.040
-3.580E-06,0.060
-3.570E-06,0.040
-3.560E-06,0.060
-3.550E-06,0.080
-3.540E-06,0.060
-3.530E-06,0.040
-3.520E-06,0.080
-3.510E-06,0.060
-3.500E-06,0.040
-3.490E-06,0.020
-3.480E-06,0.040
-3.470E-06,0.040
-3.460E-06,0.040
-3.450E-06,0.060
-3.440E-06,0.080
-3.430E-06,0.060
-3.420E-06,0.020
-3.410E-06,0.060
-3.400E-06,0.040
-3.390E-06,0.040
-3.380E-06,0.040
-3.370E-06,0.060
-3.360E-06,0.060
-3.350E-06,0.080
-3.340E-06,0.040
-3.330E-06,0.000
-3.320E-06,0.000
-3.310E-06,0.040
-3.300E-06,0.260
-3.290E-06,0.880
-3.280E-06,1.680
-3.270E-06,2.320
-3.260E-06,2.300
-3.250E-06,1.780
-3.240E-06,0.660
-3.230E-06,-0.700
-3.220E-06,-1.280
-3.210E-06,-1.700
-3.200E-06,-1.660
-3.190E-06,-1.720
-3.180E-06,-2.060
-3.170E-06,-2.100
-3.160E-06,-2.060
-3.150E-06,-1.740
-3.140E-06,-1.140
-3.130E-06,-0.500
-3.120E-06,-0.060
-3.110E-06,0.200
-3.100E-06,0.260
-3.090E-06,0.340
-3.080E-06,0.440
-3.070E-06,0.540
-3.060E-06,0.740
-3.050E-06,0.680
-3.040E-06,0.640
-3.030E-06,0.500
-3.020E-06,0.400
-3.010E-06,0.420
-3.000E-06,0.460
-2.990E-06,0.500
-2.980E-06,0.500
-2.970E-06,0.480
-2.960E-06,0.380
-2.950E-06,0.200
-2.940E-06,0.080
-2.930E-06,0.000
-2.920E-06,-0.020
-2.910E-06,-0.020
-2.900E-06,0.000
-2.890E-06,-0.020
-2.880E-06,0.020
-2.870E-06,0.080
-2.860E-06,0.180
-2.850E-06,0.320
-2.840E-06,0.520
-2.830E-06,0.700
-2.820E-06,0.800
-2.810E-06,0.820
-2.800E-06,0.780
-2.790E-06,0.740
-2.780E-06,0.580
-2.770E-06,0.420
-2.760E-06,0.240
-2.750E-06,0.000
-2.740E-06,-0.200
-2.730E-06,-0.420
-2.720E-06,-0.680
-2.710E-06,-0.920
-2.700E-06,-1.080
-2.690E-06,-1.180
-2.680E-06,-1.240
-2.670E-06,-1.200
-2.660E-06,-1.100
-2.650E-06,-0.880
-2.640E-06,-0.600
-2.630E-06,-0.320
-2.620E-06,-0.080
-2.610E-06,0.160
-2.600E-06,0.340
-2.590E-06,0.520
-2.580E-06,0.660
-2.570E-06,0.720
-2.560E-06,0.740
-2.550E-06,0.680
-2.540E-06,0.600
-2.530E-06,0.500
-2.520E-06,0.400
-2.510E-06,0.260
-2.500E-06,0.160
-2.490E-06,0.100
-2.480E-06,0.040
-2.470E-06,0.000
-2.460E-06,-0.020
-2.450E-06,0.000
-2.440E-06,-0.020
-2.430E-06,-0.040
-2.420E-06,-0.080
-2.410E-06,-0.120
-2.400E-06,-0.160
-2.390E-06,-0.180
-2.380E-06,-0.180
-2.370E-06,-0.120
-2.360E-06,-0.040
-2.350E-06,0.080
-2.340E-06,0.060
-2.330E-06,0.160
-2.320E-06,0.220
-2.310E-06,0.260
-2.300E-06,0.340
-2.290E-06,0.360
-2.280E-06,0.380
-2.270E-06,0.340
-2.260E-06,0.280
-2.250E-06,0.220
-2.240E-06,0.160
-2.230E-06,0.100
-2.220E-06,0.080
-2.210E-06,0.080
-2.200E-06,0.060
-2.190E-06,0.020
-2.180E-06,0.060
-2.170E-06,0.080
-2.160E-06,0.060
-2.150E-06,0.140
-2.140E-06,0.180
-2.130E-06,0.180
-2.120E-06,0.160
-2.110E-06,0.180
-2.100E-06,0.180
-2.090E-06,0.320
-2.080E-06,0.180
-2.070E-06,0.140
-2.060E-06,0.120
-2.050E-06,0.020
-2.040E-06,0.160
-2.030E-06,0.240
-2.020E-06,0.240
-2.010E-06,0.160
-2.000E-06,0.000
-1.990E-06,-0.020
-1.980E-06,0.060
-1.970E-06,0.140
-1.960E-06,0.220
-1.950E-06,0.240
-1.940E-06,0.180
-1.930E-06,0.080
-1.920E-06,0.020
-1.910E-06,0.000
-1.900E-06,0.000
-1.890E-06,0.020
-1.880E-06,0.040
-1.870E-06,-0.020
-1.860E-06,-0.020
-1.850E-06,-0.040
-1.840E-06,-0.020
-1.830E-06,0.000
-1.820E-06,0.040
-1.810E-06,0.060
-1.800E-06,0.140
-1.790E-06,0.240
-1.780E-06,0.240
-1.770E-06,0.200
-1.760E-06,0.160
-1.750E-06,0.200
-1.740E-06,0.240
-1.730E-06,0.340
-1.720E-06,0.380
-1.710E-06,0.400
-1.700E-06,0.340
-1.690E-06,0.340
-1.680E-06,0.320
-1.670E-06,0.340
-1.660E-06,0.400
-1.650E-06,0.380
-1.640E-06,0.360
-1.630E-06,0.320
-1.620E-06,0.260
-1.610E-06,0.260
-1.600E-06,0.200
-1.590E-06,0.260
-1.580E-06,0.240
-1.570E-06,0.260
-1.560E-06,0.240
-1.550E-06,0.260
-1.540E-06,0.260
-1.530E-06,0.320
-1.520E-06,0.320
-1.510E-06,0.460
-1.500E-06,0.560
-1.490E-06,0.520
-1.480E-06,0.620
-1.470E-06,0.680
-1.460E-06,0.660
-1.450E-06,0.640
-1.440E-06,0.600
-1.430E-06,1.020
-1.420E-06,0.360
-1.410E-06,0.460
-1.400E-06,0.260
-1.390E-06,0.080
-1.380E-06,0.640
-1.370E-06,1.240
-1.360E-06,1.480
-1.350E-06,1.420
-1.340E-06,0.980
-1.330E-06,0.540
-1.320E-06,0.460
-1.310E-06,-0.080
-1.300E-06,-0.340
-1.290E-06,-0.200
-1.280E-06,-1.040
-1.270E-06,-1.000
-1.260E-06,-0.880
-1.250E-06,-1.580
-1.240E-06,-0.720
-1.230E-06,-0.320
-1.220E-06,-0.340
-1.210E-06,0.520
-1.200E-06,0.500
-1.190E-06,0.080
-1.180E-06,0.460
-1.170E-06,0.240
-1.160E-06,0.320
-1.150E-06,0.600
-1.140E-06,0.500
-1.130E-06,0.460
-1.120E-06,0.180
-1.110E-06,0.240
-1.100E-06,-0.660
-1.090E-06,-0.480
-1.080E-06,-1.000
-1.070E-06,-1.180
-1.060E-06,-0.020
-1.050E-06,0.720
-1.040E-06,1.800
-1.030E-06,2.580
-1.020E-06,2.440
-1.010E-06,1.940
-1.000E-06,1.560
-9.900E-07,1.020
-9.800E-07,1.180
-9.700E-07,1.300
-9.600E-07,1.200
-9.500E-07,0.900
-9.400E-07,0.240
-9.300E-07,-0.500
-9.200E-07,-1.020
-9.100E-07,-1.380
-9.000E-07,-1.480
-8.900E-07,-1.400
-8.800E-07,-1.240
-8.700E-07,-0.840
-8.600E-07,-0.540
-8.500E-07,-0.640
-8.400E-07,-0.660
-8.300E-07,-1.060
-8.200E-07,-1.640
-8.100E-07,-1.920
-8.000E-07,-1.860
-7.900E-07,-1.140
-7.800E-07,-0.120
-7.700E-07,0.880
-7.600E-07,1.600
-7.500E-07,1.740
-7.400E-07,1.380
-7.300E-07,1.020
-7.200E-07,0.860
-7.100E-07,0.980
-7.000E-07,1.280
-6.900E-07,1.700
-6.800E-07,1.900
-6.700E-07,1.780
-6.600E-07,1.520
-6.500E-07,1.080
-6.400E-07,0.840
-6.300E-07,0.720
-6.200E-07,0.580
-6.100E-07,0.420
-6.000E-07,0.160
-5.900E-07,-0.140
-5.800E-07,-0.340
-5.700E-07,-0.500
-5.600E-07,-0.520
-5.500E-07,-0.440
-5.400E-07,-0.280
-5.300E-07,-0.280
-5.200E-07,-0.260
-5.100E-07,-0.320
-5.000E-07,-0.380
-4.900E-07,-0.640
-4.800E-07,-1.200
-4.700E-07,-1.800
-4.600E-07,-2.320
-4.500E-07,-2.520
-4.400E-07,-2.020
-4.300E-07,-1.240
-4.200E-07,-0.540
-4.100E-07,-0.040
-4.000E-07,0.160
-3.900E-07,-0.020
-3.800E-07,0.000
-3.700E-07,-0.140
-3.600E-07,0.040
-3.500E-07,0.360
-3.400E-07,0.900
-3.300E-07,1.520
-3.200E-07,1.980
-3.100E-07,2.380
-3.000E-07,2.600
-2.900E-07,2.620
-2.800E-07,2.600
-2.700E-07,2.320
-2.600E-07,1.900
-2.500E-07,1.380
-2.400E-07,0.840
-2.300E-07,0.600
-2.200E-07,0.560
-2.100E-07,0.760
-2.000E-07,1.180
-1.900E-07,1.520
-1.800E-07,1.640
-1.700E-07,1.740
-1.600E-07,1.600
-1.500E-07,1.740
-1.400E-07,1.860
-1.300E-07,2.040
-1.200E-07,2.460
-1.100E-07,2.500
-1.000E-07,2.540
-9.000E-08,2.320
-8.000E-08,1.940
-7.000E-08,1.480
-6.000E-08,1.100
-5.000E-08,0.800
-4.000E-08,-0.280
-3.000E-08,-2.040
-2.000E-08,-2.320
-1.000E-08,-2.040
0.000E+00,-2.300
1.000E-08,0.780
2.000E-08,2.740
3.000E-08,2.760
4.000E-08,2.780
5.000E-08,2.760
6.000E-08,2.780
7.000E-08,2.780
8.000E-08,2.760
9.000E-08,2.760
1.000E-07,2.760
1.100E-07,2.740
1.200E-07,2.760
1.300E-07,2.540
1.400E-07,1.480
1.500E-07,0.640
1.600E-07,-0.460
1.700E-07,-1.620
1.800E-07,-1.740
1.900E-07,-2.120
2.000E-07,-2.320
2.100E-07,-2.100
2.200E-07,-1.620
2.300E-07,-0.840
2.400E-07,0.460
2.500E-07,1.880
2.600E-07,2.760
2.700E-07,2.760
2.800E-07,2.760
2.900E-07,2.780
3.000E-07,2.760
3.100E-07,2.760
3.200E-07,2.760
3.300E-07,2.760
3.400E-07,2.740
3.500E-07,2.500
3.600E-07,1.780
3.700E-07,1.180
3.800E-07,0.540
3.900E-07,0.220
4.000E-07,-0.060
4.100E-07,-0.160
4.200E-07,-0.120
4.300E-07,0.100
4.400E-07,0.380
4.500E-07,0.580
4.600E-07,0.840
4.700E-07,1.100
4.800E-07,1.380
4.900E-07,1.680
5.000E-07,1.860
5.100E-07,1.960
5.200E-07,1.940
5.300E-07,1.920
5.400E-07,1.740
5.500E-07,1.640
5.600E-07,1.520
5.700E-07,1.420
5.800E-07,1.320
5.900E-07,1.160
6.000E-07,1.020
6.100E-07,0.800
6.200E-07,0.660
6.300E-07,0.620
6.400E-07,0.620
6.500E-07,0.740
6.600E-07,0.760
6.700E-07,0.900
6.800E-07,1.080
6.900E-07,1.220
7.000E-07,1.440
7.100E-07,1.620
7.200E-07,1.700
7.300E-07,1.720
7.400E-07,1.600
7.500E-07,1.480
7.600E-07,1.360
7.700E-07,1.240
7.800E-07,1.100
7.900E-07,1.000
8.000E-07,0.880
8.100E-07,0.800
8.200E-07,0.780
8.300E-07,0.740
8.400E-07,0.800
8.500E-07,0.880
8.600E-07,0.980
8.700E-07,1.000
8.800E-07,1.040
8.900E-07,1.000
9.000E-07,0.960
9.100E-07,0.900
9.200E-07,0.780
9.300E-07,0.640
9.400E-07,0.560
9.500E-07,0.500
9.600E-07,0.380
9.700E-07,0.340
9.800E-07,0.300
9.900E-07,0.320
1.000E-06,0.340
1.010E-06,0.320
1.020E-06,0.340
1.030E-06,0.380
1.040E-06,0.380
1.050E-06,0.420
1.060E-06,0.500
1.070E-06,0.580
1.080E-06,0.700
1.090E-06,0.760
1.100E-06,0.900
1.110E-06,0.960
1.120E-06,0.980
1.130E-06,1.000
1.140E-06,0.920
1.150E-06,0.860
1.160E-06,0.780
1.170E-06,0.720
1.180E-06,0.640
1.190E-06,0.580
1.200E-06,0.540
1.210E-06,0.500
1.220E-06,0.520
1.230E-06,0.540
1.240E-06,0.580
1.250E-06,0.640
1.260E-06,0.700
1.270E-06,0.800
1.280E-06,0.880
1.290E-06,0.940
1.300E-06,0.960
1.310E-06,0.940
1.320E-06,0.880
1.330E-06,0.760
1.340E-06,0.660
1.350E-06,0.660
1.360E-06,0.660
1.370E-06,0.600
1.380E-06,0.560
1.390E-06,0.540
1.400E-06,0.680
1.410E-06,0.720
1.420E-06,0.680
1.430E-06,0.560
1.440E-06,0.400
1.450E-06,0.300
1.460E-06,0.160
1.470E-06,0.020
1.480E-06,-0.080
1.490E-06,-0.180
1.500E-06,-0.240
1.510E-06,-0.260
1.520E-06,-0.300
1.530E-06,-0.260
1.540E-06,-0.300
1.550E-06,-0.300
1.560E-06,-0.260
1.570E-06,-0.260
1.580E-06,-0.260
1.590E-06,-0.180
1.600E-06,-0.140
1.610E-06,-0.080
1.620E-06,-0.120
1.630E-06,-0.160
1.640E-06,-0.240
1.650E-06,-0.420
1.660E-06,-0.580
1.670E-06,-0.660
1.680E-06,-0.700
1.690E-06,-0.740
1.700E-06,-0.860
1.710E-06,-0.940
1.720E-06,-1.000
1.730E-06,-1.000
1.740E-06,-1.020
1.750E-06,-1.000
1.760E-06,-0.980
1.770E-06,-0.980
1.780E-06,-1.020
1.790E-06,-1.000
1.800E-06,-0.960
1.810E-06,-0.920
1.820E-06,-0.900
1.830E-06,-0.900
1.840E-06,-0.880
1.850E-06,-0.860
1.860E-06,-0.780
1.870E-06,-0.720
1.880E-06,-0.780
1.890E-06,-0.800
1.900E-06,-0.760
1.910E-06,-0.680
1.920E-06,-0.520
1.930E-06,-0.400
1.940E-06,-0.280
1.950E-06,-0.180
1.960E-06,-0.120
1.970E-06,-0.020
1.980E-06,0.020
1.990E-06,0.080
2.000E-06,0.160
2.010E-06,0.200
2.020E-06,0.200
2.030E-06,0.080
2.040E-06,-0.020
2.050E-06,-0.040
2.060E-06,-0.060
2.070E-06,-0.060
2.080E-06,-0.020
2.090E-06,0.040
2.100E-06,0.140
2.110E-06,0.320
2.120E-06,0.440
2.130E-06,0.560
2.140E-06,0.680
2.150E-06,0.700
2.160E-06,0.680
2.170E-06,0.580
2.180E-06,0.500
2.190E-06,0.400
2.200E-06,0.360
2.210E-06,0.280
2.220E-06,0.220
2.230E-06,0.140
2.240E-06,0.100
2.250E-06,0.060
2.260E-06,0.000
2.270E-06,-0.020
2.280E-06,-0.080
2.290E-06,-0.060
2.300E-06,0.040
2.310E-06,0.140
2.320E-06,0.320
2.330E-06,0.520
2.340E-06,0.780
2.350E-06,0.980
2.360E-06,1.120
2.370E-06,1.220
2.380E-06,1.260
2.390E-06,1.320
2.400E-06,1.300
2.410E-06,1.160
2.420E-06,0.960
2.430E-06,0.700
2.440E-06,0.400
2.450E-06,0.180
2.460E-06,-0.120
2.470E-06,-0.340
2.480E-06,-0.600
2.490E-06,-0.720
2.500E-06,-0.660
2.510E-06,-0.600
2.520E-06,-0.520
2.530E-06,-0.420
2.540E-06,-0.320
2.550E-06,-0.240
2.560E-06,-0.160
2.570E-06,-0.140
2.580E-06,-0.100
2.590E-06,-0.140
2.600E-06,-0.160
2.610E-06,-0.220
2.620E-06,-0.180
2.630E-06,-0.160
2.640E-06,-0.080
2.650E-06,-0.020
2.660E-06,0.120
2.670E-06,0.280
2.680E-06,0.500
2.690E-06,0.780
2.700E-06,0.900
2.710E-06,0.800
2.720E-06,0.680
2.730E-06,0.600
2.740E-06,0.740
2.750E-06,0.800
2.760E-06,0.660
2.770E-06,0.500
2.780E-06,0.340
2.790E-06,0.220
2.800E-06,0.160
2.810E-06,0.060
2.820E-06,0.000
2.830E-06,0.000
2.840E-06,-0.020
2.850E-06,0.000
2.860E-06,0.000
2.870E-06,0.040
2.880E-06,0.060
2.890E-06,0.160
2.900E-06,0.280
2.910E-06,0.360
2.920E-06,0.460
2.930E-06,0.520
2.940E-06,0.580
2.950E-06,0.580
2.960E-06,0.540
2.970E-06,0.640
2.980E-06,0.940
2.990E-06,1.040
3.000E-06,0.880
3.010E-06,0.560
3.020E-06,0.320
3.030E-06,0.320
3.040E-06,0.420
3.050E-06,0.400
3.060E-06,0.180
3.070E-06,0.040
3.080E-06,-0.020
3.090E-06,-0.020
3.100E-06,-0.040
3.110E-06,-0.060
3.120E-06,0.000
3.130E-06,0.020
3.140E-06,0.140
3.150E-06,0.180
3.160E-06,0.260
3.170E-06,0.380
3.180E-06,0.480
3.190E-06,0.720
3.200E-06,1.040
3.210E-06,1.280
3.220E-06,1.420
3.230E-06,1.380
3.240E-06,1.280
3.250E-06,1.180
3.260E-06,1.040
3.270E-06,0.960
3.280E-06,0.800
3.290E-06,0.600
3.300E-06,0.380
3.310E-06,0.180
3.320E-06,-0.040
3.330E-06,-0.240
3.340E-06,-0.360
3.350E-06,-0.460
3.360E-06,-0.460
3.370E-06,-0.340
3.380E-06,-0.240
3.390E-06,-0.080
3.400E-06,0.020
3.410E-06,0.140
3.420E-06,0.240
3.430E-06,0.340
3.440E-06,0.360
3.450E-06,0.380
3.460E-06,0.420
3.470E-06,0.400
3.480E-06,0.380
3.490E-06,0.380
3.500E-06,0.400
3.510E-06,0.340
3.520E-06,0.360
3.530E-06,0.320
3.540E-06,0.240
3.550E-06,0.180
3.560E-06,0.140
3.570E-06,0.160
3.580E-06,0.220
3.590E-06,0.260
3.600E-06,0.240
3.610E-06,0.200
3.620E-06,0.240
3.630E-06,0.260
3.640E-06,0.320
3.650E-06,0.340
3.660E-06,0.360
