mediciones/6-26/40.0/WaveData59001.csv

#timebase=2000000(ps)
,#voltbase=500000(mv/100)
#size=4000
-8.150E-06,0.000
-8.140E-06,-0.100
-8.130E-06,-0.100
-8.120E-06,-0.300
-8.110E-06,-0.180
-8.100E-06,-0.140
-8.090E-06,-0.160
-8.080E-06,-0.180
-8.070E-06,-0.180
-8.060E-06,-0.280
-8.050E-06,-0.180
-8.040E-06,-0.140
-8.030E-06,0.000
-8.020E-06,0.180
-8.010E-06,0.340
-8.000E-06,0.420
-7.990E-06,0.420
-7.980E-06,0.360
-7.970E-06,0.320
-7.960E-06,0.260
-7.950E-06,0.220
-7.940E-06,0.160
-7.930E-06,0.100
-7.920E-06,0.020
-7.910E-06,0.000
-7.900E-06,-0.060
-7.890E-06,-0.060
-7.880E-06,-0.080
-7.870E-06,-0.040
-7.860E-06,0.020
-7.850E-06,0.040
-7.840E-06,0.080
-7.830E-06,0.080
-7.820E-06,0.060
-7.810E-06,0.140
-7.800E-06,0.100
-7.790E-06,0.080
-7.780E-06,0.080
-7.770E-06,0.100
-7.760E-06,0.080
-7.750E-06,0.100
-7.740E-06,0.080
-7.730E-06,0.100
-7.720E-06,0.100
-7.710E-06,0.080
-7.700E-06,0.040
-7.690E-06,0.160
-7.680E-06,0.280
-7.670E-06,0.320
-7.660E-06,0.440
-7.650E-06,0.340
-7.640E-06,0.200
-7.630E-06,0.040
-7.620E-06,0.000
-7.610E-06,0.040
-7.600E-06,0.140
-7.590E-06,0.180
-7.580E-06,0.220
-7.570E-06,0.100
-7.560E-06,0.000
-7.550E-06,-0.040
-7.540E-06,0.000
-7.530E-06,0.020
-7.520E-06,0.080
-7.510E-06,0.100
-7.500E-06,0.100
-7.490E-06,0.020
-7.480E-06,-0.060
-7.470E-06,-0.080
-7.460E-06,-0.060
-7.450E-06,0.000
-7.440E-06,0.020
-7.430E-06,0.020
-7.420E-06,0.040
-7.410E-06,0.000
-7.400E-06,-0.180
-7.390E-06,-0.060
-7.380E-06,0.000
-7.370E-06,0.180
-7.360E-06,0.280
-7.350E-06,0.100
-7.340E-06,0.060
-7.330E-06,-0.100
-7.320E-06,0.120
-7.310E-06,0.360
-7.300E-06,0.640
-7.290E-06,0.560
-7.280E-06,0.440
-7.270E-06,0.160
-7.260E-06,0.080
-7.250E-06,0.140
-7.240E-06,0.260
-7.230E-06,0.440
-7.220E-06,0.420
-7.210E-06,0.400
-7.200E-06,0.280
-7.190E-06,0.200
-7.180E-06,0.220
-7.170E-06,0.340
-7.160E-06,0.360
-7.150E-06,0.320
-7.140E-06,0.160
-7.130E-06,0.000
-7.120E-06,-0.160
-7.110E-06,-0.240
-7.100E-06,-0.260
-7.090E-06,-0.180
-7.080E-06,-0.100
-7.070E-06,-0.020
-7.060E-06,-0.020
-7.050E-06,-0.100
-7.040E-06,-0.100
-7.030E-06,-0.120
-7.020E-06,-0.100
-7.010E-06,-0.040
-7.000E-06,-0.020
-6.990E-06,0.040
-6.980E-06,0.080
-6.970E-06,0.100
-6.960E-06,0.060
-6.950E-06,0.100
-6.940E-06,0.140
-6.930E-06,0.160
-6.920E-06,0.180
-6.910E-06,0.200
-6.900E-06,0.200
-6.890E-06,0.200
-6.880E-06,0.220
-6.870E-06,0.220
-6.860E-06,0.200
-6.850E-06,0.220
-6.840E-06,0.160
-6.830E-06,0.120
-6.820E-06,0.120
-6.810E-06,0.160
-6.800E-06,0.180
-6.790E-06,0.180
-6.780E-06,0.180
-6.770E-06,0.220
-6.760E-06,0.180
-6.750E-06,0.220
-6.740E-06,0.220
-6.730E-06,0.220
-6.720E-06,0.200
-6.710E-06,0.200
-6.700E-06,0.220
-6.690E-06,0.180
-6.680E-06,0.160
-6.670E-06,0.140
-6.660E-06,0.100
-6.650E-06,0.060
-6.640E-06,0.080
-6.630E-06,0.060
-6.620E-06,0.060
-6.610E-06,0.080
-6.600E-06,0.060
-6.590E-06,0.040
-6.580E-06,0.100
-6.570E-06,0.080
-6.560E-06,0.140
-6.550E-06,0.160
-6.540E-06,0.260
-6.530E-06,0.340
-6.520E-06,0.560
-6.510E-06,0.540
-6.500E-06,0.340
-6.490E-06,0.200
-6.480E-06,0.240
-6.470E-06,0.420
-6.460E-06,0.900
-6.450E-06,0.960
-6.440E-06,0.680
-6.430E-06,0.220
-6.420E-06,-0.180
-6.410E-06,-0.220
-6.400E-06,0.120
-6.390E-06,0.520
-6.380E-06,0.720
-6.370E-06,0.660
-6.360E-06,0.280
-6.350E-06,-0.140
-6.340E-06,-0.300
-6.330E-06,-0.300
-6.320E-06,-0.100
-6.310E-06,0.060
-6.300E-06,0.260
-6.290E-06,-0.500
-6.280E-06,-0.520
-6.270E-06,-0.640
-6.260E-06,-0.720
-6.250E-06,0.080
-6.240E-06,0.300
-6.230E-06,-0.020
-6.220E-06,-0.300
-6.210E-06,-0.920
-6.200E-06,-0.980
-6.190E-06,-0.680
-6.180E-06,-0.400
-6.170E-06,0.440
-6.160E-06,0.840
-6.150E-06,1.080
-6.140E-06,0.940
-6.130E-06,0.640
-6.120E-06,0.240
-6.110E-06,0.140
-6.100E-06,0.280
-6.090E-06,0.500
-6.080E-06,0.560
-6.070E-06,0.580
-6.060E-06,0.780
-6.050E-06,0.520
-6.040E-06,0.480
-6.030E-06,0.340
-6.020E-06,0.140
-6.010E-06,0.100
-6.000E-06,0.020
-5.990E-06,0.200
-5.980E-06,0.320
-5.970E-06,0.160
-5.960E-06,0.080
-5.950E-06,-0.060
-5.940E-06,-0.260
-5.930E-06,-0.200
-5.920E-06,-0.120
-5.910E-06,-0.080
-5.900E-06,-0.060
-5.890E-06,-0.220
-5.880E-06,-0.380
-5.870E-06,-0.360
-5.860E-06,-0.480
-5.850E-06,-0.320
-5.840E-06,-0.180
-5.830E-06,-0.160
-5.820E-06,-0.220
-5.810E-06,-0.240
-5.800E-06,-0.280
-5.790E-06,-0.280
-5.780E-06,-0.220
-5.770E-06,-0.140
-5.760E-06,0.020
-5.750E-06,0.080
-5.740E-06,0.020
-5.730E-06,0.040
-5.720E-06,0.060
-5.710E-06,0.080
-5.700E-06,0.140
-5.690E-06,0.260
-5.680E-06,0.300
-5.670E-06,0.300
-5.660E-06,0.280
-5.650E-06,0.240
-5.640E-06,0.200
-5.630E-06,0.200
-5.620E-06,0.240
-5.610E-06,0.240
-5.600E-06,0.260
-5.590E-06,0.240
-5.580E-06,0.180
-5.570E-06,0.120
-5.560E-06,0.120
-5.550E-06,0.100
-5.540E-06,0.040
-5.530E-06,0.040
-5.520E-06,0.060
-5.510E-06,0.040
-5.500E-06,-0.020
-5.490E-06,-0.020
-5.480E-06,-0.020
-5.470E-06,-0.060
-5.460E-06,-0.060
-5.450E-06,-0.080
-5.440E-06,-0.020
-5.430E-06,-0.040
-5.420E-06,-0.060
-5.410E-06,0.000
-5.400E-06,-0.020
-5.390E-06,-0.020
-5.380E-06,0.020
-5.370E-06,0.020
-5.360E-06,0.020
-5.350E-06,-0.020
-5.340E-06,-0.020
-5.330E-06,0.000
-5.320E-06,-0.020
-5.310E-06,-0.020
-5.300E-06,0.000
-5.290E-06,0.000
-5.280E-06,0.000
-5.270E-06,0.000
-5.260E-06,0.000
-5.250E-06,0.000
-5.240E-06,0.000
-5.230E-06,-0.020
-5.220E-06,0.000
-5.210E-06,0.040
-5.200E-06,0.040
-5.190E-06,0.020
-5.180E-06,0.020
-5.170E-06,0.040
-5.160E-06,0.020
-5.150E-06,0.040
-5.140E-06,0.040
-5.130E-06,0.060
-5.120E-06,0.100
-5.110E-06,0.100
-5.100E-06,0.040
-5.090E-06,0.060
-5.080E-06,0.040
-5.070E-06,0.060
-5.060E-06,0.060
-5.050E-06,0.040
-5.040E-06,0.060
-5.030E-06,0.040
-5.020E-06,0.020
-5.010E-06,0.040
-5.000E-06,0.000
-4.990E-06,0.020
-4.980E-06,0.040
-4.970E-06,0.020
-4.960E-06,0.040
-4.950E-06,0.060
-4.940E-06,0.040
-4.930E-06,0.020
-4.920E-06,0.060
-4.910E-06,0.060
-4.900E-06,0.080
-4.890E-06,0.080
-4.880E-06,0.020
-4.870E-06,0.040
-4.860E-06,0.080
-4.850E-06,0.060
-4.840E-06,0.060
-4.830E-06,0.040
-4.820E-06,0.060
-4.810E-06,0.000
-4.800E-06,0.020
-4.790E-06,0.000
-4.780E-06,0.020
-4.770E-06,0.020
-4.760E-06,0.020
-4.750E-06,-0.020
-4.740E-06,-0.020
-4.730E-06,0.000
-4.720E-06,-0.020
-4.710E-06,0.020
-4.700E-06,0.020
-4.690E-06,0.000
-4.680E-06,0.000
-4.670E-06,0.020
-4.660E-06,0.020
-4.650E-06,0.040
-4.640E-06,0.040
-4.630E-06,0.060
-4.620E-06,0.040
-4.610E-06,0.040
-4.600E-06,0.040
-4.590E-06,0.040
-4.580E-06,0.060
-4.570E-06,0.060
-4.560E-06,0.080
-4.550E-06,0.100
-4.540E-06,0.060
-4.530E-06,0.040
-4.520E-06,0.100
-4.510E-06,0.060
-4.500E-06,0.060
-4.490E-06,0.060
-4.480E-06,0.040
-4.470E-06,0.060
-4.460E-06,0.080
-4.450E-06,0.040
-4.440E-06,0.020
-4.430E-06,0.020
-4.420E-06,0.060
-4.410E-06,0.040
-4.400E-06,0.080
-4.390E-06,0.060
-4.380E-06,0.020
-4.370E-06,0.040
-4.360E-06,0.040
-4.350E-06,0.020
-4.340E-06,0.020
-4.330E-06,0.040
-4.320E-06,0.040
-4.310E-06,0.040
-4.300E-06,0.020
-4.290E-06,0.020
-4.280E-06,0.020
-4.270E-06,0.040
-4.260E-06,0.020
-4.250E-06,0.000
-4.240E-06,-0.020
-4.230E-06,0.000
-4.220E-06,0.000
-4.210E-06,0.000
-4.200E-06,0.020
-4.190E-06,0.020
-4.180E-06,0.040
-4.170E-06,0.020
-4.160E-06,0.040
-4.150E-06,0.060
-4.140E-06,0.080
-4.130E-06,0.080
-4.120E-06,0.080
-4.110E-06,0.100
-4.100E-06,0.100
-4.090E-06,0.120
-4.080E-06,0.080
-4.070E-06,0.080
-4.060E-06,0.100
-4.050E-06,0.080
-4.040E-06,0.120
-4.030E-06,0.080
-4.020E-06,0.080
-4.010E-06,0.080
-4.000E-06,0.040
-3.990E-06,0.040
-3.980E-06,0.060
-3.970E-06,0.080
-3.960E-06,0.020
-3.950E-06,0.060
-3.940E-06,0.060
-3.930E-06,0.020
-3.920E-06,0.020
-3.910E-06,0.020
-3.900E-06,0.000
-3.890E-06,0.000
-3.880E-06,0.020
-3.870E-06,0.020
-3.860E-06,0.000
-3.850E-06,0.040
-3.840E-06,0.000
-3.830E-06,0.000
-3.820E-06,0.000
-3.810E-06,0.040
-3.800E-06,0.040
-3.790E-06,0.020
-3.780E-06,0.020
-3.770E-06,0.060
-3.760E-06,0.040
-3.750E-06,0.060
-3.740E-06,0.060
-3.730E-06,0.020
-3.720E-06,0.020
-3.710E-06,0.020
-3.700E-06,0.040
-3.690E-06,0.000
-3.680E-06,0.040
-3.670E-06,0.060
-3.660E-06,0.060
-3.650E-06,0.020
-3.640E-06,0.080
-3.630E-06,0.040
-3.620E-06,0.040
-3.610E-06,0.060
-3.600E-06,0.080
-3.590E-06,0.060
-3.580E-06,0.080
-3.570E-06,0.060
-3.560E-06,0.080
-3.550E-06,0.060
-3.540E-06,0.060
-3.530E-06,0.080
-3.520E-06,0.060
-3.510E-06,0.040
-3.500E-06,0.060
-3.490E-06,0.020
-3.480E-06,0.020
-3.470E-06,0.060
-3.460E-06,0.020
-3.450E-06,0.000
-3.440E-06,0.040
-3.430E-06,0.020
-3.420E-06,0.060
-3.410E-06,0.040
-3.400E-06,0.020
-3.390E-06,0.000
-3.380E-06,0.020
-3.370E-06,0.020
-3.360E-06,0.020
-3.350E-06,0.040
-3.340E-06,0.060
-3.330E-06,0.040
-3.320E-06,0.060
-3.310E-06,0.060
-3.300E-06,0.020
-3.290E-06,0.040
-3.280E-06,0.060
-3.270E-06,0.020
-3.260E-06,0.020
-3.250E-06,0.040
-3.240E-06,0.060
-3.230E-06,0.080
-3.220E-06,0.040
-3.210E-06,0.020
-3.200E-06,0.020
-3.190E-06,0.020
-3.180E-06,0.000
-3.170E-06,0.040
-3.160E-06,0.040
-3.150E-06,0.060
-3.140E-06,0.060
-3.130E-06,0.040
-3.120E-06,0.060
-3.110E-06,0.060
-3.100E-06,0.000
-3.090E-06,0.020
-3.080E-06,0.040
-3.070E-06,0.060
-3.060E-06,0.080
-3.050E-06,0.020
-3.040E-06,0.040
-3.030E-06,0.060
-3.020E-06,0.000
-3.010E-06,0.040
-3.000E-06,0.040
-2.990E-06,0.020
-2.980E-06,0.040
-2.970E-06,0.020
-2.960E-06,0.040
-2.950E-06,0.000
-2.940E-06,0.020
-2.930E-06,0.000
-2.920E-06,0.020
-2.910E-06,0.060
-2.900E-06,0.000
-2.890E-06,0.000
-2.880E-06,0.020
-2.870E-06,0.060
-2.860E-06,0.040
-2.850E-06,0.060
-2.840E-06,0.020
-2.830E-06,0.040
-2.820E-06,0.020
-2.810E-06,0.040
-2.800E-06,0.060
-2.790E-06,0.040
-2.780E-06,0.040
-2.770E-06,0.040
-2.760E-06,0.060
-2.750E-06,0.060
-2.740E-06,-0.020
-2.730E-06,0.000
-2.720E-06,0.020
-2.710E-06,0.020
-2.700E-06,0.020
-2.690E-06,0.040
-2.680E-06,0.020
-2.670E-06,0.020
-2.660E-06,0.020
-2.650E-06,0.020
-2.640E-06,0.020
-2.630E-06,0.020
-2.620E-06,0.040
-2.610E-06,0.040
-2.600E-06,0.020
-2.590E-06,0.040
-2.580E-06,0.000
-2.570E-06,0.060
-2.560E-06,0.060
-2.550E-06,0.040
-2.540E-06,0.020
-2.530E-06,0.040
-2.520E-06,0.040
-2.510E-06,0.080
-2.500E-06,0.020
-2.490E-06,0.040
-2.480E-06,0.020
-2.470E-06,0.040
-2.460E-06,0.020
-2.450E-06,0.060
-2.440E-06,0.020
-2.430E-06,0.060
-2.420E-06,0.080
-2.410E-06,0.020
-2.400E-06,0.000
-2.390E-06,0.020
-2.380E-06,0.040
-2.370E-06,0.040
-2.360E-06,0.020
-2.350E-06,0.060
-2.340E-06,0.060
-2.330E-06,0.080
-2.320E-06,0.060
-2.310E-06,0.040
-2.300E-06,0.000
-2.290E-06,0.000
-2.280E-06,0.000
-2.270E-06,0.040
-2.260E-06,0.080
-2.250E-06,0.140
-2.240E-06,0.120
-2.230E-06,0.100
-2.220E-06,0.020
-2.210E-06,-0.020
-2.200E-06,0.000
-2.190E-06,0.020
-2.180E-06,0.080
-2.170E-06,0.100
-2.160E-06,0.060
-2.150E-06,0.020
-2.140E-06,0.000
-2.130E-06,0.040
-2.120E-06,0.040
-2.110E-06,0.040
-2.100E-06,0.020
-2.090E-06,0.040
-2.080E-06,0.060
-2.070E-06,0.000
-2.060E-06,0.020
-2.050E-06,0.020
-2.040E-06,0.020
-2.030E-06,0.040
-2.020E-06,0.040
-2.010E-06,0.040
-2.000E-06,0.060
-1.990E-06,0.040
-1.980E-06,0.060
-1.970E-06,0.060
-1.960E-06,0.020
-1.950E-06,0.040
-1.940E-06,0.040
-1.930E-06,0.020
-1.920E-06,0.020
-1.910E-06,0.040
-1.900E-06,-0.020
-1.890E-06,0.020
-1.880E-06,0.020
-1.870E-06,-0.020
-1.860E-06,-0.020
-1.850E-06,0.000
-1.840E-06,-0.020
-1.830E-06,0.000
-1.820E-06,-0.040
-1.810E-06,-0.040
-1.800E-06,0.000
-1.790E-06,0.080
-1.780E-06,0.240
-1.770E-06,0.320
-1.760E-06,0.340
-1.750E-06,0.320
-1.740E-06,0.220
-1.730E-06,0.080
-1.720E-06,0.040
-1.710E-06,0.120
-1.700E-06,0.200
-1.690E-06,0.220
-1.680E-06,0.200
-1.670E-06,0.100
-1.660E-06,0.060
-1.650E-06,0.020
-1.640E-06,0.000
-1.630E-06,0.060
-1.620E-06,0.000
-1.610E-06,0.000
-1.600E-06,-0.060
-1.590E-06,-0.040
-1.580E-06,0.000
-1.570E-06,0.080
-1.560E-06,0.160
-1.550E-06,0.100
-1.540E-06,0.020
-1.530E-06,-0.040
-1.520E-06,-0.100
-1.510E-06,-0.040
-1.500E-06,-0.020
-1.490E-06,0.040
-1.480E-06,0.040
-1.470E-06,0.000
-1.460E-06,-0.060
-1.450E-06,-0.040
-1.440E-06,-0.020
-1.430E-06,-0.020
-1.420E-06,0.000
-1.410E-06,-0.020
-1.400E-06,0.020
-1.390E-06,0.020
-1.380E-06,-0.040
-1.370E-06,0.060
-1.360E-06,0.080
-1.350E-06,0.020
-1.340E-06,0.040
-1.330E-06,0.080
-1.320E-06,0.060
-1.310E-06,0.100
-1.300E-06,0.080
-1.290E-06,0.080
-1.280E-06,0.080
-1.270E-06,0.080
-1.260E-06,0.120
-1.250E-06,0.140
-1.240E-06,0.080
-1.230E-06,0.080
-1.220E-06,0.020
-1.210E-06,-0.020
-1.200E-06,0.020
-1.190E-06,0.060
-1.180E-06,0.040
-1.170E-06,0.040
-1.160E-06,-0.020
-1.150E-06,-0.020
-1.140E-06,0.020
-1.130E-06,0.040
-1.120E-06,0.060
-1.110E-06,0.040
-1.100E-06,0.000
-1.090E-06,0.100
-1.080E-06,0.140
-1.070E-06,0.220
-1.060E-06,0.280
-1.050E-06,0.240
-1.040E-06,0.120
-1.030E-06,0.060
-1.020E-06,0.060
-1.010E-06,0.160
-1.000E-06,0.200
-9.900E-07,0.220
-9.800E-07,0.160
-9.700E-07,0.060
-9.600E-07,0.020
-9.500E-07,0.000
-9.400E-07,0.020
-9.300E-07,0.040
-9.200E-07,0.100
-9.100E-07,0.060
-9.000E-07,0.000
-8.900E-07,0.000
-8.800E-07,0.000
-8.700E-07,0.000
-8.600E-07,0.000
-8.500E-07,-0.020
-8.400E-07,-0.020
-8.300E-07,-0.020
-8.200E-07,-0.060
-8.100E-07,-0.040
-8.000E-07,0.000
-7.900E-07,0.000
-7.800E-07,-0.020
-7.700E-07,-0.020
-7.600E-07,0.000
-7.500E-07,0.000
-7.400E-07,0.000
-7.300E-07,-0.020
-7.200E-07,-0.060
-7.100E-07,-0.020
-7.000E-07,0.080
-6.900E-07,0.000
-6.800E-07,0.040
-6.700E-07,-0.020
-6.600E-07,0.040
-6.500E-07,0.180
-6.400E-07,0.400
-6.300E-07,0.500
-6.200E-07,0.500
-6.100E-07,0.400
-6.000E-07,0.240
-5.900E-07,0.160
-5.800E-07,0.160
-5.700E-07,0.220
-5.600E-07,0.340
-5.500E-07,0.360
-5.400E-07,0.300
-5.300E-07,0.200
-5.200E-07,0.080
-5.100E-07,0.040
-5.000E-07,0.020
-4.900E-07,0.020
-4.800E-07,0.020
-4.700E-07,-0.040
-4.600E-07,-0.080
-4.500E-07,-0.080
-4.400E-07,-0.020
-4.300E-07,0.000
-4.200E-07,0.040
-4.100E-07,0.000
-4.000E-07,-0.080
-3.900E-07,-0.140
-3.800E-07,-0.160
-3.700E-07,-0.140
-3.600E-07,-0.100
-3.500E-07,-0.080
-3.400E-07,-0.040
-3.300E-07,0.020
-3.200E-07,-0.020
-3.100E-07,-0.040
-3.000E-07,-0.080
-2.900E-07,-0.060
-2.800E-07,0.020
-2.700E-07,0.080
-2.600E-07,0.080
-2.500E-07,0.080
-2.400E-07,0.020
-2.300E-07,0.060
-2.200E-07,0.080
-2.100E-07,0.120
-2.000E-07,0.160
-1.900E-07,0.160
-1.800E-07,0.160
-1.700E-07,0.200
-1.600E-07,0.220
-1.500E-07,0.220
-1.400E-07,0.200
-1.300E-07,0.200
-1.200E-07,0.220
-1.100E-07,0.320
-1.000E-07,0.340
-9.000E-08,0.380
-8.000E-08,0.300
-7.000E-08,0.140
-6.000E-08,0.220
-5.000E-08,0.520
-4.000E-08,-0.320
-3.000E-08,0.420
-2.000E-08,0.140
-1.000E-08,0.880
0.000E+00,1.380
1.000E-08,1.420
2.000E-08,1.360
3.000E-08,0.800
4.000E-08,0.460
5.000E-08,0.100
6.000E-08,0.340
7.000E-08,0.160
8.000E-08,0.480
9.000E-08,0.500
1.000E-07,0.260
1.100E-07,0.020
1.200E-07,-0.640
1.300E-07,-1.080
1.400E-07,-1.140
1.500E-07,-1.040
1.600E-07,-0.240
1.700E-07,0.480
1.800E-07,0.740
1.900E-07,0.440
2.000E-07,-0.180
2.100E-07,-0.660
2.200E-07,-0.700
2.300E-07,-0.340
2.400E-07,-0.080
2.500E-07,0.160
2.600E-07,0.040
2.700E-07,-0.180
2.800E-07,-0.320
2.900E-07,-0.360
3.000E-07,-0.360
3.100E-07,-0.180
3.200E-07,-0.100
3.300E-07,-0.120
3.400E-07,-0.120
3.500E-07,-0.220
3.600E-07,-0.260
3.700E-07,-0.280
3.800E-07,-0.120
3.900E-07,-0.200
4.000E-07,-0.360
4.100E-07,-0.400
4.200E-07,-0.560
4.300E-07,-0.360
4.400E-07,0.060
4.500E-07,0.320
4.600E-07,0.540
4.700E-07,0.440
4.800E-07,0.160
4.900E-07,0.040
5.000E-07,0.100
5.100E-07,0.160
5.200E-07,0.320
5.300E-07,0.380
5.400E-07,0.420
5.500E-07,0.420
5.600E-07,0.220
5.700E-07,0.120
5.800E-07,0.520
5.900E-07,-0.120
6.000E-07,-0.020
6.100E-07,0.360
6.200E-07,0.320
6.300E-07,1.600
6.400E-07,2.640
6.500E-07,2.780
6.600E-07,2.760
6.700E-07,2.040
6.800E-07,1.060
6.900E-07,0.800
7.000E-07,0.760
7.100E-07,0.780
7.200E-07,0.920
7.300E-07,0.720
7.400E-07,0.180
7.500E-07,-0.060
7.600E-07,-0.460
7.700E-07,-0.900
7.800E-07,-0.980
7.900E-07,-1.260
8.000E-07,-1.360
8.100E-07,-1.340
8.200E-07,-1.560
8.300E-07,-1.720
8.400E-07,-1.720
8.500E-07,-1.820
8.600E-07,-1.620
8.700E-07,-1.240
8.800E-07,-0.900
8.900E-07,-0.640
9.000E-07,-0.400
9.100E-07,-0.380
9.200E-07,-0.480
9.300E-07,-0.380
9.400E-07,-0.420
9.500E-07,-0.360
9.600E-07,-0.220
9.700E-07,-0.620
9.800E-07,-0.760
9.900E-07,-1.180
1.000E-06,-1.220
1.010E-06,-0.560
1.020E-06,-0.240
1.030E-06,0.940
1.040E-06,1.980
1.050E-06,2.760
1.060E-06,2.760
1.070E-06,2.740
1.080E-06,2.760
1.090E-06,2.760
1.100E-06,2.740
1.110E-06,1.880
1.120E-06,1.700
1.130E-06,1.380
1.140E-06,1.140
1.150E-06,0.500
1.160E-06,-0.240
1.170E-06,-0.960
1.180E-06,-1.540
1.190E-06,-1.960
1.200E-06,-2.000
1.210E-06,-1.820
1.220E-06,-1.480
1.230E-06,-1.180
1.240E-06,-1.280
1.250E-06,-1.460
1.260E-06,-1.640
1.270E-06,-1.660
1.280E-06,-1.940
1.290E-06,-1.600
1.300E-06,-1.400
1.310E-06,-1.340
1.320E-06,-1.100
1.330E-06,-0.840
1.340E-06,-0.320
1.350E-06,0.300
1.360E-06,0.940
1.370E-06,1.520
1.380E-06,2.040
1.390E-06,2.340
1.400E-06,2.400
1.410E-06,2.340
1.420E-06,2.200
1.430E-06,1.240
1.440E-06,0.140
1.450E-06,-1.120
1.460E-06,-2.160
1.470E-06,-2.660
1.480E-06,-2.660
1.490E-06,-2.660
1.500E-06,-1.700
1.510E-06,0.700
1.520E-06,2.620
1.530E-06,2.740
1.540E-06,2.760
1.550E-06,2.020
1.560E-06,1.020
1.570E-06,0.940
1.580E-06,0.400
1.590E-06,0.720
1.600E-06,0.860
1.610E-06,1.180
1.620E-06,1.240
1.630E-06,1.820
1.640E-06,2.120
1.650E-06,2.340
1.660E-06,2.760
1.670E-06,2.760
1.680E-06,2.740
1.690E-06,2.760
1.700E-06,2.760
1.710E-06,2.760
1.720E-06,2.260
1.730E-06,1.240
1.740E-06,0.620
1.750E-06,-0.080
1.760E-06,-0.740
1.770E-06,-1.100
1.780E-06,-1.740
1.790E-06,-2.140
1.800E-06,-2.620
1.810E-06,-2.660
1.820E-06,-2.660
1.830E-06,-2.560
1.840E-06,-2.280
1.850E-06,-1.920
1.860E-06,-1.460
1.870E-06,-1.080
1.880E-06,-0.760
1.890E-06,0.120
1.900E-06,-0.220
1.910E-06,-0.060
1.920E-06,-0.420
1.930E-06,-0.960
1.940E-06,-1.080
1.950E-06,-1.100
1.960E-06,-0.620
1.970E-06,-0.080
1.980E-06,0.580
1.990E-06,1.180
2.000E-06,1.860
2.010E-06,2.540
2.020E-06,2.760
2.030E-06,2.780
2.040E-06,2.780
2.050E-06,2.760
2.060E-06,2.780
2.070E-06,2.660
2.080E-06,1.800
2.090E-06,1.240
2.100E-06,1.040
2.110E-06,1.060
2.120E-06,1.080
2.130E-06,0.940
2.140E-06,0.840
2.150E-06,0.720
2.160E-06,0.560
2.170E-06,0.380
2.180E-06,0.040
2.190E-06,-0.340
2.200E-06,-0.720
2.210E-06,-0.940
2.220E-06,-0.780
2.230E-06,-0.240
2.240E-06,0.460
2.250E-06,1.300
2.260E-06,2.000
2.270E-06,2.480
2.280E-06,2.780
2.290E-06,2.760
2.300E-06,2.580
2.310E-06,2.160
2.320E-06,1.600
2.330E-06,1.020
2.340E-06,0.500
2.350E-06,0.220
2.360E-06,0.040
2.370E-06,0.000
2.380E-06,0.040
2.390E-06,0.100
2.400E-06,0.240
2.410E-06,0.420
2.420E-06,0.640
2.430E-06,0.840
2.440E-06,1.040
2.450E-06,1.160
2.460E-06,1.280
2.470E-06,1.340
2.480E-06,1.340
2.490E-06,1.300
2.500E-06,1.180
2.510E-06,1.000
2.520E-06,0.840
2.530E-06,0.600
2.540E-06,0.380
2.550E-06,0.180
2.560E-06,0.000
2.570E-06,-0.100
2.580E-06,-0.160
2.590E-06,-0.200
2.600E-06,-0.220
2.610E-06,-0.200
2.620E-06,-0.160
2.630E-06,-0.140
2.640E-06,-0.060
2.650E-06,-0.040
2.660E-06,-0.120
2.670E-06,-0.120
2.680E-06,-0.240
2.690E-06,-0.420
2.700E-06,-0.700
2.710E-06,-0.980
2.720E-06,-1.320
2.730E-06,-1.620
2.740E-06,-1.900
2.750E-06,-2.140
2.760E-06,-2.240
2.770E-06,-2.280
2.780E-06,-2.260
2.790E-06,-2.200
2.800E-06,-2.060
2.810E-06,-1.980
2.820E-06,-1.840
2.830E-06,-1.740
2.840E-06,-1.580
2.850E-06,-1.440
2.860E-06,-1.280
2.870E-06,-1.140
2.880E-06,-1.040
2.890E-06,-0.940
2.900E-06,-0.920
2.910E-06,-0.840
2.920E-06,-0.780
2.930E-06,-0.700
2.940E-06,-0.620
2.950E-06,-0.480
2.960E-06,-0.340
2.970E-06,-0.220
2.980E-06,-0.060
2.990E-06,0.060
3.000E-06,0.220
3.010E-06,0.360
3.020E-06,0.440
3.030E-06,0.520
3.040E-06,0.600
3.050E-06,0.660
3.060E-06,0.720
3.070E-06,0.860
3.080E-06,1.000
3.090E-06,1.060
3.100E-06,1.160
3.110E-06,1.200
3.120E-06,1.180
3.130E-06,1.200
3.140E-06,1.260
3.150E-06,1.260
3.160E-06,1.260
3.170E-06,1.260
3.180E-06,1.260
3.190E-06,1.280
3.200E-06,1.280
3.210E-06,1.260
3.220E-06,1.320
3.230E-06,1.300
3.240E-06,1.280
3.250E-06,1.260
3.260E-06,1.220
3.270E-06,1.160
3.280E-06,1.080
3.290E-06,1.020
3.300E-06,0.900
3.310E-06,0.820
3.320E-06,0.760
3.330E-06,0.640
3.340E-06,0.540
3.350E-06,0.460
3.360E-06,0.380
3.370E-06,0.320
3.380E-06,0.220
3.390E-06,0.160
3.400E-06,0.160
3.410E-06,0.180
3.420E-06,0.200
3.430E-06,0.240
3.440E-06,0.320
3.450E-06,0.400
3.460E-06,0.480
3.470E-06,0.520
3.480E-06,0.560
3.490E-06,0.560
3.500E-06,0.540
3.510E-06,0.540
3.520E-06,0.540
3.530E-06,0.520
3.540E-06,0.520
3.550E-06,0.520
3.560E-06,0.520
3.570E-06,0.500
3.580E-06,0.540
3.590E-06,0.520
3.600E-06,0.560
3.610E-06,0.580
