mediciones/6-26/40.0/WaveData59281.csv

#timebase=2000000(ps)
,#voltbase=500000(mv/100)
#size=4000
-8.150E-06,0.080
-8.140E-06,0.040
-8.130E-06,0.040
-8.120E-06,0.040
-8.110E-06,0.040
-8.100E-06,0.080
-8.090E-06,0.060
-8.080E-06,0.040
-8.070E-06,0.040
-8.060E-06,0.040
-8.050E-06,0.020
-8.040E-06,0.040
-8.030E-06,0.040
-8.020E-06,0.080
-8.010E-06,0.060
-8.000E-06,0.040
-7.990E-06,0.040
-7.980E-06,0.060
-7.970E-06,0.060
-7.960E-06,0.060
-7.950E-06,0.080
-7.940E-06,0.060
-7.930E-06,0.040
-7.920E-06,0.060
-7.910E-06,0.040
-7.900E-06,0.060
-7.890E-06,0.040
-7.880E-06,0.060
-7.870E-06,0.080
-7.860E-06,0.060
-7.850E-06,0.080
-7.840E-06,0.080
-7.830E-06,0.060
-7.820E-06,0.060
-7.810E-06,0.080
-7.800E-06,0.060
-7.790E-06,0.040
-7.780E-06,0.060
-7.770E-06,0.060
-7.760E-06,0.040
-7.750E-06,0.060
-7.740E-06,0.080
-7.730E-06,0.040
-7.720E-06,0.040
-7.710E-06,0.040
-7.700E-06,0.060
-7.690E-06,0.080
-7.680E-06,0.080
-7.670E-06,0.040
-7.660E-06,0.060
-7.650E-06,0.060
-7.640E-06,0.040
-7.630E-06,0.040
-7.620E-06,0.060
-7.610E-06,0.060
-7.600E-06,0.080
-7.590E-06,0.040
-7.580E-06,0.040
-7.570E-06,0.040
-7.560E-06,0.060
-7.550E-06,0.080
-7.540E-06,0.040
-7.530E-06,0.080
-7.520E-06,0.080
-7.510E-06,0.060
-7.500E-06,0.080
-7.490E-06,0.080
-7.480E-06,0.020
-7.470E-06,0.020
-7.460E-06,0.040
-7.450E-06,0.060
-7.440E-06,0.080
-7.430E-06,0.080
-7.420E-06,0.060
-7.410E-06,0.080
-7.400E-06,0.060
-7.390E-06,0.040
-7.380E-06,0.060
-7.370E-06,0.080
-7.360E-06,0.060
-7.350E-06,0.040
-7.340E-06,0.040
-7.330E-06,0.040
-7.320E-06,0.020
-7.310E-06,0.060
-7.300E-06,0.060
-7.290E-06,0.060
-7.280E-06,0.080
-7.270E-06,0.040
-7.260E-06,0.060
-7.250E-06,0.080
-7.240E-06,0.060
-7.230E-06,0.040
-7.220E-06,0.020
-7.210E-06,0.060
-7.200E-06,0.040
-7.190E-06,0.060
-7.180E-06,0.040
-7.170E-06,0.080
-7.160E-06,0.060
-7.150E-06,0.060
-7.140E-06,0.080
-7.130E-06,0.060
-7.120E-06,0.080
-7.110E-06,0.060
-7.100E-06,0.040
-7.090E-06,0.100
-7.080E-06,0.060
-7.070E-06,0.040
-7.060E-06,0.060
-7.050E-06,0.040
-7.040E-06,0.060
-7.030E-06,0.060
-7.020E-06,0.080
-7.010E-06,0.060
-7.000E-06,0.020
-6.990E-06,0.040
-6.980E-06,0.060
-6.970E-06,0.060
-6.960E-06,0.080
-6.950E-06,0.040
-6.940E-06,0.020
-6.930E-06,0.040
-6.920E-06,0.080
-6.910E-06,0.020
-6.900E-06,0.040
-6.890E-06,0.060
-6.880E-06,0.060
-6.870E-06,0.060
-6.860E-06,0.060
-6.850E-06,0.080
-6.840E-06,0.060
-6.830E-06,0.040
-6.820E-06,0.040
-6.810E-06,0.080
-6.800E-06,0.080
-6.790E-06,0.040
-6.780E-06,0.040
-6.770E-06,0.060
-6.760E-06,0.040
-6.750E-06,0.020
-6.740E-06,0.040
-6.730E-06,0.080
-6.720E-06,0.040
-6.710E-06,0.060
-6.700E-06,0.060
-6.690E-06,0.060
-6.680E-06,0.060
-6.670E-06,0.040
-6.660E-06,0.080
-6.650E-06,0.060
-6.640E-06,0.040
-6.630E-06,0.060
-6.620E-06,0.060
-6.610E-06,0.040
-6.600E-06,0.020
-6.590E-06,0.060
-6.580E-06,0.080
-6.570E-06,0.060
-6.560E-06,0.040
-6.550E-06,0.040
-6.540E-06,0.100
-6.530E-06,0.040
-6.520E-06,0.060
-6.510E-06,0.080
-6.500E-06,0.020
-6.490E-06,0.040
-6.480E-06,0.060
-6.470E-06,0.040
-6.460E-06,0.060
-6.450E-06,0.080
-6.440E-06,0.080
-6.430E-06,0.060
-6.420E-06,0.080
-6.410E-06,0.080
-6.400E-06,0.040
-6.390E-06,0.080
-6.380E-06,0.060
-6.370E-06,0.040
-6.360E-06,0.060
-6.350E-06,0.060
-6.340E-06,0.060
-6.330E-06,0.040
-6.320E-06,0.080
-6.310E-06,0.060
-6.300E-06,0.020
-6.290E-06,0.060
-6.280E-06,0.080
-6.270E-06,0.100
-6.260E-06,0.040
-6.250E-06,0.040
-6.240E-06,0.040
-6.230E-06,0.060
-6.220E-06,0.080
-6.210E-06,0.060
-6.200E-06,0.040
-6.190E-06,0.060
-6.180E-06,0.060
-6.170E-06,0.040
-6.160E-06,0.080
-6.150E-06,0.040
-6.140E-06,0.040
-6.130E-06,0.060
-6.120E-06,0.060
-6.110E-06,0.060
-6.100E-06,0.080
-6.090E-06,0.040
-6.080E-06,0.060
-6.070E-06,0.080
-6.060E-06,0.040
-6.050E-06,0.040
-6.040E-06,0.060
-6.030E-06,0.040
-6.020E-06,0.040
-6.010E-06,0.060
-6.000E-06,0.040
-5.990E-06,0.060
-5.980E-06,0.060
-5.970E-06,0.040
-5.960E-06,0.080
-5.950E-06,0.100
-5.940E-06,0.060
-5.930E-06,0.040
-5.920E-06,0.100
-5.910E-06,0.060
-5.900E-06,0.040
-5.890E-06,0.060
-5.880E-06,0.040
-5.870E-06,0.060
-5.860E-06,0.080
-5.850E-06,0.040
-5.840E-06,0.060
-5.830E-06,0.060
-5.820E-06,0.080
-5.810E-06,0.060
-5.800E-06,0.060
-5.790E-06,0.040
-5.780E-06,0.040
-5.770E-06,0.040
-5.760E-06,0.040
-5.750E-06,0.060
-5.740E-06,0.020
-5.730E-06,0.060
-5.720E-06,0.060
-5.710E-06,0.060
-5.700E-06,0.060
-5.690E-06,0.060
-5.680E-06,0.060
-5.670E-06,0.080
-5.660E-06,0.060
-5.650E-06,0.040
-5.640E-06,0.060
-5.630E-06,0.060
-5.620E-06,0.040
-5.610E-06,0.060
-5.600E-06,0.060
-5.590E-06,0.040
-5.580E-06,0.080
-5.570E-06,0.060
-5.560E-06,0.040
-5.550E-06,0.040
-5.540E-06,0.060
-5.530E-06,0.060
-5.520E-06,0.060
-5.510E-06,0.040
-5.500E-06,0.020
-5.490E-06,0.060
-5.480E-06,0.060
-5.470E-06,0.020
-5.460E-06,0.060
-5.450E-06,0.080
-5.440E-06,0.060
-5.430E-06,0.080
-5.420E-06,0.060
-5.410E-06,0.060
-5.400E-06,0.040
-5.390E-06,0.040
-5.380E-06,0.060
-5.370E-06,0.020
-5.360E-06,0.060
-5.350E-06,0.040
-5.340E-06,0.040
-5.330E-06,0.060
-5.320E-06,0.040
-5.310E-06,0.060
-5.300E-06,0.080
-5.290E-06,0.080
-5.280E-06,0.040
-5.270E-06,0.060
-5.260E-06,0.080
-5.250E-06,0.060
-5.240E-06,0.080
-5.230E-06,0.040
-5.220E-06,0.040
-5.210E-06,0.060
-5.200E-06,0.060
-5.190E-06,0.040
-5.180E-06,0.040
-5.170E-06,0.060
-5.160E-06,0.080
-5.150E-06,0.060
-5.140E-06,0.060
-5.130E-06,0.080
-5.120E-06,0.040
-5.110E-06,0.040
-5.100E-06,0.060
-5.090E-06,0.080
-5.080E-06,0.080
-5.070E-06,0.020
-5.060E-06,0.040
-5.050E-06,0.060
-5.040E-06,0.040
-5.030E-06,0.060
-5.020E-06,0.060
-5.010E-06,0.060
-5.000E-06,0.080
-4.990E-06,0.080
-4.980E-06,0.060
-4.970E-06,0.060
-4.960E-06,0.080
-4.950E-06,0.060
-4.940E-06,0.100
-4.930E-06,0.040
-4.920E-06,0.060
-4.910E-06,0.040
-4.900E-06,0.060
-4.890E-06,0.040
-4.880E-06,0.060
-4.870E-06,0.080
-4.860E-06,0.080
-4.850E-06,0.040
-4.840E-06,0.060
-4.830E-06,0.080
-4.820E-06,0.060
-4.810E-06,0.040
-4.800E-06,0.040
-4.790E-06,0.040
-4.780E-06,0.060
-4.770E-06,0.060
-4.760E-06,0.060
-4.750E-06,0.060
-4.740E-06,0.040
-4.730E-06,0.080
-4.720E-06,0.040
-4.710E-06,0.080
-4.700E-06,0.080
-4.690E-06,0.060
-4.680E-06,0.080
-4.670E-06,0.040
-4.660E-06,0.020
-4.650E-06,0.060
-4.640E-06,0.080
-4.630E-06,0.080
-4.620E-06,0.060
-4.610E-06,0.040
-4.600E-06,0.080
-4.590E-06,0.060
-4.580E-06,0.060
-4.570E-06,0.040
-4.560E-06,0.080
-4.550E-06,0.040
-4.540E-06,0.040
-4.530E-06,0.060
-4.520E-06,0.040
-4.510E-06,0.020
-4.500E-06,0.040
-4.490E-06,0.080
-4.480E-06,0.080
-4.470E-06,0.040
-4.460E-06,0.060
-4.450E-06,0.080
-4.440E-06,0.060
-4.430E-06,0.080
-4.420E-06,0.080
-4.410E-06,0.080
-4.400E-06,0.040
-4.390E-06,0.120
-4.380E-06,0.120
-4.370E-06,0.060
-4.360E-06,0.020
-4.350E-06,0.000
-4.340E-06,0.000
-4.330E-06,0.080
-4.320E-06,0.160
-4.310E-06,0.180
-4.300E-06,0.100
-4.290E-06,0.020
-4.280E-06,0.020
-4.270E-06,0.060
-4.260E-06,0.080
-4.250E-06,0.120
-4.240E-06,0.160
-4.230E-06,0.120
-4.220E-06,0.040
-4.210E-06,0.000
-4.200E-06,0.040
-4.190E-06,0.080
-4.180E-06,0.100
-4.170E-06,0.040
-4.160E-06,0.100
-4.150E-06,0.080
-4.140E-06,0.100
-4.130E-06,0.080
-4.120E-06,0.080
-4.110E-06,0.080
-4.100E-06,0.080
-4.090E-06,0.080
-4.080E-06,0.040
-4.070E-06,0.080
-4.060E-06,0.060
-4.050E-06,0.040
-4.040E-06,0.020
-4.030E-06,0.040
-4.020E-06,0.080
-4.010E-06,0.080
-4.000E-06,0.080
-3.990E-06,0.080
-3.980E-06,0.040
-3.970E-06,0.000
-3.960E-06,0.020
-3.950E-06,0.020
-3.940E-06,0.040
-3.930E-06,0.100
-3.920E-06,0.080
-3.910E-06,0.040
-3.900E-06,0.020
-3.890E-06,0.040
-3.880E-06,0.040
-3.870E-06,0.040
-3.860E-06,0.100
-3.850E-06,0.080
-3.840E-06,0.100
-3.830E-06,0.060
-3.820E-06,0.060
-3.810E-06,0.060
-3.800E-06,0.060
-3.790E-06,0.060
-3.780E-06,0.100
-3.770E-06,0.080
-3.760E-06,0.060
-3.750E-06,0.040
-3.740E-06,0.040
-3.730E-06,0.040
-3.720E-06,0.040
-3.710E-06,0.060
-3.700E-06,0.080
-3.690E-06,0.040
-3.680E-06,0.060
-3.670E-06,0.080
-3.660E-06,0.060
-3.650E-06,0.060
-3.640E-06,0.080
-3.630E-06,0.060
-3.620E-06,0.060
-3.610E-06,0.040
-3.600E-06,0.060
-3.590E-06,0.080
-3.580E-06,0.060
-3.570E-06,0.020
-3.560E-06,0.060
-3.550E-06,0.100
-3.540E-06,0.060
-3.530E-06,0.080
-3.520E-06,0.040
-3.510E-06,0.040
-3.500E-06,0.040
-3.490E-06,0.060
-3.480E-06,0.040
-3.470E-06,0.080
-3.460E-06,0.060
-3.450E-06,0.040
-3.440E-06,0.060
-3.430E-06,0.060
-3.420E-06,0.080
-3.410E-06,0.060
-3.400E-06,0.040
-3.390E-06,0.060
-3.380E-06,0.040
-3.370E-06,0.040
-3.360E-06,0.040
-3.350E-06,0.080
-3.340E-06,0.040
-3.330E-06,0.080
-3.320E-06,0.100
-3.310E-06,0.060
-3.300E-06,0.080
-3.290E-06,0.060
-3.280E-06,0.060
-3.270E-06,0.080
-3.260E-06,0.100
-3.250E-06,0.040
-3.240E-06,0.060
-3.230E-06,0.060
-3.220E-06,0.040
-3.210E-06,0.060
-3.200E-06,0.060
-3.190E-06,0.060
-3.180E-06,0.080
-3.170E-06,0.060
-3.160E-06,0.080
-3.150E-06,0.020
-3.140E-06,0.020
-3.130E-06,0.060
-3.120E-06,0.080
-3.110E-06,0.040
-3.100E-06,0.080
-3.090E-06,0.100
-3.080E-06,0.060
-3.070E-06,0.020
-3.060E-06,0.080
-3.050E-06,0.060
-3.040E-06,0.060
-3.030E-06,0.080
-3.020E-06,0.060
-3.010E-06,0.080
-3.000E-06,0.080
-2.990E-06,0.020
-2.980E-06,0.040
-2.970E-06,0.060
-2.960E-06,0.080
-2.950E-06,0.060
-2.940E-06,0.020
-2.930E-06,0.080
-2.920E-06,0.040
-2.910E-06,0.040
-2.900E-06,0.080
-2.890E-06,0.060
-2.880E-06,0.040
-2.870E-06,0.060
-2.860E-06,0.080
-2.850E-06,0.080
-2.840E-06,0.080
-2.830E-06,0.060
-2.820E-06,0.080
-2.810E-06,0.020
-2.800E-06,0.040
-2.790E-06,0.060
-2.780E-06,0.060
-2.770E-06,0.060
-2.760E-06,0.060
-2.750E-06,0.080
-2.740E-06,0.060
-2.730E-06,0.060
-2.720E-06,0.060
-2.710E-06,0.060
-2.700E-06,0.080
-2.690E-06,0.040
-2.680E-06,0.040
-2.670E-06,0.080
-2.660E-06,0.060
-2.650E-06,0.060
-2.640E-06,0.100
-2.630E-06,0.100
-2.620E-06,0.040
-2.610E-06,0.060
-2.600E-06,0.040
-2.590E-06,0.080
-2.580E-06,0.100
-2.570E-06,0.080
-2.560E-06,0.060
-2.550E-06,0.080
-2.540E-06,0.040
-2.530E-06,0.080
-2.520E-06,0.040
-2.510E-06,0.080
-2.500E-06,0.060
-2.490E-06,0.080
-2.480E-06,0.020
-2.470E-06,0.040
-2.460E-06,0.040
-2.450E-06,0.040
-2.440E-06,0.060
-2.430E-06,0.080
-2.420E-06,0.100
-2.410E-06,0.040
-2.400E-06,0.040
-2.390E-06,0.060
-2.380E-06,0.060
-2.370E-06,0.080
-2.360E-06,0.100
-2.350E-06,0.060
-2.340E-06,0.080
-2.330E-06,0.040
-2.320E-06,0.020
-2.310E-06,0.020
-2.300E-06,0.040
-2.290E-06,0.080
-2.280E-06,0.080
-2.270E-06,0.040
-2.260E-06,0.040
-2.250E-06,0.040
-2.240E-06,0.060
-2.230E-06,0.040
-2.220E-06,0.020
-2.210E-06,0.100
-2.200E-06,0.080
-2.190E-06,0.060
-2.180E-06,0.040
-2.170E-06,0.040
-2.160E-06,0.060
-2.150E-06,0.060
-2.140E-06,0.060
-2.130E-06,0.060
-2.120E-06,0.080
-2.110E-06,0.080
-2.100E-06,0.060
-2.090E-06,0.040
-2.080E-06,0.060
-2.070E-06,0.060
-2.060E-06,0.040
-2.050E-06,0.080
-2.040E-06,0.060
-2.030E-06,0.080
-2.020E-06,0.060
-2.010E-06,0.060
-2.000E-06,0.080
-1.990E-06,0.040
-1.980E-06,0.040
-1.970E-06,0.060
-1.960E-06,0.080
-1.950E-06,0.080
-1.940E-06,0.100
-1.930E-06,0.060
-1.920E-06,0.040
-1.910E-06,0.020
-1.900E-06,0.060
-1.890E-06,0.080
-1.880E-06,0.060
-1.870E-06,0.060
-1.860E-06,0.080
-1.850E-06,0.040
-1.840E-06,0.000
-1.830E-06,0.060
-1.820E-06,0.080
-1.810E-06,0.080
-1.800E-06,0.080
-1.790E-06,0.060
-1.780E-06,0.080
-1.770E-06,0.060
-1.760E-06,0.040
-1.750E-06,0.040
-1.740E-06,0.060
-1.730E-06,0.080
-1.720E-06,0.040
-1.710E-06,0.060
-1.700E-06,0.060
-1.690E-06,0.080
-1.680E-06,0.060
-1.670E-06,0.040
-1.660E-06,0.040
-1.650E-06,0.060
-1.640E-06,0.080
-1.630E-06,0.080
-1.620E-06,0.080
-1.610E-06,0.060
-1.600E-06,0.040
-1.590E-06,0.060
-1.580E-06,0.060
-1.570E-06,0.040
-1.560E-06,0.080
-1.550E-06,0.060
-1.540E-06,0.080
-1.530E-06,0.040
-1.520E-06,0.040
-1.510E-06,0.060
-1.500E-06,0.040
-1.490E-06,0.040
-1.480E-06,0.060
-1.470E-06,0.080
-1.460E-06,0.060
-1.450E-06,0.040
-1.440E-06,0.040
-1.430E-06,0.100
-1.420E-06,0.060
-1.410E-06,0.080
-1.400E-06,0.100
-1.390E-06,0.080
-1.380E-06,0.080
-1.370E-06,0.080
-1.360E-06,0.040
-1.350E-06,0.080
-1.340E-06,0.080
-1.330E-06,0.060
-1.320E-06,0.080
-1.310E-06,0.060
-1.300E-06,0.060
-1.290E-06,0.100
-1.280E-06,0.100
-1.270E-06,0.080
-1.260E-06,0.100
-1.250E-06,0.100
-1.240E-06,0.080
-1.230E-06,0.120
-1.220E-06,0.100
-1.210E-06,0.060
-1.200E-06,0.080
-1.190E-06,0.100
-1.180E-06,0.080
-1.170E-06,0.120
-1.160E-06,0.100
-1.150E-06,0.080
-1.140E-06,0.080
-1.130E-06,0.060
-1.120E-06,0.040
-1.110E-06,0.080
-1.100E-06,0.160
-1.090E-06,0.160
-1.080E-06,0.120
-1.070E-06,0.200
-1.060E-06,0.260
-1.050E-06,-0.080
-1.040E-06,-0.200
-1.030E-06,0.240
-1.020E-06,0.420
-1.010E-06,0.460
-1.000E-06,0.640
-9.900E-07,0.260
-9.800E-07,-0.140
-9.700E-07,-0.240
-9.600E-07,0.080
-9.500E-07,0.480
-9.400E-07,0.600
-9.300E-07,0.500
-9.200E-07,0.260
-9.100E-07,0.080
-9.000E-07,-0.100
-8.900E-07,0.040
-8.800E-07,0.320
-8.700E-07,0.440
-8.600E-07,0.320
-8.500E-07,0.200
-8.400E-07,0.060
-8.300E-07,-0.080
-8.200E-07,0.000
-8.100E-07,0.040
-8.000E-07,0.180
-7.900E-07,0.180
-7.800E-07,0.100
-7.700E-07,0.020
-7.600E-07,-0.040
-7.500E-07,-0.080
-7.400E-07,-0.040
-7.300E-07,0.040
-7.200E-07,0.080
-7.100E-07,0.060
-7.000E-07,0.000
-6.900E-07,0.000
-6.800E-07,-0.040
-6.700E-07,-0.080
-6.600E-07,-0.020
-6.500E-07,0.040
-6.400E-07,0.040
-6.300E-07,0.060
-6.200E-07,0.040
-6.100E-07,0.020
-6.000E-07,0.000
-5.900E-07,-0.020
-5.800E-07,0.020
-5.700E-07,0.020
-5.600E-07,0.080
-5.500E-07,0.140
-5.400E-07,0.140
-5.300E-07,0.120
-5.200E-07,0.080
-5.100E-07,0.060
-5.000E-07,0.100
-4.900E-07,0.140
-4.800E-07,0.180
-4.700E-07,0.180
-4.600E-07,0.180
-4.500E-07,0.160
-4.400E-07,0.120
-4.300E-07,0.120
-4.200E-07,0.100
-4.100E-07,0.120
-4.000E-07,0.160
-3.900E-07,0.180
-3.800E-07,0.160
-3.700E-07,0.160
-3.600E-07,0.180
-3.500E-07,0.100
-3.400E-07,0.080
-3.300E-07,0.060
-3.200E-07,0.120
-3.100E-07,0.220
-3.000E-07,-0.020
-2.900E-07,0.080
-2.800E-07,0.200
-2.700E-07,-0.340
-2.600E-07,0.040
-2.500E-07,-0.020
-2.400E-07,-0.020
-2.300E-07,0.200
-2.200E-07,0.220
-2.100E-07,0.220
-2.000E-07,0.240
-1.900E-07,-0.080
-1.800E-07,0.060
-1.700E-07,0.160
-1.600E-07,0.160
-1.500E-07,0.200
-1.400E-07,0.260
-1.300E-07,0.060
-1.200E-07,0.080
-1.100E-07,0.000
-1.000E-07,0.040
-9.000E-08,0.300
-8.000E-08,0.380
-7.000E-08,0.240
-6.000E-08,0.140
-5.000E-08,0.420
-4.000E-08,0.200
-3.000E-08,-0.120
-2.000E-08,0.300
-1.000E-08,-0.220
0.000E+00,-0.360
1.000E-08,0.380
2.000E-08,0.140
3.000E-08,0.640
4.000E-08,0.860
5.000E-08,0.440
6.000E-08,0.460
7.000E-08,0.240
8.000E-08,0.080
9.000E-08,0.440
1.000E-07,0.480
1.100E-07,0.420
1.200E-07,0.340
1.300E-07,0.020
1.400E-07,-0.160
1.500E-07,-0.220
1.600E-07,-0.180
1.700E-07,-0.060
1.800E-07,0.000
1.900E-07,-0.060
2.000E-07,-0.160
2.100E-07,-0.260
2.200E-07,-0.320
2.300E-07,-0.340
2.400E-07,-0.240
2.500E-07,-0.160
2.600E-07,-0.180
2.700E-07,-0.200
2.800E-07,-0.260
2.900E-07,-0.320
3.000E-07,-0.320
3.100E-07,-0.300
3.200E-07,-0.260
3.300E-07,-0.180
3.400E-07,-0.240
3.500E-07,-0.180
3.600E-07,-0.100
3.700E-07,-0.120
3.800E-07,-1.020
3.900E-07,-0.580
4.000E-07,-0.620
4.100E-07,-0.120
4.200E-07,1.400
4.300E-07,1.560
4.400E-07,1.320
4.500E-07,0.940
4.600E-07,0.040
4.700E-07,0.160
4.800E-07,0.380
4.900E-07,0.620
5.000E-07,1.220
5.100E-07,1.060
5.200E-07,0.520
5.300E-07,-0.040
5.400E-07,-0.360
5.500E-07,-0.360
5.600E-07,-0.220
5.700E-07,-0.520
5.800E-07,-0.060
5.900E-07,-0.600
6.000E-07,-0.380
6.100E-07,-0.080
6.200E-07,0.060
6.300E-07,0.500
6.400E-07,0.860
6.500E-07,0.720
6.600E-07,0.840
6.700E-07,0.160
6.800E-07,-0.340
6.900E-07,-0.280
7.000E-07,-0.240
7.100E-07,-0.120
7.200E-07,0.280
7.300E-07,0.380
7.400E-07,0.420
7.500E-07,0.200
7.600E-07,0.040
7.700E-07,-0.020
7.800E-07,-0.040
7.900E-07,-0.040
8.000E-07,0.060
8.100E-07,0.120
8.200E-07,0.100
8.300E-07,0.000
8.400E-07,-0.040
8.500E-07,-0.120
8.600E-07,-0.180
8.700E-07,-0.180
8.800E-07,-0.160
8.900E-07,-0.160
9.000E-07,-0.180
9.100E-07,-0.160
9.200E-07,-0.240
9.300E-07,-0.340
9.400E-07,-0.420
9.500E-07,-0.460
9.600E-07,-0.320
9.700E-07,-0.260
9.800E-07,-0.240
9.900E-07,-0.320
1.000E-06,-0.280
1.010E-06,-0.280
1.020E-06,0.100
1.030E-06,0.260
1.040E-06,0.320
1.050E-06,-0.060
1.060E-06,-0.360
1.070E-06,-0.340
1.080E-06,-0.340
1.090E-06,0.300
1.100E-06,0.840
1.110E-06,1.180
1.120E-06,1.220
1.130E-06,0.940
1.140E-06,0.520
1.150E-06,0.260
1.160E-06,0.200
1.170E-06,0.420
1.180E-06,0.720
1.190E-06,0.800
1.200E-06,0.780
1.210E-06,0.500
1.220E-06,0.100
1.230E-06,-0.140
1.240E-06,-0.180
1.250E-06,0.060
1.260E-06,0.300
1.270E-06,0.300
1.280E-06,-0.020
1.290E-06,-0.380
1.300E-06,-0.840
1.310E-06,-0.940
1.320E-06,-0.620
1.330E-06,-0.260
1.340E-06,0.140
1.350E-06,0.760
1.360E-06,0.720
1.370E-06,0.580
1.380E-06,0.100
1.390E-06,-0.500
1.400E-06,-0.740
1.410E-06,-0.900
1.420E-06,-0.600
1.430E-06,-0.400
1.440E-06,-0.160
1.450E-06,0.160
1.460E-06,0.480
1.470E-06,0.640
1.480E-06,0.460
1.490E-06,0.120
1.500E-06,-0.300
1.510E-06,-0.480
1.520E-06,-0.240
1.530E-06,0.200
1.540E-06,0.740
1.550E-06,0.900
1.560E-06,0.740
1.570E-06,0.460
1.580E-06,0.260
1.590E-06,0.180
1.600E-06,0.300
1.610E-06,0.480
1.620E-06,0.540
1.630E-06,0.500
1.640E-06,0.280
1.650E-06,0.020
1.660E-06,-0.160
1.670E-06,-0.280
1.680E-06,-0.300
1.690E-06,-0.300
1.700E-06,-0.200
1.710E-06,-0.300
1.720E-06,-0.380
1.730E-06,-0.660
1.740E-06,-0.860
1.750E-06,-0.860
1.760E-06,-0.700
1.770E-06,-0.580
1.780E-06,-0.580
1.790E-06,-0.400
1.800E-06,-0.440
1.810E-06,-0.520
1.820E-06,-0.580
1.830E-06,-0.580
1.840E-06,-0.260
1.850E-06,0.300
1.860E-06,0.860
1.870E-06,1.220
1.880E-06,1.540
1.890E-06,1.380
1.900E-06,1.080
1.910E-06,0.800
1.920E-06,0.720
1.930E-06,0.760
1.940E-06,0.840
1.950E-06,1.000
1.960E-06,0.960
1.970E-06,0.860
1.980E-06,0.500
1.990E-06,0.360
2.000E-06,0.100
2.010E-06,0.000
2.020E-06,-0.120
2.030E-06,-0.560
2.040E-06,-1.020
2.050E-06,-1.340
2.060E-06,-1.580
2.070E-06,-1.820
2.080E-06,-1.560
2.090E-06,-1.200
2.100E-06,-0.840
2.110E-06,0.320
2.120E-06,0.920
2.130E-06,1.860
2.140E-06,1.840
2.150E-06,1.760
2.160E-06,1.340
2.170E-06,0.780
2.180E-06,0.640
2.190E-06,0.660
2.200E-06,0.660
2.210E-06,0.760
2.220E-06,0.580
2.230E-06,0.300
2.240E-06,-0.020
2.250E-06,-0.340
2.260E-06,-0.320
2.270E-06,-0.260
2.280E-06,-0.160
2.290E-06,-0.060
2.300E-06,-0.140
2.310E-06,-0.180
2.320E-06,-0.260
2.330E-06,-0.340
2.340E-06,-0.320
2.350E-06,-0.260
2.360E-06,-0.220
2.370E-06,-0.260
2.380E-06,-0.300
2.390E-06,-0.400
2.400E-06,-0.460
2.410E-06,-0.500
2.420E-06,-0.500
2.430E-06,-0.480
2.440E-06,-0.500
2.450E-06,-0.560
2.460E-06,-0.620
2.470E-06,-0.680
2.480E-06,-0.680
2.490E-06,-0.720
2.500E-06,-0.680
2.510E-06,-0.720
2.520E-06,-0.660
2.530E-06,-0.680
2.540E-06,-0.680
2.550E-06,-0.640
2.560E-06,-0.680
2.570E-06,-0.700
2.580E-06,-0.520
2.590E-06,-0.400
2.600E-06,-0.820
2.610E-06,-0.340
2.620E-06,0.040
2.630E-06,0.600
2.640E-06,1.540
2.650E-06,1.780
2.660E-06,1.880
2.670E-06,1.380
2.680E-06,-0.500
2.690E-06,-0.820
2.700E-06,1.200
2.710E-06,0.820
2.720E-06,2.760
2.730E-06,2.760
2.740E-06,2.740
2.750E-06,2.760
2.760E-06,2.780
2.770E-06,1.800
2.780E-06,1.960
2.790E-06,0.820
2.800E-06,1.120
2.810E-06,1.420
2.820E-06,1.020
2.830E-06,0.240
2.840E-06,-0.300
2.850E-06,-0.840
2.860E-06,-0.980
2.870E-06,-1.000
2.880E-06,-0.980
2.890E-06,-1.020
2.900E-06,-1.000
2.910E-06,-1.180
2.920E-06,-1.320
2.930E-06,-1.320
2.940E-06,-1.300
2.950E-06,-1.160
2.960E-06,-1.020
2.970E-06,-1.120
2.980E-06,-1.400
2.990E-06,-1.540
3.000E-06,-1.600
3.010E-06,-1.680
3.020E-06,-1.700
3.030E-06,-1.440
3.040E-06,-1.240
3.050E-06,-1.040
3.060E-06,-0.800
3.070E-06,-0.780
3.080E-06,-0.640
3.090E-06,-1.200
3.100E-06,-1.320
3.110E-06,-0.980
3.120E-06,-1.520
3.130E-06,-0.440
3.140E-06,0.800
3.150E-06,1.540
3.160E-06,2.780
3.170E-06,2.760
3.180E-06,2.500
3.190E-06,1.980
3.200E-06,1.100
3.210E-06,0.980
3.220E-06,1.460
3.230E-06,1.520
3.240E-06,1.860
3.250E-06,1.680
3.260E-06,1.360
3.270E-06,0.540
3.280E-06,0.000
3.290E-06,-0.180
3.300E-06,-0.160
3.310E-06,0.080
3.320E-06,0.140
3.330E-06,0.160
3.340E-06,-0.420
3.350E-06,-1.540
3.360E-06,-2.120
3.370E-06,-2.100
3.380E-06,-2.160
3.390E-06,-1.380
3.400E-06,-0.840
3.410E-06,-0.380
3.420E-06,0.420
3.430E-06,1.100
3.440E-06,1.440
3.450E-06,1.660
3.460E-06,1.100
3.470E-06,0.380
3.480E-06,-0.360
3.490E-06,-0.980
3.500E-06,-1.520
3.510E-06,-1.660
3.520E-06,-1.960
3.530E-06,-1.880
3.540E-06,-1.520
3.550E-06,-1.080
3.560E-06,-0.500
3.570E-06,-0.080
3.580E-06,0.280
3.590E-06,0.120
3.600E-06,0.480
3.610E-06,0.620
3.620E-06,1.040
3.630E-06,1.860
3.640E-06,2.560
3.650E-06,2.780
