mediciones/6-26/40.0/WaveData59010.csv

#timebase=2000000(ps)
,#voltbase=200000(mv/100)
#size=4000
-8.150E-06,-0.008
-8.140E-06,0.008
-8.130E-06,-0.008
-8.120E-06,0.000
-8.110E-06,0.008
-8.100E-06,0.000
-8.090E-06,-0.008
-8.080E-06,0.000
-8.070E-06,0.008
-8.060E-06,0.008
-8.050E-06,-0.008
-8.040E-06,-0.008
-8.030E-06,0.008
-8.020E-06,0.016
-8.010E-06,0.016
-8.000E-06,-0.008
-7.990E-06,0.008
-7.980E-06,0.008
-7.970E-06,0.000
-7.960E-06,0.000
-7.950E-06,-0.008
-7.940E-06,0.008
-7.930E-06,0.016
-7.920E-06,0.016
-7.910E-06,0.016
-7.900E-06,-0.008
-7.890E-06,-0.008
-7.880E-06,0.008
-7.870E-06,0.008
-7.860E-06,0.000
-7.850E-06,0.008
-7.840E-06,0.008
-7.830E-06,0.008
-7.820E-06,0.000
-7.810E-06,0.000
-7.800E-06,0.000
-7.790E-06,0.000
-7.780E-06,0.024
-7.770E-06,0.016
-7.760E-06,0.016
-7.750E-06,-0.008
-7.740E-06,0.000
-7.730E-06,0.000
-7.720E-06,0.000
-7.710E-06,0.000
-7.700E-06,0.008
-7.690E-06,0.008
-7.680E-06,0.008
-7.670E-06,0.008
-7.660E-06,0.000
-7.650E-06,0.000
-7.640E-06,0.016
-7.630E-06,0.008
-7.620E-06,-0.008
-7.610E-06,-0.008
-7.600E-06,0.008
-7.590E-06,0.008
-7.580E-06,0.000
-7.570E-06,0.000
-7.560E-06,0.008
-7.550E-06,0.000
-7.540E-06,0.008
-7.530E-06,0.008
-7.520E-06,0.008
-7.510E-06,0.016
-7.500E-06,0.016
-7.490E-06,-0.008
-7.480E-06,0.000
-7.470E-06,0.000
-7.460E-06,0.016
-7.450E-06,0.008
-7.440E-06,0.008
-7.430E-06,0.000
-7.420E-06,0.000
-7.410E-06,0.000
-7.400E-06,0.000
-7.390E-06,0.000
-7.380E-06,0.008
-7.370E-06,0.016
-7.360E-06,0.008
-7.350E-06,0.000
-7.340E-06,0.000
-7.330E-06,0.008
-7.320E-06,-0.008
-7.310E-06,0.000
-7.300E-06,0.008
-7.290E-06,0.000
-7.280E-06,0.008
-7.270E-06,0.000
-7.260E-06,0.000
-7.250E-06,0.008
-7.240E-06,0.000
-7.230E-06,0.000
-7.220E-06,0.008
-7.210E-06,0.008
-7.200E-06,0.000
-7.190E-06,0.008
-7.180E-06,0.000
-7.170E-06,0.000
-7.160E-06,0.000
-7.150E-06,0.000
-7.140E-06,0.000
-7.130E-06,0.008
-7.120E-06,0.000
-7.110E-06,0.000
-7.100E-06,0.000
-7.090E-06,0.000
-7.080E-06,0.000
-7.070E-06,0.000
-7.060E-06,-0.008
-7.050E-06,0.008
-7.040E-06,0.008
-7.030E-06,-0.008
-7.020E-06,0.008
-7.010E-06,0.008
-7.000E-06,0.008
-6.990E-06,0.000
-6.980E-06,0.000
-6.970E-06,0.000
-6.960E-06,0.008
-6.950E-06,0.000
-6.940E-06,0.000
-6.930E-06,0.008
-6.920E-06,0.000
-6.910E-06,0.000
-6.900E-06,-0.008
-6.890E-06,0.000
-6.880E-06,0.000
-6.870E-06,0.008
-6.860E-06,0.008
-6.850E-06,0.008
-6.840E-06,0.008
-6.830E-06,0.008
-6.820E-06,0.000
-6.810E-06,0.000
-6.800E-06,0.000
-6.790E-06,0.008
-6.780E-06,0.008
-6.770E-06,0.008
-6.760E-06,0.000
-6.750E-06,-0.008
-6.740E-06,-0.008
-6.730E-06,0.008
-6.720E-06,0.008
-6.710E-06,0.000
-6.700E-06,0.000
-6.690E-06,0.008
-6.680E-06,0.016
-6.670E-06,-0.008
-6.660E-06,0.000
-6.650E-06,0.000
-6.640E-06,0.000
-6.630E-06,0.008
-6.620E-06,0.016
-6.610E-06,0.016
-6.600E-06,0.000
-6.590E-06,-0.008
-6.580E-06,0.000
-6.570E-06,0.000
-6.560E-06,0.000
-6.550E-06,0.000
-6.540E-06,0.000
-6.530E-06,0.008
-6.520E-06,0.000
-6.510E-06,0.000
-6.500E-06,0.000
-6.490E-06,0.008
-6.480E-06,0.008
-6.470E-06,0.000
-6.460E-06,0.016
-6.450E-06,0.000
-6.440E-06,0.000
-6.430E-06,0.000
-6.420E-06,0.000
-6.410E-06,0.000
-6.400E-06,0.008
-6.390E-06,0.008
-6.380E-06,0.000
-6.370E-06,-0.008
-6.360E-06,0.000
-6.350E-06,-0.008
-6.340E-06,0.008
-6.330E-06,0.008
-6.320E-06,0.016
-6.310E-06,0.016
-6.300E-06,0.000
-6.290E-06,0.000
-6.280E-06,-0.008
-6.270E-06,-0.008
-6.260E-06,0.000
-6.250E-06,0.016
-6.240E-06,0.008
-6.230E-06,0.008
-6.220E-06,0.008
-6.210E-06,-0.008
-6.200E-06,-0.008
-6.190E-06,0.000
-6.180E-06,0.000
-6.170E-06,0.008
-6.160E-06,0.008
-6.150E-06,0.000
-6.140E-06,0.016
-6.130E-06,-0.008
-6.120E-06,-0.008
-6.110E-06,0.000
-6.100E-06,0.000
-6.090E-06,0.008
-6.080E-06,-0.008
-6.070E-06,0.008
-6.060E-06,0.008
-6.050E-06,0.008
-6.040E-06,0.008
-6.030E-06,0.000
-6.020E-06,0.008
-6.010E-06,-0.008
-6.000E-06,0.000
-5.990E-06,0.000
-5.980E-06,0.008
-5.970E-06,0.016
-5.960E-06,0.008
-5.950E-06,-0.008
-5.940E-06,-0.008
-5.930E-06,0.000
-5.920E-06,0.008
-5.910E-06,0.000
-5.900E-06,0.000
-5.890E-06,0.008
-5.880E-06,-0.008
-5.870E-06,-0.008
-5.860E-06,0.000
-5.850E-06,0.008
-5.840E-06,0.000
-5.830E-06,0.000
-5.820E-06,0.008
-5.810E-06,0.000
-5.800E-06,0.008
-5.790E-06,0.008
-5.780E-06,0.000
-5.770E-06,0.000
-5.760E-06,0.000
-5.750E-06,0.008
-5.740E-06,-0.008
-5.730E-06,0.008
-5.720E-06,0.008
-5.710E-06,0.008
-5.700E-06,0.016
-5.690E-06,0.000
-5.680E-06,0.000
-5.670E-06,-0.008
-5.660E-06,0.000
-5.650E-06,0.000
-5.640E-06,0.008
-5.630E-06,0.016
-5.620E-06,0.016
-5.610E-06,0.000
-5.600E-06,0.000
-5.590E-06,-0.008
-5.580E-06,-0.008
-5.570E-06,-0.008
-5.560E-06,0.008
-5.550E-06,0.016
-5.540E-06,0.024
-5.530E-06,0.016
-5.520E-06,0.000
-5.510E-06,-0.008
-5.500E-06,-0.008
-5.490E-06,0.008
-5.480E-06,0.016
-5.470E-06,0.008
-5.460E-06,0.000
-5.450E-06,0.000
-5.440E-06,-0.008
-5.430E-06,0.000
-5.420E-06,-0.008
-5.410E-06,0.008
-5.400E-06,0.008
-5.390E-06,0.016
-5.380E-06,0.008
-5.370E-06,0.000
-5.360E-06,0.008
-5.350E-06,0.016
-5.340E-06,0.008
-5.330E-06,-0.008
-5.320E-06,0.000
-5.310E-06,-0.008
-5.300E-06,0.008
-5.290E-06,0.016
-5.280E-06,0.008
-5.270E-06,0.008
-5.260E-06,-0.008
-5.250E-06,0.000
-5.240E-06,-0.008
-5.230E-06,0.008
-5.220E-06,0.000
-5.210E-06,0.000
-5.200E-06,0.008
-5.190E-06,0.008
-5.180E-06,0.000
-5.170E-06,0.000
-5.160E-06,0.000
-5.150E-06,0.000
-5.140E-06,0.016
-5.130E-06,0.016
-5.120E-06,-0.008
-5.110E-06,0.008
-5.100E-06,0.016
-5.090E-06,0.008
-5.080E-06,0.000
-5.070E-06,0.000
-5.060E-06,0.000
-5.050E-06,0.000
-5.040E-06,0.000
-5.030E-06,0.000
-5.020E-06,0.008
-5.010E-06,0.008
-5.000E-06,0.000
-4.990E-06,0.000
-4.980E-06,-0.016
-4.970E-06,0.000
-4.960E-06,0.000
-4.950E-06,0.016
-4.940E-06,0.016
-4.930E-06,0.016
-4.920E-06,0.000
-4.910E-06,0.000
-4.900E-06,-0.008
-4.890E-06,-0.008
-4.880E-06,0.000
-4.870E-06,0.016
-4.860E-06,0.016
-4.850E-06,0.008
-4.840E-06,0.008
-4.830E-06,0.000
-4.820E-06,0.000
-4.810E-06,-0.008
-4.800E-06,0.000
-4.790E-06,0.000
-4.780E-06,0.016
-4.770E-06,0.016
-4.760E-06,0.016
-4.750E-06,0.008
-4.740E-06,-0.008
-4.730E-06,-0.008
-4.720E-06,-0.008
-4.710E-06,0.016
-4.700E-06,0.008
-4.690E-06,0.008
-4.680E-06,0.008
-4.670E-06,-0.008
-4.660E-06,-0.008
-4.650E-06,-0.008
-4.640E-06,0.000
-4.630E-06,0.000
-4.620E-06,0.016
-4.610E-06,0.016
-4.600E-06,0.016
-4.590E-06,0.000
-4.580E-06,0.008
-4.570E-06,0.000
-4.560E-06,0.000
-4.550E-06,0.008
-4.540E-06,0.016
-4.530E-06,0.008
-4.520E-06,0.008
-4.510E-06,0.016
-4.500E-06,0.008
-4.490E-06,0.008
-4.480E-06,-0.016
-4.470E-06,0.016
-4.460E-06,0.000
-4.450E-06,0.016
-4.440E-06,0.008
-4.430E-06,0.000
-4.420E-06,-0.016
-4.410E-06,-0.008
-4.400E-06,0.008
-4.390E-06,0.008
-4.380E-06,0.016
-4.370E-06,0.008
-4.360E-06,-0.008
-4.350E-06,0.000
-4.340E-06,0.000
-4.330E-06,0.008
-4.320E-06,0.000
-4.310E-06,0.000
-4.300E-06,0.016
-4.290E-06,0.008
-4.280E-06,0.008
-4.270E-06,0.000
-4.260E-06,0.000
-4.250E-06,-0.008
-4.240E-06,-0.008
-4.230E-06,-0.008
-4.220E-06,0.016
-4.210E-06,0.008
-4.200E-06,0.000
-4.190E-06,0.008
-4.180E-06,-0.008
-4.170E-06,0.000
-4.160E-06,0.000
-4.150E-06,0.000
-4.140E-06,0.008
-4.130E-06,0.000
-4.120E-06,0.008
-4.110E-06,0.008
-4.100E-06,0.016
-4.090E-06,0.008
-4.080E-06,0.000
-4.070E-06,-0.008
-4.060E-06,0.000
-4.050E-06,0.000
-4.040E-06,0.016
-4.030E-06,0.024
-4.020E-06,0.024
-4.010E-06,-0.008
-4.000E-06,-0.008
-3.990E-06,-0.008
-3.980E-06,0.000
-3.970E-06,0.008
-3.960E-06,0.016
-3.950E-06,0.016
-3.940E-06,0.024
-3.930E-06,0.008
-3.920E-06,0.000
-3.910E-06,-0.008
-3.900E-06,0.008
-3.890E-06,0.016
-3.880E-06,0.008
-3.870E-06,0.016
-3.860E-06,0.016
-3.850E-06,-0.016
-3.840E-06,0.008
-3.830E-06,-0.008
-3.820E-06,-0.008
-3.810E-06,0.008
-3.800E-06,0.000
-3.790E-06,0.008
-3.780E-06,0.008
-3.770E-06,0.008
-3.760E-06,-0.016
-3.750E-06,-0.016
-3.740E-06,-0.008
-3.730E-06,-0.008
-3.720E-06,-0.024
-3.710E-06,-0.008
-3.700E-06,0.000
-3.690E-06,-0.008
-3.680E-06,0.096
-3.670E-06,-0.008
-3.660E-06,0.024
-3.650E-06,-0.064
-3.640E-06,-0.072
-3.630E-06,-0.048
-3.620E-06,0.024
-3.610E-06,0.096
-3.600E-06,0.080
-3.590E-06,0.048
-3.580E-06,-0.024
-3.570E-06,-0.072
-3.560E-06,-0.080
-3.550E-06,-0.008
-3.540E-06,0.040
-3.530E-06,0.096
-3.520E-06,0.072
-3.510E-06,0.024
-3.500E-06,-0.008
-3.490E-06,-0.056
-3.480E-06,-0.032
-3.470E-06,-0.008
-3.460E-06,0.048
-3.450E-06,0.040
-3.440E-06,0.048
-3.430E-06,0.016
-3.420E-06,0.000
-3.410E-06,-0.016
-3.400E-06,-0.016
-3.390E-06,-0.008
-3.380E-06,0.008
-3.370E-06,0.040
-3.360E-06,0.040
-3.350E-06,0.040
-3.340E-06,0.000
-3.330E-06,0.000
-3.320E-06,-0.008
-3.310E-06,0.008
-3.300E-06,0.008
-3.290E-06,-0.016
-3.280E-06,0.000
-3.270E-06,0.016
-3.260E-06,0.016
-3.250E-06,0.016
-3.240E-06,0.024
-3.230E-06,0.008
-3.220E-06,0.008
-3.210E-06,0.008
-3.200E-06,0.008
-3.190E-06,0.016
-3.180E-06,0.040
-3.170E-06,0.040
-3.160E-06,0.032
-3.150E-06,0.048
-3.140E-06,0.048
-3.130E-06,0.120
-3.120E-06,0.144
-3.110E-06,-0.128
-3.100E-06,-0.232
-3.090E-06,-0.312
-3.080E-06,-0.104
-3.070E-06,-0.048
-3.060E-06,0.040
-3.050E-06,0.184
-3.040E-06,0.032
-3.030E-06,0.088
-3.020E-06,-0.016
-3.010E-06,-0.024
-3.000E-06,-0.136
-2.990E-06,-0.048
-2.980E-06,0.056
-2.970E-06,0.088
-2.960E-06,0.088
-2.950E-06,0.056
-2.940E-06,-0.008
-2.930E-06,-0.056
-2.920E-06,-0.064
-2.910E-06,-0.040
-2.900E-06,0.024
-2.890E-06,0.064
-2.880E-06,0.072
-2.870E-06,0.056
-2.860E-06,0.024
-2.850E-06,-0.032
-2.840E-06,-0.056
-2.830E-06,-0.024
-2.820E-06,0.000
-2.810E-06,0.048
-2.800E-06,0.048
-2.790E-06,0.040
-2.780E-06,0.016
-2.770E-06,0.000
-2.760E-06,-0.008
-2.750E-06,-0.008
-2.740E-06,0.008
-2.730E-06,0.032
-2.720E-06,0.040
-2.710E-06,0.048
-2.700E-06,0.024
-2.690E-06,0.016
-2.680E-06,0.016
-2.670E-06,0.040
-2.660E-06,0.040
-2.650E-06,0.048
-2.640E-06,0.064
-2.630E-06,0.040
-2.620E-06,0.080
-2.610E-06,-0.168
-2.600E-06,-0.368
-2.590E-06,-0.320
-2.580E-06,0.080
-2.570E-06,0.280
-2.560E-06,0.272
-2.550E-06,0.328
-2.540E-06,-0.032
-2.530E-06,-0.248
-2.520E-06,-0.288
-2.510E-06,-0.152
-2.500E-06,-0.008
-2.490E-06,0.184
-2.480E-06,0.264
-2.470E-06,0.176
-2.460E-06,0.024
-2.450E-06,-0.128
-2.440E-06,-0.192
-2.430E-06,-0.128
-2.420E-06,0.024
-2.410E-06,0.120
-2.400E-06,0.160
-2.390E-06,0.096
-2.380E-06,0.000
-2.370E-06,-0.072
-2.360E-06,-0.088
-2.350E-06,-0.048
-2.340E-06,0.008
-2.330E-06,0.064
-2.320E-06,0.112
-2.310E-06,0.120
-2.300E-06,0.048
-2.290E-06,0.016
-2.280E-06,-0.040
-2.270E-06,-0.008
-2.260E-06,0.024
-2.250E-06,0.072
-2.240E-06,0.120
-2.230E-06,0.104
-2.220E-06,-0.232
-2.210E-06,-0.128
-2.200E-06,-0.360
-2.190E-06,-0.248
-2.180E-06,0.192
-2.170E-06,0.184
-2.160E-06,0.352
-2.150E-06,0.120
-2.140E-06,-0.152
-2.130E-06,-0.248
-2.120E-06,-0.176
-2.110E-06,0.016
-2.100E-06,0.104
-2.090E-06,0.160
-2.080E-06,0.096
-2.070E-06,0.048
-2.060E-06,-0.048
-2.050E-06,-0.120
-2.040E-06,-0.128
-2.030E-06,-0.032
-2.020E-06,0.072
-2.010E-06,0.144
-2.000E-06,0.104
-1.990E-06,0.024
-1.980E-06,-0.032
-1.970E-06,-0.064
-1.960E-06,-0.056
-1.950E-06,-0.040
-1.940E-06,0.024
-1.930E-06,0.056
-1.920E-06,0.096
-1.910E-06,0.048
-1.900E-06,0.000
-1.890E-06,-0.016
-1.880E-06,-0.016
-1.870E-06,0.000
-1.860E-06,0.040
-1.850E-06,0.096
-1.840E-06,0.128
-1.830E-06,0.088
-1.820E-06,0.064
-1.810E-06,0.024
-1.800E-06,0.016
-1.790E-06,0.040
-1.780E-06,0.032
-1.770E-06,0.120
-1.760E-06,0.016
-1.750E-06,-0.120
-1.740E-06,-0.280
-1.730E-06,-0.208
-1.720E-06,-0.088
-1.710E-06,-0.040
-1.700E-06,0.256
-1.690E-06,0.080
-1.680E-06,-0.016
-1.670E-06,-0.024
-1.660E-06,-0.152
-1.650E-06,-0.168
-1.640E-06,-0.064
-1.630E-06,0.040
-1.620E-06,0.136
-1.610E-06,0.160
-1.600E-06,0.128
-1.590E-06,-0.072
-1.580E-06,-0.144
-1.570E-06,-0.152
-1.560E-06,-0.024
-1.550E-06,0.120
-1.540E-06,0.112
-1.530E-06,0.088
-1.520E-06,0.008
-1.510E-06,-0.024
-1.500E-06,-0.080
-1.490E-06,-0.064
-1.480E-06,-0.032
-1.470E-06,0.016
-1.460E-06,0.096
-1.450E-06,0.112
-1.440E-06,0.064
-1.430E-06,-0.008
-1.420E-06,-0.064
-1.410E-06,-0.056
-1.400E-06,-0.024
-1.390E-06,0.024
-1.380E-06,0.064
-1.370E-06,0.080
-1.360E-06,0.064
-1.350E-06,0.024
-1.340E-06,-0.008
-1.330E-06,-0.024
-1.320E-06,-0.016
-1.310E-06,0.024
-1.300E-06,0.064
-1.290E-06,0.104
-1.280E-06,0.096
-1.270E-06,0.104
-1.260E-06,0.064
-1.250E-06,0.056
-1.240E-06,0.064
-1.230E-06,0.064
-1.220E-06,0.128
-1.210E-06,0.088
-1.200E-06,0.120
-1.190E-06,-0.136
-1.180E-06,-0.264
-1.170E-06,-0.280
-1.160E-06,-0.344
-1.150E-06,-0.224
-1.140E-06,0.096
-1.130E-06,0.304
-1.120E-06,0.304
-1.110E-06,0.160
-1.100E-06,-0.064
-1.090E-06,-0.208
-1.080E-06,-0.272
-1.070E-06,-0.144
-1.060E-06,-0.008
-1.050E-06,0.240
-1.040E-06,0.280
-1.030E-06,0.240
-1.020E-06,0.080
-1.010E-06,-0.128
-1.000E-06,-0.192
-9.900E-07,-0.216
-9.800E-07,-0.056
-9.700E-07,-0.016
-9.600E-07,0.160
-9.500E-07,0.128
-9.400E-07,0.056
-9.300E-07,0.008
-9.200E-07,-0.080
-9.100E-07,-0.088
-9.000E-07,0.008
-8.900E-07,0.080
-8.800E-07,0.184
-8.700E-07,0.224
-8.600E-07,0.192
-8.500E-07,0.176
-8.400E-07,0.048
-8.300E-07,0.008
-8.200E-07,-0.112
-8.100E-07,-0.064
-8.000E-07,-0.024
-7.900E-07,0.040
-7.800E-07,0.080
-7.700E-07,0.000
-7.600E-07,0.024
-7.500E-07,0.016
-7.400E-07,-0.088
-7.300E-07,-0.088
-7.200E-07,-0.120
-7.100E-07,-0.016
-7.000E-07,-0.016
-6.900E-07,0.048
-6.800E-07,0.064
-6.700E-07,0.080
-6.600E-07,0.136
-6.500E-07,0.128
-6.400E-07,0.112
-6.300E-07,0.072
-6.200E-07,0.096
-6.100E-07,0.056
-6.000E-07,0.088
-5.900E-07,0.144
-5.800E-07,0.088
-5.700E-07,0.120
-5.600E-07,0.072
-5.500E-07,0.000
-5.400E-07,-0.040
-5.300E-07,-0.088
-5.200E-07,-0.048
-5.100E-07,-0.024
-5.000E-07,0.080
-4.900E-07,0.152
-4.800E-07,0.192
-4.700E-07,0.128
-4.600E-07,0.192
-4.500E-07,0.256
-4.400E-07,0.200
-4.300E-07,0.096
-4.200E-07,0.048
-4.100E-07,0.024
-4.000E-07,0.152
-3.900E-07,0.208
-3.800E-07,0.256
-3.700E-07,0.248
-3.600E-07,0.200
-3.500E-07,0.152
-3.400E-07,0.088
-3.300E-07,0.024
-3.200E-07,0.064
-3.100E-07,0.112
-3.000E-07,0.264
-2.900E-07,0.288
-2.800E-07,0.264
-2.700E-07,0.184
-2.600E-07,0.120
-2.500E-07,0.120
-2.400E-07,0.024
-2.300E-07,0.112
-2.200E-07,0.136
-2.100E-07,0.176
-2.000E-07,0.144
-1.900E-07,0.128
-1.800E-07,-0.056
-1.700E-07,-0.104
-1.600E-07,0.064
-1.500E-07,-0.136
-1.400E-07,-0.144
-1.300E-07,-0.440
-1.200E-07,-0.512
-1.100E-07,-0.304
-1.000E-07,-0.008
-9.000E-08,0.184
-8.000E-08,0.128
-7.000E-08,0.208
-6.000E-08,-0.384
-5.000E-08,-0.576
-4.000E-08,-0.576
-3.000E-08,-0.256
-2.000E-08,-0.008
-1.000E-08,0.504
0.000E+00,0.608
1.000E-08,0.416
2.000E-08,0.152
3.000E-08,-0.200
4.000E-08,-0.168
5.000E-08,-0.040
6.000E-08,0.248
7.000E-08,0.416
8.000E-08,0.600
9.000E-08,0.464
1.000E-07,0.240
1.100E-07,0.024
1.200E-07,-0.056
1.300E-07,0.024
1.400E-07,0.216
1.500E-07,0.408
1.600E-07,0.520
1.700E-07,0.464
1.800E-07,0.304
1.900E-07,0.152
2.000E-07,0.024
2.100E-07,0.032
2.200E-07,0.152
2.300E-07,0.280
2.400E-07,0.384
2.500E-07,0.384
2.600E-07,0.312
2.700E-07,0.176
2.800E-07,0.104
2.900E-07,0.088
3.000E-07,0.160
3.100E-07,0.256
3.200E-07,0.320
3.300E-07,0.344
3.400E-07,0.288
3.500E-07,0.208
3.600E-07,0.128
3.700E-07,0.120
3.800E-07,0.152
3.900E-07,0.208
4.000E-07,0.288
4.100E-07,0.304
4.200E-07,0.288
4.300E-07,0.224
4.400E-07,0.176
4.500E-07,0.160
4.600E-07,0.176
4.700E-07,0.240
4.800E-07,0.272
4.900E-07,0.304
5.000E-07,0.288
5.100E-07,0.240
5.200E-07,0.208
5.300E-07,0.184
5.400E-07,0.184
5.500E-07,0.224
5.600E-07,0.256
5.700E-07,0.280
5.800E-07,0.288
5.900E-07,0.256
6.000E-07,0.240
6.100E-07,0.208
6.200E-07,0.216
6.300E-07,0.224
6.400E-07,0.256
6.500E-07,0.280
6.600E-07,0.280
6.700E-07,0.288
6.800E-07,0.264
6.900E-07,0.248
7.000E-07,0.224
7.100E-07,0.248
7.200E-07,0.256
7.300E-07,0.256
7.400E-07,0.280
7.500E-07,0.272
7.600E-07,0.272
7.700E-07,0.256
7.800E-07,0.216
7.900E-07,0.224
8.000E-07,0.264
8.100E-07,0.288
8.200E-07,0.296
8.300E-07,0.280
8.400E-07,0.272
8.500E-07,0.248
8.600E-07,0.240
8.700E-07,0.248
8.800E-07,0.256
8.900E-07,0.272
9.000E-07,0.264
9.100E-07,0.264
9.200E-07,0.248
9.300E-07,0.248
9.400E-07,0.248
9.500E-07,0.248
9.600E-07,0.256
9.700E-07,0.256
9.800E-07,0.264
9.900E-07,0.264
1.000E-06,0.264
1.010E-06,0.264
1.020E-06,0.256
1.030E-06,0.256
1.040E-06,0.256
1.050E-06,0.256
1.060E-06,0.264
1.070E-06,0.264
1.080E-06,0.272
1.090E-06,0.264
1.100E-06,0.248
1.110E-06,0.248
1.120E-06,0.248
1.130E-06,0.256
1.140E-06,0.256
1.150E-06,0.256
1.160E-06,0.264
1.170E-06,0.264
1.180E-06,0.248
1.190E-06,0.248
1.200E-06,0.248
1.210E-06,0.248
1.220E-06,0.248
1.230E-06,0.256
1.240E-06,0.256
1.250E-06,0.256
1.260E-06,0.248
1.270E-06,0.248
1.280E-06,0.248
1.290E-06,0.240
1.300E-06,0.240
1.310E-06,0.240
1.320E-06,0.248
1.330E-06,0.248
1.340E-06,0.248
1.350E-06,0.248
1.360E-06,0.248
1.370E-06,0.240
1.380E-06,0.240
1.390E-06,0.240
1.400E-06,0.256
1.410E-06,0.248
1.420E-06,0.248
1.430E-06,0.256
1.440E-06,0.248
1.450E-06,0.240
1.460E-06,0.232
1.470E-06,0.232
1.480E-06,0.232
1.490E-06,0.232
1.500E-06,0.232
1.510E-06,0.240
1.520E-06,0.240
1.530E-06,0.240
1.540E-06,0.232
1.550E-06,0.224
1.560E-06,0.224
1.570E-06,0.232
1.580E-06,0.240
1.590E-06,0.240
1.600E-06,0.240
1.610E-06,0.232
1.620E-06,0.224
1.630E-06,0.224
1.640E-06,0.224
1.650E-06,0.232
1.660E-06,0.240
1.670E-06,0.248
1.680E-06,0.248
1.690E-06,0.232
1.700E-06,0.216
1.710E-06,0.216
1.720E-06,0.224
1.730E-06,0.216
1.740E-06,0.224
1.750E-06,0.248
1.760E-06,0.240
1.770E-06,0.240
1.780E-06,0.224
1.790E-06,0.224
1.800E-06,0.216
1.810E-06,0.224
1.820E-06,0.216
1.830E-06,0.224
1.840E-06,0.232
1.850E-06,0.232
1.860E-06,0.224
1.870E-06,0.208
1.880E-06,0.208
1.890E-06,0.216
1.900E-06,0.208
1.910E-06,0.224
1.920E-06,0.224
1.930E-06,0.216
1.940E-06,0.216
1.950E-06,0.216
1.960E-06,0.208
1.970E-06,0.200
1.980E-06,0.208
1.990E-06,0.216
2.000E-06,0.224
2.010E-06,0.224
2.020E-06,0.216
2.030E-06,0.208
2.040E-06,0.216
2.050E-06,0.216
2.060E-06,0.200
2.070E-06,0.208
2.080E-06,0.208
2.090E-06,0.216
2.100E-06,0.200
2.110E-06,0.200
2.120E-06,0.200
2.130E-06,0.200
2.140E-06,0.208
2.150E-06,0.200
2.160E-06,0.208
2.170E-06,0.208
2.180E-06,0.192
2.190E-06,0.192
2.200E-06,0.192
2.210E-06,0.208
2.220E-06,0.200
2.230E-06,0.208
2.240E-06,0.208
2.250E-06,0.208
2.260E-06,0.192
2.270E-06,0.200
2.280E-06,0.200
2.290E-06,0.192
2.300E-06,0.192
2.310E-06,0.200
2.320E-06,0.192
2.330E-06,0.208
2.340E-06,0.200
2.350E-06,0.200
2.360E-06,0.200
2.370E-06,0.184
2.380E-06,0.184
2.390E-06,0.176
2.400E-06,0.176
2.410E-06,0.184
2.420E-06,0.184
2.430E-06,0.192
2.440E-06,0.208
2.450E-06,0.208
2.460E-06,0.200
2.470E-06,0.184
2.480E-06,0.176
2.490E-06,0.168
2.500E-06,0.176
2.510E-06,0.184
2.520E-06,0.208
2.530E-06,0.208
2.540E-06,0.192
2.550E-06,0.192
2.560E-06,0.176
2.570E-06,0.184
2.580E-06,0.176
2.590E-06,0.176
2.600E-06,0.184
2.610E-06,0.192
2.620E-06,0.184
2.630E-06,0.184
2.640E-06,0.176
2.650E-06,0.184
2.660E-06,0.168
2.670E-06,0.176
2.680E-06,0.184
2.690E-06,0.184
2.700E-06,0.192
2.710E-06,0.184
2.720E-06,0.176
2.730E-06,0.176
2.740E-06,0.184
2.750E-06,0.184
2.760E-06,0.184
2.770E-06,0.184
2.780E-06,0.184
2.790E-06,0.184
2.800E-06,0.184
2.810E-06,0.168
2.820E-06,0.160
2.830E-06,0.176
2.840E-06,0.168
2.850E-06,0.184
2.860E-06,0.176
2.870E-06,0.176
2.880E-06,0.184
2.890E-06,0.176
2.900E-06,0.152
2.910E-06,0.152
2.920E-06,0.152
2.930E-06,0.144
2.940E-06,0.176
2.950E-06,0.176
2.960E-06,0.176
2.970E-06,0.176
2.980E-06,0.168
2.990E-06,0.152
3.000E-06,0.160
3.010E-06,0.144
3.020E-06,0.152
3.030E-06,0.160
3.040E-06,0.168
3.050E-06,0.176
3.060E-06,0.168
3.070E-06,0.168
3.080E-06,0.160
3.090E-06,0.152
3.100E-06,0.144
3.110E-06,0.144
3.120E-06,0.152
3.130E-06,0.168
3.140E-06,0.168
3.150E-06,0.160
3.160E-06,0.152
3.170E-06,0.152
3.180E-06,0.152
3.190E-06,0.152
3.200E-06,0.152
3.210E-06,0.160
3.220E-06,0.152
3.230E-06,0.144
3.240E-06,0.152
3.250E-06,0.144
3.260E-06,0.152
3.270E-06,0.152
3.280E-06,0.144
3.290E-06,0.144
3.300E-06,0.144
3.310E-06,0.152
3.320E-06,0.144
3.330E-06,0.136
3.340E-06,0.136
3.350E-06,0.144
3.360E-06,0.152
3.370E-06,0.144
3.380E-06,0.152
3.390E-06,0.144
3.400E-06,0.144
3.410E-06,0.152
3.420E-06,0.128
3.430E-06,0.128
3.440E-06,0.136
3.450E-06,0.144
3.460E-06,0.136
3.470E-06,0.136
3.480E-06,0.136
3.490E-06,0.128
3.500E-06,0.144
3.510E-06,0.128
3.520E-06,0.128
3.530E-06,0.136
3.540E-06,0.144
3.550E-06,0.144
3.560E-06,0.136
3.570E-06,0.136
3.580E-06,0.136
3.590E-06,0.136
3.600E-06,0.120
3.610E-06,0.128
3.620E-06,0.120
3.630E-06,0.120
3.640E-06,0.128
3.650E-06,0.128
