mediciones/6-26/40.0/WaveData5900.csv

#timebase=2000000(ps)
,#voltbase=200000(mv/100)
#size=4000
-8.150E-06,0.016
-8.140E-06,-0.016
-8.130E-06,-0.008
-8.120E-06,-0.016
-8.110E-06,0.032
-8.100E-06,0.040
-8.090E-06,0.032
-8.080E-06,-0.008
-8.070E-06,-0.024
-8.060E-06,-0.024
-8.050E-06,-0.008
-8.040E-06,0.000
-8.030E-06,0.024
-8.020E-06,0.032
-8.010E-06,0.008
-8.000E-06,0.000
-7.990E-06,-0.008
-7.980E-06,-0.016
-7.970E-06,-0.016
-7.960E-06,0.008
-7.950E-06,0.024
-7.940E-06,0.024
-7.930E-06,0.016
-7.920E-06,0.008
-7.910E-06,0.000
-7.900E-06,-0.008
-7.890E-06,-0.008
-7.880E-06,-0.008
-7.870E-06,0.016
-7.860E-06,0.024
-7.850E-06,0.016
-7.840E-06,0.016
-7.830E-06,0.000
-7.820E-06,0.000
-7.810E-06,-0.008
-7.800E-06,-0.008
-7.790E-06,0.016
-7.780E-06,0.024
-7.770E-06,0.016
-7.760E-06,0.008
-7.750E-06,0.000
-7.740E-06,0.016
-7.730E-06,-0.008
-7.720E-06,-0.008
-7.710E-06,0.016
-7.700E-06,0.008
-7.690E-06,0.016
-7.680E-06,0.008
-7.670E-06,-0.008
-7.660E-06,-0.016
-7.650E-06,-0.016
-7.640E-06,-0.008
-7.630E-06,0.016
-7.620E-06,0.032
-7.610E-06,0.032
-7.600E-06,0.016
-7.590E-06,-0.008
-7.580E-06,-0.008
-7.570E-06,-0.016
-7.560E-06,0.000
-7.550E-06,0.016
-7.540E-06,0.040
-7.530E-06,0.032
-7.520E-06,0.024
-7.510E-06,0.000
-7.500E-06,-0.016
-7.490E-06,-0.024
-7.480E-06,-0.008
-7.470E-06,0.032
-7.460E-06,0.048
-7.450E-06,0.024
-7.440E-06,0.016
-7.430E-06,0.008
-7.420E-06,-0.016
-7.410E-06,0.024
-7.400E-06,-0.008
-7.390E-06,0.000
-7.380E-06,-0.072
-7.370E-06,-0.056
-7.360E-06,-0.016
-7.350E-06,0.000
-7.340E-06,0.056
-7.330E-06,0.056
-7.320E-06,0.072
-7.310E-06,0.024
-7.300E-06,-0.032
-7.290E-06,-0.088
-7.280E-06,-0.064
-7.270E-06,-0.008
-7.260E-06,0.072
-7.250E-06,0.088
-7.240E-06,0.056
-7.230E-06,0.024
-7.220E-06,-0.064
-7.210E-06,-0.104
-7.200E-06,-0.072
-7.190E-06,-0.008
-7.180E-06,0.056
-7.170E-06,0.080
-7.160E-06,0.040
-7.150E-06,-0.008
-7.140E-06,-0.056
-7.130E-06,-0.056
-7.120E-06,-0.048
-7.110E-06,0.008
-7.100E-06,0.048
-7.090E-06,0.056
-7.080E-06,0.056
-7.070E-06,0.000
-7.060E-06,-0.024
-7.050E-06,-0.032
-7.040E-06,-0.016
-7.030E-06,-0.008
-7.020E-06,0.032
-7.010E-06,0.048
-7.000E-06,0.024
-6.990E-06,0.016
-6.980E-06,-0.024
-6.970E-06,-0.024
-6.960E-06,-0.016
-6.950E-06,0.016
-6.940E-06,0.024
-6.930E-06,0.032
-6.920E-06,0.024
-6.910E-06,0.016
-6.900E-06,-0.024
-6.890E-06,-0.016
-6.880E-06,-0.008
-6.870E-06,-0.008
-6.860E-06,0.016
-6.850E-06,0.024
-6.840E-06,0.040
-6.830E-06,0.032
-6.820E-06,0.008
-6.810E-06,0.000
-6.800E-06,-0.016
-6.790E-06,-0.016
-6.780E-06,-0.008
-6.770E-06,0.016
-6.760E-06,0.024
-6.750E-06,0.024
-6.740E-06,0.000
-6.730E-06,-0.008
-6.720E-06,-0.008
-6.710E-06,0.000
-6.700E-06,-0.008
-6.690E-06,0.008
-6.680E-06,0.024
-6.670E-06,0.024
-6.660E-06,0.016
-6.650E-06,0.000
-6.640E-06,0.008
-6.630E-06,-0.008
-6.620E-06,-0.008
-6.610E-06,0.008
-6.600E-06,0.032
-6.590E-06,0.016
-6.580E-06,0.032
-6.570E-06,0.056
-6.560E-06,0.040
-6.550E-06,0.016
-6.540E-06,0.000
-6.530E-06,0.016
-6.520E-06,0.048
-6.510E-06,-0.080
-6.500E-06,-0.120
-6.490E-06,-0.080
-6.480E-06,-0.008
-6.470E-06,0.088
-6.460E-06,0.048
-6.450E-06,0.016
-6.440E-06,-0.080
-6.430E-06,-0.056
-6.420E-06,-0.056
-6.410E-06,0.000
-6.400E-06,0.072
-6.390E-06,0.056
-6.380E-06,0.024
-6.370E-06,-0.008
-6.360E-06,-0.024
-6.350E-06,-0.016
-6.340E-06,0.040
-6.330E-06,0.080
-6.320E-06,0.128
-6.310E-06,-0.032
-6.300E-06,-0.008
-6.290E-06,-0.048
-6.280E-06,-0.136
-6.270E-06,-0.088
-6.260E-06,0.120
-6.250E-06,0.184
-6.240E-06,-0.072
-6.230E-06,-0.024
-6.220E-06,0.000
-6.210E-06,-0.040
-6.200E-06,-0.040
-6.190E-06,0.000
-6.180E-06,0.184
-6.170E-06,0.000
-6.160E-06,-0.016
-6.150E-06,-0.144
-6.140E-06,-0.032
-6.130E-06,0.016
-6.120E-06,0.064
-6.110E-06,0.072
-6.100E-06,0.056
-6.090E-06,0.040
-6.080E-06,-0.064
-6.070E-06,-0.176
-6.060E-06,-0.128
-6.050E-06,-0.056
-6.040E-06,0.120
-6.030E-06,0.168
-6.020E-06,0.088
-6.010E-06,0.016
-6.000E-06,-0.048
-5.990E-06,-0.104
-5.980E-06,-0.096
-5.970E-06,-0.048
-5.960E-06,0.016
-5.950E-06,0.088
-5.940E-06,0.088
-5.930E-06,0.096
-5.920E-06,-0.016
-5.910E-06,-0.056
-5.900E-06,-0.080
-5.890E-06,-0.072
-5.880E-06,0.016
-5.870E-06,0.056
-5.860E-06,0.088
-5.850E-06,0.064
-5.840E-06,0.024
-5.830E-06,-0.040
-5.820E-06,-0.072
-5.810E-06,-0.040
-5.800E-06,-0.008
-5.790E-06,0.048
-5.780E-06,0.072
-5.770E-06,0.056
-5.760E-06,0.032
-5.750E-06,-0.008
-5.740E-06,-0.056
-5.730E-06,-0.048
-5.720E-06,-0.016
-5.710E-06,0.024
-5.700E-06,0.048
-5.690E-06,0.064
-5.680E-06,0.024
-5.670E-06,0.000
-5.660E-06,-0.032
-5.650E-06,-0.032
-5.640E-06,-0.008
-5.630E-06,0.016
-5.620E-06,0.040
-5.610E-06,0.048
-5.600E-06,0.024
-5.590E-06,-0.008
-5.580E-06,-0.008
-5.570E-06,-0.024
-5.560E-06,-0.016
-5.550E-06,0.008
-5.540E-06,0.024
-5.530E-06,0.024
-5.520E-06,0.016
-5.510E-06,0.016
-5.500E-06,0.000
-5.490E-06,-0.016
-5.480E-06,0.000
-5.470E-06,-0.008
-5.460E-06,0.008
-5.450E-06,0.016
-5.440E-06,0.016
-5.430E-06,0.016
-5.420E-06,0.000
-5.410E-06,0.000
-5.400E-06,0.000
-5.390E-06,-0.008
-5.380E-06,0.000
-5.370E-06,0.016
-5.360E-06,0.008
-5.350E-06,0.016
-5.340E-06,0.000
-5.330E-06,-0.008
-5.320E-06,-0.008
-5.310E-06,0.000
-5.300E-06,0.008
-5.290E-06,0.008
-5.280E-06,0.016
-5.270E-06,0.016
-5.260E-06,0.016
-5.250E-06,0.008
-5.240E-06,-0.016
-5.230E-06,0.008
-5.220E-06,-0.008
-5.210E-06,0.000
-5.200E-06,0.016
-5.190E-06,0.016
-5.180E-06,0.016
-5.170E-06,-0.008
-5.160E-06,0.000
-5.150E-06,0.000
-5.140E-06,0.000
-5.130E-06,0.000
-5.120E-06,0.008
-5.110E-06,0.008
-5.100E-06,0.008
-5.090E-06,-0.008
-5.080E-06,0.000
-5.070E-06,-0.008
-5.060E-06,0.000
-5.050E-06,0.008
-5.040E-06,0.008
-5.030E-06,-0.008
-5.020E-06,0.008
-5.010E-06,0.000
-5.000E-06,0.000
-4.990E-06,0.008
-4.980E-06,0.000
-4.970E-06,0.000
-4.960E-06,0.000
-4.950E-06,0.008
-4.940E-06,0.000
-4.930E-06,0.008
-4.920E-06,0.000
-4.910E-06,0.008
-4.900E-06,0.000
-4.890E-06,0.000
-4.880E-06,-0.008
-4.870E-06,0.000
-4.860E-06,0.008
-4.850E-06,0.008
-4.840E-06,0.000
-4.830E-06,0.000
-4.820E-06,0.008
-4.810E-06,0.000
-4.800E-06,0.008
-4.790E-06,0.000
-4.780E-06,0.000
-4.770E-06,0.000
-4.760E-06,0.016
-4.750E-06,-0.008
-4.740E-06,-0.008
-4.730E-06,0.000
-4.720E-06,0.000
-4.710E-06,0.000
-4.700E-06,0.008
-4.690E-06,0.000
-4.680E-06,0.000
-4.670E-06,0.000
-4.660E-06,0.008
-4.650E-06,0.008
-4.640E-06,0.008
-4.630E-06,0.016
-4.620E-06,0.008
-4.610E-06,0.000
-4.600E-06,0.008
-4.590E-06,0.000
-4.580E-06,0.000
-4.570E-06,-0.008
-4.560E-06,0.008
-4.550E-06,0.000
-4.540E-06,0.008
-4.530E-06,0.008
-4.520E-06,0.000
-4.510E-06,0.000
-4.500E-06,0.000
-4.490E-06,0.008
-4.480E-06,0.016
-4.470E-06,0.000
-4.460E-06,0.000
-4.450E-06,0.008
-4.440E-06,0.000
-4.430E-06,0.008
-4.420E-06,0.008
-4.410E-06,0.000
-4.400E-06,0.000
-4.390E-06,0.008
-4.380E-06,0.008
-4.370E-06,0.000
-4.360E-06,0.000
-4.350E-06,0.008
-4.340E-06,0.000
-4.330E-06,0.000
-4.320E-06,0.008
-4.310E-06,0.000
-4.300E-06,0.000
-4.290E-06,0.000
-4.280E-06,0.008
-4.270E-06,0.008
-4.260E-06,0.008
-4.250E-06,0.000
-4.240E-06,0.008
-4.230E-06,0.008
-4.220E-06,0.008
-4.210E-06,0.008
-4.200E-06,-0.008
-4.190E-06,-0.008
-4.180E-06,0.008
-4.170E-06,0.008
-4.160E-06,0.016
-4.150E-06,0.024
-4.140E-06,0.016
-4.130E-06,0.008
-4.120E-06,0.000
-4.110E-06,0.000
-4.100E-06,0.000
-4.090E-06,-0.008
-4.080E-06,0.008
-4.070E-06,0.016
-4.060E-06,0.008
-4.050E-06,0.000
-4.040E-06,-0.008
-4.030E-06,0.000
-4.020E-06,-0.008
-4.010E-06,-0.008
-4.000E-06,0.008
-3.990E-06,0.008
-3.980E-06,0.008
-3.970E-06,0.000
-3.960E-06,0.000
-3.950E-06,0.000
-3.940E-06,0.000
-3.930E-06,0.000
-3.920E-06,0.008
-3.910E-06,0.008
-3.900E-06,0.008
-3.890E-06,0.008
-3.880E-06,0.000
-3.870E-06,0.000
-3.860E-06,0.000
-3.850E-06,0.000
-3.840E-06,0.008
-3.830E-06,0.008
-3.820E-06,0.000
-3.810E-06,0.008
-3.800E-06,0.016
-3.790E-06,0.008
-3.780E-06,0.008
-3.770E-06,-0.008
-3.760E-06,0.000
-3.750E-06,0.008
-3.740E-06,0.000
-3.730E-06,0.000
-3.720E-06,-0.008
-3.710E-06,0.000
-3.700E-06,0.000
-3.690E-06,0.000
-3.680E-06,0.008
-3.670E-06,0.000
-3.660E-06,0.008
-3.650E-06,0.000
-3.640E-06,0.000
-3.630E-06,0.000
-3.620E-06,0.000
-3.610E-06,0.000
-3.600E-06,0.000
-3.590E-06,0.008
-3.580E-06,0.008
-3.570E-06,0.000
-3.560E-06,0.000
-3.550E-06,0.008
-3.540E-06,0.000
-3.530E-06,-0.008
-3.520E-06,0.000
-3.510E-06,0.008
-3.500E-06,0.000
-3.490E-06,0.000
-3.480E-06,0.008
-3.470E-06,0.016
-3.460E-06,0.016
-3.450E-06,0.008
-3.440E-06,0.016
-3.430E-06,-0.008
-3.420E-06,-0.008
-3.410E-06,0.008
-3.400E-06,0.008
-3.390E-06,0.008
-3.380E-06,0.008
-3.370E-06,-0.008
-3.360E-06,0.008
-3.350E-06,0.000
-3.340E-06,0.008
-3.330E-06,0.000
-3.320E-06,-0.008
-3.310E-06,0.008
-3.300E-06,0.008
-3.290E-06,0.008
-3.280E-06,0.008
-3.270E-06,0.000
-3.260E-06,-0.008
-3.250E-06,0.000
-3.240E-06,0.000
-3.230E-06,0.008
-3.220E-06,-0.008
-3.210E-06,0.000
-3.200E-06,-0.008
-3.190E-06,0.000
-3.180E-06,0.000
-3.170E-06,0.000
-3.160E-06,0.008
-3.150E-06,-0.008
-3.140E-06,0.008
-3.130E-06,0.000
-3.120E-06,0.000
-3.110E-06,0.000
-3.100E-06,0.016
-3.090E-06,0.000
-3.080E-06,0.000
-3.070E-06,0.008
-3.060E-06,-0.008
-3.050E-06,0.000
-3.040E-06,0.000
-3.030E-06,0.000
-3.020E-06,0.000
-3.010E-06,0.000
-3.000E-06,0.008
-2.990E-06,0.008
-2.980E-06,0.000
-2.970E-06,-0.008
-2.960E-06,0.000
-2.950E-06,-0.008
-2.940E-06,0.008
-2.930E-06,0.008
-2.920E-06,0.008
-2.910E-06,0.008
-2.900E-06,0.008
-2.890E-06,0.008
-2.880E-06,0.000
-2.870E-06,0.008
-2.860E-06,0.000
-2.850E-06,0.000
-2.840E-06,0.008
-2.830E-06,0.000
-2.820E-06,0.008
-2.810E-06,0.008
-2.800E-06,0.016
-2.790E-06,-0.008
-2.780E-06,-0.008
-2.770E-06,0.000
-2.760E-06,0.000
-2.750E-06,0.008
-2.740E-06,0.016
-2.730E-06,0.016
-2.720E-06,-0.008
-2.710E-06,0.000
-2.700E-06,0.000
-2.690E-06,0.000
-2.680E-06,0.000
-2.670E-06,0.008
-2.660E-06,0.008
-2.650E-06,0.008
-2.640E-06,0.000
-2.630E-06,0.000
-2.620E-06,0.000
-2.610E-06,0.000
-2.600E-06,0.000
-2.590E-06,0.008
-2.580E-06,0.000
-2.570E-06,0.008
-2.560E-06,-0.008
-2.550E-06,0.008
-2.540E-06,0.000
-2.530E-06,0.000
-2.520E-06,0.016
-2.510E-06,0.000
-2.500E-06,0.000
-2.490E-06,0.008
-2.480E-06,-0.008
-2.470E-06,0.000
-2.460E-06,0.008
-2.450E-06,0.000
-2.440E-06,0.000
-2.430E-06,0.008
-2.420E-06,0.008
-2.410E-06,0.008
-2.400E-06,0.000
-2.390E-06,0.000
-2.380E-06,0.000
-2.370E-06,0.000
-2.360E-06,0.008
-2.350E-06,0.000
-2.340E-06,0.008
-2.330E-06,0.008
-2.320E-06,-0.008
-2.310E-06,0.000
-2.300E-06,0.008
-2.290E-06,0.000
-2.280E-06,0.016
-2.270E-06,0.016
-2.260E-06,-0.008
-2.250E-06,0.000
-2.240E-06,-0.008
-2.230E-06,0.000
-2.220E-06,0.016
-2.210E-06,0.008
-2.200E-06,0.024
-2.190E-06,0.016
-2.180E-06,0.008
-2.170E-06,-0.008
-2.160E-06,-0.008
-2.150E-06,0.000
-2.140E-06,0.000
-2.130E-06,0.016
-2.120E-06,0.016
-2.110E-06,0.016
-2.100E-06,0.008
-2.090E-06,-0.008
-2.080E-06,-0.008
-2.070E-06,-0.008
-2.060E-06,0.008
-2.050E-06,0.016
-2.040E-06,0.016
-2.030E-06,0.016
-2.020E-06,0.008
-2.010E-06,0.000
-2.000E-06,0.000
-1.990E-06,0.008
-1.980E-06,0.008
-1.970E-06,0.016
-1.960E-06,0.016
-1.950E-06,0.008
-1.940E-06,0.000
-1.930E-06,-0.008
-1.920E-06,0.000
-1.910E-06,0.000
-1.900E-06,0.016
-1.890E-06,0.016
-1.880E-06,0.016
-1.870E-06,0.008
-1.860E-06,0.000
-1.850E-06,-0.016
-1.840E-06,-0.016
-1.830E-06,-0.008
-1.820E-06,0.000
-1.810E-06,0.024
-1.800E-06,0.040
-1.790E-06,0.016
-1.780E-06,0.008
-1.770E-06,-0.016
-1.760E-06,-0.016
-1.750E-06,-0.016
-1.740E-06,0.000
-1.730E-06,0.024
-1.720E-06,0.056
-1.710E-06,0.032
-1.700E-06,0.024
-1.690E-06,-0.008
-1.680E-06,-0.024
-1.670E-06,-0.016
-1.660E-06,0.000
-1.650E-06,0.024
-1.640E-06,0.024
-1.630E-06,0.016
-1.620E-06,0.008
-1.610E-06,-0.008
-1.600E-06,-0.016
-1.590E-06,-0.016
-1.580E-06,0.008
-1.570E-06,0.016
-1.560E-06,0.024
-1.550E-06,0.016
-1.540E-06,0.008
-1.530E-06,-0.008
-1.520E-06,0.008
-1.510E-06,0.000
-1.500E-06,-0.008
-1.490E-06,0.000
-1.480E-06,0.008
-1.470E-06,0.008
-1.460E-06,0.008
-1.450E-06,0.008
-1.440E-06,0.008
-1.430E-06,0.000
-1.420E-06,-0.016
-1.410E-06,0.040
-1.400E-06,-0.048
-1.390E-06,0.064
-1.380E-06,-0.072
-1.370E-06,0.040
-1.360E-06,0.000
-1.350E-06,-0.008
-1.340E-06,0.056
-1.330E-06,-0.008
-1.320E-06,-0.016
-1.310E-06,0.000
-1.300E-06,0.016
-1.290E-06,0.000
-1.280E-06,0.008
-1.270E-06,0.000
-1.260E-06,0.000
-1.250E-06,0.032
-1.240E-06,0.008
-1.230E-06,0.000
-1.220E-06,0.008
-1.210E-06,0.008
-1.200E-06,0.008
-1.190E-06,0.008
-1.180E-06,0.008
-1.170E-06,-0.008
-1.160E-06,0.000
-1.150E-06,0.016
-1.140E-06,0.016
-1.130E-06,0.000
-1.120E-06,-0.008
-1.110E-06,-0.008
-1.100E-06,0.008
-1.090E-06,0.000
-1.080E-06,-0.008
-1.070E-06,-0.008
-1.060E-06,0.008
-1.050E-06,-0.016
-1.040E-06,0.008
-1.030E-06,0.024
-1.020E-06,0.016
-1.010E-06,0.024
-1.000E-06,0.000
-9.900E-07,-0.016
-9.800E-07,-0.024
-9.700E-07,0.000
-9.600E-07,0.016
-9.500E-07,0.024
-9.400E-07,0.032
-9.300E-07,0.016
-9.200E-07,-0.008
-9.100E-07,0.000
-9.000E-07,-0.016
-8.900E-07,-0.016
-8.800E-07,0.008
-8.700E-07,0.008
-8.600E-07,0.024
-8.500E-07,0.016
-8.400E-07,0.008
-8.300E-07,0.000
-8.200E-07,-0.008
-8.100E-07,0.000
-8.000E-07,0.016
-7.900E-07,0.016
-7.800E-07,0.016
-7.700E-07,0.016
-7.600E-07,0.024
-7.500E-07,0.000
-7.400E-07,0.008
-7.300E-07,0.024
-7.200E-07,0.024
-7.100E-07,-0.008
-7.000E-07,-0.024
-6.900E-07,-0.032
-6.800E-07,-0.016
-6.700E-07,0.032
-6.600E-07,0.032
-6.500E-07,0.032
-6.400E-07,0.016
-6.300E-07,-0.016
-6.200E-07,-0.056
-6.100E-07,-0.048
-6.000E-07,-0.008
-5.900E-07,0.032
-5.800E-07,0.064
-5.700E-07,0.048
-5.600E-07,0.024
-5.500E-07,-0.024
-5.400E-07,-0.040
-5.300E-07,-0.032
-5.200E-07,0.000
-5.100E-07,0.032
-5.000E-07,0.056
-4.900E-07,0.040
-4.800E-07,0.024
-4.700E-07,-0.016
-4.600E-07,-0.016
-4.500E-07,-0.008
-4.400E-07,-0.016
-4.300E-07,0.016
-4.200E-07,0.040
-4.100E-07,0.040
-4.000E-07,0.032
-3.900E-07,0.024
-3.800E-07,0.000
-3.700E-07,-0.016
-3.600E-07,-0.016
-3.500E-07,0.000
-3.400E-07,0.016
-3.300E-07,0.016
-3.200E-07,0.032
-3.100E-07,0.040
-3.000E-07,0.040
-2.900E-07,0.008
-2.800E-07,-0.008
-2.700E-07,0.000
-2.600E-07,0.000
-2.500E-07,0.016
-2.400E-07,0.016
-2.300E-07,0.032
-2.200E-07,0.016
-2.100E-07,0.008
-2.000E-07,0.008
-1.900E-07,0.016
-1.800E-07,0.016
-1.700E-07,0.032
-1.600E-07,0.016
-1.500E-07,0.032
-1.400E-07,0.104
-1.300E-07,0.040
-1.200E-07,0.048
-1.100E-07,0.048
-1.000E-07,0.016
-9.000E-08,0.088
-8.000E-08,0.072
-7.000E-08,0.040
-6.000E-08,-0.048
-5.000E-08,-0.632
-4.000E-08,-0.056
-3.000E-08,-0.064
-2.000E-08,0.432
-1.000E-08,0.080
0.000E+00,0.280
1.000E-08,-0.024
2.000E-08,-0.208
3.000E-08,-0.192
4.000E-08,-0.272
5.000E-08,0.048
6.000E-08,0.168
7.000E-08,0.328
8.000E-08,0.368
9.000E-08,0.088
1.000E-07,0.024
1.100E-07,-0.200
1.200E-07,-0.312
1.300E-07,-0.296
1.400E-07,0.128
1.500E-07,-0.008
1.600E-07,0.224
1.700E-07,0.152
1.800E-07,-0.144
1.900E-07,-0.160
2.000E-07,-0.168
2.100E-07,-0.016
2.200E-07,0.056
2.300E-07,0.216
2.400E-07,0.168
2.500E-07,0.096
2.600E-07,-0.040
2.700E-07,-0.128
2.800E-07,-0.112
2.900E-07,-0.024
3.000E-07,0.080
3.100E-07,0.136
3.200E-07,0.128
3.300E-07,0.064
3.400E-07,0.024
3.500E-07,-0.008
3.600E-07,0.016
3.700E-07,0.032
3.800E-07,0.096
3.900E-07,0.008
4.000E-07,-0.008
4.100E-07,0.000
4.200E-07,-0.040
4.300E-07,-0.016
4.400E-07,0.048
4.500E-07,0.064
4.600E-07,0.056
4.700E-07,0.088
4.800E-07,0.032
4.900E-07,0.056
5.000E-07,0.048
5.100E-07,0.016
5.200E-07,0.016
5.300E-07,0.000
5.400E-07,0.048
5.500E-07,0.040
5.600E-07,0.096
5.700E-07,0.056
5.800E-07,-0.048
5.900E-07,-0.152
6.000E-07,-0.384
6.100E-07,-0.280
6.200E-07,0.008
6.300E-07,0.152
6.400E-07,0.208
6.500E-07,-0.024
6.600E-07,-0.080
6.700E-07,-0.064
6.800E-07,-0.080
6.900E-07,0.024
7.000E-07,0.080
7.100E-07,0.176
7.200E-07,0.144
7.300E-07,0.080
7.400E-07,0.016
7.500E-07,-0.008
7.600E-07,-0.008
7.700E-07,0.056
7.800E-07,0.152
7.900E-07,0.168
8.000E-07,0.104
8.100E-07,0.064
8.200E-07,-0.040
8.300E-07,-0.080
8.400E-07,-0.008
8.500E-07,0.048
8.600E-07,0.120
8.700E-07,0.176
8.800E-07,0.144
8.900E-07,0.064
9.000E-07,0.016
9.100E-07,-0.008
9.200E-07,0.064
9.300E-07,0.176
9.400E-07,0.160
9.500E-07,0.192
9.600E-07,-0.016
9.700E-07,-0.136
9.800E-07,-0.216
9.900E-07,-0.224
1.000E-06,-0.176
1.010E-06,-0.112
1.020E-06,0.352
1.030E-06,0.072
1.040E-06,0.056
1.050E-06,-0.152
1.060E-06,-0.216
1.070E-06,-0.152
1.080E-06,-0.144
1.090E-06,0.040
1.100E-06,0.176
1.110E-06,0.280
1.120E-06,0.344
1.130E-06,0.064
1.140E-06,-0.064
1.150E-06,-0.240
1.160E-06,-0.184
1.170E-06,0.080
1.180E-06,0.224
1.190E-06,0.408
1.200E-06,0.320
1.210E-06,0.280
1.220E-06,0.152
1.230E-06,0.048
1.240E-06,-0.056
1.250E-06,0.048
1.260E-06,0.176
1.270E-06,0.296
1.280E-06,0.240
1.290E-06,0.152
1.300E-06,0.184
1.310E-06,0.120
1.320E-06,0.136
1.330E-06,0.216
1.340E-06,0.248
1.350E-06,0.416
1.360E-06,0.352
1.370E-06,0.368
1.380E-06,0.256
1.390E-06,0.184
1.400E-06,0.184
1.410E-06,0.096
1.420E-06,-0.048
1.430E-06,-0.656
1.440E-06,-0.632
1.450E-06,-0.680
1.460E-06,0.040
1.470E-06,0.592
1.480E-06,1.080
1.490E-06,1.080
1.500E-06,0.472
1.510E-06,-0.024
1.520E-06,-0.872
1.530E-06,-1.024
1.540E-06,-0.920
1.550E-06,-0.352
1.560E-06,0.352
1.570E-06,0.736
1.580E-06,0.424
1.590E-06,-0.072
1.600E-06,-0.456
1.610E-06,-0.704
1.620E-06,-0.832
1.630E-06,-0.496
1.640E-06,0.384
1.650E-06,0.480
1.660E-06,0.520
1.670E-06,0.272
1.680E-06,0.040
1.690E-06,-0.192
1.700E-06,-0.528
1.710E-06,-0.296
1.720E-06,-0.008
1.730E-06,0.416
1.740E-06,0.504
1.750E-06,0.552
1.760E-06,0.368
1.770E-06,0.224
1.780E-06,0.064
1.790E-06,-0.136
1.800E-06,0.064
1.810E-06,0.288
1.820E-06,0.520
1.830E-06,0.608
1.840E-06,0.512
1.850E-06,0.360
1.860E-06,0.136
1.870E-06,0.024
1.880E-06,0.000
1.890E-06,0.064
1.900E-06,0.176
1.910E-06,0.232
1.920E-06,0.360
1.930E-06,0.288
1.940E-06,0.184
1.950E-06,0.096
1.960E-06,0.040
1.970E-06,0.016
1.980E-06,0.040
1.990E-06,0.096
2.000E-06,0.096
2.010E-06,0.080
2.020E-06,0.136
2.030E-06,0.112
2.040E-06,0.152
2.050E-06,0.192
2.060E-06,0.256
2.070E-06,0.352
2.080E-06,0.384
2.090E-06,0.400
2.100E-06,0.328
2.110E-06,0.296
2.120E-06,0.200
2.130E-06,0.240
2.140E-06,0.264
2.150E-06,0.288
2.160E-06,0.312
2.170E-06,0.304
2.180E-06,0.264
2.190E-06,0.240
2.200E-06,0.216
2.210E-06,0.256
2.220E-06,0.296
2.230E-06,0.328
2.240E-06,0.392
2.250E-06,0.376
2.260E-06,0.336
2.270E-06,0.296
2.280E-06,0.248
2.290E-06,0.240
2.300E-06,0.248
2.310E-06,0.288
2.320E-06,0.328
2.330E-06,0.352
2.340E-06,0.336
2.350E-06,0.328
2.360E-06,0.280
2.370E-06,0.272
2.380E-06,0.280
2.390E-06,0.296
2.400E-06,0.328
2.410E-06,0.320
2.420E-06,0.336
2.430E-06,0.328
2.440E-06,0.312
2.450E-06,0.296
2.460E-06,0.304
2.470E-06,0.312
2.480E-06,0.336
2.490E-06,0.328
2.500E-06,0.320
2.510E-06,0.312
2.520E-06,0.312
2.530E-06,0.312
2.540E-06,0.288
2.550E-06,0.304
2.560E-06,0.312
2.570E-06,0.320
2.580E-06,0.328
2.590E-06,0.320
2.600E-06,0.328
2.610E-06,0.312
2.620E-06,0.320
2.630E-06,0.304
2.640E-06,0.304
2.650E-06,0.312
2.660E-06,0.320
2.670E-06,0.304
2.680E-06,0.296
2.690E-06,0.304
2.700E-06,0.288
2.710E-06,0.296
2.720E-06,0.312
2.730E-06,0.320
2.740E-06,0.304
2.750E-06,0.312
2.760E-06,0.312
2.770E-06,0.320
2.780E-06,0.312
2.790E-06,0.312
2.800E-06,0.296
2.810E-06,0.304
2.820E-06,0.320
2.830E-06,0.312
2.840E-06,0.312
2.850E-06,0.312
2.860E-06,0.304
2.870E-06,0.304
2.880E-06,0.304
2.890E-06,0.296
2.900E-06,0.304
2.910E-06,0.312
2.920E-06,0.304
2.930E-06,0.304
2.940E-06,0.304
2.950E-06,0.288
2.960E-06,0.304
2.970E-06,0.320
2.980E-06,0.304
2.990E-06,0.304
3.000E-06,0.312
3.010E-06,0.312
3.020E-06,0.288
3.030E-06,0.296
3.040E-06,0.296
3.050E-06,0.304
3.060E-06,0.304
3.070E-06,0.320
3.080E-06,0.304
3.090E-06,0.296
3.100E-06,0.296
3.110E-06,0.296
3.120E-06,0.304
3.130E-06,0.296
3.140E-06,0.288
3.150E-06,0.296
3.160E-06,0.304
3.170E-06,0.304
3.180E-06,0.288
3.190E-06,0.288
3.200E-06,0.288
3.210E-06,0.288
3.220E-06,0.296
3.230E-06,0.280
3.240E-06,0.280
3.250E-06,0.288
3.260E-06,0.296
3.270E-06,0.280
3.280E-06,0.272
3.290E-06,0.280
3.300E-06,0.272
3.310E-06,0.272
3.320E-06,0.280
3.330E-06,0.272
3.340E-06,0.280
3.350E-06,0.280
3.360E-06,0.272
3.370E-06,0.280
3.380E-06,0.280
3.390E-06,0.280
3.400E-06,0.288
3.410E-06,0.272
3.420E-06,0.280
3.430E-06,0.280
3.440E-06,0.264
3.450E-06,0.272
3.460E-06,0.264
3.470E-06,0.272
3.480E-06,0.272
3.490E-06,0.272
3.500E-06,0.280
3.510E-06,0.272
3.520E-06,0.264
3.530E-06,0.272
3.540E-06,0.264
3.550E-06,0.264
3.560E-06,0.264
3.570E-06,0.264
3.580E-06,0.264
3.590E-06,0.264
3.600E-06,0.264
3.610E-06,0.256
