mediciones/6-26/40.0/WaveData59287.csv

#timebase=2000000(ps)
,#voltbase=500000(mv/100)
#size=4000
-8.150E-06,0.080
-8.140E-06,0.060
-8.130E-06,0.080
-8.120E-06,0.080
-8.110E-06,0.040
-8.100E-06,0.080
-8.090E-06,0.120
-8.080E-06,0.080
-8.070E-06,0.100
-8.060E-06,0.100
-8.050E-06,0.060
-8.040E-06,0.080
-8.030E-06,0.080
-8.020E-06,0.100
-8.010E-06,0.080
-8.000E-06,0.080
-7.990E-06,0.080
-7.980E-06,0.080
-7.970E-06,0.060
-7.960E-06,0.080
-7.950E-06,0.060
-7.940E-06,0.080
-7.930E-06,0.100
-7.920E-06,0.060
-7.910E-06,0.080
-7.900E-06,0.080
-7.890E-06,0.080
-7.880E-06,0.040
-7.870E-06,0.080
-7.860E-06,0.100
-7.850E-06,0.080
-7.840E-06,0.100
-7.830E-06,0.040
-7.820E-06,0.060
-7.810E-06,0.080
-7.800E-06,0.080
-7.790E-06,0.080
-7.780E-06,0.080
-7.770E-06,0.080
-7.760E-06,0.060
-7.750E-06,0.060
-7.740E-06,0.080
-7.730E-06,0.060
-7.720E-06,0.060
-7.710E-06,0.080
-7.700E-06,0.080
-7.690E-06,0.080
-7.680E-06,0.100
-7.670E-06,0.060
-7.660E-06,0.080
-7.650E-06,0.080
-7.640E-06,0.080
-7.630E-06,0.080
-7.620E-06,0.080
-7.610E-06,0.040
-7.600E-06,0.020
-7.590E-06,0.060
-7.580E-06,0.080
-7.570E-06,0.080
-7.560E-06,0.120
-7.550E-06,0.100
-7.540E-06,0.040
-7.530E-06,0.080
-7.520E-06,0.080
-7.510E-06,0.080
-7.500E-06,0.080
-7.490E-06,0.060
-7.480E-06,0.080
-7.470E-06,0.080
-7.460E-06,0.080
-7.450E-06,0.100
-7.440E-06,0.060
-7.430E-06,0.060
-7.420E-06,0.080
-7.410E-06,0.060
-7.400E-06,0.060
-7.390E-06,0.100
-7.380E-06,0.060
-7.370E-06,0.080
-7.360E-06,0.040
-7.350E-06,0.080
-7.340E-06,0.100
-7.330E-06,0.080
-7.320E-06,0.080
-7.310E-06,0.060
-7.300E-06,0.040
-7.290E-06,0.080
-7.280E-06,0.060
-7.270E-06,0.080
-7.260E-06,0.100
-7.250E-06,0.080
-7.240E-06,0.080
-7.230E-06,0.060
-7.220E-06,0.040
-7.210E-06,0.060
-7.200E-06,0.080
-7.190E-06,0.060
-7.180E-06,0.080
-7.170E-06,0.080
-7.160E-06,0.100
-7.150E-06,0.100
-7.140E-06,0.100
-7.130E-06,0.040
-7.120E-06,0.060
-7.110E-06,0.040
-7.100E-06,0.100
-7.090E-06,0.080
-7.080E-06,0.100
-7.070E-06,0.100
-7.060E-06,0.080
-7.050E-06,0.100
-7.040E-06,0.060
-7.030E-06,0.080
-7.020E-06,0.080
-7.010E-06,0.080
-7.000E-06,0.100
-6.990E-06,0.040
-6.980E-06,0.100
-6.970E-06,0.080
-6.960E-06,0.020
-6.950E-06,0.080
-6.940E-06,0.080
-6.930E-06,0.060
-6.920E-06,0.060
-6.910E-06,0.120
-6.900E-06,0.060
-6.890E-06,0.100
-6.880E-06,0.080
-6.870E-06,0.060
-6.860E-06,0.080
-6.850E-06,0.060
-6.840E-06,0.100
-6.830E-06,0.100
-6.820E-06,0.080
-6.810E-06,0.080
-6.800E-06,0.080
-6.790E-06,0.080
-6.780E-06,0.040
-6.770E-06,0.080
-6.760E-06,0.060
-6.750E-06,0.060
-6.740E-06,0.060
-6.730E-06,0.080
-6.720E-06,0.100
-6.710E-06,0.080
-6.700E-06,0.080
-6.690E-06,0.080
-6.680E-06,0.080
-6.670E-06,0.080
-6.660E-06,0.060
-6.650E-06,0.080
-6.640E-06,0.080
-6.630E-06,0.060
-6.620E-06,0.060
-6.610E-06,0.040
-6.600E-06,0.080
-6.590E-06,0.040
-6.580E-06,0.040
-6.570E-06,0.080
-6.560E-06,0.080
-6.550E-06,0.080
-6.540E-06,0.100
-6.530E-06,0.060
-6.520E-06,0.080
-6.510E-06,0.080
-6.500E-06,0.060
-6.490E-06,0.100
-6.480E-06,0.140
-6.470E-06,0.100
-6.460E-06,0.100
-6.450E-06,0.120
-6.440E-06,0.060
-6.430E-06,0.060
-6.420E-06,0.100
-6.410E-06,0.100
-6.400E-06,0.100
-6.390E-06,0.100
-6.380E-06,0.080
-6.370E-06,0.080
-6.360E-06,0.060
-6.350E-06,0.080
-6.340E-06,0.100
-6.330E-06,0.100
-6.320E-06,0.080
-6.310E-06,0.080
-6.300E-06,0.040
-6.290E-06,0.080
-6.280E-06,0.040
-6.270E-06,0.080
-6.260E-06,0.080
-6.250E-06,0.100
-6.240E-06,0.080
-6.230E-06,0.100
-6.220E-06,0.080
-6.210E-06,0.060
-6.200E-06,0.080
-6.190E-06,0.060
-6.180E-06,0.060
-6.170E-06,0.080
-6.160E-06,0.100
-6.150E-06,0.100
-6.140E-06,0.060
-6.130E-06,0.080
-6.120E-06,0.060
-6.110E-06,0.060
-6.100E-06,0.080
-6.090E-06,0.100
-6.080E-06,0.020
-6.070E-06,0.100
-6.060E-06,0.060
-6.050E-06,0.080
-6.040E-06,0.120
-6.030E-06,0.080
-6.020E-06,0.060
-6.010E-06,0.080
-6.000E-06,0.100
-5.990E-06,0.060
-5.980E-06,0.080
-5.970E-06,0.080
-5.960E-06,0.060
-5.950E-06,0.100
-5.940E-06,0.080
-5.930E-06,0.060
-5.920E-06,0.080
-5.910E-06,0.100
-5.900E-06,0.120
-5.890E-06,0.080
-5.880E-06,0.080
-5.870E-06,0.060
-5.860E-06,0.080
-5.850E-06,0.100
-5.840E-06,0.060
-5.830E-06,0.080
-5.820E-06,0.060
-5.810E-06,0.080
-5.800E-06,0.100
-5.790E-06,0.040
-5.780E-06,0.060
-5.770E-06,0.100
-5.760E-06,0.100
-5.750E-06,0.080
-5.740E-06,0.080
-5.730E-06,0.040
-5.720E-06,0.080
-5.710E-06,0.100
-5.700E-06,0.100
-5.690E-06,0.080
-5.680E-06,0.060
-5.670E-06,0.040
-5.660E-06,0.060
-5.650E-06,0.080
-5.640E-06,0.080
-5.630E-06,0.100
-5.620E-06,0.140
-5.610E-06,0.060
-5.600E-06,0.080
-5.590E-06,0.060
-5.580E-06,0.100
-5.570E-06,0.080
-5.560E-06,0.080
-5.550E-06,0.060
-5.540E-06,0.080
-5.530E-06,0.080
-5.520E-06,0.100
-5.510E-06,0.140
-5.500E-06,0.160
-5.490E-06,0.160
-5.480E-06,0.120
-5.470E-06,0.120
-5.460E-06,0.120
-5.450E-06,0.040
-5.440E-06,0.100
-5.430E-06,0.080
-5.420E-06,0.120
-5.410E-06,0.100
-5.400E-06,0.120
-5.390E-06,0.100
-5.380E-06,0.100
-5.370E-06,0.060
-5.360E-06,0.080
-5.350E-06,0.060
-5.340E-06,0.100
-5.330E-06,0.080
-5.320E-06,0.060
-5.310E-06,0.080
-5.300E-06,0.080
-5.290E-06,0.060
-5.280E-06,0.100
-5.270E-06,0.080
-5.260E-06,0.080
-5.250E-06,0.080
-5.240E-06,0.060
-5.230E-06,0.080
-5.220E-06,0.080
-5.210E-06,0.040
-5.200E-06,0.040
-5.190E-06,0.080
-5.180E-06,0.080
-5.170E-06,0.060
-5.160E-06,0.080
-5.150E-06,0.060
-5.140E-06,0.040
-5.130E-06,0.060
-5.120E-06,0.080
-5.110E-06,0.100
-5.100E-06,0.060
-5.090E-06,0.060
-5.080E-06,0.060
-5.070E-06,0.080
-5.060E-06,0.080
-5.050E-06,0.100
-5.040E-06,0.060
-5.030E-06,0.100
-5.020E-06,0.040
-5.010E-06,0.040
-5.000E-06,0.060
-4.990E-06,0.080
-4.980E-06,0.160
-4.970E-06,0.200
-4.960E-06,0.180
-4.950E-06,0.140
-4.940E-06,0.120
-4.930E-06,0.080
-4.920E-06,0.140
-4.910E-06,0.160
-4.900E-06,0.120
-4.890E-06,0.160
-4.880E-06,0.120
-4.870E-06,0.100
-4.860E-06,0.080
-4.850E-06,0.080
-4.840E-06,0.080
-4.830E-06,0.100
-4.820E-06,0.100
-4.810E-06,0.100
-4.800E-06,0.100
-4.790E-06,0.100
-4.780E-06,0.060
-4.770E-06,0.020
-4.760E-06,0.040
-4.750E-06,0.040
-4.740E-06,0.080
-4.730E-06,0.100
-4.720E-06,0.040
-4.710E-06,0.060
-4.700E-06,0.040
-4.690E-06,0.060
-4.680E-06,0.100
-4.670E-06,0.020
-4.660E-06,0.040
-4.650E-06,0.040
-4.640E-06,0.080
-4.630E-06,0.140
-4.620E-06,0.180
-4.610E-06,0.160
-4.600E-06,0.180
-4.590E-06,0.080
-4.580E-06,0.080
-4.570E-06,0.100
-4.560E-06,0.100
-4.550E-06,0.160
-4.540E-06,0.180
-4.530E-06,0.160
-4.520E-06,0.120
-4.510E-06,0.100
-4.500E-06,0.100
-4.490E-06,0.100
-4.480E-06,0.100
-4.470E-06,0.100
-4.460E-06,0.120
-4.450E-06,0.080
-4.440E-06,0.100
-4.430E-06,0.040
-4.420E-06,0.040
-4.410E-06,0.100
-4.400E-06,0.080
-4.390E-06,0.100
-4.380E-06,0.100
-4.370E-06,0.060
-4.360E-06,0.060
-4.350E-06,0.080
-4.340E-06,0.040
-4.330E-06,0.060
-4.320E-06,0.080
-4.310E-06,0.100
-4.300E-06,0.140
-4.290E-06,0.100
-4.280E-06,0.060
-4.270E-06,0.100
-4.260E-06,0.080
-4.250E-06,0.000
-4.240E-06,0.100
-4.230E-06,0.060
-4.220E-06,0.080
-4.210E-06,0.100
-4.200E-06,0.080
-4.190E-06,0.120
-4.180E-06,0.060
-4.170E-06,0.080
-4.160E-06,0.080
-4.150E-06,0.080
-4.140E-06,0.080
-4.130E-06,0.120
-4.120E-06,0.060
-4.110E-06,0.080
-4.100E-06,0.100
-4.090E-06,0.060
-4.080E-06,0.100
-4.070E-06,0.060
-4.060E-06,0.060
-4.050E-06,0.080
-4.040E-06,0.000
-4.030E-06,0.080
-4.020E-06,0.000
-4.010E-06,-0.020
-4.000E-06,0.000
-3.990E-06,0.020
-3.980E-06,0.140
-3.970E-06,0.160
-3.960E-06,0.140
-3.950E-06,0.140
-3.940E-06,0.040
-3.930E-06,0.140
-3.920E-06,0.120
-3.910E-06,0.180
-3.900E-06,0.160
-3.890E-06,0.140
-3.880E-06,0.080
-3.870E-06,0.080
-3.860E-06,0.080
-3.850E-06,0.160
-3.840E-06,0.120
-3.830E-06,0.120
-3.820E-06,0.120
-3.810E-06,0.080
-3.800E-06,0.120
-3.790E-06,0.080
-3.780E-06,0.140
-3.770E-06,0.020
-3.760E-06,0.040
-3.750E-06,0.020
-3.740E-06,-0.020
-3.730E-06,0.040
-3.720E-06,0.060
-3.710E-06,0.080
-3.700E-06,0.180
-3.690E-06,0.140
-3.680E-06,0.140
-3.670E-06,0.140
-3.660E-06,0.080
-3.650E-06,0.080
-3.640E-06,0.080
-3.630E-06,0.120
-3.620E-06,0.140
-3.610E-06,0.100
-3.600E-06,0.080
-3.590E-06,0.040
-3.580E-06,0.000
-3.570E-06,0.080
-3.560E-06,0.120
-3.550E-06,0.160
-3.540E-06,0.160
-3.530E-06,0.140
-3.520E-06,0.100
-3.510E-06,0.020
-3.500E-06,0.060
-3.490E-06,0.080
-3.480E-06,0.100
-3.470E-06,0.120
-3.460E-06,0.100
-3.450E-06,0.120
-3.440E-06,0.180
-3.430E-06,0.140
-3.420E-06,0.120
-3.410E-06,0.100
-3.400E-06,0.100
-3.390E-06,0.080
-3.380E-06,0.080
-3.370E-06,0.100
-3.360E-06,0.060
-3.350E-06,0.080
-3.340E-06,0.060
-3.330E-06,0.080
-3.320E-06,0.040
-3.310E-06,0.040
-3.300E-06,0.060
-3.290E-06,0.080
-3.280E-06,0.100
-3.270E-06,0.020
-3.260E-06,0.040
-3.250E-06,0.020
-3.240E-06,0.060
-3.230E-06,0.060
-3.220E-06,0.080
-3.210E-06,0.100
-3.200E-06,0.040
-3.190E-06,0.040
-3.180E-06,0.060
-3.170E-06,0.040
-3.160E-06,0.080
-3.150E-06,0.080
-3.140E-06,0.080
-3.130E-06,0.120
-3.120E-06,0.100
-3.110E-06,0.080
-3.100E-06,0.080
-3.090E-06,0.080
-3.080E-06,0.080
-3.070E-06,0.100
-3.060E-06,0.120
-3.050E-06,0.120
-3.040E-06,0.100
-3.030E-06,0.100
-3.020E-06,0.080
-3.010E-06,0.100
-3.000E-06,0.080
-2.990E-06,0.120
-2.980E-06,0.120
-2.970E-06,0.080
-2.960E-06,0.080
-2.950E-06,0.040
-2.940E-06,0.040
-2.930E-06,0.100
-2.920E-06,0.060
-2.910E-06,0.060
-2.900E-06,0.040
-2.890E-06,0.040
-2.880E-06,0.060
-2.870E-06,0.080
-2.860E-06,0.040
-2.850E-06,0.040
-2.840E-06,0.100
-2.830E-06,0.140
-2.820E-06,0.220
-2.810E-06,0.180
-2.800E-06,0.160
-2.790E-06,0.140
-2.780E-06,0.100
-2.770E-06,0.060
-2.760E-06,0.120
-2.750E-06,0.180
-2.740E-06,0.120
-2.730E-06,0.160
-2.720E-06,0.120
-2.710E-06,0.100
-2.700E-06,0.080
-2.690E-06,0.140
-2.680E-06,0.160
-2.670E-06,0.140
-2.660E-06,0.140
-2.650E-06,0.100
-2.640E-06,0.060
-2.630E-06,0.080
-2.620E-06,0.060
-2.610E-06,0.040
-2.600E-06,-0.020
-2.590E-06,0.000
-2.580E-06,-0.020
-2.570E-06,0.000
-2.560E-06,0.060
-2.550E-06,0.200
-2.540E-06,0.240
-2.530E-06,0.260
-2.520E-06,0.180
-2.510E-06,0.160
-2.500E-06,0.120
-2.490E-06,0.120
-2.480E-06,0.180
-2.470E-06,0.220
-2.460E-06,0.180
-2.450E-06,0.160
-2.440E-06,0.080
-2.430E-06,0.060
-2.420E-06,0.100
-2.410E-06,0.120
-2.400E-06,0.120
-2.390E-06,0.020
-2.380E-06,0.060
-2.370E-06,0.040
-2.360E-06,0.000
-2.350E-06,0.040
-2.340E-06,-0.020
-2.330E-06,0.000
-2.320E-06,0.080
-2.310E-06,0.100
-2.300E-06,0.120
-2.290E-06,0.040
-2.280E-06,0.020
-2.270E-06,0.020
-2.260E-06,0.080
-2.250E-06,0.100
-2.240E-06,0.160
-2.230E-06,0.160
-2.220E-06,0.060
-2.210E-06,0.080
-2.200E-06,0.060
-2.190E-06,0.060
-2.180E-06,0.160
-2.170E-06,0.140
-2.160E-06,0.120
-2.150E-06,0.120
-2.140E-06,0.060
-2.130E-06,0.100
-2.120E-06,0.100
-2.110E-06,0.100
-2.100E-06,0.120
-2.090E-06,0.080
-2.080E-06,0.100
-2.070E-06,0.080
-2.060E-06,0.080
-2.050E-06,0.060
-2.040E-06,0.040
-2.030E-06,0.080
-2.020E-06,0.080
-2.010E-06,0.040
-2.000E-06,0.000
-1.990E-06,-0.040
-1.980E-06,-0.020
-1.970E-06,0.000
-1.960E-06,0.080
-1.950E-06,0.260
-1.940E-06,0.280
-1.930E-06,0.320
-1.920E-06,0.300
-1.910E-06,0.220
-1.900E-06,0.140
-1.890E-06,0.060
-1.880E-06,0.080
-1.870E-06,0.120
-1.860E-06,0.140
-1.850E-06,0.220
-1.840E-06,0.160
-1.830E-06,0.140
-1.820E-06,0.060
-1.810E-06,0.020
-1.800E-06,0.040
-1.790E-06,0.080
-1.780E-06,0.100
-1.770E-06,0.100
-1.760E-06,0.080
-1.750E-06,0.060
-1.740E-06,0.020
-1.730E-06,0.040
-1.720E-06,0.020
-1.710E-06,0.060
-1.700E-06,0.020
-1.690E-06,0.000
-1.680E-06,-0.040
-1.670E-06,-0.120
-1.660E-06,-0.060
-1.650E-06,-0.040
-1.640E-06,-0.020
-1.630E-06,0.040
-1.620E-06,0.060
-1.610E-06,0.080
-1.600E-06,0.100
-1.590E-06,0.100
-1.580E-06,0.180
-1.570E-06,0.220
-1.560E-06,0.220
-1.550E-06,0.260
-1.540E-06,0.220
-1.530E-06,0.160
-1.520E-06,0.140
-1.510E-06,0.140
-1.500E-06,0.120
-1.490E-06,0.180
-1.480E-06,0.180
-1.470E-06,0.160
-1.460E-06,0.180
-1.450E-06,0.100
-1.440E-06,0.140
-1.430E-06,0.160
-1.420E-06,0.140
-1.410E-06,0.200
-1.400E-06,0.180
-1.390E-06,0.160
-1.380E-06,0.080
-1.370E-06,0.080
-1.360E-06,0.080
-1.350E-06,0.160
-1.340E-06,0.220
-1.330E-06,0.240
-1.320E-06,0.260
-1.310E-06,0.200
-1.300E-06,0.200
-1.290E-06,0.140
-1.280E-06,0.000
-1.270E-06,0.040
-1.260E-06,0.080
-1.250E-06,0.220
-1.240E-06,0.260
-1.230E-06,0.240
-1.220E-06,0.140
-1.210E-06,0.040
-1.200E-06,0.000
-1.190E-06,0.000
-1.180E-06,0.100
-1.170E-06,0.180
-1.160E-06,0.200
-1.150E-06,0.240
-1.140E-06,0.160
-1.130E-06,0.080
-1.120E-06,0.000
-1.110E-06,0.000
-1.100E-06,0.060
-1.090E-06,0.160
-1.080E-06,0.220
-1.070E-06,0.220
-1.060E-06,0.180
-1.050E-06,0.160
-1.040E-06,0.200
-1.030E-06,0.260
-1.020E-06,0.300
-1.010E-06,0.280
-1.000E-06,0.260
-9.900E-07,0.160
-9.800E-07,0.120
-9.700E-07,0.080
-9.600E-07,0.080
-9.500E-07,0.160
-9.400E-07,0.200
-9.300E-07,0.240
-9.200E-07,0.220
-9.100E-07,0.220
-9.000E-07,0.220
-8.900E-07,0.300
-8.800E-07,0.320
-8.700E-07,0.380
-8.600E-07,0.520
-8.500E-07,0.420
-8.400E-07,0.240
-8.300E-07,0.240
-8.200E-07,0.280
-8.100E-07,0.460
-8.000E-07,0.700
-7.900E-07,0.940
-7.800E-07,1.040
-7.700E-07,1.000
-7.600E-07,0.700
-7.500E-07,0.500
-7.400E-07,0.400
-7.300E-07,0.320
-7.200E-07,0.440
-7.100E-07,0.380
-7.000E-07,0.420
-6.900E-07,0.320
-6.800E-07,0.220
-6.700E-07,0.200
-6.600E-07,0.280
-6.500E-07,0.780
-6.400E-07,1.200
-6.300E-07,1.420
-6.200E-07,1.300
-6.100E-07,0.720
-6.000E-07,0.080
-5.900E-07,-0.240
-5.800E-07,-0.340
-5.700E-07,-0.220
-5.600E-07,-0.020
-5.500E-07,-0.060
-5.400E-07,-0.260
-5.300E-07,-0.500
-5.200E-07,-0.800
-5.100E-07,-1.000
-5.000E-07,-1.120
-4.900E-07,-1.200
-4.800E-07,-1.260
-4.700E-07,-1.280
-4.600E-07,-1.260
-4.500E-07,-1.040
-4.400E-07,-0.980
-4.300E-07,-0.860
-4.200E-07,-0.680
-4.100E-07,-0.340
-4.000E-07,-0.200
-3.900E-07,0.100
-3.800E-07,0.380
-3.700E-07,0.640
-3.600E-07,1.160
-3.500E-07,1.520
-3.400E-07,1.880
-3.300E-07,2.140
-3.200E-07,2.120
-3.100E-07,2.000
-3.000E-07,2.020
-2.900E-07,1.860
-2.800E-07,1.680
-2.700E-07,1.460
-2.600E-07,1.180
-2.500E-07,0.960
-2.400E-07,0.860
-2.300E-07,0.700
-2.200E-07,0.700
-2.100E-07,0.660
-2.000E-07,0.500
-1.900E-07,0.500
-1.800E-07,0.420
-1.700E-07,0.320
-1.600E-07,0.120
-1.500E-07,-0.060
-1.400E-07,-0.380
-1.300E-07,-0.700
-1.200E-07,-1.020
-1.100E-07,-1.180
-1.000E-07,-1.520
-9.000E-08,-1.780
-8.000E-08,-1.540
-7.000E-08,-0.640
-6.000E-08,-0.020
-5.000E-08,0.880
-4.000E-08,1.240
-3.000E-08,0.780
-2.000E-08,0.980
-1.000E-08,1.720
0.000E+00,2.740
1.000E-08,2.760
2.000E-08,2.780
3.000E-08,2.780
4.000E-08,2.480
5.000E-08,0.760
6.000E-08,0.120
7.000E-08,-0.140
8.000E-08,-0.080
9.000E-08,0.480
1.000E-07,0.780
1.100E-07,0.820
1.200E-07,0.860
1.300E-07,0.420
1.400E-07,-0.040
1.500E-07,-0.380
1.600E-07,-0.620
1.700E-07,-0.680
1.800E-07,-0.540
1.900E-07,-0.580
2.000E-07,-0.740
2.100E-07,-1.060
2.200E-07,-1.340
2.300E-07,-1.480
2.400E-07,-1.600
2.500E-07,-1.340
2.600E-07,-1.360
2.700E-07,-1.480
2.800E-07,-1.580
2.900E-07,-1.800
3.000E-07,-1.860
3.100E-07,-1.780
3.200E-07,-1.820
3.300E-07,-1.700
3.400E-07,-1.780
3.500E-07,-1.540
3.600E-07,-1.080
3.700E-07,-0.940
3.800E-07,-0.400
3.900E-07,-0.120
4.000E-07,-0.520
4.100E-07,-0.340
4.200E-07,-0.480
4.300E-07,-0.520
4.400E-07,0.540
4.500E-07,1.680
4.600E-07,2.760
4.700E-07,2.760
4.800E-07,2.760
4.900E-07,2.780
5.000E-07,2.780
5.100E-07,2.760
5.200E-07,2.780
5.300E-07,2.760
5.400E-07,2.760
5.500E-07,2.380
5.600E-07,2.040
5.700E-07,1.740
5.800E-07,1.320
5.900E-07,0.700
6.000E-07,0.020
6.100E-07,-0.480
6.200E-07,-0.920
6.300E-07,-1.240
6.400E-07,-1.280
6.500E-07,-1.080
6.600E-07,-0.820
6.700E-07,-0.540
6.800E-07,-0.420
6.900E-07,-0.640
7.000E-07,-1.080
7.100E-07,-1.540
7.200E-07,-1.920
7.300E-07,-2.160
7.400E-07,-2.300
7.500E-07,-2.440
7.600E-07,-2.440
7.700E-07,-2.420
7.800E-07,-2.260
7.900E-07,-1.920
8.000E-07,-1.640
8.100E-07,-1.520
8.200E-07,-1.560
8.300E-07,-1.680
8.400E-07,-1.820
8.500E-07,-2.000
8.600E-07,-2.100
8.700E-07,-2.180
8.800E-07,-2.240
8.900E-07,-2.280
9.000E-07,-2.120
9.100E-07,-2.060
9.200E-07,-1.940
9.300E-07,-1.760
9.400E-07,-1.880
9.500E-07,-1.480
9.600E-07,-0.860
9.700E-07,-0.240
9.800E-07,0.300
9.900E-07,0.660
1.000E-06,0.880
1.010E-06,1.520
1.020E-06,2.460
1.030E-06,2.760
1.040E-06,2.760
1.050E-06,2.760
1.060E-06,2.740
1.070E-06,2.760
1.080E-06,2.760
1.090E-06,2.780
1.100E-06,2.760
1.110E-06,2.740
1.120E-06,2.760
1.130E-06,2.760
1.140E-06,2.780
1.150E-06,1.780
1.160E-06,0.840
1.170E-06,0.160
1.180E-06,-0.300
1.190E-06,-0.800
1.200E-06,-1.100
1.210E-06,-1.540
1.220E-06,-2.000
1.230E-06,-2.380
1.240E-06,-2.660
1.250E-06,-2.660
1.260E-06,-2.660
1.270E-06,-2.660
1.280E-06,-2.660
1.290E-06,-2.660
1.300E-06,-2.660
1.310E-06,-2.660
1.320E-06,-2.620
1.330E-06,-2.160
1.340E-06,-1.560
1.350E-06,-0.920
1.360E-06,-0.540
1.370E-06,-0.360
1.380E-06,-0.280
1.390E-06,-0.400
1.400E-06,-0.480
1.410E-06,-0.660
1.420E-06,-0.780
1.430E-06,-0.960
1.440E-06,-1.180
1.450E-06,-1.160
1.460E-06,-1.080
1.470E-06,-0.760
1.480E-06,-0.320
1.490E-06,0.180
1.500E-06,0.680
1.510E-06,1.300
1.520E-06,1.880
1.530E-06,2.200
1.540E-06,2.260
1.550E-06,1.820
1.560E-06,0.760
1.570E-06,-0.240
1.580E-06,-1.160
1.590E-06,-1.760
1.600E-06,-2.020
1.610E-06,-1.740
1.620E-06,-1.300
1.630E-06,-0.340
1.640E-06,0.560
1.650E-06,1.580
1.660E-06,2.300
1.670E-06,2.780
1.680E-06,2.780
1.690E-06,2.760
1.700E-06,2.780
1.710E-06,2.760
1.720E-06,2.320
1.730E-06,1.820
1.740E-06,1.480
1.750E-06,1.000
1.760E-06,0.680
1.770E-06,0.340
1.780E-06,0.160
1.790E-06,-0.020
1.800E-06,-0.100
1.810E-06,0.000
1.820E-06,0.220
1.830E-06,0.440
1.840E-06,0.660
1.850E-06,0.880
1.860E-06,1.000
1.870E-06,1.100
1.880E-06,1.100
1.890E-06,1.080
1.900E-06,0.880
1.910E-06,0.520
1.920E-06,0.260
1.930E-06,-0.020
1.940E-06,-0.220
1.950E-06,-0.360
1.960E-06,-0.560
1.970E-06,-0.680
1.980E-06,-0.760
1.990E-06,-0.920
2.000E-06,-1.100
2.010E-06,-1.240
2.020E-06,-1.600
2.030E-06,-1.980
2.040E-06,-2.520
2.050E-06,-2.660
2.060E-06,-2.660
2.070E-06,-2.660
2.080E-06,-2.660
2.090E-06,-2.680
2.100E-06,-1.160
2.110E-06,-0.840
2.120E-06,1.280
2.130E-06,2.760
2.140E-06,2.360
2.150E-06,2.740
2.160E-06,2.760
2.170E-06,2.760
2.180E-06,2.760
2.190E-06,2.760
2.200E-06,2.780
2.210E-06,2.760
2.220E-06,2.740
2.230E-06,2.760
2.240E-06,2.780
2.250E-06,2.380
2.260E-06,-2.680
2.270E-06,-2.660
2.280E-06,-2.660
2.290E-06,-2.660
2.300E-06,-2.660
2.310E-06,-2.680
2.320E-06,-2.680
2.330E-06,-2.680
2.340E-06,-2.660
2.350E-06,-2.660
2.360E-06,0.780
2.370E-06,2.780
2.380E-06,2.780
2.390E-06,2.760
2.400E-06,2.780
2.410E-06,2.780
2.420E-06,2.760
2.430E-06,2.760
2.440E-06,2.760
2.450E-06,2.760
2.460E-06,2.760
2.470E-06,2.740
2.480E-06,2.140
2.490E-06,0.100
2.500E-06,-1.300
2.510E-06,-2.220
2.520E-06,-2.580
2.530E-06,-2.000
2.540E-06,-0.880
2.550E-06,0.580
2.560E-06,1.820
2.570E-06,2.780
2.580E-06,2.760
2.590E-06,2.760
2.600E-06,2.760
2.610E-06,2.740
2.620E-06,2.760
2.630E-06,2.760
2.640E-06,2.760
2.650E-06,2.780
2.660E-06,2.780
2.670E-06,2.240
2.680E-06,1.340
2.690E-06,0.640
2.700E-06,0.240
2.710E-06,0.220
2.720E-06,0.440
2.730E-06,0.800
2.740E-06,1.300
2.750E-06,1.840
2.760E-06,2.220
2.770E-06,2.380
2.780E-06,2.360
2.790E-06,2.180
2.800E-06,1.880
2.810E-06,1.500
2.820E-06,1.080
2.830E-06,0.760
2.840E-06,0.380
2.850E-06,0.120
2.860E-06,-0.080
2.870E-06,-0.180
2.880E-06,-0.180
2.890E-06,0.000
2.900E-06,0.340
2.910E-06,0.680
2.920E-06,1.040
2.930E-06,1.300
2.940E-06,1.480
2.950E-06,1.580
2.960E-06,1.560
2.970E-06,1.480
2.980E-06,1.380
2.990E-06,1.340
3.000E-06,1.320
3.010E-06,1.240
3.020E-06,1.140
3.030E-06,1.060
3.040E-06,0.920
3.050E-06,0.760
3.060E-06,0.520
3.070E-06,0.340
3.080E-06,0.260
3.090E-06,0.220
3.100E-06,0.260
3.110E-06,0.340
3.120E-06,0.500
3.130E-06,0.780
3.140E-06,1.080
3.150E-06,1.460
3.160E-06,1.840
3.170E-06,2.120
3.180E-06,2.320
3.190E-06,2.460
3.200E-06,2.520
3.210E-06,2.400
3.220E-06,2.200
3.230E-06,1.900
3.240E-06,1.520
3.250E-06,1.060
3.260E-06,0.660
3.270E-06,0.280
3.280E-06,-0.060
3.290E-06,-0.220
3.300E-06,-0.260
3.310E-06,-0.120
3.320E-06,0.140
3.330E-06,0.480
3.340E-06,0.860
3.350E-06,1.260
3.360E-06,1.580
3.370E-06,1.880
3.380E-06,2.100
3.390E-06,2.280
3.400E-06,2.320
3.410E-06,2.280
3.420E-06,2.200
3.430E-06,2.040
3.440E-06,1.840
3.450E-06,1.520
3.460E-06,1.200
3.470E-06,0.900
3.480E-06,0.580
3.490E-06,0.320
3.500E-06,0.080
3.510E-06,-0.140
3.520E-06,-0.280
3.530E-06,-0.300
3.540E-06,-0.240
3.550E-06,-0.080
3.560E-06,0.040
3.570E-06,0.220
3.580E-06,0.440
3.590E-06,0.580
3.600E-06,0.760
3.610E-06,0.860
3.620E-06,0.920
3.630E-06,0.940
3.640E-06,0.940
3.650E-06,0.900
3.660E-06,0.820
3.670E-06,0.680
