mediciones/Mediciones filtradas (saque las feas)/6-10/27.5/WaveData5588.csv

#timebase=2000000(ps)
,#voltbase=500000(mv/100)
#size=4000
-4.250E-06,0.060
-4.240E-06,0.080
-4.230E-06,0.080
-4.220E-06,0.080
-4.210E-06,0.060
-4.200E-06,0.040
-4.190E-06,0.040
-4.180E-06,0.040
-4.170E-06,0.040
-4.160E-06,0.060
-4.150E-06,0.060
-4.140E-06,0.080
-4.130E-06,0.040
-4.120E-06,0.040
-4.110E-06,0.080
-4.100E-06,0.060
-4.090E-06,0.040
-4.080E-06,0.040
-4.070E-06,0.060
-4.060E-06,0.060
-4.050E-06,0.080
-4.040E-06,0.060
-4.030E-06,0.040
-4.020E-06,0.060
-4.010E-06,0.040
-4.000E-06,0.020
-3.990E-06,0.060
-3.980E-06,0.060
-3.970E-06,0.060
-3.960E-06,0.080
-3.950E-06,0.100
-3.940E-06,0.020
-3.930E-06,0.060
-3.920E-06,0.080
-3.910E-06,0.060
-3.900E-06,0.040
-3.890E-06,0.040
-3.880E-06,0.040
-3.870E-06,0.040
-3.860E-06,0.060
-3.850E-06,0.080
-3.840E-06,0.040
-3.830E-06,0.020
-3.820E-06,0.040
-3.810E-06,0.040
-3.800E-06,0.060
-3.790E-06,0.040
-3.780E-06,0.040
-3.770E-06,0.060
-3.760E-06,0.060
-3.750E-06,0.080
-3.740E-06,0.040
-3.730E-06,0.060
-3.720E-06,0.060
-3.710E-06,0.040
-3.700E-06,0.060
-3.690E-06,0.040
-3.680E-06,0.040
-3.670E-06,0.060
-3.660E-06,0.080
-3.650E-06,0.040
-3.640E-06,0.040
-3.630E-06,0.040
-3.620E-06,0.040
-3.610E-06,0.060
-3.600E-06,0.060
-3.590E-06,0.040
-3.580E-06,0.020
-3.570E-06,0.040
-3.560E-06,0.040
-3.550E-06,0.040
-3.540E-06,0.040
-3.530E-06,0.040
-3.520E-06,0.060
-3.510E-06,0.080
-3.500E-06,0.080
-3.490E-06,0.040
-3.480E-06,0.040
-3.470E-06,0.060
-3.460E-06,0.080
-3.450E-06,0.060
-3.440E-06,0.060
-3.430E-06,0.080
-3.420E-06,0.080
-3.410E-06,0.060
-3.400E-06,0.040
-3.390E-06,0.040
-3.380E-06,0.020
-3.370E-06,0.040
-3.360E-06,0.080
-3.350E-06,0.040
-3.340E-06,0.020
-3.330E-06,0.060
-3.320E-06,0.080
-3.310E-06,0.080
-3.300E-06,0.060
-3.290E-06,0.020
-3.280E-06,0.060
-3.270E-06,0.060
-3.260E-06,0.060
-3.250E-06,0.040
-3.240E-06,0.040
-3.230E-06,0.060
-3.220E-06,0.040
-3.210E-06,0.040
-3.200E-06,0.040
-3.190E-06,0.060
-3.180E-06,0.060
-3.170E-06,0.080
-3.160E-06,0.080
-3.150E-06,0.020
-3.140E-06,0.040
-3.130E-06,0.080
-3.120E-06,0.060
-3.110E-06,0.040
-3.100E-06,0.080
-3.090E-06,0.060
-3.080E-06,0.040
-3.070E-06,0.060
-3.060E-06,0.060
-3.050E-06,0.060
-3.040E-06,0.040
-3.030E-06,0.020
-3.020E-06,0.060
-3.010E-06,0.060
-3.000E-06,0.040
-2.990E-06,0.060
-2.980E-06,0.080
-2.970E-06,0.040
-2.960E-06,0.080
-2.950E-06,0.060
-2.940E-06,0.060
-2.930E-06,0.020
-2.920E-06,0.060
-2.910E-06,0.040
-2.900E-06,0.060
-2.890E-06,0.080
-2.880E-06,0.060
-2.870E-06,0.040
-2.860E-06,0.040
-2.850E-06,0.040
-2.840E-06,0.060
-2.830E-06,0.060
-2.820E-06,0.060
-2.810E-06,0.060
-2.800E-06,0.080
-2.790E-06,0.040
-2.780E-06,0.040
-2.770E-06,0.040
-2.760E-06,0.040
-2.750E-06,0.040
-2.740E-06,0.060
-2.730E-06,0.040
-2.720E-06,0.060
-2.710E-06,0.020
-2.700E-06,0.040
-2.690E-06,0.060
-2.680E-06,0.080
-2.670E-06,0.100
-2.660E-06,0.080
-2.650E-06,0.040
-2.640E-06,0.020
-2.630E-06,0.040
-2.620E-06,0.060
-2.610E-06,0.080
-2.600E-06,0.060
-2.590E-06,0.080
-2.580E-06,0.060
-2.570E-06,0.020
-2.560E-06,0.040
-2.550E-06,0.040
-2.540E-06,0.060
-2.530E-06,0.080
-2.520E-06,0.080
-2.510E-06,0.020
-2.500E-06,0.020
-2.490E-06,0.060
-2.480E-06,0.060
-2.470E-06,0.080
-2.460E-06,0.060
-2.450E-06,0.080
-2.440E-06,0.020
-2.430E-06,0.060
-2.420E-06,0.040
-2.410E-06,0.040
-2.400E-06,0.060
-2.390E-06,0.040
-2.380E-06,0.060
-2.370E-06,0.060
-2.360E-06,0.100
-2.350E-06,0.040
-2.340E-06,0.060
-2.330E-06,0.020
-2.320E-06,0.040
-2.310E-06,0.060
-2.300E-06,0.060
-2.290E-06,0.040
-2.280E-06,0.040
-2.270E-06,0.040
-2.260E-06,0.060
-2.250E-06,0.060
-2.240E-06,0.060
-2.230E-06,0.040
-2.220E-06,0.060
-2.210E-06,0.060
-2.200E-06,0.080
-2.190E-06,0.060
-2.180E-06,0.060
-2.170E-06,0.080
-2.160E-06,0.060
-2.150E-06,0.040
-2.140E-06,0.100
-2.130E-06,0.060
-2.120E-06,0.080
-2.110E-06,0.060
-2.100E-06,0.040
-2.090E-06,0.060
-2.080E-06,0.080
-2.070E-06,0.040
-2.060E-06,0.040
-2.050E-06,0.040
-2.040E-06,0.060
-2.030E-06,0.080
-2.020E-06,0.080
-2.010E-06,0.080
-2.000E-06,0.040
-1.990E-06,0.040
-1.980E-06,0.040
-1.970E-06,0.060
-1.960E-06,0.060
-1.950E-06,0.060
-1.940E-06,0.040
-1.930E-06,0.020
-1.920E-06,0.000
-1.910E-06,0.160
-1.900E-06,0.540
-1.890E-06,1.260
-1.880E-06,1.960
-1.870E-06,2.640
-1.860E-06,2.120
-1.850E-06,1.600
-1.840E-06,0.540
-1.830E-06,-0.660
-1.820E-06,-1.240
-1.810E-06,-1.640
-1.800E-06,-1.860
-1.790E-06,-2.080
-1.780E-06,-2.220
-1.770E-06,-2.200
-1.760E-06,-1.960
-1.750E-06,-1.480
-1.740E-06,-1.000
-1.730E-06,-0.500
-1.720E-06,-0.220
-1.710E-06,-0.080
-1.700E-06,0.100
-1.690E-06,0.180
-1.680E-06,0.300
-1.670E-06,0.460
-1.660E-06,0.420
-1.650E-06,0.420
-1.640E-06,0.480
-1.630E-06,0.540
-1.620E-06,0.760
-1.610E-06,0.920
-1.600E-06,1.020
-1.590E-06,0.960
-1.580E-06,0.860
-1.570E-06,0.700
-1.560E-06,0.500
-1.550E-06,0.460
-1.540E-06,0.280
-1.530E-06,0.140
-1.520E-06,-0.060
-1.510E-06,-0.260
-1.500E-06,-0.360
-1.490E-06,-0.420
-1.480E-06,-0.340
-1.470E-06,-0.180
-1.460E-06,0.000
-1.450E-06,0.160
-1.440E-06,0.320
-1.430E-06,0.480
-1.420E-06,0.560
-1.410E-06,0.660
-1.400E-06,0.600
-1.390E-06,0.580
-1.380E-06,0.500
-1.370E-06,0.440
-1.360E-06,0.440
-1.350E-06,0.320
-1.340E-06,0.240
-1.330E-06,-0.020
-1.320E-06,-0.220
-1.310E-06,-0.560
-1.300E-06,-0.760
-1.290E-06,-0.840
-1.280E-06,-0.900
-1.270E-06,-0.840
-1.260E-06,-0.820
-1.250E-06,-0.840
-1.240E-06,-0.900
-1.230E-06,-0.880
-1.220E-06,-0.740
-1.210E-06,-0.540
-1.200E-06,-0.260
-1.190E-06,-0.020
-1.180E-06,0.140
-1.170E-06,0.240
-1.160E-06,0.400
-1.150E-06,0.500
-1.140E-06,0.660
-1.130E-06,0.760
-1.120E-06,0.760
-1.110E-06,0.700
-1.100E-06,0.620
-1.090E-06,0.500
-1.080E-06,0.440
-1.070E-06,0.380
-1.060E-06,0.320
-1.050E-06,0.200
-1.040E-06,0.100
-1.030E-06,0.020
-1.020E-06,-0.060
-1.010E-06,-0.080
-1.000E-06,-0.060
-9.900E-07,-0.100
-9.800E-07,-0.160
-9.700E-07,-0.180
-9.600E-07,-0.260
-9.500E-07,-0.280
-9.400E-07,-0.260
-9.300E-07,-0.200
-9.200E-07,-0.080
-9.100E-07,0.020
-9.000E-07,0.140
-8.900E-07,0.200
-8.800E-07,0.260
-8.700E-07,0.320
-8.600E-07,0.320
-8.500E-07,0.360
-8.400E-07,0.360
-8.300E-07,0.360
-8.200E-07,0.300
-8.100E-07,0.260
-8.000E-07,0.220
-7.900E-07,0.160
-7.800E-07,0.120
-7.700E-07,0.080
-7.600E-07,0.100
-7.500E-07,0.080
-7.400E-07,0.060
-7.300E-07,0.020
-7.200E-07,0.040
-7.100E-07,0.080
-7.000E-07,0.080
-6.900E-07,0.080
-6.800E-07,0.100
-6.700E-07,0.160
-6.600E-07,0.080
-6.500E-07,-0.020
-6.400E-07,-0.020
-6.300E-07,-0.140
-6.200E-07,-0.160
-6.100E-07,-0.120
-6.000E-07,-0.180
-5.900E-07,-0.040
-5.800E-07,0.120
-5.700E-07,0.180
-5.600E-07,0.420
-5.500E-07,0.500
-5.400E-07,0.640
-5.300E-07,0.580
-5.200E-07,0.440
-5.100E-07,0.340
-5.000E-07,0.140
-4.900E-07,0.220
-4.800E-07,0.360
-4.700E-07,0.580
-4.600E-07,0.540
-4.500E-07,0.340
-4.400E-07,0.260
-4.300E-07,0.000
-4.200E-07,0.020
-4.100E-07,0.080
-4.000E-07,0.100
-3.900E-07,0.400
-3.800E-07,0.340
-3.700E-07,0.340
-3.600E-07,0.200
-3.500E-07,0.160
-3.400E-07,0.380
-3.300E-07,0.320
-3.200E-07,0.600
-3.100E-07,0.400
-3.000E-07,0.780
-2.900E-07,0.520
-2.800E-07,0.640
-2.700E-07,0.860
-2.600E-07,0.840
-2.500E-07,0.940
-2.400E-07,1.100
-2.300E-07,0.860
-2.200E-07,0.840
-2.100E-07,0.920
-2.000E-07,0.760
-1.900E-07,1.100
-1.800E-07,1.020
-1.700E-07,0.980
-1.600E-07,0.800
-1.500E-07,0.520
-1.400E-07,0.320
-1.300E-07,0.180
-1.200E-07,0.300
-1.100E-07,0.280
-1.000E-07,0.500
-9.000E-08,0.400
-8.000E-08,0.760
-7.000E-08,-0.980
-6.000E-08,1.200
-5.000E-08,-0.320
-4.000E-08,1.000
-3.000E-08,0.100
-2.000E-08,-1.720
-1.000E-08,-1.460
0.000E+00,-2.460
1.000E-08,-0.240
2.000E-08,0.100
3.000E-08,1.640
4.000E-08,1.540
5.000E-08,-0.600
6.000E-08,-0.940
7.000E-08,-1.520
8.000E-08,-1.220
9.000E-08,0.720
1.000E-07,0.860
1.100E-07,1.040
1.200E-07,0.980
1.300E-07,-0.160
1.400E-07,0.160
1.500E-07,0.120
1.600E-07,0.360
1.700E-07,0.640
1.800E-07,0.880
1.900E-07,0.600
2.000E-07,0.900
2.100E-07,0.740
2.200E-07,0.580
2.300E-07,0.340
2.400E-07,-0.020
2.500E-07,-0.300
2.600E-07,-0.220
2.700E-07,0.140
2.800E-07,0.420
2.900E-07,0.400
3.000E-07,0.440
3.100E-07,0.240
3.200E-07,-0.120
3.300E-07,0.060
3.400E-07,-0.140
3.500E-07,-0.020
3.600E-07,-0.060
3.700E-07,-0.440
3.800E-07,-0.780
3.900E-07,-1.060
4.000E-07,-1.140
4.100E-07,-0.720
4.200E-07,-0.120
4.300E-07,0.440
4.400E-07,0.820
4.500E-07,0.880
4.600E-07,0.900
4.700E-07,0.840
4.800E-07,0.700
4.900E-07,0.820
5.000E-07,0.960
5.100E-07,0.960
5.200E-07,1.300
5.300E-07,0.880
5.400E-07,0.920
5.500E-07,0.520
5.600E-07,0.080
5.700E-07,0.160
5.800E-07,-0.060
5.900E-07,0.240
6.000E-07,0.680
6.100E-07,0.500
6.200E-07,0.180
6.300E-07,0.260
6.400E-07,-0.320
6.500E-07,-0.560
6.600E-07,-0.680
6.700E-07,-1.420
6.800E-07,-1.100
6.900E-07,-0.680
7.000E-07,-0.420
7.100E-07,0.460
7.200E-07,0.680
7.300E-07,0.640
7.400E-07,0.500
7.500E-07,0.260
7.600E-07,0.600
7.700E-07,1.160
7.800E-07,1.720
7.900E-07,1.980
8.000E-07,1.840
8.100E-07,1.160
8.200E-07,0.500
8.300E-07,0.060
8.400E-07,-0.140
8.500E-07,0.100
8.600E-07,0.080
8.700E-07,-0.060
8.800E-07,-0.340
8.900E-07,-0.780
9.000E-07,-0.840
9.100E-07,-0.900
9.200E-07,-0.620
9.300E-07,-0.300
9.400E-07,-0.020
9.500E-07,0.220
9.600E-07,0.340
9.700E-07,0.360
9.800E-07,0.460
9.900E-07,0.460
1.000E-06,0.600
1.010E-06,0.700
1.020E-06,0.680
1.030E-06,0.780
1.040E-06,0.760
1.050E-06,0.700
1.060E-06,0.540
1.070E-06,0.420
1.080E-06,0.120
1.090E-06,0.060
1.100E-06,-0.120
1.110E-06,-0.160
1.120E-06,-0.180
1.130E-06,-0.420
1.140E-06,-0.340
1.150E-06,-0.500
1.160E-06,-0.520
1.170E-06,-0.340
1.180E-06,-0.340
1.190E-06,-0.100
1.200E-06,0.100
1.210E-06,0.020
1.220E-06,0.100
1.230E-06,-0.140
1.240E-06,-0.120
1.250E-06,-0.020
1.260E-06,0.040
1.270E-06,0.080
1.280E-06,0.240
1.290E-06,0.420
1.300E-06,0.520
1.310E-06,0.520
1.320E-06,0.700
1.330E-06,0.640
1.340E-06,0.380
1.350E-06,0.960
1.360E-06,0.660
1.370E-06,0.400
1.380E-06,0.420
1.390E-06,-0.200
1.400E-06,-1.380
1.410E-06,-1.420
1.420E-06,0.120
1.430E-06,-0.720
1.440E-06,0.560
1.450E-06,0.820
1.460E-06,-1.100
1.470E-06,-0.700
1.480E-06,-1.600
1.490E-06,-1.900
1.500E-06,-0.380
1.510E-06,-0.700
1.520E-06,0.240
1.530E-06,1.000
1.540E-06,0.520
1.550E-06,1.240
1.560E-06,0.920
1.570E-06,0.340
1.580E-06,0.580
1.590E-06,0.980
1.600E-06,0.820
1.610E-06,1.240
1.620E-06,1.360
1.630E-06,0.660
1.640E-06,0.460
1.650E-06,-0.060
1.660E-06,-0.400
1.670E-06,-0.180
1.680E-06,-0.160
1.690E-06,0.000
1.700E-06,0.140
1.710E-06,-0.020
1.720E-06,-0.260
1.730E-06,-0.340
1.740E-06,-0.520
1.750E-06,-0.600
1.760E-06,-0.360
1.770E-06,-0.280
1.780E-06,-0.060
1.790E-06,0.080
1.800E-06,0.000
1.810E-06,0.140
1.820E-06,0.060
1.830E-06,-0.080
1.840E-06,0.060
1.850E-06,-0.100
1.860E-06,-0.080
1.870E-06,-0.040
1.880E-06,0.000
1.890E-06,0.060
1.900E-06,-0.020
1.910E-06,-0.140
1.920E-06,-0.340
1.930E-06,-0.360
1.940E-06,-0.340
1.950E-06,-0.280
1.960E-06,-0.220
1.970E-06,-0.220
1.980E-06,-0.500
1.990E-06,-0.540
2.000E-06,0.000
2.010E-06,-0.260
2.020E-06,-0.500
2.030E-06,0.160
2.040E-06,-0.640
2.050E-06,0.600
2.060E-06,-0.320
2.070E-06,-0.740
2.080E-06,0.060
2.090E-06,-1.940
2.100E-06,-1.840
2.110E-06,-2.660
2.120E-06,-2.660
2.130E-06,-2.660
2.140E-06,-2.660
2.150E-06,-2.420
2.160E-06,-1.740
2.170E-06,-0.840
2.180E-06,-1.680
2.190E-06,-1.140
2.200E-06,-2.160
2.210E-06,-2.100
2.220E-06,-1.500
2.230E-06,-1.400
2.240E-06,-0.220
2.250E-06,0.360
2.260E-06,0.120
2.270E-06,-0.120
2.280E-06,-1.080
2.290E-06,-1.660
2.300E-06,-1.940
2.310E-06,-2.340
2.320E-06,-2.260
2.330E-06,-2.380
2.340E-06,-2.640
2.350E-06,-2.660
2.360E-06,-2.660
2.370E-06,-2.660
2.380E-06,-2.660
2.390E-06,-2.660
2.400E-06,-2.660
2.410E-06,-2.660
2.420E-06,-2.660
2.430E-06,-2.580
2.440E-06,-2.360
2.450E-06,-2.000
2.460E-06,-1.780
2.470E-06,-1.560
2.480E-06,-1.300
2.490E-06,-1.020
2.500E-06,-0.780
2.510E-06,-0.500
2.520E-06,-0.320
2.530E-06,-0.300
2.540E-06,-0.280
2.550E-06,-0.420
2.560E-06,-0.460
2.570E-06,-0.620
2.580E-06,-0.720
2.590E-06,-0.760
2.600E-06,-0.840
2.610E-06,-0.740
2.620E-06,-0.740
2.630E-06,-0.800
2.640E-06,-0.600
2.650E-06,-0.820
2.660E-06,-0.720
2.670E-06,-0.400
2.680E-06,-0.220
2.690E-06,0.240
2.700E-06,0.420
2.710E-06,0.320
2.720E-06,0.380
2.730E-06,0.160
2.740E-06,0.160
2.750E-06,0.300
2.760E-06,0.440
2.770E-06,0.640
2.780E-06,0.800
2.790E-06,0.760
2.800E-06,0.820
2.810E-06,0.700
2.820E-06,0.600
2.830E-06,0.700
2.840E-06,0.500
2.850E-06,0.480
2.860E-06,0.600
2.870E-06,0.480
2.880E-06,0.460
2.890E-06,0.500
2.900E-06,0.400
2.910E-06,0.420
2.920E-06,0.280
2.930E-06,0.020
2.940E-06,-0.060
2.950E-06,-0.160
2.960E-06,-0.040
2.970E-06,0.200
2.980E-06,0.360
2.990E-06,0.460
3.000E-06,0.520
3.010E-06,0.400
3.020E-06,0.380
3.030E-06,0.340
3.040E-06,0.280
3.050E-06,0.240
3.060E-06,0.100
3.070E-06,0.000
3.080E-06,-0.140
3.090E-06,-0.180
3.100E-06,-0.260
3.110E-06,-0.360
3.120E-06,-0.480
3.130E-06,-0.540
3.140E-06,-0.580
3.150E-06,-0.560
3.160E-06,-0.560
3.170E-06,-0.580
3.180E-06,-0.560
3.190E-06,-0.520
3.200E-06,-0.560
3.210E-06,-0.480
3.220E-06,-0.420
3.230E-06,-0.420
3.240E-06,-0.400
3.250E-06,-0.320
3.260E-06,-0.300
3.270E-06,-0.240
3.280E-06,-0.240
3.290E-06,-0.180
3.300E-06,-0.100
3.310E-06,-0.040
3.320E-06,0.000
3.330E-06,0.040
3.340E-06,0.060
3.350E-06,0.100
3.360E-06,0.100
3.370E-06,0.120
3.380E-06,0.140
3.390E-06,0.160
3.400E-06,0.160
3.410E-06,0.160
3.420E-06,0.120
3.430E-06,0.160
3.440E-06,0.160
3.450E-06,0.200
3.460E-06,0.200
3.470E-06,0.240
3.480E-06,0.200
3.490E-06,0.200
3.500E-06,0.220
3.510E-06,0.260
3.520E-06,0.280
3.530E-06,0.260
3.540E-06,0.280
3.550E-06,0.260
3.560E-06,0.260
3.570E-06,0.220
3.580E-06,0.240
3.590E-06,0.180
3.600E-06,0.180
3.610E-06,0.180
3.620E-06,0.120
3.630E-06,0.120
3.640E-06,0.100
3.650E-06,0.100
3.660E-06,0.080
3.670E-06,0.060
3.680E-06,0.020
3.690E-06,0.000
3.700E-06,-0.020
3.710E-06,-0.060
3.720E-06,-0.120
3.730E-06,-0.160
3.740E-06,-0.260
3.750E-06,-0.280
3.760E-06,-0.340
3.770E-06,-0.360
3.780E-06,-0.320
3.790E-06,-0.340
3.800E-06,-0.340
3.810E-06,-0.280
3.820E-06,-0.300
3.830E-06,-0.260
3.840E-06,-0.240
3.850E-06,-0.220
3.860E-06,-0.200
3.870E-06,-0.240
3.880E-06,-0.220
3.890E-06,-0.180
3.900E-06,-0.120
3.910E-06,-0.100
3.920E-06,-0.020
3.930E-06,-0.080
3.940E-06,-0.100
3.950E-06,-0.100
3.960E-06,-0.100
3.970E-06,-0.120
3.980E-06,-0.140
3.990E-06,-0.080
4.000E-06,-0.100
4.010E-06,-0.120
4.020E-06,-0.080
4.030E-06,-0.080
4.040E-06,0.020
4.050E-06,0.040
4.060E-06,0.120
4.070E-06,0.180
4.080E-06,0.200
4.090E-06,0.260
4.100E-06,0.340
4.110E-06,0.420
4.120E-06,0.440
4.130E-06,0.420
4.140E-06,0.440
4.150E-06,0.460
4.160E-06,0.420
4.170E-06,0.400
4.180E-06,0.380
4.190E-06,0.320
4.200E-06,0.260
4.210E-06,0.240
4.220E-06,0.160
4.230E-06,0.140
4.240E-06,0.180
4.250E-06,0.180
4.260E-06,0.160
4.270E-06,0.160
4.280E-06,0.160
4.290E-06,0.160
4.300E-06,0.120
4.310E-06,0.080
4.320E-06,0.020
4.330E-06,0.020
4.340E-06,0.000
4.350E-06,-0.080
4.360E-06,-0.080
4.370E-06,-0.140
4.380E-06,-0.160
4.390E-06,-0.220
4.400E-06,-0.260
4.410E-06,-0.280
4.420E-06,-0.320
4.430E-06,-0.360
4.440E-06,-0.320
4.450E-06,-0.320
4.460E-06,-0.360
4.470E-06,-0.340
4.480E-06,-0.280
4.490E-06,-0.300
4.500E-06,-0.240
4.510E-06,-0.220
4.520E-06,-0.180
4.530E-06,-0.080
4.540E-06,-0.020
4.550E-06,0.020
4.560E-06,0.100
4.570E-06,0.120
4.580E-06,0.160
4.590E-06,0.180
4.600E-06,0.200
4.610E-06,0.200
4.620E-06,0.160
4.630E-06,0.160
4.640E-06,0.140
4.650E-06,0.140
4.660E-06,0.100
4.670E-06,0.100
4.680E-06,0.080
4.690E-06,0.080
4.700E-06,0.040
4.710E-06,0.000
4.720E-06,0.000
4.730E-06,0.000
4.740E-06,-0.040
4.750E-06,0.000
4.760E-06,-0.020
4.770E-06,-0.020
4.780E-06,0.000
4.790E-06,-0.020
4.800E-06,-0.060
4.810E-06,-0.040
4.820E-06,-0.120
4.830E-06,-0.140
4.840E-06,-0.160
4.850E-06,-0.180
4.860E-06,-0.240
4.870E-06,-0.220
4.880E-06,-0.240
4.890E-06,-0.260
4.900E-06,-0.260
4.910E-06,-0.280
4.920E-06,-0.240
4.930E-06,-0.260
4.940E-06,-0.260
4.950E-06,-0.160
4.960E-06,-0.140
4.970E-06,-0.100
4.980E-06,0.000
4.990E-06,0.000
5.000E-06,0.000
5.010E-06,0.060
5.020E-06,0.080
5.030E-06,0.140
5.040E-06,0.180
5.050E-06,0.240
5.060E-06,0.240
5.070E-06,0.200
5.080E-06,0.220
5.090E-06,0.160
5.100E-06,0.100
5.110E-06,0.100
5.120E-06,0.000
5.130E-06,-0.020
5.140E-06,-0.040
5.150E-06,-0.060
5.160E-06,-0.020
5.170E-06,-0.040
5.180E-06,0.000
5.190E-06,0.000
5.200E-06,0.020
5.210E-06,0.000
5.220E-06,0.000
5.230E-06,0.020
5.240E-06,-0.020
5.250E-06,0.000
5.260E-06,0.000
5.270E-06,0.000
5.280E-06,0.020
5.290E-06,-0.020
5.300E-06,0.000
5.310E-06,-0.020
5.320E-06,-0.020
5.330E-06,-0.080
5.340E-06,-0.080
5.350E-06,-0.140
5.360E-06,-0.160
5.370E-06,-0.220
5.380E-06,-0.300
5.390E-06,-0.360
5.400E-06,-0.480
5.410E-06,-0.500
5.420E-06,-0.540
5.430E-06,-0.520
5.440E-06,-0.400
5.450E-06,-0.320
5.460E-06,-0.140
5.470E-06,0.040
5.480E-06,0.220
5.490E-06,0.400
5.500E-06,0.500
5.510E-06,0.600
5.520E-06,0.660
5.530E-06,0.680
5.540E-06,0.660
5.550E-06,0.680
5.560E-06,0.660
5.570E-06,0.660
5.580E-06,0.660
5.590E-06,0.660
5.600E-06,0.700
5.610E-06,0.760
5.620E-06,0.760
5.630E-06,0.780
5.640E-06,0.780
5.650E-06,0.760
5.660E-06,0.700
5.670E-06,0.560
5.680E-06,0.480
5.690E-06,0.360
5.700E-06,0.240
5.710E-06,0.120
5.720E-06,0.040
5.730E-06,-0.020
5.740E-06,-0.020
5.750E-06,-0.040
5.760E-06,-0.080
5.770E-06,-0.100
5.780E-06,-0.100
5.790E-06,-0.160
5.800E-06,-0.220
5.810E-06,-0.300
5.820E-06,-0.320
5.830E-06,-0.360
5.840E-06,-0.380
5.850E-06,-0.400
5.860E-06,-0.400
5.870E-06,-0.420
5.880E-06,-0.420
5.890E-06,-0.420
5.900E-06,-0.380
5.910E-06,-0.360
5.920E-06,-0.320
5.930E-06,-0.280
5.940E-06,-0.240
5.950E-06,-0.220
5.960E-06,-0.160
5.970E-06,-0.100
5.980E-06,-0.080
5.990E-06,0.040
6.000E-06,0.080
6.010E-06,0.180
6.020E-06,0.300
6.030E-06,0.340
6.040E-06,0.420
6.050E-06,0.400
6.060E-06,0.420
6.070E-06,0.400
6.080E-06,0.340
6.090E-06,0.320
6.100E-06,0.320
6.110E-06,0.340
6.120E-06,0.380
6.130E-06,0.380
6.140E-06,0.480
6.150E-06,0.580
6.160E-06,0.660
6.170E-06,0.700
6.180E-06,0.700
6.190E-06,0.720
6.200E-06,0.680
6.210E-06,0.640
6.220E-06,0.640
6.230E-06,0.620
6.240E-06,0.660
6.250E-06,0.680
6.260E-06,0.740
6.270E-06,0.800
6.280E-06,0.820
6.290E-06,0.840
6.300E-06,0.780
6.310E-06,0.700
6.320E-06,0.660
6.330E-06,0.620
6.340E-06,0.600
6.350E-06,0.580
6.360E-06,0.620
6.370E-06,0.640
6.380E-06,0.660
6.390E-06,0.640
6.400E-06,0.600
6.410E-06,0.520
6.420E-06,0.440
6.430E-06,0.340
6.440E-06,0.280
6.450E-06,0.200
6.460E-06,0.160
6.470E-06,0.120
6.480E-06,0.100
6.490E-06,0.060
6.500E-06,0.100
6.510E-06,0.100
6.520E-06,0.120
6.530E-06,0.120
6.540E-06,0.100
6.550E-06,0.080
6.560E-06,0.060
6.570E-06,0.040
6.580E-06,0.060
6.590E-06,0.100
6.600E-06,0.040
6.610E-06,0.020
6.620E-06,-0.060
6.630E-06,-0.080
6.640E-06,-0.120
6.650E-06,-0.140
6.660E-06,-0.100
6.670E-06,-0.100
6.680E-06,-0.060
6.690E-06,0.000
6.700E-06,0.060
6.710E-06,0.040
6.720E-06,0.100
6.730E-06,0.120
6.740E-06,0.100
6.750E-06,0.080
6.760E-06,0.100
6.770E-06,0.140
6.780E-06,0.220
6.790E-06,0.240
6.800E-06,0.320
6.810E-06,0.300
6.820E-06,0.280
6.830E-06,0.240
6.840E-06,0.280
6.850E-06,0.320
6.860E-06,0.400
6.870E-06,0.460
6.880E-06,0.540
6.890E-06,0.620
6.900E-06,0.680
6.910E-06,0.680
6.920E-06,0.680
6.930E-06,0.660
6.940E-06,0.600
6.950E-06,0.560
6.960E-06,0.480
6.970E-06,0.380
6.980E-06,0.320
6.990E-06,0.240
7.000E-06,0.220
7.010E-06,0.180
7.020E-06,0.160
7.030E-06,0.220
7.040E-06,0.280
7.050E-06,0.320
7.060E-06,0.400
7.070E-06,0.420
7.080E-06,0.400
7.090E-06,0.440
7.100E-06,0.480
7.110E-06,0.520
7.120E-06,0.520
7.130E-06,0.540
7.140E-06,0.560
7.150E-06,0.620
7.160E-06,0.680
7.170E-06,0.700
7.180E-06,0.760
7.190E-06,0.860
7.200E-06,1.000
7.210E-06,1.160
7.220E-06,1.360
7.230E-06,1.580
7.240E-06,1.840
7.250E-06,2.100
7.260E-06,2.340
7.270E-06,2.620
7.280E-06,2.760
7.290E-06,2.760
7.300E-06,2.740
7.310E-06,2.760
7.320E-06,2.780
7.330E-06,2.760
7.340E-06,2.780
7.350E-06,2.760
7.360E-06,2.780
7.370E-06,2.760
7.380E-06,2.760
7.390E-06,2.740
7.400E-06,2.760
7.410E-06,2.760
7.420E-06,2.760
7.430E-06,2.740
7.440E-06,2.760
7.450E-06,2.780
7.460E-06,2.760
7.470E-06,2.760
7.480E-06,2.760
7.490E-06,2.780
7.500E-06,2.760
7.510E-06,2.740
7.520E-06,2.760
7.530E-06,2.780
7.540E-06,2.760
7.550E-06,2.760
7.560E-06,2.740
7.570E-06,2.760
7.580E-06,2.660
7.590E-06,2.520
7.600E-06,2.360
7.610E-06,2.200
7.620E-06,2.000
7.630E-06,1.800
7.640E-06,1.640
7.650E-06,1.440
7.660E-06,1.300
7.670E-06,1.140
7.680E-06,1.020
7.690E-06,0.900
7.700E-06,0.800
7.710E-06,0.660
