mediciones/Mediciones filtradas (saque las feas)/6-10/27.5/WaveData5590.csv

#timebase=2000000(ps)
,#voltbase=100000(mv/100)
#size=4000
-4.250E-06,0.000
-4.240E-06,-0.004
-4.230E-06,0.008
-4.220E-06,0.000
-4.210E-06,0.004
-4.200E-06,0.004
-4.190E-06,0.000
-4.180E-06,0.004
-4.170E-06,0.004
-4.160E-06,0.008
-4.150E-06,0.012
-4.140E-06,0.004
-4.130E-06,0.000
-4.120E-06,-0.004
-4.110E-06,0.004
-4.100E-06,0.000
-4.090E-06,0.012
-4.080E-06,0.000
-4.070E-06,0.000
-4.060E-06,0.000
-4.050E-06,-0.008
-4.040E-06,0.000
-4.030E-06,0.000
-4.020E-06,0.008
-4.010E-06,0.008
-4.000E-06,0.008
-3.990E-06,-0.004
-3.980E-06,0.000
-3.970E-06,-0.004
-3.960E-06,0.008
-3.950E-06,0.012
-3.940E-06,0.028
-3.930E-06,0.004
-3.920E-06,-0.016
-3.910E-06,-0.032
-3.900E-06,-0.024
-3.890E-06,0.024
-3.880E-06,0.020
-3.870E-06,0.020
-3.860E-06,0.012
-3.850E-06,0.000
-3.840E-06,-0.004
-3.830E-06,0.000
-3.820E-06,0.000
-3.810E-06,0.012
-3.800E-06,0.016
-3.790E-06,0.000
-3.780E-06,-0.024
-3.770E-06,-0.012
-3.760E-06,0.004
-3.750E-06,0.016
-3.740E-06,0.020
-3.730E-06,0.000
-3.720E-06,-0.008
-3.710E-06,0.000
-3.700E-06,0.000
-3.690E-06,0.008
-3.680E-06,0.012
-3.670E-06,0.016
-3.660E-06,0.000
-3.650E-06,-0.008
-3.640E-06,-0.008
-3.630E-06,-0.004
-3.620E-06,0.012
-3.610E-06,0.024
-3.600E-06,0.008
-3.590E-06,0.000
-3.580E-06,0.008
-3.570E-06,0.000
-3.560E-06,-0.004
-3.550E-06,0.004
-3.540E-06,0.012
-3.530E-06,0.008
-3.520E-06,0.000
-3.510E-06,-0.004
-3.500E-06,0.000
-3.490E-06,0.004
-3.480E-06,0.004
-3.470E-06,0.004
-3.460E-06,-0.004
-3.450E-06,-0.004
-3.440E-06,0.000
-3.430E-06,0.004
-3.420E-06,0.008
-3.410E-06,0.004
-3.400E-06,0.000
-3.390E-06,0.000
-3.380E-06,0.000
-3.370E-06,0.004
-3.360E-06,0.008
-3.350E-06,0.000
-3.340E-06,0.000
-3.330E-06,0.000
-3.320E-06,0.000
-3.310E-06,-0.004
-3.300E-06,0.004
-3.290E-06,0.008
-3.280E-06,0.004
-3.270E-06,0.008
-3.260E-06,0.000
-3.250E-06,0.000
-3.240E-06,0.000
-3.230E-06,0.000
-3.220E-06,0.004
-3.210E-06,0.004
-3.200E-06,0.008
-3.190E-06,0.004
-3.180E-06,0.000
-3.170E-06,0.004
-3.160E-06,0.004
-3.150E-06,0.004
-3.140E-06,0.004
-3.130E-06,0.008
-3.120E-06,0.008
-3.110E-06,0.004
-3.100E-06,0.004
-3.090E-06,0.008
-3.080E-06,0.004
-3.070E-06,-0.004
-3.060E-06,0.004
-3.050E-06,0.004
-3.040E-06,0.008
-3.030E-06,0.004
-3.020E-06,0.000
-3.010E-06,-0.004
-3.000E-06,0.004
-2.990E-06,0.008
-2.980E-06,0.008
-2.970E-06,0.008
-2.960E-06,-0.004
-2.950E-06,0.000
-2.940E-06,0.000
-2.930E-06,0.008
-2.920E-06,0.008
-2.910E-06,0.008
-2.900E-06,0.000
-2.890E-06,0.008
-2.880E-06,0.012
-2.870E-06,0.016
-2.860E-06,0.008
-2.850E-06,0.000
-2.840E-06,-0.008
-2.830E-06,-0.012
-2.820E-06,-0.004
-2.810E-06,0.004
-2.800E-06,0.024
-2.790E-06,0.024
-2.780E-06,0.020
-2.770E-06,0.004
-2.760E-06,-0.012
-2.750E-06,-0.028
-2.740E-06,-0.008
-2.730E-06,0.004
-2.720E-06,0.012
-2.710E-06,0.020
-2.700E-06,0.012
-2.690E-06,0.012
-2.680E-06,-0.008
-2.670E-06,-0.004
-2.660E-06,-0.004
-2.650E-06,0.004
-2.640E-06,0.008
-2.630E-06,0.008
-2.620E-06,0.016
-2.610E-06,0.008
-2.600E-06,0.004
-2.590E-06,0.000
-2.580E-06,0.000
-2.570E-06,0.012
-2.560E-06,0.016
-2.550E-06,0.020
-2.540E-06,0.016
-2.530E-06,0.012
-2.520E-06,-0.004
-2.510E-06,-0.004
-2.500E-06,0.000
-2.490E-06,0.020
-2.480E-06,0.004
-2.470E-06,0.028
-2.460E-06,0.008
-2.450E-06,-0.032
-2.440E-06,-0.016
-2.430E-06,-0.040
-2.420E-06,-0.020
-2.410E-06,0.016
-2.400E-06,-0.008
-2.390E-06,0.000
-2.380E-06,0.020
-2.370E-06,0.032
-2.360E-06,-0.004
-2.350E-06,-0.008
-2.340E-06,-0.008
-2.330E-06,-0.004
-2.320E-06,0.004
-2.310E-06,0.000
-2.300E-06,0.000
-2.290E-06,0.000
-2.280E-06,0.008
-2.270E-06,0.004
-2.260E-06,0.000
-2.250E-06,-0.012
-2.240E-06,-0.004
-2.230E-06,0.008
-2.220E-06,0.012
-2.210E-06,0.016
-2.200E-06,0.008
-2.190E-06,0.000
-2.180E-06,0.000
-2.170E-06,0.000
-2.160E-06,-0.012
-2.150E-06,0.000
-2.140E-06,0.012
-2.130E-06,0.004
-2.120E-06,0.004
-2.110E-06,0.012
-2.100E-06,0.000
-2.090E-06,-0.004
-2.080E-06,0.004
-2.070E-06,0.008
-2.060E-06,0.008
-2.050E-06,0.004
-2.040E-06,0.008
-2.030E-06,0.000
-2.020E-06,0.000
-2.010E-06,0.004
-2.000E-06,-0.004
-1.990E-06,-0.008
-1.980E-06,0.004
-1.970E-06,0.008
-1.960E-06,0.012
-1.950E-06,0.012
-1.940E-06,0.012
-1.930E-06,0.004
-1.920E-06,0.000
-1.910E-06,-0.004
-1.900E-06,0.004
-1.890E-06,0.008
-1.880E-06,0.012
-1.870E-06,0.012
-1.860E-06,0.000
-1.850E-06,0.000
-1.840E-06,0.000
-1.830E-06,0.004
-1.820E-06,-0.004
-1.810E-06,0.004
-1.800E-06,0.012
-1.790E-06,0.012
-1.780E-06,0.008
-1.770E-06,0.004
-1.760E-06,-0.004
-1.750E-06,-0.004
-1.740E-06,0.008
-1.730E-06,0.004
-1.720E-06,0.008
-1.710E-06,0.012
-1.700E-06,0.008
-1.690E-06,-0.004
-1.680E-06,-0.004
-1.670E-06,0.004
-1.660E-06,0.008
-1.650E-06,0.012
-1.640E-06,0.016
-1.630E-06,0.008
-1.620E-06,0.012
-1.610E-06,0.012
-1.600E-06,0.012
-1.590E-06,0.008
-1.580E-06,0.004
-1.570E-06,0.012
-1.560E-06,0.012
-1.550E-06,0.024
-1.540E-06,0.024
-1.530E-06,0.020
-1.520E-06,0.016
-1.510E-06,0.004
-1.500E-06,0.020
-1.490E-06,0.004
-1.480E-06,-0.012
-1.470E-06,0.016
-1.460E-06,0.072
-1.450E-06,0.040
-1.440E-06,0.056
-1.430E-06,0.028
-1.420E-06,-0.044
-1.410E-06,-0.044
-1.400E-06,-0.056
-1.390E-06,-0.008
-1.380E-06,0.056
-1.370E-06,0.084
-1.360E-06,0.020
-1.350E-06,-0.032
-1.340E-06,-0.052
-1.330E-06,-0.064
-1.320E-06,-0.104
-1.310E-06,0.108
-1.300E-06,0.032
-1.290E-06,0.120
-1.280E-06,0.124
-1.270E-06,0.024
-1.260E-06,-0.104
-1.250E-06,-0.176
-1.240E-06,-0.120
-1.230E-06,-0.120
-1.220E-06,0.008
-1.210E-06,0.148
-1.200E-06,0.188
-1.190E-06,0.024
-1.180E-06,-0.072
-1.170E-06,-0.100
-1.160E-06,-0.108
-1.150E-06,-0.068
-1.140E-06,0.020
-1.130E-06,0.112
-1.120E-06,0.124
-1.110E-06,0.108
-1.100E-06,0.012
-1.090E-06,-0.060
-1.080E-06,-0.056
-1.070E-06,-0.032
-1.060E-06,0.036
-1.050E-06,0.020
-1.040E-06,0.028
-1.030E-06,-0.004
-1.020E-06,-0.040
-1.010E-06,-0.016
-1.000E-06,-0.028
-9.900E-07,-0.024
-9.800E-07,0.004
-9.700E-07,0.044
-9.600E-07,0.056
-9.500E-07,0.032
-9.400E-07,-0.008
-9.300E-07,-0.040
-9.200E-07,-0.032
-9.100E-07,0.008
-9.000E-07,0.068
-8.900E-07,0.072
-8.800E-07,0.056
-8.700E-07,0.008
-8.600E-07,-0.036
-8.500E-07,-0.040
-8.400E-07,-0.052
-8.300E-07,0.000
-8.200E-07,0.024
-8.100E-07,0.048
-8.000E-07,0.036
-7.900E-07,-0.008
-7.800E-07,-0.036
-7.700E-07,-0.036
-7.600E-07,-0.008
-7.500E-07,0.008
-7.400E-07,0.040
-7.300E-07,0.040
-7.200E-07,0.024
-7.100E-07,0.012
-7.000E-07,0.000
-6.900E-07,-0.008
-6.800E-07,0.004
-6.700E-07,0.032
-6.600E-07,0.044
-6.500E-07,0.044
-6.400E-07,0.040
-6.300E-07,0.016
-6.200E-07,0.020
-6.100E-07,0.012
-6.000E-07,0.008
-5.900E-07,0.012
-5.800E-07,0.008
-5.700E-07,0.028
-5.600E-07,0.028
-5.500E-07,0.028
-5.400E-07,0.024
-5.300E-07,0.004
-5.200E-07,0.004
-5.100E-07,0.008
-5.000E-07,0.028
-4.900E-07,0.060
-4.800E-07,0.088
-4.700E-07,0.088
-4.600E-07,0.068
-4.500E-07,0.040
-4.400E-07,0.024
-4.300E-07,-0.008
-4.200E-07,-0.028
-4.100E-07,-0.040
-4.000E-07,-0.064
-3.900E-07,-0.120
-3.800E-07,-0.108
-3.700E-07,-0.092
-3.600E-07,-0.068
-3.500E-07,0.020
-3.400E-07,0.028
-3.300E-07,0.008
-3.200E-07,0.012
-3.100E-07,-0.028
-3.000E-07,-0.044
-2.900E-07,-0.032
-2.800E-07,0.012
-2.700E-07,0.036
-2.600E-07,0.060
-2.500E-07,0.040
-2.400E-07,0.016
-2.300E-07,-0.004
-2.200E-07,-0.008
-2.100E-07,0.004
-2.000E-07,0.024
-1.900E-07,0.056
-1.800E-07,0.060
-1.700E-07,0.076
-1.600E-07,0.060
-1.500E-07,0.040
-1.400E-07,0.052
-1.300E-07,0.072
-1.200E-07,0.072
-1.100E-07,0.096
-1.000E-07,0.120
-9.000E-08,0.136
-8.000E-08,0.140
-7.000E-08,0.084
-6.000E-08,-0.204
-5.000E-08,-0.440
-4.000E-08,-0.472
-3.000E-08,-0.304
-2.000E-08,-0.040
-1.000E-08,0.224
0.000E+00,0.400
1.000E-08,0.272
2.000E-08,0.064
3.000E-08,-0.192
4.000E-08,-0.304
5.000E-08,-0.204
6.000E-08,0.076
7.000E-08,0.264
8.000E-08,0.296
9.000E-08,0.232
1.000E-07,0.100
1.100E-07,-0.016
1.200E-07,-0.080
1.300E-07,-0.156
1.400E-07,-0.108
1.500E-07,-0.092
1.600E-07,-0.120
1.700E-07,-0.004
1.800E-07,-0.116
1.900E-07,0.160
2.000E-07,0.200
2.100E-07,0.100
2.200E-07,0.064
2.300E-07,-0.276
2.400E-07,-0.180
2.500E-07,-0.240
2.600E-07,-0.020
2.700E-07,0.060
2.800E-07,0.224
2.900E-07,0.292
3.000E-07,0.108
3.100E-07,-0.108
3.200E-07,-0.208
3.300E-07,-0.316
3.400E-07,-0.180
3.500E-07,0.048
3.600E-07,0.148
3.700E-07,0.212
3.800E-07,0.128
3.900E-07,0.016
4.000E-07,-0.104
4.100E-07,-0.056
4.200E-07,-0.048
4.300E-07,0.004
4.400E-07,0.068
4.500E-07,0.124
4.600E-07,0.092
4.700E-07,0.048
4.800E-07,0.040
4.900E-07,-0.084
5.000E-07,0.048
5.100E-07,-0.040
5.200E-07,-0.068
5.300E-07,-0.076
5.400E-07,-0.036
5.500E-07,-0.004
5.600E-07,0.084
5.700E-07,0.032
5.800E-07,0.004
5.900E-07,-0.020
6.000E-07,0.000
6.100E-07,-0.012
6.200E-07,-0.072
6.300E-07,-0.048
6.400E-07,-0.008
6.500E-07,0.056
6.600E-07,0.072
6.700E-07,0.056
6.800E-07,-0.028
6.900E-07,-0.016
7.000E-07,0.008
7.100E-07,0.028
7.200E-07,0.068
7.300E-07,0.092
7.400E-07,0.096
7.500E-07,0.064
7.600E-07,0.072
7.700E-07,0.052
7.800E-07,0.052
7.900E-07,0.040
8.000E-07,-0.072
8.100E-07,-0.096
8.200E-07,-0.248
8.300E-07,-0.208
8.400E-07,-0.104
8.500E-07,0.124
8.600E-07,0.140
8.700E-07,0.204
8.800E-07,0.052
8.900E-07,-0.076
9.000E-07,-0.104
9.100E-07,-0.168
9.200E-07,-0.104
9.300E-07,0.028
9.400E-07,0.080
9.500E-07,0.088
9.600E-07,0.088
9.700E-07,-0.004
9.800E-07,-0.040
9.900E-07,-0.088
1.000E-06,-0.060
1.010E-06,0.004
1.020E-06,0.092
1.030E-06,0.136
1.040E-06,0.096
1.050E-06,0.036
1.060E-06,-0.012
1.070E-06,-0.068
1.080E-06,0.024
1.090E-06,0.028
1.100E-06,0.120
1.110E-06,0.044
1.120E-06,0.036
1.130E-06,-0.012
1.140E-06,-0.072
1.150E-06,-0.072
1.160E-06,-0.052
1.170E-06,0.004
1.180E-06,0.024
1.190E-06,0.008
1.200E-06,0.044
1.210E-06,0.020
1.220E-06,-0.016
1.230E-06,-0.004
1.240E-06,0.012
1.250E-06,0.052
1.260E-06,0.084
1.270E-06,0.088
1.280E-06,0.036
1.290E-06,0.008
1.300E-06,-0.080
1.310E-06,-0.128
1.320E-06,-0.156
1.330E-06,0.012
1.340E-06,0.012
1.350E-06,0.084
1.360E-06,0.076
1.370E-06,0.040
1.380E-06,0.060
1.390E-06,0.000
1.400E-06,-0.016
1.410E-06,0.028
1.420E-06,0.056
1.430E-06,0.016
1.440E-06,0.008
1.450E-06,0.000
1.460E-06,-0.048
1.470E-06,-0.064
1.480E-06,-0.024
1.490E-06,-0.012
1.500E-06,0.052
1.510E-06,0.096
1.520E-06,0.132
1.530E-06,0.144
1.540E-06,0.108
1.550E-06,0.072
1.560E-06,0.088
1.570E-06,0.012
1.580E-06,-0.040
1.590E-06,-0.064
1.600E-06,-0.148
1.610E-06,-0.304
1.620E-06,-0.232
1.630E-06,-0.128
1.640E-06,0.052
1.650E-06,0.136
1.660E-06,0.176
1.670E-06,0.128
1.680E-06,0.040
1.690E-06,-0.168
1.700E-06,-0.212
1.710E-06,-0.152
1.720E-06,-0.004
1.730E-06,0.156
1.740E-06,0.068
1.750E-06,0.076
1.760E-06,-0.008
1.770E-06,-0.036
1.780E-06,-0.036
1.790E-06,-0.004
1.800E-06,-0.004
1.810E-06,0.008
1.820E-06,0.044
1.830E-06,0.020
1.840E-06,0.040
1.850E-06,0.028
1.860E-06,0.044
1.870E-06,0.036
1.880E-06,0.052
1.890E-06,0.032
1.900E-06,0.088
1.910E-06,0.104
1.920E-06,0.060
1.930E-06,0.016
1.940E-06,-0.076
1.950E-06,-0.104
1.960E-06,-0.092
1.970E-06,-0.016
1.980E-06,0.036
1.990E-06,0.112
2.000E-06,0.116
2.010E-06,0.044
2.020E-06,-0.056
2.030E-06,-0.204
2.040E-06,-0.144
2.050E-06,-0.004
2.060E-06,0.072
2.070E-06,0.000
2.080E-06,-0.020
2.090E-06,0.052
2.100E-06,-0.020
2.110E-06,-0.020
2.120E-06,-0.076
2.130E-06,-0.064
2.140E-06,0.028
2.150E-06,0.096
2.160E-06,0.028
2.170E-06,-0.032
2.180E-06,-0.016
2.190E-06,0.004
2.200E-06,0.056
2.210E-06,0.052
2.220E-06,0.032
2.230E-06,-0.008
2.240E-06,0.024
2.250E-06,0.012
2.260E-06,0.004
2.270E-06,0.012
2.280E-06,0.016
2.290E-06,0.044
2.300E-06,0.056
2.310E-06,0.080
2.320E-06,0.064
2.330E-06,0.072
2.340E-06,0.032
2.350E-06,0.028
2.360E-06,-0.008
2.370E-06,0.008
2.380E-06,0.068
2.390E-06,0.040
2.400E-06,0.132
2.410E-06,0.092
2.420E-06,0.076
2.430E-06,-0.156
2.440E-06,-0.136
2.450E-06,-0.436
2.460E-06,-0.192
2.470E-06,-0.208
2.480E-06,0.064
2.490E-06,0.260
2.500E-06,0.128
2.510E-06,0.000
2.520E-06,-0.136
2.530E-06,0.096
2.540E-06,-0.040
2.550E-06,0.028
2.560E-06,0.068
2.570E-06,0.100
2.580E-06,0.024
2.590E-06,0.132
2.600E-06,0.088
2.610E-06,0.052
2.620E-06,0.084
2.630E-06,0.008
2.640E-06,0.040
2.650E-06,0.076
2.660E-06,0.204
2.670E-06,0.096
2.680E-06,-0.068
2.690E-06,-0.440
2.700E-06,-0.512
2.710E-06,-0.324
2.720E-06,-0.148
2.730E-06,0.252
2.740E-06,0.244
2.750E-06,0.444
2.760E-06,-0.040
2.770E-06,-0.164
2.780E-06,-0.308
2.790E-06,-0.284
2.800E-06,0.024
2.810E-06,0.188
2.820E-06,0.256
2.830E-06,0.156
2.840E-06,0.096
2.850E-06,-0.136
2.860E-06,-0.140
2.870E-06,-0.168
2.880E-06,-0.088
2.890E-06,0.028
2.900E-06,-0.012
2.910E-06,-0.136
2.920E-06,-0.232
2.930E-06,0.080
2.940E-06,0.036
2.950E-06,0.040
2.960E-06,0.036
2.970E-06,0.040
2.980E-06,0.028
2.990E-06,0.036
3.000E-06,-0.016
3.010E-06,0.016
3.020E-06,0.008
3.030E-06,0.004
3.040E-06,-0.004
3.050E-06,-0.040
3.060E-06,0.040
3.070E-06,0.072
3.080E-06,0.172
3.090E-06,0.148
3.100E-06,0.152
3.110E-06,0.096
3.120E-06,0.068
3.130E-06,0.044
3.140E-06,0.068
3.150E-06,0.020
3.160E-06,-0.040
3.170E-06,-0.056
3.180E-06,-0.196
3.190E-06,-0.252
3.200E-06,-0.160
3.210E-06,0.020
3.220E-06,0.092
3.230E-06,0.140
3.240E-06,0.036
3.250E-06,0.044
3.260E-06,-0.088
3.270E-06,-0.120
3.280E-06,-0.124
3.290E-06,-0.032
3.300E-06,0.128
3.310E-06,0.144
3.320E-06,0.076
3.330E-06,-0.028
3.340E-06,-0.052
3.350E-06,-0.064
3.360E-06,-0.036
3.370E-06,0.016
3.380E-06,0.060
3.390E-06,0.096
3.400E-06,0.108
3.410E-06,0.076
3.420E-06,0.028
3.430E-06,0.008
3.440E-06,0.008
3.450E-06,0.040
3.460E-06,0.068
3.470E-06,0.092
3.480E-06,0.088
3.490E-06,0.084
3.500E-06,0.064
3.510E-06,0.064
3.520E-06,0.036
3.530E-06,0.040
3.540E-06,0.056
3.550E-06,0.104
3.560E-06,0.160
3.570E-06,0.176
3.580E-06,0.164
3.590E-06,0.096
3.600E-06,0.088
3.610E-06,-0.084
3.620E-06,-0.324
3.630E-06,-0.408
3.640E-06,-0.512
3.650E-06,-0.088
3.660E-06,0.196
3.670E-06,0.416
3.680E-06,0.224
3.690E-06,0.136
3.700E-06,-0.024
3.710E-06,-0.136
3.720E-06,-0.124
3.730E-06,-0.028
3.740E-06,0.200
3.750E-06,0.300
3.760E-06,0.252
3.770E-06,-0.036
3.780E-06,-0.208
3.790E-06,-0.368
3.800E-06,-0.188
3.810E-06,0.064
3.820E-06,0.280
3.830E-06,0.420
3.840E-06,0.236
3.850E-06,0.092
3.860E-06,-0.288
3.870E-06,-0.316
3.880E-06,-0.160
3.890E-06,0.024
3.900E-06,0.316
3.910E-06,0.108
3.920E-06,-0.012
3.930E-06,-0.116
3.940E-06,-0.260
3.950E-06,-0.128
3.960E-06,-0.044
3.970E-06,0.024
3.980E-06,0.200
3.990E-06,0.352
4.000E-06,0.304
4.010E-06,0.128
4.020E-06,-0.004
4.030E-06,-0.060
4.040E-06,-0.020
4.050E-06,0.048
4.060E-06,0.032
4.070E-06,0.024
4.080E-06,0.076
4.090E-06,-0.196
4.100E-06,-0.244
4.110E-06,-0.392
4.120E-06,-0.400
4.130E-06,-0.248
4.140E-06,0.152
4.150E-06,0.316
4.160E-06,0.200
4.170E-06,-0.024
4.180E-06,-0.124
4.190E-06,-0.236
4.200E-06,-0.164
4.210E-06,0.000
4.220E-06,0.088
4.230E-06,0.212
4.240E-06,0.228
4.250E-06,0.144
4.260E-06,-0.064
4.270E-06,-0.120
4.280E-06,-0.184
4.290E-06,-0.004
4.300E-06,0.124
4.310E-06,0.180
4.320E-06,0.208
4.330E-06,0.152
4.340E-06,0.080
4.350E-06,-0.032
4.360E-06,-0.036
4.370E-06,-0.004
4.380E-06,0.096
4.390E-06,0.188
4.400E-06,0.236
4.410E-06,0.224
4.420E-06,0.156
4.430E-06,0.108
4.440E-06,0.056
4.450E-06,0.076
4.460E-06,0.136
4.470E-06,0.176
4.480E-06,0.164
4.490E-06,0.144
4.500E-06,0.076
4.510E-06,0.020
4.520E-06,-0.008
4.530E-06,0.000
4.540E-06,0.036
4.550E-06,0.092
4.560E-06,0.144
4.570E-06,0.156
4.580E-06,0.128
4.590E-06,0.160
4.600E-06,0.136
4.610E-06,0.140
4.620E-06,0.168
4.630E-06,0.168
4.640E-06,0.204
4.650E-06,0.200
4.660E-06,0.196
4.670E-06,0.188
4.680E-06,0.176
4.690E-06,0.164
4.700E-06,0.156
4.710E-06,0.176
4.720E-06,0.184
4.730E-06,0.188
4.740E-06,0.188
4.750E-06,0.188
4.760E-06,0.168
4.770E-06,0.168
4.780E-06,0.148
4.790E-06,0.132
4.800E-06,0.112
4.810E-06,0.032
4.820E-06,-0.052
4.830E-06,-0.064
4.840E-06,-0.060
4.850E-06,0.012
4.860E-06,0.052
4.870E-06,0.084
4.880E-06,0.160
4.890E-06,0.224
4.900E-06,0.108
4.910E-06,0.004
4.920E-06,-0.232
4.930E-06,-0.404
4.940E-06,-0.396
4.950E-06,-0.204
4.960E-06,0.112
4.970E-06,0.296
4.980E-06,0.448
4.990E-06,0.384
5.000E-06,0.180
5.010E-06,-0.020
5.020E-06,-0.116
5.030E-06,-0.084
5.040E-06,0.056
5.050E-06,0.236
5.060E-06,0.332
5.070E-06,0.308
5.080E-06,0.196
5.090E-06,0.060
5.100E-06,-0.032
5.110E-06,-0.024
5.120E-06,0.028
5.130E-06,0.196
5.140E-06,0.308
5.150E-06,0.344
5.160E-06,0.292
5.170E-06,0.184
5.180E-06,0.100
5.190E-06,0.056
5.200E-06,0.108
5.210E-06,0.200
5.220E-06,0.292
5.230E-06,0.324
5.240E-06,0.300
5.250E-06,0.224
5.260E-06,0.140
5.270E-06,0.088
5.280E-06,0.108
5.290E-06,0.172
5.300E-06,0.232
5.310E-06,0.284
5.320E-06,0.280
5.330E-06,0.240
5.340E-06,0.172
5.350E-06,0.132
5.360E-06,0.132
5.370E-06,0.164
5.380E-06,0.216
5.390E-06,0.260
5.400E-06,0.268
5.410E-06,0.240
5.420E-06,0.192
5.430E-06,0.152
5.440E-06,0.144
5.450E-06,0.148
5.460E-06,0.184
5.470E-06,0.220
5.480E-06,0.236
5.490E-06,0.236
5.500E-06,0.208
5.510E-06,0.176
5.520E-06,0.160
5.530E-06,0.172
5.540E-06,0.192
5.550E-06,0.208
5.560E-06,0.232
5.570E-06,0.232
5.580E-06,0.216
5.590E-06,0.192
5.600E-06,0.176
5.610E-06,0.168
5.620E-06,0.176
5.630E-06,0.200
5.640E-06,0.212
5.650E-06,0.216
5.660E-06,0.212
5.670E-06,0.204
5.680E-06,0.188
5.690E-06,0.184
5.700E-06,0.184
5.710E-06,0.192
5.720E-06,0.208
5.730E-06,0.220
5.740E-06,0.216
5.750E-06,0.196
5.760E-06,0.192
5.770E-06,0.180
5.780E-06,0.184
5.790E-06,0.188
5.800E-06,0.192
5.810E-06,0.204
5.820E-06,0.208
5.830E-06,0.204
5.840E-06,0.192
5.850E-06,0.188
5.860E-06,0.184
5.870E-06,0.192
5.880E-06,0.196
5.890E-06,0.196
5.900E-06,0.196
5.910E-06,0.192
5.920E-06,0.196
5.930E-06,0.192
5.940E-06,0.184
5.950E-06,0.180
5.960E-06,0.184
5.970E-06,0.188
5.980E-06,0.196
5.990E-06,0.192
6.000E-06,0.188
6.010E-06,0.192
6.020E-06,0.184
6.030E-06,0.176
6.040E-06,0.188
6.050E-06,0.192
6.060E-06,0.184
6.070E-06,0.180
6.080E-06,0.188
6.090E-06,0.188
6.100E-06,0.188
6.110E-06,0.184
6.120E-06,0.176
6.130E-06,0.184
6.140E-06,0.184
6.150E-06,0.188
6.160E-06,0.188
6.170E-06,0.188
6.180E-06,0.176
6.190E-06,0.172
6.200E-06,0.176
6.210E-06,0.176
6.220E-06,0.172
6.230E-06,0.176
6.240E-06,0.176
6.250E-06,0.180
6.260E-06,0.180
6.270E-06,0.172
6.280E-06,0.176
6.290E-06,0.172
6.300E-06,0.176
6.310E-06,0.184
6.320E-06,0.176
6.330E-06,0.172
6.340E-06,0.176
6.350E-06,0.180
6.360E-06,0.176
6.370E-06,0.176
6.380E-06,0.176
6.390E-06,0.172
6.400E-06,0.176
6.410E-06,0.176
6.420E-06,0.168
6.430E-06,0.172
6.440E-06,0.168
6.450E-06,0.168
6.460E-06,0.168
6.470E-06,0.168
6.480E-06,0.164
6.490E-06,0.160
6.500E-06,0.168
6.510E-06,0.164
6.520E-06,0.168
6.530E-06,0.160
6.540E-06,0.168
6.550E-06,0.156
6.560E-06,0.152
6.570E-06,0.160
6.580E-06,0.164
6.590E-06,0.168
6.600E-06,0.164
6.610E-06,0.160
6.620E-06,0.156
6.630E-06,0.160
6.640E-06,0.160
6.650E-06,0.160
6.660E-06,0.160
6.670E-06,0.168
6.680E-06,0.164
6.690E-06,0.172
6.700E-06,0.164
6.710E-06,0.152
6.720E-06,0.156
6.730E-06,0.152
6.740E-06,0.160
6.750E-06,0.160
6.760E-06,0.164
6.770E-06,0.160
6.780E-06,0.156
6.790E-06,0.164
6.800E-06,0.160
6.810E-06,0.164
6.820E-06,0.168
6.830E-06,0.164
6.840E-06,0.160
6.850E-06,0.156
6.860E-06,0.156
6.870E-06,0.160
6.880E-06,0.160
6.890E-06,0.156
6.900E-06,0.156
6.910E-06,0.160
6.920E-06,0.152
6.930E-06,0.156
6.940E-06,0.152
6.950E-06,0.152
6.960E-06,0.148
6.970E-06,0.152
6.980E-06,0.152
6.990E-06,0.156
7.000E-06,0.156
7.010E-06,0.152
7.020E-06,0.156
7.030E-06,0.152
7.040E-06,0.148
7.050E-06,0.152
7.060E-06,0.152
7.070E-06,0.152
7.080E-06,0.148
7.090E-06,0.144
7.100E-06,0.144
7.110E-06,0.144
7.120E-06,0.144
7.130E-06,0.144
7.140E-06,0.148
7.150E-06,0.152
7.160E-06,0.152
7.170E-06,0.148
7.180E-06,0.144
7.190E-06,0.140
7.200E-06,0.144
7.210E-06,0.144
7.220E-06,0.144
7.230E-06,0.144
7.240E-06,0.140
7.250E-06,0.144
7.260E-06,0.136
7.270E-06,0.140
7.280E-06,0.136
7.290E-06,0.136
7.300E-06,0.136
7.310E-06,0.140
7.320E-06,0.136
7.330E-06,0.136
7.340E-06,0.140
7.350E-06,0.136
7.360E-06,0.132
7.370E-06,0.132
7.380E-06,0.136
7.390E-06,0.132
7.400E-06,0.128
7.410E-06,0.128
7.420E-06,0.136
7.430E-06,0.136
7.440E-06,0.136
7.450E-06,0.124
7.460E-06,0.132
7.470E-06,0.128
7.480E-06,0.128
7.490E-06,0.128
7.500E-06,0.128
7.510E-06,0.132
7.520E-06,0.128
7.530E-06,0.128
7.540E-06,0.120
7.550E-06,0.120
7.560E-06,0.124
7.570E-06,0.124
7.580E-06,0.124
7.590E-06,0.124
7.600E-06,0.124
7.610E-06,0.124
7.620E-06,0.124
7.630E-06,0.124
7.640E-06,0.124
7.650E-06,0.116
7.660E-06,0.120
7.670E-06,0.120
7.680E-06,0.124
7.690E-06,0.116
7.700E-06,0.120
7.710E-06,0.120
7.720E-06,0.120
7.730E-06,0.120
7.740E-06,0.116
7.750E-06,0.112
