mediciones/Mediciones filtradas (saque las feas)/6-10/27.5/WaveData5585.csv

#timebase=2000000(ps)
,#voltbase=100000(mv/100)
#size=4000
-4.250E-06,-0.004
-4.240E-06,0.012
-4.230E-06,0.016
-4.220E-06,0.016
-4.210E-06,0.008
-4.200E-06,-0.004
-4.190E-06,-0.004
-4.180E-06,0.004
-4.170E-06,0.016
-4.160E-06,0.020
-4.150E-06,0.012
-4.140E-06,0.008
-4.130E-06,0.004
-4.120E-06,0.000
-4.110E-06,0.000
-4.100E-06,0.000
-4.090E-06,0.000
-4.080E-06,0.004
-4.070E-06,0.012
-4.060E-06,0.008
-4.050E-06,0.012
-4.040E-06,0.004
-4.030E-06,0.000
-4.020E-06,-0.004
-4.010E-06,0.004
-4.000E-06,0.012
-3.990E-06,0.020
-3.980E-06,0.020
-3.970E-06,0.016
-3.960E-06,0.020
-3.950E-06,0.016
-3.940E-06,0.008
-3.930E-06,0.020
-3.920E-06,0.040
-3.910E-06,0.044
-3.900E-06,0.040
-3.890E-06,0.032
-3.880E-06,-0.012
-3.870E-06,-0.044
-3.860E-06,-0.060
-3.850E-06,-0.040
-3.840E-06,0.000
-3.830E-06,0.032
-3.820E-06,0.060
-3.810E-06,0.040
-3.800E-06,0.020
-3.790E-06,-0.008
-3.780E-06,-0.020
-3.770E-06,-0.036
-3.760E-06,-0.032
-3.750E-06,-0.020
-3.740E-06,-0.016
-3.730E-06,-0.008
-3.720E-06,-0.016
-3.710E-06,-0.004
-3.700E-06,0.012
-3.690E-06,0.016
-3.680E-06,0.000
-3.670E-06,-0.012
-3.660E-06,-0.016
-3.650E-06,-0.004
-3.640E-06,0.016
-3.630E-06,0.008
-3.620E-06,0.012
-3.610E-06,-0.008
-3.600E-06,0.000
-3.590E-06,0.000
-3.580E-06,-0.020
-3.570E-06,-0.008
-3.560E-06,-0.004
-3.550E-06,0.000
-3.540E-06,0.000
-3.530E-06,0.004
-3.520E-06,0.008
-3.510E-06,0.004
-3.500E-06,-0.008
-3.490E-06,-0.004
-3.480E-06,0.008
-3.470E-06,0.008
-3.460E-06,0.012
-3.450E-06,0.004
-3.440E-06,0.008
-3.430E-06,0.000
-3.420E-06,0.000
-3.410E-06,0.000
-3.400E-06,0.008
-3.390E-06,0.008
-3.380E-06,0.012
-3.370E-06,0.012
-3.360E-06,0.004
-3.350E-06,0.008
-3.340E-06,0.008
-3.330E-06,0.012
-3.320E-06,0.004
-3.310E-06,0.016
-3.300E-06,0.016
-3.290E-06,0.012
-3.280E-06,0.012
-3.270E-06,0.008
-3.260E-06,0.008
-3.250E-06,0.004
-3.240E-06,0.008
-3.230E-06,0.024
-3.220E-06,0.036
-3.210E-06,0.052
-3.200E-06,0.044
-3.190E-06,0.040
-3.180E-06,0.000
-3.170E-06,-0.012
-3.160E-06,-0.012
-3.150E-06,-0.024
-3.140E-06,-0.016
-3.130E-06,0.000
-3.120E-06,-0.036
-3.110E-06,0.108
-3.100E-06,-0.012
-3.090E-06,0.080
-3.080E-06,0.032
-3.070E-06,-0.040
-3.060E-06,-0.032
-3.050E-06,-0.068
-3.040E-06,-0.080
-3.030E-06,0.012
-3.020E-06,0.024
-3.010E-06,0.032
-3.000E-06,0.012
-2.990E-06,0.024
-2.980E-06,-0.040
-2.970E-06,-0.056
-2.960E-06,-0.028
-2.950E-06,-0.004
-2.940E-06,0.020
-2.930E-06,0.024
-2.920E-06,0.004
-2.910E-06,0.000
-2.900E-06,0.000
-2.890E-06,-0.004
-2.880E-06,-0.004
-2.870E-06,-0.008
-2.860E-06,-0.016
-2.850E-06,-0.004
-2.840E-06,0.008
-2.830E-06,0.020
-2.820E-06,0.020
-2.810E-06,0.012
-2.800E-06,-0.008
-2.790E-06,-0.012
-2.780E-06,-0.008
-2.770E-06,0.000
-2.760E-06,0.020
-2.750E-06,0.024
-2.740E-06,0.016
-2.730E-06,0.012
-2.720E-06,-0.004
-2.710E-06,0.000
-2.700E-06,0.000
-2.690E-06,0.008
-2.680E-06,0.016
-2.670E-06,0.020
-2.660E-06,0.028
-2.650E-06,0.028
-2.640E-06,0.040
-2.630E-06,0.040
-2.620E-06,0.020
-2.610E-06,0.008
-2.600E-06,-0.004
-2.590E-06,-0.020
-2.580E-06,0.004
-2.570E-06,0.044
-2.560E-06,0.052
-2.550E-06,0.040
-2.540E-06,0.004
-2.530E-06,-0.036
-2.520E-06,-0.052
-2.510E-06,-0.040
-2.500E-06,-0.008
-2.490E-06,0.024
-2.480E-06,0.036
-2.470E-06,0.020
-2.460E-06,0.004
-2.450E-06,-0.008
-2.440E-06,-0.008
-2.430E-06,-0.004
-2.420E-06,0.004
-2.410E-06,0.004
-2.400E-06,0.000
-2.390E-06,0.008
-2.380E-06,0.012
-2.370E-06,0.004
-2.360E-06,0.000
-2.350E-06,0.004
-2.340E-06,0.016
-2.330E-06,0.008
-2.320E-06,0.004
-2.310E-06,0.008
-2.300E-06,0.008
-2.290E-06,0.020
-2.280E-06,0.016
-2.270E-06,0.012
-2.260E-06,0.000
-2.250E-06,0.012
-2.240E-06,0.008
-2.230E-06,0.012
-2.220E-06,0.012
-2.210E-06,0.016
-2.200E-06,0.012
-2.190E-06,0.000
-2.180E-06,0.000
-2.170E-06,-0.028
-2.160E-06,-0.004
-2.150E-06,0.012
-2.140E-06,0.036
-2.130E-06,0.032
-2.120E-06,0.004
-2.110E-06,0.036
-2.100E-06,0.008
-2.090E-06,0.020
-2.080E-06,0.004
-2.070E-06,-0.008
-2.060E-06,-0.052
-2.050E-06,-0.056
-2.040E-06,-0.044
-2.030E-06,-0.012
-2.020E-06,0.012
-2.010E-06,0.016
-2.000E-06,0.036
-1.990E-06,0.028
-1.980E-06,0.000
-1.970E-06,-0.016
-1.960E-06,-0.012
-1.950E-06,-0.004
-1.940E-06,0.008
-1.930E-06,0.024
-1.920E-06,0.028
-1.910E-06,0.028
-1.900E-06,0.028
-1.890E-06,0.024
-1.880E-06,0.004
-1.870E-06,0.000
-1.860E-06,0.008
-1.850E-06,0.016
-1.840E-06,0.024
-1.830E-06,0.040
-1.820E-06,0.040
-1.810E-06,0.036
-1.800E-06,0.020
-1.790E-06,0.000
-1.780E-06,0.000
-1.770E-06,0.012
-1.760E-06,0.024
-1.750E-06,0.012
-1.740E-06,-0.020
-1.730E-06,-0.036
-1.720E-06,-0.008
-1.710E-06,-0.008
-1.700E-06,0.028
-1.690E-06,0.036
-1.680E-06,0.048
-1.670E-06,0.020
-1.660E-06,0.028
-1.650E-06,0.012
-1.640E-06,0.024
-1.630E-06,0.052
-1.620E-06,0.100
-1.610E-06,0.088
-1.600E-06,0.032
-1.590E-06,-0.016
-1.580E-06,-0.072
-1.570E-06,-0.120
-1.560E-06,-0.140
-1.550E-06,-0.080
-1.540E-06,0.000
-1.530E-06,0.044
-1.520E-06,0.040
-1.510E-06,-0.012
-1.500E-06,-0.056
-1.490E-06,-0.052
-1.480E-06,-0.028
-1.470E-06,0.000
-1.460E-06,0.024
-1.450E-06,0.040
-1.440E-06,0.056
-1.430E-06,-0.008
-1.420E-06,-0.040
-1.410E-06,-0.072
-1.400E-06,-0.056
-1.390E-06,-0.032
-1.380E-06,0.012
-1.370E-06,0.040
-1.360E-06,0.044
-1.350E-06,0.020
-1.340E-06,-0.024
-1.330E-06,-0.040
-1.320E-06,-0.040
-1.310E-06,-0.024
-1.300E-06,0.008
-1.290E-06,0.032
-1.280E-06,0.044
-1.270E-06,0.036
-1.260E-06,0.016
-1.250E-06,0.000
-1.240E-06,0.000
-1.230E-06,0.008
-1.220E-06,0.020
-1.210E-06,0.032
-1.200E-06,0.032
-1.190E-06,0.020
-1.180E-06,-0.004
-1.170E-06,-0.024
-1.160E-06,-0.032
-1.150E-06,0.008
-1.140E-06,0.036
-1.130E-06,0.088
-1.120E-06,0.092
-1.110E-06,0.072
-1.100E-06,0.044
-1.090E-06,0.012
-1.080E-06,0.000
-1.070E-06,0.004
-1.060E-06,0.032
-1.050E-06,0.052
-1.040E-06,0.072
-1.030E-06,0.084
-1.020E-06,0.084
-1.010E-06,0.040
-1.000E-06,-0.004
-9.900E-07,-0.008
-9.800E-07,-0.012
-9.700E-07,-0.020
-9.600E-07,-0.016
-9.500E-07,0.008
-9.400E-07,0.000
-9.300E-07,-0.004
-9.200E-07,-0.008
-9.100E-07,-0.032
-9.000E-07,-0.024
-8.900E-07,-0.024
-8.800E-07,0.004
-8.700E-07,0.016
-8.600E-07,0.004
-8.500E-07,0.008
-8.400E-07,0.032
-8.300E-07,0.024
-8.200E-07,0.052
-8.100E-07,0.056
-8.000E-07,0.060
-7.900E-07,0.120
-7.800E-07,0.012
-7.700E-07,0.096
-7.600E-07,-0.020
-7.500E-07,-0.028
-7.400E-07,-0.124
-7.300E-07,-0.108
-7.200E-07,-0.016
-7.100E-07,-0.040
-7.000E-07,0.032
-6.900E-07,0.076
-6.800E-07,-0.056
-6.700E-07,-0.088
-6.600E-07,-0.204
-6.500E-07,-0.116
-6.400E-07,-0.024
-6.300E-07,0.044
-6.200E-07,0.136
-6.100E-07,0.072
-6.000E-07,-0.016
-5.900E-07,-0.152
-5.800E-07,-0.156
-5.700E-07,-0.100
-5.600E-07,-0.004
-5.500E-07,0.012
-5.400E-07,0.060
-5.300E-07,0.132
-5.200E-07,0.056
-5.100E-07,-0.032
-5.000E-07,-0.036
-4.900E-07,0.016
-4.800E-07,0.092
-4.700E-07,0.128
-4.600E-07,0.116
-4.500E-07,0.016
-4.400E-07,-0.068
-4.300E-07,-0.108
-4.200E-07,-0.100
-4.100E-07,-0.044
-4.000E-07,-0.016
-3.900E-07,0.016
-3.800E-07,0.008
-3.700E-07,0.012
-3.600E-07,0.000
-3.500E-07,-0.060
-3.400E-07,-0.032
-3.300E-07,0.016
-3.200E-07,0.056
-3.100E-07,0.012
-3.000E-07,-0.056
-2.900E-07,-0.056
-2.800E-07,-0.036
-2.700E-07,0.020
-2.600E-07,0.044
-2.500E-07,0.056
-2.400E-07,0.068
-2.300E-07,0.088
-2.200E-07,0.096
-2.100E-07,0.076
-2.000E-07,0.088
-1.900E-07,0.092
-1.800E-07,0.088
-1.700E-07,0.028
-1.600E-07,-0.008
-1.500E-07,-0.056
-1.400E-07,-0.016
-1.300E-07,0.028
-1.200E-07,0.052
-1.100E-07,0.080
-1.000E-07,0.048
-9.000E-08,0.024
-8.000E-08,-0.052
-7.000E-08,-0.064
-6.000E-08,-0.040
-5.000E-08,0.064
-4.000E-08,-0.104
-3.000E-08,-0.088
-2.000E-08,-0.256
-1.000E-08,-0.028
0.000E+00,0.340
1.000E-08,0.156
2.000E-08,0.228
3.000E-08,-0.124
4.000E-08,-0.396
5.000E-08,-0.304
6.000E-08,0.012
7.000E-08,0.116
8.000E-08,0.056
9.000E-08,-0.076
1.000E-07,-0.004
1.100E-07,0.008
1.200E-07,-0.004
1.300E-07,-0.064
1.400E-07,-0.064
1.500E-07,0.044
1.600E-07,0.028
1.700E-07,0.112
1.800E-07,-0.008
1.900E-07,-0.104
2.000E-07,-0.080
2.100E-07,-0.036
2.200E-07,0.044
2.300E-07,0.108
2.400E-07,0.056
2.500E-07,-0.020
2.600E-07,-0.020
2.700E-07,-0.036
2.800E-07,-0.032
2.900E-07,0.000
3.000E-07,0.024
3.100E-07,0.056
3.200E-07,0.064
3.300E-07,0.052
3.400E-07,0.004
3.500E-07,-0.024
3.600E-07,-0.028
3.700E-07,0.000
3.800E-07,0.020
3.900E-07,0.052
4.000E-07,0.056
4.100E-07,0.048
4.200E-07,0.036
4.300E-07,0.000
4.400E-07,0.012
4.500E-07,0.032
4.600E-07,0.068
4.700E-07,0.084
4.800E-07,0.104
4.900E-07,0.112
5.000E-07,0.084
5.100E-07,0.044
5.200E-07,-0.004
5.300E-07,-0.024
5.400E-07,-0.040
5.500E-07,0.004
5.600E-07,-0.008
5.700E-07,-0.292
5.800E-07,-0.256
5.900E-07,-0.168
6.000E-07,-0.120
6.100E-07,-0.020
6.200E-07,0.044
6.300E-07,0.188
6.400E-07,0.060
6.500E-07,0.072
6.600E-07,-0.180
6.700E-07,-0.124
6.800E-07,0.024
6.900E-07,0.140
7.000E-07,0.104
7.100E-07,0.156
7.200E-07,-0.096
7.300E-07,-0.056
7.400E-07,-0.384
7.500E-07,-0.176
7.600E-07,0.148
7.700E-07,0.164
7.800E-07,0.176
7.900E-07,0.096
8.000E-07,0.020
8.100E-07,-0.156
8.200E-07,-0.096
8.300E-07,-0.052
8.400E-07,-0.028
8.500E-07,0.084
8.600E-07,0.068
8.700E-07,0.060
8.800E-07,-0.012
8.900E-07,0.016
9.000E-07,-0.060
9.100E-07,0.008
9.200E-07,0.024
9.300E-07,0.036
9.400E-07,0.024
9.500E-07,0.032
9.600E-07,0.024
9.700E-07,-0.012
9.800E-07,0.036
9.900E-07,0.028
1.000E-06,0.056
1.010E-06,0.032
1.020E-06,0.056
1.030E-06,0.036
1.040E-06,0.040
1.050E-06,0.044
1.060E-06,0.068
1.070E-06,0.124
1.080E-06,0.124
1.090E-06,0.116
1.100E-06,0.024
1.110E-06,-0.024
1.120E-06,-0.088
1.130E-06,-0.068
1.140E-06,-0.020
1.150E-06,0.076
1.160E-06,0.156
1.170E-06,0.188
1.180E-06,0.108
1.190E-06,-0.036
1.200E-06,-0.128
1.210E-06,-0.164
1.220E-06,-0.120
1.230E-06,-0.024
1.240E-06,-0.020
1.250E-06,-0.016
1.260E-06,-0.008
1.270E-06,-0.060
1.280E-06,-0.100
1.290E-06,-0.152
1.300E-06,0.008
1.310E-06,0.004
1.320E-06,0.060
1.330E-06,0.112
1.340E-06,0.068
1.350E-06,0.120
1.360E-06,0.092
1.370E-06,-0.004
1.380E-06,-0.004
1.390E-06,-0.116
1.400E-06,-0.104
1.410E-06,-0.152
1.420E-06,-0.080
1.430E-06,-0.068
1.440E-06,0.004
1.450E-06,0.072
1.460E-06,-0.032
1.470E-06,-0.076
1.480E-06,-0.104
1.490E-06,-0.120
1.500E-06,0.028
1.510E-06,0.104
1.520E-06,0.052
1.530E-06,0.080
1.540E-06,0.064
1.550E-06,-0.060
1.560E-06,-0.108
1.570E-06,-0.080
1.580E-06,-0.004
1.590E-06,0.088
1.600E-06,0.144
1.610E-06,0.108
1.620E-06,0.032
1.630E-06,-0.044
1.640E-06,-0.080
1.650E-06,-0.044
1.660E-06,0.028
1.670E-06,0.088
1.680E-06,0.124
1.690E-06,0.112
1.700E-06,0.056
1.710E-06,0.004
1.720E-06,-0.012
1.730E-06,0.000
1.740E-06,0.060
1.750E-06,0.128
1.760E-06,0.188
1.770E-06,0.176
1.780E-06,0.168
1.790E-06,0.112
1.800E-06,0.020
1.810E-06,-0.024
1.820E-06,-0.052
1.830E-06,-0.032
1.840E-06,0.028
1.850E-06,0.064
1.860E-06,0.072
1.870E-06,0.064
1.880E-06,0.080
1.890E-06,0.092
1.900E-06,0.092
1.910E-06,0.092
1.920E-06,0.104
1.930E-06,0.108
1.940E-06,0.112
1.950E-06,0.124
1.960E-06,0.120
1.970E-06,0.128
1.980E-06,0.124
1.990E-06,0.072
2.000E-06,0.068
2.010E-06,0.072
2.020E-06,0.032
2.030E-06,-0.124
2.040E-06,-0.336
2.050E-06,-0.512
2.060E-06,-0.512
2.070E-06,-0.112
2.080E-06,0.208
2.090E-06,0.388
2.100E-06,0.424
2.110E-06,0.308
2.120E-06,0.072
2.130E-06,-0.092
2.140E-06,-0.296
2.150E-06,-0.496
2.160E-06,-0.512
2.170E-06,-0.476
2.180E-06,-0.272
2.190E-06,-0.020
2.200E-06,0.192
2.210E-06,0.348
2.220E-06,0.128
2.230E-06,-0.024
2.240E-06,-0.260
2.250E-06,-0.312
2.260E-06,-0.076
2.270E-06,0.264
2.280E-06,0.276
2.290E-06,0.272
2.300E-06,0.008
2.310E-06,-0.256
2.320E-06,-0.332
2.330E-06,-0.232
2.340E-06,-0.028
2.350E-06,0.140
2.360E-06,0.256
2.370E-06,0.156
2.380E-06,0.028
2.390E-06,-0.116
2.400E-06,-0.212
2.410E-06,-0.172
2.420E-06,-0.028
2.430E-06,0.176
2.440E-06,0.248
2.450E-06,0.228
2.460E-06,0.072
2.470E-06,-0.072
2.480E-06,-0.160
2.490E-06,-0.124
2.500E-06,0.000
2.510E-06,0.140
2.520E-06,0.232
2.530E-06,0.224
2.540E-06,0.144
2.550E-06,0.008
2.560E-06,-0.060
2.570E-06,-0.068
2.580E-06,0.028
2.590E-06,0.144
2.600E-06,0.236
2.610E-06,0.268
2.620E-06,0.228
2.630E-06,0.136
2.640E-06,0.052
2.650E-06,0.044
2.660E-06,0.096
2.670E-06,0.168
2.680E-06,0.240
2.690E-06,0.260
2.700E-06,0.188
2.710E-06,0.072
2.720E-06,-0.100
2.730E-06,-0.236
2.740E-06,-0.268
2.750E-06,-0.008
2.760E-06,0.236
2.770E-06,0.444
2.780E-06,0.356
2.790E-06,-0.016
2.800E-06,-0.380
2.810E-06,-0.508
2.820E-06,-0.496
2.830E-06,-0.256
2.840E-06,0.060
2.850E-06,0.536
2.860E-06,0.536
2.870E-06,0.236
2.880E-06,-0.056
2.890E-06,-0.512
2.900E-06,-0.512
2.910E-06,-0.512
2.920E-06,-0.364
2.930E-06,0.304
2.940E-06,0.504
2.950E-06,0.540
2.960E-06,0.208
2.970E-06,-0.116
2.980E-06,-0.444
2.990E-06,-0.512
3.000E-06,-0.256
3.010E-06,0.020
3.020E-06,0.288
3.030E-06,0.392
3.040E-06,0.240
3.050E-06,-0.044
3.060E-06,-0.292
3.070E-06,-0.332
3.080E-06,-0.148
3.090E-06,0.068
3.100E-06,0.228
3.110E-06,0.312
3.120E-06,0.272
3.130E-06,0.092
3.140E-06,-0.116
3.150E-06,-0.216
3.160E-06,-0.140
3.170E-06,0.064
3.180E-06,0.228
3.190E-06,0.288
3.200E-06,0.284
3.210E-06,0.140
3.220E-06,-0.008
3.230E-06,-0.060
3.240E-06,-0.008
3.250E-06,0.088
3.260E-06,0.244
3.270E-06,0.336
3.280E-06,0.328
3.290E-06,0.248
3.300E-06,0.160
3.310E-06,0.076
3.320E-06,0.068
3.330E-06,0.140
3.340E-06,0.228
3.350E-06,0.312
3.360E-06,0.324
3.370E-06,0.276
3.380E-06,0.192
3.390E-06,0.136
3.400E-06,0.104
3.410E-06,0.144
3.420E-06,0.216
3.430E-06,0.268
3.440E-06,0.288
3.450E-06,0.248
3.460E-06,0.188
3.470E-06,0.104
3.480E-06,0.092
3.490E-06,0.088
3.500E-06,0.184
3.510E-06,0.244
3.520E-06,0.288
3.530E-06,0.276
3.540E-06,0.208
3.550E-06,0.108
3.560E-06,0.016
3.570E-06,-0.068
3.580E-06,-0.112
3.590E-06,-0.152
3.600E-06,-0.116
3.610E-06,-0.088
3.620E-06,-0.268
3.630E-06,-0.076
3.640E-06,-0.384
3.650E-06,-0.480
3.660E-06,-0.308
3.670E-06,-0.056
3.680E-06,-0.056
3.690E-06,0.120
3.700E-06,0.316
3.710E-06,0.068
3.720E-06,0.044
3.730E-06,0.036
3.740E-06,0.132
3.750E-06,-0.124
3.760E-06,0.060
3.770E-06,0.292
3.780E-06,0.308
3.790E-06,0.356
3.800E-06,0.240
3.810E-06,0.132
3.820E-06,0.068
3.830E-06,0.076
3.840E-06,0.124
3.850E-06,0.256
3.860E-06,0.320
3.870E-06,0.296
3.880E-06,0.256
3.890E-06,0.216
3.900E-06,0.132
3.910E-06,0.104
3.920E-06,0.132
3.930E-06,0.200
3.940E-06,0.276
3.950E-06,0.304
3.960E-06,0.288
3.970E-06,0.220
3.980E-06,0.176
3.990E-06,0.136
4.000E-06,0.144
4.010E-06,0.176
4.020E-06,0.232
4.030E-06,0.264
4.040E-06,0.268
4.050E-06,0.240
4.060E-06,0.192
4.070E-06,0.156
4.080E-06,0.144
4.090E-06,0.172
4.100E-06,0.212
4.110E-06,0.244
4.120E-06,0.260
4.130E-06,0.240
4.140E-06,0.212
4.150E-06,0.168
4.160E-06,0.152
4.170E-06,0.160
4.180E-06,0.192
4.190E-06,0.220
4.200E-06,0.236
4.210E-06,0.232
4.220E-06,0.204
4.230E-06,0.188
4.240E-06,0.156
4.250E-06,0.164
4.260E-06,0.168
4.270E-06,0.196
4.280E-06,0.220
4.290E-06,0.232
4.300E-06,0.220
4.310E-06,0.172
4.320E-06,0.156
4.330E-06,0.156
4.340E-06,0.180
4.350E-06,0.208
4.360E-06,0.228
4.370E-06,0.236
4.380E-06,0.224
4.390E-06,0.200
4.400E-06,0.176
4.410E-06,0.172
4.420E-06,0.180
4.430E-06,0.204
4.440E-06,0.228
4.450E-06,0.228
4.460E-06,0.216
4.470E-06,0.200
4.480E-06,0.192
4.490E-06,0.180
4.500E-06,0.188
4.510E-06,0.196
4.520E-06,0.216
4.530E-06,0.220
4.540E-06,0.216
4.550E-06,0.204
4.560E-06,0.192
4.570E-06,0.196
4.580E-06,0.184
4.590E-06,0.188
4.600E-06,0.200
4.610E-06,0.212
4.620E-06,0.212
4.630E-06,0.208
4.640E-06,0.196
4.650E-06,0.184
4.660E-06,0.184
4.670E-06,0.192
4.680E-06,0.200
4.690E-06,0.200
4.700E-06,0.208
4.710E-06,0.200
4.720E-06,0.200
4.730E-06,0.196
4.740E-06,0.188
4.750E-06,0.188
4.760E-06,0.196
4.770E-06,0.200
4.780E-06,0.204
4.790E-06,0.200
4.800E-06,0.196
4.810E-06,0.188
4.820E-06,0.188
4.830E-06,0.188
4.840E-06,0.188
4.850E-06,0.188
4.860E-06,0.192
4.870E-06,0.196
4.880E-06,0.188
4.890E-06,0.188
4.900E-06,0.192
4.910E-06,0.188
4.920E-06,0.188
4.930E-06,0.192
4.940E-06,0.188
4.950E-06,0.192
4.960E-06,0.188
4.970E-06,0.192
4.980E-06,0.188
4.990E-06,0.180
5.000E-06,0.184
5.010E-06,0.184
5.020E-06,0.188
5.030E-06,0.188
5.040E-06,0.188
5.050E-06,0.192
5.060E-06,0.184
5.070E-06,0.188
5.080E-06,0.180
5.090E-06,0.180
5.100E-06,0.176
5.110E-06,0.172
5.120E-06,0.176
5.130E-06,0.176
5.140E-06,0.176
5.150E-06,0.172
5.160E-06,0.168
5.170E-06,0.164
5.180E-06,0.180
5.190E-06,0.176
5.200E-06,0.172
5.210E-06,0.176
5.220E-06,0.172
5.230E-06,0.176
5.240E-06,0.176
5.250E-06,0.164
5.260E-06,0.168
5.270E-06,0.172
5.280E-06,0.176
5.290E-06,0.176
5.300E-06,0.188
5.310E-06,0.180
5.320E-06,0.172
5.330E-06,0.176
5.340E-06,0.168
5.350E-06,0.164
5.360E-06,0.172
5.370E-06,0.180
5.380E-06,0.176
5.390E-06,0.176
5.400E-06,0.168
5.410E-06,0.168
5.420E-06,0.164
5.430E-06,0.160
5.440E-06,0.164
5.450E-06,0.156
5.460E-06,0.164
5.470E-06,0.168
5.480E-06,0.168
5.490E-06,0.164
5.500E-06,0.160
5.510E-06,0.156
5.520E-06,0.164
5.530E-06,0.156
5.540E-06,0.164
5.550E-06,0.160
5.560E-06,0.164
5.570E-06,0.164
5.580E-06,0.164
5.590E-06,0.164
5.600E-06,0.160
5.610E-06,0.164
5.620E-06,0.156
5.630E-06,0.164
5.640E-06,0.164
5.650E-06,0.156
5.660E-06,0.152
5.670E-06,0.160
5.680E-06,0.156
5.690E-06,0.160
5.700E-06,0.156
5.710E-06,0.156
5.720E-06,0.160
5.730E-06,0.156
5.740E-06,0.152
5.750E-06,0.152
5.760E-06,0.156
5.770E-06,0.152
5.780E-06,0.156
5.790E-06,0.156
5.800E-06,0.160
5.810E-06,0.156
5.820E-06,0.152
5.830E-06,0.152
5.840E-06,0.152
5.850E-06,0.152
5.860E-06,0.152
5.870E-06,0.156
5.880E-06,0.152
5.890E-06,0.152
5.900E-06,0.152
5.910E-06,0.152
5.920E-06,0.152
5.930E-06,0.148
5.940E-06,0.152
5.950E-06,0.156
5.960E-06,0.152
5.970E-06,0.144
5.980E-06,0.144
5.990E-06,0.144
6.000E-06,0.148
6.010E-06,0.148
6.020E-06,0.148
6.030E-06,0.152
6.040E-06,0.148
6.050E-06,0.148
6.060E-06,0.140
6.070E-06,0.140
6.080E-06,0.140
6.090E-06,0.136
6.100E-06,0.140
6.110E-06,0.136
6.120E-06,0.136
6.130E-06,0.136
6.140E-06,0.144
6.150E-06,0.136
6.160E-06,0.140
6.170E-06,0.140
6.180E-06,0.136
6.190E-06,0.140
6.200E-06,0.132
6.210E-06,0.132
6.220E-06,0.136
6.230E-06,0.136
6.240E-06,0.132
6.250E-06,0.132
6.260E-06,0.132
6.270E-06,0.132
6.280E-06,0.132
6.290E-06,0.128
6.300E-06,0.132
6.310E-06,0.128
6.320E-06,0.128
6.330E-06,0.128
6.340E-06,0.128
6.350E-06,0.128
6.360E-06,0.128
6.370E-06,0.128
6.380E-06,0.128
6.390E-06,0.124
6.400E-06,0.124
6.410E-06,0.124
6.420E-06,0.124
6.430E-06,0.128
6.440E-06,0.124
6.450E-06,0.124
6.460E-06,0.120
6.470E-06,0.120
6.480E-06,0.124
6.490E-06,0.124
6.500E-06,0.124
6.510E-06,0.124
6.520E-06,0.120
6.530E-06,0.120
6.540E-06,0.120
6.550E-06,0.116
6.560E-06,0.120
6.570E-06,0.120
6.580E-06,0.124
6.590E-06,0.120
6.600E-06,0.124
6.610E-06,0.120
6.620E-06,0.112
6.630E-06,0.108
6.640E-06,0.112
6.650E-06,0.116
6.660E-06,0.120
6.670E-06,0.124
6.680E-06,0.120
6.690E-06,0.120
6.700E-06,0.108
6.710E-06,0.108
6.720E-06,0.108
6.730E-06,0.108
6.740E-06,0.108
6.750E-06,0.112
6.760E-06,0.112
6.770E-06,0.108
6.780E-06,0.108
6.790E-06,0.104
6.800E-06,0.104
6.810E-06,0.108
6.820E-06,0.108
6.830E-06,0.108
6.840E-06,0.104
6.850E-06,0.108
6.860E-06,0.108
6.870E-06,0.108
6.880E-06,0.104
6.890E-06,0.100
6.900E-06,0.104
6.910E-06,0.112
6.920E-06,0.104
6.930E-06,0.100
6.940E-06,0.104
6.950E-06,0.100
6.960E-06,0.096
6.970E-06,0.096
6.980E-06,0.100
6.990E-06,0.104
7.000E-06,0.108
7.010E-06,0.104
7.020E-06,0.104
7.030E-06,0.100
7.040E-06,0.092
7.050E-06,0.092
7.060E-06,0.092
7.070E-06,0.100
7.080E-06,0.100
7.090E-06,0.096
7.100E-06,0.100
7.110E-06,0.100
7.120E-06,0.096
7.130E-06,0.100
7.140E-06,0.100
7.150E-06,0.100
7.160E-06,0.096
7.170E-06,0.096
7.180E-06,0.092
7.190E-06,0.088
7.200E-06,0.088
7.210E-06,0.092
7.220E-06,0.100
7.230E-06,0.100
7.240E-06,0.096
7.250E-06,0.092
7.260E-06,0.088
7.270E-06,0.084
7.280E-06,0.088
7.290E-06,0.092
7.300E-06,0.092
7.310E-06,0.092
7.320E-06,0.088
7.330E-06,0.088
7.340E-06,0.084
7.350E-06,0.076
7.360E-06,0.076
7.370E-06,0.080
7.380E-06,0.092
7.390E-06,0.092
7.400E-06,0.092
7.410E-06,0.088
7.420E-06,0.072
7.430E-06,0.076
7.440E-06,0.068
7.450E-06,0.068
7.460E-06,0.076
7.470E-06,0.088
7.480E-06,0.092
7.490E-06,0.088
7.500E-06,0.076
7.510E-06,0.076
7.520E-06,0.076
7.530E-06,0.072
7.540E-06,0.080
7.550E-06,0.084
7.560E-06,0.084
7.570E-06,0.080
7.580E-06,0.072
7.590E-06,0.072
7.600E-06,0.072
7.610E-06,0.072
7.620E-06,0.072
7.630E-06,0.076
7.640E-06,0.076
7.650E-06,0.076
7.660E-06,0.076
7.670E-06,0.072
7.680E-06,0.068
7.690E-06,0.064
7.700E-06,0.068
7.710E-06,0.068
7.720E-06,0.072
7.730E-06,0.072
7.740E-06,0.068
7.750E-06,0.072
