mediciones/Mediciones filtradas (saque las feas)/6-10/26.1/WaveData55123.csv

#timebase=2000000(ps)
,#voltbase=500000(mv/100)
#size=4000
-4.250E-06,-0.220
-4.240E-06,-0.280
-4.230E-06,-0.380
-4.220E-06,-0.400
-4.210E-06,-0.440
-4.200E-06,-0.440
-4.190E-06,-0.400
-4.180E-06,-0.300
-4.170E-06,-0.180
-4.160E-06,-0.080
-4.150E-06,0.020
-4.140E-06,0.120
-4.130E-06,0.260
-4.120E-06,0.320
-4.110E-06,0.360
-4.100E-06,0.420
-4.090E-06,0.420
-4.080E-06,0.360
-4.070E-06,0.300
-4.060E-06,0.260
-4.050E-06,0.220
-4.040E-06,0.180
-4.030E-06,0.160
-4.020E-06,0.080
-4.010E-06,0.060
-4.000E-06,0.000
-3.990E-06,-0.020
-3.980E-06,-0.040
-3.970E-06,-0.060
-3.960E-06,-0.040
-3.950E-06,-0.080
-3.940E-06,-0.100
-3.930E-06,-0.120
-3.920E-06,-0.080
-3.910E-06,-0.080
-3.900E-06,-0.060
-3.890E-06,-0.080
-3.880E-06,-0.060
-3.870E-06,-0.040
-3.860E-06,0.020
-3.850E-06,0.020
-3.840E-06,0.040
-3.830E-06,0.080
-3.820E-06,0.100
-3.810E-06,0.140
-3.800E-06,0.160
-3.790E-06,0.220
-3.780E-06,0.160
-3.770E-06,0.180
-3.760E-06,0.200
-3.750E-06,0.220
-3.740E-06,0.160
-3.730E-06,0.160
-3.720E-06,0.160
-3.710E-06,0.120
-3.700E-06,0.100
-3.690E-06,0.100
-3.680E-06,0.060
-3.670E-06,0.060
-3.660E-06,0.040
-3.650E-06,0.060
-3.640E-06,0.000
-3.630E-06,0.000
-3.620E-06,0.000
-3.610E-06,0.000
-3.600E-06,0.040
-3.590E-06,-0.020
-3.580E-06,0.080
-3.570E-06,0.020
-3.560E-06,0.080
-3.550E-06,0.060
-3.540E-06,0.060
-3.530E-06,0.040
-3.520E-06,0.080
-3.510E-06,0.140
-3.500E-06,0.140
-3.490E-06,0.200
-3.480E-06,0.220
-3.470E-06,0.180
-3.460E-06,0.160
-3.450E-06,0.180
-3.440E-06,0.120
-3.430E-06,0.140
-3.420E-06,0.120
-3.410E-06,0.080
-3.400E-06,0.080
-3.390E-06,-0.020
-3.380E-06,0.020
-3.370E-06,0.020
-3.360E-06,-0.040
-3.350E-06,0.020
-3.340E-06,0.020
-3.330E-06,0.020
-3.320E-06,0.040
-3.310E-06,0.020
-3.300E-06,0.100
-3.290E-06,0.120
-3.280E-06,0.180
-3.270E-06,0.160
-3.260E-06,0.180
-3.250E-06,0.200
-3.240E-06,0.160
-3.230E-06,0.200
-3.220E-06,0.160
-3.210E-06,0.200
-3.200E-06,0.160
-3.190E-06,0.120
-3.180E-06,0.100
-3.170E-06,0.020
-3.160E-06,0.040
-3.150E-06,0.040
-3.140E-06,-0.020
-3.130E-06,-0.020
-3.120E-06,-0.020
-3.110E-06,0.000
-3.100E-06,-0.020
-3.090E-06,-0.040
-3.080E-06,-0.100
-3.070E-06,-0.040
-3.060E-06,-0.120
-3.050E-06,-0.020
-3.040E-06,-0.020
-3.030E-06,-0.020
-3.020E-06,0.000
-3.010E-06,0.000
-3.000E-06,0.040
-2.990E-06,0.060
-2.980E-06,0.160
-2.970E-06,0.160
-2.960E-06,0.160
-2.950E-06,0.140
-2.940E-06,0.200
-2.930E-06,0.180
-2.920E-06,0.120
-2.910E-06,0.140
-2.900E-06,-0.080
-2.890E-06,-0.380
-2.880E-06,-0.760
-2.870E-06,-1.080
-2.860E-06,-1.340
-2.850E-06,-1.320
-2.840E-06,-1.000
-2.830E-06,-0.420
-2.820E-06,0.200
-2.810E-06,0.680
-2.800E-06,1.020
-2.790E-06,1.120
-2.780E-06,1.060
-2.770E-06,1.100
-2.760E-06,1.020
-2.750E-06,1.040
-2.740E-06,1.080
-2.730E-06,1.020
-2.720E-06,0.900
-2.710E-06,0.780
-2.700E-06,0.560
-2.690E-06,0.400
-2.680E-06,0.220
-2.670E-06,0.020
-2.660E-06,-0.120
-2.650E-06,-0.300
-2.640E-06,-0.440
-2.630E-06,-0.500
-2.620E-06,-0.620
-2.610E-06,-0.620
-2.600E-06,-0.600
-2.590E-06,-0.580
-2.580E-06,-0.480
-2.570E-06,-0.360
-2.560E-06,-0.260
-2.550E-06,-0.140
-2.540E-06,-0.040
-2.530E-06,0.100
-2.520E-06,0.140
-2.510E-06,0.260
-2.500E-06,0.300
-2.490E-06,0.340
-2.480E-06,0.340
-2.470E-06,0.340
-2.460E-06,0.300
-2.450E-06,0.160
-2.440E-06,0.040
-2.430E-06,-0.020
-2.420E-06,-0.180
-2.410E-06,-0.280
-2.400E-06,-0.360
-2.390E-06,-0.460
-2.380E-06,-0.400
-2.370E-06,-0.520
-2.360E-06,-0.500
-2.350E-06,-0.380
-2.340E-06,-0.340
-2.330E-06,-0.220
-2.320E-06,-0.040
-2.310E-06,0.120
-2.300E-06,0.320
-2.290E-06,0.460
-2.280E-06,0.560
-2.270E-06,0.700
-2.260E-06,0.740
-2.250E-06,0.720
-2.240E-06,0.800
-2.230E-06,0.760
-2.220E-06,0.740
-2.210E-06,0.700
-2.200E-06,0.500
-2.190E-06,0.380
-2.180E-06,0.300
-2.170E-06,0.100
-2.160E-06,-0.020
-2.150E-06,-0.100
-2.140E-06,-0.200
-2.130E-06,-0.260
-2.120E-06,-0.340
-2.110E-06,-0.360
-2.100E-06,-0.360
-2.090E-06,-0.320
-2.080E-06,-0.300
-2.070E-06,-0.220
-2.060E-06,-0.120
-2.050E-06,-0.040
-2.040E-06,0.080
-2.030E-06,0.100
-2.020E-06,0.180
-2.010E-06,0.240
-2.000E-06,0.300
-1.990E-06,0.320
-1.980E-06,0.360
-1.970E-06,0.380
-1.960E-06,0.400
-1.950E-06,0.360
-1.940E-06,0.360
-1.930E-06,0.300
-1.920E-06,0.220
-1.910E-06,0.120
-1.900E-06,0.020
-1.890E-06,-0.060
-1.880E-06,-0.120
-1.870E-06,-0.140
-1.860E-06,-0.160
-1.850E-06,-0.180
-1.840E-06,-0.180
-1.830E-06,-0.160
-1.820E-06,-0.160
-1.810E-06,-0.140
-1.800E-06,-0.080
-1.790E-06,-0.040
-1.780E-06,-0.020
-1.770E-06,0.020
-1.760E-06,0.100
-1.750E-06,0.080
-1.740E-06,0.120
-1.730E-06,0.180
-1.720E-06,0.180
-1.710E-06,0.180
-1.700E-06,0.160
-1.690E-06,0.140
-1.680E-06,0.160
-1.670E-06,0.140
-1.660E-06,0.120
-1.650E-06,0.120
-1.640E-06,0.160
-1.630E-06,0.120
-1.620E-06,0.100
-1.610E-06,0.060
-1.600E-06,0.040
-1.590E-06,0.040
-1.580E-06,0.120
-1.570E-06,0.100
-1.560E-06,0.100
-1.550E-06,0.100
-1.540E-06,0.060
-1.530E-06,0.020
-1.520E-06,0.040
-1.510E-06,0.040
-1.500E-06,0.100
-1.490E-06,0.100
-1.480E-06,0.080
-1.470E-06,0.080
-1.460E-06,0.040
-1.450E-06,0.080
-1.440E-06,0.100
-1.430E-06,0.140
-1.420E-06,0.180
-1.410E-06,0.180
-1.400E-06,0.140
-1.390E-06,0.120
-1.380E-06,0.160
-1.370E-06,0.120
-1.360E-06,0.160
-1.350E-06,0.120
-1.340E-06,0.140
-1.330E-06,0.120
-1.320E-06,0.120
-1.310E-06,0.100
-1.300E-06,0.080
-1.290E-06,0.060
-1.280E-06,0.080
-1.270E-06,0.060
-1.260E-06,0.040
-1.250E-06,0.000
-1.240E-06,0.020
-1.230E-06,0.080
-1.220E-06,0.020
-1.210E-06,0.000
-1.200E-06,0.000
-1.190E-06,0.000
-1.180E-06,0.080
-1.170E-06,0.080
-1.160E-06,0.120
-1.150E-06,0.240
-1.140E-06,0.160
-1.130E-06,0.160
-1.120E-06,0.100
-1.110E-06,0.180
-1.100E-06,0.200
-1.090E-06,0.200
-1.080E-06,0.220
-1.070E-06,0.260
-1.060E-06,0.240
-1.050E-06,0.180
-1.040E-06,0.120
-1.030E-06,0.160
-1.020E-06,0.160
-1.010E-06,0.180
-1.000E-06,0.200
-9.900E-07,0.160
-9.800E-07,0.140
-9.700E-07,0.160
-9.600E-07,0.080
-9.500E-07,0.240
-9.400E-07,0.100
-9.300E-07,0.160
-9.200E-07,0.180
-9.100E-07,0.100
-9.000E-07,0.160
-8.900E-07,0.120
-8.800E-07,0.180
-8.700E-07,0.060
-8.600E-07,0.180
-8.500E-07,0.180
-8.400E-07,0.120
-8.300E-07,0.240
-8.200E-07,0.020
-8.100E-07,0.120
-8.000E-07,-0.020
-7.900E-07,0.060
-7.800E-07,-0.240
-7.700E-07,0.060
-7.600E-07,0.180
-7.500E-07,-0.180
-7.400E-07,-0.060
-7.300E-07,-0.660
-7.200E-07,-0.600
-7.100E-07,-0.660
-7.000E-07,-0.200
-6.900E-07,0.160
-6.800E-07,0.520
-6.700E-07,0.760
-6.600E-07,0.680
-6.500E-07,0.640
-6.400E-07,0.480
-6.300E-07,0.480
-6.200E-07,0.660
-6.100E-07,0.500
-6.000E-07,0.680
-5.900E-07,0.660
-5.800E-07,0.560
-5.700E-07,0.520
-5.600E-07,0.340
-5.500E-07,0.220
-5.400E-07,0.160
-5.300E-07,0.260
-5.200E-07,0.240
-5.100E-07,0.420
-5.000E-07,0.340
-4.900E-07,0.180
-4.800E-07,0.080
-4.700E-07,-0.200
-4.600E-07,-0.240
-4.500E-07,0.060
-4.400E-07,0.020
-4.300E-07,0.400
-4.200E-07,0.460
-4.100E-07,0.020
-4.000E-07,0.180
-3.900E-07,0.160
-3.800E-07,0.160
-3.700E-07,0.540
-3.600E-07,0.480
-3.500E-07,0.260
-3.400E-07,0.440
-3.300E-07,-0.100
-3.200E-07,-0.060
-3.100E-07,0.040
-3.000E-07,-0.120
-2.900E-07,0.160
-2.800E-07,0.080
-2.700E-07,-0.020
-2.600E-07,-0.160
-2.500E-07,-0.180
-2.400E-07,-0.080
-2.300E-07,0.020
-2.200E-07,0.100
-2.100E-07,0.080
-2.000E-07,0.120
-1.900E-07,0.020
-1.800E-07,0.040
-1.700E-07,0.040
-1.600E-07,0.020
-1.500E-07,0.120
-1.400E-07,0.160
-1.300E-07,0.260
-1.200E-07,0.260
-1.100E-07,0.280
-1.000E-07,0.140
-9.000E-08,0.020
-8.000E-08,0.140
-7.000E-08,-0.340
-6.000E-08,0.080
-5.000E-08,0.560
-4.000E-08,-0.540
-3.000E-08,-1.100
-2.000E-08,-0.340
-1.000E-08,-2.400
0.000E+00,-0.700
1.000E-08,-0.840
2.000E-08,-0.340
3.000E-08,1.420
4.000E-08,-0.060
5.000E-08,0.500
6.000E-08,0.400
7.000E-08,-0.420
8.000E-08,0.440
9.000E-08,0.600
1.000E-07,0.640
1.100E-07,1.080
1.200E-07,0.860
1.300E-07,0.720
1.400E-07,0.900
1.500E-07,0.620
1.600E-07,0.500
1.700E-07,0.320
1.800E-07,0.100
1.900E-07,-0.060
2.000E-07,-0.240
2.100E-07,-0.160
2.200E-07,-0.160
2.300E-07,-0.320
2.400E-07,-0.260
2.500E-07,-0.400
2.600E-07,-0.320
2.700E-07,-0.320
2.800E-07,-0.140
2.900E-07,-0.180
3.000E-07,-0.020
3.100E-07,0.140
3.200E-07,0.120
3.300E-07,0.200
3.400E-07,0.280
3.500E-07,0.300
3.600E-07,0.140
3.700E-07,0.180
3.800E-07,0.040
3.900E-07,0.080
4.000E-07,0.140
4.100E-07,0.180
4.200E-07,0.220
4.300E-07,0.200
4.400E-07,0.000
4.500E-07,-0.080
4.600E-07,-0.240
4.700E-07,-0.140
4.800E-07,-0.200
4.900E-07,-0.320
5.000E-07,-0.040
5.100E-07,-0.080
5.200E-07,0.100
5.300E-07,0.180
5.400E-07,0.120
5.500E-07,0.080
5.600E-07,0.100
5.700E-07,0.180
5.800E-07,0.360
5.900E-07,0.500
6.000E-07,0.640
6.100E-07,0.500
6.200E-07,0.400
6.300E-07,0.460
6.400E-07,0.300
6.500E-07,0.340
6.600E-07,0.180
6.700E-07,0.080
6.800E-07,-0.020
6.900E-07,-0.280
7.000E-07,-0.320
7.100E-07,-0.760
7.200E-07,-0.580
7.300E-07,-0.920
7.400E-07,-0.560
7.500E-07,-0.600
7.600E-07,-0.240
7.700E-07,0.200
7.800E-07,0.560
7.900E-07,0.680
8.000E-07,0.580
8.100E-07,0.320
8.200E-07,0.120
8.300E-07,-0.020
8.400E-07,-0.060
8.500E-07,0.220
8.600E-07,0.180
8.700E-07,-0.320
8.800E-07,-0.600
8.900E-07,-0.660
9.000E-07,-0.760
9.100E-07,0.060
9.200E-07,0.480
9.300E-07,0.460
9.400E-07,0.800
9.500E-07,0.240
9.600E-07,0.300
9.700E-07,0.460
9.800E-07,0.040
9.900E-07,-0.040
1.000E-06,-0.720
1.010E-06,-1.280
1.020E-06,-1.140
1.030E-06,-0.820
1.040E-06,-0.260
1.050E-06,0.660
1.060E-06,0.580
1.070E-06,0.420
1.080E-06,0.220
1.090E-06,0.060
1.100E-06,-0.080
1.110E-06,-0.160
1.120E-06,-0.240
1.130E-06,-0.660
1.140E-06,-0.720
1.150E-06,-0.580
1.160E-06,-0.320
1.170E-06,0.200
1.180E-06,0.180
1.190E-06,0.060
1.200E-06,-0.060
1.210E-06,-0.300
1.220E-06,-0.240
1.230E-06,0.060
1.240E-06,0.200
1.250E-06,0.320
1.260E-06,0.360
1.270E-06,0.220
1.280E-06,0.080
1.290E-06,0.160
1.300E-06,0.060
1.310E-06,0.080
1.320E-06,0.160
1.330E-06,0.000
1.340E-06,-0.100
1.350E-06,-0.240
1.360E-06,-0.300
1.370E-06,-0.560
1.380E-06,-0.500
1.390E-06,-0.340
1.400E-06,-0.280
1.410E-06,0.000
1.420E-06,-0.080
1.430E-06,-0.120
1.440E-06,-0.160
1.450E-06,-0.160
1.460E-06,0.020
1.470E-06,0.200
1.480E-06,0.440
1.490E-06,0.500
1.500E-06,0.460
1.510E-06,0.460
1.520E-06,0.260
1.530E-06,0.060
1.540E-06,-0.020
1.550E-06,-0.300
1.560E-06,-0.360
1.570E-06,-0.400
1.580E-06,-0.400
1.590E-06,-0.240
1.600E-06,-0.280
1.610E-06,-0.340
1.620E-06,-0.460
1.630E-06,-0.620
1.640E-06,-0.580
1.650E-06,-0.520
1.660E-06,-0.400
1.670E-06,-0.300
1.680E-06,-0.400
1.690E-06,-0.240
1.700E-06,-0.300
1.710E-06,-0.180
1.720E-06,0.000
1.730E-06,0.040
1.740E-06,0.120
1.750E-06,0.040
1.760E-06,-0.020
1.770E-06,-0.060
1.780E-06,-0.160
1.790E-06,-0.220
1.800E-06,-0.240
1.810E-06,-0.360
1.820E-06,-0.260
1.830E-06,-0.240
1.840E-06,-0.320
1.850E-06,-0.320
1.860E-06,-0.480
1.870E-06,-0.260
1.880E-06,0.000
1.890E-06,0.140
1.900E-06,0.240
1.910E-06,0.020
1.920E-06,-0.440
1.930E-06,-0.700
1.940E-06,-0.760
1.950E-06,-0.380
1.960E-06,-0.180
1.970E-06,0.060
1.980E-06,-0.040
1.990E-06,-0.320
2.000E-06,-0.600
2.010E-06,-2.480
2.020E-06,-0.980
2.030E-06,-2.680
2.040E-06,-0.820
2.050E-06,-0.300
2.060E-06,-0.160
2.070E-06,0.360
2.080E-06,-0.940
2.090E-06,-0.160
2.100E-06,-0.260
2.110E-06,1.020
2.120E-06,1.260
2.130E-06,2.000
2.140E-06,2.120
2.150E-06,1.340
2.160E-06,0.360
2.170E-06,-0.040
2.180E-06,-1.160
2.190E-06,-1.200
2.200E-06,-0.760
2.210E-06,-0.840
2.220E-06,0.420
2.230E-06,0.420
2.240E-06,0.920
2.250E-06,0.980
2.260E-06,0.620
2.270E-06,0.400
2.280E-06,0.340
2.290E-06,0.120
2.300E-06,0.440
2.310E-06,0.160
2.320E-06,0.160
2.330E-06,0.020
2.340E-06,-0.140
2.350E-06,0.000
2.360E-06,-0.140
2.370E-06,-0.060
2.380E-06,-0.080
2.390E-06,-0.020
2.400E-06,-0.040
2.410E-06,-0.100
2.420E-06,-0.320
2.430E-06,-0.600
2.440E-06,-0.940
2.450E-06,-0.920
2.460E-06,-1.040
2.470E-06,-1.100
2.480E-06,-1.020
2.490E-06,-1.280
2.500E-06,-1.280
2.510E-06,-1.360
2.520E-06,-1.480
2.530E-06,-1.220
2.540E-06,-1.100
2.550E-06,-1.060
2.560E-06,-0.660
2.570E-06,-0.660
2.580E-06,-0.500
2.590E-06,-0.240
2.600E-06,-0.220
2.610E-06,-0.140
2.620E-06,-0.040
2.630E-06,0.080
2.640E-06,0.140
2.650E-06,0.240
2.660E-06,0.260
2.670E-06,0.180
2.680E-06,0.200
2.690E-06,0.120
2.700E-06,0.080
2.710E-06,0.260
2.720E-06,0.180
2.730E-06,0.140
2.740E-06,0.040
2.750E-06,-0.100
2.760E-06,-0.120
2.770E-06,-0.180
2.780E-06,-0.200
2.790E-06,-0.180
2.800E-06,-0.140
2.810E-06,-0.080
2.820E-06,-0.020
2.830E-06,-0.040
2.840E-06,-0.240
2.850E-06,-0.460
2.860E-06,-0.600
2.870E-06,-0.640
2.880E-06,-0.640
2.890E-06,-0.620
2.900E-06,-0.740
2.910E-06,-0.900
2.920E-06,-0.900
2.930E-06,-0.880
2.940E-06,-1.020
2.950E-06,-1.060
2.960E-06,-1.220
2.970E-06,-1.260
2.980E-06,-1.560
2.990E-06,-1.020
3.000E-06,-1.240
3.010E-06,-1.020
3.020E-06,-0.400
3.030E-06,-0.340
3.040E-06,0.100
3.050E-06,0.640
3.060E-06,0.780
3.070E-06,1.240
3.080E-06,1.400
3.090E-06,1.180
3.100E-06,1.220
3.110E-06,0.900
3.120E-06,0.660
3.130E-06,0.640
3.140E-06,0.480
3.150E-06,0.620
3.160E-06,0.740
3.170E-06,0.800
3.180E-06,0.820
3.190E-06,0.720
3.200E-06,0.420
3.210E-06,0.080
3.220E-06,-0.280
3.230E-06,-0.480
3.240E-06,-0.680
3.250E-06,-0.880
3.260E-06,-1.000
3.270E-06,-1.180
3.280E-06,-1.220
3.290E-06,-1.240
3.300E-06,-1.300
3.310E-06,-1.280
3.320E-06,-1.280
3.330E-06,-1.160
3.340E-06,-1.100
3.350E-06,-1.000
3.360E-06,-0.920
3.370E-06,-0.840
3.380E-06,-0.700
3.390E-06,-0.580
3.400E-06,-0.360
3.410E-06,-0.220
3.420E-06,-0.240
3.430E-06,-0.200
3.440E-06,-0.240
3.450E-06,-0.200
3.460E-06,-0.160
3.470E-06,0.000
3.480E-06,0.100
3.490E-06,0.200
3.500E-06,0.280
3.510E-06,0.260
3.520E-06,0.180
3.530E-06,0.220
3.540E-06,0.160
3.550E-06,0.160
3.560E-06,0.160
3.570E-06,0.180
3.580E-06,0.120
3.590E-06,0.040
3.600E-06,0.000
3.610E-06,-0.140
3.620E-06,-0.180
3.630E-06,-0.240
3.640E-06,-0.280
3.650E-06,-0.280
3.660E-06,-0.320
3.670E-06,-0.380
3.680E-06,-0.400
3.690E-06,-0.520
3.700E-06,-0.580
3.710E-06,-0.560
3.720E-06,-0.600
3.730E-06,-0.640
3.740E-06,-0.660
3.750E-06,-0.680
3.760E-06,-0.560
3.770E-06,-0.400
3.780E-06,-0.260
3.790E-06,-0.060
3.800E-06,-0.020
3.810E-06,0.100
3.820E-06,0.060
3.830E-06,0.080
3.840E-06,0.060
3.850E-06,0.080
3.860E-06,0.100
3.870E-06,0.080
3.880E-06,0.060
3.890E-06,-0.040
3.900E-06,-0.140
3.910E-06,-0.200
3.920E-06,-0.200
3.930E-06,-0.200
3.940E-06,-0.180
3.950E-06,-0.140
3.960E-06,-0.100
3.970E-06,-0.100
3.980E-06,-0.080
3.990E-06,-0.060
4.000E-06,-0.100
4.010E-06,-0.080
4.020E-06,-0.080
4.030E-06,-0.060
4.040E-06,-0.080
4.050E-06,-0.100
4.060E-06,-0.100
4.070E-06,-0.120
4.080E-06,-0.160
4.090E-06,-0.160
4.100E-06,-0.160
4.110E-06,-0.160
4.120E-06,-0.160
4.130E-06,-0.180
4.140E-06,-0.200
4.150E-06,-0.180
4.160E-06,-0.220
4.170E-06,-0.260
4.180E-06,-0.240
4.190E-06,-0.300
4.200E-06,-0.280
4.210E-06,-0.260
4.220E-06,-0.260
4.230E-06,-0.240
4.240E-06,-0.220
4.250E-06,-0.240
4.260E-06,-0.220
4.270E-06,-0.240
4.280E-06,-0.220
4.290E-06,-0.220
4.300E-06,-0.180
4.310E-06,-0.160
4.320E-06,-0.060
4.330E-06,-0.020
4.340E-06,0.080
4.350E-06,0.100
4.360E-06,0.120
4.370E-06,0.120
4.380E-06,0.140
4.390E-06,0.180
4.400E-06,0.180
4.410E-06,0.160
4.420E-06,0.180
4.430E-06,0.120
4.440E-06,0.120
4.450E-06,0.080
4.460E-06,0.060
4.470E-06,0.060
4.480E-06,0.060
4.490E-06,0.000
4.500E-06,0.000
4.510E-06,0.000
4.520E-06,-0.020
4.530E-06,-0.020
4.540E-06,-0.020
4.550E-06,0.020
4.560E-06,0.020
4.570E-06,0.020
4.580E-06,0.000
4.590E-06,0.000
4.600E-06,0.000
4.610E-06,0.000
4.620E-06,-0.040
4.630E-06,-0.080
4.640E-06,-0.060
4.650E-06,-0.100
4.660E-06,-0.140
4.670E-06,-0.120
4.680E-06,-0.180
4.690E-06,-0.160
4.700E-06,-0.160
4.710E-06,-0.180
4.720E-06,-0.180
4.730E-06,-0.160
4.740E-06,-0.140
4.750E-06,-0.160
4.760E-06,-0.180
4.770E-06,-0.140
4.780E-06,-0.120
4.790E-06,-0.100
4.800E-06,-0.080
4.810E-06,-0.080
4.820E-06,-0.080
4.830E-06,-0.040
4.840E-06,-0.060
4.850E-06,-0.040
4.860E-06,-0.080
4.870E-06,-0.040
4.880E-06,0.000
4.890E-06,-0.020
4.900E-06,0.000
4.910E-06,-0.020
4.920E-06,0.000
4.930E-06,0.000
4.940E-06,0.000
4.950E-06,0.000
4.960E-06,0.000
4.970E-06,-0.020
4.980E-06,0.000
4.990E-06,0.020
5.000E-06,0.040
5.010E-06,0.080
5.020E-06,0.060
5.030E-06,0.080
5.040E-06,0.100
5.050E-06,0.080
5.060E-06,0.100
5.070E-06,0.080
5.080E-06,0.080
5.090E-06,0.060
5.100E-06,0.060
5.110E-06,-0.020
5.120E-06,-0.020
5.130E-06,0.000
5.140E-06,0.020
5.150E-06,0.020
5.160E-06,0.020
5.170E-06,-0.020
5.180E-06,0.000
5.190E-06,0.000
5.200E-06,-0.020
5.210E-06,-0.020
5.220E-06,-0.020
5.230E-06,0.000
5.240E-06,-0.020
5.250E-06,0.000
5.260E-06,0.000
5.270E-06,-0.020
5.280E-06,-0.060
5.290E-06,-0.060
5.300E-06,0.000
5.310E-06,-0.020
5.320E-06,0.000
5.330E-06,0.020
5.340E-06,-0.020
5.350E-06,0.000
5.360E-06,0.000
5.370E-06,0.000
5.380E-06,0.020
5.390E-06,0.040
5.400E-06,0.100
5.410E-06,0.060
5.420E-06,0.060
5.430E-06,0.040
5.440E-06,0.020
5.450E-06,0.020
5.460E-06,0.000
5.470E-06,0.040
5.480E-06,0.060
5.490E-06,0.060
5.500E-06,0.040
5.510E-06,-0.020
5.520E-06,-0.020
5.530E-06,0.000
5.540E-06,0.020
5.550E-06,0.020
5.560E-06,0.000
5.570E-06,-0.020
5.580E-06,0.020
5.590E-06,-0.020
5.600E-06,0.000
5.610E-06,0.000
5.620E-06,0.000
5.630E-06,0.040
5.640E-06,0.060
5.650E-06,0.120
5.660E-06,0.160
5.670E-06,0.160
5.680E-06,0.100
5.690E-06,0.100
5.700E-06,0.100
5.710E-06,0.020
5.720E-06,0.060
5.730E-06,0.020
5.740E-06,-0.020
5.750E-06,-0.080
5.760E-06,-0.100
5.770E-06,-0.120
5.780E-06,-0.080
5.790E-06,-0.100
5.800E-06,-0.080
5.810E-06,-0.080
5.820E-06,-0.040
5.830E-06,-0.040
5.840E-06,-0.080
5.850E-06,-0.060
5.860E-06,-0.040
5.870E-06,-0.060
5.880E-06,-0.080
5.890E-06,-0.100
5.900E-06,-0.040
5.910E-06,-0.060
5.920E-06,-0.060
5.930E-06,-0.060
5.940E-06,-0.080
5.950E-06,-0.100
5.960E-06,-0.100
5.970E-06,-0.100
5.980E-06,-0.160
5.990E-06,-0.160
6.000E-06,-0.180
6.010E-06,-0.180
6.020E-06,-0.120
6.030E-06,-0.080
6.040E-06,-0.060
6.050E-06,-0.020
6.060E-06,0.000
6.070E-06,0.020
6.080E-06,0.060
6.090E-06,0.100
6.100E-06,0.160
6.110E-06,0.220
6.120E-06,0.260
6.130E-06,0.280
6.140E-06,0.280
6.150E-06,0.260
6.160E-06,0.220
6.170E-06,0.180
6.180E-06,0.180
6.190E-06,0.180
6.200E-06,0.180
6.210E-06,0.160
6.220E-06,0.120
6.230E-06,0.100
6.240E-06,0.080
6.250E-06,0.080
6.260E-06,0.080
6.270E-06,0.040
6.280E-06,0.020
6.290E-06,0.020
6.300E-06,-0.020
6.310E-06,-0.040
6.320E-06,-0.060
6.330E-06,-0.100
6.340E-06,-0.060
6.350E-06,-0.100
6.360E-06,-0.100
6.370E-06,-0.120
6.380E-06,-0.060
6.390E-06,-0.080
6.400E-06,0.000
6.410E-06,0.060
6.420E-06,0.160
6.430E-06,0.200
6.440E-06,0.240
6.450E-06,0.220
6.460E-06,0.200
6.470E-06,0.180
6.480E-06,0.180
6.490E-06,0.180
6.500E-06,0.160
6.510E-06,0.140
6.520E-06,0.120
6.530E-06,0.060
6.540E-06,0.000
6.550E-06,0.000
6.560E-06,0.000
6.570E-06,0.040
6.580E-06,0.040
6.590E-06,0.140
6.600E-06,0.140
6.610E-06,0.160
6.620E-06,0.180
6.630E-06,0.160
6.640E-06,0.180
6.650E-06,0.180
6.660E-06,0.180
6.670E-06,0.180
6.680E-06,0.160
6.690E-06,0.160
6.700E-06,0.120
6.710E-06,0.120
6.720E-06,0.100
6.730E-06,0.040
6.740E-06,0.040
6.750E-06,-0.020
6.760E-06,0.000
6.770E-06,0.040
6.780E-06,0.080
6.790E-06,0.100
6.800E-06,0.120
6.810E-06,0.140
6.820E-06,0.140
6.830E-06,0.120
6.840E-06,0.140
6.850E-06,0.160
6.860E-06,0.180
6.870E-06,0.200
6.880E-06,0.200
6.890E-06,0.200
6.900E-06,0.160
6.910E-06,0.180
6.920E-06,0.160
6.930E-06,0.120
6.940E-06,0.120
6.950E-06,0.120
6.960E-06,0.140
6.970E-06,0.140
6.980E-06,0.140
6.990E-06,0.160
7.000E-06,0.160
7.010E-06,0.180
7.020E-06,0.180
7.030E-06,0.160
7.040E-06,0.120
7.050E-06,0.100
7.060E-06,0.040
7.070E-06,-0.020
7.080E-06,-0.020
7.090E-06,-0.040
7.100E-06,-0.080
7.110E-06,-0.100
7.120E-06,-0.080
7.130E-06,-0.080
7.140E-06,-0.060
7.150E-06,-0.020
7.160E-06,0.000
7.170E-06,0.000
7.180E-06,0.040
7.190E-06,0.100
7.200E-06,0.200
7.210E-06,0.260
7.220E-06,0.360
7.230E-06,0.460
7.240E-06,0.500
7.250E-06,0.560
7.260E-06,0.560
7.270E-06,0.500
7.280E-06,0.500
7.290E-06,0.460
7.300E-06,0.460
7.310E-06,0.400
7.320E-06,0.420
7.330E-06,0.380
7.340E-06,0.420
7.350E-06,0.400
7.360E-06,0.480
7.370E-06,0.520
7.380E-06,0.560
7.390E-06,0.540
7.400E-06,0.520
7.410E-06,0.560
7.420E-06,0.520
7.430E-06,0.500
7.440E-06,0.420
7.450E-06,0.400
7.460E-06,0.360
7.470E-06,0.260
7.480E-06,0.220
7.490E-06,0.160
7.500E-06,0.140
7.510E-06,0.120
7.520E-06,0.100
7.530E-06,0.060
7.540E-06,0.020
7.550E-06,0.040
7.560E-06,0.020
7.570E-06,0.080
7.580E-06,0.140
7.590E-06,0.200
7.600E-06,0.200
7.610E-06,0.200
7.620E-06,0.240
7.630E-06,0.240
