mediciones/Mediciones filtradas (saque las feas)/6-10/26.1/WaveData55122.csv

#timebase=2000000(ps)
,#voltbase=100000(mv/100)
#size=4000
-4.250E-06,0.004
-4.240E-06,0.008
-4.230E-06,0.012
-4.220E-06,0.012
-4.210E-06,0.004
-4.200E-06,-0.004
-4.190E-06,0.004
-4.180E-06,0.004
-4.170E-06,0.000
-4.160E-06,-0.004
-4.150E-06,0.008
-4.140E-06,0.016
-4.130E-06,0.004
-4.120E-06,0.000
-4.110E-06,0.000
-4.100E-06,0.000
-4.090E-06,0.000
-4.080E-06,0.008
-4.070E-06,0.008
-4.060E-06,0.016
-4.050E-06,0.012
-4.040E-06,0.008
-4.030E-06,-0.008
-4.020E-06,-0.008
-4.010E-06,-0.004
-4.000E-06,0.000
-3.990E-06,0.008
-3.980E-06,0.008
-3.970E-06,0.012
-3.960E-06,0.012
-3.950E-06,0.000
-3.940E-06,0.000
-3.930E-06,0.000
-3.920E-06,0.000
-3.910E-06,0.004
-3.900E-06,0.008
-3.890E-06,0.008
-3.880E-06,0.012
-3.870E-06,0.004
-3.860E-06,-0.004
-3.850E-06,0.000
-3.840E-06,0.000
-3.830E-06,0.008
-3.820E-06,0.008
-3.810E-06,0.004
-3.800E-06,0.004
-3.790E-06,0.008
-3.780E-06,0.004
-3.770E-06,0.004
-3.760E-06,0.004
-3.750E-06,0.000
-3.740E-06,0.008
-3.730E-06,0.008
-3.720E-06,0.004
-3.710E-06,0.008
-3.700E-06,0.000
-3.690E-06,0.004
-3.680E-06,0.004
-3.670E-06,0.008
-3.660E-06,-0.008
-3.650E-06,0.000
-3.640E-06,0.000
-3.630E-06,0.004
-3.620E-06,0.000
-3.610E-06,0.008
-3.600E-06,0.000
-3.590E-06,0.008
-3.580E-06,0.016
-3.570E-06,-0.004
-3.560E-06,-0.004
-3.550E-06,0.000
-3.540E-06,0.008
-3.530E-06,0.000
-3.520E-06,0.000
-3.510E-06,0.004
-3.500E-06,0.004
-3.490E-06,-0.004
-3.480E-06,0.000
-3.470E-06,-0.004
-3.460E-06,0.000
-3.450E-06,0.004
-3.440E-06,0.000
-3.430E-06,0.000
-3.420E-06,-0.008
-3.410E-06,0.000
-3.400E-06,-0.004
-3.390E-06,0.008
-3.380E-06,0.012
-3.370E-06,0.008
-3.360E-06,0.004
-3.350E-06,-0.004
-3.340E-06,-0.008
-3.330E-06,0.000
-3.320E-06,0.004
-3.310E-06,0.008
-3.300E-06,0.016
-3.290E-06,0.008
-3.280E-06,0.000
-3.270E-06,0.004
-3.260E-06,-0.004
-3.250E-06,0.000
-3.240E-06,0.012
-3.230E-06,0.000
-3.220E-06,0.008
-3.210E-06,0.004
-3.200E-06,0.012
-3.190E-06,-0.008
-3.180E-06,0.004
-3.170E-06,0.008
-3.160E-06,0.008
-3.150E-06,0.004
-3.140E-06,0.008
-3.130E-06,0.016
-3.120E-06,0.008
-3.110E-06,0.012
-3.100E-06,0.000
-3.090E-06,0.000
-3.080E-06,0.008
-3.070E-06,0.012
-3.060E-06,0.004
-3.050E-06,0.008
-3.040E-06,-0.008
-3.030E-06,-0.008
-3.020E-06,-0.004
-3.010E-06,0.008
-3.000E-06,0.012
-2.990E-06,0.012
-2.980E-06,0.012
-2.970E-06,0.000
-2.960E-06,0.012
-2.950E-06,0.004
-2.940E-06,-0.008
-2.930E-06,-0.020
-2.920E-06,-0.012
-2.910E-06,-0.012
-2.900E-06,-0.004
-2.890E-06,0.008
-2.880E-06,0.024
-2.870E-06,0.040
-2.860E-06,0.040
-2.850E-06,0.036
-2.840E-06,0.008
-2.830E-06,-0.008
-2.820E-06,-0.020
-2.810E-06,-0.024
-2.800E-06,-0.004
-2.790E-06,0.012
-2.780E-06,0.024
-2.770E-06,0.024
-2.760E-06,0.008
-2.750E-06,-0.008
-2.740E-06,-0.020
-2.730E-06,-0.016
-2.720E-06,0.000
-2.710E-06,0.016
-2.700E-06,0.024
-2.690E-06,0.020
-2.680E-06,0.012
-2.670E-06,0.004
-2.660E-06,-0.016
-2.650E-06,-0.016
-2.640E-06,-0.012
-2.630E-06,0.008
-2.620E-06,0.020
-2.610E-06,0.028
-2.600E-06,0.016
-2.590E-06,0.012
-2.580E-06,0.004
-2.570E-06,-0.004
-2.560E-06,0.004
-2.550E-06,0.004
-2.540E-06,0.016
-2.530E-06,0.008
-2.520E-06,0.008
-2.510E-06,-0.004
-2.500E-06,0.000
-2.490E-06,0.008
-2.480E-06,0.012
-2.470E-06,-0.020
-2.460E-06,0.044
-2.450E-06,-0.044
-2.440E-06,0.064
-2.430E-06,0.040
-2.420E-06,0.032
-2.410E-06,0.012
-2.400E-06,0.004
-2.390E-06,0.024
-2.380E-06,-0.060
-2.370E-06,0.008
-2.360E-06,0.044
-2.350E-06,-0.024
-2.340E-06,-0.012
-2.330E-06,0.016
-2.320E-06,0.012
-2.310E-06,-0.004
-2.300E-06,0.012
-2.290E-06,-0.004
-2.280E-06,-0.008
-2.270E-06,0.004
-2.260E-06,0.012
-2.250E-06,0.012
-2.240E-06,0.012
-2.230E-06,0.008
-2.220E-06,-0.020
-2.210E-06,-0.016
-2.200E-06,-0.020
-2.190E-06,-0.024
-2.180E-06,-0.012
-2.170E-06,0.008
-2.160E-06,0.004
-2.150E-06,0.008
-2.140E-06,0.004
-2.130E-06,-0.004
-2.120E-06,-0.008
-2.110E-06,-0.004
-2.100E-06,-0.004
-2.090E-06,0.008
-2.080E-06,0.012
-2.070E-06,0.016
-2.060E-06,0.012
-2.050E-06,0.004
-2.040E-06,0.008
-2.030E-06,0.008
-2.020E-06,0.012
-2.010E-06,0.012
-2.000E-06,0.000
-1.990E-06,0.004
-1.980E-06,0.008
-1.970E-06,0.012
-1.960E-06,0.016
-1.950E-06,0.008
-1.940E-06,0.008
-1.930E-06,0.004
-1.920E-06,0.000
-1.910E-06,-0.004
-1.900E-06,0.000
-1.890E-06,0.008
-1.880E-06,0.020
-1.870E-06,0.020
-1.860E-06,0.020
-1.850E-06,0.008
-1.840E-06,0.004
-1.830E-06,-0.004
-1.820E-06,0.000
-1.810E-06,0.008
-1.800E-06,0.012
-1.790E-06,0.024
-1.780E-06,0.012
-1.770E-06,0.004
-1.760E-06,0.016
-1.750E-06,0.024
-1.740E-06,0.016
-1.730E-06,0.020
-1.720E-06,0.016
-1.710E-06,0.016
-1.700E-06,0.000
-1.690E-06,-0.004
-1.680E-06,0.008
-1.670E-06,0.012
-1.660E-06,0.012
-1.650E-06,0.012
-1.640E-06,0.008
-1.630E-06,0.000
-1.620E-06,0.000
-1.610E-06,0.008
-1.600E-06,0.012
-1.590E-06,0.012
-1.580E-06,0.012
-1.570E-06,0.012
-1.560E-06,0.008
-1.550E-06,0.008
-1.540E-06,0.016
-1.530E-06,0.024
-1.520E-06,0.016
-1.510E-06,0.016
-1.500E-06,0.012
-1.490E-06,0.012
-1.480E-06,0.016
-1.470E-06,0.024
-1.460E-06,0.028
-1.450E-06,0.032
-1.440E-06,0.028
-1.430E-06,0.016
-1.420E-06,0.020
-1.410E-06,0.012
-1.400E-06,0.016
-1.390E-06,0.024
-1.380E-06,0.020
-1.370E-06,0.028
-1.360E-06,0.024
-1.350E-06,0.020
-1.340E-06,0.008
-1.330E-06,0.012
-1.320E-06,0.012
-1.310E-06,0.016
-1.300E-06,0.016
-1.290E-06,0.016
-1.280E-06,0.016
-1.270E-06,0.024
-1.260E-06,0.020
-1.250E-06,0.012
-1.240E-06,0.000
-1.230E-06,-0.004
-1.220E-06,0.004
-1.210E-06,0.016
-1.200E-06,0.028
-1.190E-06,0.020
-1.180E-06,0.016
-1.170E-06,0.016
-1.160E-06,0.024
-1.150E-06,-0.004
-1.140E-06,0.032
-1.130E-06,0.048
-1.120E-06,0.040
-1.110E-06,0.016
-1.100E-06,0.044
-1.090E-06,0.040
-1.080E-06,0.008
-1.070E-06,0.004
-1.060E-06,0.004
-1.050E-06,0.040
-1.040E-06,0.052
-1.030E-06,0.036
-1.020E-06,0.044
-1.010E-06,0.048
-1.000E-06,0.060
-9.900E-07,0.056
-9.800E-07,0.056
-9.700E-07,0.060
-9.600E-07,0.048
-9.500E-07,0.060
-9.400E-07,0.060
-9.300E-07,0.040
-9.200E-07,-0.004
-9.100E-07,0.040
-9.000E-07,0.008
-8.900E-07,0.048
-8.800E-07,0.008
-8.700E-07,0.056
-8.600E-07,0.032
-8.500E-07,0.024
-8.400E-07,0.004
-8.300E-07,-0.052
-8.200E-07,-0.020
-8.100E-07,-0.012
-8.000E-07,-0.088
-7.900E-07,-0.068
-7.800E-07,-0.096
-7.700E-07,-0.204
-7.600E-07,-0.224
-7.500E-07,-0.124
-7.400E-07,-0.060
-7.300E-07,0.012
-7.200E-07,0.068
-7.100E-07,0.128
-7.000E-07,0.076
-6.900E-07,0.064
-6.800E-07,-0.004
-6.700E-07,-0.044
-6.600E-07,-0.024
-6.500E-07,0.008
-6.400E-07,0.128
-6.300E-07,0.136
-6.200E-07,0.148
-6.100E-07,0.052
-6.000E-07,-0.076
-5.900E-07,-0.100
-5.800E-07,-0.112
-5.700E-07,-0.024
-5.600E-07,0.040
-5.500E-07,0.080
-5.400E-07,0.112
-5.300E-07,0.056
-5.200E-07,-0.004
-5.100E-07,-0.136
-5.000E-07,-0.196
-4.900E-07,-0.092
-4.800E-07,-0.048
-4.700E-07,0.100
-4.600E-07,0.076
-4.500E-07,0.032
-4.400E-07,-0.048
-4.300E-07,-0.120
-4.200E-07,-0.124
-4.100E-07,-0.028
-4.000E-07,0.076
-3.900E-07,0.124
-3.800E-07,0.096
-3.700E-07,0.064
-3.600E-07,-0.028
-3.500E-07,-0.036
-3.400E-07,-0.032
-3.300E-07,-0.016
-3.200E-07,0.076
-3.100E-07,0.060
-3.000E-07,0.060
-2.900E-07,0.024
-2.800E-07,-0.004
-2.700E-07,-0.040
-2.600E-07,0.004
-2.500E-07,0.068
-2.400E-07,0.104
-2.300E-07,0.136
-2.200E-07,0.112
-2.100E-07,0.064
-2.000E-07,0.028
-1.900E-07,0.028
-1.800E-07,0.040
-1.700E-07,0.088
-1.600E-07,0.108
-1.500E-07,0.136
-1.400E-07,0.120
-1.300E-07,0.056
-1.200E-07,-0.024
-1.100E-07,-0.060
-1.000E-07,-0.132
-9.000E-08,-0.144
-8.000E-08,-0.036
-7.000E-08,-0.068
-6.000E-08,-0.240
-5.000E-08,-0.452
-4.000E-08,-0.284
-3.000E-08,-0.156
-2.000E-08,-0.008
-1.000E-08,0.120
0.000E+00,0.364
1.000E-08,0.156
2.000E-08,-0.100
3.000E-08,-0.168
4.000E-08,-0.208
5.000E-08,-0.060
6.000E-08,0.040
7.000E-08,0.184
8.000E-08,0.296
9.000E-08,0.196
1.000E-07,0.112
1.100E-07,-0.036
1.200E-07,-0.124
1.300E-07,-0.152
1.400E-07,-0.040
1.500E-07,0.088
1.600E-07,0.108
1.700E-07,0.148
1.800E-07,0.020
1.900E-07,-0.112
2.000E-07,-0.152
2.100E-07,-0.120
2.200E-07,-0.056
2.300E-07,0.004
2.400E-07,0.100
2.500E-07,0.104
2.600E-07,0.088
2.700E-07,0.064
2.800E-07,-0.036
2.900E-07,-0.024
3.000E-07,0.000
3.100E-07,0.044
3.200E-07,0.124
3.300E-07,0.080
3.400E-07,0.028
3.500E-07,-0.056
3.600E-07,-0.080
3.700E-07,-0.108
3.800E-07,-0.040
3.900E-07,0.016
4.000E-07,0.040
4.100E-07,0.068
4.200E-07,0.024
4.300E-07,-0.008
4.400E-07,-0.032
4.500E-07,-0.040
4.600E-07,0.008
4.700E-07,0.072
4.800E-07,0.124
4.900E-07,0.156
5.000E-07,0.120
5.100E-07,0.044
5.200E-07,-0.004
5.300E-07,-0.024
5.400E-07,-0.008
5.500E-07,0.048
5.600E-07,0.104
5.700E-07,0.112
5.800E-07,0.108
5.900E-07,0.064
6.000E-07,0.032
6.100E-07,0.024
6.200E-07,0.044
6.300E-07,0.068
6.400E-07,0.088
6.500E-07,0.084
6.600E-07,-0.028
6.700E-07,-0.116
6.800E-07,-0.208
6.900E-07,-0.276
7.000E-07,-0.276
7.100E-07,-0.228
7.200E-07,-0.080
7.300E-07,0.124
7.400E-07,0.264
7.500E-07,0.256
7.600E-07,0.212
7.700E-07,-0.004
7.800E-07,-0.112
7.900E-07,-0.136
8.000E-07,0.016
8.100E-07,0.024
8.200E-07,0.128
8.300E-07,0.044
8.400E-07,-0.132
8.500E-07,-0.284
8.600E-07,-0.332
8.700E-07,-0.204
8.800E-07,-0.044
8.900E-07,0.196
9.000E-07,0.236
9.100E-07,0.196
9.200E-07,0.032
9.300E-07,-0.032
9.400E-07,-0.032
9.500E-07,-0.052
9.600E-07,0.016
9.700E-07,-0.088
9.800E-07,-0.144
9.900E-07,-0.128
1.000E-06,-0.064
1.010E-06,-0.024
1.020E-06,0.056
1.030E-06,0.080
1.040E-06,0.096
1.050E-06,0.020
1.060E-06,-0.112
1.070E-06,-0.072
1.080E-06,-0.164
1.090E-06,-0.004
1.100E-06,-0.040
1.110E-06,0.028
1.120E-06,-0.088
1.130E-06,-0.040
1.140E-06,-0.020
1.150E-06,-0.036
1.160E-06,0.012
1.170E-06,-0.036
1.180E-06,0.028
1.190E-06,0.008
1.200E-06,0.008
1.210E-06,0.028
1.220E-06,0.012
1.230E-06,0.024
1.240E-06,-0.056
1.250E-06,-0.012
1.260E-06,0.012
1.270E-06,0.052
1.280E-06,0.072
1.290E-06,0.084
1.300E-06,0.056
1.310E-06,-0.028
1.320E-06,-0.040
1.330E-06,-0.024
1.340E-06,0.020
1.350E-06,0.040
1.360E-06,0.060
1.370E-06,0.100
1.380E-06,0.056
1.390E-06,0.044
1.400E-06,-0.012
1.410E-06,-0.032
1.420E-06,0.000
1.430E-06,0.068
1.440E-06,0.132
1.450E-06,0.120
1.460E-06,0.128
1.470E-06,0.100
1.480E-06,0.084
1.490E-06,0.056
1.500E-06,0.056
1.510E-06,0.056
1.520E-06,0.048
1.530E-06,0.072
1.540E-06,0.032
1.550E-06,0.048
1.560E-06,0.020
1.570E-06,0.012
1.580E-06,0.024
1.590E-06,0.000
1.600E-06,0.004
1.610E-06,0.028
1.620E-06,0.044
1.630E-06,0.052
1.640E-06,0.032
1.650E-06,0.012
1.660E-06,-0.008
1.670E-06,0.024
1.680E-06,0.072
1.690E-06,0.108
1.700E-06,0.132
1.710E-06,0.160
1.720E-06,0.136
1.730E-06,0.128
1.740E-06,0.100
1.750E-06,0.096
1.760E-06,0.108
1.770E-06,0.128
1.780E-06,0.112
1.790E-06,0.120
1.800E-06,0.060
1.810E-06,0.004
1.820E-06,-0.040
1.830E-06,-0.032
1.840E-06,0.080
1.850E-06,0.176
1.860E-06,0.256
1.870E-06,0.192
1.880E-06,0.100
1.890E-06,-0.060
1.900E-06,-0.108
1.910E-06,-0.092
1.920E-06,0.056
1.930E-06,0.180
1.940E-06,0.268
1.950E-06,0.196
1.960E-06,-0.016
1.970E-06,-0.256
1.980E-06,-0.468
1.990E-06,-0.512
2.000E-06,-0.508
2.010E-06,-0.176
2.020E-06,0.092
2.030E-06,0.312
2.040E-06,0.204
2.050E-06,-0.236
2.060E-06,-0.392
2.070E-06,-0.464
2.080E-06,-0.060
2.090E-06,0.112
2.100E-06,0.328
2.110E-06,0.488
2.120E-06,0.268
2.130E-06,-0.120
2.140E-06,-0.512
2.150E-06,-0.508
2.160E-06,-0.508
2.170E-06,-0.436
2.180E-06,-0.072
2.190E-06,0.208
2.200E-06,0.168
2.210E-06,0.104
2.220E-06,-0.032
2.230E-06,-0.260
2.240E-06,-0.324
2.250E-06,-0.128
2.260E-06,0.096
2.270E-06,0.240
2.280E-06,0.316
2.290E-06,0.180
2.300E-06,0.024
2.310E-06,-0.128
2.320E-06,-0.164
2.330E-06,-0.136
2.340E-06,0.044
2.350E-06,0.228
2.360E-06,0.316
2.370E-06,0.304
2.380E-06,0.152
2.390E-06,-0.012
2.400E-06,-0.140
2.410E-06,-0.100
2.420E-06,-0.008
2.430E-06,0.160
2.440E-06,0.224
2.450E-06,0.244
2.460E-06,0.136
2.470E-06,0.032
2.480E-06,-0.072
2.490E-06,-0.108
2.500E-06,-0.028
2.510E-06,0.064
2.520E-06,0.156
2.530E-06,0.164
2.540E-06,0.120
2.550E-06,-0.016
2.560E-06,-0.088
2.570E-06,-0.116
2.580E-06,-0.056
2.590E-06,0.000
2.600E-06,0.100
2.610E-06,0.228
2.620E-06,0.192
2.630E-06,0.144
2.640E-06,0.028
2.650E-06,-0.028
2.660E-06,0.000
2.670E-06,0.076
2.680E-06,0.176
2.690E-06,0.224
2.700E-06,0.220
2.710E-06,0.168
2.720E-06,0.104
2.730E-06,0.064
2.740E-06,0.040
2.750E-06,0.072
2.760E-06,0.128
2.770E-06,0.172
2.780E-06,0.196
2.790E-06,0.156
2.800E-06,0.108
2.810E-06,0.044
2.820E-06,0.004
2.830E-06,-0.004
2.840E-06,0.032
2.850E-06,0.068
2.860E-06,0.044
2.870E-06,0.032
2.880E-06,0.004
2.890E-06,-0.004
2.900E-06,-0.088
2.910E-06,-0.096
2.920E-06,-0.140
2.930E-06,-0.164
2.940E-06,-0.184
2.950E-06,-0.236
2.960E-06,-0.112
2.970E-06,-0.168
2.980E-06,-0.100
2.990E-06,-0.100
3.000E-06,-0.060
3.010E-06,-0.020
3.020E-06,0.008
3.030E-06,0.036
3.040E-06,0.056
3.050E-06,0.140
3.060E-06,0.128
3.070E-06,0.172
3.080E-06,0.104
3.090E-06,0.064
3.100E-06,0.020
3.110E-06,0.028
3.120E-06,0.100
3.130E-06,0.128
3.140E-06,0.148
3.150E-06,0.140
3.160E-06,0.140
3.170E-06,0.108
3.180E-06,0.060
3.190E-06,0.024
3.200E-06,0.016
3.210E-06,0.060
3.220E-06,0.084
3.230E-06,0.088
3.240E-06,0.080
3.250E-06,0.052
3.260E-06,0.028
3.270E-06,0.020
3.280E-06,0.052
3.290E-06,0.052
3.300E-06,0.108
3.310E-06,0.088
3.320E-06,0.092
3.330E-06,0.072
3.340E-06,0.072
3.350E-06,0.068
3.360E-06,0.092
3.370E-06,0.136
3.380E-06,0.152
3.390E-06,0.148
3.400E-06,0.116
3.410E-06,0.088
3.420E-06,0.064
3.430E-06,0.080
3.440E-06,0.108
3.450E-06,0.128
3.460E-06,0.160
3.470E-06,0.160
3.480E-06,0.144
3.490E-06,0.120
3.500E-06,0.104
3.510E-06,0.108
3.520E-06,0.124
3.530E-06,0.136
3.540E-06,0.152
3.550E-06,0.152
3.560E-06,0.140
3.570E-06,0.124
3.580E-06,0.104
3.590E-06,0.108
3.600E-06,0.120
3.610E-06,0.140
3.620E-06,0.156
3.630E-06,0.160
3.640E-06,0.144
3.650E-06,0.128
3.660E-06,0.108
3.670E-06,0.104
3.680E-06,0.108
3.690E-06,0.112
3.700E-06,0.108
3.710E-06,0.108
3.720E-06,0.092
3.730E-06,0.088
3.740E-06,0.096
3.750E-06,0.100
3.760E-06,0.112
3.770E-06,0.124
3.780E-06,0.128
3.790E-06,0.116
3.800E-06,0.120
3.810E-06,0.124
3.820E-06,0.128
3.830E-06,0.140
3.840E-06,0.140
3.850E-06,0.128
3.860E-06,0.124
3.870E-06,0.112
3.880E-06,0.108
3.890E-06,0.108
3.900E-06,0.124
3.910E-06,0.128
3.920E-06,0.140
3.930E-06,0.140
3.940E-06,0.132
3.950E-06,0.128
3.960E-06,0.128
3.970E-06,0.124
3.980E-06,0.128
3.990E-06,0.136
4.000E-06,0.144
4.010E-06,0.140
4.020E-06,0.140
4.030E-06,0.132
4.040E-06,0.132
4.050E-06,0.128
4.060E-06,0.128
4.070E-06,0.132
4.080E-06,0.136
4.090E-06,0.136
4.100E-06,0.132
4.110E-06,0.124
4.120E-06,0.124
4.130E-06,0.124
4.140E-06,0.124
4.150E-06,0.132
4.160E-06,0.128
4.170E-06,0.128
4.180E-06,0.132
4.190E-06,0.132
4.200E-06,0.132
4.210E-06,0.128
4.220E-06,0.124
4.230E-06,0.128
4.240E-06,0.124
4.250E-06,0.124
4.260E-06,0.124
4.270E-06,0.120
4.280E-06,0.124
4.290E-06,0.124
4.300E-06,0.132
4.310E-06,0.132
4.320E-06,0.132
4.330E-06,0.128
4.340E-06,0.128
4.350E-06,0.124
4.360E-06,0.124
4.370E-06,0.128
4.380E-06,0.132
4.390E-06,0.132
4.400E-06,0.128
4.410E-06,0.128
4.420E-06,0.128
4.430E-06,0.128
4.440E-06,0.128
4.450E-06,0.128
4.460E-06,0.124
4.470E-06,0.120
4.480E-06,0.124
4.490E-06,0.124
4.500E-06,0.124
4.510E-06,0.124
4.520E-06,0.124
4.530E-06,0.128
4.540E-06,0.124
4.550E-06,0.120
4.560E-06,0.124
4.570E-06,0.124
4.580E-06,0.124
4.590E-06,0.128
4.600E-06,0.128
4.610E-06,0.128
4.620E-06,0.128
4.630E-06,0.128
4.640E-06,0.124
4.650E-06,0.128
4.660E-06,0.124
4.670E-06,0.124
4.680E-06,0.128
4.690E-06,0.128
4.700E-06,0.124
4.710E-06,0.124
4.720E-06,0.128
4.730E-06,0.124
4.740E-06,0.120
4.750E-06,0.120
4.760E-06,0.124
4.770E-06,0.124
4.780E-06,0.124
4.790E-06,0.120
4.800E-06,0.120
4.810E-06,0.120
4.820E-06,0.120
4.830E-06,0.120
4.840E-06,0.120
4.850E-06,0.124
4.860E-06,0.120
4.870E-06,0.124
4.880E-06,0.120
4.890E-06,0.124
4.900E-06,0.120
4.910E-06,0.120
4.920E-06,0.120
4.930E-06,0.120
4.940E-06,0.124
4.950E-06,0.124
4.960E-06,0.120
4.970E-06,0.116
4.980E-06,0.116
4.990E-06,0.112
5.000E-06,0.120
5.010E-06,0.120
5.020E-06,0.116
5.030E-06,0.120
5.040E-06,0.116
5.050E-06,0.116
5.060E-06,0.108
5.070E-06,0.108
5.080E-06,0.112
5.090E-06,0.112
5.100E-06,0.112
5.110E-06,0.124
5.120E-06,0.112
5.130E-06,0.108
5.140E-06,0.116
5.150E-06,0.112
5.160E-06,0.116
5.170E-06,0.124
5.180E-06,0.108
5.190E-06,0.120
5.200E-06,0.116
5.210E-06,0.112
5.220E-06,0.112
5.230E-06,0.108
5.240E-06,0.104
5.250E-06,0.108
5.260E-06,0.108
5.270E-06,0.108
5.280E-06,0.112
5.290E-06,0.112
5.300E-06,0.104
5.310E-06,0.104
5.320E-06,0.104
5.330E-06,0.100
5.340E-06,0.104
5.350E-06,0.108
5.360E-06,0.108
5.370E-06,0.108
5.380E-06,0.108
5.390E-06,0.104
5.400E-06,0.104
5.410E-06,0.112
5.420E-06,0.108
5.430E-06,0.112
5.440E-06,0.104
5.450E-06,0.104
5.460E-06,0.108
5.470E-06,0.108
5.480E-06,0.104
5.490E-06,0.100
5.500E-06,0.104
5.510E-06,0.108
5.520E-06,0.108
5.530E-06,0.104
5.540E-06,0.104
5.550E-06,0.104
5.560E-06,0.108
5.570E-06,0.104
5.580E-06,0.104
5.590E-06,0.108
5.600E-06,0.104
5.610E-06,0.100
5.620E-06,0.104
5.630E-06,0.104
5.640E-06,0.096
5.650E-06,0.088
5.660E-06,0.088
5.670E-06,0.096
5.680E-06,0.104
5.690E-06,0.104
5.700E-06,0.100
5.710E-06,0.104
5.720E-06,0.100
5.730E-06,0.092
5.740E-06,0.096
5.750E-06,0.100
5.760E-06,0.104
5.770E-06,0.100
5.780E-06,0.100
5.790E-06,0.100
5.800E-06,0.096
5.810E-06,0.096
5.820E-06,0.096
5.830E-06,0.100
5.840E-06,0.096
5.850E-06,0.096
5.860E-06,0.096
5.870E-06,0.100
5.880E-06,0.096
5.890E-06,0.096
5.900E-06,0.096
5.910E-06,0.096
5.920E-06,0.096
5.930E-06,0.100
5.940E-06,0.096
5.950E-06,0.096
5.960E-06,0.092
5.970E-06,0.092
5.980E-06,0.092
5.990E-06,0.092
6.000E-06,0.092
6.010E-06,0.096
6.020E-06,0.096
6.030E-06,0.092
6.040E-06,0.092
6.050E-06,0.096
6.060E-06,0.092
6.070E-06,0.096
6.080E-06,0.100
6.090E-06,0.088
6.100E-06,0.092
6.110E-06,0.088
6.120E-06,0.088
6.130E-06,0.092
6.140E-06,0.092
6.150E-06,0.092
6.160E-06,0.088
6.170E-06,0.088
6.180E-06,0.088
6.190E-06,0.088
6.200E-06,0.088
6.210E-06,0.092
6.220E-06,0.092
6.230E-06,0.092
6.240E-06,0.092
6.250E-06,0.088
6.260E-06,0.088
6.270E-06,0.084
6.280E-06,0.088
6.290E-06,0.088
6.300E-06,0.088
6.310E-06,0.088
6.320E-06,0.092
6.330E-06,0.088
6.340E-06,0.092
6.350E-06,0.084
6.360E-06,0.088
6.370E-06,0.088
6.380E-06,0.084
6.390E-06,0.088
6.400E-06,0.084
6.410E-06,0.076
6.420E-06,0.072
6.430E-06,0.072
6.440E-06,0.076
6.450E-06,0.084
6.460E-06,0.088
6.470E-06,0.084
6.480E-06,0.088
6.490E-06,0.080
6.500E-06,0.080
6.510E-06,0.080
6.520E-06,0.076
6.530E-06,0.076
6.540E-06,0.080
6.550E-06,0.080
6.560E-06,0.084
6.570E-06,0.084
6.580E-06,0.072
6.590E-06,0.076
6.600E-06,0.076
6.610E-06,0.080
6.620E-06,0.076
6.630E-06,0.076
6.640E-06,0.080
6.650E-06,0.080
6.660E-06,0.072
6.670E-06,0.076
6.680E-06,0.072
6.690E-06,0.072
6.700E-06,0.076
6.710E-06,0.076
6.720E-06,0.076
6.730E-06,0.072
6.740E-06,0.068
6.750E-06,0.072
6.760E-06,0.072
6.770E-06,0.072
6.780E-06,0.068
6.790E-06,0.072
6.800E-06,0.076
6.810E-06,0.072
6.820E-06,0.068
6.830E-06,0.064
6.840E-06,0.068
6.850E-06,0.072
6.860E-06,0.068
6.870E-06,0.072
6.880E-06,0.068
6.890E-06,0.072
6.900E-06,0.064
6.910E-06,0.068
6.920E-06,0.072
6.930E-06,0.068
6.940E-06,0.068
6.950E-06,0.072
6.960E-06,0.068
6.970E-06,0.072
6.980E-06,0.064
6.990E-06,0.064
7.000E-06,0.064
7.010E-06,0.068
7.020E-06,0.068
7.030E-06,0.064
7.040E-06,0.064
7.050E-06,0.064
7.060E-06,0.068
7.070E-06,0.064
7.080E-06,0.064
7.090E-06,0.064
7.100E-06,0.060
7.110E-06,0.060
7.120E-06,0.064
7.130E-06,0.060
7.140E-06,0.060
7.150E-06,0.060
7.160E-06,0.064
7.170E-06,0.064
7.180E-06,0.060
7.190E-06,0.060
7.200E-06,0.060
7.210E-06,0.068
7.220E-06,0.056
7.230E-06,0.060
7.240E-06,0.060
7.250E-06,0.056
7.260E-06,0.056
7.270E-06,0.064
7.280E-06,0.060
7.290E-06,0.064
7.300E-06,0.056
7.310E-06,0.060
7.320E-06,0.060
7.330E-06,0.056
7.340E-06,0.060
7.350E-06,0.060
7.360E-06,0.056
7.370E-06,0.056
7.380E-06,0.060
7.390E-06,0.056
7.400E-06,0.056
7.410E-06,0.056
7.420E-06,0.060
7.430E-06,0.056
7.440E-06,0.056
7.450E-06,0.056
7.460E-06,0.060
7.470E-06,0.056
7.480E-06,0.052
7.490E-06,0.056
7.500E-06,0.056
7.510E-06,0.060
7.520E-06,0.056
7.530E-06,0.056
7.540E-06,0.056
7.550E-06,0.052
7.560E-06,0.056
7.570E-06,0.052
7.580E-06,0.052
7.590E-06,0.056
7.600E-06,0.056
7.610E-06,0.056
7.620E-06,0.052
7.630E-06,0.056
7.640E-06,0.052
7.650E-06,0.052
7.660E-06,0.052
7.670E-06,0.056
7.680E-06,0.060
7.690E-06,0.052
7.700E-06,0.056
7.710E-06,0.056
7.720E-06,0.052
7.730E-06,0.052
7.740E-06,0.052
7.750E-06,0.056
7.760E-06,0.056
7.770E-06,0.052
7.780E-06,0.052
7.790E-06,0.052
