mediciones/Mediciones filtradas (saque las feas)/6-10/26.1/WaveData55119.csv

#timebase=2000000(ps)
,#voltbase=500000(mv/100)
#size=4000
-4.250E-06,0.060
-4.240E-06,0.060
-4.230E-06,0.080
-4.220E-06,0.060
-4.210E-06,0.040
-4.200E-06,0.060
-4.190E-06,0.080
-4.180E-06,0.040
-4.170E-06,0.040
-4.160E-06,0.020
-4.150E-06,0.060
-4.140E-06,0.020
-4.130E-06,0.060
-4.120E-06,0.040
-4.110E-06,0.060
-4.100E-06,0.080
-4.090E-06,0.060
-4.080E-06,0.020
-4.070E-06,0.060
-4.060E-06,0.060
-4.050E-06,0.080
-4.040E-06,0.060
-4.030E-06,0.060
-4.020E-06,0.060
-4.010E-06,0.060
-4.000E-06,0.060
-3.990E-06,0.040
-3.980E-06,0.060
-3.970E-06,0.040
-3.960E-06,0.040
-3.950E-06,0.080
-3.940E-06,0.060
-3.930E-06,0.060
-3.920E-06,0.060
-3.910E-06,0.060
-3.900E-06,0.060
-3.890E-06,0.040
-3.880E-06,0.020
-3.870E-06,0.060
-3.860E-06,0.040
-3.850E-06,0.040
-3.840E-06,0.040
-3.830E-06,0.060
-3.820E-06,0.060
-3.810E-06,0.060
-3.800E-06,0.080
-3.790E-06,0.020
-3.780E-06,0.040
-3.770E-06,0.040
-3.760E-06,0.020
-3.750E-06,0.040
-3.740E-06,0.040
-3.730E-06,0.100
-3.720E-06,0.060
-3.710E-06,0.020
-3.700E-06,0.060
-3.690E-06,0.080
-3.680E-06,0.020
-3.670E-06,0.040
-3.660E-06,0.040
-3.650E-06,0.040
-3.640E-06,0.040
-3.630E-06,0.060
-3.620E-06,0.020
-3.610E-06,0.020
-3.600E-06,0.040
-3.590E-06,0.060
-3.580E-06,0.060
-3.570E-06,0.080
-3.560E-06,0.060
-3.550E-06,0.080
-3.540E-06,0.020
-3.530E-06,0.060
-3.520E-06,0.060
-3.510E-06,0.040
-3.500E-06,0.040
-3.490E-06,0.060
-3.480E-06,0.060
-3.470E-06,0.060
-3.460E-06,0.080
-3.450E-06,0.060
-3.440E-06,0.060
-3.430E-06,0.040
-3.420E-06,0.040
-3.410E-06,0.040
-3.400E-06,0.060
-3.390E-06,0.040
-3.380E-06,0.080
-3.370E-06,0.060
-3.360E-06,0.040
-3.350E-06,0.060
-3.340E-06,0.040
-3.330E-06,0.060
-3.320E-06,0.060
-3.310E-06,0.060
-3.300E-06,0.020
-3.290E-06,0.060
-3.280E-06,0.080
-3.270E-06,0.040
-3.260E-06,0.040
-3.250E-06,0.060
-3.240E-06,0.040
-3.230E-06,0.060
-3.220E-06,0.040
-3.210E-06,0.080
-3.200E-06,0.060
-3.190E-06,0.040
-3.180E-06,0.040
-3.170E-06,0.060
-3.160E-06,0.080
-3.150E-06,0.060
-3.140E-06,0.040
-3.130E-06,0.060
-3.120E-06,0.040
-3.110E-06,0.020
-3.100E-06,0.060
-3.090E-06,0.040
-3.080E-06,0.040
-3.070E-06,0.060
-3.060E-06,0.040
-3.050E-06,0.020
-3.040E-06,0.040
-3.030E-06,0.260
-3.020E-06,0.760
-3.010E-06,1.520
-3.000E-06,2.280
-2.990E-06,2.680
-2.980E-06,2.540
-2.970E-06,1.700
-2.960E-06,0.480
-2.950E-06,-0.820
-2.940E-06,-1.700
-2.930E-06,-2.180
-2.920E-06,-2.380
-2.910E-06,-2.480
-2.900E-06,-2.560
-2.890E-06,-2.560
-2.880E-06,-2.380
-2.870E-06,-1.880
-2.860E-06,-1.160
-2.850E-06,-0.600
-2.840E-06,0.020
-2.830E-06,0.180
-2.820E-06,0.040
-2.810E-06,0.460
-2.800E-06,0.380
-2.790E-06,0.600
-2.780E-06,0.760
-2.770E-06,0.580
-2.760E-06,0.700
-2.750E-06,0.660
-2.740E-06,0.920
-2.730E-06,1.060
-2.720E-06,1.260
-2.710E-06,1.200
-2.700E-06,1.000
-2.690E-06,0.760
-2.680E-06,0.420
-2.670E-06,0.320
-2.660E-06,0.260
-2.650E-06,0.060
-2.640E-06,-0.080
-2.630E-06,-0.340
-2.620E-06,-0.560
-2.610E-06,-0.600
-2.600E-06,-0.500
-2.590E-06,-0.300
-2.580E-06,-0.020
-2.570E-06,0.260
-2.560E-06,0.440
-2.550E-06,0.540
-2.540E-06,0.680
-2.530E-06,0.740
-2.520E-06,0.760
-2.510E-06,0.760
-2.500E-06,0.660
-2.490E-06,0.520
-2.480E-06,0.440
-2.470E-06,0.300
-2.460E-06,0.140
-2.450E-06,-0.020
-2.440E-06,-0.260
-2.430E-06,-0.500
-2.420E-06,-0.780
-2.410E-06,-0.980
-2.400E-06,-1.020
-2.390E-06,-1.120
-2.380E-06,-1.120
-2.370E-06,-1.080
-2.360E-06,-1.080
-2.350E-06,-0.980
-2.340E-06,-0.820
-2.330E-06,-0.580
-2.320E-06,-0.280
-2.310E-06,-0.060
-2.300E-06,0.200
-2.290E-06,0.400
-2.280E-06,0.560
-2.270E-06,0.700
-2.260E-06,0.800
-2.250E-06,0.880
-2.240E-06,0.840
-2.230E-06,0.820
-2.220E-06,0.740
-2.210E-06,0.540
-2.200E-06,0.460
-2.190E-06,0.360
-2.180E-06,0.260
-2.170E-06,0.180
-2.160E-06,0.100
-2.150E-06,0.000
-2.140E-06,-0.080
-2.130E-06,-0.160
-2.120E-06,-0.240
-2.110E-06,-0.340
-2.100E-06,-0.400
-2.090E-06,-0.440
-2.080E-06,-0.460
-2.070E-06,-0.380
-2.060E-06,-0.320
-2.050E-06,-0.260
-2.040E-06,-0.180
-2.030E-06,-0.040
-2.020E-06,0.040
-2.010E-06,0.220
-2.000E-06,0.340
-1.990E-06,0.380
-1.980E-06,0.420
-1.970E-06,0.460
-1.960E-06,0.420
-1.950E-06,0.420
-1.940E-06,0.380
-1.930E-06,0.320
-1.920E-06,0.300
-1.910E-06,0.200
-1.900E-06,0.100
-1.890E-06,0.120
-1.880E-06,0.060
-1.870E-06,-0.020
-1.860E-06,0.020
-1.850E-06,-0.060
-1.840E-06,-0.100
-1.830E-06,-0.120
-1.820E-06,-0.140
-1.810E-06,-0.100
-1.800E-06,-0.140
-1.790E-06,-0.120
-1.780E-06,-0.120
-1.770E-06,-0.120
-1.760E-06,-0.100
-1.750E-06,-0.120
-1.740E-06,-0.080
-1.730E-06,-0.040
-1.720E-06,-0.040
-1.710E-06,0.080
-1.700E-06,0.000
-1.690E-06,0.060
-1.680E-06,0.100
-1.670E-06,0.100
-1.660E-06,0.200
-1.650E-06,0.260
-1.640E-06,0.200
-1.630E-06,0.240
-1.620E-06,0.240
-1.610E-06,0.180
-1.600E-06,0.240
-1.590E-06,0.220
-1.580E-06,0.220
-1.570E-06,0.160
-1.560E-06,0.100
-1.550E-06,0.060
-1.540E-06,0.080
-1.530E-06,0.060
-1.520E-06,0.100
-1.510E-06,0.220
-1.500E-06,-0.080
-1.490E-06,0.080
-1.480E-06,-0.060
-1.470E-06,0.060
-1.460E-06,0.020
-1.450E-06,0.300
-1.440E-06,0.340
-1.430E-06,0.160
-1.420E-06,0.260
-1.410E-06,0.020
-1.400E-06,0.200
-1.390E-06,0.140
-1.380E-06,0.240
-1.370E-06,0.360
-1.360E-06,0.220
-1.350E-06,0.160
-1.340E-06,0.160
-1.330E-06,0.180
-1.320E-06,0.220
-1.310E-06,0.260
-1.300E-06,0.180
-1.290E-06,0.100
-1.280E-06,0.040
-1.270E-06,0.000
-1.260E-06,0.000
-1.250E-06,0.040
-1.240E-06,-0.020
-1.230E-06,-0.020
-1.220E-06,-0.080
-1.210E-06,-0.040
-1.200E-06,-0.020
-1.190E-06,0.060
-1.180E-06,0.120
-1.170E-06,0.120
-1.160E-06,0.180
-1.150E-06,0.180
-1.140E-06,0.200
-1.130E-06,0.200
-1.120E-06,0.260
-1.110E-06,0.240
-1.100E-06,0.260
-1.090E-06,0.280
-1.080E-06,0.260
-1.070E-06,0.240
-1.060E-06,0.200
-1.050E-06,0.180
-1.040E-06,0.180
-1.030E-06,0.160
-1.020E-06,0.080
-1.010E-06,0.080
-1.000E-06,0.080
-9.900E-07,0.040
-9.800E-07,0.000
-9.700E-07,-0.020
-9.600E-07,-0.040
-9.500E-07,-0.020
-9.400E-07,0.000
-9.300E-07,0.060
-9.200E-07,0.080
-9.100E-07,0.120
-9.000E-07,0.180
-8.900E-07,0.200
-8.800E-07,0.240
-8.700E-07,0.080
-8.600E-07,0.100
-8.500E-07,0.100
-8.400E-07,0.160
-8.300E-07,0.240
-8.200E-07,0.180
-8.100E-07,0.080
-8.000E-07,0.020
-7.900E-07,-0.220
-7.800E-07,-0.160
-7.700E-07,-0.340
-7.600E-07,-0.780
-7.500E-07,-1.280
-7.400E-07,-1.840
-7.300E-07,-1.960
-7.200E-07,-1.600
-7.100E-07,-0.580
-7.000E-07,0.560
-6.900E-07,1.560
-6.800E-07,1.860
-6.700E-07,1.620
-6.600E-07,1.260
-6.500E-07,0.940
-6.400E-07,1.360
-6.300E-07,1.920
-6.200E-07,2.380
-6.100E-07,2.740
-6.000E-07,2.580
-5.900E-07,1.900
-5.800E-07,1.360
-5.700E-07,0.780
-5.600E-07,0.680
-5.500E-07,0.900
-5.400E-07,0.900
-5.300E-07,0.820
-5.200E-07,0.560
-5.100E-07,0.040
-5.000E-07,-0.380
-4.900E-07,-0.620
-4.800E-07,-0.780
-4.700E-07,-0.500
-4.600E-07,-0.460
-4.500E-07,-0.540
-4.400E-07,-0.580
-4.300E-07,-0.740
-4.200E-07,-0.680
-4.100E-07,-0.540
-4.000E-07,-0.320
-3.900E-07,-0.160
-3.800E-07,-0.020
-3.700E-07,0.100
-3.600E-07,0.220
-3.500E-07,0.200
-3.400E-07,0.200
-3.300E-07,0.120
-3.200E-07,-0.020
-3.100E-07,-0.140
-3.000E-07,-0.260
-2.900E-07,-0.320
-2.800E-07,-0.340
-2.700E-07,-0.440
-2.600E-07,-0.580
-2.500E-07,-0.660
-2.400E-07,-0.720
-2.300E-07,-0.680
-2.200E-07,-0.560
-2.100E-07,-0.300
-2.000E-07,-0.100
-1.900E-07,0.140
-1.800E-07,0.340
-1.700E-07,0.560
-1.600E-07,0.820
-1.500E-07,1.020
-1.400E-07,1.240
-1.300E-07,1.380
-1.200E-07,1.440
-1.100E-07,1.480
-1.000E-07,1.420
-9.000E-08,1.340
-8.000E-08,1.180
-7.000E-08,1.020
-6.000E-08,0.740
-5.000E-08,0.560
-4.000E-08,0.520
-3.000E-08,0.640
-2.000E-08,-1.080
-1.000E-08,-1.180
0.000E+00,-2.380
1.000E-08,-2.360
2.000E-08,-2.000
3.000E-08,-0.420
4.000E-08,0.480
5.000E-08,0.860
6.000E-08,1.060
7.000E-08,0.000
8.000E-08,0.520
9.000E-08,0.060
1.000E-07,0.860
1.100E-07,1.140
1.200E-07,1.060
1.300E-07,1.420
1.400E-07,1.280
1.500E-07,1.380
1.600E-07,1.060
1.700E-07,0.920
1.800E-07,0.400
1.900E-07,-0.020
2.000E-07,-0.220
2.100E-07,-0.140
2.200E-07,-0.160
2.300E-07,-0.040
2.400E-07,-0.380
2.500E-07,-0.700
2.600E-07,-0.900
2.700E-07,-0.920
2.800E-07,-0.740
2.900E-07,-0.440
3.000E-07,-0.200
3.100E-07,-0.060
3.200E-07,-0.060
3.300E-07,-0.060
3.400E-07,0.000
3.500E-07,0.160
3.600E-07,0.440
3.700E-07,0.660
3.800E-07,0.760
3.900E-07,0.820
4.000E-07,0.660
4.100E-07,0.420
4.200E-07,0.400
4.300E-07,0.260
4.400E-07,0.340
4.500E-07,0.320
4.600E-07,0.180
4.700E-07,0.160
4.800E-07,0.180
4.900E-07,0.240
5.000E-07,0.240
5.100E-07,0.240
5.200E-07,0.140
5.300E-07,0.100
5.400E-07,0.340
5.500E-07,0.580
5.600E-07,0.980
5.700E-07,1.320
5.800E-07,1.280
5.900E-07,1.040
6.000E-07,1.160
6.100E-07,1.100
6.200E-07,0.880
6.300E-07,1.420
6.400E-07,1.180
6.500E-07,1.240
6.600E-07,1.100
6.700E-07,0.500
6.800E-07,0.620
6.900E-07,0.500
7.000E-07,0.720
7.100E-07,0.500
7.200E-07,0.460
7.300E-07,0.400
7.400E-07,0.100
7.500E-07,0.200
7.600E-07,0.100
7.700E-07,-0.020
7.800E-07,0.260
7.900E-07,0.080
8.000E-07,0.160
8.100E-07,0.620
8.200E-07,0.640
8.300E-07,0.900
8.400E-07,0.760
8.500E-07,0.620
8.600E-07,0.440
8.700E-07,0.360
8.800E-07,0.460
8.900E-07,0.740
9.000E-07,0.680
9.100E-07,0.600
9.200E-07,-0.720
9.300E-07,-0.420
9.400E-07,-0.700
9.500E-07,-0.320
9.600E-07,0.520
9.700E-07,0.180
9.800E-07,0.180
9.900E-07,-0.160
1.000E-06,-0.700
1.010E-06,-0.180
1.020E-06,0.320
1.030E-06,0.480
1.040E-06,0.420
1.050E-06,0.020
1.060E-06,0.060
1.070E-06,0.020
1.080E-06,0.420
1.090E-06,0.900
1.100E-06,0.660
1.110E-06,0.420
1.120E-06,-0.400
1.130E-06,-0.840
1.140E-06,-0.840
1.150E-06,-0.700
1.160E-06,-0.100
1.170E-06,0.240
1.180E-06,0.160
1.190E-06,0.140
1.200E-06,-0.180
1.210E-06,-0.320
1.220E-06,-0.240
1.230E-06,-0.040
1.240E-06,0.260
1.250E-06,0.520
1.260E-06,0.620
1.270E-06,0.480
1.280E-06,0.280
1.290E-06,0.120
1.300E-06,0.040
1.310E-06,0.120
1.320E-06,0.180
1.330E-06,0.220
1.340E-06,0.240
1.350E-06,0.160
1.360E-06,0.040
1.370E-06,-0.100
1.380E-06,-0.180
1.390E-06,-0.200
1.400E-06,-0.160
1.410E-06,0.020
1.420E-06,0.160
1.430E-06,0.300
1.440E-06,0.300
1.450E-06,0.200
1.460E-06,0.120
1.470E-06,0.040
1.480E-06,0.000
1.490E-06,0.120
1.500E-06,0.100
1.510E-06,0.220
1.520E-06,0.320
1.530E-06,0.340
1.540E-06,0.560
1.550E-06,-0.200
1.560E-06,0.040
1.570E-06,-0.320
1.580E-06,-0.280
1.590E-06,0.100
1.600E-06,-0.320
1.610E-06,0.260
1.620E-06,0.020
1.630E-06,0.140
1.640E-06,0.280
1.650E-06,0.080
1.660E-06,0.240
1.670E-06,0.100
1.680E-06,0.040
1.690E-06,0.220
1.700E-06,0.360
1.710E-06,0.400
1.720E-06,0.360
1.730E-06,0.280
1.740E-06,0.060
1.750E-06,-0.020
1.760E-06,-0.180
1.770E-06,-0.180
1.780E-06,-0.200
1.790E-06,-0.260
1.800E-06,-0.320
1.810E-06,-0.380
1.820E-06,-0.400
1.830E-06,-0.340
1.840E-06,-0.220
1.850E-06,-0.120
1.860E-06,-0.040
1.870E-06,-0.020
1.880E-06,0.040
1.890E-06,0.040
1.900E-06,0.160
1.910E-06,0.160
1.920E-06,0.240
1.930E-06,0.400
1.940E-06,0.400
1.950E-06,0.720
1.960E-06,0.720
1.970E-06,0.820
1.980E-06,0.900
1.990E-06,0.680
2.000E-06,0.480
2.010E-06,0.400
2.020E-06,0.260
2.030E-06,0.240
2.040E-06,0.340
2.050E-06,0.260
2.060E-06,0.220
2.070E-06,0.260
2.080E-06,0.040
2.090E-06,0.260
2.100E-06,0.320
2.110E-06,0.000
2.120E-06,0.040
2.130E-06,-0.160
2.140E-06,0.060
2.150E-06,0.240
2.160E-06,0.260
2.170E-06,0.440
2.180E-06,0.080
2.190E-06,0.060
2.200E-06,0.020
2.210E-06,-0.120
2.220E-06,0.180
2.230E-06,0.020
2.240E-06,-0.120
2.250E-06,-0.060
2.260E-06,-0.320
2.270E-06,-0.020
2.280E-06,0.080
2.290E-06,0.000
2.300E-06,0.100
2.310E-06,-0.080
2.320E-06,-0.180
2.330E-06,-0.020
2.340E-06,0.040
2.350E-06,0.240
2.360E-06,0.320
2.370E-06,0.080
2.380E-06,-0.020
2.390E-06,-0.140
2.400E-06,-0.180
2.410E-06,-0.100
2.420E-06,-0.080
2.430E-06,-0.060
2.440E-06,-0.140
2.450E-06,-0.160
2.460E-06,-0.040
2.470E-06,-0.080
2.480E-06,0.000
2.490E-06,0.100
2.500E-06,0.080
2.510E-06,0.100
2.520E-06,0.080
2.530E-06,0.060
2.540E-06,0.220
2.550E-06,0.320
2.560E-06,0.260
2.570E-06,0.340
2.580E-06,0.260
2.590E-06,0.120
2.600E-06,0.220
2.610E-06,0.180
2.620E-06,0.320
2.630E-06,0.320
2.640E-06,0.200
2.650E-06,0.100
2.660E-06,0.120
2.670E-06,0.120
2.680E-06,0.220
2.690E-06,0.560
2.700E-06,0.280
2.710E-06,0.120
2.720E-06,-0.120
2.730E-06,-0.780
2.740E-06,-0.200
2.750E-06,0.200
2.760E-06,0.400
2.770E-06,1.200
2.780E-06,0.660
2.790E-06,0.220
2.800E-06,0.140
2.810E-06,-0.360
2.820E-06,0.140
2.830E-06,0.420
2.840E-06,0.480
2.850E-06,0.780
2.860E-06,0.600
2.870E-06,0.260
2.880E-06,0.420
2.890E-06,0.180
2.900E-06,0.180
2.910E-06,0.320
2.920E-06,0.020
2.930E-06,0.080
2.940E-06,-0.020
2.950E-06,-0.120
2.960E-06,-0.120
2.970E-06,-0.240
2.980E-06,-0.300
2.990E-06,-0.320
3.000E-06,-0.340
3.010E-06,-0.220
3.020E-06,-0.240
3.030E-06,-0.360
3.040E-06,-0.140
3.050E-06,-0.260
3.060E-06,-0.100
3.070E-06,0.120
3.080E-06,0.200
3.090E-06,0.060
3.100E-06,0.380
3.110E-06,0.160
3.120E-06,0.080
3.130E-06,0.200
3.140E-06,-0.280
3.150E-06,0.220
3.160E-06,0.100
3.170E-06,-0.340
3.180E-06,-0.280
3.190E-06,-1.000
3.200E-06,-0.460
3.210E-06,-0.180
3.220E-06,0.520
3.230E-06,0.760
3.240E-06,0.600
3.250E-06,0.260
3.260E-06,-0.180
3.270E-06,-0.040
3.280E-06,0.140
3.290E-06,0.920
3.300E-06,0.860
3.310E-06,0.920
3.320E-06,0.460
3.330E-06,0.080
3.340E-06,0.080
3.350E-06,0.080
3.360E-06,0.500
3.370E-06,0.260
3.380E-06,0.240
3.390E-06,-0.020
3.400E-06,-0.360
3.410E-06,-0.300
3.420E-06,-0.340
3.430E-06,-0.440
3.440E-06,-0.700
3.450E-06,-0.700
3.460E-06,-0.920
3.470E-06,-0.660
3.480E-06,-0.160
3.490E-06,0.000
3.500E-06,0.280
3.510E-06,0.180
3.520E-06,-0.040
3.530E-06,-0.020
3.540E-06,-0.020
3.550E-06,0.140
3.560E-06,0.340
3.570E-06,0.440
3.580E-06,0.480
3.590E-06,0.440
3.600E-06,0.320
3.610E-06,0.280
3.620E-06,0.320
3.630E-06,0.260
3.640E-06,0.220
3.650E-06,0.060
3.660E-06,0.000
3.670E-06,-0.080
3.680E-06,-0.060
3.690E-06,-0.040
3.700E-06,-0.040
3.710E-06,-0.060
3.720E-06,-0.100
3.730E-06,-0.080
3.740E-06,-0.100
3.750E-06,-0.140
3.760E-06,-0.120
3.770E-06,-0.160
3.780E-06,0.000
3.790E-06,0.040
3.800E-06,0.000
3.810E-06,0.080
3.820E-06,-0.060
3.830E-06,-0.160
3.840E-06,0.900
3.850E-06,0.100
3.860E-06,-0.400
3.870E-06,0.060
3.880E-06,-0.560
3.890E-06,0.800
3.900E-06,1.360
3.910E-06,1.000
3.920E-06,0.940
3.930E-06,0.020
3.940E-06,-0.880
3.950E-06,-0.240
3.960E-06,1.240
3.970E-06,-0.120
3.980E-06,-0.920
3.990E-06,-1.060
4.000E-06,-2.100
4.010E-06,0.420
4.020E-06,2.340
4.030E-06,2.620
4.040E-06,2.760
4.050E-06,0.040
4.060E-06,-1.540
4.070E-06,-1.880
4.080E-06,-0.840
4.090E-06,0.960
4.100E-06,1.480
4.110E-06,1.080
4.120E-06,-0.120
4.130E-06,-0.620
4.140E-06,-0.500
4.150E-06,-0.420
4.160E-06,0.720
4.170E-06,0.760
4.180E-06,0.560
4.190E-06,0.500
4.200E-06,-0.060
4.210E-06,-0.060
4.220E-06,-0.280
4.230E-06,-0.620
4.240E-06,-0.560
4.250E-06,-0.340
4.260E-06,-0.120
4.270E-06,0.020
4.280E-06,-0.180
4.290E-06,-0.500
4.300E-06,-0.700
4.310E-06,-0.700
4.320E-06,-0.440
4.330E-06,-0.280
4.340E-06,-0.180
4.350E-06,-0.160
4.360E-06,-0.220
4.370E-06,-0.280
4.380E-06,-0.300
4.390E-06,-0.300
4.400E-06,-0.300
4.410E-06,-0.180
4.420E-06,-0.080
4.430E-06,0.320
4.440E-06,-0.020
4.450E-06,-0.660
4.460E-06,-1.240
4.470E-06,-1.380
4.480E-06,-0.900
4.490E-06,0.400
4.500E-06,1.180
4.510E-06,1.840
4.520E-06,1.360
4.530E-06,0.600
4.540E-06,-0.020
4.550E-06,-0.040
4.560E-06,0.360
4.570E-06,0.820
4.580E-06,1.320
4.590E-06,1.080
4.600E-06,1.100
4.610E-06,0.660
4.620E-06,0.600
4.630E-06,0.800
4.640E-06,0.580
4.650E-06,1.000
4.660E-06,0.760
4.670E-06,0.620
4.680E-06,0.520
4.690E-06,0.220
4.700E-06,0.320
4.710E-06,0.340
4.720E-06,0.320
4.730E-06,0.240
4.740E-06,0.040
4.750E-06,-0.060
4.760E-06,-0.160
4.770E-06,-0.240
4.780E-06,0.260
4.790E-06,-0.200
4.800E-06,-0.440
4.810E-06,-0.440
4.820E-06,-1.960
4.830E-06,-0.820
4.840E-06,0.000
4.850E-06,0.060
4.860E-06,1.980
4.870E-06,1.300
4.880E-06,1.040
4.890E-06,1.120
4.900E-06,-0.440
4.910E-06,0.040
4.920E-06,0.280
4.930E-06,-0.180
4.940E-06,0.920
4.950E-06,0.920
4.960E-06,0.300
4.970E-06,0.380
4.980E-06,-0.360
4.990E-06,-0.740
5.000E-06,-0.620
5.010E-06,-0.880
5.020E-06,-0.020
5.030E-06,-0.120
5.040E-06,0.560
5.050E-06,0.340
5.060E-06,0.120
5.070E-06,-0.240
5.080E-06,-1.000
5.090E-06,-0.840
5.100E-06,-0.720
5.110E-06,-0.400
5.120E-06,-0.020
5.130E-06,-0.140
5.140E-06,-0.260
5.150E-06,-0.420
5.160E-06,-0.500
5.170E-06,-0.380
5.180E-06,-0.120
5.190E-06,0.080
5.200E-06,0.120
5.210E-06,0.160
5.220E-06,0.020
5.230E-06,-0.180
5.240E-06,-0.220
5.250E-06,-0.140
5.260E-06,-0.140
5.270E-06,0.160
5.280E-06,0.060
5.290E-06,0.160
5.300E-06,0.160
5.310E-06,-0.300
5.320E-06,-0.340
5.330E-06,-0.680
5.340E-06,-0.580
5.350E-06,-0.060
5.360E-06,0.340
5.370E-06,0.700
5.380E-06,1.040
5.390E-06,0.940
5.400E-06,0.600
5.410E-06,0.560
5.420E-06,0.180
5.430E-06,0.260
5.440E-06,0.660
5.450E-06,0.560
5.460E-06,0.640
5.470E-06,0.980
5.480E-06,0.640
5.490E-06,0.760
5.500E-06,0.780
5.510E-06,0.680
5.520E-06,0.940
5.530E-06,0.940
5.540E-06,0.760
5.550E-06,0.920
5.560E-06,0.740
5.570E-06,0.480
5.580E-06,0.340
5.590E-06,0.080
5.600E-06,0.080
5.610E-06,0.000
5.620E-06,-0.180
5.630E-06,-0.200
5.640E-06,-0.540
5.650E-06,-0.700
5.660E-06,-1.020
5.670E-06,-1.240
5.680E-06,-1.360
5.690E-06,-1.360
5.700E-06,-1.180
5.710E-06,-0.820
5.720E-06,-0.280
5.730E-06,0.020
5.740E-06,0.220
5.750E-06,0.280
5.760E-06,-0.140
5.770E-06,-0.140
5.780E-06,-0.220
5.790E-06,-0.080
5.800E-06,0.340
5.810E-06,0.420
5.820E-06,0.500
5.830E-06,0.480
5.840E-06,0.480
5.850E-06,0.740
5.860E-06,0.780
5.870E-06,1.020
5.880E-06,1.020
5.890E-06,0.880
5.900E-06,0.920
5.910E-06,0.940
5.920E-06,0.920
5.930E-06,1.100
5.940E-06,1.020
5.950E-06,1.100
5.960E-06,1.020
5.970E-06,0.720
5.980E-06,0.440
5.990E-06,0.100
6.000E-06,-0.180
6.010E-06,-0.260
6.020E-06,-0.280
6.030E-06,-0.340
6.040E-06,-0.500
6.050E-06,-0.920
6.060E-06,-1.060
6.070E-06,-1.500
6.080E-06,-1.500
6.090E-06,-0.580
6.100E-06,-0.240
6.110E-06,0.740
6.120E-06,0.800
6.130E-06,0.000
6.140E-06,-0.380
6.150E-06,-1.180
6.160E-06,-1.020
6.170E-06,-0.800
6.180E-06,0.080
6.190E-06,0.020
6.200E-06,0.200
6.210E-06,0.380
6.220E-06,0.280
6.230E-06,0.400
6.240E-06,0.620
6.250E-06,0.620
6.260E-06,1.020
6.270E-06,1.100
6.280E-06,1.200
6.290E-06,1.500
6.300E-06,1.240
6.310E-06,1.160
6.320E-06,0.880
6.330E-06,0.320
6.340E-06,0.040
6.350E-06,-0.320
6.360E-06,-0.600
6.370E-06,-0.680
6.380E-06,-0.680
6.390E-06,-0.700
6.400E-06,-0.680
6.410E-06,-0.580
6.420E-06,-0.840
6.430E-06,-0.520
6.440E-06,-0.400
6.450E-06,-0.380
6.460E-06,-0.580
6.470E-06,-0.320
6.480E-06,-0.260
6.490E-06,0.100
6.500E-06,0.900
6.510E-06,0.580
6.520E-06,0.740
6.530E-06,0.340
6.540E-06,-0.160
6.550E-06,0.140
6.560E-06,0.340
6.570E-06,0.660
6.580E-06,0.980
6.590E-06,0.760
6.600E-06,0.560
6.610E-06,0.420
6.620E-06,0.340
6.630E-06,0.300
6.640E-06,0.500
6.650E-06,0.420
6.660E-06,0.380
6.670E-06,0.240
6.680E-06,-0.060
6.690E-06,-0.120
6.700E-06,-0.280
6.710E-06,-0.400
6.720E-06,-0.500
6.730E-06,-0.560
6.740E-06,-0.600
6.750E-06,-0.540
6.760E-06,-0.440
6.770E-06,-0.360
6.780E-06,-0.300
6.790E-06,-0.200
6.800E-06,-0.140
6.810E-06,-0.020
6.820E-06,-0.020
6.830E-06,0.020
6.840E-06,-0.080
6.850E-06,-0.180
6.860E-06,-0.260
6.870E-06,-0.340
6.880E-06,-0.260
6.890E-06,-0.180
6.900E-06,-0.040
6.910E-06,-0.020
6.920E-06,-0.140
6.930E-06,-0.160
6.940E-06,-0.340
6.950E-06,-0.360
6.960E-06,-0.360
6.970E-06,-0.480
6.980E-06,-0.420
6.990E-06,-0.520
7.000E-06,-0.780
7.010E-06,-0.980
7.020E-06,-1.160
7.030E-06,-1.320
7.040E-06,-1.260
7.050E-06,-1.240
7.060E-06,-1.480
7.070E-06,-1.520
7.080E-06,-1.660
7.090E-06,-1.720
7.100E-06,-1.740
7.110E-06,-1.860
7.120E-06,-1.660
7.130E-06,-1.920
7.140E-06,-1.980
7.150E-06,-1.980
7.160E-06,-2.420
7.170E-06,-2.100
7.180E-06,-2.040
7.190E-06,-1.680
7.200E-06,-1.100
7.210E-06,-0.700
7.220E-06,-0.720
7.230E-06,-0.680
7.240E-06,-0.900
7.250E-06,-0.980
7.260E-06,-1.080
7.270E-06,-1.180
7.280E-06,-1.380
7.290E-06,-1.580
7.300E-06,-1.760
7.310E-06,-2.000
7.320E-06,-1.740
7.330E-06,-1.700
7.340E-06,-1.480
7.350E-06,-1.320
7.360E-06,-1.360
7.370E-06,-1.280
7.380E-06,-1.300
7.390E-06,-1.300
7.400E-06,-1.200
7.410E-06,-1.120
7.420E-06,-1.100
7.430E-06,-0.980
7.440E-06,-0.960
7.450E-06,-0.920
7.460E-06,-0.940
7.470E-06,-1.000
7.480E-06,-1.120
7.490E-06,-1.140
7.500E-06,-1.180
7.510E-06,-1.160
7.520E-06,-1.160
7.530E-06,-1.160
7.540E-06,-1.140
7.550E-06,-1.120
7.560E-06,-1.040
7.570E-06,-0.940
7.580E-06,-0.860
7.590E-06,-0.840
7.600E-06,-0.720
7.610E-06,-0.620
7.620E-06,-0.540
7.630E-06,-0.460
7.640E-06,-0.440
7.650E-06,-0.380
