mediciones/Mediciones filtradas (saque las feas)/6-10/26.1/WaveData55120.csv

#timebase=2000000(ps)
,#voltbase=100000(mv/100)
#size=4000
-4.250E-06,0.000
-4.240E-06,0.000
-4.230E-06,0.004
-4.220E-06,0.004
-4.210E-06,0.000
-4.200E-06,0.004
-4.190E-06,0.004
-4.180E-06,0.004
-4.170E-06,0.004
-4.160E-06,0.008
-4.150E-06,0.008
-4.140E-06,0.008
-4.130E-06,0.008
-4.120E-06,0.008
-4.110E-06,0.008
-4.100E-06,0.000
-4.090E-06,0.004
-4.080E-06,0.000
-4.070E-06,0.004
-4.060E-06,0.004
-4.050E-06,0.000
-4.040E-06,0.004
-4.030E-06,0.000
-4.020E-06,0.004
-4.010E-06,0.000
-4.000E-06,0.000
-3.990E-06,0.004
-3.980E-06,0.004
-3.970E-06,0.000
-3.960E-06,0.000
-3.950E-06,0.004
-3.940E-06,0.000
-3.930E-06,0.004
-3.920E-06,0.004
-3.910E-06,0.004
-3.900E-06,0.008
-3.890E-06,0.008
-3.880E-06,-0.004
-3.870E-06,0.000
-3.860E-06,0.004
-3.850E-06,-0.004
-3.840E-06,0.004
-3.830E-06,0.004
-3.820E-06,0.004
-3.810E-06,0.012
-3.800E-06,0.048
-3.790E-06,0.076
-3.780E-06,0.068
-3.770E-06,-0.004
-3.760E-06,-0.036
-3.750E-06,-0.128
-3.740E-06,-0.088
-3.730E-06,-0.036
-3.720E-06,-0.012
-3.710E-06,0.052
-3.700E-06,0.196
-3.690E-06,0.044
-3.680E-06,-0.052
-3.670E-06,-0.140
-3.660E-06,0.012
-3.650E-06,-0.056
-3.640E-06,0.072
-3.630E-06,0.160
-3.620E-06,0.024
-3.610E-06,-0.040
-3.600E-06,-0.024
-3.590E-06,-0.012
-3.580E-06,-0.088
-3.570E-06,-0.092
-3.560E-06,0.036
-3.550E-06,0.088
-3.540E-06,0.104
-3.530E-06,0.064
-3.520E-06,-0.012
-3.510E-06,-0.036
-3.500E-06,-0.040
-3.490E-06,-0.008
-3.480E-06,-0.004
-3.470E-06,0.004
-3.460E-06,0.012
-3.450E-06,0.008
-3.440E-06,0.000
-3.430E-06,-0.024
-3.420E-06,-0.028
-3.410E-06,-0.036
-3.400E-06,-0.004
-3.390E-06,0.020
-3.380E-06,0.048
-3.370E-06,0.052
-3.360E-06,0.040
-3.350E-06,0.012
-3.340E-06,-0.020
-3.330E-06,-0.036
-3.320E-06,-0.028
-3.310E-06,-0.004
-3.300E-06,0.012
-3.290E-06,0.024
-3.280E-06,0.004
-3.270E-06,0.000
-3.260E-06,-0.008
-3.250E-06,-0.012
-3.240E-06,-0.004
-3.230E-06,0.012
-3.220E-06,0.024
-3.210E-06,0.028
-3.200E-06,0.024
-3.190E-06,0.004
-3.180E-06,-0.004
-3.170E-06,-0.008
-3.160E-06,-0.012
-3.150E-06,-0.008
-3.140E-06,0.000
-3.130E-06,0.000
-3.120E-06,0.012
-3.110E-06,0.016
-3.100E-06,0.012
-3.090E-06,0.000
-3.080E-06,0.000
-3.070E-06,0.000
-3.060E-06,0.012
-3.050E-06,0.012
-3.040E-06,0.008
-3.030E-06,0.012
-3.020E-06,0.004
-3.010E-06,-0.004
-3.000E-06,-0.008
-2.990E-06,-0.008
-2.980E-06,0.000
-2.970E-06,0.000
-2.960E-06,0.012
-2.950E-06,0.012
-2.940E-06,0.012
-2.930E-06,-0.008
-2.920E-06,0.000
-2.910E-06,-0.004
-2.900E-06,0.008
-2.890E-06,0.008
-2.880E-06,0.012
-2.870E-06,0.012
-2.860E-06,0.008
-2.850E-06,0.004
-2.840E-06,0.004
-2.830E-06,0.000
-2.820E-06,0.000
-2.810E-06,0.008
-2.800E-06,0.008
-2.790E-06,0.008
-2.780E-06,0.008
-2.770E-06,0.008
-2.760E-06,0.004
-2.750E-06,0.000
-2.740E-06,0.008
-2.730E-06,0.012
-2.720E-06,0.008
-2.710E-06,0.008
-2.700E-06,0.012
-2.690E-06,0.004
-2.680E-06,-0.004
-2.670E-06,0.000
-2.660E-06,0.000
-2.650E-06,0.004
-2.640E-06,0.008
-2.630E-06,0.008
-2.620E-06,0.008
-2.610E-06,0.004
-2.600E-06,0.000
-2.590E-06,0.004
-2.580E-06,0.004
-2.570E-06,-0.004
-2.560E-06,0.000
-2.550E-06,-0.004
-2.540E-06,0.000
-2.530E-06,0.008
-2.520E-06,0.004
-2.510E-06,0.008
-2.500E-06,0.008
-2.490E-06,0.004
-2.480E-06,0.000
-2.470E-06,0.000
-2.460E-06,0.000
-2.450E-06,0.004
-2.440E-06,0.012
-2.430E-06,0.000
-2.420E-06,0.000
-2.410E-06,-0.020
-2.400E-06,0.000
-2.390E-06,-0.004
-2.380E-06,0.000
-2.370E-06,0.004
-2.360E-06,0.000
-2.350E-06,0.008
-2.340E-06,-0.008
-2.330E-06,-0.004
-2.320E-06,-0.004
-2.310E-06,0.012
-2.300E-06,0.008
-2.290E-06,0.008
-2.280E-06,-0.008
-2.270E-06,-0.004
-2.260E-06,0.000
-2.250E-06,0.008
-2.240E-06,0.020
-2.230E-06,0.008
-2.220E-06,0.008
-2.210E-06,-0.004
-2.200E-06,-0.008
-2.190E-06,-0.008
-2.180E-06,0.000
-2.170E-06,0.012
-2.160E-06,0.020
-2.150E-06,0.012
-2.140E-06,0.004
-2.130E-06,-0.004
-2.120E-06,-0.008
-2.110E-06,0.000
-2.100E-06,0.004
-2.090E-06,0.012
-2.080E-06,0.016
-2.070E-06,0.008
-2.060E-06,-0.004
-2.050E-06,-0.004
-2.040E-06,0.000
-2.030E-06,0.000
-2.020E-06,0.000
-2.010E-06,0.004
-2.000E-06,0.012
-1.990E-06,0.004
-1.980E-06,0.004
-1.970E-06,-0.004
-1.960E-06,0.000
-1.950E-06,0.004
-1.940E-06,0.000
-1.930E-06,0.000
-1.920E-06,0.008
-1.910E-06,0.016
-1.900E-06,0.004
-1.890E-06,0.000
-1.880E-06,0.000
-1.870E-06,-0.008
-1.860E-06,-0.008
-1.850E-06,0.008
-1.840E-06,0.008
-1.830E-06,0.008
-1.820E-06,0.012
-1.810E-06,0.000
-1.800E-06,0.004
-1.790E-06,0.000
-1.780E-06,-0.004
-1.770E-06,0.004
-1.760E-06,0.008
-1.750E-06,0.008
-1.740E-06,0.004
-1.730E-06,0.008
-1.720E-06,0.004
-1.710E-06,0.004
-1.700E-06,0.004
-1.690E-06,0.000
-1.680E-06,0.008
-1.670E-06,0.008
-1.660E-06,0.008
-1.650E-06,0.004
-1.640E-06,0.004
-1.630E-06,0.008
-1.620E-06,0.008
-1.610E-06,0.004
-1.600E-06,0.004
-1.590E-06,0.008
-1.580E-06,0.004
-1.570E-06,0.004
-1.560E-06,0.004
-1.550E-06,-0.004
-1.540E-06,-0.016
-1.530E-06,0.000
-1.520E-06,0.012
-1.510E-06,0.032
-1.500E-06,0.052
-1.490E-06,0.060
-1.480E-06,0.044
-1.470E-06,0.032
-1.460E-06,-0.004
-1.450E-06,-0.020
-1.440E-06,-0.020
-1.430E-06,-0.004
-1.420E-06,0.008
-1.410E-06,0.016
-1.400E-06,0.020
-1.390E-06,0.008
-1.380E-06,-0.004
-1.370E-06,-0.004
-1.360E-06,-0.004
-1.350E-06,0.004
-1.340E-06,0.028
-1.330E-06,0.024
-1.320E-06,0.024
-1.310E-06,0.016
-1.300E-06,0.020
-1.290E-06,0.008
-1.280E-06,-0.008
-1.270E-06,0.000
-1.260E-06,-0.020
-1.250E-06,-0.012
-1.240E-06,-0.012
-1.230E-06,-0.020
-1.220E-06,-0.020
-1.210E-06,0.024
-1.200E-06,0.036
-1.190E-06,0.032
-1.180E-06,0.020
-1.170E-06,0.020
-1.160E-06,-0.008
-1.150E-06,-0.028
-1.140E-06,0.012
-1.130E-06,0.004
-1.120E-06,0.000
-1.110E-06,-0.020
-1.100E-06,-0.032
-1.090E-06,-0.008
-1.080E-06,0.008
-1.070E-06,0.040
-1.060E-06,0.036
-1.050E-06,0.020
-1.040E-06,0.004
-1.030E-06,-0.032
-1.020E-06,-0.024
-1.010E-06,0.000
-1.000E-06,0.020
-9.900E-07,0.028
-9.800E-07,0.040
-9.700E-07,0.008
-9.600E-07,-0.008
-9.500E-07,-0.016
-9.400E-07,-0.028
-9.300E-07,-0.020
-9.200E-07,-0.004
-9.100E-07,0.016
-9.000E-07,0.024
-8.900E-07,0.016
-8.800E-07,0.008
-8.700E-07,0.000
-8.600E-07,-0.008
-8.500E-07,-0.004
-8.400E-07,0.008
-8.300E-07,0.020
-8.200E-07,0.024
-8.100E-07,0.024
-8.000E-07,0.012
-7.900E-07,0.000
-7.800E-07,-0.004
-7.700E-07,0.000
-7.600E-07,0.020
-7.500E-07,0.032
-7.400E-07,0.044
-7.300E-07,0.048
-7.200E-07,0.044
-7.100E-07,0.004
-7.000E-07,-0.028
-6.900E-07,-0.060
-6.800E-07,-0.040
-6.700E-07,-0.004
-6.600E-07,0.024
-6.500E-07,0.048
-6.400E-07,0.024
-6.300E-07,0.004
-6.200E-07,-0.024
-6.100E-07,-0.040
-6.000E-07,-0.036
-5.900E-07,-0.008
-5.800E-07,0.016
-5.700E-07,0.020
-5.600E-07,0.024
-5.500E-07,0.004
-5.400E-07,-0.004
-5.300E-07,-0.008
-5.200E-07,-0.008
-5.100E-07,-0.004
-5.000E-07,0.020
-4.900E-07,0.028
-4.800E-07,0.032
-4.700E-07,0.020
-4.600E-07,0.008
-4.500E-07,0.008
-4.400E-07,0.008
-4.300E-07,0.008
-4.200E-07,0.012
-4.100E-07,0.024
-4.000E-07,0.020
-3.900E-07,0.024
-3.800E-07,0.020
-3.700E-07,0.008
-3.600E-07,0.012
-3.500E-07,0.008
-3.400E-07,0.004
-3.300E-07,0.016
-3.200E-07,0.028
-3.100E-07,0.024
-3.000E-07,0.024
-2.900E-07,0.024
-2.800E-07,0.020
-2.700E-07,0.028
-2.600E-07,0.020
-2.500E-07,0.028
-2.400E-07,0.032
-2.300E-07,0.040
-2.200E-07,0.040
-2.100E-07,0.028
-2.000E-07,0.028
-1.900E-07,0.028
-1.800E-07,0.028
-1.700E-07,0.048
-1.600E-07,0.040
-1.500E-07,0.052
-1.400E-07,0.036
-1.300E-07,0.032
-1.200E-07,0.016
-1.100E-07,0.060
-1.000E-07,-0.008
-9.000E-08,0.004
-8.000E-08,-0.024
-7.000E-08,-0.040
-6.000E-08,-0.212
-5.000E-08,-0.324
-4.000E-08,-0.304
-3.000E-08,-0.096
-2.000E-08,0.136
-1.000E-08,0.240
0.000E+00,0.328
1.000E-08,0.128
2.000E-08,-0.048
3.000E-08,-0.204
4.000E-08,-0.188
5.000E-08,-0.180
6.000E-08,0.024
7.000E-08,0.224
8.000E-08,0.316
9.000E-08,0.192
1.000E-07,-0.044
1.100E-07,-0.152
1.200E-07,-0.208
1.300E-07,-0.072
1.400E-07,0.088
1.500E-07,0.200
1.600E-07,0.204
1.700E-07,0.160
1.800E-07,0.056
1.900E-07,-0.096
2.000E-07,-0.100
2.100E-07,-0.104
2.200E-07,0.072
2.300E-07,-0.072
2.400E-07,0.032
2.500E-07,-0.200
2.600E-07,-0.196
2.700E-07,-0.012
2.800E-07,0.036
2.900E-07,0.068
3.000E-07,-0.044
3.100E-07,-0.004
3.200E-07,0.008
3.300E-07,0.040
3.400E-07,0.144
3.500E-07,0.080
3.600E-07,-0.032
3.700E-07,0.000
3.800E-07,0.056
3.900E-07,0.068
4.000E-07,0.068
4.100E-07,0.000
4.200E-07,-0.080
4.300E-07,-0.100
4.400E-07,-0.040
4.500E-07,-0.020
4.600E-07,-0.024
4.700E-07,0.072
4.800E-07,0.108
4.900E-07,0.012
5.000E-07,-0.028
5.100E-07,-0.100
5.200E-07,-0.120
5.300E-07,0.028
5.400E-07,0.012
5.500E-07,0.072
5.600E-07,0.156
5.700E-07,0.148
5.800E-07,0.056
5.900E-07,-0.016
6.000E-07,-0.112
6.100E-07,-0.120
6.200E-07,-0.052
6.300E-07,0.040
6.400E-07,0.056
6.500E-07,0.156
6.600E-07,0.104
6.700E-07,-0.028
6.800E-07,0.016
6.900E-07,-0.124
7.000E-07,-0.188
7.100E-07,-0.220
7.200E-07,-0.036
7.300E-07,0.036
7.400E-07,0.028
7.500E-07,0.048
7.600E-07,0.096
7.700E-07,0.024
7.800E-07,-0.032
7.900E-07,-0.036
8.000E-07,0.004
8.100E-07,0.068
8.200E-07,0.084
8.300E-07,0.104
8.400E-07,0.048
8.500E-07,-0.024
8.600E-07,-0.028
8.700E-07,-0.032
8.800E-07,-0.052
8.900E-07,-0.048
9.000E-07,0.040
9.100E-07,0.060
9.200E-07,0.008
9.300E-07,0.004
9.400E-07,0.012
9.500E-07,0.032
9.600E-07,0.028
9.700E-07,0.032
9.800E-07,0.076
9.900E-07,-0.008
1.000E-06,-0.028
1.010E-06,-0.104
1.020E-06,-0.136
1.030E-06,-0.056
1.040E-06,0.000
1.050E-06,0.096
1.060E-06,0.092
1.070E-06,0.036
1.080E-06,0.004
1.090E-06,-0.008
1.100E-06,-0.008
1.110E-06,-0.008
1.120E-06,0.020
1.130E-06,0.028
1.140E-06,0.008
1.150E-06,0.036
1.160E-06,0.028
1.170E-06,0.028
1.180E-06,0.044
1.190E-06,0.056
1.200E-06,0.040
1.210E-06,0.036
1.220E-06,0.044
1.230E-06,0.032
1.240E-06,0.032
1.250E-06,-0.008
1.260E-06,-0.036
1.270E-06,-0.064
1.280E-06,-0.020
1.290E-06,0.000
1.300E-06,-0.004
1.310E-06,0.024
1.320E-06,0.008
1.330E-06,0.000
1.340E-06,-0.008
1.350E-06,-0.024
1.360E-06,0.016
1.370E-06,0.024
1.380E-06,0.028
1.390E-06,0.056
1.400E-06,0.044
1.410E-06,0.044
1.420E-06,0.036
1.430E-06,0.036
1.440E-06,0.040
1.450E-06,0.040
1.460E-06,0.040
1.470E-06,0.044
1.480E-06,0.052
1.490E-06,0.068
1.500E-06,0.076
1.510E-06,0.064
1.520E-06,0.080
1.530E-06,0.104
1.540E-06,0.064
1.550E-06,0.040
1.560E-06,0.012
1.570E-06,-0.016
1.580E-06,-0.008
1.590E-06,-0.012
1.600E-06,-0.008
1.610E-06,0.004
1.620E-06,0.012
1.630E-06,0.020
1.640E-06,0.012
1.650E-06,0.016
1.660E-06,0.048
1.670E-06,0.076
1.680E-06,0.072
1.690E-06,0.064
1.700E-06,0.032
1.710E-06,0.008
1.720E-06,-0.012
1.730E-06,-0.008
1.740E-06,0.040
1.750E-06,0.064
1.760E-06,0.064
1.770E-06,0.068
1.780E-06,0.032
1.790E-06,0.056
1.800E-06,-0.004
1.810E-06,0.000
1.820E-06,0.028
1.830E-06,0.032
1.840E-06,0.008
1.850E-06,0.064
1.860E-06,0.056
1.870E-06,0.000
1.880E-06,0.016
1.890E-06,0.052
1.900E-06,0.056
1.910E-06,0.032
1.920E-06,0.012
1.930E-06,0.084
1.940E-06,0.100
1.950E-06,0.096
1.960E-06,0.044
1.970E-06,0.060
1.980E-06,0.004
1.990E-06,-0.036
2.000E-06,0.008
2.010E-06,0.064
2.020E-06,0.076
2.030E-06,0.084
2.040E-06,0.068
2.050E-06,0.000
2.060E-06,-0.020
2.070E-06,-0.056
2.080E-06,-0.020
2.090E-06,0.044
2.100E-06,0.088
2.110E-06,0.140
2.120E-06,0.112
2.130E-06,0.084
2.140E-06,0.012
2.150E-06,-0.008
2.160E-06,0.032
2.170E-06,0.080
2.180E-06,0.144
2.190E-06,0.168
2.200E-06,0.168
2.210E-06,0.108
2.220E-06,0.088
2.230E-06,0.056
2.240E-06,0.076
2.250E-06,0.116
2.260E-06,0.096
2.270E-06,0.088
2.280E-06,0.004
2.290E-06,0.044
2.300E-06,-0.044
2.310E-06,0.032
2.320E-06,-0.008
2.330E-06,0.068
2.340E-06,-0.032
2.350E-06,-0.020
2.360E-06,-0.036
2.370E-06,0.032
2.380E-06,0.024
2.390E-06,0.024
2.400E-06,0.040
2.410E-06,-0.080
2.420E-06,-0.052
2.430E-06,-0.040
2.440E-06,0.060
2.450E-06,0.148
2.460E-06,0.164
2.470E-06,0.140
2.480E-06,0.060
2.490E-06,0.000
2.500E-06,-0.060
2.510E-06,-0.108
2.520E-06,-0.216
2.530E-06,-0.328
2.540E-06,-0.436
2.550E-06,-0.460
2.560E-06,-0.508
2.570E-06,-0.408
2.580E-06,0.012
2.590E-06,0.032
2.600E-06,0.032
2.610E-06,-0.008
2.620E-06,-0.168
2.630E-06,-0.244
2.640E-06,-0.252
2.650E-06,-0.132
2.660E-06,-0.004
2.670E-06,0.148
2.680E-06,0.164
2.690E-06,0.016
2.700E-06,-0.028
2.710E-06,-0.128
2.720E-06,-0.112
2.730E-06,-0.032
2.740E-06,0.088
2.750E-06,0.156
2.760E-06,0.160
2.770E-06,0.124
2.780E-06,0.044
2.790E-06,0.000
2.800E-06,-0.024
2.810E-06,0.056
2.820E-06,0.128
2.830E-06,0.192
2.840E-06,0.200
2.850E-06,0.176
2.860E-06,0.120
2.870E-06,0.044
2.880E-06,0.068
2.890E-06,0.092
2.900E-06,0.148
2.910E-06,0.192
2.920E-06,0.224
2.930E-06,0.224
2.940E-06,0.180
2.950E-06,0.128
2.960E-06,0.092
2.970E-06,0.112
2.980E-06,0.136
2.990E-06,0.188
3.000E-06,0.208
3.010E-06,0.200
3.020E-06,0.168
3.030E-06,0.140
3.040E-06,0.120
3.050E-06,0.124
3.060E-06,0.140
3.070E-06,0.156
3.080E-06,0.196
3.090E-06,0.192
3.100E-06,0.188
3.110E-06,0.148
3.120E-06,0.108
3.130E-06,0.096
3.140E-06,0.064
3.150E-06,0.036
3.160E-06,0.064
3.170E-06,0.036
3.180E-06,0.172
3.190E-06,0.124
3.200E-06,0.112
3.210E-06,0.100
3.220E-06,0.056
3.230E-06,0.076
3.240E-06,0.060
3.250E-06,0.036
3.260E-06,0.000
3.270E-06,-0.164
3.280E-06,-0.336
3.290E-06,-0.220
3.300E-06,-0.280
3.310E-06,-0.424
3.320E-06,-0.356
3.330E-06,-0.140
3.340E-06,0.028
3.350E-06,0.184
3.360E-06,0.372
3.370E-06,-0.224
3.380E-06,-0.512
3.390E-06,-0.508
3.400E-06,-0.424
3.410E-06,-0.248
3.420E-06,0.024
3.430E-06,0.220
3.440E-06,0.108
3.450E-06,-0.024
3.460E-06,-0.300
3.470E-06,-0.444
3.480E-06,-0.180
3.490E-06,0.148
3.500E-06,0.192
3.510E-06,0.292
3.520E-06,0.204
3.530E-06,0.124
3.540E-06,-0.020
3.550E-06,-0.092
3.560E-06,-0.044
3.570E-06,0.020
3.580E-06,0.176
3.590E-06,0.224
3.600E-06,0.240
3.610E-06,0.176
3.620E-06,0.088
3.630E-06,-0.020
3.640E-06,-0.028
3.650E-06,0.056
3.660E-06,0.144
3.670E-06,0.216
3.680E-06,0.220
3.690E-06,0.200
3.700E-06,0.132
3.710E-06,0.072
3.720E-06,0.028
3.730E-06,0.060
3.740E-06,0.132
3.750E-06,0.196
3.760E-06,0.224
3.770E-06,0.204
3.780E-06,0.152
3.790E-06,0.104
3.800E-06,0.076
3.810E-06,0.088
3.820E-06,0.124
3.830E-06,0.164
3.840E-06,0.180
3.850E-06,0.164
3.860E-06,0.148
3.870E-06,0.104
3.880E-06,0.088
3.890E-06,0.092
3.900E-06,0.116
3.910E-06,0.152
3.920E-06,0.172
3.930E-06,0.172
3.940E-06,0.160
3.950E-06,0.136
3.960E-06,0.132
3.970E-06,0.136
3.980E-06,0.144
3.990E-06,0.148
4.000E-06,0.168
4.010E-06,0.168
4.020E-06,0.148
4.030E-06,0.112
4.040E-06,0.072
4.050E-06,0.044
4.060E-06,0.036
4.070E-06,0.080
4.080E-06,0.164
4.090E-06,0.220
4.100E-06,0.228
4.110E-06,0.192
4.120E-06,0.124
4.130E-06,0.060
4.140E-06,0.028
4.150E-06,0.056
4.160E-06,0.124
4.170E-06,0.188
4.180E-06,0.204
4.190E-06,0.180
4.200E-06,0.100
4.210E-06,0.040
4.220E-06,0.020
4.230E-06,0.048
4.240E-06,0.104
4.250E-06,0.160
4.260E-06,0.192
4.270E-06,0.180
4.280E-06,0.140
4.290E-06,0.076
4.300E-06,0.068
4.310E-06,0.080
4.320E-06,0.140
4.330E-06,0.188
4.340E-06,0.208
4.350E-06,0.196
4.360E-06,0.164
4.370E-06,0.124
4.380E-06,0.088
4.390E-06,0.100
4.400E-06,0.128
4.410E-06,0.164
4.420E-06,0.196
4.430E-06,0.192
4.440E-06,0.160
4.450E-06,0.132
4.460E-06,0.108
4.470E-06,0.108
4.480E-06,0.120
4.490E-06,0.152
4.500E-06,0.180
4.510E-06,0.184
4.520E-06,0.168
4.530E-06,0.144
4.540E-06,0.124
4.550E-06,0.108
4.560E-06,0.124
4.570E-06,0.144
4.580E-06,0.156
4.590E-06,0.168
4.600E-06,0.164
4.610E-06,0.156
4.620E-06,0.132
4.630E-06,0.124
4.640E-06,0.132
4.650E-06,0.140
4.660E-06,0.160
4.670E-06,0.160
4.680E-06,0.160
4.690E-06,0.148
4.700E-06,0.132
4.710E-06,0.124
4.720E-06,0.120
4.730E-06,0.128
4.740E-06,0.144
4.750E-06,0.152
4.760E-06,0.156
4.770E-06,0.144
4.780E-06,0.140
4.790E-06,0.132
4.800E-06,0.128
4.810E-06,0.132
4.820E-06,0.136
4.830E-06,0.144
4.840E-06,0.148
4.850E-06,0.136
4.860E-06,0.136
4.870E-06,0.132
4.880E-06,0.128
4.890E-06,0.128
4.900E-06,0.132
4.910E-06,0.140
4.920E-06,0.136
4.930E-06,0.140
4.940E-06,0.136
4.950E-06,0.128
4.960E-06,0.132
4.970E-06,0.128
4.980E-06,0.132
4.990E-06,0.140
5.000E-06,0.136
5.010E-06,0.136
5.020E-06,0.132
5.030E-06,0.128
5.040E-06,0.124
5.050E-06,0.120
5.060E-06,0.124
5.070E-06,0.128
5.080E-06,0.132
5.090E-06,0.132
5.100E-06,0.136
5.110E-06,0.132
5.120E-06,0.128
5.130E-06,0.124
5.140E-06,0.124
5.150E-06,0.128
5.160E-06,0.136
5.170E-06,0.136
5.180E-06,0.136
5.190E-06,0.132
5.200E-06,0.128
5.210E-06,0.124
5.220E-06,0.128
5.230E-06,0.128
5.240E-06,0.128
5.250E-06,0.132
5.260E-06,0.128
5.270E-06,0.128
5.280E-06,0.124
5.290E-06,0.128
5.300E-06,0.128
5.310E-06,0.128
5.320E-06,0.128
5.330E-06,0.128
5.340E-06,0.128
5.350E-06,0.132
5.360E-06,0.124
5.370E-06,0.124
5.380E-06,0.124
5.390E-06,0.128
5.400E-06,0.128
5.410E-06,0.128
5.420E-06,0.124
5.430E-06,0.128
5.440E-06,0.124
5.450E-06,0.128
5.460E-06,0.128
5.470E-06,0.128
5.480E-06,0.128
5.490E-06,0.128
5.500E-06,0.124
5.510E-06,0.124
5.520E-06,0.124
5.530E-06,0.124
5.540E-06,0.124
5.550E-06,0.124
5.560E-06,0.128
5.570E-06,0.132
5.580E-06,0.128
5.590E-06,0.124
5.600E-06,0.120
5.610E-06,0.116
5.620E-06,0.112
5.630E-06,0.120
5.640E-06,0.120
5.650E-06,0.124
5.660E-06,0.124
5.670E-06,0.120
5.680E-06,0.124
5.690E-06,0.112
5.700E-06,0.120
5.710E-06,0.120
5.720E-06,0.124
5.730E-06,0.124
5.740E-06,0.124
5.750E-06,0.116
5.760E-06,0.112
5.770E-06,0.112
5.780E-06,0.112
5.790E-06,0.124
5.800E-06,0.124
5.810E-06,0.124
5.820E-06,0.124
5.830E-06,0.116
5.840E-06,0.108
5.850E-06,0.112
5.860E-06,0.116
5.870E-06,0.120
5.880E-06,0.120
5.890E-06,0.120
5.900E-06,0.120
5.910E-06,0.112
5.920E-06,0.112
5.930E-06,0.108
5.940E-06,0.112
5.950E-06,0.112
5.960E-06,0.112
5.970E-06,0.116
5.980E-06,0.116
5.990E-06,0.112
6.000E-06,0.108
6.010E-06,0.108
6.020E-06,0.104
6.030E-06,0.104
6.040E-06,0.108
6.050E-06,0.104
6.060E-06,0.108
6.070E-06,0.108
6.080E-06,0.104
6.090E-06,0.108
6.100E-06,0.108
6.110E-06,0.104
6.120E-06,0.108
6.130E-06,0.112
6.140E-06,0.108
6.150E-06,0.108
6.160E-06,0.104
6.170E-06,0.108
6.180E-06,0.104
6.190E-06,0.104
6.200E-06,0.104
6.210E-06,0.108
6.220E-06,0.108
6.230E-06,0.100
6.240E-06,0.104
6.250E-06,0.108
6.260E-06,0.104
6.270E-06,0.100
6.280E-06,0.108
6.290E-06,0.108
6.300E-06,0.104
6.310E-06,0.096
6.320E-06,0.096
6.330E-06,0.100
6.340E-06,0.100
6.350E-06,0.100
6.360E-06,0.104
6.370E-06,0.104
6.380E-06,0.096
6.390E-06,0.100
6.400E-06,0.100
6.410E-06,0.104
6.420E-06,0.100
6.430E-06,0.096
6.440E-06,0.096
6.450E-06,0.096
6.460E-06,0.100
6.470E-06,0.100
6.480E-06,0.100
6.490E-06,0.096
6.500E-06,0.096
6.510E-06,0.092
6.520E-06,0.096
6.530E-06,0.092
6.540E-06,0.096
6.550E-06,0.100
6.560E-06,0.096
6.570E-06,0.096
6.580E-06,0.092
6.590E-06,0.096
6.600E-06,0.100
6.610E-06,0.092
6.620E-06,0.092
6.630E-06,0.092
6.640E-06,0.092
6.650E-06,0.092
6.660E-06,0.096
6.670E-06,0.092
6.680E-06,0.088
6.690E-06,0.092
6.700E-06,0.092
6.710E-06,0.088
6.720E-06,0.092
6.730E-06,0.092
6.740E-06,0.088
6.750E-06,0.092
6.760E-06,0.092
6.770E-06,0.088
6.780E-06,0.088
6.790E-06,0.088
6.800E-06,0.088
6.810E-06,0.088
6.820E-06,0.084
6.830E-06,0.084
6.840E-06,0.084
6.850E-06,0.088
6.860E-06,0.088
6.870E-06,0.084
6.880E-06,0.084
6.890E-06,0.088
6.900E-06,0.088
6.910E-06,0.084
6.920E-06,0.088
6.930E-06,0.080
6.940E-06,0.084
6.950E-06,0.088
6.960E-06,0.088
6.970E-06,0.084
6.980E-06,0.084
6.990E-06,0.084
7.000E-06,0.080
7.010E-06,0.080
7.020E-06,0.076
7.030E-06,0.080
7.040E-06,0.080
7.050E-06,0.084
7.060E-06,0.076
7.070E-06,0.084
7.080E-06,0.080
7.090E-06,0.076
7.100E-06,0.076
7.110E-06,0.076
7.120E-06,0.080
7.130E-06,0.076
7.140E-06,0.080
7.150E-06,0.076
7.160E-06,0.076
7.170E-06,0.076
7.180E-06,0.072
7.190E-06,0.072
7.200E-06,0.076
7.210E-06,0.076
7.220E-06,0.076
7.230E-06,0.076
7.240E-06,0.076
7.250E-06,0.076
7.260E-06,0.072
7.270E-06,0.072
7.280E-06,0.064
7.290E-06,0.076
7.300E-06,0.064
7.310E-06,0.076
7.320E-06,0.076
7.330E-06,0.072
7.340E-06,0.068
7.350E-06,0.076
7.360E-06,0.072
7.370E-06,0.068
7.380E-06,0.068
7.390E-06,0.072
7.400E-06,0.072
7.410E-06,0.072
7.420E-06,0.072
7.430E-06,0.072
7.440E-06,0.068
7.450E-06,0.064
7.460E-06,0.068
7.470E-06,0.068
7.480E-06,0.064
7.490E-06,0.076
7.500E-06,0.068
7.510E-06,0.068
7.520E-06,0.064
7.530E-06,0.064
7.540E-06,0.068
7.550E-06,0.068
7.560E-06,0.064
7.570E-06,0.068
7.580E-06,0.068
7.590E-06,0.068
7.600E-06,0.060
7.610E-06,0.060
7.620E-06,0.068
7.630E-06,0.064
7.640E-06,0.064
7.650E-06,0.060
7.660E-06,0.060
7.670E-06,0.064
7.680E-06,0.064
7.690E-06,0.064
7.700E-06,0.064
7.710E-06,0.060
7.720E-06,0.064
7.730E-06,0.060
7.740E-06,0.064
7.750E-06,0.064
7.760E-06,0.060
7.770E-06,0.064
7.780E-06,0.064
7.790E-06,0.060
