mediciones/Mediciones filtradas (saque las feas)/6-10/26.1/WaveData55121.csv

#timebase=2000000(ps)
,#voltbase=500000(mv/100)
#size=4000
-4.250E-06,0.060
-4.240E-06,0.060
-4.230E-06,0.020
-4.220E-06,0.040
-4.210E-06,0.080
-4.200E-06,0.040
-4.190E-06,0.040
-4.180E-06,0.060
-4.170E-06,0.020
-4.160E-06,0.020
-4.150E-06,0.060
-4.140E-06,0.040
-4.130E-06,0.080
-4.120E-06,0.060
-4.110E-06,0.020
-4.100E-06,0.040
-4.090E-06,0.060
-4.080E-06,0.060
-4.070E-06,0.040
-4.060E-06,0.060
-4.050E-06,0.040
-4.040E-06,0.040
-4.030E-06,0.060
-4.020E-06,0.040
-4.010E-06,0.040
-4.000E-06,0.040
-3.990E-06,0.060
-3.980E-06,0.060
-3.970E-06,0.080
-3.960E-06,0.020
-3.950E-06,0.020
-3.940E-06,0.040
-3.930E-06,0.040
-3.920E-06,0.040
-3.910E-06,0.060
-3.900E-06,0.020
-3.890E-06,0.040
-3.880E-06,0.040
-3.870E-06,0.060
-3.860E-06,0.080
-3.850E-06,0.020
-3.840E-06,0.020
-3.830E-06,0.020
-3.820E-06,0.060
-3.810E-06,0.040
-3.800E-06,0.000
-3.790E-06,0.100
-3.780E-06,0.460
-3.770E-06,1.200
-3.760E-06,2.220
-3.750E-06,2.700
-3.740E-06,2.760
-3.730E-06,2.080
-3.720E-06,1.140
-3.710E-06,-0.580
-3.700E-06,-1.520
-3.690E-06,-1.720
-3.680E-06,-2.520
-3.670E-06,-2.460
-3.660E-06,-2.500
-3.650E-06,-2.600
-3.640E-06,-2.420
-3.630E-06,-2.080
-3.620E-06,-0.920
-3.610E-06,-0.740
-3.600E-06,0.020
-3.590E-06,0.900
-3.580E-06,0.300
-3.570E-06,0.520
-3.560E-06,0.440
-3.550E-06,0.480
-3.540E-06,0.420
-3.530E-06,0.680
-3.520E-06,0.780
-3.510E-06,0.840
-3.500E-06,0.980
-3.490E-06,1.060
-3.480E-06,1.240
-3.470E-06,1.240
-3.460E-06,1.120
-3.450E-06,0.920
-3.440E-06,0.680
-3.430E-06,0.360
-3.420E-06,0.160
-3.410E-06,-0.020
-3.400E-06,-0.300
-3.390E-06,-0.500
-3.380E-06,-0.700
-3.370E-06,-0.860
-3.360E-06,-0.700
-3.350E-06,-0.480
-3.340E-06,-0.240
-3.330E-06,0.140
-3.320E-06,0.400
-3.310E-06,0.500
-3.300E-06,0.660
-3.290E-06,0.740
-3.280E-06,0.740
-3.270E-06,0.680
-3.260E-06,0.560
-3.250E-06,0.460
-3.240E-06,0.360
-3.230E-06,0.240
-3.220E-06,0.120
-3.210E-06,0.000
-3.200E-06,-0.180
-3.190E-06,-0.360
-3.180E-06,-0.600
-3.170E-06,-0.760
-3.160E-06,-0.920
-3.150E-06,-0.980
-3.140E-06,-1.040
-3.130E-06,-1.040
-3.120E-06,-1.000
-3.110E-06,-0.980
-3.100E-06,-0.860
-3.090E-06,-0.700
-3.080E-06,-0.420
-3.070E-06,-0.160
-3.060E-06,0.080
-3.050E-06,0.320
-3.040E-06,0.480
-3.030E-06,0.660
-3.020E-06,0.780
-3.010E-06,0.840
-3.000E-06,0.840
-2.990E-06,0.860
-2.980E-06,0.720
-2.970E-06,0.580
-2.960E-06,0.460
-2.950E-06,0.360
-2.940E-06,0.260
-2.930E-06,0.160
-2.920E-06,0.080
-2.910E-06,-0.020
-2.900E-06,-0.140
-2.890E-06,-0.220
-2.880E-06,-0.240
-2.870E-06,-0.320
-2.860E-06,-0.340
-2.850E-06,-0.360
-2.840E-06,-0.360
-2.830E-06,-0.340
-2.820E-06,-0.340
-2.810E-06,-0.220
-2.800E-06,-0.180
-2.790E-06,0.000
-2.780E-06,0.080
-2.770E-06,0.180
-2.760E-06,0.260
-2.750E-06,0.340
-2.740E-06,0.440
-2.730E-06,0.480
-2.720E-06,0.440
-2.710E-06,0.420
-2.700E-06,0.400
-2.690E-06,0.320
-2.680E-06,0.260
-2.670E-06,0.200
-2.660E-06,0.160
-2.650E-06,0.140
-2.640E-06,0.080
-2.630E-06,0.020
-2.620E-06,0.000
-2.610E-06,-0.060
-2.600E-06,-0.080
-2.590E-06,-0.080
-2.580E-06,-0.120
-2.570E-06,-0.120
-2.560E-06,-0.120
-2.550E-06,-0.060
-2.540E-06,-0.080
-2.530E-06,-0.100
-2.520E-06,-0.020
-2.510E-06,-0.020
-2.500E-06,0.000
-2.490E-06,0.040
-2.480E-06,0.080
-2.470E-06,0.100
-2.460E-06,0.140
-2.450E-06,0.180
-2.440E-06,0.260
-2.430E-06,0.300
-2.420E-06,0.320
-2.410E-06,0.340
-2.400E-06,0.340
-2.390E-06,0.320
-2.380E-06,0.200
-2.370E-06,0.320
-2.360E-06,0.300
-2.350E-06,0.340
-2.340E-06,0.420
-2.330E-06,0.240
-2.320E-06,0.140
-2.310E-06,0.040
-2.300E-06,-0.020
-2.290E-06,0.100
-2.280E-06,0.120
-2.270E-06,0.160
-2.260E-06,0.140
-2.250E-06,-0.040
-2.240E-06,-0.120
-2.230E-06,-0.100
-2.220E-06,-0.060
-2.210E-06,0.020
-2.200E-06,0.080
-2.190E-06,0.000
-2.180E-06,0.000
-2.170E-06,-0.080
-2.160E-06,-0.060
-2.150E-06,0.000
-2.140E-06,0.100
-2.130E-06,0.140
-2.120E-06,0.120
-2.110E-06,0.080
-2.100E-06,0.080
-2.090E-06,0.100
-2.080E-06,0.100
-2.070E-06,0.120
-2.060E-06,0.080
-2.050E-06,0.060
-2.040E-06,0.000
-2.030E-06,0.000
-2.020E-06,-0.020
-2.010E-06,-0.020
-2.000E-06,0.000
-1.990E-06,-0.020
-1.980E-06,0.000
-1.970E-06,0.020
-1.960E-06,0.020
-1.950E-06,0.060
-1.940E-06,0.100
-1.930E-06,0.160
-1.920E-06,0.180
-1.910E-06,0.180
-1.900E-06,0.200
-1.890E-06,0.260
-1.880E-06,0.280
-1.870E-06,0.320
-1.860E-06,0.300
-1.850E-06,0.240
-1.840E-06,0.200
-1.830E-06,0.200
-1.820E-06,0.220
-1.810E-06,0.220
-1.800E-06,0.180
-1.790E-06,0.180
-1.780E-06,0.100
-1.770E-06,0.060
-1.760E-06,0.020
-1.750E-06,0.000
-1.740E-06,-0.020
-1.730E-06,-0.020
-1.720E-06,-0.040
-1.710E-06,-0.080
-1.700E-06,-0.100
-1.690E-06,-0.060
-1.680E-06,-0.080
-1.670E-06,-0.040
-1.660E-06,0.020
-1.650E-06,-0.020
-1.640E-06,0.000
-1.630E-06,0.020
-1.620E-06,0.060
-1.610E-06,0.080
-1.600E-06,0.060
-1.590E-06,0.120
-1.580E-06,0.140
-1.570E-06,0.100
-1.560E-06,0.140
-1.550E-06,0.080
-1.540E-06,-0.040
-1.530E-06,-0.240
-1.520E-06,-0.680
-1.510E-06,-1.100
-1.500E-06,-1.480
-1.490E-06,-1.580
-1.480E-06,-1.300
-1.470E-06,-0.700
-1.460E-06,0.020
-1.450E-06,0.700
-1.440E-06,1.120
-1.430E-06,1.380
-1.420E-06,1.420
-1.410E-06,1.360
-1.400E-06,1.260
-1.390E-06,1.240
-1.380E-06,1.240
-1.370E-06,1.200
-1.360E-06,1.120
-1.350E-06,0.960
-1.340E-06,0.760
-1.330E-06,0.520
-1.320E-06,0.340
-1.310E-06,0.120
-1.300E-06,-0.080
-1.290E-06,-0.180
-1.280E-06,-0.300
-1.270E-06,-0.380
-1.260E-06,-0.420
-1.250E-06,-0.480
-1.240E-06,-0.560
-1.230E-06,-0.500
-1.220E-06,-0.460
-1.210E-06,-0.500
-1.200E-06,-0.360
-1.190E-06,-0.180
-1.180E-06,-0.020
-1.170E-06,0.220
-1.160E-06,0.280
-1.150E-06,0.200
-1.140E-06,0.300
-1.130E-06,0.100
-1.120E-06,0.420
-1.110E-06,0.680
-1.100E-06,0.320
-1.090E-06,0.420
-1.080E-06,-0.100
-1.070E-06,-0.380
-1.060E-06,-0.320
-1.050E-06,-0.480
-1.040E-06,-0.180
-1.030E-06,-0.240
-1.020E-06,-0.500
-1.010E-06,-0.520
-1.000E-06,-0.700
-9.900E-07,-0.680
-9.800E-07,-0.360
-9.700E-07,-0.160
-9.600E-07,0.100
-9.500E-07,0.420
-9.400E-07,0.480
-9.300E-07,0.640
-9.200E-07,0.760
-9.100E-07,0.760
-9.000E-07,0.880
-8.900E-07,1.000
-8.800E-07,0.980
-8.700E-07,1.120
-8.600E-07,1.100
-8.500E-07,1.020
-8.400E-07,0.940
-8.300E-07,0.740
-8.200E-07,0.660
-8.100E-07,0.540
-8.000E-07,0.460
-7.900E-07,0.320
-7.800E-07,0.160
-7.700E-07,0.000
-7.600E-07,-0.080
-7.500E-07,-0.160
-7.400E-07,-0.180
-7.300E-07,-0.140
-7.200E-07,-0.120
-7.100E-07,-0.080
-7.000E-07,-0.020
-6.900E-07,-0.020
-6.800E-07,0.000
-6.700E-07,0.000
-6.600E-07,-0.020
-6.500E-07,0.080
-6.400E-07,0.240
-6.300E-07,0.360
-6.200E-07,0.440
-6.100E-07,0.460
-6.000E-07,0.380
-5.900E-07,0.280
-5.800E-07,0.260
-5.700E-07,0.200
-5.600E-07,0.220
-5.500E-07,0.180
-5.400E-07,0.160
-5.300E-07,0.140
-5.200E-07,0.020
-5.100E-07,0.000
-5.000E-07,-0.020
-4.900E-07,-0.020
-4.800E-07,0.000
-4.700E-07,-0.040
-4.600E-07,-0.060
-4.500E-07,-0.060
-4.400E-07,-0.080
-4.300E-07,0.000
-4.200E-07,-0.020
-4.100E-07,0.060
-4.000E-07,0.120
-3.900E-07,0.080
-3.800E-07,0.180
-3.700E-07,0.180
-3.600E-07,0.240
-3.500E-07,0.320
-3.400E-07,0.380
-3.300E-07,0.380
-3.200E-07,0.360
-3.100E-07,0.320
-3.000E-07,0.320
-2.900E-07,0.340
-2.800E-07,0.360
-2.700E-07,0.400
-2.600E-07,0.360
-2.500E-07,0.320
-2.400E-07,0.280
-2.300E-07,0.220
-2.200E-07,0.220
-2.100E-07,0.180
-2.000E-07,0.160
-1.900E-07,0.200
-1.800E-07,0.140
-1.700E-07,0.180
-1.600E-07,0.180
-1.500E-07,0.120
-1.400E-07,0.160
-1.300E-07,0.140
-1.200E-07,0.060
-1.100E-07,0.140
-1.000E-07,0.140
-9.000E-08,0.000
-8.000E-08,0.260
-7.000E-08,-0.080
-6.000E-08,-0.100
-5.000E-08,0.360
-4.000E-08,-0.180
-3.000E-08,-0.480
-2.000E-08,-0.220
-1.000E-08,-1.140
0.000E+00,-0.680
1.000E-08,-0.100
2.000E-08,0.320
3.000E-08,1.440
4.000E-08,1.160
5.000E-08,0.800
6.000E-08,0.480
7.000E-08,-0.120
8.000E-08,-0.160
9.000E-08,0.460
1.000E-07,0.420
1.100E-07,1.000
1.200E-07,0.700
1.300E-07,0.400
1.400E-07,0.220
1.500E-07,-0.020
1.600E-07,0.120
1.700E-07,0.280
1.800E-07,0.380
1.900E-07,0.320
2.000E-07,0.260
2.100E-07,0.080
2.200E-07,-0.020
2.300E-07,-0.080
2.400E-07,0.360
2.500E-07,0.080
2.600E-07,-0.620
2.700E-07,0.180
2.800E-07,-0.920
2.900E-07,0.200
3.000E-07,0.880
3.100E-07,0.060
3.200E-07,0.640
3.300E-07,-0.200
3.400E-07,-0.460
3.500E-07,0.160
3.600E-07,0.240
3.700E-07,0.880
3.800E-07,0.420
3.900E-07,0.120
4.000E-07,-0.300
4.100E-07,-0.200
4.200E-07,0.140
4.300E-07,0.260
4.400E-07,0.520
4.500E-07,0.000
4.600E-07,-0.060
4.700E-07,-0.160
4.800E-07,-0.300
4.900E-07,0.240
5.000E-07,0.220
5.100E-07,0.280
5.200E-07,-0.020
5.300E-07,-0.180
5.400E-07,0.000
5.500E-07,0.120
5.600E-07,0.500
5.700E-07,0.660
5.800E-07,0.840
5.900E-07,0.960
6.000E-07,0.980
6.100E-07,1.060
6.200E-07,0.800
6.300E-07,0.560
6.400E-07,0.560
6.500E-07,0.200
6.600E-07,0.460
6.700E-07,0.680
6.800E-07,0.260
6.900E-07,0.220
7.000E-07,0.440
7.100E-07,0.040
7.200E-07,-0.280
7.300E-07,-0.180
7.400E-07,-0.740
7.500E-07,-0.620
7.600E-07,-0.140
7.700E-07,-0.420
7.800E-07,0.020
7.900E-07,0.260
8.000E-07,-0.360
8.100E-07,0.300
8.200E-07,-0.020
8.300E-07,0.160
8.400E-07,0.760
8.500E-07,0.480
8.600E-07,0.700
8.700E-07,0.260
8.800E-07,-0.020
8.900E-07,0.000
9.000E-07,-0.200
9.100E-07,-0.140
9.200E-07,-0.300
9.300E-07,-0.080
9.400E-07,-0.180
9.500E-07,-0.100
9.600E-07,0.320
9.700E-07,0.000
9.800E-07,0.400
9.900E-07,0.200
1.000E-06,0.260
1.010E-06,0.320
1.020E-06,-0.060
1.030E-06,-0.160
1.040E-06,-0.160
1.050E-06,-0.460
1.060E-06,-0.120
1.070E-06,0.100
1.080E-06,-0.100
1.090E-06,0.380
1.100E-06,-0.040
1.110E-06,0.340
1.120E-06,0.200
1.130E-06,0.200
1.140E-06,0.540
1.150E-06,0.140
1.160E-06,0.380
1.170E-06,0.260
1.180E-06,0.140
1.190E-06,0.500
1.200E-06,0.480
1.210E-06,0.580
1.220E-06,0.680
1.230E-06,0.220
1.240E-06,0.080
1.250E-06,-0.060
1.260E-06,-0.260
1.270E-06,-0.180
1.280E-06,-0.140
1.290E-06,-0.280
1.300E-06,-0.140
1.310E-06,-0.080
1.320E-06,-0.100
1.330E-06,0.040
1.340E-06,0.080
1.350E-06,-0.040
1.360E-06,-0.020
1.370E-06,0.260
1.380E-06,0.220
1.390E-06,0.520
1.400E-06,0.480
1.410E-06,0.200
1.420E-06,0.220
1.430E-06,0.120
1.440E-06,0.080
1.450E-06,0.220
1.460E-06,0.200
1.470E-06,0.200
1.480E-06,0.200
1.490E-06,0.120
1.500E-06,0.000
1.510E-06,0.000
1.520E-06,-0.020
1.530E-06,0.020
1.540E-06,0.120
1.550E-06,0.200
1.560E-06,0.300
1.570E-06,0.260
1.580E-06,0.160
1.590E-06,0.040
1.600E-06,0.040
1.610E-06,-0.020
1.620E-06,0.120
1.630E-06,0.220
1.640E-06,0.280
1.650E-06,0.300
1.660E-06,0.280
1.670E-06,0.240
1.680E-06,0.240
1.690E-06,0.260
1.700E-06,0.260
1.710E-06,0.280
1.720E-06,0.340
1.730E-06,0.240
1.740E-06,0.100
1.750E-06,-0.020
1.760E-06,0.160
1.770E-06,0.160
1.780E-06,0.260
1.790E-06,0.300
1.800E-06,0.220
1.810E-06,0.360
1.820E-06,-0.020
1.830E-06,0.240
1.840E-06,0.080
1.850E-06,0.000
1.860E-06,0.120
1.870E-06,0.100
1.880E-06,0.260
1.890E-06,0.100
1.900E-06,0.180
1.910E-06,0.260
1.920E-06,0.420
1.930E-06,0.260
1.940E-06,0.240
1.950E-06,0.180
1.960E-06,0.160
1.970E-06,0.320
1.980E-06,0.340
1.990E-06,0.340
2.000E-06,0.220
2.010E-06,0.160
2.020E-06,-0.020
2.030E-06,0.200
2.040E-06,0.260
2.050E-06,0.340
2.060E-06,0.480
2.070E-06,0.140
2.080E-06,0.180
2.090E-06,0.280
2.100E-06,0.040
2.110E-06,0.180
2.120E-06,0.240
2.130E-06,0.320
2.140E-06,0.620
2.150E-06,0.480
2.160E-06,0.420
2.170E-06,0.340
2.180E-06,0.160
2.190E-06,0.240
2.200E-06,0.360
2.210E-06,0.500
2.220E-06,0.560
2.230E-06,0.580
2.240E-06,0.320
2.250E-06,0.280
2.260E-06,0.200
2.270E-06,0.160
2.280E-06,0.260
2.290E-06,0.260
2.300E-06,0.140
2.310E-06,0.000
2.320E-06,-0.080
2.330E-06,-0.020
2.340E-06,-0.060
2.350E-06,0.080
2.360E-06,0.120
2.370E-06,-0.080
2.380E-06,-0.040
2.390E-06,-0.040
2.400E-06,0.000
2.410E-06,0.260
2.420E-06,0.480
2.430E-06,0.460
2.440E-06,0.520
2.450E-06,0.160
2.460E-06,0.380
2.470E-06,0.500
2.480E-06,0.600
2.490E-06,0.940
2.500E-06,0.580
2.510E-06,0.320
2.520E-06,0.300
2.530E-06,0.220
2.540E-06,0.040
2.550E-06,0.300
2.560E-06,-0.300
2.570E-06,-0.660
2.580E-06,-1.320
2.590E-06,-2.060
2.600E-06,-0.940
2.610E-06,-0.760
2.620E-06,0.600
2.630E-06,1.100
2.640E-06,1.020
2.650E-06,1.060
2.660E-06,0.600
2.670E-06,0.640
2.680E-06,0.920
2.690E-06,1.420
2.700E-06,1.480
2.710E-06,1.660
2.720E-06,1.120
2.730E-06,0.520
2.740E-06,0.340
2.750E-06,0.040
2.760E-06,0.320
2.770E-06,0.400
2.780E-06,0.500
2.790E-06,0.260
2.800E-06,0.020
2.810E-06,-0.280
2.820E-06,-0.520
2.830E-06,-0.800
2.840E-06,-0.740
2.850E-06,-0.700
2.860E-06,-0.660
2.870E-06,-0.560
2.880E-06,-0.560
2.890E-06,-0.580
2.900E-06,-0.500
2.910E-06,-0.500
2.920E-06,-0.340
2.930E-06,-0.240
2.940E-06,-0.040
2.950E-06,0.060
2.960E-06,0.100
2.970E-06,0.040
2.980E-06,0.020
2.990E-06,-0.140
3.000E-06,-0.260
3.010E-06,-0.340
3.020E-06,-0.460
3.030E-06,-0.540
3.040E-06,-0.600
3.050E-06,-0.720
3.060E-06,-0.740
3.070E-06,-0.840
3.080E-06,-0.800
3.090E-06,-0.740
3.100E-06,-0.680
3.110E-06,-0.580
3.120E-06,-0.420
3.130E-06,-0.260
3.140E-06,-0.140
3.150E-06,-0.040
3.160E-06,0.240
3.170E-06,0.200
3.180E-06,0.040
3.190E-06,0.700
3.200E-06,-0.100
3.210E-06,0.920
3.220E-06,0.980
3.230E-06,0.200
3.240E-06,0.920
3.250E-06,-0.060
3.260E-06,-0.440
3.270E-06,-0.220
3.280E-06,-0.920
3.290E-06,-0.320
3.300E-06,-0.800
3.310E-06,-1.380
3.320E-06,-0.940
3.330E-06,-2.180
3.340E-06,-0.200
3.350E-06,-1.520
3.360E-06,-0.240
3.370E-06,0.740
3.380E-06,0.080
3.390E-06,1.860
3.400E-06,-0.080
3.410E-06,-0.440
3.420E-06,-1.120
3.430E-06,-1.500
3.440E-06,-0.460
3.450E-06,0.220
3.460E-06,0.980
3.470E-06,1.300
3.480E-06,0.560
3.490E-06,0.360
3.500E-06,-0.320
3.510E-06,0.200
3.520E-06,0.100
3.530E-06,0.000
3.540E-06,-0.180
3.550E-06,-1.100
3.560E-06,-1.620
3.570E-06,-2.200
3.580E-06,-2.640
3.590E-06,-2.660
3.600E-06,-2.680
3.610E-06,-2.680
3.620E-06,-2.680
3.630E-06,-2.680
3.640E-06,-2.680
3.650E-06,-2.660
3.660E-06,-2.660
3.670E-06,-2.640
3.680E-06,-2.660
3.690E-06,-2.660
3.700E-06,-2.680
3.710E-06,-2.680
3.720E-06,-2.580
3.730E-06,-2.420
3.740E-06,-2.340
3.750E-06,-2.240
3.760E-06,-2.160
3.770E-06,-2.100
3.780E-06,-1.940
3.790E-06,-1.900
3.800E-06,-1.780
3.810E-06,-1.680
3.820E-06,-1.620
3.830E-06,-1.520
3.840E-06,-1.320
3.850E-06,-1.300
3.860E-06,-1.200
3.870E-06,-1.120
3.880E-06,-1.060
3.890E-06,-0.920
3.900E-06,-0.640
3.910E-06,-0.600
3.920E-06,-0.360
3.930E-06,-0.320
3.940E-06,-0.320
3.950E-06,-0.180
3.960E-06,-0.240
3.970E-06,-0.140
3.980E-06,-0.080
3.990E-06,-0.080
4.000E-06,0.000
4.010E-06,-0.020
4.020E-06,-0.120
4.030E-06,-0.160
4.040E-06,-0.400
4.050E-06,-0.560
4.060E-06,-0.660
4.070E-06,-0.840
4.080E-06,-0.920
4.090E-06,-0.840
4.100E-06,-0.600
4.110E-06,-0.220
4.120E-06,0.000
4.130E-06,0.180
4.140E-06,0.080
4.150E-06,-0.120
4.160E-06,-0.280
4.170E-06,-0.420
4.180E-06,-0.360
4.190E-06,-0.160
4.200E-06,-0.020
4.210E-06,0.100
4.220E-06,0.020
4.230E-06,-0.100
4.240E-06,-0.160
4.250E-06,-0.180
4.260E-06,-0.140
4.270E-06,-0.040
4.280E-06,0.020
4.290E-06,0.060
4.300E-06,0.020
4.310E-06,-0.060
4.320E-06,-0.120
4.330E-06,-0.160
4.340E-06,-0.160
4.350E-06,-0.160
4.360E-06,-0.140
4.370E-06,-0.120
4.380E-06,-0.200
4.390E-06,-0.240
4.400E-06,-0.300
4.410E-06,-0.340
4.420E-06,-0.300
4.430E-06,-0.300
4.440E-06,-0.280
4.450E-06,-0.220
4.460E-06,-0.220
4.470E-06,-0.180
4.480E-06,-0.140
4.490E-06,-0.140
4.500E-06,-0.160
4.510E-06,-0.140
4.520E-06,-0.080
4.530E-06,-0.100
4.540E-06,-0.100
4.550E-06,-0.100
4.560E-06,-0.140
4.570E-06,-0.160
4.580E-06,-0.120
4.590E-06,-0.140
4.600E-06,-0.160
4.610E-06,-0.180
4.620E-06,-0.160
4.630E-06,-0.120
4.640E-06,-0.140
4.650E-06,-0.160
4.660E-06,-0.120
4.670E-06,-0.080
4.680E-06,-0.060
4.690E-06,0.000
4.700E-06,0.020
4.710E-06,0.040
4.720E-06,0.060
4.730E-06,0.080
4.740E-06,0.080
4.750E-06,0.100
4.760E-06,0.100
4.770E-06,0.160
4.780E-06,0.160
4.790E-06,0.160
4.800E-06,0.180
4.810E-06,0.160
4.820E-06,0.080
4.830E-06,0.120
4.840E-06,0.140
4.850E-06,0.100
4.860E-06,0.080
4.870E-06,0.060
4.880E-06,0.000
4.890E-06,-0.020
4.900E-06,0.000
4.910E-06,0.000
4.920E-06,-0.020
4.930E-06,-0.080
4.940E-06,-0.020
4.950E-06,-0.040
4.960E-06,-0.080
4.970E-06,-0.080
4.980E-06,-0.060
4.990E-06,-0.080
5.000E-06,-0.080
5.010E-06,-0.060
5.020E-06,-0.060
5.030E-06,-0.060
5.040E-06,-0.080
5.050E-06,-0.040
5.060E-06,-0.040
5.070E-06,-0.080
5.080E-06,-0.060
5.090E-06,-0.080
5.100E-06,-0.040
5.110E-06,0.000
5.120E-06,0.000
5.130E-06,-0.020
5.140E-06,0.020
5.150E-06,-0.020
5.160E-06,-0.020
5.170E-06,0.000
5.180E-06,-0.020
5.190E-06,-0.020
5.200E-06,-0.060
5.210E-06,-0.020
5.220E-06,-0.080
5.230E-06,-0.060
5.240E-06,-0.100
5.250E-06,-0.100
5.260E-06,-0.080
5.270E-06,-0.040
5.280E-06,-0.040
5.290E-06,0.000
5.300E-06,0.000
5.310E-06,0.040
5.320E-06,0.040
5.330E-06,0.060
5.340E-06,0.100
5.350E-06,0.100
5.360E-06,0.120
5.370E-06,0.140
5.380E-06,0.120
5.390E-06,0.140
5.400E-06,0.100
5.410E-06,0.120
5.420E-06,0.080
5.430E-06,0.060
5.440E-06,0.080
5.450E-06,0.060
5.460E-06,0.000
5.470E-06,-0.020
5.480E-06,-0.040
5.490E-06,-0.060
5.500E-06,-0.040
5.510E-06,-0.020
5.520E-06,0.000
5.530E-06,0.000
5.540E-06,0.000
5.550E-06,0.020
5.560E-06,0.060
5.570E-06,0.060
5.580E-06,0.080
5.590E-06,0.100
5.600E-06,0.120
5.610E-06,0.140
5.620E-06,0.160
5.630E-06,0.140
5.640E-06,0.120
5.650E-06,0.100
5.660E-06,0.060
5.670E-06,0.060
5.680E-06,0.040
5.690E-06,0.060
5.700E-06,-0.020
5.710E-06,0.000
5.720E-06,-0.080
5.730E-06,-0.100
5.740E-06,-0.080
5.750E-06,-0.060
5.760E-06,-0.080
5.770E-06,-0.060
5.780E-06,-0.100
5.790E-06,-0.120
5.800E-06,-0.140
5.810E-06,-0.080
5.820E-06,-0.040
5.830E-06,-0.020
5.840E-06,-0.020
5.850E-06,0.020
5.860E-06,-0.040
5.870E-06,-0.040
5.880E-06,-0.020
5.890E-06,-0.040
5.900E-06,-0.020
5.910E-06,-0.020
5.920E-06,-0.020
5.930E-06,-0.020
5.940E-06,-0.020
5.950E-06,-0.020
5.960E-06,-0.060
5.970E-06,-0.040
5.980E-06,-0.060
5.990E-06,0.020
6.000E-06,0.020
6.010E-06,0.020
6.020E-06,0.040
6.030E-06,0.060
6.040E-06,0.100
6.050E-06,0.140
6.060E-06,0.140
6.070E-06,0.180
6.080E-06,0.220
6.090E-06,0.220
6.100E-06,0.220
6.110E-06,0.200
6.120E-06,0.160
6.130E-06,0.120
6.140E-06,0.080
6.150E-06,0.100
6.160E-06,0.140
6.170E-06,0.140
6.180E-06,0.080
6.190E-06,0.060
6.200E-06,0.000
6.210E-06,-0.020
6.220E-06,-0.020
6.230E-06,-0.020
6.240E-06,0.000
6.250E-06,0.020
6.260E-06,0.040
6.270E-06,0.080
6.280E-06,0.080
6.290E-06,0.120
6.300E-06,0.120
6.310E-06,0.160
6.320E-06,0.160
6.330E-06,0.160
6.340E-06,0.180
6.350E-06,0.140
6.360E-06,0.160
6.370E-06,0.120
6.380E-06,0.100
6.390E-06,0.100
6.400E-06,0.080
6.410E-06,0.080
6.420E-06,0.080
6.430E-06,0.060
6.440E-06,0.080
6.450E-06,0.100
6.460E-06,0.040
6.470E-06,0.080
6.480E-06,0.060
6.490E-06,0.040
6.500E-06,0.120
6.510E-06,0.100
6.520E-06,0.100
6.530E-06,0.140
6.540E-06,0.140
6.550E-06,0.140
6.560E-06,0.160
6.570E-06,0.120
6.580E-06,0.180
6.590E-06,0.160
6.600E-06,0.120
6.610E-06,0.100
6.620E-06,0.060
6.630E-06,0.040
6.640E-06,0.040
6.650E-06,0.040
6.660E-06,0.000
6.670E-06,0.000
6.680E-06,-0.020
6.690E-06,-0.020
6.700E-06,0.020
6.710E-06,0.040
6.720E-06,0.080
6.730E-06,0.100
6.740E-06,0.140
6.750E-06,0.220
6.760E-06,0.220
6.770E-06,0.200
6.780E-06,0.240
6.790E-06,0.240
6.800E-06,0.260
6.810E-06,0.260
6.820E-06,0.240
6.830E-06,0.240
6.840E-06,0.260
6.850E-06,0.200
6.860E-06,0.200
6.870E-06,0.220
6.880E-06,0.160
6.890E-06,0.160
6.900E-06,0.180
6.910E-06,0.180
6.920E-06,0.180
6.930E-06,0.180
6.940E-06,0.180
6.950E-06,0.200
6.960E-06,0.180
6.970E-06,0.200
6.980E-06,0.240
6.990E-06,0.240
7.000E-06,0.260
7.010E-06,0.280
7.020E-06,0.280
7.030E-06,0.260
7.040E-06,0.280
7.050E-06,0.300
7.060E-06,0.320
7.070E-06,0.320
7.080E-06,0.320
7.090E-06,0.320
7.100E-06,0.340
7.110E-06,0.300
7.120E-06,0.300
7.130E-06,0.300
7.140E-06,0.320
7.150E-06,0.260
7.160E-06,0.320
7.170E-06,0.300
7.180E-06,0.320
7.190E-06,0.340
7.200E-06,0.300
7.210E-06,0.280
7.220E-06,0.240
7.230E-06,0.180
7.240E-06,0.180
7.250E-06,0.220
7.260E-06,0.260
7.270E-06,0.320
7.280E-06,0.360
7.290E-06,0.320
7.300E-06,0.320
7.310E-06,0.280
7.320E-06,0.300
7.330E-06,0.300
7.340E-06,0.300
7.350E-06,0.260
7.360E-06,0.260
7.370E-06,0.240
7.380E-06,0.240
7.390E-06,0.220
7.400E-06,0.220
7.410E-06,0.220
7.420E-06,0.200
7.430E-06,0.200
7.440E-06,0.240
7.450E-06,0.260
7.460E-06,0.220
7.470E-06,0.200
7.480E-06,0.200
7.490E-06,0.180
7.500E-06,0.120
7.510E-06,0.040
7.520E-06,0.000
7.530E-06,-0.020
7.540E-06,-0.080
7.550E-06,-0.100
7.560E-06,-0.060
7.570E-06,-0.060
7.580E-06,0.000
7.590E-06,-0.020
7.600E-06,0.020
7.610E-06,0.040
7.620E-06,0.060
7.630E-06,0.100
7.640E-06,0.200
7.650E-06,0.240
7.660E-06,0.300
