mediciones/Mediciones filtradas (saque las feas)/5-15/64.4/WaveData47255.csv

#timebase=2000000(ps)
,#voltbase=100000(mv/100)
#size=4000
-8.400E-06,0.012
-8.390E-06,0.012
-8.380E-06,0.000
-8.370E-06,-0.008
-8.360E-06,-0.008
-8.350E-06,0.000
-8.340E-06,0.012
-8.330E-06,0.012
-8.320E-06,0.012
-8.310E-06,0.008
-8.300E-06,-0.008
-8.290E-06,0.000
-8.280E-06,-0.004
-8.270E-06,0.004
-8.260E-06,0.008
-8.250E-06,0.008
-8.240E-06,0.008
-8.230E-06,0.000
-8.220E-06,0.004
-8.210E-06,0.004
-8.200E-06,0.004
-8.190E-06,0.000
-8.180E-06,-0.004
-8.170E-06,0.000
-8.160E-06,0.004
-8.150E-06,0.008
-8.140E-06,0.012
-8.130E-06,0.012
-8.120E-06,0.008
-8.110E-06,0.004
-8.100E-06,0.000
-8.090E-06,-0.004
-8.080E-06,-0.004
-8.070E-06,-0.004
-8.060E-06,0.004
-8.050E-06,0.000
-8.040E-06,0.004
-8.030E-06,0.008
-8.020E-06,0.004
-8.010E-06,0.004
-8.000E-06,0.000
-7.990E-06,0.004
-7.980E-06,0.000
-7.970E-06,0.008
-7.960E-06,0.008
-7.950E-06,0.004
-7.940E-06,-0.004
-7.930E-06,0.000
-7.920E-06,0.004
-7.910E-06,0.008
-7.900E-06,0.012
-7.890E-06,0.012
-7.880E-06,0.004
-7.870E-06,-0.008
-7.860E-06,-0.004
-7.850E-06,-0.004
-7.840E-06,0.004
-7.830E-06,0.016
-7.820E-06,0.024
-7.810E-06,0.008
-7.800E-06,0.000
-7.790E-06,-0.024
-7.780E-06,-0.012
-7.770E-06,-0.004
-7.760E-06,0.008
-7.750E-06,0.024
-7.740E-06,0.020
-7.730E-06,0.004
-7.720E-06,-0.004
-7.710E-06,-0.020
-7.700E-06,-0.020
-7.690E-06,0.000
-7.680E-06,0.012
-7.670E-06,0.020
-7.660E-06,0.020
-7.650E-06,0.012
-7.640E-06,-0.004
-7.630E-06,-0.012
-7.620E-06,-0.004
-7.610E-06,-0.004
-7.600E-06,0.008
-7.590E-06,0.012
-7.580E-06,0.016
-7.570E-06,0.012
-7.560E-06,-0.004
-7.550E-06,-0.004
-7.540E-06,-0.004
-7.530E-06,0.000
-7.520E-06,0.008
-7.510E-06,0.012
-7.500E-06,0.008
-7.490E-06,0.004
-7.480E-06,0.000
-7.470E-06,-0.004
-7.460E-06,0.000
-7.450E-06,0.004
-7.440E-06,0.008
-7.430E-06,0.012
-7.420E-06,0.008
-7.410E-06,0.000
-7.400E-06,-0.004
-7.390E-06,-0.004
-7.380E-06,0.000
-7.370E-06,0.004
-7.360E-06,0.008
-7.350E-06,0.012
-7.340E-06,0.008
-7.330E-06,0.004
-7.320E-06,0.000
-7.310E-06,0.000
-7.300E-06,0.008
-7.290E-06,0.004
-7.280E-06,0.012
-7.270E-06,0.008
-7.260E-06,0.012
-7.250E-06,-0.004
-7.240E-06,-0.012
-7.230E-06,-0.004
-7.220E-06,-0.008
-7.210E-06,-0.004
-7.200E-06,0.012
-7.190E-06,0.016
-7.180E-06,0.012
-7.170E-06,0.004
-7.160E-06,-0.004
-7.150E-06,-0.008
-7.140E-06,-0.004
-7.130E-06,0.004
-7.120E-06,0.008
-7.110E-06,0.012
-7.100E-06,0.012
-7.090E-06,0.012
-7.080E-06,0.008
-7.070E-06,-0.004
-7.060E-06,0.000
-7.050E-06,-0.004
-7.040E-06,0.000
-7.030E-06,0.008
-7.020E-06,0.016
-7.010E-06,0.008
-7.000E-06,0.008
-6.990E-06,0.000
-6.980E-06,-0.004
-6.970E-06,-0.004
-6.960E-06,0.000
-6.950E-06,0.008
-6.940E-06,0.008
-6.930E-06,0.008
-6.920E-06,0.008
-6.910E-06,-0.004
-6.900E-06,-0.004
-6.890E-06,0.004
-6.880E-06,0.004
-6.870E-06,0.008
-6.860E-06,0.000
-6.850E-06,0.004
-6.840E-06,0.004
-6.830E-06,0.004
-6.820E-06,0.004
-6.810E-06,0.004
-6.800E-06,-0.004
-6.790E-06,0.000
-6.780E-06,0.004
-6.770E-06,0.012
-6.760E-06,0.004
-6.750E-06,0.004
-6.740E-06,0.008
-6.730E-06,0.012
-6.720E-06,0.004
-6.710E-06,0.000
-6.700E-06,0.000
-6.690E-06,-0.004
-6.680E-06,0.000
-6.670E-06,0.008
-6.660E-06,0.008
-6.650E-06,0.012
-6.640E-06,0.008
-6.630E-06,-0.008
-6.620E-06,-0.012
-6.610E-06,-0.012
-6.600E-06,0.012
-6.590E-06,0.020
-6.580E-06,0.024
-6.570E-06,0.012
-6.560E-06,0.000
-6.550E-06,-0.016
-6.540E-06,-0.016
-6.530E-06,-0.004
-6.520E-06,0.008
-6.510E-06,0.024
-6.500E-06,0.020
-6.490E-06,0.008
-6.480E-06,-0.004
-6.470E-06,-0.008
-6.460E-06,0.000
-6.450E-06,0.000
-6.440E-06,0.008
-6.430E-06,0.012
-6.420E-06,0.004
-6.410E-06,0.008
-6.400E-06,0.004
-6.390E-06,0.008
-6.380E-06,0.008
-6.370E-06,-0.004
-6.360E-06,0.000
-6.350E-06,-0.004
-6.340E-06,0.004
-6.330E-06,0.016
-6.320E-06,0.020
-6.310E-06,0.020
-6.300E-06,0.008
-6.290E-06,-0.004
-6.280E-06,-0.008
-6.270E-06,-0.004
-6.260E-06,0.012
-6.250E-06,0.024
-6.240E-06,0.024
-6.230E-06,0.024
-6.220E-06,0.004
-6.210E-06,-0.028
-6.200E-06,-0.048
-6.190E-06,-0.052
-6.180E-06,-0.028
-6.170E-06,0.012
-6.160E-06,0.040
-6.150E-06,0.052
-6.140E-06,0.028
-6.130E-06,-0.008
-6.120E-06,-0.044
-6.110E-06,-0.060
-6.100E-06,-0.028
-6.090E-06,0.012
-6.080E-06,0.044
-6.070E-06,0.056
-6.060E-06,0.040
-6.050E-06,0.004
-6.040E-06,-0.032
-6.030E-06,-0.044
-6.020E-06,-0.028
-6.010E-06,0.008
-6.000E-06,0.040
-5.990E-06,0.044
-5.980E-06,0.028
-5.970E-06,0.004
-5.960E-06,-0.020
-5.950E-06,-0.032
-5.940E-06,-0.024
-5.930E-06,0.004
-5.920E-06,0.020
-5.910E-06,0.036
-5.900E-06,0.028
-5.890E-06,0.012
-5.880E-06,-0.004
-5.870E-06,-0.008
-5.860E-06,-0.008
-5.850E-06,-0.004
-5.840E-06,0.008
-5.830E-06,0.028
-5.820E-06,0.024
-5.810E-06,0.020
-5.800E-06,0.008
-5.790E-06,-0.004
-5.780E-06,-0.008
-5.770E-06,-0.008
-5.760E-06,0.012
-5.750E-06,0.024
-5.740E-06,0.032
-5.730E-06,0.028
-5.720E-06,0.020
-5.710E-06,0.008
-5.700E-06,0.008
-5.690E-06,0.016
-5.680E-06,0.020
-5.670E-06,0.028
-5.660E-06,0.024
-5.650E-06,0.004
-5.640E-06,-0.008
-5.630E-06,-0.020
-5.620E-06,-0.028
-5.610E-06,-0.020
-5.600E-06,-0.004
-5.590E-06,0.012
-5.580E-06,0.024
-5.570E-06,0.024
-5.560E-06,0.004
-5.550E-06,-0.012
-5.540E-06,-0.020
-5.530E-06,-0.024
-5.520E-06,-0.008
-5.510E-06,0.008
-5.500E-06,0.012
-5.490E-06,0.008
-5.480E-06,-0.004
-5.470E-06,-0.008
-5.460E-06,-0.008
-5.450E-06,-0.004
-5.440E-06,0.008
-5.430E-06,0.012
-5.420E-06,0.012
-5.410E-06,0.012
-5.400E-06,0.000
-5.390E-06,0.008
-5.380E-06,0.012
-5.370E-06,0.012
-5.360E-06,0.008
-5.350E-06,0.004
-5.340E-06,0.008
-5.330E-06,0.016
-5.320E-06,0.028
-5.310E-06,0.032
-5.300E-06,0.028
-5.290E-06,0.028
-5.280E-06,0.016
-5.270E-06,0.020
-5.260E-06,0.032
-5.250E-06,0.028
-5.240E-06,0.036
-5.230E-06,0.036
-5.220E-06,0.024
-5.210E-06,0.000
-5.200E-06,-0.012
-5.190E-06,-0.004
-5.180E-06,0.008
-5.170E-06,0.032
-5.160E-06,0.056
-5.150E-06,0.040
-5.140E-06,-0.024
-5.130E-06,-0.080
-5.120E-06,-0.132
-5.110E-06,-0.120
-5.100E-06,-0.032
-5.090E-06,0.068
-5.080E-06,0.136
-5.070E-06,0.116
-5.060E-06,0.048
-5.050E-06,-0.056
-5.040E-06,-0.112
-5.030E-06,-0.100
-5.020E-06,-0.020
-5.010E-06,0.028
-5.000E-06,0.080
-4.990E-06,0.092
-4.980E-06,0.040
-4.970E-06,-0.072
-4.960E-06,-0.152
-4.950E-06,-0.140
-4.940E-06,-0.044
-4.930E-06,0.096
-4.920E-06,0.136
-4.910E-06,0.096
-4.900E-06,-0.004
-4.890E-06,-0.088
-4.880E-06,-0.120
-4.870E-06,-0.072
-4.860E-06,0.004
-4.850E-06,0.072
-4.840E-06,0.088
-4.830E-06,0.060
-4.820E-06,0.012
-4.810E-06,-0.040
-4.800E-06,-0.064
-4.790E-06,-0.044
-4.780E-06,0.000
-4.770E-06,0.044
-4.760E-06,0.068
-4.750E-06,0.052
-4.740E-06,0.016
-4.730E-06,-0.024
-4.720E-06,-0.044
-4.710E-06,-0.040
-4.700E-06,-0.004
-4.690E-06,0.028
-4.680E-06,0.052
-4.670E-06,0.052
-4.660E-06,0.016
-4.650E-06,-0.012
-4.640E-06,-0.028
-4.630E-06,-0.016
-4.620E-06,0.008
-4.610E-06,0.048
-4.600E-06,0.060
-4.590E-06,0.060
-4.580E-06,0.028
-4.570E-06,0.000
-4.560E-06,-0.028
-4.550E-06,-0.020
-4.540E-06,0.000
-4.530E-06,0.028
-4.520E-06,0.056
-4.510E-06,0.060
-4.500E-06,0.044
-4.490E-06,0.020
-4.480E-06,-0.004
-4.470E-06,0.012
-4.460E-06,0.028
-4.450E-06,0.024
-4.440E-06,0.016
-4.430E-06,-0.008
-4.420E-06,-0.024
-4.410E-06,-0.016
-4.400E-06,0.000
-4.390E-06,0.032
-4.380E-06,0.056
-4.370E-06,0.044
-4.360E-06,0.020
-4.350E-06,0.044
-4.340E-06,0.000
-4.330E-06,-0.028
-4.320E-06,-0.072
-4.310E-06,-0.040
-4.300E-06,-0.044
-4.290E-06,-0.012
-4.280E-06,0.020
-4.270E-06,0.028
-4.260E-06,0.044
-4.250E-06,0.008
-4.240E-06,-0.024
-4.230E-06,-0.052
-4.220E-06,-0.036
-4.210E-06,-0.020
-4.200E-06,0.020
-4.190E-06,0.048
-4.180E-06,0.080
-4.170E-06,0.056
-4.160E-06,0.016
-4.150E-06,-0.004
-4.140E-06,-0.012
-4.130E-06,0.012
-4.120E-06,0.056
-4.110E-06,0.092
-4.100E-06,0.080
-4.090E-06,0.052
-4.080E-06,0.044
-4.070E-06,0.036
-4.060E-06,-0.008
-4.050E-06,-0.020
-4.040E-06,-0.072
-4.030E-06,-0.064
-4.020E-06,-0.020
-4.010E-06,0.040
-4.000E-06,0.064
-3.990E-06,0.052
-3.980E-06,0.068
-3.970E-06,0.032
-3.960E-06,-0.028
-3.950E-06,-0.072
-3.940E-06,-0.044
-3.930E-06,-0.020
-3.920E-06,-0.024
-3.910E-06,0.012
-3.900E-06,-0.008
-3.890E-06,-0.048
-3.880E-06,-0.112
-3.870E-06,-0.100
-3.860E-06,-0.028
-3.850E-06,0.044
-3.840E-06,0.072
-3.830E-06,0.040
-3.820E-06,-0.032
-3.810E-06,-0.104
-3.800E-06,-0.088
-3.790E-06,-0.036
-3.780E-06,0.040
-3.770E-06,0.072
-3.760E-06,0.052
-3.750E-06,-0.032
-3.740E-06,-0.108
-3.730E-06,-0.104
-3.720E-06,-0.016
-3.710E-06,0.088
-3.700E-06,0.120
-3.690E-06,0.076
-3.680E-06,-0.020
-3.670E-06,-0.084
-3.660E-06,-0.100
-3.650E-06,-0.040
-3.640E-06,0.036
-3.630E-06,0.096
-3.620E-06,0.096
-3.610E-06,0.052
-3.600E-06,-0.012
-3.590E-06,-0.064
-3.580E-06,-0.060
-3.570E-06,-0.012
-3.560E-06,0.060
-3.550E-06,0.108
-3.540E-06,0.116
-3.530E-06,0.080
-3.520E-06,0.020
-3.510E-06,-0.024
-3.500E-06,-0.044
-3.490E-06,-0.032
-3.480E-06,0.008
-3.470E-06,0.036
-3.460E-06,0.036
-3.450E-06,0.028
-3.440E-06,-0.012
-3.430E-06,-0.016
-3.420E-06,-0.004
-3.410E-06,0.028
-3.400E-06,0.088
-3.390E-06,0.100
-3.380E-06,0.088
-3.370E-06,0.056
-3.360E-06,0.004
-3.350E-06,-0.036
-3.340E-06,-0.032
-3.330E-06,0.004
-3.320E-06,0.040
-3.310E-06,0.068
-3.300E-06,0.076
-3.290E-06,0.044
-3.280E-06,-0.008
-3.270E-06,-0.040
-3.260E-06,-0.044
-3.250E-06,0.004
-3.240E-06,0.056
-3.230E-06,0.132
-3.220E-06,0.132
-3.210E-06,0.076
-3.200E-06,-0.008
-3.190E-06,-0.128
-3.180E-06,-0.196
-3.170E-06,-0.208
-3.160E-06,-0.136
-3.150E-06,-0.028
-3.140E-06,0.096
-3.130E-06,0.168
-3.120E-06,0.164
-3.110E-06,0.112
-3.100E-06,-0.024
-3.090E-06,-0.140
-3.080E-06,-0.180
-3.070E-06,-0.140
-3.060E-06,-0.044
-3.050E-06,0.080
-3.040E-06,0.160
-3.030E-06,0.144
-3.020E-06,0.044
-3.010E-06,-0.072
-3.000E-06,-0.148
-2.990E-06,-0.140
-2.980E-06,-0.036
-2.970E-06,0.104
-2.960E-06,0.216
-2.950E-06,0.232
-2.940E-06,0.144
-2.930E-06,0.024
-2.920E-06,-0.028
-2.910E-06,-0.028
-2.900E-06,0.012
-2.890E-06,0.068
-2.880E-06,0.084
-2.870E-06,0.032
-2.860E-06,-0.056
-2.850E-06,-0.124
-2.840E-06,-0.156
-2.830E-06,-0.100
-2.820E-06,0.008
-2.810E-06,0.108
-2.800E-06,0.144
-2.790E-06,0.156
-2.780E-06,0.092
-2.770E-06,-0.024
-2.760E-06,-0.080
-2.750E-06,-0.068
-2.740E-06,-0.028
-2.730E-06,-0.076
-2.720E-06,-0.096
-2.710E-06,-0.100
-2.700E-06,-0.068
-2.690E-06,-0.020
-2.680E-06,0.064
-2.670E-06,0.088
-2.660E-06,0.064
-2.650E-06,0.004
-2.640E-06,-0.056
-2.630E-06,-0.072
-2.620E-06,-0.020
-2.610E-06,0.028
-2.600E-06,0.088
-2.590E-06,0.092
-2.580E-06,0.040
-2.570E-06,-0.004
-2.560E-06,-0.032
-2.550E-06,0.008
-2.540E-06,0.064
-2.530E-06,0.128
-2.520E-06,0.152
-2.510E-06,0.168
-2.500E-06,0.088
-2.490E-06,0.028
-2.480E-06,-0.024
-2.470E-06,-0.040
-2.460E-06,-0.024
-2.450E-06,-0.024
-2.440E-06,-0.004
-2.430E-06,-0.020
-2.420E-06,-0.016
-2.410E-06,-0.048
-2.400E-06,-0.076
-2.390E-06,-0.100
-2.380E-06,-0.088
-2.370E-06,-0.080
-2.360E-06,-0.036
-2.350E-06,0.000
-2.340E-06,0.032
-2.330E-06,0.052
-2.320E-06,0.060
-2.310E-06,0.032
-2.300E-06,0.000
-2.290E-06,0.032
-2.280E-06,0.064
-2.270E-06,0.084
-2.260E-06,0.096
-2.250E-06,0.112
-2.240E-06,0.124
-2.230E-06,0.136
-2.220E-06,0.152
-2.210E-06,0.152
-2.200E-06,0.124
-2.190E-06,0.092
-2.180E-06,0.088
-2.170E-06,0.036
-2.160E-06,-0.092
-2.150E-06,-0.244
-2.140E-06,-0.348
-2.130E-06,-0.364
-2.120E-06,-0.264
-2.110E-06,-0.112
-2.100E-06,0.088
-2.090E-06,0.192
-2.080E-06,0.172
-2.070E-06,0.028
-2.060E-06,-0.144
-2.050E-06,-0.200
-2.040E-06,-0.128
-2.030E-06,0.060
-2.020E-06,0.176
-2.010E-06,0.208
-2.000E-06,0.140
-1.990E-06,0.056
-1.980E-06,-0.040
-1.970E-06,-0.064
-1.960E-06,-0.024
-1.950E-06,0.104
-1.940E-06,0.216
-1.930E-06,0.192
-1.920E-06,0.004
-1.910E-06,-0.284
-1.900E-06,-0.432
-1.890E-06,-0.340
-1.880E-06,-0.140
-1.870E-06,0.076
-1.860E-06,0.192
-1.850E-06,0.192
-1.840E-06,0.096
-1.830E-06,-0.052
-1.820E-06,-0.184
-1.810E-06,-0.228
-1.800E-06,-0.136
-1.790E-06,0.032
-1.780E-06,0.192
-1.770E-06,0.216
-1.760E-06,0.144
-1.750E-06,0.000
-1.740E-06,-0.096
-1.730E-06,-0.132
-1.720E-06,-0.052
-1.710E-06,0.072
-1.700E-06,0.200
-1.690E-06,0.252
-1.680E-06,0.220
-1.670E-06,0.148
-1.660E-06,0.060
-1.650E-06,0.028
-1.640E-06,0.052
-1.630E-06,0.100
-1.620E-06,0.108
-1.610E-06,0.060
-1.600E-06,-0.044
-1.590E-06,-0.172
-1.580E-06,-0.264
-1.570E-06,-0.292
-1.560E-06,-0.188
-1.550E-06,-0.044
-1.540E-06,0.076
-1.530E-06,0.124
-1.520E-06,0.092
-1.510E-06,0.008
-1.500E-06,-0.072
-1.490E-06,-0.100
-1.480E-06,-0.040
-1.470E-06,0.052
-1.460E-06,0.096
-1.450E-06,0.140
-1.440E-06,0.096
-1.430E-06,0.008
-1.420E-06,-0.016
-1.410E-06,-0.012
-1.400E-06,0.056
-1.390E-06,0.176
-1.380E-06,0.272
-1.370E-06,0.236
-1.360E-06,0.160
-1.350E-06,0.008
-1.340E-06,-0.128
-1.330E-06,-0.168
-1.320E-06,-0.104
-1.310E-06,0.016
-1.300E-06,0.068
-1.290E-06,0.012
-1.280E-06,-0.148
-1.270E-06,-0.168
-1.260E-06,-0.168
-1.250E-06,-0.088
-1.240E-06,0.000
-1.230E-06,0.044
-1.220E-06,0.020
-1.210E-06,-0.004
-1.200E-06,-0.040
-1.190E-06,-0.044
-1.180E-06,-0.004
-1.170E-06,0.040
-1.160E-06,0.088
-1.150E-06,0.076
-1.140E-06,0.072
-1.130E-06,0.052
-1.120E-06,0.112
-1.110E-06,0.136
-1.100E-06,0.168
-1.090E-06,0.092
-1.080E-06,-0.008
-1.070E-06,-0.188
-1.060E-06,-0.256
-1.050E-06,-0.240
-1.040E-06,-0.176
-1.030E-06,-0.004
-1.020E-06,0.112
-1.010E-06,0.132
-1.000E-06,0.084
-9.900E-07,-0.012
-9.800E-07,-0.112
-9.700E-07,-0.132
-9.600E-07,-0.168
-9.500E-07,-0.132
-9.400E-07,-0.076
-9.300E-07,0.032
-9.200E-07,0.084
-9.100E-07,0.084
-9.000E-07,0.028
-8.900E-07,-0.068
-8.800E-07,-0.136
-8.700E-07,-0.140
-8.600E-07,0.008
-8.500E-07,0.180
-8.400E-07,0.256
-8.300E-07,0.196
-8.200E-07,0.064
-8.100E-07,-0.064
-8.000E-07,-0.068
-7.900E-07,0.028
-7.800E-07,0.144
-7.700E-07,0.260
-7.600E-07,0.288
-7.500E-07,0.140
-7.400E-07,-0.068
-7.300E-07,-0.340
-7.200E-07,-0.452
-7.100E-07,-0.332
-7.000E-07,-0.060
-6.900E-07,0.184
-6.800E-07,0.288
-6.700E-07,0.184
-6.600E-07,-0.072
-6.500E-07,-0.284
-6.400E-07,-0.320
-6.300E-07,-0.160
-6.200E-07,0.036
-6.100E-07,0.196
-6.000E-07,0.204
-5.900E-07,0.096
-5.800E-07,-0.032
-5.700E-07,-0.160
-5.600E-07,-0.180
-5.500E-07,-0.112
-5.400E-07,0.016
-5.300E-07,0.132
-5.200E-07,0.192
-5.100E-07,0.144
-5.000E-07,0.020
-4.900E-07,-0.092
-4.800E-07,-0.112
-4.700E-07,-0.040
-4.600E-07,0.060
-4.500E-07,0.140
-4.400E-07,0.192
-4.300E-07,0.152
-4.200E-07,0.096
-4.100E-07,0.056
-4.000E-07,0.052
-3.900E-07,0.100
-3.800E-07,0.160
-3.700E-07,0.224
-3.600E-07,0.220
-3.500E-07,0.164
-3.400E-07,0.060
-3.300E-07,-0.008
-3.200E-07,-0.068
-3.100E-07,-0.088
-3.000E-07,-0.084
-2.900E-07,-0.036
-2.800E-07,-0.036
-2.700E-07,-0.028
-2.600E-07,-0.056
-2.500E-07,-0.088
-2.400E-07,-0.028
-2.300E-07,0.004
-2.200E-07,0.016
-2.100E-07,0.052
-2.000E-07,0.104
-1.900E-07,0.036
-1.800E-07,0.008
-1.700E-07,0.044
-1.600E-07,0.128
-1.500E-07,0.188
-1.400E-07,0.244
-1.300E-07,0.228
-1.200E-07,0.168
-1.100E-07,0.124
-1.000E-07,0.160
-9.000E-08,0.212
-8.000E-08,0.140
-7.000E-08,-0.124
-6.000E-08,-0.480
-5.000E-08,-0.512
-4.000E-08,-0.512
-3.000E-08,-0.484
-2.000E-08,-0.068
-1.000E-08,0.196
0.000E+00,0.500
1.000E-08,0.452
2.000E-08,0.024
3.000E-08,-0.368
4.000E-08,-0.340
5.000E-08,-0.088
6.000E-08,0.268
7.000E-08,0.436
8.000E-08,0.364
9.000E-08,0.124
1.000E-07,-0.184
1.100E-07,-0.320
1.200E-07,-0.272
1.300E-07,-0.124
1.400E-07,-0.032
1.500E-07,0.128
1.600E-07,0.120
1.700E-07,0.012
1.800E-07,-0.120
1.900E-07,-0.192
2.000E-07,-0.180
2.100E-07,-0.084
2.200E-07,0.052
2.300E-07,0.156
2.400E-07,0.176
2.500E-07,0.076
2.600E-07,-0.024
2.700E-07,-0.120
2.800E-07,-0.124
2.900E-07,-0.072
3.000E-07,0.040
3.100E-07,0.112
3.200E-07,0.144
3.300E-07,0.148
3.400E-07,0.108
3.500E-07,0.056
3.600E-07,0.048
3.700E-07,0.060
3.800E-07,0.088
3.900E-07,0.164
4.000E-07,0.224
4.100E-07,0.264
4.200E-07,0.228
4.300E-07,0.164
4.400E-07,0.060
4.500E-07,0.000
4.600E-07,0.000
4.700E-07,0.020
4.800E-07,0.036
4.900E-07,0.012
5.000E-07,-0.008
5.100E-07,-0.156
5.200E-07,-0.256
5.300E-07,-0.268
5.400E-07,-0.168
5.500E-07,-0.032
5.600E-07,0.120
5.700E-07,0.216
5.800E-07,0.152
5.900E-07,0.060
6.000E-07,-0.024
6.100E-07,-0.024
6.200E-07,0.072
6.300E-07,0.228
6.400E-07,0.320
6.500E-07,0.296
6.600E-07,0.200
6.700E-07,0.120
6.800E-07,0.076
6.900E-07,0.108
7.000E-07,0.160
7.100E-07,0.224
7.200E-07,0.268
7.300E-07,0.156
7.400E-07,0.020
7.500E-07,-0.072
7.600E-07,-0.108
7.700E-07,-0.108
7.800E-07,-0.024
7.900E-07,-0.016
8.000E-07,-0.076
8.100E-07,-0.176
8.200E-07,-0.224
8.300E-07,-0.172
8.400E-07,-0.008
8.500E-07,0.128
8.600E-07,0.208
8.700E-07,0.224
8.800E-07,0.176
8.900E-07,0.144
9.000E-07,0.104
9.100E-07,0.084
9.200E-07,-0.008
9.300E-07,-0.200
9.400E-07,-0.392
9.500E-07,-0.424
9.600E-07,-0.256
9.700E-07,-0.024
9.800E-07,0.132
9.900E-07,0.036
1.000E-06,-0.232
1.010E-06,-0.500
1.020E-06,-0.508
1.030E-06,-0.396
1.040E-06,-0.176
1.050E-06,0.024
1.060E-06,0.168
1.070E-06,0.240
1.080E-06,0.184
1.090E-06,0.048
1.100E-06,-0.120
1.110E-06,-0.224
1.120E-06,-0.180
1.130E-06,-0.004
1.140E-06,0.164
1.150E-06,0.280
1.160E-06,0.256
1.170E-06,0.140
1.180E-06,0.024
1.190E-06,-0.028
1.200E-06,-0.028
1.210E-06,0.060
1.220E-06,0.176
1.230E-06,0.276
1.240E-06,0.328
1.250E-06,0.316
1.260E-06,0.240
1.270E-06,0.160
1.280E-06,0.116
1.290E-06,0.124
1.300E-06,0.196
1.310E-06,0.268
1.320E-06,0.312
1.330E-06,0.304
1.340E-06,0.260
1.350E-06,0.196
1.360E-06,0.152
1.370E-06,0.148
1.380E-06,0.196
1.390E-06,0.260
1.400E-06,0.308
1.410E-06,0.324
1.420E-06,0.288
1.430E-06,0.232
1.440E-06,0.180
1.450E-06,0.168
1.460E-06,0.200
1.470E-06,0.256
1.480E-06,0.288
1.490E-06,0.308
1.500E-06,0.292
1.510E-06,0.252
1.520E-06,0.208
1.530E-06,0.176
1.540E-06,0.188
1.550E-06,0.220
1.560E-06,0.264
1.570E-06,0.272
1.580E-06,0.236
1.590E-06,0.200
1.600E-06,0.160
1.610E-06,0.152
1.620E-06,0.188
1.630E-06,0.236
1.640E-06,0.272
1.650E-06,0.256
1.660E-06,0.192
1.670E-06,0.128
1.680E-06,0.096
1.690E-06,0.092
1.700E-06,0.144
1.710E-06,0.196
1.720E-06,0.236
1.730E-06,0.256
1.740E-06,0.228
1.750E-06,0.148
1.760E-06,0.044
1.770E-06,-0.036
1.780E-06,-0.100
1.790E-06,-0.120
1.800E-06,-0.080
1.810E-06,0.004
1.820E-06,0.088
1.830E-06,0.208
1.840E-06,0.268
1.850E-06,0.272
1.860E-06,0.196
1.870E-06,0.136
1.880E-06,0.096
1.890E-06,0.092
1.900E-06,0.108
1.910E-06,0.136
1.920E-06,0.160
1.930E-06,0.172
1.940E-06,0.192
1.950E-06,0.212
1.960E-06,0.236
1.970E-06,0.228
1.980E-06,0.216
1.990E-06,0.192
2.000E-06,0.188
2.010E-06,0.208
2.020E-06,0.244
2.030E-06,0.272
2.040E-06,0.280
2.050E-06,0.268
2.060E-06,0.232
2.070E-06,0.216
2.080E-06,0.208
2.090E-06,0.228
2.100E-06,0.256
2.110E-06,0.280
2.120E-06,0.288
2.130E-06,0.276
2.140E-06,0.256
2.150E-06,0.224
2.160E-06,0.204
2.170E-06,0.204
2.180E-06,0.224
2.190E-06,0.248
2.200E-06,0.264
2.210E-06,0.260
2.220E-06,0.240
2.230E-06,0.220
2.240E-06,0.208
2.250E-06,0.204
2.260E-06,0.220
2.270E-06,0.240
2.280E-06,0.252
2.290E-06,0.260
2.300E-06,0.240
2.310E-06,0.224
2.320E-06,0.208
2.330E-06,0.204
2.340E-06,0.208
2.350E-06,0.220
2.360E-06,0.236
2.370E-06,0.240
2.380E-06,0.240
2.390E-06,0.232
2.400E-06,0.220
2.410E-06,0.208
2.420E-06,0.216
2.430E-06,0.224
2.440E-06,0.236
2.450E-06,0.240
2.460E-06,0.244
2.470E-06,0.236
2.480E-06,0.224
2.490E-06,0.216
2.500E-06,0.212
2.510E-06,0.208
2.520E-06,0.220
2.530E-06,0.228
2.540E-06,0.228
2.550E-06,0.232
2.560E-06,0.224
2.570E-06,0.216
2.580E-06,0.212
2.590E-06,0.212
2.600E-06,0.216
2.610E-06,0.224
2.620E-06,0.228
2.630E-06,0.228
2.640E-06,0.224
2.650E-06,0.216
2.660E-06,0.208
2.670E-06,0.208
2.680E-06,0.208
2.690E-06,0.216
2.700E-06,0.220
2.710E-06,0.220
2.720E-06,0.216
2.730E-06,0.208
2.740E-06,0.208
2.750E-06,0.204
2.760E-06,0.208
2.770E-06,0.216
2.780E-06,0.216
2.790E-06,0.224
2.800E-06,0.216
2.810E-06,0.220
2.820E-06,0.208
2.830E-06,0.208
2.840E-06,0.208
2.850E-06,0.204
2.860E-06,0.204
2.870E-06,0.208
2.880E-06,0.212
2.890E-06,0.208
2.900E-06,0.204
2.910E-06,0.208
2.920E-06,0.208
2.930E-06,0.208
2.940E-06,0.208
2.950E-06,0.208
2.960E-06,0.204
2.970E-06,0.208
2.980E-06,0.204
2.990E-06,0.196
3.000E-06,0.196
3.010E-06,0.208
3.020E-06,0.208
3.030E-06,0.208
3.040E-06,0.212
3.050E-06,0.204
3.060E-06,0.196
3.070E-06,0.192
3.080E-06,0.196
3.090E-06,0.204
3.100E-06,0.208
3.110E-06,0.208
3.120E-06,0.196
3.130E-06,0.196
3.140E-06,0.196
3.150E-06,0.196
3.160E-06,0.196
3.170E-06,0.200
3.180E-06,0.200
3.190E-06,0.196
3.200E-06,0.192
3.210E-06,0.196
3.220E-06,0.196
3.230E-06,0.196
3.240E-06,0.192
3.250E-06,0.192
3.260E-06,0.196
3.270E-06,0.192
3.280E-06,0.196
3.290E-06,0.196
