mediciones/Mediciones filtradas (saque las feas)/6-3/-7.5/WaveData5360.csv

#timebase=2000000(ps)
,#voltbase=100000(mv/100)
#size=4000
-2.300E-06,-0.004
-2.290E-06,0.000
-2.280E-06,0.004
-2.270E-06,0.000
-2.260E-06,0.004
-2.250E-06,0.008
-2.240E-06,0.008
-2.230E-06,0.000
-2.220E-06,0.000
-2.210E-06,0.004
-2.200E-06,0.000
-2.190E-06,0.000
-2.180E-06,0.004
-2.170E-06,0.004
-2.160E-06,0.004
-2.150E-06,0.004
-2.140E-06,-0.004
-2.130E-06,0.004
-2.120E-06,0.004
-2.110E-06,0.004
-2.100E-06,0.000
-2.090E-06,0.004
-2.080E-06,0.004
-2.070E-06,0.004
-2.060E-06,0.004
-2.050E-06,0.000
-2.040E-06,0.004
-2.030E-06,0.000
-2.020E-06,0.004
-2.010E-06,0.004
-2.000E-06,0.004
-1.990E-06,0.000
-1.980E-06,0.004
-1.970E-06,0.004
-1.960E-06,0.004
-1.950E-06,0.000
-1.940E-06,0.000
-1.930E-06,0.004
-1.920E-06,0.000
-1.910E-06,0.004
-1.900E-06,0.000
-1.890E-06,0.004
-1.880E-06,0.004
-1.870E-06,0.000
-1.860E-06,0.004
-1.850E-06,0.004
-1.840E-06,0.000
-1.830E-06,0.000
-1.820E-06,0.000
-1.810E-06,0.004
-1.800E-06,0.008
-1.790E-06,-0.004
-1.780E-06,0.000
-1.770E-06,0.004
-1.760E-06,0.008
-1.750E-06,0.004
-1.740E-06,0.004
-1.730E-06,0.000
-1.720E-06,0.000
-1.710E-06,0.004
-1.700E-06,0.004
-1.690E-06,0.008
-1.680E-06,0.000
-1.670E-06,0.004
-1.660E-06,0.004
-1.650E-06,0.004
-1.640E-06,0.004
-1.630E-06,0.004
-1.620E-06,0.000
-1.610E-06,0.004
-1.600E-06,-0.004
-1.590E-06,0.004
-1.580E-06,0.000
-1.570E-06,0.004
-1.560E-06,0.004
-1.550E-06,0.004
-1.540E-06,0.000
-1.530E-06,0.000
-1.520E-06,0.004
-1.510E-06,0.004
-1.500E-06,0.004
-1.490E-06,0.004
-1.480E-06,0.000
-1.470E-06,0.004
-1.460E-06,0.008
-1.450E-06,0.000
-1.440E-06,0.000
-1.430E-06,0.000
-1.420E-06,0.008
-1.410E-06,0.008
-1.400E-06,0.000
-1.390E-06,-0.004
-1.380E-06,0.004
-1.370E-06,0.000
-1.360E-06,0.004
-1.350E-06,0.004
-1.340E-06,0.004
-1.330E-06,0.004
-1.320E-06,0.008
-1.310E-06,0.008
-1.300E-06,0.000
-1.290E-06,0.000
-1.280E-06,0.004
-1.270E-06,0.004
-1.260E-06,0.000
-1.250E-06,0.000
-1.240E-06,0.004
-1.230E-06,-0.004
-1.220E-06,0.000
-1.210E-06,0.004
-1.200E-06,0.000
-1.190E-06,0.004
-1.180E-06,-0.004
-1.170E-06,0.004
-1.160E-06,0.004
-1.150E-06,0.004
-1.140E-06,0.000
-1.130E-06,0.004
-1.120E-06,0.004
-1.110E-06,0.008
-1.100E-06,0.008
-1.090E-06,0.000
-1.080E-06,0.000
-1.070E-06,0.004
-1.060E-06,0.000
-1.050E-06,0.004
-1.040E-06,0.008
-1.030E-06,0.000
-1.020E-06,0.004
-1.010E-06,0.004
-1.000E-06,0.000
-9.900E-07,0.004
-9.800E-07,0.000
-9.700E-07,0.000
-9.600E-07,0.004
-9.500E-07,-0.004
-9.400E-07,0.000
-9.300E-07,0.000
-9.200E-07,0.000
-9.100E-07,0.000
-9.000E-07,0.004
-8.900E-07,0.004
-8.800E-07,0.004
-8.700E-07,0.004
-8.600E-07,0.000
-8.500E-07,0.008
-8.400E-07,0.008
-8.300E-07,0.008
-8.200E-07,0.008
-8.100E-07,0.000
-8.000E-07,0.000
-7.900E-07,0.004
-7.800E-07,0.004
-7.700E-07,0.004
-7.600E-07,0.004
-7.500E-07,0.004
-7.400E-07,0.004
-7.300E-07,0.000
-7.200E-07,0.004
-7.100E-07,0.000
-7.000E-07,0.000
-6.900E-07,0.004
-6.800E-07,0.004
-6.700E-07,0.004
-6.600E-07,0.004
-6.500E-07,0.004
-6.400E-07,0.004
-6.300E-07,0.004
-6.200E-07,0.004
-6.100E-07,0.004
-6.000E-07,0.004
-5.900E-07,0.004
-5.800E-07,0.000
-5.700E-07,0.004
-5.600E-07,0.004
-5.500E-07,0.004
-5.400E-07,0.000
-5.300E-07,0.004
-5.200E-07,0.004
-5.100E-07,0.000
-5.000E-07,0.004
-4.900E-07,0.004
-4.800E-07,0.004
-4.700E-07,0.000
-4.600E-07,0.000
-4.500E-07,0.004
-4.400E-07,0.000
-4.300E-07,-0.004
-4.200E-07,0.004
-4.100E-07,0.004
-4.000E-07,0.008
-3.900E-07,-0.004
-3.800E-07,0.000
-3.700E-07,0.008
-3.600E-07,0.004
-3.500E-07,0.000
-3.400E-07,0.000
-3.300E-07,0.004
-3.200E-07,0.000
-3.100E-07,0.000
-3.000E-07,0.000
-2.900E-07,0.000
-2.800E-07,0.004
-2.700E-07,0.004
-2.600E-07,0.004
-2.500E-07,0.004
-2.400E-07,0.004
-2.300E-07,0.004
-2.200E-07,0.000
-2.100E-07,0.004
-2.000E-07,0.000
-1.900E-07,0.004
-1.800E-07,0.000
-1.700E-07,0.004
-1.600E-07,0.004
-1.500E-07,0.000
-1.400E-07,0.004
-1.300E-07,0.004
-1.200E-07,0.004
-1.100E-07,0.004
-1.000E-07,0.012
-9.000E-08,0.036
-8.000E-08,0.060
-7.000E-08,0.056
-6.000E-08,0.032
-5.000E-08,0.012
-4.000E-08,-0.220
-3.000E-08,-0.040
-2.000E-08,-0.136
-1.000E-08,-0.156
0.000E+00,0.540
1.000E-08,-0.136
2.000E-08,-0.228
3.000E-08,0.076
4.000E-08,0.024
5.000E-08,-0.104
6.000E-08,0.080
7.000E-08,0.172
8.000E-08,-0.072
9.000E-08,-0.108
1.000E-07,-0.004
1.100E-07,0.092
1.200E-07,0.048
1.300E-07,-0.068
1.400E-07,-0.044
1.500E-07,0.108
1.600E-07,-0.060
1.700E-07,-0.008
1.800E-07,0.080
1.900E-07,-0.004
2.000E-07,-0.020
2.100E-07,0.076
2.200E-07,0.000
2.300E-07,-0.072
2.400E-07,0.052
2.500E-07,0.016
2.600E-07,-0.020
2.700E-07,0.008
2.800E-07,0.016
2.900E-07,-0.052
3.000E-07,-0.008
3.100E-07,0.012
3.200E-07,0.004
3.300E-07,0.028
3.400E-07,0.024
3.500E-07,0.008
3.600E-07,-0.004
3.700E-07,0.016
3.800E-07,0.008
3.900E-07,0.012
4.000E-07,0.008
4.100E-07,0.016
4.200E-07,-0.008
4.300E-07,-0.004
4.400E-07,-0.008
4.500E-07,0.000
4.600E-07,0.000
4.700E-07,0.004
4.800E-07,0.008
4.900E-07,0.004
5.000E-07,0.008
5.100E-07,0.008
5.200E-07,0.012
5.300E-07,0.008
5.400E-07,0.008
5.500E-07,0.008
5.600E-07,-0.004
5.700E-07,0.008
5.800E-07,0.000
5.900E-07,0.012
6.000E-07,0.008
6.100E-07,0.012
6.200E-07,0.000
6.300E-07,0.000
6.400E-07,0.004
6.500E-07,-0.004
6.600E-07,0.000
6.700E-07,0.012
6.800E-07,0.012
6.900E-07,-0.004
7.000E-07,0.012
7.100E-07,0.000
7.200E-07,-0.004
7.300E-07,0.004
7.400E-07,0.008
7.500E-07,0.012
7.600E-07,0.004
7.700E-07,0.008
7.800E-07,0.004
7.900E-07,-0.004
8.000E-07,0.000
8.100E-07,-0.004
8.200E-07,0.000
8.300E-07,0.004
8.400E-07,0.012
8.500E-07,0.008
8.600E-07,0.012
8.700E-07,0.024
8.800E-07,0.000
8.900E-07,-0.012
9.000E-07,-0.016
9.100E-07,0.000
9.200E-07,-0.004
9.300E-07,0.012
9.400E-07,0.008
9.500E-07,0.008
9.600E-07,-0.008
9.700E-07,-0.004
9.800E-07,0.004
9.900E-07,-0.008
1.000E-06,0.012
1.010E-06,0.028
1.020E-06,0.000
1.030E-06,-0.008
1.040E-06,0.000
1.050E-06,0.004
1.060E-06,0.000
1.070E-06,0.012
1.080E-06,0.012
1.090E-06,0.004
1.100E-06,0.004
1.110E-06,-0.008
1.120E-06,-0.004
1.130E-06,-0.004
1.140E-06,0.008
1.150E-06,0.012
1.160E-06,0.008
1.170E-06,0.004
1.180E-06,-0.008
1.190E-06,0.008
1.200E-06,0.008
1.210E-06,0.012
1.220E-06,0.012
1.230E-06,0.004
1.240E-06,0.000
1.250E-06,0.004
1.260E-06,0.008
1.270E-06,0.000
1.280E-06,0.000
1.290E-06,0.008
1.300E-06,0.012
1.310E-06,0.004
1.320E-06,0.004
1.330E-06,0.004
1.340E-06,0.004
1.350E-06,-0.004
1.360E-06,-0.004
1.370E-06,0.008
1.380E-06,0.004
1.390E-06,0.004
1.400E-06,0.004
1.410E-06,-0.008
1.420E-06,0.004
1.430E-06,0.012
1.440E-06,0.004
1.450E-06,-0.004
1.460E-06,0.004
1.470E-06,0.004
1.480E-06,-0.004
1.490E-06,0.008
1.500E-06,0.008
1.510E-06,0.000
1.520E-06,0.004
1.530E-06,0.012
1.540E-06,0.000
1.550E-06,0.004
1.560E-06,-0.004
1.570E-06,0.008
1.580E-06,0.000
1.590E-06,0.000
1.600E-06,0.008
1.610E-06,0.008
1.620E-06,0.004
1.630E-06,0.004
1.640E-06,0.000
1.650E-06,0.004
1.660E-06,0.008
1.670E-06,0.008
1.680E-06,-0.004
1.690E-06,0.008
1.700E-06,-0.004
1.710E-06,0.000
1.720E-06,0.008
1.730E-06,0.012
1.740E-06,0.008
1.750E-06,0.004
1.760E-06,0.016
1.770E-06,0.004
1.780E-06,0.000
1.790E-06,0.008
1.800E-06,0.004
1.810E-06,-0.004
1.820E-06,0.012
1.830E-06,0.004
1.840E-06,-0.008
1.850E-06,0.004
1.860E-06,0.012
1.870E-06,0.004
1.880E-06,0.008
1.890E-06,0.008
1.900E-06,0.008
1.910E-06,0.012
1.920E-06,0.004
1.930E-06,0.000
1.940E-06,0.008
1.950E-06,0.016
1.960E-06,0.000
1.970E-06,0.008
1.980E-06,0.004
1.990E-06,0.008
2.000E-06,0.012
2.010E-06,0.012
2.020E-06,0.016
2.030E-06,0.008
2.040E-06,0.008
2.050E-06,-0.004
2.060E-06,0.012
2.070E-06,-0.008
2.080E-06,0.008
2.090E-06,0.004
2.100E-06,0.012
2.110E-06,0.008
2.120E-06,0.012
2.130E-06,0.016
2.140E-06,0.004
2.150E-06,0.008
2.160E-06,0.016
2.170E-06,0.016
2.180E-06,0.004
2.190E-06,0.008
2.200E-06,0.000
2.210E-06,0.004
2.220E-06,0.008
2.230E-06,0.004
2.240E-06,0.004
2.250E-06,-0.004
2.260E-06,0.000
2.270E-06,0.008
2.280E-06,0.008
2.290E-06,0.004
2.300E-06,0.004
2.310E-06,0.000
2.320E-06,0.000
2.330E-06,0.012
2.340E-06,0.008
2.350E-06,0.004
2.360E-06,0.012
2.370E-06,0.008
2.380E-06,0.000
2.390E-06,0.008
2.400E-06,0.016
2.410E-06,0.004
2.420E-06,0.008
2.430E-06,0.008
2.440E-06,0.012
2.450E-06,0.004
2.460E-06,0.004
2.470E-06,0.000
2.480E-06,0.012
2.490E-06,0.000
2.500E-06,0.012
2.510E-06,0.004
2.520E-06,0.004
2.530E-06,0.008
2.540E-06,0.012
2.550E-06,0.012
2.560E-06,0.012
2.570E-06,0.012
2.580E-06,0.004
2.590E-06,0.008
2.600E-06,0.012
2.610E-06,0.020
2.620E-06,0.016
2.630E-06,0.012
2.640E-06,0.012
2.650E-06,0.008
2.660E-06,0.004
2.670E-06,0.008
2.680E-06,0.016
2.690E-06,0.008
2.700E-06,0.012
2.710E-06,0.008
2.720E-06,0.000
2.730E-06,0.000
2.740E-06,0.012
2.750E-06,0.012
2.760E-06,0.020
2.770E-06,0.016
2.780E-06,0.012
2.790E-06,0.008
2.800E-06,0.004
2.810E-06,0.004
2.820E-06,0.012
2.830E-06,0.016
2.840E-06,0.020
2.850E-06,0.020
2.860E-06,0.016
2.870E-06,0.028
2.880E-06,0.028
2.890E-06,0.032
2.900E-06,0.028
2.910E-06,0.028
2.920E-06,0.024
2.930E-06,0.024
2.940E-06,0.016
2.950E-06,0.008
2.960E-06,0.056
2.970E-06,0.012
2.980E-06,0.008
2.990E-06,-0.020
3.000E-06,-0.044
3.010E-06,-0.048
3.020E-06,-0.028
3.030E-06,-0.004
3.040E-06,-0.004
3.050E-06,0.000
3.060E-06,0.024
3.070E-06,0.016
3.080E-06,-0.036
3.090E-06,-0.028
3.100E-06,-0.024
3.110E-06,-0.020
3.120E-06,0.008
3.130E-06,0.004
3.140E-06,0.000
3.150E-06,0.000
3.160E-06,0.008
3.170E-06,0.004
3.180E-06,0.008
3.190E-06,0.016
3.200E-06,0.004
3.210E-06,0.016
3.220E-06,0.024
3.230E-06,0.008
3.240E-06,0.008
3.250E-06,0.000
3.260E-06,0.004
3.270E-06,0.004
3.280E-06,0.020
3.290E-06,0.000
3.300E-06,0.000
3.310E-06,-0.008
3.320E-06,-0.008
3.330E-06,-0.004
3.340E-06,0.008
3.350E-06,0.028
3.360E-06,0.032
3.370E-06,0.032
3.380E-06,0.024
3.390E-06,0.024
3.400E-06,0.020
3.410E-06,0.024
3.420E-06,0.024
3.430E-06,0.024
3.440E-06,0.024
3.450E-06,0.016
3.460E-06,0.024
3.470E-06,0.028
3.480E-06,0.036
3.490E-06,0.044
3.500E-06,0.052
3.510E-06,0.032
3.520E-06,0.048
3.530E-06,0.028
3.540E-06,0.028
3.550E-06,0.020
3.560E-06,0.024
3.570E-06,0.048
3.580E-06,0.044
3.590E-06,0.068
3.600E-06,0.036
3.610E-06,0.028
3.620E-06,0.064
3.630E-06,0.080
3.640E-06,0.040
3.650E-06,0.036
3.660E-06,-0.088
3.670E-06,-0.152
3.680E-06,-0.372
3.690E-06,-0.004
3.700E-06,0.108
3.710E-06,0.104
3.720E-06,0.032
3.730E-06,-0.104
3.740E-06,-0.024
3.750E-06,-0.152
3.760E-06,-0.012
3.770E-06,0.176
3.780E-06,0.384
3.790E-06,0.036
3.800E-06,-0.024
3.810E-06,-0.296
3.820E-06,-0.252
3.830E-06,0.048
3.840E-06,0.172
3.850E-06,0.212
3.860E-06,0.160
3.870E-06,0.052
3.880E-06,-0.080
3.890E-06,-0.136
3.900E-06,-0.096
3.910E-06,-0.092
3.920E-06,0.060
3.930E-06,0.100
3.940E-06,0.156
3.950E-06,0.000
3.960E-06,0.044
3.970E-06,-0.080
3.980E-06,-0.116
3.990E-06,-0.100
4.000E-06,-0.016
4.010E-06,0.064
4.020E-06,0.084
4.030E-06,0.176
4.040E-06,0.144
4.050E-06,0.008
4.060E-06,-0.024
4.070E-06,-0.012
4.080E-06,-0.004
4.090E-06,0.008
4.100E-06,0.076
4.110E-06,-0.184
4.120E-06,-0.180
4.130E-06,-0.212
4.140E-06,-0.180
4.150E-06,-0.020
4.160E-06,0.044
4.170E-06,0.072
4.180E-06,-0.036
4.190E-06,0.052
4.200E-06,-0.012
4.210E-06,-0.076
4.220E-06,0.004
4.230E-06,0.024
4.240E-06,-0.060
4.250E-06,-0.028
4.260E-06,0.032
4.270E-06,-0.012
4.280E-06,0.008
4.290E-06,0.060
4.300E-06,0.060
4.310E-06,0.004
4.320E-06,-0.008
4.330E-06,0.008
4.340E-06,0.028
4.350E-06,0.096
4.360E-06,0.096
4.370E-06,0.092
4.380E-06,0.028
4.390E-06,-0.004
4.400E-06,-0.020
4.410E-06,-0.032
4.420E-06,0.032
4.430E-06,0.028
4.440E-06,0.060
4.450E-06,-0.048
4.460E-06,0.000
4.470E-06,-0.032
4.480E-06,-0.036
4.490E-06,-0.036
4.500E-06,0.076
4.510E-06,0.064
4.520E-06,0.036
4.530E-06,0.052
4.540E-06,0.000
4.550E-06,-0.012
4.560E-06,-0.036
4.570E-06,0.024
4.580E-06,0.020
4.590E-06,0.076
4.600E-06,0.024
4.610E-06,-0.028
4.620E-06,-0.072
4.630E-06,-0.080
4.640E-06,-0.064
4.650E-06,-0.032
4.660E-06,0.028
4.670E-06,0.032
4.680E-06,0.024
4.690E-06,0.040
4.700E-06,0.008
4.710E-06,-0.008
4.720E-06,-0.020
4.730E-06,0.012
4.740E-06,0.032
4.750E-06,0.068
4.760E-06,0.084
4.770E-06,0.060
4.780E-06,0.024
4.790E-06,0.024
4.800E-06,0.032
4.810E-06,0.048
4.820E-06,0.072
4.830E-06,0.088
4.840E-06,0.100
4.850E-06,0.088
4.860E-06,0.092
4.870E-06,0.068
4.880E-06,0.052
4.890E-06,0.036
4.900E-06,0.032
4.910E-06,0.016
4.920E-06,0.024
4.930E-06,0.012
4.940E-06,0.020
4.950E-06,-0.008
4.960E-06,0.068
4.970E-06,-0.008
4.980E-06,-0.132
4.990E-06,-0.512
5.000E-06,-0.132
5.010E-06,-0.512
5.020E-06,-0.164
5.030E-06,-0.128
5.040E-06,0.540
5.050E-06,0.376
5.060E-06,0.440
5.070E-06,-0.404
5.080E-06,-0.512
5.090E-06,-0.344
5.100E-06,-0.136
5.110E-06,0.096
5.120E-06,0.424
5.130E-06,0.276
5.140E-06,-0.172
5.150E-06,-0.124
5.160E-06,-0.268
5.170E-06,-0.016
5.180E-06,0.060
5.190E-06,0.192
5.200E-06,0.120
5.210E-06,0.084
5.220E-06,0.136
5.230E-06,0.096
5.240E-06,0.112
5.250E-06,-0.024
5.260E-06,-0.040
5.270E-06,-0.056
5.280E-06,-0.004
5.290E-06,0.112
5.300E-06,0.176
5.310E-06,0.152
5.320E-06,0.024
5.330E-06,-0.168
5.340E-06,-0.244
5.350E-06,-0.256
5.360E-06,-0.056
5.370E-06,0.008
5.380E-06,0.168
5.390E-06,0.100
5.400E-06,0.060
5.410E-06,-0.072
5.420E-06,-0.144
5.430E-06,-0.092
5.440E-06,-0.056
5.450E-06,0.088
5.460E-06,0.080
5.470E-06,0.104
5.480E-06,0.064
5.490E-06,0.048
5.500E-06,0.012
5.510E-06,-0.052
5.520E-06,0.028
5.530E-06,0.040
5.540E-06,0.092
5.550E-06,0.096
5.560E-06,0.088
5.570E-06,0.044
5.580E-06,0.052
5.590E-06,0.088
5.600E-06,0.088
5.610E-06,0.116
5.620E-06,0.124
5.630E-06,0.112
5.640E-06,0.004
5.650E-06,-0.356
5.660E-06,-0.368
5.670E-06,-0.412
5.680E-06,-0.272
5.690E-06,0.072
5.700E-06,0.264
5.710E-06,0.276
5.720E-06,0.056
5.730E-06,0.000
5.740E-06,-0.248
5.750E-06,-0.276
5.760E-06,-0.084
5.770E-06,0.096
5.780E-06,0.172
5.790E-06,0.132
5.800E-06,0.108
5.810E-06,-0.004
5.820E-06,-0.012
5.830E-06,-0.028
5.840E-06,-0.008
5.850E-06,0.016
5.860E-06,0.080
5.870E-06,0.112
5.880E-06,0.032
5.890E-06,0.024
5.900E-06,0.000
5.910E-06,0.024
5.920E-06,0.048
5.930E-06,0.108
5.940E-06,0.152
5.950E-06,0.132
5.960E-06,0.028
5.970E-06,-0.060
5.980E-06,-0.124
5.990E-06,-0.164
6.000E-06,-0.120
6.010E-06,-0.072
6.020E-06,0.024
6.030E-06,0.032
6.040E-06,0.028
6.050E-06,-0.096
6.060E-06,-0.128
6.070E-06,-0.108
6.080E-06,-0.040
6.090E-06,0.060
6.100E-06,0.120
6.110E-06,0.100
6.120E-06,0.072
6.130E-06,0.036
6.140E-06,-0.004
6.150E-06,-0.012
6.160E-06,0.020
6.170E-06,0.112
6.180E-06,0.132
6.190E-06,0.152
6.200E-06,0.040
6.210E-06,-0.052
6.220E-06,-0.100
6.230E-06,-0.104
6.240E-06,-0.028
6.250E-06,0.044
6.260E-06,0.076
6.270E-06,0.124
6.280E-06,0.108
6.290E-06,0.068
6.300E-06,0.032
6.310E-06,0.028
6.320E-06,0.044
6.330E-06,0.076
6.340E-06,0.112
6.350E-06,0.136
6.360E-06,0.132
6.370E-06,0.092
6.380E-06,0.064
6.390E-06,0.016
6.400E-06,0.032
6.410E-06,0.036
6.420E-06,0.096
6.430E-06,0.100
6.440E-06,0.096
6.450E-06,0.076
6.460E-06,0.032
6.470E-06,0.012
6.480E-06,0.004
6.490E-06,0.020
6.500E-06,0.060
6.510E-06,0.084
6.520E-06,0.096
6.530E-06,0.096
6.540E-06,0.108
6.550E-06,0.112
6.560E-06,0.104
6.570E-06,0.128
6.580E-06,0.136
6.590E-06,0.144
6.600E-06,0.144
6.610E-06,0.128
6.620E-06,0.108
6.630E-06,0.088
6.640E-06,0.088
6.650E-06,0.072
6.660E-06,0.080
6.670E-06,0.088
6.680E-06,0.072
6.690E-06,0.076
6.700E-06,0.064
6.710E-06,0.052
6.720E-06,0.036
6.730E-06,0.088
6.740E-06,0.104
6.750E-06,0.128
6.760E-06,0.168
6.770E-06,0.100
6.780E-06,-0.052
6.790E-06,-0.512
6.800E-06,-0.508
6.810E-06,-0.512
6.820E-06,-0.512
6.830E-06,-0.100
6.840E-06,0.408
6.850E-06,0.540
6.860E-06,0.536
6.870E-06,0.428
6.880E-06,-0.300
6.890E-06,-0.444
6.900E-06,-0.252
6.910E-06,-0.056
6.920E-06,0.540
6.930E-06,0.536
6.940E-06,0.492
6.950E-06,0.144
6.960E-06,-0.132
6.970E-06,-0.348
6.980E-06,-0.204
6.990E-06,0.108
7.000E-06,0.336
7.010E-06,0.464
7.020E-06,0.320
7.030E-06,0.068
7.040E-06,-0.256
7.050E-06,-0.336
7.060E-06,-0.360
7.070E-06,-0.208
7.080E-06,-0.028
7.090E-06,0.160
7.100E-06,0.264
7.110E-06,0.112
7.120E-06,0.056
7.130E-06,-0.068
7.140E-06,-0.104
7.150E-06,-0.064
7.160E-06,0.100
7.170E-06,0.184
7.180E-06,0.268
7.190E-06,0.228
7.200E-06,0.112
7.210E-06,-0.028
7.220E-06,-0.064
7.230E-06,-0.052
7.240E-06,0.060
7.250E-06,0.192
7.260E-06,0.244
7.270E-06,0.208
7.280E-06,0.088
7.290E-06,-0.008
7.300E-06,-0.060
7.310E-06,-0.036
7.320E-06,0.044
7.330E-06,0.164
7.340E-06,0.228
7.350E-06,0.252
7.360E-06,0.192
7.370E-06,0.124
7.380E-06,0.048
7.390E-06,0.044
7.400E-06,0.092
7.410E-06,0.152
7.420E-06,0.204
7.430E-06,0.204
7.440E-06,0.176
7.450E-06,0.092
7.460E-06,0.004
7.470E-06,-0.036
7.480E-06,0.024
7.490E-06,0.088
7.500E-06,0.164
7.510E-06,0.224
7.520E-06,0.208
7.530E-06,0.104
7.540E-06,0.012
7.550E-06,-0.060
7.560E-06,-0.052
7.570E-06,-0.012
7.580E-06,0.008
7.590E-06,0.008
7.600E-06,-0.020
7.610E-06,-0.080
7.620E-06,-0.144
7.630E-06,-0.164
7.640E-06,-0.152
7.650E-06,-0.016
7.660E-06,0.056
7.670E-06,0.052
7.680E-06,0.072
7.690E-06,0.028
7.700E-06,-0.084
7.710E-06,-0.140
7.720E-06,-0.012
7.730E-06,0.060
7.740E-06,0.228
7.750E-06,0.220
7.760E-06,0.216
7.770E-06,0.112
7.780E-06,0.056
7.790E-06,0.040
7.800E-06,0.048
7.810E-06,0.112
7.820E-06,0.160
7.830E-06,0.236
7.840E-06,0.232
7.850E-06,0.192
7.860E-06,0.108
7.870E-06,0.056
7.880E-06,0.052
7.890E-06,0.088
7.900E-06,0.160
7.910E-06,0.216
7.920E-06,0.236
7.930E-06,0.208
7.940E-06,0.172
7.950E-06,0.124
7.960E-06,0.100
7.970E-06,0.124
7.980E-06,0.152
7.990E-06,0.188
8.000E-06,0.204
8.010E-06,0.192
8.020E-06,0.160
8.030E-06,0.124
8.040E-06,0.108
8.050E-06,0.124
8.060E-06,0.152
8.070E-06,0.180
8.080E-06,0.200
8.090E-06,0.200
8.100E-06,0.176
8.110E-06,0.156
8.120E-06,0.144
8.130E-06,0.136
8.140E-06,0.152
8.150E-06,0.180
8.160E-06,0.192
8.170E-06,0.188
8.180E-06,0.180
8.190E-06,0.156
8.200E-06,0.140
8.210E-06,0.132
8.220E-06,0.140
8.230E-06,0.156
8.240E-06,0.176
8.250E-06,0.172
8.260E-06,0.160
8.270E-06,0.152
8.280E-06,0.144
8.290E-06,0.144
8.300E-06,0.144
8.310E-06,0.160
8.320E-06,0.160
8.330E-06,0.172
8.340E-06,0.164
8.350E-06,0.156
8.360E-06,0.144
8.370E-06,0.140
8.380E-06,0.140
8.390E-06,0.148
8.400E-06,0.156
8.410E-06,0.164
8.420E-06,0.168
8.430E-06,0.164
8.440E-06,0.156
8.450E-06,0.148
8.460E-06,0.144
8.470E-06,0.144
8.480E-06,0.152
8.490E-06,0.164
8.500E-06,0.164
8.510E-06,0.156
8.520E-06,0.152
8.530E-06,0.144
8.540E-06,0.144
8.550E-06,0.136
8.560E-06,0.148
8.570E-06,0.148
8.580E-06,0.156
8.590E-06,0.152
8.600E-06,0.152
8.610E-06,0.152
8.620E-06,0.144
8.630E-06,0.148
8.640E-06,0.148
8.650E-06,0.156
8.660E-06,0.152
8.670E-06,0.152
8.680E-06,0.156
8.690E-06,0.148
8.700E-06,0.148
8.710E-06,0.144
8.720E-06,0.144
8.730E-06,0.144
8.740E-06,0.148
8.750E-06,0.152
8.760E-06,0.152
8.770E-06,0.152
8.780E-06,0.152
8.790E-06,0.148
8.800E-06,0.148
8.810E-06,0.148
8.820E-06,0.152
8.830E-06,0.152
8.840E-06,0.152
8.850E-06,0.148
8.860E-06,0.144
8.870E-06,0.144
8.880E-06,0.136
8.890E-06,0.140
8.900E-06,0.144
8.910E-06,0.152
8.920E-06,0.152
8.930E-06,0.148
8.940E-06,0.148
8.950E-06,0.148
8.960E-06,0.144
8.970E-06,0.144
8.980E-06,0.144
8.990E-06,0.148
9.000E-06,0.148
9.010E-06,0.144
9.020E-06,0.140
9.030E-06,0.140
9.040E-06,0.140
9.050E-06,0.140
9.060E-06,0.132
9.070E-06,0.132
9.080E-06,0.136
9.090E-06,0.140
9.100E-06,0.144
9.110E-06,0.144
9.120E-06,0.136
9.130E-06,0.140
9.140E-06,0.140
9.150E-06,0.140
9.160E-06,0.140
9.170E-06,0.140
9.180E-06,0.144
9.190E-06,0.144
9.200E-06,0.144
9.210E-06,0.136
9.220E-06,0.136
9.230E-06,0.140
9.240E-06,0.136
9.250E-06,0.140
9.260E-06,0.136
9.270E-06,0.140
9.280E-06,0.136
9.290E-06,0.132
9.300E-06,0.132
9.310E-06,0.136
9.320E-06,0.136
9.330E-06,0.140
9.340E-06,0.136
9.350E-06,0.132
9.360E-06,0.128
9.370E-06,0.128
9.380E-06,0.132
9.390E-06,0.136
9.400E-06,0.132
9.410E-06,0.132
9.420E-06,0.124
9.430E-06,0.128
9.440E-06,0.128
9.450E-06,0.128
9.460E-06,0.132
9.470E-06,0.140
9.480E-06,0.140
9.490E-06,0.144
9.500E-06,0.136
9.510E-06,0.128
9.520E-06,0.128
9.530E-06,0.132
9.540E-06,0.132
9.550E-06,0.132
9.560E-06,0.136
9.570E-06,0.136
9.580E-06,0.128
9.590E-06,0.124
9.600E-06,0.132
9.610E-06,0.132
9.620E-06,0.132
9.630E-06,0.132
9.640E-06,0.136
9.650E-06,0.136
9.660E-06,0.132
9.670E-06,0.132
9.680E-06,0.132
9.690E-06,0.128
9.700E-06,0.128
9.710E-06,0.128
9.720E-06,0.128
9.730E-06,0.128
9.740E-06,0.128
9.750E-06,0.124
9.760E-06,0.120
9.770E-06,0.128
9.780E-06,0.128
9.790E-06,0.128
9.800E-06,0.128
9.810E-06,0.128
9.820E-06,0.124
9.830E-06,0.128
9.840E-06,0.124
9.850E-06,0.124
9.860E-06,0.124
9.870E-06,0.120
