mediciones/Mediciones filtradas (saque las feas)/6-3/-7.5/WaveData5351.csv

#timebase=2000000(ps)
,#voltbase=500000(mv/100)
#size=4000
-2.300E-06,0.620
-2.290E-06,0.700
-2.280E-06,0.800
-2.270E-06,0.820
-2.260E-06,0.840
-2.250E-06,0.860
-2.240E-06,0.800
-2.230E-06,0.760
-2.220E-06,0.480
-2.210E-06,0.080
-2.200E-06,-0.260
-2.190E-06,-0.540
-2.180E-06,-0.460
-2.170E-06,-0.260
-2.160E-06,0.240
-2.150E-06,0.600
-2.140E-06,0.840
-2.130E-06,0.900
-2.120E-06,0.920
-2.110E-06,1.000
-2.100E-06,1.200
-2.090E-06,1.460
-2.080E-06,1.860
-2.070E-06,2.040
-2.060E-06,2.160
-2.050E-06,2.120
-2.040E-06,2.080
-2.030E-06,2.020
-2.020E-06,2.040
-2.010E-06,1.800
-2.000E-06,1.900
-1.990E-06,1.860
-1.980E-06,1.600
-1.970E-06,1.220
-1.960E-06,0.740
-1.950E-06,0.580
-1.940E-06,0.520
-1.930E-06,0.760
-1.920E-06,0.940
-1.910E-06,1.060
-1.900E-06,0.980
-1.890E-06,1.200
-1.880E-06,1.120
-1.870E-06,1.440
-1.860E-06,1.720
-1.850E-06,1.900
-1.840E-06,2.520
-1.830E-06,2.500
-1.820E-06,2.640
-1.810E-06,2.480
-1.800E-06,2.340
-1.790E-06,2.420
-1.780E-06,2.440
-1.770E-06,2.560
-1.760E-06,2.500
-1.750E-06,2.360
-1.740E-06,2.120
-1.730E-06,1.780
-1.720E-06,1.580
-1.710E-06,1.360
-1.700E-06,1.340
-1.690E-06,1.200
-1.680E-06,1.100
-1.670E-06,0.980
-1.660E-06,0.920
-1.650E-06,0.820
-1.640E-06,0.800
-1.630E-06,0.860
-1.620E-06,0.880
-1.610E-06,0.920
-1.600E-06,0.940
-1.590E-06,0.920
-1.580E-06,0.900
-1.570E-06,0.900
-1.560E-06,0.900
-1.550E-06,0.900
-1.540E-06,0.820
-1.530E-06,0.740
-1.520E-06,0.680
-1.510E-06,0.540
-1.500E-06,0.480
-1.490E-06,0.480
-1.480E-06,0.480
-1.470E-06,0.440
-1.460E-06,0.420
-1.450E-06,0.400
-1.440E-06,0.380
-1.430E-06,0.360
-1.420E-06,0.460
-1.410E-06,0.560
-1.400E-06,0.680
-1.390E-06,0.760
-1.380E-06,0.820
-1.370E-06,0.860
-1.360E-06,0.860
-1.350E-06,0.880
-1.340E-06,0.940
-1.330E-06,0.980
-1.320E-06,1.020
-1.310E-06,1.000
-1.300E-06,1.020
-1.290E-06,1.020
-1.280E-06,0.960
-1.270E-06,0.940
-1.260E-06,0.900
-1.250E-06,0.900
-1.240E-06,0.840
-1.230E-06,0.840
-1.220E-06,0.820
-1.210E-06,0.780
-1.200E-06,0.760
-1.190E-06,0.760
-1.180E-06,0.840
-1.170E-06,0.940
-1.160E-06,1.060
-1.150E-06,1.080
-1.140E-06,1.020
-1.130E-06,0.980
-1.120E-06,0.800
-1.110E-06,0.600
-1.100E-06,0.380
-1.090E-06,0.260
-1.080E-06,0.120
-1.070E-06,0.080
-1.060E-06,-0.060
-1.050E-06,-0.400
-1.040E-06,-0.700
-1.030E-06,-1.020
-1.020E-06,-0.820
-1.010E-06,-0.380
-1.000E-06,0.360
-9.900E-07,0.940
-9.800E-07,1.340
-9.700E-07,1.340
-9.600E-07,1.200
-9.500E-07,1.400
-9.400E-07,1.460
-9.300E-07,1.760
-9.200E-07,1.880
-9.100E-07,2.000
-9.000E-07,1.900
-8.900E-07,1.460
-8.800E-07,1.460
-8.700E-07,1.240
-8.600E-07,1.280
-8.500E-07,1.400
-8.400E-07,1.300
-8.300E-07,1.100
-8.200E-07,0.920
-8.100E-07,0.600
-8.000E-07,0.300
-7.900E-07,0.120
-7.800E-07,0.320
-7.700E-07,0.200
-7.600E-07,0.480
-7.500E-07,0.660
-7.400E-07,0.840
-7.300E-07,0.860
-7.200E-07,0.980
-7.100E-07,0.840
-7.000E-07,0.940
-6.900E-07,0.720
-6.800E-07,0.640
-6.700E-07,0.620
-6.600E-07,0.680
-6.500E-07,0.640
-6.400E-07,0.800
-6.300E-07,0.660
-6.200E-07,0.540
-6.100E-07,0.380
-6.000E-07,0.040
-5.900E-07,-0.100
-5.800E-07,-0.120
-5.700E-07,0.060
-5.600E-07,-0.140
-5.500E-07,0.140
-5.400E-07,0.100
-5.300E-07,0.080
-5.200E-07,0.140
-5.100E-07,0.220
-5.000E-07,0.320
-4.900E-07,0.380
-4.800E-07,0.520
-4.700E-07,0.560
-4.600E-07,0.500
-4.500E-07,0.640
-4.400E-07,0.580
-4.300E-07,0.640
-4.200E-07,0.820
-4.100E-07,1.020
-4.000E-07,0.920
-3.900E-07,1.020
-3.800E-07,1.100
-3.700E-07,1.160
-3.600E-07,1.160
-3.500E-07,1.200
-3.400E-07,1.180
-3.300E-07,1.180
-3.200E-07,1.140
-3.100E-07,1.320
-3.000E-07,1.320
-2.900E-07,1.400
-2.800E-07,1.420
-2.700E-07,1.380
-2.600E-07,1.320
-2.500E-07,1.300
-2.400E-07,1.400
-2.300E-07,1.440
-2.200E-07,1.440
-2.100E-07,1.520
-2.000E-07,1.520
-1.900E-07,1.400
-1.800E-07,1.360
-1.700E-07,1.280
-1.600E-07,1.180
-1.500E-07,1.200
-1.400E-07,1.200
-1.300E-07,1.100
-1.200E-07,1.100
-1.100E-07,1.100
-1.000E-07,1.040
-9.000E-08,1.180
-8.000E-08,0.900
-7.000E-08,0.740
-6.000E-08,0.520
-5.000E-08,0.000
-4.000E-08,-1.040
-3.000E-08,-1.500
-2.000E-08,-2.640
-1.000E-08,-2.620
0.000E+00,-2.540
1.000E-08,-1.460
2.000E-08,-0.520
3.000E-08,0.060
4.000E-08,-0.320
5.000E-08,-0.420
6.000E-08,-0.400
7.000E-08,0.200
8.000E-08,1.200
9.000E-08,1.820
1.000E-07,2.380
1.100E-07,2.140
1.200E-07,1.640
1.300E-07,1.580
1.400E-07,1.640
1.500E-07,1.880
1.600E-07,2.280
1.700E-07,2.280
1.800E-07,1.860
1.900E-07,1.600
2.000E-07,0.980
2.100E-07,0.580
2.200E-07,0.180
2.300E-07,-0.020
2.400E-07,-0.120
2.500E-07,-0.140
2.600E-07,0.020
2.700E-07,-0.060
2.800E-07,-0.260
2.900E-07,-0.500
3.000E-07,-0.580
3.100E-07,-0.500
3.200E-07,-0.360
3.300E-07,-0.260
3.400E-07,0.060
3.500E-07,0.140
3.600E-07,0.120
3.700E-07,0.100
3.800E-07,0.000
3.900E-07,-0.160
4.000E-07,-0.260
4.100E-07,-0.160
4.200E-07,-0.020
4.300E-07,0.100
4.400E-07,0.020
4.500E-07,-0.020
4.600E-07,-0.220
4.700E-07,-0.420
4.800E-07,-0.640
4.900E-07,-0.740
5.000E-07,-0.800
5.100E-07,-0.720
5.200E-07,-0.560
5.300E-07,-0.260
5.400E-07,-0.060
5.500E-07,-0.020
5.600E-07,0.080
5.700E-07,0.000
5.800E-07,-0.080
5.900E-07,0.020
6.000E-07,0.000
6.100E-07,0.220
6.200E-07,0.200
6.300E-07,0.100
6.400E-07,-0.160
6.500E-07,-0.680
6.600E-07,-0.780
6.700E-07,-1.020
6.800E-07,-0.900
6.900E-07,-0.820
7.000E-07,-0.740
7.100E-07,-0.920
7.200E-07,-1.040
7.300E-07,-1.240
7.400E-07,-1.260
7.500E-07,-1.220
7.600E-07,-0.980
7.700E-07,-0.780
7.800E-07,-0.600
7.900E-07,-0.360
8.000E-07,-0.340
8.100E-07,-0.360
8.200E-07,-0.440
8.300E-07,-0.400
8.400E-07,-0.440
8.500E-07,-0.380
8.600E-07,-0.460
8.700E-07,-0.560
8.800E-07,-0.800
8.900E-07,-0.780
9.000E-07,-1.120
9.100E-07,-1.480
9.200E-07,-1.520
9.300E-07,-2.220
9.400E-07,-1.820
9.500E-07,-2.640
9.600E-07,-2.660
9.700E-07,-2.660
9.800E-07,-2.680
9.900E-07,-1.800
1.000E-06,-0.800
1.010E-06,0.000
1.020E-06,-0.100
1.030E-06,-1.620
1.040E-06,-1.780
1.050E-06,-1.300
1.060E-06,-0.080
1.070E-06,1.800
1.080E-06,2.560
1.090E-06,2.200
1.100E-06,1.360
1.110E-06,0.180
1.120E-06,0.480
1.130E-06,0.520
1.140E-06,1.620
1.150E-06,1.480
1.160E-06,0.720
1.170E-06,0.180
1.180E-06,-0.240
1.190E-06,-0.120
1.200E-06,-0.180
1.210E-06,0.060
1.220E-06,-0.160
1.230E-06,-0.760
1.240E-06,-1.100
1.250E-06,-1.240
1.260E-06,-1.480
1.270E-06,-1.520
1.280E-06,-1.600
1.290E-06,-1.440
1.300E-06,-1.140
1.310E-06,-0.980
1.320E-06,-0.840
1.330E-06,-1.020
1.340E-06,-1.220
1.350E-06,-1.500
1.360E-06,-1.620
1.370E-06,-1.520
1.380E-06,-1.520
1.390E-06,-1.020
1.400E-06,-0.460
1.410E-06,-0.440
1.420E-06,-0.240
1.430E-06,-0.740
1.440E-06,-1.420
1.450E-06,-1.340
1.460E-06,-1.760
1.470E-06,-1.400
1.480E-06,-1.020
1.490E-06,-1.480
1.500E-06,-1.520
1.510E-06,-2.300
1.520E-06,-2.520
1.530E-06,-2.620
1.540E-06,-2.660
1.550E-06,-2.480
1.560E-06,-2.280
1.570E-06,-2.000
1.580E-06,-1.740
1.590E-06,-1.860
1.600E-06,-1.920
1.610E-06,-2.180
1.620E-06,-2.300
1.630E-06,-2.280
1.640E-06,-2.160
1.650E-06,-2.020
1.660E-06,-1.920
1.670E-06,-2.260
1.680E-06,-2.580
1.690E-06,-2.660
1.700E-06,-2.660
1.710E-06,-2.660
1.720E-06,-2.660
1.730E-06,-2.660
1.740E-06,-2.660
1.750E-06,-2.660
1.760E-06,-2.660
1.770E-06,-2.660
1.780E-06,-2.660
1.790E-06,-2.680
1.800E-06,-2.660
1.810E-06,-2.660
1.820E-06,-2.660
1.830E-06,-2.660
1.840E-06,-2.640
1.850E-06,-2.640
1.860E-06,-2.660
1.870E-06,-2.660
1.880E-06,-2.660
1.890E-06,-2.660
1.900E-06,-2.660
1.910E-06,-2.660
1.920E-06,-2.680
1.930E-06,-2.660
1.940E-06,-2.660
1.950E-06,-2.640
1.960E-06,-2.640
1.970E-06,-2.640
1.980E-06,-2.660
1.990E-06,-2.660
2.000E-06,-2.660
2.010E-06,-2.660
2.020E-06,-2.640
2.030E-06,-2.660
2.040E-06,-2.660
2.050E-06,-1.820
2.060E-06,-1.240
2.070E-06,-1.460
2.080E-06,-2.120
2.090E-06,-2.680
2.100E-06,-2.680
2.110E-06,-2.680
2.120E-06,-2.660
2.130E-06,-2.660
2.140E-06,-2.660
2.150E-06,-2.660
2.160E-06,-2.660
2.170E-06,-2.680
2.180E-06,-2.680
2.190E-06,-2.660
2.200E-06,-2.660
2.210E-06,-2.660
2.220E-06,-2.660
2.230E-06,-2.680
2.240E-06,-2.660
2.250E-06,-2.660
2.260E-06,-2.660
2.270E-06,-2.660
2.280E-06,-2.660
2.290E-06,-2.660
2.300E-06,-2.640
2.310E-06,-2.660
2.320E-06,-2.660
2.330E-06,-2.660
2.340E-06,-2.660
2.350E-06,-2.660
2.360E-06,-2.640
2.370E-06,-2.640
2.380E-06,-2.520
2.390E-06,-2.400
2.400E-06,-1.860
2.410E-06,-1.540
2.420E-06,-1.040
2.430E-06,-0.860
2.440E-06,-0.600
2.450E-06,-0.540
2.460E-06,-0.120
2.470E-06,-0.300
2.480E-06,-0.320
2.490E-06,-0.440
2.500E-06,-0.340
2.510E-06,-0.100
2.520E-06,0.000
2.530E-06,-0.200
2.540E-06,-0.680
2.550E-06,-1.220
2.560E-06,-1.680
2.570E-06,-1.920
2.580E-06,-1.840
2.590E-06,-1.680
2.600E-06,-1.800
2.610E-06,-1.700
2.620E-06,-1.740
2.630E-06,-1.780
2.640E-06,-1.880
2.650E-06,-1.860
2.660E-06,-1.660
2.670E-06,-1.440
2.680E-06,-1.080
2.690E-06,-0.900
2.700E-06,-0.960
2.710E-06,-0.900
2.720E-06,-0.840
2.730E-06,-0.680
2.740E-06,-0.680
2.750E-06,-0.700
2.760E-06,-0.700
2.770E-06,-0.660
2.780E-06,-0.380
2.790E-06,-0.400
2.800E-06,-0.420
2.810E-06,-0.340
2.820E-06,-0.180
2.830E-06,-0.340
2.840E-06,-0.180
2.850E-06,-0.500
2.860E-06,-0.560
2.870E-06,-0.500
2.880E-06,-0.860
2.890E-06,-0.680
2.900E-06,-0.900
2.910E-06,-0.760
2.920E-06,-0.860
2.930E-06,-0.560
2.940E-06,-0.580
2.950E-06,-0.480
2.960E-06,-0.660
2.970E-06,-0.520
2.980E-06,-0.360
2.990E-06,-0.080
3.000E-06,0.080
3.010E-06,0.300
3.020E-06,0.360
3.030E-06,0.360
3.040E-06,0.220
3.050E-06,-0.340
3.060E-06,-0.760
3.070E-06,-1.180
3.080E-06,-1.700
3.090E-06,-2.500
3.100E-06,-1.840
3.110E-06,-1.440
3.120E-06,-1.020
3.130E-06,0.460
3.140E-06,0.540
3.150E-06,-0.120
3.160E-06,-1.440
3.170E-06,-2.360
3.180E-06,-2.660
3.190E-06,-2.180
3.200E-06,-0.680
3.210E-06,0.640
3.220E-06,1.020
3.230E-06,0.840
3.240E-06,0.220
3.250E-06,-0.260
3.260E-06,-0.360
3.270E-06,-0.040
3.280E-06,0.060
3.290E-06,-0.080
3.300E-06,-0.300
3.310E-06,-0.860
3.320E-06,-1.560
3.330E-06,-2.260
3.340E-06,-2.660
3.350E-06,-2.660
3.360E-06,-2.660
3.370E-06,-2.680
3.380E-06,-2.680
3.390E-06,-2.680
3.400E-06,-2.680
3.410E-06,-2.680
3.420E-06,-2.680
3.430E-06,-2.660
3.440E-06,-2.660
3.450E-06,-2.660
3.460E-06,-2.660
3.470E-06,-2.660
3.480E-06,-2.660
3.490E-06,-2.680
3.500E-06,-2.680
3.510E-06,-2.660
3.520E-06,-2.660
3.530E-06,-2.640
3.540E-06,-2.660
3.550E-06,-2.660
3.560E-06,-2.660
3.570E-06,-2.660
3.580E-06,-2.660
3.590E-06,-2.640
3.600E-06,-2.660
3.610E-06,-2.660
3.620E-06,-2.660
3.630E-06,-2.660
3.640E-06,-2.660
3.650E-06,-2.660
3.660E-06,-2.660
3.670E-06,-2.660
3.680E-06,-2.660
3.690E-06,-2.660
3.700E-06,-2.660
3.710E-06,-2.660
3.720E-06,-2.660
3.730E-06,-2.680
3.740E-06,-2.660
3.750E-06,-2.660
3.760E-06,-2.640
3.770E-06,-2.640
3.780E-06,-2.640
3.790E-06,-2.660
3.800E-06,-2.660
3.810E-06,-2.660
3.820E-06,-2.660
3.830E-06,-2.660
3.840E-06,-2.660
3.850E-06,-2.660
3.860E-06,-2.660
3.870E-06,-2.660
3.880E-06,-2.660
3.890E-06,-2.660
3.900E-06,-2.680
3.910E-06,-2.540
3.920E-06,-2.020
3.930E-06,-1.520
3.940E-06,-1.200
3.950E-06,-1.000
3.960E-06,-0.840
3.970E-06,-0.680
3.980E-06,-0.640
3.990E-06,-0.560
4.000E-06,-0.540
4.010E-06,-0.640
4.020E-06,-0.800
4.030E-06,-1.000
4.040E-06,-1.280
4.050E-06,-1.620
4.060E-06,-1.980
4.070E-06,-2.260
4.080E-06,-2.380
4.090E-06,-2.520
4.100E-06,-2.580
4.110E-06,-2.660
4.120E-06,-2.660
4.130E-06,-2.660
4.140E-06,-2.660
4.150E-06,-2.660
4.160E-06,-2.660
4.170E-06,-2.660
4.180E-06,-2.660
4.190E-06,-2.660
4.200E-06,-2.660
4.210E-06,-2.660
4.220E-06,-2.660
4.230E-06,-2.660
4.240E-06,-2.660
4.250E-06,-2.660
4.260E-06,-2.660
4.270E-06,-2.660
4.280E-06,-2.640
4.290E-06,-2.640
4.300E-06,-2.660
4.310E-06,-2.660
4.320E-06,-2.660
4.330E-06,-2.660
4.340E-06,-2.660
4.350E-06,-2.660
4.360E-06,-2.660
4.370E-06,-2.640
4.380E-06,-2.640
4.390E-06,-2.120
4.400E-06,-1.180
4.410E-06,-0.560
4.420E-06,0.000
4.430E-06,1.000
4.440E-06,0.560
4.450E-06,1.000
4.460E-06,-0.100
4.470E-06,-0.100
4.480E-06,-0.180
4.490E-06,0.560
4.500E-06,0.920
4.510E-06,1.260
4.520E-06,0.760
4.530E-06,0.980
4.540E-06,0.880
4.550E-06,1.280
4.560E-06,1.580
4.570E-06,1.560
4.580E-06,1.360
4.590E-06,1.360
4.600E-06,1.180
4.610E-06,1.260
4.620E-06,1.120
4.630E-06,1.020
4.640E-06,0.580
4.650E-06,0.320
4.660E-06,0.060
4.670E-06,-0.160
4.680E-06,-0.600
4.690E-06,-1.060
4.700E-06,-1.600
4.710E-06,-2.040
4.720E-06,-2.500
4.730E-06,-2.660
4.740E-06,-2.660
4.750E-06,-2.660
4.760E-06,-2.660
4.770E-06,-2.680
4.780E-06,-2.680
4.790E-06,-2.660
4.800E-06,-2.660
4.810E-06,-2.660
4.820E-06,-2.660
4.830E-06,-2.660
4.840E-06,-2.660
4.850E-06,-2.660
4.860E-06,-2.660
4.870E-06,-2.640
4.880E-06,-2.640
4.890E-06,-2.640
4.900E-06,-2.640
4.910E-06,-2.640
4.920E-06,-2.640
4.930E-06,-2.580
4.940E-06,-2.480
4.950E-06,-2.420
4.960E-06,-2.360
4.970E-06,-2.380
4.980E-06,-2.320
4.990E-06,-2.320
5.000E-06,-2.360
5.010E-06,-2.400
5.020E-06,-2.520
5.030E-06,-2.580
5.040E-06,-2.640
5.050E-06,-2.660
5.060E-06,-2.660
5.070E-06,-2.680
5.080E-06,-2.660
5.090E-06,-2.660
5.100E-06,-2.640
5.110E-06,-2.660
5.120E-06,-2.660
5.130E-06,-2.640
5.140E-06,-2.640
5.150E-06,-2.660
5.160E-06,-2.660
5.170E-06,-2.660
5.180E-06,-2.660
5.190E-06,-2.420
5.200E-06,-2.180
5.210E-06,-1.740
5.220E-06,-1.580
5.230E-06,-1.520
5.240E-06,-1.660
5.250E-06,-1.900
5.260E-06,-2.120
5.270E-06,-2.080
5.280E-06,-1.860
5.290E-06,-1.560
5.300E-06,-1.440
5.310E-06,-1.340
5.320E-06,-1.460
5.330E-06,-1.620
5.340E-06,-1.700
5.350E-06,-1.740
5.360E-06,-1.680
5.370E-06,-1.640
5.380E-06,-1.640
5.390E-06,-1.660
5.400E-06,-1.660
5.410E-06,-1.700
5.420E-06,-1.840
5.430E-06,-1.980
5.440E-06,-2.120
5.450E-06,-2.160
5.460E-06,-2.240
5.470E-06,-2.300
5.480E-06,-2.360
5.490E-06,-2.460
5.500E-06,-2.600
5.510E-06,-2.680
5.520E-06,-2.680
5.530E-06,-2.660
5.540E-06,-2.660
5.550E-06,-2.660
5.560E-06,-2.660
5.570E-06,-2.660
5.580E-06,-2.660
5.590E-06,-2.660
5.600E-06,-2.660
5.610E-06,-2.540
5.620E-06,-2.360
5.630E-06,-2.180
5.640E-06,-1.960
5.650E-06,-1.800
5.660E-06,-1.640
5.670E-06,-1.500
5.680E-06,-1.360
5.690E-06,-1.240
5.700E-06,-1.100
5.710E-06,-1.060
5.720E-06,-1.020
5.730E-06,-0.960
5.740E-06,-0.960
5.750E-06,-0.940
5.760E-06,-0.960
5.770E-06,-0.980
5.780E-06,-0.980
5.790E-06,-0.980
5.800E-06,-0.980
5.810E-06,-1.000
5.820E-06,-1.000
5.830E-06,-1.020
5.840E-06,-1.060
5.850E-06,-1.120
5.860E-06,-1.180
5.870E-06,-1.240
5.880E-06,-1.260
5.890E-06,-1.220
5.900E-06,-1.220
5.910E-06,-1.160
5.920E-06,-1.200
5.930E-06,-1.100
5.940E-06,-1.040
5.950E-06,-1.020
5.960E-06,-1.000
5.970E-06,-0.920
5.980E-06,-0.940
5.990E-06,-0.920
6.000E-06,-0.940
6.010E-06,-0.960
6.020E-06,-1.020
6.030E-06,-1.100
6.040E-06,-1.180
6.050E-06,-1.280
6.060E-06,-1.360
6.070E-06,-1.480
6.080E-06,-1.580
6.090E-06,-1.680
6.100E-06,-1.680
6.110E-06,-1.740
6.120E-06,-1.780
6.130E-06,-1.760
6.140E-06,-1.760
6.150E-06,-1.740
6.160E-06,-1.780
6.170E-06,-1.740
6.180E-06,-1.740
6.190E-06,-1.700
6.200E-06,-1.600
6.210E-06,-1.540
6.220E-06,-1.440
6.230E-06,-1.320
6.240E-06,-1.220
6.250E-06,-1.100
6.260E-06,-1.000
6.270E-06,-0.960
6.280E-06,-0.880
6.290E-06,-0.860
6.300E-06,-0.880
6.310E-06,-0.860
6.320E-06,-0.900
6.330E-06,-0.880
6.340E-06,-0.900
6.350E-06,-0.920
6.360E-06,-0.920
6.370E-06,-0.960
6.380E-06,-1.020
6.390E-06,-1.020
6.400E-06,-1.060
6.410E-06,-1.040
6.420E-06,-1.000
6.430E-06,-0.940
6.440E-06,-0.820
6.450E-06,-0.740
6.460E-06,-0.680
6.470E-06,-0.660
6.480E-06,-0.600
6.490E-06,-0.560
6.500E-06,-0.600
6.510E-06,-0.560
6.520E-06,-0.600
6.530E-06,-0.600
6.540E-06,-0.660
6.550E-06,-0.740
6.560E-06,-0.780
6.570E-06,-0.840
6.580E-06,-0.900
6.590E-06,-0.960
6.600E-06,-0.980
6.610E-06,-1.000
6.620E-06,-1.060
6.630E-06,-1.100
6.640E-06,-1.080
6.650E-06,-1.140
6.660E-06,-1.160
6.670E-06,-1.160
6.680E-06,-1.160
6.690E-06,-1.140
6.700E-06,-1.020
6.710E-06,-0.940
6.720E-06,-0.840
6.730E-06,-0.720
6.740E-06,-0.640
6.750E-06,-0.600
6.760E-06,-0.560
6.770E-06,-0.500
6.780E-06,-0.500
6.790E-06,-0.520
6.800E-06,-0.520
6.810E-06,-0.500
6.820E-06,-0.520
6.830E-06,-0.500
6.840E-06,-0.560
6.850E-06,-0.560
6.860E-06,-0.560
6.870E-06,-0.560
6.880E-06,-0.500
6.890E-06,-0.460
6.900E-06,-0.480
6.910E-06,-0.540
6.920E-06,-0.540
6.930E-06,-0.580
6.940E-06,-0.580
6.950E-06,-0.660
6.960E-06,-0.700
6.970E-06,-0.720
6.980E-06,-0.740
6.990E-06,-0.760
7.000E-06,-0.760
7.010E-06,-0.800
7.020E-06,-0.780
7.030E-06,-0.780
7.040E-06,-0.800
7.050E-06,-0.800
7.060E-06,-0.840
7.070E-06,-0.840
7.080E-06,-0.840
7.090E-06,-0.800
7.100E-06,-0.760
7.110E-06,-0.680
7.120E-06,-0.600
7.130E-06,-0.600
7.140E-06,-0.600
7.150E-06,-0.600
7.160E-06,-0.620
7.170E-06,-0.600
7.180E-06,-0.620
7.190E-06,-0.620
7.200E-06,-0.560
7.210E-06,-0.520
7.220E-06,-0.360
7.230E-06,-0.180
7.240E-06,-0.100
7.250E-06,0.000
7.260E-06,0.060
7.270E-06,0.040
7.280E-06,0.080
7.290E-06,0.060
7.300E-06,0.120
7.310E-06,0.180
7.320E-06,0.220
7.330E-06,0.240
7.340E-06,0.300
7.350E-06,0.320
7.360E-06,0.340
7.370E-06,0.340
7.380E-06,0.220
7.390E-06,0.120
7.400E-06,0.040
7.410E-06,0.000
7.420E-06,-0.100
7.430E-06,-0.200
7.440E-06,-0.320
7.450E-06,-0.500
7.460E-06,-0.640
7.470E-06,-0.680
7.480E-06,-0.760
7.490E-06,-0.740
7.500E-06,-0.680
7.510E-06,-0.640
7.520E-06,-0.600
7.530E-06,-0.660
7.540E-06,-0.600
7.550E-06,-0.600
7.560E-06,-0.600
7.570E-06,-0.580
7.580E-06,-0.560
7.590E-06,-0.580
7.600E-06,-0.540
7.610E-06,-0.560
7.620E-06,-0.540
7.630E-06,-0.520
7.640E-06,-0.500
7.650E-06,-0.480
7.660E-06,-0.460
7.670E-06,-0.380
7.680E-06,-0.300
7.690E-06,-0.260
7.700E-06,-0.180
7.710E-06,-0.160
7.720E-06,-0.040
7.730E-06,0.020
7.740E-06,0.100
7.750E-06,0.140
7.760E-06,0.180
7.770E-06,0.240
7.780E-06,0.300
7.790E-06,0.400
7.800E-06,0.440
7.810E-06,0.440
7.820E-06,0.460
7.830E-06,0.500
7.840E-06,0.500
7.850E-06,0.500
7.860E-06,0.460
7.870E-06,0.400
7.880E-06,0.400
7.890E-06,0.320
7.900E-06,0.320
7.910E-06,0.280
7.920E-06,0.260
7.930E-06,0.240
7.940E-06,0.220
7.950E-06,0.220
7.960E-06,0.200
7.970E-06,0.220
7.980E-06,0.260
7.990E-06,0.280
8.000E-06,0.260
8.010E-06,0.300
8.020E-06,0.260
8.030E-06,0.220
8.040E-06,0.200
8.050E-06,0.160
8.060E-06,0.120
8.070E-06,0.220
8.080E-06,0.200
8.090E-06,0.240
8.100E-06,0.300
8.110E-06,0.320
8.120E-06,0.360
8.130E-06,0.360
8.140E-06,0.360
8.150E-06,0.340
8.160E-06,0.260
8.170E-06,0.240
8.180E-06,0.200
8.190E-06,0.180
8.200E-06,0.140
8.210E-06,0.140
8.220E-06,0.080
8.230E-06,0.060
8.240E-06,0.080
8.250E-06,0.140
8.260E-06,0.180
8.270E-06,0.320
8.280E-06,0.420
8.290E-06,0.520
8.300E-06,0.740
8.310E-06,0.920
8.320E-06,1.000
8.330E-06,1.100
8.340E-06,1.120
8.350E-06,1.180
8.360E-06,1.060
8.370E-06,1.000
8.380E-06,1.200
8.390E-06,1.340
8.400E-06,1.360
8.410E-06,1.400
8.420E-06,1.320
8.430E-06,1.240
8.440E-06,1.080
8.450E-06,1.060
8.460E-06,1.040
8.470E-06,1.020
8.480E-06,0.960
8.490E-06,0.860
8.500E-06,0.780
8.510E-06,0.660
8.520E-06,0.620
8.530E-06,0.540
8.540E-06,0.480
8.550E-06,0.400
8.560E-06,0.380
8.570E-06,0.340
8.580E-06,0.320
8.590E-06,0.320
8.600E-06,0.280
8.610E-06,0.340
8.620E-06,0.360
8.630E-06,0.400
8.640E-06,0.440
8.650E-06,0.500
8.660E-06,0.520
8.670E-06,0.580
8.680E-06,0.640
8.690E-06,0.680
8.700E-06,0.720
8.710E-06,0.780
8.720E-06,0.840
8.730E-06,0.840
8.740E-06,0.900
8.750E-06,0.920
8.760E-06,1.000
8.770E-06,1.000
8.780E-06,1.000
8.790E-06,1.000
8.800E-06,1.020
8.810E-06,1.080
8.820E-06,1.060
8.830E-06,1.060
8.840E-06,1.020
8.850E-06,1.000
8.860E-06,0.960
8.870E-06,0.920
8.880E-06,0.920
8.890E-06,0.940
8.900E-06,0.860
8.910E-06,0.860
8.920E-06,0.820
8.930E-06,0.780
8.940E-06,0.700
8.950E-06,0.640
8.960E-06,0.540
8.970E-06,0.520
8.980E-06,0.460
8.990E-06,0.420
9.000E-06,0.420
9.010E-06,0.420
9.020E-06,0.420
9.030E-06,0.460
9.040E-06,0.560
9.050E-06,0.660
9.060E-06,0.760
9.070E-06,0.880
9.080E-06,1.000
9.090E-06,1.060
9.100E-06,1.180
9.110E-06,1.220
9.120E-06,1.320
9.130E-06,1.400
9.140E-06,1.500
9.150E-06,1.600
9.160E-06,1.680
9.170E-06,1.700
9.180E-06,1.780
9.190E-06,1.820
9.200E-06,1.820
9.210E-06,1.820
9.220E-06,1.760
9.230E-06,1.740
9.240E-06,1.680
9.250E-06,1.640
9.260E-06,1.540
9.270E-06,1.480
9.280E-06,1.360
9.290E-06,1.320
9.300E-06,1.240
9.310E-06,1.180
9.320E-06,1.140
9.330E-06,1.060
9.340E-06,1.020
9.350E-06,0.960
9.360E-06,1.020
9.370E-06,1.060
9.380E-06,1.160
9.390E-06,1.280
9.400E-06,1.400
9.410E-06,1.560
9.420E-06,1.780
9.430E-06,1.980
9.440E-06,2.240
9.450E-06,2.580
9.460E-06,2.760
9.470E-06,2.760
9.480E-06,2.760
9.490E-06,2.780
9.500E-06,2.760
9.510E-06,2.740
9.520E-06,2.760
9.530E-06,2.760
9.540E-06,2.740
9.550E-06,2.760
9.560E-06,2.780
9.570E-06,2.760
